<svg xmlns="http://www.w3.org/2000/svg" width="22" height="22" version="1">
 <rect style="opacity:0.2" width="20" height="12" x="1" y="8.5" rx="1" ry="1"/>
 <path style="fill:#bea389" d="M 1,16 C 1,16.554 1.446,17 2,17 H 20 C 20.554,17 21,16.554 21,16 V 5 C 21,4.446 20.554,4 20,4 H 11 C 9.5,4 9,2 7.5,2 H 2 C 1.446,2 1,2.446 1,3"/>
 <rect style="opacity:0.2" width="20" height="12" x="1" y="7.5" rx="1" ry="1"/>
 <rect style="fill:#b2bfd9" width="16" height="8" x="3" y="6" rx="1" ry="1"/>
 <rect style="fill:#d1bfae" width="20" height="12" x="1" y="8" rx="1" ry="1"/>
 <path style="opacity:0.1;fill:#8b9cbe" d="M 2,2 C 1.446,2 1,2.446 1,3 V 3.5 C 1,2.946 1.446,2.5 2,2.5 H 7.5 C 9,2.5 9.5,4.5 11,4.5 H 20 C 20.554,4.5 21,4.946 21,5.5 V 5 C 21,4.446 20.554,4 20,4 H 11 C 9.5,4 9,2 7.5,2 Z"/>
 <g style="fill:#a38d7b" transform="matrix(0.5618517,0,0,0.5,-4.0330883,0.358696)">
  <path style="fill:#a38d7b" d="m 29.573776,35.282608 -0.749596,-2 h -4.264944 l -0.723748,2 h -3.308562 c 0.758212,-3.153473 1.52504,-6.022617 2.300484,-8.607431 0.775445,-2.602047 1.525041,-5.066236 2.248789,-7.392569 h 3.463651 c 0.758212,2.343565 1.507808,4.833602 2.248788,7.470113 0.758213,2.619279 1.490577,5.462574 2.197092,8.529887 z M 26.73048,22.384385 25.153743,29.282608 h 3.127626 z"/>
 </g>
</svg>
