<svg xmlns="http://www.w3.org/2000/svg" width="22" height="22" version="1">
 <rect style="opacity:0.2" width="20" height="12" x="1" y="8.5" rx="1" ry="1"/>
 <path style="fill:#8b9cbe" d="M 1,16 C 1,16.554 1.446,17 2,17 H 20 C 20.554,17 21,16.554 21,16 V 5 C 21,4.446 20.554,4 20,4 H 11 C 9.5,4 9,2 7.5,2 H 2 C 1.446,2 1,2.446 1,3"/>
 <rect style="opacity:0.2" width="20" height="12" x="1" y="7.5" rx="1" ry="1"/>
 <rect style="fill:#b2bfd9" width="16" height="8" x="3" y="6" rx="1" ry="1"/>
 <rect style="fill:#323a41" width="20" height="12" x="1" y="8" rx="1" ry="1"/>
 <path style="opacity:0.1;fill:#8b9cbe" d="M 2,2 C 1.446,2 1,2.446 1,3 V 3.5 C 1,2.946 1.446,2.5 2,2.5 H 7.5 C 9,2.5 9.5,4.5 11,4.5 H 20 C 20.554,4.5 21,4.946 21,5.5 V 5 C 21,4.446 20.554,4 20,4 H 11 C 9.5,4 9,2 7.5,2 Z"/>
 <g>
  <circle style="fill:#8b9cbe;stroke:#323a41;stroke-width:0.25;stroke-linecap:round;stroke-linejoin:round" cx="10.25" cy="11.25" r="1.625"/>
  <circle style="fill:#8b9cbe;stroke:#323a41;stroke-width:0.25;stroke-linecap:round;stroke-linejoin:round" cx="12.25" cy="12.25" r="1.625"/>
  <circle style="fill:#8b9cbe;stroke:#323a41;stroke-width:0.25;stroke-linecap:round;stroke-linejoin:round" cx="16" cy="15.5" r=".875"/>
  <circle style="fill:#8b9cbe;stroke:#323a41;stroke-width:0.25;stroke-linecap:round;stroke-linejoin:round" cx="14" cy="14.5" r="1.875"/>
  <circle style="fill:#8b9cbe;stroke:#323a41;stroke-width:0.25;stroke-linecap:round;stroke-linejoin:round" cx="6.75" cy="14.75" r="1.625"/>
  <circle style="fill:#8b9cbe;stroke:#323a41;stroke-width:0.25;stroke-linecap:round;stroke-linejoin:round" cx="8.25" cy="11.5" r=".875"/>
  <circle style="fill:#8b9cbe;stroke:#323a41;stroke-width:0.25;stroke-linecap:round;stroke-linejoin:round" cx="8.5" cy="13.5" r="1.875"/>
  <circle style="fill:#8b9cbe;stroke:#323a41;stroke-width:0.25;stroke-linecap:round;stroke-linejoin:round" cx="8.5" cy="15.5" r=".875"/>
  <circle style="fill:#8b9cbe;stroke:#323a41;stroke-width:0.25;stroke-linecap:round;stroke-linejoin:round" cx="11" cy="14" r="2.375"/>
 </g>
</svg>
