<svg xmlns="http://www.w3.org/2000/svg" width="22" height="22" version="1">
 <rect style="opacity:0.2" width="20" height="12" x="1" y="8.5" rx="1" ry="1"/>
 <path style="fill:#cccccc" d="M 1,16 C 1,16.554 1.446,17 2,17 H 20 C 20.554,17 21,16.554 21,16 V 5 C 21,4.446 20.554,4 20,4 H 11 C 9.5,4 9,2 7.5,2 H 2 C 1.446,2 1,2.446 1,3"/>
 <rect style="opacity:0.2" width="20" height="12" x="1" y="7.5" rx="1" ry="1"/>
 <rect style="fill:#8b9cbe" width="16" height="8" x="3" y="6" rx="1" ry="1"/>
 <rect style="fill:#b2bfd9" width="20" height="12" x="1" y="8" rx="1" ry="1"/>
 <path style="opacity:0.1;fill:#8b9cbe" d="M 2,2 C 1.446,2 1,2.446 1,3 V 3.5 C 1,2.946 1.446,2.5 2,2.5 H 7.5 C 9,2.5 9.5,4.5 11,4.5 H 20 C 20.554,4.5 21,4.946 21,5.5 V 5 C 21,4.446 20.554,4 20,4 H 11 C 9.5,4 9,2 7.5,2 Z"/>
 <path style="fill:#4f4f4f" d="M 9,9.5 6.5,11 8.5,12.45 6.495,13.95 9,15.5 11,14 8.5,12.5 11,11 13.5,12.5 11,14 13,15.5 15.505,13.95 13.5,12.5 15.5,11 13,9.5 11,10.95 Z M 11,14.5 9,16 8.5,15.7 V 16 L 11,17.5 13.5,16 V 15.7 L 13,16 Z"/>
</svg>
