<svg xmlns="http://www.w3.org/2000/svg" width="22" height="22" version="1">
 <path style="opacity:0.2" d="M 10.500964,1.5000716 C 9.5543738,1.5134176 8.8792976,2.0758566 8.5624852,3.0069094 l 0.01172,-0.041992 -1.4873064,4.535162 -5.0156313,0 c -0.010935,-1.73e-4 -0.021291,-1.73e-4 -0.032227,0 -0.5989533,0.01915 -1.13902467,0.2950018 -1.51953267,0.7519539 -0.82292555,0.9317784 -0.64850698,2.3978677 0.3964848,3.0927777 L 4.859357,14.187588 3.3290816,18.877047 c -0.0017,0.0052 -0.00328,0.01041 -0.00489,0.01563 -0.2338278,0.757682 -0.013944,1.538281 0.5742197,2.072269 0.00425,0.0039 0.00932,0.0079 0.01367,0.01172 0.7067884,0.619773 1.6998681,0.698544 2.4980497,0.185547 0.015185,-0.0097 0.030285,-0.01981 0.04492,-0.03027 l 4.045908,-2.88184 4.045904,2.88184 c 0.01464,0.01047 0.02974,0.02058 0.04492,0.03027 0.798181,0.512997 1.791261,0.434226 2.49805,-0.185547 0.0043,-0.0038 0.0094,-0.0078 0.01367,-0.01172 0.588163,-0.533988 0.808047,-1.314587 0.574219,-2.072269 -0.0016,-0.0052 -0.0032,-0.01043 -0.0049,-0.01563 l -1.530275,-4.689459 3.943364,-2.842777 c 1.044992,-0.69491 1.219411,-2.1609993 0.396485,-3.0927777 -0.380508,-0.4569521 -0.920579,-0.7328039 -1.519533,-0.7519539 -0.01093,-1.73e-4 -0.02129,-1.73e-4 -0.03223,0 l -5.015631,0 -1.487307,-4.5351622 0.01172,0.041992 C 12.122631,2.0758566 11.447555,1.5134171 10.500964,1.5000716 Z"/>
 <path style="fill:#e84040" d="m 10.457982,0.99608852 c -0.145805,0.002251 -0.297632,0.0209586 -0.457031,0.0546874 l 0,0.019531 C 9.3170508,1.2432972 8.8189077,1.7493737 8.5614977,2.5058541 l 0.011719,-0.041016 -1.4863281,4.5351562 -5.015625,0 c -0.010935,-1.73e-4 -0.022268,-1.73e-4 -0.033203,0 -0.5989537,0.01915 -1.13902327,0.295001 -1.51953127,0.7519531 -0.82292548,0.9317786 -0.64850738,2.3968872 0.3964844,3.0917972 l 3.94335937,2.84375 -1.5292969,4.689453 c -0.0017,0.0052 -0.00426,0.01042 -0.00586,0.01563 -0.2338278,0.757682 -0.013945,1.538278 0.5742188,2.072266 0,0 0.00195,0 0.00195,0 0.00403,0.0036 0.00773,0.0082 0.011719,0.01172 0,0 0.00195,0 0.00195,0 0.7067884,0.619773 1.6998653,0.698544 2.4980468,0.185547 0.015185,-0.0097 0.030287,-0.01884 0.044922,-0.0293 l 4.0449286,-2.882816 4.046875,2.882812 c 0.01464,0.01047 0.02974,0.01962 0.04492,0.0293 0.798181,0.512997 1.791258,0.434226 2.498047,-0.185547 0.0043,-0.0038 0.0094,-0.0078 0.01367,-0.01172 0.588163,-0.533988 0.808046,-1.314584 0.574218,-2.072266 -0.0016,-0.0052 -0.0042,-0.01044 -0.0059,-0.01563 l -1.529252,-4.689449 3.94336,-2.84375 c 1.044992,-0.69491 1.21941,-2.1600186 0.396484,-3.0917972 -0.380508,-0.4569521 -0.920577,-0.7328031 -1.519531,-0.7519531 -0.01094,-1.73e-4 -0.02227,-1.73e-4 -0.0332,0 l -5.015626,0 -1.486328,-4.5351562 0.01172,0.041016 C 12.163194,1.6911829 11.478618,0.98033282 10.457982,0.99608852 Z"/>
 <path style="opacity:0.2;fill:#8b9cbe" d="M 10.500964,0.99996722 C 9.5543738,1.0133132 8.8792976,1.5757522 8.5624852,2.506805 l 0.011719,-0.041992 -1.4873064,4.5351619 -5.0156313,0 c -0.010935,-1.73e-4 -0.021292,-1.73e-4 -0.032227,0 C 1.4400857,7.0191248 0.90001433,7.2949766 0.51950633,7.7519287 0.10612153,8.2199943 -0.05438186,8.82227 0.01950573,9.3945087 0.06501023,8.9854432 0.22598003,8.5842822 0.51950633,8.2519293 0.90001423,7.7949772 1.4400856,7.5191254 2.0390394,7.4999754 c 0.010935,-1.73e-4 0.021291,-1.73e-4 0.032227,0 l 5.0156314,0 1.4873064,-4.535162 -0.01172,0.041992 C 8.8792976,2.0757528 9.5543738,1.5133133 10.500964,1.4999678 c 0.946591,0.013345 1.621685,0.5757852 1.938479,1.5068378 l -0.01172,-0.041992 1.487306,4.535162 5.015631,0 c 0.01093,-1.73e-4 0.02129,-1.73e-4 0.03223,0 0.598954,0.01915 1.139026,0.2950018 1.519534,0.7519539 0.293526,0.3323529 0.454496,0.7335139 0.500001,1.1425792 0.07389,-0.5722385 -0.08662,-1.1745142 -0.500001,-1.6425798 -0.380507,-0.4569521 -0.920578,-0.7328039 -1.519532,-0.751954 -0.01093,-1.73e-4 -0.02129,-1.73e-4 -0.03223,0 l -5.015631,0 -1.487307,-4.5351619 0.01172,0.041992 C 12.122631,1.5757522 11.447555,1.0133127 10.500964,0.99996722 Z M 4.7275193,14.091781 3.3290801,18.376942 c -0.0017,0.0052 -0.00328,0.0104 -0.00488,0.01563 -0.089255,0.289222 -0.1114522,0.581397 -0.07324,0.862306 0.014579,-0.120583 0.036052,-0.241797 0.073242,-0.362305 0.0016,-0.0052 0.00319,-0.01043 0.00488,-0.01563 l 1.5302732,-4.689459 -0.1318362,-0.0957 z m 11.5468897,0 -0.131836,0.0957 1.530275,4.689459 c 0.0017,0.0052 0.0033,0.01041 0.0049,0.01563 0.03719,0.120508 0.05866,0.241722 0.07324,0.362305 0.03821,-0.280909 0.01601,-0.573084 -0.07324,-0.862306 -0.0016,-0.0052 -0.0032,-0.01044 -0.0049,-0.01563 l -1.398439,-4.285161 z"/>
</svg>
