<svg xmlns="http://www.w3.org/2000/svg" width="16" height="16" version="1">
 <rect style="fill:#ff6c3a" width="16" height="16" x="0" y="0" rx="4.8" ry="4.8"/>
 <path style="fill:#f4f4f7" d="M 13,2 A 1.0000001,1.0000001 0 0 1 14,2.9999999 1.0000001,1.0000001 0 0 1 13,4 1.0000001,1.0000001 0 0 1 12,2.9999999 1.0000001,1.0000001 0 0 1 13,2 Z"/>
 <path style="fill:#f4f4f7" d="M 8,3 A 5,5 0 0 1 13,8 5,5 0 0 1 8,13 5,5 0 0 1 3,8 5,5 0 0 1 8,3 Z"/>
 <path style="fill:#ff9c79" d="M 8,5 A 3,3 0 0 0 5,8 3,3 0 0 0 8,11 3,3 0 0 0 11,8 3,3 0 0 0 8,5 Z"/>
</svg>
