<svg xmlns="http://www.w3.org/2000/svg" width="16" height="16" version="1">
 <circle style="fill:#678dfd" cx="-12.571" cy="10.571" r="3.429" transform="scale(-1,1)"/>
 <circle style="fill:#678dfd" cx="-9" cy="7" r="4" transform="scale(-1,1)"/>
 <circle style="fill:#678dfd" cx="-5.667" cy="7.723" r="2.667" transform="scale(-1,1)"/>
 <circle style="fill:#678dfd" cx="-3.429" cy="10.571" r="3.429" transform="scale(-1,1)"/>
 <rect style="fill:#678dfd" width="9.143" height="4.571" x="-12.57" y="9.43" transform="scale(-1,1)"/>
 <path style="fill:#f4f4f7" d="M 11,4.5 6,6 V 7.5 9.0878906 C 5.8395376,9.030398 5.6704498,9.0006756 5.5,9 4.6715729,9 4,9.6715729 4,10.5 4,11.328427 4.6715729,12 5.5,12 6.3284271,12 7,11.328427 7,10.5 V 7.1992188 L 10,6.3007812 V 8.0878906 C 9.8395376,8.030398 9.6704498,8.0006756 9.5,8 8.6715729,8 8,8.6715729 8,9.5 8,10.328427 8.6715729,11 9.5,11 10.328427,11 11,10.328427 11,9.5 V 6 Z"/>
</svg>
