<svg xmlns="http://www.w3.org/2000/svg" width="16" height="16" version="1">
 <path style="fill:#17191e" d="M 6.0453871,0.74851196 5.6056549,2.0498512 4.5729166,1.1428572 4.2113097,2.2105655 3.4300595,1.5238096 3.0453871,2.6607143 2.2864584,2.2857143 2.203125,3.5714286 1.1436012,3.0476191 1.0558036,4.4077379 4e-8,4.1964286 0.26934526,5.5431547 3,10.508929 13,10.491072 15.730655,5.5431547 16,4.1964286 l -1.055803,0.2113093 -0.0878,-1.3601188 -1.059524,0.5238095 -0.08333,-1.2857143 -0.758929,0.375 L 12.569941,1.5238096 11.78869,2.2105655 11.427083,1.1428572 10.394345,2.0498512 9.954613,0.74851196 8.9218751,1.655506 8.7648808,2.2410715 l 0,-0.3363096 L 8.002976,0.7619048 8,0.7663691 7.997024,0.7619048 7.2351193,1.9047619 l 0,0.3363096 L 7.078125,1.655506 Z"/>
 <rect style="fill:#4f4f4f" width="14" height="6" x="1" y="10" rx="1.4" ry="1.5"/>
 <path style="fill:none;stroke:#ffb73c;stroke-linecap:round;stroke-linejoin:round" d="m 3.5,7.5 h 3 c -1.7401364,1.8195207 -2,2.638194 -2,5"/>
 <path style="fill:none;stroke:#ffb73c;stroke-linecap:round;stroke-linejoin:round" d="m 9.5,7.5 v 5"/>
 <path style="fill:none;stroke:#ffb73c;stroke-linecap:round;stroke-linejoin:round" d="m 12.5,7.5 -3,2.785713"/>
 <path style="fill:none;stroke:#ffb73c;stroke-linecap:round;stroke-linejoin:round" d="M 12.5,12.5 9.5,9.5238084"/>
 <path style="fill:#f43e3e" transform="matrix(0.28767796,0,0,0.27681824,0.64359349,-1.1072729)" d="M 25.571673,22.062393 15.143345,4.0000003 36,3.9999997 Z"/>
</svg>
