<svg width="16" height="16" version="1.1" xmlns="http://www.w3.org/2000/svg">
 <rect width="16" height="16" rx=".80000001" ry=".80000001" style="fill:#c2352a"/>
 <path d="m6 0-5.859375 15.626953c0.14236454 0.219366 0.37806675 0.373047 0.66015625 0.373047h8.6992188l-1.5-4h-3l3-7 5 11h2.199219c0.282089 0 0.517791-0.153681 0.660156-0.373047l-5.859375-15.626953h-4z" style="fill:#f4f4f7"/>
</svg>
