<svg xmlns="http://www.w3.org/2000/svg" width="16" height="16" version="1.1">
 <path style="fill:#afafb1" d="m 6,6.999998 h 5 v 6.000039 L 8.5000003,15.999998 6,13.000037 Z"/>
 <path style="fill:#b2bfd9" d="m 6,6.999998 h 2.5000003 v 9 L 6,13.000037 Z"/>
 <rect style="fill:#ec8a2b" width="3" height="11" x="4" y="-14" rx="1.5" ry="1.501" transform="rotate(90)"/>
 <rect style="fill:#d13808" width="3" height="4" x="7" y="0"/>
 <rect style="fill:#ec8a2b" width="5" height="1" x="6" y="0" rx=".499" ry=".498"/>
</svg>
