<svg xmlns="http://www.w3.org/2000/svg" width="16" height="16" version="1">
 <rect style="fill:#b2bfd9" width="16" height="16" x="0" y="0" rx="8" ry="8"/>
 <circle style="fill:#ff5722" cx="8" cy="8" r="6"/>
 <path style="fill:#f4f4f7" d="M 6.4671887,5.0001294 A 0.45665744,0.48639943 0 0 0 6.0000001,5.4867624 V 10.513745 A 0.45665744,0.48639943 0 0 0 6.684908,10.934883 L 8.7283821,9.6784702 10.771856,8.4214245 a 0.45665744,0.48639943 0 0 0 0,-0.8422413 L 8.7284136,6.3219376 6.6849705,5.065358 A 0.45665744,0.48639943 0 0 0 6.4671577,5.0000296 Z"/>
</svg>
