<svg xmlns="http://www.w3.org/2000/svg" width="16" height="16" version="1">
 <path style="fill:#3d3b67" d="m 8.0616,15.99996 8e-4,-0.0016 C 12.4652,15.96484 16,12.41116 16,8 16,3.568 12.432,-8e-8 8,-8e-8 3.728,-8e-8 0.2596,3.3156 0.0148,7.5244 L 0,7.5384 V 14.4 C 0,15.2864 0.7136,16 1.6,16 h 6.4616 z"/>
 <path style="fill:#f4f4f7" d="m 9.2824,7 h 2.36393 L 10.8,9.6 Z"/>
 <path style="fill:#3a88d6" d="M 11.64633,7 12.4,8.6 11.164387,8.4072 Z"/>
 <path style="fill:#f4f4f7" d="m 7,8.8 3.8,0.8 -3.1993472,2.2 z"/>
 <path style="fill:#3a88d6" d="m 7,8.8 0.8,4 -2.2,1.6 z"/>
 <path style="fill:#0365db" d="m 3.8,3.6 4,0.8 3,5.2 L 7,8.8 Z"/>
</svg>
