<svg xmlns="http://www.w3.org/2000/svg" width="16" height="16" version="1">
 <rect fill="#3f5979" width="16" height="16" x="0" y="0" rx=".8" ry=".8"/>
 <path style="fill:#f4f4f7;fill-rule:evenodd" d="M 8.6488,7.5218 C 8.6488,7.9761 8.6602,8.3554 8.4309,8.759 8.2452,9.0869 7.9516,9.289 7.6238,9.289 7.1759,9.289 6.9145,8.9476 6.9145,8.444 6.9145,7.4497 7.8052,7.269 8.6488,7.269 V 7.5218 M 9.8253,10.365 C 9.7481,10.435 9.6367,10.439 9.5495,10.393 9.1624,10.072 9.0931,9.9219 8.8802,9.6154 8.2402,10.269 7.7874,10.464 6.9573,10.464 5.9766,10.464 5.2116,9.8576 5.2116,8.6454 5.2116,7.699 5.7252,7.054 6.4552,6.739 7.0888,6.4604 7.9731,6.4111 8.6488,6.3339 V 6.1832 C 8.6488,5.9061 8.6702,5.5775 8.5074,5.3382 8.3652,5.1232 8.0924,5.0346 7.8531,5.0346 7.4088,5.0346 7.0116,5.2625 6.9145,5.7354 6.8952,5.8404 6.8181,5.9432 6.7131,5.9482 L 5.5809,5.8261 C 5.4859,5.8054 5.3809,5.7282 5.4066,5.5818 5.668,4.2103 6.9066,3.797 8.0152,3.797 8.5831,3.797 9.3245,3.948 9.7724,4.3775 10.34,4.9075 10.286,5.6146 10.286,6.3839 V 8.2018 C 10.286,8.7483 10.512,8.9876 10.725,9.2833 10.801,9.3883 10.817,9.514 10.722,9.5933 10.485,9.7919 10.061,10.161 9.8281,10.368 L 9.8253,10.365"/>
 <path style="fill:#ff9900" d="M 12.266,9.8789 C 11.916,9.8838 11.502,9.9615 11.189,10.182 11.093,10.25 11.11,10.343 11.217,10.33 11.57,10.288 12.355,10.194 12.494,10.373 12.635,10.552 12.34,11.291 12.207,11.621 12.167,11.721 12.253,11.761 12.344,11.686 12.932,11.195 13.083,10.165 12.963,10.016 12.903,9.942 12.616,9.874 12.266,9.8789 Z M 3.0723,10.076 C 2.9993,10.086 2.968,10.174 3.0449,10.244 4.35,11.423 6.074,12.131 7.9902,12.131 9.357,12.131 10.944,11.702 12.039,10.895 12.22,10.76 12.066,10.56 11.881,10.639 10.654,11.16 9.3189,11.41 8.1055,11.41 6.3063,11.41 4.5648,10.917 3.1562,10.098 3.1255,10.08 3.0966,10.073 3.0723,10.076 Z"/>
</svg>
