<svg xmlns="http://www.w3.org/2000/svg" width="16" height="16" version="1">
 <rect style="fill:#109d8f" width="15" height="15" x="1" y="1" rx=".75" ry=".75"/>
 <path style="fill:#f4f4f7" d="M 6.3008,2.3005 C 6.272,2.2937 6.242,2.2984 6.2168,2.3162 6.1658,2.3492 6.1563,2.4218 6.1953,2.4763 L 6.8418,3.3982 C 5.8143,3.8672 6.092,4.9608 6,5.9998 H 11 C 10.908,4.9613 11.189,3.8656 10.162,3.3982 L 10.809,2.4763 C 10.848,2.4218 10.836,2.3512 10.787,2.3162 10.736,2.2812 10.664,2.2988 10.625,2.3533 L 9.9551,3.3103 C 9.5116,3.1383 9.0194,3.0427 8.5019,3.0427 7.9844,3.0427 7.4918,3.1383 7.0488,3.3103 L 6.377,2.3533 C 6.3575,2.326 6.3296,2.3074 6.3008,2.3005 Z M 7.0254,4.2908 C 7.2404,4.2908 7.4121,4.4607 7.4121,4.6697 7.4121,4.8787 7.2379,5.0505 7.0254,5.0505 6.8104,5.0505 6.6367,4.8807 6.6367,4.6697 6.6367,4.4607 6.8109,4.2908 7.0254,4.2908 Z M 10.025,4.2908 C 10.238,4.2908 10.412,4.4607 10.412,4.6697 10.412,4.8787 10.238,5.0505 10.025,5.0505 9.8104,5.0505 9.6367,4.8807 9.6367,4.6697 9.6367,4.4607 9.8109,4.2908 10.025,4.2908 Z M 6.002,6.9998 V 10.797 C 6.002,11.141 6.162,11.5 6.502,11.5 H 7 V 13.188 C 7,13.637 7,14 7.5,14 8,14 8.002,13.637 8.002,13.188 V 11.5 H 9.002 V 13.188 C 9.002,13.637 8.9629,14 9.5,14 10,14 10,13.75 10,13.188 V 11.5 H 10.504 C 10.842,11.5 11.004,11.14 11.004,10.797 V 6.9998 Z M 4.5234,7.0017 C 4.0005,7.0003 4,7.3791 4,7.8455 V 9.1543 C 4,9.6212 4.0005,10.003 4.5234,10.002 5.0005,10.001 5,9.6207 5,9.1543 V 7.8455 C 5,7.3786 5.0005,7.0003 4.5234,7.0017 Z M 12.479,7.0017 C 12,7.0003 12,7.3791 12,7.8455 V 9.1543 C 12,9.6212 12,10.003 12.479,10.002 13,10.001 13,9.6207 13,9.1543 V 7.8455 C 13,7.3786 13,7.0003 12.479,7.0017 Z"/>
</svg>
