<svg xmlns="http://www.w3.org/2000/svg" width="16" height="16" version="1.1">
 <rect style="fill:#475ad0" width="15" height="15" x="1" y="1" rx="1.125" ry="1.125"/>
 <path style="fill:#f4f4f7" d="m 5.506678,3.9999326 c -0.6737623,-0.00956 -0.6737623,1.0095626 0,1 h 2.0234375 v 0.00195 c 0.6222222,0.036214 0.6276131,0.9544839 0.00586,0.99805 h -0.029297 c -0.6737623,-0.00956 -0.6737623,1.0095626 0,1 h 0.023437 v 0.00195 c 0.6222229,0.036214 0.6276138,0.9544839 0.00586,0.99805 H 4.506678 c -0.6737623,-0.00956 -0.6737623,1.0095626 0,1 h 3.0234375 v 0.00195 c 0.6222222,0.036214 0.6276131,0.9544839 0.00586,0.99805 H 6.506678 c -0.6737623,-0.00956 -0.6737623,1.0095634 0,1.0000004 h 1.0234375 v 0.002 c 0.6222232,0.03616 0.6276142,0.954435 0.00586,0.998 h -0.029297 c -0.6737623,-0.0096 -0.6737623,1.009563 0,1 h 2.9882815 1.705078 c 0.443201,0 0.800782,-0.357581 0.800782,-0.800781 V 6.9999326 l -3,-3 H 8.5301155 8.4949592 7.5301155 Z m -2.0019532,2 c -0.6729664,-0.00956 -0.6729664,1.0095626 0,1 h 1.9921876 c 0.6729664,0.00956 0.6729664,-1.0095626 0,-1 z m 0.9960938,4 c -0.2761424,0 -0.5,0.2238574 -0.5,0.5000004 0,0.276142 0.2238576,0.5 0.5,0.5 0.2761424,0 0.5,-0.223858 0.5,-0.5 0,-0.276143 -0.2238576,-0.5000004 -0.5,-0.5000004 z m 0.00391,2.0000004 c -0.6713803,-0.0096 -0.6713803,1.009563 0,1 h 0.9921876 c 0.6713803,0.0096 0.6713803,-1.009563 0,-1 z"/>
 <path style="fill:#979797" d="m 10.000819,3.9999326 v 2.3333337 c 0,0.3693334 0.297333,0.6666667 0.666666,0.6666667 h 2.333334 z"/>
 <path style="fill:#979797" d="m 9.0008186,9.9999326 v 1.1250004 l 0.4296875,-0.429688 0.8046879,0.804688 h 0.265625 V 11.234308 L 9.6961311,10.42962 10.125819,9.9999326 Z m 1.5000004,0.5000004 v 0.265625 l 0.804688,0.804687 -0.429688,0.429688 h 1.125 v -1.125 l -0.429688,0.429688 -0.804687,-0.804688 z"/>
</svg>
