<svg xmlns="http://www.w3.org/2000/svg" width="16" height="16" version="1">
 <path fill="#0088d1" d="m6.3531 0.051266a1.689 1.6448 0 0 0 -1.2386 1.2716l-0.71834 3.5103-3.3754 1.4142a1.689 1.6448 0 0 0 -0.15811 2.9451l3.205 1.7496 0.33711 3.5635a1.689 1.6448 0 0 0 2.8276 1.058l2.7002-2.4286 3.584 0.78873a1.689 1.6448 0 0 0 1.9056 -2.2931l-1.5376-3.2502 1.8786-3.0762a1.689 1.6448 0 0 0 -1.649 -2.4736l-3.651 0.419-2.4235-2.6906a1.689 1.6448 0 0 0 -1.6874 -0.50813z"/>
 <path fill="#b2bfd9" d="m6.6875 0.0019531a1.689 1.6448 0 0 0 -0.334 0.048828 1.689 1.6448 0 0 0 -1.2383 1.2715l-0.7187 3.5117-3.375 1.414a1.689 1.6448 0 0 0 -0.15822 2.9454l3.2051 1.7476 0.3359 3.565a1.689 1.6448 0 0 0 2.8281 1.058l2.6992-2.429 3.5844 0.789a1.689 1.6448 0 0 0 1.906 -2.293l-1.537-3.2501 1.879-3.0762a1.689 1.6448 0 0 0 -1.651 -2.4746l-3.65 0.4199-2.422-2.6914a1.689 1.6448 0 0 0 -1.3535 -0.55665zm0.2617 2.3339l2.0274 2.252a2.0002 2.0002 0 0 0 1.7144 0.6484l2.979-0.3418-1.492 2.4434a2.0002 2.0002 0 0 0 -0.102 1.8984l1.229 2.5917-2.942-0.646a2.0002 2.0002 0 0 0 -1.7673 0.466l-2.2598 2.032-0.2773-2.926a2.0002 2.0002 0 0 0 -1.0332 -1.5665l-2.5391-1.3867 2.6836-1.1231a2.0002 2.0002 0 0 0 1.1856 -1.4433l0.5937-2.8985z"/>
</svg>
