<svg xmlns="http://www.w3.org/2000/svg" width="16" height="16" version="1.1">
 <circle style="fill:#b2bfd9" cx="7.5" cy="7.5" r="7.5"/>
 <path style="fill:#0ab9e6" d="M 6.5 2 A 4.5 4.5 0 0 0 2 6.5 A 4.5 4.5 0 0 0 6.5 11 A 4.5 4.5 0 0 0 6.8183594 10.982422 L 7 11 L 7 10.96875 L 7 9.9609375 L 7 3.0410156 L 7 2.0332031 L 7 2 L 6.8085938 2.0195312 A 4.5 4.5 0 0 0 6.5 2 z M 6 3.0390625 L 6 9.9589844 A 3.5 3.5 0 0 1 3 6.5 A 3.5 3.5 0 0 1 6 3.0390625 z"/>
 <path style="fill:#ff3c28" d="m 8.5,13 a 4.5,4.5 0 0 0 4.5,-4.4999996 4.5,4.5 0 0 0 -4.5,-4.5 4.5,4.5 0 0 0 -0.3183594,0.017578 L 8,4.0000004 v 0.03125 1.0078125 6.9199221 1.007812 0.0332 l 0.1914062,-0.01953 A 4.5,4.5 0 0 0 8.5,13 Z M 9,11.960938 V 5.041016 a 3.5,3.5 0 0 1 3,3.4589844 3.5,3.5 0 0 1 -3,3.4609376 z"/>
</svg>
