<svg xmlns="http://www.w3.org/2000/svg" width="16" height="16" version="1">
 <circle style="fill:#17191e" cx="8" cy="8" r="8"/>
 <path style="fill:#80adf5" d="m 5.9414064,2.3234375 c -0.016624,0.0041 -0.032124,0.013532 -0.047656,0.028125 C 5.776068,2.4621198 5.688648,2.8079814 5.7054692,3.099219 c 0.00539,0.093292 0.00755,0.1695312 0.00469,0.1695312 -0.1009048,0 -0.4320316,0.1155324 -0.4320316,0.1507812 0,0.010124 0.046886,0.06888 0.1039064,0.1304688 C 5.4932364,3.670114 5.5535904,3.7861644 5.589844,3.9484376 5.629284,4.124968 5.607452,4.1354604 5.517969,3.9835936 5.12629,3.3188444 4.3948716,2.8995184 3.8343756,3.01875 3.7612256,3.03431 3.6784884,3.05837 3.6507816,3.071875 3.6009956,3.096139 3.6007376,3.098167 3.6062506,3.2515622 3.6251586,3.7776574 3.8608854,4.0899034 4.382813,4.2796874 4.6122234,4.3631054 4.6151662,4.3786974 4.398437,4.3695314 4.1884824,4.3606512 3.9720664,4.2563532 3.7820304,4.0726564 L 3.70625,4 3.5890624,4.0210936 C 3.3323512,4.0680352 2.6407008,4.0453176 1.6132812,3.9554688 1.3013975,3.9281952 1.1834769,3.9232204 1.125,3.9281248 0.39193921,5.1601016 0.00339211,6.5664263 0,8 c 0.00335906,1.374789 0.36095129,2.725514 1.0382812,3.921875 0.1766937,0.02988 0.3965794,0.06583 0.5765626,0.08437 0.3540263,0.03647 0.9955398,0.03677 1.3164062,0 0.6608032,-0.07576 1.1840644,-0.234628 1.89375,-0.574219 0.1490036,-0.0713 0.2819384,-0.125444 0.2953124,-0.120312 0.03,0.01151 0.152726,0.224549 0.239844,0.416406 0.08776,0.193271 0.1843368,0.487533 0.2515624,0.764844 0.030564,0.12607 0.059527,0.235405 0.064062,0.242969 0.016448,0.02743 0.078516,0.01233 0.097656,-0.02344 0.03722,-0.06955 -0.038508,-0.644874 -0.177344,-1.346876 L 5.5125,10.943752 5.571875,10.894532 c 0.03264,-0.02725 0.095725,-0.06878 0.1398436,-0.09219 l 0.079688,-0.04219 0.0875,0.04531 c 0.121696,0.06321 0.3292264,0.276578 0.4335936,0.445313 0.158886,0.256878 0.2997584,0.652491 0.3843752,1.079687 l 0.041406,0.207813 0.053906,-0.0055 C 6.892492,12.522119 6.8991968,12.501059 6.875,12.269534 6.827796,11.817864 6.6605872,11.254746 6.3984376,10.661721 6.3481456,10.547953 6.3109552,10.4447 6.3156248,10.432815 c 0.00467,-0.01188 0.035412,-0.03889 0.067969,-0.06016 0.2319912,-0.151571 1.3551928,-0.8428594 1.8375,-1.3856394 0.2619676,-0.294814 0.6693244,-0.7792548 0.71875,-0.8546876 0.043853,-0.066928 0.111926,-0.09143 0.3554688,-0.1273436 0.2752564,-0.04059 0.8019954,-0.027632 1.0671874,0.026564 0.545942,0.1115668 1.062583,0.3145048 1.619531,0.6359376 0.690051,0.3982508 1.488549,0.6493 2.151563,1.354389 0.0735,0.07816 0.139674,0.142187 0.146875,0.142187 0.0155,0 0.075,-0.1815248 0.075,-0.2289056 0,-0.039924 -0.202627,-0.4006912 -0.427344,-0.7617188 C 12.924236,7.5606024 11.616968,6.0993012 10.275,5.0898436 9.1672244,4.25655 8.0436036,3.70757 6.8281248,3.40625 L 6.5164064,3.3289064 6.5007824,3.2390624 C 6.4474792,2.9293528 6.3015012,2.606072 6.1406248,2.4406248 6.0498384,2.3472591 5.9912772,2.3111367 5.9414064,2.3234375 Z M 6.4656248,5.2 c 0.086833,6.8e-4 0.1799072,0.014316 0.2734376,0.042969 0.1894412,0.058032 0.3577136,0.1836088 0.4218752,0.3140624 0.044715,0.090913 0.048308,0.1148448 0.025,0.1914064 C 7.1214992,5.9601272 6.8146432,6.055768 6.4875,5.9664064 6.350278,5.9289264 6.251178,5.8772796 6.15,5.7898436 6.0428284,5.6972268 6,5.6135064 6,5.4953124 6,5.3136976 6.2051284,5.1980024 6.4656248,5.2 Z"/>
</svg>
