<svg xmlns="http://www.w3.org/2000/svg" width="16" height="16" version="1">
 <rect style="fill:#1775d2" width="16" height="16" x="-16" y="-16" rx=".8" ry=".8" transform="matrix(0,-1,-1,0,0,0)"/>
 <path style="opacity:0.15" d="M 0.8,0 C 0.3568,0 0,0.3568 0,0.8 v 14.4 c 0,0.2216 0.08899376,0.421806 0.23359376,0.566406 L 3.6,12.4 11.925781,4.074219 15.766406,0.23359376 C 15.621806,0.08899376 15.4216,0 15.2,0 Z"/>
 <rect style="fill:#f4f4f7" width="8" height="6" x="4" y="4" rx=".727" ry=".706"/>
 <path style="fill:#f4f4f7" d="M 4 9.3632812 L 4 12 L 6.6367188 9.3632812 L 4 9.3632812 z"/>
 <path style="fill:#b7b7b7" d="M 5 5 L 5 6 L 10 6 L 11 5 L 5 5 z M 5 6.5 L 5 7.5 L 8.5 7.5 L 9.5 6.5 L 5 6.5 z M 5 8 L 5 9 L 7 9 L 8 8 L 5 8 z"/>
</svg>
