<svg width="16" height="16" version="1.1" xmlns="http://www.w3.org/2000/svg">
 <path d="m4 11s2 2 4 2c3 0 5-2 6-2s2 1 2 2-5.151999 3-8 3c-4 0-8-3-8-6 0-1 1-10 10-10 4 0 6 2 6 4 0 3-2 5-6 6-1.9670488 0.491762-6 1-6 1z" style="fill:#00d792"/>
 <circle cx="8" cy="5" r="3" style="fill:#f4f4f7"/>
</svg>
