<svg xmlns="http://www.w3.org/2000/svg" width="16" height="16" version="1">
 <rect style="fill:#f58800" width="15" height="15" x="-15" y="-15" rx=".75" ry=".75" transform="matrix(0,-1,-1,0,0,0)"/>
 <path style="fill:none;stroke:#17191e;stroke-width:0.80000001" d="m 3.5,11 4,-7 4,7"/>
 <path style="fill:#f4f4f7" d="M 5.8333333,2 C 5.3716667,2 5,2.3568 5,2.8 V 5.2 C 5,5.6432 5.3716667,6 5.8333333,6 H 9.1666667 C 9.628333,6 10,5.6432 10,5.2 V 2.8 C 10,2.3568 9.628333,2 9.1666667,2 Z"/>
 <path style="fill:#f4f4f7" d="M 1.8333333,9 C 1.3716667,9 1,9.3568 1,9.8 v 2.4 C 1,12.6432 1.3716667,13 1.8333333,13 H 5.1666667 C 5.628333,13 6,12.6432 6,12.2 V 9.8 C 6,9.3568 5.628333,9 5.1666667,9 Z"/>
 <path style="fill:#f4f4f7" d="M 9.8333333,9 C 9.3716667,9 9,9.3568 9,9.8 v 2.4 C 9,12.6432 9.3716667,13 9.8333333,13 H 13.166666 C 13.628333,13 14,12.6432 14,12.2 V 9.8 C 14,9.3568 13.628333,9 13.166666,9 Z"/>
</svg>
