<svg xmlns="http://www.w3.org/2000/svg" width="16" height="16" version="1">
 <rect style="fill:#713a9d" width="16" height="16" x="0" y="0" rx=".857" ry=".857"/>
 <path style="fill:#f44336" d="M 10,2 H 3.834 C 3.372,2 3,2.446 3,3 3,3.554 3.378,3.9261 3.834,4 H 10 Z"/>
 <path style="fill:#f4f4f7" d="M 13,3 C 13,1.8954 12.105,1 11,1 9.8954,1 9,1.8954 9,3 c 0,1.1046 0.8954,2 2,2 1.105,0 2,-0.8954 2,-2 z"/>
 <path style="opacity:0.5;fill:#f4f4f7" d="M 9 7 L 9 9 L 12.166016 9 C 12.628016 9 13 8.554 13 8 C 13 7.446 12.628016 7 12.166016 7 L 9 7 z M 9 12 L 9 14 L 12.166016 14 C 12.628016 14 13 13.554 13 13 C 13 12.446 12.628016 12 12.166016 12 L 9 12 z"/>
 <path style="fill:#03a9f4" d="M 9,12 H 3.834 C 3.372,12 3,12.446 3,13 3,13.554 3.372,14 3.834,14 H 9 Z"/>
 <path style="fill:#4caf50" d="M 8,7 H 3.834 C 3.372,7 3,7.446 3,8 3,8.554 3.372,9 3.834,9 H 8 Z"/>
 <path style="fill:#f4f4f7" d="m 11,13 c 0,-1.105 -0.895,-2 -2,-2 -1.1046,0 -2,0.895 -2,2 0,1.105 0.8954,2 2,2 1.105,0 2,-0.895 2,-2 z"/>
 <path style="fill:#f4f4f7" d="M 10,8 C 10,6.8954 9.1046,6 8,6 6.895,6 6,6.8954 6,8 c 0,1.1046 0.895,2 2,2 1.1046,0 2,-0.8954 2,-2 z"/>
</svg>
