<svg xmlns="http://www.w3.org/2000/svg" height="16" width="16" version="1.1">
 <circle cx="8" cy="8" r="8" style="fill:#b2bfd9"/>
 <path style="fill:#17191e" d="m5.9785156 3a0.50005 0.50005 0 0 0 -0.4375 0.2988281l-3.5 7.9999999a0.50005 0.50005 0 0 0 0.4589844 0.701172h5.9648438 1.0351562 4a0.50005 0.50005 0 0 0 0.460938 -0.691406l-2.5-6.0000002a0.50005 0.50005 0 0 0 -0.472657 -0.3085938 0.50005 0.50005 0 0 0 -0.445312 0.296875l-1.6171878 3.6386719-2.4667968-5.6367188a0.50005 0.50005 0 0 0 -0.4804688 -0.2988281zm0.0214844 1.75l0.984375 2.25h-0.984375l-1 1-0.2929688-0.2929688 1.2929688-2.9570312zm4.986328 2.0136719l0.66211 1.5878906-0.648438 0.6484375-0.697266-0.6972656 0.683594-1.5390625zm-4.986328 1.2363281h1.421875l1.3125 3h-0.234375-5.234375l1.1367188-2.5976562 0.5976562 0.5976562 1-1zm4 0.9824219v0.0175781l1 1 0.941406-0.9414062 0.808594 1.9414062h-2.921875l-0.359375-0.822266 0.53125-1.1953121z"/>
</svg>
