<svg xmlns="http://www.w3.org/2000/svg" width="16" height="16" version="1">
 <rect style="fill:#d64b60" width="16" height="16" x="0" y="0" rx=".8" ry=".8"/>
 <path style="fill:#ffff6c" d="M 7.6624,0.999835 C 6.0883048,0.9857366 4.4879904,2.1077929 4.5217752,3.7431703 4.5288328,4.2387327 4.1872088,4.3088851 3.776,4.2153827 c -0.1558748,0.5596572 1.21173,1.0877712 0.2084,1.2056 0.3553512,0.1748384 0.9868108,-0.04193 0.7572,0.5928 C 4.651681,7.0164787 4.4795936,8.0151511 4.3115812,9.0087327 4.1697432,9.9381179 3.2850308,8.8955807 2.9939248,8.5553687 2.473146,7.7401719 2.6530272,9.3035159 2.6986,9.6746327 2.707796,10.10458 3.3357636,10.943272 2.4653968,10.615419 1.7307217,10.424978 0.99274316,9.9373967 0.49436,9.4741827 0.3968377,9.7545191 0.6519658,10.648958 0.77541748,11.106548 c 0.004037,0.377562 0.58979992,1.0591 0.45994252,1.087935 -0.32050616,-0.168264 -0.83378072,-0.578343 -0.354825,0.0038 0.7974836,0.826362 1.9504526,1.317841 3.104623,1.279278 2.7018244,0.119533 5.4404632,0.824799 8.12818,0.20922 1.046624,-0.291607 2.050191,-0.855794 2.704662,-1.741848 -0.215468,0.0841 -1.30931,0.803755 -0.67008,0.26389 0.647049,-0.625943 1.214561,-1.41983 1.395983,-2.3123183 0.03571,-0.3900456 -0.393525,0.3130223 -0.698779,0.2579763 -0.645348,0.282837 -1.346759,0.500484 -2.058324,0.395252 0.08502,-0.6039175 0.629251,-1.4007647 0.5368,-2.1540003 -0.44346,0.4096288 -1.333788,1.1012512 -1.861319,0.76665 C 11.036815,8.0919907 10.921792,6.9182971 10.9008,5.7777827 11.166987,5.7133663 11.807827,5.2966555 11.160469,5.4085203 10.723139,5.2373819 11.720751,4.8573799 11.62775,4.4172827 11.728176,4.1181383 10.907107,4.7246099 10.9448,4.1041827 11.159045,2.9509579 10.602769,1.8758446 9.5061936,1.388165 8.9396152,1.08247 8.2986696,0.98842432 7.6624,0.999835 Z"/>
 <path style="opacity:0.4;fill:#c91919" d="M 7.6284,3.1389827 C 7.2569644,3.5282083 6.8841596,3.9357139 6.47,4.2753827 6.576278,3.9861639 6.785166,3.4227839 6.47384,4.0616327 6.2510212,4.4413627 6.0077704,4.9646791 5.8744616,5.3708903 6.1056272,5.7823179 6.8023688,4.7986335 7.0641848,4.5597827 7.249138,4.0832871 7.4344036,3.6094983 7.6284,3.1389827 Z m 1.4312,0.2824 c -0.4264884,0.3694716 -0.8620388,0.74914 -1.314,1.0756 0.01456,-0.076713 0.4159048,-0.6389568 0.29,-0.526 -0.4380504,0.4788344 -0.8791732,0.965698 -1.308,1.4528 0.6869236,-0.082498 1.3551004,-0.4231272 1.8924,-0.8076 -0.038672,0.307594 -0.4615072,1.1414104 0.00824,0.561418 0.2925072,-0.3134652 0.6748124,-0.7945044 0.7825576,-1.210618 0.1146456,-0.1609044 0.2089892,-0.6383604 -0.042,-0.19 -0.1035572,0.089278 -0.6241504,0.788268 -0.41,0.2288 0.037772,-0.193804 0.07991,-0.388044 0.1008,-0.5844 z m 1.0008,0.5524 C 9.9822632,4.4335023 9.5668764,4.9634503 9.2617848,5.3094751 9.2303488,5.6756639 9.8593124,5.2151739 9.89,5.0073827 c 0.073684,-0.269734 0.191563,-0.7554856 0.1704,-1.0336 z m 0.7064,0.8412 c -0.264636,0.4195804 -0.591029,0.8339468 -0.9868,1.1228 -0.081149,0.2610356 -0.409934,0.7825696 -6e-4,0.3625844 0.389154,-0.4075724 0.844964,-0.8373936 0.984206,-1.4013844 -0.0013,-0.024824 0.01244,-0.061501 0.0032,-0.084 z m -5.2916,0.0148 C 5.403394,5.1336607 5.7825944,5.9520823 5.87,5.7973827 5.940027,5.3598295 5.6636968,5.1490363 5.4752,4.8297827 Z m 5.152677,0.7833848 C 10.418837,6.2697119 8.919912,6.8825863 8.6309576,7.4491827 8.0931508,7.9085647 8.793704,8.3997287 8.0120664,8.5030071 7.2042676,8.5396231 7.1212896,7.8847607 6.5976756,7.4652631 6.2273572,6.9387935 5.5049008,6.6687603 5.1056,6.1781827 5.116432,7.2027839 4.8521728,8.2074143 4.552,9.1745827 4.7923172,8.9723523 5.007868,8.2651767 5.1396,8.2285827 5.0608608,9.0671799 4.7529288,9.8751363 4.3072,10.555783 3.8745076,11.148331 3.4242212,11.762174 2.7828,12.144583 2.1471484,11.876409 1.6489312,11.388414 1.2492,10.840583 1.040178,10.335317 0.712085,9.8322327 0.45956,9.4245827 0.52256148,10.440323 0.73463056,11.492548 1.3446,12.246183 1.1180158,12.218191 0.34447136,11.497584 0.81931064,12.11892 1.3438094,12.73223 2.0976031,13.145572 2.8724,13.358183 c 0.8366508,0.193394 1.7091744,0.09889 2.5560112,0.232112 2.1119064,0.192214 4.2592904,0.570094 6.3699888,0.167088 0.934817,-0.196084 1.9151,-0.640203 2.6124,-1.3484 0.209823,-0.193486 0.638569,-0.680787 0.09655,-0.296713 -0.153969,0.08131 -0.948097,0.577284 -0.41455,0.145913 0.67441,-0.619083 1.230814,-1.424089 1.450168,-2.3187099 0.06085,-0.5763312 -0.50914,0.5078579 -0.704968,0.5491099 -0.435631,0.442601 -0.907834,0.849673 -1.412,1.2124 -1.191788,-0.536522 -2.048558,-1.648377 -2.38025,-2.8995503 -0.314016,-0.964306 -0.555642,-2.177136 -0.417873,-3.1882652 z"/>
 <path style="fill:#ebdeb0" d="m 5.8728,9.0749827 c -0.3501372,0.027264 -0.7187652,0.10537 -0.9972,0.3308 -0.4157184,0.570578 -0.433906,1.3186023 -0.3134296,1.9888843 0.076979,0.443363 0.093201,0.892 0.067516,1.340652 -0.00732,0.426882 0.032328,0.855461 0.1915904,1.254868 0.1200072,0.407025 0.3216496,0.778996 0.5653476,1.123839 0.1765248,0.292752 0.5804148,-0.06897 0.838304,-0.116423 0.4203752,-0.167254 0.8390324,-0.338798 1.2578712,-0.50982 0.8264624,0.32924 1.659518,0.641896 2.5,0.9336 0.2473544,-0.07341 0.3225884,-0.403618 0.4336004,-0.6148 0.132206,-0.399012 0.282771,-0.797406 0.377684,-1.205249 0.08682,-0.905801 0.195542,-1.809433 0.243716,-2.71857 C 11.09877,10.448036 11.09427,9.9560771 10.781003,9.6112475 10.563194,9.2932263 10.184391,9.2149191 9.8436,9.1073827 9.4961008,8.8784471 9.1473896,8.6390551 8.8376,8.3609827 8.6998108,8.6113823 8.277762,8.4435755 8.0408972,8.4651707 7.5644784,8.4167099 7.010132,8.2842743 6.598434,8.6077663 6.356556,8.7635051 6.114678,8.9192439 5.8728,9.0749827 Z m 0.1888,3.1792003 c 0.4136772,-0.02387 0.353094,0.55764 0.6352,0.6328 0.4235552,0.02307 0.8263352,0.270471 1.2546484,0.154289 0.3015188,-0.07499 0.6414048,-0.06061 0.848664,-0.326558 0.2755964,-0.223408 0.5996368,-0.403358 0.9538376,-0.455331 -0.047656,0.192671 0.011812,0.601273 -0.11715,0.668 -0.2666296,-0.196614 -0.6014628,-0.106334 -0.86955,0.03379 -0.6131392,0.17882 -1.2633832,0.159036 -1.8938624,0.235886 -0.2438608,0.04578 -0.488094,0.0966 -0.4901752,-0.224545 C 6.2900304,12.714763 6.1383612,12.480045 5.9476,12.283783 c 0.035896,-0.0163 0.075651,-0.02252 0.114,-0.0296 z"/>
 <path style="fill:#d49063" d="M 10.6084,5.2921827 C 10.318818,5.7521791 9.9619948,6.1761847 9.5296,6.5077827 9.595733,6.3847851 9.739304,6.0577679 9.603705,6.3525367 9.520563,6.4911851 9.502715,6.5649259 9.6538,6.4123327 9.723837,6.6399419 9.568336,6.9706767 9.4278436,7.1871219 9.1965212,7.5313531 8.88977,7.8220299 8.5335916,8.0342391 8.307294,8.1924923 8.0326488,8.4434915 7.736,8.3213827 7.345582,8.1911467 6.9720916,8.0029191 6.6492,7.7461827 c 0.1319144,0.038896 0.3863752,0.325136 0.1744,0.3752 -0.150938,-0.00268 -0.48386,0.021636 -0.1780656,0.0088 0.076188,-0.021092 0.2072064,0.03052 0.2480656,-0.03 0.00891,0.2945864 0.28423,0.4007052 0.494904,0.5595024 C 7.6063968,8.8470283 7.8956908,8.9974595 8.17775,8.8449391 8.4187616,8.7354195 8.667948,8.5961015 8.8319668,8.3871007 8.8317956,8.1787739 8.942236,8.0707463 9.1524,8.1321827 8.96811,8.1462267 8.8245928,8.1335427 8.8987188,7.9106515 9.0782032,7.6900087 9.3790736,7.5160643 9.5388,7.2491827 9.6772532,6.9957099 9.8047848,6.7692983 10.087777,6.6668975 10.381203,6.4384623 10.52845,6.0821995 10.7156,5.7721827 c 0.05373,-0.1782592 0.205272,-0.4616572 -0.1072,-0.48 z m -1.456,2.84 c 0.1670188,0.083336 0.1100724,-0.013492 0,0 z m -4.2416,-2.7616 C 4.7946196,5.5717503 4.922064,5.8259947 5.0401124,6.0029579 5.1312912,6.2593415 5.2981232,6.5034787 5.5355348,6.6483583 5.6281132,6.6883543 5.8938072,6.8933479 5.8408,6.8377827 5.834948,6.4923211 5.4844004,6.3588559 5.324426,6.0892499 5.156828,5.8803123 5.072852,5.6227199 4.9391,5.3944827 Z m 0.9532,1.5312 C 5.9045248,7.0421911 6.1617064,7.3305439 6.1605828,7.3161911 6.0462104,7.1908287 5.9379332,7.0550879 5.864,6.9017827 Z m 0.3288,0.4484 c 0.072186,0.079183 0.1154776,0.114756 0,0 z m 0.0836,0.0844 c 0.073597,0.092338 0.3108056,0.269772 0.104,0.09645 -0.0353,-0.03146 -0.069971,-0.063621 -0.104,-0.09645 z m 0.7056,1.3048 C 6.8334344,8.9779343 6.7846752,9.2608627 6.7048,9.5265827 6.9764216,9.6919303 6.9424772,9.3410691 7.0749812,9.1991343 7.1206724,9.0605755 7.0391432,8.8710035 6.982,8.7393827 Z m 1.7836,0.0296 c -0.074042,0.2833952 -0.029632,0.5807584 -0.0376,0.8704 0.1630704,0.0028 0.3900844,0.0099 0.2647876,-0.2114124 C 8.9523672,9.1963963 8.8351796,8.9908707 8.7656,8.7689827 Z m -0.5092,0.696 c -0.0079,0.1180596 -0.2449624,0.4390928 -0.0236,0.404 0.1121504,-0.1193972 0.1859616,-0.2911908 0.0236,-0.404 z"/>
 <path style="fill:#f4f4f7" d="m 6.8936,8.1237827 c -0.4113916,0.01008 -0.8305888,0.051289 -1.2164,0.2084 0.081683,0.2424204 0.1548448,0.4880892 0.2088,0.7384 0.2745184,-0.128646 0.5430268,-0.2698064 0.8172,-0.3992 C 6.530988,9.0136119 6.2702504,9.3107463 6.1491928,9.6812271 5.9977708,10.072264 5.7797884,10.453326 5.7935952,10.886689 c -0.034664,0.432403 0.039308,0.864339 0.059667,1.29658 0.1204024,1.017293 0.1816828,2.068049 -0.070312,3.070477 -0.063153,0.236636 -0.3993604,0.602999 -0.3386652,0.745637 1.5519052,0 3.10381,0 4.655715,0 C 10.03145,15.675132 9.959546,15.351351 9.951154,15.01867 9.878636,14.095841 9.806118,13.173012 9.7336,12.250183 9.8109064,12.05416 9.8265188,11.769025 9.8439864,11.555264 9.8668264,11.242476 9.9834576,10.921457 9.8457064,10.61828 9.7015512,10.157295 9.5556732,9.6973003 9.3423808,9.2624331 9.284476,9.1266331 9.042298,8.6901855 9.3666368,8.8925827 c 0.2218324,0.144426 0.3908804,0.098129 0.44875,-0.174 C 9.9876208,8.5192487 9.9599512,8.3493455 9.6939348,8.2817563 9.4472248,8.1654775 9.1692828,8.1158367 8.8976,8.1393827 c -0.041398,0.2069232 -0.1269044,0.4170936 -0.122,0.628 0.1184608,0.3260744 0.2528584,0.6493364 0.2852,0.9992 0.078529,0.4114503 0.1294684,0.8745703 0.14,1.2640003 0.0026,0.165398 0.039028,0.367097 -0.1938968,0.185923 C 8.2703124,11.005302 7.4734856,11.005678 6.7298276,11.18297 6.5248124,11.35435 6.4878076,11.116662 6.51955,10.971083 6.51891,10.464701 6.6266736,9.9644423 6.71295,9.4674327 6.7695776,9.1915595 6.899758,8.9245651 6.9813656,8.6687815 6.9656352,8.4900155 6.9667488,8.2745423 6.8936,8.1237827 Z"/>
 <path style="fill:#afb3b3" d="m 6.0616,12.254183 c -0.2473548,0.01128 0.096748,0.206903 0.1252,0.3264 0.1268016,0.200015 0.231544,0.425956 0.2677564,0.658721 C 6.230904,13.886397 6.007252,14.53349 5.7836,15.180583 c -0.067783,0.134598 -0.1513232,0.399143 -0.2008,0.4992 0.1768876,0.05262 0.3457624,0.129833 0.5072,0.2188 0.3665296,-0.178766 0.7145964,-0.394867 1.0875176,-0.559768 0.1490316,-0.05497 0.30706,-0.09996 0.4660824,-0.101832 0.011172,0.251214 0.027744,0.502458 0.0556,0.7524 0.7992256,0.02103 1.5995404,0.0061 2.3992,0.006 -0.03788,-0.191545 -0.08138,-0.385324 -0.1228,-0.574 C 9.98509,15.361763 9.959428,15.271044 9.95544,15.199498 9.862694,14.447326 9.7699468,13.695155 9.6772,12.942983 c 0.035504,-0.152639 0.040585,-0.347605 0.063057,-0.516899 0.02586,-0.106857 0.035812,-0.223807 -0.1064572,-0.144001 -0.4189576,0.09356 -0.7675748,0.361121 -1.0798,0.6417 -0.3991264,0.04509 -0.8046128,0.238564 -1.205364,0.09689 C 7.101676,12.95117 6.8497,12.900202 6.5944,12.873783 6.48513,12.654036 6.4251732,12.347305 6.1516,12.272983 c -0.029372,-0.0088 -0.059108,-0.01738 -0.09,-0.0188 z m 2.08,2.9756 c 0.4240588,0.0257 0.8451708,0.124601 1.240312,0.279002 0.246198,0.08932 0.3541764,0.351324 0.574488,0.478198 -0.6073268,0.0018 -1.2146732,0.0018 -1.822,0 -0.00622,-0.252333 -0.0075,-0.50513 0.0072,-0.7572 z"/>
 <path style="fill:#ff78c4" d="m 8.296,12.311126 c 0.1214252,-0.05768 0.323462,-0.171208 0.2028,-0.3264 -0.068497,-0.16188 -0.1585496,-0.314836 -0.2424,-0.4676 0.1423744,0.04183 0.2741988,0.144829 0.41085,0.1775 0.119828,-0.06383 0.1010004,-0.278904 0.2759748,-0.193025 0.2761332,0.05289 0.5449592,0.139446 0.8155884,0.215095 0.1693104,0.09074 0.1274536,-0.197542 0.1425548,-0.295735 C 9.824605,11.301694 9.6205836,11.336851 9.5009136,11.259272 8.8966688,11.024979 8.2380596,10.971522 7.595396,11.00102 c -0.5038708,0.02304 -1.0055636,0.09277 -1.4999824,0.191223 -0.1069912,0.02384 -0.212928,0.05227 -0.3178136,0.08408 6.8e-4,0.09119 -0.0018,0.182497 0.0024,0.2736 0.3591792,-0.08202 0.7268576,-0.145246 1.0968,-0.1528 0.053517,0.111191 0.1165856,0.309477 0.267432,0.184531 0.1615008,-0.06005 0.3244984,-0.13743 0.497368,-0.148531 -0.2003524,0.206061 -0.3866384,0.433101 -0.5056,0.6968 0.035072,0.163811 0.2674716,0.200489 0.3276124,0.03104 0.123904,-0.245249 0.2909124,-0.464484 0.4339876,-0.698238 0.1606236,-0.04958 0.154064,0.186649 0.1982764,0.286409 0.051131,0.196322 0.072467,0.403391 0.1239612,0.596866 0.027172,-0.0068 0.050764,-0.02369 0.076162,-0.03488 z"/>
 <path style="fill:#ebdeb0" d="m 4.5624,11.402583 c 0.066107,0.409059 0.098677,0.822392 0.068416,1.236466 8.4e-4,0.412026 -0.0016,0.835093 0.1496528,1.225215 0.126516,0.392692 0.2689056,0.78845 0.5239748,1.118411 0.07749,0.204358 0.2092072,0.327478 0.4275564,0.208308 0.5868348,-0.226206 1.168448,-0.465772 1.7508,-0.7032 0.8264296,0.3293 1.6595184,0.641904 2.5,0.9336 0.227895,-0.05811 0.298288,-0.354496 0.405602,-0.543038 0.150166,-0.401839 0.273194,-0.814273 0.402398,-1.222562 0.03601,-0.501724 0.105646,-1.000388 0.1468,-1.5016 -0.401333,0.032 -0.802667,0.064 -1.204,0.096 0.041488,0.09541 -0.035048,0.4707 -0.045534,0.666777 C 9.5159008,12.8794 9.1687984,12.713585 8.9368,12.891384 8.4903924,13.103369 7.9824996,13.086506 7.5018472,13.142648 7.1541472,13.16446 6.8059504,13.212325 6.46,13.232984 6.3663884,12.773944 6.0881056,12.372804 5.7213728,12.087616 5.4081036,11.781202 4.9783624,11.652688 4.6103464,11.42875 Z m 2.0124,1.4328 c 0.022712,0.0723 0.094399,0.03807 0,0 z"/>
 <path style="fill:#ebdeb0" d="M 7.808,8.3445827 C 7.1273336,8.1332131 6.503464,7.7285799 6.0450376,7.1819219 5.897762,7.0077435 5.8058112,6.7957335 5.7784,6.5693827 5.928628,6.6833991 5.7302832,6.3715847 5.7322608,6.2888427 5.6387436,5.9892499 5.5988144,5.6765083 5.5508,5.3673827 5.657946,5.4958799 5.7640052,5.7074295 5.87,5.7973827 5.857672,5.5501563 5.791957,5.3021751 5.8256,5.0549827 5.9424388,5.1677207 5.888039,5.4117607 6.0295812,5.4684703 6.366306,5.3108175 6.6028768,5.0080175 6.8794748,4.7691827 c 0.06067,-0.060027 0.1751268,-0.1819924 0.099494,-0.0287 -0.08365,0.2277052 -0.1789748,0.4519036 -0.2513688,0.6833 0.6878684,-0.088542 1.337422,-0.3903308 1.8864,-0.8088 -0.039412,0.2381064 -0.1169544,0.4678324 -0.1836,0.6988 0.3713288,-0.29653 0.6634764,-0.6817956 0.9108,-1.0848 0.028632,0.3884324 0.076412,0.775828 0.1208,1.1628 C 9.6103976,5.2764591 9.7487248,5.1094403 9.89,5.0073827 9.850168,5.3086847 9.8243624,5.6133987 9.775992,5.9129123 9.7110596,6.1219375 9.6222612,6.3224527 9.5212,6.5161827 9.5992412,6.4631331 9.7088456,6.3331611 9.6734476,6.5161615 9.6381396,7.0112647 9.2916848,7.4133211 8.9446192,7.7380003 8.7418004,7.9155795 8.501424,8.0433975 8.2892,8.2093827 8.149722,8.2918099 7.9744588,8.3929191 7.808,8.3445827 Z"/>
</svg>
