<svg xmlns="http://www.w3.org/2000/svg" width="16" height="16" version="1">
 <rect style="fill:#bb2612" width="16" height="16" x="0" y="0" rx="8" ry="8"/>
 <g>
  <path style="fill:#f4f4f7" d="M 8.8632812 3 C 8.2641632 3.0332562 7.8178314 3.4669453 7.296875 3.703125 C 6.851557 3.9525451 6.6062624 4.2019326 6.15625 4.4433594 C 5.61752 4.0756157 5.1345966 3.6259364 4.5566406 3.3164062 C 4.3282486 3.254043 4.0920658 3.1437433 3.859375 3.25 C 3.3044754 3.3209309 2.9709016 3.8454234 3 4.3652344 C 2.99019 5.1657859 2.99036 5.9670804 3 6.7675781 C 2.4987992 7.2948096 1.5774379 7.8042762 1.1367188 8.3789062 C 0.82010893 8.934377 1.0742559 9.7136364 1.6933594 9.9492188 C 2.154663 10.186264 2.6289347 10.402286 3.0976562 10.625 C 3.3419983 11.548504 3.5315395 12.485199 3.8046875 13.400391 C 4.0968771 14.047599 5.0808738 14.208745 5.578125 13.693359 C 6.2236258 13.010148 6.9746094 11.578125 6.9746094 11.578125 C 6.9746094 11.578125 9.1365566 11.976438 10.001953 11.951172 C 10.519179 11.917392 10.9519 11.515765 10.990234 11.011719 C 11.087354 10.32315 10.476873 9.83468 10.140625 9.3007812 C 9.7236583 8.7082596 9.2700461 8.1402482 8.8632812 7.5410156 C 9.170654 6.4021414 9.774884 5.2884244 10.011719 4.1328125 C 10.018859 3.6128506 9.6559883 3.0821622 9.09375 3.0292969 C 9.0181392 3.0165719 8.9402381 3.002039 8.8632812 3 z M 8.8984375 4.0097656 C 8.8408312 5.186929 8.0453918 6.6322435 7.7773438 7.7246094 C 8.2636244 8.4624192 8.8067394 9.1598888 9.3222656 9.8769531 C 9.3826152 9.9961685 9.7608904 10.45914 9.9335938 10.712891 C 10.199446 11.077184 9.6213776 10.923735 9.4277344 10.919922 C 8.42035 10.830322 7.425205 10.644459 6.4316406 10.460938 C 5.9731562 11.345126 5.4875384 12.225708 4.8574219 13 C 4.367206 12.093681 4.1885 10.863706 3.9453125 9.9199219 C 3.312609 9.6197172 2.6775439 9.3228671 2.0488281 9.015625 C 2.6158763 8.3411138 3.404209 7.7601574 4.0039062 7.1621094 C 3.9883947 6.1931872 3.9960799 5.2245192 3.9941406 4.2558594 C 4.7674543 4.602616 5.4837885 5.18813 6.09375 5.6132812 C 7.2914687 4.8590333 7.8679505 4.5605511 8.8984375 4.0097656 z"/>
 </g>
 <circle style="fill:#f4f4f7" cx="12" cy="3" r="1"/>
</svg>
