<svg xmlns="http://www.w3.org/2000/svg" width="16" height="16" version="1">
 <path style="fill:#e74a99" d="m 13.278661,1.9494123 c -0.0019,-0.002 -0.0041,-0.0032 -0.0062,-0.00492 C 10.758355,-0.21416777 7.206108,-0.59716897 4.2665535,0.90402426 1.3286464,2.4044003 -0.34363565,5.7500444 0.05949116,8.9924405 0.34095041,11.258229 1.60434,13.245201 3.4089971,14.521793 c 0,0 4.9746037,-4.442201 6.2956502,-6.0185405 C 10.94368,7.0236964 13.648842,2.2985643 13.648842,2.2985643 13.529881,2.1789723 13.406683,2.0624363 13.278662,1.9494283 Z"/>
 <path style="fill:#27aae1" d="m 3.4091143,14.521777 c 0.831552,0.588084 1.7779473,1.02612 2.7963541,1.270124 3.1859493,0.762828 6.6211166,-0.62242 8.4436596,-3.3233 2.148127,-3.1840725 1.675694,-7.4846926 -1.000169,-10.1700527 0,0 -3.8199381,4.5600321 -5.0934473,6.0802761 C 7.2687064,9.9143565 3.4091143,14.521777 3.4091143,14.521777 Z"/>
 <path style="fill:#f4f4f7" d="m 8.2350151,5.3954668 c 0,0 -0.7119607,-1.7311505 -2.1938937,-1.3371368 C 4.5594079,4.4524684 1.4647965,7.815684 8.0026388,12 h -0.00527 C 14.535099,7.815684 11.440707,4.4525888 9.9588834,4.05833 8.4769508,3.6643163 7.7651002,5.3954668 7.7651002,5.3954668 Z"/>
</svg>
