<svg xmlns="http://www.w3.org/2000/svg" width="16" height="16" version="1.1">
 <rect style="fill:#6f6f6f" width="16" height="16" x="0" y="0" rx="1.2" ry="1.2"/>
 <path style="fill:#17191e" d="M 5.5200812,16 C 5.8786656,15.056845 6.2744376,14.036926 6.1210348,13.006135 6.0718652,12.426638 4.5070776,11.557918 3.9214388,11.61 4.7162804,10.832711 4.6818618,8.250268 4.3185982,6.5395192 4.1044722,5.7696384 4.5533958,5.0112768 4.862985,4.3010064 4.839569,3.6866832 5.6243222,3.4259324 5.7480942,3.8817016 6.2189954,3.5657956 6.8431094,2.7877884 7.376621,3.4264808 7.9458958,3.7439904 8.4388786,3.9348008 9.0894018,3.7902232 9.7413022,3.4864272 10.14117,3.2728871 10.700852,2.8007171 11.27979,2.3308814 11.875528,1.8678196 12.340649,1.2765308 12.644515,1.0983215 12.854324,0.43119162 13.067516,0.39999974 12.960354,1.0628789 12.730669,1.7108965 12.472975,2.3285576 12.101536,3.0235231 11.310865,3.3007323 10.753384,3.7988255 10.691098,4.3882191 11.497999,3.4335947 11.846376,3.5498675 12.47425,3.3926911 12.921186,2.7828347 13.50321,2.4710915 13.983114,1.9269489 14.674583,1.609017 15.050603,0.96663962 15.451348,0.5201183 14.92311,1.5561425 14.886028,1.7466243 c -0.30415,0.5848381 -0.557232,1.2017232 -0.95124,1.7321876 -0.299647,0.6039844 -0.964986,1.0438716 -1.638461,1.0810176 -0.360671,0.068591 -1.007055,0.042852 -1.18302,0.3072904 0.654867,0.1952388 1.320587,-0.025948 1.959544,-0.1786736 0.586263,-0.213312 0.804026,0.2078419 0.232245,0.6855007 -0.211163,0.8781036 -1.148464,0.5800168 -1.807032,0.684106 -0.759819,0.093899 0.123668,0.8723325 0.589845,0.6906581 1.007369,-0.2940504 0.113882,0.9213272 -0.441815,0.617458 -0.867887,-0.5580912 -0.57566,0.692306 -0.607088,1.174728 0.0951,0.4966644 -0.303261,1.6782039 0.569891,1.5066709 0.341596,-0.095696 1.293582,0.0512 0.558522,0.402297 -0.396863,0.181384 -0.403353,0.938792 -0.936221,0.507691 -0.705237,-0.143976 0.413279,0.630247 -0.241905,0.776609 -0.93472,0.442788 -0.599489,1.455431 -0.961369,2.393526 C 9.8969926,14.771466 9.4626344,15.340123 9.4329044,16 8.0288316,15.98996 6.922638,16.05668 5.5200812,16 Z"/>
 <g transform="matrix(1.2376699,0,0,1.0416666,-1.4161553,-0.74999856)">
  <ellipse style="fill:#456ef0" cx="6" cy="7.2" rx=".8" ry="1.2"/>
  <path style="opacity:0.5979996;fill:#113ecd" d="M 5.3664064,6.4703119 A 0.8,1.2 0 0 0 5.2,7.1999995 0.8,1.2 0 0 0 5.5757812,8.2164059 1,1 0 0 0 6,7.3999995 1,1 0 0 0 5.3664064,6.4703119 Z"/>
  <path id="ellipse1023" style="fill:#f4f4f7" d="M 6,5.9999995 A 0.8,1.2 0 0 0 5.5570312,6.2023431 0.8,1.2 0 0 1 5.6,6.1999995 a 0.8,1.2 0 0 1 0.8,1.2 A 0.8,1.2 0 0 1 6.0429688,8.3976559 0.8,1.2 0 0 0 6.8,7.1999995 a 0.8,1.2 0 0 0 -0.8,-1.2 z"/>
  <path style="fill:#2e2e2e" d="m 5.196558,6.9910171 c -0.030164,0.12745 0.0038,0.2368644 0.00344,0.3721072 3.452e-4,0.1352428 0.015928,0.2694248 0.046094,0.3968752 C 5.447648,7.7366179 5.5997664,7.5660303 5.6,7.3631243 5.5997664,7.1602183 5.3981124,7.0143983 5.196558,6.9910171 Z"/>
 </g>
 <path style="fill:#eba420" d="M 4.5086469,5.0999995 C 1.8564912,6.3486103 0.36989339,9.922772 1.2572971,12.594617 1.3366664,12.782335 1.4368003,12.959452 1.6191366,13.1 2.0862561,12.830833 2.2724162,12.356518 2.6635971,12.036654 2.8544314,11.882376 3.0774,11.769942 3.3484577,11.783285 4.1292227,11.737795 4.7136532,11.498362 5.2807368,11.313033 5.6057503,11.148722 5.9574528,11.032328 6.2848342,10.850512 6.8897362,10.583655 7.3064019,9.724556 6.7120132,9.546716 6.5750229,9.511228 6.4013332,9.535528 6.2610271,9.4822963 5.5658096,9.0676727 5.0506359,8.1367251 4.8715817,7.4322331 4.678032,6.6736911 4.3072273,5.8510931 4.4600096,5.1645391 Z"/>
 <path style="opacity:0.3" d="M 3.8863128,6.6626194 C 3.7347291,6.8142027 3.1936608,7.1095063 3.0420771,6.957923 2.8904937,6.806339 3.185797,6.2652708 3.3373804,6.1136875 c 0.1515837,-0.1515833 0.3973487,-0.1515833 0.5489324,0 0.1515829,0.1515833 0.1515829,0.3973486 0,0.5489319 z"/>
</svg>
