<svg xmlns="http://www.w3.org/2000/svg" width="16" height="16" version="1">
 <rect style="fill:#dd2525" width="16" height="16" x="0" y="0" rx=".8" ry=".8"/>
 <path style="fill:#f4f4f7" d="M 12,3 V 5 H 9 v 8 H 7 V 5 H 4 V 3 Z"/>
 <path style="opacity:0.5;fill:#f4f4f7" d="M 1,0.99999985 V 12 H 2 V 1.9999998 H 14 V 14 H 4 v 1 H 15 V 0.99999985 Z M 1,13 v 2 h 2 v -2 z"/>
</svg>
