<svg xmlns="http://www.w3.org/2000/svg" width="16" height="16" version="1.1">
 <path style="fill:#b2bfd9" d="M 8.0234375 0 C 6.8832684 -0.008961091 5.8283614 0.63714634 5.3183594 1.65625 L 0.31835938 11.648438 C -0.054453465 12.393069 -0.10454976 13.348935 0.19335938 14.09375 C 0.49126851 14.838564 1.0389972 15.35955 1.6601562 15.669922 C 2.2813153 15.980294 3.0259536 16.104964 3.8007812 15.896484 C 4.5756089 15.688005 5.312734 15.074707 5.6855469 14.330078 L 6.3515625 13 L 9.6503906 13 L 10.316406 14.330078 C 10.688901 15.074884 11.424259 15.687849 12.199219 15.896484 C 12.974178 16.105119 13.720677 15.980275 14.341797 15.669922 C 14.962917 15.359569 15.508627 14.838305 15.806641 14.09375 C 16.104654 13.349193 16.056089 12.393245 15.683594 11.648438 L 10.683594 1.65625 C 10.18101 0.65197269 9.1470204 0.008711819 8.0234375 0 z M 8 9.7011719 L 8.1503906 10 L 7.8515625 10 L 8 9.7011719 z"/>
 <path style="fill:#17191e" d="M 8.0078125 2 A 1.0001 1.0001 0 0 0 7.1054688 2.5527344 L 2.1054688 12.552734 A 1.0001165 1.0001165 0 1 0 3.8945312 13.447266 L 5.1171875 11 L 10.882812 11 L 12.105469 13.447266 A 1.0001163 1.0001163 0 1 0 13.894531 12.552734 L 8.8945312 2.5527344 A 1.0001 1.0001 0 0 0 8.0078125 2 z M 8 5.2363281 L 9.8828125 9 L 6.1171875 9 L 8 5.2363281 z"/>
</svg>
