<svg xmlns="http://www.w3.org/2000/svg" width="16" height="16" version="1">
 <rect style="fill:#1e88e5" width="16" height="16" x="0" y="0" rx="1" ry="1"/>
 <path style="fill:#f4f4f7" d="M 7.9325,5.3742 H 7.9816 L 8.8159,8.6871 H 7.1104 Z M 11.589,12 9.0858,4 H 6.914 L 4.4109,12 H 6.2514 L 6.7422,10.098 H 9.1839 L 9.6747,12 Z"/>
</svg>
