<svg xmlns="http://www.w3.org/2000/svg" width="16" height="16" version="1.1">
 <path style="fill:#6790eb;fill-rule:evenodd" d="m 16,8 c 0,4.418456 -3.58191,8 -8,8 C 3.581544,16 4e-8,12.41809 4e-8,8 4e-8,3.581544 3.5819096,4e-8 8,4e-8 12.418456,4e-8 16,3.5819096 16,8"/>
 <path style="fill:#f4f4f7" d="m 2.8037848,11.98693 c 0,-0.03433 4.9802725,-9.5079869 5.147228,-9.7912422 L 8.0663519,2 8.1923256,2.2210401 c 0.069286,0.121569 0.5770449,1.0880964 1.1283498,2.1478333 0.5513061,1.0597395 1.6630066,3.1904048 2.4704446,4.7348106 1.133018,2.16715 1.452447,2.817913 1.399621,2.85139 -0.03765,0.02386 -0.491353,0.04373 -1.00823,0.04415 L 11.242733,12 10.965587,11.718975 C 10.270274,11.013936 9.0551266,10.598093 7.6969736,10.223079 l -0.6084598,-0.168008 0.7605761,-0.03815 c 0.714499,-0.035834 1.5823428,-0.01127 2.0230229,0.0592 0.1472922,0.02356 0.1937742,0.0139 0.1937742,-0.04023 0,-0.1337419 -1.9264029,-3.7655732 -1.9995716,-3.7655732 -0.053323,0 -0.4297071,0.6560721 -1.8908045,3.2958351 C 5.4577481,10.862937 4.8665271,11.92875 4.861684,11.934627 c -0.021631,0.02625 -2.0578992,0.078 -2.0578992,0.0523 z"/>
</svg>
