<svg width="16" height="16" version="1.1" xmlns="http://www.w3.org/2000/svg">
 <rect x="2" width="12" height="14" rx="1" ry="1" style="fill:#4f4f4f"/>
 <path d="M 2.9785156,0 C 2.4346618,0.01174031 1.9999277,0.4560195 2,1 v 12 c 2.096e-4,0.446065 0.2958021,0.838064 0.7246094,0.960938 l 7,2 C 10.363401,16.14384 10.99965,15.664461 11,15 V 3 C 10.99979,2.5539355 10.704198,2.1619369 10.275391,2.0390625 l -7.0000004,-2 C 3.1789533,0.01121725 3.0788735,-0.00195115 2.9785156,0 Z" style="fill:#1f8ac9"/>
 <circle cx="9" cy="9" r="1" style="fill:#f4f4f7"/>
</svg>
