<svg xmlns="http://www.w3.org/2000/svg" width="16" height="16" version="1">
 <path fill="#b2bfd9" d="m8 4c-3.324 0-6 2.676-6 6s2.676 6 6 6 6-2.676 6-6-2.676-6-6-6z"/>
 <path fill="#3c8cf8" d="m2 2h2v8c0 2.2091 1.7909 4 4 4s4-1.7909 4-4-1.791-4-4-4c-0.7026 0.0016-1.3924 0.1882-2 0.541v-4.541s0.0074-2-2-2c-1.9943 0.019686-2 2-2 2zm6 6c1.1046 0 2 0.89543 2 2s-0.89543 2-2 2-2-0.895-2-2c0-1.1046 0.8954-2 2-2z"/>
</svg>
