<svg width="16" height="16" version="1.1" xmlns="http://www.w3.org/2000/svg">
 <rect width="16" height="16" rx="1" ry="1" style="fill:#b2bfd9"/>
 <path d="m1 10v6h2v-6zm12 0v6h2v-6z" style="fill:#3ca2e4"/>
 <path d="m2 9a1 1 0 0 0-1 1 1 1 0 0 0 1 1 1 1 0 0 0 1-1 1 1 0 0 0-1-1zm12 0a1 1 0 0 0-1 1 1 1 0 0 0 1 1 1 1 0 0 0 1-1 1 1 0 0 0-1-1zm-14 3v1h16v-1z" style="fill:#4f4f4f"/>
</svg>
