<svg xmlns="http://www.w3.org/2000/svg" width="16" height="16" version="1">
 <rect style="fill:#614eff" width="16" height="16" x="0" y="0" rx="8" ry="8"/>
 <path style="fill:#f4f4f7" d="M 8 3 A 5 5 0 0 0 3 8 A 5 5 0 0 0 8 13 A 5 5 0 0 0 13 8 A 5 5 0 0 0 8 3 z M 8 5 A 3.0000002 3.0000002 0 0 1 11 8 A 3.0000002 3.0000002 0 0 1 8 11 A 3.0000002 3.0000002 0 0 1 5 8 A 3.0000002 3.0000002 0 0 1 8 5 z"/>
 <path style="fill:#f4f4f7" d="m 9.4830769,3.2328723 c 0.6635701,0.2627985 0.9324911,1.3096089 1.4641771,1.80524 0.723661,0.6745892 1.626278,0.8821869 1.822482,1.8335823 -0.01899,-0.1005323 -0.03914,-0.2145819 -0.05108,-0.2651742 -0.05448,-0.2308458 -0.192787,-0.6334258 -0.281701,-0.8195612 -0.08497,-0.1778834 -0.105594,-0.2581003 -0.166766,-0.6700723 -0.02263,-0.1524177 -0.02779,-0.2861465 -0.02404,-0.617488 0.0026,-0.2327408 0.0058,-0.4959924 0.0067,-0.584435 0.0016,-0.1429777 -0.0031,-0.1701874 -0.04282,-0.2463943 -0.02648,-0.050694 -0.06532,-0.1005038 -0.111442,-0.1444323 -0.05227,-0.061246 -0.114716,-0.090311 -0.177198,-0.1066246 -0.201272,-0.053644 -0.421665,-0.00933 -0.60324,0.00874 -0.297209,0.028177 -0.614087,0.054408 -0.8381,0.065786 H 10.153338 L 10.01061,3.4229265 C 9.8586127,3.3494104 9.6329958,3.2880619 9.4830769,3.2328723 Z m 3.2949221,3.6786362 c 0.02234,0.1184996 0.04038,0.237768 0.05409,0.3575719 -0.0069,-0.076789 -0.01521,-0.1446158 -0.03306,-0.2478966 -0.0068,-0.039383 -0.01327,-0.067711 -0.02104,-0.1096753 z"/>
</svg>
