<svg xmlns="http://www.w3.org/2000/svg" width="16" height="16" version="1">
 <g transform="translate(3,-5)">
  <path style="fill:#d3d3d3" d="m 1,7.9 0,6.35 C 1,14.666 1.3345,15 1.75,15 l 9.5,0 C 11.666,15 12,14.666 12,14.25 L 12,7.9 Z"/>
  <path fill="#636e73" d="m1.75 6c-0.4155 0-0.75 0.3345-0.75 0.75v1.25h11v-1.25c0-0.4155-0.334-0.75-0.75-0.75z"/>
 </g>
 <g>
  <path style="fill:#b2bfd9" d="m 1,7.9 0,6.35 C 1,14.666 1.3345,15 1.75,15 l 9.5,0 C 11.666,15 12,14.666 12,14.25 L 12,7.9 Z"/>
  <path fill="#636e73" d="m1.75 6c-0.4155 0-0.75 0.3345-0.75 0.75v1.25h11v-1.25c0-0.4155-0.334-0.75-0.75-0.75z"/>
 </g>
</svg>
