<svg xmlns="http://www.w3.org/2000/svg" width="16" height="16" version="1">
 <circle style="fill:#17191e" cx="8" cy="8" r="8"/>
 <path style="fill:#f54636" d="M 8 2 A 6 6 0 0 0 2 8 A 6 6 0 0 0 8 14 A 6 6 0 0 0 14 8 A 6 6 0 0 0 8 2 z M 3.0507812 6 L 8.0117188 6 L 13 6 L 13 7.671875 C 13 7.9901475 12.996855 8.26499 12.939453 8.5683594 C 12.882054 8.8717285 12.734203 9.2545927 12.427734 9.5273438 C 11.814796 10.072846 11.219496 9.9907013 10.519531 9.9882812 C 9.950563 9.9863133 9.5470924 9.9909511 9.078125 9.8164062 C 8.6091576 9.6418617 8.23228 9.1870338 8.0664062 8.8476562 C 8.0149903 8.7424592 8.0158046 8.7550752 8.0273438 8.765625 C 8.0190879 8.7647267 8.0251759 8.7651325 8.0097656 8.7636719 C 8.0029465 8.7630253 8.0075818 8.7641615 8.0019531 8.7636719 C 7.9890402 8.7824258 7.9803213 8.7929335 7.9550781 8.8398438 C 7.7651303 9.1928306 7.5289497 9.5336769 7.0761719 9.75 C 6.7705341 9.8960192 6.6379686 9.8906772 6.4394531 9.9199219 C 6.2409377 9.9491659 6.026002 9.9689789 5.8066406 9.9824219 C 5.3679179 10.009307 5.0012536 10.041221 4.5351562 9.9414062 C 4.1062813 9.849563 3.5456245 9.589164 3.2636719 9.0917969 C 2.9820832 8.5950718 2.9881662 8.1378564 3.0039062 7.6269531 L 3.0507812 6 z M 10.941406 8 C 10.963092 8.0059407 10.993303 8.0105284 10.982422 8.0234375 C 10.982922 8.0172105 10.983882 8.0067 10.984375 8 L 10.941406 8 z"/>
 <path style="fill:#f4f4f7" d="M 6.6448004,8.8472791 C 6.7969426,8.7745903 6.9421277,8.6118315 7.0748738,8.3651447 7.3315051,7.8882375 7.6176866,7.7225339 8.104916,7.7687347 c 0.4194226,0.039772 0.6504408,0.2115252 0.859308,0.638866 0.2389669,0.4889256 0.4736288,0.576264 1.55839,0.5800164 C 11.860384,8.9922411 12,8.8679879 12,7.6727727 V 6.9999991 l -3.9889436,1.2e-6 H 4.0221138 l -0.01904,0.6560428 c -0.027858,0.9031076 0.1269138,1.1761232 0.7413193,1.307698 0.398316,0.085299 1.6369935,0.00939 1.9004095,-0.1164576 z"/>
</svg>
