<svg xmlns="http://www.w3.org/2000/svg" width="16" height="16" version="1.1">
 <g transform="translate(0,-1036.3622)">
  <path style="fill:#4f4f4f" d="m 14.611425,1051.2459 c -0.358154,-0.1666 -0.860387,-0.5448 -1.668557,-1.6114 -0.38827,-0.5125 -0.781826,-0.9993 -0.874565,-1.0819 -0.295477,-0.2632 -0.330686,-0.1605 -1.136442,-0.1874 -0.895755,-0.03 -0.9562089,0.1798 -0.92232,0.5571 0.04491,0.5004 -0.01179,1.0317 -0.1122956,1.176 -0.2284263,0.3278 -0.7915557,0.3753 -1.2298536,0.1038 -0.2675317,-0.1656 -0.3951621,-0.3934 -0.5992528,-1.0693 -0.3844229,-1.2733 -1.2120519,-2.1949 -1.9544961,-2.9033 -0.3384217,-0.3229 -0.5874922,-0.5046 -0.871423,-0.6357 -0.4765458,-0.2199 -0.8732203,-0.2798 -0.9886456,-0.149 -0.067273,0.076 0.011765,0.1702 0.3194488,0.6603 0.1022342,0.1629 0.1834357,0.2883 0.2477716,0.3886 0.4212685,0.7315 0.00584,0.9026 -0.6704375,0.9018 -0.5172415,0 -0.7799044,-0.135 -1.0196078,-0.4462 -0.09882,-0.1283 -0.3936652,-0.6318 -0.6552133,-1.1189 C 2.0178805,1044.9779 2,1044.93 2,1044.5601 c 0,-0.3276 0.052589,-0.5246 0.3553588,-1.3312 0.1954489,-0.5207 0.3688891,-1.0274 0.3854208,-1.0682 0.023739,-0.059 -0.097467,-0.075 -0.577482,-0.08 -0.1498704,-0.3347 0.091126,-0.689 0.4759095,-0.7205 0.4616122,-0.049 0.8652758,-0.3645 1.4902948,-0.6273 0.7476363,-0.3143 0.8791849,-0.3961 1.5943152,-0.3643 1.7347202,0.2367 3.2120951,1.2694 4.088989,2.1296 l 1.0076859,0.9374 -0.08873,0.7656 c 1.751125,0.4564 0.74932,1.5791 -0.208637,0.1533 l -0.166032,-0.2457 c -0.256684,0.079 -0.4379819,-0.1108 -0.6326629,-0.1656 -0.2799278,-0.079 -0.2175823,0.4846 -0.5088804,0.1115 -1.5100876,-1.0835 -0.9216101,1.7839 0.1713592,2.4899 0.5106619,0.3245 0.6213941,0.7196 0.9871061,0.6724 0.338438,-0.043 0.471966,0.064 1.161844,-0.4141 0.799122,-0.5539 1.134508,-0.5808 1.592008,-0.1281 0.0882,0.088 0.451005,0.5401 0.806223,1.2749 0.930837,1.9257 1.127549,1.8266 1.597855,2.2798 0.227537,0.2192 0.432025,0.453 0.45442,0.5193 0.05823,0.1724 -0.07725,0.4381 -0.271605,0.5327 -0.249098,0.1211 -0.805317,0.1032 -1.103343,-0.036 z"/>
  <path style="fill:none;stroke:#4e4e4e;stroke-linecap:round;stroke-linejoin:round" d="m 3.813,1041.7582 c -2.3785308,0.7303 -3.42851109,-1.5199 -3.296,-2.3695 0.24585696,-1.5765 1.9647167,-2.2893 3.929,-0.4825 l 0,0 0,0"/>
  <path style="fill:#f4f4f7" transform="translate(0,1036.3622)" d="M 8.9785156,6 C 8.6757972,6 8.4221196,6.3916625 8.1171875,7.6640625 8.0375235,7.9964625 7.9962425,8.2883813 8,8.5507812 8.010967,9.3164812 8.5278965,9.9597 9.4355469,10.5625 9.8775755,10.8561 10.190508,10.9845 10.5,11 10.809492,10.9845 11.122425,10.8561 11.564453,10.5625 12.472104,9.9597 12.989034,9.3164813 13,8.5507812 c 6.73e-4,-0.046986 -9.8e-5,-0.094919 -0.0023,-0.1438607 -0.01,-0.2243809 -0.302631,-0.2168633 -0.368027,-0.4897427 -0.304936,-1.2723989 -0.188673,-0.9241871 -0.491391,-0.9241871 -0.155099,0.0018 -0.206688,-0.3643127 -0.400755,-0.1043127 -0.191215,0.2560476 -0.614149,-0.1108656 -0.801121,0.07188 -0.12308,0.1202987 -0.245157,0.2087929 -0.366118,0.24452 -0.02617,0.005 -0.04705,0.00462 -0.07031,0.015625 -0.02326,-0.011 -0.04414,-0.010625 -0.07031,-0.015625 C 10.124975,7.1150781 9.8131824,6.690225 9.4960938,6.265625 9.3020261,6.005625 9.133615,6.0018 8.9785156,6 Z"/>
  <path style="fill:#4f4f4f" transform="translate(0,1036.3622)" d="M 12.021484 6 C 11.943935 6.0009 11.863092 6.0014744 11.777344 6.0351562 C 11.691595 6.0688375 11.60094 6.135625 11.503906 6.265625 C 11.37506 6.4381576 11.247862 6.6013266 11.121094 6.75 C 11.025618 6.8628668 10.930238 6.9689571 10.835938 7.046875 L 10.820312 7.0742188 C 11.049456 7.4701393 12.117747 8.0789444 12.998047 8.5234375 C 12.998837 8.2677441 12.959867 7.9855853 12.882812 7.6640625 C 12.577882 6.3916625 12.324202 6 12.021484 6 z"/>
  <path style="fill:#4f4f4f" d="M 9.5265561,1044.3628 C 9.8255827,1044.3498 10,1044.5537 10,1044.9333 c 0,0.4276 -0.043978,0.4773 -0.3570363,0.3969 -0.2954787,-0.076 -0.476278,-0.2035 -0.5601644,-0.3931 -0.1333235,-0.3015 -0.1108474,-0.4043 0.1054705,-0.4925 0.1253979,-0.051 0.2386104,-0.079 0.3382863,-0.081 z"/>
  <path style="fill:#4f4f4f" d="m 10.500001,1046.362 c 0.275769,0 0.499999,0.013 0.499999,0.022 0,0.013 -0.133307,0.1543 -0.296063,0.2794 l -0.203936,0.1988 -0.203938,-0.1988 C 10.133307,1046.5383 10,1046.398 10,1046.384 c 0,-0.012 0.224231,-0.022 0.500001,-0.022 z"/>
  <path style="fill:#4f4f4f" d="m 11.447444,1044.3628 c -0.299027,-0.013 -0.473444,0.1909 -0.473444,0.5705 0,0.4276 0.04398,0.4773 0.357036,0.3969 0.295479,-0.076 0.476278,-0.2035 0.560165,-0.3931 0.133323,-0.3015 0.110847,-0.4043 -0.105471,-0.4925 -0.125398,-0.051 -0.23861,-0.079 -0.338286,-0.081 z"/>
 </g>
</svg>
