<svg xmlns="http://www.w3.org/2000/svg" width="16" height="16" version="1.1">
 <path style="fill:#2d4dc0" d="M 8.3046875 0.005859375 A 8 8 0 0 0 5.9296875 0.2734375 A 8 8 0 0 0 0.2734375 10.070312 A 8 8 0 0 0 10.070312 15.726562 A 8 8 0 0 0 15.726562 5.9296875 A 8 8 0 0 0 8.3046875 0.005859375 z"/>
 <path style="fill:#f4f4f7" d="m 7.7409825,11.033333 c -0.2530728,0.06781 -0.4766718,0.239384 -0.607672,0.466282 -0.1309999,0.226899 -0.1677875,0.506328 -0.099977,0.759401 0.067811,0.253073 0.2393842,0.476672 0.4662828,0.607673 0.2268991,0.131 0.5063283,0.167787 0.759401,0.09998 0.2530729,-0.06781 0.4766719,-0.239385 0.6076722,-0.466283 C 8.9976894,12.273484 9.034477,11.994054 8.9666665,11.740981 8.8988561,11.487909 8.7272822,11.26431 8.5003836,11.133309 8.2734845,11.00231 7.9940554,10.965522 7.7409825,11.033333 Z"/>
 <path style="fill:#f4f4f7" d="m 10.474343,9.8287056 c 0.444031,0.04806 0.906113,-0.141097 1.196138,-0.489648 C 11.960506,8.9905072 12.07033,8.4923497 11.954769,8.0495366 11.839209,7.6067231 11.501509,7.2316875 11.080605,7.0787254 10.659701,6.9257634 10.167412,6.9991701 9.8062737,7.2687449 9.5445302,7.4641254 9.3590395,7.745544 9.1548568,8.0033163 9.0527655,8.1322026 8.9443349,8.2568547 8.819093,8.3620383 8.6938515,8.4672214 8.5508046,8.5527984 8.3945155,8.5957962 8.2382264,8.638794 8.0726699,8.6381188 7.9129862,8.6113216 7.7533023,8.5845281 7.5986961,8.53224 7.4475179,8.473032 7.1451623,8.3546168 6.8474791,8.2061275 6.5256571,8.1712951 6.0816264,8.1232353 5.6195437,8.3123923 5.3295186,8.6609423 5.0394941,9.0094926 4.9296699,9.5076496 5.0452302,9.9504636 c 0.1155602,0.4428144 0.4532605,0.8178504 0.8741643,0.9708124 0.4209041,0.152962 0.9131936,0.07955 1.2743318,-0.19002 0.2617435,-0.195381 0.4472346,-0.476799 0.6514169,-0.7345714 0.1020914,-0.128887 0.2105223,-0.253539 0.3357638,-0.358722 0.1252415,-0.105184 0.2682889,-0.190761 0.424578,-0.233759 0.1562891,-0.043 0.3218455,-0.04232 0.4815293,-0.01553 0.1596838,0.0268 0.31429,0.07908 0.4654682,0.138289 0.3023556,0.118417 0.6000395,0.266905 0.9218605,0.301738 z"/>
 <path style="fill:#f4f4f7" d="M 10.038441,6.5358791 C 10.609337,6.5959536 11.203443,6.3595082 11.576333,5.9238204 11.949222,5.488133 12.090424,4.8654367 11.941847,4.3119203 11.793269,3.7584042 11.359083,3.2896096 10.817921,3.0984071 10.276758,2.9072045 9.6438152,2.9989632 9.1794945,3.3359313 8.8429671,3.580157 8.6044789,3.9319297 8.3419587,4.2541452 8.2106985,4.4152531 8.0712873,4.5710682 7.9102623,4.7025472 7.7492378,4.8340263 7.56532,4.9409977 7.3643769,4.9947446 7.1634338,5.0484917 6.9505757,5.0476477 6.745268,5.0141538 6.5399599,4.9806582 6.3411803,4.9153018 6.1468088,4.8412919 5.7580656,4.6932725 5.3753299,4.5076612 4.9615592,4.4641209 4.3906625,4.4040464 3.7965565,4.640492 3.423667,5.0761797 3.050778,5.5118671 2.9095757,6.1345634 3.0581531,6.6880798 3.2067308,7.2415958 3.6409167,7.7103905 4.1820791,7.901593 4.7232411,8.0927955 5.3561846,8.0010369 5.8205053,7.6640687 6.1570326,7.4198431 6.3955209,7.0680703 6.6580411,6.7458548 6.7893014,6.584747 6.9287125,6.4289321 7.0897374,6.2974529 7.250762,6.1659738 7.4346798,6.0590025 7.6356229,6.0052554 c 0.2009431,-0.053747 0.4138013,-0.052903 0.619109,-0.019409 0.205308,0.033495 0.4040877,0.098852 0.598459,0.172862 0.3887433,0.1480193 0.7714791,0.3336307 1.1852501,0.3771707 z"/>
</svg>
