<svg xmlns="http://www.w3.org/2000/svg" width="16" height="16" version="1">
 <path fill="#e7a73c" d="m8 4e-8c-4.432 0-8 3.568-8 8h8z"/>
 <path fill="#e74c3c" d="m8 4e-8c4.432 0 8 3.568 8 8h-8z"/>
 <path fill="#5dc15c" d="m8 16c4.432 0 8-3.568 8-8h-8z"/>
 <path fill="#3c88e7" d="m8 16c-4.432 0-8-3.568-8-8h8z"/>
 <circle fill="#17191e" cx="8" cy="8" r="4"/>
</svg>
