<svg xmlns="http://www.w3.org/2000/svg" width="16" height="16" version="1.1">
 <rect style="fill:#8182f3" width="16" height="16" x="0" y="0" rx="1.2" ry="1.2"/>
 <path style="fill:#a1f2fd" d="m 5.4581186,11.967044 c -0.5990791,-0.0538 -1.2182363,0.008 -1.800881,-0.168741 C 3.2508024,11.569025 2.7993954,11.40889 2.4330243,11.108561 2.3242876,10.342527 2.4516717,9.5405404 2.2373879,8.7867114 2.1656669,8.3375338 2.0216153,8.0502981 2,7.600945 2.4010795,7.3813474 2.8862027,7.5451581 3.3207868,7.5215726 c 1.9045513,0.069684 3.8084095,-0.084321 5.712972,-0.022924 1.5190292,-0.00516 3.0158542,-0.2345122 4.5188572,-0.4393032 0.427396,-0.2117379 0.580899,0.1844211 0.318016,0.5376188 -0.291878,0.6599395 -0.500885,1.3704217 -0.871477,1.9846442 -0.335631,0.4862486 -0.662997,0.9808436 -1.021839,1.4470496 -0.37703,0.208477 -0.762432,0.416199 -1.157281,0.577251 -0.580305,0.0999 -1.1567209,0.240892 -1.7394687,0.314961 -1.2074645,0.03501 -2.4148775,0.128445 -3.6224477,0.04617 z"/>
 <path style="fill:#03588a" d="M 7.1265623,7.9681644 C 6.3042483,7.9141201 5.4840439,7.8241458 4.6613163,7.7766944 4.1559079,7.7276594 3.6491471,7.6948905 3.1439927,7.6455258 2.8457851,7.5495501 3.1044727,7.1791366 3.0969099,6.8482919 3.1685311,6.0038294 3.2208627,5.1564401 3.2953731,4.3128434 3.4214027,4.0611673 3.7104983,3.986332 3.9098667,3.8191334 4.2252035,3.6198273 4.5362819,3.4020973 4.8552171,3.2153296 L 7.0862095,3.0000002 c 0.591604,0.1997562 1.1847372,0.3968008 1.768896,0.623419 0.3150108,0.1253618 0.030832,0.4942752 -0.054064,0.7053113 -0.3047892,0.61771 -0.614016,1.2375068 -0.8817332,1.876495 -0.057432,0.5280542 -0.1521,1.0531642 -0.1693632,1.5851339 0.090479,0.3335657 -0.330346,0.16347 -0.4849688,0.1854414 -0.046138,-0.00254 -0.092278,-0.00508 -0.138414,-0.00761 z"/>
 <path style="fill:#f4f4f7" d="M 7.1838793,6.9232144 C 7.4665233,6.8511221 7.4938482,6.8390729 7.4999297,6.7838511 7.5035852,6.7506047 7.3643649,6.2797417 7.1905367,5.7374887 6.9488426,4.9835288 6.8639602,4.7497415 6.8297465,4.7437826 6.8000782,4.7386147 6.6835243,4.8451466 6.483749,5.0600266 6.0393975,5.5379757 5.8916287,5.688459 5.8666515,5.688459 5.8465535,5.688459 5.7535405,5.5049899 5.3814827,4.7314815 5.2981562,4.5582454 5.2550222,4.494915 5.2240395,4.5003157 5.1756166,4.5087586 5.0488804,4.6884215 4.6006397,5.3840632 4.0088733,6.3024474 3.9701598,6.3697563 4.0120637,6.4073839 c 0.069631,0.062525 0.4895979,0.2794918 0.5409931,0.2794918 0.039571,0 0.1047095,-0.1012072 0.2913237,-0.4526323 0.1321965,-0.2489479 0.2531744,-0.4487652 0.26884,-0.4440383 0.015668,0.00472 0.1259028,0.2056711 0.2449732,0.4465441 0.1190696,0.2408728 0.2287359,0.4514183 0.2437038,0.4678786 0.04507,0.049566 0.1010038,0.00489 0.4934592,-0.3941094 0.2047815,-0.2081989 0.3825197,-0.3785437 0.3949734,-0.3785437 0.032103,0 0.034751,0.00852 0.1684263,0.5434374 0.066327,0.2654068 0.1275804,0.4927901 0.1361196,0.5052962 0.022645,0.033164 0.048594,0.029333 0.3890033,-0.057494 z"/>
</svg>
