<svg xmlns="http://www.w3.org/2000/svg" width="16" height="16" version="1">
 <path style="fill:#3084e0" d="m 4.0333335,-4e-8 c -1.6806402,0 -3.03333352,0.96633332 -3.03333352,2.16666664 l 0,3.0333334 0,4.7998664 6.93333352,0 1.3,0 C 10,9.9998664 11,9 11,6.9665332 11,5 10,4 9.2333335,4.0001667 l -4.2333332,0 0,1.9996666 1.4423956,0 1.2431248,0 C 8.542697,6 9,6 9,7 9,8 8.4885381,8 7.6855207,8 L 4,8 4,7.110752 4,6.3557812 4,5.3463334 4,4.9996666 4,3.4666668 4,3 8,3 8,2.1666666 C 8,0.96633328 6.5007735,-4e-8 4.8201335,-4e-8 Z"/>
 <rect style="fill:#f4f4f7" width="1" height="1" x="6" y="1"/>
 <path style="fill:#ffa923" d="M 8.0333335,16 C 6.3526933,16 5,15.033667 5,13.833333 L 5,10.8 5,6.0001336 l 6.933334,0 1.3,0 C 14,6.0001336 15,7 15,9.0334668 15,11 14,12 13.233334,11.999833 l -4.2333337,0 0,-1.999666 1.4423957,0 1.243125,0 C 12.542697,10 13,10 13,9 13,8 12.488538,8 11.685521,8 L 8,8 l 0,0.889248 0,0.7549708 0,1.0094482 0,0.346666 0,1.533 L 8,13 l 4,0 0,0.833333 C 12,15.033667 10.500774,16 8.8201335,16 Z"/>
 <rect style="fill:#f4f4f7" width="1" height="1" x="10" y="-15" transform="scale(1,-1)"/>
 <path style="fill:#3084e0" d="M 7.6855469,6 C 8.5427232,6.0001667 9,6 9,7 9,8 8.4885643,8 7.6855469,8 8,8 8,8 8,8 l 2.892578,0 C 10.955968,7.6887372 11,7.3520172 11,6.9667969 11,6.6084223 10.957394,6.2939734 10.898438,6 Z"/>
</svg>
