<svg xmlns="http://www.w3.org/2000/svg" width="16" height="16" version="1">
 <rect style="fill:#b2bfd9" width="15" height="15" x="-15" y="-15" rx=".75" ry=".75" transform="matrix(0,-1,-1,0,0,0)"/>
 <path style="fill:none;stroke:#c2352a;stroke-linecap:round;stroke-linejoin:round" d="M 2.5,10.489502 V 3.4983116 c 0,0 3,-0.3333116 3,3.4166884 0,3.75 -3,3.574502 -3,3.574502 z"/>
 <path style="fill:none;stroke:#169d41;stroke-linecap:round;stroke-linejoin:round" d="M 7.500075,10.492879 V 3.5016884 c 0,0 2.999925,-0.2341884 3,1.8283116 7.5e-5,2.0625 -3,2.1628788 -3,2.1628788 l 3,3.0000002 v 0 0 0"/>
 <path style="fill:none;stroke:#2a72c2;stroke-linecap:round;stroke-linejoin:round" d="M 12.50005,3.5016884 V 10.492879"/>
</svg>
