<svg xmlns="http://www.w3.org/2000/svg" width="16" height="16" version="1.1">
 <path style="fill:#ab47bc" d="M 5.417,0 4.0427,1.2264 C 4.0245,1.2323 3.8902,1.1224 3.7437,1.0803 3.3512,0.9673 2.8527,0.98658 2.5141,1.1373 2.2926,1.2359 2.2067,1.3053 1.6799,1.8123 1.1121,2.3588 1,2.4899 1,2.606 1,2.6361 1.2052,2.9294 1.3062,3.1592 L 1.4894,3.5771 1.254,4.21 C 1.1245,4.558 1.0128,4.8618 1.0048,4.8857 0.98474,4.9467 2.8231,12.026 2.9192,12.249 3.0936,12.655 3.3677,13.019 3.7228,13.316 4.0435,13.585 7.2977,15.761 7.6199,15.922 7.7152,15.969 7.8688,15.997 8,16 8.1312,15.997 8.2848,15.969 8.3801,15.922 8.7023,15.761 11.957,13.585 12.277,13.316 12.632,13.019 12.906,12.655 13.081,12.249 13.177,12.026 15.015,4.9467 14.995,4.8857 14.987,4.8618 14.876,4.558 14.746,4.21 L 14.511,3.5771 14.694,3.1592 C 14.795,2.9294 15,2.6361 15,2.606 15,2.4899 14.888,2.3588 14.32,1.8123 13.793,1.3053 13.707,1.2359 13.486,1.1373 13.147,0.98658 12.649,0.9673 12.256,1.0803 12.11,1.1224 11.976,1.2323 11.957,1.2264 L 10.583,0 H 8 Z"/>
 <path style="fill:#f4f4f7" d="M 8.5685,12.569 C 8.5685,12.569 9.1826,12.106 9.7292,11.659 10.037,11.408 10.085,11.344 10.035,11.255 9.9947,11.184 9.0026,10.626 8.5282,10.408 8.0293,10.179 7.9769,10.178 7.4929,10.404 7.059,10.606 6.0825,11.157 6.0006,11.247 5.916,11.34 5.9586,11.426 6.1718,11.591 6.6111,11.931 7.4532,12.584 7.4532,12.584 8.0258,13.141 7.9813,13.142 8.5685,12.568 Z M 6.2669,10.574 C 6.8624,10.255 6.9514,10.188 7.4066,9.7277 7.7893,9.3405 7.8601,9.2253 7.8057,9.0786 7.7872,9.029 7.4997,8.726 7.1666,8.4051 6.3795,7.647 6.4125,7.954 6.712,7.1312 6.8898,6.6426 6.9363,6.6792 6.9356,6.5438 6.9346,6.3392 6.8682,6.1856 6.7346,6.0794 6.6805,6.0363 6.2049,5.8173 5.6778,5.5924 5.1506,5.3677 4.7224,5.1688 4.7261,5.1506 4.7345,5.109 5.3158,5.0368 5.7378,5.0247 L 6.057,5.0171 6.6438,5.2512 C 7.1558,5.4555 7.2362,5.4975 7.2746,5.5803 7.2988,5.6325 7.3183,5.7029 7.3179,5.7365 7.3175,5.7706 7.2226,6.2556 7.107,6.8155 6.9046,7.796 6.8989,7.6353 6.9515,7.6952 7.035,7.7902 7.8535,8.0107 8.1091,7.9888 8.4009,7.9623 8.9972,7.7599 9.0574,7.6918 9.1061,7.6366 9.0969,7.7743 8.8986,6.8158 8.7828,6.2559 8.6878,5.7704 8.6874,5.7368 8.687,5.7028 8.7066,5.6328 8.731,5.5802 8.7695,5.4974 8.845,5.4566 9.301,5.2746 10.036,4.9807 10.021,4.9834 10.689,5.0511 11.001,5.0813 11.268,5.1218 11.283,5.1381 11.3,5.157 11.281,5.1808 11.238,5.1993 11.197,5.2183 10.768,5.401 10.283,5.6088 9.7978,5.8165 9.3502,6.0243 9.288,6.0703 9.1417,6.1784 9.0707,6.3324 9.0697,6.5444 9.0689,6.6783 9.1152,6.6405 9.2882,7.1136 9.4088,7.4434 9.5075,7.7441 9.5075,7.7819 9.5075,7.9347 9.4077,7.8583 8.8543,8.39 8.5364,8.6956 8.2542,8.9904 8.2272,9.0454 8.2002,9.1002 8.1848,9.1842 8.1929,9.2319 8.2069,9.3132 8.5876,9.7338 8.9755,10.096 9.1384,10.248 10.125,10.954 10.283,10.982 10.415,11.005 10.557,10.781 10.788,10.562 11.015,10.347 11.151,10.132 11.243,9.8394 11.329,9.5656 11.307,9.3807 11.136,8.9367 11.006,8.5978 10.972,8.4118 11.015,8.2848 11.025,8.2545 11.378,7.8747 11.798,7.4383 12.714,6.4877 12.933,6.3174 12.983,6.1476 13.039,5.9592 13,5.7106 12.874,5.4608 12.575,4.8632 11.332,2.9923 11.226,2.9923 10.682,3.0918 10.227,3.3915 9.6537,3.4925 9.6086,3.4926 9.4171,3.359 9.2281,3.2932 8.4208,3.0133 8.159,2.9921 8.0027,2.9921 7.8464,2.9921 7.5845,3.0148 6.7773,3.2932 6.5882,3.3586 6.3946,3.4925 6.347,3.4925 5.7824,3.3991 5.3638,3.0683 4.7793,2.9921 4.6881,3.061 3.8796,4.3285 3.5448,4.8822 3.1511,5.5334 3.0398,5.6172 3.0078,5.8651 2.963,6.2119 3.0769,6.2704 4.253,7.4885 4.6486,7.8983 4.9804,8.257 4.9902,8.2856 5.0344,8.4142 4.9995,8.6075 4.8712,8.9469 4.6951,9.4127 4.6793,9.542 4.7643,9.8233 4.8568,10.129 5.0135,10.376 5.2503,10.59 5.4705,10.788 5.5556,10.987 5.6855,10.991 5.732,10.992 5.9936,10.723 6.2669,10.576 Z"/>
</svg>
