<svg width="16" height="16" version="1.1" xmlns="http://www.w3.org/2000/svg">
 <rect x="1.2628787e-15" y="1.7763568e-15" width="16" height="16" rx="4" ry="4" style="fill:#2097d4"/>
 <path d="m8 2a6 6 0 0 0-6 6 6 6 0 0 0 6 6 6 6 0 0 0 6-6 6 6 0 0 0-6-6zm0 1a5 5 0 0 1 5 5 5 5 0 0 1-5 5 5 5 0 0 1-3.4824219-1.417969c0.3843485-0.275756 0.9230115-0.582031 1.4824219-0.582031h4s1 0 1-1v-1c0-0.6644239-1-1-1-1s1-0.2876367 1-1v-1c0-1-1-1-1-1h-4c-0.5612972 0-1.1018702-0.3075538-1.4863281-0.5839844a5 5 0 0 1 3.4863281-1.4160156zm-2 3h4v1h-4v-1zm0 3h4v1h-4v-1z" style="fill:#f4f4f7"/>
</svg>
