<svg xmlns="http://www.w3.org/2000/svg" width="16" height="16" version="1">
 <path style="fill:#e6c59a" d="m0.85742 0c-0.47486 0-0.85742 0.38256-0.85742 0.85742v7.1426h16v-7.1426c0-0.47484-0.383-0.8574-0.857-0.8574h-14.286z"/>
 <path style="fill:#e54b3f" d="m16 15.143v-7.143h-16v7.143c0 0.475 0.38229 0.857 0.85714 0.857h14.286c0.475 0 0.857-0.382 0.857-0.857z"/>
 <path style="fill:#17191e" d="m5 3a1 1 0 0 1 -1 1 1 1 0 0 1 -1 -1 1 1 0 0 1 1 -1 1 1 0 0 1 1 1z"/>
 <path style="fill:#17191e" d="m13 3a1 1 0 0 1 -1 1 1 1 0 0 1 -1 -1 1 1 0 0 1 1 -1 1 1 0 0 1 1 1z"/>
 <rect fill="#fff" width="2" height="6" x="7" y="9" rx=".902" ry=".801"/>
 <rect fill="#fff" width="2" height="6" x="11" y="9" rx=".902" ry=".801"/>
 <rect fill="#fff" width="2" height="6" x="3" y="9" rx=".902" ry=".801"/>
 <path style="fill:#a81a1a" d="m 10,5 c 0,1.1045695 -0.8954308,2 -2.0000002,2 -1.10457,0 -2,-0.8954305 -2,-2 z"/>
</svg>
