<svg xmlns="http://www.w3.org/2000/svg" width="16" height="16" version="1.1">
 <path style="fill:#b2bfd9" d="m 16,6.76 v 7.96 C 16,15.426875 15.448918,16 14.769231,16 H 1.2307692 C 0.55108168,16 0,15.426875 0,14.72 V 6.76 Z"/>
 <path style="fill:#cdcdcd" d="M 1.2307692,0 C 0.54867784,0 0,0.57741808 0,1.2952381 V 7 H 16 V 1.2952381 C 16,0.57741808 15.451322,0 14.769231,0 Z"/>
 <path style="fill:#3584e4" d="M 12.079665,9 H 9.0314476 C 7.9095928,9 7,9.895636 7,11.000347 7,12.105053 7.9095928,13 9.0314476,13 h 3.0482174 c 0,0 0.131335,-0.894947 0.131335,-1.999653 C 12.211,9.895636 12,9 12.079665,9 Z"/>
 <path style="fill:#f4f4f7" d="m 10,11 c 0,1.104478 0.895563,2 2,2 1.10512,0 2,-0.895522 2,-2 0,-1.104478 -0.89488,-2 -2,-2 -1.104437,0 -2,0.895522 -2,2 z m 0,0"/>
 <path style="opacity:0.1" d="m 2.125,9 h 3.75 C 5.94401,9 6,9.041992 6,9.09375 v 0.8125 C 6,9.958008 5.9440104,10 5.875,10 H 2.125 C 2.0559896,10 2,9.958008 2,9.90625 V 9.09375 C 2,9.0419923 2.0559896,9 2.125,9 Z m 0,0"/>
 <path style="fill:#797979" d="M 5,2 H 6 V 3 H 5 Z m 0,0"/>
 <path style="opacity:0.1" d="m 2.09375,12 h 1.8125 C 3.958007,12 4,12.04199 4,12.09375 v 0.8125 C 4,12.958008 3.9580077,13 3.90625,13 H 2.09375 C 2.041992,13 2,12.95801 2,12.90625 v -0.8125 C 2,12.041992 2.0419923,12 2.09375,12 Z m 0,0"/>
 <path style="fill:#797979" d="m 9,2 h 5 V 3 H 9 Z m 0,0"/>
 <path style="opacity:0.2" d="M 8.1333332,1 H 8.7804688 L 7.4471356,5 H 6.8 Z m 0,0"/>
 <path style="fill:#3584e4" d="m 9,4 h 5 V 4.5 H 9 Z m 0,0"/>
 <path style="opacity:0.2" d="M 3.3333332,1 H 3.9635416 L 2.6302084,5 H 2 Z m 0,0"/>
</svg>
