<svg xmlns="http://www.w3.org/2000/svg" height="16" width="16" version="1.1">
 <circle cx="8" cy="8" r="8" style="fill:#fecd38"/>
 <path style="fill:#f4f4f7" d="m11 2h-4l-2 5h2l-1 3h2l-2 4 5-5h-2l2-3h-2z"/>
</svg>
