<svg xmlns="http://www.w3.org/2000/svg" width="16" height="16" version="1.1">
 <circle style="fill:#2d96dd" cx="8" cy="8" r="8"/>
 <path style="fill:#f4f4f7" d="M 8.5999844,4 6.266,11 H 7.531625 L 9.8656094,4 Z"/>
 <path style="fill:#f4f4f7" d="M 6,5.8417968 5.7562209,5.9531251 2,7.5585938 l 0.00195,1.09375 3.7542706,1.5965082 0.2437791,0.109374 V 9.0437737 L 3.714255,8.1035156 6,7.1582031 Z"/>
 <path style="fill:#f4f4f7" d="M 10,5.8417968 10.243779,5.9531251 14,7.5585938 13.9981,8.6523438 10.243829,10.248852 10.00005,10.358226 V 9.0437737 L 12.285745,8.1035156 10,7.1582031 Z"/>
</svg>
