<svg xmlns="http://www.w3.org/2000/svg" width="16" height="16" version="1">
 <circle fill="#6ec149" cx="8" cy="8" r="8"/>
 <path style="fill:#f4f4f7" d="m7 4-0.0882 1.0536a3.1429 3.1429 0 0 0 -0.91852 0.53126l-0.95759-0.4509-1 1.7321 0.86941 0.6038a3.1429 3.1429 0 0 0 -0.048 0.53013 3.1429 3.1429 0 0 0 0.0457 0.53237l-0.86719 0.60156 1 1.7321 0.95536-0.44978a3.1429 3.1429 0 0 0 0.92075 0.5279l0.0882 1.0558h2l0.0882-1.0536a3.1429 3.1429 0 0 0 0.91854 -0.53126l0.95758 0.4509 1-1.7321-0.86942-0.6038a3.1429 3.1429 0 0 0 0.048 -0.53013 3.1429 3.1429 0 0 0 -0.0457 -0.53237l0.86719-0.60156-1-1.7321-0.95536 0.44978a3.1429 3.1429 0 0 0 -0.92076 -0.5279l-0.0882-1.0558h-2zm1 2.8572a1.1429 1.1429 0 0 1 1.1429 1.1428 1.1429 1.1429 0 0 1 -1.1429 1.1428 1.1429 1.1429 0 0 1 -1.1429 -1.1428 1.1429 1.1429 0 0 1 1.1428 -1.1428z"/>
</svg>
