<svg xmlns="http://www.w3.org/2000/svg" width="16" height="16" version="1">
 <rect style="fill:#546e7a" width="16" height="16" x="0" y="0" rx=".8" ry=".8"/>
 <path style="fill:#17191e" d="M 4.6779819,3.7272712 5.3939103,3.0000002 H 11.568791 V 4.545451 l -4.1165871,6.181803 h 4.4745511 v 1.54545 l -0.626437,0.636362 H 4.499 V 11.363615 L 8.7945694,4.9999953 H 4.6779819 Z"/>
 <path style="fill:#54d154" d="M 5.5728926,3.3636357 H 11.300318 V 4.4545422 L 6.9152578,10.99998 h 4.7430242 v 1.181815 H 5.3939103 V 10.99998 L 9.8684616,4.2727243 h -4.295569 z"/>
 <path style="fill:#17191e" d="m 6.1098384,6.2725374 c 0,0 0.3579642,1.2727241 0,1.2727241 -0.3579638,0 0,-1.2727241 0,-1.2727241 z m 3.2216771,0.6363623 c -0.00126,-0.1469998 -0.039195,-0.3264539 0.055931,-0.4372719 0.088954,-0.1035451 0.3006903,-0.00627 0.3915237,-0.1081816 0.062196,-0.069818 0,-0.1968176 0.045908,-0.2785445 0.067387,-0.1199999 0.2553188,-0.1413635 0.3120558,-0.2669085 0.08036,-0.1778179 -0.114727,-0.4253625 -0.0062,-0.5869985 0.0732,-0.1089088 0.255228,-0.068546 0.364138,-0.1402725 0.112579,-0.074 0.154819,-0.2526356 0.283956,-0.2893627 0.142737,-0.040636 0.368345,-0.028455 0.431972,0.1075451 0.100141,0.2140904 -0.213346,0.4222714 -0.300152,0.6422712 -0.08323,0.211272 -0.07401,0.4680896 -0.210573,0.6484528 C 10.606835,6.3228102 10.388288,6.3175373 10.31589,6.4543554 10.26237,6.5554459 10.36403,6.693991 10.31779,6.7989 10.22779,7.0030813 9.9248671,7.045081 9.8222205,7.2431714 9.5376191,7.79217 10.210681,9.0972577 9.5999939,9.0907123 9.2522322,9.0870587 9.5382457,8.3868049 9.4953791,8.0361695 9.4493806,7.6592613 9.3347428,7.288717 9.331521,6.9088997 Z M 7.4522039,7.4543527 C 7.3349709,6.6874456 8.186388,5.3198126 8.8840603,5.6361756 9.5468308,5.9368109 8.3426396,7.1046263 8.5260961,7.8179882 8.5863239,8.0521694 8.956548,8.1428055 8.9735513,8.3841685 8.997716,8.7273494 8.5601026,8.9450761 8.4566511,9.2725299 8.3285898,9.6779835 8.7662903,10.536072 8.3471138,10.545254 7.9560384,10.553889 8.2106403,9.7604379 8.1943528,9.363439 8.1756488,8.9088036 8.4596046,8.4059866 8.2576233,7.9998058 8.1121108,7.7072614 7.5016925,7.7782609 7.4522039,7.4543527 Z"/>
 <path style="fill:#17191e" d="M 5.4834013,3.759271 C 5.7325444,3.7314528 5.8597112,4.1660882 6.1098384,4.1816336 6.3095824,4.1940872 6.4468617,3.9178161 6.6467845,3.9089069 6.8534196,3.8998122 7.018441,4.1646339 7.2238229,4.1405427 7.4601687,4.1127244 7.5917201,3.6314533 7.8101681,3.7270893 8.2071501,3.901089 8.2393672,4.6619053 8.0034685,5.029995 7.8705746,5.2371767 7.4679543,5.0474497 7.299085,5.2255402 7.1818516,5.3491764 7.3522425,5.7141751 7.183731,5.7270844 7.0235418,5.7394476 7.1645792,5.2557219 7.0047487,5.2725401 6.6733633,5.3074494 7.1635955,6.2448104 6.8315834,6.2725374 c -0.4392216,0.036728 0.00169,-1.266542 -0.4389533,-1.266815 -0.2827917,0 -2.683e-4,0.802907 -0.2827917,0.8122708 C 5.8827994,5.8254476 6.068225,5.1686313 5.8413651,5.1816313 5.6377734,5.1932678 5.8685705,5.762266 5.665068,5.7769022 5.4503789,5.7923573 5.6069887,5.1510859 5.3939103,5.1816313 5.0054294,5.2374493 5.6068988,6.3465373 5.2149284,6.3634462 4.8469412,6.379357 5.3112205,5.3673578 4.9549566,5.2725401 4.8583066,5.2468119 4.8430928,5.5339938 4.7505592,5.4954486 4.4493326,5.3698124 4.6529243,4.8083594 4.7790178,4.5032691 4.9101221,4.1859975 5.1466467,3.7969072 5.4834013,3.759271 Z M 6.9414786,8.3662597 C 7.3611914,8.5506229 6.5972067,9.2653484 6.6467845,9.7271653 6.6621767,9.8704376 6.8290782,9.9755282 6.8257668,10.11971 6.8209307,10.331982 6.641147,10.500891 6.5362631,10.684527 6.4079331,10.909163 6.359966,11.433343 6.1213829,11.339979 5.6826083,11.168162 6.6807014,10.267891 6.3520908,9.9261648 6.2319043,9.8012558 5.9321093,10.148165 5.8413651,9.9998009 5.4986147,9.4394389 6.3453788,8.104351 6.9414786,8.3661685 Z M 8.8491589,3.6052713 c 0.1912422,0.3954538 -0.2166581,1.2509059 0.2138833,1.3036333 0.4510349,0.055182 0.083675,-1.3052695 0.5369462,-1.2727241 0.4315266,0.031 -0.094414,1.2663606 0.3381866,1.2727241 0.43609,0.00645 -0.053694,-1.2075423 0.377742,-1.2727241 0.212809,-0.032093 0.147123,0.5888167 0.357964,0.5454531 0.197864,-0.040636 0.04779,-0.4104535 0.113743,-0.6042713 0.05915,-0.1736359 0.346241,-0.2709537 0.249233,-0.4261352 -0.208873,-0.334454 -0.779109,0.035 -1.1688428,0.044545 -0.4788665,0.011546 -1.2476838,-0.4319994 -1.4370469,0.014999 -0.08099,0.191272 0.3278949,0.2074994 0.4182808,0.3944987 z"/>
 <path style="fill:#17191e" d="m 5.3939103,10.817981 c 0.3085652,-0.09845 0.3082969,0.595816 0.5546656,0.808725 0.2778696,0.240181 0.6219624,0.470454 0.9867278,0.481271 0.2505747,0.0075 0.4454866,-0.277544 0.6958825,-0.289998 0.186678,-0.0092 0.3530417,0.197635 0.5369461,0.163817 0.1843515,-0.0339 0.4464707,-0.155272 0.4474548,-0.345636 0.00177,-0.345453 -0.8997425,-0.304362 -0.805419,-0.636361 0.087075,-0.306545 0.623931,-0.07973 0.937687,-0.09464 0.224175,-0.01073 0.5598556,-0.193 0.6731514,0.0038 0.1549983,0.269271 -0.528713,0.517271 -0.4474552,0.81818 0.1096265,0.405908 0.6616072,0.679362 1.0738927,0.636362 0.399219,-0.04173 0.808641,-0.419999 0.89491,-0.818181 0.04877,-0.225453 -0.368435,-0.429089 -0.268473,-0.636361 0.08197,-0.17 0.376846,-0.232727 0.540795,-0.142909 0.487099,0.267 0.609702,1.040633 0.533097,1.597451 -0.03383,0.245908 -0.328969,0.381089 -0.41676,0.612816 -0.110789,0.292636 0.187394,0.907088 -0.120186,0.932634 -0.374699,0.03109 -0.002,-0.903179 -0.325927,-1.096815 -0.140143,-0.08373 -0.363422,-0.01328 -0.476717,0.105272 -0.230441,0.241273 0.145869,0.944634 -0.181757,0.991543 -0.396356,0.05662 -0.137191,-1.07165 -0.5369463,-1.090923 -0.2810914,-0.01364 -0.1663641,0.740816 -0.4474551,0.727271 -0.2665043,-0.01291 -0.091639,-0.710453 -0.3579643,-0.727271 -0.2147783,-0.01364 -0.1430067,0.552908 -0.3579642,0.545453 -0.2403729,-0.0085 -0.119202,-0.665725 -0.3579638,-0.636362 -0.4311681,0.053 0.076067,1.258452 -0.3579642,1.272724 -0.4432492,0.01455 -0.00546,-1.235815 -0.4474552,-1.272724 -0.3060591,-0.02563 -0.1430068,0.858907 -0.4474551,0.81818 -0.2438631,-0.03272 0.066671,-0.714362 -0.1789823,-0.727271 -0.3486567,-0.01845 -0.00895,1.010088 -0.3579639,0.999998 -0.3113395,-0.0091 0.00373,-0.755453 -0.2684732,-0.909089 -0.3146501,-0.177636 -0.703489,0.410908 -1.0422126,0.287272 -0.2117357,-0.07745 -0.3633334,-0.33309 -0.3896439,-0.559998 -0.075172,-0.648271 0.090565,-1.668178 0.7159284,-1.818178 z"/>
</svg>
