<svg xmlns="http://www.w3.org/2000/svg" width="16" height="16" version="1">
 <circle style="fill:#314d7a" class="cls-1" cx="8" cy="8" r="8"/>
 <path style="fill:#f4f4f7" d="M 7.7421875,2.2851562 C 7.7162012,2.5897935 7.9588186,3.5028271 7.5238778,2.8904138 7.3262547,2.6618715 7.0397915,2.3531043 7.3220808,2.8315214 7.4472285,3.2949825 8.0904126,3.9134393 8.0112328,3.0976361 7.9868306,2.8233901 7.8209526,2.5538213 7.7421875,2.2851562 Z m 0.6035156,0.052734 C 8.259273,2.6441883 8.0327558,2.942199 8.1269531,3.2714844 8.1670081,3.9985108 8.8049515,2.9206242 8.8681519,2.6492906 8.9357756,2.3413652 8.1581612,3.6352511 8.3363701,2.8191882 8.32529,2.6904671 8.3940455,2.4034578 8.3457031,2.3378906 Z M 9.3632812,2.9570312 C 9.0048691,3.0685657 8.3262017,3.3978991 8.3675571,3.7173491 8.7967934,3.8737771 9.1964863,3.6402909 9.5976562,3.5117188 9.0977532,3.5394603 8.4280398,3.62444 9.1313624,3.1629949 9.1942627,3.0797206 9.3111991,3.0492568 9.3632812,2.9570312 Z m -2.5996093,0.00977 C 6.9581427,3.1933249 7.7345018,3.6818001 7.0074269,3.530543 6.6223699,3.4913644 6.4257658,3.5297926 6.9042969,3.6582031 7.1701885,3.8453657 8.1747707,3.8408045 7.5705767,3.3891376 7.3430857,3.1853414 7.0365871,3.0936415 6.7636719,2.9667969 Z M 2.8359375,3.0683594 C 4.4957422,4.707416 6.1553905,6.3467649 7.8261719,7.9746094 7.17237,8.6118214 6.526819,9.2576811 5.8632812,9.8847656 5.1370866,9.4129036 6.2596658,9.0232887 5.9881263,8.3765325 5.9320255,8.3523414 5.8120407,9.4008297 5.3920309,9.2138002 4.8735498,8.3298062 4.9972339,7.2038294 4.3631362,6.3692343 4.1402421,5.9117907 3.5399314,5.7610351 3.4019275,5.2695759 3.3530106,4.922235 2.5585411,4.4724194 2.4902344,4.6914062 2.9066811,4.6023306 3.6670687,5.7123 2.92737,5.277771 2.437065,5.1318034 1.8500624,4.9451588 1.3652344,5.0996094 1.6101685,5.2647244 2.5533877,5.0451147 2.4863281,5.4101562 2.385305,5.7202964 1.3289295,6.1250503 2.1640625,5.8574219 2.5512908,5.3997794 2.9681348,5.262615 3.4509541,5.7136542 3.9923099,6.0899304 4.4544174,6.6634467 4.5807172,7.3109829 3.8664151,7.5902011 3.2527709,6.9242371 2.8587577,6.412591 2.8894799,6.7240432 3.4359475,7.2624653 3.8338374,7.4427711 3.8334917,7.6402112 2.5864556,7.4067361 3.3805207,7.631284 3.8534552,7.7597394 4.8112576,7.1022789 4.7497788,7.9589686 4.905803,8.6339222 3.7604348,8.4783994 3.3663868,8.3117037 2.962264,8.2260764 2.4308513,7.6886126 2.2242671,7.6409183 2.8519359,8.3350207 3.8646738,8.8262955 4.796875,8.4765625 5.3287963,9.1682703 4.1062255,9.3210721 3.6327793,9.2265947 3.3711923,9.232192 2.4675209,8.6514355 3.0943643,9.1216074 3.4051795,9.4469054 4.554603,9.1963258 3.9000364,9.8271288 3.6745276,9.9886955 3.5258376,10.284128 3.8960743,9.9912834 4.1906106,9.6040962 4.6034199,9.0433934 5.0946094,9.195776 c 0.2010013,0.4870213 0.8602237,0.944895 0.1351253,1.318674 -0.7814475,0.800681 -1.6014305,1.563561 -2.3801253,2.366409 0.6294125,0.164196 0.9301155,-0.522316 1.3524333,-0.844795 1.291733,-1.268799 2.579248,-2.5418841 3.8702229,-3.8114546 1.5699376,1.5531394 3.1434984,3.1026106 4.7167964,4.6523436 0.271559,0.01815 0.721415,0.06094 0.2684,-0.241168 -0.859496,-0.840286 -1.713695,-1.685976 -2.571134,-2.528363 0.245287,-0.3071934 0.424804,-0.6609519 0.650391,-0.9785158 0.648212,0.039322 0.782876,0.6435937 1.25681,0.9449008 0.13884,-0.0587 -0.74645,-0.7503507 -0.172826,-0.6929476 0.33292,0.01157 1.044747,-0.2823716 1.028157,-0.4509639 -0.597804,0.4106544 -1.473988,0.4368069 -2.058591,-0.00309 -0.01287,-0.8449113 0.879407,-0.086715 1.371179,-0.4009988 0.366329,-0.096623 1.157382,-0.5302859 1.142283,-0.7327989 -0.637671,0.4895229 -1.527498,0.902222 -2.30505,0.4837545 -0.06543,-0.4186612 0.03983,-0.9450668 0.559008,-0.6562113 0.622465,0.00534 1.163158,-0.4270386 1.528639,-0.8939863 -0.219575,0.027793 -1.032899,1.0554699 -0.988866,0.3686671 0.01451,-0.3037123 0.50861,-0.9671612 0.0064,-0.3842921 C 12.296754,7.0740113 12.423957,7.7089307 11.801233,7.439306 11.225876,7.187885 12.04828,6.3889116 12.280424,6.0627271 12.493689,5.9357441 12.801667,5.4082635 13.023438,5.75 13.251287,6.0847173 14.080334,6.1678909 14.199219,5.921875 13.789472,6.2091113 12.549126,5.5207671 13.440907,5.3511571 13.826756,5.1285039 14.494971,5.2514658 14.784325,5.061206 14.453165,4.9411204 13.85288,5.1983784 13.677172,5.0757145 13.790122,4.7788662 14.7863,4.3085633 13.982932,4.6305487 13.539388,5.2034999 12.870894,5.3886266 12.302259,5.8204709 11.547521,6.4247237 11.264761,7.3844405 11.113035,8.2995308 11.056727,8.8452814 10.619452,9.7232016 10.284058,8.8056645 10.002406,8.1795952 10.218651,9.3139356 10.53125,9.3671875 10.715253,9.6215593 10.154413,10.099065 9.9802945,9.6005845 9.418596,9.0665356 8.8713861,8.5175701 8.3183594,7.9746094 9.9822419,6.3409953 11.643022,4.7042268 13.304688,3.0683594 13.090529,3.1042657 12.806892,2.97126 12.669134,3.1929113 11.142833,4.7016902 9.6223414,6.2165993 8.078125,7.7070312 6.4796422,6.1799546 4.9169098,4.6156343 3.3378906,3.0683594 c -0.1673177,0 -0.3346354,0 -0.5019531,0 z m 6.046875,0.7890625 C 8.715788,3.9018866 8.3867137,3.880127 8.3147649,3.963446 8.5058102,4.3261091 9.0854752,4.5936661 9.3339844,4.6269531 9.0971095,4.4123148 8.4131314,3.9566537 9.109375,4.09375 9.6928736,4.1779411 9.4418788,4.0228087 9.0688615,3.9211514 9.0068452,3.8999082 8.9448288,3.8786651 8.8828125,3.8574219 Z M 7.2460938,3.859375 C 6.9689049,3.9509809 6.1957848,4.1857147 6.8997294,4.1022831 7.1603299,4.0850882 7.5918362,4.0213511 7.1914062,4.2714844 6.9188045,4.5106426 6.546565,4.8287114 7.0580449,4.5394393 7.3449383,4.4448349 7.7462751,4.1623115 7.7891339,3.9308057 7.6082629,3.9059078 7.4272171,3.8823581 7.2460938,3.859375 Z M 7.9453125,4.0625 C 7.555952,4.1598975 7.181602,5.0153114 7.284647,5.0028424 7.4824716,4.8046667 7.9134112,4.1634571 7.7746408,4.8276055 7.7484773,5.0870962 7.7158656,5.553692 7.864583,5.0368555 7.945437,4.8084206 8.0674503,4.5843684 7.9863281,4.3378906 7.9738517,4.2459376 7.963671,4.1535508 7.9453125,4.0625 Z m 0.2246094,0 C 8.1220125,4.3449303 8.052462,4.633199 8.2022717,4.8966736 8.2886493,5.1877431 8.4226683,5.4727019 8.3545472,4.9770157 8.3170387,4.6721787 8.2918433,4.2948124 8.5760075,4.7195589 8.8246771,4.9996575 9.0665022,5.2607605 8.7973915,4.8002053 8.6732547,4.4856605 8.4794842,4.2154565 8.1699219,4.0625 Z M 2.0742188,6.5703125 C 1.8544308,6.9111138 1.8200185,6.7862113 1.5213383,6.6527455 1.1022843,6.8381107 1.7374307,7.1998279 1.2253351,7.2692543 1.1844148,7.5266686 1.352992,7.7303183 1.6953125,7.5566406 1.5772515,8.0460919 2.2783059,8.0372739 2.1503518,7.5364174 2.6429375,7.7393868 2.752938,7.0169829 2.2479379,7.0884826 2.4480037,6.7008034 2.2821411,6.7383821 2.0742188,6.5703125 Z M 14.201172,6.7519531 c -0.607986,-0.089319 -0.408767,0.5234282 -0.01239,0.3372628 0.003,-0.076693 0.145412,-0.3093155 0.01239,-0.3372628 z m 0.130859,0.025391 c -0.310805,0.4249161 0.282486,0.5344082 0.396841,0.293325 -0.120405,-0.098698 -0.236446,-0.2990322 -0.396841,-0.293325 z M 1.8378906,6.9589844 c 0.063805,0.1804001 0.2785085,0.042071 0.1870467,0.2301204 0.1653575,-0.050931 0.00596,0.1099657 0.088882,0.1081646 C 1.8336473,7.1949712 2.2911347,7.5488623 1.9609375,7.3183594 2.0881853,7.5048957 1.864603,7.3039433 1.890625,7.4394531 1.8041996,7.3995779 1.7045832,7.4301632 1.7579477,7.3098596 1.5568764,7.3725692 1.6895631,7.0990074 1.754311,7.1067826 1.7237435,6.8969481 1.8571809,7.2195271 1.8378906,6.9589844 Z M 13.724609,7.0078125 C 13.519697,7.2127094 13.571383,7.7329739 13.96875,7.3769531 14.081559,7.2001218 13.835078,7.0915819 13.724609,7.0078125 Z m 1.046875,0.15625 c -0.466679,-0.048657 -0.422893,0.5287295 -0.05934,0.4694751 0.05568,-0.1489902 0.07211,-0.3115182 0.05934,-0.4694751 z M 14.1875,7.2480469 c -0.370044,0.2925963 0.397783,0.1777627 0,0 z M 5.8066406,7.3339844 C 5.4906351,7.4099401 5.8333525,7.8129629 5.4201433,7.7082706 5.1639857,7.8589194 5.4726875,8.080499 5.6021775,8.1067238 5.3438605,8.4659477 5.8716007,8.5432432 5.9784817,8.2267366 6.1542039,8.6174456 6.5902816,8.1566645 6.2062313,7.9607182 6.6959414,7.7680657 6.2341079,7.3860089 6.0097656,7.6015625 5.9963712,7.4901102 5.9306847,7.3523529 5.8066406,7.3339844 Z m 4.3457034,0.050781 c -0.5655334,0.01407 0.320994,0.6719182 0.253906,0.025391 -0.08212,-0.027118 -0.168888,-0.024467 -0.253906,-0.025391 z m 3.833984,0.074219 c -0.747078,-0.058068 0.257474,0.8813958 0.123147,0.1648782 0.03185,-0.08269 -0.04808,-0.1568033 -0.123147,-0.1648782 z m -4.126953,0.00391 C 9.4730655,7.6006151 9.6043903,8.1112925 9.9824219,7.8398438 10.06057,7.7183602 9.9092284,7.5684899 9.859375,7.4628906 Z m 0.652344,0.00391 c -0.441954,0.2467293 0.08731,0.6512016 0.236495,0.3979857 -0.05676,-0.1360158 -0.10469,-0.31782 -0.236495,-0.3979857 z m 3.855469,0.074219 C 13.8829,7.6886169 14.220196,8.1664565 14.597449,7.7855401 14.736011,7.744832 14.389447,7.5805715 14.367188,7.5410156 Z M 5.8515625,7.7148438 C 5.9624333,7.796209 6.1264629,7.7492349 6.0449219,7.9355469 6.0984379,8.0591405 5.9174712,8.0705421 5.8768864,8.1326227 5.7891493,8.0187998 5.6907118,8.0318714 5.7050781,7.8769531 5.7672741,7.7595238 5.8416212,7.801247 5.8515625,7.7148438 Z M 10.21875,7.859375 c -0.510383,0.045985 0.216138,0.3596318 0,0 z m -0.6640625,0.099609 c 0.01806,0.4807699 0.5373275,0.5164321 0.3727054,0.025213 C 9.8053022,7.9595409 9.6785913,7.9675088 9.5546875,7.9589844 Z m 1.0019535,0.029297 c -0.523389,-0.051393 0.0302,0.7855826 0.139644,0.1669176 0.110048,-0.1541161 0.02072,-0.1871729 -0.139644,-0.1669176 z m -0.402344,0.1660157 c -0.5439601,0.2131261 0.01984,0.5217479 0.236585,0.2913885 -0.07322,-0.095212 -0.099,-0.2761738 -0.236585,-0.2913885 z M 3.3671875,9.6386719 C 3.16661,9.9785423 3.1223835,9.8468046 2.8222656,9.6933594 c -0.1895703,0.166463 -0.1596547,0.3471476 -0.06249,0.5279386 -0.4603466,0.06274 -0.1564103,0.659927 0.2332106,0.426905 -0.058745,0.590488 0.5520464,0.290598 0.538264,-0.04469 0.4384638,0.137735 0.5237485,-0.534101 0.023435,-0.448061 C 3.7316544,9.7997048 3.6385806,9.7793408 3.3671875,9.6386719 Z m 9.6074215,0.1640625 c -0.668131,-0.036645 0.04569,0.5978466 0.06836,0 h -0.0354 z m 0.126953,0.023437 c -0.370252,0.4646931 0.628335,0.4272551 0.08008,0.058594 -0.02669,-0.019531 -0.05339,-0.039063 -0.08008,-0.058594 z m -0.533203,0.1132812 c -0.29402,0.2867939 0.03739,0.5979239 0.180176,0.2051719 -0.04901,-0.07794 -0.118133,-0.138521 -0.180176,-0.2051719 z M 3.1328125,10.056641 c 0.1840066,0.09326 0.2090203,0.04477 0.2695313,0.1875 0.1482609,0.0053 -0.2329117,0.06631 0.050012,0.121462 -0.2500647,-0.03955 0.034659,0.147684 -0.1730594,0.114866 -0.089638,0.180093 -0.1285891,-0.109569 -0.2539063,0.0293 -0.019366,-0.165238 -0.036933,-0.161931 -0.03142,-0.251274 -0.024054,-0.05728 0.1244066,-0.182801 0.1554154,-0.118952 l -0.00876,-0.03407 z m -0.1191406,0.08984 c 0.091161,0.08496 -0.091972,-0.0022 0,0 z m 9.9355471,0.06055 c -0.323042,0.01524 0.157297,0.298948 0,0 z m 0.433593,0.01367 c -0.564151,-0.119664 -0.05945,0.739351 0.0038,0.113436 l 0.01772,-0.08219 z m -0.634765,0.138672 c -0.651012,-0.132826 0.181478,0.719443 0.04883,0.04297 l -0.02028,-0.02865 z m 0.197265,0.08008 c -0.533971,0.447918 0.645551,0.302776 0.07879,0.01111 l -0.04127,-0.01607 z M 8.0625,11 c -1.1687695,-0.07227 -2.2358803,1.048868 -2.0466081,2.216177 0.027628,0.322531 0.1042995,0.525774 0.2076354,0.119013 0.5452235,-1.208423 2.3619783,-1.463812 3.2274396,-0.463195 0.2939646,0.187394 0.4786392,1.172684 0.5338085,0.350168 C 10.154048,12.094159 9.1995914,11.004941 8.0625,11 Z"/>
</svg>
