<svg xmlns="http://www.w3.org/2000/svg" width="16" height="16" version="1">
 <path style="fill:#dd4d3e" d="m 7.9872662,-1.0211325e-4 c -2.8024,0 -5.2527,1.43680001325 -6.6776,3.61060001325 -0.0504,3.2571 2.0193,4.3921 3.5198,6.0969 -0.2761,-0.51 -0.4369,-1.0887 -0.4369,-1.7117 0,-1.9934 1.6156,-2.5769 3.5947,-2.7985 l 7.1394998,-0.7996 c -1.311,-2.6144 -4.007,-4.39770001325 -7.1394998,-4.39770001325 z"/>
 <path style="fill:#109f5b" d="m 1.0773662,12.016902 c 1.4012,2.4293 3.8695,3.835 6.4627,3.9832 2.7646998,-1.526 4.2306998,-3.465 3.5146998,-6.0995999 -0.303,0.4945999 -0.723,0.9225999 -1.2620998,1.2345999 -0.8564,0.495 -1.6493,-0.025 -2.5321,-0.257 -0.8948,-0.235 -1.8771,-0.191 -2.3783,-1.0600999 l -3.5697,-6.1889 c -1.60659999,2.4433 -1.80119999,5.6727 -0.23516,8.3876999 z"/>
 <path style="fill:#ffce41" d="m 14.927766,11.994902 c 1.4012,-2.4292999 1.3832,-5.2717999 0.21492,-7.5937999 l -7.0347998,0.00267 c 0.5792,0.015661 1.1604,0.16566 1.6993,0.47712 0.9216798,0.53264 0.8350398,1.5852 1.0388998,2.5471 0.17761,0.83803 0.74042,1.5643 0.27683,2.3681 L 7.5529162,15.984892 c 2.9172998,0.17105 5.8085998,-1.275 7.3745998,-3.99 z"/>
 <rect style="fill:#f4f4f7" width="12" height="12" x="-14" y="-14" rx="6" ry="6" transform="matrix(0,-1,-1,0,0,0)"/>
 <path style="fill:#4587f3" d="m 6,2.9999999 0,4.9765625 -2,0 L 8,12 12,7.9765624 10,8.0234374 10,2.9999999 Z M 8,12 l -3,0 0,1 6,0 0,-1 z"/>
</svg>
