<svg xmlns="http://www.w3.org/2000/svg" width="16" height="16" version="1.1">
 <circle style="fill:#b2bfd9" cx="8" cy="8" r="8"/>
 <path style="fill:#ff5473" d="M 5.9847173,5.8395808 C 8.2276986,5.0499533 8.6094823,2.993023 8.3231448,1.1018169 c 0,-0.06824 0.057267,-0.11698178 0.114535,-0.097485 2.1475352,1.0723334 4.5623192,3.4119699 4.5623192,6.9214244 0,2.6905827 -2.042545,5.0692127 -5.0109159,5.0692127 A 4.7723004,4.8742424 0 0 1 5.2975056,3.958123 c 0.057268,-0.038996 0.1336246,0 0.1336246,0.06824 0.028633,0.3606939 0.12408,1.2673033 0.5154088,1.8132185 z"/>
</svg>
