<svg xmlns="http://www.w3.org/2000/svg" width="16" height="16" version="1.1">
 <path style="fill:#0087f0" d="M 1.3333426,-7.49e-5 H 14.666667 A 1.3333324,1.3333324 0 0 1 16,1.3332583 V 14.666722 a 1.3333425,1.3333425 0 0 1 -1.333343,1.333353 H 1.3333324 A 1.3333324,1.3333324 0 0 1 0,14.666732 V 1.3332677 A 1.3333425,1.3333425 0 0 1 1.3333426,-7.49e-5 Z"/>
 <path style="fill:#f4f4f7" d="m 3.5940702,5.4692149 a 4.4569486,4.1800045 0 0 1 1.750112,-1.813286 5.2923747,4.9635191 0 0 1 2.781502,-0.653878 4.9211346,4.6153471 0 0 1 2.5730668,0.62015 4.4117974,4.1376588 0 0 1 1.703394,1.732413 5.9657421,5.5950453 0 0 1 0.596549,2.548027 6.2902215,5.8993621 0 0 1 -0.614521,2.6659881 4.5183228,4.237565 0 0 1 -1.753724,1.793021 5.1154044,4.7975453 0 0 1 -2.6700628,0.637014 5.0402269,4.7270392 0 0 1 -2.630561,-0.626897 4.4812511,4.2027969 0 0 1 -1.724969,-1.73576 5.8186063,5.4570519 0 0 1 -0.603742,-2.5176891 6.4542199,6.0531701 0 0 1 0.592956,-2.649103 z m 1.865111,4.256818 a 2.8952547,2.7153504 0 0 0 0.984661,1.1931171 2.5703171,2.4106036 0 0 0 1.538085,0.434782 2.6999084,2.5321425 0 0 0 1.6423178,-0.448288 2.7743504,2.6019589 0 0 0 0.955916,-1.1964941 4.9304932,4.6241241 0 0 0 0.305464,-1.664976 5.3963099,5.060996 0 0 0 -0.287494,-1.68521 2.8445501,2.6677965 0 0 0 -0.923576,-1.24031 2.5446076,2.3864917 0 0 0 -1.6279268,-0.47184 2.6572726,2.492156 0 0 0 -1.574027,0.438152 2.9216142,2.740072 0 0 0 -1.006204,1.203232 5.0905158,4.7742032 0 0 0 -0.0073,3.437835 z"/>
</svg>
