<svg xmlns="http://www.w3.org/2000/svg" width="16" height="16" version="1.1">
 <circle style="fill:#00c1e2" cx="8" cy="8" r="7"/>
 <path style="fill:none;stroke:#f4f4f7;stroke-width:0.69999999;stroke-linecap:round;stroke-linejoin:round" d="M 0.35498487,8.35 H 2.0739367 c 0,0 0.18235,0.7 0.4009062,0.7 0.2943391,0 0.18919,-1.4160664 0.5424016,-1.4155323 C 3.370456,7.6349927 3.1354324,9.7117984 3.67756,9.65 4.2196862,9.588201 4.0995848,3.35 4.6444501,3.35 c 0.5448667,0 0.3799715,9.305472 1.0612217,9.3 0.6812505,-0.0055 0.1853999,-8.3 0.8018118,-8.3 0.6164127,0 0.4607232,7.304736 1.1083867,7.3 0.6476634,-0.0047 0.3085785,-6.3 0.8489771,-6.3 0.5403986,0 0.2205189,5.789026 0.9668908,5.8 0.7463718,0.01097 0.3028543,-4.8 0.9433088,-4.8 0.640454,0 0.261487,3.341952 0.919724,3.35 0.658238,0.008 0.259661,-2.3422311 0.707481,-2.373 0.44782,-0.030772 0.326755,1.9013903 0.754647,1.923 C 13.18479,9.271612 13.112373,8 13.322883,8 c 0.210511,0 0.347315,0.675 0.565985,0.675 0.26057,0 0.566475,-0.325 0.566475,-0.325 H 15.64"/>
</svg>
