<svg xmlns="http://www.w3.org/2000/svg" width="16" height="16" version="1.1">
 <path style="fill:#2baee1" d="m8 0a8 8 0 0 0 -8 8 8 8 0 0 0 8 8 8 8 0 0 0 8 -8 8 8 0 0 0 -8 -8z"/>
 <path style="fill:#f4f4f7" d="m8.5172414 4c-1.9148041 0-2.0045366 1.2691382-2.4690193 2.3234159-0.1958621-0.1147222-0.4133946-0.174678-0.634429-0.1754557-0.7617241 0-1.3793104 0.693553-1.3793104 1.5487196 0.0003448 0.054056 0.00358 0.108117 0.00875 0.1617836-0.6093048 0.2749445-1.0432327 0.975151-1.0432327 1.8062069 0 1.0725557 0.7175917 2.3353297 1.608971 2.3353297h6.437231c1.458442 0 1.928532-1.444099 1.953798-2.5 0-1-0.433437-2.5-2.00275-2.496585l0.0055-0.00683c-0.17356-1.5473918-0.353164-2.996585-2.4855086-2.996585z"/>
</svg>
