<svg xmlns="http://www.w3.org/2000/svg" width="16" height="16" version="1">
 <rect style="fill:#bc5ae7" width="16" height="16" x="0" y="0" rx=".8" ry=".8"/>
 <path style="fill:none;stroke:#f4f4f7;stroke-width:0.5;stroke-linecap:round;stroke-linejoin:bevel" d="m 4.7500008,6.25 -1.6e-6,3.2994579 C 4.7499988,10.453574 4.070668,10.764283 3.5,10.74948 2.9651988,10.75158 2.250023,10.464952 2.2500234,9.5494579 L 2.250025,6.25"/>
 <path style="fill:none;stroke:#f4f4f7;stroke-width:0.5;stroke-linecap:round" d="M 8.75,10.741402 7,8.6669996 M 6.2570516,8.649958 c 0,0 2.4929484,0.2711396 2.4929484,-1.1999248 C 8.75,5.9789676 6.2570516,6.25008 6.2570516,6.25008 m 5.88e-5,4.491381 0,-4.4913218"/>
 <path style="fill:none;stroke:#f4f4f7;stroke-width:0.5;stroke-linecap:round;stroke-linejoin:round" d="M 13.75,10.741461 13.75,6.25 m -3.495732,0 1.799887,2.5 L 13.75,6.25 m -3.495732,4.491461 0,-4.491461"/>
</svg>
