<svg xmlns="http://www.w3.org/2000/svg" width="16" height="16" version="1.1">
 <circle style="fill:#248afd" cx="8" cy="8" r="8"/>
 <path style="fill:#f4f4f7" d="m11.442 10.524c-2.5909 1.219-5.257 2.362-8.0874 2.972-0.9123-0.005-0.4622-1.135-0.3148-1.647 0.7077-2.1757 1.805-4.2126 2.8486-6.2552 0.4132-0.6453 0.7062-1.5347 1.5393-1.783 0.8092-0.0855 1.3409 0.6592 1.7601 1.2024 1.7142 2.4979 3.3322 5.0608 4.7522 7.7208 0.359 0.693 0.712 1.39 1.06 2.088-1.036-4.025-2.431-8.0171-4.68-11.59-0.5035-0.7053-0.9626-1.4709-1.6427-2.0385-0.6627-0.4843-1.4779 0.0371-1.9678 0.506-1.5389 1.4687-2.4764 3.3853-3.3949 5.2359-1.0713 2.1902-1.7742 4.5246-2.2902 6.8826-0.1809 0.79418 0.67756 1.3706 1.4404 1.1242 2.1131-0.41821 4.0988-1.2954 5.9677-2.3022 1.077-0.60182 2.1129-1.2852 3.0089-2.1161z"/>
</svg>
