<svg xmlns="http://www.w3.org/2000/svg" width="16" height="16" version="1">
 <rect style="fill:#4e8b94" width="16" height="16" x="0" y="0" rx=".8" ry=".8"/>
 <path style="fill:#f4f4f7" d="M 5.462891,3.046875 C 5.837705,3.056695 6.178962,3.2722818 6.578125,3.5859375 7.262086,4.1264003 8.014361,4.8956986 8.761719,5.648438 9.205082,5.576418 9.87455,5.45727 10.644531,5.5 11.467943,4.818922 12.20401,4.9820379 12.910156,5.41992 c 0.219174,0.884645 -0.12099,1.132532 -0.08203,1.419922 l 0.101563,0.753906 c -0.53717,0.256038 -1.014471,-0.08466 -1.494141,-0.40625 l 0.02148,0.04687 -0.396484,1.412109 c -0.07366,1.289539 0.124013,2.2604 0.701172,3.332032 l -0.47461,0.216796 c -0.317972,-0.805617 -0.71322,-1.570755 -0.757812,-2.513671 -0.689892,0.785136 -0.159506,1.832709 0.109375,2.824218 L 9.962888,12.955071 C 9.570235,12.489067 9.441778,11.027281 9.333981,9.488274 9.100951,10.007529 8.87579,10.529981 8.50195,10.978509 8.665216,11.701173 8.664157,12.423815 8.249997,13.146477 L 7.607419,13.578118 7.371091,10.847649 C 7.151511,11.456026 6.99834,12.662994 6.710935,12.658196 6.417454,11.141702 7.282847,10.035861 8.058591,8.898431 L 7.871091,8.986321 6.0332,10.183587 C 4.988454,10.732204 0.7119147,12.959208 4.611325,7.603509 4.994999,7.076552 6.066347,7.670209 6.755856,6.986321 6.807116,6.928961 6.850556,6.878791 6.898435,6.824212 5.791552,6.443325 4.127699,5.704921 4,4.8496094 4,4.8496094 3.9611,3.908928 4.234375,3.5742188 4.676706,3.1904467 5.132172,3.0381964 5.462891,3.046875 Z"/>
</svg>
