<svg xmlns="http://www.w3.org/2000/svg" width="16" height="16" version="1">
 <path style="fill:#17191e" d="M 8,0 C 3.568,0 0,3.568 0,8 c 0,4.432 3.568,8 8,8 4.432,0 8,-3.568 8,-8 C 16,3.568 12.432,0 8,0 Z"/>
 <path style="isolation:isolate;fill:#f4f4f7" d="M 11.000001,2.9999996 A 1.0000002,1.0000002 0 0 0 10,3.9999998 1.0000002,1.0000002 0 0 0 11.000001,5 1.0000002,1.0000002 0 0 0 12,3.9999998 1.0000002,1.0000002 0 0 0 11.000001,2.9999996 Z"/>
 <path style="isolation:isolate;fill:#f4f4f7" d="m 6.3712309,6.0000038 c -0.086431,0.00239 -0.170896,0.035865 -0.2301895,0.1025388 L 3.0788226,9.3042702 c -0.039405,0.057175 -0.078822,0.1330903 -0.078822,0.2092634 V 10.67634 C 3.0000006,10.866861 3.1377501,11 3.3355193,11 h 9.3282577 c 0.17788,0 0.336215,-0.152136 0.336215,-0.32366 V 9.837892 C 13.0006,9.7517693 12.964359,9.6690546 12.900243,9.6090971 L 10.667405,7.1816436 c -0.138289,-0.1143492 -0.33604,-0.1333478 -0.47433,0 L 9.3232376,8.1986628 c -0.1358938,0.1143164 -0.3384362,0.1143164 -0.47433,0 L 6.6153714,6.083709 C 6.5462265,6.0265355 6.4576619,5.9976288 6.3712309,6.0000038 Z"/>
</svg>
