<svg xmlns="http://www.w3.org/2000/svg" width="16" height="16" version="1.1">
 <circle style="fill:#ee873f" cx="8" cy="8" r="7"/>
 <g>
  <path style="fill:#d3201d;fill-rule:evenodd" d="M 8.515625 2.9921875 A 0.50005 0.50005 0 0 0 8.4628906 2.9941406 A 0.50005 0.50005 0 0 0 8.046875 3.2890625 L 5.8496094 8 L 8.6542969 8 L 7.5957031 10.949219 L 6.8300781 10.673828 L 7.296875 13.255859 L 7.4863281 13.097656 L 9.3007812 11.5625 L 8.5371094 11.287109 L 10.076172 7 L 7.4199219 7 L 8.953125 3.7109375 A 0.50005 0.50005 0 0 0 8.515625 2.9921875 z"/>
 </g>
 <path style="fill:#4f4f4f;fill-rule:evenodd" d="M 2.3083541,4.7273777 C 2.1318223,4.7301777 1.9999958,4.8758718 2,5.0546139 v 0.945077 H 0.3232292 C 0.14472205,5.9997091 1.7835698e-5,6.191589 1.7880152e-8,6.372309 V 9.6901926 C 1.7835698e-5,9.8709129 0.14472205,9.9999818 0.3232292,10 H 2 v 0.944865 c 1.131e-4,0.291449 0.3383051,0.437379 0.5419377,0.231366 L 4.9,8.2311055 C 5.0261785,8.1033099 5.0261785,7.8961687 4.9,7.7683731 L 2.5419377,4.8232478 C 2.4800964,4.7606109 2.3958208,4.7260217 2.3083541,4.7273777 Z"/>
 <path style="fill:#b2bfd9;fill-rule:evenodd" d="M 13.691646,4.7273777 C 13.868178,4.7301777 14.000004,4.8758718 14,5.0546139 v 0.945077 h 1.676771 C 15.855278,5.9997091 15.999982,6.191589 16,6.372309 V 9.6901926 C 15.999982,9.8709129 15.855278,9.9999818 15.676771,10 H 14 v 0.944865 c -1.13e-4,0.291449 -0.338305,0.437379 -0.541938,0.231366 L 11.1,8.2311055 c -0.126179,-0.1277956 -0.126179,-0.3349368 0,-0.4627324 l 2.358062,-2.9451253 c 0.06184,-0.062637 0.146117,-0.097226 0.233584,-0.09587 z"/>
</svg>
