<svg xmlns="http://www.w3.org/2000/svg" width="16" height="16" version="1">
 <path style="fill:#1d99f3" d="m 8,0 a 8,8 0 0 0 -8,8 8,8 0 0 0 8,8 h 7.2 C 15.6432,16 16,15.6432 16,15.2 V 8 A 8,8 0 0 0 8,0 Z"/>
 <path style="fill:#f4f4f7" d="M 8.358014,2.0405816 H 8.3579112 C 6.4737184,1.9452106 4.5811792,2.7623572 3.3660832,4.396516 2.7365696,5.2439652 2.3735694,6.2026732 2.2534427,7.1769116 L 3.0104956,7.065028 4.4476844,6.8544712 5.6455248,5.9365984 3.2073928,6.2961248 C 3.3745536,5.7853972 3.6165256,5.2905128 3.9556508,4.8341424 5.2771628,3.056012 7.513596,2.3827476 9.5159096,2.9740296 L 10.213737,2.4414788 C 9.6125112,2.2035199 8.9860812,2.0709735 8.358014,2.0391534 Z m 2.994957,1.1213336 -2.05e-4,0.00446 -0.232652,0.7290056 -0.383471,1.2046104 0.222711,1.7129728 0.765783,-2.4027944 c 0.385309,0.374388 0.722943,0.8092024 0.983858,1.3143964 1.089901,2.1099872 0.57931,4.605475 -1.091283,6.130383 l 0.0032,0.02365 c -0.0123,0.0116 -0.02466,0.02454 -0.03709,0.03615 l 1.85329,2.146047 0.569001,-0.492073 -1.429998,-1.655848 C 14.105645,10.156081 14.499573,7.5893216 13.362307,5.3874892 12.877592,4.4490424 12.175741,3.700356 11.352962,3.1639672 Z M 2.1470717,8.9010416 c 0.3550571,2.6312474 2.4626787,4.7611384 5.2252043,5.0343544 1.0510316,0.103939 2.0630288,-0.07748 2.96066,-0.475918 L 9.848112,12.868553 9.845352,12.86833 8.8911572,11.705848 7.4519264,11.108274 9.084102,13.09531 C 8.5601848,13.214736 8.010402,13.262666 7.4446236,13.206702 5.181808,12.983114 3.4207512,11.333648 2.9495464,9.2353976 Z"/>
</svg>
