<svg xmlns="http://www.w3.org/2000/svg" width="16" height="16" version="1.1">
 <g transform="translate(0,-1036.3622)">
  <path style="isolation:isolate;fill:#3ca13c" d="m -1.0142857e-7,1046.8622 c 0,-2.4836 3.58467990142857,-4.5 8.00000000142857,-4.5 4.4153201,0 8.0000001,2.0164 8.0000001,4.5 0,2.4836 -3.58468,4.5 -8.0000001,4.5 -4.4153201,0 -8.00000000142857,-2.0164 -8.00000000142857,-4.5 z" vector-effect="non-scaling-stroke"/>
  <path style="isolation:isolate;fill:none" d="m 15.202847,1045.9755 c 0,2.3175 -3.227488,4.1991 -7.2028471,4.1991 -3.9753594,0 -7.20284699,-1.8816 -7.20284699,-4.1991 l 0,-4.4536 14.40569409,0 0,4.4536 0,0 z"/>
  <path style="isolation:isolate;fill:#b2bfd9" d="m 15,1046.1147 c 0,2.3443 -3.136595,4.2475 -6.9999998,4.2475 -3.8634051,0 -7.00000021,-1.9032 -7.00000021,-4.2475 l 0,-4.7525 14.00000001,0 0,4.7525 z"/>
  <path style="isolation:isolate;fill:#f7f7f7" d="m 0.99999999,1041.3621 c 0,-2.2077 3.13659511,-3.9999 7.00000021,-3.9999 3.8634048,0 6.9999998,1.7922 6.9999998,3.9999 0,2.2077 -3.136595,4.0001 -6.9999998,4.0001 -3.8634051,0 -7.00000021,-1.7924 -7.00000021,-4.0001 z" vector-effect="non-scaling-stroke"/>
  <rect style="isolation:isolate;fill:#3ca13c" width="8" height="1.7" x="4" y="1039.86"/>
  <path style="isolation:isolate;fill:#3ca13c" d="m 4.0000065,1041.5777 c 0,-0.9848 1.7923382,-1.7844 3.9999955,-1.7844 2.207658,0 3.999997,0.7996 3.999997,1.7844 0,0.9849 -1.792339,1.7845 -3.999997,1.7845 -2.2076573,0 -3.9999955,-0.7996 -3.9999955,-1.7845 z" vector-effect="non-scaling-stroke"/>
  <path style="isolation:isolate;fill:#4ccc4c" d="m 4.0000065,1039.8622 c 0,-0.8278 1.7923382,-1.5 3.9999955,-1.5 2.207658,0 3.999997,0.6722 3.999997,1.5 0,0.8279 -1.792339,1.5 -3.999997,1.5 -2.2076573,0 -3.9999955,-0.6721 -3.9999955,-1.5 z" vector-effect="non-scaling-stroke"/>
  <path style="isolation:isolate;fill:none" d="m 4.0664298,1040.2166 c -0.01104,-0.051 -0.016684,-0.1016 -0.016684,-0.1531 0,-0.9142 1.7696414,-1.6565 3.9493434,-1.6565 2.1797023,0 3.9493433,0.7424 3.9493433,1.6565 0,0.1166 -0.02882,0.2305 -0.08363,0.3404" vector-effect="non-scaling-stroke"/>
 </g>
</svg>
