<svg xmlns="http://www.w3.org/2000/svg" width="16" height="16" version="1.1">
 <circle style="fill:#1db5ff" cx="8" cy="8" r="8"/>
 <path style="fill:#f4f4f7" d="M 7.1976564,3 7.1554688,3.0992188 4.1140624,11 H 5.8296876 L 6.4,9.6 h 3.11 l 0.663438,1.4 h 1.7125 L 8.8296876,3 Z M 8.0093752,5.3351564 8.9507812,8 H 7.0609376 Z"/>
</svg>
