<svg xmlns="http://www.w3.org/2000/svg" width="16" height="16" version="1">
 <path fill="#8e8e8e" d="m0.88892 1c-0.49249 0-0.88892 0.3903-0.88892 0.875v10.125c0 0.48475 0.39669 0.98462 0.88892 1h8.1111l1.5 2 1.5-2h3.1117c0.492 0 0.888-0.515 0.888-1v-10.125c0-0.4847-0.396-0.875-0.889-0.875z"/>
 <path style="fill:none;stroke:#f4f4f7;stroke-width:0.999937;stroke-linecap:round" d="M 10.499653,10.494881 9.5364743,9.4917332 M 7.5366027,3.492 c 2.3995277,0 1.9998754,2.508 1.9998754,2.9998735 0,1.9998754 0.3555555,4.0608915 -1.9998754,3.9997955 -2.3484393,0 -1.9998716,-1.9999201 -1.9998716,-3.9997955 C 5.5367311,6 5.1013078,3.492 7.5366027,3.492"/>
</svg>
