<svg xmlns="http://www.w3.org/2000/svg" width="16" height="16" version="1.1">
 <circle style="fill:#f6ac43" cx="8" cy="8" r="8"/>
 <circle style="fill:#f4f4f7" cx="8" cy="8" r="5"/>
 <rect style="opacity:0.6" width="2" height="6" x="7" y="5" rx="1" ry="1"/>
</svg>
