<svg xmlns="http://www.w3.org/2000/svg" width="16" height="16" version="1">
 <rect style="fill:#3c77e1" width="16" height="16" x="0" y="0" rx=".8" ry=".8"/>
 <path style="fill:#f4f4f7" d="M 8.7403211,10.813227 C 8.4610919,10.714414 8.0055114,10.478279 7.7279194,10.288479 7.0416111,9.8192302 6.594571,9.6596749 5.9661325,9.6596749 c -0.6764359,0 -1.0113792,0.1087691 -1.6232757,0.5271411 -0.27073,0.185107 -0.5338291,0.336556 -0.584664,0.336556 -0.1688676,0 -0.8091417,-1.0337108 -0.7549481,-1.2188503 C 3.0717615,9.0704462 3.9451739,8.4607228 4.5754093,8.207002 4.9734806,8.0467457 5.2852538,7.9999977 5.9559386,7.9999977 c 0.9970203,0 1.495278,0.1603489 2.4218629,0.7794041 0.3152459,0.2106166 0.7713239,0.4355963 1.0135086,0.4999545 0.8119699,0.2157732 1.7297329,-0.01059 2.4024109,-0.5925384 0.113634,-0.098308 0.278413,-0.1787426 0.366177,-0.1787426 0.194329,0 0.874779,0.9262538 0.838722,1.1416955 -0.04072,0.2432894 -1.062712,0.9462632 -1.685446,1.1593262 -0.739311,0.252951 -1.8646171,0.254758 -2.5728529,0.004 z"/>
 <path style="fill:#f4f4f7" d="M 9.1652944,6.903981 C 8.8605417,6.8283069 8.214672,6.5304457 7.7002647,6.2283416 6.9139202,5.7665309 6.6975093,5.6816286 6.2105563,5.6438971 5.5119881,5.5897703 5.0961707,5.7061651 4.4380772,6.1400487 4.1594341,6.3237578 3.8786351,6.4740666 3.8140798,6.4740666 c -0.1374852,0 -0.8140799,-0.9065394 -0.8140799,-1.0907495 0,-0.1587444 0.5301045,-0.6188906 1.0390191,-0.9018972 1.2994773,-0.7226381 2.9709259,-0.6254541 4.2859546,0.2492004 0.7093334,0.4717936 1.0946957,0.6058441 1.7416564,0.6058441 0.620479,0 1.239206,-0.2196608 1.698048,-0.6028414 0.164885,-0.1376981 0.363039,-0.25036 0.440339,-0.25036 0.07731,0 0.304992,0.2384703 0.505978,0.5299336 0.427673,0.6201941 0.416694,0.6678291 -0.277088,1.2023061 -0.862306,0.6643005 -2.216921,0.9496281 -3.2686126,0.6884783 z"/>
</svg>
