<svg xmlns="http://www.w3.org/2000/svg" width="16" height="16" version="1">
 <path style="fill:#2663b2" d="M 0.8,16 C 0.3568,16 0,15.6432 0,15.2 V 0.8 C 0,0.3568 0.3568,0 0.8,0 H 9 l 7,7 v 8.2 c 0,0.4432 -0.3568,0.8 -0.8,0.8 z"/>
 <path style="fill:#f4f4f7" d="m 8,3.000045 c -2.755501,0 -5,2.2445 -5,5 0,2.7555 2.244499,5 5,5 0.01385,0 0.02719,-0.002 0.04102,-0.002 0.0047,6e-5 0.0089,0.002 0.01367,0.002 0.01082,0 0.02052,-0.004 0.03125,-0.004 C 10.801569,12.949535 13,10.726515 13,8.000045 c 0,-2.72647 -2.198431,-4.94949 -4.914062,-4.99609 -0.01073,-3.2e-4 -0.02043,-0.004 -0.03125,-0.004 -0.0047,0 -0.0089,0.002 -0.01367,0.002 C 8.027187,3.001885 8.013855,3.000045 8,3.000045 Z m 0.04102,1.00391 c 0.01334,1.3e-4 0.02575,0.004 0.03906,0.004 0.0445,0.007 0.114247,0.0345 0.232422,0.17188 0.137068,0.15943 0.29363,0.4398 0.427734,0.80859 0.104129,0.28636 0.189367,0.63542 0.261719,1.01172 H 7.105471 c 0.07235,-0.3763 0.15759,-0.72536 0.261719,-1.01172 0.134104,-0.36879 0.292619,-0.64916 0.429687,-0.80859 0.12696,-0.14768 0.201339,-0.17242 0.244141,-0.17578 z m -1.447266,0.26367 c -0.05695,0.124 -0.11804,0.2416 -0.167969,0.3789 -0.144618,0.39771 -0.256923,0.85854 -0.341797,1.35352 H 4.552738 C 5.01187,5.208675 5.726052,4.593475 6.593754,4.267625 Z m 2.9375,0.0391 c 0.8138,0.33644 1.478418,0.93911 1.916016,1.69336 H 10.023442 C 9.938572,5.505105 9.826263,5.044275 9.681645,4.646565 9.636875,4.523455 9.5816,4.419175 9.531254,4.306725 Z m -5.390629,2.69332 h 1.816406 c -0.02519,0.32351 -0.03906,0.65636 -0.03906,1 0,0.34364 0.01387,0.67649 0.03906,1 H 4.140625 C 4.05794,8.678845 4,8.347665 4,8.000045 c 0,-0.34762 0.05794,-0.6788 0.140625,-1 z m 2.826172,0 h 2.173828 c 0.02816,0.3215 0.04883,0.6539 0.04883,1 0,0.3461 -0.02067,0.6785 -0.04883,1 H 6.966797 c -0.02815,-0.3215 -0.04883,-0.6539 -0.04883,-1 0,-0.3461 0.02067,-0.6785 0.04883,-1 z m 3.183594,0 h 1.708984 c 0.08268,0.3212 0.140625,0.65238 0.140625,1 0,0.34762 -0.05794,0.6788 -0.140625,1 h -1.708984 c 0.02519,-0.32351 0.03906,-0.65636 0.03906,-1 0,-0.34364 -0.01387,-0.67649 -0.03906,-1 z m -5.597657,3 h 1.53125 c 0.08487,0.49498 0.197179,0.95581 0.341797,1.35352 0.04993,0.1373 0.111022,0.2549 0.167969,0.3789 -0.867702,-0.32585 -1.581884,-0.94105 -2.041016,-1.73242 z m 2.552735,0 h 1.896484 c -0.07235,0.3763 -0.15759,0.72536 -0.261719,1.01172 -0.134104,0.36879 -0.290666,0.64916 -0.427734,0.80859 -0.118175,0.13746 -0.187927,0.16511 -0.232422,0.17188 -0.01331,2.6e-4 -0.02572,0.004 -0.03906,0.004 -0.0428,-0.003 -0.117181,-0.0281 -0.244141,-0.17578 -0.137068,-0.15943 -0.295583,-0.4398 -0.429687,-0.80859 -0.104131,-0.28646 -0.189369,-0.63552 -0.261721,-1.01182 z m 2.917969,0 h 1.423828 c -0.437598,0.75425 -1.102216,1.35692 -1.916016,1.69336 0.05035,-0.11245 0.105622,-0.21673 0.150391,-0.33984 0.144618,-0.39771 0.256923,-0.85854 0.341797,-1.35352 z"/>
 <path style="fill:#5491dc" d="M 16,7 H 9.875 C 9.3917375,7 9,6.608245 9,6.125 V 0 Z"/>
</svg>
