<svg xmlns="http://www.w3.org/2000/svg" width="16" height="16" version="1.1">
 <rect style="fill:#b76728" width="16" height="16" x="0" y="0" rx=".8" ry=".8"/>
 <rect style="fill:#4d4d4d" width="14" height="14" x="1" y="1" rx=".7" ry=".7"/>
 <path style="fill:#b2bfd9" d="m2 4v1h1v6h-1v1h5v-1h1v-6h-1v-1zm3 1h1v6h-1zm3-1v1h1v6h-1v1h5v-1h1v-3h-1v-1h1v-2h-1v-1zm3 1h1v2h-1zm0 3h1v3h-1z"/>
</svg>
