<svg xmlns="http://www.w3.org/2000/svg" width="16" height="16" version="1">
 <path style="fill:#23c2c2" d="m 3.96,1 0,14 11.24,0 C 15.6432,15 16,14.60975 16,14.125 L 16,1.875 C 16,1.39025 15.6432,1 15.2,1 Z"/>
 <path style="fill:#b2bfd9" d="M 0.8,1 C 0.3568,1 0,1.39025 0,1.875 l 0,12.25 C 0,14.60975 0.3568,15 0.8,15 L 4,15 4,1 Z"/>
 <circle style="fill:#17191e" cx="10" cy="8" r="4"/>
 <path style="fill:none;stroke:#f4f4f7;stroke-width:1px" d="m 9,7.6998932 1,1 2,-2"/>
</svg>
