<svg xmlns="http://www.w3.org/2000/svg" width="16" height="16" version="1.1">
 <rect style="fill:#4f4f4f" width="15" height="15" x="1" y="1" rx=".75" ry=".75"/>
 <path style="fill:#9a9a9a" d="m 5.125,6 v 7 h 1.5 V 7.9896177 L 8.4172364,10.047595 10.375,7.9133428 V 13 h 1.5 V 6 H 10.111328 L 8.4465333,7.8147614 6.8659667,6 Z"/>
 <path style="fill:#f4f4f7" d="m 5.125,5 v 7 h 1.5 V 6.9896177 L 8.4172364,9.0475945 10.375,6.9133428 V 12 h 1.5 V 5 H 10.111328 L 8.4465333,6.8147614 6.8659667,5 Z"/>
 <path style="fill:#dd7456" d="M 4 6.90625 L 1 8.3378906 L 1 10.03125 L 4 11.511719 L 4 9.8398438 L 2.6894531 9.1933594 L 4 8.5683594 L 4 6.90625 z"/>
 <path style="fill:#ffc45a" d="M 4 5.40625 L 1 6.8378906 L 1 8.5332031 L 4 10.011719 L 4 8.3398438 L 2.6894531 7.6933594 L 4 7.0683594 L 4 5.40625 z"/>
 <path style="fill:#dd7456" d="M 13 6.90625 L 13 8.5683594 L 14.310547 9.1933594 L 13 9.8398438 L 13 11.511719 L 16 10.03125 L 16 8.3378906 L 13 6.90625 z"/>
 <path style="fill:#ffc45a" d="M 13 5.40625 L 13 7.0683594 L 14.310547 7.6933594 L 13 8.3398438 L 13 10.011719 L 16 8.5332031 L 16 6.8378906 L 13 5.40625 z"/>
</svg>
