<svg xmlns="http://www.w3.org/2000/svg" width="16" height="16" version="1">
 <path style="fill:#cf4f8c" d="M 8,0 H 0.8 C 0.3568,0 0,0.3568 0,0.8 V 8 h 8 z"/>
 <path style="fill:#6655e4" d="m 8,0 h 7.2 C 15.6432,0 16,0.3568 16,0.8 V 8 H 8 Z"/>
 <path style="fill:#6655e4" d="M 8,16 H 0.8 C 0.3568,16 0,15.6432 0,15.2 V 8 h 8 z"/>
 <path style="fill:#cf4f8c" d="m 8,16 h 7.2 C 15.6432,16 16,15.6432 16,15.2 V 8 H 8 Z"/>
 <rect style="fill:#17191e" width="12" height="12" x="2" y="2"/>
 <path style="fill:none;stroke:#f4f4f7;stroke-linecap:round" d="M 3.5071212,11.5 H 7.507121"/>
 <path style="fill:none;stroke:#f4f4f7;stroke-width:0.99999994;stroke-linecap:round;stroke-linejoin:bevel" d="m 3.5071212,5.5 c 0,0 2.000002,0.23225 2.000002,-0.9999985 0,-1.2322505 -2.000002,-1.0000005 -2.000002,-1.0000005 m 4.95e-5,4.00005 V 3.50005"/>
 <path style="fill:none;stroke:#f4f4f7;stroke-width:0.99999994;stroke-linecap:round;stroke-linejoin:round" d="m 7.507121,7 c 0,0 0.252193,0.500484 1.000001,0.500242 C 9.254927,7.500002 9.50712,7 9.50712,6.500001 9.50712,4.3928085 7.507121,6.605582 7.513111,4.5046485 7.507067,4 7.749045,3.500001 8.507122,3.500001 9.265197,3.500001 9.507064,4 9.507064,4"/>
</svg>
