<svg xmlns="http://www.w3.org/2000/svg" width="16" height="16" version="1.1">
 <g transform="translate(0,-1036.3622)">
  <path style="fill:#005aeb" d="m 2.4261361,1044.3629 -2.213068,2.2124 c -0.13638892,0.1363 -0.21302988,0.3213 -0.2130682,0.5142 v 4.5454 c 3.612e-5,0.4017 0.32562488,0.7273 0.72727272,0.7273 H 5.2727273 c 0.1927704,2e-4 0.3777164,-0.076 0.5142044,-0.2124 l 2.213068,-2.213 5.5738633,-5.5739 2.213068,-2.2131 c 0.136566,-0.1365 0.213221,-0.3218 0.213069,-0.5149 v -4.5454 c -3.6e-5,-0.4017 -0.325625,-0.7273 -0.727273,-0.7273 h -4.545454 c -0.192874,0 -0.377835,0.077 -0.514205,0.2131 l -2.2130683,2.213 z"/>
  <path style="fill:#00d5e6" d="m 13.573864,1044.3629 2.213068,2.2124 c 0.136389,0.1363 0.21303,0.3213 0.213068,0.5142 v 4.5454 c -3.6e-5,0.4017 -0.325625,0.7273 -0.727273,0.7273 h -4.545454 c -0.192771,2e-4 -0.377717,-0.076 -0.514205,-0.2124 l -2.2130679,-2.213 -5.5738636,-5.5739 -2.21306796,-2.2131 c -0.1365656,-0.1365 -0.2132212,-0.3218 -0.2130684,-0.5149 v -4.5454 c 3.6e-5,-0.4017 0.3256248,-0.7273 0.7272728,-0.7273 H 5.2727273 c 0.1928736,0 0.3778344,0.077 0.5142044,0.2131 l 2.2130684,2.213 z"/>
  <path style="fill:#f4f4f7;fill-rule:evenodd" d="m 11.486857,1038.3628 v 8e-4 a 0.12420403,0.12419189 0 0 0 -0.08461,0.037 l -0.335318,0.3352 a 0.12420403,0.12419189 0 0 0 -0.03648,0.087 v 1.9248 H 9.1054811 a 0.12420403,0.12419189 0 0 0 -0.08771,0.037 l -1.24114,1.2411 a 0.12420403,0.12419189 0 0 0 0,0.1754 l 2.0584757,2.059 -0.3011644,0.3013 -1.3428217,-1.3436 c -0.4426149,-0.4426 -1.1641145,-0.4426 -1.606729,0 -0.4426154,0.4426 -0.4426158,1.164 0,1.6066 l 1.3428228,1.3434 -0.5293666,0.5295 -1.0548525,-0.1118 c 0.3287878,-0.4443 0.3416711,-1.0577 -0.060544,-1.46 -0.442615,-0.4424 -1.1633384,-0.4424 -1.6059525,0 l -2.1469626,2.1468 c -0.7060516,0.7059 -0.7060519,1.8544 0,2.5604 0.7060474,0.706 1.8546227,0.7061 2.5606756,0 0.3436583,-0.3436 0.4782188,-0.7941 0.4874523,-1.2448 l 0.2910741,0.291 a 0.12420403,0.12419189 0 0 0 0.1754206,0 l 0.2382925,-0.2391 a 0.12420403,0.12419189 0 0 0 0,-0.1753 l -1.1922395,-1.1922 a 0.12420403,0.12419189 0 0 0 -0.1754205,0 l -0.7156541,0.7156 a 0.12420403,0.12419189 0 0 0 0,0.1753 l 0.2382925,0.2384 a 0.12420403,0.12419189 0 0 0 0.1761971,0 l 0.2902976,-0.2903 c 0.1740058,0.4398 0.1295308,0.9501 -0.2274256,1.3069 -0.4794142,0.4794 -1.253054,0.4794 -1.732473,0 -0.4794102,-0.4793 -0.4794102,-1.2529 0,-1.7322 l 2.146186,-2.146 c 0.2159778,-0.216 0.5625487,-0.216 0.7785264,0 0.2159809,0.216 0.2159809,0.5624 0,0.7784 l -0.4773615,0.4765 a 0.12420403,0.12419189 0 0 0 0,0.1762 l 1.1930156,1.1921 a 0.12420403,0.12419189 0 0 0 0.1754205,0 l 0.2382929,-0.2382 a 0.12420403,0.12419189 0 0 0 0,-0.1761 l -0.5642957,-0.5643 1.1231579,0.1164 a 0.12420403,0.12419189 0 0 0 0.1009056,-0.037 l 1.0098328,-1.0099 a 0.12420403,0.12419189 0 0 0 0,-0.1761 l -0.8662363,-0.8654 0.778526,-0.7784 0.8662367,0.8661 a 0.12420403,0.12419189 0 0 0 0.1754205,0 l 0.9539467,-0.9538 a 0.12420403,0.12419189 0 0 0 0,-0.1762 l -0.8662364,-0.8662 0.6279444,-0.627 a 0.12420403,0.12419189 0 0 0 0,-0.1754 l -0.238292,-0.2391 a 0.12420403,0.12419189 0 0 0 -0.1761972,0 l -0.6271682,0.6278 -0.7785264,-0.7784 0.781631,-0.7815 h 1.7316978 v 2.2609 a 0.12420403,0.12419189 0 0 0 0.212677,0.087 l 0.335318,-0.3353 a 0.12420403,0.12419189 0 0 0 0.03648,-0.087 v -1.9256 h 1.92497 a 0.12420403,0.12419189 0 0 0 0.08771,-0.036 l 0.335318,-0.3353 a 0.12420403,0.12419189 0 0 0 -0.08771,-0.2127 h -2.260288 v -2.26 a 0.12420403,0.12419189 0 0 0 -0.128072,-0.1242 z m -4.0991,5.1069 c 0.1405936,0 0.2808864,0.055 0.3888751,0.1622 l 0.3888751,0.3888 -0.7785264,0.7784 -0.3888747,-0.3888 c -0.2159809,-0.2159 -0.2159809,-0.5625 0,-0.7784 0.1079887,-0.108 0.2490576,-0.1622 0.3896509,-0.1622 z"/>
  <path style="fill:#f4f4f7;fill-rule:evenodd" d="m 10.55399,1045.3622 c -0.398601,0 -0.7970689,0.151 -1.0998382,0.4537 -0.6055415,0.6056 -0.60553,1.5944 0,2.2 l 0.164525,0.1652 0.6423242,-0.6416 -0.165277,-0.1653 c -0.2549028,-0.2549 -0.2548968,-0.6609 0,-0.9158 0.254888,-0.255 0.660882,-0.255 0.915781,0 0.105545,0.1055 0.163465,0.2346 0.180302,0.3703 v 2.9249 l 0.608516,0.6086 0.228382,-0.2284 0.559685,-0.5597 1.41161,-1.4117 -0.641572,-0.6416 -1.261359,1.2606 c -0.0013,-0.6742 0.0021,-1.349 0,-2.027 v -0.013 l -0.0015,-0.013 c -0.04027,-0.3313 -0.186334,-0.6559 -0.441739,-0.9114 -0.302768,-0.3027 -0.701238,-0.4537 -1.099838,-0.4537 z"/>
 </g>
</svg>
