<svg xmlns="http://www.w3.org/2000/svg" width="16" height="16" version="1.1">
 <path style="fill:#005bb7" d="M 1.682378,1.0131006 8.7597708,0 H 15.2 C 15.6432,0 16,0.3568 16,0.8 v 6.5382712 l -1.176504,7.0447118 c -0.07301,0.437146 -0.359995,0.746877 -0.8,0.8 L 7.2564604,16 H 0.8 C 0.3568,16 0,15.6432 0,15.2 V 8.6454976 l 0.88237796,-6.832397 c 0.0567662,-0.4395496 0.36127214,-0.7371978 0.80000004,-0.8 z"/>
 <path style="fill:#0a84ff" d="M 0.8,0 C 0.3568,0 0,0.3568 0,0.8 v 14.4 c 0,0.04229 0.0062392,0.08296 0.0125,0.123438 V 9.0352814 C 2.51215,9.0469694 4.7613294,8.6907126 5.9964062,10.008719 7.3317602,11.433735 6.9411938,13.417918 6.9635938,16 H 15.2 C 15.6432,16 16,15.6432 16,15.2 V 6.9635938 C 13.417918,6.9411954 11.433735,7.3317602 10.008719,5.9964062 8.6907126,4.7613294 9.0469686,2.51215 9.0352814,0.0125 H 15.323438 C 15.28296,0.00623904 15.242285,0 15.2,0 Z M 16,6.9635938 V 0.8 C 16,0.7828579 15.9956,0.766868 15.9945,0.75 15.978784,1.7494575 15.962658,6.2746086 16,6.9635938 Z M 6.9635938,16 C 6.2746086,15.962658 1.7494574,15.978784 0.75,15.994531 0.766868,15.995583 0.78285788,16 0.8,16 Z"/>
 <g transform="matrix(0.01137093,0,0,0.01167467,-5.1361017,12.336706)">
  <path style="fill:#f4f4f7" d="M 1331.1226,142.47021 V 80.922336 L 1461.6579,-74.225586 1331.1226,-228.56362 v -57.24372 h 351.7742 v 133.83674 h -53.5342 l -1.1697,-80.30204 H 1412.3013 L 1543.7056,-73.794372 1412.3013,88.93553 h 216.7352 L 1628.519,8.6334868 h 52.5182 V 142.47021 Z"/>
 </g>
</svg>
