<svg xmlns="http://www.w3.org/2000/svg" width="16" height="16" version="1.1">
 <rect style="fill:#20baba" width="8" height="11" x="0" y="3" ry="1.1"/>
 <rect style="fill:#20baba" width="8" height="11" x="8" y="3" ry="1.1"/>
 <path style="fill:#b2bfd9" d="M 8.888889,2 C 8.3964446,2 8,2.424762 8,2.9523809 V 12 h 5.111112 C 13.603555,12 14,11.575236 14,11.04762 V 10.095237 3.904762 2.9523809 C 14,2.424762 13.603555,2 13.111112,2 Z"/>
 <path style="opacity:0.05" d="M 8.888889,2 C 8.3964446,2 8,2.424762 8,2.9523809 V 12 h 5.111112 C 13.603555,12 14,11.575236 14,11.04762 V 10.095237 3.904762 2.9523809 C 14,2.424762 13.603555,2 13.111112,2 Z"/>
 <rect style="fill:#00cccc" width="2" height="1" x="9" y="3" ry="0"/>
 <rect style="opacity:0.2" width="4" height="1" x="9" y="5" ry="0"/>
 <rect style="opacity:0.2" width="4.571" height=".762" x="3.43" y="4.71" ry="0"/>
 <rect style="opacity:0.2" width="4.571" height=".762" x="3.43" y="6.24" ry="0"/>
 <path style="fill:#b2bfd9" d="M 7.111111,2 C 7.603555,2 8,2.424762 8,2.9523809 V 12 H 2.888888 C 2.396445,12 2,11.575236 2,11.04762 V 10.095237 3.904762 2.9523809 C 2,2.424762 2.396445,2 2.888888,2 Z"/>
 <rect style="opacity:0.2" width="4" height="1" x="3" y="7" ry="0"/>
 <rect style="opacity:0.2" width="4" height="1" x="3" y="9" ry="0"/>
 <g transform="matrix(0.93750001,0,0,0.93750001,0.1428576,-0.42757137)">
  <path style="fill:#00cccc" d="m 4.2177717,1.5238091 c 0,0 -1.1735674,2.8006201 -1.1701457,4.2737652 0.00256,1.0962941 0.1571028,2.3333246 0.8855929,3.1767859 0.5596968,0.6480461 2.3706575,1.0917718 2.3706575,1.0917718 L 6.8940818,12.184033 7.4449397,12.042201 6.8547347,9.9243 c 0,0 1.3372282,-1.2547093 1.4849223,-2.0848781 C 8.5318296,6.7587503 8.0221721,5.6131229 7.4542063,4.6624989 6.6909317,3.3851797 4.2177717,1.5238091 4.2177717,1.5238091 Z"/>
  <path style="opacity:0.2" d="M 6.8852429,12.190476 7.4361008,12.048506 6.4029568,8.3422097 7.4110101,6.6639206 7.061734,6.4701507 6.2554056,7.8128368 5.9603027,6.753817 6.7666315,5.4111309 6.4173553,5.217361 5.812609,6.224444 5.5912105,5.4301789 6.1961001,4.423233 5.8468239,4.2293259 5.4436597,4.9008059 4.9178921,3.0538246 4.3670342,3.1956574 4.8928014,5.0426391 4.1943919,4.6549621 3.9928098,4.9907023 5.0404951,5.572012 5.2618932,6.3662772 4.2142079,5.7848299 4.0126258,6.1205697 5.4094444,6.8957869 5.7045473,7.9546696 4.3077283,7.1794528 4.1061458,7.515193 5.852241,8.4840425 Z"/>
 </g>
 <rect style="opacity:0.2" width="4" height="1" x="9" y="7" ry="0"/>
 <rect style="opacity:0.2" width="2" height="1" x="9" y="9" ry="0"/>
</svg>
