<svg xmlns="http://www.w3.org/2000/svg" width="16" height="16" version="1">
 <path style="fill:#989898" d="M 8,1 A 1,1 0 0 0 7,2 1,1 0 0 0 8,3 1,1 0 0 0 9,2 1,1 0 0 0 8,1 Z"/>
 <rect style="fill:#c48f61" width="12" height="13" x="2" y="3" rx="1.189" ry="1.157"/>
 <rect style="fill:#f4f4f7" width="10" height="11.5" x="3" y="3.5"/>
 <path style="fill:#989898" d="M 5.500244,1.9999993 C 5.2232439,1.9999993 5,2.2545214 5,2.5710931 v 0.8578125 0.5710937 h 6 V 3.4289056 2.5710931 C 11,2.2545214 10.776756,1.9999993 10.499756,1.9999993 H 8.75 a 0.75,0.8 0 0 1 -0.75,0.8 0.75,0.8 0 0 1 -0.75,-0.8 z"/>
 <path style="fill:none;stroke:#5f5f5f;stroke-linecap:round" d="M 4.5058009,9.1369978 5.2956833,9.8022832 6.5000002,8.4858135"/>
 <path style="fill:none;stroke:#c8c8c8;stroke-linecap:round" d="m 8.5,6.49995 h 3.025"/>
 <path style="fill:none;stroke:#5f5f5f;stroke-linecap:round" d="M 4.5058009,5.7619978 5.2956829,6.4272829 6.4999998,5.1108135"/>
 <path style="fill:none;stroke:#5f5f5f;stroke-linecap:round" d="m 4.5058009,12.512002 0.789882,0.665282 1.2043169,-1.31647"/>
 <path style="fill:none;stroke:#c8c8c8;stroke-linecap:round" d="m 8.5,9.49995 h 3.025"/>
 <path style="fill:none;stroke:#c8c8c8;stroke-linecap:round" d="m 8.5,12.49995 h 3.025"/>
</svg>
