<svg xmlns="http://www.w3.org/2000/svg" width="16" height="16" version="1">
 <rect style="fill:#e32e2e" width="16" height="16" x="0" y="0" rx=".8" ry=".8"/>
 <path style="stroke-linejoin:round;stroke:#f4f4f7;stroke-linecap:round;fill:none" d="m6.5997352 3.6c-2.8229784 1.306592-3.2507436 3.5086158-3.0774704 5.7509336 0.3643902 4.7155514 4.8049916 4.2117774 5.4771132 4.0990664 1.113442-0.186719 2.952243-0.883335 3.400622-3.6615116 0.458197-2.83901-1.00663-3.9624444-2.123331-4.2088536-1.402809-0.3095412-2.5669584-0.1139284-3.2044736 0.8751096-0.5914956 0.9176432-0.69774 2.051542-0.3243908 2.8128456 0.3408204 0.6949776 1.0285814 1.220573 1.5561954 1.23241 1.819117 0.040812 2.365632-1.2931244 2.167-2.3575484-0.459619-2.2652724-2.3201352-2.55002-1.955-4.3004516 0.3734008-1.1790647 2.156308-1.6150671 2.984-0.942"/>
</svg>
