<svg xmlns="http://www.w3.org/2000/svg" width="16" height="16" version="1">
 <rect style="fill:#465489" width="16" height="16" x="0" y="0" rx=".8" ry=".8"/>
 <path style="isolation:isolate;fill:#f4f4f7;fill-rule:evenodd" d="m 7.6369535,3.978262 c -0.306,1.573 -1.0104074,4.4368124 -1.3164074,6.007812 l 1.0214854,0 c 0.176,-0.9019996 0.551609,-2.2945466 0.724609,-3.1855466 0.348,0 0.67686,-0.01205 1.00586,0.002 0.323,0.014 0.445625,0.171282 0.390625,0.488282 -0.075,0.434 -0.364266,1.364875 -0.447266,1.796875 -0.057,0.298 -0.113828,0.5962026 -0.173828,0.9082026 0.334,0 0.653609,9.3e-5 0.974609,-0.0039 0.026,-10e-4 0.06622,-0.04131 0.07422,-0.07031 0.029,-0.112 0.04736,-0.226844 0.06836,-0.339844 0.1229995,-0.6419996 0.4553605,-1.7837336 0.5683605,-2.4277336 0.1,-0.568 -0.135407,-0.928875 -0.6914065,-1.046875 -0.263,-0.056 -0.537594,-0.06122 -0.808594,-0.07422 -0.266,-0.011 -0.5345,-0.002 -0.8125,-0.002 0.082,-0.423 0.362359,-1.6347344 0.443359,-2.0527344 l -1.021484,0 z M 2.748281,6.0309964 c -0.032,0 -0.062656,0.0048 -0.097656,0.0078 C 2.345625,7.6107984 1.941,10.375 1.635,11.947 l 1.0292969,0 c 0.077,-0.394 0.2542187,-1.475375 0.3242187,-1.859375 0.014,-0.075 0.043281,-0.09475 0.1132813,-0.09375 0.337,0.001 0.6766719,0.0091 1.0136719,-0.0059 0.213,-0.01 0.4287656,-0.03789 0.6347656,-0.08789 0.774,-0.189 1.5557497,-1.5126406 1.4687497,-2.6816406 -0.044,-0.599 -0.3817497,-0.972234 -0.9687497,-1.115234 -0.178,-0.043 -0.3648281,-0.06636 -0.5488281,-0.06836 -0.651,-0.009 -1.302125,-0.0039 -1.953125,-0.0039 z m 8.800782,0 c -0.032,0 -0.06266,0.0048 -0.09766,0.0078 C 11.146407,7.6107984 10.741778,10.375 10.435778,11.947 l 1.029297,0 c 0.077,-0.394 0.254219,-1.475375 0.324219,-1.859375 0.014,-0.075 0.04328,-0.09475 0.113281,-0.09375 0.337,0.001 0.676672,0.0091 1.013672,-0.0059 0.213,-0.01 0.428765,-0.03789 0.634766,-0.08789 0.774,-0.189 1.555749,-1.5126406 1.46875,-2.6816406 -0.044,-0.599 -0.38175,-0.972234 -0.96875,-1.115234 -0.178001,-0.043 -0.364828,-0.06636 -0.548829,-0.06836 -0.650999,-0.009 -1.302125,-0.0039 -1.953125,-0.0039 z m -8.0078133,0.722656 c 0.389,0.023 0.7733906,0.02027 1.1503906,0.07227 0.3300001,0.045 0.467125,0.237312 0.453125,0.570312 -0.009,0.203 -0.044562,0.709297 -0.1015624,0.904297 -0.1240001,0.434 -0.4310469,0.675703 -0.8730469,0.720703 -0.33,0.034 -0.6625313,0.03092 -1.0195313,0.04492 0.133,-0.681 0.258625,-1.633498 0.390625,-2.3125 z m 8.8007823,0 c 0.389,0.023 0.773389,0.02027 1.15039,0.07227 0.33,0.045 0.467124,0.237312 0.453125,0.570312 -0.009,0.203 -0.04456,0.709297 -0.101562,0.904297 -0.124,0.434 -0.431047,0.675703 -0.873047,0.720703 -0.33,0.034 -0.662531,0.03092 -1.019531,0.04492 0.132999,-0.681 0.258625,-1.633498 0.390625,-2.3125 z"/>
</svg>
