<svg xmlns="http://www.w3.org/2000/svg" width="16" height="16" version="1.1">
 <path style="fill:#cccccc" d="M 1.944445e-6,4.4999904 7.000003,1 10.111115,2.5555513 12.055559,7.2222051 13.999998,8.0215326 14,11.47893 7.000003,14.999962 1.944445e-6,11.499971 Z"/>
 <path style="fill:#c5c5c5" d="M 10.5,6.2712815 10.364215,6.3432725 6.9999972,8.0215326 8.5980142,8.820582 10.364215,9.707451 10.5,9.771271 10.635779,9.707451 13.049008,8.5009617 13.200736,8.4208027 13.352975,8.3488117 13.999998,8.021533 12.537769,7.2939627 12.40198,7.222482 12.266201,7.1581496 10.635779,6.3432725 Z"/>
 <path style="fill:#c5c5c5" d="M 3.5000025,2.7707793 3.3642188,2.8427702 0,4.5210304 1.598017,5.3200798 3.3642188,6.2069482 3.5000025,6.2707701 3.6357815,6.2069482 6.0490104,5.0004594 6.2007386,4.9202995 6.3529777,4.8483087 7.0000011,4.5210304 5.5377712,3.7934606 5.4019829,3.7219799 5.2662038,3.6576473 3.6357815,2.8427702 Z"/>
 <path style="fill:#b2bfd9" d="M 3.1111119e-6,4.5102551 V 7.9997238 L 0.01581534,8.0073655 0.16665797,8.0791299 1.7500088,8.875662 3.5000025,9.760243 V 6.2707694 L 3.4841825,6.2626261 3.3333403,6.1832272 1.6867961,5.3546309 Z"/>
 <path style="fill:#b2bfd9" d="m 10.5,6.260507 v 3.489469 l -0.01581,0.0077 -0.150843,0.07176 -1.5833508,0.796532 -1.7499936,0.884582 V 8.0210212 l 0.01582,-0.00815 0.1508422,-0.079399 1.6465442,-0.8285963 z"/>
 <path style="fill:#d4d4d4" d="M 10.5,2.7710383 V 6.260507 L 10.48419,6.268147 10.333347,6.339911 8.7499986,7.1364452 7.0000049,8.0210264 V 4.5315525 l 0.01582,-0.00815 0.1508423,-0.079399 1.6465442,-0.8285963 z"/>
 <path style="fill:#a0a0a0" d="M 7.0000018,1.0102642 6.8642181,1.0822551 3.4999994,2.7605153 5.0980163,3.5595647 6.8642181,4.4464332 7.0000018,4.5102551 7.1357809,4.4464332 9.5490099,3.2399445 9.700738,3.1597846 9.8529772,3.0877937 10.5,2.7605153 9.0377705,2.0329455 8.9019823,1.9614648 8.7662032,1.8971322 7.1357809,1.0822551 Z"/>
 <path style="fill:#a0a0a0" d="m 7.0000011,4.5210304 -0.1357838,0.071991 -3.3642187,1.6782602 1.598017,0.7990494 1.7662017,0.8868684 0.1357838,0.063822 0.135779,-0.063822 2.413229,-1.2064887 0.1517281,-0.08016 0.152239,-0.071991 L 10.5,6.2712815 9.0377698,5.5437117 8.9019815,5.472231 8.7662025,5.4078984 7.1357801,4.5930213 Z"/>
 <path style="fill:#b2bfd9" d="M 14,7.9894615 V 11.47893 l -0.01581,0.0077 -0.150843,0.07176 -1.583351,0.796532 -1.749994,0.884582 V 9.749996 l 0.01582,-0.0082 0.150842,-0.0794 1.646545,-0.8285961 z"/>
 <path style="fill:#c5c5c5" d="m 10.5,9.749978 v 3.489468 l -0.01581,0.0077 -0.150843,0.07176 L 8.7499982,14.115418 7.0000046,15 v -3.48947 l 0.01582,-0.0082 0.1508422,-0.0794 1.6465442,-0.828596 z"/>
 <path style="fill:#c5c5c5" d="m 3.5000014,6.260507 v 3.489469 l 0.015812,0.0077 0.1508426,0.07176 1.5833509,0.796532 1.7499937,0.884582 V 8.0210212 L 6.9841807,8.0128779 6.8333384,7.9334791 5.1867942,7.1048828 Z"/>
 <path style="fill:#c5c5c5" d="m 3.1111119e-6,7.9997254 v 3.4894686 l 0.015812228888,0.0077 0.15084263,0.07176 1.58335083,0.796532 1.7499937,0.884582 V 9.760297 l -0.01582,-0.0082 -0.1508422,-0.0794 -1.6465442,-0.8285972 z"/>
 <path style="fill:#b2bfd9" d="m 3.5000014,9.749978 v 3.489468 l 0.015812,0.0077 0.1508426,0.07176 1.5833509,0.796532 L 7.0000008,15 v -3.48947 l -0.01582,-0.0082 -0.1508423,-0.0794 -1.6465442,-0.828596 z"/>
 <path style="fill:#f06826" d="M 12.500001,0.4994884 12.364218,0.5714795 9,2.2497443 l 1.598017,0.7990515 1.766201,0.8868707 0.135783,0.063822 0.13578,-0.063822 2.413227,-1.2064918 0.151729,-0.08016 0.152238,-0.071991 0.647024,-0.3272792 -1.46223,-0.7275721 -0.135788,-0.071481 -0.135779,-0.064333 -1.630421,-0.8148795 z"/>
 <path style="fill:#f06826" d="m 12.5,0.4992414 -0.135958,0.072157 -3.3526476,1.6732853 -0.011393,-0.00608 v 0.011394 3.478732 l 0.015952,0.00759 0.1503903,0.071398 L 10.750001,6.6044923 12.5,7.4886065 V 7.5 L 14.25,6.6151257 15.833659,5.8183594 15.98405,5.7469621 16,5.7393663 V 2.2500006 L 14.537869,1.5223532 14.40191,1.4509556 14.265951,1.386394 12.63596,0.5713985 Z m 2.732096,2.1350907 -0.06304,0.031142 0.0319,-0.016711 z m -1.894314,0.9501954 -0.67144,0.3379988 -0.150391,0.079753 -0.01595,0.00836 v -0.011394 l 0.13596,-0.063802 z"/>
 <path style="fill:#f38854" d="m 15.999999,2.2497451 v 3.4894777 l -0.01581,0.00764 -0.150843,0.071765 L 14.249997,6.6151632 12.5,7.4997431 V 4.0102639 l 0.01582,-0.00815 0.150842,-0.0794 1.646544,-0.8285984 z"/>
 <path style="fill:#c85319" d="m 9.0000031,2.2389698 v 3.4894777 l 0.015812,0.00764 0.1508426,0.071765 1.5833503,0.7965342 1.749993,0.8845836 V 3.9994886 l -0.01582,-0.00815 -0.150842,-0.079399 -1.646544,-0.8285984 z"/>
</svg>
