<svg xmlns="http://www.w3.org/2000/svg" width="16" height="16" version="1.1">
 <g transform="translate(0,-1036.3622)">
  <path style="fill:#0093b8" d="m 8,1036.3641 c -5,-0.011 -8,3.9911 -8,8.0039 0,2.9906 1,5.992 4.1601561,6.9216 0.043929,0.011 0.088226,0.021 0.1328126,0.029 1.494973,0.2713 2.7081838,-0.835 2.7070312,-2.2765 l 0,-5.3796 0,0 c 1.841e-4,-0.6642 -0.2488806,-1.2367 -0.65625,-1.6493 0.5227545,-0.3415 1.1156968,-0.6613 1.65625,-0.6624 0.5425216,0 1.1401435,0.3204 1.6640625,0.6644 -0.4084872,0.4113 -0.6633748,0.9791 -0.6640624,1.6493 l 0,5.3815 c -0.00115,1.4415 1.211791,2.548 2.708984,2.2745 0.04391,-0.01 0.08755,-0.017 0.13086,-0.027 C 15,1050.36 16,1047.3586 15.999994,1044.3661 c 6e-6,-4.0109 -2.999994,-8.0128 -8,-8.0039 z"/>
  <path style="fill:#f4f4f7" d="m 7.9999986,1038.3623 c -3.3137079,0 -5.9999983,2.689 -5.9999964,6.0061 l 0,1.4131 0.00207,0 c -3.706e-4,0.022 -0.00215,0.043 -0.00207,0.066 0.00479,1.293 0.75067,2.5036 1.4531242,2.9446 0.7024539,0.441 1.1968452,0.5658 1.1968452,0.5658 0.1708683,0.031 0.3501816,-0.1147 0.3500284,-0.3064 l 0,-5.3854 c 1.776e-4,-0.175 -0.1541644,-0.3154 -0.3121147,-0.3105 -0.00528,-2e-4 -0.01057,-2e-4 -0.015854,0 0,0 -0.5001824,0.064 -1.2099428,0.447 -0.1136593,0.061 -0.227326,0.1369 -0.3400885,0.2185 -0.122,-2.6672 2.4396914,-4.6663 4.8779984,-4.6692 2.4401346,0 5.0000016,2.002 4.8812016,4.6721 -0.113649,-0.082 -0.228701,-0.1583 -0.34329,-0.2202 -0.709761,-0.3834 -1.209944,-0.4471 -1.209944,-0.4471 -0.0053,-2e-4 -0.01057,-2e-4 -0.01585,0 -0.157702,0 -0.311937,0.1352 -0.312116,0.3098 l 0,5.3847 c -1.53e-4,0.1917 0.17916,0.3376 0.350029,0.3064 0,0 0.494392,-0.1248 1.196845,-0.5659 0.702454,-0.441 1.448335,-1.6516 1.453124,-2.9446 8.3e-5,-0.022 -0.0017,-0.043 -0.002,-0.066 l 0.002,0 0,-1.4132 c -2.19e-4,-3.317 -2.686446,-6.0057 -5.9999986,-6.0057 z"/>
 </g>
</svg>
