<svg xmlns="http://www.w3.org/2000/svg" width="16" height="16" version="1">
 <path style="fill:#14ddb1" d="M 8,0 H 0.8 C 0.3568,0 0,0.3568 0,0.8 V 8 h 8 z"/>
 <path style="fill:#f7c73c" d="m 8,0 h 7.2 C 15.6432,0 16,0.3568 16,0.8 V 8 H 8 Z"/>
 <path style="fill:#2086e7" d="M 8,16 H 0.8 C 0.3568,16 0,15.6432 0,15.2 V 8 h 8 z"/>
 <path style="fill:#14ddb1" d="m 8,16 h 7.2 C 15.6432,16 16,15.6432 16,15.2 V 8 H 8 Z"/>
 <rect style="fill:#17191e" width="12" height="12" x="2" y="2"/>
 <path style="fill:none;stroke:#f4f4f7;stroke-linecap:round" d="M 3.5071212,11.5 H 7.507121"/>
 <path style="fill:none;stroke:#f4f4f7;stroke-width:0.99999994;stroke-linecap:round;stroke-linejoin:bevel" d="m 7.50712,3.5 -10e-7,3.000001 c 0,0.757339 -0.521974,1.012399 -0.999999,1 -0.44798,0.0018 -1.0000008,-0.233131 -1.0000008,-1 L 5.5071212,3.5 m -2e-6,0 -2e-6,3.000001 c 0,0.757339 -0.5219735,1.012399 -0.9999985,1 -0.44798,0.0018 -1.000001,-0.233131 -1.000001,-1 L 3.5071197,3.5"/>
 <path style="fill:none;stroke:#f4f4f7;stroke-width:0.99999994;stroke-linecap:round;stroke-linejoin:round" d="m 9.507179,7 c 0,0 0.252193,0.500483 1,0.500241 C 11.254985,7.500001 11.507178,7 11.507178,6.500001 11.507178,4.392808 9.507179,6.605582 9.513169,4.504648 9.507119,4 9.749103,3.5000005 10.507179,3.5000005 11.265254,3.5000005 11.507121,4 11.507121,4"/>
</svg>
