<svg xmlns="http://www.w3.org/2000/svg" width="16" height="16" version="1">
 <rect style="fill:#b2bfd9" width="15" height="16" x="-16" y="0" rx=".8" ry=".8" transform="scale(-1,1)"/>
 <path style="fill:#2b629b" d="M 14,2 H 3 V 8 H 14 Z"/>
 <circle style="fill:#ff9600" cx="8.5" cy="7.5" r="2.5"/>
 <path style="fill:#0c939f" d="M 3,8 V 13 H 14 V 8 Z"/>
 <path style="fill:#fded63" d="M 6.0001,8 C 6.0001,8 6.4662,8.4744 6.4999,8.8178 6.5302,9.1251 5.9904,9.3378 6.0001,9.6464 6.0125,10.04 6.9567,10.182 6.9997,10.574 7.0331,10.877 6.4838,11.215 6.4999,11.519 6.5218,11.931 7.1705,12.063 7.4489,12.367 7.5977,12.53 7.8744,13 7.8744,13 H 9.4363 C 9.4363,13 10.014,12.694 9.9985,12.466 9.9676,12.012 9.5124,12.021 9.4987,11.566 9.4906,11.292 9.9338,11.363 9.9985,11.097 10.07,10.801 9.4204,10.507 9.4987,10.213 9.6098,9.7958 10.944,9.8396 10.998,9.4116 11.036,9.1138 10.477,8.979 10.5,8.6797 10.524,8.3638 10.998,8 10.998,8 Z"/>
 <path style="fill:#f4f4f7" d="M 4.5102,3.7798 C 4.5102,3.7798 4.7683,3.1724 5.084,3.1077 5.3488,3.0536 5.8538,3.4047 5.8538,3.4047 5.8538,3.4047 6.3264,2.9117 6.6655,3.014 6.9035,3.0857 7.1413,3.5923 7.1413,3.5923 7.1413,3.5923 7.8685,3.6126 7.981,3.9518 8.0896,4.2791 7.7105,4.6956 7.4072,4.7802 7.1094,4.8632 6.6935,4.6238 6.6935,4.6238 6.6935,4.6238 6.3615,4.9775 6.1197,4.999 5.8466,5.0232 5.322,4.6082 5.322,4.6082 5.322,4.6082 4.9371,5.0185 4.5942,4.9365 4.2849,4.8625 3.9076,4.4224 4.0204,4.0924 4.0814,3.9139 4.5102,3.7798 4.5102,3.7798 Z"/>
 <path style="fill:#f4f4f7" d="M 10.518,3.0173 C 10.242,3.0876 9.9712,3.6046 9.9712,3.6046 9.9712,3.6046 9.2477,3.5161 9.0895,3.7381 8.8769,4.0365 9.0649,4.596 9.4239,4.7526 9.6768,4.8628 10.214,4.4856 10.214,4.4856 10.214,4.4856 10.799,5.0707 11.157,4.9929 11.466,4.9257 11.674,4.479 11.674,4.479 11.674,4.479 12.208,4.9206 12.555,4.7726 13.062,4.5566 13.146,3.6782 12.753,3.3243 12.518,3.1127 11.887,3.4178 11.887,3.4178 11.887,3.4178 10.98,2.9 10.518,3.0173 Z"/>
</svg>
