<svg xmlns="http://www.w3.org/2000/svg" width="16" height="16" version="1.1">
 <path style="opacity:0.2" d="M 6.75,2.25 V 3.3962404 C 6.0743752,3.4370227 5.4705229,3.551079 4.9379884,3.8415529 4.2154706,4.2356531 3.75,5.0625 3.75,6 c 0,1.0000001 0.6453112,1.7772435 1.374756,2.1115721 0.7294444,0.334329 1.5322264,0.4138185 2.2822264,0.5075685 0.75,0.09375 1.447218,0.2017605 1.8427736,0.3830565 C 9.6453112,9.1834935 9.75,9.2500001 9.75,9.75 9.75,10.101124 9.6478241,10.280474 9.3061523,10.493408 8.9644808,10.706342 8.3447329,10.875 7.5,10.875 6.1875,10.875 5.7460159,10.454473 5.4990233,10.083984 5.252031,9.713496 5.25,9.375 5.25,9.375 h -1.5 c 0,0 -0.00203,0.786504 0.5009768,1.541016 0.4232519,0.634878 1.2453667,1.229187 2.4990232,1.40332 V 13.5 h 1.5 V 12.339844 C 8.9620399,12.268966 9.5843588,12.087773 10.100098,11.766357 10.789676,11.336604 11.25,10.578123 11.25,9.75 11.25,8.7499999 10.604689,7.9727565 9.875244,7.6384279 9.1457996,7.3040989 8.3430176,7.2246094 7.5930176,7.1308594 6.8430176,7.0371094 6.1457996,6.9290989 5.750244,6.7478029 5.3546887,6.5665065 5.25,6.4999999 5.25,6 5.25,5.4375 5.3470294,5.3268469 5.6557616,5.1584471 5.9644943,4.9900478 6.6124999,4.875 7.5,4.875 8.8437499,4.875 9.3164273,5.2529557 9.5390625,5.53125 9.7616978,5.8095442 9.75,6 9.75,6 h 1.5 C 11.25,6 11.2383,5.2529557 10.710938,4.59375 10.268999,4.0413266 9.4700464,3.5636752 8.25,3.421875 V 2.25 Z"/>
 <path style="fill:#4f8d28" d="M 7.5,0 A 7.5,7.5 0 0 0 0,7.5 7.5,7.5 0 0 0 7.5,15 7.5,7.5 0 0 0 15,7.5 7.5,7.5 0 0 0 7.5,0 Z"/>
 <path style="fill:none;stroke:#f4f4f7;stroke-linejoin:round" d="m 10.5,6 c 0,0 0,-2.25 -3,-2.25 -1.875,0 -3,0.375 -3,1.875 0,3 6,0.75 6,3.75 0,1.179248 -1.125,1.875 -3,1.875 -3,0 -3,-2.25 -3,-2.25 v 0"/>
 <rect style="fill:#f4f4f7" width="1" height="2" x="7" y="2"/>
 <rect style="fill:#f4f4f7" width="1" height="2" x="7" y="11"/>
</svg>
