<svg xmlns="http://www.w3.org/2000/svg" width="16" height="16" version="1">
 <rect style="fill:#70ae39" width="16" height="16" x="0" y="0" rx=".8" ry=".8"/>
 <path style="fill:#17191e" d="M 3.4244068,5 2,10 2.5889212,10 4,5 3.4244068,5 Z"/>
 <path style="fill:#f4f4f7" d="M 7,10 7,9 8,9 8,10 7,10 Z"/>
 <path style="fill:#17191e" d="M 10.424407,5 9,10 9.5889212,10 11,5 10.424407,5 Z"/>
 <path style="fill:#17191e" d="M 12.5,6 C 11.671573,6 11,6.6715729 11,7.5 11,8.3284271 11.671573,9 12.5,9 12.823219,8.9995792 13.137656,8.8947667 13.396484,8.7011719 l 0,0.25 c 0,0.6766191 -0.290852,1.4078051 -0.875,1.4078051 -0.217155,0 -0.392707,-0.04279 -0.527343,-0.130861 -0.132465,-0.08592 -0.419131,-0.209993 -0.458219,-0.3710925 l -0.589844,0.083984 c 0.06515,0.2749435 0.411845,0.6861725 0.63986,0.8343835 C 11.813942,10.925756 12.121495,11 12.505859,11 13.489572,11 14,9.9169875 14,8.9375 L 14,7.5 14,6.7695312 14,6 13.443359,6 c -0.0084,0.014501 -0.017,0.1635806 -0.02539,0.3164062 C 13.155522,6.1120799 12.832607,6.0007773 12.5,6 Z m 0,0.75 c 0.414214,0 0.75,0.3357864 0.75,0.75 0,0.4142136 -0.335786,0.75 -0.75,0.75 -0.414214,0 -0.75,-0.3357864 -0.75,-0.75 0,-0.4142136 0.335786,-0.75 0.75,-0.75 z"/>
 <path style="fill:#f4f4f7" d="M 4.5755932,5 6,10 5.4110788,10 4,5 4.5755932,5 Z"/>
</svg>
