<svg width="16" height="16" version="1.1" xmlns="http://www.w3.org/2000/svg">
 <rect width="16" height="16" rx=".8" ry=".8" style="fill:#eab33e"/>
 <path d="m9.8125 1.9921875c-0.2094419-0.003018-0.3457031 0.0097656-0.3457031 0.0097656a0.50005 0.50005 0 1 0 0.0800781 0.9960938s0.4389142-0.0292004 0.84375 0.0566406c0.202418 0.042921 0.382523 0.1166838 0.480469 0.1933594 0.09795 0.076676 0.132116 0.1190272 0.136718 0.2675781 0.01479 0.4771679 0.0047 1.0780232 0 1.484375h-0.5a0.50005 0.50005 0 0 0-0.353515 0.8535156l1 1a0.50005 0.50005 0 0 0 0.707031 0l1-1a0.50005 0.50005 0 0 0-0.353516-0.8535156h-0.5c0.005001-0.406289 0.016191-0.9933178 0-1.515625-0.013358-0.4311798-0.239109-0.8039136-0.519531-1.0234375s-0.597533-0.3226188-0.890625-0.3847656c-0.293091-0.0621469-0.575714-0.0809664-0.785156-0.0839844zm-5.6914062 0.0078125-2.1210938 6h1.484375l0.3632812-1.0917969h2.3085938l0.359375 1.0917969h1.484375l-2.1191406-6h-1.7597656zm0.8808593 1.40625 0.78125 2.3886719h-1.5664062l0.7851562-2.3886719zm6.7011719 4.5742188c-0.285397 9.9e-6 -1.079592 0.0317231-1.380859 0.0957031-0.301247 0.060795-0.6113492 0.2521851-0.931641 0.3769531v0.8164062c0.2663973-0.147168 0.543449-0.3560975 0.832031-0.4296874 0.288597-0.0735791 1.084235-0.1113232 1.388672-0.1113282 0.478845 5e-6 0.850068 0.1119905 1.113281 0.3359375 0.266386 0.220748 0.300777 0.734314 0.300782 1.1406249v0.085938h-1.128907c-0.79288-0.070321-1.894129 0.153806-2.2968746 0.460937-0.399556 0.307147-0.5996094 0.963665-0.5996094 1.568359 0 0.517995 0.159972 0.932191 0.4804688 1.242188 0.3234967 0.307137 1.2572902 0.460938 1.8027342 0.460938 0.431296 0 0.795653-0.0769 1.09375-0.230469 0.298117-0.156748 0.448645-0.398278 0.648438-0.72461v0.931641h0.974609v-3.181641c0-0.8190416-0.189771-1.8312536-0.570312-2.2343746-0.380546-0.403131-0.955971-0.6035107-1.726563-0.6035156zm-7.2109375 1.0117187a0.50005 0.50005 0 0 0-0.3457031 0.1464844l-1 1.0000001a0.50005 0.50005 0 0 0 0.3535156 0.853516h0.5c-0.00502 0.406287-0.016186 0.993318 0 1.515624 0.01336 0.43118 0.2391095 0.803914 0.5195312 1.023438 0.280422 0.219524 0.5975337 0.322619 0.890625 0.384766 0.5861831 0.124293 1.1308594 0.074218 1.1308594 0.074218a0.50005 0.50005 0 1 0-0.0820312-0.996093s-0.4369611 0.029199-0.8417969-0.056641c-0.2024181-0.042923-0.3825228-0.116684-0.4804687-0.193359-0.0979461-0.076676-0.1321161-0.119026-0.1367188-0.267579-0.0147874-0.477167-0.0046643-1.078024 0-1.484374h0.5a0.50005 0.50005 0 0 0 0.3535156-0.853516l-1-1.0000001a0.50005 0.50005 0 0 0-0.3613281-0.1464844zm7.7617185 1.9902345h0.771485v0.197266c0 0.620653-0.048833 1.237211-0.34375 1.585937-0.291797 0.345532-0.678868 0.519531-1.164063 0.519531-0.351997 0-1.131763-0.091074-1.33789-0.273437-0.2029583-0.185548-0.304688-0.436463-0.304688-0.75 0-0.393531 0.137429-0.871988 0.410156-1.035157 0.272697-0.163168 1.261558-0.244135 1.96875-0.24414z" style="fill:#f4f4f7"/>
</svg>
