<svg xmlns="http://www.w3.org/2000/svg" width="16" height="16" version="1">
 <rect style="fill:#167abf" width="16" height="14" x="0" y="1" rx=".8" ry=".7"/>
 <path style="opacity:0.2" d="M 0.8,0.99999994 C 0.3568,0.99999994 0,1.3118783 0,1.6996782 V 14.300321 C 0,14.688121 0.3568,15 0.8,15 H 5.2 V 0.99999994 Z"/>
 <path style="fill:none;stroke:#f4f4f7;stroke-linecap:round" d="M 5.50005,0.52 V 15.48"/>
 <path style="fill:none;stroke:#f4f4f7;stroke-linecap:round" d="M 7.5023225,3.530856 H 10.502322"/>
 <path style="fill:none;stroke:#f4f4f7;stroke-linecap:round" d="M 8.5071212,6.49995 H 12.507121"/>
 <path style="fill:none;stroke:#f4f4f7;stroke-linecap:round" d="M 8.5071212,9.5191935 H 12.507122"/>
 <path style="fill:none;stroke:#f4f4f7;stroke-linecap:round" d="M 7.5023225,12.49995 H 10.502322"/>
</svg>
