<svg xmlns="http://www.w3.org/2000/svg" width="16" height="16" version="1.1">
 <path style="fill:#23a5dc" d="M 3.888,0 V 16 H 14.1875 C 14.637625,16 15,15.6432 15,15.2 V 0.8 C 15,0.3568 14.637625,0 14.1875,0 Z"/>
 <path style="fill:#6b3f3f" d="M 2.8125,0 C 2.362375,0 2,0.3568 2,0.8 V 15.2 C 2,15.6432 2.362375,16 2.8125,16 H 4 V 0 H 2.8127031 Z"/>
 <path style="fill:#f4f4f7" transform="matrix(0.41045997,0,0,0.4,-1.3296811,-2.4174728)" d="m 34.149935,26.043682 -6.928204,4 -6.928202,4 0,-8 0,-8 6.928203,4 z"/>
</svg>
