<svg xmlns="http://www.w3.org/2000/svg" width="16" height="16" version="1">
 <path style="fill:#4f4f4f" d="M 9.0197374,0 C 8.9828261,0 8.8883191,0.05038876 8.8101529,0.11171876 8.6224261,0.25901076 7.323474,0.83900288 7.0111485,1.0140625 L 6.764004,1.1523438 6.5326348,1.1046875 C 6.4051037,1.0784451 6.2800341,1.0570188 6.2554419,1.0570312 6.2308516,1.0570436 6.11638,1.1358465 6.0007854,1.2328125 5.7557297,1.4383785 5.4988148,1.6438964 5.3715807,1.64375 5.3227624,1.64369 5.2407884,1.6173882 5.1897905,1.5851562 5.1387915,1.5529226 5.0677259,1.5265625 5.0312876,1.5265625 c -0.087621,0 -0.5762308,0.5113809 -0.8562252,0.7015625 C 3.9596962,2.374409 3.7435369,2.551402 3.4073368,2.8554688 3.2197139,3.025158 3.1434392,3.1709836 3.0520195,3.5359376 c -0.1140339,0.455232 -0.047541,0.6703636 0.192307,0.850828 0.1365507,0.1027408 0.3471252,0.3410052 0.4394514,0.4968752 0.074462,0.1257132 0.091837,0.1330736 0.322265,0.1335936 h 0.2050774 l 0.3628292,-0.33125 C 4.9276329,4.3283256 4.855192,4.3864672 5.3233543,4.4116 5.9081504,4.442992 5.9623421,4.7034948 6.00364,5.1226556 5.9832016,5.3803356 5.9264645,5.5297124 5.7820362,5.7039056 5.6907492,5.8140032 5.6864769,5.8149852 5.363618,5.8562492 5.1844944,5.8791412 4.290342,6.0044064 3.5638949,6.1343744 2.8374441,6.2643428 2.2174924,6.3703116 2.1869464,6.3703116 c -0.038234,0 -0.1048223,-0.077054 -0.214843,-0.2484372 C 1.7968366,5.8488604 1.72186,5.8002168 1.6002597,5.8828116 1.4186922,6.0061388 1.161006,6.4808452 1.0571425,6.8843744 0.974987,7.2035596 0.9828791,8.0639228 1.0714155,8.4945304 1.1882074,9.0625728 1.409791,9.7198276 1.6986669,10.354687 c 0.1301638,0.286059 0.191224,0.354813 0.241135,0.271093 0.010153,-0.01703 0.029793,-0.304115 0.04357,-0.6382808 C 2.0174734,9.160194 2.0836194,8.5708608 2.1651614,8.3671868 2.2843579,8.0694652 2.2839204,8.0422388 2.1433765,7.7421868 1.9965166,7.4286504 1.9639832,7.3144396 2.0164238,7.2953116 c 0.019851,-0.00724 0.3989295,-0.026588 0.8428457,-0.042969 0.9540061,-0.035204 1.1103763,-0.067594 1.5770547,-0.1640624 0.4104901,-0.084852 0.4702711,-0.087267 0.5333516,-0.021876 0.049726,0.05153 0.049302,0.08678 -0.003,0.6546872 C 4.9421374,7.987506 5.2107666,8.1915504 5.46218,8.5968732 5.7135872,9.002186 6.26387,9.3356656 6.3910161,9.7703104 6.5035215,10.154904 6.5088669,10.224566 6.431581,10.304686 6.2470031,10.496025 5.3659563,10.25423 4.6696564,9.3046856 4.1289002,8.5672536 3.9765519,8.3960916 3.8598634,8.3960916 c -0.1907336,0 -0.4839895,0.2887016 -0.7910127,0.7781252 -0.1862943,0.2969684 -0.2661056,0.4636052 -0.5326004,1.1062502 -0.2853259,0.688062 -0.3418555,0.874415 -0.4657436,1.550781 -0.095555,0.521695 -0.1041246,0.615597 -0.1021631,1.057031 0.00223,0.494556 0.041088,1.03499 0.1817902,2.068521 0.051384,0.37743 0.093404,0.59348 0.1179383,0.610156 0.072435,0.04924 0.242993,-0.203394 0.4875282,-0.720312 0.4656091,-0.984247 0.6828249,-1.733038 0.7421851,-2.266958 0.072329,-0.65056 0.2151262,-1.173298 0.4259301,-1.564063 0.099494,-0.184432 0.2522045,-0.388281 0.2914652,-0.388281 0.011242,0 0.082477,0.102206 0.1585033,0.227344 0.1736905,0.285892 0.7723917,0.55817 0.9180046,0.626562 0.079862,0.03748 0.5501752,0.04766 0.6456341,0.03594 l 0.1337137,-0.01641 0.035308,0.120312 c 0.030454,0.105366 0.02565,0.15681 -0.033804,0.407813 -0.090985,0.384131 -0.090619,0.835005 0,1.438793 0.074355,0.495419 0.094435,0.563281 0.1720244,0.563281 0.1105938,0 0.4086609,-0.379278 0.590443,-0.751562 0.0322,-0.06595 0.1418333,-0.411085 0.2441395,-0.767188 0.2095997,-0.729566 0.4320985,-1.298376 0.4710023,-1.339574 0.5119182,0.306389 0.6247262,0.293568 1.1707351,0.450781 0.012954,0.02527 0.063796,0.257276 0.1134311,0.515625 0.3136024,1.632255 0.6829281,3.098477 0.8811566,3.387062 0.093968,0.136804 0.1539445,0.110465 0.2629199,-0.114063 0.1280867,-0.263915 0.5046467,-1.181924 0.9066977,-2.209375 0.180075,-0.460183 0.343951,-0.949819 0.364332,-0.990186 0.0315,-0.06241 0.06444,-0.07614 0.220101,-0.09453 0.581022,-0.06867 0.69478,-0.08776 0.821061,-0.1375 0.19095,-0.07522 0.340877,-0.205268 0.513069,-0.445313 0.08022,-0.111835 0.15502,-0.203125 0.166766,-0.203125 0.02547,0 0.215418,0.443532 0.339542,0.792969 0.145044,0.408333 0.253083,0.843473 0.298227,1.203125 0.02335,0.186007 0.06258,0.403641 0.08789,0.484375 0.149181,0.475668 0.56489,1.123535 1.210182,1.886719 C 15.046189,15.864722 15.176717,16 15.196217,16 c 0.04028,0 0.07308,-0.110944 0.237379,-0.792969 0.105763,-0.439034 0.13802,-0.525829 0.341796,-0.930469 L 16,13.829688 V 13.2625 C 16,12.095987 15.856218,10.973364 15.601865,10.155469 15.42707,9.5934008 15.078832,8.9807856 14.753009,8.6041716 14.51,8.3232812 14.381395,8.295734 14.245198,8.4940156 c -0.07301,0.1062928 -0.161589,0.3541484 -0.18855,0.528906 -0.01044,0.067707 -0.03695,0.1301548 -0.05934,0.1390628 -0.02447,0.00974 -0.09904,0.037904 -0.187049,-0.051112 -0.300203,-0.3036264 -0.563316,-0.41011 -0.653543,-0.2640624 -0.02244,0.036332 -0.07974,0.1716068 -0.127704,0.3007812 -0.111994,0.3016028 -0.239413,0.4089988 -0.329777,0.470378 -0.106452,0.072306 -0.282978,0.039428 -0.530628,-0.078906 -0.18494,-0.088369 -0.208317,-0.1097236 -0.297475,-0.275 -0.143268,-0.2655936 -0.166698,-0.4201052 -0.128455,-0.8468748 0.01768,-0.1973284 0.03516,-0.430316 0.03831,-0.616004 l 0.0053,-0.3375 L 11.666095,7.239466 C 11.599715,7.1160324 11.430498,6.64502 11.290495,6.437722 11.150494,6.230424 11.035838,6.0489212 11.035838,6.0345972 c 0,-0.014788 0.138347,-0.017544 0.31926,-0.00625 0.177285,0.011064 0.40411,0.00682 0.511567,-0.00938 l 0.193058,-0.028908 0.347805,-0.3757812 c 0.678833,-0.7347828 0.861033,-0.7875824 0.887167,-1.027944 0.01171,-0.1077004 0.0014,-0.152566 -0.05634,-0.2421876 -0.113294,-0.1756636 -0.267439,-0.323654 -0.359119,-0.34453 -0.132618,-0.030196 -1.266342,0.3163264 -1.594797,0.4875 C 10.980972,4.6452656 10.695137,4.5870088 10.379995,4.3027416 10.149812,4.0951116 9.5812955,3.6313468 8.8463288,3.0859328 8.2823361,2.6673952 8.1273047,2.5191272 8.1732542,2.442964 8.191631,2.412508 8.7143046,2.3604828 8.8830191,2.311714 9.4267927,2.154532 9.7104394,2.05035 9.7671806,1.986714 9.8339677,1.9118124 10.027847,1.2160548 10.027847,1.0507764 c 0,-0.090334 -0.02386,-0.13996404 -0.1194406,-0.25156244 C 9.4856997,0.30564636 9.1459855,0 9.0197374,0 Z"/>
 <path style="fill:#b2bfd9" d="M 3.8081767,3.2 C 4.5636672,3.5646972 4.1787081,3.9382928 3.2973611,4.4386624 3.4311518,4.5544824 3.6015697,4.745694 3.6834775,4.8839752 3.7405504,4.9803304 3.7663999,5.006154 3.8780384,5.0136624 4.141064,4.7138596 4.834932,4.543234 4.9379805,4.0460936 5.0481413,3.5146396 5.022686,3.184512 3.8081767,3.2 Z"/>
</svg>
