<svg xmlns="http://www.w3.org/2000/svg" width="16" height="16" version="1">
 <rect style="fill:#647fa6" width="16" height="16" x="0" y="0" rx=".8" ry=".8"/>
 <path style="fill:#f4f4f7" d="M 13.987435,7.006082 12.396152,4.0800005 c -0.0025,-0.00345 -0.0047,-0.00654 -0.0072,-0.00964 -0.01112,-0.013429 -0.02368,-0.025479 -0.03767,-0.035116 -0.05668,-0.039592 -0.133802,-0.047856 -0.200523,-0.014462 -0.0391,0.019626 -0.0678,0.05061 -0.08466,0.086416 -0.0025,0.00309 -0.0036,0.00688 -0.0051,0.010672 L 11.200897,6.0981999 9.4941063,6.953405 c -0.011119,0.00551 -0.022601,0.011364 -0.03336,0.017215 L 8.8803368,7.2615406 8.3745411,7.514935 8.2421735,7.2718692 C 8.1672008,7.1341551 7.9907106,7.0807908 7.8472223,7.1527465 7.7040929,7.224358 7.6481327,7.3940905 7.7231051,7.5318046 L 7.8554731,7.7748699 7.3668959,8.019657 6.9450407,7.2439822 7.7022993,6.8645798 C 7.8967257,6.7668024 7.9720569,6.5364755 7.8705391,6.3498731 7.8543953,6.3195751 7.8339503,6.2923772 7.8106328,6.268621 L 7.7761965,6.2366031 C 7.6563839,6.1384821 7.4820458,6.1143822 7.3342529,6.1884034 L 5.0979906,7.3087079 c -0.194785,0.097777 -0.2701162,0.3281042 -0.1685983,0.5150511 0.016144,0.029265 0.035156,0.055774 0.057754,0.079186 0.011479,0.012738 0.024394,0.024443 0.037666,0.03477 0.1198123,0.097433 0.2937919,0.1215326 0.4412259,0.047512 L 6.2229374,7.6061684 6.6447926,8.3818432 6.1056361,8.6521076 5.9732681,8.4090423 C 5.8982958,8.2716721 5.7210878,8.2183078 5.5783173,8.2899192 c -0.037666,0.018934 -0.069233,0.044413 -0.094344,0.07471 -0.069233,0.08435 -0.085017,0.2027842 -0.029775,0.3043486 L 5.5865662,8.9120429 4.7654556,9.3234643 c -0.011119,0.00516 -0.022601,0.011018 -0.03372,0.016527 L 2.7756322,10.319484 2.1084127,10.180393 c -0.00179,-6.91e-4 -0.00359,-6.91e-4 -0.00503,-0.0011 -0.018654,-0.0035 -0.038383,-6.92e-4 -0.056319,0.008 -0.039818,0.01997 -0.057037,0.06508 -0.041253,0.104318 l 0.7317891,1.345123 c 0.00179,0.0023 0.00359,0.0051 0.00574,0.0073 l 0.00108,0.0011 0.010762,0.0096 c 0.025826,0.02065 0.063135,0.02512 0.09542,0.0093 0.017936,-0.0093 0.031208,-0.02306 0.0391,-0.03993 7.125e-4,-0.0014 0.00142,-0.0027 0.00214,-0.0045 l 0.2679636,-0.616271 0.7827278,-0.392485 c 0.00323,0.213456 0.056678,0.429324 0.1664462,0.63142 0.3755801,0.690292 1.2634131,0.9578 1.9830058,0.597334 0.011119,-0.0055 0.022598,-0.01136 0.03336,-0.01722 l 0.8211106,-0.411421 0.1535323,0.282314 c 0.074614,0.137369 0.2521806,0.190733 0.3949511,0.119122 0.1431294,-0.07161 0.19909,-0.241688 0.1241173,-0.379058 l -0.1535348,-0.281971 0.5391568,-0.270263 0.447683,0.823186 c 0.1043873,0.191767 0.3501109,0.265788 0.5499182,0.165601 0.05596,-0.02789 0.1022352,-0.06644 0.1370311,-0.111548 0.091474,-0.116714 0.1104856,-0.277838 0.035513,-0.415898 L 8.7271445,10.519178 9.2157217,10.274391 9.369254,10.556362 c 0.074614,0.13737 0.2518214,0.191078 0.3949508,0.119122 0.1434881,-0.07195 0.1987313,-0.242033 0.1241175,-0.379058 L 9.7347893,10.014111 10.867628,9.4463855 c 0.0782,-0.040282 0.151021,-0.086072 0.218461,-0.1373698 C 11.62955,8.8972499 11.80891,8.1604795 11.477094,7.550406 11.367325,7.3486545 11.213435,7.1830533 11.032998,7.0580775 l 0.534135,-0.2675095 2.197161,0.4568669 c 0.0043,0.00106 0.0079,0.00204 0.01184,0.0024 0.04054,0.00722 0.08358,0.0024 0.122324,-0.017215 0.08609,-0.042692 0.12304,-0.140813 0.08896,-0.2265399 z m -8.2555888,4.137277 c -0.00502,0.0031 -0.00969,0.0051 -0.015068,0.008 -0.3235657,0.162117 -0.7221041,0.04196 -0.8907024,-0.268585 -0.1685987,-0.310201 -0.043764,-0.692701 0.2790843,-0.854515 L 5.9607086,9.5995817 6.5716094,10.72264 Z M 7.09032,10.462707 6.4794193,9.3396482 l 0.035872,-0.01756 0.5036435,-0.2523612 0.6109008,1.1230589 -0.1147906,0.0575 z M 8.352298,9.8305991 7.7413972,8.7075402 8.2299743,8.4627535 8.8408751,9.5858121 Z m 2.026411,-1.0166747 c -0.0072,0.00447 -0.01434,0.00861 -0.02188,0.012051 L 9.3595854,9.3258777 8.7486846,8.2028184 9.4923119,7.8299574 9.730502,7.7108348 c 0.012555,-0.0062 0.02547,-0.01205 0.038383,-0.017901 0.315673,-0.13496 0.690178,-0.012051 0.85232,0.286101 0.143129,0.2623455 0.07533,0.5766783 -0.144565,0.7653465 -0.02942,0.025822 -0.06206,0.049233 -0.09793,0.069546 z"/>
</svg>
