<svg xmlns="http://www.w3.org/2000/svg" width="16" height="16" version="1">
 <path style="fill:#e8973e" d="M 4.8007812,4.8007812 3.3867188,6.2148438 7.171875,10 H 9 v 2 h 2 v 1 1 h 1 1 v 1.828125 L 13.171875,16 H 16 Z"/>
 <path style="fill:#f0c550" d="M 6.2140624,3.3859376 4.8,4.8 16,16 v -2.828125 z"/>
 <circle style="fill:#f0c550" cx="5" cy="5" r="5"/>
 <circle style="fill:#f4f4f7" cx="4" cy="4" r="2"/>
</svg>
