<svg xmlns="http://www.w3.org/2000/svg" width="16" height="16" version="1.1">
 <ellipse style="fill:#17191e" cx="8.982" cy="7.989" rx="4.289" ry="5.458"/>
 <path style="fill:#4f4f4f" d="M 9.5 0 C 5.910149 0 3 3.5817219 3 8 C 3.0000001 12.418278 5.9101491 16 9.5 16 C 13.089851 16 16 12.418278 16 8 C 16 3.5817221 13.089851 2.7189401e-07 9.5 0 z M 9.5 3 C 11.09438 3.0000001 13 4.8990449 13 8 C 13 11.100955 11.09438 13 9.5 13 C 7.9056203 13 6.0000001 11.100955 6 8 C 6 4.8990446 7.9056201 3 9.5 3 z"/>
 <path style="fill:none;stroke:#b2bfd9;stroke-width:3;stroke-linecap:round;stroke-linejoin:round" d="M 1.515,4.5 4.5,1.52 v 12.959"/>
</svg>
