<svg width="16" height="16" version="1.1" xmlns="http://www.w3.org/2000/svg">
 <defs>
  <style id="current-color-scheme" type="text/css">.ColorScheme-Text { color:#444444; } .ColorScheme-Highlight { color:#4285f4; } .ColorScheme-NeutralText { color:#ff9800; } .ColorScheme-PositiveText { color:#4caf50; } .ColorScheme-NegativeText { color:#f44336; }</style>
 </defs>
 <path d="m8 4a4 4 0 0 0-4 4 4 4 0 0 0 4 4 4 4 0 0 0 4-4 4 4 0 0 0-4-4zm0 3a1 1 0 0 1 1 1 1 1 0 0 1-1 1 1 1 0 0 1-1-1 1 1 0 0 1 1-1z" style="fill:#a28039"/>
 <path d="m8 0a7.9999997 7.9999997 0 0 0-8 8 7.9999997 7.9999997 0 0 0 8 8 7.9999997 7.9999997 0 0 0 8-8 7.9999997 7.9999997 0 0 0-8-8zm0 5a3 3 0 0 1 3 3 3 3 0 0 1-3 3 3 3 0 0 1-3-3 3 3 0 0 1 3-3z" style="fill:currentColor" class="ColorScheme-Text"/>
 <path d="M 8 1 A 7 7 0 0 0 1 8 A 7 7 0 0 0 2.2714844 12.017578 L 4.03125 7.3242188 A 0.50005 0.50005 0 0 1 4.0761719 7.2324219 A 4 4 0 0 1 8 4 A 4 4 0 0 1 11.710938 6.5136719 L 12.992188 3.1015625 A 7 7 0 0 0 8 1 z M 13.728516 3.9824219 L 11.970703 8.6679688 A 0.50005 0.50005 0 0 1 11.923828 8.7734375 A 4 4 0 0 1 8 12 A 4 4 0 0 1 4.2890625 9.4882812 L 3.0097656 12.900391 A 7 7 0 0 0 8 15 A 7 7 0 0 0 15 8 A 7 7 0 0 0 13.728516 3.9824219 z " style="fill:#b2bfd9"/>
</svg>
