<svg xmlns="http://www.w3.org/2000/svg" width="16" height="16" version="1.1">
 <path style="fill:#e6e6e6;fill-rule:evenodd" d="M 7.9999997,1.3916411 C 6.0254163,1.9875677 4.0514163,2.5852965 2.076833,3.1824248 2.2214996,7.616432 3.326333,13.024828 7.9999997,14.608359 12.723833,13.073487 13.7225,7.5689741 13.923166,3.1824248 11.948583,2.5846957 9.974583,1.9869669 7.9999997,1.3916411"/>
 <path style="fill:#ff9744;fill-rule:evenodd" d="M 7.9999997,4e-8 C 5.6666671,0.72123032 3.333333,1.4449223 1,2.1679998 1.170917,7.536 2.4764167,14.083693 7.9999997,16 13.5825,14.141538 14.763167,7.4781535 15,2.1679998 12.666667,1.4443075 10.333333,0.72061516 7.9999997,4e-8 Z"/>
 <path style="fill:#ffd764;fill-rule:evenodd" d="M 7.9999997,4e-8 C 5.6666671,0.72123032 3.333333,1.4449223 1,2.1679998 1.170917,7.536 2.4764167,14.083693 7.9999997,16 Z"/>
 <path style="fill:#f4f4f7;fill-rule:evenodd" d="M 8 2.09375 C 6.3806607 2.5945587 4.7607035 3.0955255 3.140625 3.5976562 C 3.3027356 5.7030223 3.622433 7.8483163 4.3457031 9.6230469 C 5.130377 11.548447 6.3134339 12.868152 8.0097656 13.691406 C 9.709885 12.888205 10.871925 11.577255 11.646484 9.6367188 C 12.357659 7.854982 12.674874 5.7005533 12.851562 3.5957031 C 11.234258 3.0941956 9.6165672 2.593347 8 2.09375 z"/>
 <path style="fill:#ec3e3e" d="M 8 2.09375 C 7.4019365 2.2787115 6.8032852 2.4633822 6.2050781 2.6484375 L 7 3.4472656 L 7 6.015625 L 4.5644531 6.015625 L 4.3164062 6.015625 L 3.2773438 4.9980469 C 3.4138177 6.1741493 3.6214102 7.3280168 3.9335938 8.4003906 L 4.3164062 8 L 4.5644531 8 L 7 8 L 7 12.453125 L 6.6386719 12.820312 C 7.0542771 13.154407 7.5069635 13.447389 8.0097656 13.691406 C 8.5131424 13.453592 8.9640091 13.165938 9.3769531 12.835938 L 9 12.453125 L 9 8 L 11.425781 8 L 11.683594 8 L 12.058594 8.390625 C 12.362303 7.323684 12.567333 6.1779157 12.707031 5.0117188 L 11.683594 6.015625 L 11.425781 6.015625 L 9 6.015625 L 9 3.4472656 L 9.7949219 2.6484375 C 9.1967059 2.4633189 8.5979849 2.2785561 8 2.09375 z"/>
</svg>
