<svg xmlns="http://www.w3.org/2000/svg" width="16" height="16" version="1">
 <path style="fill:#0ca9e3" d="M 5.4546876,0 0,5.4539064 V 15.2 C 0,15.6432 0.3568,16 0.8,16 H 8 10.545312 L 16,10.546094 V 0.8 C 16,0.3568 15.6432,0 15.2,0 H 8 Z"/>
 <path style="fill:#f4f4f7" d="M 7.6363636,4 C 5.6218182,4 4,5.6218182 4,7.6363636 V 8.3636364 C 4,10.378182 5.6218182,12 7.6363636,12 H 11 V 10 H 7.4361818 C 6.5926244,10 6,9.4072847 6,8.5637273 V 7.4362727 C 6,6.5927153 6.592634,6.0040177 7.4361818,6 H 11 V 4 Z"/>
</svg>
