<svg xmlns="http://www.w3.org/2000/svg" width="16" height="16" version="1">
 <path style="fill:#b2bfd9" d="M 16,15.2 V 0.8 C 16,0.3568 15.6432,0 15.2,0 H 0.8 C 0.3568,0 0,0.3568 0,0.8 v 13.661167 0.593061 c 0,0.4432 0.45758398,0.550834 0.90060364,0.563478 L 12.200314,15.6 12.895686,16 H 15.2 c 0.4432,0 0.8,-0.3568 0.8,-0.8 z"/>
 <path style="fill:#239623" d="M 3,0 V 9 H 0 v 1 h 6 v 5 H 0 v 0.2 C 0,15.6432 0.3568,16 0.8,16 H 12 13 V 6 h 3 V 5 h -4 v 1 9 H 7 V 10 9 H 4 V 0 Z m 3,0 v 7 h 1 2 v 6 h 1 V 3 h 6 V 2 H 9 V 3 6 H 7 V 0 Z"/>
</svg>
