<svg xmlns="http://www.w3.org/2000/svg" width="16" height="16" version="1">
 <path style="fill:#2c5771" d="M 16,6 C 16,9.3137084 12.642135,16 8.5,16 4.3578645,16 1,9.3137084 1,6 1,2.6862916 2.954106,0 8.5,0 14.045894,0 16,2.6862916 16,6 Z"/>
 <path style="fill:#f4f4f7" d="M 7.5536211,13.790838 C 7.5054462,13.675798 7.4397716,13.458906 7.4076771,13.308855 7.3006875,12.808657 7.3467618,12.857532 6.9561691,12.829912 6.2411624,12.779349 5.7326356,12.473326 5.3584251,11.868409 4.8438681,11.036617 4.819362,9.8466044 5.2870501,8.4022883 5.3812768,8.111294 5.4527371,7.8672577 5.4458515,7.8599852 5.4389569,7.8527123 5.3040784,7.80977 5.1461023,7.7645557 4.3767592,7.5443668 3.7121341,7.036478 3.3509641,6.3927667 3.088341,5.9246951 2.9527768,5.229263 3.0149473,4.6690283 3.0890038,4.0016946 3.3029443,3.5455215 3.7738743,3.0508206 4.1640998,2.6408963 4.5182659,2.4045795 5.0074779,2.2277 5.9483641,1.8875115 7.016596,1.9300313 7.9554032,2.3450384 8.476635,2.5754534 9.112673,3.0409167 9.416315,3.4141578 c 0.08157,0.100266 0.170957,0.1823032 0.19864,0.1823032 0.02768,0 0.21867,-0.089154 0.424414,-0.1981187 1.054939,-0.5587113 2.217742,-0.9295383 2.914752,-0.9295383 0.246835,0 0.579542,0.097417 0.736951,0.21578 0.251426,0.1890605 0.368626,0.6199123 0.279032,1.025791 -0.06454,0.2924348 -0.28845,0.721104 -0.537871,1.0298035 C 12.500844,5.8929083 10.237097,7.16672 8.2862858,7.6358081 7.893107,7.730351 7.0663404,7.8729032 6.7706458,7.8971363 6.6594441,7.9062521 6.6414836,7.925375 6.5393445,8.1434621 6.3799703,8.4837517 6.1637424,9.204713 6.0621553,9.7345388 5.9052646,10.552795 5.9132116,11.278922 6.0843433,11.761929 c 0.091844,0.259225 0.3597453,0.569981 0.5936397,0.688599 0.208848,0.105924 0.5314552,0.17563 0.5630359,0.121671 0.01155,-0.01974 0.018014,-0.30275 0.014373,-0.628923 C 7.2401196,10.573804 7.5973998,9.585143 8.4012645,8.7725283 8.873847,8.2948001 9.351166,8.0861017 9.905259,8.114933 10.527087,8.147295 10.911022,8.5057618 11.007596,9.1441665 11.122553,9.9040676 10.77081,10.722568 9.981132,11.532746 9.336355,12.194263 8.6203921,12.606788 7.8384783,12.76731 7.7153301,12.79259 7.5935656,12.83 7.5678861,12.85045 7.5055711,12.90007 7.5396355,13.215916 7.6511123,13.622155 7.7487139,13.977817 7.7508907,14 7.6881785,14 7.6623444,14 7.6017955,13.905872 7.5536211,13.790838 Z m 0.5372714,-1.29794 C 8.740118,12.318984 9.302894,11.975679 9.84284,11.424175 c 0.651075,-0.665011 0.95803,-1.291737 0.95803,-1.9560582 0,-0.4208315 -0.131748,-0.7098815 -0.396133,-0.8691043 C 10.221342,8.4885645 10.088632,8.4668813 9.847587,8.5079785 9.522552,8.5633945 9.184005,8.7636793 8.876547,9.0824452 8.2992475,9.6809758 7.8303619,10.581332 7.6182638,11.498602 c -0.088508,0.382774 -0.1500529,0.972831 -0.1088206,1.043283 0.03652,0.0624 0.2248558,0.04654 0.5814494,-0.04898 z M 8.4757397,7.0357622 C 10.221889,6.7559042 12.036585,5.8993973 13.041544,4.8807787 13.587663,4.3272375 13.833209,3.8778572 13.831393,3.4352603 13.830093,3.0949253 13.611696,2.773321 13.325008,2.6892473 12.999859,2.5938943 12.452881,2.6614333 11.854407,2.8708335 11.288598,3.0688035 9.905264,3.8413588 9.905264,3.959378 c 0,0.020918 0.114175,0.2383688 0.25372,0.4832297 0.344495,0.6044871 0.44286,0.8171296 0.417315,0.9021321 -0.01161,0.038785 -0.03427,0.070522 -0.05025,0.070522 -0.05233,0 -0.186218,-0.1961073 -0.431151,-0.6315672 C 9.962367,4.54808 9.809975,4.2989818 9.756243,4.2301425 l -0.0977,-0.125163 -0.10915,0.080469 C 8.9670043,4.6147935 7.983978,5.5991248 7.5975268,6.1399018 7.3572166,6.4761787 7.0117718,7.0422062 7.0117718,7.0996897 c 0,0.050766 1.028582,0.00586 1.4639699,-0.063928 z M 6.2488166,6.6188 C 7.0659786,5.503154 7.9312028,4.7044643 9.31337,3.7899062 9.416052,3.7219626 9.403475,3.705836 8.9514613,3.325934 8.3544546,2.8241685 7.866718,2.5571415 7.2481791,2.3934143 6.8410819,2.285656 6.007874,2.2576108 5.5755305,2.337112 4.5574714,2.5243193 3.721664,3.167303 3.4431676,3.9775292 3.0916018,5.0003372 3.5690759,6.1007051 4.600525,6.6447285 4.9537068,6.8310088 5.5970233,7.0435155 5.8257062,7.0494418 5.9209799,7.0518847 5.9626342,7.0095161 6.2488166,6.6188 Z"/>
</svg>
