<svg xmlns="http://www.w3.org/2000/svg" width="16" height="16" version="1.1">
 <circle style="fill:#00d8d1" cx="8" cy="8" r="8"/>
 <path style="fill:#4f4f4f;fill-rule:evenodd" d="m 12.171942,4.8472434 v 0 c 1.104077,1.1247045 1.104077,2.948211 0,4.0729158 L 8.3809949,12.781932 c -0.2308075,0.23512 -0.6050207,0.23512 -0.8358286,1e-6 L 3.9648636,9.1347387 8.1737245,4.8472434 c 1.1040771,-1.1247048 2.8941395,-1.1247048 3.9982175,0 z"/>
 <path style="fill:#f4f4f7;fill-rule:evenodd" d="m 7.8997152,4.8563644 3.7127738,3.7821391 c 0.230807,0.2351196 0.230807,0.6163243 0,0.8514443 L 8.3892602,12.773396 c -0.2308078,0.23512 -0.605021,0.23512 -0.8358285,0 L 3.8406582,8.9912571 c -1.1208776,-1.1418192 -1.1208775,-2.9930735 0,-4.1348927 v 0 c 1.1208778,-1.1418192 2.9381796,-1.1418192 4.059057,0 z"/>
 <rect style="fill:#606060" width="3.423" height=".426" x="11.53" y="-.93" transform="matrix(0.70053249,0.71362051,-0.70053249,0.71362051,0,0)"/>
 <rect style="fill:none;stroke:#4f4f4f;stroke-width:0.41776818" width="3.006" height=".298" x="11.74" y="-.72" transform="matrix(0.70053249,0.71362051,-0.70053249,0.71362051,0,0)"/>
 <rect style="fill:#606060" width="3.423" height=".426" x="11.54" y=".35" transform="matrix(0.70053249,0.71362051,-0.70053249,0.71362051,0,0)"/>
 <rect style="fill:none;stroke:#4f4f4f;stroke-width:0.41776818" width="3.006" height=".298" x="11.74" y=".56" transform="matrix(0.70053249,0.71362051,-0.70053249,0.71362051,0,0)"/>
 <path style="fill:#4f4f4f;fill-rule:evenodd" d="m 6.2461099,8.2072926 v 0 c 0.3434907,0.3499082 0.3434907,0.9172214 0,1.2671295 L 5.2862164,10.452249 4.0423264,9.18512 5.00222,8.2072926 c 0.3434907,-0.3499081 0.9003992,-0.3499081 1.2438899,0 z"/>
 <path style="fill:#4f4f4f;fill-rule:evenodd" d="m 7.1642188,9.149805 v 0 c 0.3271343,0.3332459 0.3271343,0.873544 0,1.20679 l -0.9895099,1.007997 -1.1846568,-1.20679 0.98951,-1.007997 c 0.3271343,-0.3332458 0.8575232,-0.3332458 1.1846567,0 z"/>
 <path style="fill:#4f4f4f;fill-rule:evenodd" d="m 8.052712,10.061913 v 0 c 0.327134,0.333247 0.327134,0.873545 0,1.20679 l -0.9895099,1.007998 -1.1846572,-1.206791 0.98951,-1.007996 c 0.3271343,-0.3332462 0.8575232,-0.3332462 1.1846571,-10e-7 z"/>
 <path style="fill:#4f4f4f;fill-rule:evenodd" d="m 8.9708209,11.004426 v 0 c 0.3434904,0.349908 0.3434907,0.917221 0,1.267129 L 8.4288417,12.82366 c -0.2308079,0.23512 -0.6050211,0.23512 -0.8358286,0 L 6.7670374,11.982253 7.726931,11.004426 c 0.3434907,-0.349909 0.9003992,-0.349909 1.2438899,0 z"/>
 <path style="fill:#4f4f4f;fill-rule:evenodd" d="M 9.2125916,5.8897887 8.061331,7.0625582 C 7.4431692,7.6922691 6.4779596,7.7299895 5.9054753,7.1468097 L 8.1760167,4.8338475"/>
</svg>
