<svg xmlns="http://www.w3.org/2000/svg" width="16" height="16" version="1.1">
 <rect style="fill:#00d093;stroke:#4285f4;stroke-width:0;stroke-linecap:round;stroke-linejoin:round" width="16" height="14" x="0" y="1" rx=".974" ry=".925"/>
 <rect style="opacity:0.3" width="12" height="2" x="2" y="12" rx=".375"/>
 <rect style="fill:#f4f4f7" width="2" height="2" x="2" y="3" rx=".333"/>
 <rect style="fill:#f4f4f7" width="2" height="2" x="2" y="7" rx=".333"/>
</svg>
