<svg xmlns="http://www.w3.org/2000/svg" width="16" height="16" version="1">
 <circle style="fill:#b2bfd9" cx="3.091" cy="7.182" r="3.091"/>
 <circle style="fill:#b2bfd9" cx="6" cy="4.773" r="3.818"/>
 <circle style="fill:#b2bfd9" cx="10" cy="5.764" r="3.818"/>
 <circle style="fill:#b2bfd9" cx="12.909" cy="7.182" r="3.091"/>
 <rect style="fill:#b2bfd9" width="10.182" height="4.364" x="2.91" y="5.91"/>
 <rect style="fill:#29565b" width="14" height="2" x="1" y="7"/>
 <rect style="fill:#4cb009" width="1" height="1" x="1" y="5" rx=".375" ry=".375"/>
 <path style="fill:#2995ff" d="m 2.0000001,8 v 6.272727 C 2.0000001,14.675636 2.3345002,15 2.7500002,15 H 13.25 C 13.6655,15 14,14.675636 14,14.272727 V 8 Z"/>
 <rect style="opacity:0.5;fill:#f4f4f7" width="7" height="1" x="4" y="13"/>
 <rect style="opacity:0.5;fill:#f4f4f7" width="6" height="1" x="4" y="11"/>
 <rect style="opacity:0.5;fill:#f4f4f7" width="8" height="1" x="4" y="9"/>
</svg>
