<svg xmlns="http://www.w3.org/2000/svg" width="16" height="16" version="1.1">
 <g transform="translate(0,-1036.3622)">
  <rect style="fill:#0fbbaf;stroke:#4285f4;stroke-width:0;stroke-linecap:round;stroke-linejoin:round" width="16" height="14" x="0" y="1037.36" rx=".974" ry=".925"/>
  <path style="fill:#f4f4f7" d="m 10.912921,1040.1679 c -0.10199,0 -0.200558,0.048 -0.277439,0.1271 -0.397424,0.4058 -1.8188279,1.8325 -2.5780356,2.5788 l 2.1304756,2.1242 -2.5470313,2.5859 c -5.076e-4,-3e-4 -0.00426,0 -0.00477,0 v -0.01 c -1.0416322,-0.9885 -2.0698687,-1.9978 -3.110654,-2.9984 l -0.00953,-0.01 -0.011128,-0.01 c -0.5152054,-0.4297 -0.8131187,-1.1279 -0.7059191,-1.775 l 8.2e-4,-0.01 0.0016,-0.01 c 0.1119233,-0.855 0.9668531,-1.605 1.8283945,-1.5868 0.1670101,0 0.3355318,0.035 0.4634578,0.061 0.4072909,0.088 0.7851439,0.4548 1.1343991,0.8085 -7.028e-4,0 -8.98e-4,0 -0.0016,0 l 0.1907891,0.1892 0.496051,0.4937 1.0000517,-1.0001 c 0.1535876,-0.1536 0.2384424,-0.4477 0,-0.6837 -0.1219783,-0.122 -0.2560491,-0.1596 -0.3783976,-0.1477 -0.1223536,0.012 -0.2329926,0.072 -0.3076476,0.1477 -0.1572455,0.1573 -0.3243474,0.3245 -0.4650476,0.4651 -0.3600627,-0.3588 -0.91764,-0.901 -1.5008729,-1.0279 -0.208274,-0.053 -0.4228845,-0.08 -0.6375528,-0.081 -0.00124,0 -0.00234,0 -0.00398,0 -0.00204,0 -0.00368,0 -0.00556,0 v 0 c -1.2916174,-0.027 -2.4114195,0.9892 -2.5812149,2.2489 -0.1558423,0.953 0.2605077,1.899 0.9746137,2.4946 l -0.020666,-0.019 c 1.0439846,1.0036 2.168026,2.0847 3.2235374,3.086 0.1486585,0.1296 0.2697279,0.151 0.4260954,0.151 v 0 c 0.1205739,0 0.2577418,-0.04 0.3982716,-0.1741 l 2.3562445,-2.3617 c 0,0 1.57822,-1.573 2.357037,-2.3468 0.166198,-0.1663 0.178122,-0.399 0.01193,-0.5652 -0.166156,-0.1661 -0.403908,-0.1604 -0.569982,0.01 l -1.683711,1.6837 c -0.04411,0.01 -0.137276,-0.088 -0.132758,-0.1424 l 2.48741,-2.4882 c 0.166201,-0.1662 0.178569,-0.4037 0.01192,-0.57 -0.166198,-0.1662 -0.387887,-0.143 -0.554084,0.024 l -1.969894,1.9708 c -0.05156,0.01 -0.163654,-0.089 -0.149453,-0.1542 l 2.331599,-2.3325 c 0.133714,-0.1429 0.213422,-0.3971 0.04213,-0.5763 -0.166196,-0.1662 -0.42127,-0.155 -0.587471,0.012 l -2.4055303,2.4065 c -0.057707,0 -0.1457396,-0.081 -0.1446815,-0.1407 l 1.7608138,-1.7589 c 0.166034,-0.166 0.196267,-0.3982 0.01511,-0.5699 -0.09058,-0.086 -0.196118,-0.1231 -0.298107,-0.1192 z"/>
 </g>
</svg>
