<svg xmlns="http://www.w3.org/2000/svg" width="16" height="16" version="1.1">
 <path style="fill:#b2bfd9" d="M 7.7685124,5.4985883e-4 C 6.721681,0.02210336 5.6700627,0.18591213 4.755831,0.47567122 3.8202205,0.77220613 2.959964,1.1997748 2.1388352,1.7767848 1.8029635,2.0128025 1.5438592,2.2937188 1.4142154,2.562923 1.2991786,2.801798 1.1291998,3.8386341 1.0555245,4.7462935 c -0.230492,2.8395441 0.267139,5.7271925 1.2972384,7.5261405 0.1283172,0.22409 0.6278872,0.995865 0.8195204,1.265949 0.7488745,1.055454 1.7522872,1.797668 2.9290405,2.166178 0.4823988,0.151068 0.9353716,0.234518 1.5883732,0.293044 0.052724,0.0047 0.1880487,0.0014 0.3104364,-8.01e-4 V 0.0013313 C 7.9228597,0.00134902 7.845936,-0.00104531 7.7685124,5.5109915e-4 Z M 8.0001334,0.0013313 C 8.2711275,0.0012692 8.5417712,0.00771053 8.8083943,0.02711909 8.5417712,0.00771037 8.2711275,0.0012692 8.0001334,0.0013313 Z m 0,15.9954917 c 0.2263853,-0.004 0.4846681,-0.01375 0.6281113,-0.03047 -0.1434432,0.01673 -0.401726,0.02647 -0.6281113,0.03047 z M 14.544231,2.4863411 c 0.09819,0.1719535 0.140312,0.3612422 0.226795,0.8689719 -0.08648,-0.5077297 -0.128497,-0.6970184 -0.226795,-0.8689719 z m 0.367537,1.9012668 c 0.07157,0.6951916 0.09901,1.4010031 0.08444,2.0989738 0.0146,-0.6979707 -0.0129,-1.4037822 -0.08444,-2.0989738 z m -2.91939,10.0947661 c -0.208897,0.194266 -0.424862,0.375826 -0.656259,0.532167 0.231552,-0.156444 0.447237,-0.337748 0.656259,-0.532167 z"/>
 <path style="fill:#9c9c9c" d="M 8.0001334,0.0013313 V 15.996823 c 0.2263853,-0.004 0.4846681,-0.01375 0.6281113,-0.03047 1.6790953,-0.19581 2.9577413,-0.877132 3.9544453,-2.10757 0.183141,-0.226088 0.29789,-0.389942 0.645001,-0.919766 0.456954,-0.697487 0.647501,-1.052925 0.890293,-1.659799 C 14.983687,9.1153315 15.234163,6.0743123 14.771026,3.3553138 14.655715,2.6783409 14.619146,2.5673009 14.423595,2.3089528 14.227127,2.0493933 14.035473,1.8880226 13.541344,1.565012 12.161238,0.66284111 10.608356,0.15814675 8.8083943,0.02711913 8.5417712,0.00771037 8.2711275,0.0012692 8.0001334,0.0013313 Z"/>
 <path style="fill:#17191e" d="M 7.7321304,13.982397 C 7.4805187,13.950557 7.1840286,13.847049 6.9211707,13.699279 6.7776274,13.618584 6.7476209,13.579201 6.7728929,13.50467 c 0.014486,-0.04273 0.025917,-0.04839 0.097663,-0.04839 0.044691,0 0.254935,0.02163 0.4672094,0.04806 0.7915064,0.09856 1.1253853,0.05871 2.0143771,-0.240394 0.2344446,-0.07888 0.2751798,-0.08121 0.2943275,-0.01679 0.019786,0.06655 -0.3582203,0.391464 -0.6421468,0.551949 -0.2940685,0.166219 -0.8145442,0.241209 -1.2721931,0.183298 z"/>
 <path style="fill:#17191e" d="m 7.6121448,10.002802 c -0.018475,-0.00762 -0.03047,8.51e-4 -0.051779,0.01902 -0.157486,0.134227 -0.5189864,0.782672 -0.551985,0.990089 -0.035205,0.22128 0.04332,0.499606 0.1826919,0.643709 0.068032,0.07034 0.4772211,0.278134 0.6262351,0.31835 0.06568,0.01772 0.1242725,0.02506 0.182692,0.02603 0.05842,-9.51e-4 0.117013,-0.0082 0.1826925,-0.02603 0.149014,-0.04021 0.5582035,-0.248009 0.626235,-0.31835 0.139374,-0.144103 0.2178965,-0.422429 0.1826919,-0.643709 -0.033,-0.207417 -0.3944989,-0.855862 -0.5519849,-0.990089 -0.02131,-0.01814 -0.033305,-0.026655 -0.051779,-0.01902 -0.018475,0.0076 -0.043525,0.03054 -0.090858,0.07708 -0.097127,0.0955 -0.1798601,0.129399 -0.2969975,0.123131 -0.1171368,0.0062 -0.19987,-0.02763 -0.296997,-0.123131 -0.047335,-0.04655 -0.072382,-0.06944 -0.090859,-0.07708 z"/>
 <path style="fill:#17191e" d="M 3.9669811,7.0003977 C 3.6636708,7.0073755 3.4244708,7.0553886 3.2733688,7.1616821 3.1760606,7.2301344 3.1072682,7.347624 3.0441902,7.55406 2.9671111,7.8063084 2.9887527,7.9951018 3.1257917,8.2505507 3.3359471,8.6422979 3.8103433,8.9223075 4.3758566,8.989569 4.3919645,8.991489 4.4178498,8.996979 4.4340192,9 H 6.8942166 C 6.9526254,8.984828 6.9779266,8.961442 6.9931797,8.918957 7.0191102,8.8467281 6.9719032,8.7133917 6.83779,8.4792363 6.6651366,8.1777941 6.4987902,7.960501 6.2509539,7.7153432 5.8487232,7.3174607 5.5278292,7.1498511 5.0425578,7.0830448 4.6369697,7.027209 4.270292,6.9934179 3.9669811,7.0003969 Z"/>
 <path style="opacity:0.3" d="M 9.565,6.6436771 V 9.4443925 H 9.976771 V 6.6436771 Z m 0.823541,0 v 2.8007154 h 0.411771 V 6.6436771 Z m 0.823542,0 v 2.8007154 h 0.41177 V 6.6436771 Z m 0.823541,0 v 2.8007154 h 0.411771 V 6.6436771 Z"/>
 <rect style="fill:#17191e" width="4" height="2.001" x="9" y="7" rx=".667" ry=".6"/>
 <path style="fill:#f4f4f7" d="m 10.333333,7.3995912 v 1.2003066 h 1.333334 V 7.3995912 Z m 0.222223,0.2000511 h 0.888889 v 0.8002044 h -0.888889 z"/>
 <rect style="fill:#f4f4f7" width=".444" height=".2" x="9.58" y="7.48"/>
 <rect style="fill:#f4f4f7" width=".311" height=".2" x="9.89" y="7.68"/>
 <rect style="fill:#f4f4f7" width=".444" height=".2" x="9.58" y="8.28"/>
 <rect style="fill:#f4f4f7" width=".311" height=".2" x="9.89" y="8.08"/>
 <rect style="fill:#f4f4f7" width=".444" height=".2" x="-12.42" y="7.48" transform="scale(-1,1)"/>
 <rect style="fill:#f4f4f7" width=".311" height=".2" x="-12.11" y="7.68" transform="scale(-1,1)"/>
 <rect style="fill:#f4f4f7" width=".444" height=".2" x="-12.42" y="8.28" transform="scale(-1,1)"/>
 <rect style="fill:#f4f4f7" width=".311" height=".2" x="-12.11" y="8.08" transform="scale(-1,1)"/>
 <rect style="fill:#f4f4f7" width=".622" height=".2" x="10.69" y="7.7"/>
 <rect style="fill:#f4f4f7" width=".622" height=".2" x="10.69" y="8.1"/>
 <rect style="fill:#f4f4f7" width=".4" height=".222" x="7.78" y="-11.11" transform="rotate(90)"/>
</svg>
