<svg xmlns="http://www.w3.org/2000/svg" width="16" height="16" version="1.1">
 <path style="fill:#4cdb5d" d="M 2.5694448,2.0000565 C 2.4237953,2.0002154 2.2845459,2.0596085 2.184028,2.1644459 L 0.14722225,4.2863123 C 0.05268846,4.3849954 -2.9750476e-5,4.516083 7.8095238e-8,4.6523888 L 1.5678426,8.6903213 C 1.7602371,9.1858275 0.74600975,12.65306 1.0509948,12.804734 1.3559799,12.956406 2.6666667,12.125 2.6666667,12.125 L 12.571429,12.5 c 0.145649,-1.59e-4 0.661387,-0.270162 0.761904,-0.375 l 2.519445,-0.411375 C 15.947312,11.614941 16.00003,11.483853 16,11.347547 V 3.2378119 C 16,2.707345 15.654291,2.296088 15.349306,2.1444153 15.04432,1.9927423 14.755556,2.0000565 14.755556,2.0000565 Z"/>
 <path style="fill:#31ae3e" d="M 0.02343775,4.5043526 C 0.00941033,4.552218 -1.0626667e-5,4.6018496 4.2095238e-7,4.6525594 v 8.1093326 c 0,0.530466 0.34558308904762,0.942301 0.65056814904762,1.093974 0.30498511,0.151673 0.59375003,0.144071 0.59375003,0.144071 H 13.430398 c 0.14565,-1.59e-4 0.285135,-0.05991 0.385653,-0.164751 l 2.036932,-2.121772 c 0.05306,-0.05539 0.09099,-0.121329 0.115767,-0.192325 z"/>
 <path style="fill:#f4f4f7" d="M 6 5 L 6 11 L 6.5722656 11 L 6.8574219 11 L 7.8574219 11 L 8 11 L 8.1425781 11 C 9.1714352 11 10 10.034318 10 8.8339844 L 10 7.1660156 C 10 5.9656823 9.1714352 5 8.1425781 5 L 8 5 L 6.8574219 5 L 6 5 z M 7 6 L 7.875 6 L 8 6 L 8.125 6 C 8.6227229 6 9 6.502385 9 7.1660156 L 9 8.8339844 C 9 9.497615 8.6227229 10 8.125 10 L 8 10 L 7.875 10 L 7 10 L 7 6 z"/>
</svg>
