<svg xmlns="http://www.w3.org/2000/svg" width="16" height="16" version="1.1">
 <path style="fill:#7289da" d="M 2.6152,0 C 1.7203,0 1,0.72031 1,1.6152 v 10.77 c 0,0.895 0.7203,1.615 1.6152,1.615 H 12 l 3,2 V 1.6152 C 15,0.72051 14.28,2e-4 13.385,2e-4 Z"/>
 <path style="fill:#f4f4f7" d="m 6.8596953,3 c 0,0 -0.3982063,-0.028653 -1.8789062,0.9980469 C 3.5000891,5.0247469 3,6.4852281 3,9.5488281 3,11.000028 2.8642188,10.933 5.1367188,11 c 0,0 0.3809531,-0.422109 0.6894531,-0.787109 C 4.5202719,9.8478906 5.0253906,9.0878906 5.0253906,9.0878906 6.3111013,9.82395 6.999168,9.9997576 7.9980469,10 H 8 c 0.9988819,-2.417e-4 1.6869432,-0.1760486 2.972656,-0.9121094 0,0 0.505119,0.76 -0.800781,1.1250004 0.3085,0.365 0.689453,0.787109 0.689453,0.787109 2.2725,-0.067 2.136719,2.8e-5 2.136719,-1.4511719 0,-3.0636 -0.500136,-4.5240812 -1.980836,-5.5507812 C 9.5365109,2.9713469 9.1383048,3 9.1383048,3 V 3.00391 L 9.0347891,3.1210938 c 0.4629,0.5172329 1.3945319,1.2460937 1.3945319,1.2460937 C 9.4996329,4 9.4584488,3.4164527 8,3.40625 c -8.052e-4,-3.6e-6 -0.00115,3.4e-6 -0.00195,0 C 6.3518943,3.4443092 6.5003203,4 5.5706328,4.3671875 c 0,0 0.9296781,-0.7288608 1.3925781,-1.2460937 L 6.8596953,3.0039062 Z M 6,6 C 6.5587,6 7.0097,6.4456 7,7 7,7.5546 6.5587,8 6,8 5.4511,8 5,7.5546 5,7 5,6.4456 5.4413,6 6,6 Z m 3.9980469,0 c 0.5587001,0 1.0000001,0.4456 1.0000001,1 0,0.5546 -0.4511,1 -1.0000001,1 -0.5587,0 -1,-0.4454 -1,-1 -0.0097,-0.5544 0.4413,-1 1,-1 z"/>
</svg>
