<svg xmlns="http://www.w3.org/2000/svg" width="16" height="16" version="1">
 <path style="fill:#ff7f1c" d="m 4.8,0 h 6.4 C 13.8592,0 16,2.1408 16,4.8 v 6.4 C 16,13.8592 13.8592,16 11.2,16 H 6.252258 L 5.0771384,15.445723 C 2.6720548,14.3113 0.56722616,13.980087 0.67744968,11.323173 L 0.92379504,5.38507 C 1.019091,3.08798 1.6002101,0.5893626 3.7521524,0.11376412 4.0892404,0.03926468 4.439866,0 4.8,0 Z"/>
 <path style="fill:#3d3d3d" d="M 3.9632812,0.07656248 C 1.7065463,0.47094224 0,2.4269416 0,4.8 v 6.4 C 0,13.8592 2.1408,16 4.8,16 h 1.6742188 c 0.25512,-0.986795 0.3663788,-2.367672 0.3031248,-3.270188 -0.00589,-0.08407 0.1017272,-0.327552 0.3703128,-0.580469 0.268588,-0.252917 0.67907,-0.525438 1.2117188,-0.744531 1.0652972,-0.438187 2.6174538,-0.666408 4.5273438,-0.148438 0.883355,0.239691 1.520233,0.38704 1.972656,0.469531 0.452424,0.08249 0.710281,0.105579 0.8875,0.07109 0.04431,-0.0086 0.08541,-0.02092 0.126563,-0.04766 0.01339,-0.0087 0.02572,-0.02298 0.03828,-0.03594 0.0157,-0.08206 0.02601,-0.165706 0.0375,-0.249219 -0.01828,-0.0349 -0.04263,-0.06471 -0.06563,-0.08984 -0.09988,-0.109172 -0.248286,-0.20118 -0.411718,-0.2875 h -8e-4 C 15.343829,11.019668 14.954108,10.753689 14.428887,10.414188 13.903666,10.074687 13.22979,9.815944 12.478105,9.416532 10.974733,8.617708 9.3256912,7.8886288 7.754668,8.0587192 6.9068016,8.1506072 6.3013516,7.9836616 5.8929492,7.6899692 5.4845468,7.3962768 5.2640108,6.9718636 5.2038868,6.514188 5.0836408,5.5988368 5.4592844,4.8190184 6.4531052,4.5929704 7.4359292,4.3693164 8.1901364,4.200194 8.8142528,3.9882828 9.1263308,3.8823272 9.369006,3.7723252 9.521284,3.6000016 9.597423,3.5138396 9.6485424,3.4037936 9.6486276,3.2859392 c 8.72e-5,-0.117854 -0.04711,-0.232224 -0.125,-0.3406252 -0.023084,-0.03234 -0.057811,-0.054462 -0.096875,-0.061719 0,0 -0.6286196,-0.1137436 -1.3703124,-0.385156 C 7.314748,2.2270271 6.6304272,1.7925625 6.2101368,1.2007828 c -0.00176,-0.00266 -0.00356,-0.00527 -0.00547,-0.00781 C 5.7922084,0.68050404 4.9603324,0.25257232 3.9632812,0.07656248 Z"/>
 <path style="fill:#e6e7e8" d="m 8.7368,10.034449 c -0.8005896,5.2e-4 -1.5898548,0.166384 -2.3547092,0.391103 0.1623684,0.547083 0.3034044,1.546917 0.4054884,2.252213 0.023524,-0.108464 0.1298964,-0.311904 0.3600844,-0.528663 0.268588,-0.252917 0.6793208,-0.525351 1.2119696,-0.744444 1.0652972,-0.438187 2.6174628,-0.666768 4.5273528,-0.148799 0.673229,0.182675 1.165805,0.298846 1.580146,0.386607 -1.124015,-0.287333 -2.152972,-0.858354 -3.26009,-1.20118 C 10.410494,10.182023 9.5764744,10.025014 8.7368,10.034449 Z m 6.317436,1.723999 c 0.245265,0.03964 0.42765,0.05764 0.563278,0.0517 -0.01302,-0.0033 -0.05017,-0.0058 -0.130817,-0.0054 -0.124533,-0.0059 -0.284253,-0.02519 -0.432461,-0.0463 z"/>
 <path style="fill:#f4f4f7" d="M 0,6.6359376 V 11.2 C 0,13.8592 2.1408,16 4.8,16 h 1.6109376 c 0.016152,-0.09356 0.03636,-0.184713 0.05,-0.279688 C 6.7328396,13.822514 6.6567612,11.64409 5.6593752,9.2273436 4.9630436,7.5406852 4.1427652,7.0319524 3.5078124,7.6257812 2.3186196,8.738252 0.75046676,6.8902676 0.12656248,6.6656248 0.08678232,6.651308 0.0421804,6.6459496 0,6.6359376 Z"/>
 <path style="fill:#727072" d="M 3.9656248,0.07656248 C 2.4404776,0.34233688 1.1697409,1.3214392 0.50390624,2.6617188 1.9144496,2.0297871 3.2867424,2.0123129 4.4617188,3.4585936 5.9989184,5.3834032 9.4409672,3.4053416 9.57521,3.0257812 9.566438,3.0100372 9.555638,2.9944212 9.545522,2.9789064 9.522042,2.9705704 9.375972,2.9183248 9.120522,2.8156248 8.8709444,2.7582252 8.5193888,2.6678404 8.0564596,2.4984376 7.3147672,2.2270254 6.6304468,1.7925609 6.210156,1.2007812 6.208396,1.1981212 6.206596,1.1955156 6.204688,1.1929688 5.7925452,0.68092364 4.9615872,0.253008 3.9656248,0.07656248 Z M 5.55,7.3618428 c 0.1534424,0.38361 0.563662,1.3185316 0.7554688,1.9132812 1.1698572,-0.4891804 3.1059228,-1.2041788 7.0187502,1.327344 2.61346,1.691262 2.816928,0.865257 2.196093,0.5375 -0.108846,-0.05752 -0.372818,-0.24134 -0.694531,-0.466406 -0.128369,-0.08437 -0.240694,-0.158926 -0.396093,-0.259376 C 13.904466,10.074686 13.229809,9.815161 12.478125,9.4157488 10.974752,8.6169248 9.3257108,7.8886272 7.7546876,8.0587176 6.9068216,8.1506056 6.3013712,7.98366 5.8929688,7.6899676 5.7599528,7.5943124 5.6487428,7.4834592 5.5546876,7.3634052 c -0.00152,-7.2e-4 -0.0032,-8.4e-4 -0.00469,-0.00156 z"/>
 <path style="fill:#ffbc3d" d="M 6.5281924,1.5508944 C 6.2675624,1.6590645 5.9211448,1.9275929 5.8309504,2.0845026 5.7412452,2.3057221 5.5907444,2.5061388 5.3692692,2.6082208 5.08639,2.7668572 4.7414868,2.7993856 4.4836684,3.0024708 4.2802936,3.18008 4.4123528,3.4741468 4.5650356,3.6367768 4.9365128,4.0437788 5.4594896,4.3117968 6.0035752,4.3924592 6.50731,4.4503756 6.8245088,4.2319284 7.3172324,4.1690364 7.9549244,4.0441532 8.6122904,3.9772304 9.2201504,3.736126 9.389018,3.665154 9.5485596,3.5461076 9.6359784,3.3836836 9.6436384,3.3517956 9.6489904,3.3191816 9.6490144,3.2856826 9.6491016,3.1678286 9.6019314,3.0533298 9.5240412,2.944929 9.5007972,2.912761 9.4659952,2.890847 9.4269392,2.883791 c 0,0 -0.028024,-0.00644 -0.029668,-0.00674 -0.078596,0.00156 -0.1730272,0.00308 -0.191056,0.0054 C 8.9648664,2.819636 8.7498084,2.7452104 8.5485324,2.6612672 8.3941856,2.6144736 8.229502,2.5614704 8.056282,2.4980828 7.4700912,2.2835746 6.9825968,1.9661973 6.5281924,1.5508944 Z"/>
 <circle style="fill:#f4f4f7" cx="4.5" cy="1.5" r=".5"/>
 <path style="fill:#3d3d3d" d="m 4.8476185,1.4654873 c 0,-0.1782223 -0.1442215,-0.3222223 -0.3222215,-0.3222223 -0.1786668,0 -0.32289,0.144 -0.32289,0.3222223 0,0.1782222 0.1442232,0.3228888 0.32289,0.3228888 0.178,0 0.3222215,-0.1446666 0.3222215,-0.3228888"/>
 <path style="fill:#f4f4f7" d="m 4.4172635,1.4077761 c 0,-0.026889 -0.021777,-0.049333 -0.048666,-0.049333 -0.027111,0 -0.048888,0.022445 -0.048888,0.049333 0,0.026889 0.021775,0.048667 0.048888,0.048667 0.026887,0 0.048666,-0.021778 0.048666,-0.048667"/>
 <path style="fill:#f4f4f7" d="M 4.960242,1.3930206 C 4.9853545,1.4947985 4.7613535,1.2865762 4.4922417,1.2865762 c -0.2697782,0 -0.4728898,0.2353333 -0.4455565,0.084889 0.029333,-0.1604445 0.2082233,-0.3640002 0.4568903,-0.3640002 0.2344447,0 0.408888,0.1915557 0.4566665,0.3855556"/>
 <path style="fill:#3d3d3d" d="m 4.6297612,3.278304 v 0 c 0.00674,-0.077336 0.082246,-0.1055696 0.1555928,-0.1074108 0.041736,-6.4e-4 0.087157,0.011048 0.127666,0.038976 0.2700612,0.1856672 0.83808,0.5109692 1.5672468,0.5097416 0.2025464,6.4e-4 0.4050928,-0.024856 0.5993532,-0.08286 0.6232904,-0.1908844 1.3684148,-0.2028532 1.5746436,-0.2028532 0.2062292,0 0.647228,0.052785 0.647228,0.052785 0.3345076,-0.00552 0.3357364,-0.24459 0.28295,-0.4557292 L 9.4549364,2.8775092 c 0,0 0.2301664,0.057695 0.2157416,0.3501596 C 9.642138,3.6257028 9.1673804,3.5130748 8.9132768,3.5057096 8.4096728,3.4912856 7.6808144,3.5634048 7.0526124,3.7162352 6.850066,3.776692 6.429322,3.7647232 6.429322,3.7647232 5.8545208,3.764424 5.2278876,3.4707244 5.1170996,3.4529248 4.9203856,3.3811128 4.680704,3.5011064 4.6297612,3.2783052"/>
 <path style="opacity:0.5;fill:#f4f4f7" d="m 6.498972,1.5230226 c -0.0961,0.041499 -0.1751284,0.074624 -0.1897072,0.074624 -0.1792212,0 -0.296954,0.1783861 -0.30524,0.2778179 -0.028848,0.3452495 0.2831916,0.579824 1.3109604,0.6666732 1.2913872,0.1086384 2.3126,0.8054288 2.2742408,0.5178744 l 0.00224,-4.8e-4 C 9.572578,3.0207684 9.550924,2.9823216 9.5240344,2.9448988 9.5007904,2.9127308 9.465988,2.8908176 9.4269328,2.8837612 c 0,0 -0.6289656,-0.114296 -1.3706584,-0.3857088 C 7.4571752,2.2788345 6.9544452,1.9519371 6.49898,1.523012 Z"/>
 <path style="fill:#3d3d3d" d="m 6.3056804,1.9839102 c -0.032528,0.059229 0.04143,0.073039 0.098205,0.104649 0.057081,0.031609 0.070277,0.042964 0.1126272,0.051557 0.040816,0.00798 0.00184,-0.077029 -0.044192,-0.1439308 -0.045112,-0.065674 -0.1334964,-0.071198 -0.1666404,-0.012275"/>
 <path style="fill:#3d3d3d" d="m 6.3163396,1.4921705 c -0.072721,0.00733 -0.149668,0.037758 -0.222076,0.087661 C 5.94945,1.6796363 5.810832,1.8604133 5.7170968,2.1282746 5.6319148,2.3718866 5.4456848,2.4964376 5.218552,2.5949008 4.9914216,2.693364 4.7300036,2.7559544 4.5226604,2.8803612 4.4186344,2.9427852 4.3473496,3.0259316 4.3131724,3.1213164 4.2789964,3.2167008 4.2819604,3.320632 4.3108524,3.4225108 4.3687856,3.6262676 4.5253952,3.8305444 4.7329752,4.0136604 5.1481356,4.379892 5.7733016,4.6648772 6.2919928,4.5468188 A 0.07677374,0.07677374 0 1 0 6.2578288,4.3971208 C 5.8205612,4.4966468 5.2207752,4.2392628 4.8345744,3.8985772 4.641472,3.7282344 4.5036024,3.537992 4.4587544,3.3802536 4.4363384,3.3013844 4.4360824,3.2329496 4.4573544,3.1734632 4.4786664,3.1139772 4.521704,3.060056 4.6016592,3.0120772 4.7779252,2.9063172 5.0359348,2.8416752 5.2795704,2.7360576 5.523206,2.6304396 5.7584796,2.4739072 5.86173,2.1786235 5.9469456,1.9352088 6.07072,1.7824256 6.1813908,1.7061531 6.2920592,1.6298808 6.3780976,1.6333526 6.4196476,1.6652447 A 0.0767868,0.0767868 0 1 0 6.5131524,1.5434184 C 6.45736,1.5005952 6.3889732,1.4848415 6.3162544,1.4921705 Z"/>
</svg>
