<svg width="16" height="16" version="1.1" xmlns="http://www.w3.org/2000/svg">
 <circle cx="8" cy="8" r="8" style="fill:#4f4f4f"/>
 <path d="m3 5v6h10v-6h-10zm1 1h8v4h-8v-4z" style="fill:#f4f4f7"/>
</svg>
