<svg width="16" height="16" version="1" xmlns="http://www.w3.org/2000/svg">
 <rect width="16" height="16" rx=".8" ry=".8" style="fill:#4f4f4f"/>
 <path d="m9.0480041 0.99999987c-1.0139813 0.61302993-2.0555431 1.1835215-3.0470939 1.8317574-0.363788 1.7381737-0.7162747 3.4788971-1.0569836 5.2217358 0.3823717 0.4854479 0.8017549 0.9405208 1.197782 1.4147881-0.386841-0.123431-0.8727914-0.4017423-1.2997086-0.5740169 0.3360745 1.2412527 0.6876121 2.4788317 1.0541947 3.7114197 0.4901478-0.042157 0.976568-0.1205 1.4665573-0.164264-0.3517459 0.362377-0.7315297 0.696556-1.0853637 1.05688 0.6185649-0.257386 1.2269448-0.538614 1.8434266-0.800952 0.1184429 0.194039-0.2327669 0.888871-0.2800864 1.265827 0.2702354-0.437649 0.5276443-0.883351 0.7844463-1.329035l0.2366342-0.111292s-0.069295-0.06944 0 0c0.5374357 0.08477 1.0736839 0.18711 1.610682 0.268084-0.4832525-0.237223-0.9745454-0.457747-1.4578053-0.694957 0.4832706-0.20034 0.9981903-0.352366 1.4918403-0.539086-0.485495-0.0045-0.971018 0.0087-1.4565257 0.0033 0.078432-0.173192 0.664529-0.478724 0.9184122-0.715379-0.3546153-0.411938-0.7541741-0.783077-1.1113635-1.1927355 0.6177665-2.0230458 1.266027-4.0367198 1.900442-6.0546255-0.568939-0.8663662-1.1247456-1.7417272-1.7094869-2.5974458z" style="fill:#ffc107"/>
 <path d="m8.5555812 2.7455378c-0.8543133 2.2966433-1.3939158 5.0722414-1.5250562 7.6380282-0.0308989 0.357517-0.0221818 0.285075 0.2110586 0.565789 1.1576448 1.393474 2.3128297 2.867778 3.4768824 4.050645l-3.8e-4 -0.0817c-1.1127633-1.525766-2.2255262-2.812123-3.3382894-4.168841-0.0973486-0.116859-0.1238823-0.118509-0.1157632-0.260096 0.1477021-2.5717556 0.726234-5.4192988 1.2915478-7.7438252z" style="fill:#f4f4f7"/>
</svg>
