<svg xmlns="http://www.w3.org/2000/svg" width="16" height="16" version="1.1">
 <circle style="fill:#48b9c7" cx="8" cy="8" r="8"/>
 <rect style="fill:#f4f4f7" width="8" height="1" x="4" y="12" rx=".645" ry=".5"/>
 <path style="fill:#f4f4f7" d="M 8.8168556,5.8257588 C 8.4179856,6.6351286 7.753202,7.2857979 6.8225052,7.6031982 l 0.79774,1.9837492 C 7.7698216,9.951958 7.9027784,10.332839 7.7864412,10.681981 7.670104,11.031117 7.1382776,11.142209 6.7560268,10.761329 6.0247652,10.015439 3.565066,5.3179186 3.3822504,4.9687793 3.1994352,4.6196392 3,4.3339793 3,3.9848392 3.01662,3.4611293 3.8642188,2.92155 4.279708,2.6517599 4.6951984,2.3819697 5.5095576,2.01696 6.2242,2.00109 6.938842,1.98522 7.2379948,2.1439199 7.6534844,2.3978398 c 0.6315444,0.39675 1.0802732,1.0156795 1.2464688,1.7298294 0.166196,0.7141495 0.1163376,1.2696 -0.083098,1.6663493 M 6.938842,4.937039 C 6.7892656,4.4450694 6.473494,3.9689695 6.0580044,3.6515693 5.9749064,3.5880899 5.8751888,3.5087393 5.7588516,3.4769999 4.9943504,3.2389495 5.3267424,4.4609391 5.4430792,4.7783394 5.5594164,5.0957391 5.8751888,5.762279 6.2242,6.0955485 c 0.083098,0.07935 0.1661956,0.14283 0.2659136,0.1587002 0.099718,0.01587 0.299152,-0.07935 0.3822504,-0.2063102 0.083098,-0.1269594 0.099718,-0.2221797 0.099718,-0.34914 A 2.1273072,2.0313591 0 0 0 6.938842,4.937039 Z"/>
 <path style="fill:#f4f4f7" d="m 10.978185,10.656909 c -0.03045,0.121766 -0.10656,0.230001 -0.228343,0.297649 -0.121782,0.06765 -0.411016,0.06765 -0.578467,-0.05412 -0.167451,-0.121765 -0.1978966,-0.324707 -0.152228,-0.487061 0.04567,-0.162355 0.197897,-0.338239 0.411017,-0.392357 0.441461,-0.121766 0.639357,0.311179 0.548021,0.635888 z"/>
 <path style="fill:#f4f4f7" d="m 10.682318,8.9758504 c -0.29989,-0.1217884 -0.199927,-1.7920288 0.0833,-3.8276338 0.0833,-0.556747 0.216589,-0.8351204 0.366535,-0.974307 0.149946,-0.1391867 0.599784,-0.20878 0.866353,-0.156585 a 1.4994586,1.5658502 0 0 1 0.816373,0.41756 c 0.199927,0.191382 0.216587,0.4001616 0.149946,0.661137 -0.06664,0.2609746 -0.299892,0.8177218 -0.48316,1.2178834 l -0.466499,0.9221116 c -0.899674,1.67024 -1.08294,1.8442238 -1.332851,1.7398338 z"/>
</svg>
