<svg xmlns="http://www.w3.org/2000/svg" width="16" height="16" version="1.1">
 <ellipse style="fill:#2d4a5e" cx="7.986" cy="8" rx="7.814" ry="7.8"/>
 <path style="fill:#bcdced" d="m 9.8622785,7.1678672 c 0,4.4182778 2.0155515,0.9350632 -2.4107228,0.9350632 -4.4262747,0 -6.94869736,4.1826336 -6.94869736,-0.2356444 0,-0.2826936 -0.51712742,-0.4292488 -0.48846901,-0.704374 C 0.37498075,3.7011772 2.9471022,0.89546484 6.2958153,0.17812112 6.840559,0.06142896 7.4058531,0.4246848 7.9855207,0.4246848 c 4.4262743,0 1.8767578,2.3249044 1.8767578,6.7431824 z"/>
 <path style="fill:#65a3cf" d="M 7.9855207,0 C 7.5027441,0.003528 7.0212743,0.05059548 6.5469842,0.140625 L 8.874627,4.1726564 12.755858,1.5929688 C 11.378212,0.56472504 9.7056905,0.00621624 7.9855207,0 Z"/>
 <path style="fill:#6d8da4" d="m 9.53363,11.632812 -1.6068089,4.364063 -0.047743,-0.0024 v 8e-4 A 8.0144792,8 0 0 0 7.9855207,16 8.0144792,8 0 0 0 13.766277,13.527344 Z"/>
 <path style="fill:#426f8e" d="m 6.6753413,13.396094 -1.6975981,2.0125 a 8.0144792,8 0 0 0 2.487306,0.567968 v -0.0024 l -0.061831,-0.0031 z"/>
 <path style="opacity:0.7;fill:#ff0000" d="m 13.766277,13.527344 h 8.01e-4 a 8.0144792,8 0 0 0 0.149489,-0.160156 8.0144792,8 0 0 1 -0.150271,0.160156 z"/>
 <path style="opacity:0.7;fill:#ff0000" d="M 4.5339727,15.208594 A 8.0144792,8 0 0 0 4.9636549,15.403125 8.0144792,8 0 0 1 4.5339727,15.208594 Z"/>
 <path style="opacity:0.7;fill:#1b5e99" d="M 12.762119,1.5882812 0.21601536,9.9296876 a 8.0144792,8 0 0 0 0.1369662,0.4812504 L 15.417698,10.978906 A 8.0144792,8 0 0 0 16,8 8.0144792,8 0 0 0 12.762119,1.5882812 Z"/>
 <path style="fill:#81bde3" d="M 3.768527,1.203125 C 3.6210906,1.296312 3.4767426,1.3942809 3.3357139,1.496875 L 5.2438488,8.2875 5.8214547,2.84375 Z"/>
 <path style="fill:#316f9f;fill-opacity:0" d="M 12.730813,1.5648438 8.8801057,4.1820312 10.954165,7.7742188 13.129189,1.8664062 C 12.999571,1.7617743 12.866714,1.6612046 12.730813,1.5648438 Z"/>
 <path style="fill:#4f96cb" d="m 6.5430712,0.134375 a 8.0144792,8 0 0 0 -0.4453362,0.1 L 5.8214547,2.84375 8.1310961,4.6906248 8.8801057,4.1820312 Z"/>
 <path style="fill:#5687a5" d="m 10.954165,7.7742188 -1.420535,3.8585932 4.233429,1.894532 a 8.0144792,8 0 0 0 0.313849,-0.336719 z"/>
 <path style="opacity:0.7;fill:#3885c0" d="m 5.2438488,8.2875 -0.7325735,6.910938 a 8.0144792,8 0 0 0 0.4656853,0.210937 l 1.7015112,-2.017187 z"/>
 <path style="fill:#224c6d" d="M 14.79548,3.7914064 12.216602,4.34375 v 8e-4 l -1.894829,5.1468752 4.721029,-5.26875 C 14.964855,4.0764036 14.882374,3.932584 14.79548,3.7914252 Z"/>
 <path style="fill:#29628f" d="M 5.0787068,9.6156248 4.4463143,15.166406 c 0.183972,0.09207 0.3714286,0.177025 0.5619524,0.254688 l 1.7022943,-1.9 -1.0299856,-3.6453128 z"/>
 <path style="fill:#438ec5" d="m 5.8214547,2.84375 -0.3115,2.9375 1.3954899,-0.2992188 1.2099985,-0.8039064 z"/>
 <path style="fill:#2f6c9f" d="M 8.8801057,4.1820312 8.1310961,4.6906248 8.1154439,4.6781248 6.9054454,5.4820312 9.330921,4.9625 Z"/>
 <path style="fill:#316e9e" d="M 9.3309202,4.9625 12.255735,4.3359376 13.154234,1.8945312 C 13.024616,1.7898993 12.891759,1.6893296 12.755858,1.5929688 L 8.8988897,4.2140624 Z"/>
 <path style="fill:#4c7da1" d="M 13.119014,1.8789062 12.211124,4.3453124 14.78374,3.79375 C 14.334327,3.0711972 13.772363,2.4248004 13.119014,1.8789062 Z"/>
 <path style="opacity:0.7;fill:#ff00ff" d="m 15.035758,4.2132812 c 0,0 0.0056,0.011024 0,0 z"/>
 <path style="fill:#4c7798" d="M 0.02974135,7.43125 C 0.01301032,7.6248448 0.00335127,7.818984 7.8263115e-4,8.0132812 0.00436911,8.6539336 0.08504041,9.2918364 0.24106044,9.9132812 L 2.4192145,8.4648436 0.13540096,7.4765624 Z"/>
 <path style="fill:#71848e" d="m 12.745683,10.878125 1.335225,2.3125 a 8.0144792,8 0 0 0 1.33679,-2.211719 z"/>
 <path style="fill:#35576f" d="M 15.040454,4.2234376 10.313946,9.4976564 9.845913,10.76875 15.417698,10.978906 C 15.800449,10.032124 15.998106,9.0209616 16,8 15.996834,6.6814488 15.667204,5.3841228 15.040454,4.2234376 Z"/>
 <path style="fill:#285477" d="M 2.427041,8.4593752 0.21601536,9.9296876 c 0.040618,0.1618024 0.0862957,0.3222984 0.1369662,0.4812504 L 4.9667858,10.585156 5.0794894,9.5976564 Z"/>
 <path style="fill:#265679" d="M 11.308712,8.3882812 10.323338,9.4867188 9.8513917,10.76875 12.745683,10.878125 Z"/>
 <path style="fill:#4f82a6" d="m 0.26610585,10.10625 c -0.003478,0.0025 -0.005909,0.0046 -0.009392,0.007 0.6090452,2.205302 2.13531695,4.042092 4.18960025,5.050781 l 0.523602,-4.591406 h -0.00156 l -0.00156,0.0125 -4.61380907,-0.174219 C 0.3208968,10.310288 0.29416995,10.208077 0.26610585,10.10625 Z m 4.21542805,5.075781 c 0.010102,0.0049 0.019616,0.01077 0.029742,0.01562 3.76e-5,-5.6e-4 -3.73e-5,-0.001 0,-0.0016 -0.00985,-0.0048 -0.019908,-0.0092 -0.029742,-0.01406 z"/>
 <path style="fill:#20476a" d="M 5.0787068,9.6156248 4.9699163,10.567969 5.8856334,10.602345 5.6805754,9.8757824 Z"/>
 <path style="fill:#1d4568" d="M 10.954165,7.7742188 10.321773,9.4914064 11.308712,8.3898436 Z"/>
 <path style="fill:#204a6c" d="M 11.186616,7.1429688 10.321773,9.4914064 11.908232,7.7210936 Z"/>
 <path style="fill:#2c5774" d="m 11.906667,7.7203124 -0.597955,0.6679688 1.436971,2.4898438 0.691875,0.02578 1.966835,0.07422 c 0.02603,-0.05907 0.05133,-0.118446 0.07592,-0.178125 0.02133,-0.05659 0.03946,-0.114086 0.05948,-0.171093 z"/>
 <path style="fill:#2e639c" d="M 8.1115296,4.6804688 6.9054446,5.4820312 8.6460893,5.1093752 Z"/>
 <path style="fill:#1d4568" d="m 10.954165,7.7742188 -0.632392,1.716406 0.987722,-1.1015624 z"/>
 <path style="fill:#343f4b" d="M 12.216602,4.34375 0.10565975,6.9398436 0.04852528,6.9523436 C 0.02780345,7.1070464 0.01162141,7.2623212 9.7403776e-8,7.4179688 L 5.6805754,9.8757812 l 1.7226433,6.0953128 0.5236024,0.02578 z"/>
 <path style="fill:#f4f4f7" d="M 6.6113064,9.0797612 2.871811,7.2852548 10.621152,5.6974328 7.8020813,13.157557 Z"/>
</svg>
