<svg width="16" height="16" version="1.1" xmlns="http://www.w3.org/2000/svg">
 <circle cx="8" cy="8" r="8" style="fill:#238adb"/>
 <circle cx="8" cy="8" r="6" style="fill:#17191e"/>
 <path d="m12.347656 4.8691406c0-0.00866-0.04712 0.021177-0.103515 0.066406-0.143333 0.1149524-0.291006 0.1610978-0.712891 0.2226565-0.392994 0.057343-0.582363 0.1225299-0.632812 0.2167969-0.01739 0.032494-0.07917 0.1003499-0.136719 0.1523438-0.05755 0.051994-0.111596 0.1262213-0.121094 0.1640624-0.02375 0.094634 0.05875 0.2670802 0.214844 0.4472657 0.174492 0.2014329 0.261718 0.3805401 0.261719 0.5390625 0 0.1131402-0.0126 0.1401761-0.105469 0.2285156-0.159258 0.1514986-0.358951 0.2057533-0.742188 0.203125-0.5587287-0.0038312-1.0820224-0.1492123-2.1152341-0.5898438-0.8467022-0.3610909-1.2159812-0.4513513-1.5898438-0.3828124-0.200647 0.0367839-0.5062155 0.1850085-0.6640625 0.3203124-0.2501999 0.2144681-0.7147417 0.8946001-1.0078125 1.4785157l-0.1933593 0.3886719-0.1503907-0.15625c-0.2456196-0.255283-0.3222656-0.3567514-0.3222656-0.4277344 0-0.044031-0.015857-0.068359-0.044922-0.068359-0.036955 0-0.042233 0.022424-0.03125 0.1367188 0.014432 0.1501951 0.1218309 0.3310782 0.3457032 0.5800781l0.1210938 0.1347652-0.0996094 0.3183594c-0.0548042 0.1756831-0.1147084 0.4045781-0.1328125 0.5078125-0.03171 0.1808204-0.0392411 0.1964662-0.2382812 0.4042968-0.2381085 0.2486248-0.270707 0.2572808-0.5546875 0.1503907-0.2367459-0.0891108-0.6238755-0.1816407-0.7597657-0.1816407-0.1265844 0-0.2734374 0.063746-0.2734374 0.1191407 0 0.026449 0.042319 0.036677 0.15625 0.035156 0.1282087-0.00171 0.2364249 0.027969 0.5820312 0.1582029 0.5477965 0.206424 0.5976529 0.21913 0.7246094 0.195313 0.079457-0.01491 0.1510423-0.06395 0.2871094-0.195313l0.1816406-0.175781 0.052734 0.056641c0.0691 0.076512 0.3174023 0.2010064 0.5195312 0.2597654l0.1621094 0.04687-0.125 0.03125c-0.1704196 0.04327-0.2787573 0.128205-0.3398438 0.263672-0.050436 0.111848-0.050776 0.115216 0 0.152344 0.067473 0.04934 0.5464684 0.05056 0.6425782 2e-3 0.056426-0.02855 0.1650065-0.180299 0.1992187-0.277344 0.00481-0.01366 0.067678-0.0017 0.1386719 0.02539 0.1578317 0.06028 0.4587925 0.04385 0.671875-0.03711 0.076052-0.0289 0.1386718-0.04287 0.1386718-0.03125 0 0.01161-0.055371 0.0749-0.1230468 0.142579-0.08149 0.08149-0.1230469 0.147186-0.1230469 0.193359 0 0.154347 0.00477 0.15625 0.3867187 0.15625 0.2581949 0 0.3566077-0.0082 0.3652344-0.0332v-2e-3c0.00649-0.0188 0.015218-0.249759 0.019531-0.515625 0.00713-0.4397465 0.012676-0.4903593 0.064453-0.5605471 0.1583914-0.2147124 0.9140183-0.5182597 1.4003906-0.5625l0.142579-0.0136691v0.083984c0 0.04634-0.057516 0.247277-0.1289063 0.4453125l-0.1308594 0.3593751-0.1445312 0.0332c-0.1628805 0.03645-0.308747 0.146494-0.3613281 0.273437-0.062911 0.151881-0.036383 0.164063 0.328125 0.164063 0.385032 0 0.3560096 0.01661 0.5605468-0.34375 0.1119259-0.1971905 0.2080062-0.310983 0.5292969-0.630856l0.3925781-0.390625 0.1191406 0.03125c0.2424518 0.064846 1.1870978 0.8491674 1.3105468 1.0878904 0.04406 0.0852 0.03409 0.139211-0.04492 0.242188-0.06381 0.08317-0.06662 0.185385-0.0039 0.201172 0.108025 0.02718 0.581683 0.02253 0.634766-0.0059 0.03095-0.01656 0.0567-0.05653 0.05664-0.08984-5.4e-5 -0.03331-0.09887-0.232813-0.21875-0.44336-0.25991-0.4564841-0.295581-0.5411989-0.591805-1.4140254-0.193454-0.5700146-0.228515-0.7036211-0.228515-0.8515625 0-0.3077734 0.129644-0.5495172 0.427734-0.7949219 0.08575-0.070597 0.158986-0.1484411 0.162109-0.1738281 0.0031-0.025387 0.0186-0.1045559 0.0332-0.1757812 0.02866-0.1398745 0.0094-0.2954105-0.04883-0.4042969-0.02009-0.037598-0.10203-0.1478006-0.183594-0.2441406-0.185095-0.2186297-0.216956-0.2920918-0.154297-0.3613282 0.0264-0.02917 0.0832-0.050781 0.132812-0.050781 0.145005 0 0.364475-0.07916 0.611329-0.2207031 0.129227-0.074098 0.253015-0.1347657 0.277343-0.1347657 0.06364 0 0.144796-0.09805 0.242188-0.2929687 0.04675-0.093565 0.08594-0.1768896 0.08594-0.1855469z" style="fill:#fcfcfd"/>
</svg>
