<svg xmlns="http://www.w3.org/2000/svg" width="16" height="16" version="1.1">
 <rect style="fill:#4f4f4f" width="16" height="16" x="0" y="0" rx=".8" ry=".8"/>
 <path style="fill:#f4f4f7" d="M 5,3 4,4 7.3418,8.1758 6.7051,8.8828 6,8 1,14 H 15 L 12,11 11.666,11.334 9.1875,8.2344 13,4 12,3 8.2949,7.1172 Z M 8.2344,9.293 10.666,12.334 10,13 7.5996,10 Z"/>
</svg>
