<svg xmlns="http://www.w3.org/2000/svg" width="16" height="16" version="1">
 <circle style="fill:#c03630" cx="8" cy="8" r="8"/>
 <path style="fill:#f4f4f7;fill-rule:evenodd" d="M 8,5 C 7.030749,5.0091 6.055219,5.222359 5.210938,5.681641 4.874433,5.89203 4.470439,6.163722 4.166016,6.4375 3.687025,6.887672 3.276994,7.413562 3,8.001953 c 0.759325,1.607851 2.427308,2.784867 4.263672,2.958985 1.204576,0.130886 2.466513,-0.06847 3.52539,-0.640626 0.336494,-0.210388 0.740499,-0.482081 1.044922,-0.755859 C 12.312975,9.113321 12.723006,8.587431 13,8 12.241015,6.392245 10.572291,5.21475 8.736328,5.041016 8.492333,5.013176 8.244995,5 8,5 Z M 8.002,6 C 9.071851,5.9763 10.020179,6.93381 10.000047,7.998047 10.034337,9.174271 8.861751,10.190353 7.703172,9.970703 6.533089,9.83331 5.710906,8.520193 6.09575,7.408203 6.341755,6.590108 7.144496,5.990413 8.001953,6 Z M 8,7 A 0.99999953,0.99942479 0 0 0 7,8 0.99999953,0.99942479 0 0 0 8,9 0.99999953,0.99942479 0 0 0 9,8 0.99999953,0.99942479 0 0 0 8,7.003906 L 8,7 Z"/>
</svg>
