<svg width="16" height="16" version="1.1" xmlns="http://www.w3.org/2000/svg">
 <path d="M 15.765625,15.765625 C 15.910225,15.621025 16,15.420819 16,15.199219 V 0.800781 c 0,-0.2216 -0.08977,-0.421806 -0.234375,-0.566406 L 8,8 Z" style="fill:#fecd38"/>
 <path d="M 0.234375,15.765625 C 0.378975,15.910225 0.579181,16 0.800781,16 h 14.398438 c 0.2216,0 0.421806,-0.08977 0.566406,-0.234375 L 8,8 Z" style="fill:#248afd"/>
 <path d="M 0.234375 0.234375 C 0.089774998 0.378975 0 0.57918125 0 0.80078125 L 0 15.199219 C 0 15.420819 0.089774998 15.621025 0.234375 15.765625 L 8 8 L 0.234375 0.234375 z " style="fill:#4bae4f"/>
 <path d="M 15.765625,0.234375 C 15.621025,0.089775 15.420819,0 15.199219,0 H 0.800781 C 0.579181,0 0.378975,0.089775 0.234375,0.234375 L 8,8 Z" style="fill:#c2352a"/>
 <rect x="1" y="1" width="14" height="14" rx=".69999999" ry=".69999999" style="fill:#b2bfd9"/>
 <path d="m2 4v1h1v6h-1v1h5v-1h1v-6h-1v-1zm3 1h1v6h-1zm3-1v1h1v6h-1v1h5v-1h1v-3h-1v-1h1v-2h-1v-1zm3 1h1v2h-1zm0 3h1v3h-1z" style="fill:#4d4d4d"/>
</svg>
