<svg xmlns="http://www.w3.org/2000/svg" width="16" height="16" version="1">
 <path style="fill:#1383d9" d="m 7.9774299,9.5004888 a 0.4444888,0.42302007 0 0 0 -0.19618,0.054524 l -2.430555,1.3069352 -0.84375,-0.114006 a 0.4444888,0.42302007 0 0 0 -0.506944,0.419674 l 0,1.315197 a 0.4444888,0.42302007 0 0 0 0.210069,0.358539 l 3.555555,2.095062 a 0.4444888,0.42302007 0 0 0 0.46875,0 L 11.78993,12.841352 a 0.4444888,0.42302007 0 0 0 0.210069,-0.358539 l 0,-1.442421 A 0.4444888,0.42302007 0 0 0 11.385416,10.648807 L 10.614583,10.954475 8.2326379,9.5632745 a 0.4444888,0.42302007 0 0 0 -0.255208,-0.062786 z"/>
 <path style="fill:#5aacff" d="M 5 2 L 1 4.75 L 3.75 7 L 1 9.25 L 5 12 L 8 9.5 L 11 11.917969 L 15 9.25 L 12.25 7 L 15 4.75 L 11 2 L 8 4.5 L 5 2 z"/>
 <path style="fill:#f4f4f7" d="M 12.25,7 8,9.5 3.75,7 8,4.5 Z"/>
</svg>
