<svg xmlns="http://www.w3.org/2000/svg" width="16" height="16" version="1">
 <rect style="fill:#b2bfd9" width="16" height="16" x="0" y="0" rx="4.8" ry="4.8"/>
 <path style="fill:#5c3420" d="M 10.489472,6 8.5329376,8.1526052 C 9.5332652,9.202876 10.753538,10.250014 11.041164,13.560748 11.062436,13.921776 11.383999,14 11.383999,14 h 1.098895 C 12.823254,14 13,13.743842 13,13.425988 V 10.431526 C 13,10.431526 13.015788,10 13.436844,10 h 0.842104 z M 8.3610624,8.3433948 6.7,10 H 7.5421052 C 7.963158,10 8,10.431526 8,10.431526 v 2.994462 C 8,13.743842 8.3185236,14 8.6588816,14 h 0.7804968 c 0,0 0.3420804,-0.107284 0.3934544,-0.388266 C 10.201482,11.443536 9.7489088,9.7458656 8.3610624,8.3433948 Z"/>
 <path style="fill:#e8580d" d="M 5.510476,10 7.4670625,7.8473945 C 6.4667355,6.7971235 5.24641,5.749986 4.958784,2.439252 4.937512,2.078224 4.615949,2 4.615949,2 H 3.517054 C 3.176694,2 2.999948,2.256158 2.999948,2.574012 V 5.568474 C 2.999948,5.568474 2.98416,6 2.563104,6 H 1.721 Z M 7.6389375,7.6566055 9.299948,6 H 8.457843 C 8.03679,6 7.999948,5.568474 7.999948,5.568474 V 2.574012 C 7.999948,2.256158 7.681424,2 7.341066,2 H 6.56057 c 0,0 -0.342081,0.107284 -0.393455,0.388266 -0.368649,2.168198 0.083976,3.8658685 1.4718225,5.2683395 z"/>
</svg>
