<svg xmlns="http://www.w3.org/2000/svg" width="16" height="16" version="1.1">
 <path style="fill:#b2bfd9" d="M 8,0.0019 C 3,-0.0091 0,3.993 0,8.0058 c 0,2.9906 1,5.992 4.1601561,6.9216 0.043929,0.011 0.088226,0.021 0.1328126,0.029 1.494973,0.2713 2.7081838,-0.835 2.7070312,-2.2765 v -5.3796 0 C 7.000184,6.6361 6.7511193,6.0636 6.3437499,5.651 6.8665044,5.3095 7.4594467,4.9897 7.9999999,4.9886 8.5425215,4.9886 9.1401434,5.309 9.6640624,5.653 9.2555752,6.0643 9.0006876,6.6321 9,7.3023 v 5.3815 c -0.00115,1.4415 1.211791,2.548 2.708984,2.2745 0.04391,-0.01 0.08755,-0.017 0.13086,-0.027 C 15,13.9978 16,10.9964 15.999994,8.0039 16,3.993 13,-0.0089 7.999994,0 Z"/>
 <path style="fill:#4f4f4f" d="M 8 2 C 4.6862921 2 1.9999981 4.6887594 2 8.0058594 L 2 9.4199219 L 2.0019531 9.4199219 C 2.0015856 9.4419219 1.99992 9.461375 2 9.484375 C 2.00479 10.777375 2.6998895 11.012125 3.4023438 11.453125 C 4.1047977 11.894125 4 11.582031 4 11.582031 C 4.1708683 11.613031 4.3575751 11.648731 4.3574219 11.457031 L 4.4355469 8.3066406 C 4.4357245 8.1316406 4.2809972 7.9911938 4.1230469 7.9960938 C 4.1177669 7.9958937 4.1127059 7.9958937 4.1074219 7.9960938 C 4.1074223 7.9960937 3.7097604 8.617 3 9 L 3.1210938 7.6582031 C 2.9990937 4.9910031 5.561693 2.9931344 8 2.9902344 C 10.438307 2.9931344 13.000906 4.9910031 12.878906 7.6582031 L 13 9 C 12.29024 8.617 11.892578 7.9960937 11.892578 7.9960938 C 11.887288 7.9958937 11.882253 7.9958937 11.876953 7.9960938 C 11.719003 7.9911938 11.564276 8.1316406 11.564453 8.3066406 L 11.642578 11.457031 C 11.642425 11.648731 11.829132 11.613031 12 11.582031 C 12 11.582031 11.895202 11.894125 12.597656 11.453125 C 13.30011 11.012125 13.9952 10.777375 14 9.484375 C 14 9.461375 13.998415 9.4419219 13.998047 9.4199219 L 14 9.4199219 L 14 8.0058594 C 14.000002 4.6887594 11.313708 2 8 2 z"/>
 <path style="fill:#e91e63" d="m 4.6503906,7 c 0,0 -0.4948117,0.1254063 -1.1972656,0.5664062 C 2.8451669,7.9480832 2.2073923,8.9068378 2.0429688,9.9960938 H 5 V 7.3066406 C 5.0001532,7.1149406 4.8212589,6.9690002 4.6503906,7 Z m -2.6074218,3 c 0.1644235,1.089256 0.8021981,2.04801 1.4101562,2.429688 0.7024539,0.440999 1.1972656,0.566406 1.1972656,0.566406 C 4.8212589,13.027094 5.0001532,12.881153 5,12.689453 V 10 Z"/>
 <path style="fill:#e91e63" d="m 11.349609,7 c 0,0 0.494812,0.1254063 1.197266,0.5664062 0.607958,0.381677 1.245733,1.3404316 1.410156,2.4296876 H 11 V 7.3066406 C 10.999847,7.1149406 11.178741,6.9690002 11.349609,7 Z m 2.607422,3 c -0.164423,1.089256 -0.802198,2.04801 -1.410156,2.429688 -0.702454,0.440999 -1.197266,0.566406 -1.197266,0.566406 C 11.178741,13.027094 10.999847,12.881153 11,12.689453 V 10 Z"/>
</svg>
