<svg xmlns="http://www.w3.org/2000/svg" width="16" height="16" version="1.1">
 <path style="fill:#17191e" d="M 8.5,1 A 7.5,7.5 0 0 0 1,8.5 7.5,7.5 0 0 0 8.5,16 7.5,7.5 0 0 0 16,8.5 7.5,7.5 0 0 0 8.5,1 Z"/>
 <path style="fill:none;stroke:#eaeaeb;stroke-width:0.75" d="m 4.375,4.375 v 8.25 h 8.25 v -8.25 z"/>
 <path style="fill:none;stroke:#eaeaeb" d="m 10.500329,9.6 10e-7,0.6 -0.8,0.8 H 7.3 L 6.5,10.2 V 6.8 L 7.3,6 h 2.40033 l 0.8,0.8 0.01734,1.7 H 6.8426456"/>
</svg>
