<svg xmlns="http://www.w3.org/2000/svg" width="16" height="16" version="1">
 <rect style="fill:#0dbc8a" width="16" height="16" x="0" y="0" rx="4.8" ry="4.8"/>
 <path style="fill:#f4f4f7" d="M 7.0400391,2 C 6.642399,2 6.3203125,2.3220817 6.3203125,2.7197265 c 0,0.3976449 0.3220865,0.7207034 0.7197266,0.7207034 1.8556997,0 3.3603509,1.5036998 3.3603509,3.3593746 0,0.39765 0.322076,0.7197266 0.719726,0.7197266 0.39765,0 0.719728,-0.3220766 0.719728,-0.7197267 C 11.839844,4.1488395 9.690989,2 7.0400391,2 Z M 6.7998046,4.160156 C 4.1488396,4.1601612 1.9999999,6.3089857 2,8.9599609 2,9.357611 2.3220814,9.6796875 2.7197266,9.6796875 c 0.3976449,0 0.7207029,-0.3220766 0.7207029,-0.7197266 0,-1.8556997 1.5036998,-3.3603518 3.3593751,-3.3603518 0.39765,0 0.7197266,-0.3220812 0.7197266,-0.7197266 0,-0.3976448 -0.3220766,-0.7197265 -0.7197266,-0.7197265 z m 6.4804694,2.1601564 c -0.39765,0 -0.720704,0.3220868 -0.720704,0.7197266 0,1.8557001 -1.503675,3.360351 -3.359375,3.360351 -0.3976495,0 -0.719726,0.322076 -0.719726,0.719726 0,0.39765 0.3220765,0.719728 0.719726,0.719728 C 11.851144,11.839844 14,9.6909895 14,7.040039 14,6.6423992 13.677924,6.3203124 13.280274,6.3203124 Z M 4.8798826,8.4804692 c -0.3976453,0 -0.7197265,0.3220763 -0.7197265,0.7197262 C 4.1601561,11.851146 6.3089853,14 8.959961,14 c 0.39765,0 0.719727,-0.322076 0.719727,-0.719726 0,-0.39765 -0.322077,-0.720704 -0.719727,-0.720704 -1.8557,0 -3.3603518,-1.503675 -3.3603518,-3.3593745 0,-0.39765 -0.3220817,-0.7197262 -0.7197266,-0.7197263 z"/>
</svg>
