<svg width="16" height="16" version="1.1" xmlns="http://www.w3.org/2000/svg">
 <g>
  <path d="m0 3v11.2c0 0.44352 0.3565 0.8 0.8 0.8h14.4004c0.4432 0 0.7996-0.3564 0.7996-0.8v-11.2z" style="fill:#c7c7c7"/>
  <path d="M 0.8,1 C 0.35648,1 0,1.3566 0,1.7998 V 3 H 16 V 1.7998 C 16,1.3566 15.6436,1 15.2,1 Z" style="fill:#00caff"/>
  <rect x="4" y="5" width="6" height="8" style="fill:#f4b801"/>
  <path d="m6 4h6v4c0 3 2 4 2 4h-6s-2-1-2-4z" style="fill:#fecd38"/>
 </g>
 <circle cx="11.5" cy="11.5" r="4.5" style="fill:#333333"/>
 <path d="m11.5 9s-0.354375-7e-3 -0.723635 0.17775c-0.369255 0.1846-0.776365 0.6556009-0.776365 1.32225h1c0-0.5000006 0.5-0.5000006 0.5-0.5000006s0.5 0 0.5 0.5000006c0 0.2639-0.0698 0.41145-0.203125 0.578099-0.133325 0.166701-0.34668 0.334-0.59668 0.5215s-0.536645 0.395201-0.77832 0.6973c-0.241675 0.302051-0.421875 0.717001-0.421875 1.203101v0.5h3v-1h-1.82422c0.01565-0.022 0.0094-0.0556 0.02735-0.0781 0.133325-0.1667 0.34668-0.334 0.59668-0.5215s0.536645-0.3952 0.77832-0.6973c0.241675-0.30205 0.421875-0.717 0.421875-1.2031 0-0.6666491-0.40711-1.13765-0.776365-1.32225-0.369265-0.18465-0.72364-0.17775-0.72364-0.17775z" style="fill-rule:evenodd;fill:#f4f4f7"/>
</svg>
