<svg xmlns="http://www.w3.org/2000/svg" width="16" height="16" version="1.1">
 <path style="fill:#4c6a8f" d="M 8,0 A 8,8 0 0 0 0,8 8,8 0 0 0 8,16 8,8 0 0 0 16,8 8,8 0 0 0 8,0 Z"/>
 <path style="fill:#f4f4f7" d="M 8,2 12,8 8,10 4,8 Z"/>
 <path style="fill:#f4f4f7" d="m 8,14 4,-4.9 -4,2 -4,-2 z"/>
</svg>
