<svg width="16" height="16" version="1.1" xmlns="http://www.w3.org/2000/svg">
 <path d="M 8 1 A 4 4 0 0 0 4.1308594 4.0058594 A 4 4 0 0 0 4 4 A 4 4 0 0 0 0 8 A 4 4 0 0 0 2.046875 11.488281 A 3 3 0 0 0 2 12 A 3 3 0 0 0 5 15 A 3 3 0 0 0 7.2871094 13.943359 A 5 5 0 0 0 8 14 A 5 5 0 0 0 8.71875 13.943359 A 3 3 0 0 0 11 15 A 3 3 0 0 0 14 12 A 3 3 0 0 0 13.955078 11.484375 A 4 4 0 0 0 16 8 A 4 4 0 0 0 12 4 A 4 4 0 0 0 11.871094 4.0039062 A 4 4 0 0 0 8 1 z " style="fill:#ff7b01"/>
 <ellipse cx="6" cy="9.5" rx="2" ry="2.5" style="fill:#f4f4f7"/>
 <ellipse cx="10" cy="9.5" rx="2" ry="2.5" style="fill:#f4f4f7"/>
 <ellipse cx="6.5" cy="10" rx=".5" ry="1" style="fill:#0059bf"/>
 <ellipse cx="9.5" cy="10" rx=".5" ry="1" style="fill:#0059bf"/>
</svg>
