<svg xmlns="http://www.w3.org/2000/svg" width="16" height="16" version="1.1">
 <circle style="fill:#3db54a" cx="8" cy="8" r="8"/>
 <path style="fill:#f4f4f7" d="M 5.2128906 4 C 5.0963854 3.99744 4.9998696 4.094139 5 4.2148438 L 5 5.5664062 C 5.000086 5.6433773 5.0410232 5.7136319 5.1054688 5.7519531 L 7.1875 7 L 5.1054688 8.2480469 C 5.0410235 8.2863681 5.000086 8.3566225 5 8.4335938 L 5 9.7851562 C 4.9998696 9.9058602 5.0963854 10.00256 5.2128906 10 C 5.2478546 9.99916 5.282252 9.9888831 5.3125 9.9707031 L 8.8945312 7.8398438 C 8.9589765 7.8015257 8.999914 7.7312681 9 7.6542969 L 9 7 L 9 6.3457031 C 8.999914 6.2687319 8.9589764 6.1984774 8.8945312 6.1601562 L 5.3125 4.0292969 C 5.282252 4.0111169 5.2478546 4.000848 5.2128906 4 z M 8.4160156 10 C 8.1851822 10 8 10.223 8 10.5 L 8 11.5 C 8 11.777 8.1851822 12 8.4160156 12 L 12.583984 12 C 12.814818 12 13 11.777 13 11.5 L 13 10.5 C 13 10.223 12.814818 10 12.583984 10 L 8.4160156 10 z"/>
</svg>
