<svg xmlns="http://www.w3.org/2000/svg" width="16" height="16" version="1">
 <rect style="fill:#4f4f4f" width="16" height="12" x="0" y="2" rx=".8" ry=".8"/>
 <circle style="fill:#b2bfd9" cx="2" cy="5" r="1"/>
 <circle style="fill:#b2bfd9" cx="5" cy="5" r="1"/>
 <circle style="fill:#b2bfd9" cx="8" cy="5" r="1"/>
 <circle style="fill:#b2bfd9" cx="11" cy="5" r="1"/>
 <circle style="fill:#b2bfd9" cx="14" cy="5" r="1"/>
 <circle style="fill:#b2bfd9" cx="4" cy="8" r="1"/>
 <circle style="fill:#b2bfd9" cx="7" cy="8" r="1"/>
 <circle style="fill:#b2bfd9" cx="10" cy="8" r="1"/>
 <circle style="fill:#b2bfd9" cx="13" cy="8" r="1"/>
 <rect style="fill:#b2bfd9" width="12" height="2" x="2" y="11" rx=".5" ry=".5"/>
</svg>
