<svg width="16" height="16" version="1.1" xmlns="http://www.w3.org/2000/svg">
 <circle cx="8" cy="8" r="8" style="fill:#9e75f4"/>
 <path d="m9.6364 6.0008257c-0.2028-6e-3 -0.4351 0.0588-0.7936 0.1665-0.3803 0.1142-0.7714 0.2076-0.8693 0.2076s-0.3998-0.0754-0.6701-0.1674c-0.674-0.2293-0.9424-0.2599-1.2177-0.1381-0.1222 0.0541-0.5761 0.3933-1.0089 0.7534-0.6578 0.5473-0.85 0.6743-1.175 0.7784-0.5114 0.1639-0.9425 0.2038-1.2965 0.1189-0.4805-0.1152-0.7403 0.0998-0.5337 0.442 0.197 0.3262 0.9849 0.622 2.0283 0.7617 1.4486 0.1943 2.4079 0.0148 3.4261-0.6412 0.1952-0.1257 0.411-0.2293 0.4805-0.2293 0.069447 0 0.30661 0.1164 0.52627 0.25782 0.5217 0.33587 0.77602 0.44278 1.3945 0.58846 0.44018 0.10369 0.61153 0.11552 1.2304 0.084544 1.3014-0.065137 2.1718-0.28505 2.6303-0.66464 0.154-0.1279 0.212-0.2261 0.212-0.3592 0-0.2661-0.18-0.3335-0.638-0.2394-0.27836 0.057191-0.43359 0.05954-0.71377 0.00921-0.686-0.1232-0.996-0.2923-1.796-0.9793-0.621-0.5335-0.8774-0.7401-1.2156-0.7501z" style="fill:#f4f4f7"/>
 <path d="m7.5 10.500156h1l-0.5 2z" style="fill:none;stroke-linecap:round;stroke-linejoin:round;stroke-width:1px;stroke:#f4f4f7"/>
</svg>
