<svg xmlns="http://www.w3.org/2000/svg" width="16" height="16" version="1.1">
 <path style="fill:#afba0d" d="M 7.5,0.99999981 A 7.5,7.5 0 0 0 0,8.4999998 7.5,7.5 0 0 0 7.5,16 7.5,7.5 0 0 0 15,8.4999998 7.5,7.5 0 0 0 7.5,0.99999981 Z"/>
 <path style="fill:#17191e" d="M 7,8.0000004 V 15.943014 A 5,9.4117639 0 0 0 7.5,16 5,9.4117639 0 0 0 8,15.953125 V 8.0000004 Z"/>
 <circle style="fill:#17191e" cx="7.5" cy="8.5" r="1.5"/>
 <path style="fill:#17191e" d="M 5.2441406 3.4882812 A 5.5 5.5 0 0 0 2 8.5 A 5.5 5.5 0 0 0 5.2460938 13.509766 L 5.6914062 12.617188 A 4.5 4.5 0 0 1 3 8.5 A 4.5 4.5 0 0 1 5.6933594 4.3847656 L 5.2441406 3.4882812 z M 9.7539062 3.4902344 L 9.3085938 4.3828125 A 4.5 4.5 0 0 1 12 8.5 A 4.5 4.5 0 0 1 9.3066406 12.615234 L 9.7558594 13.511719 A 5.5 5.5 0 0 0 13 8.5 A 5.5 5.5 0 0 0 9.7539062 3.4902344 z M 6.1367188 5.2753906 A 3.5 3.5 0 0 0 4 8.5 A 3.5 3.5 0 0 0 6.140625 11.720703 L 6.5878906 10.824219 A 2.5 2.5 0 0 1 5 8.5 A 2.5 2.5 0 0 1 6.5859375 6.1738281 L 6.1367188 5.2753906 z M 8.859375 5.2792969 L 8.4121094 6.1757812 A 2.5 2.5 0 0 1 10 8.5 A 2.5 2.5 0 0 1 8.4140625 10.826172 L 8.8632812 11.724609 A 3.5 3.5 0 0 0 11 8.5 A 3.5 3.5 0 0 0 8.859375 5.2792969 z"/>
</svg>
