<svg xmlns="http://www.w3.org/2000/svg" width="16" height="16" version="1">
 <circle style="fill:#3f3bbd" cx="8" cy="8" r="8"/>
 <path style="fill:#f4f4f7" d="M 13.53927,8.4545457 12.439373,7.3847167 10.220283,5.2819496 9.487018,4.5810277 c -0.8104513,-0.7747037 -2.1419053,-0.7747037 -2.9716521,0 L 5.7821016,5.2819496 3.563011,7.3847167 2.4631141,8.4361007 c -0.6174859,0.5902499 -0.6174859,1.5309613 0,2.1212123 v 0 c 0.6174862,0.590249 1.6016044,0.590249 2.2190906,0 L 5.7821016,9.5059293 6.8819984,10.557313 c 0.6174858,0.590249 1.6016041,0.590249 2.2190902,0 0.6174862,-0.590251 0.6174862,-1.5309624 0,-2.1212123 l 1.0998984,1.0513831 1.099896,1.0513832 c 0.617486,0.59025 1.601605,0.59025 2.21909,0 v 0 c 0.636783,-0.5533595 0.636783,-1.5125163 0.0193,-2.0843213 z"/>
</svg>
