<svg xmlns="http://www.w3.org/2000/svg" width="16" height="16" version="1">
 <path style="fill:#b2bfd9" d="M 2.8922074,3.4954245 C 4.9904639,2.5957148 8.4132988,2.1664023 11.332004,2.0055807 c 2.197939,-0.1211076 4.003385,1.7485966 4.099597,3.6889966 l 0.20195,4.0729176 c 0.09621,1.9403991 -0.707168,2.2884461 -1.815288,3.0658761 -1.198181,0.908561 -4.9711282,2.034348 -6.8346416,1.807555 L 4.0000235,14.277816 C 2.5486292,14.309567 1.7165503,14.290409 1.1647876,13.230153 0.87988847,12.682697 0.70074455,12.049963 0.61272305,11.394215 L 0.01862558,6.9682689 C -0.13367226,5.83367 0.63244509,4.4643866 2.8922074,3.4954245 Z"/>
 <path style="fill:#eb73ff" d="m 14.984985,4.2654548 c 0.368332,2.8621757 0.610658,6.3074282 -0.998439,7.4504492 -3.622341,2.024709 -7.1556415,2.208646 -11.1009783,2.27413 -0.7003772,0.01532 -1.363936,-0.513158 -1.95632662,-1.300716 0.49491702,1.33915 1.50010982,2.346604 3.18705332,2.3097 l 3.2085366,-0.05309 c 1.8771935,-0.03116 6.033917,-1.075164 7.232098,-1.983724 1.108119,-0.777431 1.628462,-1.334945 1.383527,-3.2624092 L 15.431569,5.6946499 C 15.369295,5.2045952 15.215473,4.7175191 14.984985,4.2654548 Z"/>
 <g transform="matrix(1.0999936,0,0,1.0999936,-0.40000039,-0.89994701)">
  <ellipse style="fill:#17191e" cx="3.97" cy="7.187" rx=".882" ry="2.193" transform="matrix(0.98891952,0.1484526,-0.116243,0.9932208,0,0)"/>
  <ellipse id="ellipse844" style="fill:#f4f4f7" cx="2.18" cy="8.098" rx=".387" ry=".488" transform="matrix(0.73343411,-0.67976055,0.19880808,0.98003844,0,0)"/>
 </g>
 <ellipse id="ellipse889" style="fill:#17191e" cx="10.647" cy="4.55" rx=".971" ry="2.412" transform="matrix(0.98891952,0.14845261,-0.11624301,0.9932208,0,0)"/>
 <ellipse id="ellipse891" style="fill:#f4f4f7" cx="10.532" cy="12.1" rx=".426" ry=".536" transform="matrix(0.73343411,-0.67976055,0.19880809,0.98003844,0,0)"/>
 <path style="fill:none;stroke:#17191e;stroke-width:0.36363849" d="M 6.4579434,9.9904826 7.6364084,10.818196 8.5593706,9.3928285"/>
</svg>
