<svg xmlns="http://www.w3.org/2000/svg" height="16" width="16" version="1.1">
 <circle cx="8" cy="8" r="8" style="fill:#ff4f4f"/>
 <path style="fill:#f7df67" d="m9 11-1 5-1-5z"/>
 <path style="fill:#f7df67" d="m7 5 1-5 1 5z"/>
 <path style="fill:#f7df67" d="m12 7 4 1-4 1z"/>
 <path style="fill:#f7df67" d="m4 9-4-1 4-1z"/>
 <path style="fill:#f4f4f7" d="m8 3c-0.3512853 0.0004995-0.7015268 0.0306137-1.0449219 0.0898438l-0.9550781 1.9101562h6.322266c-0.891758-1.2356606-2.5387472-1.9977557-4.322266-2zm-1.1015625 0.1015625c-1.3584743 0.2458895-2.5271765 0.9339444-3.2246094 1.8984375h1.3261719zm-3.2207031 7.8984375c0.6966172 0.962708 1.8628813 1.649869 3.21875 1.896484l-1.8964844-1.896484zm2.3222656 0 0.953125 1.90625c0.3438585 0.060653 0.6947638 0.092077 1.046875 0.09375 1.7849148-0.0011 3.433715-0.763374 4.326172-2z"/>
 <path style="fill:#f4f4f7" d="m10 10h2v-4h-2l-1 1h1z"/>
 <path style="fill:#f4f4f7" d="m4.5 6a1.5 2 0 0 0 -1.5 2 1.5 2 0 0 0 1.5 2 1.5 2 0 0 0 1.5 -2 1.5 2 0 0 0 -1.5 -2zm0 1a0.5 1 0 0 1 0.5 1 0.5 1 0 0 1 -0.5 1 0.5 1 0 0 1 -0.5 -1 0.5 1 0 0 1 0.5 -1z"/>
 <path style="fill:#f4f4f7" d="m7.5 6a1.5 2 0 0 0 -1.5 2 1.5 2 0 0 0 1.5 2 1.5 2 0 0 0 1.5 -2 1.5 2 0 0 0 -1.5 -2zm0 1a0.5 1 0 0 1 0.5 1 0.5 1 0 0 1 -0.5 1 0.5 1 0 0 1 -0.5 -1 0.5 1 0 0 1 0.5 -1z"/>
</svg>
