<svg xmlns="http://www.w3.org/2000/svg" width="16" height="16" version="1.1">
 <path style="fill:#125072" d="M 1.557373,1 C 1.2483982,1 1,1.2491636 1,1.5588379 V 4 6.25 8.5 C 1,9.1261049 1.190068,9.7061028 1.515625,10.186035 3.0406731,12.453773 5.8494422,15.833723 8.5,16 h 2.25 0.177246 l 0.347901,-0.07544 h 2.25 2.067626 c 0.07669,0 0.149182,-0.02356 0.215332,-0.06372 4.13e-4,-3.5e-4 0.0011,-3.75e-4 0.0015,-7.5e-4 C 15.925767,15.757848 16,15.609139 16,15.441162 V 13 10.75 8.5 C 16,7.8738951 15.809932,7.2938973 15.484375,6.8139647 14.677871,5.6146986 13.510741,4.1078414 12.199463,2.9262696 11.443639,2.2630556 10.653502,1.7047253 9.8945313,1.3632812 9.4297926,1.1613514 8.9627672,1.0290307 8.5,1 H 6.25 4 Z"/>
 <path style="fill:#f4f4f7" d="M 3.5683019,3 C 3.2532687,3 3,3.2540491 3,3.5697953 V 6.0588235 8.3529412 11.373679 C 3.3526139,13.677345 6.3858011,15.822565 8.3529412,16 h 2.0977138 l 0.120232,-0.03808 h 2.294118 2.566693 c 0.315033,0 0.56315,-0.313834 0.568302,-0.629539 V 12.941176 10.647059 8.3529412 C 16,7.7145597 15.806205,7.1231894 15.474265,6.6338464 14.313605,4.8047109 12.738102,3.0921249 10.647059,3 H 8.3529412 6.0588235 Z"/>
 <path style="fill:#00cae5" d="M 5.5839146,5 C 5.2602266,5 5,5.2610284 5,5.5854491 V 8.6431428 9 H 9 V 7.0717143 L 14,10.5 9,13.750286 V 12 H 5 v 0.857143 C 5,14.598286 6.4017143,16 8.1428571,16 H 10.5 12.857143 15.416085 C 15.739774,16 16,15.738971 16,15.414551 V 12.857143 10.5 8.1428571 C 16,6.4017143 14.598286,5 12.857143,5 H 10.5 8.1428571 Z"/>
</svg>
