<svg xmlns="http://www.w3.org/2000/svg" width="16" height="16" version="1">
 <rect style="fill:#ce3535" width="16" height="16" x="0" y="0" rx=".8" ry=".8"/>
 <path style="fill:#f4f4f7" d="M 5.3181138,4.9999164 5.1581435,5.1268695 5.0000334,5.2557758 V 7.1053852 8.9549945 L 6.1163824,10.249916 6.999939,9.5389789 6.9980789,7.3983539 6.9962188,5.2557758 6.8418289,5.1268695 6.6837188,4.9999164 H 6.2500334 Z M 6.094061,5.7557758 c 0.04688,-0.00401 0.054671,-0.00324 0.1209077,0.029297 l 0.068825,0.035156 0.00186,1.6894531 c 2.69e-4,0.7438958 -0.00457,1.6897355 -0.0093,1.6894532 L 5.7161792,8.4022602 v -1.140625 l -0.00186,-1.4433594 0.065104,-0.029297 0.065104,-0.03125 H 6.194232 c 0.19213,0 -0.127692,4.169e-4 -0.1001688,-0.00195 z"/>
 <path style="fill:#f4f4f7" d="m 14.393754,4.9999164 -0.569092,0.017576 c -0.416231,-0.00285 -0.8374,-0.00439 -0.841686,-0.00292 l -0.464222,1.0766525 c 0,0 -0.475407,-1.0915871 -0.561921,-1.0708005 l -0.06885,-0.0044 c -0.03771,-0.00247 -0.169734,-0.00439 -0.416595,-0.00439 h -0.452634 v 1.9240721 2.0368654 l -0.03589,0.027833 c -0.03153,0.022661 -0.03736,0.030214 -0.03003,0.037354 l 1.081633,0.8107913 0.0029,-0.7888185 c 0.0033,-0.72534 0.0044,-0.785103 0.01465,-0.7521975 l 0.466737,1.105224 0.47887,-1.1484376 0.0037,1.0437012 0.0037,1.0437012 1.010876,0.749268 0.0029,-2.90918 0.0037,-2.7978517 z"/>
 <path style="fill:#f4f4f7" d="M 1.6250334,5.0018695 2.009799,5.3827289 v 2.6914063 c 0,1.48065 0.00133,2.7933848 0.00391,2.9179698 v 0.002 c 0.00333,0.160325 0.00816,0.384165 0.013672,0.380859 0.018459,-0.01101 2.051731,-2.2250615 2.0551365,-2.2304694 0.00202,-0.0033 -0.015581,-0.020582 -0.039063,-0.037109 L 4.0004823,9.0780414 V 7.165932 5.2557758 l -0.1621093,-0.125 -0.1621093,-0.125 -0.7387303,-0.00195 c -0.8860372,-0.00143 -1.3169052,-0.00608 -1.3125,-0.00195 z m 1.500449,0.7402344 0.064453,0.029297 0.0625,0.029297 v 1.046875 1.875 L 2.7617522,9.5350726 c -0.013193,0.00454 -0.014576,-1.379312 -0.011719,-2.4746093 l 0.00195,-1.3144531 0.4941407,-0.00195 z"/>
 <path style="fill:#f4f4f7" d="M 9.678105,4.9999164 9.8380753,5.1268695 9.9961854,5.2557758 V 7.1053852 8.9549945 L 8.8798364,10.249916 7.9962798,9.5389789 7.9981399,7.3983539 8,5.2557758 8.1543899,5.1268695 8.3125,4.9999164 H 8.7461854 Z M 8.9021578,5.7557758 c -0.04688,-0.00401 -0.054671,-0.00324 -0.1209077,0.029297 l -0.068825,0.035156 -0.00186,1.6894531 c -2.69e-4,0.7438958 0.00457,1.6897355 0.0093,1.6894532 L 9.2800396,8.4022602 v -1.140625 l 0.00186,-1.4433594 -0.065104,-0.029297 -0.065104,-0.03125 H 8.8019868 c -0.19213,0 0.127692,4.169e-4 0.1001688,-0.00195 z"/>
</svg>
