<svg xmlns="http://www.w3.org/2000/svg" width="16" height="16" version="1">
 <path style="fill:#c2352a" d="M 9.2558594,1.0019531 C 8.9491172,0.9945535 8.532071,1.0018152 8.0390625,1.09375 7.5747783,1.1803287 6.881115,1.3719417 6.2363281,1.8964844 5.5466791,2.4575228 5.1547007,3.2760379 5.0703125,4.2128906 4.5462503,4.3209234 3.9837057,4.4489096 3.6386719,4.8339844 3.1834078,5.3420816 3.0019531,5.9420992 3.0019531,6.5136719 c 0,0.5715726 0.1814547,1.1696371 0.6367188,1.6777343 0.014687,0.016391 0.045232,0.011353 0.060547,0.027344 C 3.2875369,8.9010187 3.0002238,9.663624 3,10.5 3,12.961592 5.0384079,15 7.5,15 9.9615921,15 12,12.961592 12,10.5 V 10.4961 C 11.9986,9.660808 11.710528,8.8999287 11.298828,8.218756 11.315008,8.201925 11.347798,8.208688 11.363278,8.191412 11.818545,7.683309 12,7.0852445 12,6.5136719 12,5.9739579 11.799754,5.4168325 11.398438,4.9277344 11.647208,4.5746861 11.927199,4.2250352 11.976562,3.8339844 12.047958,3.2683984 11.945269,2.6530611 11.560547,2.09375 11.17614,1.5348961 10.464924,1.1226087 9.8027344,1.0410156 h -0.00195 C 9.783691,1.0388913 9.5519657,1.0090963 9.2558594,1.0019531 Z"/>
 <path style="fill:#f4f4f7" d="M 9.2070312,3.0019531 C 8.9936777,2.9968063 8.7051796,3.0048034 8.40625,3.0605469 8.1073205,3.1162906 7.7824591,3.2158925 7.4980469,3.4472656 7.2136346,3.6786387 7.0019531,4.0721936 7.0019531,4.5175781 V 6.0136719 H 5.5058594 a 0.49904991,0.49904991 0 1 0 0,0.9980469 H 7.0019531 V 8.0507812 A 2.5,2.5 0 0 0 5,10.5 2.5,2.5 0 0 0 7.5,13 2.5,2.5 0 0 0 10,10.5 2.5,2.5 0 0 0 8,8.0546875 V 7.0117188 h 1.4960938 a 0.49904991,0.49904991 0 1 0 0,-0.9980469 H 8 V 4.5175781 C 8,4.3374627 8.037284,4.2956032 8.1269531,4.2226562 c 0.089669,-0.072947 0.2630452,-0.144374 0.4628907,-0.1816406 0.3996908,-0.074533 0.84375,-0.025391 0.84375,-0.025391 a 0.49904991,0.49904991 0 1 0 0.125,-0.9902344 c 0,0 -0.138209,-0.018291 -0.3515626,-0.023437 z m -1.8125,6.0019529 a 1.5,1.5 0 0 1 0.013672,0 0.49904991,0.49904991 0 0 0 0.00195,0 0.49904991,0.49904991 0 0 0 0.171875,0 A 1.5,1.5 0 0 1 9,10.5 1.5,1.5 0 0 1 7.5,12 1.5,1.5 0 0 1 6,10.5 1.5,1.5 0 0 1 7.3945312,9.003906 Z"/>
</svg>
