<svg xmlns="http://www.w3.org/2000/svg" width="16" height="16" version="1">
 <rect style="fill:#762276" width="16" height="16" x="0" y="0" rx=".8" ry=".8"/>
 <path style="fill:#ff8118" d="M 12.953203,2.9999934 7.2257816,12.072347 5.896094,10 H 4 L 6.5570316,14 7.9125,13.993 14.836796,3.0000066 Z"/>
 <path style="fill:#abe619" d="M 10.553203,2.9999934 4.8257816,12.072347 3.496094,10 H 1.6 L 4.1570316,14 5.5125,13.993 12.436796,3.0000058 Z"/>
 <path style="fill:none;stroke:#f4f4f7;stroke-width:0.7965728;stroke-linecap:round;stroke-linejoin:round" d="m 14.607347,10.41826 c 0,0 -1.203476,-0.211755 -1.203476,0.79087 0,1.002625 1.203476,0.579115 1.203476,1.58174 0,1.002625 -1.203476,0.79087 -1.203476,0.79087"/>
 <path style="fill:none;stroke:#f4f4f7;stroke-width:0.79950947;stroke-linecap:round;stroke-linejoin:round" d="m 12.211783,11.583 h -0.800331 m 1.200496,-1.197703 c -1.355299,0 -1.200496,0.399344 -1.200496,3.194757"/>
</svg>
