<svg xmlns="http://www.w3.org/2000/svg" width="16" height="16" version="1">
 <path style="fill:#5bbc41" d="M 7,0 C 3.1576961,1.5369215e-7 1.5369215e-7,3.1576961 0,7 c 1.5369215e-7,3.842304 3.1576961,7 7,7 H 7.00195 7.0039 c 0.797734,-0.0013 1.568283,-0.177376 2.3125,-0.441406 l 1.533203,1.533203 c 0.584189,0.608468 1.489216,0.978967 2.302735,0.9375 0.813519,-0.04147 1.488818,-0.397022 1.984375,-0.892578 0.495556,-0.495557 0.851111,-1.170856 0.892578,-1.984375 0.04147,-0.813519 -0.329032,-1.718546 -0.9375,-2.302735 L 13.558594,9.3164062 C 13.822624,8.5721892 13.998725,7.8016402 14,7.0039062 V 7.0019531 7 C 14,3.1576961 10.842304,1.5369214e-7 7,0 Z"/>
 <path style="fill:#565656" d="M 9.9902344,8.9902344 A 1.0001,1.0001 0 0 0 9.2929688,10.707031 l 3.0000002,3 a 1.0001,1.0001 0 1 0 1.414062,-1.414062 l -3,-3.0000002 A 1.0001,1.0001 0 0 0 9.9902344,8.9902344 Z"/>
 <path style="fill:#f4f4f7" d="M 7 2 A 5.0000002 5.0000002 0 0 0 2 7 A 5.0000002 5.0000002 0 0 0 7 12 A 5.0000002 5.0000002 0 0 0 12 7 A 5.0000002 5.0000002 0 0 0 7 2 z M 7 4 A 3.0000001 3.0000001 0 0 1 10 7 A 3.0000001 3.0000001 0 0 1 7 10 A 3.0000001 3.0000001 0 0 1 4 7 A 3.0000001 3.0000001 0 0 1 7 4 z"/>
</svg>
