<svg xmlns="http://www.w3.org/2000/svg" width="16" height="16" version="1.1">
 <rect style="fill:#2165f0" width="16" height="16" x="0" y="0" rx="2.4" ry="2.4"/>
 <path style="fill:#f4f4f7" d="M 4.8437331,3.0005264 C 4.6767433,3.0033577 4.5103958,3.0166852 4.3504192,3.0324183 3.5909788,3.0797764 4.0637844,3.6455969 4.5272159,3.7584427 5.2862671,3.9749792 5.2820187,4.8369021 4.8310832,5.377976 4.4184267,6.0786698 3.7984362,5.4129676 3.3170607,5.1837452 2.5994094,5.0647779 3.2925606,6.0618914 3.5206547,6.3063013 3.8625245,6.8349319 4.4443742,7.0884859 5.0426806,6.9972918 5.7938101,6.8897669 6.3220648,7.529754 6.8178696,8.0122013 8.214618,9.314263 9.6364139,10.738974 11.041509,12.167463 c 0.206562,0.176812 0.432133,0.378447 0.591157,0.604671 0.771913,0.725078 1.923013,-0.431186 1.060731,-1.357445 C 10.90748,9.7700098 9.0723075,7.8763671 7.4221293,6.2667489 7.1520502,6.0022348 6.8998687,5.7225433 6.7274588,5.378196 6.4359748,4.7744672 6.7468088,3.9679243 6.2064682,3.484562 5.8511534,3.0794156 5.3447046,2.9922398 4.8437331,3.0005264 Z"/>
 <path style="fill:#f4f4f7" d="M 13.000001,3.0000157 12.177317,3.4298088 8.0085391,7.5985865 A 1.1060665,1.1060335 0 0 0 7.4159461,7.4455532 1.1060665,1.1060335 0 0 0 6.6551249,7.7809222 L 3.3372516,11.098796 a 1.1060665,1.1060335 0 1 0 1.5639692,1.563969 L 8.219094,9.3448922 A 1.1060665,1.1060335 0 0 0 8.4014306,7.9914771 L 12.625561,3.7673478 Z"/>
</svg>
