<svg xmlns="http://www.w3.org/2000/svg" width="16" height="16" version="1">
 <circle fill="#f9548f" cx="8" cy="8" r="8"/>
 <path style="fill:#f4f4f7" d="m3.0235 6.0453c0.0662-0.1979 0.078-0.3167 0.1033-0.4319-0.1824 0.228-0.0841 0.2766-0.1033 0.4319m0.3371-1.3757c0.0329 0.297-0.2286 0.4128 0.0578 0.2166 0.1538-0.3384-0.0598-0.0936-0.0578-0.2166m5.0054-2.6009c0.1426-0.0509 0.3501-0.028 0.502-0.0615-0.1975 0.0161-0.3938 0.0258-0.5876 0.0499l0.085637 0.01158m4.5807 5.548-0.0309 0.076131c-0.057 0.3942-0.18 0.7842-0.368 1.146 0.208-0.3816 0.342-0.7991 0.399-1.2221m-5.7974 1.2318c-0.0737-0.0794-0.1165-0.1748-0.1654-0.2701 0.0466 0.167 0.1419 0.3106 0.2304 0.4568l-0.065-0.1866m-0.3275 0.0125-0.0298 0.1444c0.1387 0.1841 0.2488 0.3835 0.4256 0.5269-0.1273-0.2426-0.2217-0.3428-0.3958-0.6713m1.7265-6.6325-0.079386 0.016139 0.073761-0.0066 0.00563-0.00954m-0.2244-0.061c0.1126 0.019585 0.24327 0.034759 0.22449 0.061096 0.12377-0.026579 0.15127-0.050578-0.22441-0.061078m2.3484 5.0723c0.02568-0.37114-0.07465-0.25364-0.10837-0.11227 0.03923 0.020135 0.07041 0.26177 0.10837 0.11227m-0.41756 1.0626c0.126-0.1695 0.218-0.3549 0.25-0.5466-0.029 0.1365-0.104 0.2545-0.176 0.3791-0.3938 0.2426-0.037-0.144 0-0.2911-0.4236 0.5217-0.058 0.3128-0.074 0.4586m-1.1313 0.2754c-0.21081 0.0027 0.03965 0.10592 0.31495 0.14744 0.076336-0.058198 0.14491-0.11668 0.20644-0.17378-0.17116 0.040967-0.34556 0.041927-0.52138 0.026345m-6.0996-2.5325c0.0662-0.1982 0.078-0.3171 0.1033-0.432-0.1825 0.2281-0.0841 0.2768-0.1033 0.432m0.3369-1.3757c0.0329 0.2971-0.2285 0.4126 0.0579 0.2164 0.1538-0.3384-0.0598-0.0933-0.0579-0.2164m5.005-2.6015c0.14237-0.050894 0.35021-0.027998 0.50176-0.061514-0.19726 0.016137-0.39353 0.025792-0.58726 0.049928l0.085508 0.011585m4.5809 5.5485-0.0309 0.076134c-0.057 0.3943-0.18 0.7843-0.368 1.1461 0.208-0.3816 0.342-0.7991 0.399-1.2221m-5.7971 1.2316c-0.0734-0.0794-0.1165-0.1749-0.1654-0.2698 0.0466 0.1671 0.142 0.3106 0.2305 0.4568l-0.0651-0.187m-0.3275 0.0124-0.0298 0.1444c0.1387 0.1842 0.2488 0.3836 0.4256 0.527-0.1273-0.2426-0.2217-0.3428-0.3958-0.6714m1.7263-6.6326-0.079158 0.016137 0.073796-0.00662 0.00536-0.00952m3.144 5.1659c0.01163 0.31162-0.09108 0.46305-0.18398 0.73084l-0.16705 0.082935c-0.13656 0.26493 0.01356 0.1682-0.08424 0.37883-0.21343 0.18922-0.64678 0.59191-0.78549 0.62878-0.10142-0.00228 0.0686-0.11944 0.09083-0.16523-0.286 0.1956-0.229 0.2936-0.6657 0.4127l-0.0127-0.0285c-1.0762 0.5056-2.5713-0.4962-2.5517-1.8629-0.0114 0.0867-0.0327 0.065-0.0565 0.0998-0.0555-0.7031 0.3254-1.4093 0.9677-1.698 0.6283-0.3104 1.3649-0.1832 1.8149 0.2359-0.2474-0.3233-0.7395-0.666-1.3223-0.6343-0.5712 0.0093-1.1057 0.3716-1.2839 0.7651-0.2925 0.1838-0.3266 0.709-0.454 0.8051-0.17171 1.2589 0.3226 1.8025 1.1589 2.4425 0.13126 0.088479 0.036949 0.10203 0.05452 0.16936-0.2778-0.1298-0.532-0.3259-0.7413-0.5659 0.1111 0.1621 0.2309 0.3197 0.3858 0.4436-0.2621-0.0884-0.6121-0.6337-0.714-0.6559 0.4515 0.8071 1.8317 1.4152 2.5548 1.1132-0.3346 0.013-0.7595 0.007-1.1352-0.1314-0.1583-0.0812-0.3726-0.249-0.3342-0.2803 0.98658 0.36773 2.0054 0.27835 2.8588-0.40462 0.21731-0.16897 0.45452-0.45621 0.52312-0.46009-0.10323 0.15503 0.0177 0.074554-0.06163 0.21141 0.21602-0.34838-0.09419-0.14188 0.22351-0.6016l0.11731 0.16123c-0.04392-0.28944 0.35981-0.64048 0.31873-1.0979 0.09263-0.13981 0.10323 0.15066 0.005 0.47234 0.1363-0.3569 0.03605-0.4143 0.07093-0.70894 0.0376 0.099057 0.08759 0.20418 0.11305 0.30879-0.08889-0.34503 0.09083-0.58082 0.13553-0.78141-0.04418-0.019349-0.13708 0.15246-0.15852-0.25487 0.0033-0.17697 0.04949-0.092739 0.06718-0.13633-0.03463-0.019991-0.12597-0.15568-0.1814-0.41584 0.03992-0.06127 0.10749 0.15852 0.16227 0.16742-0.03527-0.20677-0.09586-0.36451-0.09845-0.52328-0.1602-0.33407-0.05672 0.044633-0.18643-0.14343-0.17054-0.53064 0.14135-0.12318 0.16253-0.36412 0.25814 0.37341 0.40529 0.95259 0.47312 1.1923-0.05168-0.2924-0.13501-0.57578-0.23695-0.84987 0.07868 0.033149-0.12648-0.60148 0.10219-0.18122-0.24504-0.89571-1.0445-1.7327-1.7803-2.1254 0.09001 0.082197 0.20378 0.18533 0.16315 0.20159-0.366-0.2174-0.302-0.2346-0.355-0.3264-0.298-0.1211-0.317 0.0099-0.515 0.0003-0.5615-0.2978-0.6697-0.2661-1.1866-0.4524l0.023522 0.1099c-0.3722-0.1239-0.4337 0.0467-0.836 0.0002-0.0244-0.0189 0.129-0.0691 0.2553-0.0873-0.3599 0.0475-0.3431-0.0709-0.6953 0.013 0.0867-0.0607 0.1787-0.1011 0.2712-0.1527-0.2934 0.0178-0.7008 0.1705-0.5751 0.0315-0.4787 0.2133-1.3289 0.5127-1.806 0.9594l-0.015-0.1001c-0.2186 0.2619-0.9534 0.7824-1.0119 1.1221l-0.0586 0.0135c-0.1135 0.1923-0.1873 0.4102-0.2775 0.6079-0.1487 0.2532-0.2181 0.0975-0.1969 0.1372-0.2926 0.5923-0.4382 1.09-0.5637 1.4983 0.0894 0.1335 0.0023 0.8039 0.036 1.3403-0.1468 2.6498 1.8627 5.2228 4.0593 5.8158 0.3219 0.116 0.8006 0.112 1.2079 0.123-0.4804-0.137-0.5424-0.073-1.0106-0.236-0.3376-0.159-0.4115-0.34-0.6507-0.547l0.094701 0.16703c-0.469-0.166-0.2728-0.205-0.6545-0.326l0.1012-0.131c-0.1513-0.012-0.4019-0.256-0.4707-0.392l-0.16641 0.0066c-0.1997-0.246-0.3063-0.423-0.2984-0.561l-0.0538 0.096c-0.0608-0.105-0.7352-0.924-0.3854-0.733-0.065-0.059-0.1514-0.096-0.2451-0.266l0.071192-0.08113c-0.1681-0.217-0.3098-0.494-0.2989-0.586 0.0898 0.121 0.152 0.143 0.2138 0.164-0.4252-1.053-0.4491-0.058-0.7709-1.0718l0.067953-0.0054c-0.0521-0.0788-0.0841-0.1638-0.1259-0.2475l0.0297-0.2948c-0.3059-0.3533-0.0854-1.5023-0.0411-2.1323 0.0303-0.2562 0.2554-0.5292 0.426-0.957l-0.1041-0.0177c0.1992-0.3468 1.1372-1.393 1.5718-1.3393 0.2104-0.2639-0.0419-0.001-0.0831-0.0673 0.4624-0.4776 0.6078-0.3374 0.9198-0.4234 0.3363-0.1993-0.2888 0.0779-0.1294-0.076 0.5818-0.1482 0.4122-0.3372 1.171-0.4124 0.0801 0.0454-0.1857 0.0702-0.2524 0.1291 0.4845-0.2368 1.5335-0.1827 2.2152 0.1313 0.7904 0.3691 1.6784 1.4594 1.7144 2.4852l0.03992 0.010704c-0.02015 0.40785 0.06253 0.87951-0.081 1.3126l0.09703-0.20521m-3.3689-5.2267c0.1126 0.019585 0.24326 0.034757 0.22449 0.0611 0.1236-0.026619 0.1514-0.050618-0.22449-0.0611m2.3491 5.0727c0.02568-0.37115-0.07464-0.25364-0.10837-0.11227 0.03923 0.020137 0.07041 0.26178 0.10837 0.11227m-0.418 1.0626c0.126-0.1695 0.218-0.3549 0.25-0.5466-0.029 0.1365-0.104 0.2544-0.176 0.3791-0.3938 0.2426-0.037-0.144 0-0.2911-0.4236 0.5217-0.058 0.3128-0.074 0.4586m-1.1311 0.2757c-0.2108 0.0027 0.0396 0.1059 0.3149 0.1474 0.0763-0.0582 0.1449-0.1167 0.2064-0.1738-0.1711 0.041-0.3455 0.042-0.5213 0.0264"/>
</svg>
