<svg xmlns="http://www.w3.org/2000/svg" width="16" height="16" version="1">
 <rect fill="#b2bfd9" width="12" height="16" x="-14" y="-16" rx=".75" ry=".8" transform="matrix(0,-1,-1,0,0,0)"/>
 <path style="fill:#4d4d4d" d="M 3.6669778,5.0002775 C 3.2976401,5.0002775 3,5.2578125 3,5.5772 l 0,4.84605 C 3,10.74275 3.2976567,11 3.6669778,11 l 8.6655442,0 C 12.70251,11 13,10.74275 13,10.42325 L 13,5.5769 C 13,5.25755 12.70251,5 12.333356,5 L 3.6669778,5 Z"/>
</svg>
