<svg xmlns="http://www.w3.org/2000/svg" width="16" height="16" version="1">
 <path style="fill:#b2bfd9" d="M 0.8125,16 C 0.36237,16 0,15.643 0,15.2 V 0.8 C 0,0.3568 0.36237,0 0.8125,0 H 12.188 C 12.638,0 13,0.3568 13,0.8 V 11 L 8,16 Z"/>
 <path style="fill:#fafafa" d="M 8,16 V 11.833 C 8,11.373 8.3731,11 8.8333,11 H 13 Z"/>
 <path style="fill:#f3d491" d="M 5,11 V 8.4352 L 7.5648,11 Z"/>
 <path style="fill:#545454" d="M 5,11 V 9.9741 L 6.0259,11 Z"/>
 <path style="fill:#ffbb29" d="M 13.207,0.22798 5,8.4352 7.5648,11 15.772,2.7927 C 15.772,2.7927 16.285,2.2798 15.772,1.7668 L 14.233,0.22798 C 13.72,-0.28497 13.207,0.22798 13.207,0.22798 Z"/>
</svg>
