<svg xmlns="http://www.w3.org/2000/svg" width="16" height="16" version="1">
 <rect style="fill:#3b8c5f" width="15" height="15" x="1" y="1" rx=".75" ry=".75"/>
 <path style="fill:none;stroke:#f4f4f7" d="M 9,8.5 H 11.5 V 12.5 M 12,12.5 H 9.25 C 8.125,12.5 5.5,12.725 5.5,8.6 5.5,4.475 8.125,4.5 9.25,4.5 10.75,4.5 11.675,5.309 11.675,5.309 V 5.309 5.309"/>
</svg>
