<svg xmlns="http://www.w3.org/2000/svg" width="16" height="16" version="1.1">
 <path style="fill:#645b44;fill-rule:evenodd" d="m 15.468793,1.052605 c -0.132446,-0.021053 -0.251436,0.053684 -0.322969,0.1387789 -0.07153,0.085137 -0.121166,0.1906105 -0.164389,0.3235368 -0.07475,0.2300211 -0.349277,1.0838319 -1.3392,1.9277051 C 12.652313,4.286542 10.945229,5.4238708 7.9865501,5.4999973 6.1874764,5.5210487 5.1918945,4.2142182 4.4745024,2.7946395 4.2954662,2.4403655 4.0000065,1.7801551 4.0000065,2.2002394 v 0.6495159 l -0.00914,3.8620338 0.018267,0.044252 c 0,0 0.1611719,0.358021 -0.00913,0.8403791 C 3.829701,8.0788204 2.947531,8.7827725 1.446644,9.2332561 l -0.1834864,0.05453 0.034871,0.193221 c 0.08325,0.468084 0.4150889,0.9478319 0.9049761,1.4389889 0.4898872,0.491116 1.1458026,0.988 1.9095829,1.437221 1.5275601,0.898443 3.4840799,1.608421 5.3850236,1.6416 1.9009438,0.03327 3.7608428,-0.631494 4.9914838,-2.472631 1.230641,-1.8410949 1.830818,-5.3548408 1.339198,-9.9312201 h -8.38e-4 c -0.01563,-0.1256422 -0.04334,-0.2329263 -0.09298,-0.3269474 -0.04964,-0.093979 -0.133235,-0.1910316 -0.265681,-0.212 z"/>
 <path style="opacity:0.3;fill-rule:evenodd" d="m 5,10.999601 c 0.7218625,0 1.379965,0.04294 1.9768893,0 C 7.9685064,10.926951 8.840147,10.99888 9.2808279,10.596697 9.0944246,10.312142 9.1666671,10 9.1666671,10 c 0,0 0.4364767,0.27168 0.7277425,0.716045 C 10.18484,11.159169 9.7921805,11.432169 9.7161721,11.99912 9.5469629,11.501179 9.4411946,11.314421 9.3984346,11.116548 9.0909012,11.619047 8.5611954,11.979448 7.8487361,11.99912 7.0903721,12.01991 6.1249467,11.469873 5.0000003,11.0004 Z"/>
 <path style="fill:#f4f4f7;fill-rule:evenodd" d="m 4.9996293,4.9999977 c -0.4947793,0 -0.9920447,0.16356 -1.3706239,0.5000799 C 3.2504258,5.8365972 3,6.3494372 3,7.0003575 c 0,0.6509199 0.2504258,1.1630398 0.6290054,1.4995598 0.3785792,0.33652 0.8758446,0.50008 1.3706239,0.50008 0.4947796,0 0.992045,-0.16356 1.3706247,-0.50008 C 6.748833,8.1633973 7,7.6512774 7,7.0003575 7,6.3494372 6.748833,5.8365972 6.370254,5.5000776 5.9916743,5.1635577 5.4944089,4.9999977 4.9996293,4.9999977 Z"/>
 <circle style="fill:#17191e" cx="5" cy="7" r="1"/>
 <path style="fill:#17191e;fill-rule:evenodd" d="m 1.8641535,6.9999975 c -0.1109309,0 -0.2197152,0.00625 -0.3254587,0.021665 -0.2819826,0.040834 -0.54306381,0.1386669 -0.7681524,0.2870834 -0.90035416,0.5937089 -1.1374713,1.9392512 -0.025372,3.3482521 1.1120997,1.409042 2.5834532,1.627709 3.4838074,1.034 C 5.1293319,11.09729 5.3673245,9.7517471 4.2552234,8.3427463 3.525409,7.4180795 2.6406693,7.0062879 1.8641532,7.0000795 Z"/>
 <path style="fill:#f4f4f7;fill-rule:evenodd" d="m 8.9996293,4.9999977 c -0.4947793,0 -0.9920447,0.16356 -1.3706239,0.5000799 C 7.2504258,5.8365972 7,6.3494372 7,7.0003575 c 0,0.6509199 0.2504258,1.1630398 0.6290054,1.4995598 0.3785792,0.33652 0.8758446,0.50008 1.3706239,0.50008 0.4947796,0 0.992045,-0.16356 1.3706247,-0.50008 C 10.748833,8.1633973 11,7.6512774 11,7.0003575 11,6.3494372 10.748833,5.8365972 10.370254,5.5000776 9.9916743,5.1635577 9.4944089,4.9999977 8.9996293,4.9999977 Z"/>
 <circle style="fill:#17191e" cx="9" cy="7" r="1"/>
 <path style="fill:#ff9a0c" d="m 12.488681,13.690127 0.324242,-0.645714 C 11.606694,12.161936 9.3548193,11.266448 9.3548193,11.266448 L 9,11.4615 c 0,0 2.044551,1.813383 3.488681,2.228627 z"/>
 <path style="fill:#8a8a8a" d="m 12.099603,12.29999 -0.169078,0.111192 c -0.156604,0.08572 -0.283656,0.231413 -0.386711,0.399911 -0.117922,0.276998 -0.164488,0.450217 -0.144219,0.720851 l 0.245003,-0.04195 c 0,0 1.279237,0.366992 1.884814,0.560006 l 0.07084,-0.136462 0.249374,-0.482674 -1.75002,-0.896513 z"/>
 <path style="fill:#17191e" d="m 16,16 c -0.534423,-1.736394 -0.723971,-3.115086 -2.120593,-2.992403 -1.125484,0.09886 -1.204278,1.64243 -0.04125,2.068371 C 14.958505,15.486284 15.999999,16 16,16 Z"/>
</svg>
