<svg xmlns="http://www.w3.org/2000/svg" width="16" height="16" version="1">
 <rect fill="#e97d10" width="16" height="16" x="0" y="0" rx="8" ry="8"/>
 <g transform="matrix(.95447 0 0 .95447 .36469 .36515)">
  <path fill="#ebebeb" d="m8 1.7143c-1.7411 0-3.3081 0.70537-4.4442 1.8415-1.1373 1.1354-1.8425 2.7029-1.8425 4.4432 0 3.4823 2.8034 6.2857 6.2857 6.2857v-6.2857l4.444-4.4434c-1.135-1.1374-2.7021-1.8426-4.4427-1.8426z"/>
  <path fill="#c4c4c4" d="m12.443 3.5568-4.443 4.4432v6.286c3.4823 0 6.2857-2.8034 6.2857-6.2857 0-1.7411-0.70537-3.3081-1.8415-4.4442z"/>
  <path fill="#5e5e5e" d="m12.321 3.3957-4.6045 4.3218 0.5647 0.5648 4.3218-4.6047-0.282-0.2819z"/>
  <path fill="none" stroke="#f34235" stroke-width=".393" d="m8 8v6.2857"/>
  <path fill="#17191e" d="m5.0006 4.7137-0.2824 0.2824 2.9995 3.2862 0.5647-0.5647z"/>
  <circle fill="#17191e" cx="8" cy="8" r=".393"/>
 </g>
</svg>
