<svg xmlns="http://www.w3.org/2000/svg" width="16" height="16" version="1">
 <rect style="fill:#b2bfd9" width="15" height="15" x="1" y="1" rx=".75" ry=".75"/>
 <path style="fill:#3587e9" d="M 5,1 V 5 H 1 v 1 h 4 v 5 H 1 v 1 h 4 v 4 h 1 v -4 h 5 v 4 h 1 v -4 h 4 V 11 H 12 V 6 h 4 V 5 H 12 V 1 H 11 V 5 H 6 V 1 Z"/>
 <path style="fill:#f4f4f7" d="M 8.4600047,6 C 8.1195791,6 7.7030332,6.0498283 7.4335292,6.14974 7.1687538,6.2496501 6.9458811,6.3683183 6.7662115,6.5045578 l 0.3125001,0.407986 C 7.267837,6.7944688 7.4588599,6.6967777 7.6527131,6.6195749 7.846567,6.5423732 8.1922837,6.5045582 8.4665152,6.5045582 c 0.2836883,0 0.5083437,0.065785 0.6738283,0.1974829 0.1654855,0.1271567 0.2484815,0.3085552 0.2484815,0.5447048 0,0.2770204 -0.1091125,0.4992883 -0.3266064,0.6673171 C 8.8494524,8.0820912 8.4236064,8.2211367 8.0075309,8.2211367 h -0.15842 v 0.455729 h 0.150825 c 0.4491728,0 0.7968883,0.068838 1.042752,0.2050783 0.2505906,0.1316983 0.3765191,0.3489426 0.3765191,0.6532115 0,0.2997278 -0.101595,0.5359805 -0.3049045,0.7085505 -0.1985818,0.168029 -0.524832,0.251736 -0.9787327,0.251736 -0.2269506,0 -0.4637727,-0.02688 -0.7096354,-0.08138 C 7.180071,10.359572 6.9507661,10.279797 6.738,10.175347 v 0.558811 C 6.9460377,10.834078 7.163176,10.90182 7.3901266,10.93815 7.6170771,10.979033 7.863198,11 8.1279736,11 8.5771463,11 8.9434607,10.93815 9.2271485,10.815538 9.515566,10.692922 9.728053,10.523542 9.86517,10.305558 10.002287,10.087574 10.071333,9.8353678 10.071333,9.5492645 10.071333,9.2268301 9.969738,8.965663 9.766428,8.7658446 9.567847,8.5660234 9.2677115,8.4434163 8.8658207,8.398003 V 8.370875 C 9.1826058,8.307296 9.546922,8.1796663 9.736047,7.9889307 9.9299,7.7936535 10.026845,7.5324864 10.026845,7.2055108 10.026845,6.8558287 9.897353,6.5677771 9.637306,6.3407103 9.381987,6.1136477 8.9895553,6 8.4600047,6 Z"/>
</svg>
