<svg xmlns="http://www.w3.org/2000/svg" width="16" height="16" version="1">
 <rect style="fill:#b2bfd9" width="15" height="15" x="1" y="1" rx=".75" ry=".75"/>
 <path style="fill:#4191ef" d="m 3.0181345,2.5 v 2.7692309 c 0,0 0.010833,0.5421162 -0.5696023,0.8323315 L 2.5762531,6.7892879 C 3.534282,6.3102724 3.5,5 3.5,5 h 2.0335323 v 0.061153 c 0,0 0.017188,0.6248902 -0.067988,0.8293211 C 5.3803633,6.0949054 5.3384197,6.2307687 5.0114964,6.2307687 H 4.8191889 L 4.0764616,7 H 4.4610771 4.6533845 C 5.288,7 5.69447,6.5589409 5.8496738,6.1864483 6.0048797,5.8139558 5.9995383,5.4615383 5.9995383,5.4615383 V 2.5 Z M 3.5,3 H 5.5335323 V 3.5 H 3.5 Z m 0,1 H 5.5335323 V 4.4999999 H 3.5 Z"/>
 <path style="fill:#26a269" d="M 12.75 10.5 C 12.611933 10.5 12.5 10.611933 12.5 10.75 C 12.5 10.888069 12.611933 11 12.75 11 C 12.888068 11 13 10.888069 13 10.75 C 13 10.611933 12.888068 10.5 12.75 10.5 z M 12.25 11.5 C 12.111933 11.5 12 11.611933 12 11.75 C 12 11.888069 12.111933 12 12.25 12 C 12.388068 12 12.5 11.888069 12.5 11.75 C 12.5 11.611933 12.388068 11.5 12.25 11.5 z M 13.25 11.5 C 13.111933 11.5 13 11.611933 13 11.75 C 13 11.888069 13.111933 12 13.25 12 C 13.388068 12 13.5 11.888069 13.5 11.75 C 13.5 11.611933 13.388068 11.5 13.25 11.5 z M 14 12.232422 L 13.5 12.5625 L 13.5 13.5 L 13 13.5 L 13 12.892578 L 13 12.5625 L 12.5 12.892578 L 12.5 13.5 L 12 13.5 L 12 12.837891 L 11.453125 13.28125 L 11.453125 13.990234 C 11.453125 14.202651 11.280777 14.375 11.068359 14.375 C 10.629423 14.32275 10.803868 13.963427 10.683594 13.724609 L 10.029297 14.162109 C 10.113647 14.726629 10.597183 14.999207 11.167969 15 C 11.801715 14.999615 11.995462 14.63373 12 14 L 14 14 L 14 12.232422 z"/>
 <path style="fill:#a347ba" d="m 4.3387094,12.337 q 0,-0.216271 -0.070968,-0.374435 -0.070968,-0.161394 -0.1870971,-0.271146 -0.04516,-0.04519 -0.096774,-0.08392 -0.07742,-0.0581 -0.1096781,-0.09038 -0.1290321,-0.12266 -0.1935483,-0.284055 -0.064516,-0.161395 -0.064516,-0.342155 0,-0.187218 0.067742,-0.345385 0.067742,-0.158165 0.1903225,-0.280825 0.1032256,-0.103291 0.2903226,-0.193675 0.1483881,-0.07102 0.332259,-0.07102 0.1838708,0 0.3387096,0.07101 0.1741937,0.07747 0.2903225,0.193673 0.1225804,0.12266 0.1903226,0.280826 0.067742,0.158165 0.067742,0.345383 0,0.196901 -0.067742,0.351839 -0.067742,0.151713 -0.1903226,0.274371 -0.032254,0.03228 -0.1161288,0.09038 -0.025808,0.01935 -0.090323,0.08392 -0.1322579,0.129117 -0.1967737,0.287285 -0.06129,0.15494 -0.06129,0.358295 0.2193546,0 0.380645,-0.07425 0.1645159,-0.07747 0.2709676,-0.183991 0.041936,-0.04196 0.080646,-0.0936 0.058065,-0.0807 0.090323,-0.112979 0.1258062,-0.125884 0.2870966,-0.190443 0.16129,-0.06779 0.3419355,-0.06779 0.1870966,0 0.3451617,0.06779 0.1580637,0.06779 0.2806445,0.190443 0.1161293,0.116205 0.1935484,0.290513 0.067741,0.151717 0.067741,0.335706 0,0.18399 -0.067742,0.3357 -0.077419,0.174304 -0.1935484,0.29051 -0.1225808,0.12266 -0.2806445,0.190442 -0.1580651,0.06778 -0.3451617,0.06778 -0.1806455,0 -0.3419355,-0.06455 -0.1612904,-0.06777 -0.2870966,-0.193668 -0.032254,-0.03228 -0.090323,-0.112978 -0.038708,-0.05164 -0.080646,-0.09361 -0.132258,-0.125887 -0.2903226,-0.190444 -0.1548388,-0.06779 -0.36129,-0.06779 0,0.219493 0.074193,0.384119 0.07742,0.161392 0.1838708,0.267911 0.041936,0.04197 0.093549,0.0807 0.080645,0.0581 0.1129029,0.09038 0.1258066,0.125889 0.1903225,0.287281 0.067742,0.161394 0.067742,0.342157 0,0.187215 -0.067742,0.345382 -0.067742,0.158168 -0.1903225,0.280825 Q 5.0096765,14.854743 4.8354828,14.93221 4.6838699,15 4.4999991,15 4.3161281,15 4.1645152,14.93221 3.9903218,14.85474 3.8741927,14.738536 3.7516119,14.615879 3.6838702,14.457711 q -0.067742,-0.158167 -0.067742,-0.345382 0,-0.180763 0.064516,-0.342157 0.067742,-0.161392 0.1935483,-0.287281 0.032254,-0.03228 0.1129029,-0.09038 0.051613,-0.03873 0.093548,-0.0807 0.1258066,-0.132342 0.1903229,-0.287279 0.067742,-0.15817 0.067742,-0.364752 -0.2032255,0 -0.3645159,0.06779 -0.158065,0.06455 -0.2838709,0.190445 -0.04516,0.04519 -0.083871,0.09683 -0.058065,0.07747 -0.090323,0.109744 -0.1225804,0.129115 -0.2838709,0.193668 -0.1612901,0.06455 -0.3419355,0.06455 -0.1870968,0 -0.3451613,-0.06778 Q 2.3870967,13.247264 2.2645159,13.124604 2.1580643,13.021311 2.0709676,12.834094 2,12.685611 2,12.501621 q 0,-0.18399 0.070968,-0.338926 0.07742,-0.174308 0.1935482,-0.290513 0.1225809,-0.122658 0.2806454,-0.190442 0.1580645,-0.06779 0.3451612,-0.06779 0.1967743,0 0.3483876,0.06779 0.1548385,0.06779 0.2774189,0.190442 0.032254,0.03228 0.090323,0.116205 0.019359,0.02583 0.083871,0.09038 0.1290322,0.129115 0.2870968,0.193675 0.1580646,0.06455 0.36129,0.06455 z"/>
 <rect style="fill:#ffb820" width="5" height="5" x="10" y="2" rx="2.334" ry="2.334"/>
 <path style="fill:#c01c27" d="m 11.75,5.5 h 1.5 c 0,0 0,0.5 -0.75,0.5 -0.75,0 -0.75,-0.5 -0.75,-0.5 z"/>
 <rect style="fill:#f4f4f7" width="1.5" height=".5" x="11.75" y="5"/>
 <path style="opacity:0.1" d="M 8 1 L 8 8 L 1 8 L 1 9 L 8 9 L 8 16 L 9 16 L 9 9 L 16 9 L 16 8 L 9 8 L 9 1 L 8 1 z"/>
 <rect style="fill:#b45600" width=".5" height="1" x="11" y="3.5"/>
 <rect style="fill:#b45600" width=".5" height="1" x="13.5" y="3.5"/>
</svg>
