<svg xmlns="http://www.w3.org/2000/svg" width="16" height="16" version="1">
 <rect style="fill:#b2bfd9" width="16" height="16" x="0" y="0" rx=".8" ry=".8"/>
 <path style="fill:#e2450e" d="M 7.285511,12.980139 C 7.0136757,12.945929 6.4952379,12.817817 6.2523339,12.724824 5.2522997,12.341974 4.5240903,11.579722 4.2094154,10.5864 4.0332572,10.030316 4.0342077,10.050112 4.0095986,6.4312506 3.995931,4.4227853 4.0008688,3 4.0008688,3 h 3.053491 L 5.8188532,6 H 7 V 7.9999973 10 H 8.1112109 9 V 6.7088833 3 h 3 c 0,0 -2.76e-4,2.2143706 -2.6e-5,4.787781 3.59e-4,4.423923 -0.0025,4.680524 -0.05575,4.708204 -0.141838,0.07382 -1.628587,0.332338 -2.5151654,0.43734 -0.5085011,0.06022 -1.810992,0.08868 -2.1435713,0.04682 z"/>
</svg>
