<svg xmlns="http://www.w3.org/2000/svg" width="16" height="16" version="1">
 <path style="fill:#e44332" d="M 1.9998752,0 A 2.0043692,2.007 0 0 0 8e-8,2 v 12 c 0,1.1 0.89981896,2 1.99987512,2 H 14.000125 C 15.100181,16 16,15.1 16,14 V 2 C 16,0.9 15.100181,0 14.000125,0 Z"/>
 <path style="fill:#f4f4f7" d="M 9.0839844 2 A 0.5054316 0.5409675 0 0 0 8.8261719 2.0742188 C 8.7486459 2.1227118 3.5750161 5.3397055 3.4023438 5.4453125 C 3.1949354 5.5724724 2.9388231 5.5746274 2.7324219 5.4453125 L 0 3.7285156 L 0 5.1875 C 0.66501508 5.6066959 2.3180292 6.6474179 2.71875 6.8925781 C 2.9578732 7.0380567 3.1869 7.0344407 3.4179688 6.890625 L 9.8945312 2.8613281 C 10.032972 2.7751177 10.040321 2.5094325 9.8847656 2.4140625 C 9.7297116 2.318154 9.4359163 2.1378661 9.3261719 2.0683594 A 0.5054316 0.5409675 0 0 0 9.0839844 2 z M 9.0839844 5 A 0.5054316 0.54096752 0 0 0 8.8261719 5.0742188 C 8.7486459 5.122712 3.5750161 8.339706 3.4023438 8.4453125 C 3.1949354 8.5724729 2.9388231 8.5746278 2.7324219 8.4453125 L 0 6.7285156 L 0 8.1875 C 0.66501508 8.6066958 2.3180292 9.6474179 2.71875 9.8925781 C 2.9578732 10.038057 3.1869 10.034443 3.4179688 9.890625 L 9.8945312 5.8613281 C 10.032972 5.7751182 10.040321 5.5094326 9.8847656 5.4140625 C 9.7297116 5.3181541 9.4359163 5.137866 9.3261719 5.0683594 A 0.5054316 0.54096752 0 0 0 9.0839844 5 z M 9.0839844 8 A 0.5054316 0.54096764 0 0 0 8.8261719 8.0742188 C 8.7486459 8.1227118 3.5750161 11.339705 3.4023438 11.445312 C 3.1949354 11.572472 2.9388231 11.574628 2.7324219 11.445312 L 0 9.7285156 L 0 11.1875 C 0.66501508 11.606696 2.3180292 12.647419 2.71875 12.892578 C 2.9578732 13.038058 3.1869 13.034419 3.4179688 12.890625 L 9.8945312 8.8613281 C 10.032972 8.7751177 10.040321 8.509433 9.8847656 8.4140625 C 9.7297116 8.3181541 9.4359163 8.1378657 9.3261719 8.0683594 A 0.5054316 0.54096764 0 0 0 9.0839844 8 z"/>
</svg>
