<svg xmlns="http://www.w3.org/2000/svg" width="16" height="16" x="0" y="0" version="1.1" xml:space="preserve">
 <path style="fill:#119184" d="m 14.890938,5.5379553 c -0.247,-1.2990785 -0.839,-2.4337573 -1.773,-3.4020339 -0.394,-0.4087967 -0.836,-0.7640284 -1.324,-1.0655948 C 10.885938,0.50865407 9.8961385,0.1645159 8.8230385,0.04257773 8.6922185,0.02765159 8.5595285,0.02961398 8.4305685,6e-6 h -0.92587 c -0.010018,0.02243426 -0.031483,0.01424931 -0.048513,0.01578017 -0.23841,0.02021657 -0.47566,0.04632029 -0.71096,0.08923544 -1.7194,0.31328067 -3.1315,1.12526729 -4.2244,2.43696119 -0.899,1.0787108 -1.3941,2.3162145 -1.5011,3.6959911 -0.051797,0.6687226 -0.0016,1.6319831 0.15078,2.2856774 0.11317,0.4862509 0.28222,0.9560417 0.50945,1.4051074 0.019954,0.038214 0.039646,0.076439 0.059956,0.1146493 0.37331,0.707029 0.85349,1.337125 1.4553,1.881286 0.31681,0.286458 0.65544,0.545623 1.022,0.769555 0.97059,0.59253 2.0201,1.17653 3.1442,1.292871 l 0.24664,0.02552 c 0.081775,0.0011 0.39255,0.02048 0.39202,0.100833 -0.0037,0.685703 -0.00213,1.114454 -0.00196,1.800287 8.9e-5,0.02661 0.00219,0.05316 0.00381,0.08624 0,0 0.27468,-0.124101 0.50812,-0.234215 1.1635,-0.568631 2.2389995,-1.265437 3.2097995,-2.114369 0.2181,-0.190662 0.42679,-0.390454 0.6275,-0.598517 0.08594,-0.08898 0.17118,-0.179488 0.2573,-0.268376 0.13304,-0.136836 0.24816,-0.289702 0.37357,-0.433787 0.14484,-0.166182 0.27486,-0.342847 0.40311,-0.520633 0.28355,-0.392927 0.53677,-0.802825 0.74963,-1.235802 0.10767,-0.218896 0.2102,-0.439504 0.30094,-0.665308 0.003,-0.00422 0.0071,-0.00805 0.009,-0.01263 0.24728,-0.6183113 0.40577,-1.2581288 0.49012,-1.9145264 0.02946,-0.2286278 0.04851,-0.4586973 0.06058,-0.6886067 0.02572,-0.4950415 -0.0075,-1.2880652 -0.10031,-1.775157 z"/>
 <rect style="fill:#f4f4f7" width="6" height="6" x="4" y="4" rx="1.125" ry="1.286"/>
 <path style="fill:#f4f4f7" transform="matrix(0.5534696,0,0,0.66762253,-6.2952592,-5.6813848)" d="m 34.862365,23.167431 -3.613568,-2.086294 -3.613568,-2.086295 3.613568,-2.086294 3.613568,-2.086294 0,4.172589 z"/>
</svg>
