<svg xmlns="http://www.w3.org/2000/svg" width="16" height="16" version="1.1">
 <path style="fill:#306ed2" d="m 3.5612822,10.435803 c 0.015005,0.215634 -0.7928856,0.461865 -0.6723871,0.648757 l 0.080783,3.013801 c 0.09054,0.140323 -0.093864,0.595437 0.04204,0.688748 C 3.2135692,14.925786 3.4510173,14.999986 3.6933594,15 l 8.6152346,0 c 0.411534,3.3e-5 0.795102,-0.212374 1.023437,-0.566406 l 2.462891,-3.81836 c 0.05497,-0.08607 0.09947,-0.178185 0.132812,-0.27539 l 0,-0.002 c 4.75e-4,-0.0014 0.0015,-0.0025 0.002,-0.0039 0.03734,-0.108753 0.05458,-0.221088 0.0625,-0.333984 L 15.822997,9.664729 5.0284948,10 Z"/>
 <path style="fill:#05ab5f" d="M 5.5386746,0.99999994 C 5.1009322,0.9999392 4.6960898,1.2402666 4.4754155,1.6311848 L 0.1676887,9.2676867 c -0.2369369,0.4199946 -0.22177781,0.9428753 0.0390643,1.3474393 L 2.668514,14.433377 c 0.09054,0.140323 0.2071518,0.260638 0.3430557,0.353949 L 10.56419,0.99999994 Z"/>
 <path style="fill:#ffbc3b" d="M 5.5390625 1 C 5.5165471 1.0003741 5.4931636 1.0022573 5.4707031 1.0039062 L 10.328125 10 L 15.990234 10 C 16.00794 9.7471684 15.959727 9.4912013 15.833984 9.2675781 L 11.525391 1.6308594 C 11.304716 1.2399412 10.900633 0.99993926 10.462891 1 L 5.5390625 1 z M 15.990234 10.005859 C 15.982121 10.116702 15.966352 10.22719 15.929688 10.333984 C 15.966381 10.227105 15.981977 10.116693 15.990234 10.005859 z M 0.16601562 10.542969 C 0.17511562 10.559899 0.18352117 10.57727 0.19335938 10.59375 C 0.18352137 10.57726 0.17511593 10.559899 0.16601562 10.542969 z"/>
 <path style="fill:#f4f4f7" d="M 8.3315079,5.0005897 A 0.73333739,0.6250651 0 0 0 7.6662712,5.3100394 L 6.3830591,7.1850473 5.0998464,9.0600552 A 0.73333739,0.6250651 0 0 0 5.7335761,10 l 2.5664243,0 2.5664246,0 A 0.73333739,0.6250651 0 0 0 11.500154,9.0600552 L 10.216942,7.1850473 8.9337299,5.3100394 A 0.73333739,0.6250651 0 0 0 8.3315079,5.0005897 Z"/>
</svg>
