<svg xmlns="http://www.w3.org/2000/svg" width="16" height="16" version="1.1">
 <circle style="fill:#b7b7b7" cx="10" cy="7" r="4"/>
 <path style="fill:#ffc10f" d="m 1,7 a 9,9 0 0 0 8.9999998,9 V 7 Z"/>
 <path style="fill:#4481f6" d="M 8.8157895,-6.0000001e-8 A 6.8157895,6.8157895 0 0 0 2,6.8157895 6.8157895,6.8157895 0 0 0 2.0064796,7 H 9 V 0.00647609 a 6.8157895,6.8157895 0 0 0 -0.1842105,-0.00647615 z"/>
 <path style="fill:#db4533" d="M 9.0000043,1 V 7 H 14.9841 A 5.9999989,5.6 0 0 0 15,6.6 5.9999989,5.6 0 0 0 9,1 Z"/>
 <path style="fill:#f4f4f7" d="M 9.5 4.0136719 A 3.7777778 3.4999998 0 0 0 6 7.5 A 3.7777778 3.4999998 0 0 0 9.7773438 11 A 3.7777778 3.4999998 0 0 0 10 10.992188 L 10 8 L 9.5 8 L 9.5 4.0136719 z"/>
 <circle style="fill:#f4f4f7" cx="9.5" cy="6.5" r="2.5"/>
</svg>
