<svg xmlns="http://www.w3.org/2000/svg" width="16" height="16" version="1">
 <path style="fill:#dfd92a" d="M 16,13.6 C 16,5.6000001 10.399999,4.6e-7 2.3999999,4.6e-7 1.1999999,4.6e-7 4.0000013e-8,1.2000004 4.0000013e-8,2.4000003 V 13.6 C 4.0000013e-8,14.8 1.1999999,16 2.3999999,16 H 13.6 c 1.2,0 2.4,-1.2 2.4,-2.4 z"/>
 <path style="fill:#db3151" d="M 11.000001,14.35 C 11.000001,8.85 7.15,5 1.6500004,5 0.82500044,5 4.3999999e-7,5.8249999 4.3999999e-7,6.6500004 V 14.35 C 4.3999999e-7,15.175 0.82500044,16 1.6500004,16 h 7.6999999 c 0.8250007,0 1.6500007,-0.825 1.6500007,-1.65 z"/>
 <path style="fill:#17191e" d="m 5.0000004,15.25 c 0,-2.5 -1.75,-4.25 -4.24999994,-4.25 C 0.37500045,11 4.3999999e-7,11.375 4.3999999e-7,11.75 v 3.5 C 4.3999999e-7,15.625 0.37500045,16 0.75000046,16 H 4.2500008 c 0.3750001,0 0.7499996,-0.375 0.7499996,-0.75 z"/>
</svg>
