<svg xmlns="http://www.w3.org/2000/svg" width="16" height="16" version="1.1">
 <rect style="fill:#4f4f4f" width="16" height="16" x="0" y="0" rx=".8" ry=".8"/>
 <path style="fill:#e03035" d="m 6.7890372,14.350325 c -3.797464,-1.993274 -5.404236,-4.172984 -4.57694,-6.2089726 0.79476,-1.95592 3.660192,-3.911288 8.6976758,-5.935284 1.09022,-0.438036 2.69456,-1.030924 2.72022,-1.005264 0.0082,0.0082 -0.501844,0.29606 -1.13346,0.63966 -2.805852,1.526384 -5.7999478,3.648152 -6.6339358,4.701152 l -0.23106,0.291732 0.623648,-0.418524 c 0.865088,-0.580552 2.119412,-1.259584 3.22986,-1.748492 0.9797518,-0.431368 3.1488918,-1.263568 3.2894158,-1.261996 0.0447,4e-4 -0.184552,0.145132 -0.50946,0.321404 -1.95014,1.058016 -4.2244958,2.869448 -5.0888598,4.0530796 -0.250456,0.3429656 -0.259084,0.3460772 0.571428,-0.2060088 0.324908,-0.2159836 0.912136,-0.5722768 1.304956,-0.7917628 0.7483518,-0.41814 2.3123278,-1.17348 2.3505718,-1.135236 0.01224,0.01224 -0.218848,0.183416 -0.513532,0.380388 -1.202944,0.804088 -2.8151398,2.24779 -3.3413238,2.9921172 -0.155396,0.21982 -0.138708,0.2137404 0.428928,-0.1562632 0.546968,-0.3565332 2.5002838,-1.3581868 2.6485838,-1.3581868 0.03588,0 -0.167036,0.1727348 -0.45088,0.3838544 -1.1547798,0.8589092 -2.4578638,2.179504 -2.9264478,2.965776 -0.144728,0.242845 -0.315284,0.652848 -0.37902,0.911118 -0.105952,0.42935 -0.106744,0.515958 -0.00924,1.010867 0.102384,0.519684 0.31248,1.0222 0.713364,1.706256 0.102988,0.175737 0.160824,0.318953 0.128524,0.318259 -0.03228,-6.8e-4 -0.443156,-0.203046 -0.913012,-0.449673 z"/>
 <path style="fill:#f4f4f7" d="M 8.4573816,3.64375 C 8.4441856,3.63051 8.1749952,3.7539164 7.715194,3.9984376 3.70021,6.1335976 2.106772,7.934286 2.583944,9.7968752 2.797144,10.62907 3.400482,11.453036 4.415194,12.3 c 0.365652,0.305205 0.6795644,0.555469 0.6976564,0.555469 0.01808,0 -0.2071932,-0.238783 -0.5007812,-0.530469 -1.53396,-1.524045 -2.00345,-2.934186 -1.40625,-4.225 0.56278,-1.2164088 2.480848,-2.8870312 4.7875,-4.1695312 C 8.323098,3.7471108 8.4676456,3.6540488 8.4573816,3.64375 Z M 8.923788,5.3054688 C 8.8639832,5.3222128 8.4418072,5.5558936 7.871444,5.8921876 5.067692,7.5453084 4.2178452,8.7206576 4.6120692,10.396875 l 0.128906,0.546875 0.044531,-0.729688 C 4.8101064,9.812706 4.8820308,9.3449756 4.9456628,9.1742188 5.3246628,8.15715 6.382578,7.0539344 8.115194,5.8703124 8.450918,5.6409684 8.784166,5.4141852 8.855038,5.3656248 8.923412,5.318776 8.9437228,5.299888 8.923788,5.3054688 Z M 8.6472252,7.3093752 C 8.6397532,7.2882672 8.4244708,7.4257308 8.0019128,7.7242188 6.9033488,8.5002296 6.4832824,9.08994 6.3503504,10.040625 l -0.039064,0.278125 0.092969,-0.244531 C 6.4555152,9.9400252 6.5925824,9.642228 6.7089424,9.4117188 6.9851344,8.8645852 7.4022172,8.3764608 8.0456612,7.8468752 8.4547052,7.5102116 8.6546944,7.330482 8.6472236,7.3093752 Z M 8.2269128,8.9765624 c -0.013056,-0.0026 -0.076007,0.03716 -0.18125,0.108594 -0.573584,0.3893256 -0.8798316,0.754112 -1.0046876,1.1984376 -0.0352,0.125241 -0.0018,0.09962 0.11875,-0.09297 C 7.2517732,10.043677 7.558998,9.6872644 7.842538,9.3984376 8.1316728,9.1039124 8.2486736,8.9808808 8.2269128,8.9765624 Z"/>
</svg>
