<svg xmlns="http://www.w3.org/2000/svg" width="16" height="16" version="1">
 <path style="fill:#4f4f4f" d="M 3.5110028,3.8095229 0.81183814,6.8489554 C 0.25538569,7.4754643 0.25613285,8.5237832 0.81260784,9.1502929 L 6.4776941,15.529753 c 0.5564525,0.62651 1.4881593,0.627228 2.0446118,7.62e-4 L 14.188162,9.1510369 c 0.556452,-0.6265097 0.556452,-1.6755722 0,-2.3020815 L 11.488997,3.8095229 Z"/>
 <path style="fill:#b2bfd9" d="M 7.4997821,9.1780181e-8 C 7.1069076,9.1780181e-8 6.7137702,0.14643627 6.4200871,0.44011279 L 0.4401059,6.4207655 c -0.58736693,0.5873523 -0.58653372,1.5702926 8.5658e-4,2.157646 L 6.420944,14.559064 c 0.5873671,0.587353 1.5711827,0.588186 2.1585498,8.68e-4 L 14.559475,8.5792803 c 0.587366,-0.5873533 0.587367,-1.571135 0,-2.1584875 L 8.579478,0.44011279 C 8.2857948,0.14643631 7.892657,9.1780181e-8 7.4997821,9.1780181e-8 Z"/>
 <path style="fill:#008f23" d="M 7.2421875 0.99023438 L 7.1601562 1.0429688 L 7.1269531 1.1445312 L 7.1113281 1.2558594 L 7.0585938 1.4316406 L 7.0214844 1.3730469 L 7.0371094 1.5878906 L 7.0273438 1.6347656 L 7.0273438 1.7148438 L 7.0585938 1.7792969 L 7.0859375 1.8652344 L 7.1386719 1.9355469 L 7.1601562 1.9648438 L 7.1777344 2.046875 L 7.1113281 2.0957031 L 7.1386719 2.1699219 L 7.0742188 2.25 L 7.0859375 2.3125 L 7.1015625 2.3769531 L 7.15625 2.4414062 L 7.203125 2.5 L 7.2675781 2.5546875 L 7.2773438 2.6035156 L 7.2558594 2.671875 L 7.203125 2.71875 L 7.1777344 2.7597656 L 7.1855469 2.859375 L 7.2675781 2.9121094 L 7.3144531 2.9609375 L 7.34375 3.0625 L 7.2558594 3.1640625 L 7.2421875 3.2363281 L 7.2773438 3.3183594 L 7.3320312 3.3828125 L 7.3320312 3.4453125 L 7.3710938 3.4960938 L 7.40625 3.5371094 L 7.4355469 3.5839844 L 7.4179688 3.6660156 L 7.4707031 3.7402344 L 7.5195312 3.7519531 L 7.5351562 3.7890625 L 7.5195312 3.8515625 L 7.5644531 3.9433594 L 7.6113281 3.9804688 L 7.6484375 4.0546875 L 7.6113281 4.1835938 L 7.6640625 4.2988281 L 7.7148438 4.3222656 L 7.7402344 4.375 L 7.75 4.5253906 L 7.7226562 4.5898438 L 7.6972656 4.6640625 L 7.7734375 5.0429688 L 7.9082031 5.1289062 L 7.8964844 6.7695312 L 7.7402344 8.5410156 L 7.6484375 9.5683594 L 7.4960938 10.814453 L 7.4375 10.964844 L 6.9394531 10.117188 L 6.7695312 8.9785156 L 6.5488281 7.1308594 L 6.2851562 5.4179688 L 6.3046875 6.9824219 L 6.3964844 8.2753906 L 6.5566406 9.5078125 L 5.4472656 7.7578125 L 3.8515625 5.3789062 L 3.4863281 4.8730469 L 3.4550781 4.8730469 L 3.5605469 5.1757812 L 3.7597656 5.6679688 L 4.0507812 6.3242188 L 4.5605469 7.4101562 L 4.8671875 7.9550781 L 5.2480469 8.6113281 L 6.0332031 9.8496094 L 6.7441406 10.972656 L 6.8535156 11.980469 L 7.1914062 14.277344 L 6.8007812 13.070312 L 5.9726562 11.042969 L 5.3125 9.6796875 L 4.4355469 8.2636719 L 3.9921875 7.6816406 L 3.6367188 7.3300781 L 3.0585938 6.7949219 L 3.2988281 7.0898438 L 3.6875 7.484375 L 3.9160156 7.7402344 L 4.0683594 8.0019531 L 4.25 8.2910156 L 4.546875 8.7988281 L 4.8027344 9.2675781 L 5.0664062 9.8496094 L 5.3886719 10.625 L 6.0175781 12.244141 L 6.6777344 13.951172 L 6.9921875 14.908203 C 7.1795329 14.973057 7.3754946 15.003105 7.5722656 14.994141 L 7.4570312 14.146484 L 7.4765625 13.871094 L 7.59375 13.458984 L 7.7167969 13.082031 L 7.8515625 12.783203 L 8.2890625 13.511719 L 8.7128906 14.283203 L 8.7382812 14.402344 L 9.4648438 13.675781 L 9.7011719 11.916016 L 10.330078 8.8828125 L 10.734375 6.8261719 L 11.558594 5.203125 L 11.679688 4.8671875 L 11.724609 4.6699219 L 11.742188 4.3496094 L 11.691406 4.09375 L 11.574219 3.8632812 L 11.359375 3.6484375 L 11.371094 3.7070312 L 11.476562 3.8164062 L 11.574219 4.0449219 L 11.585938 4.2285156 L 11.451172 4.59375 L 11.277344 4.9902344 L 10.90625 5.6542969 L 11.113281 4.1191406 L 11.169922 3.3300781 L 11.146484 3.3085938 L 11.095703 3.2988281 L 10.679688 6.0585938 L 10.601562 6.1972656 L 9.9160156 7.4785156 L 9.0410156 9.203125 L 8.3046875 10.699219 L 7.8964844 11.742188 L 7.6640625 11.347656 L 7.8085938 11.050781 L 8.609375 9.5234375 L 9.4199219 8.1777344 L 9.7597656 7.5214844 L 10.039062 6.9746094 L 10.115234 6.7890625 L 10.130859 6.6074219 L 10.097656 6.46875 L 10.064453 6.46875 L 10.039062 6.5917969 L 9.8984375 6.9121094 L 9.5605469 7.4785156 L 8.59375 8.9589844 L 8.0429688 9.7714844 L 7.6640625 10.435547 L 7.8964844 8.1464844 L 7.9824219 7.1699219 L 8.0195312 5.1074219 L 8.0136719 5.1074219 L 8.03125 5.0371094 L 8.0839844 4.9082031 L 8.125 4.7910156 L 8.1757812 4.7050781 L 8.1757812 4.5351562 L 8.1601562 4.3222656 L 8.234375 4.1835938 L 8.2011719 3.9804688 L 8.2011719 3.8261719 L 8.2304688 3.7402344 L 8.2890625 3.5488281 L 8.3300781 3.4453125 L 8.2519531 3.3183594 L 8.3183594 3.1894531 L 8.2128906 3.1152344 L 8.1484375 2.9238281 L 8.2402344 2.7734375 L 8.1113281 2.7304688 L 8.0566406 2.6308594 L 8.0566406 2.5449219 L 7.9980469 2.4472656 L 7.9375 2.3945312 L 7.9453125 2.3125 L 7.9453125 2.2246094 L 7.9160156 1.9824219 L 7.8964844 1.84375 L 7.8085938 1.7792969 L 7.7675781 1.7050781 L 7.6699219 1.65625 L 7.6113281 1.5507812 L 7.6230469 1.4316406 L 7.6113281 1.3085938 L 7.546875 1.203125 L 7.4355469 1.1816406 L 7.3320312 1.1445312 L 7.2773438 1.0703125 L 7.2421875 0.99023438 z M 10.285156 7.6875 L 10.173828 8.1523438 L 9.6660156 10.166016 L 9.4199219 11.310547 L 9.1640625 12.691406 L 8.8789062 13.59375 L 8.7773438 13.359375 L 8.1289062 12.164062 L 8.3476562 11.660156 L 9.0566406 10.179688 L 9.4375 9.3847656 L 9.9472656 8.3164062 L 10.285156 7.6875 z M 10.914062 9.1875 L 10.822266 9.7207031 L 10.558594 10.607422 L 10.294922 11.265625 L 10.005859 12.119141 L 9.8515625 12.958984 L 9.7871094 13.353516 L 10.277344 12.863281 L 10.3125 12.574219 L 10.453125 11.908203 L 10.757812 10.712891 L 10.896484 9.8300781 L 10.914062 9.1875 z M 3.2402344 9.7597656 L 3.2617188 9.7832031 L 3.2558594 9.7714844 L 3.2402344 9.7597656 z M 3.2617188 9.7832031 L 3.59375 10.410156 L 3.9003906 11.115234 L 4.359375 12.152344 L 4.5605469 12.611328 L 4.6035156 12.740234 L 5.7832031 13.919922 L 5.6953125 13.753906 L 5.2304688 12.873047 L 4.5761719 11.699219 L 4.1152344 10.945312 L 3.6875 10.294922 L 3.4550781 9.9746094 L 3.2617188 9.7832031 z M 7.1503906 11.621094 L 7.3632812 11.974609 L 7.3183594 12.796875 L 7.2832031 12.822266 L 7.1503906 11.621094 z M 7.5078125 12.212891 L 7.6308594 12.416016 L 7.5351562 12.638672 L 7.4648438 12.689453 L 7.5078125 12.212891 z"/>
</svg>
