<svg xmlns="http://www.w3.org/2000/svg" width="16" height="16" version="1.1">
 <rect style="fill:#4cc4de" width="16" height="16" x="0" y="0" rx="1.6" ry="1.6"/>
 <path style="fill:#3c3c3c" d="m 8.1755107,0.00113064 c -0.1844136,0.003632 -0.367394,0.0205556 -0.547656,0.05391432 -0.1010296,0.0186868 -0.2014612,0.009724 -0.2999999,0.0390684 C 7.2211508,0.12595015 7.11676,0.19717191 7.0137924,0.24257311 5.7848264,0.78517128 4.8716649,1.778777 4.5075421,3.0789362 c -1.384e-4,2.768e-4 -0.1490488,0.5582635 -0.0375,0.9548307 0.00526,0.3928304 -0.041317,0.8012968 0.1156252,1.1665812 0.034324,0.079867 0.049094,0.2209547 0.033592,0.3141099 -0.022972,0.1395252 -0.1400164,0.260642 -0.178906,0.3961528 -0.086498,0.30189 -0.1232936,0.615172 -0.1609376,0.9259204 -0.035016,0.2887396 -0.1332636,0.6069347 -0.1234372,0.8962283 0.00292,0.084158 0.02178,0.1594896 0.010156,0.243786 -0.056328,0.4054264 -0.1856,0.8033588 -0.2617184,1.2064316 -0.031968,0.1694232 -0.063227,0.3410279 -0.077344,0.5133583 -0.019236,0.2384936 0.062752,0.4993256 0.285156,0.6110286 -0.0155,0.347706 -0.060516,0.938493 0.1656252,1.232216 0.164416,0.213302 0.3129072,0.438599 0.422656,0.685259 0.046086,0.103399 0.076367,0.238347 0.1875,0.290669 0.1263564,0.05966 0.334532,-0.0019 0.4617188,-0.02735 L 9.752853,8.5844499 C 9.5842326,8.4187603 9.3927115,8.2249383 9.3067595,8.1093783 c 0,0 -0.030864,-0.3906276 -0.083594,-0.4774156 C 9.406819,7.5872535 9.5909238,7.5319411 9.7661342,7.4616247 9.9090986,7.4043199 10.03655,7.3161496 10.177853,7.2569064 c 0.109334,-0.045954 0.258095,-0.048661 0.352344,-0.1242368 0.09992,-0.080283 0.05583,-0.313718 0.05859,-0.4281896 0.0054,-0.2286664 0.01713,-0.4572356 0.02031,-0.6860404 0.0029,-0.2117796 0.26496,-0.4244284 0.366406,-0.602434 0.342671,-0.6003179 0.07172,-1.3517231 0.05234,-1.9995187 -0.0068,-0.2303275 0.125698,-0.4925319 0.195312,-0.7102631 0.04844,-0.151568 0.09687,-0.3036924 0.145312,-0.4555369 C 11.438922,1.1051406 10.467987,0.41260666 9.4309774,0.15584135 9.3133399,0.12663695 9.1938475,0.14815655 9.0731651,0.12614935 8.9595435,0.10552655 8.8445639,0.04057004 8.7294175,0.02769728 8.5454183,0.00707288 8.3599255,-0.00250272 8.1755107,0.00113064 Z M 4.1192609,9.6033526 v 0.6422844 c 0,0 -0.4115924,-0.212636 0,-0.6422844 z"/>
 <path style="fill:#e2a67f" d="m 6.8926984,6.5247656 c -0.011316,-0.00192 -0.029376,-2.104e-4 -0.057812,0.00703 -0.3511252,0.054654 0.2188156,0.431932 -0.028908,0.686822 C 6.5784772,7.6798743 6.2892036,8.1107187 6.0012912,8.5352235 5.5784124,9.2161471 5.6296188,10.078251 5.8630092,10.814471 5.9479212,11.118143 5.9251432,10.682317 5.9489468,10.570685 5.838096,10.204412 5.7240696,9.8198954 5.7942592,9.429889 5.7594992,9.2178939 6.1765264,8.6331551 5.9567592,9.1095287 5.8224888,9.5029134 5.8414304,9.9433262 5.9747272,10.333931 6.038732,9.9819478 6.1529196,9.639637 6.2442584,9.2962755 6.1532104,9.0867919 6.3532424,8.8491931 6.3333212,9.2142315 6.195612,9.7945134 6.052016,10.375871 6.01379,10.973089 5.8659556,12.42621 5.6625132,13.873583 5.4997272,15.324523 c 0.082531,0.274468 0.3162844,0.641442 0.614844,0.675102 0.867398,0.0015 1.7349455,-0.0015 2.6023435,0 -0.4662704,-0.425998 -0.862126,-0.935395 -1.235156,-1.440841 -0.1104311,-0.399794 0.1526936,-0.77319 0.2328128,-1.155642 0.212762,-0.77972 0.4157292,-1.563817 0.7023436,-2.320661 0.1786048,-0.374486 0.1658456,-0.79978 0.3351564,-1.17127 0.078132,-0.20079 0.2054144,-0.374492 0.322656,-0.5532075 -0.074338,0.3419367 -0.2713392,0.6501335 -0.3671876,0.9618625 0.1518508,-0.120822 0.3919088,-0.5154598 0.2226564,-0.151585 -0.1559404,0.08311 -0.3703784,0.517205 -0.06875,0.283636 0.00104,-0.002 0.0028,-0.0028 0.00392,-0.0047 l -0.11875,0.227378 c -0.1225704,0.07154 -0.2132452,0.170926 -0.2007812,0.381307 -0.1180652,0.415389 -0.3000692,0.808885 -0.3664064,1.237686 -0.022104,0.05459 -0.026452,0.09017 -0.021092,0.116424 l -0.09375,0.521171 c -0.099128,0.326935 -0.109388,0.722063 -0.1968752,1.060316 0.022944,0.31413 -0.2930476,0.695705 -0.00156,0.932171 0.311368,0.367324 0.6172852,0.783106 0.991406,1.075943 0.9174899,0.0026 1.8348535,-0.0026 2.7523435,0 -0.30696,-0.49027 -0.637988,-1.01359 -0.634375,-1.615086 -0.01942,-0.406449 -0.0087,-0.824993 -0.07422,-1.22831 l 0.01016,8e-4 c 0.0149,-0.265657 -0.08405,-0.531336 -0.255469,-0.796994 l 1.0375,-1.680721 -1.9359376,-1.9291957 -0.040625,0.078137 C 9.5880682,8.6646587 9.4519338,8.5070975 9.3028703,8.3625599 9.3067103,8.5851319 9.0406671,9.1604039 9.1364639,8.6469779 9.1836103,8.2366707 9.2551551,7.7697767 8.9544175,7.4311515 8.7106335,7.139102 8.4133615,6.7442308 7.9833239,6.7998068 7.6858719,7.0181544 7.5006019,6.6892876 7.1817612,6.6294688 7.0357392,6.6225488 6.7443716,6.9410472 6.8911364,6.5974328 c 0.0069,-0.027736 0.035508,-0.066872 0.00156,-0.072667 z"/>
 <path style="fill:#f55588" d="m 9.3231671,8.2273651 c -0.029428,0.1261712 0.1236887,0.189468 0.1805579,0.2859156 0.3690964,0.4106796 0.697781,0.8574152 0.943661,1.3533927 0.233721,0.4097616 0.344837,0.9106616 0.171093,1.3634856 -0.113309,0.299656 -0.247076,0.624067 -0.506405,0.824148 -0.2226646,0.06682 -0.4624126,0.06987 -0.6848714,0.148639 l -1.2970043,0.344598 c -0.065889,0.151331 -0.024936,0.190282 0.122864,0.116846 0.5524852,-0.167489 1.1157292,-0.299062 1.6818811,-0.409454 0.4029356,-0.07191 0.7956276,0.312279 1.1844986,0.08516 0.578817,-0.263965 1.000489,-0.857795 1.055915,-1.491347 0.01344,-0.46137 -0.46009,-0.674413 -0.781341,-0.8988956 C 10.905309,9.616689 10.409188,9.2926051 9.9753098,8.8875695 9.7402942,8.6859919 9.5416186,8.4461163 9.3231671,8.2273651 Z M 5.534886,13.007769 c -0.3048395,-0.104879 -0.2117963,0.565124 -0.127344,0.16565 0.071676,-0.0798 0.5045528,-0.152747 0.127344,-0.16565 z m 0.1242188,0.2055 c -0.2525112,0.166656 -0.6265607,0.333167 -0.5790211,0.698627 -0.070279,0.247444 0.4341131,0.53039 0.4640399,0.239798 0.065702,-0.169396 -0.2357651,0.10086 -0.3297191,-0.12858 -0.1562652,-0.381606 0.2924483,-0.54851 0.4422907,-0.770475 l 0.0024,-0.03937 z"/>
 <path style="fill:#e2a57d" d="m 7.6276783,6.1810892 0.5112392,0.4742196 c 0.3632492,0.136678 0.734656,0.308392 1.13076,0.2949988 0.2347151,-0.0022 0.3983563,-0.2010672 0.4685971,-0.4068956 0.2319672,-0.6079824 0.5222194,-1.1977039 0.6791624,-1.8314671 0.02881,-0.1754516 0.06429,-0.3640456 0.01691,-0.5375896 0.01199,0.064219 -0.07031,0.2627136 -0.21622,0.1669928 -0.08645,-0.023968 -0.175166,-0.040767 -0.2601208,-0.069457 -0.00493,0.2086796 -0.077819,-0.086251 -0.010112,-0.1985664 0.090351,-0.185408 0.2358088,-0.3879088 0.4659588,-0.3747328 0.223546,-0.024532 0.18447,-0.26571 0.153436,-0.4248835 -0.05059,-0.2593748 -0.09842,-0.51999 -0.150114,-0.778594 C 10.363593,2.405813 10.25117,2.2311597 10.207041,2.2029596 10.134049,2.4707458 10.08235,2.7433482 10.067638,3.020777 10.020125,3.5055385 9.8371518,3.8742117 9.6315998,4.2212097 9.5091162,4.4380525 9.3280711,4.6503621 9.0651647,4.6825025 8.8728627,4.6970105 8.7319099,4.7519061 8.6462247,4.9340505 8.4801775,5.1242721 8.2767315,5.3582677 8.3553059,5.6313748 8.4069243,5.8455852 8.2400831,5.4024052 8.3309379,5.3032661 8.3998411,5.0955485 8.5668431,4.9446413 8.6873867,4.7678421 8.4988731,4.7678173 8.3545643,4.9277805 8.2566951,5.0716701 c -0.081654,0.246382 -0.1725012,0.5492483 -0.00465,0.7809363 0.039292,0.075976 0.1609592,0.2242992 0.020552,0.096978 -0.183714,-0.174456 -0.2576212,-0.432244 -0.2350248,-0.6802563 -0.00889,-0.1321736 0.09155,-0.3351252 -0.076192,-0.1824376 -0.049529,0.041009 -0.12655,0.067278 -0.1601096,0.1168484 l 0.003,0.8192767 -0.1765944,0.1580732"/>
 <path style="fill:#f89dba" d="m 5.6744804,9.0810823 c 0.022696,0.025744 -0.033076,0.1620872 -0.049408,0.3510279 -0.011072,0.1296972 -0.027264,0.2581488 -0.030448,0.3888152 -0.00775,0.3088106 0.025188,0.6181746 0.1152852,0.9145276 0.04055,0.133296 0.1111328,0.255658 0.1731344,0.379542 v 0.161256 C 5.6982844,10.927715 5.5209972,10.59662 5.4653616,10.199776 5.4469536,10.069247 5.4403136,9.9370582 5.4444616,9.805423 5.4520736,9.5618074 5.5607152,9.2121639 5.6744776,9.0810823"/>
 <path style="fill:#040606" d="m 5.6744804,9.0810823 -0.0014,0.00112 0.00498,0.020348 c 0,0.049969 -0.041104,0.1714996 -0.054667,0.3294347 -0.011208,0.1296972 -0.027264,0.2581488 -0.030584,0.3889536 -6.8e-4,0.028512 -0.00112,0.057167 -0.00112,0.085681 0,0.2804344 0.034736,0.5603154 0.1165304,0.8294004 0.04055,0.133435 0.1114096,0.255934 0.1732732,0.379818 l 0.00152,-8.4e-4 h -0.00168 v 0.161257 h 0.00168 l 0.00152,-6.8e-4 C 5.699773,10.926901 5.5226246,10.596082 5.466989,10.199515 5.452181,10.093902 5.444985,9.9870432 5.444985,9.8803228 c 0,-0.024916 4e-4,-0.04983 0.00112,-0.074746 C 5.453715,9.562238 5.562497,9.2125945 5.6757058,9.0822049 l -0.00124,-0.00112 -0.0014,0.00112 0.0014,-0.00112 -0.0014,-0.00112 C 5.5590266,9.2117389 5.450385,9.561244 5.4426346,9.8054132 c -8.4e-4,0.024916 -0.00112,0.04983 -0.00112,0.074884 0,0.1068588 0.0072,0.2138548 0.022004,0.3197448 0.055774,0.39726 0.2331992,0.728494 0.4179596,1.07703 l 0.00332,-8.4e-4 v -0.161257 -4e-4 l -2.768e-4,-2.77e-4 C 5.822524,10.990276 5.7519412,10.867915 5.7115292,10.734895 5.6297368,10.466227 5.5951372,10.186761 5.5951372,9.906603 c 0,-0.028512 4e-4,-0.057167 0.00112,-0.085681 0.00332,-0.1305276 0.019376,-0.2588412 0.030588,-0.3886768 0.013424,-0.1576579 0.054667,-0.2783587 0.054667,-0.3297115 l -0.00581,-0.022564 -0.00124,-0.00152 -0.0014,0.00152 0.0014,0.00112"/>
 <path style="fill:#f89dba" d="M 7.1896516,6.5415292 7.7282931,6.8376052 7.8199121,6.8013412 7.296633,6.4593104 7.1896518,6.5415304"/>
 <path style="fill:#040606" d="m 7.1896516,6.5415292 -8.4e-4,0.00152 0.5393335,0.2964912 0.092449,-0.03668 0.00304,-0.00124 -0.5271543,-0.344384 -0.1100264,0.084573 0.00236,0.00124 8.4e-4,-0.00152 9.6e-4,0.0014 0.1060124,-0.081528 0.5195431,0.3395388 -0.087882,0.03488 -0.5378111,-0.2957988 -8.4e-4,0.00152 9.6e-4,0.0014 -9.6e-4,-0.0014"/>
 <path style="fill:#f89dba" d="m 6.9355548,6.470798 0.043872,-0.1068588 -0.147116,0.085958 0.1032444,0.0209"/>
 <path style="fill:#040606" d="m 6.9355548,6.470798 0.00152,6.8e-4 0.04401,-0.1069968 0.00192,-0.0047 -0.1555584,0.09094 0.1076732,0.021732 0.0014,2.768e-4 5.6e-4,-0.00124 -0.00152,-6.8e-4 2.772e-4,-0.00168 -0.098677,-0.020072 0.1386732,-0.081113 -0.041934,0.1022908 0.00168,5.6e-4 2.772e-4,-0.00168 -2.772e-4,0.00168"/>
 <path style="fill:#f4f4f7" d="M 6.9614348,6.6244416 7.7237259,5.9921488 7.7051819,4.8299925 6.961436,6.6244416"/>
 <path style="fill:#040606" d="m 6.9614348,6.6244416 0.00112,0.00124 0.7629831,-0.6327084 -0.018684,-1.1631251 -0.00332,-5.6e-4 -0.7436075,1.7944491 0.00264,0.00192 -0.00112,-0.00124 0.00168,5.6e-4 0.7404243,-1.7866979 0.018408,1.1530211 -0.7615991,0.6317392 0.00112,0.0014 0.00168,5.6e-4 -0.00168,-5.6e-4"/>
 <path style="fill:#e2a57d" d="M 7.3456252,6.416538 7.5440867,6.2525128 7.9778231,6.7265944 7.8662751,6.7793312 7.3456252,6.416538"/>
 <path style="fill:#f03a25" d="m 8.9229371,5.9672336 c 0,0 0.4089636,-0.1983528 0.6011967,-0.232404 0,0 0.077502,-0.024776 0.1486388,0.024776 0,0 0.027956,0.024776 0.096048,0.015504 0.040274,-0.0054 0.079717,-0.037372 0.1202668,-0.02118 0.04581,0.018412 0.060756,0.083051 0.050238,0.126514 l -0.074319,0.1177936 c -0.014116,0.022564 0.00208,0.1050592 -0.00248,0.138556 -0.00692,0.049692 -0.026988,0.089003 -0.063109,0.123746 C 9.745581,6.3123072 9.6838558,6.323104 9.611751,6.3260108 9.4557774,6.3323748 9.3386935,6.3131348 9.2144127,6.2129232 9.1108915,6.1291804 9.0549795,6.0131864 8.9229487,5.9672316"/>
 <path style="fill:#f4f4f7" d="m 9.2139863,6.066756 c 0,0 0.1998451,0.1449236 0.2194975,0.1254068 0,0 0.023528,0.0382 -0.038196,0.0382 0,0 -0.1302316,-0.051907 -0.1813,-0.16361"/>
 <path style="fill:#f4f4f7" d="m 9.7797534,6.1709848 c 0,0 -0.00927,0.03128 0.021176,0.015368 0.030448,-0.01578 0.023944,-0.065749 0.023944,-0.065749 0,0 8.4e-4,0.024084 -0.045118,0.050384"/>
 <path style="fill:#de9262" d="m 10.094607,3.9640501 c 0,0 0.05342,-0.097169 0.189327,-0.097169 0,0 0.12262,0.015776 0.184483,-0.046094 0,0 0.03045,0.095924 -0.02906,0.1554436 0,0 -0.06062,0.053291 -0.344747,-0.01218"/>
 <path style="fill:#e2a57d" d="m 10.094607,3.9640501 c 0.0089,-0.00666 0.01678,-0.023484 0.02752,-0.031836 0.04201,-0.042756 0.102406,-0.064312 0.161803,-0.063663 0.0069,4.8e-4 0.03025,0.00272 0.04304,0.00172 0.05057,-0.0014 0.105153,-0.011824 0.142683,-0.048358 -0.006,-1.164e-4 0.0039,0.018832 0.0028,0.025976 0.0065,0.044388 -9.6e-4,0.09442 -0.03418,0.127086 -0.0027,0.00304 -0.02402,0.01176 -0.03389,0.01304 -0.06242,0.01264 -0.126779,0.0058 -0.189276,-0.00264 -0.04033,-0.00592 -0.08034,-0.013872 -0.120061,-0.023024 -0.0032,0.00522 0.009,0.00474 0.01667,0.0073 0.08258,0.017636 0.166963,0.032548 0.25172,0.027628 0.02634,-0.00252 0.05446,-0.00512 0.07722,-0.019796 0.03672,-0.036224 0.04293,-0.092309 0.03348,-0.1408236 -0.0024,-0.00629 -0.0021,-0.027388 -0.01062,-0.013404 -0.03815,0.033788 -0.09123,0.042712 -0.140594,0.043626 -0.02321,5.2e-4 -0.04635,-0.00392 -0.06949,-8.04e-5 -0.06461,0.00678 -0.127451,0.042136 -0.161396,0.09836 0.0018,2.84e-4 0.0024,0.00144 0.0026,-0.00112"/>
 <path style="fill:#f4f4f7" d="m 9.958701,4.2480837 c 0.042903,0.012316 0.086083,0.023808 0.129263,0.035156 0.06671,0.01758 0.153067,0.051353 0.221574,0.028376 0.05522,-0.018548 0.05052,-0.080282 0.05231,-0.1274828 0.0017,-0.041664 0.0033,-0.1036748 -0.04152,-0.1241608 l -0.104352,-0.013568 c 0,0 0.0012,0.1349576 -0.09231,0.1604264 0,0 -0.07889,0.023116 -0.1455934,-0.04374 0,0 -0.019376,0.029068 -0.019376,0.084989"/>
 <path style="fill:#040606" d="m 9.958701,4.2480837 -5.6e-4,0.0018 c 0.043042,0.012316 0.086221,0.023672 0.129401,0.03502 0.05065,0.013424 0.112794,0.036264 0.170229,0.036264 0.01813,0 0.03571,-0.00236 0.05231,-0.00789 0.05674,-0.01924 0.05176,-0.08222 0.05342,-0.129144 l 6.8e-4,-0.025468 c 0,-0.0382 -0.0057,-0.082912 -0.04318,-0.1002148 l -1.38e-4,-1.384e-4 -0.104629,-0.013568 -0.0019,-2.768e-4 v 0.00192 2.768e-4 c 0,0.0065 -0.0015,0.1344036 -0.09107,0.15835 -1.38e-4,1.384e-4 -0.01301,0.00388 -0.03294,0.00388 -0.02892,0 -0.07197,-0.00789 -0.1111326,-0.047062 l -0.00152,-0.00152 -0.00112,0.0018 c -1.384e-4,2.768e-4 -0.019652,0.02962 -0.019652,0.085958 v 0.0014 l 0.00124,4e-4 5.6e-4,-0.0018 h 0.00168 c 0,-0.055506 0.019236,-0.083882 0.0191,-0.08402 l -0.0014,-9.6e-4 -0.00124,0.00124 c 0.03972,0.039864 0.084007,0.048031 0.1134856,0.048031 0.02034,0 0.03377,-0.00388 0.03391,-0.00388 0.09273,-0.025608 0.09342,-0.1551664 0.09356,-0.1618108 v -1.384e-4 l -0.0018,-1.384e-4 -1.38e-4,0.0018 0.104352,0.013568 1.38e-4,-0.0018 -6.8e-4,0.00152 c 0.03529,0.016056 0.0411,0.059104 0.0411,0.097169 l -6.8e-4,0.025332 c -0.0017,0.047754 0.0028,0.1081044 -0.05107,0.1260988 -0.01619,0.0054 -0.03335,0.00761 -0.05121,0.00761 -0.05647,0 -0.118468,-0.0227 -0.169259,-0.036124 -0.04332,-0.011348 -0.08636,-0.02284 -0.1294014,-0.035156 l -4e-4,0.00168 h 0.00168 -0.00168"/>
 <path style="fill:#f4f4f7" d="m 10.016966,4.0926401 c 0,0 0.106704,0.099523 0.131062,-0.024224 h 0.04124 c 0,0 -0.0364,0.1943388 -0.1893276,0.068102 l 0.017024,-0.043879"/>
 <path style="fill:#040606" d="m 10.016966,4.0926401 -0.0012,0.00124 c 1.39e-4,1.384e-4 0.04069,0.0382 0.07861,0.03834 0.0238,1.384e-4 0.04609,-0.015644 0.05536,-0.063534 l -0.0017,-2.768e-4 v 0.00168 h 0.04124 v -0.00168 l -0.0017,-4e-4 c -1.38e-4,1.384e-4 -0.02104,0.109904 -0.09508,0.1093504 -0.02408,0 -0.05425,-0.011348 -0.09148,-0.042218 l -0.00112,0.0014 0.00152,5.6e-4 0.01702,-0.04374 -0.0015,-6.8e-4 -0.0012,0.00124 0.0012,-0.00124 -0.0017,-5.6e-4 -0.017024,0.04374 -4e-4,0.00124 9.6e-4,8.4e-4 c 0.037644,0.031004 0.068506,0.042909 0.093695,0.042909 0.07792,-4e-4 0.09826,-0.1121184 0.0984,-0.1121184 l 4e-4,-0.00208 h -0.04332 -0.0014 l -2.77e-4,0.0014 c -0.0094,0.047201 -0.03003,0.060627 -0.05204,0.060766 -0.03571,1.384e-4 -0.07612,-0.037372 -0.07626,-0.037372 l -0.0018,-0.00168 -9.6e-4,0.00236 0.0017,5.6e-4"/>
 <path style="fill:#3c3c3c" d="m 9.421997,5.2395709 c 0,0 0.00124,0.1061664 0.1426872,0.04028 0,0 0.045118,-0.02796 0.1634472,-0.018412 0,0 0.011072,0.00996 -0.00372,0.013428 0,0 -0.1121016,-0.00484 -0.14504,0.018412 0,0 -0.1584648,0.06215 -0.1573576,-0.053706"/>
 <path style="fill:#3c3c3c" d="m 9.7220418,5.3774349 c 0,0 0.1523752,0.042633 0.2109172,-0.041387 0,0 0.0501,-0.00983 0.022004,0.037648 0,0 -0.1097488,0.051215 -0.2329224,0.00372"/>
 <path style="fill:#f4f4f7" d="M 9.7989906,6.6355148 10.201311,6.3013744 10.194943,5.6157908 9.8160118,6.4738432 9.7989878,6.6355148"/>
 <path style="fill:#17191e" d="m 8.9341475,5.9834284 c 0.1691876,-0.00124 0.3387036,-0.00428 0.5076011,0.00756 0.019456,0.00252 0.039644,0.00348 0.058318,0.00975 0.00507,-0.00744 -0.00607,0.00356 0.00755,-0.00832 -0.018952,0.00252 0.01008,0.030172 0.02826,0.0324 0.054413,0.01878 0.1113252,-0.00284 0.1612176,-0.024964 0.053942,-0.01846 0.1146684,-0.011092 0.1647456,0.015212 0.00596,-0.013004 0.021508,-0.029556 -0.003,-0.0321 -0.061668,-0.027428 -0.1360836,-0.029456 -0.1967124,0.00184 0.011856,0.026492 0.00443,-0.013672 -0.011436,0.00445 -0.040158,0.014804 -0.093938,0.02696 -0.128938,-0.00541 -0.028304,-0.021056 -0.066323,-0.018084 -0.099868,-0.02214 -0.1625139,-0.00941 -0.3254311,-0.00748 -0.4881367,-0.00592 1.332e-4,0.00923 2.668e-4,0.018456 4e-4,0.027684"/>
 <path style="fill:#ff89be;fill-rule:evenodd" d="m 12.912174,8.6636139 0.0262,-0.2514031 c 0.013,-0.3016713 0.01955,-0.509191 0.013,-0.6348897 -0.0066,-0.3142614 -0.11772,-0.5091909 -0.346705,-0.5783353 -0.150376,-0.043968 -0.294302,-0.018785 -0.43168,0.081734 -0.07196,0.056557 -0.15058,0.1382914 -0.235749,0.2515009 l -0.04555,0.062852 C 11.858936,7.4442898 11.78032,7.3248833 11.655943,7.2305675 11.479361,7.0984726 11.217727,7.0545057 10.870991,7.0984726 l 0.117721,-0.5719681 0.01955,-0.1319967 c 0,-0.088032 -0.03276,-0.1697669 -0.08496,-0.2451082 -0.06562,-0.069145 -0.137375,-0.1131117 -0.228889,-0.1382919 -0.104722,-0.025181 -0.209543,-0.0063 -0.301069,0.043968 -0.09817,0.056557 -0.156928,0.1319966 -0.183134,0.2326191 L 10.105694,6.5892504 A 11.186135,10.748209 0 0 1 9.8111878,7.3688532 C 9.6476074,7.4253096 9.4841222,7.48826 9.3205595,7.5511123 L 9.1112203,7.6454361 C 9.0065011,7.6894037 8.9410879,7.7585481 8.9018811,7.8591706 a 0.43176974,0.41486638 0 0 0 0.00655,0.3016713 c 0.026204,0.050262 0.065413,0.094325 0.1111684,0.1319967 -0.084962,-0.0062 -0.1635808,0.0063 -0.2550948,0.043968 a 0.41192034,0.39579407 0 0 0 0.058757,-0.207341 V 8.0916937 C 8.8102635,7.9848769 8.7645067,7.8968445 8.6793371,7.8277001 8.5943743,7.7585557 8.4962039,7.7333755 8.3850351,7.7396677 8.2606615,7.7458658 8.1232867,7.7961241 7.9598019,7.8716643 7.6589423,8.016251 7.3841088,8.2487608 7.1486444,8.5630219 c -0.026204,0.031375 -0.05231,0.06295 -0.071965,0.1005215 a 1.2554305,1.2062817 0 0 0 -0.11772,0.220029 C 6.8935464,9.0281591 6.841239,9.1601561 6.815033,9.2921583 c -0.07186,0.3331319 -0.013,0.5845587 0.176684,0.7479117 0.065413,0.05656 0.143926,0.09432 0.228892,0.119505 0.1373744,0.03768 0.2814027,0.02518 0.4383359,-0.03148 0.1701324,-0.06285 0.3662548,-0.1884563 0.5756032,-0.3709024 L 8.5616139,9.4806152 c 0.045962,0.2325208 0.1571312,0.3772113 0.3402584,0.4336504 0.1961316,0.056552 0.3729112,-0.00619 0.5493971,-0.1822588 0.1113728,-0.1131116 0.2487504,-0.3080671 0.41222,-0.5909254 0.039208,0.2640915 0.1569276,0.4337658 0.3532716,0.5027951 0.287853,0.1131117 0.569247,-0.043968 0.850557,-0.4651402 0.04576,0.056557 0.111169,0.094227 0.176581,0.1131116 0.163581,0.062852 0.3205,0.031379 0.464423,-0.081734 0.111169,-0.081737 0.242097,-0.2326191 0.379477,-0.4526363 l -0.08496,0.96805 C 11.008357,9.8827036 9.8177222,10.121523 8.4503311,10.44218 a 80.093288,76.957716 0 0 0 -3.5000334,0.892511 c -0.1897868,0.05036 -0.3794776,0.100521 -0.5691564,0.157274 L 3.0530594,11.86278 2.536315,12.013662 c -0.1047192,0.03138 -0.189787,0.09432 -0.242097,0.188555 -0.045759,0.100619 -0.058862,0.194848 -0.026206,0.30167 0.039309,0.10062 0.1046172,0.182357 0.2027878,0.226422 0.098066,0.05027 0.202788,0.06286 0.307396,0.03137 L 3.301597,12.6108 C 3.7399329,12.485098 4.1912525,12.353101 4.6623613,12.227394 A 103.03705,99.003255 0 0 1 8.1165191,11.334797 20.524055,19.720559 0 0 1 8.7904999,11.17762 c 1.1774119,-0.276583 2.2243041,-0.490205 3.1336291,-0.641199 -0.0262,0.282879 -0.05241,0.546875 -0.08496,0.798273 -0.07862,0.704063 -0.143927,1.250908 -0.20289,1.64071 -0.05876,0.03768 -0.104516,0.08173 -0.137375,0.138291 a 0.40721286,0.39127087 0 0 0 -0.05241,0.194751 v 0.01889 c 0.0066,0.106816 0.0132,0.194849 0.0262,0.263994 0.02621,0.163471 0.09162,0.282878 0.209339,0.345722 0.07197,0.03777 0.143929,0.06295 0.215894,0.06295 0.07197,0 0.137375,-0.01878 0.196338,-0.05036 0.104516,-0.05027 0.176582,-0.138194 0.222338,-0.263993 l 0.05241,-0.182358 0.08517,-0.521694 c 0.05876,-0.383492 0.12417,-0.911582 0.196135,-1.577759 l 0.0066,-0.06925 0.09817,-0.91769 0.359719,-0.03777 c 0.726183,-0.08173 1.275789,-0.09432 1.661804,-0.04396 0.209132,0.03148 0.340048,0.07544 0.398817,0.125701 v 0.03777 l -0.013,0.08803 c 0,0.08803 0.0262,0.169767 0.08496,0.245108 0.05896,0.06914 0.137374,0.119406 0.229095,0.138292 0.111169,0.02518 0.20934,0.0062 0.307307,-0.05036 0.104719,-0.05656 0.16358,-0.131997 0.189787,-0.238911 0.03941,-0.157178 0.03276,-0.301672 -0.0063,-0.433651 C 15.927767,10.108856 15.849461,9.9893513 15.731639,9.8888351 15.548302,9.7253634 15.273543,9.6122518 14.900722,9.5619839 14.410094,9.4927386 13.7231,9.5116239 12.839981,9.6122461 Z M 4.1457489,9.7133988 c -0.026104,0.088131 -0.039208,0.176062 -0.045758,0.2640915 -0.1832352,0.1445867 -0.3468252,0.2451077 -0.4775256,0.3142607 0.05231,-0.157177 0.1438244,-0.3206569 0.2747496,-0.4840104 0.098066,-0.0063 0.1700304,-0.043968 0.2485436,-0.094325 z M 1.3784946,9.6316643 2.4906018,7.6641892 c 0.052412,-0.094227 0.1373748,-0.1571768 0.2420968,-0.1885539 0.1046172,-0.037772 0.2093392,-0.025181 0.307396,0.025181 0.098168,0.050262 0.1635808,0.1319967 0.1962364,0.2325182 0.032756,0.1069147 0.026204,0.207341 -0.026104,0.3016713 L 2.4971474,9.3048136 C 2.752347,9.2356693 3.0139818,9.342486 3.0532006,9.6064849 A 3.7704893,3.6228784 0 0 1 3.3082958,9.2480578 C 3.4130149,9.1160613 3.5438381,8.9714745 3.6943097,8.8772421 a 0.51017793,0.49020498 0 0 1 0.2747496,-0.056655 c 0.1308232,0.01259 0.241992,0.06295 0.3270656,0.1697669 v 0.0063 l 0.078516,0.131997 0.085065,-0.1508819 C 4.6952483,8.5943583 4.9569007,8.3869251 5.2513139,8.355551 5.434549,8.33037 5.650431,8.3933224 5.781251,8.5253179 5.8924198,8.6384295 5.9513834,8.7768189 5.957935,8.9589683 v 0.0063 c 0,0.081636 -0.019656,0.1697669 -0.045759,0.2576984 0.1047192,-0.025181 0.202788,-0.01259 0.294302,0.043964 0.065413,0.037771 0.1112708,0.088032 0.150478,0.1445867 0.032756,0.056557 0.052412,0.1257017 0.052412,0.1948488 v 0.025082 A 0.40568366,0.38980153 0 0 1 6.3505064,9.801304 c -0.1700304,0.276584 -0.3794776,0.509105 -0.614912,0.691358 -0.1373748,0.100522 -0.2616468,0.182356 -0.3860143,0.232619 -0.386014,0.188455 -0.7065432,0.194751 -0.948634,0.01878 -0.2813012,0.188553 -0.5232812,0.314261 -0.739286,0.377096 -0.2093392,0.05656 -0.3924607,0.04397 -0.5429503,-0.03137 -0.176582,-0.08173 -0.294302,-0.219929 -0.3467052,-0.421176 -0.026104,0.125701 -0.039208,0.213832 -0.039208,0.264091 v 0.01259 l 0.013104,0.106816 c 0,0.08173 -0.019652,0.150882 -0.065413,0.220029 -0.045758,0.06914 -0.1112704,0.113112 -0.1897868,0.144587 -0.098066,0.04397 -0.2027879,0.04397 -0.3073961,0 -0.1047192,-0.03768 -0.1766838,-0.113112 -0.2224394,-0.213734 -0.039207,-0.09423 -0.05231,-0.207341 -0.039207,-0.345722 0.013103,-0.169767 0.058862,-0.395996 0.1439262,-0.691473 L 2.1244475,9.9646532 C 1.6730074,10.769321 1.3982639,11.253332 1.2935298,11.416715 1.1038449,11.724781 0.88796608,11.85048 0.63930865,11.80012 0.53469145,11.77494 0.44952186,11.724677 0.38410874,11.642943 0.31869562,11.567403 0.27949155,11.473176 0.26638855,11.353862 L 0.0111886,10.128018 C -0.0149146,10.021202 0.004637,9.920677 0.07005024,9.832656 0.12891183,9.744526 0.21397647,9.6880697 0.32525014,9.6628895 c 0.11116872,-0.018884 0.21589087,0 0.30739607,0.062852 0.0916162,0.056557 0.15047775,0.1382913 0.17668379,0.2451084 L 0.91394719,10.454976 Z M 8.2997039,8.6636139 8.0578139,8.8647579 7.7306583,9.147734 c 0.11772,-0.1886518 0.2552,-0.3584271 0.4383364,-0.4841258 0.026204,-0.025082 0.058963,-0.043968 0.091619,-0.062852 0.065413,-0.031375 0.1373748,-0.069145 0.2158912,-0.088032 z m 2.6627301,-0.2011441 -0.281301,-0.01259 c 0.0132,-0.1445867 0.03276,-0.3205418 0.05876,-0.5343709 a 1.8634763,1.7905231 0 0 1 0.327276,-0.050164 20.494671,19.692324 0 0 0 -0.104719,0.5971194 z m -1.6224949,-0.075439 -0.032552,0.062852 -0.071962,-0.062852 z"/>
 <path style="fill:#f4f4f7;fill-rule:evenodd" d="m 5.7160116,8.9652563 v -0.0063 c 0,-0.1131116 -0.039208,-0.201144 -0.1046172,-0.2702884 l -0.00645,-0.0062 C 5.51333,8.6007419 5.4021584,8.5693647 5.2777909,8.5819548 5.0620017,8.6071358 4.8591241,8.776804 4.6628785,9.0910593 4.5647109,9.2545309 4.4861949,9.4179972 4.4273361,9.5876601 4.3684745,9.7700171 4.3357173,9.9334979 4.3357173,10.084261 v 0.01259 c -0.3075164,0.238912 -0.5625904,0.389802 -0.7523892,0.458831 -0.1046172,0.03777 -0.1766836,0.05036 -0.2158907,0.03148 -0.026104,-0.01259 -0.039308,-0.04407 -0.039308,-0.106816 0.013104,-0.157275 0.078516,-0.326938 0.1832351,-0.5217812 a 2.5688801,2.468311 0 0 1 0.2748516,-0.4023917 0.18343918,0.17625771 0 0 0 0.1831332,0 C 4.0805181,9.4870243 4.1394817,9.405385 4.1591361,9.3173557 4.1721361,9.24811 4.1525861,9.191654 4.1068261,9.1349992 A 0.18650954,0.17920788 0 0 0 3.9497949,9.059457 c -0.04586,-0.0062 -0.091619,0.0063 -0.143926,0.031375 L 3.6619425,9.197747 C 3.6227345,9.2355184 3.5703265,9.2982684 3.5050153,9.3737108 L 3.2956758,9.6691878 C 3.1189922,9.9457713 3.0209266,10.209753 2.9881598,10.448675 v 0.0063 c -0.00655,0.07534 0.00655,0.144587 0.039308,0.219931 0.039208,0.09432 0.1046172,0.163472 0.1897868,0.20744 a 0.66690437,0.64079573 0 0 0 0.3924607,0.0062 c 0.2158908,-0.05656 0.4906284,-0.207439 0.817694,-0.452637 l 0.05231,0.06914 c 0.176684,0.175963 0.4252332,0.182357 0.7719384,0.01259 0.098168,-0.03768 0.2027879,-0.106914 0.3270655,-0.194849 0.2158908,-0.169766 0.4055636,-0.3832901 0.56271,-0.6348033 l 0.026204,-0.088131 c 0,-0.056557 -0.026204,-0.1069143 -0.078618,-0.1381936 C 6.0498112,9.4428742 6.0039544,9.4301847 5.958196,9.4428742 5.9124372,9.4553656 5.87968,9.4805466 5.8534768,9.5182156 5.716102,9.7445398 5.5526172,9.9268018 5.3629385,10.071487 c -0.098168,0.06905 -0.176684,0.119405 -0.2486484,0.150782 h -0.013 c -0.091616,0.05036 -0.1701324,0.07544 -0.2355424,0.08803 -0.065413,0.01259 -0.1111688,0 -0.1373748,-0.02518 -0.013104,-0.01249 -0.019552,-0.03137 -0.032656,-0.05646 L 5.1994481,9.7948964 C 5.5458536,9.4807504 5.7159828,9.2040578 5.7159828,8.9652502 Z m 8.9232414,0.7983871 c 0.444873,0.037771 0.752389,0.1319974 0.929085,0.2954776 0.16358,0.144587 0.222337,0.333131 0.16358,0.565659 -0.0132,0.04397 -0.03276,0.08173 -0.07196,0.100619 -0.03941,0.02509 -0.08517,0.03137 -0.130925,0.02509 -0.04576,-0.01259 -0.07841,-0.03768 -0.104515,-0.07544 -0.01955,-0.03777 -0.03276,-0.08174 -0.01955,-0.119505 0.026,-0.113014 0.0063,-0.201043 -0.06562,-0.263993 -0.12417,-0.106818 -0.366255,-0.175964 -0.73254,-0.20744 -0.497195,-0.03768 -1.184158,0.0063 -2.073934,0.125702 l -0.11772,1.16929 c -0.07196,0.653702 -0.137374,1.175397 -0.196338,1.565169 l -0.08496,0.509191 -0.06541,0.213633 c -0.03921,0.06295 -0.09162,0.10062 -0.170132,0.10062 -0.104516,0 -0.170132,-0.06914 -0.189787,-0.207439 a 5.3311569,5.1224476 0 0 1 -0.01955,-0.245109 v -0.0063 c 0,-0.05027 0.013,-0.08803 0.04576,-0.119407 0.03276,-0.03148 0.07196,-0.04397 0.117721,-0.05036 0.09162,-0.584558 0.202685,-1.546385 0.340258,-2.878943 -0.987823,0.150785 -2.191651,0.389687 -3.6046779,0.716539 -1.2429271,0.301671 -2.5905883,0.641199 -4.0430438,1.043475 l -1.3279919,0.370902 -0.510298,0.150784 -0.1242716,-0.01249 c -0.039208,-0.01889 -0.071962,-0.05036 -0.085065,-0.09432 -0.013,-0.04397 -0.00655,-0.08173 0.013104,-0.125701 0.019656,-0.03777 0.05231,-0.06295 0.098066,-0.07544 l 0.510298,-0.150882 1.3280819,-0.370901 C 5.9057296,11.309852 7.2599276,10.951511 8.5028547,10.662343 9.9617866,10.32921 11.198147,10.084008 12.22507,9.9268189 12.29069,9.2102813 12.336238,8.6948674 12.355995,8.3742391 l 0.01955,-0.47773 c -0.07862,0.1131113 -0.209339,0.3080671 -0.386014,0.578335 -0.156928,0.2515014 -0.281301,0.4211761 -0.372911,0.509191 -0.09817,0.1005216 -0.196339,0.1257018 -0.287751,0.094227 -0.05241,-0.018785 -0.09172,-0.050263 -0.11772,-0.1005215 -0.01976,-0.050263 -0.03276,-0.1194069 -0.03276,-0.2010462 0,-0.1132095 0.03921,-0.3772115 0.104515,-0.7857972 l 0.03941,-0.2199311 c 0.0066,-0.05036 0,-0.088032 -0.01976,-0.1006194 -0.09796,-0.069047 -0.353062,-0.050263 -0.778385,0.062951 l -0.0066,0.056557 c -0.06541,0.4526363 -0.09817,0.7982719 -0.09817,1.0497847 0,0.094325 0.0066,0.1759639 0.0132,0.2325182 0.06541,-0.069145 0.143722,-0.1823567 0.235545,-0.3331319 0.01955,-0.037771 0.05876,-0.06295 0.09796,-0.07554 a 0.15477746,0.14871808 0 0 1 0.130926,0.018884 c 0.03921,0.025082 0.06541,0.056557 0.07841,0.1005215 0.0132,0.037672 0,0.081636 -0.01955,0.1195044 -0.11772,0.2010431 -0.222337,0.3393261 -0.307306,0.4210606 -0.124374,0.1131117 -0.235543,0.1507837 -0.346915,0.1068164 -0.07196,-0.025082 -0.124374,-0.075442 -0.163581,-0.1571768 -0.03921,-0.1005214 -0.05876,-0.2451081 -0.05876,-0.4462404 0,-0.1948488 0.01955,-0.4526367 0.05876,-0.7732074 C 10.007423,8.3553921 9.8503934,8.6571499 9.6802582,8.9714113 9.5101258,9.2668882 9.3793987,9.4680117 9.2745747,9.5749264 9.1764067,9.6817428 9.0718887,9.7195131 8.9737151,9.6943329 8.9083019,9.669152 8.8559947,9.6313828 8.8297887,9.5623363 8.8035847,9.4993862 8.7905807,9.4114548 8.7905807,9.304638 c 0,-0.088131 0.00635,-0.1948487 0.019552,-0.3269375 L 8.0906063,9.5812156 C 7.6521803,9.9396427 7.3446644,10.040047 7.1549856,9.870297 7.0307136,9.7571851 6.997956,9.5686255 7.0633664,9.2983286 7.0895704,9.1915123 7.1288812,9.0782997 7.1810864,8.9651968 7.2333968,8.8582821 7.2858056,8.770348 7.3381156,8.7011053 7.5605579,8.4120241 7.7960015,8.2107852 8.0642983,8.0788057 8.1492613,8.0410343 8.2212259,8.009659 8.2996371,7.9907733 l 0.1047192,-0.025181 c 0.045758,0 0.091619,0.01259 0.1243736,0.037771 0.032552,0.031379 0.052412,0.069148 0.058756,0.1131117 v 0.01259 c 0,0.043964 -0.013,0.075439 -0.045758,0.1068164 a 0.15354812,0.14753686 0 0 1 -0.1045152,0.056557 l -0.078618,0.018884 a 0.54930705,0.52780225 0 0 0 -0.1831336,0.075443 c -0.202686,0.1069147 -0.3925804,0.2765833 -0.56259,0.5027952 -0.071964,0.1005215 -0.1308232,0.220029 -0.1832352,0.358312 -0.039208,0.1195044 -0.058861,0.220029 -0.058861,0.3080671 0,0.031375 0.00645,0.056557 0.013104,0.069145 0.098066,-0.0062 0.2550951,-0.1005216 0.4840919,-0.2890812 L 8.2082291,9.0468361 8.6856643,8.6509556 a 0.88197968,0.84745105 0 0 1 0.17013,-0.1069158 c 0.071964,-0.031375 0.1373748,-0.031375 0.202686,0 0.071964,0.037771 0.1113756,0.1131116 0.1113756,0.2263212 l -0.00655,0.1194065 -0.00655,0.025181 -0.032756,0.3206573 C 9.2026139,9.1350841 9.2811271,8.9903965 9.3792979,8.8144299 A 23.155752,22.249227 0 0 0 9.8109778,7.9596034 C 9.6343958,8.0287482 9.4839118,8.0853048 9.3530919,8.14196 L 9.2221667,8.14816 C 9.1764077,8.13557 9.1502017,8.104192 9.1305477,8.066426 9.1109957,8.028754 9.1109957,7.98479 9.1239977,7.9407247 c 0.013204,-0.043965 0.045963,-0.075342 0.08517,-0.094227 L 9.451055,7.752171 C 9.6343922,7.6767287 9.8175198,7.6075843 9.9940954,7.5510273 10.118469,7.2619458 10.229641,6.9790589 10.327818,6.6898912 l 0.07862,-0.2451083 0.0262,-0.094324 c 0.013,-0.043968 0.03921,-0.075442 0.07841,-0.094325 a 0.14024121,0.13475091 0 0 1 0.124377,-0.018785 c 0.03921,0.0062 0.07196,0.025181 0.09817,0.056557 0.01955,0.025181 0.03255,0.062852 0.03255,0.1005215 v 0.031375 l -0.05876,0.2890812 c -0.04576,0.2326191 -0.08496,0.4526363 -0.124374,0.6662927 0.45144,-0.1005215 0.752389,-0.094325 0.929085,0.031375 0.09796,0.07554 0.150376,0.1823566 0.150376,0.3143475 l -0.04576,0.3141464 -0.07841,0.5091906 0.163377,-0.2451082 c 0.261748,-0.4022763 0.431889,-0.6473934 0.510388,-0.7417176 0.05876,-0.069148 0.11772,-0.1131116 0.163581,-0.1382918 l 0.156927,-0.0062 c 0.04576,0.018789 0.08496,0.043968 0.111168,0.081734 0.03276,0.037672 0.05241,0.1005215 0.05896,0.1759638 0.013,0.1131117 0.0066,0.3520314 -0.0132,0.7229336 -0.01955,0.307952 -0.05876,0.8108623 -0.12417,1.4834355 l 0.30086,-0.037676 c 0.739196,-0.088131 1.334648,-0.1132097 1.772864,-0.081734 z m -9.2698565,-0.8486321 0.013,0.05036 c 0,0.056557 -0.026104,0.1319966 -0.078516,0.2137338 C 5.2319189,9.292217 5.1206453,9.4180197 4.9702785,9.5562018 L 4.7216329,9.7762309 c 0.05231,-0.1760618 0.1308232,-0.3458375 0.228994,-0.5155004 0.1373748,-0.213734 0.2552,-0.3393261 0.359808,-0.3519162 z M 2.4908714,9.6126784 2.4254582,9.8013303 2.294635,10.22239 c -0.078618,0.276584 -0.1242717,0.484012 -0.1374767,0.63489 -0.013001,0.106817 0,0.194752 0.026206,0.251502 0.013103,0.05027 0.045759,0.08164 0.085065,0.09423 0.045759,0.01888 0.085065,0.01888 0.1308232,0 0.039207,-0.01259 0.071964,-0.04397 0.091619,-0.09423 a 0.13850214,0.13307992 0 0 0 0,-0.119505 c -0.013,-0.05655 0.00655,-0.213734 0.071962,-0.46514 A 8.404518,8.0754898 0 0 1 2.811481,9.7195554 C 2.824585,9.6755878 2.824585,9.6314249 2.804931,9.5938537 2.785275,9.5560822 2.752621,9.5247089 2.706865,9.5121194 c -0.039308,-0.01259 -0.085065,-0.0062 -0.1242716,0.0062 -0.045861,0.018983 -0.072067,0.05036 -0.091721,0.094325 z M 2.9292078,7.708067 c 0.039208,0.018884 0.065413,0.05036 0.078513,0.094325 0.019656,0.043968 0.013104,0.081734 -0.013104,0.1194065 L 2.111499,9.5121481 1.0909032,11.303651 a 1.535811,1.4756855 0 0 1 -0.14392621,0.188651 c -0.0916162,0.06905 -0.17013227,0.100424 -0.2551969,0.08164 A 0.22684403,0.21796332 0 0 1 0.55440533,11.479615 0.40085622,0.38516313 0 0 1 0.50209521,11.322437 L 0.24034683,10.084119 v -0.03768 c 0,-0.03777 0.0131028,-0.069143 0.0393092,-0.1005212 0.0195516,-0.031476 0.0523101,-0.050362 0.0916191,-0.056562 0.0523101,-0.00629 0.0916162,0 0.13082323,0.025086 0.0392072,0.025276 0.0654131,0.056562 0.0719616,0.1005212 l 0.22899375,1.093835 C 0.92077395,10.92645 1.267596,10.323009 1.8498555,9.2858433 L 2.7003222,7.7710338 c 0.019652,-0.037771 0.058862,-0.06295 0.098168,-0.075541 z"/>
</svg>
