<svg xmlns="http://www.w3.org/2000/svg" width="16" height="16" version="1">
 <circle style="fill:#8c45c7" cx="8" cy="8" r="8"/>
 <path style="fill:#f4f4f7" d="M 4,4 V 5.885417 L 6.114584,8 4,10.114584 V 12 H 5.885417 L 8,9.885418 10.114584,12 h 1.885417 V 10.114584 L 9.885417,8 12.000001,5.885417 V 4 H 10.114584 L 8,6.114583 5.885417,4 Z"/>
</svg>
