<svg xmlns="http://www.w3.org/2000/svg" width="16" height="16" version="1.1">
 <path style="fill:#3194ed" d="M 13.908626,-9.5e-6 11.187574,2.7179593 C 10.249589,1.8478386 9.7470528,1.4994843 8.7219876,1.6632717 7.8558076,1.8014673 7.3227512,2.4978389 7.0306076,3.3679593 6.7384128,4.2380801 6.78502,4.4167853 6.349368,4.7648341 5.6318224,5.3380897 4.2066612,5.0725765 3.0330128,5.3796781 1.7004285,5.7277261 0.51096672,6.9247437 0.1471198,8.3476469 -0.32441012,10.164663 0.3521454,11.65956 1.966623,13.374209 c 1.5068458,1.602046 3.1878022,2.6309 4.6741466,2.625782 1.383838,0 2.9269448,-0.798731 3.8546284,-2.252344 C 11.110437,12.785396 10.81273,10.359236 11.30476,9.7296781 12.017181,8.8186109 13.432084,9.0898085 13.806284,8.3476469 14.144504,7.6771421 13.981005,6.9612685 13.38129,6.6695217 13.012318,6.4903797 12.647685,6.4492321 12.401618,6.3468657 12.212032,6.2700897 12.06857,6.0547761 12.089123,5.7937405 L 16,1.8835843 C 15.955883,1.3248654 15.760561,0.93894986 15.457037,0.5551077 15.08124,0.18643246 14.548437,0.06154498 14.103936,-9.5e-6 Z"/>
 <path style="fill:#f4f4f7" d="M 15.027344 0.265625 L 3.6464844 11.646484 L 4.3535156 12.353516 L 8 8.7070312 L 8 13 L 9 13 L 9 8 L 8.7070312 8 L 15.732422 0.97460938 C 15.653915 0.83034485 15.564674 0.69081512 15.457031 0.5546875 C 15.329524 0.42959707 15.181419 0.34163321 15.027344 0.265625 z"/>
 <circle style="fill:#f4f4f7" cx="4.5" cy="11.5" r="1.5"/>
 <circle style="fill:#f4f4f7" cx="8.5" cy="12.5" r="1.5"/>
 <circle style="fill:#f4f4f7" cx="8.5" cy="7.5" r="1.5"/>
</svg>
