<svg xmlns="http://www.w3.org/2000/svg" width="16" height="16" version="1">
 <path style="fill:#00aff2" d="m 4.3428361,1.0000004 c -0.342836,-3e-7 -0.7256396,0.357351 -1.12279,0.6377879 L 0.24727735,3.7369281 C -0.07225236,4.1097511 -0.0834182,4.686076 0.22138495,5.0733693 L 7.3071388,15.652521 c 0.3647944,0.463305 1.0209272,0.463305 1.3857215,0 L 15.778614,5.0733697 C 16.083417,4.6860768 16.072253,4.1097519 15.752726,3.7369281 L 12.820507,1.6664234 C 12.455988,1.3721456 12,1.0000001 11.657162,1.0000004 H 7.9999992 Z"/>
 <path style="opacity:0.1" d="M 12 4 L 8 16 C 8.1330266 16.000044 8.262659 15.967403 8.3808594 15.908203 C 8.4990597 15.849004 8.6064794 15.762525 8.6933594 15.652344 L 15.779297 5.0742188 C 16.019902 4.7684972 16.053723 4.3482222 15.904297 4 L 12 4 z"/>
 <path style="fill:#156fc5" d="M 12,4 8,16 V 4 Z"/>
 <path style="opacity:0.4;fill:#f4f4f7" d="M 4,4 2.0046876,7.7359683 7.3070312,15.652293 C 7.4890596,15.883476 7.7437224,15.999532 7.9984376,16 c 3.672e-4,-7e-6 4e-4,-7.89e-4 8e-4,-7.89e-4 z"/>
 <path style="opacity:0.5;fill:#f4f4f7" d="M 4.34375 1 C 4.000914 0.9999997 3.6178535 1.3562817 3.2207031 1.6367188 L 0.24804688 3.7363281 C 0.18161522 3.8138396 0.14683927 3.9084127 0.10742188 4 L 15.892578 4 C 15.853161 3.9084127 15.818383 3.8138399 15.751953 3.7363281 L 12.820312 1.6660156 C 12.455794 1.3717378 11.999088 0.9999997 11.65625 1 L 8 1 L 4.34375 1 z"/>
</svg>
