<svg xmlns="http://www.w3.org/2000/svg" width="16" height="16" version="1">
 <path style="fill:#e53935" d="m 2.65329,2.1518302 c -0.8988,0.086 -1.2304,0.1353 -1.72070003,0.5833 -0.75482,0.7105999 -0.932600005,2.1064999 -0.932600005,4.2443999 v 2.0339 c 0,2.4373999 0.302660005,3.6773999 0.807720005,4.1293999 0.57708003,0.529 0.95908003,0.57 1.34110003,0.633 0.1489,0.023 1.2063,0.224 5.8896001,0.224 2.9195999,0 5.4285999,-0.149 5.6875999,-0.182 0.419,-0.057 1.012,-0.138 1.471,-0.675 0.671,-0.812 0.803,-2.161 0.803,-4.1166999 v -2.3672 c 0,-1.2653 -0.065,-3.0519 -0.803,-3.8017999 -0.56,-0.5053 -0.764,-0.646 -1.92,-0.7086 -0.326,-0.0154 -3.176,-0.1487 -5.1686999,-0.14836 -1.8698001,4e-4 -4.6282001,0.1231 -5.4550001,0.1517 z"/>
 <path style="fill:#f4f4f7" d="m 9,3 v 5 h 2 L 8,11.9998 5,8 H 7 V 3 Z m -4.5,9 h 7 v 1 h -7 z"/>
</svg>
