<svg xmlns="http://www.w3.org/2000/svg" width="16" height="16" version="1">
 <path style="fill:#b2bfd9" d="M 9.1764702,3.0000006 -4.110294e-8,3 4,10.37075 V 15 H 3 v 1 H 6 V 15 H 5 v -4.595645 z"/>
 <path style="fill:#76ae17" d="M 10.503579,4.8889839 C 9.9145189,4.4790275 9.603785,3.7771125 9.1720362,3.3946728 8.9292273,3.1796324 8.9331551,3.0163439 9.2497859,3.0355094 c 0.3074185,0.018622 0.7277069,0.1080938 1.2318001,0.3749812 0,0 -0.185183,-2.1658594 -0.9874401,-3.11834029 C 9.283548,0.04213064 9.3156275,-0.05088136 9.6177481,0.05059976 10.277414,0.27219586 11.205919,0.91079454 11.7144,1.8219978 c 0,0 1.219227,-1.86403288 2.914686,-1.82127319007 0.31704,0.007994 0.336525,0.20648415007 0.07446,0.39539813007 -0.620309,0.44716739 -1.644271,1.29360226 -1.660123,2.63628116 0,0 0.390481,-0.4409839 1.13441,-0.3933076 0.482148,0.0309 1.066346,0.4038638 1.682345,0.9505309 0.242602,0.2152932 0.156953,0.4077207 -0.159923,0.4222399 -0.721416,0.033052 -1.922879,0.3342889 -2.401065,0.9952283 0,0 0.534604,-0.09792 0.64817,0.1767312 C 14.05802,5.4515341 13.92343,5.9741454 13.492641,6.061016 12.409746,6.2794258 11.425267,5.5304092 10.50362,4.8889929 Z"/>
 <path style="fill:#b31f13" d="M 1.6464844 4 C 2.0821184 4.8889015 3.3348775 7.3366566 3.6914062 7.9042969 C 3.9213157 8.2703504 4.175275 8.568841 4.3417969 8.6660156 C 4.4882102 8.7514556 4.6573493 8.7585997 4.8027344 8.6835938 C 4.9615156 8.6016872 5.2741277 8.2388868 5.5019531 7.875 C 5.8374904 7.3391616 7.096891 4.8824011 7.53125 4 L 1.6464844 4 z"/>
 <g transform="matrix(1.0078125,0,0,0.98541666,5.6972205e-8,0.41666648)">
  <path style="fill:#9b7528" d="M 14.644706,11.394138 A 4.3787977,5.6347464 14.268536 0 1 8.9775359,15.694498 4.3787977,5.6347464 14.268536 0 1 6.1924766,9.1005597 4.3787977,5.6347464 14.268536 0 1 11.860044,4.8002003 4.3787977,5.6347464 14.268536 0 1 14.644706,11.394138 Z"/>
  <g style="opacity:0.3" transform="matrix(0.3447197,-0.20236583,0.19862142,0.349805,-4.2242497,6.4678185)">
   <g>
    <path transform="matrix(0.70711,0.70711,-0.70711,0.70711,31.45,-11.684)" d="m 24.682,16.043 c -0.11655,0.34784 -0.04557,0.7435 0.23242,1.0215 l 1.4141,1.4141 c 0.39174,0.39174 1.0223,0.39174 1.4141,0 l 1.0566,-1.0566 a 11,14 0 0 0 -4.1172,-1.3789 z m -2.3379,0.12695 a 11,14 0 0 0 -3.7422,1.6523 l 0.65625,0.65625 c 0.39174,0.39174 1.0223,0.39174 1.4141,0 l 1.4141,-1.4141 c 0.24479,-0.24479 0.31895,-0.57977 0.25781,-0.89453 z m 1.156,1.309 c -0.25562,0 -0.51116,0.0971 -0.70703,0.29297 l -1.4141,1.4141 c -0.39174,0.39174 -0.39174,1.0223 0,1.4141 l 1.4141,1.416 c 0.39174,0.39174 1.0223,0.39174 1.4141,0 l 1.4141,-1.416 c 0.39174,-0.39174 0.39174,-1.0223 0,-1.4141 l -1.414,-1.415 c -0.196,-0.195 -0.451,-0.292 -0.707,-0.292 z m 6.1367,0.51953 -1.1875,1.1875 c -0.39174,0.39174 -0.39174,1.0223 0,1.4141 l 1.4141,1.416 c 0.39174,0.39174 1.0223,0.39174 1.4141,0 l 1.0859,-1.0859 a 11,14 0 0 0 -2.727,-2.932 z m -11.828,0.444 a 11,14 0 0 0 -2.559,3.1 l 0.47266,0.47266 c 0.39174,0.39174 1.0223,0.39174 1.4141,0 l 1.4141,-1.416 c 0.39174,-0.39174 0.39174,-1.0223 0,-1.4141 l -0.74219,-0.74219 z m 2.1562,2.5703 c -0.25562,0 -0.51116,0.0971 -0.70703,0.29297 l -1.4141,1.416 c -0.39174,0.39174 -0.39174,1.0223 0,1.4141 l 1.4141,1.4141 c 0.39174,0.39174 1.0223,0.39174 1.4141,0 l 1.4141,-1.4141 c 0.39174,-0.39174 0.39174,-1.0223 0,-1.4141 l -1.4141,-1.416 C 20.4762,21.10988 20.22066,21.01278 19.96504,21.01278 Z m 7.0703,0 c -0.25562,0 -0.51116,0.0971 -0.70703,0.29297 l -1.4141,1.416 c -0.39174,0.39174 -0.39174,1.0223 0,1.4141 l 1.4141,1.4141 c 0.39174,0.39174 1.0223,0.39174 1.4141,0 l 1.4141,-1.4141 c 0.39174,-0.39174 0.39174,-1.0223 0,-1.4141 l -1.4141,-1.416 C 27.5465,21.10988 27.29096,21.01278 27.03534,21.01278 Z m 5.8672,0.79102 -0.91797,0.91797 c -0.39174,0.39174 -0.39174,1.0223 0,1.4141 l 1.416,1.4141 c 0.29125,0.29125 0.71328,0.36448 1.0723,0.22266 a 11,14 0 0 0 -1.5703,-3.9688 z m -18.154,0.65039 a 11,14 0 0 0 -1.1699,3.1094 c 0.0064,-0.0061 0.01523,-0.0074 0.02148,-0.01367 l 1.416,-1.4141 c 0.39174,-0.39174 0.39174,-1.0223 0,-1.4141 l -0.267,-0.266 z m 1.6816,2.0938 c -0.25562,0 -0.51116,0.09905 -0.70703,0.29492 l -1.416,1.4141 c -0.39174,0.39174 -0.39174,1.0223 0,1.4141 l 1.416,1.4141 c 0.39174,0.39174 1.0223,0.39174 1.4141,0 l 1.4141,-1.4141 c 0.39174,-0.39174 0.39174,-1.0223 0,-1.4141 l -1.414,-1.413 c -0.196,-0.196 -0.452,-0.295 -0.707,-0.295 z m 7.0703,0 c -0.25562,0 -0.51116,0.09905 -0.70703,0.29492 l -1.4141,1.4141 c -0.39174,0.39174 -0.39174,1.0223 0,1.4141 l 1.4141,1.4141 c 0.39174,0.39174 1.0223,0.39174 1.4141,0 l 1.4141,-1.4141 c 0.39174,-0.39174 0.39174,-1.0223 0,-1.4141 l -1.414,-1.413 c -0.196,-0.196 -0.451,-0.295 -0.707,-0.295 z m 7.0703,0 c -0.25562,0 -0.51116,0.09905 -0.70703,0.29492 l -1.4141,1.4141 c -0.39174,0.39174 -0.39174,1.0223 0,1.4141 l 1.4141,1.4141 c 0.39174,0.39174 1.0223,0.39174 1.4141,0 l 1.416,-1.4141 c 0.39174,-0.39174 0.39174,-1.0223 0,-1.4141 l -1.416,-1.413 C 31.0819,24.64814 30.82636,24.54909 30.57074,24.54909 Z m -10.605,3.5352 c -0.25562,0 -0.51116,0.09905 -0.70703,0.29492 l -1.4141,1.4141 c -0.39174,0.39174 -0.39174,1.0223 0,1.4141 l 1.4141,1.4141 c 0.39174,0.39174 1.0223,0.39174 1.4141,0 l 1.4141,-1.4141 c 0.39174,-0.39174 0.39174,-1.0223 0,-1.4141 l -1.4141,-1.4141 C 20.4769,28.18224 20.22136,28.08319 19.96574,28.08319 Z m 7.0703,0 c -0.25562,0 -0.51116,0.09905 -0.70703,0.29492 l -1.4141,1.4141 c -0.39174,0.39174 -0.39174,1.0223 0,1.4141 l 1.4141,1.4141 c 0.39174,0.39174 1.0223,0.39174 1.4141,0 l 1.4141,-1.4141 c 0.39174,-0.39174 0.39174,-1.0223 0,-1.4141 l -1.4141,-1.4141 C 27.5472,28.18224 27.29166,28.08319 27.03604,28.08319 Z m 7.0723,0 c -0.25562,0 -0.51116,0.09905 -0.70703,0.29492 l -1.416,1.4141 c -0.39174,0.39174 -0.39174,1.0223 0,1.4141 l 1.416,1.4141 c 0.38721,0.38721 1.0058,0.38803 1.3984,0.0098 a 11,14 0 0 0 0.202,-2.63 11,14 0 0 0 -0.078,-1.514 l -0.10742,-0.10742 c -0.19587,-0.19587 -0.45141,-0.29492 -0.70703,-0.29492 z m -20.996,0.04297 a 11,14 0 0 0 -0.111,1.874 11,14 0 0 0 0.24219,2.8457 c 0.12945,-0.04875 0.2529,-0.12009 0.35742,-0.22461 l 1.416,-1.4141 c 0.39174,-0.39174 0.39174,-1.0223 0,-1.4141 l -1.415,-1.414 c -0.139,-0.139 -0.311,-0.211 -0.489,-0.252 z m 3.3184,3.4941 c -0.25562,0 -0.51116,0.0971 -0.70703,0.29297 l -1.416,1.4141 c -0.39174,0.39174 -0.39174,1.0223 0,1.4141 l 1.416,1.4141 c 0.39174,0.39174 1.0223,0.39174 1.4141,0 l 1.4141,-1.4141 c 0.39174,-0.39174 0.39174,-1.0223 0,-1.4141 l -1.413,-1.413 c -0.196,-0.196 -0.452,-0.293 -0.707,-0.293 z m 7.0703,0 c -0.25562,0 -0.51116,0.0971 -0.70703,0.29297 l -1.4141,1.4141 c -0.39174,0.39174 -0.39174,1.0223 0,1.4141 l 1.4141,1.4141 c 0.39174,0.39174 1.0223,0.39174 1.4141,0 l 1.4141,-1.4141 c 0.39174,-0.39174 0.39174,-1.0223 0,-1.4141 l -1.413,-1.413 c -0.196,-0.196 -0.451,-0.293 -0.707,-0.293 z m 7.0703,0 c -0.25562,0 -0.51116,0.0971 -0.70703,0.29297 l -1.4141,1.4141 c -0.39174,0.39174 -0.39174,1.0223 0,1.4141 l 1.4141,1.4141 c 0.39174,0.39174 1.0223,0.39174 1.4141,0 l 1.416,-1.4141 c 0.39174,-0.39174 0.39174,-1.0223 0,-1.4141 l -1.415,-1.413 c -0.196,-0.196 -0.451,-0.293 -0.707,-0.293 z m -10.604,3.536 c -0.25562,0 -0.51116,0.0971 -0.70703,0.29297 l -1.4141,1.4141 c -0.39174,0.39174 -0.39174,1.0223 0,1.4141 l 1.4141,1.416 c 0.39174,0.39174 1.0223,0.39174 1.4141,0 l 1.4141,-1.416 c 0.39174,-0.39174 0.39174,-1.0223 0,-1.4141 l -1.414,-1.414 c -0.196,-0.196 -0.452,-0.293 -0.707,-0.293 z m 7.0703,0 c -0.25562,0 -0.51116,0.0971 -0.70703,0.29297 l -1.4141,1.4141 c -0.39174,0.39174 -0.39174,1.0223 0,1.4141 l 1.4141,1.416 c 0.39174,0.39174 1.0223,0.39174 1.4141,0 l 1.4141,-1.416 c 0.39174,-0.39174 0.39174,-1.0223 0,-1.4141 l -1.414,-1.414 c -0.196,-0.196 -0.451,-0.293 -0.707,-0.293 z m 7.0723,0 c -0.25562,0 -0.51116,0.0971 -0.70703,0.29297 l -1.416,1.4141 c -0.39174,0.39174 -0.39174,1.0223 0,1.4141 l 0.54688,0.54688 a 11,14 0 0 0 1.6777,-3.6484 c -0.03446,-0.0036 -0.06695,-0.01953 -0.10156,-0.01953 z m -20.074,0.72461 a 11,14 0 0 0 1.0527,2.291 c 0.30328,-0.39277 0.29029,-0.94799 -0.07031,-1.3086 l -0.98242,-0.98242 z m 2.3965,2.8105 c -0.25562,0 -0.51116,0.0971 -0.70703,0.29297 l -0.08594,0.08594 a 11,14 0 0 0 2.7266,2.9316 l 0.1875,-0.1875 c 0.39174,-0.39174 0.39174,-1.0223 0,-1.4141 l -1.415,-1.418 c -0.196,-0.195 -0.452,-0.293 -0.707,-0.293 z m 7.0703,0 c -0.25562,0 -0.51116,0.0971 -0.70703,0.29297 l -1.4141,1.416 c -0.39174,0.39174 -0.39174,1.0223 0,1.4141 l 1.4141,1.4141 c 0.39174,0.39174 1.0223,0.39174 1.4141,0 l 1.4141,-1.4141 c 0.39174,-0.39174 0.39174,-1.0223 0,-1.4141 l -1.414,-1.417 c -0.196,-0.195 -0.451,-0.293 -0.707,-0.293 z m 7.0703,0 c -0.25562,0 -0.51116,0.0971 -0.70703,0.29297 l -1.4141,1.416 c -0.39174,0.39174 -0.39174,1.0223 0,1.4141 l 0.61133,0.61133 a 11,14 0 0 0 2.8867,-2.7715 l -0.66992,-0.66992 c -0.19587,-0.19587 -0.45141,-0.29297 -0.70703,-0.29297 z m -10.605,3.5352 c -0.25562,0 -0.51116,0.09905 -0.70703,0.29492 l -0.05664,0.05664 a 11,14 0 0 0 2.6836,1.1562 l -1.2129,-1.2129 C 20.47916,42.32556 20.22362,42.22651 19.968,42.22651 Z m 7.0703,0 c -0.25562,0 -0.51116,0.09905 -0.70703,0.29492 l -1.4141,1.4141 c -0.0028,0.0028 -0.0031,0.0069 -0.0059,0.0098 a 11,14 0 0 0 3.2578,-1 l -0.42383,-0.42383 c -0.19587,-0.19587 -0.45141,-0.29492 -0.70703,-0.29492 z"/>
   </g>
  </g>
 </g>
</svg>
