<svg xmlns="http://www.w3.org/2000/svg" width="16" height="16" version="1">
 <rect fill="#0286c2" width="16" height="16" x="0" y="0" rx="8" ry="8"/>
 <path style="fill:#f4f4f7" d="M 7.5253779,0.0234303 C 6.848679,0.06287627 6.19268,0.1788802 5.572281,0.37499007 4.3821829,3.7836879 3.1875848,7.5046855 1.9999867,10.794983 c 0.0873,0.026 0.1733997,0.016 0.2636996,0.017 0.4969992,-0.002 0.9955984,0.002 1.4940976,0 0.0675,0 0.0593,-0.097 0.0879,-0.14 0.598999,-1.6903984 1.206698,-3.3715974 1.8085971,-5.0606963 0.0359,-0.1044999 0.0757,-0.2162998 0.1229998,-0.3163998 0.3124995,0.0059 0.620699,-0.0044 0.9316985,0 -0.653199,1.8322989 -1.3041979,3.6756977 -1.9687969,5.5020961 0.0701,0.027 0.1398998,0.014 0.2128997,0.015 0.5215992,-0.004 1.0409983,0.008 1.5624975,0 C 7.1057786,9.1477845 7.7150776,7.4870855 8.3085767,5.8222866 8.4347765,5.4826868 8.4534764,5.0464871 8.2382768,4.7675873 7.7815775,4.1755876 6.7671791,4.0770877 6.1112802,4.0526877 6.5749794,2.7395886 7.0543787,1.3672894 7.5253779,0.0233903 Z m 2.4179962,4.2695973 v 0.0019 c -0.0128,0.0275 -0.0224,0.0941 -0.0352,0.1210999 -1.268698,3.5589977 -2.7731956,7.6509955 -4.0780935,11.2789925 0.4455993,0.125 0.9049986,0.22 1.3788978,0.266 0.5877991,-1.570999 1.3820978,-3.392998 1.923797,-4.901997 0.6517989,-0.013 1.3001976,-0.005 1.9531966,-0.018 0.414,-0.014 1.039999,-0.264 1.177998,-0.667999 0.549999,-1.5486993 1.099999,-3.0826984 1.631998,-4.6385974 0.088,-0.2350998 0.141,-0.4920996 0.071,-0.7363995 -0.093,-0.3123998 -0.377,-0.5514996 -0.683999,-0.6346996 -0.266,-0.0833 -0.534999,-0.0469 -0.807999,-0.0528 -0.836999,-0.0014 -1.694997,-0.0087 -2.5315959,-0.0175 z m 1.5725979,0.9823993 c 0.026,0.0029 0.054,0.0076 0.08,0.0039 0.242,0.0044 0.48,-0.0059 0.719999,0 -0.560999,1.602999 -1.133998,3.206698 -1.686997,4.8146971 -0.314,0.021 -0.635299,0.001 -0.9492985,0 0.5712995,-1.5933991 1.1352985,-3.1853981 1.7052975,-4.7814971 0.013,-0.0143 0.035,-0.0308 0.053,-0.0352 v 0.002 c 0.025,-0.0079 0.051,-0.0068 0.078,-0.0039 z"/>
</svg>
