<svg xmlns="http://www.w3.org/2000/svg" width="16" height="16" version="1.1">
 <path style="fill:#24be65" d="M 3.1490392,14.127367 C 1.0060766,13.04793 0.91561143,12.981354 1.0327394,12.569788 1.1488264,12.161873 2.9003617,10.310044 3.7581099,9.9109245 l 0.6688455,-0.311221 0.6092674,0.4255775 c 0.7672774,0.535947 1.4724012,0.759859 2.4154496,0.767016 0.9465158,0.0071 1.6085206,-0.09645 2.4341172,-0.740106 l 0.7078274,-0.4518375 0.670398,0.308707 c 0.368721,0.1697895 1.14937,1.1198795 1.73478,1.6220625 1.469915,1.260932 1.466704,1.269068 -0.991007,2.513935 -0.684002,0.346457 -1.319438,0.652897 -1.715613,0.83035 -0.4370764,0.241055 -0.4893544,0.0712 -0.7376404,-0.182483 C 9.189183,14.376981 8.5132276,13.999996 7.5,13.999996 c -1.1046227,0 -1.7709081,0.456098 -2.0843624,0.77551 -0.2243231,0.343384 -0.3600038,0.220485 -0.6665315,0.103748 -0.3903275,-0.164028 -0.981507,-0.44031 -1.6000669,-0.751887 z"/>
 <path style="fill:#24be65" d="M 0.09785029,9.9080654 C 0.04403237,9.8537204 -9.9996466e-8,8.8681181 -9.9996466e-8,7.7178418 l 0,-2.0914119 L 0.68946758,5.3274011 C 1.8668308,4.8167695 2.1837023,3.9917063 2.0129936,2.7702652 1.9717182,2.4749514 1.9807089,2.165469 2.0330063,2.082526 2.155307,1.8884563 5.7036499,-3.4788746e-6 5.9292816,-3.4788746e-6 c 0.093874,0 0.227283,0.071969998875 0.2964663,0.1599333988746 C 6.6695564,0.72420332 7.1228359,3.0548837 6.9695757,3.8560681 6.9006095,4.2165808 6.7937515,4.3131327 6.2038556,4.5479319 5.3726854,4.8787652 4.6752202,5.3523014 4.299147,6.1880107 4.0737215,6.6889455 4.0279308,6.9998233 4.0643931,7.7817508 l 0.045296,0.971413 -0.4361154,0.2887236 C 2.7332719,9.6643964 0.41312394,10.226429 0.09786798,9.9080654 Z"/>
 <path style="fill:#24be65" d="M 14.90215,9.9080654 C 14.955968,9.8537204 15,8.8681181 15,7.7178418 L 15,5.6264299 14.310532,5.3274011 C 13.133169,4.8167695 12.816298,3.9917063 12.987006,2.7702652 13.028282,2.4749514 13.019291,2.165469 12.966994,2.082526 12.844693,1.8884563 9.29635,-3.4788746e-6 9.0707183,-3.4788746e-6 8.9768443,-3.4788746e-6 8.8434353,0.07196652 8.774252,0.15992992 8.3304435,0.72420332 7.877164,3.0548837 8.0304242,3.8560681 8.0993902,4.2165808 8.2062484,4.3131327 8.7961443,4.5479319 9.627315,4.8787652 10.32478,5.3523014 10.700853,6.1880107 c 0.225425,0.5009348 0.271216,0.8118126 0.234754,1.5937401 l -0.0453,0.971413 0.436115,0.2887236 c 0.940302,0.622509 3.26045,1.1845416 3.575706,0.866178 z"/>
 <circle style="fill:#f4f4f7" cx="7.5" cy="7.5" r="3.5"/>
</svg>
