<svg xmlns="http://www.w3.org/2000/svg" width="16" height="16" version="1">
 <path style="fill:#63a4c7" d="M 7.9384,4e-5 7.9376,0.0016 C 3.5348,0.03516 0,3.58884 0,8 c 0,4.432 3.568,8 8,8 4.272,0 7.7404,-3.3156 7.9852,-7.5244 L 16,8.4616 V 1.6 C 16,0.7136 15.2864,0 14.4,0 H 7.9384 Z"/>
 <path style="fill:#f4f4f7" d="M 9.3085938 3 L 7.7695312 13 L 8.78125 13 L 10.320312 3 L 9.3085938 3 z"/>
 <path style="fill:#f4f4f7" d="M 7.3417969 3 L 5.8007812 13 L 6.8125 13 L 8.3535156 3 L 7.3417969 3 z"/>
 <path style="fill:#f4f4f7" d="M 5.4804688,6 5.3261719,7 h 5.5859371 l 0.154297,-1 z"/>
 <path style="fill:#f4f4f7" d="M 5.0175781,9 4.8632812,10 H 10.449219 L 10.603516,9 Z"/>
</svg>
