<svg xmlns="http://www.w3.org/2000/svg" width="16" height="16" version="1.1">
 <rect style="fill:#17191e" width="1.641" height="1" x="2.46" y="4.5"/>
 <path style="fill:#17191e" d="m 9.321525,9 h 2.960486 v 2.769196 L 12.14477,12.282011 C 11.159127,11.458251 10.785765,11.337296 9.33473,9.7020852 8.9986141,9.3618068 8.7958035,9 9.321525,9 Z"/>
 <rect style="fill:#424551" width="2" height="2" x="1" y="4" rx=".143" ry=".2"/>
 <rect style="fill:#515360" width="3" height="3" x="3.5" y="3.5" rx=".214" ry=".3"/>
 <rect style="fill:#494b57" width="6" height="4" x="5" y="3" rx=".429" ry=".4"/>
 <path style="fill:#c4c9d1" d="m 9,2 v 6 h 0.749977 c 0.374989,0 0.749977,0.3937217 0.749977,0.7685284 L 11.074552,14.1875 C 11.121997,14.634949 11.409042,15 11.824528,15 h 1.874943 c 0.415488,0 0.796783,-0.364986 0.749977,-0.8125 L 13.874852,8.693713 C 13.85617,8.1291385 13.771432,7.8900985 14.230066,7.792287 15.29859,7.2389745 14.993656,5.7391985 14.835028,4.3184814 14.676399,2.8977645 14.39576,2.0439499 13.898289,2 Z"/>
 <circle style="fill:#515360" cx="13.5" cy="6.5" r=".5"/>
</svg>
