<svg xmlns="http://www.w3.org/2000/svg" width="16" height="16" version="1.0">
 <rect style="fill:#2769bc" width="16" height="13" x="0" y="1" rx="1" ry="1"/>
 <path style="fill:#f4f4f7" d="M 8 3 A 3 3 0 0 0 5 6 A 3 3 0 0 0 8 9 A 3 3 0 0 0 11 6 A 3 3 0 0 0 8 3 z M 7 4.5 L 7.265625 4.5 L 7.2929688 4.5 C 7.3441608 4.49955 7.3949034 4.5112194 7.4394531 4.5371094 L 9.4882812 5.7382812 C 9.5792183 5.7898463 9.625 5.8945346 9.625 6 C 9.625 6.1054654 9.5792181 6.2101514 9.4882812 6.2617188 L 7.4394531 7.4628906 C 7.3949031 7.4887506 7.3441617 7.500299 7.2929688 7.5 L 7.265625 7.5 L 7 7.5 L 7 4.5 z"/>
 <rect style="opacity:0.5;fill:#f4f4f7" width="10" height="1" x="3" y="11" rx=".5" ry=".5"/>
 <rect style="fill:#f4f4f7" width="3" height="3" x="4" y="10" rx="1.5" ry="1.5"/>
 <path style="opacity:0.3" d="M 1 1 L 1 2 L 2 2 L 2 1 L 1 1 z M 14 1 L 14 2 L 15 2 L 15 1 L 14 1 z M 1 3 L 1 4 L 2 4 L 2 3 L 1 3 z M 14 3 L 14 4 L 15 4 L 15 3 L 14 3 z M 1 5 L 1 6 L 2 6 L 2 5 L 1 5 z M 14 5 L 14 6 L 15 6 L 15 5 L 14 5 z M 1 7 L 1 8 L 2 8 L 2 7 L 1 7 z M 14 7 L 14 8 L 15 8 L 15 7 L 14 7 z M 1 9 L 1 10 L 2 10 L 2 9 L 1 9 z M 14 9 L 14 10 L 15 10 L 15 9 L 14 9 z M 1 11 L 1 12 L 2 12 L 2 11 L 1 11 z M 14 11 L 14 12 L 15 12 L 15 11 L 14 11 z M 1 13 L 1 14 L 2 14 L 2 13 L 1 13 z M 14 13 L 14 14 L 15 14 L 15 13 L 14 13 z"/>
</svg>
