<svg xmlns="http://www.w3.org/2000/svg" width="16" height="16" version="1">
 <rect style="fill:#4f4f4f" width="16" height="16" x="0" y="0" rx=".8" ry=".8"/>
 <path style="fill:#b2bfd9" d="m 8,2 4,0 C 12,2 9.2927205,2.5741292 9,3.5714284 8.7792977,4.3233587 10.153389,4.9433738 10,5.7142861 9.816064,6.6387235 8.1825492,6.6466747 8,7.5714283 7.8272097,8.4467448 9.1435589,9.1186398 9,9.9999996 8.8487183,10.928771 7.0162869,11.057351 7,12 c -0.015714,0.909604 3,2 3,2 l -6,0 z"/>
 <path style="fill:#989898" d="M 1 1 L 1 3 L 3 3 L 3 1 L 1 1 z M 13 1 L 13 3 L 15 3 L 15 1 L 13 1 z M 1 5 L 1 7 L 3 7 L 3 5 L 1 5 z M 13 5 L 13 7 L 15 7 L 15 5 L 13 5 z M 1 9 L 1 11 L 3 11 L 3 9 L 1 9 z M 13 9 L 13 11 L 15 11 L 15 9 L 13 9 z M 1 13 L 1 15 L 3 15 L 3 13 L 1 13 z M 13 13 L 13 15 L 15 15 L 15 13 L 13 13 z"/>
</svg>
