<svg xmlns="http://www.w3.org/2000/svg" width="16" height="16" version="1">
 <rect style="fill:#b2bfd9" width="14" height="14" x="-15" y="-15" rx=".7" ry=".7" transform="matrix(0,-1,-1,0,0,0)"/>
 <path style="stroke-linejoin:round;stroke:#4a61cc;stroke-linecap:round;fill:none" d="m0.5 5.5c5.4474972-0.2925912 6.1365044 3.916236 8.0951386 5.743524 1.5838524 1.47764 5.4521954 2.256476 6.9048614 2.256476"/>
 <path style="stroke-linejoin:round;stroke:#e84343;stroke-linecap:round;fill:none" d="m9.6078148 5.4932925s-0.8715193 0.4829177-0.9659143 0.893314c-0.1412659 0.6141763 0.1875998 0.8266337 0.6184482 1.2865666 0.4842418 0.5169305 1.7185533 0.8421486 1.9584193 0.8245975 1.408687-0.1030747 1.749324-0.7937029 2.132204-1.5804784 0.265656-0.5458948 0.110691-0.7415561-0.070711-1.3209247-0.520361-1.3660053-1.715629-1.9262335-2.7143-2.0429741-0.8946117-0.0918579-1.5163117 0.9773002-1.5117616 0.9778689l-0.549732 0.6871648"/>
</svg>
