<svg xmlns="http://www.w3.org/2000/svg" width="16" height="16" version="1">
 <rect style="fill:#b2bfd9" width="15" height="15" x="1" y="1" rx=".75" ry=".75"/>
 <path style="fill:#43599b" d="M 4.6464844 3.0097656 C 4.6442744 3.2019518 4.6408319 3.3936966 4.6386719 3.5859375 C 5.6167147 3.9980149 7.2102017 4.9357106 7.9472656 6.2988281 C 7.7637188 4.0005717 4.652254 2.974465 4.6464844 3.0097656 z M 12.353516 3.0097656 C 12.347716 2.9744646 9.2362858 4.0005717 9.0527344 6.2988281 C 9.7897983 4.9357106 11.383285 3.9980149 12.361328 3.5859375 C 12.359228 3.3936966 12.355716 3.2019518 12.353516 3.0097656 z M 3.7421875 3.8066406 C 3.7347482 4.1703024 3.7281459 4.5347757 3.7207031 4.8984375 C 4.6797652 5.0960335 7.0457907 5.9950321 8 7.7109375 C 7.7874921 4.8018603 3.7514082 3.750411 3.7421875 3.8066406 z M 13.257812 3.8066406 C 13.248591 3.750411 9.2125079 4.8018603 9 7.7109375 C 9.9542632 5.9950321 12.320235 5.0960335 13.279297 4.8984375 C 13.271897 4.5347757 13.265253 4.1703024 13.257812 3.8066406 z M 3.3007812 5.3476562 C 3.2493663 5.3428663 3.219586 5.3444951 3.21875 5.3496094 C 3.20171 6.0279169 3.1849538 6.7064581 3.1679688 7.3847656 C 5.2110313 7.503946 5.3343118 8.7914623 5.2109375 9.6152344 L 3.1015625 10.300781 L 3 14.099609 L 6.703125 12.646484 C 7.1355818 12.467303 7.5674893 12.294643 8 12.136719 L 8 9.5175781 C 8 8.3478488 7.4127047 7.2299292 6.3789062 6.5175781 C 5.1583547 5.6766677 3.660685 5.3811599 3.3007812 5.3476562 z M 13.699219 5.3476562 C 13.339316 5.3811598 11.841646 5.6766677 10.621094 6.5175781 C 9.5873496 7.2299292 9.0000539 8.3478488 9 9.5175781 L 9 12.136719 C 9.4325107 12.294643 9.8644181 12.467303 10.296875 12.646484 L 14 14.099609 L 13.898438 10.300781 L 11.789062 9.6152344 C 11.665688 8.7914622 11.788977 7.5039459 13.832031 7.3847656 C 13.815101 6.7064581 13.79829 6.0279169 13.78125 5.3496094 C 13.780428 5.3445094 13.750639 5.3428905 13.699219 5.3476562 z"/>
</svg>
