<svg xmlns="http://www.w3.org/2000/svg" height="16" width="16" version="1.1">
 <path style="fill:#e41a00" d="m12 16v-2h2v-2h2v-8h-2v-2h-2v-2h-8v2h-2v2h-2v8h2v2h2v2z"/>
 <path style="fill:#f4f4f7" d="m3 3v10h2l1-2s0.4152542 1 1 1c1 0 2 0 2-2v-7h-6zm9 0v7c0 1.291883-0.419407 2.266599-0.984375 3h1.984375v-10h-1z"/>
</svg>
