<svg xmlns="http://www.w3.org/2000/svg" width="16" height="16" version="1.1">
 <circle style="fill:#2e6cb9" cx="8" cy="8" r="8"/>
 <path style="fill:none;stroke:#f4f4f7;stroke-width:2" d="m 12,4 c 0,4 -3.2,8 -6,8 M 5,4 v 9"/>
</svg>
