<svg xmlns="http://www.w3.org/2000/svg" width="16" height="16" version="1">
 <path style="fill:#b2bfd9" d="m 14.238013,7.971115 c 0,4.418278 -1.55977,7.191219 -5.9780477,7.191219 -2.9199706,0 -5.7345257,-0.726716 -7.1313335,-3.063079 C 0.41189603,10.900411 0,9.4983073 0,8 0,8 3.7550322,0.98209128 8.1733102,0.98209128 c 4.4182778,0 6.0647028,2.57074572 6.0647028,6.98902372 z"/>
 <path style="fill:#6298df" d="M 7.5996094,4.4003906 C 3.9545302,4.4003906 1,7.3549208 1,11 c 0.00158,0.344665 0.041532,0.700661 0.097656,1.04 1.0133642,1.740871 2.6461567,3.020778 4.5722657,3.610391 0.5850323,-0.01529 1.176445,-0.04963 1.7304687,-0.05078 C 7.0819262,14.617879 5.8298537,12.905385 5.8007812,11.199219 6.2649824,8.3199632 7.7749379,5.862998 10.376953,5.0214844 9.5073551,4.6149416 8.5595418,4.402983 7.5996094,4.4003906 Z"/>
 <path style="fill:#999999" d="M 8.7796219,6.6280267 C 7.2319423,7.7554543 6.002886,9.6852164 6,11.6 6.00204,13.26728 6.568617,15.535386 7.7004062,15.9 9.134237,15.843943 11.084734,15.500912 12.225781,14.791406 9.6464176,14.697727 7.6029204,12.581063 7.6,10 7.60224,8.7993228 7.9667851,7.5117279 8.7796219,6.6280267 Z"/>
 <path style="fill:#3a62bf" d="M 8.5996094 4.8007812 C 4.9545302 4.8007812 2 7.7553114 2 11.400391 C 2.0018819 12.208292 2.1615065 13.001778 2.4492188 13.75 A 8 8 0 0 0 7.859375 15.992188 C 9.0017105 15.96561 6.2333378 15.600059 6.0996094 11.599609 C 6.0428143 9.9006006 7.3034654 7.8955036 8.5683594 6.7597656 C 9.9387688 5.4915704 10.96875 5.2460937 10.96875 5.2460938 C 10.213539 4.9530794 9.4096674 4.8031593 8.5996094 4.8007812 z"/>
 <path style="fill:#e63b40" d="M 8 0 A 8 8 0 0 0 0 8 A 8 8 0 0 0 0.080078125 9.0625 A 6 6 0 0 1 6 4 A 6 6 0 0 1 12 10 A 6 6 0 0 1 6.9433594 15.921875 A 8 8 0 0 0 8 16 A 8 8 0 0 0 16 8 A 8 8 0 0 0 8 0 z"/>
</svg>
