<svg xmlns="http://www.w3.org/2000/svg" width="16" height="16" version="1">
 <rect width="16" height="16" rx="4.8" ry="4.8" style="fill:#176fd0" x="0" y="0"/>
 <path d="m7 4v-2h6v2h-1.6s-0.4 0-0.4 0.4v6.8c0 0.8-0.7 2.8-3.9 2.8-2.1 0-3.1-2.017858-3.1-4 0-4.2396972 4-2.7 4-2.7v2.1s-0.4-0.4-1.2-0.4c-0.48074 0-0.8 0.4-0.8 1.2 0 1.041367 0.767788 1.8 1.4 1.8 1.2 0 1.6-1.2 1.6-1.6v-6c0-0.4-0.4-0.4-0.4-0.4z" style="fill:#f4f4f7"/>
</svg>
