<svg xmlns="http://www.w3.org/2000/svg" width="16" height="16" version="1">
 <rect style="fill:#188dfb" width="16" height="16" x="0" y="0" rx="8" ry="8"/>
 <circle style="opacity:0.15;fill:none;stroke:#000000;stroke-width:1.99963975;stroke-linecap:round;stroke-linejoin:round" cx="10.928" cy="2.928" r="5.004" transform="rotate(30)"/>
 <path style="opacity:0.725;fill:#9ccefd" d="M 11.117026,2.8808166 C 8.181019,1.1857118 4.7575462,2.0331834 2.907355,4.820746 L 2.3484899,5.9404052 C 3.7592875,3.9015284 7.867242,3.1220846 10.134484,4.5983521 Z"/>
 <path style="fill:#f4f4f7" d="m 10.134484,4.5983521 v 0 0 L 9.0555832,13.496953 6.7373612,12.875788 Z"/>
 <circle style="fill:#f4f4f7" cx="8" cy="13" r="2"/>
 <circle style="fill:#f84e24" cx="8" cy="13" r="1"/>
</svg>
