<svg width="16" height="16" version="1.1" xmlns="http://www.w3.org/2000/svg">
 <path d="m12 6c1.163152 3.484841 3 10-2 10-4 0-7-4-8-7-2-6-1-9 2-9 2.7613403 0 6.5 3 8 6z" style="fill:#4c4c4c"/>
 <path d="m12.953378 0.01174138c-0.192668 0.00745984-0.379067 0.07049598-0.536716 0.18150742l-9.9926672 6.9948667c-0.6483779 0.4562273-0.5328168 1.4496082 0.202976 1.7448133l3.298361 1.3193442-5.5076773 3.934613c-1.0183667 0.729638-0.0406016 2.28902 1.0597692 1.690165l10.991934-5.9955996c0.765728-0.4182001 0.66543-1.5480569-0.161991-1.8248327l-3.8389793-1.2803104 7.0065773-3.8916752c0.70338-0.3903106 0.680886-1.4093404-0.03903-1.7682336l-1.998535-0.99926671c-0.149939-0.07519382-0.316393-0.11143768-0.484022-0.10539141z" style="fill:#059dd2"/>
 <path d="M 7,4 C 4,4 3,6 3,6 L 3.4257812,6.4257812 C 3.9625353,5.8345995 5.0568838,5 7,5 8.9431162,5 10.037465,5.8345996 10.574219,6.4257812 L 11,6 C 11,6 10,4 7,4 Z M 7,6 C 5.5515758,6 4.5777726,6.4669815 3.9492188,6.9492188 L 4.5644531,7.5644531 C 5.1663284,7.2482757 5.9552375,7 7,7 8.0447625,7 8.8336716,7.2482757 9.4355469,7.5644531 L 10.050781,6.9492188 C 9.4222277,6.4669814 8.4484242,6 7,6 Z M 7,8 C 6.3201157,8 5.755614,8.1106489 5.2695312,8.2695312 L 7,10 8.7304688,8.2695312 C 8.2443858,8.110649 7.6798843,8 7,8 Z" style="fill:#f4f4f7"/>
</svg>
