<svg xmlns="http://www.w3.org/2000/svg" height="16" width="16" version="1.1" xmlns:xlink="http://www.w3.org/1999/xlink">
 <path style="fill:#00969b" d="m8 0s-7 0-7 5c0 1.6996732 1 4 1 5s-1 2-1 3 1 2 1 2v-2c0 2 1 3 1 3s-0.3469225-1 0-3c0 2 2 3 2 3s0-1 1-2c0.376918 1 0 2 0 2l2-3 2 3s-0.3455187-1 0-2c1 1 1 2 1 2s1.542373-1 2-3c0.448617 1 0 3 0 3s1-1 1-3v2s1-1 1-2-1-2-1-3 1-3.3003268 1-5c0-5-7-5-7-5z"/>
 <path style="fill:#fbcaa6" d="m3 6c0 6 3 9 5 9s5-3 5-9c0-1.9436506-1-3-5-3s-5 1-5 3z"/>
 <path style="fill:#4135e2" d="m9 8v1l1 1 0.828125 3.316406c0.256696-0.314317 0.504266-0.673667 0.732422-1.076172l-0.560547-2.240234-1-1v-1h-1zm2 0v1l1 1 0.207031 0.832031c0.143296-0.387382 0.268085-0.806608 0.376953-1.2480466l-0.583984-0.5839844v-1h-1z"/>
 <path style="fill:#008918" d="m2 6c0 4 1 4 1 4 3 0 3-1 5-1s2 1 5 1c0 0 1 0 1-4 0-1-3-2-6-2s-6 1-6 2z"/>
 <path style="fill:#41dbe0" d="m8 0c-6 0-7 2-7 4v2c0 1 1 2 1 2v-3c0 2 1 3 1 3l2-4c-0.4837726 2-1 3-1 3s1.6374326-1 2-2c0 1-0.3728814 2-0.3728814 2s1.981391-2 2.3728814-3c0.4327438 1 2 2 2 2s-0.4115445-1 0-2c0.53558 2 2 4 2 4s-1-2-1-4l2 4s1-1 1-3v3s1-1 1-2v-2c0-2-1-4-7-4z"/>
 <path style="stroke-linejoin:round;stroke:#17191e;stroke-linecap:round;stroke-width:1px;fill:none" d="m6.5 11.5s0.5 1 1.5 1 1.5-1 1.5-1"/>
 <path style="fill:#f4f4f7" d="m1.4882812 0a1.0001 1.0001 0 0 0 -0.69531245 0.29296875l-0.5 0.5a1.0001 1.0001 0 0 0 -0.125 1.2617188l1 1.5a1.0001 1.0001 0 0 0 0.8320312 0.4453124h1a1.0001 1.0001 0 0 0 1 -1v-1a1.0001 1.0001 0 0 0 -0.4453125 -0.8320312l-1.5-1a1.0001 1.0001 0 0 0 -0.5664063 -0.1679688z"/>
 <path style="fill:#f4f4f7" d="m14.484375 0a1.0001 1.0001 0 0 0 -0.539063 0.16796875l-1.5 1a1.0001 1.0001 0 0 0 -0.445312 0.8320312v1a1.0001 1.0001 0 0 0 1 1h1a1.0001 1.0001 0 0 0 0.832031 -0.4453125l1-1.5a1.0001 1.0001 0 0 0 -0.125 -1.2617188l-0.5-0.5a1.0001 1.0001 0 0 0 -0.722656 -0.2929687z"/>
 <circle style="fill:#35b046" cx="2.5" cy="2.5"/>
 <circle style="fill:#35b046" cx="13.5" cy="2.5"/>
 <path style="fill:none" d="m5 11h6l-3 2z"/>
</svg>
