<svg xmlns="http://www.w3.org/2000/svg" width="16" height="16" version="1.1">
 <circle style="fill:#1793d1" cx="8" cy="8" r="8"/>
 <path style="fill:#f4f4f7" d="M 8.0003285,2.3 C 7.5548522,3.3913464 7.2861464,4.1061607 6.790386,5.1650536 7.0946504,5.4871822 7.467485,5.8604644 8.0729633,6.2841322 7.4217689,6.0161464 6.9783285,5.749025 6.6461275,5.4698107 6.0116982,6.7933356 5.0166207,8.6768071 3,12.3 4.5848589,11.385211 5.9494092,10.821911 7.0943352,10.60655 7.0450619,10.395247 7.0176319,10.16566 7.0196648,9.926932 l 0.00144,-0.04926 C 7.0459898,8.8623076 7.4394554,7.9471751 8.0652521,8 c 0.6257971,0.052825 0.9408925,1.0543076 0.9154954,2.069665 -0.00457,0.190986 -0.025893,0.37435 -0.063495,0.544506 C 10.049474,10.836136 11.437543,11.397911 13,12.3 12.691675,11.73264 12.415348,11.222164 12.152735,10.735056 11.738755,10.414044 11.308013,9.996522 10.427224,9.5444571 11.032195,9.701918 11.467,9.882743 11.80479,10.085918 9.1329647,5.1113144 8.9160678,4.4503893 8.0002322,2.3003036 Z"/>
</svg>
