<svg xmlns="http://www.w3.org/2000/svg" width="16" height="16" version="1">
 <path style="fill:#b2bfd9" d="M 3.1831938,-2.0000002e-8 H 13.816806 C 14.472295,-2.0000002e-8 15.000763,0.50971422 14.999999,1.1428571 L 15,11 10,16 H 3.2016814 C 2.5461924,16 2.019342,15.490286 2.0184885,14.857143 L 2.000001,1.1428571 C 1.9991432,0.50971422 2.5277051,-2.0000002e-8 3.1831938,-2.0000002e-8 Z"/>
 <path style="fill:#a159b2" d="m 4,2 h 9 v 9.529412 L 10.576923,14 H 4 Z"/>
 <path style="opacity:0.1" d="m 12.307692,10.670294 c -2.3445466,1.267153 -3.8649061,1.873838 -6.9230767,0.928858 3.2025822,1.54122 4.6436697,0.78702 6.9230767,-0.928858 z"/>
 <path style="fill:#17191e" d="M 12.782484,4.0886534 C 11.002244,3.8626147 9.8391328,4.2434371 8.8435252,4.761 9.8551592,3.4871823 11.118128,3.0888405 12.782484,4.0886534 Z"/>
 <path style="fill:#ff8686" d="M 13,7.2281179 C 9.4963104,8.7206747 6.1551234,8.6701989 4,8.3806484 v 1.4164705 c 3.4907798,2.1108061 6.626964,1.1301511 9,-0.5454724 z"/>
 <path style="fill:#f4f4f7" d="m 13,7.2284514 c -0.309683,0.1319238 -0.618439,0.2511135 -0.924879,0.3598289 0.131683,0.3801324 0.619357,1.6821928 0.676081,1.833715 C 12.834801,9.3659873 12.918203,9.3100516 13,9.2522938 Z m -1.144832,0.4368233 c -0.418086,0.1415273 -0.832153,0.2616897 -1.240384,0.364542 -0.0328,0.2465549 0.4663,1.7742897 0.621995,2.2422553 0.530696,-0.240669 1.034727,-0.5297398 1.510818,-0.8485061 -0.0911,-0.226668 -0.600792,-1.4766155 -0.892429,-1.7582912 z M 10.378606,8.0879553 C 9.9013178,8.2007536 9.4332055,8.289147 8.9759619,8.3566491 8.9666053,8.8888435 9.1987642,10.450492 9.2662257,10.892738 9.9538894,10.772345 10.611244,10.555372 11.233174,10.273644 11.074902,9.8154831 10.559823,8.3412069 10.378606,8.0879553 Z M 9.2662257,10.892738 C 9.1971522,10.448793 8.939218,8.856603 8.7217541,8.3912183 8.1760073,8.4633954 7.6480337,8.5074729 7.1424289,8.5279209 6.9830479,8.9259612 6.9673945,10.490925 6.9657454,10.916307 c 0.7977603,0.124214 1.565989,0.105023 2.3004803,-0.02357 z m -2.3004803,0.02357 C 6.9651916,10.496163 6.9574207,8.9889958 6.8828125,8.5373483 6.380068,8.5503718 5.9025214,8.5409042 5.4531251,8.5169236 5.2817624,8.8330173 5.1347661,9.8954928 5.0763227,10.356923 c 0.6447432,0.282297 1.2757771,0.46384 1.8894227,0.559385 z M 4,8.3802167 v 1.417319 C 4.3610138,10.015833 4.7179362,10.20053 5.0709128,10.35535 5.1164438,9.8992417 5.2181991,8.8532529 5.2259609,8.5027791 4.7851904,8.4737462 4.3745073,8.4305342 4,8.3802167 Z"/>
 <path style="fill:#17191e" d="M 2.6599264,5 C 4.3530368,4.4099516 5.5713594,4.5411991 6.65488,4.8408702 5.3952216,3.805081 4.0755216,3.6774034 2.6599264,5 Z"/>
 <path style="fill:#fafafa" d="M 11.666667,11 C 10.743333,11 10,11.743334 10,12.666667 V 16 l 5,-5 z"/>
</svg>
