<svg xmlns="http://www.w3.org/2000/svg" width="16" height="16" version="1.1">
 <path style="fill:#bbc0c5" d="M 8.5202286,1.0000759 C 8.2570544,0.99893965 7.9938483,1.0119334 7.7320098,1.0384424 A 0.35717563,0.35719282 0 0 0 7.4153271,1.3390961 L 7.2800046,2.218735 C 6.986329,2.2757244 6.6979555,2.3530571 6.4150563,2.4503291 L 5.8605127,1.7583372 A 0.35717563,0.35719282 0 0 0 5.4357116,1.655794 C 4.9666488,1.8663326 4.5203737,2.124127 4.1041099,2.425914 A 0.35717563,0.35719282 0 0 0 3.9813427,2.845155 L 4.3029082,3.6696855 C 4.076283,3.8655558 3.8639036,4.0761712 3.666753,4.3016864 L 2.8471447,3.9821981 A 0.35717563,0.35719282 0 0 0 2.427924,4.1056687 C 2.1265725,4.5224793 1.8692108,4.9691992 1.6592355,5.4387292 A 0.35717563,0.35719282 0 0 0 1.761774,5.8628534 l 0.67173,0.5385262 C 2.3830811,6.5448843 2.3285535,6.6871007 2.2884161,6.8338742 a 0.35717563,0.35719282 0 0 0 -0.00139,0.00558 c -0.037366,0.1460629 -0.060187,0.2953845 -0.08719,0.4436565 L 1.3411654,7.4149517 A 0.35717563,0.35719282 0 0 0 1.0405268,7.7309522 C 0.9871586,8.2419868 0.986541,8.7572166 1.0384268,9.2684019 a 0.35717563,0.35719282 0 0 0 0.3013365,0.3166976 l 0.8788994,0.1346318 c 0.056933,0.2937087 0.134364,0.5820517 0.2315828,0.8649897 l -0.6926561,0.55457 A 0.35717563,0.35719282 0 0 0 1.6550513,11.56481 c 0.2105283,0.469086 0.4683104,0.915382 0.7700827,1.331666 a 0.35717563,0.35719282 0 0 0 0.4192207,0.122773 l 0.8244912,-0.321581 c 0.1960627,0.226687 0.4069395,0.439022 0.6326677,0.636186 l -0.3187751,0.81895 a 0.35717563,0.35719282 0 0 0 0.1234642,0.419241 c 0.4167911,0.301366 0.8634893,0.55874 1.3329967,0.768725 a 0.35717563,0.35719282 0 0 0 0.424104,-0.102543 l 0.5378025,-0.671065 c 0.1436033,0.05031 0.2856094,0.104382 0.4324744,0.144398 a 0.35717563,0.35719282 0 0 0 0.00558,0.0014 c 0.1462766,0.03743 0.2958401,0.06017 0.4443322,0.0872 l 0.131835,0.858712 a 0.35717563,0.35719282 0 0 0 0.3159848,0.300654 c 0.5107683,0.05332 1.0257603,0.05394 1.5366783,0.0021 a 0.35717563,0.35719282 0 0 0 0.316683,-0.300654 l 0.1353221,-0.878941 c 0.2936753,-0.05699 0.5820493,-0.134323 0.8649483,-0.231595 l 0.554543,0.691992 a 0.35717563,0.35719282 0 0 0 0.424802,0.102544 c 0.469062,-0.210539 0.915338,-0.468334 1.331601,-0.77012 a 0.35717563,0.35719282 0 0 0 0.122767,-0.419241 L 12.697092,13.33108 c 0.226625,-0.19587 0.439005,-0.406486 0.636155,-0.632001 l 0.818911,0.318791 a 0.35717563,0.35719282 0 0 0 0.419221,-0.123471 c 0.301351,-0.41681 0.558713,-0.86353 0.768688,-1.33306 a 0.35717563,0.35719282 0 0 0 -0.102539,-0.42414 L 14.566496,10.59937 c 0.05046,-0.143734 0.104946,-0.286183 0.145088,-0.433192 a 0.35717563,0.35719282 0 0 0 0.0014,-0.0056 c 0.03736,-0.146063 0.06019,-0.2953843 0.08719,-0.4436563 l 0.85867,-0.1318414 a 0.35717563,0.35719282 0 0 0 0.30064,-0.3160001 c 0.05337,-0.5110346 0.05399,-1.0262644 0.0021,-1.5374497 A 0.35717563,0.35719282 0 0 0 15.660237,7.4149521 L 14.781339,7.2803207 C 14.724362,6.9863909 14.647077,6.6977751 14.549756,6.4146333 L 15.241714,5.8600634 A 0.35717563,0.35719282 0 0 0 15.344253,5.4352417 C 15.133677,4.9663968 14.8752,4.5203253 14.573471,4.1042733 A 0.35717563,0.35719282 0 0 0 14.154948,3.9815006 L 13.330457,4.3030814 C 13.134488,4.0763204 12.924131,3.8634494 12.698487,3.666198 l 0.318775,-0.8189501 a 0.35717563,0.35719282 0 0 0 -0.123464,-0.419241 c -0.416791,-0.3013658 -0.86349,-0.55874 -1.332997,-0.768725 A 0.35717563,0.35719282 0 0 0 11.136,1.761825 L 10.598894,2.4328898 C 10.455438,2.3825446 10.313138,2.3285586 10.16642,2.2884922 a 0.35717563,0.35719282 0 0 0 -0.0056,-0.0014 C 10.014551,2.2496926 9.8650123,2.22691 9.7165078,2.1999005 L 9.5853703,1.3418864 A 0.35717563,0.35719282 0 0 0 9.2693852,1.0405351 C 9.0204647,1.0146188 8.7704935,1.0009988 8.5202286,1.0000759 Z"/>
 <path style="fill:#17191e" d="m 12.912929,8.6207751 c 0,1.4217519 0.547614,2.5967199 -0.337786,3.5729519 -1.006253,1.109482 -2.459324,1.806261 -4.0751385,1.806261 -3.0375661,0 -5.5000001,-2.462433 -5.5000001,-5.4999992 0,-3.037566 2.462434,-5.5000811 5.5000001,-5.5 0.3928528,1.04e-5 4.4129245,2.5832199 4.4129245,5.6207863 z"/>
 <path style="opacity:0.3;fill:#f4f4f7" d="M 7.7142858,3.0621505 A 5.5000002,5.5000002 0 0 0 6.4643555,3.3928564 H 7.7142858 Z M 5.6786411,3.7857136 A 5.5000002,5.5000002 0 0 0 5.0993304,4.1785707 H 5.7500001 V 3.7857136 Z M 4.6527622,4.5714279 A 5.5000002,5.5000002 0 0 0 4.2875281,4.964285 H 6.5357144 V 4.5714279 Z m 2.2758093,0 V 4.964285 H 7.7142858 V 4.5714279 Z M 3.9890486,5.3571422 A 5.5000002,5.5000002 0 0 0 3.7419783,5.7499994 H 4.5714286 V 5.3571422 Z m 0.9752372,0 V 5.7499994 H 8.107143 V 5.3571422 Z M 3.5378769,6.1428565 A 5.5000002,5.5000002 0 0 0 3.3698381,6.5357136 h 2.380162 V 6.1428565 Z M 3.2317244,6.9285708 A 5.5000002,5.5000002 0 0 0 3.1319754,7.3214279 H 3.785714 V 6.9285708 Z m 0.9468471,0 V 7.3214279 H 6.1428573 V 6.9285708 Z M 3,8.4999994 A 5.5000002,5.5000002 0 0 0 3.014579,8.8928566 H 5.357143 V 8.4999994 Z m 2.7500001,0 V 8.8928566 H 6.5357144 V 8.4999994 Z M 3.0621513,9.2857137 a 5.5000002,5.5000002 0 0 0 0.072126,0.3928572 H 4.571429 V 9.2857137 Z m 1.9021345,0 V 9.6785709 H 8.8928573 V 9.2857137 Z M 3.2340262,10.071428 a 5.5000002,5.5000002 0 0 0 0.1304408,0.392858 h 0.8141045 v -0.392858 z m 1.3374024,0 v 0.392858 h 1.9642858 v -0.392858 z m 2.3571429,0 v 0.392858 h 0.7857143 v -0.392858 z m 1.5714287,0.392858 v 1.571428 h 0.3928571 v -1.571428 z m 1.1785715,0 v 1.571428 h 1.1785713 v -1.571428 z m 1.9642853,0 v 1.571428 h 0.392858 v -1.571428 z m 1.178572,0 v 1.427943 a 5.5000002,5.5000002 0 0 0 0.392857,-0.571637 v -0.463449 h 0.247837 a 5.5000002,5.5000002 0 0 0 0.16804,-0.392857 z m -2.75,0.392857 h 0.392857 v 0.785714 h -0.392857 z m -6.0770093,0.785714 a 5.5000002,5.5000002 0 0 0 0.300014,0.392857 h 1.8484236 v -0.392857 z m 2.5412947,0 v 0.392857 h 0.7857143 v -0.392857 z m -1.877581,0.785714 a 5.5000002,5.5000002 0 0 0 0.4496372,0.392858 H 5.357143 v -0.392858 z m 1.0918667,0 v 0.392858 h 1.9642857 v -0.392858 z m 2.7500001,0 V 14 a 5.5000002,5.5000002 0 0 0 1.1785715,-0.134278 v -1.437151 z m 1.9642858,0 v 1.206961 a 5.5000002,5.5000002 0 0 0 0.392857,-0.172642 v -1.034319 z m 1.178571,0 v 0.577009 a 5.5000002,5.5000002 0 0 0 0.704381,-0.577009 z m -2.7499997,0.392858 h 0.3928572 v 0.785714 H 8.8928573 Z m -3.2134489,0.392857 a 5.5000002,5.5000002 0 0 0 0.4634489,0.247837 v -0.247837 z"/>
 <path style="fill:#3daee9" d="m 14,8.4999994 c 0,1.4840132 -0.587744,2.8307516 -1.543155,3.8201356 L 8.5000002,8.4999994 V 2.9999992 C 11.537567,2.9999992 14,5.4624334 14,8.4999994 Z"/>
 <path style="fill:#f4f4f7" d="M 8,2.9999992 V 8.6626666 L 9,8.3373322 v -5.337333 z"/>
 <path style="fill:#ff4949" d="m 8.8476562,8.140625 -0.6953124,0.71875 3.9570312,3.820313 0.695313,-0.71875 z"/>
 <circle style="fill:#fcfcfc" cx="8.5" cy="8.5" r="1.5"/>
 <circle style="fill:#17191e" cx="8.5" cy="8.5" r=".5"/>
</svg>
