<svg xmlns="http://www.w3.org/2000/svg" width="16" height="16" version="1">
 <rect style="fill:#8e8e8e" width="13.719" height="13.719" x="-6.86" y="4.45" rx="4.116" ry="4.116" transform="rotate(-45)"/>
 <path style="fill:none;stroke:#17191e;stroke-width:2;stroke-linecap:round;stroke-linejoin:round" d="m 9,8.0000636 h 4"/>
 <path style="fill:#17191e" d="M 7.984375 2 A 1.0001 1.0001 0 0 0 7.2929688 2.2929688 L 2.2929688 7.2929688 A 1.0001 1.0001 0 0 0 2.2929688 8.7070312 L 7.2929688 13.707031 A 1.0001 1.0001 0 0 0 8.7070312 13.707031 L 12.414062 10 L 9.5859375 10 L 8 11.585938 L 4.4140625 8 L 8 4.4140625 L 9.5859375 6 L 12.414062 6 L 8.7070312 2.2929688 A 1.0001 1.0001 0 0 0 7.984375 2 z"/>
</svg>
