<svg xmlns="http://www.w3.org/2000/svg" width="16" height="16" version="1">
 <path style="fill:#b2bfd9" d="M 4 0 C 3.446 0 3 0.446 3 1 L 3 2 L 14 2 L 14 1 C 14 0.446 13.554 0 13 0 L 4 0 z M 3 13 L 3 15 C 3 15.554 3.446 16 4 16 L 13 16 C 13.554 16 14 15.554 14 15 L 14 13 L 3 13 z"/>
 <rect style="fill:#17191e" width="11" height="11" x="3" y="2"/>
 <path style="fill:#f4f4f7" d="M 8.2187,4 C 8.0976,4 8,4.223 8,4.5 V 7.5 C 8,7.777 8.0976,8 8.2187,8 H 8.7812 C 8.9024,8 9,7.777 9,7.5 V 6.75 L 9.0195,6.7266 10.053,7.7598 C 10.249,7.9556 10.475,8.0447 10.561,7.959 L 10.959,7.5605 C 11.045,7.4749 10.956,7.2486 10.76,7.0527 L 9.707,6 10.76,4.9473 C 10.956,4.7514 11.045,4.5251 10.959,4.4395 L 10.561,4.041 C 10.475,3.9553 10.249,4.0444 10.053,4.2402 L 9.0195,5.2734 9,5.25 V 4.5 C 9,4.223 8.9024,4 8.7812,4 Z M 6.4453,4.793 C 6.3363,4.791 6.1723,4.8785 6.0254,5.0254 5.8295,5.2213 5.7405,5.4475 5.8262,5.5332 L 6.416,6.123 C 6.2393,6.3893 6.1154,6.687 6.0508,7 H 5.2187 C 5.0976,7 5,7.223 5,7.5 5,7.777 5.0976,8 5.2187,8 H 6.0547 C 6.1181,8.3127 6.2407,8.6104 6.416,8.877 L 5.8262,9.4668 C 5.7405,9.5525 5.8295,9.7787 6.0254,9.9746 6.2213,10.17 6.4475,10.26 6.5332,10.174 L 7.123,9.584 C 7.3893,9.7607 7.687,9.8846 8,9.9492 V 10.781 C 8,10.902 8.223,11 8.5,11 8.777,11 9,10.902 9,10.781 V 9.9453 C 9.3127,9.8819 9.6104,9.7593 9.877,9.584 L 10.467,10.174 C 10.552,10.26 10.779,10.171 10.975,9.9746 11.17,9.7787 11.26,9.5525 11.174,9.4668 L 10.584,8.877 C 10.742,8.6374 10.858,8.3725 10.926,8.0937 L 10.561,8.459 C 10.475,8.5447 10.249,8.4556 10.053,8.2598 L 9.877,8.084 C 9.6429,8.6376 9.1011,8.9981 8.5,9 7.6716,9 7,8.3284 7,7.5 7.0013,7.0748 7.1831,6.6702 7.5,6.3867 V 5.2148 C 7.3688,5.271 7.2427,5.3383 7.123,5.416 L 6.5332,4.8262 C 6.5118,4.8047 6.4816,4.7936 6.4453,4.793 Z"/>
</svg>
