<svg xmlns="http://www.w3.org/2000/svg" width="16" height="16" version="1.1">
 <path style="fill:#4763ad" d="m0.80078 1c-0.4432 0-0.80078 0.0705-0.80078 0.5137v9.4863h16v-9.4863c0-0.4432-0.358-0.5137-0.801-0.5137h-14.398z"/>
 <path style="fill:#6194bf" d="m0.8 15c-0.4432 0-0.8-0.3568-0.8-0.8l4e-8 -3.2h16v3.2c0 0.4432-0.3568 0.8-0.8 0.8z"/>
 <circle style="fill:#f4f4f7" cx="8" cy="13" r="1"/>
 <circle style="fill:#f4f4f7" cx="11" cy="13" r="1"/>
 <circle style="fill:#f4f4f7" cx="14" cy="13" r="1"/>
 <rect style="fill:#f4f4f7" width="7" height="5" x="3" y="3" rx=".875" ry=".833"/>
 <path style="fill:#8fff08" d="M 8.2,5 C 8.2,5 10,6.2 10,9 H 8.6 L 11,12 13.4,9 H 12 C 12,5.4 8.2,5 8.2,5 Z"/>
</svg>
