<svg xmlns="http://www.w3.org/2000/svg" width="16" height="16" version="1">
 <rect style="fill:#b2bfd9" width="15" height="15" x="-16" y="-15" rx=".75" ry=".75" transform="matrix(0,-1,-1,0,0,0)"/>
 <path style="opacity:0.3" d="M 4.5833343,0.99999984 V 5.5833331 H 9.8041132e-7 V 5.9999997 H 4.5833343 V 11 H 9.8041132e-7 v 0.416666 H 4.5833343 V 16 H 5.0000008 V 11.416666 H 10.000001 V 16 h 0.416666 v -4.583334 h 4.583334 V 11 H 10.416667 V 5.9999997 h 4.583334 V 5.5833331 H 10.416667 V 0.99999984 H 10.000001 V 5.5833331 H 5.0000008 V 0.99999984 Z M 5.0000008,5.9999997 H 10.000001 V 11 H 5.0000008 Z"/>
 <path style="fill:none;stroke:#003dd4;stroke-width:0.41025627px" d="m 4.5,5.5 6,-4.5 4,0 v 4.5 l -4,6 z"/>
 <circle style="fill:#ef533a" cx="10.5" cy="5.5" r="1.5"/>
 <circle style="fill:#ef533a" cx="4.5" cy="11.5" r="1.5"/>
 <circle style="fill:#5284ff" cx="4.5" cy="5.5" r="1.5"/>
 <circle style="fill:#5284ff" cx="10.5" cy="1.5" r="1.5"/>
 <circle style="fill:#5284ff" cx="14.5" cy="1.5" r="1.5"/>
 <circle style="fill:#5284ff" cx="14.628" cy="5.5" r="1.5"/>
 <circle style="fill:#5284ff" cx="10.5" cy="11.5" r="1.5"/>
</svg>
