<svg xmlns="http://www.w3.org/2000/svg" width="16" height="16" version="1">
 <circle style="fill:#7160bd" cx="7.5" cy="7.5" r="7.5"/>
 <path style="fill:none;stroke:#b2bfd9" d="M 7.5,0 V 5.325 C 3.75,7.2 3.3787879,12.5 7.5,12.5 c 4.121212,0 3.75,-5.3 0,-7.175"/>
 <rect style="fill:#f4f4f7" width="3" height="1" x="6" y="4" rx=".5" ry=".5"/>
 <rect style="fill:#f4f4f7" width="3" height="1" x="6" y="3" rx=".5" ry=".5"/>
 <rect style="fill:#f4f4f7" width="3" height="1" x="6" y="2" rx=".5" ry=".5"/>
</svg>
