<svg xmlns="http://www.w3.org/2000/svg" width="16" height="16" version="1">
 <path style="fill:#4f4f4f" d="m 8,-6e-8 c -0.00667,0 -0.013888,0.001144 -0.020554,0.001144 H 7.977216 C 5.4850001,0.01714278 3.0000001,2.6737144 3.0000001,4.6674285 V 11.258857 C 3.0000001,13.968 4.8750001,16 8,16 c 3.125,5.6e-4 5,-2.030857 5,-4.74 V 4.8491429 C 13,2.7771428 10.503333,0.0188571 8,0.00228566 Z"/>
 <path style="opacity:0.1" d="m 8,-6e-8 c -0.00667,0 -0.013615,7.8000002e-4 -0.020281,7.8000002e-4 H 7.97745 C 5.4852485,0.01678002 3.0000001,2.6734736 3.0000001,4.6671877 V 8.0000001 H 13 V 4.8492189 C 13,2.7772188 10.503333,0.01891514 8,0.0023437 Z"/>
 <path style="opacity:0.1" d="m 8,-6e-8 c -0.00667,0 -0.013615,7.8000002e-4 -0.020281,7.8000002e-4 H 7.97745 C 5.4852485,0.01678002 3.0000001,2.6734736 3.0000001,4.6671877 V 8.0000001 H 8 C 8,8.0000001 8,-6e-8 8,0.0023437 Z"/>
 <path style="fill:#b2bfd9" d="M 7.9999999,2.0001995 C 8.551,2.0001995 9,2.3842259 9,2.8573903 V 5.1432764 C 9,5.6159744 8.551,6 7.9999999,6 7.449,6 7,5.6159744 7,5.1426096 V 2.8567235 C 7,2.3840255 7.449,1.9999999 7.9999999,1.9999999"/>
</svg>
