<svg xmlns="http://www.w3.org/2000/svg" width="16" height="16" version="1">
 <path style="fill:#989898" d="M 8.0176,0.05919 A 0.74666,0.74428 0 0 0 7.6268,0.15915 L 1.3732,3.7577 A 0.74666,0.74428 0 0 0 1,4.402 V 11.599 A 0.74666,0.74428 0 0 0 1.3732,12.243 L 7.6269,15.842 A 0.74666,0.74428 0 0 0 8.3732,15.842 L 14.626,12.243 A 0.74666,0.74428 0 0 0 15,11.599 V 4.4019 A 0.74666,0.74428 0 0 0 14.626,3.7576 L 8.3732,0.15903 A 0.74666,0.74428 0 0 0 8.0176,0.05902 Z"/>
 <path style="fill:#f4f4f7" d="M 5.4321,12.955 C 5.4071,12.93 5.3866,12.838 5.3866,12.751 5.3866,12.556 5.2806,12.544 5.1821,12.728 5.0654,12.946 4.9699,12.886 4.9916,12.609 5.0072,12.41 4.9891,12.36 4.9093,12.38 4.4535,12.498 4.4508,12.494 4.7559,12.162 5.0819,11.807 5.1414,11.594 4.8923,11.672 4.8079,11.698 4.5625,11.736 4.3471,11.756 3.6835,11.817 3,11.386 3,10.907 3,10.705 3.3528,10.422 3.8603,10.217 4.1185,10.112 4.3376,9.9843 4.3472,9.9318 4.3569,9.8793 4.2561,9.7664 4.1233,9.6811 3.819,9.4854 3.6486,9.211 3.4687,8.6269 3.2614,7.954 3.3073,6.7913 3.5713,6.0258 4.487,3.371 7.1485,2.2699 9.6599,3.5067 11.267,4.2984 12.429,5.552 12.682,6.7686 12.75,7.098 12.744,7.1687 12.621,7.408 12.46,7.7229 12.101,8.1012 11.962,8.1012 11.909,8.1012 11.782,8.0016 11.679,7.88 11.41,7.5616 10.198,6.3634 9.6925,5.9168 L 9.2612,5.5358 9.3091,5.1534 C 9.3549,4.7876 9.3494,4.7676 9.1804,4.6907 8.9233,4.5739 8.5646,4.6886 8.5346,4.8973 8.5176,5.0155 8.6056,5.1519 8.8732,5.4224 L 9.2348,5.7877 8.828,5.7887 C 8.0895,5.7904 7.9468,5.9071 8.3103,6.2123 8.5795,6.4384 8.6731,6.637 8.6495,6.932 L 8.6295,7.1826 8.9516,7.1661 C 9.1991,7.1534 9.2736,7.1731 9.2736,7.2512 9.2736,7.307 9.243,7.3527 9.2055,7.3527 9.0922,7.3527 9.1289,7.5452 9.2566,7.6203 9.3493,7.6748 9.3564,7.7033 9.2884,7.7482 9.2403,7.78 9.2206,7.8571 9.2446,7.9196 9.3106,8.0913 9.175,8.0604 8.6469,7.7835 8.2111,7.555 8.1565,7.5017 8.0034,7.1564 7.7323,6.5447 7.5007,6.3812 7.5007,6.8015 7.5007,6.9055 7.4361,7.2329 7.3571,7.5289 7.1056,8.4715 7.076,8.3733 7.6121,8.3737 8.1493,8.3741 8.5376,8.4644 8.6659,8.6187 8.7599,8.7317 8.7712,9.0415 8.6959,9.4419 8.6522,9.6743 8.657,9.6817 8.8242,9.6398 8.9871,9.599 8.9953,9.609 8.9567,9.8014 8.9171,9.9993 8.9243,10.006 9.1628,10.006 9.2988,10.006 9.41,10.037 9.41,10.074 9.41,10.111 9.3852,10.142 9.3549,10.142 9.3245,10.142 9.2406,10.185 9.1683,10.238 9.0393,10.332 9.0392,10.337 9.1658,10.476 9.3132,10.639 9.296,10.645 8.7622,10.62 8.3593,10.602 8.2748,10.546 8.2144,10.256 8.1441,9.9202 7.9881,9.7097 7.877,9.8017 7.6662,9.9762 8.0743,10.695 8.5817,11.043 9.2987,11.536 10.117,11.651 10.869,11.366 11.381,11.172 12.124,10.453 12.534,9.7548 12.991,8.9763 13.091,8.99 12.925,9.8083 12.648,11.168 11.711,12.192 10.336,12.634 9.8945,12.777 9.6493,12.812 9.103,12.813 7.9644,12.815 7.3128,12.495 6.2584,11.419 5.5951,10.741 5.3972,10.689 5.7366,11.281 L 5.9542,11.66 5.7341,12.33 C 5.6131,12.699 5.5058,13 5.4958,13 5.4857,13 5.457,12.98 5.432,12.955 Z M 5.7348,9.2846 C 5.1433,8.1045 5.0116,7.629 5.0116,6.6723 5.0116,5.9547 5.0268,5.8611 5.1946,5.5437 5.7025,4.5833 6.788,4.022 8.1428,4.0195 8.7781,4.0183 9.4973,4.1301 9.785,4.2747 10.139,4.4529 10.645,4.9156 11.161,5.5348 11.766,6.2594 11.815,6.3974 11.372,6.1282 11.249,6.0535 11.082,5.9923 11.001,5.9921 10.739,5.9917 10.642,5.9157 10.597,5.676 10.565,5.5039 10.47,5.3779 10.241,5.2038 9.7249,4.8103 9.5284,4.9873 9.885,5.5246 10.186,5.9779 11.844,7.5708 11.987,7.5442 12.195,7.5055 12.354,7.0888 12.32,6.6714 12.263,5.965 11.765,5.2307 10.985,4.7045 10.274,4.2243 8.9253,3.6111 8.3175,3.4916 6.3808,3.1108 4.4905,4.3154 4.2125,6.1074 4.046,7.1806 4.6407,8.5995 5.7543,9.7861 5.939,9.983 6.1016,10.132 6.1155,10.118 6.1294,10.105 5.9582,9.7296 5.7352,9.2846 Z"/>
</svg>
