<svg xmlns="http://www.w3.org/2000/svg" width="16" height="16" version="1.1">
 <rect style="fill:#2e92dd" width="16" height="16" x="0" y="0" rx=".8" ry=".8"/>
 <path style="fill:#f4f4f7" d="M 3 3 L 3 5.0273438 L 4.9472656 7.4765625 L 5.9335938 3 L 3 3 z M 6.9570312 3 L 6.4335938 5.3789062 L 11.433594 3 L 6.9570312 3 z M 13 3.3613281 L 8.8339844 5.34375 L 13 7.4199219 L 13 3.3613281 z M 3 6.6484375 L 3 10 L 5.6777344 10 L 3 6.6484375 z M 10.769531 7.4238281 L 12.011719 13 L 13 13 L 13 8.5371094 L 10.769531 7.4238281 z M 10.263672 9.7558594 L 7.7460938 13 L 10.986328 13 L 10.263672 9.7558594 z M 3 11 L 3 13 L 6.4824219 13 L 8.0332031 11 L 3 11 z"/>
</svg>
