<svg xmlns="http://www.w3.org/2000/svg" width="16" height="16" version="1">
 <path style="fill:#5f5fdf" d="M 0,2.95 V 14.222222 C 0,14.653422 0.3565,15 0.8,15 H 15.2004 C 15.6436,15 16,14.6535 16,14.222222 V 2.95 Z"/>
 <path style="opacity:0.2;fill:#f4f4f7" d="M 8,2.9444444 V 15 h 7.200781 C 15.643981,15 16,14.6535 16,14.222222 V 2.9444444 Z"/>
 <path style="fill:#bebed2" d="M 0.8,0.99999994 C 0.35648,0.99999994 0,1.3466944 0,1.7775833 V 3 H 16 V 1.7775833 C 16,1.3466944 15.6436,0.99999994 15.2,0.99999994 Z"/>
 <path style="fill:#33335d" d="m 6.3556984,5.0001155 c 0.0823,0.00187 0.161209,0.03192 0.222622,0.084697 l 5.3052646,4.1447234 c 0.220211,0.1889597 0.110394,0.5395147 -0.181613,0.5797404 l -2.0571606,0.2853477 0.9641376,1.640543 c 0.215456,0.366672 0.08779,0.832656 -0.285392,1.044354 l -0.20672,0.117593 c -0.3731816,0.211699 -0.8474376,0.08626 -1.0628936,-0.280413 l -1.000962,-1.703861 -1.467128,1.168526 c -0.225865,0.180517 -0.56799,0.02605 -0.568272,-0.256566 L 6.0000014,5.3347999 C 5.9994444,5.1466832 6.1603684,4.995274 6.3556964,5.0001135 Z"/>
</svg>
