<svg xmlns="http://www.w3.org/2000/svg" width="16" height="16" version="1.1">
 <rect style="fill:#b2bfd9" width="13" height="16" x="-14" y="-16" rx="1.182" ry="1.185" transform="scale(-1)"/>
 <path style="opacity:0.2" d="M 2.5 1 A 0.5 0.5 0 0 0 2 1.5 A 0.5 0.5 0 0 0 2.5 2 A 0.5 0.5 0 0 0 3 1.5 A 0.5 0.5 0 0 0 2.5 1 z M 4.5 1 A 0.5 0.5 0 0 0 4 1.5 A 0.5 0.5 0 0 0 4.5 2 A 0.5 0.5 0 0 0 5 1.5 A 0.5 0.5 0 0 0 4.5 1 z M 6.5 1 A 0.5 0.5 0 0 0 6 1.5 A 0.5 0.5 0 0 0 6.5 2 A 0.5 0.5 0 0 0 7 1.5 A 0.5 0.5 0 0 0 6.5 1 z M 8.5 1 A 0.5 0.5 0 0 0 8 1.5 A 0.5 0.5 0 0 0 8.5 2 A 0.5 0.5 0 0 0 9 1.5 A 0.5 0.5 0 0 0 8.5 1 z M 10.5 1 A 0.5 0.5 0 0 0 10 1.5 A 0.5 0.5 0 0 0 10.5 2 A 0.5 0.5 0 0 0 11 1.5 A 0.5 0.5 0 0 0 10.5 1 z M 12.5 1 A 0.5 0.5 0 0 0 12 1.5 A 0.5 0.5 0 0 0 12.5 2 A 0.5 0.5 0 0 0 13 1.5 A 0.5 0.5 0 0 0 12.5 1 z"/>
 <path style="fill:#f4f4f7" d="M 12.199707,13 C 11.534907,13 11,13.534907 11,14.199708 v 1.457519 C 11,15.777271 11.02241,15.890796 11.05492,16 L 14,13.054932 C 13.890796,13.022418 13.777271,13 13.657226,13 Z" clip-path="url(#clipPath1609-7)"/>
 <path style="fill:#e8ddc7" d="M 3.0000004,14 V 11.045454 L 5.9545457,14 Z"/>
 <path style="fill:#535353" d="m 3,14 4e-7,-1.181818 L 4.1818186,14 Z"/>
 <path style="fill:#2bbd6d" d="M 5.6590915,13.704546 3.2954551,11.340909 13.333073,1.3032917 15.69671,3.6669281 Z"/>
 <path style="fill:#71ec8c" d="M 3.8697849,11.915237 3.0000004,11.045454 13.045456,1.0000018 13.907403,1.8776199 Z"/>
 <path style="fill:#26a269" d="M 5.0847641,13.130216 5.9545457,14 16,3.9545458 15.122382,3.0925986 Z"/>
 <path style="fill:#4f4f4f" d="M 4.8904839,4.7688276 V 4.9209528 L 3.5797818,6.492914 h 0.7760158 c 0.2061446,0 0.4539146,-0.00396 0.74331,-0.011932 C 5.3904851,6.471042 5.5688794,6.459106 5.634291,6.44519 L 5.8037655,5.8844148 H 5.9999996 L 5.9435078,7 H 2.9999996 V 6.7792692 L 4.4147653,5.07308 3.0237854,3.2356456 V 3.0000004 h 2.588519 V 3.9574952 H 5.4160707 L 5.2911945,3.3102144 C 5.0691927,3.2823744 4.9157577,3.2684548 4.5312186,3.2684548 H 3.7403365 Z"/>
</svg>
