<svg xmlns="http://www.w3.org/2000/svg" width="16" height="16" version="1">
 <rect style="fill:#009d8b" width="16" height="16" x="0" y="0" rx=".8" ry=".8"/>
 <path style="fill:#0ac6b0" d="M 0.8,0 C 0.3568,0 0,0.3568 0,0.8 V 2 H 16 V 0.8 C 16,0.3568 15.6432,0 15.2,0 Z"/>
 <path style="fill:none;stroke:#f4f4f7;stroke-width:2;stroke-linecap:round;stroke-linejoin:round" d="M 4,8 6.5,11.000046 12,5.0000463"/>
</svg>
