<svg xmlns="http://www.w3.org/2000/svg" width="16" height="16" version="1">
 <rect style="fill:#bc494d" width="9" height="13" x="-12" y="-14" transform="matrix(0,-1,-1,0,0,0)"/>
 <path style="fill:#f4f4f7" d="m2 5v5h1v-2h2v-1h-2v-1h2v-1h-2zm4 0v1h1v4h1v-4h1v-1h-2zm4 0v5h1v-2h2v-3h-2zm1 1h1v1h-1z"/>
 <rect style="fill:#3f92f7" width="12" height="2" x="1" y="2" rx=".667" ry="1"/>
 <path style="fill:#3f92f7" d="m12.584802 1.0001399a0.57146776 0.51459891 0 0 0-0.584802 0.5145476v2.9707077a0.57146776 0.51459891 0 0 0 0.857115 0.4457064l1.428526-0.7426767 1.428527-0.7426771a0.57146776 0.51459891 0 0 0 0-0.8914134l-1.428527-0.7426768-1.428526-0.7426771a0.57146776 0.51459891 0 0 0-0.272313-0.068841z"/>
 <rect style="fill:#3f92f7" width="12" height="2" x="-14" y="11" rx=".667" ry="1" transform="scale(-1,1)"/>
 <path style="fill:#3f92f7" d="m3.415197 10.00014a0.57146768 0.5145988 0 0 1 0.584803 0.514548v2.970707a0.57146768 0.5145988 0 0 1-0.8571157 0.445706l-1.4285264-0.742677-1.4285262-0.742677a0.57146768 0.5145988 0 0 1 0-0.891413l1.4285262-0.742676 1.4285264-0.742677a0.57146768 0.5145988 0 0 1 0.2723127-0.06884z"/>
</svg>
