<svg xmlns="http://www.w3.org/2000/svg" width="16" height="16" version="1">
 <rect fill="#4f4f4f" width="16" height="16" x="-16" y="0" rx="1" ry=".8" transform="scale(-1,1)"/>
 <circle style="opacity:0.5" cx="-8" cy="8" r="7" transform="rotate(-90)"/>
 <circle fill="#fec006" cx="-8" cy="-8" r="5" transform="matrix(0,-1,-1,0,0,0)"/>
 <circle fill="#17191e" cx="-8" cy="-8" r="2" transform="matrix(0,-1,-1,0,0,0)"/>
</svg>
