<svg xmlns="http://www.w3.org/2000/svg" width="16" height="16" version="1.1">
 <circle style="fill:#1caff3" cx="8" cy="8" r="8"/>
 <path style="fill:#f4f4f7" d="m 7.983,12 -2.9828,-4 2,0 0,-4 2,0 0,4 2,0 z"/>
</svg>
