<svg xmlns="http://www.w3.org/2000/svg" width="16" height="16" version="1.1">
 <g transform="translate(0,-1036.3622)">
  <circle style="fill:#b2bfd9" cx="7.5" cy="1044.862" r="7.5"/>
  <path style="fill:#469961" transform="translate(0,1036.3622)" d="m8.5 8c-0.277 0-0.5 0.223-0.5 0.5s0.223 0.5 0.5 0.5h6.474609a7.5 7.5 0 0 0 0.025391 -0.5 7.5 7.5 0 0 0 -0.017578 -0.5h-6.482422z"/>
  <path style="fill:#438f96" transform="translate(0,1036.3622)" d="m0.43945312 6a7.5 7.5 0 0 0 -0.28710937 1h5.5976562c0.277 0 0.5-0.223 0.5-0.5s-0.223-0.5-0.5-0.5h-5.3105469z"/>
  <path style="fill:#469961" transform="translate(0,1036.3622)" d="m0.16015625 10a7.5 7.5 0 0 0 0.27734375 1h5.6132812c0.2770001 0 0.5-0.223 0.5-0.5s-0.2229999-0.5-0.5-0.5h-5.890625z"/>
  <path style="fill:#17191e" d="m4.9999999 1048.3622c0.4485195-1.409 1.0028712-2.4433 1.0000001-3.5-0.00283-1.0433-0.5571863-2.109-1.0000001-3.5 4.1539099 0 6.0000001 3.5 6.0000001 3.5s-1.8460902 3.5-6.0000001 3.5z"/>
 </g>
</svg>
