<svg xmlns="http://www.w3.org/2000/svg" width="16" height="16" version="1">
 <path fill="#4f4f4f" d="m16 8a8 8 0 0 1 -8 8 8 8 0 0 1 -8 -8 8 8 0 0 1 8 -8 8 8 0 0 1 8 8z"/>
 <path fill="#fff" opacity=".1" d="m3.5659 1.3503c-2.1469 1.4317-3.557 3.8742-3.557 6.6592h6.4c0-0.64837 0.38773-1.2034 0.94219-1.4547l-3.7859-5.2042z"/>
 <path fill="#fff" opacity=".1" d="m12.434 14.65c2.147-1.4317 3.557-3.8742 3.557-6.6592h-6.4c0 0.64837-0.38773 1.2034-0.94219 1.4547l3.7852 5.2047z"/>
 <path style="fill:#f4f4f7" d="M 8 5 L 8 11 C 9.662 11 11 9.662 11 8 C 11 6.338 9.662 5 8 5 z"/>
 <path style="fill:#fe4b4b" d="m 8,5 v 6 C 6.338,11 5,9.662 5,8 5,6.338 6.338,5 8,5 Z"/>
 <rect style="fill:#17191e" width="2" height="2" x="7" y="-9" ry="1" transform="scale(1,-1)"/>
</svg>
