<svg xmlns="http://www.w3.org/2000/svg" width="16" height="16" version="1">
 <rect fill="#b2bfd9" width="16" height="12" x="-16" y="-14" rx=".8" ry=".8" transform="matrix(0,-1,-1,0,0,0)"/>
 <rect fill="#e74c3c" width="5" height="5" x="9.17" y="-4.17" transform="matrix(.6 .8 -.6 .8 0 0)"/>
</svg>
