<svg xmlns="http://www.w3.org/2000/svg" width="16" height="16" version="1">
 <circle style="fill:#f4f4f7" cx="8" cy="8" r="6"/>
 <path style="fill:#48a9ff" d="m 8,0 c 2.558525,0 4.820718,1.1948326 6.283203,3.0527344 L 15.199219,2.1367188 A 0.46880974,0.46880974 0 0 1 15.537109,2 0.46880974,0.46880974 0 0 1 16,2.46875 v 4.0625 A 0.46880974,0.46880974 0 0 1 15.53125,7 H 12.898438 11.46875 A 0.46880974,0.46880974 0 0 1 11.136719,6.1992188 l 0.99414,-0.9941407 C 12.037491,5.0672339 11.940061,4.9318927 11.833984,4.8046875 a 5,5 0 0 0 -0.132812,-0.15625 C 11.560654,4.4933575 11.41036,4.3489299 11.251953,4.2128906 A 5,5 0 0 0 11.089844,4.078125 C 10.914999,3.9403465 10.731109,3.81475 10.539063,3.7011719 A 5,5 0 0 0 10.357422,3.6015625 C 10.168711,3.5002889 9.975065,3.4067638 9.7734375,3.3300781 A 5,5 0 0 0 9.609375,3.2714844 C 9.4025883,3.2010266 9.1898306,3.1446618 8.9726562,3.1015625 A 5,5 0 0 0 8.8183594,3.0722656 C 8.5509824,3.0279601 8.2783929,3.0000302 8,3 5.625712,3.00211 3.580326,4.6736809 3.105469,7 H 0.068359 C 0.558419,3.0443272 3.907463,0 8,0 Z"/>
 <path style="fill:#486afb" d="M 15.931641,9 C 15.441581,12.955673 12.092537,16 8,16 5.441475,16 3.179282,14.805167 1.716797,12.947266 L 0.800781,13.863281 A 0.4687926,0.4687926 0 0 1 0.462891,14 0.4687926,0.4687926 0 0 1 0,13.53125 V 9.46875 A 0.4687926,0.4687926 0 0 1 0.46875,9 H 3.101562 4.53125 a 0.4687926,0.4687926 0 0 1 0.332031,0.8007812 l -0.99414,0.9941408 c 0.09337,0.137845 0.190798,0.273185 0.296875,0.40039 a 5,5 0 0 0 0.132812,0.15625 c 0.140518,0.155081 0.290812,0.299508 0.449219,0.435547 a 5,5 0 0 0 0.162109,0.134766 c 0.174845,0.137778 0.358735,0.263375 0.550782,0.376953 a 5,5 0 0 0 0.18164,0.09961 c 0.188711,0.101273 0.382357,0.194798 0.5839845,0.271484 a 5,5 0 0 0 0.1640625,0.05859 c 0.2067868,0.07046 0.4195444,0.126822 0.6367188,0.169922 a 5,5 0 0 0 0.1542968,0.0293 C 7.4490177,12.97204 7.7216071,12.99997 8,13 c 2.374288,-0.0021 4.419674,-1.673681 4.894531,-4 z"/>
</svg>
