<svg width="16" height="16" version="1.1" xmlns="http://www.w3.org/2000/svg">
 <rect width="16" height="16" rx="1" ry="1" style="fill:#284b45"/>
 <path d="m0 12v3c0 0.554 0.446 1 1 1h14c0.554 0 1-0.446 1-1v-3h-16z" style="fill:#4f4f4f"/>
 <rect x="6" y="5" width="4" height="7" style="fill:#db5637"/>
 <path d="m8 4 2-2h-4z" style="fill:#f4f4f7"/>
</svg>
