<svg width="16" height="16" version="1.1" xmlns="http://www.w3.org/2000/svg">
 <circle cx="8" cy="8" r="8" style="fill:#17191e"/>
 <path d="M 7 2.0859375 A 6 6 0 0 0 2.0898438 7 L 6.2695312 7 A 2 2 0 0 1 7 6.2714844 L 7 2.0859375 z M 9 2.0898438 L 9 6.2695312 A 2 2 0 0 1 9.7285156 7 L 13.914062 7 A 6 6 0 0 0 9 2.0898438 z M 2.0859375 9 A 6 6 0 0 0 7 13.910156 L 7 9.7304688 A 2 2 0 0 1 6.2714844 9 L 2.0859375 9 z M 9.7304688 9 A 2 2 0 0 1 9 9.7285156 L 9 13.914062 A 6 6 0 0 0 13.910156 9 L 9.7304688 9 z " style="fill:#e2b322"/>
</svg>
