<svg width="16" height="16" version="1" xmlns="http://www.w3.org/2000/svg">
 <rect width="16" height="16" rx=".8" ry=".8" style="fill:#a52727"/>
 <path d="m5.3181138 2.9999162-0.1599703 0.1269531-0.1581101 0.1289063v3.6992187l1.116349 1.2949215 0.8835566-0.7109371-0.0018601-2.140625-0.0018601-2.1425781-0.1543899-0.1289063-0.1581101-0.1269531h-0.4336854zm0.7759472 0.7558594c0.04688-0.00401 0.054671-0.00324 0.1209077 0.029297l0.068825 0.035156 0.00186 1.6894531c2.69e-4 0.7438958-0.00457 1.6897355-0.0093 1.6894532l-0.5601745-0.7968749v-1.140625l-0.00186-1.4433594 0.065104-0.029297 0.065104-0.03125h0.3497048c0.19213 0-0.127692 4.169e-4 -0.1001688-0.00195z" style="fill:#f4f4f7"/>
 <path d="m14.393754 2.9999162-0.569092 0.017576c-0.416231-0.00285-0.8374-0.00439-0.841686-0.00292l-0.464222 1.0766525s-0.475407-1.0915871-0.561921-1.0708005l-0.06885-0.0044c-0.03771-0.00247-0.169734-0.00439-0.416595-0.00439h-0.452634v3.9609375l-0.03589 0.027833c-0.03153 0.022661-0.03736 0.030214-0.03003 0.037354l1.081633 0.8107913 0.0029-0.7888185c0.0033-0.72534 0.0044-0.785103 0.01465-0.7521975l0.466737 1.105224 0.47887-1.1484376 0.0074 2.0874024 1.010876 0.7492682 0.0029-2.9091802 0.0037-2.7978517z" style="fill:#f4f4f7"/>
 <path d="m1.6250334 3.0018693 0.3847656 0.3808594v2.6914063c0 1.48065 0.00133 2.7933848 0.00391 2.9179698v2e-3c0.00333 0.1603252 0.00816 0.3841652 0.013672 0.3808592 0.018459-0.01101 2.051731-2.2250617 2.0551365-2.2304696 0.00202-0.0033-0.015581-0.020582-0.039063-0.037109l-0.0429722-0.0293442v-3.8222656l-0.3242186-0.25-0.7387303-0.00195c-0.8860372-0.00143-1.3169052-0.00608-1.3125-0.00195zm1.500449 0.7402344 0.064453 0.029297 0.0625 0.029297v2.921875l-0.4906832 0.8124997c-0.013193 0.00454-0.014576-1.379312-0.011719-2.4746093l0.00195-1.3144531 0.4941407-0.00195z" style="fill:#f4f4f7"/>
 <path d="m9.678105 2.9999162 0.1599703 0.1269531 0.1581101 0.1289063v3.6992187l-1.116349 1.2949215-0.8835566-0.7109371 0.0018601-2.140625 0.0018601-2.1425781 0.1543899-0.1289063 0.1581101-0.1269531h0.4336854zm-0.7759472 0.7558594c-0.04688-0.00401-0.054671-0.00324-0.1209077 0.029297l-0.068825 0.035156-0.00186 1.6894531c-2.69e-4 0.7438958 0.00457 1.6897355 0.0093 1.6894532l0.5601745-0.7968749v-1.140625l0.00186-1.4433594-0.065104-0.029297-0.065104-0.03125h-0.3497048c-0.19213 0 0.127692 4.169e-4 0.1001688-0.00195z" style="fill:#f4f4f7"/>
 <path d="m4.482759 8-2.482759 2.272727 0.2068966 0.454546h0.820207v0.454545l0.4137928 0.454546h2.2832416l0.827586 0.354636h0.827586l0.413793 1.009h0.413794l0.413793-1.009h0.827586l0.827586-0.354636h2.283242l0.413793-0.454546v-0.454545h0.820206l0.206897-0.454546-2.482759-2.272727h-0.413793l1.655173 2.018h-1.655173l-0.827586-0.654364h-1.241379l-1.034483-0.9090905-1.034483 0.9090905h-1.241379l-0.827586 0.654364h-1.655173l1.655173-2.018z" style="fill:#f4f4f7"/>
</svg>
