<svg xmlns="http://www.w3.org/2000/svg" height="16" width="16" version="1.1">
 <circle cx="8" cy="8" r="8" style="fill:#b2bfd9"/>
 <path style="fill:#4f4f4f" d="m2 6c-1 0-1 1-1 1v3s0 1 1 1h1c1 0 1-1 1-1v-1s0-1-1-1h-1v-1h2v-1h-2zm0 3h1v1h-1z"/>
 <rect style="fill:#4f4f4f" height="5" width="1" y="6" x="5"/>
 <path style="fill:#4f4f4f" d="m8 6c-1 0-1 1-1 1v1l1 0.5-1 0.5v1s0 1 1 1h1c1 0 1-1 1-1v-1l-1-0.5 1-0.5v-1s0-1-1-1h-1zm0 1h1v1h-1zm0 2h1v1h-1z"/>
 <path style="fill:#4f4f4f" d="m12 6c-0.554 0-1 0.446-1 1v3c0 0.554 0.446 1 1 1h1c0.554 0 1-0.446 1-1v-3c0-0.554-0.446-1-1-1zm0 1h1v3h-1z"/>
</svg>
