<svg xmlns="http://www.w3.org/2000/svg" width="16" height="16" version="1">
 <path style="fill:#4f4f4f" d="M 6.7762,15.846 C 6.9015,15.443 7.5193,14.437 7.8518,14.094 8.056,13.884 8.2231,13.692 8.2231,13.668 8.2231,13.502 7.717,13.135 5.465,11.673 4.2601,10.891 3.6061,10.331 3.0037,9.5676 L 2.4944,8.9218 2.2829,7.9404 C 2.1231,7.1996 2.087,6.9047 2.1352,6.7362 2.1831,6.5687 2.1742,6.493 2.0996,6.4333 1.9628,6.3236 1.9685,5.8313 2.1071,5.7799 2.1835,5.7516 2.2117,5.6492 2.2053,5.4235 2.1932,4.9984 2.2615,4.8539 2.8911,3.9744 3.2595,3.4599 3.524,3.1643 3.7233,3.0445 3.8841,2.9478 4.1997,2.7006 4.4247,2.4952 4.7949,2.1572 4.8561,2.1256 5.0679,2.164 5.2366,2.1946 5.3493,2.1716 5.472,2.0817 5.7436,1.8827 6.1719,1.6578 6.2795,1.6578 6.3958,1.6578 7.0647,1.289 7.2687,1.1125 7.5031,0.90974 8.4107,0.48214 8.5517,0.50811 8.624,0.52146 8.6934,0.60118 8.7059,0.68531 8.7183,0.76944 8.7498,0.83828 8.7759,0.83828 8.8021,0.83828 9.0465,0.73387 9.3191,0.60626 9.5917,0.47865 10.169,0.27843 10.603,0.16133 11.451,-0.06779 11.675,-0.05703 11.828,0.22035 11.898,0.34542 11.973,0.36021 12.543,0.36021 13.2,0.36021 13.54,0.45593 13.622,0.66388 13.645,0.72099 13.872,0.86265 14.126,0.97868 14.503,1.1507 14.588,1.2194 14.588,1.3508 14.588,1.4525 14.668,1.5667 14.804,1.6605 15.119,1.8765 15.061,2.0538 14.588,2.3213 14.374,2.4425 14.152,2.5698 14.093,2.6041 14.007,2.655 14.023,2.6826 14.182,2.7537 14.289,2.8016 14.376,2.8857 14.376,2.9407 14.376,3.0903 13.77,3.8816 13.527,4.0484 13.272,4.2239 13.268,4.2991 13.482,4.907 13.573,5.1671 13.72,5.6873 13.808,6.0629 13.895,6.4385 14.027,6.9456 14.101,7.1898 14.175,7.4339 14.286,7.9257 14.349,8.2825 14.547,9.4134 14.38,10.137 13.742,10.907 13.314,11.425 12.293,12.377 11.698,12.814 L 11.247,13.145 11.288,13.486 C 11.321,13.749 11.388,13.889 11.586,14.1 11.894,14.43 12.467,15.539 12.467,15.807 V 16 H 6.7289 L 6.7767,15.847 Z"/>
 <path style="fill:#f4f4f7" d="M 10.755,8.2567 C 10.89,8.1201 11,7.8904 11,7.7463 11,7.6021 10.89,7.3724 10.755,7.2358 10.063,6.535 9.0495,7.5483 9.7195,8.2708 10.007,8.5812 10.441,8.5753 10.755,8.2566 Z"/>
 <path style="fill:#f4f4f7" d="M 13.99,6.9142 C 14.061,6.5599 13.743,6.0868 13.388,6.011 13.051,5.9388 12.584,6.2249 12.512,6.5611 12.433,6.924 12.763,7.4174 13.129,7.4903 13.468,7.5579 13.922,7.2519 13.99,6.9142 Z"/>
</svg>
