<svg width="16" height="16" version="1.1" xmlns="http://www.w3.org/2000/svg">
 <path d="m1.8235294 0c-0.4548039 4.4e-5 -0.8234839 0.3581904-0.8235294 0.8v12c-1.62e-5 0.327244 0.2051165 0.62151 0.5179228 0.742969l6.1764704 2.4c0.1961964 0.07616 0.4150172 0.07616 0.6112136 0l6.1764702-2.4c0.312807-0.121459 0.517939-0.415725 0.517923-0.742969v-12c-4.5e-5 -0.4418096-0.368725-0.799956-0.823529-0.8z" style="fill:#4f4f4f"/>
 <path d="m2 2v1 2 1 2 1h2v-1h-1v-2h1v-1h-1v-2h1v-1h-2zm3 0v1.5 2 1.5 2h1v-2h0.5c0.831 0 1.5-0.669 1.5-1.5v-2c0-0.831-0.669-1.5-1.5-1.5h-0.5-1zm4 0v7h1v-7h-1zm3.5 0c-0.831 0-1.5 0.669-1.5 1.5v4c0 0.831 0.669 1.5 1.5 1.5s1.5-0.669 1.5-1.5v-1.5h-1v1.5c0 0.277-0.223 0.5-0.5 0.5s-0.5-0.223-0.5-0.5v-2-2c0-0.277 0.223-0.5 0.5-0.5s0.5 0.223 0.5 0.5v1.5h1v-1.5c0-0.831-0.669-1.5-1.5-1.5zm-6 1c0.277 0 0.5 0.223 0.5 0.5v2c0 0.277-0.223 0.5-0.5 0.5s-0.5-0.223-0.5-0.5v-2c0-0.277 0.223-0.5 0.5-0.5zm6.515625 6.9667969c-0.404745 0.00258-0.828287 0.2568971-0.839844 0.8789061-0.01167 0.631588 1.255535 0.54339 1.259766 0.865235 0.0015 0.11157-0.166531 0.174443-0.277344 0.1875-0.255568 0.03011-0.722656-0.271485-0.722656-0.271485l-0.355469 0.425781s0.43382 0.364027 1.050781 0.367188c0.409058 0.0022 0.939535-0.196872 0.935547-0.792969-0.0047-0.716753-1.245713-0.685141-1.263672-0.929687-9e-3 -0.122791 0.119808-0.197786 0.251954-0.19336 0.238077 0.0079 0.61914 0.232422 0.61914 0.232422l0.296875-0.453125s-0.384371-0.3200542-0.955078-0.3164061zm-9.6816406 0.0214843c-0.6006806-0.01154-1.2482914 0.4301748-1.2675782 1.2304688-0.013678 0.567507 0.5008748 1.203287 1.1953126 1.212891 0.6092026 0.0084 1.0507812-0.378907 1.0507812-0.378907v-1.033203h-1.0136719v0.470703l0.4160157-0.035156 0.0175781 0.306641s-0.1346737 0.139898-0.3789063 0.144531c-0.4292516 0.0081-0.6384182-0.343404-0.6523437-0.650391-0.014952-0.32966 0.2174519-0.72491 0.6582031-0.722656 0.2937473 0.0015 0.4824219 0.269529 0.4824219 0.269531l0.3984375-0.488281s-0.3806133-0.3160768-0.90625-0.3261718zm2.0761718 0.0117188-1.0722656 2.433594 0.7265625-0.001953 0.1660157-0.439453h0.9355468l0.1621094 0.439453h0.6777344l-0.9980469-2.431641h-0.5976563zm1.671875 0v2.431641h0.59375v-1.34961l0.6191407 0.921875 0.6035156-0.958984 0.0390625 1.386719h0.5761719v-2.431641h-0.6152344l-0.6035156 0.970703-0.6015625-0.970703h-0.6113282zm2.9179688 0v2.431641h1.798828v-0.486329h-1.3125v-0.486328l1.216797 0.009766v-0.496094h-1.216797v-0.486328h1.3125v-0.486328h-1.798828zm-4.296875 0.744141 0.2597656 0.705078h-0.5273437l0.2675781-0.705078zm-0.703125 3.255859 3 1 3-1h-6z" style="fill:#f4f4f7"/>
</svg>
