<svg xmlns="http://www.w3.org/2000/svg" width="16" height="16" version="1.1">
 <path style="fill:#b2bfd9" d="M 5,0.99999994 V 2 H 3 V 3 H 2 V 4 H 1 V 5 5 6 H 0 v 4 h 1 v 0.333333 0 V 11 H 2 V 12.277778 13.444444 14 h 1 v 1 h 2 v -2 h 1 v 2 h 2 v -2 h 1 v 2 h 2 v -2 h 1 v -0.722222 0 V 12 h 1 v -1 h 1 v -1 h 1 V 9 h 1 V 5 H 15 V 4 H 14 V 3 H 13 V 2 H 11 V 0.99999994 Z"/>
 <path style="fill:#17191e" d="M 2,4.9999998 V 9 h 1 v 1 H 5 V 9 H 4 V 7 H 5 V 6 H 4 V 4.9999998 Z"/>
 <rect style="fill:#ea01f5" width="1" height="2" x="4" y="7"/>
 <path style="fill:#17191e" d="M 9,4.9999998 V 6 H 8 v 4 h 3 V 9 h 1 V 6 H 11 V 4.9999998 Z"/>
 <rect style="fill:#ea01f5" width="2" height="2" x="9" y="7"/>
 <path style="fill:#17191e" d="m 6,10 v 1 H 5 v 1 H 8 V 11 H 7 v -1 z"/>
</svg>
