<svg width="16" height="16" version="1.1" xmlns="http://www.w3.org/2000/svg">
 <path d="m7.2 0-0.8 3.6-1.6 2h1.2l-0.8 2-1.2 0.4h-1.2l-1.8 2 2.2 0.8-0.4 0.8-1.8 0.4v2l4.2-0.8 2.8-0.8 2.8 0.8 4.2 0.8v-2l-1.8-0.4-0.4-0.8 2.2-0.8-1.8-2h-1.2l-1.2-0.4-0.8-2h1.2l-1.6-2-0.8-3.6z" style="fill:#54d032"/>
 <path d="m7 2v4h2v-4l-0.2 3h-1.6zm-0.5 4v2l-2.5 2 3-1.5v-2.5zm2.5 0v2.5l3 1.5-2.5-2v-2z" style="fill:#b2bfd9"/>
 <path d="m3 13.6c0-1.6 1.8-2.6 5-2.6s5 1 5 2.6c0 2-3 2-5 2s-5 0-5-2z" style="fill:#b2bfd9"/>
 <path d="m8 11a2 1.5 0 0 0-2 1.5 2 1.5 0 0 0 0.1191406 0.503906 2 1.5 0 0 0-0.1191406-0.003906 2 1.5 0 0 0-2 1.5 2 1.5 0 0 0 2 1.5 2 1.5 0 0 0 1.8828125-1h0.234375a2 1.5 0 0 0 1.8828125 1 2 1.5 0 0 0 2-1.5 2 1.5 0 0 0-2-1.5 2 1.5 0 0 0-0.1191406 0.003906 2 1.5 0 0 0 0.1191406-0.503906 2 1.5 0 0 0-2-1.5z" style="fill:#54d032"/>
 <path d="m8 12a1 0.5 0 0 0-1 0.5 1 0.5 0 0 0 1 0.5 1 0.5 0 0 0 1-0.5 1 0.5 0 0 0-1-0.5zm-2 2a1 0.5 0 0 0-1 0.5 1 0.5 0 0 0 1 0.5 1 0.5 0 0 0 1-0.5 1 0.5 0 0 0-1-0.5zm4 0a1 0.5 0 0 0-1 0.5 1 0.5 0 0 0 1 0.5 1 0.5 0 0 0 1-0.5 1 0.5 0 0 0-1-0.5z" style="fill:#b2bfd9"/>
</svg>
