<svg width="16" height="16" version="1.1" xmlns="http://www.w3.org/2000/svg">
 <path d="m6 11c-1 0-2.01566 0.81887-2 2.390625 0 1 2 0.609375 2 0.609375v1s4e-7 1 1 1c1 0 1-1 1-1s0 1 1 1 1-1 1-1v-1s2 0.390625 2-0.609375c0.01566-1.571755-1-2.390625-2-2.390625h-2-2z" style="fill:#faa7b0"/>
 <ellipse cx="8" cy="6.5" rx="6" ry="5.5" style="fill:#fcd0d5"/>
 <path d="m3 8v1.5332031a6 5.5 0 0 0 1.5546875 1.4667969h0.4453125v-3h-2zm8 0v3h0.439453a6 5.5 0 0 0 1.560547-1.4667969v-1.5332031h-2z" style="fill:#b2e8fa"/>
 <circle cx="4.5" cy="7.5" r="1.5" style="fill:#2f2f2f"/>
 <circle cx="11.5" cy="7.5" r="1.5" style="fill:#2f2f2f"/>
 <circle cx="3.5" cy="6.5" r=".5" style="fill:#f4f4f7"/>
 <circle cx="10.5" cy="6.5" r=".5" style="fill:#f4f4f7"/>
 <path d="m6 10h4s-1.539e-4 -1.9824588-1-2h-2c-1 0-1 2-1 2z" style="fill:#2f2f2f"/>
 <rect x="6" y="9" width="4" height="1" style="fill:#f4f4f7"/>
</svg>
