<svg width="16" height="16" version="1.1" xmlns="http://www.w3.org/2000/svg">
 <g>
  <path d="m8 4e-8c-4.4091 0-8 3.591-8 8 4e-8 4.409 3.591 8 8 8s8-3.591 8-8-3.591-8-8-8z" style="fill:#522f17"/>
  <path d="m8 2a6 6 0 0 0-6 6 6 6 0 0 0 6 6 6 6 0 0 0 6-6 6 6 0 0 0-6-6zm-2.4067 1.7666h2.2991l2.6396 6.7134 1.1609-0.37793 0.38672 1.3-2.5034 0.72288-1.6838-4.2686-2.469 3.8906h-1.5484l3.4483-5.5686-0.38672-1.1001h-1.3433v-1.3118z" style="fill:#a38976"/>
  <circle cx="11.5" cy="11.5" r="4.5" style="fill:#42a1cd"/>
  <path d="m11.5 8.9999996s-0.354375-7e-3 -0.723635 0.17775c-0.369255 0.1846-0.776365 0.6556009-0.776365 1.3222504h1c0-0.500001 0.5-0.500001 0.5-0.500001s0.5 0 0.5 0.500001c0 0.2639-0.0698 0.41145-0.203125 0.578099-0.133325 0.166701-0.34668 0.334-0.59668 0.5215s-0.536645 0.395201-0.77832 0.6973c-0.241675 0.302051-0.421875 0.717001-0.421875 1.203101v0.5h3v-1h-1.82422c0.01565-0.022 0.0094-0.0556 0.02735-0.0781 0.133325-0.1667 0.34668-0.334 0.59668-0.5215s0.536645-0.3952 0.77832-0.6973c0.241675-0.30205 0.421875-0.717 0.421875-1.2031 0-0.6666495-0.40711-1.1376504-0.776365-1.3222504-0.369265-0.18465-0.72364-0.17775-0.72364-0.17775z" style="fill-rule:evenodd;fill:#f4f4f7"/>
 </g>
</svg>
