<svg xmlns="http://www.w3.org/2000/svg" width="16" height="16" version="1">
 <rect style="fill:#f3990f" width="16" height="16" x="0" y="0" rx=".8" ry=".8"/>
 <circle style="fill:#17191e" cx="2.5" cy="12.5" r="1.5"/>
 <circle style="fill:#17191e" cx="13.5" cy="12.5" r="1.5"/>
 <path style="fill:#17191e" d="M 10,13 C 10,13.828428 9.1045696,14.5 8,14.5 6.8954304,14.5 6,13.828428 6,13 Z"/>
</svg>
