<svg width="16" height="16" version="1.1" xmlns="http://www.w3.org/2000/svg">
 <path d="m7.9406257 0.00148417c-0.366161 0.018072-0.703979 0.2025225-0.917164 0.5007779l-1.5077752 2.1109212-1.9858877-0.5671829c-0.9052443-0.258588-1.7421404 0.5783224-1.4835569 1.4835824l0.5671733 1.9859222-2.1108849 1.5078014c-0.6700404 0.4786308-0.6700404 1.4744793 0 1.9531101l2.1108849 1.5078015-0.5671733 1.985922c-0.2585837 0.90526 0.5783122 1.742171 1.4835569 1.483583l1.9858877-0.567183 1.5077752 2.110921c0.478623 0.670052 1.474454 0.670052 1.953076 0l1.5077753-2.110921 1.985888 0.567183c0.905245 0.258588 1.742141-0.578323 1.483557-1.483583l-0.567173-1.985922 2.110885-1.5078015c0.67004-0.4786308 0.67004-1.4744793 0-1.9531101l-2.110885-1.5078014 0.567173-1.9859222c0.258584-0.9052604-0.578312-1.7421708-1.483557-1.4835824l-1.985888 0.5671829-1.5077753-2.1109212c-0.237559-0.3323703-0.627881-0.5210585-1.035912-0.5007779z" style="fill:#c64d4d"/>
 <path d="m8.5008101 1.0002346s-0.416673 0.247097-0.564629 0.4326416c-0.160143 0.200832-0.196154 0.4767316-0.321387 0.7011591-0.120297 0.2155815-0.370702 0.3722179-0.41092 0.6159817-0.02342 0.1419233 0.111269 0.4170601 0.111269 0.4170601l-0.400571 0.3401922-0.161471 0.4871755-0.21581 0.3510997-0.1883817 0.9198167-0.7276499 2.5958484 0.2913712 0.5318424-0.2649766 0.0690775s-0.1048382-0.084664-0.1857934-0.076349c-0.075905 0.0078-0.223574 0.047783-0.223574 0.047783s-0.3438731 0.1233511-0.2380657 0.5541754c0.1093981 0.4454422 0.4378315 0.4497814 0.4378315 0.4497814s0.2057649-0.062798 0.3338093-0.1147827c0.067196-0.02728 0.1045414-0.191131 0.1045414-0.191131l0.1438744-0.045705c0.00244 0.00568 0.00212 0.014296 0.00517 0.019216 0.105317 0.1688784 0.3124706 0.3119133 0.4952775 0.2342391 0.162361-0.068987 0.168424-0.3043109 0.20546-0.477308 0.05557-0.2595793 0.08384-0.7920505 0.08384-0.7920505s0.151315 0.6016927 0.104541 0.9000812c-0.04217 0.2690096-0.337948 0.7432292-0.337948 0.7432292s0.321896 0.2197936 0.515978 0.1989213c0.07174 0.1336641 0.05914 0.1681351 0.06211 0.3090291 0.0033 0.157402-0.171304 0.439913-0.171304 0.439913l0.266529 0.783741s0.070009 0.709104-0.075881 1.637347c-0.236951 0.178633-0.35274 0.371797-0.304827 0.535478 0.123975 0.214826 0.272889 0.380667 0.476131 0.382262 0.416689-0.255622 0.737443-0.271006 0.762324-0.592609 0.122319-1.580963 0.1188341-3.240666 0.1188341-3.240666s0.08577 0.04506 0.224091 0.05713v0.0036c0.01836 9.2e-4 0.03261-0.0017 0.04968-2e-3 0.01722 3.45e-4 0.03165 3e-3 0.0502 2e-3v-0.0036c0.138325-0.01207 0.224607-0.05713 0.224607-0.05713s-0.0031 1.659703 0.1192319 3.240666c0.02488 0.321603 0.345638 0.336987 0.762326 0.592609 0.203243-0.0016 0.3521539-0.167436 0.4761289-0.382262 0.04791-0.163681-0.06788-0.356845-0.304827-0.535478-0.14589-0.928243-0.076279-1.637347-0.076279-1.637347l0.266531-0.783741s-0.174614-0.28251-0.171305-0.439912c3e-3 -0.140895-0.01015-0.175365 0.06159-0.3090297 0.194083 0.020876 0.515979-0.1989213 0.515979-0.1989213s-0.29578-0.4742196-0.337949-0.7432292c-0.04677-0.2983885 0.104541-0.9000812 0.104541-0.9000812s0.02827 0.5324712 0.08384 0.7920505c0.03704 0.1729971 0.0431 0.4083209 0.205461 0.477308 0.182806 0.077674 0.38996-0.065361 0.495278-0.2342391 0.05711-0.091575 0-0.3240919 0-0.3240919l0.107646-0.081543v-0.2970836l0.296547-0.5411915-0.727649-2.5958484-0.188382-0.9198167-0.215811-0.3510997-0.161471-0.4871755-0.4005699-0.3401922s0.134685-0.2751368 0.111269-0.4170601c-0.04022-0.2437622-0.290624-0.4003986-0.41092-0.6159801-0.125234-0.2244275-0.160725-0.5003271-0.320868-0.7011591-0.147956-0.1855446-0.564628-0.4326416-0.564628-0.4326416zm-3.2433763 7.5704445c0.1085793 0.00431 0.2275855 0.1356789 0.2846429 0.3142236 0.066167 0.2072308 0.026563 0.4052517-0.088497 0.4425094-0.1151611 0.0371798-0.2622683-0.1006892-0.3286342-0.3079908-0.066403-0.2074753-0.026775-0.405871 0.088499-0.4430291 0.013964-0.00444 0.028703-0.00636 0.043989-0.00571z" style="fill:#17191e"/>
</svg>
