<svg width="16" height="16" version="1.1" xmlns="http://www.w3.org/2000/svg">
 <rect y="2.220446e-16" width="16" height="16" rx="2.4615386" ry="2.4615386" style="fill:#5e5e5e"/>
 <path d="m2 4v8h1v1h-1v1h-1v1.511719c0.4091228 0.303078 0.9104371 0.488281 1.4609375 0.488281h11.078124c0.550501 0 1.051815-0.185203 1.460938-0.488281v-0.511719h-1v-2h-1v-1h1v-8h-12z" style="fill:#17191e"/>
 <path d="m3 5v7h10v-7zm1 2h3v1h-3zm5 0h3v1h-3zm-6 6v2h1v1h8v-2h1v-1z" style="fill:#f4f4f7"/>
</svg>
