<svg xmlns="http://www.w3.org/2000/svg" width="16" height="16" version="1.1">
 <circle style="fill:#b2bfd9" cx="8" cy="8" r="8"/>
 <path style="fill:#17191e" d="M 7.6122495,6.378 C 7.3269751,6.10913 7.1264603,5.7518516 7.0435207,5.3690536 6.9605823,4.9853436 6.9970387,4.5779372 7.1456011,4.2142788 7.2941639,3.851532 7.5548307,3.5361788 7.8820315,3.3210828 8.2101443,3.1050752 8.6038799,2.9920588 8.9957935,3.0002616 c 0.3700376,0.00729 0.737342,0.1230424 1.0454025,0.3281128 0.30715,0.2050704 0.555058,0.4994604 0.704531,0.8385104 L 13.89561,4.9870444 H 10.105907 C 9.8944569,4.6388804 9.5317111,4.26623 9.1315955,4.1905816 8.8563447,4.1377192 8.5665115,4.1668856 8.3076667,4.27261 8.0488231,4.3783352 7.8209659,4.56062 7.6614679,4.7902988 7.5019683,5.0208892 7.4099151,5.2970512 7.4017111,5.5768584 7.3925911,5.8566656 7.4673341,6.1392068 7.6122495,6.378"/>
 <path style="fill:#0192d3" d="M 8.2498907,7.7502476 3.7000595,3.9003908 C 3.2516387,4.3633944 2.9946171,5.0059488 3.0000855,5.650326 3.0055535,6.3038172 3.2817155,6.9509284 3.7492767,7.407552 4.2168371,7.8641756 4.8703283,8.1248432 5.5238195,8.1157288 5.1647187,8.066512 4.8238455,7.8906068 4.5750271,7.626294 4.3262079,7.3628924 4.1712659,7.011994 4.1430119,6.6510696 4.1165799,6.3010828 4.2086343,5.9438044 4.4000335,5.650326 l 3.8498572,2.0999216"/>
 <path style="fill:#0192d3" d="M 8.0197883,8.679346 3.4699571,7.2793984 C 3.3487375,7.742402 3.3861059,8.2445968 3.5738591,8.6848148 3.7625243,9.1241212 4.1006627,9.4978052 4.5199179,9.7293072 4.8398279,9.9061232 5.2043975,10 5.5698795,10 5.9353603,10 6.2999295,9.9061232 6.6198403,9.7293072 6.3254487,9.7557392 6.0255903,9.7074312 5.7548983,9.5889476 5.4842043,9.471374 5.2435887,9.2836204 5.0631267,9.050296 4.8553219,8.7805144 4.7268111,8.4496672 4.7003799,8.1106172 L 8.0197883,8.679346"/>
 <path style="fill:#0192d3" d="m 10.573667,5.993887 c -0.198382,0.2345359 -0.328165,0.526548 -0.369881,0.8306109 -0.03893,0.2873767 0,0.5812429 0.07602,0.8612029 0.07601,0.2790342 0.189113,0.5478701 0.300355,0.8157793 0.111243,0.2679092 0.221559,0.5367454 0.293867,0.817633 0.07138,0.2808874 0.103823,0.5766075 0.05562,0.8621309 -0.08065,0.478343 -0.38564,0.903846 -0.783331,1.181024 -0.3976977,0.27718 -0.8825302,0.41438 -1.366434,0.445898 C 8.168973,11.848029 7.5487963,11.723807 7,11.45219 L 7.0139012,14.3 7.7258538,12.883511 c 0.9409271,0.275326 1.9930968,0.139981 2.8339052,-0.363393 0.424575,-0.254004 0.797237,-0.599782 1.056804,-1.020651 0.260493,-0.420867 0.404182,-0.916823 0.381006,-1.409999 -0.03337,-0.7036095 -0.392131,-1.3451083 -0.735128,-1.9597234 -0.343925,-0.6146154 -0.689705,-1.2663113 -0.694339,-1.970848 0,-0.054694 0.0019,-0.1103155 0.0055,-0.1650096"/>
</svg>
