<svg width="16" height="16" version="1.1" xmlns="http://www.w3.org/2000/svg">
 <path d="m 11.985663,10.399967 c 0,0 1.975979,-2.2263686 1.59809,-3.9999873 C 13.288414,5.0138182 11,4.5999935 11,2.6 11,1.5250361 12.510573,1.0000088 13.584257,1.0000052 15.127119,1 16.780567,2.8000041 15.582,4 15.160867,4.421636 15.182199,3 13.983632,3 13.584111,3 13.481496,3.2024344 13.5,3.5 c 0.08951,1.4394287 2.391377,1.8605493 2.480885,3.2999777 0.09252,1.4878263 -0.399522,2.3999926 -0.399522,2.3999926 z" style="fill:#7e664e"/>
 <path d="m5.5722409 11.196838c-0.378612 0.01542-0.5251299 0.500559-0.2184889 0.723435l2.6674509 2.123431-0.9952319 1.156246h-2.231705c-0.540283-0.0077-0.540283 0.807647 0 0.799997h2.397132c0.105953-2e-5 0.20756-0.04218 0.282475-0.117187l1.438452-1.599995c0.172081-0.172194 0.151808-0.457091-0.04292-0.603122l-3.036541-2.399992c-0.07445-0.05743-0.166726-0.08676-0.260626-0.08281z" style="fill:#b4a595"/>
 <path d="m2 9s2.394779 5 6.39 5c3.196177 0 6.591956-2.000039 7.391-3.200035 0.495547-0.744205 0.231415-3.7443585-0.998681-4.7999837-2.796656-2.3999926-5.1937881-2.3999926-9.5885311-4.3999852-0.7762969-0.3532832-1.1985279-1.5999954-1.5980499-1.5999954-0.799044 0-0.5997515 1.9999955-0.5997515 1.9999955s-1.278451 7.7e-6 -1.677973 7.7e-6c-0.852729 0 0.8614915 0.909304 2.2776865 1.999984 5.193786 3.9999857 7.990596 2.8000234 10.787252 6.4000121-2.397134 0.399998-10.787252-3.2000231-10.787252-3.2000231z" style="fill:#b2bfd9"/>
 <path d="m2 8s0-2 2.295-1.9999988c0.480165 3e-7 1.119638 0.442228 1.29831 0.7999976 0.399522 0.7999972 0.05019 1.1999748 0.599283 1.1999748 0.399522 0 1.837175-0.7999967 3.395938-0.7999967 3.196177 0 4.794421 2.3999918 4.794421 3.1999901 0 0.799996-3.595855 1.601493-5.593466 1.599994-1.8126013-0.0014-5.59092-3.5999627-5.59092-3.5999627l-1.200955-2.55e-5z" style="fill:#a08a73"/>
 <path d="M 14,8 C 14,8 5.9714287,5.9999501 5.992,2.3999928 6,1 8.989,-0.79999648 8.989,0.39999937 8.989,1.2537465 7.9432859,1.5475529 7.9904419,2.3999928 8.1362529,5.0358102 14,8 14,8 Z" style="fill:#a08a73"/>
 <path d="m2 8-2 1h2l1.198566-0.6000017z" style="fill:#17191e"/>
 <path d="m10.783313 11.995842c-0.358539 9.5e-5 -0.535511 0.436353-0.278573 0.686716l0.994786 1.396302-0.559487 1.12109h-0.552464c-0.5402821-0.0077-0.5402821 0.807647 0 0.799997h0.799044c0.151336 1.1e-5 0.28969-0.08558 0.357386-0.221092l0.799044-1.599995c0.07687-0.15401 0.0467-0.339986-0.07491-0.461717l-1.198449-1.600207c-0.07522-0.07742-0.178505-0.121087-0.286375-0.121094z" style="fill:#b4a595"/>
 <circle cx="3.5" cy="7.5" r=".5" style="fill:#17191e"/>
</svg>
