<svg width="16" height="16" version="1.1" xmlns="http://www.w3.org/2000/svg">
 <circle cx="8" cy="8" r="8" style="fill:#07b3ff"/>
 <path d="m5 3v6a2 2 0 0 0-2 2 2 2 0 0 0 2 2 2 2 0 0 0 2-2v-5h6v-3z" style="fill:#f4f4f7"/>
 <circle cx="11" cy="11" r="2" style="fill:#f4f4f7"/>
 <rect x="11" y="6" width="2" height="5" style="fill:#f4f4f7"/>
</svg>
