<svg xmlns="http://www.w3.org/2000/svg" width="16" height="16" version="1.1">
 <path style="fill:#eb643d" d="m 0.75,1 h 13.5 C 14.6655,1 15,1.3345 15,1.75 v 9.193628 l -2.144608,2.98897 c -0.242224,0.337591 -0.79407,0.936917 -1.209558,0.933823 l -8.2303929,-0.06127 c -0.4154884,-0.0031 -1.7666927,-0.01427 -1.8835784,-0.41299 L 0,9.1666668 V 1.75 C 0,1.3345 0.3345,1 0.75,1 Z"/>
 <path style="fill:#7cc42e" d="M 0.75,1 C 0.6895166,1 0.63143715,1.00788 0.57568357,1.021973 c -0.003574,8.475e-4 -0.0067,0.00276 -0.010254,0.00366 -0.0538128,0.014448 -0.1057464,0.033742 -0.15454102,0.058594 L 9.9484864,13.626221 12.72876,12.293213 3.7895509,1 Z M 7.3352051,1 15,11.133057 V 5.8376466 L 10.754883,1 Z"/>
 <path style="fill:#2be0de" d="M 2.8945313,7.1728517 0,9.0039063 V 15.25 C 0,15.6655 0.3345,16 0.75,16 h 13.5 C 14.6655,16 15,15.6655 15,15.25 v -5.08425 z"/>
 <ellipse style="fill:#f4f4f7" cx="7.376" cy="5.978" rx="1.34" ry="1.622" transform="rotate(23.444494)"/>
 <ellipse style="fill:#f4f4f7" cx="10.951" cy="6.167" rx="1.821" ry="1.942" transform="matrix(0.94096018,0.33851728,-0.46326752,0.88621848,0,0)"/>
 <ellipse style="fill:#f4f4f7" cx="9.562" cy="12.445" rx="1.821" ry="1.942" transform="matrix(0.9693782,-0.24557261,0.11153976,0.99375997,0,0)"/>
 <ellipse style="fill:#f4f4f7" cx="16.689" cy="4.119" rx="1.34" ry="1.622" transform="rotate(23.444494)"/>
 <path style="fill:#ffd520" d="M 9.7398423,3.015 C 6.4836603,3.9146247 6.7103937,5.9853982 3.8510249,5.9480352 3.2222981,5.9481047 2.661901,6.2266248 2.2969363,6.6615264 1.8762475,7.1255597 2.0103817,7.2592273 2.0606962,7.7074474 c 0.1554459,0.063775 0.681583,-0.460985 0.839608,-0.4008947 2.533562,0.9634055 6.4006516,2.3784679 9.3886768,2.6924977 1.319537,0.1386786 2.32863,-0.09044 3.184656,-0.2898778 C 15.799603,9.3700659 16.000057,8.9188419 16,8.4220501 16.000122,7.3702671 15.108111,6.5175324 14.007634,6.5174107 12.451897,6.2384625 12.132486,3.1173366 9.7398423,3.015 Z"/>
 <path style="fill:#5e5e5e" d="m 7.8929698,5.9000109 c -0.085667,0.00101 -0.1542053,0.071639 -0.1528696,0.1575443 0.051975,0.7266901 -0.3161687,0.6798627 -0.6773381,0.6798627 -0.00523,-2.666e-4 -0.010477,-2.666e-4 -0.015711,0 -0.2062428,0.010503 -0.1905328,0.3207438 0.015711,0.3102411 0.3586156,0 0.6773381,0.00732 0.6773381,0.6950118 -0.00297,0.2097723 0.3123227,0.2097723 0.3093643,0 C 7.9961305,6.9991303 8.3773259,7.047659 8.7431169,7.047659 c 0.2091797,0.00297 0.2091797,-0.3132077 0,-0.3102411 -0.5244246,0 -0.6936524,0.012207 -0.6936524,-0.6798627 0.00137,-0.087329 -0.069408,-0.1585696 -0.1564947,-0.1575443 z"/>
 <path style="fill:#5e5e5e" d="m 11.192959,5.9000109 c -0.08567,0.00101 -0.154205,0.071639 -0.15287,0.1575443 0.05197,0.7266901 -0.316168,0.6798627 -0.677337,0.6798627 -0.0052,-2.666e-4 -0.01048,-2.666e-4 -0.0157,0 -0.206242,0.010503 -0.190532,0.3207438 0.0157,0.3102411 0.358615,0 0.677337,0.00732 0.677337,0.6950118 -0.0029,0.2097723 0.312323,0.2097723 0.309365,0 -0.05333,-0.7435405 0.327861,-0.6950118 0.693652,-0.6950118 0.20918,0.00297 0.20918,-0.3132077 0,-0.3102411 -0.524425,0 -0.693652,0.012207 -0.693652,-0.6798627 0.0013,-0.087329 -0.0694,-0.1585696 -0.156495,-0.1575443 z"/>
 <path style="opacity:0.1" d="M 3.5705565,10.177978 A 0.750075,0.750075 0 0 0 3.0007324,11.412842 L 6.7756346,16 h 1.942383 L 4.1586915,10.459228 a 0.750075,0.750075 0 0 0 -0.588135,-0.28125 z m 9.2468265,2.054444 a 0.750075,0.750075 0 0 0 -0.569824,1.234863 l 2.077881,2.525391 C 14.704743,15.954588 15,15.639668 15,15.25 V 14.452393 L 13.405518,12.514404 A 0.750075,0.750075 0 0 0 12.817383,12.232422 Z M 1.6296387,12.518067 A 0.750075,0.750075 0 0 0 1.0598145,13.75293 L 2.9084471,16 H 4.8515625 L 2.2185058,12.800049 A 0.750075,0.750075 0 0 0 1.6296387,12.518067 Z m 7.6486818,0 A 0.750075,0.750075 0 0 0 8.708496,13.75293 L 10.557129,16 h 1.942383 L 9.8664551,12.800049 A 0.750075,0.750075 0 0 0 9.2783205,12.518067 Z"/>
</svg>
