<svg xmlns="http://www.w3.org/2000/svg" width="16" height="16" version="1">
 <rect style="fill:#b2bfd9" width="14" height="14" x="2" y="0" rx=".7" ry=".7"/>
 <path style="fill:#2d5de1;fill-rule:evenodd" d="M 16,1.399848 11.799697,2.72602 9,8.031467 V 14 h 6.299696 C 15.687496,14 16,13.687496 16,13.299697 Z"/>
 <path style="fill:#e34ae9;fill-rule:evenodd" d="M 7.600152,6.0422089 2,10.020725 v 3.278972 C 2,13.687496 2.3125039,14 2.7003038,14 H 9 15.299696 C 15.687496,14 16,13.687496 16,13.299697 V 9.3576388 L 11.799697,12.010742 9,8.031467 Z"/>
 <path style="fill:none;stroke:#4f4f4f;stroke-width:2;stroke-linecap:round" d="m 1.0142425,0.9999 h 2"/>
 <path style="fill:none;stroke:#4f4f4f;stroke-width:2;stroke-linecap:round" d="m 1.0142425,9.9999 h 2"/>
 <path style="fill:none;stroke:#4f4f4f;stroke-width:2;stroke-linecap:round" d="m 1.0142425,6.9999 h 2"/>
 <path style="fill:none;stroke:#4f4f4f;stroke-width:2;stroke-linecap:round" d="m 1.0142425,3.9999 h 2"/>
 <path style="fill:none;stroke:#4f4f4f;stroke-width:2;stroke-linecap:round" d="m 15.0001,14.985758 v -2"/>
 <path style="fill:none;stroke:#4f4f4f;stroke-width:2;stroke-linecap:round" d="m 12.0001,14.985758 v -2"/>
 <path style="fill:none;stroke:#4f4f4f;stroke-width:2;stroke-linecap:round" d="m 9.0001,14.985758 v -2"/>
 <path style="fill:none;stroke:#4f4f4f;stroke-width:2;stroke-linecap:round" d="m 6.0001,14.985758 v -2"/>
</svg>
