<svg xmlns="http://www.w3.org/2000/svg" width="16" height="16" version="1">
 <circle style="fill:#455e9c" class="cls-1" cx="8" cy="8" r="8"/>
 <path style="fill:#a2afce" d="M 5.6503906 3.7011719 C 5.2347126 3.7135599 4.8405756 3.8872841 4.5507812 4.1855469 L 1.5234375 7.2148438 C -0.04719413 8.7228582 2.2771418 11.047195 3.7851562 9.4765625 L 6.8144531 6.4492188 C 7.8610187 5.431914 5.6503906 3.7011719 5.6503906 3.7011719 z M 2.5 8 C 2.7761423 8 3 8.2238577 3 8.5 C 3 8.7761422 2.7761423 9 2.5 9 C 2.2238576 9 2 8.7761422 2 8.5 C 2 8.2238577 2.2238576 8 2.5 8 z"/>
 <path style="fill:#f4f4f7" d="M 8,1 A 3,3 0 0 0 5,4 3,3 0 0 0 8,7 3,3 0 0 0 10.824219,5 H 8 L 7.5,4 8,3 h 2.826172 A 3,3 0 0 0 8,1 Z"/>
 <path style="fill:#f4f4f7" d="M 5 8 L 5 9 L 6 9 L 6 13 L 7 13 L 7 9 L 8 9 L 8 8 L 7 8 L 6 8 L 5 8 z M 11.205078 8 L 12.306641 10.5 L 11.205078 13 L 12 13 L 12.705078 11.400391 L 13.408203 13 L 14.205078 13 L 13.101562 10.5 L 14.205078 8 L 13.408203 8 L 12.705078 9.5976562 L 12 8 L 11.205078 8 z M 8 10 L 8 11 L 8 12 L 8 13 L 8 14 L 8 15 L 11 15 L 11 14 L 9 14 L 9 13 L 11 13 L 11 12 L 9 12 L 9 11 L 11 11 L 11 10 L 8 10 z"/>
</svg>
