<svg xmlns="http://www.w3.org/2000/svg" width="16" height="16" version="1.1">
 <path style="fill:#f540ae" d="M 5.9763067,2.0001044 C 3.5119577,2.0137653 1.7476007,3.4002393 0.85347907,4.9481062 0.09793353,6.2560754 0.01588453,7.5389099 0.01562432,7.542972 0.00500392,7.6675546 -0.00111445,7.7925349 -1.4657063e-8,7.9175691 V 10.947514 C -0.01543539,12.037807 0.49205179,13.251664 1.3026786,13.97941 c 0.8106268,0.727746 1.7750422,1.020387 2.6971502,1.020387 0.6734346,0 1.3496674,-0.231089 1.9921022,-0.598966 0.5035645,0.302768 1.0532701,0.530764 1.6659443,0.583358 0.1292371,0.01121 0.2589354,0.01699 0.3886553,0.01561 a 3.0001716,2.9970771 0 0 0 0.015624,0 c 0.7085057,-0.01107 1.3415797,-0.266946 1.9198397,-0.612627 0.6493217,0.378192 1.3353397,0.612622 2.0174917,0.612622 0.922108,0 1.886524,-0.292641 2.697151,-1.020387 0.810626,-0.727746 1.318113,-1.941603 1.302678,-3.031896 V 7.8648915 7.8434302 c 2.05e-4,-0.1172277 -0.0055,-0.2343892 -0.01563,-0.3511849 0,0 -0.08529,-1.2920977 -0.855433,-2.600719 C 14.214531,3.3389529 12.429498,1.9865022 9.9761355,2.0001044 9.2594571,2.0040772 8.6237845,2.1922398 8.0230941,2.4137221 7.3978599,2.1811474 6.7264539,1.9959454 5.9763067,2.0001044 Z"/>
 <path style="fill:none;stroke:#f4f4f7;stroke-width:2;stroke-linecap:round;stroke-linejoin:round" d="M 4,10.999758 V 7.8952892 c 0,0 0.1818182,-1.8854423 2,-1.8955317 1.8181818,-0.010091 2.0000001,1.8505273 2.0000001,1.8505273 v 3.1494732 0"/>
 <path style="fill:none;stroke:#f4f4f7;stroke-width:2;stroke-linecap:round;stroke-linejoin:round" d="M 7.9999999,10.999758 V 7.8952892 c 0,0 0.1818182,-1.8854423 2,-1.8955317 C 11.818182,5.9896665 12,7.8502848 12,7.8502848 v 3.1494732 0"/>
</svg>
