<svg xmlns="http://www.w3.org/2000/svg" width="16" height="16" version="1">
 <path style="fill:#b2bfd9" d="M 14,15.2 V 4 H 2 V 15.2 C 2,15.6432 2.3345,16 2.75,16 h 10.5 C 13.6655,16 14,15.6432 14,15.2 Z"/>
 <path style="fill:#b8b8b8" d="m 5,2 h 6 l 3,2 H 2 Z"/>
 <rect style="fill:#a3a3a3" width="6" height="2" x="5" y="0"/>
 <path style="fill:#a3a3a3" d="m 11,2 v 0 l 3,2 H 9 Z"/>
 <path style="fill:#b8b8b8" d="m 9,4 v 12 h 4.285714 C 13.681429,16 14,15.6432 14,15.2 V 4 Z"/>
 <path style="fill:none;stroke:#3a86c5;stroke-linecap:round;stroke-linejoin:round" d="M 6.5,12.492879 V 7.5 M 3.5041172,7.5 5,10.5 6.5,7.5 M 3.5041172,12.492879 V 7.5"/>
 <path style="fill:none;stroke:#3a86c5;stroke-linecap:round" d="m 10.5,7.5 h 2 m -1,5 v -5"/>
</svg>
