<svg xmlns="http://www.w3.org/2000/svg" width="16" height="16" version="1.1">
 <rect style="fill:#7ec242" width="16" height="16" x="0" y="0" rx=".8" ry=".8"/>
 <path style="fill:#f4f4f7" d="M 13,8 V 11 C 13,12.149 12.144,13 11,13 H 7 V 12 H 11 C 11.572,12 12,11.569 12,11 V 8 Z"/>
 <path style="fill:#f4f4f7" d="M 3,3 V 11 C 3,12.149 3.8563,13 5,13 H 8 V 12 H 5 C 4.4281,12 4,11.57 4,11 V 3 Z"/>
 <path style="fill:#f4f4f7" d="M 8,5 C 7,5 6.0046,6.0008 6,6.8457 V 10 H 7 V 6.8457 C 7,6.4162 7.5724,6 8,6 8.4276,6 9.0021,6.4165 9,6.846 V 10 H 10 V 6.8457 C 9.9954,6.0008 9,5 8,5 Z"/>
 <path style="fill:#f4f4f7" d="M 11,5 C 10,5 9.0046,6.0008 9,6.8457 V 10 H 10 V 6.8457 C 10,6.4162 10.572,6 11,6 11.428,6 12,6.4162 12,6.8457 V 10 H 13 V 6.8457 C 12.995,6.0008 12,5 11,5 Z"/>
</svg>
