<svg xmlns="http://www.w3.org/2000/svg" width="16" height="16" version="1.1">
 <circle style="fill:#afd817" cx="8" cy="8" r="8"/>
 <path style="fill:#17191e" d="M 11.038281,3.1929688 1.7140625,12.945312 A 8,8 0 0 0 2.8257812,14.1 L 12.195312,4.2992188 Z"/>
 <path style="fill:none;stroke:#17191e;stroke-width:1.60000002" d="M 4.5331304,11.358797 C 4.4604332,11.145419 5.4153786,9.9249056 5.2684638,9.19257 4.8668834,7.1908056 4.2188918,6.7291716 6.1735362,4.9995216"/>
 <path style="fill:none;stroke:#17191e;stroke-width:1.60000002" d="m 5.3797964,9.9951184 c 0.2133788,0.072697 1.112618,-0.6939396 1.7914076,-0.654116 2.0381452,0.1195748 2.838218,0.8889386 4.567868,-1.0657092"/>
 <circle style="fill:#4f4f4f" cx="6.5" cy="4.5" r="1.5"/>
 <rect style="fill:#4f4f4f" width="2.546" height="2.546" x="12.87" y="-4.38" transform="rotate(45)"/>
 <path style="fill:#4f4f4f" transform="matrix(0.33963906,0.1960907,-0.1960907,0.33963906,21.229174,10.480018)" d="M -28.541582,-8.4892456 -25.808671,1.7101161 -36.008033,-1.022795 Z"/>
</svg>
