<svg xmlns="http://www.w3.org/2000/svg" width="16" height="16" version="1">
 <circle style="fill:#b2bfd9" cx="8" cy="8" r="8"/>
 <path style="fill:#474747" d="M 7.3099193,3.0008698 C 6.7393809,3.0131489 6.187775,3.1559783 5.6927379,3.4460217 4.7026639,4.0261092 4.1410274,5.0769235 4.0236596,6.27644 c -0.1173682,1.199517 0.2010852,2.5567803 0.9743263,3.802103 0.7683546,1.237448 1.84542,2.137588 2.9815737,2.591969 1.1361536,0.454386 2.3442784,0.460059 3.3281104,-0.116371 0.983839,-0.576431 1.544723,-1.618167 1.666569,-2.8092583 C 13.096086,8.5537867 12.786573,7.2047288 12.026697,5.9623109 11.261993,4.7119907 10.182618,3.7999821 9.0409397,3.3377856 8.4701014,3.1066873 7.8804575,2.988592 7.3099193,3.0008698 Z m 0.014228,0.4223656 C 7.8258218,3.4129934 8.3518888,3.5180444 8.8735278,3.7292265 9.916806,4.1515883 10.931782,5.0016942 11.6517,6.1787835 12.367047,7.3484001 12.651187,8.6138017 12.539809,9.7025651 12.42843,10.791325 11.930427,11.694384 11.082503,12.19118 10.234582,12.687982 9.1831433,12.693329 8.1452943,12.278262 7.1074451,11.863189 6.0954753,11.024567 5.3721463,9.8596296 4.6441955,8.6872486 4.3507639,7.4139911 4.4580872,6.3171309 4.5654107,5.2202701 5.0645442,4.3089649 5.9179031,3.8089794 6.3445822,3.5589868 6.8224737,3.433475 7.3241473,3.4232354 Z"/>
 <path style="fill:#2a58ae" d="M 9,5 C 7.3427284,5 6,6.342338 6,8 6,9.6576616 7.3423384,11 9,11 10.657662,11 12,9.6576616 12,8 12,6.342338 10.657662,5 9,5 Z M 8.4634316,6.585474 c 1.1269464,0 2.0486454,0.9096028 2.0486454,2.0365488 0,1.1269464 -0.921699,2.0486452 -2.0486454,2.0486452 -1.1269464,0 -2.0365492,-0.9216988 -2.0365492,-2.0486452 0,-1.126946 0.9096028,-2.0365488 2.0365492,-2.0365488 z"/>
 <path style="fill:#474747" d="m 2.0993406,8.1064306 c 0,0 -1.1868517,1.1069831 -1.0941833,1.798371 C 1.1330658,10.85838 2.3590729,11.01051 3.3266527,10.999462 5.6725118,10.973112 14.027617,8.2955313 13.999931,5.0834452 13.991231,4.0448781 12.078694,3.9530903 12.078694,4.0147074 c 0,0 1.418305,0.3476052 1.387416,1.0164696 C 13.350818,7.5243324 6.3722116,10.323296 3.2729818,10.399786 2.622563,10.415933 1.717197,10.279102 1.4583346,9.6960752 1.2264461,9.1733912 2.098747,8.1063532 2.098747,8.1063532 Z"/>
 <path style="fill:#d24646" d="m 11.999979,4.5079183 a 1.5,1.5 0 0 1 -2.9999582,0 1.5,1.5 0 1 1 2.9999582,0 z"/>
 <path style="fill:#606060" d="m 8,10 a 1,1 0 0 1 -2,0 1,1 0 1 1 2,0 z"/>
</svg>
