<svg xmlns="http://www.w3.org/2000/svg" width="16" height="16" version="1">
 <rect fill="#4a5579" width="16" height="16" x="0" y="0" rx=".857" ry=".857"/>
 <path style="fill:#f4f4f7" d="M 4.6782,11.986 C 4.6782,11.936 6.3478,9.9271 6.3835,9.9351 6.4032,9.9405 7.1503,10.257 8.0408,10.64 9.5638,11.294 9.6654,11.333 9.7058,11.278 9.7684,11.194 9.983,10.745 10.096,10.461 L 10.193,10.22 10.031,10.132 C 9.8011,10.007 9.4638,9.7263 9.2529,9.4852 9.0602,9.2651 8.7126,8.7347 8.7126,8.6603 8.7126,8.6357 8.8233,8.7477 8.9586,8.9092 9.3375,9.3601 10.211,10.069 10.266,9.9685 10.331,9.8487 10.374,9.4969 10.371,9.0876 10.368,8.5886 10.303,8.2004 10.131,7.6647 L 10.035,7.3639 9.5611,7.2154 C 9.2995,7.1321 9.0379,7.0513 8.9793,7.0317 8.7736,6.9666 8.9026,6.9703 9.2019,7.0383 9.5611,7.1191 9.927,7.1854 10.152,7.2141 10.353,7.2388 10.396,7.1998 10.417,6.9796 10.444,6.6968 10.263,5.9153 10.078,5.5281 10.005,5.373 9.9714,5.338 9.8241,5.2712 9.3358,5.0431 7.8045,4.8346 7.1547,4.9027 6.8734,4.9314 6.5858,5.0004 6.4948,5.0578 6.4701,5.0775 6.6511,5.1215 6.962,5.1789 7.242,5.2309 7.4463,5.2766 7.4163,5.2843 7.3823,5.2896 6.945,5.2412 6.4361,5.1762 5.5457,5.0614 5.513,5.0588 5.448,5.1161 5.3177,5.2336 5.1331,5.5528 5.0938,5.7245 5.0575,5.89 5.0598,5.9096 5.1421,6.0777 5.2827,6.3656 5.5457,6.5754 6.1405,6.8766 6.4218,7.0227 6.6458,7.1424 6.6378,7.1514 6.6288,7.1591 6.3878,7.0694 6.1039,6.9506 L 5.5843,6.7355 4.8228,6.9493 C 4.4049,7.0654 4.0483,7.1617 4.0313,7.1617 4.0103,7.1617 4,6.6561 4,5.7989 4,4.4868 4.0027,4.4321 4.0677,4.298 4.1067,4.2159 4.1836,4.1285 4.2526,4.0868 L 4.3723,4.0125 7.8585,4.0021 C 9.7747,3.9968 11.424,4.0021 11.517,4.0125 11.73,4.0385 11.923,4.1949 11.974,4.3837 11.996,4.4657 12.004,5.7075 11.998,8.0693 L 11.989,11.628 11.915,11.746 C 11.872,11.816 11.785,11.893 11.704,11.932 11.567,11.999 11.54,12 8.1254,12 6.2325,12 4.6822,11.988 4.6822,11.975 M 4.6755,11.982"/>
</svg>
