<svg xmlns="http://www.w3.org/2000/svg" width="16" height="16" version="1">
 <circle style="fill:#8d348e" cx="8" cy="8" r="8"/>
 <circle style="opacity:.3" cx="9" cy="7" r="5.5"/>
 <circle style="fill:#f4f4f7" cx="8" cy="8" r="4"/>
 <path style="fill:#691f69" transform="matrix(.50518151 0 0 .50000001 -3.2179599 -4.3291285)" d="m27.154517 24.658257-3.464101 2-3.464102 1.999999v-4-3.999999l3.464102 2z"/>
</svg>
