<svg xmlns="http://www.w3.org/2000/svg" width="16" height="16" version="1">
 <rect style="fill:#e3b36b" width="16" height="16" x="0" y="0" rx="4.8" ry="4.8"/>
 <path style="opacity:0.35;fill:none;stroke:#f4f4f7;stroke-width:2;stroke-linejoin:round" d="M 3,14 V 3 l 5,7 5,-7 v 11"/>
 <path style="fill:#4f4f4f" d="m 5.3417969,8 1.84375,2.582031 c 0.3987847,0.559598 1.2301215,0.559598 1.6289062,0 L 10.658203,8 H 8.1972656 L 8,8.2773438 7.8027344,8 Z"/>
 <rect style="fill:#4f4f4f" width="2" height="4" x="7" y="5"/>
</svg>
