<svg xmlns="http://www.w3.org/2000/svg" width="16" height="16" version="1">
 <path style="fill:#4f4f4f" d="M 4.6849484,15 C 4.2434554,15 3.7018474,14.693353 3.4813899,14.318562 L 0.16534308,8.6814381 c -0.22045759,-0.3747909 -0.22045759,-0.9880854 0,-1.3628762 L 3.4813899,1.6814382 C 3.7018474,1.3066472 4.2434554,1 4.6849484,1 h 6.6301026 c 0.441494,0 0.983101,0.3066472 1.203527,0.6814382 l 3.316079,5.6371237 c 0.220458,0.3747908 0.220458,0.9880853 0,1.3628762 L 12.51861,14.318562 C 12.298185,14.693353 11.756577,15 11.315083,15 Z"/>
 <path style="fill:#f4f4f7" d="M 10.260316,4.3560545 C 10.134641,4.1602464 10.002936,4 10.001595,4 c -0.0013,0 -0.0024,0.1849314 -0.0024,0.4109584 v 3.1506853 c 0,0.2260273 -0.07542,0.2509317 -0.201579,0.055369 L 8.2293987,4.3555889 C 8.1032355,4.1600271 7.7941109,4 7.5424559,4 H 6.3900291 C 6.1383737,4 5.8296459,4.1602191 5.7039709,4.3560545 L 3.0942562,7.6439449 c -0.1256751,0.1958083 -0.1256751,0.5162739 0,0.7121096 L 5.7397895,11.643945 C 5.8654645,11.839781 5.9970655,12 5.9983773,12 c 0.00133,0 0.00243,-0.184932 0.00243,-0.410959 V 8.3835615 c 0,-0.2260273 0.074451,-0.2504385 0.1993024,-0.054165 l 1.572878,3.3137815 C 7.8978727,11.83948 8.2059295,12 8.4575848,12 H 9.609971 c 0.251655,0 0.560383,-0.160219 0.686058,-0.356027 l 2.609715,-3.2879459 c 0.125675,-0.1958083 0.125675,-0.5162465 0,-0.7120822 z"/>
</svg>
