<svg xmlns="http://www.w3.org/2000/svg" width="16" height="16" version="1.1">
 <circle style="fill:#01a59b" cx="8" cy="8" r="8"/>
 <path style="fill:#f4f4f7" d="M 5.1739785,3 3,5.1739785 4.9283354,7.1023138 7.9969954,5.8222658 Z M 10.307692,5.6923077 4.1538462,8.2584135 6.928035,9.0471754 7.6942608,11.846154 Z M 10.166466,7.9924881 8.8706431,11.044621 10.82527,13 13,10.82527 Z"/>
</svg>
