<svg xmlns="http://www.w3.org/2000/svg" width="16" height="16" version="1">
 <path style="fill:#b2bfd9" d="M 7.999765,1e-5 C 7.5806988,1.0038095e-5 7.1613531,0.15620836 6.8480906,0.46946301 L 0.46944627,6.8488185 C -0.15707835,7.475327 -0.15618955,8.5237954 0.47036055,9.1503047 L 6.8490049,15.52966 c 0.6265245,0.626509 1.6759274,0.627398 2.3024523,9.14e-4 L 15.530107,9.1512247 c 0.626524,-0.6265093 0.626524,-1.6758752 0,-2.3023841 L 9.1514401,0.46947352 C 8.838178,0.15621887 8.4188315,2.0361892e-5 7.999765,2.0476177e-5 Z"/>
 <path style="fill:none;stroke:#5092ff;stroke-width:1.14285564;stroke-linecap:round;stroke-linejoin:round" d="M 1.5350293,7.9999999 3.9593925,5.5756369 5.5756343,7.191879 3.1512713,9.616242 4.7675134,11.232484"/>
 <path style="fill:none;stroke:#4b70e1;stroke-width:1.14285564;stroke-linecap:round;stroke-linejoin:round" d="M 7.8653106,1.6697186 5.4409476,4.0940818 7.0571898,5.7103236 9.4815528,3.2859605 11.097795,4.9022027 9.6162395,6.3837578"/>
 <path style="fill:none;stroke:#744dec;stroke-width:1.14285564;stroke-linecap:round;stroke-linejoin:round" d="M 6.1201365,9.8798608 8.5444999,7.4554977 10.160742,9.0717399 7.7363786,11.496103 9.3468657,13.1181 11.771229,10.693737"/>
 <path style="fill:#283d8a" d="m 5.4409476,11.905918 c -0.2984659,0.298466 -0.2746484,0.802847 0.053664,1.131159 l 1.7782869,1.778287 c 0.3283128,0.328313 0.8326931,0.35213 1.131159,0.05366 l 0.557688,-0.557683 C 8.9073611,14.279208 8.8549452,14.242421 8.8081186,14.195594 L 5.9796947,11.367171 Z m 4.8487264,-4.8487261 2.828423,2.8284239 c 0.04683,0.046826 0.08361,0.099242 0.115747,0.1536262 l 1.365808,-1.3658079 c 0.298467,-0.2984659 0.274649,-0.8028462 -0.05366,-1.131159 L 12.767701,5.7639882 C 12.439388,5.4356755 11.935008,5.4118576 11.636542,5.7103236 Z"/>
</svg>
