<svg xmlns="http://www.w3.org/2000/svg" width="16" height="16" version="1.1">
 <path style="fill:#519b31" d="m 1.5508676,7.1742055 5.623338,-5.6233379 c 0.7344901,-0.73449012 1.9170988,-0.73449012 2.6515889,0 l 5.6233375,5.6233382 c 0.73449,0.7344901 0.73449,1.9170987 0,2.6515888 L 9.8257947,15.449133 c -0.7344901,0.734489 -1.9170988,0.734489 -2.6515888,0 L 1.5508676,9.8257944 c -0.73449012,-0.7344901 -0.73449012,-1.9170988 0,-2.6515889 z"/>
 <rect style="fill:#ffe8b6" width="8.809" height="8.809" x="-4.41" y="7.62" rx="1.764" ry="1.764" transform="rotate(-45)"/>
 <rect style="fill:#d0273d" width="7.022" height="7.022" x="-3.51" y="8.51" rx="1.125" ry="1.125" transform="rotate(-45)"/>
 <rect style="fill:#ff5b54" width="4.843" height="2.964" x="-2.42" y="9.12" rx=".63" ry=".63" transform="rotate(-45)"/>
 <rect style="fill:#ff5b54" width="4.843" height="2.964" x="-2.42" y="11.95" rx=".63" ry=".63" transform="rotate(-45)"/>
 <rect style="fill:#17191e" width="2.906" height="1.779" x="-1.45" y="9.72" rx=".378" ry=".378" transform="rotate(-45)"/>
 <rect style="fill:#17191e" width=".758" height=".758" x="-1.79" y="13.06" rx=".086" ry=".086" transform="rotate(-45)"/>
 <rect style="fill:#17191e" width=".758" height=".758" x="1.03" y="13.06" rx=".086" ry=".086" transform="rotate(-45)"/>
</svg>
