<svg xmlns="http://www.w3.org/2000/svg" width="16" height="16" version="1">
 <rect fill="#f2ad19" width="16" height="16" x="0" y="0" rx=".8" ry=".8"/>
 <rect fill="#f4f4f7" width="2" height="9" x="3" y="4"/>
 <path fill="none" stroke="#f4f4f7" stroke-width="2" d="m3.5 5c3.5 0 3.5 0 3.5 8"/>
 <path fill="#f4f4f7" d="m10 7v2h-2v2h2v2h2v-2h2v-2h-2v-2h-2z"/>
</svg>
