<svg xmlns="http://www.w3.org/2000/svg" width="16" height="16" version="1">
 <rect style="fill:#f3ad1d" width="16" height="16" x="0" y="0" rx="4.8" ry="4.8"/>
 <path style="fill:#f4f4f7" d="m 7.6669769,3.0048334 c -0.4178109,0.020886 -1.2260023,0.2060864 -1.6465646,0.86356 0,0 -0.3887362,-0.1216042 0.064174,-0.8084539 0,0 -1.2448826,-0.00854 -1.8701609,0.9400605 H 3.0000009 v 6.086596 c 0,0 1.6442078,3.503948 6.9852092,2.82645 0,0 2.4172669,-0.351893 2.1010029,-2.536272 0,0 0.754373,-0.8292362 0.862165,-1.8854623 0.09962,-0.9754745 0.08838,-1.61942 -0.338309,-2.8836483 -0.02979,-0.088131 -0.156278,-0.081139 -0.175781,0.00976 -0.149565,0.6973886 -0.590264,2.29056 -1.850832,3.0036257 0,0 0.663461,-1.1899601 0.30134,-2.6234641 -0.01161,-0.045974 -0.07817,-0.041448 -0.08371,0.00558 -0.05311,0.4550016 -0.241893,1.4496087 -0.8858818,1.6475996 0,0 -0.3745932,-1.8071228 -2.1212781,-2.755592 0,0 0.150696,-0.4530994 0.1939174,-0.7763668 0.043093,-0.3234027 -0.107806,-0.4740355 -0.021625,-0.6249997 0.086314,-0.1509674 0.4310823,-0.3662109 0.4310823,-0.3662109 0,0 -0.3125181,-0.1436528 -0.730329,-0.1227678 z M 8.5008354,8.0016355 C 8.8240982,7.9811819 9.0903484,8.2475261 9.0700316,8.5708317 9.0530566,8.8372937 8.8371742,9.0534693 8.5705897,9.0702736 8.2473313,9.0907271 7.9809189,8.8243826 8.0013935,8.5010774 8.0182042,8.2344615 8.2342552,8.0184394 8.5008354,8.0016355 Z m 2.3056076,3.0575175 c 0.07319,0.0056 0.15375,0.02459 0.219726,0.07533 0.02193,0.01689 0.09788,0.07568 0.0865,0.14509 -0.01082,0.06613 -0.09426,0.103307 -0.125559,0.117187 -0.09604,0.04266 -0.134166,0.0074 -0.259486,0.04115 -0.03056,0.0082 -0.123625,0.03421 -0.204381,0.103237 -0.06576,0.05629 -0.04979,0.07781 -0.110211,0.13044 -0.05942,0.05188 -0.185977,0.12702 -0.275531,0.08929 -0.08552,-0.03597 -0.09273,-0.155603 -0.09417,-0.178571 -0.01008,-0.163562 0.129356,-0.285994 0.188338,-0.337612 0.06056,-0.05288 0.197726,-0.153078 0.401786,-0.178571 0.03453,-0.0044 0.0998,-0.01257 0.172991,-0.007 z"/>
</svg>
