<svg xmlns="http://www.w3.org/2000/svg" width="16" height="16" version="1.1">
 <path style="fill:#3584e4" d="m 14.928212,4.0000002 a 7.9999366,7.9999998 0 0 1 0,7.9999998 L 8,8.0000001 Z"/>
 <path style="fill:#a347ba" d="M 14.928212,12 A 7.9999366,7.9999998 0 0 1 8,16 V 8.0000001 Z"/>
 <path style="fill:#33d17a" d="M 8,2.2e-7 A 7.9999366,7.9999998 0 0 1 14.928212,4.0000002 L 8,8.0000001 Z"/>
 <path style="fill:#f6d32d" d="M 1.0717883,4.0000002 A 7.9999366,7.9999998 0 0 1 8,2.2e-7 V 8.0000001 Z"/>
 <path style="fill:#ff7800" d="m 1.0717883,12 a 7.9999366,7.9999998 0 0 1 0,-7.9999998 L 8,8.0000001 Z"/>
 <path style="fill:#ed333b" d="M 8,16 A 7.9999366,7.9999998 0 0 1 1.0717883,12 L 8,8.0000001 Z"/>
 <path style="fill:#f4f4f7" d="M 12.038778,3.4052134 7.1784784,8.2648729 C 6.7892392,8.8486544 6.9838588,9.4324364 6.4,10.016218 L 6.9838588,10.6 C 7.5677176,10.016218 8.3569648,10.217298 8.7354347,9.821624 L 13.595735,4.9619649 Z"/>
 <path style="fill:#17191e" d="M 14.816798,0.99995388 A 1.1833384,1.1833422 0 0 0 13.975604,1.3523587 l -5.78e-4,-5.654e-4 -1.217034,1.2171334 -0.760906,-0.7608143 c -0.177425,-0.177426 -0.354852,0 -0.354852,0 l -0.563336,0.5633394 c 0,0 -0.177521,0.1774261 0,0.354852 l 3.194693,3.1947984 c 0.17752,0.1775201 0.354945,0 0.354945,0 l 0.563339,-0.5632456 c 0.177424,-0.1775201 0,-0.354946 0,-0.354946 l -0.760812,-0.7608138 1.210163,-1.2101682 0.007,-0.00696 -1.88e-4,-1.884e-4 A 1.1831503,1.1831539 0 0 0 16,2.1832992 C 16,1.5296937 15.470266,0.99995698 14.81685,0.99995698 Z" font-weight="400" overflow="visible"/>
</svg>
