<svg width="16" height="16" version="1" xmlns="http://www.w3.org/2000/svg">
 <rect width="16" height="16" rx=".8" ry=".8" style="fill:#b2bfd9"/>
 <path d="m10.5 6.0187474a0.5000375 0.50006526 0 0 0-0.5136719 0.5v4.0019486a0.5000375 0.50006526 0 1 0 0.9999999 0v-2.4999955l0.59961 0.7988281a0.5000375 0.50006526 0 0 0 0.800781 0l0.599609-0.7988281v2.4999955a0.5000375 0.50006526 0 1 0 1 0v-4.0019486a0.5000375 0.50006526 0 0 0-0.90039-0.2988281l-1.09961 1.4667968-1.099609-1.4667968a0.5000375 0.50006526 0 0 0-0.386719-0.2011719zm-3 0.00781c-0.4860795 0-0.9098773 0.1871454-1.1640625 0.4921875-0.2541851 0.3050446-0.3359375 0.6744817-0.3359375 1.007815 0 0.583333 0.1770025 1.0522306 0.5351562 1.2910156 0.3581536 0.238784 0.7148601 0.2089844 0.9648438 0.2089844s0.3933343 0.029796 0.4101562 0.041016c0.0168221 0.0112096 0.0898438 0.04232 0.0898438 0.458984 0 0.166667-0.0452212 0.2972295-0.1035156 0.3671875-0.058295 0.0699531-0.1326127 0.1328116-0.3964844 0.1328116s-0.3886875-0.0765711-0.46875-0.1406241c-0.080062-0.06405-0.083984-0.082031-0.083984-0.082031a0.50005176 0.50008434 0 1 0-0.8945316 0.4472621s0.1210985 0.230069 0.3535156 0.416014c0.2324173 0.185948 0.6076705 0.359375 1.09375 0.359375 0.4860794 0 0.9098775-0.187146 1.1640625-0.492187 0.2541855-0.305038 0.3359375-0.6744741 0.3359375-1.0078081 0-0.583333-0.1770028-1.0522306-0.5351562-1.2910156-0.3581536-0.2387843-0.7148601-0.2089844-0.9648438-0.2089844s-0.3933343-0.0298-0.4101562-0.041016c-0.0168221-0.0112146-0.0898438-0.0423176-0.0898438-0.458984 0-0.1666666 0.0452212-0.2972296 0.1035156-0.3671875 0.058295-0.069958 0.1326127-0.1328125 0.3964844-0.1328125s0.3886875 0.076571 0.46875 0.140625c0.080063 0.064054 0.083984 0.083984 0.083984 0.083984a0.50005174 0.50008432 0 1 0 0.8945316-0.4472653s-0.1210983-0.2320228-0.3535156-0.4179687c-0.2324172-0.1859458-0.6076706-0.359375-1.09375-0.359375zm-3.0078125 0.0117212a0.50003385 0.50004818 0 0 0-0.4921875 0.5058594v1.8828125l-1.0527344-2.1054688a0.50003385 0.50004818 0 0 0-0.9472656 0.2226563v3.999995a0.50003385 0.50004818 0 1 0 1 0v-1.8808544l1.0527344 2.1054644a0.50003385 0.50004818 0 0 0 0.9472656-0.22461v-3.999995a0.50003385 0.50004818 0 0 0-0.5078125-0.5058594z" style="fill:#4c4c4c"/>
</svg>
