<svg width="16" height="16" version="1" xmlns="http://www.w3.org/2000/svg">
 <rect width="16" height="16" rx=".8" ry=".8" style="fill:#b2bfd9"/>
 <path d="m13.493793 5.9672685c-0.173631 0.00568-0.331872 0.1010575-0.417971 0.2519291l-1.125822 1.3221389-1.026177-1.3221389c-0.088001-0.1455929-0.243996-0.2364584-0.414065-0.2411871-0.401537-0.0105257-0.6509834 0.4327024-0.433595 0.7704336l1.084967 1.7351858-1.084967 1.7351851c-0.3898807 0.573222 0.503696 1.131138 0.84766 0.529247l1.026177-1.3221395 1.125822 1.3221395c0.343971 0.601871 1.237522 0.04397 0.847662-0.529247l-1.084968-1.7351851 1.084968-1.7351858c0.230278-0.3381073-0.0208-0.794573-0.429691-0.7811756zm-10.676411 0.013669c-0.2109997-0.0062-0.3486347 0.0039-0.3486347 0.0039-0.2634852 0.0165233-0.4687321 0.2350067-0.4687526 0.4989829v1.9197375c-0.0085 0.052714-0.0085 0.1064498 0 0.1591642v1.9207159c-0.00956 0.676098 1.0095691 0.676098 1.0000055 0v-1.5213395c0.215163 0.0059 0.2847449 0.039016 0.5918002-0.018558 0.2994543-0.0561446 0.6262417-0.1571806 0.9111376-0.3886356 0.2848966-0.2314541 0.4970733-0.6253949 0.4970733-1.0711857 0-0.4293565-0.2256313-0.8061701-0.5048856-1.0243155-0.2792546-0.2181403-0.5949742-0.321459-0.8886768-0.3856997-0.2937027-0.0642406-0.5780671-0.0866093-0.7890669-0.0927638zm4.0000726 0c-0.2110001-0.0062-0.3486349 0.0039-0.3486349 0.0039-0.2634852 0.016523-0.4687321 0.2350067-0.4687526 0.4989829v1.9158319c-0.00903 0.054309-0.00903 0.1097374 0 0.1640467v1.919739c-0.00956 0.676098 1.0095691 0.676098 1.0000055 0v-1.4393156c0.010573 0.077853 0.039346 0.1521183 0.083985 0.2167755l1.0000057 1.4998571c0.3667986 0.569308 1.216528 0.0029 0.832035-0.554635l-0.972661-1.4588442c0.187412-0.064954 0.378405-0.1038147 0.551761-0.2392353 0.279254-0.2181453 0.504885-0.594959 0.504885-1.0243163 0-0.4293565-0.225631-0.8061701-0.504885-1.0243155-0.279255-0.2181463-0.594974-0.321465-0.888677-0.3857057-0.2937024-0.0642436-0.578067-0.0866114-0.7890667-0.0927608zm-3.8174544 1.0389657c0.157404 7e-3 0.2052646-0.010909 0.3935569 0.030267 0.2063001 0.045126 0.3905832 0.121475 0.4863308 0.1962706 0.095747 0.074792 0.1201178 0.1041907 0.1201178 0.2372795 0 0.1791492-0.037825 0.2226669-0.1279304 0.2958706-0.090106 0.0732027-0.2633213 0.1440236-0.4638697 0.1816229-0.1936005 0.0362963-0.2491879 0.0147085-0.4082054 0.0126987zm4.0000724 0c0.1574039 7e-3 0.2052647-0.010909 0.3935567 0.030267 0.2063 0.045126 0.390584 0.121475 0.486331 0.1962706 0.09575 0.074792 0.120118 0.1041907 0.120118 0.2372795 0 0.1330898-0.02437 0.1624868-0.120118 0.2372825-0.09575 0.074793-0.280031 0.151146-0.486331 0.1962704-0.188292 0.041186-0.2361528 0.023238-0.3935567 0.030277z" style="fill:#4c4c4c"/>
</svg>
