<svg xmlns="http://www.w3.org/2000/svg" width="16" height="16" version="1">
 <path style="fill:#4d8ee4" d="M 4.7504952,0.94059404 10.80396,0.89108912 c 2.659112,-0.021746 3.595416,1.90641128 3.859406,4.55247528 l 0.59406,5.9544556 c 0.121726,1.220102 0.28741,2.144079 -0.463863,2.990746 C 13.915532,15.378285 12.633041,16 11.2,16 H 4.8 C 2.1408,16 0,13.8592 0,11.2 V 4.8 C 0,3.3164976 0.6662704,1.9943345 1.7171224,1.115199 2.5499384,0.41847108 3.5748368,0.95020852 4.7504952,0.94059404 Z"/>
 <path style="fill:#a54adb" d="M 4.8,0 C 3.4704,0 2.270725,0.535525 1.403125,1.403125 l 13.19375,13.19375 C 15.464475,13.729275 16,12.5296 16,11.2 V 4.8 C 16,2.1408 13.8592,0 11.2,0 Z"/>
 <path style="fill:#f4f4f7" transform="matrix(0.61546664,0,0,0.48859228,-4.5864646,-2.3979749)" d="m 15.723637,13.094712 4.726642,0 4.726643,-10e-7 -2.363322,4.093393 -2.363321,4.093393 -2.363321,-4.093393 z"/>
 <path style="fill:#f4f4f7" transform="matrix(0.61546664,0,0,0.48859228,-7.4955553,1.6020251)" d="m 15.723637,13.094712 4.726642,0 4.726643,-10e-7 -2.363322,4.093393 -2.363321,4.093393 -2.363321,-4.093393 z"/>
 <path style="fill:#f4f4f7" transform="matrix(0.61546664,0,0,0.48859228,-1.6773737,1.602025)" d="m 15.723637,13.094712 4.726642,0 4.726643,-10e-7 -2.363322,4.093393 -2.363321,4.093393 -2.363321,-4.093393 z"/>
</svg>
