<svg xmlns="http://www.w3.org/2000/svg" width="16" height="16" version="1">
 <circle style="fill:#cc5e55" cx="8.5" cy="-8.5" r="7.5" transform="scale(1,-1)"/>
 <rect style="fill:#f4f4f7" width="3" height="7" x="7" y="-14" transform="scale(1,-1)"/>
 <circle style="fill:#f4f4f7" cx="8.5" cy="-4.5" r="1.5" transform="scale(1,-1)"/>
</svg>
