<svg xmlns="http://www.w3.org/2000/svg" width="16" height="16" version="1">
 <path style="fill:#ffffbf" d="m 0,6 0,9.2 C 0,15.6432 0.3568,16 0.8,16 l 14.4,0 C 15.6432,16 16,15.6432 16,15.2 L 16,6 Z"/>
 <path style="fill:#6765f6" d="M 16,6 16,0.8 C 16,0.3568 15.6432,0 15.2,0 L 0.8,0 C 0.3568,0 0,0.3568 0,0.8 L 0,6 Z"/>
 <rect style="fill:#17191e" width="2" height="2" x="4" y="6"/>
 <rect style="fill:#17191e" width="2" height="2" x="10" y="6"/>
</svg>
