<svg xmlns="http://www.w3.org/2000/svg" width="16" height="16" version="1">
 <circle style="fill:#4bae4f" cx="8.5" cy="8.5" r="7.5"/>
 <path style="fill:#f4f4f7" d="M 5,5 V 12 H 12 V 5 Z M 6,6 H 8 V 7 H 6 Z M 9,6 H 11 V 7 H 9 Z M 6,8 H 8 V 9 H 6 Z M 9,8 H 11 V 9 H 9 Z M 6,10 H 8 V 11 H 6 Z M 9,10 H 11 V 11 H 9 Z"/>
</svg>
