<svg xmlns="http://www.w3.org/2000/svg" width="16" height="16" version="1.1">
 <circle style="fill:#2a4986" cx="8" cy="8" r="8"/>
 <path style="fill:#f4f4f7" d="M 4.2195312,0.95703124 A 8,8 0 0 0 2.2554688,2.4445312 L 13.355469,9.1796876 1.4585938,3.4031248 A 8,8 0 0 0 0.35390624,5.65 L 13.714844,10.0625 0.103125,6.7859376 A 8,8 0 0 0 0,8 8,8 0 0 0 0.11171876,9.3195312 L 12.638281,10.561719 0.41875,10.522656 a 8,8 0 0 0 1.0515625,2.082032 L 12.871875,11.573438 2.1765625,13.477344 a 8,8 0 0 0 2.0054687,1.551562 L 15.132031,11.604688 a 8,8 0 0 0 0.58125,-1.514844 z"/>
</svg>
