<svg xmlns="http://www.w3.org/2000/svg" width="16" height="16" version="1.1">
 <g transform="translate(-13,-15)">
  <circle style="fill:#44ad4d" cx="21" cy="23" r="8"/>
 </g>
 <path style="fill:#f4f4f7" transform="matrix(0.5051815,0,0,0.5,-16.122054,-14.885336)" d="m 57.646715,45.770672 -6.928203,4 -6.928203,4 0,-8 0,-8 6.928203,4 z"/>
</svg>
