<svg xmlns="http://www.w3.org/2000/svg" width="16" height="16" version="1.1">
 <circle style="fill:#b2bfd9" cx="8" cy="8" r="8"/>
 <path style="fill:#3aaaff" d="M 6.4211892,5.3386253 C 5.9651206,3.8245484 3.3878068,4.0918702 2.957,4.059 3.4405314,3.8189756 3.874757,4.0078231 4.8715829,3.2857141 6.7918996,1.8946242 8.1391723,1.876135 9.1572973,2.4285712 6.3738916,2.5343804 7.5927338,4.0860267 8.002704,4.8850287 7.4813425,5.0364679 6.6583341,5.265076 6.4211892,5.3386253 Z"/>
 <path style="fill:#008bff" d="M 13.291784,3.2551869 C 12.289478,4.579111 10.623039,6.3678246 8.7992186,6.6034433 6.9753972,6.8390616 5.0652775,6.5780419 4.6625189,7.9363369 4.2916164,9.1872045 5.7675218,10.355077 7.1205128,10.073606 8.5659313,9.772904 8.2537714,8.1346266 7.4631852,7.0190012 8.0637103,6.9845655 7.7103668,7.1941879 8.7287258,7.142857 L 9.3901873,9.2053498 C 9.7698917,10.158442 10.824203,12.321584 11,14 10.15462,12.785241 9.5913917,12.33882 8.2812514,11.462455 6.6030475,10.33989 5.0724937,10.301886 4.285838,8.6480029 3.5008811,6.997693 4.7112792,5.8089117 6.5704859,5.294086 9.2274287,4.5583608 11.516738,3.860827 13.291784,3.2551869 Z"/>
 <path style="fill:#3aaaff" d="M 7.4631852,7.0190012 C 8.0637103,6.9845655 7.9520031,6.9934798 8.9703621,6.9421487 10.488281,8.2360125 10.991411,8.1832641 13.643308,10.071 10.977795,9.880318 8.9609957,9.5158254 7.4631852,7.0190012 Z"/>
 <path style="fill:#00ccff" d="M 2.957,4.059 C 3.4405314,3.8189756 3.877505,3.7212031 4.8743309,2.9990941 6.7946476,1.6080042 8.8277546,1.9113816 9.8458796,2.4638178 7.0624739,2.5696269 7.4211081,3.1242164 7.4108361,3.5589811 5.561534,3.1691718 5.0215773,3.5994664 2.957,4.059 Z"/>
 <path style="fill:#008bff" d="M 9.8458796,2.4638178 C 7.0624739,2.5696269 7.5927338,4.0860267 8.002704,4.8850287 7.6778965,4.9793744 7.539927,5.0868559 7.1057258,5.20177 5.3537695,2.0800805 8.4159728,1.6739678 9.8458796,2.4638178 Z"/>
 <path style="fill:#00ccff" d="M 4.787042,9.4256861 C 3.4249957,7.6718839 3.847883,6.0643707 6.5149671,5.2291604 9.146937,4.4049447 11.516738,3.860827 13.291784,3.2551869 8.5015894,5.0803557 2.3319255,6.2999252 4.787042,9.4256861 Z"/>
</svg>
