<svg xmlns="http://www.w3.org/2000/svg" width="16" height="16" version="1">
 <rect fill="#b2bfd9" width="16" height="16" x="0" y="0" rx=".8" ry=".8"/>
 <path opacity=".1" d="m16 15.2v-14.4c0-0.4432-0.3568-0.8-0.8-0.8l-7.2 4e-8v16h7.2c0.4432 0 0.8-0.3568 0.8-0.8z"/>
 <path fill="#c2352a" d="m5.9998 0v6h2v-6z"/>
</svg>
