<svg xmlns="http://www.w3.org/2000/svg" width="16" height="16" version="1.1">
 <path style="fill:#b2bfd9" d="M 1.2307693,16 H 14.769231 C 15.451077,16 16,15.42912 16,14.72 V 11 H 8e-8 v 3.72 C 8e-8,15.42912 0.54892316,16 1.2307693,16 Z"/>
 <path style="fill:#17191e" d="M 1.2307693,0 H 14.769231 C 15.451077,0 16,0.57088 16,1.28 V 12 H 8e-8 V 1.28 C 8e-8,0.57088 0.54892316,0 1.2307693,0 Z"/>
 <rect style="fill:#7e7e7e" width="7" height="1" x="7" y="13"/>
 <rect style="fill:#f04113" width="5" height="1" x="2" y="13"/>
 <rect style="opacity:0.2;fill:#f4f4f7" width="2" height="1" x="6" y="13"/>
 <path style="fill:#f4f4f7" d="M 10.073,6.0130702 7,7.718 7.0027657,4.3035553 Z"/>
 <path style="fill:#f4f4f7" d="M 8,2 C 5.7922153,2 4,3.7922153 4,6 4,8.2077847 5.7922153,10 8,10 10.207785,10 12,8.2077847 12,6 12,3.7922153 10.207785,2 8,2 Z m 0,0.3636364 c 2.009615,0 3.636364,1.6267483 3.636364,3.6363636 C 11.636364,8.0096153 10.009615,9.6363636 8,9.6363636 5.9903847,9.6363636 4.3636364,8.0096153 4.3636364,6 4.3636364,3.9903847 5.9903847,2.3636364 8,2.3636364 Z"/>
</svg>
