<svg xmlns="http://www.w3.org/2000/svg" width="16" height="16" version="1.1">
 <path style="fill:#0060d6" d="M 8.0446428,-9.8000001e-7 C 7.7643884,0.00304574 7.4947416,0.01922278 7.2536596,0.05496682 6.3634095,0.20446096 5.483787,0.54474542 4.724985,0.92923929 2.4555196,2.0979634 -0.04570794,5.0241396 6.3426005e-4,7.2296878 l 0.0042732,-0.0038 c 0.001444,0.077546 0.0159004,0.1693452 0.04273028,0.2743648 0.07225449,0.2828232 0.2338767,0.6601428 0.47098116,1.1059905 0.47420871,0.8916956 1.2498371,2.0566159 2.2148459,3.2833789 1.4771349,1.877802 2.9693786,3.356458 3.8048811,3.826897 l 9.6e-4,4.8e-4 c 0.5867921,0.385639 1.0959265,0.283495 1.2747825,0.227927 0.5911097,-0.10715 1.9069553,-0.960398 3.5181146,-2.335184 2.321567,-1.980968 4.383856,-4.3008489 4.633373,-5.2082001 l 0.009,0.015164 C 16.361733,4.750868 12.204216,1.7102332 11.671482,1.3187525 10.689646,0.4955579 9.4247965,-9.8000001e-7 8.0446428,-9.8000001e-7 Z"/>
 <path style="opacity:0.15;fill:#f4f4f7" d="M 0.25397148,6.9359373 A 5.6545808,0.98648791 51.519796 0 0 2.7338364,11.889844 5.6545808,0.98648791 51.519796 1 0 4.4816178,10.919531 5.6545808,0.98648791 51.519796 0 0 0.25397148,6.9359373 Z"/>
 <path style="opacity:0.15;fill:#f4f4f7" d="M 15.737111,8.0367186 A 0.93907439,5.737218 47.18196 0 0 7.4966772,15.610938 0.93907439,5.737218 47.18196 1 0 15.971502,8.3796874 0.93907439,5.737218 47.18196 0 0 15.737111,8.0367186 Z"/>
 <path style="opacity:0.15;fill:#f4f4f7" d="M 8.0446428,-9.8197488e-7 A 5.0000075,4.9851657 0 0 0 2.8989897,4.9827034 a 5.0000075,4.9851657 0 1 0 9.9998333,0 A 5.0000075,4.9851657 0 0 0 8.0446428,-9.8197488e-7 Z"/>
 <g style="font-size:6.73961735px;line-height:125%;font-family:Monospace;letter-spacing:0px;word-spacing:0px;fill:#f4f4f7" transform="matrix(0.23279511,0.26552228,-0.25854518,0.23907737,-0.55183424,-1.1392718)">
  <path style="fill:#f4f4f7" d="m 21.291758,-14.698858 h 16.301451 v 3.447472 H 31.728952 V 2.9886901 H 27.167863 V -11.251386 h -5.876105 z"/>
 </g>
 <g style="font-size:2.85384536px;line-height:125%;font-family:Monospace;letter-spacing:0px;word-spacing:0px;fill:#f4f4f7" transform="matrix(0.58470384,0.72479797,-0.02120001,0.24736335,-1.6000007,-1.6000009)">
  <path style="fill:#f4f4f7" d="m 6.6472733,20.51031 h 1.9313615 v 6.029861 h 3.3911702 v 1.459808 H 6.6472733 Z"/>
 </g>
 <g style="font-size:2.20785069px;line-height:125%;font-family:Monospace;letter-spacing:0px;word-spacing:0px;fill:#f4f4f7" transform="matrix(0.76875794,-0.70193513,-0.07473522,0.27636696,-1.6000007,-1.6000009)">
  <path style="fill:#f4f4f7" d="m 32.484429,126.84921 q -0.558862,0.27167 -1.160415,0.4075 -0.601553,0.13584 -1.241916,0.13584 -1.447608,0 -2.293664,-0.80725 -0.846055,-0.81112 -0.846055,-2.19664 0,-1.40103 0.861579,-2.2044 0.861579,-0.80336 2.359641,-0.80336 0.578267,0 1.106081,0.10867 0.531695,0.10866 1.001295,0.32212 v 1.19922 q -0.485124,-0.27555 -0.966366,-0.41138 -0.477362,-0.13584 -0.958604,-0.13584 -0.892627,0 -1.377751,0.50065 -0.481242,0.49677 -0.481242,1.42432 0,0.9198 0.465719,1.42044 0.465718,0.50065 1.323416,0.50065 0.232859,0 0.43079,-0.0272 0.201811,-0.031 0.360932,-0.0931 v -1.12549 h -0.912032 v -1.00129 h 2.328592 z"/>
 </g>
</svg>
