<svg xmlns="http://www.w3.org/2000/svg" width="16" height="16" version="1.1">
 <circle style="fill:#f4f4f7" cx="8" cy="8" r="7"/>
 <path style="fill:#20aa73" d="M 5,3.5996094 V 5.5410156 L 6.2890625,6.4003906 5,7.2597656 V 9.1992188 L 9.1992188,6.4003906 Z"/>
 <path style="fill:#3989da" d="M 11,6.8007812 6.8007812,9.5996094 11,12.400391 V 10.458984 L 9.7109375,9.5996094 11,8.7402344 Z"/>
 <path style="fill:#3989da" d="M 8,0 A 8,8 0 0 0 0,8 8,8 0 0 0 0.9921875,11.857422 L 2.6660156,10.744141 A 6,6 0 0 1 2,8 6,6 0 0 1 8,2 6,6 0 0 1 12.59375,4.1503906 L 14.265625,3.0371094 A 8,8 0 0 0 8,0 Z"/>
 <path style="fill:#20aa73" d="M 15.011719,4.1503906 13.337891,5.2636719 A 6,6 0 0 1 14,8 6,6 0 0 1 8,14 6,6 0 0 1 3.4121094,11.857422 L 1.7402344,12.96875 A 8,8 0 0 0 8,16 8,8 0 0 0 16,8 8,8 0 0 0 15.011719,4.1503906 Z"/>
</svg>
