<svg xmlns="http://www.w3.org/2000/svg" width="16" height="16" version="1">
 <rect fill="#b2bfd9" width="16" height="16" x="0" y="0" rx=".857" ry=".857"/>
 <path opacity=".5" d="m4 4v1h8v-1h-8zm0 2v1h4v-1h-4zm0 2v1h5v-1h-5zm0 2v1h2v-1h-2zm0 2v1h5v-1h-5z"/>
</svg>
