<svg xmlns="http://www.w3.org/2000/svg" width="16" height="16" version="1">
 <rect style="fill:#4f4f4f" width="15" height="15" x="1" y="1" rx=".75" ry=".75"/>
 <rect style="fill:#6c6c6c" width="11" height="11" x="-14" y="-14" rx=".55" ry=".55" transform="matrix(0,-1,-1,0,0,0)"/>
 <path style="fill:none;stroke:#17191e;stroke-linecap:round" d="M 8.5,4.5 V 8.5"/>
 <path style="fill:none;stroke:#17191e;stroke-linecap:round" d="M 5.5,11.5 8.5,8.5"/>
 <path style="fill:none;stroke:#17191e;stroke-linecap:round" d="M 11.5,11.5 8.5,8.5"/>
 <circle style="fill:#f4f4f7" cx="8.5" cy="8.5" r="1.5"/>
</svg>
