<svg xmlns="http://www.w3.org/2000/svg" width="16" height="16" version="1">
 <path style="fill:#858585" d="M 8.0310623,1.4379385e-4 C 7.6427085,-0.00114974 7.2530415,0.18971655 6.86075,0.57647951 L 1,6.2265818 8,13.538462 v 0 L 15,6.2265818 9.1939377,0.57633579 C 8.8066042,0.1946032 8.4194165,0.00143729 8.0310623,4e-8 Z"/>
 <rect style="fill:#f4f4f7" width="10" height="12" x="3" y="2" rx="1.071" ry="1.161"/>
 <path style="fill:#b7b7b7" d="M 1.0000001,6.2267627 V 15.179487 C 1.0000001,15.634051 1.3672942,16 1.8235295,16 H 14.176471 C 14.632706,16 15,15.634051 15,15.179487 V 6.2267627 L 8,12.550481 Z"/>
 <path style="fill:#dedede" d="m 8.0313649,10.000006 c -0.3883908,-0.0012 -0.7785185,0.182848 -1.1709558,0.555468 l -5.6143153,5.21562 C 1.394519,15.912714 1.598083,16 1.8235295,16 H 14.176471 c 0.225854,0 0.429746,-0.08761 0.578239,-0.229687 L 9.1942786,10.555474 C 8.8069452,10.187632 8.4197554,10.0012 8.0313649,10.000006 Z"/>
</svg>
