<svg xmlns="http://www.w3.org/2000/svg" width="16" height="16" version="1.1">
 <path style="fill:#4f4f4f" d="M 5.5116887,14.900103 C 2.8241183,14.491439 0.82059539,12.826334 0.1673398,10.458483 -0.06628406,9.6116542 -0.05401607,8.300072 0.19617978,7.3765932 1.0209593,4.3321729 3.8610057,1.8718324 7.4027555,1.1335113 8.3121549,0.94393579 10.110726,0.95862024 10.948093,1.1624447 c 2.663523,0.6483671 4.352634,2.1978327 4.919301,4.5126042 0.212012,0.8660283 0.165568,2.1759265 -0.109024,3.0749753 -0.414955,1.3586148 -1.069211,2.4096838 -2.166894,3.4811308 -2.144175,2.092934 -5.2092971,3.105414 -8.0797753,2.668937 z"/>
 <path style="fill:#ff4b4b" d="M 13.989225,5.9065647 12.401688,6.2631449 C 12.365341,6.4923106 12.32294,6.7140292 12.264342,6.9188643 11.969928,7.9479954 11.453062,8.7016035 9.9409671,9.3440561 8.298702,10.041815 5.2348,10.535953 3.0000005,11.02401 v 1.562836 c 2.1157111,-0.478953 5.443771,-0.939878 7.5701505,-1.843325 1.854302,-0.7878485 2.818092,-2.052686 3.208067,-3.415858 0.09943,-0.3475755 0.166609,-0.6996995 0.214843,-1.0540743 0.005,-0.036591 0.0074,-0.073491 0.0069,-0.1104057 -0.0012,-0.0876 -0.0063,-0.1717993 -0.01074,-0.2566183 z"/>
 <path style="fill:#ff4b4b;stroke:#f4f4f7;stroke-width:0;stroke-linecap:square" d="M 6 7.7109375 L 3 8.3925781 L 3 9.9921875 L 6 9.3125 L 6 7.7109375 z"/>
 <path style="fill:#ff4b4b" d="M 13.336255,3.4858488 3.0000005,5.8095869 V 7.3768982 L 7.7165735,6.3168557 A 0.98213986,0.95485873 0 0 1 8.6964116,5.4097399 0.98213986,0.95485873 0 0 1 9.5435073,5.8826932 L 13.860319,4.9352942 C 13.742528,4.3927469 13.557852,3.9154677 13.336255,3.4858488 Z"/>
 <rect style="fill:#ff4b4b" width="2" height="2" x="6" y="11"/>
 <path style="fill:#ff4b4b" d="M 6,4 8.7499917,4.6111096 8.3571357,5.1458305 7.0062534,5.527774 H 6 Z"/>
</svg>
