<svg xmlns="http://www.w3.org/2000/svg" width="16" height="16" version="1">
 <rect style="fill:#b2bfd9" width="16" height="16" x="0" y="0" rx="4.8" ry="4.8"/>
 <path style="fill:#3084e9" d="M 5,3 C 3.8954305,3 3,3.8954305 3,5 3,6.1045695 3.8954305,7 5,7 h 6 V 3 Z"/>
 <path style="fill:#aeaeae" d="M 5,8.9999998 V 13 h 6 c 1.104569,0 2,-0.895431 2,-2 0,-1.1045696 -0.89543,-2.0000002 -2,-2.0000002 z"/>
 <circle style="fill:#f4f4f7" cx="11" cy="5" r="2"/>
 <circle style="fill:#f4f4f7" cx="5" cy="11" r="2"/>
</svg>
