<svg xmlns="http://www.w3.org/2000/svg" width="16" height="16" version="1">
 <rect style="fill:#4caf50" width="16" height="16" x="0" y="0" rx="1.6" ry="1.6"/>
 <rect style="opacity:0.2" width="4" height="7" x="6" y="0"/>
 <rect style="fill:#f4f4f7" width="1" height="1" x="-9" y="4" transform="scale(-1,1)"/>
 <path style="fill:#4b4b4b" d="m 8,4 c 1.5,0 1.5,2 2,2 V 8.5 C 10,8.777 9.777,9 9.5,9 h -3 C 6.223,9 6,8.777 6,8.5 V 6 C 6.5,6 6.5,4 8,4 Z"/>
 <path style="fill:#f4f4f7" d="M 8,6 C 6.895,6 6,6.9 6,8 v 4 c 0,1.1 0.895,2 2,2 1.105,0 2,-0.9 2,-2 V 8 C 10,6.9 9.105,6 8,6 Z m 0,5 a 1,1 0 0 1 1,1 1,1 0 0 1 -1,1 1,1 0 0 1 -1,-1 1,1 0 0 1 1,-1 z"/>
 <path style="fill:#909090" d="M 7.992188,5.000061 A 0.50005,0.49772427 0 0 0 7.5,5.50454 v 1.990698 a 0.50005,0.49772427 0 1 0 1,0 V 5.50454 A 0.50005,0.49772427 0 0 0 7.992188,5.000061 Z"/>
 <rect style="fill:#f4f4f7" width="1" height="1" x="-8" y="3" transform="scale(-1,1)"/>
 <rect style="fill:#f4f4f7" width="1" height="1" x="-9" y="2" transform="scale(-1,1)"/>
 <rect style="fill:#f4f4f7" width="1" height="1" x="-8" y="1" transform="scale(-1,1)"/>
 <rect style="fill:#f4f4f7" width="1" height="1" x="-9" y="0" transform="scale(-1,1)"/>
</svg>
