<svg xmlns="http://www.w3.org/2000/svg" width="16" height="16" version="1.1">
 <path style="fill:#17191e" d="M 2.1699,2 C 1.5215,2 1,2.5584 1,3.25 v 9.5 C 1,13.442 1.5215,14 2.1699,14 H 14.83 C 15.478,14 16,13.442 16,12.75 V 3.25 C 16,2.5584 15.478,2 14.83,2 Z M 5.5,7 A 1.5,1.5 0 0 1 7,8.5 1.5,1.5 0 0 1 5.5,10 1.5,1.5 0 0 1 4,8.5 1.5,1.5 0 0 1 5.5,7 Z m 6,0 A 1.5,1.5 0 0 1 13,8.5 1.5,1.5 0 0 1 11.5,10 1.5,1.5 0 0 1 10,8.5 1.5,1.5 0 0 1 11.5,7 Z"/>
 <path style="fill:#4f4f4f" d="m 2.4286,14 1.4285,-2 h 9.2859 l 1.428,2 z"/>
 <circle style="opacity:0.4" cx="5.5" cy="12.5" r=".5"/>
 <path style="fill:#1eb5c5" d="M 3.5527344 4.3007812 C 3.2470344 4.3007812 3 4.6 3 5 L 3 7 L 3 10.388672 C 3 10.726672 3.2470344 11 3.5527344 11 L 13.447266 11 C 13.753266 11 14 10.726672 14 10.388672 L 14 7 L 13.998047 7 L 13.998047 5 C 13.998047 4.6 13.752266 4.3007813 13.447266 4.3007812 L 3.5527344 4.3007812 z M 5.5507812 7.1992188 A 1.25 1.25 0 0 1 6.8007812 8.4492188 A 1.25 1.25 0 0 1 5.5507812 9.6992188 A 1.25 1.25 0 0 1 4.3007812 8.4492188 A 1.25 1.25 0 0 1 5.5507812 7.1992188 z M 11.449219 7.1992188 A 1.25 1.25 0 0 1 12.699219 8.4492188 A 1.25 1.25 0 0 1 11.449219 9.6992188 A 1.25 1.25 0 0 1 10.199219 8.4492188 A 1.25 1.25 0 0 1 11.449219 7.1992188 z"/>
 <path style="fill:#17191e" d="M 5.5,7 A 1.5,1.5 0 0 0 4,8.5 1.5,1.5 0 0 0 5.5,10 h 6 A 1.5,1.5 0 0 0 13,8.5 1.5,1.5 0 0 0 11.5,7 Z m 0,0.5 a 1,1 0 0 1 1,1 1,1 0 0 1 -1,1 1,1 0 0 1 -1,-1 1,1 0 0 1 1,-1 z m 6,0 a 1,1 0 0 1 1,1 1,1 0 0 1 -1,1 1,1 0 0 1 -1,-1 1,1 0 0 1 1,-1 z"/>
 <g transform="matrix(0.7875,0,0,0.65622,-10.737,-722.66)">
  <rect style="fill:#cccccc" width="3.81" height="1.524" x="22.52" y="1113.5"/>
  <path style="fill:#874f29" d="m 22.524,1113.5 v 1.5 h 1.137 c 0.087,-0.2 0.132,-0.5 0.133,-0.8 -0.001,-0.2 -0.046,-0.5 -0.133,-0.7 z"/>
 </g>
 <circle style="opacity:0.4" cx="11.5" cy="12.5" r=".5"/>
</svg>
