<svg xmlns="http://www.w3.org/2000/svg" width="16" height="16" version="1.1">
 <circle style="fill:#f17d1e" cx="8" cy="8" r="8"/>
 <path style="fill:#f4f4f7" d="M 7.3150529,3 C 7.1472133,3 7.0112058,3.1289388 7.0112058,3.2889092 v 1.1561716 c 0,0.6564659 -0.572968,1.5729492 -1.1262587,2.4407467 C 5.2998244,7.8023117 4.130987,8.7503617 4.0169718,9.6315338 4.0030828,9.7390725 3.9990338,9.8439358 4.0001848,9.9471938 7.6492417,10.068642 10.881596,8.0243433 10.91632,8.0018725 l 0.277804,-0.178695 C 11.011238,7.5096575 10.47988,7.1961375 10.281946,6.8858275 9.7280772,6.01803 9.0224796,5.1015467 9.0224796,4.4450808 V 3.2889092 C 9.0224796,3.1289388 8.8858933,3 8.7180538,3 Z m 4.2188031,5.3234175 -0.221085,0.14071 C 9.4821648,9.6299288 6.6798288,10.554438 4.0719537,10.503613 c 0.3692466,1.340751 1.8398653,2.246 1.915104,2.290406 C 6.0362524,12.822909 6.3817692,13 7.9658235,13 9.5493004,13 9.9486423,12.822909 9.9972573,12.794019 10.088708,12.740519 12.220838,11.442031 11.981233,9.6122733 11.926253,9.1944254 11.757254,8.7615971 11.533856,8.3234175 Z"/>
</svg>
