<svg xmlns="http://www.w3.org/2000/svg" width="16" height="16" version="1">
 <rect style="fill:#f7941e" width="15" height="14.999" x="-15" y="-15" rx="7.5" ry="7.499" transform="matrix(0,-1,-1,0,0,0)"/>
 <rect style="fill:#4c3a91" width="15" height="14.999" x="-15" y="-16" rx="7.5" ry="7.499" transform="matrix(0,-1,-1,0,0,0)"/>
 <path style="fill:#6e5dae" d="M 3.9648438 9.375 A 5.2495492 5.25 0 0 0 8.5 12 A 5.2495492 5.25 0 0 0 13.035156 9.375 L 3.9648438 9.375 z"/>
 <path style="fill:#f4f4f7" d="M 1.4335938 5 C 1.3191505 5.3251175 1.2197151 5.6557984 1.1503906 6 L 15.849609 6 C 15.780312 5.6559354 15.680787 5.3249964 15.566406 5 L 1.4335938 5 z M 1.0253906 7 C 1.0145288 7.1658898 1 7.3312689 1 7.5 C 1 7.6687311 1.0145288 7.8341102 1.0253906 8 L 15.974609 8 C 15.98547 7.8341209 15.998047 7.66872 15.998047 7.5 C 15.998047 7.33128 15.98547 7.1658791 15.974609 7 L 1.0253906 7 z M 1.1503906 9 C 1.2197151 9.3442016 1.3191505 9.6748825 1.4335938 10 L 15.566406 10 C 15.680787 9.6750036 15.780312 9.3440646 15.849609 9 L 1.1503906 9 z"/>
</svg>
