<svg xmlns="http://www.w3.org/2000/svg" width="16" height="16" version="1">
 <path style="fill:#0091cf" d="m 15,8.5162413 c 0,2.0055617 -0.787203,3.8272617 -2.069478,5.1729717 -1.36604,1.433619 -3.6369355,0.0024 -5.7735096,0.0024 -2.1693469,0 -3.7805885,1.403668 -5.1499967,-0.06868 C 0.76168558,12.283918 4e-8,10.48903 4e-8,8.5162413 4e-8,4.3741056 3.3578644,1.0162411 7.5000001,1.0162411 11.642135,1.0162411 15,4.3741056 15,8.5162413 Z"/>
 <path style="fill:#ff8a47" d="M 10 0 L 8 2 L 6 2 L 6 4 L 4 6 L 6 8 L 6 10 L 8 10 L 10 12 L 12 10 L 14 10 L 14 8 L 16 6 L 14 4 L 14 2 L 12 2 L 10 0 z"/>
 <circle style="fill:#ffcc42" cx="10" cy="6" r="3"/>
 <circle style="opacity:0.2" cx="7.619" cy="10.81" r="3.048"/>
 <circle style="fill:#f4f4f7" cx="3.5" cy="12.5" r="2.5"/>
 <circle style="fill:#f4f4f7" cx="7.5" cy="10.5" r="3.5"/>
 <circle style="fill:#f4f4f7" cx="11.5" cy="12.5" r="2.5"/>
 <rect style="fill:#f4f4f7" width="7.619" height="3.048" x="3.81" y="11.95"/>
</svg>
