<svg xmlns="http://www.w3.org/2000/svg" width="16" height="16" version="1">
 <circle style="fill:#aa52ce" cx="8" cy="8" r="8"/>
 <path style="fill:#f4f4f7" d="m4 8c0 2.2092 1.7909 4 4 4 2.1867 0 3.9602-1.7554 3.9961-3.9336 0.0024-0.02205 0.0038-0.04421 0.004-0.0664 0-0.368192-0.398908-0.66667-0.7671-0.66667s-0.733 0.298478-0.733 0.66667c0 1.4727-1.02714 2.5-2.49994 2.5-1.4727 0-2.50006-1.0272-2.50006-2.5 0-1.4727 1.02726-2.5 2.50006-2.5v1.5l2.99994-2.3334-2.99954-2.1666v1.4993c-2.2092 0-4 1.7909-4 4z"/>
</svg>
