<svg xmlns="http://www.w3.org/2000/svg" width="16" height="16" version="1">
 <ellipse style="fill:#f4f4f7;stroke:#000000;stroke-width:0;stroke-linecap:round;stroke-linejoin:round" cx="7.997" cy="8.005" rx="7.802" ry="7.803"/>
 <path style="fill:#e040fb;stroke:#000000;stroke-width:0;stroke-linecap:round;stroke-linejoin:round" d="M 14.926593,4.0030725 A 8.0020586,8.0034749 0 0 0 3.9955769,1.0735974 8.0020586,8.0034749 0 0 0 1.0572203,4.0383735 l 6.9393859,3.9664364 z"/>
 <path style="fill:#fdfd4b;stroke:#000000;stroke-width:0;stroke-linecap:round;stroke-linejoin:round" d="M 14.926593,4.0030725 7.9966062,8.0048099 7.9610542,15.999844 A 8.0020586,8.0034749 0 0 0 11.997635,14.936022 8.0020586,8.0034749 0 0 0 14.926593,4.0030725 Z"/>
 <path style="fill:#18ffff;stroke:#000000;stroke-width:0;stroke-linecap:round;stroke-linejoin:round" d="M 7.9966062,8.0048099 1.0572203,4.0383735 a 8.0020586,8.0034749 0 0 0 0.0094,7.9681745 8.0020586,8.0034749 0 0 0 6.8944342,3.993296 z"/>
 <path style="fill:#4f4f4f" d="M 9.4702841,8.6618456 C 8.3171593,9.7238787 6.0986974,8.039279 5.1623116,6.98127 4.199209,5.8930704 0.60301077,2.2228657 0.34015564,1.9848319 0.07731309,1.746807 -0.13202057,1.4528569 0.10039945,1.1603958 0.34235524,0.87557284 0.67695255,1.0170823 0.96714829,1.2218201 1.2573629,1.4265652 5.637803,4.1423927 6.915303,4.8479969 8.1573511,5.5340266 10.285132,7.3289885 9.4702841,8.6618456 Z"/>
 <path style="fill:#4883f7" d="M 11.320128,9.1 C 6.8196801,13.046956 3.1387629,9.8880444 2.5684369,8.5776867 c 0.3372632,2.2744103 1.8961922,4.3097393 4.2512432,5.0930303 1.7786432,0.591566 4.6168689,0.577836 5.8892949,-1.675876 z"/>
 <path style="fill:#9b9b9b" d="m 11.301516,10.095193 c -0.367623,0.165522 -0.327866,0.285159 -0.654283,0.23355 C 10.422099,10.293146 8.4717615,8.8397417 8.4717615,8.8397417 8.3729054,8.6065141 8.4914895,8.2858893 8.7142402,8.0321251 8.9208386,7.7654845 9.2154838,7.5852509 9.4680153,7.6322125 c 0,0 1.8490427,1.5761803 1.9309317,1.7854003 0.118728,0.3033465 -0.0086,0.2897918 -0.09743,0.6775802 z"/>
 <path style="fill:#17191e" d="m 11.544963,13.254834 c 1.382501,-0.847027 1.751526,-2.340961 1.205632,-3.4205164 -0.424211,-0.8389142 -1.120743,-0.9975229 -1.601834,-0.5918843 -0.477253,0.4024024 -0.519325,0.8819027 -0.376963,1.3581287 0.290324,0.971284 1.491323,1.652523 0.773165,2.654272 z"/>
</svg>
