<svg xmlns="http://www.w3.org/2000/svg" width="16" height="16" version="1">
 <rect fill="#5db43e" width="16" height="16" x="0" y="0" rx="8" ry="8"/>
 <path style="fill:#17191e" d="m8.0086 4.0002c0.8766 0.0018 1.7654 0.2641 2.4594 0.7834 0.488 0.5398-0.442 1.118-0.8605 0.5916-1.261-0.7326-3.0394-0.4747-3.9881 0.6206-0.5047 0.5436-0.7892 1.2689-0.7858 1.997h0.83334c-0.4446 0.64-0.889 1.28-1.3334 1.92l-1.3333-1.92h0.83334c-0.0265-1.7386 1.2757-3.3922 3.0239-3.8425 0.3751-0.0987 0.7616-0.154 1.151-0.1501zm3.6583 2.0803c0.44399 0.63999 0.88848 1.2805 1.333 1.9205h-0.83334c0.02363 1.7593-1.3118 3.4316-3.0907 3.8581-1.2004 0.32185-2.5577 0.087-3.5442-0.64939-0.50334-0.54889 0.43962-1.1215 0.86239-0.59029 1.2217 0.71174 2.9326 0.48598 3.897-0.53054 0.55849-0.55249 0.87989-1.3179 0.87564-2.088h-0.83334l1.3333-1.9203z"/>
</svg>
