<svg xmlns="http://www.w3.org/2000/svg" width="16" height="16" version="1">
 <path style="fill:#17191e" d="M 16,8 A 8,8 0 0 1 8,16 8,8 0 0 1 0,8 8,8 0 0 1 8,0 8,8 0 0 1 16,8 Z"/>
 <path style="fill:#ff5454" d="M 8,0 A 8,8 0 0 0 6.2398436,0.20625 L 8,7.6 9.7609376,0.203125 A 8,8 0 0 0 8,0 Z"/>
 <path style="fill:#fff129" d="M 13.871094,2.5773436 8.3460936,7.8 15.63125,5.6273436 a 8,8 0 0 0 -1.760156,-3.05 z"/>
 <path style="fill:#c552da" d="M 2.1304688,2.5789064 A 8,8 0 0 0 0.36093752,5.625 L 7.6539064,7.8 Z"/>
 <path style="fill:#336eef" d="M 7.6539064,8.2 0.36875,10.372656 a 8,8 0 0 0 1.7601562,3.05 z"/>
 <path style="fill:#45cb32" d="m 8.3460936,8.2 5.5234374,5.221094 A 8,8 0 0 0 15.639062,10.375 Z"/>
 <path style="fill:#00d4ea" d="M 8,8.4 6.2390624,15.796875 A 8,8 0 0 0 8,16 8,8 0 0 0 9.7601564,15.79375 Z"/>
</svg>
