<svg xmlns="http://www.w3.org/2000/svg" width="16" height="16" version="1">
 <circle style="fill:#008dda" cx="8" cy="8" r="8"/>
 <path style="fill:#f4f4f7" d="M 8 5 A 3 3 0 0 0 5 8 A 3 3 0 0 0 8 11 A 3 3 0 0 0 11 8 A 3 3 0 0 0 8 5 z M 8 6 A 2 2 0 0 1 10 8 A 2 2 0 0 1 8 10 A 2 2 0 0 1 6 8 A 2 2 0 0 1 8 6 z"/>
 <path style="fill:#f4f4f7" d="M 4 6 A 2 2 0 0 0 2 8 A 2 2 0 0 0 4 10 A 2 2 0 0 0 6 8 A 2 2 0 0 0 4 6 z M 4 7 A 1 1 0 0 1 5 8 A 1 1 0 0 1 4 9 A 1 1 0 0 1 3 8 A 1 1 0 0 1 4 7 z"/>
 <path style="fill:#f4f4f7" d="M 12 6 A 2 2 0 0 0 10 8 A 2 2 0 0 0 12 10 A 2 2 0 0 0 14 8 A 2 2 0 0 0 12 6 z M 12 7 A 1 1 0 0 1 13 8 A 1 1 0 0 1 12 9 A 1 1 0 0 1 11 8 A 1 1 0 0 1 12 7 z"/>
</svg>
