<svg xmlns="http://www.w3.org/2000/svg" width="16" height="16" version="1">
 <path style="fill:#1891d1" d="m8 3.9999e-8c-0.1926 0-0.3827 0.0093972-0.5719 0.022657-0.0237 0.001754-0.0473 0.003497-0.0711 0.005468-2.8578 0.22552-5.278 1.9413-6.5008 4.3735-0.00027045 0.00052-0.000512 0.00104-0.00078285 0.00156-0.079116 0.15745-0.16008 0.31409-0.22891 0.47734-0.37451 0.8457-0.5779 1.7432-0.61484 2.6828-0.0016171 0.030354-0.00184 0.060958-0.0031257 0.091406-0.0024743 0.089757-0.0076343 0.17901-0.0070314 0.26953-0.00023211 0.025386-0.00156 0.050342-0.00156 0.075783 0 0.93022 0.16533 1.8186 0.45469 2.6477 0.11645 0.37168 0.25062 0.74703 0.4125 1.1273 0.40323 0.94731 0.45329 1.2056 0.38984 1.9969-0.044209 0.55135-0.19365 1.1143-0.38047 1.4312-0.16938 0.28738-0.30513 0.58389-0.30513 0.65938 0 0.23342 1.3482 0.1517 2.5419-0.15391 1.3984-0.35802 1.5206-0.35747 2.6672 0.0023 0.52453 0.1646 1.1231 0.25365 1.7984 0.27812 0.028251 0.0014 0.056828 0.0012 0.085156 0.0023 0.0924 0.003 0.181 0.009 0.2765 0.009 0.00777 0 0.014903-0.000743 0.022657-0.0008 0.012314 0.000055 0.024394 0.0008 0.03672 0.0008 0.22339 0 0.44384-0.01113 0.6625-0.02891 1.9778-0.14065 3.5664-0.87264 4.9961-2.3 1.178-1.176 1.9076-2.6277 2.1961-4.1469 0.02658-0.13883 0.04862-0.27898 0.06797-0.42031 0.0117-0.086759 0.02399-0.17312 0.03281-0.26016 0.01939-0.18667 0.03106-0.37606 0.0375-0.56641 0.0014-0.047966 0.0034-0.095762 0.0039-0.14375 0.000688-0.04467 0.0031-0.088737 0.0031-0.13359 0-4.358-3.4508-7.8782-7.7797-7.9945-0.0336-0.0015026-0.0671-0.0023426-0.1008-0.0028741-0.04-0.0005828-0.0794-0.0031257-0.1195-0.0031259z"/>
 <path style="fill:#b2bfd9;fill-rule:evenodd" d="m 5,9 v 4 H 6 V 9 Z"/>
 <path style="fill:#b2bfd9;fill-rule:evenodd" d="m 12,6 v 3 h 1 V 6 Z"/>
 <path style="fill:#f4f4f7;fill-rule:evenodd" d="M 11.566612,4.000148 A 0.42109472,0.35003954 0 0 0 11.460526,4.014506 L 4.302632,5.7645265 A 0.42109472,0.35003954 0 0 0 4,6.100175 v 2.8000364 a 0.42109472,0.35003954 0 0 0 0.302632,0.3356488 l 7.157894,1.7500238 A 0.42109472,0.35003954 0 0 0 12,10.650236 V 6.150078 4.3501523 A 0.42109472,0.35003954 0 0 0 11.566612,4.000148 Z"/>
</svg>
