<svg xmlns="http://www.w3.org/2000/svg" width="16" height="16" version="1.1">
 <path style="fill:#ce4126" d="M 2.7491372,11.051706 3.5511323,12.08101 C 3.0745917,13.753062 1.6608159,13.948342 0.7441861,14 0.90409508,13.283081 1.9365522,11.886353 2.7491372,11.051706 Z"/>
 <path style="fill:#ce4126" d="M 2.3809489,9.7998676 2.7491372,11.051706 C 1.6921065,12.432117 0.87160567,11.683762 6e-8,11.395349 0.41190354,10.787172 1.3187154,10.277978 2.3809489,9.7998676 Z"/>
 <path style="fill:#17191e" d="m 13.64755,6.7664312 c -1.526836,2.2612425 -2.920597,6.0253828 -5.7594492,6.0253828 -1.2078973,0 -2.8039472,0.510653 -3.6813548,-0.159628 -1.1847129,-0.905041 -2.1988301,-2.302057 -2.1988301,-3.869585 0,-2.7284517 2.4130869,-4.9402988 5.2519386,-4.9402984 2.8388515,4e-7 8.1751795,0.2968675 6.3876955,2.9441286 z"/>
 <path style="fill:#f9c4b3" d="M 11.503973,5.5297054 C 10.657534,5.5204886 9.7507103,5.6502356 9.0396376,5.885769 7.3239271,6.333369 5.546931,6.7194814 4.8012305,8.137091 4.7006657,8.5980722 4.9910798,9.6217839 4.9927736,10.044848 4.9939271,10.332142 4.7193983,10.209152 4.7193983,10.209152 4.3387803,9.9635033 3.7445146,9.9228141 3.4368838,10.099835 2.909664,10.40434 2.827158,11.396965 3.2526051,12.133643 c 0.4253276,0.736643 1.3837012,1.087065 1.9109361,0.782715 0.3340417,-0.173123 0.2269868,-0.448183 0.4181195,-0.562413 0.1667453,-0.09966 0.3754169,0.130779 0.4118563,0.0594 -0.122704,0.245408 0.1302311,0.755685 0.3484242,0.867693 1.5005362,0.770288 2.6079271,0.863159 4.1807778,0.553465 1.139348,-0.224338 2.20819,-0.659915 3.076896,-1.20226 0.761942,-0.47569 1.424243,-1.032594 1.353667,-1.807179 -0.06657,-0.73065 -0.779245,-1.5293021 -1.138155,-2.4074948 -0.42159,-1.0315624 0.106955,-2.0926549 0.106955,-2.0926549 -0.3417,-0.5422017 -1.32983,-0.7833596 -2.418109,-0.7952089 z"/>
 <path style="fill:#17191e" d="m 12.531319,10.466358 c -0.07009,2.15e-4 -0.13188,0.04605 -0.15242,0.113066 l -0.194898,0.602809 C 11.115065,10.88401 10.142238,11.144823 9.2798964,11.553291 L 8.970683,11.472711 9.033151,11.081666 c 0.046064,-0.219002 -0.2907211,-0.273021 -0.3154601,-0.0506 l -0.08558,0.534096 c -0.01331,0.08147 0.037569,0.159677 0.1174382,0.18053 l 0.4916178,0.128058 c 0.027464,0.0072 0.056356,0.007 0.083706,-6.32e-4 l 1.2056181,-0.338573 0.974491,-0.103696 0.77397,0.08371 c 0.07535,0.0081 0.146032,-0.03782 0.169286,-0.109942 l 0.234877,-0.72712 c 0.03508,-0.103794 -0.04223,-0.211333 -0.151795,-0.21114 z"/>
 <ellipse style="fill:#17191e" cx="6.454" cy="10.524" rx=".479" ry="1.507" transform="matrix(0.98876658,-0.14946788,0.10631215,0.9943328,0,0)"/>
 <ellipse style="fill:#f4f4f7" cx="7.431" cy="9.211" rx=".228" ry=".664"/>
 <path style="fill:#17191e" d="m 12.959558,8.4229147 c 0.09757,0.8908919 0.02229,1.532289 -0.266204,1.5748623 -0.288487,0.042573 -0.561709,-0.5298003 -0.659281,-1.4206916 -0.09757,-0.8908916 0.01746,-1.532289 0.305944,-1.5748623 0.288487,-0.042573 0.52197,0.5298 0.619541,1.4206916 z"/>
 <path style="fill:#f4f4f7" d="m 12.666667,8.1250001 c -0.0138,0.5425852 -0.203606,0.7414803 -0.342199,0.74148 -0.138593,-4e-7 -0.159693,-1.2241148 -0.159693,-0.74148 0,0 0.135165,-0.4237024 0.273759,-0.4237027 0.138593,-4e-7 0.228133,0.4237027 0.228133,0.4237027 z"/>
 <path style="fill:#f95833" d="m 12.801194,3.0787634 c 0.219102,1.0475348 1.220459,1.950555 -1.173956,2.450942 0,0 -4.3829556,0.3926593 -6.1242471,1.4056082 C 4.1409637,7.7276358 2.2717299,10.31451 2.2717299,10.31451 1.973192,9.6578906 2.0000522,8.9553504 2.0010128,8.2281113 2.0057633,4.6316176 6.9110775,2.3585032 10.118496,2.0592365 c 1.404373,-0.1310345 2.483236,0.173828 2.682698,1.0195269 z"/>
 <path style="fill:#836b44" d="M 16,2.142 C 15.365625,2.5599159 14.568065,3.2316481 14.306335,3.7116715 15.851685,4.4354379 15.754895,5.5501895 16,6.5835376 14.326469,5.0910855 12.545473,5.413699 11,5.586 11.088767,3.8320011 12.426399,1.4813713 16,2.142 Z"/>
 <path style="opacity:0.2;fill:#b33c3c" d="m 4.9001784,11.299576 c 0.1901864,0.504434 0.1978329,1.070247 -0.5738051,1.005311 -0.3438493,-0.02894 0.453987,-0.101361 0.2132116,-0.390718 -0.077225,-0.0928 -0.5399833,-0.255086 -0.5861663,-0.37758 -0.079302,-0.210344 0.2662448,-0.0019 0.3090355,-0.194357 0.059824,-0.269125 -0.7273693,-0.571171 -0.4787557,-0.664905 0.4264283,-0.160775 0.9262936,0.117815 1.11648,0.622249 z"/>
</svg>
