<svg xmlns="http://www.w3.org/2000/svg" width="16" height="16" version="1">
 <path style="fill:#22759b" d="M 15.222222,2.0000003 C 15.653111,2.0000003 16,2.3468613 16,2.7777156 V 12.209919 C 16,12.640774 15.653111,13 15.222222,13 H 13.38865 c 0,0 -0.388888,-0.01239 -0.388888,0.376493 v 1.818844 c 3.34e-4,0.618466 -0.399543,1.005223 -0.719293,0.69569 L 10.329948,14.104081 9.4218663,13.226519 C 9.2264181,12.977056 9.1049852,13 8.8073495,13 H 2.777778 C 2.346889,13 2,12.640774 2,12.209919 V 2.7777156 C 2,2.3468613 2.346889,2.0000003 2.777778,2.0000003 Z"/>
 <path style="fill:#38e0e4" d="M 0.77777778,0 C 0.34688889,0 0,0.346861 0,0.77771528 V 10.209919 C 0,10.640774 0.34688889,11 0.77777778,11 H 2.6113496 c 0,0 0.3888889,-0.01239 0.3888889,0.376493 v 1.818844 c -3.344e-4,0.618466 0.3995429,1.005223 0.7192924,0.69569 l 1.9505208,-1.786946 0.908082,-0.877562 C 6.7735819,10.977056 6.8950148,11 7.1926505,11 H 13.222222 C 13.653111,11 14,10.640774 14,10.209919 V 0.77771528 C 14,0.346861 13.653111,0 13.222222,0 Z"/>
 <path style="fill:none;stroke:#f4f4f7;stroke-width:2;stroke-linecap:round;stroke-linejoin:round" d="m 3,1.9999 h 8"/>
 <path style="fill:none;stroke:#f4f4f7;stroke-width:2;stroke-linecap:round;stroke-linejoin:round" d="M 3,4.9999 H 9"/>
 <path style="fill:none;stroke:#f4f4f7;stroke-width:2;stroke-linecap:round;stroke-linejoin:round" d="M 3,7.9999 H 7"/>
</svg>
