<svg xmlns="http://www.w3.org/2000/svg" width="16" height="16" version="1.1">
 <circle style="fill:#b2bfd9" cx="8" cy="8" r="8"/>
 <path style="fill:#1488c4" d="M 6,2 6,4 C 5.754153,4.01 5.3019103,4 5.0664062,4 L 4,4 4,5 C 4,5 4.3594181,4.985005 4.3457031,5 4.8058321,4.993 4.95236,5.3260671 5,5.5488281 L 5,10.5 C 4.982365,10.640776 4.9973503,10.99 4.6757812,11 4.6906312,11.013 4,11 4,11 l 0,1 1.1269531,0 C 5.4020551,11.99 5.734241,12 6,12 L 6,14 7,13.98242 7,12 l 0.984375,0 0.03125,2 1,0 -0.03125,-2 C 10.892187,11.861524 12,11.633628 12,9.5 12,8 10.999089,7.500955 9.816203,7.5 10.566521,7.443175 10.999459,7 10.999797,5.75 11,5 10.566521,4 9.999797,4 L 9,4 9,2 8,2 8,4 C 7.701376,3.999995 7.30317,3.989 7,4 L 7,2 Z m 1,3 c 1.410185,0 2.000138,1.52e-5 2,1 1.38e-4,1.000066 -0.730627,1 -2,1 z m 0,3 c 2,7.5e-5 3.000208,2.3e-5 3,1.5 2.08e-4,1.500099 -1,1.5 -3,1.5 z"/>
</svg>
