<svg xmlns="http://www.w3.org/2000/svg" width="16" height="16" version="1">
 <rect style="fill:#bdc0b9" width="15" height="15" x="1" y="1" rx="4.5" ry="4.5"/>
 <path style="opacity:0.3" d="M 5.125,11.875 2.3154,14.685 C 3.1288,15.498 4.2535,16 5.5,16 H 8.5 11.5 C 12.746,16 13.871,15.498 14.685,14.685 L 11.875,11.875 H 8.5 Z"/>
 <path style="opacity:0.15" d="M 14.685,2.3154 11.875,5.125 V 8.5 11.875 L 14.685,14.685 C 15.498,13.871 16,12.746 16,11.5 V 5.5 C 16,4.2535 15.498,3.1288 14.685,2.3154 Z"/>
 <path style="opacity:0.15" d="M 2.3154,2.3154 C 1.5021,3.1288 1,4.2535 1,5.5 V 8.5 11.5 C 1,12.746 1.5021,13.871 2.3154,14.685 L 5.125,11.875 V 8.5 5.125 Z"/>
 <rect style="fill:#eceeeb" width="11" height="11" x="3" y="3" rx="2.357" ry="2.357"/>
 <path style="fill:#17191e" d="M 8.5,5 A 3.5,3.5 0 0 0 5,8.5 3.5,3.5 0 0 0 6,10.945 V 9 H 6.0547 A 2.5,2.5 0 0 1 6,8.5 2.5,2.5 0 0 1 8.5,6 2.5,2.5 0 0 1 11,8.5 2.5,2.5 0 0 1 10.949,9 H 11 V 10.949 A 3.5,3.5 0 0 0 12,8.5 3.5,3.5 0 0 0 8.5,5 Z"/>
 <rect style="fill:#17191e" width="2.573" height="4.121" x="1.81" y="9.31" rx="1.523" ry="1.495" transform="matrix(0.96471,-0.2633,0.30893,0.95108,0,0)"/>
 <rect style="fill:#17191e" width="2.573" height="4.121" x="-14.38" y="4.83" rx="1.523" ry="1.495" transform="matrix(-0.96471,-0.2633,-0.30893,0.95108,0,0)"/>
</svg>
