<svg width="16" height="16" version="1.1" xmlns="http://www.w3.org/2000/svg">
 <path d="m9.9759176-4.0966265e-5c-0.3513736 0.0052640163-0.6912424 0.12606505-0.9671248 0.34374737l-1.0147784 0.7999938c-0.2180672 0.1718322-0.387676 0.3974509-0.492156 0.6546821l-1.0108712 2.4945123c-0.305685-0.1277098-0.6171114-0.3124602-0.901505-0.3238946-1.6366368-0.0658034-2.6296896 0.8930002-3.5271152 1.5566975-0.8974264 0.6636972-1.5772424 1.326552-1.5772424 1.326552-0.3101136 0.3012896-0.4851048 0.7152624-0.485124 1.1476475v0.2335918c2.848e-4 0.5489078 0.2818872 1.0593603 0.7460448 1.3523339l0.39216236 3.2093503c-0.17364156 0.352181-0.21173356 0.75592-0.107024 1.134366l0.027344 0.09844c0.1582472 0.569477 0.617512 1.505466 1.1944544 1.633713l1.7998832 0.300008c0.2424424 0.05398 0.4941216 0.05077 0.7351088-0.0094l1.5998968-0.299988c0.7121378-0.178213 1.6121498-1.318318 1.612129-2.052458v-0.399997c-4.4e-4 -0.483603-0.6200176-0.941071-0.9965464-1.244522 0.1566872-0.128963 0.3014832-0.255336 0.4335656-0.374997 0.1422-0.02087 0.2809392-0.06082 0.4124736-0.118749l1.7686352-0.785932c0.132004 0.146132 0.2898472 0.26664 0.465595 0.355467l0.799948 0.900361c0.358175 0.178993 0.770438 0.217183 1.155394 0.10703l2.799819-1.300358c1.088976-0.311411 1.518561-1.6246699 0.824166-2.5195114l-0.185144-0.2390607c0.331463-0.3027231 0.520528-0.7307666 0.52106-1.1796788v-0.7999935c-8.2e-5 -0.4243151-0.168682-0.8312247-0.46872-1.1312413l-0.799948-0.7999938c-0.465739-0.4656344-1.169189-0.5983329-1.772542-0.3343722l0.155458-0.0679682-0.852288-1.9163916c-0.079712-0.1793227-0.191722-0.3424522-0.330448-0.4812463l-0.799948-0.79999384c-0.305718-0.30586479-0.722216-0.47495306-1.1546124-0.46874633z" style="fill:#fbcc19"/>
 <path d="M 10.4,1.5999632 7.5995088,6.3999095 5.5254238,5.667884 2.3998446,7.5999 3.1714176,13.399865 2.3716242,13.800002 4.37134,14.199859 6,14 V 13 L 5.0849974,12.697849 C 4.7716242,12.430108 4.8,12.15819 4.7996894,11.599869 5.9996118,10.799875 6.3995862,10.399878 6.9800176,9.8194145 L 7.1995344,9.9998813 11.222712,8.2116143 11.999224,7.999897 10.799302,9.5998851 11.59925,10.19988 14.399069,9.1998881 13.599121,8.169427 C 13.199146,8.399894 13.00619,7.5999 13.00619,7.5999 c 0,0 -0.03724,-0.1432916 0.01874,-0.1890613 L 14.440678,7 14.432967,6 14,5 12.489895,5.9083649 11.2,2.3999652 Z" style="fill:#221714"/>
 <path d="m10.4 1.5999632-1.4154248 0.7999773-2.5845752 6.7424202 4.399302-1.9424575 0.417941 1.1999908c0.18652 0.3999971-0.417941 0.7999941-0.417941 0.7999941v0.399997l3.045896-1.030461-0.246077-0.3999971s-0.583142 0.230467-0.799949-0.16953l-0.724172-1.6554559 1.925-0.9140169v-0.4304242l-2.10077 0.9436631zm-1.4 2.4000368 1 3-2.4004912 0.999897zm-3.4745762 1.667884c-1.464896-0.0588986-4.0919224 2.332013-4.0919224 2.332013l0.1663952 0.2335918s0.529124-0.2335918 0.6132416 0.1664052l0.558305 4.600106c0 0.233448-0.399819 0.399406-0.399819 0.399406v0.400596l2.1291547-0.414519-0.043146-0.385483s-0.3470348 0.01813-0.4860092-0.316533l-0.3718547-2.100778s3.5997674-1.3828009 2.7998192-4.1827795c-0.1448084-0.5068597-0.4639908-0.7155341-0.874162-0.7320255zm-0.9374392 1.0359299c0.2424936 0.0245601 0.4607784 0.1650988 0.6116792 0.4960893 0.9118056 1.9999849-1.7905088 3.0632568-1.7905088 3.0632568l-0.4945-2.66326s0.9458488-0.9697695 1.6733296-0.8960861z" style="fill:#f4f4f7"/>
</svg>
