<svg xmlns="http://www.w3.org/2000/svg" width="16" height="16" version="1">
 <rect style="fill:#0a7cb4" width="16" height="16" x="0" y="0" rx=".857" ry=".857"/>
 <path style="fill:#f4f4f7" d="m4.8862 3.0001c-0.7721-0.0094-1.6917 0.8513-1.8582 3.2967-0.17738 2.6087 0.51781 2.866 1.2719 2.866 0.62813 0 1.1325-0.33534 1.6856-1.0247 0.08375-0.104 0.1775-0.15867 0.21375-0.12 0.036875 0.039334 0.064375 0.069334 0.06125 0.066668-0.00312-0.00267-0.04375 0.1-0.083125 0.232-0.10875 0.36201-0.27438 1.066-0.1075 1.5607 0.04375 0.13 0.135 0.11133 0.1725-0.020667 0.088125-0.31467 0.25875-0.85601 0.44375-1.1287 0.075625-0.11134 0.16312-0.048001 0.15875 0.090001-0.02375 0.83935 0.23 2.3687 1.3881 3.3407 1.2113 1.0173 2.9763 0.99068 3.9331 0.55601 0.11688-0.05333 0.3-0.05 0.425-0.02601 0.07687 0.01534 0.17438 0.024 0.29625 0.01733 0.35438-0.02199-0.2375-0.34267-0.27688-0.51468-0.03938-0.172 0.27688-0.20534 0.34062-0.75268 0.06438-0.54801-0.33938-0.02067-0.33938-0.02067s-0.29688 0.37134-1.4794 0.29c-1.09-0.07334-2.3888-0.67268-2.345-2.7794 0.00312-0.13867 0.043125-0.26201 0.081875-0.27867 0.038125-0.016667 0.14562 0.045334 0.21187 0.16267 0.165 0.28934 0.31188 0.75935 0.39188 1.044 0.0375 0.132 0.12812 0.15134 0.1725 0.022 0.145-0.43001 0.03875-1.0193-0.06375-1.4034-0.03437-0.13267 0.0025-0.3 0.08437-0.38267 0.08188-0.083334 0.2075-0.069334 0.29063 0.034667 0.55625 0.69601 1.0631 1.0367 1.6944 1.0367 0.75375 0 1.4494-0.25734 1.2719-2.866s-1.2138-3.4139-2.0119-3.2847c-0.51438 0.082668-0.87063 0.36534-1.0581 0.55667-0.09312 0.094668-0.15625 0.19134-0.15625 0.202 0 0.010667-0.07375-0.059334-0.1725-0.14667-0.43-0.38334-0.97-0.61201-1.5575-0.61201-0.57938 0-1.1138 0.22267-1.5419 0.59601-0.09875 0.086668-0.17125 0.16-0.17188 0.15467 0-0.00533-0.06375-0.098001-0.15625-0.19267-0.188-0.1905-0.5436-0.4751-1.058-0.5578-0.05-0.00866-0.10125-0.012667-0.1525-0.013333zm2.1763 2c0.1725 0 0.3125 0.14934 0.3125 0.33334s-0.14 0.33334-0.3125 0.33334-0.3125-0.14934-0.3125-0.33334 0.14-0.33334 0.3125-0.33334zm1.875 0c0.1725 0 0.3125 0.14934 0.3125 0.33334s-0.14 0.33334-0.3125 0.33334-0.3125-0.14934-0.3125-0.33334 0.14-0.33334 0.3125-0.33334z"/>
</svg>
