<svg xmlns="http://www.w3.org/2000/svg" width="16" height="16" version="1.1">
 <path style="fill:#b2bfd9" d="M 16,2.8125 C 16,2.362375 15.6432,2 15.2,2 H 0.8 C 0.3568,2 0,2.362375 0,2.8125 v 11.375 C 0,14.637625 0.3568,15 0.8,15 H 11 l 5,-5 z"/>
 <path style="fill:#5a9bfd" d="M 2,4 H 14 V 9 H 2 Z"/>
 <path style="fill:#2357b4" d="m 2,9 h 12 v 2.125 L 12.125,13 H 2 Z"/>
 <path style="opacity:0.2" d="m 8.0509904,10.051252 c -0.039252,0.07465 -0.1264612,0.225292 0.089229,0.188748 0.6527508,0.0047 1.305564,-6e-4 1.9583466,0 0.311902,0.09204 0.758709,0.426164 0.837938,0.619958 0.298225,0.485628 0.386316,0.947537 0.391239,1.417345 0,0 -0.841721,-1.219342 -1.199254,-1.797303 H 8.213152 c 0,0 2.344717,1.182705 3.096747,1.863603 -0.07756,0.143819 0.177307,-0.02867 0.256786,-0.06357 0.468649,-0.254335 0.921524,-0.540574 1.166706,-0.896076 0.286009,-0.399206 -0.864922,-0.859802 -1.50698,-1.05709 -0.07384,-0.03775 -0.336161,-0.07369 -0.292203,-0.08687 h 1.005503 c -0.152628,-0.06301 -0.310747,-0.176084 -0.472017,-0.228632 -0.566793,-0.02003 -1.135894,-0.0066 -1.7035932,-0.01084 H 8.0757112 l -0.02472,0.05073 z"/>
 <path style="fill:#3d3d3d" d="M 8.0509904,9.9145802 C 8.0117384,9.7901568 7.9245292,9.3394842 8.1402192,9.400391 c 0.6527508,-0.00791 1.305564,9.6e-4 1.9583468,0 0.311902,-0.1533932 0.47209,-0.2135586 0.55132,-0.5365486 0.134881,-0.422924 0.09001,-0.875042 0.05859,-1.3100928 -0.05095,-0.4529324 -0.126231,-0.9036584 -0.22091,-1.3492544 -0.04554,0.091724 -0.03732,0.328828 -0.06342,0.4743276 C 10.325476,7.6185896 10.225211,8.0600312 10.128489,9 H 8.213152 C 8.96618,7.8658364 9.7176916,7.2288252 10.469721,6.0939964 c -0.07756,-0.2396992 0.177307,0.04778 0.256787,0.1059464 0.468648,0.4238916 0.921524,0.9009564 1.166705,1.4934596 0.28601,0.6653432 -0.02474,1.233393 -0.666802,1.5622066 -0.07384,0.062915 -0.336161,0.1228212 -0.292203,0.144782 h 1.005503 c -0.152628,0.1050224 -0.310747,0.4930834 -0.472017,0.5806622 -0.566793,0.03338 -1.135894,0.01096 -1.7035932,0.01807 H 8.0757112 l -0.02472,-0.08454 z"/>
 <circle style="fill:#ffee58" cx="4.5" cy="6.5" r="1.5"/>
 <path style="fill:#cccccc" d="m 11,15 5,-5 H 11.833333 C 11.371667,10 11,10.371667 11,10.833333 Z"/>
</svg>
