<svg xmlns="http://www.w3.org/2000/svg" width="16" height="16" version="1">
 <path style="fill:#ffc129" d="M 0.8,0 C 0.3568,0 0,0.3568 0,0.8 l 0,4.8 9.6,0 0,-5.6 -8.8,0 z"/>
 <path style="fill:#5fb319" d="m 9.6,0 0,5.6 6.4,0 0,-4.8 C 16,0.3568 15.6432,0 15.2,0 L 9.6,0 Z"/>
 <path style="fill:#e74b4b" d="m 6.4,5.6 0,10.4 8.8,0 c 0.4432,0 0.8,-0.3568 0.8,-0.8 l 0,-9.6 z"/>
 <path style="fill:#35abe4" d="m 0,5.6 0,9.6 C 0,15.6432 0.3568,16 0.8,16 l 5.7,0 0,-10.4 z"/>
 <rect style="fill:#f4f4f7" width="11" height="1" x="5" y="-7" transform="matrix(0,1,-1,0,0,0)"/>
 <rect style="fill:#f4f4f7" width="16" height="1" x="0" y="5"/>
 <rect style="fill:#f4f4f7" width="6" height="1" x="0" y="-10" transform="matrix(0,1,-1,0,0,0)"/>
</svg>
