<svg xmlns="http://www.w3.org/2000/svg" width="16" height="16" version="1.1">
 <path style="fill:#ff6c3a" d="m8 2-1 1h-6c-0.554 0-1 0.446-1 1v8c0 0.554 0.446 1 1 1h14c0.554 0 1-0.446 1-1v-8c0-0.554-0.446-1-1-1h-1l-1-1z"/>
 <rect style="fill:#f4f4f7" width="5" height="1" x="8" y="3"/>
 <circle style="fill:#f4f4f7" cx="5" cy="8" r="4"/>
 <circle style="fill:#4f4f4f" cx="5" cy="8" r="3"/>
</svg>
