<svg xmlns="http://www.w3.org/2000/svg" width="16" height="16" version="1.1">
 <circle style="fill:#49ac36" cx="5" cy="11" r="5"/>
 <circle style="fill:#394dbb" cx="11" cy="11" r="5"/>
 <circle style="fill:#ee4034" cx="8" cy="6" r="5"/>
 <path style="fill:#36c8ff" d="M 9.9785156 10.585938 A 5.0002108 5.0002108 0 0 1 8 11 A 5.0002108 5.0002108 0 0 1 6.0234375 10.591797 A 5.0002108 5.0002108 0 0 0 6 11 A 5.0002108 5.0002108 0 0 0 8 14.992188 A 5.0002108 5.0002108 0 0 0 10 11 A 5.0002108 5.0002108 0 0 0 9.9785156 10.585938 z"/>
 <path style="fill:#f4f4f7" d="M 7.9980469 7.0058594 A 5.0002108 5.0002108 0 0 0 6.0234375 10.591797 A 5.0002108 5.0002108 0 0 0 8 11 A 5.0002108 5.0002108 0 0 0 9.9785156 10.585938 A 5.0002108 5.0002108 0 0 0 7.9980469 7.0058594 z"/>
 <path style="fill:#ffe717" d="M 5 6 A 5.0002108 5.0002108 0 0 0 3.0195312 6.4140625 A 5.0002108 5.0002108 0 0 0 6.0214844 10.585938 A 5.0002108 5.0002108 0 0 1 7.9980469 7.0078125 A 5.0002108 5.0002108 0 0 0 5 6 z"/>
 <path style="fill:#d971e1" d="M 11 6 A 5.0002108 5.0002108 0 0 0 8.0039062 7.0097656 A 5.0002108 5.0002108 0 0 1 9.9804688 10.587891 A 5.0002108 5.0002108 0 0 0 12.978516 6.4101562 A 5.0002108 5.0002108 0 0 0 11 6 z"/>
</svg>
