<svg xmlns="http://www.w3.org/2000/svg" width="16" height="16" version="1">
 <rect style="fill:#34344b" width="16" height="16" x="0" y="0" rx=".8" ry=".8"/>
 <path style="fill:#e1145e" class="st1" d="M 15,8.0014972 C 15,7.109059 13.839556,6.2615421 12.056889,5.7374594 12.467556,3.9915148 12.284,2.6019466 11.481333,2.1557275 11.294667,2.0509108 11.08,2.0029948 10.843556,2.0029948 v 0.6139256 c 0.130666,0 0.236444,0.023958 0.326666,0.071874 0.388889,0.2156225 0.556889,1.0301972 0.426222,2.0783627 -0.03111,0.2575491 -0.084,0.5300721 -0.146222,0.808585 -0.56,-0.131769 -1.169777,-0.2335909 -1.8106661,-0.2994757 C 9.2537781,4.7671573 8.8555558,4.3059643 8.4511113,3.9016719 9.3813336,3.0691288 10.255556,2.6139256 10.846667,2.6139256 V 2 2 C 10.062667,2 9.0360003,2.5390566 7.9968891,3.4734216 6.957778,2.5450461 5.9311113,2.011979 5.1471112,2.011979 v 0.6139256 c 0.5911112,0 1.4653335,0.4522088 2.3955557,1.2787621 C 7.1444447,4.3089591 6.7431113,4.7671573 6.3635558,5.2762664 5.7195557,5.3421514 5.1066668,5.4439731 4.5497779,5.5787372 4.4844445,5.3032191 4.4346668,5.0366856 4.4004445,4.7821311 4.2666668,3.7339656 4.4315557,2.9163962 4.8173334,2.7007736 c 0.087111,-0.050911 0.196,-0.071874 0.3266667,-0.071874 v -0.6139256 0 c -0.2395556,0 -0.4573333,0.050911 -0.644,0.1527327 C 3.6973334,2.6139258 3.516889,4.0004993 3.9306668,5.7404543 2.1542222,6.2675316 1,7.1120538 1,8.0014972 1,8.8939353 2.1604444,9.741452 3.9431112,10.265535 3.5324445,12.01148 3.7160001,13.401048 4.5186668,13.847267 4.7053334,13.952083 4.9200001,14 5.1595557,14 c 0.7840001,0 1.8106667,-0.539057 2.8497778,-1.473422 1.0391113,0.928375 2.0657775,1.461443 2.8497775,1.461443 0.239556,0 0.457333,-0.05091 0.644,-0.152733 0.802667,-0.446219 0.983111,-1.832793 0.569333,-3.572748 C 13.845778,9.738458 15,8.8939353 15,8.0014972 Z M 11.285333,6.1716993 C 11.179556,6.5250809 11.048889,6.8904415 10.899556,7.2558022 10.781333,7.0371847 10.66,6.8155728 10.526223,6.5969553 10.395556,6.3783378 10.255556,6.162715 10.115556,5.9530821 10.52,6.0099831 10.912,6.0818568 11.285333,6.1716993 Z M 9.978667,9.0975791 c -0.224,0.3713501 -0.4511111,0.7217369 -0.6875556,1.0481649 -0.4262223,0.03594 -0.8555556,0.05391 -1.2911112,0.05391 -0.4324444,0 -0.8617778,-0.01797 -1.2848889,-0.05092 C 6.4786669,9.82231 6.2484447,9.471923 6.0244447,9.1035676 5.8066669,8.7441965 5.6106668,8.3788358 5.4302223,8.0104804 5.6075557,7.6421251 5.8066669,7.2737697 6.0213335,6.9143985 6.2453335,6.5430484 6.4724447,6.1926619 6.7088891,5.866233 7.1351113,5.830297 7.5644447,5.812327 8.0000002,5.812327 c 0.4324445,0 0.8617778,0.01797 1.284889,0.050911 0.2364444,0.3264289 0.4666667,0.6768154 0.6906667,1.0451708 0.2177781,0.3593711 0.4137781,0.7247317 0.5942221,1.0930871 -0.180444,0.3653614 -0.379556,0.7337168 -0.591111,1.0960832 z M 10.899556,8.738208 c 0.155555,0.3683554 0.286222,0.7367107 0.395111,1.093087 -0.373334,0.08685 -0.768444,0.161717 -1.176,0.218617 0.14,-0.212627 0.28,-0.42825 0.410667,-0.6498624 C 10.66,9.1814321 10.781333,8.9598202 10.899556,8.738208 Z m -2.8933336,2.931869 c -0.2644444,-0.263539 -0.532,-0.557025 -0.7933333,-0.88046 0.2582222,0.01198 0.5195556,0.01797 0.784,0.01797 0.2675556,0 0.5351111,-0.006 0.7933333,-0.01797 -0.2551111,0.323435 -0.5226666,0.616921 -0.784,0.88046 z M 5.8813335,10.052907 C 5.476889,9.996007 5.084889,9.924132 4.7115557,9.837285 4.8173334,9.483903 4.9480001,9.1185424 5.0973334,8.7531817 5.2155557,8.9717992 5.336889,9.1934115 5.4706668,9.4120286 5.6044445,9.627651 5.7413335,9.843274 5.8813335,10.052907 Z M 7.9906669,4.3359122 c 0.2644444,0.2635388 0.532,0.557025 0.7933333,0.8804592 -0.2582222,-0.011978 -0.5195555,-0.01797 -0.784,-0.01797 -0.2675555,0 -0.5351111,0.00599 -0.7933333,0.01797 0.2582222,-0.3234342 0.5226666,-0.6169204 0.784,-0.8804592 z M 5.8782224,5.9530821 C 5.7382224,6.1657098 5.5982223,6.3813325 5.4675557,6.6029448 5.336889,6.8215623 5.2124445,7.0431742 5.0973334,7.2617917 4.9417779,6.8934363 4.8111112,6.5250809 4.7022223,6.1687045 5.0786668,6.0848515 5.4706668,6.0099824 5.8782224,5.9530821 Z M 3.2960001,9.3940601 C 2.2848889,8.9777887 1.6315556,8.4357375 1.6315556,8.0044919 c 0,-0.4312451 0.6533333,-0.9792862 1.6644445,-1.3895681 C 3.5417779,6.5131019 3.8093334,6.423259 4.0862223,6.3364113 4.2480001,6.8754678 4.4626668,7.4354876 4.7271112,8.0104814 4.4657779,8.5824806 4.2542223,9.1395056 4.0924445,9.675567 3.8124445,9.58872 3.544889,9.495882 3.2960001,9.3940601 Z M 4.832889,13.317194 C 4.4440001,13.101572 4.2760001,12.286997 4.4066668,11.238832 c 0.031111,-0.257549 0.084,-0.530072 0.1462222,-0.808586 0.56,0.131771 1.1697778,0.233592 1.8106668,0.299476 0.3857777,0.50911 0.784,0.970303 1.1884444,1.374595 -0.9302222,0.832543 -1.8044444,1.287746 -2.3955557,1.287746 -0.1306666,-0.003 -0.2395555,-0.02695 -0.3235555,-0.07487 z m 6.769778,-2.093336 c 0.133777,1.048165 -0.03111,1.865735 -0.416889,2.081358 -0.08711,0.05092 -0.196,0.07188 -0.326667,0.07188 -0.591111,0 -1.4653329,-0.452209 -2.3955552,-1.278761 0.3982222,-0.404293 0.7995556,-0.862491 1.1791112,-1.3716 0.644,-0.06589 1.256889,-0.167707 1.813777,-0.302472 0.06222,0.278514 0.112,0.545047 0.146223,0.799602 z M 12.700889,9.3940601 C 12.455111,9.495882 12.187556,9.5857249 11.910667,9.672573 11.748889,9.1335161 11.534222,8.5734963 11.269778,7.9985024 c 0.261333,-0.5719991 0.472889,-1.1290241 0.634666,-1.6650859 0.283112,0.083853 0.550667,0.1796854 0.802667,0.2815073 1.011111,0.4162714 1.664445,0.958323 1.664445,1.3895681 -0.0093,0.4282504 -0.662667,0.9762916 -1.670667,1.3895682 z"/>
 <circle style="fill:#f4f4f7" class="st2" cx="8" cy="8" r="1"/>
</svg>
