<svg xmlns="http://www.w3.org/2000/svg" width="16" height="16" version="1">
 <rect style="fill:#0090ef" width="15" height="15" x="1" y="1" rx="7.5" ry="7.5"/>
 <path style="fill:#f4f4f7" d="M 9,4.9999 A 3,3 0 0 0 6,7.9999 3,3 0 0 0 9,11 3,3 0 0 0 12,7.9999 3,3 0 0 0 9,4.9999 Z M 9,5.9999 A 2,2 0 0 1 11,7.9999 2,2 0 0 1 9,9.9999 2,2 0 0 1 7,7.9999 2,2 0 0 1 9,5.9999 Z"/>
 <path style="fill:none;stroke:#f4f4f7;stroke-width:1px;stroke-linecap:round" d="M 5,12 7,9.9999"/>
</svg>
