<svg xmlns="http://www.w3.org/2000/svg" width="16" height="16" version="1">
 <rect fill="#fecd38" width="16" height="16" x="0" y="0" rx="8" ry="8"/>
 <ellipse fill="#17191e" cx="5.5" cy="5.5" rx="1.5" ry="1.5"/>
 <path fill="#17191e" d="m5 10c0.61917 1.2366 1.763 1.9989 3.0013 2 1.2373-0.0022 2.38-0.76432 2.9987-2h-0.4214c-0.6566 0.846-1.5934 0.997-2.5777 1-0.9846-0.002-1.9221-0.154-2.5786-1z"/>
 <ellipse fill="#17191e" cx="10.5" cy="5.5" rx="1.5" ry="1.5"/>
</svg>
