<svg xmlns="http://www.w3.org/2000/svg" width="16" height="16" version="1.1">
 <path fill="#f56e2c" d="m16 8a8 8 0 0 1 -8 8 8 8 0 0 1 -8 -8 8 8 0 0 1 8 -8 8 8 0 0 1 8 8z"/>
 <path fill="#f4f4f7" d="m5 4v8h6v-3h-3.0715v-5z"/>
</svg>
