<svg width="16" height="16" version="1.1" xmlns="http://www.w3.org/2000/svg">
 <path d="m8 4s-8 0-8 10.5c0 1.5 1.5 1.5 1.5 1.5h13s1.5 0.1 1.5-1.5c0-10.5-8-10.5-8-10.5z" style="fill:#f7941d"/>
 <rect x="7" y="4" width="1.9999996" height="12" style="fill:#f4f4f7;opacity:.3"/>
 <circle cx="8" cy="4" r="3" style="fill:#dfb189"/>
 <path d="m10 4c1 0 1 1 1 1v-3.4c0-1.2-1.80743-1.6-3-1.6s-3 0.4-3 1.6v3.4s0-1 1-1v-1s0.4 0.6 2 0.6 2-0.6 2-0.6z" style="fill:#674b42"/>
 <path d="M 6.5,4 A 0.5,0.5 0 0 0 6,4.5 0.5,0.5 0 0 0 6.5,5 0.5,0.5 0 0 0 7,4.5 0.5,0.5 0 0 0 6.5,4 Z m 3,0 A 0.5,0.5 0 0 0 9,4.5 0.5,0.5 0 0 0 9.5,5 0.5,0.5 0 0 0 10,4.5 0.5,0.5 0 0 0 9.5,4 Z" style="fill:#17191e"/>
</svg>
