<svg xmlns="http://www.w3.org/2000/svg" width="16" height="16" version="1">
 <g style="fill:#4f4f4f" transform="matrix(0.04310345,0,0,0.04310345,-28.137932,-28.137933)">
  <circle style="fill:#4f4f4f" cx="850" cy="850" r="174"/>
 </g>
 <rect style="fill:#f4f4f7" width="1" height="5" x="9" y="7"/>
 <polygon style="fill:#f4f4f7" transform="matrix(0.0400641,0,0,0.05172414,-25.836522,-36.84483)" points="944.4 925 819.6 925 882 983"/>
 <rect style="fill:#f4f4f7" width="1" height="5" x="-8" y="-10" transform="scale(-1)"/>
 <polygon style="fill:#f4f4f7" transform="matrix(-0.0400641,0,0,-0.05172414,42.836536,53.84483)" points="882 983 944.4 925 819.6 925"/>
</svg>
