<svg xmlns="http://www.w3.org/2000/svg" width="16" height="16" version="1">
 <path style="fill:#3669e9" d="M 9.4453125,0 5,16 H 7.0742187 L 11.519532,0 Z"/>
 <path style="fill:none;stroke-linejoin:round;stroke-width:2;stroke:#3669e9" d="M 1.326,5.480382 C 2.0938646,5.2155696 3.0564981,4.7295748 4.3118601,5.185982 4.8679653,5.3881632 4.3944565,6.13107 4.2479729,6.698018 3.2511901,10.555956 2.6260253,12.2 6.5187081,12.96 9.5920489,13.560033 12.015272,11.16444 12.506044,9.6040636 13.12621,8.0567124 13.026025,6.9999996 13.026025,5"/>
 <circle style="fill:#d2524c" cx="11.5" cy="11.5" r="4.5"/>
 <rect style="fill:#f4f4f7" width="1" height="5" x="11" y="9"/>
 <rect style="fill:#f4f4f7" width="1" height="5" x="11" y="-14" transform="rotate(90)"/>
</svg>
