<svg xmlns="http://www.w3.org/2000/svg" width="16" height="16" version="1">
 <rect fill="#02a8f3" width="16" height="16" x="0" y="0" rx="8" ry="8"/>
 <path style="fill:#f4f4f7" d="M 8.0000002,3 C 5.2385711,3 2.9999999,5.2385724 2.9999999,8.0000004 2.9999999,10.761428 5.2385711,13 8.0000002,13 10.761428,13 13,10.761428 13,8.0000004 13,5.2385724 10.761428,3 8.0000002,3 Z M 7.5322261,3.9970714 c 0.0544,-0.0057 0.122843,0.0032 0.177735,0 0.0065,0.02602 -0.03854,0.119377 -0.100586,0.254882 -0.395108,0.863144 -0.41845,1.873764 -0.05176,2.414062 0.06636,0.09796 0.1269531,0.19101 0.1269531,0.203125 0,0.01212 -0.07143,0.02539 -0.152344,0.02539 -0.18995,1e-6 -0.370032,-0.11542 -0.737304,-0.40625 -0.163156,-0.129195 -0.374856,-0.237481 -0.457032,-0.253906 -0.12904,-0.02578 -0.163142,-0.01461 -0.330078,0.152344 -0.155317,0.155292 -0.203125,0.23967 -0.203125,0.381836 0,0.539111 0.640414,0.966572 1.830078,1.21875 1.615612,0.342419 2.013053,0.649476 2.057618,1.499023 0.05595,1.0653086 -0.510665,1.8683706 -1.7529301,2.4902346 -0.1482729,0.07425 -0.2424769,0.103939 -0.304688,0.127929 -0.02757,-0.0024 -0.04967,0.0024 -0.07715,0 -0.01057,-0.03293 -0.02539,-0.109122 -0.02539,-0.253906 0,-0.565817 -0.2225339,-1.148918 -0.558593,-1.474609 -0.09021,-0.08744 -0.3422959,-0.272355 -0.5585939,-0.4062496 -0.216291,-0.133888 -0.434769,-0.289111 -0.4833991,-0.355469 -0.08057,-0.110117 -0.08633,-0.177434 -0.02442,-0.380859 0.11284,-0.371532 0.246706,-0.579702 0.507813,-0.814453 0.136888,-0.123071 0.274362,-0.22509 0.304687,-0.22754 0.03033,-0.0024 -0.17454,-0.06495 -0.482422,-0.127929 -0.307866,-0.06311 -0.759341,-0.195024 -0.992188,-0.279297 -0.425782,-0.154063 -1.000565,-0.477839 -1.219726,-0.711914 -0.0093,-0.0099 -0.01734,-0.0166 -0.02539,-0.02539 0.314006,-1.250802 1.195101,-2.275503 2.363282,-2.76953 0.244427,-0.103384 0.49671,-0.174112 0.762695,-0.228516 0.132489,-0.02708 0.269451,-0.03785 0.40625,-0.05176 z m 3.8125009,1.90625 c 0.09551,0.05904 0.456624,0.840118 0.55957,1.220702 0.13291,0.491336 0.12329,1.341011 0,1.829102 -0.04693,0.18577 -0.107925,0.359229 -0.12793,0.380859 -0.02,0.02163 -0.09337,-0.101697 -0.178711,-0.25293 -0.08535,-0.151209 -0.356454,-0.47287 -0.583008,-0.711914 -0.653937,-0.690036 -0.757321,-1.049878 -0.483398,-1.600586 0.138141,-0.277704 0.739556,-0.910853 0.813477,-0.865233 z"/>
</svg>
