<svg xmlns="http://www.w3.org/2000/svg" width="16" height="16" version="1">
 <path style="fill:#7e57c2" d="M 0,3.5601564 V 15.085938 C 0,15.592795 0.4075482,16 0.91406248,16 H 8 15.085938 C 15.592452,16 16,15.592795 16,15.085938 V 3.5601564 H 8 Z"/>
 <path style="fill:#f4f4f7" d="M 7.1992188 6 L 7.1992188 7.1132812 A 3 3 0 0 0 5.8984375 7.8632812 L 4.9355469 7.3066406 L 4.1367188 8.6933594 L 5.0976562 9.2480469 A 3 3 0 0 0 5 10 A 3 3 0 0 0 5.0996094 10.75 L 4.1367188 11.306641 L 4.9355469 12.693359 L 5.8964844 12.138672 A 3 3 0 0 0 7.1992188 12.890625 L 7.1992188 14 L 8.8007812 14 L 8.8007812 12.886719 A 3 3 0 0 0 10.101562 12.136719 L 11.064453 12.693359 L 11.863281 11.306641 L 10.902344 10.751953 A 3 3 0 0 0 11 10 A 3 3 0 0 0 10.900391 9.25 L 11.863281 8.6933594 L 11.064453 7.3066406 L 10.103516 7.8613281 A 3 3 0 0 0 8.8007812 7.109375 L 8.8007812 6 L 7.1992188 6 z M 8 8 A 2 2 0 0 1 10 10 A 2 2 0 0 1 8 12 A 2 2 0 0 1 6 10 A 2 2 0 0 1 8 8 z"/>
 <path style="fill:#673ab7" d="M 0.91406248,0 C 0.4075482,0 0,0.40720536 0,0.91406248 V 4 h 8 8 V 0.91406248 C 16,0.40720536 15.592452,0 15.085938,0 H 8 Z"/>
</svg>
