<svg xmlns="http://www.w3.org/2000/svg" width="16" height="16" version="1">
 <path style="fill:#e631a1" d="M 14.8,0 H 8 v 16 h 6.8 C 15.4648,16 16,15.4648 16,14.8 V 1.2 C 16,0.5352 15.4648,0 14.8,0 Z"/>
 <path style="fill:#4f4f4f" d="M 1.2,0 H 8 V 16 H 1.2 C 0.5352,16 0,15.4648 0,14.8 V 1.2 C 0,0.5352 0.5352,0 1.2,0 Z"/>
 <path style="opacity:0.1;fill:#f4f4f7" d="m 8,8 v 8 H 1.2 C 0.5352,16 0,15.4648 0,14.8 V 8 Z"/>
 <path style="fill:#f4f4f7" d="m 3.8484376,2 c -0.1940956,0 -0.4642812,0.071191 -0.9875,0.2570312 -0.050632,0.017688 -0.050773,0.017444 -0.092969,0.035156 L 2.8015608,2.425 C 3.1306844,2.336505 3.1898212,2.327344 3.2742172,2.327344 c 0.210972,0 0.2615356,0.079962 0.3796876,0.6109373 L 3.898436,4.0265624 3.2070296,5.0617188 c -0.177216,0.2654848 -0.3376388,0.425 -0.4304688,0.425 -0.050633,0 -0.1351428,-0.026604 -0.2195312,-0.079688 C 2.447328,5.3450844 2.3626566,5.31875 2.2867188,5.31875 2.1179425,5.31875 2,5.451136 2,5.6281248 2,5.8582144 2.1602598,6 2.4218752,6 2.68349,6 2.7850772,5.9200396 3.2070312,5.3890624 3.43488,5.0970184 3.6204144,4.8320244 3.9664064,4.3453124 L 4.2195312,5.4070312 C 4.3292356,5.8672092 4.43855,6 4.7085936,6 5.0292832,6 5.248826,5.787876 5.7382812,4.9914064 L 5.6203124,4.9203124 C 5.5528004,4.9999596 5.5103252,5.053182 5.4343752,5.1593752 5.24028,5.4248628 5.1395456,5.5132812 5.0382812,5.5132812 c -0.1181444,0 -0.1940504,-0.1147136 -0.2531248,-0.3625 C 4.7598404,5.053436 4.7592204,5.0351412 4.7507804,5.0085936 4.5398084,4.1059276 4.4468744,3.6991612 4.4468744,3.5664064 4.82663,2.876154 5.1223208,2.4953124 5.274218,2.4953124 c 0.050633,0 0.1263948,0.026836 0.2023436,0.071094 0.1012668,0.061947 0.1607704,0.079687 0.2367188,0.079687 C 5.8820588,2.6460936 6,2.513178 6,2.3273438 6,2.1326534 5.8564384,2 5.6539064,2 5.2825844,2 4.970408,2.3187076 4.3796876,3.2656248 L 4.2867188,2.7789064 C 4.1685748,2.1771289 4.0762884,2 3.8484376,2 Z"/>
 <path style="fill:#f4f4f7" d="m 10,6 v 1 h 4 V 6 Z"/>
 <path style="fill:#f4f4f7" d="m 10,9 v 1 h 4 V 9 Z"/>
 <path style="fill:#f4f4f7" d="m 4.0242188,10 c -0.5948932,0 -1.0773824,0.166598 -1.4476564,0.499219 -0.3682588,0.332621 -0.5523436,0.733628 -0.5523436,1.204687 0,0.424907 0.1325828,0.777459 0.3976564,1.05625 0.2650536,0.278792 0.5579652,0.448632 0.8796872,0.510156 l 0.00625,0.19375 H 2.6070332 c -0.1679388,0 -0.2902984,-0.02742 -0.3671874,-0.08125 C 2.1629588,13.328987 2.1205943,13.233384 2.1125,13.096875 H 2 V 14 H 3.5718752 L 3.5148436,13.129688 C 3.211338,13.023927 3.0048964,12.840804 2.8976564,12.58125 2.790416,12.31978 2.7375,12.030529 2.7375,11.713281 c 0,-0.438365 0.1190488,-0.798199 0.3578124,-1.078906 0.2407792,-0.282639 0.5439136,-0.423437 0.9101564,-0.423437 0.3439828,0 0.643496,0.13154 0.8984376,0.396874 0.2569744,0.265334 0.3859372,0.647339 0.3859372,1.145313 0,0.761365 -0.2607832,1.220827 -0.7828124,1.376563 L 4.4281248,14 H 6 V 13.096875 H 5.8875 c -0.00404,0.105745 -0.037272,0.193283 -0.1,0.2625 -0.060699,0.06922 -0.1866792,0.104687 -0.3789064,0.104687 h -0.716406 l 0.029688,-0.19375 c 0.3885028,-0.107675 0.6960392,-0.300484 0.922656,-0.577343 0.2286504,-0.278791 0.34375,-0.616852 0.34375,-1.014844 0,-0.490279 -0.1837568,-0.891286 -0.55,-1.204687 C 5.072038,10.158122 4.6008824,10 4.0242188,10 Z"/>
</svg>
