<svg xmlns="http://www.w3.org/2000/svg" width="16" height="16" version="1.1">
 <path style="fill:#00cc5c" d="m2.1818182 2h13.056277s0.761905 0 0.761905 0.7647059v9.9411761l-2.181818 2.294118h-13.056277s-0.76190476 0-0.76190476-0.764706v-9.9411763z"/>
 <path style="fill:#f4f4f7" d="m10 5.0588236v1.9411764h-1v1h1v1.6470588c0 1.5294122 0.264025 2.2750432 1.379464 2.3529412h0.620536v-1h-0.395836c-0.514553 0-0.620035-0.5884-0.604165-1.3529412v-1.6470588h1.000001v-1h-0.999998v-1.9411764z"/>
 <path style="fill:#f4f4f7" d="M 5.5117188,5.013836 C 3.5264974,5.013836 3,6.3492646 3,8.5 c 0,2.150735 0.5172188,3.565912 2.5117188,3.566406 H 6.078125 L 6.9042969,13.5 7.8613281,13.140625 7.0820312,11.707031 C 7.8241706,11.348575 8,9.9338235 8,8.5 8,6.3492646 7.4969402,5.013836 5.5117188,5.013836 Z m -0.00781,0.9863281 C 6.7149092,6.0001641 7.0000033,7.1666668 7,8.5 7,9.8333332 6.7240853,11 5.5039062,11 4.2837276,11 4,9.8333332 4,8.5 4,7.1666668 4.2929038,6.0001641 5.5039062,6.0001641 Z"/>
</svg>
