<svg xmlns="http://www.w3.org/2000/svg" width="16" height="16" version="1.1">
 <path style="fill:#4cdb5d" d="M 2.5694448,2.0000566 C 2.4237953,2.0002155 2.2845459,2.0596086 2.184028,2.1644459 L 0.14722221,4.2863123 C 0.05268842,4.3849954 -2.9789597e-5,4.5160831 3.8974697e-8,4.6523888 L 1.5678426,8.6903213 C 1.7602371,9.1858275 0.74600971,12.65306 1.0509948,12.804733 1.3559799,12.956406 2.6666667,12.125 2.6666667,12.125 L 12.571429,12.5 c 0.145649,-1.59e-4 0.661387,-0.270162 0.761904,-0.375 l 2.519445,-0.411375 C 15.947312,11.614941 16.00003,11.483853 16,11.347547 V 3.2378119 C 16,2.7073451 15.654291,2.296088 15.349306,2.1444153 15.04432,1.9927423 14.755556,2.0000566 14.755556,2.0000566 Z"/>
 <path style="fill:#31ae3e" d="M 0.03906254,4.5043527 C 0.02503512,4.5522181 0.01561417,4.6018497 0.01562522,4.6525595 v 8.1093335 c 0,0.530465 0.34558308,0.9423 0.65056814,1.093973 0.30498511,0.151672 0.59375004,0.144071 0.59375004,0.144071 H 13.446023 c 0.14565,-1.59e-4 0.285135,-0.05991 0.385653,-0.164751 l 2.036932,-2.121772 c 0.05306,-0.05539 0.09099,-0.121329 0.115767,-0.192324 z"/>
 <path style="fill:#f4f4f7" d="m 7.2222972,5 -1.7222971,7 h 1.0770267 l 0.3823923,-2 h 2.0811618 l 0.3823923,2 H 10.5 L 8.7777028,5 Z M 8,6.0416667 8.7534191,9 H 7.2465809 Z"/>
</svg>
