<svg xmlns="http://www.w3.org/2000/svg" id="circle_pieces" width="16" height="16" x="0" y="0" version="1.1" xml:space="preserve">
 <path style="fill:#3e5ba9" d="M 8,0 A 8,8 0 0 0 5.29375,0.47968752 C 9.8724376,3.4573596 12.287867,7.9630176 14.234375,13.001562 A 8,8 0 0 0 16,8 8,8 0 0 0 8,0 Z"/>
 <path style="fill:#d82b2f" d="M 2.8554688 1.8828125 A 8 8 0 0 0 0 8 A 8 8 0 0 0 1.9824219 13.261719 L 2.4160156 12.273438 L 4.5859375 13.222656 C 4.4498796 13.819057 4.3170052 14.429272 4.1796875 15.019531 A 8 8 0 0 0 8 16 A 8 8 0 0 0 11.935547 14.953125 C 11.244911 10.233765 7.8690747 4.6172155 2.8554688 1.8828125 z"/>
 <path style="fill:#f4f4f7" d="M 5.3859376,0.44921876 A 8,8 0 0 0 2.7523436,1.975 C 4.2096624,2.6840956 5.6240452,3.7781916 6.8539064,5.1031248 5.1185648,6.84675 3.0563588,9.9977996 1.9640625,13.235156 a 8,8 0 0 0 2.2554687,1.811719 C 4.8547116,12.048212 6.607474,8.7715852 8.3281248,6.9171876 9.9357588,9.1727388 11.210431,11.974057 11.872656,14.989844 a 8,8 0 0 0 2.428906,-2.076563 C 12.800068,7.7896172 8.6019996,2.192753 5.3859376,0.44921876 Z"/>
</svg>
