<svg xmlns="http://www.w3.org/2000/svg" width="16" height="16" version="1">
 <rect fill="#189bc1" width="16" height="16" x="0" y="0" rx="8" ry="8"/>
 <path fill="#f4f4f7" d="m7 4.5c-0.7411 0.3877-1.1647 1.3393-1.5 2-0.2131-0.288-0.1673-0.892-0.25-1.25-0.655 0.8622-0.9434 2.3449-1.207 3.207-0.3734 1.2257-0.8502 1.978-1.5293 2.416-0.4036 0.26-0.7652 0.395-1.5469 0.572-0.06133 0.019-0.10293 0.026-0.16407 0.041 1.2101 2.504 3.6791 4.27 6.5996 4.485 0.3193-0.63 0.3572-1.498 0.2325-2.03-0.0832-0.328-0.2995-0.918-0.2852-0.941s0.3668 0.014 0.666 0.014c0.3536 0 0.6117 0.011 0.7989-0.045 0.1584-0.048 0.3485-0.125 0.4609-0.119 0.4996 0.025 1.1316-0.203 1.2986-0.647 0.052-0.138 0.269-0.317 0.326-0.396 0.094-0.13 0.145-0.236 0.084-0.44-0.085-0.288-0.434-0.459-0.802-0.795-0.2793-0.254-0.418-0.28-0.432-0.552-0.0103-0.2009 0.0422-0.3415-0.0664-0.4438-0.1231-0.1161-0.4348-0.0408-0.4551-0.043-0.1293-0.1505-0.2516-0.3083-0.0137-0.5254 0.1801-0.1642 0.2852-0.2377 0.2852-0.418 0-0.1768-0.1056-0.2284-0.2617-0.3652-0.1031-0.0903-0.2133-0.1641-0.2461-0.1641s-0.1979-0.1318-0.3672-0.2929c-0.328-0.3123-0.5589-0.2676-0.8145-0.2676-0.2067 0-0.3105-0.2011-0.3105-0.5 0.2752-0.9956 1.0874-1.7701 1.5-2-1.0451-0.148-1.8066 0.3707-2.5 1-0.0326-0.3657 0.4612-1.2637 0.5-1.5z"/>
</svg>
