<svg xmlns="http://www.w3.org/2000/svg" width="16" height="16" version="1">
 <path style="fill:#e53fa9" d="M 5.6391608,0.62937064 11.2,0 C 13.8592,0 16,2.1408 16,4.8 v 6.4 C 16,13.8592 13.8592,16 11.2,16 L 4.8349648,15.440558 C 2.1859772,15.207733 0.5747196,13.579436 0.55944064,10.92028 L 0.52447552,4.8349648 C 0.50919648,2.1758089 2.9968304,0.92842712 5.6391608,0.62937064 Z"/>
 <path style="fill:#7e53cb" d="M 4.8,0 C 2.1408,0 0,2.1408 0,4.8 V 8 H 1 C 5.9089132,7.9956696 10.220808,4.7391956 11.567969,0.01875 11.446143,0.0095672 11.324254,0 11.2,0 Z"/>
 <path style="fill:#f97b49" d="M 1,8 H 0 v 3.2 C 0,13.8592 2.1408,16 4.8,16 h 6.4 c 0.126097,0 0.249845,-0.0093 0.373438,-0.01874 C 10.225721,11.258858 5.9109416,8.0018912 1,8 Z"/>
 <rect style="fill:none;stroke:#f4f4f7;stroke-linecap:round;stroke-linejoin:round" width="11" height="11" x="2.5" y="2.5" rx="2.852" ry="2.852"/>
 <circle style="fill:none;stroke:#f4f4f7;stroke-linecap:round;stroke-linejoin:round" cx="8" cy="8" r="2.5"/>
 <circle style="fill:#f4f4f7" cx="11.2" cy="4.8" r=".8"/>
</svg>
