<svg xmlns="http://www.w3.org/2000/svg" width="16" height="16" version="1">
 <path style="fill:#00539e" d="M 2.899362,15.990444 C 2.4489644,15.932 2.0643232,15.763992 1.6884219,15.46152 1.5607762,15.358804 1.283674,15.07498 1.1701116,14.930636 0.19063232,13.685648 -0.22465504,11.71215 0.11915988,9.813998 0.37546312,8.398998 1.0327705,7.01599 1.8784804,6.447562 L 2.0296969,6.345926 2.0386565,6.241274 C 2.0992535,5.53379 2.2061882,5.072666 2.4288452,4.558714 2.5997648,4.16419 2.8027028,3.858614 3.0790808,3.579614 3.4331312,3.222206 3.7927616,3.045806 4.2121128,3.023854 4.63038,3.001974 5.0571788,3.175486 5.4025136,3.507838 c 0.088324,0.085 0.12019,0.088216 0.1351052,0.01364 0.0166,-0.082928 0.1684036,-0.487572 0.279534,-0.74504 C 6.2699504,1.7273738 6.92327,1.0093598 7.681772,0.5046398 c 0.076144,-0.050664 0.2319728,-0.139424 0.3462828,-0.19724 0.7129848,-0.360612 1.4810504,-0.404848 2.2221772,-0.127976 1.366172,0.510368 3.033283,2.138572 3.50118,4.2321842 0.171303,0.766492 0.230844,1.321696 0.260554,2.429572 l 0.0036,0.131296 0.125022,0.0344 c 1.21428,0.334036 1.630346,2.336552 1.823596,4.261124 0.144353,1.437592 -0.152208,2.377028 -0.807216,3.417932 -0.383608,0.609608 -0.912886,1.05912 -1.443464,1.225916 -0.304064,0.09558 0.07994,0.08961 -5.5931496,0.08704 -2.8457184,-0.0012 -5.195134,-0.0051 -5.2209204,-0.0084 z"/>
 <path style="fill:#f4f4f7" d="M 6.7148438,5.0019531 C 5.9310148,5.0112631 5.1293319,5.0788411 4.4433594,5.2050781 4.2654539,5.2378121 4.0933936,5.271958 4.0625,5.28125 L 4.0078125,5.2988281 4.0039062,9.142578 4,13.98593 l 0.6972656,-0.0039 1.3457032,-0.002 0.00391,-1.917571 c 0.0026,-0.646287 -0.0036,-0.05576 0.00781,-0.06836 0.0089,-0.0099 0.029722,-0.01518 0.046875,-0.01172 0.017152,0.0035 0.1586099,0.01824 0.359375,0.03125 0.4547886,0.02944 1.1151274,0.03274 1.4589844,0.0059 0.4381924,-0.04596 0.8086494,-0.08114 1.1777343,-0.130859 L 9.970492,14 h 0.917969 0.722656 0.900391 l -1.544711,-2.96875 c 0.420364,-0.373561 0.75357,-0.992122 0.880859,-1.507812 C 11.993622,8.9320579 12.07935,7.5397239 11.898438,7.0625 11.627783,6.3485838 10.926204,5.8027661 10.060547,5.4746094 9.6848054,5.3321709 9.3089391,5.2305176 8.8769531,5.1523438 8.2645709,5.0415244 7.4986729,4.9926452 6.7148438,5.0019531 Z M 7.5507812,7 C 7.699643,7.000409 7.8407511,7.005649 7.9648438,7.015625 8.7494469,7.078698 9.2549276,7.2427333 9.5976562,7.546875 9.8854017,7.8022203 10.019667,8.1331312 9.9980469,8.53125 9.9851319,8.7691609 9.9441916,8.916782 9.8457031,9.095703 9.6971364,9.365589 9.4554719,9.571825 9.1152344,9.716797 8.8316393,9.837636 8.4455035,9.927811 8.0410156,9.96875 7.7547454,9.99773 6.9525359,10.010824 6.6601562,9.990234 6.3569468,9.968884 6.0271974,9.921054 6.0097656,9.896484 6.0040156,9.888384 6.000089,9.28754 6,8.5234375 5.9998398,7.3028951 6.00129,7.1650117 6.017578,7.1503906 c 0.010034,-0.00895 0.02106,-0.015625 0.025391,-0.015625 0.00434,0 0.071894,-0.011619 0.1484374,-0.025391 C 6.5815431,7.039225 7.1041955,6.9987778 7.5507812,7 Z"/>
</svg>
