<svg xmlns="http://www.w3.org/2000/svg" width="16" height="16" version="1">
 <rect style="fill:#c73638" width="16" height="16" x="0" y="0" rx=".8" ry=".8"/>
 <path style="opacity:0.3" d="m 0,10 v 5.2 C 0,15.6432 0.3568,16 0.8,16 H 15.2 C 15.6432,16 16,15.6432 16,15.2 V 10 Z"/>
 <rect style="fill:#2f2f2f" width="12" height="10" x="2" y="2"/>
 <rect style="fill:#f4f4f7" width="2" height="3" x="4" y="5"/>
 <rect style="opacity:0.4" width="4" height="1" x="6" y="13"/>
 <rect style="fill:#f4f4f7" width="2" height="3" x="10" y="5"/>
</svg>
