<svg xmlns="http://www.w3.org/2000/svg" width="16" height="16" version="1">
 <rect style="fill:#0e89f7" width="16" height="16" x="0" y="0" rx=".8" ry=".8"/>
 <path style="fill:#17191e" d="M 4.1962011,12.484707 C 2.9901221,9.8806885 2.6588391,6.962792 3.3729739,5.2338351 3.5041411,4.9162723 3.4511268,4.9412019 4.7773722,4.5734358 4.8519468,4.5527573 5.1402651,4.3271351 5.4180801,4.072054 6.9908273,2.6280076 9.0961034,2.6440349 10.747075,4.1126226 c 0.465001,0.4136329 0.600469,0.4881636 1.135677,0.62482 0.551988,0.1409407 0.620097,0.1800579 0.742974,0.4267047 0.0744,0.1493468 0.196152,0.5660518 0.270555,0.9260111 0.177244,0.8574986 0.119892,2.6787001 -0.115405,3.6646201 -0.330305,1.3840135 -1.103302,3.2900175 -1.309711,3.2293945 -0.05607,-0.01647 -0.228093,-0.267044 -0.382264,-0.556835 -0.15417,-0.289789 -0.343036,-0.571123 -0.419703,-0.625186 -0.07667,-0.05406 -0.437064,-0.505345 -0.8008844,-0.583707 -0.8521138,-0.183537 -2.7974492,-0.189381 -3.6266278,-0.01089 -0.9498564,0.204461 -0.9721461,0.56252 -1.276345,1.209156 -0.1749654,0.371923 -0.3207982,0.583292 -0.402439,0.583292 -0.080519,0 -0.216615,-0.191244 -0.3667007,-0.515289 z"/>
</svg>
