<svg xmlns="http://www.w3.org/2000/svg" width="16" height="16" version="1.1">
 <path style="fill:#4f4f4f" d="M 5.5140603,0.2330942 C 4.5043352,0.71762989 4.192665,1.1895381 3.8911684,1.9867379 3.7315676,1.9736387 3.5701091,1.9675781 3.4072162,1.9691428 2.8390685,1.9745922 2.2671176,2.063487 1.6852017,2.3523247 1.1032858,2.6411625 0.48409168,3.2150258 0.22751443,3.998443 -0.08865674,4.9638271 -0.05583611,4.9184781 0.20613502,5.8107369 0.52048601,6.8812808 1.5281326,7.6824049 2.4956758,7.8947773 c 0.077536,0.017018 0.086063,-0.011067 0.153543,0.00195 -0.00583,0.027497 -0.014024,0.063991 -0.019436,0.089931 -0.061721,0.295846 -0.1973655,0.896462 -0.285707,1.2688058 -0.2885525,1.2161959 -0.3901153,1.8686919 -0.386773,2.5649729 0.00415,0.870435 0.4610681,2.126378 1.0728578,2.731148 0.2342959,0.23161 0.7194297,0.575273 1.0203811,0.723354 0.4653748,0.228983 1.0156393,0.396777 1.5723587,0.498528 0.6656236,0.121656 1.4148178,0.172657 2.1593207,0.197455 0.7445029,0.02479 1.2511298,0.08285 2.0718596,-0.09579 0.4060453,-0.08839 0.8364003,-0.228745 1.2127963,-0.414462 0.960651,-0.473994 1.849946,-1.488675 2.15349,-2.533693 0.182316,-0.627623 0.228954,-0.852485 0.171035,-1.583558 -0.0058,-0.07328 -0.02266,-0.27974 -0.03693,-0.465292 -0.01888,-0.245304 -0.06676,-0.763721 -0.114671,-1.245341 -0.04951,-0.4977087 -0.05484,-0.8195841 -0.08552,-1.200376 0.254835,-0.017168 0.475681,0.082013 0.74828,0.00978 0.593036,-0.1571702 1.367633,-0.5038765 1.823085,-1.3665618 0.455449,-0.8626852 0.268315,-1.8521914 -0.01749,-2.4418071 -0.526102,-1.0853538 -1.675307,-1.6949744 -2.67437,-1.8728994 -0.04579,-0.00816 -0.07663,5.708e-4 -0.120501,-0.00587 C 12.705305,1.4154351 11.647163,0.06887339 9.8113223,0.06887339 9.1563957,0.08607901 8.8854517,0.39943412 8.4799679,0.84501224 8.304969,0.63577609 8.1280545,0.41260379 7.9415955,0.30347455 7.1025325,-0.17401831 6.3549451,-0.00122227 5.5140603,0.2330942 Z"/>
 <path style="fill:#f4f4f7" d="M 6.5585938 2.0019531 C 6.4764731 2.0087781 6.3916369 2.0316268 6.3105469 2.0703125 C 6.0327151 2.2028561 5.6855004 2.6168612 5.5722656 2.9511719 C 5.4534096 3.3020796 5.4435438 3.7187349 5.5449219 4.109375 C 5.5933299 4.2959036 5.7027254 4.5664062 5.7304688 4.5664062 C 5.7380087 4.5664062 5.7967838 4.5270676 5.8613281 4.4785156 C 5.9914598 4.3806259 6.1937891 4.2754885 6.3847656 4.2070312 C 6.5672086 4.1416326 6.5706682 4.1386325 6.5429688 4.0039062 C 6.5297314 3.9395155 6.5179606 3.7765628 6.5175781 3.640625 C 6.5167156 3.3318035 6.5870666 3.1070759 6.7832031 2.7929688 C 6.9740704 2.4872995 7.0234375 2.3814098 7.0234375 2.2851562 C 7.0234375 2.095865 6.8049568 1.9814749 6.5585938 2.0019531 z M 9.859375 2.0996094 C 9.81797 2.1015194 9.789756 2.1129216 9.78125 2.1347656 C 9.77287 2.1562786 9.7962494 2.3337604 9.8339844 2.5292969 C 9.972563 3.2473623 9.8870446 3.7093242 9.5136719 4.2578125 C 9.4370549 4.3703655 9.4056109 4.4370972 9.421875 4.453125 C 9.462124 4.49279 10.183866 4.8561523 10.228516 4.859375 C 10.251056 4.860985 10.306789 4.8205082 10.353516 4.7695312 C 10.554111 4.5507023 10.777013 4.1981071 10.886719 3.9238281 C 11.172658 3.2089522 11.01193 2.6316264 10.435547 2.2929688 C 10.227767 2.1708866 9.9835922 2.0938613 9.859375 2.0996094 z M 3.3515625 4 C 2.6625472 4.00657 2.1712019 4.2453071 2.0371094 4.6523438 C 1.9898814 4.795705 1.9873411 5.116194 2.0332031 5.2714844 C 2.1383331 5.6274192 2.4278462 5.8764672 2.8417969 5.9667969 C 3.0392474 6.0098829 3.5209928 6.011197 3.7910156 5.96875 C 4.0945411 5.92104 4.5763722 5.7757794 4.8730469 5.6425781 C 5.0097354 5.5812071 5.1345668 5.5209123 5.1523438 5.5097656 C 5.1803598 5.4921996 5.3337342 5.1612694 5.3339844 5.1171875 C 5.3340346 5.1083775 5.2786824 5.125581 5.2109375 5.15625 C 5.0562409 5.22629 4.3725505 5.4042284 4.0703125 5.453125 C 3.7508857 5.504802 3.3469792 5.5033809 3.1953125 5.4511719 C 3.0415105 5.3982215 2.9703442 5.3094588 2.9707031 5.1699219 C 2.9711156 5.0157408 3.0392355 4.8872711 3.1796875 4.7734375 C 3.3618823 4.6257734 3.4738408 4.5955167 3.9160156 4.5839844 C 4.3154254 4.5735684 4.6055398 4.6028506 5.0332031 4.6933594 C 5.2821728 4.7460494 5.411698 4.8109195 5.4335938 4.8945312 L 5.4492188 4.9492188 L 5.4882812 4.8984375 C 5.5260513 4.8498285 5.5251909 4.8375514 5.4667969 4.7070312 C 5.4324586 4.6302796 5.3807462 4.5440294 5.3515625 4.515625 C 5.2869528 4.4527391 4.8061894 4.2390215 4.5820312 4.1738281 C 4.3192087 4.0973898 3.9823394 4.0383827 3.6582031 4.0117188 C 3.552208 4.0029993 3.4499932 3.99906 3.3515625 4 z M 12 4.7285156 C 11.758962 4.7380156 11.513053 4.765924 11.314453 4.8125 C 10.998914 4.886502 10.697944 4.9961495 10.552734 5.0878906 L 10.466797 5.1425781 L 10.603516 5.2675781 C 10.678396 5.3367451 10.758111 5.3999194 10.78125 5.4082031 C 10.80484 5.4166531 10.917101 5.3776404 11.037109 5.3183594 C 11.36769 5.1550546 11.673491 5.0827748 12.109375 5.0664062 C 12.435555 5.0541552 12.494604 5.0586859 12.650391 5.1074219 C 12.917834 5.1911029 13.061906 5.3746973 13.023438 5.5859375 C 12.985038 5.7967967 12.829339 5.9218093 12.548828 5.9667969 C 12.379037 5.9940289 11.900449 5.9551091 11.464844 5.8769531 C 11.354622 5.8571761 11.256755 5.8448205 11.246094 5.8515625 C 11.235434 5.8583125 11.251893 5.9111075 11.283203 5.96875 C 11.545562 6.4511052 12.598456 6.7362499 13.369141 6.5332031 C 13.956221 6.3785296 14.13875 6.0359343 13.896484 5.5390625 C 13.696656 5.1292255 13.285342 4.8711469 12.65625 4.7597656 C 12.477216 4.7280671 12.241037 4.7190208 12 4.7285156 z M 3.8164062 4.8769531 C 3.3247188 4.8894057 3.1522791 4.9477616 3.2285156 5.0761719 C 3.3167936 5.2248633 3.6891457 5.238799 4.3574219 5.1191406 C 4.7702713 5.0452172 4.877071 5.0161728 4.8417969 4.984375 C 4.8287245 4.972592 4.6777513 4.9423327 4.5058594 4.9160156 C 4.2533261 4.8773517 4.1204668 4.8692535 3.8164062 4.8769531 z M 12.1875 5.3984375 C 11.818124 5.3863555 11.374064 5.4524685 11.429688 5.5097656 C 11.436388 5.5166656 11.565259 5.5386799 11.716797 5.5605469 C 11.868336 5.5824129 12.020201 5.6057271 12.054688 5.6113281 C 12.089168 5.6169381 12.257746 5.623065 12.427734 5.625 C 12.705607 5.62819 12.735863 5.6232804 12.728516 5.5839844 C 12.724016 5.5599434 12.664276 5.5109574 12.595703 5.4746094 C 12.488381 5.4177154 12.430401 5.4063796 12.1875 5.3984375 z M 10.974609 5.6542969 C 10.927329 5.6542969 10.909647 5.6706822 10.898438 5.7226562 C 10.861567 5.8935806 10.798759 6.01908 10.703125 6.1113281 C 10.466724 6.3393617 10.108711 6.3255973 9.6113281 6.0683594 L 9.3691406 5.9433594 L 9.2070312 6.1152344 C 8.8678722 6.4785673 8.4049641 6.6020794 8.0488281 6.421875 C 7.9289417 6.3612129 7.8320591 6.2094034 7.796875 6.0253906 C 7.7830713 5.9531951 7.7734375 5.8897069 7.7734375 5.8847656 C 7.7734375 5.8533406 7.7011868 5.8876387 7.6367188 5.9492188 C 7.4222003 6.1541518 7.0465547 6.3049542 6.7519531 6.3046875 C 6.46179 6.3044254 6.3144021 6.2124314 6.2109375 5.9628906 C 6.1857002 5.9020258 6.1580299 5.8516135 6.1484375 5.8515625 C 6.1388488 5.851513 6.0781929 5.8858529 6.015625 5.9277344 C 5.7069371 6.1343647 5.2827323 6.1584466 5.1210938 5.9785156 C 5.0262297 5.8729162 4.9812818 5.9205798 4.9804688 6.1308594 C 4.9796438 6.3447493 4.9379978 6.5786929 4.7832031 7.2109375 C 4.7016621 7.543985 4.577704 8.0888275 4.5078125 8.421875 C 4.4379206 8.7549228 4.3030659 9.3499215 4.2089844 9.7441406 C 3.9255161 10.931925 3.8722648 11.265547 3.875 11.832031 C 3.87815 12.488473 3.984495 12.779957 4.3554688 13.144531 C 4.5424703 13.328307 4.608214 13.37419 4.8574219 13.496094 C 5.1823641 13.655044 5.4487437 13.737363 5.9160156 13.822266 C 6.86074 13.993925 8.8265587 14.058715 9.3867188 13.9375 C 9.6965065 13.87046 9.9127171 13.799221 10.148438 13.683594 C 10.756729 13.385212 11.096114 12.993628 11.273438 12.386719 C 11.339366 12.161088 11.387762 11.732599 11.371094 11.523438 C 11.365694 11.455466 11.348704 11.245002 11.333984 11.054688 C 11.319254 10.864375 11.269579 10.324454 11.222656 9.8554688 C 11.089601 8.5256817 11.033141 7.7484282 10.986328 6.5800781 C 10.974348 6.2810152 10.958519 5.9936321 10.949219 5.9414062 C 10.935789 5.8659372 10.942385 5.8336755 10.984375 5.7773438 C 11.053255 5.6849387 11.050259 5.6542969 10.974609 5.6542969 z M 8.5683594 6.9277344 C 8.8371751 6.9262343 9.0344085 7.0730764 9.1542969 7.3671875 C 9.1946869 7.4662745 9.2060934 7.5507682 9.2070312 7.7539062 C 9.2081614 7.999002 9.2045011 8.024449 9.1269531 8.1796875 C 9.0320829 8.3695976 8.8485905 8.5459741 8.65625 8.6347656 C 8.5154339 8.6997706 8.4160966 8.7060431 8.3046875 8.6582031 C 8.1935707 8.6104897 8.0753327 8.4646736 8.0273438 8.3164062 C 7.9636676 8.1196691 7.9512365 7.7013548 8.0039062 7.5058594 C 8.0274634 7.418427 8.0590546 7.3024229 8.0722656 7.2480469 C 8.1198545 7.0521561 8.3095308 6.9291944 8.5683594 6.9277344 z M 8.4589844 7.2363281 C 8.3970909 7.2330284 8.3414916 7.2438781 8.3085938 7.2675781 C 8.2244968 7.3281811 8.1559479 7.7821171 8.2167969 7.8769531 C 8.2365859 7.9077931 8.2514969 7.9039084 8.3105469 7.8496094 C 8.4113416 7.7569222 8.4853567 7.7244163 8.6035156 7.7226562 C 8.7405957 7.7206363 8.8497671 7.7797894 8.9082031 7.8867188 C 8.9586421 7.9790188 8.9960937 7.9831774 8.9960938 7.8964844 C 8.9960938 7.6839707 8.8153414 7.3710322 8.6445312 7.2851562 C 8.5878989 7.2566833 8.5208784 7.2396281 8.4589844 7.2363281 z M 6.4453125 7.3828125 C 6.4968443 7.3724505 6.5498117 7.3725225 6.6054688 7.3828125 C 6.7446517 7.4085448 6.9912245 7.6609742 7.0644531 7.8535156 C 7.1870358 8.1758253 7.0903092 8.5718471 6.8222656 8.8554688 C 6.6445963 9.0434648 6.505016 9.0902086 6.3515625 9.0117188 C 6.2277723 8.9484013 6.1474578 8.8579134 6.0742188 8.6972656 C 5.9651184 8.4579568 5.9764614 8.1242632 6.1074219 7.7070312 C 6.1624558 7.5316975 6.2907172 7.4138993 6.4453125 7.3828125 z M 6.3867188 7.6914062 C 6.3026087 7.6914061 6.2680646 7.7731422 6.2460938 8.0292969 C 6.2245237 8.2807751 6.2335969 8.2931991 6.3789062 8.2207031 C 6.4442824 8.1880861 6.5331469 8.1621095 6.5761719 8.1621094 C 6.6191959 8.1621094 6.6982491 8.1839565 6.7519531 8.2109375 C 6.8056561 8.2379195 6.8552781 8.25596 6.8613281 8.25 C 6.8883616 8.2233602 6.8322856 8.059064 6.7597656 7.9511719 C 6.6702677 7.8180161 6.4888056 7.6914061 6.3867188 7.6914062 z M 6.40625 11.095703 C 6.433557 11.091203 6.4556192 11.095835 6.4882812 11.109375 C 6.5281417 11.125895 6.5878878 11.181019 6.6210938 11.230469 C 6.7532313 11.427244 6.7137359 11.715828 6.5292969 11.908203 C 6.4339789 12.007627 6.4192283 12.013736 6.2832031 12.023438 C 6.1401087 12.033637 6.1363328 12.033466 6.0429688 11.941406 C 5.9539688 11.853696 5.9490007 11.839523 5.9492188 11.710938 C 5.9493847 11.614625 5.9664695 11.538692 6.0078125 11.451172 C 6.0914295 11.274162 6.145598 11.213888 6.2890625 11.142578 C 6.3460249 11.114278 6.378939 11.100203 6.40625 11.095703 z M 8.3769531 11.275391 L 8.5585938 11.287109 C 8.9507188 11.310629 9.1014807 11.505342 8.9824219 11.837891 C 8.8689269 12.154902 8.5182829 12.435195 8.28125 12.398438 C 8.119252 12.373316 8.011565 12.101111 8.046875 11.810547 C 8.068599 11.631766 8.1015018 11.568167 8.2558594 11.404297 L 8.3769531 11.275391 z M 6.2734375 11.382812 C 6.2570205 11.388015 6.2226936 11.428669 6.1972656 11.474609 C 6.1582736 11.545053 6.1556335 11.569074 6.1796875 11.621094 C 6.1953692 11.655014 6.2428982 11.696744 6.2851562 11.714844 C 6.3807593 11.755834 6.4056802 11.755903 6.4414062 11.720703 C 6.4997177 11.663233 6.4740247 11.541118 6.3867188 11.455078 C 6.3413644 11.410378 6.2898545 11.377612 6.2734375 11.382812 z M 8.3125 11.638672 L 8.3027344 11.730469 C 8.2978344 11.781319 8.3074287 11.868578 8.3242188 11.923828 C 8.3747426 12.090117 8.5186182 12.100651 8.6796875 11.949219 C 8.8438416 11.794891 8.7348556 11.639459 8.4609375 11.638672 L 8.3125 11.638672 z"/>
</svg>
