<svg xmlns="http://www.w3.org/2000/svg" width="16" height="16" version="1.1">
 <circle style="fill:#b2bfd9" cx="8" cy="8" r="7.5"/>
 <path style="fill:#56676e" d="M 15.962904,7.2534271 C 15.98484,7.4951907 16,7.7390902 16,7.9867286 v 0 C 16,7.7390902 15.98484,7.4953687 15.9629,7.2534271 Z"/>
 <path style="fill:#4b6a77" d="M 7.999999,-7.2e-6 A 8.0296042,8.0155766 0 0 0 6.549218,0.13749278 C 15.816506,1.2731396 13.407984,12.098004 7.6960926,12.017179 c 0,0 8.3166694,1.083471 7.7960934,-6.8101557 C 14.360258,2.1686029 11.437691,-7.2e-6 7.999999,-7.2e-6 Z M 5.8617181,0.55233649 C 5.6061285,0.54752393 5.3403669,0.55095421 5.0640618,0.56249273 2.0991503,1.7316091 0,4.6110338 0,7.9859294 a 8.0449418,8.030887 0 0 0 0.08203123,1.0859375 c 1.86080517,-9.35257454 12.46216477,-6.32367 11.85937377,-0.6125 0,0 1.843586,-7.75784195 -6.0796869,-7.90703041 z M 6.7835928,3.9124923 C 4.3395335,3.8354887 0.44268054,4.6830742 0.53046869,10.896085 a 8.0228274,8.0088114 0 0 0 1.93437461,2.8875 c 0.035668,0.03365 0.072569,0.06532 0.108594,0.09844 A 8.0283558,8.0143306 0 0 0 3.332812,14.49921 c 0.041197,0.02938 0.079719,0.06196 0.121094,0.09063 a 7.967185,7.9532666 0 0 0 0.8757811,0.51875 c 0.087922,0.04522 0.1780175,0.08671 0.2671875,0.128906 a 7.9167146,7.9028842 0 0 0 0.7999999,0.324219 c 0.066877,0.02279 0.1306676,0.05147 0.1984372,0.07266 a 7.930447,7.9165926 0 0 0 0.9960939,0.235156 c 0.1018324,0.0178 0.2047316,0.03263 0.3078123,0.04687 a 8.0253242,8.0113038 0 0 0 1.0539059,0.08125 c 0.013556,0 0.026288,0.0024 0.039844,0.0024 0.266084,0 0.5291523,-0.01438 0.7882811,-0.03984 C -0.53419069,13.742456 3.0067744,3.3445964 8.7054677,4.1742111 c 0,0 -0.8109387,-0.2267172 -1.9218749,-0.2617188 z M 4.0945307,7.2109295 c 0,0 -2.2250185,8.1834745 6.6921863,8.2546865 2.797807,-1.039689 4.859422,-3.588582 5.171875,-6.6617179 0.02158,-0.2125668 0.028,-0.4296795 0.03281,-0.6468751 8.8e-4,-0.057147 0.0086,-0.1128088 0.0086,-0.1703124 0,-0.2474604 -0.01478,-0.4918299 -0.03672,-0.7335939 C 13.607401,16.511158 3.184994,12.884891 4.0945307,7.2109295 Z"/>
 <path style="fill:#4b4c4d" d="m 10,8.0000001 a 2,2 0 1 1 -1.9993633,-2 1.9998408,1.9998408 0 0 1 1.9993633,2 z"/>
</svg>
