<svg xmlns="http://www.w3.org/2000/svg" width="16" height="16" version="1">
 <rect fill="#b2bfd9" width="6" height="16" x="5" y="0" rx=".75" ry=".8"/>
 <rect fill="#b2bfd9" width="6" height="16" x="5" y="-16" rx=".75" ry=".8" transform="rotate(90)"/>
 <rect fill="#3e3e3e" width="2" height="6" x="7" y="2" rx="1" ry=".75"/>
 <rect fill="#3e3e3e" width="2" height="6" x="7" y="-14" rx="1" ry=".75" transform="rotate(90)"/>
 <circle fill="#df574d" cx="8" cy="8" r="2"/>
</svg>
