<svg xmlns="http://www.w3.org/2000/svg" width="16" height="16" version="1.1">
 <circle style="fill:#4f4f4f" cx="8" cy="8" r="8"/>
 <path style="fill:#f4f4f7" d="M 8 1 A 1 1 0 0 0 7 2 A 1 1 0 0 0 8 3 A 1 1 0 0 0 9 2 A 1 1 0 0 0 8 1 z M 4.9472656 1.8046875 A 1 1 0 0 0 4.5 1.9375 A 1 1 0 0 0 4.1347656 3.3046875 A 1 1 0 0 0 5.5 3.6699219 A 1 1 0 0 0 5.8652344 2.3046875 A 1 1 0 0 0 4.9472656 1.8046875 z M 11.023438 1.8046875 A 1 1 0 0 0 10.134766 2.3046875 A 1 1 0 0 0 10.5 3.6699219 A 1 1 0 0 0 11.865234 3.3046875 A 1 1 0 0 0 11.5 1.9375 A 1 1 0 0 0 11.023438 1.8046875 z M 2.828125 4 A 1 1 0 0 0 1.9375 4.5 A 1 1 0 0 0 2.3046875 5.8652344 A 1 1 0 0 0 3.6699219 5.5 A 1 1 0 0 0 3.3046875 4.1347656 A 1 1 0 0 0 2.828125 4 z M 13.142578 4.0019531 A 1 1 0 0 0 12.695312 4.1347656 A 1 1 0 0 0 12.330078 5.5 A 1 1 0 0 0 13.695312 5.8652344 A 1 1 0 0 0 14.0625 4.5 A 1 1 0 0 0 13.142578 4.0019531 z M 2 7 A 1 1 0 0 0 1 8 A 1 1 0 0 0 2 9 A 1 1 0 0 0 3 8 A 1 1 0 0 0 2 7 z M 14 7 A 1 1 0 0 0 13 8 A 1 1 0 0 0 14 9 A 1 1 0 0 0 15 8 A 1 1 0 0 0 14 7 z M 13.220703 10 A 1 1 0 0 0 12.330078 10.5 A 1 1 0 0 0 12.695312 11.865234 A 1 1 0 0 0 14.0625 11.5 A 1 1 0 0 0 13.695312 10.134766 A 1 1 0 0 0 13.220703 10 z M 2.7519531 10.001953 A 1 1 0 0 0 2.3046875 10.134766 A 1 1 0 0 0 1.9375 11.5 A 1 1 0 0 0 3.3046875 11.865234 A 1 1 0 0 0 3.6699219 10.5 A 1 1 0 0 0 2.7519531 10.001953 z M 5.0234375 12.197266 A 1 1 0 0 0 4.1347656 12.695312 A 1 1 0 0 0 4.5 14.0625 A 1 1 0 0 0 5.8652344 13.695312 A 1 1 0 0 0 5.5 12.330078 A 1 1 0 0 0 5.0234375 12.197266 z M 10.947266 12.197266 A 1 1 0 0 0 10.5 12.330078 A 1 1 0 0 0 10.134766 13.695312 A 1 1 0 0 0 11.5 14.0625 A 1 1 0 0 0 11.865234 12.695312 A 1 1 0 0 0 10.947266 12.197266 z M 8 13 A 1 1 0 0 0 7 14 A 1 1 0 0 0 8 15 A 1 1 0 0 0 9 14 A 1 1 0 0 0 8 13 z"/>
 <circle style="opacity:0.3" cx="8" cy="8" r="3"/>
 <path style="fill:#ffae4a" d="M 6.0000003,2.9999999 A 3.0000001,3.0000001 0 0 1 3.0000001,6 3.0000001,3.0000001 0 0 1 2.8e-7,2.9999999 3.0000001,3.0000001 0 0 1 3.0000001,-7.9999998e-8 3.0000001,3.0000001 0 0 1 6.0000003,2.9999999 Z"/>
 <path style="fill:#8e8e8e" d="m 11.306825,9.0002724 c -0.192456,-0.00636 -0.218044,0.098175 -0.274851,0.37505 -0.285882,1.8228496 1.380976,2.8342236 3.571067,3.6221926 0.640088,0.05671 0.772492,-0.870973 0.978123,-1.374727 0.266456,-0.652756 0.693358,-1.238231 0.173066,-1.507235 L 11.561759,9.0417256 c -0.108853,-0.024428 -0.190781,-0.039336 -0.254934,-0.041453 z"/>
</svg>
