<svg xmlns="http://www.w3.org/2000/svg" width="16" height="16" version="1.1">
 <path style="fill:#e73232" d="m 8.150568,2.0000001 c -0.4840556,0 -0.6279029,0.6226082 -1.2166193,0.6226082 -0.5625509,0 -0.981668,-0.4669562 -1.5049712,-0.4669561 -0.5102211,0 -0.8366571,0.3368737 -1.0852276,1.0374457 0,0 -0.7067171,1.971889 -0.7982953,2.2573072 C 3.532371,5.5022986 3.2184542,6.1640935 3.2315342,6.2159877 1.8316972,6.2808557 8e-8,6.5401847 8e-8,8.1359313 8e-8,10.756588 6.2665444,14 11.237926,14 15.044957,14 16,12.288031 16,10.951755 16,9.8749505 15.070878,8.6814429 13.396307,7.9549244 L 13.213068,7.1759596 12.585227,4.4777557 C 12.441319,3.8809724 12.323894,3.6085066 11.264204,3.0895644 10.453085,2.6744118 8.673872,2.0000001 8.150568,2.0000001 Z"/>
 <path style="fill:#17191e" d="M 13.467936,8.2669125 C 13.614,8.9735157 13.614,9.0401761 13.614,9.1335011 13.614,10.333393 12.256105,11 10.490063,11 6.5065056,11 2.964,8.6535443 2.964,7.1070171 2.964,6.8937029 3.003836,6.6803891 3.0967856,6.4804068 L 3.4154698,5.7071433 c -0.01328,0.053328 -0.026556,0.1066571 -0.01328,0.1599854 0,0.7865961 3.1308713,3.3730295 7.2870492,3.3730295 1.062281,0 2.632631,-0.2266463 2.632631,-1.4931987 0,-0.093325 0,-0.1999819 -0.02655,-0.2933068 z"/>
</svg>
