<svg xmlns="http://www.w3.org/2000/svg" width="16" height="16" version="1">
 <path style="fill:#36c53c" d="M 6.7623707,5.3790667e-4 A 0.69572049,0.69572049 0 0 0 6.3085673,0.19347234 L 0.21414873,6.0399292 A 0.69572049,0.69572049 0 0 0 0.0218936,6.7152 l 1.7065187,6.629744 a 0.69572049,0.69572049 0 0 0 0.4802981,0.495243 l 7.3614001,2.132469 a 0.69572049,0.69572049 0 0 0 0.6433405,-0.137907 l 5.540752,-4.699041 a 0.69572049,0.69572049 0 0 0 0.243885,-0.5822 L 15.485181,3.6574606 A 0.69572049,0.69572049 0 0 0 15.036813,3.058277 L 7.0354678,0.04469543 A 0.69572049,0.69572049 0 0 0 6.7623707,5.3790667e-4 Z"/>
 <path style="opacity:0.3;fill:#f4f4f7" d="M 6.5386903,0.04761909 C 6.4531969,0.08061403 6.3750642,0.13017396 6.3087798,0.19345242 L 0.21428575,6.0401787 C 0.11997066,6.1309484 0.05317636,6.2464845 0.02157741,6.373512 L 4,9 Z"/>
 <path style="opacity:0.1;fill:#f4f4f7" d="M 6.7581844,0.00148812 C 6.6830063,0.00489271 6.6088785,0.02047211 6.5386903,0.04761909 L 4,9 13,6 Z"/>
 <path style="opacity:0.05" d="M 6.7626488,7.4407809e-4 C 6.7611597,9.8685692e-4 6.7596715,0.00123448 6.758184,0.00148694 L 13,6 15.392113,3.3593749 C 15.311741,3.2210192 15.186134,3.1145957 15.036458,3.0580358 L 7.0357143,0.0446429 C 6.9485475,0.01188302 6.8556912,-0.00304483 6.7626488,7.4407809e-4 Z"/>
 <path style="opacity:0.1" d="m 0.02157741,6.373512 c -0.02837487,0.1120711 -0.02837487,0.2294466 0,0.3415177 L 1.7284227,13.345238 c 0.027216,0.104582 0.07842,0.201386 0.1495535,0.282738 L 4,9 Z"/>
 <path style="opacity:0.16000001" d="m 4,9 -2.1220238,4.627976 c 0.087682,0.10105 0.2026407,0.174675 0.3311012,0.212054 l 7.3608632,2.13244 c 0.076355,0.02179 0.1558764,0.03035 0.2351188,0.0253 z"/>
 <path style="opacity:0.23000004" d="m 13,6 -9,3 5.8050594,6.997768 c 0.04624,-0.0026 0.092102,-0.0098 0.1369048,-0.02158 z"/>
 <path style="opacity:0.3" d="m 13,6 -3.0580358,9.97619 c 0.099901,-0.02637 0.1926728,-0.07466 0.2715778,-0.141369 l 5.540922,-4.699404 c 0.07912,-0.06729 0.142171,-0.151442 0.184524,-0.24628 z"/>
 <path style="opacity:0.22000002" d="M 15.392113,3.3593749 13,6 l 2.938988,4.889137 c 0.0471,-0.105256 0.0673,-0.220568 0.05878,-0.335566 L 15.485119,3.6577379 c -0.008,-0.105221 -0.03978,-0.2072492 -0.09301,-0.298363 z"/>
</svg>
