<svg xmlns="http://www.w3.org/2000/svg" width="16" height="16" version="1">
 <path style="fill:#b2bfd9" d="M 8.3205515,1.0001814 C 7.5438629,1.0008209 6.7639783,1.0481362 6.0383935,1.15042 4.9621246,1.3021401 3.963756,1.564057 3.0692437,1.964713 2.7912941,2.0892081 2.5327395,2.2260684 2.2950968,2.3650988 2.1762756,2.4346141 2.0680147,2.5005374 1.9413477,2.5897055 1.4495613,2.9748049 1.297901,3.1883224 1.1481584,3.5872895 1.0177175,3.928815 1.0164686,4.2870252 1.0009459,4.6291942 c -0.003071,0.099108 0.00134,0.1983103 0.013183,0.2967211 0.3553203,2.1288593 0.9812324,4.5005307 1.9415925,6.3265467 0.3532267,0.612704 0.7652206,1.220497 1.1930798,1.75704 0.4300403,0.539273 0.823481,0.962367 1.3981518,1.431774 0.6011157,0.49101 1.1746187,0.857191 1.9181551,1.230454 0.080307,0.04031 0.1534498,0.07616 0.2167905,0.106669 0.031672,0.01525 0.059484,0.02876 0.095213,0.04507 0.017864,0.0082 0.035332,0.01667 0.074704,0.03305 0.019687,0.0082 0.04243,0.01731 0.09741,0.03681 0.027492,0.0098 0.061556,0.02244 0.130367,0.04131 0.034406,0.0094 0.076613,0.0209 0.1450152,0.0338 C 8.2930104,15.981351 8.5643442,16 8.5644409,16 c 4.875e-4,0 0.3474868,-0.03144 0.4240594,-0.04958 0.076573,-0.01814 0.1204139,-0.03255 0.1560013,-0.04432 0.071174,-0.02354 0.1047688,-0.03781 0.1332965,-0.04958 0.057055,-0.02354 0.085268,-0.03661 0.1127901,-0.04958 0.055043,-0.02595 0.097863,-0.04814 0.14648,-0.07286 0.097232,-0.04946 0.2082656,-0.107271 0.3251852,-0.169769 0.2338396,-0.124999 0.4298406,-0.227768 0.6540336,-0.366583 0.717863,-0.478496 1.335159,-0.962846 1.915957,-1.571494 l 0.003,-0.003 c 2.192378,-2.335907 3.158906,-5.3770817 3.550629,-8.6973113 0.01184,-0.09841 0.01625,-0.1976134 0.01318,-0.2967211 3.88e-4,-0.4123502 -0.06863,-0.824959 -0.147239,-1.0418683 C 15.723263,3.0736999 15.403772,2.8599496 15.058631,2.5897055 14.931964,2.5005369 14.823704,2.4346144 14.704882,2.3650988 14.467239,2.2260679 14.208688,2.0892088 13.930735,1.964713 13.036224,1.564056 12.037855,1.3021401 10.961586,1.15042 10.174176,1.0394207 9.3228625,0.99264004 8.4816798,1.0009326 8.4281433,1.0004787 8.3747044,1.000148 8.3205515,1.0001826 Z"/>
 <path style="fill:#0087db" d="M 8.3257718,3 C 7.6406033,3.0005689 6.9479111,3.044223 6.3424718,3.1303041 5.4261251,3.2605915 4.6016273,3.4863316 3.92382,3.7925363 3.5406219,3.9656494 3.0520622,4.2539393 3.027587,4.3213757 3.019397,4.3439407 3.006982,4.5354637 3,4.7469972 c 0.051803,0.4428717 0.113811,0.8745397 0.1871548,1.2950253 0.034527,0.2603783 0.1353024,0.7850522 0.2340787,1.1925999 0.1391327,0.5740668 0.2293628,0.7733902 0.4577176,1.0112129 0.138484,0.1442259 0.2439014,0.2209509 0.4522278,0.3291192 0.3012176,0.1563984 0.6547231,0.2591441 1.2951538,0.3764332 0.395663,0.072464 0.7710741,0.1667715 1.0838487,0.2723108 1.9853816,0.6699344 3.7330666,2.1771275 3.8197156,3.2940755 0.0059,0.07587 0.01419,0.149592 0.01845,0.16385 0.01137,0.03806 0.136168,-0.07778 0.478786,-0.444434 1.783647,-1.916725 2.616218,-4.4412312 2.972866,-7.4901928 -0.0069,-0.2115335 -0.01939,-0.4030549 -0.02759,-0.4256215 C 13.947934,4.2539393 13.459375,3.9656494 13.076174,3.7925363 12.398369,3.4863316 11.573872,3.2605915 10.657524,3.1303041 10.000573,3.0368986 9.2409528,2.9935073 8.4996183,3.0008785 8.441747,3.0002716 8.3838074,2.9999681 8.3257707,3.0000061 Z M 4.9905212,9.6620416 c -0.1213952,-9.862e-4 -0.2154283,0.00605 -0.2677498,0.02219 -0.04525,0.013948 -0.1103846,0.055035 -0.1453972,0.091715 -0.096714,0.1013195 -0.081602,0.1908894 0.079838,0.4733334 0.2950899,0.516264 0.6578881,1.055711 1.0070654,1.497353 0.215102,0.272059 0.8568792,0.93642 1.0905566,1.128936 0.5180411,0.426792 0.8765955,0.658311 1.5390501,0.99373 C 8.4358536,13.941189 8.5569559,14 8.5629864,14 c 0.029736,0 0.7736297,-0.401073 0.9613869,-0.518328 0.3288034,-0.205338 0.5811297,-0.386568 0.6460367,-0.464012 0.03229,-0.03853 0.07987,-0.118314 0.105721,-0.177309 0.09185,-0.209618 0.05313,-0.489672 -0.106939,-0.773241 C 9.6161392,11.087361 7.8509287,10.108432 6.0362091,9.7750666 5.6570832,9.7054214 5.2575905,9.6642264 4.9905212,9.6620454 Z"/>
 <circle style="fill:#e6e6e6" cx="2.5" cy="3.5" r="2.5"/>
 <circle style="fill:#4f4f4f" cx="2.5" cy="3.5" r="1.5"/>
</svg>
