<svg xmlns="http://www.w3.org/2000/svg" width="16" height="16" version="1">
 <rect style="fill:#b2bfd9" width="16" height="16" x="0" y="0" rx="1.2" ry="1.2"/>
 <path style="fill:none;stroke:#1f75e6;stroke-width:2;stroke-linejoin:round" d="m 2,8 h 9.858268 c 0,0 1.141464,-0.1 1.141464,1.5 0,1.6 -1.112769,1.5 -1.112769,1.5 H 2 M 2,5 h 9.858268 c 0,0 1.141464,-0.1 1.141464,1.5 0,1.6 -1.112769,1.5 -1.112769,1.5 H 2"/>
</svg>
