<svg xmlns="http://www.w3.org/2000/svg" width="16" height="16" version="1">
 <rect style="fill:#4f4f4f" width="16" height="16" x="0" y="0" rx=".8" ry=".8"/>
 <path style="fill:#f4f4f7" d="M 3,2 C 2.4477153,2 2,2.4477153 2,3 2,3.5522848 2.4477153,4 3,4 3.5522847,4 4,3.5522848 4,3 4,2.4477153 3.5522848,2 3,2 Z"/>
 <rect style="fill:#f4f4f7" width="8" height="2" x="6" y="2" rx="1" ry="1"/>
 <path style="fill:#f4f4f7" d="M 3,7 C 2.4477153,7 2,7.4477153 2,8 2,8.5522848 2.4477153,9 3,9 3.5522847,9 4,8.5522848 4,8 4,7.4477153 3.5522848,7 3,7 Z"/>
 <rect style="fill:#f4f4f7" width="8" height="2" x="6" y="7" rx="1" ry="1"/>
 <path style="fill:#ff9448" d="m 3,12 c -0.5522847,0 -1,0.447715 -1,1 0,0.552285 0.4477153,1 1,1 0.5522847,0 1,-0.447715 1,-1 0,-0.552285 -0.4477152,-1 -1,-1 z"/>
 <rect style="fill:#ff9448" width="8" height="2" x="6" y="12" rx="1" ry="1"/>
</svg>
