<svg xmlns="http://www.w3.org/2000/svg" width="16" height="16" version="1.1">
 <rect style="fill:#b49478;stroke:#4285f4;stroke-width:0;stroke-linecap:round;stroke-linejoin:round" width="16" height="14" x="0" y="1" rx=".974" ry=".925"/>
 <rect style="fill:#17191e" width="12" height="10" x="2" y="4"/>
 <path style="opacity:0.2" d="M 2 6 L 2 8 L 14 8 L 14 6 L 2 6 z M 2 10 L 2 12 L 14 12 L 14 10 L 2 10 z"/>
 <path style="fill:#2e7034" d="M 2.0000001,4 V 14 H 3 V 4 Z"/>
 <path style="fill:#2e7034" d="M 6,4 V 14 H 7 V 4 Z"/>
 <path style="fill:#2e7034" d="M 9.9999999,4 V 14 H 11 V 4 Z"/>
 <rect style="fill:#574c45" width="5" height="1" x="2" y="2"/>
 <rect style="fill:#574c45" width="3" height="1" x="2" y="3"/>
 <rect style="fill:#574c45" width="4" height="1" x="10" y="2"/>
</svg>
