<svg xmlns="http://www.w3.org/2000/svg" width="16" height="16" version="1">
 <path style="fill:#ff7f00" d="M 10.496115,5.7731579e-5 C 10.34722,-0.00216239 10.2042,0.05975465 10.101641,0.17083644 L 8.2292817,2 H 7.3361603 C 6.6726395,2 5.7568241,1.9619514 4.9005642,2.2291387 L 1.884811,0.47309331 C 1.5326711,0.2058552 1.0000701,0.46448232 1,0.91468837 V 5.1555735 C 0.07943598,6.5427889 -0.06051318,8.3432949 0.00437114,9.855917 c -1.219e-5,0.00213 -1.219e-5,0.00429 0,0.00643 0.08234345,1.515204 1.11662036,2.811401 2.60158016,3.707827 C 4.0909112,14.466602 6.0619588,15 8.2237252,15 c 0.241229,0 0.4792289,-0.0052 0.7136701,-0.0155 1.8480057,-0.08132 2.8787907,-0.930883 4.1232567,-1.627012 1.402343,-0.784441 1.801309,-1.596516 1.801309,-3.1002 0,-1.2266874 0.42699,-2.1401748 -0.591958,-2.771552 C 14.02807,5.9502218 13.126088,4.6682981 11.853159,3.7571898 L 11.003791,0.41021244 C 10.943286,0.17170913 10.735659,0.00396598 10.496115,5.7731579e-5 Z"/>
 <path style="fill:#5f4a44" d="M 10.097294,8.983958 C 9.9196509,8.9823396 9.7242674,8.9921212 9.5097223,9.0149488 8.8195935,9.0883809 8.6089488,9.0317646 8.5710915,9.4243264 9.2040867,9.7988299 9.8877722,10.235387 10.26333,10.159274 10.604248,10.090182 10.714712,9.5381291 10.856907,9.0820955 10.65018,9.0225084 10.399644,8.98669 10.097294,8.983958 Z"/>
 <path style="fill:#ffce9d" d="m 12.945541,7.2640832 c -0.297766,-0.00755 -0.572338,0.021683 -0.814768,0.093287 -0.694367,-0.00217 -0.156407,0.575636 -0.89885,0.6460733 C 10.68937,8.0549176 10.780132,9.8729725 10.200628,10 9.5378249,10.145287 7.4565408,8.165168 6.8567299,8.2894737 c -2.4665292,0.5111689 -3.8096927,1.1925 -3.8096923,2.6768093 0,1.725301 2.6175329,3.761135 5.7904348,4.019069 7.619e-4,6e-5 0.00149,-6.1e-5 0.00225,0 0.00443,-1.68e-4 0.00897,-5.92e-4 0.013395,-7.9e-4 0.114943,-0.0042 0.2378673,-0.01252 0.3564146,-0.01851 1.73445,-0.107458 3.264997,-0.498145 4.447369,-1.159539 1.402342,-0.784442 2.34311,-2.017337 2.34311,-3.521022 0,-1.222942 -0.707099,-2.1618883 -1.721059,-2.7932257 -0.47247,-0.1340247 -0.925627,-0.2178589 -1.333394,-0.2282022 z"/>
 <path style="fill:#f4f4f7" d="m 12,11.789681 c -0.01152,1.207586 -2.2499477,2.30098 -3.1910661,2.204362 C 6.9922936,13.807541 5.4074252,12.350152 6.2172947,9.9999997 Z"/>
 <ellipse style="fill:#f4f4f7" cx="1.354" cy="8.339" rx="1.873" ry="2.119" transform="matrix(0.94039582,-0.34008191,0.446825,0.89462138,0,0)"/>
 <circle style="fill:#17191e" cx="5.5" cy="7.5" r=".5"/>
 <ellipse style="fill:#f4f4f7" cx="7.209" cy="9.447" rx="1.873" ry="2.119" transform="matrix(0.94039582,-0.34008191,0.446825,0.89462138,0,0)"/>
 <circle style="fill:#17191e" cx="11.5" cy="6.5" r=".5"/>
</svg>
