<svg xmlns="http://www.w3.org/2000/svg" width="16" height="16" version="1">
 <path style="fill:#27adeb" d="M 11.455078 1.9882812 A 3.0910001 3.0910001 0 0 0 8.7363281 3.6113281 A 1.636 1.636 0 0 0 7.4550781 2.9921875 A 1.636 1.636 0 0 0 5.8183594 4.6289062 A 1.636 1.636 0 0 0 7.4550781 6.2636719 A 1.636 1.636 0 0 0 8.4765625 5.90625 A 3.0910001 3.0910001 0 0 0 10.578125 8.0410156 A 2.727 2.727 0 0 0 13.273438 10.363281 A 2.727 2.727 0 0 0 16 7.6367188 A 2.727 2.727 0 0 0 14.539062 5.2226562 A 3.0910001 3.0910001 0 0 0 14.546875 5.078125 A 3.0910001 3.0910001 0 0 0 11.455078 1.9882812 z"/>
 <path style="fill:#1f83b3" d="M 5.6542969 4.0195312 A 3.6359999 3.6359999 0 0 0 2.0175781 7.6542969 A 3.6359999 3.6359999 0 0 0 2.0195312 7.7070312 A 3.273 3.273 0 0 0 0 10.726562 A 3.273 3.273 0 0 0 3.2695312 14 L 3.2695312 14.001953 L 11.269531 14.001953 L 11.269531 14 A 2.9089999 2.9089999 0 0 0 11.273438 14 A 2.9089999 2.9089999 0 0 0 14.181641 11.091797 A 2.9089999 2.9089999 0 0 0 11.59375 8.2011719 A 1.818 1.818 0 0 0 11.636719 7.8183594 A 1.818 1.818 0 0 0 9.8183594 6 A 1.818 1.818 0 0 0 8.9824219 6.203125 A 3.6359999 3.6359999 0 0 0 5.6542969 4.0195312 z"/>
 <rect style="fill:#58e1f1" width="5" height="2" x="11" y="8" rx=".357" ry=".5"/>
 <circle style="fill:#17191e" cx="15.05" cy="8.95" r=".35"/>
 <path style="fill:#f4f4f7" d="m 3,8 v 3 H 3.8 V 9.875 H 5 V 9.125 H 3.8 V 8.75 H 5 V 8 Z M 5.5,8 V 8.75 H 6.1660156 V 11 H 6.8339844 V 8.75 H 7.5 V 8 Z M 8,8 v 3 h 0.75 v -0.75 c 0,1.12e-4 1.499992,0 1.5,-1.125 C 10.249992,7.9999999 8.75,8 8.75,8 Z M 8.75,8.75 H 9.0234375 C 9.3408975,8.75 9.5,8.8719045 9.5,9.1171875 9.5,9.2516213 9.4501384,9.3507903 9.3496094,9.4121094 9.2517294,9.4710734 9.1185307,9.5 8.9492188,9.5 H 8.75 Z M 1.7832031,9 C 1.5464881,9 1.3554028,9.0452499 1.2128906,9.1347656 1.0703785,9.2242827 1,9.3580746 1,9.5371094 c 0,0.1083627 0.017994,0.1984576 0.056641,0.2714844 0.038647,0.070671 0.099978,0.1337215 0.1796875,0.1855468 0.079711,0.049473 0.1795457,0.1005174 0.3027344,0.1523434 0.1280189,0.05183 0.2228175,0.09202 0.2832031,0.125 0.060387,0.03298 0.098327,0.06392 0.1152344,0.08984 0.019324,0.02591 0.03125,0.05491 0.03125,0.08789 0,0.04947 -0.022465,0.08852 -0.068359,0.11914 -0.043478,0.03061 -0.1202822,0.04687 -0.2265625,0.04687 -0.094203,0 -0.2010303,-0.01625 -0.3242187,-0.04687 -0.1231901,-0.03062 -0.2394228,-0.06811 -0.3457032,-0.115234 v 0.433594 c 0.099034,0.04005 0.1997943,0.06945 0.2988282,0.08594 C 1.4017684,10.991496 1.5185691,11 1.65625,11 1.9364436,11 2.1470127,10.949351 2.2871094,10.845703 2.429621,10.739696 2.5,10.588102 2.5,10.392578 2.5,10.277148 2.4775356,10.183952 2.4316406,10.113281 2.388161,10.040259 2.3243128,9.9787552 2.2421875,9.9316406 2.1600617,9.8821712 2.0627455,9.8357742 1.9492188,9.7910156 1.833277,9.7439015 1.7459332,9.706003 1.6855469,9.6777344 c -0.05797,-0.028267 -0.0974,-0.054574 -0.1191407,-0.078125 -0.019323,-0.025913 -0.03125,-0.053362 -0.03125,-0.083984 0,-0.084806 0.080814,-0.1269531 0.2402344,-0.1269531 0.089372,0 0.1767153,0.014697 0.2636719,0.042969 0.086956,0.025913 0.1787723,0.05761 0.2753906,0.097656 L 2.4785156,9.1503906 C 2.3601584,9.0962099 2.2458769,9.0587136 2.1347656,9.0351562 2.0236546,9.0115989 1.9063913,9 1.7832031,9 Z"/>
 <rect style="fill:#58e1f1" width="5" height="2" x="11" y="10" rx=".357" ry=".5"/>
 <circle style="fill:#17191e" cx="15.05" cy="10.95" r=".35"/>
 <rect style="fill:#58e1f1" width="5" height="2" x="11" y="12" rx=".357" ry=".5"/>
 <circle style="fill:#17191e" cx="15.05" cy="12.95" r=".35"/>
</svg>
