<svg xmlns="http://www.w3.org/2000/svg" width="16" height="16" version="1.1">
 <path style="fill:#60a0ff" d="M 9.1553676,1.0001983 C 9.0258051,0.99944828 8.9753038,1.1021008 8.7124589,1.9020732 L 8.4513295,2.6968894 8.0521375,2.7329644 C 7.8325859,2.7528019 7.5794579,2.7842794 7.4896229,2.8029469 7.3708563,2.8276219 7.3154516,2.8278844 7.2865691,2.8036969 7.2647291,2.7855469 7.0797768,2.4857532 6.8755395,2.137472 6.4673793,1.4414458 6.3836764,1.3301008 6.2688997,1.3301008 c -0.1206206,0 -0.928516,0.3218849 -0.9873749,0.3933899 -0.028882,0.0351 -0.052116,0.1061775 -0.051628,0.1580363 3.746e-4,0.051859 0.073011,0.432225 0.1611532,0.8452049 0.088146,0.4129838 0.1550325,0.7643965 0.1486155,0.7809152 -0.0064,0.0165 -0.1025681,0.086595 -0.2136626,0.1557488 -0.1110945,0.069154 -0.3122036,0.2144512 -0.446895,0.3228787 -0.1346872,0.1084275 -0.2577015,0.1971637 -0.2733753,0.1971637 -0.01566,0 -0.3307695,-0.1707675 -0.7002247,-0.3794887 -0.7596612,-0.4291612 -0.7960546,-0.4455 -0.903223,-0.4047112 -0.1157845,0.044066 -0.6836447,0.7652812 -0.6836447,0.8682599 0,0.1116075 0.027159,0.1470038 0.6065237,0.7916512 0.2769979,0.3081975 0.5036221,0.58215 0.5036221,0.6087975 0,0.026625 -0.058735,0.1664625 -0.1305067,0.3106762 C 3.2265073,6.122837 3.1312182,6.3378095 3.0864935,6.4563695 3.0417685,6.5749257 2.9884765,6.6858469 2.9680605,6.7028082 2.9452465,6.7217832 2.6109559,6.7370462 2.1004673,6.7425242 1.0762871,6.7535122 1.1663359,6.7036332 1.0697876,7.313248 c -0.037386,0.2361262 -0.06876,0.4650037 -0.069677,0.5086012 -0.003371,0.1624237 0.065695,0.1987762 0.8991803,0.4732312 l 0.7935177,0.2612812 0.035176,0.3898688 c 0.019367,0.2144175 0.049759,0.4687612 0.067568,0.5652112 0.017831,0.096454 0.024987,0.1873725 0.015958,0.202035 -0.00907,0.014663 -0.3160136,0.2041312 -0.6821762,0.4210764 -0.3661663,0.216949 -0.6961491,0.427166 -0.7332805,0.46713 -0.037124,0.03997 -0.067508,0.108326 -0.067508,0.151935 0,0.127579 0.327207,0.933199 0.3996603,0.984004 0.094724,0.06641 0.1766886,0.05668 0.9952266,-0.118148 0.4123858,-0.08808 0.7634293,-0.15435 0.7801029,-0.147244 0.016669,0.0071 0.086898,0.10344 0.1561151,0.214062 0.069213,0.110617 0.2156591,0.313087 0.3254126,0.44988 0.1365604,0.170208 0.1935161,0.264483 0.1803746,0.298766 -0.010564,0.02756 -0.1804233,0.336574 -0.3774532,0.686704 -0.4038371,0.717645 -0.4267672,0.767583 -0.4004208,0.872658 0.026936,0.10746 0.7699548,0.701464 0.8770859,0.701194 0.1104949,-2.77e-4 0.1630376,-0.04055 0.7822683,-0.600469 0.3014449,-0.272568 0.5708306,-0.499515 0.5986118,-0.504318 0.027795,-0.0048 0.1715602,0.05119 0.3195536,0.124481 0.1479933,0.07329 0.3737373,0.170246 0.5016292,0.215407 0.1278919,0.04516 0.2351876,0.08371 0.2384467,0.08571 0.00338,0.0019 0.013373,0.391878 0.022515,0.866381 0.020377,1.059656 -0.028545,0.967301 0.5633948,1.06314 0.4448081,0.07202 0.6204179,0.07221 0.6917887,7.5e-4 0.024874,-0.0249 0.1621312,-0.40104 0.3049623,-0.835823 L 8.5474816,14.32028 8.8459969,14.29729 c 0.164199,-0.01264 0.4200877,-0.04297 0.5686095,-0.0674 0.2688577,-0.04424 0.2702812,-0.04412 0.3259406,0.02299 0.030757,0.03709 0.2227057,0.351236 0.426617,0.698141 0.203912,0.346905 0.399668,0.65439 0.434997,0.683299 0.09674,0.07916 0.166027,0.06693 0.633249,-0.111518 0.44558,-0.170182 0.534624,-0.232226 0.534325,-0.37239 -9e-5,-0.0436 -0.07309,-0.423794 -0.162266,-0.844912 -0.08917,-0.421117 -0.155684,-0.776171 -0.147795,-0.788951 0.0079,-0.01279 0.111274,-0.08873 0.229778,-0.168829 0.1185,-0.0801 0.31674,-0.228592 0.440504,-0.329917 0.123768,-0.101325 0.23745,-0.184238 0.252633,-0.184257 0.01517,-2.2e-5 0.339225,0.173644 0.720091,0.385939 0.778627,0.433999 0.774214,0.431996 0.877206,0.406118 0.109588,-0.02753 0.700401,-0.771027 0.700401,-0.8814 0,-0.103257 -0.02499,-0.135465 -0.6142,-0.792177 -0.264535,-0.29484 -0.485128,-0.560486 -0.4902,-0.590377 -0.0051,-0.02989 0.04567,-0.163635 0.11275,-0.297184 0.06707,-0.133549 0.16339,-0.347659 0.214011,-0.475811 0.05062,-0.128153 0.105176,-0.246521 0.121247,-0.26304 0.01738,-0.01785 0.368807,-0.03611 0.867125,-0.04505 0.799462,-0.01433 0.840756,-0.01789 0.900525,-0.07779 0.04906,-0.04916 0.07839,-0.159877 0.135309,-0.5105999 0.03998,-0.2463 0.07289,-0.4767825 0.07313,-0.5121187 0.0011,-0.14277 -0.08458,-0.18627 -0.899648,-0.4570988 L 14.305238,8.4587944 14.271409,8.0706281 c -0.01862,-0.21348 -0.04884,-0.4674337 -0.06716,-0.5643337 -0.01832,-0.0969 -0.02581,-0.1882875 -0.01663,-0.2031487 0.0092,-0.01485 0.316193,-0.2041125 0.682236,-0.4205475 0.366043,-0.216435 0.695917,-0.426495 0.733044,-0.4667775 0.03712,-0.040282 0.06751,-0.1069725 0.06751,-0.1482412 0,-0.1183463 -0.322172,-0.9215737 -0.393213,-0.9803625 -0.09026,-0.074689 -0.152395,-0.068663 -0.869938,0.084413 -0.842502,0.1797375 -0.887935,0.1879463 -0.91881,0.166545 -0.01446,-0.010013 -0.091,-0.11652 -0.170118,-0.2367037 -0.07912,-0.1201838 -0.223571,-0.3161625 -0.321019,-0.43551 -0.09745,-0.1193437 -0.17719,-0.22923 -0.177213,-0.2441512 -1.8e-5,-0.014925 0.174025,-0.3393 0.38683,-0.7208438 0.212801,-0.3815399 0.395416,-0.7223439 0.405811,-0.7573314 0.03596,-0.1210275 -0.03975,-0.215085 -0.41712,-0.5181037 C 12.793449,2.3026 12.72282,2.2735525 12.57919,2.37211 c -0.0408,0.028012 -0.326214,0.2780399 -0.634241,0.5556487 -0.30803,0.2776087 -0.581698,0.5047877 -0.608168,0.5047877 -0.02649,0 -0.165993,-0.059051 -0.310058,-0.1312275 C 10.882662,3.2291457 10.677016,3.1393782 10.56975,3.1018669 10.255493,2.9919694 10.269718,3.0380719 10.269594,2.1301857 10.269493,1.408472 10.264798,1.3374658 10.211758,1.2503683 10.176995,1.1932933 10.120375,1.1484545 10.069354,1.137617 9.9396973,1.110092 9.2110731,1.0003558 9.1554096,0.99999578 Z"/>
 <path style="fill:#17191e" d="M 8.484619,8.1857887 6.1276856,13.784421 c 0.1216763,0.05458 0.2526266,0.115945 0.3391114,0.146485 0.097905,0.03457 0.1460415,0.0518 0.182373,0.06518 L 8.515381,9.5634695 11.321289,15.48803 c 0.360081,-0.142089 0.448518,-0.208549 0.448242,-0.337647 -5e-6,-0.0026 -0.009,-0.04496 -0.0095,-0.0498 z"/>
 <path style="fill:#606040" d="m 8.5,5.000472 c 1.0499999,-0.0047 3.5,0 3.5,1.3332433 V 11.000067 C 12,11.55403 11.5317,12 10.95,12 H 6.0500001 C 5.4683002,12 5.0000002,11.55403 5.0000002,11.000067 V 6.3337153 C 5.0000002,5.000472 7.45,5.0051732 8.5,5.000472 Z"/>
 <circle style="fill:#f4f4f7" cx="6.5" cy="10.5" r=".5"/>
 <circle style="fill:#f4f4f7" cx="10.5" cy="10.5" r=".5"/>
 <rect style="fill:#8deaff" width="7" height="2" x="5" y="7"/>
 <rect style="fill:#606040" width="1" height="3" x="8" y="6.5"/>
</svg>
