<svg xmlns="http://www.w3.org/2000/svg" width="16" height="16" version="1">
 <circle style="fill:#1587d7" cx="4.64" cy="4.64" r="4.64"/>
 <circle style="fill:#1587d7" cx="11.36" cy="11.36" r="4.64"/>
 <circle style="fill:#28a8ea" cx="8" cy="8" r="7"/>
 <path style="fill:#f4f4f7;fill-rule:evenodd" d="M 5.9916451,7.8638498 A 2.3532641,2.1578404 0 0 1 5.2536897,7.1493762 2.1526294,1.9738672 0 0 1 5.0009032,6.1625743 1.9341429,1.7735247 0 0 1 5.456557,4.9681904 2.7427765,2.5150063 0 0 1 6.6443523,4.2402053 4.587367,4.2064153 0 0 1 8.1996755,4.0002485 6.0399608,5.5383804 0 0 1 9.2346001,4.0730421 3.7359512,3.4257042 0 0 1 9.9519968,4.2429065 1.39115,1.2756238 0 0 1 10.51359,4.5718216 0.7259727,0.66568527 0 0 1 10.687045,5.0140112 0.69861587,0.64060027 0 0 1 10.504752,5.475064 0.60694696,0.55654388 0 0 1 10.046089,5.6503248 0.82563991,0.75707574 0 0 1 9.7050564,5.580188 6.1734831,5.6608144 0 0 0 8.8935322,5.307904 2.9457179,2.7010948 0 0 0 8.1115007,5.2189424 1.7849083,1.636683 0 0 0 7.1324124,5.4480948 0.81471528,0.74705834 0 0 0 6.7413933,6.1194363 a 0.73609719,0.67496899 0 0 0 0.2028416,0.4718132 1.8499658,1.6963378 0 0 0 0.5469,0.3585888 q 0.3440199,0.1564623 1.0260747,0.4152199 a 1.0633042,0.97500353 0 0 1 0.1470309,0.053936 7.2880968,6.6828667 0 0 1 1.2701113,0.5985396 2.560913,2.3482454 0 0 1 0.7820832,0.7360407 2.1164645,1.9407056 0 0 1 0.282249,1.0218243 2.2415655,2.0554178 0 0 1 -0.39107,1.2321552 2.3241877,2.1311786 0 0 1 -1.0936645,0.74415 4.6099454,4.2271189 0 0 1 -1.6435554,0.245359 5.17834,4.7483116 0 0 1 -2.2403206,-0.388253 1.2192821,1.1180284 0 0 1 -0.4615997,-0.328918 0.80643305,0.7394639 0 0 1 -0.149964,-0.447586 0.63797541,0.5849956 0 0 1 0.19695,-0.455651 0.7264857,0.66615567 0 0 1 0.508635,-0.164459 1.2997811,1.1918426 0 0 1 0.5938866,0.14019 q 0.3409513,0.156472 0.5380728,0.234608 a 2.7043562,2.4797766 0 0 0 0.4645585,0.134788 2.6561955,2.4356153 0 0 0 0.5967674,0.05659 A 1.5929075,1.4606267 0 0 0 8.9200115,10.533061 0.88294429,0.80962138 0 0 0 9.2580949,9.8617132 0.77810191,0.71348547 0 0 0 9.0464418,9.3709925 2.2502737,2.0634027 0 0 0 8.4231691,8.9558169 Q 8.0114786,8.7563293 7.2647086,8.4704985 A 7.1769304,6.5809319 0 0 1 5.9916357,7.8638498"/>
</svg>
