<svg xmlns="http://www.w3.org/2000/svg" width="16" height="16" version="1">
 <circle style="fill:#b2bfd9" cx="8.5" cy="8.5" r="7.5"/>
 <path style="fill:#36c5f0" d="M 7,3 A 1,1 0 0 0 6,4 1,1 0 0 0 7,5 H 8 V 4 A 1,1 0 0 0 7,3 Z M 8,7 A 1,1 0 0 0 7,6 H 4 A 1,1 0 0 0 3,7 1,1 0 0 0 4,8 H 7 A 1,1 0 0 0 8,7 Z"/>
 <path style="fill:#2eb67d" d="M 13,6 A 1,1 0 0 1 14,7 1,1 0 0 1 13,8 H 12 V 7 A 1,1 0 0 1 13,6 Z M 10,3 A 1,1 0 0 0 9,4 V 7 A 1,1 0 0 0 10,8 1,1 0 0 0 11,7 V 4 A 1,1 0 0 0 10,3 Z"/>
 <path style="fill:#ecb22e" d="M 10,14 A 1,1 0 0 0 11,13 1,1 0 0 0 10,12 H 9 V 13 A 1,1 0 0 0 10,14 Z M 14,10 A 1,1 0 0 0 13,9 H 10 A 1,1 0 0 0 9,10 1,1 0 0 0 10,11 H 13 A 1,1 0 0 0 14,10 Z"/>
 <path style="fill:#e01e5a" d="M 4,11 A 1,1 0 0 1 3,10 1,1 0 0 1 4,9 H 5 V 10 A 1,1 0 0 1 4,11 Z M 7,9 A 1,1 0 0 0 6,10 V 13 A 1,1 0 0 0 7,14 1,1 0 0 0 8,13 V 10 A 1,1 0 0 0 7,9 Z"/>
</svg>
