<svg xmlns="http://www.w3.org/2000/svg" width="16" height="16" version="1">
 <path fill="#4f4f4f" d="m14 8a6 6 0 0 1 -6 6 6 6 0 0 1 -6 -6 6 6 0 0 1 6 -6 6 6 0 0 1 6 6z"/>
 <path fill="#b2bfd9" d="m8 0c-4.432 0-8 3.568-8 8s3.568 8 8 8 8-3.568 8-8-3.568-8-8-8zm0 1a2 2 0 0 1 2 2 2 2 0 0 1 -2 2 2 2 0 0 1 -2 -2 2 2 0 0 1 2 -2zm-5 5a2 2 0 0 1 2 2 2 2 0 0 1 -2 2 2 2 0 0 1 -2 -2 2 2 0 0 1 2 -2zm10 0a2 2 0 0 1 2 2 2 2 0 0 1 -2 2 2 2 0 0 1 -2 -2 2 2 0 0 1 2 -2zm-5 5a2 2 0 0 1 2 2 2 2 0 0 1 -2 2 2 2 0 0 1 -2 -2 2 2 0 0 1 2 -2z"/>
 <g fill="#4f4f4f" transform="matrix(.86603 -.5 .5 .86603 -2.4282 5.9378)">
  <circle cx="8" cy="8"/>
  <circle cx="8" cy="6"/>
  <circle cx="7" cy="-7" transform="rotate(90)"/>
  <circle cx="7" cy="-9" transform="rotate(90)"/>
 </g>
</svg>
