<svg xmlns="http://www.w3.org/2000/svg" width="16" height="16" version="1">
 <rect style="fill:#ffaf30" width="16" height="16" x="0" y="0" rx=".8" ry=".8"/>
 <path style="fill:#17191e" d="M 1.0760046,9.0000227 1.0672189,9.25188 c -0.00637,0.1809148 0.00264,0.258381 0.03075,0.276018 0.021478,0.01348 0.1293688,0.024636 0.240143,0.024894 h 0.2013395 l -0.013178,1.15459 c -0.00734,0.634844 -0.00579,1.178571 0.00366,1.208037 0.00945,0.02946 0.040536,0.05926 0.068822,0.06662 0.028287,0.0074 0.1820008,0.01497 0.341911,0.01684 0.2050701,0.0024 0.3006695,-0.0078 0.3236074,-0.03514 0.021796,-0.02601 0.028607,-0.244724 0.0205,-0.664786 -0.00664,-0.344222 -0.016177,-0.881248 -0.021232,-1.193394 l -0.00952,-0.5674113 0.2167144,-0.00879 c 0.1365074,-0.00551 0.228794,-0.02404 0.2503933,-0.049786 0.020666,-0.024632 0.030288,-0.1274552 0.024894,-0.2599111 l -0.00879,-0.219637 h -0.830246 z m 2.0090015,0 -0.021963,0.1486249 c -0.011771,0.081505 -0.024977,0.7475995 -0.030019,1.4803934 l -0.00952,1.332501 0.2401427,0.0081 c 0.1319408,0.0046 0.246348,0.01507 0.2547861,0.02343 0.021423,0.02122 0.1915319,-0.017 0.2372142,-0.05344 0.022818,-0.0182 0.038072,-0.103236 0.038072,-0.214518 0,-0.153907 -0.011287,-0.193427 -0.068089,-0.241607 l -0.068089,-0.05784 0.074678,-0.01757 0.073946,-0.01684 -0.00879,-0.393162 C 3.7872321,10.555491 3.7836071,10.563244 4.0280042,10.53245 4.1418308,10.51811 4.158022,10.52365 4.17004,10.58077 4.235263,10.890757 4.241247,10.965204 4.216165,11.155502 4.201096,11.26987 4.191409,11.504791 4.194933,11.67752 l 0.00659,0.31409 h 0.3624124 0.362411 L 4.9248864,11.767574 4.9234264,11.54427 4.7133012,11.47984 C 4.5170401,11.41935 4.5025013,11.40868 4.493658,11.321697 c -0.00784,-0.07714 0.0018,-0.09298 0.053447,-0.09298 0.049102,0 0.062232,0.01934 0.062232,0.09005 0,0.102996 0.042824,0.116694 0.090054,0.02929 0.036035,-0.06669 0.1204413,-0.07818 0.1749823,-0.02416 0.019654,0.01947 0.045838,0.02505 0.058572,0.01244 0.01273,-0.01261 0.023429,-0.541681 0.023429,-1.175823 V 9.007347 L 4.6239811,9.003677 4.29232,9.000757 4.303303,9.3324181 C 4.309373,9.5149995 4.3042401,9.7475734 4.29232,9.8493113 L 4.271084,10.034536 4.009709,10.025736 3.7483337,10.016936 3.7336913,9.5088549 3.7183146,9.0000152 H 3.4012921 Z m 8.4050059,0 c -0.04388,0.00105 -0.18665,0.0049 -0.31775,0.00805 -0.189272,0.00458 -0.242675,0.015695 -0.257714,0.055643 -0.01042,0.027672 -0.0023,0.1973744 0.01757,0.3770537 0.04179,0.3764296 0.04255,0.4499219 0.0095,0.6772326 -0.02083,0.143405 -0.01669,0.172036 0.03148,0.207929 0.01,0.0074 0.02705,0.0071 0.041,0.01318 l 1.650251,-0.03808 c 0.0024,-0.0018 0.0086,-0.0032 0.01025,-0.0052 0.02375,-0.02916 0.02777,-0.224022 0.01391,-0.6618579 l -0.01976,-0.6208576 -0.229161,0.00146 c -0.394592,7.122e-4 -0.364607,-0.043148 -0.364607,0.5395896 0,0.2868315 -0.01278,0.5108909 -0.02928,0.5212859 -0.03993,0.02515 -0.108657,-0.1204153 -0.178644,-0.3777856 -0.0324,-0.1191673 -0.11239,-0.325033 -0.177899,-0.4575417 C 11.584809,9.0290479 11.5599,8.9990259 11.490015,9.0007128 Z m -5.3849142,7.497e-4 c -0.3959548,-0.00199 -0.7876366,0.00582 -0.8075543,0.025625 -0.01998,0.019875 -0.019148,0.2512737 0.00292,0.6896792 0.018278,0.3629824 0.033677,0.7810044 0.033677,0.9283584 0,0.28165 0.022698,0.339715 0.1347144,0.339715 0.034506,0 0.094756,0.02225 0.1332502,0.04905 0.060826,0.04237 0.067139,0.06551 0.050518,0.175714 -0.021101,0.139912 0.00251,0.173857 0.1427682,0.207197 0.1464815,0.03482 0.056918,0.07834 -0.1618039,0.07834 -0.2330012,0 -0.2751326,0.03364 -0.2130536,0.169125 0.026881,0.05866 0.024651,0.09328 -0.010983,0.161803 -0.024924,0.04793 -0.045393,0.10053 -0.045393,0.117143 0,0.01662 0.098491,0.03457 0.2189107,0.04027 0.4138145,0.01959 1.3162582,0.0226 1.3639832,0.0044 0.037974,-0.01449 0.04759,-0.06709 0.04759,-0.255519 v -0.23722 h -0.490533 c -0.4598061,-4.12e-4 -0.6209397,-0.02204 -0.5388575,-0.07248 0.021614,-0.01329 0.032946,-0.15696 0.032946,-0.405607 V 10.63197 l 0.1669289,-0.01904 c 0.091538,-0.0107 0.2193343,-0.01114 0.2848035,-7.5e-4 0.06547,0.01041 0.1547307,0.01 0.1976789,-7.5e-4 0.077403,-0.01931 0.077459,-0.02154 0.068822,-0.281143 L 6.7083805,10.06818 6.3928266,10.05938 C 6.2181258,10.05468 6.0595469,10.03628 6.0370105,10.01768 6.0078805,9.993639 5.9985395,9.918904 6.0047955,9.7555726 L 6.0135855,9.527876 6.4967999,9.509572 C 6.7625547,9.499425 6.9831827,9.489123 6.9873361,9.486874 c 0.00418,-0.00225 0.00732,-0.098023 0.00732,-0.2130535 0,-0.1727167 -0.00953,-0.2148728 -0.055643,-0.239411 C 6.9012415,9.01434 6.5010497,9.0027569 6.1050953,9.0007551 Z m 7.4085582,7.497e-4 c -0.1472,0.00142 -0.249976,0.00596 -0.264303,0.016108 -0.02973,0.021052 -0.044,0.1867746 -0.05711,0.6530717 l -0.01757,0.6186612 1.406448,-0.03295 c 0.0096,-0.01005 0.01414,-0.02324 0.01684,-0.04173 0.0055,-0.0381 -0.0025,-0.08217 -0.0183,-0.09811 -0.01579,-0.01594 -0.170168,-0.03638 -0.342643,-0.04539 -0.185484,-0.0097 -0.322931,-0.03059 -0.336054,-0.05125 -0.0122,-0.01921 -0.02239,-0.1202423 -0.0227,-0.224035 -2.55e-4,-0.1037924 -0.01341,-0.196832 -0.03002,-0.2071969 -0.09513,-0.059341 0.01469,-0.076143 0.497858,-0.076143 h 0.528608 v -0.209392 c 0,-0.138421 -0.01418,-0.2213424 -0.041,-0.2438039 -0.03887,-0.032568 -0.878454,-0.062143 -1.320055,-0.05784 z M 8.0225812,9.0022718 C 7.8438881,9.0145521 7.8702953,9.1161655 7.8702953,9.7058616 v 0.6786974 l 0.1237322,0.01976 c 0.067723,0.01092 0.1898619,0.01093 0.2716251,0 0.061404,-0.0082 0.09689,-0.0074 0.1200717,-0.0022 l 0.2262324,-0.0052 C 8.6003024,10.323967 8.5891991,10.06446 8.5863315,9.7197564 l -0.00586,-0.7123757 -0.302375,-0.00221 C 8.1642679,9.0042319 8.0821456,8.9981405 8.0225812,9.0022452 Z m 2.4658588,0.00513 C 10.38237,8.9666338 9.900529,9.124421 9.900529,9.1999555 c 0,0.016104 -0.03072,0.02666 -0.06809,0.022698 l -0.068093,-0.00732 -0.00805,0.5498393 -0.00805,0.5491072 0.174249,0.03441 c 0.03597,0.0071 0.03166,0.01013 0.05857,0.01611 l 0.492732,-0.01171 c 0.04218,-0.0047 0.0464,-0.07767 0.05344,-0.6581976 0.007,-0.5824658 0.0021,-0.6717909 -0.03881,-0.6874825 z m 4.174682,1.4005902 -1.388877,0.0044 c -0.0203,0.02632 -0.04897,0.205356 -0.06443,0.400482 -0.02437,0.307759 -0.02168,0.376219 0.0227,0.500786 0.04494,0.126148 0.04697,0.176546 0.01611,0.396823 -0.02799,0.199932 -0.02706,0.257988 0.0029,0.278946 0.03707,0.02591 1.616714,-5.62e-4 1.661233,-0.02782 0.01245,-0.0076 0.02197,-0.101839 0.02197,-0.209393 0,-0.188331 -0.0033,-0.197665 -0.09445,-0.245269 -0.06993,-0.0365 -0.19335,-0.05145 -0.472232,-0.05638 -0.491366,-0.0087 -0.489926,-0.0073 -0.489804,-0.486143 V 10.62544 l 0.278947,-0.0081 c 0.153596,-0.0043 0.330874,-0.01585 0.39316,-0.02562 0.105303,-0.01652 0.112751,-0.02483 0.112751,-0.121536 z m -1.992163,0.0066 -1.526519,0.0059 c -0.01362,0.0068 -0.03346,0.01243 -0.05857,0.01538 -0.08283,0.0097 -0.08295,0.0099 -0.07834,0.240143 0.0025,0.126949 0.0052,0.452533 0.0066,0.723357 0.0025,0.49503 0.01119,0.545363 0.09445,0.577661 0.06028,0.02338 0.435916,0.02735 0.492732,0.0052 0.03777,-0.01477 0.04232,-0.084 0.02855,-0.438553 -0.01721,-0.443291 0.01113,-1.02134 0.05052,-1.02134 0.03209,0 0.364546,0.981864 0.364608,1.076983 4e-5,0.08289 0.07323,0.219773 0.17791,0.330929 0.05404,0.05738 0.09788,0.06955 0.254786,0.06955 0.316636,0 0.304912,0.02939 0.315554,-0.800233 0.0066,-0.510521 -3.74e-4,-0.725303 -0.02562,-0.756304 -0.01102,-0.01352 -0.04401,-0.02219 -0.09664,-0.02855 z m -2.255002,0.0081 c -0.05261,0.0064 -0.09538,0.0051 -0.130321,7.5e-4 l -0.172054,7.5e-4 c -0.02212,0.0052 -0.0579,0.01016 -0.107625,0.01464 l -0.180838,0.01684 v 0.150822 0.151554 l 0.128857,0.01464 c 0.103831,0.01217 0.137591,0.03204 0.173517,0.101768 0.09084,0.176306 0.01781,0.355979 -0.09664,0.237946 -0.03049,-0.03145 -0.07856,-0.06641 -0.107625,-0.07687 -0.04359,-0.01569 -0.05344,-7.49e-4 -0.05344,0.08273 0,0.05568 -0.01975,0.14967 -0.04466,0.209393 -0.042256,0.101275 -0.067272,0.623822 -0.031479,0.659662 0.00787,0.0079 0.186475,0.01335 0.396821,0.01244 0.378805,-0.0017 0.382702,-0.0027 0.413662,-0.07761 0.03888,-0.09406 0.02876,-1.335689 -0.01172,-1.442323 -0.01211,-0.03191 -0.02268,-0.04834 -0.04173,-0.05711 h -0.129589 z m -1.8010719,0.0066 -0.2240358,7.49e-4 c -0.024681,0.01386 -0.079641,0.02343 -0.1845003,0.02343 -0.1393877,0 -0.2192106,0.01365 -0.2423393,0.04173 -0.024171,0.02937 -0.031316,0.254075 -0.025625,0.753376 l 0.00805,0.711643 0.5886431,0.01611 c 0.3238877,0.0089 0.6316186,0.01906 0.683822,0.0227 0.053768,0.0037 0.1005229,-0.0099 0.1083574,-0.03148 0.00759,-0.02093 0.00634,-0.140935 -0.00367,-0.2665 l -0.018304,-0.227697 -0.1508216,-0.0029 c -0.1651569,-0.0032 -0.4999537,-0.03717 -0.6193934,-0.06297 -0.072286,-0.01561 -0.071181,-0.01795 0.030019,-0.05198 0.086771,-0.02918 0.1042921,-0.04926 0.098107,-0.111286 -0.00414,-0.04156 -0.01056,-0.232843 -0.014642,-0.425376 -0.00409,-0.192532 -0.018807,-0.358361 -0.032215,-0.368268 -6.372e-4,-4.87e-4 -8.246e-4,-0.01933 -0.00146,-0.02124 z"/>
 <path style="fill:#f4f4f7" d="M 1.7482633,3 C 1.6892723,3 1.6424956,3.021667 1.6076383,3.065104 1.5727803,3.106988 1.5555553,3.163016 1.5555553,3.2343751 v 0.4583333 c 0,0.046538 0.00696,0.085108 0.021701,0.1145832 0.014748,0.027924 0.043508,0.048539 0.08507,0.0625 l 1.1041666,0.3862848 v 0.074653 H 2.1223954 V 4.1493058 H 1.555555 v 0.3932289 c 0,0.071359 0.017225,0.1284391 0.052083,0.1718751 0.034858,0.041884 0.081634,0.063368 0.140625,0.063368 h 1.392361 c 0.058991,0 0.1057667,-0.021484 0.1406254,-0.063368 0.034858,-0.043436 0.052083,-0.1005158 0.052083,-0.1718753 V 4.0815973 c 0,-0.046538 -0.00822,-0.08424 -0.024307,-0.1137155 -0.014747,-0.031027 -0.04264,-0.053747 -0.084201,-0.067708 L 2.1223941,3.5182293 V 3.4461804 H 2.766491 V 3.5859373 H 3.3333328 V 3.2274307 c 0,-0.07136 -0.016831,-0.1272014 -0.050347,-0.1675347 C 3.2494701,3.0195627 3.2030879,3 3.1440968,3 Z M 3.7777772,3 V 4.7777778 H 4.3446177 V 4.3281249 h 1.0199649 c 0.058991,0 0.1053711,-0.020613 0.1388888,-0.0625 0.034858,-0.043436 0.052084,-0.1013836 0.052084,-0.1727431 V 3.2343751 c 0,-0.07136 -0.016831,-0.1273862 -0.050347,-0.1692711 C 5.4730301,3.0216684 5.4279146,3 5.368923,3 Z M 5.9999994,3 V 4.7777778 H 7.7777772 V 4.2725693 H 6.5789923 V 4.1145831 H 7.4800341 V 3.6484373 H 6.5789923 V 3.5043404 h 1.182292 V 3 Z M 8.4010412,3 C 8.3446042,3 8.3002954,3.021667 8.2682288,3.065104 8.2374468,3.106988 8.2222218,3.163016 8.2222218,3.2343751 v 1.3081596 c 0,0.071359 0.015222,0.1284391 0.046007,0.1718751 0.032067,0.041884 0.076375,0.063368 0.1328124,0.063368 H 9.81684 c 0.05644,0 0.100746,-0.021484 0.132812,-0.063368 0.03335,-0.043436 0.05035,-0.1005156 0.05035,-0.1718751 V 4.0277778 H 9.4574648 V 4.2960071 H 8.7647563 V 3.4809027 H 9.4574648 V 3.749132 H 9.999999 V 3.2343751 c 0,-0.07136 -0.017,-0.1273862 -0.05035,-0.1692711 C 9.917586,3.0216684 9.873277,3 9.81684,3 Z M 4.3446177,3.4809027 H 4.9887146 V 3.8628471 H 4.3446177 Z m 4.0564235,1.7413195 c -0.056437,0 -0.1007458,0.021667 -0.1328124,0.065104 -0.030782,0.041885 -0.046007,0.09878 -0.046007,0.1701391 v 1.3072916 c 0,0.071359 0.015222,0.1293071 0.046007,0.1727431 C 8.3002954,6.9793844 8.3446039,7 8.4010412,7 H 9.82118 C 9.87762,7 9.921472,6.979387 9.952256,6.9375 9.984326,6.894064 9.999996,6.8361164 9.999996,6.7647569 V 5.4574653 c 0,-0.071359 -0.01567,-0.1282542 -0.04774,-0.1701391 -0.03079,-0.043435 -0.07464,-0.065104 -0.131076,-0.065104 z m 2.0434028,0 V 7 h 0.566839 V 6.5512151 h 1.019965 c 0.05899,0 0.105367,-0.021484 0.13889,-0.063368 0.03486,-0.043436 0.05208,-0.1005157 0.05208,-0.1718749 V 5.4574653 c 0,-0.071359 -0.01683,-0.1282542 -0.05035,-0.1701391 -0.03218,-0.043435 -0.07729,-0.065104 -0.136285,-0.065104 z m 2.41493,0 c -0.05899,0 -0.105767,0.021667 -0.140625,0.065105 -0.03486,0.041884 -0.05208,0.098779 -0.05208,0.1701386 v 0.4583334 c 0,0.046538 0.007,0.08424 0.0217,0.1137151 0.01474,0.027924 0.04351,0.049407 0.08507,0.063368 l 1.104165,0.3862848 v 0.073784 H 13.233506 V 6.371528 h -0.56684 v 0.3932289 c 0,0.07136 0.01722,0.1293071 0.05208,0.1727431 C 12.753607,6.979384 12.800387,7 12.859377,7 h 1.39236 c 0.05899,0 0.105767,-0.020613 0.140627,-0.0625 0.03486,-0.043436 0.05208,-0.1013836 0.05208,-0.1727431 V 6.3038196 c 0,-0.046538 -0.0082,-0.08424 -0.02431,-0.1137156 -0.01474,-0.031027 -0.04265,-0.053747 -0.0842,-0.067708 L 13.233506,5.7413196 v -0.072049 h 0.644098 v 0.1397569 h 0.566841 V 5.4505209 c 0,-0.07136 -0.01683,-0.1272013 -0.05035,-0.1675347 -0.03352,-0.040333 -0.0799,-0.060764 -0.13889,-0.060764 z M 8.7647563,5.7039929 H 9.4574648 V 6.5182293 H 8.7647563 Z m 2.2465287,0 h 0.644097 v 0.3819444 h -0.644097 z"/>
</svg>
