<svg xmlns="http://www.w3.org/2000/svg" width="16" height="16" version="1">
 <path style="fill:#5856c2" d="M 6.9910699,0.99382686 C 5.5872038,0.99125193 4.0440265,1.2532462 2.548617,1.6844749 2.1224,1.8073823 1.4690416,2.0259008 1.437243,2.0561702 c -0.016565,0.015768 0.00993,0.02667 0.1000482,0.041188 0.2325386,0.037461 0.5744586,0.1430908 0.8308749,0.2566691 0.9342325,0.4138118 1.808172,1.395085 2.3990258,2.561023 0.1086831,0.2144664 0.1922061,0.3995902 0.1922061,0.4259727 0,0.00766 -0.067826,0.023371 -0.1790526,0.041501 C 3.6511034,5.5665845 2.5797572,6.2773381 1.5980889,7.3432125 1.1868215,7.7897565 0.75067161,8.3778191 0.40921337,8.9461471 0.17849091,9.3301636 -0.02899319,9.7317487 0.00333893,9.7317487 c 0.00218285,0 0.11161875,-0.026217 0.24319096,-0.058265 C 1.6497084,9.3317045 2.9311346,9.2668542 3.8316337,9.4920516 4.2111781,9.5869678 4.5339443,9.6511583 4.7616384,9.8206969 4.8593424,9.8934459 4.959398,9.9853396 4.959398,10.002317 3.8804467,10.883469 3.6718493,12.072573 3.2457574,13.256132 3.0463651,13.96755 2.9591602,14.679883 2.9669719,15.47 3.5444379,15.026955 4.4568848,14.274955 5.1559775,14.018316 5.9796945,13.724911 6.7134123,13.628763 7.729028,13.5763 8.0115142,13.56171 8.7619043,13.56546 8.7730152,13.59085 11.66045,13.5694 12.987445,12.445629 14.244625,11.055748 c 0.871752,-0.859354 1.327067,-2.0804436 1.617027,-3.2416856 0.09083,-0.3740431 0.129341,-0.6331632 0.136962,-0.9216497 0.009,-0.3416251 -0.02499,-0.5345421 -0.132848,-0.753536 -0.05133,-0.1042092 -0.07282,-0.1351627 -0.141263,-0.2033105 -0.05327,-0.053036 -0.106916,-0.094038 -0.157694,-0.1205372 -0.0832,-0.043421 -0.216917,-0.082314 -0.282986,-0.082314 -0.03817,0 -0.0429,-0.0035 -0.06435,-0.047639 l -0.02313,-0.047639 0.03881,-0.083295 c 0.194056,-0.4163536 0.324247,-1.2377734 0.381468,-1.9007297 0.01576,-0.1826587 0.02597,-0.4927657 0.01768,-0.5369482 -0.0086,-0.045971 -0.003,-0.044276 -0.222229,-0.066782 -0.522756,-0.053658 -1.156215,-0.040242 -1.822074,0.038579 L 13.396256,3.1111855 13.29604,3.0225877 C 11.7848,1.9724691 9.8795296,1.2522308 8.2357946,1.0604209 7.8375141,1.0166205 7.4208238,0.99461566 6.9910699,0.99382686 Z"/>
 <path style="fill:#f4f4f7" d="m 10.149897,6.0618629 c -0.067,-0.00421 -0.133601,-0.00257 -0.1997788,0.00521 -1.1026908,0.1296088 -1.6642919,0.9177113 -1.8933624,2.0796131 -0.089744,0.7638405 -0.0073,1.2744248 0.2111304,1.90838 0.020476,0.05939 0.02902,0.09944 0.022701,0.105655 -0.00632,0.0062 -0.044495,0.004 -0.100647,-0.0052 C 8.1558085,10.149921 8.0697171,10.149621 8,10.147321 V 11 L 11.667615,11.455322 14.19921,11 l 0.470691,-0.630208 0.05675,-0.335566 c 0.369928,-1.1288472 0.347341,-2.4933181 0.0348,-2.9096397 -0.01863,-0.024827 -0.05343,-0.055044 -0.07719,-0.066964 -0.19845,-0.099542 -0.476377,0.1414604 -0.830137,0.7187554 -0.665373,1.3439098 -0.832173,1.5018149 -1.170675,2.0264546 -0.08205,0.087521 -0.127765,0.099002 -0.20659,0.049851 C 12.268156,9.7225408 12.147325,9.6663421 12.081852,8.5901371 12.060345,8.2366589 12.039737,8.2428616 12.000125,8.0484703 11.898724,7.5508691 11.718063,7.1541449 11.437867,6.8140954 11.098132,6.4017871 10.61893,6.0913269 10.149897,6.0618629 Z"/>
 <path style="fill:#f3a993" d="M 7.147684,3.0000009 7.1321,3.0487619 C 7.103923,3.1369629 7.053583,3.3547665 7.0374,3.4584304 7.009717,3.6357683 7,3.7679376 7,3.9674395 7,4.3128536 7.034395,4.5436509 7.1313656,4.8490017 7.1703506,4.97176 7.1827656,5 7.1977926,5 7.2029426,5 7.2485306,4.966178 7.2991119,4.924842 7.7885022,4.5248992 8.3995539,4.1761237 8.955043,3.9796725 8.97774,3.9716425 8.99791,3.9606395 8.999857,3.9552055 9.0055438,3.9393458 8.8404992,3.7525335 8.7319726,3.6519973 8.535876,3.4703386 8.3544997,3.3506267 8.1002809,3.2350381 8.0085019,3.1933081 7.8911717,3.1454628 7.839546,3.1287298 7.6467474,3.0662382 7.4136446,3.0188289 7.238104,3.0064009 Z"/>
 <path style="fill:#fcb9a4" d="m 8.5455664,11.092902 c 0.1524678,8e-4 0.2250309,0.04841 0.3441379,0.225758 0.1950168,0.290372 0.3970283,0.483707 0.6609247,0.632551 0.2097573,0.118307 0.449999,0.188546 0.684685,0.200181 0.07825,0.0039 0.156409,0.01464 0.201747,0.02777 0.06424,0.0186 0.08283,0.03022 0.140595,0.08798 0.05636,0.05636 0.06998,0.07769 0.08898,0.139217 0.01234,0.03996 0.02245,0.0909 0.02245,0.113182 0,0.02228 -0.0101,0.0732 -0.02245,0.11316 -0.01899,0.06148 -0.03264,0.08287 -0.08879,0.139029 -0.05616,0.05616 -0.07755,0.06983 -0.139029,0.08882 -0.06908,0.02133 -0.187023,0.02762 -0.289562,0.01543 C 9.8966389,12.845936 9.8059452,12.827037 9.6147673,12.764629 9.2522846,12.6463 8.9341859,12.449564 8.6513988,12.168824 8.4614982,11.980297 8.2433866,11.687154 8.2029111,11.566046 8.1451542,11.393227 8.2231206,11.208996 8.388457,11.1276 8.451576,11.09653 8.469735,11.0925 8.5455664,11.0929 Z"/>
 <path style="fill:#fcb9a4" d="m 8.7004632,13.522473 c 0.00525,4.19e-4 0.011829,8e-4 0.016369,0.0012 0.050948,0.0048 0.1129901,0.0092 0.1559406,0.01125 -0.026137,-0.0015 -0.059181,-0.0042 -0.099757,-0.0077 -0.019771,-0.0017 -0.045045,-0.0033 -0.072552,-0.0048 z"/>
 <path style="fill:#f3a993" d="m 7.7721709,10.078682 c -0.4088606,0.14699 -0.6658233,0.438465 -0.7486949,0.849236 -0.025992,0.12884 -0.031531,0.395681 -0.010914,0.52599 0.1168953,0.738844 0.6488767,1.44421 1.4313011,1.913029 0.3908545,0.251637 0.6281289,0.319219 1.0648497,0.458887 0.4297562,0.117339 0.8862352,0.173846 1.3945732,0.174174 0.498528,3.21e-4 0.89182,-0.04613 1.326239,-0.156667 0.96108,-0.244528 1.769241,-0.78722 2.238674,-1.503303 0.339449,-0.640516 0.713025,-1.187335 0.434316,-1.580239 -0.450165,-0.634608 -1.680191,-0.135744 -2.156641,0.0579 -0.429944,0.175267 -0.585987,0.22415 -0.811352,0.254134 -0.50738,0.06751 -0.782575,-0.0043 -1.734138,-0.452282 C 9.4595109,10.281099 8.5631668,9.8120789 7.7721709,10.078682 Z"/>
 <path style="fill:#4f4f4f" d="m 14.379812,11.980483 c -0.153366,-0.04719 -0.232029,-0.107018 -0.304417,-0.231523 -0.169963,-0.292333 -0.0463,-0.764876 0.307782,-1.176024 0.131794,-0.153036 0.254794,-0.258283 0.422448,-0.361474 0.38322,-0.2358713 0.766965,-0.2777653 0.996616,-0.1088 0.08814,0.06485 0.131835,0.127872 0.168499,0.24304 0.02985,0.09378 0.0319,0.110391 0.0275,0.223335 -0.0087,0.222717 -0.0748,0.40845 -0.230909,0.648574 -0.191909,0.295183 -0.490992,0.556945 -0.777908,0.680832 -0.215478,0.09304 -0.464808,0.126596 -0.609612,0.08204 z"/>
 <ellipse style="fill:#17191e" cx="11.422" cy="8.468" rx=".738" ry="1.009" transform="matrix(0.99856688,0.0535181,-0.13641489,0.99065179,0,0)"/>
 <path style="opacity:0.5;fill:none;stroke:#000000;stroke-linecap:round" d="m 8.5,11.5 c 0.529546,0.761905 0.8571432,1 2,1"/>
 <path style="fill:#17191e" d="M 13.677734 8.1054688 C 13.204599 9.0255884 12.986217 9.3385669 12.701172 9.7773438 A 0.73289472 1.0126032 13.17543 0 0 13.113281 10 A 0.73289472 1.0126032 13.17543 0 0 13.986328 9.0390625 A 0.73289472 1.0126032 13.17543 0 0 13.677734 8.1054688 z"/>
</svg>
