<svg xmlns="http://www.w3.org/2000/svg" width="16" height="16" version="1.1">
 <rect style="fill:#597f97" width="15" height="15" x="-16" y="-16" rx="1.125" ry="1.125" transform="matrix(0,-1,-1,0,0,0)"/>
 <path style="fill:#f4f4f7" d="m 7,3 v 3 h 3 V 3 Z m 4,0 v 3 h 3 V 3 Z M 3,7 v 3 H 6 V 7 Z m 4,0 v 3 h 3 V 7 Z m 4,0 v 3 h 3 V 7 Z m -8,4 v 3 h 3 v -3 z m 4,0 v 3 h 3 v -3 z"/>
</svg>
