<svg xmlns="http://www.w3.org/2000/svg" width="16" height="16" version="1.1">
 <circle style="fill:#4f4f4f" cx="8" cy="8" r="8"/>
 <circle style="fill:#17191e" cx="8" cy="8" r="6"/>
 <path style="fill:#afafb1" d="M 8,2 A 6,6 0 0 0 2,8 6,6 0 0 0 8,14 6,6 0 0 0 14,8 6,6 0 0 0 8,2 Z M 7.9316406,3 A 5.0002129,5.0002129 0 0 1 8,3 5.0002129,5.0002129 0 0 1 9.5429688,3.2460938 L 8.8339844,4.6679688 8,6.3320312 7.1660156,4.6679688 6.4589844,3.2480469 A 5.0002129,5.0002129 0 0 1 7.9316406,3 Z M 5.7285156,3.5449219 6.2324219,5.0546875 6.8203125,6.8203125 5.0546875,6.2324219 3.5507812,5.7304688 A 5.0002129,5.0002129 0 0 1 4.515625,4.4121094 5.0002129,5.0002129 0 0 1 5.7285156,3.5449219 Z m 4.5410154,0.00586 a 5.0002129,5.0002129 0 0 1 1.31836,0.9648438 5.0002129,5.0002129 0 0 1 0.867187,1.2128906 L 10.945312,6.2324219 9.1796875,6.8203125 9.7675781,5.0546875 10.269531,3.5507812 Z M 3.2460938,6.4570312 4.6679688,7.1660156 6.3320312,8 4.6679688,8.8339844 3.2480469,9.5429688 A 5.0002129,5.0002129 0 0 1 3,8 5.0002129,5.0002129 0 0 1 3.2460938,6.4570312 Z m 9.5058592,0.00195 A 5.0002129,5.0002129 0 0 1 13,8 5.0002129,5.0002129 0 0 1 12.753906,9.5429688 L 11.332031,8.8339844 9.6679688,8 11.332031,7.1660156 12.751953,6.4589844 Z M 7.96875,6.75 A 0.41668441,0.41668441 0 0 1 8,6.75 0.41668441,0.41668441 0 0 1 8.4160156,7.1660156 0.41668441,0.41668441 0 0 1 8,7.5839844 0.41668441,0.41668441 0 0 1 7.5839844,7.1660156 0.41668441,0.41668441 0 0 1 7.96875,6.75 Z M 7.1386719,7.5839844 a 0.41668441,0.41668441 0 0 1 0.027344,0 A 0.41668441,0.41668441 0 0 1 7.5839844,8 0.41668441,0.41668441 0 0 1 7.1660156,8.4160156 0.41668441,0.41668441 0 0 1 6.75,8 0.41668441,0.41668441 0 0 1 7.1386719,7.5839844 Z m 1.6640625,0 a 0.41668441,0.41668441 0 0 1 0.03125,0 A 0.41668441,0.41668441 0 0 1 9.25,8 0.41668441,0.41668441 0 0 1 8.8339844,8.4160156 0.41668441,0.41668441 0 0 1 8.4160156,8 0.41668441,0.41668441 0 0 1 8.8027344,7.5839844 Z M 8,8.4160156 A 0.41668441,0.41668441 0 0 1 8.4160156,8.8339844 0.41668441,0.41668441 0 0 1 8,9.25 0.41668441,0.41668441 0 0 1 7.5839844,8.8339844 0.41668441,0.41668441 0 0 1 8,8.4160156 Z M 6.8203125,9.1796875 6.2324219,10.945312 5.7304688,12.449219 A 5.0002129,5.0002129 0 0 1 4.4121094,11.484375 5.0002129,5.0002129 0 0 1 3.5449219,10.271484 L 5.0546875,9.7675781 6.8203125,9.1796875 Z m 2.359375,0 1.7656245,0.5878906 1.503907,0.5019529 a 5.0002129,5.0002129 0 0 1 -0.964844,1.31836 5.0002129,5.0002129 0 0 1 -1.212891,0.867187 L 9.7675781,10.945312 9.1796875,9.1796875 Z M 8,9.6679688 8.8339844,11.332031 9.5410156,12.751953 A 5.0002129,5.0002129 0 0 1 8,13 5.0002129,5.0002129 0 0 1 6.4570312,12.753906 L 7.1660156,11.332031 8,9.6679688 Z"/>
 <circle style="fill:#cc8e31" cx="11.5" cy="11.5" r="4.5"/>
 <path style="fill:#f4f4f7;fill-rule:evenodd" d="m 11.5,8.9999996 c 0,0 -0.354375,-0.007 -0.723635,0.17775 C 10.40711,9.3623496 10,9.8333505 10,10.5 l 1,0 c 0,-0.500001 0.5,-0.500001 0.5,-0.500001 0,0 0.5,0 0.5,0.500001 0,0.2639 -0.0698,0.41145 -0.203125,0.578099 -0.133325,0.166701 -0.34668,0.334 -0.59668,0.5215 -0.25,0.1875 -0.536645,0.395201 -0.77832,0.6973 C 10.1802,12.59895 10,13.0139 10,13.5 l 0,0.5 3,0 0,-1 -1.82422,0 c 0.01565,-0.022 0.0094,-0.0556 0.02735,-0.0781 0.133325,-0.1667 0.34668,-0.334 0.59668,-0.5215 0.25,-0.1875 0.536645,-0.3952 0.77832,-0.6973 0.241675,-0.30205 0.421875,-0.717 0.421875,-1.2031 0,-0.6666495 -0.40711,-1.1376504 -0.776365,-1.3222504 C 11.854375,8.9930996 11.5,8.9999996 11.5,8.9999996 Z"/>
</svg>
