<svg width="16" height="16" version="1.1" xmlns="http://www.w3.org/2000/svg">
 <path d="m5 0c-0.359926-9.6888889e-5 -0.9008933 0.16135378-1.1289066 0.43984356l-3.5999994 4.4c-0.27461533 0.3358444-0.346602 0.7937511-0.18828133 1.197656l3.6 9.2000004c0.1800627 0.459801 0.623386 0.762376 1.1171873 0.7625h6.4c0.493801-1.24e-4 0.937125-0.302699 1.117187-0.7625l3.6-9.2000004c0.158321-0.4039049 0.08633-0.8618116-0.18828-1.197656l-3.6-4.4c-0.228014-0.27848978-0.768981-0.43994045-1.128907-0.43984356l-3 6.8z" style="fill:#4f4f4f"/>
 <path d="M 5,0 3.2,2.4 4.8,3.6 4,4.4 8,9 12,4.4 11.2,3.6 12.8,2.4 11,0 H 8 Z" style="fill:#696969"/>
 <path d="m5 0h6l-3 9z" style="fill:#b2bfd9"/>
 <path d="m6 1 1.2 3-0.2 1.6v5.4l1 1 1-1v-5.4l-0.2-1.6 1.2-3z" style="fill:#d32a2c"/>
 <path d="m6 1 1.2 3h1.6l1.2-3z" style="opacity:.2"/>
 <path d="m5 0 1 3 2-1 2 1 1-3z" style="fill:#f4f4f7"/>
</svg>
