<svg xmlns="http://www.w3.org/2000/svg" width="16" height="16" version="1.1">
 <rect style="fill:#17191e" width="16" height="16" x="0" y="0" rx=".8" ry=".8"/>
 <circle style="fill:#fae71d" cx="8" cy="2" r="1"/>
 <circle style="fill:#fae71d" cx="4.5" cy="2" r="1"/>
 <circle style="fill:#fae71d" cx="11.5" cy="2" r="1"/>
 <rect style="fill:#fae71d" width=".889" height="4" x="4" y="2.18"/>
 <rect style="fill:#fae71d" width=".889" height="4" x="7.56" y="2.18"/>
 <rect style="fill:#fae71d" width=".889" height="4" x="11.11" y="2.18"/>
 <path style="fill:#f4f4f7" d="m 4,6 h 8 v 6.42241 L 8,15.016654 4,12.42241 Z"/>
 <rect style="opacity:0.675" width=".889" height="2.5" x="6.11" y="8.5"/>
 <rect style="opacity:0.675" width=".889" height="2.5" x="9" y="8.5"/>
 <rect style="fill:#fae71d" width="8" height="2" x="4" y="4"/>
 <path style="opacity:0.2" d="m 8,15.017578 4,-2.595703 V 6 4 2.8652344 C 12.309156,2.686743 12.499718,2.356983 12.5,2 c 0,-0.5522847 -0.447715,-1 -1,-1 -0.552285,0 -1,0.4477153 -1,1 -2.01e-4,0.4022821 0.240675,0.7655192 0.611328,0.921875 V 4 H 8.4453125 V 2.8945312 C 8.7848688,2.725654 8.9996799,2.3792333 9,2 9,1.4477153 8.5522847,1 8,1 8,1 8,15 8,15.017578 Z"/>
</svg>
