<svg width="16" height="16" version="1.1" xmlns="http://www.w3.org/2000/svg">
 <g>
  <path d="m2 15c0 1 1 1 1 1h7s1 0 1-1-1-1-1-1-3 0-3-2c0-3 4-3 4-3s2 0 2-3c0-4-2-5-2-5s-2-1-8-1c-0.4714045 0-1 0-1 1s0.6101695 1 1 1c1 0 1 1 1 1v10c0 1-1 1-1 1s-1 0-1 1z" style="fill:#ec4040"/>
  <path d="m6 8s5 0 5-3-5-3-5-3 1 2 1 3-1 3-1 3z" style="fill:#4f4f4f"/>
 </g>
 <circle cx="11.5" cy="11.5" r="4.5" style="fill:#42a1cd"/>
 <path d="m11.5 8.9999996s-0.354375-7e-3 -0.723635 0.17775c-0.369255 0.1846-0.776365 0.6556009-0.776365 1.3222504h1c0-0.500001 0.5-0.500001 0.5-0.500001s0.5 0 0.5 0.500001c0 0.2639-0.0698 0.41145-0.203125 0.578099-0.133325 0.166701-0.34668 0.334-0.59668 0.5215s-0.536645 0.395201-0.77832 0.6973c-0.241675 0.302051-0.421875 0.717001-0.421875 1.203101v0.5h3v-1h-1.82422c0.01565-0.022 0.0094-0.0556 0.02735-0.0781 0.133325-0.1667 0.34668-0.334 0.59668-0.5215s0.536645-0.3952 0.77832-0.6973c0.241675-0.30205 0.421875-0.717 0.421875-1.2031 0-0.6666495-0.40711-1.1376504-0.776365-1.3222504-0.369265-0.18465-0.72364-0.17775-0.72364-0.17775z" style="fill-rule:evenodd;fill:#f4f4f7"/>
</svg>
