<svg xmlns="http://www.w3.org/2000/svg" width="16" height="16" version="1.1">
 <g transform="translate(0,-1036.3622)">
  <path style="fill:#8e8e8e" d="M -9.9999776e-8,1036.3621 0.15233268,1039.5206 l 7.86286022,7.874 1.501917,-1.502 1.5019231,-1.5018 -7.8628598,-7.874 -3.15405114,-0.1526 z"/>
  <path style="opacity:0.3;fill:#f4f4f7" d="m -9.9999776e-8,1036.3621 c 0,0 9.414203599999774,9.4143 9.517107599999775,9.5305 l 1.5019235,-1.5018 -7.8628602,-7.874 -3.1540745,-0.1526 z"/>
  <path style="fill:#bc7538" d="m 12.086838,1049.3262 c -0.02366,0.024 -0.04368,0.049 -0.06255,0.076 0.02766,0.021 0.05357,0.051 0.08564,0.094 0.07192,0.097 0.263168,0.2413 0.424828,0.3209 0.428804,0.2112 1.127407,1.004 1.325257,1.5043 l 0.150826,0.3806 0.317087,0.062 c 0.421779,0.082 0.559588,0.1644 0.701589,0.421 0.146945,0.2654 0.606192,0.1762 0.886639,0.093 0.08285,-0.2808 0.171796,-0.7406 -0.09337,-0.8877 -0.256185,-0.1422 -0.338938,-0.2798 -0.420404,-0.7022 l -0.06076,-0.3182 -0.380607,-0.1508 c -0.49961,-0.1981 -1.291767,-0.8975 -1.502613,-1.3269 -0.07949,-0.1619 -0.223748,-0.3534 -0.320419,-0.4254 -0.04711,-0.035 -0.07718,-0.064 -0.09778,-0.095 l -0.953489,0.9536 z"/>
  <path style="fill:#f4955b" d="m 11.853459,1039.3559 c -0.145535,-0.019 -0.4268,0.4523 -0.613282,0.9896 -0.253119,0.7292 -0.287077,0.5509 -0.167968,1.175 0.139761,0.7323 0.28987,0.9159 -0.142969,0.8687 -0.398363,-0.043 -0.480356,0.01 -0.189063,0.1164 0.13219,0.05 0.246176,0.1623 0.423438,0.4203 0.190817,0.2778 0.443779,0.6737 0.447318,0.9715 0.0025,0.2082 -0.02579,0.4376 -0.06328,0.5101 -0.08505,0.1643 -0.330856,0.1374 -0.525781,-0.058 l -0.140625,-0.1406 -0.290625,0.3515 c -0.378505,0.4572 -0.6699149,0.5993 -1.2296867,0.5993 -0.2460499,-10e-5 -0.4709358,0.024 -0.4999998,0.053 -0.02908,0.029 -0.053122,0.2544 -0.053125,0.5008 5.6e-6,0.5605 -0.1419603,0.8521 -0.5984369,1.2312 l -0.3507815,0.2914 0.1406252,0.1406 c 0.1949251,0.1952 0.2219483,0.4407 0.057812,0.5258 -0.072596,0.038 -0.1421067,0.066 -0.3499998,0.064 -0.2973911,0 -0.8526949,-0.2561 -1.130076,-0.4472 -0.2576431,-0.1775 -0.370871,-0.2911 -0.4203122,-0.4235 -0.1089204,-0.2917 -0.1589975,-0.2098 -0.1156252,0.1891 0.047137,0.4335 -0.1366627,0.2829 -0.867968,0.1429 -0.6231334,-0.1192 -0.444421,-0.085 -1.1726079,0.1688 -0.3832515,0.1334 -0.8305291,0.4126 -0.9339882,0.5117 -0.060799,0.061 -0.072626,0.1118 -0.028904,0.1555 0.03652,0.036 0.5078443,0.1267 0.803519,0.2 0.5327126,0.1321 0.5631022,0.4007 0.4839346,0.48 -0.02252,0.022 -0.3238234,0.1294 -0.5707777,0.2375 -0.2469763,0.108 -0.6780284,0.2268 -0.7144571,0.2633 -0.1875984,0.1879 0.8185746,0.3805 1.5407035,0.3344 0.2367191,-0.015 0.4463614,-0.011 0.4664062,0.01 0.052186,0.052 -0.4318006,0.4442 -0.7960936,0.6445 -0.4366527,0.2403 -0.4277383,0.3823 0.030468,0.4758 0.5197846,0.1059 0.9749237,0 1.4507807,-0.3289 0.7137617,-0.4981 1.0854891,-0.4096 0.6136557,0.3234 -0.2568711,0.3991 -0.3136259,0.5482 -0.3093747,0.8219 0.00288,0.1841 0.028004,0.3351 0.055469,0.3351 0.1311815,0 1.11543,-1.0261 1.3746247,-1.3429 0.3621662,-0.4428 0.3823474,-0.3793 0.2276211,0.1953 -0.060705,0.2253 -0.070923,0.5856 -0.071875,0.8023 l 0.03828,0.3914 0.3078127,-0.3078 c 0.3830902,-0.3835 0.7647429,-0.845 0.9567532,-1.3406 0.081346,-0.2099 0.1783787,-0.3744 0.2156247,-0.3656 0.037076,0.01 0.1240892,0.1583 0.1929687,0.332 0.068925,0.1738 0.2178447,0.4396 0.3312499,0.5906 0.1896219,0.2525 0.2151295,0.2662 0.3124999,0.1688 0.1741865,-0.1745 0.2904115,-0.5342 0.3781245,-1.1703 l 0.08281,-0.6016 0.34375,0.1242 c 0.297468,0.1073 0.400335,0.1011 0.770312,-0.046 0.298903,-0.1188 0.393082,-0.1483 0.471875,-0.089 0.01876,-0.026 0.03899,-0.052 0.0625,-0.075 l 0.953125,-0.9539 c 1.67e-4,2e-4 6e-4,5e-4 8e-4,8e-4 -0.05306,-0.078 -0.02418,-0.1733 0.09141,-0.4649 0.146925,-0.3705 0.153302,-0.4741 0.04609,-0.7719 l -0.124219,-0.3437 0.600781,-0.083 c 0.635256,-0.088 0.994553,-0.2045 1.16875,-0.3789 0.09737,-0.097 0.08326,-0.1227 -0.16875,-0.3125 -0.150789,-0.1136 -0.415553,-0.2631 -0.589063,-0.3321 -0.173567,-0.069 -0.323246,-0.1556 -0.332031,-0.1929 -0.0087,-0.037 0.15618,-0.1348 0.365625,-0.2164 0.494903,-0.1924 0.95525,-0.5746 1.338281,-0.9583 l 0.307812,-0.3078 -0.391405,-0.038 c -0.215322,-0.021 -0.575763,0.011 -0.800782,0.072 -0.573738,0.1549 -0.637413,0.1342 -0.195312,-0.2285 0.316413,-0.2595 1.340639,-1.2452 1.340625,-1.3767 -9.1e-5,-0.028 -0.150582,-0.052 -0.334375,-0.055 -0.273358,0 -0.422596,0.051 -0.821094,0.3086 -0.731942,0.4725 -0.819965,0.1017 -0.322656,-0.6131 0.331573,-0.4766 0.43471,-0.8534 0.328906,-1.374 -0.09322,-0.4587 -0.235034,-0.4679 -0.475,-0.03 -0.20018,0.3646 -0.59236,0.7699 -0.644531,0.7177 -0.02013,-0.02 -0.02366,-0.2302 -0.0086,-0.4672 0.04598,-0.7232 -0.146784,-1.7304 -0.334374,-1.5424 -0.03646,0.036 -0.154607,0.468 -0.2625,0.7153 -0.107882,0.2473 -0.214176,0.5482 -0.236719,0.5708 -0.07917,0.079 -0.349827,0.05 -0.481693,-0.4838 -0.07321,-0.2962 -0.162693,-0.7679 -0.199219,-0.8045 -0.01457,-0.015 -0.05227,0 -0.05312,-0.026 z m 3.487942,11.0141 0.06094,0.3188 c 0.02037,0.1055 0.04084,0.1926 0.06406,0.2671 -0.02317,-0.074 -0.04292,-0.1616 -0.06328,-0.2671 z m -1.330469,1.332 0,8e-4 0.266406,0.051 z m 1.989062,0.082 c 5.6e-4,0.1684 -0.04217,0.3541 -0.08359,0.4945 0.04143,-0.1404 0.08418,-0.3261 0.08359,-0.4945 z"/>
  <path style="fill:#f12a2a" d="m 9.0332102,1045.4328 c 0.1060894,0.204 0.1557213,0.4052 0.255217,1.0347 0.060678,0.3839 0.1079606,0.5516 0.189637,0.6727 0.099178,0.1471 0.2526743,0.2282 0.418976,0.2216 0.1118208,-0.01 0.1952348,-0.042 0.2779548,-0.1246 0.136375,-0.1363 0.166716,-0.327 0.08594,-0.54 -0.02312,-0.061 -0.03477,-0.1102 -0.02587,-0.1096 0.0089,0 0.04401,0.014 0.07802,0.03 0.147409,0.068 0.331057,0.071 0.45582,0.01 0.08459,-0.043 0.187007,-0.1703 0.213761,-0.2648 0.07448,-0.2631 -0.0949,-0.5061 -0.433902,-0.6225 -0.133229,-0.046 -0.234855,-0.066 -0.548325,-0.1097 -0.4382086,-0.061 -0.7419033,-0.1374 -0.9278079,-0.2333 -0.038242,-0.02 -0.070872,-0.034 -0.072509,-0.033 -0.00163,0 0.013253,0.034 0.033087,0.073 z"/>
 </g>
</svg>
