<svg width="16" height="16" version="1.1" xmlns="http://www.w3.org/2000/svg">
 <path d="m0 10s0-10 9-10c7 0 7 11 7 11s-0.187039 5-8.6206182 5c-6.3251844 0-7.3793818-6-7.3793818-6z" style="fill:#e04970"/>
 <path d="m 5.5097656,8.359375 a 3,3 0 0 0 -1.0332031,2.261719 3,3 0 0 0 3,3 3,3 0 0 0 3.0000005,-3 A 3,3 0 0 0 10,9 2.5,1.5 0 0 1 7.9765625,9.6210938 2.5,1.5 0 0 1 5.5097656,8.359375 Z" style="fill:#60010d"/>
 <ellipse cx="3.5" cy="6" rx="1.5" ry="2" style="fill:#60010d"/>
 <ellipse cx="13.5" cy="8" rx="1.5" ry="2" style="fill:#60010d"/>
 <circle cx="13.5" cy="7.5" r=".5" style="fill:#f4f4f7"/>
 <circle cx="3.5" cy="5.5" r=".5" style="fill:#f4f4f7"/>
 <ellipse cx="8" cy="12.5" rx="1" ry=".5" style="fill:#d52f45"/>
</svg>
