<svg width="16" height="16" version="1.1" xmlns="http://www.w3.org/2000/svg">
 <circle cx="8" cy="8" r="8" style="fill:#b2bfd9"/>
 <path d="m8 2-3 6 3 6 3-6z" style="fill:#72be45"/>
 <path d="m7 8h2l-1-6z" style="fill:#a7e077"/>
 <path d="m5 8 3 6-1-6zm3 6 3-6h-2z" style="fill:#008000;opacity:.4"/>
</svg>
