<svg xmlns="http://www.w3.org/2000/svg" width="16" height="16" version="1.1">
 <path style="fill:#17191e" d="M 1.0205528,1.6956175 0.96322785,3.3038745 1.594867,3.536373 0.94378845,3.8278305 1.5570524,4.1341865 0.93513295,4.5428508 1.5608126,4.6142958 0.98691855,5.0769522 l 0.00958,0.2654189 C 0.28954499,5.9714587 0.13785351,6.7588154 0.02746672,7.6239386 -0.30910479,10.323313 2.4865246,13.099735 6.2717056,13.825278 10.056901,14.5508 13.39827,12.950684 13.734881,10.25131 c 0.01473,-0.121265 0.02313,-0.243689 0.02519,-0.3670177 C 14.565347,8.8977338 15.395841,8.2356301 16,7.1283967 14.803403,6.9918967 13.756896,7.0054491 12.746948,7.0556033 13.309763,6.5479058 13.982679,5.6837649 14.545493,4.9683446 13.761414,5.3644827 13.009014,5.564506 12.536094,5.7272682 13.054503,5.0884929 13.526913,4.5162104 13.81824,3.8774356 L 11.681044,4.9952908 12.363733,3.5137992 C 11.299122,4.206997 10.57344,4.4934584 9.821245,4.8117464 9.08836,4.4649923 8.2993179,4.2070872 7.490643,4.0499705 6.4141082,3.843785 5.2210591,3.8213508 4.2176174,3.984485 2.7488422,2.5208499 1.9187106,2.2164695 1.0205528,1.6956175 Z"/>
 <path style="fill:#ffd357" d="m 7,8.38133 c 0,0 1.0394104,-1.902442 3.534929,-1.2420483 2.495518,0.6603938 2.465048,2.4930287 2.465048,2.4930287 0,0 -0.972296,1.8413346 -3.4333203,1.2509796 C 7.1056318,10.292934 7,8.38133 7,8.38133 Z"/>
 <path style="fill:#9f3820" d="m 11.47436,7.4992901 a 2.2499976,2.181818 0 0 0 -1.474363,2.0461643 2.2499976,2.181818 0 0 0 0.571288,1.4488636 c 1.722118,-0.03656 2.428708,-1.3622156 2.428708,-1.3622156 0,0 0.01617,-1.3308778 -1.525633,-2.1328123 z"/>
 <path style="fill:none;stroke:#a3cbcb;stroke-width:0.36363634;stroke-linecap:round" d="M 4.7827337,10.728731 3.1346226,10.325112"/>
 <path style="fill:none;stroke:#a3cbcb;stroke-width:0.36363634;stroke-linecap:round" d="M 4.5809243,11.234134 3.1178051,11.217317"/>
 <path style="fill:none;stroke:#a3cbcb;stroke-width:0.36363634;stroke-linecap:round" d="m 7.0299179,11.255189 2.152401,0.345089"/>
 <path style="fill:none;stroke:#a3cbcb;stroke-width:0.36363634;stroke-linecap:round" d="m 6.9121372,11.892477 1.3510087,0.654205"/>
 <path style="fill:none;stroke:#a3cbcb;stroke-width:0.36363634;stroke-linecap:round;stroke-linejoin:round" d="M 6.3299402,12.477747 C 6.1246885,12.084648 5.9227376,11.767473 5.6740591,10.375564 l 0.6726985,0.235445 C 5.9340933,11.307918 5.4924144,11.830738 5.0349955,12.25912"/>
 <path style="fill:none;stroke:#356373;stroke-width:0.36363634;stroke-linecap:round" d="M 6.6662896,6.6252703 6.212218,5.7003096"/>
 <path style="fill:none;stroke:#356373;stroke-width:0.36363634;stroke-linecap:round" d="M 7.1708132,5.4648653 7.3053528,4.5735399"/>
 <path style="fill:none;stroke:#356373;stroke-width:0.36363634;stroke-linecap:round" d="M 7.557615,6.3393732 8.1462262,5.5321351"/>
 <g transform="matrix(0.37499957,0,0,0.36363634,-0.96099871,-0.90908994)">
  <path style="fill:#ffd357" d="m 3,22.798658 c 0,0 2.7717638,-5.231718 9.426487,-3.415634 6.654721,1.816082 6.573466,6.855829 6.573466,6.855829 0,0 -2.59279,5.063673 -9.1555285,3.440195 C 3.2816852,28.055569 3,22.798658 3,22.798658 Z"/>
  <path style="fill:#9f3820" d="M 14.931641,20.373048 A 6,6 0 0 0 11,26.000001 6,6 0 0 0 12.523438,29.984376 C 17.115757,29.883837 19,26.238282 19,26.238282 c 0,0 0.04312,-3.659914 -4.068359,-5.865234 z"/>
 </g>
</svg>
