<svg width="16" height="16" version="1.1" xmlns="http://www.w3.org/2000/svg">
 <rect width="16" height="16" rx=".80000001" ry=".80000001" style="fill:#4f4f4f"/>
 <path d="m1 4v2h2v6h3v-6h2v6h2v-2h2l1 2h2l-1.012-3s1.012-0.4 1.012-2c0-3-2-3-4-3h-3zm9 2h2s1 0.2 1 1-1 1-1 1h-2z" style="fill:#f4f4f7"/>
</svg>
