<svg width="16" height="16" version="1.1" xmlns="http://www.w3.org/2000/svg">
 <path d="m0 3v11.2c0 0.44352 0.3565 0.8 0.8 0.8h14.4004c0.4432 0 0.7996-0.3564 0.7996-0.8v-11.2z" style="fill:#c7c7c7"/>
 <path d="M 0.8,1 C 0.35648,1 0,1.3566 0,1.7998 V 3 H 16 V 1.7998 C 16,1.3566 15.6436,1 15.2,1 Z" style="fill:#00caff"/>
 <rect x="4" y="5" width="6" height="8" style="fill:#f4b801"/>
 <path d="m6 4h6v4c0 3 2 4 2 4h-6s-2-1-2-4z" style="fill:#fecd38"/>
</svg>
