<svg xmlns="http://www.w3.org/2000/svg" width="16" height="16" version="1">
 <path style="fill:#f37b21" d="M 8,4e-8 C 3.5909,4e-8 0,3.591 0,8 c 4e-8,4.409 3.591,8 8,8 4.409,0 8,-3.591 8,-8 C 16,3.591 12.409,4e-8 8,4e-8 Z"/>
 <path style="fill:#f4f4f7" d="M 8,2 A 6,6 0 0 0 2,8 6,6 0 0 0 8,14 6,6 0 0 0 14,8 6,6 0 0 0 8,2 Z m -2.4067,1.7666 2.2991,0 2.6396,6.7134 1.1609,-0.37793 0.38672,1.3 -2.5034,0.72288 -1.6838,-4.2686 -2.469,3.8906 -1.5484,0 3.4483,-5.5686 -0.38672,-1.1001 -1.3433,0 0,-1.3118 z"/>
 <circle style="fill:#42a1cd" cx="11.5" cy="11.5" r="4.5"/>
 <path style="fill:#f4f4f7;fill-rule:evenodd" d="m 11.5,8.9999996 c 0,0 -0.354375,-0.007 -0.723635,0.17775 C 10.40711,9.3623496 10,9.8333505 10,10.5 l 1,0 c 0,-0.500001 0.5,-0.500001 0.5,-0.500001 0,0 0.5,0 0.5,0.500001 0,0.2639 -0.0698,0.41145 -0.203125,0.578099 -0.133325,0.166701 -0.34668,0.334 -0.59668,0.5215 -0.25,0.1875 -0.536645,0.395201 -0.77832,0.6973 C 10.1802,12.59895 10,13.0139 10,13.5 l 0,0.5 3,0 0,-1 -1.82422,0 c 0.01565,-0.022 0.0094,-0.0556 0.02735,-0.0781 0.133325,-0.1667 0.34668,-0.334 0.59668,-0.5215 0.25,-0.1875 0.536645,-0.3952 0.77832,-0.6973 0.241675,-0.30205 0.421875,-0.717 0.421875,-1.2031 0,-0.6666495 -0.40711,-1.1376504 -0.776365,-1.3222504 C 11.854375,8.9930996 11.5,8.9999996 11.5,8.9999996 Z"/>
</svg>
