<svg width="16" height="16" version="1.1" xmlns="http://www.w3.org/2000/svg">
 <path d="m5 16h5s1 0 1-1 2-10 2-10l-8-1s-2 12 0 12z" style="fill:#df8028"/>
 <path d="m3 10c1.490712 2.981424 4.6666667 5 8 5 4 0 5-4 5-4s-1-3-1-4 1-2 1-2-2-5-6-5-6 3-6 3l-1 3s-0.4472136 3.1055728 0 4z" style="fill:#f8bb07"/>
 <path d="m1 7s0 1 1 2h3l2-4v4l3 3c1.154761 1.154761 3-1 3-1s1 4-4 4c-1.7950549 0-2-1-4-2-1 0-3.1870391 0-4-1-1-2 0-5 0-5z" style="fill:#facd48"/>
 <ellipse cx="4" cy="6" rx="2" ry="3" style="fill:#f4f4f7"/>
 <ellipse cx="9.7539663" cy="7" rx="2.2460332" ry="3" style="fill:#f4f4f7"/>
 <ellipse cx="4" cy="5.5" rx="1" ry="1.5" style="fill:#4f4f4f"/>
 <ellipse cx="10" cy="6.5" rx="1" ry="1.5" style="fill:#4f4f4f"/>
</svg>
