<svg xmlns="http://www.w3.org/2000/svg" width="16" height="16" version="1">
 <rect style="fill:#68303e" width="16" height="16" x="0" y="0" rx=".8" ry=".8"/>
 <path style="fill:#f4f4f7" d="M 7.1942949,2.0000001 7.040673,2.0472201 C 6.8220955,2.0813001 6.7971111,2.2805323 6.7115759,2.4576446 6.5445068,2.7074491 6.5350546,2.8753012 6.6334414,3.1198175 6.7425629,3.3889656 6.8976737,3.6197736 7.0943117,3.8604019 l 0.322428,0.3942365 v 0.095936 0.095936 l -0.1914416,0.084244 -0.191289,0.084392 -0.3607419,0.049916 C 6.4383916,4.6839843 6.399959,4.7107349 6.308981,4.903703 6.2060887,5.0569152 6.2198017,5.2006594 6.2192266,5.3764877 L 6.2183695,5.6606957 6.0990063,6.082812 C 5.908313,6.5883327 5.9855831,7.1274811 5.9904971,7.6561575 c -0.00802,0.5319365 -0.075645,1.0047931 0.1950078,1.4646696 0.098615,0.1588359 0.1105817,0.31344 0.30693,0.31344 0.2049892,0.031479 0.09679,-0.1542441 0.073633,-0.294252 C 6.5494782,8.9536469 6.4330628,8.8457626 6.6519471,8.8457626 6.8284975,8.8630041 6.7759015,8.812124 6.7320878,8.6730783 6.7114049,8.5387263 6.6457422,8.4652263 6.5570759,8.3675823 6.4472309,8.2576181 6.4214935,8.253194 6.5139796,8.1373378 6.6670469,7.9567177 6.6500918,7.6883496 6.6874444,7.4642895 L 6.7833951,6.888673 6.8390472,6.6259008 C 6.8708601,6.4912364 6.9281987,6.3796282 7.0670983,6.3356923 l 0.086809,-0.027441 0.2505035,0.4544928 c 0.1787799,0.2484879 0.250503,0.445884 0.250503,0.7346606 0.03309,0.2215642 -0.025727,0.3156682 -0.1506724,0.4880684 C 7.3362904,8.1550365 7.3363937,8.329049 7.3081457,8.5522452 L 7.262727,8.9111056 6.9103782,9.473226 c -0.2429991,0.2994403 -0.3533571,0.5703 -0.4049027,0.932677 l -0.052704,0.370553 -0.2729807,0.292152 c -0.2740604,0.216103 -0.2978744,0.422411 -0.3590161,0.742004 l -0.086036,0.449696 -0.087424,0.153949 -0.087587,0.153796 -0.00587,0.306992 c -0.077689,0.221081 0.046015,0.281131 0.1074446,0.441304 0.1885054,0.323813 0.7062729,0.802545 1.1266501,0.656713 l -0.049746,-0.157843 -0.054411,-0.172684 -0.113163,-0.124715 -0.1130053,-0.124869 -0.04666,-0.278065 -0.04666,-0.278212 h 0.082007 0.082002 L 6.7013132,12.280246 C 6.7614622,11.91941 6.891142,11.706733 7.1389189,11.455201 7.3750562,11.277921 7.4252488,11.106644 7.496852,10.841213 L 7.590014,10.495844 7.760066,10.227224 7.9299607,9.9586037 8.1979825,9.6713953 c 0.2461972,-0.2269719 0.409395,-0.4722802 0.409395,0.0168 -0.031436,0.2191204 0.075003,0.3886487 0.1619945,0.5850607 0.2027473,0.324332 0.1258243,0.452136 -0.012699,0.782173 -0.210474,0.340672 -0.14781,0.585756 -0.08805,0.959208 l 0.086962,0.542485 -0.1137793,0.212709 c -0.158904,0.255064 -0.149295,0.444087 0.012244,0.667352 l 0.1261845,0.174184 -0.044023,0.110776 c -7.285e-4,0.307533 0.3173821,0.249559 0.5343768,0.250933 h 1.389829 c -0.0132,-0.289312 -0.644375,-0.395485 -0.9121113,-0.433513 L 9.6433636,13.417247 9.5385735,13.295079 9.5139178,12.778074 9.4894293,12.26107 9.6091031,11.748413 9.7287719,11.235609 C 9.9612031,11.087077 9.9230146,11.010337 9.8698357,10.744537 L 9.8047409,10.419109 9.7957666,9.6132476 9.7866251,8.8073866 9.7306666,8.212586 C 9.7726537,8.0284738 9.512288,7.6177853 9.7808921,7.6177853 l 0.048211,0.1214165 0.048207,0.1214199 v 0.2215521 c 0.00733,0.1714162 -0.05701,0.2426885 0.1269579,0.1744843 l 0.127112,-0.04722 0.07023,0.1071802 0.07006,0.1070282 0.0013,0.17718 c 0.01299,0.1160722 -0.04993,0.2079643 0.0806,0.1298122 l 0.07937,-0.047368 0.0025,-0.2065603 0.0025,-0.2065642 0.116571,0.1490002 c 0.06871,0.057789 0.116576,0.2270842 0.116576,0.069104 0.0087,-0.113736 -0.04974,-0.2179363 -0.08774,-0.3233323 -0.04124,-0.1741603 -0.07867,-0.2385484 -0.230748,-0.3173362 l -0.143078,-0.074052 0.04139,-0.2981482 C 10.351925,7.1250413 10.145571,6.851053 10.002886,6.5340125 L 9.7136219,5.9764963 9.5612403,5.6694998 9.4087065,5.3625077 9.3547622,5.0666035 C 9.3359822,4.7869113 9.2855089,4.764515 9.0360478,4.6636751 8.8807468,4.5756869 8.7471705,4.5566467 8.5747227,4.5566467 H 8.3783204 L 8.254771,4.3005105 8.1312262,4.1299224 V 4.0371345 3.9441988 L 8.2899601,3.8954822 C 8.5386233,3.8583208 8.4486949,3.648646 8.4486949,3.4445817 8.4705349,3.2132136 8.4704106,3.0700373 8.3321238,2.8932532 L 8.2155528,2.7442531 8.2130671,2.5715688 C 8.2354471,2.4047409 8.1734414,2.3629483 8.0575921,2.2509322 7.9228831,2.072412 7.7636641,2.0825803 7.5494546,2.051568 Z"/>
</svg>
