<svg width="16" height="16" version="1.1" xmlns="http://www.w3.org/2000/svg">
 <rect width="16" height="16" rx="1" ry="1" style="fill:#b2bfd9"/>
 <path d="m8.0000003 4s-1.6470589 2.4352947-4.1176473 3.2588242c0 2.0588236 1.2352942 3.7058818 1.2352942 3.7058818s-0.4117647-0.823529-0.4117647-2.8823524c2.4705883-0.8235294 3.2941178-2.058824 3.2941178-2.058824s0.8235294 1.2352946 3.2941177 2.058824c0 2.0588234-0.411765 2.8823524-0.411765 2.8823524s1.235294-1.6470582 1.235294-3.7058818c-2.4705878-0.8235295-4.1176467-3.2588242-4.1176467-3.2588242zm0 2.8470595s-1.2352942 1.2352941-2.8823531 2.0588236c0 1.6470579 0.8235295 2.4705879 0.8235295 2.4705879s-0.4117647-0.82353-0.4117647-2.0588232c1.6470588-0.4117647 2.4705883-1.2352942 2.4705883-1.2352942s0.8235294 0.8235295 2.4705887 1.2352942c0 1.2352932-0.411765 2.0588232-0.411765 2.0588232s0.823529-0.82353 0.823529-2.4705879c-1.6470586-0.8235295-2.8823527-2.0588236-2.8823527-2.0588236zm-4.9411768 1.2352941s-0.4117647 0.8235295-2.0588235 0.8235295c0.8235294 0.8235294 1.1472352 2.8881759 1.1472352 2.8881759l0.8235295 0.205882s0.088059-0.211705-0.7354706-2.2705285c0.8235294-0.4117647 1.2352942-0.8235294 1.2352942-0.8235294zm9.8823535 0-0.411765 0.8235295s0.411765 0.4117647 1.235294 0.8235294c-0.823529 2.0588235-0.735471 2.2705285-0.735471 2.2705285l0.82353-0.205882s0.323706-2.0646465 1.147236-2.8881759c-1.647059 0-2.058824-0.8235295-2.058824-0.8235295zm-4.9411767 0.8235295s-0.4117647 0.617647-2.0588236 1.4411769c0 1.029411 0.8235294 1.65294 0.8235294 1.65294s-0.4117647-0.623529-0.4117647-1.447059c1.2352942-0.411764 1.6470589-0.8235285 1.6470589-0.8235285s0.4117647 0.4117645 1.6470589 0.8235285c0 0.82353-0.4117648 1.447059-0.4117648 1.447059s0.8235296-0.623529 0.8235296-1.65294c-1.647059-0.8235299-2.0588237-1.4411769-2.0588237-1.4411769zm-4.3235297 0.8235294s-0.2058823 0.1833505-0.6176471 0.2058825c0.4117648 0.617647 0.8235295 1.647058 0.8235295 1.647058l0.4117648 0.205883s-0.5390565-1.083036-0.8235295-1.647059h0.4117647zm8.6470594 0-0.205883 0.4117645h0.411765c-0.284473 0.564023-0.823529 1.647059-0.823529 1.647059l0.411764-0.205883s0.411765-1.029412 0.82353-1.647058c-0.411765-0.022532-0.617647-0.2058825-0.617647-0.2058825z" style="fill:#277390"/>
</svg>
