<svg width="16" height="16" version="1.1" xmlns="http://www.w3.org/2000/svg">
 <path d="m0 0v3h1v2h1l1 5h4v-2h-1l-1-3v-2h1v-3h-1v1h-1v-1h-1-1v1h-1v-1h-1zm10 0v3h1v2l-1 3h-1v2h4l1-5h1v-2h1v-3h-1v1h-1v-1h-1-1v1h-1v-1h-1z" style="fill:#32476b"/>
 <path d="m6 10-1-5v-1h6v1l-1 5z" style="fill:#43668f"/>
 <path d="m7 8s0-1 1-1 1 1 1 1v3h-2z" style="fill:#f4f4f7"/>
 <rect y="10" width="16" height="6" ry="1" style="fill:#856fbb"/>
 <path d="m1 10c-0.554 0-1 0.446-1 1v2h2v-1h2v2h2v-2h2v1h2v-1h2v2h2v-2h2v-1c0-0.554-0.446-1-1-1h-14z" style="fill:#8dff2b"/>
 <path d="m0 0v3h1 4 1v-3h-1v1h-1v-1h-1-1v1h-1v-1h-1zm10 0v3h1 4 1v-3h-1v1h-1v-1h-1-1v1h-1v-1h-1z" style="fill:#456294"/>
 <path d="m4 5h8v-3h-1v1h-2v-1h-2v1h-2v-1h-1z" style="fill:#5491ba"/>
</svg>
