<svg xmlns="http://www.w3.org/2000/svg" width="16" height="16" version="1.1">
 <path style="fill:#4f4f4f" d="M 6.9535381,0 A 0.86015362,0.91885056 0 0 0 6.199399,0.47713716 L 3.1058122,6.4959808 a 0.86015362,0.91885056 0 0 0 0.00322,0.8892728 L 7.3620028,15.528395 A 0.86015362,0.91885056 0 0 0 8.1135521,16 H 8.8864635 A 0.86015362,0.91885056 0 0 0 9.6380128,15.528395 L 13.890966,7.3852536 a 0.86015362,0.91885056 0 0 0 0.0032,-0.8892728 L 10.800616,0.47713716 A 0.86015362,0.91885056 0 0 0 10.046478,0 Z"/>
 <path style="fill:#f4f4f7" d="M 7.4500034,2.2981782 5,7.0496969 7.4500002,11.801215 V 9.9006083 C 6.9998102,9.8501933 6.8707952,9.6243883 6.8408856,9.2891059 6.8062882,8.9012918 7.0876868,8.596791 6.9542667,8.2878612 7.4741975,8.4268129 7.4871082,8.6480593 7.6173506,8.9750509 7.6818408,8.7467606 7.6635415,8.580622 7.6448361,8.4340057 8.3199359,8.7584155 8.5110759,9.1242986 8.5019329,9.9050933 8.4994829,10.113785 7.9677887,10.784755 7.9780966,10.98376 c 0.010308,0.199005 0.2136005,0.423915 0.2370609,0.590797 0.023048,0.163949 -0.3951021,0.378064 -0.3951021,0.705913 0,0.310804 0.6799447,1.421353 0.6799447,1.421353 l 0.7000002,-1.267071 c -0.3717323,0.215529 -0.611988,0.235716 -0.7860427,0.226345 -0.2493737,0.01302 -0.3779192,-0.236643 -0.3441705,-0.389364 0.053361,-0.241474 0.4302127,-0.521537 0.4302127,-0.700857 0,-0.214162 -0.1542871,-0.350797 -0.1371091,-0.559131 C 8.3800687,10.803412 9.1261775,10.210826 9.0534612,9.7710723 8.9399107,9.0843716 8.7908478,8.6897082 9.4004607,8.4029108 9.3238211,8.6390643 9.370462,8.7764319 9.4107685,9.0061455 9.4834356,8.5649919 9.7013106,8.5067314 10.066981,8.2567663 9.9613053,8.7280651 10.177369,8.9053871 10.163176,9.261121 10.148984,9.6168553 9.7756726,9.8927543 9.5500006,9.9006083 v 0.9503037 c 0.150653,-0.07512 0.2116339,1.1e-4 0.3499994,0 L 12,7.0496969 9.5500004,2.2981782 V 2.931714 C 9.3347895,3.0585537 9.3177551,3.1474455 9.3236812,3.3528141 c 0,0 0.1198131,-0.1136605 0.2263191,-0.1043323 0.1065054,0.00933 0.6965637,1.7451347 0.6999997,1.9006077 -5e-6,0.1927861 -0.6999996,0.3167676 -0.6999996,0.633536 0.1681939,-0.1520541 0.4437091,-0.1006871 0.6948126,0.00451 0.195243,0.081791 0.344385,0.9735188 0.371871,1.1569767 -0.0068,0.1865676 -0.226755,0.3513684 -0.501608,0.354478 C 9.8402218,7.3017207 9.7165381,7.2550545 9.7131029,7.1431142 9.7096729,7.0311731 10.066976,6.7357752 10.066976,6.7357752 9.6573754,6.7154126 9.4742474,6.9711878 9.321436,7.1524423 9.3418235,7.0436113 9.3626506,6.9658744 9.3832845,6.8725912 9.1749446,6.9089834 9.0782973,7.0572123 9.0019251,7.177318 8.8983602,6.9351929 8.2841261,6.3483981 8.2941747,6.1361174 8.2565482,5.787343 9.4197094,5.8092565 9.5432615,4.9980565 9.5364015,4.6902204 9.2205712,4.4738166 8.9297745,4.40415 8.6961484,4.3481802 8.6205637,4.3295231 8.6205637,4.3295231 8.7774376,4.2531212 9.2482737,4.0349816 9.1359129,3.7325074 9.0926575,3.8519228 9.0392128,4.0032488 8.5552849,4.027906 8.0604492,3.8121251 8.1247244,3.4882117 8.2048498,3.225666 7.8785735,3.441171 7.9270533,3.6510055 8.0090166,3.9594976 c 0.023289,0.152362 -0.1498342,0.2801609 -0.2003704,0.381215 0.01,0.1272586 0.018067,0.2656433 -0.06074,0.3246315 C 7.5520552,4.8587559 7.7911788,5.1533563 7.9025046,5.134872 7.8872516,4.7525064 8.3151886,4.6035919 8.486568,4.5627323 8.7682935,4.5627291 9.2752745,4.8239267 9.2718393,5.0136035 9.2684093,5.2032804 8.9297699,5.3898476 8.5106179,5.5173353 8.0914665,5.6448231 7.7547704,5.8127336 7.765078,6.2231821 7.7781994,6.6242921 7.9861452,7.076994 8.0261885,7.1866458 7.8864627,7.0651036 7.8094607,6.8893043 7.6070372,6.8632627 7.6553059,6.956393 7.70512,7.0599695 7.7479077,7.1679891 7.5360407,6.8577775 7.3168263,6.7674136 6.9336531,6.7202274 7.6074991,7.2071303 7.1419084,7.3089036 6.8924294,7.3048054 6.6545131,7.3008996 6.3589661,7.2130527 6.3908223,6.9627652 6.4099953,6.8121291 6.5173365,5.8975079 6.7622994,5.787916 7.0205439,5.6723818 7.2924266,5.6787023 7.4500002,5.782624 c 0,-0.3167676 -0.704562,-0.4899811 -0.7000001,-0.6335359 0.00455,-0.1435544 0.5880546,-1.9006074 0.7000001,-1.9006074 0.1119453,0 0.1514824,0.021211 0.2187499,0.1138383 0.064012,-0.3001225 -0.147217,-0.3227135 -0.2187499,-0.4306065 3.4e-6,-0.074627 0,-0.6335358 0,-0.6335358 z"/>
</svg>
