<svg xmlns="http://www.w3.org/2000/svg" width="16" height="16" version="1.1">
 <rect style="fill:#b2bfd9" width="14" height="14" x="1" y="2" rx="1.235" ry="1.167"/>
 <rect style="fill:#2ea881" width="16" height="3" x="0" y="0" rx="1.333" ry="1.125"/>
 <circle style="fill:#ff4f4f" cx="3.5" cy="8.5" r="1.5"/>
 <rect style="fill:#ff4f4f" width="7" height="1" x="6" y="8"/>
 <rect style="opacity:0.3" width="8" height="1" x="5" y="5"/>
 <circle style="fill:#f4f4f7" cx="3.5" cy="8.5" r=".5"/>
 <rect style="opacity:0.3" width="1" height="1" x="3" y="5"/>
 <rect style="opacity:0.3" width="8" height="1" x="5" y="11"/>
 <rect style="opacity:0.3" width="1" height="1" x="3" y="11"/>
 <rect style="opacity:0.3" width="8" height="1" x="5" y="13"/>
 <rect style="opacity:0.3" width="1" height="1" x="3" y="13"/>
</svg>
