<svg xmlns="http://www.w3.org/2000/svg" width="16" height="16" version="1.1">
 <rect style="fill:#373548" width="16" height="16" x="0" y="0" rx=".8" ry=".8"/>
 <path style="fill:#306082" d="M 16,4.4179688 A 10.291262,7.8022948 0 0 0 7.2257812,12.128125 10.291262,7.8022948 0 0 0 8.5976564,16 H 15.2 c 0.4432,0 0.8,-0.3568 0.8,-0.8 z"/>
 <path style="fill:#6abe30" d="M 9.6093752,8.3851564 C 7.9760636,8.4464436 8.0955468,8.9308548 7.1101564,9.4257812 6.76231,9.6004924 6.1662156,9.6883544 5.8234376,9.8968752 3.8797312,11.079283 2.1434448,12.738795 2.0367188,14.122656 1.9802858,14.854394 2.3889778,15.479543 3.0640624,16 H 15.2 C 15.6432,16 16,15.6432 16,15.2 V 11.416406 C 14.119736,9.7391028 11.4419,8.3163936 9.6093752,8.3851564 Z"/>
 <path style="fill:#37946e" d="M 6.8015624,9.9976564 C 5.5591168,9.9665404 4.4388052,10.231645 3.75625,10.955469 2.467984,12.321625 0.83104152,13.101176 1.3882812,14.522656 1.497835,14.80212 2.0570681,15.336087 2.8820312,16 H 14.707031 C 14.184903,14.528836 13.664916,13.260149 13.438281,12.782812 12.862177,11.569424 9.5349432,10.066116 6.8015624,9.9976564 Z"/>
 <path style="fill:#306082" d="M 1.4203125,9.6671876 C 0.85308352,9.638524 0.39883052,10.04946 0,10.605469 V 15.2 C 0,15.6432 0.3568,16 0.8,16 H 9.8929688 C 9.3947092,14.308989 8.6477576,12.816167 7.8132812,12.038281 6.8385332,11.129637 3.7385316,10.694238 1.9671875,9.8195312 1.7739206,9.7240944 1.5920603,9.6758664 1.4203125,9.6671876 Z"/>
 <path style="fill:#d95763" d="M 0.69765624,9.5328124 A 4.4195616,6.5749416 5.9096559 0 0 0,9.6156248 V 15.2 C 0,15.6432 0.3568,16 0.8,16 H 4.7328124 A 4.4195616,6.5749416 5.9096559 0 0 3.3656248,10.979688 4.4195616,6.5749416 5.9096559 0 0 0.69765624,9.5328124 Z"/>
 <path style="fill:#ac3232" d="M 0.08984376,9.2625 C 0.06006416,9.2637624 0.0299146,9.2683468 0,9.2703124 V 15.2 C 0,15.6432 0.3568,16 0.8,16 H 1.4242188 C 1.3554419,15.69052 1.3752536,15.428472 1.5382812,15.255469 2.4713492,14.265307 3.5103648,12.297262 2.9531248,10.875781 2.5351952,9.8096708 1.3791462,9.2078476 0.08984376,9.2625 Z"/>
 <path style="fill:#76428a" d="M 0,8.7445312 V 13.885938 A 2.7645189,3.4 68.594142 0 0 1.7882812,10.240625 2.7645189,3.4 68.594142 0 0 0,8.7445312 Z"/>
 <path style="fill:#99e550" d="M 9.6093752,8.3851564 C 7.9760636,8.4464436 8.0955468,8.9308548 7.1101564,9.4257812 6.76231,9.6004924 6.1662156,9.6883544 5.8234376,9.8968752 c -0.039536,0.024052 -0.077053,0.051342 -0.1164064,0.075781 0.6340996,0.1529918 1.4558456,0.2484378 2.3664064,0.2484378 1.9888104,0 6.6818414,2.867859 6.7781244,2.330468 0.23565,-1.315238 -0.362514,-2.246998 -1.309374,-2.8992186 C 13.048225,9.3688492 12.547393,9.1223444 12.055469,8.9226564 11.325859,8.662252 10.553236,8.4913412 9.84375,8.3875 9.7649416,8.3853 9.6853916,8.382304 9.6093752,8.38514 Z"/>
 <path style="fill:#fbf236" d="M 9.6093752,8.3851564 C 7.9760636,8.4464436 8.0955468,8.9308548 7.1101564,9.4257812 6.76231,9.6004924 6.1662156,9.6883544 5.8234376,9.8968752 c -0.041327,0.02514 -0.08075,0.053342 -0.1218752,0.078906 A 3.601059,0.98852604 0 0 0 8.0734376,10.221094 3.601059,0.98852604 0 0 0 11.674219,9.2328124 3.601059,0.98852604 0 0 0 9.9382812,8.3890624 c -0.1120836,-0.00586 -0.2222276,-0.00791 -0.328906,-0.00392 z"/>
 <rect style="fill:#f4f4f7" width="2" height="1" x="2" y="6"/>
 <rect style="fill:#f4f4f7" width="1" height="3" x="3" y="3"/>
 <rect style="fill:#f4f4f7" width="2" height="1" x="4" y="3"/>
 <rect style="fill:#f4f4f7" width="1" height="2" x="6" y="4"/>
 <rect style="fill:#f4f4f7" width="1" height="1" x="5" y="6"/>
 <rect style="fill:#f4f4f7" width="1" height="1" x="7" y="3"/>
 <rect style="fill:#f4f4f7" width="6" height="1" x="7" y="6"/>
 <rect style="fill:#f4f4f7" width="1" height="3" x="9" y="3"/>
 <rect style="fill:#f4f4f7" width="1" height="3" x="11" y="3"/>
 <rect style="fill:#f4f4f7" width="1" height="3" x="13" y="3"/>
 <rect style="fill:#f4f4f7" width="1" height="2" x="9" y="0"/>
</svg>
