<svg xmlns="http://www.w3.org/2000/svg" width="16" height="16" version="1">
 <circle style="fill:#1ca4d4" cx="8" cy="8" r="8"/>
 <path fill="#f4f4f7" d="m8 3a5 5 0 0 0 -5 5 5 5 0 0 0 5 5 5 5 0 0 0 5 -5 5 5 0 0 0 -0.308 -1.707l0.01074-0.00781-0.02637-0.03711a5 5 0 0 0 -4.676 -3.2481zm0 0.5a4.5 4.5 0 0 1 3.9941 2.4307l-3.12 2.2295-5.3232 0.4834a4.5 4.5 0 0 1 -0.0508 -0.6436 4.5 4.5 0 0 1 4.5 -4.5zm4.2695 3.0947a4.5 4.5 0 0 1 0.23 1.4053 4.5 4.5 0 0 1 -1.304 3.163l-1.7165-2.5751 2.7905-1.9932zm-3.4453 2.2725 1.8369 2.7549a4.5 4.5 0 0 1 -2.662 0.878 4.5 4.5 0 0 1 -4.293 -3.167l5.1172-0.4658z"/>
 <circle fill="#f4f4f7" cx="3.5" cy="9" r="1"/>
 <circle fill="#f4f4f7" cx="11" cy="11.5" r="1"/>
 <circle fill="#f4f4f7" cx="12.5" cy="6" r="1"/>
 <circle fill="#f4f4f7" cx="9" cy="8.5" r="1"/>
</svg>
