<svg xmlns="http://www.w3.org/2000/svg" width="16" height="16" version="1">
 <path style="fill:#b2bfd9" d="M 8.0449219 1 C 7.1359428 0.9953448 6.2110346 1.1692688 5.3164062 1.5410156 C 1.7378924 3.0280727 0.053818355 7.1050799 1.5410156 10.683594 C 3.0280377 14.262107 7.1050795 15.946183 10.683594 14.458984 C 14.262107 12.972137 15.946182 8.8949201 14.458984 5.3164062 C 13.343849 2.6324858 10.771158 1.0140004 8.0449219 1 z M 8 4 A 3.9999998 3.9999998 0 0 1 12 8 A 3.9999998 3.9999998 0 0 1 8 12 A 3.9999998 3.9999998 0 0 1 4 8 A 3.9999998 3.9999998 0 0 1 8 4 z"/>
 <path style="fill:#e74c3c" d="M 8.0461305,9.471e-5 C 7.1580122,-0.0044839 6.2565113,0.15673842 5.3832153,0.49339245 A 0.66895307,0.6753941 0 0 0 4.9963152,1.3646619 L 6.1845453,4.514178 a 0.66895307,0.6753941 0 0 0 0.863085,0.3913645 C 7.3512907,4.7884643 7.6742149,4.7281549 7.999256,4.7277172 8.3240697,4.7289362 8.6454617,4.790089 8.9486493,4.9077745 A 0.66895307,0.6753941 0 0 0 9.8132227,4.5178984 L 11.003685,1.3639178 A 0.66895307,0.6753941 0 0 0 10.616041,0.49190435 C 9.8048399,0.17997788 8.9366262,0.00468525 8.0461305,9.471e-5 Z M 1.1206171,4.952417 A 0.6753941,0.66895307 0 0 0 0.49339245,5.3832153 C 0.15673853,6.2565113 -0.00448428,7.1580122 9.471e-5,8.0461305 0.00468551,8.9366262 0.17997776,9.8048399 0.49190435,10.616041 A 0.6753941,0.66895307 0 0 0 1.3639178,11.003685 L 4.5178984,9.8139667 A 0.6753941,0.66895307 0 0 0 4.9077745,8.9486493 C 4.7900894,8.6454617 4.7289362,8.3240697 4.7277172,7.999256 4.7281549,7.6742149 4.7884643,7.3512907 4.9055425,7.0476303 A 0.6753941,0.66895307 0 0 0 4.514178,6.1845453 L 1.3646619,4.9963152 A 0.6753941,0.66895307 0 0 0 1.1206171,4.952417 Z m 13.7587659,0 a 0.6753941,0.66895307 0 0 0 -0.244045,0.043898 l -3.149516,1.1882301 a 0.6753941,0.66895307 0 0 0 -0.391365,0.863085 c 0.117079,0.3036604 0.177388,0.6265846 0.177826,0.9516257 -0.0012,0.3248137 -0.06237,0.6462057 -0.180058,0.9493933 a 0.6753941,0.66895307 0 0 0 0.389877,0.8653174 l 3.15398,1.1897185 a 0.6753941,0.66895307 0 0 0 0.872013,-0.387644 c 0.311927,-0.8112009 0.48722,-1.679415 0.49181,-2.5699107 0.0046,-0.8881183 -0.156644,-1.7896192 -0.493298,-2.6629152 A 0.6753941,0.66895307 0 0 0 14.879383,4.952417 Z m -5.668832,6.09591 a 0.66895307,0.6753941 0 0 0 -0.2619017,0.0439 C 8.6454617,11.209911 8.3240697,11.271064 7.999256,11.272283 7.6742149,11.271845 7.3512907,11.211536 7.0476303,11.094457 a 0.66895307,0.6753941 0 0 0 -0.863085,0.391365 l -1.1882301,3.149516 a 0.66895307,0.6753941 0 0 0 0.3869001,0.871269 c 0.873296,0.336654 1.7747969,0.497877 2.6629152,0.493298 0.8904957,-0.0046 1.7587098,-0.179883 2.5699105,-0.49181 a 0.66895307,0.6753941 0 0 0 0.387644,-0.872013 L 9.8132227,11.482102 A 0.66895307,0.6753941 0 0 0 9.210551,11.048327 Z"/>
</svg>
