<svg xmlns="http://www.w3.org/2000/svg" width="16" height="16" version="1.1">
 <g transform="translate(0 -1036.4)">
  <circle style="fill:#3f92e7" cx="8" cy="1044.4" r="8"/>
  <path style="fill:#f4f4f7" d="m6 1040.4v1h1v1h-2v2h-1v-1h-1v3h1v-1h1v1l2 2h2.5l1-1 1 0.01v0.4922h1l0.5-0.5 0.00001-4-0.5-0.5h-1v0.5l-1.5-0.0002-0.87501-0.9998h-1.125v-1l1-0.0002v-1zm0 3h2.5l0.87501 0.9998 2.625 0.0002-0.00001 2h-2l-1 1h-1.375l-1.625-1.7z"/>
 </g>
</svg>
