<svg xmlns="http://www.w3.org/2000/svg" width="16" height="16" version="1">
 <circle style="fill:#f44336" cx="8" cy="8" r="8"/>
 <path style="fill:#f4f4f7" d="M 7.984375 2 A 1.0001 0.99544854 0 0 0 7 3.0097656 L 7 6.9902344 A 1.0001 0.99544854 0 1 0 9 6.9902344 L 9 3.0097656 A 1.0001 0.99544854 0 0 0 7.984375 2 z M 10.544922 4 A 1.0002559 0.9899971 0 0 0 9.9121094 5.7617188 C 10.888175 6.5609089 11.251242 7.8723363 10.824219 9.0527344 C 10.397195 10.233133 9.2765314 11.015155 8.0097656 11.019531 C 6.743 11.023907 5.6189327 10.249684 5.1835938 9.0722656 C 4.7482548 7.8948469 5.1018608 6.5813055 6.0722656 5.7753906 A 1.0003281 0.9900685 0 0 0 4.7851562 4.2597656 C 3.1748876 5.5970834 2.5822955 7.7981701 3.3046875 9.7519531 C 4.0270795 11.705736 5.9155346 13.007262 8.0175781 13 C 10.119622 12.992738 11.998438 11.677478 12.707031 9.71875 C 13.415625 7.7600231 12.807163 5.562487 11.1875 4.2363281 A 1.0002559 0.9899971 0 0 0 10.544922 4 z"/>
</svg>
