<svg xmlns="http://www.w3.org/2000/svg" width="16" height="16" version="1">
 <path style="fill:#b2bfd9" d="M 2.75,0 C 2.3345,0 2,0.38228571 2,0.85714286 L 2,6 14,6 14,0.85714286 C 14,0.38228571 13.6655,0 13.25,0 L 2.75,0 Z"/>
 <rect style="fill:#4f4f4f" width="7" height="16" x="-12" y="-16" rx=".824" ry=".8" transform="matrix(0,-1,-1,0,0,0)"/>
 <rect style="opacity:0.2" width="14" height="2" x="1" y="8"/>
 <rect style="fill:#76ff03" width="1" height="1" x="1" y="6" rx=".375" ry=".375"/>
 <path style="fill:#b2bfd9" d="m 2,9 0,6.2 C 2,15.6432 2.3345,16 2.75,16 l 10.5,0 C 13.6655,16 14,15.6432 14,15.2 L 14,9 Z"/>
 <rect style="opacity:0.5" width="8.4" height="1" x="4" y="13"/>
 <rect style="opacity:0.5" width="6.8" height="1" x="4" y="11"/>
</svg>
