<svg xmlns="http://www.w3.org/2000/svg" width="16" height="16" version="1">
 <rect style="fill:#5985cb" width="16" height="16" x="0" y="0" rx=".8" ry=".8"/>
 <path style="stroke-linejoin:round;stroke:#4f4f4f;stroke-width:1.14285719;fill:none" d="m2.5 7.5h10"/>
 <path style="stroke-linejoin:round;stroke:#4f4f4f;stroke-width:1.14285719;fill:none" d="m7.5 7.5 1-5"/>
 <path style="stroke-linejoin:round;stroke:#4f4f4f;stroke-width:1.14285719;fill:none" d="m7.5 7.5 1 5h5"/>
 <circle style="fill:#f4f4f7" cx="2.5" cy="7.5" r="1.5"/>
 <circle style="fill:#f4f4f7" cx="7.5" cy="7.5" r="1.5"/>
 <circle style="fill:#f4f4f7" cx="12.5" cy="7.5" r="1.5"/>
 <circle style="fill:#f4f4f7" cx="8.5" cy="12.5" r="1.5"/>
 <circle style="fill:#f4f4f7" cx="13.5" cy="12.5" r="1.5"/>
 <circle style="fill:#f4f4f7" cx="8.5" cy="2.5" r="1.5"/>
</svg>
