<svg xmlns="http://www.w3.org/2000/svg" width="16" height="16" version="1">
 <rect style="fill:#4e91d9" width="16" height="16" x="0" y="0" rx="4.8" ry="4.8"/>
 <path style="fill:#f4f4f7" d="M 8 2 A 6 6 0 0 0 2 8 A 6 6 0 0 0 8 14 A 6 6 0 0 0 14 8 A 6 6 0 0 0 8 2 z M 6 5.5 L 6 7 L 10 7 L 10 5.5 L 13 8 L 10 10.5 L 10 9 L 6 9 L 6 10.5 L 3 8 L 6 5.5 z"/>
</svg>
