<svg xmlns="http://www.w3.org/2000/svg" width="16" height="16" version="1.1">
 <path style="fill:#4f4f4f" d="m 1.567481,4.0000333 a 0.55956732,0.50004286 0 1 0 0,0.9999857 h 1.8650379 a 0.55956732,0.50004286 0 1 0 0,-0.9999857 z"/>
 <path style="fill:#4f4f4f" d="m 5.0171983,4.0000333 c -0.7376337,-0.00956 -0.7376337,1.0095492 0,0.9999857 h 0.120035 0.2995335 c 0.7376337,-0.00956 0.7376337,1.0095492 0,0.9999857 H 5.1825047 3.8259608 2.55 c -0.7376285,-0.00956 -0.7376285,1.0095445 0,0.9999858 H 4.9168729 5.52696 6.7272473 c 0.7376337,-0.00956 0.7376337,1.0095492 0,0.9999857 H 5.5724069 5.5439959 c -0.7376337,-0.00956 -0.7376337,1.0095491 0,0.9999857 h 0.6150198 0.2819686 c 0.7376491,-0.00958 0.7376491,1.0095631 0,0.9999854 H 5.4545165 4.09 c -0.7376182,-0.0095 -0.7376182,1.0095347 0,0.9999857 h 5.3283059 2.7635021 0.181818 v -0.0059 C 14.398562,10.905149 15.998901,9.3674273 16,7.4999833 15.997386,5.6335466 14.397465,4.0973732 12.363626,4.0084969 v -0.00846 H 12.181808 6.7272473 5.1912046 Z"/>
 <path style="fill:#4f4f4f" d="m 2.5416986,7.9999761 a 0.53414814,0.50004286 0 1 0 0,0.9999858 h 1.4166028 a 0.53414814,0.50004286 0 1 0 0,-0.9999858 z"/>
 <path style="fill:#4f4f4f" d="m 0.56900439,9.9999473 a 0.56107054,0.50004286 0 1 0 0,0.9999857 H 2.4310171 a 0.56107054,0.50004286 0 1 0 0,-0.9999857 z"/>
 <path style="fill:#f4f4f7" d="m 12,4.9999833 v 0 c -1.105581,0 -2,0.9330346 -2,2.0832164 v 0.8335669 c 0,1.1515827 0.894419,2.0832167 2,2.0832167 1.104237,0 2,-0.931634 2,-2.0832167 V 7.0831997 C 14,5.9330179 13.104237,4.9999833 12,4.9999833 Z"/>
 <path style="fill:none;stroke:#4f4f4f;stroke-linecap:round" d="M 11.507121,7.4999333 H 12.5"/>
</svg>
