<svg xmlns="http://www.w3.org/2000/svg" width="16" height="16" x="0" y="0" version="1.1" xml:space="preserve">
 <path style="fill:#304776" d="m 2.5352961,13.196 c 0.6942732,0.998545 1.4450455,1.637653 2.4681753,1.79541 C 4.6035602,14.760192 3.5178563,14.112621 3.2044499,12.39301 3.537169,13.044653 4.5491687,13.801634 5,14 5,14 4.6280718,13.38841 4.6329726,12.950294 4.6364361,12.640659 4.7629625,12.304954 4.7385621,12 l -3.043555,-0.800432 c 0.017959,0.02733 0.081767,0.929562 0.840289,1.996432 z"/>
 <path style="fill:none" d="m 40.403656,-70.31234 a 20.426046,20.426046 0 1 1 40.153647,-7.521834 20.426046,20.426046 0 1 1 -40.153647,7.521834 z"/>
 <path style="opacity:0.2" d="M 12.799039,6.4965096 7.6019697,4.6739571 2.0323868,5.0450854 0.61091516,6.819001 c 0.25293122,1.6397871 0.0957813,3.414869 0.97661434,4.847496 L 10.800166,14.492 12.79072,11.000373 Z"/>
 <path style="fill:#ebebeb" d="M 12.799039,5.9966176 7.6019697,4.1740651 2.0323868,4.5451934 0.61091516,6.319109 c 0.25293122,1.6397871 0.0957813,3.4148692 0.97661434,4.847496 l 9.2126365,2.825503 1.990554,-3.491627 z"/>
 <path style="fill:#3f7da7;fill-rule:evenodd" d="M 2.1657107,4.4386359 3.1040285,4.5726475 3.3616372,3.316903 2.8464194,3.5680517 Z"/>
 <path style="opacity:0.25" d="M 12.376309,7.4960927 11.605253,4.9631801 2.1742363,4.8685259 2.1207644,4.9344143 2.0323868,5.0451934 6,9.5 Z"/>
 <path style="fill:#f7f7f7" d="M 12.376309,6.9960927 11.605253,4.4631801 2.1742363,4.3685259 2.1207644,4.4344143 2.0323868,4.5451934 6,9 Z"/>
 <path style="fill:#2f67a4" d="M 7.5816687,1.2391448 C 7.5807093,1.2393711 6.3958987,1.244854 5.8787228,1.4109229 5.0169476,1.6097953 4.2437877,1.9764007 3.4777333,2.4009893 2.4830539,3.0697272 1.6684486,3.9956478 1.0392648,5.0088935 0.48581271,5.9857989 0.1504393,7.0724477 0.02577385,8.1860076 -0.04831093,9.3150025 0.08083544,10.465397 0.50597178,11.521626 0.83548998,12.449958 1.4155717,13.2684 2.158165,13.903877 3.1440399,14.561734 3.9276422,15.037248 5.0034714,14.99141 3.9803416,14.833653 3.2295693,14.094284 2.5352961,13.095739 1.7767737,12.028869 1.7131035,11.227262 1.6951449,11.199933 l 0.01015,0.0031 C 1.4518679,10.401424 1.3010353,9.5723913 1.2087004,8.7247666 1.196911,8.5353618 1.1732533,8.3299417 1.2414945,8.3804296 1.49677,8.7850202 1.5568541,8.7702851 2,9 1.6179648,7.5702179 2.1277619,5.9803835 2.7515805,4.8191569 4.0314638,3.3539201 5.8989978,2.1685522 7.5816687,1.2391448 Z M 5.0034714,14.99141 c -0.050172,-0.04537 -0.102848,-0.07454 -0.1569427,-0.09682 0.058794,0.03776 0.1152758,0.07273 0.1569427,0.09682 z"/>
 <path style="fill:#4a96e1" d="M 6.4026417,1.7674747e-6 C 5.0485478,0.03614218 4.3775978,1.4228214 3.8439652,2.4930694 3.651752,2.8332474 3.3952814,3.2369125 3.2273881,3.5582217 2.9060534,4.0645665 3.0375144,4.6726743 3.1041181,5.2266415 3.0970981,5.3784507 3.2473349,5.6971745 3.1744961,5.7292808 3.0275541,6.1731729 2.9051897,6.6124126 3.2565567,7 3.3678487,6.4982978 3.9548702,6.3901105 4.3863533,6.1790903 5.5135381,5.0804211 6.5798737,4.8887051 8,5 8.7815872,5 9.2265817,4.7964876 10,4.4487101 11.186546,4.9447607 11.695811,5.7199123 12,7 12.114559,7.9621246 10.569386,10.270449 10.0005,10.999001 10.000432,10.999012 9.996,11 9.996,11 9.996013,11 10,10.99999 10,11 10.01173,11.0016 11.718698,10.240536 12.399267,9.5945884 11.9137,13.349009 9.2123143,15.475694 8,16 9.6138263,16.108609 12.293132,14.293539 12.093189,14.102107 11.893246,13.910675 10.575573,15.656075 10,16 c 1.054554,-0.295287 2.05231,-0.40257 2.717786,-0.888128 -2.49e-4,0 0.540757,-0.294378 1.104901,-0.937857 0.07505,-0.08561 0.203992,-0.204395 0.281256,-0.301885 0.04803,-0.06061 0.09243,-0.122754 0.139371,-0.183647 0.0083,-0.01001 0.01771,-0.01953 0.02566,-0.02969 1.187377,-1.452539 1.765632,-3.258516 1.72276,-4.8950712 C 16.000067,6.7798515 15.194879,5.0577 13.842296,3.6340197 12.864123,2.6044306 11.75321,1.9745907 10.752749,1.6337082 9.4565301,1.261489 7.8572633,1.1028032 6.7132725,1.3192558 6.6049368,1.3554762 6.6687144,0.89461029 6.8024206,0.79954895 6.4816747,0.82957481 6.1948105,1.369616 5.9349115,1.5278659 6.1482044,1.174488 6.3672888,0.73372403 6.6238537,0.39977442 5.6700593,0.57781508 5.4550985,1.5452624 4.8687528,2.1011199 5.0619299,1.0682395 5.5987735,0.66487966 6.4026461,-1.1146556e-7 Z"/>
 <path style="fill:#4271a3" d="M 3.9551645,5.2127466 C 5.621989,5.1647722 4.5754186,4.1317368 6.8000001,2.2127468 4.987645,3.151132 3.2626281,3.1498322 3.9573147,5.2127466 h -0.0021 z"/>
 <path style="fill:#f4f4f7" d="M 4.9030425,4.6597364 C 4.743224,4.9516479 4.370314,5.0693003 4.1640217,4.9594169 3.9531971,4.8495343 3.9543306,4.4821475 4.1175316,4.1902355 4.2750831,3.8983236 4.9710299,4.029296 4.9744299,4.029296 c 0.0033,0 0.088409,0.3396385 -0.07141,0.6304404 z"/>
 <path style="fill:#5c5f60" d="m 4.1552616,6.2766189 c 0,0 0.1025774,-0.09899 0.049106,-0.2800013 C 3.564927,6.2080388 3.1937891,5.59596 3.1960202,5.59596 3.1981802,5.59596 2.7953598,6.5503664 3.2565567,7 3.3063157,6.5293687 4.1314944,6.3012362 4.1337256,6.3012362"/>
</svg>
