<svg xmlns="http://www.w3.org/2000/svg" width="16" height="16" version="1.1">
 <circle style="fill:#17191e" cx="8" cy="8" r="8"/>
 <path style="fill:#f4f4f7" d="m 8,3 v 7 C 8,10.552285 7.5522847,11 7,11 6.4477153,11 6,10.552285 6,10 6,9.4477153 6.4477153,9 7,9 V 7 c -1.6568542,0 -3,1.3431458 -3,3 0,1.656854 1.3431458,3 3,3 1.6568542,0 3,-1.343146 3,-3 V 6.7184219 c 0.581971,0.3928125 1.26182,0.7175171 2,0.7851562 V 5.359375 C 11.649722,5.3195212 11.311395,5.2229471 11.007812,5.0332031 10.529241,4.7346848 10.17339,4.2668007 10,3.71875 L 9.9003906,3 Z"/>
</svg>
