<svg xmlns="http://www.w3.org/2000/svg" width="16" height="16" version="1">
 <rect style="fill:#d03d32" width="16" height="16" x="0" y="0" rx=".8" ry=".8"/>
 <path style="fill:#f4f4f7" d="m 13.491869,1.9999998 c -0.06982,0 -0.578614,0.2864443 -1.191806,0.6708986 -0.909847,0.5704499 -1.074495,0.6921172 -1.099348,0.8126272 -0.04844,0.2349258 -0.115204,0.3192258 -0.706217,0.89154 -2.0200567,1.9561458 -4.7004914,4.6424017 -4.7004914,4.7106731 0,0.1246458 0.4012072,0.6154249 0.5030974,0.6154249 0.053742,0 1.1366943,-1.0917477 2.6811476,-2.7028508 1.4250594,-1.48656 2.6543024,-2.7354986 2.7316304,-2.77542 0.187514,-0.096797 0.44635,-0.091808 0.593998,0.011441 0.117436,0.08211 0.123811,0.079813 0.284521,-0.10578 0.09726,-0.1123159 0.217335,-0.3484673 0.294011,-0.57831 0.153778,-0.4609456 0.237195,-0.5500842 0.515041,-0.5500842 0.270003,0 0.452339,-0.086747 0.540671,-0.257267 0.18101,-0.3494213 -0.05535,-0.7428799 -0.446255,-0.7428799 z M 5.4397538,6.8813315 C 5.2670052,7.0962279 5.0720521,7.4183795 4.843511,7.8638915 4.5259524,8.4829243 4.2223134,8.9093814 3.6444331,9.0792932 3.0118704,9.2652759 2.7613801,9.3922618 2.4869682,9.6661956 1.9222379,10.313875 1.8946542,11.046793 2.1702554,11.687986 c 0.2169736,0.500817 0.6718708,1.166277 1.1109913,1.625147 0.6083963,0.63577 1.1428467,0.82702 1.6397186,0.586908 0.2658732,-0.128482 0.67461,-0.556938 0.8375235,-0.877868 0.068751,-0.135442 0.184878,-0.442025 0.2580079,-0.681352 0.2211851,-0.723888 0.5045614,-1.051826 1.046121,-1.210436 0.3675788,-0.107657 0.6118136,-0.292282 0.784782,-0.593352 0.2584245,-0.44982 0.1773735,-0.7307584 -0.1697527,-0.5883704 -0.6131742,0.2515124 -0.7333879,0.2540534 -0.9501379,0.0207 -0.1178955,-0.126925 -0.2321756,-0.126771 -0.2321756,2.88e-4 0,0.1048124 0.2963197,0.3724844 0.4790291,0.4326824 0.184629,0.06082 0.4335394,0.008 0.66219,-0.140452 0.1422551,-0.09237 0.1833709,-0.05561 0.1383484,0.123454 -0.056335,0.224058 -0.3914618,0.502774 -0.7169798,0.596284 -0.7218611,0.207369 -0.96018,0.466462 -1.2139204,1.319927 -0.1874407,0.630463 -0.5038916,1.150175 -0.7003477,1.150175 -0.1210894,0 -0.1510174,-0.09462 -0.1974435,-0.625098 -0.036791,-0.4203 -0.1138597,-0.678158 -0.2654441,-0.887438 -0.050518,-0.06975 -0.050792,-0.107374 -0.00128,-0.186844 0.1001002,-0.160003 0.078068,-0.221058 -0.2294366,-0.63408 -0.380664,-0.51129 -0.4290222,-0.550183 -0.5818643,-0.468528 -0.1563622,0.08354 -0.228492,0.03167 -0.2282599,-0.163894 C 3.640212,10.145789 3.9087855,9.8926186 4.6555166,9.5280759 5.0434501,9.3386987 5.4575311,8.831888 5.7556801,8.4510767 5.8926327,8.2761594 5.9245355,8.2584935 6.0095795,8.3101408 6.0867278,8.356988 6.1287837,8.3538167 6.213188,8.2947995 6.3500847,8.1990782 6.3472126,8.1482023 6.1944267,7.9669168 5.9782865,7.7104982 6.0291001,7.2920623 6.3211358,6.9239837 6.4942028,6.7058495 6.5080613,6.5997009 6.372989,6.5275378 5.9437921,6.4570922 5.6971741,6.6203357 5.4397538,6.8813315 Z M 3.9741586,10.801328 c 0.066596,0 0.6175706,0.697628 0.6175706,0.781955 0,0.05377 -0.3609236,0.418225 -0.4141597,0.418225 -0.018806,0 -0.1472944,-0.140645 -0.285501,-0.312545 -0.3394838,-0.422245 -0.3561413,-0.502392 -0.1485229,-0.716224 0.091544,-0.09429 0.1953446,-0.171411 0.230613,-0.171411 z"/>
</svg>
