<svg xmlns="http://www.w3.org/2000/svg" width="16" height="16" version="1">
 <rect style="fill:#fa4641" width="16" height="16" x="0" y="0" rx="4.8" ry="4.8"/>
 <path style="fill:#f4f4f7" d="M 5.3212049,14.863642 C 5.5670318,14.685074 6.0597251,14.167749 6.3437405,13.789986 7.0946882,12.791164 7.5217806,11.871611 7.8439381,10.559978 7.967061,10.058696 8.0096503,9.9688382 8.1241143,9.9688382 c 0.1082551,0 0.1405128,0.092173 0.2896352,0.8275958 0.1714151,0.845359 0.333878,1.164488 0.6216511,1.786636 0.1433973,0.310017 0.2192041,0.404269 0.3246434,0.403637 0.1721495,-10e-4 0.739907,-0.291988 1.187332,-0.608466 C 10.765867,12.223693 11,11.993447 11,11.933126 11,11.915706 10.93209,11.776282 10.849092,11.623293 10.2878,10.588684 10.050805,9.6783325 10.025631,7.96506 10.015765,7.2938094 9.996813,7.1630631 9.8949711,7.0639707 L 9.8292296,7 H 7.9055963 C 6.0005126,7 6.1815935,7.0005334 6.1120389,7.054326 6.0734081,7.084206 6.032084,7.143318 6.0201967,7.18569 6.0083104,7.228063 5.9889113,7.77111 5.9770811,8.3924642 5.9540388,9.6031498 5.9420905,9.7320214 5.799961,10.303043 5.5811957,11.181962 5.0357134,11.89868 4.2599638,13.084763 4.0876234,13.348264 4,13.506382 4,13.553876 4,13.833122 4.8915485,14.999242 5.1056233,15 c 0.015251,5.3e-5 0.1122603,-0.06131 0.2155799,-0.136358 z"/>
 <path style="fill:#f4f4f7" d="M 7,2 C 5.8954305,2 5,2.8954305 5,4 5,5.1045695 5.8954305,6 7,6 7.390297,6 7.655125,5.774948 8.1775,5.7125 8.699875,5.650052 8.892327,5.868077 9.5,6 10.328428,6 11,5.328427 11,4.5 11,3.671573 10.328428,3 9.5,3 8.436608,3.34453 8.0030745,2.023244 7,2 Z"/>
</svg>
