<svg xmlns="http://www.w3.org/2000/svg" width="16" height="16" version="1.1">
 <rect style="fill:#3f5979" width="16" height="16" rx=".8" ry=".8"/>
 <path style="fill:#f4f4f7" d="M 6,7 V 10.671 C 6,11.305 6.3306,14 9,14 10.598,14 11.5,13 11.5,13 L 11,10.757 C 11,10.757 9,11.587 9,10.241 V 7 H 11 V 5 H 9 V 2 H 7 C 7,2 6.7414,2.9774 6.3168,3.6396 5.8922,4.3019 5,5 5,5 V 7 Z"/>
</svg>
