<svg xmlns="http://www.w3.org/2000/svg" width="16" height="16" version="1">
 <rect style="fill:#72a637" width="16" height="16" x="0" y="0" rx=".8" ry=".8"/>
 <path style="fill:#f4f4f7" d="M 7,2 C 7,2 5.006,2 5,4 V 9 H 4 V 5 H 2 V 9.5001 C 2,11 3.5,11 3.5,11 H 5 V 12 C 5,12 5.004,14 7,14 H 12 C 14.004,14 14,12 14,12 V 7 H 11 V 9 H 12.5 L 9.5,13 6.5,9 H 8 V 4 H 11 V 6 H 14 V 4 C 14,4 14.004,2 12,2 Z"/>
</svg>
