<svg xmlns="http://www.w3.org/2000/svg" width="16" height="16" version="1">
 <rect style="fill:#b2bfd9" width="16" height="16" x="0" y="0" rx=".8" ry=".8"/>
 <ellipse style="fill:#ffff76;stroke:#ff0000;stroke-width:0.80023694" cx="10.5" cy="11.5" rx="3.1" ry="2.1"/>
 <path style="fill:none;stroke:#ff0000;stroke-width:0.80000001" d="M 10.877,9.501 5.9047177,4.8465892"/>
 <ellipse style="fill:#ffff76;stroke:#ff0000;stroke-width:0.80013764" cx="4.5" cy="4.242" rx="2.1" ry="1.837"/>
 <path style="fill:#ffffc6;fill-rule:evenodd;stroke:#ff0000;stroke-width:0.80000001" d="m 4.6222888,5.6988582 c 0,3.0702984 0,3.106846 0,3.106846"/>
 <path style="fill:none;stroke:#ff0000;stroke-width:0.80000001" d="M 4.6342016,8.760787 C 3.0576192,10.647513 3.0576192,10.647513 3.0576192,10.647513"/>
 <path style="fill:none;stroke:#ff0000;stroke-width:0.80000001" d="M 6.143276,10.640194 C 4.5983084,8.7422534 4.5983084,8.7422534 4.5983084,8.7422534"/>
 <path style="fill:none;stroke:#ff0000;stroke-width:0.80000001" d="m 6.2,7.398243 -3.1998224,0.0014"/>
</svg>
