<svg xmlns="http://www.w3.org/2000/svg" width="16" height="16" version="1">
 <rect style="fill:#17191e" width="16" height="16" x="0" y="0" rx="4.8" ry="4.8"/>
 <path style="fill:#ff433d" d="M 5 3 L 5 4 L 4 4 L 4 5 L 3 5 L 3 5.1425781 L 3 8 L 3 9 L 4 9 L 4 10 L 5 10 L 5 11 L 6 11 L 6 12 L 7 12 L 7 13 L 7.6425781 13 L 8 13 L 8.3574219 13 L 9 13 L 9 12 L 10 12 L 10 11 L 11 11 L 11 10 L 12 10 L 12 9 L 13 9 L 13 8 L 13 5.1425781 L 13 5 L 12 5 L 12 4 L 11 4 L 11 3 L 10.857422 3 L 10.142578 3 L 10 3 L 10 4 L 9 4 L 9 5 L 8.7148438 5 L 8.3574219 5 L 8 5 L 7.6425781 5 L 7.2851562 5 L 7 5 L 7 4 L 6 4 L 6 3 L 5.8574219 3 L 5.1425781 3 L 5 3 z"/>
</svg>
