<svg xmlns="http://www.w3.org/2000/svg" width="16" height="16" version="1.1">
 <circle style="fill:#17191e" cx="8" cy="8" r="8"/>
 <path style="fill:#f4f4f7" d="M 4.4773436,3.0199559 C 4.0426108,3.0278599 3.6709484,3.2017179 3.3468752,3.4941747 3.0781308,3.7313015 3.0307532,3.9052543 3.4101564,4.0949559 4.0503992,4.4190295 4.6675696,4.7981347 5.3078124,5.1301123 5.9796724,5.4778987 6.61187,5.3909015 7.2046876,4.9324559 7.5840908,4.6399991 7.6000352,4.4265227 7.1257812,4.1972999 6.540868,3.9206515 5.9792612,3.5814383 5.4101564,3.2652683 5.1177,3.0992803 4.8093216,3.0041475 4.4773436,3.0199559 Z"/>
 <path style="fill:#f4f4f7" d="M 11.633486,3.3376499 C 11.29064,3.3119619 10.927549,3.3969831 10.563954,3.6024935 9.5522125,4.1715987 8.5489497,4.7643643 7.5530165,5.3571811 7.3633153,5.4678407 7.0390461,5.5073711 7.0311417,5.7603063 c -0.0079,0.3082652 0.3163652,0.4270716 0.5218748,0.585156 0.5691048,0.3003612 1.137512,0.2841396 1.675,-0.032032 C 10.334609,5.6810915 11.433051,5.0175515 12.547548,4.3931179 12.966473,4.1638951 12.86413,3.9818987 12.57958,3.7368679 12.298979,3.4997423 11.976332,3.3633383 11.633486,3.3376499 Z"/>
 <path style="fill:#f4f4f7" d="m 14.193642,5.6718752 c -0.07532,-0.00741 -0.173529,0.028888 -0.303803,0.1148436 -0.58151,0.3873076 -1.193444,0.7190344 -1.782507,1.0984376 -0.611718,0.3873076 -0.845191,0.9804392 -0.762118,1.7234372 0.05286,0.474254 0.218279,0.6002692 0.641195,0.3078128 0.521094,-0.3635944 1.064835,-0.6712392 1.608585,-0.9953128 0.279427,-0.1659888 0.505828,-0.37951 0.65687,-0.6640624 0.203907,-0.3873076 0.241978,-0.7903588 0.166457,-1.2171876 -0.03776,-0.2223068 -0.09916,-0.355618 -0.224679,-0.3679684 z"/>
 <path style="fill:#f4f4f7" d="M 2.259375,5.8125 C 2.1214368,5.838588 2.066865,5.9959384 2.0273438,6.2281248 1.900876,6.9553144 2.2173414,7.6193572 2.9445312,8.0382812 c 1.0038376,0.5770096 2.030354,1.1302976 3.05,1.683594 0.197606,0.1106592 0.3958692,0.3709988 0.6171876,0.2445312 0.26084,-0.1501808 0.1972888,-0.48916 0.228906,-0.75 C 6.8090088,8.5682596 6.5086732,8.0934216 5.9632812,7.7851564 4.8487844,7.1528176 3.7190928,6.5605552 2.6125,5.9203124 2.4554036,5.8284256 2.3421378,5.7968456 2.259375,5.8125 Z"/>
 <path style="fill:#f4f4f7" d="m 10.597696,8 c -0.22824,0.00376 -0.454749,0.1488456 -0.6610683,0.2265624 -0.6327106,0.3507244 -0.9456015,0.853102 -0.9364319,1.4828128 0.00917,1.2833308 0.064829,2.5743218 0.055659,3.8656248 0,0.486232 0.2478357,0.478317 0.6513032,0.350781 C 10.504924,13.662738 10.990831,13.065081 11,12.228125 11,11.056388 10.97223,9.8850188 10.93555,8.7132812 10.92635,8.4900928 11.07279,8.1790984 10.825208,8.0515624 10.749562,8.0137024 10.673776,7.9987544 10.597696,8 Z"/>
 <path style="fill:#f4f4f7" d="m 5.3629773,10.003125 c -0.2729774,-0.026028 -0.391033,0.114355 -0.357384,0.491406 0.053838,0.615287 0.04394,1.238619 0.04394,1.853907 0,0.32265 0.081675,0.61503 0.2880558,0.885156 0.2602182,0.360168 0.6368018,0.578218 1.1033999,0.713281 0.3858421,0.112552 0.5835019,0.06691 0.5565827,-0.338281 C 6.9527068,12.925776 6.9707849,12.235943 6.9438667,11.553125 6.9169496,10.83279 6.4678176,10.352157 5.6871624,10.082031 5.56154,10.038886 5.4539708,10.011801 5.3629773,10.003125 Z"/>
</svg>
