<svg xmlns="http://www.w3.org/2000/svg" width="16" height="16" version="1">
 <path style="fill:#7f4fc8" d="M 5.8148437,3 C 5.0359535,3 4.3407291,3.4893332 3.8625,4 L 2.4000001,4 C 1.0704001,4 4e-8,4.9483334 4e-8,6.3333334 l 0,3.3333329 C 4e-8,11.051666 1.0704001,12 2.4000001,12 L 3.8625,12 c 0.4782291,0.510654 1.1734535,1 1.9523437,1 l 4.3703123,0 c 0.778891,0 1.474115,-0.489334 1.952344,-1 L 13.6,12 C 14.9296,12 16,11.051666 16,9.6666663 L 16,6.3333334 C 16,4.9483334 14.9296,4 13.6,4 L 12.1375,4 C 11.659271,3.4893459 10.964047,3 10.185156,3 Z"/>
 <circle style="fill:#f4f4f7" cx="8.5" cy="-12.5" r=".5" transform="matrix(0,1,-1,0,0,0)"/>
 <rect style="fill:#7b92ed" width="6" height="6" x="5" y="5"/>
 <circle style="fill:#52ff41" cx="5.5" cy="-13.5" r=".5" transform="matrix(0,1,-1,0,0,0)"/>
 <rect style="fill:#f4f4f7" width="1" height="3" x="2" y="6"/>
 <rect style="fill:#f4f4f7" width="1" height="3" x="7" y="-4" transform="matrix(0,1,-1,0,0,0)"/>
 <circle style="fill:#f4f4f7" cx="7.5" cy="-14.5" r=".5" transform="matrix(0,1,-1,0,0,0)"/>
</svg>
