<svg xmlns="http://www.w3.org/2000/svg" width="16" height="16" version="1">
 <rect style="fill:#b2bfd9" width="16" height="16" x="0" y="0" rx=".8" ry=".8"/>
 <path style="fill:#a2adc7" d="m 5.9327428,3 v 9.816104 H 5.9 V 13 h 7.441496 V 12.816104 H 6.3136314 L 6.2362507,12.64437 6.0512861,12.814233 V 3 Z M 7.5446371,4.5893082 7.4355825,4.7980622 7.2018371,4.8266622 7.3667553,4.9947879 7.3215832,5.2258604 7.5324753,5.1210825 7.7384225,5.2353493 7.7039403,5.0024057 7.8762089,4.8418979 7.6439336,4.8027397 Z M 8.7427661,5.29001 8.6744732,5.4024057 8.5431,5.4097539 8.6289,5.5094529 8.595354,5.6366833 8.716704,5.5858973 8.827229,5.6571323 8.8165357,5.5260272 8.9183732,5.4428997 8.7903414,5.4125639 Z M 7.1177743,5.6755764 6.9591375,5.8100232 6.7584025,5.7553625 6.8372532,5.947945 6.7233875,6.1219511 6.9306711,6.1064475 7.0609753,6.2685589 7.1104236,6.0664875 7.3048775,5.9927152 7.1279311,5.8832598 Z m 4.3609757,0.2543268 -0.08139,0.059739 -0.09529,-0.033143 0.03168,0.095824 -0.06095,0.080321 0.100903,-5.358e-4 0.0576,0.08286 0.03074,-0.096091 0.09649,-0.029268 -0.08192,-0.058804 z m -3.2847311,1.0052789 -0.060809,0.105045 -0.1210825,0.00949 0.081123,0.090344 -0.028468,0.1181425 0.111059,-0.049315 0.103575,0.063615 -0.012564,-0.1208154 0.092349,-0.078851 -0.1188104,-0.025393 z m 2.8497161,0.1904443 -0.11881,0.1133311 -0.160775,-0.033546 0.07123,0.1479453 -0.08166,0.1425993 0.162781,-0.021918 0.11039,0.1216171 0.0294,-0.1615768 0.149683,-0.067357 -0.144471,-0.077915 z M 7.0327761,7.9699968 6.9056796,8.2224525 6.6255593,8.2608086 6.8264278,8.4598061 6.7763111,8.7379218 7.0275639,8.6084196 7.2766786,8.7419311 7.2312393,8.4630136 7.4351818,8.2673571 7.1558632,8.2244571 Z m 3.4588709,0.6082189 0.06963,0.237755 -0.06963,0.2377547 0.237755,-0.069629 0.237754,0.069629 -0.06963,-0.2377547 0.06963,-0.237755 -0.237754,0.06963 z M 9.8802203,8.6121621 9.7083525,8.7178754 9.5065482,8.7141325 9.6122614,8.886 9.6085185,9.0876707 9.7803864,8.9820911 9.9821903,8.9858339 9.8764771,8.8139664 Z m -3.1142,0.7127297 -0.03702,0.1729368 -0.1634482,0.067625 0.1531575,0.08874 0.013764,0.1764117 0.1316407,-0.1182759 0.1720011,0.04143 -0.071767,-0.1617107 0.092482,-0.1508854 -0.1760107,0.018311 z m 3.7405947,0.7517542 -0.223187,0.1426 -0.261544,-0.07912 0.08687,0.228667 -0.1673241,0.191915 0.2769131,-0.0012 0.158236,0.19766 0.0842,-0.229334 0.265018,-0.06976 -0.224791,-0.140596 z m -1.7451386,0.07244 -0.116405,0.11587 -0.1615771,-0.03021 0.074307,0.146609 -0.078717,0.144204 0.162379,-0.02526 0.11293,0.119345 0.026061,-0.162245 0.1483464,-0.07043 -0.1462078,-0.07497 z m 2.2400276,0.336117 0.03956,0.220915 -0.176546,0.154895 0.241898,0.03395 0.106515,0.201404 0.10999,-0.199933 0.242299,-0.03047 -0.173872,-0.157434 0.04317,-0.220248 -0.217308,0.10264 z m -2.4275319,0.525092 -0.1039757,0.140061 -0.1877714,0.0025 0.1164046,0.13204 -0.055195,0.160776 0.1760107,-0.05854 0.1536921,0.09676 -0.00775,-0.168125 0.1502175,-0.100903 -0.1808221,-0.04544 z m 1.3403275,0.37982 -0.094487,0.226661 -0.2553957,0.05654 0.2039425,0.153157 -0.02085,0.242298 0.2203807,-0.132041 0.2424319,0.09315 -0.06749,-0.234814 0.170666,-0.184702 -0.262213,-0.01296 z m -1.784831,0.05226 -0.1508858,0.211025 -0.2723685,0.0038 0.1689275,0.198864 -0.080188,0.242299 0.2553957,-0.08821 0.2227868,0.145941 -0.011093,-0.253392 0.2178418,-0.152088 -0.2622118,-0.06843 z m 3.1635144,0.03648 0.03956,0.220782 -0.176546,0.155028 0.241897,0.03381 0.106516,0.201403 0.10999,-0.1998 0.242298,-0.03061 -0.173872,-0.1573 0.04317,-0.220247 -0.217307,0.102505 z"/>
 <path style="fill:#0ba10b" d="M 9.4348493,7.4001114 7.919085,7.6275111 5.4783761,11.784179 5.0145089,8.0620814 3.6989396,8.2587889 4.32952,13 h 1.7731586 z"/>
 <path style="fill:#244bb6" d="M 3,3.0000289 3.6992614,8.2589954 5.0143725,8.0622189 4.3834789,3.0000289 Z m 7.635998,0 L 7.9190064,7.6272961 9.4346546,7.4004325 12.053056,3.0000289 Z"/>
</svg>
