<svg xmlns="http://www.w3.org/2000/svg" width="16" height="16" version="1">
 <path fill="#9c27b0" d="m16 14.222v-12.444c0-0.4311-0.357-0.778-0.8-0.778h-14.4c-0.4432 0-0.8 0.3469-0.8 0.7778v12.444c2e-8 0.431 0.3568 0.778 0.8 0.778h14.4c0.4432 0 0.8-0.34689 0.8-0.77779z"/>
 <path style="fill:#f4f4f7" d="M 6.3822,5.0000609 A 0.37501,0.33334209 0 0 0 6,5.3335487 v 5.3328733 a 0.37501,0.33334209 0 0 0 0.56099,0.289697 l 5.25,-2.6665657 a 0.37501,0.33334209 0 0 0 0,-0.5793843 L 6.56109,5.0437751 a 0.37501,0.33334209 0 0 0 -0.1788,-0.043543 z"/>
</svg>
