<svg xmlns="http://www.w3.org/2000/svg" width="16" height="16" version="1">
 <path style="fill:#acae26" d="M 9.3815016,3.5225108 4,0 5,5.8161576 5.2,10.8 10.173768,9 Z"/>
 <path style="fill:#7b7c08" d="M 0,10.116469 5,5.8161576 8,8.4 5,11.699688 0,16 Z"/>
 <path style="fill:#dbde63" d="M 10.173768,9 16,11.986581 10.645224,14.4 5,11.699688 5.2,6.8 Z"/>
 <path style="fill:#f4f4f7" d="M 10.173438,9 5,5.8164064 V 11.7 Z M 5,11.7 c 0,-3.12e-4 0,0 0,0 z"/>
</svg>
