<svg xmlns="http://www.w3.org/2000/svg" width="16" height="16" version="1">
 <path style="fill:#8e8e8e" d="M 11,14.2 8.3333333,6.2 H 7.6666667 L 5,14.2 Z"/>
 <rect style="fill:#c0c0c0" width="8" height="2" x="4" y="14" rx="1" ry="1"/>
 <rect style="fill:#c0c0c0" width="12" height="16" x="-13" y="-16" rx=".75" ry=".8" transform="matrix(0,-1,-1,0,0,0)"/>
 <rect style="fill:#8032f1" width="8" height="12" x="-11" y="-14" rx="0" ry="0" transform="matrix(0,-1,-1,0,0,0)"/>
 <path style="opacity:0.3" d="M 12.588232,7.975 C 10.927846,7.975 12.81719,9.4214282 8,9.4214282 V 10 h 2.117648 C 12.603624,10 11.83189,8.5123713 12.750919,8.5332309 13.647056,8.5535715 13.507382,9.0195856 14,9.1321428 13.792112,8.5341017 13.29412,7.975 12.588232,7.975 Z"/>
 <circle style="opacity:0.3" cx="8" cy="7" r="1.5"/>
 <path style="fill:#f4f4f7" d="M 7.8847656 4.0019531 A 3.0000001 3.0000002 0 0 0 5.1015625 6.2226562 A 3.0000001 3.0000002 0 0 0 7.2226562 9.8984375 A 3.0000001 3.0000002 0 0 0 10.898438 7.7773438 A 3.0000001 3.0000002 0 0 0 8.7773438 4.1015625 A 3.0000001 3.0000002 0 0 0 7.8847656 4.0019531 z M 8.0410156 5 A 2.0022756 2.0022757 0 0 1 8.2363281 5.0136719 L 7.9023438 6.2597656 L 7.2578125 5.1425781 A 2.0022756 2.0022757 0 0 1 8.0410156 5 z M 8.7890625 5.1621094 A 2.0022756 2.0022757 0 0 1 9.5703125 5.7636719 L 8.4550781 6.40625 L 8.7890625 5.1621094 z M 6.7636719 5.4296875 L 7.40625 6.5449219 L 6.1621094 6.2109375 A 2.0022756 2.0022757 0 0 1 6.7636719 5.4296875 z M 9.8574219 6.2578125 A 2.0022756 2.0022757 0 0 1 9.9863281 7.2363281 L 8.7402344 6.9023438 L 9.8574219 6.2578125 z M 7.9960938 6.6660156 A 0.33333335 0.33333336 0 0 1 8.0859375 6.6777344 A 0.33333335 0.33333336 0 0 1 8.3222656 7.0859375 A 0.33333335 0.33333336 0 0 1 7.9140625 7.3222656 A 0.33333335 0.33333336 0 0 1 7.6777344 6.9140625 A 0.33333335 0.33333336 0 0 1 7.9960938 6.6660156 z M 6.0136719 6.7636719 L 7.2597656 7.0976562 L 6.1425781 7.7421875 A 2.0022756 2.0022757 0 0 1 6.0136719 6.7636719 z M 8.59375 7.4550781 L 9.8378906 7.7890625 A 2.0022756 2.0022757 0 0 1 9.2363281 8.5703125 L 8.59375 7.4550781 z M 7.5449219 7.59375 L 7.2109375 8.8378906 A 2.0022756 2.0022757 0 0 1 6.4296875 8.2363281 L 7.5449219 7.59375 z M 8.0976562 7.7402344 L 8.7421875 8.8574219 A 2.0022756 2.0022757 0 0 1 7.7636719 8.9863281 L 8.0976562 7.7402344 z"/>
</svg>
