<svg xmlns="http://www.w3.org/2000/svg" width="16" height="16" version="1">
 <rect style="fill:#1d6434" width="16" height="16" x="0" y="0" rx=".8" ry=".8"/>
 <path style="opacity:0.4;fill:#f4f4f7" d="M 3 0 L 3 3.1992188 L 0 3.1992188 L 0 4 L 3 4 L 3 7.1992188 L 0 7.1992188 L 0 8 L 3 8 L 3 11.199219 L 3.8007812 11.199219 L 3.8007812 8 L 7 8 L 7 11.199219 L 7.8007812 11.199219 L 7.8007812 8 L 11 8 L 11 11.199219 L 11.800781 11.199219 L 11.800781 0 L 11 0 L 11 3.1992188 L 7.8007812 3.1992188 L 7.8007812 0 L 7 0 L 7 3.1992188 L 3.8007812 3.1992188 L 3.8007812 0 L 3 0 z M 3.8007812 4 L 7 4 L 7 7.1992188 L 3.8007812 7.1992188 L 3.8007812 4 z M 7.8007812 4 L 11 4 L 11 7.1992188 L 7.8007812 7.1992188 L 7.8007812 4 z"/>
 <path style="fill:#2e9f52" d="m 12.6,2.08 c -0.565072,0 -1.212852,0.45614 -1.916406,1.3367188 C 9.98004,4.2972976 9.2659484,5.5310968 8.5273436,6.7846876 7.7887388,8.0382784 7.0254032,9.3129092 6.1523436,10.312031 5.2792844,11.311153 4.2479036,12.08 3,12.08 1.8459918,12.08 0.92490772,11.204786 0.175,10.433125 0.11160436,10.367891 0.06018488,10.306401 0,10.241719 V 15.2 C 0,15.6432 0.3568,16 0.8,16 H 15.2 C 15.6432,16 16,15.6432 16,15.2 V 4.3003124 C 15.75429,4.0435868 15.413446,3.7057676 14.997656,3.3518752 14.207194,2.6790848 13.184867,2.08 12.6,2.08 Z"/>
 <path style="fill:#b2bfd9" d="M 12.5 2 C 11.469118 2 10.66357 2.7796682 9.9238281 3.7617188 C 9.1840858 4.7437692 8.4846975 6.0049734 7.7734375 7.2519531 C 7.0621775 8.4989329 6.3379856 9.7310207 5.6035156 10.619141 C 4.8690456 11.50726 4.1599032 12 3.5 12 C 2.8568241 12 1.7443725 11.238214 0.88867188 10.394531 C 0.53137532 10.042253 0.24929136 9.7159053 0 9.4238281 L 0 10.902344 C 0.071412473 10.975699 0.11057399 11.031549 0.18554688 11.105469 C 1.1047732 12.011786 2.2428835 13 3.5 13 C 4.6264127 13 5.5588553 12.24274 6.375 11.255859 C 7.1911447 10.268979 7.9278727 9.0010671 8.6425781 7.7480469 C 9.3572835 6.4950266 10.048077 5.2562308 10.720703 4.3632812 C 11.393329 3.4703318 12.021059 3 12.5 3 C 14.163308 3 15.403062 4.2839875 16 5.0507812 L 16 3.53125 C 15.191208 2.7611684 14.013794 2 12.5 2 z"/>
 <circle style="fill:#f4f4f7" cx="3.5" cy="12.5" r="1.5"/>
 <circle style="fill:#f4f4f7" cx="12.5" cy="2.5" r="1.5"/>
 <path style="fill:none;stroke:#f4f4f7;stroke-linejoin:bevel" d="m 14,7.5 h -3.599757 l 2.2,3 -2.2,3 H 14"/>
</svg>
