<svg xmlns="http://www.w3.org/2000/svg" width="16" height="16" version="1">
 <rect fill="#b2bfd9" width="16" height="16" x="0" y="0" rx=".857" ry=".857"/>
 <path fill="#4d4d4d" d="m9.557 5.4998c-0.35539-0.000311-0.77635 0.0011-1.0351 0.0029l-0.02555 0.01748v0.18638c0 0.02274 0.0095 0.03863 0.02835 0.05242 0.01925 0.01455 0.0385 0.0233 0.05956 0.0233l0.08224 0.0087c0.21164 0.0089 0.31129 0.06614 0.34033 0.10192 0.05046 0.06337 0.07412 0.13372-0.0482 0.4077l-0.7317 1.4968-0.6608-1.3891c-0.21708-0.44395-0.26999-0.58255 0.05672-0.60865l0.13046-0.01748c0.0628 0 0.09359-0.02262 0.09359-0.06698v-0.19511l-0.0482-0.01748s-1.231 0.0022-1.7839 0.003l-0.0255 0.01747v0.19512c0 0.04361 0.0448 0.05542 0.13045 0.06698 0.30602 0.04137 0.29849 0.07401 0.60125 0.6902 0.0454 0.09244 0.17867 0.36984 0.17867 0.36984l0.68915 1.392s0.14894 0.33808 0.20136 0.4572l-1.0011 2.0501-0.05672-0.01456s-1.5549-3.3673-2.0051-4.4934c-0.04685-0.11667-0.068065-0.20296-0.068065-0.25627 0-0.11444 0.09951-0.1749 0.30062-0.18346l0.23539-0.01166c0.062075 0 0.09359-0.02465 0.09359-0.07572v-0.18346l-0.0227-0.02038s-1.8614-0.0023-2.2461 0l-0.01985 0.021v0.192c0 0.03504 0.04085 0.05728 0.12762 0.06698 0.23632 0.01305 0.39317 0.052 0.46795 0.11648 0.07442 0.06523 0.15353 0.2295 0.25808 0.48633 0.5652 1.3941 1.7663 3.8832 2.3511 5.3 0.16844 0.38692 0.37826 0.44721 0.6353-0.01166 0.27709-0.52775 0.76175-1.5467 1.1543-2.3792 0.0056-0.08076 0.0056 0.07482 0.07658 0.02622 0.36652 0.82895 0.80895 1.8268 1.055 2.3472 0.19058 0.40369 0.40642 0.44255 0.6268 0.01166 0.57575-1.3143 2.2603-5.268 2.2603-5.268 0.07296-0.1942 0.17314-0.34291 0.30346-0.45138 0.12996-0.10772 0.33043-0.16825 0.60125-0.18055 0.05518 0 0.08224-0.0254 0.08224-0.07571v-0.18638l-0.01985-0.02039h-2.0675l-0.02555 0.02039v0.18638c0 0.022 0.0095 0.03862 0.02835 0.05242 0.01925 0.01454 0.0385 0.0233 0.05955 0.0233l0.173 0.0087c0.212 0.0089 0.26963 0.05216 0.35167 0.12522 0.08168 0.07492 0.09189 0.20182 0.02835 0.38149l-1.8292 4.4585-0.0709-0.02039-1.1628-2.4374c0.001-0.0022 0.02835-0.05824 0.02835-0.05824l0.9501-1.8259c0.11072-0.19271 0.21817-0.36541 0.27226-0.44556 0.0991-0.14649 0.1546-0.17333 0.42541-0.18638 0.05518 0 0.08225-0.02465 0.08225-0.07572v-0.18346l-0.01985-0.02038s-0.29123-0.0025-0.6466-0.003z"/>
</svg>
