<svg xmlns="http://www.w3.org/2000/svg" width="16" height="16" version="1">
 <rect fill="#b2bfd9" width="16" height="16" x="0" y="0" rx="8" ry="8"/>
 <path fill="#ef3939" d="m3.9998 4.0002c-0.554 0-1 0.446-1 1l5.0002 3.5 5.0002-3.5c0-0.554-0.446-1-1-1zm0.98438 1h6.0316l-3.0158 2.3418zm-1.9844 1v4.9996c0 0.554 0.446 1 1 1h8.0004c0.554 0 0.90894-0.45354 1-1v-4.9996l-5.0002 3.5zm1 1.7402 3.4963 2.623c0.31139 0.18163 0.69643 0.18163 1.0078 0l3.4963-2.623v3.2594h-8.0004z"/>
</svg>
