<svg xmlns="http://www.w3.org/2000/svg" width="16" height="16" version="1.1">
 <path fill="#248afd" d="m8 0a8 8 0 0 0 -8 8 8 8 0 0 0 8 8 8 8 0 0 0 8 -8 8 8 0 0 0 -8 -8z"/>
 <path style="fill:#f4f4f7" d="m12.795266 4c-0.109723-0.0003939-0.662129 0-0.689453 0-0.653233 0-1.117187 0.5291905-1.117188 1.1406257 0 0.5478991 0.315158 0.8466322 0.652344 1.3945312 0.822416 1.3622719 0.375776 2.4411825 0.04297 3.4843751l-0.664064 2.218749-2.1038594-7.2109372c0.4002176-0.0210081 0.8261719-0.0214844 0.8261719-0.0214844 0.3583235-0.042399 0.3178145-1.0582458-0.0410156-1.0371094 0 0-1.1422561 0.085937-1.8378907 0.085937-0.6536131 0-1.5917968-0.085937-1.5917968-0.085937-0.3584495-0.021136-0.4014183 1.0161028-0.042969 1.0371094 0 0 0.1789136 0.0004854 0.5371094 0.021484l1.0371096 2.8984378-1.4570313 4.3671878-2.4199219-7.223719c0.4009774-0.021008 0.8667032-0.0625 0.8667032-0.0625 0.3581962-0.042399 0.3156073-1.0161676-0.0429687-0.9950312 0 0-1.1826606 0.083984-1.8784219 0.083984-0.016533 1e-7 -0.039192-0.00181-0.056641-0.00195-0.3203156 0.4215707-0.5879233 0.8807016-0.7968747 1.3671847l2.9121094 8.2675785c0.4160183 0.22072 0.8547923 0.395575 1.3085937 0.521484l1.8789063-5.4628906 1.9589845 5.3652346c0.50767-0.169517 0.591929-0.100978 1.042828-0.389344l1.658-5.1809688c0.379714-0.9487306 0.993396-2.941013 0.993396-3.6159843-0.02342-0.3346729-0.126708-0.2947708-0.131108-0.6302334l-0.125671-0.1038986s-0.513617-0.2319149-0.718351-0.2319149z"/>
 <path style="fill:#f4f4f7" d="m8 1a7 7 0 0 0 -7 7 7 7 0 0 0 7 7 7 7 0 0 0 7 -7 7 7 0 0 0 -7 -7zm0 0.5a6.5 6.5 0 0 1 6.5 6.5 6.5 6.5 0 0 1 -6.5 6.5 6.5 6.5 0 0 1 -6.5 -6.5 6.5 6.5 0 0 1 6.5 -6.5z"/>
</svg>
