<svg xmlns="http://www.w3.org/2000/svg" width="16" height="16" version="1">
 <rect style="fill:#558ef4" width="16" height="16" x="0" y="0" rx=".8" ry=".8"/>
 <path style="fill:none;stroke:#f4f4f7;stroke-width:2;stroke-linecap:round;stroke-linejoin:round" d="m 3,4 v 7.5 c 0,0 0.2,1 1.2,0 L 8.00004,7 11.8,11.5 c 1,1 1.2,0 1.2,0 L 12.999916,4"/>
</svg>
