<svg width="16" height="16" version="1.1" xmlns="http://www.w3.org/2000/svg">
 <path d="m2.8 2h4.4l1.6 2.5 2-2.5h5.2l-5.2 6 3.2 6h-4.8l-1.6-2.4-2 2.4h-5.6l5.6-6.4z" style="fill:#a64599"/>
 <circle cx="11.5" cy="11.5" r="4.5" style="fill:#465096"/>
 <path d="m11.5 8.9999996s-0.354375-7e-3 -0.723635 0.17775c-0.369255 0.1846-0.776365 0.6556009-0.776365 1.3222504h1c0-0.500001 0.5-0.500001 0.5-0.500001s0.5 0 0.5 0.500001c0 0.2639-0.0698 0.41145-0.203125 0.578099-0.133325 0.166701-0.34668 0.334-0.59668 0.5215s-0.536645 0.395201-0.77832 0.6973c-0.241675 0.302051-0.421875 0.717001-0.421875 1.203101v0.5h3v-1h-1.82422c0.01565-0.022 0.0094-0.0556 0.02735-0.0781 0.133325-0.1667 0.34668-0.334 0.59668-0.5215s0.536645-0.3952 0.77832-0.6973c0.241675-0.30205 0.421875-0.717 0.421875-1.2031 0-0.6666495-0.40711-1.1376504-0.776365-1.3222504-0.369265-0.18465-0.72364-0.17775-0.72364-0.17775z" style="fill-rule:evenodd;fill:#f4f4f7"/>
</svg>
