<svg xmlns="http://www.w3.org/2000/svg" width="16" height="16" version="1">
 <circle style="fill:#2064cf" cx="8" cy="7" r="6"/>
 <path style="opacity:0.2" d="M 7.4379,1.0322 A 6,6 0 0 0 5.2665,1.6621 C 5.2968,1.7581 5.2614,1.8665 5.151,1.9621 5.0763,2.0268 5.0151,2.1277 5.0151,2.1865 5.0151,2.3664 5.1777,2.6427 5.3076,2.6828 5.4801,2.7362 5.4222,2.9203 5.2002,3.022 5.0976,3.0691 4.9713,3.2047 4.9197,3.3232 4.8678,3.442 4.7916,3.559 4.7502,3.5833 4.7091,3.6079 4.6752,3.7006 4.6752,3.7897 4.6752,3.9142 4.7322,3.9745 4.9191,4.0492 5.0529,4.1029 5.2131,4.1419 5.2752,4.1359 5.6325,4.1023 5.6574,4.3105 5.3451,4.7173 5.1792,4.9333 5.0994,4.9876 4.9863,4.9603 4.881,4.9351 4.8234,4.9648 4.7754,5.0692 4.725,5.1799 4.6422,5.2174 4.4199,5.2327 4.2012,5.248 4.1034,5.2924 4.0215,5.4121 3.9615,5.4994 3.8751,5.5702 3.8292,5.5702 3.7832,5.5702 3.6751,5.629 3.589,5.7004 3.4137,5.8459 3.3452,5.8606 3.2837,5.7655 3.2025,5.6395 3.0272,5.7031 2.7664,5.953 2.5357,6.1738 2.5077,6.2329 2.5425,6.4246 2.6044,6.7657 2.7895,7.0684 3.0007,7.174 3.1851,7.2661 3.1887,7.276 3.0769,7.3942 3.0126,7.4623 2.9023,7.5352 2.832,7.5565 2.6289,7.6183 2.7432,7.6957 3.1056,7.7419 3.4765,7.789 3.5918,7.9234 3.4185,8.1067 3.3219,8.209 3.3273,8.2282 3.4824,8.3254 3.7854,8.5156 4.0263,8.3992 3.7419,8.2 3.5591,8.0719 3.687,8.0197 3.9552,8.1127 4.1691,8.1868 4.2114,8.1826 4.3377,8.0728 4.5972,7.8481 4.8792,8.1805 4.6419,8.4313 4.491,8.5912 4.5366,8.7838 4.7322,8.8105 4.8186,8.8222 4.998,8.9026 5.1312,8.9893 5.2644,9.0757 5.4096,9.1468 5.4534,9.1468 5.4972,9.1468 5.6208,9.2347 5.7282,9.3421 5.946,9.5596 6.0669,9.5872 6.1284,9.4339 6.2022,9.2497 6.1725,9.1546 5.9736,8.9377 5.8155,8.7649 5.5584,8.3059 5.5584,8.1958 5.5584,8.128 5.8197,8.1856 5.9661,8.2855 6.0576,8.3482 6.2058,8.4289 6.2955,8.4655 6.3909,8.5045 6.4899,8.6257 6.5352,8.7583 6.6057,8.9665 6.6336,8.9845 6.8832,8.9845 H 7.1544 L 7.1955,9.472 C 7.2447,10.059 7.2918,10.177 7.4931,10.226 7.6413,10.261 7.7994,10.491 7.7994,10.67 7.7994,10.718 7.6929,10.835 7.5627,10.93 7.4013,11.048 7.3317,11.148 7.3425,11.246 7.356,11.369 7.3281,11.388 7.1544,11.375 7.0425,11.367 6.8481,11.406 6.7233,11.463 6.5754,11.529 6.4152,11.55 6.2649,11.523 6.0921,11.493 6.0336,11.505 6.0336,11.572 6.0336,11.622 5.973,11.715 5.8992,11.779 5.7168,11.937 5.7921,12.021 6.0723,11.97 6.2463,11.939 6.3141,11.953 6.3441,12.028 6.408,12.187 6.246,12.415 6.0957,12.378 6.0003,12.354 5.9547,12.387 5.925,12.499 5.9148,12.539 5.8959,12.573 5.8734,12.602 A 6,6 0 0 0 6.8229,12.882 C 6.7929,12.825 6.7587,12.773 6.7254,12.749 6.5709,12.64 6.6744,12.356 6.8871,12.305 7.104,12.253 7.0698,12.112 6.834,12.085 6.6273,12.062 6.4074,11.853 6.4764,11.745 6.5229,11.674 6.7206,11.684 7.1205,11.779 7.3011,11.822 7.4244,11.736 7.8429,11.278 8.085,11.013 8.2713,10.902 8.4756,10.902 8.5536,10.902 8.8317,10.831 9.0939,10.743 9.5889,10.577 9.7824,10.583 9.7641,10.764 9.7263,11.14 9.9684,11.128 10.363,10.733 10.527,10.569 10.678,10.451 10.697,10.469 10.772,10.541 10.637,10.893 10.478,11.036 10.278,11.217 10.268,11.331 10.445,11.421 10.541,11.471 10.582,11.571 10.598,11.797 L 10.618,12.105 H 10.869 C 10.957,12.105 11.03,12.117 11.088,12.14 A 6,6 0 0 0 13.995,7.1881 C 13.904,6.9919 13.91,6.8734 13.995,6.7399 A 6,6 0 0 0 13.968,6.4036 C 13.914,6.4009 13.858,6.3985 13.794,6.4012 13.491,6.4138 13.232,6.2947 13.232,6.1429 13.232,6.1108 13.125,5.9785 12.994,5.8492 12.845,5.7028 12.769,5.5732 12.791,5.506 12.812,5.4448 12.768,5.3461 12.69,5.2792 12.615,5.2138 12.553,5.1088 12.553,5.0458 12.553,4.9453 12.489,4.9327 12.027,4.9438 L 11.501,4.9567 11.51,5.4754 C 11.525,6.3838 11.661,6.6196 12.078,6.4675 12.269,6.3976 12.739,6.4504 12.872,6.5563 12.92,6.5947 12.99,6.7339 13.027,6.8659 13.064,6.9976 13.202,7.2259 13.333,7.3726 13.599,7.6702 13.62,7.7863 13.467,8.1355 13.334,8.4403 13.191,8.4052 13.22,8.0746 L 13.241,7.8286 13.016,7.8706 C 12.891,7.8943 12.735,7.9861 12.665,8.077 12.566,8.2063 12.519,8.2252 12.444,8.1661 12.392,8.1247 12.35,8.0374 12.35,7.9726 12.35,7.9078 12.286,7.8358 12.208,7.8121 12.129,7.7884 12.022,7.6705 11.97,7.5496 11.885,7.3564 11.888,7.2973 11.986,7.0627 12.085,6.8248 12.086,6.7855 11.994,6.6976 11.91,6.6172 11.867,6.6145 11.756,6.6808 11.645,6.7471 11.593,6.7423 11.461,6.6538 11.373,6.5947 11.219,6.5458 11.12,6.5458 10.917,6.5458 10.856,6.4474 10.856,6.1216 10.856,5.8207 10.676,5.7115 10.249,5.7508 9.9528,5.7781 9.8874,5.7586 9.6483,5.5744 9.5004,5.4607 9.267,5.1871 9.129,4.9657 8.991,4.7443 8.8425,4.513 8.799,4.4518 8.7366,4.3633 8.7519,4.2784 8.874,4.0375 L 9.0282,3.7345 8.7024,3.7786 C 8.1228,3.8569 8.0055,3.9319 8.2548,4.0657 8.352,4.1176 8.3562,4.1443 8.2812,4.231 8.232,4.2874 8.2089,4.3771 8.2302,4.4302 8.2515,4.483 8.2245,4.6078 8.1705,4.7071 8.1162,4.8067 8.0709,4.9462 8.0691,5.0179 8.0634,5.2414 7.6806,5.4193 7.254,5.3956 6.6078,5.3599 6.5553,5.3701 6.3258,5.5831 6.039,5.8495 6.0021,5.9734 6.1356,6.2206 6.2649,6.4606 6.4947,6.5563 6.8925,6.5365 7.2483,6.5188 7.2885,6.5503 7.2072,6.7855 7.1379,6.9853 6.9057,7.0621 6.7482,6.9373 6.627,6.841 6.2091,6.9154 6.081,7.0564 6.0273,7.1152 5.9475,7.27 5.904,7.3996 5.829,7.6234 5.8071,7.6372 5.4711,7.6696 5.1357,7.7023 5.1033,7.6915 4.8621,7.4692 4.593,7.2214 4.5474,7.0318 4.677,6.7054 4.7346,6.5608 4.7772,6.5371 4.9308,6.5653 5.235,6.6208 5.355,6.5152 5.355,6.1903 5.355,6.0328 5.3244,5.8855 5.2869,5.8633 5.2497,5.8411 5.2191,5.7577 5.2191,5.6776 5.2191,5.5975 5.1807,5.4943 5.1342,5.449 5.0661,5.383 5.076,5.3476 5.1846,5.2708 5.259,5.2183 5.3814,5.1829 5.4564,5.1919 5.5311,5.2009 5.7378,5.1685 5.9157,5.1202 6.1728,5.0509 6.2484,4.9984 6.2832,4.8631 6.3492,4.6063 6.5103,4.4002 6.6453,4.4002 6.8586,4.4002 6.8631,3.8986 6.6558,3.169 6.6252,3.0613 6.5409,2.9929 6.3921,2.956 6.2715,2.926 6.1404,2.8438 6.1008,2.7731 6.0615,2.7023 5.9892,2.6447 5.9403,2.6447 5.8914,2.6447 5.7957,2.5862 5.7282,2.5146 5.6601,2.4426 5.5194,2.3846 5.4123,2.3846 5.1588,2.3846 5.1546,2.21 5.406,2.118 5.6715,2.0207 6.0849,2.1482 6.1848,2.3582 6.3201,2.6429 6.4704,2.5241 6.5187,2.094 6.5784,1.5619 6.762,1.409 7.3407,1.409 H 7.7568 L 7.5744,1.2268 C 7.5177,1.1699 7.4706,1.1004 7.4379,1.0322 Z M 9.5949,1.2209 C 9.5832,1.2315 9.5718,1.2401 9.5604,1.2519 9.4212,1.394 9.3558,1.4143 9.1407,1.3815 8.7651,1.3242 8.8134,1.4754 9.2292,1.658 9.4539,1.7568 9.5985,1.8693 9.6477,1.9832 9.8847,2.5327 10.048,2.8285 10.13,2.8585 10.295,2.9194 10.394,2.7972 10.431,2.4848 10.473,2.1263 10.595,2.0503 10.812,2.2463 10.897,2.3223 11.015,2.3846 11.075,2.3846 11.261,2.3846 11.399,2.4594 11.399,2.5604 11.399,2.6136 11.462,2.7418 11.539,2.8456 11.653,2.9983 11.73,3.0349 11.942,3.0349 12.203,3.0349 12.363,3.0838 12.689,3.2641 12.694,3.2668 12.699,3.2677 12.704,3.2704 A 6,6 0 0 0 9.5949,1.2209 Z M 2.0058,6.9743 A 6,6 0 0 0 2.0047,7.0001 6,6 0 0 0 2.1218,8.1527 C 2.3392,8.2412 2.3993,8.2061 2.4218,8.0039 2.4335,7.8992 2.4882,7.7807 2.5437,7.7396 2.6296,7.6763 2.6141,7.6439 2.4383,7.5239 2.3244,7.4462 2.2123,7.3106 2.1892,7.2227 2.1669,7.1375 2.0914,7.0445 2.0058,6.9743 Z M 3.8944,8.9576 C 3.8383,8.9519 3.7707,8.9819 3.6957,9.0539 3.537,9.2057 3.561,9.5108 3.7408,9.6314 3.9469,9.7697 4.0264,9.7295 4.0525,9.4745 4.0846,9.1601 4.0174,8.9705 3.8944,8.9576 Z M 4.9126,9.8648 C 4.8514,9.8669 4.7839,9.9107 4.7164,10.003 4.6447,10.101 4.6252,10.227 4.6525,10.419 4.6864,10.655 4.6717,10.705 4.5484,10.768 4.3897,10.849 4.3558,11.091 4.4857,11.215 4.6147,11.338 4.7377,11.306 4.7821,11.137 4.8451,10.896 5.1982,10.867 5.4394,11.084 5.5423,11.176 5.6263,11.223 5.6263,11.188 5.6263,11.152 5.5192,11.024 5.3884,10.903 5.1883,10.717 5.1511,10.637 5.1511,10.398 5.1511,10.06 5.0476,9.8606 4.9126,9.8648 Z M 3.2404,10.639 A 6,6 0 0 0 3.3793,10.815 C 3.3384,10.751 3.2917,10.691 3.2404,10.639 Z M 5.2624,11.56 C 5.2321,11.571 5.2192,11.609 5.2192,11.676 5.2192,11.744 5.176,11.815 5.1232,11.834 5.053,11.86 5.0368,11.941 5.0638,12.135 5.0689,12.171 5.0704,12.201 5.0722,12.231 A 6,6 0 0 0 5.3218,12.359 C 5.3176,12.255 5.3365,12.133 5.3908,11.98 5.4829,11.72 5.4862,11.655 5.4112,11.61 5.341,11.567 5.293,11.55 5.2624,11.56 Z"/>
 <path style="fill:#00aaf6" d="M 8,6 A 8,8.3333 0 0 0 0,14.333 8,8.3333 0 0 0 0.09297,15.551 C 0.22624,15.817 0.49078,16 0.8,16 H 15.2 C 15.507,16 15.769,15.82 15.903,15.557 A 8,8.3333 0 0 0 16,14.333 8,8.3333 0 0 0 8,6 Z"/>
 <path style="fill:#f4f4f7" d="M 8,6 A 8,8.3333 0 0 0 7,6.0723 V 11 H 9 V 6.0762 A 8,8.3333 0 0 0 8,6 Z"/>
 <path style="fill:#f4f4f7" d="M 5.723,10 A 0.6845,0.57264 0 0 0 5.0386,10.589 0.6845,0.57264 0 0 0 5.1298,10.859 L 6.2878,12.536 7.4448,14.213 A 0.6845,0.57264 0 0 0 8.6313,14.213 L 9.7883,12.536 10.946,10.859 A 0.6845,0.57264 0 0 0 10.353,10 H 8.0381 Z"/>
</svg>
