<svg xmlns="http://www.w3.org/2000/svg" width="16" height="16" version="1">
 <rect style="fill:#0245c5" width="12" height="14" x="-14" y="-15" rx=".819" ry=".75" transform="matrix(0,-1,-1,0,0,0)"/>
 <path style="opacity:0.2;fill:#f4f4f7" d="M 15,13.181818 V 2.8181819 C 15,2.3649091 14.6655,2 14.25,2 H 7.9999998 V 14 H 14.25 C 14.6655,14 15,13.635091 15,13.181818 Z"/>
 <path style="opacity:0.1;fill:#f4f4f7" d="M 15,8.0000001 V 2.8181819 C 15,2.3649091 14.6655,2 14.25,2 H 1.7499997 c -0.4155,0 -0.75,0.3649091 -0.75,0.8181819 v 5.1818182 z"/>
 <rect style="fill:#ebebeb" width="7" height="8" x="-8" y="-8" rx=".292" ry=".267" transform="matrix(0,-1,-1,0,0,0)"/>
</svg>
