<svg xmlns="http://www.w3.org/2000/svg" width="16" height="16" version="1.0">
 <g transform="matrix(5.0000031,0,0,5.0000031,-2535.5554,-1750.0011)">
  <path style="fill:#e6461d" d="m 508.35067,351.48002 a 0.03579668,0.03543427 0 0 0 -0.0198,0.007 l -0.60585,0.44922 a 0.03579668,0.03543427 0 0 0 -0.0142,0.0284 v 0.59906 a 0.03579668,0.03543427 0 0 0 0.0577,0.0286 l 0.6052,-0.44921 a 0.03579668,0.03543427 0 0 0 0.014,-0.0284 v -0.59906 a 0.03579668,0.03543427 0 0 0 -0.0369,-0.0359 z m 0.91952,0 a 0.03579668,0.03543427 0 0 0 -0.0364,0.0359 v 0.59906 a 0.03579668,0.03543427 0 0 0 0.014,0.0284 l 0.6052,0.44921 a 0.03579668,0.03543427 0 0 0 0.0577,-0.0286 v -0.59897 a 0.03579668,0.03543427 0 0 0 -0.0142,-0.0284 l -0.60585,-0.44922 a 0.03579668,0.03543427 0 0 0 -0.0198,-0.007 0.03579668,0.03543427 0 0 0 -6.6e-4,0 z"/>
  <g style="fill:#ff7c19" transform="matrix(0.11429513,0,0,0.1422574,491.05497,318.77598)">
   <path style="fill:#ff7c19" transform="matrix(0.67306393,0,0,0.49987606,139.21594,219.98946)" d="m 18.800781,32.75 c -0.386412,7.322975 3.212277,7.997454 5.169922,11.25 1.957645,-3.252546 5.558287,-3.927025 5.171875,-11.25 h -5.044922 -4.933594 z"/>
  </g>
  <path style="fill:#b2bfd9" d="m 508.3829,350.6 c -0.089,0.29261 -0.16043,0.58509 -0.17113,0.88 -0.009,0.23786 0.0414,0.47724 0.1999,0.72 h 0.79815 c 0.15816,-0.23599 0.20913,-0.47467 0.19988,-0.72 -0.0109,-0.28913 -0.0762,-0.58619 -0.17113,-0.88 z"/>
  <path style="fill:#007ede" transform="scale(-1,1)" d="m -508.51076,351.10001 a 0.2999998,0.2999998 0 0 1 -0.29983,0.3 0.2999998,0.2999998 0 0 1 -0.30017,-0.29966 0.2999998,0.2999998 0 0 1 0.29948,-0.30034 0.2999998,0.2999998 0 0 1 0.30052,0.2993"/>
  <g style="fill:#ffe113" transform="matrix(0.08570537,0,0,0.09052781,495.49642,331.00281)">
   <path style="fill:#ffe113" transform="matrix(0.8974186,0,0,0.74981144,133.81209,211.80408)" d="m 20.121094,32.75 c -0.289809,4.882001 2.410673,5.331628 3.878906,7.5 1.468233,-2.168372 4.168715,-2.617999 3.878906,-7.5 h -3.783203 -3.701172 z"/>
  </g>
  <path style="fill:#e6461d" d="m 508.80938,351.60005 a 0.09990568,0.07674994 0 0 0 -0.0986,0.0779 v 0.84463 a 0.09999314,0.07681714 0 1 0 0.19998,0 v -0.84463 a 0.09990568,0.07674994 0 0 0 -0.10141,-0.0779 z"/>
  <path style="fill:#e6461d" d="m 508.81075,350 c 4.1e-4,-8e-4 0.42782,0.6 0.42782,0.6 h -0.4326 -0.42307 z"/>
 </g>
</svg>
