<svg xmlns="http://www.w3.org/2000/svg" width="16" height="16" version="1">
 <circle style="fill:#673ab7" cx="8" cy="8" r="8"/>
 <path style="fill:#f4f4f7" d="M 8 3 A 5 5 0 0 0 3 8 A 5 5 0 0 0 8 13 A 5 5 0 0 0 13 8 A 5 5 0 0 0 8 3 z M 8 5 A 2.9999998 2.9999998 0 0 1 11 8 A 2.9999998 2.9999998 0 0 1 8 11 A 2.9999998 2.9999998 0 0 1 5 8 A 2.9999998 2.9999998 0 0 1 8 5 z M 8 7 A 0.99999995 0.99999995 0 0 0 7 8 A 0.99999995 0.99999995 0 0 0 8 9 A 0.99999995 0.99999995 0 0 0 9 8 A 0.99999995 0.99999995 0 0 0 8 7 z"/>
</svg>
