<svg xmlns="http://www.w3.org/2000/svg" width="16" height="16" version="1">
 <path style="fill:#c4bea2" d="m10.911719 10.496875-3.024719 2.067156v3.435969h7.313c0.4432 0 0.8-0.3568 0.8-0.8v-2.500781l-0.05937-0.02734z"/>
 <path style="fill:#b0ab84" d="m2.8328124 10.763609-0.072656 0.150782-2.7601564 1.198109v3.0875c0 0.4432 0.3568 0.8 0.8 0.8h7.2v-3.300031z"/>
 <path style="fill:#e9e6dd" d="m16 1.7654438-5.292969 5.0203122-0.137143 4.059853 5.430112 1.852047z"/>
 <path style="fill:#d6d2c0" d="m0 2.5847968v9.5277032l3.5820985-1.31664-0.0484376-0.021876 2.6667243-4.9227816z"/>
 <path style="fill:#3d65c8" d="m6.9418436 0-0.0796876 5.2757812 3.612335 2.2481052 5.525509-5.6785739v-1.0453125c0-0.4432-0.3568-0.8-0.8-0.8z"/>
 <path style="fill:#dd5639" d="m0.8 0c-0.4432 0-0.8 0.3568-0.8 0.8v1.8648436l5.2531676 3.4930536 1.7468324-0.625866v-5.5320312z"/>
 <path style="fill:#f4f4f7" d="m5 6 2-1 4 2v4l-3 2-5-2z"/>
</svg>
