<svg xmlns="http://www.w3.org/2000/svg" width="16" height="16" version="1.1">
 <path style="fill:#ef9202" d="M 5.5305893,1.0028243 C 5.4508777,1.0076923 5.37024,1.0203903 5.2899756,1.0419119 4.6478595,1.2140861 4.2695243,1.8706127 4.4415795,2.5131755 L 4.9079628,3.8560549 C 4.5033715,4.0971222 4.1283415,4.3739366 3.7791114,4.6729895 L 2.4502692,3.3432237 c -0.4700621,-0.4703889 -1.2275126,-0.4703889 -1.69757453,0 -0.47006191,0.4703888 -0.47006191,1.2275838 0,1.6979726 L 2.0948174,6.3842517 C 1.50156,7.0496594 0.95732202,7.6724771 0.41755462,8.0806612 c -0.5567394,0.40906 -0.55673944,1.431973 0,1.8410335 C 2.8000769,11.405144 4.3999523,15.0104 7.99922,14.999977 l 0.00156,0 c 3.599268,0.01042 5.199143,-3.594833 7.581666,-5.0782823 0.556739,-0.4090605 0.556739,-1.4319735 0,-1.8410335 C 15.042894,7.6726447 14.498934,7.0501278 13.905964,6.3850333 l 1.342904,-1.343837 c 0.470062,-0.4703888 0.470062,-1.2275838 0,-1.6979726 -0.470062,-0.4703889 -1.226731,-0.4703889 -1.696794,0 L 12.22167,4.6745531 C 11.874495,4.3771614 11.502489,4.1009506 11.100633,3.8607457 l 0.467946,-1.34757 C 11.740633,1.8706128 11.362299,1.2140863 10.720182,1.0419121 10.078066,0.86973789 9.4227767,1.2491173 9.2507222,1.8916801 L 8.8335546,3.0500652 C 8.5666045,3.0133772 8.2894137,2.9922508 8.0000012,2.9922152 l -8e-4,0 c -0.2857576,3.44e-5 -0.558768,0.021272 -0.8226165,0.057068 L 6.7594363,1.8916801 C 6.6088882,1.3294376 6.088567,0.96874943 5.5305893,1.0028243 Z"/>
 <circle style="fill:#f4f4f7" cx="8" cy="9" r="4"/>
 <circle style="fill:#ff5a2e" cx="8" cy="9" r="2"/>
</svg>
