<svg xmlns="http://www.w3.org/2000/svg" width="16" height="16" version="1">
 <rect style="fill:#7139d2" width="16" height="16" x="0" y="0" rx=".8" ry=".8"/>
 <rect style="fill:#f4f4f7" width="12" height="8" x="2" y="4" rx=".5" ry=".5"/>
 <path style="fill:#a766fa" d="M 3,5 H 13 V 6.5 L 8,9 3,6.5 Z"/>
</svg>
