<svg xmlns="http://www.w3.org/2000/svg" width="16" height="16" x="0" y="0" version="1.1" xml:space="preserve">
 <path fill="#16a05d" d="m14.89 5.548c-0.247-1.2975-0.839-2.4308-1.773-3.3979-0.394-0.4083-0.836-0.7631-1.324-1.0643-0.908-0.56099-1.8978-0.90471-2.9709-1.0265-0.13082-0.014908-0.26351-0.012948-0.39247-0.04252h-0.92587c-0.010018 0.022407-0.031483 0.014232-0.048513 0.015761-0.23841 0.020192-0.47566 0.046264-0.71096 0.089127-1.7194 0.3129-3.1315 1.1239-4.2244 2.434-0.899 1.0774-1.3941 2.3134-1.5011 3.6915-0.051797 0.66791-0.0016 1.63 0.15078 2.2829 0.11317 0.48566 0.28222 0.95488 0.50945 1.4034 0.019954 0.038168 0.039646 0.076346 0.059956 0.11451 0.37331 0.70617 0.85349 1.3355 1.4553 1.879 0.31681 0.28611 0.65544 0.54496 1.022 0.76862 0.97059 0.59181 2.0201 1.1751 3.1442 1.2913l0.24664 0.02549c0.081775 0.0011 0.39255 0.02046 0.39202 0.10071-0.0037 0.68487-0.00213 1.1131-0.00196 1.7981 0.000089 0.02658 0.00219 0.05309 0.00381 0.08614 0 0 0.27468-0.12395 0.50812-0.23393 1.1635-0.56794 2.239-1.2639 3.2098-2.1118 0.2181-0.19043 0.42679-0.38998 0.6275-0.59779 0.08594-0.08887 0.17118-0.17927 0.2573-0.26805 0.13304-0.13667 0.24816-0.28935 0.37357-0.43326 0.14484-0.16598 0.27486-0.34243 0.40311-0.52 0.28355-0.39245 0.53677-0.80185 0.74963-1.2343 0.10767-0.21863 0.2102-0.43897 0.30094-0.6645 0.003-0.00421 0.0071-0.00804 0.009-0.012615 0.24728-0.61756 0.40577-1.2566 0.49012-1.9122 0.02946-0.22835 0.04851-0.45814 0.06058-0.68777 0.02572-0.49444-0.0075-1.2865-0.10031-1.773z"/>
 <path style="fill:#f4f4f7" d="M 4.6425781,3 7,7.760039 V 11 H 9 V 7.7561328 L 11.341797,3 H 9.0585938 L 7.9980469,5.4299609 6.9296875,3 Z"/>
</svg>
