<svg xmlns="http://www.w3.org/2000/svg" width="16" height="16" version="1">
 <rect style="fill:#b2bfd9" width="15" height="15" x="-15" y="-16" rx="7.5" ry="7.5" transform="matrix(0,-1,-1,0,0,0)"/>
 <path style="fill:none;stroke:#e34241;stroke-width:3;stroke-linecap:round;stroke-linejoin:round" d="M 8.5,14.457 V 8 M 2.52,3.5 8.5,8 14.5,3.5"/>
</svg>
