<svg xmlns="http://www.w3.org/2000/svg" width="16" height="16" version="1">
 <rect fill="#1da6e8" width="16" height="16" x="0" y="0" rx="8" ry="8"/>
 <path fill="#fff" opacity=".1" d="m16-14c-7.756 0-14 6.244-14 14 0 0.16884 0.01952 0.33264 0.02539 0.5 0.2641-7.5206 6.3878-13.5 13.975-13.5s13.711 5.9794 13.975 13.5c0.006-0.16736 0.0254-0.33116 0.0254-0.5 0-7.756-6.244-14-14-14z"/>
 <path style="fill:none;stroke:#000000;stroke-width:1px;opacity:0.4" d="m 9.5,5.5 -4,2.5 4,2.5"/>
 <path style="fill:#f4f4f7;fill-rule:evenodd" d="M 9.5 4 A 1.5 1.5 0 0 0 8 5.5 A 1.5 1.5 0 0 0 9.5 7 A 1.5 1.5 0 0 0 11 5.5 A 1.5 1.5 0 0 0 9.5 4 z M 5.5 6.5 A 1.5 1.5 0 0 0 4 8 A 1.5 1.5 0 0 0 5.5 9.5 A 1.5 1.5 0 0 0 7 8 A 1.5 1.5 0 0 0 5.5 6.5 z M 9.5 9 A 1.5 1.5 0 0 0 8 10.5 A 1.5 1.5 0 0 0 9.5 12 A 1.5 1.5 0 0 0 11 10.5 A 1.5 1.5 0 0 0 9.5 9 z"/>
</svg>
