<svg xmlns="http://www.w3.org/2000/svg" width="16" height="16" version="1">
 <path style="fill:#4f4f4f" d="M 7.4920633,2.9477146 C 3.936508,2.9477146 4.7635007,6.1946076 2.9430532,7.173 1.0961692,8.2208019 2.1137082,9.0590462 2.4126985,10.071529 2.917121,11.759774 4.3301358,10.566982 8.5079361,9.5635929 12.685533,8.5604344 13.58385,8.7120295 13.079365,7.0239103 12.77687,6.0227183 13.769709,5.148355 11.610848,5.06 9.8561471,5.1561078 10.031746,2.9477146 7.4920633,2.9477146 Z"/>
 <ellipse style="fill:#2e72de" cx="5.288" cy="10.712" rx="8.201" ry="3.57" transform="matrix(0.96845415,-0.24919182,0.26876302,0.96320633,0,0)"/>
 <ellipse style="fill:#f4f4f7" cx="7.101" cy="13.564" rx="3.571" ry="1.87" transform="matrix(0.97820363,-0.20764794,0.11454307,0.99341828,0,0)"/>
</svg>
