<svg xmlns="http://www.w3.org/2000/svg" width="16" height="16" version="1">
 <path style="fill:#ff9932;fill-rule:evenodd" transform="matrix(0.68472448,-0.72880202,0.72880202,0.68472448,0,0)" d="m 7.6473797,11.308212 c 2e-7,4.418278 -3.581722,8 -8,8 -4.418278,0 -8.0000002,-3.581722 -8,-8 0,-0.178618 0.6439351,-0.525806 0.6554612,-0.701507 0.2735839,-4.1704511 2.964001,-1.7660415 7.20366127,-1.7660415 4.22598983,0 6.91384643,-2.3791143 7.20706563,1.7722555 0.013342,0.188893 0.9338119,0.503005 0.9338119,0.695293 z"/>
 <path style="fill:#ffda43;fill-rule:evenodd" d="M 13.477796,2.1695838 2.5222042,13.830416 C -0.69784577,10.805113 -0.85571927,5.7422541 2.1695838,2.5222041 5.1948869,-0.69784579 10.257746,-0.85571929 13.477796,2.1695838 Z"/>
 <path style="fill:#17191e;fill-rule:evenodd" d="M 8 3 C 5.2385763 3 3 5.2385763 3 8 L 1.5 8 L 2.75 9.5 L 4 11 L 5.25 9.5 L 6.5 8 L 5 8 C 5 6.3431458 6.3431458 5 8 5 C 8.3723357 5.0009022 8.74125 5.0711085 9.0878906 5.2070312 L 10.447266 3.6464844 C 9.7004621 3.2246535 8.857702 3.0020248 8 3 z M 12 5 L 10.75 6.5 L 9.5 8 L 11 8 C 11 9.6568542 9.6568542 11 8 11 C 7.6178399 10.999427 7.2393086 10.925842 6.8847656 10.783203 L 5.5292969 12.337891 C 6.2815259 12.769083 7.1329548 12.997252 8 13 C 10.761424 13 13 10.761424 13 8 L 14.5 8 L 13.25 6.5 L 12 5 z"/>
</svg>
