<svg xmlns="http://www.w3.org/2000/svg" width="16" height="16" version="1">
 <rect style="fill:#32a980" width="16" height="16" x="0" y="0" rx=".8" ry=".8"/>
 <path style="fill:#f4f4f7" d="M 7.9643294,14 C 8.1716228,13.591392 8.5035796,13.510996 8.7898175,13.08884 9.0465798,12.710155 8.90807,12.363862 8.4435975,12.116476 8.2785259,11.987055 8.027307,12.072467 7.8240457,12.038283 6.7958694,12.005236 5.6572619,12.056394 4.8245933,11.40116 3.9808492,10.714814 3.9040783,9.310316 4.0725907,8.3528583 4.4298842,6.7069657 5.6924855,5.0852176 7.0452873,4.0239929 7.2359248,3.8662481 7.8460883,2.965283 7.2574578,3.0132037 6.3637962,2.9764708 4,2.9867964 4,2.9867964 V 2 h 7 V 2.9867964 C 9.4723249,3.8787632 7.6117744,5.3299233 6.7771378,6.841481 6.3790814,7.5571683 6.2036474,8.6264351 6.5624618,9.3831457 6.7996255,9.8275546 7.4876122,10.014747 7.9996767,9.9987517 8.6140755,10.062107 9.2691089,9.9535367 9.8515639,10.175167 10.65722,10.495529 11.076596,11.342572 10.988433,12.121142 10.953665,12.845198 10.547468,13.455159 10.047572,14 Z"/>
</svg>
