<svg xmlns="http://www.w3.org/2000/svg" width="16" height="16" version="1.1">
 <rect style="fill:#4992fd" width="16" height="16" x="0" y="0" rx="4.8" ry="4.8"/>
 <path style="fill:#f4f4f7" d="M 3.5839844 5 C 3.2608174 5 3 5.2864457 3 5.6425781 L 3 6.7148438 L 3 8 L 3 9.2851562 C 3 10.234843 3.6929096 11 4.5546875 11 L 6.5 11 L 8.4453125 11 L 9.4160156 11 C 9.7391833 11 10 10.713554 10 10.357422 L 10 9.2851562 L 10 8 L 10 6.7148438 C 10 5.7651575 9.30709 5 8.4453125 5 L 6.5 5 L 4.5546875 5 L 3.5839844 5 z M 12.681641 5 C 12.575427 4.99057 12.455015 5.0536814 12.339844 5.1914062 C 11.934829 5.6757359 11.460914 6.0851961 11.128906 6.6640625 C 10.992183 6.9024427 11.001077 7.2168649 11 7.5136719 C 10.999401 7.6765221 11.0007 7.8392931 11 8 C 11.0007 8.160707 10.999401 8.3234783 11 8.4863281 C 11.0011 8.7831346 10.992141 9.0975572 11.128906 9.3359375 C 11.460914 9.9148038 11.934829 10.324263 12.339844 10.808594 C 12.455015 10.946319 12.575427 11.009429 12.681641 11 C 12.858665 10.98428 12.996094 10.766928 12.996094 10.367188 C 12.996094 9.5846113 13.005694 8.7932992 12.996094 8 C 13.005694 7.2067009 12.996094 6.4153887 12.996094 5.6328125 C 12.996094 5.2330717 12.858665 5.0157153 12.681641 5 z"/>
</svg>
