<svg xmlns="http://www.w3.org/2000/svg" width="16" height="16">
 <defs>
  <style id="current-color-scheme" type="text/css">
   .ColorScheme-Text { color:#323a41; } .ColorScheme-Highlight { color:#4285f4; } .ColorScheme-NeutralText { color:#ff9800; } .ColorScheme-PositiveText { color:#4caf50; } .ColorScheme-NegativeText { color:#f44336; }
  </style>
 </defs>
 <path style="fill:currentColor" class="ColorScheme-Text" d="m 1,2 0,11 c 0,0 0,1 1,1 l 12,0 c 0,0 1,0 1,-1 L 15,4 C 15,3 14,3 14,3 L 9,3 7,1 2,1 C 2,1 1,1 1,2 Z"/>
</svg>
