<svg width="22" height="22" version="1.1" xmlns="http://www.w3.org/2000/svg">
 <g transform="translate(-1,-1)">
  <path d="m4.0588235 2.499889c-0.584748 5.43e-5 -1.0587653 0.4477378-1.0588235 0.9999997v15c-2.12e-5 0.409055 0.2637212 0.776887 0.6659005 0.928711l7.9411765 3c0.252253 0.0952 0.533594 0.0952 0.785846 0l7.941177-3c0.402179-0.151824 0.66592-0.519656 0.6659-0.928711v-15c-5.8e-5 -0.5522619-0.474076-0.9999454-1.058824-0.9999997z" style="opacity:.2"/>
  <path d="m4.0588235 2.0000003c-0.584748 5.43e-5 -1.0587653 0.4477378-1.0588235 0.9999997v15c-2.12e-5 0.409055 0.2637212 0.776887 0.6659005 0.928711l7.9411765 3c0.252253 0.0952 0.533594 0.0952 0.785846 0l7.941177-3c0.402179-0.151824 0.66592-0.519656 0.6659-0.928711v-15c-5.8e-5 -0.5522619-0.474076-0.9999454-1.058824-0.9999997z" style="fill:#4f4f4f"/>
  <path d="m6 5.5000001v6.9999999h2v-1h-1v-1.9999999h1v-1h-1v-2h1v-1zm3 0v6.9999999h1v-2.9999999h0.5c0.831 0 1.5-0.669 1.5-1.5v-1c0-0.831-0.669-1.5-1.5-1.5h-0.5zm4 0v6.9999999h1v-6.9999999zm3 0c-0.554 2.102e-4 -1 0.4460006-1 1v4.9999999c0 0.554 0.446 1.000209 1 1h1.050781c0.554-2.1e-4 0.949219-0.446 0.949219-1v-1h-1v0.449219c0 0.277001-0.226466 0.550781-0.449219 0.550781h-0.25c-0.277 0-0.300781-0.223-0.300781-0.5v-3.9999999c0-0.2769997 0.096-0.5 0.300781-0.5h0.25c0.277 0 0.449219 0.2230003 0.449219 0.5v0.5h1v-1c0-0.5539998-0.39522-1.0002103-0.94922-1zm-6 1h0.5c0.277 0 0.5 0.2230003 0.5 0.5v1c0 0.2769997-0.223 0.5-0.5 0.5h-0.5zm7.875 7.9980469c-0.473258 0.0032-0.966956 0.312775-0.980469 1.070312-0.01371 0.769198 1.465753 0.660765 1.470703 1.052735 0.0017 0.13588-0.194647 0.212615-0.324218 0.228515-0.298832 0.03667-0.84375-0.330078-0.84375-0.330078l-0.416016 0.519531s0.507118 0.443415 1.228516 0.447266c0.478303 0.0027 1.100369-0.240819 1.095703-0.966797-0.0056-0.872922-1.457516-0.834985-1.478516-1.132812-0.0106-0.149547 0.138451-0.24172 0.292969-0.236328 0.278377 0.0096 0.724609 0.285156 0.724609 0.285156l0.347657-0.550781s-0.449874-0.391164-1.117188-0.386719zm-11.318359 0.02539c-0.7023617-0.01405-1.4598711 0.525333-1.4824218 1.5-0.015993 0.691162 0.5844938 1.464868 1.3964843 1.476563 0.7123263 0.0103 1.2285156-0.462891 1.2285157-0.462891v-1.257812h-1.1855469v0.521484l0.4863281 0.0078 0.021484 0.375s-0.1597369 0.170136-0.4453125 0.175781c-0.5019146 0.0098-0.7454366-0.419093-0.7617188-0.792969-0.017484-0.401486 0.2561238-0.881652 0.7714844-0.878906 0.343472 0.0019 0.5625 0.326172 0.5625 0.326172l0.4667969-0.593737s-0.4439797-0.384187-1.0585938-0.396484zm2.4257813 0.013672-1.2539063 2.964844 0.8496094-0.001953 0.1953125-0.535156h1.0917969l0.1894536 0.535156h0.792968l-1.1660154-2.962891zm1.9550781 0v2.962891h0.695312v-1.644531l0.72461 1.123047 0.703125-1.167969 0.04687 1.689453h0.673828v-2.962891h-0.720703l-0.703125 1.181641-0.705078-1.181641zm3.412109 0v2.962891h2.103516v-0.591797h-1.535156v-0.59375l1.421875 0.01367v-0.605469h-1.421875v-0.591797h1.535156v-0.59375zm-5.0253902 0.90625 0.3046874 0.859375h-0.6152343zm-0.3242188 4.056641 3 1 3-1z" style="opacity:.2"/>
  <path d="m6 5v7h2v-1h-1v-2h1v-1h-1v-2h1v-1zm3 0v7h1v-3h0.5c0.831 0 1.5-0.669 1.5-1.5v-1c0-0.831-0.669-1.5-1.5-1.5h-0.5zm4 0v7h1v-7zm3 0c-0.554 2.102e-4 -1 0.4460006-1 1v5c0 0.554 0.446 1.000209 1 1h1.050781c0.554-2.1e-4 0.949219-0.446 0.949219-1v-1h-1v0.449219c0 0.277001-0.226466 0.550781-0.449219 0.550781h-0.25c-0.277 0-0.300781-0.223-0.300781-0.5v-4c0-0.2769997 0.096001-0.5 0.300781-0.5h0.25c0.277 0 0.449219 0.2230003 0.449219 0.5v0.5h1v-1c0-0.5539998-0.39522-1.0002103-0.94922-1zm-6 1h0.5c0.277 0 0.5 0.2230003 0.5 0.5v1c0 0.2769997-0.223 0.5-0.5 0.5h-0.5zm7.875 7.998047c-0.473258 0.0032-0.966956 0.312775-0.980469 1.070312-0.01371 0.769198 1.465753 0.660765 1.470703 1.052735 0.0017 0.13588-0.194647 0.212615-0.324218 0.228515-0.298832 0.03667-0.84375-0.330078-0.84375-0.330078l-0.416016 0.519531s0.507118 0.443415 1.228516 0.447266c0.478303 0.0027 1.100369-0.240819 1.095703-0.966797-0.0056-0.872922-1.457516-0.834985-1.478516-1.132812-0.0106-0.149547 0.138451-0.24172 0.292969-0.236328 0.278377 0.0096 0.724609 0.285156 0.724609 0.285156l0.347657-0.550781s-0.449874-0.391164-1.117188-0.386719zm-11.318359 0.02539c-0.7023617-0.01405-1.4598711 0.525333-1.4824218 1.5-0.015993 0.691162 0.5844938 1.464868 1.3964843 1.476563 0.7123263 0.0103 1.2285156-0.462891 1.2285157-0.462891v-1.257812h-1.1855469v0.521484l0.4863281 0.007813 0.021484 0.375s-0.1597369 0.170136-0.4453125 0.175781c-0.5019146 0.0098-0.7454366-0.419093-0.7617188-0.792969-0.017484-0.401486 0.2561238-0.881652 0.7714844-0.878906 0.343472 0.0019 0.5625 0.326172 0.5625 0.326172l0.4667969-0.59375s-0.4439797-0.384187-1.0585938-0.396484zm2.4257813 0.013672-1.2539063 2.964844 0.8496094-0.001953 0.1953125-0.535156h1.0917969l0.1894536 0.535156h0.792968l-1.1660154-2.962891zm1.9550781 0v2.962891h0.695312v-1.644531l0.72461 1.123047 0.703125-1.167969 0.046875 1.689453h0.673828v-2.962891h-0.720703l-0.703125 1.181641-0.705078-1.181641zm3.412109 0v2.962891h2.103516v-0.591797h-1.535156v-0.59375l1.421875 0.01367v-0.605469h-1.421875v-0.591797h1.535156v-0.59375zm-5.0253902 0.90625 0.3046874 0.859375h-0.6152343zm-0.3242188 4.056641 3 1 3-1z" style="fill:#8b9cbe"/>
  <path d="m4.0585938 2c-0.584748 5.43e-5 -1.0585356 0.4477381-1.0585938 1v0.5c5.82e-5 -0.5522619 0.4738458-0.9999457 1.0585938-1h15.882812c0.584748 5.43e-5 1.058536 0.4477381 1.058594 1v-0.5c-5.8e-5 -0.5522619-0.473846-0.9999457-1.058594-1z" style="fill:#8b9cbe;opacity:.1"/>
 </g>
</svg>
