<svg xmlns="http://www.w3.org/2000/svg" width="22" height="22" version="1.1">
 <rect style="fill:#70c74d" width="20" height="20" x="1" y="1" rx="1.5" ry="1.5"/>
 <path style="opacity:0.2;fill:#8b9cbe" d="M 2.5,1 C 1.669,1 1,1.669 1,2.5 L 1,3 C 1,2.169 1.669,1.5 2.5,1.5 l 17,0 C 20.331,1.5 21,2.169 21,3 L 21,2.5 C 21,1.669 20.331,1 19.5,1 l -17,0 z"/>
 <path style="opacity:0.2" d="M 1,19.5 1,20 c 0,0.831 0.669,1.5 1.5,1.5 l 17,0 c 0.831,0 1.5,-0.669 1.5,-1.5 l 0,-0.5 c 0,0.831 -0.669,1.5 -1.5,1.5 l -17,0 C 1.669,21 1,20.331 1,19.5 Z"/>
 <path style="opacity:0.2" d="m 16.5,8.499982 c -0.822505,0 -1.5,0 -1.5,1.5 0,0.3843 0.25851,0.7333 0.5,1 -0.24149,0.2667 -0.5,0.6157 -0.5,1 0,1.5 0.677495,1.5 1.5,1.5 0.822505,0 1.5,0 1.5,-1.5 0,-0.3843 -0.25851,-0.7333 -0.5,-1 0.24149,-0.2667 0.5,-0.6157 0.5,-1 0,-1.5 -0.677495,-1.5 -1.5,-1.5 z m 0,1 c 0.282065,0 0.5,0.21795 0.5,0.5 0,0.28205 -0.217935,0.5 -0.5,0.5 -0.282065,0 -0.5,-0.21795 -0.5,-0.5 0,-0.28205 0.217935,-0.5 0.5,-0.5 z m 0,2 c 0.282065,0 0.5,0.21795 0.5,0.5 0,0.28205 -0.217935,0.5 -0.5,0.5 -0.282065,0 -0.5,-0.21795 -0.5,-0.5 0,-0.28205 0.217935,-0.5 0.5,-0.5 z"/>
 <path style="opacity:0.2;fill-rule:evenodd" d="m 12,8.499982 0,2 1,0 0,-2 1,0 0,2 0.5,0 0,1 -0.5,0 0,2 -1,0 0,-2 -2,0 0,-3 1,0 0,0"/>
 <path style="opacity:0.2;fill-rule:evenodd" d="m 4.5,8.4999995 c 0,0 -0.354375,-0.007 -0.723635,0.17775 C 3.40711,8.8623495 3,9.33335 3,10 l 1,0 C 4,9.5 4.5,9.5 4.5,9.5 c 0,0 0.5,0 0.5,0.5 0,0.2639 -0.0698,0.41145 -0.203125,0.578099 -0.133325,0.166701 -0.34668,0.334 -0.59668,0.5215 -0.25,0.1875 -0.536645,0.395201 -0.77832,0.6973 C 3.1802,12.09895 3,12.5139 3,13 l 0,0.5 3,0 0,-1 -1.82422,0 c 0.01565,-0.022 0.00935,-0.0556 0.02735,-0.0781 0.133325,-0.1667 0.34668,-0.334 0.59668,-0.5215 0.25,-0.1875 0.536645,-0.3952 0.77832,-0.6973 C 5.819805,10.90105 6.000005,10.4861 6.000005,10 6.000005,9.33335 5.592895,8.8623495 5.22364,8.6777495 4.854375,8.4930995 4.5,8.4999995 4.5,8.4999995 Z"/>
 <path style="opacity:0.2" d="m 8.75,8.499982 c -0.96085,0 -1.75,0.78915 -1.75,1.75 l 0,1.5 c 0,0.96085 0.78915,1.75 1.75,1.75 0.96085,0 1.75,-0.78915 1.75,-1.75 l 0,-1.5 c 0,-0.96085 -0.78915,-1.75 -1.75,-1.75 z m 0,1 c 0.42415,0 0.75,0.32585 0.75,0.75 l 0,1.5 c 0,0.42415 -0.32585,0.75 -0.75,0.75 -0.42415,0 -0.75,-0.32585 -0.75,-0.75 l 0,-1.5 c 0,-0.42415 0.32585,-0.75 0.75,-0.75 z"/>
 <path style="fill:#8b9cbe" d="m 16.5,7.999982 c -0.822505,0 -1.5,0 -1.5,1.5 0,0.3843 0.25851,0.7333 0.5,1 -0.24149,0.2667 -0.5,0.6157 -0.5,1 0,1.5 0.677495,1.5 1.5,1.5 0.822505,0 1.5,0 1.5,-1.5 0,-0.3843 -0.25851,-0.7333 -0.5,-1 0.24149,-0.2667 0.5,-0.6157 0.5,-1 0,-1.5 -0.677495,-1.5 -1.5,-1.5 z m 0,1 c 0.282065,0 0.5,0.21795 0.5,0.5 0,0.28205 -0.217935,0.5 -0.5,0.5 -0.282065,0 -0.5,-0.21795 -0.5,-0.5 0,-0.28205 0.217935,-0.5 0.5,-0.5 z m 0,2 c 0.282065,0 0.5,0.21795 0.5,0.5 0,0.28205 -0.217935,0.5 -0.5,0.5 -0.282065,0 -0.5,-0.21795 -0.5,-0.5 0,-0.28205 0.217935,-0.5 0.5,-0.5 z"/>
 <path style="fill:#8b9cbe;fill-rule:evenodd" d="m 12,7.999982 0,2 1,0 0,-2 1,0 0,2 0.5,0 0,1 -0.5,0 0,2 -1,0 0,-2 -2,0 0,-3 1,0 0,0"/>
 <path style="fill:#8b9cbe;fill-rule:evenodd" d="m 4.5,7.9999995 c 0,0 -0.354375,-0.007 -0.723635,0.17775 C 3.40711,8.3623495 3,8.83335 3,9.5 l 1,0 C 4,9 4.5,9 4.5,9 4.5,9 5,9 5,9.5 5,9.7639 4.9302,9.91145 4.796875,10.078099 c -0.133325,0.166701 -0.34668,0.334 -0.59668,0.5215 -0.25,0.1875 -0.536645,0.395201 -0.77832,0.6973 C 3.1802,11.59895 3,12.0139 3,12.5 l 0,0.5 3,0 0,-1 -1.82422,0 c 0.01565,-0.022 0.00935,-0.0556 0.02735,-0.0781 0.133325,-0.1667 0.34668,-0.334 0.59668,-0.5215 0.25,-0.1875 0.536645,-0.3952 0.77832,-0.6973 C 5.819805,10.40105 6.000005,9.9861 6.000005,9.5 6.000005,8.83335 5.592895,8.3623495 5.22364,8.1777495 4.854375,7.9930995 4.5,7.9999995 4.5,7.9999995 Z"/>
 <path style="fill:#8b9cbe" d="m 8.75,7.999982 c -0.96085,0 -1.75,0.78915 -1.75,1.75 l 0,1.5 c 0,0.96085 0.78915,1.75 1.75,1.75 0.96085,0 1.75,-0.78915 1.75,-1.75 l 0,-1.5 c 0,-0.96085 -0.78915,-1.75 -1.75,-1.75 z m 0,1 c 0.42415,0 0.75,0.32585 0.75,0.75 l 0,1.5 c 0,0.42415 -0.32585,0.75 -0.75,0.75 -0.42415,0 -0.75,-0.32585 -0.75,-0.75 l 0,-1.5 c 0,-0.42415 0.32585,-0.75 0.75,-0.75 z"/>
</svg>
