<svg width="22" height="22" version="1.1" xmlns="http://www.w3.org/2000/svg">
 <path d="m21 19v-15c0-0.554-0.446-1-1-1h-18c-0.554 0-1 0.446-1 1v15c0 0.554 0.446 1 1 1h18c0.554 0 1-0.446 1-1z" style="fill:#b2bfd9"/>
 <path d="m10 6.5v7h-3l2-6h-2l-2 6v2h5v4h2v-4h1s4 0 4-5c0-4-4-4-4-4h-1zm2 2h1s2 0 2 2c0 3-2 3-2 3h-1z" style="opacity:.1"/>
 <path d="m10 6v7h-3l2-6h-2l-2 6v2h5v4h2v-4h1s4 0 4-5c0-4-4-4-4-4h-1zm2 2h1s2 0 2 2c0 3-2 3-2 3h-1z" style="fill:#3174fc"/>
 <path d="m21 19v-14h-10v15h9c0.554 0 1-0.446 1-1z" style="opacity:.15"/>
 <path d="m21 5v-2c0-0.554-0.446-1-1-1h-18c-0.554 0-1 0.446-1 1v2z" style="fill:#636e73"/>
 <path d="m2 2c-0.554 0-1 0.446-1 1v0.5c0-0.554 0.446-1 1-1h18c0.554 0 1 0.446 1 1v-0.5c0-0.554-0.446-1-1-1z" style="fill:#8b9cbe;opacity:.1"/>
 <path d="m1 19v0.5c0 0.554 0.446 1 1 1h18c0.554 0 1-0.446 1-1v-0.5c0 0.554-0.446 1-1 1h-18c-0.554 0-1-0.446-1-1z" style="opacity:.2"/>
</svg>
