<svg xmlns="http://www.w3.org/2000/svg" width="22" height="22" version="1">
 <rect style="fill:#0090ef" width="20" height="19.998" x="-21" y="-21" rx="10" ry="9.999" transform="matrix(0,-1,-1,0,0,0)"/>
 <path style="opacity:0.2" d="m 12,6.4995095 a 4,4 0 0 0 -4,4.0000025 4,4 0 0 0 0.5585938,2.027344 l -2.265625,2.265625 a 1.0001,1.0001 0 1 0 1.4140624,1.414062 L 9.972656,13.940918 A 4,4 0 0 0 12,14.499512 a 4,4 0 0 0 4,-4 4,4 0 0 0 -4,-4.0000025 z m 0,2 c 1.112821,0 2,0.8885165 2,2.0000025 0,1.111485 -0.887179,2 -2,2 -1.112821,0 -2,-0.888515 -2,-2 0,-1.111486 0.887179,-2.0000025 2,-2.0000025 z"/>
 <path style="fill:#8b9cbe" d="m 12,6 a 4,4 0 0 0 -4,4 4,4 0 0 0 0.5585938,2.027344 l -2.265625,2.265625 a 1.0001,1.0001 0 1 0 1.4140624,1.414062 L 9.972656,13.441406 A 4,4 0 0 0 12,14 4,4 0 0 0 16,10 4,4 0 0 0 12,6 Z m 0,2 c 1.112821,0 2,0.888515 2,2 0,1.111485 -0.887179,2 -2,2 -1.112821,0 -2,-0.888515 -2,-2 0,-1.111485 0.887179,-2 2,-2 z"/>
 <path style="opacity:0.2;fill:#8b9cbe" d="M 11,1 C 5.4605,1 1.001,5.46 1.001,11 c 0,0.08386 -0.002,0.16664 0,0.25 C 1.1331,5.827 5.5445,1.5 11,1.5 c 5.4555,0 9.867,4.3268 9.999,9.75 0.002,-0.08335 0,-0.16614 0,-0.25 C 20.999,5.46 16.54,1 11,1 Z"/>
 <path style="opacity:0.2" d="M 1.0058,11.25 C 1.0038,11.334 1,11.416 1,11.5 c 0,5.54 4.46,10 10,10 5.54,0 10,-4.46 10,-10 0,-0.084 -0.004,-0.1665 -0.006,-0.25 C 20.862,16.673 16.456,21 11,21 5.544,21 1.138,16.673 1.006,11.25 Z"/>
</svg>
