<svg width="22" height="22" version="1.1" xmlns="http://www.w3.org/2000/svg">
 <rect x="1" y="1.5" width="20" height="20" rx="1" ry="1" style="opacity:.2"/>
 <rect x="1" y="1" width="20" height="20" rx="1" ry="1" style="fill:#595552"/>
 <path d="m 3,3.5 1,3 h 9 l -2,2.5662833 1,-0.7823999 0.333333,0.2136694 0.43998,0.00245 L 11.145833,9.957842 11,9.5 l -0.738687,1 0.257686,0.396169 -1.7820203,2.28926 -0.997396,1.66852 -0.039067,0.913014 L 8,16.5 7,17.5 7.5936204,17.815758 7,19.5 9.1119744,16.180757 9.5513117,15.829584 7,20.5 10.221354,16.864183 11,15.5 V 15.025827 L 11.254438,14.5 H 12 L 13,14.04634 13.749063,12.729594 13.564167,12.5 13,13.232756 V 12.95907 L 14,11.5 v -1 l 2,-3 3,-4 z" style="opacity:.2"/>
 <path d="m 3,3 1,3 h 9 L 11,8.5662833 12,7.7838834 12.333333,7.9975528 12.773313,8 11.145833,9.457842 11,9 l -0.738687,1 0.257686,0.396169 -1.7820203,2.28926 -0.997396,1.66852 -0.039067,0.913014 L 8,16 7,17 7.5936204,17.315758 7,19 9.1119744,15.680757 9.5513117,15.329584 7,20 10.221354,16.364183 11,15 V 14.525827 L 11.254438,14 H 12 L 13,13.54634 13.749063,12.229594 13.564167,12 13,12.732756 V 12.45907 L 14,11 v -1 l 2,-3 3,-4 z" style="fill:#c6241d"/>
 <path d="m2 1c-0.554 0-1 0.446-1 1v0.5c0-0.554 0.446-1 1-1h18c0.554 0 1 0.446 1 1v-0.5c0-0.554-0.446-1-1-1h-18z" style="fill:#8b9cbe;opacity:.1"/>
 <path d="m3 3 0.1660156 0.5h15.458984l0.375-0.5h-16zm9.609375 3.5-1.609375 2.0664062 1-0.7832031 1-1.2832031h-0.390625zm-0.34375 1.9550781-1.119141 1.0019531-0.128906-0.4042968-0.017578 0.0136718 0.015625-0.0195312-0.015625-0.046875-0.738281 1 0.173828 0.265625 0.564453-0.765625 0.146484 0.4570312 1.626954-1.4570312-0.439454-0.0019531-0.068359-0.0429688zm-1.923828 2.1679689-1.6054689 2.0625-0.9960937 1.667969-0.0390625 0.914062 0.0195312 0.046875 0.0195313-0.460937 0.9960937-1.667969 1.7832029-2.289063-0.177734-0.273437zm3.273437 1.439453-0.615234 0.896484v0.273438l0.564453-0.732422 0.019531 0.023438 0.166016-0.292969-0.134766-0.167969zm-4.0644528 3.767578-0.4394531 0.351563-0.1816406 0.285156-1.9296875 3.533203 0.7128906-0.804688 1.8378906-3.365234zm-1.6953124 0.314453-0.8554688 0.855469 0.3261719 0.173828 0.6738281-0.673828-0.1445312-0.355469zm-0.4101563 1.59375-0.4453125 1.261719 0.3964844-0.621094 0.1972656-0.5625-0.1484375-0.078125z" style="fill:#8b9cbe;opacity:.2"/>
</svg>
