<svg xmlns="http://www.w3.org/2000/svg" width="22" height="22" version="1.1">
 <circle style="opacity:.2" cx="11" cy="11.5" r="10"/>
 <circle style="fill:#248afd" cx="11" cy="11" r="10"/>
 <path style="opacity:.2" d="m11.205 2.5039c-0.684-0.0484-1.391 0.4681-1.863 0.9453-1.9789 1.9933-3.1844 4.5939-4.3654 7.1058-0.9181 1.981-1.6115 4.053-2.1778 6.16a10 10 0 0 0 1.543 1.73c0.0489-0.435 0.1965-0.911 0.2812-1.222 0.91-2.953 2.3204-5.717 3.6622-8.4886 0.5312-0.8758 0.9078-2.083 1.9788-2.4199 1.04-0.1162 1.724 0.8955 2.263 1.6328 2.078 3.1957 4.038 6.4747 5.785 9.8637a10 10 0 0 0 0.579 -0.674c-1.201-4.04-2.746-7.983-4.907-11.607-0.648-0.9572-1.239-1.997-2.113-2.7673-0.213-0.1643-0.438-0.2416-0.666-0.2578zm4.219 12.922c-3.187 1.582-6.4647 3.064-9.9299 3.914a10 10 0 0 0 1.9004 0.986c1.4338-0.574 2.8235-1.268 4.1625-2.029 1.384-0.817 2.715-1.744 3.867-2.871z"/>
 <path style="fill:#8b9cbe" d="m15.425 14.926c-3.331 1.654-6.7584 3.206-10.397 4.033-1.173-0.006-0.5942-1.54-0.4048-2.235 0.90991-2.9527 2.3208-5.7171 3.6625-8.4891 0.53124-0.87581 0.90805-2.0828 1.9792-2.4198 1.0404-0.11612 1.724 0.89452 2.2629 1.6318 2.2036 3.3899 4.2846 6.8685 6.1097 10.478 0.462 0.941 0.915 1.886 1.363 2.834-1.332-5.462-3.126-10.881-6.017-15.73-0.648-0.957-1.238-1.996-2.112-2.7664-0.852-0.6573-1.9 0.0504-2.53 0.6867-1.9788 1.9933-3.1841 4.5943-4.3651 7.1057-1.3774 2.9723-2.2811 6.1406-2.9445 9.341-0.23258 1.0778 0.87114 1.8602 1.852 1.5257 2.7168-0.56757 5.2699-1.7581 7.6728-3.1243 1.3848-0.81676 2.7165-1.7442 3.8686-2.8719z"/>
 <path style="opacity:.2;fill:#8b9cbe" d="m11 1a10 10 0 0 0 -10 10 10 10 0 0 0 0.0098 0.293 10 10 0 0 1 9.9902 -9.793 10 10 0 0 1 9.99 9.707 10 10 0 0 0 0.01 -0.207 10 10 0 0 0 -10 -10z"/>
</svg>
