<svg width="22" height="22" version="1.1" xmlns="http://www.w3.org/2000/svg">
 <path d="m2 21.5h4l5-11 5 11h4l-7-15h-4z" style="opacity:.2"/>
 <path d="m2 21h4l5-11 5 11h4l-7-15h-4z" style="fill:#57b3c8"/>
 <path d="m9 6-7 15h0.2324219l6.7675781-14.5h4l6.767578 14.5h0.232422l-7-15h-4z" style="fill:#8b9cbe;opacity:.1"/>
 <path d="m5 1.5c-2.216 0-4 1.784-4 4v8c0 2.216 1.784 4 4 4h12c2.216 0 4-1.784 4-4v-8c0-2.216-1.784-4-4-4h-3v4h1c1.108 0 2 0.892 2 2v4c0 1.108-0.892 2-2 2h-8c-1.108 0-2-0.892-2-2v-4c0-1.108 0.892-2 2-2h1v-4z" style="opacity:.2"/>
 <path d="m5 1c-2.216 0-4 1.784-4 4v8c0 2.216 1.784 4 4 4h12c2.216 0 4-1.784 4-4v-8c0-2.216-1.784-4-4-4h-3v4h1c1.108 0 2 0.892 2 2v4c0 1.108-0.892 2-2 2h-8c-1.108 0-2-0.892-2-2v-4c0-1.108 0.892-2 2-2h1v-4h-3z" style="fill:#69cbde"/>
 <path d="m5 1c-2.216 0-4 1.784-4 4v0.5c0-2.216 1.784-4 4-4h3v-0.5h-3zm9 0v0.5h3c2.216 0 4 1.784 4 4v-0.5c0-2.216-1.784-4-4-4h-3zm-9 10v0.5c0 1.108 0.892 2 2 2h8c1.108 0 2-0.892 2-2v-0.5c0 1.108-0.892 2-2 2h-8c-1.108 0-2-0.892-2-2z" style="fill:#8b9cbe;opacity:.2"/>
</svg>
