<svg xmlns="http://www.w3.org/2000/svg" width="22" height="22" version="1">
 <rect style="opacity:0.2" width="21" height="21" x="-21.5" y="-21" rx="10.5" ry="10.5" transform="matrix(0,-1,-1,0,0,0)"/>
 <rect style="fill:#b2bfd9" width="21" height="21" x="-21" y="-21" rx="10.5" ry="10.5" transform="matrix(0,-1,-1,0,0,0)"/>
 <path style="opacity:0.1" d="M 7.5039062,4.4999901 A 0.50005,0.50005 0 0 0 7.0527344,4.7773339 l -3,6.0000021 a 0.50005,0.50005 0 1 0 0.8945312,0.445312 L 5.8085938,9.4999921 H 9.191406 l 0.861328,1.7226559 a 0.50005,0.50005 0 0 0 0.02344,0.04492 l 2.476562,4.955078 a 0.50005,0.50005 0 0 0 0.919922,-0.05664 L 14.75,12.515617 l 1.277344,3.650391 a 0.50005,0.50005 0 0 0 0.9375,0.01953 l 2,-5 A 0.50050738,0.50050738 0 1 0 18.035156,10.814444 L 16.53125,14.57421 15.222656,10.833975 a 0.50005,0.50005 0 0 0 -0.945312,0 l -1.359375,3.884766 -1.94336,-3.884766 a 0.50005,0.50005 0 0 0 -0.0098,-0.02344 l -0.01172,-0.02344 a 0.50005,0.50005 0 0 0 -0.0059,-0.0098 L 7.9472656,4.7773339 A 0.50005,0.50005 0 0 0 7.5039062,4.4999901 Z M 7.5,6.1171776 8.6914062,8.4999901 H 6.3085938 Z"/>
 <path style="fill:none;stroke:#7a7a7a;stroke-linecap:round;stroke-linejoin:round" d="M 4.5000133,10.499996 7.5000132,4.4999981 10.500013,10.499996"/>
 <rect style="fill:#7a7a7a" width="4" height="1" x="5.5" y="8"/>
 <path style="fill:none;stroke:#7a7a7a;stroke-linecap:round;stroke-linejoin:round" d="m 10.500013,10.499996 2.499987,5 1.75,-5 1.75,5 2,-5"/>
 <path style="fill:none;stroke:#404040;stroke-width:0.5px;stroke-linecap:round" d="m 5.2500133,15.249996 5.2499997,-4.75"/>
 <path style="fill:none;stroke:#404040;stroke-linecap:round" d="m 10.500013,10.499996 3,-3.9999979"/>
 <circle style="opacity:0.1" cx="10.5" cy="11" r="1.5"/>
 <circle style="fill:#595959" cx="10.5" cy="10.5" r="1.5"/>
 <path style="opacity:0.2;fill:#8b9cbe" d="M 10.5,-1.9073486e-6 C 4.683,-1.9073486e-6 0,4.6829981 0,10.499998 c 0,0.08447 0.011708,0.166015 0.013672,0.25 C 0.1469713,5.050667 4.7674739,0.49999809 10.5,0.49999809 c 5.732526,0 10.353029,4.55066891 10.486328,10.24999991 C 20.988292,10.666013 21,10.584472 21,10.499998 21,4.6829981 16.317,-1.9073486e-6 10.5,-1.9073486e-6 Z"/>
</svg>
