<svg width="22" height="22" version="1.1" xmlns="http://www.w3.org/2000/svg">
 <g>
  <rect x=".99989998" y="1.003822" width="20" height="20" rx="1" ry="1" style="fill:#596572"/>
  <path d="m1.9999 1.003822c-0.554 0-1 0.446-1 1v0.5c0-0.554 0.446-1 1-1h18c0.554 0 1 0.446 1 1v-0.5c0-0.554-0.446-1-1-1z" style="fill:#8b9cbe;opacity:.1"/>
  <path d="m0.9999 20.003822v0.5c0 0.554 0.446 1 1 1h18c0.554 0 1-0.446 1-1v-0.5c0 0.554-0.446 1-1 1h-18c-0.554 0-1-0.446-1-1z" style="opacity:.2"/>
  <path d="m5 6.500078v10h6v-2h-4v-8zm7 2.0449219v8.0000001h2v-5c1-1.439708 3-1 3-1v-2.0000001s-2 0-3 1.0000001v-1.0000001z" style="opacity:.2"/>
  <path d="m5 6v10h6v-2h-4v-8zm7 2.0449219v8.0000001h2v-5c1-1.4397079 3-1 3-1v-2.0000001s-2 0-3 1v-1z" style="fill:#b7c8d2"/>
 </g>
</svg>
