<svg width="22" height="22" version="1.1" xmlns="http://www.w3.org/2000/svg">
 <rect x="1" y="1" width="20" height="20" rx="1" ry="1" style="fill:#cf9e28"/>
 <path d="m2 1c-0.554 0-1 0.446-1 1v0.5c0-0.554 0.446-1 1-1h18c0.554 0 1 0.446 1 1v-0.5c0-0.554-0.446-1-1-1z" style="fill:#8b9cbe;opacity:.1"/>
 <path d="m1 20v0.5c0 0.554 0.446 1 1 1h18c0.554 0 1-0.446 1-1v-0.5c0 0.554-0.446 1-1 1h-18c-0.554 0-1-0.446-1-1z" style="opacity:.2"/>
 <path d="m10 9.4999995h2l1 5.0000005 1-5.0000005h2l1 5.0000005 1-5.0000005h2l-2 7.0000005h-2l-1-4-1 4h-2z" style="opacity:.2"/>
 <path d="m10 9h2l1 5 1-5h2l1 5 1-5h2l-2 7h-2l-1-4-1 4h-2z" style="fill:#faee23"/>
 <path d="m3 6.5v10h2v-3h4v-2h-4v-3h4v-2h-4z" style="opacity:.2"/>
 <path d="m3 6v10h2v-3h4v-2h-4v-3h4v-2h-4z" style="fill:#faee23"/>
</svg>
