<svg width="22" height="22" version="1.1" xmlns="http://www.w3.org/2000/svg">
 <path d="m1 20v0.5c0 0.554 0.446 1 1 1h18c0.554 0 1-0.446 1-1v-0.5c0 0.554-0.446 1-1 1h-18c-0.554 0-1-0.446-1-1z" style="opacity:.2"/>
 <rect x="1" y="1" width="20" height="20" rx="1" ry="1" style="fill:#a34100"/>
 <path d="m2 1c-0.554 0-1 0.446-1 1v0.5c0-0.554 0.446-1 1-1h18c0.554 0 1 0.446 1 1v-0.5c0-0.554-0.446-1-1-1z" style="fill:#8b9cbe;opacity:.1"/>
 <path d="m5 6.5v10h2v-3h4v-2h-4v-3h4v-2h-4z" style="opacity:.2"/>
 <path d="m5 6v10h2v-3h4v-2h-4v-3h4v-2h-4z" style="fill:#ff7d25"/>
 <path d="m14 6.5v3s4.000365-0.5001112 4 3c-3.65e-4 3.500111-2 4-3 4s-3 0-3-1v-9zm1 5h-1v3h1s1 0 1-1.5-1-1.5-1-1.5z" style="opacity:.2"/>
 <path d="m14 6v3s4.000365-0.5001112 4 3c-3.65e-4 3.500111-2 4-3 4s-3 0-3-1v-9zm1 5h-1v3h1s1 0 1-1.5-1-1.5-1-1.5z" style="fill:#ff7d25"/>
</svg>
