<svg width="22" height="22" version="1.1" xmlns="http://www.w3.org/2000/svg">
 <g>
  <rect x="1" y="1" width="20" height="20" rx="1" ry="1" style="fill:#514391"/>
  <path d="m2 1c-0.554 0-1 0.446-1 1v0.5c0-0.554 0.446-1 1-1h18c0.554 0 1 0.446 1 1v-0.5c0-0.554-0.446-1-1-1z" style="fill:#8b9cbe;opacity:.1"/>
  <path d="m1 20v0.5c0 0.554 0.446 1 1 1h18c0.554 0 1-0.446 1-1v-0.5c0 0.554-0.446 1-1 1h-18c-0.554 0-1-0.446-1-1z" style="opacity:.2"/>
  <path d="m7 6.5-2 10h2l0.2851562-2h1.4296876l0.2851562 2h2l-2-10zm1 3 0.4277344 3h-0.8554688zm7 0c-3 0-3 1-3 1v6h1.460938v-5l0.04492-1c1.494374 0 1.494142 1 1.494142 1v5h2v-5s0-2-2-2z" style="opacity:.2"/>
  <path d="m7 6-2 10h2l0.2851562-2h1.4296876l0.2851562 2h2l-2-10zm1 3 0.4277344 3h-0.8554688z" style="fill:#ab9dfe"/>
  <path d="m17 16v-5s0-2-2-2c-3 0-3 1-3 1v6h1.461417v-5l0.04421-1c1.494373 0 1.494373 1 1.494373 1v5z" style="fill:#ab9dfe"/>
 </g>
</svg>
