<svg width="22" height="22" version="1.1" xmlns="http://www.w3.org/2000/svg">
 <rect x=".99989998" y="1" width="20" height="20" rx="1" ry="1" style="fill:#c2352a"/>
 <path d="m1.9999 1c-0.554 0-1 0.446-1 1v0.5c0-0.554 0.446-1 1-1h18c0.554 0 1 0.446 1 1v-0.5c0-0.554-0.446-1-1-1z" style="fill:#8b9cbe;opacity:.1"/>
 <path d="m0.9999 20v0.5c0 0.554 0.446 1 1 1h18c0.554 0 1-0.446 1-1v-0.5c0 0.554-0.446 1-1 1h-18c-0.554 0-1-0.446-1-1z" style="opacity:.2"/>
 <path d="m8 1.5-6.7167969 19.193359c0.1815902 0.187807 0.4337142 0.306641 0.7167969 0.306641h10.3125l-1.3125-3.5h-3l3-9 4.808594 12.5h4.191406c0.283083 0 0.535207-0.118834 0.716797-0.306641l-6.716797-19.193359h-6z" style="opacity:.2"/>
 <path d="m8 1-6.8320312 19.521484c0.1765877 0.281303 0.4740132 0.478516 0.8320312 0.478516h10.5l-1.5-4h-3l3-9 5 13h4c0.358018 0 0.655444-0.197213 0.832031-0.478516l-6.832031-19.521484h-6z" style="fill:#8b9cbe"/>
</svg>
