<svg xmlns="http://www.w3.org/2000/svg" width="22" height="22" version="1.1">
 <circle style="opacity:0.2" cx="11" cy="11.5" r="10"/>
 <circle style="fill:#1940ae" cx="11" cy="11" r="10"/>
 <path style="opacity:0.1;fill:#8b9cbe" d="M 11,1 A 10,10 0 0 0 1,11 10,10 0 0 0 1.01075,11.291 10,10 0 0 1 11,1.5 10,10 0 0 1 20.9895,11.209 10,10 0 0 0 21,11 10,10 0 0 0 11,1 Z"/>
 <path style="opacity:0.2" d="M 10.527935,18.057137 C 9.972334,17.047966 9.950517,16.487884 10.435705,15.689568 L 10.711048,15.236532 10.112555,14.76055 C 9.192957,14.029194 8.8876895,13.558927 8.8876895,12.873626 c 0,-0.563569 0.3228345,-1.288337 0.5738635,-1.288337 0.0602,0 0.109449,-0.06411 0.109449,-0.142461 0,-0.07835 -0.294677,-0.194367 -0.654841,-0.257808 C 8.091246,11.039713 7.6438925,10.719238 7.6366975,10.268435 7.6318475,9.967652 8.083286,9.617486 8.96717,9.23632 9.648343,8.942572 9.896801,8.7717395 9.786403,8.673038 9.699253,8.595121 9.461393,8.574466 9.257821,8.627138 9.044804,8.682253 8.8876935,8.655548 8.8876935,8.564225 8.8876935,8.476953 8.644265,8.403165 8.3467375,8.400253 7.3401905,8.390403 7.1655425,8.371923 7.0397175,8.261981 6.9706695,8.201648 6.7634075,8.135516 6.5791355,8.115021 6.3948635,8.0945265 6.1681855,7.9704365 6.075406,7.839265 5.9264105,7.628613 5.9710365,7.587436 6.45765,7.48656 7.2009745,7.332466 7.9170665,7.1685758 8.4376205,6.5036758 9.365513,5.3184863 9.650441,5.2373603 9.878956,6.0932958 c 0.11135,0.417074 0.573226,0.5759252 0.706849,0.4022927 0.02573,-0.033425 -0.04739,-0.3079825 -0.16248,-0.610123 C 10.225437,5.365954 10.224586,5.313433 10.407655,4.918427 10.640383,4.4162575 11.15064,4.354896 11.432472,4.7951865 c 0.240738,0.3760895 0.239851,0.807532 -0.0025,1.1860425 -0.29243,0.456849 -0.02831,1.0474328 0.355895,0.6915128 0.159809,-0.148041 0.290563,-0.339951 0.290563,-0.426466 0,-0.086515 0.10367,-0.303873 0.230381,-0.4830165 0.276757,-0.391283 0.46655,-0.2857795 1.25013,0.6949325 0.605546,0.7578895 1.215441,0.8633822 1.979678,1.0165127 0.499269,0.100038 0.538292,0.1366185 0.381793,0.35788 -0.09588,0.135549 -0.320502,0.262933 -0.499169,0.283076 -0.178666,0.020145 -0.414647,0.092307 -0.524403,0.160365 -0.109754,0.068059 -0.32442,0.079434 -0.477033,0.02528 -0.152615,-0.054154 -0.311504,-0.020625 -0.35309,0.074503 -0.04604,0.105328 -0.244604,0.132598 -0.507777,0.069736 -0.268123,-0.064045 -0.461588,-0.03592 -0.509677,0.074086 -0.04654,0.106455 -0.22804,0.1373885 -0.454189,0.077407 -0.216235,-0.057353 -0.40783,-0.028635 -0.44982,0.067418 -0.04398,0.100608 0.25733,0.3045825 0.755685,0.5115695 0.997101,0.414136 1.341314,0.701853 1.341314,1.121164 0,0.437971 -0.406369,0.766133 -1.110384,0.896687 -0.328844,0.06098 -0.597898,0.146318 -0.597898,0.189635 0,0.04332 0.153745,0.326328 0.341656,0.62891 0.372105,0.599179 0.411048,0.858214 0.209699,1.394846 -0.152953,0.407641 -0.371717,0.648264 -1.206471,1.327021 l -0.605434,0.492289 0.234778,0.382718 c 0.129126,0.210496 0.263284,0.568611 0.29813,0.795812 0.03484,0.227201 0.08353,0.505282 0.108187,0.617959 0.06059,0.276852 -0.726483,1.488026 -0.959722,1.476857 -0.102327,-0.0049 -0.29354,-0.204152 -0.424919,-0.442784 z m 1.206898,-1.145956 c 0,-0.359349 -0.427596,-1.300577 -0.590845,-1.300577 -0.05086,0 -0.09247,0.618394 -0.09247,1.374209 v 1.37421 l 0.341656,-0.550149 c 0.187912,-0.302583 0.341657,-0.706544 0.341657,-0.897693 z m -0.805206,0.179287 c -0.0044,-0.503977 -0.04828,-1.061232 -0.0975,-1.238346 -0.08183,-0.29442 -0.110641,-0.273716 -0.33614,0.241519 -0.26258,0.599958 -0.247368,1.073555 0.05576,1.736016 0.251674,0.550009 0.386833,0.285619 0.377879,-0.739189 z m -0.105878,-3.814547 c 0,-1.520924 -0.0016,-1.52962 -0.282411,-1.52962 -0.500717,0 -1.194803,0.488909 -1.266367,0.892019 -0.115919,0.652987 0.06382,1.017862 0.786847,1.597286 0.387743,0.310732 0.7178,0.566086 0.733458,0.567452 0.01566,0.0014 0.02848,-0.685846 0.02848,-1.527137 z m 1.093422,0.950576 c 0.754147,-0.565061 0.842631,-0.684969 0.842631,-1.141889 0,-0.632673 -0.20083,-0.99056 -0.656183,-1.169351 -0.926845,-0.363919 -0.938214,-0.348403 -0.938214,1.280158 0,0.797012 0.04361,1.449113 0.09692,1.449113 0.05331,0 0.347987,-0.188114 0.654842,-0.418031 z m -1.13613,-3.627411 c -0.03915,-0.27674 -0.07118,-0.856385 -0.07118,-1.2881 0,-0.431715 -0.05065,-0.784937 -0.112545,-0.784937 -0.0619,0 -0.100335,0.1562805 -0.08541,0.3472895 0.02433,0.3114555 -0.09038,0.3906725 -1.111727,0.7677565 -1.5270425,0.563789 -1.5270425,0.807323 0,1.162499 1.566812,0.364426 1.463507,0.379726 1.380861,-0.204508 z m 2.197191,0.127135 c 0.402005,-0.103133 0.75116,-0.273657 0.775899,-0.378942 0.0444,-0.188948 -1.032559,-0.714343 -1.933884,-0.94345 C 11.374332,9.290484 11.265322,9.068345 11.573551,8.901121 11.718782,8.822329 11.724331,8.7767325 11.602031,8.66712 11.313491,8.408528 11.279297,8.5311055 11.279297,9.824015 v 1.297967 l 0.484013,-0.104124 c 0.266207,-0.05727 0.812925,-0.188505 1.214929,-0.291637 z"/>
 <path style="fill:#8b9cbe" d="M 10.527935,17.557136 C 9.972334,16.547965 9.950517,15.987883 10.435705,15.189567 L 10.711048,14.73653 10.112555,14.260549 C 9.192957,13.529193 8.8876895,13.058926 8.8876895,12.373625 c 0,-0.563569 0.3228345,-1.288337 0.5738635,-1.288337 0.0602,0 0.109449,-0.06411 0.109449,-0.142461 0,-0.07835 -0.294677,-0.194367 -0.654841,-0.257808 C 8.091246,10.539712 7.6438925,10.219237 7.6366975,9.768434 7.6318475,9.467651 8.083286,9.117485 8.96717,8.7363195 9.648343,8.442571 9.896801,8.2717385 9.786403,8.173037 9.699253,8.09512 9.461393,8.074465 9.257821,8.127137 9.044804,8.182252 8.8876935,8.155547 8.8876935,8.064225 8.8876935,7.976953 8.644265,7.903165 8.3467375,7.900253 7.3401905,7.890403 7.1655425,7.871923 7.0397175,7.761981 6.9706695,7.701648 6.7634075,7.635516 6.5791355,7.615021 6.3948635,7.5945255 6.1681855,7.4704355 6.075406,7.339264 5.9264105,7.128612 5.9710365,7.087435 6.45765,6.986559 7.2009745,6.832465 7.9170665,6.6685748 8.4376205,6.0036748 9.365513,4.8184853 9.650441,4.7373593 9.878956,5.5932948 9.990306,6.0103688 10.452182,6.16922 10.585805,5.9955875 10.611534,5.9621625 10.53841,5.687605 10.423325,5.3854645 10.225437,4.865953 10.224586,4.813432 10.407655,4.418426 10.640383,3.9162567 11.15064,3.854895 11.432472,4.2951855 c 0.240738,0.3760895 0.239851,0.807532 -0.0025,1.1860425 -0.29243,0.456849 -0.02831,1.0474328 0.355895,0.6915128 0.159809,-0.148041 0.290563,-0.339951 0.290563,-0.426466 0,-0.086515 0.10367,-0.303873 0.230381,-0.4830165 0.276757,-0.391283 0.46655,-0.2857795 1.25013,0.6949325 0.605546,0.7578895 1.215441,0.8633822 1.979678,1.0165127 0.499269,0.100038 0.538292,0.1366185 0.381793,0.35788 -0.09588,0.135549 -0.320502,0.262933 -0.499169,0.283076 -0.178666,0.020145 -0.414647,0.092307 -0.524403,0.160365 -0.109754,0.068058 -0.32442,0.079434 -0.477033,0.02528 -0.152615,-0.054154 -0.311504,-0.020625 -0.35309,0.074503 -0.04604,0.105328 -0.244604,0.132598 -0.507777,0.069736 -0.268123,-0.064045 -0.461588,-0.03592 -0.509677,0.074086 -0.04654,0.106455 -0.22804,0.1373885 -0.454189,0.077407 -0.216235,-0.057353 -0.40783,-0.028635 -0.44982,0.067418 -0.04398,0.100608 0.25733,0.3045825 0.755685,0.5115695 0.997101,0.414135 1.341314,0.701853 1.341314,1.121164 0,0.437971 -0.406369,0.766133 -1.110384,0.896687 -0.328844,0.06098 -0.597898,0.146318 -0.597898,0.189635 0,0.04332 0.153745,0.326328 0.341656,0.62891 0.372105,0.599179 0.411048,0.858214 0.209699,1.394846 -0.152953,0.407641 -0.371717,0.648264 -1.206471,1.327021 l -0.605434,0.492289 0.234778,0.382718 c 0.129126,0.210496 0.263284,0.568611 0.29813,0.795812 0.03484,0.227201 0.08353,0.505282 0.108187,0.617959 0.06059,0.276852 -0.726483,1.488026 -0.959722,1.476857 -0.102327,-0.0049 -0.29354,-0.204152 -0.424919,-0.442784 z m 1.206898,-1.145956 c 0,-0.359349 -0.427596,-1.300577 -0.590845,-1.300577 -0.05086,0 -0.09247,0.618394 -0.09247,1.374209 v 1.374211 l 0.341656,-0.55015 c 0.187912,-0.302582 0.341657,-0.706544 0.341657,-0.897693 z m -0.805206,0.179287 c -0.0044,-0.503977 -0.04828,-1.061232 -0.0975,-1.238346 -0.08183,-0.29442 -0.110641,-0.273716 -0.33614,0.241519 -0.26258,0.599958 -0.247368,1.073555 0.05576,1.736016 0.251674,0.550009 0.386833,0.285619 0.377879,-0.739189 z m -0.105878,-3.814546 c 0,-1.520924 -0.0016,-1.52962 -0.282411,-1.52962 -0.500717,0 -1.194803,0.488909 -1.266367,0.892019 -0.115919,0.652986 0.06382,1.017861 0.786847,1.597285 0.387743,0.310733 0.7178,0.566087 0.733458,0.567453 0.01566,0.0014 0.02848,-0.685847 0.02848,-1.527137 z m 1.093422,0.950576 c 0.754147,-0.565061 0.842631,-0.68497 0.842631,-1.141889 0,-0.632673 -0.20083,-0.990561 -0.656183,-1.169352 -0.926845,-0.363918 -0.938214,-0.348403 -0.938214,1.280158 0,0.797013 0.04361,1.449114 0.09692,1.449114 0.05331,0 0.347987,-0.188114 0.654842,-0.418031 z m -1.13613,-3.627412 c -0.03915,-0.27674 -0.07118,-0.856385 -0.07118,-1.2881 0,-0.431715 -0.05065,-0.784937 -0.112545,-0.784937 -0.0619,0 -0.100335,0.1562805 -0.08541,0.3472895 0.02433,0.3114555 -0.09038,0.390673 -1.111727,0.7677565 -1.5270425,0.563789 -1.5270425,0.807324 0,1.1625 1.566812,0.364426 1.463507,0.379725 1.380861,-0.204509 z m 2.197191,0.127135 C 13.380237,10.123087 13.729392,9.952563 13.754131,9.847278 13.798531,9.658331 12.721572,9.132935 11.820247,8.9038285 11.374332,8.790483 11.265322,8.568344 11.573551,8.40112 11.718782,8.322328 11.724331,8.2767315 11.602031,8.167119 11.313491,7.908527 11.279297,8.0311045 11.279297,9.324015 v 1.297967 l 0.484013,-0.104124 c 0.266207,-0.05727 0.812925,-0.188505 1.214929,-0.291638 z"/>
</svg>
