<svg width="22" height="22" version="1.1" xmlns="http://www.w3.org/2000/svg">
 <path d="m11.000001 1.500001c-3.692308 0-8.000001 6.1111105-8.000001 11.111111 0 3.67582 3.0769239 8.888888 8.000001 8.888888 4.923077 0 8-5.213068 8-8.888888 0-4.444445-4.307693-11.111111-8-11.111111z" style="opacity:.2"/>
 <path d="M 11.000001,1.000001 C 7.307693,1.000001 3,7.1111115 3,12.111112 3,15.786932 6.0769239,21 11.000001,21 c 4.923077,0 8,-5.213068 8,-8.888888 0,-4.444445 -4.307693,-11.111111 -8,-11.111111 z" style="fill:#7a9a76"/>
 <path d="m 6,12.5 2,3 1,4 c 0,0 0.110863,0.751973 0.568359,1.333984 C 10.02764,20.933838 10.5016,21 11,21 11.278983,21 11.549504,20.97952 11.816406,20.94727 12.273973,20.35511 12.5,19.5 12.5,19.5 l 2.5,-3 v -2 l -1,2 L 11.5,19 9,14.5 Z" style="opacity:.2"/>
 <path d="m11.810547 1.1113281a5.5 10 7.2986217 0 0-5.7656251 9.1894529 5.5 10 7.2986217 0 0 4.1855471 10.619141 5.5 10 7.2986217 0 0 6.724609-9.220703 5.5 10 7.2986217 0 0-0.542969-6.7675784c-1.320355-1.9202993-2.9839-3.4246644-4.601562-3.8203125z" style="opacity:.2"/>
 <path d="m6 12 2 3 1 4s0.283378 2 1.905 2c1.081081 0 1.595-2 1.595-2l2.5-3v-2l-1 2-2.5 2.5-2.5-4.5z" style="fill:#ecff50"/>
 <path d="M 11,1 C 7.307692,1 3,7.1113276 3,12.111328 c 0,0.08272 0.00862,0.16971 0.011719,0.253906 C 3.1477602,7.4126834 7.3675093,1.5 11,1.5 c 3.629222,0 7.843056,6.4363561 7.986328,10.876953 C 18.989724,12.28878 19,12.197885 19,12.111328 19,7.6668831 14.692307,1 11,1 Z" style="fill:#8b9cbe;opacity:.2"/>
</svg>
