<svg xmlns="http://www.w3.org/2000/svg" width="22" height="22" version="1">
 <rect style="fill:#b2bfd9" width="20" height="20" x="1" y="1" rx="10" ry="10"/>
 <circle style="opacity:0.1" cx="11" cy="11.5" r="8"/>
 <path style="opacity:0.2;fill:#8b9cbe" d="M 11,1 C 5.4604924,1 1.0008889,5.4599999 1.0008889,11 c 0,0.084 -0.002,0.1665 0,0.25 C 1.1330771,5.8269999 5.5444849,1.5 11,1.5 c 5.455515,0 9.867123,4.3269999 9.999111,9.75 0.002,-0.0835 0,-0.166 0,-0.25 C 20.999111,5.4599999 16.539507,1 11,1 Z"/>
 <path style="opacity:0.2" d="M 1.00585,11.25 C 1.0038,11.3335 1,11.416 1,11.5 c 0,5.54 4.4599999,10 10,10 5.54,0 10,-4.46 10,-10 0,-0.084 -0.004,-0.1665 -0.006,-0.25 C 20.862,16.673 16.456,21 11,21 5.5439999,21 1.138,16.673 1.006,11.25 Z"/>
 <circle style="fill:#ff5722" cx="11" cy="11" r="8"/>
 <path style="opacity:0.2" d="m 8.6540638,7.5001723 a 0.63932034,0.64853259 0 0 0 -0.654064,0.648844 V 14.85166 a 0.63932034,0.64853259 0 0 0 0.958871,0.561517 l 2.8608632,-1.675217 2.860864,-1.676061 a 0.63932034,0.64853259 0 0 0 0,-1.122988 L 11.819778,9.262583 8.9589583,7.5871438 a 0.63932034,0.64853259 0 0 0 -0.304938,-0.087105 z"/>
 <path style="fill:#8b9cbe" d="m 8.6540638,7.0001723 a 0.63932034,0.64853259 0 0 0 -0.654064,0.648844 V 14.35166 a 0.63932034,0.64853259 0 0 0 0.958871,0.561517 l 2.8608632,-1.675217 2.860864,-1.676061 a 0.63932034,0.64853259 0 0 0 0,-1.122988 L 11.819778,8.7625833 8.9589583,7.0871438 a 0.63932034,0.64853259 0 0 0 -0.304938,-0.087105 z"/>
</svg>
