<svg xmlns="http://www.w3.org/2000/svg" width="22" height="22" version="1.1">
 <circle style="opacity:0.2" cx="11" cy="11.5" r="10"/>
 <circle style="fill:#1a73e8" cx="11" cy="11" r="10"/>
 <path style="opacity:0.2;fill:#8b9cbe" d="M 11,1 A 10,10 0 0 0 1,11 10,10 0 0 0 1.01075,11.291 10,10 0 0 1 11,1.5 10,10 0 0 1 20.9895,11.209 10,10 0 0 0 21,11 10,10 0 0 0 11,1 Z"/>
 <path style="opacity:0.2" d="M 4.6328125,7.5 A 0.632707,0.5583304 0 0 0 4.0839844,8.3378906 L 5.5195312,10.529297 6,11.263672 v 3.11914 C 6,15.555989 6.9349412,16.5 8.0957031,16.5 H 14.904297 C 16.065059,16.5 17,15.555989 17,14.382812 V 9.617188 C 17,8.444011 16.065059,7.5 14.904297,7.5 H 10.367188 8.0957031 7.5 Z"/>
 <rect style="fill:#8b9cbe" width="11" height="9" x="6" y="7" rx="2.095" ry="2.118"/>
 <path style="fill:#8b9cbe" d="m 4.6333332,7.0000005 a 0.632707,0.5583304 0 0 0 -0.548621,0.837412 l 1.43457,2.1916645 1.4333335,2.191663 a 0.632707,0.5583304 0 0 0 1.096005,0 L 9.481954,10.029077 10.915288,7.8374125 A 0.632707,0.5583304 0 0 0 10.367903,7.0000005 H 7.5000007 Z"/>
 <rect style="fill:#8ab4f8" width="7" height="1" x="8" y="9" rx=".467" ry=".5"/>
 <rect style="fill:#8ab4f8" width="7" height="1" x="8" y="11" rx=".467" ry=".5"/>
 <rect style="fill:#8ab4f8" width="5" height="1" x="8" y="13" rx=".455" ry=".5"/>
</svg>
