<svg xmlns="http://www.w3.org/2000/svg" width="22" height="22" version="1">
 <rect style="opacity:0.2" width="18.68" height="18.68" x=".27" y="3.35" rx="1.401" ry="1.401" transform="rotate(-9.1323021)"/>
 <rect style="fill:#5390f8" width="18.236" height="18.236" x=".57" y="3.07" rx="1.368" ry="1.368" transform="rotate(-9.1323021)"/>
 <path style="fill:#85acf4" d="m 2.947132,16.143771 0.5911182,3.677198 c 0.1231898,0.766332 0.8393036,1.284097 1.6056365,1.160908 L 20.82097,18.461749 c 0.766333,-0.12319 1.284097,-0.839303 1.160908,-1.605636 L 21.39076,13.178915 Z"/>
 <path style="fill:#bbbbbb" d="M 2.1790302,2.5382498 C 1.4126976,2.6614396 0.89493264,3.3775534 1.0181224,4.1438863 L 1.3201671,6.0228308 19.763795,3.0579741 19.46175,1.1790299 C 19.33856,0.41269716 18.622447,-0.10506784 17.856114,0.01812196 Z"/>
 <path style="fill:none;stroke:#8b9cbe;stroke-width:0.49415916;stroke-linecap:round" d="M 5.0782782,18.396805 8.1862897,17.897186"/>
 <path style="fill:#3c6fc7" d="M 2.1336495,11.0833 2.947132,16.143771 21.39076,13.178915 20.577277,8.1184437 Z"/>
 <path style="fill:none;stroke:#8b9cbe;stroke-width:0.49415916;stroke-linecap:round" d="M 4.2647951,13.336333 11.42608,12.18514"/>
 <path style="fill:#5390f8" d="M 1.320167,6.0228298 2.1336495,11.0833 20.577277,8.1184437 19.763795,3.0579732 Z"/>
 <path style="opacity:0.2" d="m 5.3154297,3.5752823 a 0.67758839,0.67758839 0 0 0 -0.135742,0.00879 0.67758839,0.67758839 0 0 0 -0.5615235,0.776367 0.67758839,0.67758839 0 0 0 0.777344,0.5615235 0.67758839,0.67758839 0 0 0 0.561523,-0.776367 A 0.67758839,0.67758839 0 0 0 5.3154297,3.5752823 Z M 3.1464847,3.9239148 A 0.67758839,0.67758839 0 0 0 3.011719,3.9327043 0.67758839,0.67758839 0 0 0 2.4501956,4.7090713 0.67758839,0.67758839 0 0 0 3.2265628,5.2705948 0.67758839,0.67758839 0 0 0 3.7880862,4.4932508 0.67758839,0.67758839 0 0 0 3.1464847,3.9239148 Z M 14.555664,5.6553603 a 1.3449896,1.3449896 0 0 0 -0.267578,0.0166 1.3449896,1.3449896 0 0 0 -1.114258,1.5410155 1.3449896,1.3449896 0 0 0 1.541016,1.1142579 1.3449896,1.3449896 0 0 0 1.114258,-1.5410154 1.3449896,1.3449896 0 0 0 -1.273438,-1.1308595 z M 11.472656,11.34286 a 1.3449896,1.3449896 0 0 0 -0.268554,0.01563 1.3449896,1.3449896 0 0 0 -1.114258,1.541992 1.3449896,1.3449896 0 0 0 1.541992,1.114258 1.3449896,1.3449896 0 0 0 1.114258,-1.541993 1.3449896,1.3449896 0 0 0 -1.273438,-1.129882 z m -3.2685543,5.716797 a 1.3449896,1.3449896 0 0 0 -0.2685545,0.01563 1.3449896,1.3449896 0 0 0 -1.114258,1.541015 1.3449896,1.3449896 0 0 0 1.5410155,1.115235 1.3449896,1.3449896 0 0 0 1.1152342,-1.541993 1.3449896,1.3449896 0 0 0 -1.2734372,-1.129882 z"/>
 <path style="fill:none;stroke:#8b9cbe;stroke-width:0.49415916;stroke-linecap:round" d="M 3.4513126,8.2758632 14.517579,6.4969343"/>
 <path style="fill:none;stroke:#4050ae;stroke-width:0.49415916;stroke-linecap:round" d="M 8.0874287,17.913077 20.073097,15.986353"/>
 <path style="fill:none;stroke:#4050ae;stroke-width:0.49415916;stroke-linecap:round" d="m 11.376649,12.193086 7.882965,-1.267205"/>
 <path style="fill:none;stroke:#4050ae;stroke-width:0.49415916;stroke-linecap:round" d="M 14.517579,6.4969343 18.446132,5.8654108"/>
 <circle style="fill:#8b9cbe" cx="9.339" cy="13.844" r="1.345" transform="rotate(-9.1323021)"/>
 <circle style="fill:#4050ae" cx="9.339" cy="13.844" r=".614" transform="rotate(-9.1323021)"/>
 <circle style="fill:#8b9cbe" cx="13.286" cy="8.719" r="1.345" transform="rotate(-9.1323021)"/>
 <circle style="fill:#4050ae" cx="13.286" cy="8.719" r=".614" transform="rotate(-9.1323021)"/>
 <circle style="fill:#8b9cbe" cx="5.204" cy="18.97" r="1.345" transform="rotate(-9.1323021)"/>
 <circle style="fill:#4050ae" cx="5.204" cy="18.97" r=".614" transform="rotate(-9.1323021)"/>
 <circle style="fill:#8b9cbe" cx="2.429" cy="4.544" r=".678" transform="rotate(-9.1323021)"/>
 <circle style="fill:#8b9cbe" cx="4.625" cy="4.544" r=".678" transform="rotate(-9.1323021)"/>
 <path style="opacity:0.2;fill:#8b9cbe" d="M 18.139649,9.7646247e-4 C 18.046489,-0.00288854 17.952237,0.00315646 17.856446,0.01855446 L 2.1787112,2.5380858 C 1.4123786,2.6612756 0.89536524,3.3772218 1.018555,4.1435543 l 0.00684,0.043945 C 1.122495,3.6117863 1.5687104,3.1361448 2.1787112,3.0380858 L 17.856446,0.51855456 c 0.766332,-0.1231898 1.482279,0.3938235 1.605468,1.16015624 l 2.512695,15.6337882 c 0.02488,-0.147544 0.03196,-0.299723 0.0068,-0.456054 L 19.461914,1.1787108 C 19.354123,0.50816966 18.791785,0.02802956 18.139649,9.7646247e-4 Z"/>
 <circle style="opacity:0.2" cx="14.58" cy="19.562" r="4.5" transform="rotate(-9.1323021)"/>
 <circle style="fill:#e9375f" cx="14.659" cy="19.068" r="4.5" transform="rotate(-9.1323021)"/>
 <path style="fill:#8b9cbe" d="m 17.5,13.024413 -2.292969,5.975586 h 1.070313 l 0.383789,-1 h 1.676758 l 0.382812,1 h 1.070313 z m 0,2.791016 0.454102,1.18457 h -0.90918 z"/>
</svg>
