<svg xmlns="http://www.w3.org/2000/svg" width="22" height="22" version="1">
 <rect fill="#964fa9" width="20" height="20" x="1" y="1" rx="10" ry="10"/>
 <path fill="#fff" opacity=".2" d="m11 1c-5.54 0-10 4.46-10 10 0 0.084-0.002 0.166 0 0.25 0.1322-5.423 4.544-9.75 10-9.75s9.868 4.327 10 9.75c0.002-0.084 0-0.166 0-0.25 0-5.54-4.46-10-10-10z"/>
 <path opacity=".2" d="m1.0058 11.25c-0.002 0.084-0.0058 0.166-0.0058 0.25 0 5.54 4.46 10 10 10s10-4.46 10-10c0-0.084-0.004-0.1665-0.006-0.25-0.132 5.423-4.538 9.75-9.994 9.75s-9.862-4.327-9.994-9.75z"/>
 <path opacity=".2" d="m4.5 11c-0.3291-0.098-1.5 0.5-1.5 0.5 0.5921-2.1926 4-4 4-4-0.3615-0.1335-1.5 0-1.5 0 2.6642-2.5912 6-1.5 6-1.5 0.098-0.5657 1.5-1.5 1.5-1.5-0.16491 0.16517 0 1 0 1 0.16453-0.29943 0.55662-0.53501 0.55662-0.53501-0.29584 0.69729 0 2.1926 0 2.1926 0.85472 0.86475 1.8083 3.8572 1.8083 3.8572l0.36263 0.53174c0.46038 0.66563 0.29133 1.4641-0.1649 1.7121-1.279 0.765-1.875-0.515-1.875-0.515-1.414-0.166-2.688-1.744-2.688-1.744-1.9057 0.997-0.28 4.052 0.543 5.132 1.058 1.385-0.043 3.368-0.043 3.368s-3.316 0-6.168-3.0717c-1.332-1.428-1.832-3.428-0.832-5.428z"/>
 <path style="fill:#8b9cbe" d="m4.5 10.5c-0.3291-0.098-1.5 0.5-1.5 0.5 0.5921-2.1926 4-4 4-4-0.3615-0.1335-1.5 0-1.5 0 2.6642-2.5912 6-1.5 6-1.5 0.098-0.5657 1.5-1.5 1.5-1.5-0.16491 0.16517 0 1 0 1 0.16453-0.29943 0.55662-0.53501 0.55662-0.53501-0.29584 0.69729 0 2.1926 0 2.1926 0.85472 0.86475 1.8083 3.8572 1.8083 3.8572l0.36263 0.53174c0.46038 0.66563 0.29133 1.4641-0.1649 1.7121-1.279 0.765-1.875-0.515-1.875-0.515-1.414-0.166-2.688-1.744-2.688-1.744-1.9057 0.997-0.28 4.052 0.543 5.132 1.058 1.385-0.043 3.368-0.043 3.368s-3.316 0-6.168-3.072c-1.332-1.428-1.832-3.428-0.832-5.428z"/>
</svg>
