<svg xmlns="http://www.w3.org/2000/svg" width="22" height="22" version="1">
 <path style="opacity:0.2" d="m 14.500002,8.5 c -0.346335,-1.980226 1,-5.9473687 1,-5.9473687 H 7.5000021 c 0,0 1.3450625,3.9669202 1,5.9473687 C 7.7505831,12.801209 2.0876877,19.921052 2.0876877,19.921052 1.7709817,20.710524 2.3516093,21.5 3.1961542,21.5 H 19.82317 c 0.844549,0 1.372388,-0.842103 1.108466,-1.578947 0,-1e-6 -5.678907,-7.117218 -6.431634,-11.421053 z"/>
 <path style="fill:#a9c9e0" d="m 14.500002,8 c -0.346335,-1.980226 1,-5.9473687 1,-5.9473687 H 7.5000021 c 0,0 1.3450625,3.9669202 1,5.9473687 C 7.7505831,12.301209 2.0876877,19.421052 2.0876877,19.421052 1.7709817,20.210524 2.3516093,21 3.1961542,21 H 19.82317 c 0.844549,0 1.372388,-0.842103 1.108466,-1.578947 0,-1e-6 -5.678907,-7.117218 -6.431634,-11.421053 z"/>
 <path style="opacity:0.1" d="M 15.900004,3.5 H 7.1000011 C 6.4950036,3.5 6.0000021,3.0500002 6.0000021,2.4999998 6.0000021,1.9500001 6.4950036,1.5 7.1000011,1.5 h 8.8000029 c 0.604997,0 1.099998,0.4500001 1.099998,0.9999998 C 17.000002,3.0500002 16.505001,3.5 15.900004,3.5 Z"/>
 <path style="fill:#c0dce9" d="M 15.900004,3 H 7.1000011 C 6.4950036,3 6.0000021,2.5500003 6.0000021,1.9999998 6.0000021,1.4500001 6.4950036,1 7.1000011,1 h 8.8000029 c 0.604997,0 1.099998,0.4500001 1.099998,0.9999998 C 17.000002,2.5500003 16.505001,3 15.900004,3 Z"/>
 <path style="opacity:0.2;fill:#8b9cbe" d="M 7.0996116,1 C 6.4946141,1 6.0000021,1.4500003 6.0000021,2 c 0,0.086633 0.016005,0.169697 0.039065,0.25 C 6.1623941,1.8204899 6.5899101,1.5 7.0996116,1.5 h 8.8007814 c 0.509701,0 0.937217,0.3204899 1.060547,0.75 C 16.984,2.169697 17,2.0866331 17,2 17,1.4500003 16.505388,1 15.900391,1 Z"/>
 <path style="opacity:0.1" d="M 10.038088,10.5 C 9.297571,12.75591 7.9466246,14.983218 6.6884786,16.915039 5.7362376,18.377158 5.4150391,18.740212 4.8427756,19.5 H 18.172854 C 17.59883,18.740197 17.277378,18.378513 16.323244,16.917969 15.060867,14.985578 13.705506,12.75804 12.962893,10.5 Z"/>
 <path style="fill:#ffda31" d="M 10.038088,10 C 9.297571,12.25591 7.9466246,14.483218 6.6884786,16.415039 5.7362376,17.877158 5.4150391,18.240212 4.8427756,19 H 18.172854 C 17.59883,18.240197 17.277378,17.878513 16.323244,16.417969 15.060867,14.485578 13.705506,12.25804 12.962893,10 Z"/>
 <path style="opacity:0.1" d="m 11.143079,14.329843 c 0.0054,-0.393454 -1.222138,0.620631 -1.052385,-0.624662 0.08807,-0.646071 1.251827,-0.620061 1.302669,-1.269528 0.02194,-0.280256 -0.535276,-0.33659 -0.510214,-0.616623 0.03286,-0.367269 0.753316,-1.31903 0.753316,-1.31903 0,0 -0.23964,0.598795 -0.121475,0.938909 0.0782,0.225086 0.65448,0.597347 0.719651,0.825936 0.08339,0.292477 -0.554853,0.481789 -0.378327,0.736648 0.216545,0.312639 0.999979,-0.06366 1.170034,0.272549 0.299932,0.592973 -1.29584,2.325902 -0.926655,1.767149 0,0 -0.11075,-0.392912 0.799402,0.277048 0.804098,0.591894 1.600495,1.760794 0.707004,2.547912 -0.892651,0.786379 -2.577034,0.764554 -3.741197,0.349753 -0.494793,-0.176299 -0.9573273,-1.488178 -0.848987,-1.898501 0.29505,-1.117458 2.115468,-1.115164 2.127159,-1.98756 z"/>
 <path style="fill:#61b620" d="m 11.143079,13.829843 c 0.0054,-0.393454 -1.222138,0.620631 -1.052385,-0.624662 0.08807,-0.646071 1.251827,-0.620061 1.302669,-1.269528 0.02194,-0.280256 -0.535276,-0.33659 -0.510214,-0.616623 C 10.916009,10.951761 11.636465,10 11.636465,10 c 0,0 -0.23964,0.598795 -0.121475,0.938909 0.0782,0.225086 0.65448,0.597347 0.719651,0.825936 0.08339,0.292477 -0.554853,0.481789 -0.378327,0.736648 0.216545,0.312639 0.999979,-0.06366 1.170034,0.272549 0.299932,0.592973 -1.29584,2.325902 -0.926655,1.767149 0,0 -0.11075,-0.392912 0.799402,0.277048 0.804098,0.591894 1.600495,1.760794 0.707004,2.547912 -0.892651,0.786379 -2.577034,0.764554 -3.741197,0.349753 -0.494793,-0.176299 -0.9573273,-1.488178 -0.848987,-1.898501 0.29505,-1.117458 2.115468,-1.115164 2.127159,-1.98756 z"/>
</svg>
