<svg xmlns="http://www.w3.org/2000/svg" width="22" height="22" version="1">
 <rect style="fill:#2167bb" width="20" height="20" x="1" y="1" rx="1" ry="1"/>
 <path style="opacity:0.1;fill:#8b9cbe" d="M 2,1 C 1.446,1 1,1.446 1,2 v 0.5 c 0,-0.554 0.446,-1 1,-1 h 18 c 0.554,0 1,0.446 1,1 V 2 C 21,1.446 20.554,1 20,1 Z"/>
 <path style="opacity:0.2" d="m 2,21.5 c -0.554,0 -1,-0.446 -1,-1 V 20 c 0,0.554 0.446,1 1,1 h 18 c 0.554,0 1,-0.446 1,-1 v 0.5 c 0,0.554 -0.446,1 -1,1 z"/>
 <path style="opacity:0.2" d="m 9.935731,19.443992 c -0.60037,-0.156811 0.264031,-0.975141 0.05249,-1.448459 -0.0703,-0.661584 0.316496,-1.750177 -0.493555,-2.044709 -0.7023555,0.08055 -0.9633925,0.829659 -1.4000455,1.314605 -0.309826,0.356304 0.371452,-0.667315 -0.193468,-0.325316 -0.466798,0.166891 -0.6581675,0.06766 -0.083188,-0.07094 0.430129,0.0051 0.688362,-0.46253 0.2874485,-0.52613 C 8.495709,15.980662 9.994434,15.864856 9.226875,15.127282 9.039964,14.727444 8.482681,14.173006 8.234512,14.782343 7.7658625,14.836551 7.6915225,16.13295 7.410474,15.686458 7.1330025,16.222911 7.0731255,16.867213 6.456989,17.14327 6.52115,17.061526 7.21892,16.193826 6.981462,15.952897 6.6587145,16.326964 6.438484,16.037383 6.097244,16.261046 6.535109,15.916472 7.4677,15.761806 7.416633,15.120068 6.9618945,14.931929 6.4110905,16.058951 6.2550065,15.675657 6.2963465,15.280606 5.154222,16.573972 5.5433795,15.934111 4.803757,15.979891 6.263794,15.536528 6.189563,15.305916 6.666821,14.931334 7.6842845,15.16327 7.868074,14.554119 7.198619,14.198505 6.374554,14.249654 5.8134215,14.779763 5.639745,14.886782 5.063495,15.27567 5.4539805,14.862047 c -1.1166305,0.07354 1.242114,-0.36969 0.089083,-0.433134 -0.03726,0.02941 1.286565,-0.261377 0.506057,-0.502974 -0.587701,-0.376862 -1.6592995,-0.120159 -2.0338245,-0.35047 0.3318135,-0.117104 1.344195,0.08735 0.5894755,-0.321187 -0.553024,-0.343808 0.553632,0.183459 0.720456,0.233312 0.288122,0.164673 0.870161,0.251649 0.3742775,-0.149076 -0.3576525,-0.500851 0.5913575,0.590966 0.8885855,0.590171 C 7.029593,13.895689 7.991495,13.961719 8.161622,13.6498 7.6194115,13.072571 6.818902,12.832804 6.133996,12.466696 5.3766705,12.431231 4.6015765,12.604233 3.8330498,12.70019 3.7537902,12.432513 4.865286,12.471549 5.2140765,12.375875 5.439698,12.033786 4.2132795,11.864681 3.8261791,11.824217 3.4931798,11.906397 3.4786278,11.536536 3.4822871,11.548923 3.8899933,11.662655 5.3003755,12.086242 4.3882555,11.381299 4.4917435,10.863556 2.7940486,10.277822 3.9370979,10.627782 3.7756964,10.399316 3.4795566,9.850817 3.9471409,10.328207 c 0.4444551,0.568048 0.8114216,1.28256 1.4547241,1.643036 0.2460975,0.18815 1.1401815,0.369424 0.507991,-0.06672 -0.5208175,-0.25753 -0.5044625,-0.586606 -0.919183,-0.981499 0.677006,0.221094 0.9417965,0.983828 1.5052235,1.37884 0.555898,0.141442 1.0510725,0.73028 1.54666,0.785036 -0.216497,-0.756815 -1.097138,-0.860557 -1.610757,-1.352773 -0.342857,-0.177164 -0.576235,-0.30405 -0.062394,-0.192768 0.4712985,0.159991 0.746395,0.579666 1.3111615,0.749425 C 7.1715345,11.750021 6.5758215,11.101734 5.856959,10.886518 5.3667415,10.854003 4.2891375,10.40328 4.2446375,10.243594 4.680618,10.372293 5.818007,11.027275 5.9193305,10.543996 5.7382735,10.127742 4.860373,9.975623 4.8540515,9.758906 5.176243,9.967224 5.6508975,9.953498 5.106812,9.613508 4.8093505,9.444037 4.087145,8.8374945 4.8085125,9.255928 5.539279,9.727543 4.0266775,8.1768895 4.7650425,8.8770145 5.0794595,9.145566 5.662071,10.040615 5.784908,9.911023 5.626926,9.582747 5.3658925,8.7576155 5.726697,9.516633 6.0272465,10.318728 6.501818,11.075551 7.2472425,11.530685 7.2293725,10.999002 6.663199,10.378657 6.293742,9.899213 6.0265155,9.588238 5.7593065,8.9949215 6.2361745,9.607502 6.34872,9.996323 6.9031465,10.354292 6.531043,9.748754 6.3070695,9.209331 5.438473,8.7526595 5.373285,8.356215 5.790341,8.821717 5.491608,8.1240035 5.635245,8.2797535 5.668925,8.6829825 6.36852,9.33032 6.261449,8.916566 6.4146405,9.190179 6.7471165,9.529761 6.4921065,8.968768 6.2876915,8.572032 6.2787605,8.23788 6.5322715,8.813393 c 0.1123685,0.889845 0.9947465,1.312266 1.534968,1.934824 0.223502,0.276691 0.7783785,0.626087 0.362427,0.05359 C 8.2227265,10.235982 7.251015,9.659692 7.159989,9.37971 7.397193,9.640667 8.117817,10.040517 7.5788735,9.42252 7.006593,8.824321 6.4545715,8.184099 5.7175415,7.7860135 5.3562685,7.588241 5.178195,7.227651 5.6718815,7.6385995 6.352989,8.108907 4.7088195,6.5038435 5.401265,7.023002 6.021884,7.5663435 6.485046,8.275163 7.172269,8.7471715 7.7689815,9.06195 7.0263215,7.9843175 6.8178065,7.821239 6.5310445,7.4037075 5.6029585,6.866378 5.7380925,6.5620475 6.123845,6.785396 5.115551,5.602124 5.6964675,6.0984595 5.9807845,6.4571805 5.9388865,6.2284595 5.81087,5.947092 6.245367,6.406064 6.507414,7.2919955 6.989772,7.537357 6.866687,7.186412 6.848612,6.7523085 6.612286,6.459163 6.3757695,6.2472025 5.854377,5.653865 6.464595,6.129477 6.9904255,6.5418955 7.049436,7.3031715 7.301438,7.895386 7.4757405,8.364978 7.7265235,9.316849 7.963078,9.481952 8.08487,8.912695 7.7037015,8.383864 7.7768945,7.8302415 7.899346,8.335466 8.224924,8.7310315 8.586236,9.091849 8.8003735,9.445613 9.258038,9.692227 8.8423025,9.135709 8.1696135,8.112 7.369628,7.147979 6.9903935,5.963436 6.7875245,5.7216865 6.143178,5.4364285 6.8385785,5.671337 6.741148,4.810672 7.5049615,6.9409045 7.2442765,5.827283 7.1241535,5.4867445 7.090221,5.1170365 7.2442975,5.648114 7.4949685,6.5197495 7.7659265,7.454343 8.3863435,8.1393955 8.3599485,7.5124315 7.8370765,7.124371 7.9282715,6.696621 7.7936315,6.2609725 7.5015725,5.7385585 7.4379245,5.371519 7.691455,5.796639 7.6409565,5.4509745 7.5189485,5.2056675 7.956274,5.138787 8.0015545,6.186948 8.280426,6.214929 8.260551,5.941203 7.746986,5.065552 7.970325,5.092915 8.361181,5.7979235 8.479691,6.6719825 9.065903,7.259413 9.277972,7.566175 9.726938,8.176322 9.433773,7.4594135 9.125369,6.653845 8.7694035,5.845154 8.139053,5.23592 7.6981225,4.5590205 8.910991,6.0256865 8.4704075,5.1421545 c -0.39445,-0.503574 0.162795,-0.3297705 0.147333,0.127538 0.067751,0.359101 0.354948,0.6605555 0.2030705,0.06157 0.0355,-0.087796 0.401515,1.70642 0.355785,0.6808765 C 9.261196,5.287699 8.6135925,4.875393 8.543131,4.216657 8.7773105,4.94195 8.8877595,3.4782321 8.9012155,4.287202 8.9133255,4.6202815 9.005955,5.0174845 9.164066,4.842908 9.275707,5.5650475 9.237806,6.318517 9.520898,7.005795 9.505168,6.6394245 9.320277,5.548981 9.662095,6.343519 9.916978,7.2083 9.823377,5.593429 9.581445,5.3305605 9.668225,4.8386655 8.938712,4.3379405 9.159023,4.114884 9.494119,4.310001 9.577147,4.96427 9.714226,5.08733 9.817736,4.756729 9.471042,3.6071325 9.792126,4.4702405 10.104289,5.2779445 9.935684,4.365369 9.870886,4.020203 c 0.204302,0.1990125 0.374215,1.434336 0.50022,1.228221 0.0095,-0.362257 -0.469622,-1.4980961 0.01918,-0.749336 0.147979,0.725745 0.19134,1.4710495 0.271644,2.2019315 0.21554,-0.7091595 0.152956,-1.476541 0.03632,-2.1637215 0.103911,0.545154 0.159261,0.1935595 0.233542,-0.090408 0.0015,0.648686 0.135895,0.4077145 0.263343,0.2413635 0.05972,0.3325645 -0.645341,1.4941975 0.07361,0.877794 0.340118,-0.2604015 0.02154,-1.1072415 0.24629,-1.220213 0.144531,0.6612215 0.0036,1.2238285 -0.09478,1.900334 0.108054,0.429127 -0.305403,1.3157385 -0.02596,1.1858505 -0.05115,0.67044 -0.412561,1.2754195 -0.327309,1.967204 0.0078,1.019914 -0.01194,2.046123 0.08043,3.061267 0.370023,-0.757619 0.313322,-1.685792 0.531486,-2.507207 0.417064,-1.82666 0.08792,-3.705459 0.197799,-5.553648 0.12912,0.237757 0.112329,1.3453545 0.266129,0.462624 0.174741,0.551412 -0.206081,1.4872335 -0.06147,2.1858555 0.323293,-0.4152445 0.409543,-1.067178 0.453901,-1.610212 -0.05282,-0.3032795 0.356496,-1.1260025 0.202426,-0.363597 -0.128605,0.75325 -0.214616,1.527067 -0.497763,2.239721 0.219811,-0.141367 0.639848,-1.2447195 0.397951,-0.356452 -0.161094,0.4227335 -0.517985,1.118285 -0.02419,0.6182275 0.393011,-0.544285 0.73138,-1.234863 0.492018,-1.9150805 0.103633,-0.970457 0.126905,1.050069 0.301135,0.139971 0.206801,-0.585979 0.207111,0.3472165 -0.01744,0.514735 -0.266351,0.661128 -0.652674,1.2838495 -0.885712,1.952928 0.0019,0.3463275 -0.102797,1.1551135 0.328418,0.4900935 -0.04458,0.742396 -0.872868,1.162467 -0.957718,1.863436 0.208048,-0.293038 0.541737,-0.820608 0.295631,-0.136588 0.424399,-0.42378 0.660721,-1.082544 0.933363,-1.6383025 0.562257,-1.0431665 0.407151,-2.2909545 0.877354,-3.358085 -0.05738,0.340982 -0.242057,1.2135915 0.11299,0.452285 0.09813,0.402188 -0.57342,1.371074 -0.3595,1.8011105 0.232899,-0.295645 0.933217,-1.066668 0.391186,-0.324237 -0.367431,0.6016275 -0.825893,1.1421835 -1.054107,1.819518 -0.169024,0.560869 -0.882903,1.365066 -0.691439,1.787887 0.726819,-0.468278 0.743597,-1.458472 1.063349,-2.195851 0.295585,-0.4493235 -0.467009,1.486536 0.05834,0.457003 0.523034,-0.978939 1.234087,-1.974495 1.119529,-3.1418225 -0.01107,-0.4650735 0.139862,0.220836 0.260602,-0.3149765 0.0087,0.355794 -0.198569,1.264166 0.132557,0.492915 0.07393,-0.435714 0.507397,-0.7111875 0.201517,-0.1108105 -0.204272,0.257215 -0.26659,0.7670145 0.06867,0.241593 0.555082,-0.811377 0.0017,0.2742765 -0.245427,0.532739 -0.447274,0.4812535 -0.710728,1.1339845 -1.091835,1.688383 -0.308941,0.6030405 -0.726157,1.3642885 -0.87086,1.9114315 0.596588,-0.436202 0.87935,-1.168507 1.372871,-1.7078735 0.33009,-0.3605475 0.397153,-0.9723605 0.700726,-0.9637 C 15.45286,7.63188 15.731431,6.6358655 15.867452,7.298786 15.400841,7.7122435 14.874693,8.298715 14.710718,8.838246 15.23131,8.6727305 15.525025,7.9554405 15.78147,8.1256875 16.140674,7.674052 16.559937,7.6791205 16.959772,7.347025 16.699632,8.0193 16.01614,8.333381 15.763126,9.049859 c -0.259839,0.438908 0.458532,-0.04031 0.0155,0.410309 -0.160393,0.329877 -0.331913,0.791834 0.15836,0.333249 0.334897,-0.39232 1.119091,-0.265164 1.366008,-0.8057195 0.0807,-0.366044 0.465155,-0.985181 0.223623,-0.237312 -0.129036,0.4058455 0.114737,0.3830895 -0.237948,0.7648475 -0.557874,0.910486 1.039437,-0.95499 0.355661,-0.01182 -0.579033,0.604938 0.589868,-0.301233 0.346983,0.18493 -0.709738,0.15505 -1.062426,0.85532 -1.623191,1.279326 -0.715311,0.58032 0.543305,0.197511 0.676111,0.179151 0.393828,0.06358 1.139273,-0.470522 1.102974,-0.101787 -0.237809,0.121405 -1.499649,0.238293 -0.599276,0.309166 0.47331,0.0044 0.203355,0.407736 -0.160166,0.119702 -0.660945,-0.213209 -1.278027,0.100293 -1.911088,0.176125 -0.445458,0.160796 -0.792952,0.88553 0.003,0.711599 0.449029,0.111456 1.192534,0.05378 1.447188,-0.138185 -0.532909,0.440294 0.802725,0.0954 1.04634,0.215649 0.753466,0.111187 -0.389734,0.06365 -0.652342,0.106787 -0.296125,0.305212 -1.637588,0.63847 -0.638174,0.186351 0.666431,-0.2655 -0.637244,-0.128818 -0.863811,-0.194445 -0.357828,-0.262372 -1.496771,0.152569 -0.859427,0.488527 0.282264,0.227401 1.180191,0.0569 1.172532,0.07705 -0.01547,0.590336 1.104155,-0.266667 1.251258,-0.09691 -0.494947,0.173097 -0.462549,0.418324 0.06604,0.398693 0.577156,-0.161485 0.678646,0.53861 0.101554,0.160702 -0.839543,-0.114416 -1.697892,-0.12201 -2.530022,-0.317246 -0.549701,-0.114907 -1.484661,1.20039 -0.393,1.000321 0.525588,0.156181 1.372073,-0.07095 1.718416,0.09342 -0.381016,-0.01439 -1.24219,0.0908 -0.367383,0.223656 0.236635,0.08679 1.163489,0.107889 0.45301,0.247512 0.168539,0.267262 1.437887,0.576043 0.569821,0.43444 -0.615413,-0.322592 -1.117099,-0.419677 -1.670607,-0.676291 -0.469304,-0.151524 -1.616637,-0.373263 -1.717422,0.189075 0.307866,0.735571 0.915459,1.234352 1.740209,0.924961 0.399567,-0.03346 0.02144,0.09807 0.183087,0.369355 -0.344037,-0.300129 -1.377712,-0.153569 -0.586796,0.26416 0.329132,0.09782 1.04806,0.78839 0.363506,0.29671 -0.576148,-0.429476 -0.317965,0.111337 -0.172646,0.427749 -0.438487,-0.254766 -0.747586,-1.103671 -1.150148,-1.2396 -0.108555,0.463435 0.62272,1.248991 0.495806,1.329579 -0.777799,-0.411722 -0.578019,-1.236674 -0.834538,-1.935498 -0.38956,-0.719384 -1.670737,0.60321 -0.935646,0.965377 0.100361,0.298687 1.31465,1.057053 0.475324,0.660634 -0.334027,-0.326186 -0.710287,-0.284707 -0.37261,0.214002 0.192796,0.290355 0.372964,0.946842 0.01571,0.292737 -0.212601,-0.363898 -0.564544,-1.801812 -0.92121,-0.784486 -0.264978,0.871089 -0.622205,1.933267 -0.07195,2.766251 -0.448978,0.364755 -1.318834,0.155511 -1.906034,0.130844 z m 1.577801,-3.471795 c 0.450373,-0.401878 -0.317267,-0.781648 -0.198972,-0.124989 -0.0038,0.173231 0.01614,0.491029 0.198972,0.124989 z M 9.857644,14.987173 c 0.188452,-0.527518 -0.8935405,-0.684386 -0.326889,-0.113794 0.09321,0.110456 0.42799,0.568304 0.326889,0.113794 z m 1.968644,0.107114 c -0.0927,-0.278342 -0.10609,0.281433 -8.7e-5,-4e-6 z M 12.669886,14.706 c 0.356039,-0.329633 1.255707,-0.921354 1.183512,-1.217472 -0.66855,0.113645 -1.276185,0.620717 -1.369806,1.306382 0.05966,0.07128 0.136895,-0.125483 0.186294,-0.08891 z m -1.084741,-0.113977 c 0.626304,-0.273658 0.814506,-0.933006 0.752875,-1.563107 -0.318095,0.124872 -0.839146,0.992241 -0.922242,1.532316 -0.06017,0.162254 0.118192,0.09048 0.169367,0.03079 z M 8.377816,14.32577 C 8.8829405,14.210102 8.0377105,13.902745 7.824214,14.057075 6.877326,14.083195 8.182223,14.420442 8.377816,14.32577 Z M 9.605237,14.25206 C 9.732844,13.758108 8.912283,13.153657 8.4515485,12.91263 8.183962,13.200571 8.850611,13.976682 9.132675,14.24927 c 0.156556,0.016 0.316159,0.02562 0.472562,0.0028 z m 0.553444,-0.34633 C 10.009715,12.794562 9.238812,11.869697 8.3345765,11.254913 7.8357745,10.912793 7.396353,10.250556 6.879563,10.076151 c 0.3072735,0.810867 0.6393095,1.664312 1.238936,2.306274 0.5087755,0.118203 -0.3712425,-0.674208 -0.4554245,-0.964908 -0.216124,-0.580331 0.565954,0.494224 0.6735715,0.690851 0.503412,0.703993 1.193882,1.253045 1.699072,1.958899 0.122002,0.196599 0.153025,-0.122685 0.122963,-0.161536 z m 2.641508,-0.193749 c 0.508377,-0.479648 1.443999,-0.546299 1.735061,-1.142576 -0.195227,-0.357777 -1.015287,0.02281 -1.271723,0.280642 -0.05636,0.160482 -1.150887,1.161584 -0.463338,0.861934 z m -0.954109,-0.95602 c 0.335623,-0.41903 0.853241,-0.987382 0.719631,-1.52589 -0.452067,0.408585 -0.813402,1.007984 -0.825839,1.614023 l 0.106216,-0.08813 z m -1.635339,-0.255385 c 0.02053,-0.773188 -0.300448,-1.663278 -1.174033,-1.791669 -0.672658,-0.196325 0.269671,0.742458 0.367855,0.999987 0.245747,0.282574 0.6316,1.037104 0.824239,1.002353 l -0.0069,-0.09613 -0.01121,-0.114552 z m 4.397505,-0.259491 c 0.07391,-0.373642 0.615763,-1.330018 0.254725,-1.431029 -0.357924,0.354715 -0.808971,0.939173 -0.844733,1.373906 0.178493,0.03046 0.421129,0.185573 0.590008,0.05712 z M 13.480121,12.05272 c 0.507581,0.102595 0.96147,-1.041138 0.624568,-1.167974 -0.394089,0.263836 -0.889756,0.842418 -0.935104,1.185506 0.102787,-0.01567 0.206885,-0.01639 0.310536,-0.01753 z m -0.459795,-0.515973 c 0.61959,-0.455652 1.239137,-0.962452 1.558765,-1.682056 0.211089,-0.293935 0.843796,-1.479019 0.08843,-0.787851 -0.647876,0.409943 -0.874813,1.230061 -1.419759,1.746667 -0.0566,0.08009 -0.684344,0.963681 -0.227436,0.72324 z m 2.523794,-0.340704 c 0.185311,-0.276296 0.366173,-0.312369 0.16821,0.07044 0.592865,-0.288572 1.409753,-1.235731 1.231759,-1.762583 -0.687964,0.228841 -1.456317,0.533569 -1.704045,1.280322 -0.197958,0.353295 -0.235351,1.105025 0.22763,0.495896 l 0.07643,-0.08407 z M 10.345647,10.792429 C 10.554524,9.97941 9.888756,9.292742 9.611096,8.57916 9.486907,8.02915 8.0556505,7.355866 8.7128525,8.338499 9.22749,9.263771 9.741956,10.189168 10.213925,11.137278 c 0.109496,0.06421 0.09128,-0.291782 0.131722,-0.344849 z M 9.495072,10.492801 C 9.101975,9.985725 8.596147,9.262404 8.1087395,9.002731 c -0.173845,0.835013 0.372898,1.657563 1.2861835,1.508081 l 0.07892,-9e-4 0.02122,-0.01713 z m 1.346845,-0.121359 C 10.958456,9.271897 10.69006,8.172723 10.1535,7.2129565 10.043274,6.915725 9.873302,6.4373825 9.827298,7.03708 c -0.07387,0.446537 -0.11622,0.9120315 0.107777,1.3215915 0.117893,0.3120275 0.397883,1.2402635 0.394494,0.372767 0.409175,0.043935 0.225687,1.5834155 0.512348,1.6400035 z m 4.222519,-0.835118 c 0.210838,-0.237044 0.370665,-0.848871 0.03375,-0.252946 -0.15323,0.215282 -0.453343,0.944629 -0.09211,0.346867 l 0.05837,-0.09392 z m 1.123771,-1.487382 c -0.0847,-0.2170905 -0.876856,0.762689 -0.193088,0.170154 l 0.08501,-0.069065 0.108083,-0.101094 z M 10.962634,7.9265995 c 0.04244,-0.4985845 0.138374,-1.479434 -0.04712,-1.700023 -0.0036,0.643824 -0.281753,1.4885165 -0.026,2.0127395 0.03518,-0.101496 0.05315,-0.2076165 0.07313,-0.3127165 z M 9.06863,7.7124075 C 8.667129,7.1836685 8.315869,6.6165335 7.9045175,6.096361 7.9017675,6.81782 8.4664225,6.9051455 8.7114925,7.515498 8.7798645,7.603928 8.957133,7.7666995 9.06863,7.7124075 Z M 10.38172,6.700489 C 10.4585,6.2403525 10.20719,5.003813 9.859967,5.09033 c 0.03011,0.6712235 0.244265,1.268263 0.489704,1.929987 0.0305,-0.1038965 0.02514,-0.213147 0.03205,-0.319828 z M 11.27151,6.044907 C 11.32927,5.2312365 10.98906,6.496989 11.2312,6.220351 L 11.250345,6.14302 11.2715,6.044907 Z M 6.7658455,17.145611 c 0.2264785,-0.335049 0.118459,0.09736 0,0 z m 7.1122795,-0.421157 c 0.122325,-0.170997 0.07732,0.157464 0,0 z m 2.189651,-1.565157 c -0.361367,-0.290161 0.267352,-0.02041 0,0 z m 1.543906,-0.250029 c -1.032367,-0.370158 1.184337,0.271126 0.168936,0.04794 l -0.08241,-0.02315 -0.08653,-0.02479 z m 0.56803,-1.407935 c 0.04306,-0.222677 0.210314,0.09968 0,0 z M 3.7436206,13.285047 c 0.00478,-0.198014 0.2189439,0.134799 0,0 z m 13.9888844,-0.27484 c -0.503866,-0.09269 1.070333,-0.298375 0.25842,-0.01947 -0.05976,0.118513 -0.176258,-0.0034 -0.25842,0.01947 z M 3.6954641,12.33107 c -0.4923641,-0.249159 0.6232744,0.08656 0,0 z m 13.7482099,-0.0187 c 0.264841,-0.251551 0.83797,0.125134 0.181711,0.02109 l -0.08866,-0.005 -0.09305,-0.01604 z m 0.65131,-0.629606 c 0.102831,-0.03027 0.03194,-0.01712 0,0 z M 5.0600795,11.398466 c -0.20845,-0.273814 0.409987,0.258304 0,0 z m -1.045536,-0.112888 c -0.705101,-0.27994 0.068203,-0.161314 0.2632515,0.05213 -0.090657,0.01129 -0.178425,-0.02844 -0.2632515,-0.05213 z M 3.4242147,10.941705 c -0.02824,-0.154821 0.2004814,0.135057 0,0 z M 4.4985965,9.576581 c -0.252958,-0.212864 0.278077,0.0455 0,0 z M 16.28843,9.188076 C 16.450452,8.8370495 16.393958,8.6141185 16.605927,8.8380165 16.86093,8.765937 15.928191,9.909674 16.288525,9.188068 Z M 15.067612,7.596028 c 0.05976,-0.4522505 0.307409,-0.572283 0.06467,-0.053915 0.05381,-0.04037 -0.07653,0.1291325 -0.06467,0.053915 z M 6.684125,6.1620505 c -0.1927685,-0.5955395 0.2069705,0.2297415 0,0 z M 15.437261,5.833399 c 0.05216,-0.2128375 0.119383,0.05881 -10e-7,-7e-6 z M 8.189381,4.756355 c -0.2188485,-0.365744 0.243901,0.2586425 0,0 z"/>
 <path style="fill:#8b9cbe" d="m 9.935731,18.943822 c -0.60037,-0.156811 0.264031,-0.975142 0.05249,-1.448459 -0.0703,-0.661584 0.316496,-1.750177 -0.493555,-2.044709 -0.7023555,0.08055 -0.9633925,0.829659 -1.4000455,1.314605 -0.309826,0.356304 0.371452,-0.667315 -0.193468,-0.325316 -0.466798,0.166891 -0.6581675,0.06766 -0.083188,-0.07094 0.430129,0.0051 0.688362,-0.46253 0.2874485,-0.52613 C 8.495709,15.480492 9.994434,15.364686 9.226875,14.627112 9.039964,14.227274 8.482681,13.672836 8.234512,14.282173 7.7658625,14.336381 7.6915225,15.63278 7.410474,15.186288 7.1330025,15.722741 7.0731255,16.367043 6.456989,16.6431 6.52115,16.561356 7.21892,15.693656 6.981462,15.452727 6.6587145,15.826794 6.438484,15.537213 6.097244,15.760876 6.535109,15.416302 7.4677,15.261636 7.416633,14.619898 6.9618945,14.431759 6.4110905,15.558781 6.2550065,15.175487 6.2963465,14.780436 5.154222,16.073802 5.5433795,15.433941 4.803757,15.479721 6.263794,15.036358 6.189563,14.805746 6.666821,14.431164 7.6842845,14.6631 7.868074,14.053949 7.198619,13.698335 6.374554,13.749484 5.8134215,14.279593 5.639745,14.386612 5.063495,14.7755 5.4539805,14.361877 c -1.1166305,0.07354 1.242114,-0.36969 0.089083,-0.433134 -0.03726,0.02941 1.286565,-0.261377 0.506057,-0.502974 -0.587701,-0.376862 -1.6592995,-0.120159 -2.0338245,-0.35047 0.3318135,-0.117104 1.344195,0.08735 0.5894755,-0.321187 -0.553024,-0.343808 0.553632,0.183459 0.720456,0.233312 0.288122,0.164673 0.870161,0.251649 0.3742775,-0.149076 -0.3576525,-0.500851 0.5913575,0.590966 0.8885855,0.590171 0.4415025,-0.033 1.4034045,0.03303 1.5735315,-0.278889 C 7.6194115,12.572401 6.818902,12.332634 6.133996,11.966526 5.3766705,11.931061 4.6015765,12.104063 3.8330498,12.20002 3.7537902,11.932343 4.865286,11.971379 5.2140765,11.875705 5.439698,11.533616 4.2132795,11.364511 3.8261791,11.324047 3.4931798,11.406227 3.4786278,11.036366 3.4822871,11.048753 3.8899933,11.162485 5.3003755,11.586072 4.3882555,10.881129 4.4917435,10.363386 2.7940486,9.777652 3.9370979,10.127612 3.7756964,9.899146 3.4795566,9.350647 3.9471409,9.828037 c 0.4444551,0.568048 0.8114216,1.28256 1.4547241,1.643036 0.2460975,0.18815 1.1401815,0.369424 0.507991,-0.06672 -0.5208175,-0.25753 -0.5044625,-0.586606 -0.919183,-0.981499 0.677006,0.221094 0.9417965,0.983828 1.5052235,1.37884 0.555898,0.141442 1.0510725,0.73028 1.54666,0.785036 -0.216497,-0.756815 -1.097138,-0.860557 -1.610757,-1.352773 -0.342857,-0.177164 -0.576235,-0.30405 -0.062394,-0.192768 0.4712985,0.159991 0.746395,0.579666 1.3111615,0.749425 C 7.1715345,11.249851 6.5758215,10.601564 5.856959,10.386348 5.3667415,10.353833 4.2891375,9.90311 4.2446375,9.743424 4.680618,9.872123 5.818007,10.527105 5.9193305,10.043826 5.7382735,9.627572 4.860373,9.475453 4.8540515,9.258736 5.176243,9.467054 5.6508975,9.453328 5.106812,9.113338 4.8093505,8.943867 4.087145,8.3373245 4.8085125,8.7557575 5.539279,9.227373 4.0266775,7.6767195 4.7650425,8.3768445 5.0794595,8.6453955 5.662071,9.540445 5.784908,9.410853 5.626926,9.082577 5.3658925,8.2574455 5.726697,9.016463 6.0272465,9.818558 6.501818,10.575381 7.2472425,11.030515 7.2293725,10.498832 6.663199,9.878487 6.293742,9.399043 6.0265155,9.088068 5.7593065,8.4947515 6.2361745,9.107332 6.34872,9.496153 6.9031465,9.854122 6.531043,9.248584 6.3070695,8.7091605 5.438473,8.2524895 5.373285,7.856045 5.790341,8.321547 5.491608,7.6238335 5.635245,7.7795835 5.668925,8.1828125 6.36852,8.8301495 6.261449,8.416396 6.4146405,8.690009 6.7471165,9.029591 6.4921065,8.468598 6.2876915,8.071862 6.2787605,7.73771 6.5322715,8.313223 6.64464,9.203068 7.527018,9.625489 8.0672395,10.248047 c 0.223502,0.276691 0.7783785,0.626087 0.362427,0.05359 C 8.2227265,9.735811 7.251015,9.159521 7.159989,8.8795395 7.397193,9.140496 8.117817,9.540346 7.5788735,8.9223545 7.006593,8.324151 6.4545715,7.683929 5.7175415,7.2858435 5.3562685,7.088071 5.178195,6.727481 5.6718815,7.1384295 6.352989,7.608737 4.7088195,6.0036735 5.401265,6.522832 6.021884,7.0661735 6.485046,7.774993 7.172269,8.2470015 7.7689815,8.5617805 7.0263215,7.4841475 6.8178065,7.321069 6.5310445,6.9035375 5.6029585,6.366208 5.7380925,6.0618775 6.123845,6.285226 5.115551,5.101954 5.6964675,5.5982895 5.9807845,5.9570105 5.9388865,5.7282895 5.81087,5.446922 6.245367,5.905894 6.507414,6.7918255 6.989772,7.037187 6.866687,6.686242 6.848612,6.2521385 6.612286,5.958993 6.3757695,5.7470325 5.854377,5.153695 6.464595,5.629307 6.9904255,6.0417255 7.049436,6.8030015 7.301438,7.395216 7.4757405,7.864808 7.7265235,8.816679 7.963078,8.9817825 8.08487,8.412525 7.7037015,7.883694 7.7768945,7.3300715 7.899346,7.835296 8.224924,8.2308615 8.586236,8.5916795 8.8003735,8.945443 9.258038,9.192057 8.8423025,8.6355395 8.1696135,7.61183 7.369628,6.647809 6.9903935,5.463266 6.7875245,5.2215165 6.143178,4.9362585 6.8385785,5.171167 6.741148,4.310502 7.5049615,6.4407345 7.2442765,5.327113 7.1241535,4.9865745 7.090221,4.6168665 7.2442975,5.147944 7.4949685,6.0195795 7.7659265,6.954173 8.3863435,7.6392255 8.3599485,7.0122615 7.8370765,6.624201 7.9282715,6.196451 7.7936315,5.7608025 7.5015725,5.2383885 7.4379245,4.871349 7.691455,5.296469 7.6409565,4.9508045 7.5189485,4.7054975 7.956274,4.638617 8.0015545,5.686778 8.280426,5.714759 8.260551,5.441033 7.746986,4.565382 7.970325,4.592745 8.361181,5.2977535 8.479691,6.1718125 9.065903,6.759243 9.277972,7.066005 9.726938,7.676152 9.433773,6.9592435 9.125369,6.153675 8.7694035,5.344984 8.139053,4.73575 7.6981225,4.0588505 8.910991,5.5255165 8.4704075,4.6419845 c -0.39445,-0.503574 0.162795,-0.3297705 0.147333,0.127538 0.067751,0.359101 0.354948,0.6605555 0.2030705,0.06157 0.0355,-0.087796 0.401515,1.70642 0.355785,0.6808765 C 9.261196,4.787529 8.6135925,4.375223 8.543131,3.7164874 8.7773105,4.44178 8.8877595,2.9780622 8.9012155,3.7870324 8.9133255,4.1201117 9.005955,4.5173147 9.164066,4.3427382 9.275707,5.0648777 9.237806,5.8183472 9.520898,6.5056252 9.505168,6.1392547 9.320277,5.0488112 9.662095,5.8433492 9.916978,6.7081302 9.823377,5.0932592 9.581445,4.8303907 9.668225,4.3384957 8.938712,3.837771 9.159023,3.6147144 9.494119,3.8098313 9.577147,4.4641002 9.714226,4.5871602 9.817736,4.2565592 9.471042,3.1069629 9.792126,3.970071 c 0.312163,0.8077037 0.143558,-0.1048716 0.07876,-0.4500376 0.204302,0.1990125 0.374215,1.4343358 0.50022,1.2282208 0.0095,-0.362257 -0.469622,-1.4980959 0.01918,-0.7493359 0.147979,0.7257449 0.19134,1.4710494 0.271644,2.2019314 0.21554,-0.7091595 0.152956,-1.476541 0.03632,-2.1637215 0.103911,0.545154 0.159261,0.1935595 0.233542,-0.090408 0.0015,0.6486859 0.135895,0.4077144 0.263343,0.2413634 0.05972,0.3325645 -0.645341,1.4941975 0.07361,0.877794 0.340118,-0.2604015 0.02154,-1.1072415 0.24629,-1.2202128 0.144531,0.6612213 0.0036,1.2238283 -0.09478,1.9003338 0.108054,0.429127 -0.305403,1.3157385 -0.02596,1.1858505 -0.05115,0.67044 -0.412561,1.2754195 -0.327309,1.9672035 0.0078,1.0199134 -0.01194,2.0461224 0.08043,3.0612664 0.370023,-0.757619 0.313322,-1.685792 0.531486,-2.507207 0.417064,-1.8266589 0.08792,-3.7054579 0.197799,-5.5536465 0.12912,0.2377566 0.112329,1.3453541 0.266129,0.4626236 0.174741,0.551412 -0.206081,1.4872335 -0.06147,2.1858555 0.323293,-0.4152445 0.409543,-1.067178 0.453901,-1.610212 -0.05282,-0.3032795 0.356496,-1.1260022 0.202426,-0.363597 -0.128605,0.75325 -0.214616,1.527067 -0.497763,2.239721 0.219811,-0.141367 0.639848,-1.2447195 0.397951,-0.356452 -0.161094,0.4227335 -0.517985,1.118285 -0.02419,0.6182275 0.393011,-0.544285 0.73138,-1.234863 0.492018,-1.9150805 0.103633,-0.970457 0.126905,1.050069 0.301135,0.139971 0.206801,-0.585979 0.207111,0.3472165 -0.01744,0.514735 -0.266351,0.661128 -0.652674,1.2838495 -0.885712,1.952928 0.0019,0.3463275 -0.102797,1.1551125 0.328418,0.4900935 -0.04458,0.7423949 -0.872868,1.1624659 -0.957718,1.8634349 0.208048,-0.293038 0.541737,-0.820608 0.295631,-0.136588 0.424399,-0.42378 0.660721,-1.0825439 0.933363,-1.6383014 0.562257,-1.0431665 0.407151,-2.2909545 0.877354,-3.358085 -0.05738,0.340982 -0.242057,1.2135915 0.11299,0.452285 0.09813,0.402188 -0.57342,1.371074 -0.3595,1.8011105 C 13.967123,6.94649 14.667441,6.175467 14.12541,6.917898 c -0.367431,0.6016275 -0.825893,1.1421835 -1.054107,1.819518 -0.169024,0.560869 -0.882903,1.365066 -0.691439,1.787887 0.726819,-0.468278 0.743597,-1.458472 1.063349,-2.195851 0.295585,-0.4493235 -0.467009,1.486536 0.05834,0.4570025 0.523034,-0.9789385 1.234087,-1.9744945 1.119529,-3.141822 -0.01107,-0.4650735 0.139862,0.220836 0.260602,-0.3149765 0.0087,0.355794 -0.198569,1.264166 0.132557,0.492915 0.07393,-0.435714 0.507397,-0.7111875 0.201517,-0.1108105 -0.204272,0.257215 -0.26659,0.7670145 0.06867,0.241593 0.555082,-0.811377 0.0017,0.2742765 -0.245427,0.532739 -0.447274,0.4812535 -0.710728,1.1339845 -1.091835,1.688383 -0.308941,0.60304 -0.726157,1.3642885 -0.87086,1.9114315 0.596588,-0.436202 0.87935,-1.1685075 1.372871,-1.7078735 0.33009,-0.3605475 0.397153,-0.9723605 0.700726,-0.9637 C 15.45286,7.13171 15.731431,6.1356955 15.867452,6.798616 15.400841,7.2120735 14.874693,7.798545 14.710718,8.338076 15.23131,8.1725605 15.525025,7.4552705 15.78147,7.6255175 16.140674,7.173882 16.559937,7.1789505 16.959772,6.846855 16.699632,7.51913 16.01614,7.833211 15.763126,8.5496885 c -0.259839,0.4389085 0.458532,-0.040315 0.0155,0.4103095 -0.160393,0.329877 -0.331913,0.791834 0.15836,0.333249 0.334897,-0.3923205 1.119091,-0.265164 1.366008,-0.8057195 0.0807,-0.366044 0.465155,-0.985181 0.223623,-0.237312 -0.129036,0.405845 0.114737,0.383089 -0.237948,0.7648475 -0.557874,0.910486 1.039437,-0.95499 0.355661,-0.01182 -0.579033,0.604938 0.589868,-0.301233 0.346983,0.18493 -0.709738,0.15505 -1.062426,0.85532 -1.623191,1.279326 -0.715311,0.58032 0.543305,0.197511 0.676111,0.179151 0.393828,0.06358 1.139273,-0.470522 1.102974,-0.101787 -0.237809,0.121405 -1.499649,0.238293 -0.599276,0.309166 0.47331,0.0043 0.203355,0.407736 -0.160166,0.119702 -0.660945,-0.213209 -1.278027,0.100293 -1.911088,0.176125 -0.445458,0.160796 -0.792952,0.88553 0.003,0.711599 0.449029,0.111456 1.192534,0.05378 1.447188,-0.138185 -0.532909,0.440294 0.802725,0.0954 1.04634,0.215649 0.753466,0.111187 -0.389734,0.06365 -0.652342,0.106787 -0.296125,0.305212 -1.637588,0.63847 -0.638174,0.186351 0.666431,-0.2655 -0.637244,-0.128818 -0.863811,-0.194445 -0.357828,-0.262372 -1.496771,0.152569 -0.859427,0.488527 0.282264,0.227401 1.180191,0.0569 1.172532,0.07705 -0.01547,0.590336 1.104155,-0.266667 1.251258,-0.09691 -0.494947,0.173097 -0.462549,0.418324 0.06604,0.398693 0.577156,-0.161485 0.678646,0.53861 0.101554,0.160702 -0.839543,-0.114416 -1.697892,-0.12201 -2.530022,-0.317246 -0.549701,-0.114907 -1.484661,1.20039 -0.393,1.000321 0.525588,0.156181 1.372073,-0.07095 1.718416,0.09342 -0.381016,-0.0144 -1.24219,0.0908 -0.367383,0.223656 0.236635,0.08679 1.163489,0.107889 0.45301,0.247512 0.168539,0.267262 1.437887,0.576043 0.569821,0.43444 -0.615413,-0.322592 -1.117099,-0.419677 -1.670607,-0.676291 -0.469304,-0.151524 -1.616637,-0.373263 -1.717422,0.189075 0.307866,0.735571 0.915459,1.234352 1.740209,0.924961 0.399567,-0.03346 0.02144,0.09807 0.183087,0.369355 -0.344037,-0.300129 -1.377712,-0.153569 -0.586796,0.26416 0.329132,0.09782 1.04806,0.78839 0.363506,0.29671 -0.576148,-0.429476 -0.317965,0.111337 -0.172646,0.427749 -0.438487,-0.254766 -0.747586,-1.103671 -1.150148,-1.2396 -0.108555,0.463435 0.62272,1.248991 0.495806,1.329579 -0.777799,-0.411722 -0.578019,-1.236674 -0.834538,-1.935498 -0.38956,-0.719384 -1.670737,0.60321 -0.935646,0.965377 0.100361,0.298687 1.31465,1.057053 0.475324,0.660634 -0.334027,-0.326186 -0.710287,-0.284707 -0.37261,0.214002 0.192796,0.290355 0.372964,0.946842 0.01571,0.292737 -0.212601,-0.363898 -0.564544,-1.801812 -0.92121,-0.784486 -0.264978,0.871089 -0.622205,1.933267 -0.07195,2.766251 -0.448978,0.364755 -1.318834,0.155511 -1.906034,0.130844 z m 1.577801,-3.471795 c 0.450373,-0.401878 -0.317267,-0.781648 -0.198972,-0.124989 -0.0038,0.173231 0.01614,0.491029 0.198972,0.124989 z M 9.857644,14.487003 c 0.188452,-0.527518 -0.8935405,-0.684386 -0.326889,-0.113794 0.09321,0.110456 0.42799,0.568304 0.326889,0.113794 z m 1.968644,0.107114 c -0.0927,-0.278342 -0.10609,0.281433 -8.7e-5,-4e-6 z m 0.843598,-0.388287 c 0.356039,-0.329633 1.255707,-0.921353 1.183512,-1.217471 -0.66855,0.113644 -1.276185,0.620716 -1.369806,1.306382 0.05966,0.07128 0.136895,-0.125483 0.186294,-0.08891 z m -1.084741,-0.113977 c 0.626304,-0.273657 0.814506,-0.933006 0.752875,-1.563106 -0.318095,0.124871 -0.839146,0.99224 -0.922242,1.532315 -0.06017,0.162254 0.118192,0.09048 0.169367,0.03079 z M 8.377816,13.8256 C 8.8829405,13.709932 8.0377105,13.402575 7.824214,13.556905 6.877326,13.583025 8.182223,13.920272 8.377816,13.8256 Z M 9.605237,13.75189 C 9.732844,13.257938 8.912283,12.653487 8.4515485,12.41246 8.183962,12.700401 8.850611,13.476512 9.132675,13.7491 c 0.156556,0.016 0.316159,0.02562 0.472562,0.0028 z m 0.553444,-0.34633 C 10.009715,12.294392 9.238812,11.369527 8.3345765,10.754743 7.8357745,10.412623 7.396353,9.750386 6.879563,9.575981 c 0.3072735,0.810867 0.6393095,1.664312 1.238936,2.306274 0.5087755,0.118203 -0.3712425,-0.674208 -0.4554245,-0.964908 -0.216124,-0.580331 0.565954,0.494224 0.6735715,0.690851 0.503412,0.703993 1.193882,1.253045 1.699072,1.958899 0.122002,0.196599 0.153025,-0.122685 0.122963,-0.161536 z m 2.641508,-0.193749 c 0.508377,-0.479648 1.443999,-0.546299 1.735061,-1.142576 -0.195227,-0.357777 -1.015287,0.02281 -1.271723,0.280642 -0.05636,0.160482 -1.150887,1.161584 -0.463338,0.861934 z m -0.954109,-0.95602 c 0.335623,-0.41903 0.853241,-0.987382 0.719631,-1.52589 -0.452067,0.408585 -0.813402,1.007984 -0.825839,1.614022 l 0.106216,-0.08813 z m -1.635339,-0.255385 c 0.02053,-0.773188 -0.300448,-1.663278 -1.174033,-1.791669 -0.672658,-0.196325 0.269671,0.742458 0.367855,0.999987 0.245747,0.282574 0.6316,1.037104 0.824239,1.002352 l -0.0069,-0.09613 -0.01121,-0.114552 z m 4.397505,-0.259491 c 0.07391,-0.373642 0.615763,-1.330018 0.254725,-1.431029 -0.357924,0.354715 -0.808971,0.939173 -0.844733,1.373906 0.178493,0.03046 0.421129,0.185573 0.590008,0.05712 z M 13.480121,11.55255 c 0.507581,0.102595 0.96147,-1.041138 0.624568,-1.167974 -0.394089,0.263836 -0.889756,0.842418 -0.935104,1.185506 0.102787,-0.01567 0.206885,-0.01639 0.310536,-0.01753 z m -0.459795,-0.515973 c 0.61959,-0.455652 1.239137,-0.962452 1.558765,-1.682056 0.211089,-0.293935 0.843796,-1.479019 0.08843,-0.787851 -0.647876,0.4099425 -0.874813,1.230061 -1.419759,1.746667 -0.0566,0.08008 -0.684344,0.96368 -0.227436,0.72324 z m 2.523794,-0.340704 c 0.185311,-0.276296 0.366173,-0.312369 0.16821,0.07044 0.592865,-0.288572 1.409753,-1.23573 1.231759,-1.762582 -0.687964,0.228841 -1.456317,0.533569 -1.704045,1.280322 -0.197958,0.353295 -0.235351,1.105025 0.22763,0.495896 l 0.07643,-0.08407 z M 10.345647,10.292259 C 10.554524,9.47924 9.888756,8.7925715 9.611096,8.07899 9.486907,7.52898 8.0556505,6.855696 8.7128525,7.838329 9.22749,8.7636005 9.741956,9.688998 10.213925,10.637108 c 0.109496,0.06422 0.09128,-0.291782 0.131722,-0.344849 z M 9.495072,9.992631 C 9.101975,9.485555 8.596147,8.762234 8.1087395,8.502561 c -0.173845,0.835013 0.372898,1.657563 1.2861835,1.508081 l 0.07892,-9e-4 0.02122,-0.01713 z m 1.346845,-0.12136 C 10.958456,8.7717265 10.69006,7.672553 10.1535,6.7127865 10.043274,6.415555 9.873302,5.9372125 9.827298,6.53691 c -0.07387,0.446537 -0.11622,0.9120315 0.107777,1.3215915 0.117893,0.3120275 0.397883,1.2402635 0.394494,0.372767 0.409175,0.043935 0.225687,1.5834145 0.512348,1.6400025 z m 4.222519,-0.835117 c 0.210838,-0.237044 0.370665,-0.848871 0.03375,-0.252946 -0.15323,0.215282 -0.453343,0.944629 -0.09211,0.346867 l 0.05837,-0.09392 z m 1.123771,-1.487382 c -0.0847,-0.2170905 -0.876856,0.762689 -0.193088,0.170154 l 0.08501,-0.069065 0.108083,-0.101094 z M 10.962634,7.4264295 c 0.04244,-0.4985845 0.138374,-1.479434 -0.04712,-1.700023 -0.0036,0.643824 -0.281753,1.4885165 -0.026,2.0127395 0.03518,-0.101496 0.05315,-0.2076165 0.07313,-0.3127165 z M 9.06863,7.2122375 C 8.667129,6.6834985 8.315869,6.1163635 7.9045175,5.596191 7.9017675,6.31765 8.4664225,6.4049755 8.7114925,7.015328 8.7798645,7.103758 8.957133,7.2665295 9.06863,7.2122375 Z M 10.38172,6.200319 C 10.4585,5.7401825 10.20719,4.503643 9.859967,4.59016 c 0.03011,0.6712235 0.244265,1.268263 0.489704,1.929987 0.0305,-0.1038965 0.02514,-0.213147 0.03205,-0.319828 z M 11.27151,5.544737 C 11.32927,4.7310665 10.98906,5.996819 11.2312,5.720181 L 11.250345,5.64285 11.2715,5.544737 Z M 6.7658455,16.645441 c 0.2264785,-0.335049 0.118459,0.09736 0,0 z m 7.1122795,-0.421157 c 0.122325,-0.170997 0.07732,0.157464 0,0 z m 2.189651,-1.565156 c -0.361367,-0.290162 0.267352,-0.02041 0,0 z m 1.543906,-0.25003 c -1.032367,-0.370158 1.184337,0.271126 0.168936,0.04795 l -0.08241,-0.02316 -0.08653,-0.02479 z m 0.56803,-1.407935 c 0.04306,-0.222677 0.210314,0.09968 0,0 z M 3.7436206,12.784878 c 0.00478,-0.198014 0.2189439,0.134799 0,0 z M 17.732505,12.510037 c -0.503866,-0.09269 1.070333,-0.298375 0.25842,-0.01947 -0.05976,0.118513 -0.176258,-0.0034 -0.25842,0.01947 z M 3.6954641,11.8309 c -0.4923641,-0.249159 0.6232744,0.08656 0,0 z M 17.443674,11.8122 c 0.264841,-0.251551 0.83797,0.125134 0.181711,0.02109 l -0.08866,-0.005 -0.09305,-0.01604 z m 0.65131,-0.629606 c 0.102831,-0.03027 0.03194,-0.01712 0,0 z M 5.0600795,10.898296 c -0.20845,-0.273814 0.409987,0.258304 0,0 z m -1.045536,-0.112888 c -0.705101,-0.27994 0.068203,-0.161315 0.2632515,0.05213 -0.090657,0.01129 -0.178425,-0.02844 -0.2632515,-0.05213 z M 3.4242147,10.441535 c -0.02824,-0.154821 0.2004814,0.135056 0,0 z M 4.4985965,9.076411 c -0.252958,-0.212864 0.278077,0.04549 0,0 z M 16.28843,8.6879055 c 0.162022,-0.351026 0.105528,-0.573957 0.317497,-0.350059 C 16.86093,8.265767 15.928191,9.409504 16.288525,8.687898 Z M 15.067612,7.095858 c 0.05976,-0.4522505 0.307409,-0.572283 0.06467,-0.053914 0.05381,-0.04037 -0.07653,0.1291325 -0.06467,0.053914 z M 6.684125,5.6618805 c -0.1927685,-0.5955395 0.2069705,0.2297415 0,0 z M 15.437261,5.333229 c 0.05216,-0.2128375 0.119383,0.05881 -10e-7,-7e-6 z M 8.189381,4.256185 c -0.2188485,-0.3657436 0.243901,0.2586425 0,0 z"/>
</svg>
