<svg xmlns="http://www.w3.org/2000/svg" width="22" height="22" version="1">
 <rect style="opacity:0.2" width="20" height="20" x="1" y="1.5" rx="6" ry="6"/>
 <rect style="fill:#00aae1" width="20" height="20" x="1" y="1" rx="6" ry="6"/>
 <path style="opacity:0.2;fill:#8b9cbe" d="M 7,1 C 3.676,1 1,3.676 1,7 v 0.5 c 0,-3.324 2.676,-6 6,-6 h 8 c 3.324,0 6,2.676 6,6 V 7 C 21,3.676 18.324,1 15,1 Z"/>
 <path style="opacity:0.2" d="M 11,3.5 C 9.391508,3.5 7.9021662,4.2014083 6.796875,5.2109375 5.6915838,6.2204667 4.911463,7.5800266 5.0019531,9.060547 5.080964,10.353253 5.6463109,11.566241 6.7011719,12.351562 7.7560329,13.136885 9.196495,13.5 11,13.5 c 1.640689,0 2.9772,-0.303705 4,-0.949219 v 2.925781 c 0,0 0.01193,0.370771 -0.416016,0.876954 C 14.156038,16.859698 13.260736,17.5 11,17.5 8.95667,17.5 8.104468,16.974211 7.6289062,16.5 H 9 v -2 H 4.9746094 L 5,15.523438 c 0,0 0.04846,1.129229 0.8886719,2.123046 C 6.7288835,18.640302 8.333367,19.5 11,19.5 c 2.666633,0 4.271116,-0.859698 5.111328,-1.853516 C 16.95154,16.652667 17,15.523438 17,15.523438 V 15.511719 9 H 16.998 C 17.063714,7.5432264 16.293176,6.2065468 15.203125,5.2109375 14.097834,4.2014083 12.608492,3.5 11,3.5 Z m 0,2 c 1.005066,0 2.081536,0.4806206 2.855469,1.1875 0.773932,0.7068794 1.186448,1.598108 1.146484,2.2519531 C 14.95051,9.781112 14.682558,10.316961 14.103516,10.748047 13.524473,11.179133 12.530426,11.5 11,11.5 9.469574,11.5 8.4755273,11.179133 7.8964844,10.748047 7.3174415,10.316961 7.0494895,9.781112 6.9980469,8.9394531 6.9580835,8.2856079 7.3705986,7.3943795 8.1445312,6.6875 8.9184641,5.9806205 9.994934,5.5 11,5.5 Z"/>
 <path style="fill:none;stroke:#cff0f5;stroke-width:2" d="M 11,12 C 7.666069,12 6.1304535,10.634365 6,8.5 5.8695465,6.3656345 8.3864425,4 11,4 c 2.613558,0 5.130454,2.3656345 5,4.5 -0.130454,2.134365 -1.666069,3.5 -5,3.5 z"/>
 <path style="fill:none;stroke:#cff0f5;stroke-width:2" d="M 9,15 H 6 c 0,0 0.07263,3 5,3 4.927369,0 5,-3 5,-3 V 8.5"/>
</svg>
