<svg xmlns="http://www.w3.org/2000/svg" width="22" height="22" version="1">
 <rect style="opacity:0.2" width="20" height="20" x="1" y="1.5" rx="6" ry="6"/>
 <path style="fill:#f746b3" d="m 7,1 h 8 c 3.324,0 6,2.676 6,6 v 4 H 1 V 7 C 1,3.676 3.676,1 7,1 Z"/>
 <path style="opacity:0.2;fill:#8b9cbe" d="M 7,1 C 3.676,1 1,3.676 1,7 v 0.5 c 0,-3.324 2.676,-6 6,-6 h 8 c 3.324,0 6,2.676 6,6 V 7 C 21,3.676 18.324,1 15,1 Z"/>
 <path style="fill:#fbb54c" d="m 7,21 h 8 c 3.324,0 6,-2.676 6,-6 V 11 H 1 v 4 c 0,3.324 2.676,6 6,6 z"/>
 <path style="opacity:0.1" d="m 7,3.5 h 8 c 2.250594,0 4,1.7494055 4,4 v 8 c 0,2.250594 -1.749406,4 -4,4 H 7 c -2.2505945,0 -4,-1.749406 -4,-4 v -8 c 0,-2.2505945 1.7494055,-4 4,-4 z"/>
 <path style="fill:#17191e" d="m 7,3 h 8 c 2.250594,0 4,1.7494055 4,4 v 8 c 0,2.250594 -1.749406,4 -4,4 H 7 C 4.7494055,19 3,17.250594 3,15 V 7 C 3,4.7494055 4.7494055,3 7,3 Z"/>
 <path style="opacity:0.2" d="M 7.625,5.5 5,8.2207031 6.125,8.9296875 5.375,11.5 8,8.7792969 6.875,8.0703125 Z M 9,10.5 v 1 h 3 v -1 z"/>
 <path style="fill:#8b9cbe" d="M 7.625,5 5,7.7207031 6.125,8.4296875 5.375,11 8,8.2792969 6.875,7.5703125 Z M 9,10 v 1 h 3 v -1 z"/>
</svg>
