<svg xmlns="http://www.w3.org/2000/svg" width="22" height="22" version="1">
 <g transform="translate(-1,-1)">
  <path style="opacity:0.2" d="M 11.5,1.5 C 10.95,1.5 10.399,1.705 9.9881,2.1162 L 1.6161,10.489 C 0.79384,11.311 0.79501,12.687 1.6173,13.51 L 9.9893,21.883 C 10.812,22.705 12.189,22.706 13.011,21.884 L 21.383,13.511 C 22.206,12.689 22.206,11.311 21.383,10.489 L 13.011,2.1162 C 12.6,1.705 12.05,1.5 11.5,1.5 Z"/>
  <path style="fill:#a42a2a" d="M 11.5,1 C 10.95,1 10.399,1.205 9.9881,1.6162 L 1.6161,9.9891 C 0.79384,10.811 0.79501,12.187 1.6173,13.01 L 9.9893,21.383 C 10.812,22.205 12.189,22.206 13.011,21.384 L 21.383,13.011 C 22.206,12.189 22.206,10.811 21.383,9.9891 L 13.011,1.6162 C 12.6,1.205 12.05,1 11.5,1 Z"/>
  <path style="opacity:0.2;fill:#8b9cbe" d="M 11.5,1 C 10.95,1 10.399,1.2051 9.9883,1.6162 L 1.6162,9.9893 C 1.1431,10.462 0.95188,11.117 1.0234,11.746 1.0769,11.284 1.2686,10.837 1.6162,10.489 L 9.9883,2.1162 C 10.399,1.7051 10.95,1.5 11.5,1.5 12.05,1.5 12.601,1.7051 13.012,2.1162 L 21.383,10.489 C 21.731,10.838 21.923,11.287 21.977,11.75 22.049,11.12 21.857,10.463 21.383,9.9893 L 13.012,1.6162 C 12.601,1.2051 12.05,1 11.5,1 Z"/>
  <path style="opacity:0.2" d="M 3.9999,4.5002 C 3.446,4.5002 3.0001,4.9461 3.0001,5.5 3.0001,6.0538 3.446,6.4997 3.9999,6.4997 L 3.9996,18.5 C 4,20.265 6.167,21.158 7.39,19.935 L 21.337,6.5002 C 21.721,6.5002 22,5.9332 22,5.5002 22,4.9463 21.549,4.5002 20.996,4.5002 H 16 C 15.446,4.5002 15,4.9461 15,5.5 15,5.9141 15.234,6.4919 15.607,6.4919 L 8,13.779 V 6.4997 C 8.5539,6.4997 9,6.054 9,5.5002 9,4.9463 8.5539,4.5002 8,4.5002 Z"/>
  <path style="fill:#b2bfd9" d="M 3.9999,4 C 3.446,4 3.0001,4.4459 3.0001,4.9998 3.0001,5.5536 3.446,5.9995 3.9999,5.9995 L 3.9996,18 C 4,19.765 6.167,20.658 7.39,19.435 L 21.337,6 C 21.721,6 22,5.433 22,5 22,4.4461 21.549,4 20.996,4 H 16 C 15.446,4 15,4.4459 15,4.9998 15,5.4139 15.234,5.9917 15.607,5.9917 L 8,13.279 V 5.9995 C 8.5539,5.9995 9,5.5538 9,5 9,4.4461 8.5539,4 8,4 Z"/>
  <path style="opacity:0.1;fill:#8b9cbe" d="M 4,4 C 3.4461,4 3,4.4461 3,5 3,5.0891 3.0291,5.1679 3.0508,5.25 3.1634,4.8211 3.5348,4.5 4,4.5 H 8 C 8.4652,4.5 8.8365,4.8211 8.9492,5.25 8.9707,5.1683 9,5.0887 9,5 9,4.4461 8.5539,4 8,4 Z M 16,4 C 15.446,4 15,4.4461 15,5 15,5.0949 15.016,5.1995 15.039,5.3027 15.133,4.8473 15.516,4.5 16,4.5 H 20.996 C 21.476,4.5 21.859,4.8435 21.957,5.2949 21.982,5.1955 22,5.094 22,5 22,4.4461 21.549,4 20.996,4 Z M 15.283,6.3027 8,13.279 V 13.779 L 15.607,6.4922 C 15.479,6.4922 15.375,6.4094 15.283,6.3027 Z"/>
 </g>
</svg>
