<svg xmlns="http://www.w3.org/2000/svg" width="22" height="22" version="1">
 <rect style="opacity:0.2" width="6.999" height="23.331" x="-3.15" y="-27.57" rx="1.75" ry="1.75" transform="rotate(135)"/>
 <rect style="fill:#cccccc" width="6.999" height="23.331" x="-3.5" y="-27.22" rx="1.75" ry="1.75" transform="rotate(135)"/>
 <rect style="opacity:0.2" width="6.999" height="23.331" x="12.41" y="-11.31" rx="1.75" ry="1.75" transform="rotate(45)"/>
 <rect style="fill:#b2bfd9" width="6.999" height="23.331" x="12.06" y="-11.66" rx="1.75" ry="1.75" transform="rotate(45)"/>
 <path style="fill:#4f4f4f" d="m 5.2255854,0.99999952 c -0.070952,0 -0.1413785,0.0119015 -0.211914,0.020508 l 5.9863276,8.979492 5.986328,-8.9804688 c -0.07052,-0.00862 -0.140972,-0.0195312 -0.211914,-0.0195312 -0.447288,0 -0.894575,0.17094198 -1.237305,0.51367178 L 10.999999,6.0507804 6.4628899,1.5136713 C 6.1201604,1.1709415 5.6728664,0.99999952 5.2255854,0.99999952 Z"/>
 <path style="fill:#4f4f4f" d="M 10.999999,12 5.0136714,20.980469 C 5.0841964,20.98909 5.1546434,21 5.2255854,21 c 0.4472875,0 0.894575,-0.170942 1.2373045,-0.513672 l 4.5371091,-4.537109 4.537109,4.537109 C 15.879838,20.829058 16.327125,21 16.774413,21 c 0.07094,0 0.141389,-0.01091 0.211914,-0.01953 z"/>
 <path style="opacity:0.1;fill:#8b9cbe" d="m 5.2255854,0.99999952 c -0.447281,0 -0.894575,0.17094198 -1.2373047,0.51367178 L 1.5136713,3.9882807 C 1.1068038,4.3951484 0.94729667,4.9489404 1.023437,5.4755854 1.0755721,5.1149784 1.2350791,4.7668729 1.5136713,4.4882804 L 3.9882807,2.0136713 C 4.3310104,1.6709414 4.7783044,1.4999995 5.2255854,1.4999995 c 0.447281,0 0.894575,0.1709419 1.2373045,0.5136718 l 4.5371091,4.537109 4.537109,-4.537109 c 0.68546,-0.6854597 1.78915,-0.6854597 2.47461,0 l 2.474609,2.4746091 c 0.278592,0.2785925 0.438099,0.626698 0.490234,0.987305 0.07614,-0.526645 -0.08337,-1.080437 -0.490234,-1.4873047 L 18.011718,1.5136713 c -0.68546,-0.68545968 -1.78915,-0.68545968 -2.47461,0 L 10.999999,6.0507804 6.4628899,1.5136713 C 6.1201604,1.1709415 5.6728664,0.99999952 5.2255854,0.99999952 Z M 5.8007804,11.25 1.5136713,15.537109 C 1.1068038,15.943977 0.94729667,16.497769 1.023437,17.024414 1.075572,16.663807 1.2350791,16.315701 1.5136713,16.037109 L 6.0507804,11.5 Z m 10.3984376,0 -0.25,0.25 4.537109,4.537109 c 0.278592,0.278592 0.438099,0.626698 0.490234,0.987305 0.07614,-0.526645 -0.08337,-1.080437 -0.490234,-1.487305 z"/>
</svg>
