<svg xmlns="http://www.w3.org/2000/svg" width="22" height="22" version="1.1">
 <g transform="translate(0,6)">
  <g transform="matrix(0.07871412,0,0,0.07871412,-13.603644,-21.886191)">
   <path style="opacity:0.2" d="m 331.61771,220.87766 c -52.32611,0 -95.28977,42.98481 -95.28977,95.33668 a 25.413146,25.425656 0 0 0 0,0.0745 c 0.0147,4.70284 1.39232,9.24148 2.09687,13.87843 l -42.03669,62.57712 c -4.45583,5.45429 -8.46088,12.22044 -10.05009,20.08525 -1.79884,8.90225 -0.30196,17.10199 1.56335,23.39969 a 25.413146,25.425656 0 0 0 0.0372,0.0993 c 5.63058,18.7242 23.8705,34.43 41.75131,37.53882 7.91139,1.54106 17.50749,1.77321 25.99376,-1.41516 8.68448,-3.26283 13.76897,-8.00361 18.1522,-11.83019 a 25.413146,25.425656 0 0 0 0.0124,0 l 56.30534,-49.17038 c 0.41559,0.009 0.825,0.0957 1.24075,0.0993 a 25.413146,25.425656 0 0 0 0.22334,0 c 52.3261,0 95.28976,-42.98481 95.28976,-95.33667 0,-52.35187 -42.96366,-95.33668 -95.28976,-95.33668 z"/>
   <path style="fill:#f16d00" d="m 331.61771,214.52556 c -52.32611,0 -95.28977,42.98481 -95.28977,95.33668 a 25.413146,25.425656 0 0 0 0,0.0745 c 0.0147,4.70284 1.39232,9.24148 2.09687,13.87843 l -42.03669,62.57712 c -4.45583,5.45429 -8.46088,12.22044 -10.05009,20.08525 -1.79884,8.90225 -0.30196,17.10199 1.56335,23.39969 a 25.413146,25.425656 0 0 0 0.0372,0.0993 c 5.63058,18.7242 23.8705,34.42999 41.75131,37.53881 7.91139,1.54107 17.50749,1.77321 25.99376,-1.41516 8.68448,-3.26283 13.76897,-8.00361 18.1522,-11.83019 a 25.413146,25.425656 0 0 0 0.0124,0 l 56.30534,-49.17038 c 0.41559,0.009 0.825,0.0957 1.24075,0.0993 a 25.413146,25.425656 0 0 0 0.22334,0 c 52.3261,0 95.28976,-42.98481 95.28976,-95.33667 0,-52.35187 -42.96366,-95.33668 -95.28976,-95.33668 z"/>
   <path style="fill:#325481" d="m 267.68996,325.76113 -50.61727,75.3259 c -6.62174,7.38529 -7.30087,12.96685 -4.78983,21.4405 3.67096,12.2016 10.92561,18.12231 21.93032,19.9073 10.89908,2.23194 14.91944,-0.45878 22.93443,-7.45245 l 70.39964,-61.42884 1.55921,1.11493 z"/>
   <circle style="opacity:0.2" cx="331.626" cy="316.159" r="69.873"/>
   <circle style="fill:#bfbfbf" cx="331.626" cy="309.807" r="69.873"/>
   <path style="opacity:0.4" d="m 271.62261,273.74459 -3.42152,6.9147 c 3.44927,25.86261 11.94582,44.06835 29.5918,59.95671 16.77079,15.10033 40.12373,24.93789 70.42656,28.79873 l 7.99271,-5.72395 C 344.52303,360.38686 318.5084,350.62303 302.09715,335.84642 285.6859,321.06981 274.91669,298.44369 271.62261,273.74459 Z"/>
   <path style="opacity:0.2;fill:#8b9cbe" d="m 331.61354,214.52556 c -52.32612,0 -95.28151,42.97927 -95.28151,95.33113 a 25.413146,25.425657 0 0 0 0,0.0745 c 0.003,0.90991 0.096,1.8175 0.18612,2.71701 1.91096,-50.71169 43.97114,-91.77049 95.09539,-91.77049 51.25414,0 93.42219,41.26545 95.13263,92.15508 0.0357,-1.06298 0.16128,-2.10492 0.16128,-3.17605 0,-52.35186 -42.96781,-95.33113 -95.29391,-95.33113 z m -94.12771,110.69031 -41.10256,61.17619 c -4.45583,5.45429 -8.46001,12.22123 -10.04922,20.08604 -0.81872,4.05174 -0.89103,7.92762 -0.62032,11.57522 0.11947,-1.71561 0.26035,-3.44164 0.62032,-5.22312 1.58921,-7.86481 5.59339,-14.63175 10.04922,-20.08603 l 42.04545,-62.57812 c -0.25237,-1.66087 -0.61139,-3.30247 -0.94289,-4.95018 z"/>
   <path style="opacity:0.2;fill:#8b9cbe" d="m 331.62594,239.93396 a 69.873105,69.873105 0 0 0 -69.8731,69.87311 69.873105,69.873105 0 0 0 0.13647,3.72194 69.873105,69.873105 0 0 1 69.73663,-67.24295 69.873105,69.873105 0 0 1 69.73664,66.15117 69.873105,69.873105 0 0 0 0.13647,-2.63016 69.873105,69.873105 0 0 0 -69.87311,-69.87311 z"/>
  </g>
 </g>
</svg>
