<svg xmlns="http://www.w3.org/2000/svg" width="22" height="22" version="1">
 <rect style="opacity:0.2" width="20" height="20" x="1" y="1.5" rx="1" ry="1"/>
 <rect style="fill:#d64b60" width="20" height="20" x="1" y="1" rx="1" ry="1"/>
 <path style="opacity:0.1" d="M 10.578,2.5001286 C 8.610381,2.4825056 6.609988,4.1355915 6.652219,6.179813 6.661039,6.799266 6.234011,6.8869565 5.72,6.7700785 5.5251565,7.46965 7.2346625,8.1297925 5.9805,8.2770785 6.424689,8.4956265 7.2140135,8.2246665 6.927,9.018079 6.8146015,10.271449 6.599492,11.519789 6.3894765,12.761766 6.212179,13.923498 5.1062885,12.620326 4.742406,12.195061 4.0914325,11.176065 4.316284,13.130245 4.37325,13.594141 4.384745,14.131574 5.1697045,15.179939 4.081746,14.770123 3.1634021,14.532073 2.2409289,13.922596 1.61795,13.343579 c -0.1219028,0.35042 0.1970073,1.468469 0.3513219,2.040456 0.00505,0.471952 0.7372499,1.323875 0.5749281,1.359918 -0.4006327,-0.21033 -1.0422259,-0.722928 -0.4435312,0.0048 0.9968545,1.032953 2.4380657,1.647302 3.8807787,1.599098 3.3772805,0.149416 6.8005795,1.030999 10.1602245,0.261525 1.30828,-0.364509 2.562739,-1.069742 3.380828,-2.17731 -0.269335,0.10512 -1.636637,1.004694 -0.8376,0.329862 0.808811,-0.782428 1.518201,-1.774786 1.744978,-2.890397 0.04464,-0.487557 -0.491906,0.391277 -0.873474,0.32247 -0.806684,0.353547 -1.683448,0.625605 -2.572904,0.494065 0.106269,-0.754896 0.786564,-1.750956 0.671,-2.6925 -0.554326,0.512036 -1.667235,1.376564 -2.326649,0.958313 C 14.796019,11.615839 14.652239,10.148722 14.626,8.7230785 14.958733,8.642558 15.759783,8.1216695 14.950586,8.2615005 14.403923,8.0475775 15.650938,7.572575 15.534687,7.0224535 15.660219,6.648523 14.633884,7.4066125 14.681,6.6310785 14.948807,5.1895475 14.253462,3.5951406 12.882742,2.9855411 12.174519,2.6034224 11.373337,2.4858652 10.578,2.5001286 Z"/>
 <path style="fill:#ffff6c" d="M 10.578,2.00005 C 8.610381,1.982427 6.609988,3.6355127 6.652219,5.6797345 6.661041,6.2991875 6.234011,6.386878 5.72,6.27 5.5251565,6.9695715 7.2346625,7.629714 5.9805,7.777 6.424689,7.995548 7.2140135,7.724588 6.927,8.518 6.8146015,9.77137 6.599492,11.01971 6.3894765,12.261687 6.212179,13.423419 5.1062885,12.120248 4.742406,11.694982 4.0914325,10.675986 4.316284,12.630166 4.37325,13.094062 4.384745,13.631496 5.1697045,14.679861 4.081746,14.270045 3.1634021,14.031995 2.2409289,13.422518 1.61795,12.8435 c -0.1219028,0.350421 0.1970073,1.46847 0.3513219,2.040457 0.00505,0.471952 0.7372499,1.323874 0.5749281,1.359918 -0.4006327,-0.21033 -1.0422259,-0.722928 -0.4435312,0.0048 0.9968545,1.032952 2.4380657,1.647302 3.8807787,1.599097 3.3772805,0.149417 6.8005795,1.030999 10.1602245,0.261525 1.30828,-0.364508 2.562739,-1.069741 3.380828,-2.17731 -0.269335,0.105121 -1.636637,1.004695 -0.8376,0.329863 0.808811,-0.782428 1.518201,-1.774787 1.744978,-2.890398 0.04464,-0.487557 -0.491906,0.391278 -0.873474,0.32247 -0.806684,0.353547 -1.683448,0.625606 -2.572904,0.494065 0.106269,-0.754896 0.786564,-1.750955 0.671,-2.6925 -0.554326,0.512037 -1.667235,1.376565 -2.326649,0.958313 C 14.796019,11.11576 14.65224,9.648643 14.626,8.223 14.958733,8.1424795 15.759783,7.621591 14.950586,7.761422 14.403923,7.547499 15.650938,7.0724965 15.534687,6.522375 15.660219,6.1484445 14.633884,6.906534 14.681,6.131 14.948807,4.689469 14.253462,3.095062 12.882742,2.4854625 12.174519,2.1033438 11.373337,1.9857867 10.578,2.00005 Z"/>
 <path style="opacity:0.4;fill:#c91919" d="M 10.5355,4.9245 C 10.071206,5.411032 9.6052,5.920414 9.0875,6.345 9.220348,5.9834765 9.481458,5.2792515 9.0923,6.0778125 8.8137765,6.552475 8.509713,7.2066205 8.343077,7.7143845 8.632034,8.228669 9.502961,6.9990635 9.830231,6.7005 10.061422,6.1048805 10.293005,5.5126445 10.5355,4.9245 Z m 1.789,0.353 C 11.79139,5.7393395 11.246952,6.213925 10.682,6.622 10.7002,6.5261085 11.201881,5.823304 11.0445,5.9645 10.496937,6.563043 9.945534,7.1716225 9.4095,7.7805 10.268155,7.677377 11.103376,7.251591 11.775,6.771 11.72666,7.1554925 11.198116,8.197763 11.785305,7.4727725 12.150939,7.080941 12.628821,6.479642 12.763502,5.9595 c 0.143307,-0.2011305 0.261237,-0.7979505 -0.0525,-0.2375 -0.129446,0.111597 -0.780188,0.985335 -0.5125,0.286 0.04722,-0.242255 0.09989,-0.485055 0.126,-0.7305 z m 1.251,0.6905 C 13.477829,6.5426495 12.958596,7.2050845 12.577231,7.6376155 12.537936,8.0953515 13.32414,7.519739 13.3625,7.26 13.4546,6.9228325 13.601953,6.315643 13.5755,5.968 Z m 0.883,1.0515 C 14.127705,7.5439755 13.719714,8.0619335 13.225,8.423 13.123564,8.7492945 12.712583,9.401212 13.22425,8.8762305 13.710692,8.366765 14.280456,7.8294885 14.454508,7.1245 c -0.0016,-0.03103 0.01555,-0.076876 0.004,-0.105 z M 7.844,7.038 C 7.7542425,7.4178475 8.228243,8.4408745 8.3375,8.2475 8.4250335,7.7005585 8.079621,7.437067 7.844,7.038 Z m 6.440846,0.979231 c -0.261299,0.8206805 -2.134956,1.586774 -2.496149,2.295019 -0.672258,0.574228 0.203433,1.188183 -0.773614,1.317281 -1.009748,0.04577 -1.113471,-0.772808 -1.767988,-1.29718 C 8.7841965,9.674264 7.881126,9.336722 7.382,8.7235 7.39554,10.004251 7.065216,11.26004 6.69,12.469 c 0.3003965,-0.252788 0.569835,-1.136757 0.7345,-1.1825 -0.098424,1.048247 -0.483339,2.058192 -1.0405,2.909 -0.5408655,0.740685 -1.1037235,1.507989 -1.9055,1.986 -0.7945645,-0.335217 -1.4173361,-0.945212 -1.917,-1.63 -0.2612775,-0.631582 -0.6713937,-1.260437 -0.98705,-1.77 0.078752,1.269675 0.3438382,2.584957 1.1063,3.527 C 2.3975198,16.27351 1.4305892,15.372751 2.0241383,16.149422 2.6797618,16.916059 3.6220039,17.432737 4.5905,17.6985 c 1.0458135,0.241743 2.136468,0.123617 3.195014,0.29014 2.639883,0.240268 5.324113,0.712618 7.962486,0.20886 1.168521,-0.245105 2.393875,-0.800253 3.2655,-1.6855 0.262278,-0.241857 0.798211,-0.850983 0.120687,-0.370891 -0.192461,0.101642 -1.185121,0.721605 -0.518187,0.182391 0.843012,-0.773853 1.538518,-1.78011 1.81271,-2.898387 0.07606,-0.720414 -0.636425,0.634823 -0.88121,0.686387 -0.544539,0.553251 -1.134793,1.062092 -1.765,1.5155 -1.489736,-0.670652 -2.560698,-2.060471 -2.975313,-3.624437 -0.39252,-1.205383 -0.694552,-2.72142 -0.522341,-3.985332 z"/>
 <path style="fill:#ebdeb0" d="m 8.341,12.3445 c -0.4376715,0.03408 -0.8984565,0.131713 -1.2465,0.4135 -0.519648,0.713223 -0.5423825,1.648253 -0.391787,2.486105 0.096224,0.554204 0.1165015,1.115 0.084396,1.675815 -0.00915,0.533602 0.04041,1.069327 0.239488,1.568586 0.150009,0.50878 0.402062,0.973744 0.7066845,1.404798 0.220656,0.36594 0.7255185,-0.08621 1.04788,-0.145529 C 9.30663,19.538707 9.829952,19.324278 10.3535,19.1105 c 1.033078,0.411551 2.074397,0.80237 3.125,1.167 0.309192,-0.09176 0.403234,-0.504522 0.542,-0.7685 0.165257,-0.498764 0.353465,-0.996757 0.472104,-1.50656 0.108524,-1.132252 0.244429,-2.261792 0.304646,-3.398213 0.07621,-0.54341 0.07058,-1.158359 -0.320995,-1.589396 C 14.203993,12.617304 13.730489,12.519421 13.3045,12.385 12.870126,12.098831 12.434237,11.799591 12.047,11.452 11.874764,11.765 11.347203,11.555241 11.051122,11.582235 10.455598,11.521655 9.762665,11.356115 9.248043,11.76048 8.945695,11.955153 8.6433475,12.149827 8.341,12.3445 Z m 0.236,3.974 c 0.517096,-0.02983 0.441368,0.697051 0.794,0.791 0.529444,0.02884 1.032919,0.338089 1.568311,0.192861 0.376898,-0.09374 0.801756,-0.07577 1.06083,-0.408197 0.344495,-0.279261 0.749546,-0.504198 1.192297,-0.569164 -0.05957,0.240839 0.01477,0.751591 -0.146438,0.835 -0.333287,-0.245767 -0.751828,-0.132918 -1.086937,0.04224 -0.766424,0.223525 -1.579229,0.198795 -2.367328,0.294857 -0.304826,0.05722 -0.610118,0.120756 -0.6127195,-0.28068 C 8.862538,16.894225 8.6729515,16.600827 8.4345,16.3555 8.47937,16.33512 8.529063,16.32736 8.577,16.3185 Z"/>
 <path style="fill:#d49063" d="m 14.2605,7.616 c -0.361977,0.5749955 -0.808006,1.1050025 -1.3485,1.5195 0.08267,-0.153747 0.26213,-0.5625185 0.09263,-0.1940575 -0.103928,0.1733105 -0.126237,0.2654865 0.06262,0.074745 0.08755,0.284511 -0.10683,0.69793 -0.282445,0.968486 -0.289153,0.4302895 -0.672592,0.7936355 -1.117815,1.0588975 -0.282872,0.197816 -0.626179,0.511565 -0.99699,0.358929 -0.488022,-0.162795 -0.954885,-0.398079 -1.3585,-0.719 0.164893,0.04862 0.482969,0.40642 0.218,0.469 -0.188672,-0.0033 -0.604825,0.02704 -0.222582,0.01101 0.09524,-0.02637 0.259008,0.03815 0.310082,-0.03751 0.01114,0.368233 0.355288,0.500882 0.61863,0.699378 0.272366,0.234179 0.633984,0.422218 0.986558,0.231568 0.301264,-0.1369 0.612747,-0.311047 0.817771,-0.572298 -2.14e-4,-0.260409 0.137836,-0.395443 0.400541,-0.318648 -0.230362,0.01755 -0.409759,0.0017 -0.317101,-0.276915 0.224355,-0.275803 0.600443,-0.493234 0.800101,-0.826836 C 13.096567,9.7454085 13.255981,9.4623945 13.609722,9.3343935 13.976504,9.04885 14.160563,8.603521 14.3945,8.216 c 0.06716,-0.222824 0.256591,-0.5770715 -0.134,-0.6 z m -1.82,3.55 c 0.208774,0.104171 0.137591,-0.01687 0,0 z M 7.1385,7.714 C 6.9932745,7.9654595 7.15258,8.283265 7.3001405,8.504469 7.414114,8.8249485 7.622654,9.13012 7.9194185,9.31122 8.0351415,9.361214 8.367259,9.617456 8.301,9.548 8.293685,9.116173 7.8555005,8.9493415 7.6555325,8.612334 7.446035,8.351162 7.341065,8.0291715 7.173875,7.743875 Z M 8.33,9.628 C 8.380656,9.803511 8.702133,10.163952 8.7007285,10.146011 8.557763,9.989308 8.4224165,9.819632 8.33,9.628 Z m 0.411,0.5605 c 0.090233,0.09898 0.144347,0.143445 0,0 z m 0.1045,0.1055 c 0.091997,0.115423 0.388507,0.337215 0.13,0.120562 -0.044125,-0.03932 -0.087464,-0.07953 -0.13,-0.120562 z m 0.882,1.631 C 9.541793,12.223189 9.480844,12.57685 9.381,12.909 9.720527,13.115684 9.678096,12.677108 9.843726,12.499689 9.900836,12.326491 9.798926,12.089526 9.7275,11.925 Z m 2.2295,0.037 c -0.09255,0.354244 -0.03704,0.725948 -0.047,1.088 0.203838,0.0035 0.487605,0.01238 0.330984,-0.264265 C 12.190459,12.496267 12.043974,12.23936 11.957,11.962 Z m -0.6365,0.87 c -0.0099,0.147574 -0.306203,0.548866 -0.0295,0.505 0.140188,-0.149247 0.232452,-0.363988 0.0295,-0.505 z"/>
 <path style="fill:#8b9cbe" d="m 9.617,11.1555 c -0.514239,0.0126 -1.038236,0.06411 -1.5205,0.2605 0.102104,0.303026 0.193556,0.610112 0.261,0.923 0.343148,-0.160807 0.678784,-0.337258 1.0215,-0.499 -0.215265,0.427787 -0.541187,0.799205 -0.692509,1.262306 -0.1892775,0.488795 -0.4617555,0.965123 -0.444497,1.506827 -0.04333,0.540503 0.049135,1.080423 0.074584,1.620725 0.150503,1.271616 0.2271035,2.58506 -0.087891,3.838096 C 8.149746,20.363749 7.729487,20.821702 7.805356,21 9.745238,21 11.685119,21 13.625,21 13.53931,20.594687 13.449433,20.189961 13.438943,19.774108 13.348293,18.620573 13.257647,17.467036 13.167,16.3135 c 0.09663,-0.245028 0.116148,-0.601447 0.137983,-0.868648 0.02855,-0.390986 0.174339,-0.792259 0.0022,-1.17123 -0.180194,-0.576232 -0.362541,-1.151225 -0.629157,-1.694809 -0.07238,-0.16975 -0.375103,-0.715309 0.03032,-0.462313 0.277291,0.180533 0.488601,0.122661 0.560938,-0.2175 0.215292,-0.249167 0.180705,-0.461546 -0.151815,-0.546033 C 12.809031,11.207619 12.461604,11.145568 12.122,11.175 c -0.05175,0.258654 -0.15863,0.521367 -0.1525,0.785 0.148076,0.407593 0.316073,0.811671 0.3565,1.249 0.09816,0.514313 0.161836,1.093213 0.175,1.58 0.0033,0.206748 0.04879,0.458872 -0.242371,0.232404 -0.920738,-0.264005 -1.916772,-0.263534 -2.846344,-0.04192 -0.256269,0.214225 -0.302525,-0.08288 -0.262847,-0.264859 -8e-4,-0.632977 0.133904,-1.2583 0.24175,-1.879562 0.07078,-0.344842 0.23351,-0.678585 0.335519,-0.998314 C 9.707044,11.613291 9.708436,11.34395 9.617,11.1555 Z"/>
 <path style="opacity:0.1" d="M 10.76,11.931305 C 9.909167,11.667093 9.12933,11.161302 8.556297,10.477979 8.3722025,10.260256 8.257264,9.995244 8.223,9.712305 8.410785,9.854826 8.162854,9.465058 8.165326,9.36163 8.0484295,8.987139 7.998518,8.596212 7.9385,8.209805 8.0724325,8.3704265 8.2050065,8.6348635 8.3375,8.747305 8.32209,8.438272 8.239946,8.1282955 8.282,7.819305 8.4280485,7.9602275 8.3600485,8.2652775 8.5369765,8.3361645 8.9578825,8.1390985 9.253596,7.7605985 9.599343,7.462055 9.675181,7.3870215 9.818252,7.2345645 9.723711,7.42618 9.619148,7.7108115 9.499992,7.9910595 9.4095,8.280305 c 0.859835,-0.110678 1.671777,-0.4879135 2.358,-1.011 -0.04927,0.297633 -0.146193,0.5847905 -0.2295,0.8735 0.464161,-0.3706625 0.829345,-0.8522445 1.1385,-1.356 0.03579,0.4855405 0.09551,0.969785 0.151,1.4535 0.185497,-0.1441545 0.358406,-0.352928 0.535,-0.4805 -0.04979,0.3766275 -0.08205,0.75752 -0.14251,1.131912 -0.08117,0.261282 -0.192163,0.511926 -0.31849,0.754088 0.09755,-0.06631 0.234557,-0.228777 0.190309,-2.7e-5 -0.04413,0.618879 -0.477203,1.12145 -0.911035,1.527299 -0.253524,0.221974 -0.553994,0.381746 -0.819274,0.589228 -0.174348,0.103034 -0.393427,0.22942 -0.6015,0.169 z"/>
 <path style="fill:#afb3b3" d="m 8.577,16.3185 c -0.3091935,0.0141 0.1209355,0.258629 0.1565,0.408 0.158502,0.250018 0.28943,0.532445 0.334696,0.823401 C 8.78863,18.358767 8.509065,19.167634 8.2295,19.9765 c -0.084729,0.168248 -0.189154,0.498929 -0.251,0.624 0.2211095,0.06578 0.432203,0.162292 0.634,0.2735 0.458162,-0.223457 0.893246,-0.493584 1.359397,-0.69971 0.186289,-0.06871 0.383825,-0.124955 0.582603,-0.12729 0.01396,0.314018 0.03468,0.628073 0.0695,0.9405 0.999032,0.02628 1.999426,0.0076 2.999,0.0075 -0.04734,-0.239431 -0.101723,-0.481654 -0.1535,-0.7175 0.01187,-0.07453 -0.02022,-0.187924 -0.0252,-0.277356 -0.115933,-0.940215 -0.231866,-1.880429 -0.3478,-2.820644 0.04438,-0.190799 0.05073,-0.434506 0.07882,-0.646123 0.03233,-0.133572 0.04476,-0.27976 -0.133072,-0.180002 -0.523697,0.116949 -0.959468,0.451401 -1.34975,0.802125 -0.498908,0.05636 -1.005766,0.298205 -1.506705,0.12111 C 9.877095,17.189734 9.562125,17.126024 9.243,17.093 9.106412,16.818317 9.031467,16.434902 8.6895,16.342 8.652785,16.331 8.6156145,16.32027 8.577,16.3185 Z m 2.6,3.7195 c 0.530074,0.03213 1.056463,0.155751 1.55039,0.348752 0.307747,0.111645 0.442721,0.439155 0.71811,0.597748 -0.759159,0.0023 -1.518342,0.0023 -2.2775,0 -0.0078,-0.315416 -0.0094,-0.631412 0.009,-0.9465 z"/>
 <path style="fill:#ff78c4" d="m 11.37,16.14 c 0.151781,-0.0721 0.404328,-0.21401 0.2535,-0.408 -0.08562,-0.202349 -0.198187,-0.393545 -0.303,-0.5845 0.177968,0.05229 0.342749,0.181036 0.513563,0.221875 0.149785,-0.07979 0.12625,-0.34863 0.344968,-0.241281 0.345167,0.06611 0.681199,0.174308 1.019486,0.268868 0.211638,0.113429 0.159317,-0.246927 0.178193,-0.369668 -0.09595,-0.149084 -0.35098,-0.105138 -0.500568,-0.202111 -0.755306,-0.292866 -1.578567,-0.359687 -2.381897,-0.322815 -0.629838,0.02879 -1.256954,0.115958 -1.874978,0.239029 -0.133739,0.0298 -0.26616,0.06533 -0.397267,0.105103 8.5e-4,0.113993 -0.00225,0.228122 0.003,0.342 0.448974,-0.102529 0.908572,-0.181558 1.371,-0.191 0.0669,0.138989 0.145732,0.386846 0.33429,0.230665 0.201876,-0.07506 0.405623,-0.171789 0.62171,-0.185665 -0.25044,0.257577 -0.483298,0.541376 -0.632,0.871 0.04384,0.204764 0.33434,0.250611 0.409516,0.0388 0.15488,-0.306562 0.36364,-0.580605 0.542484,-0.872797 0.20078,-0.06197 0.19258,0.233311 0.247846,0.358011 0.06391,0.245403 0.09058,0.504239 0.154951,0.746083 0.03397,-0.0085 0.06346,-0.02961 0.0952,-0.04359 z"/>
 <path style="opacity:0.1" d="m 6.703,15.754 c 0.082634,0.511323 0.123346,1.02799 0.08552,1.545582 0.00105,0.515033 -0.002,1.043866 0.187066,1.531519 0.158145,0.490865 0.336132,0.985563 0.6549685,1.398015 0.096863,0.255447 0.261509,0.409347 0.5344455,0.260384 0.7335435,-0.282757 1.46056,-0.582215 2.1885,-0.879 1.033037,0.411625 2.074398,0.802381 3.125,1.167 0.284869,-0.07264 0.37286,-0.44312 0.507003,-0.678797 0.187708,-0.502299 0.341492,-1.017842 0.502997,-1.528203 0.04501,-0.627154 0.132058,-1.250485 0.1835,-1.877 -0.501666,0.04 -1.003333,0.08 -1.505,0.12 0.05186,0.119261 -0.04381,0.588375 -0.05692,0.833471 -0.215207,-0.04695 -0.649085,-0.254218 -0.939083,-0.03197 -0.558009,0.264982 -1.192875,0.243903 -1.793691,0.31408 -0.434625,0.02726 -0.869871,0.0871 -1.302309,0.11292 C 8.9579825,17.468201 8.610129,16.966777 8.151713,16.610291 7.7601265,16.227274 7.22295,16.066631 6.76293,15.786709 Z m 2.5155,1.791 c 0.02839,0.09037 0.117999,0.04759 0,0 z"/>
 <path style="fill:#ebdeb0" d="m 6.703,15.254 c 0.082634,0.511323 0.123346,1.02799 0.08552,1.545582 0.00105,0.515033 -0.002,1.043866 0.187066,1.531519 0.158145,0.490865 0.336132,0.985563 0.6549685,1.398015 0.096863,0.255447 0.261509,0.409347 0.5344455,0.260384 0.7335435,-0.282757 1.46056,-0.582215 2.1885,-0.879 1.033037,0.411625 2.074398,0.802381 3.125,1.167 0.284869,-0.07264 0.37286,-0.44312 0.507003,-0.678797 0.187708,-0.502299 0.341492,-1.017842 0.502997,-1.528203 0.04501,-0.627154 0.132058,-1.250485 0.1835,-1.877 -0.501666,0.04 -1.003333,0.08 -1.505,0.12 0.05186,0.119261 -0.04381,0.588375 -0.05692,0.833471 -0.215207,-0.04695 -0.649085,-0.254218 -0.939083,-0.03197 -0.558009,0.264982 -1.192875,0.243903 -1.793691,0.31408 -0.434625,0.02726 -0.869871,0.0871 -1.302309,0.11292 C 8.9579825,16.968201 8.610129,16.466777 8.151713,16.110291 7.7601265,15.727274 7.22295,15.566631 6.76293,15.286709 Z m 2.5155,1.791 c 0.02839,0.09037 0.117999,0.04759 0,0 z"/>
 <path style="opacity:0.1;fill:#8b9cbe" d="M 2,1 C 1.446,1 1,1.446 1,2 v 0.5 c 0,-0.554 0.446,-1 1,-1 h 18 c 0.554,0 1,0.446 1,1 V 2 C 21,1.446 20.554,1 20,1 Z"/>
 <path style="fill:#ebdeb0" d="M 10.76,11.4315 C 9.909167,11.167288 9.12933,10.661497 8.556297,9.978174 8.3722025,9.760451 8.257264,9.495439 8.223,9.2125 8.410785,9.355021 8.162854,8.9652525 8.165326,8.861825 8.0484295,8.487334 7.998518,8.096407 7.9385,7.71 8.0724325,7.8706215 8.2050065,8.1350585 8.3375,8.2475 8.32209,7.938467 8.239946,7.6284905 8.282,7.3195 8.4280485,7.4604225 8.3600485,7.7654725 8.5369765,7.8363595 8.9578825,7.6392935 9.253596,7.2607935 9.599343,6.96225 9.675181,6.8872165 9.818252,6.7347595 9.723711,6.926375 9.619148,7.2110065 9.499992,7.4912545 9.4095,7.7805 10.269335,7.669822 11.081277,7.2925865 11.7675,6.7695 11.71823,7.067133 11.621307,7.3542905 11.538,7.643 12.002161,7.2723375 12.367345,6.7907555 12.6765,6.287 12.71229,6.7725405 12.77201,7.256785 12.8275,7.7405 13.012997,7.5963455 13.185906,7.387572 13.3625,7.26 13.31271,7.6366275 13.28045,8.01752 13.21999,8.391912 13.13882,8.6531935 13.027827,8.9038375 12.9015,9.146 c 0.09755,-0.06631 0.234557,-0.228777 0.190309,-2.6e-5 -0.04413,0.618879 -0.477203,1.121449 -0.911035,1.527298 -0.253524,0.221974 -0.553994,0.381747 -0.819274,0.589228 -0.174348,0.103034 -0.393427,0.229421 -0.6015,0.169 z"/>
</svg>
