<svg xmlns="http://www.w3.org/2000/svg" width="22" height="22" version="1">
 <path style="opacity:0.2" d="m 11.249971,1.5002545 c -0.09097,-0.00105 -0.1829,0.00286 -0.273438,0.011711 C 5.8784558,1.5245915 1.531919,5.4296892 1.0448931,10.54663 0.5437955,15.811412 4.2928698,20.598253 9.5273152,21.376907 14.646635,22.138434 19.5138,19.315581 20.712862,14.32132 L 17.19333,10.093823 C 16.693913,9.4862048 16.488402,9.4946348 15.748018,9.4946348 h -3.248047 c -3.3724238,-0.04766 -3.3792188,5.0189112 -0.02344,4.9964872 h 2.554688 A 5.0506973,4.9964874 0 0 1 10.999969,16.489717 5.0506973,4.9964874 0 0 1 5.949188,11.49323 5.0506973,4.9964874 0 0 1 8.4257504,7.1993729 c 0.018352,-0.010928 0.036184,-0.022483 0.054688,-0.03318 A 5.0506973,4.9964874 0 0 1 9.2089552,6.8265881 c 0.06025,-0.022789 0.120301,-0.043905 0.181641,-0.064408 A 5.0506973,4.9964874 0 0 1 10.140596,6.5748118 c 0.05909,-0.010002 0.117961,-0.019391 0.177734,-0.027325 a 5.0506973,4.9964874 0 0 1 0.681641,-0.050745 5.0506973,4.9964874 0 0 1 0.179688,0.00586 c 0.01,3.612e-4 0.01929,-0.00237 0.0293,-0.00195 0.108692,0.0058 0.21765,0.00449 0.326172,-0.00391 h 2.96484 c 1.394522,0.019711 2.535156,-1.1045249 2.535156,-2.4982437 0,-1.3937186 -1.140634,-2.5179524 -2.535156,-2.4982437 z"/>
 <path style="fill:#214487" d="m 11.249971,1.0002551 c -0.09097,-0.00105 -0.1829,0.00286 -0.273438,0.011711 C 5.8784558,1.024592 1.531919,4.9296898 1.0448931,10.04663 0.5437955,15.311412 4.2928698,20.098253 9.5273152,20.876907 14.646635,21.638434 19.5138,18.815581 20.712862,13.82132 L 17.19333,9.5938228 C 16.693913,8.9862052 16.488402,8.9946349 15.748018,8.9946349 H 12.499971 C 9.1275472,8.9469729 9.1207522,14.013546 12.476531,13.991122 h 2.554688 A 5.0506973,4.9964874 0 0 1 10.999969,15.989717 5.0506973,4.9964874 0 0 1 5.949188,10.99323 5.0506973,4.9964874 0 0 1 8.4257504,6.6993735 c 0.018352,-0.010928 0.036184,-0.022483 0.054688,-0.03318 A 5.0506973,4.9964874 0 0 1 9.2089552,6.3265887 c 0.06025,-0.022789 0.120301,-0.043905 0.181641,-0.064408 A 5.0506973,4.9964874 0 0 1 10.140596,6.0748124 c 0.05909,-0.010002 0.117961,-0.019391 0.177734,-0.027325 a 5.0506973,4.9964874 0 0 1 0.681641,-0.050745 5.0506973,4.9964874 0 0 1 0.179688,0.00586 c 0.01,3.612e-4 0.01929,-0.00237 0.0293,-0.00195 0.108692,0.0058 0.21765,0.00449 0.326172,-0.00391 h 2.96484 c 1.394522,0.019711 2.535156,-1.1045249 2.535156,-2.4982437 0,-1.3937186 -1.140634,-2.51795239 -2.535156,-2.4982437 z"/>
 <path style="opacity:0.1;fill:#8b9cbe" d="m 11.249971,0.99999981 c -0.09097,-0.00105 -0.182899,0.00287 -0.273438,0.011719 -5.0980767,0.012626 -9.444614,3.9182162 -9.9316399,9.0351562 -0.038862,0.408304 -0.044178,0.811982 -0.033203,1.212891 0.00548,-0.236952 0.010431,-0.473634 0.033203,-0.712891 0.4870259,-5.1169408 4.8335632,-9.0225304 9.9316399,-9.0351564 0.09054,-0.00885 0.182468,-0.012769 0.273438,-0.011719 h 3.25 c 1.308692,-0.018496 2.381152,0.9743483 2.509766,2.2480469 0.0084,-0.083535 0.02539,-0.1642194 0.02539,-0.25 0,-1.3937186 -1.140634,-2.51775559 -2.535156,-2.49804689 z m 1.25,7.99414059 C 10.698704,8.9686834 9.8677362,10.402406 9.9862992,11.740234 10.091826,10.569309 10.923091,9.4718558 12.499971,9.4941408 h 3.248047 c 0.740384,0 0.945895,-0.008 1.445312,0.5996092 l 3.410157,4.097656 c 0.03508,-0.12386 0.07896,-0.242463 0.109375,-0.36914 L 17.19333,9.5937498 C 16.693913,8.9861322 16.488402,8.9941404 15.748018,8.9941404 Z M 5.9589556,11.296875 a 5.0506973,4.9964874 0 0 0 -0.00977,0.197266 5.0506973,4.9964874 0 0 0 5.0507814,4.996093 5.0506973,4.9964874 0 0 0 4.03125,-2 h -0.441406 a 5.0506973,4.9964874 0 0 1 -3.589844,1.5 5.0506973,4.9964874 0 0 1 -5.0410158,-4.693359 z"/>
</svg>
