<svg xmlns="http://www.w3.org/2000/svg" width="22" height="22" version="1.1">
 <path style="opacity:0.2" d="m 13.777344,5.4995855 c -0.657495,0 -1.265779,0.1875352 -1.796875,0.5019531 C 13.215799,7.1347304 14,8.7564528 14,10.499585 h -2 c 0,-1.3486519 -0.73025,-2.6179905 -1.824219,-3.3769526 -0.03974,-0.026125 -0.07464,-0.059207 -0.115234,-0.083984 -0.0012,-7.59e-4 -0.0027,-0.0012 -0.0039,-0.00195 C 9.513577,6.7060183 8.8948977,6.4995855 8.2226562,6.4995855 H 3.7773438 C 1.7196373,6.4995855 0,8.219222 0,10.276929 v 2.466797 c 0,2.057751 1.7529505,3.73937 3.7617188,3.755859 a 2.0002,2.0002 0 0 0 0.015625,0 H 4 a 2.0002,2.0002 0 0 0 3.4140625,1.414062 L 8.828125,16.499585 H 8.2226562 c 0.6537852,0 1.2644768,-0.187687 1.7988278,-0.503906 C 8.7864488,14.862347 8,13.242385 8,11.499585 h 2 c 0,1.348137 0.728996,2.617885 1.822266,3.376953 0.04149,0.02717 0.07869,0.06024 0.121093,0.08594 0.545933,0.330883 1.166639,0.537109 1.833985,0.537109 h 1.394531 l 1.414063,1.414062 A 2.0002,2.0002 0 0 0 20,15.499585 v -0.525391 c 1.155339,-0.644636 2,-1.827229 2,-3.230468 V 9.2769291 C 22,7.219222 20.280363,5.4995855 18.222656,5.4995855 Z"/>
 <path style="fill:#5d51ae" d="m 13.777344,5.0000001 c -0.657495,0 -1.265779,0.1875352 -1.796875,0.5019531 C 13.215799,6.635145 14,8.2568674 14,10 H 12 C 12,8.6513482 11.26975,7.3820091 10.175781,6.623047 10.136041,6.596922 10.101141,6.56384 10.060547,6.539063 c -0.0012,-7.59e-4 -0.0027,-0.0012 -0.0039,-0.00195 C 9.513577,6.2064329 8.8948977,6.0000001 8.2226562,6.0000001 H 3.7773438 C 1.7196373,6.0000001 0,7.7196366 0,9.7773441 V 12.244141 C 0,14.301892 1.7529505,15.983511 3.7617188,16 a 2.0002,2.0002 0 0 0 0.015625,0 H 4 a 2.0002,2.0002 0 0 0 3.4140625,1.414062 L 8.828125,16 H 8.2226562 C 8.8764414,16 9.487133,15.812313 10.021484,15.496094 8.7864488,14.362762 8,12.7428 8,11 h 2 c 0,1.348137 0.728996,2.617885 1.822266,3.376953 0.04149,0.02717 0.07869,0.06024 0.121093,0.08594 C 12.489292,14.793774 13.109998,15 13.777344,15 h 1.394531 l 1.414063,1.414062 A 2.0002,2.0002 0 0 0 20,15 v -0.525391 c 1.155339,-0.644636 2,-1.827229 2,-3.230468 V 8.7773439 C 22,6.7196366 20.280363,5.0000001 18.222656,5.0000001 Z"/>
 <path style="opacity:0.2" d="M 13.777344,7.4995855 C 12.792455,7.4995855 12,8.2920401 12,9.2769291 v 2.4667969 c 0,0.984889 0.792455,1.755859 1.777344,1.755859 H 16 l 2,2 v -2 h 0.222656 C 19.207512,13.491501 20,12.728615 20,11.743726 V 9.2769291 C 20,8.2920401 19.207545,7.4995855 18.222656,7.4995855 Z m -10.0000002,1 C 2.7924548,8.4995855 2,9.2920401 2,10.276929 v 2.466797 c 0,0.984889 0.792488,1.747775 1.7773438,1.755859 H 6 v 2 l 2,-2 H 8.2226562 C 9.207545,14.499585 10,13.728615 10,12.743726 V 10.276929 C 10,9.2920401 9.207545,8.4995855 8.2226562,8.4995855 Z"/>
 <path style="fill:#8b9cbe" d="M 13.777344,7.0000001 C 12.792455,7.0000001 12,7.7924547 12,8.7773439 V 11.244141 C 12,12.22903 12.792455,13 13.777344,13 H 16 l 2,2 v -2 h 0.222656 C 19.207512,12.991916 20,12.22903 20,11.244141 V 8.7773439 C 20,7.7924547 19.207545,7.0000001 18.222656,7.0000001 Z m -10.0000002,1 C 2.7924548,8.0000001 2,8.7924547 2,9.7773441 V 12.244141 C 2,13.22903 2.792488,13.991916 3.7773438,14 H 6 v 2 L 8,14 H 8.2226562 C 9.207545,14 10,13.22903 10,12.244141 V 9.7773441 C 10,8.7924547 9.207545,8.0000001 8.2226562,8.0000001 Z"/>
 <path style="opacity:0.1;fill:#8b9cbe" d="m 13.777344,5.0000001 c -0.657495,0 -1.265779,0.1875352 -1.796875,0.5019531 0.114708,0.1052245 0.221462,0.2186761 0.328125,0.3320313 0.449102,-0.2094474 0.942134,-0.3339844 1.46875,-0.3339844 h 4.445312 C 20.280363,5.5000001 22,7.2196366 22,9.2773441 V 8.7773439 C 22,6.7196365 20.280363,5.0000001 18.222656,5.0000001 Z m -10.0000002,1 C 1.7196373,6.0000001 0,7.7196364 0,9.7773441 V 10.277344 C 0,8.2196366 1.7196373,6.5000001 3.7773438,6.5000001 h 4.4453124 c 0.6722416,0 1.2909148,0.2064293 1.8339848,0.5371094 0.0012,7.5e-4 0.0027,0.00119 0.0039,0.00195 0.04059,0.024777 0.07549,0.057859 0.115234,0.083984 C 11.26975,7.8820091 12,9.1513481 12,10.5 h 2 C 14,10.331983 13.98693,10.165432 13.97266,10 H 12 C 12,8.6513482 11.26975,7.3820091 10.175781,6.623047 10.136041,6.596922 10.101141,6.56384 10.060547,6.539063 c -0.0012,-7.59e-4 -0.0027,-0.0012 -0.0039,-0.00195 C 9.513577,6.2064329 8.8948978,6.0000001 8.2226562,6.0000001 Z M 8,11.5 c 0,1.580969 0.6512209,3.056832 1.693359,4.164062 0.111489,-0.05206 0.22236,-0.105378 0.328125,-0.167968 C 8.9058565,14.472336 8.1638141,13.049772 8.0292969,11.5 Z m 0.3359375,4.992188 C 8.2978718,16.493468 8.2610255,16.5 8.2226562,16.5 H 8.328125 Z"/>
</svg>
