<svg xmlns="http://www.w3.org/2000/svg" width="22" height="22" version="1">
 <path style="opacity:0.2" d="M 11.525017,1.4997962 C 11.393783,1.6383564 11.286098,1.7686471 11.169548,1.90214 11.377191,1.6556263 11.525017,1.4997962 11.525017,1.4997962 Z m 0,0 C 7.5553763,4.7331566 8.2834482,8.9873203 9.3882985,11.644329 8.2970626,11.921324 7.3492967,12.597304 6.7320484,13.53886 l 0.1210937,-0.732421 0.00781,-0.0098 -0.00586,-0.002 v -0.002 c 0,-0.554246 -0.2666979,-0.879006 -0.5996094,-1.289063 0.060068,0.93689 -0.3447363,1.449699 -0.2382813,2.34375 0.027494,0.230902 0.1418803,0.411426 0.2675781,0.587891 -0.2450527,0.658117 -0.3326758,1.364454 -0.2558593,2.0625 -0.2727763,-0.362135 -0.5237968,-0.745869 -0.4589844,-1.173828 -0.606036,3.299578 2.8210123,7.012579 6.6249992,6.007812 2.577348,-0.634156 4.115049,-2.499735 4.623047,-4.605469 0.293353,-1.215991 0.202013,-2.469104 -0.06445,-3.521484 -0.217097,-0.85719 -0.661208,-1.761371 -1.328125,-2.591797 C 14.367228,9.2954587 13.091932,8.5274024 12.116814,7.6638587 12.016684,6.4963942 11.949878,5.4080784 11.968376,4.1872962 11.972076,3.9422737 12.114207,3.5062121 12.157829,3.2634681 11.895471,3.7620592 11.577003,4.0242127 11.366814,4.5310462 11.198153,4.9377409 11.035849,5.5777963 10.911735,6.105265 10.880473,6.0350027 10.836982,5.9738897 10.810173,5.9001868 10.428928,4.1846088 11.364498,1.9224693 11.525017,1.4997962 Z"/>
 <path style="fill:#ff7d20" d="M 10.892204,2.1328122 C 9.6586465,3.4734644 8.9407845,4.8975826 8.8023609,6.3124997 c -0.170479,1.7425757 0.2746676,3.433525 0.8164066,4.7363283 0.0582,0.14088 -0.02213,0.300601 -0.169922,0.337891 -1.0306822,0.261624 -1.9248164,0.899755 -2.5078128,1.789062 -0.1487349,0.223502 -0.4971881,0.08741 -0.4550781,-0.177734 L 6.6031421,12.289062 C 6.6026062,12.116002 6.4565254,12.006668 6.4039234,11.875 c -0.022503,0.113724 -0.017439,0.266367 -0.041016,0.371094 -0.079937,0.355079 -0.1458212,0.667755 -0.097656,1.072265 0.019677,0.165254 0.1021214,0.30344 0.2226562,0.472657 0.048358,0.06748 0.060066,0.154562 0.03125,0.232422 -0.2314413,0.621561 -0.3147374,1.287992 -0.2421874,1.947265 0.019182,0.178595 -0.1506152,0.318555 -0.3222657,0.265625 0.4071938,2.675358 3.084054,5.170141 6.1757805,4.353516 0.0013,-10e-6 0.0026,-10e-6 0.0039,0 2.489291,-0.61249 3.952486,-2.395223 4.441406,-4.421875 0.281399,-1.166426 0.193758,-2.382564 -0.06445,-3.402344 -0.207448,-0.819089 -0.63588,-1.692498 -1.28125,-2.496094 C 14.203617,8.99139 12.951824,8.2380529 11.950794,7.3515622 11.902484,7.3090872 11.872414,7.2496276 11.866814,7.1855466 11.773084,6.0927185 11.721242,5.0518105 11.728142,3.9179685 c -0.03761,0.066988 -0.0994,0.1331273 -0.13086,0.2089843 -0.154846,0.3733828 -0.318094,1.0110969 -0.441406,1.5351563 -0.05363,0.2348714 -0.375746,0.2654859 -0.472656,0.044922 -0.01814,-0.040774 -0.0661,-0.1070967 -0.107422,-0.2207031 -0.0039,-0.010191 -0.0072,-0.02063 -0.0098,-0.03125 -0.205065,-0.9227793 -0.05494,-1.9482435 0.15625,-2.8007812 0.06321,-0.2551585 0.101362,-0.3039433 0.169922,-0.5214844 z"/>
 <path style="fill:#ff7d20" d="m 11.524226,0.99971734 c 0,0 -2.0919435,2.15242406 -1.9149115,3.81610876 0.144156,1.3547224 2.8578985,5.7428779 3.7198315,8.4918579 l -2.596915,0.236857 C 9.9502895,12.632184 5.7246344,5.7236136 11.524226,0.99971734 Z"/>
 <path style="fill:#d83b2f" d="m 6.2560924,11.004293 c 0.060068,0.93689 -0.3454075,1.449862 -0.2389525,2.343913 0.045695,0.383756 0.33347,0.621111 0.5094855,0.948794 l 0.1178975,-0.719315 c 0.00972,-0.05607 0.01827,-0.111036 0.02772,-0.168425 l 0.181057,-1.103184 0.00772,-0.0095 -0.00561,-0.0021 v -7e-4 c 0,-0.554246 -0.266401,-0.879447 -0.5993125,-1.289504 z"/>
 <circle style="fill:#ffb832" cx="8.528" cy="16.666" r="4.5" transform="rotate(-7.0121527)"/>
 <path style="fill:#ff7d20" d="M 12.157758,2.7629161 C 11.8954,3.2615072 11.577677,3.5242891 11.367488,4.0311226 11.087385,4.7065421 10.749731,6.311679 10.749731,6.311679 L 11.42308,7.3367525 12.167705,7.829746 C 12.02897,6.3821315 11.946599,5.1430536 11.968646,3.6880331 c 0.0037,-0.2450225 0.14549,-0.682373 0.189112,-0.925117 z"/>
 <path style="fill:#db3f2e" d="m 11.525017,0.99999974 c -3.6691616,3.87399326 -1.48251,5.71484036 0.03711,8.46289096 0.298674,0.5636563 0.696833,1.3957053 0.912109,2.0019533 1.318948,0.646987 2.299461,1.919443 2.492188,3.486328 0.07032,0.571685 0.02456,1.129741 -0.109375,1.65625 -0.0042,0.03163 -4.58e-4,0.06163 -0.0078,0.09375 -0.464633,1.709348 -1.83902,2.769353 -3.210937,3.078125 -1.9334825,0.331412 -3.5626053,-0.696743 -3.9550777,-2.140625 -0.076626,-0.476158 0.042169,-1.115847 0.3183593,-1.277344 -0.1594895,0.05469 -0.3533535,0.115879 -0.5859375,0.332031 -0.3916864,0.364015 -0.2516509,0.493447 -0.7636718,0.634766 0.2598485,-0.72187 -1.2328158,-1.508269 -1.0820313,-2.503906 -0.606036,3.299578 2.8210118,7.012579 6.624999,6.007812 2.577347,-0.634156 4.115049,-2.499735 4.623047,-4.605469 0.293353,-1.215991 0.202013,-2.469104 -0.06445,-3.521484 -0.217097,-0.85719 -0.661208,-1.761371 -1.328125,-2.591797 -1.68333,-2.0960208 -3.919426,-2.7999693 -4.615251,-4.7128907 -0.381245,-1.715578 0.554325,-3.9777175 0.714844,-4.40039056 z"/>
 <path style="fill:#ff7d20" d="m 14.965052,11.191124 0.537109,1.185546 c 0.0099,0.0283 0.0197,0.05651 0.02929,0.08496 l 0.24707,0.900391 c 0.269098,1.273072 0.231238,2.601912 -0.161133,3.640625 -0.56623,1.498968 -1.501592,2.67099 -2.795898,3.206055 -2.26528,0.936463 -5.2099127,0.197288 -6.4257806,-2.170899 0.048645,0.222003 0.1104505,0.43894 0.1855465,0.651367 0.9584154,1.299668 2.4630136,2.241491 4.1582031,2.304688 0.03671,0.001 0.07348,0.0017 0.110351,0.0019 0.174992,0.0026 0.351958,-0.0067 0.530274,-0.02344 0.259855,-0.02692 0.522409,-0.07361 0.787109,-0.144531 l 0.002,-0.001 c 2.279608,-0.568998 3.753961,-2.095706 4.440429,-3.91211 0.08133,-0.225603 0.151843,-0.454685 0.208008,-0.6875 0.03151,-0.130588 0.05719,-0.261408 0.08008,-0.392578 -0.0032,-0.247115 -0.01681,-0.495682 -0.04785,-0.746094 -0.09033,-0.717981 -0.297729,-1.408084 -0.604492,-2.051757 l 0.0059,-0.0039 -0.05273,-0.09082 c -0.141852,-0.285981 -0.302735,-0.562332 -0.483486,-0.827075 l -0.02637,-0.0459 z"/>
 <path style="opacity:0.2;fill:#8b9cbe" d="m 10.398064,11.001953 a 4.5,4.5 0 0 0 -0.4472655,0.03125 4.5,4.5 0 0 0 -3.9394532,4.712891 4.5,4.5 0 0 1 3.9394532,-4.212891 4.5,4.5 0 0 1 5.0156245,3.917969 4.5,4.5 0 0 1 0.02148,0.3125 4.5,4.5 0 0 0 -0.02148,-0.8125 4.5,4.5 0 0 0 -4.568359,-3.949219 z"/>
</svg>
