<svg xmlns="http://www.w3.org/2000/svg" width="22" height="22" version="1.1">
 <path style="opacity:.2" d="m1 14.207031v0.498047c0 3.763259 3.0297103 6.792969 6.7929688 6.792969h6.4140622c3.763259 0 6.792969-3.02971 6.792969-6.792969v-0.498047c0 3.763259-3.02971 6.792969-6.792969 6.792969h-6.4140622c-3.7632585 0-6.7929688-3.02971-6.7929688-6.792969z"/>
 <rect style="fill:#4bae4f" width="20" height="19.997" x="1" y="1" ry="6.793"/>
 <path style="opacity:.2" d="m3.9181238 4.0574374 0.5150119 0.3866161c-1.6335645 0.7531004 2.5617334 4.1915294 2.5617334 4.1915294s0.8164742-0.7349332 2.012705-0.8123038c1.1865299-1.2159033 6.1247379-0.2904711 5.9397219 0.7074118-1.659971 0.02594-2.185693-0.1861707-2.185693-0.1861707s0.08196 0.094509 0.115779 0.418877c-0.121313 0.099949-1.837849-0.2847161-2.196709-0.257312-1.0211002 0.077974-1.7102542 0.103802-2.4428104 0.184892 0.503966 0.1661951 4.5198774 0.8813811 5.8039594 2.1227098-0.34253 0.132108-0.492331 0.07769-0.606704 0.119854-0.100572 0.03708-0.202324 0.24198-0.423034 0.242967-0.158138 5.4e-4 -0.104089-0.140006-0.430679-0.294413-2.032075 0.08081-2.6909044-1.1590422-2.891437-1.3110659-0.897072-0.2141-2.4083419-0.6982305-2.4083419-0.6982305s1.2795871 1.0210814 1.9811561 1.5878114c0.05834 0.04713 1.0201618 0.225913 2.2428748 0.822294 0.657246-0.538029 2.429099 0.374941 2.099867 1.210958-0.293262 0.744672-2.260852-0.02261-2.188517-1.035682-0.449177-0.139887-1.278934-0.541038-1.8098003-0.732399 0.5089533 0.396901 2.5085063 2.062943 2.9102813 2.53417 1.760135-0.216166 4.417331 0.223102 6.065619 1.279497-0.375906 0.09927-2.164557 0.438953-2.522833 0.343342-0.665726-0.251781-1.657935-1.067434-1.763656-1.158846-0.382408-0.06446-1.240702-0.187806-1.570398-0.225311 0.334404 0.339325 1.438764 1.615236 1.785523 2.151957 0.143647-0.03035 0.876174 0.145707 1.079181 0.283672 0.752082-0.767363 1.97155 0.579138 2.721177 1.229445-0.19693 0.399816-3.289968-0.215539-2.87659-1.111497-0.221038-0.0295-0.663415-0.272345-0.826542-0.285236 0.16675 0.218383 0.530404 0.514794 1.009676 1.017508 0.461005-0.131136 2.198651 1.749398 2.245276 2.160933-1.30033-0.316812-1.942544-0.59246-2.143863-0.827605-0.397359-0.464127-0.24692-1.130565-0.209063-1.251699-0.511342-0.456973-0.606608-0.592845-0.773858-0.683545-0.0043 0.0047 5.4e-4 0.140774 0.0085 0.206871 0.839986 0.619264 0.434113 2.333195-0.04882 2.393974-0.21018 0.02646-0.694631-2.418098-0.08969-2.509179 0.01392-0.04842 0.02192-0.192803 0.02266-0.198502-0.319245-0.347522-2.089715-2.229936-2.204846-2.309207 0.05734 0.148551 0.151356 0.392814 0.237647 0.694376 1.045482 0.683276 1.218459 1.776558 1.139664 3.060654-0.250709-0.438849-2.706894-2.43837-1.632664-3.324753 0.0077-0.136695-0.03317-0.44695 0.0573-0.621352-0.340664-0.340467-1.401407-1.387582-1.496586-1.386736 0.11847 0.242848 0.192032 0.381495 0.250787 0.64408 0.808544 0.403543 0.573669 1.445909 0.205392 1.468046-0.38799 0.02331-1.2478482-1.172944-0.439096-1.426647-0.06534-0.301181-0.184165-0.710538-0.232073-0.888372-0.349931-0.267626-1.5088515-1.193899-1.7762894-1.40982 0.3288383 0.547178 0.6500557 1.398882 0.8106855 1.88722 0.9688039 1.097564 0.7008099 2.795285 0.6028509 4.546444-1.1366894-0.84386-1.842382-3.723848-1.1193646-4.440727-0.2413625-0.832759-0.6061814-2.241841-0.6061814-2.241841-1.5628004-1.2129888-2.4274204-2.1221323-2.4274204-2.1221323s1.0412669 1.3502139 1.1598668 2.0739913c0.9119444 0.176819 1.6737984 1.76543 0.948679 2.036533-1.0598824 0.396255-2.197583-1.285228-1.2934086-1.911501 0 0-0.8006101-1.4747227-1.420331-2.7681572-2.4444392-2.6831376-2.2094694-3.488699-1.476275-3.5783914z"/>
 <path style="fill:#b2bfd9" d="m3.9181238 3.5574369 0.5150119 0.3866161c-1.6335645 0.7531004 2.5617334 4.1915294 2.5617334 4.1915294s0.8164742-0.7349332 2.012705-0.8123038c1.1865299-1.2159033 6.1247379-0.2904711 5.9397219 0.7074118-1.659971 0.02594-2.185693-0.1861707-2.185693-0.1861707s0.08196 0.094509 0.115779 0.418877c-0.121313 0.099949-1.837849-0.2847161-2.196709-0.257312-1.0211002 0.077974-1.7102542 0.103802-2.4428104 0.184892 0.503966 0.1661951 4.5198774 0.8813811 5.8039594 2.1227103-0.34253 0.132108-0.492331 0.07769-0.606704 0.119854-0.100572 0.03708-0.202324 0.24198-0.423034 0.242967-0.158138 5.4e-4 -0.104089-0.140006-0.430679-0.294413-2.032075 0.08081-2.6909044-1.1590427-2.891437-1.3110664-0.897072-0.2141-2.4083419-0.6982305-2.4083419-0.6982305s1.2795871 1.0210814 1.9811561 1.5878118c0.05834 0.047135 1.0201618 0.2259131 2.2428748 0.8222941 0.657246-0.538029 2.429099 0.374941 2.099867 1.210958-0.293262 0.744672-2.260852-0.02261-2.188517-1.035682-0.449177-0.139887-1.278934-0.541038-1.8098003-0.732399 0.5089533 0.396901 2.5085063 2.062943 2.9102813 2.53417 1.760135-0.216166 4.417331 0.223102 6.065619 1.279497-0.375906 0.09927-2.164557 0.438953-2.522833 0.343342-0.665726-0.251781-1.657935-1.067434-1.763656-1.158846-0.382408-0.06446-1.240702-0.187806-1.570398-0.225311 0.334404 0.339325 1.438764 1.615236 1.785523 2.151957 0.143647-0.03035 0.876174 0.145707 1.079181 0.283672 0.752082-0.767363 1.97155 0.579138 2.721177 1.229445-0.19693 0.399816-3.289968-0.215539-2.87659-1.111497-0.221038-0.0295-0.663415-0.272345-0.826542-0.285236 0.16675 0.218383 0.530404 0.514794 1.009676 1.017508 0.461005-0.131136 2.198651 1.749398 2.245276 2.160933-1.30033-0.316812-1.942544-0.59246-2.143863-0.827605-0.397359-0.464127-0.24692-1.130565-0.209063-1.251699-0.511342-0.456973-0.606608-0.592845-0.773858-0.683545-0.0043 0.0047 5.4e-4 0.140774 0.0085 0.206871 0.839986 0.619264 0.434113 2.333195-0.04882 2.393974-0.21018 0.02646-0.694631-2.418098-0.08969-2.509179 0.01392-0.04842 0.02192-0.192803 0.02266-0.198502-0.319245-0.347522-2.089715-2.229936-2.204846-2.309207 0.05734 0.148551 0.151356 0.392814 0.237647 0.694376 1.045482 0.683276 1.218459 1.776558 1.139664 3.060654-0.250709-0.438849-2.706894-2.43837-1.632664-3.324753 0.0077-0.136695-0.03317-0.44695 0.0573-0.621352-0.340664-0.340467-1.401407-1.387582-1.496586-1.386736 0.11847 0.242848 0.192032 0.381495 0.250787 0.64408 0.808544 0.403543 0.573669 1.445909 0.205392 1.468046-0.38799 0.02331-1.2478482-1.172944-0.439096-1.426647-0.06534-0.301181-0.184165-0.710538-0.232073-0.888372-0.349931-0.267626-1.5088515-1.193899-1.7762894-1.40982 0.3288383 0.547178 0.6500557 1.398882 0.8106855 1.88722 0.9688039 1.097564 0.7008099 2.795285 0.6028509 4.546444-1.1366894-0.84386-1.842382-3.723848-1.1193646-4.440727-0.2413625-0.832759-0.6061814-2.2418413-0.6061814-2.2418413-1.5628004-1.212989-2.4274204-2.1221325-2.4274204-2.1221325s1.0412669 1.3502139 1.1598668 2.0739919c0.9119444 0.1768185 1.6737984 1.7654299 0.948679 2.0365329-1.0598824 0.396255-2.197583-1.285228-1.2934086-1.9115013 0 0-0.8006101-1.4747229-1.420331-2.7681574-2.4444392-2.6831376-2.2094694-3.488699-1.476275-3.5783914z"/>
 <path style="fill:#8b9cbe;opacity:.2" d="m7.7929688 1.0019531c-3.7632585 0-6.7929688 3.0297103-6.7929688 6.7929688v0.4980469c0-3.7632585 3.0297103-6.7929688 6.7929688-6.7929688h6.4140622c3.763259 0 6.792969 3.0297103 6.792969 6.7929688v-0.4980469c0-3.7632585-3.02971-6.7929688-6.792969-6.7929688h-6.4140622z"/>
</svg>
