<svg xmlns="http://www.w3.org/2000/svg" width="22" height="22" version="1.1">
 <g transform="translate(-1,-1)">
  <path style="opacity:0.2" d="M 12,2.5 3,7 V 11 L 16.2,15.4 12,17.5 7,15 V 13.5 L 3,12.167 V 17 L 12,21.5 21,17 V 13 L 7.8,8.6 12,6.5 17,9 V 10.5 L 21,11.833 V 7 Z"/>
  <path style="fill:#e52e38" d="M 12,2 3,6.5 V 10.5 L 16.2,14.9 12,17 7,14.5 V 13 L 3,11.667 V 16.5 L 12,21 21,16.5 V 12.5 L 7.8,8.1 12,6 17,8.5 V 10 L 21,11.333 V 6.5 Z"/>
  <path style="opacity:0.2;fill:#8b9cbe" d="M 12,2 3,6.5 V 7 L 12,2.5 21,7 V 6.5 Z M 8.4004,8.2988 7.8008,8.5996 21,13 V 12.5 Z M 3,11.668 V 12.168 L 7,13.5 V 13 Z M 7,14.5 V 15 L 12,17.5 16.199,15.4 15.6,15.201 12,17 Z"/>
 </g>
</svg>
