<svg xmlns="http://www.w3.org/2000/svg" height="22" width="22" version="1.1">
 <rect style="opacity:.2" rx="1" ry="1" height="20" width="20" y="1.5" x="1"/>
 <rect style="fill:#6c4ac4" rx="1" ry="1" height="20" width="20" y="1" x="1"/>
 <path style="opacity:.2" d="m4 4.5-1 13s0 1 1 1h14c1 0 1-1 1-1l-1-13z"/>
 <path style="fill:#b2bfd9" d="m4 4-1 13s0 1 1 1h14c1 0 1-1 1-1l-1-13z"/>
 <path style="opacity:.2" d="m7.5 6.5a1.5 1.5 0 0 0 -1.5 1.5 1.5 1.5 0 0 0 1.5 1.5 1.5 1.5 0 0 0 1.5 -1.5 1.5 1.5 0 0 0 -1.5 -1.5zm7 0a1.5 1.5 0 0 0 -1.5 1.5 1.5 1.5 0 0 0 1.5 1.5 1.5 1.5 0 0 0 1.5 -1.5 1.5 1.5 0 0 0 -1.5 -1.5z"/>
 <circle r="1.5" style="fill:#cccccc" cx="7.5" cy="7.5"/>
 <circle r="1.5" style="fill:#cccccc" cx="14.5" cy="7.5"/>
 <path style="opacity:.2" d="m7.4921875 7.5a0.49970173 0.49970173 0 0 0 -0.4882813 0.5566406s0.1262078 1.3043691 0.6582032 2.6328124c0.2659977 0.664222 0.6324767 1.345994 1.171875 1.884766 0.5393982 0.538771 1.2774716 0.925781 2.1660156 0.925781s1.626617-0.38701 2.166016-0.925781c0.539398-0.538772 0.905877-1.220544 1.171875-1.884766 0.531995-1.3284433 0.658203-2.6328124 0.658203-2.6328124a0.49970173 0.49970173 0 1 0 -0.994141 -0.099609s-0.123908 1.1929644-0.591797 2.3613278c-0.233944 0.584182-0.553178 1.151297-0.951172 1.548829-0.397993 0.397531-0.847702 0.632812-1.458984 0.632812s-1.060991-0.235281-1.4589844-0.632812c-0.3979933-0.397532-0.7172273-0.964647-0.9511718-1.548829-0.4678891-1.1683634-0.5917969-2.3613278-0.5917969-2.3613278a0.49970173 0.49970173 0 0 0 -0.5058594 -0.4570312z"/>
 <path style="stroke-linejoin:round;stroke:#6c4ac4;stroke-linecap:round;stroke-width:1px;fill:none" d="m7.5 7.5s0.5 5 3.5 5 3.5-5 3.5-5"/>
 <path style="opacity:.2;fill:#8b9cbe" d="m2 1c-0.554 0-1 0.446-1 1v0.5c0-0.554 0.446-1 1-1h18c0.554 0 1 0.446 1 1v-0.5c0-0.554-0.446-1-1-1h-18z"/>
 <path style="opacity:.2;fill:#8b9cbe" d="m4 4l-1 13s0.0038201 0.077353 0.0234375 0.183594l0.9765625-12.683594h14l0.976562 12.683594c0.019618-0.106241 0.023438-0.183594 0.023438-0.183594l-1-13h-14z"/>
</svg>
