<svg xmlns="http://www.w3.org/2000/svg" width="22" height="22" version="1">
 <circle style="opacity:0.2" cx="11" cy="11.5" r="10"/>
 <circle style="fill:#388ebb" cx="11" cy="11" r="10"/>
 <path style="opacity:0.1;fill:#8b9cbe" d="M 11,1 C 5.4605,1 1.001,5.46 1.001,11 c 0,0.08386 -0.002,0.166645 0,0.25 C 1.1331,5.827 5.5445,1.5 11,1.5 c 5.4555,0 9.867,4.3268 9.999,9.75 0.002,-0.08335 0,-0.16614 0,-0.25 C 20.999,5.46 16.5395,1 11,1 Z"/>
 <path style="opacity:0.2" d="m 5.4966795,8.0990093 c -0.355691,0 -0.6274215,0.1001049 -0.8154295,0.2998045 C 4.493242,8.5932583 4.3990235,8.8686048 4.3990235,9.225962 v 1.272566 c 0,0.215465 -0.04077,0.380478 -0.1220705,0.496093 -0.081301,0.115616 -0.2905395,0.200378 -0.4277343,0.25293 -0.1321138,0.0473 -0.2815358,0.07287 -0.4492187,0.07813 v 0.331055 c 0.1676829,0.01051 0.3171049,0.03961 0.4492187,0.08691 0.1371948,0.04729 0.3464333,0.132059 0.4277343,0.25293 0.081301,0.115615 0.1220705,0.280628 0.1220705,0.496093 v 1.272567 c 0,0.346847 0.094219,0.622194 0.2822265,0.827148 C 4.869258,14.797338 5.151442,14.814401 5.4966795,14.9 H 5.9 V 14.561133 H 5.6714845 c -0.2235775,0 -0.3839245,-0.071 -0.480469,-0.212891 -0.096547,-0.141892 -0.144531,-0.347216 -0.144531,-0.615234 v -1.263777 c 0,-0.257508 -0.06886,-0.470504 -0.206055,-0.638672 C 4.703234,11.657135 4.4904165,11.544244 4.200781,11.491692 v -0.0078 c 0.279472,-0.0473 0.48956,-0.155073 0.631836,-0.323242 0.1422765,-0.173423 0.2138675,-0.388977 0.2138675,-0.646484 V 9.265999 c 0,-0.2732732 0.047985,-0.4785977 0.144531,-0.6152342 0.096544,-0.141892 0.2756449,-0.1232586 0.480469,-0.212891 H 5.9 V 8.0990093 Z M 16.2,8.099008 v 0.338867 h 0.228515 c 0.223578,0 0.383925,0.070999 0.480469,0.212891 0.09654,0.1366365 0.144531,0.341961 0.144531,0.615234 v 1.248153 c 0,0.257507 0.07159,0.47306 0.213868,0.646484 0.142276,0.168169 0.352364,0.275944 0.631836,0.323242 v 0.0078 c -0.289634,0.05255 -0.502453,0.165444 -0.639649,0.338867 -0.137195,0.168169 -0.206055,0.381165 -0.206055,0.638672 v 1.262784 c 0,0.268018 -0.04799,0.473342 -0.144531,0.615234 -0.09654,0.141891 -0.275645,0.123258 -0.480469,0.212891 H 16.2 v 0.338879 h 0.40332 c 0.355691,0 0.627422,-0.102662 0.81543,-0.307617 0.188008,-0.204954 0.282226,-0.480301 0.282226,-0.827148 v -1.271573 c 0,-0.215465 0.04077,-0.380478 0.122071,-0.496093 0.0813,-0.120871 0.29054,-0.205633 0.427734,-0.25293 0.132115,-0.0473 0.281536,-0.0764 0.449219,-0.08691 V 11.32568 c -0.167683,-0.0053 -0.317105,-0.03083 -0.449219,-0.07813 -0.137194,-0.05255 -0.346433,-0.137315 -0.427734,-0.25293 -0.0813,-0.115615 -0.122071,-0.280628 -0.122071,-0.496093 V 9.225961 c 0,-0.3573575 -0.09422,-0.632704 -0.282226,-0.8271485 C 17.230742,8.199113 16.959011,8.099008 16.60332,8.099008 Z m -4.908008,0.400496 c -0.721002,0 -1.3264,0.1276585 -1.815429,0.383789 C 8.987535,9.133975 8.6179715,9.485665 8.3671875,9.937981 8.122674,10.384847 8,10.903135 8,11.491692 c 0,0.604904 0.115682,1.133621 0.347656,1.585937 0.2382455,0.446866 0.5957775,0.795217 1.072266,1.045899 0.482758,0.250681 1.088157,0.375976 1.81543,0.375976 0.407523,0 0.777086,-0.0299 1.109375,-0.08984 0.332288,-0.0654 0.841792,-0.160792 1.155273,-0.286132 v -1.671875 c 0.02124,-0.436574 0.264361,-0.591945 0.5,-0.587891 v -0.34375 h -2 l 0.01855,0.34375 c 0.362208,0.01528 0.48145,0.432717 0.48145,0.55566 v 1.515625 c -0.131661,0.0327 -0.418612,0.05787 -0.58789,0.07422 -0.169279,0.01635 -0.34455,0.02441 -0.526368,0.02441 -0.858934,0 -1.464332,-0.21833 -1.815429,-0.654297 C 9.219216,12.93797 9,12.30913 9,11.491692 9,10.674253 9.2132,10.044437 9.551758,9.60302 9.890316,9.156153 10.457669,8.933098 11.253906,8.933098 c 0.30721,0 0.55158,0.054093 0.733398,0.163086 0.181818,0.103542 0.310508,0.236903 0.385743,0.400391 0.08151,0.158038 0.12207,0.321296 0.12207,0.490234 0.0017,0 0.0031,-9.5e-4 0.0049,-10e-4 v 0.0137 h 0.5 V 9.879387 8.8510665 8.499504 h -0.5 V 8.633293 C 12.18364,8.5460765 11.784036,8.499504 11.291992,8.499504 Z"/>
 <path style="fill:#8b9cbe" d="m 5.4966795,7.5995053 c -0.355691,0 -0.6274215,0.1001049 -0.8154295,0.2998045 C 4.493242,8.0937543 4.3990235,8.3691008 4.3990235,8.7264583 V 9.999024 c 0,0.215465 -0.04077,0.380478 -0.1220705,0.496093 -0.081301,0.115616 -0.2905395,0.200378 -0.4277343,0.25293 -0.1321138,0.0473 -0.2815358,0.07287 -0.4492187,0.07813 v 0.331055 c 0.1676829,0.01051 0.3171049,0.03961 0.4492187,0.08691 0.1371948,0.04729 0.3464333,0.132059 0.4277343,0.25293 0.081301,0.115615 0.1220705,0.280628 0.1220705,0.496093 v 1.272567 c 0,0.346847 0.094219,0.622194 0.2822265,0.827148 0.188008,0.204954 0.470192,0.222017 0.8154295,0.307616 H 5.9 V 14.061629 H 5.6714845 c -0.2235775,0 -0.3839245,-0.071 -0.480469,-0.212891 -0.096547,-0.141892 -0.144531,-0.347216 -0.144531,-0.615234 v -1.263777 c 0,-0.257508 -0.06886,-0.470504 -0.206055,-0.638672 C 4.703234,11.157631 4.4904165,11.04474 4.200781,10.992188 v -0.0078 c 0.279472,-0.0473 0.48956,-0.155073 0.631836,-0.323242 0.1422765,-0.173423 0.2138675,-0.388977 0.2138675,-0.646484 V 8.7664948 c 0,-0.273273 0.047985,-0.4785975 0.144531,-0.615234 0.096544,-0.141892 0.2756449,-0.1232586 0.480469,-0.212891 H 5.9 V 7.5995053 Z M 16.2,7.599504 v 0.338867 h 0.228515 c 0.223578,0 0.383925,0.070999 0.480469,0.212891 0.09654,0.1366365 0.144531,0.341961 0.144531,0.615234 v 1.248153 c 0,0.257507 0.07159,0.47306 0.213868,0.646484 0.142276,0.168169 0.352364,0.275944 0.631836,0.323242 v 0.0078 c -0.289634,0.05255 -0.502453,0.165444 -0.639649,0.338867 -0.137195,0.168169 -0.206055,0.381165 -0.206055,0.638672 v 1.262784 c 0,0.268018 -0.04799,0.473342 -0.144531,0.615234 -0.09654,0.141891 -0.275645,0.123258 -0.480469,0.212891 H 16.2 v 0.338879 h 0.40332 c 0.355691,0 0.627422,-0.102662 0.81543,-0.307617 0.188008,-0.204954 0.282226,-0.480301 0.282226,-0.827148 v -1.271573 c 0,-0.215465 0.04077,-0.380478 0.122071,-0.496093 0.0813,-0.120871 0.29054,-0.205633 0.427734,-0.25293 0.132115,-0.0473 0.281536,-0.0764 0.449219,-0.08691 v -0.331055 c -0.167683,-0.0053 -0.317105,-0.03083 -0.449219,-0.07813 -0.137194,-0.05255 -0.346433,-0.137315 -0.427734,-0.25293 -0.0813,-0.115615 -0.122071,-0.280628 -0.122071,-0.496093 V 8.726457 c 0,-0.3573575 -0.09422,-0.632704 -0.282226,-0.8271485 C 17.230742,7.699609 16.959011,7.599504 16.60332,7.599504 Z M 11.291992,8 C 10.57099,8 9.965592,8.1276585 9.476563,8.383789 8.987535,8.6344705 8.6179715,8.986161 8.3671875,9.438477 8.122674,9.885343 8,10.403631 8,10.992188 c 0,0.604904 0.115682,1.133621 0.347656,1.585937 0.2382455,0.446866 0.5957775,0.795217 1.072266,1.045899 C 9.90268,13.874705 10.508079,14 11.235352,14 c 0.407523,0 0.777086,-0.0299 1.109375,-0.08984 0.332288,-0.0654 0.841792,-0.160792 1.155273,-0.286132 v -1.671875 c 0.02124,-0.436574 0.264361,-0.591945 0.5,-0.587891 v -0.34375 h -2 l 0.01855,0.34375 c 0.362208,0.01528 0.48145,0.432717 0.48145,0.55566 v 1.515625 c -0.131661,0.0327 -0.418612,0.05787 -0.58789,0.07422 -0.169279,0.01635 -0.34455,0.02441 -0.526368,0.02441 -0.858934,0 -1.464332,-0.21833 -1.815429,-0.654297 C 9.219216,12.438466 9,11.809626 9,10.992188 9,10.174749 9.2132,9.544933 9.551758,9.103516 9.890316,8.656649 10.457669,8.433594 11.253906,8.433594 c 0.30721,0 0.55158,0.054093 0.733398,0.1630855 0.181818,0.103542 0.310508,0.2369035 0.385743,0.400391 0.08151,0.1580385 0.12207,0.3212965 0.12207,0.4902345 0.0017,0 0.0031,-9.5e-4 0.0049,-10e-4 V 9.5 h 0.5 V 9.379883 8.3515625 8 h -0.5 V 8.133789 C 12.18364,8.0465725 11.784036,8 11.291992,8 Z"/>
</svg>
