<svg xmlns="http://www.w3.org/2000/svg" width="22" height="22" version="1">
 <path style="opacity:0.2" d="m 11.053711,1.500001 v 9.75e-4 A 2.282838,2.2739422 0 0 0 9.858399,1.8037108 L 3.1416015,5.6669783 A 2.282838,2.2739422 0 0 0 2,7.6366988 v 7.7265352 a 2.282838,2.2739422 0 0 0 1.1416015,1.968743 l 6.7167975,3.863268 a 2.282838,2.2739422 0 0 0 2.283202,0 l 6.716797,-3.863268 A 2.282838,2.2739422 0 0 0 20,15.363234 V 7.6366988 A 2.282838,2.2739422 0 0 0 18.858398,5.6669783 L 12.141601,1.8037108 A 2.282838,2.2739422 0 0 0 11.053711,1.500001 Z"/>
 <path style="fill:#4f4f4f" d="m 11.053711,1.0000008 v 9.75e-4 A 2.282838,2.2739422 0 0 0 9.858399,1.3037107 L 3.1416015,5.1669783 A 2.282838,2.2739422 0 0 0 2,7.1366988 v 7.7265352 a 2.282838,2.2739422 0 0 0 1.1416015,1.968743 l 6.7167975,3.863268 a 2.282838,2.2739422 0 0 0 2.283202,0 l 6.716797,-3.863268 A 2.282838,2.2739422 0 0 0 20,14.863234 V 7.1366988 A 2.282838,2.2739422 0 0 0 18.858398,5.1669783 L 12.141601,1.3037107 a 2.282838,2.2739422 0 0 0 -1.08789,-0.3037099 z"/>
 <path style="opacity:0.2" d="m 14,4.7686098 -2,1.154297 v 3.071289 l -1,0.578125 -3,1.7324222 v 0.213867 2.094727 2.30957 1.145508 1.163086 l 6,-3.462891 z m -2,6.5361332 v 2.307617 l -2,1.155274 V 12.45904 Z"/>
 <path style="opacity:0.1;fill:#8b9cbe" d="m 11.053711,1.0000008 v 9.75e-4 A 2.282838,2.2739422 0 0 0 9.858399,1.3037118 L 3.1416015,5.1669928 A 2.282838,2.2739422 0 0 0 2,7.1367198 v 0.5 A 2.282838,2.2739422 0 0 1 3.1416015,5.6669928 L 9.858399,1.8037118 a 2.282838,2.2739422 0 0 1 1.195312,-0.3027345 v -9.765e-4 a 2.282838,2.2739422 0 0 1 1.087891,0.303711 l 6.716796,3.863281 A 2.282838,2.2739422 0 0 1 20,7.6367198 v -0.5 a 2.282838,2.2739422 0 0 0 -1.141602,-1.969727 l -6.716796,-3.863281 a 2.282838,2.2739422 0 0 0 -1.087891,-0.303711 z"/>
 <path style="fill:#32a5e8" d="m 14,4.2680673 -2,1.154297 v 8.8457037 h 2 z"/>
 <path style="fill:#32a5e8" d="M 12.822229,8.0197023 11,9.0717788 8,10.8042 v 0.213868 2.095703 L 12,10.8042 13.425363,9.9812568 Z"/>
 <path style="fill:#32a5e8" d="m 13,12.535646 -5,2.886718 v 2.30957 l 6,-3.463866 z"/>
 <path style="fill:#32a5e8" d="m 8,11.018068 h 2 v 5.549999 H 8 Z"/>
 <path style="opacity:0.2;fill:#8b9cbe" d="m 14,4.2685553 -2,1.154297 v 0.5 l 2,-1.154297 z m -2,4.225586 -1,0.5781255 -3,1.7324222 v 0.213867 0.286133 l 3,-1.7324222 1,-0.5781255 z m 0,4.6181647 -2,1.155273 v 0.5 l 2,-1.155273 z"/>
</svg>
