<svg xmlns="http://www.w3.org/2000/svg" width="22" height="22" version="1">
 <path style="opacity:0.2" d="M 10.333008,1.5 C 10.148921,1.5000262 10.000018,1.7135808 10,1.9765625 L 9.873047,3.5878906 A 8,8 0 0 0 8.017578,4.0810545 L 7.104492,2.7519531 C 6.972985,2.5242133 6.7365855,2.414815 6.5771485,2.506836 l -1.154297,0.6660155 c -0.159411,0.092066 -0.182256,0.3513433 -0.050781,0.5791016 l 0.693359,1.4541014 A 8,8 0 0 0 4.711914,6.5683595 L 3.2519531,5.8720705 C 3.0241948,5.7405955 2.7649176,5.7634405 2.6728515,5.9228515 L 2.0068359,7.0771485 C 1.914815,7.2365855 2.0242134,7.472985 2.2519531,7.604492 L 3.5830078,8.519531 A 8,8 0 0 0 3.0898437,10.373047 L 1.4765625,10.5 C 1.2135795,10.500018 1.000026,10.648921 1,10.833008 v 1.333984 c 2.6e-5,0.184087 0.2135811,0.33299 0.4765625,0.333008 l 1.6113281,0.126953 a 8,8 0 0 0 0.4931641,1.855469 L 2.2519531,15.395508 C 2.0242122,15.527015 1.9148149,15.763414 2.006836,15.922851 l 0.6660156,1.154297 c 0.092066,0.159411 0.3513436,0.182256 0.5791015,0.05078 L 4.7060545,16.43457 a 8,8 0 0 0 1.362305,1.353516 l -0.696289,1.459961 c -0.1314745,0.227758 -0.10863,0.487035 0.050781,0.579101 l 1.154297,0.666016 c 0.159437,0.09202 0.3958365,-0.01738 0.5273435,-0.245117 l 0.915039,-1.331055 a 8,8 0 0 0 1.853516,0.493164 L 10,21.023437 c 1.8e-5,0.262982 0.148921,0.476537 0.333008,0.476563 h 1.333984 C 11.851079,21.499974 11.999982,21.286419 12,21.023437 l 0.126953,-1.611328 a 8,8 0 0 0 1.855469,-0.493164 l 0.913086,1.329102 c 0.131507,0.227739 0.367906,0.337138 0.527343,0.245117 l 1.154297,-0.666016 c 0.159411,-0.09207 0.182256,-0.351343 0.05078,-0.579101 L 15.93457,17.793945 a 8,8 0 0 0 1.353516,-1.362305 l 1.459961,0.696289 c 0.227758,0.131475 0.487035,0.108631 0.579101,-0.05078 l 0.666016,-1.154297 c 0.09202,-0.159437 -0.01738,-0.395836 -0.245117,-0.527343 L 18.416992,14.48047 a 8,8 0 0 0 0.493164,-1.853516 L 20.523437,12.5 C 20.78642,12.499982 20.999974,12.351079 21,12.166992 V 10.833008 C 20.999974,10.648921 20.786419,10.500018 20.523437,10.5 L 18.912109,10.373047 A 8,8 0 0 0 18.418945,8.517578 l 1.329102,-0.913086 c 0.22774,-0.131507 0.337138,-0.3679065 0.245117,-0.5273435 l -0.666016,-1.154297 c -0.09207,-0.159411 -0.351343,-0.182256 -0.579101,-0.050781 l -1.454102,0.693359 A 8,8 0 0 0 15.93164,5.211914 L 16.627929,3.7519531 C 16.759405,3.5241948 16.73656,3.2649176 16.577148,3.1728515 L 15.422851,2.506836 C 15.263414,2.414815 15.027015,2.5242134 14.895508,2.7519531 L 13.980469,4.083008 A 8,8 0 0 0 12.126953,3.5898437 L 12,1.9765625 C 11.999982,1.7135808 11.851079,1.5000262 11.666992,1.5 Z"/>
 <path style="fill:#ff8dcb" d="M 10.333008,1 C 10.148921,1.0000262 10.000018,1.2135808 10,1.4765625 L 9.873047,3.0878906 A 8,8 0 0 0 8.017578,3.5810547 L 7.104492,2.2519531 C 6.972985,2.0242133 6.7365855,1.914815 6.5771485,2.006836 l -1.154297,0.6660156 c -0.159411,0.092066 -0.182256,0.3513433 -0.050781,0.5791015 l 0.693359,1.4541014 A 8,8 0 0 0 4.711914,6.0683595 L 3.2519531,5.3720705 C 3.0241948,5.2405955 2.7649176,5.2634405 2.6728515,5.4228515 L 2.0068359,6.5771485 C 1.914815,6.7365855 2.0242134,6.972985 2.2519531,7.104492 L 3.5830078,8.019531 A 8,8 0 0 0 3.0898437,9.873047 L 1.4765625,10 C 1.2135795,10.000018 1.000026,10.148921 1,10.333008 v 1.333984 C 1.000026,11.851079 1.2135811,11.999982 1.4765625,12 l 1.6113281,0.126953 a 8,8 0 0 0 0.4931641,1.855469 L 2.2519531,14.895508 C 2.0242122,15.027015 1.9148149,15.263414 2.006836,15.422851 l 0.6660156,1.154297 c 0.092066,0.159411 0.3513436,0.182256 0.5791015,0.05078 L 4.7060545,15.93457 a 8,8 0 0 0 1.362305,1.353516 l -0.696289,1.459961 c -0.1314745,0.227758 -0.10863,0.487035 0.050781,0.579101 l 1.154297,0.666016 c 0.159437,0.09202 0.3958365,-0.01738 0.5273435,-0.245117 l 0.915039,-1.331055 a 8,8 0 0 0 1.853516,0.493164 L 10,20.523437 c 1.8e-5,0.262982 0.148921,0.476537 0.333008,0.476563 h 1.333984 C 11.851079,20.999974 11.999982,20.786419 12,20.523437 l 0.126953,-1.611328 a 8,8 0 0 0 1.855469,-0.493164 l 0.913086,1.329102 c 0.131507,0.227739 0.367906,0.337138 0.527343,0.245117 l 1.154297,-0.666016 c 0.159411,-0.09207 0.182256,-0.351343 0.05078,-0.579101 L 15.93457,17.293945 a 8,8 0 0 0 1.353516,-1.362305 l 1.459961,0.696289 c 0.227758,0.131475 0.487035,0.108631 0.579101,-0.05078 l 0.666016,-1.154297 c 0.09202,-0.159437 -0.01738,-0.395836 -0.245117,-0.527343 L 18.416992,13.98047 a 8,8 0 0 0 0.493164,-1.853516 L 20.523437,12 C 20.78642,11.999982 20.999974,11.851079 21,11.666992 V 10.333008 C 20.999974,10.148921 20.786419,10.000018 20.523437,10 L 18.912109,9.873047 A 8,8 0 0 0 18.418945,8.017578 l 1.329102,-0.913086 c 0.22774,-0.131507 0.337138,-0.3679065 0.245117,-0.5273435 l -0.666016,-1.154297 c -0.09207,-0.159411 -0.351343,-0.182256 -0.579101,-0.050781 l -1.454102,0.693359 A 8,8 0 0 0 15.93164,4.711914 L 16.627929,3.2519531 C 16.759405,3.0241948 16.73656,2.7649176 16.577148,2.6728515 L 15.422851,2.006836 C 15.263414,1.914815 15.027015,2.0242134 14.895508,2.2519531 L 13.980469,3.5830078 A 8,8 0 0 0 12.126953,3.0898437 L 12,1.4765625 C 11.999982,1.2135808 11.851079,1.0000262 11.666992,1 Z"/>
 <circle style="opacity:0.2" cx="11" cy="11.5" r="6"/>
 <circle style="fill:#fdcfea" cx="11" cy="11" r="6"/>
 <path style="opacity:0.1" d="M 8.700811,8.5 C 7.2136145,8.5 6,9.616666 6,11 c 0,0.7198 0.3255405,1.376467 0.8482445,1.833334 L 10.932676,16.5 15.151398,12.833334 C 15.674274,12.376666 16,11.72 16,11 16,9.616667 14.786385,8.5 13.299189,8.5 12.319154,8.5 11.470553,8.980666 10.999821,9.708 10.528376,8.9806665 9.679775,8.5 8.699739,8.5 Z"/>
 <path style="fill:#03adee" d="M 8.700811,8 C 7.2136145,8 6,9.116666 6,10.5 c 0,0.7198 0.3255405,1.376467 0.8482445,1.833334 L 10.932676,16 15.151398,12.333334 C 15.674274,11.876666 16,11.22 16,10.5 16,9.116667 14.786385,8 13.299189,8 12.319154,8 11.470553,8.480666 10.999821,9.208 10.528376,8.4806665 9.679775,8 8.699739,8 Z"/>
 <path style="opacity:0.3;fill:none;stroke:#000000;stroke-width:0.24443789;stroke-dasharray:0.48887577, 0.24443788" d="m 8.762658,8.6215135 c -1.202845,4.87e-4 -2.140439,0.8936575 -2.140439,1.9653755 0,0.559194 0.2493605,1.06985 0.659327,1.431806 l 0.0019,0.0019 3.656701,3.315611 3.778306,-3.317531 c 0.410052,-0.361753 0.659328,-0.872459 0.659328,-1.431806 0,-1.072009 -0.938071,-1.9653755 -2.141388,-1.9653755 -0.794372,0 -1.461699,0.3910235 -1.827875,0.9625345 L 11,10.22126 10.591482,9.584048 C 10.2247,9.012458 9.557542,8.6218395 8.763607,8.6215135 Z"/>
 <path style="opacity:0.2;fill:#8b9cbe" d="M 10.333008,1 C 10.148921,1.0000262 10.000018,1.2135808 10,1.4765625 L 9.873047,3.0878906 A 8,8 0 0 0 8.017578,3.5810547 L 7.104492,2.2519531 C 6.972985,2.0242133 6.7365855,1.914815 6.5771485,2.006836 L 5.4228515,2.6728516 C 5.267719,2.7624467 5.2443605,3.0102459 5.364258,3.2333984 5.382383,3.2117249 5.398048,3.187177 5.4228515,3.1728515 L 6.5771485,2.5068359 C 6.7365855,2.414815 6.972985,2.5242134 7.104492,2.7519531 L 8.017578,4.0810545 A 8,8 0 0 1 9.873047,3.5878906 L 10,1.9765625 C 10.000018,1.7135808 10.148921,1.5000262 10.333008,1.5 h 1.333984 C 11.851079,1.5000262 11.999982,1.7135808 12,1.9765625 l 0.126953,1.6132812 A 8,8 0 0 1 13.980469,4.083008 L 14.895508,2.7519531 C 15.027015,2.5242134 15.263414,2.414815 15.422851,2.506836 l 1.154297,0.6660155 c 0.02481,0.014325 0.04047,0.038874 0.05859,0.060547 0.119897,-0.2231525 0.09654,-0.4709517 -0.05859,-0.5605468 L 15.422851,2.006836 C 15.263414,1.914815 15.027015,2.0242134 14.895508,2.2519531 L 13.980469,3.5830078 A 8,8 0 0 0 12.126953,3.0898437 L 12,1.4765625 C 11.999982,1.2135808 11.851079,1.0000262 11.666992,1 Z M 16.103515,4.8515625 15.93164,5.211914 a 8,8 0 0 1 1.362305,1.3535155 l 1.454102,-0.693359 c 0.227758,-0.131475 0.487035,-0.10863 0.579101,0.050781 l 0.59375,1.029297 c 0.09851,-0.122729 0.135092,-0.266146 0.07227,-0.375 l -0.666016,-1.154297 c -0.09207,-0.159411 -0.351343,-0.182256 -0.579101,-0.050781 l -1.454102,0.693359 a 8,8 0 0 0 -1.19043,-1.213867 z M 5.897461,4.8535125 A 8,8 0 0 0 4.711914,6.0683565 L 3.2519531,5.3720705 C 3.0241948,5.2405955 2.7649176,5.2634405 2.6728515,5.4228515 l -0.6660156,1.154297 c -0.062826,0.108854 -0.026246,0.252271 0.072266,0.375 l 0.59375,-1.029297 c 0.092066,-0.159411 0.3513433,-0.182256 0.5791016,-0.050781 l 1.4599609,0.696289 a 8,8 0 0 1 1.3535155,-1.362305 z m 12.665039,3.56543 -0.143555,0.098633 a 8,8 0 0 1 0.493164,1.8554685 L 20.523437,10.5 c 0.262982,1.8e-5 0.476537,0.148921 0.476563,0.333008 v -0.5 C 20.999974,10.148921 20.786419,10.000018 20.523437,10 L 18.912109,9.873047 A 8,8 0 0 0 18.5625,8.4189455 Z m -15.1181641,0.0049 A 8,8 0 0 0 3.0898437,9.873047 L 1.4765625,10 C 1.2135795,10.000018 1.000026,10.148921 1,10.333008 v 0.5 C 1.000026,10.648921 1.2135795,10.500018 1.4765625,10.5 L 3.0898437,10.373047 A 8,8 0 0 1 3.5830078,8.519531 Z M 18.555664,14.076172 a 8,8 0 0 1 -0.138672,0.404297 l 1.331055,0.915039 c 0.07225,0.04172 0.127075,0.09531 0.172851,0.152343 l 0.07227,-0.125 c 0.09202,-0.159437 -0.01738,-0.395836 -0.245117,-0.527343 z M 3.4375,14.081055 2.2519531,14.895508 C 2.0242122,15.027015 1.9148149,15.263414 2.006836,15.422851 l 0.072266,0.125 c 0.045777,-0.05703 0.1005988,-0.110622 0.1728515,-0.152343 L 3.5810547,14.482422 A 8,8 0 0 1 3.4375,14.081055 Z m 12.665039,3.565429 a 8,8 0 0 1 -0.167969,0.147461 l 0.693359,1.454102 c 0.0035,0.0061 0.0045,0.0124 0.0078,0.01855 0.09836,-0.117617 0.103204,-0.326236 -0.0078,-0.518555 z m -10.2060545,0.002 -0.524414,1.09961 c -0.1110175,0.192319 -0.10617,0.400938 -0.00782,0.518554 0.0033,-0.0062 0.0043,-0.01244 0.00782,-0.01855 l 0.696289,-1.459961 a 8,8 0 0 1 -0.171875,-0.139649 z"/>
 <path style="opacity:0.2;fill:#8b9cbe" d="M 11,5 A 6,6 0 0 0 5,11 6,6 0 0 0 5.00977,11.296875 6,6 0 0 1 11,5.5 6,6 0 0 1 16.990234,11.203125 6,6 0 0 0 17,11 6,6 0 0 0 11,5 Z"/>
</svg>
