<svg xmlns="http://www.w3.org/2000/svg" width="22" height="22" version="1">
 <rect style="fill:#713a9d" width="20" height="20" x="1" y="1" rx="1" ry="1"/>
 <path style="opacity:0.1;fill:#8b9cbe" d="M 2,1 C 1.446,1 1,1.446 1,2 v 0.5 c 0,-0.554 0.446,-1 1,-1 h 18 c 0.554,0 1,0.446 1,1 V 2 C 21,1.446 20.554,1 20,1 Z"/>
 <path style="opacity:0.2" d="m 2,21.5 c -0.554,0 -1,-0.446 -1,-1 V 20 c 0,0.554 0.446,1 1,1 h 18 c 0.554,0 1,-0.446 1,-1 v 0.5 c 0,0.554 -0.446,1 -1,1 z"/>
 <path style="opacity:0.5;fill:#8b9cbe" d="m 10,10 v 2 h 6 c 0.554,0 1,-0.446 1,-1 0,-0.554 -0.446,-1 -1,-1 z m 2,5 v 2 h 4 c 0.554,0 1,-0.446 1,-1 0,-0.554 -0.446,-1 -1,-1 z"/>
 <path style="fill:#f44336" d="M 15,5 H 6 C 5.446,5 5,5.446 5,6 5,6.554 5.446,7 6,7 h 9 z"/>
 <path style="fill:#03a9f4" d="M 12,15 H 6 c -0.554,0 -1,0.446 -1,1 0,0.554 0.446,1 1,1 h 6 z"/>
 <path style="fill:#4caf50" d="M 10,10 H 6 c -0.554,0 -1,0.446 -1,1 0,0.554 0.446,1 1,1 h 4 z"/>
 <path style="opacity:0.2" d="m 17,6.5 c 0,-1.1046 -0.895,-2 -2,-2 -1.105,0 -2,0.8954 -2,2 0,1.1046 0.895,2 2,2 1.105,0 2,-0.8954 2,-2 z"/>
 <path style="opacity:0.2" d="m 14,16.5 c 0,-1.105 -0.895,-2 -2,-2 -1.105,0 -2,0.895 -2,2 0,1.105 0.895,2 2,2 1.105,0 2,-0.895 2,-2 z"/>
 <path style="opacity:0.2" d="m 12,11.5 c 0,-1.105 -0.895,-2 -2,-2 -1.1046,0 -2,0.895 -2,2 0,1.105 0.8954,2 2,2 1.105,0 2,-0.895 2,-2 z"/>
 <path style="fill:#8b9cbe" d="m 17,6 c 0,-1.1046 -0.895,-2 -2,-2 -1.105,0 -2,0.8954 -2,2 0,1.1046 0.895,2 2,2 1.105,0 2,-0.8954 2,-2 z"/>
 <path style="fill:#8b9cbe" d="m 14,16 c 0,-1.105 -0.895,-2 -2,-2 -1.105,0 -2,0.895 -2,2 0,1.105 0.895,2 2,2 1.105,0 2,-0.895 2,-2 z"/>
 <path style="fill:#8b9cbe" d="M 12,11 C 12,9.895 11.105,9 10,9 8.8954,9 8,9.895 8,11 c 0,1.105 0.8954,2 2,2 1.105,0 2,-0.895 2,-2 z"/>
</svg>
