<svg xmlns="http://www.w3.org/2000/svg" width="22" height="22" version="1.1">
 <path style="opacity:0.2" d="m 3.5051853,1.5008091 c -0.2382493,0 -0.425764,0.252687 -0.425764,0.5751721 0,0.4021765 0.5559761,1.9561716 1.3143998,3.6756326 C 5.0682938,7.280745 5.2287794,7.7194617 5.1437908,7.8013354 5.0549969,7.8868765 4.8683694,7.589552 4.2541782,6.3853772 3.6634153,5.227129 3.5071952,5.0393581 3.2620311,5.1930429 3.0387261,5.3330252 3.053364,5.5333816 3.3596831,6.5103721 c 0.2855978,0.9109027 0.3575953,1.386663 0.208976,1.386663 -0.1510754,0 -0.6204562,-0.4787722 -1.5419299,-1.573179 C 1.0624636,5.1786264 0.80395903,4.9876502 0.59807633,5.2692113 0.43501083,5.4922168 0.46061773,5.6324081 0.78654523,6.2867486 1.016219,6.7478465 1.2620548,7.0606769 1.859744,7.6538809 c 0.8402908,0.8339843 1.4494675,1.2353795 2.4745095,1.6278638 0.3562501,0.136406 0.7021266,0.30089 0.7685234,0.36522 0.072556,0.07031 1.7170656,0.7537743 2.3075238,1.3534603 h 0.8564109 c -5.5e-4,-0.01499 0.013314,-0.01303 0.037109,0 h 0.19628 V 10.123508 L 6.622247,7.0992158 C 6.5501899,7.0271582 6.6322016,6.4989686 6.9200865,5.1852307 7.2400171,3.7252659 6.8919576,2.4796332 6.3107361,3.0056311 6.0090448,3.278658 5.8900256,3.9470445 5.881066,5.4274084 5.8759962,6.2646905 5.8414576,6.8155573 5.7922021,6.8326246 5.6691556,6.8752729 5.3896913,6.1054965 5.026608,4.7272412 4.8464793,4.0434788 4.5850174,3.1844789 4.445577,2.8181387 4.184857,2.1331746 3.7332439,1.5008091 3.5051853,1.5008091 Z"/>
 <path style="opacity:0.2" d="m 18.494814,1.5008091 c -0.228059,0 -0.679672,0.6323655 -0.940392,1.3173296 -0.13944,0.3663402 -0.400902,1.2253401 -0.581031,1.9091025 -0.363083,1.3782553 -0.642547,2.1480322 -0.765594,2.1053834 -0.04925,-0.017069 -0.08379,-0.5679341 -0.08886,-1.4052162 -0.009,-1.4803639 -0.127979,-2.1487504 -0.42967,-2.4217773 -0.581221,-0.5259979 -0.929281,0.7196348 -0.60935,2.1795996 0.287885,1.3137379 0.369896,1.8419275 0.297839,1.9139851 l -1.877853,3.0242922 v 0.876917 h 0.196281 c 0.02379,-0.01303 0.03766,-0.01499 0.03711,0 h 0.856411 c 0.590458,-0.599686 2.234968,-1.2831543 2.307524,-1.3534603 0.0664,-0.06433 0.412273,-0.228814 0.768523,-0.36522 1.025042,-0.3924843 1.634219,-0.7938795 2.47451,-1.6278638 0.597689,-0.593204 0.843525,-0.9060344 1.073198,-1.3671323 0.325928,-0.6543405 0.351535,-0.7945318 0.18847,-1.0175373 -0.205883,-0.2815611 -0.464388,-0.090585 -1.428654,1.0546448 -0.921473,1.0944068 -1.390854,1.573179 -1.54193,1.573179 -0.148619,0 -0.07662,-0.4757603 0.208976,-1.386663 0.306319,-0.9769905 0.320957,-1.1773469 0.09765,-1.3173292 -0.245164,-0.1536848 -0.401384,0.034084 -0.992147,1.1923343 -0.614191,1.2041748 -0.800818,1.5014993 -0.889612,1.4159582 -0.08499,-0.081874 0.0755,-0.5205904 0.74997,-2.0497216 0.758423,-1.719461 1.314399,-3.2734561 1.314399,-3.6756326 0,-0.3224851 -0.187515,-0.5751721 -0.425764,-0.5751721 z"/>
 <circle style="opacity:0.2" cx="11" cy="19.5" r="2"/>
 <path style="fill:#f5a34d" d="m 18.494814,1.0008293 c 0.23825,0 0.425765,0.252687 0.425765,0.5751721 0,0.4021766 -0.555977,1.9561713 -1.3144,3.6756326 -0.674473,1.5291312 -0.834959,1.9678479 -0.74997,2.0497216 0.08879,0.085541 0.275421,-0.2117834 0.889612,-1.4159582 0.590764,-1.1582482 0.746983,-1.3460191 0.992147,-1.1923343 0.223305,0.1399823 0.208667,0.3403387 -0.09765,1.3173292 -0.285598,0.9109027 -0.357595,1.386663 -0.208976,1.386663 0.151076,0 0.620457,-0.4787722 1.54193,-1.5731789 0.964266,-1.1452298 1.222771,-1.336206 1.428653,-1.0546449 0.163066,0.2230055 0.137459,0.3631968 -0.188469,1.0175374 -0.229673,0.4610978 -0.475509,0.7739282 -1.073198,1.3671322 -0.840291,0.8339843 -1.449468,1.2353796 -2.47451,1.6278637 -0.35625,0.1364065 -0.702126,0.3008899 -0.768523,0.3652199 -0.07256,0.07031 -1.717066,0.753774 -2.307524,1.3534613 H 13.73329 c 5.5e-4,-0.01499 -0.01331,-0.01303 -0.03711,0 H 13.499899 V 9.6235277 L 15.377752,6.599236 c 0.07206,-0.072058 -0.01,-0.6002472 -0.297839,-1.9139851 -0.319931,-1.4599646 0.02813,-2.7055975 0.60935,-2.1795996 0.301691,0.2730269 0.420711,0.9414136 0.42967,2.4217773 0.0051,0.8372821 0.03961,1.3881484 0.08886,1.4052162 0.123047,0.042648 0.402511,-0.7271281 0.765594,-2.1053834 0.180129,-0.6837626 0.441591,-1.5427622 0.581032,-1.9091025 0.26072,-0.6849641 0.712333,-1.3173296 0.940391,-1.3173296 z"/>
 <circle style="fill:#af5d2d" cx="11" cy="19" r="2"/>
 <path style="fill:#f5a34d" d="m 3.5051853,1.0008293 c -0.2382493,0 -0.425764,0.252687 -0.425764,0.5751721 0,0.4021766 0.5559759,1.9561713 1.3143998,3.6756326 C 5.0682938,6.7807652 5.2287794,7.2194819 5.1437908,7.3013556 5.0549969,7.3868967 4.8683694,7.0895722 4.2541782,5.8853974 3.6634151,4.7271492 3.5071952,4.5393783 3.2620311,4.6930631 3.0387261,4.8330454 3.053364,5.0334018 3.3596831,6.0103923 c 0.2855978,0.9109027 0.3575954,1.386663 0.208976,1.386663 -0.1510753,0 -0.6204562,-0.4787722 -1.5419299,-1.5731789 C 1.0624636,4.6786466 0.80395903,4.4876704 0.59807633,4.7692315 0.43501083,4.992237 0.46061773,5.1324283 0.78654523,5.7867689 1.016219,6.2478667 1.2620548,6.5606971 1.859744,7.1539011 c 0.8402908,0.8339843 1.4494676,1.2353796 2.4745095,1.6278637 0.3562501,0.1364065 0.7021266,0.3008899 0.7685234,0.3652199 0.072556,0.07031 1.7170656,0.753774 2.3075238,1.3534613 h 0.8564109 c -5.5e-4,-0.01499 0.013314,-0.01303 0.037109,0 h 0.19628 V 9.6235277 L 6.622247,6.599236 C 6.5501899,6.5271784 6.6322016,5.9989888 6.9200865,4.6852509 7.2400171,3.2252863 6.8919576,1.9796534 6.3107361,2.5056513 6.0090448,2.7786782 5.8900256,3.4470649 5.881066,4.9274286 5.8759962,5.7647107 5.8414576,6.315577 5.7922021,6.3326448 5.6691556,6.3752931 5.3896913,5.6055167 5.026608,4.2272614 4.8464793,3.5434988 4.5850174,2.6844992 4.445577,2.3181589 4.184857,1.6331948 3.7332439,1.0008293 3.5051853,1.0008293 Z"/>
 <path style="opacity:0.2;fill:#8b9cbe" d="m 3.5051853,1.0008293 c -0.2382493,0 -0.425764,0.252687 -0.425764,0.5751721 0,0.060141 0.016355,0.1533531 0.040037,0.2617081 0.066337,-0.1992077 0.2112482,-0.3369004 0.3857266,-0.3369004 0.2280586,0 0.6796717,0.6323655 0.9403917,1.3173296 0.1394404,0.3663402 0.4009023,1.2253401 0.581031,1.9091025 0.3630833,1.3782553 0.6425476,2.1480322 0.7655941,2.1053834 0.049258,-0.017064 0.083794,-0.5679341 0.088864,-1.4052162 0.00896,-1.4803641 0.1279788,-2.1487504 0.4296701,-2.4217773 0.3884473,-0.35154 0.6664151,0.096044 0.716768,0.8622698 C 7.0872712,2.8105013 6.7778322,2.0829353 6.3107361,2.5056513 6.0090448,2.7786782 5.8900256,3.4470645 5.881066,4.9274286 5.8759962,5.7647107 5.8414576,6.315578 5.7922021,6.3326448 5.6691556,6.3752931 5.3896913,5.6055167 5.026608,4.2272614 4.8464793,3.5434988 4.5850174,2.6844992 4.445577,2.3181589 4.184857,1.6331948 3.7332439,1.0008293 3.5051853,1.0008293 Z m 14.9896287,0 c -0.228059,0 -0.679672,0.6323655 -0.940392,1.3173296 -0.13944,0.3663403 -0.400902,1.2253399 -0.581031,1.9091025 -0.363083,1.3782553 -0.642547,2.1480327 -0.765594,2.1053834 -0.04925,-0.017069 -0.08379,-0.5679341 -0.08886,-1.4052162 -0.009,-1.4803641 -0.127979,-2.1487504 -0.42967,-2.4217773 -0.467096,-0.422716 -0.776535,0.30485 -0.716768,1.3622496 0.05035,-0.7662258 0.328321,-1.2138098 0.716768,-0.8622698 0.301691,0.2730269 0.420711,0.9414132 0.42967,2.4217773 0.0051,0.8372821 0.03961,1.3881469 0.08886,1.4052162 0.123047,0.042648 0.402511,-0.7271281 0.765594,-2.1053834 0.180129,-0.6837624 0.441591,-1.5427623 0.581031,-1.9091025 0.26072,-0.6849641 0.712333,-1.3173296 0.940392,-1.3173296 0.174478,0 0.31939,0.1376927 0.385727,0.3369004 0.02368,-0.108355 0.04004,-0.2015676 0.04004,-0.2617081 -10e-7,-0.3224851 -0.187516,-0.5751721 -0.425765,-0.5751721 z M 3.4378052,4.6520487 C 3.3794528,4.6379593 3.3233221,4.6546486 3.2620311,4.6930621 3.1126364,4.7867123 3.0807777,4.928522 3.1604727,5.2906939 3.1855972,5.2528354 3.2179403,5.2206807 3.2620311,5.1930419 3.5071952,5.0393571 3.6634156,5.2271255 4.2541782,6.3853762 4.8683694,7.589551 5.0549969,7.8868755 5.1437908,7.8013344 5.188319,7.7584362 5.1515655,7.588061 5.0227022,7.24374 4.8986907,7.1098474 4.6841594,6.7284108 4.2541782,5.8853964 3.8111063,5.0167115 3.6128628,4.6943165 3.4378052,4.6520487 Z m 15.1243888,0 c -0.175057,0.042268 -0.373301,0.3646628 -0.816373,1.2333487 -0.429981,0.8430144 -0.644512,1.224451 -0.768524,1.3583436 -0.128862,0.344321 -0.165618,0.5146977 -0.121089,0.5575944 0.08879,0.085542 0.275422,-0.2117834 0.889613,-1.4159582 0.590763,-1.1582507 0.746983,-1.3460191 0.992147,-1.1923343 0.04409,0.027639 0.07643,0.059793 0.101559,0.097652 0.0797,-0.3621719 0.04784,-0.5039816 -0.101559,-0.5976318 -0.06129,-0.038421 -0.117421,-0.055103 -0.175774,-0.041014 z m -17.78932007,0.00195 c -0.068254,0.0038 -0.1233269,0.044838 -0.1747976,0.1152294 -0.1117498,0.1528273 -0.1248386,0.2777268 -0.023437,0.5449 0.00948,-0.014909 0.012098,-0.029414 0.023437,-0.044918 0.2058827,-0.2815611 0.46438727,-0.090585 1.42865317,1.0546448 0.9214737,1.0944068 1.3908545,1.573179 1.5419299,1.573179 0.087996,0 0.089644,-0.186553 0.024413,-0.5116984 -0.00801,0.0043 -0.014397,0.01172 -0.024413,0.01172 -0.1510754,0 -0.6204562,-0.4787722 -1.5419299,-1.5731789 C 1.3035301,4.9649541 0.97763503,4.6426131 0.77287393,4.6540021 Z m 20.45425107,0 c -0.204761,-0.011389 -0.530656,0.310952 -1.253855,1.1698743 -0.921474,1.0944067 -1.390855,1.5731789 -1.54193,1.5731789 -0.01001,0 -0.0164,-0.00741 -0.02441,-0.01172 -0.06523,0.3251454 -0.06358,0.5116984 0.02441,0.5116984 0.151075,0 0.620456,-0.4787722 1.54193,-1.573179 0.964265,-1.1452297 1.22277,-1.3362059 1.428653,-1.0546448 0.01134,0.015509 0.01396,0.030014 0.02343,0.044918 0.101403,-0.2671732 0.08831,-0.3920727 -0.02343,-0.5449 -0.05147,-0.07039 -0.106544,-0.111433 -0.174798,-0.1152294 z M 6.6349415,6.6197392 C 6.5897483,6.9147348 6.5868235,7.0637907 6.622247,7.0992123 L 8.5001006,10.123508 V 9.6235277 Z m 8.7301165,0 -1.865159,3.0037885 v 0.4999803 l 1.877853,-3.0242922 c 0.03542,-0.035424 0.0325,-0.1844775 -0.01269,-0.4794731 z"/>
 <path style="fill:#af5d2d" d="m 14.999838,11.000425 c 0,2.20905 -3.999838,7.199709 -3.999838,7.199709 0,0 -3.9998388,-4.990659 -3.9998388,-7.199709 0,-2.2090496 1.7907887,-3.9998382 3.9998388,-3.9998382 2.209049,0 3.999838,1.7907886 3.999838,3.9998382 z"/>
 <path style="opacity:0.1;fill:#8b9cbe" d="m 11,7.0005868 c -2.2090501,0 -3.9998388,1.7907886 -3.9998388,3.9998382 0,0.05147 0.01236,0.11162 0.016599,0.166009 C 7.1867602,9.1139617 8.9036408,7.5005666 11,7.5005666 c 2.096358,0 3.813239,1.6133951 3.983237,3.6658674 0.0042,-0.05439 0.0166,-0.114541 0.0166,-0.166009 0,-2.2090496 -1.790789,-3.9998382 -3.999838,-3.9998382 z"/>
 <g transform="matrix(-0.49997979,0,0,0.49997979,22.976033,-0.49896518)">
  <ellipse id="ellipse911" style="fill:#8b9cbe" cx="5.86" cy="31.772" rx="1.947" ry="2.791" transform="matrix(0.80749798,-0.58987034,0.51619146,0.85647322,0,0)"/>
  <ellipse id="ellipse913" style="fill:#17191e" cx="5.586" cy="32.6" rx="1.222" ry="1.752" transform="matrix(0.80749798,-0.58987034,0.51619146,0.85647322,0,0)"/>
 </g>
 <ellipse style="fill:#8b9cbe" cx="2.329" cy="14.889" rx=".973" ry="1.396" transform="matrix(0.80749798,-0.58987034,0.51619146,0.85647322,0,0)"/>
 <ellipse id="ellipse909" style="fill:#17191e" cx="2.192" cy="15.303" rx=".611" ry=".876" transform="matrix(0.80749798,-0.58987034,0.51619146,0.85647322,0,0)"/>
 <path style="opacity:0.2" d="m 11,12.476796 c -0.498695,-0.03284 -0.87792,0.109531 -1.3700621,0.542332 -1.1580091,1.235518 -2.6297767,4.182043 -2.6297767,5.184079 0.049943,1.438987 0.5140598,2.36674 1.4921272,2.292708 C 9.5000599,20.533663 10.216827,19.812589 11,19.796346 c 0.783173,0.01625 1.499939,0.737317 2.507711,0.699569 0.978067,0.07403 1.442184,-0.853721 1.492127,-2.292708 0,-1.002036 -1.471768,-3.948561 -2.629777,-5.184079 C 11.877919,12.586327 11.498695,12.443932 11,12.476796 Z"/>
 <path style="fill:#cf7642" d="m 11,12.004574 c -0.498695,-0.03284 -0.87792,0.109531 -1.3700621,0.542331 -1.1580091,1.235519 -2.6297767,4.182046 -2.6297767,5.184078 0.049943,1.43899 0.5140598,2.366739 1.4921272,2.292708 1.0077715,0.03775 1.7245386,-0.683326 2.5077116,-0.69957 0.783173,0.01625 1.499939,0.737321 2.507711,0.69957 0.978067,0.07403 1.442184,-0.853718 1.492127,-2.292708 0,-1.002032 -1.471768,-3.948559 -2.629777,-5.184078 C 11.877919,12.114105 11.498695,11.97171 11,12.004574 Z"/>
 <path style="opacity:0.5" d="M 8.6375866,18.864746 C 8.1917531,18.638505 7.9740099,18.13465 8.0026157,17.395438 c 0.012825,-0.331344 0.060246,-0.614644 0.1053858,-0.629553 0.045138,-0.01491 0.1470955,0.155969 0.2265678,0.379729 0.1800877,0.507048 0.5173076,0.898308 0.9375756,1.087823 0.475084,0.214232 0.525741,0.497209 0.121943,0.681192 -0.276124,0.125811 -0.4303135,0.115643 -0.7565013,-0.04988 z"/>
 <path style="opacity:0.5" d="m 13.349731,18.864746 c 0.445833,-0.226241 0.663576,-0.730096 0.634971,-1.469308 -0.01283,-0.331344 -0.06025,-0.614644 -0.105386,-0.629553 -0.04514,-0.01491 -0.147096,0.155969 -0.226568,0.379729 -0.180088,0.507048 -0.517308,0.898308 -0.937575,1.087823 -0.475084,0.214232 -0.525741,0.497209 -0.121943,0.681192 0.276124,0.125811 0.430313,0.115643 0.756501,-0.04988 z"/>
 <path style="opacity:0.1" d="m 11,6.0000007 c -2.1666533,0 -3.4853074,1.1347392 -4.1738282,2.2363281 C 6.1376509,9.3379177 6.0039062,10.437501 6.0039061,10.437501 a 0.50002979,0.50002979 0 0 0 0.037109,0.261719 c -0.014122,0.100398 -0.041015,0.194079 -0.041015,0.300781 0,0.828393 0.4477378,1.5 1,1.5 h 0.3339844 0.3320312 c 0.1846595,0 0.3339844,-0.223011 0.3339844,-0.5 v -1 -1 c 0,-0.2769893 -0.1493249,-0.5000003 -0.3339844,-0.5000003 H 7.3339843 7.3046874 C 7.3996441,9.2665237 7.5152696,9.0193087 7.673828,8.7656257 8.2353072,7.8672954 9.1666529,7.0000007 11,7.0000007 c 1.833347,0 2.764693,0.8672947 3.326172,1.765625 0.158558,0.253683 0.274184,0.500898 0.36914,0.734375 h -0.0293 -0.332032 C 14.149325,9.5000007 14,9.7230117 14,10.000001 v 1 1 c 0,0.276989 0.149325,0.5 0.333984,0.5 H 14.666016 15 c 0.552262,0 1,-0.671607 1,-1.5 0,-0.105931 -0.02514,-0.199103 -0.03906,-0.298828 a 0.50002979,0.50002979 0 0 0 0.03516,-0.263672 c 0,0 -0.133745,-1.0995833 -0.822266,-2.2011722 C 14.485307,7.1347399 13.166653,6.0000007 11,6.0000007 Z"/>
 <path style="fill:none;stroke:#5b5b5b;stroke-width:0.99995959;stroke-linecap:round;stroke-linejoin:round" d="m 6.4999999,10.000466 c 0,0 0.5,-4.4994653 4.5000001,-4.4994653 4,0 4.5,4.4994653 4.5,4.4994653"/>
 <path style="fill:#4b4b4b" d="m 6.9999595,9.0005057 c -0.5522622,0 -0.9999596,0.671546 -0.9999596,1.4999403 0,0.828393 0.4476974,1.499939 0.9999596,1.499939 h 0.33332 0.3333195 c 0.1846595,0 0.33332,-0.222991 0.33332,-0.49998 V 10.500446 9.5004857 c 0,-0.276989 -0.1486605,-0.49998 -0.33332,-0.49998 H 7.3332795 Z"/>
 <path style="fill:#4b4b4b" d="m 14.99996,9.0005057 c 0.552262,0 0.999959,0.671546 0.999959,1.4999403 0,0.828393 -0.447697,1.499939 -0.999959,1.499939 H 14.66664 14.33332 C 14.148661,12.000385 14,11.777394 14,11.500405 V 10.500446 9.5004857 c 0,-0.276989 0.148661,-0.49998 0.33332,-0.49998 h 0.33332 z"/>
 <path style="opacity:0.1;fill:#8b9cbe" d="m 11,12.003907 c -0.498695,-0.03284 -0.876999,0.110169 -1.3691411,0.542969 -1.1580087,1.235519 -2.630859,4.181562 -2.630859,5.183594 0.0035,0.100746 0.025612,0.177871 0.033203,0.273437 0.1640765,-1.152332 1.5111177,-3.797766 2.597656,-4.957031 C 10.123001,12.614076 10.501305,12.471067 11,12.503907 c 0.498695,-0.03286 0.876999,0.110169 1.369141,0.542969 1.086538,1.159265 2.433579,3.804699 2.597656,4.957031 0.0076,-0.09557 0.02971,-0.172691 0.0332,-0.273437 0,-1.002032 -1.47285,-3.948075 -2.630859,-5.183594 C 11.876999,12.114076 11.498695,11.971043 11,12.003907 Z"/>
</svg>
