<svg xmlns="http://www.w3.org/2000/svg" width="22" height="22" version="1">
 <circle style="opacity:0.2" cx="11" cy="11.5" r="10"/>
 <circle style="fill:#1da1f2" cx="11" cy="11" r="10"/>
 <path style="opacity:0.2;fill:#8b9cbe" d="M 11,1 A 10,10 0 0 0 1,11 10,10 0 0 0 1.01075,11.291 10,10 0 0 1 11,1.5 10,10 0 0 1 20.9895,11.209 10,10 0 0 0 21,11 10,10 0 0 0 11,1 Z"/>
 <g style="opacity:0.2" transform="matrix(0.09486607,0,0,0.09486607,48.190433,272.24559)">
  <path d="m -339.32503,-2801.2712 c -55.10161,0 -105.41176,50.3102 -105.41176,105.4118 0,0 7.18716,-19.166 23.95721,-31.1444 16.77003,-11.9786 50.78911,0 60.3722,-21.5629 -16.77027,0 -26.83207,-3.8767 -26.83207,-3.8767 19.16575,0 47.91442,-20.8777 47.91442,-48.8278 z"/>
 </g>
 <g transform="matrix(0.09486607,0,0,0.09486607,48.190433,271.7456)">
  <path style="fill:#8b9cbe" d="m -339.32503,-2801.2712 c -55.10161,0 -105.41176,50.3102 -105.41176,105.4118 0,0 7.18716,-19.166 23.95721,-31.1444 16.77003,-11.9786 50.78911,0 60.3722,-21.5629 -16.77027,0 -26.83207,-3.8767 -26.83207,-3.8767 19.16575,0 47.91442,-20.8777 47.91442,-48.8278 z"/>
 </g>
</svg>
