<svg xmlns="http://www.w3.org/2000/svg" width="22" height="22" version="1.1">
 <circle style="opacity:0.2" cx="11.5" cy="11" r="10.5"/>
 <circle style="fill:#44c7aa" cx="11.5" cy="10.5" r="10.5"/>
 <path style="opacity:0.1" d="M 7.5839844,7.4998791 C 7.3462027,7.4993458 7.2033961,7.5146481 6.9941406,7.5467541 6.0894474,7.6855703 5.546446,7.9518559 5.0488281,8.497926 4.5367281,9.059889 4.241133,9.603862 4.078125,10.285035 3.998105,10.619423 3.9888,10.74932 4.009766,11.322145 c 0.029506,0.806083 0.1220522,1.210985 0.4140625,1.824218 0.4556102,0.956797 1.0505168,1.509449 1.9628907,1.824219 0.6155237,0.212357 1.8917927,0.432583 2.8925778,0.498047 1.00645,0.06584 4.500278,0.02054 5.166015,-0.06641 1.240083,-0.16194 2.241932,-0.431336 2.835938,-0.761719 0.52391,-0.291395 1.151961,-1.068045 1.414062,-1.75 0.165837,-0.431486 0.268155,-0.969653 0.296876,-1.546875 0.03434,-0.69017 -0.04489,-1.145838 -0.300782,-1.714844 C 18.222775,8.5867418 17.383973,7.8225187 16.460938,7.5936291 16.008519,7.4814838 14.453723,7.4818656 12.824219,7.5955822 11.502503,7.6877983 11.028163,7.6827084 8.7421875,7.5506603 8.1542403,7.5166762 7.8217663,7.5004306 7.5839844,7.4998791 Z M 8.5,9.499879 c 0.82843,1.3e-5 1.5,0.895439 1.5,2 0,1.10456 -0.67157,1.999987 -1.5,2 -0.8284297,-1.3e-5 -1.4999996,-0.89544 -1.5,-2 4e-7,-1.104561 0.6715703,-1.999987 1.5,-2 z m 6,0 c 0.82843,1.3e-5 1.5,0.895439 1.5,2 0,1.10456 -0.67157,1.999987 -1.5,2 -0.82843,-1.3e-5 -1.5,-0.89544 -1.5,-2 0,-1.104561 0.67157,-1.999987 1.5,-2 z"/>
 <path style="fill:#2c3638" d="M 7.5839844,6.9998806 C 7.3462027,6.9993473 7.2033961,7.0146496 6.9941406,7.0467556 6.0894474,7.1855718 5.546446,7.4518574 5.0488281,7.9979275 4.5367281,8.5598903 4.241133,9.103864 4.078125,9.785037 c -0.08002,0.334388 -0.089325,0.464285 -0.068359,1.03711 0.029506,0.806083 0.1220522,1.210985 0.4140625,1.824218 0.4556102,0.956797 1.0505168,1.509449 1.9628907,1.824219 0.6155237,0.212357 1.8917927,0.432583 2.8925778,0.498047 1.00645,0.06584 4.500278,0.02054 5.166015,-0.06641 1.240083,-0.16194 2.241932,-0.431336 2.835938,-0.761719 0.52391,-0.291395 1.151961,-1.068045 1.414062,-1.75 0.165837,-0.431486 0.268155,-0.969653 0.296876,-1.546875 0.03434,-0.69017 -0.04489,-1.145838 -0.300782,-1.714844 C 18.222775,8.0867433 17.383973,7.3225202 16.460938,7.0936306 16.008519,6.9814853 14.453723,6.9818671 12.824219,7.0955837 11.502503,7.1877998 11.028163,7.1827099 8.7421875,7.0506618 8.1542403,7.0166777 7.8217663,7.0004321 7.5839844,6.9998806 Z m 0.9160156,2 c 0.82843,1.3e-5 1.5,0.8954394 1.5,2.0000004 0,1.10456 -0.67157,1.999987 -1.5,2 -0.8284297,-1.3e-5 -1.4999996,-0.89544 -1.5,-2 4e-7,-1.104561 0.6715703,-1.9999874 1.5,-2.0000004 z m 6,0 c 0.82843,1.3e-5 1.5,0.8954394 1.5,2.0000004 0,1.10456 -0.67157,1.999987 -1.5,2 -0.82843,-1.3e-5 -1.5,-0.89544 -1.5,-2 0,-1.104561 0.67157,-1.9999874 1.5,-2.0000004 z"/>
 <path style="opacity:0.2;fill:#8b9cbe" d="M 11.5,0 A 10.5,10.5 0 0 0 1,10.5 10.5,10.5 0 0 0 1.0097656,10.796875 10.5,10.5 0 0 1 11.5,0.5 10.5,10.5 0 0 1 21.990234,10.703125 10.5,10.5 0 0 0 22,10.5 10.5,10.5 0 0 0 11.5,0 Z"/>
</svg>
