<svg xmlns="http://www.w3.org/2000/svg" width="22" height="22" version="1.1">
 <path style="opacity:0.2" d="m 11,1.5 a 10,10 0 0 0 -10,10 10,10 0 0 0 10,10 10,10 0 0 0 10,-10 10,10 0 0 0 -10,-10 z"/>
 <path style="fill:#17191e" d="M 11,1 A 10,10 0 0 0 1,11 10,10 0 0 0 11,21 10,10 0 0 0 21,11 10,10 0 0 0 11,1 Z"/>
 <path style="opacity:0.1;fill:#8b9cbe" d="M 11,1 A 10,10 0 0 0 1.0705,9.926 10,9.5 0 0 1 11,1.5 10,9.5 0 0 1 20.961,10.2235 10,10 0 0 0 11,1 Z m 9.961,9.2235 A 10,10 0 0 1 21,11 10,9.5 0 0 0 20.961,10.2235 Z M 1.0705,9.926 A 10,9.5 0 0 0 1.0461,10.122 10,10 0 0 1 1.0705,9.926 Z M 1.0461,10.122 A 10,10 0 0 0 1.0002,11 10,9.5 0 0 1 1.0461,10.122 Z"/>
 <path style="opacity:0.2;fill:none;stroke:#000000;stroke-width:1.5" d="m 13.25,12.5 10e-7,0.75 -1,1 h -2.5 l -1,-1 v -4 l 1,-1 h 2.5 l 1,1 0.02167,2 H 9.178308"/>
 <path style="fill:none;stroke:#eaeaeb;stroke-width:1.5" d="m 13.25,12 10e-7,0.75 -1,1 h -2.5 l -1,-1 v -4 l 1,-1 h 2.5 l 1,1 0.02167,2 H 9.178308"/>
 <path style="opacity:0.2;fill:none;stroke:#000000" d="m 5.5,6 v 11 h 11 V 6 Z"/>
 <path style="fill:none;stroke:#eaeaeb" d="m 5.5,5.5 v 11 h 11 v -11 z"/>
</svg>
