<svg xmlns="http://www.w3.org/2000/svg" width="22" height="22" version="1.1">
 <circle style="opacity:0.2" cx="11" cy="11.5" r="10"/>
 <path style="fill:#42a5f5" d="m 21,11 c 0,3.261059 -1.560964,6.157534 -3.976469,7.983003 -1.675334,1.2661 -3.266315,-1.222333 -5.528104,-1.222333 -5.195173,0 -9.9473166,-0.884674 -10.4477036,-5.803708 C 1.0161627,11.646705 1,11.327675 1,11 1,5.4771525 5.4771525,1 11,1 16.522847,1 21,5.4771525 21,11 Z"/>
 <path style="opacity:0.2;fill:#8b9cbe" d="M 11,1 A 10,10 0 0 0 1,11 10,10 0 0 0 1.01075,11.291 10,10 0 0 1 11,1.5 10,10 0 0 1 20.9895,11.209 10,10 0 0 0 21,11 10,10 0 0 0 11,1 Z"/>
 <path style="opacity:0.1;fill-rule:evenodd" d="m 10.474802,4.5108435 c -0.322851,0.00355 -0.659948,0.02797 -1.014435,0.079982 C 6.8970595,4.966915 5.254829,6.2294655 3.1507824,8.7687545 2.295915,9.800459 1.5404141,11.043966 1.0000001,11.998531 c 0.018768,0.352438 0.055891,0.703627 0.1112169,1.052101 1.4765417,-2.043334 5.587308,-5.014298 6.512798,-3.682371 1.0596225,1.524966 -1.99282,3.344381 -1.5830735,3.920501 0.4390475,0.617317 2.361968,-0.112446 4.1465585,-0.24061 1.99235,-0.143083 3.050853,0.473399 4.3817,1.496348 C 14.234031,13.912065 14.014215,13.450132 13.886711,12.996613 13.62168,12.053912 14.32906,10.977375 14.593612,10.461466 15.013934,9.641801 15.367913,8.4998495 15.992773,7.88341 17.086402,6.804516 18.995652,6.2461265 20.682551,5.686359 21.210473,5.5111775 21.678436,5.548277 22.22904,5.4276545 21.718038,5.1424275 21.080214,5.036774 20.559241,5.029057 17.782058,4.987922 16.089576,5.408757 14.968805,5.2866765 13.547315,5.13184 12.218203,4.491628 10.474802,4.5108435 Z"/>
 <path style="fill:#b2bfd9;fill-rule:evenodd" d="M 7.1796875,8.0253905 C 5.5421055,7.8864385 2.4888766,10.138265 1.0986328,12.3125 a 10,10 0 0 0 9.8544922,8.685547 c 0.251215,-0.0014 0.503066,-0.008 0.753906,-0.02343 a 10,10 0 0 0 0.0059,-10e-4 10,10 0 0 0 5.416015,-2.078125 c -0.218932,-1.43018 -0.961384,-3.012417 -2.55961,-4.85057 C 12.55624,11.692924 9.462823,8.4062735 7.1796875,8.0253905 Z"/>
 <path style="fill:#424242;fill-rule:evenodd" d="M 10.474802,4.011082 C 10.151951,4.014632 9.814854,4.039052 9.460367,4.091064 6.8970595,4.4671535 5.254829,5.729704 3.1507824,8.268993 2.295915,9.300698 1.5404141,10.544204 1.0000001,11.49877 1.0187681,11.851207 1.0558911,12.202396 1.111217,12.550871 2.5877588,10.507537 6.698525,7.5365725 7.624015,8.8685 8.6836375,10.393466 5.631195,12.212881 6.0409415,12.789 6.479989,13.406318 8.4029095,12.676555 10.1875,12.548391 12.17985,12.405307 13.238353,13.02179 14.5692,14.044738 14.234031,13.412304 14.014215,12.950371 13.886711,12.496852 13.62168,11.55415 14.32906,10.477613 14.593612,9.961705 15.013934,9.142039 15.367913,8.000088 15.992773,7.3836485 17.086402,6.3047545 18.995652,5.746365 20.682551,5.1865975 21.210473,5.011416 21.678436,5.0485155 22.22904,4.927893 21.718038,4.642666 21.080214,4.5370125 20.559241,4.5292955 17.782058,4.4881605 16.089576,4.9089955 14.968805,4.786915 13.547315,4.6320785 12.218203,3.9918665 10.474802,4.011082 Z"/>
 <ellipse style="opacity:0.4;fill:#8b9cbe" cx="12.354" cy="4.378" rx=".751" ry=".749" transform="matrix(0.98003409,0.19882952,-0.19571032,0.98066175,0,0)"/>
 <path style="fill:#424242;fill-rule:evenodd" d="m 3.7675781,14.021485 c -0.4395122,-0.0078 -1.437272,0.429608 -2.0419922,0.706054 a 10,10 0 0 0 1.03125,1.916015 C 3.1455559,15.34703 4.169889,14.44266 3.9599609,14.09668 3.9294229,14.04635 3.8623669,14.02317 3.7675781,14.02149 Z"/>
 <path style="opacity:0.1;fill-rule:evenodd" d="m 16.393353,6.032814 c 1.19517,-0.333057 3.257138,-1.146327 4.760744,-1.3360765 -0.276865,-0.051669 -0.777931,0.03342 -1.054832,0.06292 -1.484837,0.2939775 -2.934167,0.886041 -3.705912,1.2731575 z"/>
 <path style="fill:#ffc107;fill-rule:evenodd" d="m 13.519624,7.1148785 c 0.588752,-0.305327 0.873252,-0.5591985 2.24833,-0.902744 1.334848,-0.333494 2.995383,-1.139602 4.331311,-1.452478 -2.285617,0.275409 -5.043308,0.85197 -6.579641,2.355222 z"/>
 <path style="opacity:0.1" d="M 10.543946,6.998047 A 0.7512927,0.748705 45.000141 0 0 10.514651,7.100586 0.7512927,0.748705 45.000141 0 0 11.103518,7.9853515 0.7512927,0.748705 45.000141 0 0 11.985354,7.399414 0.7512927,0.748705 45.000141 0 0 11.956059,7.001953 0.7512927,0.748705 45.000141 0 1 11.10352,7.4853515 0.7512927,0.748705 45.000141 0 1 10.54395,6.998047 Z"/>
</svg>
