<svg xmlns="http://www.w3.org/2000/svg" width="22" height="22" version="1">
 <rect style="opacity:0.2" width="20" height="20" x="1" y="1.5" rx="1" ry="1"/>
 <rect style="fill:#f58a10" width="20" height="20" x="1" y="1" rx="1" ry="1"/>
 <path style="fill:#f2f1c7" d="M 3,3 V 19 H 19 V 3 Z"/>
 <path style="opacity:0.1;fill-rule:evenodd;stroke:#000000;stroke-width:0;stroke-linecap:round;stroke-linejoin:round" d="m 4.3295,7.024337 c 9.41322,-0.640382 15.170949,2.899626 9.962765,11.899075 0.351804,-1.202714 0.168501,-3.989146 -1.718609,-7.399179 C 11.114453,8.8874345 4.3295,7.024337 4.3295,7.024337 Z"/>
 <path style="opacity:0.2;fill:#8b9cbe" d="M 2,1 C 1.446,1 1,1.446 1,2 v 0.5 c 0,-0.554 0.446,-1 1,-1 h 18 c 0.554,0 1,0.446 1,1 V 2 C 21,1.446 20.554,1 20,1 Z"/>
 <path style="fill:#1595ff;fill-rule:evenodd;stroke:#000000;stroke-width:0;stroke-linecap:round;stroke-linejoin:round" d="m 4.3295,6.524337 c 9.41322,-0.640382 15.170949,2.899626 9.962765,11.899075 0.351804,-1.202714 0.168501,-3.989146 -1.718609,-7.399179 C 11.114453,8.3874345 4.3295,6.524337 4.3295,6.524337 Z"/>
 <path style="opacity:0.1;fill-rule:evenodd;stroke:#000000;stroke-width:0;stroke-linecap:round;stroke-linejoin:round" d="m 4.8417735,5.42679 c 9.1810235,-0.8619345 14.7211535,3.095247 9.4752695,13.432551 0.365784,-1.3767 0.240802,-4.552268 -1.531747,-8.41529 C 11.414678,7.45698 4.8417735,5.42679 4.8417735,5.42679 Z"/>
 <path style="fill:#38b7ff;fill-rule:evenodd;stroke:#000000;stroke-width:0;stroke-linecap:round;stroke-linejoin:round" d="M 4.8417735,4.92679 C 14.022797,4.0648555 19.562927,8.022037 14.317043,18.359341 14.682827,16.982641 14.557845,13.807073 12.785296,9.944051 11.414678,6.95698 4.8417735,4.92679 4.8417735,4.92679 Z"/>
 <path style="opacity:0.1;fill-rule:evenodd;stroke:#000000;stroke-width:0;stroke-linecap:round;stroke-linejoin:round" d="M 6.345847,3.9999994 C 16.724406,5.052427 22.119271,10.037168 14.280781,19 14.954484,17.737835 15.431037,14.627066 14.208365,10.509308 13.262938,7.325262 6.345847,3.9999994 6.345847,3.9999994 Z"/>
 <path style="fill:#6be3ff;fill-rule:evenodd;stroke:#000000;stroke-width:0;stroke-linecap:round;stroke-linejoin:round" d="M 6.345847,3.4999996 C 16.724406,4.552427 22.119271,9.537168 14.280781,18.5 14.954484,17.237835 15.431037,14.127066 14.208365,10.009308 13.262938,6.825262 6.345847,3.4999996 6.345847,3.4999996 Z"/>
 <circle style="opacity:0.2;stroke:#6a4326;stroke-width:0;stroke-linecap:round;stroke-linejoin:round" cx="16" cy="13.5" r="1"/>
 <circle style="fill:#8b9cbe;stroke:#6a4326;stroke-width:0;stroke-linecap:round;stroke-linejoin:round" cx="16" cy="13" r="1"/>
 <circle style="opacity:0.2;stroke:#6a4326;stroke-width:0;stroke-linecap:round;stroke-linejoin:round" cx="15.5" cy="16" r=".5"/>
 <circle style="fill:#8b9cbe;stroke:#6a4326;stroke-width:0;stroke-linecap:round;stroke-linejoin:round" cx="15.5" cy="15.5" r=".5"/>
 <rect style="opacity:0.1" width="1.918" height="7.221" x="16.4" y="-4.93" ry="0" transform="matrix(0.83219764,0.55447912,-0.55908617,0.82910955,0,0)"/>
 <rect style="fill:#ffc60a" width="1.918" height="7.221" x="16.12" y="-5.35" ry="0" transform="matrix(0.83219764,0.55447912,-0.55908617,0.82910955,0,0)"/>
 <rect style="opacity:0.1" width="2.254" height="1.876" x="16.17" y="3.17" transform="matrix(0.83260806,0.55386264,-0.55813368,0.82975104,0,0)"/>
 <rect style="fill:#835d1a" width="2.254" height="1.876" x="15.89" y="2.76" transform="matrix(0.83260806,0.55386264,-0.55813368,0.82975104,0,0)"/>
 <path style="opacity:0.1;fill-rule:evenodd" d="M 9.987083,13.717509 C 7.6301845,15.69854 5.071266,15.192277 5.071266,15.192277 L 3.5,14.972163 c 0,0 0.835897,1.453725 1.8406255,2.333214 1.2794595,1.119974 3.1667,1.93645 5.0504975,0.15408 1.661056,-1.57162 1.75084,-2.289191 1.75084,-2.289191 z"/>
 <path style="fill:#1dadff;fill-rule:evenodd" d="M 9.987083,13.217509 C 7.6301845,15.19854 5.071266,14.692277 5.071266,14.692277 L 3.5,14.472163 c 0,0 0.835897,1.453725 1.8406255,2.333214 1.2794595,1.119974 3.1667,1.93645 5.0504975,0.15408 1.661056,-1.57162 1.75084,-2.289191 1.75084,-2.289191 z"/>
 <rect style="opacity:0.2" width="16" height=".5" x="3" y="19"/>
</svg>
