<svg xmlns="http://www.w3.org/2000/svg" width="22" height="22" version="1">
 <rect style="opacity:0.2" width="20" height="20" x="1" y="1.5" rx="1" ry="1"/>
 <rect style="fill:#b2bfd9" width="20" height="20" x="1" y="1" rx="1" ry="1"/>
 <path style="opacity:0.1" d="M 4.5,5.5 7.75,11.5 4.5,17.5 H 6.5 L 9.75,11.5 6.5,5.5 Z M 8,5.5 11.25,11.5 8,17.5 H 10 L 12.25,13.35 14.5,17.5 H 16.5 L 10,5.5 Z M 13.667,9.5 14.48,11 H 17.5 V 9.5 Z M 15.02,12 15.833,13.5 H 17.5 V 12 Z"/>
 <path style="fill:#8b82a4" d="M 4.5,5 7.75,11 4.5,17 H 6.5 L 9.75,11 6.5,5 Z M 13.667,9 14.48,10.5 H 17.5 V 9 Z M 15.02,11.5 15.833,13 H 17.5 V 11.5 Z"/>
 <path style="fill:#5f5088" d="M 8,5 11.25,11 8,17 H 10 L 12.25,12.85 14.5,17 H 16.5 L 10,5 Z"/>
 <path style="opacity:0.2;fill:#8b9cbe" d="M 2,1 C 1.446,1 1,1.446 1,2 V 2.5 C 1,1.946 1.446,1.5 2,1.5 H 20 C 20.554,1.5 21,1.946 21,2.5 V 2 C 21,1.446 20.554,1 20,1 Z"/>
</svg>
