<svg xmlns="http://www.w3.org/2000/svg" width="22" height="22" version="1">
 <path id="ellipse856" style="opacity:0.2" d="M 11.497899,1.5 A 4.6426286,5 0 0 0 7.2829854,4.4208985 5.126057,4.5284602 23.678628 0 0 2.5640403,6.5 a 5.126057,4.5284602 23.678628 0 0 0.5020779,5 4.5284602,5.126057 66.321372 0 0 -0.5020779,5 4.5284602,5.126057 66.321372 0 0 4.7189451,2.080078 A 4.6426286,5 0 0 0 11.497899,21.5 4.6426286,5 0 0 0 15.714767,18.579101 c 1.965557,0.255354 3.808444,-0.556825 4.717968,-2.079101 0.94412,-1.584732 0.669373,-3.553849 -0.524544,-5.034179 0.0083,0.01034 0.01813,0.01989 0.02638,0.03027 A 4.52846,5.126057 66.32137 0 0 20.432735,6.5 4.52846,5.126057 66.32137 0 0 16.572401,4.3720705 4.52846,5.126057 66.32137 0 0 15.714767,4.4208985 4.6426286,5 0 0 0 11.497899,1.5 Z m 2.146041,3.602539 a 4.52846,5.126057 66.32137 0 1 10e-4,0 4.52846,5.126057 66.32137 0 0 0,10e-4 4.52846,5.126057 66.32137 0 0 -0.386815,0.239258 4.52846,5.126057 66.32137 0 1 0.385838,-0.2402345 z M 13.09986,5.455078 A 4.52846,5.126057 66.32137 0 0 12.850774,5.6416015 4.52846,5.126057 66.32137 0 1 13.09986,5.455078 Z m -0.415142,0.3291015 a 4.52846,5.126057 66.32137 0 0 -0.204153,0.183594 4.52846,5.126057 66.32137 0 1 0.204153,-0.183594 z m -0.369233,0.353516 a 4.52846,5.126057 66.32137 0 0 -0.181686,0.196289 4.52846,5.126057 66.32137 0 1 0.181686,-0.196289 z M 11.987278,6.515625 A 4.52846,5.126057 66.32137 0 0 11.828059,6.7246095 4.52846,5.126057 66.32137 0 1 11.987278,6.515625 Z m -0.28718,0.402344 a 4.52846,5.126057 66.32137 0 0 -0.13773,0.2197265 4.52846,5.126057 66.32137 0 1 0.13773,-0.2197265 z m 7.054486,3.477539 c 0.02825,0.01957 0.05429,0.04057 0.08205,0.06055 -0.02775,-0.01994 -0.05381,-0.04101 -0.08205,-0.06055 z m 0.418073,0.319336 c 0.04608,0.03875 0.08837,0.0802 0.132845,0.120117 -0.04455,-0.03993 -0.08668,-0.08137 -0.132845,-0.120117 z m 0.384861,0.357421 c 0.03692,0.03758 0.07087,0.07683 0.106472,0.115235 -0.03559,-0.03836 -0.06955,-0.0777 -0.106472,-0.115235 z m -8.01957,0.429688 c 0.16947,0.0015 0.336427,0.01356 0.501101,0.03418 -0.0051,-6.5e-4 -0.0105,-3.53e-4 -0.01563,-10e-4 a 4.6426286,5 0 0 0 -0.485472,-0.03321 z m 0.645669,0.05859 c 0.07922,0.01267 0.159499,0.02215 0.237363,0.03907 0.04527,0.0098 0.08904,0.02391 0.133822,0.03515 -0.0067,-0.0017 -0.01378,-0.0023 -0.02051,-0.0039 a 4.6426286,5 0 0 0 -0.113309,-0.03125 4.6426286,5 0 0 0 -0.21392,-0.03418 c -0.0079,-0.0013 -0.01552,-0.0036 -0.02345,-0.0049 z m 0.54408,0.12207 c 0.115359,0.03408 0.228345,0.07298 0.339928,0.116211 -0.01343,-0.0052 -0.02754,-0.0086 -0.04102,-0.01367 a 4.6426286,5 0 0 0 -0.275459,-0.09473 c -0.0079,-0.0024 -0.01551,-0.0055 -0.02345,-0.0078 z m 0.494263,0.176758 c 0.12704,0.0548 0.250957,0.116383 0.372163,0.182617 -0.02156,-0.01179 -0.04467,-0.02079 -0.06642,-0.03223 a 4.6426286,5 0 0 0 -0.288157,-0.141602 c -0.006,-0.0026 -0.01156,-0.0062 -0.01758,-0.0088 z m 0.463983,0.230469 c 0.01277,0.0074 0.02539,0.01497 0.0381,0.02246 0.133809,0.0789 0.263375,0.164599 0.388768,0.256836 A 4.6426286,5 0 0 0 13.724043,12.1123 4.6426286,5 0 0 0 13.701573,12.10058 c -0.0055,-0.0032 -0.01016,-0.0076 -0.01563,-0.01074 z m 0.500124,0.33789 c 0.09864,0.07566 0.196432,0.1528 0.289134,0.236328 A 4.6426286,5 0 0 0 14.186067,12.42773 Z m 0.454214,0.399414 c 0.0541,0.05371 0.109496,0.105721 0.161173,0.16211 a 4.6426286,5 0 0 0 -0.147497,-0.147461 4.6426286,5 0 0 0 -0.01368,-0.01465 z m 0.356534,0.392578 c 0.03834,0.04739 0.0776,0.09365 0.114286,0.142578 a 4.6426286,5 0 0 0 -0.09573,-0.11621 c -0.0067,-0.0084 -0.01183,-0.01804 -0.01856,-0.02637 z m 0.21099,0.283203 c 0.01069,0.01533 0.0217,0.03043 0.03224,0.0459 -0.0046,-0.0068 -0.01002,-0.01281 -0.01465,-0.01953 a 4.6426286,5 0 0 0 -0.01758,-0.02637 z m 0.0801,0.120118 a 4.52846,5.126057 66.32137 0 0 0.0039,0 c 0.03095,0.04725 0.06237,0.09415 0.09182,0.142578 a 4.6426286,5 0 0 0 -0.09573,-0.142578 z m 0.173871,0.283203 c 0.05362,0.09481 0.106538,0.190244 0.154335,0.289062 A 4.6426286,5 0 0 0 15.461774,13.90625 Z m 0.214898,0.423828 c 0.04706,0.104883 0.09155,0.21053 0.131868,0.319336 a 4.6426286,5 0 0 0 -0.131868,-0.319336 z m 0.177778,0.453125 c 0.03697,0.108742 0.07255,0.217949 0.102564,0.330078 A 4.6426286,5 0 0 0 15.85445,14.783203 Z m 0.14066,0.493164 c 0.02429,0.10382 0.04729,0.208166 0.06545,0.314453 a 4.6426286,5 0 0 0 -0.06545,-0.314453 z m 0.09377,0.510742 c 0.01281,0.09639 0.0246,0.192938 0.03224,0.291016 a 4.6426286,5 0 0 0 -0.03224,-0.291016 z"/>
 <ellipse style="fill:#278df2" cx="11.499" cy="11" rx="8.252" ry="8"/>
 <ellipse id="ellipse8" style="fill:#34e0c4" cx="15.221" cy="-9.372" rx="4.536" ry="5.118" transform="matrix(0.51165104,0.85919335,-0.87259818,0.48843876,0,0)"/>
 <ellipse id="ellipse10" style="fill:#ffc107" cx="11.499" cy="16" rx="4.641" ry="5"/>
 <ellipse id="ellipse14" style="fill:#fb8300" cx="15.221" cy=".865" rx="4.536" ry="5.118" transform="matrix(0.51165104,0.85919335,-0.87259818,0.48843876,0,0)"/>
 <ellipse id="ellipse18" style="fill:#fa3e30" cx="3.983" cy="10.396" rx="4.536" ry="5.118" transform="matrix(-0.51165104,0.85919335,0.87259818,0.48843876,0,0)"/>
 <path style="fill:#a544c9" d="M 11.499411,1 A 4.6414757,5 0 0 0 6.8579349,6 4.6414757,5 0 0 0 11.499411,11 4.5282783,5.1249895 66.278874 0 1 13.644884,4.602539 4.5282783,5.1249895 66.278874 0 1 15.714813,3.9208985 4.6414757,5 0 0 0 11.499411,1 Z m 0,10 A 4.6414757,5 0 0 0 15.91123,7.541992 4.6414757,5 0 0 1 15.287733,8.876953 5.1249895,4.5282783 23.721126 0 0 11.499411,11 Z M 15.91123,7.541992 A 4.6414757,5 0 0 0 16.023037,7.100586 4.6414757,5 0 0 1 15.91123,7.541992 Z M 15.769206,4.053711 A 4.6414757,5 0 0 1 15.924324,4.5097655 4.6414757,5 0 0 0 15.769206,4.053711 Z m 0.162169,0.4765625 a 4.6414757,5 0 0 1 0.09468,0.3955075 4.6414757,5 0 0 0 -0.09468,-0.3955075 z m 0.120872,0.517578 a 4.6414757,5 0 0 1 0.04532,0.319336 4.6414757,5 0 0 0 -0.04532,-0.319336 z m 0.06749,0.5185545 A 4.6414757,5 0 0 1 16.140886,6 4.6414757,5 0 0 0 16.119737,5.566406 Z m 0.01107,0.654297 a 4.6414757,5 0 0 1 -0.02014,0.328125 4.6414757,5 0 0 0 0.02014,-0.328125 z m -0.03626,0.4433595 a 4.6414757,5 0 0 1 -0.06044,0.3876955 4.6414757,5 0 0 0 0.06044,-0.3876955 z"/>
 <path style="fill:#009688" d="M 15.359249,8.8720705 C 13.70987,8.9173115 12.265533,9.713575 11.499411,11 c 2.563416,0 4.641475,2.238576 4.641475,5 -0.0018,0.717949 -0.147129,1.427057 -0.426073,2.079101 C 17.679882,18.334455 19.522535,17.522276 20.431834,16 21.713808,13.847633 20.753213,10.983291 18.286359,9.602539 17.386319,9.09892 16.366047,8.844308 15.359249,8.8720705 Z m 0.355564,9.2070305 z M 11.499411,11 Z"/>
 <path id="ellipse980" style="fill:#03a9f4" d="m 16.5725,3.8720702 a 4.5282783,5.1249895 66.278874 0 0 -2.927364,0.7309573 4.5282783,5.1249895 66.278874 0 0 -2.145474,6.3967285 c 0.766167,-1.286254 2.210333,-2.082448 3.859587,-2.127686 1.006798,-0.02776 2.02707,0.22685 2.92711,0.730469 0.66311,0.371157 1.216253,0.850154 1.647383,1.393067 A 4.5282783,5.1249895 66.278874 0 0 20.432085,6 4.5282783,5.1249895 66.278874 0 0 16.5725,3.8720702 Z M 11.499662,11 a 4.5282783,5.1249895 66.278874 0 0 3.795122,2.123291 C 14.45471,11.839435 13.068597,11.00009 11.499662,11 Z"/>
 <path style="fill:#ffc107" d="m 11.499662,10.999756 c -7.9997742,8.000162 -3.9998871,4.000082 0,0 z m 0,2.44e-4 c 0.814377,1.61694 2.214779,2.317036 3.795122,2.123291 C 14.45471,11.839435 13.068597,11.00009 11.499662,11 Z"/>
 <path id="ellipse880" style="opacity:0.2;fill:#8b9cbe" d="M 11.499024,1 A 4.6414757,5 0 0 0 7.2851564,3.9208984 5.1249895,4.5282785 23.721124 0 0 2.5673832,6 5.1249895,4.5282785 23.721124 0 0 2.0156254,8.3134765 5.1249895,4.5282785 23.721124 0 1 2.5673832,6.5 5.1249895,4.5282785 23.721124 0 1 7.2851564,4.4208985 4.6414757,5 0 0 1 11.499024,1.5 4.6414757,5 0 0 1 15.714844,4.4208985 4.5282783,5.1249895 66.278874 0 1 16.572266,4.3720705 4.5282783,5.1249895 66.278874 0 1 20.431641,6.5 4.5282783,5.1249895 66.278874 0 1 20.986328,8.339844 4.5282783,5.1249895 66.278874 0 0 20.431641,6 4.5282783,5.1249895 66.278874 0 0 16.572266,3.8720703 4.5282783,5.1249895 66.278874 0 0 15.714844,3.9208984 4.6414757,5 0 0 0 11.499024,1 Z m 2.145507,4.102539 a 4.5282783,5.1249895 66.278874 0 0 -0.385742,0.2402345 4.5282783,5.1249895 66.278874 0 1 0.386719,-0.239258 4.5282783,5.1249895 66.278874 0 0 0,-0.001 4.5282783,5.1249895 66.278874 0 1 -10e-4,0 z M 2.8886723,11.251953 a 4.5282785,5.1249895 66.278876 0 0 -0.875,2.91211 A 4.5282785,5.1249895 66.278876 0 1 3.0693364,11.5 5.1249895,4.5282785 23.721124 0 1 2.8886723,11.251953 Z m 17.2197267,10e-4 a 4.5282783,5.1249895 66.278874 0 1 -0.174805,0.243165 c -0.0082,-0.01039 -0.01802,-0.01993 -0.02636,-0.03027 0.650168,0.806338 1.025587,1.757622 1.082032,2.71289 0.06069,-1.009871 -0.258169,-2.037518 -0.88086,-2.925781 z m -7.923828,0.307617 c 0.0079,0.0013 0.01553,0.0036 0.02343,0.0049 a 4.6414757,5 0 0 1 0.213867,0.03418 c -0.07784,-0.01692 -0.158102,-0.0264 -0.237305,-0.03907 z m 0.237304,0.03907 a 4.6414757,5 0 0 1 0.113281,0.03125 c 0.0067,0.0016 0.01379,0.0022 0.02051,0.0039 -0.04477,-0.01125 -0.08853,-0.02532 -0.133789,-0.03515 z m 1.264649,0.490234 c 0.0055,0.0031 0.01017,0.0075 0.01563,0.01074 a 4.6414757,5 0 0 1 0.02246,0.01172 c -0.0127,-0.0075 -0.02531,-0.0151 -0.03808,-0.02246 z m 1.310547,1.129882 c 0.0067,0.0083 0.01188,0.018 0.01856,0.02637 a 4.6414757,5 0 0 1 0.0957,0.116211 c -0.03668,-0.04894 -0.07593,-0.09519 -0.114258,-0.142578 z m 0.210937,0.283203 a 4.6414757,5 0 0 1 0.01758,0.02637 c 0.0047,0.0067 0.01005,0.01277 0.01465,0.01953 -0.01053,-0.01547 -0.02153,-0.03057 -0.03223,-0.0459 z m 0.08008,0.120118 a 4.6414757,5 0 0 1 0.0957,0.142578 c -0.02944,-0.04843 -0.06085,-0.09533 -0.0918,-0.142578 a 4.5282783,5.1249895 66.278874 0 1 -0.0039,0 z"/>
</svg>
