<svg xmlns="http://www.w3.org/2000/svg" width="22" height="22" version="1.1">
 <path style="opacity:0.2" d="M 11.020506,1.50007 C 9.881335,1.492223 8.826327,2.138854 8.316767,3.1572333 L 1.3177095,17.148454 c -0.37264523,0.744925 -0.42205243,1.701962 -0.1240067,2.446708 0.2980455,0.744746 0.8445507,1.265776 1.4656229,1.576159 0.6210723,0.310383 1.3663953,0.433974 2.1413133,0.225445 0.774918,-0.208529 1.5108905,-0.821477 1.883536,-1.5664 l 1.670673,-3.330367 h 5.290304 l 1.670673,3.330367 c 0.373479,0.744505 1.108618,1.357871 1.883536,1.5664 0.774918,0.208529 1.520241,0.08494 2.141313,-0.225444 0.621072,-0.310384 1.167578,-0.831414 1.465623,-1.57616 0.298046,-0.744746 0.248638,-1.701783 -0.124006,-2.446707 L 13.683233,3.1572333 C 13.180165,2.1518298 12.145162,1.5076901 11.020506,1.50007 Z"/>
 <path style="fill:#b2bfd9" d="M 11.020506,1.0000701 C 9.881335,0.99222307 8.826327,1.6388541 8.316767,2.6572335 L 1.3177095,16.648454 c -0.37264523,0.744925 -0.42205243,1.701962 -0.1240067,2.446708 0.2980455,0.744746 0.8445507,1.265776 1.4656229,1.576159 0.6210723,0.310383 1.3663953,0.433974 2.1413133,0.225445 0.774918,-0.208529 1.5108905,-0.821477 1.883536,-1.5664 l 1.670673,-3.330367 h 5.290304 l 1.670673,3.330367 c 0.373479,0.744505 1.108618,1.357871 1.883536,1.5664 0.774918,0.208529 1.520241,0.08494 2.141313,-0.225444 0.621072,-0.310384 1.167578,-0.831414 1.465623,-1.57616 0.298046,-0.744746 0.248638,-1.701783 -0.124006,-2.446707 L 13.683233,2.6572335 C 13.180165,1.6518299 12.145162,1.0076903 11.020506,1.0000701 Z"/>
 <path style="opacity:0.1" d="M 11.006836,3.4999993 A 1.0001,1.0001 0 0 0 10.105469,4.0527335 L 3.1054687,18.052733 a 1.0001162,1.0001162 0 1 0 1.7890623,0.894531 l 2.223633,-4.447265 h 7.763672 l 2.223633,4.447265 a 1.0001161,1.0001161 0 1 0 1.789062,-0.894531 l -7,-13.9999995 A 1.0001,1.0001 0 0 0 11.006836,3.4999993 Z M 11,6.7363275 13.881836,12.499999 H 8.118164 Z"/>
 <path style="fill:#17191e" d="M 11.006836,2.9999995 A 1.0001,1.0001 0 0 0 10.105469,3.5527339 L 3.1054687,17.552733 a 1.0001162,1.0001162 0 1 0 1.7890623,0.894531 l 2.223633,-4.447265 h 7.763672 l 2.223633,4.447265 a 1.0001161,1.0001161 0 1 0 1.789062,-0.894531 l -7,-13.9999991 A 1.0001,1.0001 0 0 0 11.006836,2.9999995 Z M 11,6.2363275 13.881836,11.999999 H 8.118164 Z"/>
 <path style="opacity:0.2;fill:#8b9cbe" d="M 11.020508,0.99999947 C 9.881338,0.99215247 8.8259665,1.6388467 8.316406,2.657226 l -6.9990232,13.99121 c -0.2465383,0.492835 -0.34812473,1.078169 -0.3046875,1.633789 0.031125,-0.395218 0.1315059,-0.787596 0.3046875,-1.133789 L 8.316406,3.157226 c 0.5095605,-1.0183793 1.564932,-1.6650735 2.704102,-1.6572265 1.124656,0.00762 2.160018,0.651823 2.663086,1.6572265 l 6.999023,13.99121 c 0.173181,0.346193 0.273562,0.738571 0.304687,1.133789 0.04343,-0.55562 -0.05815,-1.140954 -0.304687,-1.633789 L 13.683594,2.657226 C 13.180526,1.6518225 12.145164,1.0076197 11.020508,0.99999947 Z"/>
</svg>
