<svg xmlns="http://www.w3.org/2000/svg" width="22" height="22" version="1">
 <rect style="opacity:0.2" width="20" height="20" x="1" y="1.5" rx="6" ry="6"/>
 <rect style="fill:#c33131" width="20" height="20" x="1" y="1" rx="6" ry="6"/>
 <path style="opacity:0.2" d="M 9.9756,4.5 C 9.712,4.5 9.5,4.8312 9.5,5.2432 V 6.21 A 5.5,5.5 0 0 0 8.3242,6.7021 L 7.6367,6.0146 C 7.3454,5.7233 6.9608,5.6398 6.7744,5.8262 L 5.3262,7.2744 C 5.1398,7.4608 5.2233,7.8454 5.5146,8.1367 L 6.1992,8.8203 A 5.5,5.5 0 0 0 5.7139,10 H 4.7432 C 4.3312,10 4,10.212 4,10.476 v 2.0488 c 0,0.263 0.3312,0.475 0.7432,0.475 H 5.71 a 5.5,5.5 0 0 0 0.49219,1.1758 l -0.6875,0.6875 c -0.2914,0.291 -0.3749,0.675 -0.1885,0.862 l 1.4482,1.4482 c 0.1864,0.1864 0.571,0.10283 0.8623,-0.18848 l 0.68359,-0.68457 a 5.5,5.5 0 0 0 1.1797,0.485 v 0.9707 c 0,0.412 0.212,0.743 0.4756,0.743 h 2.0488 c 0.264,0 0.476,-0.331 0.476,-0.743 v -0.9668 a 5.5,5.5 0 0 0 1.1758,-0.49219 l 0.6875,0.6875 c 0.29131,0.29131 0.6759,0.37488 0.8623,0.18848 l 1.4482,-1.4482 c 0.1864,-0.1864 0.10283,-0.571 -0.18848,-0.8623 l -0.68457,-0.68359 a 5.5,5.5 0 0 0 0.485,-1.18 h 0.9707 c 0.412,0 0.743,-0.212 0.743,-0.476 v -2.0488 c 0,-0.263 -0.331,-0.475 -0.743,-0.475 h -0.9668 a 5.5,5.5 0 0 0 -0.492,-1.1758 l 0.6875,-0.6875 c 0.291,-0.2913 0.374,-0.6759 0.188,-0.8623 l -1.448,-1.4482 c -0.187,-0.1864 -0.571,-0.1029 -0.863,0.1884 l -0.683,0.6846 a 5.5,5.5 0 0 0 -1.18,-0.4853 v -0.9707 c 0,-0.412 -0.212,-0.7432 -0.476,-0.7432 H 9.97473 Z M 11,8.5 a 3,3 0 0 1 3,3 3,3 0 0 1 -3,3 3,3 0 0 1 -3,-3 3,3 0 0 1 3,-3 z"/>
 <path style="fill:#ffaa56" d="M 9.9756,4 C 9.712,4 9.5,4.3312 9.5,4.7432 V 5.71 A 5.5,5.5 0 0 0 8.3242,6.2021 L 7.6367,5.5146 C 7.3454,5.2233 6.9608,5.1398 6.7744,5.3262 L 5.3262,6.7744 C 5.1398,6.9608 5.2233,7.3454 5.5146,7.6367 L 6.1992,8.3203 A 5.5,5.5 0 0 0 5.7139,9.5 H 4.7432 C 4.3312,9.5 4,9.712 4,9.9756 v 2.0488 c 0,0.264 0.3312,0.476 0.7432,0.476 H 5.71 a 5.5,5.5 0 0 0 0.49219,1.1758 l -0.6875,0.6875 c -0.2914,0.291 -0.3749,0.675 -0.1885,0.862 l 1.4482,1.4482 c 0.1864,0.1864 0.571,0.10283 0.8623,-0.18848 l 0.68359,-0.68457 a 5.5,5.5 0 0 0 1.1797,0.485 v 0.9707 c 0,0.412 0.212,0.743 0.4756,0.743 h 2.0488 c 0.264,0 0.476,-0.331 0.476,-0.743 v -0.9668 a 5.5,5.5 0 0 0 1.1758,-0.49219 l 0.6875,0.6875 c 0.29131,0.29131 0.6759,0.37488 0.8623,0.18848 l 1.4482,-1.4482 c 0.1864,-0.1864 0.10283,-0.571 -0.18848,-0.8623 l -0.68457,-0.68359 a 5.5,5.5 0 0 0 0.485,-1.18 h 0.9707 c 0.412,0 0.743,-0.212 0.743,-0.476 v -2.0484 c 0,-0.2636 -0.331,-0.4756 -0.743,-0.4756 h -0.9668 a 5.5,5.5 0 0 0 -0.492,-1.1758 l 0.6875,-0.6875 c 0.291,-0.2913 0.374,-0.6759 0.188,-0.8623 l -1.448,-1.4482 c -0.187,-0.1864 -0.571,-0.1029 -0.863,0.1884 l -0.683,0.6846 a 5.5,5.5 0 0 0 -1.18,-0.4853 v -0.9707 c 0,-0.412 -0.212,-0.7432 -0.476,-0.7432 H 9.97513 Z M 11,8 a 3,3 0 0 1 3,3 3,3 0 0 1 -3,3 3,3 0 0 1 -3,-3 3,3 0 0 1 3,-3 z"/>
 <path style="opacity:0.1;fill:#8b9cbe" d="M 7,1 C 3.676,1 1,3.676 1,7 v 0.5 c 0,-3.324 2.676,-6 6,-6 h 8 c 3.324,0 6,2.676 6,6 V 7 C 21,3.676 18.324,1 15,1 Z"/>
</svg>
