<svg xmlns="http://www.w3.org/2000/svg" width="22" height="22" version="1.1">
 <path style="opacity:0.2;fill-rule:evenodd" d="m 21,11.5 c 0,5.52307 -4.477387,10 -10,10 -5.52307,0 -9.9999999,-4.477387 -9.9999999,-10 0,-5.52307 4.4773869,-9.9999999 9.9999999,-9.9999999 5.52307,0 10,4.4773869 10,9.9999999"/>
 <path style="fill:#6790eb;fill-rule:evenodd" d="M 21,11 C 21,16.52307 16.522613,21 11,21 5.47693,21 1.0000001,16.522613 1.0000001,11 1.0000001,5.47693 5.477387,1.0000001 11,1.0000001 16.52307,1.0000001 21,5.477387 21,11"/>
 <path style="opacity:0.2" d="m 4.2449105,16.483009 c 0,-0.04463 6.4743635,-12.3604015 6.6914065,-12.728634 l 0.149941,-0.2543945 0.163766,0.2873525 c 0.09007,0.15804 0.75016,1.4145275 1.466857,2.7921875 0.716699,1.3776635 2.161913,4.1475325 3.211583,6.1552625 1.472925,2.8173 1.888185,3.663293 1.819509,3.706813 -0.04895,0.03101 -0.638759,0.05685 -1.3107,0.0574 L 15.21556,16.5 14.85527,16.134667 c -0.903909,-0.916553 -2.483785,-1.847645 -4.249387,-2.335165 l -0.790999,-0.21841 0.988751,-0.0496 c 0.92885,-0.04659 1.926527,-0.01518 2.499412,0.07643 0.19148,0.03063 0.251907,0.01807 0.251907,-0.0523 0,-0.173864 -2.373624,-4.50423 -2.468743,-4.50423 -0.06932,0 -0.55862,0.852895 -2.45805,4.284592 -0.933093,1.685822 -1.7016815,3.071381 -1.7079775,3.079021 -0.02812,0.03412 -2.675273,0.101402 -2.675273,0.06799 z"/>
 <path style="fill:#8b9cbe" d="m 4.2449105,15.983009 c 0,-0.04463 6.4743635,-12.3604015 6.6914065,-12.728634 l 0.149941,-0.2543945 0.163766,0.2873525 c 0.09007,0.15804 0.75016,1.4145275 1.466857,2.7921875 0.716699,1.3776635 2.161913,4.1475325 3.211583,6.1552625 1.472925,2.8173 1.888185,3.663293 1.819509,3.706813 -0.04895,0.03101 -0.638759,0.05685 -1.3107,0.0574 L 15.21556,16 14.85527,15.634667 c -0.903909,-0.916553 -2.483785,-1.847645 -4.249387,-2.335165 l -0.790999,-0.21841 0.988751,-0.0496 c 0.92885,-0.04659 1.926527,-0.01518 2.499412,0.07643 0.19148,0.03063 0.251907,0.01807 0.251907,-0.0523 0,-0.173864 -2.373624,-4.50423 -2.468743,-4.50423 -0.06932,0 -0.55862,0.852895 -2.45805,4.284592 -0.933093,1.685822 -1.7016815,3.071381 -1.7079775,3.079021 -0.02812,0.03412 -2.675273,0.101402 -2.675273,0.06799 z"/>
 <path style="opacity:0.2;fill:#8b9cbe;fill-rule:evenodd" d="M 11,1 C 5.477387,1 1,5.47693 1,11 1,11.08383 1.00381,11.166662 1.00586,11.25 1.1389488,5.842826 5.561219,1.5 11,1.5 c 5.439231,0 9.861064,4.343249 9.99414,9.75 C 20.996192,11.166655 21,11.083839 21,11 21,5.477387 16.52307,1 11,1 Z"/>
</svg>
