<svg xmlns="http://www.w3.org/2000/svg" width="22" height="22" version="1">
 <circle style="opacity:0.2" cx="11.5" cy="11" r="9.5"/>
 <circle style="fill:#b2bfd9" cx="11.5" cy="10.5" r="9.5"/>
 <path style="opacity:0.1" d="M 16.5 6.5 C 15.291667 6.5 14.249734 7.0833111 13.332031 7.8105469 C 12.414329 8.537783 11.580078 9.4453125 10.767578 10.320312 C 9.9550782 11.195314 9.1643291 12.037783 8.4257812 12.623047 C 7.6872335 13.208311 7.0416674 13.5 6.5 13.5 C 5.0357113 13.5 4.5920782 12.995457 4.3007812 12.496094 C 4.0094845 11.99673 4 11.5 4 11.5 L 2 11.5 C 2 11.5 1.9905199 12.503282 2.5742188 13.503906 C 3.1579193 14.504531 4.4642887 15.5 6.5 15.5 C 7.7083325 15.5 8.7502662 14.916689 9.6679688 14.189453 C 10.585671 13.462217 11.419922 12.554688 12.232422 11.679688 C 13.044922 10.804687 13.835671 9.9622171 14.574219 9.3769531 C 15.312766 8.7916891 15.958333 8.5 16.5 8.5 C 17.869046 8.5 18.307112 9.1246676 18.646484 9.9003906 C 18.985857 10.676113 19 11.5 19 11.5 L 21 11.5 C 21 11.5 21.01413 10.323899 20.478516 9.0996094 C 19.942899 7.8753202 18.630954 6.5 16.5 6.5 z M 16.492188 9.4921875 A 0.50004875 0.50004875 0 0 0 16 10 L 16 10.5 L 15.5 10.5 A 0.50004875 0.50004875 0 1 0 15.5 11.5 L 16 11.5 L 16 12 A 0.50004875 0.50004875 0 1 0 17 12 L 17 11.5 L 17.5 11.5 A 0.50004875 0.50004875 0 1 0 17.5 10.5 L 17 10.5 L 17 10 A 0.50004875 0.50004875 0 0 0 16.492188 9.4921875 z M 5.5 10.5 A 0.50004875 0.50004875 0 1 0 5.5 11.5 L 7.5 11.5 A 0.50004875 0.50004875 0 1 0 7.5 10.5 L 5.5 10.5 z"/>
 <path style="fill:none;stroke:#00797d;stroke-linecap:round;stroke-linejoin:round" d="m 5.5,10.5 h 2"/>
 <path style="fill:none;stroke:#009da2;stroke-linecap:round;stroke-linejoin:round" d="m 16.5,9.5 v 2.0 M 15.5,10.5 h 2"/>
 <path style="fill:none;stroke:#00797d;stroke-width:2" d="m 20.0,11.0 c 0,0 2.2e-5,-4.0000245 -3.499978,-4.0000245 -3.5,0 -6.5,7.0000005 -9.9999996,7.0000005 -3.5,0 -3.499995,-2.999976 -3.499995,-2.999976 v 0 0"/>
 <path style="opacity:0.1" d="M 6.5000121,6.5 C 4.3690583,6.5 3.0571131,7.8753202 2.5214965,9.099609 2.2989111,9.608386 2.1864669,10.088815 2.1132933,10.5 H 4.1504027 C 4.2001648,10.306838 4.2651396,10.102424 4.3535277,9.900391 4.6929001,9.124668 5.1309659,8.5 6.5000121,8.5 c 0.5416675,0 1.1872335,0.291689 1.9257812,0.876953 0.7385478,0.585264 1.5292968,1.427734 2.3417967,2.302735 0.8125,0.875 1.646751,1.782529 2.564453,2.509765 0.917703,0.727236 1.959636,1.310547 3.167969,1.310547 2.035711,0 3.342081,-0.995469 3.925781,-1.996094 C 21.009494,12.503282 21.000012,11.5 21.000012,11.5 h -2 c 0,0 -0.0095,0.49673 -0.300781,0.996094 C 18.407934,12.995457 17.964301,13.5 16.500012,13.5 15.958345,13.5 15.312778,13.208311 14.574231,12.623047 13.835683,12.037783 13.044934,11.195313 12.232434,10.320312 11.419934,9.445312 10.585683,8.537783 9.6679811,7.8105469 8.7502784,7.0833111 7.7083446,6.5 6.5000121,6.5 Z"/>
 <path style="fill:none;stroke:#009da2;stroke-width:2" d="m 3.0,11.0 c 0,0 -2.2e-5,-4.0000245 3.499978,-4.0000245 3.4999999,0 6.4999999,7.0000005 9.9999999,7.0000005 3.5,0 3.499995,-2.999976 3.499995,-2.999976 v 0 0"/>
 <path style="opacity:0.2;fill:#8b9cbe" d="m 11.500012,1 a 9.5,9.5 0 0 0 -9.4999999,9.5 9.5,9.5 0 0 0 0.00977,0.292969 A 9.5,9.5 0 0 1 11.500012,1.5 a 9.5,9.5 0 0 1 9.490234,9.207031 9.5,9.5 0 0 0 0.0098,-0.207031 9.5,9.5 0 0 0 -9.5,-9.5 z"/>
</svg>
