<svg xmlns="http://www.w3.org/2000/svg" width="22" height="22" version="1">
 <path style="fill:#825873" d="M 3,1 V 3 H 5 V 1 Z M 3,3 H 1 V 5 H 3 Z M 17,1 v 2 h 2 V 1 Z m 2,2 v 2 h 2 V 3 Z M 1,17 v 2 h 2 v -2 z m 2,2 v 2 h 2 v -2 z m 16,-2 v 2 h 2 v -2 z m 0,2 h -2 v 2 h 2 z"/>
 <rect style="fill:#8b9cbe" width="16" height="16" x="3" y="3"/>
 <path style="fill:#5c3e52" d="M 5,1 V 3 H 17 V 1 Z m 12,2 v 2 h 2 V 3 Z m 2,2 v 12 h 2 V 5 Z m 0,12 h -2 v 2 h 2 z m -2,2 H 5 v 2 H 17 Z M 5,19 V 17 H 3 v 2 z M 3,17 V 5 H 1 V 17 Z M 3,5 H 5 V 3 H 3 Z m 4,2 v 6 H 9 V 7 Z m 6,0 v 6 h 2 V 7 Z"/>
 <path style="fill:#6d8292" d="m 3,15 v 2 h 2 v 2 h 12 v -2 h 2 v -2 h -2 v 2 H 5 v -2 z"/>
 <path style="opacity:0.1" d="m 7,13 h 2 v 0.5 H 7 Z"/>
 <path style="opacity:0.1" d="m 13,13 h 2 v 0.5 h -2 z"/>
 <path style="opacity:0.1;fill:#8b9cbe" d="M 3,1 V 1.5 H 19 V 1 Z M 1,3 V 3.5 H 3 V 3 Z m 18,0 v 0.5 h 2 V 3 Z"/>
 <rect style="opacity:0.2" width="2" height=".5" x="3" y="17"/>
 <rect style="opacity:0.2" width="2" height=".5" x="17" y="17"/>
 <rect style="opacity:0.2" width="12" height=".5" x="5" y="19"/>
 <g>
  <rect style="opacity:0.2" width="2" height=".5" x="3" y="15"/>
  <rect style="opacity:0.2" width="2" height=".5" x="17" y="15"/>
  <rect style="opacity:0.2" width="12" height=".5" x="5" y="17"/>
 </g>
 <path style="opacity:0.2" d="m 1,19 v 0.5 H 3 V 19 Z m 18,0 v 0.5 h 2 V 19 Z M 3,21 v 0.5 H 19 V 21 Z"/>
 <path style="opacity:0.1;fill:#8b9cbe" d="m 1,17 v 0.5 H 3 V 17 Z m 18,0 v 0.5 h 2 V 17 Z M 3,19 v 0.5 H 5 V 19 Z m 14,0 v 0.5 h 2 V 19 Z"/>
</svg>
