<svg xmlns="http://www.w3.org/2000/svg" width="22" height="22" version="1.1">
 <circle style="opacity:0.2" cx="11" cy="11.5" r="10"/>
 <circle style="fill:#b2bfd9" cx="11" cy="11" r="10"/>
 <path style="opacity:0.2;fill:#8b9cbe" d="M 11,1 A 10,10 0 0 0 1,11 10,10 0 0 0 1.01075,11.291 10,10 0 0 1 11,1.5 10,10 0 0 1 20.9895,11.209 10,10 0 0 0 21,11 10,10 0 0 0 11,1 Z"/>
 <path style="opacity:0.1" d="m 10.931865,5.5003575 c -0.159556,0.0024 -0.319372,0.01662 -0.476351,0.041015 C 9.160177,5.896344 8.2719505,6.9128485 7.6006647,7.917204 6.5440119,9.598593 5.8819912,11.541109 6.0175311,13.486201 c 0.1998411,1.987908 2.039787,3.714044 4.2361579,3.977297 0.24181,0.02876 0.485597,0.03253 0.729175,0.03418 2.27203,0.07075 4.427014,-1.48357 4.890461,-3.481234 C 16.205632,12.58071 15.835825,11.092827 15.32319,9.72862 14.704165,8.2398725 13.819257,6.721474 12.293642,5.837255 11.888754,5.5918495 11.410536,5.493208 10.931865,5.5003615 Z m 0.13889,3.5036925 c 0.391961,0.03059 0.775201,0.230044 1.028658,0.503876 0.831778,0.822345 1.315651,1.927504 1.384563,3.033995 0.145376,1.079738 -0.722722,2.15091 -1.893466,2.394385 C 10.665297,15.142328 9.647868,14.839036 9.054674,14.165845 8.442153,13.537046 8.4189955,12.648657 8.5945993,11.870087 8.8659573,10.842245 9.373862,9.761083 10.382814,9.152479 10.59761,9.028695 10.835579,8.985695 11.070755,9.00405 Z"/>
 <path style="fill:#02ad7b" d="m 10.931865,5.0003575 c -0.159556,0.0024 -0.319372,0.01662 -0.476351,0.041015 C 9.160177,5.396344 8.2719505,6.4128485 7.6006647,7.417204 6.5440119,9.098593 5.8819912,11.041109 6.0175311,12.986201 c 0.1998411,1.987908 2.039787,3.714044 4.2361579,3.977297 0.24181,0.02876 0.485597,0.03253 0.729175,0.03418 2.27203,0.07075 4.427014,-1.48357 4.890461,-3.481234 C 16.205632,12.08071 15.835825,10.592827 15.32319,9.22862 14.704165,7.7398725 13.819257,6.221474 12.293642,5.337255 11.888754,5.0918495 11.410536,4.993208 10.931865,5.0003615 Z m 0.13889,3.5036925 c 0.391961,0.03059 0.775201,0.230044 1.028658,0.503876 0.831778,0.822345 1.315651,1.927504 1.384563,3.033995 0.145376,1.079738 -0.722722,2.15091 -1.893466,2.394385 C 10.665297,14.642328 9.647868,14.339036 9.054674,13.665845 8.442153,13.037046 8.4189955,12.148657 8.5945993,11.370087 8.8659573,10.342245 9.373862,9.261083 10.382814,8.652479 10.59761,8.528695 10.835579,8.485695 11.070755,8.50405 Z"/>
</svg>
