<svg xmlns="http://www.w3.org/2000/svg" width="22" height="22" version="1">
 <path style="opacity:0.2" d="M 21,11 13,19 2,19 C 1.446,19 1,18.554 1,18 l 0,0.5 c 0,0.554 0.446,1 1,1 l 11,0 8,-8 0,-0.5 z"/>
 <path style="fill:#325f78" d="M 21,11 21,4 C 21,3.446 20.554,3 20,3 L 2,3 C 1.446,3 1,3.446 1,4 l 0,14 c 0,0.554 0.446,1 1,1 l 11,0 z"/>
 <path style="opacity:0.2" d="M 19,11.906 19,5 3,5 3,17 13.909,17 Z"/>
 <path style="opacity:0.1;fill:#8b9cbe" d="M 2,3 C 1.446,3 1,3.446 1,4 l 0,0.5 c 0,-0.554 0.446,-1 1,-1 l 18,0 c 0.554,0 1,0.446 1,1 L 21,4 C 21,3.446 20.554,3 20,3 L 2,3 Z"/>
 <path style="fill:#56839e" d="m 21,11 -7,0 c -0.5523,0 -1,0.44772 -1,1 l 0,7 z"/>
 <path style="opacity:0.1;fill:#8b9cbe" d="m 14,11 c -0.5523,0 -1,0.44772 -1,1 l 0,0.5 c 0,-0.5523 0.44772,-1 1,-1 l 6.5,0 0.5,-0.5 -7,0 z"/>
</svg>
