<svg xmlns="http://www.w3.org/2000/svg" width="22" height="22" version="1">
 <rect style="opacity:0.2" width="20" height="20" x="1" y="1.5" rx="6" ry="6"/>
 <rect style="fill:#b2bfd9" width="20" height="20" x="1" y="1" rx="6" ry="6"/>
 <path style="opacity:0.2;fill:#8b9cbe" d="M 7,1 C 3.676,1 1,3.676 1,7 v 0.5 c 0,-3.324 2.676,-6 6,-6 h 8 c 3.324,0 6,2.676 6,6 V 7 C 21,3.676 18.324,1 15,1 Z"/>
 <path style="fill:#3a9bff" d="m 4.29833,14.052805 9.531691,-7.478845 0.952698,2.815571 0.83089,1.34117 -6.9842531,4.544327 -1.0136007,0.483723 -1.0548886,-0.100429 0.4503114,0.318244 z"/>
 <circle style="fill:#3a9bff" cx="11" cy="9" r="4"/>
 <circle style="fill:#3a9bff" cx="6.5" cy="12.5" r="3.5"/>
 <path style="fill:none;stroke:#3a9bff;stroke-width:2;stroke-linecap:round;stroke-linejoin:round" d="m 14.591569,10.172564 a 2.5,2.5 0 0 1 3.029018,1.005663 2.5,2.5 0 0 1 -0.42763,3.162823 2.5,2.5 0 0 1 -3.187323,0.165181"/>
 <path style="fill:none;stroke:#fe6080;stroke-width:2;stroke-linecap:round;stroke-linejoin:round" d="M 13.958857,9.4951428 A 3,3 0 0 1 11.003927,11.999997 3,3 0 0 1 8.0424496,9.5028873"/>
 <circle style="opacity:0.2" cx="6.5" cy="13" r="1.5"/>
 <circle style="fill:#8b9cbe" cx="6.5" cy="12.5" r="1.5"/>
 <circle style="opacity:0.2" cx="11" cy="9.5" r="2"/>
 <circle style="fill:#8b9cbe" cx="11" cy="9" r="2"/>
 <circle style="opacity:0.2" cx="15.5" cy="13" r="1.5"/>
 <circle style="fill:#8b9cbe" cx="15.5" cy="12.5" r="1.5"/>
 <rect style="fill:#fe6282" width="4" height="1" x="7" y="20"/>
 <rect style="fill:#3a9bff" width="4" height="1" x="11" y="20"/>
</svg>
