<svg width="22" height="22" version="1.1" xmlns="http://www.w3.org/2000/svg">
 <path d="m14.113281 1.5c-0.101435 0.00172-0.245599 0.010934-0.419922 0.042969-0.348644 0.06407-0.835854 0.2155936-1.410156 0.5566406-0.04017 0.023856-0.07906 0.054129-0.119141 0.080078-0.376384-0.1142738-0.765314-0.1796876-1.164062-0.1796876-3 0-5.5 3-5.5 6.5 0 2.4037 3.5 5.5 3.5 6 0 0.278171 0.04697 0.644509 0.140625 1.023438-0.8703343-0.43923-1.5799347-1.023438-2.640625-1.023438-0.8400758 0-1.3816009 0.29115-1.7519531 0.666016-0.2685152-0.402129-0.7261688-0.666016-1.2480469-0.666016-0.831 0-1.5 0.669-1.5 1.5v5c0 0.277 0.223 0.5 0.5 0.5h17c0.277 0 0.5-0.223 0.5-0.5v-5c0-0.831-0.669-1.5-1.5-1.5-0.521878 0-0.979532 0.263887-1.248047 0.666016-0.370352-0.374866-0.911877-0.666016-1.751953-0.666016-1.06069 0-1.770291 0.584208-2.640625 1.023438 0.093656-0.378929 0.140625-0.745267 0.140625-1.023438 0-0.5 3.5-3.5963 3.5-6 0-2.3830547-1.579913-5.0748609-3.732422-6.0839844 0.411926-0.2134605 0.770027-0.3376795 1.015625-0.3828125 0.293222-0.053884 0.429688-0.0332031 0.429688-0.0332031a0.24985745 0.24988811 0 1 0 0.06055-0.4960938s-0.05872-0.00563-0.160157-0.00391z" style="opacity:.2"/>
 <path d="m3.5 14c-0.831 0-1.5 0.669-1.5 1.5v5c0 0.277 0.223 0.5 0.5 0.5h2c0.277 0 0.5-0.223 0.5-0.5v-5c0-0.831-0.669-1.5-1.5-1.5zm15 0c-0.831 0-1.5 0.669-1.5 1.5v5c0 0.277 0.223 0.5 0.5 0.5h2c0.277 0 0.5-0.223 0.5-0.5v-5c0-0.831-0.669-1.5-1.5-1.5z" style="fill:#14d014"/>
 <path d="m3.5 14c-0.831 0-1.5 0.669-1.5 1.5v0.5c0-0.831 0.669-1.5 1.5-1.5s1.5 0.669 1.5 1.5v-0.5c0-0.831-0.669-1.5-1.5-1.5zm15 0c-0.831 0-1.5 0.669-1.5 1.5v0.5c0-0.831 0.669-1.5 1.5-1.5s1.5 0.669 1.5 1.5v-0.5c0-0.831-0.669-1.5-1.5-1.5z" style="fill:#8b9cbe;opacity:.1"/>
 <path d="m11 1.5c-3 0-5.5 3-5.5 6.5 0 2.4037 3.5 5.5 3.5 6 0 0.971825 0.5 3 2 3s2-2.028175 2-3c0-0.5 3.5-3.5963 3.5-6 0-3-2.5-6.5-5.5-6.5z" style="fill:#d2b575"/>
 <path d="m6.5 14c-2.5 0-2.5 2.5-2.5 2.5v4c0 0.277 0.223 0.5 0.5 0.5h13c0.277 0 0.507911-0.223113 0.5-0.5v-4s0-2.5-2.5-2.5c-1.699673 0-2.5 1.5-4.5 1.5s-2.800327-1.5-4.5-1.5z" style="fill:#37e137"/>
 <path d="M 11,1.5 C 8,1.5 5.5,4.5 5.5,8 5.5,8.056523 5.511845,8.1146285 5.515625,8.171875 5.6664023,4.8151966 8.0946055,2 11,2 13.897206,2 16.321189,5.2636921 16.484375,8.1894531 16.48895,8.1263214 16.5,8.0622595 16.5,8 16.5,5 14,1.5 11,1.5 Z" style="fill:#8b9cbe;opacity:.2"/>
 <path d="m12.714844 1.890625c-0.142947 0.066997-0.274622 0.1157391-0.431641 0.2089844-0.597926 0.3550765-1.207031 0.9707031-1.207031 0.9707031a0.24995808 0.24998876 0 1 0 0.353516 0.3535156s0.603821-0.5974233 1.107421-0.8964843c0.268515-0.1594567 0.509417-0.2694149 0.722657-0.3476563-0.176981-0.1084167-0.358911-0.2046264-0.544922-0.2890625zm-4.714844 9.609375s2 2 3 2 3-2 3-2-1.5 1-3 1-3-1-3-1z" style="opacity:.1"/>
 <path d="m14.272784 1.004864s-0.231419-0.025135-0.580065 0.038935c-0.348644 0.06407-0.835953 0.2147535-1.410255 0.5558005-0.597926 0.3550765-1.205872 0.9714345-1.205872 0.9714345a0.24917987 0.24921045 0 1 0 0.352322 0.352364s0.604945-0.59645 1.108545-0.895511c0.52368-0.3109855 0.952552-0.4405925 1.245775-0.4944775 0.293222-0.053884 0.429207-0.03407 0.429207-0.03407a0.24917987 0.24921045 0 1 0 0.06034-0.4944775z" style="fill:#684322"/>
 <path d="m8.5 4.5a1.5 1.5 0 0 0-1.5 1.5 1.5 1.5 0 0 0 1.5 1.5 1.5 1.5 0 0 0 1.5-1.5 1.5 1.5 0 0 0-1.5-1.5zm5 0a1.5 1.5 0 0 0-1.5 1.5 1.5 1.5 0 0 0 1.5 1.5 1.5 1.5 0 0 0 1.5-1.5 1.5 1.5 0 0 0-1.5-1.5zm-2.5 2s-1 2.5-1 3.5c0 0.471405 0 1.5 1 1.5s1-1.028595 1-1.5c0-1-1-3.5-1-3.5z" style="opacity:.2"/>
 <path d="m11 6s1 2.5 1 3.5c0 0.471405 0 1.5-1 1.5s-1-1.028595-1-1.5c0-1 1-3.5 1-3.5z" style="fill:#e7cf9c"/>
 <path d="M 8.5,4 A 1.5,1.5 0 0 0 7,5.5 1.5,1.5 0 0 0 8.5,7 1.5,1.5 0 0 0 10,5.5 1.5,1.5 0 0 0 8.5,4 Z m 5,0 A 1.5,1.5 0 0 0 12,5.5 1.5,1.5 0 0 0 13.5,7 1.5,1.5 0 0 0 15,5.5 1.5,1.5 0 0 0 13.5,4 Z" style="fill-opacity:.98974358;fill:#8b9cbe"/>
 <path d="m11 12c-1.5 0-3-1-3-1s2 2 3 2 3-2 3-2-1.5 1-3 1z" style="fill:#e43a31"/>
 <path d="M 8.5,5 A 0.5,0.5 0 0 0 8,5.5 0.5,0.5 0 0 0 8.5,6 0.5,0.5 0 0 0 9,5.5 0.5,0.5 0 0 0 8.5,5 Z m 5,0 A 0.5,0.5 0 0 0 13,5.5 0.5,0.5 0 0 0 13.5,6 0.5,0.5 0 0 0 14,5.5 0.5,0.5 0 0 0 13.5,5 Z" style="fill:#8b9cbe"/>
 <path d="m6.5 14c-2.5 0-2.5 2.5-2.5 2.5v0.5s0-2.5 2.5-2.5c1.699673 0 2.5 1.5 4.5 1.5s2.800327-1.5 4.5-1.5c2.5 0 2.5 2.5 2.5 2.5v-0.5s0-2.5-2.5-2.5c-1.699673 0-2.5 1.5-4.5 1.5s-2.800327-1.5-4.5-1.5z" style="fill:#8b9cbe;opacity:.2"/>
</svg>
