<svg xmlns="http://www.w3.org/2000/svg" width="22" height="22" version="1">
 <rect style="opacity:0.2" width="20" height="20" x="1" y="1.5" rx="6" ry="6"/>
 <rect style="fill:#b2bfd9" width="20" height="20" x="1" y="1" rx="6" ry="6"/>
 <path style="opacity:0.2;fill:#8b9cbe" d="M 6.9999998,0.9999999 C 3.6759999,0.9999999 1,3.6759998 1,6.9999997 v 0.5 C 1,4.1759998 3.6759999,1.4999999 6.9999998,1.4999999 H 15 c 3.324,0 6,2.6759999 6,5.9999998 v -0.5 C 21,3.6759998 18.324,0.9999999 15,0.9999999 Z"/>
 <path style="opacity:0.1" d="m 11.147462,5.5146502 c -0.129197,-0.00485 -0.260477,0.00125 -0.390625,0.00195 0.683777,0.6651615 0.79963,1.7642455 0.27539,2.5820314 -0.08138,0.1269535 -0.177581,0.237663 -0.279297,0.34082 -0.01327,0.01412 -0.02438,0.030225 -0.03809,0.043945 2.650463,-0.031435 5.034929,1.1321034 5.564453,3.8237114 3.5e-4,0.0014 2.76e-4,0.0027 0.001,0.0049 l 0.0049,-0.001 c 0.156394,0.799215 0.940824,1.320267 1.748047,1.161133 0.723714,-0.142457 1.221753,-0.783053 1.205078,-1.490234 -0.01462,-0.08249 -0.02567,-0.164487 -0.04199,-0.248047 C 18.417578,7.7732731 15.01372,5.6592497 11.147505,5.5146402 Z"/>
 <path style="fill:#4062d0" d="m 11.147462,5.0146493 c -0.129197,-0.00485 -0.260477,0.00125 -0.390625,0.00195 0.683777,0.6651614 0.79963,1.7642454 0.27539,2.5820314 -0.08138,0.1269535 -0.177581,0.2376629 -0.279297,0.3408199 -0.01327,0.01412 -0.02438,0.030225 -0.03809,0.043945 2.650463,-0.031435 5.034929,1.1321034 5.564453,3.8237114 3.5e-4,0.0014 2.76e-4,0.0026 0.001,0.0049 l 0.0049,-10e-4 c 0.156394,0.799215 0.940824,1.320267 1.748047,1.161133 0.723714,-0.142457 1.221753,-0.783053 1.205078,-1.490234 -0.01462,-0.08249 -0.02567,-0.164487 -0.04199,-0.248047 C 18.417578,7.2732721 15.01372,5.1592488 11.147505,5.0146393 Z"/>
 <path style="opacity:0.1" d="M 10.713868,8.4775406 C 10.193459,8.9786026 9.4551606,9.183101 8.7558597,9.053713 8.4702972,9.000876 8.1918097,8.8929846 7.9384767,8.7285171 7.8709397,8.6846721 7.8064222,8.6373476 7.7451173,8.5878921 7.7245123,11.194872 5.8790453,14.024658 3.2236332,14.547365 c -0.041663,0.0084 -0.084608,0.01314 -0.1269531,0.02149 -0.7455854,0.197324 -1.220223,0.949794 -1.0683593,1.72461 0.1493541,0.755977 0.8424834,1.268628 1.5859374,1.201171 0.061171,-0.01039 0.1220806,-0.02014 0.1835938,-0.03125 4.1085987,-0.808352 6.947936,-4.943229 6.916016,-8.9858404 z"/>
 <path style="opacity:0.1;fill-rule:evenodd" transform="scale(-1)" d="m -9.3010492,-6.8479385 c 0.090395,0.066413 -0.044925,0.154617 -0.1103827,0.1502431 -0.1773852,-0.011853 -0.2385728,-0.2273811 -0.1901037,-0.3710084 0.0867,-0.2569157 0.4021321,-0.3337026 0.6316343,-0.2299643 0.3368038,0.1522402 0.4311973,0.5790894 0.2698248,0.8922602 -0.2150841,0.4174073 -0.7568084,0.5296722 -1.152886,0.3096853 -0.4984235,-0.2768311 -0.6286485,-0.9348852 -0.3495455,-1.4135119 0.3380307,-0.579681 1.113162,-0.7279146 1.6741373,-0.3894063 0.66109,0.3989203 0.8273622,1.2915644 0.4292669,1.9347635 -0.4596167,0.7425989 -1.4700497,0.9269307 -2.1953892,0.4691274 -0.824177,-0.5201852 -1.026584,-1.6485936 -0.508988,-2.4560152 0.580665,-0.905805 1.8271802,-1.126299 2.716641,-0.5488484 0.98747,0.6410795 1.22606,2.005799 0.5887089,2.9772668"/>
 <path style="fill:#4d8a17" d="m 10.713868,7.9775396 c -0.520409,0.501062 -1.2587074,0.70556 -1.9580083,0.576172 -0.2855625,-0.052836 -0.56405,-0.160728 -0.817383,-0.3251955 -0.067537,-0.043845 -0.1320545,-0.091169 -0.1933594,-0.140625 -0.020605,2.6069799 -1.866072,5.4367659 -4.5214841,5.9594729 -0.041663,0.0084 -0.084608,0.01314 -0.1269531,0.02149 -0.7455854,0.197324 -1.220223,0.949794 -1.0683593,1.72461 0.1493541,0.755977 0.8424834,1.268628 1.5859374,1.201171 0.061171,-0.01039 0.1220806,-0.02014 0.1835938,-0.03125 4.1085987,-0.808352 6.947936,-4.943229 6.916016,-8.9858404 z"/>
 <path style="opacity:0.1" class="st0" d="m 8.2336417,16.472393 c 0.7976729,0.157021 1.5769699,-0.371787 1.7357089,-1.178848 0.1459164,-0.74136 -0.282798,-1.46366 -0.9727835,-1.697128 -0.06674,-0.0097 -0.133018,-0.02153 -0.19872,-0.03403 C 6.1213768,13.035616 4.9644749,10.674619 4.9735024,8.0425352 4.5427084,8.4809921 3.903413,8.7012801 3.2530505,8.5727036 2.7156066,8.4671291 2.2768631,8.1433442 2.0072088,7.7132317 1.8362885,11.868011 4.0208604,15.652508 8.2246502,16.478949 c 0.0017,7e-4 0.00485,7e-4 0.0076,7e-4 z"/>
 <path style="fill:#06aff2" class="st0" d="m 8.2336417,15.972392 c 0.7976729,0.157021 1.5769699,-0.371787 1.7357089,-1.178848 0.1459164,-0.74136 -0.282798,-1.46366 -0.9727835,-1.697128 -0.06674,-0.0097 -0.133018,-0.02153 -0.19872,-0.03404 C 6.1213768,12.535615 4.9644749,10.174618 4.9735024,7.5425342 4.5427084,7.9809912 3.903413,8.2012792 3.2530505,8.0727027 2.7156066,7.9671282 2.2768631,7.6433432 2.0072088,7.2132307 1.8362885,11.36801 4.0208604,15.152507 8.2246502,15.978948 c 0.0017,7e-4 0.00485,7e-4 0.0076,7e-4 z"/>
 <path style="opacity:0.1;fill-rule:evenodd" d="m 12.772528,17.498854 c 0.112994,0.08302 -0.05616,0.193271 -0.137979,0.187804 -0.221731,-0.01482 -0.298216,-0.284227 -0.237629,-0.463761 0.108374,-0.321145 0.502665,-0.417128 0.789543,-0.287455 0.421004,0.1903 0.538996,0.723862 0.337281,1.115325 -0.268855,0.521759 -0.946011,0.66209 -1.441108,0.387107 -0.623029,-0.346039 -0.785811,-1.168607 -0.436932,-1.76689 0.422539,-0.724602 1.391453,-0.909894 2.092672,-0.486758 0.826363,0.49865 1.034203,1.614455 0.536584,2.418454 -0.574521,0.928249 -1.837563,1.158664 -2.744237,0.58641 -1.030222,-0.650232 -1.283231,-2.060743 -0.636235,-3.07002 0.725831,-1.132256 2.283975,-1.407874 3.395801,-0.68606 1.234338,0.801349 1.532576,2.507249 0.735887,3.721584"/>
 <path style="opacity:0.1" class="st2" d="m 18.390157,6.5865733 c 0.742078,-0.065812 1.433426,0.4457841 1.581452,1.2007205 0.15249,0.7770059 -0.324179,1.5312422 -1.07213,1.7272042 -0.02364,0.0039 -0.04625,0.0064 -0.06878,0.01093 -2.678618,0.527 -4.537318,3.391967 -4.524137,6.026685 -0.432188,-0.426528 -1.063102,-0.639273 -1.705152,-0.513027 -0.546795,0.106687 -0.992169,0.440396 -1.259027,0.880915 -0.193849,-4.172016 2.695997,-8.4820487 6.91469,-9.3113412 0.04414,-0.00851 0.0886,-0.013845 0.133088,-0.022085"/>
 <path style="fill:#00b7b7" class="st2" d="m 18.390157,6.0865724 c 0.742078,-0.065812 1.433426,0.4457839 1.581452,1.2007204 0.15249,0.777006 -0.324179,1.5312419 -1.07213,1.7272042 -0.02364,0.0039 -0.04625,0.0064 -0.06878,0.01093 -2.678618,0.527 -4.537318,3.391967 -4.524137,6.026685 C 13.874374,14.625584 13.24346,14.612754 12.60141,14.739 c -0.546795,0.106687 -0.992169,0.240481 -1.259027,0.681 -0.193849,-4.172015 2.695997,-8.4820486 6.91469,-9.3113411 0.04414,-0.00851 0.0886,-0.013845 0.133088,-0.022085"/>
 <path style="fill:#4062d0;fill-rule:evenodd" d="m 12.772528,16.998854 c 0.112994,0.08302 -0.05616,0.193271 -0.137979,0.187804 -0.221731,-0.01482 -0.298216,-0.284227 -0.237629,-0.463761 0.108374,-0.321145 0.502665,-0.417128 0.789543,-0.287455 0.421004,0.1903 0.538996,0.723862 0.337281,1.115325 -0.268855,0.521759 -0.946011,0.66209 -1.441108,0.387107 -0.623029,-0.346039 -0.785811,-1.168607 -0.436932,-1.76689 0.422539,-0.724602 1.391453,-0.909894 2.092672,-0.486758 0.826363,0.49865 1.034203,1.614455 0.536584,2.418454 -0.574521,0.928249 -1.837563,1.158664 -2.744237,0.58641 -1.030222,-0.650232 -1.283231,-2.060743 -0.636235,-3.07002 0.725831,-1.132256 2.283975,-1.407874 3.395801,-0.68606 1.234338,0.801349 1.532576,2.507249 0.735887,3.721584"/>
 <path style="fill:#06aff2;fill-rule:evenodd" transform="scale(-1)" d="m -9.3010492,-6.3479376 c 0.090395,0.066413 -0.044925,0.1546171 -0.1103827,0.1502432 -0.1773852,-0.011853 -0.2385728,-0.2273811 -0.1901037,-0.3710085 0.0867,-0.2569157 0.4021321,-0.3337026 0.6316343,-0.2299642 0.3368038,0.1522402 0.4311973,0.5790894 0.2698248,0.8922601 -0.2150841,0.4174074 -0.7568084,0.5296722 -1.152886,0.3096853 -0.4984235,-0.2768311 -0.6286485,-0.9348851 -0.3495455,-1.4135118 0.3380307,-0.579681 1.113162,-0.7279147 1.6741373,-0.3894064 0.66109,0.3989204 0.8273622,1.2915644 0.4292669,1.9347635 -0.4596167,0.7425989 -1.4700497,0.9269308 -2.1953892,0.4691275 -0.824177,-0.5201853 -1.026584,-1.6485936 -0.508988,-2.4560152 0.580665,-0.905805 1.8271802,-1.126299 2.716641,-0.5488485 0.98747,0.6410796 1.22606,2.0057991 0.5887089,2.9772669"/>
 <path style="opacity:0.1;fill-rule:evenodd" transform="scale(1,-1)" d="m 3.4857566,-6.620285 c 0.063257,0.046474 -0.031438,0.1081977 -0.077243,0.105137 C 3.2843828,-6.5234424 3.241565,-6.6742645 3.2754826,-6.774772 3.3361533,-6.9545561 3.5568862,-7.00829 3.717487,-6.9356961 3.9531752,-6.8291616 4.0192298,-6.5304615 3.9063047,-6.3113112 3.7557934,-6.0192183 3.3767061,-5.9406577 3.0995393,-6.0946 2.7507533,-6.2883205 2.6596242,-6.7488129 2.8549345,-7.0837458 c 0.236547,-0.4056486 0.7789676,-0.5093793 1.1715263,-0.2724983 0.4626169,0.279156 0.5789707,0.9038095 0.300392,1.3539067 -0.3216302,0.5196551 -1.0287099,0.6486466 -1.5362873,0.3282855 -0.5767417,-0.3640147 -0.7183819,-1.1536511 -0.356179,-1.7186677 0.4063369,-0.6338633 1.2786222,-0.7881603 1.9010482,-0.3840726 0.6910107,0.448614 0.857971,1.403616 0.4119661,2.0834287"/>
 <path style="fill:#00b7b7;fill-rule:evenodd" transform="scale(1,-1)" d="m 3.4857566,-6.1202841 c 0.063257,0.046474 -0.031438,0.1081978 -0.077243,0.105137 -0.1241304,-0.00829 -0.1669482,-0.1591165 -0.1330306,-0.2596239 0.060671,-0.1797842 0.2814036,-0.233518 0.4420044,-0.1609241 0.2356882,0.1065345 0.3017428,0.4052346 0.1888177,0.6243849 -0.1505113,0.2920928 -0.5295986,0.3706534 -0.8067654,0.2167112 -0.348786,-0.1937206 -0.4399151,-0.654213 -0.2446048,-0.9891458 0.236547,-0.4056486 0.7789676,-0.5093794 1.1715263,-0.2724984 0.4626169,0.2791561 0.5789707,0.9038096 0.300392,1.3539068 -0.3216302,0.519655 -1.0287099,0.6486466 -1.5362873,0.3282855 -0.5767417,-0.3640147 -0.7183819,-1.1536511 -0.356179,-1.7186678 0.4063369,-0.6338632 1.2786222,-0.7881603 1.9010482,-0.3840726 0.6910107,0.448614 0.857971,1.403616 0.4119661,2.0834287"/>
</svg>
