<svg width="22" height="22" version="1.1" xmlns="http://www.w3.org/2000/svg">
 <path d="m4.4042969 19.5c0.8579377 1.19767 1.8028774 2 2.5957031 2 2 0 2.6256315-1 4-1 1.374369 0 2 1 4 1 0.791994 0 1.730605-0.801509 2.582031-2z" style="opacity:.2"/>
 <path d="m4.4042969 19c0.8579377 1.19767 1.8028774 2 2.5957031 2 2 0 2.6256315-1 4-1 1.374369 0 2 1 4 1 0.791994 0 1.730605-0.801509 2.582031-2h-13.177734z" style="fill:#009bda"/>
 <path d="m2.8320312 16.5c0.4255871 1.119229 0.9691641 2.158078 1.5722657 3h13.177734c0.599722-0.844185 1.156065-1.879703 1.582031-3z" style="opacity:.2"/>
 <path d="m2.8320312 16c0.4255871 1.119229 0.9691641 2.158078 1.5722657 3h13.177734c0.599722-0.844185 1.156065-1.879703 1.582031-3h-16.332031z" style="fill:#953c96"/>
 <path d="m2.0644531 13.5c0.1128627 1.002292 0.3963564 2.023743 0.7675781 3h16.332031c0.01056-0.02777 0.02281-0.05418 0.0332-0.08203a4 4 0 0 1-3.066403-2.91797z" style="opacity:.2"/>
 <path d="m2.0644531 13c0.1128627 1.002292 0.3963564 2.023743 0.7675781 3h16.332031c0.010557-0.027765 0.022806-0.05418 0.033204-0.082031a4 4 0 0 1-3.066407-2.917969h-14.066406z" style="fill:#de393d"/>
 <path d="M 2.1972656,10.5 C 2.0685805,11.099635 2,11.765488 2,12.5 c 0,0.327418 0.026446,0.662473 0.064453,1 H 16.130859 A 4,4 0 0 1 16,12.5 a 4,4 0 0 1 0.542969,-2 z" style="opacity:.2"/>
 <path d="m2.1972656 10c-0.1286851 0.599635-0.1972656 1.265488-0.1972656 2 0 0.327418 0.026446 0.662473 0.0644531 1h14.066406a4 4 0 0 1-0.130859-1 4 4 0 0 1 0.542969-2h-14.345703z" style="fill:#f4811e"/>
 <path d="m3.0019531 8.5c-0.3627247 0.5527906-0.6367712 1.2175593-0.8046875 2h14.345703a4 4 0 0 1 2.457031-1.8671875v-0.1132813c-0.004393-0.0067437-0.009252-0.0128212-0.013672-0.0195312z" style="opacity:.2"/>
 <path d="m3.0019531 8c-0.3627247 0.5527906-0.6367712 1.2175593-0.8046875 2h14.345703a4 4 0 0 1 2.457031-1.8671875v-0.1132813c-0.004393-0.0067437-0.009252-0.0128212-0.013672-0.0195312h-15.984375z" style="fill:#fbb625"/>
 <path d="m15 1.5s-3 0-4 2-1 3-1 3 3 0 4-2 1-3 1-3zm-8 5c-1.7302889 0-3.1249324 0.6693779-3.9980469 2h15.984375c-0.873196-1.3256906-2.259463-2-3.986328-2-2 0-2 1-4 1s-2-1-4-1z" style="opacity:.2"/>
 <path d="m15 1s-3 0-4 2-1 3-1 3 3 0 4-2 1-3 1-3zm-8 5c-1.7302889 0-3.1249324 0.6693779-3.9980469 2h15.984375c-0.873196-1.3256906-2.259463-2-3.986328-2-2 0-2 1-4 1s-2-1-4-1z" style="fill:#60ba45"/>
 <path d="m15 1s-3 0-4 2-1 3-1 3 0.068685-0.005728 0.078125-0.0058594c0.09328-0.476474 0.313418-1.2772261 0.921875-2.4941406 0.95965-1.9193005 3.697357-1.9910158 3.921875-1.9941406 0.060026-0.3066115 0.078125-0.5058594 0.078125-0.5058594zm-8 5c-3 0-5 2-5 6 0 0.096403 0.0102428 0.195488 0.0136719 0.292969 0.0719275-3.8541255 2.0415392-5.792969 4.9863281-5.792969 2 0 2 1 4 1s2-1 4-1c1.593344 0 2.896827 0.5737916 3.775391 1.703125a4 4 0 0 1 0.292968-0.0878906c-0.867213-1.4061612-2.289634-2.1152344-4.068359-2.1152344-2 0-2 1-4 1s-2-1-4-1zm9.009766 6.28125a4 4 0 0 0-0.009766 0.21875 4 4 0 0 0 3.009766 3.869141c0.062093-0.150853 0.130094-0.2974 0.1875-0.451172a4 4 0 0 1-3.1875-3.636719z" style="fill:#8b9cbe;opacity:.2"/>
</svg>
