<svg width="22" height="22" version="1.1" xmlns="http://www.w3.org/2000/svg">
 <path d="M 15.5,2.5 A 2.5,2.5 0 0 0 13,5 2.5,2.5 0 0 0 13.03418,5.4091795 L 9.355469,7.800781 A 5,5 0 0 0 6,6.5 a 5,5 0 0 0 -5,5 5,5 0 0 0 5,5 5,5 0 0 0 3.844727,-1.805664 l 4.170898,2.001953 A 3.5,3.5 0 0 0 14,17 3.5,3.5 0 0 0 17.5,20.5 3.5,3.5 0 0 0 21,17 3.5,3.5 0 0 0 18.235351,13.580078 L 16.928711,7.046875 A 2.5,2.5 0 0 0 18,5 2.5,2.5 0 0 0 15.5,2.5 Z M 14.125977,7.0859375 A 2.5,2.5 0 0 0 14.96875,7.441406 l 1.259765,6.297852 A 3.5,3.5 0 0 0 14.75586,14.833985 L 10.789063,12.929688 A 5,5 0 0 0 11,11.5 5,5 0 0 0 10.539063,9.417969 Z" style="opacity:.2"/>
 <path d="m15.473633 3.5a1.0001 1.0001 0 0 0-0.518555 0.161133l-10 6.5a1.0001 1.0001 0 0 0 0.112305 1.740234l12.5 6a1.0001 1.0001 0 0 0 1.413086-1.097656l-2.5-12.5a1.0001 1.0001 0 0 0-1.006836-0.803711zm-0.665039 2.642578 1.818359 9.088867-9.0898435-4.362304z" style="fill:#353535"/>
 <path d="m15.473633 3.5a1.0001 1.0001 0 0 0-0.518555 0.161133l-1.953125 1.269531a2.5 2.5 0 0 0-0.001953 0.069336 2.5 2.5 0 0 0 0.779297 1.8115235l1.029297-0.6689455 0.264648 1.3203125a2.5 2.5 0 0 0 0.426758 0.0371095 2.5 2.5 0 0 0 1.516601-0.5166015l-0.536132-2.6796875a1.0001 1.0001 0 0 0-1.006836-0.803711zm-6.454102 4.019531-4.064453 2.641602a1.0001 1.0001 0 0 0 0.112305 1.740234l5.050781 2.424805a5 5 0 0 0 0.779297-1.84375l-3.3603515-1.613281 2.8125005-1.828125a5 5 0 0 0-1.330079-1.521485zm8.480469 5.980469a3.5 3.5 0 0 0-1.177735 0.208985l0.304688 1.52246-1.555664-0.746093a3.5 3.5 0 0 0-0.981445 1.74707l3.477539 1.668945a1.0001 1.0001 0 0 0 1.413086-1.097656l-0.639649-3.197265a3.5 3.5 0 0 0-0.84082-0.106446z" style="opacity:.2"/>
 <path d="m15.473633 3.5a1.0001 1.0001 0 0 0-0.518555 0.161133l-10 6.5a1.0001 1.0001 0 0 0-0.421875 1.087891 1.0001 1.0001 0 0 1 0.421875-0.587891l10-6.5a1.0001 1.0001 0 0 1 0.518555-0.161133 1.0001 1.0001 0 0 1 1.006836 0.803711l2.488281 12.441406a1.0001 1.0001 0 0 0 0.01172-0.441406l-2.5-12.5a1.0001 1.0001 0 0 0-1.006837-0.803711zm-7.494141 7.581055-0.4423825 0.288086 9.0898435 4.362304-0.110352-0.552734z" style="fill:#8b9cbe;opacity:.1"/>
 <circle cx="6" cy="11" r="5" style="fill:#fe6501"/>
 <circle cx="15.5" cy="4.5" r="2.5" style="fill:#fe6501"/>
 <circle cx="17.5" cy="16.5" r="3.5" style="fill:#fe6501"/>
 <path d="M 15.5,2 A 2.5,2.5 0 0 0 13,4.5 2.5,2.5 0 0 0 13.01367,4.7578125 2.5,2.5 0 0 1 15.5,2.5 2.5,2.5 0 0 1 17.986328,4.7421875 2.5,2.5 0 0 0 18,4.5 2.5,2.5 0 0 0 15.5,2 Z M 6,6 A 5,5 0 0 0 1,11 5,5 0 0 0 1.0107422,11.207031 5,5 0 0 1 6,6.5 5,5 0 0 1 10.989258,11.292969 5,5 0 0 0 11,11 5,5 0 0 0 6,6 Z m 11.5,7 A 3.5,3.5 0 0 0 14,16.5 3.5,3.5 0 0 0 14.01172,16.729492 3.5,3.5 0 0 1 17.5,13.5 3.5,3.5 0 0 1 20.988281,16.770508 3.5,3.5 0 0 0 21,16.5 3.5,3.5 0 0 0 17.5,13 Z" style="fill:#8b9cbe;opacity:.2"/>
</svg>
