<svg width="22" height="22" version="1.1" xmlns="http://www.w3.org/2000/svg">
 <g transform="translate(-1,-1)">
  <circle cx="12" cy="12.5" r="10" style="opacity:.2"/>
  <circle cx="12" cy="12" r="10" style="fill:#fecd38"/>
  <path d="M 12,2 A 10,10 0 0 0 2,12 10,10 0 0 0 2.01075,12.291 10,10 0 0 1 12,2.5 10,10 0 0 1 21.9895,12.209 10,10 0 0 0 22,12 10,10 0 0 0 12,2 Z" style="fill:#8b9cbe;opacity:.2"/>
  <path d="m12 3.5a9 9 0 0 0-9 9 9 9 0 0 0 9 9 9 9 0 0 0 9-9 9 9 0 0 0-9-9zm0 1a8 8 0 0 1 8 8 8 8 0 0 1-8 8 8 8 0 0 1-8-8 8 8 0 0 1 8-8zm-3.5 5c-2.5 0-3.5 1-3.5 1v1.5s0.5 0 0.5 0.5 0.5 2 2.5 2 2.5-0.5 3-2c0.223607-0.67082 0.5-1 1-1s0.776393 0.32918 1 1c0.5 1.5 1 2 3 2s2.5-1.5 2.5-2 0.5-0.5 0.5-0.5v-1.5s-0.618535-0.7993407-2.066406-0.9335938l-0.433594 0.5332028 0.5 0.400391-2 2 0.572266-1.460938-0.572266-0.539062 0.5-1c-1.5 0-2.5 1-3.5 1s-2-1-3.5-1zm6.583984 5.722656s-0.226784 0.338111-0.5625 0.673828c-0.335716 0.335716-0.771484 0.603516-1.021484 0.603516h-1.5v1h1.5c0.75 0 1.314233-0.482201 1.728516-0.896484 0.414285-0.414284 0.6875-0.826172 0.6875-0.826172z" style="opacity:.1"/>
  <path d="m12 3a9 9 0 0 0-9 9 9 9 0 0 0 9 9 9 9 0 0 0 9-9 9 9 0 0 0-9-9zm0 1a8 8 0 0 1 8 8 8 8 0 0 1-8 8 8 8 0 0 1-8-8 8 8 0 0 1 8-8zm-3.5 5c-2.5 0-3.5 1-3.5 1v1.5s0.5 0 0.5 0.5 0.5 2 2.5 2 2.5-0.5 3-2c0.223607-0.67082 0.5-1 1-1s0.776393 0.32918 1 1c0.5 1.5 1 2 3 2s2.5-1.5 2.5-2 0.5-0.5 0.5-0.5v-1.5s-0.618535-0.7993407-2.066406-0.9335938l-0.433594 0.5332032 0.5 0.4003906-2 2 0.572266-1.460938-0.572266-0.539062 0.5-1c-1.5 0-2.5 1-3.5 1s-2-1-3.5-1zm6.583984 5.722656s-0.226784 0.338111-0.5625 0.673828c-0.335716 0.335716-0.771484 0.603516-1.021484 0.603516h-1.5v1h1.5c0.75 0 1.314233-0.482201 1.728516-0.896484 0.414285-0.414284 0.6875-0.826172 0.6875-0.826172z" style="fill:#4f4f4f"/>
 </g>
</svg>
