<svg width="22" height="22" version="1.1" xmlns="http://www.w3.org/2000/svg">
 <path d="m1.4902344 1.4941406a0.50005 0.50005 0 0 0-0.3496094 0.859375l2.1386719 2.1386719c-0.1732818 0.2963558-0.2792969 0.6383682-0.2792969 1.0078125v12c0 0.178195 0.030888 0.34751 0.074219 0.511719l-1.78125 1.78125a1.0001 1.0001 0 1 0 1.4140624 1.414062l1.78125-1.78125c0.1642088 0.04333 0.3335241 0.07422 0.5117186 0.07422h11.999999c0.176674 0 0.344863-0.02965 0.507812-0.07227l1.779297 1.779297a1.0001 1.0001 0 1 0 1.414063-1.414062l-1.777344-1.77734c0.04405-0.165466 0.07617-0.33591 0.07617-0.515625v-12.000001c0-0.3710095-0.106604-0.7145254-0.28125-1.0117188l2.134766-2.1347656a0.50005 0.50005 0 0 0-0.363282-0.8574218 0.50005 0.50005 0 0 0-0.34375 0.1503906l-2.134763 2.1347656c-0.297522-0.1751843-0.640093-0.28125-1.011719-0.28125h-11.999999c-0.3731908 0-0.7172719 0.1066484-1.015625 0.2832031l-2.1367188-2.1367187a0.50005 0.50005 0 0 0-0.3574218-0.1523438z" style="opacity:.2"/>
 <rect x="2.9999998" y="3.0000002" width="16" height="16" rx="0" ry="2" style="fill:#236782"/>
 <path d="m5 3c-1.108 0-2 0.892-2 2v0.5c0-1.108 0.892-2 2-2h11.999999c1.108 0 2 0.892 2 2v-0.5c0-1.108-0.892-2-2-2z" style="fill:#8b9cbe;opacity:.1"/>
 <path d="m5 5.5v2l5.999999 2 6-2v-2z" style="opacity:.2"/>
 <path d="m5 5v2l5.999999 2 6-2v-2z" style="fill:#8b9cbe"/>
 <path d="m18.302733 3.4902344-7.30664 7.3066406-7.3027336-7.3027344c-0.2579027 0.2238508-0.4560494 0.5107315-0.5722656 0.8398438l7.1679682 7.1699216-4.5195308 4.519532a1.0001 1.0001 0 0 0-0.2890624-0.0332 1.0001 1.0001 0 0 0-0.6875 0.302735l-1.5839844 1.583984c0.3137902 0.641101 0.9559153 1.08578 1.7128906 1.115235l1.2851562-1.285157a1.0001 1.0001 0 0 0 0.2675782-0.974609l4.5214836-4.521484 4.523437 4.521484a1.0001 1.0001 0 0 0 0.267578 0.974609l1.285157 1.285157c0.757966-0.0273 1.401471-0.470673 1.716796-1.111329l-1.58789-1.58789a1.0001 1.0001 0 0 0-0.716797-0.302735 1.0001 1.0001 0 0 0-0.257813 0.03516l-4.523437-4.521492 7.173828-7.1738279c-0.117047-0.3291916-0.315371-0.6164144-0.574219-0.8398437z" style="opacity:.2"/>
 <path d="m20.490233 0.99609384a0.50005 0.50005 0 0 0-0.34375 0.15039056l-18.499999 18.5a0.50005 0.50005 0 1 0 0.7070312 0.707032l18.499999-18.5a0.50005 0.50005 0 0 0-0.363282-0.85742176z" style="fill:#df3131"/>
 <path d="m5.4804688 15.490234a1.0001 1.0001 0 0 0-0.6875 0.302735l-3.5 3.5a1.0001 1.0001 0 1 0 1.4140624 1.414062l3.5-3.5a1.0001 1.0001 0 0 0-0.7265624-1.716797z" style="fill:#4f4f4f"/>
 <path d="m1.4902344 0.99414064a0.50005 0.50005 0 0 0-0.3496094 0.85937496l18.499999 18.5a0.50005 0.50005 0 1 0 0.707031-0.707032l-18.499999-18.5a0.50005 0.50005 0 0 0-0.3574218-0.15234376z" style="fill:#2d96d8"/>
 <path d="m16.484374 15.490234a1.0001 1.0001 0 0 0-0.697266 1.716797l3.5 3.5a1.0001 1.0001 0 1 0 1.414063-1.414062l-3.5-3.5a1.0001 1.0001 0 0 0-0.716797-0.302735z" style="fill:#4f4f4f"/>
 <path d="m5.4804688 15.490234a1.0001 1.0001 0 0 0-0.6875 0.302735l-3.5 3.5a1.0001 1.0001 0 0 0-0.2753907 0.96875 1.0001 1.0001 0 0 1 0.2753907-0.46875l3.5-3.5a1.0001 1.0001 0 0 1 0.6875-0.302735 1.0001 1.0001 0 0 1 0.9960937 0.748047 1.0001 1.0001 0 0 0-0.9960937-1.248047zm11.003905 0a1.0001 1.0001 0 0 0-0.966797 1.25 1.0001 1.0001 0 0 1 0.966797-0.75 1.0001 1.0001 0 0 1 0.716797 0.302735l3.5 3.5a1.0001 1.0001 0 0 1 0.27539 0.470703 1.0001 1.0001 0 0 0-0.27539-0.970703l-3.5-3.5a1.0001 1.0001 0 0 0-0.716797-0.302735z" style="fill:#8b9cbe;opacity:.1"/>
</svg>
