<svg xmlns="http://www.w3.org/2000/svg" width="22" height="22" version="1">
 <rect style="opacity:0.2" width="20" height="18" x="1" y="1.5" rx=".952" ry="1"/>
 <rect style="fill:#2f8c9f" width="20" height="18" x="1" y="1" rx=".952" ry="1"/>
 <path style="opacity:0.3" d="m 1,6 v 12 c 0,0.554 0.425506,1 0.953125,1 h 18.09375 C 20.574494,19 21,18.554 21,18 V 6 Z"/>
 <path style="opacity:0.2" d="M 17,2.5000001 18.5,2.5 H 20 L 19.25,3.7500001 18.5,4.9999998 17.75,3.75 Z"/>
 <path style="fill:#70cbde" d="M 17,2.0000001 18.5,2 l 1.5,10e-8 -0.75,1.25 L 18.5,4.4999998 17.75,3.25 Z"/>
 <circle style="fill:#17191e" cx="3.5" cy="3.5" r="1.5"/>
 <path style="opacity:0.2" d="M 8,7.499961 V 16.5 h 1.564453 l 0.34375,-0.90918 h 0.136719 c 0.201307,0.233766 0.457444,0.446243 0.768555,0.636719 0.320261,0.181818 0.754691,0.272461 1.303711,0.272461 0.860131,0 1.556194,-0.312171 2.086914,-0.935547 C 14.734821,14.941077 15,14.523606 15,13.311485 15,12.108021 14.739342,11.04925 14.217774,10.434532 13.696205,9.811155 13.014681,9.498985 12.172852,9.498985 c -0.539869,0 -0.979797,0.104708 -1.31836,0.3125 -0.338562,0.199134 -0.608263,0.445862 -0.80957,0.740234 h -0.08203 c 0.0183,-0.147186 0.03639,-0.351588 0.05469,-0.611329 0.0183,-0.25974 0.02735,-0.523593 0.02735,-0.791991 V 7.499961 Z m 3.581055,3.5 c 0.44976,0 0.804126,0.189106 1.0625,0.566406 0.267943,0.368098 0.401367,0.920054 0.401367,1.65625 0,0.736196 -0.129322,0.8016 -0.387695,1.197305 C 12.398854,14.806424 12.049566,15 11.609375,15 11.016073,15 10.604665,14.806424 10.375,14.419922 10.154905,14.024217 10.044922,13.963282 10.044922,13.236289 v -0.220703 c 0.0096,-0.671779 0.12971,-1.173595 0.359375,-1.504883 0.229665,-0.340491 0.621733,-0.510742 1.176758,-0.510742 z"/>
 <path style="fill:#8b9cbe" d="m 8,7 v 9.000039 h 1.564453 l 0.34375,-0.90918 h 0.136719 c 0.201307,0.233766 0.457444,0.446243 0.768555,0.636719 0.320261,0.181818 0.754691,0.272461 1.303711,0.272461 0.860131,0 1.556194,-0.312171 2.086914,-0.935547 C 14.734821,14.441116 15,14.023645 15,12.811524 15,11.60806 14.739342,10.549289 14.217774,9.934571 13.696205,9.311194 13.014681,8.9990235 12.172852,8.9990235 c -0.539869,0 -0.979797,0.1047085 -1.31836,0.3125005 -0.338562,0.199134 -0.608263,0.445862 -0.80957,0.740234 h -0.08203 c 0.0183,-0.147186 0.03639,-0.351588 0.05469,-0.611329 0.0183,-0.25974 0.02735,-0.523593 0.02735,-0.7919915 V 7 Z m 3.581055,3.5 c 0.44976,0 0.804126,0.189106 1.0625,0.566406 0.267943,0.368098 0.401367,0.920054 0.401367,1.65625 0,0.736196 -0.129322,0.8016 -0.387695,1.197305 -0.258373,0.386502 -0.607661,0.580078 -1.047852,0.580078 -0.593302,0 -1.00471,-0.193576 -1.234375,-0.580078 -0.220095,-0.395705 -0.330078,-0.45664 -0.330078,-1.183633 v -0.220703 c 0.0096,-0.671779 0.12971,-1.173595 0.359375,-1.504883 C 10.633962,10.670251 11.02603,10.5 11.581055,10.5 Z"/>
 <circle style="opacity:0.2" cx="11" cy="19.5" r="2"/>
 <circle style="fill:#3eb1c9" cx="11" cy="19" r="2"/>
 <path style="opacity:0.2;fill:#8b9cbe" d="m 17,2 0.299804,0.5 H 18.5 19.700195 L 20,2 h -1.5 z"/>
 <path style="opacity:0.2;fill:#8b9cbe" d="M 11,17 A 2,2 0 0 0 9,19 2,2 0 0 0 9.01758,19.24707 2,2 0 0 1 11,17.5 2,2 0 0 1 12.982422,19.252929 2,2 0 0 0 13,19 2,2 0 0 0 11,17 Z"/>
 <circle style="fill:#70cbde" cx="3.5" cy="3.5" r="1"/>
 <path style="opacity:0.1;fill:#8b9cbe" d="M 1.953125,1 C 1.425506,1 1,1.446 1,2 v 0.5 c 0,-0.554 0.425506,-1 0.953125,-1 h 18.09375 C 20.574494,1.5 21,1.946 21,2.5 V 2 C 21,1.446 20.574494,1 20.046875,1 Z"/>
</svg>
