<svg xmlns="http://www.w3.org/2000/svg" width="22" height="22" version="1.1">
 <path style="opacity:0.2" d="M 11.381843,1.5070242 A 10.000189,10.000001 0 0 0 8.4120606,1.8410085 10.000189,10.000001 0 0 0 1.3406385,14.088079 10.000189,10.000001 0 0 0 13.587939,21.159368 10.000189,10.000001 0 0 0 20.659361,8.9122979 10.000189,10.000001 0 0 0 11.381843,1.5070242 Z"/>
 <path style="fill:#fed909" d="M 11.381843,1.0071201 A 10.000189,10.000001 0 0 0 8.4120606,1.3411044 10.000189,10.000001 0 0 0 1.3406385,13.588175 10.000189,10.000001 0 0 0 13.587939,20.659464 10.000189,10.000001 0 0 0 20.659361,8.4123939 10.000189,10.000001 0 0 0 11.381843,1.0071201 Z"/>
 <circle style="opacity:0.1" cx="7.606" cy="13.944" r="8" transform="rotate(-15.000001)"/>
 <circle style="fill:#273f57" cx="7.778" cy="13.472" r="8" transform="rotate(-15.000001)"/>
 <path style="opacity:0.2" d="m 13.580078,5.4999984 c -0.477816,0.012765 -0.95291,0.1617604 -1.339844,0.4355469 -0.448703,0.3174935 -0.76716,0.7764325 -1.117187,1.1953125 -0.175014,0.20944 -0.361472,0.4111082 -0.576172,0.5820312 -0.214699,0.170923 -0.458638,0.3090348 -0.7265629,0.3789063 -0.267924,0.069871 -0.552428,0.068935 -0.8261714,0.025391 C 8.7203967,8.0736409 8.4544746,7.988789 8.1953126,7.8925765 7.6769884,7.700151 7.166929,7.4589441 6.6152345,7.4023422 5.854039,7.3242452 5.0616387,7.6328231 4.5644532,8.1992172 4.0672677,8.7656107 3.8800216,9.5753489 4.0781251,10.294921 4.2762286,11.014492 4.854622,11.62253 5.576172,11.871093 6.2977215,12.119657 7.1426248,12.000558 7.7617189,11.562499 8.2104225,11.245006 8.5269262,10.78802 8.8769532,10.36914 9.0519671,10.1597 9.2384251,9.9580309 9.4531251,9.7871079 c 0.2147,-0.170923 0.460592,-0.310988 0.7285159,-0.380859 0.267924,-0.06987 0.550474,-0.06893 0.824218,-0.02539 0.273744,0.04354 0.539666,0.128396 0.798829,0.224609 0.518323,0.192425 1.028383,0.4336321 1.580078,0.4902341 0.761195,0.0781 1.553595,-0.2285261 2.050781,-0.7949211 0.497185,-0.566395 0.686384,-1.3761324 0.488281,-2.0957039 -0.198104,-0.719571 -0.778451,-1.329562 -1.5,-1.578125 -0.270581,-0.093211 -0.557061,-0.1346116 -0.84375,-0.1269536 z m 0.605469,5.0019536 c -0.358394,0.0098 -0.715634,0.123379 -1.005859,0.333985 -0.336556,0.244225 -0.575347,0.595753 -0.837891,0.917968 -0.131272,0.161109 -0.270601,0.31774 -0.431641,0.449219 -0.161039,0.131479 -0.343962,0.239222 -0.544922,0.292969 -0.200961,0.05375 -0.413815,0.05108 -0.61914,0.01758 -0.205326,-0.03349 -0.405221,-0.09786 -0.59961,-0.171875 -0.3887759,-0.148019 -0.7697859,-0.333413 -1.1835933,-0.376953 -0.5709468,-0.06008 -1.1661404,0.17564 -1.5390625,0.611328 -0.3729215,0.435688 -0.5138253,1.059765 -0.3652343,1.613281 0.1485903,0.553517 0.5818381,1.021688 1.1230468,1.212891 0.5412097,0.191202 1.1743104,0.09868 1.6386714,-0.238282 0.3365559,-0.244225 0.5753479,-0.595753 0.8378909,-0.917968 0.131272,-0.161109 0.270602,-0.315787 0.431641,-0.447266 0.161039,-0.131479 0.345915,-0.239222 0.546875,-0.292969 0.200961,-0.05375 0.413815,-0.05303 0.61914,-0.01953 0.205326,0.0335 0.403268,0.09982 0.597657,0.173828 0.388775,0.14802 0.771739,0.333412 1.185546,0.376953 0.570948,0.06007 1.164188,-0.177593 1.53711,-0.613281 0.372923,-0.435688 0.513825,-1.057812 0.365234,-1.611328 -0.148591,-0.553517 -0.581838,-1.021689 -1.123047,-1.212891 -0.202954,-0.0717 -0.417777,-0.103544 -0.632812,-0.09766 z m -3.783203,5 c -0.09802,0.0061 -0.196089,0.0234 -0.291016,0.04883 -0.3797099,0.101708 -0.7155549,0.358885 -0.9121089,0.699219 -0.196552,0.340336 -0.2501793,0.759076 -0.148438,1.138672 0.101739,0.379594 0.358781,0.713664 0.699219,0.910156 0.3404389,0.196492 0.7589619,0.252103 1.1386719,0.150391 0.379709,-0.101708 0.715555,-0.358885 0.912109,-0.699219 0.196552,-0.340336 0.25018,-0.759076 0.148438,-1.138672 C 11.84748,16.231732 11.590438,15.897663 11.25,15.701171 c -0.25533,-0.14737 -0.553592,-0.2174 -0.847656,-0.199219 z"/>
 <path style="fill:#fed909" d="m 13.580078,4.9999999 c -0.477816,0.012765 -0.95291,0.1617604 -1.339844,0.4355469 -0.448703,0.3174935 -0.76716,0.7764325 -1.117187,1.1953125 -0.175014,0.20944 -0.361472,0.4111082 -0.576172,0.5820312 -0.214699,0.170923 -0.458638,0.3090348 -0.7265629,0.3789063 -0.267924,0.069871 -0.552428,0.068935 -0.8261714,0.025391 C 8.7203967,7.5736424 8.4544746,7.4887905 8.1953126,7.392578 7.6769884,7.2001525 7.166929,6.9589456 6.6152345,6.9023437 5.854039,6.8242467 5.0616387,7.1328246 4.5644532,7.6992187 4.0672677,8.2656122 3.8800216,9.0753499 4.0781251,9.7949219 4.2762286,10.514493 4.854622,11.122531 5.576172,11.371094 6.2977215,11.619658 7.1426248,11.500559 7.7617189,11.0625 8.2104225,10.745007 8.5269262,10.288021 8.8769532,9.8691409 c 0.1750139,-0.20944 0.3614719,-0.411109 0.5761719,-0.582032 0.2147,-0.170923 0.460592,-0.310988 0.7285159,-0.380859 0.267924,-0.06987 0.550474,-0.068931 0.824218,-0.025391 0.273744,0.04354 0.539666,0.128397 0.798829,0.22461 0.518323,0.192425 1.028383,0.433632 1.580078,0.490234 0.761195,0.0781 1.553595,-0.228526 2.050781,-0.7949222 0.497185,-0.5663942 0.686384,-1.3761316 0.488281,-2.0957031 -0.198104,-0.719571 -0.778451,-1.329562 -1.5,-1.578125 -0.270581,-0.093211 -0.557061,-0.1346112 -0.84375,-0.1269527 z m 0.605469,5.0019531 c -0.358394,0.0098 -0.715634,0.123379 -1.005859,0.333985 -0.336556,0.244225 -0.575347,0.595753 -0.837891,0.917968 -0.131272,0.161109 -0.270601,0.31774 -0.431641,0.449219 -0.161039,0.131479 -0.343962,0.239222 -0.544922,0.292969 -0.200961,0.05375 -0.413815,0.05108 -0.61914,0.01758 -0.205326,-0.03349 -0.405221,-0.09786 -0.59961,-0.171875 -0.3887759,-0.148019 -0.7697859,-0.333413 -1.1835933,-0.376953 -0.5709468,-0.06008 -1.1661404,0.17564 -1.5390625,0.611328 -0.3729215,0.435688 -0.5138253,1.059765 -0.3652343,1.613281 0.1485903,0.553517 0.5818381,1.021688 1.1230468,1.212891 0.5412097,0.191202 1.1743104,0.09868 1.6386714,-0.238282 0.3365559,-0.244225 0.5753479,-0.595753 0.8378909,-0.917968 0.131272,-0.161109 0.270602,-0.315787 0.431641,-0.447266 0.161039,-0.131479 0.345915,-0.239222 0.546875,-0.292969 0.200961,-0.05375 0.413815,-0.05303 0.61914,-0.01953 0.205326,0.0335 0.403268,0.09982 0.597657,0.173828 0.388775,0.14802 0.771739,0.333412 1.185546,0.376953 0.570948,0.06007 1.164188,-0.177593 1.53711,-0.613281 0.372923,-0.435688 0.513825,-1.057812 0.365234,-1.611328 -0.148591,-0.553517 -0.581838,-1.021689 -1.123047,-1.212891 -0.202954,-0.0717 -0.417777,-0.1035441 -0.632812,-0.09766 z m -3.783203,5 c -0.09802,0.0061 -0.196089,0.0234 -0.291016,0.04883 -0.3797099,0.101708 -0.7155549,0.358885 -0.9121089,0.699219 -0.196552,0.340336 -0.2501793,0.759076 -0.148438,1.138672 0.101739,0.379594 0.358781,0.713664 0.699219,0.910156 0.3404389,0.196492 0.7589619,0.252103 1.1386719,0.150391 0.379709,-0.101708 0.715555,-0.358885 0.912109,-0.699219 0.196552,-0.340336 0.25018,-0.759076 0.148438,-1.138672 C 11.84748,15.731733 11.590438,15.397664 11.25,15.201172 c -0.25533,-0.14737 -0.553592,-0.2174 -0.847656,-0.199219 z"/>
 <path style="opacity:0.2;fill:#8b9cbe" d="M 11.381836,1.0068359 A 10.000189,10.000001 0 0 0 8.4121096,1.3408202 10.000189,10.000001 0 0 0 1.0117189,11.206055 10.000189,10.000001 0 0 1 8.4121096,1.8408202 10.000189,10.000001 0 0 1 11.381836,1.5068359 10.000189,10.000001 0 0 1 20.659179,8.9121094 10.000189,10.000001 0 0 1 20.988281,11.293946 10.000189,10.000001 0 0 0 20.659179,8.4121094 10.000189,10.000001 0 0 0 11.381836,1.0068359 Z"/>
 <path style="opacity:0.2;fill:#8b9cbe" d="m 13.580078,4.9999999 c -0.477816,0.012765 -0.95291,0.1617604 -1.339844,0.4355469 -0.448703,0.3174935 -0.76716,0.7764325 -1.117187,1.1953125 -0.175014,0.20944 -0.361472,0.4111082 -0.576172,0.5820312 -0.214699,0.170923 -0.458638,0.3090348 -0.7265629,0.3789063 -0.267923,0.069871 -0.552428,0.068935 -0.8261714,0.025391 C 8.7203967,7.5736424 8.4544746,7.4887905 8.1953126,7.392578 7.6769884,7.2001525 7.166929,6.9589455 6.6152345,6.9023437 5.854039,6.8242467 5.0616387,7.1328245 4.5644532,7.6992187 4.1426233,8.1797671 3.9608084,8.8337377 4.0312501,9.4609379 4.0824075,9.0003359 4.2550334,8.5517096 4.5644532,8.1992187 5.0616387,7.6328245 5.854039,7.3242467 6.6152345,7.4023437 7.166929,7.4589457 7.6769884,7.7001525 8.1953126,7.892578 c 0.259162,0.096213 0.5250841,0.181064 0.7988281,0.2246094 0.2737434,0.043544 0.5582474,0.04448 0.8261714,-0.025391 0.2679259,-0.069871 0.5118639,-0.2079833 0.7265629,-0.3789063 0.2147,-0.170923 0.401158,-0.3725912 0.576172,-0.5820312 0.350027,-0.41888 0.668484,-0.877819 1.117187,-1.1953125 0.386934,-0.2737861 0.862028,-0.4227815 1.339844,-0.4355465 0.286689,-0.00766 0.573169,0.033742 0.84375,0.1269531 0.721549,0.248563 1.301896,0.858554 1.5,1.578125 0.02968,0.1078107 0.03432,0.2193411 0.04687,0.3300781 0.03076,-0.2782316 0.02759,-0.5596133 -0.04687,-0.8300781 -0.198104,-0.719571 -0.778451,-1.329562 -1.5,-1.578125 -0.270581,-0.093211 -0.557061,-0.1346116 -0.84375,-0.1269531 z m 0.673828,5.0058591 c -0.188289,0.05089 -0.379069,0.07914 -0.574218,0.08399 -0.178694,0.0561 -0.34847,0.136133 -0.5,0.246094 -0.336556,0.244225 -0.575347,0.595753 -0.837891,0.917968 -0.131272,0.161109 -0.270601,0.31774 -0.431641,0.449219 -0.161039,0.131479 -0.343962,0.239222 -0.544922,0.292969 -0.200961,0.05375 -0.413815,0.05108 -0.61914,0.01758 -0.205326,-0.03349 -0.405221,-0.09786 -0.59961,-0.171875 -0.3887759,-0.148019 -0.7697859,-0.333413 -1.1835933,-0.376953 -0.5709468,-0.06008 -1.1661404,0.17564 -1.5390625,0.611328 -0.3273602,0.382458 -0.4636263,0.908617 -0.3945312,1.40625 0.047961,-0.331674 0.1765579,-0.65159 0.3945312,-0.90625 0.3729221,-0.435688 0.9681157,-0.671408 1.5390625,-0.611328 0.4138074,0.04354 0.7948174,0.228934 1.1835933,0.376953 0.194389,0.07402 0.394284,0.138385 0.59961,0.171875 0.205325,0.0335 0.418179,0.03617 0.61914,-0.01758 0.20096,-0.05375 0.383883,-0.16149 0.544922,-0.292969 0.16104,-0.131479 0.300369,-0.28811 0.431641,-0.449219 0.262544,-0.322215 0.501335,-0.673743 0.837891,-0.917968 0.290225,-0.210607 0.647465,-0.324185 1.005859,-0.333985 0.215035,-0.0059 0.429858,0.02596 0.632812,0.09766 0.541209,0.191202 0.974456,0.659374 1.123047,1.212891 0.01815,0.06762 0.01968,0.137823 0.0293,0.207031 0.03432,-0.235781 0.03255,-0.476631 -0.0293,-0.707031 -0.148591,-0.553517 -0.581838,-1.021689 -1.123047,-1.212891 -0.181302,-0.06405 -0.372517,-0.0918 -0.564453,-0.09375 z m -3.851562,4.996094 c -0.09802,0.0061 -0.196089,0.0234 -0.291016,0.04883 -0.10086,0.02702 -0.1981329,0.06568 -0.2910159,0.113281 -0.256791,0.1316 -0.476749,0.336005 -0.621093,0.585938 -0.172144,0.298072 -0.227354,0.654757 -0.171875,0.994141 0.02961,-0.173072 0.08396,-0.341921 0.171875,-0.494141 0.196554,-0.340334 0.532399,-0.597511 0.9121089,-0.699219 0.09493,-0.02543 0.192996,-0.04273 0.291016,-0.04883 0.294064,-0.01818 0.592326,0.05185 0.847656,0.199219 0.340438,0.196492 0.59748,0.530559 0.699219,0.910156 0.01263,0.04714 0.01557,0.09641 0.02344,0.144531 0.0366,-0.213884 0.0328,-0.434715 -0.02344,-0.644531 C 11.84748,15.731733 11.590438,15.397664 11.25,15.201172 c -0.25533,-0.14737 -0.553592,-0.2174 -0.847656,-0.199219 z"/>
</svg>
