<svg xmlns="http://www.w3.org/2000/svg" width="22" height="22" version="1.1">
 <circle style="opacity:0.2" cx="11" cy="11.5" r="10"/>
 <circle style="fill:#17191e" cx="11" cy="11" r="10"/>
 <path style="opacity:0.1;fill:#8b9cbe" d="M 11,1 A 10,10 0 0 0 7,1.8398438 V 20.140625 A 10,10 0 0 0 11,21 10,10 0 0 0 21,11 10,10 0 0 0 11,1 Z"/>
 <path style="opacity:0.1;fill:#8b9cbe" d="M 11,1 A 10,10 0 0 0 1,11 10,10 0 0 0 1.01075,11.291 10,10 0 0 1 11,1.5 10,10 0 0 1 20.9895,11.209 10,10 0 0 0 21,11 10,10 0 0 0 11,1 Z"/>
 <path style="opacity:0.2" d="M 7.603312,5.5001625 A 0.58949595,0.5924038 0 0 0 7,6.092116 v 5.408531 5.407686 a 0.58949595,0.5924038 0 0 0 0.883571,0.512689 l 4.660357,-2.703422 4.661196,-2.704264 a 0.58949595,0.5924038 0 0 0 0,-1.026222 L 12.543928,8.2836925 7.883571,5.5794275 A 0.58949595,0.5924038 0 0 0 7.603312,5.5001625 Z"/>
 <path style="fill:#ffa119" d="M 7.603312,5.0001625 A 0.58949595,0.5924038 0 0 0 7,5.592116 v 5.408531 5.407686 a 0.58949595,0.5924038 0 0 0 0.883571,0.512689 l 4.660357,-2.703422 4.661196,-2.704264 a 0.58949595,0.5924038 0 0 0 0,-1.026222 L 12.543928,7.7836925 7.883571,5.0794275 A 0.58949595,0.5924038 0 0 0 7.603312,5.0001625 Z"/>
 <rect style="fill:#313131" width="2" height="2" x="8" y="2" rx=".5" ry=".5"/>
 <rect style="fill:#313131" width="2" height="2" x="8" y="10" rx=".5" ry=".5"/>
 <rect style="fill:#313131" width="2" height="2" x="8" y="14" rx=".5" ry=".5"/>
 <rect style="fill:#313131" width="2" height="2" x="8" y="18" rx=".5" ry=".5"/>
 <path style="opacity:0.2;fill:#8b9cbe" d="M 7.6035155,5 A 0.58949595,0.5924038 0 0 0 7,5.591797 v 0.5 A 0.58949595,0.5924038 0 0 1 7.6035155,5.5 0.58949595,0.5924038 0 0 1 7.883789,5.5791015 l 4.660157,2.705078 4.661132,2.7031255 a 0.58949595,0.5924038 0 0 1 0.239258,0.263672 0.58949595,0.5924038 0 0 0 -0.239258,-0.763672 L 12.543946,7.7841795 7.883789,5.0791015 A 0.58949595,0.5924038 0 0 0 7.6035155,5 Z"/>
 <rect style="fill:#313131" width="2" height="2" x="8" y="6" rx=".5" ry=".5"/>
</svg>
