<svg width="22" height="22" version="1.1" xmlns="http://www.w3.org/2000/svg">
 <path d="m20 14.5h1v-6h-1v-1h-1v-1h-1v-1h-1v-1h-1v-1h-5v1h-1v1h-1v1h-1v1h-2v1h-2v1h-3v4h3v1h2v1h2v1h1v1h1v1h1v1h5v-1h1v-1h1v-1h1v-1h1z" style="opacity:.1"/>
 <path d="m20 14h1v-6h-1v-1h-1v-1h-1v-1h-1v-1h-1v-1h-5v1h-1v1h-1v1h-1v1h-2v1h-2v1h-3v4h3v1h2v1h2v1h1v1h1v1h1v1h5v-1h1v-1h1v-1h1v-1h1z" style="fill:#17191e"/>
 <path d="m11 4.5v1h-1v1h2v1h-3v1h-2v1h-2v1h-3v2h3v1h2v1h2v1h3v1h-2v1h1v1h5v-1h1v-1h1v-1h1v-1h1v-6h-1v-1h-1v-1h-1v-1h-1v-1z" style="opacity:.2"/>
 <path d="m11 4v1h-1v1h2v1h-3v1h-2v1h-2v1h-3v2h3v1h2v1h2v1h3v1h-2v1h1v1h5v-1h1v-1h1v-1h1v-1h1v-6h-1v-1h-1v-1h-1v-1h-1v-1z" style="fill:#eb2d21"/>
 <path d="m12 5.5v1h1v1h-1v1h-3v1h-2v1h-2v2h2v1h2v1h3v1h1v1h-1v1h4v-1h1v-1h1v-1h1v-6h-1v-1h-1v-1h-1v-1z" style="opacity:.2"/>
 <path d="m12 5v1h1v1h-1v1h-3v1h-2v1h-2v2h2v1h2v1h3v1h1v1h-1v1h4v-1h1v-1h1v-1h1v-6h-1v-1h-1v-1h-1v-1z" style="fill:#f58800"/>
 <path d="m14 8.5h2v1h1v1h1v2h-1v1h-1v1h-2v-1h-1v-1h-3v-2h3v-1h1z" style="opacity:.2"/>
 <path d="m14 8h2v1h1v1h1v2h-1v1h-1v1h-2v-1h-1v-1h-3v-2h3v-1h1z" style="fill:#dcfa20"/>
 <path d="m11 3v0.5h5v-0.5h-5zm-1 1v0.5h1v-0.5h-1zm6 0v0.5h1v-0.5h-1zm-7 1v0.5h1v-0.5h-1zm8 0v0.5h1v-0.5h-1zm-9 1v0.5h1v-0.5h-1zm10 0v0.5h1v-0.5h-1zm-12 1v0.5h2v-0.5h-2zm13 0v0.5h1v-0.5h-1zm-15 1v0.5h2v-0.5h-2zm16 0v0.5h1v-0.5h-1zm-19 1v0.5h3v-0.5h-3z" style="fill:#8b9cbe;opacity:.1"/>
 <path d="m11 4v0.5h5v-0.5h-5zm-1 1v0.5h1v-0.5h-1zm6 0v0.5h1v-0.5h-1zm1 1v0.5h1v-0.5h-1zm-8 1v0.5h3v-0.5h-3zm9 0v0.5h1v-0.5h-1zm-11 1v0.5h2v-0.5h-2zm12 0v0.5h1v-0.5h-1zm-14 1v0.5h2v-0.5h-2zm-3 1v0.5h3v-0.5h-3zm8 6v0.5h2v-0.5h-2z" style="fill:#8b9cbe;opacity:.1"/>
 <path d="m12 5v0.5h4v-0.5h-4zm4 1v0.5h1v-0.5h-1zm-4 1v0.5h1v-0.5h-1zm5 0v0.5h1v-0.5h-1zm-8 1v0.5h3v-0.5h-3zm9 0v0.5h1v-0.5h-1zm-11 1v0.5h2v-0.5h-2zm-2 1v0.5h2v-0.5h-2zm7 6v0.5h1v-0.5h-1z" style="fill:#8b9cbe;opacity:.2"/>
 <path d="m14 8v0.5h2v-0.5h-2zm-1 1v0.5h1v-0.5h-1zm3 0v0.5h1v-0.5h-1zm-6 1v0.5h3v-0.5h-3zm7 0v0.5h1v-0.5h-1z" style="fill:#8b9cbe;opacity:.2"/>
</svg>
