<svg xmlns="http://www.w3.org/2000/svg" width="22" height="22" version="1">
 <rect style="fill:#26ace2" width="20" height="20" x="1" y="1" rx="1" ry="1"/>
 <path style="opacity:0.2" d="m 2,21.5 c -0.554,0 -1,-0.446 -1,-1 V 20 c 0,0.554 0.446,1 1,1 h 18 c 0.554,0 1,-0.446 1,-1 v 0.5 c 0,0.554 -0.446,1 -1,1 z"/>
 <path style="opacity:0.2" d="m 4,5.5 v 6 H 5.4746094 V 9.535156 H 7.5 V 8.5214844 H 5.4746094 V 6.5136719 H 8 V 5.5 Z m 6.689453,0 -1.970703,6 h 1.3125 l 0.308594,-0.966797 h 2.228515 L 12.876953,11.5 h 1.308594 l -1.966797,-6 z m 0.765625,0.8085938 0.03125,0.15625 c 0.01779,0.074129 0.03683,0.1590212 0.06055,0.2539062 0.02372,0.094885 0.04948,0.1978709 0.07617,0.3105469 0.02965,0.109711 0.06019,0.2194261 0.08984,0.3261719 l 0.580078,2.1894532 h -1.677735 l 0.582032,-2.1894532 c 0.02965,-0.1067458 0.05729,-0.2164609 0.08398,-0.3261719 0.02965,-0.112676 0.05636,-0.2156619 0.08008,-0.3105469 0.02372,-0.094885 0.04181,-0.1797772 0.05664,-0.2539062 0.01779,-0.074131 0.03121,-0.1266 0.03711,-0.15625 z M 4,12.5 v 6 h 1.8691406 c 0.4142015,0 0.783931,-0.06485 1.109375,-0.195312 0.3284025,-0.130467 0.6052261,-0.323122 0.8300782,-0.578126 0.2248515,-0.257968 0.3953283,-0.57749 0.5136718,-0.957031 C 8.4406091,16.389991 8.5,15.951272 8.5,15.453125 8.5,14.940152 8.4358128,14.497598 8.3085938,14.126953 8.1843333,13.753343 7.9994682,13.44721 7.7539062,13.207031 7.5083443,12.966853 7.204697,12.789469 6.84375,12.673828 6.4828035,12.558186 6.069018,12.5 5.6015625,12.5 Z m 7.396484,0 c -0.415077,0 -0.773646,0.06386 -1.074218,0.193359 -0.300572,0.129497 -0.548575,0.320981 -0.746094,0.574219 -0.194657,0.250359 -0.339124,0.56237 -0.433594,0.933594 C 9.048119,14.569517 9,14.994033 9,15.474609 c 0,0.440287 0.04811,0.845575 0.142578,1.216797 0.09733,0.368346 0.243886,0.685499 0.441406,0.953125 0.197519,0.267625 0.444478,0.478342 0.742188,0.63086 0.300573,0.149641 0.653015,0.224609 1.05664,0.224609 0.237595,0 0.460953,-0.02838 0.669922,-0.08594 0.208969,-0.05755 0.402597,-0.130466 0.580078,-0.216796 0.180344,-0.08921 0.341246,-0.185466 0.484376,-0.289063 C 13.26318,17.804606 13.391222,17.707324 13.5,17.615234 V 15.505859 H 11 V 16.5 h 1.339844 v 0.662109 c -0.03149,0.0259 -0.07556,0.05829 -0.132813,0.0957 -0.05439,0.03454 -0.119975,0.06899 -0.197265,0.103516 -0.07443,0.03165 -0.160483,0.06004 -0.257813,0.08594 -0.09447,0.02302 -0.195909,0.0332 -0.304687,0.0332 -0.392176,0 -0.683206,-0.173284 -0.875,-0.521485 -0.191791,-0.348201 -0.289063,-0.842648 -0.289063,-1.484375 0,-0.322302 0.02048,-0.606957 0.06055,-0.851562 0.04008,-0.247482 0.104619,-0.45316 0.193359,-0.617188 0.08874,-0.166907 0.204527,-0.29155 0.347657,-0.375 0.14313,-0.08633 0.31733,-0.128906 0.523437,-0.128906 0.183205,0 0.34202,0.06993 0.476563,0.210938 0.134541,0.138129 0.241069,0.350901 0.318359,0.638671 l 1.175781,-0.232421 C 13.310209,13.87741 13.222063,13.657541 13.113284,13.45898 13.004505,13.260419 12.869292,13.090223 12.708987,12.949215 12.551544,12.805331 12.364044,12.694884 12.146487,12.617184 11.931789,12.53949 11.682743,12.5 11.396484,12.5 Z M 14,12.5 v 6 h 1.5 v -6 z m -8.4746094,1.013672 h 0.054687 c 0.2721895,0 0.5078009,0.0372 0.7089844,0.111328 0.2011835,0.07116 0.3678694,0.184644 0.4980469,0.341797 0.1331365,0.154189 0.231786,0.355454 0.296875,0.601562 0.065088,0.243143 0.097656,0.537842 0.097656,0.884766 0,0.676056 -0.1158818,1.184397 -0.3496094,1.525391 -0.233728,0.338028 -0.5910225,0.507812 -1.0703124,0.507812 H 5.5253906 Z"/>
 <path style="fill:#8b9cbe" d="M 5.4737425,6.014085 V 8.021958 H 7.5 V 9.036042 H 5.4737425 V 11 H 4 V 5.0000005 H 8 V 6.014085 Z"/>
 <path style="fill:#8b9cbe" d="M 14.185322,11 H 12.877686 L 12.56888,10.032699 H 10.34012 L 10.031133,11 H 8.719051 l 1.970348,-5.9999995 h 1.530022 z M 11.45441,5.809489 c -0.0059,0.02965 -0.01779,0.08154 -0.03558,0.1556705 -0.01483,0.074129 -0.0341,0.1586362 -0.05782,0.2535215 -0.02372,0.094885 -0.05041,0.1986655 -0.08006,0.3113415 -0.02669,0.109711 -0.05486,0.2179393 -0.08451,0.324685 L 10.615881,9.045301 h 1.67724 L 11.71238,6.8547075 C 11.68273,6.7479618 11.65308,6.6397335 11.62343,6.5300225 11.59674,6.4173465 11.57154,6.313566 11.54782,6.218681 11.5241,6.123796 11.50334,6.0392885 11.48555,5.9651595 L 11.454411,5.809489 Z"/>
 <path style="fill:#8b9cbe" d="m 8.5,14.953299 c 0,0.498147 -0.059171,0.93699 -0.1775145,1.31653 C 8.204142,16.64937 8.032544,16.968125 7.8076925,17.226093 7.5828405,17.481097 7.3062135,17.673832 6.977811,17.804299 6.652367,17.934766 6.2825445,18 5.868343,18 H 4 v -6 h 1.602071 c 0.4674555,0 0.881657,0.05782 1.2426035,0.173462 0.360947,0.115641 0.6642015,0.29355 0.9097635,0.533728 C 8,12.947369 8.184911,13.254262 8.3091715,13.627872 8.4363905,13.998517 8.5,14.440326 8.5,14.953299 Z m -1.318047,0 c 0,-0.346924 -0.032545,-0.641958 -0.097633,-0.885101 C 7.019231,13.82209 6.9201185,13.621942 6.786982,13.467753 6.6568045,13.3106 6.4911245,13.196441 6.289941,13.125278 6.0887575,13.051149 5.852071,13.014084 5.5798815,13.014084 h -0.053624 v 3.971831 h 0.235577 c 0.47929,0 0.835799,-0.169014 1.069527,-0.507042 C 7.065089,16.137879 7.181953,15.629355 7.181953,14.953299 Z"/>
 <path style="fill:#8b9cbe" d="m 13.5,17.115108 c -0.108778,0.09209 -0.236164,0.189928 -0.382157,0.293525 -0.143129,0.103597 -0.304866,0.2 -0.485209,0.289208 -0.177482,0.08633 -0.370707,0.158274 -0.579676,0.215828 C 11.843989,17.971223 11.620706,18 11.383111,18 10.979485,18 10.627386,17.92518 10.326813,17.775539 10.029103,17.623021 9.781489,17.412949 9.58397,17.145324 9.38645,16.877698 9.239027,16.559712 9.141699,16.191366 9.047233,15.820144 9,15.414388 9,14.974101 9,14.493525 9.04724,14.069065 9.141699,13.70072 9.236169,13.329496 9.380725,13.018705 9.575382,12.768346 9.772901,12.515108 10.021947,12.323742 10.322519,12.194245 10.623091,12.064749 10.980916,12 11.395993,12 c 0.286259,0 0.536736,0.03885 0.751431,0.116547 0.217557,0.0777 0.405057,0.18849 0.5625,0.332374 0.160305,0.141008 0.294847,0.310792 0.403626,0.509353 0.108779,0.198561 0.197519,0.418705 0.266222,0.660432 l -1.176527,0.233093 c -0.07729,-0.28777 -0.183207,-0.50072 -0.317748,-0.638849 -0.134543,-0.141007 -0.293417,-0.211511 -0.476622,-0.211511 -0.206107,0 -0.380726,0.04317 -0.523856,0.129497 -0.14313,0.08345 -0.259065,0.208633 -0.347805,0.37554 -0.08874,0.164028 -0.153149,0.369783 -0.193225,0.617265 -0.04007,0.244605 -0.06011,0.528058 -0.06011,0.85036 0,0.641727 0.0959,1.136691 0.287691,1.484892 0.191794,0.348201 0.483779,0.522302 0.875955,0.522302 0.108778,0 0.2104,-0.01151 0.304866,-0.03453 0.09733,-0.0259 0.183206,-0.05468 0.257634,-0.08633 0.07729,-0.03453 0.143129,-0.06906 0.197518,-0.103597 0.05725,-0.03741 0.101623,-0.06906 0.133111,-0.09496 V 15.999752 H 11 v -0.993504 h 2.5 z"/>
 <rect style="fill:#8b9cbe" width="1.5" height="6" x="14" y="12"/>
 <path style="opacity:0.3" d="m 15,1 v 2 4 h 4 2 V 3 2 C 21,1.446 20.554,1 20,1 h -1 z"/>
 <rect style="opacity:0.2" width="4" height="4" x="15" y="3"/>
 <rect style="opacity:0.1" width="6" height=".5" x="15" y="6.5"/>
 <path style="opacity:0.2;fill:#8b9cbe" d="M 2,1 C 1.446,1 1,1.446 1,2 v 0.5 c 0,-0.554 0.446,-1 1,-1 h 18 c 0.554,0 1,0.446 1,1 V 2 C 21,1.446 20.554,1 20,1 Z"/>
 <rect style="opacity:0.1;fill:#8b9cbe" width="6" height=".5" x="15" y="7"/>
</svg>
