<svg xmlns="http://www.w3.org/2000/svg" width="22" height="22" version="1">
 <path style="opacity:0.2" d="m 22,14 c 0,4.5 -3,7.5 -7.5,7.5 l -3,0 C 7,21.5 4.3603,19.15147 4.0615,15.5 L 3.25,15.5 C 1,15.5 1,13.25 1,13.25 l 0,-1.5 C 1,9.5 3.25,9.5 3.25,9.5 l 0.75,0 18,0 z M 3.265,10.47657 C 2,10.5 2,11.79687 2,11.79687 l 0,1.5 C 2,14.5 3,14.5 3,14.5 l 1,0 0,-4 z"/>
 <path style="fill:#b2bfd9" d="M 22,13.5 C 22,18 19,21 14.5,21 l -3,0 C 7,21 4.3603,18.65147 4.0615,15 L 3.25,15 C 1,15 1,12.75 1,12.75 l 0,-1.5 C 1,9 3.25,9 3.25,9 L 4,9 22,9 Z M 3.265,9.97657 C 2,10 2,11.29687 2,11.29687 l 0,1.5 C 2,14 3,14 3,14 l 1,0 0,-4 z"/>
 <path style="opacity:0.2;fill:#8b9cbe" d="m 22,9 0,0.5 -18,0 -0.75,0 c 0,0 -2.25,0 -2.25,2.25 l 0,-0.5 C 1,9 3.25,9 3.25,9 L 4,9 22,9 Z M 2,12.796875 C 2,14.000005 3,14 3,14 l 1,0 0,0.5 -1,0 c 0,0 -1,5e-6 -1,-1.203125 l 0,-0.5 z"/>
 <path style="opacity:0.2" d="M 8.788662,1.5 C 7.141361,3.1149234 6.647637,3.9097981 7.241787,4.9377171 7.780437,5.8694948 9.172155,6.3451278 8.472255,8.5 9.621855,7.4500934 10.537065,6.11662 9.634365,5.0410156 8.716065,3.9470324 8.211162,3.2826666 8.788662,1.5 Z m 4.499999,0 c -1.6473,1.6149234 -2.141025,2.4097981 -1.546875,3.4377171 0.538651,0.9317777 1.930369,1.4074107 1.230469,3.5622829 1.1496,-1.0499066 2.06481,-2.38338 1.16211,-3.4589844 C 13.216065,3.9470324 12.711161,3.2826666 13.288661,1.5 Z m 4.5,0 C 16.141362,3.1149234 15.647636,3.9097981 16.241787,4.9377171 16.780437,5.8694948 18.172155,6.3451278 17.472255,8.5 18.621855,7.4500934 19.537065,6.11662 18.634365,5.0410156 17.716065,3.9470324 17.211161,3.2826666 17.788661,1.5 Z"/>
 <path style="fill:#956b5f" d="M 8.788662,1 C 7.141361,2.6149234 6.647637,3.4097981 7.241787,4.4377171 7.780437,5.3694948 9.172155,5.8451278 8.472255,8 9.621855,6.9500934 10.537065,5.61662 9.634365,4.5410156 8.716065,3.4470324 8.211162,2.7826666 8.788662,1 Z m 4.499999,0 C 11.641361,2.6149234 11.147636,3.4097981 11.741786,4.4377171 12.280437,5.3694948 13.672155,5.8451278 12.972255,8 14.121855,6.9500934 15.037065,5.61662 14.134365,4.5410156 13.216065,3.4470324 12.711161,2.7826666 13.288661,1 Z m 4.5,0 C 16.141362,2.6149234 15.647636,3.4097981 16.241787,4.4377171 16.780437,5.3694948 18.172155,5.8451278 17.472255,8 18.621855,6.9500934 19.537065,5.61662 18.634365,4.5410156 17.716065,3.4470324 17.211161,2.7826666 17.788661,1 Z"/>
 <path style="opacity:0.1;fill:#8b9cbe" d="M 8.788662,1 C 7.457936,2.304571 6.89257,3.0738449 7.032802,3.8632812 7.152655,3.2703667 7.69116,2.6064301 8.610927,1.6875 8.651192,1.4762194 8.70721,1.2514296 8.788662,1 Z m 4.499999,0 C 11.957936,2.304571 11.39257,3.0738449 11.532802,3.8632812 11.652655,3.2703667 12.19116,2.6064301 13.110927,1.6875 13.151192,1.4762194 13.20721,1.2514296 13.288661,1 Z m 4.5,0 C 16.457937,2.304571 15.89257,3.0738449 16.032802,3.8632812 16.152655,3.2703667 16.69116,2.6064301 17.610927,1.6875 17.651192,1.4762194 17.70721,1.2514296 17.788661,1 Z M 8.558193,2.5742188 C 8.47229,3.6095114 8.928845,4.20052 9.634365,5.0410156 9.832491,5.2770918 9.930579,5.526054 9.970302,5.78125 10.043462,5.351545 9.960002,4.929024 9.634365,4.5410156 9.05025,3.8451524 8.635611,3.3208061 8.558193,2.5742188 Z m 4.5,0 C 12.97229,3.6095114 13.428845,4.20052 14.134365,5.0410156 14.332491,5.2770918 14.430579,5.526054 14.470302,5.78125 14.543462,5.351545 14.460002,4.929024 14.134365,4.5410156 13.55025,3.8451524 13.135611,3.3208061 13.058193,2.5742188 Z m 4.5,0 C 17.47229,3.6095114 17.928845,4.20052 18.634365,5.0410156 18.832491,5.2770918 18.930579,5.526054 18.970302,5.78125 19.043461,5.351545 18.96,4.929024 18.634365,4.5410156 18.05025,3.8451524 17.635611,3.3208061 17.558193,2.5742188 Z M 8.64413,7.1347656 C 8.624157,7.3925691 8.578836,7.6718571 8.472255,8 8.527526,7.9495226 8.570588,7.891572 8.624599,7.8398438 8.663477,7.5771646 8.670792,7.3430319 8.64413,7.1347656 Z m 4.5,0 C 13.124157,7.3925691 13.078836,7.6718571 12.972255,8 c 0.05527,-0.050477 0.09833,-0.108428 0.152344,-0.1601562 0.03888,-0.2626792 0.04619,-0.4968119 0.01953,-0.7050782 z m 4.5,0 C 17.624157,7.3925691 17.578836,7.6718571 17.472255,8 c 0.05527,-0.050477 0.09833,-0.108428 0.152344,-0.1601562 0.03888,-0.2626792 0.04619,-0.4968119 0.01953,-0.7050782 z"/>
</svg>
