<svg width="22" height="22" version="1.1" xmlns="http://www.w3.org/2000/svg">
 <rect x="2" y="1.4996363" width="18" height="18" rx="2" ry="2" style="opacity:.2"/>
 <rect x="2" y="1" width="18" height="18" rx="2" ry="2" style="fill:#b2bfd9"/>
 <path d="m4 1c-1.108 0-2 0.892-2 2v6s3-1 3-4 4-4 4-4h-5zm9.132812 0a4 4 0 0 0 1.869141 2.4609375 3.5 3.5 0 0 0-0.001953 0.0390625 3.5 3.5 0 0 0 3.5 3.5 3.5 3.5 0 0 0 1.5-0.3417969v-3.6582031c0-1.108-0.892-2-2-2h-4.867188zm6.867188 8s-3 0-6 4c-1.74668 2.328906-2.539654 4.702894-2.845703 6h6.845703c1.108 0 2-0.892 2-2v-8z" style="fill:#4f4f4f"/>
 <path d="m4 1c-1.108 0-2 0.892-2 2v0.5c0-1.108 0.892-2 2-2h14c1.108 0 2 0.892 2 2v-0.5c0-1.108-0.892-2-2-2h-14z" style="fill:#8b9cbe;opacity:.2"/>
 <path d="m4 18.499636s0 3 7 3 7-3 7-3l-4-2-3 2-3-2z" style="opacity:.2"/>
 <path d="m4 18s0 3 7 3 7-3 7-3l-4-2-3 2-3-2z" style="fill:#17191e"/>
 <path d="m 7.5,15.5 c -2,0 -3.4129114,1.220354 -3.9667969,2.328125 C 2.9793177,18.935896 3,20 3,20 a 1.50015,1.50015 0 1 0 3,0 C 6,20 6.0206823,19.562151 6.2167969,19.169922 6.4129114,18.777693 6.5,18.5 7.5,18.5 c 0.2552965,0 0.8531854,0.359296 1.3515625,0.953125 0.4983771,0.593829 0.8085937,1.199219 0.8085937,1.199219 a 1.50015,1.50015 0 0 0 2.6796878,0 c 0,0 0.310216,-0.60539 0.808594,-1.199219 C 13.646815,18.859296 14.244703,18.5 14.5,18.5 c 1,0 1.087089,0.277693 1.283203,0.669922 C 15.979318,19.562151 16,20 16,20 a 1.50015,1.50015 0 1 0 3,0 c 0,0 0.02068,-1.064104 -0.533203,-2.171875 C 17.912911,16.720354 16.5,15.5 14.5,15.5 12.844714,15.5 11.752577,16.517686 11,17.386719 10.247423,16.517686 9.1552856,15.5 7.5,15.5 Z" style="opacity:.2"/>
 <path d="m4.5 19.5s0-3 3-3c2 0 3.5 2.978814 3.5 2.978814s1.5-2.978814 3.5-2.978814c3 0 3 3 3 3" style="fill:none;stroke-linecap:round;stroke-linejoin:round;stroke-width:3;stroke:#f26f6f"/>
 <path d="m9.0332031 4.503818a3.7059825 4.7450704 30.527226 0 0-4.2597656 2.671875 3.7059825 4.7450704 30.527226 0 0 0.8632813 5.9375 3.7059825 4.7450704 30.527226 0 0 5.3632812-1.929687 4.7450704 3.7059825 59.472774 0 0 5.363281 1.929687 4.7450704 3.7059825 59.472774 0 0 0.863281-5.9375 4.7450704 3.7059825 59.472774 0 0-5.589843-2.2890624 4.7450704 3.7059825 59.472774 0 0-0.636719 0.4902343 3.7059825 4.7450704 30.527226 0 0-0.636719-0.4902343 3.7059825 4.7450704 30.527226 0 0-1.3300779-0.3828126z" style="opacity:.2"/>
 <path d="m9.0332031 4.0039062a3.7059825 4.7450704 30.527226 0 0-4.2597656 2.671875 3.7059825 4.7450704 30.527226 0 0 0.8632813 5.9374998 3.7059825 4.7450704 30.527226 0 0 5.3632812-1.929687 4.7450704 3.7059825 59.472774 0 0 5.363281 1.929687 4.7450704 3.7059825 59.472774 0 0 0.863281-5.9374998 4.7450704 3.7059825 59.472774 0 0-5.589843-2.2890624 4.7450704 3.7059825 59.472774 0 0-0.636719 0.4902343 3.7059825 4.7450704 30.527226 0 0-0.636719-0.4902343 3.7059825 4.7450704 30.527226 0 0-1.3300779-0.3828126z" style="fill:#8b9cbe"/>
 <circle cx="10" cy="9" r="1" style="fill:#4f4f4f"/>
 <circle cx="12.5" cy="8.5" r="1.5" style="fill:#4f4f4f"/>
 <path d="M 7.5 15 C 5.5 15 4.0870886 16.222307 3.5332031 17.330078 C 2.9793177 18.437849 3 19.5 3 19.5 A 1.50015 1.50015 0 0 0 3.0214844 19.763672 C 3.0307346 19.481057 3.0770439 18.742397 3.5332031 17.830078 C 4.0870886 16.722307 5.5 15.5 7.5 15.5 C 9.1552856 15.5 10.247423 16.517686 11 17.386719 C 11.752577 16.517686 12.844714 15.5 14.5 15.5 C 16.5 15.5 17.912911 16.722307 18.466797 17.830078 C 18.924627 18.745742 18.971601 19.488341 18.980469 19.767578 A 1.50015 1.50015 0 0 0 19 19.5 C 19 19.5 19.02068 18.437849 18.466797 17.330078 C 17.912911 16.222307 16.5 15 14.5 15 C 12.844714 15 11.752577 16.017686 11 16.886719 C 10.247423 16.017686 9.1552856 15 7.5 15 z " style="fill:#8b9cbe;opacity:.2"/>
</svg>
