<svg xmlns="http://www.w3.org/2000/svg" width="22" height="22" version="1.1">
 <g transform="translate(-1,-1)">
  <rect style="opacity:0.2" width="18" height="20" x="3" y="2.5" rx="1" ry="1"/>
  <rect style="fill:#009688" width="18" height="20" x="3" y="2" rx="1" ry="1"/>
  <path style="opacity:0.2" d="M 15,2.5 V 13.5 L 16,12.5 H 17 L 18,13.5 V 2.5 Z"/>
  <path style="fill:#d8d8d8" d="M 15,2 V 13 L 16,12 H 17 L 18,13 V 2 Z"/>
  <path style="opacity:0.2" d="M 4,2 C 3.446,2 3,2.446 3,3 V 21 C 3,21.554 3.446,22 4,22 H 6 V 2 Z"/>
  <path style="opacity:0.2;fill:#8b9cbe" d="M 4,2 C 3.446,2 3,2.446 3,3 V 3.5 C 3,2.946 3.446,2.5 4,2.5 H 20 C 20.554,2.5 21,2.946 21,3.5 V 3 C 21,2.446 20.554,2 20,2 Z"/>
 </g>
</svg>
