<svg xmlns="http://www.w3.org/2000/svg" width="22" height="22" version="1.1">
 <rect style="opacity:0.2" width="20" height="20" x="1" y="1.5" rx="1.5" ry="1.5"/>
 <rect style="fill:#5c666b" width="20" height="20" x="1" y="1" rx="1.5" ry="1.5"/>
 <path style="opacity:0.1;fill:#8b9cbe" d="m 2.5,0.9999999 c -0.831,0 -1.5,0.6689999 -1.5,1.5 v 0.4999999 c 0,-0.831 0.669,-1.4999999 1.5,-1.4999999 h 16.999999 c 0.831,0 1.5,0.6689999 1.5,1.4999999 V 2.4999999 c 0,-0.8310001 -0.669,-1.5 -1.5,-1.5 z"/>
 <path style="opacity:0.2" d="M 11,6.4999322 A 0.50005,0.50005 0 0 0 10.568359,6.7479791 L 7.5332032,11.951105 6.4472657,9.777277 A 0.50005,0.50005 0 0 0 6.0000001,9.499933 H 4.5996095 a 0.50005,0.50005 0 1 0 0,1 h 1.0917968 l 1.3613282,2.722656 a 0.50005,0.50005 0 0 0 0.8789062,0.0293 L 11.287109,7.4999322 H 17 v 0.5 a 0.50005,0.50005 0 1 0 1,0 v -1 a 0.50005,0.50005 0 0 0 -0.5,-0.5 z m 2.5,2 c -1.380712,5e-7 -2.5,1.1192888 -2.5,2.5000008 0,1.380711 1.119289,2.5 2.5,2.5 0.541371,-0.0011 1.067749,-0.177956 1.5,-0.503906 -0.0081,0.674192 1.010819,0.672201 1,-0.002 V 9.005792 C 16.0041,8.7245228 15.774241,8.4955359 15.492188,8.4999322 15.217029,8.5042322 14.997067,8.7294307 15,9.003838 14.567749,8.6778886 14.041371,8.5010585 13.5,8.4999322 Z m 0,1.0000008 c 0.828427,0 1.5,0.671573 1.5,1.5 0,0.828427 -0.671573,1.5 -1.5,1.5 -0.828427,0 -1.5,-0.671573 -1.5,-1.5 0,-0.828427 0.671573,-1.5 1.5,-1.5 z m -8.9941405,5 c -0.6754723,-0.0096 -0.6754723,1.009561 0,1 H 17.492188 c 0.675471,0.0096 0.675471,-1.009561 0,-1 z m 5.9980465,2 c -0.6713779,-0.0096 -0.6713779,1.009561 0,1 h 0.992188 c 0.671378,0.0096 0.671378,-1.009561 0,-1 z"/>
 <path style="fill:#8b9cbe" d="M 11,6 A 0.50005,0.50005 0 0 0 10.568359,6.2480469 L 7.5332032,11.451172 6.4472657,9.277344 A 0.50005,0.50005 0 0 0 6.0000001,9 H 4.5996095 a 0.50005,0.50005 0 1 0 0,1 h 1.0917968 l 1.3613282,2.722656 a 0.50005,0.50005 0 0 0 0.8789062,0.0293 L 11.287109,7 H 17 v 0.5 a 0.50005,0.50005 0 1 0 1,0 v -1 A 0.50005,0.50005 0 0 0 17.5,6 Z m 2.5,2 c -1.380712,5e-7 -2.5,1.119288 -2.5,2.5 0,1.380711 1.119289,2.5 2.5,2.5 0.541371,-0.0011 1.067749,-0.177956 1.5,-0.503906 -0.0081,0.674192 1.010819,0.672201 1,-0.002 V 8.5058594 C 16.0041,8.2245906 15.774241,7.9956037 15.492188,8 15.217029,8.0043 14.997067,8.2294985 15,8.5039062 14.567749,8.1779564 14.041371,8.0011263 13.5,8 Z m 0,1 c 0.828427,-10e-8 1.5,0.671573 1.5,1.5 C 15,11.328427 14.328427,12 13.5,12 12.671573,12 12,11.328427 12,10.5 12,9.671573 12.671573,8.9999999 13.5,9 Z m -8.9941405,5 c -0.6754723,-0.0096 -0.6754723,1.009561 0,1 H 17.492188 c 0.675471,0.0096 0.675471,-1.009561 0,-1 z m 5.9980465,2 c -0.6713779,-0.0096 -0.6713779,1.009561 0,1 h 0.992188 c 0.671378,0.0096 0.671378,-1.009561 0,-1 z"/>
</svg>
