<svg xmlns="http://www.w3.org/2000/svg" height="22" width="22" version="1.1">
 <circle cx="11" cy="11.5" r="10" style="opacity:.2"/>
 <circle cx="11" cy="11" r="10" style="fill:#426180"/>
 <path d="m11 1a10 10 0 0 0 -10 10 10 10 0 0 0 0.0098 0.293 10 10 0 0 1 9.9902 -9.793 10 10 0 0 1 9.99 9.707 10 10 0 0 0 0.01 -0.207 10 10 0 0 0 -10 -10z" style="opacity:.1;fill:#8b9cbe"/>
 <path style="opacity:.1" d="m3 14.5c0 2.857143 2 4 2 4v-1l3 2 1-1s2-1 4 0l1 1s0.701667-0.617544 1.1-0.857143c1.9-1.142857 2.9-0.142857 2.9-0.142857s1.3-1.285714 1.3-5.571428c0-4.2857147 0.1-7.4285721-8.3-7.4285721-6 0-8 0-8 9.0000001z"/>
 <path style="fill:#4f4f4f" d="m3 14c0 2.857143 2 4 2 4v-1l3 2 1-1s2-1 4 0l1 1s0.701667-0.617544 1.1-0.857143c1.9-1.142857 2.9-0.142857 2.9-0.142857s1.3-1.285714 1.3-5.571428c0-4.2857146 0.1-7.428572-8.3-7.428572-6 0-8 0-8 9z"/>
 <rect style="opacity:.2" rx="3" ry="3" height="10" width="14" y="7.5" x="4"/>
 <rect style="fill:#b2bfd9" rx="3" ry="3" height="10" width="14" y="7" x="4"/>
 <path style="opacity:.2" d="m6 10.5c-0.554 0-1 0.446-1 1v2c0 0.554 0.446 1 1 1s1-0.446 1-1v-2c0-0.554-0.446-1-1-1zm8 0c-0.554 0-1 0.446-1 1v2c0 0.554 0.446 1 1 1s1-0.446 1-1v-2c0-0.554-0.446-1-1-1z"/>
 <rect style="fill:#426180" rx="1" ry="1" height="4" width="2" y="10" x="5"/>
 <rect style="fill:#426180" rx="1" ry="1" height="4" width="2" y="10" x="13"/>
 <path style="opacity:.1" d="m8 7.5000005c0 2.9999995 3 3.9999995 3 3.9999995v-3.9999995s-3-1-3 0zm3 0s2.8 5.9999995 7 5.9999995l0.374576-3.796874c0.135377-1.3722451-1.74963-3.2594843-3.274576-2.9731011z"/>
 <path style="fill:#4f4f4f" d="m8 7c0 3 3 4 3 4v-4s-3-1-3 0zm3 0s2.8 6 7 6l0.374576-3.7968748c0.135377-1.3722448-1.74963-3.259484-3.274576-2.9731008z"/>
 <path style="opacity:.2" d="m21 5.5-1 4c-1-1-2-1-2-1v6s3 0 3-3l1-6z"/>
 <path style="fill:#7cac5a" d="m21 5-1 4c-1-1-2-1-2-1v6s3 0 3-3l1-6z"/>
 <path style="opacity:.2;fill:#8b9cbe" d="m21 5l-1 4c-1-1-2-1-2-1v0.5s1 0 2 1l1-4h0.916016l0.083984-0.5h-1z"/>
 <path style="opacity:.2" d="m1 8.5h18s0.3-4.1428568-2.5-4.1428568h-9.8c-2.8 0-2.7 3.1428568-2.7 3.1428568h-3z"/>
 <path style="fill:#df371c" d="m1 8h18s0.3-4.1428568-2.5-4.1428568h-9.8c-2.8 0-2.7 3.1428568-2.7 3.1428568h-3z"/>
 <path style="opacity:.2;fill:#8b9cbe" d="m6.6992188 3.8574219c-2.8000001 0-2.6992188 3.1425781-2.6992188 3.1425781h-3v0.5h3s-0.1007813-3.1425781 2.6992188-3.1425781h9.8007812c2.082539 0 2.450268 2.2884248 2.501953 3.4628906 0.023519-0.4985239 0.103479-3.9628906-2.501953-3.9628906h-9.8007812z"/>
 <path style="opacity:.2" d="m4 7.5h12v-3s0-1-1-1h-10c-1 0-1 1-1 1z"/>
 <path style="fill:#cccccc" d="m4 7h12v-3s0-1-1-1h-10c-1 0-1 1-1 1z"/>
 <circle r="1" style="fill:#999999" cx="6" cy="5"/>
 <circle r="1" style="fill:#999999" cx="14" cy="5"/>
 <path style="opacity:.2;fill:#8b9cbe" d="m5 3c-1 0-1 1-1 1v0.5s0-1 1-1h10c1 0 1 1 1 1v-0.5s0-1-1-1h-10z"/>
</svg>
