<svg xmlns="http://www.w3.org/2000/svg" width="22" height="22" version="1">
 <circle style="opacity:0.2" cx="11.5" cy="11" r="10.5"/>
 <circle style="fill:#108beb" cx="11.5" cy="10.5" r="10.5"/>
 <path style="fill:#206420" d="m 10.508275,0.056385 a 10.5,10.5 0 0 0 -3.79995,1.10229 C 6.76135,1.3267275 6.6994,1.516305 6.5062,1.683675 6.375475,1.79697 6.268375,1.9734225 6.268375,2.0764275 6.268375,2.39127 6.552925,2.87469 6.78025,2.944935 7.082125,3.038385 6.9808,3.360525 6.5923,3.5385 6.41275,3.620925 6.191725,3.858225 6.101425,4.0656 6.0106,4.2735 5.87725,4.47825 5.8048,4.520775 5.732875,4.563825 5.67355,4.72605 5.67355,4.881975 c 0,0.217875 0.09975,0.3234 0.426825,0.454125 0.23415,0.093975 0.5145,0.162225 0.623175,0.151725 0.625275,-0.0588 0.66885,0.30555 0.122325,1.01745 C 6.55555,6.883275 6.4159,6.9783 6.217975,6.930525 6.0337,6.886425 5.9329,6.9384 5.8489,7.1211 5.7607,7.314825 5.6158,7.38045 5.226775,7.407225 4.84405,7.434 4.6729,7.5117 4.529575,7.721175 4.424575,7.87395 4.273375,7.99785 4.19305,7.99785 4.112515,7.99785 3.92341,8.10075 3.77263,8.2257 3.46582,8.480325 3.346015,8.50605 3.2384425,8.339625 3.0962725,8.119125 2.789515,8.230425 2.3330275,8.66775 1.9293025,9.05415 1.880425,9.157575 1.941325,9.49305 2.049685,10.089975 2.3734525,10.6197 2.7431575,10.8045 3.06577,10.965675 3.07207,10.983 2.876455,11.18985 c -0.1125075,0.119175 -0.30555,0.24675 -0.42861,0.284025 -0.355425,0.10815 -0.1553475,0.2436 0.4788525,0.32445 0.64911,0.08243 0.850815,0.317625 0.547575,0.6384 C 3.30517,12.61575 3.3146725,12.64935 3.586045,12.81945 4.116295,13.1523 4.537975,12.9486 4.040275,12.6 3.7203925,12.375825 3.944095,12.284475 4.41355,12.447225 4.787875,12.5769 4.8619,12.56955 5.082925,12.3774 5.53705,11.984175 6.03055,12.565875 5.615275,13.004775 5.3512,13.2846 5.431,13.62165 5.7733,13.668375 c 0.1512,0.02048 0.46515,0.161175 0.69825,0.3129 0.2331,0.1512 0.4872,0.275625 0.56385,0.275625 0.07665,0 0.29295,0.153825 0.4809,0.341775 0.38115,0.380625 0.592725,0.428925 0.70035,0.16065 0.12915,-0.32235 0.077175,-0.488775 -0.2709,-0.86835 -0.276675,-0.3024 -0.7266,-1.10565 -0.7266,-1.298325 0,-0.11865 0.457275,-0.01785 0.713475,0.156975 0.160125,0.109725 0.419475,0.25095 0.57645,0.315 0.16695,0.06825 0.3402,0.28035 0.419475,0.5124 0.123375,0.36435 0.1722,0.39585 0.609,0.39585 h 0.4746 L 10.08408,14.826 c 0.0861,1.026375 0.168525,1.234275 0.5208,1.3188 0.25935,0.06247 0.536025,0.4641 0.536025,0.77805 0,0.08347 -0.186375,0.288225 -0.414225,0.45465 -0.28245,0.206325 -0.40425,0.381675 -0.38535,0.55335 0.02363,0.214725 -0.0252,0.248325 -0.329175,0.22575 C 9.81633,18.1419 9.47613,18.21067 9.25773,18.309375 8.9989,18.425925 8.71855,18.4632 8.455525,18.41595 8.153125,18.361875 8.05075,18.382875 8.05075,18.501 c 0,0.08715 -0.10605,0.2499 -0.2352,0.36225 -0.3192,0.276675 -0.187425,0.42315 0.302925,0.33495 0.3045,-0.0546 0.42315,-0.03045 0.47565,0.1008 0.111825,0.278775 -0.171675,0.677775 -0.4347,0.61215 -0.16695,-0.042 -0.24675,0.01523 -0.298725,0.2121 -0.01785,0.06983 -0.050925,0.12915 -0.0903,0.17955 a 10.5,10.5 0 0 0 1.661625,0.490875 C 9.379525,20.6934 9.319675,20.60205 9.2614,20.5611 8.991025,20.37 9.17215,19.87335 9.544375,19.7841 9.92395,19.69275 9.8641,19.446525 9.45145,19.399275 9.089725,19.358325 8.7049,18.991875 8.82565,18.80445 c 0.081375,-0.125475 0.42735,-0.1071 1.127175,0.0588 0.31605,0.07455 0.531825,-0.0756 1.2642,-0.87675 0.423675,-0.4641 0.7497,-0.6573 1.107225,-0.6573 0.1365,0 0.623175,-0.125475 1.082025,-0.278775 0.86625,-0.290325 1.204875,-0.279825 1.17285,0.03675 -0.06615,0.65835 0.357525,0.6363 1.0479,-0.05355 0.2877,-0.287175 0.550725,-0.495075 0.58485,-0.462525 0.131775,0.126525 -0.105525,0.74235 -0.382725,0.991725 -0.351225,0.31605 -0.36855,0.51555 -0.05932,0.673575 0.16905,0.08715 0.240975,0.263025 0.26775,0.65835 l 0.0357,0.5397 h 0.4389 c 0.153825,0 0.2814,0.021 0.3843,0.06038 a 10.5,10.5 0 0 0 5.08725,-8.66565 c -0.16065,-0.34335 -0.1491,-0.550725 0,-0.78435 A 10.5,10.5 0 0 0 21.93648,9.4563 C 21.84093,9.4516 21.74328,9.4474 21.63093,9.4521 21.10173,9.47415 20.648655,9.265725 20.648655,9.000075 20.648655,8.9439 20.460705,8.712375 20.23128,8.4861 19.97088,8.2299 19.83753,8.0031 19.87638,7.8855 19.91208,7.7784 19.83543,7.605675 19.69998,7.4886 19.5682,7.37415 19.46005,7.1904 19.46005,7.08015 c 0,-0.175875 -0.111825,-0.197925 -0.92085,-0.1785 L 17.61835,6.924225 17.6341,7.83195 c 0.0273,1.5897 0.264075,2.00235 0.99435,1.736175 0.334425,-0.122325 1.15605,-0.02993 1.389675,0.1554 0.08452,0.0672 0.20685,0.3108 0.271425,0.5418 0.0651,0.230475 0.30555,0.63 0.5355,0.886725 0.46515,0.5208 0.501375,0.723975 0.234675,1.335075 -0.232575,0.5334 -0.483525,0.471975 -0.43365,-0.106575 l 0.03675,-0.4305 -0.39375,0.0735 c -0.217875,0.04148 -0.490875,0.202125 -0.6132,0.3612 -0.1743,0.226275 -0.255675,0.25935 -0.3864,0.155925 -0.09135,-0.07245 -0.165375,-0.225225 -0.165375,-0.338625 0,-0.1134 -0.11235,-0.2394 -0.24885,-0.280875 -0.137025,-0.04148 -0.32445,-0.2478 -0.416325,-0.459375 -0.147525,-0.3381 -0.14385,-0.441525 0.02782,-0.852075 0.173775,-0.416325 0.17535,-0.4851 0.01522,-0.638925 -0.147,-0.1407 -0.223125,-0.145425 -0.416325,-0.0294 -0.19425,0.116025 -0.286125,0.107625 -0.517125,-0.04725 -0.153825,-0.103425 -0.42315,-0.189 -0.59745,-0.189 -0.354375,0 -0.461475,-0.1722 -0.461475,-0.74235 0,-0.526575 -0.31395,-0.717675 -1.06155,-0.6489 C 14.90935,8.361675 14.7949,8.32755 14.376475,8.0052 14.11765,7.806225 13.7092,7.327425 13.4677,6.939975 13.2262,6.552525 12.966325,6.14775 12.8902,6.04065 12.781,5.885775 12.807775,5.7372 13.02145,5.315625 L 13.2913,4.785375 12.72115,4.86255 c -1.0143,0.137025 -1.219575,0.268275 -0.7833,0.502425 0.1701,0.090825 0.17745,0.13755 0.0462,0.289275 -0.0861,0.0987 -0.126525,0.255675 -0.08925,0.3486 0.03727,0.0924 -0.01,0.3108 -0.104475,0.484575 -0.09502,0.1743 -0.1743,0.418425 -0.17745,0.5439 C 11.6029,7.42245 10.933,7.733775 10.18645,7.6923 9.0556,7.629825 8.963725,7.647675 8.5621,8.020425 8.0602,8.486625 7.995625,8.70345 8.22925,9.13605 c 0.226275,0.42 0.628425,0.587475 1.324575,0.552825 0.62265,-0.03097 0.693,0.02415 0.550725,0.43575 -0.121275,0.34965 -0.527625,0.48405 -0.80325,0.26565 C 9.0892,10.22175 8.357875,10.35195 8.1337,10.5987 8.039725,10.7016 7.900075,10.9725 7.82395,11.1993 7.6927,11.59095 7.654375,11.6151 7.066375,11.6718 6.479425,11.729025 6.422725,11.710125 6.000625,11.3211 5.5297,10.88745 5.4499,10.55565 5.6767,9.98445 5.7775,9.7314 5.85205,9.689925 6.12085,9.739275 6.6532,9.8364 6.8632,9.6516 6.8632,9.083025 6.8632,8.8074 6.80965,8.549625 6.744025,8.510775 6.678925,8.471925 6.625375,8.325975 6.625375,8.1858 6.625375,8.045625 6.558175,7.865025 6.4768,7.78575 6.357625,7.67025 6.37495,7.6083 6.565,7.4739 6.6952,7.382025 6.9094,7.320075 7.04065,7.335825 7.171375,7.351575 7.5331,7.294875 7.844425,7.21035 8.29435,7.089075 8.42665,6.9972 8.48755,6.760425 8.60305,6.311025 8.884975,5.95035 9.121225,5.95035 c 0.373275,0 0.38115,-0.8778 0.01837,-2.1546 C 9.08605,3.607275 8.938525,3.487575 8.678125,3.423 8.467075,3.3705 8.23765,3.22665 8.16835,3.102855 8.099575,2.97906 7.97305,2.87826 7.887475,2.87826 7.8019,2.87826 7.634425,2.77578 7.5163,2.65062 7.397125,2.52462 7.1509,2.42298 6.963475,2.42298 6.51985,2.42298 6.5125,2.117535 6.95245,1.956465 7.417075,1.786155 8.140525,2.009385 8.31535,2.3768325 8.552125,2.87511 8.81515,2.66721 8.899675,1.9144125 9.00415,0.983325 9.32545,0.7157325 10.338175,0.7157325 h 0.728175 l -0.3192,-0.318885 C 10.64793,0.2973075 10.5655,0.175665 10.508275,0.056385 Z m 3.77475,0.3301725 c -0.02048,0.01848 -0.04043,0.0336 -0.06038,0.054337 -0.2436,0.24864 -0.35805,0.2840775 -0.734475,0.2266425 -0.6573,-0.1002225 -0.572775,0.16443 0.154875,0.4839975 0.393225,0.1727775 0.646275,0.3697575 0.732375,0.5690475 0.41475,0.96159 0.70035,1.4792925 0.843675,1.5317925 0.2898,0.106575 0.462525,-0.10731 0.5271,-0.654045 0.07402,-0.62727 0.286125,-0.7602525 0.667275,-0.4173225 0.14805,0.1330875 0.3549,0.2419725 0.459375,0.2419725 0.326025,0 0.567,0.1308825 0.567,0.30765 0,0.093135 0.11025,0.3175725 0.245175,0.49917 0.198975,0.267225 0.3339,0.331275 0.7056,0.331275 0.456225,0 0.73605,0.085575 1.30725,0.4011 0.0089,0.00472 0.01785,0.0063 0.02678,0.011025 A 10.5,10.5 0 0 0 14.283025,0.3865575 Z M 1.0021,10.455008 a 10.5,10.5 0 0 0 -0.00205,0.04515 10.5,10.5 0 0 0 0.205065,2.01705 c 0.380415,0.154875 0.48552,0.09345 0.525,-0.2604 0.020423,-0.183225 0.1160775,-0.3906 0.2133075,-0.462525 C 2.093625,11.683508 2.066535,11.626808 1.7588325,11.416807 1.5596475,11.280832 1.36335,11.043533 1.32303,10.889707 1.28397,10.740607 1.15188,10.577857 1.0020975,10.455008 Z m 3.3049275,3.470775 c -0.098175,-0.01 -0.2164575,0.04253 -0.3477075,0.168525 -0.2776725,0.26565 -0.235725,0.799575 0.07896,1.010624 0.3606225,0.242026 0.4997475,0.171675 0.5454225,-0.274574 0.056175,-0.5502 -0.061425,-0.882 -0.276675,-0.904575 z m 1.78185,1.5876 c -0.1071,0.0037 -0.225225,0.08032 -0.34335,0.242024 -0.125475,0.17115 -0.1596,0.392175 -0.111825,0.72765 0.059325,0.41265 0.0336,0.50085 -0.182175,0.611625 -0.277725,0.141751 -0.33705,0.56385 -0.109725,0.7812 0.22575,0.2163 0.441,0.1596 0.5187,-0.136499 0.11025,-0.422101 0.728175,-0.471451 1.150275,-0.0924 0.180075,0.1617 0.327075,0.2436 0.327075,0.18165 0,-0.06195 -0.187425,-0.287175 -0.416325,-0.499275 -0.350175,-0.3255 -0.415275,-0.4641 -0.415275,-0.88305 0,-0.59115 -0.181125,-0.940275 -0.417375,-0.932925 z M 3.16258,16.868932 a 10.5,10.5 0 0 0 0.2430225,0.306601 C 3.334045,17.064757 3.252355,16.958707 3.16258,16.868932 Z m 3.5384475,1.61175 c -0.053025,0.01837 -0.0756,0.08505 -0.0756,0.202125 0,0.11865 -0.0756,0.243075 -0.168,0.276675 -0.12285,0.04515 -0.1512,0.187425 -0.10395,0.5271 0.00892,0.06353 0.01155,0.114451 0.0147,0.167475 a 10.5,10.5 0 0 0 0.4368,0.224175 c -0.00735,-0.181649 0.025725,-0.395325 0.12075,-0.663075 0.161175,-0.454649 0.16695,-0.568575 0.0357,-0.648374 -0.12285,-0.07455 -0.20685,-0.104475 -0.2604,-0.0861 z"/>
 <path style="opacity:0.2;fill:none;stroke:#000000;stroke-width:2;stroke-linecap:round;stroke-linejoin:bevel" d="m 10.000829,8.9998605 c 0,0 -0.0077,0.5000925 -1.4999053,0.5000925 -1.4922555,0 -1.4999055,-1.5076795 -1.4999055,-2.999936 0,-1.4922545 0.00765,-2.999811 1.4999055,-2.999811 1.4922553,0 1.4999053,0.499968 1.4999053,0.499968"/>
 <path style="fill:none;stroke:#8b9cbe;stroke-width:2;stroke-linecap:round;stroke-linejoin:bevel" d="m 10.000829,8.499862 c 0,0 -0.0077,0.500091 -1.4999053,0.500091 -1.4922555,0 -1.4999055,-1.507678 -1.4999055,-2.9999345 0,-1.4922545 0.00765,-2.999811 1.4999055,-2.999811 1.4922553,0 1.4999053,0.499968 1.4999053,0.499968"/>
 <path style="opacity:0.2;fill:none;stroke:#000000;stroke-width:2;stroke-linecap:round;stroke-linejoin:bevel" d="m 13.014197,18.490543 c 0,0 3.027186,0.243638 2.994519,-3.002203 -0.03267,-3.245852 -2.994519,-2.997419 -2.994519,-2.997419 m -0.01058,5.994837 v -5.99962"/>
 <path style="fill:none;stroke:#8b9cbe;stroke-width:2;stroke-linecap:round;stroke-linejoin:bevel" d="m 13.014197,17.990543 c 0,0 3.027186,0.243638 2.994519,-3.002203 -0.03267,-3.245852 -2.994519,-2.997419 -2.994519,-2.997419 m -0.01058,5.994837 v -5.99962"/>
 <path style="opacity:0.2;fill:none;stroke:#000000;stroke-width:2;stroke-linecap:round;stroke-linejoin:bevel" d="m 16.000829,8.9999085 c 0,0 -0.0077,0.5000915 -1.499905,0.5000915 -1.492256,0 -1.499906,-1.507679 -1.499906,-2.9999355 0,-1.4922545 0.0077,-2.999811 1.499906,-2.999811 1.492255,0 1.499905,0.499968 1.499905,0.499968"/>
 <path style="fill:none;stroke:#8b9cbe;stroke-width:2;stroke-linecap:round;stroke-linejoin:bevel" d="m 16.000829,8.49991 c 0,0 -0.0077,0.50009 -1.499905,0.50009 -1.492256,0 -1.499906,-1.5076775 -1.499906,-2.999934 0,-1.4922545 0.0077,-2.999811 1.499906,-2.999811 1.492255,0 1.499905,0.499968 1.499905,0.499968"/>
 <path style="opacity:0.2;fill:none;stroke:#000000;stroke-width:2;stroke-linecap:round;stroke-linejoin:round" d="m 7.0142425,12.496318 h 1.739318 c 0,0 1.2606815,-0.104839 1.2606815,1.250202 v 1.749549 H 8.0142425 10.014242 v 1.750451 c 0,1.322511 -1.2606815,1.249797 -1.2606815,1.249797 h -1.739318"/>
 <path style="fill:none;stroke:#f8f8f8;stroke-width:2;stroke-linecap:round;stroke-linejoin:round" d="m 7.0142425,11.996318 h 1.739318 c 0,0 1.2606815,-0.104839 1.2606815,1.250202 v 1.749549 H 8.0142425 10.014242 v 1.750451 c 0,1.322511 -1.2606815,1.249797 -1.2606815,1.249797 h -1.739318"/>
 <path style="opacity:0.2;fill:#8b9cbe" d="M 11.5,0 A 10.5,10.5 0 0 0 1,10.5 10.5,10.5 0 0 0 1.0097656,10.796875 10.5,10.5 0 0 1 11.5,0.5 10.5,10.5 0 0 1 21.990234,10.703125 10.5,10.5 0 0 0 22,10.5 10.5,10.5 0 0 0 11.5,0 Z"/>
</svg>
