<svg xmlns="http://www.w3.org/2000/svg" width="22" height="22" version="1.1">
 <path style="opacity:0.2" d="m 2,5.498998 c -0.554,0 -1,0.4604995 -1,1.0145 v 9 c 0,0.554 0.4460769,0.994732 1,0.9855 h 6 v 4.5005 c 5e-4,0.455419 0.5257505,0.67315 0.8339845,0.33789 L 13.53125,16.498998 H 20 c 0.554,0 1,-0.4315 1,-0.9855 v -9 c 0,-0.5540005 -0.446,-1.0145 -1,-1.0145 z"/>
 <path style="fill:#b2bfd9" d="M 2,5 C 1.446,5 1,5.4604995 1,6.0145 v 9 C 1,15.5685 1.4460769,16.009232 2,16 h 6 v 4.5005 c 5e-4,0.455419 0.5257505,0.67315 0.8339845,0.33789 L 13.53125,16 H 20 c 0.554,0 1,-0.4315 1,-0.9855 v -9 C 21,5.4604995 20.554,5 20,5 Z"/>
 <path style="opacity:0.2;fill:#8b9cbe" d="M 2,5 C 1.446,5 1,5.4596714 1,6.0136719 v 0.5 C 1,5.9596714 1.446,5.5 2,5.5 h 18 c 0.554,0 1,0.4596714 1,1.0136719 v -0.5 C 21,5.4596714 20.554,5 20,5 Z"/>
 <path style="opacity:0.1" d="m 20.156354,1.4997989 c -0.265491,0.010822 -0.508027,0.1398618 -0.648264,0.3449035 l -6.306919,9.7893856 c -0.579298,0.821978 0.219148,1.241663 0.798446,0.419685 l 6.865841,-9.4201751 c 0.362224,-0.4991399 -0.0516,-1.1608106 -0.709104,-1.133799 z"/>
 <path style="fill:#ff8a46" d="M 20.156354,1.0008012 C 19.890863,1.0116232 19.648327,1.140663 19.50809,1.3457047 l -6.306919,9.7893863 c -0.579298,0.821978 0.219148,1.241662 0.798446,0.419685 l 6.865841,-9.4201758 c 0.362224,-0.4991399 -0.05161,-1.16081062 -0.709104,-1.133799 z"/>
</svg>
