<svg xmlns="http://www.w3.org/2000/svg" width="22" height="22" version="1">
 <path style="opacity:0.2" d="M 7.1442322,1.5015331 C 6.4141388,1.5181995 5.8125724,1.6145938 5.234076,1.8062206 4.8728061,1.9258932 4.4249435,2.1026949 4.251877,2.2241894 4.1248392,2.3133656 4.0194549,2.51614 4.0194549,2.6734081 c 0,0.0827 0.039814,0.219411 0.085937,0.2929688 0.01908,0.030433 0.234802,0.1625463 0.3561953,0.2929687 0.121399,0.130423 0.2639836,0.2867922 0.3183598,0.3476563 1.004436,1.124214 1.1657132,2.1829113 1.219754,3.4941406 -0.069016,0.6783587 -0.2470872,1.351958 -0.8007812,1.9785155 -1.1629621,1.459613 -1.5467581,2.065966 -1.9121094,3.017578 -0.1442346,0.375682 -0.2229406,0.69372 -0.2695313,1.082032 -0.022857,0.189152 -0.02322,0.844274 0,1.160156 0.072414,0.985047 0.2663611,1.879541 0.6035157,2.777344 0.037551,0.09999 0.092915,0.248633 0.1230468,0.330078 0.3057947,0.825663 0.9924974,1.949327 1.6738282,2.74414 0.1636964,0.190959 0.6258374,0.650072 0.8652343,0.859375 0.2871018,0.251013 0.5910187,0.410956 0.8457031,0.441407 l 0,-0.002 c 0.057385,0.0068 1.4969078,0.01176 3.1972658,0.0098 l 3.089844,-0.0039 0.115234,-0.0332 c 0.248829,-0.07275 0.569875,-0.266174 0.824219,-0.498047 0.06539,-0.05961 0.225597,-0.222209 0.355469,-0.361328 0.843087,-0.903142 2.01138,-2.231522 2.466796,-3.335938 0.425258,-1.031276 0.621668,-1.733892 0.732422,-2.609375 0.130392,-1.030731 0.07283,-1.724755 -0.205078,-2.417969 -0.215984,-0.484401 -0.678873,-0.996723 -0.688728,-1.55664 1.03e-4,-0.220623 0.005,-0.299575 0.0293,-0.386719 0.06486,-0.232463 0.183739,-0.44602 0.352792,-0.642578 0.04112,-0.04783 0.240642,-0.249241 0.443359,-0.449219 0.482168,-0.4756509 0.638063,-0.6712911 0.824219,-1.033203 0.150158,-0.2919175 0.259519,-0.6385781 0.310546,-0.9863281 0.0323,-0.2187051 0.03101,-0.6333067 -0.002,-0.8554688 C 18.785239,5.0563965 17.831261,3.911756 16.57392,3.6030956 16.21928,3.5160338 15.904299,3.5124249 14.820013,3.49958 13.328038,3.4808052 11.652724,3.3085527 10.236029,2.4351269 9.340496,1.9723558 9.030155,1.8323795 8.6051698,1.6987988 8.090889,1.5371525 7.7352405,1.4880433 7.1442322,1.5015331 Z M 14.767279,5.49958 c 0.441197,3.45e-4 0.654061,0.00577 0.753906,0.019531 0.522774,0.072052 0.963661,0.3128862 1.232422,0.671875 0.245774,0.3282908 0.311076,0.7131629 0.181641,1.0742188 -0.10398,0.2900766 -0.219766,0.4177738 -0.736328,0.8242188 -0.528124,0.4155516 -0.712779,0.5870179 -0.898438,0.8300783 -0.03354,0.043936 -0.07176,0.080078 -0.08398,0.080078 -0.01219,0 -0.05605,-0.036146 -0.09766,-0.080078 L 14.950873,8.7437206 c -0.443363,-0.467625 -0.776164,-0.8927735 -0.88086,-1.125 -0.04235,-0.093883 -0.05258,-0.1462221 -0.06445,-0.328125 -0.03115,-0.4765584 0.0566,-1.658689 0.13086,-1.7675781 0.01531,-0.022475 0.06324,-0.023877 0.630856,-0.023437 z"/>
 <path style="fill:#b2bfd9" d="M 7.1442322,1.0019531 C 6.4141388,1.0186195 5.8125724,1.1150138 5.234076,1.3066406 4.8728061,1.4263132 4.4249435,1.6031149 4.251877,1.7246094 4.1248392,1.8137856 4.0194549,2.01656 4.0194549,2.1738281 c 0,0.0827 0.039814,0.219411 0.085937,0.2929688 0.01908,0.030433 0.234802,0.1625463 0.3561953,0.2929687 0.121399,0.130423 0.2639836,0.2867922 0.3183598,0.3476563 1.004436,1.124214 1.1657132,2.1829113 1.219754,3.4941406 C 5.930685,7.2799212 5.7526138,7.9535205 5.1989198,8.5800781 4.0359577,10.039691 3.6521617,10.646044 3.2868104,11.597656 c -0.1442346,0.375682 -0.2229406,0.69372 -0.2695313,1.082032 -0.022857,0.189152 -0.02322,0.844274 0,1.160156 0.072414,0.985047 0.2663611,1.879541 0.6035157,2.777344 0.037551,0.09999 0.092915,0.248633 0.1230468,0.330078 0.3057947,0.825663 0.9924974,1.949327 1.6738282,2.74414 0.1636964,0.190959 0.6258374,0.650072 0.8652343,0.859375 0.2871018,0.251013 0.5910187,0.410956 0.8457031,0.441407 l 0,-0.002 c 0.057385,0.0068 1.4969078,0.01176 3.1972658,0.0098 l 3.089844,-0.0039 0.115234,-0.0332 c 0.248829,-0.07275 0.569875,-0.266174 0.824219,-0.498047 0.06539,-0.05961 0.225597,-0.222209 0.355469,-0.361328 0.843087,-0.903142 2.01138,-2.231522 2.466796,-3.335938 0.425258,-1.031276 0.621668,-1.733892 0.732422,-2.609375 0.130392,-1.030731 0.07283,-1.724755 -0.205078,-2.417969 -0.215984,-0.484401 -0.678873,-0.996723 -0.688728,-1.55664 1.03e-4,-0.220623 0.005,-0.299575 0.0293,-0.386719 0.06486,-0.232463 0.183739,-0.44602 0.352792,-0.642578 0.04112,-0.04783 0.240642,-0.2492406 0.443359,-0.4492189 0.482168,-0.475651 0.638063,-0.6712912 0.824219,-1.0332031 0.150158,-0.2919175 0.259519,-0.6385781 0.310546,-0.9863281 0.0323,-0.2187051 0.03101,-0.6333067 -0.002,-0.8554688 C 18.785239,4.5568165 17.831261,3.412176 16.57392,3.1035156 16.21928,3.0164538 15.904299,3.0128449 14.820013,3 13.328038,2.9812252 11.652724,2.8089727 10.236029,1.9355469 9.340496,1.4727758 9.030155,1.3327995 8.6051698,1.1992188 8.090889,1.0375725 7.7352405,0.9884633 7.1442322,1.0019531 Z M 14.767279,5 c 0.441197,3.45e-4 0.654061,0.00577 0.753906,0.019531 0.522774,0.072052 0.963661,0.3128862 1.232422,0.671875 0.245774,0.3282908 0.311076,0.7131629 0.181641,1.0742188 C 16.831268,7.0557014 16.715482,7.1833986 16.19892,7.5898436 15.670796,8.0053952 15.486141,8.1768615 15.300482,8.4199219 15.266942,8.4638579 15.228718,8.5 15.216498,8.5 c -0.01219,0 -0.05605,-0.036146 -0.09766,-0.080078 L 14.950873,8.2441406 c -0.443363,-0.467625 -0.776164,-0.8927735 -0.88086,-1.125 -0.04235,-0.093883 -0.05258,-0.1462221 -0.06445,-0.328125 -0.03115,-0.4765584 0.0566,-1.658689 0.13086,-1.7675781 C 14.15173,5.0009625 14.199668,4.99956 14.767279,5 Z"/>
 <path style="opacity:0.2" d="m 13.067741,18.121497 c -0.905106,-0.522563 -3.797169,-3.831135 -3.797169,-3.831135 0,0 4.311339,0.850315 5.216444,1.372878 0.905106,0.522562 1.165747,1.765602 0.929201,2.175312 -0.236546,0.40971 -1.443371,0.805508 -2.348476,0.282945 z"/>
 <path style="fill:#4670c8" d="m 13.067741,17.621497 c -0.905106,-0.522563 -3.797169,-3.831135 -3.797169,-3.831135 0,0 4.311339,0.850315 5.216444,1.372878 0.905106,0.522562 1.165747,1.765602 0.929201,2.175312 -0.236546,0.40971 -1.443371,0.805508 -2.348476,0.282945 z"/>
 <path style="opacity:0.2" d="m 14.522811,15.391354 c -1.009514,0.270498 -5.394025,-0.02402 -5.394025,-0.02402 0,0 3.649839,-2.447315 4.659353,-2.717813 1.009514,-0.270498 2.072778,0.424163 2.195223,0.881134 0.122445,0.456972 -0.451038,1.590198 -1.460551,1.860697 z"/>
 <path style="fill:#4ab6e7" d="m 14.522811,14.891354 c -1.009514,0.270498 -5.394025,-0.02402 -5.394025,-0.02402 0,0 3.649839,-2.447315 4.659353,-2.717813 1.009514,-0.270498 2.072778,0.424163 2.195223,0.881134 0.122445,0.456972 -0.451038,1.590198 -1.460551,1.860697 z"/>
 <path style="opacity:0.2" d="m 13.621198,12.431961 c -0.522563,0.905106 -3.831135,3.797168 -3.831135,3.797168 0,0 0.850314,-4.311338 1.372877,-5.216444 0.522563,-0.905105 1.765603,-1.165746 2.175313,-0.9292 0.409709,0.236545 0.805508,1.44337 0.282945,2.348476 z"/>
 <path style="fill:#4670c8" d="m 13.621198,11.931961 c -0.522563,0.905106 -3.831135,3.797168 -3.831135,3.797168 0,0 0.850314,-4.311338 1.372877,-5.216444 0.522563,-0.905105 1.765603,-1.165746 2.175313,-0.9292 0.409709,0.236545 0.805508,1.44337 0.282945,2.348476 z"/>
 <path style="opacity:0.2" d="m 6.5123861,14.336761 c 0.9051056,0.522563 5.2164439,1.372877 5.2164439,1.372877 0,0 -2.8920627,-3.308571 -3.7971682,-3.831134 -0.9051056,-0.522563 -2.1119303,-0.126765 -2.3484764,0.282945 -0.2365461,0.40971 0.024095,1.652749 0.9292007,2.175312 z"/>
 <path style="fill:#4670c8" d="m 6.5123861,13.836761 c 0.9051056,0.522563 5.2164439,1.372877 5.2164439,1.372877 0,0 -2.8920627,-3.308571 -3.7971682,-3.831134 -0.9051056,-0.522563 -2.1119303,-0.126765 -2.3484764,0.282945 -0.2365461,0.40971 0.024095,1.652749 0.9292007,2.175312 z"/>
 <path style="opacity:0.2" d="m 8.1492242,11.711562 c 0.2704983,1.009514 2.7178128,4.659354 2.7178128,4.659354 0,0 0.294517,-4.384512 0.02402,-5.394025 C 10.620558,9.967377 9.487332,9.393894 9.030361,9.516339 8.5733889,9.638785 7.8787278,10.702048 8.1492262,11.711562 Z"/>
 <path style="opacity:0.2" d="m 7.2112624,17.350477 c 1.0095148,-0.270498 4.6593546,-2.717813 4.6593546,-2.717813 0,0 -4.3845111,-0.294517 -5.3940251,-0.02402 -1.0095146,0.270499 -1.5829971,1.403725 -1.4605516,1.860696 0.122445,0.456973 1.1857086,1.151633 2.1952221,0.881135 z"/>
 <path style="fill:#4ab6e7" d="m 7.2112624,16.850477 c 1.0095148,-0.270498 4.6593546,-2.717813 4.6593546,-2.717813 0,0 -4.3845111,-0.294517 -5.3940251,-0.02402 -1.0095146,0.270499 -1.5829971,1.403725 -1.4605516,1.860696 0.122445,0.456973 1.1857086,1.151633 2.1952221,0.881135 z"/>
 <path style="opacity:0.2" d="m 10.108348,19.02311 c -0.270499,-1.009515 0.02402,-5.394026 0.02402,-5.394026 0,0 2.447314,3.64984 2.717812,4.659354 0.270498,1.009515 -0.424163,2.072778 -0.881134,2.195223 -0.456972,0.122446 -1.590198,-0.451038 -1.860696,-1.460551 z"/>
 <path style="fill:#4ab6e7" d="m 10.108348,18.52311 c -0.270499,-1.009515 0.02402,-5.394026 0.02402,-5.394026 0,0 2.447314,3.64984 2.717812,4.659354 0.270498,1.009515 -0.424163,2.072778 -0.881134,2.195223 -0.456972,0.122446 -1.590198,-0.451038 -1.860696,-1.460551 z"/>
 <path style="opacity:0.2" d="m 9.836462,18.987316 c 0.522563,-0.905106 1.372877,-5.216444 1.372877,-5.216444 0,0 -3.3085718,2.892062 -3.8311347,3.797168 -0.5225629,0.905105 -0.1267647,2.11193 0.2829452,2.348476 0.409709,0.236546 1.6527495,-0.0241 2.1753125,-0.9292 z"/>
 <path style="fill:#4670c8" d="m 9.836462,18.487316 c 0.522563,-0.905106 1.372877,-5.216444 1.372877,-5.216444 0,0 -3.3085718,2.892062 -3.8311347,3.797168 -0.5225629,0.905105 -0.1267647,2.11193 0.2829452,2.348476 0.409709,0.236546 1.6527495,-0.0241 2.1753125,-0.9292 z"/>
 <path style="fill:#4ab6e7" d="m 8.1492242,11.211562 c 0.2704983,1.009514 2.7178128,4.659354 2.7178128,4.659354 0,0 0.294517,-4.384512 0.02402,-5.394025 C 10.620558,9.467377 9.487332,8.8938942 9.030361,9.016339 8.5733889,9.138785 7.8787278,10.202048 8.1492262,11.211562 Z"/>
 <circle style="opacity:0.2" cx="16.593" cy="7.741" r="1.5" transform="matrix(0.8660254,0.5,-0.5,0.8660254,0,0)"/>
 <circle style="fill:#ffb22e" cx="16.343" cy="7.308" r="1.5" transform="matrix(0.8660254,0.5,-0.5,0.8660254,0,0)"/>
 <path style="opacity:0.2;fill:#8b9cbe" d="M 7.1442322,1.0019531 C 6.4141389,1.0186195 5.8125724,1.1150138 5.234076,1.3066406 4.8728061,1.4263132 4.4247206,1.6031149 4.2516541,1.7246094 4.1246163,1.8137856 4.0192323,2.01656 4.0192322,2.1738281 c 0,0.069474 0.035934,0.169848 0.072266,0.2460938 0.041983,-0.079399 0.09799,-0.1516744 0.1601559,-0.1953125 C 4.4247206,2.1031149 4.8728061,1.9263132 5.234076,1.8066406 5.8125724,1.6150138 6.4141389,1.5186195 7.1442322,1.5019531 7.7352406,1.4884633 8.090889,1.5375724 8.6051698,1.6992188 9.030155,1.8327994 9.340496,1.9727758 10.236029,2.4355469 11.652724,3.3089727 13.328038,3.4812252 14.820013,3.5 c 1.084286,0.012845 1.399267,0.016454 1.753907,0.1035156 1.257341,0.3086604 2.211362,1.4533039 2.40039,2.7265625 0.01394,0.093835 -0.0025,0.2280926 0,0.3613281 3.02e-4,-0.00203 0.0017,-0.00383 0.002,-0.00586 0.0323,-0.2187051 0.03106,-0.6333067 -0.002,-0.8554688 C 18.785282,4.5568195 17.831261,3.412176 16.57392,3.1035156 16.21928,3.0164538 15.904299,3.0128449 14.820013,3 13.328038,2.9812252 11.652724,2.8089727 10.236029,1.9355469 9.340496,1.4727758 9.030155,1.3327994 8.6051698,1.1992188 8.090889,1.0375724 7.7352406,0.9884633 7.1442322,1.0019531 Z M 16.962592,6.640625 c -0.0097,0.041742 -0.01256,0.08376 -0.02734,0.125 -0.10398,0.2900766 -0.219766,0.4177738 -0.736328,0.8242188 C 15.670796,8.0053954 15.486141,8.1768615 15.300482,8.4199219 15.266942,8.4638579 15.228718,8.5 15.216498,8.5 c -0.01219,0 -0.05605,-0.036146 -0.09766,-0.080078 L 14.950873,8.2441406 c -0.443363,-0.467625 -0.776164,-0.8927735 -0.88086,-1.125 -0.03502,-0.077645 -0.04255,-0.1538771 -0.05273,-0.2714844 -0.0031,0.1517077 -0.01848,0.339934 -0.01172,0.4433594 0.01187,0.1819029 0.0221,0.234242 0.06445,0.328125 0.104696,0.2322265 0.437497,0.657375 0.88086,1.125 l 0.167969,0.1757813 C 15.160452,8.9638539 15.204308,9 15.216498,9 c 0.01222,0 0.05044,-0.036142 0.08398,-0.080078 0.185659,-0.2430604 0.370314,-0.4145265 0.898438,-0.8300781 0.516562,-0.4064451 0.632348,-0.5341422 0.736328,-0.8242188 0.07372,-0.2056294 0.07732,-0.4187724 0.02734,-0.625 z M 5.9743104,6.7714844 C 5.8926401,7.3920998 5.706299,8.0059301 5.1989198,8.5800781 4.0359577,10.039691 3.6521617,10.646044 3.2868104,11.597656 c -0.1442346,0.375682 -0.2229406,0.693719 -0.2695313,1.082032 -0.00985,0.08152 0.00141,0.309837 0,0.5 0.046591,-0.388313 0.1252967,-0.70635 0.2695313,-1.082032 C 3.6521617,11.146044 4.0359576,10.539691 5.1989198,9.080078 5.7526138,8.4535206 5.930685,7.7799212 5.999701,7.1015625 5.994964,6.9866245 5.981191,6.8827558 5.9743104,6.7714844 Z M 17.04267,10.322266 c -0.02038,0.08102 -0.02725,0.155191 -0.02734,0.361328 0.0099,0.559917 0.473469,1.072239 0.689453,1.55664 0.162332,0.40492 0.241341,0.8186 0.259766,1.291016 0.03624,-0.702064 -0.04279,-1.249795 -0.259766,-1.791016 -0.197821,-0.443666 -0.58783,-0.912341 -0.662109,-1.417968 z"/>
 <path style="opacity:0.2;fill:#8b9cbe" d="M 10.429389,13.001953 A 1.5,1.5 0 0 0 9.200873,13.75 a 1.5,1.5 0 0 0 -0.179688,1 1.5,1.5 0 0 1 0.179688,-0.5 1.5,1.5 0 0 1 2.048828,-0.548828 1.5,1.5 0 0 1 0.728516,1.048828 1.5,1.5 0 0 0 -0.728516,-1.548828 1.5,1.5 0 0 0 -0.820312,-0.199219 z"/>
</svg>
