<svg xmlns="http://www.w3.org/2000/svg" width="22" height="22" version="1.1">
 <path style="opacity:0.2" d="M 9.148309,21.340129 C 4.6122345,20.522669 1.3032783,16.817358 1.0193021,12.23741 0.64655174,6.2257197 5.7247013,1.1449284 11.731665,1.5194745 c 2.35335,0.1467356 4.513864,1.0686234 6.179606,2.6368269 2.019244,1.9010068 3.08307,4.321381 3.088695,7.0272736 0.0027,1.297398 -0.169992,2.10201 -0.770541,3.590189 -0.24677,0.611503 -0.514641,1.35272 -0.595272,1.647149 -0.309892,1.131611 -0.119733,2.298515 0.608926,3.736675 0.235726,0.465253 0.404837,0.86956 0.375801,0.898458 -0.02903,0.0289 -0.501766,-0.117712 -1.050513,-0.325801 -2.050272,-0.777475 -2.84219,-0.78298 -4.683075,-0.03255 -1.895798,0.772811 -3.818687,0.988139 -5.736983,0.642438 z"/>
 <path style="fill:#465c66" d="M 9.148309,20.84013 C 4.6122345,20.02267 1.3032783,16.317359 1.0193021,11.737411 0.64655174,5.7257202 5.7247013,0.64492887 11.731665,1.019475 c 2.35335,0.1467356 4.513864,1.0686234 6.179606,2.6368268 2.019244,1.9010069 3.08307,4.3213812 3.088695,7.0272732 0.0027,1.297398 -0.169992,2.102011 -0.770541,3.59019 -0.24677,0.611503 -0.514641,1.352719 -0.595272,1.647149 -0.309892,1.13161 -0.119733,2.298514 0.608926,3.736675 0.235726,0.465252 0.404837,0.869559 0.375801,0.898457 -0.02903,0.0289 -0.501766,-0.117711 -1.050513,-0.3258 -2.050272,-0.777475 -2.84219,-0.782981 -4.683075,-0.03255 -1.895798,0.77281 -3.818687,0.988139 -5.736983,0.642437 z"/>
 <path style="opacity:0.2" d="m 10.777253,4.5000014 c -0.606976,0.00506 -1.067744,0.051803 -1.43909,0.144531 -1.2430415,0.3103969 -1.8798284,0.8940718 -1.8613279,1.7041018 0.016075,0.7037489 0.362659,1.1615368 1.9811719,2.3437497 0.801789,0.5856519 1.44036,1.1138959 1.419921,1.1738279 -0.02044,0.05993 -0.38696,0.1956442 -0.814453,0.3017582 -1.68911,0.419271 -3.0920123,1.405618 -3.6894523,2.591796 -0.5031464,1.174734 -0.4920039,2.418002 -0.0039,3.393555 0.7966404,1.581676 2.5521512,2.46769 4.6191403,2.333007 0.430381,-0.02804 1.086371,-0.142004 1.457031,-0.253906 0.824852,-0.24902 1.661921,-0.774971 2.313476,-1.414062 1.220486,-1.175903 1.560609,-3.261971 0.928711,-4.614258 C 15.175119,11.1709 14.140953,10.273119 12.135747,9.1201178 9.307172,7.493676 8.9492314,7.236224 8.602818,6.8505871 8.4203815,6.6474941 8.271763,6.3707636 8.271763,6.2363292 c 0,-0.9248874 1.803285,-1.4433334 3.065067,-0.8623044 0.295105,0.1358905 0.850738,0.4950339 1.234375,0.7988279 1.127098,0.8925289 1.664235,1.0119739 2.227539,0.4980469 C 15.439891,6.0859532 14.858973,5.2081048 13.559486,4.7968763 12.932325,4.5984119 11.788881,4.4915669 10.777253,4.5000014 Z m 0.766691,5.9999996 c 0.241222,6e-4 0.369865,0.116738 0.867188,0.574219 1.148244,1.05625 1.700576,2.333058 1.570312,3.632811 -0.178073,1.475162 -1.196386,2.754735 -2.919922,2.792969 -1.79222,0.01509 -3.05126,-1.777452 -3.061523,-3.294922 -0.00649,-1.299573 0.206363,-1.90282 0.9150389,-2.592773 0.5432061,-0.528856 1.4793261,-0.963517 2.3330081,-1.083007 0.123108,-0.01723 0.21549,-0.02951 0.295898,-0.0293 z"/>
 <path style="fill:#8b9cbe" d="m 10.777253,4.0000019 c -0.606976,0.00506 -1.067744,0.051803 -1.43909,0.144531 -1.2430415,0.310397 -1.8798284,0.8940719 -1.8613279,1.7041018 0.016075,0.7037489 0.362659,1.1615369 1.9811719,2.3437497 0.801789,0.5856515 1.44036,1.1138964 1.419921,1.1738274 -0.02044,0.05993 -0.38696,0.195645 -0.814453,0.301758 -1.68911,0.4192712 -3.0920123,1.4056192 -3.6894523,2.5917972 -0.5031464,1.174734 -0.4920039,2.418001 -0.0039,3.393554 0.7966404,1.581677 2.5521512,2.46769 4.6191403,2.333007 0.430381,-0.02804 1.086371,-0.142004 1.457031,-0.253906 0.824852,-0.249019 1.661921,-0.774971 2.313476,-1.414062 1.220486,-1.175902 1.560609,-3.26197 0.928711,-4.614257 C 15.175119,10.6709 14.140953,9.7731188 12.135747,8.6201184 9.307172,6.9936766 8.9492314,6.7362246 8.602818,6.3505877 8.4203815,6.1474947 8.271763,5.8707642 8.271763,5.7363297 c 0,-0.9248874 1.803285,-1.4433333 3.065067,-0.8623044 0.295105,0.1358905 0.850738,0.495034 1.234375,0.7988279 1.127098,0.8925289 1.664235,1.0119739 2.227539,0.498047 0.641147,-0.5849465 0.06023,-1.4627949 -1.239258,-1.8740233 -0.627161,-0.1984645 -1.770605,-0.3053097 -2.782233,-0.296875 z m 0.766691,5.9999991 c 0.241222,6e-4 0.369865,0.116738 0.867188,0.574219 1.148244,1.056251 1.700576,2.333058 1.570312,3.632812 -0.178073,1.475161 -1.196386,2.754734 -2.919922,2.792969 -1.79222,0.01509 -3.05126,-1.777453 -3.061523,-3.294922 -0.00649,-1.299574 0.206363,-1.902821 0.9150389,-2.592773 0.5432061,-0.528856 1.4793261,-0.963517 2.3330081,-1.083008 0.123108,-0.01723 0.21549,-0.02951 0.295898,-0.0293 z"/>
 <path style="opacity:0.1;fill:#8b9cbe" d="M 11.170897,1.0000023 C 5.5354673,0.96397237 0.86599034,5.7045607 1.0068358,11.365236 1.1480869,5.7435937 6.0176258,1.1632656 11.731444,1.5195335 c 2.353351,0.1467356 4.513945,1.0685149 6.179687,2.6367184 1.945382,1.8314703 3.001183,4.1459325 3.081054,6.7324211 0.001,-0.07097 0.008,-0.131125 0.0078,-0.205078 C 20.994372,7.9777025 19.930375,5.5572587 17.911131,3.656252 16.245389,2.0880486 14.084795,1.1662692 11.731444,1.0195335 11.543726,1.007829 11.356663,1.00119 11.170897,1.0000023 Z m 8.329101,16.2412097 c -0.0525,0.884539 0.188448,1.821169 0.743164,2.916015 0.06905,0.136276 0.113658,0.241459 0.167969,0.359375 0.112063,0.03106 0.19735,0.04967 0.208007,0.03907 0.02904,-0.0289 -0.140251,-0.433185 -0.375976,-0.898438 -0.451483,-0.891098 -0.696011,-1.677071 -0.743164,-2.416017 z"/>
</svg>
