<svg xmlns="http://www.w3.org/2000/svg" width="22" height="22" version="1">
 <path style="opacity:0.2" d="m 14.976562,1.5 c 1e-6,0 -1.796211,0.00648 -3.08789,1.5078125 -1.148644,1.335039 -0.855469,2.4785156 -0.855469,2.4785156 0,0 1.557579,0.2370461 2.927735,-1.2148437 C 15.244156,2.9117402 14.976562,1.5 14.976562,1.5 Z m -0.121093,5 c -1.633143,0 -2.886466,0.9179688 -3.5625,0.9179688 -0.78751,0 -1.963717,-0.8632813 -3.4785159,-0.8632813 C 5.4843156,6.5546875 3,8.6156853 3,12.542969 3,16.534689 5.9346405,21.50006 8.2578125,21.5 c 0.8109365,0 2.0558645,-1 3.3105465,-1 1.23119,0 2.140092,0.970703 3.308594,0.970703 2.544125,0 4.427735,-5.234375 4.427735,-5.234375 0,0 -2.804688,-1.030461 -2.804688,-4.019531 0,-2.649672 2.273438,-3.7421876 2.273438,-3.7421876 C 18.773437,8.4746094 17.666642,6.5 14.855469,6.5 Z"/>
 <path style="fill:#999999" d="M 11.889499,2.5086511 C 13.181178,1.0073155 14.976921,1 14.976921,1 c 0,0 0.267114,1.4115037 -1.016105,2.7712479 -1.370156,1.4518898 -2.927528,1.2143071 -2.927528,1.2143071 0,0 -0.292433,-1.1418649 0.856211,-2.4769039 z"/>
 <path style="fill:#999999" d="M 11.292208,6.917632 C 11.968242,6.917632 13.222923,6 14.856066,6 c 2.811173,0 3.917086,1.9752295 3.917086,1.9752295 0,0 -2.273152,1.0920055 -2.273152,3.7416775 0,2.98907 2.804654,4.019194 2.804654,4.019194 0,0 -1.883534,5.234904 -4.427659,5.234904 C 13.708493,20.971005 12.800041,20 11.568851,20 10.314169,20 9.069081,21 8.2581445,21 5.9349725,21.00006 3,16.034219 3,12.042499 3,8.1152155 5.484262,6.0550295 7.8143995,6.0550295 c 1.5147985,0 2.6902985,0.8626025 3.4778085,0.8626025 z"/>
 <path style="opacity:0.1" d="m 11,8.5 v 1 h -1 v 1 h 1 v 1 h -0.435547 c -0.277,0 -0.623878,0.252244 -0.5,0.5 l 0.5,1 c 0.07903,0.15807 0.152167,0.3112 0.263672,0.40625 -7.27e-4,0.03197 -0.0085,0.06191 -0.0098,0.09375 H 10 V 14 h 0.767578 c -0.129477,1.064759 -0.51657,2.045115 -1.097656,2.859375 -0.05931,0.09405 -0.121517,0.204216 -0.138672,0.244141 -0.03118,0.07263 -0.04411,0.352805 -0.01758,0.384765 0.0077,0.0093 0.904168,0.01341 1.986328,0.0098 1.082159,0.0037 1.97672,-4.26e-4 1.984375,-0.0098 0.02654,-0.03196 0.01556,-0.312138 -0.01563,-0.384765 -0.01716,-0.03993 -0.08131,-0.150092 -0.140625,-0.244141 C 12.747038,16.045115 12.361899,15.064759 12.232422,14 H 13 v -0.5 h -0.818359 c -3.56e-4,-0.0093 -0.0016,-0.01808 -0.002,-0.02734 C 12.36801,13.40984 12.460634,13.20764 12.564453,13 l 0.5,-1 c 0.123878,-0.247756 -0.223,-0.5 -0.5,-0.5 H 12 v -1 h 1 v -1 h -1 v -1 z m -1.583984,9 C 9.185182,17.5 9,17.649318 9,17.833984 v 0.332032 C 9,18.350682 9.185182,18.5 9.416016,18.5 h 4.167968 C 13.814818,18.5 14,18.350682 14,18.166016 V 17.833984 C 14,17.649318 13.814818,17.5 13.583984,17.5 Z"/>
 <path style="fill:#17191e" d="m 10.828106,12.900157 c -0.02832,1.299804 -0.467687,2.493728 -1.157226,3.45996 -0.05931,0.09405 -0.122494,0.203239 -0.139649,0.243164 -0.03118,0.07263 -0.04313,0.352806 -0.0166,0.384766 0.0077,0.0093 0.903192,0.01438 1.985352,0.01074 1.082159,0.0037 1.977696,-0.0014 1.985351,-0.01074 0.02654,-0.03196 0.01458,-0.312139 -0.0166,-0.384766 -0.01716,-0.03993 -0.08034,-0.149115 -0.139651,-0.243164 -0.68954,-0.966232 -1.128907,-2.160156 -1.157227,-3.45996 h -0.671875 z"/>
 <rect style="fill:#17191e" width="5" height="1" x="9" y="17" rx=".417" ry=".333"/>
 <path style="fill:#17191e" d="m 10.564035,11 h 2 c 0.277,0 0.623878,0.252244 0.5,0.5 l -0.5,1 c -0.123878,0.247757 -0.223,0.5 -0.5,0.5 h -1 c -0.277,0 -0.376122,-0.252243 -0.5,-0.5 l -0.5,-1 c -0.123878,-0.247756 0.223,-0.5 0.5,-0.5 z"/>
 <rect style="fill:#17191e" width="1" height="3" x="11" y="8"/>
 <rect style="fill:#17191e" width="1" height="3" x="9" y="-13" transform="rotate(90)"/>
 <rect style="fill:#17191e" width="3" height=".5" x="10" y="13"/>
 <path style="opacity:0.1;fill:#8b9cbe" d="m 14.976562,1 c 2e-6,0 -1.796211,0.00648 -3.08789,1.5078125 C 10.852833,3.7117406 10.984646,4.7139434 11.021484,4.9082031 11.058707,4.44816 11.229014,3.7745153 11.888672,3.0078125 13.180351,1.50648 14.976563,1.5 14.976562,1.5 c 0,0 -5.1e-5,0.00948 0,0.00977 0.01413,-0.2914109 0,-0.5097656 0,-0.5097656 z m -0.121093,5 c -1.633143,0 -2.886466,0.9179688 -3.5625,0.9179688 -0.78751,0 -1.963717,-0.8632813 -3.4785159,-0.8632813 C 5.4843156,6.0546875 3,8.1156851 3,12.042969 c 0,0.07972 0.00745,0.161739 0.00977,0.242187 0.1081497,-3.7564441 2.5270669,-5.7304685 4.8046875,-5.7304685 1.5147985,0 2.6910055,0.8632813 3.4785155,0.8632813 0.676034,0 1.929357,-0.9179688 3.5625,-0.9179688 2.063546,0 3.202853,1.0590713 3.666015,1.625 C 18.638773,8.053935 18.773442,7.9746094 18.773442,7.9746094 18.773437,7.9746094 17.666642,6 14.855469,6 Z m 1.658203,5.955078 c -0.0051,0.08695 -0.01367,0.171147 -0.01367,0.261719 0,2.69633 2.185785,3.74935 2.632812,3.939453 0.05946,-0.150291 0.171876,-0.419922 0.171876,-0.419922 0,0 -2.643995,-0.979958 -2.791016,-3.78125 z"/>
</svg>
