<svg xmlns="http://www.w3.org/2000/svg" width="22" height="22" version="1">
 <rect style="fill:#435ece" width="20" height="20" x="1" y="1" rx="1" ry="1"/>
 <path style="opacity:0.1;fill:#8b9cbe" d="M 2,1 C 1.446,1 1,1.446 1,2 v 0.5 c 0,-0.554 0.446,-1 1,-1 h 18 c 0.554,0 1,0.446 1,1 V 2 C 21,1.446 20.554,1 20,1 Z"/>
 <path style="opacity:0.2" d="m 2,21.5 c -0.554,0 -1,-0.446 -1,-1 V 20 c 0,0.554 0.446,1 1,1 h 18 c 0.554,0 1,-0.446 1,-1 v 0.5 c 0,0.554 -0.446,1 -1,1 z"/>
 <path style="opacity:0.2" d="m 12,18.5 h -2 v -2 h 2 z m 2.07,-7.75 -0.9,0.92 C 12.45,12.4 12,13 12,14.5 H 10 V 14 c 0,-1.1 0.45,-2.1 1.17,-2.83 L 12.41,9.91 C 12.78,9.55 13,9.05 13,8.4999998 c 0,-1.1 -0.9,-2 -2,-2 -1.1,0 -2,0.9 -2,2 H 7 c 0,-2.21 1.7900001,-4 4,-4 2.21,0 4,1.79 4,4 C 15,9.38 14.64,10.18 14.07,10.75 Z"/>
 <path style="fill:#8b9cbe" d="m 12,18 h -2 v -2 h 2 z m 2.07,-7.75 -0.9,0.92 C 12.45,11.9 12,12.5 12,14 h -2 v -0.5 c 0,-1.1 0.45,-2.1 1.17,-2.83 L 12.41,9.41 C 12.78,9.05 13,8.5500002 13,7.9999998 c 0,-1.1 -0.9,-2 -2,-2 -1.1,0 -2,0.9 -2,2 H 7 c 0,-2.21 1.7900001,-4 4,-4 2.21,0 4,1.79 4,4 C 15,8.8800002 14.64,9.68 14.07,10.25 Z"/>
</svg>
