<svg xmlns="http://www.w3.org/2000/svg" width="22" height="22" version="1.1">
 <path style="opacity:0.2" d="m11 1.5v5h-5l-5 5h5v5l5 5v-5h5l4.5-4.5 0.5-0.5h-5v-5z"/>
 <path style="fill:#fec006" d="m6 6-5 5h10v-5"/>
 <path style="fill:#f34235" d="m16 6-5-5v10h5"/>
 <path style="fill:#4bae4f" d="m6 16 5 5v-10h-5"/>
 <path style="fill:#2095f2" d="m16 16 5-5h-10v5"/>
 <path style="opacity:0.2;fill:#8b9cbe" d="m11 11v0.5h9.5l0.5-0.5z"/>
 <path style="fill:#9c27b0" d="m16 6-5 5h5z"/>
 <path style="fill:#1ea362" d="m6 11v5l5-5z"/>
 <path style="fill:#3e50b4" d="m11 11v5h5z"/>
 <path style="fill:#fe9700" d="m6 6 5 5v-5z"/>
 <path style="opacity:0.2;fill:#8b9cbe" d="m11 1v0.5l5 5v-0.5zm-5 5-5 5h0.5l4.5-4.5h5v-0.5z"/>
 <path style="opacity:0.2" d="m11 8.5-1 2-2 1 2 1 1 2 1-2 2-1-2-1z"/>
 <path style="fill:#8b9cbe" d="m11 8-1 2-2 1 2 1 1 2 1-2 2-1-2-1z"/>
 <path style="fill:#ebebeb" d="m8 11 2 1 1 2-0-3z"/>
 <path style="fill:#dfdfdf" d="m14 11-2 1-1 2-0-3z"/>
</svg>
