<svg xmlns="http://www.w3.org/2000/svg" width="22" height="22" version="1">
 <rect style="opacity:0.2" width="6" height="6" x="-21.5" y="-8" rx="3" ry="3" transform="matrix(0,-1,-1,0,0,0)"/>
 <ellipse style="opacity:0.2" cx="5.075" cy="15.258" rx="9.917" ry="7.41" transform="matrix(0.84603999,-0.53311944,0.4395544,0.89821597,0,0)"/>
 <ellipse style="fill:#6e6e6e" cx="5.296" cy="14.833" rx="9.917" ry="7.41" transform="matrix(0.84603999,-0.53311944,0.4395544,0.89821597,0,0)"/>
 <rect style="opacity:0.2" width="6" height="6" x="-13.5" y="-6" rx="3" ry="3" transform="matrix(0,-1,-1,0,0,0)"/>
 <path style="opacity:0.1;fill:#8b9cbe" d="M 13.91432,2.0039063 A 7.316389,9.9860125 50.459792 0 0 7.7434218,3.84375 7.316389,9.9860125 50.459792 0 0 2.0129531,13.171875 7.316389,9.9860125 50.459792 0 1 7.7434218,4.34375 7.316389,9.9860125 50.459792 0 1 19.389905,5.7128905 7.316389,9.9860125 50.459792 0 1 19.987561,8.328125 7.316389,9.9860125 50.459792 0 0 19.389905,5.2128905 7.316389,9.9860125 50.459792 0 0 13.91432,2.0039063 Z"/>
 <rect style="opacity:0.2" width="6" height="6" x="-6.5" y="-13" rx="3" ry="3" transform="matrix(0,-1,-1,0,0,0)"/>
 <rect style="fill:#3e3e3e" width="6" height="6" x="-6" y="-13" rx="3" ry="3" transform="matrix(0,-1,-1,0,0,0)"/>
 <rect style="opacity:0.2" width="4" height="4" x="-5.5" y="-12" rx="2" ry="2" transform="matrix(0,-1,-1,0,0,0)"/>
 <rect style="fill:#6666ff" width="4" height="4" x="-5" y="-12" rx="2" ry="2" transform="matrix(0,-1,-1,0,0,0)"/>
 <rect style="opacity:0.2" width="6" height="6" x="-11.5" y="-22" rx="3" ry="3" transform="matrix(0,-1,-1,0,0,0)"/>
 <rect style="fill:#3e3e3e" width="6" height="6" x="-11" y="-22" rx="3" ry="3" transform="matrix(0,-1,-1,0,0,0)"/>
 <rect style="opacity:0.2" width="4" height="4" x="-10.5" y="-21" rx="2" ry="2" transform="matrix(0,-1,-1,0,0,0)"/>
 <rect style="fill:#6666ff" width="4" height="4" x="-10" y="-21" rx="2" ry="2" transform="matrix(0,-1,-1,0,0,0)"/>
 <rect style="opacity:0.2" width="6" height="6" x="-20.5" y="-17" rx="3" ry="3" transform="matrix(0,-1,-1,0,0,0)"/>
 <rect style="fill:#3e3e3e" width="6" height="6" x="-20" y="-17" rx="3" ry="3" transform="matrix(0,-1,-1,0,0,0)"/>
 <rect style="opacity:0.2" width="4" height="4" x="-19.5" y="-16" rx="2" ry="2" transform="matrix(0,-1,-1,0,0,0)"/>
 <rect style="fill:#6666ff" width="4" height="4" x="-19" y="-16" rx="2" ry="2" transform="matrix(0,-1,-1,0,0,0)"/>
 <rect style="fill:#3e3e3e" width="6" height="6" x="-21" y="-8" rx="3" ry="3" transform="matrix(0,-1,-1,0,0,0)"/>
 <rect style="opacity:0.2" width="4" height="4" x="-20.5" y="-7" rx="2" ry="2" transform="matrix(0,-1,-1,0,0,0)"/>
 <rect style="fill:#6666ff" width="4" height="4" x="-20" y="-7" rx="2" ry="2" transform="matrix(0,-1,-1,0,0,0)"/>
 <rect style="fill:#3e3e3e" width="6" height="6" x="-13" y="-6" rx="3" ry="3" transform="matrix(0,-1,-1,0,0,0)"/>
 <rect style="opacity:0.2" width="4" height="4" x="-12.5" y="-5" rx="2" ry="2" transform="matrix(0,-1,-1,0,0,0)"/>
 <rect style="fill:#6666ff" width="4" height="4" x="-12" y="-5" rx="2" ry="2" transform="matrix(0,-1,-1,0,0,0)"/>
</svg>
