<svg xmlns="http://www.w3.org/2000/svg" width="22" height="22" version="1.1">
 <g transform="translate(-1,-1)">
  <path style="opacity:0.2" d="M 5,2.5 C 4.446,2.5 4,2.946 4,3.5 V 21.5 C 4,22.054 4.446,22.5 5,22.5 H 19 C 19.554,22.5 20,22.054 20,21.5 V 8.5 L 14,2.5 Z"/>
  <path style="fill:#fec006" d="M 5,2 C 4.446,2 4,2.446 4,3 V 21 C 4,21.554 4.446,22 5,22 H 19 C 19.554,22 20,21.554 20,21 V 8 L 15,7 14,2 Z"/>
  <path style="opacity:0.2" d="M 20,8.5 14,2.5 V 7.5 C 14,8.054 14.446,8.5 15,8.5 Z"/>
  <path style="fill:#fed861" d="M 20,8 14,2 V 7 C 14,7.554 14.446,8 15,8 Z"/>
  <path style="opacity:0.2;fill:#8b9cbe" d="M 5,2 C 4.446,2 4,2.446 4,3 V 3.5 C 4,2.946 4.446,2.5 5,2.5 H 14 V 2 Z"/>
  <path style="opacity:0.2" d="M 9,11.5 C 8.4459,11.5 8,11.946 8,12.5 V 18.5 C 8,19.054 8.4459,19.5 9,19.5 H 15 C 15.554,19.5 16,19.054 16,18.5 V 12.5 C 16,11.946 15.554,11.5 15,11.5 Z M 9.0312,13.5 H 15.031 V 17.5 H 9.0312 Z"/>
  <path style="fill:#8b9cbe" d="M 9,11 C 8.4459,11 8,11.446 8,12 V 18 C 8,18.554 8.4459,19 9,19 H 15 C 15.554,19 16,18.554 16,18 V 12 C 16,11.446 15.554,11 15,11 Z M 9.0312,13 H 15.031 V 17 H 9.0312 Z"/>
 </g>
</svg>
