<svg xmlns="http://www.w3.org/2000/svg" width="22" height="22" version="1">
 <g transform="translate(-1,-1)">
  <path style="opacity:0.2" d="M 12,2.5 A 10,10 0 0 0 2,12.5 10,10 0 0 0 3.2012,17.234 L 3.1836,17.219 C 3.6876,18.403 3.6496,18.726 3.5703,19.715 3.5151,20.404 3.3292,21.108 3.0957,21.504 2.884,21.863 2.7109,22.234 2.7109,22.328 2.7109,22.62 4.3985,22.517 5.8906,22.135 7.6385,21.687 7.7913,21.657 9.2246,22.107 L 9.209,22.094 A 10,10 0 0 0 12,22.5 10,10 0 0 0 22,12.5 10,10 0 0 0 12,2.5 Z"/>
  <path style="fill:#47ad5d" d="M 12,2 A 10,10 0 0 0 2,12 10,10 0 0 0 3.2012,16.734 L 3.1836,16.719 C 3.6876,17.903 3.6496,18.226 3.5703,19.215 3.5151,19.904 3.3292,20.608 3.0957,21.004 2.884,21.363 2.7109,21.734 2.7109,21.828 2.7109,22.12 4.3985,22.017 5.8906,21.635 7.6385,21.187 7.7913,21.157 9.2246,21.607 L 9.209,21.594 A 10,10 0 0 0 12,22 10,10 0 0 0 22,12 10,10 0 0 0 12,2 Z"/>
  <path style="opacity:0.2" d="M 16.501,17.243 C 17.4,16.857 17.818,16.374 17.963,15.552 18.072,14.926 18.022,14.665 16.653,14.074 14.913,13.322 15.021,13.318 14.271,14.154 13.805,14.673 13.604,14.842 13.453,14.842 11.679,14.412 9.6747,13.269 9.1009,11.637 9.1009,11.567 9.2896,11.312 9.5203,11.069 10.199,10.356 10.199,10.338 9.6071,9.0288 8.9253,7.5214 8.8951,7.5316 8.1524,7.504 7.3923,7.4758 7.1521,7.5843 6.6712,8.1727 6.1736,8.7814 5.996,9.2711 6.0001,10.023 6.0055,10.977 6.3538,11.743 7.3627,13.017 9.0947,15.205 10.784,16.393 13.219,17.133 14.708,17.586 15.629,17.616 16.501,17.243 Z"/>
  <path style="fill:#8b9cbe" d="M 16.501,16.743 C 17.4,16.357 17.818,15.874 17.963,15.052 18.072,14.426 18.022,14.165 16.653,13.574 14.913,12.822 15.021,12.818 14.271,13.654 13.805,14.173 13.604,14.342 13.453,14.342 11.679,13.912 9.6747,12.769 9.1009,11.137 9.1009,11.067 9.2896,10.812 9.5203,10.569 10.199,9.8557 10.199,9.8382 9.6071,8.5288 8.9253,7.0214 8.8951,7.0316 8.1524,7.004 7.3923,6.9758 7.1521,7.0843 6.6712,7.6727 6.1736,8.2814 5.996,8.7711 6.0001,9.5227 6.0055,10.477 6.3538,11.243 7.3627,12.517 9.0947,14.705 10.784,15.893 13.219,16.633 14.708,17.086 15.629,17.116 16.501,16.743 Z"/>
  <path style="opacity:0.2;fill:#8b9cbe" d="M 12,2 A 10,10 0 0 0 2,12 10,10 0 0 0 2.0098,12.207 10,10 0 0 1 12,2.5 10,10 0 0 1 21.99,12.293 10,10 0 0 0 22,12 10,10 0 0 0 12,2 Z M 3.6016,18.738 C 3.5929,18.886 3.5851,19.031 3.5703,19.215 3.5151,19.904 3.3292,20.608 3.0957,21.004 2.884,21.363 2.7109,21.734 2.7109,21.828 2.7109,21.878 2.7758,21.912 2.8652,21.939 2.931,21.805 3.0057,21.657 3.0957,21.504 3.3292,21.108 3.5151,20.404 3.5703,19.715 3.6026,19.312 3.6168,19.023 3.6016,18.738 Z"/>
 </g>
</svg>
