<svg xmlns="http://www.w3.org/2000/svg" width="22" height="22" version="1">
 <rect style="opacity:0.2" width="20" height="20" x="1" y="-21.5" rx="1" ry="1" transform="scale(1,-1)"/>
 <rect style="fill:#fecd38" width="20" height="20" x="1" y="-21" rx="1" ry="1" transform="scale(1,-1)"/>
 <path style="opacity:0.2" d="m 2,2.4999996 0,2 2,0 0,-2 -2,0 z m 4,0 0,2 2,0 0,-2 -2,0 z m 4,0 0,2 2,0 0,-2 -2,0 z m 4,0 0,2 2,0 0,-2 -2,0 z m 4,0 0,2 2,0 0,-2 -2,0 z m -15,4 0,9.9999994 7,0 0,-9.9999994 -7,0 z m 9,0 0,9.9999994 7,0 0,-9.9999994 -7,0 z M 2,18.499999 l 0,2 2,0 0,-2 -2,0 z m 4,0 0,2 2,0 0,-2 -2,0 z m 4,0 0,2 2,0 0,-2 -2,0 z m 4,0 0,2 2,0 0,-2 -2,0 z m 4,0 0,2 2,0 0,-2 -2,0 z"/>
 <path style="fill:#336894" d="M 2,2 2,4 4,4 4,2 2,2 Z M 6,2 6,4 8,4 8,2 6,2 Z m 4,0 0,2 2,0 0,-2 -2,0 z m 4,0 0,2 2,0 0,-2 -2,0 z m 4,0 0,2 2,0 0,-2 -2,0 z M 3,6 3,16 10,16 10,6 3,6 Z m 9,0 0,10 7,0 0,-10 -7,0 z m -10,12 0,2 2,0 0,-2 -2,0 z m 4,0 0,2 2,0 0,-2 -2,0 z m 4,0 0,2 2,0 0,-2 -2,0 z m 4,0 0,2 2,0 0,-2 -2,0 z m 4,0 0,2 2,0 0,-2 -2,0 z"/>
 <path style="opacity:0.2;fill:#8b9cbe" d="M 2,1 C 1.446,1 1,1.446 1,2 l 0,0.5 c 0,-0.554 0.446,-1 1,-1 l 18,0 c 0.554,0 1,0.446 1,1 L 21,2 C 21,1.446 20.554,1 20,1 L 2,1 Z"/>
</svg>
