<svg xmlns="http://www.w3.org/2000/svg" width="22" height="22" version="1">
 <rect style="opacity:.2" width="20" height="20" x="1" y="1.5" rx="10" ry="10"/>
 <rect style="fill:#2071c5" width="20" height="20" x="1" y="1" rx="10" ry="10"/>
 <path style="opacity:.2" d="m11 4.5a1 1 0 0 0 -0.0957 0.00586c-3.8098365 0.0522008-6.9043 3.1723447-6.9043 6.99414 0 3.854149 3.1458514 7 7 7 3.820479 0 6.939841-3.092363 6.994141-6.900391a1 1 0 0 0 0.005859 -0.099609 1 1 0 0 0 -1 -1 1 1 0 0 0 -1 1c0 2.773268-2.226732 5-5 5-2.7732684 0-5-2.226732-5-5 0-2.7732684 2.2267316-5 5-5a1 1 0 0 0 1 -1 1 1 0 0 0 -1 -1zm0 3a1 1 0 0 0 -0.197266 0.019531c-2.1050429 0.1060279-3.802734 1.850649-3.802734 3.980469 0 2.197294 1.8027056 4 4 4 2.129158 0 3.873448-1.696647 3.980469-3.800781a1 1 0 0 0 0.019531 -0.199219 1 1 0 0 0 -1 -1 1 1 0 0 0 -1 1c0 1.116414-0.883586 2-2 2s-2-0.883586-2-2 0.883586-2 2-2a1 1 0 0 0 1 -1 1 1 0 0 0 -1 -1zm0 3a1 1 0 0 0 -1 1 1 1 0 0 0 1 1 1 1 0 0 0 1 -1 1 1 0 0 0 -1 -1z"/>
 <path style="fill:#8b9cbe" d="m11 4a1 1 0 0 0 -0.0957 0.00586c-3.8098365 0.0522008-6.9043 3.1723447-6.9043 6.99414 0 3.854149 3.1458514 7 7 7 3.820479 0 6.939841-3.092363 6.994141-6.900391a1 1 0 0 0 0.005859 -0.099609 1 1 0 0 0 -1 -1 1 1 0 0 0 -1 1c0 2.773268-2.226732 5-5 5-2.7732684 0-5-2.226732-5-5 0-2.7732684 2.2267316-5 5-5a1 1 0 0 0 1 -1 1 1 0 0 0 -1 -1zm0 3a1 1 0 0 0 -0.197266 0.019531c-2.1050429 0.1060279-3.802734 1.8506489-3.802734 3.980469 0 2.197294 1.8027056 4 4 4 2.129158 0 3.873448-1.696647 3.980469-3.800781a1 1 0 0 0 0.019531 -0.199219 1 1 0 0 0 -1 -1 1 1 0 0 0 -1 1c0 1.116414-0.883586 2-2 2s-2-0.883586-2-2 0.883586-2 2-2a1 1 0 0 0 1 -1 1 1 0 0 0 -1 -1zm0 3a1 1 0 0 0 -1 1 1 1 0 0 0 1 1 1 1 0 0 0 1 -1 1 1 0 0 0 -1 -1z"/>
 <path style="opacity:.1;fill:#8b9cbe" d="m11 1c-5.54 0-10 4.46-10 10 0 0.08441 0.00966 0.166105 0.011719 0.25 0.1330624-5.4224108 4.532689-9.75 9.988281-9.75s9.855219 4.3275892 9.988281 9.75c0.002059-0.083895 0.011719-0.165592 0.011719-0.25 0-5.54-4.46-10-10-10z"/>
</svg>
