<svg xmlns="http://www.w3.org/2000/svg" width="22" height="22" version="1">
 <path style="fill:#fe9700" d="m 11,6.8e-5 -9.545,7.1619 c -0.02055,0.01335 -0.03915,0.02915 -0.058595,0.04395 l -0.0117,0.0088 v 10e-4 c -0.2327,0.1825 -0.3847,0.4635 -0.3847,0.784 v 4 c 0,0.554 0.446,1 1,1 h 18 c 0.554,0 1,-0.446 1,-1 v -4 c 0,-0.3275 -0.15848,-0.6147 -0.40039,-0.7969 l 0.004,-0.00585 z"/>
 <path style="opacity:0.1;fill:#8b9cbe" d="m 11,6.8e-5 -9.545,7.1619 c -0.02055,0.01335 -0.03915,0.02915 -0.058595,0.04395 l -0.0117,0.0088 v 10e-4 c -0.2327,0.1825 -0.3847,0.4635 -0.3847,0.784 v 0.5 c 0,-0.32025 0.15196,-0.60145 0.38476,-0.7842 v -0.001 l 0.0117,-0.0088 c 0.01945,-0.0148 0.03805,-0.0306 0.058595,-0.04395 l 9.545,-7.162 9.6035,7.1975 -0.004,0.00585 c 0.243,0.182 0.401,0.469 0.401,0.7965 v -0.5 c 0,-0.3275 -0.158,-0.6147 -0.4,-0.7969 l 0.004,-0.00585 -9.604,-7.197 z"/>
 <path style="fill:#4f4f4f" d="M 4,3 C 3.446,3 3,3.446 3,4 V 19 H 19 V 4 C 19,3.446 18.554,3 18,3 Z"/>
 <path style="opacity:0.5;fill:#8b9cbe" d="M 4.75,5.5 A 0.250025,0.250025 0 0 0 4.5,5.75 v 2.5 A 0.250025,0.250025 0 0 0 4.75,8.5 h 1.5 A 0.250025,0.250025 0 0 0 6.5,8.25 V 5.75 A 0.250025,0.250025 0 0 0 6.25,5.5 Z m 3.4960938,0 A 0.250025,0.2494 0 0 0 8,5.7539062 V 8.248047 a 0.250025,0.2494 0 1 0 0.5,0 V 5.7539062 A 0.250025,0.2494 0 0 0 8.2460938,5.5 Z m 2.0000002,0 A 0.250025,0.2494 0 0 0 10,5.7539062 V 8.248047 a 0.250025,0.2494 0 1 0 0.5,0 V 5.7539062 A 0.250025,0.2494 0 0 0 10.246094,5.5 Z M 12.25,5.5 A 0.250025,0.250025 0 0 0 12,5.75 v 2.5 a 0.250025,0.250025 0 0 0 0.25,0.25 h 1.5 A 0.250025,0.250025 0 0 0 14,8.25 V 5.75 A 0.250025,0.250025 0 0 0 13.75,5.5 Z m 3.5,0 A 0.250025,0.250025 0 0 0 15.5,5.75 v 2.5 a 0.250025,0.250025 0 0 0 0.25,0.25 h 1.5 A 0.250025,0.250025 0 0 0 17.5,8.25 V 5.75 A 0.250025,0.250025 0 0 0 17.25,5.5 Z M 5,6 H 6 V 8 H 5 Z m 7.5,0 h 1 v 2 h -1 z M 16,6 h 1 V 8 H 16 Z M 5.7539062,10 A 0.250025,0.2494 0 0 0 5.5,10.253906 v 2.492188 a 0.250025,0.2494 0 1 0 0.5,0 V 10.253906 A 0.250025,0.2494 0 0 0 5.7539062,10 Z m 2.4785157,0 A 0.250025,0.250025 0 0 0 8,10.25 v 2.5 A 0.250025,0.250025 0 0 0 8.25,13 h 1.5 A 0.250025,0.250025 0 0 0 10,12.75 v -2.5 A 0.250025,0.250025 0 0 0 9.75,10 h -1.5 a 0.250025,0.250025 0 0 0 -0.017578,0 z m 3.5214841,0 A 0.250025,0.2494 0 0 0 11.5,10.253906 v 2.492188 a 0.250025,0.2494 0 1 0 0.5,0 V 10.253906 A 0.250025,0.2494 0 0 0 11.753906,10 Z m 2,0 A 0.250025,0.2494 0 0 0 13.5,10.253906 v 2.492188 a 0.250025,0.2494 0 1 0 0.5,0 V 10.253906 A 0.250025,0.2494 0 0 0 13.753906,10 Z m 1.978516,0 A 0.250025,0.250025 0 0 0 15.5,10.25 v 2.5 A 0.250025,0.250025 0 0 0 15.75,13 h 1.5 a 0.250025,0.250025 0 0 0 0.25,-0.25 v -2.5 A 0.250025,0.250025 0 0 0 17.25,10 h -1.5 a 0.250025,0.250025 0 0 0 -0.01758,0 z M 8.5,10.5 h 1 v 2 h -1 z m 7.5,0 h 1 v 2 H 16 Z M 4.7324219,14 A 0.250025,0.250025 0 0 0 4.5,14.25 v 2.5 A 0.250025,0.250025 0 0 0 4.75,17 h 1.5 A 0.250025,0.250025 0 0 0 6.5,16.75 v -2.5 A 0.250025,0.250025 0 0 0 6.25,14 h -1.5 a 0.250025,0.250025 0 0 0 -0.017578,0 z m 3.5,0 A 0.250025,0.250025 0 0 0 8,14.25 v 2.5 A 0.250025,0.250025 0 0 0 8.25,17 h 1.5 A 0.250025,0.250025 0 0 0 10,16.75 v -2.5 A 0.250025,0.250025 0 0 0 9.75,14 h -1.5 a 0.250025,0.250025 0 0 0 -0.017578,0 z m 3.5214841,0 A 0.250025,0.2494 0 0 0 11.5,14.253906 v 2.494141 a 0.250025,0.2494 0 1 0 0.5,0 V 14.253906 A 0.250025,0.2494 0 0 0 11.753906,14 Z m 2,0 A 0.250025,0.2494 0 0 0 13.5,14.253906 v 2.494141 a 0.250025,0.2494 0 1 0 0.5,0 V 14.253906 A 0.250025,0.2494 0 0 0 13.753906,14 Z m 1.978516,0 A 0.250025,0.250025 0 0 0 15.5,14.25 v 2.5 A 0.250025,0.250025 0 0 0 15.75,17 h 1.5 a 0.250025,0.250025 0 0 0 0.25,-0.25 v -2.5 A 0.250025,0.250025 0 0 0 17.25,14 h -1.5 a 0.250025,0.250025 0 0 0 -0.01758,0 z M 5,14.5 h 1 v 2 H 5 Z m 3.5,0 h 1 v 2 h -1 z m 7.5,0 h 1 v 2 h -1 z"/>
 <path style="fill:#fec006" d="m 1,8 18.499422,12.657499 v 0 L 19.116788,21 H 2 C 1.446,21 1,20.554 1,20 Z"/>
 <path style="fill:#fecd38" d="m 19.036496,20.620438 c 0.541928,-0.115022 0.09335,-1.200978 0.562044,-1.49635 L 21,18.240876 V 8 L 2,21 h 15.248175 z"/>
 <path style="opacity:0.2" d="m 1,20 v 0.5 c 0,0.554 0.446,1 1,1 h 15.072993 l 1.175182,-0.350365 c 0.530907,-0.158283 1.612344,-0.540333 1.058394,-0.532847 l -0.270073,0.0037 c 0,0.554 -1.094289,-0.47628 -1.489051,-0.08759 L 17.072993,21 H 2 C 1.446,21 1,20.554 1,20 Z"/>
 <circle style="fill:#1aa348" cx="16.5" cy="16.5" r="5.5"/>
 <path style="fill:#8b9cbe" d="m 18.005859,14 c -0.07585,0 -0.152037,0.02899 -0.210937,0.08789 l -0.582031,0.585937 1.113281,1.113281 0.585937,-0.582031 c 0.117796,-0.117796 0.117796,-0.302123 0,-0.419922 L 18.214844,14.087891 C 18.155946,14.028993 18.081712,14 18.005859,14 Z m -1.5,1.380859 L 14,17.886719 V 19 h 1.113281 l 2.50586,-2.505859 z"/>
</svg>
