<svg xmlns="http://www.w3.org/2000/svg" width="22" height="22" version="1">
 <rect style="fill:#ffa023" width="20" height="20" x="1" y="1" rx="1" ry="1"/>
 <path style="opacity:0.2;fill:#8b9cbe" d="M 2,1 C 1.446,1 1,1.446 1,2 v 0.5 c 0,-0.554 0.446,-1 1,-1 h 18 c 0.554,0 1,0.446 1,1 V 2 C 21,1.446 20.554,1 20,1 Z"/>
 <path style="opacity:0.2" d="m 2,21.5 c -0.554,0 -1,-0.446 -1,-1 V 20 c 0,0.554 0.446,1 1,1 h 18 c 0.554,0 1,-0.446 1,-1 v 0.5 c 0,0.554 -0.446,1 -1,1 z"/>
 <path style="fill:#17191e" d="M 3,3 V 19 H 19 V 3 Z"/>
 <path style="opacity:0.2" d="m 13.246403,16.36721 c 0.419913,-0.107974 0.893823,-0.156204 1.242151,-0.426383 0.06002,-0.528836 -0.127328,-0.857431 -0.298489,-1.35226 -0.101477,-0.525865 -0.669512,-0.213218 -1.012851,-0.154961 -0.982974,0.255988 -2.139979,0.05863 -2.829448,-0.730172 C 9.605395,12.677589 9.306381,10.872587 9.929853,9.862548 10.28634,9.131679 11.020768,8.5964365 11.84331,8.541452 12.53319,8.452056 13.307391,8.659217 13.988944,8.71815 14.336596,8.539114 14.321761,8.084017 14.425056,7.7234715 14.510876,7.352405 14.526855,6.9392055 14.028701,6.7734965 12.972725,6.4584575 11.746202,6.4535625 10.657964,6.569407 9.274828,6.7436565 8.0773805,7.7177415 7.5158345,8.970893 c -0.52647,1.079821 -0.576649,2.320369 -0.470075,3.495934 0.199668,1.669394 1.3587325,3.213995 2.9739075,3.763674 1.011052,0.375381 2.118843,0.291803 3.166436,0.148288 z"/>
 <path style="fill:#ffa023" d="m 13.246403,15.86721 c 0.419913,-0.107974 0.893823,-0.156204 1.242151,-0.426383 0.06002,-0.528836 -0.127328,-0.857431 -0.298489,-1.35226 -0.101477,-0.525865 -0.669512,-0.213218 -1.012851,-0.154961 -0.982974,0.255988 -2.139979,0.05863 -2.829448,-0.730172 C 9.605395,12.177589 9.306381,10.372587 9.929853,9.362548 10.28634,8.6316785 11.020768,8.0964365 11.84331,8.041452 12.53319,7.952056 13.307391,8.159217 13.988944,8.21815 14.336596,8.039114 14.321761,7.584017 14.425056,7.2234715 14.510876,6.852405 14.526855,6.4392055 14.028701,6.2734965 12.972725,5.9584575 11.746202,5.9535625 10.657964,6.069407 9.274828,6.2436565 8.0773805,7.2177415 7.5158345,8.470893 c -0.52647,1.079821 -0.576649,2.320369 -0.470075,3.495934 0.199668,1.669394 1.3587325,3.213995 2.9739075,3.763674 1.011052,0.375381 2.118843,0.291803 3.166436,0.148288 z"/>
 <rect style="opacity:0.2" width="16" height=".5" x="3" y="3"/>
 <rect style="opacity:0.2;fill:#8b9cbe" width="16" height=".5" x="3" y="19"/>
 <path style="opacity:0.2;fill:#8b9cbe" d="m 11.495117,6.0078125 c -0.284519,0.01091 -0.564854,0.032565 -0.836914,0.061523 C 9.275067,6.243585 8.077171,7.217551 7.515625,8.4707025 7.1004255,9.3223 6.9862995,10.273049 7.006836,11.213867 7.034711,10.439674 7.1740795,9.671233 7.515625,8.9707025 8.077171,7.717551 9.275067,6.743585 10.658203,6.5693355 11.746442,6.453491 12.972344,6.458398 14.028321,6.773437 c 0.237199,0.078904 0.356173,0.2151385 0.408203,0.375 0.06959,-0.350401 0.05679,-0.720323 -0.408203,-0.875 C 13.236338,6.037158 12.348676,5.9750845 11.495117,6.0078125 Z M 9.609375,11.008789 c -0.06123,0.927694 0.22996,1.991913 0.738281,2.694336 0.689469,0.788797 1.846129,0.986456 2.829102,0.730469 0.343338,-0.05826 0.912195,-0.370592 1.013672,0.155273 0.112142,0.324203 0.224452,0.579701 0.276367,0.864258 0.0067,-0.005 0.01483,-0.0075 0.02149,-0.0127 0.06002,-0.528837 -0.126689,-0.856734 -0.297851,-1.351563 -0.101477,-0.525864 -0.670333,-0.21353 -1.013672,-0.155272 -0.982973,0.255986 -2.139633,0.05833 -2.829102,-0.730469 C 9.92913,12.624773 9.660219,11.800363 9.609381,11.008785 Z"/>
</svg>
