<svg width="22" height="22" version="1.1" xmlns="http://www.w3.org/2000/svg">
 <rect x="1" y="1.5" width="20" height="20" rx="3" ry="3" style="opacity:.2"/>
 <rect x="1" y="1" width="20" height="20" rx="3" ry="3" style="fill:#0da1dc"/>
 <rect x="9" y="6.5" width="1" height="9" style="opacity:.2"/>
 <rect x="9" y="6" width="1" height="9" style="fill:#76908e"/>
 <path d="m8 8.5v5h13v-5h-10z" style="opacity:.2"/>
 <rect x="8" y="7.5" width="3" height="7" style="opacity:.2"/>
 <rect x="11" y="8" width="10" height="5" style="fill:#fda701"/>
 <path d="m9 10.5h-3v1h-1v1h-1v9h1v-5h1v-2h1v-1h2z" style="opacity:.2"/>
 <rect x="8" y="7" width="3" height="7" style="fill:#9badab"/>
 <path d="m9 10h-3v1h-1v1h-1v9h1v-5h1v-2h1v-1h2z" style="fill:#76edfd"/>
 <path d="m6 10v0.5h3v-0.5h-3zm-1 1v0.5h1v-0.5h-1zm-1 1v0.5h1v-0.5h-1z" style="fill:#8b9cbe;opacity:.2"/>
 <rect x="9.75" y="9.5" width="11.25" height="3" style="opacity:.2"/>
 <rect x="9.75" y="9" width="11.25" height="3" style="fill:#fec91a"/>
 <path d="m9.75 9v0.5h11.25v-0.5h-11.25z" style="fill:#8b9cbe;opacity:.2"/>
 <rect x="8" y="8.5" width="3" height="5" style="opacity:.2"/>
 <rect x="8" y="8" width="3" height="5" style="fill:#adcdce"/>
 <path d="m9 9.5v1h1v-1zm0 2v1h1v-1z" style="opacity:.2"/>
 <path d="m9 9v1h1v-1zm0 2v1h1v-1z" style="fill:#8b9cbe"/>
 <path d="m4 1c-1.662 0-3 1.338-3 3v0.5c0-1.662 1.338-3 3-3h14c1.662 0 3 1.338 3 3v-0.5c0-1.662-1.338-3-3-3h-14z" style="fill:#8b9cbe;opacity:.2"/>
 <path d="m9 6v0.5h1v-0.5h-1z" style="fill:#8b9cbe;opacity:.1"/>
 <path d="m11 8v0.5h10v-0.5h-10z" style="fill:#8b9cbe;opacity:.1"/>
 <path d="m8 7v0.5h3v-0.5h-3z" style="fill:#8b9cbe;opacity:.2"/>
 <path d="m8 8v0.5h3v-0.5h-3z" style="fill:#8b9cbe;opacity:.2"/>
</svg>
