<svg xmlns="http://www.w3.org/2000/svg" width="22" height="22" version="1">
 <rect style="opacity:0.2" width="20" height="20" x="1" y="1.5" rx="1" ry="1"/>
 <rect style="fill:#2a7bdb" width="20" height="20" x="1" y="1" rx="1" ry="1"/>
 <path style="opacity:0.2;fill:#8b9cbe" d="M 2,1 C 1.446,1 1,1.446 1,2 v 0.5 c 0,-0.554 0.446,-1 1,-1 h 18 c 0.554,0 1,0.446 1,1 V 2 C 21,1.446 20.554,1 20,1 Z"/>
 <path style="opacity:0.2" d="m 11,4.5004345 c -2.209139,0 -4,1.790861 -4,4 5.874e-4,0.013024 0.00124,0.026044 0.00195,0.039063 C 5.2803654,8.7869951 4.0017123,10.261145 4,12.000434 c 0,1.932997 1.5670034,3.5 3.5,3.5 H 7.25 7.0917969 l 0.2910156,0.01563 c 0.069551,0.244104 0.2908001,0.674738 0.3171875,1.23437 0.028572,0.605968 -0.526043,0.974529 -0.934375,1.328125 -0.103855,0.05509 -0.1813181,0.119474 -0.1738281,0.142578 0.024685,0.07611 0.5009135,0.239462 0.78125,0.267578 0.361689,0.03626 0.8641907,-0.0092 1.1523437,-0.117187 0.458134,-0.171764 0.8268294,-0.457689 1.0859374,-0.845703 0.22156,-0.33179 0.338252,-0.659501 0.373047,-1.042969 l 0.0293,-0.966797 1.791013,-0.01563 H 15 c 1.656854,0 3,-1.343146 3,-3 0,-1.656854 -1.343146,-3 -3,-3 -0.04431,9.72e-4 -0.08859,0.0029 -0.132812,0.0059 C 14.953978,9.177963 14.998603,8.839999 15,8.5004345 c 0,-2.209139 -1.790861,-4 -4,-4 z"/>
 <path style="fill:#8b9cbe" d="M 11,4 C 8.790861,4 7,5.790861 7,8 7.0005874,8.013024 7.00124,8.026044 7.00195,8.039063 5.2803654,8.2865606 4.0017123,9.760711 4,11.5 4,13.432997 5.5670034,15 7.5,15 H 7.25 7.0917969 l 0.2910156,0.01563 C 7.4523635,15.259734 7.6736126,15.690368 7.7,16.25 c 0.028572,0.605968 -0.526043,0.974529 -0.934375,1.328125 -0.103855,0.05509 -0.1813181,0.119474 -0.1738281,0.142578 0.024685,0.07611 0.5009135,0.239462 0.78125,0.267578 0.361689,0.03626 0.8641907,-0.0092 1.1523437,-0.117187 C 8.9835246,17.69933 9.35222,17.413405 9.611328,17.025391 9.832888,16.693601 9.94958,16.36589 9.984375,15.982422 l 0.0293,-0.966797 L 11.804688,15 H 15 c 1.656854,0 3,-1.343146 3,-3 C 18,10.343146 16.656854,9 15,9 14.95569,9.000972 14.91141,9.0029 14.867188,9.0059 14.953974,8.6775286 14.998603,8.3395645 15,8 15,5.790861 13.209139,4 11,4 Z"/>
</svg>
