<svg xmlns="http://www.w3.org/2000/svg" width="22" height="22" version="1">
 <ellipse style="opacity:0.2" cx="11" cy="18.5" rx="9" ry="3"/>
 <ellipse style="fill:#4f4f4f" cx="11" cy="18" rx="9" ry="3"/>
 <ellipse style="fill:#17191e" cx="11" cy="16.5" rx="6" ry="1.5"/>
 <path style="opacity:0.2" d="m 3,3.5 h 16 l -5,13 H 8 Z"/>
 <path style="fill:#008bad" d="M 3,3 H 19 L 14,16 H 8 Z"/>
 <ellipse style="opacity:0.2;fill:none;stroke:#000000;stroke-width:2;stroke-linecap:square;stroke-linejoin:bevel" cx="11" cy="12" rx="5" ry="1.5"/>
 <path style="fill:none;stroke:#61fff7;stroke-width:2;stroke-linecap:square;stroke-linejoin:bevel" d="M 16,11.5 A 5,1.5 0 0 1 11,13 5,1.5 0 0 1 6,11.5 5,1.5 0 0 1 11,10 a 5,1.5 0 0 1 5,1.5 z"/>
 <ellipse style="opacity:0.2;fill:none;stroke:#000000;stroke-width:2;stroke-linecap:square;stroke-linejoin:bevel" cx="11" cy="8.5" rx="7" ry="2"/>
 <path style="fill:none;stroke:#61fff7;stroke-width:2;stroke-linecap:square;stroke-linejoin:bevel" d="M 18,8.0000945 A 7,1.9999053 0 0 1 11,10 7,1.9999053 0 0 1 4,8.0000945 7,1.9999053 0 0 1 11,6.000189 7,1.9999053 0 0 1 18,8.0000945 Z"/>
 <ellipse style="opacity:0.2;fill:none;stroke:#000000;stroke-width:2;stroke-linecap:square;stroke-linejoin:bevel" cx="11" cy="4.5" rx="9" ry="2"/>
 <path style="fill:none;stroke:#61fff7;stroke-width:2;stroke-linecap:square;stroke-linejoin:bevel" d="M 20,4 A 9,2 0 0 1 11,6 9,2 0 0 1 2,4 9,2 0 0 1 11,2 9,2 0 0 1 20,4 Z"/>
 <path style="opacity:0.2;fill:#8b9cbe" d="M 11,1 C 8.4546695,1 6.152774,1.2240798 4.4189455,1.609375 3.5520307,1.8020227 2.8304007,2.0268947 2.2421875,2.3359375 1.9480809,2.4904589 1.6819728,2.6650363 1.4472656,2.9199219 1.2125585,3.1748075 1,3.5579312 1,4 1,4.086531 1.014437,4.1685055 1.029297,4.25 1.090354,3.9151563 1.2585002,3.624916 1.4472656,3.4199219 1.6819728,3.1650362 1.9480809,2.9904589 2.2421875,2.8359375 2.8304007,2.5268947 3.5520307,2.3020227 4.4189455,2.109375 6.152774,1.7240798 8.4546695,1.5 11,1.5 c 2.545331,0 4.847226,0.2240798 6.581054,0.609375 0.866915,0.1926477 1.588545,0.4175197 2.176758,0.7265625 0.294107,0.1545214 0.560215,0.3290987 0.794922,0.5839844 C 20.741499,3.624916 20.909646,3.9151563 20.970703,4.25 20.985563,4.1685055 21,4.086531 21,4 21,3.5579312 20.787441,3.1748075 20.552734,2.9199219 20.318027,2.6650363 20.051919,2.4904589 19.757812,2.3359375 19.169599,2.0268947 18.447969,1.8020227 17.581054,1.609375 15.847226,1.2240798 13.545331,1 11,1 Z M 4.173828,4.25 C 3.9175819,4.3334205 3.6938374,4.417952 3.5009765,4.5 3.8432709,4.6456205 4.239583,4.802264 4.852539,4.9384765 6.3760695,5.277039 8.5747675,5.5 11,5.5 13.425233,5.5 15.62393,5.277039 17.147461,4.9384765 17.760417,4.802264 18.156729,4.6456205 18.499023,4.5 18.306162,4.417952 18.082418,4.3334205 17.826172,4.25 17.627625,4.3146365 17.415056,4.379011 17.147461,4.4384765 15.62393,4.777039 13.425233,5 11,5 8.5747675,5 6.3760695,4.777039 4.852539,4.4384765 4.584944,4.379011 4.3723745,4.3146365 4.173828,4.25 Z"/>
</svg>
