<svg xmlns="http://www.w3.org/2000/svg" width="22" height="22" version="1">
 <rect style="opacity:0.2" width="20" height="20" x="1" y="1.5" rx="6" ry="6"/>
 <rect style="fill:#bdc0b9" width="20" height="20" x="1" y="1" rx="6" ry="6"/>
 <path style="opacity:0.3" d="M 6.5,15.5 2.7539063,19.246094 C 3.8384062,20.330593 5.338,21 7,21 h 4 4 c 1.662,0 3.161594,-0.669407 4.246094,-1.753906 L 15.5,15.5 H 11 Z"/>
 <path style="opacity:0.15" d="M 19.246094,2.7539063 15.5,6.5 v 4.5 4.5 l 3.746094,3.746094 C 20.330593,18.161594 21,16.662 21,15 V 7 C 21,5.338 20.330593,3.8384062 19.246094,2.7539063 Z"/>
 <path style="opacity:0.15" d="M 2.7539063,2.7539063 C 1.6694063,3.8384062 1,5.338 1,7 v 4 4 c 0,1.662 0.6694062,3.161594 1.7539063,4.246094 L 6.5,15.5 V 11 6.5 Z"/>
 <rect style="opacity:0.2" width="14" height="14" x="4" y="4.5" rx="3" ry="3"/>
 <rect style="fill:#eceeeb" width="14" height="14" x="4" y="4" rx="3" ry="3"/>
 <path style="fill:#17191e" d="m 11,6 a 5,5 0 0 0 -5,5 5,5 0 0 0 2,3.994141 V 13.5 H 8.555664 A 3.5,3.5 0 0 1 7.5,11 3.5,3.5 0 0 1 11,7.5 3.5,3.5 0 0 1 14.5,11 3.5,3.5 0 0 1 13.448242,13.5 H 14.5 v 1.064453 A 5,5 0 0 0 16,11 5,5 0 0 0 11,6 Z"/>
 <path style="opacity:0.2;fill:#8b9cbe" d="M 7,1 C 3.676,1 1,3.676 1,7 v 0.5 c 0,-3.324 2.676,-6 6,-6 h 8 c 3.324,0 6,2.676 6,6 V 7 C 21,3.676 18.324,1 15,1 Z"/>
 <rect style="fill:#17191e" width="3.017" height="5.119" x="1.99" y="12.57" rx="1.786" ry="1.857" transform="matrix(0.95980529,-0.28066672,0.29012582,0.95698851,0,0)"/>
 <rect style="fill:#17191e" width="3.017" height="5.119" x="-19.06" y="6.4" rx="1.786" ry="1.857" transform="matrix(-0.95980529,-0.28066672,-0.29012582,0.95698851,0,0)"/>
</svg>
