<svg xmlns="http://www.w3.org/2000/svg" width="22" height="22" version="1">
 <path style="opacity:0.2" d="M 8,1.5000003 C 7.469602,1.5001024 6.960961,1.7108693 6.5859375,2.085949 l -3,3.0000571 c -0.328092,0.328897 -0.526075,0.7555415 -0.5732046,1.203686 L 3,7.5001151 v 6.6212219 c 1.022e-4,0.530408 0.2108651,1.039058 0.5859375,1.414089 l 1.939453,1.939491 2.060547,1.93949 1.5000005,1.500029 c 0.781059,0.780752 2.047065,0.780752 2.828125,0 l 1.5,-1.500029 2.060546,-1.93949 1.939453,-1.939491 C 17.789135,15.160395 17.999898,14.651745 18,14.121337 V 7.5001151 l -0.0027,-1.056187 c -0.01378,-0.50362 -0.217733,-0.9914175 -0.58325,-1.357922 l -3,-3.0000571 C 14.039039,1.7108693 13.530398,1.5001024 13,1.5000003 Z"/>
 <path style="fill:#4f4f4f" d="M 8,1.0000001 C 7.469602,1.0001022 6.960961,1.2108692 6.5859375,1.5859489 l -3,3.0000572 c -0.328092,0.328897 -0.526075,0.7555415 -0.5732046,1.203686 L 3,7.0001151 v 6.6212219 c 1.022e-4,0.530408 0.2108651,1.039058 0.5859375,1.414089 l 1.939453,1.939491 2.060547,1.93949 1.5000005,1.500029 c 0.781059,0.780752 2.047065,0.780752 2.828125,0 l 1.5,-1.500029 2.060546,-1.93949 1.939453,-1.939491 C 17.789135,14.660395 17.999898,14.151745 18,13.621337 V 7.0001151 l -0.0027,-1.056187 c -0.01378,-0.50362 -0.217733,-0.9914175 -0.58325,-1.357922 l -3,-3.0000572 C 14.039039,1.2108692 13.530398,1.0001022 13,1.0000001 Z"/>
 <path style="opacity:0.2" d="m 8,3.5000001 -3,3 h 4 v 7.3789059 l -1,-1 V 7.5000001 H 5 V 14.121094 L 6.939453,16.060547 9,14 v 4 L 10.5,19.5 12,18 V 14 L 14.060547,16.060547 16,14.121094 V 7.5000001 h -3 v 5.3789059 l -1,1 V 6.5000001 h 4 l -3,-3 z"/>
 <path style="fill:#c2c4c1" d="m 9,5.5000001 h 3 V 17.5 L 10.5,19 9,17.5 Z"/>
 <path style="fill:none;stroke:#c2c4c1;stroke-width:3" d="M 6.5,7.0000001 V 13 L 8,14.5"/>
 <path style="fill:none;stroke:#c2c4c1;stroke-width:3" d="M 14.5,7.0000001 V 13 L 13,14.5"/>
 <path style="fill:#c2c4c1" d="m 13,3.0000002 3,2.9999999 H 5 L 8,3.0000002 Z"/>
 <path style="opacity:0.2;fill:#8b9cbe" d="m 8,3.0000001 -3,3 h 0.5 l 2.5,-2.5 h 5 l 2.5,2.5 H 16 l -3,-3 z m -3,4 v 0.5 h 3 v -0.5 z m 8,0 v 0.5 h 3 v -0.5 z M 8,12.378906 v 0.5 L 8.810547,13.689453 9,13.5 v -0.121094 z m 5,0 -1,1 V 13.5 L 12.189453,13.689453 13,12.878906 Z"/>
 <path style="opacity:0.1;fill:#8b9cbe" d="M 8,1.0000001 C 7.469602,1.0001022 6.960961,1.2108579 6.5859375,1.5859376 l -3,3 C 3.2578455,4.9148346 3.0598249,5.3418946 3.0126953,5.7900391 L 3,7.0000001 v 0.5 L 3.012696,6.2900391 C 3.059825,5.8418946 3.2578458,5.4148346 3.5859375,5.0859376 l 3,-3 C 6.960961,1.7108579 7.469602,1.5001022 8,1.5000001 h 5 c 0.530398,1.021e-4 1.039051,0.2108578 1.414063,0.5859375 l 2.999999,3 c 0.365517,0.3665045 0.569223,0.8547785 0.583008,1.3583985 L 18,7.5000001 v -0.5 l -0.0029,-1.055664 c -0.01379,-0.50362 -0.217491,-0.991894 -0.583008,-1.3583985 l -3,-3 C 14.039051,1.2108579 13.530398,1.0001022 13,1.0000001 Z"/>
</svg>
