<svg width="22" height="22" version="1.1" xmlns="http://www.w3.org/2000/svg">
 <path d="m11 1.5c4 0 8 5 8 11s-3.986135 9-8 9c-4.0138649 0-8-3-8-9s4-11 8-11z" style="opacity:.2"/>
 <path d="m11 1c4 0 8 5 8 11s-3.986135 9-8 9c-4.0138649 0-8-3-8-9s4-11 8-11z" style="fill:#db8bdc"/>
 <circle cx="11" cy="19.5" r="1" style="opacity:.2"/>
 <path d="m11 3c-3 0-6 5-6 9 0 1.665202 0.5242621 3.151877 1.3476562 4.326172l0.6523438-0.326172 2 1 2-1 2 1 2-1 0.652344 0.326172c0.823394-1.174295 1.347656-2.66097 1.347656-4.326172 0-4-3-9-6-9z" style="fill:#b356c3"/>
 <rect x="7" y="6" width="8" height="8" ry="1" style="fill:#333333"/>
 <circle cx="11" cy="19" r="1" style="fill:#f9f9f9"/>
 <circle cx="14" cy="18.5" r="1" style="opacity:.2"/>
 <circle cx="14" cy="18" r="1" style="fill:#f9f9f9"/>
 <circle cx="8" cy="18.5" r="1" style="opacity:.2"/>
 <circle cx="8" cy="18" r="1" style="fill:#f9f9f9"/>
 <path d="M 11 1 C 7 1 3 6 3 12 C 3 12.086685 3.0081135 12.166521 3.0097656 12.251953 C 3.1188406 6.3637208 7.0556954 1.5 11 1.5 C 14.944305 1.5 18.881159 6.3637208 18.990234 12.251953 C 18.991886 12.166521 19 12.086685 19 12 C 19 6 15 1 11 1 z " style="fill:#8b9cbe;opacity:.2"/>
</svg>
