<svg xmlns="http://www.w3.org/2000/svg" width="22" height="22" version="1">
 <rect style="opacity:0.2" width="20" height="20" x="1" y="1.5" rx="6" ry="6"/>
 <rect style="fill:#b2bfd9" width="20" height="20" x="1" y="1" rx="6" ry="6"/>
 <path style="opacity:0.2;fill:#8b9cbe" d="M 7,1 C 3.676,1 1,3.676 1,7 v 0.5 c 0,-3.324 2.676,-6 6,-6 h 8 c 3.324,0 6,2.676 6,6 V 7 C 21,3.676 18.324,1 15,1 Z"/>
 <circle style="fill:#304f58" cx="11" cy="11" r="8"/>
 <path style="opacity:0.2" d="M 8.116211,5.123047 C 6.4821165,5.859996 5.1865045,7.2011495 4.5126955,8.8691405 5.184955,9.455341 7.6083735,11.571216 7.803711,11.743164 c 0.081299,0.07156 0.2407495,0.211852 0.354492,0.311524 l 0.2070315,0.18164 0.1455075,-0.0088 c 0.080125,-0.0044 0.3449705,-0.02227 0.588868,-0.04004 0.243897,-0.01777 0.551287,-0.03903 0.682617,-0.04687 0.131329,-0.0078 0.263652,-0.01718 0.294922,-0.02149 0.03127,-0.0043 0.164569,-0.01479 0.295898,-0.02246 0.131329,-0.0077 0.367093,-0.02347 0.523438,-0.03516 0.156344,-0.01168 0.452804,-0.03233 0.659179,-0.0459 0.526711,-0.03464 0.470497,0.0018 0.451172,-0.288086 -0.04062,-0.60928 -0.08637,-1.281171 -0.166015,-2.416992 -0.01798,-0.256405 -0.03952,-0.579214 -0.04785,-0.716797 l -0.01563,-0.25 -0.105468,-0.1035155 C 11.61405,8.183525 11.495758,8.0752085 11.408205,7.9990215 11.320652,7.9228345 11.075072,7.708507 10.862306,7.522459 10.64954,7.336411 10.434662,7.1490385 10.384767,7.1064435 10.334877,7.0638485 10.222319,6.96611 10.134767,6.88867 10.047214,6.8112295 9.67815,6.488459 9.315431,6.171873 8.952712,5.855287 8.425953,5.3940755 8.1445325,5.147459 8.1309825,5.135584 8.1296525,5.134819 8.1162125,5.123044 Z"/>
 <path style="fill:#b0b0b0" d="M 8.116211,4.623047 C 6.4821165,5.359996 5.1865045,6.7011495 4.5126955,8.3691405 c 0.6722595,0.586201 3.095678,2.7020755 3.2910155,2.8740235 0.081299,0.07156 0.2407495,0.211852 0.354492,0.311524 l 0.2070315,0.18164 0.1455075,-0.0088 c 0.080125,-0.0044 0.3449705,-0.02227 0.588868,-0.04004 0.243897,-0.01777 0.551287,-0.03903 0.682617,-0.04687 0.131329,-0.0078 0.263652,-0.01718 0.294922,-0.02149 0.03127,-0.0043 0.164569,-0.01479 0.295898,-0.02246 0.131329,-0.0077 0.367093,-0.02347 0.523438,-0.03516 0.156344,-0.01168 0.452804,-0.03233 0.659179,-0.0459 0.526711,-0.03464 0.470497,0.0018 0.451172,-0.288086 -0.04062,-0.60928 -0.08637,-1.281171 -0.166015,-2.416992 -0.01798,-0.256405 -0.03952,-0.579214 -0.04785,-0.716797 l -0.01563,-0.25 -0.105468,-0.1035155 C 11.61405,7.683525 11.495758,7.5752085 11.408205,7.4990215 11.320652,7.4228345 11.075072,7.208507 10.862306,7.022459 10.64954,6.836411 10.434662,6.6490385 10.384767,6.6064435 10.334877,6.5638485 10.222319,6.46611 10.134767,6.38867 10.047214,6.3112295 9.67815,5.988459 9.315431,5.671873 8.952712,5.355287 8.425953,4.8940755 8.1445325,4.647459 8.1309825,4.635584 8.1296525,4.634819 8.1162125,4.623044 Z"/>
 <path style="opacity:0.2" d="m 12.67323,14.447286 c -0.24448,-0.08095 -0.50975,-0.347965 -0.611185,-0.615203 -0.183511,-0.483474 0.05281,-1.031446 0.5406,-1.253483 0.164973,-0.07509 0.23198,-0.08635 0.444563,-0.07464 0.401909,0.02213 0.684823,0.20784 0.861994,0.565843 0.124573,0.251722 0.120533,0.623326 -0.0095,0.870666 -0.239852,0.456335 -0.746582,0.665729 -1.226501,0.506821 z"/>
 <path style="fill:#b0b0b0" d="m 12.67323,13.947286 c -0.24448,-0.08095 -0.50975,-0.347965 -0.611185,-0.615203 -0.183511,-0.483474 0.05281,-1.031446 0.5406,-1.253483 0.164973,-0.07509 0.23198,-0.08635 0.444563,-0.07464 0.401909,0.02213 0.684823,0.20784 0.861994,0.565843 0.124573,0.251722 0.120533,0.623326 -0.0095,0.870666 -0.239852,0.456335 -0.746582,0.665729 -1.226501,0.506821 z"/>
 <path style="opacity:0.2" d="M 11,3 A 8.000001,8.000001 0 0 0 3,11 8.000001,8.000001 0 0 0 3.0107422,11.290039 8.000001,8.000001 0 0 1 11,3.5 8.000001,8.000001 0 0 1 18.989258,11.209961 8.000001,8.000001 0 0 0 19,11 8.000001,8.000001 0 0 0 11,3 Z"/>
 <path style="opacity:0.2;fill:#8b9cbe" d="M 8.116211,4.623047 C 6.4821165,5.359996 5.1865045,6.7011495 4.5126955,8.3691405 4.5462355,8.3983905 4.634992,8.476263 4.676758,8.5126955 5.384164,7.012258 6.601539,5.8061385 8.116211,5.123047 c 0.01344,0.011775 0.01477,0.01254 0.02832,0.024415 0.2814205,0.2466165 0.8081795,0.707828 1.170899,1.024414 0.362719,0.316586 0.731783,0.6393565 0.819336,0.716797 0.08755,0.07744 0.20011,0.1751785 0.25,0.2177735 0.04989,0.042595 0.264772,0.2299675 0.477539,0.4160155 0.212766,0.186048 0.458345,0.4003755 0.545898,0.4765625 0.08755,0.076187 0.205846,0.1845035 0.263672,0.241211 l 0.105469,0.1035155 0.01563,0.25 c 0.0083,0.137583 0.02987,0.460392 0.04785,0.716797 0.07089,1.010986 0.109993,1.592486 0.14746,2.151367 0.04288,-0.03261 0.02787,-0.09471 0.01855,-0.234375 -0.04062,-0.60928 -0.08637,-1.281171 -0.166015,-2.416992 -0.01798,-0.256405 -0.03952,-0.579214 -0.04785,-0.716797 l -0.01563,-0.25 L 11.67187,7.7402355 C 11.614049,7.683528 11.495756,7.5752115 11.408203,7.4990245 11.32065,7.4228375 11.075071,7.20851 10.862305,7.022462 10.649538,6.836414 10.434661,6.6490415 10.384766,6.6064465 10.334876,6.5638515 10.222318,6.466113 10.134766,6.388673 10.047213,6.3112325 9.678149,5.988462 9.31543,5.671876 8.9527105,5.35529 8.4259515,4.8940785 8.144531,4.647462 8.130981,4.635587 8.129651,4.634822 8.116211,4.623047 Z"/>
 <path style="opacity:0.2;fill:#8b9cbe" d="M 18.989258,11.209961 A 8.000001,8.000001 0 0 1 11,19 8.000001,8.000001 0 0 1 3.0107422,11.290039 8.000001,8.000001 0 0 0 3,11.5 a 8.000001,8.000001 0 0 0 8,8 8.000001,8.000001 0 0 0 8,-8 8.000001,8.000001 0 0 0 -0.01074,-0.290039 z"/>
 <path style="opacity:0.2;fill:#8b9cbe" d="m 13.046875,12.003906 c -0.212583,-0.01171 -0.278386,-8.71e-4 -0.443359,0.07422 -0.460075,0.209421 -0.683288,0.708194 -0.554688,1.169922 0.07559,-0.282884 0.262581,-0.536958 0.554688,-0.669922 0.164973,-0.07509 0.230776,-0.08593 0.443359,-0.07422 0.401909,0.02213 0.68611,0.208403 0.863281,0.566406 0.02673,0.05402 0.04368,0.11509 0.05859,0.177735 0.05385,-0.223428 0.0366,-0.485368 -0.05859,-0.677735 -0.177171,-0.358003 -0.461372,-0.544276 -0.863281,-0.566406 z"/>
</svg>
