<svg xmlns="http://www.w3.org/2000/svg" width="22" height="22" version="1">
 <rect style="fill:#4f4f4f" width="20" height="20" x="1" y="1" rx="1" ry="1"/>
 <path style="opacity:0.1;fill:#8b9cbe" d="M 2,1 C 1.446,1 1,1.446 1,2 v 0.5 c 0,-0.554 0.446,-1 1,-1 h 18 c 0.554,0 1,0.446 1,1 V 2 C 21,1.446 20.554,1 20,1 Z"/>
 <path style="opacity:0.2" d="m 2,21.5 c -0.554,0 -1,-0.446 -1,-1 V 20 c 0,0.554 0.446,1 1,1 h 18 c 0.554,0 1,-0.446 1,-1 v 0.5 c 0,0.554 -0.446,1 -1,1 z"/>
 <path style="opacity:0.2" d="m 12.916947,18.461789 c -0.09919,0 -0.18314,-0.05129 -0.25294,-0.07948 -0.131445,-0.118426 -0.05388,-0.05826 0.08731,-0.111966 -0.08029,0.01383 0.01865,0.0078 0.103365,-0.04674 0.02949,0 0.08704,-0.01441 0.127878,-0.03202 0.04084,-0.01742 0.08786,-0.0352 0.104497,-0.03911 0.01663,-0.0039 0.09151,-0.03036 0.166405,-0.05878 0.07489,-0.02854 0.171177,-0.06461 0.21397,-0.08045 0.07308,-0.02703 0.205877,-0.09471 0.35821,-0.182609 0.06585,-0.03798 0.103641,-0.06584 0.181332,-0.133585 0.02214,-0.01922 0.04912,-0.03512 0.05996,-0.03512 0.01084,0 0.01495,-0.0048 0.0091,-0.01095 -0.0058,-0.006 0.02334,-0.04734 0.06484,-0.09188 0.04149,-0.04453 0.07515,-0.09153 0.07479,-0.104412 -0.0019,-0.07027 -0.138635,-0.162696 -0.621813,-0.42046 -0.123034,-0.06564 -0.240963,-0.131784 -0.262066,-0.146978 -0.02111,-0.01531 -0.0532,-0.02764 -0.07132,-0.02764 -0.01813,0 -0.03588,-0.0073 -0.03944,-0.01563 -0.725614,-0.347579 -1.190084,-0.594104 -1.894824,-0.887111 -0.0075,0 -0.05534,-0.02643 -0.106294,-0.05879 -0.132066,-0.07538 -0.202808,-0.09197 -0.32014,-0.186648 -0.0107,-0.0088 -0.05281,-0.04223 -0.09358,-0.07453 -0.163888,-0.129813 -0.224105,-0.256974 -0.202041,-0.426603 0.0063,-0.04826 0.119899,-0.307788 0.275819,-0.630015 0.145829,-0.301352 0.263903,-0.553971 0.262387,-0.561319 -0.0015,-0.0073 0.0053,-0.01891 0.01522,-0.02553 0.03433,-0.02343 0.354673,-0.708588 0.341995,-0.731446 -0.007,-0.01258 -0.0057,-0.01622 0.003,-0.0084 0.01574,0.01473 0.18906,-0.313274 0.190648,-0.36073 5e-4,-0.01382 0.0096,-0.02494 0.02029,-0.02494 0.0107,0 0.01443,-0.0051 0.0083,-0.01143 -0.01407,-0.01441 -0.131487,0.04698 -0.131487,0.06885 0,0.0091 -0.01224,0.01621 -0.0272,0.01621 -0.619487,0.249298 -1.31579,0.633263 -1.861303,0.888838 -0.14535,0.06831 -0.286372,0.14373 -0.313382,0.167634 -0.02897,0.02556 -0.07094,0.107162 -0.102347,0.198752 -0.02928,0.08536 -0.0696,0.176685 -0.08961,0.202901 -0.02001,0.02615 -0.03212,0.05207 -0.02693,0.05741 0.0052,0.0055 -0.08603,0.202924 -0.202719,0.438999 -0.2848415,0.57627 -0.301005,0.607485 -0.3234725,0.62448 -0.0107,0.0082 -0.01153,0.01503 -0.00185,0.01503 0.00968,0 0.00485,0.01621 -0.010735,0.03543 -0.015585,0.01922 -0.052985,0.08923 -0.083109,0.15542 -0.030125,0.0662 -0.077213,0.151236 -0.1046435,0.189008 -0.02743,0.03772 -0.03734,0.06083 -0.02203,0.0513 0.023865,-0.01471 0.024005,-0.01259 9e-4,0.01683 -0.295045,0.594529 -0.6659125,1.147758 -0.919304,1.753054 -0.076446,0.14053 -0.1220585,0.272691 -0.1897555,0.447016 h 0.091404 c 0.3077795,0.03773 -0.049315,0.07551 -0.1517445,0.08702 -0.371518,0.04134 -1.79592,0.01322 -1.844081,-0.03652 -0.048815,-0.05035 0.189242,-0.0729 0.8179475,-0.0775 0.254065,-0.0031 0.4619565,-0.0041 0.4619815,-0.0055 2.05e-5,0 -0.053326,-0.0453 -0.1185605,-0.09817 -0.065234,-0.05285 -0.137449,-0.115349 -0.160478,-0.13884 -0.02303,-0.02343 -0.06945,-0.06062 -0.1031595,-0.08239 -0.03371,-0.02194 -0.1168655,-0.08722 -0.1847925,-0.145408 -0.067927,-0.05822 -0.13477,-0.115313 -0.14854,-0.12687 -0.01377,-0.01168 -0.079421,-0.06681 -0.145889,-0.122709 -0.1402465,-0.117988 -0.275074,-0.263287 -0.3157865,-0.340365 -0.02671,-0.05056 -0.025775,-0.0548 0.015155,-0.06904 0.069972,-0.02433 0.1526545,-0.0032 0.4125695,0.109668 0.04245,0.01833 0.081837,0.03407 0.087533,0.035 0.012955,0.0031 0.070575,0.02524 0.14652,0.05806 0.032095,0.01383 0.102122,0.04164 0.155615,0.06149 0.053493,0.01982 0.1060135,0.0423 0.116712,0.04993 0.023685,0.01683 0.1306245,0.04725 0.1505365,0.04279 0.00791,-0.0031 0.047295,0.01 0.087534,0.02555 0.1333595,0.05259 0.353256,0.07182 0.5453755,0.04769 0.170133,-0.134436 0.290124,-0.346606 0.3642155,-0.517987 0.019365,-0.02222 0.027285,-0.04026 0.017605,-0.0404 -0.00968,0 -0.00786,-0.0073 0.00405,-0.01503 0.114196,-0.227851 0.239084,-0.48081 0.337177,-0.696727 0.121264,-0.261755 0.182143,-0.401069 0.187567,-0.429255 0.00295,-0.01563 0.01693,-0.03563 0.031015,-0.04481 0.014085,-0.0092 0.018865,-0.01684 0.010625,-0.01684 -0.00824,0 0.0017,-0.03415 0.022145,-0.07553 0.020425,-0.04137 0.048245,-0.113609 0.06183,-0.160481 0.013585,-0.0469 0.03061,-0.08524 0.03783,-0.08524 0.00722,0 0.01324,-0.01107 0.013375,-0.02494 1.015e-4,-0.0138 0.041905,-0.133402 0.092825,-0.265745 0.104961,-0.27291 0.208662,-0.549726 0.266772,-0.712153 0.02171,-0.06064 0.046905,-0.128353 0.055991,-0.150408 0.00908,-0.02223 0.03528,-0.08979 0.058218,-0.150421 0.02294,-0.06072 0.058891,-0.150956 0.079897,-0.200601 0.021005,-0.04967 0.03942,-0.09932 0.04092,-0.110374 0.0015,-0.01095 0.0099,-0.02913 0.01868,-0.04009 0.334029,-0.503936 0.924475,-0.849362 1.335076,-1.225456 0.009,0.0056 0.0681,-0.03661 0.1313,-0.09408 0.0632,-0.05752 0.123656,-0.111408 0.134354,-0.119814 0.05616,-0.04405 0.293793,-0.240412 0.418475,-0.345849 0.0783,-0.06617 0.186864,-0.155535 0.241255,-0.198561 0.05439,-0.04301 0.103271,-0.08408 0.10862,-0.09123 0.0053,-0.0072 0.06662,-0.05768 0.136154,-0.112316 0.06954,-0.05464 0.140763,-0.114113 0.158283,-0.132197 0.148168,-0.167531 0.379527,-0.297479 0.668433,-0.545482 0.0214,-0.02073 0.05852,-0.05128 0.0825,-0.06789 0.02398,-0.01652 0.03865,-0.03845 0.0326,-0.04854 -0.0061,-0.01029 -0.0027,-0.01592 0.0076,-0.01292 0.0291,0.0087 0.142397,-0.0845 0.12932,-0.106339 0.064,-0.03336 0.123088,-0.08771 0.193761,-0.148543 0.03836,-0.03845 0.06975,-0.06485 0.06975,-0.05875 0,0.0063 0.01128,0 0.02507,-0.01533 0.03206,-0.03391 0.104288,-0.208952 0.118518,-0.28729 0.006,-0.03308 0.02401,-0.114214 0.03999,-0.18033 0.05215,-0.215616 0.08595,-0.592823 0.09798,-1.0934208 0.0065,-0.2702922 0.01633,-0.5365607 0.02184,-0.5917117 l 0.01002,-0.1003315 -0.12906,0.1404335 c -0.121352,0.132022 -0.197138,0.2425665 -0.188589,0.2750675 0.0021,0.0078 -0.0086,0.0096 -0.02369,0.0036 -0.0476,0.01201 -0.06105,0.0496 -0.08684,0.09258 -0.0064,0.0054 -0.02481,0.02764 -0.04086,0.04897 -0.02301,0.0307 -0.02341,0.03538 -0.0018,0.02193 0.01854,-0.01141 0.02286,-0.0096 0.01344,0.0063 -0.0076,0.01292 -0.0229,0.02313 -0.03393,0.02313 -0.02665,0 -0.133111,0.1044172 -0.12325,0.1208492 0.0043,0.0072 -0.0046,0.01292 -0.01975,0.01292 -0.01511,0 -0.02197,-0.0099 -0.01525,-0.02193 0.0067,-0.01201 -0.0046,-0.0072 -0.02517,0.0108 -0.02056,0.01803 -0.05919,0.03962 -0.08585,0.048 -0.02665,0.0084 -0.101055,0.04019 -0.165341,0.07059 -0.06428,0.03044 -0.243805,0.1109598 -0.398933,0.1790078 -0.155129,0.06804 -0.330196,0.145028 -0.389038,0.171066 -0.05884,0.02614 -0.15465,0.06662 -0.212908,0.09018 -0.05826,0.02344 -0.228949,0.09937 -0.379312,0.168558 -0.150364,0.06918 -0.310353,0.142048 -0.35553,0.16203 -0.04518,0.01983 -0.07735,0.04422 -0.0715,0.05397 0.0059,0.0099 0.0034,0.01653 -0.0054,0.01502 -0.04526,-0.0081 -0.06723,0.0085 -0.102159,0.07709 -0.05444,0.106961 -0.177601,0.23133 -0.313131,0.316219 -0.06743,0.04227 -0.111168,0.08219 -0.10369,0.09468 0.0073,0.01202 0.0039,0.01591 -0.0078,0.0084 -0.01138,-0.0072 -0.06744,0 -0.12458,0.01442 -0.09167,0.02463 -0.105928,0.02402 -0.121201,-0.0033 -0.01075,-0.01922 -0.0088,-0.04486 0.005,-0.06774 0.0268,-0.04425 0.02047,-0.04515 -0.06352,-0.009 -0.07529,0.03244 -0.09881,0.02223 -0.127165,-0.05455 -0.01304,-0.03539 -0.01349,-0.05134 -0.0013,-0.04355 0.01066,0.0069 0.01939,0.0036 0.01939,-0.0076 0,-0.01084 -0.0197,-0.02252 -0.04377,-0.02614 -0.05722,-0.0084 -0.07401,-0.108463 -0.02059,-0.12273 0.03226,-0.0087 0.03236,-0.0096 0.0012,-0.01171 -0.02448,-0.003 -0.03404,-0.01953 -0.03404,-0.06345 0,-0.04803 0.01179,-0.06635 0.05487,-0.08525 0.03018,-0.01321 0.08358,-0.05795 0.118672,-0.09928 0.03509,-0.04134 0.07041,-0.07092 0.0785,-0.06581 0.0081,0.0051 0.07504,-0.009 0.148793,-0.0313 0.08521,-0.02584 0.180183,-0.03927 0.260526,-0.03674 0.256774,0.0078 0.281056,0.0045 0.427942,-0.06563 0.08024,-0.03818 0.202786,-0.09432 0.272327,-0.124788 0.368807,-0.161487 0.497348,-0.222282 0.509797,-0.241213 0.0076,-0.01141 0.02517,-0.02102 0.0391,-0.02133 0.05382,0 0.305206,-0.117297 0.293648,-0.136613 -0.0067,-0.01107 -0.0026,-0.01412 0.0089,-0.0069 0.187794,-0.0647 0.311493,-0.1266392 0.48725,-0.2063972 0.250223,-0.1016812 0.346754,-0.159206 0.395957,-0.2358664 0.02698,-0.04209 0.05135,-0.085491 0.05415,-0.096516 0.0028,-0.010805 0.0206,-0.042655 0.03957,-0.070233 0.156057,-0.2852505 0.305633,-0.5338245 0.448903,-0.801804 0.239116,-0.434305 0.272571,-0.5173035 0.310123,-0.7696025 0.04556,-0.306067 0.06526,-0.40015 0.130146,-0.6219295 l 0.05189,-0.177453 -0.07887,-0.073326 C 13.1081,5.72991 13.0448,5.686803 12.939173,5.6792645 c -0.02305,-0.003 -0.03785,-0.00992 -0.03289,-0.018025 0.01587,-0.026435 -0.135866,-0.01562 -0.236428,0.016825 -0.133965,0.043285 -0.200762,0.05359 -0.255691,0.03938 -0.05161,-0.013215 -0.175524,-0.139051 -0.192977,-0.1957645 -0.0061,-0.019525 -0.01924,-0.03596 -0.02922,-0.03596 -0.01,0 -0.01814,-0.01622 -0.01814,-0.035835 0,-0.019525 -0.02679,-0.052087 -0.05952,-0.072004 -0.07396,-0.04508 -0.101785,-0.116935 -0.08605,-0.2222525 0.01194,-0.079905 0.07498,-0.4450905 0.09711,-0.562574 0.04932,-0.261761 0.05354,-0.3105135 0.02942,-0.340493 -0.01355,-0.01682 -0.03268,-0.03061 -0.04252,-0.03061 -0.0098,0 -0.02847,-0.00901 -0.04139,-0.019825 -0.01293,-0.01112 -0.04362,-0.035895 -0.06822,-0.05518 -0.0246,-0.019525 -0.05318,-0.071223 -0.0635,-0.1153205 -0.03966,-0.169542 -0.05139,-0.249476 -0.03506,-0.239053 0.0093,0.00601 0.01685,0 0.01685,-0.010205 0,-0.03788 0.125666,-0.197807 0.165342,-0.2104845 0.09347,-0.02974 0.480798,-0.071914 0.660662,-0.071914 0.20045,0 0.251298,0.01592 0.316843,0.09937 0.02111,0.027035 0.02286,0.025535 0.01312,-0.00901 -0.01124,-0.04013 -0.01124,-0.04013 0.01304,0 0.01336,0.02223 0.04194,0.053108 0.06351,0.069 0.0507,0.03728 0.08651,0.076329 0.158295,0.1724535 0.03209,0.042985 0.07506,0.095705 0.09548,0.1171225 0.0353,0.03701 0.03601,0.053261 0.0144,0.331603 -0.02767,0.3563525 -0.02754,0.584021 3.9e-4,0.7039075 0.01156,0.049655 0.02212,0.139922 0.02346,0.2006305 0.0023,0.1016535 0.0089,0.117002 0.08523,0.195549 0.04553,0.04689 0.08742,0.08525 0.09307,0.08525 0.263963,0.2650955 0.695389,0.5692725 0.826199,0.878285 0.08867,0.165966 0.187062,0.3636845 0.242444,0.5309705 0.0233,0.074528 0.04606,0.1318435 0.05057,0.127397 0.0045,-0.0042 0.01056,0.055092 0.01345,0.1323215 0.0029,0.077231 0.01295,0.1553325 0.0224,0.173506 0.04033,0.077681 0.211734,0.281106 0.225812,0.26801 0.0085,-0.00781 0.0094,-0.0036 0.0021,0.00961 -0.0074,0.013215 0.01509,0.057946 0.05034,0.1002705 0.200582,0.1942645 0.15214,0.1967265 0.310087,0.3351475 0.01402,-0.00901 0.01685,-0.00511 0.0077,0.010205 -0.0092,0.01532 0.04876,0.090508 0.157471,0.2043565 0.0946,0.09907 0.17818,0.195614 0.185742,0.214539 0.01789,0.04482 0.08675,0.3878962 0.210254,1.047466 0.05475,0.292339 0.130707,0.675973 0.168799,0.852507 0.03809,0.176511 0.0735,0.341037 0.07869,0.365549 0.0097,0.04596 0.03672,0.07835 0.180255,0.216161 0.04597,0.04413 0.100159,0.116347 0.120419,0.160468 0.02025,0.04414 0.0553,0.111809 0.07787,0.150442 0.03316,0.05672 0.0414,0.104894 0.0429,0.250737 0.0018,0.175098 4.87e-4,0.180474 -0.04191,0.178125 -0.03897,-0.003 -0.04377,0.0072 -0.04377,0.08387 0,0.09979 -0.06832,0.227309 -0.122503,0.228598 -0.05118,0 -0.125299,-0.09041 -0.201566,-0.249326 -0.08014,-0.166954 -0.07656,-0.162661 -0.110661,-0.133462 -0.03627,0.03106 -0.08372,0.01017 -0.0991,-0.04401 -0.0069,-0.02402 -0.01776,-0.132084 -0.02424,-0.240005 -0.0095,-0.159036 -0.0049,-0.219685 0.02431,-0.319236 l 0.03608,-0.12289 -0.05184,-0.262958 c -0.02851,-0.14461 -0.104997,-0.488437 -0.169962,-0.764013 -0.06497,-0.275555 -0.1371,-0.582219 -0.160295,-0.681533 -0.0232,-0.0993 -0.04924,-0.1835704 -0.05789,-0.1872884 -0.0086,-0.0036 -0.01183,-0.01292 -0.0071,-0.02103 0.01693,-0.02824 -0.06501,-0.3525992 -0.09474,-0.3749776 -0.01668,-0.01262 -0.03053,-0.03091 -0.03078,-0.04073 -2.43e-4,-0.0099 -0.04894,-0.072034 -0.108222,-0.1382105 -0.05928,-0.066207 -0.13197,-0.147433 -0.161536,-0.180535 -0.120977,-0.1354165 -0.278425,-0.270654 -0.300158,-0.257856 -0.01261,0.00751 -0.01658,0.0063 -0.0088,-0.003 0.01313,-0.01502 -0.09599,-0.129769 -0.124024,-0.13046 -0.01797,0 -0.03139,0.147973 -0.07528,0.8321429 -0.05207,0.8118146 -0.08631,1.1517676 -0.163659,1.6247626 -0.03787,0.231568 -0.149613,0.648276 -0.206306,0.769302 -0.02092,0.04463 -0.04064,0.09879 -0.04383,0.120368 -0.0032,0.02162 -0.0153,0.05136 -0.0269,0.06623 -0.0678,0.26813 -0.192336,0.319314 -0.28689,0.561015 0.0088,0.01472 0.006,0.01863 -0.0071,0.01017 -0.01287,-0.0081 -0.06267,0.05266 -0.12458,0.152302 -0.05673,0.09125 -0.131523,0.206566 -0.166209,0.25626 -0.03468,0.04968 -0.09488,0.139983 -0.13376,0.200631 -0.03889,0.06073 -0.126485,0.188995 -0.194673,0.285173 -0.06819,0.09611 -0.123977,0.184677 -0.123977,0.196732 0,0.01205 -0.0073,0.01714 -0.01632,0.01144 -0.009,-0.0057 -0.03485,0.02314 -0.05752,0.06401 -0.02266,0.04091 -0.07194,0.109582 -0.109512,0.152574 -0.03757,0.04295 -0.0628,0.08811 -0.05608,0.100275 0.0067,0.01233 0.0052,0.01562 -0.0035,0.0073 -0.0086,-0.0078 -0.06037,0.04688 -0.114966,0.122052 -0.154251,0.212352 -0.42726,0.558095 -0.612115,0.775252 -0.0282,0.03313 -0.120799,0.143669 -0.205789,0.245721 -0.08499,0.102017 -0.16158,0.185517 -0.170203,0.185517 -0.0086,0 -0.01568,0.01009 -0.01568,0.02253 0,0.01258 -0.01972,0.04185 -0.04383,0.06516 -0.02411,0.02314 -0.06876,0.074 -0.09924,0.112649 -0.03047,0.0386 -0.04879,0.05752 -0.0407,0.04205 0.0097,-0.01862 0.0071,-0.02342 -0.0078,-0.01381 -0.01235,0.0078 -0.02245,0.02524 -0.02245,0.03897 0,0.01351 -0.08289,0.114582 -0.184196,0.224469 -0.101308,0.109899 -0.184465,0.210467 -0.184793,0.223472 -3.04e-4,0.01321 -0.02812,0.04584 -0.06177,0.07296 l -0.06117,0.04938 0.06604,0.01443 c 0.11192,0.02463 0.298691,0.09501 0.31375,0.118292 0.0079,0.01233 0.01443,0.01411 0.01459,0.0045 2.07e-4,-0.0096 0.01253,-0.0073 0.02749,0.0057 0.01496,0.01297 0.04376,0.02644 0.064,0.03056 0.02025,0.0042 0.083,0.03542 0.139463,0.06976 0.05646,0.03433 0.09748,0.05377 0.09116,0.04322 -0.01417,-0.02372 0.169542,0.07941 0.186113,0.104424 0.0065,0.01 0.01773,0.01652 0.02483,0.01501 0.734001,0.323578 1.184034,0.719428 1.830647,1.053127 0.04279,0.02191 0.08218,0.04522 0.08753,0.05207 0.0053,0.0069 0.05513,0.03683 0.110631,0.06663 0.0555,0.02974 0.111277,0.06708 0.123956,0.08282 0.01268,0.01592 0.03404,0.02854 0.04746,0.02854 0.01343,0 0.03523,0.01321 0.04845,0.02974 0.01323,0.01622 0.03088,0.02522 0.03924,0.02012 0.0084,-0.0055 0.02045,0.0045 0.02684,0.02163 0.0064,0.01713 0.01985,0.02584 0.02989,0.01953 0.02149,-0.01352 0.315758,0.288652 0.302493,0.310768 -0.0049,0.0083 0.0019,0.01951 0.01518,0.02522 0.01331,0.0055 0.04127,0.04476 0.06214,0.08732 0.02087,0.0426 0.05067,0.09326 0.06624,0.112551 0.01557,0.01923 0.02196,0.03509 0.01422,0.03509 -0.0077,0 0.0023,0.02494 0.02224,0.05518 0.09934,0.150883 0.107209,0.245296 0.02545,0.305318 -0.06291,0.04619 -0.22131,0.106907 -0.336299,0.128864 -0.04012,0.0075 -0.07294,0.02404 -0.07294,0.03641 0,0.01233 0.0058,0.01652 0.0128,0.0092 0.007,-0.0073 0.02504,-0.0031 0.04,0.0101 0.01496,0.01297 0.02567,0.01503 0.0238,0.0047 -0.0085,-0.04605 0.0036,-0.05299 0.03002,-0.01713 0.02323,0.03142 0.03218,0.03368 0.0462,0.01168 0.01037,-0.01621 0.02215,-0.01923 0.02917,-0.0075 0.0065,0.01095 0.04985,0.02042 0.09638,0.02132 0.09344,0.0032 0.188483,0.03248 0.188483,0.06059 0,0.06732 -0.128242,0.08474 -0.675683,0.0918 -0.23509,0.0032 -0.436854,0.01143 -0.448363,0.01891 -0.01151,0.0075 -0.02669,0.004 -0.03373,-0.0078 -0.0088,-0.01472 -0.02179,-0.01352 -0.04173,0.0037 -0.01723,0.01472 -0.03422,0.01711 -0.04204,0.006 -0.29433,0.02401 -0.494877,-0.01444 -0.797005,-0.03113 z"/>
 <path style="fill:#8b9cbe" d="m 12.916947,17.961796 c -0.09919,0 -0.18314,-0.05129 -0.25294,-0.07948 -0.131445,-0.118426 -0.05388,-0.05826 0.08731,-0.111966 -0.08029,0.01383 0.01865,0.0078 0.103365,-0.04674 0.02949,0 0.08704,-0.01441 0.127878,-0.03202 0.04084,-0.01742 0.08786,-0.0352 0.104497,-0.03911 0.01663,-0.0039 0.09151,-0.03036 0.166405,-0.05878 0.07489,-0.02854 0.171177,-0.06461 0.21397,-0.08045 0.07308,-0.02703 0.205877,-0.0947 0.35821,-0.182609 0.06585,-0.03798 0.103641,-0.06584 0.181332,-0.133584 0.02214,-0.01922 0.04912,-0.03512 0.05996,-0.03512 0.01084,0 0.01495,-0.0047 0.0091,-0.01095 -0.0058,-0.006 0.02334,-0.04734 0.06484,-0.09188 0.04149,-0.04453 0.07515,-0.09153 0.07479,-0.104412 -0.0019,-0.07027 -0.138635,-0.162696 -0.621813,-0.42046 -0.123034,-0.06564 -0.240963,-0.131784 -0.262066,-0.146978 -0.02111,-0.01531 -0.0532,-0.02764 -0.07132,-0.02764 -0.01813,0 -0.03588,-0.0073 -0.03944,-0.01563 -0.725614,-0.347579 -1.190084,-0.594104 -1.894824,-0.887111 -0.0075,0 -0.05534,-0.02643 -0.106294,-0.05879 -0.132066,-0.07537 -0.202808,-0.09197 -0.32014,-0.186648 -0.0107,-0.0088 -0.05281,-0.04223 -0.09358,-0.07453 -0.163888,-0.129813 -0.224105,-0.256974 -0.202041,-0.426603 0.0063,-0.04826 0.119899,-0.307788 0.275819,-0.630015 0.145829,-0.301352 0.263903,-0.553971 0.262387,-0.561319 -0.0015,-0.0073 0.0053,-0.01891 0.01522,-0.02553 0.03433,-0.02343 0.354673,-0.708588 0.341995,-0.731446 -0.007,-0.01258 -0.0057,-0.01622 0.003,-0.0084 0.01574,0.01473 0.18906,-0.313274 0.190648,-0.36073 5e-4,-0.01382 0.0096,-0.02494 0.02029,-0.02494 0.0107,0 0.01443,-0.0051 0.0083,-0.01143 -0.01407,-0.01441 -0.131487,0.04698 -0.131487,0.06885 0,0.0091 -0.01224,0.01621 -0.0272,0.01621 -0.619487,0.249298 -1.31579,0.633263 -1.861303,0.888838 -0.14535,0.06831 -0.286372,0.14373 -0.313382,0.167634 -0.02897,0.02556 -0.07094,0.107162 -0.102347,0.198752 -0.02928,0.08536 -0.0696,0.176685 -0.08961,0.202901 -0.02001,0.02615 -0.03212,0.05207 -0.02693,0.05741 0.0052,0.0055 -0.08603,0.202924 -0.202719,0.438999 -0.2848415,0.57627 -0.301005,0.607485 -0.3234725,0.62448 -0.0107,0.0082 -0.01153,0.01503 -0.00185,0.01503 0.00968,0 0.00485,0.01621 -0.010735,0.03543 -0.015585,0.01922 -0.052985,0.08923 -0.083109,0.15542 -0.030125,0.0662 -0.077213,0.151236 -0.1046435,0.189008 -0.02743,0.03772 -0.03734,0.06083 -0.02203,0.0513 0.023865,-0.01471 0.024005,-0.01259 9e-4,0.01683 -0.295045,0.594529 -0.6659125,1.147758 -0.919304,1.753053 -0.076446,0.14053 -0.1220585,0.272691 -0.1897555,0.447016 h 0.091404 c 0.3077795,0.03773 -0.049315,0.07551 -0.1517445,0.08702 -0.371518,0.04134 -1.79592,0.01323 -1.844081,-0.03652 -0.048815,-0.05035 0.189242,-0.0729 0.8179475,-0.0775 0.254065,-0.0031 0.4619565,-0.0041 0.4619815,-0.0055 2.05e-5,0 -0.053326,-0.0453 -0.1185605,-0.09817 C 6.504554,17.500139 6.432339,17.437636 6.40931,17.414145 6.38628,17.390715 6.33986,17.353527 6.3061505,17.331751 6.2724405,17.309816 6.189285,17.244528 6.121358,17.186343 6.0534305,17.128121 5.986588,17.07103 5.972818,17.059473 5.959048,17.047793 5.8933975,16.992663 5.826929,16.936765 5.6866825,16.818776 5.551855,16.673477 5.5111425,16.596399 c -0.02671,-0.05056 -0.025775,-0.0548 0.015155,-0.06904 0.069972,-0.02433 0.1526545,-0.0031 0.4125695,0.109668 0.04245,0.01833 0.081837,0.03407 0.087533,0.035 0.012955,0.0031 0.070575,0.02524 0.14652,0.05806 0.032095,0.01383 0.102122,0.04164 0.155615,0.06149 0.053493,0.01982 0.1060135,0.0423 0.116712,0.04993 0.023685,0.01682 0.1306245,0.04725 0.1505365,0.04279 0.00791,-0.0031 0.047295,0.01 0.087534,0.02555 0.1333595,0.05259 0.353256,0.07182 0.5453755,0.04768 0.170133,-0.134436 0.290124,-0.346606 0.3642155,-0.517987 0.019365,-0.02222 0.027285,-0.04026 0.017605,-0.0404 -0.00968,0 -0.00786,-0.0073 0.00405,-0.01502 0.114196,-0.227852 0.239084,-0.480811 0.337177,-0.696728 0.121264,-0.261755 0.182143,-0.401069 0.187567,-0.429255 0.00295,-0.01563 0.01693,-0.03563 0.031015,-0.04481 0.014085,-0.0092 0.018865,-0.01684 0.010625,-0.01684 -0.00824,0 0.0017,-0.03415 0.022145,-0.07553 0.020425,-0.04137 0.048245,-0.113609 0.06183,-0.160481 0.013585,-0.0469 0.03061,-0.08524 0.03783,-0.08524 0.00722,0 0.01324,-0.01107 0.013375,-0.02494 1.015e-4,-0.0138 0.041905,-0.133402 0.092825,-0.265745 0.104961,-0.27291 0.208662,-0.549726 0.266772,-0.712153 0.02171,-0.06064 0.046905,-0.128353 0.055991,-0.150408 0.00908,-0.02223 0.03528,-0.08979 0.058218,-0.150421 0.02294,-0.06072 0.058891,-0.150956 0.079897,-0.200601 0.021005,-0.04967 0.03942,-0.09932 0.04092,-0.110374 0.0015,-0.01095 0.0099,-0.02914 0.01868,-0.04009 0.3340295,-0.503936 0.9244755,-0.849362 1.3350765,-1.225456 0.009,0.0056 0.0681,-0.03661 0.1313,-0.09408 0.0632,-0.05752 0.123656,-0.111408 0.134354,-0.119814 0.05616,-0.04405 0.293793,-0.240412 0.418475,-0.345849 0.0783,-0.06617 0.186864,-0.155535 0.241255,-0.198561 0.05439,-0.04301 0.103271,-0.08408 0.10862,-0.09123 0.0053,-0.0072 0.06662,-0.05768 0.136154,-0.112316 0.06954,-0.05464 0.140763,-0.114113 0.158283,-0.132197 0.148168,-0.167531 0.379527,-0.297479 0.668433,-0.545482 0.0214,-0.02073 0.05852,-0.05128 0.0825,-0.06789 0.02398,-0.01652 0.03865,-0.03845 0.0326,-0.04854 -0.0061,-0.01029 -0.0027,-0.01592 0.0076,-0.01292 0.0291,0.0087 0.142397,-0.0845 0.12932,-0.106339 0.064,-0.03336 0.123088,-0.08771 0.193761,-0.148543 0.03836,-0.03845 0.06975,-0.06485 0.06975,-0.05875 0,0.0063 0.01128,0 0.02507,-0.01533 0.03206,-0.03391 0.104288,-0.208952 0.118518,-0.28729 0.006,-0.03308 0.02401,-0.114214 0.03999,-0.18033 0.05215,-0.215616 0.08595,-0.5928238 0.09798,-1.093422 0.0065,-0.270291 0.01633,-0.5365595 0.02184,-0.5917105 L 13.09033,7.644123 12.96127,7.7845565 c -0.121352,0.132022 -0.197138,0.242567 -0.188589,0.275068 0.0021,0.00781 -0.0086,0.00961 -0.02369,0.0036 -0.0476,0.012005 -0.06105,0.049595 -0.08684,0.092582 -0.0064,0.00541 -0.02481,0.027635 -0.04086,0.048965 -0.02301,0.0307 -0.02341,0.035385 -0.0018,0.02193 0.01854,-0.01141 0.02286,-0.00961 0.01344,0.0063 -0.0076,0.01292 -0.0229,0.02313 -0.03393,0.02313 -0.02665,0 -0.133111,0.104417 -0.12325,0.1208485 0.0043,0.00721 -0.0046,0.01292 -0.01975,0.01292 -0.01511,0 -0.02197,-0.00994 -0.01525,-0.02193 0.0067,-0.012005 -0.0046,-0.00721 -0.02517,0.010805 -0.02056,0.01803 -0.05919,0.039625 -0.08585,0.048005 -0.02665,0.00836 -0.101055,0.04019 -0.165341,0.070589 -0.06428,0.030435 -0.243805,0.1109604 -0.398933,0.1790084 -0.155129,0.06804 -0.330196,0.1450288 -0.389038,0.1710668 -0.05884,0.02614 -0.15465,0.06662 -0.212908,0.09018 -0.05826,0.02344 -0.228949,0.09937 -0.379312,0.1685578 -0.150364,0.06918 -0.310353,0.142048 -0.35553,0.16203 -0.04518,0.01983 -0.07735,0.04421 -0.0715,0.05397 0.0059,0.0099 0.0034,0.01653 -0.0054,0.01502 -0.04526,-0.0081 -0.06723,0.0085 -0.102159,0.07709 -0.05444,0.106961 -0.177601,0.23133 -0.313131,0.316219 -0.06743,0.04227 -0.111168,0.08219 -0.10369,0.09468 0.0073,0.01202 0.0039,0.01591 -0.0078,0.0084 -0.01138,-0.0072 -0.06744,0 -0.12458,0.01442 -0.09167,0.02463 -0.105928,0.02402 -0.121201,-0.0033 -0.01075,-0.01922 -0.0088,-0.04486 0.005,-0.06774 0.0268,-0.04425 0.02047,-0.04515 -0.06352,-0.009 -0.07529,0.03244 -0.09881,0.02223 -0.127165,-0.05455 -0.01304,-0.03539 -0.01349,-0.05134 -0.0013,-0.04355 0.01066,0.0069 0.01939,0.0036 0.01939,-0.0076 0,-0.01084 -0.0197,-0.02252 -0.04377,-0.02614 -0.05722,-0.0084 -0.07401,-0.108463 -0.02059,-0.12273 0.03226,-0.0087 0.03236,-0.0096 0.0012,-0.01171 -0.02448,-0.003 -0.03404,-0.01953 -0.03404,-0.06345 0,-0.04803 0.01179,-0.06635 0.05487,-0.08525 0.03018,-0.01321 0.08358,-0.05795 0.118672,-0.09928 0.03509,-0.04134 0.07041,-0.07092 0.0785,-0.06581 0.0081,0.0051 0.07504,-0.009 0.148793,-0.0313 0.08521,-0.02584 0.180183,-0.03927 0.260526,-0.03674 0.256774,0.0078 0.281056,0.0045 0.427942,-0.06563 0.08024,-0.03818 0.202786,-0.09432 0.272327,-0.1247878 0.368807,-0.1614878 0.497348,-0.2222828 0.509797,-0.2412142 0.0076,-0.01141 0.02517,-0.02102 0.0391,-0.02133 0.05382,0 0.305206,-0.1172974 0.293648,-0.1366134 -0.0067,-0.01107 -0.0026,-0.01412 0.0089,-0.0069 0.187794,-0.064703 0.311493,-0.126639 0.48725,-0.2063965 0.250223,-0.101681 0.346754,-0.159206 0.395957,-0.2358665 0.02698,-0.042085 0.05135,-0.085491 0.05415,-0.096516 0.0028,-0.010805 0.0206,-0.042655 0.03957,-0.070233 0.156021,-0.285317 0.305597,-0.533891 0.448867,-0.8018705 0.239116,-0.434305 0.272571,-0.5173035 0.310123,-0.7696025 0.04556,-0.306067 0.06526,-0.40015 0.130146,-0.6219295 l 0.05191,-0.1773865 -0.07887,-0.073326 C 13.1081,5.229917 13.0448,5.18681 12.939173,5.1792715 c -0.02305,-0.003 -0.03785,-0.00992 -0.03289,-0.018025 0.01587,-0.026435 -0.135866,-0.01562 -0.236428,0.016825 -0.133965,0.043285 -0.200762,0.053589 -0.255691,0.03938 -0.05161,-0.013215 -0.175524,-0.139051 -0.192977,-0.1957645 -0.0061,-0.019525 -0.01924,-0.03596 -0.02922,-0.03596 -0.01,0 -0.01814,-0.01622 -0.01814,-0.035835 0,-0.019525 -0.02679,-0.052087 -0.05952,-0.072004 -0.07396,-0.04508 -0.101785,-0.116935 -0.08605,-0.2222525 0.01194,-0.079905 0.07498,-0.4450905 0.09711,-0.562574 0.04932,-0.261761 0.05354,-0.3105135 0.02942,-0.340493 -0.01355,-0.01682 -0.03268,-0.03061 -0.04252,-0.03061 -0.0098,0 -0.02847,-0.00901 -0.04139,-0.019825 -0.01293,-0.01112 -0.04362,-0.035895 -0.06822,-0.055181 -0.0246,-0.019525 -0.05318,-0.071222 -0.0635,-0.1153205 -0.03966,-0.1695423 -0.05139,-0.2494763 -0.03506,-0.2390533 0.0093,0.00601 0.01685,0 0.01685,-0.010205 0,-0.03788 0.125666,-0.197807 0.165342,-0.2104845 0.09347,-0.02974 0.480798,-0.071914 0.660662,-0.071914 0.20045,0 0.251298,0.01592 0.316843,0.09937 0.02111,0.027035 0.02286,0.025535 0.01312,-0.00902 -0.01124,-0.04013 -0.01124,-0.04013 0.01304,0 0.01336,0.02223 0.04194,0.053109 0.06351,0.069 0.0507,0.03728 0.08651,0.076329 0.158295,0.1724535 0.03209,0.042985 0.07506,0.095705 0.09548,0.1171224 0.0353,0.03701 0.03601,0.053261 0.0144,0.3316033 -0.02767,0.3563525 -0.02754,0.584021 3.9e-4,0.7039075 0.01156,0.049655 0.02212,0.139922 0.02346,0.2006305 0.0023,0.1016535 0.0089,0.117002 0.08523,0.195549 0.04553,0.04689 0.08742,0.08525 0.09307,0.08525 0.263963,0.2650955 0.695389,0.5692725 0.826199,0.878285 0.08867,0.165966 0.187062,0.3636845 0.242444,0.5309705 0.0233,0.074528 0.04606,0.1318435 0.05057,0.127397 0.0045,-0.0042 0.01056,0.055092 0.01345,0.1323215 0.0029,0.077231 0.01295,0.1553325 0.0224,0.173506 0.04033,0.077681 0.211734,0.281106 0.225812,0.26801 0.0085,-0.00781 0.0094,-0.0036 0.0021,0.00961 -0.0074,0.013215 0.01509,0.057946 0.05034,0.1002705 0.200582,0.1942645 0.15214,0.1967265 0.310087,0.3351475 0.01402,-0.00901 0.01685,-0.00511 0.0077,0.010205 -0.0092,0.01532 0.04876,0.090508 0.157471,0.2043565 0.0946,0.09907 0.17818,0.195614 0.185742,0.214539 0.01789,0.04482 0.08675,0.387895 0.210254,1.0474647 0.05475,0.2923394 0.130707,0.6759734 0.168799,0.8525074 0.03809,0.176511 0.0735,0.341037 0.07869,0.36555 0.0097,0.04596 0.03672,0.07835 0.180255,0.21616 0.04597,0.04413 0.100159,0.116348 0.120419,0.160469 0.02025,0.04414 0.0553,0.111809 0.07787,0.150441 0.03316,0.05672 0.0414,0.104894 0.0429,0.250737 0.0018,0.175099 4.87e-4,0.180475 -0.04191,0.178125 -0.03897,-0.003 -0.04377,0.0072 -0.04377,0.08387 0,0.09979 -0.06832,0.22731 -0.122503,0.228598 -0.05118,0 -0.125299,-0.09041 -0.201566,-0.249326 -0.08014,-0.166954 -0.07656,-0.162661 -0.110661,-0.133461 -0.03627,0.03106 -0.08372,0.01017 -0.0991,-0.04401 -0.0069,-0.02402 -0.01776,-0.132085 -0.02424,-0.240006 -0.0095,-0.159035 -0.0049,-0.219684 0.02431,-0.319235 l 0.03608,-0.12289 -0.05184,-0.262958 c -0.02851,-0.144611 -0.104997,-0.488437 -0.169962,-0.764014 -0.06497,-0.275555 -0.1371,-0.5822192 -0.160295,-0.6815336 -0.0232,-0.0993 -0.04924,-0.183571 -0.05789,-0.1872885 -0.0086,-0.0036 -0.01183,-0.01292 -0.0071,-0.02103 0.01693,-0.02824 -0.06501,-0.3525985 -0.09474,-0.374976 -0.01668,-0.01262 -0.03053,-0.03091 -0.03078,-0.040735 -2.43e-4,-0.00993 -0.04894,-0.072034 -0.108222,-0.1382105 -0.05928,-0.066207 -0.13197,-0.147433 -0.161536,-0.180535 -0.120977,-0.1354165 -0.278425,-0.270654 -0.300158,-0.257856 -0.01261,0.00751 -0.01658,0.0063 -0.0088,-0.003 0.01313,-0.01502 -0.09599,-0.129769 -0.124024,-0.13046 -0.01797,0 -0.03139,0.147973 -0.07528,0.8321425 -0.05207,0.8118137 -0.08631,1.1517671 -0.163659,1.6247631 -0.03787,0.231567 -0.149613,0.648276 -0.206306,0.769302 -0.02092,0.04463 -0.04064,0.09879 -0.04383,0.120368 -0.0032,0.02162 -0.0153,0.05136 -0.0269,0.06623 -0.0678,0.26813 -0.192336,0.319314 -0.28689,0.561014 0.0088,0.01472 0.006,0.01863 -0.0071,0.01017 -0.01287,-0.0081 -0.06267,0.05266 -0.12458,0.152303 -0.05673,0.09125 -0.131523,0.206566 -0.166209,0.25626 -0.03468,0.04968 -0.09488,0.139983 -0.13376,0.20063 -0.03889,0.06073 -0.126485,0.188996 -0.194673,0.285173 -0.06819,0.09612 -0.123977,0.184677 -0.123977,0.196733 0,0.01205 -0.0073,0.01714 -0.01632,0.01144 -0.009,-0.0057 -0.03485,0.02314 -0.05752,0.06401 -0.02266,0.04091 -0.07194,0.109583 -0.109512,0.152574 -0.03757,0.04296 -0.0628,0.08811 -0.05608,0.100276 0.0067,0.01232 0.0052,0.01562 -0.0035,0.0073 -0.0086,-0.0078 -0.06037,0.04688 -0.114966,0.122052 -0.154251,0.212353 -0.42726,0.558095 -0.612115,0.775253 -0.0282,0.03313 -0.120799,0.143669 -0.205789,0.245721 -0.08499,0.102016 -0.16158,0.185517 -0.170203,0.185517 -0.0086,0 -0.01568,0.0101 -0.01568,0.02253 0,0.01258 -0.01972,0.04185 -0.04383,0.06516 -0.02411,0.02314 -0.06876,0.074 -0.09924,0.112648 -0.03047,0.0386 -0.04879,0.05752 -0.0407,0.04204 0.0097,-0.01862 0.0071,-0.02342 -0.0078,-0.01381 -0.01235,0.0078 -0.02245,0.02524 -0.02245,0.03897 0,0.01351 -0.08289,0.114583 -0.184196,0.22447 -0.101308,0.109898 -0.184465,0.210467 -0.184793,0.223471 -3.04e-4,0.01321 -0.02812,0.04584 -0.06177,0.07297 l -0.06117,0.04938 0.06604,0.01443 c 0.11192,0.02463 0.298691,0.09501 0.31375,0.118292 0.0079,0.01233 0.01443,0.01411 0.01459,0.0045 2.07e-4,-0.0096 0.01253,-0.0073 0.02749,0.0057 0.01496,0.01297 0.04376,0.02644 0.064,0.03056 0.02025,0.0042 0.083,0.03542 0.139463,0.06976 0.05646,0.03433 0.09748,0.05377 0.09116,0.04322 -0.01417,-0.02372 0.169542,0.07941 0.186113,0.104424 0.0065,0.01 0.01773,0.01652 0.02483,0.01501 0.734001,0.323578 1.184034,0.719428 1.830647,1.053127 0.04279,0.02191 0.08218,0.04522 0.08753,0.05207 0.0053,0.0069 0.05513,0.03683 0.110631,0.06663 0.0555,0.02974 0.111277,0.06708 0.123956,0.08282 0.01268,0.01592 0.03404,0.02854 0.04746,0.02854 0.01343,0 0.03523,0.01321 0.04845,0.02974 0.01323,0.01622 0.03088,0.02522 0.03924,0.02012 0.0084,-0.0055 0.02045,0.0045 0.02684,0.02163 0.0064,0.01713 0.01985,0.02584 0.02989,0.01953 0.02149,-0.01352 0.315758,0.288652 0.302493,0.310768 -0.0049,0.0083 0.0019,0.01951 0.01518,0.02522 0.01331,0.0055 0.04127,0.04476 0.06214,0.08732 0.02087,0.0426 0.05067,0.09326 0.06624,0.112551 0.01557,0.01923 0.02196,0.03509 0.01422,0.03509 -0.0077,0 0.0023,0.02494 0.02224,0.05518 0.09934,0.150883 0.107209,0.245296 0.02545,0.305318 -0.06291,0.04619 -0.22131,0.106907 -0.336299,0.128864 -0.04012,0.0075 -0.07294,0.02404 -0.07294,0.03641 0,0.01233 0.0058,0.01652 0.0128,0.0092 0.007,-0.0073 0.02504,-0.0031 0.04,0.01009 0.01496,0.01297 0.02567,0.01504 0.0238,0.0048 -0.0085,-0.04605 0.0036,-0.05299 0.03002,-0.01713 0.02323,0.03142 0.03218,0.03368 0.0462,0.01168 0.01037,-0.01621 0.02215,-0.01923 0.02917,-0.0075 0.0065,0.01095 0.04985,0.02042 0.09638,0.02132 0.09344,0.0032 0.188483,0.03248 0.188483,0.06059 0,0.06732 -0.128242,0.08474 -0.675683,0.0918 -0.23509,0.0032 -0.436854,0.01143 -0.448363,0.01891 -0.01151,0.0075 -0.02669,0.004 -0.03373,-0.0078 -0.0088,-0.01472 -0.02179,-0.01352 -0.04173,0.0036 -0.01723,0.01472 -0.03422,0.01712 -0.04204,0.006 -0.29433,0.02401 -0.494877,-0.01444 -0.797005,-0.03113 z"/>
</svg>
