<svg xmlns="http://www.w3.org/2000/svg" width="22" height="22" version="1.1">
 <rect style="fill:#345784" width="20" height="20" x="1" y="1" rx="1" ry="1"/>
 <path style="opacity:0.1;fill:#8b9cbe" d="m 2,0.9999998 c -0.554,0 -1,0.446 -1,1 v 0.5 c 0,-0.554 0.446,-1 1,-1 h 18 c 0.554,0 1,0.446 1,1 v -0.5 c 0,-0.554 -0.446,-1 -1,-1 z"/>
 <path style="opacity:0.2" d="m 2,21.5 c -0.554,0 -1,-0.446 -1,-1 V 20 c 0,0.554 0.446,1 1,1 h 18 c 0.554,0 1,-0.446 1,-1 v 0.5 c 0,0.554 -0.446,1 -1,1 z"/>
 <path style="opacity:0.2" d="m 11.268555,5.5009765 c -0.05213,0.0017 -0.106005,0.00692 -0.164063,0.01465 C 10.451518,5.6025985 10.272286,5.760585 9.873047,6.5986345 9.603762,7.1638915 9.469046,7.303329 9.122071,7.377931 7.5,6.1962755 7.5,8 7.180664,8.5 6.7429415,8.1159445 5.7748184,7.497096 5.2126889,7.0328215 4.7101114,6.617732 4.2125984,6.366243 3.8181159,6.6282225 3.5055153,6.84742 3.2399216,7.3177205 3.1433111,8.396777 c -0.131985,1.474153 0.00138,2.022032 0.9375003,3.242873 1.05856,1.380517 3.0353651,2.76153 5.5324696,4.495117 1.0816,0.750887 1.988004,1.365233 2.014649,1.365233 0.149771,0 -1.4476,-2.074965 -2.415039,-3.136719 C 7.7670445,12.776483 7.500245,12.282928 7.469,11.570313 7.4407835,10.926486 7.7164135,10.5 8.0859375,10.5 c 0.1342735,0 0.7419925,0.385419 1.4121095,1.145508 0.558445,0.603445 1.068722,1.240176 1.514649,1.861328 0.944309,1.179113 2.039417,1.329499 2.446289,0.335938 0.394138,-0.966783 -0.0062,-2.664578 -0.907227,-3.847657 -0.10137,-0.432673 0.09025,-0.498501 0.533203,-0.498046 0.560278,5.5e-4 2.124015,0.59275 2.763356,1.146484 0.790081,0.68429 0.923221,0.822049 1.802734,2.566406 0.519168,1.029676 1.034099,1.990021 1.144531,2.133789 0.196669,0.256047 0.200802,0.254631 0.204102,-0.06543 C 18.833722,12.613163 17.908713,9.935608 15.908863,8.1152345 15.570578,7.819537 14.078245,7.0982435 13.203125,6.5126955 11.928098,5.6595635 11.633445,5.488929 11.268555,5.5009765 Z"/>
 <path style="fill:#8d8069" d="m 11.268555,5.0009765 c -0.05213,0.0017 -0.106005,0.00692 -0.164063,0.01465 C 10.451518,5.1025985 10.272286,5.260585 9.873047,6.0986345 9.603762,6.6638915 9.469046,6.803329 9.122071,6.877931 7.5,5.6962755 7.5,7.5 7.180664,8 6.7429415,7.6159445 5.7748184,6.997096 5.2126889,6.5328215 4.7101114,6.117732 4.2125984,5.866243 3.8181159,6.1282225 3.5055153,6.34742 3.2399216,6.8177205 3.1433111,7.896777 c -0.131985,1.474153 0.00138,2.022032 0.9375003,3.242873 1.05856,1.380517 3.0353651,2.76153 5.5324696,4.495117 C 10.694881,16.385654 11.601285,17 11.62793,17 11.777701,17 10.18033,14.925035 9.212891,13.863281 7.7670445,12.276483 7.500245,11.782928 7.469,11.070313 7.4407835,10.426486 7.7164135,10 8.0859375,10 8.220211,10 8.82793,10.385419 9.498047,11.145508 c 0.558445,0.603445 1.068722,1.240176 1.514649,1.861328 0.944309,1.179113 2.039417,1.329499 2.446289,0.335938 0.394138,-0.966783 -0.0062,-2.664578 -0.907227,-3.847657 -0.10137,-0.432673 0.09025,-0.4985015 0.533203,-0.4980465 0.560278,5.5e-4 2.124015,0.5927505 2.763356,1.1464845 0.790081,0.68429 0.923221,0.822049 1.802734,2.566406 0.519168,1.029676 1.034099,1.990021 1.144531,2.133789 0.196669,0.256047 0.200802,0.254631 0.204102,-0.06543 C 18.833722,12.113163 17.908713,9.435608 15.908863,7.6152345 15.570578,7.319537 14.078245,6.5982435 13.203125,6.0126955 11.928098,5.1595635 11.633445,4.988929 11.268555,5.0009765 Z"/>
 <ellipse style="opacity:0.2" cx="2.134" cy="17.904" rx="1.045" ry="1.469" transform="matrix(0.37859229,-0.92556355,0.62510084,0.780544,0,0)"/>
 <ellipse style="fill:#8b9cbe" cx="2.492" cy="17.688" rx="1.045" ry="1.469" transform="matrix(0.37859229,-0.92556355,0.62510084,0.780544,0,0)"/>
 <path style="opacity:0.1;fill:#8b9cbe" d="m 11.269531,5 c -0.05213,0.0017 -0.107957,0.0079 -0.166015,0.015625 -0.652974,0.086972 -0.83123,0.2459349 -1.230469,1.0839844 -0.269285,0.565257 -0.403025,0.7046948 -0.75,0.7792968 C 7.5009759,5.6972507 7.4990235,7.5 7.1796875,8 6.741965,7.6159445 5.7750201,6.9974776 5.2128906,6.5332031 4.7103131,6.1181136 4.2128419,5.8669268 3.8183594,6.1289062 3.5057588,6.3481037 3.2391886,6.8174279 3.1425781,7.8964844 3.1045832,8.3208532 3.0983824,8.6597516 3.1171875,8.96875 3.1232623,8.784426 3.1228464,8.6168695 3.1425781,8.3964844 3.2391886,7.3174279 3.5057588,6.8481037 3.8183594,6.6289062 4.2128419,6.3669268 4.7103131,6.6181136 5.2128906,7.0332031 5.7750201,7.4974776 6.741965,8.1159445 7.1796875,8.5 7.4990235,8 7.5009759,6.1972507 9.123047,7.3789062 9.470022,7.3043042 9.603762,7.1648664 9.873047,6.5996094 10.272286,5.7615599 10.450542,5.602597 11.103516,5.515625 11.161574,5.507895 11.217401,5.5017 11.269531,5.5 c 0.36489,-0.012048 0.658567,0.1605399 1.933594,1.0136719 0.87512,0.585548 2.366793,1.305865 2.705078,1.6015625 1.93233,1.7589126 2.854222,4.3175536 3.064453,6.8925776 0.02066,-0.0181 0.02582,-0.08292 0.02734,-0.230468 C 18.834038,12.112187 17.908053,9.435608 15.908203,7.6152344 15.569918,7.3195369 14.078245,6.5992199 13.203125,6.0136719 11.928098,5.1605399 11.634421,4.9879525 11.269531,5 Z m 1.34375,4.583984 c -0.0906,0.07049 -0.111232,0.19382 -0.06055,0.410157 0.605484,0.79502 0.974927,1.819308 1.039063,2.701171 0.07375,-0.940308 -0.294455,-2.169426 -0.978516,-3.111328 z m -5.1191404,1.646485 c -0.01574,0.106709 -0.030845,0.215378 -0.025391,0.339843 0.031245,0.712615 0.2982941,1.206171 1.7441414,2.792969 0.562169,0.616975 1.303052,1.541044 1.824218,2.236328 C 11.178686,16.693372 11.621086,17 11.628906,17 11.778677,17 10.18033,14.925035 9.212891,13.863281 7.8797228,12.400147 7.5620879,11.863414 7.4941406,11.230469 Z"/>
</svg>
