<svg xmlns="http://www.w3.org/2000/svg" width="22" height="22" version="1.1">
 <circle style="opacity:0.2" cx="11" cy="11.5" r="10"/>
 <circle style="fill:#acacac" cx="11" cy="11" r="10"/>
 <path style="opacity:0.2;fill:#8b9cbe" d="M 11,1 A 10,10 0 0 0 1,11 10,10 0 0 0 1.0097656,11.292969 10,10 0 0 1 11,1.5 10,10 0 0 1 20.990234,11.207031 10,10 0 0 0 21,11 10,10 0 0 0 11,1 Z"/>
 <path style="opacity:0.1" d="M 7,2.9978279 V 6.499781 L 6,6.497831 v -0.9980469 -1 H 0 l 1,1 H 5 V 6.4978279 L 3.7539062,6.499781 H 2 l 1,1 H 4 8 9 V 5.5798591 4.6169685 L 9.5,4.2673591 Z m 8,0 -2.5,1.2695312 0.5,0.3496094 V 5.5798591 7.499781 h 1 4 1 l 1,-1 H 18.246094 L 17,6.4978279 V 5.499781 h 4 l 1,-1 h -6 v 1 0.9980469 l -1,0.00195 z M 11,5.499781 c -0.552285,0 -1,0.4477153 -1,1 0,0.5522847 0.447715,1 1,1 0.552285,0 1,-0.4477153 1,-1 0,-0.5522847 -0.447715,-1 -1,-1 z m -7,3 1,1 H 6.796875 L 7,9.656031 v 9.28125 l 3,-1.498047 V 18.949 l 5,-2.851563 V 9.499781 h 2 l 1,-1 h -5 v 6.455078 L 12.029297,15.681422 12,8.499781 h -2 v 6.470703 L 9.033203,15.681422 9,8.499781 H 8 5.5 Z"/>
 <path style="fill:#be3539" d="M 7,2.4980469 V 6 L 6,5.9980469 V 5 4 H 0 L 1,5 H 5 V 5.9980469 L 3.7539062,6 H 2 L 3,7 H 4 8 9 V 5.0800781 4.1171875 L 9.5,3.7675781 Z m 8,0 -2.5,1.2695312 0.5,0.3496094 V 5.0800781 7 h 1 4 1 L 20,6 H 18.246094 L 17,5.9980469 V 5 h 4 L 22,4 H 16 V 5 5.9980469 L 15,6 Z M 11,5 c -0.552285,0 -1,0.4477153 -1,1 0,0.5522847 0.447715,1 1,1 0.552285,0 1,-0.4477153 1,-1 C 12,5.4477153 11.552285,5 11,5 Z M 4,8 5,9 H 6.796875 L 7,9.15625 v 9.28125 l 3,-1.498047 v 1.509766 l 5,-2.851563 V 9 h 2 l 1,-1 h -5 v 6.455078 L 12.029297,15.181641 12,8 h -2 v 6.470703 L 9.033203,15.181641 9,8 H 8 5.5 Z"/>
</svg>
