<svg xmlns="http://www.w3.org/2000/svg" width="22" height="22" version="1">
 <rect style="fill:#642c68" width="20" height="20" x="-20" y="-20" rx="1" ry="1" transform="matrix(0,-1,-1,0,0,0)"/>
 <path style="opacity:0.1;fill:#8b9cbe" d="M 1,0 C 0.446,0 0,0.446 0,1 l 0,0.5 c 0,-0.554 0.446,-1 1,-1 l 18,0 c 0.554,0 1,0.446 1,1 L 20,1 C 20,0.446 19.554,0 19,0 L 1,0 Z"/>
 <path style="opacity:0.2" d="m 1,20.5 c -0.554,0 -1,-0.446 -1,-1 L 0,19 c 0,0.554 0.446,1 1,1 l 18,0 c 0.554,0 1,-0.446 1,-1 l 0,0.5 c 0,0.554 -0.446,1 -1,1 l -18,0 z"/>
 <path style="opacity:0.2" d="m 1,1.5 0,2 2,0 0,-2 -2,0 z m 16,0 0,2 2,0 0,-2 -2,0 z m -16,4 0,2 2,0 0,-2 -2,0 z m 16,0 0,2 2,0 0,-2 -2,0 z m -16,4 0,2 2,0 0,-2 -2,0 z m 16,0 0,2 2,0 0,-2 -2,0 z m -16,4 0,2 2,0 0,-2 -2,0 z m 16,0 0,2 2,0 0,-2 -2,0 z m -16,4 0,2 2,0 0,-2 -2,0 z m 16,0 0,2 2,0 0,-2 -2,0 z"/>
 <path style="fill:#8b9cbe" d="M 1,1 1,3 3,3 3,1 1,1 Z m 16,0 0,2 2,0 0,-2 -2,0 z M 1,5 1,7 3,7 3,5 1,5 Z m 16,0 0,2 2,0 0,-2 -2,0 z M 1,9 1,11 3,11 3,9 1,9 Z m 16,0 0,2 2,0 0,-2 -2,0 z m -16,4 0,2 2,0 0,-2 -2,0 z m 16,0 0,2 2,0 0,-2 -2,0 z m -16,4 0,2 2,0 0,-2 -2,0 z m 16,0 0,2 2,0 0,-2 -2,0 z"/>
 <rect style="opacity:0.2" width="10" height="7" x="5" y="2.5"/>
 <rect style="fill:#8b9cbe" width="10" height="7" x="5" y="2"/>
 <rect style="opacity:0.2" width="10" height="7" x="5" y="11.5"/>
 <rect style="fill:#8b9cbe" width="10" height="7" x="5" y="11"/>
 <circle style="opacity:0.2" cx="16" cy="15.5" r="6"/>
 <circle style="fill:#96be4e" cx="16" cy="15" r="6"/>
 <path style="fill:#8b9cbe" d="m 14.154,12 c -0.63723,0 -1.1538,0.51659 -1.1538,1.1538 0,0.63723 0.51659,1.1538 1.1538,1.1538 0.20588,0 0.39515,-0.06416 0.56251,-0.15865 l 0.90875,0.85106 -0.90875,0.85106 c -0.16754,-0.09461 -0.35676,-0.15877 -0.5626,-0.15877 -0.63737,0 -1.1538,0.51645 -1.1538,1.1538 0,0.63723 0.51659,1.1538 1.1538,1.1538 0.63723,0 1.1538,-0.51659 1.1538,-1.1538 0,-0.10576 -0.01661,-0.20557 -0.04324,-0.30288 l 0.98075,-0.9519 2.0626,1.9467 0.69229,0 0,-0.46153 -3.7356,-3.6202 c 0.02668,-0.09731 0.04324,-0.19711 0.04324,-0.30288 0,-0.63723 -0.51659,-1.1538 -1.1538,-1.1538 z m 0,0.69229 c 0.25489,0 0.46153,0.20664 0.46153,0.46153 0,0.25489 -0.20664,0.46153 -0.46153,0.46153 -0.25489,0 -0.46153,-0.20664 -0.46153,-0.46153 0,-0.25489 0.20664,-0.46153 0.46153,-0.46153 z m 4.1538,-0.23076 -1.8175,1.7164 0.60599,0.59122 1.9038,-1.8461 0,-0.46153 z m -4.1538,3.923 c 0.25489,0 0.46153,0.20664 0.46153,0.46153 0,0.25489 -0.20664,0.46153 -0.46153,0.46153 -0.25489,0 -0.46153,-0.20664 -0.46153,-0.46153 0,-0.25489 0.20664,-0.46153 0.46153,-0.46153 z"/>
</svg>
