<svg xmlns="http://www.w3.org/2000/svg" width="22" height="22" version="1">
 <rect style="opacity:0.2" width="20" height="18" x="1" y="1.5" rx="1.5" ry="1.5"/>
 <rect style="fill:#635d4c" width="20" height="18" x="1" y="1" rx="1.5" ry="1.5"/>
 <path style="opacity:0.2" d="m 4.25,4.4999994 a 0.24960792,0.24969989 0 0 0 -0.1582031,0.060547 0.24960792,0.24969989 0 0 0 -0.00977,0.00781 0.24960792,0.24969989 0 0 0 -0.00977,0.00977 0.24960792,0.24969989 0 0 0 0,0.00195 0.24960792,0.24969989 0 0 0 -0.015625,0.015625 0.24960792,0.24969989 0 0 0 -0.00195,0.00195 0.24960792,0.24969989 0 0 0 -0.050781,0.1972657 v 2.4550781 a 0.24960792,0.24969989 0 0 0 0.25,0.25 H 5.75 a 0.24960792,0.24969989 0 0 0 0.25,-0.25 V 4.7539056 a 0.24960792,0.24969989 0 0 0 -0.25,-0.25 H 4.2929688 A 0.24960792,0.24969989 0 0 0 4.25,4.4999994 Z m 3,0 a 0.24960792,0.24969989 0 0 0 -0.1582031,0.060547 0.24960792,0.24969989 0 0 0 -0.00977,0.00781 0.24960792,0.24969989 0 0 0 -0.00977,0.00977 0.24960792,0.24969989 0 0 0 0,0.00195 0.24960792,0.24969989 0 0 0 -0.015625,0.015625 0.24960792,0.24969989 0 0 0 -0.00195,0.00195 0.24960792,0.24969989 0 0 0 -0.050781,0.1972657 v 2.4550781 a 0.24960792,0.24969989 0 0 0 0.25,0.25 H 8.75 a 0.24960792,0.24969989 0 0 0 0.25,-0.25 V 4.7539056 a 0.24960792,0.24969989 0 0 0 -0.25,-0.25 H 7.2929688 A 0.24960792,0.24969989 0 0 0 7.25,4.4999994 Z m 3,0 c -0.05818,0.00112 -0.114135,0.022535 -0.158203,0.060547 -0.0033,0.00252 -0.0066,0.00513 -0.0098,0.00781 -0.0034,0.00317 -0.0066,0.00642 -0.0098,0.00977 0,0 0,0.00195 0,0.00195 -0.0054,0.00497 -0.01065,0.010188 -0.01563,0.015625 0,0 -0.002,0.00195 -0.002,0.00195 -0.04418,0.055547 -0.06266,0.1272805 -0.05078,0.1972657 v 2.4550781 c -1.66e-4,0.138176 0.111875,0.2502171 0.25,0.25 H 10.75 c 0.138125,2.171e-4 0.250166,-0.111824 0.25,-0.25 V 4.7539056 c 1.66e-4,-0.1381759 -0.111875,-0.2502171 -0.25,-0.25 h -0.457031 c -0.01418,-0.00254 -0.02856,-0.00385 -0.04297,-0.00391 z m 2,0 a 0.24960792,0.24969989 0 0 0 -0.158203,0.060547 0.24960792,0.24969989 0 0 0 -0.0098,0.00781 0.24960792,0.24969989 0 0 0 -0.0098,0.00977 0.24960792,0.24969989 0 0 0 0,0.00195 0.24960792,0.24969989 0 0 0 -0.01563,0.015625 0.24960792,0.24969989 0 0 0 -0.002,0.00195 0.24960792,0.24969989 0 0 0 -0.05078,0.1972657 v 2.4550781 a 0.24960792,0.24969989 0 0 0 0.25,0.25 H 13.75 a 0.24960792,0.24969989 0 0 0 0.25,-0.25 V 4.7539056 a 0.24960792,0.24969989 0 0 0 -0.25,-0.25 H 12.292969 A 0.24960792,0.24969989 0 0 0 12.25,4.4999994 Z m 3,0 c -0.05818,0.00112 -0.114135,0.022535 -0.158203,0.060547 -0.0033,0.00252 -0.0066,0.00513 -0.0098,0.00781 -0.0034,0.00317 -0.0066,0.00642 -0.0098,0.00977 0,0 0,0.00195 0,0.00195 -0.0054,0.00497 -0.01065,0.010188 -0.01563,0.015625 0,0 -0.002,0.00195 -0.002,0.00195 -0.04418,0.055547 -0.06266,0.1272805 -0.05078,0.1972657 v 2.4550781 c -1.66e-4,0.138176 0.111875,0.2502171 0.25,0.25 H 15.75 c 0.138125,2.171e-4 0.250166,-0.111824 0.25,-0.25 V 4.7539056 c 1.66e-4,-0.1381759 -0.111875,-0.2502171 -0.25,-0.25 h -0.457031 c -0.01418,-0.00254 -0.02856,-0.00385 -0.04297,-0.00391 z m -11,4 a 0.24960792,0.24969989 0 0 0 -0.1582031,0.060547 0.24960792,0.24969989 0 0 0 -0.00977,0.00781 0.24960792,0.24969989 0 0 0 -0.00977,0.00977 0.24960792,0.24969989 0 0 0 0,0.00195 0.24960792,0.24969989 0 0 0 -0.015625,0.015625 0.24960792,0.24969989 0 0 0 -0.00195,0.00195 0.24960792,0.24969989 0 0 0 -0.050781,0.1972657 V 11.25 a 0.24960792,0.24969989 0 0 0 0.25,0.25 H 5.75 A 0.24960792,0.24969989 0 0 0 6,11.25 V 8.7539056 a 0.24960792,0.24969989 0 0 0 -0.25,-0.25 H 4.2929688 A 0.24960792,0.24969989 0 0 0 4.25,8.4999994 Z m 3,0 c -0.05818,0.00112 -0.1141351,0.022535 -0.1582031,0.060547 -0.0033,0.00252 -0.00657,0.00513 -0.00977,0.00781 -0.0034,0.00317 -0.00657,0.00642 -0.00977,0.00977 0,0 0,0.00195 0,0.00195 -0.0054,0.00497 -0.010645,0.010188 -0.015625,0.015625 0,0 -0.00195,0.00195 -0.00195,0.00195 -0.04418,0.055547 -0.062661,0.1272805 -0.050781,0.1972657 V 11.25 c -1.66e-4,0.138176 0.111875,0.250217 0.25,0.25 H 7.75 C 7.888125,11.500217 8.000166,11.388176 8,11.25 V 8.7539056 c 1.66e-4,-0.1381759 -0.111875,-0.2502171 -0.25,-0.25 H 7.2929688 C 7.2787858,8.5013657 7.264409,8.5000594 7.25,8.4999994 Z m 2,0 a 0.24960792,0.24969989 0 0 0 -0.158203,0.060547 0.24960792,0.24969989 0 0 0 -0.0098,0.00781 0.24960792,0.24969989 0 0 0 -0.0098,0.00977 0.24960792,0.24969989 0 0 0 0,0.00195 0.24960792,0.24969989 0 0 0 -0.01563,0.015625 0.24960792,0.24969989 0 0 0 -0.002,0.00195 0.24960792,0.24969989 0 0 0 -0.05078,0.1972657 V 11.25 a 0.24960792,0.24969989 0 0 0 0.25,0.25 H 10.75 A 0.24960792,0.24969989 0 0 0 11,11.25 V 8.7539056 a 0.24960792,0.24969989 0 0 0 -0.25,-0.25 H 9.292969 A 0.24960792,0.24969989 0 0 0 9.25,8.4999994 Z m 3,0 a 0.24960792,0.24969989 0 0 0 -0.158203,0.060547 0.24960792,0.24969989 0 0 0 -0.0098,0.00781 0.24960792,0.24969989 0 0 0 -0.0098,0.00977 0.24960792,0.24969989 0 0 0 0,0.00195 0.24960792,0.24969989 0 0 0 -0.01563,0.015625 0.24960792,0.24969989 0 0 0 -0.002,0.00195 0.24960792,0.24969989 0 0 0 -0.05078,0.1972657 V 11.25 a 0.24960792,0.24969989 0 0 0 0.25,0.25 H 13.75 A 0.24960792,0.24969989 0 0 0 14,11.25 V 8.7539056 a 0.24960792,0.24969989 0 0 0 -0.25,-0.25 H 12.292969 A 0.24960792,0.24969989 0 0 0 12.25,8.4999994 Z m 3,0 a 0.24960792,0.24969989 0 0 0 -0.158203,0.060547 0.24960792,0.24969989 0 0 0 -0.0098,0.00781 0.24960792,0.24969989 0 0 0 -0.0098,0.00977 0.24960792,0.24969989 0 0 0 0,0.00195 0.24960792,0.24969989 0 0 0 -0.01563,0.015625 0.24960792,0.24969989 0 0 0 -0.002,0.00195 0.24960792,0.24969989 0 0 0 -0.05078,0.1972657 V 11.25 a 0.24960792,0.24969989 0 0 0 0.25,0.25 H 16.75 A 0.24960792,0.24969989 0 0 0 17,11.25 V 8.7539056 a 0.24960792,0.24969989 0 0 0 -0.25,-0.25 H 15.292969 A 0.24960792,0.24969989 0 0 0 15.25,8.4999994 Z M 4.25,12.5 a 0.24960792,0.24969989 0 0 0 -0.1582031,0.06055 0.24960792,0.24969989 0 0 0 -0.00977,0.0078 0.24960792,0.24969989 0 0 0 -0.00977,0.0098 0.24960792,0.24969989 0 0 0 0,0.002 0.24960792,0.24969989 0 0 0 -0.015625,0.01563 0.24960792,0.24969989 0 0 0 -0.00195,0.002 0.24960792,0.24969989 0 0 0 -0.050781,0.197266 V 15.25 a 0.24960792,0.24969989 0 0 0 0.25,0.25 H 5.75 A 0.24960792,0.24969989 0 0 0 6,15.25 v -2.496094 a 0.24960792,0.24969989 0 0 0 -0.25,-0.25 H 4.2929688 A 0.24960792,0.24969989 0 0 0 4.25,12.5 Z m 3,0 c -0.05818,0.0011 -0.1141351,0.02254 -0.1582031,0.06055 -0.0033,0.0025 -0.00657,0.0051 -0.00977,0.0078 -0.0034,0.0032 -0.00657,0.0064 -0.00977,0.0098 0,0 0,0.002 0,0.002 -0.0054,0.005 -0.010645,0.01018 -0.015625,0.01563 0,0 -0.00195,0.002 -0.00195,0.002 -0.04418,0.05555 -0.062661,0.12728 -0.050781,0.197266 V 15.25 c -1.66e-4,0.138176 0.111875,0.250217 0.25,0.25 H 7.75 C 7.888125,15.500217 8.000166,15.388176 8,15.25 v -2.496094 c 1.66e-4,-0.138176 -0.111875,-0.250217 -0.25,-0.25 H 7.2929688 C 7.2787858,12.501406 7.264409,12.5001 7.25,12.5 Z m 2,0 c -0.05818,0.0011 -0.114135,0.02254 -0.158203,0.06055 -0.0033,0.0025 -0.0066,0.0051 -0.0098,0.0078 -0.0034,0.0032 -0.0066,0.0064 -0.0098,0.0098 0,0 0,0.002 0,0.002 -0.0054,0.005 -0.01065,0.01018 -0.01563,0.01563 0,0 -0.002,0.002 -0.002,0.002 -0.04418,0.05555 -0.062662,0.12728 -0.05078,0.197266 V 15.25 c -1.66e-4,0.138176 0.111875,0.250217 0.25,0.25 H 9.75 c 0.138125,2.17e-4 0.250166,-0.111824 0.25,-0.25 v -2.496094 c 1.66e-4,-0.138176 -0.111875,-0.250217 -0.25,-0.25 H 9.292969 C 9.278789,12.501406 9.26441,12.5001 9.25,12.5 Z m 2,0 a 0.24960792,0.24969989 0 0 0 -0.158203,0.06055 0.24960792,0.24969989 0 0 0 -0.0098,0.0078 0.24960792,0.24969989 0 0 0 -0.0098,0.0098 0.24960792,0.24969989 0 0 0 0,0.002 0.24960792,0.24969989 0 0 0 -0.01563,0.01563 0.24960792,0.24969989 0 0 0 -0.002,0.002 0.24960792,0.24969989 0 0 0 -0.05078,0.197266 V 15.25 a 0.24960792,0.24969989 0 0 0 0.25,0.25 H 12.75 A 0.24960792,0.24969989 0 0 0 13,15.25 v -2.496094 a 0.24960792,0.24969989 0 0 0 -0.25,-0.25 H 11.292969 A 0.24960792,0.24969989 0 0 0 11.25,12.5 Z m 3,0 c -0.05818,0.0011 -0.114135,0.02254 -0.158203,0.06055 -0.0033,0.0025 -0.0066,0.0051 -0.0098,0.0078 -0.0034,0.0032 -0.0066,0.0064 -0.0098,0.0098 0,0 0,0.002 0,0.002 -0.0054,0.005 -0.01065,0.01018 -0.01563,0.01563 0,0 -0.002,0.002 -0.002,0.002 -0.04418,0.05555 -0.06266,0.12728 -0.05078,0.197266 V 15.25 c -1.66e-4,0.138176 0.111875,0.250217 0.25,0.25 H 14.75 c 0.138125,2.17e-4 0.250166,-0.111824 0.25,-0.25 v -2.496094 c 1.66e-4,-0.138176 -0.111875,-0.250217 -0.25,-0.25 H 14.292969 C 14.278789,12.501406 14.26441,12.5001 14.25,12.5 Z"/>
 <path style="opacity:0.2" d="m 19.794922,10.50293 c -0.169044,-0.01569 -0.256836,0.03418 -0.256836,0.03418 l -1.563477,1.133789 -1.575195,1.152343 -6.629883,4.94043 -1.1054685,2.37793 L 8,21.5 l 1.517578,-0.228515 2.526368,-0.451172 6.698241,-4.898438 1.570313,-1.158203 1.564453,-1.133789 c 0,0 0.523977,-0.488045 -0.591797,-1.96582 0,0 0,-0.001 0,-0.001 -8e-4,-10e-4 -0.0022,-0.0028 -0.003,-0.0039 -0.698722,-0.922579 -1.205565,-1.130104 -1.487304,-1.15625 z"/>
 <path style="fill:#8b9cbe" d="m 4.25,4 a 0.24960792,0.24969989 0 0 0 -0.1582031,0.060547 0.24960792,0.24969989 0 0 0 -0.00977,0.00781 0.24960792,0.24969989 0 0 0 -0.00977,0.00977 0.24960792,0.24969989 0 0 0 0,0.00195 0.24960792,0.24969989 0 0 0 -0.015625,0.015625 0.24960792,0.24969989 0 0 0 -0.00195,0.00195 0.24960792,0.24969989 0 0 0 -0.050781,0.1972657 V 6.75 a 0.24960792,0.24969989 0 0 0 0.25,0.25 H 5.75 A 0.24960792,0.24969989 0 0 0 6,6.75 V 4.2539062 a 0.24960792,0.24969989 0 0 0 -0.25,-0.25 H 4.2929688 A 0.24960792,0.24969989 0 0 0 4.25,4 Z m 3,0 a 0.24960792,0.24969989 0 0 0 -0.1582031,0.060547 0.24960792,0.24969989 0 0 0 -0.00977,0.00781 0.24960792,0.24969989 0 0 0 -0.00977,0.00977 0.24960792,0.24969989 0 0 0 0,0.00195 0.24960792,0.24969989 0 0 0 -0.015625,0.015625 0.24960792,0.24969989 0 0 0 -0.00195,0.00195 0.24960792,0.24969989 0 0 0 -0.050781,0.1972657 V 6.75 a 0.24960792,0.24969989 0 0 0 0.25,0.25 H 8.75 A 0.24960792,0.24969989 0 0 0 9,6.75 V 4.2539062 a 0.24960792,0.24969989 0 0 0 -0.25,-0.25 H 7.2929688 A 0.24960792,0.24969989 0 0 0 7.25,4 Z m 3,0 c -0.05818,0.00112 -0.114135,0.022535 -0.158203,0.060547 -0.0033,0.00252 -0.0066,0.00513 -0.0098,0.00781 -0.0034,0.00317 -0.0066,0.00642 -0.0098,0.00977 0,0 0,0.00195 0,0.00195 -0.0054,0.00497 -0.01065,0.010188 -0.01563,0.015625 0,0 -0.002,0.00195 -0.002,0.00195 -0.04418,0.055547 -0.06266,0.1272805 -0.05078,0.1972657 V 6.75 c -1.66e-4,0.138176 0.111875,0.2502171 0.25,0.25 H 10.75 C 10.888125,7.0002171 11.000166,6.888176 11,6.75 V 4.2539062 c 1.66e-4,-0.1381759 -0.111875,-0.2502171 -0.25,-0.25 H 10.292969 C 10.278786,4.0013659 10.264409,4.0000589 10.25,4 Z m 2,0 a 0.24960792,0.24969989 0 0 0 -0.158203,0.060547 0.24960792,0.24969989 0 0 0 -0.0098,0.00781 0.24960792,0.24969989 0 0 0 -0.0098,0.00977 0.24960792,0.24969989 0 0 0 0,0.00195 0.24960792,0.24969989 0 0 0 -0.01563,0.015625 0.24960792,0.24969989 0 0 0 -0.002,0.00195 0.24960792,0.24969989 0 0 0 -0.05078,0.1972657 V 6.75 a 0.24960792,0.24969989 0 0 0 0.25,0.25 H 13.75 A 0.24960792,0.24969989 0 0 0 14,6.75 V 4.2539062 a 0.24960792,0.24969989 0 0 0 -0.25,-0.25 H 12.292969 A 0.24960792,0.24969989 0 0 0 12.25,4 Z m 3,0 c -0.05818,0.00112 -0.114135,0.022535 -0.158203,0.060547 -0.0033,0.00252 -0.0066,0.00513 -0.0098,0.00781 -0.0034,0.00317 -0.0066,0.00642 -0.0098,0.00977 0,0 0,0.00195 0,0.00195 -0.0054,0.00497 -0.01065,0.010188 -0.01563,0.015625 0,0 -0.002,0.00195 -0.002,0.00195 -0.04418,0.055547 -0.06266,0.1272805 -0.05078,0.1972657 V 6.75 c -1.66e-4,0.138176 0.111875,0.2502171 0.25,0.25 H 15.75 C 15.888125,7.0002171 16.000166,6.888176 16,6.75 V 4.2539062 c 1.66e-4,-0.1381759 -0.111875,-0.2502171 -0.25,-0.25 H 15.292969 C 15.278786,4.0013659 15.264409,4.0000589 15.25,4 Z m -11,4 a 0.24960792,0.24969989 0 0 0 -0.1582031,0.060547 0.24960792,0.24969989 0 0 0 -0.00977,0.00781 0.24960792,0.24969989 0 0 0 -0.00977,0.00977 0.24960792,0.24969989 0 0 0 0,0.00195 0.24960792,0.24969989 0 0 0 -0.015625,0.015625 0.24960792,0.24969989 0 0 0 -0.00195,0.00195 0.24960792,0.24969989 0 0 0 -0.050781,0.1972657 V 10.75 a 0.24960792,0.24969989 0 0 0 0.25,0.25 H 5.75 A 0.24960792,0.24969989 0 0 0 6,10.75 V 8.2539062 a 0.24960792,0.24969989 0 0 0 -0.25,-0.25 H 4.2929688 A 0.24960792,0.24969989 0 0 0 4.25,8 Z m 3,0 C 7.19182,8.00112 7.1358649,8.022535 7.0917969,8.060547 c -0.0033,0.00252 -0.00657,0.00513 -0.00977,0.00781 -0.0034,0.00317 -0.00657,0.00642 -0.00977,0.00977 0,0 0,0.00195 0,0.00195 -0.0054,0.00497 -0.010645,0.010188 -0.015625,0.015625 0,0 -0.00195,0.00195 -0.00195,0.00195 -0.04418,0.055547 -0.062661,0.1272805 -0.050781,0.1972657 V 10.75 c -1.66e-4,0.138176 0.111875,0.250217 0.25,0.25 H 7.75 C 7.888125,11.000217 8.000166,10.888176 8,10.75 V 8.2539062 c 1.66e-4,-0.1381759 -0.111875,-0.2502171 -0.25,-0.25 H 7.2929688 C 7.2787858,8.0013663 7.264409,8.00006 7.25,8 Z m 2,0 a 0.24960792,0.24969989 0 0 0 -0.158203,0.060547 0.24960792,0.24969989 0 0 0 -0.0098,0.00781 0.24960792,0.24969989 0 0 0 -0.0098,0.00977 0.24960792,0.24969989 0 0 0 0,0.00195 0.24960792,0.24969989 0 0 0 -0.01563,0.015625 0.24960792,0.24969989 0 0 0 -0.002,0.00195 0.24960792,0.24969989 0 0 0 -0.05078,0.1972657 V 10.75 a 0.24960792,0.24969989 0 0 0 0.25,0.25 H 10.75 A 0.24960792,0.24969989 0 0 0 11,10.75 V 8.2539062 a 0.24960792,0.24969989 0 0 0 -0.25,-0.25 H 9.292969 A 0.24960792,0.24969989 0 0 0 9.25,8 Z m 3,0 a 0.24960792,0.24969989 0 0 0 -0.158203,0.060547 0.24960792,0.24969989 0 0 0 -0.0098,0.00781 0.24960792,0.24969989 0 0 0 -0.0098,0.00977 0.24960792,0.24969989 0 0 0 0,0.00195 0.24960792,0.24969989 0 0 0 -0.01563,0.015625 0.24960792,0.24969989 0 0 0 -0.002,0.00195 0.24960792,0.24969989 0 0 0 -0.05078,0.1972657 V 10.75 a 0.24960792,0.24969989 0 0 0 0.25,0.25 H 13.75 A 0.24960792,0.24969989 0 0 0 14,10.75 V 8.2539062 a 0.24960792,0.24969989 0 0 0 -0.25,-0.25 H 12.292969 A 0.24960792,0.24969989 0 0 0 12.25,8 Z m 3,0 a 0.24960792,0.24969989 0 0 0 -0.158203,0.060547 0.24960792,0.24969989 0 0 0 -0.0098,0.00781 0.24960792,0.24969989 0 0 0 -0.0098,0.00977 0.24960792,0.24969989 0 0 0 0,0.00195 0.24960792,0.24969989 0 0 0 -0.01563,0.015625 0.24960792,0.24969989 0 0 0 -0.002,0.00195 0.24960792,0.24969989 0 0 0 -0.05078,0.1972657 V 10.75 a 0.24960792,0.24969989 0 0 0 0.25,0.25 H 16.75 A 0.24960792,0.24969989 0 0 0 17,10.75 V 8.2539062 a 0.24960792,0.24969989 0 0 0 -0.25,-0.25 H 15.292969 A 0.24960792,0.24969989 0 0 0 15.25,8 Z m -11,4 a 0.24960792,0.24969989 0 0 0 -0.1582031,0.06055 0.24960792,0.24969989 0 0 0 -0.00977,0.0078 0.24960792,0.24969989 0 0 0 -0.00977,0.0098 0.24960792,0.24969989 0 0 0 0,0.002 0.24960792,0.24969989 0 0 0 -0.015625,0.01563 0.24960792,0.24969989 0 0 0 -0.00195,0.002 0.24960792,0.24969989 0 0 0 -0.050781,0.197266 V 14.75 a 0.24960792,0.24969989 0 0 0 0.25,0.25 H 5.75 A 0.24960792,0.24969989 0 0 0 6,14.75 v -2.496094 a 0.24960792,0.24969989 0 0 0 -0.25,-0.25 H 4.2929688 A 0.24960792,0.24969989 0 0 0 4.25,12 Z m 3,0 c -0.05818,0.0011 -0.1141351,0.02254 -0.1582031,0.06055 -0.0033,0.0025 -0.00657,0.0051 -0.00977,0.0078 -0.0034,0.0032 -0.00657,0.0064 -0.00977,0.0098 0,0 0,0.002 0,0.002 -0.0054,0.005 -0.010645,0.01018 -0.015625,0.01563 0,0 -0.00195,0.002 -0.00195,0.002 -0.04418,0.05555 -0.062661,0.12728 -0.050781,0.197266 V 14.75 c -1.66e-4,0.138176 0.111875,0.250217 0.25,0.25 H 7.75 C 7.888125,15.000217 8.000166,14.888176 8,14.75 v -2.496094 c 1.66e-4,-0.138176 -0.111875,-0.250217 -0.25,-0.25 H 7.2929688 C 7.2787858,12.001406 7.264409,12.0001 7.25,12 Z m 2,0 c -0.05818,0.0011 -0.114135,0.02254 -0.158203,0.06055 -0.0033,0.0025 -0.0066,0.0051 -0.0098,0.0078 -0.0034,0.0032 -0.0066,0.0064 -0.0098,0.0098 0,0 0,0.002 0,0.002 -0.0054,0.005 -0.01065,0.01018 -0.01563,0.01563 0,0 -0.002,0.002 -0.002,0.002 -0.04418,0.05555 -0.062662,0.12728 -0.05078,0.197266 V 14.75 c -1.66e-4,0.138176 0.111875,0.250217 0.25,0.25 H 9.75 c 0.138125,2.17e-4 0.250166,-0.111824 0.25,-0.25 v -2.496094 c 1.66e-4,-0.138176 -0.111875,-0.250217 -0.25,-0.25 H 9.292969 C 9.278789,12.001406 9.26441,12.0001 9.25,12 Z m 2,0 a 0.24960792,0.24969989 0 0 0 -0.158203,0.06055 0.24960792,0.24969989 0 0 0 -0.0098,0.0078 0.24960792,0.24969989 0 0 0 -0.0098,0.0098 0.24960792,0.24969989 0 0 0 0,0.002 0.24960792,0.24969989 0 0 0 -0.01563,0.01563 0.24960792,0.24969989 0 0 0 -0.002,0.002 0.24960792,0.24969989 0 0 0 -0.05078,0.197266 V 14.75 a 0.24960792,0.24969989 0 0 0 0.25,0.25 H 12.75 A 0.24960792,0.24969989 0 0 0 13,14.75 v -2.496094 a 0.24960792,0.24969989 0 0 0 -0.25,-0.25 H 11.292969 A 0.24960792,0.24969989 0 0 0 11.25,12 Z m 3,0 c -0.05818,0.0011 -0.114135,0.02254 -0.158203,0.06055 -0.0033,0.0025 -0.0066,0.0051 -0.0098,0.0078 -0.0034,0.0032 -0.0066,0.0064 -0.0098,0.0098 0,0 0,0.002 0,0.002 -0.0054,0.005 -0.01065,0.01018 -0.01563,0.01563 0,0 -0.002,0.002 -0.002,0.002 -0.04418,0.05555 -0.06266,0.12728 -0.05078,0.197266 V 14.75 c -1.66e-4,0.138176 0.111875,0.250217 0.25,0.25 H 14.75 c 0.138125,2.17e-4 0.250166,-0.111824 0.25,-0.25 v -2.496094 c 1.66e-4,-0.138176 -0.111875,-0.250217 -0.25,-0.25 H 14.292969 C 14.278789,12.001406 14.26441,12.0001 14.25,12 Z"/>
 <path style="opacity:0.1;fill:#8b9cbe" d="M 2.5,1 C 1.669,1 1,1.669 1,2.5 V 3 C 1,2.169 1.669,1.5 2.5,1.5 h 17 C 20.331,1.5 21,2.169 21,3 V 2.5 C 21,1.669 20.331,1 19.5,1 Z"/>
 <path style="fill:#ea5a67" d="m 17.974496,11.171319 1.563723,-1.134223 c 0,0 0.626285,-0.353591 1.74424,1.122535 l 2.8e-5,-2.8e-5 c 8e-4,10e-4 0.0015,0.002 0.0023,0.0031 3.07e-4,3.85e-4 6e-4,7.5e-4 8.5e-4,0.0011 v 0 c 1.115774,1.477775 0.591121,1.965776 0.591121,1.965776 l -1.563827,1.134016 z"/>
 <path style="fill:#9e9e9e" d="m 17.974496,11.171319 -1.575528,1.152214 2.343048,3.098398 1.570924,-1.15833 z"/>
 <path style="fill:#ffb505" d="m 16.398969,12.323533 2.343048,3.098399 -6.698418,4.898291 0.188813,-1.207386 -1.298941,-0.285314 0.138053,-1.299275 -1.302016,-0.264643 z"/>
 <path style="fill:#fbe289" d="m 9.769508,17.263605 1.302016,0.264643 -0.138053,1.299275 1.298941,0.285314 -0.188813,1.207386 -2.525656,0.451087 -0.8540075,-1.129324 z"/>
 <path style="fill:#17191e" d="M 9.517943,20.77131 8.6639355,19.641986 8,21 Z"/>
 <path style="opacity:0.2;fill:#8b9cbe" d="m 19.794922,10.00293 c -0.169044,-0.01569 -0.256836,0.03418 -0.256836,0.03418 l -1.563477,1.133789 -1.575195,1.152343 -6.629883,4.94043 -1.1054685,2.37793 L 8,21 l 0.263672,-0.04004 0.4003905,-0.818359 1.1054685,-2.37793 6.629883,-4.94043 1.575195,-1.152343 1.563477,-1.133789 c 0,0 0.08779,-0.04987 0.256836,-0.03418 0.281739,0.02614 0.788583,0.233671 1.487304,1.15625 8.01e-4,10e-4 0.0022,0.0029 0.0029,0.0039 v 10e-4 c 0.42869,0.567773 0.613365,0.986989 0.680665,1.291015 0.0771,-0.247742 0.07717,-0.787304 -0.680665,-1.791015 v -10e-4 c -8e-4,-10e-4 -0.0022,-0.0029 -0.0029,-0.0039 C 20.583505,10.2366 20.076661,10.029075 19.794922,10.00293 Z"/>
</svg>
