<svg xmlns="http://www.w3.org/2000/svg" width="22" height="22" version="1.1">
 <path style="opacity:0.2" d="M 11,1.5 11,11 1.0253906,11 A 10,10 0 0 0 1,11.5 a 10,10 0 0 0 10,10 10,10 0 0 0 10,-10 10,10 0 0 0 -10,-10 z"/>
 <path style="fill:#4c91d9" d="M 10.5,1 C 9.671573,1 9,1.6715729 9,2.5 9,3.3284271 9.671573,4 10.5,4 10.716218,4 10.841623,3.9908207 11,3.9863281 L 11,11 3.9863281,11 C 3.9908207,10.841623 4,10.716218 4,10.5 4,9.671573 3.3284271,9 2.5,9 1.6715729,9 1,9.671573 1,10.5 1,10.716218 1.00918,10.841623 1.013672,11 L 1,11 A 10,10 0 0 0 11,21 10,10 0 0 0 21,11 10,10 0 0 0 11,1 l 0,0.013672 C 10.841623,1.0091793 10.716218,1 10.5,1 Z"/>
 <circle style="opacity:0.2" cx="11" cy="11.5" r="7"/>
 <circle style="fill:#8b9cbe" cx="11" cy="11" r="7"/>
 <path style="opacity:0.2;fill:#8b9cbe" d="M 10.5,1 C 9.671573,1 9,1.6715729 9,2.5 9,2.585501 9.01165,2.6684069 9.02539,2.75 9.14479,2.041026 9.757074,1.5 10.5,1.5 c 0.216218,0 0.341623,0.00918 0.5,0.013672 L 11,1.5 c 5.439199,0.00415 9.877627,4.3549343 9.990234,9.792969 C 20.994921,11.195366 20.998176,11.097699 21,11 21,5.4771525 16.522847,1 11,1 l 0,0.013672 C 10.841623,1.0091793 10.716218,1 10.5,1 Z m -8,8 C 1.6715729,9 1,9.671573 1,10.5 1,10.670621 1.0071,10.776184 1.011719,10.894531 1.0667713,10.116222 1.7076786,9.5 2.5,9.5 3.2923214,9.5 3.9332287,10.116222 3.9882812,10.894531 3.9928997,10.776184 4,10.670621 4,10.5 4,9.671573 3.3284271,9 2.5,9 Z M 4,11 c 0,0.216218 -0.00918,0.341623 -0.013672,0.5 z"/>
</svg>
