<svg xmlns="http://www.w3.org/2000/svg" width="22" height="22" version="1">
 <path style="opacity:0.2" d="M 10.995117,1.5 C 8.442322,1.50165 5.883899,2.4803586 3.9277344,4.4365235 l 0.0039,0.0039 C 1.9787447,6.3960645 1.0016479,8.952369 1,11.50293 H 6 A 5,5 0 0 1 6,11.5 5,5 0 0 1 7.461914,7.9716795 5,5 0 0 1 7.464864,7.9687295 5,5 0 0 1 7.467814,7.9657795 5,5 0 0 1 10.995117,6.5 5,5 0 0 1 11,6.5 5,5 0 0 1 14.533203,7.966797 5,5 0 0 1 16,11.5 a 5,5 0 0 1 0,0.003 h 5 C 20.9983,8.9503535 20.019256,6.3925735 18.063476,4.4365235 16.107361,2.4803586 13.547962,1.5016492 10.995117,1.5 Z M 1,11.503906 c 0.00164,2.549211 0.9781099,5.103553 2.9287109,7.058594 l -9.75e-4,0.001 c 1.9561631,1.956091 4.5145861,2.935 7.0673811,2.9365 2.551138,-0.0015 5.10884,-0.979118 7.064453,-2.932617 l 0.0039,0.0039 C 20.019591,16.615174 20.9983,14.056701 21,11.503906 h -5 a 5,5 0 0 1 -1.466797,3.529297 5,5 0 0 1 -0.002,0.002 5,5 0 0 1 -0.0019,0.0019 A 5,5 0 0 1 11,16.5 5,5 0 0 1 10.9951,16.5 5,5 0 0 1 7.470703,15.037109 5,5 0 0 1 6,11.503906 Z"/>
 <path style="fill:#e647ff" d="M 10.995117,1 C 8.442322,1.00165 5.883899,1.9803586 3.9277344,3.9365234 L 7.461914,7.4716795 A 5,5 0 0 1 10.995117,6 Z"/>
 <path style="fill:#ff3636" d="M 10.995117,1 V 6 A 5,5 0 0 1 11,6 5,5 0 0 1 14.533203,7.466797 L 18.063476,3.9365234 C 16.107361,1.9803586 13.547962,1.0016492 10.995117,1 Z"/>
 <path style="fill:#5964ff" d="M 3.9365234,3.9355469 C 1.9803587,5.8918115 1.0016492,8.4502345 1,11.00293 H 6 A 5,5 0 0 1 6,11 5,5 0 0 1 7.4677735,7.4658205 Z"/>
 <path style="fill:#53bdff" d="m 1,11.003906 c 0.00165,2.552845 0.9803587,5.111269 2.9365234,7.067383 L 7.470703,14.53711 A 5,5 0 0 1 6,11.003906 Z"/>
 <path style="fill:#ff7221" d="M 18.063476,3.9355469 14.532227,7.4658205 A 5,5 0 0 1 16,11 a 5,5 0 0 1 0,0.003 h 5 C 20.9983,8.450155 20.019591,5.891682 18.063476,3.9355674 Z"/>
 <path style="fill:#ffac29" d="m 16,11.003906 a 5,5 0 0 1 -1.470703,3.533204 l 3.534179,3.534179 C 20.019591,16.115174 20.9983,13.556701 21,11.003906 Z"/>
 <path style="fill:#80ffe5" d="M 7.461914,14.529297 3.9277344,18.063476 C 5.883899,20.019591 8.442322,20.9985 10.995117,21 V 16 A 5,5 0 0 1 7.461914,14.529297 Z"/>
 <path style="fill:#73ff44" d="M 14.533203,14.533203 A 5,5 0 0 1 11,16 5,5 0 0 1 10.9951,16 v 5 c 2.552845,-0.0015 5.112244,-0.980409 7.068359,-2.936524 z"/>
 <path style="opacity:0.2;fill:#8b9cbe" d="M 10.995117,1 C 8.442322,1.00165 5.883899,1.9803586 3.9277344,3.9365234 l 0.0039,0.00391 C 1.9787447,5.8960645 1.0016479,8.452369 1,11.00293 H 1.024414 C 1.1452712,8.6210075 2.1065474,6.2680895 3.9316405,4.4404295 l -0.0039,-0.0039 C 5.883899,2.4803586 8.442322,1.50165 10.995117,1.5 c 2.552845,0.00165 5.112244,0.9803586 7.068359,2.9365235 1.827927,1.8281785 2.791095,4.182469 2.91211,6.5664065 H 21 C 20.9983,8.4503535 20.019256,5.8925735 18.063476,3.9365234 16.107361,1.9803586 13.547962,1.0016492 10.995117,1 Z M 1,11.003906 c 5.39e-5,0.08341 0.00958,0.166606 0.011719,0.25 0.00213,-0.08346 0.00847,-0.166595 0.012695,-0.25 z m 19.975586,0 c 0.0042,0.08336 0.0096,0.166584 0.01172,0.25 0.0022,-0.08344 0.01264,-0.166551 0.0127,-0.25 z m -4.987305,0.229493 a 5,5 0 0 1 -1.455078,3.299804 5,5 0 0 1 -0.002,0.0019 5,5 0 0 1 -0.0019,0.002 A 5,5 0 0 1 11,16 5,5 0 0 1 10.995117,16 5,5 0 0 1 7.470703,14.53711 5,5 0 0 1 6.011719,11.271485 5,5 0 0 0 6,11.5 5,5 0 0 0 6,11.503 H 1.024414 c 1.65e-5,3.25e-4 -1.64e-5,6.5e-4 0,10e-4 H 6 A 5,5 0 0 0 7.470703,15.037109 5,5 0 0 0 10.995117,16.5 5,5 0 0 0 11,16.5 a 5,5 0 0 0 3.529297,-1.462891 5,5 0 0 0 0.002,-0.002 5,5 0 0 0 0.0019,-0.002 A 5,5 0 0 0 16,11.503906 h 4.975586 c 1.6e-5,-3.24e-4 -1.7e-5,-6.5e-4 0,-0.001 H 16 A 5,5 0 0 0 16,11.5 5,5 0 0 0 15.988281,11.233399 Z"/>
</svg>
