<svg xmlns="http://www.w3.org/2000/svg" width="22" height="22" version="1">
 <path style="opacity:0.2" d="m 10.906317,1.500004 c -0.04798,0 -0.170845,0.062986 -0.272461,0.1396485 -0.244046,0.184115 -1.4133119,0.9091051 -1.8193361,1.1279296 l -0.321289,0.1728516 -0.300781,-0.05957 c -0.165791,-0.032803 -0.328382,-0.059586 -0.360352,-0.05957 -0.031968,1.55e-5 -0.180781,0.098519 -0.3310545,0.2197266 -0.3185735,0.2569575 -0.652564,0.5138549 -0.817969,0.5136719 -0.063464,-7.5e-5 -0.1700305,-0.032952 -0.236328,-0.073242 -0.066299,-0.040292 -0.1586845,-0.073242 -0.2060545,-0.073242 -0.1139075,1e-7 -1.399678,0.6392262 -1.763672,0.8769531 C 4.1970429,4.4680152 3.9160349,4.6892565 3.4789732,5.06934 3.2350627,5.2814515 3.1359051,5.4637335 3.0170591,5.919926 c -0.1482445,0.56904 -0.061803,1.0884545 0.25,1.314035 0.1775165,0.128426 0.4512643,0.4262565 0.5712888,0.621094 0.0968,0.1571415 0.119388,0.166342 0.418946,0.166992 H 4.5238954 L 4.9955749,7.6079845 c 0.45979,-0.4470735 1.016192,-0.6248965 1.624805,-0.5934805 0.7602375,0.03924 0.830687,0.3648685 0.8843745,0.8888195 -0.02657,0.3221 -0.1003285,0.508821 -0.288086,0.7265625 C 7.0979949,8.767508 7.0924409,8.7687355 6.6727229,8.8203155 6.4398614,8.8489305 5.2774594,9.005512 4.3330749,9.167972 3.3886855,9.330433 2.5827456,9.462894 2.5430356,9.462894 2.4933316,9.462894 2.4067663,9.366574 2.2637388,9.152347 2.0358913,8.8110795 1.9384213,8.750275 1.7803403,8.8535185 1.5443018,9.007678 1.2093086,9.601061 1.0742856,10.105472 c -0.10680255,0.398981 -0.0965431,1.474435 0.018555,2.012695 0.15183,0.710053 0.4398897,1.531621 0.8154297,2.325195 0.1692135,0.357574 0.2485921,0.443517 0.3134766,0.338867 0.0132,-0.02129 0.038731,-0.380143 0.056641,-0.797851 0.044333,-1.034132 0.1303231,-1.770798 0.2363281,-2.025391 0.154956,-0.372152 0.1543872,-0.406185 -0.02832,-0.78125 -0.1909185,-0.39192 -0.233212,-0.534684 -0.165039,-0.558594 0.025807,-0.0091 0.5186101,-0.03323 1.0957031,-0.05371 1.2402122,-0.04401 1.7028862,-0.08449 2.3095702,-0.205078 0.533639,-0.106064 0.6113545,-0.109083 0.6933595,-0.02735 0.064644,0.06441 0.064093,0.108476 -0.0039,0.818359 -0.0319,0.333018 0.057927,0.588074 0.3847655,1.094727 0.3268305,0.506641 0.5222095,0.923491 0.6875,1.466797 0.1462575,0.480742 0.1532065,0.56782 0.052734,0.667969 -0.239952,0.239174 -0.1060368,-0.06307 -1.0112299,-1.25 -0.7029855,-0.92179 -0.901039,-1.135742 -1.0527345,-1.135742 -0.2479544,0 -0.6291884,0.360877 -1.02832,0.972656 -0.2421835,0.37121 -0.3459385,0.579507 -0.6923829,1.382812 -0.370925,0.860078 -0.4444137,1.09302 -0.6054687,1.938477 -0.1242226,0.652119 -0.1353625,0.769496 -0.1328125,1.321289 0.0029,0.618194 0.053902,1.293737 0.2368159,2.585651 0.066799,0.471788 0.1214254,0.74185 0.1533203,0.762695 0.094166,0.06155 0.3154041,-0.254243 0.633301,-0.900391 0.6052939,-1.230308 0.8876755,-2.166297 0.964844,-2.833697 0.094028,-0.8132 0.2796649,-1.466623 0.553711,-1.955078 0.1293425,-0.23054 0.327867,-0.485352 0.3789059,-0.485352 0.014615,0 0.107221,0.127758 0.206055,0.28418 0.2257985,0.357365 0.2448239,0.697713 0.4341214,0.783203 0.103821,0.04686 0.195239,0.05957 0.319336,0.04492 l 0.1738285,-0.02051 0.0459,0.15039 c 0.03959,0.131707 0.033345,0.196013 -0.043945,0.509766 -0.1182805,0.480163 -0.1178055,1.043756 0,1.798491 0.096661,0.619274 0.122766,0.704102 0.2236325,0.704102 0.1437725,0 0.531261,-0.474098 0.7675785,-0.939453 0.04186,-0.08244 0.184384,-0.513856 0.3173825,-0.958985 0.2724805,-0.911957 0.56173,-1.62297 0.612305,-1.674467 0.0208,-0.02118 0.1852408,0.03708 0.4296878,0.152343 0.391441,0.184571 0.204479,0.187925 0.8886309,0.270508 0.529875,0.06396 0.700198,0.09669 0.723633,0.140625 0.01684,0.03159 0.08294,0.321595 0.147461,0.644531 0.407685,2.040319 0.88781,3.873096 1.145508,4.233827 0.122158,0.171006 0.200128,0.138082 0.341797,-0.142578 0.166514,-0.329894 0.656042,-1.477405 1.178711,-2.761719 0.234099,-0.575229 0.447137,-1.187274 0.473633,-1.237733 0.04096,-0.07801 0.08378,-0.09517 0.286132,-0.118164 0.755331,-0.08583 0.403279,-0.109699 0.567444,-0.171875 0.248236,-0.09402 0.443142,-0.256584 0.666992,-0.55664 0.10429,-0.139794 0.201527,-0.253907 0.216797,-0.253907 0.0331,0 0.280045,0.554415 0.441406,0.991211 0.188557,0.510417 0.329009,1.054342 0.387696,1.503906 0.03036,0.23251 0.08135,0.504552 0.114258,0.605469 0.193936,0.594586 0.734359,1.40442 1.573242,2.358399 C 18.76017,21.330902 18.929857,21.5 18.955207,21.5 c 0.05237,0 0.095,-0.13868 0.308594,-0.991211 0.137492,-0.548793 0.179426,-0.657287 0.444336,-1.163086 l 0.291992,-0.558594 v -0.708984 c 0,-1.458141 -0.186917,-2.86142 -0.517578,-3.883789 -0.227234,-0.702585 -0.679944,-1.468354 -1.103516,-1.939122 -0.315913,-0.351113 -0.4831,-0.385547 -0.660156,-0.137695 -0.09492,0.132866 -0.210067,0.442686 -0.245117,0.661133 -0.01357,0.08463 -0.04804,0.162693 -0.07715,0.173829 -0.03181,0.01217 -0.128746,0.04738 -0.243164,-0.06389 -0.390265,-0.379533 -0.732314,-0.512637 -0.849609,-0.330078 -0.02918,0.04542 -0.103661,0.214509 -0.166016,0.375977 -0.145592,0.377003 -0.311237,0.511248 -0.428711,0.587972 -0.138388,0.09038 0.132067,0.04928 -0.18988,-0.09863 -0.240423,-0.110461 -0.270812,-0.137154 -0.386719,-0.34375 -0.186249,-0.331992 -0.216707,-0.525131 -0.166992,-1.058593 0.02299,-0.246661 0.0457,-0.537896 0.04981,-0.770005 l 0.0068,-0.421875 -0.15625,-0.280273 C 14.779611,10.395044 14.559634,10.056505 14.37763,9.797382 14.195628,9.53826 14.046575,9.311381 14.046575,9.293476 c 0,-0.01849 0.179851,-0.02193 0.415039,-0.0078 0.23047,0.01383 0.525344,0.0085 0.665039,-0.01172 L 15.37763,9.237816 15.829778,8.7680895 C 16.712264,7.849601 16.949124,7.533375 16.983098,7.232923 16.998318,7.0982975 16.984948,7.0422155 16.909856,6.9301885 16.762633,6.7106075 16.562244,6.5256195 16.443059,6.4995245 16.270655,6.4617795 14.79681,6.8949325 14.369817,7.1088995 13.975308,7.306586 13.603721,7.233765 13.194036,6.878431 12.894797,6.6188935 12.155722,6.0391875 11.200262,5.35742 c -0.733193,-0.523172 -0.934734,-0.708507 -0.875,-0.803711 0.02389,-0.03807 0.183991,-0.1031016 0.40332,-0.1640626 0.706908,-0.1964775 1.07565,-0.326705 1.149414,-0.40625 0.08682,-0.093627 0.338868,-0.9633239 0.338868,-1.1699219 0,-0.1129175 -0.03102,-0.1749551 -0.155274,-0.3144531 C 11.51207,1.882062 11.07044,1.500004 10.906317,1.500004 Z"/>
 <path style="fill:#4f4f4f" d="m 10.906317,1.000004 c -0.04798,0 -0.170845,0.062986 -0.272461,0.1396485 -0.244046,0.184115 -1.4133119,0.9091051 -1.8193361,1.1279296 l -0.321289,0.1728516 -0.300781,-0.05957 c -0.165791,-0.032803 -0.328382,-0.059586 -0.360352,-0.05957 -0.031968,1.55e-5 -0.180781,0.098519 -0.3310545,0.2197266 -0.3185735,0.2569575 -0.652564,0.5138549 -0.817969,0.5136719 -0.063464,-7.5e-5 -0.1700305,-0.032952 -0.236328,-0.073242 -0.066299,-0.040292 -0.1586845,-0.073242 -0.2060545,-0.073242 -0.1139075,1e-7 -1.399678,0.6392262 -1.763672,0.8769531 C 4.1970429,3.9680152 3.9160349,4.1892565 3.4789732,4.56934 3.2350627,4.7814515 3.1359051,4.9637335 3.0170591,5.419926 c -0.1482445,0.56904 -0.061803,1.0884545 0.25,1.314035 0.1775165,0.128426 0.4512643,0.4262565 0.5712888,0.621094 0.0968,0.1571415 0.119388,0.166342 0.418946,0.166992 H 4.5238954 L 4.9955749,7.1079845 c 0.45979,-0.4470735 1.016192,-0.6248965 1.624805,-0.5934805 0.7602375,0.03924 0.830687,0.3648685 0.8843745,0.8888195 -0.02657,0.3221 -0.1003285,0.508821 -0.288086,0.7265625 C 7.0979949,8.267508 7.0924409,8.2687355 6.6727229,8.3203155 6.4398614,8.3489305 5.2774594,8.505512 4.3330749,8.667972 3.3886855,8.8304325 2.5827456,8.9628935 2.5430356,8.9628935 2.4933311,8.9628935 2.4067663,8.8665755 2.2637388,8.652347 2.0358913,8.3110795 1.9384213,8.250275 1.7803403,8.3535185 1.5443018,8.5076775 1.2093086,9.101061 1.0742856,9.605472 c -0.10680255,0.398981 -0.0965431,1.474435 0.018555,2.012695 0.15183,0.710053 0.4398897,1.531621 0.8154297,2.325195 0.1692135,0.357574 0.2485921,0.443517 0.3134766,0.338867 0.0132,-0.02129 0.038731,-0.380143 0.056641,-0.797851 0.044333,-1.034132 0.1303231,-1.770798 0.2363281,-2.025391 0.154956,-0.372152 0.1543872,-0.406185 -0.02832,-0.78125 -0.1909185,-0.39192 -0.233212,-0.534684 -0.165039,-0.558594 0.025807,-0.0091 0.5186101,-0.03323 1.0957031,-0.05371 1.2402122,-0.04401 1.7028862,-0.08449 2.3095702,-0.205078 0.533639,-0.106064 0.6113545,-0.109083 0.6933595,-0.02735 0.064644,0.06441 0.064093,0.108476 -0.0039,0.818359 -0.0319,0.333018 0.057927,0.588074 0.3847655,1.094727 0.3268305,0.506641 0.5222095,0.923491 0.6875,1.466797 0.1462575,0.480742 0.1532065,0.56782 0.052734,0.667969 -0.239952,0.239174 -0.1060368,-0.06307 -1.0112299,-1.25 -0.7029855,-0.92179 -0.901039,-1.135742 -1.0527345,-1.135742 -0.2479544,0 -0.6291884,0.360877 -1.02832,0.972656 -0.2421835,0.37121 -0.3459385,0.579507 -0.6923829,1.382812 -0.370925,0.860078 -0.4444137,1.09302 -0.6054687,1.938477 -0.1242226,0.652119 -0.1353625,0.769496 -0.1328125,1.321289 0.0029,0.618194 0.053902,1.293737 0.2368159,2.585651 0.066799,0.471788 0.1214254,0.74185 0.1533203,0.762695 0.094166,0.06155 0.3154041,-0.254243 0.633301,-0.900391 0.6052939,-1.230308 0.8876755,-2.166297 0.964844,-2.833697 0.094028,-0.8132 0.2796649,-1.466623 0.553711,-1.955078 0.1293425,-0.23054 0.327867,-0.485352 0.3789059,-0.485352 0.014615,0 0.107221,0.127758 0.206055,0.28418 0.2257985,0.357365 0.2448239,0.697713 0.4341214,0.783203 0.103821,0.04686 0.195239,0.05957 0.319336,0.04492 l 0.1738285,-0.02051 0.0459,0.15039 c 0.03959,0.131707 0.033345,0.196013 -0.043945,0.509766 -0.1182805,0.480163 -0.1178055,1.043756 0,1.798491 0.096661,0.619274 0.122766,0.704102 0.2236325,0.704102 0.1437725,0 0.531261,-0.474098 0.7675785,-0.939453 0.04186,-0.08244 0.184384,-0.513856 0.3173825,-0.958985 0.2724805,-0.911957 0.56173,-1.62297 0.612305,-1.674467 0.0208,-0.02118 0.1852408,0.03708 0.4296878,0.152343 0.391441,0.184571 0.204479,0.187925 0.8886309,0.270508 0.529875,0.06396 0.700198,0.09669 0.723633,0.140625 0.01684,0.03159 0.08294,0.321595 0.147461,0.644531 0.407685,2.040319 0.88781,3.873096 1.145508,4.233827 0.122158,0.171006 0.200128,0.138082 0.341797,-0.142578 0.166514,-0.329894 0.656042,-1.477405 1.178711,-2.761719 0.234099,-0.575229 0.447137,-1.187274 0.473633,-1.237733 0.04096,-0.07801 0.08378,-0.09517 0.286132,-0.118164 0.755331,-0.08583 0.403279,-0.109699 0.567444,-0.171875 0.248236,-0.09402 0.443142,-0.256584 0.666992,-0.55664 0.10429,-0.139794 0.201527,-0.253907 0.216797,-0.253907 0.0331,0 0.280045,0.554415 0.441406,0.991211 0.188557,0.510417 0.329009,1.054342 0.387696,1.503906 0.03036,0.23251 0.08135,0.504552 0.114258,0.605469 0.193936,0.594586 0.734359,1.40442 1.573242,2.358399 C 18.76017,20.830902 18.929857,21 18.955207,21 c 0.05237,0 0.095,-0.13868 0.308594,-0.991211 0.137492,-0.548793 0.179426,-0.657287 0.444336,-1.163086 l 0.291992,-0.558594 v -0.708984 c 0,-1.458141 -0.186917,-2.86142 -0.517578,-3.883789 -0.227234,-0.702585 -0.679944,-1.468354 -1.103516,-1.939122 -0.315913,-0.351113 -0.4831,-0.385547 -0.660156,-0.137695 -0.09492,0.132866 -0.210067,0.442686 -0.245117,0.661133 -0.01357,0.08463 -0.04804,0.162693 -0.07715,0.173829 -0.03181,0.01217 -0.128746,0.04738 -0.243164,-0.06389 -0.390265,-0.379533 -0.732314,-0.512637 -0.849609,-0.330078 -0.02918,0.04542 -0.103661,0.214509 -0.166016,0.375977 -0.145592,0.377003 -0.311237,0.511248 -0.428711,0.587972 -0.138388,0.09038 0.132067,0.04928 -0.18988,-0.09863 -0.240423,-0.110461 -0.270812,-0.137154 -0.386719,-0.34375 -0.186249,-0.331992 -0.216707,-0.525131 -0.166992,-1.058593 0.02299,-0.246661 0.0457,-0.537896 0.04981,-0.770005 l 0.0068,-0.421875 -0.15625,-0.280273 C 14.779612,9.895044 14.559634,9.556505 14.37763,9.297382 14.195628,9.03826 14.046575,8.811381 14.046575,8.793476 c 0,-0.018485 0.179851,-0.02193 0.415039,-0.00781 0.23047,0.01383 0.525344,0.00853 0.665039,-0.01172 L 15.37763,8.737806 15.829778,8.2680795 C 16.712264,7.349601 16.949124,7.033375 16.983098,6.732923 16.998318,6.5982975 16.984948,6.5422155 16.909856,6.4301885 16.762633,6.2106075 16.562244,6.0256195 16.443059,5.9995245 16.270655,5.9617795 14.79681,6.3949325 14.369817,6.6088995 13.975308,6.806586 13.603721,6.733765 13.194036,6.378431 12.894797,6.1188935 12.155722,5.5391875 11.200262,4.85742 c -0.733193,-0.523172 -0.934734,-0.708507 -0.875,-0.803711 0.02389,-0.03807 0.183991,-0.1031016 0.40332,-0.1640626 0.706908,-0.1964775 1.07565,-0.326705 1.149414,-0.40625 0.08682,-0.093627 0.338868,-0.9633239 0.338868,-1.1699219 0,-0.1129175 -0.03102,-0.1749551 -0.155274,-0.3144531 C 11.51207,1.382062 11.07044,1.000004 10.906317,1.000004 Z"/>
 <path style="opacity:0.2" d="m 3.5000001,5.4997812 c 0.8775019,0.4073021 0.5368697,1.0209913 -0.3554688,1.59375 0.038296,0.050098 0.073189,0.1045541 0.1230469,0.140625 C 3.4367274,7.3565288 3.6848536,7.6296713 3.8125001,7.824 4.2219134,7.4842986 4.8565019,7.0790684 4.9687501,6.558375 5.1119596,5.8940574 5.0788676,5.4804212 3.5000001,5.4997812 Z"/>
 <path style="fill:#b2bfd9" d="M 3.5000001,5 C 4.377502,5.4073021 4.0368698,6.0209913 3.1445313,6.59375 3.1828269,6.6438484 3.2177201,6.6983041 3.2675782,6.734375 3.4367274,6.8567476 3.6848536,7.1298901 3.8125001,7.3242188 4.2219134,6.9845174 4.8565019,6.5792872 4.9687501,6.0585938 5.1119596,5.3942762 5.0788676,4.98064 3.5000001,5 Z"/>
 <path style="opacity:0.1;fill:#8b9cbe" d="M 10.90625,1 C 10.85827,1 10.736382,1.0639625 10.634766,1.140625 10.39072,1.32474 9.2204771,2.0487536 8.8144532,2.2675781 L 8.4941407,2.4414062 8.1933595,2.3808594 C 8.0275685,2.3480564 7.8640014,2.3222496 7.8320313,2.3222656 7.8000633,2.3222811 7.6522267,2.419808 7.5019532,2.5410156 7.1833797,2.7979731 6.8489988,3.0548705 6.6835939,3.0546875 6.6201299,3.0546125 6.5135632,3.0227119 6.4472657,2.9824219 6.3809667,2.9421299 6.2876045,2.9082031 6.2402345,2.9082031 6.126327,2.9082032 4.8405566,3.5474294 4.4765626,3.7851562 4.1965856,3.9680101 3.9155774,4.190229 3.4785157,4.5703125 3.2346052,4.782424 3.1364242,4.9637294 3.0175782,5.4199219 2.9429647,5.7063276 2.9276021,5.9788585 2.9707032,6.2089844 2.9823297,6.1140344 2.9917176,6.0191887 3.0175782,5.9199219 3.1364242,5.4637294 3.2346052,5.282424 3.4785157,5.0703125 3.9155774,4.690229 4.1965856,4.4680101 4.4765626,4.2851562 4.8405566,4.0474294 6.126327,3.4082032 6.2402345,3.4082031 c 0.04737,0 0.1407322,0.033927 0.2070312,0.074219 0.066298,0.04029 0.1728642,0.072191 0.2363282,0.072266 0.1654049,1.83e-4 0.4997858,-0.2567144 0.8183593,-0.5136719 0.1502735,-0.1212076 0.2981101,-0.2187345 0.3300781,-0.21875 0.03197,-1.6e-5 0.1955372,0.025791 0.3613282,0.058594 L 8.4941407,2.9414062 8.8144532,2.7675781 C 9.2204771,2.5487536 10.39072,1.82474 10.634766,1.640625 10.736382,1.5639625 10.85827,1.5 10.90625,1.5 c 0.164123,0 0.60673,0.3810875 1.15625,0.9980469 0.04417,0.049594 0.06449,0.08336 0.08789,0.1191406 C 12.17404,2.5097626 12.2168,2.3625513 12.2168,2.3125 12.2168,2.1995825 12.18676,2.1375449 12.062503,1.9980469 11.51298,1.3810875 11.070373,1 10.90625,1 Z m -0.269531,3.4257812 c -0.145421,0.047258 -0.292101,0.097558 -0.310547,0.1269532 -0.05973,0.095204 0.141807,0.2815155 0.875,0.8046875 0.95546,0.6817675 1.692948,1.2619469 1.992187,1.5214843 0.409685,0.355334 0.781273,0.4281553 1.175782,0.2304688 0.426993,-0.213967 1.901814,-0.64712 2.074218,-0.609375 0.119185,0.026095 0.319574,0.2101065 0.466797,0.4296875 0.0047,0.00708 0.0055,0.010914 0.0098,0.017578 0.03327,-0.075941 0.05485,-0.1471956 0.0625,-0.2148437 0.01522,-0.1346255 0.0028,-0.1907074 -0.07227,-0.3027344 C 16.762933,6.2101065 16.562544,6.026095 16.443359,6 16.270955,5.962255 14.796134,6.395408 14.369141,6.609375 13.974632,6.8070615 13.603044,6.7342402 13.193359,6.3789062 12.89412,6.1193688 12.156632,5.5391894 11.201172,4.8574219 10.920041,4.6568203 10.776763,4.5410084 10.636719,4.4257812 Z M 7.4609376,7.6152344 C 7.419691,7.8089707 7.3553382,7.9701937 7.216797,8.1308594 7.0981235,8.2684814 7.0915931,8.2687325 6.6718751,8.3203125 6.4390136,8.3489275 5.278369,8.5055087 4.3339845,8.6679688 3.3895951,8.8304292 2.5826788,8.9628906 2.5429689,8.9628906 2.4932639,8.9628906 2.4066995,8.8665726 2.263672,8.6523438 2.0358245,8.3110762 1.9393311,8.2502721 1.7812501,8.3535156 1.5452116,8.5076746 1.2092419,9.101058 1.0742189,9.605469 c -0.062512,0.233526 -0.0816501,0.696726 -0.066406,1.15039 0.00861,-0.26345 0.027827,-0.50627 0.066406,-0.65039 0.135023,-0.504411 0.4709927,-1.097794 0.7070312,-1.2519534 0.158081,-0.1032435 0.2545744,-0.042439 0.4824219,0.2988284 0.1430275,0.214227 0.2295928,0.310547 0.2792969,0.310547 0.03971,0 0.8466262,-0.132461 1.7910156,-0.294922 C 5.278369,9.005509 6.4390136,8.8489275 6.6718751,8.8203125 7.0915931,8.7687325 7.0981235,8.7684814 7.216797,8.6308594 7.4045545,8.4131179 7.4773364,8.2263969 7.5039063,7.9042969 7.4929914,7.7977748 7.4788938,7.7046219 7.4609376,7.6152344 Z M 14.371094,9.287109 c -0.160759,-0.0052 -0.324219,-0.0086 -0.324219,0.0059 0,0.01791 0.148076,0.244784 0.330078,0.503906 0.182004,0.259123 0.402011,0.597661 0.488281,0.751953 l 0.146485,0.263672 c 5.44e-4,-0.01894 0.0036,-0.04229 0.0039,-0.06055 l 0.0059,-0.421875 -0.15625,-0.28125 c -0.08627,-0.154292 -0.306277,-0.49283 -0.488281,-0.751953 -0.0034,-0.0049 -0.0024,-0.0049 -0.0059,-0.0098 z m -7.9335939,1.103516 c -0.00822,0.09413 -0.0079,0.117984 -0.021484,0.259766 -0.010114,0.105583 -0.00241,0.206227 0.015625,0.30664 0.032467,-0.356585 0.034121,-0.513454 0.00586,-0.566406 z m -3.9785156,0.222656 c -0.017011,0.0016 -0.1334995,0.0047 -0.1367188,0.0059 -0.068173,0.02391 -0.026856,0.166673 0.1640625,0.558593 0.039517,0.08112 0.037801,0.113836 0.060547,0.169922 0.094212,-0.247963 0.096033,-0.34849 -0.060547,-0.669922 -0.01469,-0.03016 -0.014396,-0.03719 -0.027344,-0.06445 z m 15.5371095,0.847657 c -0.103418,-0.02152 -0.188816,0.03232 -0.277344,0.15625 -0.09492,0.132865 -0.209091,0.443662 -0.244141,0.662109 -0.01357,0.08463 -0.04902,0.162692 -0.07813,0.173828 -0.03181,0.01217 -0.127769,0.04682 -0.242187,-0.06445 -0.390265,-0.379533 -0.732315,-0.512637 -0.849609,-0.330078 -0.02918,0.04542 -0.103661,0.213532 -0.166016,0.375 -0.145592,0.377003 -0.312214,0.51312 -0.429688,0.589844 -0.138388,0.09038 0.132494,0.0483 -0.189453,-0.09961 -0.240423,-0.110461 -0.270812,-0.137154 -0.386719,-0.34375 -0.09145,-0.163019 -0.142688,-0.29252 -0.167968,-0.445312 -0.03087,0.429645 -8.58e-4,0.644376 0.167968,0.945312 0.115907,0.206596 0.146296,0.233289 0.386719,0.34375 0.321947,0.14791 0.05106,0.189989 0.189453,0.09961 0.117474,-0.07672 0.284096,-0.212841 0.429688,-0.589844 0.06236,-0.161468 0.136835,-0.32958 0.166016,-0.375 0.117294,-0.182559 0.459344,-0.04946 0.849609,0.330078 0.114418,0.11127 0.210377,0.07662 0.242187,0.06445 0.02911,-0.01114 0.06455,-0.0892 0.07813,-0.173828 0.03505,-0.218447 0.149221,-0.529244 0.244141,-0.662109 0.177056,-0.247852 0.344243,-0.212442 0.660156,0.138671 0.423572,0.470768 0.876282,1.236869 1.103516,1.939453 C 19.813083,15.217682 20,16.619984 20,18.078125 v -0.5 c 0,-1.458141 -0.186917,-2.860443 -0.517578,-3.882813 -0.227234,-0.702584 -0.679944,-1.468685 -1.103516,-1.939453 -0.157956,-0.175556 -0.279394,-0.273405 -0.382812,-0.294921 z m -12.5195314,0.0332 c -0.2479544,0 -0.6282121,0.360877 -1.0273437,0.972656 -0.2421836,0.37121 -0.346915,0.579507 -0.6933594,1.382812 -0.370925,0.860078 -0.4444138,1.093996 -0.6054688,1.939453 -0.1242226,0.652119 -0.1353625,0.76852 -0.1328125,1.320313 2.721e-4,0.05799 0.00858,0.135846 0.00977,0.195313 0.00766,-0.299613 0.029295,-0.523463 0.1230468,-1.015626 0.161055,-0.845457 0.2345438,-1.079375 0.6054688,-1.939453 0.3464444,-0.803305 0.4511758,-1.011602 0.6933594,-1.382812 0.3991316,-0.611779 0.7793893,-0.972656 1.0273437,-0.972656 0.1516955,0 0.3497489,0.214928 1.0527344,1.136718 0.9051931,1.18693 0.7717667,1.489174 1.0117187,1.25 0.082161,-0.0819 0.069177,-0.207311 -0.00977,-0.49414 C 7.3091247,14.101285 7.4174601,13.795459 6.529297,12.630859 5.8263115,11.709069 5.6282581,11.494141 5.4765626,11.494141 Z m 1.6171875,4.449221 c -0.00821,0.03552 -0.00851,0.04705 -0.019531,0.0918 -0.07563,0.307024 -0.083604,0.672769 -0.0625,1.076172 0.01179,-0.200439 0.019748,-0.402618 0.0625,-0.576172 0.07729,-0.313753 0.084512,-0.378058 0.044922,-0.509765 z"/>
</svg>
