<svg xmlns="http://www.w3.org/2000/svg" width="22" height="22" version="1.1">
 <path style="opacity:0.2" d="m 11,1.4998021 -0.03809,0.00684 c -4.715034,0.1517718 -6.202579,3.58974 -6.392574,6.5302695 -0.1443665,2.2343504 0.316406,4.1816414 0.316406,4.1816414 0.04611,0.25504 0.1052505,0.517983 0.166016,0.78125 h 0.00195 l -0.0049,0.0019 c 0.073526,0.318194 0.156684,0.641324 0.244141,0.966797 l -2.757813,2.378905 c -1.0240573,1.061986 -0.4743221,2.67653 0.772461,3.100586 0.149756,0.05093 0.3687545,-0.155171 0.5371095,-0.141601 0.2185045,0.01761 0.3917875,0.240617 0.6357425,0.183594 0.336952,-1.257996 0.939057,-1.985883 1.637695,-2.520508 0.26262,1.046037 0.4464485,2.03424 0.393555,2.863281 0,0 0.4808085,0.402452 0.5361325,0.683594 0.02812,0.142898 -0.03046,0.351462 -0.097656,0.527344 0,0 -0.2017325,0.46183 0.28125,0.456054 H 9.665996 c 0.345198,0.01406 0.400976,0.04322 0.453125,-0.314453 l 0.295898,-1.300781 c 0.06409,-0.260382 0.06686,-0.34607 0.258789,-0.350586 v 0.01075 L 11,19.499803 l 0.326172,0.04492 v -0.01075 c 0.191927,0.0045 0.194705,0.0902 0.258789,0.350586 l 0.295899,1.300781 c 0.05215,0.357667 0.107926,0.328513 0.453125,0.314453 h 2.43457 c 0.482982,0.0058 0.281249,-0.456054 0.281249,-0.456054 -0.0672,-0.175882 -0.125775,-0.384446 -0.09766,-0.527344 0.05532,-0.281142 0.536132,-0.683594 0.536132,-0.683594 -0.0529,-0.829093 0.130908,-1.817171 0.393555,-2.863281 0.698638,0.534625 1.300743,1.262512 1.637695,2.520508 0.243955,0.05702 0.417238,-0.165985 0.635742,-0.183594 0.168355,-0.01357 0.387354,0.192536 0.53711,0.141601 1.246783,-0.424056 1.796518,-2.0386 0.772461,-3.100586 l -2.756836,-2.378906 c 0.08545,-0.318045 0.166044,-0.634164 0.238281,-0.945312 l -0.05566,-0.02343 h 0.05762 c 0.06076,-0.263267 0.119906,-0.52621 0.166016,-0.78125 0,0 0.460772,-1.94729 0.316406,-4.1816414 -0.189995,-2.9405275 -1.67754,-6.3784957 -6.392578,-6.5302715 z m -0.0059,1.0058594 a 1.0001,1.0001 0 0 0 0.0039,0 1.0001,1.0001 0 0 0 0.0078,0 c 2.118226,0.068185 3.327379,0.8120751 4.140625,1.8408201 0.813247,1.0287455 1.200346,2.427169 1.286132,3.754883 0.133129,2.0604184 -0.291015,3.8867194 -0.291015,3.8867194 a 1.0001,1.0001 0 0 0 -0.01172,0.05273 c -0.03393,0.187668 -0.08318,0.386524 -0.12793,0.582032 L 11,10.499803 5.9941405,12.604295 C 5.9510905,12.415204 5.9029675,12.222514 5.870117,12.040818 a 1.0001,1.0001 0 0 0 -0.01172,-0.05273 c 0,0 -0.424144,-1.8263 -0.2910155,-3.8867194 0.085787,-1.327718 0.472886,-2.7261415 1.2861325,-3.754887 0.8132465,-1.028745 2.022399,-1.7726349 4.140625,-1.8408201 z"/>
 <path style="fill:#b2bfd9" d="m 5.0483705,12.501987 c 0.544235,2.355243 1.581419,4.980432 1.4633485,6.831031 0,0 0.4808085,0.402451 0.5361325,0.683593 0.02812,0.142898 -0.03046,0.351463 -0.097656,0.527344 0,0 -0.2017325,0.461831 0.28125,0.456055 H 9.666016 c 0.345198,0.01406 0.400976,0.04322 0.453125,-0.314453 l 0.295898,-1.300782 c 0.06409,-0.260381 0.06686,-0.34607 0.258789,-0.350586 v 0.01074 L 11,19.00001 l 0.326172,0.04492 v -0.01074 c 0.191927,0.0045 0.194705,0.09021 0.258789,0.350586 l 0.295899,1.300782 c 0.05215,0.357667 0.107926,0.328512 0.453125,0.314452 h 2.43457 c 0.482982,0.0058 0.281249,-0.456055 0.281249,-0.456055 -0.0672,-0.175881 -0.125775,-0.384446 -0.09766,-0.527344 0.05532,-0.281142 0.536132,-0.683593 0.536132,-0.683593 -0.117717,-1.845057 0.912912,-4.460072 1.458446,-6.809865 L 11,10.00001 Z"/>
 <path style="fill:#b2bfd9" d="m 2.535054,15.847837 3.053074,-2.634024 1.28708,2.753753 C 5.869666,16.560576 4.934833,17.295001 4.4806405,18.990707 4.2366855,19.04773 4.06366,18.824678 3.8451555,18.807068 3.6768005,18.793498 3.457121,18.999193 3.307365,18.948258 2.0605817,18.524203 1.5109965,16.909822 2.535054,15.847837 Z"/>
 <path style="fill:#bac61d" d="m 11,4.0000096 c -2.761399,-5e-7 -5,1.9934645 -5,4.4524845 v 3.8293219 c 3.289432,0.383323 6.631897,0.225559 10,-0.193795 V 8.4524941 C 16,5.9934746 13.761399,4.0000096 11,4.0000096 Z"/>
 <circle style="opacity:0.2" cx="11" cy="8.5" r="3"/>
 <circle style="fill:#8b9cbe" cx="11" cy="8" r="3"/>
 <circle style="fill:#4d4d4d" cx="11" cy="8" r="2"/>
 <circle style="fill:#8b9cbe" cx="10.022" cy="7.016" r=".984"/>
 <ellipse style="fill:#bac61d" cx="11" cy="2.595" rx="1" ry=".5"/>
 <path style="fill:#bac61d" d="m 10.753,2.7359868 h 0.518 l 0.241346,1.4740963 h -1.032775 z"/>
 <path style="fill:none;stroke:#5e742c;stroke-width:0.5;stroke-linecap:round;stroke-linejoin:round" d="m 8.75,11.236701 c 1.73409,0.891093 3.082885,0.614538 4.5,0"/>
 <path style="opacity:0.4" d="M 4.7934725,13.899654 4.556168,14.103755 c -0.012875,0.493942 0.1698435,0.899913 0.4501955,1.239257 0.3303225,0.39983 0.790043,0.718351 1.231445,1.038086 0.00558,-0.004 0.01102,-0.0077 0.0166,-0.01172 l 0.03418,-0.04785 0.082031,-0.113281 C 6.3279095,16.177297 6.2852995,16.147295 6.24269,16.11645 5.84128,15.825868 5.4493425,15.537223 5.1743305,15.204341 4.8774315,14.84497 4.713639,14.442287 4.793471,13.899654 Z m -0.920898,0.793945 -0.1796875,0.155273 c 0.1782575,0.604294 0.4567045,1.033983 0.7929685,1.352539 0.3381895,0.320382 0.729516,0.530564 1.125,0.71582 0.054796,-0.05608 0.110253,-0.110895 0.166992,-0.163086 C 5.363645,16.562996 4.966865,16.357342 4.6352695,16.043208 4.308078,15.733246 4.0387005,15.318266 3.8725745,14.693599 Z m -0.871094,0.752929 -0.169922,0.145508 c 0.6714865,1.317218 1.479145,1.700125 2.2646485,1.970703 0.04124,-0.06383 0.083634,-0.125874 0.1269535,-0.185547 -0.8015,-0.270562 -1.556968,-0.587119 -2.22168,-1.930664 z"/>
 <path style="opacity:0.4" d="m 6.4921875,18.314463 c 0.0037,0.04486 0.00626,0.08914 0.00976,0.133789 0.00245,0.03613 0.00682,0.07362 0.00879,0.109375 1.254353,0.503167 2.5560495,0.809089 3.9414065,0.704102 0.03697,-0.13938 0.07374,-0.219258 0.210938,-0.225586 l -10e-4,-0.01074 C 9.197041,19.184899 7.826614,18.86206 6.4921875,18.314463 Z m 0.02246,0.952148 c -0.0011,0.02118 -0.00165,0.04248 -0.00295,0.06348 -3.9e-5,6.5e-4 4e-5,0.0013 0,0.002 0,0 0.1101005,0.09924 0.220703,0.212891 0.01305,0.01341 0.01303,0.01015 0.026365,0.02442 0.00155,0.0016 0.0014,0.0013 0.00295,0.0029 1.1478725,0.334333 2.3220025,0.495679 3.5361325,0.328125 l 0.05176,-0.227539 c -1.313175,0.197502 -2.5818545,-0.0068 -3.834961,-0.40625 z m 3.7216795,0.904297 c -1.063154,0.265588 -2.129525,0.260827 -3.203125,0.102539 -0.01523,0.07027 -0.03799,0.141647 -0.0625,0.210938 1.068519,0.160188 2.140026,0.174358 3.210937,-0.0752 z"/>
 <path style="opacity:0.4;fill:none;stroke:#000000;stroke-width:0.19216402" d="m 8.0888355,15.007991 c 2.2374385,0.334706 3.8447065,0.211106 5.2081835,-0.0898 m -4.639474,-0.808167 -0.5687095,0.897963 0.508845,2.753905 c 1.6018425,0.272162 3.0674575,0.22646 4.4299495,-0.05986 l 0.269389,-2.783837 -0.359186,-0.808167 z"/>
 <path style="fill:#b2bfd9" d="m 19.464946,15.847837 -3.053074,-2.634024 -1.28708,2.753753 c 1.005542,0.59301 1.940375,1.327435 2.394568,3.023141 0.243955,0.05702 0.41698,-0.166029 0.635485,-0.183639 0.168354,-0.01357 0.388034,0.192125 0.53779,0.14119 1.246784,-0.424056 1.796369,-2.038436 0.772311,-3.100421 z"/>
 <path style="opacity:0.4" d="m 17.206527,13.899654 0.237305,0.204101 c 0.01288,0.493942 -0.169843,0.899913 -0.450196,1.239257 -0.330322,0.39983 -0.790043,0.718351 -1.231445,1.038086 -0.0056,-0.004 -0.01102,-0.0077 -0.0166,-0.01172 l -0.03418,-0.04785 -0.08203,-0.113281 c 0.04271,-0.03095 0.08532,-0.06095 0.12793,-0.0918 0.40141,-0.290582 0.793347,-0.579227 1.068359,-0.912109 0.296899,-0.359371 0.460692,-0.762054 0.38086,-1.304687 z m 0.920898,0.793945 0.179688,0.155273 c -0.178258,0.604294 -0.456705,1.033983 -0.792969,1.352539 -0.338189,0.320382 -0.729516,0.530564 -1.125,0.71582 -0.0548,-0.05608 -0.110253,-0.110895 -0.166992,-0.163086 0.414203,-0.191149 0.810983,-0.396803 1.142578,-0.710937 0.327192,-0.309962 0.596569,-0.724942 0.762695,-1.349609 z m 0.871094,0.752929 0.169922,0.145508 c -0.671486,1.317218 -1.479145,1.700125 -2.264648,1.970703 -0.04124,-0.06383 -0.08363,-0.125874 -0.126954,-0.185547 0.801501,-0.270562 1.556969,-0.587119 2.22168,-1.930664 z"/>
 <path style="opacity:0.4" d="m 15.507812,18.314463 c -0.0037,0.04486 -0.0063,0.08914 -0.0098,0.133789 -0.0024,0.03613 -0.0068,0.07362 -0.0088,0.109375 -1.254353,0.503167 -2.556049,0.809089 -3.941406,0.704102 -0.03697,-0.13938 -0.07374,-0.219258 -0.210938,-0.225586 l 10e-4,-0.01074 c 1.465046,0.159496 2.835473,-0.163343 4.169899,-0.71094 z m -0.02246,0.952148 c 0.0011,0.02118 0.0017,0.04248 0.003,0.06348 3.9e-5,6.5e-4 -4e-5,0.0013 0,0.002 0,0 -0.1101,0.09924 -0.220703,0.212891 -0.01305,0.01341 -0.01303,0.01015 -0.02637,0.02442 -0.0015,0.0016 -0.0014,0.0013 -0.0029,0.0029 -1.147873,0.334333 -2.322002,0.495679 -3.536133,0.328125 l -0.05176,-0.227539 c 1.313175,0.197502 2.581855,-0.0068 3.834961,-0.40625 z m -3.721679,0.904297 c 1.063154,0.265588 2.129525,0.260827 3.203125,0.102539 0.01523,0.07027 0.03799,0.141647 0.0625,0.210938 -1.068519,0.160188 -2.140026,0.174358 -3.210937,-0.0752 z"/>
 <path style="fill:#b2bfd9" d="m 11,1.0000096 -0.03809,0.00684 C 6.246876,1.1586214 4.759331,4.5965896 4.569336,7.5371191 4.4249695,9.7714696 4.885742,11.71876 4.885742,11.71876 c 0.04611,0.255041 0.1052505,0.517984 0.166016,0.78125 H 6.0810545 C 5.999444,12.172168 5.9260235,11.850246 5.870117,11.541026 a 1.0001,1.0001 0 0 0 -0.01172,-0.05274 c 0,0 -0.424144,-1.8263004 -0.2910155,-3.8867189 C 5.653168,6.2738581 6.0402675,4.8754346 6.853514,3.8466893 7.6667605,2.8179442 8.875913,2.0740542 10.994139,2.005869 a 1.0001,1.0001 0 0 0 0.0039,0 1.0001,1.0001 0 0 0 0.0078,0 c 2.118226,0.068185 3.327378,0.8120752 4.140625,1.8408203 0.813246,1.0287453 1.200346,2.4271688 1.286132,3.7548828 0.133129,2.0604185 -0.291015,3.8867189 -0.291015,3.8867189 a 1.0001,1.0001 0 0 0 -0.01172,0.05274 c -0.0559,0.30922 -0.12932,0.631142 -0.210931,0.958984 h 1.029297 c 0.06076,-0.263266 0.119906,-0.526209 0.166016,-0.78125 0,0 0.460772,-1.9472904 0.316406,-4.1816409 -0.18998,-2.9405345 -1.677525,-6.3785027 -6.392563,-6.5302785 z"/>
 <path style="opacity:0.2;fill:#8b9cbe" d="m 11,1.0000096 -0.03809,0.00684 C 6.246876,1.1586214 4.759331,4.5965896 4.569336,7.5371191 4.544101,7.9277096 4.541796,8.3028251 4.547851,8.6670016 4.551501,8.4595411 4.555496,8.2513191 4.569336,8.0371191 4.759331,5.0965896 6.246875,1.6586214 10.961914,1.5068456 L 11,1.5000096 l 0.03809,0.00684 c 4.715038,0.1517758 6.202583,3.589746 6.392578,6.5302735 0.01384,0.2142 0.01783,0.422422 0.02149,0.6298825 0.0061,-0.3641765 0.0038,-0.739292 -0.02149,-1.1298825 C 17.240669,4.5965896 15.753124,1.1586214 11.038086,1.0068456 Z m 5.811523,12.5576174 c -0.03504,0.137335 -0.06635,0.272819 -0.103515,0.411133 l 2.756836,2.378906 c 0.303819,0.315073 0.465961,0.679071 0.515625,1.045898 0.07455,-0.524674 -0.07305,-1.086934 -0.515625,-1.545898 z m -11.62207,10e-4 -2.654297,2.289062 C 2.0925834,16.306653 1.9449818,16.868912 2.0195313,17.393587 2.0691942,17.02676 2.2313362,16.662762 2.535156,16.347689 L 5.292969,13.96876 C 5.255869,13.830686 5.2246,13.695637 5.189453,13.558604 Z m 1.808594,6.830078 c -0.01579,0.0524 -0.02897,0.105854 -0.04785,0.155273 0,0 -0.114177,0.261495 0.03418,0.388672 0.04836,-0.147788 0.085933,-0.301896 0.063477,-0.416016 -0.00798,-0.04055 -0.026845,-0.08391 -0.049805,-0.127929 z m 8.003906,0 c -0.02296,0.04402 -0.04183,0.08738 -0.04981,0.127929 -0.02245,0.11412 0.01512,0.268228 0.06348,0.416016 0.148356,-0.127177 0.03418,-0.388672 0.03418,-0.388672 -0.01888,-0.04942 -0.03207,-0.102876 -0.04785,-0.155273 z"/>
</svg>
