<svg xmlns="http://www.w3.org/2000/svg" width="22" height="22" version="1.1">
 <g style="opacity:0.2" transform="matrix(0.6666667,0,0,0.6666667,21.64532,-0.69557323)">
  <path transform="matrix(0.74999998,0,0,0.74999998,-33.967978,0.29335906)" d="m 11,4 c -3.8780001,0 -7,3.1219999 -7,7 0,3.878 3.1219999,7 7,7 h 9.099609 L 6.0566406,32.042969 c -2.7421601,2.74216 -2.7421601,7.15823 0,9.90039 2.7421602,2.742161 7.1582304,2.742161 9.9003904,0 L 30,27.900391 V 37 c 0,3.878 3.122,7 7,7 3.878,0 7,-3.122 7,-7 V 11 C 44,7.1219999 40.878,4 37,4 Z"/>
 </g>
 <g style="fill:#e7b212" transform="matrix(0.6666667,0,0,0.6666667,21.64532,-1.1955732)">
  <path style="fill:#e7b212" transform="matrix(0.74999998,0,0,0.74999998,-33.967978,0.29335906)" d="m 11,4 c -3.8780001,0 -7,3.1219999 -7,7 0,3.878 3.1219999,7 7,7 h 9.099609 L 6.0566406,32.042969 c -2.7421601,2.74216 -2.7421601,7.15823 0,9.90039 2.7421602,2.742161 7.1582304,2.742161 9.9003904,0 L 30,27.900391 V 37 c 0,3.878 3.122,7 7,7 3.878,0 7,-3.122 7,-7 V 11 C 44,7.1219999 40.878,4 37,4 Z"/>
 </g>
 <g style="fill:#8b9cbe" transform="matrix(0.6666667,0,0,0.6666667,21.64532,-1.1955732)">
  <path style="opacity:0.2;fill:#8b9cbe" transform="matrix(0.74999998,0,0,0.74999998,-33.967978,0.29335906)" d="M 11,4 C 7.1219999,4 4,7.1219999 4,11 4,11.169082 4.013717,11.333988 4.025391,11.5 4.2814602,7.8584336 7.2910824,5 11,5 h 26 c 3.878,0 7,3.1219999 7,7 V 11 C 44,7.1219999 40.878,4 37,4 Z M 19.099609,19 6.0566406,32.042969 C 4.5580161,33.541593 3.8840282,35.540115 4.0234375,37.492188 4.1394191,35.87289 4.8134761,34.286133 6.0566406,33.042969 L 20.099609,19 Z"/>
 </g>
</svg>
