<svg xmlns="http://www.w3.org/2000/svg" width="22" height="22" version="1">
 <rect style="opacity:0.2" width="20" height="20" x="1" y="1.5" rx="1" ry="1"/>
 <rect style="fill:#b2bfd9" width="20" height="20" x="1" y="1" rx="1" ry="1"/>
 <path style="opacity:0.2;fill:#8b9cbe" d="M 2,1 C 1.446,1 1,1.446 1,2 v 0.5 c 0,-0.554 0.446,-1 1,-1 h 18 c 0.554,0 1,0.446 1,1 V 2 C 21,1.446 20.554,1 20,1 Z"/>
 <path style="opacity:0.1;fill:none;stroke:#000000;stroke-width:4;stroke-linecap:round;stroke-linejoin:round" d="m 7.0232166,11.5 3.5002004,3.000074 5.5,-7.0000008"/>
 <path style="fill:none;stroke:#3b89e1;stroke-width:4;stroke-linecap:round;stroke-linejoin:round" d="m 7.0232166,11 3.5002004,3.000074 5.5,-7.0000008"/>
</svg>
