<svg xmlns="http://www.w3.org/2000/svg" width="22" height="22" version="1">
 <path style="fill:#1a5fb4" d="M 3.5000001,0.999833 C 2.115,0.999833 1,2.114833 1,3.499833 v 7.5 6.750083 2.250167 h 1.0000001 v -2 h 1 v 2 h 1 v -2 h 2 v -7.00025 -7.5 c 0,-1.385 -1.115,-2.5 -2.5,-2.5 z"/>
 <path style="fill:#3584e4" d="m 13.307693,0.999833 v 0.00977 C 13.371403,1.004773 13.435012,0.999833 13.5,0.999833 Z m 0.192307,0 c 1.385,0 2.5,1.115 2.5,2.5 0,5.833334 0,-3.3333334 0,2.5 h 5 c 0,-5.8333334 0,3.333334 0,-2.5 0,-1.385 -1.115,-2.5 -2.5,-2.5 -0.06499,0 -0.128596,0.00494 -0.192307,0.00977 v -0.00977 z"/>
 <rect style="fill:#99c1f1" width="5" height="5" x="16" y="6"/>
 <rect style="fill:#3584e4" width="5" height="5" x="16" y="11"/>
 <path style="fill:#b4d6ff" d="m 8.3076926,0.999833 v 0.00977 c 0.063712,-0.00483 0.127319,-0.00977 0.1923075,-0.00977 z m 0.1923075,0 c 1.385,0 2.4999999,1.115 2.4999999,2.5 0,5.833334 0,-3.3333334 0,2.5 h 5 c 0,-5.8333334 0,3.333334 0,-2.5 0,-1.385 -1.115,-2.5 -2.5,-2.5 -0.06499,0 -0.128596,0.00494 -0.192307,0.00977 v -0.00977 z"/>
 <rect style="fill:#1c71d8" width="5" height="5" x="11" y="6"/>
 <path style="fill:#3584e4" d="m 3.3076923,0.999833 v 0.00977 c 0.063712,-0.00483 0.1273194,-0.00977 0.1923078,-0.00977 z m 0.1923078,0 c 1.385,0 2.5,1.115 2.5,2.5 0,5.833334 0,-3.3333334 0,2.5 H 11 c 0,-5.8333334 0,3.333334 0,-2.5 0,-1.385 -1.1149999,-2.5 -2.4999999,-2.5 -0.064989,0 -0.128596,0.00494 -0.1923075,0.00977 v -0.00977 z"/>
 <rect style="fill:#99c1f1" width="5" height="5" x="6" y="6"/>
 <rect style="fill:#3584e4" width="5" height="5" x="6" y="11"/>
 <rect style="fill:#b4d6ff" width="5" height="5" x="11" y="11"/>
 <path style="fill:#99c1f1" d="M 16,15.999833 V 19 21 h 1 v -2 h 1 v 2 h 1 v -2 h 2 v -3.000167 z"/>
 <path style="fill:#1c71d8" d="M 11,15.999833 V 19 21 h 1 v -2 h 1 v 2 h 1 v -2 h 2 v -3.000167 z"/>
 <path style="fill:#99c1f1" d="M 6.0000001,15.999833 V 19 21 h 1 v -2 h 1 v 2 h 1 V 19 H 11 v -3.000167 z"/>
 <path style="opacity:0.2;fill:#8b9cbe" d="M 3.3076173,1 V 1.00977 C 3.371329,1.0049364 3.4350117,1 3.5000001,1 Z m 0.1923828,0 c 0.561459,0 1.072835,0.1898212 1.489258,0.5 H 8.3076171 8.5000001 13.307617 13.5 18.307617 V 1.50977 C 18.371328,1.5049352 18.435012,1.5 18.5,1.5 19.885,1.5 21,2.615 21,4 V 3.5 C 21,2.115 19.885,1 18.5,1 18.43501,1 18.371328,1.00494 18.307617,1.00977 V 1 H 13.5 13.307617 8.5000001 8.3076171 Z m 2.5,5 V 6.5 H 11 V 6 Z M 16,6 v 0.5 h 5 V 6 Z m -5,5 v 0.5 h 5 V 11 Z m -4.9999999,5 v 0.5 H 11 V 16 Z M 16,16 v 0.5 h 5 V 16 Z"/>
 <path style="opacity:0.2" d="m 11,6 v 0.5 h 5 V 6 Z m -4.9999999,5 v 0.5 H 11 V 11 Z M 16,11 v 0.5 h 5 V 11 Z m -5,5 v 0.5 h 5 V 16 Z m -8.9999999,2 v 0.5 h 1 V 18 Z m 2,0 v 0.5 h 2 V 18 Z m 3,1 v 0.5 h 1 V 19 Z m 2,0 v 0.5 H 11 V 19 Z M 12,19 v 0.5 h 1 V 19 Z m 2,0 v 0.5 h 2 V 19 Z m 3,0 v 0.5 h 1 V 19 Z m 2,0 v 0.5 h 2 V 19 Z M 1.0000001,20 v 0.5 h 1 V 20 Z m 2,0 v 0.5 h 1 V 20 Z m 3,1 v 0.5 h 1 V 21 Z m 2,0 v 0.5 h 1 V 21 Z M 11,21 v 0.5 h 1 V 21 Z m 2,0 v 0.5 h 1 V 21 Z m 3,0 v 0.5 h 1 V 21 Z m 2,0 v 0.5 h 1 V 21 Z"/>
</svg>
