<svg xmlns="http://www.w3.org/2000/svg" width="22" height="22" version="1.1">
 <path style="opacity:0.2" d="m 11,3.4999998 c -4.970563,0 -9,4.0294372 -9,9.0000002 0,3.323062 1.8009847,6.22548 4.4801285,7.784431 1.328261,0.772894 2.9161525,0.07725 4.5636535,0.07725 2.696009,0 5.071365,-0.04711 6.720832,-1.925172 C 19.156227,16.852033 20,14.774553 20,12.5 20,7.529437 15.970563,3.4999998 11,3.4999998 Z"/>
 <path style="fill:#82652d" d="M 11,2.9999999 A 9,9 0 0 0 2,12 a 9,9 0 0 0 9,9 9,9 0 0 0 9,-9 9,9 0 0 0 -9,-9.0000001 z"/>
 <path style="opacity:0.1;fill:#8b9cbe" d="M 11,3 A 9,9 0 0 0 2,12 9,9 0 0 0 2.0107422,12.207031 9,9 0 0 1 11,3.5 9,9 0 0 1 19.989258,12.292969 9,9 0 0 0 20,12 9,9 0 0 0 11,3 Z"/>
 <path style="opacity:0.2" d="m 11,5.5 a 7,7 0 0 0 -7,7 7,7 0 0 0 7,7 7,7 0 0 0 7,-7 7,7 0 0 0 -7,-7 z"/>
 <path style="fill:#00a7a1" d="m 11,5 a 7,7 0 0 0 -7,7 7,7 0 0 0 7,7 7,7 0 0 0 7,-7 7,7 0 0 0 -7,-7 z"/>
 <path style="opacity:0.1;fill:#8b9cbe" d="M 11,5 A 7,7 0 0 0 4,12 7,7 0 0 0 4.010742,12.207031 7,7 0 0 1 11,5.5 7,7 0 0 1 17.989258,12.292969 7,7 0 0 0 18,12 7,7 0 0 0 11,5 Z"/>
 <path style="opacity:0.2" d="M 6.2988207,1.5 C 5.1436932,1.5004552 4.565309,2.9048302 5.3818232,3.7265625 L 6.5016857,5.08356 V 16.717391 17.91644 L 5.3818232,19.273438 C 4.5653098,20.09517 5.1436937,21.499544 6.2988207,21.5 H 10.986588 17.1068 c 0.408374,-8.8e-5 0.792861,-0.193583 1.037742,-0.522249 l 1.594223,-2.478027 C 20.379121,17.639826 19.769261,16.500389 18.701023,16.5 H 11.999789 V 2.8043479 C 11.999717,2.0840065 11.452755,1.5000724 10.736489,1.5 Z"/>
 <path style="fill:#f0b530" d="M 6.2991327,1 C 5.1440052,1.0004552 4.565621,2.4048302 5.3821352,3.2265625 L 6.5019977,4.58356 V 16.217391 17.41644 L 5.3821352,18.773438 C 4.5656218,19.59517 5.1440057,20.999544 6.2991327,21 H 10.9869 17.1068 c 0.408374,-8.8e-5 0.792861,-0.193583 1.037742,-0.522249 l 1.594223,-2.478027 C 20.379121,17.139826 19.769261,16.000389 18.701023,16 H 12.000101 V 2.3043479 C 12.000029,1.5840065 11.453067,1.0000724 10.736801,1 Z"/>
 <path style="opacity:0.2;fill:#8b9cbe" d="M 6.2984632,1 C 5.4191062,1.0003466 4.875942,1.8142874 5.0260022,2.5654297 5.1357322,1.9931553 5.6145162,1.5002695 6.2984632,1.5 h 4.4383738 c 0.716266,7.24e-5 1.262623,0.5843462 1.262695,1.3046875 v -0.5 C 11.99946,1.5843462 11.453103,1.0000724 10.736837,1 Z m 5.7010688,15 v 0.5 h 6.70164 c 0.667649,2.43e-4 1.15624,0.445468 1.272461,0.989258 C 20.130686,16.748166 19.56646,16.000315 18.701172,16 Z m -5.4979438,1.416015 -1.120117,1.357422 c -0.3330585,0.335188 -0.4310631,0.766886 -0.355469,1.161133 0.04706,-0.235562 0.160538,-0.464956 0.355469,-0.661133 l 1.120117,-1.357422 z"/>
</svg>
