<svg xmlns="http://www.w3.org/2000/svg" width="22" height="22" version="1">
 <rect style="opacity:0.2" width="18" height="18" x="-20.5" y="-20" rx=".9" ry=".9" transform="matrix(0,-1,-1,0,0,0)"/>
 <rect style="fill:#309b30" width="18" height="18" x="-20" y="-20" rx=".9" ry=".9" transform="matrix(0,-1,-1,0,0,0)"/>
 <path style="opacity:0.1;fill:#8b9cbe" d="M 2.9003906,2 C 2.4017907,2 2,2.4017906 2,2.9003906 v 0.5 C 2,2.9017906 2.4017907,2.5 2.9003906,2.5 H 19.099609 C 19.598209,2.5 20,2.9017906 20,3.4003906 v -0.5 C 20,2.4017906 19.598209,2 19.099609,2 Z"/>
 <path style="opacity:0.25" d="m 2,13 v 6.099609 C 2,19.598209 2.4017907,20 2.9003906,20 H 19.099609 C 19.598209,20 20,19.598209 20,19.099609 V 13 Z"/>
 <path style="opacity:0.2" d="M 1.5,1.5 C 1.223,1.5 1,1.723 1,2 v 12 0.5 h 8 v 4.513672 C 9,19.283185 9.296682,19.5 9.666016,19.5 h 2.667968 C 12.703318,19.5 13,19.283185 13,19.013672 V 14.5 h 8 V 11.5 2 C 21,1.723 20.777,1.5 20.5,1.5 h -1 C 19.223,1.5 19,1.723 19,2 v 9.5 H 13 V 1.9863281 C 13,1.7168146 12.703318,1.5 12.333984,1.5 H 9.666016 C 9.296682,1.5 9,1.7168146 9,1.9863281 V 11.5 H 3 V 2 C 3,1.723 2.777,1.5 2.5,1.5 Z"/>
 <rect style="fill:#ffa402" width="2" height="13" x="1" y="1" rx=".5" ry=".5"/>
 <rect style="fill:#ffa402" width="2" height="13" x="19" y="1" rx=".5" ry=".5"/>
 <rect style="fill:#ffa402" width="3" height="20" x="11" y="-21" transform="rotate(90)"/>
 <rect style="fill:#ffa402" width="4" height="18" x="-13" y="-19" rx=".667" ry=".486" transform="scale(-1)"/>
 <path style="opacity:0.2;fill:#8b9cbe" d="M 1.5,1 C 1.223,1 1,1.223 1,1.5 V 2 C 1,1.723 1.223,1.5 1.5,1.5 h 1 C 2.777,1.5 3,1.723 3,2 V 1.5 C 3,1.223 2.777,1 2.5,1 Z M 9.666016,1 C 9.296682,1 9,1.2168146 9,1.4863281 v 0.5 C 9,1.7168146 9.296682,1.5 9.666016,1.5 h 2.667968 C 12.703318,1.5 13,1.7168146 13,1.9863281 v -0.5 C 13,1.2168146 12.703318,1 12.333984,1 Z M 19.5,1 C 19.223,1 19,1.223 19,1.5 V 2 c 0,-0.277 0.223,-0.5 0.5,-0.5 h 1 C 20.777,1.5 21,1.723 21,2 V 1.5 C 21,1.223 20.777,1 20.5,1 Z M 3,11 v 0.5 H 9 V 11 Z m 10,0 v 0.5 h 6 V 11 Z"/>
 <rect style="opacity:0.2" width="10" height="10" x="6" y="7.5" rx="1.111" ry="1.111"/>
 <rect style="fill:#ffdc2f" width="10" height="10" x="6" y="7" rx="1.111" ry="1.111"/>
 <rect style="fill:#17191e" width="4" height="3" x="9" y="9"/>
 <rect style="fill:#17191e" width="2" height="3" x="10" y="12"/>
 <path style="opacity:0.2;fill:#8b9cbe" d="M 7.1113281,7 C 6.4957725,7 6,7.4957725 6,8.1113281 v 0.5 C 6,7.9957725 6.4957725,7.5 7.1113281,7.5 H 14.888672 C 15.504227,7.5 16,7.9957725 16,8.6113281 v -0.5 C 16,7.4957725 15.504227,7 14.888672,7 Z"/>
</svg>
