<svg xmlns="http://www.w3.org/2000/svg" width="22" height="22" version="1">
 <rect style="opacity:0.2" width="20" height="20" x="1" y="1.5" rx="6" ry="6"/>
 <path style="fill:#8ed019" d="m 7,1 h 8 c 3.324,0 6,2.676 6,6 v 8 c 0,1.720119 -0.716607,3.266709 -1.868786,4.358737 C 18.056894,20.37697 16.603881,20.2 15,20.2 H 7 C 5.545369,20.2 4.2148345,20.48753 3.1783545,19.632544 1.8463582,18.53379 1,16.869369 1,15 V 7 C 1,3.676 3.676,1 7,1 Z"/>
 <path style="opacity:0.2;fill:#8b9cbe" d="M 7,1 C 3.676,1 1,3.676 1,7 v 0.5 c 0,-3.324 2.676,-6 6,-6 h 8 c 3.324,0 6,2.676 6,6 V 7 C 21,3.676 18.324,1 15,1 Z"/>
 <path style="fill:#17191e" d="m 20.638672,4.9609375 c -1.175116,0.055821 -2.457256,0.2204219 -3.585938,0.4980469 -5.904588,1.4442875 -8.7519522,4.8749996 -8.7519528,4.8749996 0,0 1.7965958,4.377301 5.1269528,6.908204 0.830209,0.62928 1.695977,1.207674 2.580078,1.757812 h -3.376953 c -0.0095,-0.0066 -0.01987,-0.01295 -0.0293,-0.01953 C 10.477612,17.495401 8.0761719,14.712891 8.0761719,14.712891 7.3540294,15.254075 6.515786,15.243478 5.8046875,15.572266 5.0935865,15.901054 4.625,16.148438 4.625,16.148438 c 0,0 0.6479601,0.881118 3.3476562,2.851562 H 2.53125 c 0.00994,0.01092 0.019367,0.02227 0.029297,0.0332 0.05734,0.06313 0.1119118,0.128834 0.171875,0.189453 0.1001622,0.101229 0.2072993,0.195171 0.3144531,0.289063 0.044816,0.03927 0.084871,0.08316 0.1308594,0.121093 0,0 0.00195,0 0.00195,0 0.00522,0.0043 0.010391,0.0075 0.015625,0.01172 C 4.2294844,20.49167 5.5527924,21 7,21 h 8 c 1.572598,0 2.994735,-0.604718 4.0625,-1.587891 0.02206,-0.01965 0.0466,-0.03211 0.06836,-0.05273 0.02167,-0.02053 0.04114,-0.0436 0.0625,-0.06445 0.06627,-0.0647 0.128194,-0.133466 0.191407,-0.201172 0.02861,-0.03064 0.05551,-0.06291 0.08398,-0.09375 h -0.580078 c -1.017825,-0.611584 -2.788506,-1.82644 -4.332031,-3.785156 -2.265833,-2.874981 -2.265625,-3.865235 -2.265625,-3.865235 0,0 2.351719,-2.364778 4.74414,-3.3417965 1.293881,-0.5281151 2.881262,-0.9280833 3.955078,-1.1875 -1.18e-4,-0.00392 1.26e-4,-0.0078 0,-0.011719 -9.12e-4,-0.00405 -0.0018,-0.0081 -0.002,-0.011719 -0.0079,-0.239928 -0.02983,-0.4753475 -0.06445,-0.7070312 -0.03382,-0.2263296 -0.08005,-0.4489034 -0.138672,-0.6660157 -0.0013,-0.00521 -0.0026,-0.010417 -0.0039,-0.015625 -0.0033,-0.01318 -0.0083,-0.025918 -0.01172,-0.039063 -0.03742,-0.1328406 -0.07892,-0.2634806 -0.125,-0.3925781 -9.39e-4,-0.00249 -0.001,-0.00532 -0.002,-0.00781 -8e-4,-0.00225 -0.0011,-0.00557 -0.002,-0.00781 -6.29e-4,2.98e-5 -0.0013,-2.99e-5 -0.002,0 z M 21,8.2929688 c -0.12168,0.04073 -0.270549,0.083026 -0.367188,0.1269531 -3.582685,1.6277961 -5.05664,4.0058591 -5.05664,4.0058591 0,0 0.701986,2.259212 3.144531,4.71875 0,0 -0.606203,-3.016698 -0.669922,-4.173828 C 18.832905,11.952412 19.894423,11.0945 21,10.433594 Z"/>
 <path style="opacity:0.2" d="m 20.638672,4.9609375 c -1.175116,0.055821 -2.457256,0.2204219 -3.585938,0.4980469 -5.904588,1.4442875 -8.7519521,4.8749996 -8.7519528,4.8749996 0,0 0.1074643,0.227975 0.15625,0.337891 0.3846264,-0.435683 3.1200038,-3.373511 8.5957028,-4.7128906 1.128682,-0.277625 2.410822,-0.4422259 3.585938,-0.4980469 0,0 0.002,0 0.002,0 9e-4,0.00224 0.0012,0.00556 0.002,0.00781 10e-4,0.00249 10e-4,0.00532 0.002,0.00781 0.04608,0.1290975 0.08758,0.2597375 0.125,0.3925781 0.0034,0.013145 0.0084,0.025883 0.01172,0.039063 l 0.0039,0.015625 c 0.05862,0.2171123 0.104852,0.4396861 0.138672,0.6660157 0.01186,0.079344 0.01266,0.1619364 0.02148,0.2421874 0.01288,-0.00312 0.03219,-0.00864 0.04492,-0.011719 -1.18e-4,-0.00392 1.26e-4,-0.0078 0,-0.011719 -9.12e-4,-0.00405 -0.0018,-0.0081 -0.002,-0.011719 -0.0079,-0.239928 -0.02983,-0.4753475 -0.06445,-0.7070312 -0.03382,-0.2263296 -0.08005,-0.4489034 -0.138672,-0.6660157 -0.0013,-0.00521 -0.0026,-0.010417 -0.0039,-0.015625 -0.0033,-0.01318 -0.0083,-0.025918 -0.01172,-0.039063 -0.03742,-0.1328406 -0.07892,-0.2634806 -0.125,-0.3925781 -9.39e-4,-0.00249 -10e-4,-0.00532 -0.002,-0.00781 -8e-4,-0.00225 -0.0011,-0.00557 -0.002,-0.00781 0,0 -0.002,0 -0.002,0 z M 21,8.2929688 c -0.12168,0.04073 -0.270549,0.083026 -0.367188,0.1269531 -3.582685,1.6277961 -5.05664,4.0058591 -5.05664,4.0058591 0,0 0.05342,0.147822 0.125,0.328125 0.291893,-0.42733 1.737805,-2.382862 4.93164,-3.8339841 C 20.729451,8.8759948 20.87832,8.8336987 21,8.7929688 Z m -8.599609,3.4531252 c -0.02069,0.02037 -0.109375,0.103515 -0.109375,0.103515 0,0 -2.08e-4,0.990254 2.265625,3.865235 1.543525,1.958716 3.314206,3.173572 4.332031,3.785156 h 0.05859 c 0.03634,-0.03189 0.07968,-0.05515 0.115234,-0.08789 0.02206,-0.01965 0.0466,-0.03211 0.06836,-0.05273 0.02167,-0.02053 0.04114,-0.0436 0.0625,-0.06445 0.06627,-0.0647 0.128194,-0.133466 0.191407,-0.201172 0.02861,-0.03064 0.05551,-0.06291 0.08398,-0.09375 h -0.580078 c -1.017825,-0.611584 -2.788506,-1.82644 -4.332031,-3.785156 -1.529198,-1.940309 -1.994685,-2.970399 -2.15625,-3.46875 z m 5.701171,1.666015 c -0.01586,0.02024 -0.03514,0.03823 -0.05078,0.05859 0.0516,0.936984 0.399624,2.758362 0.552735,3.544922 0.04201,0.04325 0.0741,0.08552 0.117187,0.128906 0,0 -0.476484,-2.403459 -0.619141,-3.732422 z M 8.0761719,14.712891 C 7.3540294,15.254075 6.515786,15.243478 5.8046875,15.572266 5.0935865,15.901054 4.625,16.148438 4.625,16.148438 c 0,0 0.1207033,0.138672 0.3183594,0.34375 0.1727295,-0.08871 0.3423108,-0.179947 0.8613281,-0.419922 0.7110985,-0.328788 1.5493419,-0.318191 2.2714844,-0.859375 0,0 2.4014431,2.782509 4.5253901,4.267578 0.0094,0.0066 0.0198,0.01293 0.0293,0.01953 h 3.376953 C 15.747611,19.338088 15.492914,19.167384 15.236328,19 h -2.605469 c -0.0095,-0.0066 -0.01987,-0.01295 -0.0293,-0.01953 C 10.477613,17.495401 8.0761719,14.712891 8.0761719,14.712891 Z M 2.53125,19 c 0.00994,0.01092 0.019367,0.02227 0.029297,0.0332 0.05734,0.06313 0.1119118,0.128834 0.171875,0.189453 C 2.828364,19.31962 2.9305772,19.410048 3.0332031,19.5 H 7.9726562 C 7.7085222,19.307215 7.5484344,19.172125 7.3222656,19 Z"/>
 <path style="opacity:0.2;fill:#8b9cbe" d="m 20.945312,6.8320312 c -1.073005,0.2596327 -2.631619,0.653929 -3.910156,1.1757813 -2.392421,0.9770185 -4.74414,3.3417965 -4.74414,3.3417965 0,0 0.03155,0.156422 0.109375,0.396485 0.286063,-0.28159 2.403725,-2.327168 4.634765,-3.2382815 1.293881,-0.5281151 2.881262,-0.9280833 3.955078,-1.1875 -1.18e-4,-0.00392 1.26e-4,-0.0078 0,-0.011719 -9.12e-4,-0.00405 -0.0018,-0.0081 -0.002,-0.011719 -0.0052,-0.1577609 -0.02602,-0.3107617 -0.04297,-0.4648438 z M 21,10.433594 c -1.105577,0.660906 -2.167095,1.518818 -2.949219,2.537109 0.0062,0.111953 0.0355,0.299057 0.05078,0.441406 C 18.878904,12.420485 19.916535,11.581282 21,10.933594 Z M 8.4570312,10.671875 c -0.030126,0.03412 -0.1562499,0.162109 -0.15625,0.162109 0,0 1.7965958,4.377301 5.1269528,6.908204 0.585869,0.444075 1.193363,0.856466 1.808594,1.257812 h 0.771484 C 15.123711,18.449862 14.257943,17.871468 13.427734,17.242188 10.487107,15.00746 8.825134,11.501223 8.4570312,10.671875 Z m 7.2441408,2.082031 c -0.03554,0.05203 -0.125,0.171875 -0.125,0.171875 0,0 0.701986,2.259212 3.144531,4.71875 0,0 -0.08121,-0.444102 -0.117187,-0.628906 -1.839179,-1.893528 -2.63918,-3.598849 -2.902344,-4.261719 z M 4.9433594,16.492188 C 4.8794337,16.525017 4.625,16.648438 4.625,16.648438 c 0,0 0.6117782,0.764406 2.6972656,2.351562 H 7.9726562 C 6.1762419,17.68884 5.3364507,16.900039 4.9433594,16.492188 Z"/>
</svg>
