<svg width="22" height="22" version="1.1" xmlns="http://www.w3.org/2000/svg">
 <g transform="translate(-1,-1)">
  <circle cx="12" cy="12.5" r="10" style="opacity:.2"/>
  <circle cx="12" cy="12" r="10" style="fill:#9bce5d"/>
  <path d="M 12,2 A 10,10 0 0 0 2,12 10,10 0 0 0 2.0098,12.293 10,10 0 0 1 12,2.5 10,10 0 0 1 21.99,12.207 10,10 0 0 0 22,12 10,10 0 0 0 12,2 Z" style="fill:#8b9cbe;opacity:.2"/>
  <path d="m12 6.5a8 5.5 0 0 0-8.0000001 5.5 8 5.5 0 0 0 8.0000001 5.5 8 5.5 0 0 0 8-5.5 8 5.5 0 0 0-8-5.5zm0 2a5 3.5 0 0 1 5 3.5 5 3.5 0 0 1-5 3.5 5 3.5 0 0 1-5.0000001-3.5 5 3.5 0 0 1 5.0000001-3.5zm0 2a2 1.5 0 0 0-2 1.5 2 1.5 0 0 0 2 1.5 2 1.5 0 0 0 2-1.5 2 1.5 0 0 0-2-1.5z" style="opacity:.2"/>
  <path d="M 12,5.9999998 A 8,5.5 0 0 0 3.9999999,11.5 8,5.5 0 0 0 12,17 8,5.5 0 0 0 20,11.5 8,5.5 0 0 0 12,5.9999998 Z m 0,2 A 5,3.5 0 0 1 17,11.5 5,3.5 0 0 1 12,15 5,3.5 0 0 1 6.9999999,11.5 5,3.5 0 0 1 12,7.9999998 Z M 12,10 a 2,1.5 0 0 0 -2,1.5 2,1.5 0 0 0 2,1.5 2,1.5 0 0 0 2,-1.5 2,1.5 0 0 0 -2,-1.5 z" style="fill:#8b9cbe"/>
 </g>
</svg>
