<svg xmlns="http://www.w3.org/2000/svg" width="22" height="22" version="1.1">
 <path style="fill:#936aff" d="m 3,1 h 16 c 0.554,0 1,0.446 1,1 v 18 c 0,0.554 -0.446,1 -1,1 H 3 C 2.446,21 2,20.554 2,20 V 2 C 2,1.446 2.446,1 3,1 Z"/>
 <path style="opacity:0.2" d="M 3,1 C 2.446,1 2,1.446 2,2 v 18 c 0,0.9625 1,1 1,1 H 5 V 1 Z"/>
 <path style="opacity:0.2;fill:#8b9cbe" d="M 3,1 C 2.446,1 2,1.446 2,2 v 0.5 c 0,-0.554 0.446,-1 1,-1 h 16 c 0.554,0 1,0.446 1,1 V 2 C 20,1.446 19.554,1 19,1 Z"/>
 <path style="opacity:0.2" d="m 2,20 v 0.5 c 0,0.554 0.446,1 1,1 h 16 c 0.554,0 1,-0.446 1,-1 V 20 c 0,0.554 -0.446,1 -1,1 H 3 C 2.446,21 2,20.554 2,20 Z"/>
 <path style="opacity:0.2" d="m 10.992999,6.492519 a 4,4 0 0 1 4,4 4,4 0 0 1 -0.558594,2.027344 l 2.265626,2.265625 a 1.0001,1.0001 0 1 1 -1.414063,1.414062 l -2.265625,-2.265625 a 4,4 0 0 1 -2.027343,0.558594 4,4 0 0 1 -4,-4 4,4 0 0 1 3.999999,-4 z m 0,2 c -1.11282,0 -1.999999,0.888515 -1.999999,2 0,1.111485 0.887179,2 1.999999,2 1.112821,0 2,-0.888515 2,-2 0,-1.111485 -0.887179,-2 -2,-2 z"/>
 <path style="fill:#8b9cbe" d="m 10.992999,5.9927595 a 4,4 0 0 1 4,3.9999995 4,4 0 0 1 -0.558594,2.027344 l 2.265626,2.265625 a 1.0001,1.0001 0 1 1 -1.414063,1.414062 l -2.265625,-2.265625 a 4,4 0 0 1 -2.027343,0.558594 4,4 0 0 1 -4,-4 4,4 0 0 1 3.999999,-3.9999995 z m 0,2 c -1.11282,0 -1.999999,0.888515 -1.999999,1.9999995 0,1.111485 0.887179,2 1.999999,2 1.112821,0 2,-0.888515 2,-2 0,-1.1114845 -0.887179,-1.9999995 -2,-1.9999995 z"/>
</svg>
