<svg xmlns="http://www.w3.org/2000/svg" width="22" height="22" version="1">
 <rect style="fill:#b2bfd9" width="20" height="20" x="1" y="1" rx="1" ry="1"/>
 <path style="opacity:0.2;fill:#8b9cbe" d="M 2,1 C 1.446,1 1,1.446 1,2 l 0,0.5 c 0,-0.554 0.446,-1 1,-1 l 18,0 c 0.554,0 1,0.446 1,1 L 21,2 C 21,1.446 20.554,1 20,1 Z"/>
 <path style="opacity:0.2" d="m 2,21.5 c -0.554,0 -1,-0.446 -1,-1 L 1,20 c 0,0.554 0.446,1 1,1 l 18,0 c 0.554,0 1,-0.446 1,-1 l 0,0.5 c 0,0.554 -0.446,1 -1,1 z"/>
 <path style="opacity:0.2" d="m 19,3.5 0,6 -6,0 0,-6 z m -8,0 0,1 -1,0 0,-1 z m 0,1 1,0 0,2 -1,0 0,1 -1,0 0,-2 1,0 z m 0,3 1,0 0,2 -1,0 z m 0,2 0,1 -1,0 0,-1 z m -1,1 0,2 -2,0 0,-1 1,0 0,-1 z m -2,1 -2,0 0,-1 2,0 z m -2,0 0,1 -3,0 0,-2 2,0 0,1 z m 4,1 2,0 0,2 -1,0 0,-1 -1,0 z m 2,2 1,0 0,1 -1,0 z m 0,1 0,1 0,1 -1,0 0,-1 -1,0 0,-1 z m -1,2 0,2 -1,0 0,-2 z m 1,0 2,0 0,2 -2,0 z m 2,0 0,-1 1,0 0,1 z m 1,0 1,0 0,2 -1,0 z m 0,-1 0,-1 2,0 0,1 z m 2,0 1,0 0,1 1,0 0,1 -1,0 0,1 -1,0 z m -3,0 -1,0 0,-1 1,0 z m -1,-2 0,-1 1,0 0,1 z m 1,-1 0,-1 2,0 0,2 -1,0 0,-1 z m 0,-1 -2,0 0,-1 1,0 0,-1 1,0 z m -2,-1 -1,0 0,-1 1,0 z m -3,-8 0,6 -6,0 0,-6 z m 9,1 -4,0 0,4 4,0 z m -10,0 -4,0 0,4 4,0 z m 9,1 0,2 -2,0 0,-2 z m -10,0 0,2 -2,0 0,-2 z m 11,5 0,1 1,0 0,1 -2,0 0,-1 -2,0 0,-1 2,0 z m 1,3 0,2 -1,0 0,-1 -1,0 0,-1 1,0 z m -10,0 0,6 -6,0 0,-6 z m -1,1 -4,0 0,4 4,0 z m -1,1 0,2 -2,0 0,-2 z"/>
 <path style="fill:#17191e" d="m 19,3 0,6 -6,0 0,-6 z m -8,0 0,1 -1,0 0,-1 z m 0,1 1,0 0,2 -1,0 0,1 -1,0 0,-2 1,0 z m 0,3 1,0 0,2 -1,0 z m 0,2 0,1 -1,0 0,-1 z m -1,1 0,2 -2,0 0,-1 1,0 0,-1 z m -2,1 -2,0 0,-1 2,0 z m -2,0 0,1 -3,0 0,-2 2,0 0,1 z m 4,1 2,0 0,2 -1,0 0,-1 -1,0 z m 2,2 1,0 0,1 -1,0 z m 0,1 0,1 0,1 -1,0 0,-1 -1,0 0,-1 z m -1,2 0,2 -1,0 0,-2 z m 1,0 2,0 0,2 -2,0 z m 2,0 0,-1 1,0 0,1 z m 1,0 1,0 0,2 -1,0 z m 0,-1 0,-1 2,0 0,1 z m 2,0 1,0 0,1 1,0 0,1 -1,0 0,1 -1,0 z m -3,0 -1,0 0,-1 1,0 z m -1,-2 0,-1 1,0 0,1 z m 1,-1 0,-1 2,0 0,2 -1,0 0,-1 z m 0,-1 -2,0 0,-1 1,0 0,-1 1,0 z m -2,-1 -1,0 0,-1 1,0 z M 9,3 9,9 3,9 3,3 Z m 9,1 -4,0 0,4 4,0 z M 8,4 4,4 4,8 8,8 Z m 9,1 0,2 -2,0 0,-2 z M 7,5 7,7 5,7 5,5 Z m 11,5 0,1 1,0 0,1 -2,0 0,-1 -2,0 0,-1 2,0 z m 1,3 0,2 -1,0 0,-1 -1,0 0,-1 1,0 z m -10,0 0,6 -6,0 0,-6 z m -1,1 -4,0 0,4 4,0 z m -1,1 0,2 -2,0 0,-2 z"/>
</svg>
