<svg xmlns="http://www.w3.org/2000/svg" width="22" height="22" version="1">
 <rect style="opacity:0.2" width="20" height="20" x="1" y="1.5" rx="1" ry="1"/>
 <rect style="fill:#f1723c" width="20" height="20" x="1" y="1" rx="1" ry="1"/>
 <path style="opacity:0.2;fill:#8b9cbe" d="M 1,2.5 V 2 C 1,1.446 1.446,1 2,1 h 18 c 0.554,0 1,0.446 1,1 v 0.5 c 0,-0.554 -0.446,-1 -1,-1 H 2 c -0.554,0 -1,0.446 -1,1 z"/>
 <path style="opacity:0.2;fill:none;stroke:#000000;stroke-width:2;stroke-linecap:round;stroke-linejoin:round" d="m 6.007121,6.492756 h 7 c 0,0 3,0.2001577 3,2.950159 0,2.750002 -3,3.050001 -3,3.050001 h -7 v 4.999842"/>
 <path style="fill:none;stroke:#8b9cbe;stroke-width:2;stroke-linecap:round;stroke-linejoin:round" d="m 6.007121,5.9929275 h 7 c 0,0 3,0.2001577 3,2.9501578 0,2.7500027 -3,3.0500017 -3,3.0500017 h -7 v 4.999843"/>
</svg>
