<svg xmlns="http://www.w3.org/2000/svg" width="22" height="22" version="1">
 <path style="opacity:0.2" d="m 5e-8,6.4500107 v 7.0968693 3.7207 0.74414 C 5e-8,18.836278 0.66899968,19.5 1.4999988,19.5 H 19.407211 c 0.830999,0 1.499998,-0.663722 1.499998,-1.48828 v -0.231445 c 0.05881,-0.159828 0.09277,-0.33218 0.09277,-0.512695 V 6.4500107 Z"/>
 <path style="fill:#b2bfd9" d="m 5e-8,5.9500111 v 7.0968689 3.7207 0.744141 C 5e-8,18.336278 0.66899968,19 1.4999988,19 H 19.407211 c 0.830999,0 1.499998,-0.663722 1.499998,-1.488279 v -0.231446 c 0.05881,-0.159828 0.09277,-0.332179 0.09277,-0.512695 V 5.9500111 Z"/>
 <path style="fill:#565064" d="M 1.4999988,3.0000135 C 0.66899948,3.0000135 0,3.663827 0,4.4883843 V 6.0000111 H 20.999982 V 4.4883843 c 0,-0.8245573 -0.668999,-1.4883708 -1.499999,-1.4883708 z"/>
 <path style="opacity:0.1;fill:#8b9cbe" d="M 1.4999988,3.0000135 C 0.66899948,3.0000135 5e-8,3.663736 5e-8,4.4882933 V 4.9882929 C 5e-8,4.1637356 0.66899948,3.5000131 1.4999988,3.5000131 H 19.499984 c 0.830999,0 1.499999,0.663723 1.499999,1.4882798 V 4.4882933 c 0,-0.8245568 -0.669,-1.4882798 -1.499999,-1.4882798 z"/>
 <path style="fill:none;stroke:#ff4e4a;stroke-width:0.99999917;stroke-linecap:round" d="m 2.4996689,8.500007 c 2.494895,0.846732 -1.0777564,3.513194 2.5586624,3.745868 2.1370933,0.13674 2.4416626,3.254126 2.4416626,3.254126"/>
 <path style="opacity:0.1" d="m 19.56346,1.5009889 c -0.158376,-0.011113 -0.343208,0.045565 -0.527343,0.2548826 L 8.0908139,12.687503 8.3632742,12.959964 6.9999943,15.955078 7.5449159,16.5 10.544913,15.138673 10.817374,15.411134 21.780256,4.4619239 c 0.536978,-0.536286 -0.0791,-1.0556631 -0.0791,-1.0556631 L 20.019515,1.7265747 c 0,0 -0.192093,-0.2070632 -0.456055,-0.2255858 z"/>
 <path style="fill:#ff4e4a" d="M 10.817316,14.910741 8.0906569,12.187594 19.036291,1.2560631 c 0.491025,-0.5581792 0.982828,-0.029806 0.982828,-0.029806 l 1.681833,1.6796655 c 0,0 0.616315,0.5196847 0.07934,1.0559707 z"/>
 <rect style="fill:#3d3846" width="3.854" height=".771" x="-18.19" y="10.2" transform="matrix(-0.70756247,-0.70665079,0.70756247,-0.70665079,0,0)"/>
 <rect style="fill:#3d3846" width="3.854" height=".771" x="-18.19" y="-.59" transform="matrix(-0.70756247,-0.70665079,0.70756247,-0.70665079,0,0)"/>
 <path style="fill:#c02924" d="M 10.544652,14.638427 8.3633242,12.45991 6.9999943,15.455371 7.5453264,16 Z"/>
 <path style="fill:#3d3846" d="M 12.453316,7.8306892 A 0.96339786,1.9267984 45.06156 0 0 14.498311,7.1499027 0.96339786,1.9267984 45.06156 0 0 15.179976,5.1075429 Z"/>
</svg>
