<svg xmlns="http://www.w3.org/2000/svg" width="22" height="22" version="1">
 <path style="fill:#4f4f4f" d="M 21,20 21,2 C 21,1.446 20.554,1 20,1 L 2,1 C 1.446,1 1,1.446 1,2 l 0,18 c 0,0.554 0.446,1 1,1 l 18,0 c 0.554,0 1,-0.446 1,-1 z"/>
 <path style="fill:#8e8e8e" d="M 21,20 21,2 C 21,1.446 20.554,1 20,1 l -9,0 0,20 9,0 c 0.554,0 1,-0.446 1,-1 z"/>
 <path style="opacity:0.2;fill-rule:evenodd" d="m 4,6.4997555 a 1.0001,1.0001 0 0 0 -1,1 l 0,8.0000025 a 1.0001,1.0001 0 0 0 1,1 l 1.1875,0 c 1.6519529,0 2.9575411,-0.305762 3.8007812,-1.25 C 9.831521,14.30552 10,13.031757 10,11.499758 10,9.97557 9.829782,8.7030079 8.9882812,7.757568 8.1467809,6.8121281 6.841287,6.4997555 5.1875,6.4997555 l -1.1875,0 z m 10,0 a 1.0001,1.0001 0 0 0 -1,1 l 0,6.0000025 a 1.0001,1.0001 0 0 0 -1,1 l 0,2 a 1.0001,1.0001 0 1 0 2,0 l 0,-1 4,0 0,1 a 1.0001,1.0001 0 0 0 1,1 1.0001,1.0001 0 0 0 1,-1.158203 l 0,-1.841797 a 1.0001,1.0001 0 0 0 -1,-1 l 0,-6.0000025 a 1.0001,1.0001 0 0 0 -1,-1 l -4,0 z m -9,2 0.1875,0 c 1.408713,0 2.0094691,0.2518192 2.3085938,0.5878905 C 7.7952182,9.42372 8,10.149518 8,11.499758 8,12.85881 7.7934785,13.584723 7.4960938,13.917727 7.1987088,14.25073 6.5980471,14.499758 5.1875,14.499758 l -0.1875,0 0,-6.0000025 z m 10,0 2,0 0,5.0000025 -2,0 0,-5.0000025 z"/>
 <path style="opacity:0.1;fill:#8b9cbe" d="M 2,1 C 1.446,1 1,1.446 1,2 l 0,0.5 c 0,-0.554 0.446,-1 1,-1 l 18,0 c 0.554,0 1,0.446 1,1 L 21,2 C 21,1.446 20.554,1 20,1 L 2,1 Z"/>
 <path style="opacity:0.2" d="m 2,21.5 c -0.554,0 -1,-0.446 -1,-1 L 1,20 c 0,0.554 0.446,1 1,1 l 18,0 c 0.554,0 1,-0.446 1,-1 l 0,0.5 c 0,0.554 -0.446,1 -1,1 l -18,0 z"/>
 <path style="fill:none;stroke:#8b9cbe;stroke-width:2;stroke-linecap:round;stroke-linejoin:round" d="m 4,6.9998805 0,8.0002455 c 0,0 0.75,1.8e-5 1.1875,1.8e-5 C 8.25,15.000144 9,13.891186 9,11.000135 9,8.1257075 8.25,6.9998985 5.1875,6.9998985 4.75,6.9998985 4,6.9998805 4,6.9998805 Z"/>
 <path style="fill:none;stroke:#17191e;stroke-width:2;stroke-linecap:round;stroke-linejoin:round" d="m 14,14 0,-7 4,0 0,7 z"/>
 <path style="fill:none;stroke:#17191e;stroke-width:2;stroke-linecap:round;stroke-linejoin:round" d="m 13,15.999757 0,-2.000242 6,0 0,2.000242 0,0"/>
</svg>
