<svg xmlns="http://www.w3.org/2000/svg" width="22" height="22" version="1.1">
 <path style="opacity:0.2" d="M 17.131084,3.4988322 C 16.243777,3.6081137 15.443771,4.0610514 14.593975,4.416801 13.919997,4.6999759 13.575287,5.2716456 13.500225,5.9988322 13.14064,5.5939951 12.689921,5.2025471 12.267803,4.901176 10.905373,3.9284697 9.2955488,3.4023312 7.6408498,3.5125041 h -0.00195 c -3.2704743,0.2172518 -6.67072626,3.0394981 -6.638675,7.3496099 0.025532,3.450283 1.1613254,5.614592 1.9199219,7.414063 0.4305295,1.021408 1.6095791,1.497933 2.6289062,1.0625 2.0843089,-0.477115 2.6065288,-1.492868 2.9511719,-2.839844 0.2821598,0.333422 0.4749977,0.873965 0.820312,1.167969 1.2509912,1.0663 2.9094772,1.832031 4.7890632,1.832031 1.73336,0 3.339509,-0.775573 4.636719,-2.03125 1.297209,-1.255677 2.269661,-3.11045 2.253906,-5.283203 v -0.002 c -0.02541,-3.4047968 -1.069127,-5.6847788 -1.935547,-7.3710478 -0.02639,-0.073342 -0.05704,-0.145079 -0.0918,-0.2148438 -0.0025,-0.00484 -0.0053,-0.012749 -0.0078,-0.017578 C 18.611941,3.8965128 17.899123,3.4767192 17.131084,3.4988322 Z"/>
 <path style="fill:#4a5579" d="M 17.131084,2.9999996 C 16.243777,3.1092811 15.443771,3.5622188 14.593975,3.9179684 13.919997,4.2011433 13.575287,4.772813 13.500225,5.4999996 13.14064,5.0951625 12.689921,4.7037145 12.267803,4.4023434 10.905373,3.4296371 9.2955488,2.9034986 7.6408498,3.0136715 h -0.00195 c -3.2704743,0.2172518 -6.67072626,3.0394981 -6.638675,7.3496095 0.025532,3.450283 1.1613254,5.614592 1.9199219,7.414063 0.4305295,1.021408 1.6095791,1.497933 2.6289062,1.0625 C 7.6333618,18.362729 8.1555817,17.346976 8.5002248,16 8.7823846,16.333422 8.9752225,16.873965 9.3205368,17.167969 10.571528,18.234269 12.230014,19 14.1096,19 c 1.73336,0 3.339509,-0.775573 4.636719,-2.03125 1.297209,-1.255677 2.269661,-3.11045 2.253906,-5.283203 v -0.002 c -0.02541,-3.4047964 -1.069127,-5.6847784 -1.935547,-7.3710474 -0.02639,-0.073342 -0.05704,-0.145079 -0.0918,-0.2148438 -0.0025,-0.00484 -0.0053,-0.012749 -0.0078,-0.017578 C 18.611941,3.3976802 17.899123,2.9778866 17.131084,2.9999996 Z"/>
 <path style="opacity:0.2" d="M 7.7711268,5.5094871 C 5.6070113,5.6532456 2.9765028,7.6358801 3.0003862,10.847613 3.0229427,13.895829 3.9544016,15.580047 4.7637893,17.5 l 1.689761,-0.720153 C 5.4889203,15.327278 4.0512628,12.383984 4.1341918,10.440184 4.1892568,9.1593066 4.6410538,8.2620111 5.4258943,7.5391336 7.3173393,5.7963226 9.9246268,6.2057941 11.456492,8.0644291 12.326915,9.1599876 12.476188,10.769261 11.678078,11.944535 10.324014,13.938752 7.2496688,12.969236 7.0380343,10.658887 6.9378558,9.5612836 8.0046548,8.7164506 8.9845438,8.7069116 7.9794443,8.1305166 6.4243598,9.1940536 6.5086153,10.498096 6.7567388,14.341411 10.990099,14.416356 12.295734,12.225237 14.626371,8.3124286 10.668998,5.3159931 7.7731173,5.5088061 Z"/>
 <path style="opacity:0.2" d="m 17.189423,5.4999996 -1.823442,0.762841 c 1.098371,2.110188 2.372964,3.727412 2.374982,6.3332774 6.5e-4,0.956772 -0.382715,2.041024 -1.291409,2.847262 -0.825963,0.732328 -1.90281,1.164943 -3.18682,0.986608 -1.3432,-0.186473 -2.266691,-0.801492 -2.843117,-1.501949 -0.9053312,-1.194101 -1.0553232,-2.719105 -0.324197,-3.835905 0.417017,-0.636718 1.343199,-1.1778274 2.260638,-1.0984914 1.618296,0.1390064 2.5243,1.0354294 2.510175,2.3909144 -0.01412,1.379217 -0.992098,1.908798 -2.089122,1.814545 1.0264,0.452958 2.576763,-0.139685 2.57071,-1.659265 -0.0081,-2.047805 -1.388937,-3.0337354 -2.879438,-3.0418714 -1.539602,-0.0088 -2.391125,0.5641634 -2.8848192,1.3405664 -0.493695,0.776403 -0.6268715,1.800306 -0.571718,2.637057 0.0565,0.849636 0.672609,1.876929 1.6055172,2.670962 0.931564,0.794032 2.182616,1.353449 3.492858,1.353449 2.109973,0 4.912734,-2.146127 4.889865,-5.299881 -0.02354,-3.1544334 -0.942997,-5.0272934 -1.811335,-6.6987634 z"/>
 <path style="fill:#f9f9f9" d="M 7.7711268,5.0094871 C 5.6070113,5.1532456 2.9765028,7.1358801 3.0003862,10.347613 3.0229427,13.395829 3.9544016,15.080047 4.7637893,17 l 1.689761,-0.720153 c -0.96463,-1.452569 -2.4022875,-4.395863 -2.3193585,-6.3396634 0.055065,-1.280877 0.506862,-2.1781725 1.2917025,-2.90105 1.891445,-1.742811 4.4987325,-1.3333395 6.0305977,0.5252955 0.870423,1.0955585 1.019696,2.7048319 0.221586,3.8801059 C 10.324014,13.438752 7.2496688,12.469236 7.0380343,10.158887 6.9378558,9.0612836 8.0046548,8.2164506 8.9845438,8.2069116 7.9794443,7.6305166 6.4243598,8.6940541 6.5086153,9.9980956 6.7567388,13.841411 10.990099,13.916356 12.295734,11.725237 14.626371,7.8124286 10.668998,4.8159931 7.7731173,5.0088061 Z"/>
 <path style="fill:#4696e2" d="m 17.189423,4.9999996 -1.823442,0.762841 c 1.098371,2.110188 2.372964,3.727412 2.374982,6.3332774 6.5e-4,0.956772 -0.382715,2.041024 -1.291409,2.847262 -0.825963,0.732328 -1.90281,1.164943 -3.18682,0.986608 -1.3432,-0.186473 -2.266691,-0.801492 -2.843117,-1.501949 -0.9053312,-1.194101 -1.0553232,-2.719105 -0.324197,-3.835905 0.417017,-0.6367184 1.343199,-1.1778274 2.260638,-1.0984914 1.618296,0.139006 2.5243,1.0354294 2.510175,2.3909144 -0.01412,1.379217 -0.992098,1.908798 -2.089122,1.814545 1.0264,0.452958 2.576763,-0.139685 2.57071,-1.659265 -0.0081,-2.0478054 -1.388937,-3.0337354 -2.879438,-3.0418719 -1.539602,-0.00881 -2.391125,0.5641635 -2.8848192,1.3405669 -0.493695,0.776403 -0.6268715,1.800306 -0.571718,2.637057 0.0565,0.849636 0.672609,1.876929 1.6055172,2.670962 C 11.548927,16.440583 12.799979,17 14.110221,17 c 2.109973,0 4.912734,-2.146126 4.889865,-5.299881 -0.02354,-3.1544339 -0.942997,-5.0272934 -1.811335,-6.6987634 z"/>
 <path style="fill:#f9f9f9" d="m 12.062511,8.7407331 c 0.108584,0.3727405 0.154576,0.7621235 0.132959,1.1471505 l 0.736601,0.2176374 c 0.0912,-0.4841844 0.08788,-0.9459394 0.0079,-1.3797514 z"/>
 <path style="opacity:0.1;fill:#8b9cbe" d="M 17.131084,2.9999996 C 16.243777,3.1092811 15.443771,3.5622188 14.593975,3.9179684 13.919997,4.2011433 13.575287,4.772813 13.500225,5.4999996 13.14064,5.0951625 12.689921,4.7037145 12.267803,4.4023434 10.905373,3.4296371 9.2955488,2.9034986 7.6408498,3.0136715 h -0.00195 c -3.2704774,0.2172518 -6.67072626,3.0394983 -6.638675,7.3496095 6.051e-4,0.08177 0.00989,0.154037 0.011719,0.234375 C 1.1194262,6.4389026 4.4367327,3.7244324 7.6388967,3.5117184 h 0.00195 C 9.2955458,3.4015455 10.90537,3.9276839 12.2678,4.9003902 c 0.422118,0.3013711 0.872837,0.6928192 1.232422,1.0976563 0.07506,-0.7271866 0.419772,-1.2988564 1.09375,-1.5820313 0.849796,-0.3557496 1.649802,-0.8086872 2.537109,-0.9179687 0.768039,-0.022113 1.480848,0.3976805 1.833985,1.0800781 0.0025,0.00483 0.0053,0.012738 0.0078,0.017578 0.03476,0.069765 0.06541,0.1415018 0.0918,0.2148438 0.843446,1.6415564 1.84734,3.8545175 1.923828,7.1113286 0.0021,-0.07947 0.0123,-0.155976 0.01172,-0.236328 v -0.002 c -0.0254,-3.4047496 -1.069116,-5.6847784 -1.935536,-7.3710474 -0.02639,-0.073342 -0.05704,-0.145079 -0.0918,-0.2148438 -0.0025,-0.00484 -0.0053,-0.012749 -0.0078,-0.017578 C 18.611932,3.3976801 17.899123,2.9778866 17.131084,2.9999996 Z"/>
</svg>
