<svg xmlns="http://www.w3.org/2000/svg" width="22" height="22" version="1">
 <circle style="opacity:0.2" cx="11" cy="11.5" r="10"/>
 <circle style="fill:#4caf50" cx="11" cy="11" r="10"/>
 <path style="opacity:0.2;fill:#8b9cbe" d="m 11,1 a 10,10 0 0 0 -10,10 10,10 0 0 0 0.01075,0.291 10,10 0 0 1 9.989,-9.791 10,10 0 0 1 9.9895,9.709 10,10 0 0 0 0.0105,-0.209 10,10 0 0 0 -10,-10 z"/>
 <path style="opacity:0.2" d="m 10.81836,4.5027007 c -0.209035,0.00578 -0.417466,0.020695 -0.625,0.044925 -1.660273,0.193856 -3.2511375,0.974929 -4.431641,2.304737 -2.3610074,2.6596163 -2.3473051,6.6871943 0.032225,9.3302783 2.3795365,2.643085 6.387181,3.083813 9.284179,1.019553 1.089858,-0.774228 -0.07499,-2.406614 -1.163085,-1.629917 C 11.834271,17.054929 8.9923015,16.744091 7.2832015,14.845699 5.574102,12.947305 5.5639725,10.090784 7.2597665,8.1805162 8.955557,6.2702507 11.795643,5.9379812 13.88672,7.4060852 14.98474,8.2071856 16.165022,6.5307491 15.039063,5.7693312 13.765345,4.8750772 12.281598,4.4622634 10.81836,4.5027007 Z M 15,7.9998462 v 2.5000548 h -3 c -0.552285,0 -1,0.447725 -1,1.000021 0,0.552296 0.447715,1.000021 1,1.000021 h 3 v 2.500054 l 4.5,-3.500075 z"/>
 <path style="fill:#8b9cbe" d="m 10.81836,4.0026295 c -0.209035,0.00578 -0.417466,0.020695 -0.625,0.044925 -1.660273,0.193856 -3.2511375,0.974929 -4.431641,2.304737 -2.3610074,2.6596155 -2.3473051,6.6871935 0.032225,9.3302775 2.3795365,2.643085 6.387181,3.083813 9.284179,1.019553 1.089858,-0.774228 -0.07499,-2.406614 -1.163085,-1.629917 C 11.834271,16.554857 8.9923015,16.244019 7.2832015,14.345627 5.574102,12.447233 5.5639725,9.590712 7.2597665,7.680445 8.955557,5.7701795 11.795643,5.43791 13.88672,6.906014 14.98474,7.7071144 16.165022,6.0306779 15.039063,5.26926 13.765345,4.375006 12.281598,3.9621922 10.81836,4.0026295 Z M 15,7.499775 v 2.500054 h -3 c -0.552285,0 -1,0.447725 -1,1.000021 0,0.552296 0.447715,1.000021 1,1.000021 h 3 v 2.500054 l 4.5,-3.500075 z"/>
</svg>
