<svg xmlns="http://www.w3.org/2000/svg" width="22" height="22" version="1">
 <g transform="translate(-1,-1)">
  <path style="opacity:0.5" d="M 8,16 16,22 V 10 L 8,2 Z"/>
  <path style="fill:#b2bfd9" d="M 3,8 C 2.446,8 2,8.446 2,9 V 21 C 2,21.554 2.446,22 3,22 H 16 V 8 Z"/>
  <path style="opacity:0.2;fill:#8b9cbe" d="M 3,8 C 2.446,8 2,8.446 2,9 V 9.5 C 2,8.946 2.446,8.5 3,8.5 H 16 V 8 Z"/>
  <path style="opacity:0.2" d="M 7.7015,11.277 C 8.0016,11.485 8.2787,11.739 8.5327,12.039 L 8.0825,12.593 C 7.8054,12.247 7.5168,11.958 7.2167,11.727 L 7.7016,11.277 M 7.7016,13.459 C 7.9786,13.667 8.2441,13.898 8.4981,14.152 L 8.0479,14.74 C 7.7934,14.417 7.5164,14.14 7.2164,13.909 L 7.7012,13.459 M 7.8398,15.849 8.3939,16.23 C 8.1168,17.176 7.7128,18.088 7.1818,18.966 L 6.5928,18.515 C 7.1238,17.661 7.5394,16.772 7.8396,15.849 M 9.4672,11 10.125,11.139 C 10.079,11.369 10.01,11.589 9.9174,11.797 H 12.619 V 12.42 H 9.6403 L 9.3287,12.939 C 9.2364,13.123 9.0864,13.319 8.8786,13.527 L 8.4626,13.043 C 8.9012,12.512 9.236,11.831 9.467,11 M 9.2938,13.147 H 12.48 C 12.48,13.863 12.468,14.532 12.445,15.155 H 12.896 V 15.779 H 12.411 C 12.365,16.264 12.33,16.737 12.307,17.199 H 12.826 V 17.788 H 12.238 C 12.145,18.596 11.822,19 11.268,19 11.129,19 10.933,18.977 10.679,18.93 L 10.576,18.34 C 10.876,18.387 11.107,18.41 11.268,18.41 11.43,18.41 11.534,18.202 11.58,17.786 H 8.8786 C 8.9709,17.163 9.0517,16.493 9.121,15.778 H 8.6362 V 15.154 H 9.1903 C 9.2364,14.508 9.2711,13.838 9.2942,13.146 M 9.8137,15.154 H 11.788 C 11.811,14.669 11.822,14.196 11.822,13.734 H 9.9175 C 9.8944,14.242 9.8598,14.716 9.8136,15.154 M 10.679,13.907 C 10.933,14.069 11.164,14.254 11.372,14.462 L 10.956,14.982 C 10.748,14.751 10.517,14.543 10.263,14.358 L 10.679,13.907 M 11.649,17.197 C 11.695,16.712 11.729,16.239 11.753,15.777 H 9.7785 C 9.7323,16.285 9.6746,16.759 9.6054,17.197 H 11.649 M 10.575,15.951 C 10.852,16.112 11.106,16.297 11.337,16.505 L 10.887,17.024 C 10.656,16.77 10.413,16.551 10.16,16.366 L 10.575,15.951 M 6.9386,11.83 V 17.267 H 6.3152 V 16.678 H 5.7264 V 17.579 H 5.103 V 11.83 H 6.9385 M 5.7264,16.089 H 6.3151 V 12.418 H 5.7264 V 16.089"/>
  <path style="opacity:0.2" d="M 2,21 V 21.5 C 2,22.054 2.446,22.5 3,22.5 H 16 V 22 H 3 C 2.446,22 2,21.554 2,21 Z"/>
  <path style="fill:#a3a3a3" d="M 8,16 16,22 V 10 L 8,2 Z"/>
  <path style="fill:#2095f2" d="M 8,2 V 16 H 21 C 21.554,16 22,15.554 22,15 V 3 C 22,2.446 21.554,2 21,2 Z"/>
  <path style="fill:#8b9cbe" d="M 14.11,9.687 14.306,8.9508 C 14.527,8.1532 14.736,7.2208 14.932,6.3741 H 14.981 C 15.19,7.2084 15.411,8.1533 15.631,8.9508 L 15.816,9.687 H 14.11 M 16.674,13 H 18.588 L 16.085,5 H 13.913 L 11.41,13 H 13.251 L 13.742,11.098 H 16.183 L 16.674,13"/>
  <path style="opacity:0.2" d="M 22,15 C 22,15.554 21.554,16 21,16 H 8 V 16.5 H 21 C 21.554,16.5 22,16.054 22,15.5 Z"/>
  <path style="opacity:0.2;fill:#8b9cbe" d="M 8,2 V 2.5 H 21 C 21.554,2.5 22,2.946 22,3.5 V 3 C 22,2.446 21.554,2 21,2 Z"/>
 </g>
</svg>
