<svg xmlns="http://www.w3.org/2000/svg" width="22" height="22" version="1.1">
 <rect style="fill:#17191e" width="18" height="18" x="2" y="2" rx=".581" ry=".546"/>
 <path style="opacity:0.2;stroke:#808080;stroke-width:0;stroke-linecap:round;stroke-linejoin:round" d="m 1.5000051,1.499985 c -0.2769997,0 -0.5000001,0.22299 -0.5000001,0.49999 l 0,5.00001 c 0,0.27704 0.2230004,0.5 0.5000001,0.5 l 4.9999989,0 c 0.2769978,0 0.4999997,-0.223 0.4999997,-0.5 l 0,-5.00001 c 0,-0.27704 -0.2229996,-0.49999 -0.4999997,-0.49999 z m 6.9999985,0 c -0.2770016,0 -0.5000001,0.22299 -0.5000001,0.49999 l 0,5.00001 c 0,0.27704 0.2229997,0.5 0.5000001,0.5 l 4.9999984,0 c 0.277001,0 0.5,-0.223 0.5,-0.5 l 0,-5.00001 c 0,-0.27704 -0.223,-0.49999 -0.5,-0.49999 z m 6.9999974,0 c -0.277001,0 -0.499999,0.22299 -0.499999,0.49999 l 0,5.00001 c 0,0.27704 0.222999,0.5 0.499999,0.5 l 4.999999,0 c 0.276998,0 0.500001,-0.223 0.500001,-0.5 l 0,-5.00001 c 0,-0.27704 -0.223003,-0.49999 -0.500001,-0.49999 z M 1.5000051,8.499965 c -0.2769997,0 -0.5000001,0.223 -0.5000001,0.50003 l 0,4.99998 c 0,0.27704 0.2230004,0.49999 0.5000001,0.49999 l 4.9999989,0 c 0.2769978,0 0.4999997,-0.22299 0.4999997,-0.49999 l 0,-4.99998 c 0,-0.27703 -0.2229996,-0.50003 -0.4999997,-0.50003 z m 6.9999985,0 c -0.2770016,0 -0.5000001,0.223 -0.5000001,0.50003 l 0,4.99998 c 0,0.27704 0.2229997,0.49999 0.5000001,0.49999 l 4.9999984,0 c 0.277001,0 0.5,-0.22299 0.5,-0.49999 l 0,-4.99998 c 0,-0.27703 -0.223,-0.50003 -0.5,-0.50003 z m 6.9999974,0 c -0.277001,0 -0.499999,0.223 -0.499999,0.50003 l 0,4.99998 c 0,0.27704 0.222999,0.49999 0.499999,0.49999 l 4.999999,0 c 0.276998,0 0.500001,-0.22299 0.500001,-0.49999 l 0,-4.99998 c 0,-0.27703 -0.223003,-0.50003 -0.500001,-0.50003 z m -13.9999959,7.00003 c -0.2769997,0 -0.5000001,0.22299 -0.5000001,0.49999 l 0,5.00001 c 0,0.27704 0.2230004,0.5 0.5000001,0.5 l 4.9999989,0 c 0.2769978,0 0.4999997,-0.22299 0.4999997,-0.5 l 0,-5.00001 c 0,-0.27704 -0.2229996,-0.49999 -0.4999997,-0.49999 z m 6.9999985,0 c -0.2770016,0 -0.5000001,0.22299 -0.5000001,0.49999 l 0,5.00001 c 0,0.27704 0.2229997,0.5 0.5000001,0.5 l 4.9999984,0 c 0.277001,0 0.5,-0.22299 0.5,-0.5 l 0,-5.00001 c 0,-0.27704 -0.223,-0.49999 -0.5,-0.49999 z m 6.9999974,0 c -0.277001,0 -0.499999,0.22299 -0.499999,0.49999 l 0,5.00001 c 0,0.27704 0.222999,0.5 0.499999,0.5 l 4.999999,0 c 0.276998,0 0.500001,-0.22299 0.500001,-0.5 l 0,-5.00001 c 0,-0.27704 -0.223003,-0.49999 -0.500001,-0.49999 z"/>
 <path style="fill:#b2bfd9;stroke:#808080;stroke-width:0;stroke-linecap:round;stroke-linejoin:round" d="m 1.5000051,0.999985 c -0.2769997,0 -0.4999999,0.223 -0.4999999,0.5 l 0,5.00001 c 0,0.27704 0.223,0.49999 0.4999999,0.49999 l 4.9999989,0 c 0.2770016,0 0.5000001,-0.22299 0.5000001,-0.49999 l 0,-5.00001 c 0,-0.27704 -0.2229997,-0.5 -0.5000001,-0.5 z"/>
 <path style="fill:#f57e26;stroke:#808080;stroke-width:0;stroke-linecap:round;stroke-linejoin:round" d="m 8.5000036,0.999985 c -0.2770016,0 -0.5000001,0.223 -0.5000001,0.5 l 0,5.00001 c 0,0.27704 0.2229997,0.49999 0.5000001,0.49999 l 4.9999984,0 c 0.277001,0 0.5,-0.22299 0.5,-0.49999 l 0,-5.00001 c 0,-0.27704 -0.223,-0.5 -0.5,-0.5 z"/>
 <path style="fill:#b130ae;stroke:#808080;stroke-width:0;stroke-linecap:round;stroke-linejoin:round" d="m 15.500002,0.999985 c -0.277002,0 -0.5,0.223 -0.5,0.5 l 0,5.00001 c 0,0.27704 0.222999,0.49999 0.5,0.49999 l 4.999998,0 c 0.276998,0 0.500001,-0.22299 0.500001,-0.49999 l 0,-5.00001 c 0,-0.27704 -0.223003,-0.5 -0.500001,-0.5 z"/>
 <path style="fill:#b130ae;stroke:#808080;stroke-width:0;stroke-linecap:round;stroke-linejoin:round" d="m 1.5000051,7.999975 c -0.2769997,0 -0.4999999,0.22299 -0.4999999,0.49999 l 0,5.00002 c 0,0.27703 0.223,0.49999 0.4999999,0.49999 l 4.9999989,0 c 0.2770016,0 0.5000001,-0.22299 0.5000001,-0.49999 l 0,-5.00002 c 0,-0.27704 -0.2229997,-0.49999 -0.5000001,-0.49999 z"/>
 <path style="fill:#b2bfd9;stroke:#808080;stroke-width:0;stroke-linecap:round;stroke-linejoin:round" d="m 8.5000036,7.999975 c -0.2770016,0 -0.5000001,0.22299 -0.5000001,0.49999 l 0,5.00002 c 0,0.27703 0.2229997,0.49999 0.5000001,0.49999 l 4.9999984,0 c 0.277001,0 0.5,-0.22299 0.5,-0.49999 l 0,-5.00002 c 0,-0.27704 -0.223,-0.49999 -0.5,-0.49999 z"/>
 <path style="fill:#b2bfd9;stroke:#808080;stroke-width:0;stroke-linecap:round;stroke-linejoin:round" d="m 15.500002,7.999975 c -0.277002,0 -0.5,0.22299 -0.5,0.49999 l 0,5.00002 c 0,0.27703 0.222999,0.49999 0.5,0.49999 l 4.999998,0 c 0.276998,0 0.500001,-0.22299 0.500001,-0.49999 l 0,-5.00002 c 0,-0.27704 -0.223003,-0.49999 -0.500001,-0.49999 z"/>
 <path style="fill:#23992b;stroke:#808080;stroke-width:0;stroke-linecap:round;stroke-linejoin:round" d="m 1.5000051,14.999995 c -0.2769997,0 -0.4999999,0.223 -0.4999999,0.5 l 0,4.99997 c 0,0.27704 0.223,0.50003 0.4999999,0.50003 l 4.9999989,0 c 0.2770016,0 0.5000001,-0.22299 0.5000001,-0.50003 l 0,-4.99997 c 0,-0.27704 -0.2229997,-0.5 -0.5000001,-0.5 z"/>
 <path style="fill:#f57e26;stroke:#808080;stroke-width:0;stroke-linecap:round;stroke-linejoin:round" d="m 8.5000036,14.999995 c -0.2770016,0 -0.5000001,0.223 -0.5000001,0.5 l 0,4.99997 c 0,0.27704 0.2229997,0.50003 0.5000001,0.50003 l 4.9999984,0 c 0.277001,0 0.5,-0.22299 0.5,-0.50003 l 0,-4.99997 c 0,-0.27704 -0.223,-0.5 -0.5,-0.5 z"/>
 <path style="fill:#23992b;stroke:#808080;stroke-width:0;stroke-linecap:round;stroke-linejoin:round" d="m 15.500002,14.999995 c -0.277002,0 -0.5,0.223 -0.5,0.5 l 0,4.99997 c 0,0.27704 0.222999,0.50003 0.5,0.50003 l 4.999998,0 c 0.276998,0 0.500001,-0.22299 0.500001,-0.50003 l 0,-4.99997 c 0,-0.27704 -0.223003,-0.5 -0.500001,-0.5 z"/>
 <path style="opacity:0.2;fill:#8b9cbe;stroke:#808080;stroke-width:0;stroke-linecap:round;stroke-linejoin:round" d="m 1.500005,0.999985 c -0.2769997,0 -0.4999999,0.223 -0.4999999,0.5 l 0,0.49999 c 0,-0.27704 0.223,-0.49999 0.4999999,-0.49999 l 4.999999,0 c 0.2769978,0 0.4999997,0.22299 0.4999997,0.49999 l 0,-0.49999 c 0,-0.27704 -0.2229996,-0.5 -0.4999997,-0.5 z m 6.9999986,0 c -0.2770016,0 -0.5000001,0.223 -0.5000001,0.5 l 0,0.49999 c 0,-0.27704 0.2229997,-0.49999 0.5000001,-0.49999 l 4.9999984,0 c 0.277002,0 0.5,0.22299 0.5,0.49999 l 0,-0.49999 c 0,-0.27704 -0.223,-0.5 -0.5,-0.5 z m 6.9999984,0 c -0.277002,0 -0.5,0.223 -0.5,0.5 l 0,0.49999 c 0,-0.27704 0.222999,-0.49999 0.5,-0.49999 l 4.999999,0 C 20.776998,1.499985 21,1.722975 21,1.999975 l 0,-0.49999 c 0,-0.27704 -0.222999,-0.5 -0.499999,-0.5 z M 1.500005,7.999975 c -0.2769997,0 -0.4999999,0.22299 -0.4999999,0.49999 l 0,0.5 c 0,-0.27704 0.223,-0.5 0.4999999,-0.5 l 4.999999,0 c 0.2769978,0 0.4999997,0.223 0.4999997,0.5 l 0,-0.5 c 0,-0.27704 -0.2229996,-0.49999 -0.4999997,-0.49999 z m 6.9999986,0 c -0.2770016,0 -0.5000001,0.22299 -0.5000001,0.49999 l 0,0.5 c 0,-0.27704 0.2229997,-0.5 0.5000001,-0.5 l 4.9999984,0 c 0.277002,0 0.5,0.223 0.5,0.5 l 0,-0.5 c 0,-0.27704 -0.223,-0.49999 -0.5,-0.49999 z m 6.9999984,0 c -0.277002,0 -0.5,0.22299 -0.5,0.49999 l 0,0.5 c 0,-0.27704 0.222999,-0.5 0.5,-0.5 l 4.999999,0 c 0.276997,0 0.499999,0.223 0.499999,0.5 l 0,-0.5 c 0,-0.27704 -0.222999,-0.49999 -0.499999,-0.49999 z m -13.999997,6.99999 c -0.2769997,0 -0.4999999,0.22299 -0.4999999,0.49999 l 0,0.50003 c 0,-0.27704 0.223,-0.50003 0.4999999,-0.50003 l 4.999999,0 c 0.2769978,0 0.4999997,0.22299 0.4999997,0.50003 l 0,-0.50003 c 0,-0.27704 -0.2229996,-0.49999 -0.4999997,-0.49999 z m 6.9999986,0 c -0.2770016,0 -0.5000001,0.22299 -0.5000001,0.49999 l 0,0.50003 c 0,-0.27704 0.2229997,-0.50003 0.5000001,-0.50003 l 4.9999984,0 c 0.277002,0 0.5,0.22299 0.5,0.50003 l 0,-0.50003 c 0,-0.27704 -0.223,-0.49999 -0.5,-0.49999 z m 6.9999984,0 c -0.277002,0 -0.5,0.22299 -0.5,0.49999 l 0,0.50003 c 0,-0.27704 0.222999,-0.50003 0.5,-0.50003 l 4.999999,0 c 0.276997,0 0.499999,0.22299 0.499999,0.50003 l 0,-0.50003 c 0,-0.27704 -0.222999,-0.49999 -0.499999,-0.49999 z"/>
</svg>
