<svg xmlns="http://www.w3.org/2000/svg" width="22" height="22" version="1.1">
 <path style="opacity:0.2" d="m 8,2.5 v 1 H 6 v 1 H 4 v 1 H 3 v 1 H 2 v 1 H 1 v 6 h 1 v 1 h 1 v 1 h 1 v 1.5 1.5 1 h 1 v 1 h 2 v -2 h 1 v 2 h 2 v -2 h 2 v 2 h 2 v -2 h 1 v -2 h 1 v -1 h 2 v -1 h 1 v -1 h 1 v -2 h 1 v -4 h -1 v -2 h -1 v -1 h -1 v -1 h -3 v -1 z"/>
 <path style="fill:#b2bfd9" d="M 8,2 V 3 H 6 V 4 H 4 V 5 H 3 V 6 H 2 V 7 H 1 v 6 h 1 v 1 h 1 v 1 h 1 v 1.5 1.5 1 h 1 v 1 h 2 v -2 h 1 v 2 h 2 v -2 h 2 v 2 h 2 v -2 h 1 v -2 h 1 v -1 h 2 v -1 h 1 v -1 h 1 v -2 h 1 V 7 H 20 V 5 H 19 V 4 H 18 V 3 H 15 V 2 Z"/>
 <path style="fill:#17191e" d="m 3,7 v 5 h 1 v 1 H 6 V 12 H 5 V 9 H 6 V 8 H 5 V 7 Z"/>
 <path style="fill:#17191e" d="m 11,7 v 1 h -1 v 5 h 4 v -1 h 1 V 8 H 14 V 7 Z"/>
 <rect style="fill:#ea01f5" width="1" height="3" x="5" y="9"/>
 <rect style="fill:#ea01f5" width="2" height="3" x="11" y="9"/>
 <path style="fill:#17191e" d="m 7,14 v 1 H 6 v 1 h 4 V 15 H 9 v -1 z"/>
 <rect style="opacity:0.2" width="2" height=".5" x="11" y="12"/>
 <path style="opacity:0.2" d="M 3,7 V 7.5 H 5 V 7 Z m 8,0 v 0.5 h 3 V 7 Z M 5,8 V 8.5 H 6 V 8 Z m 5,0 v 0.5 h 1 V 8 Z m 4,0 v 0.5 h 1 V 8 Z m -9,4 v 0.5 H 6 V 12 Z m 2,2 v 0.5 H 9 V 14 Z m -1,1 v 0.5 H 7 V 15 Z m 3,0 v 0.5 h 1 V 15 Z"/>
 <path style="opacity:0.2;fill:#8b9cbe" d="m 8,2 v 0.5 h 7 V 2 Z M 6,3 V 3.5 H 8 V 3 Z m 9,0 v 0.5 h 3 V 3 Z M 4,4 V 4.5 H 6 V 4 Z m 14,0 v 0.5 h 1 V 4 Z M 3,5 V 5.5 H 4 V 5 Z m 16,0 v 0.5 h 1 V 5 Z M 2,6 V 6.5 H 3 V 6 Z M 1,7 V 7.5 H 2 V 7 Z m 19,0 v 0.5 h 1 V 7 Z"/>
 <rect style="opacity:0.2;fill:#8b9cbe" width="2" height=".5" x="11" y="9"/>
 <rect style="opacity:0.2;fill:#8b9cbe" width="1" height=".5" x="5" y="9"/>
</svg>
