<svg xmlns="http://www.w3.org/2000/svg" width="22" height="22" version="1">
 <path style="opacity:0.2" d="m 11,1.5000012 c -0.0094,0 -0.01945,0.00143 -0.02877,0.00143 h -0.0031 C 7.4790001,1.5214298 4,4.8421442 4,7.3342867 V 15.573572 C 4,18.96 6.6250001,21.5 11,21.5 c 4.375,7e-4 7,-2.538571 7,-5.925 V 7.5614297 c 0,-2.59 -3.495334,-6.037857 -7,-6.0585713 z"/>
 <path style="fill:#4f4f4f" d="m 11,1.0000003 c -0.0094,0 -0.01945,0.00143 -0.02877,0.00143 h -0.0031 C 7.4790001,1.0214289 4,4.3421433 4,6.8342858 v 8.2392852 c 0,3.386428 2.6250001,5.926428 7,5.926428 4.375,7e-4 7,-2.538571 7,-5.925 V 7.0614288 c 0,-2.59 -3.495334,-6.037857 -7,-6.0585713 z"/>
 <path style="opacity:0.1" d="m 11,1.0000003 c -0.0094,0 -0.01906,9.75e-4 -0.0284,9.75e-4 h -0.0032 c -3.489023,0.02 -6.968371,3.340867 -6.968371,5.8330095 V 11 H 18 V 7.0615238 c 0,-2.59 -3.495334,-6.0378795 -7,-6.0585938 z"/>
 <path style="opacity:0.1" d="m 11,1.0000003 c -0.0094,0 -0.01906,9.75e-4 -0.0284,9.75e-4 h -0.0032 c -3.489023,0.02 -6.968371,3.340867 -6.968371,5.8330095 V 11 H 11 c 0,0 0,-9.9999997 0,-9.99707 z"/>
 <path style="opacity:0.2" d="m 11,4.5002498 c 0.551,0 1,0.480033 1,1.0714885 v 2.8573575 c 0,0.5908721 -0.449,1.0709041 -1,1.0709041 -0.551,0 -1,-0.480032 -1,-1.0717376 V 5.5709048 c 0,-0.5908725 0.449,-1.0709045 1,-1.0709045"/>
 <path style="fill:#b2bfd9" d="m 11,4.0002498 c 0.551,0 1,0.480033 1,1.0714885 v 2.8573575 c 0,0.5908725 -0.449,1.0709041 -1,1.0709041 -0.551,0 -1,-0.4800316 -1,-1.0717376 V 5.0709048 c 0,-0.5908725 0.449,-1.0709045 1,-1.0709045"/>
 <path style="opacity:0.1;fill:#8b9cbe" d="m 11,0.9999999 c -0.0094,0 -0.01998,0.00195 -0.0293,0.00195 h -0.002 C 7.4796201,1.0219516 4.0000002,4.3418418 4.0000002,6.8339843 v 0.5 c 0,-2.4921425 3.4796199,-5.8120327 6.9687498,-5.8320313 h 0.002 c 0.0093,0 0.01985,-0.00195 0.02925,-0.00195 v 0.00195 c 3.504666,0.020714 7,3.4685938 7,6.0585938 v -0.5 c 0,-2.59 -3.495334,-6.0378795 -7,-6.0585938 z"/>
</svg>
