<svg xmlns="http://www.w3.org/2000/svg" width="22" height="22" version="1">
 <path style="opacity:0.2" d="M 7.8183595,1.5 1,8.317383 V 20.5 c 0,0.554 0.446,1 1,1 h 9 3.181641 L 21,14.682617 V 2.5 c 0,-0.554 -0.446,-1 -1,-1 h -9 z"/>
 <path style="fill:#0ca9e3" d="M 7.8183595,1 1,7.817383 V 20 c 0,0.554 0.446,1 1,1 h 9 3.181641 L 21,14.182617 V 2 C 21,1.446 20.554,1 20,1 h -9 z"/>
 <path style="opacity:0.2" d="m 10,5.5 c -2.77,0 -5,2.23 -5,5 v 1 c 0,2.77 2.23,5 5,5 h 5 v -3 h -5 c -1.159892,0 -2,-0.840108 -2,-2 v -1 c 0,-1.159892 0.840108,-2 2,-2 h 5 v -3 z"/>
 <path style="fill:#8b9cbe" d="M 10,5 C 7.23,5 5,7.23 5,10 v 1 c 0,2.77 2.23,5 5,5 h 5 V 13 H 10 C 8.840108,13 8,12.159892 8,11 V 10 C 8,8.8401085 8.840108,8 10,8 h 5 V 5 Z"/>
 <path style="opacity:0.2;fill:#8b9cbe" d="M 7.8183595,1 1,7.817383 v 0.5 L 7.8183595,1.5 H 11 20 c 0.554,0 1,0.446 1,1 V 2 C 21,1.446 20.554,1 20,1 h -9 z"/>
</svg>
