<svg xmlns="http://www.w3.org/2000/svg" width="22" height="22" version="1">
 <rect style="opacity:0.2" width="20" height="20" x="1" y="1.5" rx="6" ry="6"/>
 <rect style="fill:#797979" width="20" height="20" x="1" y="1" rx="6" ry="6"/>
 <path style="opacity:0.1" d="M 13.245117,4.509476 C 12.67771,4.597085 12.132851,5.282629 11.372071,6.6852575 l -0.825196,1.521484 2.668946,3.1562505 0.137695,0.136718 h 4.442382 C 17.297527,10.387202 15.213978,6.158334 14.811524,5.523148 14.596294,5.1834555 14.154409,4.775882 13.829102,4.616898 13.62619,4.5177315 13.434253,4.4802735 13.245117,4.509476 Z M 8.3115235,7.8073275 C 8.0383485,7.8443425 7.73584,8.0632305 7.214844,8.4098665 6.1886905,9.208339 4.987911,10.586094 4.373047,11.49971 h 7.635742 C 11.382467,10.632556 10.061501,9.093261 9.228516,8.2965855 8.8278345,7.915199 8.5846985,7.7703115 8.3115235,7.8073275 Z M 4.178711,12.49971 c 0.066778,0.120909 0.138275,0.248242 0.2265625,0.385743 0.2230495,0.347379 0.7883525,1.381754 1.2558595,2.297851 1.0220605,2.002764 1.55146,2.76746 2.162109,3.121094 1.029862,0.596405 1.618983,-0.04023 3.465821,-3.746094 0.474242,-0.951615 0.804905,-1.660082 0.976562,-2.058594 z m 9.219727,0 -1.251953,2.482422 c 0.729876,0.624502 1.546233,1.141207 2.039062,1.110352 1.124652,-0.07041 1.44522,-0.845594 2.666992,-2.575196 l 0.71875,-1.017578 z"/>
 <path style="fill:#4a4a4a" d="m 13.398438,12 -1.251953,2.482422 c 0.729876,0.624501 1.546233,1.141206 2.039062,1.110351 1.124652,-0.07041 1.44522,-0.845593 2.666992,-2.575195 L 17.571289,12 Z"/>
 <path style="opacity:0.1;fill:#8b9cbe" d="M 7,1 C 3.676,1 1,3.676 1,7 v 0.5 c 0,-3.324 2.676,-6 6,-6 h 8 c 3.324,0 6,2.676 6,6 V 7 C 21,3.676 18.324,1 15,1 Z"/>
 <path style="fill:#0eb5fd" d="m 4.178711,12 c 0.066778,0.120909 0.138275,0.248242 0.2265625,0.385742 0.2230495,0.34738 0.7883525,1.381755 1.2558595,2.297852 1.0220605,2.002763 1.55146,2.767459 2.162109,3.121093 1.029862,0.596406 1.618983,-0.04023 3.465821,-3.746093 C 11.763305,13.106979 12.093968,12.398512 12.265625,12 Z"/>
 <path style="fill:#f05abe" d="m 13.245117,4.0097655 c -0.567407,0.087609 -1.112266,0.773153 -1.873046,2.1757815 l -0.825196,1.521484 2.668946,3.15625 L 13.3535,11 h 4.442398 C 17.297527,9.887492 15.213978,5.6586235 14.811524,5.0234375 14.596294,4.683745 14.154409,4.2761715 13.829102,4.1171875 13.62619,4.018021 13.434253,3.9805628 13.245117,4.0097655 Z"/>
 <path style="fill:#00d49f" d="M 8.1613435,7.00605 C 7.8881685,7.04609 7.58566,7.282853 7.064664,7.6578 6.0385105,8.521486 4.987911,10.011765 4.373047,11 h 7.635742 C 11.382467,10.062022 9.911321,8.3970095 9.078336,7.535267 8.6776545,7.1227315 8.4345185,6.9660105 8.1613435,7.00605 Z"/>
</svg>
