<svg xmlns="http://www.w3.org/2000/svg" width="22" height="22" version="1">
 <path style="fill:#b2bfd9" d="M 19,20 19,2 C 19,1.446 18.554,1 18,1 L 4,1 C 3.446,1 3,1.446 3,2 l 0,18 c 0,0.554 0.446,1 1,1 l 14,0 c 0.554,0 1,-0.446 1,-1 z"/>
 <path style="opacity:0.2" d="m 3,20 0,0.5 c 0,0.554 0.446,1 1,1 l 14,0 c 0.554,0 1,-0.446 1,-1 L 19,20 c 0,0.554 -0.446,1 -1,1 L 4,21 C 3.446,21 3,20.554 3,20 Z"/>
 <path style="opacity:0.5" d="M 6.0000001,6.9999997 C 5.455,6.9999997 5,7.4999997 5,7.9999997 L 5,14 c 0,0.5 0.455,1 1.0000001,1 L 16,15 c 0.545,0 1,-0.5 1,-1 l 0,-6.0000002 c 0,-0.5 -0.455,-1 -1,-1 z m 0,1 9.9999999,0 L 16,14 6.0000001,14 Z m 1,1.0000003 0,4 1,0 0,-2.2 L 9,12.4 10,10.8 10,13 11,13 11,9 10,9 9,10.6 8.0000001,9 Z M 13,9 l 0,2 -1,0 1,2 1,0 1,-2 -1,0 0,-2 z"/>
 <circle style="fill:#ff8c50" cx="16.5" cy="16.5" r="5.5"/>
 <path style="fill:#8b9cbe" d="M 14,17.582 14,19 15.418,19 19,15.418 17.582,14 Z"/>
 <path style="opacity:0.2;fill:#8b9cbe" d="M 4,1 C 3.446,1 3,1.446 3,2 l 0,0.5 c 0,-0.554 0.446,-1 1,-1 l 14,0 c 0.554,0 1,0.446 1,1 L 19,2 C 19,1.446 18.554,1 18,1 L 4,1 Z"/>
</svg>
