<svg xmlns="http://www.w3.org/2000/svg" width="22" height="22" version="1.1">
 <path fill="#fecd38" d="m10.957 1c-3.831 0-8.3845 3.1875-9.327 6.716-0.4439 2.6555 0.28735 4.5295 1.6278 5.816 0.0359 0.376 0.10765 0.7515 0.0762 1.127-0.001 0.011-0.00275 0.0225-0.0039 0.0335-0.0072 0.0705-0.01785 0.141-0.0342 0.212-0.0068 0.0285-0.0178 0.058-0.02635 0.0865-0.01575 0.054-0.0312 0.1075-0.05375 0.1615-0.01885 0.0445-0.04615 0.089-0.0703 0.1335-0.0224 0.042-0.0409 0.0835-0.06835 0.125-0.05635 0.0855-0.12215 0.1705-0.20215 0.256-0.3125 0.3335-0.58595 0.5415-0.8203 0.677-0.70315 0.406-1.0547 0.156-1.0547 0.656 0 0.5415 1.2374 1.523 2.372 1.157 0.1746-0.056 0.34695-0.1435 0.51175-0.2705 0.0824-0.063 0.1632-0.136 0.2412-0.2195 0.143-0.153 0.2675-0.2955 0.378-0.4295 0.109-0.1315 0.2015-0.2525 0.285-0.3675 0.019 0.1675 0.008 0.3795-0.073 0.703-0.3235 1.288-2.0342 1.18-1.215 2.094 0.635 0.7085 2.5325 0.7355 3.582-0.1845-0.4185 0.9485-1.0545 1.5175 0.168 1.5175 1.875 0 3.75-1.333 3.75-3.333 0 2 1.875 3.333 3.75 3.333 1.2225 0 0.5865-0.569 0.168-1.5175 1.0495 0.92 2.947 0.893 3.582 0.1845 0.8195-0.914-0.8915-0.806-1.215-2.094-0.0815-0.324-0.0925-0.536-0.073-0.704 0.169 0.2335 0.3805 0.4965 0.663 0.798 1.25 1.3335 3.125-0.0005 3.125-0.667s-0.625 0.0005-1.875-1.333c-0.6975-0.744-0.431-1.4885-0.377-2.2325 1.4465-1.308 2.133-3.168 1.536-5.7185-1.331-3.782-5.496-6.716-9.327-6.716z"/>
 <ellipse opacity=".2" cx="7.5" cy="7.5" rx="1.5" ry="2"/>
 <ellipse fill="#fff" cx="7.5" cy="7" rx="1.5" ry="2"/>
 <ellipse fill="#17191e" cx="8.25" cy="7" rx=".75" ry="1"/>
 <ellipse opacity=".2" cx="14.5" cy="7.5" rx="1.5" ry="2"/>
 <ellipse fill="#fff" cx="14.5" cy="7" rx="1.5" ry="2"/>
 <ellipse fill="#17191e" cx="15.25" cy="7" rx=".75" ry="1"/>
 <path fill="#fff" opacity=".2" d="m10.957 1c-3.831 0-8.3845 3.1875-9.327 6.716-0.1043 0.623-0.14115 1.2025-0.12315 1.742 0.01205-0.394 0.0503-0.807 0.12305-1.242 0.9424-3.5285 5.496-6.716 9.327-6.716s7.996 2.934 9.327 6.716c0.123 0.524 0.1885 1.018 0.207 1.485 0.0235-0.61-0.0395-1.2695-0.207-1.985-1.331-3.782-5.496-6.716-9.327-6.716zm7.711 13.678c-0.0435 0.4965-0.0085 0.993 0.457 1.4895 1.0155 1.0835 1.6115 0.8545 1.802 1.085 0.0455-0.0895 0.073-0.175 0.073-0.252 0-0.6665-0.625 0.0005-1.875-1.333-0.309-0.33-0.424-0.6595-0.457-0.9895zm-15.34 0.0235c-0.00715 0.068-0.01655 0.1355-0.0322 0.2035-0.0068 0.0285-0.0178 0.058-0.02635 0.0865-0.01575 0.054-0.0312 0.1075-0.05375 0.1615-0.01885 0.0445-0.04615 0.089-0.0703 0.1335-0.0224 0.042-0.0409 0.0835-0.06835 0.125-0.05635 0.0855-0.12215 0.1705-0.20215 0.256-0.3125 0.3335-0.58595 0.5415-0.8203 0.677-0.70315 0.406-1.0547 0.156-1.0547 0.656 0 0.0735 0.02625 0.156 0.06835 0.241 0.1333-0.156 0.46195-0.0945 0.98635-0.397 0.23435-0.1355 0.5078-0.3435 0.8203-0.677 0.08-0.0855 0.1458-0.1705 0.20215-0.256 0.02745-0.0415 0.04595-0.083 0.06835-0.125 0.02415-0.0445 0.0514-0.089 0.0703-0.1335 0.0226-0.054 0.038-0.1075 0.05375-0.1615 0.00855-0.0285 0.01955-0.058 0.02635-0.0865 0.01635-0.071 0.02705-0.1415 0.0342-0.212 0.0015-0.011 0.0029-0.0225 0.0039-0.0335 0.0128-0.1525 0.0061-0.305-0.0059-0.458zm13.884 2.668c-0.0195 0.168-0.0085 0.38 0.073 0.704 0.217 0.863 1.053 1.1 1.337 1.437 0.492-0.7495-1.033-0.7275-1.337-1.937-0.014-0.056-0.015-0.0925-0.025-0.1425-0.015-0.0195-0.034-0.042-0.048-0.0615zm-12.424 0.001c-0.014 0.0195-0.033 0.042-0.048 0.0615-0.01 0.0495-0.011 0.086-0.025 0.1415-0.304 1.209-1.8292 1.188-1.338 1.937 0.2839-0.337 1.121-0.574 1.338-1.437 0.081-0.3235 0.092-0.5355 0.073-0.703zm2.294 2.6125c-0.1205 0.1055-0.253 0.1965-0.3925 0.2775-0.144 0.285-0.214 0.498-0.0595 0.619 0.1085-0.239 0.2955-0.5415 0.452-0.8965zm7.836 0c0.1565 0.355 0.3435 0.6575 0.452 0.8965 0.154-0.121 0.085-0.334-0.0585-0.6185-0.14-0.081-0.2725-0.172-0.3935-0.278z"/>
 <path opacity=".2" d="m1.5069 9.458c-0.06165 2.0105 0.63025 3.4985 1.751 4.574 0.0213 0.223 0.05285 0.4465 0.0703 0.669 0.00035-0.003 0.0017-0.0055 0.002-0.0085 0.0015-0.011 0.0029-0.0225 0.0039-0.0335 0.03145-0.3755-0.0403-0.751-0.0762-1.127-1.0258-0.9845-1.6923-2.314-1.751-4.074zm18.984 0.243c-0.059 1.5645-0.7025 2.7925-1.743 3.7335-0.03 0.4145-0.1215 0.8295-0.08 1.244 0.0215-0.248 0.062-0.496 0.08-0.744 1.149-1.039 1.8155-2.428 1.743-4.2335zm-3.279 7.168c-0.016 0.1385-0.0005 0.324 0.048 0.5615 0.1615 0.219 0.3555 0.46 0.615 0.7365 1.25 1.3335 3.125-0.0005 3.125-0.667 0-0.125-0.0295-0.195-0.073-0.248-0.353 0.6865-1.946 1.595-3.052 0.415-0.2825-0.3015-0.494-0.5645-0.663-0.798zm-12.424 0.001c-0.0835 0.115-0.176 0.236-0.285 0.3675-0.1105 0.134-0.235 0.2765-0.378 0.4295-0.078 0.0835-0.1588 0.1565-0.2412 0.2195-0.1648 0.127-0.33715 0.2145-0.51175 0.2705-0.98055 0.3165-2.0336-0.373-2.3027-0.916-0.04545 0.0535-0.06935 0.132-0.06935 0.259 0 0.5415 1.2374 1.523 2.372 1.157 0.1746-0.056 0.34695-0.1435 0.51175-0.2705 0.0824-0.063 0.1632-0.136 0.2412-0.2195 0.143-0.153 0.2675-0.2955 0.378-0.4295 0.091-0.1095 0.165-0.2085 0.237-0.306 0.0485-0.2375 0.064-0.423 0.048-0.5615zm6.212 0.797c0 2-1.875 3.333-3.75 3.333-0.329 0-0.52-0.0425-0.62-0.121-0.1815 0.399-0.1445 0.621 0.62 0.621 1.875 0 3.75-1.333 3.75-3.333 0 2 1.875 3.333 3.75 3.333 0.7645 0 0.8015-0.222 0.62-0.621-0.1 0.0785-0.291 0.121-0.62 0.121-1.875 0-3.75-1.333-3.75-3.333zm-3.918 1.8155c-1.0495 0.9205-2.947 0.893-3.582 0.1845-0.05015-0.056-0.09-0.1085-0.12205-0.157-0.1401 0.1655-0.14845 0.355 0.12205 0.657 0.562 0.627 2.1125 0.7185 3.1895 0.093 0.11-0.2185 0.26-0.4765 0.3925-0.7775zm7.836 0c0.1325 0.301 0.2825 0.559 0.3925 0.7775 1.077 0.6255 2.6275 0.534 3.1895-0.093 0.2705-0.302 0.262-0.4915 0.122-0.657-0.032 0.0485-0.072 0.101-0.122 0.157-0.635 0.7085-2.5325 0.736-3.582-0.1845z"/>
</svg>
