<svg xmlns="http://www.w3.org/2000/svg" width="22" height="22" version="1.1">
 <path style="opacity:0.2" d="M 1.7421326,6.695195 A 1.2076346,1.0429572 75 0 0 1.0473418,8.1314745 L 4.380969,20.572742 a 1.2076346,1.0429572 75 0 0 1.319846,0.896459 C 9.212287,20.528304 11.190616,16.43868 10.101158,12.372766 9.011699,8.3068525 5.2536035,5.754299 1.7421326,6.695195 Z"/>
 <path style="fill:#79b444" d="M 1.7421326,6.1951955 A 1.2076346,1.0429572 75 0 0 1.0473418,7.631475 L 4.380969,20.072742 a 1.2076346,1.0429572 75 0 0 1.319846,0.896459 C 9.212287,20.028305 11.190616,15.93868 10.101158,11.872767 9.011699,7.806853 5.2536035,5.2542995 1.7421326,6.1951955 Z"/>
 <path style="opacity:0.2" d="m 3.9453125,9.083789 c -0.01858,-0.0039 -0.036105,0.0046 -0.054687,0.001 L 6.3671875,18.325 C 7.598254,17.248564 8.2822815,15.242735 7.6865235,13.019336 7.0976525,10.82164 5.5308035,9.4217 3.9453125,9.083789 Z"/>
 <path style="fill:#8b9cbe" d="m 3.9453125,8.5839845 c -0.01858,-0.00395 -0.036105,0.00465 -0.054687,10e-4 L 6.367188,17.825219 C 7.5982545,16.748783 8.282282,14.742954 7.686524,12.519554 7.097653,10.321859 5.530804,8.921919 3.945313,8.584008 Z"/>
 <path style="opacity:0.2;fill:#8b9cbe" d="M 3.0644531,6.001953 C 2.6235061,6.014263 2.1811213,6.0777005 1.7421875,6.1953125 A 1.2076346,1.0429572 75 0 0 1.024414,7.529297 1.2076346,1.0429572 75 0 1 1.7421875,6.6953125 c 3.511471,-0.940896 7.2699155,1.6118205 8.3593745,5.6777345 0.18066,0.67423 0.269145,1.347721 0.288086,2.008789 0.02493,-0.818912 -0.06157,-1.663413 -0.288086,-2.508789 C 9.148286,8.315372 6.1510825,5.9157895 3.0644531,6.001953 Z"/>
 <path style="opacity:0.2" d="M 10.140214,1.5006916 A 1.1786974,1.3044885 0 0 0 9,2.8042005 L 9,20.195642 A 1.1786974,1.3044885 0 0 0 10.178579,21.5 l 8.642917,0 a 1.1786974,1.3044885 0 0 0 1.032792,-1.93276 L 11.211371,2.1757987 A 1.1786974,1.3044885 0 0 0 10.140214,1.5006916 Z"/>
 <path style="fill:#35aabd" d="M 10.140214,1.0006916 A 1.1786974,1.3044885 0 0 0 9,2.3042006 L 9,19.695642 A 1.1786974,1.3044885 0 0 0 10.178579,21 l 8.642917,0 a 1.1786974,1.3044885 0 0 0 1.032792,-1.93276 L 11.211371,1.6757989 A 1.1786974,1.3044885 0 0 0 10.140214,1.0006916 Z"/>
 <path style="opacity:0.2;fill:none;stroke:#000000;stroke-width:2;stroke-linejoin:round" d="m 15,12.499988 c 0,0 -3,0 -3,1 0,1 3,2.999999 3,3.999999 0,1 -3,1 -3,1"/>
 <path style="fill:none;stroke:#8b9cbe;stroke-width:2;stroke-linejoin:round" d="m 15,11.999987 c 0,0 -3,0 -3,1 0,1 3,3 3,4 0,1 -3,1 -3,1"/>
 <path style="opacity:0.2;fill:#8b9cbe" d="M 10.140625,1.0009765 A 1.1786974,1.3044885 0 0 0 9,2.3046875 l 0,0.5 a 1.1786974,1.3044885 0 0 1 1.140625,-1.303711 1.1786974,1.3044885 0 0 1 1.070312,0.6748048 l 8.643555,17.3916017 a 1.1786974,1.3044885 0 0 1 0.12207,0.378906 1.1786974,1.3044885 0 0 0 -0.12207,-0.878906 L 11.210937,1.6757813 A 1.1786974,1.3044885 0 0 0 10.140625,1.0009765 Z"/>
</svg>
