<svg xmlns="http://www.w3.org/2000/svg" width="22" height="22" version="1.1">
 <g transform="translate(0,-26)">
  <ellipse style="opacity:0.2" cx="-18.738" cy="45.609" rx="2.176" ry="1.806" transform="matrix(0.70710678,-0.70710678,0.70710678,0.70710678,0,0)"/>
  <ellipse style="fill:#4e4e4e" cx="-18.385" cy="45.255" rx="2.176" ry="1.806" transform="matrix(0.70710678,-0.70710678,0.70710678,0.70710678,0,0)"/>
  <path style="opacity:0.2" d="M 11.000112,27.499776 C 5.4823967,27.499776 1,31.982171 1,37.499888 1,43.017605 5.4823967,47.500002 11.000112,47.5 c 5.517715,0 10.000117,-4.482395 10.000112,-10.000112 0,-5.517717 -4.482397,-10.000112 -10.000112,-10.000112 z"/>
  <path style="fill:#707070" d="M 11.000112,26.999771 C 5.4823967,26.999771 1,31.482166 1,36.999882 c 0,5.517717 4.4823967,10.000114 10.000112,10.000112 5.517715,0 10.000117,-4.482395 10.000112,-10.000112 0,-5.517716 -4.482397,-10.000111 -10.000112,-10.000111 z"/>
  <path style="opacity:0.2" d="m 11.000001,29.499999 c -4.4141249,0 -8.0000011,3.585875 -8.0000011,8 0,4.414125 3.5858762,8.000002 8.0000011,8.000001 4.414123,0 8.000002,-3.585876 7.999999,-8.000001 0,-4.414125 -3.585876,-8 -7.999999,-8 z"/>
  <path style="opacity:0.1;fill:#8b9cbe" d="M 11.000112,26.99977 C 5.4823967,26.99977 1,31.482166 1,36.999882 c 0,0.08392 0.0038,0.166577 0.00586,0.250003 0.1334834,-5.402002 4.560454,-9.750109 9.994252,-9.750109 5.433798,0 9.860769,4.348107 9.994252,9.750109 0.0021,-0.08343 0.0059,-0.166086 0.0059,-0.250003 0,-5.517716 -4.482397,-10.000112 -10.000112,-10.000112 z"/>
  <path style="fill:#f7f7f7" d="m 11.000001,28.999999 c -4.4141249,0 -8.0000011,3.585875 -8.0000011,8 0,4.414125 3.5858762,8.000002 8.0000011,8.000001 4.414123,0 8.000002,-3.585876 7.999999,-8.000001 0,-4.414125 -3.585876,-8 -7.999999,-8 z"/>
  <path style="opacity:0.1" d="m 5.1348488,33.898926 c -0.2770031,0.479783 -0.1137543,1.089037 0.3660291,1.36604 L 11.817727,38.912 12.044923,38.343948 c 0.205734,-0.514389 0.438876,0.237595 0.715879,-0.242189 0.277003,-0.479783 -0.362428,0.03382 -0.211229,-0.499158 L 12.690345,37.10638 6.5008896,33.532896 C 6.0211057,33.255893 5.4118519,33.419142 5.1348488,33.898926 Z"/>
  <path style="opacity:0.2" d="m 11.000112,35.499866 c -1.103543,0 -2.000022,0.896479 -2.000022,2.000022 0,1.103543 0.896479,2.000022 2.000022,2.000022 1.103543,0 2.000022,-0.896479 2.000022,-2.000022 0,-1.103543 -0.896479,-2.000022 -2.000022,-2.000022 z"/>
  <path style="opacity:0.1" d="m 20.721694,27.791265 c 0.391741,0.391742 0.391741,1.022488 0,1.41423 l -9.064003,9.064003 -0.326493,-0.106949 c -0.526481,-0.172457 -0.248486,1.103824 -0.640227,0.712083 -0.391742,-0.391742 -0.670908,-0.610131 -0.495362,-1.135589 l 0.419374,-1.255296 8.692482,-8.692482 c 0.391741,-0.391741 1.022487,-0.391741 1.414229,0 z"/>
  <path style="fill:#30b630" d="m 20.721694,27.291406 c 0.391741,0.391741 0.391741,1.022488 0,1.414229 l -9.064003,9.064003 -0.326493,-0.106948 c -0.526481,-0.172458 -0.248486,1.103824 -0.640227,0.712082 -0.391742,-0.391742 -0.670908,-0.610131 -0.495362,-1.135588 l 0.419374,-1.255296 8.692482,-8.692482 c 0.391741,-0.391742 1.022487,-0.391742 1.414229,0 z"/>
  <path style="fill:#30b630" d="m 5.1348488,33.498971 c -0.2770031,0.479783 -0.1137543,1.089037 0.3660291,1.36604 l 6.3168491,3.647034 0.227196,-0.568052 c 0.205734,-0.514389 0.438876,0.237595 0.715879,-0.242189 0.277003,-0.479783 -0.362428,0.03382 -0.211229,-0.499158 L 12.690345,36.706425 6.5008896,33.132941 C 6.0211057,32.855938 5.4118519,33.019187 5.1348488,33.498971 Z"/>
  <path style="fill:#707070" d="m 11.000112,34.99986 c -1.103543,0 -2.000022,0.896479 -2.000022,2.000022 0,1.103543 0.896479,2.000023 2.000022,2.000023 1.103543,0 2.000022,-0.89648 2.000022,-2.000023 0,-1.103543 -0.896479,-2.000022 -2.000022,-2.000022 z"/>
 </g>
</svg>
