<svg xmlns="http://www.w3.org/2000/svg" width="22" height="22" version="1">
 <path style="opacity:0.2" d="m 3,13 v 7.5 c 0,0.554 0.446,1 1,1 h 14 c 0.554,0 1,-0.446 1,-1 V 13 Z"/>
 <path style="fill:#2995ff" d="M 4,1 C 3.446,1 3,1.446 3,2 v 9 9 c 0,0.554 0.446,1 1,1 h 14 c 0.554,0 1,-0.446 1,-1 V 11 2 C 19,1.446 18.554,1 18,1 Z"/>
 <path style="opacity:0.2" d="m 9.5,13.800086 c -1.6568542,0 -3,1.343146 -3,3 6.952e-4,0.04332 0.00233,0.08663 0.0049,0.129883 C 5.6044036,17.246004 5.0012428,16.295657 5,17.25 5,18.492641 6.0073593,19.5 7.25,19.5 h 7.25 v -0.0059 c 0.03771,0.0029 0.07548,0.0049 0.113281,0.0059 1.242641,0 2.25,-1.007359 2.25,-2.25 -3.28e-4,-0.90809 -0.546504,0.07312 -1.384766,-0.276086 -0.16626,-1.520138 -1.449313,-2.671941 -2.978515,-2.673828 -0.367309,4.07e-4 -0.731421,0.06827 -1.074219,0.200196 C 10.885931,14.048091 10.204212,13.800224 9.5,13.800086 Z"/>
 <circle style="fill:#8b9cbe" cx="7.25" cy="16.75" r="2.25"/>
 <circle style="fill:#8b9cbe" cx="9.5" cy="14" r="3"/>
 <circle style="fill:#8b9cbe" cx="12.5" cy="15" r="3"/>
 <circle style="fill:#8b9cbe" cx="14.614" cy="16.75" r="2.25"/>
 <rect style="fill:#8b9cbe" width="7.25" height="3.273" x="7.25" y="15.73"/>
 <rect style="opacity:0.2" width="20" height="2" x="1" y="7.5" rx=".5" ry=".5"/>
 <rect style="fill:#f34235" width="20" height="2" x="1" y="7" rx=".5" ry=".5"/>
 <rect style="opacity:0.5;fill:#8b9cbe" width="9" height="1.059" x="5" y="5.97"/>
 <rect style="opacity:0.5;fill:#8b9cbe" width="12" height="1" x="5" y="3"/>
 <path style="opacity:0.2;fill:#8b9cbe" d="M 4,1 C 3.446,1 3,1.446 3,2 v 0.5 c 0,-0.554 0.446,-1 1,-1 h 14 c 0.554,0 1,0.446 1,1 V 2 C 19,1.446 18.554,1 18,1 Z"/>
</svg>
