<svg xmlns="http://www.w3.org/2000/svg" width="22" height="22" version="1">
 <path style="opacity:0.2" d="m 11,1.5 c -5.54,0 -10,4.46 -10,10 0,5.54 4.46,10 10,10 2.807721,0 5.335521,-1.148849 7.148438,-3 H 21 l 0.5,-1 h -2.503906 c 0.238313,-0.317687 0.452473,-0.654938 0.652344,-1 H 21 l 0.5,-1 H 21.25 L 21.5,15 H 20.361328 C 20.766861,13.910143 21,12.734515 21,11.5 21,5.96 16.54,1.5 11,1.5 Z"/>
 <path style="fill:#b94bee" d="m 11,1 c 2.864129,0 5.439595,1.1920661 7.259349,3.1091465 1.700142,1.7910725 1.216261,3.7881525 1.216261,6.4640245 0,5.539999 -3.118537,9.146341 -8.658537,9.146341 -2.6922955,0 -4.9465995,0.227167 -6.7408345,-1.491543 C 2.1784338,16.410048 1,13.847705 1,11 1,5.46 5.46,1 11,1 Z"/>
 <path style="fill:#693f86" d="M 10.885742,2.1699219 11.680664,4.558594 11.313,5.656 10.751953,5.238281 10.391602,11.493164 3.868164,18.016601 C 5.679956,19.85819 8.200517,21 11,21 c 1.675307,-0.107995 3.266566,-0.467438 4.538082,-1.134762 0.897959,-0.464123 1.734808,-1.066249 2.480468,-1.800781 l 0.292969,-0.289063 h 0.04004 c 0.197515,-0.214317 0.386148,-0.435886 0.564454,-0.666992 -3.34e-4,-5.5e-4 -0.0066,-3.84e-4 -0.0068,-0.001 -0.0072,-0.01882 0.05161,-0.118698 0.146484,-0.249023 0.282655,-0.388252 0.575915,-0.873436 0.807617,-1.31836 l 0.08887,-0.08887 C 20.617326,14.110701 21,12.603316 21,11 21,8.200517 19.85819,5.679956 18.016601,3.868164 l -2.635742,2.635742 z"/>
 <path style="opacity:0.2" d="M 10.885742,2.1699219 11.13086,2.90625 15.380859,7.003906 18.011719,4.373047 C 17.927562,4.2902545 17.835065,4.21653 17.748047,4.136719 l -2.367188,2.367187 z m 7.203125,2.2763671 c 0.162641,0.1634345 0.317668,0.3344625 0.46875,0.508789 C 18.466167,4.838902 18.368332,4.723748 18.259765,4.609375 18.205591,4.5523035 18.144368,4.502063 18.088867,4.446289 Z M 11.597656,4.807617 11.313477,5.65625 10.751953,5.238281 10.391602,11.493164 3.8720703,18.012695 C 2.152455,16.264827 1.0703804,13.889679 1.0058594,11.249024 1.0038076,11.332777 1,11.415736 1,11.5 c 0,2.740546 1.0984075,5.209891 2.8720703,7.012695 l 0.2470702,-0.24707 c -0.014245,-0.01333 -0.02879,-0.02451 -0.04297,-0.03808 -0.04978,-0.04769 -0.09282,-0.101691 -0.1416017,-0.150391 0.062257,0.06216 0.1291177,0.119548 0.1933592,0.179688 l 6.263674,-6.263673 0.360351,-6.254883 0.561524,0.417969 0.367187,-1.097656 z M 3.9345703,18.577148 c 0.048782,0.0487 0.091822,0.102707 0.1416017,0.150391 0.1189695,0.113962 0.2402725,0.218921 0.363281,0.316406 C 4.2664995,18.893426 4.096747,18.739071 3.9345703,18.577148 Z"/>
 <path style="fill:#693f86" d="m 17,17 h 4.5 L 21,18 h -4 z"/>
 <path style="fill:#693f86" d="m 18,15 h 3.5 L 21,16 h -3 z"/>
 <path style="opacity:0.2" d="m 13.607465,20.350667 c -0.476558,-0.818391 -0.992394,-1.614249 -1.447466,-2.444881 0.98507,-0.808834 2.026967,-1.546955 3.0081,-2.360742 -1.414806,-4.295804 -2.842441,-8.587535 -4.282632,-12.8748976 -0.01613,0.5456939 0.101527,1.2616341 0.142856,1.8749126 0.313758,3.3778235 0.623474,6.756021 0.934445,10.134102 -0.280219,0.497816 -0.535157,1.011357 -0.846298,1.490641 -0.342266,-0.463307 -0.611929,-0.977874 -0.917269,-1.466734 0.185288,-2.988163 0.386552,-5.9754275 0.552613,-8.9647125 -0.216708,0.266666 -0.479533,1.1607375 -0.713404,1.676479 -1.0764825,2.7274725 -2.1756165,5.4482345 -3.236182,8.1806065 1.074415,0.811607 2.214601,1.559141 3.304222,2.360138 -0.197487,0.613035 -0.621075,1.170235 -0.903007,1.760849 -0.176141,0.3086 -0.5709455,0.959624 -3.2e-4,0.427343 0.64615,-0.485432 1.280932,-0.985986 1.931557,-1.465422 0.837004,0.56969 1.653468,1.169107 2.490915,1.738151 l -0.01814,-0.06583 z"/>
 <path style="fill:#8b9cbe" d="m 13.607465,19.850889 c -0.476558,-0.818391 -0.992394,-1.614249 -1.447466,-2.444881 0.98507,-0.808834 2.026967,-1.546955 3.0081,-2.360742 -1.414806,-4.295804 -2.842441,-8.587535 -4.282632,-12.8748976 -0.01613,0.5456939 0.101527,1.2616341 0.142856,1.8749126 0.313758,3.3778235 0.623474,6.756021 0.934445,10.134102 C 11.682549,14.6772 11.427611,15.19074 11.11647,15.670024 10.774204,15.206717 10.504541,14.69215 10.199201,14.203291 10.384489,11.215127 10.585753,8.2278625 10.751814,5.2385775 10.535106,5.5052435 10.272281,6.399315 10.03841,6.9150565 8.9619275,9.642529 7.8627935,12.363291 6.802228,15.095663 c 1.074415,0.811607 2.214601,1.559141 3.304222,2.360138 -0.197487,0.613035 -0.621075,1.170235 -0.903007,1.760849 -0.176141,0.308601 -0.5709455,0.959624 -3.2e-4,0.427343 0.64615,-0.485432 1.280932,-0.985986 1.931557,-1.465422 0.837004,0.56969 1.653468,1.169107 2.490915,1.738151 l -0.01814,-0.06583 z"/>
 <path style="opacity:0.1;fill:#8b9cbe" d="M 11,1 A 10,10 0 0 0 1,11 10,10 0 0 0 1.0107422,11.291016 10,10 0 0 1 11,1.5 10,10 0 0 1 20.989258,11.208985 10,10 0 0 0 21,11 10,10 0 0 0 11,1 Z"/>
</svg>
