<svg xmlns="http://www.w3.org/2000/svg" width="22" height="22" version="1.1">
 <rect style="fill:#3363c1" width="20" height="20" x="1" y="1" rx="1" ry="1"/>
 <path style="opacity:0.1;fill:#8b9cbe" d="M 2,1 C 1.446,1 1,1.446 1,2 v 0.5 c 0,-0.554 0.446,-1 1,-1 h 18 c 0.554,0 1,0.446 1,1 V 2 C 21,1.446 20.554,1 20,1 Z"/>
 <path style="opacity:0.2" d="m 2,21.5 c -0.554,0 -1,-0.446 -1,-1 V 20 c 0,0.554 0.446,1 1,1 h 18 c 0.554,0 1,-0.446 1,-1 v 0.5 c 0,0.554 -0.446,1 -1,1 z"/>
 <path style="opacity:0.2" d="m 6.5,3.5 v 2 H 10 V 14 h 2 V 5.5 h 3.5 v -2 z M 6.3408205,6 C 6.3101705,6.00375 6.278056,6.01093 6.254883,6.03418 L 5.191406,7.09375 C 5.146816,7.138375 5.142021,7.2057615 5.174806,7.2597655 L 6.304689,9.120117 C 6.0389015,9.553208 5.8348805,10.026634 5.6962905,10.528321 l -2.085939,0.43164 C 3.5470118,10.972962 3.5,11.033628 3.5,11.098633 v 1.496094 c 0,0.06338 0.048907,0.11721 0.1103515,0.131836 l 2.022461,0.490234 c 0.127233,0.564441 0.3424075,1.09434 0.6279295,1.578125 l -0.4453125,0.675781 -0.030275,-0.0098 -0.429687,0.707031 -0.273438,0.415039 c -0.01127,0.01715 -0.01081,0.0373 -0.01367,0.05664 l -0.0039,0.0068 c -0.03289,0.05363 -0.02239,0.122363 0.02246,0.166992 L 6.14356,17.87207 c 0.046345,0.04538 0.117306,0.05186 0.171875,0.0166 l 1.004883,-0.65625 0.8496095,-0.513672 c 0.4543415,0.272489 0.9504385,0.480485 1.4775395,0.612304 l 0.429687,2.059571 C 10.090608,19.454132 10.143702,19.5 10.208985,19.5 h 0.08008 1.421875 0.08008 c 0.06528,0 0.11838,-0.04587 0.131836,-0.109375 l 0.429687,-2.059571 c 0.5271,-0.131819 1.023198,-0.339815 1.477539,-0.612304 l 0.84961,0.513672 1.004882,0.65625 c 0.05457,0.03525 0.125529,0.02878 0.171875,-0.0166 l 1.056641,-1.058594 c 0.04485,-0.04462 0.05535,-0.113363 0.02246,-0.166992 l -0.0039,-0.0068 c -0.0029,-0.01934 -0.0024,-0.03949 -0.01367,-0.05664 l -0.273438,-0.415039 -0.429687,-0.707031 -0.03027,0.0098 -0.445313,-0.675781 c 0.285522,-0.483784 0.500697,-1.013684 0.62793,-1.578125 l 2.022461,-0.489258 C 18.451102,12.712911 18.5,12.658106 18.5,12.594727 v -1.496094 c 0,-0.065 -0.04701,-0.125671 -0.110352,-0.138672 l -2.085937,-0.43164 C 16.165121,10.026634 15.9611,9.553207 15.695312,9.120117 l 1.129883,-1.8603515 c 0.03278,-0.054004 0.02799,-0.121388 -0.0166,-0.1660155 L 15.745117,6.0341795 C 15.721942,6.0109245 15.689827,6.003745 15.659179,6 v 0.001 c -0.03028,-0.003 -0.05865,5.5e-4 -0.08594,0.018555 l -1.83984,1.2001955 C 13.478818,7.0741895 13.296567,6.94649 13.018555,6.8427975 V 8.550805 A 4,4 0 0 1 15,12 4,4 0 0 1 11,16 4,4 0 0 1 7,12 4,4 0 0 1 8.9814455,8.5527345 v -1.709961 c -0.278012,0.1036925 -0.460264,0.231392 -0.714844,0.376953 L 6.426758,6.019531 C 6.399473,6.001531 6.371095,5.997976 6.3408205,6.000976 Z"/>
 <path style="fill:#8b9cbe" d="M 6.3408205,5.5 C 6.3101705,5.50375 6.278056,5.51093 6.254883,5.53418 L 5.191406,6.59375 C 5.146816,6.638375 5.142021,6.7057615 5.174806,6.7597655 L 6.304689,8.620117 C 6.0389015,9.053208 5.8348805,9.526634 5.6962905,10.028321 l -2.085939,0.43164 C 3.5470118,10.472962 3.5,10.533628 3.5,10.598633 v 1.496094 c 0,0.06338 0.048907,0.11721 0.1103515,0.131836 l 2.022461,0.490234 c 0.127233,0.564441 0.3424075,1.09434 0.6279295,1.578125 l -0.4453125,0.675781 -0.030275,-0.0098 -0.429687,0.707032 -0.273438,0.415039 c -0.01127,0.01715 -0.01081,0.0373 -0.01367,0.05664 l -0.0039,0.0068 c -0.03289,0.05363 -0.02239,0.122363 0.02246,0.166992 L 6.14356,17.37207 c 0.046345,0.04538 0.117306,0.05186 0.171875,0.0166 l 1.004883,-0.65625 0.8496095,-0.513672 c 0.4543415,0.272489 0.9504385,0.480485 1.4775395,0.612305 l 0.429687,2.05957 C 10.090608,18.954132 10.143702,19 10.208985,19 h 0.08008 1.421875 0.08008 c 0.06528,0 0.11838,-0.04587 0.131836,-0.109375 l 0.429687,-2.059571 c 0.5271,-0.131819 1.023198,-0.339815 1.477539,-0.612304 l 0.84961,0.513672 1.004882,0.65625 c 0.05457,0.03525 0.125529,0.02878 0.171875,-0.0166 l 1.056641,-1.058594 c 0.04485,-0.04462 0.05535,-0.113363 0.02246,-0.166992 l -0.0039,-0.0068 c -0.0029,-0.01934 -0.0024,-0.03949 -0.01367,-0.05664 l -0.273438,-0.415039 -0.429687,-0.707031 -0.03027,0.0098 -0.445313,-0.675781 c 0.285522,-0.483785 0.500697,-1.013684 0.62793,-1.578125 l 2.022461,-0.489258 C 18.451102,12.212911 18.5,12.158106 18.5,12.094727 v -1.496094 c 0,-0.065 -0.04701,-0.125671 -0.110352,-0.138672 l -2.085937,-0.43164 C 16.165121,9.526634 15.9611,9.053207 15.695312,8.620117 l 1.129883,-1.8603515 c 0.03278,-0.054004 0.02799,-0.121388 -0.0166,-0.1660155 L 15.745117,5.5341795 C 15.721942,5.5109245 15.689827,5.503745 15.659179,5.5 v 0.001 c -0.03028,-0.003 -0.05865,5.5e-4 -0.08594,0.018555 l -1.83984,1.2001955 C 13.478818,6.5741895 13.296567,6.44649 13.018555,6.3427975 V 8.050805 A 4,4 0 0 1 15,11.5 a 4,4 0 0 1 -4,4 4,4 0 0 1 -4,-4 4,4 0 0 1 1.9814455,-3.4472655 v -1.709961 c -0.278012,0.1036925 -0.460264,0.231392 -0.714844,0.376953 L 6.426758,5.519531 C 6.399473,5.501531 6.371095,5.497976 6.3408205,5.500976 Z"/>
 <rect style="fill:#8b9cbe" width="2" height="9" x="10" y="4.5"/>
 <rect style="fill:#8b9cbe" width="2" height="9" x="3" y="-15.5" transform="rotate(90)"/>
</svg>
