<svg xmlns="http://www.w3.org/2000/svg" width="22" height="22" version="1">
 <path style="opacity:0.2" d="M 1,5.9501955 V 20.357422 C 1,20.990993 1.5094353,21.5 2.1425781,21.5 H 11 19.857422 C 20.490565,21.5 21,20.990993 21,20.357422 V 5.9501955 H 11 Z"/>
 <path style="fill:#7e57c2" d="M 1,5.4501955 V 19.857422 C 1,20.490993 1.5094353,21 2.1425781,21 H 11 19.857422 C 20.490565,21 21,20.490993 21,19.857422 V 5.4501955 H 11 Z"/>
 <path style="opacity:0.2" d="m 10,8.5 v 1.649414 a 3.5,3.5 0 0 0 -1.402344,0.808594 l -1.427734,-0.824219 -1,1.732422 1.428711,0.825195 A 3.5,3.5 0 0 0 7.5,13.5 3.5,3.5 0 0 0 7.598633,14.308594 l -1.428711,0.825195 1,1.732422 1.4296875,-0.825196 A 3.5,3.5 0 0 0 10,16.852539 V 18.5 h 2 v -1.649414 a 3.5,3.5 0 0 0 1.402344,-0.808594 l 1.427734,0.824219 1,-1.732422 -1.428711,-0.825195 A 3.5,3.5 0 0 0 14.5,13.5 3.5,3.5 0 0 0 14.401367,12.691406 l 1.428711,-0.825195 -1,-1.732422 -1.429687,0.825196 A 3.5,3.5 0 0 0 12,10.147461 V 8.5 Z m 1,3 a 2,2 0 0 1 2,2 2,2 0 0 1 -2,2 2,2 0 0 1 -2,-2 2,2 0 0 1 2,-2 z"/>
 <path style="fill:#8b9cbe" d="m 10,8 v 1.649414 a 3.5,3.5 0 0 0 -1.402344,0.808594 l -1.427734,-0.824219 -1,1.732422 1.428711,0.825195 A 3.5,3.5 0 0 0 7.5,13 3.5,3.5 0 0 0 7.598633,13.808594 l -1.428711,0.825195 1,1.732422 1.4296875,-0.825196 A 3.5,3.5 0 0 0 10,16.352539 V 18 h 2 v -1.649414 a 3.5,3.5 0 0 0 1.402344,-0.808594 l 1.427734,0.824219 1,-1.732422 -1.428711,-0.825195 A 3.5,3.5 0 0 0 14.5,13 3.5,3.5 0 0 0 14.401367,12.191406 l 1.428711,-0.825195 -1,-1.732422 -1.429687,0.825196 A 3.5,3.5 0 0 0 12,9.647461 V 8 Z m 1,3 a 2,2 0 0 1 2,2 2,2 0 0 1 -2,2 2,2 0 0 1 -2,-2 2,2 0 0 1 2,-2 z"/>
 <path style="fill:#673ab7" d="M 2.1425781,1 C 1.5094353,1 1,1.5090067 1,2.1425781 V 6 H 11 21 V 2.1425781 C 21,1.5090067 20.490565,1 19.857422,1 H 11 Z"/>
 <path style="opacity:0.1;fill:#8b9cbe" d="M 2.1425781,1 C 1.5094353,1 1,1.5090067 1,2.1425781 v 0.5 C 1,2.0090067 1.5094353,1.5 2.1425781,1.5 H 11 19.857422 C 20.490565,1.5 21,2.0090067 21,2.6425781 v -0.5 C 21,1.5090067 20.490565,1 19.857422,1 H 11 Z"/>
</svg>
