<svg xmlns="http://www.w3.org/2000/svg" width="22" height="22" version="1">
 <rect style="opacity:0.2" width="21" height="21" x="1" y=".5" rx="6.3" ry="6.3"/>
 <rect style="fill:#b2bfd9" width="21" height="21" x="1" y="0" rx="6.3" ry="6.3"/>
 <path style="opacity:0.1" d="M 6.6328125,3.5 C 6.2286375,3.5 6,3.8041876 6,4.1816406 V 8 C 6,8 6,8.5 5.5,8.5 h -1 L 9,13 11.185547,10.880859 C 9.997658,9.633663 8.6872551,7.9529814 8.3457031,4.0214844 8.3204331,3.5927644 7.9375,3.5 7.9375,3.5 Z m 3.6132815,0 c 0,0 -0.405791,0.1272705 -0.466797,0.4609375 -0.437771,2.574733 -0.03674,5.0279245 1.611328,6.6933595 L 13.5,8.5 h -1 C 12,8.5 12,8 12,8 V 4.1816406 C 12,3.8041876 11.578003,3.5 11.173828,3.5 Z M 14,9 11.814453,11.119141 c 1.187889,1.247196 2.498292,2.927878 2.839844,6.859375 C 14.679567,18.407236 15.0625,18.5 15.0625,18.5 h 1.304688 C 16.771362,18.5 17,18.195812 17,17.818359 V 14 c 0,0 0,-0.5 0.5,-0.5 h 1 z M 11.609375,11.345703 9.5,13.5 h 1 C 11,13.5 11,14 11,14 v 3.818359 C 11,18.195812 11.421997,18.5 11.826172,18.5 h 0.927734 c 0,0 0.405791,-0.127271 0.466797,-0.460938 0.437771,-2.574733 0.03674,-5.027924 -1.611328,-6.693359 z"/>
 <path style="fill:#5c3420" d="m 14,8.5 -2.185949,2.118719 c 1.187889,1.247196 2.499527,2.928174 2.841079,6.859671 C 14.6804,17.90711 15.062249,18 15.062249,18 h 1.304938 C 16.771362,18 17,17.695812 17,17.318359 V 13.5 c 0,0 0,-0.5 0.5,-0.5 h 1 z M 11.609949,10.845281 9.5,13 h 1 c 0.5,0 0.5,0.5 0.5,0.5 v 3.818359 C 11,17.695812 11.421997,18 11.826172,18 h 0.92684 c 0,0 0.406221,-0.1274 0.467227,-0.461067 0.437771,-2.574733 0.03778,-5.028217 -1.61029,-6.693652 z"/>
 <path style="fill:#e8580d" d="m 9,12.5 2.185949,-2.118719 C 9.99806,9.134085 8.686422,7.453107 8.34487,3.52161 8.3196,3.09289 7.937751,3 7.937751,3 H 6.632813 C 6.228638,3 6,3.304188 6,3.681641 V 7.5 C 6,7.5 6,8 5.5,8 h -1 z M 11.390051,10.154719 13.5,8 h -1 C 12,8 12,7.5 12,7.5 V 3.681641 C 12,3.304188 11.578003,3 11.173828,3 h -0.92684 c 0,0 -0.406221,0.1274 -0.467227,0.461067 -0.437771,2.574733 -0.03778,5.028217 1.61029,6.693652 z"/>
 <path style="opacity:0.2;fill:#8b9cbe" d="M 7.3007812,0 C 3.8105811,0 1,2.8105811 1,6.3007812 v 0.5 C 1,3.3105811 3.8105811,0.5 7.3007812,0.5 H 15.699219 C 19.189419,0.5 22,3.3105811 22,6.8007812 v -0.5 C 22,2.8105811 19.189419,0 15.699219,0 Z"/>
</svg>
