<svg xmlns="http://www.w3.org/2000/svg" width="22" height="22" version="1.1">
 <circle style="opacity:0.2" cx="11" cy="11.5" r="10"/>
 <circle style="fill:#17191e" cx="11" cy="11" r="10"/>
 <path style="opacity:0.1;fill:#8b9cbe" d="M 11,1 A 10,10 0 0 0 1,11 10,10 0 0 0 1.01075,11.291 10,10 0 0 1 11,1.5 10,10 0 0 1 20.9895,11.209 10,10 0 0 0 21,11 10,10 0 0 0 11,1 Z"/>
 <path style="opacity:0.2" d="M 5.5878905,3.0908203 A 10,10 0 0 0 4.7910155,3.6621094 L 6.941406,10.124024 1.2832031,13.814453 a 10,10 0 0 0 0.1826172,0.666993 l 6.9375002,0.03321 1.9511715,6.953125 A 10,10 0 0 0 11,21.5 10,10 0 0 0 11.484375,21.482422 L 13.552735,14.5 H 15 20.537109 a 10,10 0 0 0 0.208008,-0.796875 l -5.617188,-3.65039 2.220704,-6.2724616 A 10,10 0 0 0 16.501953,3.1582031 L 11.086914,7.1035155 Z M 6.2216795,4.7910155 10.238281,7.722656 7.7910155,9.50586 Z M 15.918945,4.8203105 14.28418,9.437498 11.935547,7.722654 Z M 11.085938,8.341795 13.935547,10.420897 12.845703,13.5 H 12.824213 9.120111 L 8.1220705,10.500977 Z M 14.779297,11.03711 18.754883,13.5 H 15 13.907227 Z M 7.2734375,11.120117 8.0654295,13.5 H 7 v 0.0068 L 3.46875,13.491211 Z M 9.453125,14.5 h 3.016602 l -1.555664,5.485351 -0.04395,-0.126953 z"/>
 <path style="fill:#f14c21" d="M 5.5878905,2.5908203 A 10,10 0 0 0 4.7910155,3.1621094 L 6.941406,9.624024 1.2832031,13.314453 a 10,10 0 0 0 0.1826172,0.666993 l 6.9375002,0.03321 1.9511715,6.953125 A 10,10 0 0 0 11,21 10,10 0 0 0 11.484375,20.982422 L 13.552735,14 H 15 20.537109 a 10,10 0 0 0 0.208008,-0.796875 L 15.127929,9.552735 17.348633,3.2802734 A 10,10 0 0 0 16.501953,2.6582031 L 11.086914,6.6035155 Z M 6.2216795,4.2910155 10.238281,7.222656 7.7910155,9.00586 Z M 15.918945,4.3203105 14.28418,8.937498 11.935547,7.222654 Z M 11.085938,7.841795 13.935547,9.920897 12.845703,13 H 12.824213 9.120111 L 8.1220705,10.000977 Z M 14.779297,10.53711 18.754883,13 H 15 13.907227 Z M 7.2734375,10.620117 8.0654295,13 H 7 v 0.0068 L 3.46875,12.991211 Z M 9.453125,14 h 3.016602 l -1.555664,5.485351 -0.04395,-0.126953 z"/>
 <path style="opacity:0.2;fill:#8b9cbe" d="M 5.5878905,2.5908203 A 10,10 0 0 0 4.7910155,3.1621094 L 4.925781,3.5654297 A 10,10 0 0 1 5.5878905,3.0908203 l 5.4990235,4.0126952 5.415039,-3.9453124 a 10,10 0 0 1 0.706055,0.5185547 L 17.348633,3.2802734 A 10,10 0 0 0 16.501953,2.6582031 L 11.086914,6.6035155 Z M 6.2216795,4.7910155 7.7910155,9.50586 10.238281,7.722656 9.895508,7.472656 7.7910155,9.00586 6.441406,4.951172 Z m 9.6972655,0.029295 -0.238281,0.173828 -1.396484,3.9433595 -2.005859,-1.464844 -0.342774,0.25 2.348633,1.714844 z m -0.647461,4.8261725 -0.143555,0.40625 5.50586,3.578125 a 10,10 0 0 0 0.111328,-0.427733 z m -8.4667965,0.06641 -5.5214844,3.601562 a 10,10 0 0 0 0.116211,0.423828 L 6.941406,10.124024 Z M 13.794922,10.31836 12.845703,13 H 12.824213 9.120111 L 8.2558595,10.403321 8.1220705,10.500977 9.120117,13.5 h 3.704102 0.02149 l 1.089844,-3.079101 z M 4.265625,12.995117 3.46875,13.491211 7,13.506836 V 13.5 H 8.0654295 L 7.899414,13 H 7 v 0.0068 z M 14.083985,13 13.907227,13.5 H 15 18.754883 L 17.948242,13 H 15 Z m -4.63086,1.5 1.416992,5.358398 0.04394,0.126953 L 12.469727,14.5 H 12.328125 L 10.914063,19.485351 10.870117,19.358398 9.584961,14.5 Z"/>
</svg>
