<svg xmlns="http://www.w3.org/2000/svg" width="22" height="22" version="1.1">
 <path style="opacity:0.2;fill-rule:evenodd" d="m 2.3609995,1.8843572 c 0.4847381,0.3384662 1.0303,0.8472873 1.6183109,1.3064166 C 4.4278655,3.6104144 4.5,3.8157643 4.5,4.4837506 v 7.6974824 c 0,2.049926 0.23959,3.536907 -0.449,5.089581 -0.7599643,1.713615 -2.6459531,1.946099 -3.7563791,3.465764 -1.05731227,1.307542 1.009599,0.683842 1.8204456,0.273856 1.737838,-0.878696 3.401696,-1.220191 5.4835085,-1.447428 2.624667,-0.05187 4.699401,-0.01 7.084613,-0.0635 C 19,19.499506 21,15.499506 21,10.07146 21,5.4995032 19,1.4995032 14.277765,1.5216171 10.239365,1.5029253 4.1986925,1.5000328 2.3330004,1.4995851 1.7998393,1.4995032 2.0234486,1.6499507 2.3609995,1.8843572 Z"/>
 <path style="fill:#e97e10;fill-rule:evenodd" d="m 2.3609995,1.3848532 c 0.4847381,0.3384662 1.0303,0.8472873 1.6183109,1.3064166 C 4.4278655,3.1109104 4.5,3.3162603 4.5,3.9842466 v 7.6974804 c 0,2.049926 0.23959,3.536907 -0.449,5.089581 -0.7599643,1.713615 -2.6459531,1.946099 -3.7563791,3.465764 -1.05731227,1.307542 1.009599,0.683842 1.8204456,0.273856 C 3.8529045,19.632232 5.5167625,19.290737 7.598575,19.0635 10.223242,19.011627 12.297976,19.0535 14.683188,19 19,19 21,15 21,9.5719556 21,4.9999992 19,0.9999992 14.277765,1.0221131 10.239365,1.0034213 4.1986925,1.0005288 2.3330004,1.0000811 1.7998393,0.9999992 2.0234486,1.1504467 2.3609995,1.3848532 Z"/>
 <path style="opacity:0.2;fill-rule:evenodd" d="m 8.8267855,4.5001965 c 1.5038885,0.00279 4.5874795,0.043395 5.1922135,0.3258296 C 16.660367,6.2538551 17.0556,7.9663361 17,10.406263 17.07326,12.614032 16.228302,14.994474 14.018999,16.12342 13.212687,16.5 8.133861,16.5 8.133861,16.5 L 8,4.502403 c 0,0 0.3254905,-0.00314 0.8267855,-0.00224 z"/>
 <path style="fill:#8b9cbe;fill-rule:evenodd" d="m 8.8267855,4.0001965 c 1.5038885,0.00279 4.5874795,0.043395 5.1922135,0.3258296 C 16.660367,5.7538551 17.0556,7.4663361 17,9.9062626 17.07326,12.114032 16.228302,14.494474 14.018999,15.62342 13.212687,16 8.133861,16 8.133861,16 L 8,4.002403 c 0,0 0.3254905,-0.00314 0.8267855,-0.00224 z"/>
 <path style="opacity:0.2;fill-rule:evenodd" d="m 6.0133447,9.4999996 c -0.065843,0.03275 0.1226965,0.496116 0.330078,0.7851564 0.316137,0.440621 0.525693,0.698586 0.963867,1.097657 0.5735363,0.522353 0.7237576,0.608739 0.9648446,0.852539 0.241087,0.2438 0.7409497,0.609375 0.7409497,0.609375 v 7.314452 c 0,0.487599 -0.6375467,0.794863 -0.7978517,0.853516 -0.2262768,0.08279 -1.215493,0.243164 -1.215493,0.243164 V 21.5 H 10.339256 14 v -0.244141 c 0,0 -1.060833,-0.160372 -1.28711,-0.243164 C 12.552585,20.954045 12.077457,20.640587 12,20.159179 v -6.216796 -1.097656 -0.121094 c 0,-0.524814 0.464391,-0.652643 0.647461,-0.731445 0.24801,-0.106756 1.202601,-0.122412 1.323145,-0.366211 0.120542,-0.2438 -0.151366,-0.122621 -0.241211,-0.122071 -0.865653,0.005 -3.872561,0 -3.872561,0 -0.588917,10e-7 -1.3499467,0.01348 -1.8259107,-0.243164 C 7.694561,11.079372 7.3743822,10.840082 7.0670557,10.529297 L 6.1022117,9.5537106 c -0.045204,-0.04571 -0.073672,-0.061271 -0.088867,-0.053711 z"/>
 <path style="fill:#c2352a;fill-rule:evenodd" d="m 6.0133447,8.9999992 c -0.065843,0.03275 0.1226965,0.4961164 0.330078,0.7851564 0.316137,0.4406214 0.525693,0.6985864 0.963867,1.0976574 0.5735363,0.522353 0.7237576,0.608739 0.9648446,0.852539 0.241087,0.2438 0.7409497,0.609375 0.7409497,0.609375 v 7.314452 c 0,0.487599 -0.6375467,0.794863 -0.7978517,0.853516 -0.2262768,0.08279 -1.215493,0.243164 -1.215493,0.243164 V 21 H 10.339256 14 v -0.244141 c 0,0 -1.060833,-0.160372 -1.28711,-0.243164 C 12.552585,20.454045 12.077457,20.140587 12,19.659179 v -6.216796 -1.097656 -0.121094 c 0,-0.524814 0.464391,-0.652643 0.647461,-0.731445 0.24801,-0.106756 1.202601,-0.122412 1.323145,-0.366211 0.120542,-0.2438 -0.151366,-0.122621 -0.241211,-0.122071 -0.865653,0.005 -3.872561,0 -3.872561,0 -0.588917,10e-7 -1.3499467,0.01348 -1.8259107,-0.243164 C 7.694561,10.579372 7.3743822,10.340082 7.0670557,10.029297 L 6.1022117,9.0537106 c -0.045204,-0.04571 -0.073672,-0.061271 -0.088867,-0.053711 z"/>
 <path style="opacity:0.2;fill:#8b9cbe;fill-rule:evenodd" d="m 2.3320312,0.9999992 c -0.5331611,-8.19e-5 -0.308254,0.1503591 0.029297,0.3847656 0.046076,0.032173 0.099325,0.080172 0.1464844,0.1152344 1.9579849,5.149e-4 7.7905584,0.00307 11.7695314,0.021484 4.642009,-0.021738 6.641978,3.8480645 6.708984,8.3222664 C 20.987526,9.7507616 21,9.6661196 21,9.5722646 21,5.0003088 18.999579,0.9993697 14.277344,1.0214836 10.238944,1.0027918 4.1977233,1.0004469 2.3320312,0.9999992 Z M 4.53125,14.447266 c -0.028282,0.808423 -0.1411538,1.559111 -0.4804688,2.324218 -0.7599643,1.713615 -2.6454333,1.945179 -3.7558593,3.464844 -0.3589773,0.443935 -0.34221063,0.653685 -0.1523438,0.736328 0.045619,-0.07581 0.075014,-0.140697 0.1523438,-0.236328 1.110426,-1.519665 2.995895,-1.751229 3.7558593,-3.464844 0.4063724,-0.916312 0.4806069,-1.824456 0.4804688,-2.824218 z"/>
 <path style="opacity:0.2;fill-rule:evenodd" d="m 21.98757,9.4999996 c 0.06584,0.03275 -0.122696,0.496116 -0.330078,0.7851564 -0.316137,0.440621 -0.525693,0.698586 -0.963867,1.097657 -0.573536,0.522353 -0.723757,0.608739 -0.964844,0.852539 -0.241087,0.2438 -0.74095,0.609375 -0.74095,0.609375 v 7.314452 c 0,0.487599 0.637547,0.794863 0.797852,0.853516 0.226276,0.08279 1.215493,0.243164 1.215493,0.243164 V 21.5 h -3.339517 -3.660744 v -0.244141 c 0,0 1.060833,-0.160372 1.28711,-0.243164 0.160305,-0.05865 0.635433,-0.372108 0.71289,-0.853516 v -6.216796 -1.097656 -0.121094 c 0,-0.524814 -0.464391,-0.652643 -0.647461,-0.731445 -0.24801,-0.106756 -1.202601,-0.122412 -1.323145,-0.366211 -0.120542,-0.2438 0.151366,-0.122621 0.241211,-0.122071 0.865653,0.005 3.872561,0 3.872561,0 0.588917,10e-7 1.349947,0.01348 1.825911,-0.243164 0.336362,-0.18137 0.656541,-0.42066 0.963867,-0.731445 l 0.964844,-0.9755864 c 0.0452,-0.04571 0.07367,-0.06127 0.08887,-0.05371 z"/>
 <path style="fill:#c2352a;fill-rule:evenodd" d="m 21.98757,8.9999992 c 0.06584,0.03275 -0.122696,0.4961164 -0.330078,0.7851564 -0.316137,0.4406214 -0.525693,0.6985864 -0.963867,1.0976574 -0.573536,0.522353 -0.723757,0.608739 -0.964844,0.852539 -0.241087,0.2438 -0.74095,0.609375 -0.74095,0.609375 v 7.314452 c 0,0.487599 0.637547,0.794863 0.797852,0.853516 0.226276,0.08279 1.215493,0.243164 1.215493,0.243164 V 21 h -3.339517 -3.660744 v -0.244141 c 0,0 1.060833,-0.160372 1.28711,-0.243164 0.160305,-0.05865 0.635433,-0.372108 0.71289,-0.853516 v -6.216796 -1.097656 -0.121094 c 0,-0.524814 -0.464391,-0.652643 -0.647461,-0.731445 -0.24801,-0.106756 -1.202601,-0.122412 -1.323145,-0.366211 -0.120542,-0.2438 0.151366,-0.122621 0.241211,-0.122071 0.865653,0.005 3.872561,0 3.872561,0 0.588917,10e-7 1.349947,0.01348 1.825911,-0.243164 0.336362,-0.18137 0.656541,-0.42066 0.963867,-0.731445 l 0.964844,-0.9755864 c 0.0452,-0.04571 0.07367,-0.061271 0.08887,-0.05371 z"/>
</svg>
