<svg xmlns="http://www.w3.org/2000/svg" width="22" height="22" version="1">
 <path style="opacity:0.2" d="m 10.499672,0.50005803 c -0.5500227,0 -1.1004147,0.2050103 -1.5115711,0.61615607 L 0.61614175,9.4891054 c -0.82231178,0.8222906 -0.82114533,2.1984026 0.00124,3.0206956 l 8.37195915,8.372892 c 0.8223134,0.822292 2.1996521,0.823458 3.0219651,0.0012 L 20.383265,12.511 c 0.822311,-0.822291 0.822312,-2.199582 0,-3.0218726 L 12.011285,1.1162552 C 11.600128,0.70510933 11.049738,0.50009913 10.499713,0.50009913 Z"/>
 <path style="fill:#ffb14b" d="m 10.499672,5.643088e-5 c -0.5500227,0 -1.1004147,0.20501029912 -1.5115711,0.61615609912 L 0.61614175,8.9891048 c -0.82231178,0.8222916 -0.82114533,2.1984032 0.00124,3.0206962 l 8.37195915,8.372892 c 0.8223134,0.822292 2.1996521,0.823458 3.0219651,0.0012 L 20.383265,12.011 c 0.822311,-0.822291 0.822312,-2.1995816 0,-3.0218732 L 12.011285,0.61625363 C 11.600128,0.20510773 11.049738,9.753088e-5 10.499713,9.753088e-5 Z"/>
 <path style="opacity:0.1" d="m 11.000019,4.9999082 v 3.493 l -1.9999997,1.9999988 0.007,0.007 h -0.007 v 5.0001 h 0.9999997 v -4.5931 l 1,-0.9999996 v 5.5930996 h 1 V 5.0000082 Z"/>
 <path style="fill:#17191e" d="m 11.000019,4.4999004 v 3.493 l -1.9999997,2 0.007,0.007 h -0.007 V 15 h 0.9999997 v -4.5931 l 1,-0.9999996 V 15 h 1 V 4.5000004 Z"/>
 <path style="opacity:0.2;fill:#8b9cbe" d="M 10.500019,4.3088036e-7 C 9.9499963,4.3088036e-7 9.3994573,0.20604213 8.9883005,0.61718793 L 0.61525375,8.9882816 C 0.14145435,9.4620694 -0.04907333,10.120366 0.02345685,10.75 0.07630895,10.28686 0.26674135,9.8367854 0.61525375,9.4882814 L 8.9883005,1.1171879 C 9.3994573,0.70604213 9.9499963,0.50000043 10.500019,0.50000043 c 0.550025,0 1.100562,0.2060416 1.511719,0.61718747 l 8.371093,8.3710935 c 0.348513,0.348504 0.540651,0.7983346 0.59375,1.2617186 0.07219,-0.629966 -0.11995,-1.2879306 -0.59375,-1.7617184 L 12.011738,0.61718793 C 11.600581,0.20604203 11.050044,4.3088036e-7 10.500019,4.3088036e-7 Z"/>
</svg>
