<svg width="22" height="22" version="1.1" xmlns="http://www.w3.org/2000/svg">
 <rect x="1" y="1.5" width="20" height="20" rx="10" ry="10" style="opacity:.2"/>
 <rect x="1" y="1" width="20" height="20" rx="10" ry="10" style="fill:#1fa5cf"/>
 <g transform="matrix(.5315544 0 0 .5313952 -20.967995 -12.176918)" style="enable-background:new">
  <g>
   <path transform="matrix(.9406375 0 0 .9409193 37.565291 21.033155)" d="m24.103516 5-2.316407 0.2636719-2.859375 0.7851562-0.541015 0.5253907 1.77539 1.2246093v0.6992188l-1.16211 0.6992187 1.396485 1.8378904 0.617188-0.349609 0.773437-1.2246095c1.19387-0.3690008 2.263684-0.7878004 3.398438-1.3125l0.814452-2.3613281zm-5.484375 0.1757812-0.998047 0.1425782-0.472656 0.46875-0.775391 0.1132812-0.691406 0.3242188-0.335938 0.1621094-0.205078 0.2753906 1.003906 0.1738281 0.386719-0.3496094 0.773438-0.1738281c0.529421-0.2574078 1.061298-0.4316504 1.623046-0.6132812zm-4.560547 2.0976563-0.154297 0.3496094 0.07617 0.875-0.617188 0.5253906-0.386719 0.9609375h0.773438l0.386719-0.8730469c0.333277-0.2356195 0.664462-0.4743724 1.003906-0.7011719l0.773437 0.2636719c0.51497 0.3497654 1.029526 0.6995952 1.544922 1.0488281l0.773438-0.6992187-0.851563-0.3496094-0.386718-0.7871093-1.46875-0.1757813-0.07617-0.4375-0.695313 0.1757813-0.308594 0.6113281zm19.792968 0.6992187-1.464843 0.3515626-0.931641 0.6113281v0.5253906l-1.464844 0.9609375 0.306641 1.400391 0.853516-0.613282 0.539062 0.613282 0.617188 0.349609 0.386718-1.048828-0.230468-0.613281 0.230468-0.4375 0.84961-1.0722662h0.386719l-0.386719 1.1601562v0.78711c0.355079-0.09661 0.720609-0.12866 1.083984-0.173828l-1.005859 0.699218-0.07617 0.4375-1.158203 0.960938-1.16211-0.261719v-0.699219l-0.541015 0.34961 0.234375 0.811234h-0.851563l-0.46289 0.587203-0.582032 0.654297-1.041015 0.220703 0.617187 0.609375 0.15625 0.611328h-0.773437l-0.980472 0.525391v1.576172h0.439456l0.423828 0.480469 0.966797-0.480469 0.384766-0.962891 0.697265-0.4375 0.154297-0.349609 1.158203-0.259766 0.619141 0.697266 0.695312 0.349609-0.386718 0.78711 0.61914-0.175782 0.308594-0.783203-0.773437-0.875h0.310547l0.773437 0.609375 0.154297 0.875 0.693359 0.78711 0.154297-1.138672 0.388672-0.173828c0.382082 0.396527 0.682099 0.866234 1.003906 1.3125l1.158203 0.08789 0.697266 0.435547-0.310547 0.4375-0.695312 0.613281h-1.003907l-1.314453-0.4375-0.695312 0.08594-0.5 0.570312-1.431641-1.443359-1.005859-0.261719-1.46875 0.173828-1.314453 0.34961c-0.737161 0.835459-1.364583 1.667494-2.062292 2.535156l-0.849609 2.013672 0.386719 0.435547-0.695313 1.048828 0.773438 1.83789c0.657108 0.743102 1.212779 1.484882 1.868932 2.228516l0.96875-0.830078 0.423828 0.482422 1.041015-0.65625 0.34961 0.392578h1.044922l0.597656 0.677734-0.369141 1.203125 0.736328 0.830078-0.03906 1.44336 0.541016 1.050781-0.578128 0.873047c-0.03849 0.643412-0.03907 1.282257-0.03907 1.925781 0.316696 0.871804 0.480719 1.741068 0.779766 2.619141l0.230469 1.40039v0.701172h0.841327l0.851563-0.52539h0.732422c0.273168-0.190233 0.535917-0.394345 0.798828-0.597657l0.978516-1.107421-0.191407-0.56836 1.00586-0.876953-0.736328-0.828125 0.890625-0.742188 0.750005-0.527343 0.386719-0.433594-0.232422-0.966797v-2.445312l0.794916-1.488282 0.84961-0.960937 0.927734-2.273438v-0.613281c-0.456968 0.05754-0.902613 0.104273-1.349609 0.136719l0.923828-0.923828 1.27539-0.875 0.697266-0.785157v-0.875c-0.154679-0.291629-0.309107-0.58337-0.464844-0.875l-0.61914 0.699219-0.462891-0.523437-0.695312-0.525391v-1.136719l0.8125 0.917969 0.888671-0.130859c0.404831 0.367406 0.803125 0.718404 1.158204 1.136718l0.08789-0.09961c-0.427434-4.640747-2.43498-8.802648-5.47265-11.970704-0.167775-0.1718811-0.344833-0.3569005-0.482422-0.4921875-0.230943-0.224802-0.473222-0.4369265-0.714844-0.6503906l-0.21875 0.359375-0.773437 0.8750001-1.003906-1.2480472h1.003906l0.464844-0.3261717-1.855469-0.3496093zm-21.845703 0.029297c-0.113126 0.0848-0.228606 0.1667762-0.339843 0.2539063l0.152343 0.6796875s-0.706767 0.077591-1.115234 0.1308593c-4.1041272 3.6542287-6.6980237 8.9644507-6.703125 14.916016 0.1609659 0.265022 0.3203125 0.517578 0.3203125 0.517578l1.6230469 0.960938 1.625 0.439453 0.6933594 0.875 1.0820312 0.785156 0.6191406-0.08594 0.4628904 0.208985v0.140625l-0.6171872 1.660156-0.4648438 0.701172 0.1542969 0.349609-0.4980474 1.310547 1.5019535 2.537109 0.992453 1.222657 0.617188 0.873047-0.07617 1.83789 0.863016 1.048828-0.25586 1.109375c0.89177 0.614561 1.842605 1.146031 2.832031 1.611329l0.361329-0.359376 0.230468-0.611328 1.00586-0.351562 0.927731-1.923828-0.386716-0.523438 0.539063-1.087568 1.160156-0.263672 0.687497-1.097978-0.222653-1.746094 1.125528-1.3125 0.15625-1.3125c-1.268711-0.62896-2.727601-1.276271-3.986856-1.923828l-0.619141-1.22461-1.158203-0.261718-0.617188-1.15985-1.544922 0.173828-1.314453-1.099914-1.392578 0.861326v0.19336c-0.420995-0.121475-0.937657-0.136773-1.3125018-0.367186l-0.3105468-0.875v-0.962891l-0.9277344 0.087891c0.077394-0.61238 0.1564513-1.223664 0.234375-1.835938h-0.5410156l-0.5410156 0.699219-0.5410157 0.261719-0.7734375-0.435547-0.078125-0.962891 0.1542969-1.048828 1.1601563-0.875h0.9257812l0.1542969-0.52539 1.1601562 0.261718 0.7494214 1.050782 0.1562505-1.75 1.568937-1.222656 0.541016-1.3125 1.080078-0.03775 0.619141-0.871094 1.390625-0.265625 0.695312-1.046875h-2.085937l1.314453-0.613282h0.925781l1.314453-0.83725 0.154297-0.523437-0.464843-0.4375-0.541016-0.175781 0.15625-0.523438-0.386719-0.787109-0.927734 0.347656 0.154297-0.699219-1.082032-0.611328-0.847656 1.486328 0.07617 0.525391-0.851562 0.349609-0.541016 1.136719-0.230469-1.048828-1.46875-0.613281-0.232422-0.78711 1.931641-1.136718 0.851562-0.7871098 0.07617-0.9609374-0.46289-0.2636719zm14.685747 0.9096874-1.11934 0.3496094-0.506202-0.087891h-2e-3l-0.07813 0.5253906 0.74253 0.3496094 1.425981-0.6132813-0.462891-0.5234375zm-10.701372 0.3735157-0.617187 0.4375 0.771484 0.5253907h0.619141v-0.6132813zm12.208985 2.0117187v0.525391l0.310547 0.349609v0.787109l-0.15625 1.048828 0.851562-0.173828 0.617188-0.613281-0.541016-0.523437c-0.181682-0.483676-0.389795-0.936484-0.617188-1.400391zm-0.306641 1.048828-0.542969 0.175781 0.15625 0.960938 0.69336-0.347656zm-10.664062 1.576172 0.230468 1.220703 0.462891-0.697266zm20.177734 6.818359 0.890625 1.00586 1.042969 2.228515 0.617187 0.701172-0.310547 0.785157 0.587891 0.666015c-0.269928 0.01823-0.538857 0.03711-0.816406 0.03711-0.492109-1.033775-0.861574-2.068895-1.236328-3.15039l-0.857813-0.742188-0.347657-1.269531z" style="opacity:.3"/>
  </g>
 </g>
 <path d="m11 1c-5.54 0-10 4.46-10 10 0 0.08394 0.00382 0.166571 0.00586 0.25 0.1323352-5.4230685 4.538077-9.75 9.99414-9.75s9.861805 4.3269315 9.99414 9.75c0.002036-0.083429 0.00586-0.166063 0.00586-0.25 0-5.54-4.46-10-10-10z" style="fill:#8b9cbe;opacity:.2"/>
 <path d="m18.476562 2.4787747a1.50015 1.50015 0 0 0-1.476562 1.5214844v5.296875c-0.849545-0.425578-1.853788-0.796875-3-0.796875-1.625 0-2.907193 0.9899929-3.720703 2.1289059-0.8135099 1.138914-1.279297 2.496094-1.279297 3.871094 0 1.75 0.4189089 3.374552 1.228516 4.669922 0.809606 1.29537 2.146484 2.330078 3.771484 2.330078 1.244107 0 2.224438-0.520716 3.044922-1.121094a1.50015 1.50015 0 0 0 2.955078-0.378906v-16a1.50015 1.50015 0 0 0-1.523438-1.5214844zm-4.476562 9.0214843c0.5 0 1.48772 0.363798 2.255859 0.802734 0.30371 0.173549 0.53132 0.329843 0.744141 0.47461v3.646484c-0.236946 0.253002-0.56512 0.584835-0.976562 0.9375-0.767812 0.658124-1.773438 1.138672-2.023438 1.138672-0.375 0-0.788122-0.215292-1.228516-0.919922-0.440393-0.70463-0.771484-1.830078-0.771484-3.080078 0-0.625 0.284213-1.51782 0.720703-2.128906 0.43649-0.611087 0.904297-0.871094 1.279297-0.871094z" style="opacity:.2"/>
 <path d="m18.5 11.5s-2.5-2-4.5-2-3.5 2.5-3.5 4.5c0 3 1.5 5.5 3.5 5.5s4.5-3 4.5-3" style="fill:none;stroke-linecap:round;stroke-linejoin:round;stroke-width:3;stroke:#f34235"/>
 <path d="m18.5 19.5v-16" style="fill:none;stroke-linecap:round;stroke-linejoin:round;stroke-width:3;stroke:#f34235"/>
 <path d="M 18.476562 1.9785156 A 1.50015 1.50015 0 0 0 17 3.5 L 17 4 A 1.50015 1.50015 0 0 1 18.476562 2.4785156 A 1.50015 1.50015 0 0 1 20 4 L 20 3.5 A 1.50015 1.50015 0 0 0 18.476562 1.9785156 z M 14 8 C 12.375 8 11.092807 8.9899932 10.279297 10.128906 C 9.465787 11.26782 9 12.625 9 14 C 9 14.098404 9.014934 14.191488 9.0175781 14.289062 C 9.0627258 12.987015 9.507623 11.70925 10.279297 10.628906 C 11.092807 9.4899933 12.375 8.5 14 8.5 C 15.146212 8.5 16.150455 8.871297 17 9.296875 L 17 8.796875 C 16.150455 8.371297 15.146212 8 14 8 z M 12.019531 14.304688 C 12.014432 14.368987 12 14.440132 12 14.5 C 12 15.75 12.331091 16.875448 12.771484 17.580078 C 13.211878 18.284708 13.625 18.5 14 18.5 C 14.25 18.5 15.255626 18.019452 16.023438 17.361328 C 16.43488 17.008663 16.763054 16.67683 17 16.423828 L 17 15.923828 C 16.763054 16.17683 16.43488 16.508663 16.023438 16.861328 C 15.255626 17.519452 14.25 18 14 18 C 13.625 18 13.211878 17.784708 12.771484 17.080078 C 12.367948 16.434418 12.068888 15.429072 12.019531 14.304688 z " style="fill:#8b9cbe;opacity:.2"/>
</svg>
