<svg xmlns="http://www.w3.org/2000/svg" width="22" height="22" version="1.1">
 <path style="opacity:0.2" d="M 6.4418,21.5 C 5.8348,21.5 5.09,21.062 4.7869,20.527 L 0.2273,12.473 C -0.07577,11.938 -0.07577,11.062 0.2273,10.527 L 4.7869,2.4735 C 5.09,1.9381 5.8348,1.5 6.4418,1.5 H 15.558 C 16.165,1.5 16.91,1.9381 17.213,2.4735 L 21.773,10.527 C 22.076,11.062 22.076,11.938 21.773,12.473 L 17.213,20.527 C 16.91,21.062 16.165,21.5 15.558,21.5 Z"/>
 <path style="fill:#0d597f" d="M 6.4418,21 C 5.8348,21 5.09,20.562 4.7869,20.027 L 0.2273,11.973 C -0.07577,11.438 -0.07577,10.562 0.2273,10.027 L 4.7869,1.9735 C 5.09,1.4381 5.8348,1 6.4418,1 H 15.558 C 16.165,1 16.91,1.4381 17.213,1.9735 L 21.773,10.027 C 22.076,10.562 22.076,11.438 21.773,11.973 L 17.213,20.027 C 16.91,20.562 16.165,21 15.558,21 Z"/>
 <path style="opacity:0.1;fill:#8b9cbe" d="M 6.4414,1 C 5.8344,1 5.0902,1.4382 4.7871,1.9736 L 0.2275,10.026 C 0.0401,10.358 -0.03076,10.819 0.0137,11.25 0.0411,10.984 0.1119,10.731 0.2275,10.526 L 4.7871,2.4736 C 5.0902,1.9382 5.8344,1.5 6.4414,1.5 H 15.559 C 16.166,1.5 16.91,1.9382 17.213,2.4736 L 21.772,10.526 C 21.888,10.731 21.959,10.984 21.986,11.25 22.031,10.819 21.96,10.358 21.772,10.026 L 17.213,1.9736 C 16.91,1.4382 16.166,1 15.559,1 Z"/>
 <path style="opacity:0.2" d="M 9,7.5 2,14.5 H 5 L 9,10.5 13,14.5 H 16 L 13.5,12 14,11.5 17,14.5 H 20 L 14,8.5 12,10.5 Z M 8,12.5 6,14.5 H 8 Z"/>
 <path style="fill:#8b9cbe" d="M 9,7 2,14 H 5 L 9,10 13,14 H 16 L 13.5,11.5 14,11 17,14 H 20 L 14,8 12,10 Z M 8,12 6,14 H 8 Z"/>
</svg>
