<svg xmlns="http://www.w3.org/2000/svg" width="22" height="22" version="1.1">
 <rect style="opacity:0.2" width="20" height="20" x="1" y="1.5" rx="1" ry="1"/>
 <rect style="fill:#ffd017" width="20" height="20" x="1" y="1" rx="1" ry="1"/>
 <path style="opacity:0.1" d="m 10.760081,17.53531 c -0.244438,0.04873 -0.659962,0.244405 -0.929259,0.36676 -0.04873,0.02455 -0.04873,0.09784 0,0.09784 0.07362,0.02456 0.122729,0.04877 0.171154,0.09784 0.122695,0.146602 0.269263,0.268957 0.269263,0.464629 0,0.219852 -0.122355,0.29317 -0.09784,0.488809 0.07332,0.391346 0.391005,0.932568 0.391005,1.348466 -0.02421,0.317688 -0.317688,0.317688 -0.488842,0.53788 -0.04907,0.07332 -0.07359,0.146601 -0.07359,0.244438 0,0.09784 -0.02421,0.268957 0.07359,0.268957 0.122049,0.02452 0.146602,-0.219886 0.268957,-0.219886 0.17112,0.02422 0.146942,0.268957 0.293509,0.268957 h 6.430343 c -0.02452,-0.07362 -0.07328,-0.17112 -0.122015,-0.195673 -0.318062,-0.293475 -1.124898,-0.684821 -1.2715,-1.149111 -0.244744,-0.70934 0.07328,-1.613707 0.171121,-2.396365 0.342241,-2.27367 0.220225,-3.520957 -0.195639,-5.403621 C 15.430116,11.279396 15.258996,10.325957 14.941308,9.274683 14.892198,9.07901 14.623585,8.8100525 14.525443,8.638932 14.452126,8.516577 14.378841,8.296352 14.354323,8.149784 14.183203,7.3429135 14.256792,6.560595 13.669807,5.875774 13.449616,5.63137 13.034091,5.6068175 12.765135,5.435697 12.251773,5.16674 11.738378,4.8977835 11.224677,4.580095 11.151393,4.53099 10.931202,4.4577062 10.809153,4.53099 c 0.586645,0.4158985 0.97799,0.904707 1.149111,1.6382935 0.07328,0.342241 0.17112,0.611198 -0.171121,0.806837 -0.09784,0.0491 -0.733751,0.1638295 -1.027226,0.872864 C 10.686637,7.995552 10.271074,8.94933 9.781926,9.854038 9.195281,9.53601 8.608262,9.511797 8.1927371,9.511797 c -0.440077,0 -1.0228645,0.04873 -1.389658,0.317688 -0.7819785,0.586985 -1.124559,1.344784 -1.3689635,2.200726 -0.1956725,0.659963 -0.317722,1.344784 -0.366793,2.029266 -0.04907,0.929225 0.049235,2.256607 0.146766,3.185866 0.07359,0.611199 0.146568,1.198323 0.1956395,1.80952 0.122049,0.659963 0.097836,1.173664 0.073284,1.295679 -0.2198525,0.684822 -0.562093,0.92926 -1.2223955,1.051614 -0.097837,0 -0.146908,0.04877 -0.122355,0.09784 h 1.8339325 v 0 h 2.049587 c 0.1953335,0 0.2444045,-0.09784 0.440077,-0.268957 0.2689579,-0.268957 -0.097836,-0.733586 0,-1.344784 0.2201919,-1.51621 0.8799899,-3.186007 1.1976789,-4.653146 0.04911,-0.17112 0.07362,-0.391311 0.09818,-0.635716 0.122049,0.586985 0.293334,0.949319 0.464454,1.51175 0.171121,0.586646 0.342241,1.25505 0.611538,1.401617 v 0 c -0.02455,0 -0.0491,0 -0.07362,0.02455 z"/>
 <path style="opacity:0.2;fill:#8b9cbe" d="M 2,1 C 1.446,1 1,1.446 1,2 v 0.5 c 0,-0.554 0.446,-1 1,-1 h 18 c 0.554,0 1,0.446 1,1 V 2 C 21,1.446 20.554,1 20,1 Z"/>
 <path style="fill:#17191e" d="m 10.760081,17.035316 c -0.244438,0.04873 -0.659962,0.244405 -0.929259,0.36676 -0.04873,0.02455 -0.04873,0.09784 0,0.09784 0.07362,0.02456 0.122729,0.04877 0.171154,0.09784 0.122695,0.146602 0.269263,0.268957 0.269263,0.464629 0,0.219852 -0.122355,0.29317 -0.09784,0.488809 0.07332,0.391346 0.391005,0.932568 0.391005,1.348466 -0.02421,0.317688 -0.317688,0.317688 -0.488842,0.53788 -0.04907,0.07332 -0.07359,0.146601 -0.07359,0.244438 0,0.09784 -0.02421,0.268957 0.07359,0.268957 0.122049,0.02452 0.146602,-0.219886 0.268957,-0.219886 0.17112,0.02422 0.146942,0.268957 0.293509,0.268957 h 6.430343 c -0.02452,-0.07362 -0.07328,-0.17112 -0.122015,-0.195673 -0.318062,-0.293475 -1.124898,-0.684821 -1.2715,-1.149111 -0.244744,-0.70934 0.07328,-1.613707 0.171121,-2.396365 0.342241,-2.27367 0.220225,-3.520957 -0.195639,-5.403621 C 15.430116,10.779402 15.258996,9.825963 14.941308,8.7746885 14.892198,8.5790155 14.623585,8.3100585 14.525443,8.138938 14.452126,8.016583 14.378841,7.796358 14.354323,7.64979 14.183203,6.8429195 14.256792,6.060601 13.669807,5.37578 13.449616,5.131376 13.034091,5.1068235 12.765135,4.935703 12.251773,4.666746 11.738378,4.3977895 11.224677,4.080101 11.151393,4.030996 10.931202,3.9577122 10.809153,4.030996 c 0.586645,0.4158985 0.97799,0.904707 1.149111,1.6382935 0.07328,0.342241 0.17112,0.611198 -0.171121,0.806837 -0.09784,0.0491 -0.733751,0.1638295 -1.027226,0.872864 C 10.686637,7.495558 10.271074,8.449336 9.781926,9.354044 9.195281,9.036016 8.608262,9.011803 8.1927371,9.011803 c -0.440077,0 -1.0228645,0.04873 -1.389658,0.317688 -0.7819785,0.586985 -1.124559,1.344784 -1.3689635,2.200726 -0.1956725,0.659963 -0.317722,1.344784 -0.366793,2.029266 -0.04907,0.929225 0.049235,2.256607 0.146766,3.185866 0.07359,0.611199 0.146568,1.198323 0.1956395,1.80952 0.122049,0.659963 0.097836,1.173664 0.073284,1.295679 -0.2198525,0.684822 -0.562093,0.92926 -1.2223955,1.051614 -0.097837,0 -0.146908,0.04877 -0.122355,0.09784 h 1.8339325 v 0 h 2.049587 c 0.1953335,0 0.2444045,-0.09784 0.440077,-0.268957 0.2689579,-0.268957 -0.097836,-0.733586 0,-1.344784 0.2201919,-1.51621 0.8799899,-3.186007 1.1976789,-4.653146 0.04911,-0.17112 0.07362,-0.391311 0.09818,-0.635716 0.122049,0.586985 0.293334,0.949319 0.464454,1.51175 0.171121,0.586646 0.342241,1.25505 0.611538,1.401617 v 0 c -0.02455,0 -0.0491,0 -0.07362,0.02455 z"/>
 <path style="fill:#8b9cbe" d="m 10.773691,17.251953 c -0.06075,-5e-6 -0.123385,0.009 -0.184571,0.02735 -0.146606,0.02455 -0.195832,0.220523 -0.09766,0.318359 0,0 0.0731,0.04872 0.09766,0.07324 v 0.04883 c -0.06579,0.06602 -0.295475,0.05711 -0.427734,0.06641 0.06189,0.08065 0.109375,0.166907 0.109375,0.276367 0,0.219852 -0.122175,0.292641 -0.09766,0.488281 0.07332,0.391345 0.391601,0.932735 0.391601,1.348633 -0.0012,0.01547 -0.0064,0.02698 -0.0088,0.04102 0.08937,0.0826 0.288496,0.122051 0.326172,0.178711 0.07329,0.09784 -0.04853,0.269351 0.02441,0.367187 0.02455,0.07362 0.123105,0.09746 0.171875,0.07324 0.122355,-0.02455 0.170718,-0.170899 0.268555,-0.170899 0.17112,-0.02422 0.391622,-0.02439 0.513672,0.09766 0.04907,0.02455 0.07324,-1.98e-4 0.07324,-0.02441 0.02421,-0.09784 -0.366946,-0.195602 -0.416016,-0.586914 -0.04907,-0.317722 -0.02395,-0.663618 -0.24414,-1.005859 -0.04877,-0.04911 -0.12197,-0.04878 -0.146485,-0.12207 0,-0.09784 0.07324,-0.220724 0.07324,-0.342774 0,-0.04907 -0.02417,-0.146683 -0.07324,-0.170898 -0.07332,-0.02454 -0.171728,0.02442 -0.269531,0.02442 -0.146602,0 -0.317203,-6.8e-5 -0.415039,-0.04883 -0.02451,-0.02452 -0.02465,-0.04868 0.02442,-0.07324 0.0975,-0.02455 0.341713,0.09808 0.488281,-0.04883 0.171155,-0.146601 0.293986,-0.39124 0.220702,-0.586913 -0.05522,-0.165144 -0.220092,-0.248031 -0.402343,-0.248047 z"/>
 <path style="fill:#ff5811" d="m 11.102322,4.1533845 c 0.415865,0.220192 0.929226,1.0025095 1.198182,1.418069 0.12239,0.17112 0.29351,0.02452 0.219886,-0.1220495 C 12.105171,4.862419 11.616023,4.3735765 11.102322,4.1533845 v 0 M 8.950667,10.282839 c 0.317723,0.07362 0.606343,0.191784 0.703839,0.485259 0.09818,0.293509 0.422253,0.464629 0.299864,1.320232 0,0 -0.02421,0.09784 0,0 0.02421,-0.219852 -0.02421,0.0978 0,0 0.02452,-0.146602 0.269299,0.198624 0.31803,0.271907 -0.09784,-0.29351 -0.123515,-0.980942 0.243248,-0.95639 0.195673,0.02455 0.171154,0.171121 0.489182,0.244404 0.0975,0.02456 0.317688,-0.04873 0.366793,-0.219851 0.122015,-0.366794 0,-0.684822 -0.293509,-0.929226 -0.171461,-0.146941 -0.391312,-0.220225 -0.611198,-0.07332 -0.04907,0.04877 -0.122389,0.195334 -0.122389,0.268957 0.04876,0.317722 -0.122355,0.219886 -0.244404,0 -0.17112,-0.268957 -0.807177,-0.460706 -1.149451,-0.411975 v 0 m 2.102889,4.446294 c 0.146907,-0.46463 -0.02421,-1.149111 -0.122355,-1.662812 -0.04877,-0.17112 0.17112,-0.219852 0.220191,-0.04873 0.146603,0.684482 0.12205,1.198182 -0.09784,1.711543 v 0 M 11.860424,6.42739 c -0.04907,0.024215 -0.244405,0.1711205 -0.366793,0.2444045 0.268957,0.04877 0.63575,0.244404 0.80687,0.562466 0.122389,0.268957 0.219886,0.6599295 0.268957,0.9288865 0,-0.1711205 -0.02456,-0.9288865 0.04907,-1.0267225 0.122049,-0.1469075 0.366793,-0.024555 0.537914,0.04873 0.122049,0.049105 0.195672,0.195673 0.317722,0.268957 0.122355,0.0491 0.244744,0.073284 0.366759,0.024555 0.12205,-0.024555 0.244744,-0.1223895 0.293509,-0.244405 0.07328,-0.2202255 -0.146907,-1.1003795 -0.63575,-0.904707 -0.195639,0.073284 -0.220191,0.3667935 -0.391311,0.5133615 -0.0975,0.073283 -0.195673,0.097836 -0.317723,0.073283 -0.122355,0 -0.269262,-0.073283 -0.391312,-0.1711205 -0.17112,-0.1220145 -0.34224,-0.268956 -0.537913,-0.317688 z"/>
 <path style="fill:#231f20" d="m 10.809153,17.552326 c 0.07328,0 0.17112,0.09784 0.146568,0.122388 -0.04907,0.04877 -0.07329,-0.02456 -0.171121,-0.02456 -0.07328,0 -0.146568,0.02456 -0.146568,-0.02452 0,-0.04877 0.07328,-0.07332 0.171121,-0.07332 z"/>
 <path style="fill:#8b9cbe" d="m 11.56798,6.5540265 c -0.217855,0.149008 -0.569132,0.2181455 -0.807919,0.795055 -0.07328,0.1465675 -0.488771,1.1004775 -0.97792,2.0051855 0.12239,0.07328 0.317973,0.219838 0.415471,0.293428 0.562466,0.440077 0.83144,0.488554 1.173715,0.855348 0.146567,0.220191 0.415409,1.002509 0.488694,1.124898 0.122049,0.342241 0.171447,0.684494 0.09816,1.026735 -0.07328,0.366793 -0.318358,0.684685 -0.440407,1.027266 -0.07362,0.195333 -0.121982,0.537828 -0.195266,0.757714 -0.07328,0.220191 -0.07344,0.36681 -0.195796,0.562449 -0.09753,0.09784 -0.220073,0.02475 -0.146449,-0.09763 0.07328,-0.146567 0.09784,-0.538104 0,-0.807061 -0.122355,-0.366793 -0.293755,-0.758067 -0.391592,-0.977918 -0.122049,-0.220226 -0.342152,-0.758033 -0.415469,-0.977919 -0.244405,-0.63575 -0.09763,-1.858736 -1.222532,-1.858736 -0.4155244,0.04911 -0.8805454,0.122491 -1.1737149,0.416 -0.3667935,0.317689 -0.5133695,0.660354 -0.68449,1.173715 -0.1469075,0.440077 -0.073501,0.73337 -0.1225715,1.002327 -0.072945,0.659929 0.073623,0.88063 0,1.540898 -0.072945,0.684481 -0.1955125,0.777868 -0.3420805,1.291229 -0.097497,0.293475 -0.1954225,1.087178 -0.3910615,1.331922 -0.072978,0.09784 -0.29314,0.171171 -0.342245,0.04882 -0.219852,-0.46463 -0.098073,-1.694184 -0.147144,-2.110048 -0.04907,-0.09784 -0.097633,-0.07332 -0.097633,0 -0.04873,0.244743 2.05e-5,1.523305 0.02457,1.841027 0.073284,0.46463 0.2935305,0.904915 0.3910615,1.369511 0.122355,0.537914 0.684702,2.004649 0.464817,2.46894 -0.063243,0.105132 -0.1621605,0.266822 -0.2663675,0.342775 h 1.7579185 c 0.048835,0 0.088506,-0.0062 0.123633,-0.01804 10e-4,-3.25e-4 0.00165,-0.0013 0.0027,-0.0016 0.058055,-0.03062 0.1162375,-0.07352 0.174571,-0.123632 0.027575,-0.02551 0.056873,-0.05044 0.091797,-0.08278 0.03092,-0.03088 0.061512,-0.06367 0.091797,-0.09763 C 8.685026,20.401224 8.3701581,19.95795 8.4616561,19.386357 8.681849,17.870146 9.341927,16.200223 9.659615,14.733083 c 0.04911,-0.17112 0.07361,-0.391269 0.09816,-0.635673 0.122049,0.586984 0.29333,0.949531 0.46445,1.511963 0.150034,0.571437 0.310502,1.192941 0.611475,1.401398 0.876091,-0.01077 0.569982,1.257954 0.733628,1.813133 0.122049,0.342241 0.41496,0.61127 0.513102,0.95351 0.146602,0.440078 0.07357,0.733252 -0.04882,1.148776 h 0.880287 c 0.80721,-0.07328 1.638327,-1.173722 1.736163,-1.858204 0.04877,-0.244405 -0.02428,-1.222013 -0.146979,-1.442205 -0.219886,-0.366793 -0.537922,-0.61144 -0.68449,-0.855878 -0.46429,-0.660268 -0.293306,-1.735917 -0.09763,-2.46947 0.17112,-0.684481 0.586522,-1.589184 0.610735,-1.589184 0.04907,-0.07328 -0.07297,-0.147184 -0.122041,-0.04935 -0.195673,0.220191 -0.440204,0.904614 -0.538041,1.198123 -0.122015,0.366793 -0.219724,0.782514 -0.26849,1.149307 -0.07328,0.562432 0.09742,1.173697 -0.02494,1.736163 -0.02421,0.122355 -0.219695,0.244141 -0.317837,0.170858 -0.806531,-0.63575 -0.977533,-1.931162 -0.95298,-2.88494 0.02421,-0.977991 0.439419,-1.882575 0.586326,-2.860532 0.04877,-0.220225 -0.171052,-0.415482 -0.195265,-0.635674 -0.04877,-0.293509 -0.02426,-0.391689 -0.04882,-0.660612 0,-0.171154 0.12204,-0.562186 0.12204,-0.733306 0.02455,-0.415865 -0.02455,-0.855679 0,-1.2957565 C 12.475314,7.04101 12.219704,6.9361485 11.56802,6.554012 Z"/>
</svg>
