<svg width="22" height="22" version="1.1" xmlns="http://www.w3.org/2000/svg">
 <circle cx="11" cy="11.5" r="10" style="opacity:.2"/>
 <circle cx="11" cy="11" r="10" style="fill:#238adb"/>
 <circle cx="11" cy="11.5" r="8" style="opacity:.1"/>
 <circle cx="11" cy="11" r="8" style="fill:#17191e"/>
 <path d="m16.43457 7.5316907c0-0.010825-0.0589 0.026471-0.129394 0.083007-0.179166 0.1436906-0.363757 0.2013723-0.891113 0.2783207-0.491243 0.071679-0.727954 0.1531623-0.791015 0.2709961-0.02174 0.040617-0.09896 0.1254374-0.170899 0.1904297-0.07194 0.064992-0.139495 0.1577767-0.151368 0.2050781-0.02969 0.1182924 0.07344 0.3338502 0.268555 0.5590821 0.218115 0.2517911 0.327148 0.4756751 0.327149 0.6738281 0 0.1414252-0.01575 0.1752201-0.131836 0.2856445-0.199073 0.189374-0.448689 0.257192-0.927735 0.253907-0.698411-0.0048-1.352528-0.186516-2.644043-0.737305-1.058378-0.4513636-1.5199764-0.5641891-1.9873046-0.4785155-0.2508088 0.0459799-0.6327694 0.2312606-0.8300781 0.4003905-0.3127499 0.2680851-0.8934272 1.11825-1.2597657 1.848145l-0.2416991 0.48584-0.1879884-0.195313c-0.3070245-0.319104-0.402832-0.445939-0.402832-0.534668 0-0.05504-0.019821-0.08545-0.056152-0.08545-0.046194 0-0.052791 0.02803-0.039063 0.170899 0.01804 0.187744 0.1522886 0.413848 0.432129 0.725097l0.1513673 0.168457-0.1245118 0.397949c-0.0685052 0.219605-0.1433855 0.505724-0.1660156 0.634767-0.0396375 0.226025-0.0490514 0.245583-0.2978515 0.505371-0.2976356 0.310781-0.3383838 0.321601-0.6933594 0.187988-0.2959323-0.111388-0.7798444-0.227051-0.9497071-0.227051-0.1582305 0-0.3417968 0.07968-0.3417968 0.148926 0 0.03306 0.052899 0.04585 0.1953125 0.04394 0.1602609-0.0021 0.2955312 0.03496 0.727539 0.197754 0.6847457 0.25803 0.7470662 0.273913 0.9057618 0.244141 0.099321-0.01864 0.1888029-0.07994 0.3588867-0.244141l0.2270508-0.219726 0.065918 0.0708c0.086375 0.09564 0.3967529 0.251258 0.649414 0.324706l0.2026367 0.05859-0.15625 0.03906c-0.2130245 0.05409-0.3484466 0.160257-0.4248047 0.32959-0.063045 0.13981-0.06347 0.14402 0 0.19043 0.084341 0.06167 0.6830855 0.0632 0.8032227 0.0025 0.070533-0.03569 0.2062582-0.225373 0.2490234-0.34668 0.00601-0.01708 0.084598-0.0021 0.1733399 0.03174 0.1972896 0.07535 0.5734906 0.05481 0.8398438-0.04639 0.095065-0.03613 0.1733397-0.05359 0.1733397-0.03906 0 0.01451-0.069214 0.09363-0.1538085 0.178224-0.1018625 0.101862-0.1538086 0.183982-0.1538086 0.241698 0 0.192934 0.00596 0.195313 0.4833984 0.195313 0.3227436 0 0.4457596-0.01025 0.456543-0.0415v-0.0025c0.00811-0.0235 0.019023-0.312199 0.024414-0.644531 0.00891-0.549683 0.015845-0.612949 0.080566-0.700684 0.1979902-0.268391 1.1425232-0.647825 1.7504892-0.703125l0.178222-0.01709v0.104979c0 0.05793-0.07189 0.309097-0.161132 0.556641l-0.163575 0.44922-0.180664 0.0415c-0.2036 0.04556-0.385934 0.183117-0.45166 0.341796-0.07864 0.189851-0.04548 0.205079 0.410156 0.205079 0.48129 0 0.445012 0.02076 0.700685-0.429688 0.139906-0.246489 0.260008-0.388729 0.661621-0.78857l0.490723-0.488282 0.148925 0.03906c0.303065 0.08106 1.483872 1.061459 1.638184 1.359863 0.05508 0.1065 0.04261 0.174014-0.05615 0.302735-0.07976 0.103962-0.08327 0.231731-0.0049 0.251465 0.135031 0.03397 0.727104 0.02816 0.793457-0.0074 0.03869-0.0207 0.07087-0.07066 0.0708-0.1123-6.7e-5 -0.04164-0.123587-0.291016-0.273437-0.5542-0.324888-0.570605-0.369477-0.676499-0.739757-1.767532-0.241817-0.712518-0.285643-0.879526-0.285643-1.064453 0-0.384717 0.162055-0.686897 0.534667-0.993653 0.107188-0.08825 0.198733-0.185551 0.202636-0.217285 0.0039-0.03173 0.02325-0.1306945 0.0415-0.2197261 0.03582-0.1748432 0.01175-0.3692631-0.06104-0.5053711-0.025086-0.0469616-0.127511-0.1847148-0.229466-0.3051398-0.231368-0.2732871-0.271195-0.3651147-0.192871-0.4516602 0.033-0.036463 0.104-0.063476 0.166015-0.063476 0.181256 0 0.455594-0.09895 0.764161-0.2758789 0.161534-0.092623 0.316269-0.1684571 0.346679-0.1684571 0.07955 0 0.180995-0.1225625 0.302735-0.3662109 0.05844-0.1169562 0.107425-0.221112 0.107425-0.2319336z" style="opacity:.2"/>
 <path d="m16.43457 7.0316907c0-0.010825-0.0589 0.026471-0.129394 0.083007-0.179166 0.1436906-0.363757 0.2013723-0.891113 0.2783207-0.491243 0.071679-0.727954 0.1531623-0.791015 0.2709961-0.02174 0.040617-0.09896 0.1254374-0.170899 0.1904297-0.07194 0.064992-0.139495 0.1577767-0.151368 0.2050781-0.02969 0.1182924 0.07344 0.3338502 0.268555 0.5590821 0.218115 0.2517911 0.327148 0.4756751 0.327149 0.6738281 0 0.1414252-0.01575 0.1752201-0.131836 0.2856445-0.199073 0.1893737-0.448689 0.2571921-0.927735 0.2539068-0.698411-0.004789-1.352528-0.1865154-2.644043-0.7373048-1.058378-0.4513636-1.5199764-0.5641891-1.9873046-0.4785155-0.2508088 0.0459799-0.6327694 0.2312606-0.8300781 0.4003905-0.3127499 0.2680851-0.8934272 1.11825-1.2597657 1.848145l-0.2416991 0.48584-0.1879884-0.195313c-0.3070245-0.319104-0.402832-0.445939-0.402832-0.534668 0-0.05504-0.019821-0.08545-0.056152-0.08545-0.046194 0-0.052791 0.02803-0.039063 0.170899 0.01804 0.187744 0.1522886 0.413848 0.432129 0.725097l0.1513673 0.168457-0.1245118 0.397949c-0.0685052 0.219605-0.1433855 0.505724-0.1660156 0.634767-0.0396375 0.226025-0.0490514 0.245583-0.2978515 0.505371-0.2976356 0.310781-0.3383838 0.321601-0.6933594 0.187988-0.2959323-0.111388-0.7798444-0.227051-0.9497071-0.227051-0.1582305 0-0.3417968 0.07968-0.3417968 0.148926 0 0.03306 0.052899 0.04585 0.1953125 0.04394 0.1602609-0.0021 0.2955312 0.03496 0.727539 0.197754 0.6847457 0.25803 0.7470662 0.273913 0.9057618 0.244141 0.099321-0.01864 0.1888029-0.07994 0.3588867-0.244141l0.2270508-0.219726 0.065918 0.0708c0.086375 0.09564 0.3967529 0.251258 0.649414 0.324706l0.2026367 0.05859-0.15625 0.03906c-0.2130245 0.05409-0.3484466 0.160257-0.4248047 0.32959-0.063045 0.13981-0.06347 0.14402 0 0.19043 0.084341 0.06167 0.6830855 0.0632 0.8032227 0.0025 0.070533-0.03569 0.2062582-0.225373 0.2490234-0.34668 0.00601-0.01708 0.084598-0.0021 0.1733399 0.03174 0.1972896 0.07535 0.5734906 0.05481 0.8398438-0.04639 0.095065-0.03613 0.1733397-0.05359 0.1733397-0.03906 0 0.01451-0.069214 0.09363-0.1538085 0.178224-0.1018625 0.101862-0.1538086 0.183982-0.1538086 0.241698 0 0.192934 0.00596 0.195313 0.4833984 0.195313 0.3227436 0 0.4457596-0.01025 0.456543-0.0415v-0.0025c0.00811-0.0235 0.019023-0.312199 0.024414-0.644531 0.00891-0.549683 0.015845-0.612949 0.080566-0.700684 0.1979902-0.268391 1.1425232-0.647825 1.7504892-0.703125l0.178222-0.01709v0.104979c0 0.05793-0.07189 0.309097-0.161132 0.556641l-0.163575 0.44922-0.180664 0.0415c-0.2036 0.04556-0.385934 0.183117-0.45166 0.341796-0.07864 0.189851-0.04548 0.205079 0.410156 0.205079 0.48129 0 0.445012 0.02076 0.700685-0.429688 0.139906-0.246489 0.260008-0.388729 0.661621-0.78857l0.490723-0.488282 0.148925 0.03906c0.303065 0.08106 1.483872 1.061459 1.638184 1.359863 0.05508 0.1065 0.04261 0.174014-0.05615 0.302735-0.07976 0.103962-0.08327 0.231731-0.0049 0.251465 0.135031 0.03397 0.727104 0.02816 0.793457-0.0074 0.03869-0.0207 0.07087-0.07066 0.0708-0.1123-6.7e-5 -0.04164-0.123587-0.291016-0.273437-0.5542-0.324888-0.570605-0.369477-0.676499-0.739757-1.767532-0.241817-0.712518-0.285643-0.879526-0.285643-1.064453 0-0.384717 0.162055-0.686897 0.534667-0.9936525 0.107188-0.088246 0.198733-0.1855514 0.202636-0.2172851 0.0039-0.031734 0.02325-0.1306949 0.0415-0.2197265 0.03582-0.1748432 0.01175-0.3692631-0.06104-0.5053711-0.025086-0.0469616-0.127511-0.1847148-0.229466-0.3051398-0.231368-0.2732871-0.271195-0.3651147-0.192871-0.4516602 0.033-0.036463 0.104-0.063476 0.166015-0.063476 0.181256 0 0.455594-0.09895 0.764161-0.2758789 0.161534-0.092623 0.316269-0.1684571 0.346679-0.1684571 0.07955 0 0.180995-0.1225625 0.302735-0.3662109 0.05844-0.1169562 0.107425-0.221112 0.107425-0.2319336z" style="fill:#fcfcfd"/>
 <path d="M 11 1 A 10 10 0 0 0 1 11 A 10 10 0 0 0 1.0097656 11.292969 A 10 10 0 0 1 11 1.5 A 10 10 0 0 1 20.990234 11.207031 A 10 10 0 0 0 21 11 A 10 10 0 0 0 11 1 z " style="fill:#8b9cbe;opacity:.2"/>
</svg>
