<svg xmlns="http://www.w3.org/2000/svg" width="22" height="22" version="1.1">
 <rect style="opacity:0.2" width="21" height="21" x="1" y=".5" rx="1.575" ry="1.575"/>
 <rect style="fill:#48487b" width="21" height="21" x="1" y="0" rx="1.575" ry="1.575"/>
 <path style="opacity:0.2" d="m 15.5,15.497342 q 0,1.897674 -1.045255,2.950166 Q 13.415328,19.5 11.50584,19.5 9.572993,19.5 8.533577,18.45814 7.5,17.410963 7.5,15.486711 q 0,-1.924252 1.039416,-2.955481 1.045255,-1.031229 2.978103,-1.031229 1.903648,0 2.943065,1.047176 Q 15.5,13.594352 15.5,15.497342 Z m -6.516788,0 q 0,1.435216 0.636497,2.179402 0.636495,0.73887 1.886131,0.73887 1.243795,0 1.874452,-0.733554 0.636497,-0.733555 0.636497,-2.184718 0,-1.4299 -0.630657,-2.168771 -0.624817,-0.73887 -1.868613,-0.73887 -1.255475,0 -1.89781,0.73887 -0.636497,0.738871 -0.636497,2.168771 z"/>
 <path style="fill:#bd66ff" d="m 15.5,14.997342 q 0,1.897674 -1.045255,2.950166 Q 13.415328,19 11.50584,19 9.572993,19 8.533577,17.95814 7.5,16.910963 7.5,14.986711 q 0,-1.924252 1.039416,-2.955481 1.045255,-1.031229 2.978103,-1.031229 1.903648,0 2.943065,1.047176 Q 15.5,13.094352 15.5,14.997342 Z m -6.516788,0 q 0,1.435216 0.636497,2.179402 0.636495,0.73887 1.886131,0.73887 1.243795,0 1.874452,-0.733554 0.636497,-0.733555 0.636497,-2.184718 0,-1.4299 -0.630657,-2.168771 -0.624817,-0.73887 -1.868613,-0.73887 -1.255475,0 -1.89781,0.73887 -0.636497,0.738871 -0.636497,2.168771 z"/>
 <path style="opacity:0.2" d="m 4,2.5 v 8 H 5.4160156 V 6.7792969 c 0,-0.2689077 -0.0075,-0.5743648 -0.021484,-0.9179688 C 5.3805512,5.5177241 5.3674956,5.1972238 5.3535156,4.8984375 5.339539,4.5996515 5.3273025,4.3740027 5.3203125,4.2246094 h 0.042969 L 7.1660156,10.5 H 8.6230469 L 10.552734,4.2363281 h 0.04297 c -0.007,0.149393 -0.01727,0.3730887 -0.03125,0.671875 -0.007,0.2913167 -0.01922,0.602976 -0.0332,0.9316407 -0.007,0.3286646 -0.0098,0.6190785 -0.0098,0.8730468 V 10.5 H 12 v -8 H 9.839844 L 7.9628906,8.6171875 h -0.03125 L 6.1601562,2.5 Z m 12.226562,0 c -0.963441,0 -1.726017,0.1955202 -2.285156,0.5878906 -0.55914,0.3851047 -0.83789,0.9274524 -0.83789,1.625 0,0.35604 0.07251,0.6617017 0.21875,0.9160156 0.146236,0.2543144 0.331031,0.4706908 0.554687,0.6523438 0.232258,0.174387 0.473194,0.3237416 0.722656,0.4472656 0.249464,0.116258 0.482213,0.2174942 0.697266,0.3046875 0.344086,0.1380564 0.649349,0.2690541 0.916016,0.3925781 0.266666,0.1162581 0.477973,0.2447562 0.632812,0.3828126 0.163441,0.1380563 0.244141,0.3038146 0.244141,0.5 0,0.2397819 -0.102143,0.4397547 -0.308594,0.5996093 -0.197849,0.1525889 -0.537811,0.2285159 -1.019531,0.2285159 -0.464516,0 -0.933132,-0.06452 -1.40625,-0.1953128 C 13.890953,8.8033499 13.43871,8.6539953 13,8.4941406 V 10.03125 c 0.765592,0.312443 1.63538,0.46875 2.607422,0.46875 1.083871,0 1.917007,-0.204425 2.501953,-0.611328 C 18.702924,9.474502 19,8.9227032 19,8.2324219 19,7.8255192 18.909161,7.485097 18.728516,7.2089844 18.54787,6.9328717 18.290562,6.6917326 17.955078,6.4882812 17.628197,6.2848299 17.227025,6.08931 16.753906,5.9003906 16.177562,5.667875 15.743645,5.4723547 15.451172,5.3125 c -0.292473,-0.1598547 -0.4375,-0.3781842 -0.4375,-0.6542969 0,-0.232516 0.09903,-0.4210839 0.296875,-0.5664062 0.19785,-0.1453224 0.48167,-0.21875 0.851562,-0.21875 0.352688,0 0.695766,0.041166 1.03125,0.1210937 0.335484,0.079927 0.713261,0.1925683 1.134766,0.3378906 L 18.960938,3.0449219 C 18.479217,2.8705349 18.023857,2.7370377 17.59375,2.6425781 17.163643,2.5481185 16.708283,2.5 16.226562,2.5 Z"/>
 <path style="fill:#8b9cbe" d="M 7.1664485,10 5.3630405,3.72549 h -0.04194 q 0.010485,0.22409 0.03145,0.672269 0.02097,0.4481795 0.04194,0.9635855 0.02097,0.515406 0.02097,0.9187675 V 10 H 4 V 2 h 2.159895 l 1.771953,6.1176465 h 0.03145 L 9.840105,2 H 12 v 8 H 10.521625 V 6.212885 q 0,-0.3809525 0.01048,-0.8739495 0.02097,-0.492997 0.03145,-0.929972 0.02097,-0.4481795 0.03146,-0.672269 H 10.55308 L 8.623853,10 Z"/>
 <path style="fill:#8b9cbe" d="M 19,7.73297 Q 19,8.768392 18.109677,9.389646 17.232258,10 15.606451,10 14.148388,10 13,9.531336 V 7.9945505 q 0.658065,0.239782 1.354839,0.4468665 0.709677,0.196186 1.406451,0.196186 0.722581,0 1.019355,-0.2288835 0.309677,-0.239782 0.309677,-0.599455 0,-0.294278 -0.245161,-0.5013625 Q 16.612903,7.1008175 16.212903,6.9264305 15.812903,6.7411445 15.296774,6.53406 14.974194,6.40327 14.599999,6.228883 14.225806,6.043597 13.877419,5.7820165 13.541935,5.509537 13.32258,5.1280655 q -0.219354,-0.381471 -0.219354,-0.915531 0,-1.0463215 0.83871,-1.6239785 0.838708,-0.5885557 2.28387,-0.5885557 0.722581,0 1.367742,0.1416894 0.645161,0.1416894 1.367742,0.4032698 L 18.329032,3.831063 Q 17.696774,3.6130795 17.193548,3.4931885 16.690322,3.3732975 16.16129,3.3732975 q -0.554838,0 -0.851613,0.2179835 -0.296773,0.2179835 -0.296773,0.5667575 0,0.414169 0.438709,0.653951 0.438709,0.239782 1.303225,0.5885555 0.709678,0.283379 1.2,0.588556 0.503226,0.305177 0.774194,0.719346 Q 19,7.122616 19,7.73297 Z"/>
 <path style="opacity:0.2" d="M 11,15.423392 Q 11,17.40424 9.816653,18.454856 8.633306,19.5 6.407906,19.5 H 4 v -8 h 2.66106 q 2.0546675,0 3.196804,1.028728 Q 11,13.557456 11,15.423392 Z m -1.4836,0.04378 q 0,-2.872776 -2.8906635,-2.872776 H 5.407064 v 5.805745 h 1.000842 q 3.108494,0 3.108494,-2.932969 z"/>
 <path style="fill:#e73d3d" d="M 11,14.923392 Q 11,16.90424 9.816653,17.954856 8.633306,19 6.407906,19 H 4 V 11 H 6.66106 Q 8.7157275,11 9.857864,12.028728 11,13.057456 11,14.923392 Z m -1.4836,0.04378 q 0,-2.872776 -2.8906635,-2.872776 H 5.407064 v 5.805745 h 1.000842 q 3.108494,0 3.108494,-2.932969 z"/>
 <path style="opacity:0.2" d="m 18.5,17.280439 q 0,1.037924 -1.054488,1.628743 Q 16.391025,19.5 14.536324,19.5 12.681624,19.5 11.5,19.090153 v -1.202928 q 0.747863,0.250167 1.58547,0.393879 0.845086,0.143713 1.570513,0.143713 1.061966,0 1.563034,-0.287425 0.508547,-0.287426 0.508547,-0.77179 0,-0.43646 -0.463675,-0.739853 -0.463675,-0.303394 -1.91453,-0.718563 -1.495726,-0.431138 -2.108974,-0.984697 -0.613249,-0.55356 -0.613249,-1.330672 0,-0.974052 0.972223,-1.532935 Q 13.571582,11.5 15.209401,11.5 q 1.570513,0 3.126069,0.489688 l -0.568377,1.037924 q -1.458333,-0.436461 -2.602564,-0.436461 -0.867521,0 -1.316239,0.271458 -0.448718,0.266134 -0.448718,0.707917 0,0.303393 0.179487,0.521624 0.179487,0.212906 0.590812,0.404524 0.411325,0.191616 1.48077,0.505655 1.204059,0.35662 1.764956,0.665335 0.560898,0.308717 0.82265,0.697273 Q 18.5,16.753493 18.5,17.280439 Z"/>
 <path style="fill:#ffeb3b" d="m 18.5,16.780439 q 0,1.037924 -1.054488,1.628743 Q 16.391025,19 14.536324,19 12.681624,19 11.5,18.590153 v -1.202928 q 0.747863,0.250167 1.58547,0.393879 0.845086,0.143713 1.570513,0.143713 1.061966,0 1.563034,-0.287425 0.508547,-0.287426 0.508547,-0.77179 0,-0.43646 -0.463675,-0.739853 -0.463675,-0.303394 -1.91453,-0.718563 -1.495726,-0.431138 -2.108974,-0.984697 -0.613249,-0.55356 -0.613249,-1.330672 0,-0.974052 0.972223,-1.532935 Q 13.571582,11 15.209401,11 q 1.570513,0 3.126069,0.489688 l -0.568377,1.037924 q -1.458333,-0.436461 -2.602564,-0.436461 -0.867521,0 -1.316239,0.271458 -0.448718,0.266134 -0.448718,0.707917 0,0.303393 0.179487,0.521624 0.179487,0.212906 0.590812,0.404524 0.411325,0.191616 1.48077,0.505655 1.204059,0.35662 1.764956,0.665335 0.560898,0.308717 0.82265,0.697273 Q 18.5,16.253493 18.5,16.780439 Z"/>
 <path style="fill:#bd66ff" d="M 11.517578,11 C 10.229014,11 9.2359,11.343764 8.5390625,12.03125 7.8461185,12.718737 7.5,13.703494 7.5,14.986328 c 0,0.182458 0.0095,0.357692 0.023435,0.52832 l 1.4609375,-0.503906 c -1.1e-5,-0.0049 -10e-4,-0.0088 -10e-4,-0.01367 0,-0.953267 0.2123875,-1.676365 0.6367185,-2.168945 0.428224,-0.49258 1.060478,-0.738282 1.897461,-0.738282 0.829198,0 1.45162,0.245702 1.868164,0.738282 0.13529,0.158502 0.247112,0.3436 0.338868,0.549804 l 1.347655,-0.464843 C 14.912644,12.588006 14.710282,12.298081 14.460938,12.046875 13.767993,11.348758 12.786678,11 11.517578,11 Z"/>
 <path style="opacity:0.1;fill:#8b9cbe" d="M 2.5742188,0 C 1.7016687,0 1,0.7016687 1,1.5742188 v 0.5 C 1,1.2016687 1.7016687,0.5 2.5742188,0.5 H 20.425781 C 21.298331,0.5 22,1.2016687 22,2.0742188 v -0.5 C 22,0.7016687 21.298331,0 20.425781,0 Z"/>
 <path style="opacity:0.2" d="m 11.953125,12.125 c -0.110635,0.148105 -0.201901,0.305388 -0.253906,0.478516 0.73467,0.03534 1.301488,0.270444 1.685547,0.724609 0.06532,0.08724 0.128906,0.175781 0.193359,0.263672 -0.119658,-0.145487 -0.177734,-0.319221 -0.177734,-0.521485 0,-0.0633 0.0097,-0.121856 0.02344,-0.179687 -0.01483,-0.01875 -0.02366,-0.04445 -0.03906,-0.0625 C 13.04615,12.427698 12.564084,12.199767 11.953125,12.125 Z m -1.771484,0.273438 c -0.21156,0.114194 -0.405789,0.249424 -0.5625,0.429687 -0.160771,0.186629 -0.280962,0.416956 -0.38086,0.669922 0.03479,0.0793 0.07554,0.152208 0.103516,0.238281 0.07912,-0.150475 0.172183,-0.286129 0.277344,-0.408203 0.220621,-0.253778 0.498844,-0.43962 0.828125,-0.5625 -0.07878,-0.129572 -0.169598,-0.250266 -0.265625,-0.367187 z"/>
</svg>
