<svg width="22" height="22" version="1" xmlns="http://www.w3.org/2000/svg">
 <rect x="1" y="1" width="20" height="20" rx="1" ry="1" style="fill:#4f4f4f"/>
 <path d="m12.515743 3.5000002c-1.231263 0.7443935-2.496017 1.4371333-3.700043 2.2242768-0.4417425 2.1106395-0.869762 4.224375-1.28348 6.340679 0.4643085 0.589473 0.9735595 1.142061 1.4544495 1.717957-0.4697355-0.14988-1.059818-0.48783-1.5782175-0.69702 0.4080905 1.507235 0.8349575 3.010009 1.2800935 4.506723 0.5951795-0.05119 1.1858325-0.146321 1.7808195-0.199464-0.42712 0.44003-0.888286 0.84582-1.317942 1.283356 0.751115-0.312541 1.489862-0.654032 2.238447-0.972585 0.143823 0.235618-0.282646 1.079344-0.340105 1.537075 0.328143-0.531431 0.640711-1.072641 0.952542-1.613828l0.287341-0.13514s-0.08414-0.08432 0 0c0.652601 0.10294 1.303759 0.227205 1.955828 0.325531-0.586807-0.288057-1.183376-0.555836-1.770192-0.843877 0.586829-0.24327 1.212089-0.427872 1.811521-0.654604-0.58953-0.0055-1.179094 0.01062-1.768639 0.0039 0.09524-0.210303 0.806928-0.581308 1.115215-0.868674-0.430604-0.500155-0.915783-0.950823-1.349513-1.448265 0.750145-2.456556 1.537319-4.901731 2.307679-7.3520455-0.690854-1.051966-1.365762-2.1149045-2.075805-3.1539912z" style="opacity:.2"/>
 <path d="m2 1c-0.554 0-1 0.446-1 1v0.5c0-0.554 0.446-1 1-1h18c0.554 0 1 0.446 1 1v-0.5c0-0.554-0.446-1-1-1z" style="fill:#8b9cbe;opacity:.1"/>
 <path d="m2 21.5c-0.554 0-1-0.446-1-1v-0.5c0 0.554 0.446 1 1 1h18c0.554 0 1-0.446 1-1v0.5c0 0.554-0.446 1-1 1z" style="opacity:.2"/>
 <path d="m12.515743 3.0000002c-1.231263 0.7443935-2.496017 1.4371333-3.700043 2.2242768-0.4417425 2.1106395-0.869762 4.224375-1.28348 6.340679 0.4643085 0.589472 0.9735595 1.142061 1.4544495 1.717957-0.4697355-0.149881-1.059818-0.48783-1.5782175-0.697021 0.4080905 1.507235 0.8349575 3.01001 1.2800935 4.506724 0.5951795-0.05119 1.1858325-0.146321 1.7808195-0.199464-0.42712 0.44003-0.888286 0.84582-1.317942 1.283356 0.751115-0.312541 1.489862-0.654032 2.238447-0.972585 0.143823 0.235618-0.282646 1.079344-0.340105 1.537075 0.328143-0.531431 0.640711-1.072641 0.952542-1.613828l0.287341-0.13514s-0.08414-0.08432 0 0c0.652601 0.10294 1.303759 0.227205 1.955828 0.325531-0.586807-0.288057-1.183376-0.555836-1.770192-0.843877 0.586829-0.24327 1.212089-0.427872 1.811521-0.654604-0.58953-0.0055-1.179094 0.01062-1.768639 0.0039 0.09524-0.210303 0.806928-0.581308 1.115215-0.868674-0.430604-0.500155-0.915783-0.950823-1.349513-1.448265 0.750145-2.456556 1.537319-4.9017315 2.307679-7.3520455-0.690854-1.052016-1.365762-2.1149544-2.075805-3.1540412z" style="fill:#ffc107"/>
 <path d="m11.917801 5.619582c-1.037381 2.788781-1.692612 6.15915-1.851854 9.274748-0.03752 0.434128-0.02693 0.346163 0.256285 0.68703 1.405712 1.692076 2.808436 3.482301 4.221929 4.91864l-4.62e-4 -0.09921c-1.351212-1.852715-2.702424-3.414721-4.053637-5.062165-0.118209-0.141899-0.150428-0.143903-0.140569-0.315831 0.179352-3.122845 0.881855-6.580576 1.568308-9.403215z" style="opacity:.2"/>
 <path d="m11.917801 5.119582c-1.037381 2.788781-1.692612 6.15915-1.851854 9.274748-0.03752 0.434128-0.02693 0.346163 0.256285 0.68703 1.405712 1.692076 2.808436 3.482301 4.221929 4.91864l-4.62e-4 -0.09921c-1.351212-1.852715-2.702424-3.414721-4.053637-5.062165-0.118209-0.141899-0.150428-0.143903-0.140569-0.315831 0.179352-3.122845 0.881855-6.580576 1.568308-9.403215z" style="fill:#8b9cbe"/>
 <path d="m12.515625 3c-1.231263 0.7443935-2.49617 1.4374659-3.7001955 2.2246095-0.4417425 2.1106395-0.869485 4.2245165-1.283203 6.3408205 0.0262 0.03326 0.054583 0.06462 0.081055 0.09766 0.389168-1.981739 0.7884305-3.9617435 1.202148-5.9384805 1.2040255-0.7871435 2.4689325-1.4802161 3.7001955-2.2246095 0.673431 0.9855082 1.315926 1.9924595 1.969727 2.991211 0.03538-0.1123225 0.07112-0.2245715 0.106445-0.336914-0.690854-1.052016-1.366129-2.1152101-2.076172-3.154297zm-5.107422 9.585938c0.051832 0.191436 0.106743 0.381952 0.15918 0.573242 0.4783565 0.208677 0.9955125 0.488917 1.418945 0.624023-0.2192975-0.262623-0.4448035-0.520659-0.668945-0.779297-0.303339-0.142981-0.617002-0.300065-0.90918-0.417968zm4.993164 1.044922c-0.03844 0.12522-0.07893 0.249722-0.117187 0.375 0.347109 0.398097 0.72141 0.771656 1.080078 1.159179 0.102019-0.0725 0.198124-0.144376 0.269531-0.210937-0.393345-0.456879-0.828813-0.875578-1.232422-1.323242zm1.885743 2.188476c-0.383472-0.0036-0.766905 4.41e-4 -1.150391 0.0029-0.281339 0.189559-0.560892 0.37451-0.618165 0.500976 0.122076 0.0014 0.244134-8e-4 0.366211-1e-3 0.464417-0.17141 0.939121-0.327717 1.402344-0.502929zm-1.220704 0.935547c-0.198563 0.07075-0.398262 0.138924-0.59082 0.21875 0.05282 0.02593 0.106214 0.05054 0.15918 0.07617 0.537158 0.08977 1.073273 0.186593 1.610351 0.267579-0.39094-0.191909-0.784875-0.376605-1.178711-0.562499zm-2.596679 0.638671c-0.193102 0.01724-0.385633 0.0413-0.578125 0.06445-0.249214 0.237044-0.499279 0.473374-0.740235 0.71875 0.312018-0.129832 0.620347-0.268194 0.929688-0.404297 0.130264-0.125563 0.262651-0.249077 0.388672-0.378907zm0.919922 0.310547c-0.01703 0.0072-0.03376 0.01519-0.05078 0.02246-0.09731 0.337647-0.25462 0.740278-0.289062 1.014649 0.09542-0.154539 0.183213-0.313775 0.276367-0.469727 0.07376-0.245738 0.125042-0.466524 0.06348-0.567383z" style="fill:#8b9cbe;opacity:.2"/>
</svg>
