<svg xmlns="http://www.w3.org/2000/svg" width="22" height="22" version="1.1">
 <path style="opacity:0.2" d="m 11.207031,3.5 c -0.665576,0 -0.863366,0.8301444 -1.672851,0.8301444 -0.773508,0 -1.349794,-0.6226084 -2.069336,-0.6226083 -0.701554,0 -1.1504035,0.449165 -1.492188,1.383261 0,0 -0.971736,2.6291854 -1.097656,3.009743 C 4.85701,8.1697314 4.4253745,9.052125 4.4433595,9.121317 2.5185835,9.207807 0,9.55358 0,11.681242 0,15.175451 8.6164985,19.5 15.452148,19.5 20.686816,19.5 22,17.217374 22,15.435673 22,13.999934 20.722457,12.408591 18.419922,11.439899 L 18.167969,10.40128 17.304687,6.8036742 C 17.106813,6.0079632 16.945354,5.6446754 15.488281,4.9527525 14.372992,4.3992157 11.926574,3.5 11.207031,3.5 Z"/>
 <path style="fill:#e73232" d="m 11.207031,3 c -0.665576,0 -0.863366,0.8301444 -1.672851,0.8301444 -0.773508,0 -1.349794,-0.6226084 -2.069336,-0.6226083 -0.701554,0 -1.1504035,0.449165 -1.492188,1.383261 0,0 -0.971736,2.6291854 -1.097656,3.009743 C 4.85701,7.6697314 4.4253745,8.5521246 4.4433595,8.6213168 2.5185835,8.7078075 0,9.05358 0,11.181242 0,14.675451 8.6164985,19 15.452148,19 20.686816,19 22,16.717374 22,14.935673 22,13.499934 20.722457,11.908591 18.419922,10.939899 L 18.167969,9.90128 17.304687,6.3036742 C 17.106813,5.5079632 16.945354,5.1446754 15.488281,4.4527525 14.372992,3.8992157 11.926574,3 11.207031,3 Z"/>
 <path style="opacity:0.2;fill:#8b9cbe" d="m 11.207031,3 c -0.665576,0 -0.86239,0.8300781 -1.671875,0.8300781 -0.7735077,0 -1.3507703,-0.6230469 -2.0703122,-0.6230469 -0.701554,0 -1.150403,0.4487165 -1.4921876,1.3828126 0,0 -0.9717362,2.629208 -1.0976562,3.0097656 C 4.85701,7.6688007 4.4253744,8.5519016 4.4433594,8.6210938 2.5185834,8.7075844 0,9.053979 0,11.181641 0,11.238171 0.020924,11.296573 0.025391,11.353516 0.2746422,9.519238 2.6227599,9.202904 4.4433594,9.121094 4.4253744,9.051902 4.85701,8.1688007 4.875,8.0996094 5.00092,7.7190518 5.9726562,5.0898438 5.9726562,5.0898438 6.3144408,4.1557477 6.7632898,3.7070312 7.4648438,3.7070312 c 0.7195419,0 1.2968045,0.6230469 2.0703122,0.6230469 0.809485,0 1.006299,-0.8300781 1.671875,-0.8300781 0.719543,0 3.165961,0.8995882 4.28125,1.453125 1.457073,0.6919229 1.618532,1.0538984 1.816407,1.8496094 l 0.863281,3.5976566 0.251953,1.039062 c 2.177712,0.916178 3.424385,2.388066 3.554687,3.759766 C 21.980969,15.111559 22,15.021201 22,14.935547 22,13.499808 20.722457,11.908145 18.419922,10.939453 L 18.167969,9.900391 17.304688,6.3027344 C 17.106813,5.5070234 16.945354,5.1450479 15.488281,4.453125 14.372992,3.8995882 11.926574,3 11.207031,3 Z"/>
 <path style="opacity:0.1" d="m 18.442988,11.457343 c 0.197874,0.915906 0.197874,1.002313 0.197874,1.123281 C 18.640862,14.135936 16.801308,15 14.408831,15 9.012265,15 4.2131945,11.958499 4.2131945,9.953873 c 0,-0.276501 0.053966,-0.553001 0.179886,-0.81222 l 0.431725,-1.0023127 c -0.01799,0.069124 -0.035975,0.1382503 -0.01799,0.2073752 0,1.0195945 4.2414245,4.3721585 9.8718425,4.3721585 1.439084,0 3.566455,-0.293781 3.566455,-1.935502 0,-0.120969 0,-0.259217 -0.03598,-0.380187 z"/>
 <path style="fill:#17191e" d="m 18.442988,10.977002 c 0.197874,0.915906 0.197874,1.002313 0.197874,1.123281 0,1.555314 -1.839554,2.419376 -4.232031,2.419376 -5.396566,0 -10.1956365,-3.041501 -10.1956365,-5.046127 0,-0.2765 0.053966,-0.5529999 0.179886,-0.812219 L 4.8248055,7.659 c -0.01799,0.069124 -0.035975,0.1382501 -0.01799,0.2073749 0,1.0195947 4.2414245,4.3721581 9.8718425,4.3721581 1.439084,0 3.566455,-0.29378 3.566455,-1.9355 0,-0.120969 0,-0.259219 -0.03598,-0.380187 z"/>
</svg>
