<svg xmlns="http://www.w3.org/2000/svg" width="22" height="22" version="1.1">
 <circle style="opacity:0.2" cx="11" cy="11.5" r="10"/>
 <path style="fill:#b3e8ff" d="M 21,11 C 20.5,11.5 15.542427,12.339624 10.01958,12.339624 4.4967325,12.339624 1.5,11.5 1,11 1,5.4771525 5.4771525,1 11,1 16.522847,1 21,5.4771525 21,11 Z"/>
 <path style="opacity:0.2;fill:#8b9cbe" d="M 11,1 A 10,10 0 0 0 1,11 10,10 0 0 0 1.01075,11.291 10,10 0 0 1 11,1.5 10,10 0 0 1 20.9895,11.209 10,10 0 0 0 21,11 10,10 0 0 0 11,1 Z"/>
 <path style="fill:#29b6f6" d="M 9.819336,9.001953 C 7.5560015,9.033234 4.738238,9.454835 1.5722656,10.240235 1.2711404,10.314936 1.1283432,10.349592 1.03125,10.368164 1.0141726,10.578394 1.0037507,10.789111 1,11 c 0.00103,5.506107 4.4529235,9.975463 9.958985,9.998047 0.02254,-2.9e-5 0.03499,0.0011 0.05762,0.001 C 16.532592,20.989889 20.999482,16.515998 21,11 20.9961,10.638643 20.97264,10.277762 20.92969,9.918946 19.960052,10.3786 19.085151,11.007161 18.110154,11 15.526168,10.97989 13.031037,9.142864 10.754886,9.012695 10.454772,9.001125 10.142673,8.997485 9.819339,9.001955 Z"/>
 <path style="opacity:0.2" d="M 7.5,11.5 A 0.5,0.5 0 0 0 7,12 0.5,0.5 0 0 0 7.5,12.5 0.5,0.5 0 0 0 8,12 0.5,0.5 0 0 0 7.5,11.5 Z m 8,2 A 1.5,1.5 0 0 0 14,15 1.5,1.5 0 0 0 15.5,16.5 1.5,1.5 0 0 0 17,15 1.5,1.5 0 0 0 15.5,13.5 Z M 10.25,19 A 0.75,0.75 0 0 0 9.5,19.75 0.75,0.75 0 0 0 10.25,20.5 0.75,0.75 0 0 0 11,19.75 0.75,0.75 0 0 0 10.25,19 Z"/>
 <circle style="fill:#b3e8ff" cx="7.5" cy="11.5" r=".5"/>
 <circle style="fill:#b3e8ff" cx="15.5" cy="14.5" r="1.5"/>
 <circle style="fill:#b3e8ff" cx="10.25" cy="19.25" r=".75"/>
 <path style="opacity:0.1" d="M 9.820312,9.001953 C 7.556978,9.033234 4.738238,9.454834 1.5722656,10.240234 1.2711404,10.314935 1.1283432,10.348615 1.03125,10.367188 1.0141726,10.577417 1.0037507,10.789111 1,11 c 1.57e-5,0.08371 0.00966,0.164823 0.011719,0.248047 0.00545,-0.126823 0.00925,-0.25432 0.019531,-0.380859 0.097093,-0.01857 0.2398904,-0.05225 0.5410156,-0.126954 3.1659724,-0.7854 5.9847124,-1.207001 8.2480464,-1.238281 0.323335,-0.0045 0.635433,-0.0018 0.935547,0.0098 2.276151,0.130169 4.76953,1.968171 7.353516,1.988281 0.974997,0.0072 1.850675,-0.622377 2.820313,-1.082031 0.03435,0.286932 0.04726,0.576473 0.05664,0.865234 C 20.989001,11.188273 20.999991,11.095574 21,11 20.9961,10.638643 20.972637,10.278738 20.929688,9.919922 19.96005,10.379576 19.084372,11.007161 18.109375,11 15.525389,10.97989 13.03201,9.141888 10.755859,9.011719 10.455745,9.000149 10.143647,8.997483 9.820312,9.001919 Z"/>
</svg>
