<svg xmlns="http://www.w3.org/2000/svg" width="22" height="22" version="1">
 <rect style="opacity:0.2" width="8.5" height="20" x="-15.5" y="-21" rx="1" ry="1" transform="matrix(0,-1,-1,0,0,0)"/>
 <path style="opacity:0.2" d="m 3,13 0,7.5 c 0,0.554 0.446,1 1,1 l 14,0 c 0.554,0 1,-0.446 1,-1 L 19,13 3,13 Z"/>
 <path style="fill:#b2bfd9" d="M 4,1 C 3.446,1 3,1.446 3,2 L 3,8 19,8 19,2 C 19,1.446 18.554,1 18,1 L 4,1 Z"/>
 <rect style="fill:#4f4f4f" width="9" height="20" x="-15" y="-21" rx="1.059" ry="1" transform="matrix(0,-1,-1,0,0,0)"/>
 <rect style="opacity:0.2" width="18" height="2" x="2" y="11.5"/>
 <rect style="opacity:0.2" width="2" height="2" x="2" y="7.5" rx=".75" ry=".75"/>
 <rect style="fill:#76ff03" width="2" height="2" x="2" y="7" rx=".75" ry=".75"/>
 <path style="fill:#b2bfd9" d="M 3,12.5 3,20 c 0,0.554 0.446,1 1,1 l 14,0 c 0.554,0 1,-0.446 1,-1 l 0,-7.5 -16,0 z"/>
 <path style="opacity:0.2;fill:#8b9cbe" d="M 4,1 C 3.446,1 3,1.446 3,2 l 0,0.5 c 0,-0.554 0.446,-1 1,-1 l 14,0 c 0.554,0 1,0.446 1,1 L 19,2 C 19,1.446 18.554,1 18,1 L 4,1 Z"/>
 <rect style="opacity:0.5" width="10.5" height="1" x="5" y="18"/>
 <rect style="opacity:0.5" width="8.5" height="1" x="5" y="16"/>
 <rect style="opacity:0.5" width="12" height="1" x="5" y="14"/>
 <path style="opacity:0.2;fill:#8b9cbe" d="m 2.75,7.0000006 c -0.4155,0 -0.75,0.3345 -0.75,0.75 l 0,0.5 c 0,-0.4155 0.3345,-0.75 0.75,-0.75 l 0.5,0 c 0.4155,0 0.75,0.3345 0.75,0.75 l 0,-0.5 c 0,-0.4155 -0.3345,-0.75 -0.75,-0.75 l -0.5,0 z"/>
 <path style="opacity:0.1;fill:#8b9cbe" d="M 2,6 C 1.446,6 1,6.4720055 1,7.0585938 l 0,0.5 C 1,6.9720055 1.446,6.5 2,6.5 l 18,0 c 0.554,0 1,0.4720055 1,1.0585938 l 0,-0.5 C 21,6.4720055 20.554,6 20,6 L 2,6 Z"/>
 <circle style="fill:#c03630" cx="16.5" cy="16.5" r="5.5"/>
 <path style="fill:#8b9cbe;fill-rule:evenodd" d="m 16.5,14.000083 c -0.7754,0.0076 -1.55605,0.18472 -2.23145,0.5675 -0.269205,0.17535 -0.5924,0.40183 -0.83595,0.63 -0.383245,0.37529 -0.71125,0.81315 -0.9326,1.303 0.60745,1.34005 1.94295,2.32225 3.4121,2.4673 0.9637,0.109085 1.9722,-0.05744 2.81935,-0.5343 0.269195,-0.17535 0.5924,-0.40183 0.83595,-0.63 0.38325,-0.375295 0.71125,-0.8132 0.9326,-1.303 -0.6075,-1.34 -1.9429,-2.3224 -3.4121,-2.46735 -0.19494,-0.02275 -0.391645,-0.03325 -0.5879,-0.03325 z m 0,1.0002 c 0.8035,-0.0178 1.51515,0.70105 1.5,1.50035 0.02575,0.8834 -0.8545,1.6458 -1.7246,1.4808 -0.8788,-0.103185 -1.49605,-1.0891 -1.20705,-1.92425 0.184585,-0.6148 0.7879,-1.0645 1.43165,-1.0569 z m 0,1.0002 a 0.5,0.5001 0 0 0 -0.5,0.5001 0.5,0.5001 0 0 0 0.5,0.5001 0.5,0.5001 0 0 0 0.499995,-0.5001 A 0.5,0.5001 0 0 0 16.5,16.000483 Z"/>
</svg>
