<svg xmlns="http://www.w3.org/2000/svg" width="22" height="22" version="1.1">
 <circle style="opacity:0.2" cx="11" cy="11.5" r="10"/>
 <circle style="fill:#2d61b8" cx="11" cy="11" r="10"/>
 <path style="opacity:0.2" d="m 5.0502405,5.5 c -0.3030261,0.414385 0.8484052,0.7575339 1.2188607,0.8574219 1.1000871,0.196892 2.2362234,0.427399 3.1897428,1.03125 0.66765,0.5064245 0.83855,1.152386 0.878987,2.1328121 0.102406,0.846233 -0.880562,1.230955 -1.007905,1.042969 -0.3891336,0.872496 0.937963,1.218959 1.281367,1.759766 0.1249,0.419206 -1.263433,0.689631 -0.382847,1.384765 0.153719,0.403877 -0.755929,0.75586 -0.755929,0.75586 0,0 0.525972,-0.108912 0.533252,0.146484 -0.0012,0.139811 -0.342774,0.09704 -0.289088,0.234375 0.179779,0.752158 0.283051,1.333647 -0.421914,1.503906 -0.4665886,0.06106 -1.7327448,-0.410049 -2.2443448,-0.578125 -0.031953,0.125939 -0.038034,0.284685 -0.025393,0.457032 0.033383,0.455261 0.196315,1.00266 0.3535477,1.271484 H 11 14.621423 c 0.157233,-0.268824 0.320159,-0.816223 0.353547,-1.271484 0.01263,-0.172347 0.0066,-0.331093 -0.02539,-0.457032 -0.5116,0.168076 -1.777756,0.639185 -2.244345,0.578125 -0.704965,-0.170259 -0.601693,-0.751748 -0.421913,-1.503906 0.05369,-0.137331 -0.287888,-0.09456 -0.289088,-0.234375 0.0073,-0.255396 0.533251,-0.146484 0.533251,-0.146484 0,0 -0.909648,-0.351983 -0.755929,-0.75586 0.880586,-0.695134 -0.507747,-0.965559 -0.382846,-1.384765 0.343404,-0.540807 1.6705,-0.88727 1.281366,-1.759766 -0.127343,0.187986 -1.110311,-0.196736 -1.007905,-1.042969 0.04044,-0.9804261 0.211338,-1.6263876 0.878987,-2.1328121 0.95352,-0.603851 2.089656,-0.834358 3.189743,-1.03125 C 16.101355,6.2575339 17.252785,5.914385 16.94976,5.5 H 11 Z"/>
 <path style="opacity:0.1;fill:#8b9cbe" d="M 11,1 A 10,10 0 0 0 1,11 10,10 0 0 0 1.01075,11.291 10,10 0 0 1 11,1.5 10,10 0 0 1 20.9895,11.209 10,10 0 0 0 21,11 10,10 0 0 0 11,1 Z"/>
 <path style="fill:#ffeb3b" d="M 11,5.000034 H 5.0502305 c -0.3029985,0.414385 0.848482,0.756709 1.218904,0.856597 1.099987,0.196892 2.2361535,0.428279 3.1895865,1.03213 0.667589,0.5064245 0.838075,1.1525465 0.878508,2.132973 0.102397,0.846233 -0.878913,1.230443 -1.006244,1.042457 -0.3890985,0.872496 0.937381,1.219805 1.280754,1.760612 0.124889,0.419206 -1.263554,0.688377 -0.383048,1.383511 0.153705,0.403877 -0.756877,0.757325 -0.756877,0.757325 0,0 0.527488,-0.109012 0.534767,0.146384 -0.0012,0.139811 -0.344178,0.09601 -0.290497,0.233341 C 9.895847,15.097522 10,15.679681 9.295099,15.84994 8.828553,15.911 7.561926,15.439411 7.0503725,15.271335 c -0.03195,0.125939 -0.037925,0.285123 -0.025285,0.45747 C 7.0584675,16.184066 7.221694,16.731176 7.3789125,17 H 11 Z"/>
 <path style="fill:#ff5722" d="m 11,5.000034 h 5.94977 c 0.302998,0.414385 -0.848482,0.756709 -1.218904,0.856597 -1.099987,0.196892 -2.236154,0.428279 -3.189587,1.03213 -0.667589,0.5064245 -0.838075,1.1525465 -0.878508,2.132973 -0.102397,0.846233 0.878913,1.230443 1.006244,1.042457 0.389099,0.872496 -0.937381,1.219805 -1.280754,1.760612 -0.124889,0.419206 1.263554,0.688377 0.383048,1.383511 -0.153705,0.403877 0.756877,0.757325 0.756877,0.757325 0,0 -0.527488,-0.109012 -0.534767,0.146384 0.0012,0.139811 0.344178,0.09601 0.290497,0.233341 -0.179763,0.752158 -0.283916,1.334317 0.420985,1.504576 0.466546,0.06106 1.733173,-0.410529 2.244727,-0.578605 0.03195,0.125939 0.03792,0.285123 0.02529,0.45747 C 14.941533,16.184066 14.778306,16.731176 14.621088,17 H 11 Z"/>
 <path style="opacity:0.2;fill:#8b9cbe" d="M 5.0507812,5 C 4.9133819,5.1878921 5.0895319,5.3574355 5.3417969,5.5 H 11 16.658203 C 16.910468,5.3574355 17.086618,5.1878921 16.949219,5 H 11 Z m 5.2714848,4.339844 c -0.136296,0.620028 -0.882236,0.886922 -0.992188,0.724609 -0.09582,0.21485 -0.08567,0.396782 -0.01367,0.558594 0.0074,-0.02039 0.0043,-0.03761 0.01367,-0.05859 0.127343,0.187986 1.110219,-0.196736 1.007813,-1.042969 -0.0027,-0.06586 -0.01162,-0.118739 -0.01563,-0.18164 z m 1.355468,0 c -0.004,0.0629 -0.01291,0.11578 -0.01563,0.18164 -0.102406,0.846233 0.88047,1.230955 1.007813,1.042969 0.0094,0.02098 0.0063,0.03821 0.01367,0.05859 0.072,-0.161812 0.08215,-0.343744 -0.01367,-0.558594 -0.109952,0.162313 -0.855892,-0.104581 -0.992188,-0.724609 z m -1.224609,2.802734 c -0.262945,0.240379 -0.702845,0.485444 -0.40625,0.875 0.207788,-0.254828 0.636875,-0.450288 0.564453,-0.693359 -0.03994,-0.0629 -0.0959,-0.122866 -0.158203,-0.181641 z m 1.09375,0 c -0.06231,0.05877 -0.118263,0.118742 -0.158203,0.181641 -0.07242,0.243071 0.356665,0.438531 0.564453,0.693359 0.296595,-0.389556 -0.143305,-0.634621 -0.40625,-0.875 z m -1.451172,1.427734 c -0.22212,0.228459 -0.623047,0.394532 -0.623047,0.394532 0,0 0.525923,-0.108912 0.533203,0.146484 -0.0012,0.135322 -0.315238,0.102517 -0.287109,0.22461 0.255847,-0.125596 0.619993,-0.337346 0.509766,-0.626954 -0.06322,-0.0499 -0.09158,-0.09293 -0.132813,-0.138672 z m 1.808594,0 c -0.04123,0.04574 -0.06959,0.08877 -0.132813,0.138672 -0.110227,0.289608 0.253919,0.501358 0.509766,0.626954 0.02813,-0.12209 -0.285948,-0.08928 -0.287109,-0.22461 0.0073,-0.255396 0.533203,-0.146484 0.533203,-0.146484 0,0 -0.400927,-0.166073 -0.623047,-0.394532 z m -2.167969,0.871094 c 0.02465,0.105923 0.04456,0.206997 0.0625,0.304688 0.08692,-0.03088 0.20631,-0.05072 0.207031,-0.134766 -0.0036,-0.127698 -0.137128,-0.165225 -0.269531,-0.169922 z m 2.527344,0 c -0.1324,0.0047 -0.265881,0.04222 -0.269531,0.169922 7.21e-4,0.08405 0.120112,0.103889 0.207031,0.134766 0.01794,-0.09769 0.03785,-0.198765 0.0625,-0.304688 z m -5.2128908,0.830078 c -0.031953,0.125939 -0.038032,0.284685 -0.025391,0.457032 0.00273,0.03721 0.017099,0.077 0.021484,0.115234 0.00379,-0.02148 -0.00115,-0.05235 0.00391,-0.07227 0.5116,0.168076 1.7775521,0.639185 2.2441408,0.578125 0.531971,-0.128478 0.603374,-0.49093 0.529297,-0.984375 -0.05138,0.233983 -0.200437,0.404951 -0.529297,0.484375 -0.4665887,0.06106 -1.7325408,-0.410049 -2.2441408,-0.578125 z m 7.8984378,0 c -0.5116,0.168076 -1.777552,0.639185 -2.244141,0.578125 -0.32886,-0.07942 -0.477923,-0.250392 -0.529297,-0.484375 -0.07408,0.493445 -0.0027,0.855897 0.529297,0.984375 0.466589,0.06106 1.732541,-0.410049 2.244141,-0.578125 0.0051,0.01991 1.17e-4,0.05079 0.0039,0.07227 0.0044,-0.03824 0.01876,-0.07803 0.02148,-0.115234 0.01263,-0.172347 0.0066,-0.331093 -0.02539,-0.457032 z"/>
</svg>
