<svg xmlns="http://www.w3.org/2000/svg" width="22" height="22" version="1.1">
 <rect style="opacity:0.2" width="20" height="20" x="1" y="1.5" rx="1" ry="1"/>
 <rect style="fill:#4f4f4f" width="20" height="20" x="1" y="1" rx="1" ry="1"/>
 <path style="opacity:0.1;fill:#8b9cbe" d="M 1,2.5 V 2 C 1,1.446 1.446,1 2,1 h 18 c 0.554,0 1,0.446 1,1 v 0.5 c 0,-0.554 -0.446,-1 -1,-1 H 2 c -0.554,0 -1,0.446 -1,1 z"/>
 <path style="opacity:0.2" d="m 17.603593,8.9459956 c 0.181824,-0.1925135 0.45826,-0.3590975 0.379722,-0.664408 -0.01187,-0.3981159 0.02429,-0.8015779 -0.01899,-1.1962329 -0.73087,0.3911385 0.19181,-0.5647644 0.01186,-0.8733619 -0.0025,-0.3675477 0.161672,-1.5383236 -0.373601,-0.8293821 -1.155496,1.1140786 -2.316941,2.225293 -3.378529,3.4304819 -1.179253,1.0169374 -2.214794,2.1865544 -3.317975,3.2809684 -0.89575,0.81336 -1.721133,1.702107 -2.5867115,2.547776 -0.1451339,0.457507 0.4343305,0.805342 0.7808035,1.177138 0.132288,0.351601 0.634396,0.890193 0.94693,0.968291 0.214641,-0.192873 0.894846,-0.91083 0.806317,-0.736601 -0.13842,0.285115 -0.81286,0.785803 -0.578483,0.926465 0.270447,-0.254618 -0.169189,0.27175 0.22101,0.313272 0.551756,0.867431 1.09476,-0.528449 1.604979,-0.806494 1.939307,-1.926592 3.892329,-3.83935 5.825421,-5.7722 0.118234,-0.377358 0.02938,-0.799125 0.05696,-1.195643 0.03588,-0.293307 -0.0056,-0.418444 -0.230537,-0.144631 -0.114497,0.100305 -0.516299,0.43285 -0.459602,0.355035 0.391906,-0.27595 0.923053,-0.8972784 0.610428,-1.0197259 -0.09718,0.08316 -0.217021,0.141334 -0.299999,0.2392525 z M 10.920476,5.5664641 C 10.357013,6.0679013 9.850494,6.6258228 9.284405,7.1245137 8.669671,7.8064617 7.9702416,8.4066016 7.3430741,9.078602 6.2625347,10.182619 5.1398898,11.252758 4.0712324,12.3635 c 0.090422,0.353389 -0.1978205,1.383711 0.3434084,0.726837 0.1953715,-0.136207 0.840651,-0.776905 0.8004585,-0.584751 -0.343345,0.492607 -0.929845,0.853004 -1.1391249,1.412409 -0.02745,1.305624 -0.02656,2.623141 0.00652,3.922711 0.5305489,-0.168906 0.9438514,-0.914029 1.4287079,-1.291651 0.7979109,-0.818703 1.6300903,-1.603687 2.3904718,-2.457812 0.8876614,-0.642155 1.4472829,-1.636105 2.3406389,-2.276555 1.233285,-1.207668 2.497915,-2.409809 3.663731,-3.6708523 -0.406943,-0.265489 -0.648788,-0.706228 -1.048983,-1.0394885 -0.258778,0.1352705 -0.784237,0.7788125 -0.360735,0.135573 0.372654,-0.4332849 -0.0059,-0.080665 -0.208853,0.035295 0.445519,-0.3227805 0.212123,-0.7114009 -0.250972,-0.8012764 0.01665,-0.4176305 -0.459369,-0.5683565 -0.615273,-0.596568 0.15537,-0.6042171 -0.464906,0.133723 -0.346114,-0.3671712 0.01943,-0.1209554 -0.183617,-0.01707 -0.154637,0.056261 z m -3.7212809,2.6011 C 6.1632317,7.1555562 5.1460408,6.1238923 4.1139474,5.1084252 3.9081597,5.2405507 4.0529204,5.6005716 4.0095254,5.8319866 c 0.00907,0.4269262 -0.018421,0.8568772 0.01424,1.2818501 0.1938104,0.2967465 0.2989354,0.3899815 0.03322,0.1779985 0.1384844,0.202022 0.1798229,0.3462545 -0.028485,0.059327 -0.1377516,0.29139 0.6441339,0.9611794 0.07416,0.4432115 -0.1852248,-0.140743 -0.053669,0.4274754 -0.093154,0.6007239 0.01277,0.7517704 -0.02547,1.5149854 0.01899,2.2596564 0.1827894,0.1243 0.3665109,0.567604 0.5361799,0.204278 C 5.2503898,10.161333 5.9650997,9.483005 6.6319692,8.7727501 6.5324052,8.6003846 6.1257997,8.1336342 6.5346732,8.5449166 c 0.22553,0.378016 0.4320604,-0.148057 0.6461039,-0.2829945 0.02867,-0.043045 0.098471,-0.05131 0.018415,-0.094358 z M 17.489677,12.040737 c -0.923992,0.923991 -1.847984,1.847983 -2.771976,2.771975 0.277828,0.361713 0.678747,0.673057 0.998552,1.019491 0.699612,0.682831 1.373404,1.399939 2.093814,2.05626 0.254592,0.04282 0.105241,-0.468047 0.116284,-0.645528 -0.207737,-0.200685 -0.743104,-0.779998 -0.704377,-0.771719 0.25319,0.112818 0.861525,0.980767 0.761335,0.335181 0,-0.873409 0,-1.746819 0,-2.620228 -0.111638,-0.212781 -0.746106,-0.835115 -0.227833,-0.379723 0.344586,0.486568 0.197355,-0.207286 0.227838,-0.436393 0,-0.341845 0,-0.683691 0,-1.025536 -0.157089,-0.04254 -0.330289,-0.543402 -0.493637,-0.30378 z"/>
 <path style="fill:#8b9cbe" d="m 17.603593,8.4462841 c 0.181824,-0.1925135 0.45826,-0.3590975 0.379722,-0.664408 -0.01187,-0.3981159 0.02429,-0.8015779 -0.01899,-1.1962329 -0.73087,0.3911385 0.19181,-0.5647644 0.01186,-0.8733619 -0.0025,-0.3675477 0.161672,-1.5383236 -0.373601,-0.8293821 -1.155496,1.1140786 -2.316941,2.225293 -3.378529,3.4304819 -1.179253,1.0169349 -2.214794,2.1865519 -3.317975,3.2809659 -0.89575,0.81336 -1.721133,1.702107 -2.5867115,2.547776 -0.1451339,0.457507 0.4343305,0.805342 0.7808035,1.177138 0.132288,0.351601 0.634396,0.890193 0.94693,0.968291 0.214641,-0.192873 0.894846,-0.91083 0.806317,-0.736601 -0.13842,0.285115 -0.81286,0.785803 -0.578483,0.926465 0.270447,-0.254618 -0.169189,0.27175 0.22101,0.313272 0.551756,0.867431 1.09476,-0.528449 1.604979,-0.806494 1.939307,-1.926592 3.892329,-3.83935 5.825421,-5.7722 0.118234,-0.377358 0.02938,-0.799125 0.05696,-1.195643 0.03588,-0.2933054 -0.0056,-0.4184414 -0.230537,-0.1446299 C 17.638272,8.9720256 17.23647,9.30457 17.293167,9.226755 17.685073,8.9508051 18.21622,8.3294791 17.903595,8.2070316 c -0.09718,0.08316 -0.217021,0.141334 -0.299999,0.2392525 z M 10.920476,5.0667526 C 10.357013,5.5681898 9.850494,6.1261113 9.284405,6.6248022 8.669671,7.3067502 7.9702416,7.9068901 7.3430741,8.5788901 6.2625347,9.682905 5.1398898,10.753044 4.0712324,11.863786 c 0.090422,0.353389 -0.1978205,1.383711 0.3434084,0.726837 0.1953715,-0.136207 0.840651,-0.776905 0.8004585,-0.584751 -0.343345,0.492607 -0.929845,0.853004 -1.1391249,1.412409 -0.02745,1.305624 -0.02656,2.623141 0.00652,3.922711 0.5305489,-0.168906 0.9438514,-0.914029 1.4287079,-1.291651 0.7979109,-0.818703 1.6300903,-1.603687 2.3904718,-2.457812 0.8876614,-0.642155 1.4472829,-1.636105 2.3406389,-2.276555 1.233285,-1.207668 2.497915,-2.4098084 3.663731,-3.6708498 -0.406943,-0.265489 -0.648788,-0.706228 -1.048983,-1.0394885 -0.258778,0.1352705 -0.784237,0.7788125 -0.360735,0.135573 0.372654,-0.4332849 -0.0059,-0.080665 -0.208853,0.035295 0.445519,-0.3227805 0.212123,-0.7114009 -0.250972,-0.8012764 0.01665,-0.4176305 -0.459369,-0.5683565 -0.615273,-0.596568 0.15537,-0.6042171 -0.464906,0.133723 -0.346114,-0.3671712 0.01943,-0.1209554 -0.183617,-0.01707 -0.154637,0.056261 z m -3.7212809,2.6011 C 6.1632317,6.6558447 5.1460408,5.6241808 4.1139474,4.6087137 3.9081597,4.7408392 4.0529204,5.1008601 4.0095254,5.3322751 c 0.00907,0.4269262 -0.018421,0.8568772 0.01424,1.2818501 0.1938104,0.2967465 0.2989354,0.3899815 0.03322,0.1779985 0.1384844,0.202022 0.1798229,0.3462545 -0.028485,0.059327 -0.1377516,0.29139 0.6441339,0.9611794 0.07416,0.4432115 -0.1852248,-0.140743 -0.053669,0.4274754 -0.093154,0.6007239 0.01277,0.7517695 -0.02547,1.5149829 0.01899,2.2596539 0.1827894,0.1243 0.3665109,0.567604 0.5361799,0.204278 C 5.2503898,9.661619 5.9650997,8.9832916 6.6319692,8.2730386 6.5324052,8.1006731 6.1257997,7.6339227 6.5346732,8.0452051 c 0.22553,0.378016 0.4320604,-0.148057 0.6461039,-0.2829945 0.02867,-0.043045 0.098471,-0.05131 0.018415,-0.094358 z M 17.489677,11.541023 c -0.923992,0.923991 -1.847984,1.847983 -2.771976,2.771975 0.277828,0.361713 0.678747,0.673057 0.998552,1.019491 0.699612,0.682831 1.373404,1.399939 2.093814,2.05626 0.254592,0.04282 0.105241,-0.468047 0.116284,-0.645528 -0.207737,-0.200685 -0.743104,-0.779998 -0.704377,-0.771719 0.25319,0.112818 0.861525,0.980767 0.761335,0.335181 0,-0.873409 0,-1.746819 0,-2.620228 -0.111638,-0.212781 -0.746106,-0.835115 -0.227833,-0.379723 0.344586,0.486568 0.197355,-0.207286 0.227838,-0.436393 0,-0.341845 0,-0.683691 0,-1.025536 -0.157089,-0.04254 -0.330289,-0.543402 -0.493637,-0.30378 z"/>
</svg>
