<svg xmlns="http://www.w3.org/2000/svg" width="22" height="22" version="1">
 <path style="opacity:0.2" d="m 11.005023,12.500019 a 0.85722853,0.80014242 0 0 0 -0.391741,0.08594 l -3.3197554,1.567309 -1.158481,-0.370341 a 0.85722853,0.80014242 0 0 0 -1.135045,0.757871 l 0,2.159545 a 0.85722853,0.80014242 0 0 0 0.40346,0.678178 l 5.1428574,3.000233 a 0.85722853,0.80014242 0 0 0 0.907366,0 l 5.142857,-3.000233 A 0.85722853,0.80014242 0 0 0 17,16.700347 l 0,-1.920464 a 0.85722853,0.80014242 0 0 0 -1.3125,-0.676615 l -1.021205,0.598485 -3.177456,-2.059536 a 0.85722853,0.80014242 0 0 0 -0.483816,-0.142198 z"/>
 <path style="fill:#1383d9" d="m 11.005023,12.000015 a 0.85722853,0.80014242 0 0 0 -0.391741,0.08594 l -3.3197554,1.567309 -1.158481,-0.370341 a 0.85722853,0.80014242 0 0 0 -1.135045,0.757871 l 0,2.159545 a 0.85722853,0.80014242 0 0 0 0.40346,0.678178 l 5.1428574,3.000233 a 0.85722853,0.80014242 0 0 0 0.907366,0 l 5.142857,-3.000233 A 0.85722853,0.80014242 0 0 0 17,16.200343 l 0,-1.920464 a 0.85722853,0.80014242 0 0 0 -1.3125,-0.676615 l -1.021205,0.598485 -3.177456,-2.059536 a 0.85722853,0.80014242 0 0 0 -0.483816,-0.142198 z"/>
 <path style="opacity:0.2" d="m 7,2.0000046 -6,3.75 4,3.2499996 -4,3.2499998 6,3.75 4,-3.5 4,3.5 6,-3.75 -4,-3.2499998 4,-3.2499996 -6,-3.75 -4,3.5 -4,-3.5 z"/>
 <path style="fill:#5aacff" d="m 7,1.5000002 -6,3.75 4,3.25 L 1,11.75 7,15.5 11,12 l 4,3.5 6,-3.75 -4,-3.2499998 4,-3.25 -6,-3.75 -4,3.5 -4,-3.5 z"/>
 <path style="opacity:0.2" d="M 17,9.0000042 11,12.500004 5,9.0000042 11,5.5000046 Z"/>
 <path style="fill:#8b9cbe" d="M 17,8.5000002 11,12 5,8.5000002 l 6,-3.5 z"/>
 <path style="opacity:0.2;fill:#8b9cbe" d="m 7,1.5000002 -6,3.75 L 1.3476562,5.5332033 7,2.0000002 l 4,3.5 4,-3.5 5.652344,3.5332031 L 21,5.2500002 l -6,-3.75 -4,3.5 -4,-3.5 z m -2.3085938,7.25 L 1,11.75 1.3476562,11.966797 5,9.0000002 l -0.3085938,-0.25 z m 12.6171878,0 L 17,9.0000002 20.652344,11.966797 21,11.75 17.308594,8.7500002 Z"/>
</svg>
