<svg width="22" height="22" version="1.1" xmlns="http://www.w3.org/2000/svg">
 <path d="m1 4.5v14.5c0 0.5544 0.445625 1 1 1h18.0005c0.554 0 0.9995-0.4455 0.9995-1v-14.5z" style="fill:#c7c7c7"/>
 <path d="M 2,2 C 1.4456,2 1,2.44575 1,2.99975 V 5 H 21 V 2.99975 C 21,2.44575 20.5545,2 20,2 Z" style="fill:#00caff"/>
 <path d="m2 2c-0.5544 0-1 0.446-1 1v0.5c0-0.554 0.4456-1 1-1h18c0.5544 0 1 0.446 1 1v-0.5c0-0.554-0.4455-1-1-1z" style="fill:#8b9cbe;opacity:.1"/>
 <path d="m1 19v0.5c0 0.5544 0.445625 1 1 1h18.001c0.5535 0 0.999-0.4455 0.999-1v-0.5c0 0.5544-0.445275 1-0.999 1h-18.001c-0.5544 0-1-0.4455-1-1z" style="opacity:.2"/>
 <rect x="6" y="8.5" width="7" height="10" style="opacity:.1"/>
 <rect x="6" y="8" width="7" height="10" style="fill:#f4b801"/>
 <path d="m8 7.5v5c0 3 3 4 3 4h7s-3-1-3-4v-5z" style="opacity:.2"/>
 <path d="m8 7v5c0 3 3 4 3 4h7s-3-1-3-4v-5z" style="fill:#fecd38"/>
</svg>
