<svg xmlns="http://www.w3.org/2000/svg" width="22" height="22" version="1.1">
 <path style="opacity:0.2" d="M 13.275008,2.0003928 C 12.639546,2.087789 1.0000003,16.422539 1.0000003,16.422539 c 0,0 0.8365112,0.238381 2.7426175,0.515602 C 4.36151,16.455192 13.033512,1.7763153 13.296764,2.0070947 c -0.0045,-0.0059 -0.01167,-0.00807 -0.02176,-0.00669 z"/>
 <path style="opacity:0.2" d="m 13.296764,2.0070947 c -0.02176,-0.0067 -9.5541462,14.9310463 -9.5541462,14.9310463 -0.8318675,1.3721 -1.4968963,2.474888 -1.4968963,2.474888 0,0 8.9422395,0.404458 15.8957215,-0.531054 C 28.036208,17.550742 16.107752,4.8652905 13.296764,2.0070947 Z"/>
 <path style="fill:#7f7fff" d="m 13.296764,1.5070951 c -0.02176,-0.0067 -9.5541462,14.9310459 -9.5541462,14.9310459 -0.8318675,1.3721 -1.4968963,2.474889 -1.4968963,2.474889 0,0 8.9422395,0.404458 15.8957215,-0.531055 C 28.036208,17.050743 16.107752,4.365291 13.296764,1.5070951 Z"/>
 <path style="opacity:0.1" d="M 13.286422,2.0019072 C 12.886411,1.9366121 3.7426178,16.938141 3.7426178,16.938141 c 0,0 7.4509122,0.619531 10.8543822,0.561859 9.637187,-0.163305 0.923653,-12.541988 -1.300236,-15.4929053 -0.0029,-0.00293 -0.0063,-0.00452 -0.01034,-0.00519 z"/>
 <path style="fill:#ff7f7f" d="M 13.275008,1.5003932 C 12.639546,1.5877894 1.0000003,15.92254 1.0000003,15.92254 c 0,0 0.8365112,0.238381 2.7426175,0.515601 C 4.36151,15.955192 13.033512,1.2763157 13.296764,1.5070951 c -0.0045,-0.0059 -0.01167,-0.00807 -0.02176,-0.00669 z"/>
 <path style="opacity:0.2;fill:#8b9cbe" d="M 13.27539,1.5000006 C 12.639928,1.5873968 1,15.922852 1,15.922852 c 0,0 0.224637,0.05113 0.3427734,0.08008 C 2.3348591,14.782555 12.669696,2.0833027 13.27539,2.0000006 c 0.01009,-0.00138 0.01703,9.35e-4 0.02149,0.00684 1.974481,2.0076399 8.438032,8.8603584 8.686523,13.2246094 0.265175,-4.320666 -6.634761,-11.63839 -8.686523,-13.7246095 -0.0045,-0.0059 -0.0114,-0.00822 -0.02149,-0.00684 z M 3.4667969,16.894531 c -0.6144685,1.015215 -1.2207032,2.018555 -1.2207032,2.018555 0,0 0.254739,0.008 0.296875,0.0098 0.195468,-0.324172 0.5322219,-0.884216 1.1992187,-1.984375 -0.106474,-0.01549 -0.1755533,-0.02874 -0.2753905,-0.04395 z"/>
 <path style="fill:#7f3fbf" d="M 13.286422,1.5019076 C 12.886411,1.4366125 3.7426178,16.438141 3.7426178,16.438141 c 0,0 7.4509122,0.619532 10.8543822,0.561859 9.637187,-0.163304 0.923653,-12.5419875 -1.300236,-15.4929049 -0.0029,-0.00293 -0.0063,-0.00452 -0.01034,-0.00519 z"/>
</svg>
