<svg xmlns="http://www.w3.org/2000/svg" width="22" height="22" version="1">
 <path style="opacity:0.2" d="M 10.557159,0.50093592 A 2.4096624,2.3876006 0 0 0 9.2952221,0.81944722 L 2.2049368,4.8755175 A 2.4096624,2.3876006 0 0 0 1.0000001,6.9434519 v 8.1126651 a 2.4096624,2.3876006 0 0 0 1.2048311,2.067725 l 7.0902849,4.05628 a 2.4096624,2.3876006 0 0 0 2.4096619,0 l 7.090285,-4.05628 A 2.4096624,2.3876006 0 0 0 20,15.055907 V 6.9432418 A 2.4096624,2.3876006 0 0 0 18.795063,4.8753075 L 11.704778,0.81923712 a 2.4096624,2.3876006 0 0 0 -1.147935,-0.3185112 z"/>
 <path style="fill:#c8f178" d="M 10.557159,6.9861671e-4 A 2.4096624,2.3876006 0 0 0 9.2952221,0.31920992 L 2.2049368,4.3752802 A 2.4096624,2.3876006 0 0 0 1.0000001,6.4432146 V 14.55588 a 2.4096624,2.3876006 0 0 0 1.2048311,2.067725 l 7.0902849,4.05628 a 2.4096624,2.3876006 0 0 0 2.4096619,0 l 7.090285,-4.05628 A 2.4096624,2.3876006 0 0 0 20,14.55567 V 6.4430045 A 2.4096624,2.3876006 0 0 0 18.795063,4.3750702 L 11.704778,0.31899982 A 2.4096624,2.3876006 0 0 0 10.556843,4.8861671e-4 Z"/>
 <path style="fill:#86bd1f" d="M 10.523627,2.0002975 C 10.34018,1.9958575 10.158355,2.0411685 9.9972281,2.1340803 L 3.4980467,5.8866388 C 3.2080104,6.0540835 2.9999791,6.4165617 3.0000001,6.7481621 v 7.5070149 c -2e-7,0.331629 0.2113724,0.695052 0.4980466,0.860575 l 6.5001264,3.753506 c 0.3019129,0.174324 0.7017419,0.174322 1.0036549,0 l 6.500125,-3.753506 C 17.788603,14.950262 18.000022,14.586779 18,14.255177 V 6.7481621 6.7472059 c 2.2e-5,-0.3315764 -0.211397,-0.6950854 -0.498047,-0.8605745 l -6.49918,-3.7525511 a 0.72587904,0.72876193 0 0 0 -9.65e-4,0 C 10.854195,2.0489476 10.691732,2.0041535 10.524572,2.0002975 a 0.72587904,0.72876193 0 0 0 -9.64e-4,0 z"/>
 <path style="opacity:0.1" d="M 17.798828,6.1738284 10.439453,10.359375 3.1933595,6.1855472 C 3.0768004,6.3551525 2.9999879,6.5546136 3.0000001,6.7480472 V 7.2285159 L 10,11.259766 v 7.609375 c 0.301204,0.173116 0.698796,0.173115 1,0 V 11.191406 L 18,7.2128909 V 6.7480472 c 1.3e-5,-0.1975374 -0.0799,-0.4026366 -0.201172,-0.5742188 z"/>
 <path style="opacity:0.1" d="m 10.523438,2.0000003 c -0.183447,-0.00444 -0.364264,0.041854 -0.5253909,0.1347656 L 3.498047,5.8867191 C 3.2080107,6.0541637 2.9999791,6.4164468 3.0000001,6.7480472 v 0.5 C 2.9999791,6.9164468 3.2080107,6.5541637 3.498047,6.3867191 L 9.9980471,2.6347659 C 10.159174,2.5418541 10.339991,2.4955603 10.523438,2.5000003 a 0.72587904,0.72876193 0 0 0 0.002,0 c 0.16716,0.00386 0.328949,0.049633 0.476562,0.1347656 l 6.5,3.7519532 C 17.788603,6.5522082 18.000022,6.9164708 18,7.2480472 v -0.5 c 2.2e-5,-0.3315764 -0.211397,-0.6958391 -0.498047,-0.8613281 l -6.5,-3.7519532 C 10.85434,2.0496332 10.692551,2.0038563 10.525391,2.0000003 a 0.72587904,0.72876193 0 0 0 -0.002,0 z"/>
 <path style="fill:#c8f178" d="M 19.335938,4.8007815 10.439453,9.8593753 1.6601563,4.8027347 A 2.4096624,2.3876006 0 0 0 1.1367189,5.6562503 L 10,10.759766 v 10.185546 a 2.4096624,2.3876006 0 0 0 1,0 V 10.691406 l 8.861328,-5.0371088 a 2.4096624,2.3876006 0 0 0 -0.52539,-0.8535157 z"/>
 <path style="opacity:0.2;fill:#8b9cbe" d="M 10.556641,3.1670702e-7 A 2.4096624,2.3876006 0 0 0 9.2949221,0.31835972 L 2.2050782,4.3750003 A 2.4096624,2.3876006 0 0 0 1.0000001,6.4433597 v 0.5 A 2.4096624,2.3876006 0 0 1 2.2050782,4.8750003 L 9.2949221,0.82031282 a 2.4096624,2.3876006 0 0 1 1.2617189,-0.3203125 2.4096624,2.3876006 0 0 1 1.148437,0.3183594 L 18.794922,4.8750003 A 2.4096624,2.3876006 0 0 1 20,6.9433597 v -0.5 A 2.4096624,2.3876006 0 0 0 18.794922,4.3750003 L 11.705078,0.31835972 A 2.4096624,2.3876006 0 0 0 10.556641,3.1670702e-7 Z"/>
 <path style="opacity:0.2;fill:#8b9cbe" d="m 3.0000001,14.255976 v 0.5 c -2e-7,0.331629 0.2113727,0.693852 0.4980469,0.859375 l 6.5000001,3.753907 c 0.3019129,0.174324 0.7019929,0.174322 1.0039059,0 l 6.5,-3.753907 C 17.788603,15.449861 18.000022,15.087578 18,14.755976 v -0.5 c 2.2e-5,0.331602 -0.211397,0.693885 -0.498047,0.859375 l -6.5,3.753907 c -0.301913,0.174322 -0.701993,0.174324 -1.0039059,0 L 3.498047,15.115351 C 3.2113728,14.949828 2.9999999,14.587605 3.0000001,14.255976 Z"/>
</svg>
