<svg xmlns="http://www.w3.org/2000/svg" width="22" height="22" version="1.1">
 <g transform="translate(0,-1100.5197)">
  <path style="opacity:0.2" d="m 18.635787,1114.8018 -0.38791,0.9079 -11.0065324,-3.2763 q -0.024245,0.1005 -0.085861,0.2976 -0.057578,0.1804 -0.081821,0.2809 -0.440399,1.8259 0.1951505,2.9846 0.648683,1.1626 2.3692745,1.6748 1.4841764,0.4418 3.2633324,0.3609 1.792292,-0.077 3.875528,-0.6597 l -1.845606,4.4418 q -1.914528,0.2919 -3.714913,0.1689 -1.7912924,-0.1023 -3.5512859,-0.6262 -3.441183,-1.0243 -4.8305026,-3.6103 -1.376185,-2.5821 -0.483267,-6.2841 0.517166,-2.1442 1.593052,-3.9784 1.0930601,-1.8471 2.6397786,-3.1821 1.8376745,-1.6074 3.9663789,-2.0869 2.141839,-0.4756 4.44034,0.2086 2.981482,0.8875 4.239459,3.4343 1.271111,2.5509 0.442838,5.9849 -0.161614,0.67 -0.422235,1.4004 -0.243448,0.7175 -0.615198,1.5584 z m -3.776768,-4.0687 q 0.09193,-0.206 0.157585,-0.4199 0.08283,-0.2267 0.135359,-0.4445 0.323229,-1.34 -0.11732,-2.315 -0.440549,-0.975 -1.517561,-1.2956 -1.3791,-0.4105 -2.585377,0.2718 -1.1891044,0.6694 -2.1538604,2.3931 z"/>
  <path style="fill:#275ac4" d="m 18.635787,1114.3018 -0.38791,0.9079 -11.0065324,-3.2763 q -0.024245,0.1006 -0.085861,0.2976 -0.057578,0.1804 -0.081821,0.2809 -0.440399,1.8259 0.1951505,2.9846 0.648683,1.1626 2.3692745,1.6748 1.4841764,0.4418 3.2633324,0.3609 1.792292,-0.077 3.875528,-0.6597 l -1.845606,4.4418 q -1.914528,0.2919 -3.714913,0.1689 -1.7912924,-0.1023 -3.5512859,-0.6261 -3.441183,-1.0244 -4.8305026,-3.6104 -1.376185,-2.5821 -0.483267,-6.2841 0.517166,-2.1442 1.593052,-3.9784 1.0930601,-1.847 2.6397786,-3.1821 1.8376745,-1.6074 3.9663789,-2.0869 2.141839,-0.4756 4.44034,0.2086 2.981482,0.8875 4.239459,3.4344 1.271111,2.5508 0.442838,5.9848 -0.161614,0.6701 -0.422235,1.4004 -0.243448,0.7175 -0.615198,1.5584 z m -3.776768,-4.0687 q 0.09193,-0.206 0.157585,-0.4198 0.08283,-0.2267 0.135359,-0.4445 0.323229,-1.3401 -0.11732,-2.3151 -0.440549,-0.975 -1.517561,-1.2956 -1.3791,-0.4105 -2.585377,0.2718 -1.1891044,0.6694 -2.1538604,2.3931 z"/>
  <path style="fill:#453a53" d="m 13.044923,1101.5543 -10.9687505,10.9685 c -0.1644589,1.4311 -0.036822,2.718 0.3818359,3.8613 l 7.5849616,-7.5848 -1.2646489,-0.376 c 0.6431715,-1.1491 1.3605849,-1.9472 2.1533209,-2.3935 0.702479,-0.3973 1.448863,-0.517 2.239258,-0.3584 l 3.201171,-3.2011 c -0.424572,-0.2166 -0.884689,-0.3992 -1.380859,-0.5469 -0.658496,-0.196 -1.307081,-0.3159 -1.946289,-0.3691 z m 5.615234,2.8701 -3.404297,3.4042 c 0.06575,0.4654 0.03195,0.9784 -0.103515,1.54 -0.03501,0.1452 -0.08052,0.2932 -0.135743,0.4443 -0.04377,0.1426 -0.09594,0.2826 -0.157226,0.4199 l -1.546875,-0.4609 -3.057617,3.0576 3.268555,0.9736 6.370116,-6.369 c -0.119552,-0.7348 -0.33967,-1.4271 -0.663085,-2.0762 -0.165443,-0.3349 -0.360156,-0.6416 -0.570313,-0.9335 z m 0.799805,7.6853 -2.666992,2.667 1.455078,0.4326 0.387695,-0.9072 c 0.247834,-0.5606 0.452936,-1.0802 0.615234,-1.5586 0.07691,-0.2155 0.145009,-0.4261 0.208985,-0.6338 z m -12.0673834,3.582 -3.2509765,3.2509 c 0.7097125,0.6643 1.5887045,1.1991 2.6347655,1.6074 l 3.2763684,-3.2763 c -0.1385904,-0.034 -0.2801074,-0.062 -0.4150394,-0.1025 -1.0472625,-0.3118 -1.7935235,-0.8063 -2.245118,-1.4795 z m 9.3847664,1.1806 c -0.917563,0.2567 -1.789171,0.4325 -2.62207,0.542 l -3.970703,3.9706 c 0.343036,0.043 0.68745,0.079 1.032226,0.099 1.043299,0.071 2.116979,0.031 3.217774,-0.1065 l 0.805663,-0.8047 z"/>
  <path style="opacity:0.1;fill:#8b9cbe" d="m 12.178712,1101.5211 c -0.550147,0.01 -1.09247,0.075 -1.62793,0.1943 -1.4191364,0.3197 -2.7416809,1.0153 -3.9667969,2.0869 -1.031146,0.89 -1.910942,1.9502 -2.6396485,3.1816 -0.7172574,1.2228 -1.2479961,2.5489 -1.5927735,3.9784 -0.2529753,1.0488 -0.3610437,2.0264 -0.3408203,2.9404 0.023803,-0.7691 0.1334613,-1.5807 0.3408203,-2.4404 0.3447774,-1.4295 0.8755161,-2.7556 1.5927735,-3.9784 0.7287065,-1.2314 1.6085025,-2.2916 2.6396485,-3.1816 1.225116,-1.0716 2.5476605,-1.7672 3.9667969,-2.0869 1.427893,-0.317 2.908097,-0.2481 4.44043,0.208 1.987655,0.5917 3.400606,1.7366 4.239258,3.4345 0.484599,0.9725 0.731891,2.0449 0.758789,3.2099 0.04329,-1.3611 -0.205561,-2.5996 -0.758789,-3.7099 -0.838652,-1.6979 -2.251603,-2.8428 -4.239258,-3.4345 -0.957709,-0.285 -1.895589,-0.4192 -2.8125,-0.4023 z m 3.09375,6.9745 c -0.01391,0.2783 -0.04604,0.5659 -0.120117,0.873 -0.03501,0.1452 -0.08052,0.2932 -0.135743,0.4443 -0.04377,0.1426 -0.09594,0.2826 -0.157226,0.4199 l -5.8183594,-1.7314 c -0.087832,0.1399 -0.1774895,0.2697 -0.2626955,0.4219 l 6.0810549,1.8095 c 0.06128,-0.1373 0.113454,-0.2773 0.157226,-0.4199 0.05522,-0.1511 0.100726,-0.2991 0.135743,-0.4443 0.11954,-0.4956 0.157276,-0.9523 0.120117,-1.373 z m -8.3701174,5.6756 c -0.033305,0.7049 0.086173,1.3146 0.3662105,1.8252 0.4324555,0.775 1.22208,1.3333 2.3691415,1.6747 0.9894494,0.2946 2.0775674,0.4153 3.2636714,0.3614 1.127052,-0.049 2.343931,-0.2531 3.643555,-0.6016 l 0.232422,-0.5586 c -1.388825,0.3886 -2.681115,0.6089 -3.875977,0.6602 -1.186104,0.054 -2.274221,-0.067 -3.2636714,-0.3613 -1.1470615,-0.3415 -1.936686,-0.8998 -2.3691415,-1.6748 -0.2118495,-0.3863 -0.3336855,-0.8277 -0.3662105,-1.3252 z"/>
 </g>
</svg>
