<svg xmlns="http://www.w3.org/2000/svg" width="22" height="22" version="1">
 <rect style="fill:#4f4f4f" width="20" height="14" x="1" y="4" rx="1" ry="1"/>
 <path style="opacity:.1;fill:#8b9cbe" d="m2 4c-0.554 0-1 0.446-1 1v0.5c0-0.554 0.446-1 1-1h18c0.554 0 1 0.446 1 1v-0.5c0-0.554-0.446-1-1-1z"/>
 <path style="opacity:.2" d="m1 17v0.5c0 0.554 0.446 1 1 1h18c0.554 0 1-0.446 1-1v-0.5c0 0.554-0.446 1-1 1h-18c-0.554 0-1-0.446-1-1z"/>
 <circle style="opacity:.2" cx="5" cy="8.5" r="1"/>
 <circle style="opacity:.2" cx="8" cy="8.5" r="1"/>
 <circle style="opacity:.2" cx="11" cy="8.5" r="1"/>
 <circle style="opacity:.2" cx="14" cy="8.5" r="1"/>
 <circle style="opacity:.2" cx="17" cy="8.5" r="1"/>
 <circle style="opacity:.2" cx="7" cy="12.5" r="1"/>
 <circle style="opacity:.2" cx="10" cy="12.5" r="1"/>
 <circle style="opacity:.2" cx="13" cy="12.5" r="1"/>
 <circle style="opacity:.2" cx="16" cy="12.5" r="1"/>
 <rect style="opacity:.2" width="14" height="2" x="4" y="15.5" rx=".5" ry=".5"/>
 <circle style="fill:#b2bfd9" cx="5" cy="8" r="1"/>
 <circle style="fill:#b2bfd9" cx="8" cy="8" r="1"/>
 <circle style="fill:#b2bfd9" cx="11" cy="8" r="1"/>
 <circle style="fill:#b2bfd9" cx="14" cy="8" r="1"/>
 <circle style="fill:#ff8834" cx="17" cy="8" r="1"/>
 <circle style="fill:#b2bfd9" cx="7" cy="12" r="1"/>
 <circle style="fill:#b2bfd9" cx="10" cy="12" r="1"/>
 <circle style="fill:#ff8834" cx="13" cy="12" r="1"/>
 <circle style="fill:#b2bfd9" cx="16" cy="12" r="1"/>
 <rect style="fill:#b2bfd9" width="14" height="2" x="4" y="15" rx=".5" ry=".5"/>
</svg>
