<svg xmlns="http://www.w3.org/2000/svg" width="22" height="22" version="1">
 <rect style="fill:#4a3f37" width="20" height="20" x="1" y="1" rx="1" ry="1"/>
 <path style="opacity:0.2" d="M 6.5,4.500453 6.984375,5.33932 7,5.366664 V 17.542445 19.000453 20.186 l 7,-5.185547 v -2.5 h -2 v 1 l -3,2.000179 v -4.000179 h 3 v -2 H 9 v -3 h 3 v 1 h 2 v -2 l -1,-1 H 9 8.4365235 7.4677735 7 Z"/>
 <path style="opacity:0.1;fill:#8b9cbe" d="M 1,2.5 V 2 C 1,1.446 1.446,1 2,1 h 18 c 0.554,0 1,0.446 1,1 v 0.5 c 0,-0.554 -0.446,-1 -1,-1 H 2 c -0.554,0 -1,0.446 -1,1 z"/>
 <path style="opacity:0.2" d="m 1,20 v 0.5 c 0,0.554 0.446,1 1,1 h 18 c 0.554,0 1,-0.446 1,-1 V 20 c 0,0.554 -0.446,1 -1,1 H 2 C 1.446,21 1,20.554 1,20 Z"/>
 <path style="fill:#0096a7" d="M 6.5,4 6.984375,4.838867 7,4.866211 V 17.041992 18.5 19.685547 L 14,14.5 V 12 h -2 v 1 l -3,2 v -4 h 3 V 9 H 9 V 6 h 3 v 1 h 2 V 5 L 13,4 H 9 8.4365235 7.4677735 7 Z"/>
 <path style="fill:#ff9f03" d="m 12,12 v 1 L 9,15.000406 V 13.867594 L 7,15.021001 V 17.041992 18.5 19.685547 L 14,14.5 V 12 Z"/>
 <path style="opacity:0.1;fill:#8b9cbe" d="M 6.5,4 6.7890625,4.5 H 7 7.46875 8.4375 9 13 l 1,1 V 5 L 13,4 H 9 8.4375 7.46875 7 Z M 9,9 v 0.5 h 3 V 9 Z m 3,3 v 0.5 h 2 V 12 Z m 0,1 -3,2 v 0.5 l 3,-2 z"/>
 <path style="opacity:0.2;fill:#8b9cbe" d="m 12,12 v 0.5 h 2 V 12 Z m 0,1 -3,2.000179 v 0.5 L 12,13.5 Z M 9,13.867367 7,15.021 v 0.5 l 2,-1.153633 z"/>
</svg>
