<svg xmlns="http://www.w3.org/2000/svg" width="22" height="22" version="1">
 <path style="opacity:0.2" d="M 2.0000001,8.5888719 V 19.500001 c 0,0.554 0.4459998,0.999999 0.9999996,0.999999 H 17.999994 c 0.554,0 1,-0.445999 1,-0.999999 V 8.5888719 L 10.499997,16.2959 Z"/>
 <path style="fill:#858585" d="M 10.537715,-1.168e-4 C 10.066143,-0.0016968 9.592976,0.2309248 9.116622,0.702292 L 2,8.0886516 10.499997,17.000002 v 0 L 18.999994,8.0886516 11.949778,0.7021168 C 11.479444,0.2368804 11.009288,0.0014595 10.537715,-2.921e-4 Z"/>
 <path style="opacity:0.1;fill:#8b9cbe" d="M 10.537109,0 C 10.065537,-0.00158 9.593541,0.2317578 9.117188,0.703125 L 2,8.0878906 2.2402344,8.3398438 9.117188,1.203125 C 9.593541,0.7317578 10.065537,0.49842 10.537109,0.5 c 0.471573,0.00175 0.941776,0.2359355 1.41211,0.7011719 l 6.8125,7.1367187 L 19,8.0878906 11.949219,0.7011719 C 11.478885,0.2359355 11.008682,0.0017515 10.537109,0 Z"/>
 <rect style="fill:#8b9cbe" width="13" height="15.5" x="4" y="3" rx="1.393" ry="1.5"/>
 <path style="fill:#b7b7b7" d="M 2.0000001,8.0888721 V 19.000001 c 0,0.554 0.4459998,1 0.9999996,1 H 17.999994 c 0.554,0 1,-0.446 1,-1 V 8.0888721 l -8.499997,7.7070289 z"/>
 <path style="fill:#dedede" d="m 10.538083,11.999832 c -0.471617,-0.0015 -0.945344,0.228561 -1.421875,0.694336 l -6.8173799,7.0197 c 0.1802305,0.177025 0.4274153,0.286133 0.7011716,0.286133 H 17.999994 c 0.274251,0 0.521835,-0.109518 0.702148,-0.28711 l -6.75195,-7.018723 C 11.479858,12.234365 11.0097,12.001325 10.538083,11.999832 Z"/>
 <path style="opacity:0.2;fill:#8b9cbe" d="m 10.537109,12 c -0.471617,-0.0015 -0.945344,0.227584 -1.421875,0.693359 l -6.8164059,7.021485 c 0.084064,0.08257 0.1858232,0.146474 0.2949219,0.195312 L 9.115234,13.193359 C 9.591765,12.727584 10.065492,12.4985 10.537109,12.5 c 0.471617,0.0015 0.941776,0.233556 1.41211,0.693359 l 6.458984,6.714844 c 0.108839,-0.04897 0.209133,-0.112742 0.292969,-0.195312 L 11.949219,12.693359 C 11.478885,12.233556 11.008726,12.001493 10.537109,12 Z"/>
 <path style="opacity:0.2" d="M 20.999996,16.500003 A 4.999998,4.999998 0 0 1 15.999997,21.5 4.999998,4.999998 0 0 1 11,16.500003 a 4.999998,4.999998 0 0 1 4.999997,-4.999998 4.999998,4.999998 0 0 1 4.999999,4.999998 z"/>
 <path style="fill:#9141ac" d="M 20.999996,16.000002 A 4.999998,4.999998 0 0 1 15.999997,20.999999 4.999998,4.999998 0 0 1 11,16.000002 a 4.999998,4.999998 0 0 1 4.999997,-4.999998 4.999998,4.999998 0 0 1 4.999999,4.999998 z"/>
 <circle style="fill:#8b9cbe" cx="16" cy="16" r="4"/>
 <path style="fill:#949390;fill-rule:evenodd;stroke:#949390;stroke-width:0.24999991;stroke-linecap:round" d="m 15.999998,16.000002 2.399999,-2.349999"/>
 <path style="fill:none;stroke:#ed333b;stroke-width:0.19999993;stroke-linecap:round" d="m 15.999998,16.000002 -1.12687,2.897717"/>
 <path style="fill:none;stroke:#68676b;stroke-width:0.7499997;stroke-linecap:round;stroke-linejoin:round" d="m 14.399999,14.350003 1.599999,1.649999"/>
 <circle style="fill:#42403c" cx="8.094" cy="21.13" r="1" transform="rotate(-24.040001)" overflow="visible"/>
</svg>
