<svg xmlns="http://www.w3.org/2000/svg" width="22" height="22" version="1">
 <path style="opacity:0.05;fill:#8b9cbe" d="m 4,24 0,14 c 0,1.108 0.892,2 2,2 l 36,0 c 1.108,0 2,-0.892 2,-2 l 0,-14 z"/>
 <path style="opacity:0.2" d="m 1,19 0,0.5 c 0,0.554 0.446,1 1,1 l 18,0 c 0.554,0 1,-0.446 1,-1 L 21,19 c 0,0.554 -0.446,1 -1,1 L 2,20 C 1.446,20 1,19.554 1,19 Z"/>
 <rect style="fill:#4f4f4f" width="18" height="20" x="-20" y="-21" rx="1" ry="1" transform="matrix(0,-1,-1,0,0,0)"/>
 <g transform="translate(-53,-261)">
  <path style="opacity:0.2;fill:#8b9cbe" d="m 54,265 0,-1 c 0,-0.554 0.446,-1 1,-1 l 18,0 c 0.554,0 1,0.446 1,1 l 0,1 c 0,-0.554 -0.446,-1 -1,-1 l -18,0 c -0.554,0 -1,0.446 -1,1 z"/>
  <path style="opacity:0.2" d="m 55,263 c -0.554,0 -1,0.446 -1,1 l 0,3 20,0 0,-3 c 0,-0.554 -0.446,-1 -1,-1 z"/>
  <path style="opacity:0.2" d="m 55,263 c -0.554,0 -1,0.446 -1,1 l 0,1 20,0 0,-1 c 0,-0.554 -0.446,-1 -1,-1 z"/>
  <path style="opacity:0.2;fill:#8b9cbe" d="m 55,263 c -0.554,0 -1,0.446 -1,1 l 0,3 5,0 0,-2 -2,-2 z"/>
  <path style="opacity:0.2;fill:#8b9cbe;fill-rule:evenodd" d="m 61.5,265 -2,-2 2.5,0 2,2 z"/>
  <path style="opacity:0.2;fill:#8b9cbe;fill-rule:evenodd" d="m 61.5,265 -2,2 2.5,0 2,-2 z"/>
  <path style="opacity:0.2;fill:#8b9cbe;fill-rule:evenodd" d="m 66.5,265 -2,-2 2.5,0 2,2 z"/>
  <path style="opacity:0.2;fill:#8b9cbe;fill-rule:evenodd" d="m 66.5,265 -2,2 2.5,0 2,-2 z"/>
  <path style="opacity:0.2;fill:#8b9cbe;fill-rule:evenodd" d="m 71.5,265 -2,-2 2.5,0 2,2 z"/>
  <path style="opacity:0.2;fill:#8b9cbe;fill-rule:evenodd" d="m 71.5,265 -2,2 2.5,0 2,-2 z"/>
 </g>
 <path style="opacity:0.2" transform="matrix(0.47308134,0,0,0.46822909,18.175258,4.6908916)" d="m -6.7118645,16.677965 -7.3983055,4.271414 -7.398304,4.271413 0,-8.542827 0,-8.5428265 7.398305,4.2714135 z"/>
 <path style="fill:#bababa" transform="matrix(0.47308134,0,0,0.46822909,18.175258,4.1908916)" d="m -6.7118645,16.677965 -7.3983055,4.271414 -7.398304,4.271413 0,-8.542827 0,-8.5428265 7.398305,4.2714135 z"/>
</svg>
