<svg width="22" height="22" version="1.1" xmlns="http://www.w3.org/2000/svg">
 <rect x="1" y="1.5" width="20" height="20" rx="1" ry="1" style="opacity:.2"/>
 <rect x="1" y="1" width="20" height="20" rx="1" ry="1" style="fill:#b2bfd9"/>
 <path d="m4 6.5-2 10h5v-2h3v-4h-3v-2c3 0 3-2 3-2z" style="opacity:.1"/>
 <path d="m4 6-2 10h5v-2h3v-4h-3v-2c3 0 3-2 3-2z" style="fill:#4f4f4f"/>
 <path d="m12 6.5v8h3l5-1h-6l6-1h-6l6-1h-6l6-1h-6l6-1h-6l6-1h-6l6-1h-6l6-1h-6.5zm3 8v2h1l4-1h-5l5-1z" style="opacity:.1"/>
 <path d="m12 6v8h3l5-1h-6l6-1h-6l6-1h-6l6-1h-6l6-1h-6l6-1h-6l6-1h-6l6-1h-6.5zm3 8v2h1l4-1h-5l5-1z" style="fill:#ff3c3c"/>
 <path d="m2 1c-0.554 0-1 0.446-1 1v0.5c0-0.554 0.446-1 1-1h18c0.554 0 1 0.446 1 1v-0.5c0-0.554-0.446-1-1-1h-18z" style="fill:#8b9cbe;opacity:.2"/>
</svg>
