<svg xmlns="http://www.w3.org/2000/svg" width="22" height="22" version="1">
 <rect style="opacity:0.2" width="21" height="21" x="-21.5" y="-21" rx="1.05" ry="1.05" transform="matrix(0,-1,-1,0,0,0)"/>
 <rect style="fill:#4f4f4f" width="21" height="21" x="-21" y="-21" rx="1.05" ry="1.05" transform="matrix(0,-1,-1,0,0,0)"/>
 <path style="opacity:0.2" d="m 2,5.5 0,2 0,2 0,2 0,5 2,0 0,-5 3,0 0,-2 -3,0 0,-2 3,0 0,-2 -3,0 -2,0 z m 6,0 0,11 2,0 3,0 0,-2 -3,0 0,-3 3,0 0,-2 -3,0 0,-2 3,0 0,-2 -3,0 -2,0 z m 6,0 0,11 2,0 0,-5 1,0 0,5 2,0 0,-5 0,-2 0,-4 -2,0 0,4 -1,0 0,-4 -2,0 z"/>
 <rect style="fill:#df4545" width="2" height="11" x="2" y="5"/>
 <rect style="fill:#df4545" width="2" height="5" x="5" y="-7" transform="matrix(0,1,-1,0,0,0)"/>
 <rect style="fill:#df4545" width="2" height="5" x="9" y="-7" transform="matrix(0,1,-1,0,0,0)"/>
 <rect style="fill:#df4545" width="2" height="11" x="8" y="5"/>
 <rect style="fill:#df4545" width="2" height="5" x="5" y="-13" transform="matrix(0,1,-1,0,0,0)"/>
 <rect style="fill:#df4545" width="2" height="5" x="9" y="-13" transform="matrix(0,1,-1,0,0,0)"/>
 <rect style="fill:#df4545" width="2" height="11" x="14" y="5"/>
 <rect style="fill:#df4545" width="2" height="5" x="9" y="-19" transform="matrix(0,1,-1,0,0,0)"/>
 <rect style="fill:#df4545" width="2" height="5" x="14" y="-13" transform="matrix(0,1,-1,0,0,0)"/>
 <rect style="fill:#df4545" width="2" height="11" x="17" y="5"/>
 <path style="opacity:0.1;fill:#8b9cbe" d="M 1.0507812,0 C 0.4690813,0 0,0.4690813 0,1.0507812 l 0,0.5 C 0,0.9690813 0.4690813,0.5 1.0507812,0.5 l 18.8984378,0 C 20.530919,0.5 21,0.9690813 21,1.5507812 l 0,-0.5 C 21,0.4690813 20.530919,0 19.949219,0 L 1.0507812,0 Z"/>
 <path style="opacity:0.1;fill:#8b9cbe" d="m 2,5 0,0.5 2,0 3,0 L 7,5 4,5 2,5 Z m 6,0 0,0.5 2,0 3,0 L 13,5 10,5 8,5 Z m 6,0 0,0.5 2,0 0,-0.5 -2,0 z m 3,0 0,0.5 2,0 L 19,5 17,5 Z M 4,9 4,9.5 7,9.5 7,9 4,9 Z m 6,0 0,0.5 3,0 0,-0.5 -3,0 z m 6,0 0,0.5 1,0 0,-0.5 -1,0 z m -6,5 0,0.5 3,0 0,-0.5 -3,0 z"/>
</svg>
