<svg xmlns="http://www.w3.org/2000/svg" width="22" height="22" version="1.1">
 <g transform="translate(-1,-1)">
  <path style="opacity:0.2" d="M 2.01075,12.209 A 10,10 0 0 0 2,12.5 10,10 0 0 0 12,22.5 10,10 0 0 0 22,12.5 10,10 0 0 0 21.9895,12.291 10,10 0 0 1 12,22 10,10 0 0 1 2.011,12.209 Z"/>
  <path style="fill:#afba0d" d="M 12,2 A 10,10 0 0 0 2,12 10,10 0 0 0 12,22 10,10 0 0 0 22,12 10,10 0 0 0 12,2 Z"/>
  <path style="fill:#17191e" d="m 11,13.5 v 8.439453 a 10,10 0 0 0 1,0.06055 10,10 0 0 0 1,-0.0498 V 13.5 Z"/>
  <path style="opacity:0.2;fill:#8b9cbe" d="m 12,2 a 10,10 0 0 0 -10,10 10,10 0 0 0 0.01075,0.209 10,10 0 0 1 9.989,-9.709 10,10 0 0 1 9.9895,9.791 10,10 0 0 0 0.0105,-0.291 10,10 0 0 0 -10,-10 z"/>
  <path style="opacity:0.2" d="M 15.128906,6.241422 14.680664,7.1398595 A 6,6 0 0 1 18,12.500211 6,6 0 0 1 14.682617,17.865445 l 0.444336,0.888672 A 7,7 0 0 0 19,12.500211 7,7 0 0 0 15.128906,6.241422 Z m -6.255859,0.0049 A 7,7 0 0 0 5,12.500211 7,7 0 0 0 8.871094,18.759 L 9.319336,17.860562 A 6,6 0 0 1 6,12.500211 6,6 0 0 1 9.317383,7.1349765 Z M 14.235352,8.029525 13.78711,8.926009 A 4,4 0 0 1 16,12.500211 4,4 0 0 1 13.788086,16.076383 l 0.445313,0.890625 A 5,5 0 0 0 17,12.500211 5,5 0 0 0 14.235352,8.029508 Z m -4.4687505,0.0039 A 5,5 0 0 0 7,12.500211 5,5 0 0 0 9.7646485,16.970914 L 10.212891,16.07443 A 4,4 0 0 1 8,12.500211 4,4 0 0 1 10.211914,8.924039 Z"/>
  <path style="fill:#17191e" d="M 15.128906,5.741211 14.680664,6.6396485 A 6,6 0 0 1 18,12 6,6 0 0 1 14.682617,17.365234 l 0.444336,0.888672 A 7,7 0 0 0 19,12 7,7 0 0 0 15.128906,5.741211 Z m -6.255859,0.0049 A 7,7 0 0 0 5,12 7,7 0 0 0 8.871094,18.258789 L 9.319336,17.360351 A 6,6 0 0 1 6,12 6,6 0 0 1 9.317383,6.6347655 Z M 14.235352,7.529314 13.78711,8.425798 A 4,4 0 0 1 16,12 4,4 0 0 1 13.788086,15.576172 l 0.445313,0.890625 A 5,5 0 0 0 17,12 5,5 0 0 0 14.235352,7.529297 Z m -4.4687505,0.0039 A 5,5 0 0 0 7,12 5,5 0 0 0 9.7646485,16.470703 L 10.212891,15.574219 A 4,4 0 0 1 8,12 4,4 0 0 1 10.211914,8.423828 Z"/>
  <circle style="opacity:0.2" cx="12" cy="12.5" r="2"/>
  <circle style="fill:#17191e" cx="12" cy="12" r="2"/>
 </g>
</svg>
