<svg xmlns="http://www.w3.org/2000/svg" width="22" height="22" version="1">
 <rect style="fill:#c2352a" width="20" height="20" x="1" y="1" rx="1" ry="1"/>
 <path style="opacity:0.2" d="m 5.6289062,3.1367188 -2.828125,2.828125 1.4140626,1.4140624 2.828125,-2.828125 z m 10.7070318,0 L 12.800781,6.671875 15.628906,9.5 19.164062,5.9648438 Z M 7.75,5.2578125 4.921875,8.0859375 6.3359375,9.5 9.164062,6.671875 Z M 11,7.5 C 9.351907,7.5 8,8.8538642 8,10.501953 8,12.150042 9.351907,13.5 11,13.5 c 1.648093,0 3,-1.349958 3,-2.998047 C 14,8.8538642 12.648093,7.5 11,7.5 Z m 0,2 c 0.557558,0 1,0.443853 1,1.001953 C 12,11.060053 11.557558,11.5 11,11.5 10.442443,11.5 10,11.060053 10,10.501953 10,9.943853 10.442443,9.5 11,9.5 Z m -2,5 v 2 h 4 v -2 z m 0,3 v 2 h 4 v -2 z"/>
 <path style="fill:#ffc75e" d="m 5.6289062,2.6367188 -2.828125,2.828125 1.4140626,1.4140624 2.828125,-2.828125 z m 10.7070318,0 L 12.800781,6.171875 15.628906,9 19.164062,5.4648438 Z M 7.75,4.7578125 4.921875,7.5859375 6.3359375,9 9.164062,6.171875 Z M 11,7 C 9.351907,7 8,8.3538642 8,10.001953 8,11.650042 9.351907,13 11,13 12.648093,13 14,11.650042 14,10.001953 14,8.3538642 12.648093,7 11,7 Z m 0,2 c 0.557558,0 1,0.443853 1,1.001953 C 12,10.560053 11.557558,11 11,11 10.442443,11 10,10.560053 10,10.001953 10,9.443853 10.442443,9 11,9 Z m -2,5 v 2 h 4 v -2 z m 0,3 v 2 h 4 v -2 z"/>
 <path style="opacity:0.2;fill:#8b9cbe" d="M 2,1 C 1.446,1 1,1.446 1,2 v 0.5 c 0,-0.554 0.446,-1 1,-1 h 18 c 0.554,0 1,0.446 1,1 V 2 C 21,1.446 20.554,1 20,1 Z"/>
 <path style="opacity:0.2" d="m 2,21.5 c -0.554,0 -1,-0.446 -1,-1 V 20 c 0,0.554 0.446,1 1,1 h 18 c 0.554,0 1,-0.446 1,-1 v 0.5 c 0,0.554 -0.446,1 -1,1 z"/>
</svg>
