<svg xmlns="http://www.w3.org/2000/svg" width="22" height="22" version="1">
 <rect style="opacity:0.2" width="20" height="20" x="1" y="1.5" rx="6" ry="6"/>
 <rect style="fill:#424652" width="20" height="20" x="1" y="1" rx="6" ry="6"/>
 <path style="opacity:0.1;fill:#8b9cbe" d="M 7,1 C 3.676,1 1,3.676 1,7 v 0.5 c 0,-3.324 2.676,-6 6,-6 h 8 c 3.324,0 6,2.676 6,6 V 7 C 21,3.676 18.324,1 15,1 Z"/>
 <path style="opacity:0.2" d="M 8.5,14.5 A 2.5,2.5 0 0 0 6,17 2.5,2.5 0 0 0 8.5,19.5 2.5,2.5 0 0 0 11,17 v -2.5 z"/>
 <path style="fill:#09c37b" d="M 8.5,14 A 2.5,2.5 0 0 0 6,16.5 2.5,2.5 0 0 0 8.5,19 2.5,2.5 0 0 0 11,16.5 V 14 Z"/>
 <path style="opacity:0.2" d="M 8.5,9.5 H 11 v 5 H 8.5 C 7.115,14.5 6,13.385 6,12 6,10.615 7.115,9.5 8.5,9.5 Z"/>
 <circle style="opacity:0.2" cx="13.5" cy="12" r="2.5"/>
 <path style="fill:#9154dd" d="M 8.5,9 H 11 v 5 H 8.5 C 7.115,14 6,12.885 6,11.5 6,10.115 7.115,9 8.5,9 Z"/>
 <circle style="fill:#01b1f8" cx="13.5" cy="11.5" r="2.5"/>
 <path style="opacity:0.2" d="M 8.5,4.5 C 7.115,4.5 6,5.615 6,7 6,8.385 7.115,9.5 8.5,9.5 H 11 v -5 z"/>
 <path style="fill:#f24e1e" d="M 8.5,4 C 7.115,4 6,5.115 6,6.5 6,7.885 7.115,9 8.5,9 H 11 V 4 Z"/>
 <path style="opacity:0.2" d="m 11,4.5 h 2.5 C 14.885,4.5 16,5.615 16,7 16,8.385 14.885,9.5 13.5,9.5 H 11 Z"/>
 <path style="fill:#ff7262" d="m 11,4 h 2.5 C 14.885,4 16,5.115 16,6.5 16,7.885 14.885,9 13.5,9 H 11 Z"/>
 <path style="opacity:0.2;fill:#8b9cbe" d="M 8.5,4 C 7.115,4 6,5.115 6,6.5 6,6.584585 6.00455,6.6676215 6.012695,6.75 6.1376095,5.483509 7.199585,4.5 8.5,4.5 h 2.5 2.5 c 1.300415,0 2.36239,0.983509 2.487304,2.25 C 15.995429,6.6676215 16,6.584585 16,6.5 16,5.115 14.885,4 13.5,4 H 11 Z"/>
</svg>
