<svg xmlns="http://www.w3.org/2000/svg" width="22" height="22" version="1">
 <rect style="opacity:0.2" width="20" height="20" x="1" y="1.5" rx="1" ry="1"/>
 <rect style="fill:#4f4f4f" width="20" height="20" x="1" y="1" rx="1" ry="1"/>
 <path style="opacity:0.1;fill:#8b9cbe" d="M 2,1 C 1.446,1 1,1.446 1,2 l 0,0.5 c 0,-0.554 0.446,-1 1,-1 l 18,0 c 0.554,0 1,0.446 1,1 L 21,2 C 21,1.446 20.554,1 20,1 L 2,1 Z"/>
 <path style="opacity:0.2" d="m 4,4.5 0,2.5 0,11.5 2,0 0,-12 12,0 0,-2 -11.5,0 z m 4,4 0,6 2,0 0,-6 z m 4,0 0,8 -4,0 0,2 6,0 0,-2 0,-8 z m 4,0 0,10 2,0 0,-10 z"/>
 <path style="fill:#3693ee" d="M 4,4 4,6.5 4,18 6,18 6,6 18,6 18,4 6.5,4 Z m 4,4 0,6 2,0 0,-6 z m 4,0 0,8 -4,0 0,2 6,0 0,-2 0,-8 z m 4,0 0,10 2,0 0,-10 z"/>
 <path style="opacity:0.2;fill:#8b9cbe" d="M 4,4 4,4.5 6.5,4.5 18,4.5 18,4 6.5,4 4,4 Z m 4,4 0,0.5 2,0 L 10,8 8,8 Z m 4,0 0,0.5 2,0 0,-0.5 -2,0 z m 4,0 0,0.5 2,0 0,-0.5 -2,0 z m -8,8 0,0.5 4,0 0,-0.5 -4,0 z"/>
</svg>
