<svg xmlns="http://www.w3.org/2000/svg" width="22" height="22" version="1">
 <path style="opacity:0.2" d="M 4.6918215,7.9534474 C 2.3525854,9.762436 1,8.4537309 1,11.616823 1,17.075151 5.4771526,21.5 11,21.5 c 5.522847,0 10,-4.424849 10,-9.883177 0,-2.541223 -0.970478,-4.8584454 -2.565074,-6.6094118 0.03554,-0.00135 -0.149121,-0.1433068 -0.244324,-0.1078782 0.666619,1.1049371 1.050308,2.3997742 1.050308,3.7843164 0,4.0518086 -2.253451,8.0658266 -6.30526,8.0658266 C 10.333199,16.875997 6.8664463,15.21227 6.3328613,13.655418 5.9886071,12.65098 6.0755042,11.522871 7.0121131,10.898402 7.5208481,10.575463 8.262541,10.256605 9.435957,10.219162 10.50787,9.51421 9.986316,9.594396 9.934754,9.380964 9.601772,9.289911 9.010697,9.16408 8.1945924,8.5217741 7.471759,7.9528759 7.1360328,7.7371585 5.0295507,7.717482 4.6315969,6.951198 4.7308276,8.8633102 4.6918215,7.9534474 Z"/>
 <path style="fill:#ffde3f" d="m 14.144624,0 c 0.421836,1.122979 1.947305,2.8569488 3.959378,5.433928 1.704032,2.1824538 1.899324,4.617442 2.529273,6.806775 l -4.734898,4.075311 -5.348398,-5.490531 C 10.525962,7.1753879 9.649861,3.0548818 14.144624,0 Z"/>
 <path style="opacity:0.2;fill:#8b9cbe" d="M 14.144531,0 C 10.70141,2.3401294 10.411731,5.3028351 10.474609,8.203125 10.462656,5.4652252 10.900032,2.7051353 14.144531,0.5 c 0.421836,1.122979 1.946912,2.8566146 3.958985,5.4335938 1.599482,2.0485508 1.877679,4.3129892 2.425781,6.3945312 l 0.103515,-0.08789 C 20.002864,10.050901 19.807548,7.6160475 18.103516,5.4335938 16.091443,2.8566146 14.566367,1.122979 14.144531,0 Z"/>
 <path style="fill:#ff750e" d="M 3.978,6.6573284 C 4.6726684,5.9680315 5.8069856,4.3629789 7.1604043,3.9180435 6.796792,5.8561313 7.268184,6.4721295 7.5028149,7.463 L 5.3275007,6.8990294 Z"/>
 <circle style="fill:#8357cd" cx="11" cy="11" r="5"/>
 <path style="fill:#ffba36" d="m 12.86942,7.6173508 c -0.07112,7e-4 -0.142211,0.0032 -0.213201,0.00757 1.448104,0.6797788 2.373588,2.1344912 2.375693,3.7342112 -0.0011,2.197927 -1.722935,4.060393 -3.917932,4.173851 0.548866,0.259708 1.148234,0.345029 1.75544,0.34672 2.281585,2.1e-5 4.131194,-1.849548 4.131224,-4.131133 2e-5,-2.28162 -1.849604,-4.1312447 -4.131224,-4.1312242 z"/>
 <path id="ellipse841" style="fill:#f74e66" d="M 4.6918215,7.4534465 C 2.3525854,9.262435 1,7.9537299 1,11.116822 c 0,5.458328 4.4771526,9.883177 10,9.883177 5.522847,0 10,-4.424849 10,-9.883177 0,-2.5412228 -0.970478,-4.8584454 -2.565074,-6.6094118 0.03554,-0.00135 -0.149121,-0.1433068 -0.244324,-0.1078782 0.666619,1.1049371 1.050308,2.3997742 1.050308,3.7843164 0,4.0518086 -2.253451,8.0658266 -6.30526,8.0658266 C 10.333199,16.375996 6.8664463,14.712269 6.3328613,13.155417 5.9886071,12.150979 6.0755042,11.02287 7.0121131,10.398401 7.5208481,10.075462 8.262541,9.756604 9.435957,9.719161 10.50787,9.014209 9.986316,9.094395 9.934754,8.8809633 9.601772,8.7899101 9.010697,8.6640788 8.1945924,8.0217731 7.471759,7.452875 7.1360328,7.2371575 5.0295507,7.217481 4.6315969,6.451197 4.7308276,8.3633093 4.6918215,7.4534465 Z"/>
 <path style="opacity:0.1" d="M 4.8427413,3.8290669 C 2.6036379,5.5606203 1.1337144,8.2157505 1.0116791,11.213847 c 0.128044,4.594643 4.3222687,8.286149 9.4882999,8.286149 5.246715,0 9.500019,-3.805587 9.500019,-8.500017 0,-1.265173 -0.311188,-2.4649924 -0.865237,-3.543952 0.06743,0.3996318 0.106446,0.8087201 0.106446,1.2275419 0,4.0518081 -3.285119,7.3369281 -7.336928,7.3369281 C 9.301827,16.146819 7.3441037,14.70918 6.8105187,13.152328 6.4662645,12.147889 6.5789892,11.724058 7.5155981,11.099589 8.0243331,10.77665 8.740624,10.55793 9.91404,10.520486 10.985953,9.815535 11.068143,9.544463 11.016581,9.331031 10.683599,9.239977 9.765299,8.8873968 8.9491949,8.245091 8.226361,7.6761929 7.3125052,6.5296472 5.206023,6.5099706 4.8080693,5.7436866 4.8817474,4.7389296 4.8427413,3.8290669 Z"/>
 <path style="fill:#ff7f1f" d="m 4.9423591,2.929 c -2.2391034,1.7315534 -3.8086447,4.7867495 -3.93068,7.784846 0.128044,4.594643 4.3222687,8.286149 9.4882999,8.286149 5.246715,0 9.500019,-3.805587 9.500019,-8.500017 0,-1.265173 -0.311188,-2.4649924 -0.865237,-3.543952 0.06743,0.3996318 0.106446,0.8087201 0.106446,1.2275419 0,4.0518081 -3.285119,7.3369281 -7.336928,7.3369281 C 9.301827,15.646818 7.3441037,14.209179 6.8105187,12.652327 6.4662645,11.647888 6.5789892,11.224057 7.5155981,10.599588 8.0243331,10.276649 8.740624,10.057929 9.91404,10.020486 10.985953,9.315534 11.068143,9.044462 11.016581,8.8310297 10.683599,8.7399765 9.765299,8.3873958 8.9491949,7.74509 8.226361,7.1761919 7.4121231,6.0296462 5.3056408,6.0099696 4.9076871,5.2436856 4.9813652,3.8388628 4.9423591,2.929 Z"/>
 <path style="fill:#ffba36" d="M 5.4678191,9.002417 C 4.7872997,8.987652 4.0713563,9.221029 3.6162748,9.531587 3.5347618,9.613097 4.40862,10.989005 5.9295415,11.005 5.7887242,13.458409 7.750155,14.584191 8.9831699,14.939197 l 3.74e-4,-0.0011 c -3.27e-4,-1.68e-4 -6.5e-4,-3.79e-4 -0.001,-5.5e-4 -0.09936,-0.04926 -0.1960058,-0.101061 -0.289957,-0.155247 -0.00878,-0.0051 -0.01746,-0.01023 -0.026195,-0.01533 -0.052518,-0.03071 -0.1041317,-0.06213 -0.1548808,-0.09428 -0.00994,-0.0063 -0.019885,-0.01255 -0.029755,-0.01889 -0.050797,-0.03268 -0.1006352,-0.06607 -0.1495873,-0.100121 -0.00768,-0.0053 -0.015455,-0.0106 -0.02309,-0.01597 -0.0281,-0.01979 -0.055948,-0.03974 -0.083419,-0.05996 -0.053874,-0.03966 -0.1063862,-0.08022 -0.1578013,-0.121477 -0.0122,-0.0098 -0.024265,-0.01961 -0.036325,-0.02948 -0.036415,-0.02982 -0.072209,-0.05996 -0.1073307,-0.09054 -0.0171,-0.01487 -0.03405,-0.02985 -0.050836,-0.0449 -0.024375,-0.02187 -0.048475,-0.04386 -0.072192,-0.06608 -0.02292,-0.02146 -0.04561,-0.04303 -0.067903,-0.0648 -0.018395,-0.01799 -0.03661,-0.03603 -0.054578,-0.05421 -0.026115,-0.02642 -0.051831,-0.05302 -0.07703,-0.07986 -4.86e-4,-5e-4 -9.5e-4,-10e-4 -0.00145,-0.0015 -0.01558,-0.01662 -0.030775,-0.03342 -0.046,-0.0502 -0.021455,-0.02362 -0.042595,-0.04737 -0.063339,-0.07128 -0.016335,-0.01885 -0.03248,-0.03775 -0.04837,-0.05677 -0.02115,-0.0253 -0.0418,-0.0508 -0.062153,-0.07639 -0.01148,-0.01445 -0.023095,-0.02882 -0.034315,-0.04335 -0.025525,-0.03303 -0.050192,-0.06638 -0.074383,-0.09985 -0.00963,-0.01334 -0.019235,-0.02666 -0.02866,-0.04007 -0.025145,-0.03575 -0.049595,-0.07169 -0.073197,-0.107878 -0.00644,-0.0099 -0.012655,-0.01983 -0.018985,-0.02975 -0.02346,-0.03674 -0.046325,-0.07357 -0.068177,-0.110708 -0.00465,-0.0079 -0.00914,-0.01576 -0.01369,-0.02364 -0.02202,-0.0381 -0.043035,-0.07645 -0.06334,-0.114906 -0.00375,-0.0071 -0.0077,-0.01422 -0.01141,-0.02135 -0.02121,-0.04089 -0.041265,-0.08199 -0.060511,-0.123211 -0.00405,-0.0086 -0.00802,-0.01727 -0.011955,-0.02592 -0.01884,-0.04131 -0.036835,-0.08273 -0.053665,-0.124307 -0.00265,-0.0066 -0.00514,-0.01321 -0.00776,-0.0198 -0.017555,-0.04425 -0.034315,-0.08859 -0.04956,-0.133068 C 6.4664896,11.648016 6.5785378,11.224134 7.5151467,10.599665 8.0238817,10.276726 8.7404231,10.058473 9.913839,10.021029 10.985752,9.316077 11.067821,9.04415 11.016259,8.8307177 9.208411,10.263713 7.5196846,9.54169 5.929647,9.054344 5.7800207,9.022404 5.6248764,9.005818 5.4678336,9.002412 Z"/>
 <path style="opacity:0.2;fill:#8b9cbe" d="M 4.9414062,2.9296875 C 2.7023029,4.6612409 1.133754,7.7147941 1.0117188,10.712891 c 0.00257,0.09223 0.017615,0.181955 0.023437,0.273437 0.189667,-2.9244119 1.7236349,-5.8687709 3.90625,-7.5566405 0.039006,0.9098628 -0.034672,2.3137941 0.3632813,3.0800781 2.1064823,0.019677 2.9216974,1.1654769 3.6445313,1.734375 C 9.69031,8.8274086 10.464564,9.14102 10.859375,9.267578 11.025068,9.072647 11.042427,8.9410203 11.015625,8.8300781 10.682643,8.7390249 9.765323,8.3864464 8.9492188,7.7441406 8.2263849,7.1752425 7.4111698,6.0294422 5.3046875,6.0097656 4.9067338,5.2434816 4.9804124,3.8395503 4.9414062,2.9296875 Z M 19.134766,6.9550781 c 0.03785,0.2243295 0.06396,0.4532558 0.08203,0.6835938 C 19.68088,8.6003986 19.9514,9.653257 19.986328,10.759766 19.989274,10.672731 20,10.587673 20,10.5 20,9.234827 19.688815,8.0340377 19.134766,6.9550781 Z m 0.09375,1.4648438 C 19.102626,12.361372 15.876309,15.519531 11.904297,15.519531 9.301845,15.645853 7.3441319,14.209196 6.8105469,12.652344 6.7349629,12.431809 6.6917048,12.248997 6.6640625,12.076172 c -0.065371,0.289135 -0.0093,0.621644 0.1464844,1.076172 0.533585,1.556852 2.4912981,2.993509 5.0937501,2.867187 4.051809,0 7.335937,-3.284129 7.335937,-7.3359372 0,-0.088903 -0.0083,-0.1756439 -0.01172,-0.2636719 z"/>
</svg>
