<svg xmlns="http://www.w3.org/2000/svg" width="22" height="22" version="1">
 <rect style="opacity:0.2" width="20" height="20" x="1" y="1.5" rx="6" ry="6"/>
 <rect style="fill:#81d547" width="20" height="20" x="1" y="1" rx="6" ry="6"/>
 <path style="opacity:0.2" d="M 10.969,5.4997 C 10.36481,5.4936 9.7657,5.57786 9.1838,5.72822 6.4712,6.41348 4.4511,8.85372 4.4924,11.49972 H 3.0002 l 2.2871,3 2.1875,-3 H 6.0432 C 6.038,10.39152 6.47879,9.36412 7.262,8.53682 8.734,6.86972 11.4931,6.47842 13.4495,7.59346 14.09939,8.39474 15.5427,7.51482 14.7854,6.69307 13.7082,5.90279 12.329,5.50247 10.969,5.49967 Z m 5.7441,3 -2.1875,3 h 1.4316 c 0.0052,1.1082 -0.43559,2.1356 -1.2188,2.9629 -1.472,1.6671 -4.2311,2.0584 -6.1875,0.94336 -0.64989,-0.80128 -2.0932,0.07864 -1.3359,0.90039 1.0772,0.79028 2.4564,1.1906 3.8164,1.1934 0.60419,0.0061 1.2033,-0.07816 1.7852,-0.22852 2.7126,-0.68526 4.7327,-3.1255 4.6914,-5.7715 h 1.4922 l -2.2871,-3 z"/>
 <path style="fill:#8b9cbe" d="M 10.969,5 C 10.365,4.9939 9.765,5.0782 9.184,5.2285 6.471,5.9138 4.4509,8.3541 4.4922,11 H 3 l 2.2871,3 2.1875,-3 H 6.043 C 6.0378,9.892 6.4786,8.8644 7.2617,8.0371 8.7337,6.3701 11.493,5.9787 13.449,7.0938 14.099,7.895 15.542,7.0151 14.785,6.1934 13.708,5.4031 12.329,5.0028 10.969,5 Z m 5.7441,3 -2.1875,3 h 1.4316 c 0.0052,1.1082 -0.43559,2.1356 -1.2188,2.9629 -1.472,1.6671 -4.2311,2.0584 -6.1875,0.94336 -0.64989,-0.80128 -2.0932,0.07864 -1.3359,0.90039 1.0772,0.79028 2.4564,1.1906 3.8164,1.1934 0.60419,0.0061 1.2033,-0.07816 1.7852,-0.22852 2.7126,-0.68526 4.7327,-3.1255 4.6914,-5.7715 h 1.491 l -2.287,-3 z"/>
 <circle style="fill:#f34235" cx="16" cy="16" r="6"/>
 <g style="fill:#8b9cbe" transform="matrix(0.5,0,0,0.5,-1.5,-0.5)">
  <path d="m 29.625,29 h 8.7498 c 0.625,0 0.625,0.571 0.625,0.571 v 6.8572 c 0,0.572 -0.625,0.572 -0.625,0.572 H 29.625 c 0,0 -0.625,0 -0.625,-0.571 v -6.857 c 0,-10e-4 0,-0.572 0.625,-0.572 z"/>
  <path d="m 43,30 v 6 l -4,-3.1304 z"/>
 </g>
 <path style="opacity:0.2;fill:#8b9cbe" d="M 7,1 C 3.676,1 1,3.676 1,7 v 0.5 c 0,-3.324 2.676,-6 6,-6 h 8 c 3.324,0 6,2.676 6,6 V 7 C 21,3.676 18.324,1 15,1 Z"/>
</svg>
