<svg xmlns="http://www.w3.org/2000/svg" width="22" height="22" x="0" y="0" version="1.1" xml:space="preserve">
 <g style="opacity:0.2" transform="matrix(0.3125,0,0,0.3125,1,1.5)">
  <g>
   <path d="M 32,0 C 49.7,0 64,14.3 64,32 64,49.7 49.7,64 32,64 14.3,64 0,49.7 0,32 0,14.3 14.3,0 32,0 Z"/>
  </g>
 </g>
 <g style="fill:#763983" transform="matrix(0.3125,0,0,0.3125,1,1)">
  <g style="fill:#763983">
   <path style="fill:#763983" d="M 32,0 C 49.7,0 64,14.3 64,32 64,49.7 49.7,64 32,64 14.3,64 0,49.7 0,32 0,14.3 14.3,0 32,0 Z"/>
  </g>
 </g>
 <path style="opacity:0.2" d="M 11.914367,9.3704 C 17.774883,8.182961 18,5.5 18,5.5 c 0,0 -0.461525,8.314904 -4.744463,8.754817 C 7.828056,14.81229 7.117,17.5 7.117,17.5 c 0,0 -0.2108215,-0.862747 0.1314485,-1.98863 C 7.93354,13.25779 9.61659,9.835967 11.914367,9.3704 Z"/>
 <path style="fill:#eb2273" d="M 11.914367,8.8704 C 17.774883,7.682961 18,5 18,5 18,5 17.538475,13.314904 13.255537,13.754817 7.828056,14.31229 7.117,17 7.117,17 7.117,17 6.9061785,16.137253 7.2484485,15.01137 7.93354,12.75779 9.61659,9.335967 11.914367,8.8704 Z"/>
 <path style="opacity:0.2;fill:#8b9cbe" d="M 18,5 C 18,5 17.774579,7.6836548 11.914062,8.8710938 9.616285,9.336661 7.9331384,12.758139 7.2480469,15.011719 7.0325408,15.720617 7.0379642,16.225583 7.0703125,16.576172 7.0857005,16.266678 7.1245925,15.917818 7.2480469,15.511719 7.9331384,13.258139 9.616285,9.836661 11.914062,9.371094 16.806453,8.3798132 17.730673,6.4338608 17.916016,5.7890625 17.948618,5.4657194 18,5 18,5 Z"/>
 <path style="opacity:0.2" d="M 8.6905827,9.210473 C 13.567069,7.0402702 13.120434,3.5 13.120434,3.5 c 0,0 2.692332,7.222362 -1.343826,8.906133 C 7.2678027,14.287078 7.068,17.5 7.068,17.5 c 0,0 -1.2414423,-7.014939 1.6225827,-8.289527 z"/>
 <path style="fill:#ff812d" d="M 8.6905827,8.710473 C 13.567069,6.5402702 13.120434,3 13.120434,3 c 0,0 2.692332,7.222362 -1.343826,8.906133 C 7.2678027,13.787078 7.068,17 7.068,17 c 0,0 -1.2414423,-7.014939 1.6225827,-8.289527 z"/>
 <path style="opacity:0.2;fill:#8b9cbe" d="m 13.121094,3 c 0,0 0.446799,3.5407347 -4.4296878,5.7109375 C 7.1508799,9.396524 6.80756,11.729754 6.8105469,13.751953 6.8676818,11.861949 7.2797565,9.839169 8.6914062,9.210938 13.567893,7.0407347 13.121094,3.5 13.121094,3.5 c 0,0 0.796903,2.1524981 0.86914,4.3808594 C 14.039625,5.4854785 13.121094,3 13.121094,3 Z"/>
 <path style="opacity:0.2" d="M 5.48637,11.000728 C 8.5190031,7.1798538 7.836891,4.5 7.836891,4.5 c 0,0 3.885444,4.655125 1.241512,7.538355 C 6.1248583,15.259219 7.132,17.5 7.132,17.5 c 0,0 -3.3850339,-4.30776 -1.64563,-6.499272 z"/>
 <path style="fill:#ffdf55" d="M 5.48637,10.500728 C 8.5190031,6.6798538 7.836891,4 7.836891,4 c 0,0 3.885444,4.655125 1.241512,7.538355 C 6.1248583,14.759219 7.132,17 7.132,17 c 0,0 -3.3850339,-4.30776 -1.64563,-6.499272 z"/>
 <g style="opacity:0.1;fill:#8b9cbe" transform="matrix(0.3125,0,0,0.3125,1,1)">
  <g style="fill:#8b9cbe">
   <path style="fill:#8b9cbe" transform="matrix(1.6,0,0,1.6,-6.4,-6.4)" d="M 24,4 C 12.9375,4 4,12.9375 4,24 4,24.167609 4.00764,24.333391 4.011719,24.5 4.2769007,13.670065 13.105109,5 24,5 34.894891,5 43.723099,13.670065 43.988281,24.5 43.992361,24.333391 44,24.167609 44,24 44,12.9375 35.0625,4 24,4 Z"/>
  </g>
 </g>
 <path style="opacity:0.2;fill:#8b9cbe" d="m 7.8359375,4 c 0,0 0.048259,0.2146945 0.060547,0.5820312 C 8.0349548,4.7509096 9.848866,7.006279 9.982422,9.345703 10.130131,6.7596434 7.8359375,4 7.8359375,4 Z m 0.056641,0.953125 C 7.8485841,6.0542557 7.4453334,8.0318106 5.4863281,10.5 5.0780487,11.0144 4.9595204,11.647986 5.0058594,12.3125 5.0420968,11.834107 5.182109,11.383292 5.4863281,11 7.8011686,8.0834869 7.9510302,5.8556468 7.8925781,4.953125 Z M 6.984375,16.267578 c -0.00961,0.199171 -0.01039,0.376094 0.00391,0.529297 C 7.0200978,16.839 7.1328125,17 7.1328125,17 c 0,0 -0.1097261,-0.272355 -0.1484375,-0.732422 z"/>
</svg>
