<svg xmlns="http://www.w3.org/2000/svg" width="22" height="22" version="1.1">
 <g transform="translate(0,-310.3)">
  <path style="opacity:0.2;fill-rule:evenodd" d="m 10.633456,310.8 c 0,0 1.076458,3.69836 0.768854,4.91901 -0.390173,1.5483 -1.202725,2.83701 -2.4596969,3.09502 -0.4784205,0.0982 -1.2934701,-0.54495 -1.6271786,-0.92554 -0.4074131,-0.46466 -0.6877766,-1.76946 -0.6877766,-1.76946 0,0 -0.2605575,1.13802 -0.140663,2.23593 0.119894,1.09792 0.5135925,2.70659 0.4753145,3.5499 -0.04142,0.9119 -0.5564585,1.91159 -0.5564585,1.91159 0,0 -0.3823785,-1.06477 -0.7578746,-1.77541 -0.375501,-0.71063 -1.3678771,-1.66939 -1.3678771,-1.66939 0,0 0.6632626,1.17558 0.6822101,2.27444 0.018955,1.09885 -2.1097643,3.42265 -0.09451,6.44352 2.0371371,3.05368 5.0866318,2.69766 5.0866318,2.69766 l 0.7418769,-0.27278 -2.8469595,-1.39485 3.6734935,-1.79981 -3.6734935,-1.7998 3.6734935,-1.79981 3.673499,1.79981 3.198527,-1.5678 -0.08897,-0.5076 -3.109555,-1.52421 2.707767,-1.32595 -0.109053,-0.89147 -0.447709,-3.69151 c 0,0 -0.515162,1.09593 -1.085779,1.48083 -0.375543,0.25333 -1.30063,0.34393 -1.30063,0.34393 0,0 -0.506457,-2.70112 -1.039558,-4.1065 C 12.96958,312.22055 10.633456,310.8 10.633456,310.8 Z m 4.562886,15.72003 -3.673499,1.7998 3.372159,1.65217 1.331643,-0.48932 1.490921,-1.72669 z"/>
  <path style="fill:#ff9231;fill-rule:evenodd" d="m 10.633456,310.3 c 0,0 1.076458,3.69836 0.768854,4.91901 -0.390173,1.5483 -1.202725,2.83701 -2.4596969,3.09502 -0.4784205,0.0982 -1.2934701,-0.54495 -1.6271786,-0.92554 -0.4074131,-0.46466 -0.6877766,-1.76946 -0.6877766,-1.76946 0,0 -0.2605575,1.13802 -0.140663,2.23593 0.119894,1.09792 0.5135925,2.70659 0.4753145,3.5499 -0.04142,0.9119 -0.5564585,1.91159 -0.5564585,1.91159 0,0 -0.3823785,-1.06477 -0.7578746,-1.77541 -0.375501,-0.71063 -1.3678771,-1.66939 -1.3678771,-1.66939 0,0 0.6632626,1.17558 0.6822101,2.27444 0.018955,1.09885 -2.1097643,3.42265 -0.09451,6.44352 2.0371371,3.05368 5.0866318,2.69766 5.0866318,2.69766 l 0.7418769,-0.27278 -2.8469595,-1.39485 3.6734935,-1.79981 -3.6734935,-1.7998 3.6734935,-1.79981 3.673499,1.79981 3.198527,-1.5678 -0.08897,-0.5076 -3.109555,-1.52421 2.707767,-1.32595 -0.109053,-0.89147 -0.447709,-3.69151 c 0,0 -0.515162,1.09593 -1.085779,1.48083 -0.375543,0.25333 -1.30063,0.34393 -1.30063,0.34393 0,0 -0.506457,-2.70112 -1.039558,-4.1065 C 12.96958,311.72055 10.633456,310.3 10.633456,310.3 Z m 4.562886,15.72003 -3.673499,1.7998 3.372159,1.65217 1.331643,-0.48932 1.490921,-1.72669 z"/>
  <path style="opacity:0.2;fill:#8b9cbe;fill-rule:evenodd" d="m 10.632812,310.3 c 0,0 0.06994,0.24149 0.167969,0.61523 0.417934,0.275 2.27418,1.58177 3.121094,3.81446 0.533101,1.40538 1.039063,4.10742 1.039063,4.10742 0,0 0.925238,-0.0924 1.300781,-0.3457 0.570617,-0.3849 1.085937,-1.48047 1.085937,-1.48047 l 0.447266,3.6914 0.05078,0.41993 0.05859,-0.0273 -0.109375,-0.89258 -0.447266,-3.69141 c 0,0 -0.51532,1.09557 -1.085937,1.48047 -0.375543,0.25333 -1.300781,0.3457 -1.300781,0.3457 0,0 -0.505962,-2.70204 -1.039063,-4.10742 C 12.970074,311.72049 10.632813,310.3 10.632812,310.3 Z m 0.804688,4.55273 c -0.008,0.12922 -0.01006,0.2676 -0.03516,0.36719 -0.390173,1.5483 -1.202013,2.83574 -2.4589845,3.09375 -0.4784165,0.0982 -1.2932406,-0.54519 -1.6269492,-0.92578 -0.4074131,-0.46466 -0.6894531,-1.76953 -0.6894531,-1.76953 0,0 -0.1763471,0.83909 -0.15625,1.76758 0.036421,-0.70461 0.15625,-1.26758 0.15625,-1.26758 0,0 0.28204,1.30487 0.6894531,1.76953 0.3337086,0.38059 1.1485327,1.02398 1.6269532,0.92578 1.2569715,-0.25801 2.0688115,-1.54545 2.4589845,-3.09375 0.05466,-0.21692 0.0541,-0.52843 0.03516,-0.86719 z m -7.158203,5.01954 c 0,0 0.2071043,0.38858 0.3945312,0.9121 0.3238597,0.34208 0.735381,0.80313 0.9746094,1.25586 0.3754961,0.71064 0.7578125,1.77539 0.7578125,1.77539 0,0 0.5152206,-0.99825 0.5566406,-1.91015 0.00467,-0.10296 -0.012612,-0.24569 -0.019531,-0.36914 -0.080418,0.87392 -0.5371094,1.77929 -0.5371094,1.77929 0,0 -0.3823164,-1.06475 -0.7578125,-1.77539 -0.375501,-0.71063 -1.3691406,-1.66796 -1.3691408,-1.66796 z m 0.6542969,2.4375 c -0.1045609,0.80246 -1.0146666,2.12742 -0.921875,3.83984 0.090211,-1.58052 0.9633672,-2.79692 0.9511718,-3.50391 -0.00193,-0.11198 -0.015366,-0.22368 -0.029297,-0.33593 z m 10.7734371,0.36132 -0.509765,0.25 3.109375,1.52344 0.0078,0.0469 0.08008,-0.0391 -0.08789,-0.50781 z m -7.3476559,3.59961 -0.5097656,0.25 3.1640625,1.54883 0.509766,-0.25 z m 3.1640629,1.54883 0.509765,0.25 3.164063,-1.54883 -0.509766,-0.25 z m 3.673828,-1.29883 2.216796,1.08594 0.302735,-0.35156 -2.009766,-0.98438 z m -6.8378909,3.34961 -0.5097656,0.25 2.2636715,1.10742 0.583985,-0.21289 z"/>
 </g>
</svg>
