<svg xmlns="http://www.w3.org/2000/svg" width="22" height="22" version="1">
 <g transform="translate(-1,-1)">
  <rect style="opacity:0.2" width="20" height="20" x="2" y="2.5" rx="1" ry="1"/>
  <rect style="fill:#a7a7a7" width="20" height="20" x="2" y="2" rx="1" ry="1"/>
  <path style="opacity:0.2;fill:#8b9cbe" d="M 3,2 C 2.446,2 2,2.446 2,3 V 3.5 C 2,2.946 2.446,2.5 3,2.5 H 21 C 21.554,2.5 22,2.946 22,3.5 V 3 C 22,2.446 21.554,2 21,2 Z"/>
  <path style="opacity:0.1" d="M 18,7 C 16.904,7.5992 14.646,7.5248 12.511,7.4998 10.834,7.5098 7.5624,7.3615 7.0001,8.9999 7.2125,8.7068 11.109,7.3785 10.717,9.0283 10.256,10.373 9.432,11.293 8.7258,12.509 8.0397,12.561 7.0891,12.591 6.4999,13 6.6533,12.905 7.9602,12.645 8.484,12.931 7.6823,14.257 6.8552,15.33 6.267,16.774 6.1051,17.269 5.7402,18.067 6.3005,18.426 6.7757,18.648 6.4429,18.329 6.6353,18.019 7.4414,16.286 8.5514,14.827 9.5645,13.217 10.156,13.463 10.73,13.919 11.375,13.99 12.254,14.095 13.768,12.853 14,12 13,12.751 11.274,12.517 10.134,12.492 L 12.596,8.8975 C 12.838,8.9719 13.266,8.9919 13.974,8.9999 15.623,9.0468 17.732,8.7392 18,7 Z"/>
  <path style="fill:#4f4f4f" d="M 18,6.5 C 16.904,7.0992 14.646,7.0248 12.511,6.9998 10.834,7.0098 7.5624,6.8615 7.0001,8.4999 7.2125,8.2068 11.109,6.8785 10.717,8.5283 10.256,9.8726 9.432,10.793 8.7258,12.009 8.0397,12.061 7.0891,12.091 6.4999,12.5 6.6533,12.405 7.9602,12.145 8.484,12.431 7.6823,13.757 6.8552,14.83 6.267,16.274 6.1051,16.769 5.7402,17.567 6.3005,17.926 6.7757,18.148 6.4429,17.829 6.6353,17.519 7.4414,15.786 8.5514,14.327 9.5645,12.717 10.156,12.963 10.73,13.419 11.375,13.49 12.254,13.595 13.768,12.353 14,11.5 13,12.251 11.274,12.017 10.134,11.992 L 12.596,8.3975 C 12.838,8.4719 13.266,8.4919 13.974,8.4999 15.623,8.5468 17.732,8.2392 18,6.5 Z"/>
 </g>
</svg>
