<svg xmlns="http://www.w3.org/2000/svg" width="22" height="22" version="1">
 <rect style="fill:#6493a6" width="20" height="20" x="1" y="1" rx="1" ry="1"/>
 <path style="opacity:0.2;fill:#8b9cbe" d="M 1,2.5 1,2 C 1,1.446 1.446,1 2,1 l 18,0 c 0.554,0 1,0.446 1,1 l 0,0.5 c 0,-0.554 -0.446,-1 -1,-1 l -18,0 c -0.554,0 -1,0.446 -1,1 z"/>
 <path style="opacity:0.2" d="m 1,20 0,0.5 c 0,0.554 0.446,1 1,1 l 18,0 c 0.554,0 1,-0.446 1,-1 L 21,20 c 0,0.554 -0.446,1 -1,1 L 2,21 C 1.446,21 1,20.554 1,20 Z"/>
 <path style="opacity:0.2" d="m 11,4.5 0,2 1,0 c 1.142595,0 2,0.8574055 2,2 l 0,2 c 0,1.142595 -0.857405,2 -2,2 l -1,0 0,2 1,0 c 2.216,0 4,-1.784 4,-4 l 0,-2 c 0,-2.216 -1.784,-4 -4,-4 l -1,0 z"/>
 <path style="fill:#8b9cbe" d="m 11,4 0,2 1,0 c 1.142595,0 2,0.8574055 2,2 l 0,2 c 0,1.142595 -0.857405,2 -2,2 l -1,0 0,2 1,0 c 2.216,0 4,-1.784 4,-4 L 16,8 C 16,5.784 14.216,4 12,4 l -1,0 z"/>
 <path style="opacity:0.2" d="m 10,4.5 c -2.216,0 -4,1.784 -4,4 l 0,2 0,2 0,2 0,3.177734 L 6,18.5 c 0,0.554 0.446,1 1,1 0.554,0 1,-0.446 1,-1 l 0,-4 2,0 1,0 0,-2 -1,0 c -1.1425945,0 -2,-0.857405 -2,-2 l 0,-2 c 0,-1.1425945 0.8574055,-2 2,-2 l 1,0 0,-2 -1,0 z"/>
 <path style="fill:#17191e" d="M 10,4 C 7.784,4 6,5.784 6,8 l 0,2 0,2 0,2 0,3.177734 L 6,18 c 0,0.554 0.446,1 1,1 0.554,0 1,-0.446 1,-1 l 0,-4 2,0 1,0 0,-2 -1,0 C 8.8574055,12 8,11.142595 8,10 L 8,8 C 8,6.8574055 8.8574055,6 10,6 l 1,0 0,-2 -1,0 z"/>
</svg>
