<svg xmlns="http://www.w3.org/2000/svg" width="22" height="22" version="1.1">
 <path style="opacity:0.2" d="M 11.5,0.49986 C 11.181,0.50546 10.868,0.58716 10.587,0.73826 L 3.3856,4.8172 C 2.9,5.0766 2.4128,5.5305 2.202,6.0312 1.9715,6.5788 1.9827,7.0072 2.0223,7.3303 L 2.0633,15.318 C 2.0779,15.91 2.356,16.466 2.8221,16.833 3.7556,17.569 10.406,21.243 10.406,21.243 10.739,21.43 11.119,21.518 11.5,21.497 11.881,21.518 12.261,21.43 12.594,21.243 12.594,21.243 19.244,17.569 20.178,16.833 20.644,16.466 20.922,15.91 20.937,15.318 L 20.978,7.3303 C 21.017,7.0072 21.028,6.5788 20.798,6.0312 20.587,5.5305 20.1,5.0766 19.614,4.8172 L 12.413,0.73826 C 12.132,0.58716 11.819,0.50546 11.5,0.49986 Z"/>
 <path style="fill:#17191e" d="M 11.5,-4.3402e-5 C 11.181,0.00546 10.868,0.08716 10.587,0.23826 L 3.3856,4.3172 C 2.9,4.5766 2.4128,5.0305 2.202,5.5312 1.9715,6.0788 1.9827,6.5072 2.0223,6.8303 L 2.0633,14.818 C 2.0779,15.41 2.356,15.966 2.8221,16.333 3.7556,17.069 10.406,20.743 10.406,20.743 10.739,20.93 11.119,21.018 11.5,20.997 11.881,21.018 12.261,20.93 12.594,20.743 12.594,20.743 19.244,17.069 20.178,16.333 20.644,15.966 20.922,15.41 20.937,14.818 L 20.978,6.8303 C 21.017,6.5072 21.028,6.0788 20.798,5.5312 20.587,5.0305 20.1,4.5766 19.614,4.3172 L 12.413,0.23826 C 12.132,0.08716 11.819,0.00546 11.5,-4.3402e-5 Z"/>
 <path style="opacity:0.2" d="M 11.507,4.7513 10.474,5.3699 12.526,6.6302 8.2048,9.128 6.0381,7.9276 6,14.197 7.0578,14.783 7.124,12.362 9.249,13.504 9.292,12.309 7.14,11.037 7.126,9.843 10.36,11.591 10.386,10.419 9.418,9.785 13.721,7.308 15.826,8.5232 11.984,10.647 12,16.706 13.088,16.078 13.107,13.839 16.98,11.692 17,7.8905 Z M 15.875,9.844 15.885,11.013 13.107,12.553 V 11.249 Z M 11.526,2.4395 4,6.691 4.0402,15.267 11.549,19.522 19,15.319 V 6.6905 Z M 11.49,3.6973 17.934,7.3565 17.933,14.586 11.549,18.336 5.1269,14.706 5.0615,7.3848 Z"/>
 <path style="fill:#8b9cbe" d="M 11.507,4.2513 10.474,4.8699 12.526,6.1302 8.2048,8.6278 6.0381,7.4276 6,13.697 7.0578,14.283 7.124,11.862 9.249,13.004 9.292,11.809 7.14,10.537 7.126,9.343 10.36,11.091 10.386,9.919 9.418,9.285 13.721,6.808 15.826,8.0232 11.984,10.147 12,16.206 13.088,15.578 13.107,13.339 16.98,11.192 17,7.3905 Z M 15.875,9.344 15.885,10.513 13.107,12.053 V 10.749 Z M 11.526,1.9395 4,6.191 4.0402,14.767 11.549,19.022 19,14.819 V 6.1905 Z M 11.49,3.1973 17.934,6.8565 17.933,14.086 11.549,17.836 5.1269,14.206 5.0615,6.8848 Z"/>
 <path style="opacity:0.1;fill:#8b9cbe" d="M 11.5,-4.3402e-5 C 11.181,0.00546 10.869,0.08716 10.588,0.23826 L 3.3848,4.3164 C 2.8992,4.5758 2.412,5.0305 2.2012,5.5312 1.9934,6.0248 1.9908,6.4087 2.0195,6.7188 2.0435,6.5139 2.0937,6.2865 2.2012,6.0312 2.412,5.5305 2.8992,5.0758 3.3848,4.8164 L 10.588,0.73826 C 10.869,0.58716 11.181,0.50556 11.5,0.49996 11.819,0.50556 12.131,0.58716 12.412,0.73826 L 19.613,4.8164 C 20.099,5.0758 20.588,5.5305 20.799,6.0312 20.906,6.2873 20.957,6.5154 20.98,6.7207 21.009,6.4104 21.007,6.0258 20.799,5.5312 20.588,5.0305 20.099,4.5758 19.613,4.3164 L 12.412,0.23826 C 12.131,0.08716 11.819,0.00546 11.5,-4.3402e-5 Z"/>
</svg>
