<svg xmlns="http://www.w3.org/2000/svg" width="22" height="22" version="1">
 <rect style="fill:#4454ba" width="20" height="20" x="1" y="1" rx="1" ry="1"/>
 <path style="opacity:0.1;fill:#8b9cbe" d="M 1,2.5 V 2 C 1,1.446 1.446,1 2,1 h 18 c 0.554,0 1,0.446 1,1 v 0.5 c 0,-0.554 -0.446,-1 -1,-1 H 2 c -0.554,0 -1,0.446 -1,1 z"/>
 <path style="opacity:0.2" d="m 1,20 v 0.5 c 0,0.554 0.446,1 1,1 h 18 c 0.554,0 1,-0.446 1,-1 V 20 c 0,0.554 -0.446,1 -1,1 H 2 C 1.446,21 1,20.554 1,20 Z"/>
 <path style="opacity:0.2" d="M 7.4453125,7.4999518 7.2226562,7.6698737 7,7.8397956 V 10.306593 12.77339 L 8.7636719,14.499952 10,13.552686 9.998,10.697218 9.9941,7.8417487 9.777303,7.6698737 9.5566,7.4999518 H 8.75 Z m 3.9980465,0 -0.220703,0.1699219 -0.216797,0.171875 -0.0039,2.8554693 L 11,13.552686 12.236328,14.499952 14,12.77339 V 10.306593 7.8397956 L 13.777344,7.6698737 13.554688,7.4999518 H 12.25 Z m 8.056641,0 -0.757812,0.023437 c -0.554975,-0.0038 -0.752098,-0.00587 -0.757813,-0.00391 L 17,8.9550299 c 0,0 -0.999881,-1.4554498 -1.115234,-1.4277343 l -0.0918,-0.00586 c -0.05027,-0.0033 0.139696,-0.00586 -0.189453,-0.00586 H 15 v 2.5644534 2.716797 l -0.04687,0.03711 c -0.04204,0.03022 -0.05079,0.04126 -0.04102,0.05078 l 1.076172,1.080078 0.0039,-1.050782 c 0.0044,-0.967119 0.0059,-1.04778 0.01953,-1.003906 L 17,13.382764 l 1.003906,-1.53125 0.0059,1.392579 0.0059,1.390625 0.980469,1 0.0039,-3.878907 0.0059,-3.7304686 z m -17,0.00195 v 0.00195 l 0.5117188,0.5058594 v 3.5898438 c 0,1.9742 0.00436,3.724512 0.00781,3.890625 v 0.002 c 0.00444,0.213765 0.00827,0.512218 0.015625,0.507812 0.024612,-0.01469 3.0599127,-2.967398 3.0644532,-2.974609 0.0027,-0.0044 -0.019473,-0.02484 -0.050781,-0.04687 L 5.990232,12.937493 V 10.388624 7.8417487 L 5.7734375,7.675733 5.5566406,7.5077643 4.25,7.503858 C 3.0686171,7.5019522 2.4941264,7.4963999 2.5,7.5019049 Z m 2.3222656,0.9882813 0.085937,0.039063 0.083984,0.037109 v 1.3964849 2.5 L 4.013671,13.546824 c -0.01759,0.0061 -0.019435,-1.838431 -0.015625,-3.298828 l 0.00391,-1.7539065 0.6601563,-0.00195 z m 3.9082032,0.015625 v 0.00195 c 0.06563,-0.00534 0.077191,-0.00433 0.1699218,0.039063 L 8.9980469,8.5937018 9,10.847608 c 3.78e-4,0.991861 -0.0051,2.252329 -0.011719,2.251953 l -0.9863281,-1.0625 V 10.515577 L 8,8.5917487 8.0917969,8.550733 8.1816406,8.5116706 H 8.671875 c 0.268982,0 0.020061,-0.00271 0.058594,-0.00586 z m 3.5390622,0 c 0.03853,0.00315 -0.210388,0.00586 0.05859,0.00586 h 0.490234 l 0.08984,0.039062 0.0918,0.041016 -0.002,1.9238279 v 1.521484 l -0.986328,1.0625 c -0.0066,3.76e-4 -0.0121,-1.260092 -0.01172,-2.251953 l 0.002,-2.2539058 0.09766,-0.046875 c 0.09273,-0.043393 0.104292,-0.044403 0.169922,-0.039063 z"/>
 <path style="fill:#8b9cbe" d="M 7.4453125,7 7.2226562,7.1699219 7,7.3398438 V 9.806641 12.273438 L 8.7636719,14 10,13.052734 9.998047,10.197266 9.994141,7.3417969 9.777344,7.1699219 9.556641,7 H 8.75 Z m 3.9980465,0 -0.220703,0.1699219 -0.216797,0.171875 -0.0039,2.8554691 L 11,13.052734 12.236328,14 14,12.273438 V 9.806641 7.3398438 L 13.777344,7.1699219 13.554688,7 H 12.25 Z M 19.5,7 18.742188,7.0234375 c -0.554975,-0.0038 -0.752098,-0.00587 -0.757813,-0.00391 L 17,8.4550781 c 0,0 -0.999881,-1.4554498 -1.115234,-1.4277343 l -0.0918,-0.00586 c -0.05027,-0.0033 0.139696,-0.00586 -0.189453,-0.00586 H 15 v 2.5644532 2.716797 l -0.04687,0.03711 c -0.04204,0.03022 -0.05079,0.04126 -0.04102,0.05078 l 1.076172,1.080078 0.0039,-1.050782 c 0.0044,-0.967119 0.0059,-1.04778 0.01953,-1.003906 L 17,12.882812 l 1.003906,-1.53125 0.0059,1.392579 0.0059,1.390625 0.980469,1 0.0039,-3.878907 0.0059,-3.7304684 z M 2.5,7.00195 V 7.0039 l 0.5117188,0.5058594 v 3.5898436 c 0,1.9742 0.00436,3.724512 0.00781,3.890625 v 0.002 c 0.00444,0.213765 0.00827,0.512218 0.015625,0.507812 0.024612,-0.01469 3.0599127,-2.967398 3.0644532,-2.974609 0.0027,-0.0044 -0.019473,-0.02485 -0.050781,-0.04687 L 5.9902344,12.4375 V 9.888672 7.3417969 L 5.7734375,7.1757812 5.5566406,7.0078125 4.25,7.0039062 C 3.0686171,7.0020004 2.4941264,6.9964481 2.5,7.0019531 Z m 2.3222656,0.9882813 0.085937,0.039063 0.083984,0.037109 v 1.3964847 2.5 L 4.013671,13.046872 c -0.01759,0.0061 -0.019435,-1.838431 -0.015625,-3.298828 l 0.00391,-1.7539063 0.6601563,-0.00195 z m 3.9082032,0.015625 v 0.00195 c 0.06563,-0.00534 0.077191,-0.00433 0.1699218,0.039063 L 8.9980469,8.09375 9,10.347656 c 3.78e-4,0.991861 -0.0051,2.252329 -0.011719,2.251953 l -0.9863281,-1.0625 V 10.015625 L 8,8.0917969 8.0917969,8.0507812 8.1816406,8.0117188 H 8.671875 c 0.268982,0 0.020061,-0.00271 0.058594,-0.00586 z m 3.5390622,0 c 0.03853,0.00315 -0.210388,0.00586 0.05859,0.00586 h 0.490234 l 0.08984,0.039062 0.0918,0.041016 -0.002,1.9238277 v 1.521484 l -0.986328,1.0625 c -0.0066,3.76e-4 -0.0121,-1.260092 -0.01172,-2.251953 l 0.002,-2.2539056 0.09766,-0.046875 c 0.09273,-0.043393 0.104292,-0.044403 0.169922,-0.039063 z"/>
</svg>
