<svg xmlns="http://www.w3.org/2000/svg" width="22" height="22" version="1.1">
 <path style="opacity:0.2" d="M 11,1.5 C 9.35669,1.502585 7.739342,1.9101071 6.2910155,2.6865235 6.2638605,2.7351135 6.232447,2.7815767 6.1972655,2.8251953 6.0123545,3.0521707 5.7418775,3.1810931 5.486328,3.1640625 2.6870942,5.014085 1.002245,8.1446625 1,11.5 c 0.004,1.040599 0.1703838,2.074197 0.493164,3.063477 0.2206653,0.100476 0.3947813,0.319218 0.4648438,0.583984 0.048852,0.187466 0.041593,0.383115 -0.020508,0.552734 C 3.5722561,19.232338 7.1079005,21.495075 11,21.5 c 3.903541,0 7.284691,-2.236626 8.93183,-5.49826 0.683282,-1.353024 0.961332,-2.897697 0.961332,-4.517003 0,-1.600023 -0.268938,-3.0970165 -0.93705,-4.438067 C 18.318082,3.7587776 14.922824,1.5 11,1.5 Z"/>
 <path style="fill:#dee000" d="M 11,1 C 9.35669,1.002585 7.739342,1.4101071 6.2910155,2.1865235 6.2638605,2.2351135 6.232447,2.2815767 6.1972655,2.3251953 6.0123545,2.5521708 5.7418775,2.6810932 5.486328,2.6640625 2.6870942,4.514085 1.002245,7.6446625 1,11 c 0.004,1.040599 0.1703838,2.074197 0.493164,3.063477 0.2206653,0.100476 0.3947813,0.319218 0.4648438,0.583984 0.048852,0.187466 0.041593,0.383115 -0.020508,0.552734 C 3.5722561,18.732338 7.1079005,20.995075 11,21 c 3.903541,0 7.284691,-2.236626 8.93183,-5.49826 0.683282,-1.353024 0.961332,-2.897697 0.961332,-4.517003 0,-1.600023 -0.268938,-3.0970165 -0.93705,-4.438067 C 18.318082,3.2587776 14.922824,1 11,1 Z"/>
 <path style="fill:#8b9cbe" d="M 9.763672,1.828125 C 9.003441,1.8080003 7.6611685,1.9738077 6.345703,2.1552735 A 10,10 0 0 0 6.2910155,2.1875 0.68355685,0.8259225 39.073308 0 1 6.1972655,2.3251953 0.68355685,0.8259225 39.073308 0 1 5.491211,2.6640625 10,10 0 0 0 5.430664,2.7041015 c 3.699062,-0.2003534 7.707546,0.1282325 10.36914,1.359375 1.803105,0.834041 3.200905,2.0073545 3.988282,3.5527345 0.787376,1.54538 1.397924,3.512906 0.550781,5.848633 -0.698936,1.927095 -1.747268,2.784321 -2.87793,3.453125 -1.130661,0.668803 -2.687222,0.789082 -3.437499,0.513671 C 11.148815,16.376428 8.097391,14.267687 5.6279295,13.390625 3.2779815,12.55601 2.0830888,12.842336 1.4501953,13.934571 a 10,10 0 0 0 0.047852,0.131835 0.8259225,0.68355685 75.246572 0 1 0.4599609,0.581055 0.8259225,0.68355685 75.246572 0 1 -0.020508,0.552734 10,10 0 0 0 0.048828,0.108399 c 0.3929485,-1.276682 1.973105,-1.18087 3.0078123,-0.803711 2.313482,0.843283 5.3990415,2.797868 8.4658205,3.733398 1.616226,0.493035 3.117743,0.0763 4.375976,-0.667969 0.770101,-0.455526 1.487652,-1.124439 2.049805,-2.003906 A 10,10 0 0 0 21,11 10,10 0 0 0 19.831054,6.323242 C 18.916972,4.9574735 17.456359,3.8591465 15.829101,3.1064453 14.046659,2.2819621 11.983302,1.8868828 9.763672,1.828125 Z"/>
 <path style="opacity:0.2;fill:#8b9cbe" d="M 11,1 C 9.35669,1.002585 7.739342,1.4101071 6.2910155,2.1865235 6.2638605,2.2351135 6.232447,2.2815767 6.1972655,2.3251953 6.0123545,2.5521708 5.7418775,2.6810932 5.486328,2.6640625 2.6870943,4.514085 1.002245,7.6446625 1,11 1.0002707,11.0705 1.00703,11.140512 1.00879,11.210938 1.104828,7.9658895 2.7678814,4.9606925 5.486328,3.1640625 5.7418775,3.181093 6.0123545,3.0521707 6.1972655,2.8251953 6.2324455,2.7815768 6.2638605,2.7351135 6.2910155,2.6865234 7.739342,1.9101071 9.35669,1.502585 11,1.5 c 3.922824,0 7.318024,2.2589826 8.956054,5.546875 0.63328,1.2711345 0.904725,2.683167 0.931641,4.189453 0.0015,-0.08408 0.0059,-0.167449 0.0059,-0.251953 0,-1.600024 -0.269388,-3.0964495 -0.9375,-4.4375 C 18.318024,3.2589826 14.922824,1 11,1 Z M 1.9511719,15.128906 c -0.00629,0.02326 -0.00546,0.04886 -0.013672,0.07129 0.01045,0.02258 0.022597,0.04393 0.033203,0.06641 -0.00532,-0.03982 -0.00243,-0.07972 -0.012695,-0.11914 -0.00172,-0.0065 -0.005,-0.01212 -0.00684,-0.01855 z"/>
 <path style="opacity:0.1" d="M 9.763672,1.328125 C 9.368072,1.317653 8.8105703,1.359805 8.1855469,1.425781 7.5605899,1.6105096 6.9500758,1.8454235 6.3691406,2.1503906 7.6768314,1.9702487 9.00811,1.8081239 9.763672,1.828125 c 2.21963,0.058758 4.282011,0.4528606 6.064453,1.2773438 1.613039,0.746124 3.061029,1.8324452 3.976563,3.1816406 C 19.355811,5.4506538 18.791438,4.6901689 18.132812,4.0175781 17.440319,3.4647375 16.65749,2.9890982 15.828125,2.6054688 14.045683,1.7809854 11.983302,1.3868828 9.763672,1.328125 Z m 10.085937,5.0371094 a 10,10 0 0 1 0.28711,0.6171875 C 20.075049,6.8377648 20.027406,6.6881334 19.957031,6.546875 19.925516,6.4836166 19.882417,6.4277221 19.849609,6.3652344 Z m 0.472657,1.0625 a 10,10 0 0 1 0.09375,0.2714844 c -0.0293,-0.091326 -0.06143,-0.1813357 -0.09375,-0.2714844 z m 0.410156,3.4453126 c -0.01752,0.661247 -0.127568,1.355729 -0.394531,2.091797 -0.698936,1.927095 -1.746291,2.784321 -2.876953,3.453125 -1.130661,0.668803 -2.687225,0.789083 -3.4375,0.513672 C 11.148813,15.87643 8.0964146,13.767687 5.6269531,12.890625 3.2770051,12.05601 2.0821122,12.341359 1.4492188,13.433594 a 10,10 0 0 0 0.048828,0.132812 0.8259225,0.68355685 75.246572 0 1 0.1484375,0.0918 c 0.6734164,-0.852752 1.8485632,-1.024752 3.9804687,-0.267578 2.4694615,0.877062 5.521859,2.985805 8.396485,4.041016 0.750275,0.275411 2.306839,0.155131 3.4375,-0.513672 1.130662,-0.668804 2.178017,-1.52603 2.876953,-3.453125 0.335013,-0.923693 0.436239,-1.786607 0.394531,-2.591797 z M 1.9570312,14.640625 a 0.8259225,0.68355685 75.246572 0 1 -0.00195,0.0039 c 3.921e-4,0.0015 0.00157,0.0024 0.00195,0.0039 0.011199,0.04298 0.010308,0.08548 0.015625,0.128906 a 10,10 0 0 0 0.013672,0.03125 0.8259225,0.68355685 75.246572 0 0 -0.027344,-0.16211 0.8259225,0.68355685 75.246572 0 0 -0.00195,-0.0059 z"/>
</svg>
