<svg xmlns="http://www.w3.org/2000/svg" width="22" height="22" version="1">
 <rect style="fill:#569a40" width="20" height="20" x="1" y="1" rx="1" ry="1"/>
 <path style="opacity:0.2;fill:#8b9cbe" d="M 2,1 C 1.446,1 1,1.446 1,2 v 0.5 c 0,-0.554 0.446,-1 1,-1 h 18 c 0.554,0 1,0.446 1,1 V 2 C 21,1.446 20.554,1 20,1 Z"/>
 <path style="opacity:0.2" d="m 2,21.5 c -0.554,0 -1,-0.446 -1,-1 V 20 c 0,0.554 0.446,1 1,1 h 18 c 0.554,0 1,-0.446 1,-1 v 0.5 c 0,0.554 -0.446,1 -1,1 z"/>
 <path style="opacity:0.5;fill:#8b9cbe" d="M 2,2 V 17 H 3 V 3 H 19 V 19 H 5 v 1 H 20 V 2 Z m 0,16 v 2 h 2 v -2 z"/>
 <g style="font-size:34.2857132px;line-height:1.25;letter-spacing:0px;word-spacing:0px" transform="matrix(0.5167323,0,0,0.5,-17.68263,-9.756918)">
  <path style="opacity:0.2" d="m 54.48718,30.513836 c -1.028571,0 -2.159939,0.04529 -3.394226,0.136719 -1.211428,0.06857 -2.320475,0.216741 -3.32619,0.445312 v 1.417969 1 21 h 4.320268 0.517827 0.967619 v -7.964844 h 0.676577 c 1.737143,0 3.277857,-0.14817 4.626428,-0.445312 1.348571,-0.297144 2.4911,-0.757858 3.428245,-1.375 0.937141,-0.64 1.648006,-1.450736 2.128005,-2.433594 0.502858,-1.005714 0.752173,-2.203372 0.752173,-3.597656 0,-2.674286 -0.922917,-5.039733 -2.774346,-6.296875 -1.828569,-1.257143 -4.470951,-1.886719 -7.92238,-1.886719 z m 0.30994,3.734375 c 0.822859,0 1.589523,0.06989 2.298095,0.207031 0.731431,0.114286 1.356608,0.323951 1.882323,0.621094 0.525713,0.297143 0.93884,0.708661 1.235982,1.234375 0.297142,0.525715 0.44601,1.574419 0.44601,2.351563 0,1.622856 -0.561993,2.729932 -1.681992,3.324218 -1.120002,0.571428 -2.716519,0.859376 -4.796519,0.859376 H 53.572478 V 34.29118 c 0.396842,-0.01509 0.743147,-0.04297 1.224642,-0.04297 z"/>
  <path style="fill:#8b9cbe" transform="matrix(1.935238,0,0,2,32.28486,17.513836)" d="M 11.472656,6 C 10.94116,6 10.356546,6.0226449 9.71875,6.0683594 9.092766,6.1026449 8.5196855,6.1767301 8,6.2910156 V 7 7.5 18 H 10.232422 10.5 11 v -3.982422 h 0.349609 c 0.897638,0 1.693775,-0.07409 2.390625,-0.222656 0.69685,-0.148572 1.287232,-0.378929 1.771485,-0.6875 0.484251,-0.32 0.851578,-0.725368 1.099609,-1.216797 C 16.871171,11.387768 17,10.788939 17,10.091797 17,8.7546539 16.523099,7.5719304 15.566406,6.9433594 14.621525,6.3147879 13.256121,6 11.472656,6 Z m 0.160156,1.8671875 c 0.425198,0 0.821358,0.034945 1.1875,0.1035156 0.377954,0.057143 0.701003,0.1619754 0.972657,0.3105469 0.271653,0.1485715 0.485129,0.3543305 0.638672,0.6171875 0.153543,0.2628575 0.230468,0.7872097 0.230468,1.1757815 0,0.811428 -0.2904,1.364966 -0.86914,1.662109 -0.578741,0.285714 -1.403713,0.429688 -2.478516,0.429688 H 11 V 7.8886719 c 0.205061,-0.00754 0.384008,-0.021484 0.632812,-0.021484 z"/>
 </g>
</svg>
