<svg xmlns="http://www.w3.org/2000/svg" width="22" height="22" version="1">
 <rect fill="#5db43e" width="20" height="20" x="1" y="1" rx="10" ry="10"/>
 <path fill="#fff" opacity=".2" d="m11 1c-5.54 0-10 4.46-10 10 0 0.084-0.002 0.166 0 0.25 0.1322-5.423 4.544-9.75 10-9.75s9.868 4.327 10 9.75c0.002-0.084 0-0.166 0-0.25 0-5.54-4.46-10-10-10z"/>
 <path opacity=".2" d="m1.0058 11.25c-0.002 0.084-0.0058 0.166-0.0058 0.25 0 5.54 4.46 10 10 10s10-4.46 10-10c0-0.084-0.004-0.1665-0.006-0.25-0.132 5.423-4.538 9.75-9.994 9.75s-9.862-4.327-9.994-9.75z"/>
 <path style="opacity:0.1" d="m10.969 5.4997c-0.604-0.0061-1.2036 0.0782-1.7854 0.2285-2.7126 0.6853-4.7327 3.1255-4.6914 5.7718h-1.4922l2.2871 3 2.1875-3h-1.4316c-0.0052-1.109 0.4356-2.1359 1.2187-2.9632 1.472-1.6671 4.2313-2.0584 6.1873-0.9434 0.65 0.8013 2.093-0.0786 1.336-0.9003-1.077-0.7903-2.456-1.1906-3.816-1.1934zm5.7441 3-2.1875 3h1.4316c0.0052 1.1082-0.43559 2.1356-1.2188 2.9629-1.472 1.6671-4.2311 2.0584-6.1875 0.94336-0.64989-0.80128-2.0932 0.07864-1.3359 0.90039 1.0772 0.79028 2.4564 1.1906 3.8164 1.1934 0.60419 0.0061 1.2033-0.07816 1.7852-0.22852 2.7126-0.68526 4.7327-3.1255 4.6914-5.7715h1.4922l-2.2871-3z"/>
 <path style="fill:#17191e" d="m10.969 5c-0.604-0.0061-1.2036 0.0782-1.7854 0.2285-2.7126 0.6853-4.7327 3.1256-4.6914 5.7715h-1.4922l2.2871 3 2.1875-3h-1.4316c-0.0052-1.1082 0.4356-2.1356 1.2187-2.9629 1.472-1.667 4.2313-2.0584 6.1873-0.9433 0.65 0.8012 2.093-0.0787 1.336-0.9004-1.077-0.7903-2.456-1.1906-3.816-1.1934zm5.7441 3-2.1875 3h1.4316c0.0052 1.1082-0.43559 2.1356-1.2188 2.9629-1.472 1.6671-4.2311 2.0584-6.1875 0.94336-0.64989-0.80128-2.0932 0.07864-1.3359 0.90039 1.0772 0.79028 2.4564 1.1906 3.8164 1.1934 0.60419 0.0061 1.2033-0.07816 1.7852-0.22852 2.7126-0.68526 4.7327-3.1255 4.6914-5.7715h1.491l-2.287-3z"/>
</svg>
