<svg xmlns="http://www.w3.org/2000/svg" width="22" height="22" version="1">
 <rect style="opacity:0.2" width="20" height="20" x="1" y="1.5" rx="1" ry="1"/>
 <rect style="fill:#762276" width="20" height="20" x="1" y="1" rx="1" ry="1"/>
 <path style="opacity:0.2;fill:none;stroke:#000000;stroke-linecap:round;stroke-linejoin:round" d="m 19.507,14.000294 c 0,0 -1.999989,-0.267751 -1.999989,1 0,1.26775 1.999989,0.732249 1.999989,2 0,1.26775 -1.999989,1 -1.999989,1"/>
 <path style="opacity:0.2" d="M 17.441754,4.5000172 10.032227,16.090433 8.3701175,13.5 H 6 l 3.196289,5 1.694336,-0.0088 8.905621,-13.9912163 z"/>
 <path style="opacity:0.2;fill:none;stroke:#000000;stroke-linecap:round;stroke-linejoin:round" d="m 15.514623,16.000294 h -1 m 1.5,-2 c -1.693424,0 -1.5,0.5 -1.5,4"/>
 <path style="fill:#ff8118" d="M 17.441754,4.0000172 10.032227,15.590433 8.3701175,13 H 6 l 3.196289,5 1.694336,-0.0088 8.905621,-13.9912163 z"/>
 <path style="opacity:0.2" d="M 14.441754,4.5000172 7.032227,16.090433 5.3701175,13.5 H 3 l 3.1962895,5 1.6943355,-0.0088 8.905621,-13.9912172 z"/>
 <path style="fill:#abe619" d="M 14.441754,4.0000172 7.032227,15.590433 5.3701175,13 H 3 L 6.1962895,18 7.890625,17.9912 16.796246,3.9999828 Z"/>
 <path style="opacity:0.1;fill:#8b9cbe" d="M 2,1 C 1.446,1 1,1.446 1,2 v 0.5 c 0,-0.554 0.446,-1 1,-1 h 18 c 0.554,0 1,0.446 1,1 V 2 C 21,1.446 20.554,1 20,1 Z"/>
 <path style="fill:none;stroke:#8b9cbe;stroke-linecap:round;stroke-linejoin:round" d="m 19.507,13.5 c 0,0 -1.999989,-0.267751 -1.999989,1 0,1.26775 1.999989,0.732249 1.999989,2 0,1.26775 -1.999989,1 -1.999989,1"/>
 <path style="fill:none;stroke:#8b9cbe;stroke-linecap:round;stroke-linejoin:round" d="m 15.514623,15.5 h -1 m 1.5,-2 c -1.693424,0 -1.5,0.5 -1.5,4"/>
</svg>
