<svg xmlns="http://www.w3.org/2000/svg" width="22" height="22" version="1">
 <path fill="#b2bfd9" d="m19 20v-18c0-0.554-0.446-1-1-1h-14c-0.554 0-1 0.446-1 1v18c0 0.554 0.446 1 1 1h14c0.554 0 1-0.446 1-1z"/>
 <path fill="#fff" opacity=".2" d="m4 1c-0.554 0-1 0.446-1 1v0.5c0-0.554 0.446-1 1-1h14c0.554 0 1 0.446 1 1v-0.5c0-0.554-0.446-1-1-1z"/>
 <path opacity=".2" d="m3 20v0.5c0 0.554 0.446 1 1 1h14c0.554 0 1-0.446 1-1v-0.5c0 0.554-0.446 1-1 1h-14c-0.554 0-1-0.446-1-1z"/>
 <g fill="#484848" transform="matrix(.86603 -.5 .5 .86603 -5.3923 6.6446)">
  <circle cx="12" cy="12" r="4"/>
  <rect width="2" height="5.5" x="11" y="14.5" rx="1" ry="1"/>
 </g>
 <path opacity=".2" d="m11 9.5c-1.1128 0-2 0.88848-2 2s0.88722 2 2 2 2-0.88848 2-2-0.88722-2-2-2z"/>
 <path fill="#5d99ff" d="m11 9c-1.1128 0-2 0.88848-2 2s0.88722 2 2 2 2-0.88848 2-2-0.88722-2-2-2z"/>
</svg>
