<svg width="22" height="22" version="1.1" xmlns="http://www.w3.org/2000/svg">
 <g transform="translate(-1,-1)">
  <circle cx="12" cy="12.5" r="10" style="opacity:.2"/>
  <circle cx="12" cy="12" r="10" style="fill:#284c5e"/>
  <path d="M 12,2 A 10,10 0 0 0 2,12 10,10 0 0 0 2.0098,12.293 10,10 0 0 1 12,2.5 10,10 0 0 1 21.99,12.207 10,10 0 0 0 22,12 10,10 0 0 0 12,2 Z" style="fill:#8b9cbe;opacity:.1"/>
  <path d="m11.848496 6.5003247c-0.698834 0.023595-3.9831333 2.928081-3.8485243 5.2336423 0.040324 0.690559 0.4999865 2.014252 0.4999865 2.014252s-1.5100325 1.774178-1.499958 3.020401c0.00931 1.151468 0.762593 1.703574 1.999944 1.730967 1.0668958 0.02361 1.9563188-0.965709 1.9999428-2.50072 0.02295-0.807546-1.1740975-3.186465-1.1740975-3.186465s3.5987195-4.3535568 5.1739845-4.3156958c0.686752 0.016505 1.015206 1.008805 0.999971 2.0005758-0.0277 1.803083-1.002579 4.476189-2.999914 4.501297-0.471355 0.0059-1.062309-0.532889-0.999972-1.000288 0.0254-0.190436 0.243735-0.546493 0.499986-0.536154 0.290208 0.01171 0.496036-0.173625 0.499986-0.464134 0.0049-0.362031-0.264303-0.502495-0.499986-0.500144-0.839503 0.0084-1.059184 0.902259-0.999972 1.500432 0.06968 0.703868 0.792896 1.506358 1.499958 1.500432 2.48295-0.02082 4.873745-2.755962 4.900169-4.998724 0.02154-1.8278708-1.77089-2.4849763-2.900226-2.5034368-1.353531-0.022125-3.299956 1.9772385-5.3995635 4.2512248-0.402261-2.9880803 2.8493755-5.2208258 2.3498455-5.7201103-0.02034-0.02033-0.05497-0.028925-0.10156-0.027355zm-3.1659258 7.6972433s1.3768038 1.418051 1.3188448 2.697056c-0.04134 0.912297-0.6389848 1.133342-1.1928718 1.14533-0.6622 0.01433-1.306657-0.560597-1.308557-1.342645-0.00225-0.922337 1.182584-2.499741 1.182584-2.499741z" style="opacity:.2"/>
  <path d="m11.848496 6.0003255c-0.698834 0.023595-3.9831333 2.928081-3.8485243 5.2336415 0.040324 0.690559 0.4999865 2.014252 0.4999865 2.014252s-1.5100325 1.774178-1.499958 3.020401c0.00931 1.151468 0.762593 1.703574 1.999944 1.730967 1.0668958 0.02361 1.9563188-0.965709 1.9999428-2.50072 0.02295-0.807546-1.1740975-3.186465-1.1740975-3.186465s3.5987195-4.353556 5.1739845-4.315695c0.686752 0.016505 1.015206 1.008805 0.999971 2.000576-0.0277 1.803082-1.002579 4.476188-2.999914 4.501296-0.471355 0.0059-1.062309-0.532889-0.999972-1.000288 0.0254-0.190436 0.243735-0.546493 0.499986-0.536154 0.290208 0.01171 0.496036-0.173625 0.499986-0.464134 0.0049-0.362031-0.264303-0.502495-0.499986-0.500144-0.839503 0.0084-1.059184 0.902259-0.999972 1.500432 0.06968 0.703868 0.792896 1.506358 1.499958 1.500432 2.48295-0.02082 4.873745-2.755962 4.900169-4.998723 0.02154-1.827871-1.77089-2.4849765-2.900226-2.503437-1.353531-0.022125-3.299956 1.9772385-5.3995635 4.251224-0.402261-2.9880795 2.8493755-5.220825 2.3498455-5.7201095-0.02034-0.02033-0.05497-0.028925-0.10156-0.027355zm-3.1659258 7.6972425s1.3768038 1.418051 1.3188448 2.697056c-0.04134 0.912297-0.6389848 1.133342-1.1928718 1.14533-0.6622 0.01433-1.306657-0.560597-1.308557-1.342645-0.00225-0.922337 1.182584-2.499741 1.182584-2.499741z" style="fill:#8b9cbe"/>
 </g>
</svg>
