<svg xmlns="http://www.w3.org/2000/svg" width="22" height="22" version="1.1">
 <circle style="opacity:0.2" cx="11" cy="11.5" r="10"/>
 <circle style="fill:#b2bfd9" cx="11" cy="11" r="10"/>
 <path style="opacity:0.1" d="M 16.720703,4.50025 15.587891,4.8713438 14.480469,4.6916562 14.119141,5.3537656 c 0,0 -0.483075,1.0943634 -0.716797,1.6152344 -0.25051,0.4885195 -0.520776,1.0722904 -0.75586,1.5683594 -0.243995,0.5148716 -0.481045,1.0318836 -0.716796,1.5507816 -0.407428,0.896765 -0.809006,1.797699 -1.226563,2.689453 -0.575906,1.339187 -1.333942,2.621981 -1.658203,4.054687 -0.1462741,0.61823 -0.058372,1.492407 0.699219,1.636719 2.208799,0 1.988892,-1.986015 2.046875,-3.103516 -0.0016,-0.234698 -0.0087,-0.550158 -0.01758,-0.878906 C 11.751627,13.676954 11.71875,12.7815 11.71875,12.7815 l -0.002,0.0039 v -0.0039 l -0.546875,1.117188 c -0.05712,0.397643 -0.06789,0.806618 -0.109375,1.210937 0.114479,1.16281 -0.31981,2.359022 -0.908203,2.142578 -0.641217,-0.235875 -0.0453,-1.31354 0.18164,-1.919922 0.837474,-1.885864 1.857092,-3.682407 2.953125,-5.429687 0.370696,-0.590951 0.629531,-0.9816158 1.013672,-1.5625002 0.236953,-0.4151556 0.935547,-1.4472657 0.935547,-1.4472657 z M 8.2050781,7.5432188 c -0.283124,-0.0021 -0.568223,0.04693 -0.828125,0.140625 C 6.4297266,8.0463126 6.0096075,9.050542 6,10.068609 5.9977,10.312517 6.019257,10.558442 6.0625,10.795172 L 6.125,11.146734 6.5292969,10.570562 C 6.5503619,9.855473 6.7542381,9.150831 7.4394531,8.890875 8.1118046,8.5558005 8.9211825,8.93787 9.265625,9.56275 c 0.652016,1.165732 0.925596,1.959759 1.214844,3.242188 0.195708,-0.404107 0.566406,-1.15625 0.566406,-1.15625 C 10.825218,10.349371 10.501049,9.488406 9.789062,8.3459531 9.445956,7.7980821 8.8279516,7.5478942 8.2050781,7.5432188 Z"/>
 <path style="fill:#356899" d="m 14.118681,4.853737 c 0,0 -0.481782,1.0941905 -0.715504,1.6150615 -0.25051,0.4885195 -0.521551,1.071985 -0.756635,1.568054 -0.243995,0.5148715 -0.481711,1.0328335 -0.717463,1.5517315 -0.407428,0.896765 -0.808918,1.796415 -1.226475,2.688169 -0.575906,1.339187 -1.333358,2.622783 -1.657619,4.055489 -0.146274,0.61823 -0.058587,1.49277 0.699004,1.637082 2.208799,0 1.989417,-1.986471 2.0474,-3.103972 -0.0016,-0.234698 -0.0084,-0.549324 -0.01727,-0.878072 -0.02181,-0.809624 -0.05609,-1.70516 -0.05609,-1.70516 l -0.548423,1.115545 c -0.05712,0.397643 -0.06725,0.807437 -0.108735,1.211756 0.114479,1.16281 -0.320849,2.359546 -0.909242,2.143102 -0.641217,-0.235875 -0.0439,-1.313637 0.18304,-1.920019 C 11.172143,12.94664 12.19158,11.148961 13.287613,9.401681 13.658309,8.81073 13.917409,8.4210995 14.30155,7.840215 14.538503,7.4250595 15.236482,6.3934795 15.236482,6.3934795 Z M 8.204656,7.0432428 C 7.921532,7.0411428 7.637352,7.0895028 7.37745,7.1831978 6.4302235,7.5456667 6.009943,8.5507747 6.0003355,9.568842 c -0.0023,0.243908 0.01896,0.488567 0.062203,0.725297 l 0.061489,0.352618 0.40473,-0.576617 C 6.5498225,9.35505 6.754793,8.6505172 7.440008,8.3905617 8.1123595,8.0554872 8.9207975,8.4369667 9.26524,9.061847 c 0.652016,1.165732 0.926431,1.961383 1.215679,3.243811 0.195708,-0.404106 0.565102,-1.157626 0.565102,-1.157626 C 10.824364,9.848715 10.500426,8.9872022 9.788439,7.8447493 9.445333,7.2968783 8.8275295,7.0479182 8.204656,7.0432428 Z"/>
 <path style="fill:#75b4f4" d="M 16.721499,3.9999997 14.118681,4.853737 15.23648,6.3934795 Z"/>
 <path style="fill:#7fb9f5" d="M 14.479722,4.191798 15.592978,4.3723265 14.118666,4.853734 Z"/>
 <path style="fill:#5fa4e9" d="m 14.118665,4.853734 1.117829,1.539762 -1.833339,0.075293 z"/>
 <path style="fill:#4993dd" d="M 13.403155,6.468789 15.236494,6.393496 14.301559,7.84022 Z"/>
 <path style="fill:#3c8ce0" d="M 13.403155,6.468789 14.30156,7.84022 12.646563,8.036855 Z"/>
 <path style="fill:#3d81c3" d="M 12.646563,8.036855 14.30156,7.84022 13.287616,9.40168 Z"/>
 <path style="fill:#3b73ac" d="M 12.646563,8.036855 13.287616,9.40168 11.929082,9.588571 Z"/>
 <path style="fill:#407ebc" d="m 11.717759,12.282122 0.05611,1.705179 -0.604562,-0.589633 z"/>
 <path style="fill:#3871ab" d="m 11.773868,13.9873 -0.604561,-0.589632 -0.108696,1.211753 z"/>
 <path style="fill:#547fa9" d="m 6.0625515,10.294139 0.466183,-0.223977 -0.404708,0.576568 z"/>
 <path style="fill:#3771aa" d="m 6.0003355,9.568842 c -0.0023,0.243908 0.01896,0.488567 0.062203,0.725297 l 0.466219,-0.223998 z"/>
 <path style="opacity:0.2;fill:#8b9cbe" d="M 11,1 A 10,10 0 0 0 1,11 10,10 0 0 0 1.0107422,11.291016 10,10 0 0 1 11,1.5 10,10 0 0 1 20.989258,11.208985 10,10 0 0 0 21,11 10,10 0 0 0 11,1 Z"/>
</svg>
