<svg xmlns="http://www.w3.org/2000/svg" width="22" height="22" version="1.1">
 <path style="opacity:0.2" d="m 8,8.2305752 2.786411,2.7864118 0.696603,0.696603 2.78641,2.78641 2.786412,-2.78641 1.672118,-1.672119 1.114292,-1.1142928 c 1.543672,-1.5436715 1.543672,-4.0291506 0,-5.5728224 L 19.145644,2.6577534 c -1.543672,-1.5436716 -4.029151,-1.5436716 -5.572822,0 L 12.45853,3.7720455 10.786411,5.4441641 Z"/>
 <path style="opacity:0.2" d="m 14.461779,6.5283877 c -0.836469,-0.8364701 -2.18334,-0.8364701 -3.019863,0 L 4.6472349,13.323069 c -0.559782,0.559781 -0.7364821,1.345963 -0.5470765,2.056928 l -2.4727877,2.472786 c -0.83646959,0.836523 -0.83652299,2.183341 1.21e-5,3.019864 0.8364696,0.83647 2.1833412,0.83647 3.0198641,0 L 7.1200345,18.39986 c 0.711018,0.189459 1.4971465,0.01281 2.0569283,-0.547077 l 6.7946812,-6.79468 c 0.836523,-0.83647 0.836523,-2.1833408 1.4e-5,-3.0198103 L 14.461699,6.5283342 Z"/>
 <path style="fill:#b2bfd9" d="m 14.461779,6.0247946 c -0.836469,-0.83647 -2.18334,-0.83647 -3.019863,0 L 4.6472349,12.819476 c -0.559782,0.559781 -0.7364821,1.345963 -0.5470765,2.056928 l -2.4727877,2.472787 c -0.83646959,0.836523 -0.83652299,2.18334 1.21e-5,3.019864 0.8364696,0.83647 2.1833412,0.83647 3.0198641,0 l 2.4727876,-2.472787 c 0.711018,0.189459 1.4971465,0.01281 2.0569283,-0.547077 l 6.7946812,-6.79468 c 0.836523,-0.8364705 0.836523,-2.1833418 1.4e-5,-3.0198113 L 14.461699,6.0247411 Z"/>
 <path style="opacity:0.2;fill:#8b9cbe" d="m 12.952149,5.3974606 c -0.545842,0 -1.091504,0.208718 -1.509766,0.626953 L 4.6474609,12.819336 c -0.478025,0.478025 -0.6746041,1.120816 -0.604492,1.741211 0.055416,-0.451686 0.2556535,-0.888467 0.604492,-1.237305 L 11.442383,6.5283202 c 0.836523,-0.8364701 2.183062,-0.8364701 3.019531,0 l 1.509766,1.5097655 c 0.353803,0.353786 0.54802,0.799628 0.602539,1.2587888 C 16.64893,8.6701297 16.454634,8.0180877 15.97168,7.5351557 L 14.461914,6.0244136 C 14.04368,5.6061786 13.497991,5.3974606 12.952149,5.3974606 Z M 4.0341794,14.942383 1.626953,17.349609 c -0.4829318,0.482962 -0.67724169,1.134973 -0.6025391,1.761718 0.054523,-0.459161 0.2487528,-0.90498 0.6025391,-1.258789 l 2.4736329,-2.472656 c -0.03822,-0.143469 -0.058142,-0.290383 -0.066406,-0.437499 z"/>
 <path style="fill:#ff9913" d="m 8,7.7305752 2.786411,2.7864118 0.696603,0.696603 2.78641,2.78641 2.786412,-2.78641 1.672118,-1.6721195 1.114292,-1.1142923 c 1.543672,-1.5436715 1.543672,-4.0291506 0,-5.5728226 L 19.145644,2.1577532 c -1.543672,-1.5436716 -4.029151,-1.5436716 -5.572822,0 L 12.45853,3.2720453 10.786411,4.9441641 Z"/>
 <path style="opacity:0.2;fill:#8b9cbe" d="m 16.359375,0.9999995 c -1.007287,0 -2.014297,0.3863674 -2.786133,1.1582032 L 12.458985,3.2724605 10.786133,4.9443356 8,7.7304687 l 0.25,0.25 2.536133,-2.5361331 1.672852,-1.6718751 1.114257,-1.1142578 c 1.543672,-1.5436716 4.028594,-1.5436716 5.572266,0 l 0.696289,0.6962891 c 0.707845,0.7078448 1.086822,1.6138413 1.145508,2.5361328 0.0693,-1.089047 -0.309681,-2.2003056 -1.145508,-3.0361328 L 19.145508,2.1582027 C 18.373672,1.3863669 17.366663,0.9999995 16.359375,0.9999995 Z"/>
 <path style="opacity:0.1" d="M 7.4947395,5.4997801 A 1.4951041,1.4951041 0 0 0 6.4533319,8.0672867 l 7.9730911,7.9730913 a 1.4951041,1.4951041 0 1 0 2.11396,-2.113959 L 8.5672915,5.9533271 a 1.4951041,1.4951041 0 0 0 -1.072552,-0.453547 z"/>
 <path style="fill:#ffbc48" d="M 7.4947395,4.9997801 A 1.4951041,1.4951041 0 0 0 6.4533319,7.5672867 l 7.9730911,7.9730913 a 1.4951041,1.4951041 0 1 0 2.11396,-2.113959 L 8.5672915,5.4533271 a 1.4951041,1.4951041 0 0 0 -1.072552,-0.453547 z"/>
 <rect style="fill:#4e79ff" width="2.082" height="8.327" x="14.52" y="3.97" rx="1.041" ry="1.041" transform="rotate(45)"/>
 <path style="opacity:0.2;fill:#8b9cbe" d="M 7.495117,4.9999996 A 1.4951041,1.4951041 0 0 0 6.0214844,6.7392577 1.4951041,1.4951041 0 0 1 7.495117,5.4999996 1.4951041,1.4951041 0 0 1 8.567383,5.9531246 l 7.972656,7.9736334 a 1.4951041,1.4951041 0 0 1 0.4375,0.832031 1.4951041,1.4951041 0 0 0 -0.4375,-1.332031 L 8.567383,5.4531246 A 1.4951041,1.4951041 0 0 0 7.495117,4.9999996 Z"/>
</svg>
