<svg xmlns="http://www.w3.org/2000/svg" width="22" height="22" version="1.1">
 <path style="opacity:0.2;fill-rule:evenodd" d="M 11.000001,21.5 C 10.517269,21.5 9.990661,20.958555 9.513872,20.883039 9.037085,20.807519 8.3689345,21.159737 7.9098305,21.010565 7.4507255,20.861393 7.1172065,20.183717 6.68709,19.964562 6.2569735,19.745407 5.512685,19.873912 5.1221475,19.59017 4.73161,19.306428 4.623828,18.558857 4.2824855,18.217514 3.9411429,17.876172 3.1935723,17.76839 2.9098302,17.377852 2.6260878,16.987315 2.7545933,16.243026 2.5354379,15.812909 2.3162826,15.382793 1.638607,15.049274 1.4894349,14.59017 1.3402628,14.131066 1.6924765,13.462915 1.6169607,12.986127 1.5414449,12.509339 1,11.982731 1,11.500001 1,11.017269 1.541445,10.490661 1.6169608,10.013872 1.6924765,9.537085 1.3402627,8.8689345 1.4894348,8.4098305 1.6386069,7.9507255 2.3162828,7.6172065 2.5354382,7.18709 2.7545935,6.7569735 2.6260878,6.012685 2.9098299,5.6221475 3.1935723,5.23161 3.9411432,5.123828 4.282486,4.7824855 4.623828,4.441143 4.7316095,3.6935723 5.1221475,3.4098302 5.512685,3.1260878 6.256974,3.2545933 6.6870905,3.0354378 7.117207,2.8162826 7.4507255,2.138607 7.90983,1.9894349 8.3689345,1.8402627 9.037085,2.1924765 9.513873,2.1169607 9.990661,2.0414449 10.517269,1.5 11,1.5 c 0.482731,0 1.009339,0.541445 1.486128,0.6169608 0.476787,0.075516 1.144937,-0.2766981 1.604041,-0.127526 0.459105,0.1491722 0.792624,0.826848 1.222741,1.0460034 0.430116,0.2191552 1.174405,0.09065 1.564942,0.3743917 0.390538,0.2837424 0.49832,1.0313136 0.839662,1.3726561 0.341343,0.341342 1.088914,0.4491235 1.372656,0.8396615 0.283742,0.3905375 0.155237,1.1348265 0.374392,1.564943 0.219155,0.4301165 0.896831,0.763635 1.046003,1.2227395 0.149172,0.4591045 -0.203042,1.127255 -0.127526,1.604043 C 20.458555,10.490661 21,11.017269 21,11.5 c 0,0.482731 -0.541445,1.009339 -0.616961,1.486128 -0.07552,0.476787 0.276698,1.144937 0.127526,1.604041 -0.149172,0.459105 -0.826848,0.792624 -1.046003,1.222741 -0.219155,0.430116 -0.09065,1.174405 -0.374392,1.564942 -0.283742,0.390538 -1.031313,0.49832 -1.372656,0.839662 -0.341342,0.341343 -0.449123,1.088914 -0.839661,1.372656 -0.390538,0.283742 -1.134827,0.155237 -1.564943,0.374392 -0.430117,0.219155 -0.763635,0.896831 -1.22274,1.046003 -0.459104,0.149172 -1.127255,-0.203042 -1.604043,-0.127526 C 12.009339,20.958555 11.482731,21.5 11.000001,21.5 Z"/>
 <path style="fill:#ff8e03;fill-rule:evenodd" d="M 11.000001,21 C 10.517269,21 9.990661,20.458555 9.513872,20.383039 9.037085,20.307519 8.3689345,20.659737 7.9098305,20.510565 7.4507255,20.361393 7.1172065,19.683717 6.68709,19.464562 6.2569735,19.245407 5.512685,19.373912 5.1221475,19.09017 4.73161,18.806428 4.623828,18.058857 4.2824855,17.717514 3.9411429,17.376172 3.1935723,17.26839 2.9098302,16.877852 2.6260878,16.487315 2.7545933,15.743026 2.5354379,15.312909 2.3162826,14.882793 1.638607,14.549274 1.4894349,14.09017 1.3402628,13.631066 1.6924765,12.962915 1.6169607,12.486127 1.5414449,12.009339 1,11.482731 1,11.000001 1,10.517269 1.541445,9.990661 1.6169608,9.513872 1.6924765,9.037085 1.3402627,8.3689345 1.4894348,7.9098305 1.6386069,7.4507255 2.3162828,7.1172065 2.5354382,6.68709 2.7545935,6.2569735 2.6260878,5.512685 2.9098299,5.1221475 3.1935723,4.73161 3.9411432,4.623828 4.282486,4.2824855 4.623828,3.9411429 4.7316095,3.1935723 5.1221475,2.9098302 5.512685,2.6260878 6.256974,2.7545933 6.6870905,2.5354379 7.117207,2.3162826 7.4507255,1.638607 7.90983,1.4894349 8.3689345,1.3402628 9.037085,1.6924765 9.513873,1.6169607 9.990661,1.5414449 10.517269,1 11,1 c 0.482731,0 1.009339,0.541445 1.486128,0.6169608 0.476787,0.075516 1.144937,-0.2766981 1.604041,-0.127526 0.459105,0.1491722 0.792624,0.826848 1.222741,1.0460034 0.430116,0.2191552 1.174405,0.09065 1.564942,0.3743917 0.390538,0.2837424 0.49832,1.0313133 0.839662,1.3726561 0.341343,0.341342 1.088914,0.4491235 1.372656,0.8396615 0.283742,0.3905375 0.155237,1.1348265 0.374392,1.564943 0.219155,0.4301165 0.896831,0.763635 1.046003,1.2227395 0.149172,0.4591045 -0.203042,1.127255 -0.127526,1.604043 C 20.458555,9.990661 21,10.517269 21,11 c 0,0.482731 -0.541445,1.009339 -0.616961,1.486128 -0.07552,0.476787 0.276698,1.144937 0.127526,1.604041 -0.149172,0.459105 -0.826848,0.792624 -1.046003,1.222741 -0.219155,0.430116 -0.09065,1.174405 -0.374392,1.564942 -0.283742,0.390538 -1.031313,0.49832 -1.372656,0.839662 -0.341342,0.341343 -0.449123,1.088914 -0.839661,1.372656 -0.390538,0.283742 -1.134827,0.155237 -1.564943,0.374392 -0.430117,0.219155 -0.763635,0.896831 -1.22274,1.046003 -0.459104,0.149172 -1.127255,-0.203042 -1.604043,-0.127526 C 12.009339,20.458555 11.482731,21 11.000001,21 Z"/>
 <path style="opacity:0.2;fill-rule:evenodd" d="M 11,19.5 C 10.613815,19.5 10.192529,19.066844 9.811098,19.006431 9.429667,18.946021 8.895148,19.22779 8.527864,19.108452 8.1605805,18.989114 7.8937655,18.446973 7.549672,18.271649 7.205579,18.096325 6.610148,18.19913 6.297718,17.972136 5.985288,17.745142 5.8990625,17.147085 5.6259885,16.874012 5.3529145,16.600937 4.754858,16.514713 4.527864,16.202282 4.3008705,15.889852 4.4036745,15.294421 4.2283505,14.950328 4.053026,14.606234 3.5108856,14.33942 3.3915479,13.972136 3.2722102,13.604853 3.5539813,13.070332 3.4935686,12.688902 3.433156,12.307472 3,11.886185 3,11.5 3,11.113815 3.4331561,10.692529 3.4935687,10.311098 3.5539813,9.929667 3.2722101,9.395148 3.3915478,9.027864 3.5108855,8.6605805 4.0530265,8.3937655 4.2283505,8.049672 4.403675,7.705579 4.30087,7.110148 4.527864,6.797718 4.754858,6.485288 5.3529145,6.3990625 5.6259885,6.1259885 5.8990625,5.8529145 5.9852875,5.254858 6.297718,5.027864 6.610148,4.8008705 7.205579,4.9036745 7.5496725,4.7283505 7.8937655,4.553026 8.1605805,4.0108855 8.527864,3.891548 8.8951475,3.7722102 9.429668,4.0539815 9.811099,3.9935686 10.192529,3.933156 10.613815,3.5 11,3.5 c 0.386185,0 0.807472,0.4331561 1.188902,0.4935687 0.381431,0.060413 0.91595,-0.2213586 1.283234,-0.1020209 0.367284,0.1193377 0.634099,0.6614787 0.978192,0.8368027 0.344093,0.1753245 0.939524,0.072519 1.251954,0.2995135 0.31243,0.226994 0.398655,0.8250505 0.67173,1.0981245 0.273074,0.273074 0.87113,0.359299 1.098124,0.6717295 0.226994,0.31243 0.12419,0.907861 0.299514,1.2519545 0.175324,0.344093 0.717465,0.610908 0.836802,0.9781915 0.119338,0.367283 -0.162433,0.901804 -0.10202,1.283235 C 18.566844,10.692529 19,11.113815 19,11.5 c 0,0.386185 -0.433156,0.807472 -0.493569,1.188902 -0.06041,0.381431 0.221359,0.91595 0.102021,1.283234 -0.119338,0.367284 -0.661479,0.634099 -0.836803,0.978192 -0.175324,0.344093 -0.07252,0.939524 -0.299513,1.251954 -0.226994,0.31243 -0.825051,0.398655 -1.098125,0.67173 -0.273074,0.273074 -0.359299,0.87113 -0.671729,1.098124 -0.31243,0.226994 -0.907861,0.12419 -1.251955,0.299514 -0.344093,0.175324 -0.610908,0.717465 -0.978191,0.836802 -0.367283,0.119338 -0.901804,-0.162434 -1.283234,-0.10202 C 11.807472,19.066844 11.386185,19.5 11,19.5 Z"/>
 <path style="opacity:0.2;fill:#8b9cbe;fill-rule:evenodd" d="M 11,1 C 10.517269,1 9.99046,1.5416718 9.513672,1.6171875 9.036884,1.6927034 8.369261,1.3400856 7.910156,1.4892578 7.4510515,1.6384299 7.1176165,2.3160009 6.6875,2.5351563 6.2573835,2.7543117 5.512608,2.6264139 5.1220705,2.9101563 4.7315325,3.1938984 4.6235685,3.940884 4.2822265,4.2822265 3.9408838,4.623569 3.1938986,4.731533 2.9101562,5.1220705 2.6264141,5.512608 2.7543115,6.2573835 2.5351562,6.6875 2.3160008,7.1176165 1.63843,7.4510515 1.4892578,7.910156 c -0.051317,0.157937 -0.036365,0.3430655 -0.00684,0.53418 0.00298,-0.01111 0.0033,-0.0233 0.00684,-0.03418 C 1.63843,7.9510515 2.3160008,7.6176165 2.5351562,7.1875 2.7543115,6.7573835 2.6264141,6.012608 2.9101562,5.6220705 3.1938986,5.231533 3.9408838,5.123569 4.2822265,4.7822265 4.6235685,4.440884 4.7315325,3.6938984 5.1220705,3.4101562 5.512608,3.1264139 6.2573835,3.2543117 6.6875,3.0351562 7.1176165,2.8160009 7.451052,2.1384299 7.910156,1.9892578 8.369261,1.8400856 9.036884,2.1927033 9.513672,2.1171875 9.99046,2.0416718 10.517269,1.5 11,1.5 c 0.482732,0 1.00954,0.5416717 1.486328,0.6171875 0.476788,0.075516 1.144412,-0.2771018 1.603516,-0.1279297 0.459105,0.1491722 0.79254,0.826743 1.222656,1.0458984 0.430116,0.2191553 1.174892,0.091258 1.565429,0.375 0.390538,0.2837425 0.498502,1.0307278 0.839844,1.3720703 0.341343,0.341342 1.088328,0.449306 1.372071,0.839844 0.283742,0.3905375 0.155844,1.135313 0.375,1.5654295 0.219155,0.4301165 0.896726,0.763552 1.045898,1.222656 0.0036,0.01088 0.0038,0.02307 0.0068,0.03418 0.02953,-0.1911145 0.04448,-0.3762425 -0.0068,-0.53418 C 20.36157,7.451052 19.683999,7.1176165 19.464844,6.6875 19.245688,6.2573835 19.373586,5.512608 19.089844,5.1220705 18.806101,4.7315325 18.059116,4.6235685 17.717773,4.2822265 17.376431,3.9408838 17.268467,3.1938987 16.877929,2.9101563 16.487392,2.6264141 15.742616,2.7543115 15.3125,2.5351563 14.882384,2.3160008 14.548949,1.63843 14.089844,1.4892578 13.63074,1.3400857 12.963116,1.6927033 12.486328,1.6171875 12.00954,1.5416717 11.482732,1 11,1 Z M 1.5996094,9.580078 C 1.4887882,10.039165 1,10.539417 1,11 1,11.08213 1.019515,11.165793 1.045898,11.25 1.1745911,10.839258 1.554519,10.409343 1.617187,10.013672 1.63816,9.881254 1.624717,9.733439 1.599609,9.580078 Z m 18.8007806,0 c -0.02511,0.153362 -0.03855,0.301176 -0.01758,0.433594 0.06267,0.39567 0.442596,0.825587 0.571289,1.236328 C 20.980485,11.165793 21,11.082129 21,11 21,10.539418 20.511212,10.039164 20.40039,9.580078 Z M 1.5996094,12.919922 c -0.063154,0.385751 -0.2051611,0.808259 -0.1171875,1.135742 0.056309,-0.364432 0.1843031,-0.756568 0.1347656,-1.069336 -0.00346,-0.02187 -0.012249,-0.04433 -0.017578,-0.06641 z m 18.8007806,0 c -0.0053,0.02208 -0.01412,0.04453 -0.01758,0.06641 -0.04953,0.312768 0.07846,0.704904 0.134766,1.069336 0.08797,-0.327482 -0.05403,-0.749991 -0.117188,-1.135742 z"/>
 <path style="opacity:0.2" d="m 18.85379,1.5 c 1.744999,1.7 1.744999,6.8 -1.744998,8.5 L 13.618796,6.6000005 c 3.489996,0 5.234994,-3.4000006 5.234994,-5.1000005 z"/>
 <path style="fill:#f95050" d="m 18.85379,1 c 1.744999,1.7 1.744999,6.8 -1.744998,8.5 L 13.618796,6.1000005 C 17.108792,6.1000005 18.85379,2.7 18.85379,1 Z"/>
 <path style="opacity:0.2" d="M 3.1462096,1.5 C 1.4012112,3.1999999 1.4012112,8.3 4.891208,10 L 8.381204,6.6000005 C 4.891208,6.6000005 3.1462096,3.1999999 3.1462096,1.5 Z"/>
 <path style="fill:#f95050" d="M 3.1462096,1 C 1.4012112,2.7 1.4012112,7.8 4.891208,9.5 L 8.381204,6.1000005 C 4.891208,6.1000005 3.1462096,2.7 3.1462096,1 Z"/>
 <path style="fill:#ffd059;fill-rule:evenodd" d="M 11,19 C 10.613815,19 10.192529,18.566844 9.811098,18.506431 9.429667,18.446018 8.895148,18.72779 8.527864,18.608452 8.1605805,18.489114 7.8937655,17.946973 7.549672,17.771649 7.205579,17.596325 6.610148,17.69913 6.297718,17.472136 5.985288,17.245142 5.8990625,16.647085 5.6259885,16.374012 5.3529145,16.100937 4.754858,16.014713 4.527864,15.702282 4.3008705,15.389852 4.4036745,14.794421 4.2283505,14.450328 4.053026,14.106234 3.5108856,13.83942 3.3915479,13.472136 3.2722102,13.104853 3.5539813,12.570332 3.4935686,12.188902 3.433156,11.807472 3,11.386185 3,11 3,10.613815 3.4331561,10.192529 3.4935687,9.811098 3.5539813,9.429667 3.2722101,8.895148 3.3915478,8.527864 3.5108855,8.1605805 4.0530265,7.8937655 4.2283505,7.549672 4.403675,7.205579 4.30087,6.610148 4.527864,6.297718 4.754858,5.985288 5.3529145,5.8990625 5.6259885,5.6259885 5.8990625,5.3529145 5.9852875,4.754858 6.297718,4.527864 6.610148,4.3008705 7.205579,4.4036745 7.5496725,4.2283505 7.8937655,4.053026 8.1605805,3.5108856 8.527864,3.391548 8.8951475,3.2722102 9.429668,3.5539814 9.811099,3.4935686 10.192529,3.433156 10.613815,3 11,3 c 0.386185,0 0.807472,0.4331561 1.188902,0.4935687 0.381431,0.060413 0.91595,-0.2213586 1.283234,-0.1020209 0.367284,0.1193377 0.634099,0.6614787 0.978192,0.8368027 0.344093,0.1753245 0.939524,0.072519 1.251954,0.2995135 0.31243,0.226994 0.398655,0.8250505 0.67173,1.0981245 0.273074,0.273074 0.87113,0.359299 1.098124,0.6717295 0.226994,0.31243 0.12419,0.907861 0.299514,1.2519545 0.175324,0.344093 0.717465,0.610908 0.836802,0.9781915 0.119338,0.3672835 -0.162433,0.901804 -0.10202,1.283235 C 18.566844,10.192529 19,10.613815 19,11 c 0,0.386185 -0.433156,0.807472 -0.493569,1.188902 -0.06041,0.381431 0.221359,0.91595 0.102021,1.283234 -0.119338,0.367284 -0.661479,0.634099 -0.836803,0.978192 -0.175324,0.344093 -0.07252,0.939524 -0.299513,1.251954 -0.226994,0.31243 -0.825051,0.398655 -1.098125,0.67173 -0.273074,0.273074 -0.359299,0.87113 -0.671729,1.098124 -0.31243,0.226994 -0.907861,0.12419 -1.251955,0.299514 -0.344093,0.175324 -0.610908,0.717465 -0.978191,0.836802 -0.367283,0.119338 -0.901804,-0.162434 -1.283234,-0.10202 C 11.807472,18.566844 11.386185,19 11,19 Z"/>
 <path style="opacity:0.4" d="m 11,10 c 0,0 -0.57673,-0.877102 -0.733735,-1.2767058 -0.157009,-0.399604 -0.327455,-0.8063725 -0.244579,-1.09432 0.08288,-0.287943 0.215815,-0.4380655 0.489158,-0.5471565 0.273342,-0.1090915 0.704971,-0.109092 0.978312,0 0.273342,0.109091 0.406279,0.259214 0.489157,0.5471565 0.08288,0.2879475 -0.08757,0.6947155 -0.244578,1.0943205 C 11.57673,9.122898 11,10 11,10 Z"/>
 <path style="opacity:0.4" d="m 11.000001,12 c 0,0 0.57673,0.877102 0.733734,1.276705 0.157009,0.399605 0.327456,0.806373 0.244579,1.094321 -0.08288,0.287942 -0.215815,0.438065 -0.489158,0.547155 -0.273342,0.109092 -0.70497,0.109092 -0.978312,10e-7 -0.273342,-0.109091 -0.406279,-0.259214 -0.489157,-0.547157 -0.08288,-0.287947 0.08757,-0.694716 0.244578,-1.09432 C 10.42327,12.877102 11.000001,12 11.000001,12 Z"/>
 <path style="opacity:0.2;fill:#8b9cbe;fill-rule:evenodd" d="M 11,3 C 10.613815,3 10.192954,3.4327514 9.811524,3.493164 9.430093,3.5535767 8.895604,3.2722638 8.5283205,3.3916015 8.161037,3.5109392 7.8938975,4.053191 7.5498045,4.2285155 c -0.3440935,0.175324 -0.939523,0.072811 -1.251953,0.299805 -0.3124305,0.226994 -0.398801,0.824582 -0.671875,1.097656 -0.273074,0.273074 -0.870662,0.359445 -1.097656,0.671875 -0.226994,0.31243 -0.1244805,0.90786 -0.299805,1.251953 C 4.0531915,7.893898 3.5109393,8.161037 3.3916015,8.5283205 3.3450175,8.67169 3.3650415,8.8422965 3.3964815,9.017578 3.5229109,8.6559325 4.05494,8.3904615 4.2285125,8.0498045 c 0.1753245,-0.344093 0.072811,-0.939523 0.299805,-1.251953 0.226994,-0.31243 0.824582,-0.398801 1.097656,-0.671875 0.273074,-0.273074 0.3594445,-0.870662 0.671875,-1.097656 C 6.6102835,4.801327 7.205713,4.9038395 7.5498065,4.7285155 7.8938995,4.553191 8.161039,4.010939 8.5283225,3.8916016 8.895606,3.7722638 9.430095,4.053577 9.811526,3.9931641 10.192954,3.9327514 10.613815,3.5 11,3.5 c 0.386185,0 0.807046,0.4327514 1.188477,0.493164 0.38143,0.060413 0.915919,-0.2209001 1.283203,-0.1015625 0.367283,0.119338 0.634422,0.66159 0.978516,0.836914 0.344093,0.1753245 0.939522,0.072811 1.251952,0.299805 0.31243,0.226994 0.398801,0.824582 0.671875,1.097656 0.273074,0.273074 0.870662,0.3594445 1.097656,0.671875 0.226994,0.31243 0.124481,0.9078595 0.299805,1.251953 0.173573,0.3406565 0.705602,0.606128 0.832031,0.9677735 0.03145,-0.1752815 0.05147,-0.3458885 0.0049,-0.4892575 C 18.489078,8.161037 17.946826,7.8938975 17.771501,7.5498045 17.596177,7.205711 17.69869,6.6102815 17.471696,6.2978515 17.244702,5.985421 16.647114,5.8990505 16.37404,5.6259765 16.100966,5.3529025 16.014595,4.7553145 15.702165,4.5283205 15.389735,4.3013265 14.794306,4.40384 14.450212,4.2285155 14.106102,4.0531915 13.838963,3.5109393 13.47168,3.3916015 13.104396,3.2722639 12.569907,3.5535766 12.188477,3.493164 11.807046,3.4327514 11.386185,3 11,3 Z M 3.4677734,9.907227 C 3.3608122,10.262655 3,10.645794 3,11 c 0,0.08198 0.022382,0.165575 0.053711,0.25 0.1162551,-0.313284 0.3918648,-0.638015 0.4394531,-0.938476 0.019309,-0.121911 9.45e-4,-0.261569 -0.025391,-0.404297 z m 15.0644526,0 c -0.02634,0.142728 -0.0447,0.282386 -0.02539,0.404297 0.04759,0.30046 0.323198,0.625192 0.439453,0.938476 C 18.977618,11.165575 19,11.081979 19,11 19,10.645794 18.639187,10.262655 18.532226,9.907227 Z M 3.4677734,12.592774 c -0.056058,0.303838 -0.1573676,0.629011 -0.076172,0.878906 0.00119,0.0037 0.0036,0.0071 0.00488,0.01074 0.049107,-0.273755 0.1335102,-0.561407 0.09668,-0.793946 -0.005,-0.03158 -0.015734,-0.06361 -0.025391,-0.0957 z m 15.0644526,0 c -0.0097,0.03209 -0.02039,0.06412 -0.02539,0.0957 -0.03683,0.232538 0.04757,0.520191 0.09668,0.793945 0.0013,-0.0037 0.0037,-0.0071 0.0049,-0.01074 0.0812,-0.249895 -0.02011,-0.575068 -0.07617,-0.878906 z"/>
 <path style="opacity:0.4" d="m 12,11 c 0,0 0.877102,-0.57673 1.276706,-0.733735 0.399604,-0.157009 0.806372,-0.327455 1.09432,-0.244579 0.287943,0.08288 0.438065,0.215815 0.547156,0.489158 0.109092,0.273342 0.109092,0.704971 0,0.978312 -0.109091,0.273342 -0.259214,0.406279 -0.547156,0.489157 -0.287948,0.08288 -0.694716,-0.08757 -1.094321,-0.244578 C 12.877102,11.57673 12,11 12,11 Z"/>
 <path style="opacity:0.4" d="m 10,11.000001 c 0,0 -0.877102,0.57673 -1.276705,0.733734 -0.399605,0.157009 -0.806373,0.327456 -1.094321,0.244579 -0.287942,-0.08288 -0.438065,-0.215815 -0.547155,-0.489158 -0.109092,-0.273342 -0.109092,-0.70497 -1e-6,-0.978312 0.109091,-0.273342 0.259214,-0.406279 0.547157,-0.489157 0.287947,-0.08288 0.694716,0.08757 1.09432,0.244578 C 9.122898,10.42327 10,11.000001 10,11.000001 Z"/>
 <path style="opacity:0.4" d="m 11.707107,10.292893 c 0,0 0.212395,-1.028014 0.383938,-1.4215963 0.171541,-0.3935848 0.338646,-0.8017371 0.600858,-0.9467445 0.262211,-0.1450015 0.462363,-0.1571549 0.732785,-0.041011 0.270421,0.1161427 0.575629,0.4213501 0.691771,0.6917711 0.116143,0.2704209 0.10399,0.4705747 -0.04101,0.7327837 -0.145005,0.262215 -0.553159,0.429317 -0.946744,0.600859 -0.393582,0.171543 -1.421596,0.383938 -1.421596,0.383938 z"/>
 <path style="opacity:0.4" d="m 10.292894,11.707107 c 0,0 -0.212395,1.028015 -0.383939,1.421595 -0.171541,0.393586 -0.338645,0.801739 -0.600858,0.946746 -0.262211,0.145 -0.4623629,0.157154 -0.7327838,0.04101 C 8.3048915,14.000315 7.9996844,13.695108 7.8835414,13.424687 7.7673984,13.154266 7.7795508,12.954113 7.9245534,12.691903 8.0695577,12.429688 8.4777131,12.262586 8.8712973,12.091044 9.264879,11.919502 10.292894,11.707107 10.292894,11.707107 Z"/>
 <path style="opacity:0.4" d="m 10.292893,10.292893 c 0,0 -0.212395,-1.028014 -0.383938,-1.4215963 C 9.737414,8.4777119 9.570309,8.0695596 9.308097,7.9245522 9.045886,7.7795507 8.8457339,7.7673973 8.5753123,7.883541 8.3048909,7.9996837 7.9996828,8.3048911 7.8835412,8.5753121 7.7673982,8.845733 7.7795505,9.045887 7.924553,9.308096 c 0.1450047,0.262215 0.5531594,0.429317 0.9467443,0.600859 0.3935817,0.171543 1.4215957,0.383938 1.4215957,0.383938 z"/>
 <path style="opacity:0.4" d="m 11.707106,11.707107 c 0,0 0.212395,1.028015 0.383939,1.421595 0.171541,0.393586 0.338645,0.801739 0.600858,0.946746 0.262211,0.145 0.462363,0.157154 0.732784,0.04101 0.270422,-0.116143 0.575629,-0.42135 0.691772,-0.691771 0.116143,-0.270421 0.10399,-0.470574 -0.04101,-0.732784 -0.145004,-0.262215 -0.553159,-0.429317 -0.946743,-0.600859 -0.393582,-0.171542 -1.421597,-0.383937 -1.421597,-0.383937 z"/>
</svg>
