<svg xmlns="http://www.w3.org/2000/svg" width="22" height="22" version="1">
 <rect fill="#b2bfd9" width="16" height="20" x="-19" y="-21" rx="1" ry="1" transform="matrix(0,-1,-1,0,0,0)"/>
 <path fill="#fff" opacity=".2" d="m2 3c-0.554 0-1 0.446-1 1v0.5c0-0.554 0.446-1 1-1h18c0.554 0 1 0.446 1 1v-0.5c0-0.554-0.446-1-1-1h-18z"/>
 <path opacity=".2" d="m1 18v0.5c0 0.554 0.446 1 1 1h18c0.554 0 1-0.446 1-1v-0.5c0 0.554-0.446 1-1 1h-18c-0.554 0-1-0.446-1-1z"/>
 <path style="fill:#4d4d4d" d="M 4.93338,6 C 4.4162453,6 4,6.446 4,7 l 0,8 c 0,0.554 0.4162716,1 0.93338,1 l 12.132977,0 C 17.583492,16 18,15.554 18,15 L 18,7 C 18,6.446 17.583492,6 17.066357,6 L 4.93338,6 Z"/>
</svg>
