<svg xmlns="http://www.w3.org/2000/svg" width="22" height="22" version="1">
 <g transform="translate(-2,-1)">
  <path style="opacity:0.2" d="M 5,22.5 C 4.446,22.5 4,22.054 4,21.5 V 3.5 C 4,2.946 4.446,2.5 5,2.5 H 19 C 19.554,2.5 20,2.946 20,3.5 V 16.5 L 14,22.5 Z"/>
  <path style="fill:#b2bfd9" d="M 5,22 C 4.446,22 4,21.554 4,21 V 3 C 4,2.446 4.446,2 5,2 H 19 C 19.554,2 20,2.446 20,3 V 16 L 14,22 Z"/>
  <path style="opacity:0.2;fill:#8b9cbe" d="M 5,2 C 4.446,2 4,2.446 4,3 V 3.5 C 4,2.946 4.446,2.5 5,2.5 H 19 C 19.554,2.5 20,2.946 20,3.5 V 3 C 20,2.446 19.554,2 19,2 Z"/>
  <path style="fill:#fafafa" d="M 14,22 V 17 C 14,16.448 14.448,16 15,16 H 20 Z"/>
  <path style="opacity:0.1" d="M 21.051,2.5039 C 20.7,2.5358 20.445,2.791 20.445,2.791 L 10,13.236 V 16.5 H 13.264 L 23.711,6.0547 C 23.711,6.0547 24.364,5.4009 23.711,4.748 L 21.752,2.791 C 21.507,2.5462 21.261,2.4848 21.051,2.5039 Z"/>
  <path style="fill:#f3d491" d="M 10,16 V 12.736 L 13.264,16 Z"/>
  <path style="fill:#545454" d="M 10,16 V 14.694 L 11.306,16 Z"/>
  <path style="fill:#ffbb29" d="M 20.446,2.2902 10,12.736 13.264,16 23.71,5.5544 C 23.71,5.5544 24.363,4.9016 23.71,4.2487 L 21.751,2.2902 C 21.098,1.6373 20.446,2.2902 20.446,2.2902 Z"/>
 </g>
</svg>
