<svg xmlns="http://www.w3.org/2000/svg" width="22" height="22" version="1.1">
 <path style="opacity:0.2" d="M 10.759821,1.500022 A 1.0310615,3.8350527 0 0 0 9.728929,5.3351346 1.0310615,3.8350527 0 0 0 10.759821,9.1702485 1.0310615,3.8350527 0 0 0 11.790981,5.3351346 1.0310615,3.8350527 0 0 0 10.759821,1.500022 Z M 5.6950492,2.879094 A 3.8635319,1.0234612 58.138866 0 0 5.47915,2.916465 3.8635319,1.0234612 58.138866 0 0 6.6292702,6.7194346 3.8635319,1.0234612 58.138866 0 0 7.2600505,7.651883 3.9146337,1.010101 29.203967 0 0 6.5068198,7.198464 3.9146337,1.010101 29.203967 0 0 2.5779369,6.1520727 3.9146337,1.010101 29.203967 0 0 5.4767335,8.9371366 3.9146337,1.010101 29.203967 0 0 9.405349,9.9835285 3.9146337,1.010101 29.203967 0 0 9.351105,9.5235755 3.8635319,1.0234612 58.138866 0 0 9.546059,9.4864655 3.8635319,1.0234612 58.138866 0 0 8.3956702,5.6837577 3.8635319,1.0234612 58.138866 0 0 5.6950492,2.879094 Z M 17.703506,4.7027003 a 1.0190025,3.8804372 41.602486 0 0 -3.049173,2.3214529 1.0190025,3.8804372 41.602486 0 0 -1.789226,3.5612318 1.0190025,3.8804372 41.602486 0 0 0.333516,0.06324 1.0039557,3.9385954 82.183419 0 0 -0.0046,0.0933 1.0039557,3.9385954 82.183419 0 0 4.046233,0.455771 1.0039557,3.9385954 82.183419 0 0 3.757022,-1.5311705 1.0039557,3.9385954 82.183419 0 0 -4.046231,-0.455771 1.0039557,3.9385954 82.183419 0 0 -2.071989,0.44401 1.0190025,3.8804372 41.602486 0 0 1.338091,-1.3215792 1.0190025,3.8804372 41.602486 0 0 1.789227,-3.5612326 1.0190025,3.8804372 41.602486 0 0 -0.302905,-0.069254 z M 6.800594,11.601985 a 1.0039557,3.9385954 82.183419 0 0 -1.8880449,0.136156 1.0039557,3.9385954 82.183419 0 0 -3.7572916,1.531171 1.0039557,3.9385954 82.183419 0 0 4.0462313,0.455771 1.0039557,3.9385954 82.183419 0 0 2.0719882,-0.444273 1.0190026,3.8804368 41.602484 0 0 -1.338091,1.321841 1.0190026,3.8804368 41.602484 0 0 -1.788957,3.561233 1.0190026,3.8804368 41.602484 0 0 3.3520777,-2.252199 1.0190026,3.8804368 41.602484 0 0 1.7889553,-3.561232 1.0190026,3.8804368 41.602484 0 0 -0.3332459,-0.0635 1.0039557,3.9385954 82.183419 0 0 0.00455,-0.09304 1.0039557,3.9385954 82.183419 0 0 -2.1581876,-0.591927 z m 6.870912,1.279765 a 3.9114443,1.0109246 31.152893 0 0 -0.476374,0.171436 3.9114443,1.0109246 31.152893 0 0 2.798099,2.880713 3.9114443,1.0109246 31.152893 0 0 3.889407,1.177845 3.9114443,1.0109246 31.152893 0 0 -2.798097,-2.880713 3.9114443,1.0109246 31.152893 0 0 -3.413035,-1.349281 z m -1.276866,0.572588 a 3.8696184,1.0218515 54.494602 0 0 -0.213214,0.0507 3.8696184,1.0218515 54.494602 0 0 1.393409,3.724829 3.8696184,1.0218515 54.494602 0 0 3.089184,2.583572 3.8696184,1.0218515 54.494602 0 0 -1.393138,-3.724829 3.8696184,1.0218515 54.494602 0 0 -2.876241,-2.634272 z m -1.140184,0.380245 a 3.8351821,1.0310267 87.948299 0 0 -0.893673,3.86752 3.8351821,1.0310267 87.948299 0 0 1.167037,3.797743 3.8351821,1.0310267 87.948299 0 0 0.893672,-3.867521 3.8351821,1.0310267 87.948299 0 0 -1.167036,-3.797742 z"/>
 <path style="fill:#ff731a" d="m 10.759821,1.0000225 a 1.0310615,3.8350527 0 0 0 -1.030892,3.8351127 1.0310615,3.8350527 0 0 0 1.030892,3.8351137 1.0310615,3.8350527 0 0 0 1.03116,-3.8351137 1.0310615,3.8350527 0 0 0 -1.03116,-3.8351127 z M 5.6950492,2.3790946 A 3.8635319,1.0234612 58.138866 0 0 5.47915,2.4164655 3.8635319,1.0234612 58.138866 0 0 6.6292702,6.2194351 3.8635319,1.0234612 58.138866 0 0 7.2600505,7.1518836 3.9146337,1.010101 29.203967 0 0 6.5068198,6.6984646 3.9146337,1.010101 29.203967 0 0 2.5779369,5.6520733 3.9146337,1.010101 29.203967 0 0 5.4767335,8.4371371 3.9146337,1.010101 29.203967 0 0 9.405349,9.4835295 3.9146337,1.010101 29.203967 0 0 9.351105,9.0235765 3.8635319,1.0234612 58.138866 0 0 9.546059,8.9864665 3.8635319,1.0234612 58.138866 0 0 8.3956702,5.1837583 3.8635319,1.0234612 58.138866 0 0 5.6950492,2.3790946 Z M 17.703506,4.2027009 a 1.0190025,3.8804372 41.602486 0 0 -3.049173,2.3214529 1.0190025,3.8804372 41.602486 0 0 -1.789226,3.5612322 1.0190025,3.8804372 41.602486 0 0 0.333516,0.06324 1.0039557,3.9385954 82.183419 0 0 -0.0046,0.0933 1.0039557,3.9385954 82.183419 0 0 4.046233,0.455771 1.0039557,3.9385954 82.183419 0 0 3.757022,-1.5311715 1.0039557,3.9385954 82.183419 0 0 -4.046231,-0.4557707 1.0039557,3.9385954 82.183419 0 0 -2.071989,0.4440107 1.0190025,3.8804372 41.602486 0 0 1.338091,-1.3215797 1.0190025,3.8804372 41.602486 0 0 1.789227,-3.5612325 1.0190025,3.8804372 41.602486 0 0 -0.302905,-0.069254 z M 6.800594,11.101986 a 1.0039557,3.9385954 82.183419 0 0 -1.8880449,0.136156 1.0039557,3.9385954 82.183419 0 0 -3.7572916,1.531171 1.0039557,3.9385954 82.183419 0 0 4.0462313,0.455771 1.0039557,3.9385954 82.183419 0 0 2.0719882,-0.444273 1.0190026,3.8804368 41.602484 0 0 -1.338091,1.321841 1.0190026,3.8804368 41.602484 0 0 -1.788957,3.561232 1.0190026,3.8804368 41.602484 0 0 3.3520777,-2.252198 1.0190026,3.8804368 41.602484 0 0 1.7889553,-3.561233 1.0190026,3.8804368 41.602484 0 0 -0.3332459,-0.0635 1.0039557,3.9385954 82.183419 0 0 0.00455,-0.09304 1.0039557,3.9385954 82.183419 0 0 -2.1581876,-0.591927 z m 6.870912,1.279764 a 3.9114443,1.0109246 31.152893 0 0 -0.476374,0.171437 3.9114443,1.0109246 31.152893 0 0 2.798099,2.880713 3.9114443,1.0109246 31.152893 0 0 3.889407,1.177844 3.9114443,1.0109246 31.152893 0 0 -2.798097,-2.880713 3.9114443,1.0109246 31.152893 0 0 -3.413035,-1.349281 z m -1.276866,0.572588 a 3.8696184,1.0218515 54.494602 0 0 -0.213214,0.0507 3.8696184,1.0218515 54.494602 0 0 1.393409,3.724828 3.8696184,1.0218515 54.494602 0 0 3.089184,2.583572 3.8696184,1.0218515 54.494602 0 0 -1.393138,-3.724829 3.8696184,1.0218515 54.494602 0 0 -2.876241,-2.634271 z m -1.140184,0.380246 a 3.8351821,1.0310267 87.948299 0 0 -0.893673,3.867519 3.8351821,1.0310267 87.948299 0 0 1.167037,3.797743 3.8351821,1.0310267 87.948299 0 0 0.893672,-3.867521 3.8351821,1.0310267 87.948299 0 0 -1.167036,-3.797741 z"/>
 <path style="opacity:0.2;fill:#8b9cbe" d="m 10.759755,1.0000225 a 1.0310615,3.8350527 0 0 0 -1.031249,3.8349567 1.0310615,3.8350527 0 0 0 0.003,0.2177732 1.0310615,3.8350527 0 0 1 1.028299,-3.5527305 1.0310615,3.8350527 0 0 1 1.028319,3.605465 1.0310615,3.8350527 0 0 0 0.003,-0.2705077 1.0310615,3.8350527 0 0 0 -1.031369,-3.8349567 z M 5.6953072,2.3789272 A 3.8635319,1.0234612 58.138866 0 0 5.479487,2.4160366 3.8635319,1.0234612 58.138866 0 0 5.3193312,3.1738483 3.8635319,1.0234612 58.138866 0 1 5.479487,2.9160361 3.8635319,1.0234612 58.138866 0 1 5.6953072,2.8789266 3.8635319,1.0234612 58.138866 0 1 8.3954997,5.6836112 3.8635319,1.0234612 58.138866 0 1 9.705068,8.7275528 3.8635319,1.0234612 58.138866 0 0 8.3954997,5.1836118 3.8635319,1.0234612 58.138866 0 0 5.6953072,2.3789272 Z M 17.799786,4.2002144 a 1.0190025,3.8804372 41.602486 0 0 -0.09668,0.00295 1.0190025,3.8804372 41.602486 0 0 -3.048824,2.3212864 1.0190025,3.8804372 41.602486 0 0 -1.864256,3.4501917 1.0190025,3.8804372 41.602486 0 1 1.864256,-2.9501923 1.0190025,3.8804372 41.602486 0 1 3.048824,-2.3212864 1.0190025,3.8804372 41.602486 0 1 0.303711,0.068359 1.0190025,3.8804372 41.602486 0 1 0.07519,0.1103514 1.0190025,3.8804372 41.602486 0 0 -0.07519,-0.6103508 1.0190025,3.8804372 41.602486 0 0 -0.207031,-0.071289 z M 3.1826148,5.465838 A 3.9146337,1.010101 29.203967 0 0 2.5781232,5.6523613 3.9146337,1.010101 29.203967 0 0 2.6249982,6.0947433 3.9146337,1.010101 29.203967 0 1 6.5068298,7.1982575 3.9146337,1.010101 29.203967 0 1 7.2597585,7.652359 3.8635319,1.0234612 58.138866 0 1 6.6787046,6.7978675 3.9146337,1.010101 29.203967 0 0 6.5068298,6.6982581 3.9146337,1.010101 29.203967 0 0 3.1826148,5.465838 Z M 18.736308,8.5752095 a 1.0039557,3.9385954 82.183419 0 0 -1.785154,0.1357418 1.0039557,3.9385954 82.183419 0 0 -1.317381,0.2431638 1.0190025,3.8804372 41.602486 0 1 -0.754883,0.7001944 1.0039557,3.9385954 82.183419 0 1 2.072264,-0.443359 1.0039557,3.9385954 82.183419 0 1 3.925777,0.257812 1.0039557,3.9385954 82.183419 0 0 0.120117,-0.301757 1.0039557,3.9385954 82.183419 0 0 -2.26074,-0.591796 z m -9.361317,0.947264 a 3.8635319,1.0234612 58.138866 0 1 -0.02343,10e-4 3.9146337,1.010101 29.203967 0 1 0.0078,0.01758 3.9146337,1.010101 29.203967 0 0 0.01563,-0.01856 z M 6.8007745,11.101573 a 1.0039557,3.9385954 82.183419 0 0 -1.8886694,0.136719 1.0039557,3.9385954 82.183419 0 0 -3.7568318,1.531248 1.0039557,3.9385954 82.183419 0 0 0.1210936,0.197266 1.0039557,3.9385954 82.183419 0 1 3.6357382,-1.228515 1.0039557,3.9385954 82.183419 0 1 1.8886694,-0.136718 1.0039557,3.9385954 82.183419 0 1 2.1582011,0.592772 1.0039557,3.9385954 82.183419 0 1 -0.0049,0.09277 1.0190026,3.8804368 41.602484 0 1 0.3330074,0.06348 1.0190026,3.8804368 41.602484 0 1 0.07519,0.110352 1.0190026,3.8804368 41.602484 0 0 -0.07519,-0.610351 1.0190026,3.8804368 41.602484 0 0 -0.3330074,-0.06348 1.0039557,3.9385954 82.183419 0 0 0.0049,-0.09277 1.0039557,3.9385954 82.183419 0 0 -2.1582011,-0.592773 z m 6.8710865,1.280272 a 3.9114443,1.0109246 31.152893 0 0 -0.476562,0.170899 3.9114443,1.0109246 31.152893 0 0 0.03808,0.45996 3.9114443,1.0109246 31.152893 0 1 0.438476,-0.130859 3.9114443,1.0109246 31.152893 0 1 3.413082,1.349608 3.9114443,1.0109246 31.152893 0 1 2.760739,2.423825 3.9114443,1.0109246 31.152893 0 0 0.03711,-0.04395 3.9114443,1.0109246 31.152893 0 0 -2.797849,-2.879879 3.9114443,1.0109246 31.152893 0 0 -3.413082,-1.349608 z m -1.277343,0.572265 a 3.8696184,1.0218515 54.494602 0 0 -0.21289,0.05078 3.8696184,1.0218515 54.494602 0 0 -0.125976,0.687499 3.8696184,1.0218515 54.494602 0 1 0.125976,-0.1875 3.8696184,1.0218515 54.494602 0 1 0.21289,-0.05078 3.8696184,1.0218515 54.494602 0 1 2.875974,2.634762 3.8696184,1.0218515 54.494602 0 1 1.519529,3.037106 3.8696184,1.0218515 54.494602 0 0 -1.519529,-3.537105 3.8696184,1.0218515 54.494602 0 0 -0.182617,-0.250977 3.9114443,1.0109246 31.152893 0 1 -1.92285,-2.024411 3.8696184,1.0218515 54.494602 0 0 -0.770507,-0.359374 z m -5.1210875,0.327148 a 1.0039557,3.9385954 82.183419 0 1 -0.7548822,0.200195 1.0190026,3.8804368 41.602484 0 0 -0.5830068,0.621093 1.0190026,3.8804368 41.602484 0 0 -1.8642559,3.451168 1.0190026,3.8804368 41.602484 0 1 1.8642559,-2.951168 1.0190026,3.8804368 41.602484 0 1 1.337889,-1.321288 z m 3.9814415,0.05371 a 3.8351821,1.0310267 87.948299 0 0 -0.90039,3.633785 3.8351821,1.0310267 87.948299 0 1 0.90039,-3.133785 3.8351821,1.0310267 87.948299 0 1 1.16699,3.79687 3.8351821,1.0310267 87.948299 0 1 0.0059,0.234375 3.8351821,1.0310267 87.948299 0 0 -0.0059,-0.734374 3.8351821,1.0310267 87.948299 0 0 -1.16699,-3.796871 z"/>
 <path style="opacity:0.2" d="m 12.825901,1.6053398 a 1.0304994,3.8371445 8.2720072 0 0 -1.497063,3.6579274 1.0304994,3.8371445 8.2720072 0 0 0.471004,3.9375583 1.0304994,3.8371445 8.2720072 0 0 0.606344,-0.4766787 1.0269237,3.8505052 22.949156 0 0 0.247587,1.2055457 1.0269237,3.8505052 22.949156 0 0 0.385074,-0.06899 1.0061224,3.9301136 71.977936 0 0 -0.0064,0.1986145 1.0061224,3.9301136 71.977936 0 0 4.063954,-0.2689135 1.0061224,3.9301136 71.977936 0 0 3.407932,-2.1714464 1.0061224,3.9301136 71.977936 0 0 -4.063954,0.2689157 1.0061224,3.9301136 71.977936 0 0 -2.610125,1.1851607 1.0269237,3.8505052 22.949156 0 0 1.273645,-2.3102145 1.0269237,3.8505052 22.949156 0 0 0.542165,-3.9289338 1.0269237,3.8505052 22.949156 0 0 -2.290036,2.8017891 1.0304994,3.8371445 8.2720072 0 0 0.01477,-0.092253 1.0304994,3.8371445 8.2720072 0 0 -0.471273,-3.9375572 1.0304994,3.8371445 8.2720072 0 0 -0.07358,-5.7e-4 z M 7.5285827,2.1431703 A 3.8459511,1.0281397 70.866126 0 0 7.4246608,2.1570148 3.8459511,1.0281397 70.866126 0 0 7.703396,6.1118202 3.8459511,1.0281397 70.866126 0 0 8.3575383,7.6806235 3.8801582,1.0190757 48.550724 0 0 7.289858,6.2997215 3.8801582,1.0190757 48.550724 0 0 3.9439562,4.0388986 3.8801582,1.0190757 48.550724 0 0 5.7232447,7.6048351 3.8801582,1.0190757 48.550724 0 0 7.0605322,8.9308581 3.9279064,1.0066878 19.904002 0 0 5.7449962,8.3786537 3.9279064,1.0066878 19.904002 0 0 1.6928573,7.9767182 3.9279064,1.0066878 19.904002 0 0 4.5264006,10.066625 3.9405997,1.0034451 1.038034 0 0 1.0000463,10.999074 3.9405997,1.0034451 1.038034 0 0 4.9208736,12.073951 3.9405997,1.0034451 1.038034 0 0 8.8801002,11.142287 3.9405997,1.0034451 1.038034 0 0 8.7579183,10.89062 3.9279064,1.0066878 19.904002 0 0 9.07586,10.660383 3.9279064,1.0066878 19.904002 0 0 8.6513129,9.9111305 3.8801582,1.0190757 48.550724 0 0 9.069147,9.8656555 3.8801582,1.0190757 48.550724 0 0 8.9131296,8.6373739 3.8459511,1.0281397 70.866126 0 0 9.936771,9.4268725 3.8459511,1.0281397 70.866126 0 0 9.658036,5.4720665 3.8459511,1.0281397 70.866126 0 0 7.5285827,2.1431609 Z m 9.2592303,8.3943907 a 3.9405997,1.0034451 1.038034 0 0 -3.68049,0.934278 3.9405997,1.0034451 1.038034 0 0 0.549684,0.523196 3.9279061,1.0066878 19.904 0 0 -0.580297,0.280413 3.9279061,1.0066878 19.904 0 0 0.424817,0.749253 3.8801582,1.0190757 48.550728 0 0 -0.418105,0.04547 3.8801582,1.0190757 48.550728 0 0 0.15548,1.227238 3.8459508,1.0281397 70.866123 0 0 -1.023103,-0.788454 3.8459508,1.0281397 70.866123 0 0 0.278734,3.954807 3.8459508,1.0281397 70.866123 0 0 2.233376,3.315054 3.8459508,1.0281397 70.866123 0 0 -0.278735,-3.954806 3.8459508,1.0281397 70.866123 0 0 -0.654679,-1.570111 3.8801582,1.0190757 48.550728 0 0 1.068485,1.382209 3.8801582,1.0190757 48.550728 0 0 3.345902,2.260823 3.8801582,1.0190757 48.550728 0 0 -1.779558,-3.565938 3.8801582,1.0190757 48.550728 0 0 -1.337553,-1.326283 3.9279061,1.0066878 19.904 0 0 1.315802,0.552466 3.9279061,1.0066878 19.904 0 0 4.052408,0.401936 3.9279061,1.0066878 19.904 0 0 -3.330863,-2.28199 3.9279061,1.0066878 19.904 0 0 -0.406288,-0.139816 3.9405997,1.0034451 1.038034 0 0 0.305052,0.0094 3.9405997,1.0034451 1.038034 0 0 3.959227,-0.931665 3.9405997,1.0034451 1.038034 0 0 -3.920559,-1.074877 3.9405997,1.0034451 1.038034 0 0 -0.278737,-0.0026 z m -8.6810825,2.01203 a 1.0061224,3.9301136 71.977942 0 0 -3.0505175,0.595848 1.0061224,3.9301136 71.977942 0 0 -3.4076634,2.171444 1.0061224,3.9301136 71.977942 0 0 4.0636861,-0.268914 1.0061224,3.9301136 71.977942 0 0 2.6103931,-1.185162 1.0269237,3.8505049 22.949152 0 0 -1.2736441,2.310214 1.0269237,3.8505049 22.949152 0 0 -0.5424334,3.928934 1.0269237,3.8505049 22.949152 0 0 2.290305,-2.802573 1.0304994,3.8371445 8.2720069 0 0 -0.01477,0.09304 1.0304994,3.8371445 8.2720069 0 0 0.4710037,3.937558 1.0304994,3.8371445 8.2720069 0 0 1.570909,-3.657406 1.0304994,3.8371445 8.2720069 0 0 -0.471273,-3.937556 1.0304994,3.8371445 8.2720069 0 0 -0.606075,0.476678 1.0269237,3.8505049 22.949152 0 0 -0.247586,-1.205546 1.0269237,3.8505049 22.949152 0 0 -0.385343,0.06899 1.0061224,3.9301136 71.977942 0 0 0.0064,-0.198615 1.0061224,3.9301136 71.977942 0 0 -1.0134375,-0.326932 z"/>
 <path style="fill:#ff9522" d="m 12.825901,1.1053404 a 1.0304994,3.8371445 8.2720072 0 0 -1.497063,3.6579274 1.0304994,3.8371445 8.2720072 0 0 0.471004,3.9375585 1.0304994,3.8371445 8.2720072 0 0 0.606344,-0.4766789 1.0269237,3.8505052 22.949156 0 0 0.247587,1.2055461 1.0269237,3.8505052 22.949156 0 0 0.385074,-0.06899 1.0061224,3.9301136 71.977936 0 0 -0.0064,0.198616 1.0061224,3.9301136 71.977936 0 0 4.063954,-0.268915 1.0061224,3.9301136 71.977936 0 0 3.407932,-2.1714459 1.0061224,3.9301136 71.977936 0 0 -4.063954,0.2689157 1.0061224,3.9301136 71.977936 0 0 -2.610125,1.1851607 1.0269237,3.8505052 22.949156 0 0 1.273645,-2.3102144 1.0269237,3.8505052 22.949156 0 0 0.542165,-3.9289339 1.0269237,3.8505052 22.949156 0 0 -2.290036,2.8017891 1.0304994,3.8371445 8.2720072 0 0 0.01477,-0.092253 1.0304994,3.8371445 8.2720072 0 0 -0.471273,-3.9375571 1.0304994,3.8371445 8.2720072 0 0 -0.07358,-5.7e-4 z M 7.5285827,1.6431709 A 3.8459511,1.0281397 70.866126 0 0 7.4246608,1.6570154 3.8459511,1.0281397 70.866126 0 0 7.703396,5.6118208 3.8459511,1.0281397 70.866126 0 0 8.3575383,7.180624 3.8801582,1.0190757 48.550724 0 0 7.289858,5.7997221 3.8801582,1.0190757 48.550724 0 0 3.9439562,3.5388991 3.8801582,1.0190757 48.550724 0 0 5.7232447,7.1048356 3.8801582,1.0190757 48.550724 0 0 7.0605322,8.4308586 3.9279064,1.0066878 19.904002 0 0 5.7449962,7.8786543 3.9279064,1.0066878 19.904002 0 0 1.6928573,7.4767187 3.9279064,1.0066878 19.904002 0 0 4.5264006,9.5666265 3.9405997,1.0034451 1.038034 0 0 1.0000463,10.499074 3.9405997,1.0034451 1.038034 0 0 4.9208736,11.573952 3.9405997,1.0034451 1.038034 0 0 8.8801002,10.642287 3.9405997,1.0034451 1.038034 0 0 8.7579183,10.390621 3.9279064,1.0066878 19.904002 0 0 9.07586,10.160383 3.9279064,1.0066878 19.904002 0 0 8.6513129,9.4111315 3.8801582,1.0190757 48.550724 0 0 9.069147,9.3656565 3.8801582,1.0190757 48.550724 0 0 8.9131296,8.1373745 3.8459511,1.0281397 70.866126 0 0 9.936771,8.9268726 3.8459511,1.0281397 70.866126 0 0 9.658036,4.972067 3.8459511,1.0281397 70.866126 0 0 7.5285827,1.6431614 Z m 9.2592303,8.3943901 a 3.9405997,1.0034451 1.038034 0 0 -3.68049,0.934278 3.9405997,1.0034451 1.038034 0 0 0.549684,0.523196 3.9279061,1.0066878 19.904 0 0 -0.580297,0.280414 3.9279061,1.0066878 19.904 0 0 0.424817,0.749253 3.8801582,1.0190757 48.550728 0 0 -0.418105,0.04547 3.8801582,1.0190757 48.550728 0 0 0.15548,1.227237 3.8459508,1.0281397 70.866123 0 0 -1.023103,-0.788453 3.8459508,1.0281397 70.866123 0 0 0.278734,3.954807 3.8459508,1.0281397 70.866123 0 0 2.233376,3.315054 3.8459508,1.0281397 70.866123 0 0 -0.278735,-3.954806 3.8459508,1.0281397 70.866123 0 0 -0.654679,-1.570112 3.8801582,1.0190757 48.550728 0 0 1.068485,1.38221 3.8801582,1.0190757 48.550728 0 0 3.345902,2.260822 3.8801582,1.0190757 48.550728 0 0 -1.779558,-3.565938 3.8801582,1.0190757 48.550728 0 0 -1.337553,-1.326282 3.9279061,1.0066878 19.904 0 0 1.315802,0.552465 3.9279061,1.0066878 19.904 0 0 4.052408,0.401937 3.9279061,1.0066878 19.904 0 0 -3.330863,-2.281991 3.9279061,1.0066878 19.904 0 0 -0.406288,-0.139815 3.9405997,1.0034451 1.038034 0 0 0.305052,0.0094 3.9405997,1.0034451 1.038034 0 0 3.959227,-0.931665 3.9405997,1.0034451 1.038034 0 0 -3.920559,-1.074878 3.9405997,1.0034451 1.038034 0 0 -0.278737,-0.0026 z m -8.6810825,2.012031 a 1.0061224,3.9301136 71.977942 0 0 -3.0505175,0.595847 1.0061224,3.9301136 71.977942 0 0 -3.4076634,2.171445 1.0061224,3.9301136 71.977942 0 0 4.0636861,-0.268914 1.0061224,3.9301136 71.977942 0 0 2.6103931,-1.185162 1.0269237,3.8505049 22.949152 0 0 -1.2736441,2.310214 1.0269237,3.8505049 22.949152 0 0 -0.5424334,3.928934 1.0269237,3.8505049 22.949152 0 0 2.290305,-2.802573 1.0304994,3.8371445 8.2720069 0 0 -0.01477,0.09304 1.0304994,3.8371445 8.2720069 0 0 0.4710037,3.937559 1.0304994,3.8371445 8.2720069 0 0 1.570909,-3.657406 1.0304994,3.8371445 8.2720069 0 0 -0.471273,-3.937556 1.0304994,3.8371445 8.2720069 0 0 -0.606075,0.476677 1.0269237,3.8505049 22.949152 0 0 -0.247586,-1.205546 1.0269237,3.8505049 22.949152 0 0 -0.385343,0.06899 1.0061224,3.9301136 71.977942 0 0 0.0064,-0.198615 1.0061224,3.9301136 71.977942 0 0 -1.0134375,-0.326932 z"/>
 <path style="opacity:0.2;fill:#8b9cbe" d="m 12.826159,1.1054911 a 1.0304994,3.8371445 8.2720072 0 0 -1.497069,3.6581992 1.0304994,3.8371445 8.2720072 0 0 -0.134765,2.0585911 1.0304994,3.8371445 8.2720072 0 1 0.134765,-1.5585917 1.0304994,3.8371445 8.2720072 0 1 1.497069,-3.6581992 1.0304994,3.8371445 8.2720072 0 1 0.07324,0 1.0304994,3.8371445 8.2720072 0 1 0.605468,1.8759745 1.0304994,3.8371445 8.2720072 0 0 -0.605468,-2.3759739 1.0304994,3.8371445 8.2720072 0 0 -0.07324,0 z M 7.5283132,1.6435764 A 3.8459511,1.0281397 70.866126 0 0 7.4247973,1.6572484 3.8459511,1.0281397 70.866126 0 0 7.0996027,2.8847861 3.8459511,1.0281397 70.866126 0 1 7.4247973,2.1572479 3.8459511,1.0281397 70.866126 0 1 7.5283132,2.1435759 3.8459511,1.0281397 70.866126 0 1 9.658193,5.471697 3.8459511,1.0281397 70.866126 0 1 10.262685,8.2011864 3.8459511,1.0281397 70.866126 0 0 9.658193,4.9716975 3.8459511,1.0281397 70.866126 0 0 7.5283132,1.6435764 Z m 8.0146398,0.6699211 a 1.0269237,3.8505052 22.949156 0 0 -2.099607,2.6347625 1.0304994,3.8371445 8.2720072 0 1 -0.07227,0.5947264 1.0304994,3.8371445 8.2720072 0 1 -0.01465,0.092773 1.0269237,3.8505052 22.949156 0 1 2.290037,-2.8017545 1.0269237,3.8505052 22.949156 0 1 0.265624,0.532226 1.0269237,3.8505052 22.949156 0 0 -0.265624,-1.0322254 1.0269237,3.8505052 22.949156 0 0 -0.103516,-0.020508 z M 4.1142545,3.4707228 A 3.8801582,1.0190757 48.550724 0 0 3.9443327,3.5390821 3.8801582,1.0190757 48.550724 0 0 3.8681608,4.1474799 3.8801582,1.0190757 48.550724 0 1 3.9443327,4.0390816 3.8801582,1.0190757 48.550724 0 1 7.290032,6.299821 3.8801582,1.0190757 48.550724 0 1 8.3574138,7.680679 3.8459511,1.0281397 70.866126 0 1 7.8251879,6.4482584 3.8801582,1.0190757 48.550724 0 0 7.290032,5.7998216 3.8801582,1.0190757 48.550724 0 0 4.1142545,3.4707228 Z M 19.414042,6.792985 a 1.0061224,3.9301136 71.977936 0 0 -2.97363,0.5947258 1.0061224,3.9301136 71.977936 0 0 -2.077146,0.870116 1.0269237,3.8505052 22.949156 0 1 -0.533202,0.8154287 1.0061224,3.9301136 71.977936 0 1 2.610348,-1.1855452 1.0061224,3.9301136 71.977936 0 1 3.966793,-0.3964841 1.0061224,3.9301136 71.977936 0 0 0.09668,-0.3720701 A 1.0061224,3.9301136 71.977936 0 0 19.414043,6.792985 Z M 2.4726546,7.181656 A 3.9279064,1.0066878 19.904002 0 0 1.692382,7.4765777 3.9279064,1.0066878 19.904002 0 0 1.7841788,7.8593898 3.9279064,1.0066878 19.904002 0 1 5.7451117,8.3789202 3.9279064,1.0066878 19.904002 0 1 7.0605402,8.9306776 3.8801582,1.0190757 48.550724 0 1 6.0986273,8.0136866 3.9279064,1.0066878 19.904002 0 0 5.7451117,7.8789208 3.9279064,1.0066878 19.904002 0 0 2.4726546,7.181656 Z M 8.9130771,8.6377094 A 3.8801582,1.0190757 48.550724 0 1 9.143545,9.2588025 3.8801582,1.0190757 48.550724 0 0 9.180655,8.9843885 3.8459511,1.0281397 70.866126 0 1 8.9130776,8.6377094 Z m 3.4931599,0.086914 a 1.0304994,3.8371445 8.2720072 0 1 -0.02539,0.038085 1.0269237,3.8505052 22.949156 0 0 0.0088,0.1474603 1.0269237,3.8505052 22.949156 0 1 0.0166,-0.1855463 z M 3.5214816,9.6123175 A 3.9405997,1.0034451 1.038034 0 0 1,10.499035 3.9405997,1.0034451 1.038034 0 0 1.1279296,10.754894 3.9405997,1.0034451 1.038034 0 1 4.5263631,10.066418 3.9279064,1.0066878 19.904002 0 1 3.5214816,9.6123175 Z m 5.5224544,0.270508 a 3.8801582,1.0190757 48.550724 0 1 -0.3925776,0.02832 3.9279064,1.0066878 19.904002 0 1 0.3339842,0.3662105 3.9279064,1.0066878 19.904002 0 0 0.09082,-0.117188 3.9279064,1.0066878 19.904002 0 0 -0.03222,-0.2773425 z m 7.744132,0.1542955 a 3.9405997,1.0034451 1.038034 0 0 -0.582031,0.01269 1.0061224,3.9301136 71.977936 0 1 -2.292965,0.333984 3.9405997,1.0034451 1.038034 0 0 -0.805664,0.58789 3.9405997,1.0034451 1.038034 0 0 0.129883,0.25586 3.9405997,1.0034451 1.038034 0 1 3.550777,-0.690429 3.9405997,1.0034451 1.038034 0 1 0.27832,0.003 3.9405997,1.0034451 1.038034 0 1 3.791988,0.819335 3.9405997,1.0034451 1.038034 0 0 0.128906,-0.24414 3.9405997,1.0034451 1.038034 0 0 -3.920894,-1.075195 3.9405997,1.0034451 1.038034 0 0 -0.27832,-0.003 z m -3.614254,1.618163 a 3.9279061,1.0066878 19.904 0 0 -0.09668,0.120116 3.9279061,1.0066878 19.904 0 0 0.0918,0.383789 3.9279061,1.0066878 19.904 0 1 0.48828,-0.164062 3.9405997,1.0034451 1.038034 0 1 -0.483398,-0.339843 z m -5.0673765,0.39453 a 1.0061224,3.9301136 71.977942 0 0 -3.0498015,0.595703 1.0061224,3.9301136 71.977942 0 0 -3.4081992,2.170895 1.0061224,3.9301136 71.977942 0 0 0.097656,0.128907 1.0061224,3.9301136 71.977942 0 1 3.3105431,-1.799803 1.0061224,3.9301136 71.977942 0 1 3.0498015,-0.595702 1.0061224,3.9301136 71.977942 0 1 1.0136706,0.327148 1.0061224,3.9301136 71.977942 0 1 -0.0068,0.198242 1.0269237,3.8505049 22.949152 0 1 0.385742,-0.06934 1.0269237,3.8505049 22.949152 0 1 0.263672,0.521484 1.0269237,3.8505049 22.949152 0 0 -0.263672,-1.021483 1.0269237,3.8505049 22.949152 0 0 -0.385742,0.06934 1.0061224,3.9301136 71.977942 0 0 0.0068,-0.198243 1.0061224,3.9301136 71.977942 0 0 -1.0136705,-0.327148 z m 9.9072155,0.481445 a 3.9405997,1.0034451 1.038034 0 1 -0.98535,0.01563 3.9405997,1.0034451 1.038034 0 1 -0.305665,-0.0098 3.9279061,1.0066878 19.904 0 1 0.40625,0.139648 3.9279061,1.0066878 19.904 0 1 3.241207,1.898436 3.9279061,1.0066878 19.904 0 0 0.08984,-0.116211 3.9279061,1.0066878 19.904 0 0 -2.446286,-1.927732 z m -4.904292,0.02149 a 3.8801582,1.0190757 48.550728 0 0 -0.02637,0.01758 3.8801582,1.0190757 48.550728 0 0 -0.07422,0.606445 3.8801582,1.0190757 48.550728 0 1 0.07422,-0.106446 3.8801582,1.0190757 48.550728 0 1 0.418945,-0.0459 3.9279061,1.0066878 19.904 0 1 -0.392578,-0.471678 z m -0.830077,0.443359 a 3.8459508,1.0281397 70.866123 0 0 -0.06348,0.01269 3.8459508,1.0281397 70.866123 0 0 -0.325195,1.232421 3.8459508,1.0281397 70.866123 0 1 0.325195,-0.732422 3.8459508,1.0281397 70.866123 0 1 1.023436,0.789062 3.8801582,1.0190757 48.550728 0 1 -0.266601,-0.846678 3.8459508,1.0281397 70.866123 0 0 -0.693359,-0.455078 z m -1.926755,0.239257 a 1.0304994,3.8371445 8.2720069 0 0 -0.580078,0.4375 1.0269237,3.8505049 22.949152 0 1 -0.02539,0.539062 1.0304994,3.8371445 8.2720069 0 1 0.605468,-0.476562 1.0304994,3.8371445 8.2720069 0 1 0.606445,1.897459 1.0304994,3.8371445 8.2720069 0 0 -0.606445,-2.397459 z m -2.0302717,0.627924 a 1.0061224,3.9301136 71.977942 0 1 -0.5312494,0.313477 1.0269237,3.8505049 22.949152 0 0 -0.7421867,1.496092 1.0269237,3.8505049 22.949152 0 0 -0.8085926,3.39941 1.0269237,3.8505049 22.949152 0 1 0.8085926,-2.899411 1.0269237,3.8505049 22.949152 0 1 1.2734361,-2.309568 z m 6.7695237,0.141602 a 3.8801582,1.0190757 48.550728 0 1 1.337889,1.32617 3.8801582,1.0190757 48.550728 0 1 1.85449,2.958981 3.8801582,1.0190757 48.550728 0 0 -1.85449,-3.458981 3.8801582,1.0190757 48.550728 0 0 -0.375976,-0.409179 3.9279061,1.0066878 19.904 0 1 -0.961913,-0.416991 z m -1.296873,1.249022 a 3.8459508,1.0281397 70.866123 0 1 0.654296,1.570311 3.8459508,1.0281397 70.866123 0 1 0.604491,2.726559 3.8459508,1.0281397 70.866123 0 0 -0.604491,-3.226559 3.8459508,1.0281397 70.866123 0 0 -0.12207,-0.336914 3.8801582,1.0190757 48.550728 0 1 -0.532226,-0.733397 z m -4.9980417,2.045896 a 1.0269237,3.8505049 22.949152 0 1 -0.086914,0.185547 1.0304994,3.8371445 8.2720069 0 0 -0.0625,1.447263 1.0304994,3.8371445 8.2720069 0 1 0.1347654,-1.540037 1.0304994,3.8371445 8.2720069 0 1 0.01465,-0.09277 z"/>
 <circle style="opacity:0.1" cx="11" cy="11.5" r="4"/>
 <circle style="fill:#ff5600" cx="11" cy="11" r="4"/>
 <circle style="fill:#434343" cx="11" cy="11" r="2"/>
</svg>
