<svg xmlns="http://www.w3.org/2000/svg" width="22" height="22" version="1">
 <path style="fill:#8034a9" d="M 21,11 A 10,10 0 0 1 11,21 10,10 0 0 1 1,11 10,10 0 0 1 11,1 10,10 0 0 1 21,11 Z"/>
 <path style="opacity:0.1;fill:#8b9cbe" d="M 11,1 C 5.4605,1 1.001,5.46 1.001,11 c 0,0.08386 -0.002,0.16664 0,0.25 C 1.1331,5.827 5.5445,1.5 11,1.5 c 5.4555,0 9.867,4.3268 9.999,9.75 0.002,-0.08335 0,-0.16614 0,-0.25 C 20.999,5.46 16.54,1 11,1 Z"/>
 <path style="opacity:0.2" d="M 20.99,11.209 A 10,10 0 0 1 11,21 10,10 0 0 1 1.011,11.291 10,10 0 0 0 1,11.5 a 10,10 0 0 0 10,10 10,10 0 0 0 10,-10 10,10 0 0 0 -0.0105,-0.291 z"/>
 <path style="opacity:0.2" d="m 15.601562,5.5195312 c -0.295,-0.013748 -1.12789,0.4620002 -2.43164,1.359375 C 12.430202,6.6581043 11.708915,6.5370687 11,6.5429688 10.371291,6.5480938 9.464665,6.6528273 8.6777344,6.8789062 7.3743594,5.9815314 6.7082344,5.5076144 6.4121094,5.5214844 6.3133644,5.5259944 6.265625,5.5410156 6.265625,5.5410156 5.770125,6.8136395 6.0838644,8.1665157 6.1777344,8.4003906 5.5956094,9.046268 5,10.371608 5,11.380859 c 0,3.54325 1.4793751,4.936547 3.5,5.169922 -0.2597749,0.231037 -0.401685,1.139166 -0.484375,1.736328 -0.518438,0.2367 -1.8972324,0.643369 -2.7089844,-0.769531 0,0 -0.4811312,-0.887885 -1.3945312,-0.953125 0,0 -0.8868336,-0.01071 -0.060547,0.5625 0,0 0.5977311,0.08407 1.0117187,1.152344 0,0 0.5917329,1.671881 3.1230469,1.113281 V 20.53125 A 10,10 0 0 0 11,21 10,10 0 0 0 12.996094,20.789062 v -0.484374 c 0.0023,-0.430138 0.0078,-1.107038 0.0078,-2.148438 0,-0.862262 0.01962,-1.327781 -0.30664,-1.613281 C 14.723943,16.314206 17,14.933134 17,11.380859 17,10.371606 16.422993,9.046392 15.839844,8.4003906 15.933136,8.1665167 16.246649,6.8116374 15.75,5.5390625 c -10e-7,0 -0.04785,-0.014931 -0.146484,-0.019531 z"/>
 <path style="fill:#8b9cbe" d="m 15.601562,5.0195312 c -0.295,-0.013748 -1.12789,0.4620002 -2.43164,1.359375 C 12.430202,6.1581043 11.708915,6.0370687 11,6.0429688 10.371291,6.0480938 9.464665,6.1528273 8.6777344,6.3789062 7.3743594,5.4815314 6.7082344,5.0076144 6.4121094,5.0214844 6.3133644,5.0259944 6.265625,5.0410156 6.265625,5.0410156 5.770125,6.3136395 6.0838644,7.6665157 6.1777344,7.9003906 5.5956094,8.5462677 5,9.871608 5,10.880859 c 0,3.54325 1.4793751,4.936547 3.5,5.169922 -0.2597749,0.231037 -0.401685,1.139166 -0.484375,1.736328 -0.518438,0.2367 -1.8972324,0.643369 -2.7089844,-0.769531 0,0 -0.4811312,-0.887885 -1.3945312,-0.953125 0,0 -0.8868337,-0.01071 -0.060547,0.5625 0,0 0.597731,0.08407 1.0117187,1.152344 0,0 0.5917329,1.671881 3.1230469,1.113281 V 20.53125 A 10,10 0 0 0 11,21 10,10 0 0 0 12.996094,20.789062 v -0.984374 c 0.0023,-0.430138 0.0078,-1.107038 0.0078,-2.148438 0,-0.862262 0.01962,-1.327781 -0.30664,-1.613281 C 14.723931,15.814206 17,14.433134 17,10.880859 17,9.871606 16.422993,8.5463917 15.839844,7.9003906 15.933136,7.6665167 16.246649,6.3116374 15.75,5.0390625 c -10e-7,0 -0.04785,-0.014931 -0.146484,-0.019531 z"/>
</svg>
