<svg xmlns="http://www.w3.org/2000/svg" width="22" height="22" version="1.1">
 <g transform="translate(0,-310.29999)">
  <path style="opacity:0.2;fill-rule:evenodd" d="m 21.46095,322.66353 -1.175068,-3.36354 -2.328817,-7.22836 c -0.119786,-0.36217 -0.641514,-0.36217 -0.761358,0 l -2.328873,7.22836 H 7.1335815 l -2.3289304,-7.22836 c -0.1197865,-0.36217 -0.6415145,-0.36217 -0.761358,0 l -2.3288161,7.22836 -1.17501093,3.36354 c -0.1072224,0.32398 0.010234,0.6789 0.2907964,0.87914 l 10.16991653,7.25732 10.169974,-7.25732 c 0.280563,-0.20024 0.397962,-0.55516 0.290797,-0.87914"/>
  <path style="fill:#fc6d26;fill-rule:evenodd" d="M 21.46095,322.16353 20.285882,318.3 18.000199,315.29999 c -0.119787,-0.36218 -0.641515,-0.36218 -0.761358,0 L 14.866834,318.3 H 7.1335815 l -2.6333819,-3.00001 c -0.1197865,-0.36218 -0.6415145,-0.36218 -0.761358,0 L 1.714477,318.3 0.53946607,322.16353 c -0.1072224,0.32398 0.010234,0.6789 0.2907964,0.87914 l 10.16991653,7.25732 10.169974,-7.25732 c 0.280563,-0.20024 0.397962,-0.55516 0.290797,-0.87914"/>
  <path style="fill:#d9381d;fill-rule:evenodd" d="m 11.000202,330.29999 v 0 l 3.866654,-12.00001 H 7.133547 Z"/>
  <path style="fill:#fca326;fill-rule:evenodd" d="m 1.7144995,318.3 v 0 l -1.17506753,3.86355 c -0.1071656,0.32398 0.010234,0.6789 0.2908531,0.87908 l 10.16991693,7.25732 z"/>
  <path style="fill:#d9381d;fill-rule:evenodd" d="M 1.7144995,318.3 H 7.133547 l -2.3288734,-6.72834 c -0.1198435,-0.36223 -0.6415715,-0.36223 -0.761358,0 z"/>
  <path style="fill:#fca326;fill-rule:evenodd" d="m 20.285899,318.3 v 0 l 1.175068,3.86355 c 0.107165,0.32398 -0.01024,0.6789 -0.290854,0.87908 l -10.169916,7.25732 z"/>
  <path style="fill:#d9381d;fill-rule:evenodd" d="m 20.285899,318.3 h -5.419048 l 2.328873,-6.72834 c 0.119843,-0.36223 0.641571,-0.36223 0.761358,0 z"/>
  <path style="opacity:0.2;fill:#8b9cbe;fill-rule:evenodd" d="m 4.4240273,311.29999 c -0.1603857,0 -0.3209661,0.0904 -0.3808593,0.27148 l -2.328125,6.72852 -1.17578133,3.86328 c -0.054283,0.16402 -0.051001,0.33645 0.00195,0.49219 l 1.17383133,-3.85547 2.328125,-6.72852 c 0.059893,-0.18108 0.2204736,-0.27148 0.3808593,-0.27148 0.1603858,0 0.3209374,0.0904 0.3808594,0.27148 l 2.328125,6.72852 3.6582033,11.35156 0.208984,0.14844 -3.8671873,-12 -2.328125,-6.72852 c -0.059922,-0.18111 -0.2204736,-0.27148 -0.3808594,-0.27148 z m 6.5761717,19 0.208984,-0.14844 3.658204,-11.35156 2.328124,-6.72852 c 0.119844,-0.36223 0.641932,-0.36223 0.761719,0 l 2.328125,6.72852 1.173828,3.85547 c 0.05295,-0.15574 0.05621,-0.32817 0.002,-0.49219 l -1.175828,-3.86328 -2.328125,-6.72852 c -0.119787,-0.36223 -0.641876,-0.36223 -0.761719,0 l -2.328124,6.72852 z"/>
  <path style="opacity:0.2;fill:#8b9cbe;fill-rule:evenodd" d="m 1.715043,318.29999 -1.17578133,3.86328 c -0.054254,0.16402 -0.050987,0.33645 0.00195,0.49219 l 1.17383133,-3.85547 8.421875,10.88281 0.863281,0.61719 z m 9.285156,12 0.863281,-0.61719 8.421875,-10.88281 1.173828,3.85547 c 0.05294,-0.15574 0.05621,-0.32817 0.002,-0.49219 l -1.175828,-3.86328 z"/>
  <path style="opacity:0.2;fill:#8b9cbe" d="m 1.715043,318.29999 -0.1523438,0.5 H 20.437699 l -0.152344,-0.5 H 14.867387 7.1330117 Z"/>
 </g>
</svg>
