<svg xmlns="http://www.w3.org/2000/svg" width="22" height="22" version="1.1">
 <circle style="opacity:0.2" cx="11" cy="11.5" r="10"/>
 <circle stroke-miterlimit="10" style="fill:#b2bfd9" cx="11" cy="11" r="10"/>
 <path style="opacity:0.1" d="m 15.771484,4.5175781 c -0.254555,-0.027872 -0.520593,-0.018995 -0.808593,0.00391 -0.288255,0.02308 -0.563104,0.1016251 -0.857422,0.1894531 -0.289611,0.094288 -0.564238,0.2274753 -0.841797,0.3789063 -0.265965,0.1598505 -0.523885,0.3448159 -0.767578,0.546875 -0.231623,0.211132 -0.464054,0.4296876 -0.658203,0.6738281 -0.198086,0.241491 -0.378094,0.4954582 -0.525391,0.7617187 -0.305857,0.5245185 -0.499814,1.0889412 -0.613281,1.6035156 -0.05273,0.2615965 -0.08913,0.5067961 -0.105469,0.7363281 -0.01958,0.226593 -0.01089,0.442246 -0.0059,0.615235 -1.84e-4,0.0812 0.0073,0.158452 0.01563,0.228515 0.05612,-0.08066 0.11663,-0.16523 0.183593,-0.257812 0.33355,-0.45803 0.804109,-1.0482338 1.322266,-1.5839848 0.258675,-0.2687105 0.531411,-0.5175794 0.794922,-0.7402344 0.136581,-0.1049035 0.269763,-0.2053317 0.394531,-0.3007812 0.130464,-0.086158 0.253795,-0.1672975 0.367188,-0.2421875 0.118797,-0.064183 0.22762,-0.1216036 0.324218,-0.1738282 0.09438,-0.05669 0.186766,-0.082197 0.257813,-0.1132812 0.143981,-0.057633 0.226562,-0.091797 0.226562,-0.091797 0,0 -0.08125,0.040277 -0.220703,0.109375 -0.06894,0.03758 -0.156162,0.070764 -0.246094,0.1347657 C 13.916106,7.0552724 13.812119,7.120669 13.699183,7.193363 13.592273,7.276799 13.476105,7.3676992 13.35348,7.4628942 13.237925,7.5667277 13.117035,7.6753251 12.990198,7.7890661 12.746413,8.0291956 12.495833,8.2964737 12.261683,8.5800817 11.814477,9.116692 11.403979,9.65234 11.080042,10.09766 l -0.189453,0.175782 c -0.54792,0.422639 -0.868702,1.376165 -0.869141,2.068359 v 0.375 L 9.720667,12.431645 c -1.83e-4,-0.0079 -0.01346,-0.01162 -0.01367,-0.01953 -0.01266,0.0027 -0.01221,-0.05123 -0.02734,-0.05469 C 9.633697,12.303155 9.586257,12.246433 9.533172,12.18555 9.188852,11.792235 8.7077754,11.287121 8.1855159,10.833987 7.9250274,10.605892 7.6513094,10.395552 7.3886409,10.208987 7.2537079,10.122277 7.1248951,10.040147 7.0019221,9.960941 6.8737476,9.890741 6.7524125,9.823319 6.640594,9.761722 6.524874,9.710902 6.4181297,9.664452 6.3241878,9.62305 6.2310878,9.57693 6.1457229,9.55991 6.0761409,9.53516 5.9364459,9.49149 5.8554378,9.4668 5.8554378,9.4668 c 0,0 0.080561,0.01836 0.2226562,0.05078 0.070534,0.01843 0.1597924,0.0277 0.2558594,0.06641 0.097422,0.03429 0.2083205,0.07313 0.328125,0.115235 0.1164705,0.05279 0.2429356,0.109182 0.3769531,0.169922 0.130171,0.07012 0.2675858,0.145506 0.4101563,0.222656 0.2782,0.167557 0.5707064,0.357556 0.8515624,0.568359 0.562206,0.419951 0.9799248,0.912284 1.3593748,1.28711 0.07629,0.07583 0.127026,0.146522 0.191406,0.21289 -0.0031,-0.06591 0.0017,-0.139231 -0.0039,-0.214844 0.0027,-0.129801 -0.02659,-0.355902 -0.0625,-0.566406 C 9.747161,11.167929 9.694721,10.932295 9.626928,10.697272 9.442276,10.238402 9.192228,9.744942 8.828125,9.304688 8.6506625,9.080067 8.4452059,8.872146 8.2246094,8.6777344 8.0072364,8.4803279 7.7586353,8.3119178 7.5117188,8.1503906 7.2550213,7.9989867 6.9875424,7.8650751 6.7167969,7.7558594 6.4366184,7.6561075 6.1633274,7.5725668 5.8808594,7.5273438 5.5950399,7.4887493 5.3268366,7.497256 5.0566406,7.5175781 4.7867011,7.5380447 4.5397223,7.5683458 4.3085938,7.6308594 4.0744803,7.703377 3.8666962,7.7870251 3.6894531,7.8769531 3.5125949,7.9617695 3.3592077,8.0559375 3.2421875,8.1464844 3.1240134,8.2348591 3.0367601,8.3411743 2.9785156,8.3984375 c -0.058299,0.062694 -0.085937,0.1054688 -0.085937,0.1054687 0,0 0.032308,0.041804 0.091797,0.1230469 0.058354,0.070062 0.140566,0.1958843 0.2382812,0.3085938 0.092568,0.1152851 0.2038384,0.2548081 0.3320313,0.4160161 0.1215259,0.157954 0.2526827,0.318593 0.3867187,0.474609 0.1346401,0.159411 0.2762455,0.334364 0.421875,0.486328 0.1452085,0.153479 0.2981228,0.326656 0.4570313,0.464844 0.3187515,0.300332 0.6719839,0.565172 1.0527344,0.794922 0.189716,0.123112 0.3888018,0.215352 0.5917969,0.318359 0.2026839,0.09876 0.4141956,0.177216 0.6269531,0.253906 0.21523,0.06959 0.4306615,0.135698 0.6484375,0.181641 0.2187465,0.04636 0.4319636,0.08974 0.6425781,0.115234 0.208508,0.02739 0.4106327,0.04429 0.5976563,0.05274 0.017912,0.0012 0.033124,-8.5e-4 0.050781,0 0.09872,0.09709 0.237112,0.287878 0.291016,0.341797 C 9.391156,12.904837 10,13.535156 10,13.535156 V 19.601562 21.5 h 1 v -4.980469 c 0,0 1.164042,-0.92536 1.324219,-1.027343 0.118363,-0.0038 0.236825,-0.0075 0.363281,-0.01953 0.175173,-0.0149 0.351729,-0.04447 0.533203,-0.07617 0.180668,-0.03138 0.357145,-0.07813 0.535156,-0.128906 0.175778,-0.05666 0.350721,-0.114508 0.517579,-0.189453 0.167021,-0.07843 0.332798,-0.14893 0.488281,-0.244141 0.312433,-0.176956 0.600315,-0.384732 0.859375,-0.621093 0.12942,-0.108395 0.253469,-0.243956 0.371094,-0.365235 0.118027,-0.120035 0.233128,-0.260299 0.341796,-0.386718 0.108265,-0.123673 0.212776,-0.249409 0.310547,-0.375 0.103246,-0.128079 0.192996,-0.240475 0.267578,-0.332032 0.07894,-0.08932 0.144317,-0.188557 0.191407,-0.24414 0.04777,-0.06468 0.07422,-0.09766 0.07422,-0.09766 0,0 -0.02413,-0.03503 -0.07422,-0.08789 -0.04993,-0.04841 -0.125899,-0.137382 -0.226563,-0.212891 -0.09975,-0.07724 -0.23131,-0.19333 -0.380859,-0.267578 -0.149989,-0.07843 -0.324443,-0.15294 -0.521485,-0.21875 -0.194314,-0.05758 -0.401211,-0.08897 -0.626953,-0.113281 -0.225945,-0.02422 -0.447917,-0.0059 -0.685547,0.01758 -0.234664,0.029 -0.461847,0.09046 -0.693359,0.164062 -0.223418,0.08157 -0.443591,0.18239 -0.654297,0.298829 -0.202317,0.124988 -0.405191,0.256984 -0.582031,0.412109 -0.179605,0.152602 -0.347335,0.315659 -0.490234,0.494141 -0.293678,0.349351 -0.504969,0.745633 -0.648438,1.115234 -0.06909,0.188595 -0.124708,0.367292 -0.162109,0.537109 -0.03962,0.167124 -0.05553,0.328515 -0.07031,0.458985 -0.0089,0.06087 -0.01259,0.122026 -0.01367,0.175781 0.0522,-0.05242 0.109986,-0.108167 0.171875,-0.167969 0.307982,-0.295484 0.735841,-0.66891 1.195313,-0.996094 0.229516,-0.164279 0.468976,-0.312386 0.697265,-0.441406 0.117185,-0.05901 0.228918,-0.116317 0.335938,-0.169922 0.110427,-0.04583 0.216525,-0.08906 0.3125,-0.128906 0.09902,-0.03102 0.189015,-0.05873 0.269531,-0.08398 0.04992,-0.01821 0.08968,-0.01092 0.132813,-0.0078 -0.04051,0.01061 -0.07703,0.01801 -0.123047,0.03906 -0.07744,0.03119 -0.16633,0.06722 -0.261719,0.105468 -0.09189,0.04718 -0.19154,0.09861 -0.296875,0.152344 -0.100774,0.06123 -0.205796,0.124371 -0.316406,0.191406 -0.214882,0.144992 -0.438293,0.309293 -0.650391,0.488282 -0.42535,0.355437 -0.815495,0.754837 -1.09375,1.066406 -0.02011,0.02261 -0.03793,0.04119 -0.05664,0.0625 0,0 -0.002,0 -0.002,0 l -0.03906,0.0332 L 11,15.794922 v -3.753906 c -6e-4,-0.556143 0.271441,-1.229348 0.734375,-1.53711 l 0.0059,-0.0039 c 0.01597,-0.01103 0.02156,-0.01728 0.03711,-0.0293 0.01158,-0.01069 0.03286,-0.0237 0.04883,-0.03711 0.165197,-0.03609 0.334737,-0.07483 0.511719,-0.126953 0.217391,-0.06161 0.432033,-0.141602 0.654297,-0.226563 0.221311,-0.08434 0.435929,-0.187961 0.65039,-0.296875 0.210615,-0.115991 0.421098,-0.23349 0.617188,-0.371094 C 14.455496,9.269953 14.650046,9.13774 14.828168,8.9765645 15.188735,8.67138 15.512186,8.3342677 15.794965,7.9648458 15.937975,7.7928553 16.071442,7.58433 16.197309,7.3984395 16.323908,7.2140915 16.441044,7.0067812 16.554731,6.8164082 16.668399,6.6296832 16.776845,6.4386261 16.876996,6.2519551 16.983576,6.0607116 17.077175,5.89471 17.15434,5.7578145 17.23737,5.622788 17.302501,5.4780783 17.351605,5.3945332 c 0.04834,-0.095523 0.07422,-0.1464843 0.07422,-0.1464843 0,0 -0.0369,-0.039159 -0.109375,-0.095703 C 17.244932,5.1015187 17.134257,5.0034695 16.994141,4.9296875 16.854848,4.8534365 16.668107,4.7361177 16.466797,4.6757812 16.264168,4.6101282 16.030947,4.5555036 15.771484,4.5175781 Z"/>
 <path style="fill:#444444" d="M 10.00001,19.10251 9.99999,21 H 11 v -4.981102 c 0,0 1.249354,-0.994058 1.358076,-1.053091 -0.08389,-0.02486 -0.357984,-0.06189 -0.357984,-0.06189 -0.08215,-0.06606 -0.235103,-0.07416 -0.337635,-0.108815 l -0.04035,0.03337 L 11,15.294246 v -3.75278 c -6e-4,-0.556143 0.272201,-1.230486 0.735135,-1.538248 l 0.0047,-0.0038 c 0.01597,-0.01103 0.02224,-0.01591 0.03779,-0.02793 0.0798,-0.07368 0.283621,-0.226735 0.338441,-0.254868 -0.01863,-0.09358 -0.102972,-0.169895 -0.195834,-0.233085 -0.07678,-0.05226 -0.564062,0.04786 -0.649488,0.01127 -0.08288,-0.03552 -0.0922,-0.0222 -0.143358,0.05922 l -0.236385,0.219736 c -0.54792,0.422639 -0.869126,1.375829 -0.869565,2.068023 v 0.374079 L 9.719901,11.930849 c -1.83e-4,-0.0079 -0.01221,-0.01074 -0.01242,-0.01865 -0.01266,0.0027 -0.01175,-0.05137 -0.02688,-0.05483 l -0.7311175,0.05663 c 0.072002,0.0031 0.3035485,0.35265 0.3724165,0.421536 0.06889,0.0689 0.678072,0.699686 0.678072,0.699686 v 6.067289"/>
 <path style="fill:#ff6d00" d="m 11.339564,9.998658 c 0.10136,0.0058 0.243144,-0.0071 0.376593,-0.03762 0.195559,-0.03973 0.406155,-0.09099 0.620982,-0.154262 0.217391,-0.06161 0.433464,-0.141632 0.655727,-0.226593 0.221311,-0.08434 0.436156,-0.188921 0.650617,-0.297835 0.210615,-0.115991 0.420039,-0.233234 0.616129,-0.3708375 0.195687,-0.142158 0.390439,-0.2731375 0.568561,-0.434313 0.360567,-0.3051845 0.684593,-0.6437395 0.967372,-1.0131615 0.14301,-0.1719905 0.274958,-0.378913 0.400825,-0.5648035 0.126599,-0.184348 0.244737,-0.392903 0.358424,-0.583276 0.113668,-0.186725 0.222886,-0.376626 0.323037,-0.563297 0.10658,-0.1912435 0.199112,-0.35799 0.276277,-0.4948855 0.08303,-0.1350265 0.148395,-0.2802695 0.1975,-0.3638145 0.04834,-0.095523 0.07402,-0.145915 0.07402,-0.145915 0,0 -0.03711,-0.03934 -0.109584,-0.095884 C 17.24457,4.6013355 17.134308,4.503617 16.994192,4.429835 16.854899,4.353584 16.668975,4.235742 16.467665,4.1754055 16.265036,4.1097525 16.031857,4.055749 15.772394,4.0178235 15.517839,3.989951 15.251417,3.997772 14.963417,4.0206735 14.675162,4.0437535 14.399618,4.122728 14.1053,4.210556 c -0.289611,0.094288 -0.563196,0.22828 -0.840755,0.379711 -0.265965,0.1598505 -0.524438,0.344017 -0.768131,0.546076 -0.231623,0.211132 -0.463978,0.4299215 -0.658127,0.674062 -0.198086,0.241491 -0.378186,0.4947585 -0.525483,0.761019 -0.305857,0.5245185 -0.500372,1.0890495 -0.613839,1.603624 -0.05273,0.2615965 -0.08837,0.5073335 -0.104711,0.736866 -0.01958,0.226593 -0.01103,0.441844 -0.006,0.614833 -1.84e-4,0.0812 0.0067,0.159578 0.01507,0.229641 0.05612,-0.08066 0.117075,-0.166184 0.184038,-0.258766 0.33355,-0.45803 0.803371,-1.0468595 1.321528,-1.5826105 0.258675,-0.2687105 0.532626,-0.5180405 0.796137,-0.7406955 0.136581,-0.1049035 0.268822,-0.2058515 0.39359,-0.301301 0.130464,-0.086158 0.253895,-0.1674355 0.367288,-0.2423255 0.118797,-0.064183 0.228033,-0.1223605 0.324631,-0.174585 0.09438,-0.05669 0.186108,-0.082112 0.257155,-0.1131965 0.143981,-0.057633 0.225945,-0.090187 0.225945,-0.090187 0,0 -0.07999,0.039725 -0.219442,0.108823 -0.06894,0.03758 -0.157187,0.069791 -0.247118,0.1337925 -0.09167,0.059175 -0.194918,0.1256815 -0.307854,0.1983755 -0.10691,0.083436 -0.222629,0.1732425 -0.345254,0.2684375 -0.115555,0.1038335 -0.237869,0.213673 -0.364706,0.327414 -0.243785,0.2401295 -0.49409,0.5060455 -0.72824,0.7896535 -0.470187,0.5641865 -0.910794,1.140222 -1.240755,1.597091 -0.05189,0.08469 -0.165136,0.221059 -0.172792,0.227301 0,1.8e-5 0.372105,0.09639 0.492111,0.09505 z"/>
 <path style="fill:#444444" d="m 11.885723,14.993079 c 0.09502,0.0042 0.196639,0.0093 0.303366,0.0057 0.155868,-0.0016 0.324667,-0.0097 0.498009,-0.02625 0.175173,-0.0149 0.35128,-0.04379 0.532754,-0.07549 0.180668,-0.03138 0.358479,-0.07888 0.53649,-0.12966 0.175778,-0.05666 0.350768,-0.114442 0.517626,-0.189387 0.167022,-0.07843 0.332122,-0.148627 0.487605,-0.243838 0.312433,-0.176956 0.600139,-0.384198 0.859199,-0.620559 0.12942,-0.108395 0.254023,-0.244592 0.371648,-0.365871 0.118027,-0.120035 0.232099,-0.259434 0.340767,-0.385854 0.108265,-0.123672 0.213416,-0.250375 0.311187,-0.375967 0.103246,-0.128079 0.192976,-0.239827 0.267558,-0.331384 0.07894,-0.08932 0.145264,-0.18884 0.192354,-0.244423 0.04777,-0.06468 0.07312,-0.09877 0.07312,-0.09877 0,0 -0.02453,-0.03484 -0.07462,-0.0877 -0.04993,-0.04841 -0.124841,-0.13759 -0.225505,-0.213099 -0.09975,-0.07724 -0.231165,-0.192419 -0.380714,-0.266667 -0.149989,-0.07843 -0.324924,-0.152526 -0.521966,-0.218336 -0.194314,-0.05758 -0.401687,-0.09007 -0.627429,-0.114385 -0.225945,-0.02422 -0.448062,-0.0047 -0.685692,0.01882 -0.234664,0.029 -0.461195,0.09009 -0.692707,0.163695 -0.223418,0.08157 -0.443648,0.182493 -0.654354,0.298932 -0.202317,0.124989 -0.406045,0.255629 -0.582885,0.410754 -0.179605,0.152602 -0.346555,0.316599 -0.489455,0.49508 -0.293677,0.349352 -0.505372,0.744737 -0.648841,1.114338 -0.06909,0.188595 -0.123247,0.367773 -0.160648,0.53759 -0.03962,0.167124 -0.05621,0.329802 -0.07099,0.460272 -0.0089,0.06087 -0.01201,0.120658 -0.01309,0.174413 0.0522,-0.05242 0.108687,-0.107774 0.170576,-0.167576 0.307982,-0.295484 0.735695,-0.669454 1.195167,-0.996638 0.229516,-0.164279 0.468777,-0.311833 0.697066,-0.440853 0.117185,-0.05901 0.230597,-0.115685 0.337617,-0.16929 0.110427,-0.04583 0.214882,-0.089 0.310857,-0.12885 0.09902,-0.03102 0.189973,-0.05892 0.270489,-0.08417 0.07927,-0.02891 0.15314,0.0013 0.211567,-0.01179 0.117826,-0.02249 0.184881,-0.07116 0.184881,-0.07116 0,0 -0.06629,0.01827 -0.181859,0.05001 -0.05749,0.01825 -0.129365,0.0297 -0.205998,0.06475 -0.07744,0.03119 -0.16466,0.06619 -0.260049,0.10444 -0.09189,0.04718 -0.191273,0.09787 -0.296608,0.151604 -0.100774,0.06123 -0.207427,0.126006 -0.318037,0.193041 -0.214882,0.144992 -0.437603,0.308367 -0.649701,0.487356 -0.42535,0.355437 -0.815021,0.754439 -1.093276,1.066008 -0.04289,0.04822 -0.08233,0.09318 -0.119438,0.136215"/>
 <path style="fill:#444444" d="M 9.680599,11.857365 C 9.634639,11.803095 9.585799,11.746399 9.532716,11.685516 9.188396,11.292201 8.7074935,10.787135 8.185234,10.334001 7.9247455,10.105906 7.652077,9.89648 7.3894085,9.709915 7.2544755,9.623202 7.1243595,9.539424 7.0013865,9.460217 6.873212,9.390016 6.7522905,9.323789 6.640472,9.262192 6.524752,9.21137 6.4189595,9.164871 6.3250175,9.123466 6.2319175,9.077346 6.14532,9.060356 6.075738,9.035606 5.936043,8.99194 5.855911,8.966806 5.855911,8.966806 c 0,0 0.080846,0.018233 0.222941,0.050656 0.070534,0.01843 0.1593115,0.02868 0.2553785,0.06739 0.097422,0.03429 0.207482,0.07222 0.3272865,0.114328 0.1164705,0.05279 0.2432165,0.11001 0.377234,0.17075 0.130171,0.07012 0.2681265,0.144256 0.410697,0.221406 0.2782,0.167557 0.5702105,0.358255 0.8510665,0.569058 0.562206,0.419951 0.9799185,0.912478 1.3593685,1.287304 0.07629,0.07583 0.127332,0.146014 0.191713,0.212382 -0.0031,-0.06591 0.0026,-0.138626 -0.003,-0.214238 C 9.851296,11.316041 9.820916,11.089404 9.785006,10.8789 9.747036,10.667917 9.694126,10.431856 9.626335,10.196833 9.441658,9.737969 9.192929,9.244722 8.8288265,8.8044674 8.651364,8.5798465 8.4455665,8.3719579 8.22497,8.1775463 8.007597,7.9801398 7.7588125,7.8116249 7.511896,7.6500977 7.2551985,7.4986938 6.987622,7.3659387 6.7168765,7.256723 6.436698,7.1569711 6.1629125,7.0727336 5.8804445,7.0275105 5.594625,6.9889161 5.3275245,6.9964217 5.0573285,7.0167438 4.787389,7.0372104 4.53974,7.068477 4.3086115,7.1309906 4.074498,7.2035082 3.867162,7.2870673 3.6899189,7.3769953 3.5130607,7.4618117 3.3593171,7.5568708 3.2422969,7.6474177 3.1241228,7.7357924 3.0372688,7.8419925 2.9790243,7.8992557 2.9207248,7.9619499 2.8925,8.0036392 2.8925,8.0036392 c 0,0 0.031559,0.042828 0.091048,0.1240706 0.058354,0.070062 0.1412887,0.1947705 0.239004,0.30748 0.092568,0.1152852 0.2039658,0.255928 0.3321587,0.4171352 0.1215259,0.157954 0.2519535,0.317563 0.3859895,0.473579 0.13464,0.159411 0.276185,0.334954 0.4218145,0.486918 0.1452085,0.153479 0.299282,0.325528 0.4581905,0.463716 0.3187515,0.300332 0.6708745,0.566203 1.051625,0.795953 0.189716,0.123112 0.3901285,0.215955 0.5931235,0.318962 0.202684,0.09876 0.4145435,0.176781 0.627301,0.253471 0.21523,0.06959 0.4301305,0.135132 0.6479065,0.181075 0.2187465,0.04636 0.4309725,0.08903 0.641587,0.114526 0.208508,0.02739 0.4112285,0.04432 0.598252,0.05276 0.1281568,0.0089 0.2498658,0.0069 0.3636988,0.0056"/>
 <path style="opacity:0.2;fill:#8b9cbe" d="M 11,1 A 10,10 0 0 0 1,11 10,10 0 0 0 1.01075,11.291 10,10 0 0 1 11,1.5 10,10 0 0 1 20.9895,11.209 10,10 0 0 0 21,11 10,10 0 0 0 11,1 Z"/>
</svg>
