<svg xmlns="http://www.w3.org/2000/svg" width="22" height="22" version="1.1">
 <circle style="opacity:0.2" cx="11" cy="11.5" r="10"/>
 <circle style="fill:#455a64" cx="11" cy="11" r="10"/>
 <path style="opacity:0.2" d="m 12.286743,6.5145534 c -0.527521,-0.069985 -1.091287,0.11428 -1.474716,0.5111112 0.101889,0.2145773 0.725376,0.1080595 0.950193,0.4072649 0.334801,0.2883901 0.9106,0.9205052 0.481796,1.3569002 C 10.576623,10.419903 8.563363,12.420523 6.906602,14.063919 6.604423,14.445511 6.08044,14.69884 6,15.229647 c 0.0988,0.528904 0.561085,0.9071 0.928209,1.225527 0.164015,0.08825 0.388132,0.04107 0.517031,-0.09659 2.197199,-2.348352 3.753071,-4.321032 5.763395,-6.574241 0.246316,-0.212395 0.668723,-0.190627 0.66189,0.254375 -0.277971,0.483546 0.425519,0.767381 0.648291,1.122874 0.255848,0.189671 0.432409,-0.179592 0.620251,-0.314603 C 15.415566,10.479931 15.98708,10.250622 16,9.730709 15.683281,9.414517 15.420721,8.6388325 14.941611,8.8393124 14.466074,8.6198797 14.664811,7.8187007 14.159145,7.5447074 13.760076,7.2146552 13.242037,7.1388285 12.876413,6.7159896 12.694067,6.6082456 12.493164,6.5419396 12.286743,6.5145534 Z"/>
 <path style="opacity:0.1;fill:#8b9cbe" d="M 11,1 A 10,10 0 0 0 1,11 10,10 0 0 0 1.01074,11.291016 10,10 0 0 1 10.999998,1.5 10,10 0 0 1 20.989256,11.208985 10,10 0 0 0 20.999998,11 a 10,10 0 0 0 -10,-10 z"/>
 <path style="fill:#00ad9a" d="m 12.286743,6.0145574 c -0.527521,-0.069985 -1.091287,0.11428 -1.474716,0.5111112 0.101889,0.2145773 0.725376,0.1080595 0.950193,0.4072649 0.334801,0.2883901 0.9106,0.9205052 0.481796,1.3569002 C 10.576623,9.919907 8.563363,11.920527 6.906602,13.563923 6.604423,13.945515 6.08044,14.198844 6,14.729651 c 0.0988,0.528904 0.561085,0.9071 0.928209,1.225527 0.164015,0.08825 0.388132,0.04107 0.517031,-0.09659 2.197199,-2.348352 3.753071,-4.321032 5.763395,-6.574241 0.246316,-0.212395 0.668723,-0.190627 0.66189,0.254375 -0.277971,0.483546 0.425519,0.767381 0.648291,1.122874 0.255848,0.189671 0.432409,-0.179592 0.620251,-0.314603 C 15.415566,9.979935 15.98708,9.750626 16,9.230713 15.683281,8.9145213 15.420721,8.1388365 14.941611,8.3393164 14.466074,8.1198837 14.664811,7.3187047 14.159145,7.0447114 13.760076,6.7146592 13.242037,6.6388325 12.876413,6.2159936 12.694067,6.1082496 12.493164,6.0419436 12.286743,6.0145574 Z"/>
 <path style="opacity:0.2" d="M 7.843732,6.5005173 C 7.676741,6.5033473 7.510393,6.5166733 7.350418,6.5324123 6.590977,6.5797733 7.063783,7.1455917 7.527213,7.2584379 8.286265,7.474974 8.282018,8.3368974 7.831082,8.8779718 7.418425,9.578665 6.798433,8.9129608 6.317058,8.6837407 5.599406,8.5647736 6.292558,9.561887 6.520652,9.806297 c 0.341871,0.528631 0.923721,0.782185 1.522028,0.690991 0.751129,-0.107523 1.279384,0.532462 1.775189,1.01491 1.396749,1.302063 2.818546,2.726774 4.223643,4.155265 0.206561,0.176811 0.432132,0.378446 0.591156,0.60467 0.771914,0.725079 1.923013,-0.431186 1.060732,-1.357446 C 13.907482,13.270004 12.072309,11.37636 10.422129,9.766742 10.15205,9.502228 9.899868,9.222536 9.727458,8.8781882 9.435973,8.2744594 9.746798,7.467916 9.206467,6.9845532 8.851152,6.5794065 8.344702,6.4922308 7.843732,6.5005173 Z"/>
 <path style="fill:#1092ff" d="M 7.843732,6.0005213 C 7.676741,6.0033513 7.510393,6.0166773 7.350418,6.0324163 6.590977,6.0797773 7.063783,6.6455957 7.527213,6.7584419 8.286265,6.974978 8.282018,7.8369014 7.831082,8.3779758 7.418425,9.078669 6.798433,8.4129648 6.317058,8.1837447 5.599406,8.0647776 6.292558,9.061891 6.520652,9.306301 c 0.341871,0.528631 0.923721,0.782185 1.522028,0.690991 0.751129,-0.107523 1.279384,0.532462 1.775189,1.01491 1.396749,1.302063 2.818546,2.726774 4.223643,4.155265 0.206561,0.176811 0.432132,0.378446 0.591156,0.60467 0.771914,0.725079 1.923013,-0.431186 1.060732,-1.357446 C 13.907482,12.770008 12.072309,10.876364 10.422129,9.266746 10.15205,9.002232 9.899868,8.72254 9.727458,8.3781922 9.435973,7.7744634 9.746803,6.96792 9.206467,6.4845572 8.851152,6.0794105 8.344702,5.9922348 7.843732,6.0005213 Z"/>
</svg>
