<svg xmlns="http://www.w3.org/2000/svg" width="22" height="22" version="1.1">
 <circle style="opacity:0.2" cx="11" cy="11.5" r="10"/>
 <circle style="fill:#666f7f" cx="11" cy="11" r="10"/>
 <path style="opacity:0.1;fill:#8b9cbe" d="M 11,1 A 10,10 0 0 0 1,11 10,10 0 0 0 1.01075,11.291 10,10 0 0 1 11,1.5 10,10 0 0 1 20.9895,11.209 10,10 0 0 0 21,11 10,10 0 0 0 11,1 Z"/>
 <path style="opacity:0.2" d="m 8.234375,4.5253906 c -0.00782,-8.5e-5 -0.015657,0.00124 -0.023437,0.00195 C 8.0676115,4.5387287 7.9706241,4.6780592 8.0097656,4.8164062 8.8284844,7.7102913 10.927801,13.523399 10.96875,13.636719 A 3,2.5 0 0 0 10,13.5 3,2.5 0 0 0 7,16 a 3,2.5 0 0 0 3,2.5 3,2.5 0 0 0 3,-2.5 3,2.5 0 0 0 -0.203125,-0.90625 3,2.5 0 0 0 -0.002,-0.0039 c -0.108926,-0.300633 -1.438901,-3.973071 -2.212891,-6.5664065 0.571114,0.2396365 1.678533,0.3710774 2.242188,0.6230465 0.724544,0.323894 1.291065,0.728908 1.746093,2.234375 0.07613,0.246283 0.437998,0.197128 0.445313,-0.06055 6e-4,-0.02904 -0.01005,-0.0417 -0.0098,-0.07031 0,0 0,-0.002 0,-0.002 C 15.021529,9.608187 14.6771,8.7871443 13.96875,8.1679688 13.247718,7.5376568 12.313845,7.2495123 11.398438,6.8007812 10.549055,6.3844163 9.069723,5.4883565 8.4101562,4.6171875 8.3683863,4.5616645 8.303829,4.5272666 8.234375,4.5253906 Z"/>
 <path style="fill:#48cc41" d="m 8.233634,4.02549 c -0.00782,-8.5e-5 -0.01563,2.325e-4 -0.02341,9.5e-4 -0.143326,0.011385 -0.240456,0.150984 -0.2013145,0.289331 0.826708,2.922124 2.9828845,8.885929 2.9828845,8.885929 0.0094,0.02855 0.02436,0.05497 0.04401,0.07772 l 1.436704,1.718196 c 0.163068,0.186433 0.464591,0.01568 0.388583,-0.220057 0,0 -1.472205,-4.053419 -2.278163,-6.753867 0.571114,0.2396365 1.676715,0.371637 2.24037,0.6236065 0.724544,0.3238935 1.291323,0.7287065 1.746351,2.2341735 0.07613,0.246283 0.438387,0.196815 0.445702,-0.06086 6e-4,-0.02904 -0.01058,-0.04162 -0.0103,-0.07023 h 9.5e-4 c -2.5e-4,-8e-4 -6.5e-4,-10e-4 -9.5e-4,-0.0018 0.01567,-1.63986 -0.32825,-2.4614545 -1.0366,-3.08063 C 13.247419,7.03764 12.31452,6.749562 11.399112,6.300831 10.54973,5.884466 9.069231,4.987504 8.4096645,4.116335 8.3678945,4.060812 8.303088,4.027366 8.233634,4.02549 Z"/>
 <ellipse style="fill:#48cc41" cx="10" cy="15.5" rx="3" ry="2.5"/>
 <path style="opacity:0.2;fill:#8b9cbe" d="m 8.234375,4.0253906 c -0.00782,-8.5e-5 -0.015657,0.00124 -0.023437,0.00195 -0.143326,0.011385 -0.2403134,0.1507154 -0.2011719,0.2890624 0.021964,0.077634 0.062195,0.1956745 0.085937,0.2773438 0.034454,-0.028288 0.066603,-0.062542 0.1152344,-0.066406 0.00778,-7.101e-4 0.015617,-0.00204 0.023437,-0.00195 0.069454,0.00188 0.1340113,0.036274 0.1757812,0.091797 0.6595663,0.871169 2.1388973,1.7672288 2.9882823,2.1835937 0.915407,0.4487311 1.84928,0.7368756 2.570312,1.3671876 0.650055,0.5682205 0.977605,1.3376239 1.017578,2.7226559 0.0093,-0.02409 0.02845,-0.04051 0.0293,-0.07031 6e-4,-0.02904 -0.01005,-0.0417 -0.0098,-0.07031 v -0.002 C 15.021529,9.108187 14.6771,8.2871442 13.96875,7.6679688 13.247718,7.0376568 12.313845,6.7495123 11.398438,6.3007812 10.549054,5.8844163 9.069723,4.9883565 8.4101562,4.1171875 8.3683863,4.0616645 8.303829,4.0272666 8.234375,4.0253906 Z m 2.347656,4.4980469 c 0.77399,2.5933355 2.103965,6.2657735 2.212891,6.5664065 a 3,2.5 0 0 1 0.002,0.0039 3,2.5 0 0 1 0.185547,0.648438 A 3,2.5 0 0 0 13,15.5 a 3,2.5 0 0 0 -0.203125,-0.90625 3,2.5 0 0 0 -0.002,-0.0039 C 12.69322,14.309284 11.541972,11.114297 10.757765,8.578131 10.701595,8.559032 10.63095,8.543989 10.581984,8.523444 Z M 10,13 A 3,2.5 0 0 0 7,15.5 3,2.5 0 0 0 7.0175781,15.757812 3,2.5 0 0 1 10,13.5 a 3,2.5 0 0 1 0.96875,0.136719 c -0.0033,-0.0092 -0.16466,-0.467073 -0.193359,-0.546875 A 3,2.5 0 0 0 10,13 Z"/>
</svg>
