<svg xmlns="http://www.w3.org/2000/svg" width="22" height="22" version="1">
 <path fill="#f2ae37" d="m11 1h-9c-0.554 0-1 0.446-1 1v9h10z"/>
 <path fill="#4785e2" d="m11 1h9c0.554 0 1 0.446 1 1v9h-10z"/>
 <path fill="#4785e2" d="m11 21h-9c-0.554 0-1-0.446-1-1v-9h10z"/>
 <path fill="#77e247" d="m11 21h9c0.554 0 1-0.446 1-1v-9h-10z"/>
 <path fill="#fff" opacity=".2" d="m2 1c-0.554 0-1 0.446-1 1v0.5c0-0.554 0.446-1 1-1h18c0.554 0 1 0.446 1 1v-0.5c0-0.554-0.446-1-1-1h-18z"/>
 <path opacity=".2" d="m2 21.5c-0.554 0-1-0.446-1-1v-0.5c0 0.554 0.446 1 1 1h18c0.554 0 1-0.446 1-1v0.5c0 0.554-0.446 1-1 1h-18z"/>
 <path fill="#17191e" d="m6 3 0.9271 1.9751 2.0729 0.3167-1.5 1.5374 0.3541 2.1708-1.8541-1.0249-1.8541 1.0249 0.3541-2.1708-1.5-1.5374 2.0729-0.3167z"/>
 <circle fill="#17191e" cx="16" cy="6" r="3"/>
 <circle fill="#17191e" cx="6" cy="16" r="3"/>
 <rect fill="#17191e" width="6" height="6" x="13" y="13"/>
</svg>
