<svg xmlns="http://www.w3.org/2000/svg" width="22" height="22" version="1">
 <path style="opacity:0.2" d="M 7.0013352,1.5 6.9982352,3.2221725 2,6.7596075 2.8740012,8.5283255 5.010796,7.8449965 c 0.34027,0.433957 0.857746,0.686951 1.40521,0.6870075 0.940793,-0.0011 1.539702,-0.7875 1.606494,-1.7368355 v -7.5e-4 1.733902 C 8.0212,9.391083 7.925655,10.207512 7.0958145,10.405236 c -0.740417,0.1765 -0.975753,-0.05343 -1.865394,0.313528 -1.3520338,0.557798 -2.235051,1.576925 -2.235235,3.05427 L 4.5,16.5 h 7.500006 l 1.999987,-2.6888 V 8.2315315 c 0,-2.956365 -2.368672,-5.213063 -5.2902283,-5.213063 -0.03128,0.0013 -0.06256,0.00279 -0.093839,0.00466 0.00465,-0.1465325 -0.0092,-0.042813 -0.041215,-0.1857909 C 8.3977007,2.0559359 7.7936402,1.5014894 7.0013352,1.5 Z"/>
 <path style="opacity:0.2" d="M 3.5930224,15.5 C 2.8486435,15.5 2,16.653213 2,17.5 h 12 c 0,-0.846787 -0.848644,-2 -1.593022,-2 z"/>
 <path style="fill:#5e576c" d="M 7.0013352,1 6.9982352,2.7221725 2,6.2596075 2.8740012,8.0283255 5.010796,7.3449965 c 0.34027,0.433957 0.857746,0.686951 1.40521,0.6870075 0.940793,-0.0011 1.539702,-0.7875 1.606494,-1.7368355 v -7.5e-4 1.733902 C 8.0212,8.8910825 7.925655,9.707512 7.0958145,9.905236 c -0.740417,0.1765 -0.975753,-0.05343 -1.865394,0.313528 -1.3520338,0.557798 -2.235051,1.576925 -2.235235,3.05427 L 4.5,16 h 7.500006 l 1.999987,-2.6888 V 7.7315315 c 0,-2.956365 -2.368672,-5.213063 -5.2902283,-5.213063 -0.03128,0.0013 -0.06256,0.00279 -0.093839,0.00466 0.00465,-0.1465325 -0.0092,-0.042813 -0.041215,-0.1857909 C 8.3977007,1.5559359 7.7936402,1.0014894 7.0013352,1 Z"/>
 <path style="opacity:0.1;fill:#8b9cbe" d="M 7.0019531,1 6.9980469,2.7226562 2,6.2597656 2.1835938,6.6308594 6.9980469,3.2226562 7.0019531,1.5 c 0.792305,0.00149 1.3952556,0.5564889 1.5722657,1.3378906 0.032015,0.1429779 0.045666,0.039014 0.041016,0.1855469 0.031279,-0.00187 0.06247,-0.00456 0.09375,-0.00586 C 11.630541,3.0175781 14,5.2760569 14,8.2324219 v -0.5 c 0,-2.956365 -2.369459,-5.2148438 -5.2910156,-5.2148438 -0.03128,0.0013 -0.062471,0.00399 -0.09375,0.00586 0.00465,-0.1465325 -0.009,-0.042569 -0.041016,-0.1855469 C 8.3972087,1.5564889 7.7942581,1.0014894 7.0019531,1 Z m 1.0214844,7.0292969 c -0.0013,0.862762 -0.097894,1.6772761 -0.9277344,1.8750001 -0.740417,0.1765 -0.9755933,-0.05251 -1.8652343,0.314453 -1.3520339,0.557798 -2.2341911,1.577343 -2.234375,3.054688 l 0.033203,0.05859 c 0.160016,-1.239384 0.9890664,-2.113209 2.201172,-2.613278 0.889641,-0.366958 1.1248173,-0.137953 1.8652343,-0.314453 0.8298405,-0.197724 0.9264344,-1.012238 0.9277344,-1.8750001 z"/>
 <path style="fill:#756a89" d="M 3.5930224,15 C 2.8486435,15 2,16.153213 2,17 h 12 c 0,-0.846787 -0.848644,-2 -1.593022,-2 z"/>
 <path style="opacity:0.1;fill:#8b9cbe" d="M 3.59375,15 C 2.8493711,15 2,16.153213 2,17 H 2.091797 C 2.3234917,16.260682 2.9892601,15.5 3.59375,15.5 h 8.8125 c 0.604489,0 1.270258,0.760682 1.501953,1.5 H 14 c 0,-0.846787 -0.849372,-2 -1.59375,-2 z"/>
 <path style="fill:#cccccc" d="m 15,12.5 -4,8 h 8 z"/>
 <path style="opacity:0.2" d="M 11.327519,19.5 C 10.707203,19.5 10,20.653213 10,21.5 h 10 c 0,-0.846787 -0.707203,-2 -1.327519,-2 z"/>
 <path style="fill:#b2bfd9" d="M 11.327519,19 C 10.707203,19 10,20.153213 10,21 h 10 c 0,-0.846787 -0.707203,-2 -1.327519,-2 z"/>
 <circle style="opacity:0.2" cx="15" cy="11.5" r="3"/>
 <circle style="fill:#b2bfd9" cx="15" cy="11" r="3"/>
 <path style="opacity:0.2;fill:#8b9cbe" d="M 11.328125,19 C 10.707809,19 10,20.153213 10,21 h 0.07617 c 0.193017,-0.739398 0.748153,-1.5 1.251953,-1.5 h 7.34375 c 0.5038,0 1.058936,0.760602 1.251953,1.5 H 20 c 0,-0.846787 -0.707809,-2 -1.328125,-2 z"/>
 <path style="opacity:0.2;fill:#8b9cbe" d="m 15,8 a 3,3 0 0 0 -3,3 3,3 0 0 0 0.01367,0.255859 A 3,3 0 0 1 15,8.5 3,3 0 0 1 17.986328,11.244141 3,3 0 0 0 18,11 3,3 0 0 0 15,8 Z"/>
</svg>
