<svg xmlns="http://www.w3.org/2000/svg" width="22" height="22" version="1">
 <path style="opacity:0.2" d="M 11.000132,1.5 C 6.5,1.5 6,5.5 6.000133,10 H 8.0529215 C 8,5.5 9.118125,3.5 11.000132,3.5 12.882141,3.5 14,5.5 13.947344,10 h 2.052789 C 16,5.5 15.5,1.5 11.000132,1.5 Z"/>
 <rect style="opacity:0.2" width="14" height="14" x="-20.5" y="-18" rx="7" ry="7" transform="matrix(0,-1,-1,0,0,0)"/>
 <path style="fill:#b2bfd9" d="M 11.000132,1 C 6.5,1 6,5 6.000133,9.5 H 8.0529215 C 8,5 9.118125,3 11.000132,3 12.882141,3 14,5 13.947344,9.5 h 2.052789 C 16,5 15.5,1 11.000132,1 Z"/>
 <path style="opacity:0.2;fill:#8b9cbe" d="M 11,1 C 6.4998675,1 5.999867,5 6,9.5 H 6.00879 C 6.049752,5.21079 6.6695815,1.5 11,1.5 c 4.330163,0 4.950011,3.71079 4.991211,8 H 16 C 15.999867,5 15.499867,1 11,1 Z"/>
 <rect style="fill:#a0a0a0" width="14" height="14" x="-20" y="-18" rx="7" ry="7" transform="matrix(0,-1,-1,0,0,0)"/>
 <rect style="fill:#4f4f4f" width="10" height="10" x="-18" y="-16" rx="5" ry="5" transform="matrix(0,-1,-1,0,0,0)"/>
 <path style="opacity:0.2" d="m 13.47461,11.025693 -1.060548,0.353515 -0.731445,0.244141 a 2,2 0 0 0 -2.09668,0.462891 2,2 0 0 0 0,2.828125 2,2 0 0 0 2.828125,0 2,2 0 0 0 0.462891,-2.09668 l 0.244141,-0.731445 z"/>
 <path style="fill:#ff5969" d="m 13.47461,10.525391 -1.060547,0.353515 -0.731446,0.244141 a 2,2 0 0 0 -2.096679,0.462891 2,2 0 0 0 0,2.828125 2,2 0 0 0 2.828125,0 2,2 0 0 0 0.46289,-2.09668 l 0.244141,-0.731445 z"/>
</svg>
