<svg xmlns="http://www.w3.org/2000/svg" width="22" height="22" version="1">
 <path style="opacity:0.2" d="M 2.5,1.5 C 1.669,1.5 1,2.169 1,3 v 17 c 0,0.831 0.669,1.5 1.5,1.5 h 7 c 0.831,0 1.5,-0.669 1.5,-1.5 0,0.831 0.669,1.5 1.5,1.5 h 7 C 20.331,21.5 21,20.831 21,20 V 3 C 21,2.169 20.331,1.5 19.5,1.5 h -7 C 11.669,1.5 11,2.169 11,3 11,2.169 10.331,1.5 9.5,1.5 Z"/>
 <rect style="fill:#ffe658" width="10" height="20" x="11" y="1" rx="1.5" ry="1.5"/>
 <rect style="fill:#fff689" width="10" height="20" x="1" y="1" rx="1.5" ry="1.5"/>
 <path style="opacity:0.1" d="M 5.9433595,7.6084375 5.5078125,7.998086 5.5175725,9.032266 2.5,8.942422 2.9609375,9.565469 h 2.560547 l 0.00684,1.029296 h -1.404297 l -0.5966798,-0.285156 0.02539,2.93457 0.6533203,-0.336914 v -0.389648 h 1.33691 l 0.00781,0.998047 -2.9873046,-0.02441 0.8066407,0.818359 0.3457031,-0.298828 h 1.8388673 l 0.0049,0.688477 c 0,0.247275 0.2304685,0.493164 0.2304685,0.493164 l 0.6396485,-0.467774 c 0,0 -0.3066405,-0.192698 -0.3066405,-0.415039 L 6.115246,14.01078 H 9.400402 L 8.497082,13.094764 8.0625115,13.536171 6.101574,13.520546 6.075209,12.517616 h 0.9921875 l 0.272461,0.428711 0.474609,-0.481445 -0.1923825,-0.220704 v -1.467773 l 0.421875,-0.258789 -1.0107425,-0.545898 0.00586,0.623047 h -1.015625 l -0.02051,-1.029297 h 2.84668 L 7.9472775,8.6504285 7.511731,9.091835 5.988293,9.046915 Z M 15.693359,7.777383 c 0,0.975045 -0.0193,1.89086 -0.154297,2.745117 L 12.5,10.508828 l 0.331055,0.512695 h 2.612304 c -0.327495,1.461773 -1.081836,2.727872 -2.828124,3.772461 l 0.116211,0.711914 c 1.861276,-0.883417 3.050315,-2.261648 3.427733,-4.484375 h 3.307618 l -1.166993,-1.166992 -0.512695,0.678711 -1.558594,-0.0068 c 0.04034,-0.365246 0.06055,-0.751413 0.06055,-1.160156 L 16.869143,9.23445 Z m 1.522461,0.8447265 -0.330078,0.165039 C 17.230751,9.105415 17.697003,9.363759 17.71289,9.846719 L 18.375,9.349649 C 18.108896,8.956979 17.652179,8.8018955 17.21582,8.6221095 Z M 4.2060545,10.919961 h 1.324219 l 0.0039,0.519531 h -1.328125 z m 1.826172,0 H 7.042969 l 0.0049,0.519531 H 6.045916 Z m 10.2900385,0.399414 c 0,2.258047 2.532227,4.203125 2.532227,4.203125 L 19.5,14.496133 c 0,0 -2.813477,-1.356179 -2.813477,-3.094727 z M 4.2060545,11.763711 h 1.331055 l 0.00295,0.428711 H 4.206075 Z m 1.848633,0 H 7.050781 l 0.0049,0.428711 H 6.066423 Z"/>
 <path style="fill:#c58c00" d="M 5.9433595,7.1083985 5.5078125,7.498047 5.5175775,8.5323165 2.5,8.442473 2.9609375,9.06552 h 2.560547 l 0.00684,1.029207 H 4.1243185 L 3.5276387,9.809571 3.5530297,12.744141 4.20635,12.407227 v -0.389649 h 1.336618 l 0.00781,0.998047 -2.9873046,-0.02441 0.8066407,0.81836 0.3457031,-0.298829 h 1.8388673 l 0.0049,0.688477 c 0,0.247276 0.2304685,0.493164 0.2304685,0.493164 l 0.6396485,-0.467773 c 0,0 -0.3066405,-0.192698 -0.3066405,-0.415039 L 6.115251,13.510746 H 9.400407 L 8.497082,12.594725 8.0625115,13.036132 6.101574,13.020507 6.075209,12.017577 H 7.0673085 L 7.3397695,12.446288 7.814379,11.964843 7.621996,11.744139 V 10.276366 L 8.043871,10.017577 7.033129,9.471678 7.038989,10.094725 H 6.023452 L 6.002942,9.065518 h 2.84668 L 7.947278,8.1504795 7.5117315,8.591886 5.9882935,8.546966 Z M 4.206346,10.419922 h 1.3239275 l 0.0039,0.519531 H 4.20634 Z m 1.8258805,0 H 7.042881 l 0.0049,0.519531 H 6.045916 Z m -1.8258805,0.84375 h 1.3307635 l 0.00295,0.428711 h -1.333693 z m 1.8483415,0 h 0.996006 l 0.0049,0.428711 H 6.066423 Z"/>
 <path style="fill:#c58c00" d="m 15.693359,7.277344 c 0,0.975045 -0.0193,1.890859 -0.154297,2.745117 L 12.5,10.008789 l 0.331055,0.512696 h 2.612304 c -0.327495,1.461773 -1.081836,2.727871 -2.828124,3.772461 l 0.116211,0.711913 c 1.861276,-0.883416 3.050315,-2.261648 3.427733,-4.484374 h 3.307618 l -1.166993,-1.166993 -0.512695,0.678711 -1.558594,-0.0068 c 0.04034,-0.365246 0.06055,-0.751413 0.06055,-1.160156 L 16.86914,8.734376 Z m 1.522461,0.8447265 -0.330078,0.165039 C 17.230751,8.6053755 17.697003,8.86372 17.71289,9.34668 L 18.375,8.8496095 C 18.108896,8.45694 17.652179,8.3018565 17.21582,8.1220705 Z m -0.893555,2.6972655 c 0,2.258047 2.532227,4.203125 2.532227,4.203125 L 19.5,13.996094 c 0,0 -2.813477,-1.356179 -2.813477,-3.094727 z"/>
 <path style="opacity:0.2;fill:#8b9cbe" d="M 2.5,1 C 1.669,1 1,1.669 1,2.5 V 3 C 1,2.169 1.669,1.5 2.5,1.5 h 7 C 10.331,1.5 11,2.169 11,3 11,2.169 11.669,1.5 12.5,1.5 h 7 C 20.331,1.5 21,2.169 21,3 V 2.5 C 21,1.669 20.331,1 19.5,1 h -7 C 11.669,1 11,1.669 11,2.5 11,1.669 10.331,1 9.5,1 Z"/>
</svg>
