<svg xmlns="http://www.w3.org/2000/svg" width="22" height="22" version="1">
 <rect fill="#b2bfd9" width="20" height="15" x="-21" y="-18" rx="1" ry="1" transform="matrix(0,-1,-1,0,0,0)"/>
 <path fill="#fff" opacity=".2" d="m4 1c-0.554 0-1 0.446-1 1v0.5c0-0.554 0.446-1 1-1h13c0.554 0 1 0.446 1 1v-0.5c0-0.554-0.446-1-1-1h-13z"/>
 <path opacity=".2" d="m3 20v0.5c0 0.554 0.446 1 1 1h13c0.554 0 1-0.446 1-1v-0.5c0 0.554-0.446 1-1 1h-13c-0.554 0-1-0.446-1-1z"/>
 <path fill="#e74c3c" d="m9.1606 8c-1.1897 0-2.1606 0.8375-2.1606 1.875 0 0.54 0.2604 1.032 0.6786 1.375l3.2674 2.75 3.375-2.75c0.418-0.342 0.679-0.835 0.679-1.375 0-1.0375-0.971-1.875-2.161-1.875-0.784 0-1.463 0.3605-1.839 0.906-0.377-0.5455-1.0556-0.906-1.8396-0.906z"/>
 <g fill="#e74c3c" transform="translate(-1,-1)">
  <path d="m5.8105 7.0001c-0.4465 0-0.8105 0.4188-0.8105 0.9372 0 0.2699 0.0977 0.5162 0.2545 0.6875l1.2255 1.3752 1.2655-1.3752c0.157-0.171 0.2545-0.4176 0.2545-0.6876 0-0.5184-0.364-0.9372-0.8105-0.9372-0.2935 0-0.548 0.18-0.6895 0.453-0.1415-0.273-0.396-0.453-0.6895-0.453z"/>
  <path d="m7.0782 5.4535h-1.1541l-0.1823 0.5465h-0.7418l1.06-3h0.88l1.06 3h-0.7418l-0.1803-0.5465zm-0.97009-0.5566h0.78413l-0.3911-1.1935-0.393 1.1935z"/>
 </g>
 <g fill="#e74c3c" transform="matrix(1,0,0,-1,9,23)">
  <path d="m5.8105 7.0001c-0.4465 0-0.8105 0.4188-0.8105 0.9372 0 0.2699 0.0977 0.5162 0.2545 0.6875l1.2255 1.3752 1.2655-1.3752c0.157-0.171 0.2545-0.4176 0.2545-0.6876 0-0.5184-0.364-0.9372-0.8105-0.9372-0.2935 0-0.548 0.18-0.6895 0.453-0.1415-0.273-0.396-0.453-0.6895-0.453z"/>
  <path d="m7.0782 5.4535h-1.1541l-0.1823 0.5465h-0.7418l1.06-3h0.88l1.06 3h-0.7418l-0.1803-0.5465zm-0.97009-0.5566h0.78413l-0.3911-1.1935-0.393 1.1935z"/>
 </g>
</svg>
