<svg width="22" xmlns="http://www.w3.org/2000/svg" version="1.1" height="22">
 <path style="opacity:.2" d="m11 3.5c-7 0-10 2-10 4s1 3 1 3l4-2 1-2s1-1 4-1 4 1 4 1l1 2 4 2s1-1 1-3-3-4-10-4zm-2.5 3c-0.277 0-0.5 0.223-0.5 0.5v1.5h-1c0 4-3 5-3 6v2s0 2 2 2h10c2 0 2-2 2-2v-2c0-1-3-2-3-6h-1v-1.5c0-0.277-0.223-0.5-0.5-0.5s-0.5 0.223-0.5 0.5v1.5h-4v-1.5c0-0.277-0.223-0.5-0.5-0.5z"/>
 <path style="fill:#c2352a" d="m11 3c-7 0-10 2-10 4s1 3 1 3l4-2 1-2s1-1 4-1 4 1 4 1l1 2 4 2s1-1 1-3-3-4-10-4zm-2.5 3c-0.277 0-0.5 0.223-0.5 0.5v1.5h-1c0 4-3 5-3 6v2s0 2 2 2h10c2 0 2-2 2-2v-2c0-1-3-2-3-6h-1v-1.5c0-0.277-0.223-0.5-0.5-0.5s-0.5 0.223-0.5 0.5v1.5h-4v-1.5c0-0.277-0.223-0.5-0.5-0.5z"/>
 <path style="opacity:.2" d="m11 10.5a3 3 0 0 0 -3 3 3 3 0 0 0 3 3 3 3 0 0 0 0.947266 -0.15625l-0.316407-0.949219a2 2 0 0 1 -0.630859 0.105469 2 2 0 0 1 -2 -2 2 2 0 0 1 2 -2 2 2 0 0 1 2 2 2 2 0 0 1 -0.337891 1.109375l0.832032 0.552734a3 3 0 0 0 0.505859 -1.662109 3 3 0 0 0 -3 -3z"/>
 <path style="fill:#8b9cbe" d="m11 10a3 3 0 0 0 -3 3 3 3 0 0 0 3 3 3 3 0 0 0 0.947266 -0.15625l-0.316407-0.949219a2 2 0 0 1 -0.630859 0.105469 2 2 0 0 1 -2 -2 2 2 0 0 1 2 -2 2 2 0 0 1 2 2 2 2 0 0 1 -0.337891 1.109375l0.832032 0.552734a3 3 0 0 0 0.505859 -1.662109 3 3 0 0 0 -3 -3z"/>
 <path style="opacity:.2;fill:#8b9cbe" d="m11 3c-7 0-10 2-10 4 0 0.1076189 0.0120988 0.2009064 0.0175781 0.3027344 0.1917451-1.9321842 3.2124659-3.8027344 9.9824219-3.8027344s9.790677 1.8705502 9.982422 3.8027344c0.005479-0.101828 0.017578-0.1951155 0.017578-0.3027344 0-2-3-4-10-4zm-2.5 3c-0.277 0-0.5 0.223-0.5 0.5v0.5c0-0.277 0.223-0.5 0.5-0.5s0.5 0.223 0.5 0.5v-0.5c0-0.277-0.223-0.5-0.5-0.5zm5 0c-0.277 0-0.5 0.223-0.5 0.5v0.5c0-0.277 0.223-0.5 0.5-0.5s0.5 0.223 0.5 0.5v-0.5c0-0.277-0.223-0.5-0.5-0.5zm-6.5 2c0 4-3 5-3 6v0.5c0-1 3-2 3-6h1v-0.5h-1zm2 0v0.5h4v-0.5h-4zm5 0v0.5h1c0 4 3 5 3 6v-0.5c0-1-3-2-3-6h-1z"/>
</svg>
