<svg xmlns="http://www.w3.org/2000/svg" width="22" height="22" version="1">
 <circle style="opacity:0.2" cx="11" cy="11.5" r="10"/>
 <circle style="fill:#009688" cx="11" cy="11" r="10"/>
 <path style="opacity:0.2" d="M 11,5.5 C 9.604072,5.50165 8.252399,5.989953 7.1777345,6.8808595 L 9.267578,10.5 12.09375,5.604492 C 11.73313,5.536283 11.367012,5.5013055 11,5.5 Z M 13.088867,5.8828125 11,9.5 h 5.649414 C 16.056094,7.826925 14.75237,6.5024615 13.088867,5.8828125 Z M 6.4404295,7.6035155 C 5.5116265,8.6893865 5.000847,10.071088 5,11.5 c 3.44e-4,0.335121 0.028765,0.669624 0.084961,1 H 9.267578 Z M 12.732422,10.5 15.55957,15.396484 C 16.488374,14.310614 16.999153,12.928912 17,11.5 c -3.44e-4,-0.335121 -0.02876,-0.669624 -0.08496,-1 z m 0,2 -2.826172,4.895508 C 10.26687,17.463717 10.632988,17.498694 11,17.5 c 1.395928,-0.0017 2.747601,-0.489953 3.822266,-1.38086 z m -7.381836,1 c 0.5933195,1.673075 1.897044,2.997538 3.560547,3.617187 L 11,13.5 Z"/>
 <path style="fill:#8b9cbe" d="M 11,5 C 9.604072,5.00165 8.252399,5.489953 7.1777345,6.3808595 L 9.267578,10 12.09375,5.104492 C 11.73313,5.036283 11.367012,5.0013055 11,5 Z M 13.088867,5.3828125 11,9 h 5.649414 C 16.056094,7.326925 14.75237,6.0024615 13.088867,5.3828125 Z M 6.4404295,7.1035155 C 5.5116265,8.1893865 5.000847,9.571088 5,11 c 3.44e-4,0.335121 0.028765,0.669624 0.084961,1 H 9.267578 Z M 12.732422,10 15.55957,14.896485 C 16.488374,13.810614 16.999153,12.428912 17,11 16.999656,10.664879 16.97124,10.330376 16.91504,10 Z m 0,2 -2.826172,4.895508 C 10.26687,16.963717 10.632988,16.998694 11,17 c 1.395928,-0.0017 2.747601,-0.489953 3.822266,-1.38086 z m -7.381836,1 c 0.5933195,1.673075 1.897044,2.997538 3.560547,3.617187 L 11,13 Z"/>
 <path style="opacity:0.2;fill:#8b9cbe" d="M 11,1 A 10,10 0 0 0 1,11 10,10 0 0 0 1.0107422,11.291016 10,10 0 0 1 11,1.5 10,10 0 0 1 20.989258,11.208985 10,10 0 0 0 21,11 10,10 0 0 0 11,1 Z"/>
</svg>
