<svg xmlns="http://www.w3.org/2000/svg" width="22" height="22" version="1">
 <path style="opacity:0.2" d="M 10.49953,1.5 C 9.1145295,1.5 7.9995295,2.615 7.9995295,4 V 4.087891 C 7.3105896,4.3659983 6.6637488,4.738721 6.0776545,5.1953125 L 6.0034357,5.1523438 C 4.8039906,4.4598436 3.2818731,4.8669612 2.5893733,6.0664062 l -0.5,0.8671876 c -0.6925,1.1994451 -0.2853826,2.7215622 0.9140624,3.4140622 l 0.082031,0.04687 c -0.054178,0.366069 -0.082893,0.73544 -0.085937,1.105474 0.00304,0.370034 0.03176,0.73941 0.085937,1.105469 l -0.082031,0.04687 c -1.199445,0.6925 -1.6065625,2.214617 -0.9140624,3.414062 l 0.5,0.867188 c 0.6924999,1.199445 2.2146173,1.606562 3.4140624,0.914062 l 0.080078,-0.04687 c 0.5841683,0.456808 1.2290136,0.830174 1.916016,1.109375 V 19.5 c 0,1.108 1.070791,2 2.4003915,2 h 1.199218 c 1.3296,0 2.400391,-0.892 2.400391,-2 v -0.587891 c 0.68894,-0.278108 1.335781,-0.65083 1.921875,-1.107421 l 0.07422,0.04297 c 1.199445,0.6925 2.721561,0.285383 3.414062,-0.914062 l 0.5,-0.867188 c 0.6925,-1.199445 0.285383,-2.721562 -0.914062,-3.414062 l -0.08203,-0.04687 c 0.05418,-0.366073 0.0829,-0.735442 0.08593,-1.105476 -0.003,-0.370034 -0.03176,-0.73941 -0.08594,-1.105469 l 0.08203,-0.04687 c 1.199445,-0.6925 1.606561,-2.2146171 0.914062,-3.4140622 l -0.5,-0.8671876 C 18.717194,4.8669601 17.19507,4.4598436 15.995624,5.1523438 l -0.08008,0.046875 C 15.331381,4.7424108 14.686533,4.3690443 13.99953,4.0898438 V 4 c 0,-1.385 -1.115001,-2.5 -2.5,-2.5 z"/>
 <path style="fill:#ae56b8" d="M 10.49953,1 C 9.1145295,1 7.9995295,2.115 7.9995295,3.5 V 3.587891 C 7.3105896,3.8659983 6.6637488,4.238721 6.0776545,4.6953125 L 6.0034357,4.6523438 C 4.8039906,3.9598436 3.2818731,4.3669612 2.5893733,5.5664062 l -0.5,0.8671876 C 1.3968733,7.6330389 1.8039907,9.155156 3.0034357,9.847656 l 0.082031,0.04687 C 3.031289,10.260595 3.0025735,10.629966 2.9995295,11 c 0.00304,0.370034 0.03176,0.73941 0.085937,1.105469 l -0.082031,0.04687 c -1.199445,0.6925 -1.6065625,2.214617 -0.9140624,3.414062 l 0.5,0.867188 c 0.6924999,1.199445 2.2146173,1.606562 3.4140624,0.914062 l 0.080078,-0.04687 c 0.5841683,0.456808 1.2290136,0.830174 1.916016,1.109375 V 19 c 0,1.108 1.070791,2 2.4003915,2 h 1.199218 c 1.3296,0 2.400391,-0.892 2.400391,-2 v -0.587891 c 0.68894,-0.278108 1.335781,-0.65083 1.921875,-1.107421 l 0.07422,0.04297 c 1.199445,0.6925 2.721561,0.285383 3.414062,-0.914062 l 0.5,-0.867188 c 0.6925,-1.199445 0.285383,-2.721562 -0.914062,-3.414062 l -0.08203,-0.04687 C 18.967772,11.739403 18.99649,11.370034 18.99953,11 18.99653,10.629966 18.96777,10.26059 18.91359,9.894531 l 0.08203,-0.04687 c 1.199445,-0.6925 1.606561,-2.2146172 0.914062,-3.4140622 l -0.5,-0.8671876 C 18.717194,4.3669601 17.19507,3.9598436 15.995624,4.6523438 l -0.08008,0.046875 C 15.331381,4.2424108 14.686533,3.8690443 13.99953,3.5898438 V 3.5 c 0,-1.385 -1.115001,-2.5 -2.5,-2.5 z"/>
 <path style="opacity:0.1;fill:#8b9cbe" d="m 10.49906,0.9999981 c -1.3850005,0 -2.500001,1.115 -2.500001,2.5 v 0.087891 C 7.3101191,3.8659964 6.6632783,4.2387191 6.077184,4.6953106 L 6.0029652,4.6523419 C 4.8035201,3.9598418 3.2814027,4.3669593 2.5889028,5.5664043 l -0.5,0.8671876 C 1.8159963,6.9062796 1.71875,7.4272971 1.7685902,7.9296856 1.8037164,7.5890313 1.9059629,7.2504529 2.0889028,6.9335919 l 0.5,-0.8671876 C 3.2814027,4.8669593 4.8035201,4.4598418 6.0029652,5.1523419 l 0.074219,0.042969 C 6.6632783,4.7387191 7.3101191,4.3659964 7.999059,4.0878887 v -0.087891 c 0,-1.385 1.1150005,-2.5 2.500001,-2.5 h 1 c 1.384999,0 2.5,1.115 2.5,2.5 v 0.089844 c 0.687003,0.2792005 1.331849,0.652567 1.916015,1.109375 l 0.08008,-0.046875 C 17.1946,4.4598415 18.716721,4.8669541 19.409217,6.0664041 l 0.5,0.8671876 c 0.18294,0.316861 0.285187,0.6554394 0.320313,0.9960937 0.04984,-0.5023885 -0.04741,-1.023406 -0.320313,-1.4960937 l -0.5,-0.8671876 C 18.716719,4.3669543 17.194599,3.9598417 15.995153,4.6523419 l -0.08008,0.046875 C 15.330909,4.2424089 14.686063,3.8690424 13.99906,3.5898419 v -0.089844 c 0,-1.385 -1.115001,-2.5 -2.5,-2.5 z M 3.0478871,10.373045 c -0.018203,0.208955 -0.047102,0.41709 -0.048828,0.626953 6.875e-4,0.08368 0.01622,0.166413 0.019531,0.25 0.011333,-0.286014 0.024481,-0.572192 0.066406,-0.855469 z m 15.9023439,0 -0.03711,0.02148 c 0.04193,0.283273 0.05508,0.569456 0.06641,0.855469 0.0033,-0.08359 0.01884,-0.166315 0.01953,-0.25 -0.0017,-0.209863 -0.03062,-0.417999 -0.04883,-0.626953 z m -15.9023439,1.753906 -0.044922,0.02539 c -0.882584,0.50956 -1.3322153,1.469111 -1.234375,2.417968 0.07663,-0.772422 0.5076177,-1.498375 1.234375,-1.917968 l 0.082031,-0.04687 C 3.0615451,12.44702 3.0617801,12.286433 3.0478871,12.126955 Z m 15.9023439,0 c -0.01389,0.159479 -0.01366,0.320062 -0.03711,0.478516 l 0.08203,0.04687 c 0.726757,0.419593 1.157744,1.145546 1.234375,1.917968 0.09784,-0.948857 -0.351791,-1.908408 -1.234375,-2.417968 z"/>
 <path style="opacity:0.2" d="m 10.99953,7.5 c 2.2092,0 4,1.7908 4,4 0,2.2092 -1.7908,4 -4,4 -2.2092005,0 -4.0000005,-1.7908 -4.0000005,-4 0,-2.2092 1.7908,-4 4.0000005,-4 z"/>
 <path style="fill:#8b9cbe" d="m 10.99953,7 c 2.2092,0 4,1.7908 4,4 0,2.2092 -1.7908,4 -4,4 -2.2092005,0 -4.0000005,-1.7908 -4.0000005,-4 0,-2.2092 1.7908,-4 4.0000005,-4 z"/>
</svg>
