<svg xmlns="http://www.w3.org/2000/svg" width="22" height="22" version="1">
 <rect style="opacity:0.2" width="21" height="21" x="0" y=".5" rx="1.05" ry="1.05"/>
 <rect style="fill:#b2bfd9" width="21" height="21" x="0" y="0" rx="1.05" ry="1.05"/>
 <path style="opacity:0.1" d="M 9.517578,18.472195 C 9.143804,18.4243 8.430952,18.244943 8.096959,18.114754 6.7219121,17.578764 5.7206241,16.51161 5.2879461,15.120957 5.0457286,14.342441 5.0470356,13.370154 5.0131981,8.3037462 4.9944051,5.4918932 5.0011946,3.4999927 5.0011946,3.4999927 H 9.15025 L 7.5009231,7.4999964 H 9.00076 v 2.9999966 4 H 10.652915 12 v -5.8075603 -5.19244 h 4 c 0,0 -3.8e-4,3.1001205 -3.5e-5,6.7028973 4.93e-4,6.193495 -0.0035,7.552738 -0.07667,7.59149 -0.195028,0.103346 -2.239308,0.465272 -3.458353,0.612276 -0.699189,0.08431 -2.490114,0.124147 -2.94741,0.06555 z"/>
 <path style="fill:#e2450e" d="M 9.517578,17.972202 C 9.143804,17.924307 8.430952,17.74495 8.096959,17.614761 6.7219121,17.078771 5.7206241,16.011617 5.2879461,14.620964 5.0457286,13.842448 5.0470356,12.870161 5.0131981,7.8037535 4.9944051,4.9919005 5.0011946,3 5.0011946,3 H 9.15025 L 7.5009231,7.0000037 H 9.00076 V 10 14 H 10.652915 12 V 8.19244 3 h 4 c 0,0 -3.8e-4,3.1001205 -3.5e-5,6.702897 4.93e-4,6.193495 -0.0035,7.552738 -0.07667,7.59149 -0.195028,0.103346 -2.239308,0.465272 -3.458353,0.612276 -0.699189,0.08431 -2.490114,0.124147 -2.94741,0.06555 z"/>
 <path style="opacity:0.2;fill:#8b9cbe" d="M 1.0507812,0 C 0.4690813,0 0,0.4690813 0,1.0507812 v 0.5 C 0,0.9690813 0.4690813,0.5 1.0507812,0.5 H 19.949219 C 20.530919,0.5 21,0.9690813 21,1.5507812 v -0.5 C 21,0.4690813 20.530919,0 19.949219,0 Z"/>
</svg>
