<svg xmlns="http://www.w3.org/2000/svg" width="22" height="22" version="1">
 <path style="opacity:0.2" d="m 4.0000004,1.5000009 c -1.4999999,0 -2.9999999,1.4999999 -2.9999999,2.9999999 V 11.299805 18.5 19.700196 c 0,0.9 0.8998047,1.799804 1.7998046,1.799804 H 4.0000004 11.200196 18 c 1.5,0 3,-1.5 3,-3 C 21,8.5000006 14,1.5000009 4.0000004,1.5000009 Z"/>
 <path style="fill:#dfd92a" d="M 21.000001,18 C 21.000001,8.0000006 14,1.0000008 3.9999999,1.0000008 2.5,1.0000008 1,2.5000008 1,4.0000007 V 18 c 0,1.5 1.5,3 2.9999999,3 H 18.000001 c 1.5,0 3,-1.5 3,-3 z"/>
 <path style="opacity:0.2;fill:#8b9cbe" d="m 4.0000004,1.0000009 c -1.4999999,0 -2.9999999,1.5 -2.9999999,2.9999999 v 0.5 c 0,-1.5000001 1.5,-2.9999999 2.9999999,-2.9999999 9.8757906,0 16.8210646,6.8292772 16.9921876,16.6308591 0.0025,-0.04358 0.0078,-0.08725 0.0078,-0.13086 0,-9.9999994 -7,-16.9999991 -16.9999996,-16.9999991 z"/>
 <path style="fill:#db3151" d="M 15,18.9 C 15,11.900001 10.1,7.0000012 3.1000004,7.0000012 c -1.0499999,0 -2.0999999,1.0499999 -2.0999999,2.0999998 V 18.9 c 0,1.05 1.05,2.1 2.0999999,2.1 H 12.9 c 1.05,0 2.1,-1.05 2.1,-2.1 z"/>
 <path style="fill:#17191e" d="m 8.0000002,19.95 c 0,-3.499999 -2.4499999,-5.95 -5.9499997,-5.95 -0.525,0 -1.05,0.525001 -1.05,1.050001 V 19.95 c 0,0.525 0.525,1.05 1.05,1.05 h 4.8999998 c 0.525,0 1.0499999,-0.525 1.0499999,-1.05 z"/>
 <path style="opacity:0.1" d="m 3.0996098,7.0000007 c -1.0499999,0 -2.0996093,1.0496094 -2.0996093,2.0996093 v 0.5 c 0,-1.0499999 1.0496094,-2.0996093 2.0996093,-2.0996093 6.8584338,0 11.6975632,4.7054013 11.8906252,11.4794913 0.0013,-0.02651 0.0098,-0.05258 0.0098,-0.0791 0,-7 -4.90039,-11.9003903 -11.9003902,-11.9003903 z"/>
 <path style="opacity:0.1" d="m 2.0498052,14 c -0.525,0 -1.0498047,0.524805 -1.0498047,1.049805 v 0.5 c 0,-0.525 0.5248047,-1.049805 1.0498047,-1.049805 3.3755286,0 5.7682155,2.28219 5.93457,5.583985 0.00736,-0.04461 0.015625,-0.08885 0.015625,-0.133789 0,-3.5 -2.4501954,-5.950196 -5.950195,-5.950196 z"/>
</svg>
