<svg xmlns="http://www.w3.org/2000/svg" width="22" height="22" version="1">
 <rect style="fill:#d3d3d3" width="13.953" height="14" x="1.05" y="-21" rx=".797" ry=".8" transform="matrix(0,1,-1,0,0,0)"/>
 <path style="opacity:0.2" d="m 10,12 0,-0.99999 5.9999,0 0,0.99999 z m 0,-2 0,-0.99999 8,0 L 18,10 Z m 0,-2 0,-0.99999 8,0 L 18,8 Z m 0,-2 0,-0.99999 8,0 L 18,6 Z"/>
 <path style="opacity:0.2" d="m 7.0001,14.203 0,0.499 c 0,0.442 0.3565,0.79799 0.79999,0.79799 l 12.4,0 c 0.444,0 0.8,-0.356 0.8,-0.798 l 0,-0.499 c 0,0.442 -0.3565,0.79699 -0.79999,0.79699 l -12.4,0 c -0.4435,0 -0.79999,-0.355 -0.79999,-0.79699 z"/>
 <rect style="fill:#b2bfd9" width="14" height="14" x="7" y="-15" rx=".8" ry=".8" transform="matrix(0,1,-1,0,0,0)"/>
 <path style="opacity:0.2" d="m 1.0002,20.2 0,0.5 c 0,0.444 0.3566,0.8 0.7998,0.8 l 12.4,0 c 0.4435,0 0.79999,-0.3565 0.79999,-0.79999 l 0,-0.5 C 14.99999,20.64351 14.64349,21 14.2,21 L 1.8,21 C 1.3566,21 1,20.644 1,20.2 Z"/>
 <path style="opacity:0.5" d="m 4,18 0,-0.99999 5.9999,0 0,0.99999 z m 0,-2 0,-0.99999 8,0 L 12,16 Z m 0,-2 0,-0.99999 8,0 L 12,14 Z m 0,-2 0,-0.99999 8,0 L 12,12 Z"/>
 <path style="opacity:0.2;fill:#8b9cbe" d="M 1.8008,7 C 1.3576,7 1,7.3576 1,7.8008 l 0,0.5 C 1,7.8576 1.3576,7.5 1.8008,7.5 l 12.398,0 c 0.443,0 0.801,0.3576 0.801,0.8008 l 0,-0.5 C 14.9998,7.3576 14.6418,7 14.1988,7 L 1.8008,7 Z"/>
</svg>
