<svg xmlns="http://www.w3.org/2000/svg" width="22" height="22" version="1">
 <path style="opacity:.2" d="m10.348087 3.5008506c-0.3502995 0.0134-0.6575995 0.1977-0.8988995 0.4707-0.2413 0.2731-0.4319 0.6368-0.5924 1.0636-0.3211 0.8537-0.5185 2.9671342-0.6278 4.1186336-0.1093 1.1515998-0.128 2.3389998-0.0781 3.3314998 0.04988 0.99272 0.1473 0.7649 0.35341 1.1963 0.18027 0.37728 0.38971 0.8085 0.47989 1.1979 0.090184 0.38944 0.07132 0.69981-0.15996 0.95084s-0.74153 0.62279-1.7224 0.67496-2.4142-0.51142-4.4464-0.88647c-0.32732-0.06041-0.6004-0.06581-0.83795 0.01222-0.23755 0.07802-0.42351 0.25156-0.53662 0.47072-0.22622 0.43832-0.24656 2.34153-0.27994 3.17463-0.010793 0.2694 0.088972 0.52622 0.26413 0.73662 0.17515 0.21039 0.4204 0.38286 0.72449 0.53367 0.60818 0.30162 1.4599 0.51906 2.5176 0.67367 2.1154 0.30922 5.0523 0.35795 8.3887995 0.1663l0.0028-0.00095h0.0037c1.2279-0.10028 3.1704-0.17062 4.8454-0.59286 0.83752-0.21112 1.612-0.50853 2.2032-0.96305 0.59127-0.45452 0.99618-2.086 1.036-2.8908 0.03706-0.74826-0.0019-1.2494-0.15345-1.6095-0.15155-0.36005-0.47631-0.81728-0.81005-0.8242-2.02345 0-3.158106 1.141062-5.0351 1-0.56244-0.04229-0.84359 0.0403-1.0174-0.18144-0.17385-0.22175-0.25197-0.54976-0.28831-0.96681-0.03633-0.41704-0.03209 0.08953-0.08742-0.4306-0.106-0.997-0.306-3.3307-0.76-5.4150992-0.226-1.0423-0.515-3.0231342-0.901-3.7607342-0.193-0.3687-0.411-0.6789-0.671-0.9029-0.261-0.224-0.575-0.3597-0.915-0.3467z"/>
 <path style="opacity:.2" d="m10.620087 1.5060695c-0.20704 0.00335-0.41662 0.016789-0.6269496 0.040039-3.2965 0.3645-5.6979 3.0839-5.4715 6.1202l-0.7715 0.0859 0.4414 3.9931995 2.5733-0.284-0.4414-3.9942995-0.9532 0.1054c-0.1766-2.6018 1.8856-4.9247 4.7128996-5.2373 2.825-0.3123 5.357 1.4996 5.756 4.0743l-0.839 0.0927 0.441 3.9931995 2.485-0.274-0.442-3.9935995-0.797 0.0879c-0.421-2.8135-3.034-4.8585-6.067-4.8096z"/>
 <path style="fill:#974fa4" d="m10.348087 3.0008502c-0.3502995 0.0134-0.6575995 0.1977-0.8988995 0.4707-0.2413 0.2731-0.4319 0.6368-0.5924 1.0636-0.3211 0.8537-0.5185 2.9671342-0.6278 4.1186342-0.1093 1.1515998-0.128 2.3389996-0.0781 3.3314996 0.04988 0.99272 0.1473 0.7649 0.35341 1.1963 0.18027 0.37728 0.38971 0.8085 0.47989 1.1979 0.090184 0.38944 0.07132 0.69981-0.15996 0.95084s-0.74153 0.62279-1.7224 0.67496-2.4142-0.51142-4.4464-0.88647c-0.32732-0.06041-0.6004-0.06581-0.83795 0.01222-0.23755 0.07802-0.42351 0.25156-0.53662 0.47072-0.22622 0.43832-0.24656 2.34153-0.27994 3.17463-0.010793 0.2694 0.088972 0.52622 0.26413 0.73662 0.17515 0.21039 0.4204 0.38286 0.72449 0.53367 0.60818 0.30162 1.4599 0.51906 2.5176 0.67367 2.1154 0.30922 5.0523 0.35795 8.3887995 0.1663l0.0028-0.00095h0.0037c1.2279-0.10028 3.1704-0.17062 4.8454-0.59286 0.83752-0.21112 1.612-0.50853 2.2032-0.96305 0.59127-0.45452 0.99618-2.086 1.036-2.8908 0.03706-0.74826-0.0019-1.2494-0.15345-1.6095-0.15155-0.36005-0.47631-0.81728-0.81005-0.8242-2.02345 0-3.158106 1.141062-5.0351 1-0.56244-0.04229-0.84359 0.0403-1.0174-0.18144-0.17385-0.22175-0.25197-0.54976-0.28831-0.96681-0.03633-0.41704-0.03209 0.08953-0.08742-0.4306-0.106-0.997-0.306-3.3307-0.76-5.4150996-0.226-1.0423-0.515-3.0231342-0.901-3.7607342-0.193-0.3687-0.411-0.6789-0.671-0.9029-0.261-0.224-0.575-0.3597-0.915-0.3467z"/>
 <path style="opacity:.2;fill:#8b9cbe" d="m10.347743 3.0000002c-0.3502995 0.0134-0.6571365 0.1977031-0.8984365 0.4707031-0.2413 0.2731-0.431297 0.6376532-0.5917971 1.0644531-0.3211 0.8537-0.5196063 2.9676407-0.6289063 4.1191407-0.068678 0.7236061-0.089202 1.4420759-0.091797 2.1367189 0.013416-0.537913 0.039934-1.0902798 0.091797-1.6367188 0.1093-1.1514995 0.3078063-3.2654408 0.6289063-4.1191408 0.1605001-0.4268 0.3504971-0.7913531 0.5917971-1.0644531 0.2413-0.273 0.548137-0.4573031 0.8984365-0.4707031v0.00195c0.34-0.013 0.655016 0.1217031 0.916016 0.3457031 0.26 0.2240001 0.476922 0.5336438 0.669922 0.9023438 0.386 0.7376 0.676343 2.7194187 0.902344 3.7617188 0.454 2.0843991 0.653765 4.4170621 0.759765 5.4140621 0.05533 0.52013 0.05156 0.0146 0.08789 0.431641 0.03634 0.41705 0.113259 0.745047 0.287109 0.966797 0.17381 0.22174 0.455138 0.13935 1.017578 0.18164 1.876994 0.141062 3.011706-1 5.035157-1 0.33374 0.0069 0.658996 0.464169 0.810546 0.824219 0.113429 0.269519 0.145819 0.658846 0.148438 1.13086 0.000337-0.0061 0.0036-0.0155 0.0039-0.02148 0.03706-0.74826-0.000794-1.249275-0.152344-1.609375-0.15155-0.36005-0.476806-0.817299-0.810546-0.824219-2.023451 0-3.158163 1.141062-5.035157 1-0.56244-0.04229-0.843768 0.0401-1.017578-0.18164-0.17385-0.22175-0.250769-0.549747-0.287109-0.966797-0.03633-0.41704-0.03256 0.08849-0.08789-0.431641-0.106-0.997-0.305765-3.329662-0.759765-5.4140621-0.225995-1.042302-0.516338-3.0241207-0.902338-3.7617207-0.193-0.3687-0.409922-0.6783437-0.669922-0.9023438-0.261-0.224-0.576016-0.3587031-0.916016-0.3457031v-0.00195zm-1.3457025 11.986328c-0.030473 0.12457-0.082692 0.240591-0.1777342 0.34375-0.23128 0.25103-0.7417863 0.623611-1.7226564 0.675781-0.98087 0.05217-2.4131125-0.511668-4.4453124-0.886718-0.32732-0.06041-0.6003406-0.06631-0.8378907 0.01172-0.2375499 0.07802-0.4239994 0.251544-0.5371093 0.470703-0.2262201 0.438321-0.24787 2.342682-0.28125 3.175782-0.00136 0.03384 0.013562 0.06428 0.015625 0.09766 0.029439-0.925727 0.065614-2.3859 0.265625-2.773438 0.1131099-0.219159 0.2995594-0.392683 0.5371093-0.470703 0.2375501-0.07803 0.5105706-0.07213 0.8378907-0.01172 2.0321999 0.37505 3.4644424 0.938888 4.4453124 0.886718 0.9808701-0.052172 1.4913764-0.424753 1.7226564-0.675783 0.2088792-0.226716 0.2392292-0.505696 0.1777342-0.84375z"/>
 <path style="fill:#4d4d4d" d="m10.620087 1.0060695c-0.20704 0.00335-0.41662 0.016789-0.6269496 0.040039-3.2965 0.3645-5.6979 3.0839-5.4715 6.1202l-0.7715 0.0859 0.4414 3.9931995 2.5733-0.284-0.4414-3.9942995-0.9532 0.1054c-0.1766-2.6018 1.8856-4.9248 4.7128996-5.2373 2.825-0.3123 5.357 1.4995 5.756 4.0742l-0.839 0.0928 0.441 3.9931997 2.485-0.274-0.442-3.9935997-0.797 0.0879c-0.421-2.8136-3.034-4.8586-6.067-4.8096z"/>
 <path style="opacity:.2" d="m10.491087 9.6013692a2.2429341 4.001919 3.1087 0 1 -4.4814996 -0.201 2.2429341 4.001919 3.1087 0 1 4.4814996 0.201z"/>
 <path style="fill:#8b9cbe" d="m10.491087 9.0963692a2.242929 4.0019086 3.1087 1 1 -4.4814996 -0.2007997 2.242929 4.0019086 3.1087 0 1 4.4814996 0.2007997z"/>
 <path style="fill:#4d4d4d" d="m9.9953875 10.024369a0.96345 1.0352 44.981 0 1 -1.9907 -0.04797 0.96345 1.0352 44.981 0 1 1.9907 0.04797z"/>
 <path style="opacity:.2" d="m15.955087 9.2883692a4.0234001 2.4621001 82.182 0 1 -4.91 0.42252 4.0234001 2.4621001 82.182 0 1 4.91 -0.42252z"/>
 <path style="fill:#8b9cbe" d="m15.955087 8.7834695a4.0234367 2.4621223 82.182 1 1 -4.91 0.4228997 4.0234367 2.4621223 82.182 0 1 4.91 -0.4228997z"/>
 <path style="fill:#4d4d4d" d="m13.965087 10.067369a0.89642044 1.0938371 44.991 1 1 -1.93 -0.1349998 0.89642044 1.0938371 44.991 0 1 1.93 0.1349998z"/>
 <path style="opacity:.1;fill:#8b9cbe" d="m10.620087 1.0060695c-0.20704 0.00335-0.41662 0.016789-0.6269496 0.040039-3.2367 0.3579-5.6037 2.9868-5.4744 5.9561 0.1399-2.7593 2.4206-5.1185 5.4746-5.456 0.2103396-0.023251 0.4199096-0.036694 0.6269496-0.040039 3.0332-0.048979 5.6455 1.996 6.0664 4.8096l0.79785-0.087891 0.38672 3.4989997 0.05469-0.0059-0.44141-3.9931997-0.79785 0.087891c-0.421-2.8136-3.034-4.8586-6.067-4.8096zm5.1143 4.915-0.73438 0.081055 0.05469 0.49414 0.78418-0.086914c-0.026-0.1661-0.062-0.3288-0.105-0.4882zm-9.4106996 1.046-0.9532 0.1054c-0.0012-0.017375 0.000004-0.034405-0.001-0.051758-0.00967 0.18222-0.01163 0.36607 0.001 0.55176l0.95313-0.10547 0.38672 3.4999995 0.054688-0.0059-0.4413-3.9942995zm-1.8125 0.2001-0.7608 0.085 0.0547 0.4941 0.7168-0.08c-0.0125-0.1675-0.014-0.3338-0.0108-0.4991z"/>
</svg>
