<svg xmlns="http://www.w3.org/2000/svg" width="22" height="22" version="1.1">
 <rect style="opacity:0.2" width="20" height="20" x="1" y="1.5" rx="1" ry="1"/>
 <rect style="fill:#4f4f4f" width="20" height="20" x="1" y="1" rx="1" ry="1"/>
 <path style="opacity:0.2" d="M 9.986297,19.437905 C 5.2394665,16.946312 3.2310015,14.221675 4.2651215,11.67669 c 0.99345,-2.4449 4.57524,-4.8891105 10.8720945,-7.4191055 1.362775,-0.5475451 3.368201,-1.2886551 3.400276,-1.2565801 0.01025,0.01025 -0.627305,0.370075 -1.416825,0.799575 C 13.613352,5.7085595 9.870732,8.3607695 8.8282465,9.67702 L 8.5394215,10.041685 9.318982,9.51853 c 1.08136,-0.7256905 2.649265,-1.5744805 4.037325,-2.1856155 1.22469,-0.53921 3.936115,-1.57946 4.11177,-1.577495 0.05588,5e-4 -0.23069,0.181415 -0.636826,0.401755 -2.437674,1.32252 -5.280619,3.5868105 -6.361074,5.0663495 -0.31307,0.428707 -0.323855,0.432597 0.714285,-0.257511 0.406135,-0.269979 1.14017,-0.715346 1.631195,-0.989703 0.93544,-0.522675 2.89041,-1.4668505 2.938215,-1.4190455 0.0153,0.0153 -0.27356,0.22927 -0.641915,0.4754855 -1.50368,1.00511 -3.518925,2.809737 -4.176655,3.740146 -0.194245,0.274775 -0.173385,0.267176 0.53616,-0.195329 0.68371,-0.445666 3.125355,-1.697733 3.31073,-1.697733 0.04485,0 -0.208795,0.215918 -0.5636,0.479818 -1.443475,1.073636 -3.07233,2.72438 -3.65806,3.707219 -0.18091,0.303557 -0.394105,0.816061 -0.473775,1.138899 -0.13244,0.536687 -0.13343,0.644946 -0.01155,1.263583 0.12798,0.649604 0.3906,1.277749 0.891705,2.13282 0.128735,0.219671 0.20103,0.398691 0.160655,0.397824 -0.04035,-8.5e-4 -0.553945,-0.253809 -1.141265,-0.562092 z"/>
 <path style="opacity:0.1;fill:#8b9cbe" d="M 2,1 C 1.446,1 1,1.446 1,2 v 0.5 c 0,-0.554 0.446,-1 1,-1 h 18 c 0.554,0 1,0.446 1,1 V 2 C 21,1.446 20.554,1 20,1 Z"/>
 <path style="fill:#e03035" d="M 9.986297,18.937906 C 5.2394665,16.446313 3.2310015,13.721676 4.2651215,11.17669 c 0.99345,-2.4448995 4.57524,-4.8891095 10.8720945,-7.4191045 1.362775,-0.547545 3.368201,-1.288655 3.400276,-1.25658 0.01025,0.01025 -0.627305,0.370075 -1.416825,0.799575 -3.507315,1.90798 -7.249935,4.56019 -8.2924205,5.8764395 L 8.5394215,9.541686 9.318982,9.018531 c 1.08136,-0.7256905 2.649265,-1.5744805 4.037325,-2.1856155 1.22469,-0.53921 3.936115,-1.57946 4.11177,-1.577495 0.05588,5e-4 -0.23069,0.181415 -0.636826,0.401755 -2.437674,1.32252 -5.280619,3.5868105 -6.361074,5.0663495 -0.31307,0.428707 -0.323855,0.432597 0.714285,-0.257511 0.406135,-0.269979 1.14017,-0.715346 1.631195,-0.989703 0.93544,-0.5226755 2.89041,-1.4668505 2.938215,-1.4190455 0.0153,0.0153 -0.27356,0.22927 -0.641915,0.475485 -1.50368,1.0051105 -3.518925,2.8097375 -4.176655,3.7401465 -0.194245,0.274775 -0.173385,0.267176 0.53616,-0.195329 0.68371,-0.445666 3.125355,-1.697733 3.31073,-1.697733 0.04485,0 -0.208795,0.215918 -0.5636,0.479818 -1.443475,1.073636 -3.07233,2.72438 -3.65806,3.707219 -0.18091,0.303557 -0.394105,0.816061 -0.473775,1.138899 -0.13244,0.536687 -0.13343,0.644946 -0.01155,1.263583 0.12798,0.649605 0.3906,1.27775 0.891705,2.13282 0.128735,0.219671 0.20103,0.398691 0.160655,0.397824 -0.04035,-8.5e-4 -0.553945,-0.253809 -1.141265,-0.562092 z"/>
 <path style="opacity:0.2" d="m 12.447266,6.0543755 c -0.0165,-0.01655 -0.352984,0.1377079 -0.927735,0.4433594 C 6.5008009,9.166685 4.5090038,11.417546 5.1054688,13.745782 5.3719687,14.786025 6.1261413,15.815983 7.3945312,16.874688 7.8515963,17.256194 8.24301,17.57 8.265625,17.57 c 0.0226,0 -0.258015,-0.299454 -0.625,-0.664062 C 5.723175,15.000881 5.1363125,13.238206 5.8828125,11.624688 6.5862875,10.104177 8.9838726,8.0168755 11.867188,6.4137505 12.279411,6.184553 12.460096,6.067249 12.447266,6.0543755 Z m 0.582031,2.078125 c -0.07476,0.02093 -0.601499,0.3120544 -1.314453,0.7324219 C 8.2101539,10.931323 7.147845,12.40051 7.640625,14.495782 l 0.1601562,0.683594 0.056641,-0.91211 c 0.03075,-0.501695 0.1196787,-1.085382 0.1992187,-1.298828 0.47375,-1.271336 1.7971201,-2.651332 3.9628901,-4.1308594 0.419655,-0.28668 0.835238,-0.5701589 0.923828,-0.6308594 0.08547,-0.058561 0.110854,-0.081195 0.08594,-0.074219 z m -0.544922,2.5039065 c -0.0093,-0.02638 -0.278444,0.14642 -0.806641,0.519531 -1.373205,0.970013 -1.898288,1.706175 -2.064453,2.894531 l -0.04883,0.347657 0.117188,-0.304688 c 0.06407,-0.167743 0.235409,-0.539989 0.380859,-0.828125 0.34524,-0.683917 0.865617,-1.295049 1.669922,-1.957031 0.511305,-0.42083 0.761292,-0.645492 0.751953,-0.671875 z m -0.525391,2.083984 c -0.01632,-0.0032 -0.09501,0.04743 -0.226562,0.136719 -0.71698,0.486656 -1.09979,0.940688 -1.25586,1.496094 -0.044,0.156552 -0.0023,0.1255 0.148438,-0.115235 0.11506,-0.183684 0.49909,-0.6292 0.853516,-0.990234 0.361418,-0.368156 0.507669,-0.521946 0.480468,-0.527344 z"/>
 <path style="fill:#8b9cbe" d="m 12.447266,5.5546875 c -0.0165,-0.01655 -0.352984,0.1377079 -0.927735,0.4433594 -5.0187301,2.66895 -7.0105272,4.9198111 -6.4140622,7.2480471 0.2664999,1.040243 1.0206725,2.070201 2.2890624,3.128906 0.4570651,0.381506 0.8484788,0.695312 0.8710938,0.695312 0.0226,0 -0.258015,-0.299454 -0.625,-0.664062 C 5.723175,14.501193 5.1363125,12.738518 5.8828125,11.125 6.5862875,9.604489 8.9838726,7.5171875 11.867188,5.9140625 12.279411,5.684865 12.460096,5.567561 12.447266,5.5546875 Z m 0.582031,2.078125 c -0.07476,0.02093 -0.601499,0.3120544 -1.314453,0.7324219 C 8.2101539,10.431635 7.147845,11.900822 7.640625,13.996094 l 0.1601562,0.683594 0.056641,-0.91211 c 0.03075,-0.501695 0.1196787,-1.085382 0.1992187,-1.298828 0.47375,-1.271336 1.7971201,-2.651332 3.9628901,-4.1308594 0.419655,-0.28668 0.835238,-0.5701589 0.923828,-0.6308594 0.08547,-0.058561 0.110854,-0.081195 0.08594,-0.074219 z m -0.544922,2.5039065 c -0.0093,-0.02638 -0.278444,0.14642 -0.806641,0.519531 -1.373205,0.970013 -1.898288,1.706175 -2.064453,2.894531 l -0.04883,0.347657 0.117188,-0.304688 c 0.06407,-0.167743 0.235409,-0.539989 0.380859,-0.828125 0.34524,-0.683917 0.865617,-1.295049 1.669922,-1.957031 0.511305,-0.42083 0.761292,-0.645492 0.751953,-0.671875 z m -0.525391,2.083984 c -0.01632,-0.0032 -0.09501,0.04743 -0.226562,0.136719 -0.71698,0.486656 -1.09979,0.940688 -1.25586,1.496094 -0.044,0.156552 -0.0023,0.1255 0.148438,-0.115235 0.11506,-0.183684 0.49909,-0.6292 0.853516,-0.990234 0.361418,-0.368156 0.507669,-0.521946 0.480468,-0.527344 z"/>
</svg>
