<svg xmlns="http://www.w3.org/2000/svg" width="22" height="22" version="1.1">
 <path style="opacity:0.2" d="M 7.2692761,2.5 A 1.6155455,1.6365273 0 0 0 5.8739571,3.3117895 L 0.2201129,13.129972 a 1.6155455,1.6365273 0 0 0 0.051269,1.732244 l 3.2307683,4.909091 A 1.6155455,1.6365273 0 0 0 4.8462001,20.5 l 11.3076879,0 a 1.6155455,1.6365273 0 0 0 1.34405,-0.728693 l 3.230768,-4.909091 a 1.6155455,1.6365273 0 0 0 0.05127,-1.732244 L 15.126131,3.3117895 A 1.6155455,1.6365273 0 0 0 13.730812,2.5 l -6.4615359,0 z"/>
 <path style="fill:#306ed2" d="m 7.1088121,14 -0.391422,-0.130593 -2.971146,5.401173 0.2062425,0.455982 C 4.2174021,19.904861 4.5283791,19.999982 4.8464371,20 l 11.3072149,0 c 0.540109,4.2e-5 1.044512,-0.273332 1.344188,-0.728516 l 3.230899,-4.909179 C 20.802332,14.249416 20.861823,14.12772 20.905851,14 l -0.02711,-0.378788 -6.452611,0 L 14.203621,14 Z m -6.8915284,0.269531 c 0.011943,0.02177 0.024375,0.04326 0.037287,0.06445 -0.012912,-0.0212 -0.025344,-0.04269 -0.037287,-0.06445 z"/>
 <path style="fill:#05ab5f" d="M 7.2691451,2 C 6.6946371,1.9999219 6.1633081,2.3089143 5.8736876,2.8115235 L 0.2200802,12.629883 c -0.31096399,0.539993 -0.29106869,1.212268 0.051269,1.732422 l 3.230899,4.909179 c 0.118828,0.180416 0.271873,0.335106 0.450238,0.455078 L 13.864803,2 Z"/>
 <path style="opacity:0.2;fill:#8b9cbe" d="M 7.2691451,2 C 6.6946371,1.9999219 6.1633081,2.3089143 5.8736876,2.8115235 L 0.2200802,12.629883 c -0.19163,0.332768 -0.25717739,0.71535 -0.1994841,1.082031 0.029864,-0.201618 0.09445,-0.399638 0.1994842,-0.582031 L 5.8736876,3.3115234 C 6.1633081,2.8089143 6.6946371,2.4999219 7.2691451,2.5 l 6.3163799,0 0.27965,-0.5 -6.5960299,0 z"/>
 <path style="opacity:0.2" d="m 7.2695311,2.5 c -0.02955,4.81e-4 -0.059389,0.00178 -0.088867,0.00391 L 13.791992,14.5 l 6.845703,0 0.09082,-0.137695 a 1.6155455,1.6365273 0 0 0 0.248047,-0.638672 c -0.02894,-0.206604 -0.09031,-0.409127 -0.196289,-0.59375 L 15.125976,3.3115234 C 14.836356,2.8089143 14.304977,2.4999219 13.730469,2.5 l -6.4609379,0 z"/>
 <path style="fill:#ffbc3b" d="m 7.2691451,2 c -0.02955,4.81e-4 -0.059078,0.00178 -0.088556,0.00391 L 13.791534,14 l 7.114317,0 c 0.158842,-0.453249 0.112819,-0.954332 -0.125843,-1.370117 L 15.1264,2.8115235 C 14.83678,2.3089143 14.305452,1.9999219 13.730943,2 Z M 20.903054,14.006836 c -0.01961,0.05607 -0.04258,0.110577 -0.06805,0.164063 0.0256,-0.0534 0.04832,-0.108166 0.06805,-0.164063 z m -0.0783,0.185547 c -0.0288,0.0583 -0.06048,0.115419 -0.09601,0.169921 0.03533,-0.05465 0.06738,-0.11139 0.09601,-0.169921 z m -20.6074683,0.07715 c 0.011943,0.02177 0.024375,0.04326 0.037287,0.06445 -0.012912,-0.0212 -0.025344,-0.04269 -0.037287,-0.06445 z"/>
 <path style="opacity:0.2" d="M 10.497248,8.022461 3.9524866,19.726562 c 0.068092,0.0451 0.139451,0.08493 0.213467,0.119141 L 10.636141,8.274414 10.497248,8.022461 Z M 3.5022486,19.271484 c 0.059169,0.08955 0.126925,0.172965 0.202281,0.249024 -0.075032,-0.07597 -0.143116,-0.159194 -0.202281,-0.249024 z m 0.2050775,0.251953 c 0.073412,0.07369 0.1536355,0.140076 0.2395675,0.198242 -0.086099,-0.05849 -0.1664055,-0.124535 -0.2395675,-0.198242 z"/>
 <path style="opacity:0.2" d="M 10.542966,7.5008255 A 1.0000054,0.8750911 0 0 0 9.635825,7.934055 L 7.8859896,10.559066 6.1361544,13.184077 A 1.0000054,0.8750911 0 0 0 7.000331,14.5 l 3.499669,0 3.49967,0 a 1.0000054,0.8750911 0 0 0 0.864176,-1.315923 L 13.114012,10.559066 11.364177,7.934055 A 1.0000054,0.8750911 0 0 0 10.542966,7.5008255 Z"/>
 <path style="fill:#8b9cbe" d="M 10.542966,7.0008255 A 1.0000054,0.8750911 0 0 0 9.635825,7.434055 L 7.8859896,10.059066 6.1361544,12.684077 A 1.0000054,0.8750911 0 0 0 7.000331,14 L 10.5,14 l 3.49967,0 a 1.0000054,0.8750911 0 0 0 0.864176,-1.315923 L 13.114012,10.059066 11.364177,7.434055 A 1.0000054,0.8750911 0 0 0 10.542966,7.0008255 Z"/>
 <path style="opacity:0.2;fill:#8b9cbe" d="M 7.2691451,2 A 1.6155455,1.6365273 0 0 0 7.1805891,2.00391 L 7.4537151,2.5 13.730943,2.5 A 1.6155455,1.6365273 0 0 1 15.1264,3.3115234 l 5.653608,9.8183596 a 1.6155455,1.6365273 0 0 1 0.199484,0.576171 1.6155455,1.6365273 0 0 0 -0.199484,-1.076171 L 15.1264,2.8115235 A 1.6155455,1.6365273 0 0 0 13.730943,2 L 7.2691451,2 Z"/>
</svg>
