<svg xmlns="http://www.w3.org/2000/svg" width="22" height="22" version="1">
 <path style="opacity:0.2" d="m 11.02871,2.5003746 c -0.906941,-0.00836 -1.7742312,0.126891 -2.5840498,0.3494517 -3.2433327,0.8763028 -5.5964797,3.4993168 -6.4442347,6.64267 -1.744703,0.444836 -2.62296004,2.5454157 -1.497539,4.0614697 l 2.360597,3.17702 10e-4,10e-4 c 0.36069,0.483863 0.891009,0.773372 1.465763,0.921563 0.103917,0.606862 0.297331,1.207627 0.712382,1.681283 0.108699,0.124349 0.228837,0.238462 0.358753,0.340175 2.3419197,1.829375 5.3544975,2.208219 8.0247995,1.470995 3.301113,-0.840926 5.703235,-3.487582 6.565187,-6.669473 1.751151,-0.440585 2.634689,-2.550315 1.502665,-4.068686 L 19.133435,7.2442334 C 18.813116,6.8152516 18.370708,6.4952145 17.864473,6.3257639 c -0.0014,-3.577e-4 -0.0027,-6.861e-4 -0.0041,-0.00101 -0.03793,-0.012343 -0.07713,-0.020293 -0.116851,-0.023709 -0.03099,-0.00867 -0.06303,-0.012091 -0.0943,-0.019588 C 17.543155,5.7135416 17.359966,5.1502429 16.969641,4.6981046 16.858302,4.5687794 16.734699,4.4508277 16.600627,4.3455597 14.939667,3.045704 12.942004,2.5067356 11.03175,2.5003736 Z"/>
 <path style="fill:#d54747" d="M 11.02871,2.000374 C 10.121769,1.992011 9.2544788,2.127265 8.4446602,2.3498257 5.2013275,3.2261285 2.8481805,5.8491425 2.0004255,8.9924965 0.2557225,9.4373323 -0.62253454,11.537912 0.5028865,13.053966 l 2.360597,3.17702 10e-4,10e-4 c 0.36069,0.483863 0.891009,0.773372 1.465763,0.921563 0.103917,0.606862 0.297331,1.207627 0.712382,1.681283 0.108699,0.124349 0.228837,0.238462 0.358753,0.340175 2.3419197,1.829375 5.3544975,2.208219 8.0247995,1.470995 3.301113,-0.840926 5.703235,-3.487582 6.565187,-6.669473 1.751151,-0.440585 2.634689,-2.550315 1.502665,-4.0686857 L 19.133435,6.7442328 C 18.813116,6.315251 18.370708,5.9952139 17.864473,5.8257633 c -0.0014,-3.577e-4 -0.0027,-6.861e-4 -0.0041,-0.00101 -0.03793,-0.012343 -0.07713,-0.020293 -0.116851,-0.023709 -0.03099,-0.00867 -0.06303,-0.012091 -0.0943,-0.019588 C 17.543155,5.213541 17.359966,4.6502423 16.969641,4.198104 16.858302,4.0687788 16.734699,3.9508271 16.600627,3.8455591 14.939667,2.5457034 12.942004,2.006735 11.03175,2.000373 Z"/>
 <path style="opacity:0.2" d="m 10.999976,5.5000003 c -3.3137087,0 -6.0000002,2.6862915 -6.0000002,5.9999997 h -2 l 1.5,2 1.5,2 1.5,-2 1.5,-2 h -2 c 0,-2.2091387 1.790861,-3.9999997 4.0000002,-3.9999997 0.713507,0.00205 1.413478,0.095303 2.027344,0.4589844 0.283853,0.1359327 0.76521,0.4410427 0.972656,0.5410156 0.552285,0 1,-0.4477153 1,-1 -1.92e-4,-0.3698733 -0.204529,-0.7094344 -0.53125,-0.8828125 l 0.002,-0.00195 C 13.457396,5.8925229 12.244543,5.5027869 10.999976,5.5000003 Z m 5,3 -1.5,1.9999997 -1.5,2 h 2 c 0,2.209139 -1.790861,4 -4,4 C 10.286469,16.4979 9.5864978,16.4047 8.972632,16.041016 8.688779,15.905083 8.2074218,15.599973 7.9999758,15.5 c -0.552285,0 -1,0.447715 -1,1 1.92e-4,0.369873 0.204529,0.709434 0.53125,0.882812 l -0.00195,0.002 c 1.0132799,0.722715 2.226133,1.112401 3.4707002,1.115188 3.313709,0 6,-2.686291 6,-6 h 2 l -1.5,-2 z"/>
 <path style="fill:#ffad87" d="M 10.999976,5.0000003 C 7.6862673,5.0000003 4.9999758,7.6862918 4.9999758,11 h -2 l 1.5,2 1.5,2 1.5,-2 1.5,-2 h -2 c 0,-2.2091387 1.790861,-3.9999997 4.0000002,-3.9999997 0.713507,0.00205 1.413478,0.095303 2.027344,0.4589844 0.283853,0.1359327 0.76521,0.4410427 0.972656,0.5410156 0.552285,0 1,-0.4477153 1,-1 -1.92e-4,-0.3698733 -0.204529,-0.7094344 -0.53125,-0.8828125 l 0.002,-0.00195 C 13.457396,5.3925229 12.244543,5.0027869 10.999976,5.0000003 Z m 5,3 -1.5,1.9999997 -1.5,2 h 2 c 0,2.209139 -1.790861,4 -4,4 C 10.286469,15.9979 9.5864978,15.9047 8.972632,15.541016 8.688779,15.405083 8.2074218,15.099973 7.9999758,15 c -0.552285,0 -1,0.447715 -1,1 1.92e-4,0.369873 0.204529,0.709434 0.53125,0.882812 l -0.00195,0.002 C 8.5425557,17.607527 9.7554088,17.997213 10.999976,18 c 3.313709,0 6,-2.686291 6,-6 h 2 l -1.5,-2 z"/>
 <path style="opacity:0.2;fill:#8b9cbe" d="M 11.029273,2.0000003 C 10.122332,1.9916373 9.2551068,2.127049 8.4452883,2.3496097 5.2019556,3.2259125 2.8477308,5.8488338 1.9999758,8.9921878 0.6872519,9.3268843 -0.13123067,10.598376 0.0214602,11.853516 0.1076764,10.777204 0.8629031,9.7821003 1.9999758,9.4921883 2.8477308,6.3488346 5.2019556,3.7259125 8.4452883,2.8496097 9.2551068,2.627049 10.122332,2.4916403 11.029273,2.5000003 h 0.002 c 1.910254,0.00636 3.909353,0.5458474 5.570312,1.8457031 0.134072,0.105268 0.255849,0.2222373 0.367188,0.3515625 0.390325,0.4521383 0.573621,1.0160691 0.679688,1.5839844 0.03127,0.0075 0.06471,0.010861 0.0957,0.019531 0.03972,0.00342 0.07926,0.011094 0.117187,0.023438 0.0014,3.239e-4 0.0025,0.0016 0.0039,0.00195 0.506235,0.1694506 0.94726,0.4889869 1.267578,0.9179687 l 2.361329,3.164062 c 0.280292,0.375954 0.433794,0.788977 0.484375,1.203125 0.04582,-0.576302 -0.09047,-1.174787 -0.484375,-1.7031247 L 19.132788,6.7441409 C 18.81247,6.3151591 18.371445,5.9956228 17.86521,5.8261722 c -0.0014,-3.577e-4 -0.0025,-0.00163 -0.0039,-0.00195 -0.03793,-0.012343 -0.07747,-0.020021 -0.117187,-0.023438 -0.03099,-0.00867 -0.06443,-0.012034 -0.0957,-0.019531 C 17.542346,5.213335 17.359051,4.6494042 16.968726,4.1972659 16.857387,4.0679407 16.73561,3.9509714 16.601538,3.8457034 14.940579,2.5458477 12.94148,2.0063623 11.031226,2.0000003 Z"/>
</svg>
