<svg xmlns="http://www.w3.org/2000/svg" width="22" height="22" version="1">
 <defs>
  <linearGradient id="linearGradient2911-977-39">
   <stop style="stop-color:#ffffe0" offset="0"/>
   <stop style="stop-color:#ffe588;stop-opacity:0" offset="1"/>
  </linearGradient>
 </defs>
 <path style="opacity:0.2" d="M 1.5,2.5 C 0.669,2.5 0,3.1897166 0,4.0458985 V 11 17.954101 C 0,18.810283 0.669,19.5 1.5,19.5 h 19 c 0.831,0 1.5,-0.689717 1.5,-1.545899 V 11 4.0458985 C 22,3.1897166 21.331,2.5 20.5,2.5 Z"/>
 <path style="fill:#8dc5ff" d="M 1.5,2 C 0.669,2 0,2.6897167 0,3.5458985 V 10.5 H 22 V 3.5458985 C 22,2.6897167 21.331,2 20.5,2 Z"/>
 <path style="fill:#ffd948" d="M 1.5,19 C 0.669,19 0,18.310283 0,17.454101 V 10.5 h 22 v 6.954101 C 22,18.310283 21.331,19 20.5,19 Z"/>
 <path style="opacity:0.1;fill-rule:evenodd" d="M 7.963207,4.5006136 C 6.0300675,4.5378872 4.356781,6.2722552 5.321001,10.031314 3.6317345,10.359282 2.3477744,12.259409 3.3560704,16.043963 5.6031875,13.747643 6.107683,15.250401 7.891427,14.894112 8.337557,15.801607 9.314105,16.73708 11.00924,17.5 c 0.24559,-0.681935 1.281671,-1.707243 1.966884,-2.730197 1.956433,0.89122 2.898903,-0.52989 4.830779,2.285438 1.993059,-3.222959 1.230569,-5.322257 -0.397478,-6.144089 C 18.909299,6.6061306 14.53668,4.8781815 11.366678,6.4396193 10.550177,5.1550097 9.205885,4.4766515 7.963207,4.5006136 Z M 7.840155,9.030224 c 0.501948,0.01646 0.9626505,0.179742 1.555733,0.189011 2.192775,1.8248 3.361628,1.296638 4.619833,1.607346 -0.58806,0.218698 -1.154612,0.55397 -1.651929,1.015354 C 11.90706,11.665527 11.305024,11.523483 10.52582,11.425197 9.914149,11.348037 9.35841,11.445167 8.8978185,11.666171 8.0653325,10.517994 6.8446695,9.929935 5.72678,9.981896 6.655527,9.185954 7.2764425,9.01174 7.840155,9.030224 Z"/>
 <path style="fill:#777f23;fill-rule:evenodd" d="M 7.963207,4.0006136 C 6.0300675,4.0378872 4.356781,5.7722552 5.321001,9.531314 3.6317345,9.859282 2.3477744,11.759409 3.3560704,15.543963 5.6031875,13.247643 6.107683,14.750401 7.891427,14.394112 8.337557,15.301607 9.314105,16.23708 11.00924,17 c 0.24559,-0.681935 1.281671,-1.707243 1.966884,-2.730197 1.956433,0.89122 2.898903,-0.52989 4.830779,2.285438 1.993059,-3.222959 1.230569,-5.322257 -0.397478,-6.144089 C 18.909299,6.1061306 14.53668,4.3781815 11.366678,5.9396193 10.550177,4.6550097 9.205885,3.9766515 7.963207,4.0006136 Z M 7.840155,8.5302239 c 0.501948,0.016458 0.9626505,0.1797416 1.555733,0.1890112 2.192775,1.8247999 3.361628,1.2966379 4.619833,1.6073459 -0.58806,0.218698 -1.154612,0.55397 -1.651929,1.015354 C 11.90706,11.165527 11.305024,11.023483 10.52582,10.925197 9.914149,10.848037 9.35841,10.945167 8.8978185,11.166171 8.0653325,10.017994 6.8446695,9.429935 5.72678,9.481896 6.655527,8.685954 7.2764425,8.51174 7.840155,8.5302239 Z"/>
 <path style="opacity:0.1" d="M 13.396545,17.452968 C 12.664997,17.954799 10.783461,14.291206 9.465929,13.573012 8.0293562,13.925227 6.261948,16.897643 5.5389823,16.353974 4.7121745,15.732216 5.7274457,11.898368 6.2035416,11.060058 6.8171512,9.979615 2.6712807,9.894145 3.020982,8.9799536 3.3659793,8.0780463 6.7692754,7.2451202 7.8409033,7.0896397 8.2295345,6.0180461 9.23619,4.330747 10.613242,4.5137334 c 1.377055,0.182987 2.144922,2.2526431 2.430945,3.3141165 1.431007,0.2529202 3.775634,1.2564011 3.951325,2.2269291 0.173327,0.957478 -4.734593,0.791535 -4.109262,1.902127 0.456521,0.810791 1.058134,4.961654 0.510294,5.496062 z"/>
 <path style="fill:#ff793f" d="M 13.396545,16.952968 C 12.664997,17.454799 10.783461,13.791206 9.465929,13.073012 8.0293562,13.425227 6.261948,16.397643 5.5389823,15.853974 4.7121745,15.232216 5.7274457,11.398368 6.2035416,10.560058 6.8171512,9.479615 2.6712807,9.394145 3.020982,8.4799536 3.3659793,7.5780463 6.7692754,6.7451202 7.8409033,6.5896397 8.2295345,5.5180461 9.23619,3.830747 10.613242,4.0137334 c 1.377055,0.182987 2.144922,2.2526431 2.430945,3.3141165 1.431007,0.2529202 3.775634,1.2564011 3.951325,2.2269291 0.173327,0.957478 -4.734593,0.791535 -4.109262,1.902127 0.456521,0.810791 1.058134,4.961654 0.510294,5.496062 z"/>
 <ellipse style="opacity:0.2" cx="10.681" cy="8.403" rx="2.501" ry="1.999" transform="matrix(0.99396227,0.10972242,-0.13285526,0.99113545,0,0)"/>
 <path style="fill:none;stroke:#ffffe0;stroke-width:0.25;stroke-linecap:round" d="M 9.999998,10 11.033674,7.7476805"/>
 <path style="fill:none;stroke:#ffffe0;stroke-width:0.25;stroke-linecap:round" d="M 8.4999982,10 7.5237803,8.283615"/>
 <path style="fill:none;stroke:#ffffe0;stroke-width:0.25;stroke-linecap:round" d="M 9.207367,9 9.311692,5.905727"/>
 <path style="opacity:0.2;fill:#8b9cbe" d="M 1.5,2 C 0.669,2 0,2.6897167 0,3.5458985 v 0.5 C 0,3.1897166 0.669,2.5 1.5,2.5 h 19 c 0.831,0 1.5,0.6897166 1.5,1.5458985 v -0.5 C 22,2.6897167 21.331,2 20.5,2 Z"/>
</svg>
