<svg xmlns="http://www.w3.org/2000/svg" width="22" height="22" version="1">
 <rect style="opacity:0.2" width="20" height="11" x="1" y="5.5" rx="1.25" ry=".982"/>
 <rect style="fill:#8e8e8e" width="20" height="11" x="1" y="5" rx="1.25" ry=".982"/>
 <path style="opacity:0.2" d="m 5.0086875,7.5000003 11.9826255,0 c 0.553197,0 1.089497,0.3968457 0.998551,0.875 L 16.991313,13.625 c -0.09095,0.478154 -0.445354,0.875 -0.998552,0.875 l -9.9855214,0 c -0.553198,0 -0.907607,-0.396846 -0.9985521,-0.875 L 4.0101355,8.3750003 c -0.090945,-0.4781543 0.445354,-0.875 0.998552,-0.875 z"/>
 <rect style="opacity:0.2" width="4" height="4" x="0" y="9.5" rx=".909" ry=".858"/>
 <rect style="fill:#b3b3b3" width="4" height="4" x="0" y="9" rx=".909" ry=".858"/>
 <rect style="opacity:0.2" width="4" height="4" x="18" y="9.5" rx=".909" ry=".858"/>
 <rect style="fill:#b3b3b3" width="4" height="4" x="18" y="9" rx=".909" ry=".858"/>
 <circle style="opacity:0.5" cx="2" cy="11" r="1"/>
 <circle style="opacity:0.5" cx="20" cy="11" r="1"/>
 <path style="opacity:0.1;fill:#8b9cbe" d="M 0.9091797,9 C 0.4055166,9 0,9.383067 0,9.858399 l 0,0.5 C 0,9.883067 0.4055166,9.5 0.9091797,9.5 l 2.1816406,0 C 3.5944833,9.5 4,9.883067 4,10.358399 l 0,-0.5 C 4,9.383067 3.5944833,9 3.0908203,9 L 0.9091797,9 Z"/>
 <path style="opacity:0.1;fill:#8b9cbe" d="M 18.909179,9 C 18.405516,9 18,9.383067 18,9.858399 l 0,0.5 C 18,9.883067 18.405516,9.5 18.909179,9.5 l 2.181641,0 C 21.594483,9.5 22,9.883067 22,10.358399 l 0,-0.5 C 22,9.383067 21.594483,9 21.09082,9 l -2.181641,0 z"/>
 <path style="fill:#2bd677" d="M 5.0086875,7 16.991313,7 c 0.553197,0 1.089497,0.3968457 0.998551,0.875 l -0.998551,5.25 C 16.900367,13.603154 16.545959,14 15.992761,14 L 6.0072396,14 C 5.4540416,14 5.0996326,13.603154 5.0086875,13.125 L 4.0101355,7.875 C 3.9191903,7.3968457 4.4554895,7 5.0086875,7 Z"/>
 <path style="opacity:0.2" d="m 6,9.5 0,1 1,0 0,-1 -1,0 z m 3,0 0,1 1,0 0,-1 -1,0 z m 3,0 0,1 1,0 0,-1 -1,0 z m 3,0 0,1 1,0 0,-1 -1,0 z m -8,2 0,1 1,0 0,-1 -1,0 z m 3,0 0,1 1,0 0,-1 -1,0 z m 3,0 0,1 1,0 0,-1 -1,0 z"/>
 <path style="fill:#8b9cbe" d="m 6,9 0,1 1,0 0,-1 -1,0 z m 3,0 0,1 1,0 0,-1 -1,0 z m 3,0 0,1 1,0 0,-1 -1,0 z m 3,0 0,1 1,0 0,-1 -1,0 z m -8,2 0,1 1,0 0,-1 -1,0 z m 3,0 0,1 1,0 0,-1 -1,0 z m 3,0 0,1 1,0 0,-1 -1,0 z"/>
 <path style="opacity:0.1;fill:#8b9cbe" d="M 2.25,5 C 1.5575,5 1,5.4383148 1,5.9824219 l 0,0.5 C 1,5.9383148 1.5575,5.5 2.25,5.5 l 17.5,0 C 20.4425,5.5 21,5.9383148 21,6.4824219 l 0,-0.5 C 21,5.4383148 20.4425,5 19.75,5 L 2.25,5 Z"/>
 <path style="opacity:0.1;fill:#8b9cbe" d="M 5.0078125,7 C 4.4546145,7 3.9188204,7.3968457 4.0097656,7.875 l 0.035156,0.1835938 C 4.1742345,7.7343842 4.5837898,7.5 5.0078125,7.5 l 11.9843755,0 c 0.424021,0 0.833578,0.2343842 0.96289,0.5585938 L 17.990234,7.875 C 18.08118,7.3968457 17.545385,7 16.992188,7 L 5.0078125,7 Z"/>
</svg>
