<svg xmlns="http://www.w3.org/2000/svg" width="22" height="22" version="1">
 <rect style="opacity:0.2" width="19" height="19" x="1" y="1.5" rx=".95" ry=".95"/>
 <rect style="fill:#17191e" width="19" height="19" x="1" y="1" rx=".95" ry=".95"/>
 <path style="opacity:0.2;fill:#57c400" d="M 4,1 V 4 H 1 V 5 H 4 V 8 H 1 v 1 h 3 v 3 H 1 v 1 h 3 v 3 H 1 v 1 h 3 v 3 h 1 v -3 h 3 v 3 h 1 v -3 h 3 v 3 h 1 v -3 h 3 v 3 h 1 v -3 h 3 v -1 h -3 v -3 h 3 V 12 H 17 V 9 h 3 V 8 H 17 V 5 h 3 V 4 H 17 V 1 H 16 V 4 H 13 V 1 H 12 V 4 H 9 V 1 H 8 V 4 H 5 V 1 Z M 5,5 H 8 V 8 H 5 Z m 4,0 h 3 V 8 H 9 Z m 4,0 h 3 V 8 H 13 Z M 5,9 h 3 v 3 H 5 Z m 4,0 h 3 v 3 H 9 Z m 4,0 h 3 v 3 h -3 z m -8,4 h 3 v 3 H 5 Z m 4,0 h 3 v 3 H 9 Z m 4,0 h 3 v 3 h -3 z"/>
 <path style="opacity:0.2;fill:none;stroke:#000000;stroke-linecap:round;stroke-linejoin:round" d="M 18.5,17.99995 H 16.214822 L 13,3.99995 h -2.5 m -8,14 H 5.285178 L 8.5,3.99995 H 11"/>
 <path style="fill:none;stroke:#85fc0e;stroke-linecap:round;stroke-linejoin:round" d="M 18.5,17.5 H 16.214822 L 13,3.5 h -2.5 m -8,14 H 5.285178 L 8.5,3.5 H 11"/>
 <path style="opacity:0.1;fill:#8b9cbe" d="M 1.9492188,1 C 1.4229187,1 1,1.4229187 1,1.9492188 v 0.5 C 1,1.9229187 1.4229187,1.5 1.9492188,1.5 H 19.050781 C 19.577081,1.5 20,1.9229187 20,2.4492188 v -0.5 C 20,1.4229187 19.577081,1 19.050781,1 Z"/>
 <path style="opacity:0.2;fill:#8b9cbe" d="M 8.5,3 A 0.50005,0.50005 0 0 0 8.0117188,3.3886719 L 4.8867188,17 H 2.5 A 0.50005,0.50005 0 0 0 2.0605469,17.75 0.50005,0.50005 0 0 1 2.5,17.5 h 2.3867188 l 3.125,-13.6113281 A 0.50005,0.50005 0 0 1 8.5,3.5 h 2 H 11 11.03516 13 a 0.50005,0.50005 0 0 1 0.488281,0.3886719 L 16.613281,17.5 H 18.5 A 0.50005,0.50005 0 0 1 18.939453,17.75 0.50005,0.50005 0 0 0 18.5,17 h -1.886719 l -3.125,-13.6113281 A 0.50005,0.50005 0 0 0 13,3 H 11.035156 11 10.5 Z"/>
</svg>
