<svg width="22" height="22" version="1.1" xmlns="http://www.w3.org/2000/svg">
 <g transform="translate(-1,-1)">
  <path d="m12 2c-5.5115 0-10 4.489-10 10 0 5.512 4.489 10 10 10s10-4.488 10-10c0-5.511-4.488-10-10-10z" style="fill:#2298e2"/>
  <path d="m12 4.5a8 8 0 0 0-8 8 8 8 0 0 0 8 8 8 8 0 0 0 8-8 8 8 0 0 0-8-8zm-3.209 2.3554h3.0654l3.5196 8.951 1.5478-0.5039 0.5156 1.7334-3.338 0.964-2.245-5.6915-3.292 5.1875h-2.0644l4.5976-7.425-0.5156-1.4668h-1.791v-1.749z" style="opacity:.2"/>
  <path d="m12 4a8 8 0 0 0-8 8 8 8 0 0 0 8 8 8 8 0 0 0 8-8 8 8 0 0 0-8-8zm-3.209 2.3555h3.0655l3.5195 8.951 1.548-0.504 0.5155 1.7335-3.338 0.964-2.245-5.6915-3.292 5.1875h-2.0645l4.5975-7.4245-0.5155-1.467h-1.791z" style="fill:#8b9cbe"/>
  <path d="M 12,2 C 6.4885,2 2,6.489 2,12 2,12.084 2.0038,12.166 2.0058,12.25 2.1395,6.854 6.5725,2.5 12,2.5 c 5.4274,0 9.8605,4.354 9.994,9.75 C 21.996,12.1665 22,12.084 22,12 22,6.489 17.5115,2 12,2 Z" style="fill:#8b9cbe;opacity:.2"/>
  <path d="m2.0058 12.25c-2e-3 0.084-0.0058 0.166-0.0058 0.25 0 5.512 4.489 10 10 10s10-4.4885 10-10c0-0.084-4e-3 -0.1665-6e-3 -0.25-0.134 5.396-4.566 9.75-9.994 9.75-5.4275 0-9.8605-4.354-9.994-9.75z" style="opacity:.2"/>
 </g>
</svg>
