<svg xmlns="http://www.w3.org/2000/svg" width="22" height="22" version="1">
 <path style="opacity:0.2" d="M 6.5038146,7.0038177 5.4970132,8.1293914 13.681245,16.009787 c 0.684986,2.090278 2.051193,3.583614 3.481682,5.021577 0.51746,0.559321 0.535503,0.649457 1.086213,0.09875 l 1.190484,-1.190484 1.190484,-1.190485 c 0.55071,-0.55071 0.460574,-0.568753 -0.09875,-1.086212 -1.437963,-1.430489 -2.931989,-2.796006 -5.022267,-3.480992 L 7.6293883,5.9970163 Z"/>
 <path style="fill:#69787e" d="M 6.5038146,6.5038162 5.4970132,7.62939 13.681245,15.509786 c 0.684986,2.090278 2.051193,3.583614 3.481682,5.021577 0.51746,0.55932 0.535503,0.649456 1.086213,0.09875 l 1.190484,-1.190484 1.190484,-1.190484 c 0.55071,-0.55071 0.460574,-0.568753 -0.09875,-1.086213 -1.437963,-1.430489 -2.931989,-2.796006 -5.022267,-3.480991 L 7.6293883,5.4970149 Z"/>
 <path style="fill:#394f63" d="M 6.5034941,6.5036612 7.6289818,5.4972184 15.509011,13.681485 c 2.090278,0.684986 3.584391,2.051304 5.022353,3.481793 0.559321,0.51746 0.649458,0.535055 0.09875,1.085766 l -1.19077,1.190465 z"/>
 <path style="opacity:0.1;fill:#8b9cbe" d="M 7.6290738,5.4970239 6.5030941,6.5038622 6.7667668,6.767535 7.6290738,5.9970253 15.508979,14.181618 c 2.090279,0.684986 3.584513,2.050967 5.022475,3.481456 0.145741,0.134833 0.257922,0.235083 0.336915,0.320313 0.238992,-0.301611 0.109661,-0.407161 -0.336915,-0.820315 -1.437962,-1.430489 -2.932196,-2.79647 -5.022475,-3.481455 z"/>
 <rect style="opacity:0.2" width="12.617" height="4.206" x="-6.66" y="7.44" rx="1.083" ry="1.083" transform="rotate(-45)"/>
 <rect style="fill:#f2654f" width="12.617" height="4.206" x="-6.31" y="7.09" rx="1.083" ry="1.083" transform="rotate(-45)"/>
 <path style="opacity:0.1" d="M 10.429715,2.0094747 1.5097676,10.929422 2.5703177,11.989972 11.490265,3.0700248 Z"/>
 <path style="fill:#69787e" d="M 10.429715,1.5097083 1.5097676,10.429655 2.5703177,11.490205 11.490265,2.5702583 Z"/>
 <path style="fill:#4b565a" d="M 6.0263817,3.9999491 4.0000089,6.0263219 V 8.9999634 H 6.9736504 L 9.0000232,6.9735906 V 3.9999491 Z"/>
 <path style="opacity:0.2" d="m 8.590732,4.5794507 -0.3427899,0.342791 0.3427899,0.34279 0.342791,-0.34279 z m -0.6855809,0.685581 -0.34279,0.342791 0.34279,0.34279 0.342791,-0.34279 z m -0.6855805,0.685581 -0.34279,0.3427904 0.34279,0.34279 0.3427905,-0.34279 z m -0.685581,0.6855804 -0.3427899,0.342791 0.3427899,0.34279 0.342791,-0.34279 z m -0.6855809,0.685581 -0.3437375,0.342791 0.3437375,0.3437374 0.342791,-0.3437374 z m -0.6865275,0.6865284 -0.342791,0.34279 0.342791,0.342791 0.34279,-0.342791 z m -0.6855804,0.685581 -0.3427915,0.3427898 0.3427915,0.342791 0.3427894,-0.342791 z"/>
 <path style="fill:#40c900" d="m 8.590732,4.0794493 -0.3427899,0.342791 0.3427899,0.34279 0.342791,-0.34279 z m -0.6855809,0.685581 -0.34279,0.3427909 0.34279,0.34279 0.342791,-0.34279 z m -0.6855805,0.6855809 -0.34279,0.3427905 0.34279,0.34279 0.3427905,-0.34279 z M 6.5339896,6.1361917 6.1911997,6.4789827 6.5339896,6.8217726 6.8767806,6.4789827 Z M 5.8484087,6.8217726 5.5046712,7.1645636 5.8484087,7.5083011 6.1911997,7.1645636 Z m -0.6865275,0.6865285 -0.342791,0.34279 0.342791,0.342791 0.34279,-0.342791 z M 4.4763008,8.1938821 4.1335093,8.5366715 4.4763008,8.879463 4.8190902,8.5366715 Z"/>
 <path style="opacity:0.2;fill:#8b9cbe" d="m 9.4736572,0.99994052 c -0.27679,0 -0.5535362,0.10626948 -0.7656268,0.31836028 L 1.3183606,8.7079705 C 1.0418732,8.9844578 0.9482778,9.3705433 1.032227,9.7235983 1.0771441,9.5352643 1.1708524,9.3554803 1.3183606,9.2079723 L 8.7080304,1.8183022 c 0.4241808,-0.4241815 1.1070728,-0.4241815 1.5312546,0 l 1.442386,1.442387 c 0.147695,0.1476941 0.24129,0.3270311 0.286134,0.5156264 0.08425,-0.3532477 -0.0095,-0.7389546 -0.286134,-1.0156279 L 10.239285,1.3183008 C 10.027193,1.10621 9.7504472,0.99994052 9.4736572,0.99994052 Z"/>
</svg>
