<svg xmlns="http://www.w3.org/2000/svg" width="22" height="22" version="1">
 <circle style="opacity:0.2" cx="11" cy="11.5" r="10"/>
 <circle style="fill:#595f93" cx="11" cy="11" r="10"/>
 <path style="opacity:0.1;fill:#8b9cbe" d="M 11,1 A 10,10 0 0 0 1,11 10,10 0 0 0 1.0107422,11.291016 10,10 0 0 1 11,1.5 10,10 0 0 1 20.989258,11.208985 10,10 0 0 0 21,11 10,10 0 0 0 11,1 Z"/>
 <path style="opacity:0.2" d="M 6.592842,3.5009765 C 6.515274,3.5064465 6.4190395,3.5413415 6.28131,3.6083985 5.508513,3.9846375 4.6488335,5.076415 4.275398,6.1552735 3.942388,7.117339 3.9101437,8.1719665 4.186528,9.029297 c 0.3172465,0.954536 1.0297635,1.762712 1.788077,2.435547 0.219779,0.479843 -0.088667,0.851802 0.052736,2.131836 0.098021,0.887319 0.1451755,1.19104 0.2480535,1.601562 0.2745515,2.230554 1.7247105,3.3015 4.7247905,3.301758 3.000078,-2.58e-4 4.449868,-1.071204 4.72442,-3.301758 0.102878,-0.410522 0.150032,-0.714243 0.248053,-1.601562 0.141403,-1.280034 -0.167043,-1.651993 0.05274,-2.131836 0.758313,-0.672835 1.471199,-1.481011 1.788446,-2.435547 0.276385,-0.8573305 0.24414,-1.911958 -0.08887,-2.8740235 -0.373435,-1.0788585 -1.233115,-2.170636 -2.005912,-2.546875 -0.13773,-0.067056 -0.233963,-0.1019525 -0.311532,-0.107422 -0.07757,-0.00547 -0.135697,0.01934 -0.198246,0.072265 0,0 0.529806,0.543844 0.588882,1.078125 -0.110893,0.3898765 -0.85842,0.3271485 -0.85842,0.3271485 0,-5e-7 1.152321,1.06164 1.355503,1.8876955 0.163641,0.6940115 0.07502,1.9763215 -0.694354,2.2978525 0,0 -1.914863,-0.6640635 -4.600706,-0.6640635 C 8.314341,8.5 6.399477,9.164063 6.399477,9.164063 5.630106,8.842532 5.5414825,7.5602225 5.705123,6.866211 5.9083065,6.0401555 7.0606275,4.978515 7.0606275,4.9785155 c 0,0 -0.7475275,0.062728 -0.858421,-0.3271485 C 6.261283,4.117086 6.791089,3.573242 6.791089,3.573242 6.7285395,3.520318 6.6704105,3.4955047 6.592842,3.5009765 Z"/>
 <path style="fill:#8b9cbe" d="M 6.592842,3.0009765 C 6.5152735,3.006446 6.4190395,3.041342 6.28131,3.1083984 5.508513,3.4846375 4.6488335,4.576415 4.275398,5.6552735 3.942388,6.617339 3.9101437,7.6719665 4.186528,8.529297 c 0.3172465,0.954536 1.0297635,1.762712 1.788077,2.435547 0.219779,0.479843 -0.088667,0.851802 0.052736,2.131836 0.098021,0.887319 0.1451755,1.19104 0.2480535,1.601562 0.2745515,2.230554 1.7247105,3.3015 4.7247905,3.301758 3.000078,-2.58e-4 4.449868,-1.071204 4.72442,-3.301758 0.102878,-0.410522 0.150032,-0.714243 0.248053,-1.601562 0.141403,-1.280034 -0.167043,-1.651993 0.05274,-2.131836 0.758313,-0.672835 1.471199,-1.481011 1.788446,-2.435547 0.276385,-0.8573305 0.24414,-1.911958 -0.08887,-2.8740235 C 17.351535,4.576415 16.491855,3.4846375 15.719059,3.1083984 15.581329,3.0413418 15.485095,3.006446 15.407527,3.0009765 c -0.07757,-0.00547 -0.135697,0.019341 -0.198247,0.072266 0,0 0.529806,0.5438438 0.588883,1.0781248 -0.110894,0.3898765 -0.858421,0.3271485 -0.858421,0.3271485 0,-5e-7 1.152321,1.06164 1.355504,1.8876955 0.163641,0.6940115 0.07502,1.9763205 -0.694354,2.2978517 0,0 -1.914864,-0.6640627 -4.600707,-0.6640627 -2.685844,0 -4.600708,0.6640627 -4.600708,0.6640627 C 5.630106,8.3425315 5.5414825,7.0602225 5.705123,6.366211 5.9083065,5.5401555 7.0606275,4.478515 7.0606275,4.4785155 c 0,0 -0.7475275,0.062728 -0.858421,-0.3271485 C 6.261283,3.617086 6.791089,3.0732422 6.791089,3.0732422 6.7285395,3.020318 6.6704105,2.9955047 6.592842,3.0009765 Z"/>
 <ellipse style="fill:#17191e" cx="18.623" cy="6.667" rx="1.445" ry="1.795" transform="matrix(0.88238941,0.47051985,-0.43981122,0.89809025,0,0)"/>
 <ellipse id="ellipse898" style="fill:#17191e" cx="-1.147" cy="17.025" rx="1.445" ry="1.795" transform="matrix(-0.88238941,0.47051985,0.43981122,0.89809025,0,0)"/>
</svg>
