<svg xmlns="http://www.w3.org/2000/svg" width="22" height="22" version="1.1">
 <path style="opacity:0.2" d="M 4.8102822,20.352053 C 2.0079464,18.821555 1.8896458,18.727159 2.0428131,18.143614 3.3884813,16.380542 4.9263523,15.159649 6.9816329,14.5 l 0.7967342,0.603412 c 1.0033614,0.759903 1.4252189,1.077375 2.6584359,1.087524 1.237752,0.01019 1.229484,-0.250726 2.383388,-1.049371 l 0.925618,-0.640643 c 1.640448,0.202371 2.857941,1.161097 3.944924,2.170004 1.922194,1.787833 1.917997,1.799369 -1.295934,3.564423 -0.894463,0.49123 -1.725418,0.925721 -2.243492,1.177324 C 13.579745,21.754457 13.511381,21.007218 13.186701,20.64754 12.708933,20.199574 11.82499,19.604627 10.5,19.604627 c -1.444506,0 -2.3158026,0.707119 -2.7257045,1.160002 -0.2933456,0.486872 -0.4707741,0.819015 -0.8716182,0.653496 -0.5104282,-0.232568 -1.283509,-0.624299 -2.0923951,-1.066072 z"/>
 <path style="fill:#666666" d="M 4.8102822,19.852053 C 2.0079464,18.321555 1.8896458,18.227159 2.0428131,17.643614 3.3884813,15.880542 4.9263523,14.659649 6.9816329,14 l 0.7967342,0.603412 c 1.0033614,0.759903 1.4252189,1.077375 2.6584359,1.087524 1.237752,0.01019 1.229484,-0.250726 2.383388,-1.049371 l 0.925618,-0.640643 c 1.640448,0.202371 2.857941,1.161097 3.944924,2.170004 1.922194,1.787833 1.917997,1.799369 -1.295934,3.564423 -0.894463,0.49123 -1.725418,0.925721 -2.243492,1.177324 C 13.579745,21.254457 13.511381,20.507218 13.186701,20.14754 12.708933,19.699574 11.82499,19.104627 10.5,19.104627 c -1.444506,0 -2.3158026,0.707119 -2.7257045,1.160002 -0.2933456,0.486872 -0.4707741,0.819015 -0.8716182,0.653496 -0.5104282,-0.232568 -1.283509,-0.624299 -2.0923951,-1.066072 z"/>
 <path style="opacity:0.2" d="M 1.1258169,14.38049 C 1.0566219,14.309838 1.0000093,13.028558 1.0000093,11.533199 l 0,-2.7188349 0.8864583,-0.3887367 C 3.4002204,7.7618064 4.2646172,6.689224 4.0451347,5.1013506 3.9920663,4.7174427 4.0036258,4.3151155 4.0708652,4.2072897 4.228109,3.9549991 8.333274,1.5000013 8.6233719,1.5000013 c 0.1206945,0 0.292221,0.093561 0.3811711,0.2079134 0.570611,0.7335555 1.153398,4.3691075 0.956349,5.4106474 C 9.872224,7.5872284 9.734833,7.7127459 8.9763951,8.0179849 7.9077478,8.4480683 7.0110067,9.3242019 6.527484,10.410625 6.2376514,11.06184 6.1787776,10.599775 6.2256577,11.61628 l 0.058238,1.262837 -0.5607199,0.375341 C 4.5142157,14.063719 1.5311683,14.794361 1.1258392,14.38049 Z"/>
 <path style="fill:#7f7f7f" d="M 1.1258169,13.88049 C 1.0566219,13.809838 1.0000093,12.528558 1.0000093,11.033199 l 0,-2.7188361 0.8864583,-0.3887375 C 3.4002204,7.2618044 4.2646172,6.189222 4.0451347,4.6013486 3.9920663,4.2174407 4.0036258,3.8151135 4.0708652,3.7072877 4.228109,3.4549971 8.333274,0.99999929 8.6233719,0.99999929 c 0.1206945,0 0.292221,0.093561 0.3811711,0.20791341 0.570611,0.7335555 1.153398,4.3691075 0.956349,5.4106474 C 9.872224,7.0872264 9.734833,7.2127439 8.9763951,7.5179829 7.9077478,7.9480663 7.0110067,8.8242018 6.527484,9.9106249 6.2376514,10.56184 6.1787776,10.099775 6.2256577,11.11628 l 0.058238,1.262837 -0.5607199,0.375341 C 4.5142157,13.563719 1.5311683,14.294361 1.1258392,13.88049 Z"/>
 <path style="opacity:0.2" d="M 19.874192,14.380491 C 19.943387,14.30984 20,13.028558 20,11.533199 L 20,8.8143651 19.113542,8.4256276 c -1.513754,-0.663821 -2.33016,-1.7364033 -2.110678,-3.3242767 0.05307,-0.3839079 0.04151,-0.786235 -0.02573,-0.8940609 -0.157247,-0.2522906 -4.3104,-2.7072882 -4.600499,-2.7072882 -0.120695,0 -0.29222,0.093561 -0.381171,0.2079133 -0.57061,0.7335555 -1.153398,4.3691074 -0.956349,5.4106472 0.08867,0.4686664 0.226059,0.5941838 0.984497,0.8994228 1.068647,0.4300834 1.965388,1.3062168 2.44891,2.3926399 0.289833,0.651215 0.348706,0.18915 0.301827,1.205655 l -0.05823,1.262838 0.56072,0.37534 c 1.208961,0.809261 4.192008,1.539903 4.597336,1.126033 z"/>
 <path style="fill:#999999" d="M 19.874192,13.880491 C 19.943387,13.80984 20,12.528558 20,11.033199 L 20,8.3143631 19.113542,7.9256256 c -1.513754,-0.663821 -2.33016,-1.7364033 -2.110678,-3.3242767 0.05307,-0.3839079 0.04151,-0.786235 -0.02573,-0.8940609 -0.157247,-0.2522906 -4.3104,-2.70728821 -4.600499,-2.70728821 -0.120695,0 -0.29222,0.093561 -0.381171,0.20791331 -0.57061,0.7335555 -1.153398,4.3691074 -0.956349,5.4106472 0.08867,0.4686664 0.226059,0.5941838 0.984497,0.8994228 1.068647,0.4300834 1.965388,1.3062187 2.44891,2.3926418 0.289833,0.6512151 0.348706,0.1891501 0.301827,1.2056551 l -0.05823,1.262838 0.56072,0.37534 c 1.208961,0.809261 4.192008,1.539903 4.597336,1.126033 z"/>
 <circle style="opacity:0.2" cx="10.5" cy="12" r="4.5"/>
 <circle style="fill:#8b9cbe" cx="10.5" cy="11.5" r="4.5"/>
 <path style="opacity:0.2;fill:#8b9cbe" d="m 8.6230469,0.99999989 c -0.2900979,0 -4.3954906,2.45474071 -4.5527344,2.70703121 -0.056273,0.09024 -0.062125,0.3954887 -0.035156,0.7148438 0.00986,-0.081644 0.014148,-0.1811543 0.035156,-0.2148438 0.1572438,-0.2522905 4.2626365,-2.7070312 4.5527344,-2.7070312 0.1206945,0 0.2919093,0.092679 0.3808591,0.2070312 C 9.467736,2.303313 9.933751,4.799937 9.988281,6.2792968 10.052998,4.9599868 9.526216,1.8784929 9.003906,1.2070311 8.9149562,1.0926788 8.7437414,0.99999989 8.6230469,0.99999989 Z M 4.0585938,5.3339843 C 3.9558354,6.5242568 3.1533654,7.3703228 1.8867188,7.9257811 L 1,8.314453 l 0,0.5 0.8867188,-0.3886719 C 3.3236179,7.7956625 4.1635262,6.7918351 4.0585938,5.3339843 Z m 2.1660156,5.6914067 c -0.011505,0.106923 -0.01332,0.260635 0.00195,0.591797 l 0.035156,0.77539 0.021484,-0.01367 -0.056641,-1.261718 c -0.00204,-0.04423 -3.24e-4,-0.05295 -0.00195,-0.0918 z"/>
 <path style="opacity:0.2;fill:#8b9cbe" d="m 12.376953,0.99999989 c -0.120695,0 -0.291908,0.0926789 -0.380859,0.20703121 -0.522309,0.6714618 -1.049092,3.7529558 -0.984375,5.0722657 0.05453,-1.4793597 0.520546,-3.9759838 0.984375,-4.5722657 0.08895,-0.1143523 0.260164,-0.2070312 0.380859,-0.2070312 0.290099,0 4.442362,2.4547406 4.599609,2.7070312 0.02083,0.033411 0.02723,0.1322385 0.03711,0.2128907 0.02672,-0.3185531 0.01904,-0.6228491 -0.03711,-0.7128907 -0.157247,-0.2522906 -4.30951,-2.70703121 -4.599609,-2.70703121 z m 4.611328,4.34375001 c -0.104977,1.4525329 0.691318,2.4533239 2.125,3.0820312 L 20,8.814453 l 0,-0.5 -0.886719,-0.3886719 c -1.263088,-0.5538976 -2.029623,-1.397056 -2.125,-2.5820312 z m -2.21289,5.6816411 c -0.0016,0.03885 8.6e-5,0.04756 -0.002,0.0918 l -0.05664,1.261718 0.02148,0.01367 0.03516,-0.77539 c 0.01527,-0.331162 0.01346,-0.484874 0.002,-0.591797 z"/>
</svg>
