<svg xmlns="http://www.w3.org/2000/svg" width="22" height="22" version="1.1">
 <g transform="translate(-1,-1)">
  <rect style="opacity:0.2" width="20" height="20" x="2" y="2.5" rx="1" ry="1"/>
  <rect style="fill:#2095f2" width="20" height="20" x="2" y="2" rx="1" ry="1"/>
  <path style="opacity:0.2;fill:#8b9cbe" d="M 3,2 C 2.446,2 2,2.446 2,3 V 3.5 C 2,2.946 2.446,2.5 3,2.5 H 21 C 21.554,2.5 22,2.946 22,3.5 V 3 C 22,2.446 21.554,2 21,2 Z"/>
  <path style="opacity:0.2" d="M 16.848,7.1438 C 14.944,7.5598 12.8,7.7998 10.992,7.8958 L 11.088,7.4158 C 11.2,6.8878 11.28,6.3598 11.456,5.7998 L 9.216,5.7038 C 9.232,6.2318 9.216,6.6158 9.136,7.3038 9.12,7.4958 9.072,7.7038 9.04,7.9438 8.08,7.9278 6.88,7.7998 5.936,7.6398 V 9.6078 C 6.736,9.6878 7.664,9.7518 8.672,9.7678 8.256,11.512 7.616,13.624 6.864,15.08 L 8.736,15.752 C 8.896,15.48 9.008,15.272 9.184,15.064 10.128,13.848 11.744,13.192 13.568,13.192 15.104,13.192 15.936,13.992 15.936,14.936 15.936,17.272 12.432,17.688 8.96,17.128 L 9.52,19.176 C 14.64,19.72 18.064,18.44 18.064,14.872 18.064,12.856 16.368,11.48 13.808,11.48 12.352,11.48 11.152,11.768 9.872,12.472 10.128,11.704 10.384,10.696 10.592,9.7358 12.72,9.6238 15.232,9.3198 16.88,9.0638 Z"/>
  <path style="fill:#8b9cbe" d="M 16.848,6.644 C 14.944,7.06 12.8,7.3 10.992,7.396 L 11.088,6.916 C 11.2,6.388 11.28,5.86 11.456,5.3 L 9.216,5.204 C 9.232,5.732 9.216,6.116 9.136,6.804 9.12,6.996 9.072,7.204 9.04,7.444 8.08,7.428 6.88,7.3 5.936,7.14 V 9.108 C 6.736,9.188 7.664,9.252 8.672,9.268 8.256,11.012 7.616,13.124 6.864,14.58 L 8.736,15.252 C 8.896,14.98 9.008,14.772 9.184,14.564 10.128,13.348 11.744,12.692 13.568,12.692 15.104,12.692 15.936,13.492 15.936,14.436 15.936,16.772 12.432,17.188 8.96,16.628 L 9.52,18.676 C 14.64,19.22 18.064,17.94 18.064,14.372 18.064,12.356 16.368,10.98 13.808,10.98 12.352,10.98 11.152,11.268 9.872,11.972 10.128,11.204 10.384,10.196 10.592,9.236 12.72,9.124 15.232,8.82 16.88,8.564 Z"/>
 </g>
</svg>
