<svg xmlns="http://www.w3.org/2000/svg" width="22" height="22" version="1.1">
 <rect style="opacity:0.2" width="20" height="20" x="1" y="1.5" rx="10"/>
 <rect style="fill:#17191e" width="20" height="20" x="1" y="1" rx="10"/>
 <path style="opacity:0.2" d="m 9.863281,4.5037169 c -1.1018341,0.07484 -1.9340956,1.0289214 -1.8593748,2.1289063 0.025254,0.3723348 0.151247,0.712075 0.3496094,0.9980469 L 9.273438,8.9841857 C 9.449689,9.312292 9.806796,9.524777 10.203125,9.497858 10.579508,9.472308 10.893087,9.238259 11.035156,8.9158263 l 0.765625,-1.546875 h -0.002 C 11.946674,7.0658517 12.018591,6.7216215 11.994094,6.3611388 11.919414,5.2611581 10.967021,4.4288778 9.865187,4.5037169 Z m 5.212891,1.9960938 c -0.320215,-0.0061 -0.647087,0.053207 -0.962891,0.1816406 -0.434274,0.1766515 -0.791472,0.4644949 -1.052734,0.8183594 L 11.777344,9.163873 c -0.01491,0.01823 -0.02914,0.03567 -0.04297,0.05469 l -0.0059,0.0078 h 0.002 c -0.235096,0.329179 -0.30338,0.770499 -0.142578,1.175782 0.175668,0.442772 0.57687,0.724416 1.015625,0.763672 l 2.09375,0.314453 -0.002,-0.0039 c 0.412271,0.05876 0.843956,0.01205 1.257813,-0.15625 1.263177,-0.513737 1.875479,-1.968807 1.367187,-3.2499998 -0.381184,-0.960831 -1.283498,-1.552011 -2.24414,-1.5703125 z M 7.109375,8.5017638 C 6.1710951,8.4607808 5.3008523,9.076241 5.0625,10.013483 c -0.2724028,1.071089 0.3834403,2.156933 1.4648438,2.425781 0.3542507,0.08808 0.7089704,0.078 1.0371093,-0.01367 l 1.6289059,-0.46875 c 0.367505,-0.06856 0.680004,-0.341864 0.777344,-0.724609 0.09308,-0.365955 -0.03492,-0.734008 -0.300781,-0.96875 L 8.421875,9.056451 v 0.002 C 8.1766343,8.8242724 7.8678786,8.6484387 7.5136719,8.5603576 7.3784906,8.5267512 7.2434151,8.5076171 7.109375,8.5017638 Z m 2.681641,3.9980472 c -0.219736,1.7e-4 -0.436209,0.05735 -0.625,0.166016 l -1.8671879,0.927734 0.00391,0.002 c -0.36689,0.185337 -0.6891513,0.461956 -0.9257813,0.820313 -0.722252,1.093889 -0.3734841,2.536801 0.7792969,3.224609 1.1528205,0.687809 2.6722393,0.359515 3.3945313,-0.734375 0.246686,-0.373622 0.36952,-0.787962 0.376953,-1.199219 l 0.0625,-1.90625 c 0.06088,-0.431603 -0.142726,-0.878034 -0.55664,-1.125 -0.19998,-0.119236 -0.422841,-0.175951 -0.642578,-0.175781 z m 3.1875,0.0039 c -0.196516,0.01366 -0.391577,0.08316 -0.560547,0.212891 -0.328269,0.252122 -0.470941,0.662543 -0.400391,1.046875 l 0.216797,1.84375 0.002,-0.002 c 0.04527,0.363754 0.180939,0.719888 0.414063,1.033203 0.711973,0.957042 2.054359,1.146523 2.998047,0.421875 0.943726,-0.724647 1.131932,-2.08788 0.419921,-3.044922 -0.24584,-0.330451 -0.566181,-0.569713 -0.919921,-0.710937 L 13.546922,12.626711 C 13.372089,12.531211 13.175079,12.49 12.978563,12.503664 Z"/>
 <path style="fill:#39e11e" d="m 9.863281,4.0039062 c -1.1018341,0.07484 -1.9340956,1.0289214 -1.8593748,2.1289063 0.025254,0.3723348 0.151247,0.712075 0.3496094,0.9980469 L 9.273438,8.484375 c 0.176251,0.3281061 0.533358,0.540591 0.929687,0.5136719 0.376383,-0.02555 0.689962,-0.2595984 0.832031,-0.5820313 l 0.765625,-1.546875 h -0.002 C 11.946721,6.566041 12.018638,6.2218108 11.994141,5.8613281 11.919459,4.7613474 10.967068,3.9290671 9.865234,4.0039062 Z M 15.076172,6 C 14.755957,5.9939 14.429085,6.0532066 14.113281,6.1816406 13.679007,6.3582921 13.321809,6.6461355 13.060547,7 l -1.283203,1.6640625 c -0.01491,0.01823 -0.02914,0.035668 -0.04297,0.054687 l -0.0059,0.00781 h 0.002 c -0.235096,0.3291785 -0.30338,0.7704985 -0.142578,1.1757815 0.175668,0.442772 0.57687,0.724416 1.015625,0.763672 l 2.09375,0.314453 -0.002,-0.0039 c 0.412271,0.05876 0.843956,0.01205 1.257813,-0.15625 1.263177,-0.513737 1.875479,-1.9688065 1.367187,-3.2499995 C 16.939128,6.6094815 16.036814,6.0183015 15.076172,6 Z M 7.109375,8.0019531 C 6.1710951,7.9609701 5.3008523,8.5764298 5.0625,9.513672 c -0.2724028,1.071089 0.3834403,2.156933 1.4648438,2.425781 0.3542507,0.08808 0.7089704,0.078 1.0371093,-0.01367 l 1.6289059,-0.46875 c 0.367505,-0.06856 0.680004,-0.341864 0.777344,-0.724609 0.09308,-0.365955 -0.03492,-0.734008 -0.300781,-0.96875 L 8.421875,8.5566406 v 0.00195 C 8.1766343,8.3244617 7.8678786,8.148628 7.5136719,8.0605469 7.3784906,8.0269405 7.2434151,8.0078064 7.109375,8.0019531 Z M 9.791016,12 c -0.219736,1.7e-4 -0.436209,0.05735 -0.625,0.166016 l -1.8671879,0.927734 0.00391,0.002 c -0.36689,0.185337 -0.6891513,0.461956 -0.9257813,0.820313 -0.722252,1.093889 -0.3734841,2.536801 0.7792969,3.224609 1.1528205,0.687809 2.6722393,0.359515 3.3945313,-0.734375 0.246686,-0.373622 0.36952,-0.787962 0.376953,-1.199219 l 0.0625,-1.90625 c 0.06088,-0.431603 -0.142726,-0.878034 -0.55664,-1.125 C 10.233614,12.056545 10.010753,11.99983 9.791016,12 Z m 3.1875,0.0039 c -0.196516,0.01366 -0.391577,0.08316 -0.560547,0.212891 -0.328269,0.252122 -0.470941,0.662543 -0.400391,1.046875 l 0.216797,1.84375 0.002,-0.002 c 0.04527,0.363754 0.180939,0.719888 0.414063,1.033203 0.711973,0.957042 2.054359,1.146523 2.998047,0.421875 0.943726,-0.724647 1.131932,-2.08788 0.419921,-3.044922 -0.24584,-0.330451 -0.566181,-0.569713 -0.919921,-0.710937 L 13.546922,12.1269 c -0.174833,-0.0955 -0.371843,-0.136711 -0.568359,-0.123047 z"/>
 <path style="opacity:0.1;fill:#8b9cbe" d="M 11,1 C 5.46,1 1,5.46 1,11 1,11.08394 1.00382,11.166571 1.00586,11.25 1.1381952,5.8269315 5.543937,1.5 11,1.5 c 5.456063,0 9.861805,4.3269315 9.99414,9.75 C 20.996176,11.166571 21,11.083937 21,11 21,5.46 16.54,1 11,1 Z"/>
 <path style="opacity:0.2;fill:#8b9cbe" d="m 9.863281,4.0039062 c -1.1018339,0.07484 -1.9340955,1.0289214 -1.8593748,2.1289063 0.00195,0.028794 0.014433,0.053637 0.017578,0.082031 C 8.1516415,5.3009295 8.9041509,4.5690531 9.863281,4.5039059 h 0.002 C 10.920512,4.4322319 11.82937,5.1958892 11.97075,6.2265622 11.98468,6.1062291 12.0027,5.9866334 11.99419,5.8613278 11.91951,4.7613471 10.967117,3.9290668 9.865283,4.0039059 Z M 15.076172,6 C 14.755957,5.9939 14.429085,6.0532066 14.113281,6.1816406 13.679007,6.3582921 13.321809,6.6461355 13.060547,7 l -1.283203,1.6640625 c -0.01491,0.01823 -0.02914,0.035668 -0.04297,0.054687 l -0.0059,0.00781 h 0.002 c -0.194952,0.2729688 -0.265286,0.6221435 -0.195313,0.9648435 0.03529,-0.166747 0.09662,-0.326658 0.195313,-0.464844 h -0.002 l 0.0059,-0.0078 c 0.01383,-0.01902 0.02806,-0.03646 0.04297,-0.05469 L 13.060547,7.5 C 13.321809,7.1461355 13.679007,6.8582921 14.113281,6.6816406 14.429085,6.553207 14.755957,6.4939 15.076172,6.5 c 0.960642,0.018301 1.862956,0.6094815 2.24414,1.5703125 0.08885,0.2239551 0.131419,0.4530162 0.154297,0.6816406 0.03909,-0.3897821 6e-6,-0.792707 -0.154297,-1.1816406 C 16.939128,6.6094815 16.036814,6.0183015 15.076172,6 Z M 7.109375,8.0019531 C 6.1710951,7.9609701 5.3008523,8.5764297 5.0625,9.513672 4.9966042,9.772774 4.9858573,10.032195 5.0214844,10.28125 5.031577,10.192027 5.0397375,10.103174 5.0625,10.013672 5.3008523,9.07643 6.1710951,8.4609701 7.109375,8.5019531 c 0.1340401,0.00585 0.2691156,0.024987 0.4042969,0.058594 0.3542067,0.088081 0.6629624,0.2638683 0.9082031,0.4980469 v -0.002 l 1.248047,1.207031 c 0.145882,0.128806 0.243852,0.299616 0.292969,0.486328 0.0017,-0.0063 0.0062,-0.01119 0.0078,-0.01758 0.09308,-0.365955 -0.03492,-0.734008 -0.300781,-0.96875 L 8.421875,8.5566406 v 0.00195 C 8.1766343,8.3244616 7.8678786,8.148628 7.5136719,8.0605469 7.3784906,8.0269405 7.2434151,8.0078064 7.109375,8.0019531 Z M 9.791016,12 c -0.219736,1.7e-4 -0.436209,0.05735 -0.625,0.166016 l -1.8671879,0.927734 0.00391,0.002 c -0.36689,0.185337 -0.6891513,0.461956 -0.9257813,0.820313 -0.3034466,0.459586 -0.4083742,0.979549 -0.3535156,1.480468 0.0398,-0.337824 0.1506678,-0.673245 0.3535156,-0.980468 0.23663,-0.358357 0.5588913,-0.634976 0.9257813,-0.820313 l -0.00391,-0.002 1.8671879,-0.927734 C 9.354807,12.55735 9.57128,12.50017 9.791016,12.5 c 0.219737,-1.7e-4 0.442598,0.05654 0.642578,0.175781 0.308458,0.184045 0.498337,0.478018 0.550781,0.794922 l 0.0059,-0.169922 c 0.06088,-0.431603 -0.142726,-0.878034 -0.55664,-1.125 C 10.233614,12.056545 10.010753,11.99983 9.791016,12 Z m 3.1875,0.0039 c -0.196516,0.01366 -0.391577,0.08316 -0.560547,0.212891 -0.328269,0.252122 -0.470941,0.662543 -0.400391,1.046875 l 0.01172,0.09961 c 0.04844,-0.248171 0.174406,-0.48192 0.388672,-0.646484 0.16897,-0.129731 0.364031,-0.199231 0.560547,-0.212891 0.196516,-0.01366 0.393526,0.02755 0.568359,0.123047 l 1.601563,0.677735 c 0.353739,0.141224 0.674081,0.380486 0.919921,0.710937 0.241526,0.324644 0.372108,0.696876 0.41211,1.074219 0.06584,-0.540519 -0.06363,-1.105812 -0.41211,-1.574219 -0.24584,-0.330451 -0.566181,-0.569713 -0.919921,-0.710937 l -1.601563,-0.677735 c -0.174833,-0.0955 -0.371843,-0.136711 -0.568359,-0.123047 z"/>
</svg>
