<svg xmlns="http://www.w3.org/2000/svg" width="22" height="22" version="1.0">
 <circle style="opacity:0.2" cx="11" cy="-11.5" r="10" transform="scale(1,-1)"/>
 <circle style="fill:#b2bfd9" cx="11" cy="-11" r="10" transform="scale(1,-1)"/>
 <path style="opacity:0.2;fill:#8b9cbe" d="M 11,1 A 10,10 0 0 0 1,11 10,10 0 0 0 1.0107422,11.208985 10,10 0 0 1 11,1.5 10,10 0 0 1 20.989258,11.291016 10,10 0 0 0 21,11 10,10 0 0 0 11,1 Z"/>
 <circle style="fill:#077272" cx="11" cy="11" r="8"/>
 <path style="opacity:0.1" d="m 11,5.5 a 6,6 0 0 0 -6,6 6,6 0 0 0 6,6 6,6 0 0 0 6,-6 6,6 0 0 0 -6,-6 z m 0,2 a 4,4 0 0 1 4,4 4,4 0 0 1 -4,4 4,4 0 0 1 -4,-4 4,4 0 0 1 4,-4 z"/>
 <path style="fill:#248989" d="m 11,5 a 6,6 0 0 0 -6,6 6,6 0 0 0 6,6 6,6 0 0 0 6,-6 6,6 0 0 0 -6,-6 z m 0,2 a 4,4 0 0 1 4,4 4,4 0 0 1 -4,4 4,4 0 0 1 -4,-4 4,4 0 0 1 4,-4 z"/>
 <path style="opacity:0.1;fill:#8b9cbe" d="M 11,5 A 6,6 0 0 0 5,11 6,6 0 0 0 5.00977,11.214844 6,6 0 0 1 11,5.5 6,6 0 0 1 16.990234,11.285156 6,6 0 0 0 17,11 6,6 0 0 0 11,5 Z m 3.990234,6.216797 A 4,4 0 0 1 11,15 4,4 0 0 1 7.0097656,11.289062 4,4 0 0 0 7,11.5 a 4,4 0 0 0 4,4 4,4 0 0 0 4,-4 4,4 0 0 0 -0.0098,-0.283203 z"/>
 <path style="opacity:0.2" transform="matrix(0.4041452,0,0,0.4375,1.7308735,0.6883574)" d="m 35.306931,24.712326 -8.660254,5 -8.660254,4.999999 0,-9.999999 0,-9.999999 8.660254,4.999999 z"/>
 <path style="fill:#8b9cbe" transform="matrix(0.4041452,0,0,0.4375,1.7308735,0.1883574)" d="m 35.306931,24.712326 -8.660254,5 -8.660254,4.999999 0,-9.999999 0,-9.999999 8.660254,4.999999 z"/>
 <path style="opacity:0.1" d="M 18.989258,10.709961 A 8,8 0 0 1 11,18.5 8,8 0 0 1 3.0107422,10.790039 8,8 0 0 0 3,11 a 8,8 0 0 0 8,8 8,8 0 0 0 8,-8 8,8 0 0 0 -0.01074,-0.290039 z"/>
</svg>
