<svg xmlns="http://www.w3.org/2000/svg" width="22" height="22" version="1">
 <rect style="fill:#f1502f" width="1.5" height="10" x="16.18" y="-.81" transform="rotate(45)"/>
 <rect style="fill:#f1502f" width="1.5" height="10" x="8" y="-14.5" transform="rotate(90)"/>
 <path style="opacity:0.2" d="M 15,2.4996229 A 7,7 0 0 0 8,9.4996237 7,7 0 0 0 15,16.499624 7,7 0 0 0 22,9.4996237 7,7 0 0 0 15,2.4996229 Z m -12,4 c -1.655723,0 -3,1.3442127 -3,3.0000008 0,1.6557223 1.344277,3.0000003 3,3.0000003 1.6557874,0 3,-1.344278 3,-3.0000003 C 6,7.8438356 4.6557874,6.4996229 3,6.4996229 Z m 3,9.0000011 c -0.7681142,0 -1.5356046,0.293385 -2.1210938,0.878906 -1.1710433,1.170979 -1.1710433,3.071209 0,4.242188 1.1709782,1.171043 3.0712085,1.171043 4.2421876,0 1.1710432,-1.170979 1.1710432,-3.071209 0,-4.242188 C 7.5356042,15.793009 6.7681142,15.499624 6,15.499624 Z"/>
 <path style="fill:#f1502f" d="m 3.8782825,15.878282 c -1.1710433,1.170979 -1.1710433,3.072457 0,4.243436 1.1709782,1.171043 3.0724563,1.171043 4.2434354,0 1.1710431,-1.170979 1.1710431,-3.072457 0,-4.243436 -1.1709791,-1.171043 -3.0724572,-1.171043 -4.2434354,0 z"/>
 <path style="fill:#f1502f" d="M 3.0000004,12 C 1.3442774,12 2e-7,10.655722 2e-7,8.9999993 2e-7,7.344212 1.3442774,5.9999992 3.0000004,5.9999992 4.6557878,5.9999992 6,7.344212 6,8.9999993 6,10.655722 4.6557878,12 3.0000004,12 Z"/>
 <circle style="fill:#f1502f" cx="15" cy="9" r="7"/>
 <path style="opacity:0.2" d="m 15,4.5002071 c -2.759555,0 -5,2.2404457 -5,4.9999996 0,2.7595553 2.240445,5.0000003 5,5.0000003 2.759554,0 5,-2.240445 5,-5.0000003 0,-2.7595539 -2.240446,-4.9999996 -5,-4.9999996 z m 1.724609,2 c 0.09708,0 0.196105,0.037895 0.271485,0.1132812 l 0.890625,0.890625 c 0.150752,0.1507705 0.150752,0.3882925 0,0.5390626 l -0.75,0.7441406 -1.423828,-1.4257813 0.74414,-0.7480469 c 0.07538,-0.075385 0.170498,-0.1132812 0.267578,-0.1132812 z m -1.285156,1.1347656 1.425781,1.425781 -3.439453,3.4394533 H 12 V 11.074426 Z M 3,8.5002071 c -0.5519533,0 -1,0.4480912 -1,0.9999996 0,0.5519093 0.4480467,1.0000003 1,1.0000003 0.5519094,0 1,-0.448091 1,-1.0000003 C 4,8.9482983 3.5519094,8.5002071 3,8.5002071 Z m 3,8.9999999 c -0.2560317,0 -0.5118565,0.09779 -0.7070312,0.292969 -0.3903493,0.39035 -0.3903493,1.023712 0,1.414062 0.3903495,0.390349 1.0237133,0.390349 1.4140624,0 0.3903492,-0.39035 0.3903492,-1.023712 0,-1.414062 C 6.5118567,17.598001 6.2560317,17.500207 6,17.500207 Z"/>
 <path style="fill:#8b9cbe" d="m 3,9.9999997 c -0.5519533,0 -1.000022,-0.448113 -1.000022,-1.000022 0,-0.5519088 0.4480687,-0.9999781 1.000022,-0.9999781 0.5519094,0 0.999978,0.4480693 0.999978,0.9999781 0,0.551909 -0.4480686,1.000022 -0.999978,1.000022 z"/>
 <path style="fill:#8b9cbe" d="m 15,3.9999997 c -2.759555,0 -5,2.2404457 -5,5 C 10,11.759555 12.240445,14 15,14 c 2.759554,0 5,-2.240445 5,-5.0000003 0,-2.7595543 -2.240446,-5 -5,-5 z m 1.724609,2 c 0.09708,0 0.196105,0.037895 0.271485,0.1132812 l 0.890625,0.890625 c 0.150752,0.1507704 0.150752,0.3882926 0,0.5390626 l -0.75,0.7441406 -1.423828,-1.4257813 0.74414,-0.7480469 c 0.07538,-0.075385 0.170498,-0.1132812 0.267578,-0.1132812 z M 15.439453,7.1347653 16.865234,8.5605466 13.425781,12 H 12 v -1.425781 z"/>
 <path style="fill:#8b9cbe" d="m 5.2927619,17.292761 c -0.3903492,0.39035 -0.3903492,1.024127 0,1.414477 0.3903495,0.390349 1.0241271,0.390349 1.4144762,0 0.3903492,-0.39035 0.3903492,-1.024127 0,-1.414477 -0.3903491,-0.390349 -1.0241267,-0.390349 -1.4144762,0 z"/>
 <path style="opacity:0.2;fill:#8b9cbe" d="m 15,1.9999997 a 7,7 0 0 0 -7,7 7,7 0 0 0 0.00977,0.207031 A 7,7 0 0 1 15,2.4999997 7,7 0 0 1 21.990234,9.2929687 7,7 0 0 0 22,8.9999997 a 7,7 0 0 0 -7,-7 z m -12,4 c -1.655723,0 -3,1.3442127 -3,3 0,0.08574 0.018324,0.16607 0.025391,0.25 0.1290108,-1.5371981 1.4043559,-2.75 2.974609,-2.75 1.5703142,0 2.845604,1.2128019 2.9746094,2.75 C 5.9816758,9.1660697 6,9.0857437 6,8.9999997 c 0,-1.6557873 -1.3442126,-3 -3,-3 z M 6,15 C 5.2318858,15 4.4643954,15.293385 3.8789062,15.878906 3.2294478,16.528329 2.9525191,17.400768 3.0234375,18.25 3.0802241,17.567681 3.3571059,16.900678 3.8789062,16.378906 4.4643955,15.793385 5.2318858,15.5 6,15.5 c 0.7681142,0 1.5356041,0.293385 2.1210938,0.878906 C 8.6428941,16.900678 8.9197759,17.567681 8.9765625,18.25 9.047481,17.400768 8.7705521,16.528329 8.1210938,15.878906 7.5356041,15.293385 6.7681142,15 6,15 Z"/>
</svg>
