<svg xmlns="http://www.w3.org/2000/svg" width="22" height="22" version="1">
 <path style="opacity:0.2;fill-rule:evenodd" d="M 10.498107,0.49999497 C 9.8996678,0.50023917 9.3180708,0.72478617 8.8594348,1.1992307 L 0.6973254,9.6291217 C 0.2475896,10.094402 0.0090096,10.707488 5.98e-5,11.31471 c -1.3455e-4,0.0092 0,0.03093 0,0.04102 -8.47e-5,1.806585 4.5648635,0.05298 5,2.261773 0.2354525,1.19542 -2,0.646893 -2,1.849653 0,1.410877 3.9552785,0.260327 4.9003906,1.603554 0.723459,1.028206 -1.3747757,1.072336 -0.8007812,2.05669 0.4923805,0.844393 2.2532346,0.304625 2.5468746,1.439488 0.335405,1.296332 1.9948622,1.150897 3.2148442,0.12305 0.747858,-0.630081 -0.849496,-1.023615 -0.169922,-1.726607 0.679529,-0.703041 3.489463,-0.571815 3.308594,-2.097707 -0.119702,-1.009854 -0.980651,-1.121078 -1,-2.261772 -0.06757,-0.966034 1.084311,-0.683183 4.564453,-1.644572 1.391556,-0.653809 1.440847,-1.001425 1.435547,-1.603553 -1.1e-4,-0.01194 0,-0.02828 0,-0.04102 -0.0079,-0.607173 -0.28859,-1.220322 -0.738281,-1.6855883 L 12.138732,1.1992307 C 11.679997,0.72473637 11.098199,0.50023927 10.50006,0.49999497 Z M 19.892638,14.502286 c -0.190786,-0.0077 -0.381827,0.01202 -0.517578,0.06055 -0.255881,0.09438 -1.469043,0.148665 -1.369141,1.328156 1.098235,0.58947 2.773082,1.058253 2.972657,-0.121096 0.149836,-0.884395 -0.513492,-1.240539 -1.085938,-1.26761 z M 4.2734973,17.512124 c -0.1070078,0.0163 -0.1805748,0.07188 -0.2851563,0.125003 -0.8362937,0.424498 -1.3965492,1.318854 -0.6152343,1.709025 0.78143,0.39008 1.3052486,-0.02408 1.9902343,-0.507824 0.6851017,-0.483968 0.6647852,-0.571139 0.6152344,-0.757831 -0.094966,0.02534 -0.7171677,-0.491422 -1.3730468,-0.568373 -0.1092941,-0.01226 -0.2250528,-0.01627 -0.3320313,0 z"/>
 <path style="fill:#4f4f4f;fill-rule:evenodd" d="M 10.498107,-3.4295059e-6 C 9.8996678,2.4067049e-4 9.3180708,0.22478767 8.8594348,0.69923217 L 0.6973254,9.1291217 C 0.2475896,9.5944017 0.0090096,10.207488 5.98e-5,10.81471 c -1.3455e-4,0.0092 0,0.03093 0,0.04102 -8.47e-5,1.806585 4.5648635,0.05298 5,2.261773 0.2354525,1.19542 -2,0.646893 -2,1.849653 0,1.410877 3.9552785,0.260327 4.9003906,1.603554 0.723459,1.028206 -1.3747757,1.072336 -0.8007812,2.05669 0.4923805,0.844393 2.2532346,0.304625 2.5468746,1.439488 0.335405,1.296332 1.9948622,1.150897 3.2148442,0.12305 0.747858,-0.630081 -0.849496,-1.023615 -0.169922,-1.726607 0.679529,-0.703041 3.489463,-0.571815 3.308594,-2.097707 -0.119702,-1.009854 -0.980651,-1.121078 -1,-2.261772 -0.06757,-0.966034 1.084311,-0.683183 4.564453,-1.644572 1.391556,-0.653809 1.440847,-1.001425 1.435547,-1.603553 -1.1e-4,-0.01194 0,-0.02828 0,-0.04102 -0.0079,-0.607173 -0.28859,-1.2203223 -0.738281,-1.6855883 L 12.138732,0.69923217 C 11.679997,0.22473787 11.098199,2.4077049e-4 10.50006,-3.4295059e-6 Z M 19.892638,14.002286 c -0.190786,-0.0077 -0.381827,0.01202 -0.517578,0.06055 -0.255881,0.09438 -1.469043,0.148665 -1.369141,1.328156 1.098235,0.58947 2.773082,1.058253 2.972657,-0.121096 0.149836,-0.884395 -0.513492,-1.240539 -1.085938,-1.26761 z M 4.2734973,17.012124 c -0.1070078,0.0163 -0.1805748,0.07188 -0.2851563,0.125003 -0.8362937,0.424498 -1.3965492,1.318854 -0.6152343,1.709025 0.78143,0.39008 1.3052486,-0.02408 1.9902343,-0.507824 0.6851017,-0.483968 0.6647852,-0.571139 0.6152344,-0.757831 -0.094966,0.02534 -0.7171677,-0.491422 -1.3730468,-0.568373 -0.1092941,-0.01226 -0.2250528,-0.01627 -0.3320313,0 z"/>
 <path style="opacity:0.2;fill-rule:evenodd" d="m 10.537619,2.499848 c 0.61585,0.00524 2.30335,2.0935501 3.80895,3.6575001 0.4235,0.56825 -0.16381,1.15065 -0.16381,1.15065 l -3.1535,-1.726 -1.3925012,1.8905 -1.2284995,-1.849 -0.7375,2.8765001 -2.1705001,-1.3150001 0.5735,-0.74 3.3989996,-3.4928501 c 0.260725,-0.26578 0.46038,-0.4567551 1.0648512,-0.45205 z"/>
 <path style="fill:#8b9cbe;fill-rule:evenodd" d="m 10.537619,1.9998495 c 0.61585,0.00524 2.30335,2.0935501 3.80895,3.6575001 0.4235,0.56825 -0.16381,1.15065 -0.16381,1.15065 l -3.1535,-1.726 -1.3925012,1.8905 -1.2284995,-1.849 -0.7375,2.8765001 -2.1705001,-1.3150001 0.5735,-0.74 3.3989996,-3.4928501 c 0.260725,-0.26578 0.46038,-0.4567551 1.0648512,-0.45205 z"/>
 <path style="opacity:0.1;fill:#8b9cbe;fill-rule:evenodd" d="M 10.498107,-3.2950593e-7 C 9.8996678,2.4377049e-4 9.3180708,0.22477397 8.8594348,0.69921847 L 0.6973254,9.1289057 C 0.2475896,9.5941857 0.0090096,10.207231 5.98e-5,10.814453 c -1.3455e-4,0.0092 0,0.03093 0,0.04102 -3.15e-6,0.0671 0.01715,0.120071 0.029297,0.177734 0.067373,-0.511447 0.2879928,-1.011188 0.6679687,-1.4042973 L 8.8594348,1.1992185 C 9.3180708,0.72477397 9.8996678,0.50024387 10.498107,0.49999967 h 0.002 c 0.598139,2.443e-4 1.179937,0.2247244 1.638672,0.69921883 l 8.123047,8.4296872 c 0.409472,0.4236543 0.667881,0.9707163 0.71875,1.5234383 0.01011,-0.0952 0.02049,-0.188439 0.01953,-0.296875 -1.1e-4,-0.01194 0,-0.02828 0,-0.04102 -0.0079,-0.607173 -0.28859,-1.2202813 -0.738281,-1.6855473 L 12.138732,0.69921847 C 11.679997,0.22472417 11.098199,2.4387049e-4 10.50006,-3.2950593e-7 Z M 4.9649036,13.513672 c -0.3034074,0.677411 -1.9648438,0.414525 -1.9648438,1.453125 0,0.09033 0.018232,0.169578 0.048828,0.240234 0.3097009,-0.859439 2.1671479,-0.493309 1.951172,-1.589843 -0.00762,-0.03866 -0.025056,-0.06724 -0.035156,-0.103516 z m 14.9277344,0.488281 c -0.190786,-0.0077 -0.381827,0.01202 -0.517578,0.06055 -0.255881,0.09438 -1.469043,0.148634 -1.369141,1.328125 0.0161,0.0086 0.03639,0.01485 0.05273,0.02344 0.221111,-0.711739 1.101639,-0.772347 1.316406,-0.851562 0.135751,-0.04853 0.326792,-0.06825 0.517578,-0.06055 0.45461,0.0215 0.959724,0.256632 1.076172,0.792969 0.0019,-0.0099 0.008,-0.01524 0.0098,-0.02539 0.149836,-0.884395 -0.513492,-1.240507 -1.085938,-1.267578 z m -4.865234,0.345703 c -0.02042,0.07606 -0.03435,0.155748 -0.02734,0.25586 0.01844,1.087353 0.793816,1.248227 0.970703,2.134765 0.02916,-0.113214 0.04574,-0.234306 0.0293,-0.373047 -0.11016,-0.929351 -0.840623,-1.107589 -0.972656,-2.017578 z M 4.2734973,17.011719 c -0.1070078,0.0163 -0.1805748,0.07188 -0.2851563,0.125 -0.6633554,0.336715 -1.1415575,0.966354 -0.9257812,1.408203 0.1350775,-0.338579 0.4899524,-0.686979 0.9257812,-0.908203 0.1045815,-0.05312 0.1781485,-0.1087 0.2851563,-0.125 0.1069785,-0.01627 0.2227372,-0.01226 0.3320313,0 0.5378483,0.0631 0.9807914,0.367326 1.2011718,0.480469 0.2101933,-0.193617 0.2057851,-0.284347 0.171875,-0.41211 -0.094966,0.02534 -0.7171677,-0.491408 -1.3730468,-0.568359 -0.1092941,-0.01226 -0.2250528,-0.01627 -0.3320313,0 z m 3.6953125,0.214843 c -0.2828387,0.445857 -1.193203,0.673042 -0.890625,1.328126 0.2770281,-0.451703 1.1860055,-0.680125 0.890625,-1.328126 z m 4.6445312,1.863282 c -0.232868,0.378095 0.146859,0.671883 0.347657,0.972656 0.262422,-0.355131 -0.151229,-0.643334 -0.347657,-0.972656 z"/>
</svg>
