<svg xmlns="http://www.w3.org/2000/svg" width="22" height="22" version="1.1">
 <path style="opacity:0.2" d="M 11.032227,6.5 4.5,16.5 c 0,0 4.0603935,-3.952371 6.5,-6.25 2.46559,2.101198 6.5,6.25 6.5,6.25 z M 11,11.5 l -0.857422,1 h 1.714844 z M 9.286133,13.5 8,15 h 3 3 l -1.286133,-1.5 z"/>
 <rect style="opacity:0.2" width="20" height="20" x="1" y="1.5" rx="1" ry="1"/>
 <rect style="fill:#ed2a2d" width="20" height="20" x="1" y="1" rx="1" ry="1"/>
 <path style="opacity:0.2" d="M 11.033203,6.5 4.5,16.5 c 0,0 4.0603935,-3.952371 6.5,-6.25 2.46559,2.101198 6.5,6.25 6.5,6.25 z m -0.0332,5 -0.857422,1 h 1.714844 z m -1.513672,2 -0.7441405,1 h 4.5156245 l -0.74414,-1 z"/>
 <path style="fill:#8b9cbe" d="M 11.033203,6 4.5,16 c 0,0 4.0603935,-3.952371 6.5,-6.25 2.46559,2.101198 6.5,6.25 6.5,6.25 z M 11,11 10.142578,12 h 1.714844 z m -1.513672,2 -0.7441405,1 h 4.5156245 l -0.74414,-1 z"/>
 <path style="opacity:0.2;fill:#8b9cbe" d="M 2,1 C 1.446,1 1,1.446 1,2 v 0.5 c 0,-0.554 0.446,-1 1,-1 h 18 c 0.554,0 1,0.446 1,1 V 2 C 21,1.446 20.554,1 20,1 Z"/>
</svg>
