<svg xmlns="http://www.w3.org/2000/svg" width="22" height="22" version="1">
 <g transform="translate(-1,-1)">
  <rect style="opacity:0.2" width="20" height="20" x="2" y="2.5" rx="1" ry="1"/>
  <rect style="fill:#29aae2" width="20" height="20" x="2" y="2" rx="1" ry="1"/>
  <rect style="fill:#8b9cbe" width="16" height="16" x="4" y="4" rx="1" ry="1"/>
  <path style="fill:#424242" d="M 5,5 V 19 H 11 V 16 H 8 V 8 H 11 V 5 Z M 13,5 V 8 H 16 V 16 H 13 V 19 H 19 V 5 Z"/>
  <path style="opacity:0.2;fill:#8b9cbe" d="M 3,2 C 2.446,2 2,2.446 2,3 V 3.5 C 2,2.946 2.446,2.5 3,2.5 H 21 C 21.554,2.5 22,2.946 22,3.5 V 3 C 22,2.446 21.554,2 21,2 Z"/>
 </g>
</svg>
