<svg xmlns="http://www.w3.org/2000/svg" width="22" height="22" version="1">
 <path style="fill:#4f4f4f" d="m 4,13.000027 c -0.554,0 -1,0.334494 -1,0.749987 V 14.5 H 4 6 7 V 13.750014 C 7,13.334521 6.554,13.000027 6,13.000027 Z"/>
 <path style="fill:#4f4f4f" d="m 16,13.000027 c -0.554,0 -1,0.334494 -1,0.749987 V 14.5 h 1 2 1 v -0.749986 c 0,-0.415493 -0.446,-0.749987 -1,-0.749987 z"/>
 <path style="opacity:0.1;fill:#8b9cbe" d="m 4,13.000027 c -0.554,0 -1,0.334494 -1,0.749987 v 0.499991 c 0,-0.415493 0.446,-0.749987 1,-0.749987 h 2 c 0.554,0 1,0.334494 1,0.749987 V 13.750014 C 7,13.334521 6.554,13.000027 6,13.000027 Z"/>
 <path style="opacity:0.1;fill:#8b9cbe" d="m 16,13.000027 c -0.554,0 -1,0.334494 -1,0.749987 v 0.499991 c 0,-0.415493 0.446,-0.749987 1,-0.749987 h 2 c 0.554,0 1,0.334494 1,0.749987 v -0.499991 c 0,-0.415493 -0.446,-0.749987 -1,-0.749987 z"/>
 <rect style="opacity:0.2" width="18" height="7" x="2" y="14.5" rx=".706" ry=".699"/>
 <rect style="fill:#838383" width="2" height="8.5" x="10" y="6.75" rx=".077" ry="0"/>
 <rect style="fill:#a3a3a3" width="4" height="4" x="9" y="12" rx=".154" ry="0"/>
 <path style="opacity:0.2" d="M 9.3173133,8.1288586 A 4,3.999927 0 0 1 7.3710087,2.8177177 4,3.999927 0 0 1 12.682085,0.87100841 4,3.999927 0 0 1 14.62927,6.1818265 4,3.999927 0 0 1 9.3185167,8.1294163"/>
 <path style="fill:#4f4f4f" d="M 9.3173133,7.6291046 A 4,3.999927 0 0 1 7.3710087,2.3179638 4,3.999927 0 0 1 12.682085,0.37125446 4,3.999927 0 0 1 14.62927,5.6820725 4,3.999927 0 0 1 9.3185167,7.6296624"/>
 <rect style="fill:#ffa733" width="18" height="7" x="2" y="14" rx=".706" ry=".699"/>
 <path style="opacity:0.2;fill:#8b9cbe" d="M 9.154297,12.000045 C 9.068857,12.000045 9,12.068901 9,12.154339 v 0.499991 c 0,-0.08544 0.06886,-0.154294 0.154297,-0.154294 h 3.691406 c 0.08544,0 0.154297,0.06886 0.154297,0.154294 v -0.499991 c 0,-0.08544 -0.06886,-0.154294 -0.154297,-0.154294 z"/>
 <path style="opacity:0.2;fill:#8b9cbe" d="M 2.7060547,14.000137 C 2.3147093,14.000137 2,14.312053 2,14.699343 v 0.499991 c 0,-0.38729 0.3147093,-0.699206 0.7060547,-0.699206 H 19.293945 C 19.68529,14.500128 20,14.812044 20,15.199334 v -0.499991 c 0,-0.38729 -0.31471,-0.699206 -0.706055,-0.699206 z"/>
 <path style="opacity:0.1;fill:#8b9cbe" d="M 10.853516,0.0039062 A 4,3.999927 0 0 0 7.3710938,2.3183594 4,3.999927 0 0 0 7.0097656,4.2324219 4,3.999927 0 0 1 7.3710938,2.8183594 4,3.999927 0 0 1 12.681641,0.8710938 4,3.999927 0 0 1 14.990234,4.2675781 4,3.999927 0 0 0 12.681641,0.3710938 4,3.999927 0 0 0 10.853516,0.0039062 Z"/>
</svg>
