<svg xmlns="http://www.w3.org/2000/svg" width="22" height="22" version="1.1">
 <path style="opacity:.2" d="m11 4c-2.8475 0-5.2725 1.8443-6.3165 4.4544-2.6507 0.4171-4.6835 2.8076-4.6835 5.7276 0 3.213 2.4624 5.818 5.5 5.818h11.688c2.658 0 4.812-2.279 4.812-5.091 0-2.613-1.858-4.754-4.254-5.0455-0.625-3.3355-3.409-5.8635-6.746-5.8635z"/>
 <path style="fill:#b2bfd9" d="m11 3c-2.8475 0-5.2725 1.8443-6.3165 4.4544-2.6507 0.4171-4.6835 2.8076-4.6835 5.7276 0 3.213 2.4624 5.818 5.5 5.818h11.688c2.658 0 4.812-2.279 4.812-5.091 0-2.613-1.858-4.7543-4.254-5.0455-0.625-3.3355-3.409-5.8635-6.746-5.8635z"/>
 <path style="opacity:.2;fill:#8b9cbe" d="m11 3c-2.8475 0-5.2724 1.8449-6.3164 4.4551-2.6507 0.417-4.6836 2.8069-4.6836 5.7269 0 0.107 0.010201 0.212 0.015625 0.318 0.084092-2.835 2.0738-5.1367 4.668-5.5449 1.044-2.6102 3.4689-4.4551 6.3164-4.4551 3.337 0 6.121 2.5278 6.746 5.8633 2.341 0.2844 4.155 2.3387 4.238 4.8687 0.007-0.107 0.016-0.213 0.016-0.322 0-2.613-1.857-4.7555-4.254-5.0467-0.625-3.3355-3.409-5.8633-6.746-5.8633z"/>
 <path style="opacity:.5" d="m9 8 3-0.00002c2-0.00001 2 2 2 2v6h-2v-2l-3 0.00002v2h-2v-6c0-2 2-2 2-2zm0 2v2h3v-2z"/>
</svg>
