<svg xmlns="http://www.w3.org/2000/svg" width="22" height="22" version="1">
 <rect style="opacity:0.2" width="20" height="20" x="1" y="1.5" rx="6" ry="6"/>
 <rect style="fill:#b2bfd9" width="20" height="20" x="1" y="1" rx="6" ry="6"/>
 <path style="opacity:0.2;fill:#8b9cbe" d="M 7,1 C 3.676,1 1,3.676 1,7 v 0.5 c 0,-3.324 2.676,-6 6,-6 h 8 c 3.324,0 6,2.676 6,6 V 7 C 21,3.676 18.324,1 15,1 Z"/>
 <path style="opacity:0.1" d="M 10.400391,3.5 C 10.178791,3.5 10,3.723 10,4 v 6 c 0,0.277 0.178791,0.5 0.400391,0.5 h 1.199218 C 11.821209,10.5 12,10.277 12,10 V 4 C 12,3.723 11.821209,3.5 11.599609,3.5 Z M 13,5.8496094 V 8.0410156 A 4,4 0 0 1 15,11.5 a 4,4 0 0 1 -4,4 4,4 0 0 1 -4,-4 4,4 0 0 1 2,-3.4589844 V 5.8515625 A 6,6 0 0 0 5,11.5 a 6,6 0 0 0 6,6 6,6 0 0 0 6,-6 6,6 0 0 0 -4,-5.6503906 z"/>
 <rect style="fill:#3e63ca" width="2" height="7" x="10" y="3" rx=".4" ry=".5"/>
 <path style="fill:#3e63ca" d="M 13,5.3496094 V 7.5410156 A 4,4 0 0 1 15,11 4,4 0 0 1 11,15 4,4 0 0 1 7,11 4,4 0 0 1 9,7.5410156 V 5.3515625 A 6,6 0 0 0 5,11 a 6,6 0 0 0 6,6 6,6 0 0 0 6,-6 6,6 0 0 0 -4,-5.6503906 z"/>
</svg>
