<svg xmlns="http://www.w3.org/2000/svg" width="22" height="22" version="1">
 <path style="opacity:0.2" d="m 2,1.5 c -0.554,0 -1,0.446 -1,1 v 18 c 0,0.554 0.446,1 1,1 h 11 l 8,-8 v -11 c 0,-0.554 -0.446,-1 -1,-1 z"/>
 <path style="fill:#579c3b" d="M 2,1 C 1.446,1 1,1.446 1,2 v 18 c 0,0.554 0.446,1 1,1 h 11 l 8,-8 V 2 C 21,1.446 20.554,1 20,1 Z"/>
 <path style="opacity:0.2" d="m 8,4.5 a 5,5 0 0 0 -5,5 5,5 0 0 0 5,5 5,5 0 0 0 5,-5 h 2 v 7 h 2 v -7 h 3 v -2 H 12.580078 A 5,5 0 0 0 8,4.5 Z m 0,2 a 3,3 0 0 1 3,3 3,3 0 0 1 -3,3 3,3 0 0 1 -3,-3 3,3 0 0 1 3,-3 z"/>
 <rect style="fill:#8b9cbe" width="8" height="2" x="8" y="-17" transform="rotate(90)"/>
 <path style="fill:#85df66" d="m 21,13 h -7 c -0.5523,0 -1,0.44772 -1,1 v 7 z"/>
 <path style="opacity:0.2;fill:#8b9cbe" d="M 2,1 C 1.446,1 1,1.446 1,2 v 0.5 c 0,-0.554 0.446,-1 1,-1 h 18 c 0.554,0 1,0.446 1,1 V 2 C 21,1.446 20.554,1 20,1 Z"/>
 <path style="opacity:0.2;fill:#8b9cbe" d="m 14,13 c -0.5523,0 -1,0.44772 -1,1 v 0.5 c 0,-0.5523 0.447715,-1 1,-1 h 6.5 L 21,13 Z"/>
 <rect style="fill:#8b9cbe" width="8" height="2" x="12" y="7"/>
 <path style="fill:#8b9cbe" d="M 8,4 A 5,5 0 0 0 3,9 5,5 0 0 0 8,14 5,5 0 0 0 13,9 5,5 0 0 0 8,4 Z M 8,6 A 3,3 0 0 1 11,9 3,3 0 0 1 8,12 3,3 0 0 1 5,9 3,3 0 0 1 8,6 Z"/>
</svg>
