<svg xmlns="http://www.w3.org/2000/svg" width="22" height="22" version="1">
 <path style="opacity:0.2" d="m 21,11.5 a 10,10 0 0 1 -10,10 10,10 0 0 1 -10,-10 10,10 0 0 1 10,-10 10,10 0 0 1 10,10 z"/>
 <path style="fill:#4f4f4f" d="M 21,11 A 10,10 0 0 1 11,21 10,10 0 0 1 1,11 10,10 0 0 1 11,1 10,10 0 0 1 21,11 Z"/>
 <path style="opacity:0.2" d="M 4.8007812,7.5 3,10.5 h 3.8242188 l -2.625,5 H 6.25 8.3007812 10.349609 l 2.625,-5 h 2.050782 l -2.625,5 h 2.048828 l 4.201172,-8 H 18.5 10.449219 8.4003906 Z"/>
 <path style="fill:#8b9cbe" d="m 12.5,7 h 2.05 l -4.2,8 H 8.3 Z"/>
 <path style="fill:#8b9cbe" d="m 16.6,7 h 2.05 l -4.2,8 H 12.4 Z"/>
 <path style="fill:#8b9cbe" d="M 4.8007812,7 3,10 H 6.8242188 L 8.4003906,7 Z M 12.5,7 10.925781,10 h 5.875 L 18.5,7 Z"/>
 <path style="fill:#4485e8" d="M 10.45,7 H 12.5 L 8.3,15 H 6.25 Z"/>
 <path style="fill:#69b0ec" d="m 8.4,7 h 2.05 l -4.2,8 H 4.2 Z"/>
 <path style="opacity:0.1;fill:#8b9cbe" d="M 11,1 A 10,10 0 0 0 1,11 10,10 0 0 0 1.0107422,11.291016 10,10 0 0 1 11,1.5 10,10 0 0 1 20.989258,11.208985 10,10 0 0 0 21,11 10,10 0 0 0 11,1 Z"/>
</svg>
