<svg width="22" height="22" version="1.1" xmlns="http://www.w3.org/2000/svg">
 <g transform="translate(-1,-1)">
  <circle cx="12" cy="12.5" r="10" style="opacity:.2"/>
  <circle cx="12" cy="12" r="10" style="fill:#31aae4"/>
  <path d="M 12,2 A 10,10 0 0 0 2,12 10,10 0 0 0 2.01075,12.291 10,10 0 0 1 12,2.5 10,10 0 0 1 21.9895,12.209 10,10 0 0 0 22,12 10,10 0 0 0 12,2 Z" style="fill:#8b9cbe;opacity:.2"/>
  <path d="m12 4.5c-4.418278 0-8 3.581722-8 8s3.581722 8 8 8 8-3.581722 8-8-3.581722-8-8-8zm0 1c3.865993 0 7 3.134007 7 7-0.0031 3.213894-2.194256 6.012781-5.313476 6.787109-0.04434-0.111981-0.06262-0.231487-0.05078-0.270508 0.05996-0.19771 0.102616-0.46441 0.117188-0.738281 0.02309-0.433889 0.197236-1.122182 0.472374-1.435546 0.242011-0.275637 0.288207-0.495439 0.292969-1.390625 0.0039-0.741057 0.01218-0.827882 0.107422-1.160157 0.162126-0.565623 0.430108-0.964642 0.626258-1.250976 0.09969-0.145519 0.258587-0.405276 0.353516-0.577149 0.09493-0.171877 0.233144-0.403613 0.30664-0.514648 0.192-0.290067 0.801995-0.69087 1.004653-0.786133 0.226485-0.106458 0.476022-0.393005 0.558594-0.641601 0.08488-0.25554 0.05914-0.6586735-0.05176-0.806641-0.06535-0.087195-0.106972-0.1025395-0.274414-0.1025395-0.153355 0-0.219648-0.020285-0.295898-0.091797-0.104882-0.098364-0.181641-0.085193-0.181641 0.03125 0 0.091325-0.338982 0.265138-0.379653 0.224609-0.01694-0.01688 2.35e-4 -0.1135615 0.03907-0.2148435 0.14226-0.371194 0.188732-0.607818 0.166016-0.847656-0.03746-0.39545-0.283731-1.0005015-0.417969-1.026367-0.03228-0.00622-0.207664 0.1134715-0.389648 0.2666015-0.949014 0.7985545-1.670685 1.146978-2.172852 1.450527-0.239631 0.1448415-0.240391 0.144512-0.644531 0.1357425-0.478492-0.010375-0.395416 0.065281-1.19353 0.549129-0.276429 0.167584-0.588144 0.487103-0.692383 0.526711-0.104766 0.03981-0.436777-0.202453-0.743164-0.170957-0.629253 0.06467-0.797764 0.103263-1.033203 0.239258-0.232835 0.134489-0.291723 0.234659-0.242187 0.414063 0.04851 0.175662 0.306275 0.521542 0.616211 0.826172l0.233398 0.529355-0.179688 0.27832c-0.0992 0.153157-0.248865 0.436242-0.332031 0.628906-0.165283 0.382905-0.210564 0.454799-0.540039 0.860352-0.285423 0.351324-0.751244 0.8567-1.0467045 1.435547-0.2526695 0.495005-0.374084 0.623308-0.8378955 0.888672-0.1160185 0.06638-0.259029 0.177925-0.40625 0.24707-0.954738-1.227472-1.473565-2.737911-1.474612-4.292969 0-3.865993 3.134007-7 7-7zm1.413 4.852258-0.560649 0.661484-0.781351-0.11852 0.561625-0.461915z" style="opacity:.2"/>
  <path d="m12 4c-4.418278 0-8 3.581722-8 8s3.581722 8 8 8 8-3.581722 8-8-3.581722-8-8-8zm0 1c3.865993 0 7 3.134007 7 7-0.0031 3.213894-2.194256 6.012781-5.313476 6.787109-0.04434-0.111981-0.06262-0.231487-0.05078-0.270508 0.05996-0.19771 0.102616-0.46441 0.117188-0.738281 0.02309-0.433889 0.197236-1.122182 0.472374-1.435546 0.242011-0.275637 0.288207-0.495439 0.292969-1.390625 0.0039-0.741057 0.01218-0.827882 0.107422-1.160157 0.162126-0.565623 0.430108-0.964642 0.626258-1.250976 0.09969-0.145519 0.258587-0.405275 0.353516-0.577149 0.09493-0.171877 0.233144-0.403613 0.30664-0.514648 0.192-0.290067 0.801995-0.69087 1.004653-0.786133 0.226485-0.106458 0.476022-0.393005 0.558594-0.641601 0.08488-0.25554 0.05914-0.6586735-0.05176-0.806641-0.06535-0.087195-0.106972-0.1025395-0.274414-0.1025395-0.153355 0-0.219648-0.020285-0.295898-0.091796-0.104882-0.098365-0.181641-0.085194-0.181641 0.03125 0 0.091325-0.338982 0.265138-0.379653 0.224609-0.01694-0.01688 2.35e-4 -0.1135615 0.03907-0.2148435 0.14226-0.371195 0.188732-0.607819 0.166016-0.847657-0.03746-0.39545-0.283731-1.0005015-0.417969-1.026367-0.03228-0.00622-0.207664 0.1134715-0.389648 0.2666015-0.949014 0.7985545-1.670685 1.146978-2.172852 1.450527-0.239631 0.1448415-0.240391 0.144512-0.644531 0.1357425-0.478492-0.010375-0.395416 0.06528-1.19353 0.549129-0.276429 0.1675835-0.588144 0.487103-0.692383 0.526711-0.104766 0.03981-0.436777-0.102454-0.743164-0.07096-0.629253 0.06467-0.797764 0.103264-1.033203 0.239258-0.232835 0.134489-0.291723 0.23466-0.242187 0.414063 0.04851 0.175663 0.306275 0.521543 0.616211 0.826172l0.233398 0.429356-0.179688 0.27832c-0.0992 0.153157-0.248865 0.436242-0.332031 0.628906-0.165283 0.382905-0.210564 0.454799-0.540039 0.860352-0.285423 0.351324-0.751244 0.8567-1.0467045 1.435547-0.2526695 0.495005-0.374084 0.623308-0.8378955 0.888672-0.1160185 0.06638-0.259029 0.177925-0.40625 0.24707-0.954738-1.22747-1.473565-2.737909-1.474612-4.292967 0-3.865993 3.134007-7 7-7zm1.413 4.9522577-0.560649 0.6614843-0.781351-0.11852 0.561625-0.461914z" style="fill:#8b9cbe"/>
 </g>
</svg>
