<svg xmlns="http://www.w3.org/2000/svg" height="22" width="22" version="1.1">
 <circle style="opacity:.2" cx="11" r="10" cy="11.5"/>
 <circle style="fill:#4f4f4f" cx="11" r="10" cy="11"/>
 <path style="opacity:.2" d="m13 5.5c-0.647076 0-1.269618 0.1053883-1.853516 0.2949219l0.626954 1.25c0.673369-0.3376415 1.421981-0.5449219 2.226562-0.5449219 1.783519 0.00281 3.229336 0.9554242 4.121094 2.5-2.556783 2.658456-5.121094 5.327181-7.587891 7.966797 0.752979 0.340374 1.586745 0.533203 2.466797 0.533203 2.341333-0.0051 4.465854-1.371582 5.441406-3.5h-0.117187c-0.892108 1.545179-2.540002 2.497891-4.324219 2.5-0.590872-0.001745-1.176757-0.10821-1.730469-0.314453l6.175781-7.185547c-0.976143-2.1297-3.102565-3.4964675-5.445312-3.5zm-2.681641 0.6386719c-1.9655972 0.98531-3.318359 3.012873-3.318359 5.3613281 0 2.2788 1.3035935 3.999271 3 5.146484l1.070312-1.097656c-1.2891026-0.93264-2.0705028-2.43269-2.070312-4.048828 0-1.6430791 0.8036887-3.088568 2.027344-4h-0.027344z"/>
 <path style="fill:#f7f457" d="m13 5c-0.647076 0-1.269618 0.1053883-1.853516 0.2949219l0.626954 1.25c0.673369-0.3376415 1.421981-0.5449219 2.226562-0.5449219 1.783519 0.00281 3.229336 0.9554242 4.121094 2.5-2.556783 2.658456-5.121094 5.327181-7.587891 7.966797 0.752979 0.340374 1.586745 0.533203 2.466797 0.533203 2.341333-0.0051 4.465854-1.371582 5.441406-3.5h-0.117187c-0.892108 1.545179-2.540002 2.497891-4.324219 2.5-0.590872-0.001745-1.176757-0.10821-1.730469-0.314453l6.175781-7.185547c-0.976143-2.1297-3.102565-3.4964675-5.445312-3.5zm-2.681641 0.6386719c-1.9655972 0.98531-3.318359 3.012873-3.318359 5.3613281 0 2.2788 1.3035935 3.999271 3 5.146484l1.070312-1.097656c-1.2891026-0.93264-2.0705028-2.43269-2.070312-4.048828 0-1.6430791 0.8036887-3.088568 2.027344-4h-0.027344l-0.681641-1.3613281z"/>
 <path style="opacity:.2;fill:#8b9cbe" d="m13 5c-0.647076 0-1.269618 0.1053883-1.853516 0.2949219l0.222657 0.4453125c0.519981-0.1476358 1.063675-0.2402344 1.630859-0.2402344 2.225483 0.0033557 4.242895 1.2461942 5.277344 3.1953125l0.167968-0.1953125c-0.976143-2.1297-3.102565-3.4964675-5.445312-3.5zm-2.681641 0.6386719c-1.9655968 0.98531-3.318359 3.012873-3.318359 5.3613281 0 0.086658 0.0138579 0.166911 0.0175781 0.251953 0.0927524-2.2409993 1.4057732-4.1633559 3.3007809-5.1132811l0.513672 1.0253906c0.065762-0.0542749 0.126854-0.1130718 0.195313-0.1640625h-0.027344l-0.681641-1.3613281zm7.609375 3.0644531c-2.492254 2.591526-4.990287 5.190991-7.394531 7.763672 0.112158 0.050699 0.230074 0.090763 0.345703 0.134765 2.034029-2.170975 4.127605-4.358929 6.228516-6.544921l0.96875-1.1269535c-0.046811-0.0785463-0.098737-0.151233-0.148438-0.2265625zm-8.912109 2.552734c-0.0040357 0.081783-0.015625 0.161311-0.015625 0.244141-0.0001767 1.496464 0.6761955 2.887075 1.798828 3.826172l0.271484-0.277344c-1.2203332-0.882887-1.976664-2.275987-2.054687-3.792969zm9.308594 2.244141c-0.892108 1.545179-2.540002 2.497891-4.324219 2.5-0.470257-0.001389-0.932578-0.087192-1.382812-0.21875l-0.347657 0.404297c0.553712 0.206243 1.139597 0.312708 1.730469 0.314453 1.000265-0.001182 1.952386-0.310087 2.757812-0.845703 0.70506-0.570955 1.290563-1.296799 1.683594-2.154297h-0.117187z"/>
 <path style="opacity:.2" d="m13 9.5-1 1h-7l-3 1 3 1h7l1 1v-3z"/>
 <path style="fill:#f7f457" d="m13 9-1 1h-7l-3 1 3 1h7l1 1v-3z"/>
 <path style="opacity:.1;fill:#8b9cbe" d="m11 1a10 10 0 0 0 -10 10 10 10 0 0 0 0.0107422 0.291016 10 10 0 0 1 9.9892578 -9.791016 10 10 0 0 1 9.989258 9.708985 10 10 0 0 0 0.010742 -0.208985 10 10 0 0 0 -10 -10z"/>
 <path style="opacity:.2;fill:#8b9cbe" d="m13 9l-1 1h-7l-3 1 0.75 0.25 2.25-0.75h7l1-1v-0.5z"/>
</svg>
