<svg xmlns="http://www.w3.org/2000/svg" width="22" height="22" version="1">
 <path style="opacity:0.2" d="m 10.939453,2.5000392 a 2.0002,2.0009556 0 0 0 -0.0039,9.75e-4 C 10.455184,2.5123337 9.986125,2.6494957 9.575202,2.8986253 L 1.3251953,7.9005152 C 0.50509834,8.3976997 -1.6351031e-4,9.2936647 3.9693019e-8,10.252966 v 3.501322 C 1.8263969e-4,14.803819 0.60674534,15.77197 1.5507813,16.229832 L 9.800781,20.231343 C 10.179736,20.415144 10.590609,20.500181 11,20.5 c 0.409392,1.81e-4 0.820265,-0.08486 1.199219,-0.268657 l 8.25,-4.001511 C 21.393255,15.77197 21.999817,14.803819 22,13.754288 V 10.252966 C 22.000163,9.2936647 21.494907,8.3977012 20.674804,7.9005152 L 12.424805,2.8986272 C 12.013882,2.6494977 11.544822,2.5123359 11.064453,2.5010161 a 2.0002,2.0009556 0 0 0 -0.0039,-9.749e-4 c -0.02027,-4.361e-4 -0.04029,0.00291 -0.06055,0.00293 -0.02026,-1.52e-5 -0.04027,-0.00337 -0.06055,-0.00293 z"/>
 <path style="fill:#b2bfd9" d="m 10.939453,2.000039 a 2.0002,2.0009556 0 0 0 -0.0039,9.75e-4 C 10.455184,2.012333 9.986125,2.1494955 9.575202,2.3986251 L 1.3251953,7.4005152 C 0.50509834,7.8976997 -1.6351031e-4,8.7936642 3.9693019e-8,9.7529657 V 13.254288 C 1.8263969e-4,14.303819 0.60674534,15.27197 1.5507813,15.729832 L 9.800781,19.731343 C 10.179736,19.915144 10.590609,20.000181 11,20 c 0.409392,1.81e-4 0.820265,-0.08486 1.199219,-0.268657 l 8.25,-4.001511 C 21.393255,15.27197 21.999817,14.303819 22,13.254288 V 9.7529657 C 22.000163,8.7936642 21.494907,7.8977012 20.674804,7.4005152 L 12.424805,2.398627 C 12.013882,2.1494975 11.544822,2.0123357 11.064453,2.001016 a 2.0002,2.0009556 0 0 0 -0.0039,-9.75e-4 c -0.02027,-4.361e-4 -0.04029,0.00292 -0.06055,0.00293 -0.02026,-1.52e-5 -0.04027,-0.00337 -0.06055,-0.00293 z"/>
 <path style="opacity:0.1" d="m 10.982422,4.4999997 c -0.131044,0.0031 -0.258992,0.04046 -0.371094,0.1083985 L 2.3613281,9.6083987 C 2.1369728,9.7443617 1.9999553,9.9876617 2,10.25 v 3.5 c 5e-5,0.287364 0.1642747,0.54944 0.4228515,0.674805 l 8.2500005,3.999999 c 0.236956,0.114886 0.516805,0.09709 0.737304,-0.04687 l 6.577624,-3.618604 0.53125,0.786133 0.741211,-1.522466 0.740235,-1.522461 -1.688477,0.120118 -1.688476,0.119141 0.52539,0.776367 -6.2036,3.374463 L 3.5,13.280274 v -2.607422 l 7.529297,-4.5634773 6.225586,3.212891 -6.316406,4.0742193 -5.625977,-2.578125 -0.625,1.363281 6,2.75 c 0.232724,0.1065 0.503687,0.08699 0.71875,-0.05176 l 7.75,-5.0000003 c 0.483515,-0.312747 0.448867,-1.0311335 -0.0625,-1.2958985 l -7.75,-4 c -0.111511,-0.057805 -0.235753,-0.086683 -0.361328,-0.083983 z"/>
 <path style="fill:#2d4346" d="m 10.982422,3.9999997 c -0.131044,0.0031 -0.258992,0.04046 -0.371094,0.1083985 L 2.3613281,9.1083987 C 2.1369728,9.2443617 1.9999553,9.4876617 2,9.7499997 V 13.25 c 5e-5,0.287364 0.1642747,0.54944 0.4228515,0.674805 l 8.2500005,3.999999 c 0.236956,0.114886 0.516805,0.09709 0.737304,-0.04687 l 6.577624,-3.618604 0.53125,0.786133 0.741211,-1.522466 0.740235,-1.522461 -1.688477,0.120118 -1.688476,0.119141 0.52539,0.776367 -6.2036,3.374463 L 3.5,12.780274 V 10.172852 L 11.029297,5.6093747 17.254883,8.8222652 10.938477,12.896485 5.3125,10.31836 l -0.625,1.363281 6,2.75 c 0.232724,0.1065 0.503687,0.08699 0.71875,-0.05176 l 7.75,-5.0000003 c 0.483515,-0.312747 0.448867,-1.0311335 -0.0625,-1.2958985 l -7.75,-4 c -0.111511,-0.057805 -0.235753,-0.086682 -0.361328,-0.083983 z"/>
 <path style="opacity:0.2;fill:#8b9cbe" d="m 10.939453,1.9999999 a 2.0002,2.0009556 0 0 0 -0.0039,9.75e-4 C 10.455178,2.0122959 9.986119,2.1493079 9.575196,2.3984374 L 1.3251953,7.4003902 C 0.50509834,7.8975747 -1.6351031e-4,8.7936272 3.9693019e-8,9.7529297 V 10.25293 C -1.6351031e-4,9.2936277 0.50509834,8.3975747 1.3251953,7.9003902 L 9.575196,2.8984374 C 9.986119,2.6493079 10.455178,2.512296 10.935547,2.5009765 a 2.0002,2.0009556 0 0 1 0.0039,-9.75e-4 c 0.02027,-4.35e-4 0.04029,0.00291 0.06055,0.00293 0.02026,-1.5e-5 0.04027,-0.00336 0.06055,-0.00293 a 2.0002,2.0009556 0 0 1 0.0039,9.75e-4 c 0.480369,0.01132 0.949428,0.1483314 1.360351,0.3974609 l 8.25,5.0019528 C 21.494907,8.3975777 22.000163,9.2936287 22,10.252931 V 9.7529307 c 1.57e-4,-0.959302 -0.505099,-1.855353 -1.325202,-2.352539 l -8.25,-5.0019527 C 12.013882,2.1493079 11.544822,2.0122962 11.064453,2.0009765 a 2.0002,2.0009556 0 0 0 -0.0039,-9.75e-4 c -0.02027,-4.361e-4 -0.04029,0.00291 -0.06055,0.00293 -0.02026,-1.52e-5 -0.04027,-0.00336 -0.06055,-0.00293 z"/>
</svg>
