<svg xmlns="http://www.w3.org/2000/svg" width="22" height="22" version="1">
 <path style="opacity:0.2" d="m 21,11.5 a 10,10 0 0 1 -10,10 10,10 0 0 1 -10,-10 10,10 0 0 1 10,-10 10,10 0 0 1 10,10 z"/>
 <path style="fill:#f4473a" d="M 21,11 A 10,10 0 0 1 11,21 10,10 0 0 1 1,11 10,10 0 0 1 11,1 10,10 0 0 1 21,11 Z"/>
 <path style="opacity:0.2;fill:#8b9cbe" d="M 11,1 A 10,10 0 0 0 1,11 10,10 0 0 0 1.0107422,11.291016 10,10 0 0 1 11,1.5 10,10 0 0 1 20.989258,11.208985 10,10 0 0 0 21,11 10,10 0 0 0 11,1 Z"/>
 <path style="opacity:0.2" d="M 16.006794,12.022882 V 7.9997302 l 1.493329,0.25 -1.70821,-1.7394605 -2.59807,0.4309216 L 12.005844,9.817686 5.5,6.5 7.5,10 3.5,9 c 0,0 5.180536,4.773163 5.313599,4.854976 L 8.484401,14.23844 8.627389,14.743215 5.555993,16.5 h 3.992704 z"/>
 <path style="fill:#8b9cbe" d="M 16.006794,11.522882 V 7.4997302 l 1.493329,0.25 -1.70821,-1.7394605 -2.59807,0.4309216 L 12.005844,9.317686 5.5,6 l 2,3.5 -4,-1 c 0,0 5.180536,4.773163 5.313599,4.854976 L 8.484401,13.73844 8.627389,14.243215 5.555993,16 h 3.992704 z"/>
</svg>
