<svg xmlns="http://www.w3.org/2000/svg" width="22" height="22" version="1">
 <path style="opacity:0.2" d="m 1,19 v 0.5 c 0,0.554 0.446,1 1,1 h 18 c 0.554,0 1,-0.446 1,-1 V 19 c 0,0.554 -0.446,1 -1,1 H 2 C 1.446,20 1,19.554 1,19 Z"/>
 <rect style="fill:#8e8e8e" width="20" height="18" x="1" y="2" rx="1" ry="1"/>
 <path style="opacity:0.1;fill:#8b9cbe" d="M 2,2 C 1.446,2 1,2.446 1,3 v 0.5 c 0,-0.554 0.446,-1 1,-1 h 18 c 0.554,0 1,0.446 1,1 V 3 C 21,2.446 20.554,2 20,2 Z"/>
 <rect style="fill:#35454e" width="20" height="14" x="1" y="4"/>
 <path style="opacity:0.2" d="m 5,6.5 v 1 9 h 1 1 v -1 H 6 v -8 h 1 v -1 z m 8,0 v 1 h 1 v 8 h -1 v 1 h 2 V 15.5 7 6.5 Z m 3.464844,2.0625 A 0.5,0.5 0 0 0 16,9.0625 a 0.5,0.5 0 0 0 0.5,0.5 0.5,0.5 0 0 0 0.5,-0.5 0.5,0.5 0 0 0 -0.5,-0.5 0.5,0.5 0 0 0 -0.03516,0 z m 0,5 A 0.5,0.5 0 0 0 16,14.0625 a 0.5,0.5 0 0 0 0.5,0.5 0.5,0.5 0 0 0 0.5,-0.5 0.5,0.5 0 0 0 -0.5,-0.5 0.5,0.5 0 0 0 -0.03516,0 z"/>
 <rect style="opacity:0.2" width="20" height=".5" x="1" y="4"/>
 <rect style="opacity:0.1;fill:#8b9cbe" width="20" height=".5" x="1" y="18"/>
 <rect style="fill:#267edb" width="1" height="9.5" x="5" y="6.5"/>
 <rect style="fill:#267edb" width="2" height="1" x="5" y="6"/>
 <rect style="fill:#267edb" width="2" height="1" x="5" y="15"/>
 <rect style="fill:#267edb" width="1" height="9.5" x="-15" y="6.5" transform="scale(-1,1)"/>
 <rect style="fill:#267edb" width="2" height="1" x="-15" y="6" transform="scale(-1,1)"/>
 <rect style="fill:#267edb" width="2" height="1" x="-15" y="15" transform="scale(-1,1)"/>
 <path style="opacity:0.2" d="M 8.4472656,8.7773438 7.5527344,9.222656 10.013672,14.144531 c -0.0877,0.166911 -0.174848,0.358873 -0.261719,0.501953 -0.185676,0.30582 -0.368919,0.549827 -0.517578,0.69336 C 9.085716,15.483376 8.9930556,15.5 9,15.5 H 8.5 v 1 H 9 c 0.381944,0 0.679909,-0.202126 0.927734,-0.441406 0.247826,-0.23928 0.466926,-0.542148 0.679688,-0.892578 0.425523,-0.700862 0.820515,-1.593024 1.169922,-2.482422 0.698813,-1.778797 1.203125,-3.546875 1.203125,-3.546875 L 12.019531,8.8632812 c 0,0 -0.495688,1.7319218 -1.171875,3.4531248 -0.09156,0.233074 -0.191685,0.453808 -0.289062,0.681641 z"/>
 <path style="fill:none;stroke:#8b9cbe" d="m 8,8.5 2.5,5"/>
 <path style="fill:none;stroke:#8b9cbe" d="m 12.5,8.5 c 0,0 -2,7 -3.5,7 H 8.5"/>
 <path style="fill:#267edb" d="m 17,8.561956 a 0.5,0.5 0 0 1 -0.5,0.5 0.5,0.5 0 0 1 -0.5,-0.5 0.5,0.5 0 0 1 0.5,-0.5 0.5,0.5 0 0 1 0.5,0.5 z"/>
 <path style="fill:#267edb" d="m 17,13.561956 a 0.5,0.5 0 0 1 -0.5,0.5 0.5,0.5 0 0 1 -0.5,-0.5 0.5,0.5 0 0 1 0.5,-0.5 0.5,0.5 0 0 1 0.5,0.5 z"/>
</svg>
