<svg width="22" height="22" version="1.1" xmlns="http://www.w3.org/2000/svg">
 <path d="m21 1.5002975-8 6s4 4.0000005 7 1c1-1 1-7 1-7z" style="opacity:.2"/>
 <path d="m1 1.5002975 8 6s-4 4.0000005-7 1c-1-1-1-7-1-7z" style="opacity:.2"/>
 <path d="m21 1-8 6s4 4 7 1c1-1 1-7 1-7z" style="fill:#b73c0d"/>
 <path d="M 21 1 L 13 7 C 13 7 13.211332 7.1776371 13.310547 7.2675781 L 20.992188 1.5058594 C 20.994523 1.3202981 21 1 21 1 z " style="fill:#8b9cbe;opacity:.1"/>
 <path d="m1 1 8 6s-4 4-7 1c-1-1-1-7-1-7z" style="fill:#b73c0d"/>
 <path d="M 1 1 C 1 1 1.0054767 1.3202981 1.0078125 1.5058594 L 8.6894531 7.2675781 C 8.7886676 7.1776371 9 7 9 7 L 1 1 z " style="fill:#8b9cbe;opacity:.1"/>
 <circle cx="11" cy="12.5" r="9" style="opacity:.2"/>
 <circle cx="11" cy="12" r="9" style="fill:#e5490e"/>
 <path d="m4 12.5 2-1 4 3-2 1z" style="opacity:.1"/>
 <path d="m4 12 2-1 4 3-2 1z" style="fill:#4f4f4f"/>
 <path d="m18 12.5-2-1-4 3 2 1z" style="opacity:.1"/>
 <path d="m18 12-2-1-4 3 2 1z" style="fill:#4f4f4f"/>
 <path d="M 11 3 A 9 9 0 0 0 2 12 A 9 9 0 0 0 2.0097656 12.287109 A 9 9 0 0 1 11 3.5 A 9 9 0 0 1 19.990234 12.212891 A 9 9 0 0 0 20 12 A 9 9 0 0 0 11 3 z " style="fill:#8b9cbe;opacity:.2"/>
</svg>
