<svg xmlns="http://www.w3.org/2000/svg" width="22" height="22" version="1.1">
 <g transform="translate(0,-1030.3622)">
  <path style="opacity:0.2" d="m 15.549115,1032.8622 c -0.886755,0.077 -1.428167,0.3778 -2.010133,0.8422 -0.556212,-0.1682 -1.126026,-0.2585 -1.48074,-0.1853 -0.795402,0.1652 -1.349122,0.5043 -1.842135,1.0411 -0.03901,0 -0.07878,-0.036 -0.117209,-0.037 -0.797915,-0.013 -1.167373,0.2243 -1.3557161,0.2963 -0.3815545,0.1395 -0.6856377,0.4684 -0.963067,0.7077 -0.3033165,-0.3603 -0.7110855,-0.8611 -0.9357182,-1.115 -0.6002637,-0.7051 -1.1465171,-1.1726 -1.6194371,-1.3491 -0.6777616,-0.2472 -1.4995297,-0.1804 -2.0921799,0.08 -0.5926503,0.2604 -1.0042379,0.6418 -1.3459496,1.0489 -0.1213536,0.1445 -0.5145321,0.443 -0.7188817,1.2729 -0.20434939,0.83 0.091957,1.6043 0.3633479,2.0918 0.5427815,0.9752 1.3525399,1.9214 3.0650143,4.0881 0.2243142,0.2838 0.3717547,0.4701 0.5840913,0.7389 -0.4032078,0.1638 -0.565961,-0.013 -1.1623222,0.5263 -0.5959697,0.6225 -0.8458535,1.452 -0.8653929,2.1522 -0.048081,1.7231 1.0885739,2.524 1.9984128,3.0061 0.3118797,0.1653 0.3370977,0.1512 0.4942311,0.2105 0.1571335,0.059 0.3463316,0.1274 0.570417,0.2067 0.4481708,0.1586 1.0325267,0.3591 1.691716,0.581 1.3183783,0.4438 2.9350623,0.9736 4.3152433,1.4055 0.656865,0.2055 1.181144,0.3593 1.834319,0.388 0.653177,0.029 1.533847,-0.2272 2.058971,-0.6492 0.454329,-0.3651 1.477098,-1.2626 2.570784,-2.2243 1.093686,-0.9618 1.962891,-1.7097 2.434039,-2.1795 0.157403,-0.157 0.358393,-0.3477 0.576277,-0.6999 0.217885,-0.3523 0.386257,-0.8895 0.400465,-1.3295 0.02841,-0.8802 -0.196269,-1.3104 -0.427814,-2.01 -0.525162,-1.5868 -1.226119,-3.2957 -1.918319,-4.7411 -0.3461,-0.7227 -0.686796,-1.3758 -1.021672,-1.9339 -0.334875,-0.5581 -0.547145,-0.9805 -1.179903,-1.5011 -0.631876,-0.52 -1.274615,-0.7357 -1.900739,-0.7291 z"/>
  <path style="fill:#4f4f4f" d="m 15.549115,1032.3622 c -0.886755,0.077 -1.428167,0.3778 -2.010133,0.8422 -0.556212,-0.1682 -1.126026,-0.2585 -1.48074,-0.1853 -0.795402,0.1652 -1.349122,0.5043 -1.842135,1.0411 -0.03901,0 -0.07878,-0.036 -0.117209,-0.037 -0.797915,-0.013 -1.167373,0.2243 -1.3557161,0.2963 -0.3815545,0.1395 -0.6856377,0.4684 -0.963067,0.7077 -0.3033165,-0.3603 -0.7110855,-0.8611 -0.9357182,-1.115 -0.6002637,-0.7051 -1.1465171,-1.1726 -1.6194371,-1.3491 -0.6777616,-0.2472 -1.4995297,-0.1804 -2.0921799,0.08 -0.5926503,0.2604 -1.0042379,0.6418 -1.3459496,1.0489 -0.1213536,0.1445 -0.5145321,0.443 -0.7188817,1.2729 -0.20434939,0.83 0.091957,1.6043 0.3633479,2.0918 0.5427815,0.9752 1.3525399,1.9214 3.0650143,4.0881 0.2243142,0.2838 0.3717547,0.4701 0.5840913,0.7389 -0.4032078,0.1638 -0.565961,-0.013 -1.1623222,0.5263 -0.5959697,0.6225 -0.8458535,1.452 -0.8653929,2.1522 -0.048081,1.7231 1.0885739,2.524 1.9984128,3.0061 0.3118797,0.1653 0.3370977,0.1512 0.4942311,0.2105 0.1571335,0.059 0.3463316,0.1274 0.570417,0.2067 0.4481708,0.1586 1.0325267,0.3591 1.691716,0.581 1.3183783,0.4438 2.9350623,0.9736 4.3152433,1.4055 0.656865,0.2055 1.181144,0.3593 1.834319,0.388 0.653177,0.029 1.533847,-0.2272 2.058971,-0.6492 0.454329,-0.3651 1.477098,-1.2626 2.570784,-2.2243 1.093686,-0.9618 1.962891,-1.7097 2.434039,-2.1795 0.157403,-0.157 0.358393,-0.3477 0.576277,-0.6999 0.217885,-0.3523 0.386257,-0.8895 0.400465,-1.3295 0.02841,-0.8802 -0.196269,-1.3104 -0.427814,-2.01 -0.525162,-1.5868 -1.226119,-3.2957 -1.918319,-4.7411 -0.3461,-0.7227 -0.686796,-1.3758 -1.021672,-1.9339 -0.334875,-0.5581 -0.547145,-0.9805 -1.179903,-1.5011 -0.631876,-0.52 -1.274615,-0.7357 -1.900739,-0.7291 z"/>
  <path style="opacity:0.2" d="m 14.758512,1048.6512 c 0.601482,-0.4843 4.457421,-3.8821 4.844607,-4.269 0.509871,-0.5094 0.514171,-0.6429 0.06457,-2.0042 -0.983872,-2.979 -2.714533,-6.6339 -3.493562,-7.2762 -0.324264,-0.2674 -0.922605,-0.2634 -1.343023,0.01 -0.586295,0.3798 -0.56025,0.8908 0.107225,2.1037 0.240441,0.437 0.437161,0.9239 0.437161,0.9603 0,0.036 -0.08351,0.066 -0.185586,0.066 -0.130677,0 -0.429327,-0.3853 -1.009461,-1.3022 -0.882749,-1.3953 -1.137553,-1.6171 -1.717553,-1.4955 -0.437261,0.091 -0.935425,0.4432 -1.099625,0.7761 -0.189894,0.3849 -0.11147,0.5794 0.772592,1.9165 0.543022,0.8215 0.691178,1.1152 0.606857,1.2036 -0.06136,0.064 -0.142497,0.1169 -0.180307,0.1169 -0.03781,0 -0.532257,-0.6608 -1.098755,-1.4684 -0.362251,-0.5166 -0.644827,-0.8962 -0.855615,-1.1485 -0.362427,-0.5135 -0.706161,-0.3541 -1.150648,-0.1839 -0.318154,0.1628 -0.6399513,0.3973 -0.7985933,0.6153 -0.3729785,0.5126 -0.3179105,0.8361 0.2945845,1.7309 0.2944458,0.4302 0.7314428,1.0345 0.9711058,1.3428 0.419573,0.5399 0.520896,0.9204 0.268276,1.0075 -0.14688,0.051 -0.07065,0.138 -2.8872397,-3.3073 -1.7443345,-2.1338 -2.5634365,-3.0618 -2.7682585,-3.1367 -0.3857608,-0.141 -0.8058564,0.044 -1.2180636,0.536 -0.6094499,0.7275 -0.6810267,0.5987 2.7468101,4.9447 1.682649,2.1332 3.1020787,3.9368 3.1542937,4.0077 0.193746,0.2634 -0.4473704,0.099 -1.3668286,-0.2209 -0.7740349,-0.269 -1.0545829,-0.3205 -1.5613744,-0.2867 -0.8398075,0.073 -1.221744,0.5534 -1.2402355,1.2175 -0.012915,0.4638 0.4143275,0.9108 0.9370135,1.1883 0.299081,0.1588 4.008368,1.4135 6.729245,2.2667 1.188957,0.3728 1.663264,0.3937 2.040387,0.09 z"/>
  <path style="fill:#8b9cbe" d="m 14.758512,1048.1512 c 0.601482,-0.4843 4.457421,-3.8821 4.844607,-4.269 0.509871,-0.5094 0.514171,-0.6429 0.06457,-2.0042 -0.983872,-2.979 -2.714533,-6.6339 -3.493562,-7.2762 -0.324264,-0.2674 -0.922605,-0.2634 -1.343023,0.01 -0.586295,0.3798 -0.56025,0.8908 0.107225,2.1037 0.240441,0.437 0.437161,0.9239 0.437161,0.9603 0,0.036 -0.08351,0.066 -0.185586,0.066 -0.130677,0 -0.429327,-0.3853 -1.009461,-1.3022 -0.882749,-1.3953 -1.137553,-1.6171 -1.717553,-1.4955 -0.437261,0.091 -0.935425,0.4432 -1.099625,0.7761 -0.189894,0.3849 -0.11147,0.5794 0.772592,1.9165 0.543022,0.8215 0.691178,1.1152 0.606857,1.2036 -0.06136,0.064 -0.142497,0.1169 -0.180307,0.1169 -0.03781,0 -0.532257,-0.6608 -1.098755,-1.4684 -0.362251,-0.5166 -0.644827,-0.8962 -0.855615,-1.1485 -0.362427,-0.5135 -0.706161,-0.3541 -1.150648,-0.1839 -0.318154,0.1628 -0.6399513,0.3973 -0.7985933,0.6153 -0.3729785,0.5126 -0.3179105,0.8361 0.2945845,1.7309 0.2944458,0.4302 0.7314428,1.0345 0.9711058,1.3428 0.419573,0.5399 0.520896,0.9204 0.268276,1.0075 -0.14688,0.051 -0.07065,0.138 -2.8872397,-3.3073 -1.7443345,-2.1338 -2.5634365,-3.0618 -2.7682585,-3.1367 -0.3857608,-0.141 -0.8058564,0.044 -1.2180636,0.536 -0.6094499,0.7275 -0.6810267,0.5987 2.7468101,4.9447 1.682649,2.1332 3.1020787,3.9368 3.1542937,4.0077 0.193746,0.2634 -0.4473704,0.099 -1.3668286,-0.2209 -0.7740349,-0.269 -1.0545829,-0.3205 -1.5613744,-0.2867 -0.8398075,0.073 -1.221744,0.5534 -1.2402355,1.2175 -0.012915,0.4638 0.4143275,0.9108 0.9370135,1.1883 0.299081,0.1588 4.008368,1.4135 6.729245,2.2667 1.188957,0.3728 1.663264,0.3937 2.040387,0.09 z"/>
  <path style="opacity:0.1;fill:#8b9cbe" d="m 15.548828,1032.3622 c -0.886755,0.077 -1.427799,0.3774 -2.009766,0.8418 -0.556212,-0.1682 -1.125754,-0.2587 -1.480468,-0.1855 -0.795402,0.1652 -1.348784,0.5042 -1.841797,1.041 -0.03901,0 -0.07876,-0.036 -0.117188,-0.037 -0.797915,-0.013 -1.1671253,0.2248 -1.3554684,0.2968 -0.3815545,0.1395 -0.6874144,0.4678 -0.9648437,0.7071 -0.3033165,-0.3603 -0.7109142,-0.8594 -0.9355469,-1.1133 -0.6002637,-0.7051 -1.1462206,-1.1731 -1.6191406,-1.3496 -0.6777616,-0.2472 -1.4991467,-0.1803 -2.0917969,0.08 -0.5926503,0.2604 -1.0039914,0.6417 -1.3457031,1.0488 -0.1213536,0.1445 -0.5144004,0.4435 -0.71875,1.2734 -0.0725762,0.2948 -0.0692437,0.5753 -0.039063,0.8457 0.010318,-0.1152 0.00999,-0.2276 0.039063,-0.3457 0.2043496,-0.8299 0.5973964,-1.1289 0.71875,-1.2734 0.3417117,-0.4071 0.7530528,-0.7884 1.3457031,-1.0488 0.5926502,-0.2604 1.4140353,-0.3273 2.0917969,-0.08 0.47292,0.1765 1.0188769,0.6445 1.6191406,1.3496 0.2246327,0.2539 0.6322304,0.753 0.9355469,1.1133 0.2774293,-0.2393 0.5832892,-0.5676 0.9648437,-0.7071 0.1883431,-0.072 0.5575534,-0.3098 1.3554684,-0.2968 0.03843,10e-4 0.07818,0.037 0.117188,0.037 0.493013,-0.5368 1.046395,-0.8759 1.841797,-1.0411 0.354714,-0.073 0.924256,0.017 1.480468,0.1856 0.581967,-0.4644 1.123011,-0.7648 2.009766,-0.8418 0.626124,-0.01 1.268515,0.2085 1.900391,0.7285 0.632758,0.5206 0.844812,0.9439 1.179687,1.502 0.334876,0.5581 0.677338,1.2109 1.023438,1.9336 0.6922,1.4454 1.392806,3.1554 1.917968,4.7422 0.191355,0.5781 0.369109,0.9853 0.41211,1.6015 0.0022,-0.03 0.01469,-0.063 0.01563,-0.092 0.02841,-0.8802 -0.196189,-1.3102 -0.427735,-2.0098 -0.525167,-1.5867 -1.225773,-3.2967 -1.917973,-4.7421 -0.3461,-0.7227 -0.688562,-1.3755 -1.023438,-1.9336 -0.334875,-0.5581 -0.546929,-0.9814 -1.179687,-1.502 -0.631876,-0.52 -1.274267,-0.7351 -1.900391,-0.7285 z m -10.8007811,9.6016 c -0.2140882,0.036 -0.4286307,0.082 -0.8300781,0.4453 -0.5959698,0.6225 -0.845695,1.4521 -0.8652344,2.1523 -0.00326,0.1168 0.012352,0.2197 0.019531,0.3281 0.05224,-0.6616 0.2969076,-1.4072 0.8457032,-1.9804 0.5963611,-0.5393 0.7589015,-0.3616 1.1621093,-0.5254 -0.1207552,-0.1529 -0.2271774,-0.2873 -0.332031,-0.4199 z"/>
 </g>
</svg>
