<svg xmlns="http://www.w3.org/2000/svg" width="22" height="22" version="1">
 <path style="opacity:0.2" d="m 18.683594,2.5195312 c -0.18956,-0.019436 -0.406222,-0.011096 -0.654297,0.033203 L 7.9140625,4.6582031 C 6.143725,4.8711886 5.99983,6.5002034 6,6.4980469 V 8.5 16.231 c 1.740342,0.449041 2.9674815,-0.596404 3,1.200641 V 7.4648438 L 17,5.7363281 V 7.5 14.231 c 1.740342,0.449041 2.967481,-0.596404 3,1.200641 V 4.1484375 c 0,0 0.01051,-1.4928511 -1.316406,-1.6289063 z"/>
 <path style="fill:#ed7408" d="m 18.683594,2.0195312 c -0.18956,-0.019436 -0.406222,-0.011096 -0.654297,0.033203 L 7.9140625,4.1582031 C 6.143725,4.3711886 5.99983,6.0002034 6,5.9980469 V 8 15.731 c 1.740342,0.449041 2.9674815,-0.596404 3,1.200641 V 6.9648438 L 17,5.2363281 V 7 13.731 c 1.740342,0.449041 2.967481,-0.596404 3,1.200641 V 3.6484375 c 0,0 0.01051,-1.4928511 -1.316406,-1.6289063 z"/>
 <path style="opacity:0.2" d="m 16,11.5 a 4,4 0 0 0 -4,4 4,4 0 0 0 4,4 4,4 0 0 0 4,-4 4,4 0 0 0 -4,-4 z m -11,2 a 4,4 0 0 0 -4,4 4,4 0 0 0 4,4 4,4 0 0 0 4,-4 4,4 0 0 0 -4,-4 z"/>
 <path style="fill:#ffac29" d="m 16,11 a 4,4 0 0 0 -4,4 4,4 0 0 0 4,4 4,4 0 0 0 4,-4 4,4 0 0 0 -4,-4 z M 5,13 a 4,4 0 0 0 -4,4 4,4 0 0 0 4,4 4,4 0 0 0 4,-4 4,4 0 0 0 -4,-4 z"/>
 <path style="opacity:0.1;fill:#8b9cbe" d="m 18.683594,2.0195312 c -0.18956,-0.019436 -0.406222,-0.011096 -0.654297,0.033203 L 7.9140625,4.1582031 C 6.143725,4.3711886 5.99983,6.0002034 6,5.9980469 v 0.5 C 5.99983,6.5002034 6.143725,4.8711886 7.9140625,4.6582031 L 18.029297,2.5527344 c 0.248075,-0.044299 0.464737,-0.052639 0.654297,-0.033203 C 20.01051,2.6555864 20,4.1484375 20,4.1484375 v -0.5 c 0,0 0.01051,-1.4928511 -1.316406,-1.6289063 z"/>
 <path style="opacity:0.2;fill:#8b9cbe" d="m 16,11 a 4,4 0 0 0 -4,4 4,4 0 0 0 0.0098,0.210938 A 4,4 0 0 1 16,11.5 4,4 0 0 1 19.990234,15.283203 4,4 0 0 0 20,15 4,4 0 0 0 16,11 Z M 5,13 A 4,4 0 0 0 1,17 4,4 0 0 0 1.00977,17.210938 4,4 0 0 1 5,13.5 4,4 0 0 1 8.9902344,17.283203 4,4 0 0 0 9,17 4,4 0 0 0 5,13 Z"/>
</svg>
