<svg width="22" height="22" version="1.1" xmlns="http://www.w3.org/2000/svg">
 <path d="m 15,5.5 c -0.554,0 -1,0.446 -1,1 v 3.976562 C 14,9.936075 13.563925,9.5 13.023438,9.5 H 9.976562 C 9.436075,9.5 9,9.936075 9,10.476562 v 3 C 9,12.936075 8.5639253,12.5 8.0234375,12.5 H 4.9765625 C 4.4360747,12.5 4,12.936075 4,13.476562 v 7.046876 C 4,21.063925 4.4360747,21.5 4.9765625,21.5 h 3.046875 C 8.5639253,21.5 9,21.063925 9,20.523438 9,21.063925 9.436075,21.5 9.976562,21.5 h 3.046876 C 13.563925,21.5 14,21.063925 14,20.523438 V 20.5 c 0,0.554 0.446,1 1,1 h 3 c 0.554,0 1,-0.446 1,-1 v -14 c 0,-0.554 -0.446,-1 -1,-1 z" style="opacity:.2"/>
 <rect x="4" y="12" width="5" height="9" ry=".97560978" style="fill:#d96808"/>
 <rect x="9" y="9" width="5" height="12" ry=".97560978" style="fill:#f69a0d"/>
 <rect x="14" y="5" width="5" height="16" ry="1" style="fill:#f8c538"/>
 <path d="m 15,5 c -0.554,0 -1,0.446 -1,1 v 0.5 c 0,-0.554 0.446,-1 1,-1 h 3 c 0.554,0 1,0.446 1,1 V 6 C 19,5.446 18.554,5 18,5 Z M 9.976562,9 C 9.436076,9 9,9.436076 9,9.976562 v 0.5 C 9,9.936076 9.436076,9.5 9.976562,9.5 h 3.046876 C 13.563924,9.5 14,9.936076 14,10.476562 v -0.5 C 14,9.436076 13.563924,9 13.023438,9 Z M 4.9765625,12 C 4.4360747,12 4,12.436076 4,12.976562 v 0.5 C 4,12.936076 4.4360747,12.5 4.9765625,12.5 h 3.046875 C 8.5639253,12.5 9,12.936076 9,13.476562 v -0.5 C 9,12.436076 8.5639253,12 8.0234375,12 Z" style="fill:#8b9cbe;opacity:.2"/>
 <path d="m4.489258 1.5000961c-0.2190385 0.0048331-0.4094285 0.1516746-0.469727 0.3623056l-1.9999997 7.0000149c-0.075905 0.2653404 0.077507 0.5420064 0.3427734 0.6181664l7.0000003 2.000005c0.265339 0.0759 0.542005-0.0775 0.618164-0.342774l2-7.000017c0.075905-0.2653399-0.077507-0.5420063-0.342773-0.6181652l-7.0000005-2.0000044c-0.04822-0.0139214-0.0982585-0.0205084-0.1484375-0.0195318z" style="opacity:.2"/>
 <path d="m4.489258 1.0000965c-0.2190385 0.0048331-0.4094285 0.1516746-0.469727 0.3623056l-1.9999997 7.0000149c-0.075905 0.2653404 0.077507 0.5420068 0.3427734 0.6181662l7.0000003 2.0000048c0.265339 0.0759 0.542005-0.0775 0.618164-0.342774l2-7.0000166c0.075905-0.2653399-0.077507-0.5420063-0.342773-0.6181652l-7.0000005-2.0000044c-0.04822-0.0139214-0.0982585-0.0205084-0.1484375-0.0195318z" style="fill:#d7e50b"/>
 <path d="m4.4902344 1c-0.2190385 0.0048331-0.4104046 0.1526503-0.4707032 0.3632812l-2 7c-0.036539 0.1277311-0.017575 0.2558847 0.039063 0.3652344l1.960937-6.8652344c0.0602986-0.2106309 0.2516647-0.3584481 0.4707032-0.3632812 0.050179-9.766e-4 0.1002175 0.00561 0.1484375 0.019531l7.0000001 2c0.138217 0.039683 0.241869 0.1353175 0.302734 0.2539063l0.03906-0.1347656c0.075908-0.2653397-0.076528-0.5429816-0.341794-0.6191405l-7.0000001-2c-0.04822-0.0139214-0.0982585-0.0205078-0.1484375-0.0195312z" style="fill:#8b9cbe;opacity:.2"/>
</svg>
