<svg xmlns="http://www.w3.org/2000/svg" width="22" height="22" version="1">
 <path style="fill:#b2bfd9" d="m 19.506401,11.248933 c 0,5.522848 -2.805744,9.146515 -8.328592,9.146515 -3.8897784,0 -7.4386517,-1.616331 -9.0921525,-4.859248 C 1.3914576,14.174708 1,12.633069 1,11 1.2489331,9.566768 5.6194,2.3157895 11.142248,2.3157895 c 5.522847,0 8.364153,3.4102961 8.364153,8.9331435 z"/>
 <path style="fill:#6298df" d="M 10.25,6.5 C 5.693651,6.5 2,10.193651 2,14.75 c 0.00105,0.229573 0.021949,0.457411 0.042969,0.685547 A 10,10 0 0 0 8.0625,20.556641 c 0.572892,-0.01706 1.147811,-0.04087 1.699219,-0.04883 A 8,8 0 0 1 8,15.5 8,8 0 0 1 8.015625,15.164062 C 8.0127243,15.109344 8.0009325,15.054724 8,15 8.00818,14.94924 8.021962,14.90004 8.03125,14.849609 A 8,8 0 0 1 15.1875,7.5507812 C 14.089311,7.0449697 11.443368,6.5032228 10.25,6.5 Z"/>
 <path style="fill:#999999" d="M 11.535156,8.8808594 C 9.330881,10.36345 7.3071018,12.843525 7.3007812,15.5 c 0.00208,2.028004 1.4666986,3.977094 2.8593748,5.457031 a 10,10 0 0 0 0.173828,0.0098 c 1.76661,-0.116994 4.1021,-0.640135 5.447266,-1.476563 C 12.557046,19.373134 10.00365,16.726328 10,13.5 c 0.0027,-1.427031 0.603164,-3.470867 1.535156,-4.6191406 z"/>
 <path style="fill:#3a62bf" d="M 12.25,7 C 7.693651,7 4,10.693651 4,15.25 c 0.00296,1.269214 0.3150652,2.509061 0.8769531,3.640625 A 10,10 0 0 0 10.158203,20.957031 8,8 0 0 1 8,15.5 8,8 0 0 1 15.185547,7.5507812 C 14.248771,7.1907901 13.25371,7.0029465 12.25,7 Z"/>
 <path style="opacity:0.2" d="m 11,1.5 c -5.54,0 -10,4.46 -10,10 0,0.35751 0.02343,0.709492 0.060547,1.056641 A 8,8 0 0 1 9,5.5 a 8,8 0 0 1 8,8 8,8 0 0 1 -7.078125,7.9375 C 10.276019,21.476305 10.63498,21.5 11,21.5 c 5.54,0 10,-4.46 10,-10 0,-5.54 -4.46,-10 -10,-10 z"/>
 <path style="fill:#e63b40" d="M 11,1 C 5.46,1 1,5.46 1,11 c 0,0.35751 0.02343,0.709492 0.060547,1.056641 A 8,8 0 0 1 9,5 8,8 0 0 1 17,13 8,8 0 0 1 9.921875,20.9375 C 10.276019,20.976305 10.63498,21 11,21 16.54,21 21,16.54 21,11 21,5.46 16.54,1 11,1 Z"/>
 <path style="opacity:0.2;fill:#8b9cbe" d="M 11,1 C 5.46,1 1,5.46 1,11 1,11.07865 1.011508,11.154304 1.013672,11.232422 1.1559065,5.8183249 5.5503618,1.5 11,1.5 c 5.455592,0 9.855219,4.3275892 9.988281,9.75 C 20.99034,11.166105 21,11.084408 21,11 21,5.46 16.54,1 11,1 Z m 5.990234,12.201172 A 8,8 0 0 1 9.921875,20.9375 C 10.276019,20.976305 10.63498,21 11,21 c 0.294803,0 0.58487,-0.01822 0.873047,-0.04297 A 8,8 0 0 0 17,13.5 8,8 0 0 0 16.9902,13.201172 Z"/>
</svg>
