<svg xmlns="http://www.w3.org/2000/svg" width="22" height="22" version="1.1">
 <circle style="opacity:0.2" cx="11" cy="11.5" r="10"/>
 <circle style="fill:#8c2330" cx="11" cy="11" r="10"/>
 <path style="opacity:0.1;fill:#8b9cbe" d="M 11,1 A 10,10 0 0 0 1,11 10,10 0 0 0 1.01075,11.291 10,10 0 0 1 11,1.5 10,10 0 0 1 20.9895,11.209 10,10 0 0 0 21,11 10,10 0 0 0 11,1 Z"/>
 <path style="opacity:0.2" d="m 14.832031,2.265563 c -1.756037,1.7805906 -2.815799,3.6573448 -3.320312,5.8300781 -0.62391,2.6869279 -0.528597,6.1893509 -0.46875,10.4042969 h 3 c -0.03854,-2.714254 -0.0097,-5.247538 0.103515,-7 H 17 v -3 H 14.546875 C 14.999835,6.7592567 15.766132,5.4245192 17.46875,3.8768911 A 10,10 0 0 0 14.832031,2.265563 Z m -4.882812,2.21875 -2.9980471,0.03125 c 0.062546,5.652625 -0.1146129,8.434146 -0.640625,9.994141 -0.4623601,1.371221 -1.2473967,2.135576 -2.8066407,3.589843 A 10,10 0 0 0 5.8183594,20.039 C 7.3456938,18.602385 8.5042425,17.396555 9.154297,15.468688 9.930118,13.167835 10.012394,10.193806 9.949219,4.484313 Z"/>
 <path style="fill:#8b9cbe" d="M 14.832031,1.765625 C 13.075994,3.5462156 12.016232,5.4229698 11.511719,7.5957031 10.887809,10.282631 10.983122,13.785054 11.042969,18 h 3 c -0.03854,-2.714254 -0.0097,-5.247538 0.103515,-7 H 17 V 8 H 14.546875 C 14.999835,6.2593187 15.766132,4.9245812 17.46875,3.3769531 A 10,10 0 0 0 14.832031,1.765625 Z m -4.882812,2.21875 -2.9980471,0.03125 c 0.062546,5.652625 -0.1146129,8.434146 -0.640625,9.994141 -0.4623601,1.371221 -1.2473967,2.135576 -2.8066407,3.589843 a 10,10 0 0 0 2.3144532,1.939453 C 7.3456938,18.102447 8.5042425,16.896617 9.154297,14.96875 9.930118,12.667897 10.012394,9.693868 9.949219,3.984375 Z"/>
</svg>
