<svg xmlns="http://www.w3.org/2000/svg" width="22" height="22" version="1">
 <circle style="opacity:0.2" cx="11" cy="11.5" r="10"/>
 <circle style="fill:#17a0db" cx="11" cy="11" r="10"/>
 <path style="opacity:0.2;fill:#8b9cbe" d="M 11,1 C 5.4605,1 1.001,5.46 1.001,11 c 0,0.084 -0.002,0.1665 0,0.25 C 1.1331,5.827 5.5445,1.5 11,1.5 c 5.4555,0 9.867,4.327 9.999,9.75 0.002,-0.0835 0,-0.166 0,-0.25 C 20.999,5.46 16.5395,1 11,1 Z"/>
 <path style="opacity:0.2" d="M 13.354551,3.500003 A 0.79274465,0.8170113 0 0 0 12.774127,3.7662306 0.79274465,0.8170113 0 0 0 12.5764,4.403864 c 0.02286,0.240644 -0.03816,0.653883 -0.07654,0.801971 -0.0033,0.00925 -0.07355,0.222921 -0.609127,0.4930145 a 0.96990805,0.9995978 0 0 0 -0.07973,0.029585 C 11.533419,5.823514 11.016114,6.000974 10.675667,6.467958 10.416862,6.7893775 10.349685,7.116476 10.277024,7.4934285 a 3.4142722,3.5187862 0 0 0 -0.07973,0.870993 v 0.06245 l -0.06059,0.016435 C 9.269666,8.640197 8.643931,9.044812 8.2806235,9.63969 7.904253,10.258128 7.8393725,11.026811 8.092464,11.933853 c 0.00245,0.01262 0.00949,0.03003 0.01276,0.04602 l 0.038265,0.12161 -0.121187,-0.01972 c -0.044085,-0.0093 -0.085852,-0.01299 -0.130755,-0.01972 a 1.2376941,1.275581 0 0 0 -0.11162,-0.0066 c -0.420457,0 -0.870841,0.275983 -1.2023075,0.736235 -0.2555395,0.358441 -0.564989,0.986083 -0.577235,1.965487 -0.00653,0.736236 0.070489,1.413178 0.226429,2.014788 0.1183815,0.443424 0.2491615,0.71591 0.29978,0.811831 L 7.5184165,19.5 7.971275,17.380036 c 0.1845115,-0.850668 0.363333,-1.173139 0.577236,-1.393589 l 0.041455,-0.04272 0.051026,0.03286 c 0.491485,0.306274 1.077854,0.466721 1.693437,0.466721 a 4.0902687,4.2154755 0 0 0 2.028295,-0.578471 c 0.401678,-0.244008 0.743019,-0.542448 1.017336,-0.887426 l 0.03508,-0.0263 0.06379,-0.0032 c 0.159202,-0.0034 0.382901,-0.08872 0.612315,-0.230074 0.191042,-0.117799 0.488245,-0.338878 0.781341,-0.709942 a 4.4413297,4.5772828 0 0 0 0.723936,-1.364007 c 0.213084,-0.617597 0.344987,-1.340949 0.389074,-2.149547 0.05144,-0.742967 -0.03567,-1.354725 -0.248754,-1.8208675 A 1.9120577,1.9705875 0 0 0 14.403772,7.585496 l -0.04783,-0.01315 -0.0096,-0.052589 A 2.3872147,2.4602895 0 0 0 14.218814,7.030002 l -0.01276,-0.03944 0.01914,-0.032865 A 2.0712599,2.134663 0 0 0 14.48989,5.054643 C 14.327419,4.5287655 14.199828,4.1932785 14.091243,3.9930225 13.87081,3.5857786 13.570903,3.5000078 13.354551,3.5000078 Z m -0.01116,0.6244865 a 0.17144839,0.17669657 0 0 1 0.01116,0 c 0.115117,0 0.210229,2.55e-5 0.56129,1.1207865 0.185328,0.588147 0.04817,1.1435845 -0.40821,1.643383 l -0.01595,0.01972 c 0.0033,0.0034 0.0031,0.00648 0.0064,0.00986 0.191859,0.3247845 0.296539,0.7324225 0.264699,1.035331 a 1.4940502,1.5397844 0 0 1 -0.03189,0.197206 v 0.00325 c 0.03838,-0.0034 0.08251,-0.00657 0.133945,-0.00657 0.226148,0 0.551084,0.036185 0.81642,0.210353 0.159203,0.1051765 0.363308,0.2661485 0.510264,0.585044 0.168999,0.368538 0.233063,0.877488 0.188159,1.511912 -0.03919,0.748857 -0.156498,1.417333 -0.350806,1.981921 A 3.8306468,3.9479064 0 0 1 14.4038,13.613348 c -0.421274,0.532614 -0.861299,0.710705 -0.953555,0.713229 -0.06368,0 -0.09499,-0.02324 -0.226428,-0.118324 -0.01225,-0.0067 -0.02922,-0.02032 -0.04146,-0.02959 -0.249009,0.456886 -0.635176,0.850904 -1.122579,1.147081 a 3.4804023,3.5869405 0 0 1 -1.725324,0.496315 c -0.675996,0 -1.279178,-0.226708 -1.7412725,-0.65078 -0.555166,0.368538 -0.915514,0.696558 -1.211874,2.07395 L 7.2792335,17.718538 7.059182,17.291259 A 3.2191476,3.3176886 0 0 1 6.810424,16.607638 6.4929955,6.691752 0 0 1 6.606319,14.763762 c 0.0098,-0.769051 0.2322965,-1.268719 0.4241555,-1.548067 0.219618,-0.331517 0.506973,-0.535744 0.7494495,-0.535743 h 0.04465 c 0.386168,0.04628 0.628159,0.213113 1.0747415,0.516022 l 0.1403285,0.09531 c 0.153487,0.101811 0.335114,0.207356 0.392264,0.230074 0.03919,-0.02272 0.130883,-0.177012 0.159458,-0.407559 l 0.0064,-0.03287 v -0.0099 c -0.0033,-0.0034 -0.0031,-0.0032 -0.0064,-0.0032 C 9.291739,12.962647 8.881156,12.475889 8.669703,11.753117 8.4688635,11.029502 8.5100415,10.431942 8.79089,9.97169 9.246453,9.222832 10.223326,9.051053 10.54173,8.99552 c 0.09879,-0.020195 0.200993,-0.039055 0.299781,-0.05588 0.01959,-0.0034 0.03395,-0.010615 0.04783,-0.01315 a 0.21961722,0.2263399 0 0 1 -0.0096,-0.03287 c -0.0057,-0.02945 -0.01735,-0.066395 -0.02552,-0.1084625 -0.0996,-0.463618 -0.04847,-0.8512725 0.01276,-1.166802 0.07021,-0.351711 0.111646,-0.5622745 0.280645,-0.7625305 0.226965,-0.322261 0.618745,-0.456571 0.85469,-0.5390295 a 1.9757385,2.0362177 0 0 0 0.140323,-0.052588 C 12.812139,5.932691 13.02224,5.594101 13.08347,5.366919 13.13082,5.1792845 13.211062,4.6839035 13.17596,4.3414485 a 0.19022607,0.19604906 0 0 1 0.04783,-0.1577645 0.17144839,0.17669657 0 0 1 0.119592,-0.05916 z m 0.173808,1.268691 c -0.06368,0.4240715 -0.162952,0.828949 -0.353993,1.255545 0.20737,-0.243168 0.329119,-0.505873 0.36994,-0.7986845 0.01633,-0.1211635 0.03304,-0.239776 -0.01595,-0.4568605 z m -0.462425,0.723088 c -0.32167,0.3188955 -0.718043,0.493699 -0.9695,0.604765 a 2.4655911,2.541065 0 0 0 -0.207296,0.095318 c -0.01633,0.01262 -0.03863,0.02269 -0.0574,0.036155 -0.153488,0.091714 -0.383489,0.230625 -0.417778,0.3122425 v 0.00657 c -0.105318,0.2271815 -0.162928,0.5681635 -0.184971,0.76253 0.245742,-0.1514545 0.494241,-0.252713 0.701612,-0.338537 0.194308,-0.078252 0.360016,-0.1444075 0.443291,-0.2235 0.373104,-0.344979 0.596523,-0.917297 0.692044,-1.2555445 z m 0.162646,1.104354 C 13.134146,7.2795215 12.968896,7.411333 12.857047,7.513144 A 0.46209423,0.47623935 0 0 0 12.73905,7.67091 c -0.0033,0.00673 -0.0063,0.01307 -0.0096,0.016435 -0.06042,0.18427 0.02177,0.4374565 0.181782,0.52917 0.04082,0.026085 0.08282,0.04265 0.121187,0.046015 h 0.01595 c 0.12083,0 0.220739,-0.091898 0.293401,-0.2728025 A 0.7698849,0.79345175 0 0 0 13.36093,7.542728 1.0956368,1.1291753 0 0 0 13.217419,7.2206255 Z M 12.343593,7.769513 c -0.749474,0.2557895 -0.976159,0.4009845 -1.100255,0.506161 -0.06695,0.055531 -0.105675,0.2132465 0.08292,0.6507805 0.09552,0.2196085 0.424054,0.5219655 0.564478,0.5488915 a 0.09797051,0.10096948 0 0 0 0.03189,0.0032 c 0.235944,0 0.76547,-0.354471 0.864257,-0.516022 l 0.0096,-0.01315 0.0096,-0.00986 c 0.03511,-0.03282 0.13124,-0.213639 0.178592,-0.318816 C 12.480883,8.4634205 12.426922,8.182889 12.375488,7.9338305 a 0.46046139,0.47455652 0 0 0 -0.01595,-0.078882 0.63680835,0.6563016 0 0 0 -0.01595,-0.085456 z m 1.911891,0.870992 a 0.14777218,0.15229562 0 0 0 -0.05262,0.01315 c -0.06695,0.026925 -0.174919,0.3445585 -0.127567,0.578472 0.03266,0.160709 0.216276,0.696531 0.309347,0.953163 0.03102,0.09844 0.05096,0.144142 0.05422,0.164338 a 0.31023994,0.31973666 0 0 1 0.01914,0.05916 c 0.07348,0.227182 0.258576,0.812173 0.315726,1.288413 A 6.759965,6.9668935 0 0 0 14.926806,9.853323 1.7079525,1.7602344 0 0 0 14.678054,8.96261 C 14.55314,8.762355 14.397203,8.6405075 14.269842,8.6405075 a 0.14777218,0.15229562 0 0 0 -0.01436,0 z m -0.470398,0.072312 a 1.8777681,1.9352482 0 0 0 -0.459237,0.266228 l -0.0096,0.00657 a 4.1637466,4.2912026 0 0 0 -0.248754,0.210354 c -0.513528,0.476239 -0.8999,0.723613 -1.148092,0.736234 h -0.01276 c -0.216352,-0.0202 -0.545394,-0.344534 -0.679287,-0.50945 a 0.17471407,0.18006223 0 0 0 -0.102052,-0.02959 c -0.04082,0 -0.08978,0.0096 -0.137134,0.01972 -0.03185,0.0059 -0.06695,0.01223 -0.102052,0.01644 a 3.204452,3.3025432 0 0 0 -0.405022,0.08217 10.989025,11.325409 0 0 0 -0.293401,0.06902 C 9.824392,9.689059 9.550636,9.81677 9.415927,9.938774 l -0.0096,0.0099 c -0.09307,0.06563 -0.310189,0.252923 -0.376319,0.575185 v 0.0032 c -0.137158,0.594879 0.07085,1.327854 0.347617,1.74856 0.130627,0.19689 0.267582,0.319183 0.382697,0.338536 0.02776,0.0034 0.06368,0.0066 0.102053,0.0066 0.443316,0 1.377634,-0.27267 1.993215,-0.453573 l 0.248754,-0.07231 a 0.52250935,0.53850385 0 0 0 0.03507,-0.0099 c -0.03184,-0.03618 -0.09271,-0.08845 -0.18497,-0.170912 -0.411476,-0.286081 -0.800169,-0.420706 -1.221442,-0.420706 -0.09307,0 -0.187267,0.0062 -0.293401,0.01972 -0.356776,0.04207 -0.653596,0.128 -0.797286,0.170911 a 0.45393003,0.46782523 0 0 1 -0.118,0.0296 0.10286903,0.10601795 0 0 1 -0.09567,-0.06902 0.10695114,0.11022501 0 0 1 0.03189,-0.115037 h 0.0031 c 0.244926,-0.213719 0.707504,-0.611286 1.578626,-0.788824 0.149405,-0.02945 0.311745,-0.04602 0.48156,-0.04602 0.388617,0 0.794098,0.08243 1.202307,0.246508 0.551902,0.223816 0.930491,0.508975 1.234199,0.739523 0.165734,0.121165 0.30644,0.229495 0.430536,0.289235 0.03266,0.01683 0.04769,0.01972 0.05422,0.01972 a 0.22043365,0.22718132 0 0 0 0.03508,-0.08217 c 0.0057,-0.01262 0.0409,-0.164706 -0.207294,-1.02547 a 14.891518,15.34736 0 0 0 -0.40808,-1.2358 C 13.689259,9.206171 13.731176,8.897898 13.785059,8.7127875 Z m -2.283428,2.323743 c -0.382901,0 -0.716996,0.07507 -0.979067,0.167625 0.0645,-0.0034 0.130704,-0.0032 0.200916,-0.0032 0.08001,0 0.165401,7e-4 0.251943,0.0066 0.2735,0.02019 0.976234,0.14772 1.607328,0.926868 0.128178,0.15482 0.265082,0.285948 0.656964,0.285948 0.137159,0 0.300009,-0.01649 0.494317,-0.0493 l 0.05422,-0.01643 c 0.133893,-0.03618 0.239721,-0.06846 0.318915,-0.09203 -0.162468,-0.114433 -0.351215,-0.2631 -0.605939,-0.466722 -0.628644,-0.503165 -1.300736,-0.759243 -1.999593,-0.759243 z m 0.838745,1.31142 c -0.009,0.0034 -0.0249,0.0064 -0.05103,0.01315 l -0.0096,0.0033 c -0.130628,0.04964 -0.366777,0.131707 -0.637829,0.226786 -0.3282,0.115274 -0.699162,0.242984 -1.00777,0.358258 -0.395963,0.151454 -0.522841,0.210721 -0.564478,0.230074 l -0.02552,0.07559 c -0.09226,0.292812 -0.306132,0.963523 -1.3617635,1.43303 0.2204325,0.227182 0.6924775,0.634347 1.6264625,0.634347 0.08001,0 0.165478,-0.0031 0.248753,-0.0099 a 2.8754344,2.9634541 0 0 0 1.86565,-0.903862 c 0.453114,-0.482971 0.707837,-1.08834 0.714368,-1.66639 a 1.4883353,1.5338946 0 0 1 -0.471992,-0.12161 c 0,-0.0034 -0.198085,-0.102232 -0.318916,-0.262942 -0.0033,-0.0034 -0.0064,-0.0065 -0.0064,-0.0099 z m 2.219644,0.0493 a 1.7887782,1.8435343 0 0 1 -0.507074,0.220214 c -0.220432,0.06563 -0.433416,0.101416 -0.548532,0.12161 -0.0098,0.117798 -0.02883,0.345136 -0.0574,0.51931 a 2.6876576,2.7699293 0 0 1 -0.133944,0.47658 l 0.169025,0.157765 c 0.163284,-0.111908 0.704825,-0.536269 1.07793,-1.495479 z m -6.7928765,0.80854 c -0.076743,0.0202 -0.600069,0.384526 -0.7143685,1.472472 -0.057149,0.525882 0.04109,1.199064 0.124377,1.610514 0.066947,-0.244008 0.172214,-0.509633 0.3763185,-0.78225 0.191043,-0.25663 0.398159,-0.456808 0.6569645,-0.634346 A 0.61966345,0.6386319 0 0 1 7.9776535,14.70459 0.52577505,0.5418695 0 0 1 7.859655,14.280596 C 7.926602,13.461903 7.834325,13.265248 7.792684,13.21897 7.782884,13.2055 7.775994,13.20581 7.773549,13.20583 Z m 0.5676675,0.207066 c -0.0033,0.174172 -0.025055,0.334751 -0.04465,0.496302 a 5.721478,5.8966175 0 0 0 -0.03189,0.266228 c -0.012245,0.180904 0.025945,0.243668 0.04146,0.259655 0.00979,0.01347 0.02556,0.023 0.057403,0.023 a 0.23512922,0.24232673 0 0 0 0.086106,-0.01972 C 8.755955,14.303731 9.052213,14.066663 9.195904,13.938769 8.9754705,13.836116 8.640993,13.619032 8.334835,13.412886 Z"/>
 <path style="fill:#8b9cbe" d="M 13.354551,3.0000015 A 0.79274465,0.8170113 0 0 0 12.774128,3.266229 0.79274465,0.8170113 0 0 0 12.576401,3.9038625 c 0.02286,0.240644 -0.03817,0.653883 -0.07654,0.801971 -0.0033,0.00926 -0.07355,0.222921 -0.609127,0.4930145 a 0.96990805,0.9995978 0 0 0 -0.07973,0.029585 C 11.53342,5.3235125 11.016115,5.5009725 10.675668,5.9679565 10.416863,6.289376 10.349686,6.6164745 10.277024,6.993427 a 3.4142722,3.5187862 0 0 0 -0.07973,0.870993 v 0.06245 l -0.06059,0.016435 C 9.269673,8.1401955 8.643937,8.5448105 8.2806295,9.139688 7.904259,9.758126 7.8393785,10.526809 8.09247,11.433851 c 0.00245,0.01262 0.00949,0.03003 0.01276,0.04602 l 0.038265,0.12161 -0.121187,-0.01972 c -0.044085,-0.0093 -0.085852,-0.01299 -0.130755,-0.01972 a 1.2376941,1.275581 0 0 0 -0.11162,-0.0066 c -0.420457,0 -0.870841,0.275984 -1.2023075,0.736235 -0.2555395,0.358442 -0.564989,0.986084 -0.577235,1.965488 -0.00653,0.736235 0.070489,1.413177 0.226429,2.014787 0.1183815,0.443425 0.2491615,0.71591 0.29978,0.811832 l 0.991823,1.916184 0.4528585,-2.119964 c 0.1845115,-0.850668 0.363333,-1.173138 0.577236,-1.393588 l 0.041455,-0.04273 0.051026,0.03287 c 0.491485,0.306273 1.077855,0.466721 1.693437,0.466721 a 4.0902687,4.2154755 0 0 0 2.028295,-0.578471 c 0.401678,-0.244009 0.74302,-0.542448 1.017337,-0.887427 l 0.03508,-0.0263 0.06379,-0.0033 c 0.159202,-0.0034 0.382901,-0.08872 0.612315,-0.230073 0.191042,-0.117799 0.488244,-0.338878 0.78134,-0.709942 a 4.4413297,4.5772828 0 0 0 0.723937,-1.364008 c 0.213083,-0.617597 0.344987,-1.340949 0.389074,-2.149546 0.05144,-0.742967 -0.03567,-1.354726 -0.248755,-1.820868 A 1.9120577,1.9705875 0 0 0 14.403772,7.0854945 l -0.04783,-0.01315 -0.0096,-0.052589 a 2.3872147,2.4602895 0 0 0 -0.127558,-0.489755 l -0.01276,-0.03944 0.01914,-0.032865 A 2.0712599,2.134663 0 0 0 14.48989,4.5546415 C 14.327419,4.028764 14.199828,3.6932769 14.091243,3.493021 13.87081,3.0857771 13.570903,3.0000063 13.354551,3.0000063 Z m -0.01116,0.6244863 a 0.17144839,0.17669657 0 0 1 0.01116,0 c 0.115117,0 0.210229,2.57e-5 0.56129,1.1207867 0.185328,0.588147 0.04817,1.1435845 -0.40821,1.643383 l -0.01595,0.01972 c 0.0033,0.0034 0.0031,0.00648 0.0064,0.00986 0.191859,0.3247845 0.296539,0.7324225 0.264699,1.035331 a 1.4940502,1.5397844 0 0 1 -0.03189,0.197206 v 0.00325 c 0.03838,-0.0034 0.08251,-0.00657 0.133945,-0.00657 0.226148,0 0.551084,0.036185 0.81642,0.210353 0.159203,0.1051765 0.363308,0.2661485 0.510264,0.585044 0.168999,0.3685385 0.233063,0.8774875 0.188159,1.5119125 -0.03919,0.748857 -0.156498,1.417333 -0.350806,1.981921 A 3.8306468,3.9479064 0 0 1 14.4038,13.113346 c -0.421274,0.532614 -0.861299,0.710705 -0.953555,0.713229 -0.06368,0 -0.09499,-0.02324 -0.226428,-0.118323 -0.01225,-0.0067 -0.02922,-0.02032 -0.04146,-0.02958 -0.249009,0.456886 -0.635176,0.850903 -1.122579,1.147081 a 3.4804023,3.5869405 0 0 1 -1.725324,0.496314 c -0.675996,0 -1.279178,-0.226708 -1.7412725,-0.65078 -0.555166,0.368539 -0.915514,0.696558 -1.211874,2.07395 l -0.102074,0.4733 -0.2200515,-0.42728 A 3.2191476,3.3176886 0 0 1 6.810424,16.107637 6.4929955,6.691752 0 0 1 6.606319,14.263761 c 0.0098,-0.769052 0.2322965,-1.268719 0.4241555,-1.548068 0.219618,-0.331517 0.506973,-0.535743 0.7494495,-0.535743 h 0.04465 c 0.386168,0.04628 0.628159,0.213114 1.0747415,0.516022 l 0.1403285,0.09532 c 0.153487,0.10181 0.335114,0.207356 0.392264,0.230074 0.03919,-0.02272 0.130883,-0.177012 0.159458,-0.40756 l 0.0064,-0.03287 v -0.0099 c -0.0033,-0.0034 -0.0031,-0.0032 -0.0064,-0.0032 C 9.291739,12.462645 8.881156,11.975888 8.669703,11.253116 8.4688635,10.5295 8.5100415,9.931941 8.79089,9.471689 9.246453,8.722831 10.223326,8.5510515 10.54173,8.4955185 c 0.09879,-0.020195 0.200993,-0.039055 0.299781,-0.05588 0.01959,-0.0034 0.03395,-0.010615 0.04783,-0.01315 a 0.21961722,0.2263399 0 0 1 -0.0096,-0.03287 c -0.0057,-0.02945 -0.01735,-0.066395 -0.02552,-0.1084625 -0.0996,-0.463618 -0.04847,-0.8512725 0.01276,-1.166802 0.07021,-0.351711 0.111646,-0.5622745 0.280645,-0.7625305 0.226965,-0.322261 0.618745,-0.456571 0.85469,-0.5390295 A 1.9757385,2.0362177 0 0 0 12.142673,5.764206 C 12.812139,5.4326895 13.02224,5.0940995 13.08347,4.8669175 13.130819,4.679283 13.211062,4.183902 13.175956,3.8414471 a 0.19022607,0.19604906 0 0 1 0.04783,-0.1577645 0.17144839,0.17669657 0 0 1 0.119592,-0.05916 z m 0.173808,1.2686912 c -0.06368,0.4240715 -0.162952,0.828949 -0.353993,1.255545 0.20737,-0.243168 0.329119,-0.505873 0.36994,-0.7986845 0.01633,-0.1211635 0.03304,-0.239776 -0.01595,-0.4568605 z m -0.462425,0.723088 c -0.32167,0.3188955 -0.718043,0.493699 -0.9695,0.604765 A 2.4655911,2.541065 0 0 0 11.877978,6.31635 c -0.01633,0.01262 -0.03863,0.02269 -0.0574,0.036155 C 11.66709,6.444219 11.437089,6.58313 11.4028,6.6647475 v 0.00657 c -0.105318,0.2271815 -0.162928,0.5681635 -0.184971,0.76253 0.245742,-0.1514545 0.494241,-0.252713 0.701612,-0.338537 0.194308,-0.078252 0.360016,-0.1444075 0.443291,-0.2235 0.373104,-0.344979 0.596523,-0.917297 0.692044,-1.2555445 z M 13.21742,6.720621 C 13.13415,6.77952 12.968896,6.9113315 12.857047,7.0131425 a 0.46209423,0.47623935 0 0 0 -0.117997,0.157766 c -0.0033,0.00673 -0.0063,0.01307 -0.0096,0.016435 -0.06042,0.18427 0.02177,0.4374565 0.181782,0.52917 0.04082,0.026085 0.08282,0.04265 0.121187,0.046015 h 0.01595 c 0.12083,0 0.220739,-0.091899 0.293401,-0.2728025 A 0.7698849,0.79345175 0 0 0 13.36093,7.0427265 1.0956368,1.1291753 0 0 0 13.217419,6.720624 Z m -0.873827,0.5488905 c -0.749474,0.2557895 -0.976159,0.4009845 -1.100255,0.506161 -0.06695,0.055531 -0.105675,0.2132465 0.08292,0.6507805 0.09552,0.2196085 0.424054,0.5219655 0.564478,0.548891 a 0.09797051,0.10096948 0 0 0 0.03189,0.00325 c 0.235944,0 0.76547,-0.3544715 0.864257,-0.5160225 l 0.0096,-0.01315 0.0096,-0.00986 c 0.03511,-0.03282 0.13124,-0.213639 0.178592,-0.318816 C 12.480883,7.963419 12.426922,7.6828875 12.375488,7.433829 a 0.46046139,0.47455652 0 0 0 -0.01595,-0.078882 0.63680835,0.6563016 0 0 0 -0.01595,-0.085456 z m 1.911891,0.870992 a 0.14777218,0.15229562 0 0 0 -0.05262,0.01315 C 14.13592,8.1805785 14.027948,8.498212 14.0753,8.732125 c 0.03266,0.1607095 0.216276,0.696532 0.309347,0.953163 0.03102,0.09844 0.05096,0.144143 0.05422,0.164338 a 0.31023994,0.31973666 0 0 1 0.01914,0.05916 c 0.07348,0.227181 0.258576,0.812173 0.315726,1.288412 A 6.759965,6.9668935 0 0 0 14.926806,9.353322 1.7079525,1.7602344 0 0 0 14.678054,8.4626085 C 14.55314,8.2623535 14.397203,8.140506 14.269842,8.140506 a 0.14777218,0.15229562 0 0 0 -0.01436,0 z m -0.470398,0.072312 a 1.8777681,1.9352482 0 0 0 -0.459237,0.266228 l -0.0096,0.00657 A 4.1637466,4.2912026 0 0 0 13.067525,8.695962 c -0.513528,0.47624 -0.8999,0.723614 -1.148092,0.736235 h -0.01276 C 11.690321,9.411997 11.361279,9.087662 11.227386,8.922746 A 0.17471407,0.18006223 0 0 0 11.125334,8.893161 c -0.04082,0 -0.08978,0.00963 -0.137134,0.019725 -0.03185,0.00589 -0.06695,0.012225 -0.102052,0.016435 a 3.204452,3.3025432 0 0 0 -0.405022,0.082172 10.989025,11.325409 0 0 0 -0.293401,0.06902 C 9.824422,9.189058 9.550666,9.316769 9.415957,9.438774 l -0.0096,0.0099 c -0.09307,0.06563 -0.310189,0.252923 -0.376319,0.575185 v 0.0032 c -0.137158,0.59488 0.07085,1.327855 0.347617,1.74856 0.130627,0.196891 0.267582,0.319184 0.382697,0.338537 0.02776,0.0034 0.06368,0.0066 0.102053,0.0066 0.443316,0 1.377634,-0.27267 1.993215,-0.453573 l 0.248754,-0.07231 a 0.52250935,0.53850385 0 0 0 0.03507,-0.0099 c -0.03184,-0.03619 -0.09271,-0.08845 -0.18497,-0.170911 -0.411476,-0.286081 -0.800169,-0.420707 -1.221442,-0.420707 -0.09307,0 -0.187267,0.0062 -0.293401,0.01972 -0.356776,0.04207 -0.653596,0.128 -0.797286,0.170911 a 0.45393003,0.46782523 0 0 1 -0.118,0.0296 0.10286903,0.10601795 0 0 1 -0.09567,-0.06902 0.10695114,0.11022501 0 0 1 0.03189,-0.115038 h 0.0031 c 0.244926,-0.213719 0.707504,-0.611286 1.578626,-0.788824 0.149405,-0.02945 0.311745,-0.04602 0.48156,-0.04602 0.388617,0 0.794098,0.08243 1.202307,0.246508 0.551902,0.223816 0.930491,0.508975 1.234199,0.739523 0.165734,0.121165 0.30644,0.229496 0.430536,0.289236 0.03266,0.01683 0.04769,0.01973 0.05422,0.01973 a 0.22043365,0.22718132 0 0 0 0.03508,-0.08217 c 0.0057,-0.01262 0.0409,-0.164706 -0.207294,-1.025471 A 14.891518,15.34736 0 0 0 13.864789,9.146228 C 13.689259,8.7061695 13.731176,8.3978965 13.785057,8.212786 Z m -2.283428,2.3237435 c -0.382901,0 -0.716996,0.07507 -0.979067,0.167625 0.0645,-0.0034 0.130704,-0.0032 0.200916,-0.0032 0.08001,0 0.165401,7e-4 0.251943,0.0066 0.2735,0.02019 0.976234,0.147721 1.607328,0.926868 0.128178,0.15482 0.265082,0.285949 0.656964,0.285949 0.137159,0 0.300009,-0.01648 0.494317,-0.04929 l 0.05422,-0.01644 c 0.133893,-0.03618 0.239721,-0.06847 0.318915,-0.09203 -0.162468,-0.114432 -0.351215,-0.2631 -0.605939,-0.466721 -0.628644,-0.503165 -1.300736,-0.759243 -1.999593,-0.759244 z m 0.838745,1.31142 c -0.009,0.0034 -0.0249,0.0064 -0.05103,0.01315 l -0.0096,0.0032 c -0.130628,0.04964 -0.366777,0.131708 -0.637829,0.226787 -0.3282,0.115273 -0.699162,0.242984 -1.00777,0.358258 -0.395963,0.151454 -0.522841,0.210721 -0.564478,0.230073 l -0.02552,0.07559 c -0.09226,0.292812 -0.306132,0.963522 -1.3617635,1.43303 0.2204325,0.227182 0.6924775,0.634347 1.6264625,0.634346 0.08001,0 0.165478,-0.0031 0.248753,-0.0099 a 2.8754344,2.9634541 0 0 0 1.86565,-0.903861 c 0.453114,-0.482971 0.707837,-1.08834 0.714368,-1.666391 a 1.4883353,1.5338946 0 0 1 -0.471993,-0.12161 c 0,-0.0034 -0.198084,-0.102232 -0.318915,-0.262941 -0.0033,-0.0034 -0.0064,-0.0065 -0.0064,-0.0099 z m 2.219644,0.04929 a 1.7887782,1.8435343 0 0 1 -0.507074,0.220214 c -0.220432,0.06563 -0.433416,0.101416 -0.548532,0.12161 -0.0098,0.117797 -0.02883,0.345136 -0.0574,0.519309 a 2.6876576,2.7699293 0 0 1 -0.133944,0.476581 l 0.169025,0.157764 c 0.163284,-0.111907 0.704825,-0.536269 1.07793,-1.495478 z m -6.7928765,0.808545 c -0.076743,0.02019 -0.600069,0.384525 -0.7143685,1.472472 -0.057149,0.525882 0.04109,1.199064 0.124377,1.610514 0.066947,-0.244009 0.172214,-0.509633 0.3763185,-0.782251 0.191043,-0.256629 0.398159,-0.456808 0.6569645,-0.634346 A 0.61966345,0.6386319 0 0 1 7.9776535,14.204588 0.52577505,0.5418695 0 0 1 7.859655,13.780595 c 0.066947,-0.818694 -0.02533,-1.015349 -0.066971,-1.061626 -0.0098,-0.01347 -0.01669,-0.01315 -0.019135,-0.01314 z m 0.5676675,0.207065 c -0.0033,0.174173 -0.025055,0.334751 -0.04465,0.496302 a 5.721478,5.8966175 0 0 0 -0.03189,0.266229 c -0.012245,0.180904 0.025945,0.243667 0.04146,0.259654 0.00979,0.01347 0.02556,0.023 0.057403,0.023 a 0.23512922,0.24232673 0 0 0 0.086106,-0.01972 C 8.755955,13.803729 9.052213,13.566661 9.195904,13.438767 8.9754705,13.336115 8.640993,13.11903 8.334835,12.912885 Z"/>
</svg>
