<svg xmlns="http://www.w3.org/2000/svg" width="22" height="22" version="1.1">
 <path style="opacity:0.2" d="m 0.73144512,6.4458976 c -0.2537245,0.03645 -0.326267,0.3639995 -0.4277343,0.7871095 -0.1602413,0.529919 -0.3174239,1.170463 -0.3027345036,1.609375 C 0.04056632,10.025262 0.81458052,11.2983 0.96484352,12.472265 c 0.12321738,0.962662 -0.1722747,1.872 0.17382818,2.689453 0.194679,0.459809 0.435254,0.95043 0.875,0.998047 0.4521338,0.04896 0.7248502,-0.454196 0.9033203,-0.881836 0.058549,0.269821 0.121449,0.595242 0.1679687,0.68457 0.05337,0.102482 0.088867,1.060547 0.088867,1.060547 0,0 0.1838529,-0.563593 0.2402344,-0.46875 0.1334536,0.224492 0.2699777,0.437318 0.4091797,0.637696 0.060951,0.08774 -0.020508,0.855468 -0.020508,0.855468 -10e-8,0 0.2993298,-0.474548 0.3466798,-0.414062 0.062404,0.07972 0.246094,0.714844 0.246094,0.714844 0,0 0.048675,-0.356592 0.102539,-0.295899 0.04903,0.05525 0.4404295,0.921875 0.4404295,0.921875 0,0 -0.192045,-0.653657 -0.1416015,-0.602539 0.115964,0.117516 0.23271,0.228525 0.350586,0.333984 0.093656,0.08379 0.4433595,0.751954 0.4433595,0.751954 0,0 -0.047715,-0.421892 0.00879,-0.378907 0.089799,0.06831 0.1791245,0.133999 0.269531,0.196289 0.1163895,0.08019 0.277344,0.678711 0.277344,0.678711 0,0 0.1037325,-0.574463 0.1484375,-0.548828 2.3584345,1.352489 4.8546604,1.063103 5.9472664,1.080078 2.307786,0.03585 6.030632,-1.601734 6.80957,-3.961914 0.185203,-0.561165 -0.666753,-1.61707 -1.337891,-2.222656 l 0.06738,-0.838867 c 0,0 0.945096,-0.321291 0.891601,-0.670899 C 18.448275,11.322953 17.137695,9.98496 17.137695,9.98496 L 5.7949218,6.9380851 3.0166013,14.145117 l -0.027344,0.125 C 2.9319162,13.982456 2.8726352,13.666555 2.9765623,13.26621 3.2322283,12.281342 3.9164411,11.428927 3.7548826,10.583593 3.3461618,8.4450136 2.2126713,7.2958841 1.4287108,6.7378896 1.1006296,6.5074116 0.88367982,6.4240281 0.73144512,6.4458976 Z"/>
 <path style="fill:#ffc389" d="M 5.7949183,6.4385176 17.138003,9.485102 c 0,0 1.310284,1.338551 1.53486,2.806222 0.0535,0.349608 -0.891242,0.670214 -0.891242,0.670214 l -0.06751,0.839326 c 0.671139,0.605586 1.523017,1.660952 1.337814,2.222118 -0.778939,2.36018 -4.502432,3.997811 -6.810218,3.961953 -1.092605,-0.01697 -3.5878962,0.272541 -5.9463307,-1.079948 -0.044705,-0.02563 -0.1486315,0.549384 -0.1486315,0.549384 0,0 -0.160856,-0.59896 -0.2772455,-0.679154 -0.090406,-0.06229 -0.1805495,-0.127528 -0.2703485,-0.195842 -0.056503,-0.04298 -0.00836,0.378736 -0.00836,0.378736 0,0 -0.34956,-0.668001 -0.443216,-0.751791 -0.117876,-0.10546 -0.234894,-0.216791 -0.350858,-0.334307 -0.050444,-0.05112 0.1414995,0.602874 0.1414995,0.602874 0,0 -0.390941,-0.866703 -0.439971,-0.921949 -0.053864,-0.06069 -0.102309,0.295721 -0.102309,0.295721 0,0 -0.1845605,-0.635246 -0.2469645,-0.714961 -0.04735,-0.06049 -0.3458168,0.413881 -0.3458168,0.413881 0,0 0.081151,-0.767834 0.0202,-0.855571 -0.139202,-0.200378 -0.2757367,-0.412479 -0.4091903,-0.63697 -0.056381,-0.09484 -0.2405189,0.468551 -0.2405189,0.468551 0,0 -0.035443,-0.958023 -0.088813,-1.060504 -0.067811,-0.130214 -0.178494,-0.86311 -0.2443207,-1.000694 l 0.1756041,-0.816868 z"/>
 <path style="opacity:0.2" d="m 7.1835208,15.178397 c 0.9973135,0.319762 2.9753252,2.869833 5.3873122,3.120621 2.575994,0.26784 5.560549,-1.774093 5.560549,-1.774093 -1.362702,2.046449 -7.798661,4.973884 -12.1187552,-0.02927 -0.6383015,-0.766 -0.206286,-1.873547 1.170894,-1.317256 z"/>
 <path style="opacity:0.1" d="m 9.5539798,0.905876 c 0.207324,0.3674696 0.391516,1.0349635 -0.366642,0.8623287 -0.7360025,-0.1722888 -0.130525,0.2495922 -0.749478,0.343841 -0.589992,0.5668244 -1.1312225,-0.8875031 -1.2352495,0.073196 -0.211376,1.0478436 -1.011669,1.0011338 -1.6422085,0.3659815 0.305441,0.3314848 0.856693,1.231428 0.099633,0.4789982 0.3308895,1.1968108 -0.748419,0.1527108 -1.4350125,-0.056508 -1.4788243,-0.4600327 0.300121,0.2126999 0.635305,0.6334871 0.710147,0.450511 4.23e-4,0.3971575 -0.341032,0.573013 1.1181115,0.087938 0.0022,0.4386375 -0.4946955,0.4742065 0.9267185,0.024675 0.2908875,0.500749 -0.2341283,0.4813115 0.2007303,0.1058355 0.1861288,0.72648 -0.3385543,0.695117 -0.1725637,0.1288545 -0.5819638,1.2736475 -0.9188371,1.968205 0.510728,0.6513045 0.9863921,1.5530404 1.2217015,2.7842695 0.1615585,0.845334 -0.5225614,1.697785 -0.7782274,2.682654 -0.1237469,0.476695 -0.017455,0.833651 0.042959,1.165523 0.2721929,-0.403743 1.6567106,-1.920244 2.4888411,-1.754068 -0.148952,-0.457356 -0.4241965,-1.308553 -0.471398,-1.727797 -0.016125,-0.143209 0.492712,0.313604 0.492712,0.313604 0,0 -0.3430245,-0.617885 -0.3220305,-0.757739 0.03483,-0.5213091 0.373951,-1.1848451 0.636957,-1.4768141 0.072053,-0.079989 0.1485575,0.418592 0.2273545,0.352928 0.059446,-0.04954 -0.015785,-0.3943629 0.04527,-0.4363689 0.5083765,-0.3497635 1.039289,-0.4476045 1.039289,-0.4476045 0.1618445,-0.0643 0.9935205,0.3934095 0.9935205,0.3934095 0,0 -0.829051,-0.634134 0.110703,-0.611181 0.713525,-0.0133 1.4588195,0.193952 2.1491302,0.597632 0.800051,0.3330519 1.443042,0.9316979 1.812063,1.738702 -0.372004,-1.3006721 0.662851,0.19322 0.963284,0.708832 0.685703,1.155752 -0.206006,-1.060964 -0.03271,-1.016157 0.833691,0.670779 1.88345,0.897151 2.858621,1.276888 0.186411,-0.16757 -1.203368,-0.877365 -1.534478,-1.201048 -1.082772,-0.7678231 1.682788,0.509435 0.851423,-0.20257 0.956539,-0.4024751 2.0249,0.123455 2.543035,0.933707 0,0 0.465921,0.338868 0.522783,0.398036 0.441812,0.728832 0.345967,0.252552 0.07171,-0.186378 0.625228,0.111126 1.359012,1.462738 1.557778,1.331909 -0.222442,-0.798605 -1.068157,-1.692633 -1.298698,-2.198864 1.225519,0.442561 -0.337004,-0.448681 -0.499982,-0.849441 0.292014,-0.43438 1.787246,0.552788 2.208778,1.110668 C 20.658958,10.657815 19.75093,9.39112 19.311071,9.121214 18.186251,8.5847486 19.362881,8.8054421 19.911512,8.7724161 21.248609,8.6524996 19.280601,8.6385026 19.316848,8.4199831 20.28564,8.3486271 21.094286,7.7751446 22,7.5275826 c -1.215418,-0.0036 -2.437685,0.609206 -3.652712,0.255113 -0.886413,-0.4062355 0.02977,-0.318331 0.434882,-0.085919 C 18.603981,7.3814076 17.772966,7.2919061 18.70633,7.2476851 20.041321,7.0586541 17.848996,7.1728166 17.826983,6.9140881 18.849862,6.0729031 20.29316,5.6251926 21.59965,5.9020621 20.722976,5.4013666 19.623151,5.3757396 18.631151,5.4385956 17.801264,5.6095986 18.043354,5.3982206 17.386318,5.1672901 18.204166,4.7344111 17.450022,4.9346916 16.969611,4.8586431 16.747726,4.5163701 15.296958,3.6264231 16.315966,3.7119556 15.861837,3.5875371 15.990314,3.5334876 16.515563,3.3725757 16.669762,3.3563457 14.009546,2.9669224 15.014624,2.6769628 14.489876,2.536222 14.410223,2.4552054 14.989015,2.2944582 14.992128,2.0088135 13.701885,2.3306973 13.25213,2.1535182 13.178664,2.0131826 13.38714,1.7880891 12.803038,1.8357833 13.044448,1.366293 12.007884,2.1095074 12.133532,1.3149823 11.972299,2.2903565 10.4546,1.0975918 10.734375,1.6054544 10.630855,2.429179 9.9464768,1.0160798 9.5539798,0.905876 Z m 3.2206382,10.958135 c 0.01479,0.0491 0.02878,0.09828 0.04197,0.147549 0.103601,0.05305 0.03453,-0.06362 -0.04197,-0.147549 z"/>
 <path style="fill:#ffc389" d="M 1.4287516,6.2378826 C 2.2127122,6.7958771 3.346074,7.9449581 3.7547948,10.083538 3.9163533,10.928872 3.2322791,11.781322 2.9766131,12.76619 2.7687589,13.566879 3.2124783,14.031704 2.9916251,14.602652 2.8184529,15.050336 2.52841,15.715588 2.0138896,15.659875 1.5741436,15.612258 1.3337313,15.12196 1.1390522,14.662151 0.79294932,13.844698 1.0879674,12.934855 0.96475012,11.972192 0.81448692,10.798228 0.04055792,9.525512 9.681164e-4,8.3426326 -0.01372128,7.9037206 0.14300672,7.2636646 0.30324802,6.7337456 0.46559582,6.0567696 0.55386862,5.6232741 1.4287516,6.2378826 Z"/>
 <path style="opacity:0.5;fill:#aa652f" d="M 1.6220095,8.9047541 C 1.3557604,8.5243206 0.07928302,6.7136256 0.74811542,7.9568366 0.69495712,8.7468181 0.77454442,9.530478 0.85898332,10.313329 0.59737182,10.37817 0.33968232,9.066369 0.23094872,8.5856971 0.20601772,8.2396011 0.13821422,7.7421341 0.15378692,7.2777466 0.05948392,7.6606041 -0.00893983,8.0471296 9.504164e-4,8.3426456 0.04054042,9.525526 0.81446662,10.798261 0.96472972,11.972226 c 0.12321738,0.962662 -0.1717863,1.87247 0.17431658,2.689923 0.1401562,0.331033 0.3044912,0.676935 0.5493854,0.86299 0.1890873,0.08646 0.3151429,0.228404 0.5494566,0.12555 0.233433,-0.128907 0.4822314,-0.46906 0.4822314,-0.46906 0.078143,-0.130015 0.145612,-0.270567 0.2017447,-0.404811 0.05646,0.265547 0.1185882,0.601078 0.1629154,0.686195 0.045314,0.08701 0.076164,0.758743 0.084928,0.969232 0.023717,-0.04217 0.051063,-0.111304 0.083606,-0.217111 0.011551,0.0023 0.021667,0.006 0.03255,0.0089 0.049627,-0.115929 0.1024657,-0.212626 0.1283829,-0.169029 0.1334536,0.224492 0.2699045,0.436579 0.4091065,0.636957 0.055428,0.07979 -0.00416,0.69588 -0.015862,0.811603 0.015181,-0.01039 0.03197,-0.02349 0.050065,-0.03916 0.087999,-0.132816 0.256704,-0.375189 0.2914635,-0.330788 0.06119,0.07816 0.235964,0.678433 0.242886,0.702222 0.00175,0.0012 0.00355,0.0025 0.00528,0.0038 0.00375,-0.02662 0.04945,-0.344892 0.10112,-0.286673 0.03343,0.03767 0.192625,0.381532 0.311622,0.641749 0.00909,-0.02705 0.019705,-0.04947 0.03321,-0.06312 -0.03862,-0.147516 -0.07029,-0.283754 -0.04643,-0.259575 0.115964,0.117516 0.2329045,0.228798 0.3507805,0.334258 0.068214,0.06103 0.2362135,0.367553 0.3420235,0.564587 0.025275,-0.05624 0.052835,-0.09654 0.083275,-0.115496 0.00155,-0.0532 0.00819,-0.08989 0.026435,-0.076 0.089799,0.06831 0.179908,0.133505 0.270314,0.195796 0.086083,0.05931 0.19585,0.400811 0.2475125,0.575491 0.031255,-0.09898 0.056235,-0.283093 0.132844,-0.358546 0.01728,-0.05649 0.033495,-0.09393 0.04544,-0.08707 0.199786,0.11457 0.400617,0.216457 0.601433,0.308646 6e-4,2.54e-4 0.0012,6e-4 0.0018,8.5e-4 0.7988195,0.339925 1.640878,0.552587 2.4969376,0.692143 1.2044612,0.152528 2.2409692,0.06892 2.8462302,0.07832 1.279892,0.01989 2.994698,-0.47561 4.401693,-1.322987 0.121315,-0.0833 0.240582,-0.170477 0.357224,-0.262383 0.864433,-0.674394 1.976506,-1.485668 1.960439,-2.700002 -0.0735,-0.353249 -0.222867,-0.682458 -0.41175,-0.987573 -0.252654,-0.336052 -0.558828,-0.66183 -0.835231,-0.911236 l 0.01255,-0.155645 c -0.05108,-0.172065 -0.0303,-0.303233 0.03288,-0.410924 l 0.02197,-0.272628 c 0,0 0.641325,-0.218296 0.836553,-0.490894 0.02169,-0.04734 0.03629,-0.09885 0.04164,-0.155976 -0.04515,-0.237761 -0.596256,-1.350157 -0.48032,-1.392713 C 17.723898,10.085732 17.137944,9.485044 17.137944,9.485044 L 5.7948633,6.4385671 3.0160464,13.645514 2.9891141,13.771088 c -0.057374,-0.2878 -0.1165469,-0.604336 -0.012558,-1.004921 -0.5644294,-2.33202 0.017803,-1.734233 -1.3545466,-3.8614129 z m 6.7771868,-0.824822 c 0.4767065,-0.00789 1.2942345,0.228631 1.7284587,0.312778 0.982955,0.18614 1.616281,0.9648409 2.086343,1.7704259 -0.384274,-1.2679754 0.565822,0.149978 0.844483,0.550708 0.649476,1.312164 0.22325,-0.394649 0.0035,-0.875548 0.870261,0.668329 1.940636,0.929097 2.951315,1.302994 0.196047,-0.165806 -1.085518,-0.823126 -1.403783,-1.124712 -0.978431,-0.596141 0.466367,-0.117053 0.866624,-0.0233 -0.262771,-0.323306 0.283417,-0.38908 0.766662,-0.371599 0.636171,0.02115 1.280045,0.575655 1.587352,1.09117 -0.540818,-0.220594 0.322182,0.636782 0.463136,1.08357 0.660224,1.277419 -1.029137,-0.730807 -0.92495,0.253296 -0.808505,-0.07613 -1.810098,0.337426 -2.337326,1.049037 -0.346001,0.868222 -0.0054,0.466853 0.250817,-0.05403 0.988987,-1.037496 -0.310254,0.461666 0.105416,1.042098 -1.040353,-0.09595 0.570823,0.491106 0.952048,0.187369 0.564573,-0.584749 0.745784,0.161876 1.292915,0.301708 0.572907,0.124391 0.858378,0.746375 1.129173,1.2103 -0.04932,0.993398 -0.9558,1.640409 -1.643695,2.243145 -1.07133,0.712233 -2.234066,1.432529 -3.537712,1.582396 -0.246602,0.03044 -0.49476,0.04476 -0.743035,0.05254 C 10.73146,19.803409 8.5486053,19.42611 6.7482113,18.277686 5.5702828,17.530844 4.1370158,16.664551 4.0082223,15.122644 c -0.3611144,-1.16896 -0.00105,-2.455755 1.345789,-2.685463 4.1848265,4.494853 7.4040177,1.879739 6.8058107,1.860917 0.290027,-0.369613 -0.533524,-1.040329 -0.365876,-0.368202 0.165546,-0.972192 -0.222554,-1.690248 -0.956159,-2.234281 C 10.186283,11.141099 9.4333648,10.632138 8.4538673,10.47474 8.0593428,10.412386 6.0629078,10.208183 7.1867278,9.731541 8.1337613,9.096607 9.2730318,9.646871 10.240982,9.643141 9.1219148,9.043841 7.8261288,8.7700816 6.5618328,8.6453246 c 0.237653,-0.683078 1.692752,0.066628 1.501103,-0.461319 0.05637,-0.071643 0.1773385,-0.1014635 0.3362405,-0.104094 z M 1.4658686,9.236038 C 1.5279446,9.247298 1.6011022,9.370782 1.658525,9.704792 1.2213796,9.91107 1.3072305,9.207257 1.4658686,9.236038 Z m 9.1239304,0.521131 c 0.353679,0.454426 0.907965,1.074718 1.390896,1.504738 l 0.172498,0.04428 C 11.846436,10.81209 11.18374,10.127501 10.589799,9.757169 Z m 2.041236,1.575291 c -0.02585,-0.002 -0.02005,0.0394 0.05552,0.16275 0.384126,0.241789 0.02202,-0.156575 -0.05552,-0.16275 z m 3.637015,0.229007 c -0.261865,0.0068 -0.56547,0.06671 -0.685865,0.234955 0.19483,0.02676 0.403739,-0.08537 0.606059,-0.07914 0.83675,-0.03052 0.516248,-0.167096 0.07981,-0.155811 z m -1.052177,0.3141 c -0.102222,0.01349 -0.289414,0.12937 -0.390601,0.382174 0.512986,-0.247644 0.522029,-0.399526 0.390601,-0.382174 z m 1.60371,0.521792 c 0.170673,-0.02523 0.81009,0.611422 0.335414,0.974023 -0.304002,0.512923 -0.07268,-0.629066 -0.291298,-0.693465 -0.105892,-0.190148 -0.101007,-0.272148 -0.04412,-0.280558 z m -2.272886,0.145897 c -0.03239,-0.0017 -0.08384,0.03319 -0.146558,0.142262 0.196782,0.04237 0.217825,-0.138504 0.146558,-0.142262 z m 1.862788,0.105746 c 0.01971,0.0035 0.04481,0.01947 0.07501,0.05519 -0.144273,0.148287 -0.160431,-0.07024 -0.07501,-0.05519 z m 0.186379,0.134331 c 0.04414,-0.01417 0.103238,0.248228 0.213475,0.454875 0.03148,0.186904 -0.29574,0.06316 -0.284524,-0.05899 0.02339,-0.279327 0.04456,-0.387386 0.07105,-0.395888 z m -0.556325,0.03255 c 0.0086,-0.003 0.0217,0.003 0.03899,0.02726 -0.05187,0.07284 -0.06493,-0.01816 -0.03899,-0.02726 z m 0.01867,0.107566 c 0.01216,0.0023 0.02797,0.01432 0.04742,0.04164 -0.08429,0.118361 -0.100105,-0.05181 -0.04742,-0.04164 z m -0.179439,0.113515 c 0.04047,0.004 0.06422,0.04814 0.02148,0.168864 -0.280279,0.0083 -0.110501,-0.177509 -0.02148,-0.168864 z m 0.726511,0.40828 c 0.01279,0.003 0.03089,0.01993 0.05519,0.05932 -0.06679,0.177267 -0.110607,-0.0722 -0.05519,-0.05932 z m -0.07022,0.264034 c 0.0079,0.0023 0.01815,0.01407 0.03073,0.04081 -0.05453,0.115893 -0.06482,-0.05077 -0.03073,-0.04081 z m -3.247736,0.612173 c -0.296753,0.0078 -0.715115,0.236769 -0.905949,0.359537 0.446876,0.176331 0.856354,-0.559193 1.233433,-0.06411 -0.01514,-0.225263 -0.149433,-0.300131 -0.327484,-0.295429 z m 1.36578,0.08972 c -0.114675,0.0049 -0.222279,0.06307 -0.280062,0.221077 0.01962,0.167746 0.250857,-0.161798 0.348632,-0.08361 0.683125,0.312398 0.275457,-0.152239 -0.06857,-0.137471 z m -0.595649,0.326988 c 0.169325,0.783152 0.584276,1.668753 0.328805,2.539731 0.523143,-0.658261 0.06499,-1.820582 -0.328805,-2.539731 z m 0.735103,0.0049 c -0.05792,-0.0092 -0.130261,0.03806 -0.183569,0.204884 0.368585,0.108189 0.31099,-0.184732 0.183569,-0.204884 z m -1.586196,0.09963 c -0.141193,0.0059 -0.260757,0.06215 -0.03519,0.1877 0.434055,-0.119512 0.216727,-0.195272 0.03519,-0.1877 z"/>
 <path style="fill:#a5661f" d="m 9.5539798,0.406049 c 0.207324,0.3674696 0.391516,1.0349635 -0.366642,0.8623287 -0.7360025,-0.1722888 -0.130525,0.2495922 -0.749478,0.343841 -0.589992,0.5668244 -1.1312225,-0.8875031 -1.2352495,0.073196 -0.211376,1.0478436 -1.011669,1.0011338 -1.6422085,0.3659815 0.305441,0.3314848 0.856693,1.2314282 0.099633,0.4789982 0.3308895,1.1968108 -0.748419,0.1527108 -1.4350125,-0.056508 -1.4788243,-0.4600327 0.300121,0.2126999 0.635305,0.633487 0.710147,0.4505111 4.23e-4,0.3971576 -0.341032,0.5730131 1.1181115,0.087939 0.0022,0.4386375 -0.4946955,0.4742065 0.9267185,0.024675 0.2908875,0.500749 -0.2341283,0.4813115 0.2007303,0.1058355 0.1861288,0.72648 -0.3385543,0.695117 -0.1725632,0.1288542 -0.5819633,1.2736472 -0.9188366,1.9682047 0.510728,0.6513045 0.9863921,1.5530405 1.2217015,2.7842694 0.1615585,0.845334 -0.5225614,1.697785 -0.7782274,2.682654 -0.1237469,0.476695 -0.017455,0.833651 0.042959,1.165523 0.2721929,-0.403743 1.6567106,-1.920244 2.4888411,-1.754068 -0.148952,-0.457356 -0.4241965,-1.308553 -0.471398,-1.727797 -0.016125,-0.143209 0.492712,0.313604 0.492712,0.313604 0,0 -0.3430245,-0.617885 -0.3220305,-0.757739 0.03483,-0.521309 0.373951,-1.1848449 0.636957,-1.4768144 0.072053,-0.079988 0.1485575,0.4185925 0.2273545,0.3529285 0.059446,-0.04954 -0.015785,-0.394363 0.04527,-0.436369 0.5083765,-0.3497635 1.039289,-0.4476045 1.039289,-0.4476045 0.1618445,-0.0643 0.9935205,0.3934095 0.9935205,0.3934095 0,0 -0.829051,-0.634134 0.110703,-0.611181 0.713525,-0.0133 1.4588195,0.193952 2.1491307,0.597632 0.80005,0.3330515 1.443041,0.9316979 1.812063,1.7387019 -0.372004,-1.3006724 0.66285,0.19322 0.963283,0.708832 0.685704,1.155752 -0.206006,-1.060964 -0.03271,-1.016157 0.833692,0.670779 1.88345,0.897151 2.858622,1.276888 0.186411,-0.16757 -1.203369,-0.877365 -1.534479,-1.201048 -1.082772,-0.767823 1.682788,0.509435 0.851423,-0.20257 0.956539,-0.402475 2.0249,0.123455 2.543036,0.933707 0,0 0.46592,0.338868 0.522783,0.398036 0.441811,0.728832 0.345966,0.252552 0.07171,-0.186378 0.625228,0.111126 1.359012,1.462738 1.557777,1.331909 C 19.800929,11.36099 18.955214,10.466962 18.724673,9.960731 19.950192,10.403292 18.387669,9.51205 18.224691,9.11129 18.516705,8.6769101 20.011937,9.664078 20.433469,10.221958 20.658958,10.157988 19.75093,8.8912926 19.311071,8.6213866 18.186251,8.0849216 19.362881,8.3056151 19.911512,8.2725891 21.248609,8.1526726 19.280601,8.1386756 19.316848,7.9201561 20.28564,7.8488001 21.094286,7.2753176 22,7.0277556 c -1.215418,-0.0036 -2.437685,0.609206 -3.652712,0.255113 -0.886413,-0.4062355 0.02977,-0.318331 0.434882,-0.085919 C 18.603981,6.8815806 17.772966,6.7920791 18.70633,6.7478581 20.041321,6.5588271 17.848996,6.6729896 17.826983,6.4142611 18.849862,5.5730761 20.29316,5.1253656 21.59965,5.4022351 20.722976,4.9015396 19.623151,4.8759126 18.631151,4.9387686 17.801264,5.1097716 18.043354,4.8983936 17.386318,4.6674631 18.204166,4.2345841 17.450022,4.4348646 16.969611,4.3588161 16.747726,4.0165431 15.296958,3.126596 16.315966,3.2121285 15.861837,3.0877101 15.990314,3.0336605 16.515563,2.8727487 16.669762,2.8565187 14.009546,2.4670954 15.014624,2.1771358 14.489876,2.036395 14.410223,1.9553784 14.989015,1.7946312 14.992128,1.5089865 13.701885,1.8308703 13.25213,1.6536912 13.178664,1.5133556 13.38714,1.2882621 12.803038,1.3359563 13.044448,0.866466 12.007884,1.6096804 12.133532,0.8151553 11.972299,1.7905295 10.4546,0.5977648 10.734375,1.1056274 10.630855,1.929352 9.9464768,0.5162528 9.5539798,0.406049 Z m 3.2206382,10.958135 c 0.01479,0.04909 0.02878,0.09828 0.04197,0.147549 0.103601,0.05305 0.03453,-0.06362 -0.04197,-0.147549 z"/>
 <path style="fill:#8b9cbe" d="m 7.1835208,14.678639 c 0.9973135,0.319762 2.9753252,2.869833 5.3873122,3.120621 2.575994,0.26784 5.560549,-1.774093 5.560549,-1.774093 -1.362702,2.046449 -7.798661,4.973884 -12.1187552,-0.02927 -0.6383015,-0.766 -0.206286,-1.873547 1.170894,-1.317256 z"/>
 <path style="opacity:0.2" d="m 8.8828123,11.677724 c -0.911794,0.0138 -1.7568695,0.386036 -2.138672,1.071289 2.0783365,3.338986 5.4160157,2.048828 5.4160157,2.048828 -0.05232,-2.171577 -1.757687,-3.143128 -3.2773437,-3.120117 z m 7.6357417,1.158203 c -0.740297,0.02055 -1.70393,0.601724 -1.482421,1.889649 0,0 2.542277,0.544467 2.221679,-1.583985 -0.112153,-0.208783 -0.402759,-0.315002 -0.739258,-0.305664 z"/>
 <path style="fill:#8b9cbe" d="m 6.7444358,12.249033 c 1.0181395,-1.827343 5.3316702,-1.425459 5.4153862,2.049065 0,0 -3.3370497,1.289921 -5.4153862,-2.049065 z"/>
 <path style="opacity:0.2;fill:#8b9cbe" d="m 9.5537108,0.4062501 c 0.100215,0.1776262 0.192147,0.4242235 0.177735,0.6132812 0.3934282,0.3469841 0.9137082,1.295888 1.0029292,0.5859375 -0.279775,-0.5078626 1.238181,0.6853352 1.399414,-0.290039 -0.125647,0.794525 0.910355,0.051017 0.668946,0.5205078 0.584102,-0.047694 0.375752,0.1770472 0.449218,0.3173828 0.389521,0.1534499 1.406708,-0.066026 1.670899,0.057617 0.02836,-0.011535 0.05276,-0.022917 0.0918,-0.03418 C 14.4899,2.0360173 14.410467,1.9556693 14.989262,1.7949222 14.992362,1.5092775 13.701712,1.8304997 13.251956,1.6533206 13.178486,1.5129848 13.38684,1.2882434 12.802738,1.3359376 13.044147,0.8664473 12.008145,1.6099548 12.133792,0.8154298 11.972559,1.790804 10.454603,0.5976062 10.734378,1.1054688 10.630858,1.9291934 9.9462108,0.5164539 9.5537138,0.4062501 Z m 0.121094,0.7773437 c -0.073092,0.098592 -0.219276,0.1459918 -0.487305,0.084961 -0.7360025,-0.1722888 -0.131047,0.2495012 -0.75,0.34375 -0.589992,0.5668244 -1.1313245,-0.8874574 -1.2353515,0.073242 -0.211376,1.0478436 -1.011062,1.0013631 -1.6416015,0.3662109 0.305441,0.3314847 0.8566685,1.2309456 0.099609,0.4785156 0.01491,0.053928 0.013115,0.080867 0.02246,0.1259766 0.608133,0.5241822 1.321423,0.5113695 1.5195315,-0.4707031 0.104027,-0.9606996 0.6453595,0.4935822 1.2353515,-0.073242 0.618953,-0.094249 0.014,-0.5160388 0.75,-0.34375 0.590436,0.134444 0.605759,-0.2388604 0.487304,-0.584961 z M 3.6533201,2.319336 C 3.5454812,2.33419 4.6089633,2.7918317 4.8603513,3.107422 5.1233278,3.2742518 5.1899338,3.3716349 5.1542968,3.4375001 5.5508358,3.6460631 5.8364683,3.7134076 5.6650388,3.0595704 5.4606228,3.243539 4.7346348,2.6290482 4.2246093,2.4736329 3.8549031,2.3586247 3.6892664,2.3143846 3.6533201,2.319336 Z M 14.802735,2.358399 c -0.330719,0.1193956 -0.235049,0.198481 0.211913,0.3183594 -0.68301,0.1970447 0.307771,0.4326623 0.976563,0.5732422 0.04687,-0.036617 0.146869,-0.053054 0.325195,-0.038086 C 15.862277,3.0874957 15.990377,3.0339587 16.515625,2.873047 16.639152,2.8600453 14.960309,2.6073978 14.802735,2.358399 Z M 5.6933593,2.7216798 c 0.0253,0.156341 0.025665,0.2732972 -0.0166,0.3242187 0.6288765,0.6194821 0.311169,0.056102 0.0166,-0.3242187 z M 16.09375,3.5322266 c -0.07744,0.051386 -0.03135,0.098171 0.15625,0.15625 -0.05985,-0.055027 -0.111132,-0.1063705 -0.15625,-0.15625 z m -11.2675782,0.04492 c -0.106813,0.02754 -0.2181705,0.057952 -0.306641,0.1035155 1.1181115,0.087938 0.0018,0.438064 -0.495117,0.473633 0.9267185,0.024675 0.290641,0.5008825 -0.234375,0.481445 0.1210732,0.063836 0.1618064,0.3137165 0.061523,0.496094 0.510583,-0.016725 1.063809,-0.4538165 0.172852,-0.477539 0.4968955,-0.03557 1.6132285,-0.3856945 0.495117,-0.473633 0.341455,-0.1758555 1.0509675,-0.122731 0.3408205,-0.573242 -0.00769,-0.00965 -0.025035,-0.020375 -0.03418,-0.030275 z M 16.27832,3.7138651 c -0.918169,-0.051223 0.473372,0.8081995 0.691406,1.1445315 0.480411,0.076048 1.234841,-0.1242855 0.416993,0.3085935 0.657036,0.2309305 0.414254,0.4424875 1.24414,0.2714845 0.389664,-0.02469 0.795364,-0.02507 1.198242,10e-4 0.585135,-0.1336945 1.190548,-0.1600135 1.770508,-0.03711 C 20.722935,4.9016691 19.62286,4.8756411 18.630859,4.9384971 17.800973,5.1095001 18.043755,4.8979421 17.386719,4.6670126 18.204567,4.2341336 17.450137,4.4344676 16.969726,4.3584191 16.871123,4.2063166 16.537698,3.9486316 16.27832,3.7138876 Z M 3.8271482,5.1699201 c -0.071078,0.099982 -0.1899195,0.172196 -0.375,0.1611325 -0.1725637,0.1288545 -0.5820719,1.273216 -0.9189453,1.9677735 0.045752,0.058345 0.088747,0.129961 0.1337891,0.192383 0.305359,-0.685029 0.6347778,-1.5478675 0.7851562,-1.6601565 0.4878427,0.02916 0.5321694,-0.500859 0.375,-0.6611325 z m 14.4941408,1.394531 c -0.172157,0.108146 -0.339315,0.222286 -0.494141,0.3496095 0.0037,0.04307 0.07909,0.073111 0.176758,0.098633 0.07246,-0.028115 0.283961,0.00315 0.493164,0.068359 0.06982,0.00587 0.135952,0.014785 0.202149,0.01953 -0.261022,-0.237361 -0.822331,-0.313255 0.0068,-0.352539 0.914207,-0.1294495 0.179588,-0.121394 -0.384766,-0.183594 z M 22,7.0273441 c -1.211537,-0.0036 -2.429433,0.6046345 -3.640625,0.257812 -0.228624,0.05645 0.282672,0.163037 0.422851,0.411133 -0.405112,-0.232412 -1.320982,-0.320298 -0.43457,0.085937 0.468609,0.136566 0.938249,0.128609 1.408203,0.068359 C 20.537666,7.6755331 21.234747,7.2365131 22,7.0273441 Z m -1.679688,1.146484 c -0.06905,0.02549 -0.137049,0.053512 -0.207031,0.076172 0.245376,-0.02915 0.291841,-0.053237 0.207031,-0.076172 z M 8.0390623,8.2958986 c -0.01938,0.00305 -0.04511,0.0037 -0.061523,0.00782 0.053573,0.028295 0.1728515,0.087891 0.1728515,0.087891 0,0 -0.051052,-0.03974 -0.111328,-0.095703 z m 10.9443357,0.461914 c -0.222134,0.016015 -0.234285,0.095049 0.328125,0.3632814 0.157691,0.09676 0.369986,0.330392 0.574219,0.582031 0.231188,0.17998 0.431844,0.365024 0.547852,0.518555 0.19704,-0.0559 -0.471209,-1.030036 -0.936524,-1.4550784 -0.195315,-0.00837 -0.386674,-0.017945 -0.513672,-0.00879 z M 18.500976,9.504883 c -0.124345,-0.0063 -0.221614,0.025 -0.276367,0.106445 0.07534,0.185252 0.44233,0.469899 0.702149,0.684571 -0.07882,-0.119662 -0.158718,-0.239594 -0.202149,-0.334961 0.884801,0.31952 0.315941,-0.05892 -0.129883,-0.44336 -0.03207,-0.0055 -0.06451,-0.01121 -0.09375,-0.0127 z m -6.282226,0.595703 c -0.002,-4.82e-4 -0.003,0.0013 -0.0049,10e-4 0.0023,0.0051 0.0055,0.0096 0.0078,0.01465 -0.002,-0.0069 -0.001,-0.0088 -0.003,-0.01563 z m 2.050781,0.02832 c -0.09402,-6.5e-4 -0.06366,0.0639 0.207032,0.25586 0.0814,0.07957 0.22822,0.183446 0.398437,0.295898 0.379085,0.134048 0.762208,0.259818 1.135742,0.405274 0.1173,-0.105443 -0.385937,-0.424002 -0.860352,-0.727539 -0.308339,-0.07882 -0.737684,-0.228514 -0.880859,-0.229493 z m -9.0068357,0.08496 c -0.023325,0.09888 -0.04849,0.199226 -0.054687,0.291993 0.1432865,0.100526 0.321289,0.257812 0.321289,0.257812 0,0 -0.174772,-0.318287 -0.266602,-0.549805 z m 7.8896487,0.09473 c -0.06903,-0.01785 0.0338,0.328105 0.135742,0.671875 0.27641,0.413621 0.116204,-0.105954 -0.02735,-0.59375 -0.03578,-0.02667 -0.07335,-0.04993 -0.108398,-0.07813 z m 5.572265,0.152344 c 0.152368,0.334576 0.566174,0.84114 0.898438,1.375 0.17749,0.206533 0.329587,0.369845 0.40039,0.323242 -0.15017,-0.539137 -0.577792,-1.113382 -0.915039,-1.59082 -0.06718,-0.0065 -0.173171,-0.03137 -0.383789,-0.107422 z M 3.7548826,10.583985 c -0.097688,0.685375 -0.5728882,1.391257 -0.7783203,2.182617 -0.071028,0.273611 -0.062549,0.502229 -0.03418,0.714844 0.00915,-0.07058 0.014365,-0.139493 0.03418,-0.215821 0.2555685,-0.984493 0.9391726,-1.836623 0.7783203,-2.68164 z m 1.2988282,0.33789 c -0.01237,0.0012 -0.018615,0.0094 -0.0166,0.02735 0.033435,0.296959 0.175186,0.778892 0.3115235,1.21582 0.055206,-0.0019 0.1087705,0.0025 0.160156,0.0127 -0.1012205,-0.310796 -0.25759,-0.798469 -0.364258,-1.213867 -0.0374,-0.02238 -0.073017,-0.04374 -0.09082,-0.04199 z m 7.7207032,0.442383 c 0.01479,0.0491 0.02881,0.0982 0.04199,0.147461 0.103601,0.05305 0.0345,-0.06353 -0.04199,-0.147461 z"/>
 <path style="opacity:0.4;fill:#561900" d="M 9.1873378,1.2683777 C 8.4513353,1.0960889 9.0568128,1.5179699 8.4378598,1.6122187 7.8478678,2.1790431 7.3066373,0.7247156 7.2026103,1.6854151 6.9912343,2.7332587 6.1909413,2.6865489 5.5604018,2.0513966 c 0.305441,0.3314848 0.856693,1.2314282 0.099633,0.4789982 0.3308895,1.1968108 -0.748419,0.1527108 -1.4350125,-0.056508 -1.4788243,-0.4600327 0.300121,0.2126999 0.635305,0.633487 0.710147,0.4505111 4.23e-4,0.3971576 -0.341032,0.5730131 1.1181115,0.087939 0.0022,0.4386375 -0.4946955,0.4742065 0.9267185,0.024675 0.2908875,0.500749 -0.2341283,0.4813115 0.2007304,0.1058355 0.1861289,0.72648 -0.3385542,0.695117 C 3.2889727,5.4526936 2.9149207,6.4799236 2.5900847,7.1789401 2.7404806,7.5308421 2.894191,7.8717241 2.9664759,8.0800976 3.4665785,8.8645376 3.8061462,9.84185 3.5413065,10.768204 3.3314067,12.530419 2.8079544,12.510813 3.3478236,12.240392 3.9104333,11.666076 4.2646998,11.6299 4.7694518,11.634168 4.7294118,11.444053 4.5643663,10.823903 4.6166153,10.470131 c 0.034175,-0.23141 0.337232,-0.297412 0.337232,-0.297412 0,0 -0.4901075,-0.417181 -0.3699475,-0.669341 0.090167,-0.229809 0.456679,-0.9681814 0.733781,-1.3291004 0.1003785,-0.130741 0.4915555,0.063448 0.4915555,0.063448 -0.3247615,-0.533334 0.098211,-1.60189 0.406958,-1.7963665 0.4238935,-0.088245 0.881644,0.8868855 1.2456595,1.1337995 0,0 -0.185409,-0.2715895 -0.29989,-0.3940705 2.148075,-0.3619185 3.3829272,0.386511 4.9000242,1.6354335 -0.191874,-0.515296 -0.618658,-0.948306 -0.954196,-1.3903995 -0.288618,-0.4331565 1.472795,0.1448905 0.629686,-0.307656 -0.258676,-0.110412 -0.904006,-0.4064415 -0.247347,-0.405306 0.489741,-0.1577085 1.159552,0.098382 1.529687,0.079805 -0.462104,-0.5408135 -1.0009,-1.010238 -1.571986,-1.4305505 0.487543,-0.1142795 1.23542,-0.264936 1.524236,-0.5320365 -0.576019,-0.04702 -1.175726,0.00832 -1.729119,-0.1832385 0.184776,-0.280968 1.521869,-0.5254305 0.603084,-0.6533145 -0.290895,-0.018255 -0.631715,-0.044535 -0.21298,-0.276758 0.428307,-0.4471609 -0.951585,-0.064571 -1.15974,-0.5455853 0.358915,-0.2077968 0.945046,-0.054904 1.208979,-0.1235912 -0.236554,-0.3436537 -0.959659,-0.3428022 -1.04755,-0.6045719 0.23951,-0.1765304 0.680473,-0.5062344 0.635965,-0.7567476 -0.380602,0.221751 -1.2948842,0.7119751 -0.992859,9.9e-4 0,0 -0.6700902,-0.336295 -1.0905102,-0.4191853 z"/>
 <path style="fill:#8b9cbe" d="m 17.257502,12.64188 c -0.35889,-0.668106 -2.543337,-0.289404 -2.221142,1.58394 0,0 2.54174,0.544512 2.221142,-1.58394 z"/>
 <path style="fill:none;stroke:#17191e;stroke-width:0.08459711px" d="m 12.598907,14.707911 c 0.534498,-0.318777 1.002385,-0.461233 1.141622,-0.05854 v 0"/>
 <path style="fill:none;stroke:#17191e;stroke-width:0.08459711px" d="m 14.413793,14.707911 c 0.195246,-0.185005 0.384763,-0.392924 0.731809,0.02928"/>
 <ellipse style="fill:#17191e" cx="13.243" cy="14.898" rx=".234" ry=".161"/>
 <ellipse style="fill:#17191e" cx="14.809" cy="14.948" rx=".161" ry=".111"/>
 <path style="fill:none;stroke:#17191e;stroke-width:0.08459711px" d="m 14.091797,14.795728 c 0.502036,0.781191 0.668826,1.599632 0.468357,2.458879"/>
 <path style="fill:#c33a34" d="m 10.06239,11.362862 a 1.8295222,1.8148861 0 0 0 -1.5615782,1.793558 1.8295222,1.8148861 0 0 0 0.2972475,0.990711 c 1.1079105,0.512566 2.1938427,0.42413 2.8196277,0.297742 a 1.8295222,1.8148861 0 0 0 0.471728,-0.795576 C 11.846586,12.426944 11.012996,11.682956 10.06239,11.362862 Z"/>
 <path style="fill:#c33a34" d="m 16.518371,12.335894 c -0.164923,0.0046 -0.340882,0.03728 -0.512374,0.09914 a 0.73180885,1.0744126 21.076724 0 0 -0.489407,0.642575 0.73180885,1.0744126 21.076724 0 0 0.19183,1.208978 c 0.248673,-4.48e-4 0.530739,-0.02756 0.788967,-0.120617 a 0.73180885,1.0744126 21.076724 0 0 0.384818,-0.561943 0.73180885,1.0744126 21.076724 0 0 -0.29642,-1.265817 0.73180885,1.0744126 21.076724 0 0 -0.0058,-0.002 c -0.02046,-3.04e-4 -0.04078,-9e-4 -0.06163,-3.3e-4 z"/>
 <path style="fill:none;stroke:#17191e;stroke-width:0.08459711px" d="m 5.8663413,14.80523 c 2.7146755,3.094466 5.7768507,4.134856 9.2086887,3.137742"/>
 <path style="fill:none;stroke:#17191e;stroke-width:0.08459711px" d="m 6.6414463,15.912522 0.354333,-0.332187"/>
 <path style="fill:none;stroke:#17191e;stroke-width:0.08459711px" d="M 7.6380088,16.820502 7.9701963,16.333293"/>
 <path style="fill:none;stroke:#17191e;stroke-width:0.08459711px" d="m 8.5902793,17.529169 0.265751,-0.575792"/>
 <path style="fill:none;stroke:#17191e;stroke-width:0.08459711px" d="m 10.074051,18.193544 0.332188,-0.442917"/>
 <path style="fill:none;stroke:#17191e;stroke-width:0.08459711px" d="m 11.225635,18.48144 0.287896,-0.420771"/>
 <path style="fill:none;stroke:#17191e;stroke-width:0.08459711px" d="m 12.222198,18.547877 0.06644,-0.42077"/>
 <path style="fill:none;stroke:#17191e;stroke-width:0.08459711px" d="M 0.56796842,7.4776391 C 2.1173772,9.393045 3.0707917,11.141573 2.6755777,12.512485"/>
 <path style="fill:none;stroke:#17191e;stroke-width:0.08459711px" d="M 1.0070537,10.112151 C 0.85478732,9.372511 0.73466792,8.6489446 0.88996452,8.0630861 v 0 0"/>
 <path style="fill:none;stroke:#17191e;stroke-width:0.08459711px" d="M 1.8266795,11.575769 C 1.589833,10.902505 1.5402007,10.229241 2.0023141,9.555977"/>
 <path style="fill:none;stroke:#17191e;stroke-width:0.08459711px" d="m 2.2950371,11.809948 c -0.2812,-0.511972 -0.052308,-0.938928 0.11709,-1.375801"/>
 <path style="fill:none;stroke:#17191e;stroke-width:0.08459711px" d="m 1.7388626,12.190489 c -0.00846,0.470049 -0.073456,0.951406 0.2927238,1.346528"/>
 <path style="fill:none;stroke:#17191e;stroke-width:0.08459711px" d="m 2.1194033,12.424668 c -0.091656,0.462438 -0.1188758,0.860442 0.1756338,0.936715"/>
 <path style="fill:none;stroke:#17191e;stroke-width:0.08459711px" d="M 2.5877608,12.980842 C 2.5363248,13.153532 2.4006515,13.34246 1.768135,13.712651"/>
 <ellipse style="fill:#561900" cx="10.624" cy="13.212" rx=".784" ry=".825"/>
 <ellipse style="fill:#561900" cx="16.215" cy="13.374" rx=".433" ry=".456"/>
</svg>
