<svg xmlns="http://www.w3.org/2000/svg" width="22" height="22" version="1">
 <path style="opacity:0.2" d="M 5,4.4997 C 4.446,4.4997 4,4.9457 4,5.4997 V 16.5 C 4,17.054 4.446,17.5 5,17.5 H 6.5 V 15.5 H 11.5 V 17.5 H 21 C 21.554,17.5 22,17.054 22,16.5 V 5.4997 C 22,4.9457 21.554,4.4997 21,4.4997 Z"/>
 <path style="fill:#419d45" d="M 5,3.9997 C 4.446,3.9997 4,4.4457 4,4.9997 V 16 C 4,16.554 4.446,17 5,17 H 6.5 V 15 H 11.5 V 17 H 21 C 21.554,17 22,16.554 22,16 V 4.9997 C 22,4.4457 21.554,3.9997 21,3.9997 Z"/>
 <path style="opacity:0.1;fill:#8b9cbe" d="M 5,3.9846 C 4.446,3.9846 4,4.4306 4,4.9846 V 5.4846 C 4,4.9306 4.446,4.4846 5,4.4846 H 21 C 21.554,4.4846 22,4.9306 22,5.4846 V 4.9846 C 22,4.4306 21.554,3.9846 21,3.9846 Z"/>
 <g style="opacity:0.2">
  <rect width="2" height="3" x="12" y="15.5"/>
  <rect width="2" height="3" x="14.5" y="15.5"/>
  <rect width="2" height="3" x="17" y="15.5"/>
  <rect width="2" height="3" x="19.5" y="15.5"/>
 </g>
 <g style="fill:#f8c44e">
  <rect width="2" height="3" x="12" y="15"/>
  <rect width="2" height="3" x="14.5" y="15"/>
  <rect width="2" height="3" x="17" y="15"/>
  <rect width="2" height="3" x="19.5" y="15"/>
 </g>
 <rect style="fill:#4e4e4e" width="5" height="5" x="10" y="7" rx="1" ry="1"/>
 <g style="fill:#b7b7b7">
  <rect width="1" height="1.5" x="11" y="6"/>
  <rect width="1" height="1.5" x="13" y="6"/>
  <rect width="1" height="1.5" x="11" y="11.5"/>
  <rect width="1" height="1.5" x="13" y="11.5"/>
  <rect width="1" height="1.5" x="8" y="-16" transform="rotate(90)"/>
  <rect width="1" height="1.5" x="10" y="-16" transform="rotate(90)"/>
  <rect width="1" height="1.5" x="8" y="-10.5" transform="rotate(90)"/>
  <rect width="1" height="1.5" x="10" y="-10.5" transform="rotate(90)"/>
 </g>
 <path style="opacity:0.2;fill:none;stroke:#000000;stroke-width:2;stroke-linecap:round;stroke-linejoin:round" d="M 2,3.5 H 4 V 19.5"/>
 <path style="fill:none;stroke:#b7b7b7;stroke-width:2;stroke-linecap:round;stroke-linejoin:round" d="M 2,3 H 4 V 19"/>
 <path style="opacity:0.2;fill:#8b9cbe" d="M 2,1.9997 A 1.0001,1.0001 0 0 0 1.0195,3.2458 1.0001,1.0001 0 0 1 2,2.4997 H 4 A 1.0001,1.0001 0 0 1 5,3.4997 V 2.9997 A 1.0001,1.0001 0 0 0 4,1.9997 Z"/>
</svg>
