<svg xmlns="http://www.w3.org/2000/svg" width="22" height="22" version="1">
 <rect style="fill:#188dfb" width="20" height="20" x="1" y="1" rx="10" ry="10"/>
 <path style="opacity:0.2;fill:#8b9cbe" d="M 11,1 C 5.46,1 1,5.46 1,11 1,11.084 1.004,11.1665 1.00585,11.25 1.1382,5.827 5.544,1.5 10.99985,1.5 c 5.45585,0 9.862,4.32695 9.994,9.75 0.002,-0.08343 0.0059,-0.166065 0.0059,-0.25 0,-5.54 -4.46,-10 -10,-10 z"/>
 <path style="opacity:0.2" d="M 1.00585,11.25 C 1.0038,11.3335 1,11.416 1,11.5 c 0,5.54 4.46,10 10,10 5.54,0 10,-4.46 10,-10 0,-0.084 -0.004,-0.1665 -0.006,-0.25 C 20.862,16.673 16.456,21 11,21 5.544,21 1.138,16.673 1.006,11.25 Z"/>
 <circle style="opacity:0.15;fill:none;stroke:#000000;stroke-width:2;stroke-linecap:round;stroke-linejoin:round" cx="15.026" cy="4.026" r="7" transform="rotate(30)"/>
 <path style="fill:#9ccefd" d="M 15,4.071797 C 11.329991,1.952916 6.6565245,3.0952292 4.3437855,6.5796825 L 3.5,8 C 5.263497,5.451404 11,4 14,5.8038475 Z"/>
 <path style="opacity:0.2" d="m 14,6.5 -3.30957,8.019531 A 3,3 0 0 0 8,17.5 a 3,3 0 0 0 3,3 3,3 0 0 0 3,-3 3,3 0 0 0 -1.216797,-2.408203 z"/>
 <path style="fill:#8b9cbe" d="M 14,6 V 6 6 L 12.319479,17.871192 9.421701,17.094735 Z"/>
 <circle style="fill:#8b9cbe" cx="11" cy="17" r="3"/>
 <circle style="fill:#f84e24" cx="11" cy="17" r="1.5"/>
</svg>
