<svg xmlns="http://www.w3.org/2000/svg" width="22" height="22" version="1">
 <path style="opacity:0.2" d="m 8.0000001,1.5000006 v 2.9993903 h 2.1572439 c 0.574141,0 0.616275,0.089117 0.729222,0.2021068 0.149882,0.1499435 0.119069,2.024098 0.119069,6.6910203 0,7.813698 0.641857,7.108595 -1.8057269,7.103647 -2.0918655,-0.0042 -3.0080627,-1.038532 -1.9860777,-2.170194 1.0594385,-1.173141 1.0457365,-1.874875 -0.03904,-2.893563 -0.622885,-0.584934 -1.391554,-0.882233 -2.1964205,-0.934381 -1.021473,-0.06618 -1.801114,0.27469 -2.7151784,1.057402 -0.7105403,0.608436 -1.1782938,1.365127 -1.2517525,2.182201 -0.09917,1.103052 0.456358,2.815788 1.5016033,3.922739 1.7726013,1.94017 3.2307093,1.770383 6.7454218,1.835564 2.7127829,0.04827 5.9750439,-0.288696 7.4272059,-3.445588 0.359296,-0.77856 0.269298,-1.021467 0.31622,-6.868721 0.05495,-6.8472063 0.08072,-6.6822331 1.504961,-6.6822331 0.345076,0 0.596605,0.01105 0.785663,0 H 20 V 1.5000006 h -0.164941 -5.451822 z"/>
 <path style="fill:#ffc238" d="m 8.0000001,1.0000004 v 2.9993903 h 2.1572439 c 0.574141,0 0.616275,0.089117 0.729222,0.2021068 0.149882,0.1499435 0.119069,2.024098 0.119069,6.6910215 0,7.813698 0.641857,7.108595 -1.8057269,7.103647 -2.0918655,-0.0042 -3.0080627,-1.038532 -1.9860777,-2.170194 1.0594385,-1.173141 1.0457365,-1.874875 -0.03904,-2.893563 -0.622885,-0.584934 -1.391554,-0.882233 -2.1964205,-0.934381 -1.021473,-0.06618 -1.801114,0.27469 -2.7151784,1.057402 -0.7105403,0.608436 -1.1782938,1.365127 -1.2517525,2.182201 -0.09917,1.103052 0.456358,2.815788 1.5016033,3.922739 1.7726013,1.94017 3.2307093,1.770383 6.7454218,1.835564 2.7127829,0.04827 5.9750439,-0.288696 7.4272059,-3.445588 0.359296,-0.77856 0.269298,-1.021467 0.31622,-6.868721 0.05495,-6.8472075 0.08072,-6.6822343 1.504961,-6.6822343 0.345076,0 0.596605,0.01105 0.785663,0 H 20 V 1.0000004 h -0.164941 -5.451822 z"/>
 <path style="opacity:0.2;fill:#8b9cbe" d="m 8.0000001,1.0000004 v 0.5 H 14.382812 19.835938 20 v -0.5 H 19.835938 14.382812 Z M 4.9785157,11.998047 c -1.021473,-0.06618 -1.8007793,0.273929 -2.7148437,1.056641 -0.7105403,0.608435 -1.1784944,1.366519 -1.2519531,2.183593 -0.014203,0.157982 -0.012171,0.330343 0,0.509766 2.652e-4,-0.0031 -2.754e-4,-0.0067 0,-0.0098 0.073459,-0.817074 0.5414128,-1.575158 1.2519531,-2.183593 0.9140644,-0.782713 1.6933707,-1.122821 2.7148437,-1.056641 0.8048665,0.05215 1.5724275,0.34866 2.1953125,0.933594 0.4519481,0.424413 0.7071423,0.794622 0.7871094,1.166015 C 8.0830217,14.043373 7.8256625,13.543763 7.1738282,12.931641 6.5509432,12.346707 5.7833822,12.050195 4.9785157,11.998047 Z m 6.0976563,4.634765 c -0.03512,1.621894 -0.368847,1.366331 -1.8769529,1.363282 -1.3115324,-0.0026 -2.1580979,-0.409581 -2.3574221,-0.992188 -0.2018102,0.834631 0.697366,1.488855 2.3574221,1.492188 1.6359319,0.0033 1.8872299,0.260575 1.8769529,-1.863282 z"/>
</svg>
