<svg xmlns="http://www.w3.org/2000/svg" width="22" height="22" version="1">
 <path style="opacity:0.2" d="m 1,19 0,0.5 c 0,0.554 0.446,1 1,1 l 18,0 c 0.554,0 1,-0.446 1,-1 L 21,19 c 0,0.554 -0.446,1 -1,1 L 2,20 C 1.446,20 1,19.554 1,19 Z"/>
 <path style="fill:#54402a" d="M 21,19 21,3 C 21,2.446 20.554,2 20,2 L 2,2 C 1.446,2 1,2.446 1,3 l 0,16 c 0,0.554 0.446,1 1,1 l 18,0 c 0.554,0 1,-0.446 1,-1 z"/>
 <path style="opacity:0.2" d="M 8.3825,9.4998 A 0.37499,0.38889 0 0 0 8,9.8888 l 0,6.222 a 0.37499,0.38889 0 0 0 0.561,0.33798 l 5.2495,-3.1108 a 0.37499,0.38889 0 0 0 0,-0.67595 L 8.5615,9.55113 A 0.37499,0.38889 0 0 0 8.383,9.50013 Z"/>
 <path style="fill:#d2d2d2" d="M 8.3825,8.9998 A 0.37499,0.38889 0 0 0 8,9.3888 l 0,6.222 a 0.37499,0.38889 0 0 0 0.561,0.33798 l 5.2495,-3.1108 a 0.37499,0.38889 0 0 0 0,-0.67595 L 8.5615,9.05113 A 0.37499,0.38889 0 0 0 8.383,9.00013 Z"/>
 <g transform="matrix(0.5,0,0,0.5,-73,-119)">
  <path style="opacity:0.2" d="m 150,242 c -1.108,0 -2,0.892 -2,2 l 0,6 40,0 0,-6 c 0,-1.108 -0.892,-2 -2,-2 z"/>
  <path style="opacity:0.2" d="m 150,242 c -1.108,0 -2,0.892 -2,2 l 0,2 40,0 0,-2 c 0,-1.108 -0.892,-2 -2,-2 z"/>
  <path style="fill:#d2d2d2" d="m 150,242 c -1.108,0 -2,0.892 -2,2 l 0,6 8,0 0,-4 -4,-4 z"/>
  <path style="fill:#bebebe;fill-rule:evenodd" d="m 163,246 -4,-4 5,0 4,4 z"/>
  <path style="fill:#d2d2d2;fill-rule:evenodd" d="m 163,246 -4,4 5,0 4,-4 z"/>
  <path style="fill:#bebebe;fill-rule:evenodd" d="m 173,246 -4,-4 5,0 4,4 z"/>
  <path style="fill:#d2d2d2;fill-rule:evenodd" d="m 173,246 -4,4 5,0 4,-4 z"/>
  <path style="fill:#bebebe;fill-rule:evenodd" d="m 183,246 -4,-4 5,0 4,4 z"/>
  <path style="fill:#d2d2d2;fill-rule:evenodd" d="m 183,246 -4,4 5,0 4,-4 z"/>
  <path style="opacity:0.2;fill:#8b9cbe" d="m 150,242 c -1.108,0 -2,0.892 -2,2 l 0,1 c 0,-1.108 0.892,-2 2,-2 l 36,0 c 1.108,0 2,0.892 2,2 l 0,-1 c 0,-1.108 -0.892,-2 -2,-2 l -36,0 z"/>
 </g>
</svg>
