<svg xmlns="http://www.w3.org/2000/svg" width="22" height="22" version="1.1">
 <path style="opacity:0.2" d="m 11,1.5 c -5.5228195,0 -10,4.4770925 -10,10 0,1.270216 0.2458211,2.480788 0.6777344,3.598633 l -0.02539,-0.01367 c 0.2573568,0.704405 0.4646361,1.40859 0.553711,1.99414 0.088987,0.585463 -0.1405431,1.051744 -0.2460938,1.445313 -0.1054625,0.393568 -0.2372671,0.714833 -0.3486328,1.027344 -0.1112775,0.312599 -0.2021777,0.616829 0.049805,0.895507 0.2519823,0.278767 0.8468253,0.531041 1.9472656,0.72461 C 4.7088395,21.365355 6.316004,21.5 7.716797,21.5 H 11 c 5.522819,0 10,-4.477181 10,-10 0,-5.5229075 -4.477181,-10 -10,-10 z"/>
 <path style="fill:#2fab74" d="M 12.977401,20.396828 C 12.487886,20.507842 11.851747,21 11,21 10,21 9,21 7.71652,21 6.315727,21 4.7092075,20.865727 3.6087666,20.672246 2.5083263,20.478678 1.9135245,20.226079 1.6615422,19.947312 1.4095598,19.668634 1.5004849,19.363876 1.6117624,19.051277 1.7231281,18.738766 1.8548461,18.418326 1.9603087,18.024757 2.0658593,17.631189 2.2952602,17.164405 2.2062734,16.578942 2.1171986,15.993392 1.909736,15.289075 1.6523791,14.58467"/>
 <path style="fill:#2fab74" d="M 21,11 C 21,16.522819 16.522819,21 11,21 5.4771805,21 1.0000001,16.522819 1.0000001,11 1.0000001,5.4770925 5.4771805,1.0000001 11,1.0000001 c 5.522819,0 10,4.4770924 10,9.9999999 z"/>
 <path style="opacity:0.2" d="M 7.0410156,6.5 C 6.4647267,6.5 6,6.946 6,7.5 c 0,0.554 0.4647267,1 1.0410156,1 H 14.958984 C 15.535273,8.5 16,8.054 16,7.5 c 0,-0.554 -0.464727,-1 -1.041016,-1 z m -1.8945312,4 C 4.5111652,10.5 4,10.946 4,11.5 c 0,0.554 0.5111652,1 1.1464844,1 H 16.853516 C 17.488835,12.5 18,12.054 18,11.5 c 0,-0.554 -0.511165,-1 -1.146484,-1 z M 7,14.5 c -0.554,0 -1,0.446 -1,1 0,0.554 0.446,1 1,1 0.554,0 1,-0.446 1,-1 0,-0.554 -0.446,-1 -1,-1 z m 3.009766,0 C 9.45074,14.5 9,14.946 9,15.5 c 0,0.554 0.45074,1 1.009766,1 h 4.980468 C 15.54926,16.5 16,16.054 16,15.5 c 0,-0.554 -0.45074,-1 -1.009766,-1 z"/>
 <rect style="fill:#c1ede5" width="10" height="2" x="6" y="6" rx="1.04" ry="1"/>
 <rect style="fill:#c1ede5" width="14" height="2" x="4" y="10" rx="1.147" ry="1"/>
 <rect style="fill:#c1ede5" width="7" height="2" x="9" y="14" rx="1.009" ry="1"/>
 <rect style="fill:#c1ede5" width="2" height="2" x="6" y="14" rx="1" ry="1"/>
 <path style="opacity:0.2;fill:#8b9cbe" d="M 11,1 C 5.4771805,1 1,5.4770925 1,11 1,11.08384 1.00381,11.166659 1.00586,11.25 1.1389428,5.8429765 5.561016,1.5 11,1.5 c 5.438984,0 9.861057,4.3429765 9.99414,9.75 C 20.996192,11.166659 21,11.083835 21,11 21,5.4770925 16.522819,1 11,1 Z"/>
</svg>
