<svg xmlns="http://www.w3.org/2000/svg" height="22" width="22" version="1.1" xmlns:xlink="http://www.w3.org/1999/xlink">
 <g style="opacity:.2" transform="matrix(1.2,0,0,1.25,1.4,1.5)">
  <path d="m3 2.4 6.6666667-2.4 3.3333333 2.4v13.6h-10z"/>
  <path d="m9.6666667 0v16h3.3333333v-13.6z"/>
 </g>
 <g transform="matrix(1.2,0,0,1.25,1.4,1)">
  <path d="m3 2.4 6.6666667-2.4 3.3333333 2.4v13.6h-10z" style="fill:#b79f32"/>
  <path d="m9.6666667 0v16h3.3333333v-13.6z" style="fill:#987e2e"/>
 </g>
 <path style="opacity:.2;fill:#8b9cbe" d="m13 1l-8 3v0.5l8-3 4 3v-0.5l-4-3z"/>
</svg>
