<svg xmlns="http://www.w3.org/2000/svg" width="22" height="22" version="1.1">
 <g transform="matrix(0.49999997,0,0,0.49999997,-26.051438,0.84966211)">
  <rect style="opacity:0.2" width="40" height="40" x="-41.3" y="-94.1" rx="12" ry="12" transform="matrix(0,-1,-1,0,0,0)"/>
  <rect style="fill:#8f5066" width="40" height="40" x="-40.3" y="-94.1" rx="12" ry="12" transform="matrix(0,-1,-1,0,0,0)"/>
  <path style="opacity:0.1;fill:#8b9cbe" d="m 66.10288,0.3006792 c -6.648,0 -12,5.352 -12,11.9999998 v 1 c 0,-6.6479998 5.352,-11.9999998 12,-11.9999998 h 16 c 6.648,0 12,5.352 12,11.9999998 v -1 c 0,-6.6479998 -5.352,-11.9999998 -12,-11.9999998 z"/>
 </g>
 <path style="opacity:0.2" d="m 15.882235,4.4995824 c -0.285923,0 -0.64571,0.04645 -0.798828,0.1035155 -0.653686,0.2436175 -1.160753,0.500199 -1.451172,1.6640945 -0.467166,1.8722265 -1.269759,2.7070315 -2.602539,2.7070315 -0.407157,0 -0.410953,0.081314 -0.02149,0.4453111 0.756163,0.706703 1.216254,1.765826 1.34082,3.087891 0.04897,0.51956 0.122066,0.74962 0.305664,0.964843 0.132467,0.155287 0.295766,0.28125 0.364258,0.28125 0.06849,0 0.201509,-0.230053 0.295899,-0.511718 0.126855,-0.378533 0.192132,-1.046417 0.25,-2.560547 0.06709,-1.7555221 0.109469,-2.1289816 0.295898,-2.6103506 0.477208,-1.2321665 1.544244,-1.8906225 2.630859,-1.403789 0.521727,0.2337495 0.972446,0.9126245 1.63379,2.0698045 0.490486,0.8582291 1.041652,1.5058581 1.282226,1.5058581 0.121528,0 0.124257,-0.166917 0.0039,-0.240234 C 18.918299,8.654822 18.895881,6.9570432 18.595119,6.1636449 18.062447,5.1336984 17.027456,4.4995824 15.882235,4.4995824 Z m -7.0576175,4.288118 c -0.094528,8.5e-4 -0.202611,0.00911 -0.3369145,0.021485 -0.635293,0.058517 -0.9511715,0.1418005 -0.9511715,0.2509766 0,0.03567 0.393838,0.458753 0.874023,0.940428 0.9551411,0.958098 1.4120691,1.72059 1.6201185,2.704102 0.09367,0.320125 0.121744,0.647749 0.142578,0.976562 -0.7133864,0.324048 -1.1718414,1.034825 -1.1728524,1.818359 0,1.104569 0.895431,2 2.0000004,2 1.10457,0 2,-0.895431 2,-2 -7e-4,-0.768985 -0.442262,-1.469458 -1.135742,-1.801758 -0.100665,-0.276185 -0.07519,-0.543654 -0.07519,-0.816406 0,-1.634304 -0.85421,-3.139682 -2.1875004,-3.855468 C 9.2643286,8.8447224 9.1082026,8.7851309 8.8246175,8.7877004 Z M 6.7328205,9.439066 6.193758,9.804301 c -0.791485,0.537694 -1.5626595,1.411238 -1.9775392,2.239258 -0.3286791,0.655977 -0.3693971,0.824522 -0.4082031,1.682617 -0.026992,0.596736 -0.101953,1.067707 -0.1992188,1.256836 -0.2111822,0.410627 -0.1063714,0.796026 0.2402344,0.881835 0.1459214,0.03612 0.4898665,0.292399 0.7646482,0.56836 0.920057,0.923995 2.6702285,1.302958 4.2333985,0.916992 C 9.2517936,17.250269 9.3008906,17.162033 9.0619216,16.96641 8.9760906,16.89615 8.7932335,16.618884 8.6546955,16.349222 8.180905,15.426977 8.357158,14.279775 9.0882886,13.539652 c 0.331739,-0.335816 0.35154,-0.389242 0.293946,-0.803711 -0.03393,-0.244325 -0.174625,-0.66527 -0.313477,-0.935547 C 8.785782,11.249567 7.5947495,9.9628 7.0736405,9.645121 Z m -0.982422,4.060547 c 0.4142135,0 0.75,0.335786 0.75,0.75 0,0.414214 -0.3357865,0.75 -0.75,0.75 -0.4142135,0 -0.75,-0.335786 -0.75,-0.75 0,-0.414214 0.3357865,-0.75 0.75,-0.75 z m 5.2500005,1 c 0.552285,0 1,0.447715 1,1 0,0.552284 -0.447715,1 -1,1 -0.552285,0 -1,-0.447716 -1,-1 0,-0.552285 0.447715,-1 1,-1 z"/>
 <path style="fill:#8b9cbe" d="m 15.882235,3.9999688 c -0.285923,0 -0.64571,0.04645 -0.798828,0.1035155 -0.653686,0.2436175 -1.160753,0.500199 -1.451172,1.6640945 -0.467166,1.8722265 -1.269759,2.7070315 -2.602539,2.7070315 -0.407157,0 -0.410953,0.081314 -0.02149,0.4453119 0.756163,0.7067028 1.216254,1.7658258 1.34082,3.0878908 0.04897,0.51956 0.122066,0.74962 0.305664,0.964843 0.132467,0.155287 0.295766,0.28125 0.364258,0.28125 0.06849,0 0.201509,-0.230053 0.295899,-0.511718 0.126855,-0.378533 0.192132,-1.046417 0.25,-2.560547 0.06709,-1.7555227 0.109469,-2.1289822 0.295898,-2.6103512 0.477208,-1.2321665 1.544244,-1.8906225 2.630859,-1.403789 0.521727,0.2337495 0.972446,0.9126245 1.63379,2.0698045 0.490486,0.8582297 1.041652,1.5058587 1.282226,1.5058587 0.121528,0 0.124257,-0.166917 0.0039,-0.240234 C 18.918299,8.1552084 18.895881,6.4574296 18.595119,5.6640313 18.062447,4.6340848 17.027456,3.9999688 15.882235,3.9999688 Z m -7.0576175,4.288118 c -0.094528,8.5e-4 -0.202611,0.00911 -0.3369145,0.021485 -0.635293,0.058517 -0.9511715,0.1418005 -0.9511715,0.250977 0,0.03567 0.393838,0.4587532 0.874023,0.9404282 0.9551411,0.958098 1.4120691,1.72059 1.6201185,2.704102 0.09367,0.320125 0.121744,0.647749 0.142578,0.976562 C 9.4598646,13.505689 9.0014096,14.216466 9.0003986,15 c 0,1.104569 0.895431,2 2.0000004,2 1.10457,0 2,-0.895431 2,-2 -7e-4,-0.768985 -0.442262,-1.469458 -1.135742,-1.801758 -0.100665,-0.276185 -0.07519,-0.543654 -0.07519,-0.816406 0,-1.634304 -0.85421,-3.139682 -2.1875004,-3.8554682 C 9.2643286,8.3451088 9.1082026,8.2855173 8.8246175,8.2880868 Z M 6.7328205,8.9394532 6.193758,9.304688 c -0.791485,0.537694 -1.5626595,1.411238 -1.9775392,2.239258 -0.3286791,0.655977 -0.3693971,0.824522 -0.4082031,1.682617 -0.026992,0.596736 -0.101953,1.067707 -0.1992188,1.256836 -0.2111822,0.410627 -0.1063714,0.796026 0.2402344,0.881835 0.1459214,0.03612 0.4898665,0.292399 0.7646482,0.56836 0.920057,0.923995 2.6702285,1.302958 4.2333985,0.916992 0.4047156,-0.09993 0.4538126,-0.188166 0.2148436,-0.383789 -0.085831,-0.07026 -0.2686881,-0.347526 -0.4072261,-0.617188 -0.4737905,-0.922245 -0.2975375,-2.069447 0.4335931,-2.80957 0.331739,-0.335816 0.35154,-0.389242 0.293946,-0.803711 -0.03393,-0.244325 -0.174625,-0.66527 -0.313477,-0.935547 C 8.785782,10.749954 7.5947495,9.463187 7.0736405,9.145508 Z M 5.7503985,13 c 0.4142135,0 0.75,0.335786 0.75,0.75 0,0.414214 -0.3357865,0.75 -0.75,0.75 -0.4142135,0 -0.75,-0.335786 -0.75,-0.75 0,-0.414214 0.3357865,-0.75 0.75,-0.75 z m 5.2500005,1 c 0.552285,0 1,0.447715 1,1 0,0.552284 -0.447715,1 -1,1 -0.552285,0 -1,-0.447716 -1,-1 0,-0.552285 0.447715,-1 1,-1 z"/>
</svg>
