<svg width="22" height="22" version="1.1" xmlns="http://www.w3.org/2000/svg">
 <rect x="4" y="1.5" width="14" height="18" rx="1" ry="1" style="opacity:.2"/>
 <rect x="4" y="1" width="14" height="18" rx="1" ry="1" style="fill:#4f4f4f"/>
 <path d="m5.0195312 1.5001926c-0.5598733-0.0108795-1.0195809 0.4400008-1.0195312 0.9999541v15.999265c-1.243e-4 0.468844 0.3254964 0.874837 0.7832031 0.976517l8.9999999 1.999908c0.624596 0.138622 1.216938-0.336751 1.216797-0.976517v-15.999265c1.24e-4 -0.4688446-0.325496-0.8748368-0.783203-0.9765177l-9.0000001-1.9999081c-0.0648144-0.0143392-0.1308956-0.0221901-0.1972657-0.0234364z" style="opacity:.2"/>
 <path d="m5.0195312 1.0001929c-0.5598733-0.01087946-1.0195809 0.4400008-1.0195312 0.9999541v15.999265c-1.243e-4 0.468844 0.3254964 0.874837 0.7832031 0.976517l8.9999999 1.999908c0.624596 0.138622 1.216938-0.336751 1.216797-0.976517v-15.999265c1.24e-4 -0.4688446-0.325496-0.8748368-0.783203-0.9765177l-9.0000001-1.9999081c-0.0648144-0.0143392-0.1308956-0.0221901-0.1972657-0.0234364z" style="fill:#1f8ac9"/>
 <circle cx="12" cy="12.5" r="1" style="opacity:.2"/>
 <circle cx="12" cy="12" r="1" style="fill:#8b9cbe"/>
 <path d="m5.0195312 1c-0.5598733-0.01087946-1.0195809 0.4400468-1.0195312 1v0.5c-4.97e-5 -0.5599812 0.4596579-1.01088 1.0195312-1 0.0663702 0.0012464 0.1324513 0.0090975 0.1972657 0.0234375l9.0000001 2c0.457707 0.1016859 0.783327 0.5076945 0.783203 0.9765625v-0.5c1.24e-4 -0.4688445-0.325496-0.8748817-0.783203-0.9765625l-9.0000001-2c-0.0648144-0.0143392-0.1308955-0.0221912-0.1972657-0.0234375z" style="fill:#8b9cbe;opacity:.2"/>
</svg>
