<svg xmlns="http://www.w3.org/2000/svg" height="22" width="22" version="1.1" xmlns:xlink="http://www.w3.org/1999/xlink">
 <path style="opacity:.2" d="m11 1.5s-8.7501155 0-8.7501155 6.249954c0 2.1245759 1.2500165 4.999963 1.2500165 6.249954s-1.499901 2.250101-1.499901 3.500092 1 3 1 3v-3c0 2 1.7499175 3.999853 1.7499175 3.999853s-0.2767967-1.999853 0.2500826-3.999853c0.9999999 3 1.9999999 4 1.9999999 4s0-2 1-3c1 1 1 3 1 3l2-3.75012 2 3.75012s0-2 1-3c1 1 1 3 1 3s1-1 2-4c0.514168 2 0.250083 3.999853 0.250083 3.999853s1.749918-0.999853 1.749918-3.999853v3s0.999999-1.750009 0.999999-3-1.499901-2.250101-1.499901-3.500092 1.250016-4.1253781 1.250016-6.249954c0-6.249954-8.750115-6.249954-8.750115-6.249954z"/>
 <path style="fill:#00969b" d="m11 1s-8.7501155 0-8.7501155 6.249954c0 2.1245759 1.2500165 4.999963 1.2500165 6.249954s-1.499901 2.250101-1.499901 3.500092 1 3 1 3v-3c0 2 1.7499175 3.999853 1.7499175 3.999853s-0.2767967-1.999853 0.2500826-3.999853c0.9999999 3 1.9999999 4 1.9999999 4s0-2 1-3c1 1 1 3 1 3l2-3.75012 2 3.75012s0-2 1-3c1 1 1 3 1 3s1-1 2-4c0.514168 2 0.250083 3.999853 0.250083 3.999853s1.749918-0.999853 1.749918-3.999853v3s0.999999-1.750009 0.999999-3-1.499901-2.250101-1.499901-3.500092 1.250016-4.1253781 1.250016-6.249954c0-6.249954-8.750115-6.249954-8.750115-6.249954z"/>
 <path style="opacity:.2" d="m5 9.5c0 8 3 11 6 11s6-3 6-11c0-2-0.999934-4-6-4s-6 2-6 4z"/>
 <path style="fill:#fbcaa6" d="m5 9c0 8 3 11 6 11s6-3 6-11c0-2-0.999934-4-6-4s-6 2-6 4z"/>
 <path style="fill:#4135e2" d="m13 12v1l1 1 0.792969 3.960938c0.27052-0.354605 0.526615-0.75293 0.757812-1.210938l-0.550781-2.75-1-1v-1h-1zm2 0v1l1 1 0.216797 1.082031c0.1427-0.459044 0.260458-0.965987 0.367187-1.498047l-0.583984-0.583984v-1h-1z"/>
 <path style="opacity:.2" d="m3 8.4999998c0 4.9999632 2 5.0000002 2 5.0000002 4 0 4-1 6-1s2 1 6 1c0 0 2 0 2-5.0000002 0-1-4-2-8-2.0000368-4 0.0000368-8 1.0000368-8 2.0000368z"/>
 <path style="fill:#008918" d="m3 8c0 4.999963 2 5 2 5 4 0 4-1 6-1s2 1 6 1c0 0 2 0 2-5 0-1-4-2-8-2.0000368-4 0.0000368-8 1.0000368-8 2.0000368z"/>
 <path style="opacity:.2" d="m11 1.5c-7.500099 0-9 3-9 5s0 3 1 5l1-4c0 2 1 4 1 4l2-5c0 2-1 4-1 4s2.5138264-2 3-3c0 2-0.5715412 3-0.5715412 3s2.0821722-2.750046 2.5715412-4.0000368c0.409104 1.0000368 2 2.0000368 2 2.0000368s-0.409904-1 0.500033-2.0000368c0.669484 2.4999816 2.499967 5.0000368 2.499967 5.0000368s-1-3-1-5l2 5s2-2 2-4v4c1-2 1-3 1-5s-1.499901-5-9-5z"/>
 <path style="fill:#41dbe0" d="m11 1c-7.500099 0-9 3-9 5s0 3 1 5l1-4c0 2 1 4 1 4l2-5c0 2-1 4-1 4s2.5138264-2 3-3c0 2-0.5715412 3-0.5715412 3s2.0821722-2.750046 2.5715412-4.0000368c0.409104 1.0000368 2 2.0000368 2 2.0000368s-0.409904-1 0.500033-2.0000368c0.669484 2.4999816 2.499967 5.0000368 2.499967 5.0000368s-1-3-1-5l2 5s2-2 2-4v4c1-2 1-3 1-5s-1.499901-5-9-5z"/>
 <path style="opacity:.2;fill:#8b9cbe" d="m11 1c-7.500099 0-9 3-9 5 0 0.1664273 0.0052832 0.2935349 0.0058594 0.4472656 0.0251923-1.9995826 1.5567715-4.9472656 8.9941406-4.9472656 7.437369 0 8.968948 2.947683 8.994141 4.9472656 0.000576-0.1537307 0.005859-0.2808383 0.005859-0.4472656 0-2-1.499901-5-9-5zm-4 5.5l-0.0332031 0.0839844c-0.1592577 1.7870567-0.9667969 3.4160156-0.9667969 3.4160156s0.2530932-0.2184802 0.3183594-0.2714844c0.2939782-0.7591214 0.6816406-1.9644823 0.6816406-3.2285156zm8 0c0 1.3499601 0.444077 3.0939222 0.740234 4.125 0.143419 0.21239 0.259766 0.375 0.259766 0.375s-0.817599-2.4691262-0.96875-4.421875l-0.03125-0.078125zm-6 1c-0.0043254 0.0088968-0.0148881 0.0202438-0.0195312 0.0292969-0.0882729 1.64131-0.5527344 2.4707031-0.5527344 2.4707031s0.2490187-0.3498968 0.3300781-0.4589844c0.1253926-0.4937953 0.2421875-1.1524133 0.2421875-2.0410156zm3.933594 0.1484375c-0.016123 0.1095897-0.020754 0.2016023-0.019532 0.2949219 0.02056 0.0133552 0.085938 0.0566406 0.085938 0.0566406s-0.040088-0.150358-0.066406-0.3515625z"/>
 <path style="stroke-linejoin:round;opacity:.1;stroke:#000000;stroke-linecap:round;fill:none" d="m9.5 16s0.2499835 1 1.5 1c1.250017 0 1.5-1 1.5-1"/>
 <path style="stroke-linejoin:round;stroke:#17191e;stroke-linecap:round;fill:none" d="m9.5 15.5s0.2499835 1 1.5 1c1.250017 0 1.5-1 1.5-1"/>
 <path style="fill:none" d="m7.2499505 14.749899h7.5000985l-3.750049 2.499981z"/>
 <path style="opacity:.2" d="m2.9628906 1.5c-0.252281 0.0096-0.4915973 0.1142561-0.6699218 0.2929688l-1 1c-0.30438116 0.3043287-0.37990493 0.7692718-0.1875 1.1542968l1 2c0.1694413 0.3387809 0.5157399 0.5527602 0.8945312 0.5527344h2c0.5522619-0.0000552 0.9999448-0.4477381 1-1v-2c0.0000258-0.3787913-0.2139535-0.7250899-0.5527344-0.8945312l-2-1c-0.1500487-0.0752487-0.3166241-0.1115192-0.484375-0.1054688z"/>
 <path style="fill:#8b9cbe" d="m2.9628906 1c-0.252281 0.0096-0.4915973 0.1142561-0.6699218 0.2929688l-1 1c-0.30438116 0.3043287-0.37990493 0.7692718-0.1875 1.1542968l1 2c0.1694413 0.3387809 0.5157399 0.5527602 0.8945312 0.5527344h2c0.5522619-0.0000552 0.9999448-0.4477381 1-1v-2c0.0000258-0.3787913-0.2139535-0.7250899-0.5527344-0.8945312l-2-1c-0.1500487-0.0752487-0.3166241-0.11151916-0.484375-0.1054688z"/>
 <path style="opacity:.2" d="m19.037109 1.5c0.252281 0.0096 0.491597 0.1142561 0.669922 0.2929688l1 1c0.304381 0.3043287 0.379905 0.7692718 0.1875 1.1542968l-1 2c-0.169441 0.3387809-0.51574 0.5527602-0.894531 0.5527344h-2c-0.552262-0.0000552-0.999945-0.4477381-1-1v-2c-0.000026-0.3787913 0.213953-0.7250899 0.552734-0.8945312l2-1c0.150049-0.075249 0.316624-0.1115192 0.484375-0.1054688z"/>
 <circle r="1" style="fill:#35b046" cx="4" cy="4"/>
 <path style="fill:#8b9cbe" d="m19.037109 1c0.252281 0.0096 0.491597 0.1142561 0.669922 0.2929688l1 1c0.304381 0.3043287 0.379905 0.7692718 0.1875 1.1542968l-1 2c-0.169441 0.3387809-0.51574 0.5527602-0.894531 0.5527344h-2c-0.552262-0.0000552-0.999945-0.4477381-1-1v-2c-0.000026-0.3787913 0.213953-0.7250899 0.552734-0.8945312l2-1c0.150049-0.0752487 0.316624-0.11151917 0.484375-0.1054688z"/>
 <circle style="fill:#35b046" cx="-18" transform="scale(-1,1)" cy="4" r="1"/>
</svg>
