<svg width="22" height="22" version="1.1" xmlns="http://www.w3.org/2000/svg">
 <path d="m9.498861 1.500384c-4.663975 0-8.498479 3.8356587-8.498479 8.501037 0 4.665378 3.834504 8.501037 8.498479 8.501037h0.0039c0.930949-0.0015 1.835885-0.19343 2.7085-0.490294l2.259361 2.260041c1.378787 1.379204 3.850687 1.806071 5.479488 0.17678 1.627625-1.628116 1.201082-4.101938-0.176727-5.480161l-2.261308-2.261995c0.294575-0.871682 0.484915-1.775098 0.485265-2.704431v-1e-3c0-4.6653553-3.834504-8.501014-8.498477-8.501014z" style="opacity:.2"/>
 <path d="m9.498861 1.0003934c-4.663975 0-8.498479 3.8356589-8.498479 8.5010376 0 4.665378 3.834504 8.501037 8.498479 8.501037h0.0039c0.930949-0.0015 1.835885-0.193431 2.7085-0.490294l2.259361 2.260041c1.378787 1.379203 3.850687 1.806071 5.479488 0.176779 1.627625-1.628116 1.201082-4.101938-0.176727-5.48016l-2.261308-2.261995c0.294575-0.871682 0.484915-1.775099 0.485265-2.704432v-1e-3c0-4.6653547-3.834504-8.5010136-8.498477-8.5010136z" style="fill:#018787"/>
 <path d="m9.5 4.5000608a5.5000002 5.5000002 0 0 0-5.5 5.5000002 5.5000002 5.5000002 0 0 0 5.5 5.5 5.5000002 5.5000002 0 0 0 3.117188-0.96875l3.675781 3.675781c0.942508 0.98168 2.395742-0.471554 1.414062-1.414062l-3.679687-3.679688a5.5000002 5.5000002 0 0 0 0.972656-3.113281 5.5000002 5.5000002 0 0 0-5.5-5.5000002zm0 2a3.4999999 3.4999999 0 0 1 3.5 3.5000002 3.4999999 3.4999999 0 0 1-3.5 3.5 3.4999999 3.4999999 0 0 1-3.5-3.5 3.4999999 3.4999999 0 0 1 3.5-3.5000002z" style="opacity:.2"/>
 <path d="m9.5 4a5.5000002 5.5000002 0 0 0-5.5 5.5 5.5000002 5.5000002 0 0 0 5.5 5.5 5.5000002 5.5000002 0 0 0 3.117188-0.96875l3.675781 3.675781c0.942508 0.98168 2.395742-0.471554 1.414062-1.414062l-3.679687-3.679688a5.5000002 5.5000002 0 0 0 0.972656-3.113281 5.5000002 5.5000002 0 0 0-5.5-5.5zm0 2a3.4999999 3.4999999 0 0 1 3.5 3.5 3.4999999 3.4999999 0 0 1-3.5 3.5 3.4999999 3.4999999 0 0 1-3.5-3.5 3.4999999 3.4999999 0 0 1 3.5-3.5z" style="fill:#8b9cbe"/>
 <path d="m9.498861 1.0003934c-4.663975 0-8.498861 3.8354349-8.498861 8.5008136 0 0.08434 0.01021 0.166215 0.0127 0.249995 0.135169-4.5506162 3.906507-8.2508182 8.486166-8.2508182 4.580643 0 8.352535 3.701808 8.486165 8.2537472 0.0031-0.08411 0.01266-0.167405 0.01269-0.251948v-1e-3c0-4.6653312-3.834887-8.5007896-8.49886-8.5007896zm8.129727 11.323025c-0.03815 0.127997-0.0734 0.257108-0.116209 0.383782l2.260698 2.261675c0.692275 0.692483 1.143717 1.66167 1.215798 2.661082 0.06787-1.169447-0.408396-2.353427-1.215798-3.161072z" style="fill:#8b9cbe;opacity:.1"/>
</svg>
