<svg width="22" height="22" version="1.1" xmlns="http://www.w3.org/2000/svg">
 <path d="m19 20v-18c0-0.554-0.446-1-1-1h-14c-0.554 0-1 0.446-1 1v18c0 0.554 0.446 1 1 1h14c0.554 0 1-0.446 1-1z" style="fill:#afb225"/>
 <path d="m4 1c-0.554 0-1 0.446-1 1v0.5c0-0.554 0.446-1 1-1h14c0.554 0 1 0.446 1 1v-0.5c0-0.554-0.446-1-1-1z" style="fill:#8b9cbe;opacity:.1"/>
 <path d="m3 20v0.5c0 0.554 0.446 1 1 1h14c0.554 0 1-0.446 1-1v-0.5c0 0.554-0.446 1-1 1h-14c-0.554 0-1-0.446-1-1z" style="opacity:.2"/>
 <g transform="matrix(.5 0 0 .5 0 -.5)" style="fill:#8b9cbe;opacity:.5">
  <g>
   <g>
    <path d="m9.5 8a0.50005 0.50005 0 0 0-0.5 0.5v5a0.50005 0.50005 0 0 0 0.5 0.5h3a0.50005 0.50005 0 0 0 0.5-0.5v-5a0.50005 0.50005 0 0 0-0.5-0.5zm0.5 1h2v4h-2z"/>
    <path d="m16.492 8.0001a0.50005 0.4988 0 0 0-0.49219 0.50655v4.9875a0.50005 0.4988 0 1 0 1 0v-4.9875a0.50005 0.4988 0 0 0-0.508-0.5064z" style="fill-rule:evenodd"/>
    <path d="m20.492 8.0001a0.50005 0.4988 0 0 0-0.49219 0.50655v4.9875a0.50005 0.4988 0 1 0 1 0v-4.9875a0.50005 0.4988 0 0 0-0.508-0.5064z" style="fill-rule:evenodd"/>
    <path d="m24.5 8a0.50005 0.50005 0 0 0-0.5 0.5v5a0.50005 0.50005 0 0 0 0.5 0.5h3a0.50005 0.50005 0 0 0 0.5-0.5v-5a0.50005 0.50005 0 0 0-0.5-0.5zm0.5 1h2v4h-2z"/>
    <path d="m31.5 8a0.50005 0.50005 0 0 0-0.5 0.5v5a0.50005 0.50005 0 0 0 0.5 0.5h3a0.50005 0.50005 0 0 0 0.5-0.5v-5a0.50005 0.50005 0 0 0-0.5-0.5zm0.5 1h2v4h-2z"/>
   </g>
   <path d="m34.5 17a0.50005 0.50005 0 0 1 0.5 0.5v5a0.50005 0.50005 0 0 1-0.5 0.5h-3a0.50005 0.50005 0 0 1-0.5-0.5v-5a0.50005 0.50005 0 0 1 0.5-0.5zm-0.5 1h-2v4h2z"/>
   <path d="m27.508 17a0.50005 0.4988 0 0 1 0.49219 0.50655v4.9875a0.50005 0.4988 0 1 1-1 0v-4.9875a0.50005 0.4988 0 0 1 0.508-0.506z" style="fill-rule:evenodd"/>
   <path d="m23.508 17a0.50005 0.4988 0 0 1 0.49219 0.50655v4.9875a0.50005 0.4988 0 1 1-1 0v-4.9875a0.50005 0.4988 0 0 1 0.508-0.506z" style="fill-rule:evenodd"/>
   <path d="m19.5 17a0.50005 0.50005 0 0 1 0.5 0.5v5a0.50005 0.50005 0 0 1-0.5 0.5h-3a0.50005 0.50005 0 0 1-0.5-0.5v-5a0.50005 0.50005 0 0 1 0.5-0.5zm-0.5 1h-2v4h2z"/>
   <path d="m11.508 17a0.50005 0.4988 0 0 1 0.49219 0.50655v4.9875a0.50005 0.4988 0 1 1-1 0v-4.9875a0.50005 0.4988 0 0 1 0.508-0.506z" style="fill-rule:evenodd"/>
  </g>
  <g transform="matrix(-1,0,0,1,44,17)">
   <g>
    <path d="m9.5 8a0.50005 0.50005 0 0 0-0.5 0.5v5a0.50005 0.50005 0 0 0 0.5 0.5h3a0.50005 0.50005 0 0 0 0.5-0.5v-5a0.50005 0.50005 0 0 0-0.5-0.5zm0.5 1h2v4h-2z"/>
    <path d="m16.492 8.0001a0.50005 0.4988 0 0 0-0.49219 0.50655v4.9875a0.50005 0.4988 0 1 0 1 0v-4.9875a0.50005 0.4988 0 0 0-0.508-0.5064z" style="fill-rule:evenodd"/>
    <path d="m20.492 8.0001a0.50005 0.4988 0 0 0-0.49219 0.50655v4.9875a0.50005 0.4988 0 1 0 1 0v-4.9875a0.50005 0.4988 0 0 0-0.508-0.5064z" style="fill-rule:evenodd"/>
    <path d="m24.5 8a0.50005 0.50005 0 0 0-0.5 0.5v5a0.50005 0.50005 0 0 0 0.5 0.5h3a0.50005 0.50005 0 0 0 0.5-0.5v-5a0.50005 0.50005 0 0 0-0.5-0.5zm0.5 1h2v4h-2z"/>
    <path d="m31.5 8a0.50005 0.50005 0 0 0-0.5 0.5v5a0.50005 0.50005 0 0 0 0.5 0.5h3a0.50005 0.50005 0 0 0 0.5-0.5v-5a0.50005 0.50005 0 0 0-0.5-0.5zm0.5 1h2v4h-2z"/>
   </g>
   <path d="m34.5 17a0.50005 0.50005 0 0 1 0.5 0.5v5a0.50005 0.50005 0 0 1-0.5 0.5h-3a0.50005 0.50005 0 0 1-0.5-0.5v-5a0.50005 0.50005 0 0 1 0.5-0.5zm-0.5 1h-2v4h2z"/>
   <path d="m27.508 17a0.50005 0.4988 0 0 1 0.49219 0.50655v4.9875a0.50005 0.4988 0 1 1-1 0v-4.9875a0.50005 0.4988 0 0 1 0.508-0.506z" style="fill-rule:evenodd"/>
   <path d="m23.508 17a0.50005 0.4988 0 0 1 0.49219 0.50655v4.9875a0.50005 0.4988 0 1 1-1 0v-4.9875a0.50005 0.4988 0 0 1 0.508-0.506z" style="fill-rule:evenodd"/>
   <path d="m19.5 17a0.50005 0.50005 0 0 1 0.5 0.5v5a0.50005 0.50005 0 0 1-0.5 0.5h-3a0.50005 0.50005 0 0 1-0.5-0.5v-5a0.50005 0.50005 0 0 1 0.5-0.5zm-0.5 1h-2v4h2z"/>
   <path d="m11.508 17a0.50005 0.4988 0 0 1 0.49219 0.50655v4.9875a0.50005 0.4988 0 1 1-1 0v-4.9875a0.50005 0.4988 0 0 1 0.508-0.506z" style="fill-rule:evenodd"/>
  </g>
 </g>
 <circle cx="16" cy="16" r="6" style="fill:#d2d638"/>
 <path d="m15 12c-1.108 0-2 0.892-2 2v4c0 1.108 0.892 2 2 2h2c1.108 0 2-0.892 2-2v-1h-2c0 0.554-0.446 1-1 1s-1-0.446-1-1v-2c0-0.554 0.446-1 1-1s1 0.446 1 1h2v-1c0-1.108-0.892-2-2-2h-2z" style="fill:#8b9cbe"/>
</svg>
