<svg width="22" height="22" version="1.1" xmlns="http://www.w3.org/2000/svg">
 <path d="m7.0005045 4.5c-0.8604938 3.903e-4 -1.6243195 0.5509908-1.8966439 1.3671875l-4.0003364 12c-0.43170534 1.294794 0.5316737 2.632102 1.8966439 2.632812h12.001009c0.860494-3.9e-4 1.62432-0.550991 1.896644-1.367188l4.000336-12c0.431706-1.2947943-0.531673-2.6321018-1.896643-2.6328125z" style="opacity:.2"/>
 <path d="m7.0005045 4c-0.8604938 3.903e-4 -1.6243195 0.5509908-1.8966439 1.3671875l-4.0003364 12c-0.43170534 1.294794 0.5316737 2.632102 1.8966439 2.632812h12.001009c0.860494-3.9e-4 1.62432-0.550991 1.896644-1.367188l4.000336-12c0.431706-1.2947943-0.531673-2.6321018-1.896643-2.6328125z" style="fill:#447490"/>
 <path d="m7 4c-0.8604938 3.903e-4 -1.62416 0.5509908-1.8964844 1.3671875l-4 12c-0.1012389 0.303641-0.11947056 0.607906-0.0800781 0.898437 0.0159715-0.132518 0.0356945-0.26532 0.0800781-0.398437l4-12c0.2723244-0.8161967 1.0359906-1.3667972 1.8964844-1.3671875h12.001953c1.044872 5.44e-4 1.847977 0.786016 1.976563 1.734375 0.139378-1.156441-0.751925-2.2337374-1.976563-2.234375h-12.001953z" style="fill:#8b9cbe;opacity:.2"/>
 <path d="m1 1.5v6l5 3s-1 1 1 3c8 5 9 8 9 8l5-4s-3.750539-1-6.250323-2.25c0 0 1.250323 0.25 0.250323-1.75 0 0-3-5-4-6s-2.499784 0.25-2.499784 0.25l-3.500216-3.25v1zm3 0 5 5h2l-5-5z" style="opacity:.2"/>
 <path d="m1 1v6l5 3s-1 1 1 3c8 5 9 8 9 8l5-4s-3.750539-1-6.250323-2.25c0 0 1.250323 0.25 0.250323-1.75 0 0-3-5-4-6s-2.499784 0.25-2.499784 0.25l-3.500216-3.25v1zm3 0 5 5h2l-5-5z" style="fill:#8b9cbe"/>
 <path d="m12 11 2 3s-1 0-2-1 0-2 0-2z" style="fill:#447490"/>
</svg>
