<svg xmlns="http://www.w3.org/2000/svg" width="22" height="22" version="1">
 <path style="opacity:0.2" d="M 1.6249969,1.5000099 C 1.2787486,1.5000099 1,1.7787585 1,2.1250068 V 12.875003 C 1,13.221002 1.2787486,13.5 1.6249969,13.5 h 8.7499571 c 0.345998,0 0.624996,-0.278998 0.624996,-0.624997 V 5.4999901 L 7.5624675,4.9374928 6.9999702,1.5000099 Z"/>
 <path style="fill:#b2bfd9" d="M 1.6249969,1.0001017 C 1.2787486,1.0001017 1,1.2788503 1,1.6250986 V 12.375502 c 0,0.345998 0.2787486,0.624997 0.6249969,0.624997 h 8.7499571 c 0.345998,0 0.624996,-0.278999 0.624996,-0.624997 V 5.0000818 L 7.5624675,4.4375846 6.9999702,1.0001017 Z"/>
 <path style="opacity:0.2" d="m 6.9999702,1.5000992 v 3.3333335 c 0,0.3679981 0.2984986,0.6664967 0.6664967,0.6664967 H 10.99995 L 11,5 6.9999702,1.4999492 Z"/>
 <path style="fill:#fafafa" d="m 6.9999702,1.0001017 v 3.3333334 c 0,0.3679982 0.2984986,0.6664967 0.6664967,0.6664967 H 10.99995 L 6.9999702,0.9999517 Z"/>
 <path style="opacity:0.2;fill:#8b9cbe" d="M 1.6249969,1.0001017 C 1.2787486,1.0001017 1,1.2788503 1,1.6250986 V 2.1250961 C 1,1.7788478 1.2787486,1.5000992 1.6249969,1.5000992 H 6.9999702 V 1.0001017 Z"/>
 <path style="opacity:0.5" d="m 2.9999901,6.0000244 v 0.999995 h 5.9999702 v -0.999995 z"/>
 <path style="opacity:0.5" d="M 2.9999901,8.0000145 V 9.00001 H 8.9999603 V 8.0000145 Z"/>
 <path style="opacity:0.5" d="M 2.9999901,10.000005 V 11 h 5.9999702 v -0.999995 z"/>
 <rect style="fill:#4f4f4f" width="13" height="13" x="-21" y="-21" rx=".65" ry=".65" transform="matrix(0,-1,-1,0,0,0)"/>
 <path style="opacity:0.1;fill:#8b9cbe" d="m 8.6504621,8.000067 c -0.3600983,0 -0.6503968,0.2902985 -0.6503968,0.6503967 V 9.150461 c 0,-0.360098 0.2902985,-0.6503965 0.6503968,-0.6503965 H 20.349404 c 0.359998,0 0.650497,0.2902985 0.650497,0.6503965 V 8.6504637 c 0,-0.3600982 -0.290499,-0.6503967 -0.650497,-0.6503967 z"/>
 <path style="opacity:0.2" d="m 8.0000653,20.349506 v 0.499997 c 0,0.359998 0.2902985,0.650497 0.6503968,0.650497 H 20.349404 c 0.359998,0 0.650497,-0.290499 0.650497,-0.650497 v -0.499997 c 0,0.359998 -0.290499,0.650496 -0.650497,0.650496 H 8.6504621 c -0.3601983,0 -0.6504968,-0.290498 -0.6504968,-0.650496 z"/>
 <path style="opacity:0.2" d="m 12.092501,8.5000645 c -0.057,0.098349 -0.092,0.2106989 -0.092,0.3329983 v 3.9999802 c 0,0.369498 0.297498,0.666997 0.666997,0.666997 h 5.665127 c 0.369498,0 0.666996,-0.297499 0.666996,-0.666997 V 8.8330628 c 0,-0.1222994 -0.035,-0.2346488 -0.092,-0.3329983 z M 16.357624,9.50006 h 1.284755 c 0.197999,0 0.357498,0.148349 0.357498,0.332998 v 2.333988 c 0,0.184499 -0.159499,0.332999 -0.357498,0.332999 h -1.284755 c -0.197999,0 -0.357498,-0.1485 -0.357498,-0.332999 V 9.833058 c 0,-0.184649 0.159499,-0.332998 0.357498,-0.332998 z"/>
 <path style="fill:#b7b7b7" d="m 12.092501,8.000067 c -0.057,0.09835 -0.092,0.2106989 -0.092,0.3329983 v 3.9999797 c 0,0.369499 0.297498,0.666997 0.666997,0.666997 h 5.665127 c 0.369498,0 0.666996,-0.297498 0.666996,-0.666997 V 8.3330653 c 0,-0.1222994 -0.035,-0.2346488 -0.092,-0.3329983 z m 4.265123,0.999995 h 1.284755 c 0.197999,0 0.357498,0.148349 0.357498,0.332998 v 2.333989 c 0,0.184499 -0.159499,0.332998 -0.357498,0.332998 h -1.284755 c -0.197999,0 -0.357498,-0.148499 -0.357498,-0.332998 V 9.33306 c 0,-0.184649 0.159499,-0.332998 0.357498,-0.332998 z"/>
 <path style="fill:#8b9cbe" d="m 10.625498,14.000037 c -0.346249,0 -0.61536,0.297625 -0.624997,0.666997 v 3.832981 h 8.999997 v -3.832981 c 0,-0.369498 -0.278998,-0.666997 -0.624997,-0.666997 z M 10.1831,19.804508 c 0.08475,0.0905 0.194149,0.1555 0.316398,0.182 -0.122249,-0.0265 -0.231648,-0.0915 -0.316398,-0.182 z m 8.634999,0 c -0.085,0.0905 -0.194499,0.1555 -0.316498,0.182 0.122499,-0.0265 0.231499,-0.0915 0.316498,-0.182 z"/>
 <path style="opacity:0.2" d="m 19.000498,19.000012 v 0.833346 c 0,0.368998 -0.278998,0.666497 -0.624997,0.666497 h -7.750003 c -0.346249,0 -0.581041,-0.300126 -0.624997,-0.666497 v -0.833496 z"/>
 <path style="fill:#9153cf" d="m 19.000498,18.000075 v 1.333286 c 0,0.368998 -0.278998,0.666496 -0.624997,0.666496 h -7.750003 c -0.346249,0 -0.624997,-0.297498 -0.624997,-0.666496 v -1.333436 z"/>
</svg>
