<svg xmlns="http://www.w3.org/2000/svg" width="22" height="22" version="1.1" viewBox="0 0 44 44">
 <path style="opacity:0.2" d="m 32.158694,5.0018911 c -2.339941,-0.051114 -4.593769,0.9363666 -6.144072,2.6910582 -0.0012,0.0014 -0.0027,0.0025 -0.0039,0.0039 l -4.015616,4.4240827 -4.01174,-4.4162957 c -1.424465,-1.6183716 -3.450682,-2.592914 -5.603207,-2.6949526 -0.260519,-0.012616 -0.51772,-0.013001 -0.778224,0 a 5.977352,5.9824591 0 0 0 -0.01945,0 C 5.2433432,5.3455999 1.8467314,13.780704 6.1816032,18.422133 L 11.224489,23.975605 6.2594255,29.4434 c -1.5192901,1.580887 -2.4400962,4.078962 -2.2296097,6.266155 0.2104868,2.187194 1.2500876,3.924619 2.6187213,5.167923 1.3686339,1.243304 3.1976469,2.112373 5.3930859,2.110788 2.19544,-0.0016 4.590268,-1.161185 6.015666,-2.827365 l 3.937809,-4.330618 4.054544,4.463029 -0.147863,-0.167461 c 1.418645,1.683037 3.819828,2.866353 6.02734,2.874097 2.20751,0.0078 4.047562,-0.863731 5.420324,-2.110787 1.372761,-1.247055 2.417086,-2.995369 2.622612,-5.195185 0.205525,-2.199813 -0.739595,-4.705945 -2.276302,-6.281731 l -4.933937,-5.43664 5.050669,-5.561261 c 2.191468,-2.3538 2.626913,-5.893796 1.513644,-8.5366139 -1.113268,-2.6428173 -3.949803,-4.8028356 -7.163544,-4.875839 a 5.977352,5.9824591 0 0 0 -0.0039,0 z"/>
 <path style="fill:#4f4f4f" d="m 32.158694,4.0018907 c -2.339941,-0.051114 -4.593769,0.9363666 -6.144072,2.6910586 -0.0012,0.00139 -0.0027,0.0025 -0.0039,0.0039 L 21.995106,11.120932 17.983366,6.7046362 C 16.558901,5.0862643 14.532684,4.1117219 12.380159,4.0096833 c -0.260519,-0.012616 -0.51772,-0.013001 -0.778224,0 a 5.977352,5.9824591 0 0 0 -0.01945,0 C 5.2433432,4.3455995 1.8467314,12.780704 6.1816032,17.422133 L 11.224489,22.975605 6.2594255,28.4434 c -1.5192901,1.580887 -2.4400962,4.078962 -2.2296097,6.266155 0.2104868,2.187194 1.2500876,3.924619 2.6187213,5.167923 1.3686339,1.243304 3.1976469,2.112373 5.3930859,2.110788 2.19544,-0.0016 4.590268,-1.161185 6.015666,-2.827365 l 3.937809,-4.330618 4.054544,4.463029 -0.147863,-0.167461 c 1.418645,1.683037 3.819828,2.866353 6.02734,2.874097 2.20751,0.0078 4.047562,-0.863731 5.420324,-2.110787 1.372761,-1.247055 2.417086,-2.995369 2.622612,-5.195185 0.205525,-2.199813 -0.739595,-4.705945 -2.276302,-6.281731 l -4.933937,-5.43664 5.050669,-5.561261 c 2.191468,-2.3538 2.626913,-5.893796 1.513644,-8.5366139 -1.113268,-2.6428177 -3.949803,-4.802836 -7.163544,-4.8758394 a 5.977352,5.9824591 0 0 0 -0.0039,0 z"/>
 <path style="opacity:0.2" d="m 11.875,10.980111 a 2.0002,2.0002 0 0 0 -1.355469,3.363282 l 8.789063,9.667968 -8.769532,9.644532 A 2.0002,2.0002 0 1 0 13.5,36.343393 l 8.507812,-9.359374 8.51172,9.359374 a 2.0006762,2.0006762 0 1 0 2.960936,-2.6875 L 24.710938,24.011361 33.5,14.343393 a 2.0002,2.0002 0 0 0 -1.417968,-3.363282 2.0002,2.0002 0 0 0 -1.54297,0.675782 l -8.53125,9.382812 -8.527343,-9.382812 a 2.0002,2.0002 0 0 0 -1.40625,-0.675782 2.0002,2.0002 0 0 0 -0.199219,0 z"/>
 <path style="fill:#8b9cbe" d="M 11.875,9.9804689 A 2.0002,2.0002 0 0 0 10.519531,13.34375 l 8.789063,9.667968 -8.769532,9.644532 A 2.0002,2.0002 0 1 0 13.5,35.34375 l 8.507812,-9.359374 8.51172,9.359374 a 2.0006762,2.0006762 0 1 0 2.960936,-2.6875 L 24.710938,23.011718 33.5,13.34375 A 2.0002,2.0002 0 0 0 32.082032,9.9804689 2.0002,2.0002 0 0 0 30.539062,10.65625 l -8.53125,9.382812 -8.527343,-9.382812 a 2.0002,2.0002 0 0 0 -1.40625,-0.6757811 2.0002,2.0002 0 0 0 -0.199219,0 z"/>
 <path style="opacity:0.2;fill:#8b9cbe" d="m 32.160156,4.0000001 c -2.33994,-0.051114 -4.594228,0.9367142 -6.144532,2.6914062 0,0 -0.004,0.0039 -0.004,0.0039 l -4.01553,4.4257877 -4.011719,-4.4179689 c -1.424465,-1.618372 -3.452944,-2.593274 -5.605469,-2.6953126 -0.260519,-0.01262 -0.51684,-0.013 -0.777344,0 a 5.977352,5.982459 0 0 0 -0.01954,0 C 7.032174,4.2489127 4.017008,8.6631811 4.2695224,12.851563 4.5084788,8.9893551 7.3944494,5.2297155 11.582022,5.0078125 a 5.977352,5.982459 0 0 1 0.01954,0 c 0.260504,-0.013 0.516825,-0.01262 0.777344,0 2.152525,0.102038 4.181004,1.076941 5.605469,2.6953126 l 4.011719,4.4179689 4.015624,-4.4257815 c 0,0 0.004,-0.0039 0.004,-0.0039 1.55021,-1.7546978 3.804498,-2.7425264 6.144438,-2.6914124 a 5.977352,5.982459 0 0 0 0.004,0 c 3.213742,0.073004 6.046888,2.2360884 7.160156,4.8789062 0.33196,0.7880457 0.511442,1.6584287 0.5625,2.5507817 0.07706,-1.23865 -0.10714,-2.4697697 -0.5625,-3.5507817 C 38.21095,6.2360887 35.377804,4.0730035 32.164062,4.0000001 a 5.977352,5.982459 0 0 0 -0.004,0 z M 10.769531,23.476562 6.2578124,28.445312 c -1.4925416,1.553054 -2.398278,3.989372 -2.2304686,6.148438 0.127114,-1.879796 0.964973,-3.831634 2.2304686,-5.148438 l 4.9648436,-5.46875 z m 22.445313,0 -0.453126,0.5 4.933594,5.4375 c 1.292428,1.325294 2.158318,3.30519 2.28125,5.210938 0.17958,-2.182988 -0.760636,-4.651654 -2.28125,-6.210938 z"/>
</svg>
