<svg xmlns="http://www.w3.org/2000/svg" width="22" height="22" version="1.1">
 <path style="opacity:0.2" d="m 11,1.5 a 10,10 0 0 0 -10,10 v 9 c 0,0.554 0.446,1 1,1 h 9 a 10,10 0 0 0 10,-10 v -9 c 0,-0.554 -0.446,-1 -1,-1 z"/>
 <path style="fill:#00acc1" d="M 11,1 A 10,10 0 0 0 1,11 v 9 c 0,0.554 0.446,1 1,1 h 9 A 10,10 0 0 0 21,11 V 2 C 21,1.446 20.554,1 20,1 Z"/>
 <path style="opacity:0.2" d="M 12.015625,3.4746094 9,4 V 14.386719 L 12,14 11.984375,9.318359 15.523438,14.5 19,14 15,8.6367188 l 4.013672,-4.5 -3.519531,-0.6484376 -3.509766,4.5 z M 5.6738281,6.1269531 c -0.028972,0.00241 -0.056303,0.015109 -0.078125,0.037109 l -1.0351562,1.046875 c -0.04495,0.0453 -0.052447,0.1159219 -0.017578,0.1699219 l 1.25,1.919922 C 5.5571593,9.719262 5.3789844,10.178103 5.2636719,10.658203 L 3.1054688,11.1875 C 3.0455625,11.2022 3,11.256359 3,11.318359 V 12 12.681641 c 0,0.062 0.045563,0.116159 0.1054688,0.130859 l 2.1582031,0.529297 c 0.1153125,0.4801 0.2934874,0.938942 0.5292969,1.357422 l -1.25,1.919922 c -0.034868,0.054 -0.027372,0.124623 0.017578,0.169921 l 1.0351562,1.046876 c 0.043643,0.044 0.1113563,0.04763 0.1640625,0.01562 L 7.71875,16.650391 c 0.3843281,0.2239 0.9855094,0.404037 1.423828,0.523437 l 0.458985,2.216797 C 9.614313,19.454625 9.665143,19.5 9.728516,19.5 H 10.5 11.271484 c 0.06338,0 0.114202,-0.04537 0.126954,-0.109375 l 0.458984,-2.216797 c 0.438319,-0.1194 1.039502,-0.299537 1.423828,-0.523437 l 1.958984,1.201171 c 0.05271,0.032 0.120422,0.02838 0.164063,-0.01562 l 1.035156,-1.046876 c 0.04495,-0.0453 0.05245,-0.115921 0.01758,-0.169921 l -1.041015,-1.59961 -0.128907,0.01953 -0.730468,-1.070312 c -0.746065,1.563963 -2.323843,2.560614 -4.056641,2.5625 -2.4852814,0 -4.5,-2.014719 -4.5,-4.5 C 6.00144,10.323124 6.9698489,8.763073 8.5,8.0039062 V 7.0214844 C 8.2147616,7.1165864 7.9344885,7.2239255 7.71875,7.3496094 L 5.7597656,6.1484375 c -0.026353,-0.016 -0.056965,-0.023891 -0.085937,-0.021484 z"/>
 <path style="fill:#8b9cbe" d="M 12.015625,2.9746094 9,3.5 V 13.886719 L 12,13.5 11.984375,8.8183594 15.523438,14 19,13.5 15,8.1367188 l 4.013672,-4.5 -3.519531,-0.6484376 -3.509766,4.5 z M 5.6738281,5.6269531 c -0.028972,0.00241 -0.056303,0.015109 -0.078125,0.037109 l -1.0351562,1.046875 c -0.04495,0.0453 -0.052447,0.1159219 -0.017578,0.1699219 l 1.25,1.9199218 C 5.5571593,9.219262 5.3789844,9.678103 5.2636719,10.158203 L 3.1054688,10.6875 C 3.0455625,10.7022 3,10.756359 3,10.818359 V 11.5 12.181641 c 0,0.062 0.045563,0.116159 0.1054688,0.130859 l 2.1582031,0.529297 c 0.1153125,0.4801 0.2934874,0.938942 0.5292969,1.357422 l -1.25,1.919922 c -0.034868,0.054 -0.027372,0.124623 0.017578,0.169921 l 1.0351562,1.046876 c 0.043643,0.044 0.1113563,0.04763 0.1640625,0.01562 L 7.71875,16.150391 c 0.3843281,0.2239 0.9855094,0.404037 1.423828,0.523437 l 0.458985,2.216797 C 9.614313,18.954629 9.665141,19 9.728516,19 H 10.5 11.271484 c 0.06338,0 0.114202,-0.04537 0.126954,-0.109375 l 0.458984,-2.216797 c 0.438319,-0.1194 1.039502,-0.299537 1.423828,-0.523437 l 1.958984,1.201171 c 0.05271,0.032 0.120422,0.02838 0.164063,-0.01562 l 1.035156,-1.046876 c 0.04495,-0.0453 0.05245,-0.115921 0.01758,-0.169921 l -1.041015,-1.59961 -0.128907,0.01953 -0.730468,-1.070312 c -0.746065,1.563963 -2.323843,2.560614 -4.056641,2.5625 -2.4852814,0 -4.5,-2.014719 -4.5,-4.5 C 6.00144,9.823124 6.9698489,8.263073 8.5,7.5039062 V 6.5214844 C 8.2147616,6.6165864 7.9344885,6.7239255 7.71875,6.8496094 L 5.7597656,5.6484375 c -0.026353,-0.016 -0.056965,-0.023891 -0.085937,-0.021484 z"/>
 <path style="opacity:0.2;fill:#8b9cbe" d="M 11,1 A 10,10 0 0 0 1,11 v 0.5 a 10,10 0 0 1 10,-10 h 9 c 0.554,0 1,0.446 1,1 V 2 C 21,1.446 20.554,1 20,1 Z"/>
</svg>
