<svg xmlns="http://www.w3.org/2000/svg" width="22" height="22" version="1.1">
 <g transform="translate(-1,-1)">
  <path style="fill:#5ca742" d="M 12,2 A 10,10 0 0 0 2,12 10,10 0 0 0 12,22 10,10 0 0 0 22,12 10,10 0 0 0 12,2 Z"/>
  <path style="opacity:0.2" d="M 2.01075,12.209 A 10,10 0 0 0 2,12.5 10,10 0 0 0 12,22.5 10,10 0 0 0 22,12.5 10,10 0 0 0 21.9895,12.291 10,10 0 0 1 12,22 10,10 0 0 1 2.011,12.209 Z"/>
  <path style="opacity:0.2;fill:#8b9cbe" d="m 12,2 a 10,10 0 0 0 -10,10 10,10 0 0 0 0.01075,0.209 10,10 0 0 1 9.989,-9.709 10,10 0 0 1 9.9895,9.791 10,10 0 0 0 0.0105,-0.291 10,10 0 0 0 -10,-10 z"/>
  <g style="opacity:0.2" transform="translate(0,0.5)">
   <path d="m 12,4 a 5,5 0 0 0 -5,5 5,5 0 0 0 5,5 5,5 0 0 0 5,-5 5,5 0 0 0 -5,-5 z m 0,1 a 2.0000002,2.0000002 0 0 1 2,2 2.0000002,2.0000002 0 0 1 -2,2 2.0000002,2.0000002 0 0 1 -2,-2 2.0000002,2.0000002 0 0 1 2,-2 z"/>
   <path d="m 10,12 v 7 l 2,2 2,-2 v -0.7 l 1,-0.75 -1,-0.75 v -0.75 l 1,-1 -1,-1 V 12 Z m 1,2 h 1 v 4 h -1 z"/>
  </g>
  <g>
   <path style="fill:#8b9cbe" d="m 12,4 a 5,5 0 0 0 -5,5 5,5 0 0 0 5,5 5,5 0 0 0 5,-5 5,5 0 0 0 -5,-5 z m 0,1 a 2.0000002,2.0000002 0 0 1 2,2 2.0000002,2.0000002 0 0 1 -2,2 2.0000002,2.0000002 0 0 1 -2,-2 2.0000002,2.0000002 0 0 1 2,-2 z"/>
   <path style="fill:#8b9cbe" d="m 10,12 v 7 l 2,2 2,-2 v -0.7 l 1,-0.75 -1,-0.75 v -0.75 l 1,-1 -1,-1 V 12 Z m 1,2 h 1 v 4 h -1 z"/>
  </g>
 </g>
</svg>
