<svg xmlns="http://www.w3.org/2000/svg" width="22" height="22" version="1">
 <rect style="opacity:0.2" width="20" height="20" x="1" y="1.5" rx="1" ry="1"/>
 <rect style="fill:#38a334" width="20" height="20" x="1" y="1" rx="1" ry="1"/>
 <path style="opacity:0.2" d="M 14.5,4.5 A 3.5,3.5 0 0 0 11,8 3.5,3.5 0 0 0 11.324219,9.460938 L 4,16.785156 V 18.5 h 1.7148438 l 1,-1 H 8 V 16.214844 L 8.7148438,15.5 H 12 v -2 h -1.285156 l 2.322265,-2.322266 A 3.5,3.5 0 0 0 14.5,11.5 3.5,3.5 0 0 0 18,8 3.5,3.5 0 0 0 14.5,4.5 Z m 0.5,2 a 1,1 0 0 1 1,1 1,1 0 0 1 -1,1 1,1 0 0 1 -1,-1 1,1 0 0 1 1,-1 z"/>
 <path style="fill:#8b9cbe" d="M 14.5,4 A 3.5,3.5 0 0 0 11,7.5 3.5,3.5 0 0 0 11.324219,8.9609375 L 4,16.285156 V 18 h 1.7148438 l 1,-1 H 8 V 15.714844 L 8.7148438,15 H 12 v -2 h -1.285156 l 2.322265,-2.322266 A 3.5,3.5 0 0 0 14.5,11 3.5,3.5 0 0 0 18,7.5 3.5,3.5 0 0 0 14.5,4 Z M 15,6 a 1,1 0 0 1 1,1 1,1 0 0 1 -1,1 1,1 0 0 1 -1,-1 1,1 0 0 1 1,-1 z"/>
 <path style="opacity:0.2" d="M 4,8.2144782 V 6.5002243 H 5.7142539 L 15.999775,16.785746 V 18.5 h -1.714254 z"/>
 <path style="fill:#454545" d="M 4,7.7144832 V 6.0002293 H 5.7142539 L 15.999775,16.285751 v 1.714254 h -1.714254 z"/>
 <path style="opacity:0.1;fill:#8b9cbe" d="M 2,1 C 1.446,1 1,1.446 1,2 v 0.5 c 0,-0.554 0.446,-1 1,-1 h 18 c 0.554,0 1,0.446 1,1 V 2 C 21,1.446 20.554,1 20,1 Z"/>
</svg>
