<svg xmlns="http://www.w3.org/2000/svg" width="22" height="22" version="1">
 <rect style="fill:#4f75de" width="20" height="20" x="1" y="1" rx="10" ry="10"/>
 <path style="opacity:.2;fill:#8b9cbe" d="m11 1c-5.5395076 0-9.9991111 4.4599999-9.9991111 10 0 0.084-0.002 0.1665 0 0.25 0.1321882-5.4230001 4.543596-9.75 9.9991111-9.75 5.455515 0 9.867123 4.3269999 9.999111 9.75 0.002-0.0835 0-0.166 0-0.25 0-5.5400001-4.459604-10-9.999111-10z"/>
 <path style="opacity:.2" d="m1.00585 11.25c-0.00205 0.0835-0.00585 0.166-0.00585 0.25 0 5.54 4.4599999 10 10 10 5.54 0 10-4.46 10-10 0-0.084-0.004-0.1665-0.006-0.25-0.132 5.423-4.538 9.75-9.994 9.75-5.4560001 0-9.862-4.327-9.994-9.75z"/>
 <path style="opacity:.2" d="m10.671875 6.3107136a2.9999999 4.0000002 45 0 0 -3.2578125 1.4101563 2.9999999 4.0000002 45 0 0 -0.7070313 4.9492181 2.9999999 4.0000002 45 0 0 4.1738278 -0.06836l3.603516 3.605469c0.391737 0.391737 1.024279 0.391737 1.416016 0s0.391737-1.024277 0-1.416015l-0.707032-0.707032 0.705079-0.705078 0.443359 0.441406c0.146901 0.146902 0.423272 0.106025 0.619141-0.08984 0.195868-0.195869 0.234792-0.470286 0.08789-0.617188l-1.591797-1.5918c-0.146901-0.146901-0.423272-0.107978-0.61914 0.08789-0.195869 0.195869-0.234792 0.472239-0.08789 0.619141l0.441406 0.443359-0.705078 0.705078-2.191406-2.191406a2.9999999 4.0000002 45 0 0 0.06836 -4.1718744 2.9999999 4.0000002 45 0 0 -1.691406 -0.703125zm-0.195313 1.4042969c0.316817 0.021641 0.60582 0.1390228 0.826172 0.359375 0.587606 0.5876056 0.449153 1.6719395-0.310546 2.4316395l-0.792969 0.792969c-0.759699 0.7597-1.8440351 0.898153-2.4316409 0.310547-0.5876057-0.587606-0.449153-1.67194 0.3105469-2.43164l0.7929688-0.7929686c0.4748122-0.4748126 1.0774402-0.7059909 1.6054682-0.6699219z"/>
 <g transform="rotate(45,13.275773,10.196244)">
  <path style="fill:#8b9cbe" transform="translate(1.0271491 .2371172)" d="m9 8a2.9999999 4.0000002 0 0 0 -3 4 2.9999999 4.0000002 0 0 0 3 4 2.9999999 4.0000002 0 0 0 3 -4 2.9999999 4.0000002 0 0 0 -3 -4zm0 1.5c0.831 0 1.5 0.865075 1.5 1.939453v1.121094c0 1.074378-0.669 1.939453-1.5 1.939453s-1.5-0.865075-1.5-1.939453v-1.121094c0-1.074378 0.669-1.939453 1.5-1.939453z"/>
  <path style="fill:#8b9cbe" d="m12.027149 11.237118h6c0.554 0 1 0.446 1 1s-0.446 1-1 1h-6c-0.554 0-0.217639-0.623809-0.217639-1.177809s-0.336361-0.822191 0.217639-0.822191z"/>
  <rect style="fill:#8b9cbe" width="3" height="1" x="15.03" y="9.24" rx=".375" ry=".5"/>
  <rect style="fill:#8b9cbe" width="3" height="1" x="9.64" y="-17.03" rx=".375" ry=".5" transform="rotate(90)"/>
 </g>
</svg>
