<svg xmlns="http://www.w3.org/2000/svg" width="22" height="22" version="1">
 <rect style="opacity:0.2" width="20" height="20" x="1" y="1.5" rx="1" ry="1"/>
 <rect style="fill:#546e7a" width="20" height="20" x="1" y="1" rx="1" ry="1"/>
 <path style="opacity:0.2" d="m 10,5.5 v 4 H 7.5 l 3.5,4 3.5,-4 H 12 v -4 z m -5,7 v 4 h 2 8 2 v -4 h -2 v 2 H 7 v -2 z"/>
 <path style="fill:#8b9cbe" d="M 10,5 V 9 H 7.5 L 11,13 14.5,9 H 12 V 5 Z m -5,7 v 4 h 2 8 2 v -4 h -2 v 2 H 7 v -2 z"/>
 <path style="opacity:0.1;fill:#8b9cbe" d="M 2,1 C 1.446,1 1,1.446 1,2 v 0.5 c 0,-0.554 0.446,-1 1,-1 h 18 c 0.554,0 1,0.446 1,1 V 2 C 21,1.446 20.554,1 20,1 Z"/>
</svg>
