<svg xmlns="http://www.w3.org/2000/svg" width="22" height="22" version="1.1">
 <path style="opacity:0.2" d="M 11,0.5000976 C 7,0.5 5,3.6862915 5,7 V 8.21875 C 3.713494,9.677507 3.0024945,11.55499 3,13.5 c 0,4.418278 3.581722,8 8,8 4.418278,0 8,-3.581722 8,-8 C 18.9963,11.556673 18.285396,9.681128 17,8.223633 V 7 C 17,3.6862915 15,0.5001952 11,0.5000976 Z m 0,2.0498047 c 1.999378,0.049887 3.725073,2.0327852 3.966797,4.0106447 C 13.759319,5.8679363 12.392015,5.5023794 11,5.5 9.607301,5.5033984 8.2396167,5.8703135 7.0322265,6.564453 7.272162,4.584655 9,2.5 11,2.5499023 Z"/>
 <path style="fill:#12a1ac" d="M 11,9.76e-5 C 7,0 5,3.1862915 5,6.5 V 7.71875 C 3.713494,9.177507 3.0024945,11.05499 3,13 c 0,4.418278 3.581722,8 8,8 4.418278,0 8,-3.581722 8,-8 C 18.9963,11.056673 18.285396,9.181128 17,7.723633 V 6.5 C 17,3.1862915 15,1.952e-4 11,9.76e-5 Z m 0,2.0498047 c 1.999378,0.049887 3.725073,2.0327852 3.966797,4.0106447 C 13.759319,5.3679363 12.392015,5.0023794 11,5 9.607301,5.0033984 8.2396167,5.3703135 7.0322265,6.064453 7.272162,4.084655 9,2 11,2.0499023 Z"/>
 <path style="fill:#e34040" d="m 11,5.0000005 a 15.5,7.479744 0 0 0 -1,0.025445 V 7 h 2 V 5.0254475 a 15.5,7.479744 0 0 0 -1,-0.02545 z"/>
 <path style="opacity:0.2" d="m 17,13.5 a 6,6 0 0 1 -6,6 6,6 0 0 1 -6,-6 6,6 0 0 1 6,-6 6,6 0 0 1 6,6 z"/>
 <path style="fill:#8b9cbe" d="m 17,13 a 6,6 0 0 1 -6,6 6,6 0 0 1 -6,-6 6,6 0 0 1 6,-6 6,6 0 0 1 6,6 z"/>
 <path style="fill:#10ca15" d="M 10.5,7.5 V 9 h 1 V 7.5 Z M 7.6416015,8.9345705 6.9345705,9.641602 7.6416015,10.348633 8.348633,9.641602 Z m 6.7167975,0 -0.707032,0.7070315 0.707032,0.707031 0.70703,-0.707031 z M 5.5,12.5 v 1 H 7 v -1 z m 9.5,0 v 1 h 1.5 v -1 z m -7.3583985,3.151367 -0.707031,0.707031 0.707031,0.707031 0.7070315,-0.707031 z m 6.7167975,0 -0.707032,0.707031 0.707032,0.707031 0.70703,-0.707031 z M 10.5,17 v 1.5 h 1 V 17 Z"/>
 <path style="opacity:0.1" d="m 14,13.5 a 3,3 0 0 1 -3,3 3,3 0 0 1 -3,-3 3,3 0 0 1 3,-3 3,3 0 0 1 3,3 z"/>
 <path style="fill:#12a1ac" d="m 14,13 a 3,3 0 0 1 -3,3 3,3 0 0 1 -3,-3 3,3 0 0 1 3,-3 3,3 0 0 1 3,3 z"/>
 <path style="opacity:0.2;fill:#8b9cbe" d="M 11,0 C 7,-9.76e-5 5,3.1862915 5,6.5 V 7 c 0,-3.3137085 2,-6.5000976 6,-6.5 4,9.76e-5 6,3.1862915 6,6.5 V 6.5 C 17,3.1862915 15,9.76e-5 11,0 Z m 0,5 C 9.651736,5.00329 8.3290269,5.3541174 7.1503906,6.0058594 7.1024898,6.192113 7.0538235,6.3781909 7.03125,6.5644531 8.2386402,5.8703136 9.607301,5.5033984 11,5.5 12.392015,5.50238 13.759319,5.8679362 14.966797,6.5605469 14.94394,6.3735257 14.896026,6.1874259 14.847656,6.0019531 13.668988,5.3517149 12.347565,5.0023034 11,5 Z M 5,7.71875 C 3.713494,9.177507 3.0024945,11.05499 3,13 3,13.0804 3.00936,13.158451 3.011719,13.238281 3.0749262,11.387586 3.7715747,9.61165 5,8.21875 Z m 12,0.00586 v 0.5 c 1.229101,1.393664 1.925755,3.169586 1.988281,5.021485 C 18.990793,13.163673 19,13.08303 19,13 18.9963,11.056673 18.285396,9.182104 17,7.72461 Z"/>
</svg>
