<svg xmlns="http://www.w3.org/2000/svg" height="22" width="22" version="1.1">
 <path style="opacity:.2" d="m6 3.5v2h8v7h2v-9z"/>
 <path style="opacity:.2" d="m16 19.5v-2h-8v-7h-2v9z"/>
 <path style="fill:#017de8" d="m6 3v2h8v7h2v-9z"/>
 <path style="opacity:.1;fill:#8b9cbe" d="m6 3v0.5h10v-0.5h-10z"/>
 <path style="fill:#2ab915" d="m16 19v-2h-8v-7h-2v9z"/>
 <path style="opacity:.1;fill:#8b9cbe" d="m6 10v0.5h2v-0.5h-2zm2 7v0.5h8v-0.5h-8z"/>
 <circle r="3" style="opacity:.2" cx="7" cy="4.5"/>
 <circle r="3" style="fill:#39bdfe" cx="7" cy="4"/>
 <circle r="3" style="opacity:.2" cx="15" cy="4.5"/>
 <circle r="3" style="fill:#39bdfe" cx="15" cy="4"/>
 <circle r="3" style="opacity:.2" cx="7" cy="11.5"/>
 <circle r="3" style="fill:#68e01a" cx="7" cy="11"/>
 <circle r="3" style="opacity:.2" cx="15" cy="11.5"/>
 <circle r="3" style="fill:#39bdfe" cx="15" cy="11"/>
 <circle r="3" style="opacity:.2" cx="7" cy="18.5"/>
 <circle r="3" style="fill:#68e01a" cx="7" cy="18"/>
 <circle r="3" style="opacity:.2" cx="15" cy="18.5"/>
 <circle r="3" style="fill:#68e01a" cx="15" cy="18"/>
 <path style="opacity:.2;fill:#8b9cbe" d="m7 1a3 3 0 0 0 -3 3 3 3 0 0 0 0.0136719 0.2558594 3 3 0 0 1 2.9863281 -2.7558594 3 3 0 0 1 2.9863281 2.7441406 3 3 0 0 0 0.0136719 -0.2441406 3 3 0 0 0 -3 -3z"/>
 <path style="opacity:.2;fill:#8b9cbe" d="m15 1a3 3 0 0 0 -3 3 3 3 0 0 0 0.013672 0.2558594 3 3 0 0 1 2.986328 -2.7558594 3 3 0 0 1 2.986328 2.7441406 3 3 0 0 0 0.013672 -0.2441406 3 3 0 0 0 -3 -3z"/>
 <path style="opacity:.2;fill:#8b9cbe" d="m7 8a3 3 0 0 0 -3 3 3 3 0 0 0 0.0136719 0.255859 3 3 0 0 1 2.9863281 -2.755859 3 3 0 0 1 2.9863281 2.744141 3 3 0 0 0 0.0136719 -0.244141 3 3 0 0 0 -3 -3z"/>
 <path style="opacity:.2;fill:#8b9cbe" d="m15 8a3 3 0 0 0 -3 3 3 3 0 0 0 0.013672 0.255859 3 3 0 0 1 2.986328 -2.755859 3 3 0 0 1 2.986328 2.744141 3 3 0 0 0 0.013672 -0.244141 3 3 0 0 0 -3 -3z"/>
 <path style="opacity:.2;fill:#8b9cbe" d="m7 15a3 3 0 0 0 -3 3 3 3 0 0 0 0.0136719 0.255859 3 3 0 0 1 2.9863281 -2.755859 3 3 0 0 1 2.9863281 2.744141 3 3 0 0 0 0.0136719 -0.244141 3 3 0 0 0 -3 -3z"/>
 <path style="opacity:.2;fill:#8b9cbe" d="m15 15a3 3 0 0 0 -3 3 3 3 0 0 0 0.013672 0.255859 3 3 0 0 1 2.986328 -2.755859 3 3 0 0 1 2.986328 2.744141 3 3 0 0 0 0.013672 -0.244141 3 3 0 0 0 -3 -3z"/>
</svg>
