<svg xmlns="http://www.w3.org/2000/svg" width="22" height="22" version="1">
 <path style="opacity:0.2" d="M 11.058707,2.499885 C 9.89002,2.493895 8.6991776,2.7172491 7.5489411,3.1951975 2.9479948,5.1070807 0.78331465,10.350225 2.6954255,14.951057 4.6073109,19.55189 9.850337,21.716636 14.451285,19.804573 19.05223,17.89296 21.216912,12.649546 19.304801,8.0487131 17.871055,4.5980435 14.563868,2.5178851 11.058707,2.499885 Z m -0.05859,4 a 4.9999996,4.9998763 0 0 1 5,5 4.9999996,4.9998763 0 0 1 -5,5 4.9999996,4.9998763 0 0 1 -5,-5 4.9999996,4.9998763 0 0 1 5,-5 z"/>
 <path style="fill:#b2bfd9" d="M 11.058707,2 C 9.89002,1.99401 8.6991776,2.2173641 7.5489411,2.6953125 2.9479948,4.6071957 0.78331465,9.85034 2.6954255,14.451172 4.6073109,19.052005 9.850337,21.216751 14.451285,19.304688 19.05223,17.393075 21.216912,12.149661 19.304801,7.5488281 17.871055,4.0981585 14.563868,2.0180001 11.058707,2 Z m -0.05859,4 a 4.9999996,4.9998763 0 0 1 5,5 4.9999996,4.9998763 0 0 1 -5,5 4.9999996,4.9998763 0 0 1 -5,-5 4.9999996,4.9998763 0 0 1 5,-5 z"/>
 <path style="opacity:0.2;fill:#8b9cbe" d="M 11.058707,2 C 9.89002,1.99401 8.6991776,2.2173641 7.5489411,2.6953125 4.0089728,4.1663155 1.9201713,7.6096149 2.0118318,11.214844 2.1163999,7.7947227 4.1730142,4.5981496 7.5489411,3.1953125 8.6991776,2.7173641 9.89002,2.49401 11.058707,2.5 14.563868,2.518 17.871055,4.5981585 19.304801,8.0488281 19.745733,9.10978 19.960922,10.2046 19.988394,11.285156 20.026339,10.044077 19.813907,8.7738173 19.304801,7.5488281 17.871055,4.0981585 14.563868,2.0180001 11.058707,2 Z m 4.93164,9.197266 A 4.9999996,4.9998763 0 0 1 11.000113,16 4.9999996,4.9998763 0 0 1 6.0098786,11.302734 4.9999996,4.9998763 0 0 0 6.000113,11.5 a 4.9999996,4.9998763 0 0 0 5,5 4.9999996,4.9998763 0 0 0 5,-5 4.9999996,4.9998763 0 0 0 -0.0098,-0.302734 z"/>
 <path style="opacity:0.2" d="M 11.06066,1.499885 C 9.894957,1.4943381 8.7108151,1.6896872 7.5645661,2.0975412 A 0.87803765,0.81823541 0 0 0 7.0567536,3.1522288 L 8.6173005,6.968635 A 0.87803765,0.81823541 0 0 0 9.750113,7.4432444 c 0.398571,-0.1418395 0.821413,-0.2143136 1.248047,-0.2148438 0.426336,0.00147 0.848144,0.074222 1.246094,0.2167969 A 0.87803765,0.81823541 0 0 0 13.379019,6.9725412 L 14.943472,3.1522288 A 0.87803765,0.81823541 0 0 0 14.433707,2.0955881 C 13.368961,1.7176913 12.229485,1.5054465 11.06066,1.499885 Z m -8.7031251,6 A 0.81823541,0.87803765 0 0 0 1.5977692,8.0643381 C 1.1899152,9.210587 0.99461295,10.394729 1.000113,11.560432 c 0.00556,1.168825 0.2178061,2.308301 0.5957031,3.373047 a 0.81823541,0.87803765 0 0 0 1.0566407,0.509765 l 3.8203124,-1.5625 a 0.81823541,0.87803765 0 0 0 0.4726563,-1.136718 c -0.142578,-0.39795 -0.21725,-0.819758 -0.21875,-1.246094 5.3e-4,-0.426634 0.074958,-0.849476 0.2167969,-1.248047 A 0.81823541,0.87803765 0 0 0 6.468863,9.117073 L 2.6524568,7.5565256 A 0.81823541,0.87803765 0 0 0 2.3575349,7.499885 Z m 17.2851561,0 a 0.81823541,0.87803765 0 0 0 -0.294922,0.056641 l -3.816406,1.560547 a 0.81823541,0.87803765 0 0 0 -0.474609,1.132812 c 0.14184,0.398571 0.214313,0.821413 0.214843,1.248047 -0.0015,0.426336 -0.07422,0.848144 -0.216796,1.246094 a 0.81823541,0.87803765 0 0 0 0.472656,1.136718 l 3.820312,1.5625 a 0.81823541,0.87803765 0 0 0 1.056641,-0.509765 c 0.377897,-1.064746 0.590142,-2.204222 0.595703,-3.373047 0.0055,-1.165703 -0.189802,-2.349845 -0.597656,-3.4960939 A 0.81823541,0.87803765 0 0 0 19.642691,7.499885 Z m -7.052734,8 a 0.87803765,0.81823541 0 0 0 -0.345703,0.05469 c -0.39795,0.142578 -0.819758,0.217249 -1.246094,0.21875 -0.426634,-5.31e-4 -0.849476,-0.07496 -1.248047,-0.216797 a 0.87803765,0.81823541 0 0 0 -1.1328125,0.474609 l -1.5605469,3.816406 a 0.87803765,0.81823541 0 0 0 0.5078125,1.054688 c 1.146249,0.407854 2.3303909,0.603156 3.4960939,0.597656 1.168825,-0.0056 2.308301,-0.217806 3.373047,-0.595703 a 0.87803765,0.81823541 0 0 0 0.509765,-1.056641 l -1.564453,-3.820312 a 0.87803765,0.81823541 0 0 0 -0.789062,-0.527344 z"/>
 <path style="fill:#e74c3c" d="M 11.06066,1 C 9.894957,0.99445315 8.7108151,1.1898022 7.5645661,1.5976562 A 0.87803765,0.81823541 0 0 0 7.0567536,2.6523438 L 8.6173005,6.46875 A 0.87803765,0.81823541 0 0 0 9.750113,6.9433594 c 0.398571,-0.1418395 0.821413,-0.2143136 1.248047,-0.2148438 0.426336,0.00147 0.848144,0.074222 1.246094,0.2167969 A 0.87803765,0.81823541 0 0 0 13.379019,6.4726562 L 14.943472,2.6523438 A 0.87803765,0.81823541 0 0 0 14.433707,1.5957031 C 13.368961,1.2178063 12.229485,1.0055615 11.06066,1 Z M 2.3575349,7 A 0.81823541,0.87803765 0 0 0 1.5977692,7.5644531 C 1.1899152,8.7107021 0.99461295,9.894844 1.000113,11.060547 c 0.00556,1.168825 0.2178061,2.308301 0.5957031,3.373047 a 0.81823541,0.87803765 0 0 0 1.0566407,0.509765 l 3.8203124,-1.5625 a 0.81823541,0.87803765 0 0 0 0.4726563,-1.136718 c -0.142578,-0.39795 -0.21725,-0.819758 -0.21875,-1.246094 5.3e-4,-0.426634 0.074958,-0.849476 0.2167969,-1.248047 A 0.81823541,0.87803765 0 0 0 6.468863,8.6171875 L 2.6524568,7.0566406 A 0.81823541,0.87803765 0 0 0 2.3575349,7 Z M 19.642691,7 A 0.81823541,0.87803765 0 0 0 19.347769,7.056641 L 15.531363,8.6171875 A 0.81823541,0.87803765 0 0 0 15.056754,9.75 c 0.14184,0.398571 0.214313,0.821413 0.214843,1.248047 -0.0015,0.426336 -0.07422,0.848144 -0.216796,1.246094 a 0.81823541,0.87803765 0 0 0 0.472656,1.136718 l 3.820312,1.5625 a 0.81823541,0.87803765 0 0 0 1.056641,-0.509765 c 0.377897,-1.064746 0.590142,-2.204222 0.595703,-3.373047 0.0055,-1.165703 -0.189802,-2.3498449 -0.597656,-3.4960939 A 0.81823541,0.87803765 0 0 0 19.642691,7 Z m -7.052734,8 a 0.87803765,0.81823541 0 0 0 -0.345703,0.05469 c -0.39795,0.142578 -0.819758,0.217249 -1.246094,0.21875 -0.426634,-5.33e-4 -0.849476,-0.07496 -1.248047,-0.216799 A 0.87803765,0.81823541 0 0 0 8.6173005,15.53125 l -1.5605469,3.816406 a 0.87803765,0.81823541 0 0 0 0.5078125,1.054688 C 8.7108151,20.810198 9.894957,21.0055 11.06066,21 c 1.168825,-0.0056 2.308301,-0.217806 3.373047,-0.595703 a 0.87803765,0.81823541 0 0 0 0.509765,-1.056641 L 13.379019,15.527344 A 0.87803765,0.81823541 0 0 0 12.589957,15 Z"/>
</svg>
