<svg xmlns="http://www.w3.org/2000/svg" width="22" height="22" version="1">
 <path style="fill:#17191e" d="M 21,11 A 10,10 0 0 1 11,21 10,10 0 0 1 1,11 10,10 0 0 1 11,1 10,10 0 0 1 21,11 Z"/>
 <path style="opacity:0.2" d="M 10.711914,1.5107422 A 10,10 0 0 0 7.786133,2.0439453 5.5,5.5 0 0 0 5.5,6.5 5.5,5.5 0 0 0 5.894531,8.540039 5.5,5.5 0 0 0 1.1132813,12.929688 10,10 0 0 0 1.5029297,14.592774 4,4 0 0 1 1.5,14.5 a 4,4 0 0 1 4,-4 4,4 0 0 1 3.410156,1.915039 L 9.59375,12.020508 A 1.5,1.5 0 0 1 9.5,11.5 1.5,1.5 0 0 1 10.75,10.020508 V 9.487305 A 4,4 0 0 1 7,5.5 4,4 0 0 1 10.711914,1.5107422 Z m 0.691407,0.00977 A 4,4 0 0 1 15,5.5 4,4 0 0 1 11.25,9.491211 v 0.532227 A 1.5,1.5 0 0 1 12.5,11.5 1.5,1.5 0 0 1 12.43457,11.9375 l 0.702148,0.405274 A 4,4 0 0 1 16.5,10.5 a 4,4 0 0 1 4,4 4,4 0 0 1 -0.0059,0.118164 10,10 0 0 0 0.394531,-1.713867 A 5.5,5.5 0 0 0 16.104492,8.536133 5.5,5.5 0 0 0 16.5,6.5 5.5,5.5 0 0 0 14.201172,2.0361328 10,10 0 0 0 11.403321,1.5205077 Z M 12.208985,12.384766 A 1.5,1.5 0 0 1 11,13 1.5,1.5 0 0 1 9.84375,12.454102 L 9.142578,12.859375 A 4,4 0 0 1 9.5,14.5 4,4 0 0 1 5.5,18.5 4,4 0 0 1 3.2441406,17.803711 10,10 0 0 0 4.548828,19.139648 5.5,5.5 0 0 0 6.5,19.5 5.5,5.5 0 0 0 11.001953,17.154297 5.5,5.5 0 0 0 15.5,19.5 5.5,5.5 0 0 0 17.43457,19.140625 10,10 0 0 0 18.759765,17.795898 4,4 0 0 1 16.5,18.5 a 4,4 0 0 1 -4,-4 4,4 0 0 1 0.393555,-1.719726 z"/>
 <path style="opacity:0.1;fill:#8b9cbe" d="M 11,1 C 5.4605,1 1.001,5.46 1.001,11 c 0,0.08386 -0.002,0.166645 0,0.25 C 1.1331,5.827 5.5445,1.5 11,1.5 c 5.4555,0 9.867,4.3268 9.999,9.75 0.002,-0.08335 0,-0.16614 0,-0.25 C 20.999,5.46 16.5395,1 11,1 Z"/>
 <path style="opacity:0.2" d="M 20.9895,11.209 A 10,10 0 0 1 11,21 10,10 0 0 1 1.011,11.291 10,10 0 0 0 1,11.5 a 10,10 0 0 0 10,10 10,10 0 0 0 10,-10 10,10 0 0 0 -0.0105,-0.291 z"/>
 <path style="opacity:0.2" d="M 11,6.500172 A 5,5 0 0 0 8.1074219,7.4298595 C 8.2946526,7.7101261 8.5063658,7.9724413 8.765625,8.187672 9.425614,7.740934 10.203032,7.501533 11,7.500172 c 0.798633,3.875e-4 1.578866,0.2398315 2.240234,0.6875 0.258551,-0.2154115 0.469646,-0.4775334 0.65625,-0.7578125 A 5,5 0 0 0 11,6.500172 Z m -4.9785156,4.5625 A 5,5 0 0 0 6,11.500172 5,5 0 0 0 8.6757812,15.924 C 8.8141258,15.614836 8.9249531,15.291543 8.96875,14.941578 7.7501585,14.223252 7.0015795,12.914723 7,11.500172 7.00165,11.449992 7.00425,11.399857 7.00781,11.349781 6.6990256,11.20164 6.364613,11.116338 6.0214844,11.062672 Z m 9.9570316,0 c -0.34164,0.05384 -0.676382,0.139495 -0.984375,0.287109 0.0025,0.0501 0.0052,0.100235 0.0059,0.150391 -0.0018,1.41475 -0.749784,2.723324 -1.96875,3.441406 0.04379,0.349831 0.154415,0.673174 0.292969,0.982422 A 5,5 0 0 0 16,11.500172 a 5,5 0 0 0 -0.02148,-0.4375 z"/>
 <path style="fill:#ffd737" d="M 11,6 A 5,5 0 0 0 8.1074219,6.9296875 C 8.2946526,7.2099541 8.5063658,7.4722693 8.765625,7.6875 9.425614,7.240762 10.203032,7.001361 11,7 c 0.798633,3.875e-4 1.578866,0.2398315 2.240234,0.6875 0.258551,-0.2154115 0.469646,-0.4775334 0.65625,-0.7578125 A 5,5 0 0 0 11,6 Z M 6.0214844,10.5625 A 5,5 0 0 0 6,11 5,5 0 0 0 8.6757812,15.423828 C 8.8141258,15.114664 8.9249531,14.791371 8.96875,14.441406 7.7501585,13.72308 7.0015795,12.414551 7,11 7.00165,10.94983 7.00425,10.899685 7.00781,10.849609 6.6990256,10.701468 6.364613,10.616166 6.0214844,10.5625 Z m 9.9570316,0 c -0.34164,0.05384 -0.676382,0.139495 -0.984375,0.287109 0.0025,0.0501 0.0052,0.100235 0.0059,0.150391 -0.0018,1.41475 -0.749784,2.723324 -1.96875,3.441406 0.04379,0.349831 0.154415,0.673174 0.292969,0.982422 A 5,5 0 0 0 16,11 5,5 0 0 0 15.978516,10.5625 Z"/>
 <path style="fill:#ff950a" d="M 10.711914,1.0107422 A 10,10 0 0 0 7.786133,1.5439453 5.5,5.5 0 0 0 5.5,6 5.5,5.5 0 0 0 5.894531,8.040039 5.5,5.5 0 0 0 1.1132813,12.429688 10,10 0 0 0 1.5029297,14.092774 4,4 0 0 1 1.5,14 a 4,4 0 0 1 4,-4 4,4 0 0 1 3.410156,1.915039 L 9.59375,11.520508 A 1.5,1.5 0 0 1 9.5,11 1.5,1.5 0 0 1 10.75,9.520508 V 8.9873045 A 4,4 0 0 1 7,5 4,4 0 0 1 10.711914,1.0107422 Z m 0.691407,0.00977 A 4,4 0 0 1 15,5 4,4 0 0 1 11.25,8.991211 V 9.523438 A 1.5,1.5 0 0 1 12.5,11 1.5,1.5 0 0 1 12.43457,11.4375 l 0.702148,0.405274 A 4,4 0 0 1 16.5,10 a 4,4 0 0 1 4,4 4,4 0 0 1 -0.0059,0.118164 10,10 0 0 0 0.394531,-1.713867 A 5.5,5.5 0 0 0 16.104492,8.036133 5.5,5.5 0 0 0 16.5,6 5.5,5.5 0 0 0 14.201172,1.5361328 10,10 0 0 0 11.403321,1.0205077 Z M 12.208985,11.884766 A 1.5,1.5 0 0 1 11,12.5 1.5,1.5 0 0 1 9.84375,11.954102 L 9.142578,12.359375 A 4,4 0 0 1 9.5,14 4,4 0 0 1 5.5,18 4,4 0 0 1 3.2441406,17.303711 10,10 0 0 0 4.548828,18.639648 5.5,5.5 0 0 0 6.5,19 5.5,5.5 0 0 0 11.001953,16.654297 5.5,5.5 0 0 0 15.5,19 5.5,5.5 0 0 0 17.43457,18.640625 10,10 0 0 0 18.759765,17.295898 4,4 0 0 1 16.5,18 a 4,4 0 0 1 -4,-4 4,4 0 0 1 0.393555,-1.719726 z"/>
 <path style="opacity:0.2;fill:#8b9cbe" d="M 10.711914,1.0107422 A 10,10 0 0 0 7.786133,1.5439453 5.5,5.5 0 0 0 5.5,6 5.5,5.5 0 0 0 5.510742,6.203125 5.5,5.5 0 0 1 7.786133,2.0439453 10,10 0 0 1 8.5908205,1.8125 4,4 0 0 1 10.711914,1.0107422 Z m 0.691407,0.00977 A 4,4 0 0 1 13.407227,1.8125 10,10 0 0 1 14.201172,2.0361328 5.5,5.5 0 0 1 16.488281,6.274414 5.5,5.5 0 0 0 16.5,6 5.5,5.5 0 0 0 14.201172,1.5361328 10,10 0 0 0 11.403321,1.0205077 Z M 14.989258,5.211914 A 4,4 0 0 1 11.25,8.991211 v 0.5 A 4,4 0 0 0 15,5.5 4,4 0 0 0 14.989258,5.211914 Z M 7.0126955,5.243164 A 4,4 0 0 0 7,5.5 4,4 0 0 0 10.75,9.487305 V 8.9873045 A 4,4 0 0 1 7.0126955,5.243164 Z m 9.2558585,2.8164065 a 5.5,5.5 0 0 1 -0.164062,0.4765625 5.5,5.5 0 0 1 4.731445,4.163086 10,10 0 0 0 0.05273,-0.294922 5.5,5.5 0 0 0 -4.620118,-4.3447265 z M 5.732422,8.0664055 A 5.5,5.5 0 0 0 1.1132813,12.429687 10,10 0 0 0 1.1660156,12.699219 5.5,5.5 0 0 1 5.894531,8.5400385 5.5,5.5 0 0 1 5.732422,8.0664055 Z M 9.522461,11.250976 A 1.5,1.5 0 0 0 9.5,11.5 1.5,1.5 0 0 0 9.502,11.57324 L 9.5938,11.52051 A 1.5,1.5 0 0 1 9.52251,11.250979 Z m 2.954102,0 a 1.5,1.5 0 0 1 -0.04199,0.186524 l 0.06445,0.03711 a 1.5,1.5 0 0 0 -0.02246,-0.223633 z m -0.267578,0.633789 A 1.5,1.5 0 0 1 11,12.5 1.5,1.5 0 0 1 9.84375,11.954102 l -0.701172,0.405273 a 4,4 0 0 1 0.157227,0.40918 L 9.84375,12.454102 A 1.5,1.5 0 0 0 11,13 1.5,1.5 0 0 0 12.208985,12.384766 l 0.521484,0.301758 a 4,4 0 0 1 0.163085,-0.40625 z m -2.72168,2.371094 A 4,4 0 0 1 5.5,18 4,4 0 0 1 3.2441406,17.303711 10,10 0 0 0 4.131836,18.253906 4,4 0 0 0 5.5,18.5 a 4,4 0 0 0 4,-4 4,4 0 0 0 -0.0127,-0.24414 z m 3.023437,0.03809 A 4,4 0 0 0 12.5,14.5 a 4,4 0 0 0 4,4 4,4 0 0 0 1.345703,-0.241211 10,10 0 0 0 0.914062,-0.962891 A 4,4 0 0 1 16.5,18 4,4 0 0 1 12.510742,14.293946 Z"/>
 <path style="opacity:0.2;fill:#8b9cbe" d="M 11,6 A 5,5 0 0 0 8.1074219,6.9296875 c 0.078582,0.1176292 0.1649942,0.2287396 0.2539062,0.3378906 A 5,5 0 0 1 11,6.5 5,5 0 0 1 13.644531,7.2675781 c 0.0886,-0.1090829 0.17367,-0.2203083 0.251953,-0.3378906 A 5,5 0 0 0 11,6 Z M 6.0214844,10.5625 A 5,5 0 0 0 6,11 5,5 0 0 0 6.011719,11.246094 5,5 0 0 1 6.021489,11.0625 c 0.3431286,0.05367 0.6775437,0.138968 0.9863281,0.287109 C 7.0042525,11.399685 7.00165,11.44982 7,11.5 c 0.00154,1.375356 0.7137521,2.645138 1.8730469,3.375 0.040291,-0.141192 0.07693,-0.283588 0.095703,-0.433594 C 7.7501585,13.72308 7.0015795,12.414551 7,11 7.00165,10.94983 7.00425,10.899685 7.00781,10.849609 6.6990256,10.701468 6.364613,10.616166 6.0214844,10.5625 Z m 9.9570316,0 c -0.34164,0.05384 -0.676382,0.139495 -0.984375,0.287109 0.0025,0.0501 0.0052,0.100235 0.0059,0.150391 -0.0018,1.41475 -0.749784,2.723324 -1.96875,3.441406 0.01885,0.150592 0.05519,0.293783 0.0957,0.435547 C 14.286995,14.147389 14.99825,12.875839 15,11.5 c -7e-4,-0.05016 -0.0034,-0.100291 -0.0059,-0.150391 0.307993,-0.147614 0.642735,-0.233269 0.984375,-0.287109 a 5,5 0 0 1 0.0098,0.199219 A 5,5 0 0 0 16,11 5,5 0 0 0 15.978516,10.5625 Z"/>
</svg>
