<svg xmlns="http://www.w3.org/2000/svg" width="22" height="22" version="1">
 <path style="opacity:0.2" d="m 11,1.5 c -2.209139,0 -4,1.790861 -4,4 0.00264,1.821835 1.2360135,3.4117307 3,3.867188 V 10.5 H 7 v 2 h 3 v 4.516601 C 9.664289,17.528185 8.8920895,17.810227 8.4697265,17.754883 6.0096635,17.432469 4.012915,16.902715 2.8642578,15.83789 L 4.5498045,15.921875 3.1132812,14.583008 1.6757813,13.243164 C 1.1332858,14.470653 1.069166,15.690297 1,17.001953 l 0.890625,-0.87793 c 0.4283295,1.764152 6.2677805,2.875736 7.0927735,3.601563 L 11,21.5 13.015625,19.727539 c 0.82666,-0.727494 6.666227,-1.84258 7.08789,-3.608399 L 21,17.001953 c 0,-1.334989 -0.290785,-2.504632 -0.675781,-3.758789 l -1.436524,1.339844 -1.220703,1.339843 1.472656,-0.08496 C 17.993825,16.898715 16.0055,17.431552 13.554688,17.754883 13.12564,17.811489 12.338983,17.526595 12,17.011719 V 12.5 h 3 v -2 H 12 V 9.370117 C 13.765041,8.9143859 14.998694,7.3229258 15,5.5 14.997626,3.3919353 13.359609,1.6475364 11.25586,1.5126953 11.171812,1.5041611 11.086301,1.5 11,1.5 Z"/>
 <path style="fill:#455a64" d="M 11,1 C 8.790861,1 7,2.790861 7,5 7.00264,6.8218348 8.2360137,8.4117302 10,8.8671875 V 10 H 7 v 2 h 3 v 4.516601 C 9.664289,17.028185 8.8920895,17.310227 8.4697265,17.254883 6.0096635,16.932469 4.012915,16.402715 2.8642578,15.33789 L 4.5498045,15.421875 3.1132812,14.083008 1.6757813,12.743164 C 1.1332858,13.970653 1.069166,15.190297 1,16.501953 l 0.890625,-0.87793 c 0.4283295,1.764152 6.2677805,2.875736 7.0927735,3.601563 L 11,21 13.015625,19.227539 c 0.82666,-0.727494 6.666227,-1.84258 7.08789,-3.608399 L 21,16.501953 c 0,-1.334989 -0.290785,-2.504632 -0.675781,-3.758789 l -1.436524,1.339844 -1.220703,1.339843 1.472656,-0.08496 C 17.993825,16.398715 16.0055,16.931552 13.554688,17.254883 13.12564,17.311489 12.338983,17.026595 12,16.511719 V 12 h 3 V 10 H 12 V 8.870117 C 13.765041,8.4143859 14.998694,6.8229258 15,5 14.997626,2.8919353 13.359609,1.1475364 11.25586,1.0126953 11.171812,1.0041611 11.086301,1 11,1 Z"/>
 <path style="opacity:0.2" d="m 11,3.5 c 1.104982,0 2,0.8949775 2,1.9999995 0,1.105022 -0.895018,2 -2,2 -1.104982,0 -2,-0.894978 -2,-2 C 9,4.3949775 9.895018,3.5 11,3.5 Z"/>
 <path style="fill:#8b9cbe" d="m 11,3 c 1.104982,0 2,0.8949773 2,1.9999995 0,1.105022 -0.895018,2 -2,2 -1.104982,0 -2,-0.894978 -2,-2 C 9,3.8949773 9.895018,3 11,3 Z"/>
 <path style="opacity:0.1;fill:#8b9cbe" d="M 11,1 C 8.790861,1 7,2.790861 7,5 7.00176,5.069743 7.00534,5.1394286 7.01074,5.2089845 7.1632449,3.1183645 8.9038249,1.5000732 11,1.5 c 0.0863,0 0.171812,0.00416 0.25586,0.012695 2.00493,0.1307063 3.601788,1.7284012 3.731445,3.733399 C 14.994063,5.1642125 14.998297,5.0821422 15,5 14.997626,2.8919353 13.359609,1.1475364 11.25586,1.0126953 11.171812,1.0041611 11.086301,1 11,1 Z m -4,9 v 0.5 h 3 V 10 Z m 5,0 v 0.5 h 3 V 10 Z M 1.6757813,12.743164 C 1.1332858,13.970653 1.069166,15.190297 1,16.501953 l 0.032227,-0.03125 C 1.098561,15.35922 1.2077362,14.302198 1.6757817,13.243164 l 1.4375,1.339844 0.8701172,0.810546 0.5664061,0.02832 -1.4365233,-1.338867 z m 18.6484377,0 -1.436524,1.339844 -1.220703,1.339843 0.480469,-0.02735 0.740234,-0.812499 1.436524,-1.339844 c 0.334624,1.090068 0.596946,2.116727 0.660156,3.243163 L 21,16.501953 c 0,-1.334989 -0.290785,-2.504632 -0.675781,-3.758789 z M 2.8642578,15.83789 C 4.012915,16.902715 6.0096635,17.432469 8.4697265,17.754883 8.8920895,17.810227 9.664289,17.528185 10,17.016601 v -0.5 C 9.664289,17.028185 8.8920895,17.310227 8.4697265,17.254883 6.4688205,16.992645 4.783398,16.58791 3.602539,15.875 Z m 16.2753902,0 -0.75,0.04297 c -1.176389,0.706562 -2.849057,1.112028 -4.83496,1.374024 C 13.12564,17.311489 12.338983,17.026595 12,16.511719 v 0.5 c 0.338983,0.514875 1.12564,0.79977 1.554688,0.743164 2.450812,-0.323331 4.439137,-0.856168 5.58496,-1.916993 z"/>
</svg>
