<svg xmlns="http://www.w3.org/2000/svg" width="22" height="22" version="1">
 <path style="opacity:0.2" d="m 10.499695,0.5000189 c -0.550024,0 -1.100416,0.2050106 -1.5115731,0.6161574 L 0.6161482,9.4890829 c -0.82231375,0.8222931 -0.82114725,2.1984081 0.0012,3.0207021 l 8.3719737,8.372907 c 0.8223141,0.822294 2.1996551,0.82346 3.0219691,0.0012 l 8.371974,-8.372906 c 0.822313,-0.822294 0.822314,-2.199587 0,-3.0218811 L 12.011269,1.1161763 C 11.600113,0.7050295 11.04972,0.5000189 10.499695,0.5000189 Z"/>
 <path style="fill:#31afe1" d="m 10.499695,1.95e-5 c -0.550024,0 -1.100416,0.2050106 -1.5115731,0.6161574 L 0.6161482,8.9890838 c -0.82231375,0.8222931 -0.82114725,2.1984082 0.0012,3.0207022 l 8.3719737,8.372906 c 0.8223141,0.822294 2.1996551,0.823461 3.0219691,0.0012 l 8.371974,-8.372906 c 0.822313,-0.822294 0.822314,-2.1995871 0,-3.0218802 L 12.011269,0.6161769 C 11.600113,0.2050301 11.04972,1.95e-5 10.499695,1.95e-5 Z"/>
 <path style="opacity:0.2;fill:#8b9cbe" d="m 10.5,1.95e-5 c -0.550024,0 -1.100561,0.2050636 -1.5117176,0.6162104 L 0.6162201,8.9892693 C 0.1431471,9.4623299 -0.04812715,10.117349 0.0234472,10.746104 0.0769214,10.284226 0.2685988,9.8368809 0.6162201,9.4892689 L 8.9882824,1.1162295 C 9.399439,0.7050827 9.949976,0.5000191 10.5,0.5000191 c 0.550025,0 1.100561,0.2050636 1.511718,0.6162104 l 8.371085,8.3730394 c 0.3485,0.34849 0.540641,0.7973761 0.59375,1.2607411 0.07221,-0.629984 -0.119935,-1.2869381 -0.59375,-1.7607407 L 12.011718,0.6162299 C 11.600561,0.2050832 11.050025,1.95e-5 10.5,1.95e-5 Z"/>
 <path style="opacity:0.2" d="m 6,4.1032185 -2,2 0,9.7890625 1.3398438,1.339844 0.171875,0.169922 L 10.5,12.413765 15.490234,17.404 16.904297,15.989937 11.914062,10.999703 16.904297,6.0094685 15.490234,4.595406 6,14.085641 6,4.1032185 Z"/>
 <path style="fill:#8b9cbe" d="m 6,3.6035155 -2,2 0,9.7890625 1.3398438,1.339844 0.171875,0.169922 L 10.5,11.914062 15.490234,16.904297 16.904297,15.490234 11.914062,10.5 16.904297,5.5097655 15.490234,4.095703 6,13.585938 6,3.6035155 Z"/>
</svg>
