<svg xmlns="http://www.w3.org/2000/svg" width="22" height="22" version="1.1">
 <path style="opacity:0.2" d="M 2,5.5 20,4.5 21,17.5 3,20.5 Z"/>
 <path style="fill:#969696" d="M 2,5 20,4 21,17 3,20 Z"/>
 <path style="opacity:0.2" d="M 1,5.5 20,3.5 21,17.5 2,19.5 Z"/>
 <path style="fill:#a8a8a8" d="M 1,5 20,3 21,17 2,19 Z"/>
 <rect style="opacity:0.2" width="20" height="15" x="1" y="3.5" rx="1" ry="1"/>
 <rect style="fill:#9a62d9" width="20" height="15" x="1" y="3" rx="1" ry="1"/>
 <circle style="opacity:0.2" cx="17" cy="16.5" r="4"/>
 <circle style="fill:#8b9cbe" cx="17" cy="16" r="4"/>
 <circle style="opacity:0.2" cx="17" cy="16.5" r="3"/>
 <circle style="fill:#945e8d" cx="17" cy="16" r="3"/>
 <path style="opacity:0.2;fill:#8b9cbe" d="M 2,3 C 1.446,3 1,3.446 1,4 V 4.5 C 1,3.946 1.446,3.5 2,3.5 H 20 C 20.554,3.5 21,3.946 21,4.5 V 4 C 21,3.446 20.554,3 20,3 Z"/>
</svg>
