<svg xmlns="http://www.w3.org/2000/svg" width="22" height="22" version="1.1">
 <rect style="opacity:0.2" width="20" height="20" x="1" y="1.5" rx="1" ry="1"/>
 <rect style="fill:#2e92dd" width="20" height="20" x="1" y="1" rx="1" ry="1"/>
 <path style="opacity:0.2" d="M 4,4.5 V 8.003906 L 6.7871095,11.508789 8.345703,4.5 Z M 9.369141,4.5 8.5371095,8.213867 16.317383,4.5 Z M 18,4.8046875 11.704102,7.834961 18,10.898438 Z M 4,9.606446 V 14.5 h 3.908203 z m 10.561524,0.75 L 16.472656,18.5 H 18 V 12.048828 Z M 14.285156,13.59668 10.448242,18.5 h 4.97168 z M 4,15.5 v 3 h 5.155274 l 2.360351,-3 z"/>
 <path style="opacity:0.2;fill:#8b9cbe" d="M 2,1 C 1.446,1 1,1.446 1,2 v 0.5 c 0,-0.554 0.446,-1 1,-1 h 18 c 0.554,0 1,0.446 1,1 V 2 C 21,1.446 20.554,1 20,1 Z"/>
 <path style="fill:#8b9cbe" d="M 4 4 L 4 7.5039062 L 6.7871094 11.007812 L 8.3457031 4 L 4 4 z M 9.3691406 4 L 8.5371094 7.7128906 L 16.318359 4 L 9.3691406 4 z M 18 4.3046875 L 11.705078 7.3359375 L 18 10.398438 L 18 4.3046875 z M 4 9.1074219 L 4 14 L 7.9082031 14 L 4 9.1074219 z M 14.5625 9.8574219 L 16.472656 18 L 18 18 L 18 11.548828 L 14.5625 9.8574219 z M 14.285156 13.097656 L 10.447266 18 L 15.419922 18 L 14.285156 13.097656 z M 4 15 L 4 18 L 9.15625 18 L 11.515625 15 L 4 15 z"/>
</svg>
