<svg xmlns="http://www.w3.org/2000/svg" width="22" height="22" version="1">
 <path style="fill:#1891d1" d="m 10.999841,1.0002951 c -0.240996,0 -0.478492,0.01175 -0.714988,0.0283 -0.0295,0.0022 -0.059,0.0044 -0.0885,0.00685 -3.5724393,0.2818952 -6.597888,2.4266088 -8.125862,5.4669072 -5.5e-4,5e-4 -8.5e-4,0.0015 -0.00115,0.002 C 1.970444,6.7008483 1.8692454,6.896845 1.7831969,7.1008415 1.3150548,8.1578236 1.0608591,9.279805 1.0146599,10.454285 c -0.00205,0.038 -0.0023,0.0765 -0.0039,0.114498 -0.0031,0.111998 -0.00955,0.223496 -0.0088,0.336994 -3e-4,0.0315 -0.00195,0.0625 -0.00195,0.0945 0,1.162981 0.2066464,2.272962 0.5683403,3.309444 0.1455975,0.464492 0.3132947,0.933984 0.5156412,1.409476 0.5039915,1.18398 0.5665904,1.506975 0.4872918,2.495958 -0.055249,0.688988 -0.2420459,1.392476 -0.475592,1.788969 -0.2116964,0.358994 -0.3847434,0.729988 -0.3847434,0.823986 0,0.291995 1.6885713,0.189997 3.180496,-0.192496 1.7479703,-0.447493 1.9009677,-0.446493 3.3339434,0.003 0.6554888,0.205996 1.4039764,0.316994 2.2479628,0.347994 0.0355,0.0015 0.071,0.0015 0.106498,0.003 0.115498,0.003 0.226496,0.0105 0.345994,0.0105 0.0095,0 0.0185,-9.99e-4 0.028,-9.99e-4 0.0155,0 0.0305,9.99e-4 0.046,9.99e-4 0.278995,0 0.55499,-0.014 0.827986,-0.036 2.472458,-0.175997 4.457924,-1.090981 6.244894,-2.874951 1.472475,-1.469975 2.384959,-3.284944 2.745453,-5.183412 0.033,-0.173997 0.0605,-0.348994 0.085,-0.525491 0.0145,-0.108498 0.03,-0.216496 0.041,-0.325495 0.024,-0.232996 0.0385,-0.469992 0.0465,-0.707988 0.002,-0.06 0.0045,-0.119498 0.005,-0.179497 0.001,-0.056 0.004,-0.110998 0.004,-0.166997 0,-5.4474072 -4.313427,-9.8473325 -9.724335,-9.99283 -0.042,-0.0014 -0.084,-0.00245 -0.125998,-0.0031 -0.05,-7e-4 -0.0995,-0.0039 -0.149497,-0.0039 z"/>
 <path style="opacity:0.2" d="m 1.00781,11.178622 c -0.00279,0.07533 -0.00637,0.150473 -0.00586,0.226556 -3e-4,0.032 -0.00195,0.063 -0.00195,0.095 0,1.16273 0.2066614,2.273161 0.5683403,3.309494 0.1455625,0.464597 0.3132647,0.933784 0.5155912,1.409176 0.3256695,0.765087 0.4660221,1.17183 0.5038915,1.629872 0.028,-0.710989 -0.071848,-1.114982 -0.5038408,-2.129465 C 1.8816357,15.243763 1.7139385,14.774271 1.568341,14.309779 1.2253968,13.327296 1.0280002,12.276314 1.0078005,11.178832 Z m 19.986161,0.07324 c -9.5e-4,0.03156 -0.002,0.06311 -0.003,0.09472 -0.0081,0.237926 -0.02263,0.474662 -0.04687,0.707988 -0.01103,0.108799 -0.02639,0.216742 -0.04101,0.32519 -0.02419,0.176662 -0.05174,0.351839 -0.08496,0.525391 -0.360579,1.898868 -1.272678,3.713537 -2.745053,5.183412 -1.78717,1.78417 -3.772836,2.699154 -6.244894,2.874951 -0.273496,0.0225 -0.549491,0.0365 -0.828486,0.0365 -0.01541,0 -0.0305,-8.99e-4 -0.0459,-9.99e-4 -0.0097,5e-5 -0.01862,9.99e-4 -0.02832,9.99e-4 -0.119343,0 -0.230166,-0.0076 -0.345699,-0.01074 -0.03541,-0.0015 -0.07113,-0.0012 -0.106443,-0.003 -0.8441864,-0.03059 -1.5923737,-0.141908 -2.2480125,-0.347649 -1.4332757,-0.449773 -1.5860231,-0.450443 -3.3339434,-0.0029 -1.236779,0.316649 -2.594106,0.436602 -3.0272986,0.303705 -0.088689,0.181926 -0.1533174,0.334474 -0.1533174,0.388663 0,0.291775 1.6885713,0.189627 3.180596,-0.192382 1.7479203,-0.447512 1.9006677,-0.446822 3.3339434,0.0029 0.6556388,0.205742 1.4038261,0.317055 2.2480125,0.347649 0.03531,0.0018 0.07103,0.0015 0.106443,0.003 0.115528,0.0031 0.226356,0.01074 0.345699,0.01074 0.0097,0 0.01863,-9.5e-4 0.02832,-0.001 0.01539,6.9e-5 0.03049,0.001 0.0459,0.001 0.279235,0 0.55479,-0.01391 0.828086,-0.03613 2.472208,-0.175812 4.457874,-1.090782 6.244894,-2.874952 1.472425,-1.469975 2.384509,-3.284594 2.745053,-5.183412 0.03322,-0.173542 0.06077,-0.348719 0.08496,-0.525391 0.01462,-0.108448 0.02998,-0.216391 0.04101,-0.325189 0.02424,-0.233331 0.03882,-0.470072 0.04687,-0.707988 0.0018,-0.05996 0.0042,-0.119703 0.0049,-0.179687 0.0016,-0.0565 0.0046,-0.1115 0.0046,-0.167499 0,-0.08315 -0.0038,-0.165392 -0.0059,-0.248041 z"/>
 <path style="opacity:0.2;fill:#8b9cbe" d="m 10.999841,1.0002951 c -0.240996,0 -0.478492,0.01175 -0.714988,0.0283 -0.0295,0.0022 -0.059,0.0044 -0.0885,0.00685 -3.5724393,0.2818952 -6.597888,2.4266088 -8.125862,5.4669072 -5.5e-4,5e-4 -8.5e-4,0.0015 -0.00115,0.002 C 1.970444,6.7008483 1.8692454,6.896845 1.7831969,7.1008415 1.3150548,8.1578236 1.0608591,9.279805 1.0146599,10.454285 c -0.00205,0.038 -0.0023,0.0765 -0.0039,0.114498 -0.0031,0.111998 -0.00955,0.223496 -0.0088,0.336994 -3e-4,0.0315 -0.00195,0.0625 -0.00195,0.0945 0,0.06 0.0067,0.118998 0.0078,0.178497 0.00135,-0.0365 0.00195,-0.0735 0.00295,-0.109998 0.0016,-0.038 0.00185,-0.0765 0.0039,-0.114498 0.046199,-1.17448 0.3003949,-2.2964609 0.768537,-3.353443 0.086048,-0.2039965 0.1872468,-0.3999932 0.2861451,-0.5964899 3e-4,-5e-4 6e-4,-0.0015 9.5e-4,-0.002 1.528424,-3.0401484 4.5536227,-5.184912 8.125862,-5.4669072 0.0295,-0.0023 0.059,-0.0045 0.0885,-0.0067 0.236496,-0.01655 0.473992,-0.028299 0.714988,-0.028299 0.05,0 0.0995,0.0032 0.149497,0.0039 0.042,6.5e-4 0.084,0.0017 0.125998,0.00295 5.32841,0.1432475 9.589337,4.413075 9.718335,9.7448341 10e-4,-0.0285 0.002,-0.0565 0.002,-0.085 0.001,-0.056 0.004,-0.110998 0.004,-0.166997 0,-5.4474068 -4.313427,-9.8473321 -9.724335,-9.9928296 -0.042,-0.0014 -0.084,-0.00245 -0.125998,-0.0031 -0.05,-7e-4 -0.0995,-0.0039 -0.149497,-0.0039 z M 2.5879832,17.848509 c -0.00465,0.118498 -0.0053,0.224996 -0.0166,0.366494 -0.055249,0.688988 -0.2420459,1.392476 -0.475592,1.788969 -0.2116964,0.358994 -0.3847434,0.729988 -0.3847434,0.823986 0,0.05 0.063899,0.084 0.1532974,0.111499 0.065749,-0.134998 0.1412976,-0.282496 0.231446,-0.435493 0.2335461,-0.396493 0.4203429,-1.099981 0.475592,-1.78897 0.028049,-0.349994 0.037349,-0.615489 0.0166,-0.866485 z"/>
 <path style="opacity:0.2;fill-rule:evenodd" d="m 7.0000006,13.000062 v 3.49994 h 1 v -3.49994 z"/>
 <path style="fill:#b2bfd9;fill-rule:evenodd" d="m 7.0000006,12.50007 v 3.499941 h 1 V 12.50007 Z"/>
 <path style="opacity:0.2;fill-rule:evenodd" d="m 14.500001,9.500121 v 2.999949 h 1.499975 V 9.500121 Z"/>
 <path style="fill:#b2bfd9;fill-rule:evenodd" d="m 14.500001,9.00013 v 2.999949 h 1.499975 V 9.00013 Z"/>
 <path style="opacity:0.2;fill-rule:evenodd" d="M 14.458105,6.5003637 A 0.52635946,0.45004316 0 0 0 14.3255,6.5188237 L 5.3782837,8.768812 a 0.52635946,0.45004316 0 0 0 -0.3782831,0.43154 v 3.599986 a 0.52635946,0.45004316 0 0 0 0.3782831,0.431541 L 14.3255,15.48187 a 0.52635946,0.45004316 0 0 0 0.674331,-0.431541 V 9.264512 6.9503616 A 0.52635946,0.45004316 0 0 0 14.458105,6.5003637 Z"/>
 <path style="fill:#8b9cbe;fill-rule:evenodd" d="M 14.458105,6.0001807 A 0.52635946,0.45004316 0 0 0 14.3255,6.0186407 L 5.3782837,8.2686287 A 0.52635946,0.45004316 0 0 0 5.0000006,8.700169 v 3.599986 a 0.52635946,0.45004316 0 0 0 0.3782831,0.431541 L 14.3255,14.981687 a 0.52635946,0.45004316 0 0 0 0.674331,-0.431541 V 8.764329 6.4501786 A 0.52635946,0.45004316 0 0 0 14.458105,6.0001807 Z"/>
</svg>
