<svg xmlns="http://www.w3.org/2000/svg" width="22" height="22" version="1">
 <path style="opacity:0.2" d="M 11,1.5 A 9,2.5 0 0 0 2,4 v 12 a 9,2.5 0 0 0 9,2.5 9,2.5 0 0 0 9,-2.5 V 4 A 9,2.5 0 0 0 11,1.5 Z"/>
 <rect style="fill:#6666b2" width="12" height="18" x="-15.5" y="-20" transform="matrix(0,-1,-1,0,0,0)"/>
 <path style="opacity:0.1" d="M 2.625,9.5 C 1.5,9.5 0,8.5 0,8 0,7.723 0.16725,7.5 0.375,7.5 h 2.25 C 2.83275,7.5 3,7.723 3,8 V 9 C 3,9.277 2.83275,9.5 2.625,9.5 Z"/>
 <ellipse style="fill:#6666b2" cx="11" cy="15.5" rx="9" ry="2.5"/>
 <ellipse id="ellipse834" style="fill:#6666b2" cx="11" cy="3.5" rx="9" ry="2.5"/>
 <ellipse id="ellipse850" style="opacity:0.2" cx="11" cy="5.5" rx="7.5" ry="2"/>
 <ellipse id="ellipse836" style="fill:#ffae2b" cx="11" cy="5" rx="7.5" ry="2"/>
 <path style="fill:#17191e" d="M 2.625,9 C 1.5,9 0,8 0,7.5 0,7.223 0.16725,7 0.375,7 h 2.25 C 2.83275,7 3,7.223 3,7.5 v 1 C 3,8.777 2.83275,9 2.625,9 Z"/>
 <path style="opacity:0.1" d="M 19.375,9.5 C 20.5,9.5 22,8.5 22,8 22,7.723 21.83275,7.5 21.625,7.5 h -2.25 C 19.16725,7.5 19,7.723 19,8 v 1 c 0,0.277 0.16725,0.5 0.375,0.5 z"/>
 <path style="fill:#17191e" d="M 19.375,9 C 20.5,9 22,8 22,7.5 22,7.223 21.83275,7 21.625,7 h -2.25 C 19.16725,7 19,7.223 19,7.5 v 1 C 19,8.777 19.16725,9 19.375,9 Z"/>
 <rect style="opacity:0.2" width="9" height="9" x="13" y="12.5" rx=".818" ry=".818"/>
 <rect style="fill:#f34235" width="9" height="9" x="13" y="12" rx=".818" ry=".818"/>
 <rect style="fill:#8b9cbe" width="5" height="1" x="15" y="14"/>
 <rect style="fill:#8b9cbe" width="5" height="1" x="15" y="16"/>
 <rect style="fill:#8b9cbe" width="5" height="1" x="15" y="18"/>
 <path style="opacity:0.1;fill:#8b9cbe" d="M 11,1 A 9,2.5 0 0 0 2,3.5 V 4 A 9,2.5 0 0 1 11,1.5 9,2.5 0 0 1 20,4 V 3.5 A 9,2.5 0 0 0 11,1 Z"/>
 <path id="ellipse852" style="opacity:0.2;fill:#8b9cbe" d="M 11,3 A 7.5,2 0 0 0 3.5,5 7.5,2 0 0 0 3.5683594,5.2480469 7.5,2 0 0 1 11,3.5 7.5,2 0 0 1 18.431641,5.2519531 7.5,2 0 0 0 18.5,5 7.5,2 0 0 0 11,3 Z"/>
</svg>
