<svg xmlns="http://www.w3.org/2000/svg" width="22" height="22" version="1.1">
 <path style="opacity:0.2" d="m 8.0105763,1.4999 a 0.99655166,1.0001 0 1 0 0,2 h 5.9787127 a 0.99655166,1.0001 0 1 0 0,-2 z"/>
 <rect style="opacity:0.2" width="3.376" height="4.822" x="15.28" y="-9.48" rx=".964" ry=".964" transform="rotate(45)"/>
 <path style="opacity:0.2" d="m 10.999933,21.5 c 4.970137,0 8.999931,-4.029794 8.999931,-8.999932 0,-4.9701392 -4.029793,-8.999933 -8.999931,-8.999933 C 6.0297938,3.500135 2,7.5299288 2,12.500068 2,17.470206 6.0297938,21.5 10.999933,21.5 Z m 0,0"/>
 <rect style="fill:#434449" width="3.376" height="4.822" x="14.93" y="-9.84" rx=".964" ry=".964" transform="rotate(45)"/>
 <path style="opacity:0.1;fill:#8b9cbe" d="m 17.511602,4.0001312 c -0.246554,0 -0.49369,0.094279 -0.682612,0.2832009 L 14.783108,6.3292153 C 14.529436,6.5828874 14.450075,6.9398597 14.537016,7.2618258 14.579501,7.10389 14.658699,6.9536211 14.783108,6.8292115 L 16.82899,4.7833284 c 0.377844,-0.3778447 0.986403,-0.3778447 1.364248,0 l 1.023429,1.0234298 c 0.124173,0.1241726 0.203534,0.2740349 0.246092,0.4316373 0.08654,-0.3217316 0.0073,-0.678198 -0.246092,-0.9316335 L 18.193238,4.2833321 C 18.004315,4.09441 17.758156,4.0001312 17.511602,4.0001312 Z"/>
 <path style="fill:#66686e" d="m 10.999933,21.000004 c 4.970137,0 8.999931,-4.029794 8.999931,-8.999933 0,-4.9701385 -4.029793,-8.9999323 -8.999931,-8.9999323 C 6.0297938,3.0001387 2,7.0299325 2,12.000071 c 0,4.970139 4.0297938,8.999933 8.999933,8.999933 z m 0,0"/>
 <path style="opacity:0.2" d="m 10.999109,19.5 c 3.865536,0 7.000823,-3.13364 7.000823,-6.999175 0,-3.8655365 -3.135287,-7.0008247 -7.000823,-7.0008247 -3.8655369,0 -6.9991765,3.1352882 -6.9991765,7.0008247 0,3.865535 3.1336396,6.999175 6.9991765,6.999175 z m 0,0"/>
 <path style="fill:#eef8ff" d="m 10.999109,19 c 3.865536,0 7.000823,-3.13364 7.000823,-6.999175 0,-3.8655365 -3.135287,-7.0008247 -7.000823,-7.0008247 -3.8655369,0 -6.9991765,3.1352882 -6.9991765,7.0008247 C 3.9999325,15.86636 7.1335721,19 10.999109,19 Z m 0,0"/>
 <path style="fill:#5ddf49;fill-opacity:0.95294118" d="M 10.999933,5.0000003 V 12 h 6.999999 C 17.999434,8.1351938 14.864739,5.0004982 10.999933,5.0000003 Z"/>
 <rect style="opacity:0.1" width="7" height="1" x="11" y="11.5"/>
 <rect style="fill:#17191e" width="7" height="1" x="11" y="11"/>
 <path style="opacity:0.1" d="m 10.999933,13 c 0.551996,0 0.999992,-0.445996 0.999992,-0.997993 0,-0.551996 -0.447996,-0.999992 -0.999992,-0.999992 -0.551997,0 -0.9999935,0.447996 -0.9999935,0.999992 C 9.9999395,12.554004 10.447936,13 10.999933,13 Z m 0,0"/>
 <path style="fill:#66686e" d="m 10.999933,12.5 c 0.551996,0 0.999992,-0.445996 0.999992,-0.997993 0,-0.551996 -0.447996,-0.999992 -0.999992,-0.999992 -0.551997,0 -0.9999935,0.447996 -0.9999935,0.999992 0,0.551997 0.4479965,0.997993 0.9999935,0.997993 z m 0,0"/>
 <path style="fill:#999ca1" d="m 10.999933,12.000004 c 0.275997,0 0.499995,-0.223999 0.499995,-0.499997 0,-0.275998 -0.223998,-0.499996 -0.499995,-0.499996 -0.275997,0 -0.499996,0.223998 -0.499996,0.499996 0,0.275998 0.223999,0.499997 0.499996,0.499997 z m 0,0"/>
 <path style="fill:#434449" d="m 8.0105763,1 a 0.99655166,1.0001 0 1 0 0,2 h 5.9787127 a 0.99655166,1.0001 0 1 0 0,-2 z"/>
 <path style="opacity:0.1;fill:#8b9cbe" d="M 10.999933,3.0001387 C 6.0297938,3.0001387 2,7.0299325 2,12.000071 c 0,0.08442 0.010385,0.166139 0.012695,0.249998 0.133691,-4.8534437 4.1015166,-8.749934 8.987238,-8.749934 4.885719,0 8.853546,3.8964903 8.987236,8.749934 0.0023,-0.08386 0.0127,-0.16558 0.0127,-0.249998 0,-4.9701385 -4.029793,-8.9999323 -8.999931,-8.9999323 z"/>
 <path style="opacity:0.1;fill:#8b9cbe" d="M 8.0096981,1 A 0.99655166,1.0001 0 0 0 7.0331356,2.25 0.99655166,1.0001 0 0 1 8.0096981,1.5 H 13.990166 A 0.99655166,1.0001 0 0 1 14.96673,2.25 0.99655166,1.0001 0 0 0 13.990166,1 Z"/>
 <path style="opacity:0.2;fill:#8b9cbe" d="m 10.999933,5 c -3.8655369,0 -7.0000005,3.1344635 -7.0000005,7 0,0.08427 0.010718,0.166446 0.013672,0.25 C 4.1464959,8.5013225 7.2189008,5.5 10.999933,5.5 c 3.781031,0 6.853367,3.0013225 6.986327,6.75 0.003,-0.08355 0.01367,-0.165725 0.01367,-0.25 0,-3.8655365 -3.134463,-7 -6.999999,-7 z"/>
</svg>
