<svg xmlns="http://www.w3.org/2000/svg" width="22" height="22" version="1">
 <rect style="opacity:0.2" width="21" height="18" x="1" y="2.5" rx=".955" ry=".947"/>
 <rect style="fill:#4f4f4f" width="20.5" height="17.571" x="1.25" y="2.21" rx=".932" ry=".925"/>
 <path style="fill:#e53626" d="M 1.9545455,2 C 1.732842,2 1.5317623,2.076751 1.3700728,2.2016859 L 1.2032138,2.3672903 C 1.0773325,2.5277641 1,2.7273319 1,2.9473684 V 10.118319 L 9.180753,2 Z"/>
 <path style="fill:#ffae1a" d="M 9.180753,2 1,10.118319 V 17.66766 L 16.787287,2 Z"/>
 <path style="fill:#2dac43" d="M 16.787287,2 1,17.66766 v 1.384971 C 1,19.577473 1.4257273,20 1.9545455,20 h 4.30198 L 22,4.3758225 V 2.9473684 C 22,2.4225263 21.574272,2 21.045455,2 Z"/>
 <path style="fill:#2f66dd" d="M 22,4.3758225 6.2565255,20 H 13.86306 L 22,11.925164 Z"/>
 <path style="fill:#82248f" d="M 22,11.925164 13.86306,20 h 7.182394 C 21.574272,20 22,19.577473 22,19.052631 Z"/>
 <path style="opacity:0.1" d="M 8.676758,2.5 1,10.118164 v 0.5 L 9.180664,2.5 Z m 7.606445,0 L 1,17.667969 v 0.5 L 16.787109,2.5 Z M 22,4.3759765 6.256836,20 H 6.760742 L 22,4.8759765 Z M 22,11.924805 13.863281,20 h 0.503907 L 22,12.424805 Z"/>
 <path style="opacity:0.2;fill:#8b9cbe" d="M 1.9541015,2 C 1.4252834,2 1,2.4224236 1,2.9472656 v 0.5 C 1,2.9224236 1.4252834,2.5 1.9541015,2.5 H 21.045898 C 21.574716,2.5 22,2.9224236 22,3.4472656 v -0.5 C 22,2.4224236 21.574716,2 21.045898,2 Z"/>
 <path style="opacity:0.2" d="m 5.6153193,7.5 9.7e-5,0.973351 0.804965,0.063143 0.1444,0.1894085 -1.435543,6.5532515 -0.220851,0.197352 -0.908387,0.06354 v 0.959898 l 3.999938,5.6e-5 1.24e-4,-0.959848 -0.908196,-0.05537 -0.152897,-0.205218 0.586117,-2.775611 h 0.900365 l 1.2911257,2.525564 c 0.5277,1.007123 0.897888,1.43889 2.038622,1.452249 0.327999,0.0039 0.459949,0.02629 1.344811,0 3.051955,-2.367516 4.609783,-4.371769 4.855914,-5.187674 0.149068,-0.494166 -0.0876,-0.797243 -0.594732,-0.797243 -0.247381,0 -0.530596,0.0968 -0.849264,0.29217 l -0.229342,1.896436 c -0.624618,0.75847 -1.457297,1.584681 -2.471815,2.446615 l 0.886364,-3.459613 c 0.139252,-0.666613 -0.138566,-1.022284 -0.604089,-1.160218 l -1.757271,0.426268 -0.110288,0.362985 0.959703,0.142154 c 0.06672,0.229817 -0.222526,0.929496 -0.368228,1.699573 l -0.467182,2.39133 c -0.0074,0.0246 -0.01201,0.05158 -0.01702,0.07892 -0.302929,-0.151233 -0.493889,-0.42053 -0.713518,-0.828663 l -1.826251,-3.393751 3.338202,-2.7912795 0.868877,-0.102593 -1.4e-4,-0.997066 -3.000005,2.75e-5 1.5e-4,0.9971155 0.585147,0.06306 0.08495,0.2131065 -3.5222317,2.725664 H 7.7232253 L 8.3744263,8.726097 8.5612993,8.5366895 9.384631,8.4735705 9.384545,7.500119 Z"/>
 <path style="fill:#8b9cbe" d="m 5.6153193,7 9.7e-5,0.973351 0.804965,0.063143 0.1444,0.1894085 -1.435543,6.5532515 -0.220851,0.197352 -0.908387,0.06354 v 0.959898 L 7.9999383,16 l 1.24e-4,-0.959848 -0.908196,-0.05537 -0.152897,-0.205218 0.586117,-2.775611 h 0.900365 l 1.2911257,2.525564 c 0.5277,1.007123 0.897888,1.43889 2.038622,1.452249 0.327999,0.0039 0.459949,0.02629 1.344811,0 3.051955,-2.367516 4.609783,-4.371769 4.855914,-5.187674 0.149068,-0.494166 -0.0876,-0.797243 -0.594732,-0.797243 -0.247381,0 -0.530596,0.0968 -0.849264,0.29217 l -0.229342,1.896436 c -0.624618,0.75847 -1.457297,1.584681 -2.471815,2.446615 l 0.886364,-3.459613 c 0.139252,-0.666613 -0.138566,-1.022284 -0.604089,-1.160218 l -1.757271,0.426268 -0.110288,0.362985 0.959703,0.142154 c 0.06672,0.229817 -0.222526,0.929496 -0.368228,1.699573 l -0.467182,2.39133 c -0.0074,0.0246 -0.01201,0.05158 -0.01702,0.07892 -0.302929,-0.151233 -0.493889,-0.42053 -0.713518,-0.828663 l -1.826251,-3.393751 3.338202,-2.7912795 0.868877,-0.102593 -1.4e-4,-0.997066 -3.000005,2.75e-5 1.5e-4,0.9971155 0.585147,0.06306 0.08495,0.2131065 -3.5222317,2.725664 H 7.7232253 L 8.3744263,8.226097 8.5612993,8.0366895 9.384631,7.9735705 9.384545,7.000119 Z"/>
</svg>
