<svg width="22" height="22" version="1.1" xmlns="http://www.w3.org/2000/svg">
 <path d="m9.5 1.5c-0.83096 0-1.5 0.669-1.5 1.5v12.5c0 0.5-2 3-2 3.5 0 2.5 2.5 2.5 2.5 2.5l-0.5-2.5 2.328125-0.517578 0.671875 2.017578s1.189462-0.806912 1.083984-2.408203l0.416016-0.091797s-1.5-2.5-1.5-3v-5.5l1.5 1s2.5 1.585786 2.5 3c0 2.5-2.5 3-2.5 3s3.5 0 3.5-3c0-0.754099 0.02565-1.426757-0.341797-2.140625 0.194944-0.377158 0.341797-0.941364 0.341797-1.859375 0-1.5 0.110192-2.6763315-3-4.5-1.524897-0.894127-2-2-2-2 0-0.831-0.669041-1.5-1.5-1.5zm1.5 4 1.5 1s2.5 1.5857865 2.5 3c0 0.380281-0.01359 0.685595-0.0332 0.958984-0.442185-0.44809-1.054383-0.923986-1.9668-1.458984-1.524897-0.894127-2-2-2-2z" style="opacity:.2"/>
 <path d="m12.499685 16s2.499879-0.5 2.499879-3c0-1.414214-2.499879-3-2.499879-3l-1.499927-1-0.999951-1 0.999951-1.5s0.475006 1.105873 1.999903 2c3.110192 1.823669 2.999854 3 2.999854 4.5 0 3-3.49983 3-3.49983 3z" style="fill:#4f4f4f"/>
 <path d="m10 17 1 3s1.499975-1 1-3h-2z" style="fill:#b2bfs9"/>
 <path d="m14.499589 11.5s0.499975 0 0.499975-2.5c0-1.4142135-2.499879-3-2.499879-3l-1.499927-1-0.999951-1 0.999951-1.5s0.475006 1.105873 1.999903 2c3.110192 1.8236685 2.999854 3 2.999854 4.5 0 3-1.499926 2.5-1.499926 2.5z" style="fill:#4f4f4f"/>
 <path d="M 11,2.5 10,4 10.199219,4.1992188 11,3 c 0,0 0.475103,1.105873 2,2 2.899298,1.7000101 2.991843,2.8454986 2.992188,4.207031 C 15.994145,9.135774 16,9.076014 16,9 16,7.5 16.110192,6.3236685 13,4.5 11.475103,3.605873 11,2.5 11,2.5 Z m 0,4 L 10,8 10.199219,8.1992188 11,7 c 0,0 0.475103,1.105873 2,2 0.912417,0.534998 1.524612,1.010894 1.966797,1.458984 C 14.986407,10.185595 15,9.880281 15,9.5 15,9.45804 14.9906,9.41526 14.98633,9.373047 14.98053,9.57373 14.97883,9.791952 14.9668,9.958984 14.524615,9.510894 13.912417,9.034998 13,8.5 11.475103,7.605873 11,6.5 11,6.5 Z m 4.759766,4.617188 c -0.03273,0.08573 -0.06473,0.17093 -0.101563,0.242187 0.307633,0.597663 0.32778,1.175242 0.330078,1.787109 C 15.990356,13.096173 16,13.052106 16,13 16,12.3377 16.0039,11.736938 15.759766,11.117188 Z M 14.980469,13.3125 C 14.779973,15.537848 12.5,16 12.5,16 c 0,0 0.735298,-0.0143 1.529297,-0.300781 C 14.546833,15.243973 15,14.559645 15,13.5 15,13.43805 14.98964,13.374959 14.98047,13.3125 Z" style="fill:#8b9cbe;opacity:.1"/>
 <path d="m10 17 0.482422 1.449219 1.58789-0.353516c0.03068-0.279687 0.02089-0.588032-0.04687-0.929687-0.04122-0.07189-0.05086-0.08667-0.0957-0.166016z" style="opacity:.2"/>
 <path d="m9.499831 1c-0.83096 0-1.499928 0.669-1.499928 1.5v12.5c0 0.5-1.999903 3-1.999903 3.5 0 2.5 2.499879 2.5 2.499879 2.5l-0.499976-2.5 4.499782-1s-1.499927-2.5-1.499927-3v-12c0-0.831-0.668968-1.5-1.499927-1.5z" style="fill:#b2bfd9"/>
 <path d="M 9.5,1 C 8.66904,1 8,1.669 8,2.5 V 3 C 8,2.169 8.66904,1.5 9.5,1.5 10.330959,1.5 11,2.169 11,3 V 2.5 C 11,1.669 10.330959,1 9.5,1 Z M 11,14.5 V 15 c 0,0.415505 0.896008,1.96127 1.246094,2.556641 L 12.5,17.5 c 0,0 -1.5,-2.5 -1.5,-3 z M 8,15 c 0,0.5 -2,3 -2,3.5 0,0.148598 0.00878,0.286511 0.025391,0.417969 C 6.1641703,18.297907 8,15.981276 8,15.5 Z M 8.0957031,18.978516 8,19 8.3984375,20.990234 C 8.4181739,20.99092 8.5,21 8.5,21 Z" style="fill:#8b9cbe;opacity:.2"/>
</svg>
