<svg xmlns="http://www.w3.org/2000/svg" width="22" height="22" version="1">
 <rect fill="#c2352a" width="20" height="19.998" x="-21" y="-21" rx="10" ry="9.999" transform="matrix(0,-1,-1,0,0,0)"/>
 <path fill="#fff" opacity=".2" d="m11 1c-5.5395 0-9.999 4.46-9.999 10 0 0.08386-0.002 0.16664 0 0.25 0.1321-5.423 4.5435-9.75 9.999-9.75s9.867 4.3268 9.999 9.75c0.002-0.08335 0-0.16614 0-0.25 0-5.54-4.459-10-9.999-10z"/>
 <path opacity=".2" d="m1.0058 11.25c-0.002 0.084-0.0058 0.166-0.0058 0.25 0 5.54 4.46 10 10 10s10-4.46 10-10c0-0.084-0.004-0.1665-0.006-0.25-0.132 5.423-4.538 9.75-9.994 9.75s-9.862-4.327-9.994-9.75z"/>
 <path style="opacity:0.2" d="m 7.2937019,15.462221 c -0.260104,-0.035 -0.722789,-0.1856 -1.031413,-0.3342 -2.010804,-0.9635 -2.833133,-3.3902 -1.842737,-5.4342008 1.131453,-2.3372 4.218687,-2.933 6.0764301,-1.1726 0.537215,0.5082 0.77581,0.942 1.584634,2.8649008 0.844337,2.011 1.0004,2.3272 1.274009,2.5953 0.293117,0.2852 0.564726,0.3812 1.084433,0.3812 0.853842,0 1.463585,-0.5278 1.463585,-1.2641 0,-0.6233 -0.219087,-0.8229 -1.336534,-1.2196 -1.70168,-0.6138 -2.2529,-1.1686 -2.254901,-2.2827008 0,-0.5943 0.15056,-0.9905 0.533213,-1.4012 0.54922,-0.5863 1.496598,-0.7799 2.334933,-0.4887 0.357643,0.127 1.105942,0.7894 1.105942,0.979 0,0.092 -0.433673,0.3732 -0.674269,0.4397 -0.127051,0.033 -0.236595,-0.01 -0.383153,-0.1506 -0.297119,-0.2851 -0.4982,-0.3732 -0.853842,-0.3732 -0.613745,0 -0.994397,0.3692 -0.994397,0.9655 0,0.5943008 0.242097,0.7954008 1.45158,1.2036008 1.666666,0.5628 2.158863,1.071 2.168867,2.2471 0.01,1.016 -0.447679,1.7489 -1.358043,2.1826 -0.414165,0.1956 -0.554722,0.2206 -1.230992,0.2206 -0.965386,0 -1.399059,-0.1796 -1.940275,-0.7894 -0.363646,-0.4102 -0.732793,-1.1801 -1.914766,-3.9905 C 10.06581,9.4762202 9.4365579,8.9054202 8.3871389,8.6808202 c -0.531713,-0.1136 -1.272009,-0.01 -1.754702,0.2461 -0.470688,0.2461 -0.996398,0.8014 -1.244497,1.3091008 -0.205082,0.4122 -0.22459,0.5278 -0.22459,1.2447 0,0.6838 0.02751,0.8459 0.199079,1.2211 0.260104,0.5728 0.771809,1.102 1.334534,1.3872 0.406663,0.2051 0.533213,0.2306 1.181973,0.2306 0.623249,0 0.783313,-0.029 1.154961,-0.2071 0.42417,-0.2071 0.9943981,-0.7154 1.2269911,-1.0961 l 0.121048,-0.1976 0.238596,0.5453 c 0.133053,0.3012 0.240096,0.5843 0.240096,0.6353 0,0.1506 -0.539216,0.6428 -1.0334128,0.9495 -0.7503003,0.4632 -1.6121453,0.6368 -2.5325133,0.5117 m -0.002,0"/>
 <path style="fill:#8b9cbe" d="m 7.2937019,14.962158 c -0.260104,-0.035 -0.722789,-0.1856 -1.031413,-0.3342 -2.010804,-0.9635 -2.833133,-3.3902 -1.842737,-5.4342002 1.131453,-2.3372 4.218687,-2.933 6.0764301,-1.1726 0.537215,0.5082 0.77581,0.942 1.584634,2.8649002 0.844337,2.011 1.0004,2.3272 1.274009,2.5953 0.293117,0.2852 0.564726,0.3812 1.084433,0.3812 0.853842,0 1.463585,-0.5278 1.463585,-1.2641 0,-0.6233 -0.219087,-0.8229 -1.336534,-1.2196 -1.70168,-0.6138 -2.2529,-1.1686 -2.254901,-2.2827002 0,-0.5943 0.15056,-0.9905 0.533213,-1.4012 0.54922,-0.5863 1.496598,-0.7799 2.334933,-0.4887 0.357643,0.127 1.105942,0.7894 1.105942,0.979 0,0.092 -0.433673,0.3732 -0.674269,0.4397 -0.127051,0.033 -0.236595,-0.01 -0.383153,-0.1506 -0.297119,-0.2851 -0.4982,-0.3732 -0.853842,-0.3732 -0.613745,0 -0.994397,0.3692 -0.994397,0.9655 0,0.5943 0.242097,0.7954 1.45158,1.2036002 1.666666,0.5628 2.158863,1.071 2.168867,2.2471 0.01,1.016 -0.447679,1.7489 -1.358043,2.1826 -0.414165,0.1956 -0.554722,0.2206 -1.230992,0.2206 -0.965386,0 -1.399059,-0.1796 -1.940275,-0.7894 -0.363646,-0.4102 -0.732793,-1.1801 -1.914766,-3.9905 C 10.06581,8.9761578 9.4365579,8.4053578 8.3871389,8.1807578 c -0.531713,-0.1136 -1.272009,-0.01 -1.754702,0.2461 -0.470688,0.2461 -0.996398,0.8014 -1.244497,1.3091 -0.205082,0.4122002 -0.22459,0.5278002 -0.22459,1.2447002 0,0.6838 0.02751,0.8459 0.199079,1.2211 0.260104,0.5728 0.771809,1.102 1.334534,1.3872 0.406663,0.2051 0.533213,0.2306 1.181973,0.2306 0.623249,0 0.783313,-0.029 1.154961,-0.2071 0.42417,-0.2071 0.9943981,-0.7154 1.2269911,-1.0961 l 0.121048,-0.1976 0.238596,0.5453 c 0.133053,0.3012 0.240096,0.5843 0.240096,0.6353 0,0.1506 -0.539216,0.6428 -1.0334128,0.9495 -0.7503003,0.4632 -1.6121453,0.6368 -2.5325133,0.5117 m -0.002,0"/>
</svg>
