<svg xmlns="http://www.w3.org/2000/svg" width="22" height="22" version="1.1">
 <circle style="opacity:0.2" cx="11" cy="11.5" r="10"/>
 <circle style="fill:#b2bfd9" cx="11" cy="11" r="10"/>
 <path style="opacity:0.2;fill:#8b9cbe" d="M 11,1 A 10,10 0 0 0 1,11 10,10 0 0 0 1.01075,11.291 10,10 0 0 1 11,1.5 10,10 0 0 1 20.9895,11.209 10,10 0 0 0 21,11 10,10 0 0 0 11,1 Z"/>
 <path style="opacity:0.1" d="m 10.588867,4.500335 c -0.116726,8e-4 -0.273832,0.01471 -0.473632,0.041015 -1.833316,0.2413705 -3.452358,1.147463 -4.604493,2.578125 -0.7557,0.9383895 -1.270744,2.13196 -1.458984,3.380859 -0.0502,0.332986 -0.06923,1.224743 -0.03418,1.597657 0.12169,1.295241 0.5796525,2.48911 1.3544925,3.533203 C 6.171562,16.019724 6.989724,15.415198 7.21875,14.76303 6.4346005,13.856679 6.002092,12.698818 6,11.500335 6.0008,8.9057655 7.979053,6.768598 10.516866,6.5249875 11.196082,6.5319225 10.975902,5.900655 10.971681,5.573577 10.959675,4.651374 10.956215,4.625997 10.819337,4.536468 10.781617,4.511873 10.705593,4.499513 10.588867,4.500333 Z m 5.294922,2.1689455 C 15.376092,6.7368975 15.04125,7.727702 15.060547,8.5931085 15.669356,9.440429 15.997847,10.456977 16,11.500335 c -8e-4,2.622011 -2.021135,4.777044 -4.59784,4.982485 -0.470899,0.02348 -0.369118,0.308867 -0.378722,0.668882 0,0.850188 0.0192,1.136676 0.08105,1.228516 0.0274,0.04068 0.08621,0.08634 0.13086,0.101562 0.08195,0.0279 0.148022,0.02554 0.573242,-0.01953 0.944035,-0.100099 1.951662,-0.439995 2.801757,-0.946289 1.80368,-1.074223 3.018516,-2.900559 3.337891,-5.01953 0.0502,-0.33299 0.06923,-1.22572 0.03418,-1.598633 -0.08213,-0.874151 -0.305967,-1.671438 -0.681637,-2.427735 -0.362245,-0.729261 -0.871879,-1.442502 -1.28418,-1.7978515 -0.04559,-0.00837 -0.08952,-0.0087 -0.132812,-0.00295 z"/>
 <path style="fill:#3c79e5" d="M 10.588867,4 C 10.472141,4.0008 10.315035,4.01471 10.115235,4.041015 8.281919,4.2823855 6.662877,5.188478 5.510742,6.61914 4.755042,7.5575295 4.239998,8.7511 4.051758,10 c -0.0502,0.332985 -0.06923,1.224743 -0.03418,1.597656 0.12169,1.295241 0.5796525,2.48911 1.3544925,3.533203 C 6.171562,15.519389 6.989724,14.914863 7.21875,14.262695 6.4346005,13.356343 6.002092,12.198483 6,11 6.0008,8.4054305 7.979053,6.268263 10.516866,6.0246525 11.196082,6.0315875 10.975902,5.40032 10.971681,5.073242 10.959675,4.151039 10.956215,4.125662 10.819337,4.036133 10.781617,4.011538 10.705593,3.999178 10.588867,3.999998 Z m 5.294922,2.1689455 C 15.376092,6.2365625 15.04125,7.227367 15.060547,8.0927735 15.669356,8.940094 15.997847,9.956642 16,11 c -8e-4,2.622011 -2.021135,4.777044 -4.59784,4.982485 -0.470899,0.02348 -0.369118,0.308867 -0.378722,0.668882 0,0.850188 0.0192,1.136676 0.08105,1.228516 0.0274,0.04068 0.08621,0.08634 0.13086,0.101562 0.08195,0.0279 0.148022,0.02554 0.573242,-0.01953 0.944035,-0.100099 1.951662,-0.439995 2.801757,-0.946289 1.80368,-1.074223 3.018516,-2.900559 3.337891,-5.01953 0.0502,-0.33299 0.06923,-1.22572 0.03418,-1.598633 -0.08213,-0.87415 -0.305971,-1.671438 -0.681641,-2.427735 -0.362245,-0.729261 -0.871879,-1.442502 -1.28418,-1.7978515 -0.04559,-0.00836 -0.08952,-0.00869 -0.132812,-0.00295 z"/>
 <path style="opacity:0.1" d="m 15.100586,6.291991 c -0.279924,-0.01725 -0.571922,0.042705 -0.828125,0.174805 -0.249275,0.1285235 -0.533327,0.4221445 -0.675782,0.698242 -0.181984,0.3527045 -1.167968,2.823704 -1.167968,2.926758 10e-5,0.101407 0.06424,0.220964 0.147461,0.275391 0.06787,0.04439 1.421238,0.592386 1.545898,0.625976 0.100915,0.02721 0.261471,-0.01983 0.332031,-0.09766 0.02204,-0.0243 0.184332,-0.399965 0.360352,-0.834961 0.424732,-0.795279 0.635862,-2.199058 1.475586,-2.37793 0.201292,-0.034785 0.41193,-0.0032 0.61914,0.092773 -0.08837,-0.13776 -0.182534,-0.273231 -0.28125,-0.40625 C 16.153394,6.729707 15.814055,6.449783 15.375,6.33496 15.286292,6.31176 15.193894,6.29774 15.100586,6.29199 Z M 7.87793,12.006835 c -0.100915,-0.02721 -0.261471,0.01983 -0.332031,0.09766 -0.02204,0.0243 -0.184332,0.399965 -0.360352,0.834961 -0.424732,0.795279 -0.635862,2.199058 -1.475586,2.37793 -0.2012925,0.03478 -0.41193,0.0032 -0.6191405,-0.09277 0.088369,0.13776 0.1825345,0.273231 0.28125,0.40625 0.474535,0.639432 0.8138745,0.919356 1.2529295,1.034179 0.35483,0.0928 0.760934,0.0443 1.102539,-0.131836 0.249275,-0.128523 0.533327,-0.422144 0.675782,-0.698242 0.181984,-0.352704 1.167968,-2.823703 1.167968,-2.926758 -10e-5,-0.101407 -0.06424,-0.220964 -0.147461,-0.27539 -0.06787,-0.0444 -1.421239,-0.592387 -1.545898,-0.625977 z"/>
 <path style="fill:#759ef8" d="m 15.100586,5.791992 c -0.279924,-0.01725 -0.571922,0.042705 -0.828125,0.174805 -0.249275,0.1285235 -0.533327,0.4221445 -0.675782,0.698242 -0.181984,0.3527045 -1.167968,2.823704 -1.167968,2.926758 10e-5,0.101407 0.06424,0.220964 0.147461,0.275391 0.06787,0.04439 1.421238,0.592386 1.545898,0.625976 0.100915,0.02721 0.261471,-0.01983 0.332031,-0.09766 0.02204,-0.0243 0.184332,-0.399965 0.360352,-0.834961 0.424732,-0.7952795 0.635862,-2.199058 1.475586,-2.37793 0.201292,-0.034785 0.41193,-0.0032 0.61914,0.092774 C 16.820809,7.137631 16.726645,7.00216 16.627929,6.869141 16.153394,6.229708 15.814055,5.949784 15.375,5.834961 15.28629,5.811761 15.193894,5.797741 15.100586,5.791992 Z M 7.87793,11.506836 c -0.100915,-0.02721 -0.261471,0.01983 -0.332031,0.09766 -0.02204,0.0243 -0.184332,0.399965 -0.360352,0.834961 -0.424732,0.79528 -0.635862,2.199058 -1.475586,2.37793 -0.2012925,0.03479 -0.41193,0.0032 -0.6191405,-0.09277 0.088369,0.13776 0.1825345,0.273231 0.28125,0.40625 0.474535,0.639432 0.8138745,0.919356 1.2529295,1.034179 0.35483,0.0928 0.760934,0.04429 1.102539,-0.131836 C 7.976814,15.904687 8.260866,15.611066 8.403321,15.334968 8.585305,14.982264 9.571289,12.511264 9.571289,12.40821 9.571189,12.306803 9.507049,12.187247 9.423828,12.13282 9.355958,12.08843 8.00259,11.540433 7.87793,11.506843 Z"/>
</svg>
