<svg xmlns="http://www.w3.org/2000/svg" width="22" height="22" version="1">
 <path style="fill:#6b5733" d="M 19,20 V 2 C 19,1.446 18.554,1 18,1 H 4 C 3.446,1 3,1.446 3,2 v 18 c 0,0.554 0.446,1 1,1 h 14 c 0.554,0 1,-0.446 1,-1 z"/>
 <path style="opacity:0.2" d="M 5.4615,3.5 C 5,3.5 5,3.9706 5,3.9706 v 15.058 c 0,0 0,0.47059 0.46154,0.47059 h 11.106 c 0,0 0.43292,0 0.43292,-0.47059 l -0.001,-9.4114 -5.646,-6.1176 z M 13.254,3.5 17,7.5588 V 3.9706 C 17,3.5 16.538,3.5 16.538,3.5 Z"/>
 <path style="opacity:0.1;fill:#8b9cbe" d="M 4,1 C 3.446,1 3,1.446 3,2 v 0.5 c 0,-0.554 0.446,-1 1,-1 h 14 c 0.554,0 1,0.446 1,1 V 2 C 19,1.446 18.554,1 18,1 Z"/>
 <path style="fill:#f5f5f5" d="M 5.4615,3 C 5,3 5,3.4706 5,3.4706 v 15.058 c 0,0 0,0.471 0.4615,0.471 h 11.106 c -10e-4,0 0.432,0 0.432,-0.471 V 9.1172 L 11.3535,2.9996 Z M 13.254,3 17,7.0588 V 3.4706 C 17,3 16.538,3 16.538,3 Z"/>
 <path style="opacity:0.2" d="m 3,20 v 0.5 c 0,0.554 0.446,1 1,1 h 14 c 0.554,0 1,-0.446 1,-1 V 20 c 0,0.554 -0.446,1 -1,1 H 4 C 3.446,21 3,20.554 3,20 Z"/>
 <rect style="opacity:0.5" width="2" height="5" x="7" y="12"/>
 <rect style="opacity:0.5" width="2" height="7" x="10" y="10"/>
 <rect style="opacity:0.5" width="2" height="3" x="13" y="14"/>
</svg>
