<svg xmlns="http://www.w3.org/2000/svg" width="22" height="22" version="1.1">
 <circle style="opacity:0.2" cx="11" cy="11.5" r="10"/>
 <circle style="fill:#8bc34a" cx="11" cy="11" r="10"/>
 <path style="opacity:0.2;fill:#8b9cbe" d="M 11,1 A 10,10 0 0 0 1,11 10,10 0 0 0 1.01075,11.291 10,10 0 0 1 11,1.5 10,10 0 0 1 20.9895,11.209 10,10 0 0 0 21,11 10,10 0 0 0 11,1 Z"/>
 <circle style="opacity:0.2" cx="11" cy="11.5" r="7"/>
 <circle style="fill:#8b9cbe" cx="11" cy="11" r="7"/>
 <path style="opacity:0.2" d="M 1.0498047,10.5 A 10,10 0 0 0 1,11.5 a 10,10 0 0 0 0.060547,1 h 19.889648 a 10,10 0 0 0 0.0498,-1 10,10 0 0 0 -0.06055,-1 z"/>
 <path style="fill:#4f4f4f" d="M 1.0498047,10 A 10,10 0 0 0 1,11 10,10 0 0 0 1.0605469,12 H 20.950195 A 10,10 0 0 0 21,11 10,10 0 0 0 20.939453,10 Z"/>
 <rect style="opacity:0.2" width="6" height="6" x="0" y="8.5" rx="1" ry="1"/>
 <rect style="fill:#4f4f4f" width="6" height="6" x="0" y="8" rx="1" ry="1"/>
</svg>
