<svg xmlns="http://www.w3.org/2000/svg" width="22" height="22" version="1">
 <path style="opacity:0.2" d="m 11,1.5 c -3.7333335,0 -8,6 -8,10.75 0,4.75 2.5,9.25 8,9.25 5.5,0 8,-4.5 8,-9.25 C 19,7.5 14.733334,1.5 11,1.5 Z"/>
 <path style="fill:#b2bfd9" d="M 11,1 C 7.2666665,1 3,7 3,11.75 3,16.5 5.5,21 11,21 16.5,21 19,16.5 19,11.75 19,7 14.733334,1 11,1 Z"/>
 <circle style="opacity:0.1" cx="11" cy="14.5" r="5"/>
 <circle style="fill:#ffb001" cx="11" cy="14" r="5"/>
 <path style="opacity:0.2;fill:#8b9cbe" d="M 11,1 C 7.2666665,1 3,7 3,11.75 3,11.853966 3.00737,11.956865 3.00977,12.060547 3.1193268,7.3416945 7.315597,1.5 11,1.5 c 3.684403,0 7.880673,5.8416945 7.990234,10.560547 C 18.992635,11.956865 19,11.853966 19,11.75 19,7 14.733334,1 11,1 Z"/>
</svg>
