<svg xmlns="http://www.w3.org/2000/svg" width="22" height="22" version="1.1">
 <path style="opacity:0.2" d="m 4,1.5 h 14 c 1.108,0 2,0.892 2,2 v 14 c 0,1.108 -0.892,2 -2,2 H 4 c -1.108,0 -2,-0.892 -2,-2 v -14 c 0,-1.108 0.892,-2 2,-2 z"/>
 <path style="fill:#bb050b" d="m 4,1 h 14 c 1.108,0 2,0.892 2,2 v 14 c 0,1.108 -0.892,2 -2,2 H 4 C 2.892,19 2,18.108 2,17 V 3 C 2,1.892 2.892,1 4,1 Z"/>
 <path style="opacity:0.2;fill-rule:evenodd" d="m 20,21.5 -5,-4 h 5 z"/>
 <path style="opacity:0.2;fill:#8b9cbe" d="M 4,1 C 2.892,1 2,1.892 2,3 v 0.5 c 0,-1.108 0.892,-2 2,-2 h 14 c 1.108,0 2,0.892 2,2 V 3 C 20,1.892 19.108,1 18,1 Z"/>
 <path style="opacity:0.2" d="m 9.360352,6.0000702 c 0,0 -1.399184,-0.031975 -2.879883,1.1240234 C 4.999769,8.2800937 4,10.421764 4,13.868164 c 0,0 1.863242,1.556236 4.135742,1.631836 0,0 0.380974,-0.475192 0.689454,-0.885742 C 7.519295,14.203708 7.02539,13.34961 7.02539,13.34961 8.143938,14.120711 9.680182,14.47975 11,14.5 c 1.319819,-0.02025 2.856062,-0.379289 3.97461,-1.15039 0,0 -0.493905,0.854098 -1.799805,1.264648 C 13.483285,15.024808 13.864258,15.5 13.864258,15.5 16.136758,15.4244 18,13.868164 18,13.868164 18,10.421764 17.000231,8.2800937 15.519531,7.1240936 14.038832,5.9680937 12.639649,6.0000702 12.639649,6.0000702 c 0,0 -0.07947,0.078709 -0.102539,0.1015625 1.850899,0.551 2.694335,1.404297 2.694335,1.404297 0,0 -0.22598,-0.1298345 -0.606445,-0.3027346 C 13.691313,6.7838332 12.5,6.5000702 11,6.5000702 c -1.5,0 -2.691313,0.283763 -3.625,0.7031249 -0.380465,0.1729001 -0.606446,0.3027346 -0.606446,0.3027346 0,0 0.843436,-0.853297 2.694337,-1.404297 C 9.439381,6.0596637 9.360352,6.0000702 9.360352,6.0000702 Z M 9,10.5 c 0.55875,0 1.00975,0.5569 1,1.25 C 10,12.44325 9.55877,13 9,13 8.45105,13 8,12.44325 8,11.75 8,11.0569 8.441235,10.5 9,10.5 Z m 4,0 c 0.558765,0 1,0.5569 1,1.25 0,0.69325 -0.45105,1.25 -1,1.25 -0.55877,0 -1,-0.55675 -1,-1.25 -0.0098,-0.6931 0.44125,-1.25 1,-1.25 z"/>
 <path style="fill:#8b9cbe" d="m 9.360352,5.5000702 c 0,0 -1.399184,-0.031975 -2.879883,1.1240234 C 4.999769,7.7800937 4,9.921764 4,13.368164 c 0,0 1.863242,1.556236 4.135742,1.631836 0,0 0.380974,-0.475192 0.689454,-0.885742 C 7.519295,13.703708 7.02539,12.84961 7.02539,12.84961 8.143938,13.620711 9.680182,13.97975 11,14 c 1.319819,-0.02025 2.856062,-0.379289 3.97461,-1.15039 0,0 -0.493905,0.854098 -1.799805,1.264648 C 13.483285,14.524808 13.864258,15 13.864258,15 16.136758,14.9244 18,13.368164 18,13.368164 18,9.921764 17.000231,7.7800937 15.519531,6.6240936 14.038832,5.4680937 12.639649,5.5000702 12.639649,5.5000702 c 0,0 -0.07947,0.078709 -0.102539,0.1015625 1.850899,0.551 2.694335,1.404297 2.694335,1.404297 0,0 -0.22598,-0.1298345 -0.606445,-0.3027346 C 13.691313,6.2838332 12.5,6.0000702 11,6.0000702 c -1.5,0 -2.691313,0.283763 -3.625,0.7031249 -0.380465,0.1729001 -0.606446,0.3027346 -0.606446,0.3027346 0,0 0.843436,-0.853297 2.694337,-1.404297 C 9.439381,5.5596637 9.360352,5.5000702 9.360352,5.5000702 Z M 9,10 c 0.55875,0 1.00975,0.5569 1,1.25 C 10,11.94325 9.55877,12.5 9,12.5 8.45105,12.5 8,11.94325 8,11.25 8,10.5569 8.441235,10 9,10 Z m 4,0 c 0.558765,0 1,0.5569 1,1.25 0,0.69325 -0.45105,1.25 -1,1.25 -0.55877,0 -1,-0.55675 -1,-1.25 C 11.9902,10.5569 12.44125,10 13,10 Z"/>
 <path style="fill:#bb050b;fill-rule:evenodd" d="m 20,21 -5,-4 h 5 z"/>
</svg>
