<svg xmlns="http://www.w3.org/2000/svg" width="22" height="22" version="1">
 <g transform="translate(-1,-1.0001)">
  <path fill="#4f4f4f" d="m11.974 5c-3.9573 0-7.5196 1.4061-10.474 3.5864l10.474 11.412 10.392-11.452c-2.943-2.156-6.465-3.5455-10.392-3.5455z"/>
  <path opacity=".2" transform="matrix(.50007 0 0 .50007 -68.029 -118.52)" d="m159.9 252.99c-6.3037 0-12.154 2.0674-16.853 5.5589l16.941 18.441 16.765-18.441c-4.71-3.49-10.56-5.56-16.86-5.56z"/>
  <path fill="#797979" d="m11.933 7.9962c-3.1523 0-6.0779 1.0339-8.4277 2.7799l8.4717 9.2219 8.384-9.2224c-2.35-1.7462-5.275-2.7798-8.428-2.7798z"/>
  <path opacity=".2" transform="matrix(.50007 0 0 .50007 -68.029 -118.52)" d="m159.9 258.99c-4.7278 0-9.1156 1.5505-12.64 4.1692l12.706 13.831 12.574-13.831c-3.524-2.6186-7.9119-4.1692-12.64-4.1692z"/>
  <path fill="#b2bfd9" d="m11.933 10.997c-2.3642 0-4.5585 0.77536-6.3209 2.0849l6.3539 6.916 6.288-6.916c-1.762-1.31-3.956-2.0852-6.321-2.0852z"/>
  <path fill="#fff" opacity=".1" d="m11.974 5c-3.9573 0-7.5196 1.4061-10.474 3.5865l0.28129 0.30668c2.8994-2.0658 6.3581-3.3931 10.193-3.3931 3.8051 0 7.2256 1.3114 10.112 3.354l0.28032-0.30864c-2.9439-2.1558-6.4659-3.5453-10.393-3.5453z"/>
  <path fill="#fff" opacity=".1" d="m11.934 7.9957c-3.1523 0-6.0784 1.0347-8.4282 2.7807l0.2819 0.307c2.3009-1.6243 5.1163-2.5871 8.1453-2.5871 3.0307 0 5.8454 0.96389 8.1467 2.5892l0.28-0.3086c-2.349-1.7462-5.274-2.7809-8.426-2.7809z"/>
  <path fill="#fff" opacity=".1" d="m11.934 10.996c-2.3642 0-4.559 0.77576-6.3214 2.0853l0.28227 0.30668c1.7127-1.1885 3.7973-1.8919 6.0389-1.8919 2.2426 0 4.3268 0.7044 6.0399 1.8938l0.28032-0.30864c-1.762-1.31-3.956-2.0859-6.32-2.0859z"/>
  <path opacity=".2" d="m22.088 8.8568-10.114 11.145-10.194-11.106c-0.092 0.0651-0.1888 0.1246-0.28 0.1921l10.474 11.412 10.392-11.453c-0.091-0.066-0.186-0.1251-0.278-0.19z"/>
 </g>
</svg>
