<svg xmlns="http://www.w3.org/2000/svg" width="22" height="22" version="1">
 <path style="opacity:0.2" d="m 10,16.5 4,-2 2,-4 L 14.200001,8.7 12.4,9.3 6.4,1.5 2.8000001,3.3 l -1.8,3.6 7.8000004,6 -0.6,1.800001 z"/>
 <path style="fill:#cf1f1a" d="M 10,16 14,14 16,10 14.200001,8.2 12.4,8.8 6.4,1 2.8000001,2.8 l -1.8,3.6 7.8000004,6 -0.6,1.800001 z"/>
 <path style="opacity:0.2" d="m 16,10 -4,2 -2,4 4,-2 z"/>
 <path style="opacity:0.2;fill:#8b9cbe" d="M 6.4003905,1 2.7998047,2.7998047 12,12 16,10 14.200196,8.2001955 12.400391,8.7998045 Z"/>
 <path style="opacity:0.2" d="m 12,13.7 1.2,-1.2 5.8,6 h 0.8 L 21,20.299999 19.799999,21.5 18,20.299999 V 19.5 Z"/>
 <path style="fill:#b3b3b3" d="M 12,13.2 13.2,12 19,18 h 0.8 L 21,19.799999 19.799999,21 18,19.799999 V 19 Z"/>
 <path style="opacity:0.2;fill:#8b9cbe" d="M 6.4003905,1 2.7998047,2.7998047 1,6.4003905 1.180664,6.5390625 2.7998047,3.2998047 6.4003905,1.5 12.400391,9.299805 14.200196,8.7001955 15.833008,10.333008 16,10 14.200196,8.2001955 12.400391,8.7998045 Z m 2.2666015,11.798828 -0.4667965,1.401368 0.125,0.125 0.474609,-1.424805 z"/>
 <path style="opacity:0.2;fill:#8b9cbe" d="M 13.199219,12 12,13.199219 12.253906,13.445312 13.199219,12.5 19,18.5 h 0.800781 l 1,1.5 L 21,19.800781 19.800781,18 H 19 Z"/>
</svg>
