<svg xmlns="http://www.w3.org/2000/svg" width="22" height="22" version="1">
 <path style="opacity:0.2" d="M 15.000004,21.5 H 4.3846197 C 3.617543,21.5 3.0000047,20.831 3.0000047,20 V 5.0000017 c 0,-0.831 0.6175383,-1.4999999 1.384615,-1.4999999 H 19.615388 c 0.767076,0 1.384615,0.6689999 1.384615,1.4999999 V 15.500001 Z"/>
 <path style="fill:#b2bfd9" d="M 15.000004,21 H 4.3846197 C 3.6175429,21 3.0000046,20.331 3.0000046,19.5 V 4.5000017 c 0,-0.8309999 0.6175383,-1.4999999 1.3846151,-1.4999999 H 19.615388 c 0.767076,0 1.384615,0.669 1.384615,1.4999999 V 15.000001 Z"/>
 <path style="fill:#b0b0b0" d="m 4.5000047,4.0000017 c -0.2761425,0 -0.5,0.2238575 -0.5,0.5 0,0.2761425 0.2238575,0.5 0.5,0.5 0.2761419,0 0.4999999,-0.2238575 0.4999999,-0.5 0,-0.2761425 -0.223858,-0.5 -0.4999999,-0.5 z m 1.4999998,0 v 1 H 18.000003 v -1 z m 13.4999985,0 c -0.276142,0 -0.5,0.2238575 -0.5,0.5 0,0.2761425 0.223858,0.5 0.5,0.5 0.276143,0 0.5,-0.2238575 0.5,-0.5 0,-0.2761425 -0.223857,-0.5 -0.5,-0.5 z M 4.5000047,7.0000014 c -0.2761425,0 -0.5,0.2238575 -0.5,0.5 0,0.2761425 0.2238575,0.5 0.5,0.5 0.2761419,0 0.4999999,-0.2238575 0.4999999,-0.5 0,-0.2761425 -0.223858,-0.5 -0.4999999,-0.5 z m 1.4999998,0 v 1 H 18.000003 v -1 z m 13.4999985,0 c -0.276142,0 -0.5,0.2238575 -0.5,0.5 0,0.2761425 0.223858,0.5 0.5,0.5 0.276143,0 0.5,-0.2238575 0.5,-0.5 0,-0.2761425 -0.223857,-0.5 -0.5,-0.5 z M 4.5000047,10.000001 c -0.2761425,0 -0.5,0.223858 -0.5,0.5 0,0.276143 0.2238575,0.5 0.5,0.5 0.2761419,0 0.4999999,-0.223857 0.4999999,-0.5 0,-0.276142 -0.223858,-0.5 -0.4999999,-0.5 z m 1.4999998,0 v 1 H 18.000003 v -1 z m 13.4999985,0 c -0.276142,0 -0.5,0.223858 -0.5,0.5 0,0.276143 0.223858,0.5 0.5,0.5 0.276143,0 0.5,-0.223857 0.5,-0.5 0,-0.276142 -0.223857,-0.5 -0.5,-0.5 z m -14.9999983,3 c -0.2761425,0 -0.5,0.223857 -0.5,0.5 0,0.276142 0.2238575,0.5 0.5,0.5 0.2761419,0 0.4999999,-0.223858 0.4999999,-0.5 0,-0.276143 -0.223858,-0.5 -0.4999999,-0.5 z m 1.4999998,0 v 1 H 18.000003 v -1 z m 13.4999985,0 c -0.276142,0 -0.5,0.223857 -0.5,0.5 0,0.276142 0.223858,0.5 0.5,0.5 0.276143,0 0.5,-0.223858 0.5,-0.5 0,-0.276143 -0.223857,-0.5 -0.5,-0.5 z m -14.9999983,3 c -0.2761425,0 -0.5,0.223857 -0.5,0.5 0,0.276142 0.2238575,0.499999 0.5,0.499999 0.2761419,0 0.4999999,-0.223857 0.4999999,-0.499999 0,-0.276143 -0.223858,-0.5 -0.4999999,-0.5 z m 1.4999998,0 V 17 H 16.000003 V 16.000001 Z M 4.5000047,19 c -0.2761425,0 -0.5,0.223858 -0.5,0.5 0,0.276143 0.2238575,0.5 0.5,0.5 0.2761419,0 0.4999999,-0.223857 0.4999999,-0.5 0,-0.276142 -0.223858,-0.5 -0.4999999,-0.5 z m 1.4999998,0 v 1 h 9.4999985 v -1 z"/>
 <circle style="opacity:0.3;fill:#328fff" cx="-11.5" cy="7.5" r="6" transform="scale(-1,1)"/>
 <path style="opacity:0.2;fill:#8b9cbe" d="m 4.3847702,3.0000018 c -0.7670769,0 -1.3847655,0.6689999 -1.3847655,1.4999999 v 0.5 c 0,-0.831 0.6176886,-1.4999999 1.3847655,-1.4999999 H 19.615238 c 0.767076,0 1.384765,0.6689999 1.384765,1.4999999 v -0.5 c 0,-0.831 -0.617689,-1.4999999 -1.384765,-1.4999999 z"/>
 <path style="fill:#fafafa" d="m 16.384769,15.000001 c -0.767077,0 -1.384765,0.668999 -1.384765,1.5 V 21 l 5.999999,-5.999999 z"/>
 <path style="opacity:0.1" d="m 7.1464889,11.646467 -2.4999998,2.5 0.707031,0.707031 2.4999997,-2.5 z"/>
 <path style="fill:none;stroke:#6e6e6e;stroke-width:0.99999988" d="m 5.0000046,13.999998 2.4999998,-2.5"/>
 <path style="opacity:0.1" d="m 4.8193761,13.500485 a 1.1472117,1.1469348 0 0 0 -0.7878824,0.347182 l -2.6763725,2.675727 a 1.1472117,1.1469348 0 1 0 1.6215066,1.622048 l 2.6763727,-2.67666 A 1.1472117,1.1469348 0 0 0 4.8193761,13.500485 Z"/>
 <path style="fill:#4f4f4f" d="m 4.8193761,13.000486 a 1.1472117,1.1469348 0 0 0 -0.7878824,0.347183 l -2.6763725,2.675726 a 1.1472117,1.1469348 0 1 0 1.6215066,1.622049 l 2.6763727,-2.67666 A 1.1472117,1.1469348 0 0 0 4.8193761,13.000486 Z"/>
 <path style="opacity:0.1" d="m 11.50098,1.4999973 c -3.5853762,0 -6.5009754,2.9155998 -6.5009754,6.5009759 0,3.5853778 2.9155992,6.4990248 6.5009754,6.4990248 3.585376,0 6.499023,-2.913647 6.499023,-6.4990248 0,-3.5853761 -2.913647,-6.5009759 -6.499023,-6.5009759 z m -10e-4,1.4999998 c 2.765414,0 5,2.2345859 5,4.9999996 0,2.7654163 -2.234586,5.0000013 -5,5.0000013 -2.7654138,0 -4.999999,-2.234585 -4.999999,-5.0000013 0,-2.7654137 2.2345852,-4.9999996 4.999999,-4.9999996 z"/>
 <path style="fill:#328fff" d="m 11.50098,0.9999973 c -3.5853762,0 -6.5009754,2.9155998 -6.5009754,6.5009759 0,3.5853778 2.9155992,6.4990248 6.5009754,6.4990248 3.585376,0 6.499023,-2.913647 6.499023,-6.4990248 0,-3.5853761 -2.913647,-6.5009759 -6.499023,-6.5009759 z m -10e-4,1.4999999 c 2.765414,0 5,2.2345858 5,4.9999996 0,2.7654162 -2.234586,5.0000012 -5,5.0000012 -2.7654138,0 -4.999999,-2.234585 -4.999999,-5.0000012 0,-2.7654138 2.2345852,-4.9999996 4.999999,-4.9999996 z"/>
</svg>
