<svg xmlns="http://www.w3.org/2000/svg" height="22" width="22" version="1.1">
 <circle cx="11" cy="11.5" r="10" style="opacity:.2"/>
 <circle cx="11" cy="11" r="10" style="fill:#00acc4"/>
 <path d="m11 1a10 10 0 0 0 -10 10 10 10 0 0 0 0.0098 0.293 10 10 0 0 1 9.9902 -9.793 10 10 0 0 1 9.99 9.707 10 10 0 0 0 0.01 -0.207 10 10 0 0 0 -10 -10z" style="opacity:.2;fill:#8b9cbe"/>
 <path style="opacity:.2" d="m11 5.5a4 4 0 0 0 -4 4 4 4 0 0 0 4 4 4 4 0 0 0 4 -4 4 4 0 0 0 -4 -4zm0 8a6 6 0 0 0 -6 5.984375 10 10 0 0 0 6 2.015625 10 10 0 0 0 6 -2.011719 6 6 0 0 0 -6 -5.988281z"/>
 <path style="fill:#a9d5a0" d="m11 5a4 4 0 0 0 -4 4 4 4 0 0 0 4 4 4 4 0 0 0 4 -4 4 4 0 0 0 -4 -4zm0 8a6 6 0 0 0 -6 5.984375 10 10 0 0 0 6 2.015625 10 10 0 0 0 6 -2.011719 6 6 0 0 0 -6 -5.988281z"/>
 <rect style="fill:#8b9cbe" height="2" width="2" y="8" x="8"/>
 <rect style="fill:#8b9cbe" height="2" width="2" y="8" x="12"/>
 <path style="opacity:.2;fill:#8b9cbe" d="m11 5a4 4 0 0 0 -4 4 4 4 0 0 0 0.0097656 0.2109375 4 4 0 0 1 3.9902344 -3.7109375 4 4 0 0 1 3.990234 3.7832031 4 4 0 0 0 0.009766 -0.2832031 4 4 0 0 0 -4 -4zm1.519531 8.199219a4 4 0 0 1 -1.519531 0.300781 6 6 0 0 1 5.974609 5.505859 10 10 0 0 0 0.025391 -0.017578 6 6 0 0 0 -4.480469 -5.789062zm-1.519531 0.300781a4 4 0 0 1 -1.5117188 -0.298828 6 6 0 0 0 -4.4882812 5.783203 10 10 0 0 0 0.0253906 0.017578 6 6 0 0 1 5.9746094 -5.501953z"/>
 <path style="opacity:.2" d="m6 7.5h10l-5-4z"/>
 <path style="fill:#db6d7d" d="m6 7h10l-5-4z"/>
 <path style="opacity:.2;fill:#8b9cbe" d="m11 3l-5 4h0.625l4.375-3.5 4.375 3.5h0.625l-5-4z"/>
</svg>
