<svg xmlns="http://www.w3.org/2000/svg" width="22" height="22" version="1.1">
 <rect style="fill:#4f4f4f" width="20" height="20" x="1" y="1" ry="10"/>
 <path style="opacity:0.1;fill:#8b9cbe" d="M 5.4463,2.675 C 2.7626,4.4645 1,7.518 1,10.999 H 9 C 9,10.1885 9.48466,9.4948 10.1778,9.1806 l -4.731,-6.506 z"/>
 <path style="opacity:0.1;fill:#8b9cbe" d="m 16.5317,19.3 c 2.6837,-1.7896 4.4463,-4.8428 4.4463,-8.324 h -8 c 0,0.8105 -0.48466,1.5042 -1.1778,1.8184 l 4.7314,6.506 z"/>
 <path style="opacity:0.2" d="m 11.0001,7.5 c -2.2160001,0 -4,1.784 -4,4 0,2.216 1.7839999,4 4,4 2.216,0 4,-1.784 4,-4 0,-2.216 -1.784,-4 -4,-4 z"/>
 <path style="fill:#8b9cbe" d="m 11.0001,7 v 8 c 2.216,0 4,-1.784 4,-4 0,-2.216 -1.784,-4 -4,-4 z"/>
 <path style="fill:#fe4b4b" d="m 11.0007,7 v 8 c -2.2160001,0 -4.0000001,-1.784 -4.0000001,-4 0,-2.216 1.784,-4 4.0000001,-4 z"/>
 <rect style="fill:#17191e" width="2" height="2" x="10" y="-12" ry="1" transform="scale(1,-1)"/>
 <path style="opacity:0.1;fill:#8b9cbe" d="m 11.0017,1 c 5.535,0 9.991,4.46 9.991,10 0,0.08394 -0.004,0.16657 -0.0058,0.25 -0.132,-5.423 -4.534,-9.75 -9.985,-9.75 -5.451,0 -9.853,4.327 -9.985,9.75 C 1.0147,11.166 1.0108,11.084 1.0108,11 1.0108,5.46 5.4667,1 11.0017,1 Z"/>
 <path style="opacity:0.2" d="m 1.0072,11.25 c -0.002,0.0835 -0.00585,0.166 -0.00585,0.25 0,5.54 4.46,10 10,10 5.54,0 10,-4.46 10,-10 0,-0.084 -0.004,-0.1665 -0.006,-0.25 -0.132,5.4235 -4.538,9.75 -9.994,9.75 -5.456,0 -9.862,-4.3265 -9.994,-9.75 z"/>
</svg>
