<svg xmlns="http://www.w3.org/2000/svg" width="22" height="22" version="1">
 <rect fill="#b2bfd9" width="20" height="15" x="-21" y="-18" rx="1" ry="1" transform="matrix(0,-1,-1,0,0,0)"/>
 <path fill="#e74c3c" d="m6.0782 4.4535h-1.1541l-0.1823 0.5465h-0.7418l1.06-3h0.88l1.06 3h-0.7418l-0.1803-0.5465zm-0.97009-0.5566h0.78413l-0.3911-1.1935-0.393 1.1935z"/>
 <path fill="#e74c3c" d="m16.078 17.546h-1.1541l-0.182-0.546h-0.742l1.06 3h0.88l1.06-3h-0.74182l-0.18033 0.5465zm-0.97009 0.5566h0.78413l-0.3911 1.1936-0.39302-1.1936z"/>
 <path fill="#fff" opacity=".2" d="m4 1c-0.554 0-1 0.446-1 1v0.5c0-0.554 0.446-1 1-1h13c0.554 0 1 0.446 1 1v-0.5c0-0.554-0.446-1-1-1h-13z"/>
 <path opacity=".2" d="m3 20v0.5c0 0.554 0.446 1 1 1h13c0.554 0 1-0.446 1-1v-0.5c0 0.554-0.446 1-1 1h-13c-0.554 0-1-0.446-1-1z"/>
 <rect fill="#e74c3c" width="2.5" height="2.5" x="7.71" y="-1.46" transform="matrix(.6 .8 -.6 .8 0 0)"/>
 <path fill="#e74c3c" d="m6.0782 4.4535h-1.1541l-0.1823 0.5465h-0.7418l1.06-3h0.88l1.06 3h-0.7418l-0.1803-0.5465zm-0.97009-0.5566h0.78413l-0.3911-1.1935-0.393 1.1935z"/>
 <rect fill="#e74c3c" width="5.315" height="5.315" x="12.62" y="-3.32" transform="matrix(.65850 .75258 -.65850 .75258 0 0)"/>
 <rect fill="#e74c3c" width="2.5" height="2.5" x="21.04" y="-4.79" transform="matrix(.6 .8 -.6 .8 0 0)"/>
</svg>
