<svg xmlns="http://www.w3.org/2000/svg" width="22" height="22" version="1.1">
 <path fill="#886c38" d="m11 1a10 10 0 0 0 -10 10 10 10 0 0 0 10 10 10 10 0 0 0 10 -10 10 10 0 0 0 -10 -10z"/>
 <path fill="#fff" opacity=".2" d="m11 1a10 10 0 0 0 -9.9297 8.9258 10 9.5 0 0 1 9.9297 -8.4258 10 9.5 0 0 1 9.961 8.724 10 10 0 0 0 -9.961 -9.224zm9.9609 9.2236a10 10 0 0 1 0.039 0.776 10 9.5 0 0 0 -0.039 -0.776zm-19.891-0.2982a10 9.5 0 0 0 -0.024414 0.19629 10 10 0 0 1 0.024414 -0.19629zm-0.024414 0.19629a10 10 0 0 0 -0.0459 0.878 10 9.5 0 0 1 0.0459 -0.878z"/>
 <path opacity=".2" d="m11 21.5a10 10 0 0 1 -9.9297 -8.926 10 9.5 0 0 0 9.9297 8.426 10 9.5 0 0 0 9.961 -8.724 10 10 0 0 1 -9.961 9.224zm9.9609-9.2236a10 10 0 0 0 0.039 -0.776 10 9.5 0 0 1 -0.039 0.776zm-19.891 0.298a10 9.5 0 0 1 -0.024414 -0.19625 10 10 0 0 0 0.024414 0.19625zm-0.0244-0.196a10 10 0 0 1 -0.0459 -0.878 10 9.5 0 0 0 0.0459 0.878z"/>
 <path opacity=".2" d="m12 3.5701v6.9297h6.9268a8 8 0 0 0 -6.927 -6.9299zm-2 0.00293a8 8 0 0 0 -6.9297 6.9268h6.9297v-6.9268zm-6.9268 8.927a8 8 0 0 0 6.9268 6.93v-6.9297h-6.9268zm8.9268 0v6.9268a8 8 0 0 0 6.9297 -6.9268h-6.9297z"/>
 <path fill="#8b9cbe" d="m12 3.0703v6.9297h6.927a8 8 0 0 0 -6.927 -6.9297zm-2 0.00293a8 8 0 0 0 -6.9297 6.9268h6.9297v-6.9268zm-6.9268 8.9268a8 8 0 0 0 6.9268 6.93v-6.93h-6.9268zm8.9268 0v6.927a8 8 0 0 0 6.93 -6.927h-6.93z"/>
</svg>
