<svg xmlns="http://www.w3.org/2000/svg" width="22" height="22" version="1.1">
 <rect style="fill:#4d5a98" width="20" height="20" x="1" y="1" rx="1.5" ry="1.5"/>
 <path style="opacity:0.1" d="m 4.0404785,17.401861 c -0.095428,-0.175195 -0.015495,-0.672178 0.170138,-1.057846 0.198256,-0.41189 0.622058,-0.825505 1.287235,-1.256292 0.920372,-0.596057 3.0267475,-2.554902 4.4518455,-4.140038 0.26986,-0.300165 0.314791,-0.380444 0.287624,-0.513906 -0.02911,-0.143023 0.05074,-0.242882 0.833866,-1.042751 0.476334,-0.4865204 0.8564,-0.9127654 0.844591,-0.9472114 -0.01181,-0.03444 -0.08357,-0.05743 -0.15947,-0.05107 -0.0759,0.0064 -0.665629,0.05296 -1.31051,0.103553 -1.166812,0.09155 -1.174114,0.09294 -1.5022375,0.287436 -0.181349,0.107492 -0.3743845,0.187078 -0.4289675,0.176858 -0.1762875,-0.03301 -0.1442365,-0.232657 0.07012,-0.436792 0.1973785,-0.187967 0.20241,-0.203557 0.20241,-0.6272305 0,-0.402432 0.011115,-0.4430605 0.1507025,-0.5509435 0.2239375,-0.1730735 0.3396195,-0.146401 0.4876845,0.112444 0.139948,0.244657 0.17423,0.2511205 0.545273,0.102806 0.150278,-0.060069 0.207691,-0.059921 0.323229,8.5e-4 0.127053,0.06681 0.30106,0.02144 1.819111,-0.474318 0.923241,-0.3015065 1.771141,-0.593772 1.884221,-0.6494785 0.254484,-0.125367 0.448545,-0.3482385 0.852519,-0.979087 0.247429,-0.3863865 0.392479,-0.545934 0.679537,-0.7474605 0.347005,-0.243612 0.368814,-0.2510405 0.443267,-0.1509985 0.05061,0.068002 0.07831,0.2620145 0.07831,0.548517 v 0.4432975 l 0.348324,0.328704 c 0.38688,0.365088 0.385544,0.3559825 0.126501,0.8623 -0.09495,0.185591 -0.163303,0.463804 -0.214001,0.8710495 l -0.07449,0.5983635 0.365372,1.5173144 c 0.200954,0.834521 0.430736,1.795486 0.510626,2.135476 0.07989,0.339991 0.16928,0.675705 0.198646,0.746033 l 0.05339,0.127868 0.234893,-0.117741 c 0.408975,-0.204999 0.547517,0.0077 0.209504,0.321699 -0.272225,0.252856 -1.185511,0.916538 -1.40242,1.019134 -0.167018,0.079 -0.196272,0.07936 -0.273624,0.0034 -0.07735,-0.076 -0.06806,-0.108038 0.08692,-0.299648 0.09544,-0.118001 0.173531,-0.232176 0.173531,-0.253723 0,-0.06624 -1.866312,-3.158157 -2.069422,-3.428411 -0.157808,-0.209977 -0.227336,-0.257028 -0.400831,-0.271249 -0.285737,-0.02342 -0.519333,0.103717 -1.463338,0.79645 -0.91442,0.671024 -0.958824,0.697446 -1.170649,0.696569 -0.194164,-8e-4 -0.381563,0.13851 -1.262706,0.938704 -1.7244795,1.566053 -2.9741765,2.90811 -3.3849145,3.635081 -0.5812955,1.028841 -1.2652495,1.535855 -2.2978125,1.703365 -0.2072695,0.03362 -0.2473735,0.02294 -0.303995,-0.08101 z"/>
 <path style="opacity:0.2" d="M 1,19.5 V 20 c 0,0.831 0.669,1.5 1.5,1.5 h 17 C 20.331,21.5 21,20.831 21,20 V 19.5 C 21,20.331 20.331,21 19.5,21 H 2.5 C 1.669,21 1,20.331 1,19.5 Z"/>
 <path style="opacity:0.1;fill:#8b9cbe" d="M 2.5,1 C 1.669,1 1,1.669 1,2.5 V 3 C 1,2.169 1.669,1.5 2.5,1.5 h 17 C 20.331,1.5 21,2.169 21,3 V 2.5 C 21,1.669 20.331,1 19.5,1 Z"/>
 <path style="fill:#17191e" d="m 4.0404785,16.901873 c -0.095428,-0.175195 -0.015495,-0.672177 0.170138,-1.057845 0.198256,-0.41189 0.622058,-0.825505 1.287235,-1.256292 0.920372,-0.596057 3.0267475,-2.554902 4.4518455,-4.140039 0.26986,-0.300165 0.314791,-0.380443 0.287624,-0.513905 -0.02911,-0.143023 0.05074,-0.242882 0.833866,-1.0427524 0.476334,-0.48652 0.8564,-0.9127659 0.844591,-0.9472119 -0.01181,-0.034445 -0.08357,-0.057428 -0.15947,-0.051072 -0.0759,0.00635 -0.665629,0.052955 -1.31051,0.1035525 -1.166812,0.091548 -1.174114,0.092945 -1.5022375,0.2874364 -0.181349,0.107492 -0.3743845,0.187078 -0.4289675,0.176858 -0.1762875,-0.03301 -0.1442365,-0.232658 0.07012,-0.436793 0.1973785,-0.1879659 0.20241,-0.2035564 0.20241,-0.6272284 0,-0.402432 0.011115,-0.4430605 0.1507025,-0.5509435 0.2239375,-0.1730735 0.3396195,-0.146401 0.4876845,0.112444 0.139948,0.244657 0.17423,0.2511205 0.545273,0.102806 0.150278,-0.060069 0.207691,-0.059921 0.323229,8.5e-4 0.127053,0.066809 0.30106,0.02144 1.819111,-0.474318 0.923241,-0.3015065 1.771141,-0.593772 1.884221,-0.6494785 0.254484,-0.125367 0.448545,-0.3482385 0.852519,-0.979087 0.247429,-0.3863865 0.392479,-0.545934 0.679537,-0.7474605 0.347005,-0.243612 0.368814,-0.2510405 0.443267,-0.1509985 0.05061,0.068003 0.07831,0.2620145 0.07831,0.548517 v 0.4432975 l 0.348324,0.328704 c 0.38688,0.365088 0.385544,0.3559825 0.126501,0.8623 -0.09495,0.185591 -0.163303,0.463804 -0.214001,0.8710495 l -0.07449,0.598363 0.365372,1.5173148 c 0.200954,0.834521 0.430736,1.795486 0.510626,2.135476 0.07989,0.339991 0.16928,0.675705 0.198646,0.746033 l 0.05339,0.127868 0.234893,-0.117741 c 0.408975,-0.204999 0.547517,0.0077 0.209504,0.321699 -0.272225,0.252856 -1.185511,0.916538 -1.40242,1.019134 -0.167018,0.079 -0.196272,0.07936 -0.273624,0.0033 -0.07735,-0.076 -0.06806,-0.108038 0.08692,-0.299648 0.09544,-0.118001 0.173531,-0.232176 0.173531,-0.253723 0,-0.06624 -1.866312,-3.158157 -2.069422,-3.428411 C 14.166919,9.273951 14.097391,9.2269 13.923896,9.212679 c -0.285737,-0.02342 -0.519333,0.103717 -1.463338,0.79645 -0.91442,0.671024 -0.958824,0.697446 -1.170649,0.696569 -0.194164,-8e-4 -0.381563,0.13851 -1.262706,0.938704 -1.7244795,1.566053 -2.9741765,2.908109 -3.3849145,3.63508 -0.5812955,1.028842 -1.2652495,1.535856 -2.2978125,1.703366 -0.2072695,0.03363 -0.2473735,0.02294 -0.303995,-0.08101 z"/>
 <path style="fill:#f44336" d="m 10.235685,9.923076 c 6e-4,0.0036 9.49e-4,0.0071 0.0017,0.01075 0.02717,0.133461 -0.01779,0.213728 -0.287654,0.513893 -0.666406,0.741244 -1.48123,1.562901 -2.254648,2.290018 0.163474,0.179303 0.373658,0.408527 0.5610095,0.605651 0.505036,-0.517545 1.1017295,-1.091028 1.7711665,-1.698964 0.664522,-0.603473 0.934326,-0.830866 1.110177,-0.905953 -0.297399,-0.285979 -0.63434,-0.583311 -0.901726,-0.815402 z"/>
 <path style="fill:#f44336" d="m 16.262008,7.8152567 c -0.425445,0.3283029 -0.881152,0.7813589 -1.193513,1.0882649 l 0.176614,0.4078664 c 0.214801,0.495958 0.216652,0.54585 0.0267,0.740655 l -0.150027,0.153883 0.210015,0.369011 c 0.11552,0.202961 0.235405,0.36901 0.266429,0.36901 0.03102,0 0.121144,-0.04168 0.200297,-0.09264 0.172265,-0.110901 0.193519,-0.09323 0.414557,0.344534 l 0.169799,0.336193 -0.111822,0.215347 c -0.109864,0.211592 -0.109926,0.218569 -0.0039,0.394366 0.09418,0.156169 0.134554,0.17691 0.317369,0.162553 0.190135,-0.01493 0.218497,0.002 0.306197,0.18264 0.108147,0.222825 0.197758,0.247477 0.351218,0.0967 0.07587,-0.07454 0.138179,-0.109363 0.08635,-0.433111 l -0.01631,-0.03908 C 17.282611,12.041119 17.19325,11.705405 17.11336,11.365415 17.03347,11.025425 16.803687,10.06446 16.602733,9.229938 Z"/>
 <path style="fill:#f44336" d="m 13.480869,6.1275977 c -0.355321,0.1238445 -0.840138,0.2874665 -1.367782,0.4597815 -1.162528,0.379652 -1.536077,0.4946965 -1.704699,0.497978 L 9.866929,7.2573502 9.067642,7.7713527 9.468011,7.7275577 9.355966,7.8852822 9.89318,7.8599272 10.129336,7.6162612 c 0.211835,-0.041355 0.340227,-0.055958 0.537215,-0.071782 0.07136,-0.00573 -0.219917,0.2721405 -0.149468,0.26902 0.197522,-0.00875 0.407547,-0.020275 0.62446,-0.03282 0.115224,-0.00667 0.398924,-0.369831 0.513085,-0.400951 0.181124,-0.049375 0.367826,-0.04667 0.557099,-0.017235 0.427561,-0.1221865 1.216548,-1.1649565 1.269141,-1.2349015 z"/>
</svg>
