<svg xmlns="http://www.w3.org/2000/svg" width="22" height="22" version="1.1">
 <path style="opacity:0.2" d="M 12.99983,1.5000003 C 7.4769635,1.5000466 2.9998583,5.9773035 3,11.500171 c 4.72e-5,5.522734 4.4770965,9.999783 9.99983,9.999829 2.439733,-0.0045 4.793637,-0.90088 6.618503,-2.520196 l -7.163669,-7.055387 7.608752,-7.49398 C 18.190137,2.5563457 15.649619,1.5023732 12.99983,1.5000003 Z"/>
 <path style="fill:#17191e" d="M 12.99983,1.0000003 C 7.4769635,1.0000466 2.9998583,5.4773035 3,11.000171 3.0000472,16.522905 7.4770965,20.999954 12.99983,21 c 2.439733,-0.0045 4.793637,-0.90088 6.618503,-2.520196 L 12.454664,11.424417 20.063416,3.9304369 C 18.190137,2.0563457 15.649619,1.0023732 12.99983,1.0000003 Z"/>
 <path style="opacity:0.1;fill:#8b9cbe" d="M 13,1 C 7.4771335,1.0000463 2.9998584,5.4771325 3,11 c 7e-7,0.08383 0.0038,0.16666 0.00586,0.25 C 3.1388053,5.8430095 7.5609695,1.5000457 13,1.5 c 2.530262,0.00226 4.953654,0.9729518 6.798828,2.691406 L 20.063476,3.930664 C 18.190198,2.0565728 15.649788,1.0023729 13,1 Z m -0.291015,10.674805 -0.253907,0.25 6.884766,6.780273 c 0.09221,-0.07609 0.188611,-0.145982 0.27832,-0.225586 z"/>
 <circle style="opacity:0.2" cx="13" cy="11.5" r="6"/>
 <circle style="fill:#ececec" cx="13" cy="11" r="6"/>
 <circle style="opacity:0.1" cx="13" cy="11.5" r="2"/>
 <circle style="fill:#d64043" cx="13" cy="11" r="2"/>
</svg>
