<svg width="22" height="22" version="1.1" xmlns="http://www.w3.org/2000/svg">
 <g transform="translate(-1,-1)">
  <rect x="2" y="2.5" width="20" height="20" ry="2.5" style="opacity:.2"/>
  <rect x="2" y="2" width="20" height="20" ry="2.5" style="fill:#dcdcdc"/>
  <path d="m5.5429688 4.5c-0.8544746 0-1.5429688 0.6884942-1.5429688 1.5429688v0.4570312s1.1621353 1.0391376 1.4101562 1.7832031l0.4726563 0.9101563c0.235294 0.705882 1.1237875 0.8360986 1.1171875 1.3066406v3h1v1h1v-3l-1-1v-1h1l0.033203-1s-0.422574-0.7634995-0.796875-1.1875c-0.2321309-0.2629539-0.2246351-0.6933846-0.4726561-0.9414062-0.941177-0.9411766-1.7636719-1.8710938-1.7636719-1.8710938zm3.4570312 0s-0.0466566 1.7352086 0.1777344 2.3417969c0.072208 0.7525411 0.8222666 0.939568 0.8222656 1.4101562v1.2480469h1v1l-1 1v2h2l-1-1v-1h1v-1h1v4h1v-5l-1-1v-1h2v-2h1v2h1v1l-1 1v6h1v-3h1v1h1v-1l-1-1v-2s-0.342272-1.404812-0.822266-2.2871094c-0.237052-0.4357356-0.21187-0.9921024-0.472656-1.4140625-0.34988-0.5661186-1.410156-1.2988281-1.410156-1.2988281zm8.646484 0s0.280875 0.7409343 0.470704 1.1992188c0.134228 0.324056 0.390116 0.6000335 0.470703 0.9414062 0.10812 0.4579996-0.0036 0.9617132 0.132812 1.4121094 0.163896 0.5413085 0.279297 1.4472656 0.279297 1.4472656v2l1-1v-4.4570312c0-0.8544746-0.688494-1.5429688-1.542969-1.5429688zm-13.646484 5v2h1v1h-1v4h1v2h1v-3.333984l-1-0.666016v-1h1c0.0235-0.696012 0.066593-1.730988-0.017578-2.423828-0.1139021-0.735297-0.593007-0.710914-0.982422-0.896484-0.389412-0.1855685-1-0.679688-1-0.679688zm14 5v3h1v-3zm-6 1v3h1v-2h1v-1zm4 1v1h1v-1zm-9 1v1h1v1h1v-2zm11 1v1h1v-1z" style="opacity:.1"/>
  <path d="m5.5429688 4c-0.8544746 0-1.5429688 0.6884942-1.5429688 1.5429688v0.4570312s1.1621353 1.0391376 1.4101562 1.7832031l0.4726563 0.9101563c0.235294 0.705882 1.1237875 0.8360986 1.1171875 1.3066406v3h1v1h1v-3l-1-1v-1h1l0.033203-1s-0.422574-0.7634995-0.796875-1.1875c-0.2321309-0.2629539-0.2246351-0.6933846-0.4726561-0.9414062-0.941177-0.9411766-1.7636719-1.8710938-1.7636719-1.8710938zm3.4570312 0s-0.0466566 1.7352086 0.1777344 2.3417969c0.072208 0.7525411 0.8222666 0.939568 0.8222656 1.4101562v1.2480469h1v1l-1 1v2h2l-1-1v-1h1v-1h1v4h1v-5l-1-1v-1h2v-2h1v2h1v1l-1 1v6h1v-3h1v1h1v-1l-1-1v-2s-0.342272-1.404812-0.822266-2.2871094c-0.237052-0.4357356-0.21187-0.9921024-0.472656-1.4140625-0.34988-0.5661186-1.410156-1.2988281-1.410156-1.2988281zm8.646484 0s0.280875 0.7409343 0.470704 1.1992188c0.134228 0.324056 0.390116 0.6000335 0.470703 0.9414062 0.10812 0.4579996-0.0036 0.9617132 0.132812 1.4121094 0.163896 0.5413085 0.279297 1.4472656 0.279297 1.4472656v2l1-1v-4.4570312c0-0.8544746-0.688494-1.5429688-1.542969-1.5429688zm-13.646484 5v2h1v1h-1v4h1v2h1v-3.333984l-1-0.666016v-1h1c0.0235-0.696012 0.066593-1.730988-0.017578-2.423828-0.1139021-0.7352965-0.593007-0.7109138-0.982422-0.8964845-0.389412-0.185568-1-0.6796875-1-0.6796875zm14 5v3h1v-3zm-6 1v3h1v-2h1v-1zm4 1v1h1v-1zm-9 1v1h1v1h1v-2zm11 1v1h1v-1z" style="fill:#4f4f4f"/>
  <path d="m4.5 2c-1.385 0-2.5 1.115-2.5 2.5v0.5c0-1.385 1.115-2.5 2.5-2.5h15c1.385 0 2.5 1.115 2.5 2.5v-0.5c0-1.385-1.115-2.5-2.5-2.5z" style="fill:#8b9cbe;opacity:.2"/>
 </g>
</svg>
