<svg xmlns="http://www.w3.org/2000/svg" width="22" height="22" version="1.1">
 <rect style="opacity:0.2" width="20" height="20" x="1" y="1.5" rx="1" ry="1"/>
 <rect style="fill:#f79042" width="20" height="20" x="1" y="1" rx="1" ry="1"/>
 <path style="opacity:0.2;fill:#8b9cbe" d="M 2,1 C 1.446,1 1,1.446 1,2 v 0.5 c 0,-0.554 0.446,-1 1,-1 h 18 c 0.554,0 1,0.446 1,1 V 2 C 21,1.446 20.554,1 20,1 Z"/>
 <path style="opacity:0.2" d="m 12.523438,3.1542289 c -0.03037,0.034572 -0.0212,0.2961921 0.0039,0.5546875 0.0058,-0.1839257 0.0049,-0.3688206 0.01367,-0.5527344 -0.0069,-0.00738 -0.01253,-0.00769 -0.01758,-0.00195 z m 0.402343,0.5546875 c -0.05601,1.7797187 0.01385,3.5585784 0.101563,5.3359376 0.07664,3.216904 -0.03949,5.787527 0.04101,9.003906 0.518638,0.02508 1.197974,-0.04995 1.529297,0.101563 0.153755,-0.0503 0.222748,1.197359 0.441406,0.511718 -0.03508,-0.334963 -0.123951,-0.523681 -0.28125,-0.451171 0.484586,-0.409627 0.441041,0.253138 0.394532,0.771484 -0.05312,0.259359 -0.08828,0.451085 -0.02344,0.304687 -0.01044,0.165704 -0.0045,0.261799 0.06055,0.1875 0.08314,-0.855429 -0.09712,-1.728979 0.08398,-2.574218 0.278431,0.613817 0.297895,1.319581 0.292968,1.998047 0.0485,-0.235292 0.100573,-0.485242 0.09766,-0.566407 0.100937,-0.382458 0.932786,-0.337253 0.925782,0.08984 0.07376,-0.543385 -0.06087,-0.158833 0.449218,-0.332031 0.302183,-0.129358 0.895798,-0.162426 0.933594,0.113281 0.09814,-0.238786 0.100077,0.519925 0.205078,-0.04297 0.424335,-0.08912 0.8735,-0.328009 0.673828,-0.927734 -0.08973,-0.701228 0.123494,-1.391528 -0.783203,-1.150391 -0.812945,0.01773 -1.636009,-0.07283 -2.441406,0.02734 -0.448147,0.461753 -0.330403,-0.03183 -0.494141,-0.201172 -0.714729,0.326957 -0.276272,-0.906113 -0.123046,-1.199219 -0.06503,-3.323682 -0.0076,-6.000226 -0.02539,-9.3261715 C 15.069415,4.9918073 14.712456,4.9514584 14.615234,4.6464164 14.497322,5.227296 13.291692,5.0572841 13.550781,4.359307 13.25901,4.373087 13.22732,3.2972827 13.148438,4.171807 13.045758,4.4840887 12.963285,4.094906 12.925781,3.7089164 Z m 1.273438,0.6582031 c -0.01856,0.1172617 -0.0064,0.204218 0.01758,0.2792969 0.01607,-0.079167 0.01328,-0.1715909 -0.01758,-0.2792969 z M 4.8847656,4.499932 C 3.8715441,4.53047 4.1926339,5.6908158 4.203125,6.3710258 c 0.0171,1.345969 0.028816,2.6957352 -0.03125,4.0390622 -0.08239,1.077514 0.090256,2.16738 -0.017578,3.25 0.022265,0.794103 -0.035377,1.376737 0.027344,2.113282 0.010567,0.493777 0.061913,1.141528 -0.03125,1.550781 0.029584,-0.336899 -0.2078837,-1.521721 -0.1210937,-0.703125 -0.093663,0.501403 0.040431,1.220877 0.421875,1.412109 0.04849,0.343012 0.1189148,0.647596 0.2402343,0.337891 0.4264695,0.258209 0.3818515,-0.862827 0.6328126,-0.138672 0.175085,-0.218963 0.7873347,-0.433296 0.7617187,0.09961 0.472714,-0.649678 1.5285539,-0.34664 2.2714844,-0.390625 0.2609475,0.08925 1.3977337,-0.638998 1.8261717,-1.125 1.049403,-1.300661 0.790989,-2.981256 0.78125,-4.496094 -0.0082,-1.880779 0.157387,-3.781754 -0.177735,-5.6464839 C 10.353489,5.1075366 8.4031711,4.3629631 6.7773438,4.5585258 6.2176227,4.5725438 5.6633552,4.5395556 5.1054688,4.5096976 5.0255648,4.5012176 4.9523136,4.4978962 4.8847656,4.499932 Z m 2.0546875,1.7636719 c 0.052802,0.0022 0.1110185,0.00915 0.171875,0.021484 C 8.2636051,6.2333429 9.226394,7.3459166 8.8828125,8.3651661 8.8286935,8.717278 8.9453785,9.405776 8.7480469,9.046807 8.6701589,8.800888 8.9666433,8.2225601 8.6503909,8.0995411 8.5818089,9.042008 8.6102659,9.997494 8.7949222,10.92962 c 0.04298,0.642134 -0.2200064,1.113397 -0.2167969,1.792968 -0.1219125,0.756865 0.2253786,1.412336 0.011719,2.078125 -0.1405131,0.555805 -0.069174,-0.701984 -0.1171876,-0.921875 -0.167222,-0.795768 -0.2921672,0.515558 -0.025391,0.78125 0.093546,0.340547 -0.228038,0.02186 -0.1640625,0.458985 0.016165,0.280214 -0.082893,0.998359 -0.1347656,0.375 C 7.999412,15.626498 7.849623,15.822734 7.8359375,15.89251 7.287951,16.107308 6.58577,16.267517 6.3203125,15.712823 6.1145845,14.940789 6.302172,14.174687 6.234375,13.402276 6.484527,13.371406 6.2920692,12.481498 6.2382812,12.974541 6.1760753,12.361739 6.4682606,11.93553 6.5097656,11.535088 6.3876171,11.381789 6.2650254,10.490827 6.4042969,10.195244 6.3965269,9.758082 6.6071575,9.055504 6.359375,8.962823 6.5033725,8.4916101 6.2065994,7.8781205 6.3730469,7.5389945 6.4249914,8.020286 6.4793259,8.0475711 6.5058594,7.5175101 6.2393319,7.2746716 6.1474186,6.2303569 6.9394531,6.2636039 Z M 7.8574219,17.941338 c -0.01165,0.123568 0.050726,0.01013 0,0 z"/>
 <path style="fill:#8b9cbe" d="m 12.523438,2.6542969 c -0.03037,0.034572 -0.0212,0.2961921 0.0039,0.5546875 0.0058,-0.1839257 0.0049,-0.3688206 0.01367,-0.5527344 -0.0069,-0.00738 -0.01253,-0.00769 -0.01758,-0.00195 z m 0.402343,0.5546875 c -0.05601,1.7797187 0.01385,3.5585784 0.101563,5.3359376 0.07664,3.216904 -0.03949,5.787527 0.04101,9.003906 0.518638,0.02508 1.197974,-0.04995 1.529297,0.101563 0.153755,-0.0503 0.222748,1.197359 0.441406,0.511718 -0.03508,-0.334963 -0.123951,-0.523681 -0.28125,-0.451171 0.484586,-0.409627 0.441041,0.253138 0.394532,0.771484 -0.05312,0.259359 -0.08828,0.451085 -0.02344,0.304687 -0.01044,0.165704 -0.0045,0.261799 0.06055,0.1875 0.08314,-0.855429 -0.09712,-1.728979 0.08398,-2.574218 0.278431,0.613817 0.297895,1.319581 0.292968,1.998047 0.0485,-0.235292 0.100573,-0.485242 0.09766,-0.566407 0.100937,-0.382458 0.932786,-0.337253 0.925782,0.08984 0.07376,-0.543385 -0.06087,-0.158833 0.449218,-0.332031 0.302183,-0.129358 0.895798,-0.162426 0.933594,0.113281 0.09814,-0.238786 0.100077,0.519925 0.205078,-0.04297 0.424335,-0.08912 0.8735,-0.328009 0.673828,-0.927734 -0.08973,-0.701228 0.123494,-1.391528 -0.783203,-1.150391 -0.812945,0.01773 -1.636009,-0.07283 -2.441406,0.02734 -0.448147,0.461753 -0.330403,-0.03183 -0.494141,-0.201172 -0.714724,0.326966 -0.276267,-0.906104 -0.123041,-1.19921 -0.06503,-3.323682 -0.0076,-6.0002265 -0.02539,-9.3261715 C 15.069415,4.4918753 14.712456,4.4515264 14.615234,4.1464844 14.497322,4.727364 13.291692,4.5573521 13.550781,3.859375 13.25901,3.873155 13.22732,2.7973507 13.148438,3.671875 13.045758,3.9841567 12.963285,3.594974 12.925781,3.2089844 Z m 1.273438,0.6582031 c -0.01856,0.1172617 -0.0064,0.204218 0.01758,0.2792969 0.01607,-0.079167 0.01328,-0.1715909 -0.01758,-0.2792969 z M 4.8847656,4 C 3.8715441,4.030538 4.1926339,5.1908838 4.203125,5.8710938 c 0.0171,1.345969 0.028816,2.6957352 -0.03125,4.0390622 -0.08239,1.077514 0.090256,2.16738 -0.017578,3.25 0.022265,0.794103 -0.035377,1.376737 0.027344,2.113282 0.010567,0.493777 0.061913,1.141528 -0.03125,1.550781 0.029584,-0.336899 -0.2078837,-1.521721 -0.1210937,-0.703125 -0.093663,0.501403 0.040431,1.220877 0.421875,1.412109 0.04849,0.343012 0.1189148,0.647596 0.2402343,0.337891 0.4264695,0.258209 0.3818515,-0.862827 0.6328126,-0.138672 0.175085,-0.218963 0.7873347,-0.433296 0.7617187,0.09961 0.472714,-0.649678 1.5285539,-0.34664 2.2714844,-0.390625 0.2609475,0.08925 1.3977337,-0.638998 1.8261717,-1.125 1.049403,-1.300661 0.790989,-2.981256 0.78125,-4.496094 C 10.956644,9.939534 11.122231,8.0385591 10.787109,6.1738291 10.353489,4.6076046 8.4031711,3.8630311 6.7773438,4.0585938 6.2176227,4.0726118 5.6633552,4.0396236 5.1054688,4.0097656 5.0255648,4.0012856 4.9523136,3.9979642 4.8847656,4 Z m 2.0546875,1.7636719 c 0.052802,0.0022 0.1110185,0.00915 0.171875,0.021484 1.152277,-0.051745 2.1150659,1.0608287 1.7714844,2.0800782 -0.054119,0.352112 0.062566,1.0406099 -0.1347656,0.6816406 -0.077888,-0.2459191 0.2185964,-0.8242466 -0.097656,-0.9472656 -0.068582,0.9424666 -0.040125,1.8979529 0.1445313,2.8300789 0.04298,0.642134 -0.2200064,1.113397 -0.2167969,1.792968 -0.1219125,0.756865 0.2253786,1.412336 0.011719,2.078125 -0.1405131,0.555805 -0.069174,-0.701984 -0.1171876,-0.921875 -0.167222,-0.795768 -0.2921672,0.515558 -0.025391,0.78125 0.093546,0.340547 -0.228038,0.02186 -0.1640625,0.458985 0.016165,0.280214 -0.082893,0.998359 -0.1347656,0.375 -0.1490255,0.132425 -0.2988145,0.328661 -0.3125,0.398437 C 7.287951,15.607376 6.58577,15.767585 6.3203125,15.212891 6.1145845,14.440857 6.302172,13.674755 6.234375,12.902344 6.484527,12.871474 6.2920692,11.981566 6.2382812,12.474609 6.1760753,11.861807 6.4682606,11.435598 6.5097656,11.035156 6.3876171,10.881857 6.2650254,9.990895 6.4042969,9.695312 6.3965269,9.25815 6.6071575,8.555572 6.359375,8.4628906 6.5033725,7.9916781 6.2065994,7.3781885 6.3730469,7.0390625 6.4249914,7.520354 6.4793259,7.5476391 6.5058594,7.0175781 6.2393319,6.7747396 6.1474186,5.7304249 6.9394531,5.7636719 Z M 7.8574219,17.441406 c -0.01165,0.123568 0.050726,0.01013 0,0 z"/>
</svg>
