<svg width="22" height="22" version="1.1" xmlns="http://www.w3.org/2000/svg">
 <path d="m7.2499995 2.7500005 1.7500005 3.7499995 7-2s-14 8.249999-14 17c11.250001-7.5 17-9 17-9l-1-3-8 3s5-6 10-8c0-3-2-3-2-3z" style="opacity:.2"/>
 <path d="m7.2499995 2.2500005 1.7500005 3.7499995 7-2s-14 8.249999-14 17c11.250001-7.5 17-9 17-9l-1-3-8 3s5-6 10-8c0-3-2-3-2-3z" style="fill:#ea9f57"/>
 <path d="M 18 1 L 7.25 2.25 L 7.4707031 2.7246094 L 18 1.5 C 18 1.5 19.744939 1.5328929 19.958984 4.0195312 C 19.972825 4.013934 19.98616 4.0055361 20 4 C 20 1 18 1 18 1 z M 16 4.5 L 14.605469 4.8984375 C 11.139648 7.1907346 2 13.890624 2 21 C 2.0089094 20.99406 2.0164881 20.990307 2.0253906 20.984375 C 2.5551843 12.428898 16 4.5 16 4.5 z M 18 9 L 10.664062 11.75 C 10.326239 12.126458 10 12.5 10 12.5 L 18 9.5 L 18.849609 12.048828 C 18.863665 12.044966 19 12 19 12 L 18 9 z " style="fill:#8b9cbe;opacity:.2"/>
</svg>
