<svg width="22" height="22" version="1.1" xmlns="http://www.w3.org/2000/svg">
 <path d="m4 3.5h6l2 3.3333333 3-3.3333333h6l-6.5 8 4.5 8h-7l-1.5-3.2-2.5 3.2h-7l7-8.533333z" style="opacity:.2"/>
 <path d="m4 3h6l2 3.3333333 3-3.3333333h6l-6.5 8 4.5 8h-7l-1.5-3.2-2.5 3.2h-7l7-8.533333z" style="fill:#31bd5c"/>
 <path d="M 4,3 4.2675781,3.5 H 10 L 12,6.8339844 15,3.5 h 5.59375 L 21,3 H 15 L 12,6.3339844 10,3 Z M 7.8378906,10.664062 1,19 H 1.4101562 L 8,10.966797 Z M 14.666016,11.294922 14.5,11.5 18.71875,19 H 19 Z" style="fill:#8b9cbe;opacity:.2"/>
 <circle cx="16.5" cy="16.5" r="5.5" style="fill:#42a1cd"/>
 <path d="m 16.5,14 c 0,0 -0.355349,-0.007 -0.724609,0.177734 C 15.406136,14.362334 15,14.833351 15,15.5 h 1 C 16,15 16.5,15 16.5,15 c 0,0 0.5,0 0.5,0.5 0,0.22307 -0.0603,0.361384 -0.15625,0.5 H 16 v 1 h 0.84375 C 16.939704,17.138616 17,17.27693 17,17.5 17,18 16.5,18 16.5,18 16.5,18 16,18 16,17.5 h -1 c 0,0.666649 0.406136,1.137666 0.775391,1.322266 C 16.144651,19.007016 16.5,19 16.5,19 c 0,0 0.355344,0.0069 0.724609,-0.177734 C 17.593864,18.637666 18,18.166649 18,17.5 c 0,-0.385787 -0.11555,-0.724712 -0.283203,-1 h -0.002 C 17.883202,16.224345 18,15.886772 18,15.5 18,14.833351 17.593864,14.362334 17.224609,14.177734 16.855344,13.993084 16.5,14 16.5,14 Z" style="fill-rule:evenodd;fill:#8b9cbe"/>
</svg>
