<svg width="22" height="22" version="1.1" xmlns="http://www.w3.org/2000/svg">
 <g transform="translate(-1.006,-1)">
  <path d="m12.0098 2.043c-5.54 0-10 4.46-10 10s4.46 10 10 10 10-4.46 10-10-4.46-10-10-10z" style="fill:#8a0112"/>
  <path d="m12.0098 2.043c-5.54 0-10 4.46-10 10 0 0.084-2e-3 0.166 0 0.25 0.1322-5.423 4.544-9.75 10-9.75s9.868 4.327 10 9.75c2e-3 -0.084 0-0.166 0-0.25 0-5.54-4.46-10-10-10z" style="fill:#8b9cbe;opacity:.1"/>
  <path d="m2.0156 12.293c-2e-3 0.084-0.0058 0.166-0.0058 0.25 0 5.54 4.46 10 10 10s10-4.46 10-10c0-0.084-4e-3 -0.1665-6e-3 -0.25-0.132 5.423-4.538 9.75-9.994 9.75s-9.862-4.327-9.994-9.75z" style="opacity:.2"/>
  <g transform="matrix(.037708 0 0 -.037494 3.5098 21.451765)" style="fill:#17191e">
   <g>
    <path d="m186.98 323.4-75.443 115.38s-57.62-12.844-91.065-70.775c-33.455-57.92-15.852-114.38-15.852-114.38l137.65-7.649c0.48 15.102 4.552 30.319 12.645 44.33 8.081 14.003 19.217 25.142 32.061 33.109zm259.18-71.55-137.65-7.64c-0.477 15.101-4.566 30.313-12.648 44.321-8.093 13.997-19.223 25.144-32.071 33.111l75.453 115.38s57.705-12.99 91.149-70.926c33.445-57.927 15.763-114.24 15.763-114.24zm-222.3-84.5c16.176 0 31.393 4.068 44.714 11.201l62.21-123.03s-40.104-43.472-106.99-43.472c-66.895 0-106.82 43.472-106.82 43.472l62.206 123.03c13.319-7.133 28.531-11.201 44.701-11.201zm0 29.808c-26.949 0-48.799 21.848-48.799 48.795 0 26.956 21.851 48.799 48.799 48.799 26.961 0 48.799-21.843 48.799-48.799 0-26.954-21.844-48.795-48.799-48.795z" style="fill:#efc008"/>
   </g>
  </g>
 </g>
</svg>
