<svg xmlns="http://www.w3.org/2000/svg" width="22" height="22" version="1.1">
 <path style="opacity:0.2" d="m 8.5000102,2.4999488 0.2207031,0.011719 c 0,0 -1.4170513,-0.1932887 -3.0058593,0.2480468 C 4.9204499,2.9803822 4.0111825,3.3782383 3.2519633,4.1796363 2.4927442,4.9810343 2.0000102,6.1963818 2.0000102,7.4999488 c 0,2.6071332 1.8594319,4.3536132 3.3554688,5.1015612 1.4960368,0.747949 2.9238281,0.886719 2.9238281,0.886719 a 2.0002,2.0002 0 0 0 0.2207031,0.01172 l 2.4999998,0 a 2.0002,2.0002 0 0 0 0.355469,-0.0293 l 2.173828,0 c 0,0 0.7647,0.02715 1.4375,0.326172 0.6728,0.299024 1.0625,0.423839 1.0625,1.673828 0,0.446425 -0.07172,0.479137 -0.15625,0.568359 -0.08453,0.08922 -0.300269,0.224576 -0.630859,0.316407 -0.661181,0.183664 -1.492188,0.126956 -1.492188,0.126956 a 2.0002,2.0002 0 0 0 -0.220703,-0.01172 l -7.5292968,0 a 2.0002,2.0002 0 1 0 0,4 l 7.5292968,0 -0.222656,-0.01367 c 0,0 1.419004,0.193289 3.007812,-0.248047 0.794404,-0.220667 1.703672,-0.61657 2.462891,-1.417968 0.759219,-0.801398 1.251953,-2.016746 1.251953,-3.320313 0,-2.749989 -1.862265,-4.627148 -3.439453,-5.328125 C 15.012665,9.44155 13.529307,9.470652 13.529307,9.470652 l -2.5,0 a 2.0002,2.0002 0 0 0 -0.371094,0.0293 l -1.974609,0 C 8.6462096,9.494727 7.880712,9.391437 7.1445414,9.023386 6.3905897,8.6464459 6.0000102,8.3927969 6.0000102,7.4999488 c 0,-0.4464241 0.06977,-0.48109 0.1542969,-0.5703125 C 6.2388336,6.8404138 6.4545762,6.7070138 6.7851664,6.6151832 7.446347,6.4315219 8.2793071,6.48823 8.2793071,6.48823 a 2.0002,2.0002 0 0 0 0.2207031,0.011719 l 7.4999998,0 a 2.0002,2.0002 0 1 0 0,-4 l -7.4999998,0 z"/>
 <path style="fill:none;stroke:#ff990f;stroke-width:4;stroke-linecap:round;stroke-linejoin:round" d="m 11.028449,10.970139 2.499987,0 c 0,0 4.499977,1.1e-5 4.499977,3.99999 0,3.499983 -4.499977,2.999985 -4.499977,2.999985 l -7.5284462,0 m 4.9999742,-6.97015 -2.4999869,0 C 8.4999771,10.999964 4,10.500178 4,7.000196 4,3.5002139 8.4999771,4.0002113 8.4999771,4.0002113 l 7.4999619,0"/>
 <path style="opacity:0.1;fill:#8b9cbe" d="M 7.8144633,1.9708251 C 7.2615995,1.9776699 6.509258,2.0392199 5.714854,2.2598876 4.9204499,2.4805552 4.0111825,2.8784115 3.2519633,3.6798095 2.4927442,4.4812075 2.0000102,5.696555 2.0000102,7.000122 c 0,0.088914 0.017247,0.1689529 0.021484,0.2558594 C 2.079455,6.0472919 2.5411469,4.9301158 3.2519633,4.1798095 4.0111825,3.3784115 4.9204499,2.9805552 5.714854,2.7598876 7.303662,2.3185521 8.7207133,2.5118408 8.7207133,2.5118408 l -0.2207031,-0.011719 7.4999998,0 A 2.0002,2.0002 0 0 1 18.011729,4.2442626 2.0002,2.0002 0 0 0 16.00001,2.000122 l -7.4999998,0 0.2207031,0.011719 c 0,0 -0.3533862,-0.04786 -0.90625,-0.041016 z M 6.0293071,7.2266845 c -0.012893,0.074146 -0.029297,0.1280876 -0.029297,0.2734375 0,0.8928481 0.3905796,1.1464968 1.1445312,1.523438 0.7361707,0.36805 1.5016681,0.471337 1.5390626,0.476562 l 1.974609,0 a 2.0002,2.0002 0 0 1 0.371094,-0.0293 l 2.5,0 c 0,0 1.483358,-0.0291 3.060547,0.671875 1.525479,0.677996 3.302095,2.4642 3.417968,5.06836 0.0038,-0.08118 0.02148,-0.158282 0.02148,-0.240235 0,-2.749989 -1.862265,-4.627148 -3.439453,-5.328125 C 15.012665,8.9417228 13.529307,8.9708251 13.529307,8.9708251 l -2.5,0 a 2.0002,2.0002 0 0 0 -0.371094,0.029297 l -1.974609,0 C 8.6462095,8.9949005 7.8807121,8.8916102 7.1445414,8.5235595 6.4665165,8.1845789 6.0998035,7.920796 6.0293071,7.2266845 Z m 9.9746089,7.9765625 c -0.0255,0.182514 -0.06982,0.271515 -0.130859,0.335937 -0.08453,0.08922 -0.300269,0.224576 -0.630859,0.316407 -0.661181,0.183664 -1.492188,0.126953 -1.492188,0.126953 a 2.0002,2.0002 0 0 0 -0.220703,-0.01172 l -7.5292968,10e-7 a 2.0002,2.0002 0 0 0 -2.0117188,2.255859 2.0002,2.0002 0 0 1 2.0117188,-1.755859 l 7.5292968,0 a 2.0002,2.0002 0 0 1 0.220703,0.01172 c 0,0 0.831007,0.05671 1.492188,-0.126953 0.33059,-0.09183 0.546329,-0.227186 0.630859,-0.316407 0.08453,-0.08922 0.15625,-0.121934 0.15625,-0.568359 0,-0.112052 -0.0192,-0.172673 -0.02539,-0.267578 z"/>
 <path style="fill:#ffd56a;fill-rule:evenodd" d="m 10.985316,3.388e-4 c -0.551897,0.00808 -0.9928968,0.4611467 -0.9853468,1.0123159 l 0,7.9874673 1.9999898,0 0,-7.9874673 C 12.007659,0.450028 11.548686,-0.007899 10.985316,3.388e-4 Z m -0.9853468,12.9997832 0,7.987 c -0.01912,1.350504 2.0191048,1.350504 1.9999898,0 l 0,-7.987 z"/>
 <rect style="opacity:0.2" width="2" height=".5" x="10" y="13"/>
 <path style="opacity:0.2;fill:#8b9cbe;fill-rule:evenodd" d="M 10.984385,1.22e-4 C 10.432488,0.008202 9.9924602,0.4606715 10.00001,1.0118408 l 0,0.5 c -0.00755,-0.5511692 0.432478,-1.0036388 0.984375,-1.0117188 0.56337,-0.008238 1.023331,0.4490921 1.015625,1.0117188 l 0,-0.5 C 12.007716,0.449214 11.547755,-0.0081158 10.984385,1.22e-4 Z"/>
</svg>
