<svg xmlns="http://www.w3.org/2000/svg" width="22" height="22" version="1">
 <ellipse style="fill:#8b9cbe;stroke:#000000;stroke-width:0;stroke-linecap:round;stroke-linejoin:round" cx="10.999" cy="11.001" rx="9.749" ry="9.749"/>
 <circle style="opacity:0.2;stroke:#000000;stroke-width:0;stroke-linecap:round;stroke-linejoin:round" cx="10.999" cy="11.501" r="9.999"/>
 <path style="fill:#e040fb;stroke:#000000;stroke-width:0;stroke-linecap:round;stroke-linejoin:round" d="M 19.658693,6.001231 A 9.999206,9.999206 0 0 0 5.9995236,2.3412675 9.999206,9.999206 0 0 0 2.3278143,6.0453344 l 8.6713127,4.9554986 z"/>
 <path style="fill:#fdfd4b;stroke:#000000;stroke-width:0;stroke-linecap:round;stroke-linejoin:round" d="m 19.658693,6.001231 -8.659566,4.999602 -0.04443,9.988661 A 9.999206,9.999206 0 0 0 15.99873,19.6604 9.999206,9.999206 0 0 0 19.658693,6.001231 Z"/>
 <path style="fill:#18ffff;stroke:#000000;stroke-width:0;stroke-linecap:round;stroke-linejoin:round" d="M 10.999127,11.000833 2.3278143,6.0453344 a 9.999206,9.999206 0 0 0 0.011746,9.9551016 9.999206,9.999206 0 0 0 8.6151417,4.989058 z"/>
 <path style="opacity:0.2;fill:#8b9cbe;stroke:#000000;stroke-width:0;stroke-linecap:round;stroke-linejoin:round" d="m 10.999127,1.001628 a 9.999206,9.999207 0 0 0 -9.9992064,9.999205 9.999206,9.999207 0 0 0 0.010741,0.290993 9.999206,9.999207 0 0 1 9.9884654,-9.7902377 9.999206,9.999207 0 0 1 9.988464,9.7082127 9.999206,9.999207 0 0 0 0.01074,-0.208968 9.999206,9.999207 0 0 0 -9.999206,-9.999205 z"/>
 <path style="opacity:0.1" d="M 12.429748,12.556991 C 10.916272,13.950799 8.0045404,11.739937 6.775534,10.351411 5.5114619,8.9232624 0.7914516,4.1065009 0.4464543,3.7941065 0.1014734,3.4817236 -0.173277,3.0959447 0.1317743,2.7121201 0.4493413,2.3383197 0.8885002,2.524036 1.2693821,2.7927331 1.6502888,3.0614398 7.3996164,6.6256805 9.076335,7.5517124 c 1.630188,0.9003425 4.422901,3.2560426 3.353413,5.0052786 z"/>
 <path style="fill:#4f4f4f" d="M 12.429748,12.056922 C 10.916272,13.45073 8.0045404,11.239868 6.775534,9.8513425 5.5114619,8.4231936 0.7914516,3.6064323 0.4464543,3.2940377 0.1014734,2.9816548 -0.173277,2.595876 0.1317743,2.2120513 0.4493413,1.8382509 0.8885002,2.0239672 1.2693821,2.2926642 1.6502888,2.5613709 7.3996164,6.1256116 9.076335,7.0516435 c 1.630188,0.9003425 4.422901,3.2560425 3.353413,5.0052785 z"/>
 <path style="opacity:0.1" d="M 14.857668,13.887595 C 8.9508302,19.067974 4.1196264,14.103217 3.3710734,12.383372 c 0.4426581,2.985164 2.4887523,5.656532 5.5797568,6.684602 2.3344688,0.776431 6.0596408,0.75841 7.7296998,-2.199587 z"/>
 <path style="fill:#4883f7" d="m 14.857668,13.387634 c -5.9068378,5.18038 -10.7380416,0.215622 -11.4865946,-1.504222 0.4426581,2.985163 2.4887523,5.656532 5.5797568,6.684602 2.3344688,0.77643 6.0596408,0.758409 7.7296998,-2.199587 z"/>
 <path style="opacity:0.1" d="m 14.83324,14.375207 c -0.482505,0.217248 -0.430325,0.374272 -0.858746,0.306535 -0.295489,-0.04672 -2.855307,-1.954314 -2.855307,-1.954314 -0.129749,-0.306111 0.02589,-0.726931 0.318253,-1.059997 0.271161,-0.349966 0.657883,-0.586522 0.98933,-0.524885 0,0 2.426869,2.068736 2.534348,2.343338 0.155831,0.398142 -0.01122,0.380351 -0.127878,0.889323 z"/>
 <path style="fill:#9b9b9b" d="m 14.83324,13.875138 c -0.482505,0.217248 -0.430325,0.374272 -0.858746,0.306535 -0.295489,-0.04672 -2.855307,-1.954314 -2.855307,-1.954314 -0.129749,-0.306111 0.02589,-0.726931 0.318253,-1.059997 0.271161,-0.349965 0.657883,-0.586522 0.98933,-0.524885 0,0 2.426869,2.068737 2.534348,2.343338 0.155831,0.398142 -0.01122,0.380352 -0.127878,0.889323 z"/>
 <path style="opacity:0.1" d="m 15.107902,18.522236 c 1.814534,-1.006471 2.298879,-2.781619 1.582393,-4.064388 -0.556777,-0.996828 -1.470975,-1.185293 -2.102407,-0.703298 -0.626395,0.47815 -0.681615,1.04791 -0.494765,1.613779 0.381051,1.154118 1.957362,1.963589 1.014779,3.153907 z"/>
 <path style="fill:#17191e" d="m 15.107902,18.022167 c 1.814534,-1.006471 2.298879,-2.781619 1.582393,-4.064387 -0.556777,-0.996829 -1.470975,-1.185294 -2.102407,-0.703299 -0.626395,0.478151 -0.681615,1.04791 -0.494765,1.613779 0.381051,1.154119 1.957362,1.963589 1.014779,3.153907 z"/>
</svg>
