<svg xmlns="http://www.w3.org/2000/svg" width="22" height="22" version="1">
 <rect style="opacity:0.2" width="20" height="20" x="-21.5" y="-21" rx="2" ry="2" transform="matrix(0,-1,-1,0,0,0)"/>
 <rect style="fill:#9bca6b" width="2" height="2" x="1" y="5" ry="0"/>
 <rect style="fill:#583c28" width="2" height="2" x="3" y="11" ry="0"/>
 <rect style="fill:#b8845b" width="2" height="2" x="-11" y="11" ry="0" transform="scale(-1,1)"/>
 <rect style="fill:#785439" width="2" height="2" x="-9" y="11" ry="0" transform="scale(-1,1)"/>
 <rect style="fill:#956b49" width="2" height="2" x="-11" y="9" ry="0" transform="scale(-1,1)"/>
 <rect style="fill:#785439" width="2" height="2" x="7" y="9" ry="0"/>
 <rect style="fill:#583c28" width="2" height="2" x="-9" y="7" ry="0" transform="scale(-1,1)"/>
 <rect style="fill:#9bca6b" width="2" height="2" x="19" y="3" ry="0"/>
 <path style="fill:#72b248" d="m 3,1.0000019 v 2 H 1 c 0,-2 2,-2 2,-2 z"/>
 <rect style="fill:#b8845b" width="2" height="2" x="9" y="15" ry="0"/>
 <rect style="fill:#785439" width="2" height="2" x="5" y="15" ry="0"/>
 <rect style="fill:#b8845b" width="2" height="2" x="-13" y="-15" ry="0" transform="scale(-1)"/>
 <rect style="fill:#785439" width="2" height="2" x="5" y="11" ry="0"/>
 <rect style="fill:#583c28" width="2" height="2" x="5" y="9" ry="0"/>
 <rect style="fill:#6b6b6b" width="2" height="2" x="-13" y="9" ry="0" transform="scale(-1,1)"/>
 <rect style="fill:#956b49" width="2" height="2" x="11" y="7" ry="0"/>
 <rect style="fill:#60a036" width="2" height="2" x="-7" y="5" ry="0" transform="scale(-1,1)"/>
 <rect style="fill:#b8845b" width="2" height="2" x="-3" y="-17" ry="0" transform="scale(-1)"/>
 <rect style="fill:#785439" width="2" height="2" x="-13" y="-17" ry="0" transform="scale(-1)"/>
 <rect style="fill:#785439" width="2" height="2" x="-5" y="-17" ry="0" transform="scale(-1)"/>
 <rect style="fill:#956b49" width="2" height="2" x="-15" y="11" ry="0" transform="scale(-1,1)"/>
 <rect style="fill:#9bca6b" width="2" height="2" x="3" y="3" ry="0"/>
 <rect style="fill:#72b248" width="2" height="2" x="9" y="5" ry="0"/>
 <rect style="fill:#56962c" width="2" height="2" x="11" y="5" ry="0"/>
 <rect style="fill:#60a036" width="2" height="2" x="13" y="5" ry="0"/>
 <rect style="fill:#72b248" width="2" height="2" x="-15" y="7" ry="0" transform="scale(-1,1)"/>
 <rect style="fill:#785439" width="2" height="2" x="-5" y="9" ry="0" transform="scale(-1,1)"/>
 <rect style="fill:#56962c" width="2" height="2" x="-9" y="5" ry="0" transform="scale(-1,1)"/>
 <rect style="fill:#60a036" width="2" height="2" x="-3" y="3" ry="0" transform="scale(-1,1)"/>
 <rect style="fill:#583c28" width="2" height="2" x="13" y="-17" ry="0" transform="scale(1,-1)"/>
 <rect style="fill:#785439" width="2" height="2" x="-17" y="19" ry="0" transform="scale(-1,1)"/>
 <rect style="fill:#785439" width="2" height="2" x="7" y="19" ry="0"/>
 <rect style="fill:#956b49" width="2" height="2" x="9" y="19" ry="0"/>
 <rect style="fill:#956b49" width="2" height="2" x="5" y="-21" ry="0" transform="scale(1,-1)"/>
 <rect style="fill:#785439" width="2" height="2" x="-13" y="-21" ry="0" transform="scale(-1)"/>
 <rect style="fill:#583c28" width="2" height="2" x="5" y="17" ry="0"/>
 <rect style="fill:#6b6b6b" width="2" height="2" x="7" y="17" ry="0"/>
 <rect style="fill:#785439" width="2" height="2" x="11" y="17" ry="0"/>
 <rect style="fill:#583c28" width="2" height="2" x="9" y="17" ry="0"/>
 <rect style="fill:#583c28" width="2" height="2" x="15" y="17" ry="0"/>
 <rect style="fill:#6b6b6b" width="2" height="2" x="-5" y="-19" ry="0" transform="scale(-1)"/>
 <rect style="fill:#b8845b" width="2" height="2" x="3" y="-21" ry="0" transform="scale(1,-1)"/>
 <rect style="fill:#b8845b" width="2" height="2" x="-17" y="11" ry="0" transform="scale(-1,1)"/>
 <rect style="fill:#956b49" width="2" height="2" x="-17" y="9" ry="0" transform="scale(-1,1)"/>
 <rect style="fill:#9bca6b" width="2" height="2" x="15" y="1" ry="0"/>
 <rect style="fill:#785439" width="2" height="2" x="15" y="-17" ry="0" transform="scale(1,-1)"/>
 <rect style="fill:#72b248" width="2" height="2" x="15" y="5" ry="0"/>
 <rect style="fill:#583c28" width="2" height="2" x="-19" y="-17" ry="0" transform="scale(-1)"/>
 <rect style="fill:#72b248" width="2" height="2" x="-15" y="1" ry="0" transform="scale(-1,1)"/>
 <rect style="fill:#60a036" width="2" height="2" x="11" y="1" ry="0"/>
 <rect style="fill:#72b248" width="2" height="2" x="3" y="1" ry="0"/>
 <rect style="fill:#56962c" width="2" height="2" x="5" y="1" ry="0"/>
 <rect style="fill:#56962c" width="2" height="2" x="9" y="1" ry="0"/>
 <rect style="fill:#72b248" width="2" height="2" x="7" y="1" ry="0"/>
 <rect style="fill:#b8845b" width="2" height="2" x="-3" y="-9" ry="0" transform="scale(-1)"/>
 <rect style="fill:#b8845b" width="2" height="2" x="1" y="-19" ry="0" transform="scale(1,-1)"/>
 <rect style="fill:#785439" width="2" height="2" x="-9" y="15" ry="0" transform="scale(-1,1)"/>
 <rect style="fill:#956b49" width="2" height="2" x="1" y="11" ry="0"/>
 <rect style="fill:#583c28" width="2" height="2" x="1" y="9" ry="0"/>
 <rect style="fill:#b8845b" width="2" height="2" x="-7" y="7" ry="0" transform="scale(-1,1)"/>
 <rect style="fill:#56962c" width="2" height="2" x="13" y="3" ry="0"/>
 <rect style="fill:#60a036" width="2" height="2" x="15" y="3" ry="0"/>
 <rect style="fill:#56962c" width="2" height="2" x="-11" y="3" ry="0" transform="scale(-1,1)"/>
 <rect style="fill:#72b248" width="2" height="2" x="11" y="3" ry="0"/>
 <path style="fill:#72b248" d="m 19,1.0000019 c 0,0 2,0 2,2 h -2 z"/>
 <rect style="fill:#72b248" width="2" height="2" x="17" y="3" ry="0"/>
 <rect style="fill:#72b248" width="2" height="2" x="17" y="1" ry="0"/>
 <rect style="fill:#56962c" width="2" height="2" x="-7" y="3" ry="0" transform="scale(-1,1)"/>
 <rect style="fill:#56962c" width="2" height="2" x="17" y="5" ry="0"/>
 <rect style="fill:#56962c" width="2" height="2" x="19" y="7" ry="0"/>
 <rect style="fill:#9bca6b" width="2" height="2" x="7" y="3" ry="0"/>
 <rect style="fill:#b8845b" width="2" height="2" x="-7" y="13" ry="0" transform="scale(-1,1)"/>
 <rect style="fill:#785439" width="2" height="2" x="3" y="-15" ry="0" transform="scale(1,-1)"/>
 <rect style="fill:#583c28" width="2" height="2" x="7" y="-15" ry="0" transform="scale(1,-1)"/>
 <rect style="fill:#785439" width="2" height="2" x="9" y="-15" ry="0" transform="scale(1,-1)"/>
 <rect style="fill:#b8845b" width="2" height="2" x="-19" y="7" ry="0" transform="scale(-1,1)"/>
 <rect style="fill:#785439" width="2" height="2" x="13" y="-11" ry="0" transform="scale(1,-1)"/>
 <rect style="fill:#583c28" width="2" height="2" x="17" y="-11" ry="0" transform="scale(1,-1)"/>
 <rect style="fill:#785439" width="2" height="2" x="19" y="-11" ry="0" transform="scale(1,-1)"/>
 <path style="fill:#583c28" d="m 3,21.000002 v -2 H 1 c 0,0 0,2 2,2 z"/>
 <rect style="fill:#6b6b6b" width="2" height="2" x="-3" y="13" ry="0" transform="scale(-1,1)"/>
 <rect style="fill:#6b6b6b" width="2" height="2" x="-13" y="9" ry="0" transform="scale(-1,1)"/>
 <rect style="fill:#6b6b6b" width="2" height="2" x="-5" y="7" ry="0" transform="scale(-1,1)"/>
 <rect style="fill:#6b6b6b" width="2" height="2" x="-17" y="-9" ry="0" transform="scale(-1)"/>
 <rect style="fill:#b8845b" width="2" height="2" x="-21" y="5" ry="0" transform="scale(-1,1)"/>
 <rect style="fill:#b8845b" width="2" height="2" x="13" y="19" ry="0"/>
 <rect style="fill:#785439" width="2" height="2" x="-15" y="13" ry="0" transform="scale(-1,1)"/>
 <rect style="fill:#b8845b" width="2" height="2" x="-19" y="13" ry="0" transform="scale(-1,1)"/>
 <rect style="fill:#956b49" width="2" height="2" x="-21" y="13" ry="0" transform="scale(-1,1)"/>
 <rect style="fill:#785439" width="2" height="2" x="-5" y="-7" ry="0" transform="scale(-1)"/>
 <rect style="fill:#6b6b6b" width="2" height="2" x="15" y="13" ry="0"/>
 <rect style="fill:#583c28" width="2" height="2" x="19" y="15" ry="0"/>
 <rect style="fill:#956b49" width="2" height="2" x="-19" y="11" ry="0" transform="scale(-1,1)"/>
 <rect style="fill:#b8845b" width="2" height="2" x="-11" y="7" ry="0" transform="scale(-1,1)"/>
 <rect style="fill:#785439" width="2" height="2" x="19" y="17" ry="0"/>
 <rect style="fill:#b8845b" width="2" height="2" x="-19" y="19" ry="0" transform="scale(-1,1)"/>
 <path style="fill:#6b6b6b" d="m 19,19.000002 h 2 c 0,2 -2,2 -2,2 z"/>
 <rect style="fill:#785439" width="2" height="2" x="-19" y="-19" ry="0" transform="scale(-1)"/>
 <rect style="fill:#785439" width="2" height="2" x="11" y="11" ry="0"/>
 <rect style="fill:#583c28" width="2" height="2" x="19" y="-13" ry="0" transform="scale(1,-1)"/>
 <rect style="fill:#785439" width="2" height="2" x="13" y="-19" ry="0" transform="scale(1,-1)"/>
 <path style="opacity:0.2;fill:#8b9cbe" d="m 3,1.0000019 c -1.108,0 -2,0.892 -2,2 v 0.5 c 0,-1.108 0.892,-2 2,-2 h 16 c 1.108,0 2,0.892 2,2 v -0.5 c 0,-1.108 -0.892,-2 -2,-2 z"/>
</svg>
