<svg xmlns="http://www.w3.org/2000/svg" width="22" height="22" x="0" y="0" version="1.1" xml:space="preserve">
 <path style="opacity:0.2" d="m 5.9995766,1.5 c -0.551789,0 -1,0.4482109 -1,1 0,0.061043 0.024652,0.1138334 0.035156,0.171875 C 4.7359724,2.4796268 4.3495892,2.4392124 4.0171547,2.6230469 3.5342183,2.8878831 3.3575149,3.4975321 3.6245766,3.9804688 3.8916383,4.4656307 4.4968365,4.6420617 4.9819985,4.375 5.3659819,4.1644284 5.3880248,4.2375357 5.3160316,3.8279688 c 0.1554366,0.099564 0.3292754,0.171875 0.5273438,0.171875 0.010396,0 0.018977,-0.00554 0.029297,-0.00586 -0.1179143,0.560344 0.3162871,0.6459001 0.8593261,0.892735 C 7.360475,5.1723897 8.1026644,4.896058 8.3862954,4.2675781 8.671967,3.6411419 8.3956292,2.8989524 7.7671547,2.6132812 7.5126917,2.4976163 7.2434179,2.4939292 6.989811,2.5488281 6.9906842,2.5317164 6.9995766,2.5173267 6.9995766,2.5 c 0,-0.5517891 -0.4482105,-1 -1,-1 z"/>
 <path style="opacity:0.2" d="m 3.0509912,5.8400195 c 5.75e-5,0.014535 -9.75e-4,0.02961 -9.75e-4,0.043945 C 3.0500147,6.1329445 1.997963,6.5840205 2.000003,7.833 2.5836765,7.500347 3.466228,7.499992 3.5499015,7.499992 3.56025,7.514502 3.572561,7.526697 3.5831045,7.541007 3.2468203,7.112076 3.0600381,6.384985 3.0509912,5.8400195 Z"/>
 <path style="opacity:0.2" d="m 10.473697,18.167969 c -0.0041,0.0031 0.005,0.03034 0.0323,0.0625 -0.01457,-0.03556 -0.02918,-0.06487 -0.0323,-0.0625 z m 0.0323,0.0625 c 0.0039,0.0095 0.0044,0.0036 0.0088,0.0166 0.29545,0.806949 -0.166201,1.392294 -0.285841,1.527343 -0.965,0.101024 -1.880693,0.486013 -1.953448,0.558594 -0.3334415,0.25102 -0.333262,0.666949 -0.1634675,0.917969 C 8.279793,21.416283 8.529682,21.5 8.6974305,21.5 8.865179,21.5 9.030881,21.41668 9.19863,21.333008 9.364332,21.249334 10.099088,20.5 10.684162,20.5 c 0.585074,0 0.968001,0.665661 1.13575,0.833008 0.333451,0.248979 0.752822,0.164995 1.002399,-0.08398 0.249577,-0.248979 0.249266,-0.664995 -0.08419,-0.916015 -0.03273,-0.03265 -0.23424,-0.132288 -0.502178,-0.237305 -9.5e-4,-0.0051 9e-5,-0.0084 -0.001,-0.01367 0,0 -0.550365,-0.249334 -0.550365,-1.333008 0,-0.167346 -0.335453,-0.499689 -0.752778,-0.416015 -0.248221,0.04144 -0.372775,-0.04001 -0.425826,-0.102539 z"/>
 <path style="fill:#ff9d20" d="m 3.0509912,5.3400195 c 5.75e-5,0.014535 -9.75e-4,0.02961 -9.75e-4,0.043945 C 3.0500147,5.6329445 1.997963,6.0840205 2.000003,7.333 2.5836765,7.000347 3.466228,6.999992 3.5499015,6.999992 3.56025,7.014502 3.572561,7.026697 3.5831045,7.041007 3.2468203,6.612076 3.0600381,5.884985 3.0509912,5.3400195 Z"/>
 <path style="fill:#ff9d20" d="m 10.473697,17.667969 c -0.0041,0.0031 0.005,0.03034 0.0323,0.0625 -0.01457,-0.03556 -0.02918,-0.06487 -0.0323,-0.0625 z m 0.0323,0.0625 c 0.0039,0.0095 0.0044,0.0036 0.0088,0.0166 0.29545,0.806949 -0.166201,1.392294 -0.285841,1.527343 -0.965,0.101024 -1.880693,0.486013 -1.953448,0.558594 -0.3334415,0.25102 -0.333262,0.666949 -0.1634675,0.917969 C 8.279793,20.916283 8.529682,21 8.6974305,21 8.865179,21 9.030881,20.916681 9.19863,20.833008 9.364332,20.749334 10.099088,20 10.684162,20 c 0.585074,0 0.968001,0.665661 1.13575,0.833008 0.333451,0.248979 0.752822,0.164995 1.002399,-0.08398 0.249577,-0.248979 0.249266,-0.664995 -0.08419,-0.916015 -0.03273,-0.03265 -0.23424,-0.132288 -0.502178,-0.237305 -9.5e-4,-0.0051 9e-5,-0.0084 -0.001,-0.01367 0,0 -0.550365,-0.249334 -0.550365,-1.333008 0,-0.167346 -0.335453,-0.499689 -0.752778,-0.416015 -0.248221,0.04144 -0.372775,-0.04001 -0.425826,-0.102539 z"/>
 <path style="fill:#e53d3d" d="m 5.9995766,1 c -0.551789,0 -1,0.4482109 -1,1 0,0.061043 0.024652,0.1138334 0.035156,0.171875 C 4.7359724,1.9796268 4.3495892,1.9392124 4.0171547,2.1230469 3.5342183,2.3878831 3.3575149,2.9975321 3.6245766,3.4804688 3.8916383,3.9656307 4.4968365,4.1420617 4.9819985,3.875 5.3659819,3.6644284 5.3880248,3.7375357 5.3160316,3.3279688 c 0.1554366,0.099564 0.3292754,0.171875 0.5273438,0.171875 0.010396,0 0.018977,-0.00554 0.029297,-0.00586 -0.1179143,0.560344 0.3162871,0.6459001 0.8593261,0.892735 C 7.360475,4.6723897 8.1026644,4.396058 8.3862954,3.7675781 8.671967,3.1411419 8.3956292,2.3989524 7.7671547,2.1132812 7.5126917,1.9976163 7.2434179,1.9939292 6.989811,2.0488281 6.9906842,2.0317164 6.9995766,2.0173267 6.9995766,2 c 0,-0.5517891 -0.4482105,-1 -1,-1 z"/>
 <path style="opacity:0.2" d="m 5.500003,3.499504 c -1.3256819,0.00158 -2.419631,1.0376862 -2.4931641,2.361328 -0.0071,0.05974 -0.00609,0.119592 -0.00586,0.178711 1.63e-5,0.001 -1.73e-5,0.00195 0,0.00295 0.00967,0.5439235 0.1965457,1.069885 0.5322266,1.4980465 C 3.9468438,8.101873 5,8.518128 5,9.250481 5,10.666807 4,11.666496 4,13.666496 4,17.833843 8.9007475,19.5 11.233401,19.5 c 1.169988,0 2.103817,-0.227777 2.697265,-0.458008 2.475296,-1.069924 3.44806,-3.661547 6.069336,-5.041992 -0.25102,-0.332653 -0.332653,-0.833118 -1,-1.000465 0.334694,-0.416326 0.416327,-0.416326 1,-0.5 -0.416326,-0.5 -0.765936,-0.99707 -1.349609,-0.99707 C 19.650393,11.251444 21,8.7505245 21,7.499504 c -0.332653,0.832653 -3.184922,3 -8.017576,3 C 9.610645,10.209381 8.769317,7.02171 7.6347685,4.702629 7.1888875,3.9675317 6.385277,3.5004594 5.500003,3.499504 Z"/>
 <path style="fill:#d8bfa2" d="m 5.500003,2.999504 c -1.3256819,0.00158 -2.419631,1.0376862 -2.4931641,2.361328 -0.0071,0.05974 -0.00609,0.119592 -0.00586,0.178711 1.63e-5,0.001 -1.73e-5,0.00195 0,0.00295 0.00967,0.5439235 0.1965457,1.069885 0.5322266,1.4980465 C 3.9468438,7.601873 5,8.018128 5,8.7504805 5,10.166807 4,11.166496 4,13.166496 4,17.333843 8.9007475,19 11.233401,19 c 1.169988,0 2.103817,-0.227777 2.697265,-0.458008 2.475296,-1.069924 3.44806,-3.661547 6.069336,-5.041992 -0.25102,-0.332653 -0.332653,-0.833118 -1,-1.000465 0.334694,-0.416326 0.416327,-0.416326 1,-0.5 -0.416326,-0.5 -0.765936,-0.99707 -1.349609,-0.99707 C 19.650393,10.751444 21,8.2505245 21,6.999504 c -0.332653,0.832653 -3.184922,3 -8.017576,3 C 9.610645,9.709381 8.769317,6.52171 7.6347685,4.202629 7.1888875,3.4675317 6.385277,3.0004594 5.500003,2.999504 Z"/>
 <path style="opacity:0.2" d="m 5.5,7 c 0.497959,0 1,-0.502041 1,-1 0,-0.497959 -0.497959,-1 -1,-1 -0.502041,0 -1,0.502041 -1,1 0,0.497959 0.497959,1 1,1 z"/>
 <path style="fill:#8b9cbe" d="m 5.5,6.5 c 0.497959,0 1,-0.502041 1,-1 0,-0.497959 -0.497959,-1 -1,-1 -0.502041,0 -1,0.502041 -1,1 0,0.497959 0.497959,1 1,1 z"/>
 <circle style="fill:#17191e" cx="5.5" cy="5.5" r=".5"/>
 <path style="opacity:0.1;fill:#8b9cbe" d="M 6,1 C 5.448211,1 5,1.4482109 5,2 5,2.061043 5.0246522,2.1138334 5.0351562,2.171875 4.736396,1.9796268 4.3500126,1.9392124 4.0175781,2.1230469 3.6193223,2.3414453 3.445631,2.7918981 3.5410156,3.2148438 3.6130867,2.9713456 3.7780273,2.7544135 4.0175781,2.6230469 4.3500126,2.4392124 4.736396,2.4796268 5.0351562,2.671875 5.0246522,2.6138334 5,2.561043 5,2.5 c 0,-0.5517891 0.448211,-1 1,-1 0.5517895,0 1,0.4482109 1,1 C 7,2.517327 6.99111,2.531716 6.99023,2.548828 7.2438369,2.493929 7.5131107,2.497616 7.7675737,2.613281 8.1610023,2.7921128 8.3930304,3.154536 8.45898,3.550781 8.6013815,2.9787626 8.3246355,2.36649 7.7675781,2.1132812 7.5131151,1.9976163 7.2438413,1.9939292 6.9902344,2.0488281 6.9911076,2.0317164 7,2.0173267 7,2 7,1.4482109 6.5517895,1 6,1 Z"/>
 <path style="opacity:0.2;fill:#8b9cbe" d="M 5.5,3 C 4.1743181,3.00158 3.0813456,4.0376863 3.0078125,5.3613281 c -0.0071,0.05974 -0.00609,0.1186154 -0.00586,0.1777344 1.63e-5,0.001 -1.73e-5,0.00291 0,0.00391 0.0013,0.073285 0.013817,0.1443588 0.021484,0.2167968 C 3.1468249,4.4862252 4.2092252,3.5015384 5.5,3.5 6.385274,3.5009554 7.1888846,3.9680277 7.6347656,4.703125 8.7693141,7.022206 9.610643,10.209877 12.982422,10.5 17.577016,10.5 20.353267,8.553106 20.904297,7.6445312 20.960108,7.4103835 21,7.1891133 21,7 20.667347,7.832653 17.815076,10 12.982422,10 9.610643,9.709877 8.7693141,6.522206 7.6347656,4.203125 7.1888846,3.4680277 6.385274,3.0009554 5.5,3 Z M 4.9707031,9.091797 C 4.8312862,10.336334 4,11.331768 4,13.166016 4,13.245146 4.012142,13.317201 4.015625,13.394531 4.1028262,11.579287 5,10.598172 5,9.25 5,9.1942 4.982182,9.144129 4.970703,9.091797 Z m 14.2148439,2.085937 c -0.182641,0.156584 -0.364439,0.281366 -0.535156,0.324219 0.411763,0 0.705846,0.252942 0.990234,0.574219 C 19.746248,12.052307 19.823311,12.02533 20,12 19.729443,11.675066 19.482302,11.364573 19.185547,11.177734 Z m 0.171875,1.482422 C 19.245303,12.724845 19.145741,12.818713 19,13 c 0.453037,0.113606 0.629879,0.374748 0.779297,0.638672 C 19.855823,13.594671 19.920531,13.541851 20,13.5 19.804759,13.241266 19.703016,12.886226 19.357422,12.660156 Z"/>
</svg>
