<svg xmlns="http://www.w3.org/2000/svg" width="22" height="22" version="1.1">
 <path style="fill:#4f4f4f" d="M 11.054074,1.0006654 A 2.2828187,2.2739686 0 0 0 9.8585648,1.3040179 L 3.1415094,5.1670496 A 2.2828187,2.2739686 0 0 0 2,7.1365658 v 7.7265632 a 2.2828187,2.2739686 0 0 0 1.1414094,1.969316 l 6.7170554,3.863232 a 2.2828187,2.2739686 0 0 0 2.2828182,0 l 6.717055,-3.863232 a 2.2828187,2.2739686 0 0 0 1.14151,-1.969516 V 7.1363658 A 2.2828187,2.2739686 0 0 0 18.858338,5.1668496 L 12.141283,1.3038179 A 2.2828187,2.2739686 0 0 0 11.053774,1.0004654 Z"/>
 <path style="opacity:0.3" d="m 3.3361223,5.5533898 v 0 C 2.769905,5.8800429 2.1772602,6.0464853 2.0480019,6.6854256 l 7.9522141,4.4199584 v 1.132821 L 11.000224,11.499918 10.50022,10.196196 11.000224,10.49991 9.9963098,8.8153255 3.8634465,5.4061181 l 0.011719,-0.00684 z"/>
 <ellipse style="fill:#8b9cbe" cx=".71" cy="7.765" rx="1.425" ry="1.812" transform="matrix(0.94525252,-0.3263398,0.36434719,0.93126319,0,0)"/>
 <path style="opacity:0.1;fill:#8b9cbe" d="M 11.053574,1.0010154 A 2.2828187,2.2739686 0 0 0 9.8585648,1.3037179 L 3.1415094,5.1670496 A 2.2828187,2.2739686 0 0 0 2,7.1365658 V 7.6365699 A 2.2828187,2.2739686 0 0 1 3.1416094,5.6670537 L 9.8586648,1.803722 A 2.2828187,2.2739686 0 0 1 11.053974,1.5009845 2.2828187,2.2739686 0 0 1 12.141883,1.803722 l 6.717055,3.8633317 a 2.2828187,2.2739686 0 0 1 1.14151,1.9695162 V 7.1365658 A 2.2828187,2.2739686 0 0 0 18.858938,5.1670496 L 12.141883,1.3037179 A 2.2828187,2.2739686 0 0 0 11.053874,1.0010154 Z"/>
 <path style="opacity:0.2" d="m 2,14.863129 v 0.500004 a 2.2828187,2.2739686 0 0 0 1.1416094,1.968766 l 6.7170554,3.863332 a 2.2828187,2.2739686 0 0 0 2.2832182,0 l 6.717055,-3.863532 a 2.2828187,2.2739686 0 0 0 1.14151,-1.969016 v -0.500004 a 2.2828187,2.2739686 0 0 1 -1.14161,1.968766 l -6.717055,3.863332 a 2.2828187,2.2739686 0 0 1 -2.2832182,0 L 3.1415094,16.831245 A 2.2828187,2.2739686 0 0 1 2,14.862229 Z"/>
 <ellipse style="fill:#8b9cbe" cx="5.117" cy="12.8" rx="1.425" ry="1.812" transform="matrix(0.94525252,-0.3263398,0.36434719,0.93126319,0,0)"/>
 <ellipse style="fill:#8b9cbe" cx="2.904" cy="10.306" rx="1.425" ry="1.812" transform="matrix(0.94525252,-0.3263398,0.36434719,0.93126319,0,0)"/>
 <path style="fill:#d87900" d="M 2.2306206,6.1424521 A 2.2828187,2.2739686 0 0 0 2.00015,7.1366013 v 7.7266257 a 2.2828187,2.2739686 0 0 0 1.1416109,1.968766 l 6.7168519,3.863313 a 2.2828187,2.2739686 0 0 0 1.1416112,0.303713 v -9.981527 z"/>
 <path style="fill:#ad6200" d="m 19.775686,6.1610073 -8.776439,4.8779697 9.77e-4,9.960042 a 2.2828187,2.2739686 0 0 0 1.140634,-0.303713 l 6.717829,-3.863313 a 2.2828187,2.2739686 0 0 0 1.141611,-1.968766 V 7.1366013 a 2.2828187,2.2739686 0 0 0 -0.224612,-0.975594 z"/>
 <path style="opacity:0.1;fill:#8b9cbe" d="m 19.775686,6.1610073 -8.776439,4.8779697 v 3.001977 l 8.776439,-4.8779689 a 2.2828187,2.2739686 0 0 1 0.224612,0.9755939 V 7.1366013 a 2.2828187,2.2739686 0 0 0 -0.224612,-0.975594 z"/>
 <path style="opacity:0.1" d="M 2.2306206,6.1424521 A 2.2828187,2.2739686 0 0 0 2.00015,7.1366013 V 7.6366054 A 2.2828187,2.2739686 0 0 1 2.2306206,6.6424562 l 8.7696034,4.8750398 v -0.500004 z"/>
 <path style="opacity:0.1;fill:#8b9cbe" d="m 19.775686,6.1610073 -8.776439,4.8779697 v 0.500004 l 8.776439,-4.8779696 a 2.2828187,2.2739686 0 0 1 0.224612,0.975594 V 7.1366013 a 2.2828187,2.2739686 0 0 0 -0.224612,-0.975594 z"/>
 <path style="opacity:0.2;fill:none;stroke:#8b9cbe;stroke-width:0.50000411px" d="M 5.6180142,5.1889038 9.6214288,4.2901779 11.173773,2.0842151 v 0"/>
 <path style="opacity:0.2;fill:none;stroke:#8b9cbe;stroke-width:0.50000411px" d="M 8.0690843,6.5778432 11.990797,5.7199691 13.543141,3.3097501"/>
 <path style="opacity:0.2;fill:none;stroke:#8b9cbe;stroke-width:0.50000411px" d="M 10.35675,7.8850809 14.237611,6.986355 15.789955,4.6986898"/>
 <path style="opacity:0.1" d="m 19.775686,9.1629851 -8.776439,4.8779689 v 0.500004 l 8.776439,-4.8779689 a 2.2828187,2.2739686 0 0 1 0.224612,0.9755939 V 10.138579 A 2.2828187,2.2739686 0 0 0 19.775686,9.1629851 Z"/>
 <path style="opacity:0.3;fill:#8b9cbe" d="m 5.2002238,9.8457531 -0.2,2.3809719 -2.988419,-2.05884 v 2.380971 L 4.8997551,14.607697 4.8002238,16.989 11.000224,16.958 5.2002238,9.8457531"/>
 <path style="opacity:0.1" d="m 2.0119426,12.548828 v 0.5 l 2.84875,2.03125 0.039063,-0.472656 z m 8.5820314,4.410156 -5.7519533,0.0293 -0.041016,0.5 6.1992193,-0.03125 z"/>
 <path style="opacity:0.2;fill:#8b9cbe" d="M 5.1994426,9.8457031 5.0002238,12.226562 2.0119426,10.167969 v 0.5 l 2.9882812,2.058593 0.1992188,-2.380859 5.3945314,6.613281 0.40625,-0.002 z M 4.9611613,15.080078 4.801005,16.988281 h 0.041016 l 0.1582028,-1.880859 z"/>
</svg>
