<svg xmlns="http://www.w3.org/2000/svg" width="22" height="22" version="1">
 <rect style="fill:#d9b263" width="20" height="20" x="1" y="1" rx="1" ry="1"/>
 <path style="opacity:0.2;fill-rule:evenodd" d="m 11,4.5 a 8,7 0 0 0 -8,7 8,7 0 0 0 8,7 8,7 0 0 0 8,-7 8,7 0 0 0 -8,-7 z m 0,2 a 5,5 0 0 1 5,5 5,5 0 0 1 -5,5 5,5 0 0 1 -5,-5 5,5 0 0 1 5,-5 z m -3,3 0,4 0.5449219,0 c 0,-1 0.00124,-1 2.7285161,-1 2.181817,0 2.18164,0 2.18164,1 L 14,13.5 l 0,-4 -0.544922,0 c 0,1 1.78e-4,1 -2.18164,1 -2.727273,0 -2.7285161,0 -2.7285161,-1 L 8,9.5 Z"/>
 <path style="opacity:0.2;fill:#8b9cbe" d="M 1,2.5 1,2 C 1,1.446 1.446,1 2,1 l 18,0 c 0.554,0 1,0.446 1,1 l 0,0.5 c 0,-0.554 -0.446,-1 -1,-1 l -18,0 c -0.554,0 -1,0.446 -1,1 z"/>
 <path style="opacity:0.2" d="m 1,20 0,0.5 c 0,0.554 0.446,1 1,1 l 18,0 c 0.554,0 1,-0.446 1,-1 L 21,20 c 0,0.554 -0.446,1 -1,1 L 2,21 C 1.446,21 1,20.554 1,20 Z"/>
 <path style="fill:#17191e;fill-rule:evenodd" d="m 11,4 a 8,7 0 0 0 -8,7 8,7 0 0 0 8,7 8,7 0 0 0 8,-7 8,7 0 0 0 -8,-7 z m 0,2 a 5,5 0 0 1 5,5 5,5 0 0 1 -5,5 5,5 0 0 1 -5,-5 5,5 0 0 1 5,-5 z m -3,3 0,4 0.5449219,0 c 0,-1 0.00124,-1 2.7285161,-1 2.181817,0 2.18164,0 2.18164,1 L 14,13 14,9 13.455078,9 c 0,1 1.78e-4,1 -2.18164,1 C 8.546165,10 8.5449219,10 8.5449219,9 L 8,9 Z"/>
</svg>
