<svg width="22" height="22" version="1.1" xmlns="http://www.w3.org/2000/svg">
 <path d="m10.500013 1.5000771c-0.94659 0.013346-1.6216663 0.575785-1.9384787 1.5068378l0.01172-0.041992-1.4873064 4.535162h-5.0156313c-0.010935-1.73e-4 -0.021291-1.73e-4 -0.032227 0-0.5989533 0.01915-1.1390247 0.2950018-1.5195327 0.7519539-0.82292555 0.9317784-0.64850698 2.3978672 0.3964848 3.0927772l3.9433644 2.842777-1.5302754 4.689459c-0.0017 0.0052-0.00328 0.01041-0.00489 0.01563-0.2338278 0.757682-0.013944 1.538281 0.5742197 2.072269 0.00425 0.0039 0.00932 0.0079 0.01367 0.01172 0.7067884 0.619773 1.6998681 0.698544 2.4980497 0.185547 0.015185-0.0097 0.030285-0.01981 0.04492-0.03027l4.0459079-2.88184 4.045904 2.88184c0.01464 0.01047 0.02974 0.02058 0.04492 0.03027 0.798181 0.512997 1.791261 0.434226 2.49805-0.185547 0.0043-0.0038 0.0094-0.0078 0.01367-0.01172 0.588163-0.533988 0.808047-1.314587 0.574219-2.072269-0.0016-0.0052-0.0032-0.01043-0.0049-0.01563l-1.530275-4.689459 3.943364-2.842777c1.044992-0.69491 1.219411-2.1609988 0.396485-3.0927772-0.380508-0.4569521-0.920579-0.7328039-1.519533-0.7519539-0.01093-1.73e-4 -0.02129-1.73e-4 -0.03223 0h-5.015631l-1.487307-4.5351622 0.01172 0.041992c-0.316784-0.9310526-0.99186-1.4934921-1.938451-1.5068376z" style="opacity:.2"/>
 <path d="m10.457031 0.99609403c-0.145805 0.002251-0.297632 0.02095857-0.457031 0.05468737v0.019531c-0.6839 0.1729903-1.1820432 0.6790668-1.4394532 1.4355472l0.0117187-0.0410156-1.4863281 4.5351562h-5.015625c-0.010935-1.73e-4 -0.022268-1.73e-4 -0.033203 0-0.5989537 0.01915-1.1390233 0.295001-1.5195313 0.7519531-0.82292548 0.9317786-0.64850738 2.3968867 0.3964844 3.0917967l3.9433593 2.84375-1.5292969 4.689453c-0.0017 0.0052-0.00426 0.01042-0.00586 0.01563-0.2338278 0.757682-0.013945 1.538278 0.5742188 2.072266h0.00195c0.00403 0.0036 0.00773 0.0082 0.011719 0.01172h0.00195c0.7067884 0.619773 1.6998653 0.698544 2.4980468 0.185547 0.015185-0.0097 0.030287-0.01884 0.044922-0.0293l4.0449285-2.882816 4.046875 2.882812c0.01464 0.01047 0.02974 0.01962 0.04492 0.0293 0.798181 0.512997 1.791258 0.434226 2.498047-0.185547 0.0043-0.0038 0.0094-0.0078 0.01367-0.01172 0.588163-0.533988 0.808046-1.314584 0.574218-2.072266-0.0016-0.0052-0.0042-0.01044-0.0059-0.01563l-1.529252-4.689449 3.94336-2.84375c1.044992-0.69491 1.21941-2.1600181 0.396484-3.0917967-0.380508-0.4569521-0.920577-0.7328031-1.519531-0.7519531-0.01094-1.73e-4 -0.02227-1.73e-4 -0.0332 0h-5.015626l-1.486328-4.5351562 0.01172 0.041016c-0.277214-0.8146716-0.96179-1.5255217-1.982426-1.509766z" style="fill:#c5b441"/>
 <path d="m10.500013 0.99997273c-0.94659 0.01334597-1.6216663 0.57578497-1.9384787 1.5068378l0.011719-0.041992-1.4873064 4.5351619h-5.0156313c-0.010935-1.73e-4 -0.021292-1.73e-4 -0.032227 0-0.5989538 0.01915-1.1390252 0.2950017-1.5195332 0.7519538-0.4133848 0.4680656-0.57388819 1.0703413-0.5000006 1.64258 0.0455045-0.4090655 0.2064743-0.8102265 0.5000006-1.1425794 0.3805079-0.4569521 0.9205793-0.7328039 1.5195331-0.7519539 0.010935-1.73e-4 0.021291-1.73e-4 0.032227 0h5.0156314l1.4873064-4.535162-0.01172 0.041992c0.3168134-0.9310526 0.9918897-1.4934921 1.9384797-1.5068376 0.946591 0.013345 1.621685 0.5757852 1.938479 1.5068378l-0.01172-0.041992 1.487306 4.535162h5.015631c0.01093-1.73e-4 0.02129-1.73e-4 0.03223 0 0.598954 0.01915 1.139026 0.2950018 1.519534 0.7519539 0.293526 0.3323529 0.454496 0.7335139 0.500001 1.1425792 0.07389-0.5722385-0.08662-1.1745142-0.500001-1.6425798-0.380507-0.4569521-0.920578-0.7328039-1.519532-0.751954-0.01093-1.73e-4 -0.02129-1.73e-4 -0.03223 0h-5.015631l-1.487307-4.5351619 0.01172 0.041992c-0.316813-0.9310528-0.991889-1.4934923-1.93848-1.5068378zm-5.7734446 13.091813-1.3984392 4.285161c-0.0017 0.0052-0.00328 0.0104-0.00488 0.01563-0.089255 0.289222-0.1114522 0.581397-0.07324 0.862306 0.014579-0.120583 0.036052-0.241797 0.073242-0.362305 0.0016-0.0052 0.00319-0.01043 0.00488-0.01563l1.5302732-4.689459-0.1318362-0.0957zm11.54689 0-0.131836 0.0957 1.530275 4.689459c0.0017 0.0052 0.0033 0.01041 0.0049 0.01563 0.03719 0.120508 0.05866 0.241722 0.07324 0.362305 0.03821-0.280909 0.01601-0.573084-0.07324-0.862306-0.0016-0.0052-0.0032-0.01044-0.0049-0.01563l-1.398439-4.285161z" style="fill:#8b9cbe;opacity:.2"/>
 <path d="m10.5 1.0000002v9.9999998l3.414062-3.9999998-1.486328-4.5351562 0.01172 0.041016c-0.272238-0.8000474-0.939246-1.4959106-1.929688-1.5058598-0.0033-3.347e-5 -0.0064 1.78e-5 -0.0098 0zm0 9.9999998 6.117188 9.787109c0.166517-0.08147 0.326394-0.182292 0.472656-0.310547 0.0043-0.0038 0.0094-0.0078 0.01367-0.01172 0.588163-0.533988 0.808046-1.314584 0.574218-2.072266-0.0016-0.0052-0.0042-0.01044-0.0059-0.01563l-1.529297-4.689453 3.94336-2.84375c0.586614-0.390093 0.886829-1.0230518 0.902343-1.6679688zm0 0-6.1152345 9.785156c0.6383239 0.312647 1.3921157 0.283964 2.0253906-0.123047 0.015185-0.0097 0.030287-0.01884 0.044922-0.0293l4.0449219-2.882809zm0 0-10.492188-1.9980468c-0.0415683 0.703352 0.2667927 1.4165638 0.90625 1.8417968l3.9433594 2.84375z" style="opacity:.2"/>
 <circle cx="16.5" cy="16.5" r="5.5" style="fill:#ca6734"/>
 <path d="m16.5 14s-0.354375-7e-3 -0.723635 0.17775c-0.369255 0.1846-0.776365 0.655601-0.776365 1.32225h1c0-0.5 0.5-0.5 0.5-0.5s0.5 0 0.5 0.5c0 0.2639-0.0698 0.41145-0.203125 0.578099-0.133325 0.166701-0.34668 0.334-0.59668 0.5215s-0.536645 0.395201-0.77832 0.6973c-0.241675 0.302051-0.421875 0.717001-0.421875 1.203101v0.5h3v-1h-1.82422c0.01565-0.022 0.0094-0.0556 0.02735-0.0781 0.133325-0.1667 0.34668-0.334 0.59668-0.5215s0.536645-0.3952 0.77832-0.6973c0.241675-0.30205 0.421875-0.717 0.421875-1.2031 0-0.666649-0.40711-1.13765-0.776365-1.32225-0.369265-0.18465-0.72364-0.17775-0.72364-0.17775z" style="fill-rule:evenodd;fill:#8b9cbe"/>
</svg>
