<svg width="22" height="22" version="1.1" xmlns="http://www.w3.org/2000/svg">
 <g transform="translate(-1,-1)">
  <rect x="2" y="2.5" width="20" height="20" rx="1" ry="1" style="opacity:.2"/>
  <rect x="2" y="2" width="20" height="20" rx="1" ry="1" style="fill:#57a534"/>
  <path d="m3 2c-0.554 0-1 0.446-1 1v0.5c0-0.554 0.446-1 1-1h18c0.554 0 1 0.446 1 1v-0.5c0-0.554-0.446-1-1-1z" style="fill:#8b9cbe;opacity:.2"/>
  <path d="m3.0508475 9.5v1h5.9491525v-1zm6.9491525 0v1h10v4h1v-5zm-7 2v1h2v2h1v-3zm4 0v3h1v-2h1v-1zm3 0v3h1v-3zm2 0v3h1v-2h1v2h1v-3zm4 0v3h1v-2h1v2h1v-3z" style="opacity:.2"/>
  <path d="m3.0508475 9v1h5.9491525v-1zm6.9491525 0v1h10v4h1v-5zm-7 2v1h2v2h1v-3zm4 0v3h1v-2h1v-1zm3 0v3h1v-3zm2 0v3h1v-2h1v2h1v-3zm4 0v3h1v-2h1v2h1v-3z" style="fill:#8b9cbe"/>
 </g>
</svg>
