<svg width="22" height="22" version="1.1" xmlns="http://www.w3.org/2000/svg">
 <circle cx="11" cy="11.5" r="10" style="opacity:.2"/>
 <circle cx="11" cy="11" r="10" style="fill:#ff8dcb"/>
 <path d="M 11,1 A 10,10 0 0 0 1,11 10,10 0 0 0 1.0098,11.293 10,10 0 0 1 11,1.5 10,10 0 0 1 20.99,11.207 10,10 0 0 0 21,11 10,10 0 0 0 11,1 Z" style="fill:#8b9cbe;opacity:.2"/>
 <circle cx="11" cy="11" r="8" style="fill:#fdcfea"/>
 <path d="m8 7.5c-1.796485 0-3 1.2708326-3 3 0 0.89975 0.4347301 1.845583 1.0661395 2.416668l4.9338605 4.583332 5.096078-4.583332c0.631618-0.570836 1.025084-1.391668 1.025084-2.291668 0-1.7291662-1.235298-3.0920416-3.031783-3.0920416-1.18385 0-2.439641 0.567874-3.00827 1.4770416-0.569491-0.9091669-1.8972573-1.51-3.081109-1.51z" style="opacity:.2"/>
 <path d="m 8,7 c -1.796485,0 -3,1.2708326 -3,3 0,0.89975 0.4347301,1.845583 1.0661395,2.416668 L 11,17 16.096078,12.416668 C 16.727696,11.845832 17.121162,11.025 17.121162,10.125 c 0,-1.7291662 -1.235298,-3.0920416 -3.031783,-3.0920416 -1.18385,0 -2.439641,0.567874 -3.00827,1.4770416 C 10.511618,7.6008331 9.1838517,7 8,7 Z" style="fill:#03adee"/>
 <path d="m 8,8 c -1.202845,4.87e-4 -2,1 -2,2 0,0.559194 0.8715795,1.656739 1.281546,2.018695 l 0.0019,0.0019 L 11,16 15,12 c 0.410052,-0.361753 1,-1.440653 1,-2 0,-1 -0.736331,-2.0706322 -1.939648,-2.0706322 -0.794372,0 -2.285658,1.0831492 -2.651834,1.6546602 L 11,10 10.591482,9.584048 C 10.2247,9.012458 8.793935,8.000326 8,8 Z" style="fill:none;opacity:.3;stroke-dasharray:0.48887577, 0.24443788;stroke-width:.24443789;stroke:#000000"/>
</svg>
