<svg xmlns="http://www.w3.org/2000/svg" xmlns:xlink="http://www.w3.org/1999/xlink" width="22" height="22" version="1.1">
 <defs>
  <linearGradient id="linearGradient905">
   <stop style="stop-color:#bc967a" offset="0"/>
   <stop style="stop-color:#ac7f5c" offset="1"/>
  </linearGradient>
  <linearGradient id="linearGradient891" x1="31.481" x2="29.742" y1="17.359" y2="16.444" gradientTransform="matrix(0.5128005,0,0,0.49656763,-1.1071193,-0.9216189)" gradientUnits="userSpaceOnUse" xlink:href="#linearGradient905"/>
  <linearGradient id="linearGradient899" x1="22.864" x2="24.858" y1="14.263" y2="15.577" gradientTransform="matrix(0.5128005,0,0,0.49656763,-1.1071193,-0.9216189)" gradientUnits="userSpaceOnUse" xlink:href="#linearGradient905"/>
 </defs>
 <rect style="opacity:0.2" width="20" height="20" x="1" y="1.5" rx="1.5" ry="1.5"/>
 <rect style="fill:#e4d811" width="20" height="20" x="1" y="1" rx="1.5" ry="1.5"/>
 <path style="opacity:0.1" d="M 7.5,1.5 6.9472655,4.9228515 C 6.709831,4.975624 6.51525,5.2888455 6.3740235,5.5546875 6.3421085,5.614765 6.2996195,5.803002 6.2646485,5.932617 h -0.00586 l -10e-4,0.02246 c -0.00495,0.0177 -0.01125,0.04618 -0.015625,0.05957 -0.02348,0.00395 -0.051113,0.00551 -0.06836,0.012695 -0.2321485,0.096795 -0.4637345,0.3412 -0.727539,0.6279295 0,0 -0.3007065,0.053781 -0.4023435,0.1552735 -0.063363,0.063271 -0.09668,0.25 -0.09668,0.25 C 4.792612,7.141747 4.70643,7.126435 4.696265,7.374022 L 4.6152105,7.594725 4.5409915,8.1054675 C 4.3336685,8.480915 4.213913,8.914443 4.3495855,9.518553 L 3.2597656,13 c -0.3350275,0.03016 -0.7823792,3.22787 0.6689453,3.71875 0,0 0.2624276,0.276326 1.1738281,-0.265625 0.4715415,-0.506285 1.1850035,-0.965131 1.791992,-1.639648 0.3243435,-0.670741 0.2899555,-0.120165 0.478516,0.252929 -0.1613825,-0.31222 0.01771,0.385717 -0.15918,0.741211 -0.091832,0.81904 -0.197738,1.490457 -0.3125,2.290039 -0.2151825,0.420099 -0.083004,0.528965 0.075196,0.34082 0.019645,0.308321 -0.246389,0.211078 -0.1289065,0.462891 0.017245,0.647688 -0.8205475,1.618513 -0.073242,2.041992 0.2924235,0.1115 0.1412055,0.311984 0.043945,0.556641 0,0 1.1971695,-3.9e-5 1.553711,0 h 6.3017585 0.506836 0.36914 c -0.04326,-0.212626 -0.09479,-0.540768 -0.137695,-0.791016 0.402235,-0.762771 0.305526,-1.481883 0.126953,-2.305664 0.533009,0.109983 0.433816,0.889051 0.392578,1.4375 -0.217738,0.451207 -0.331438,0.940632 -0.373047,1.420899 0.08292,-0.315616 0.61928,-0.791342 0.961914,-0.370118 0.02514,0.172403 -0.12272,0.289358 -0.205078,0.455078 C 16.235332,21.499505 16.375,21.5 16.375,21.5 h 1.791992 c 0.597294,0 0.259705,-0.536375 0.734375,-0.915039 0.175573,-0.529084 0.181673,-1.150627 0.227539,-1.729492 0.07447,-0.606111 -0.404847,-0.350111 -0.03321,-0.668946 -0.455686,-0.05995 0.322953,-0.105709 -0.133789,-0.544922 0.635028,-0.344759 -0.223208,-0.585459 0.234375,-0.856445 -0.205054,-0.886116 -0.168586,-0.509461 -0.253906,-1.496094 0.326547,-0.211794 0.571373,-0.677402 0.308594,-1.159179 -0.419489,0.02604 -0.320354,-0.715762 -0.450196,-0.387695 -0.07884,-0.0288 -0.06546,-0.18453 -0.0049,-0.368164 0.01061,-0.0035 0.01722,-0.01066 0.02735,-0.01465 0.0051,0.04782 0.01942,0.131829 0.04785,0.205078 l 0.03614,0.05371 c -0.05806,-0.239274 -0.07608,-0.269124 -0.08203,-0.259766 0.534384,-0.213479 0.399737,-1.089609 -0.02832,-1.270508 -0.175421,-0.04269 -0.275394,-0.193806 -0.368164,-0.374023 -0.0098,-0.01032 -0.0166,-0.02371 -0.02735,-0.05273 -0.01523,-0.03105 -0.0324,-0.06289 -0.04785,-0.0957 -0.22356,-0.289485 -0.229054,-0.367178 -0.08105,-0.162109 -0.175621,-0.353067 -0.430704,-0.738195 -1.092774,-0.904297 -0.01492,-0.09078 0.51156,0.266107 -0.0078,-0.07813 0.03096,0.02074 -0.06495,-0.03546 -0.09668,-0.05176 0.003,5e-4 0.0065,0.0013 0,0.01172 -0.0725,0.04148 -0.02247,-0.0039 -0.002,-0.01269 -0.115427,-0.05971 -0.441006,-0.24714 -0.566406,-0.371093 -0.170964,-0.188423 -0.06865,0.02592 -0.186523,-0.407227 0.07902,-0.738432 0.148916,-1.6579255 -0.602539,-2.0800785 -0.225802,-0.042235 -0.478516,-0.27832 -0.478516,-0.27832 -0.05458,-0.03016 -0.11012,-0.056917 -0.165039,-0.085937 0.01238,-0.2157025 0.05385,-0.4300105 0.105469,-0.697266 0.05536,-0.2866565 -0.08815,-0.2959345 -0.02148,-1.1835935 0.02592,-0.3451555 -0.06716,-0.679253 -0.231445,-0.986328 -0.03081,-0.057829 -0.06431,-0.1135025 -0.100586,-0.1689455 -0.04227,-0.064392 -0.08568,-0.1268123 -0.134766,-0.1875 -0.0462,-0.057379 -0.0957,-0.1114101 -0.147444,-0.1650391 -0.05215,-0.053862 -0.103922,-0.1066183 -0.161133,-0.15625 -0.05834,-0.050808 -0.12052,-0.09666 -0.183594,-0.1425781 -0.06004,-0.043586 -0.118815,-0.087218 -0.182617,-0.1259766 -0.0728,-0.044373 -0.149514,-0.080671 -0.226563,-0.118164 -0.06131,-0.029769 -0.120023,-0.062806 -0.183593,-0.087891 -0.0991,-0.039201 -0.202168,-0.065942 -0.305665,-0.092773 -0.04772,-0.012353 -0.09318,-0.031464 -0.141601,-0.041015 -0.01846,-0.00364 -0.03711,-0.00556 -0.05566,-0.00879 -0.134597,-0.023401 -0.27057,-0.038086 -0.408203,-0.038086 -0.492061,0 -0.950785,0.1373668 -1.330078,0.3720703 -0.379439,0.2349812 -0.680873,0.5678932 -0.861329,0.9589841 -0.120352,0.2607645 -0.186523,0.547735 -0.186523,0.848633 0,0.1106365 0.0083,0.2474925 0.02246,0.3984375 0.0019,0.019355 0.0057,0.04064 0.0078,0.060547 0.01489,0.1435795 0.03726,0.29932 0.06641,0.4667965 0.0015,0.0081 0.0024,0.01627 0.0039,0.024415 0.01005,0.0567 0.02139,0.1141735 0.03321,0.1728515 -0.0063,0.01151 -0.01334,0.01943 -0.01953,0.032225 -0.01077,0.057702 -0.01676,0.1151495 -0.02539,0.1728515 -0.05812,0.013505 -0.114219,0.01994 -0.172852,0.035155 C 9.129893,6.6953085 8.524931,7.4489915 8.0732365,8.1572245 8.0150225,8.363354 7.969683,8.498521 7.922846,8.597654 7.5646005,8.77263 7.490906,8.660642 7.2880805,8.963865 7.2115265,9.08771 7.054505,9.217516 6.907221,9.109373 6.643806,8.9680765 6.299276,9.607288 6.1474555,9.841795 6.321574,9.960184 6.356673,10.15013 6.266596,10.320311 c -0.2194075,0.03067 -0.2447745,0.04214 -0.3046875,-0.05274 l -0.213867,-0.0049 -0.00295,0.06738 0.00683,-0.391602 0.205078,-0.602539 C 6.471123,9.039784 6.5748225,8.9021455 6.668919,8.7675585 6.9892015,8.5286755 7.2127015,8.0968765 7.4736065,7.7392385 7.4456265,7.6203335 7.4475815,7.475613 7.356419,7.4042775 7.2844555,7.3479635 7.225503,7.2829965 7.1611065,7.228496 H 7.337864 C 7.293819,6.852235 7.410012,6.6263235 7.7363015,6.5986135 L 8.5,1.5 Z M 6.457031,6.4228515 c 0.00929,0.0028 0.01623,0.00929 0.024415,0.01465 -0.014385,-0.00845 -0.03083,-0.011775 -0.04785,-0.01367 0.00758,8.5e-4 0.016315,-0.00315 0.023435,-0.001 z m 0.030275,0.01758 c 0.016725,0.012715 0.031415,0.02951 0.04004,0.056641 -0.00862,-0.027145 -0.022885,-0.044885 -0.04004,-0.056641 z M 6.2431655,6.493166 v 0.018555 c -7.5e-4,-0.0011 -0.00931,-0.00689 -0.00976,-0.00781 -9.5e-4,-0.00195 0.00795,-0.00756 0.00976,-0.01074 z m 0.823242,0.00781 C 7.136332,6.600656 7.17299,6.7051355 7.179689,6.775395 7.173029,6.7051025 7.136294,6.600689 7.0664075,6.500981 Z m -0.795898,0.032225 h 0.00976 c 7.5e-4,0.00325 0.00125,0.00631 0.00195,0.00976 -0.00215,-0.0021 -0.00991,-0.00789 -0.01172,-0.00976 z m 0.0166,0.01367 C 6.386446,6.640598 6.7808185,6.910687 6.798828,6.9541025 6.827833,7.024028 6.845108,7.0822165 6.8535155,7.131837 6.8445355,7.081877 6.8276555,7.0235955 6.798828,6.9541025 6.780833,6.9107225 6.3874295,6.6411625 6.2871095,6.546876 Z M 7.027344,7.1552745 c 0.02328,0.001 0.047255,0.0073 0.070312,0.02051 -0.033665,-0.01928 -0.069149,-0.020585 -0.1035155,-0.015625 0.01116,-0.0017 0.021755,-0.00537 0.033205,-0.0049 z m -0.052734,0.00879 c -0.013775,0.0034 -0.025295,0.010185 -0.038085,0.015625 0.013335,-0.00613 0.023525,-0.011885 0.038085,-0.015625 z"/>
 <ellipse style="fill:#876044" cx="12.131" cy="8.787" rx="3.108" ry="2.055"/>
 <path style="fill:#ac7f5c" d="M 4.5411815,7.605434 4.6150685,7.0943565 4.6958845,6.873882 c 0.010165,-0.2475875 0.096444,-0.2320395 0.251073,-0.3132415 0,0 0.03389,-0.187136 0.097253,-0.2504075 0.101637,-0.1014925 0.401894,-0.15543 0.401894,-0.15543 C 5.709909,5.8680735 5.941765,5.6243755 6.1739135,5.527581 6.298971,5.475438 6.606248,5.508936 6.829802,5.6308265 6.907158,5.6730015 6.871197,5.8069235 6.936245,5.860159 7.1440445,6.0302175 7.212587,6.2981725 7.167485,6.3505705 7.060128,6.475293 6.6163735,6.277501 6.5273365,5.9973575 6.4728715,5.825992 6.220079,5.9777725 6.233044,6.0038875 6.259734,6.057647 6.779088,6.406497 6.7989565,6.454394 c 0.063978,0.1542265 0.087072,0.270834 0.03378,0.3033095 -0.067708,0.04126 0.1189175,-0.165131 0.2649385,-0.081501 0.095321,0.054592 0.1634675,0.1534795 0.2587585,0.228048 0.09116,0.071335 0.089064,0.215742 0.117045,0.334647 C 7.2125735,7.5965355 6.98887,8.028576 6.6685875,8.267459 6.5744905,8.402046 6.4716065,8.540013 5.9574885,8.836147 L 5.752283,9.438394 5.709063,11.893142 5.619232,13.103494 C 5.058634,13.505985 2.4254982,13.711056 3.2597656,12.5 L 4.349178,9.018417 C 4.2135055,8.414307 4.333858,7.980882 4.541181,7.6054345 Z"/>
 <path style="opacity:0.2;fill:#8b9cbe" d="M 2.5,1 C 1.669,1 1,1.669 1,2.5 V 3 C 1,2.169 1.669,1.5 2.5,1.5 h 17 C 20.331,1.5 21,2.169 21,3 V 2.5 C 21,1.669 20.331,1 19.5,1 Z"/>
 <path style="fill:#413c2d" d="m 5.157086,7.477205 c 0.05061,-0.072002 0.085425,-0.1479535 0.2725475,-0.1858275 0.1419315,0.052739 0.293275,0.143123 0.4018035,0.06225 0.198575,0.490494 0.4024445,0.3891115 0.4024445,0.3891115 0.14041,-0.093071 0.072202,-0.1557675 0.072202,-0.1557675 0,0 0.1225925,0.1504615 0.254326,0.03727 0.076049,-0.065345 0.01179,-0.3550815 0.01179,-0.3550815 0,0 0.148852,0.033105 0.1916005,0.0166 C 6.846549,7.253804 6.9104945,7.135882 6.917102,7.163725 6.976671,7.4147415 6.2587045,8.28039 5.6588595,8.8211715 c 0,0 -0.085878,0.057643 -0.1753745,0.04338 C 5.382283,8.8123675 5.345938,8.7936145 5.2242955,8.729879 5.0568615,8.644656 5.1573885,8.508274 5.1182785,8.362941 Z"/>
 <path style="fill:#35363c" d="M 10.020508,8.041992 7.6748045,21 H 14.673828 L 14.626958,9.107422 c -1.451452,1.302504 -4.055788,1.924205 -4.606445,-1.06543 z"/>
 <path style="fill:#494640" d="M 11.602539,5.78125 C 11.16147,5.79908 10.705907,5.8656525 10.233399,5.988281 9.129898,6.1953105 8.5249365,6.9489935 8.073242,7.6572265 8.015028,7.863356 7.9696885,7.998523 7.9228515,8.097656 7.564606,8.272632 7.4909115,8.160644 7.288086,8.463867 7.211532,8.587712 7.0545105,8.7175175 6.9072265,8.609375 6.6438115,8.4680785 6.2992815,9.10729 6.147461,9.341797 6.3215795,9.460186 6.3566785,9.650132 6.2666015,9.820313 6.047194,9.850983 6.021827,9.862453 5.961914,9.767573 l -0.2140085,-0.005 -0.113995,2.61151 C 5.6030305,12.876458 5.3213075,13.43671 4.035156,13.395507 3.4348784,13.376255 2.9769532,13.055174 3.2597656,12.5 c -0.3350275,0.03016 -0.7823792,3.22787 0.6689453,3.71875 0,0 0.2624276,0.276326 1.1738281,-0.265625 0.4715415,-0.506285 1.185003,-0.965131 1.791992,-1.639648 0.3243435,-0.670741 0.2899555,-0.120165 0.478516,0.252929 -0.1613825,-0.31222 0.01771,0.385717 -0.15918,0.741211 -0.091832,0.81904 -0.197738,1.490457 -0.3125,2.290039 -0.2151825,0.420099 -0.083004,0.528965 0.075196,0.34082 0.019645,0.308321 -0.246389,0.211078 -0.1289065,0.462891 0.017245,0.647688 -0.8205475,1.618513 -0.073242,2.041992 0.2924235,0.1115 0.141205,0.311984 0.043945,0.556641 0,0 1.1971695,-3.9e-5 1.553711,0 L 10.56543,11.756836 9.808595,10.766602 10.000924,8.4157405 c 0.09545,-1.1667475 3.43975,-0.346201 4.637673,-0.043045 -0.208891,0.9826165 -0.852542,1.6308905 -1.746018,1.8978115 -0.150998,0.04511 -0.309959,0.06775 -0.470703,0.0791 C 11.590443,13.531392 11.194392,16.95671 11.901367,21 c 1.192505,6e-6 1.81466,2.42e-4 2.682618,0 h 0.596679 0.36914 c -0.04325,-0.212626 -0.09479,-0.540768 -0.137695,-0.791016 0.402235,-0.762771 0.305526,-1.481883 0.126953,-2.305664 0.533009,0.109983 0.433816,0.889051 0.392578,1.4375 -0.217738,0.451207 -0.331437,0.940632 -0.373046,1.420899 0.08292,-0.315616 0.61928,-0.791342 0.961914,-0.370118 0.02514,0.172403 -0.122721,0.289358 -0.205079,0.455078 C 16.235332,20.999505 16.375,21 16.375,21 h 1.791992 c 0.597294,0 0.259705,-0.536375 0.734375,-0.915039 0.175573,-0.529084 0.181673,-1.150627 0.227539,-1.729492 0.07447,-0.606111 -0.404849,-0.350111 -0.03321,-0.668946 -0.455686,-0.05995 0.322953,-0.105709 -0.133789,-0.544922 0.635028,-0.344759 -0.223208,-0.585459 0.234375,-0.856445 -0.205054,-0.886117 -0.168586,-0.509461 -0.253906,-1.496093 0.326547,-0.211794 0.571373,-0.677403 0.308594,-1.15918 -0.419489,0.02604 -0.320355,-0.715762 -0.450196,-0.387695 -0.07884,-0.0288 -0.06548,-0.18453 -0.0049,-0.368164 0.01061,-0.0035 0.01722,-0.01066 0.02735,-0.01465 0.0051,0.04782 0.01942,0.131829 0.04785,0.205078 l 0.03614,0.05371 c -0.05806,-0.239274 -0.07608,-0.269124 -0.08203,-0.259766 0.534384,-0.213479 0.399738,-1.089609 -0.02832,-1.270508 -0.175421,-0.04269 -0.275394,-0.193806 -0.368164,-0.374023 -0.0098,-0.01032 -0.0166,-0.02371 -0.02735,-0.05273 -0.01523,-0.03105 -0.0324,-0.06289 -0.04785,-0.0957 -0.22356,-0.289485 -0.229054,-0.367178 -0.08105,-0.162109 -0.175621,-0.353067 -0.430704,-0.738195 -1.092774,-0.904297 -0.01492,-0.09078 0.511557,0.266107 -0.0078,-0.07813 0.03096,0.02074 -0.06495,-0.03546 -0.09668,-0.05176 0.003,5e-4 0.0065,0.0013 0,0.01172 -0.0725,0.04148 -0.02246,-0.0039 -0.002,-0.01269 C 16.957769,9.808459 16.63219,9.621029 16.50679,9.497076 16.335826,9.308653 16.43814,9.522996 16.320267,9.089849 16.399287,8.351417 16.469183,7.4319235 15.717728,7.0097705 15.491926,6.9675355 15.239212,6.7314505 15.239212,6.7314505 14.118,6.111834 12.925748,5.727755 11.602539,5.78125 Z"/>
 <path style="fill:#9f7251" d="m 10.895508,6.8359375 0.142534,0.650132 c -0.0038,-0.012395 -0.763932,0.116689 -0.955031,0.811782 0.416397,1.7104875 1.572378,2.0838295 2.724609,1.7988285 L 13.399417,8.970703 12.389651,8.4296875 Z"/>
 <path style="fill:#2fcbff" d="M 11.147461,6.270508 C 9.879361,6.322839 8.851443,6.848645 8.2871095,8.4628905 V 9.651367 C 8.4708755,9.130774 8.685175,8.711276 8.980994,8.4302895 c 0.632741,-0.601016 1.323837,-0.8183375 2.145909,-0.96389 0.614424,-0.073832 2.277609,0.03483 3.054311,0.5249785 0.259448,0.1045865 0.516267,0.321663 1.113708,0.867997 L 15.765625,8.066406 C 15.506518,7.1974255 14.443119,6.625824 12.487305,6.3535155 12.019558,6.288391 11.570161,6.253064 11.147461,6.270508 Z"/>
 <path style="fill:#2d2d2d" d="m 15.420693,20.761966 c 2e-6,-5e-6 0,0 0,0 z"/>
 <path style="fill:#413c2d" d="M 7.5,1 6.9472655,4.4228515 C 6.709831,4.475624 6.51525,4.7888455 6.3740235,5.0546875 6.3421085,5.114765 6.2996195,5.303002 6.2646485,5.432617 h -0.00586 l -10e-4,0.02246 c -0.00495,0.0177 -0.01125,0.04618 -0.015625,0.05957 0.0039,-6.5e-4 0.010615,0.00155 0.01465,0.001 l -0.01465,0.517578 h 0.038085 c 7.5e-4,0.00325 0.00125,0.00631 0.00195,0.00976 C 6.3771455,6.134379 6.7806345,6.4103255 6.7988,6.4541175 6.850368,6.578429 6.873634,6.676482 6.853487,6.727555 6.903794,6.684455 7.0053945,6.6229735 7.0976275,6.675797 c 0.023335,0.013365 0.0426,0.03507 0.063477,0.052735 h 0.176758 C 7.2938175,6.352276 7.4100105,6.1263645 7.7363,6.0986545 L 8.5,1 Z M 6.4345705,5.5214845 C 6.563953,5.5335395 6.704433,5.5623545 6.830078,5.6308595 6.907434,5.6730345 6.871473,5.807116 6.9365235,5.8603515 7.144323,6.03041 7.2130705,6.298188 7.167969,6.350586 7.0606115,6.4753085 6.61638,6.277214 6.527344,5.9970705 6.509414,5.9406535 6.4682515,5.9232145 6.423828,5.9208985 Z"/>
 <path style="opacity:0.2" d="m 7.946971,13.066998 c 0.00841,-0.0108 0.017065,-0.02137 0.025485,-0.03218 0.00626,-0.0027 0.028705,-0.02289 0.011895,-0.02353 -0.119397,-0.0063 -0.252178,0.0039 -0.381938,0 -0.142712,0.115077 -0.290822,0.234258 -0.4251155,0.350415 -0.018355,0.01599 -0.03605,0.04038 -0.063047,0.04338 C 7.11175,13.241 7.134095,13.127865 7.13778,12.983857 7.125685,12.963122 7.12481,12.931175 7.09849,12.924699 h -0.0039 a 0.9236175,0.9236175 0 0 0 -0.18503,0.114216 c -0.014465,0.01707 -0.042745,0.0203 -0.04729,0.04729 a 0.98131405,0.98131405 0 0 0 0.00905,0.297733 c 0.00185,0.02611 0.0044,0.05203 0.00671,0.07729 l 0.026345,0.0652 c 0.061748,0.04059 0.098884,0.09975 0.165599,0.135372 a 0.796181,0.796181 0 0 0 0.084204,-0.05354 c -0.086579,0.09867 -0.176179,0.194747 -0.260168,0.297085 -0.058294,0.07103 -0.111839,0.147895 -0.1692685,0.22044 -0.05851,0.07384 -0.1185325,0.145088 -0.1731575,0.220439 -0.164303,0.226485 -0.3376765,0.446708 -0.507808,0.661319 -0.058295,0.07341 -0.125011,0.139906 -0.1731575,0.220438 a 0.16443356,0.16443356 0 0 0 -0.047285,0.04729 c 0.02656,-0.01296 0.051603,-0.02719 0.078807,-0.03929 0.02743,-0.03929 0.059375,-0.07924 0.092621,-0.118748 -0.043185,0.05808 -0.080748,0.121336 -0.1329975,0.170349 -0.00175,0.0044 -0.00475,0.0095 0,0.0041 0.02395,-0.01014 0.04382,-0.0244 0.066934,-0.0354 0.093268,-0.121771 0.187189,-0.243109 0.2914695,-0.354301 0.037125,-0.0035 0.04664,-0.03779 0.074703,-0.05117 a 0.14030548,0.14030548 0 0 1 0.059158,-0.01188 0.7094345,0.7094345 0 0 1 0.224326,-0.106225 c 0.017065,-0.0025 0.022005,0.0067 0.031515,0.01189 C 7.067153,14.182419 7.537611,13.633155 7.991662,13.067484 7.976332,13.067268 7.961417,13.06704 7.946967,13.06704 Z m -1.9457405,2.04117 c 0.034965,-0.04147 0.070818,-0.08226 0.104284,-0.121771 a 0.47816562,0.47816562 0 0 1 -0.104284,0.121771 z m 8.7772035,-2.35229 c -0.0018,-0.03303 0.01531,-0.04772 0.01964,-0.0747 -0.0049,-2.15e-4 -0.0054,-0.0049 -0.01165,-0.0039 -0.01056,0.02763 -0.03346,0.04275 -0.04339,0.07082 0.0179,-0.0037 0.02224,0.0065 0.03541,0.0078 z M 6.43304,13.787474 c 0.052899,-0.0037 0.1139995,0.0063 0.153511,-0.008 0.036705,0.01599 0.08485,-0.01056 0.1219855,-0.0039 0.02569,0.0046 0.026345,0.02377 0.051172,0.02763 0.064552,-0.05095 0.110974,-0.120043 0.169268,-0.177259 -0.00671,-0.02224 -0.010565,-0.04706 -0.01575,-0.07082 l -0.023535,-0.0354 h -0.02461 a 0.10716076,0.10716076 0 0 0 -0.01512,-0.04793 0.13315922,0.13315922 0 0 1 -0.0393,0 c -0.017695,-7.5e-4 -0.034535,0.0046 -0.04338,0 a 0.61773435,0.61773435 0 0 1 -0.090476,-0.07494 c -0.019845,-0.01791 -0.071466,-0.06391 -0.098454,-0.06693 -0.0261,-0.0027 -0.056781,0.01511 -0.086575,0.02377 A 0.80285145,0.80285145 0 0 1 6.40131,13.37724 c -0.05635,0.0082 -0.122635,0.0056 -0.18503,0.008 -0.3910045,0.0136 -0.8247585,0.04189 -1.207128,0.04664 0.477583,-0.254336 0.964665,-0.537389 1.4437605,-0.79777 0.03604,-0.01966 0.08183,-0.05139 0.106225,-0.05506 0.035205,-0.0056 0.079669,0.0073 0.1142155,0.01189 a 0.6432932,0.6432932 0 0 1 0.1062245,0.01966 c 0.095214,-0.05311 0.2020865,-0.09457 0.295359,-0.149623 a 0.13719773,0.13719773 0 0 1 -0.051171,-0.03952 0.03536725,0.03536725 0 0 0 2.15e-4,-0.0095 q 0.025265,-0.01231 0.050524,-0.02267 c -0.0285,-0.03756 -0.081397,-0.06024 -0.1310565,-0.08852 -0.0046,-0.0052 -0.013385,-0.0093 -0.00795,-0.01663 -0.052036,-0.03193 -0.1019075,-0.06607 -0.1573965,-0.09457 -0.054841,0.01877 -0.083554,0.03692 -0.138611,0.05506 -0.00866,0.0046 -0.023325,-0.01037 -0.035405,-0.01188 a 1.7052296,1.7052296 0 0 1 -0.2558495,0.126088 1.2864659,1.2864659 0 0 0 -0.1889155,0.09845 c -0.019675,0.01252 -0.04211,0.02376 -0.063047,0.0354 l -0.054621,0.04059 c -0.6725475,0.33638 -1.220084,0.57474 -1.868448,0.871611 a 0.12757526,0.12757526 0 0 1 0.0298,0.02484 l -0.281775,0.101249 c -0.081177,0.04448 -0.215039,0.09435 -0.3266645,0.05916 A 0.38808221,0.38808221 0 0 0 3.5,13.645173 c 0.0326,0.01727 0.067577,0.03453 0.103636,0.0516 a 0.16602219,0.16602219 0 0 0 -0.016395,0.0082 c 0.107953,0.04923 0.23296,0.110329 0.346527,0.157396 a 0.93421895,0.93421895 0 0 0 0.1219855,0.04729 0.31748891,0.31748891 0 0 0 0.090465,0 c 0.1260905,-0.0056 0.245703,-0.01274 0.366177,-0.02352 0.069305,-0.0063 0.1407705,-0.01985 0.208564,-0.01966 0.1114065,2.16e-4 0.2223855,0.0042 0.3346555,0.0039 0.113135,0 0.2277785,-0.01447 0.3424265,-0.01966 0.2251885,-0.0099 0.4564235,-0.02117 0.6889525,-0.0354 0.1168035,-0.0073 0.2331795,-0.02009 0.3460945,-0.02785 z m 8.04226,-0.134077 c 0.01383,-0.02483 0.02936,-0.05052 0.04339,-0.0747 0.08571,-0.150485 0.174022,-0.297518 0.259953,-0.444981 -0.0216,-0.05721 -0.06499,-0.09241 -0.06305,-0.173156 0.0031,-0.01533 0.0244,-0.01231 0.02764,-0.02763 -0.02093,-0.04966 0.0058,-0.09845 0.01189,-0.153509 a 0.01132899,0.01132899 0 0 1 -0.01404,-0.0037 0.05424883,0.05424883 0 0 0 -7.5e-4,-0.02049 0.02713305,0.02713305 0 0 1 -0.0091,0.01014 c -3.17e-4,0 -10e-4,4.43e-4 -0.0014,7.5e-4 a 0.07793258,0.07793258 0 0 1 -0.04079,0.0088 c -0.13818,0.227998 -0.291254,0.462901 -0.433106,0.688954 a 0.67282325,0.67282325 0 0 1 -0.06307,0.09847 c -0.03325,0.03477 -0.08723,0.05765 -0.129976,0.08658 -0.133429,0.0909 -0.257791,0.180927 -0.393594,0.263836 a 0.01741579,0.01741579 0 0 0 -0.0071,0.0023 c 0.03087,-0.07945 0.0706,-0.158042 0.09673,-0.237928 0.01707,-0.05225 0.03496,-0.103202 0.02549,-0.149406 a 0.39879758,0.39879758 0 0 0 0.0034,-0.08809 c 0.132349,-0.04664 0.263617,-0.09435 0.392297,-0.144441 0.01899,-0.10968 0.03541,-0.221735 0.06693,-0.318892 0.0021,-0.0039 0.0203,-0.0175 0.0039,-0.01575 -0.0076,7.5e-4 -0.01512,0.0012 -0.02268,0.0018 0.0014,-0.0073 0.0025,-0.01467 0.0041,-0.02201 -2.16e-4,-0.0095 0.01405,-0.03757 0,-0.03541 h -0.01967 c -0.0719,0.0069 -0.147895,0.0097 -0.220441,0.01575 -0.03477,0.03153 -0.08701,0.02309 -0.153507,0.02763 -0.03389,0.0019 -0.0706,0.0054 -0.106225,0.008 -0.09694,0.0069 -0.198201,0.02093 -0.255847,0 -0.350633,0.03369 -0.721775,0.04706 -1.090541,0.06304 -0.09737,0.221518 -0.210292,0.427492 -0.315006,0.641671 -0.111406,0.03692 -0.21504,0.08161 -0.326664,0.118099 0.0036,0.02074 0.02806,0.03174 0.04318,0.04319 a 0.03698007,0.03698007 0 0 1 0.0031,0.0023 c -0.01446,0.0058 -0.02934,0.01164 -0.04362,0.01791 0.03346,0.02181 0.0652,0.04988 0.09845,0.07492 a 0.48221739,0.48221739 0 0 0 0.07535,0.05182 c -0.05052,0.101476 -0.09802,0.205111 -0.141204,0.309609 -0.0097,0.02332 -0.02569,0.04382 -0.03541,0.06693 -0.0054,0.01273 -0.0065,0.02743 -0.01189,0.0393 -0.0052,0.01189 -0.01359,0.02309 -0.01965,0.0354 -0.163012,0.334221 -0.314142,0.669091 -0.476504,1.000074 0.02137,-0.0027 0.02568,-0.02244 0.04338,-0.03541 a 0.13392072,0.13392072 0 0 1 0.01923,-0.01165 c -0.01102,0.02376 -0.0218,0.0475 -0.03218,0.07103 0.01815,-0.04578 0.0693,-0.04383 0.09845,-0.07881 a 0.42224341,0.42224341 0 0 0 0.03929,-0.08269 c 0.03887,-0.08528 0.07686,-0.171645 0.126091,-0.240087 0.03908,-0.0046 0.0447,-0.04406 0.08269,-0.03929 a 0.81526155,0.81526155 0 0 1 0.177259,-0.137747 0.45484142,0.45484142 0 0 0 0.06693,-0.03929 c 0.02159,-0.02074 0.03971,-0.07211 0.05916,-0.110111 0.09953,-0.196042 0.189561,-0.384096 0.283483,-0.570853 0.03908,-0.07773 0.0693,-0.158692 0.118099,-0.224326 0.402881,-0.133862 0.81418,-0.259519 1.216196,-0.394243 -0.08118,0.180711 -0.165815,0.358402 -0.226918,0.559194 0.01209,0.0097 0.0244,0.01922 0.03648,0.02895 -0.0032,0.01296 -0.0071,0.02527 -0.0099,0.03864 0.05441,0.05052 0.118317,0.09176 0.177259,0.137749 0.07665,-0.06931 0.165815,-0.12393 0.251961,-0.181146 0.06607,-0.04406 0.128465,-0.09133 0.192804,-0.133861 0.0076,-0.005 0.01512,-0.0108 0.02287,-0.01641 -0.02482,0.04944 -0.05096,0.09759 -0.07297,0.149837 a 0.11611199,0.11611199 0 0 0 0.03003,0.01232 0.11618216,0.11618216 0 0 0 -0.01144,0.05139 c 0.0087,0.0012 0.03346,0.01123 0.05117,0.01575 0.05376,0.0382 0.111626,0.06542 0.169057,0.100181 0.01314,-0.04447 0.04147,-0.07643 0.05549,-0.115942 0.02526,-0.03174 0.126736,-0.26578 0.202519,-0.38021 z m 0.256713,-0.845054 a 0.02513247,0.02513247 0 0 0 0.0031,0.01447 c -0.0047,0.0065 -0.0099,0.01296 -0.01512,0.01922 0.0039,-0.01145 0.0082,-0.02244 0.01206,-0.03369 z m -2.221233,0.746386 a 0.18921021,0.18921021 0 0 0 0.02742,-0.0706 c 0.04103,-0.05873 0.06391,-0.135589 0.110327,-0.188916 0.295358,-0.02332 0.614469,-0.04578 0.928394,-0.06607 q -0.521086,0.174883 -1.066141,0.325585 z m -1.059232,0.62634 c 0.05743,0.01575 0.113995,0.03433 0.165382,0.04339 a 0.8796228,0.8796228 0 0 0 0.126088,-0.114215 c 0.01965,-0.01966 0.03908,-0.03951 0.05894,-0.05894 0.01985,-0.01942 0.04944,-0.03628 0.05506,-0.06693 -0.01014,-0.0042 -0.02072,-0.008 -0.03111,-0.01189 a 0.30924563,0.30924563 0 0 0 0.03217,-0.04383 c -0.143576,-0.06715 -0.299459,-0.10752 -0.448866,-0.165382 -0.127602,-0.04944 -0.25369,-0.101692 -0.376107,-0.154589 0.162361,-0.04079 0.324072,-0.08507 0.481469,-0.132133 0.160417,-0.04815 0.330117,-0.09478 0.468512,-0.161497 a 0.38212386,0.38212386 0 0 1 0.06305,-0.02763 c -0.0069,-0.01188 -0.01466,-0.02289 -0.02224,-0.03412 a 0.11911004,0.11911004 0 0 0 0.02332,-0.02548 c -0.04255,-0.0611 -0.09004,-0.117237 -0.12609,-0.185032 -0.49032,-0.04513 -0.99554,-0.07535 -1.523645,-0.08269 -0.01943,0.0134 -0.02396,0.04189 -0.04729,0.05117 -0.356889,-0.0039 -0.72393,-0.01467 -1.070889,-0.01576 -0.02461,0.03261 -0.0503,0.06413 -0.07492,0.09845 -0.02417,0.03412 -0.04275,0.0747 -0.0747,0.102339 -0.02287,-0.04793 -0.05138,-0.09046 -0.0747,-0.137747 -0.173589,-0.0047 -0.3506285,-0.0061 -0.524001,-0.01056 0.1651675,-0.202088 0.341777,-0.419289 0.511262,-0.622672 0.02656,-0.03174 0.07363,-0.07492 0.07881,-0.102339 a 0.5482587,0.5482587 0 0 0 -0.0039,-0.114214 c -0.0028,-0.01792 -0.01404,-0.0311 -0.01575,-0.04729 -0.0039,-0.03628 0.01189,-0.06434 0.01189,-0.102339 0.02806,-0.02332 0.03217,-0.06758 0.05506,-0.09457 0.01189,-0.01403 0.02742,-0.01448 0.0354,-0.03153 0.02568,-0.04255 0.06715,-0.08528 0.09046,-0.125874 0.0044,-0.0076 0.01317,-0.01145 0.0039,-0.01966 -0.04988,0.04621 -0.04837,0.06326 -0.06628,0.08096 -0.01314,0.01296 -0.0014,-0.01122 -0.0164,-0.0019 a 0.14997459,0.14997459 0 0 1 -0.03712,0.0447 0.02691304,0.02691304 0 0 0 0.0067,-0.0099 c 0.02503,-0.04318 0.06736,-0.0855 0.09046,-0.126089 0.0044,-0.0076 0.01297,-0.01122 0.0039,-0.01966 -0.05592,0.05765 -0.03692,0.04147 -0.05505,0.05916 -0.0052,0.01706 -0.02461,0.0019 -0.02764,0.01575 a 0.75519675,0.75519675 0 0 0 -0.07471,0.08656 c -0.0108,0.01791 -0.01358,0.03712 -0.02353,0.05505 -0.01707,0.03086 -0.0529,0.05419 -0.07881,0.08658 -0.037124,0.04664 -0.061319,0.107954 -0.1023395,0.145737 -10e-4,0.01208 -0.00866,0.01771 -0.01189,0.02763 -0.011895,-0.0046 -0.022695,0.02244 -0.02353,0.0039 0.001,-0.0056 0.00648,-0.0067 0.00796,-0.01188 0.00605,-0.0017 7.5e-4,-0.0047 -0.0039,0 -0.033255,0.0063 -0.04534,0.03345 -0.066933,0.05117 a 0.06692765,0.06692765 0 0 1 -0.051168,0 c -0.24095,0.288881 -0.4985255,0.562434 -0.7362395,0.854338 -0.238574,0.292983 -0.4749905,0.587478 -0.6969425,0.897735 0.00974,0.0065 0.019225,0.01296 0.02871,0.01942 -0.00779,0.01188 -0.01512,0.02395 -0.021795,0.03604 0.1234985,0.08528 0.2422465,0.175099 0.3739475,0.251963 0.4246875,-0.320405 0.8690205,-0.638865 1.292411,-0.956463 q -0.176827,0.248076 -0.350416,0.49939 c 0.0121,0.0078 0.023325,0.01662 0.03477,0.02526 a 0.06074607,0.06074607 0 0 0 -0.0082,0.03433 c 0.0046,0.02201 0.056785,0.0503 0.082693,0.07082 a 0.60035325,0.60035325 0 0 0 0.086578,0.06693 c 0.020085,-0.0088 0.041665,-0.01599 0.063045,-0.02353 0.010805,-0.0058 0.02008,0.002 0.035405,-0.0039 0.285428,-0.08593 0.598491,-0.144224 0.921269,-0.192802 0.02958,-0.06369 0.0719,-0.114431 0.09046,-0.188917 -0.0071,7.5e-4 -0.01447,0.0014 -0.02161,0.0019 a 0.5450018,0.5450018 0 0 0 0.03043,-0.07341 c -0.275062,0.04319 -0.551852,0.08442 -0.814394,0.140125 0.02895,-0.05355 0.06175,-0.108818 0.09284,-0.155236 0.231663,-0.02807 0.471104,-0.04859 0.700828,-0.07881 a 1.0297922,1.0297922 0 0 0 0.0788,-0.121985 c 0.0076,-0.01232 0.0218,-0.02461 0.01965,-0.03928 -0.0097,7.5e-4 -0.01943,0.0012 -0.02913,0.0017 0.0095,-0.01424 0.01943,-0.02827 0.0302,-0.04147 10e-4,-0.0065 0.03066,-0.01424 0.01189,-0.01576 -0.234039,0.0078 -0.431812,0.01448 -0.660671,0.02612 0.0097,-0.01922 0.01964,-0.0382 0.02958,-0.057 0.119177,0.0035 0.232095,-0.01056 0.330765,-0.01574 0.01404,-0.01316 0.02332,-0.03628 0.04729,-0.04339 0.03369,-0.0099 0.100179,-0.0014 0.161498,-0.0039 0.105792,-0.0046 0.200577,0.0047 0.287368,0.0039 a 0.1985181,0.1985181 0 0 0 0.03931,-0.04729 c 2.16e-4,0 3.18e-4,-2.15e-4 7.5e-4,-2.15e-4 -0.116804,0.257358 -0.229075,0.513206 -0.346098,0.767327 -0.04318,0.09392 -0.09651,0.185678 -0.126086,0.28737 0.0061,0.0078 0.0121,0.01532 0.01835,0.02309 -0.0039,0.0108 -0.0082,0.02158 -0.01164,0.03261 0.02309,0.03713 0.03735,0.04297 0.07427,0.0909 a 1.2807422,1.2807422 0 0 0 0.122634,0.121771 c 0.0842,-0.182223 0.15718,-0.372004 0.248076,-0.551205 l 0.0747,-0.165385 a 1.1533915,1.1533915 0 0 1 0.114211,0.04338 c 0.0868,0.03844 0.172078,0.07557 0.255851,0.110112 0.04122,0.01706 0.0788,0.03779 0.1181,0.05527 l 0.522922,0.189566 c 0.02568,0.0088 0.06002,0.02267 0.08744,0.03021 z M 9.094293,12.026982 a 0.53532165,0.53532165 0 0 0 0.05117,-0.09068 0.16106544,0.16106544 0 0 1 0.02936,-0.02268 0.15484865,0.15484865 0 0 0 -0.03044,0.03496 c -0.01206,0.02093 -0.01404,0.04685 -0.02764,0.06693 a 0.19200468,0.19200468 0 0 1 -0.02698,0.03066 c 0.0017,-0.0063 0.0025,-0.01274 0.0046,-0.01922 z M 8.2518285,13.566387 C 8.13783,13.64325 8.0223215,13.720976 7.9107,13.797407 8.0419685,13.637204 8.178206,13.469661 8.313792,13.315074 a 0.01960422,0.01960422 0 0 1 0.01189,-0.01189 c 0.093488,0.0052 0.188054,0.0093 0.2789505,0.01727 -0.1109755,0.08204 -0.2333935,0.165167 -0.35279,0.245916 z m 2.0808975,-0.495934 c -0.0017,0 -0.0034,-2.16e-4 -0.0049,-2.16e-4 a 0.03715603,0.03715603 0 0 1 0.0069,-0.0039 0.02396399,0.02396399 0 0 0 -0.0018,0.0041 z m 0.265562,0.361858 c -0.03671,-0.01662 -0.07535,-0.0311 -0.115078,-0.04447 a 1.7101122,1.7101122 0 0 1 0.07471,-0.171429 c 0.259732,-0.0035 0.546668,0.0044 0.803167,0.01641 -0.249588,0.07125 -0.507812,0.13386 -0.762795,0.199496 z m 5.219947,-0.330336 c 0.01056,-0.01985 0.02137,-0.03929 0.03218,-0.05916 -0.09673,-0.0054 -0.20576,0.01727 -0.283484,0.0039 -0.115943,0.168838 -0.211372,0.37222 -0.315008,0.547104 a 0.715197,0.715197 0 0 1 -0.04879,0.08032 c -0.04838,-0.202319 -0.09673,-0.420384 -0.163661,-0.604119 h -0.08658 c 0.01144,-0.02416 -0.0046,-0.03153 -0.01575,-0.04338 0.0061,-0.02159 0.02378,-0.03153 0.02353,-0.05916 l -0.01575,0.01188 c -0.05333,0.08852 -0.100831,0.178769 -0.145738,0.271609 -0.04426,0.09198 -0.100611,0.178339 -0.149622,0.267724 -0.09867,0.179849 -0.199496,0.358835 -0.287371,0.54732 0.01856,-0.0067 0.02118,-0.01014 0.03541,-0.0071 -0.0095,0.01966 -0.01923,0.03908 -0.02851,0.05873 0.01727,-0.01599 0.02093,-0.0061 0.04729,-0.0039 0.07751,-0.01942 0.182225,-0.02504 0.271612,-0.04339 0.08377,-0.151133 0.1697,-0.300109 0.255847,-0.448867 0.04167,0.1656 0.07967,0.335085 0.121985,0.500037 a 2.0524257,2.0524257 0 0 0 0.228426,-0.008 c 0.185034,-0.337459 0.372656,-0.671896 0.555096,-1.011732 -0.01036,0 -0.02072,0 -0.03111,2.16e-4 z m 2.655203,1.796979 c 0.0089,0.0046 0.01769,0.0093 0.02656,0.01384 -0.0063,-0.0108 -0.02072,-0.0134 -0.02377,-0.02763 a 0.10575608,0.10575608 0 0 1 0,-0.05506 0.2742791,0.2742791 0 0 1 -0.0354,-0.0354 c -0.0063,0.0032 0,-0.03153 0,-0.03153 q -0.02269,-0.01524 -0.04665,-0.02979 a 0.03648801,0.03648801 0 0 0 0.0021,-0.01707 c -0.395106,-0.230155 -0.797339,-0.450162 -1.18899,-0.681181 -0.07406,-0.04383 -0.148976,-0.08615 -0.223247,-0.129327 -0.0052,-0.02289 -0.01036,-0.04556 -0.01599,-0.06801 -0.04038,-0.02159 -0.07945,-0.04406 -0.117883,-0.06736 a 0.03219581,0.03219581 0 0 0 0.0025,-0.0029 c 0.01383,-0.0071 0.02698,-0.01081 0.04339,-0.01966 -0.01554,-0.01014 -0.03152,-0.02008 -0.0475,-0.03002 a 0.22336623,0.22336623 0 0 1 0.04837,-0.02181 c -0.03152,-0.02029 -0.06693,-0.04621 -0.102339,-0.06693 -0.07384,-0.04318 -0.146814,-0.08874 -0.216552,-0.129975 -0.02117,-0.01253 -0.04338,-0.02268 -0.06412,-0.03496 0.108813,-0.05937 0.2213,-0.116157 0.334651,-0.177259 0.06197,-0.03326 0.126739,-0.06456 0.189134,-0.09845 0.08917,-0.04837 0.188054,-0.08226 0.248077,-0.149622 0.142711,-0.06866 0.282619,-0.139906 0.425115,-0.20878 0.06175,-0.0814 0.09845,-0.187622 0.200794,-0.228428 0.0097,-0.02224 0.03605,-0.05182 0.0393,-0.06693 0,2.16e-4 -0.0037,-2.16e-4 -0.0039,0 -0.03152,0.01858 -0.06434,0.03585 -0.09716,0.0529 a 0.19604837,0.19604837 0 0 1 0.05872,-0.03778 c 0.01123,-0.0136 0.01554,-0.03411 0.03152,-0.04338 -2.13e-4,-0.01188 0.0084,-0.01532 0.01189,-0.02352 0.0041,-0.0023 0.02502,-0.01641 0.0078,-0.01575 -0.287373,0.155668 -0.589853,0.287803 -0.885861,0.433107 -0.281755,0.138395 -0.565239,0.274631 -0.84527,0.413242 0.05916,-0.111838 0.120259,-0.221518 0.178988,-0.33379 l -0.0298,0.0014 c 0.01013,-0.019 0.0205,-0.038 0.03066,-0.057 -0.107522,-0.0039 -0.194744,0.01252 -0.30313,0.008 -0.02092,-0.0025 -0.02008,-0.02719 -0.0354,-0.0354 -0.148114,0.273122 -0.296008,0.546458 -0.440881,0.822816 0.0052,0.0108 0.01102,0.02332 0.01683,0.03604 l -0.0019,0.0039 c -0.04706,0.08895 -0.101476,0.175747 -0.137747,0.27161 0.05743,0.06866 0.155668,0.130406 0.236201,0.188917 a 0.99709265,0.99709265 0 0 1 0.07476,-0.149655 c 0.08032,-0.144226 0.161282,-0.287587 0.240085,-0.433106 0.140772,0.06909 0.273122,0.146814 0.405471,0.224324 0.0123,0.01145 0.01877,0.02851 0.03541,0.03541 0.322344,0.179201 0.652466,0.350846 0.980427,0.527673 0.327743,0.176611 0.657215,0.353221 0.984311,0.519684 -0.0071,0.0012 0.01943,0.02201 0.02353,0.01189 a 0.07196128,0.07196128 0 0 1 -0.01314,-0.05701 z"/>
 <path id="blue" style="fill:#2fcbff" d="m 7.946971,12.566998 c 0.00841,-0.0108 0.017065,-0.02137 0.025485,-0.03218 0.00626,-0.0027 0.028705,-0.02289 0.011895,-0.02353 -0.119397,-0.0063 -0.252178,0.0039 -0.381938,0 -0.142712,0.115077 -0.290822,0.234258 -0.4251155,0.350415 -0.018355,0.01599 -0.03605,0.04038 -0.063047,0.04338 C 7.11175,12.741 7.134095,12.627865 7.13778,12.483857 7.125685,12.463122 7.12481,12.431175 7.09849,12.424699 h -0.0039 a 0.9236175,0.9236175 0 0 0 -0.18503,0.114216 c -0.014465,0.01707 -0.042745,0.0203 -0.04729,0.04729 a 0.98131405,0.98131405 0 0 0 0.00905,0.297733 c 0.00185,0.02611 0.0044,0.05203 0.00671,0.07729 l 0.026345,0.0652 c 0.061748,0.04059 0.098884,0.09975 0.165599,0.135372 a 0.796181,0.796181 0 0 0 0.084204,-0.05354 c -0.086579,0.09867 -0.176179,0.194747 -0.260168,0.297085 -0.058294,0.07103 -0.111839,0.147895 -0.1692685,0.22044 -0.05851,0.07384 -0.1185325,0.145088 -0.1731575,0.220439 -0.164303,0.226485 -0.3376765,0.446708 -0.507808,0.661319 -0.058295,0.07341 -0.125011,0.139906 -0.1731575,0.220438 a 0.16443356,0.16443356 0 0 0 -0.047285,0.04729 c 0.02656,-0.01296 0.051603,-0.0272 0.078807,-0.03929 0.02743,-0.03929 0.059375,-0.07924 0.092621,-0.118748 -0.043185,0.05808 -0.080748,0.121336 -0.1329975,0.170349 -0.00175,0.0044 -0.00475,0.0095 0,0.0042 0.02395,-0.01014 0.04382,-0.0244 0.066934,-0.03541 0.093268,-0.121771 0.187189,-0.243109 0.2914695,-0.354301 0.037125,-0.0035 0.04664,-0.03779 0.074703,-0.05117 a 0.14030548,0.14030548 0 0 1 0.059158,-0.01188 0.7094345,0.7094345 0 0 1 0.224326,-0.106226 c 0.017065,-0.0025 0.022005,0.0067 0.031515,0.01188 C 7.067153,13.682419 7.537611,13.133155 7.991662,12.567483 7.976332,12.567267 7.961417,12.56704 7.946967,12.56704 Z m -1.9457405,2.04117 c 0.034965,-0.04147 0.070818,-0.08226 0.104284,-0.121771 a 0.47816562,0.47816562 0 0 1 -0.104284,0.121771 z m 8.7772035,-2.35229 c -0.0018,-0.03303 0.01531,-0.04772 0.01964,-0.0747 -0.0049,-2.15e-4 -0.0054,-0.0049 -0.01165,-0.0039 -0.01056,0.02763 -0.03346,0.04275 -0.04339,0.07082 0.0179,-0.0037 0.02224,0.0065 0.03541,0.0078 z M 6.43304,13.287474 c 0.052899,-0.0037 0.1139995,0.0063 0.153511,-0.008 0.036705,0.01599 0.08485,-0.01056 0.1219855,-0.0039 0.02569,0.0046 0.026345,0.02377 0.051172,0.02763 0.064552,-0.05095 0.110974,-0.120043 0.169268,-0.177259 -0.00671,-0.02224 -0.010565,-0.04706 -0.01575,-0.07082 l -0.023535,-0.0354 h -0.02461 a 0.10716076,0.10716076 0 0 0 -0.01512,-0.04793 0.13315922,0.13315922 0 0 1 -0.0393,0 c -0.017695,-7.5e-4 -0.034535,0.0046 -0.04338,0 a 0.61773435,0.61773435 0 0 1 -0.090476,-0.07494 c -0.019845,-0.01791 -0.071466,-0.06391 -0.098454,-0.06693 -0.0261,-0.0027 -0.056781,0.01511 -0.086575,0.02377 A 0.80285145,0.80285145 0 0 1 6.40131,12.87724 c -0.05635,0.0082 -0.122635,0.0056 -0.18503,0.008 -0.3910045,0.0136 -0.8247585,0.04189 -1.207128,0.04664 0.477583,-0.254336 0.964665,-0.537389 1.4437605,-0.79777 0.03604,-0.01966 0.08183,-0.05139 0.106225,-0.05506 0.035205,-0.0056 0.079669,0.0073 0.1142155,0.01189 a 0.6432932,0.6432932 0 0 1 0.1062245,0.01966 c 0.095214,-0.05311 0.2020865,-0.09457 0.295359,-0.149623 a 0.13719773,0.13719773 0 0 1 -0.051171,-0.03952 0.03536725,0.03536725 0 0 0 2.15e-4,-0.0095 q 0.025265,-0.01231 0.050524,-0.02267 c -0.0285,-0.03756 -0.081397,-0.06024 -0.1310565,-0.08852 -0.0046,-0.0052 -0.013385,-0.0093 -0.00795,-0.01663 -0.052036,-0.03193 -0.1019075,-0.06607 -0.1573965,-0.09457 -0.054841,0.01877 -0.083554,0.03692 -0.138611,0.05506 -0.00866,0.0046 -0.023325,-0.01037 -0.035405,-0.01188 a 1.7052296,1.7052296 0 0 1 -0.2558495,0.126088 1.2864659,1.2864659 0 0 0 -0.1889155,0.09845 c -0.019675,0.01252 -0.04211,0.02376 -0.063047,0.0354 l -0.054621,0.04059 c -0.6725475,0.33638 -1.220084,0.57474 -1.868448,0.871611 a 0.12757526,0.12757526 0 0 1 0.0298,0.02484 l -0.281775,0.101249 c -0.081177,0.04448 -0.215039,0.09435 -0.3266645,0.05916 A 0.38808221,0.38808221 0 0 0 3.5,13.145173 c 0.0326,0.01727 0.067577,0.03453 0.103636,0.0516 a 0.16602219,0.16602219 0 0 0 -0.016395,0.0082 c 0.107953,0.04923 0.23296,0.110329 0.346527,0.157396 a 0.93421895,0.93421895 0 0 0 0.1219855,0.04729 0.31748891,0.31748891 0 0 0 0.090465,0 c 0.1260905,-0.0056 0.245703,-0.01274 0.366177,-0.02352 0.069305,-0.0063 0.1407705,-0.01985 0.208564,-0.01966 0.1114065,2.16e-4 0.2223855,0.0042 0.3346555,0.0039 0.113135,0 0.2277785,-0.01447 0.3424265,-0.01966 0.2251885,-0.0099 0.4564235,-0.02117 0.6889525,-0.0354 0.1168035,-0.0073 0.2331795,-0.02009 0.3460945,-0.02785 z m 8.04226,-0.134077 c 0.01383,-0.02483 0.02936,-0.05052 0.04339,-0.0747 0.08571,-0.150485 0.174022,-0.297518 0.259953,-0.444981 -0.0216,-0.05721 -0.06499,-0.09241 -0.06305,-0.173156 0.0031,-0.01533 0.0244,-0.01231 0.02764,-0.02763 -0.02093,-0.04966 0.0058,-0.09845 0.01189,-0.153509 a 0.01132899,0.01132899 0 0 1 -0.01404,-0.0037 0.05424883,0.05424883 0 0 0 -7.5e-4,-0.02049 0.02713305,0.02713305 0 0 1 -0.0091,0.01014 c -3.17e-4,0 -10e-4,4.43e-4 -0.0014,7.5e-4 a 0.07793258,0.07793258 0 0 1 -0.04079,0.0088 c -0.13818,0.227998 -0.291254,0.462901 -0.433106,0.688954 a 0.67282325,0.67282325 0 0 1 -0.06307,0.09847 c -0.03325,0.03477 -0.08723,0.05765 -0.129976,0.08658 -0.133429,0.0909 -0.257791,0.180927 -0.393594,0.263836 a 0.01741579,0.01741579 0 0 0 -0.0071,0.0023 c 0.03087,-0.07945 0.0706,-0.158042 0.09673,-0.237928 0.01707,-0.05225 0.03496,-0.103202 0.02549,-0.149406 a 0.39879758,0.39879758 0 0 0 0.0034,-0.08809 c 0.132349,-0.04664 0.263617,-0.09435 0.392297,-0.144441 0.01899,-0.10968 0.03541,-0.221735 0.06693,-0.318892 0.0021,-0.0039 0.0203,-0.0175 0.0039,-0.01575 -0.0076,7.5e-4 -0.01512,0.0012 -0.02268,0.0018 0.0014,-0.0073 0.0025,-0.01467 0.0041,-0.02201 -2.16e-4,-0.0095 0.01405,-0.03757 0,-0.03541 h -0.01967 c -0.0719,0.0069 -0.147895,0.0097 -0.220441,0.01575 -0.03477,0.03153 -0.08701,0.02309 -0.153507,0.02763 -0.03389,0.0019 -0.0706,0.0054 -0.106225,0.008 -0.09694,0.0069 -0.198201,0.02093 -0.255847,0 -0.350633,0.03369 -0.721775,0.04706 -1.090541,0.06304 -0.09737,0.221518 -0.210292,0.427492 -0.315006,0.641671 -0.111406,0.03692 -0.21504,0.08161 -0.326664,0.118099 0.0036,0.02074 0.02806,0.03174 0.04318,0.04319 a 0.03698007,0.03698007 0 0 1 0.0031,0.0023 c -0.01446,0.0058 -0.02934,0.01164 -0.04362,0.01791 0.03346,0.02181 0.0652,0.04988 0.09845,0.07492 a 0.48221739,0.48221739 0 0 0 0.07535,0.05182 c -0.05052,0.101476 -0.09802,0.205111 -0.141204,0.309609 -0.0097,0.02332 -0.02569,0.04382 -0.03541,0.06693 -0.0054,0.01273 -0.0065,0.02743 -0.01189,0.0393 -0.0052,0.01189 -0.01359,0.02309 -0.01965,0.0354 -0.163012,0.334221 -0.314142,0.669091 -0.476504,1.000074 0.02137,-0.0027 0.02568,-0.02244 0.04338,-0.0354 a 0.13392072,0.13392072 0 0 1 0.01923,-0.01165 c -0.01102,0.02375 -0.0218,0.04749 -0.03218,0.07103 0.01815,-0.04577 0.0693,-0.04383 0.09845,-0.07881 a 0.42224341,0.42224341 0 0 0 0.03929,-0.08269 c 0.03887,-0.08528 0.07686,-0.171645 0.126091,-0.240087 0.03908,-0.0046 0.0447,-0.04406 0.08269,-0.03929 a 0.81526155,0.81526155 0 0 1 0.177259,-0.137747 0.45484142,0.45484142 0 0 0 0.06693,-0.03929 c 0.02159,-0.02074 0.03971,-0.07211 0.05916,-0.110111 0.09953,-0.196042 0.189561,-0.384096 0.283483,-0.570853 0.03908,-0.07773 0.0693,-0.158692 0.118099,-0.224326 0.402881,-0.133862 0.81418,-0.259519 1.216196,-0.394243 -0.08118,0.180711 -0.165815,0.358402 -0.226918,0.559194 0.01209,0.0097 0.0244,0.01922 0.03648,0.02895 -0.0032,0.01296 -0.0071,0.02527 -0.0099,0.03864 0.05441,0.05052 0.118317,0.09176 0.177259,0.137749 0.07665,-0.06931 0.165815,-0.12393 0.251961,-0.181146 0.06607,-0.04406 0.128465,-0.09133 0.192804,-0.133861 0.0076,-0.005 0.01512,-0.0108 0.02287,-0.01641 -0.02482,0.04944 -0.05096,0.09759 -0.07297,0.149837 a 0.11611199,0.11611199 0 0 0 0.03003,0.01232 0.11618216,0.11618216 0 0 0 -0.01144,0.05139 c 0.0087,0.0012 0.03346,0.01123 0.05117,0.01575 0.05376,0.0382 0.111626,0.06542 0.169057,0.100181 0.01314,-0.04447 0.04147,-0.07643 0.05549,-0.115942 0.02526,-0.03174 0.126736,-0.26578 0.202519,-0.38021 z m 0.256713,-0.845054 a 0.02513247,0.02513247 0 0 0 0.0031,0.01447 c -0.0047,0.0065 -0.0099,0.01296 -0.01512,0.01922 0.0039,-0.01145 0.0082,-0.02244 0.01206,-0.03369 z m -2.221233,0.746386 a 0.18921021,0.18921021 0 0 0 0.02742,-0.0706 c 0.04103,-0.05873 0.06391,-0.135589 0.110327,-0.188916 0.295358,-0.02332 0.614469,-0.04578 0.928394,-0.06607 q -0.521086,0.174883 -1.066141,0.325585 z m -1.059232,0.62634 c 0.05743,0.01575 0.113995,0.03433 0.165382,0.04339 a 0.8796228,0.8796228 0 0 0 0.126088,-0.114215 c 0.01965,-0.01966 0.03908,-0.03951 0.05894,-0.05894 0.01985,-0.01942 0.04944,-0.03628 0.05506,-0.06693 -0.01014,-0.0042 -0.02072,-0.008 -0.03111,-0.01189 a 0.30924563,0.30924563 0 0 0 0.03217,-0.04383 c -0.143576,-0.06715 -0.299459,-0.10752 -0.448866,-0.165382 -0.127602,-0.04944 -0.25369,-0.101692 -0.376107,-0.154589 0.162361,-0.04079 0.324072,-0.08507 0.481469,-0.132133 0.160417,-0.04815 0.330117,-0.09478 0.468512,-0.161497 a 0.38212386,0.38212386 0 0 1 0.06305,-0.02763 c -0.0069,-0.01188 -0.01466,-0.02289 -0.02224,-0.03412 a 0.11911004,0.11911004 0 0 0 0.02332,-0.02548 c -0.04255,-0.0611 -0.09004,-0.117237 -0.12609,-0.185032 -0.49032,-0.04513 -0.99554,-0.07535 -1.523645,-0.08269 -0.01943,0.0134 -0.02396,0.04189 -0.04729,0.05117 -0.356889,-0.0039 -0.72393,-0.01467 -1.070889,-0.01576 -0.02461,0.03261 -0.0503,0.06413 -0.07492,0.09845 -0.02417,0.03412 -0.04275,0.0747 -0.0747,0.102339 -0.02287,-0.04793 -0.05138,-0.09046 -0.0747,-0.137747 -0.173589,-0.0047 -0.3506285,-0.0061 -0.524001,-0.01056 0.1651675,-0.202088 0.341777,-0.419289 0.511262,-0.622672 0.02656,-0.03174 0.07363,-0.07492 0.07881,-0.102339 a 0.5482587,0.5482587 0 0 0 -0.0039,-0.114214 c -0.0028,-0.01792 -0.01404,-0.0311 -0.01575,-0.04729 -0.0039,-0.03628 0.01189,-0.06434 0.01189,-0.102339 0.02806,-0.02332 0.03217,-0.06758 0.05506,-0.09457 0.01189,-0.01403 0.02742,-0.01448 0.0354,-0.03153 0.02568,-0.04255 0.06715,-0.08528 0.09046,-0.125874 0.0044,-0.0076 0.01317,-0.01145 0.0039,-0.01966 -0.04988,0.04621 -0.04837,0.06326 -0.06628,0.08096 -0.01314,0.01296 -0.0014,-0.01122 -0.0164,-0.0019 a 0.14997459,0.14997459 0 0 1 -0.03712,0.0447 0.02691304,0.02691304 0 0 0 0.0067,-0.0099 c 0.02503,-0.04318 0.06736,-0.0855 0.09046,-0.126089 0.0044,-0.0076 0.01297,-0.01122 0.0039,-0.01966 -0.05592,0.05765 -0.03692,0.04147 -0.05505,0.05916 -0.0052,0.01706 -0.02461,0.0019 -0.02764,0.01575 a 0.75519675,0.75519675 0 0 0 -0.07471,0.08656 c -0.0108,0.01791 -0.01358,0.03712 -0.02353,0.05505 -0.01707,0.03086 -0.0529,0.05419 -0.07881,0.08658 -0.037124,0.04664 -0.061319,0.107954 -0.1023395,0.145737 -10e-4,0.01208 -0.00866,0.01771 -0.01189,0.02763 -0.011895,-0.0046 -0.022695,0.02244 -0.02353,0.0039 0.001,-0.0056 0.00648,-0.0067 0.00796,-0.01188 0.00605,-0.0017 7.5e-4,-0.0047 -0.0039,0 -0.033255,0.0063 -0.04534,0.03345 -0.066933,0.05117 a 0.06692765,0.06692765 0 0 1 -0.051168,0 c -0.24095,0.288881 -0.4985255,0.562434 -0.7362395,0.854338 -0.238574,0.292983 -0.4749905,0.587478 -0.6969425,0.897735 0.00974,0.0065 0.019225,0.01296 0.02871,0.01942 -0.00779,0.01188 -0.01512,0.02395 -0.021795,0.03604 0.1234985,0.08528 0.2422465,0.175099 0.3739475,0.251963 0.4246875,-0.320405 0.8690205,-0.638865 1.292411,-0.956463 q -0.176827,0.248076 -0.350416,0.49939 c 0.0121,0.0078 0.023325,0.01662 0.03477,0.02526 a 0.06074607,0.06074607 0 0 0 -0.0082,0.03433 c 0.0046,0.02201 0.056785,0.0503 0.082693,0.07082 a 0.60035325,0.60035325 0 0 0 0.086578,0.06693 c 0.020085,-0.0088 0.041665,-0.01599 0.063045,-0.02353 0.010805,-0.0058 0.02008,0.002 0.035405,-0.0039 0.285428,-0.08593 0.598491,-0.144224 0.921269,-0.192802 0.02958,-0.06369 0.0719,-0.114431 0.09046,-0.188917 -0.0071,7.5e-4 -0.01447,0.0014 -0.02161,0.0019 a 0.5450018,0.5450018 0 0 0 0.03043,-0.07341 c -0.275062,0.04319 -0.551852,0.08442 -0.814394,0.140125 0.02895,-0.05355 0.06175,-0.108818 0.09284,-0.155236 0.231663,-0.02807 0.471104,-0.04859 0.700828,-0.07881 a 1.0297922,1.0297922 0 0 0 0.0788,-0.121985 c 0.0076,-0.01232 0.0218,-0.02461 0.01965,-0.03928 -0.0097,7.5e-4 -0.01943,0.0012 -0.02913,0.0017 0.0095,-0.01424 0.01943,-0.02827 0.0302,-0.04147 10e-4,-0.0065 0.03066,-0.01424 0.01189,-0.01576 -0.234039,0.0078 -0.431812,0.01448 -0.660671,0.02612 0.0097,-0.01922 0.01964,-0.0382 0.02958,-0.057 0.119177,0.0035 0.232095,-0.01056 0.330765,-0.01574 0.01404,-0.01316 0.02332,-0.03628 0.04729,-0.04339 0.03369,-0.0099 0.100179,-0.0014 0.161498,-0.0039 0.105792,-0.0046 0.200577,0.0047 0.287368,0.0039 a 0.1985181,0.1985181 0 0 0 0.03931,-0.04729 c 2.16e-4,0 3.18e-4,-2.15e-4 7.5e-4,-2.15e-4 -0.116804,0.257358 -0.229075,0.513206 -0.346098,0.767327 -0.04318,0.09392 -0.09651,0.185678 -0.126086,0.28737 0.0061,0.0078 0.0121,0.01532 0.01835,0.02309 -0.0039,0.0108 -0.0082,0.02158 -0.01164,0.03261 0.02309,0.03713 0.03735,0.04297 0.07427,0.0909 a 1.2807422,1.2807422 0 0 0 0.122634,0.121771 c 0.0842,-0.182223 0.15718,-0.372004 0.248076,-0.551205 l 0.0747,-0.165385 a 1.1533915,1.1533915 0 0 1 0.114211,0.04338 c 0.0868,0.03844 0.172078,0.07557 0.255851,0.110112 0.04122,0.01706 0.0788,0.03779 0.1181,0.05527 l 0.522922,0.189566 c 0.02568,0.0088 0.06002,0.02267 0.08744,0.03021 z M 9.094293,11.526982 a 0.53532165,0.53532165 0 0 0 0.05117,-0.09068 0.16106544,0.16106544 0 0 1 0.02936,-0.02268 0.15484865,0.15484865 0 0 0 -0.03044,0.03496 c -0.01206,0.02093 -0.01404,0.04685 -0.02764,0.06693 a 0.19200468,0.19200468 0 0 1 -0.02698,0.03066 c 0.0017,-0.0063 0.0025,-0.01274 0.0046,-0.01922 z M 8.2518285,13.066387 C 8.13783,13.14325 8.0223215,13.220976 7.9107,13.297407 8.0419685,13.137204 8.178206,12.969661 8.313792,12.815074 a 0.01960422,0.01960422 0 0 1 0.01189,-0.01189 c 0.093488,0.0052 0.188054,0.0093 0.2789505,0.01727 -0.1109755,0.08204 -0.2333935,0.165167 -0.35279,0.245916 z m 2.0808975,-0.495934 c -0.0017,0 -0.0034,-2.16e-4 -0.0049,-2.16e-4 a 0.03715603,0.03715603 0 0 1 0.0069,-0.0039 0.02396399,0.02396399 0 0 0 -0.0018,0.0041 z m 0.265562,0.361858 c -0.03671,-0.01662 -0.07535,-0.0311 -0.115078,-0.04447 a 1.7101122,1.7101122 0 0 1 0.07471,-0.171429 c 0.259732,-0.0035 0.546668,0.0044 0.803167,0.01641 -0.249588,0.07125 -0.507812,0.13386 -0.762795,0.199496 z m 5.219947,-0.330336 c 0.01056,-0.01985 0.02137,-0.03929 0.03218,-0.05916 -0.09673,-0.0054 -0.20576,0.01727 -0.283484,0.0039 -0.115943,0.168838 -0.211372,0.37222 -0.315008,0.547104 a 0.715197,0.715197 0 0 1 -0.04879,0.08032 c -0.04838,-0.202319 -0.09673,-0.420384 -0.163661,-0.604119 h -0.08658 c 0.01144,-0.02416 -0.0046,-0.03153 -0.01575,-0.04338 0.0061,-0.02159 0.02378,-0.03153 0.02353,-0.05916 l -0.01575,0.01188 c -0.05333,0.08852 -0.100831,0.178769 -0.145738,0.271609 -0.04426,0.09198 -0.100611,0.178339 -0.149622,0.267724 -0.09867,0.179849 -0.199496,0.358835 -0.287371,0.54732 0.01856,-0.0067 0.02118,-0.01014 0.03541,-0.0071 -0.0095,0.01966 -0.01923,0.03908 -0.02851,0.05873 0.01727,-0.01599 0.02093,-0.0061 0.04729,-0.0039 0.07751,-0.01942 0.182225,-0.02504 0.271612,-0.04339 0.08377,-0.151133 0.1697,-0.300109 0.255847,-0.448867 0.04167,0.1656 0.07967,0.335085 0.121985,0.500037 a 2.0524257,2.0524257 0 0 0 0.228426,-0.008 c 0.185034,-0.337459 0.372656,-0.671896 0.555096,-1.011732 -0.01036,0 -0.02072,0 -0.03111,2.16e-4 z m 2.655203,1.796979 c 0.0089,0.0046 0.01769,0.0093 0.02656,0.01384 -0.0063,-0.0108 -0.02072,-0.0134 -0.02377,-0.02763 a 0.10575608,0.10575608 0 0 1 0,-0.05506 0.2742791,0.2742791 0 0 1 -0.0354,-0.0354 c -0.0063,0.0032 0,-0.03153 0,-0.03153 q -0.02269,-0.01524 -0.04665,-0.02979 a 0.03648801,0.03648801 0 0 0 0.0021,-0.01707 c -0.395106,-0.230155 -0.797339,-0.450162 -1.18899,-0.681181 -0.07406,-0.04383 -0.148976,-0.08615 -0.223247,-0.129327 -0.0052,-0.02289 -0.01036,-0.04556 -0.01599,-0.06801 -0.04038,-0.02159 -0.07945,-0.04406 -0.117883,-0.06736 a 0.03219581,0.03219581 0 0 0 0.0025,-0.0029 c 0.01383,-0.0071 0.02698,-0.01081 0.04339,-0.01966 -0.01554,-0.01014 -0.03152,-0.02008 -0.0475,-0.03002 a 0.22336623,0.22336623 0 0 1 0.04837,-0.02181 c -0.03152,-0.02029 -0.06693,-0.04621 -0.102339,-0.06693 -0.07384,-0.04318 -0.146814,-0.08874 -0.216552,-0.129975 -0.02117,-0.01253 -0.04338,-0.02268 -0.06412,-0.03496 0.108813,-0.05937 0.2213,-0.116157 0.334651,-0.177259 0.06197,-0.03326 0.126739,-0.06456 0.189134,-0.09845 0.08917,-0.04837 0.188054,-0.08226 0.248077,-0.149622 0.142711,-0.06866 0.282619,-0.139906 0.425115,-0.20878 0.06175,-0.0814 0.09845,-0.187622 0.200794,-0.228428 0.0097,-0.02224 0.03605,-0.05182 0.0393,-0.06693 0,2.16e-4 -0.0037,-2.16e-4 -0.0039,0 -0.03152,0.01858 -0.06434,0.03585 -0.09716,0.0529 a 0.19604837,0.19604837 0 0 1 0.05872,-0.03778 c 0.01123,-0.0136 0.01554,-0.03411 0.03152,-0.04338 -2.13e-4,-0.01188 0.0084,-0.01532 0.01189,-0.02352 0.0041,-0.0023 0.02502,-0.01641 0.0078,-0.01575 -0.287373,0.155668 -0.589853,0.287803 -0.885861,0.433107 -0.281755,0.138395 -0.565239,0.274631 -0.84527,0.413242 0.05916,-0.111838 0.120259,-0.221518 0.178988,-0.33379 l -0.0298,0.0014 c 0.01013,-0.019 0.0205,-0.038 0.03066,-0.057 -0.107522,-0.0039 -0.194744,0.01252 -0.30313,0.008 -0.02092,-0.0025 -0.02008,-0.02719 -0.0354,-0.0354 -0.148114,0.273122 -0.296008,0.546458 -0.440881,0.822816 0.0052,0.0108 0.01102,0.02332 0.01683,0.03604 l -0.0019,0.0039 c -0.04706,0.08895 -0.101476,0.175747 -0.137747,0.27161 0.05743,0.06866 0.155668,0.130406 0.236201,0.188917 a 0.99709265,0.99709265 0 0 1 0.07476,-0.149655 c 0.08032,-0.144226 0.161282,-0.287587 0.240085,-0.433106 0.140772,0.06909 0.273122,0.146814 0.405471,0.224324 0.0123,0.01145 0.01877,0.02851 0.03541,0.03541 0.322344,0.179201 0.652466,0.350846 0.980427,0.527673 0.327743,0.176611 0.657215,0.353221 0.984311,0.519684 -0.0071,0.0012 0.01943,0.02201 0.02353,0.01189 a 0.07196128,0.07196128 0 0 1 -0.01314,-0.05701 z"/>
 <path style="fill:#ac7f5c" d="m 15.465151,4.803581 c -0.06837,0.8815655 0.07825,0.890477 0.02147,1.1751655 -0.06213,0.3115265 -0.120273,0.552076 -0.118731,0.805478 0.0021,0.340932 -0.223415,0.5544505 -0.32097,0.8780605 -0.1319,0.4375415 -0.158161,0.969904 -0.275337,1.2916685 C 14.613919,9.386899 14.304951,9.592558 13.954332,9.460309 13.142282,9.154015 12.483075,8.95211 11.966665,8.4692125 10.844186,7.4195765 10.500104,5.453184 10.500104,4.6643365 10.500104,3.4690064 11.591759,2.5 12.938383,2.5 c 1.346623,0 2.619208,1.1116074 2.526768,2.303581 z"/>
 <path style="fill:url(#linearGradient891)" d="m 14.234984,6.77317 0.509563,-0.1927995 c -0.08225,0.011375 0.116189,0.6992775 0.285536,1.0998395 0.04691,0.1109725 0.01019,0.2124665 -0.02007,0.2552255 -0.07228,0.102142 -0.356675,-0.065198 -0.582764,-0.1283725 -0.176976,-0.049455 -0.203331,0.053396 -0.203331,0.053396 -0.223543,0.020465 -0.09697,-0.1632205 -0.03137,-0.4371645 0.05044,-0.210648 0.01962,-0.496554 0.04244,-0.6501245 z"/>
 <path style="opacity:0.6" d="m 13.08449,6.6755665 0.895963,-0.053556 0.154858,0.032135 c 0,0 -0.09955,0.3277645 -1.050821,0.02142 z"/>
 <path style="opacity:0.6" d="M 15.322426,6.3713995 15.024634,6.538312 14.934354,6.61282 c 0,0 0.235218,0.237115 0.388072,-0.2414215 z"/>
 <path style="fill:#67553c" d="M 12.938807,2.5000424 C 11.592183,2.5000424 10.5,3.469437 10.5,4.664767 c 0,0.456571 0.121947,1.3068525 0.436682,2.1462975 0.420505,0.012925 0.932456,-0.20755 0.932456,-0.20755 -10e-7,0 1.006284,-0.8731805 1.035616,-2.0046975 0.562421,0.283601 1.403047,0.6292655 2.122313,0.517904 C 15.273095,5.078631 15.36694,4.807837 15.455736,4.4989215 15.334312,3.4290959 14.169591,2.5000424 12.938807,2.5000424 Z"/>
 <path style="fill:url(#linearGradient899)" d="m 10.616758,5.8119755 c 0.162258,-0.324858 0.373214,-0.225297 0.587526,-0.096493 0.293956,0.102176 0.275808,0.2756235 0.293834,0.402237 l 0.07791,0.838225 c 0.0082,0.1691635 -0.181918,0.165884 -0.181918,0.165884 L 11.161422,7.0514165 C 10.46102,6.6382695 10.537108,6.2251225 10.616758,5.8119755 Z"/>
 <path style="fill:#ac5c5c" d="m 14.546255,8.334028 c 0.153565,-0.050277 0.406581,-0.258373 0.406581,-0.258373 0,0 -0.09495,0.3446 -0.330347,0.442925 -0.235396,0.098325 -0.96563,-0.1230345 -0.96563,-0.1230345 0,0 0.607833,0.030665 0.889396,-0.061518 z"/>
</svg>
