<svg xmlns="http://www.w3.org/2000/svg" height="22" width="22" version="1.1">
 <path style="opacity:.2" d="m3 1.5-2 1.5 2 1.5 1-1h14l1 1 2-1.5-2-1.5-1 1h-14z"/>
 <path style="opacity:.2" d="m4 1.5h2v3h2v-3h2v3h2v-3h2v3h2v-3h2v15l-7 5-7-5z"/>
 <path style="fill:#4f4f4f" d="m3 1l-2 1.5 2 1.5 1-1h14l1 1 2-1.5-2-1.5-1 1h-14l-1-1z"/>
 <path style="opacity:.1;fill:#8b9cbe" d="m3 1l-2 1.5 0.3339844 0.25 1.6660156-1.25 1 1h14l1-1 1.666016 1.25 0.333984-0.25-2-1.5-1 1h-14l-1-1z"/>
 <path style="fill:#df1e3a" d="m4 1h2v3h2v-3h2v3h2v-3h2v3h2v-3h2v15l-7 5-7-5z"/>
 <path style="opacity:.2" d="m8 5.5v2h6v-2h-1v1h-1v-1h-2v1h-1v-1zm1 3v1h4v-1zm0 2v7h1v-2s0-1 1-1 1 1 1 1v2h1v-7zm1 1h2v2h-2z"/>
 <path style="fill:#8b9cbe" d="m8 5v2h6v-2h-1v1h-1v-1h-2v1h-1v-1h-1zm1 3v1h4v-1h-4zm0 2v7h1v-2s0-1 1-1 1 1 1 1v2h1v-7h-4zm1 1h2v2h-2v-2z"/>
 <path style="opacity:.2;fill:#8b9cbe" d="m4 1v0.5h2v-0.5h-2zm4 0v0.5h2v-0.5h-2zm4 0v0.5h2v-0.5h-2zm4 0v0.5h2v-0.5h-2zm-10 3v0.5h2v-0.5h-2zm4 0v0.5h2v-0.5h-2zm4 0v0.5h2v-0.5h-2z"/>
</svg>
