<svg xmlns="http://www.w3.org/2000/svg" width="22" height="22" version="1">
 <rect style="fill:#ac4cc7" width="20" height="20" x="1" y="1" rx="1" ry="1"/>
 <path style="opacity:0.2;fill:#8b9cbe" d="M 2,1 C 1.446,1 1,1.446 1,2 v 0.5 c 0,-0.554 0.446,-1 1,-1 h 18 c 0.554,0 1,0.446 1,1 V 2 C 21,1.446 20.554,1 20,1 Z"/>
 <path style="opacity:0.2" d="m 2,21.5 c -0.554,0 -1,-0.446 -1,-1 V 20 c 0,0.554 0.446,1 1,1 h 18 c 0.554,0 1,-0.446 1,-1 v 0.5 c 0,0.554 -0.446,1 -1,1 z"/>
 <g style="opacity:0.2" transform="matrix(0.5,0,0,0.5,-1,-0.5)">
  <rect width="4" height="32" x="22" y="8" rx="2" ry="2"/>
  <rect width="4" height="20" x="14" y="14" rx="2" ry="2"/>
  <rect width="4" height="28" x="30" y="10" rx="2" ry="2"/>
  <rect width="4" height="24" x="6" y="12" rx="2" ry="2"/>
  <rect width="4" height="24" x="38" y="12" rx="2" ry="2"/>
 </g>
 <g style="fill:#a8cce3" transform="matrix(0.5,0,0,0.5,-1,-1)">
  <rect style="fill:#a8cce3" width="4" height="32" x="22" y="8" rx="2" ry="2"/>
  <rect style="fill:#a8cce3" width="4" height="20" x="14" y="14" rx="2" ry="2"/>
  <rect style="fill:#a8cce3" width="4" height="28" x="30" y="10" rx="2" ry="2"/>
  <rect style="fill:#a8cce3" width="4" height="24" x="6" y="12" rx="2" ry="2"/>
  <rect style="fill:#a8cce3" width="4" height="24" x="38" y="12" rx="2" ry="2"/>
 </g>
</svg>
