<svg xmlns="http://www.w3.org/2000/svg" width="22" height="22" version="1">
 <path style="fill:#848484" d="m 10.999925,6.0001162 a 4.9999625,4.9999625 0 0 0 -4.9999625,4.9999628 4.9999625,4.9999625 0 0 0 4.9999625,4.999962 4.9999625,4.9999625 0 0 0 4.999963,-4.999962 4.9999625,4.9999625 0 0 0 -4.999963,-4.9999628 z m 0,2.9999778 c 1.104492,0 1.999985,0.895493 1.999985,1.999985 0,1.104491 -0.895493,1.999985 -1.999985,1.999985 -1.104492,0 -1.999985,-0.895494 -1.999985,-1.999985 0,-1.104542 0.895443,-1.999985 1.999985,-1.999985 z"/>
 <path style="fill:#b2bfd9" d="M 10.999925,1.0001538 C 5.4599666,1.0001538 1,5.4601203 1,11.000079 c 0,5.539958 4.4599666,9.999925 9.999925,9.999925 5.539958,0 9.999925,-4.459967 9.999925,-9.999925 0,-5.5399587 -4.459967,-9.9999252 -9.999925,-9.9999252 z m 0,5.9999549 a 3.99997,3.99997 0 0 1 3.99997,3.9999703 3.99997,3.99997 0 0 1 -3.99997,3.99997 3.99997,3.99997 0 0 1 -3.99997,-3.99997 3.99997,3.99997 0 0 1 3.99997,-3.9999703 z"/>
 <path style="opacity:0.2;fill:#8b9cbe" d="m 10.999925,1.0001538 c 5.534958,0 9.990925,4.4599665 9.990925,9.9999252 0,0.08393 -0.004,0.166569 -0.0058,0.249998 C 20.853006,5.8271175 16.451039,1.50015 11.00008,1.50015 c -5.4509591,0 -9.8529261,4.3269675 -9.9849251,9.749927 -0.002,-0.08343 -0.00584,-0.166064 -0.00584,-0.249998 0,-5.5399587 4.4559166,-9.9999252 9.9909241,-9.9999252 z M 12.97271,11.250077 c 0.01044,0.08275 0.02538,0.164414 0.02538,0.249998 0,1.104542 -0.894593,1.999985 -1.998135,1.999985 -1.103542,0 -1.998135,-0.895443 -1.998135,-1.999985 0,-0.08558 0.01493,-0.167244 0.02537,-0.249998 0.124089,0.985292 0.954743,1.749987 1.972785,1.749987 1.018042,0 1.848686,-0.764695 1.972785,-1.749987 z"/>
 <path style="opacity:0.2" d="M 1.006,11.250077 C 1.00395,11.333576 1.00015,11.416076 1.00015,11.500075 1.00015,17.040033 5.4601165,21.5 11.000075,21.5 16.540033,21.5 21,17.040033 21,11.500075 c 0,-0.084 -0.004,-0.166499 -0.006,-0.249998 -0.131999,5.422959 -4.537966,9.749927 -9.993925,9.749927 -5.4559591,0 -9.861926,-4.326968 -9.993925,-9.749927 z"/>
 <rect style="opacity:0.2" width="14" height="7" x="4" y="14.5" rx="1" ry="1"/>
 <rect style="fill:#64cd4a" width="14" height="7" x="4" y="14" rx="1" ry="1"/>
 <path style="opacity:0.2;fill:none;stroke:#000000;stroke-width:0.99999243;stroke-linecap:round;stroke-linejoin:round" d="m 8.5042362,19.99289 0,-3.99997 m -2.9999775,0 1.4999888,1.999984 1.4999887,-1.999984 m -2.9999775,3.99997 0,-3.99997"/>
 <path style="fill:none;stroke:#8b9cbe;stroke-width:0.99999243;stroke-linecap:round;stroke-linejoin:round" d="m 8.5042362,19.492894 0,-3.99997 m -2.9999775,0 1.4999888,1.999984 1.4999887,-1.999984 m -2.9999775,3.99997 0,-3.99997"/>
 <path style="opacity:0.2;fill:none;stroke:#000000;stroke-width:0.99999243;stroke-linecap:round" d="m 12.504382,19.99289 -1.999986,-2.499981 m 1.999986,-1.499989 -1.999986,2.499982 m 0,1.499988 0,-3.99997"/>
 <path style="fill:none;stroke:#8b9cbe;stroke-width:0.99999243;stroke-linecap:round" d="m 12.504382,19.492894 -1.999986,-2.499982 m 1.999986,-1.499988 -1.999986,2.499981 m 0,1.499989 0,-3.99997"/>
 <path style="opacity:0.2;fill:none;stroke:#000000;stroke-width:0.99999243;stroke-linecap:round;stroke-linejoin:round" d="m 16.502042,16.000158 -1.24999,3.999971 -1.249991,-3.999971"/>
 <path style="fill:none;stroke:#8b9cbe;stroke-width:0.99999243;stroke-linecap:round;stroke-linejoin:round" d="m 16.502042,15.500162 -1.24999,3.99997 -1.249991,-3.99997"/>
</svg>
