<svg width="22" height="22" version="1.1" xmlns="http://www.w3.org/2000/svg">
 <circle cx="11" cy="11.5" r="10" style="opacity:.2"/>
 <circle cx="11" cy="11" r="10" style="fill:#b2bfd9"/>
 <path d="M 11,1 A 10,10 0 0 0 1,11 10,10 0 0 0 1.0098,11.293 10,10 0 0 1 11,1.5 10,10 0 0 1 20.99,11.207 10,10 0 0 0 21,11 10,10 0 0 0 11,1 Z" style="fill:#8b9cbe;opacity:.2"/>
 <circle cx="8" cy="7.5" r="3" style="opacity:.1"/>
 <circle cx="8" cy="7" r="3" style="fill:#3c88e7"/>
 <circle cx="16" cy="11.5" r="3" style="opacity:.1"/>
 <circle cx="16" cy="11" r="3" style="fill:#5dc15c"/>
 <circle cx="9" cy="15.5" r="3" style="opacity:.1"/>
 <circle cx="9" cy="15" r="3" style="fill:#e74c3c"/>
</svg>
