<svg xmlns="http://www.w3.org/2000/svg" width="22" height="22" version="1">
 <rect style="opacity:0.2" width="20" height="20" x="1" y="1.5" rx="6" ry="6"/>
 <path style="fill:#219652" d="M 7,1 C 3.676,1 1,3.676 1,7 v 8 c 0,3.324 2.676,6 6,6 h 8 c 3.324,0 6,-2.676 6,-6 V 7 C 21,3.676 18.324,1 15,1 Z"/>
 <path style="opacity:0.1" d="M 3.1699219,2.8759765 C 2.6454385,3.3102941 2.2016186,3.8349372 1.850586,4.4228515 L 17.486328,20.459961 c 0.633073,-0.287524 1.206761,-0.680136 1.698242,-1.158203 L 12.414063,12.357422 20.149414,4.423828 C 19.798318,3.8356218 19.354775,3.3104705 18.830078,2.8759765 L 11,10.907227 Z"/>
 <path style="fill:#eff0f1" d="M 3.1699219,2.3759765 C 2.6454386,2.8102941 2.2016186,3.3349372 1.850586,3.9228515 L 17.818359,20.300781 c 0.607217,-0.322367 1.147664,-0.749346 1.607422,-1.251953 L 12.414063,11.857422 20.149414,3.9238281 C 19.798318,3.3356217 19.354775,2.8104705 18.830078,2.3759765 L 11,10.407227 Z"/>
 <path style="fill:#f64d4d" d="m 19.205078,2.7167969 -8.558593,8.7783201 c -0.194828,0.200208 -0.194828,0.524402 0,0.72461 l 2.106167,2.173676 c -0.112545,-0.515922 -0.193359,-0.924805 -0.193359,-0.924805 0,0 0.397003,0.08295 0.899414,0.198242 L 11.707031,11.857422 19.865234,3.4902344 C 19.666155,3.2141667 19.447315,2.9546064 19.205078,2.7167969 Z"/>
 <path style="fill:#fdbc4b" d="m 1.0000088,9.160859 v 2.092487 c 0.060488,0.01591 0.1203062,0.03297 0.1788,0.0522 0.4307849,0.14164 0.8219639,0.3761 1.1138806,0.675766 0.4744035,0.486997 0.7975408,1.283275 1.1490203,2.203789 0.3557321,0.931653 0.7848703,2.053346 1.7474308,2.895985 0.9606145,0.840935 2.1311545,1.109152 3.1514735,1.251359 1.010344,0.140811 1.916393,0.183297 2.657707,0.41765 0.696601,0.220221 1.349749,0.628964 1.874553,1.164966 0.312012,0.318665 0.580839,0.686686 0.801241,1.084934 h 2.205022 C 15.528333,20.055092 14.990313,19.183 14.284152,18.461773 13.534495,17.696121 12.609614,17.112736 11.58743,16.789585 10.509052,16.44867 9.486335,16.422014 8.6098465,16.299854 7.743334,16.179086 6.975488,15.947697 6.487763,15.520737 5.9971125,15.091214 5.6450875,14.330246 5.3041195,13.43726 4.958899,12.533136 4.583568,11.430972 3.7075834,10.531735 3.1596938,9.969301 2.4897899,9.582841 1.7891042,9.352458 1.5273041,9.266379 1.2633512,9.205126 1.0000088,9.160859 Z"/>
 <path style="fill:#2980b9" d="M 1,10.201172 V 15 c 0,3.324 2.676,6 6,6 h 7.796875 C 14.499158,20.328198 14.087816,19.709042 13.578125,19.188476 12.940895,18.537649 12.152361,18.041218 11.292969,17.769531 10.383123,17.481895 9.419002,17.447894 8.475586,17.316406 7.53217,17.18492 6.5630365,16.934728 5.838867,16.300781 5.1122615,15.6647 4.7213975,14.723843 4.373047,13.811524 4.0246965,12.899204 3.675194,11.949953 3,11.256836 2.5800969,10.825787 2.0501104,10.515113 1.484375,10.329102 1.3255215,10.276871 1.1634296,10.234595 1,10.201172 Z"/>
 <path style="opacity:0.1" d="m 13,14.5 c 0,0 0.655818,3.584514 1.464474,4.393297 0.808724,0.808863 2.120016,0.808947 2.928844,1.9e-4 0.808909,-0.808827 0.808909,-2.12031 0,-2.929138 C 16.58449,15.155591 13,14.5 13,14.5 Z"/>
 <path style="fill:#f64d4d" d="m 13,14 c 0,0 0.655818,3.584514 1.464474,4.393297 0.808724,0.808863 2.120016,0.808947 2.928844,1.9e-4 0.808909,-0.808827 0.808909,-2.12031 0,-2.929138 C 16.58449,14.655591 13,14 13,14 Z"/>
 <circle style="fill:#eff0f1" cx="-.707" cy="23.335" r="1" transform="matrix(0.70709426,-0.7071193,0.70709426,0.7071193,0,0)"/>
 <path style="opacity:0.1" d="m 1,10.201172 v 0.5 c 0.1634296,0.03343 0.3255215,0.0757 0.484375,0.12793 0.5657353,0.186011 1.0957219,0.496685 1.515625,0.927734 0.675194,0.693117 1.0246965,1.642368 1.373047,2.554688 0.3483505,0.912318 0.7392145,1.853176 1.46582,2.489257 0.7241695,0.633948 1.693303,0.884139 2.636719,1.015625 0.943416,0.131488 1.907537,0.165489 2.817383,0.453125 0.859391,0.271687 1.647926,0.768118 2.285156,1.418945 0.380445,0.388563 0.706201,0.83221 0.970703,1.311524 h 0.248047 C 14.499158,20.328198 14.087816,19.709042 13.578125,19.188476 12.940895,18.537649 12.152361,18.041218 11.292969,17.769531 10.383123,17.481895 9.419002,17.447894 8.475586,17.316406 7.53217,17.18492 6.5630365,16.934728 5.838867,16.300781 5.1122615,15.6647 4.7213975,14.723843 4.373047,13.811524 4.0246965,12.899204 3.675194,11.949953 3,11.256836 2.5800969,10.825787 2.0501104,10.515113 1.484375,10.329102 1.3255215,10.276871 1.1634296,10.234595 1,10.201172 Z"/>
 <path style="opacity:0.2;fill:#8b9cbe" d="M 7,1 C 3.676,1 1,3.676 1,7 v 0.5 c 0,-3.324 2.676,-6 6,-6 h 8 c 3.324,0 6,2.676 6,6 V 7 C 21,3.676 18.324,1 15,1 Z"/>
</svg>
