<svg xmlns="http://www.w3.org/2000/svg" width="22" height="22" version="1">
 <rect style="fill:#8e8e8e" width="1" height="19" x="14" y="-20" transform="rotate(90)"/>
 <rect style="fill:#8e8e8e" width="1" height="19" x="12" y="-20" transform="rotate(90)"/>
 <rect style="fill:#8e8e8e" width="1" height="19" x="10" y="-20" transform="rotate(90)"/>
 <rect style="fill:#8e8e8e" width="1" height="19" x="8" y="-20" transform="rotate(90)"/>
 <rect style="fill:#8e8e8e" width="1" height="19" x="16" y="-20" transform="rotate(90)"/>
 <rect style="fill:#8e8e8e" width="1" height="19" x="18" y="-20" transform="rotate(90)"/>
 <rect style="fill:#8e8e8e" width="1" height="19" x="6" y="-20" transform="rotate(90)"/>
 <rect style="fill:#8e8e8e" width="1" height="19" x="4" y="-20" transform="rotate(90)"/>
 <rect style="fill:#8e8e8e" width="1" height="19" x="10" y="2"/>
 <rect style="fill:#8e8e8e" width="1" height="19" x="8" y="2"/>
 <rect style="fill:#8e8e8e" width="1" height="19" x="6" y="2"/>
 <rect style="fill:#8e8e8e" width="1" height="19" x="4" y="2"/>
 <rect style="fill:#8e8e8e" width="1" height="19" x="12" y="2"/>
 <rect style="fill:#8e8e8e" width="1" height="19" x="14" y="2"/>
 <rect style="fill:#8e8e8e" width="1" height="19" x="16" y="2"/>
 <rect style="fill:#8e8e8e" width="1" height="19" x="2" y="2"/>
 <rect style="fill:#8e8e8e" width="1" height="19" x="18" y="2"/>
 <rect style="opacity:0.2" width="17" height="17" x="-20.5" y="-19" rx=".85" ry="1.063" transform="matrix(0,-1,-1,0,0,0)"/>
 <rect style="fill:#b7b7b7" width="17" height="17" x="-20" y="-19" rx=".85" ry="1.063" transform="matrix(0,-1,-1,0,0,0)"/>
 <path style="opacity:0.2;fill:#8b9cbe" d="M 3.0625,3 C 2.473875,3 2,3.3787094 2,3.8496094 v 0.5 C 2,3.8787094 2.473875,3.5 3.0625,3.5 h 14.875 C 18.526125,3.5 19,3.8787094 19,4.3496094 v -0.5 C 19,3.3787094 18.526125,3 17.9375,3 Z"/>
 <path style="opacity:0.5;fill-rule:evenodd" d="M 10.000001,4.5000004 C 8.892001,4.5000004 8,5.3920004 8,6.5000001 V 11.5 c 0,0.0135 0.0035,0.0255 0.004,0.039 A 4,4 0 0 0 6,15 a 4,4 0 0 0 4.000001,4 4,4 0 0 0 4,-4 4,4 0 0 0 -2.004,-3.463 c 0,-0.013 0.004,-0.025 0.004,-0.037 V 6.5000001 c 0,-1.1079997 -0.892,-1.9999997 -2,-1.9999997 z m 0,1 c 0.554,0 1,0.446 1,0.9999997 V 12.176 a 3,3 0 0 1 2,2.824 3,3 0 0 1 -3,3 A 3,3 0 0 1 7,15 3,3 0 0 1 9.000001,12.175 V 6.5000001 c 0,-0.5539997 0.446,-0.9999997 1,-0.9999997 z"/>
 <path style="opacity:0.2" d="M 9.000001,10.0002 V 12.675 C 7.8025003,13.098 7.0015,14.23 7,15.5 c 0,1.6568 1.343201,3 3.000001,3 1.6568,0 3,-1.3432 3,-3 -0.0018,-1.2698 -0.8028,-2.401 -2,-2.8242 v -2.676 z"/>
 <path style="fill:#f75f5f" d="m 9.000001,9.5 v 2.6748 C 7.8025003,12.5978 7.0015,13.7298 7,14.9998 c 0,1.6568 1.343201,3 3.000001,3 1.6568,0 3,-1.3432 3,-3 -0.0018,-1.2698 -0.8028,-2.401 -2,-2.8242 v -2.676 z"/>
</svg>
