<svg xmlns="http://www.w3.org/2000/svg" width="22" height="22" version="1">
 <path fill="#fff" opacity=".2" d="m10.5 5.5v4.5h4.4996l-4.4996 7.5v-4.5h-4.4996z"/>
 <path fill="#fecd38" d="m11 1c-5.5395 0-9.9991 4.46-9.9991 10s4.4596 10 9.9991 10 9.9991-4.46 9.9991-10-4.459-10-9.999-10z"/>
 <path fill="#fff" opacity=".2" d="m10.5 5.5v4h4.5l-4.5 8v-4h-4.5z"/>
 <path fill="#fff" opacity=".2" d="m11 1c-5.5395 0-9.9991 4.46-9.9991 10 0 0.084-0.002 0.1665 0 0.25 0.1322-5.423 4.5436-9.75 9.9991-9.75s9.8671 4.327 9.9991 9.75c0.002-0.0835 0-0.166 0-0.25 0-5.54-4.459-10-9.999-10z"/>
 <path fill="#17191e" d="m10.5 5v4h4.5l-4.5 8v-4h-4.5z"/>
 <path opacity=".2" d="m1.0067 11.25c-0.00205 0.0835-0.00585 0.166-0.00585 0.25 0 5.54 4.4596 10 9.9991 10s9.9991-4.46 9.9991-10c0-0.084-0.004-0.1665-0.006-0.25-0.132 5.423-4.537 9.75-9.993 9.75-5.4555 0-9.8611-4.327-9.9931-9.75z"/>
 <circle fill="#4daaf5" cx="17" cy="17" r="5"/>
 <rect fill="#fff" width="2" height="4" x="16" y="16"/>
 <rect fill="#fff" width="2" height="2" x="16" y="13"/>
</svg>
