<svg xmlns="http://www.w3.org/2000/svg" width="22" height="22" version="1">
 <rect style="fill:#863ea7" width="16" height="20" x="-18" y="-21" rx="1" ry="1" transform="matrix(0,-1,-1,0,0,0)"/>
 <path style="opacity:0.2" d="M 8.563648,6.500151 A 0.55082055,0.55694355 0 0 0 8,7.0566365 v 3.4439865 3.442305 a 0.55082055,0.55694355 0 0 0 0.8261345,0.482512 l 2.9490705,-1.721573 2.949069,-1.721573 a 0.55082055,0.55694355 0 0 0 0,-0.965023 L 11.775205,8.295698 8.8261345,6.5749655 A 0.55082055,0.55694355 0 0 0 8.563648,6.500151 Z"/>
 <path style="opacity:0.1;fill:#8b9cbe" d="M 2,2 C 1.446,2 1,2.446 1,3 v 0.5 c 0,-0.554 0.446,-1 1,-1 h 18 c 0.554,0 1,0.446 1,1 V 3 C 21,2.446 20.554,2 20,2 Z"/>
 <path style="opacity:0.2" d="m 1,17 v 0.5 c 0,0.554 0.446,1 1,1 h 18 c 0.554,0 1,-0.446 1,-1 V 17 c 0,0.554 -0.446,1 -1,1 H 2 C 1.446,18 1,17.554 1,17 Z"/>
 <rect style="opacity:0.3" width="2" height="2" x="2" y="5" rx=".449" ry=".435"/>
 <rect style="opacity:0.3" width="2" height="2" x="2" y="14" rx=".449" ry=".435"/>
 <rect style="opacity:0.3" width="2" height="2" x="2" y="11" rx=".449" ry=".435"/>
 <rect style="opacity:0.3" width="2" height="2" x="2" y="8" rx=".449" ry=".435"/>
 <rect style="opacity:0.3" width="2" height="2" x="18" y="5" rx=".449" ry=".435"/>
 <rect style="opacity:0.3" width="2" height="2" x="18" y="14" rx=".449" ry=".435"/>
 <rect style="opacity:0.3" width="2" height="2" x="18" y="11" rx=".449" ry=".435"/>
 <rect style="opacity:0.3" width="2" height="2" x="18" y="8" rx=".449" ry=".435"/>
 <path style="fill:#8b9cbe" d="M 8.563648,6.000151 A 0.55082055,0.55694355 0 0 0 8,6.5566365 v 3.4439865 3.442305 a 0.55082055,0.55694355 0 0 0 0.8261345,0.482512 l 2.9490705,-1.721573 2.949069,-1.721573 a 0.55082055,0.55694355 0 0 0 0,-0.965023 L 11.775205,7.795698 8.8261345,6.0749655 A 0.55082055,0.55694355 0 0 0 8.563648,6.000151 Z"/>
 <path style="opacity:0.2" d="m 19.970703,9.5 a 1.00009,1.00009 0 0 0 -0.212891,0.0293 l -7,1.75 A 1.00009,1.00009 0 0 0 12,12.25 V 19 h 2 v -5.96875 l 5,-1.25 V 17.5 h 2 v -7 a 1.00009,1.00009 0 0 0 -1.029297,-1 z"/>
 <path style="fill:none;stroke:#ff5722;stroke-width:1.99997997;stroke-linejoin:round" d="M 12.99989,18.50003 V 11.749991 L 20,10.000009 V 17.5"/>
 <circle style="opacity:0.2" cx="11.5" cy="19" r="2.5"/>
 <circle style="fill:#ff9800" cx="11.5" cy="18.5" r="2.5"/>
 <circle style="opacity:0.2" cx="18.5" cy="18" r="2.5"/>
 <circle style="fill:#ff9800" cx="18.5" cy="17.5" r="2.5"/>
 <path style="opacity:0.2;fill:#8b9cbe" d="m 18.500001,15.000107 c -1.380698,0 -2.499975,1.119277 -2.499975,2.499975 1.13e-4,0.08611 0.0047,0.172166 0.01367,0.25781 0.124597,-1.280113 1.200143,-2.256807 2.486305,-2.25779 1.280752,1.76e-4 2.354225,0.968241 2.486303,2.242165 0.0085,-0.08046 0.01303,-0.161283 0.01367,-0.242185 0,-1.380698 -1.119277,-2.499975 -2.499975,-2.499975 z m -7.000096,0.999948 c -1.380698,0 -2.4999751,1.119277 -2.4999751,2.499975 1.131e-4,0.08611 0.00468,0.172166 0.01367,0.25781 0.124597,-1.280113 1.2001431,-2.256807 2.4863051,-2.25779 1.280752,1.76e-4 2.354225,0.968241 2.486303,2.242165 0.0085,-0.08046 0.01304,-0.161283 0.01367,-0.242185 0,-1.380698 -1.119277,-2.499975 -2.499975,-2.499975 z"/>
 <path style="opacity:0.2;fill:#8b9cbe" d="m 19.970703,9 a 1.00009,1.00009 0 0 0 -0.212891,0.0293 l -7,1.75 A 1.00009,1.00009 0 0 0 12,11.75 v 0.472656 a 1.00009,1.00009 0 0 1 0.757812,-0.943359 l 7,-1.75 A 1.00009,1.00009 0 0 1 19.970703,9.5 1.00009,1.00009 0 0 1 21,10.5 V 10 A 1.00009,1.00009 0 0 0 19.970703,9 Z"/>
</svg>
