<svg xmlns="http://www.w3.org/2000/svg" width="22" height="22" version="1.1">
 <g style="opacity:.2" transform="matrix(.46666667 0 0 -.5 -.20000003 24.5)">
  <path d="m9 6h30v14h-30z"/>
  <rect style="opacity:.5" width="6" height="4" x="12" y="9"/>
  <rect style="opacity:.5" width="6" height="4" x="30" y="9"/>
 </g>
 <path style="fill:#b7b7b7" d="m4 21h14v-7h-14z"/>
 <rect style="opacity:.5" width="3" height="2" x="6" y="-20" transform="scale(1,-1)"/>
 <rect style="opacity:.5" width="3" height="2" x="13" y="-20" transform="scale(1,-1)"/>
 <path style="opacity:.2" d="m11 1.5a10 10 0 0 0 -10 10 10 10 0 0 0 1.3554688 5h17.294922a10 10 0 0 0 1.349609 -5 10 10 0 0 0 -10 -10z"/>
 <path style="fill:#5161a2" d="m11 1a10 10 0 0 0 -10 10 10 10 0 0 0 1.3554688 5h17.294922a10 10 0 0 0 1.349609 -5 10 10 0 0 0 -10 -10z"/>
 <g transform="translate(3)">
  <path style="opacity:.2;fill:#8b9cbe" d="m10.5 2c-1.9329966 0-3.5 1.567003-3.5 3.5v2.4667969s0.00377 0.028042 0.00391 0.033203l-2.50391 1e-7c-1.9329966 0-3.5 1.5670034-3.5 3.5 0 1.932997 1.5670034 3.5 3.5 3.5s3.5-1.567003 3.5-3.5v-2.4667969s-0.00377-0.028042-0.00391-0.033203l2.50391-1e-7c1.932997 0 3.5-1.567003 3.5-3.5s-1.567003-3.5-3.5-3.5zm0 1c1.380712 0 2.5 1.119288 2.5 2.5s-1.119288 2.5-2.5 2.5h-1.8027344c-0.6970063 0-0.6972656-0.7382813-0.6972656-0.7382812v-1.7617188c0-1.380712 1.1192881-2.5 2.5-2.5zm-6 6h1.8027344c0.6970063 0 0.6972656 0.7382812 0.6972656 0.7382812v1.7617188c0 1.380712-1.1192881 2.5-2.5 2.5s-2.5-1.119288-2.5-2.5 1.1192881-2.5 2.5-2.5z"/>
  <path style="fill:#8b9cbe" d="m10.5 2c-1.9329966 0-3.5 1.567003-3.5 3.5v2.4667969s0.00377 0.028042 0.00391 0.033203l-2.50391 1e-7c-0.1673346 0-0.3272112 0.0261212-0.4882812 0.0488281-0.0019496 0.15531-0.0117199 0.1590952-0.0117188 0.3515625-0.0000014 0.2741054 0.004388 0.4398391 0.0078125 0.6484375 0.1591968-0.0317987 0.3236386-0.0488281 0.4921875-0.0488281h1.8027344c0.6970063 0 0.6972656 0.7382812 0.6972656 0.7382812v1.7617188c0 1.380712-1.1192881 2.5-2.5 2.5-0.5532952 0-1.0604814-0.185956-1.4746094-0.490234-0.0147824 0.135817-0.0253906 0.282466-0.0253906 0.490234 0 0.2338 0.017514 0.435325 0.023437 0.662109 0.4499033 0.210494 0.9470412 0.337891 1.476563 0.337891 1.9329966 0 3.5-1.567003 3.5-3.5v-2.4667969s-0.00377-0.028042-0.00391-0.033203l2.50391-1e-7c0.165346 0 0.323183-0.026649 0.482422-0.048828 0.008207-0.1650318 0.017578-0.3216607 0.017578-0.5507814 0-0.1834192-0.010743-0.3197075-0.021484-0.4492187-0.15511 0.0301143-0.314603 0.0488281-0.478516 0.0488281h-1.8027344c-0.6970063 0-0.6972656-0.7382814-0.6972656-0.7382812v-1.7617188c0-1.380712 1.1192881-2.5 2.5-2.5 0.560778 0 1.07318 0.1921082 1.490234 0.5039062 0.003474-0.1617859 0.009763-0.2921925 0.009766-0.5039062-0.000004-0.2654061-0.011814-0.4599981-0.021484-0.6621094-0.450304-0.2109533-0.94838-0.3378906-1.478516-0.3378906z"/>
 </g>
 <path style="opacity:.1;fill:#8b9cbe" d="m11 1a10 10 0 0 0 -10 10 10 10 0 0 0 0.0097656 0.203125 10 10 0 0 1 9.9902344 -9.703125 10 10 0 0 1 9.990234 9.8125 10 10 0 0 0 0.009766 -0.3125 10 10 0 0 0 -10 -10z"/>
</svg>
