<svg xmlns="http://www.w3.org/2000/svg" width="22" height="22" version="1">
 <path style="opacity:0.2" d="m 10.978643,14.5 a 0.39535353,0.39345903 0 0 0 -0.321201,0.196186 L 7.0529579,20.909419 A 0.39535353,0.39345903 0 0 0 7.3952784,21.5 h 7.2089686 a 0.39535353,0.39345903 0 0 0 0.342321,-0.590581 L 11.342083,14.696186 A 0.39535353,0.39345903 0 0 0 10.978643,14.5 Z"/>
 <path style="fill:#bc2b1a" d="m 10.978643,14 a 0.39535353,0.39345903 0 0 0 -0.321201,0.196186 L 7.0529579,20.409419 A 0.39535353,0.39345903 0 0 0 7.3952784,21 h 7.2089686 a 0.39535353,0.39345903 0 0 0 0.342321,-0.590581 L 11.342083,14.196186 A 0.39535353,0.39345903 0 0 0 10.978643,14 Z"/>
 <path style="opacity:0.2" d="M 11,0.50032587 C 10.252317,0.72625407 4.8916854,6.3117365 3.3621236,8.477676 0.98096323,11.849518 0.40422093,14.954115 1.6130587,16.669551 2.4088726,17.798873 3.9153809,18.455354 5.4246724,18.499585 7.7778219,18.52473 9.583912,17.402815 11,15.973278 c 1.416088,1.429537 3.222178,2.551452 5.575327,2.526307 1.509292,-0.04423 3.015799,-0.700712 3.811614,-1.830034 1.208838,-1.715436 0.632096,-4.820033 -1.749065,-8.191875 C 17.108315,6.3117365 11.747683,0.72625407 11,0.50032587 Z"/>
 <path style="fill:#f1432e" d="M 11,3.2486664e-4 C 10.252317,0.22625307 4.8916854,5.8117355 3.3621236,7.977675 0.98096323,11.349518 0.40422093,14.454115 1.6130587,16.169551 2.4088726,17.298873 3.9153809,17.955354 5.4246724,17.999585 7.7778219,18.02473 9.583912,16.902815 11,15.473278 c 1.416088,1.429537 3.222178,2.551452 5.575327,2.526307 1.509292,-0.04423 3.015799,-0.700712 3.811614,-1.830034 1.208838,-1.715436 0.632096,-4.820033 -1.749065,-8.191876 C 17.108315,5.8117355 11.747683,0.22625307 11,3.2486664e-4 Z"/>
 <path style="opacity:0.2;fill:#8b9cbe" d="M 11,-3.3357288e-8 C 10.252317,0.22592817 4.8908899,5.8125761 3.3613281,7.9785156 1.7471564,10.264264 0.98312423,12.414837 1.0214844,14.105469 1.1317879,12.499535 1.9045111,10.541441 3.3613281,8.4785156 4.8908899,6.3125761 10.252317,0.72592817 11,0.49999997 c 0.747683,0.2259282 6.109111,5.81257613 7.638672,7.97851563 1.456817,2.0629254 2.22954,4.0210194 2.339844,5.6269534 0.03836,-1.690632 -0.725672,-3.841205 -2.339844,-6.1269534 C 17.109111,5.8125761 11.747683,0.22592817 11,-3.3357288e-8 Z"/>
 <path style="opacity:0.2" d="m 6,6.5 v 9 h 2 v -3 -3.171875 L 9.585937,10.914062 11,12.328125 12.414062,10.914062 14,9.328125 V 12.5 v 3 h 2 v -9 h -2 l -3,3 -3,-3 z"/>
 <path style="fill:#8b9cbe" d="m 6,6 v 9 H 8 V 12 8.828125 L 9.585937,10.414062 11,11.828125 12.414062,10.414062 14,8.828125 V 12 15 h 2 V 6 H 14 L 11,9 8,6 Z"/>
</svg>
