<svg xmlns="http://www.w3.org/2000/svg" width="22" height="22" version="1.1">
 <path style="opacity:0.2" d="m 8.0000003,1.5 a 6,6 0 0 0 -6,6 6,6 0 0 0 1.5371094,4 6,6 0 0 0 -1.5371094,4 6,6 0 0 0 6,6 6,6 0 0 0 5.6542967,-4.017578 6,6 0 0 0 0.345703,0.01758 6,6 0 0 0 6,-6 6,6 0 0 0 -6,-6 A 6,6 0 0 0 13.654297,5.513674 6,6 0 0 0 8.0000003,1.5 Z"/>
 <circle style="fill:#5f81d4" cx="14" cy="11" r="6"/>
 <circle style="fill:#5f81d4" cx="8" cy="7" r="6"/>
 <path style="opacity:0.2;fill:#8b9cbe" d="m 8.0000003,1 a 6,6 0 0 0 -6,6 6,6 0 0 0 0.00977,0.2148438 A 6,6 0 0 1 8.0000003,1.5 6,6 0 0 1 13.654297,5.5136719 6,6 0 0 1 14,5.5 6,6 0 0 1 19.990234,11.285156 6,6 0 0 0 20,11 6,6 0 0 0 14,5 6,6 0 0 0 13.654297,5.013672 6,6 0 0 0 8.0000003,1 Z"/>
 <circle style="fill:#5f81d4" cx="8" cy="15" r="6"/>
 <path style="opacity:0.2" d="M 11.5,4.5 A 3.5,3.5 0 0 0 8.0000003,8 3.5,3.5 0 0 0 11.5,11.5 3.5,3.5 0 0 0 15,8 3.5,3.5 0 0 0 11.5,4.5 Z m 0,7 A 3.5,3.5 0 0 0 8.9414065,12.619141 3.5,3.5 0 0 0 9.0000003,12 a 3.5,3.5 0 0 0 -3.5,-3.5 3.5,3.5 0 0 0 -3.5,3.5 3.5,3.5 0 0 0 3.5,3.5 A 3.5,3.5 0 0 0 8.0585941,14.380859 3.5,3.5 0 0 0 8.0000003,15 3.5,3.5 0 0 0 11.5,18.5 3.5,3.5 0 0 0 15,15 3.5,3.5 0 0 0 11.5,11.5 Z"/>
 <circle style="fill:#f2f2f2" cx="5.5" cy="11.5" r="3.5"/>
 <circle style="fill:#f2f2f2" cx="11.5" cy="14.5" r="3.5"/>
 <circle style="fill:#f2f2f2" cx="11.5" cy="7.5" r="3.5"/>
 <path style="opacity:0.2" d="m 5.2303888,4.5390755 c 0.2427275,-0.1186895 0.475915,0.07086 0.475915,0.07086 l 5.5685892,3.21916 5.384159,3.1157055 c 0,0 0.340948,0.162623 0.340948,0.551289 0,0.389729 -0.343774,0.516568 -0.343774,0.516568 l -5.393699,3.115705 -5.6940162,3.288958 c 0,0 -0.1660575,0.144199 -0.380166,0.05173 -0.244494,-0.10629 -0.180897,-0.37662 -0.180897,-0.37662 V 11.478732 4.9716775 c 3.53e-4,0 -0.02685,-0.3103655 0.222941,-0.432599 z"/>
 <path style="fill:#ffbf00" d="m 5.2303888,4.0390748 c 0.2427275,-0.1186897 0.475915,0.07086 0.475915,0.07086 l 5.5685892,3.21916 5.384159,3.1157062 c 0,0 0.340948,0.162623 0.340948,0.551289 0,0.389729 -0.343774,0.516568 -0.343774,0.516568 l -5.393699,3.115705 -5.6940162,3.288958 c 0,0 -0.1660575,0.144199 -0.380166,0.05173 -0.244494,-0.10629 -0.180897,-0.37662 -0.180897,-0.37662 V 10.978732 4.4716768 c 3.53e-4,0 -0.02685,-0.3103655 0.222941,-0.432599 z"/>
</svg>
