<svg width="22" height="22" version="1.1" xmlns="http://www.w3.org/2000/svg">
 <g transform="translate(-1,-1)">
  <path d="m12 22.5s6-3 8-8v-11s-3-1-8-1-8.0000001 1-8.0000001 1v11c2.0000001 5 8.0000001 8 8.0000001 8z" style="opacity:.2"/>
  <path d="m12 22s6-3 8-8v-11s-3-1-8-1-8.0000001 1-8.0000001 1v11c2.0000001 5 8.0000001 8 8.0000001 8z" style="fill:#0d78b9"/>
  <path d="m12 2v20s6-3 8-8v-11s-3-1-8-1z" style="opacity:.2"/>
  <path d="m5 4.5v10c0 1 3 4 3 4l1e-7 -9.75 2.9999999 2.75v4h2v-4l3-2.75v9.75s3-3 3-4v-10h-3l-4 4-4-4z" style="opacity:.2"/>
  <path d="m5 4v10c0 1 3 4 3 4l1e-7 -9.75 2.9999999 2.75v4h2v-4l3-2.75v9.75s3-3 3-4v-10h-3l-4 4-4-4z" style="fill:#8b9cbe"/>
  <path d="m12 2c-5 0-8 1-8 1v0.5s3-1 8-1 8 1 8 1v-0.5s-3-1-8-1z" style="fill:#8b9cbe;opacity:.2"/>
 </g>
</svg>
