<svg xmlns="http://www.w3.org/2000/svg" width="22" height="22" version="1">
 <circle style="opacity:0.2" cx="11" cy="11.5" r="10"/>
 <circle style="fill:#546e7a" cx="11" cy="11" r="10"/>
 <path style="opacity:0.1" d="m 11.698705,3.500181 c -0.138199,-8e-4 -0.191728,0.1087488 -0.472094,0.962046 l -0.279016,0.848207 -0.42522,0.03795 C 10.28819,5.369544 10.017757,5.4032405 9.921934,5.42316 9.79525,5.44948 9.736226,5.450075 9.705418,5.42431 9.682128,5.40495 9.484657,5.0848725 9.266805,4.7133755 c -0.4353665,-0.7424216 -0.5237715,-0.8616 -0.646199,-0.8616 -0.128662,0 -0.9907815,0.343368 -1.053563,0.4196395 C 7.536238,4.308855 7.511838,4.385741 7.512358,4.4410565 7.5127575,4.49637 7.590215,4.90121 7.684232,5.3417185 7.7782535,5.782231 7.849557,6.1577975 7.8427125,6.1754175 7.8358775,6.1930175 7.7335365,6.266831 7.615036,6.340594 7.4965365,6.4143575 7.2810315,6.5698025 7.137361,6.6854575 6.9936965,6.8011125 6.862788,6.896393 6.846069,6.896393 c -0.01671,0 -0.352563,-0.182496 -0.7466455,-0.4051305 -0.810298,-0.457768 -0.84885,-0.4754235 -0.963162,-0.4319155 -0.123503,0.047005 -0.729904,0.816488 -0.729904,0.926331 0,0.119047 0.029325,0.156125 0.6473155,0.8437435 0.2954625,0.328741 0.536826,0.6211245 0.536826,0.649548 0,0.0284 -0.061838,0.177644 -0.1383915,0.3314705 -0.076556,0.153827 -0.1788545,0.383578 -0.226561,0.510041 -0.04771,0.126459 -0.104338,0.244182 -0.126115,0.262274 -0.02433,0.02024 -0.3806995,0.03656 -0.925215,0.04241 -1.0924511,0.01172 -0.9963381,-0.04089 -1.0993221,0.60937 -0.03988,0.251865 -0.073797,0.495903 -0.074775,0.542406 -0.0036,0.173251 0.069653,0.211711 0.958697,0.504461 l 0.8470911,0.279015 0.03683,0.415175 c 0.020655,0.22871 0.053554,0.500911 0.072544,0.60379 0.019015,0.102883 0.026365,0.19976 0.01674,0.2154 -0.00967,0.01564 -0.3371015,0.21725 -0.727672,0.448657 -0.3905736,0.23141 -0.7416376,0.456252 -0.7812441,0.498879 -0.0396,0.04264 -0.072544,0.115314 -0.072544,0.161829 0,0.136083 0.3490525,0.994908 0.426336,1.049099 0.101038,0.07084 0.188275,0.06037 1.0613756,-0.126115 0.439874,-0.09395 0.814797,-0.163829 0.832582,-0.156249 0.017775,0.0076 0.092462,0.109682 0.1662935,0.227677 0.073827,0.117991 0.2300255,0.333996 0.3470955,0.479906 0.1456635,0.181555 0.2059805,0.282627 0.1919625,0.319194 -0.01127,0.0294 -0.1916185,0.358668 -0.4017825,0.732137 -0.430756,0.765481 -0.455554,0.818717 -0.427452,0.930796 0.02873,0.114623 0.8209885,0.74805 0.9352605,0.747762 0.11786,-2.96e-4 0.1743075,-0.04337 0.8348145,-0.64062 0.3215375,-0.290738 0.608755,-0.532818 0.6383875,-0.537942 0.029645,-0.0051 0.1825405,0.05463 0.340399,0.132811 0.157858,0.07818 0.3992925,0.181738 0.5357095,0.229909 0.1364165,0.04817 0.250986,0.08939 0.254463,0.09152 0.0036,0.002 0.0137,0.417968 0.02344,0.9241 0.02173,1.130291 -0.02983,1.031692 0.601558,1.133919 0.474458,0.07681 0.661589,0.07734 0.737717,0.0011 0.02653,-0.02656 0.172422,-0.427969 0.324774,-0.891734 l 0.276784,-0.842627 0.319193,-0.02455 c 0.175144,-0.01348 0.4476,-0.04648 0.606022,-0.07254 0.286779,-0.04719 0.288842,-0.04704 0.348211,0.02455 0.03281,0.03956 0.236732,0.374385 0.454238,0.744414 0.217503,0.370029 0.426596,0.699068 0.464281,0.729904 0.103187,0.08443 0.176854,0.07092 0.675217,-0.119418 0.475282,-0.181527 0.570628,-0.247812 0.570309,-0.397319 -9.6e-5,-0.04651 -0.07787,-0.451473 -0.172991,-0.900661 -0.09512,-0.449189 -0.16578,-0.828996 -0.157363,-0.842628 0.0084,-0.01364 0.118014,-0.09425 0.244417,-0.179686 0.1264,-0.08544 0.337849,-0.24348 0.469862,-0.351559 0.132017,-0.108079 0.253892,-0.196407 0.270086,-0.196427 0.01619,-2.4e-5 0.361597,0.185381 0.767852,0.411827 0.830528,0.462928 0.825403,0.460635 0.935259,0.433032 0.116894,-0.02936 0.747763,-0.823109 0.747763,-0.94084 0,-0.11014 -0.02664,-0.144374 -0.655129,-0.84486 -0.282168,-0.314493 -0.518023,-0.597575 -0.523433,-0.629459 -0.0055,-0.03188 0.04899,-0.174511 0.120535,-0.316961 0.07155,-0.142451 0.17368,-0.371113 0.227676,-0.507808 0.05399,-0.136696 0.112321,-0.262512 0.129463,-0.280132 0.01854,-0.01904 0.393682,-0.03846 0.925216,-0.04799 0.852753,-0.01528 0.897176,-0.01981 0.960929,-0.08371 0.05233,-0.05244 0.08326,-0.170538 0.143972,-0.544639 0.04264,-0.262718 0.07787,-0.508062 0.07813,-0.545754 0.0012,-0.152287 -0.09041,-0.198837 -0.959813,-0.487719 l -0.848207,-0.281248 -0.03571,-0.414059 c -0.01985,-0.22771 -0.05188,-0.499314 -0.07143,-0.602674 -0.01953,-0.103358 -0.02765,-0.200664 -0.01785,-0.216515 0.0098,-0.01584 0.33723,-0.217795 0.727672,-0.448657 0.390443,-0.230862 0.741641,-0.454797 0.781243,-0.497764 0.0396,-0.04297 0.07255,-0.114462 0.07255,-0.158481 0,-0.1262355 -0.343863,-0.983043 -0.419639,-1.0457505 -0.09628,-0.079667 -0.162076,-0.072878 -0.927448,0.090401 -0.898661,0.191718 -0.94697,0.2002815 -0.979903,0.177454 -0.01543,-0.01068 -0.09752,-0.124035 -0.181918,-0.25223 -0.0844,-0.128195 -0.238688,-0.336979 -0.342631,-0.464282 C 15.692948,7.4967995 15.6083,7.378856 15.608276,7.36294 c -2e-5,-0.01592 0.185954,-0.360874 0.412943,-0.7678505 0.226986,-0.406972 0.420828,-0.77071 0.431917,-0.8080295 0.03836,-0.129095 -0.04167,-0.2292335 -0.444193,-0.552451 -0.428978,-0.344457 -0.504158,-0.37633 -0.657361,-0.2712025 -0.04352,0.02988 -0.348891,0.296515 -0.677449,0.5926285 -0.328563,0.2961135 -0.620199,0.5390585 -0.648433,0.5390585 -0.02825,0 -0.176687,-0.063636 -0.330354,-0.140624 C 13.541679,5.8774795 13.322043,5.7824225 13.207626,5.742411 12.872423,5.625188 12.887449,5.6739935 12.887317,4.7055895 12.887209,3.9357677 12.882467,3.8598844 12.825933,3.7669812 12.788853,3.7060982 12.728572,3.6591185 12.674149,3.6475586 12.535845,3.6181418 11.758078,3.500565 11.698705,3.500181 Z"/>
 <path style="fill:#768b95" d="m 11.698705,3.000096 c -0.138199,-8e-4 -0.191728,0.1087487 -0.472094,0.9620457 l -0.279016,0.8482073 -0.42522,0.03795 C 10.28819,4.869459 10.017757,4.9031555 9.921934,4.923075 9.79525,4.949395 9.736226,4.94999 9.705418,4.924225 9.682128,4.904865 9.484657,4.5847875 9.266805,4.2132905 8.8314385,3.4708688 8.7430335,3.3516904 8.620606,3.3516904 c -0.128662,0 -0.9907815,0.343368 -1.053563,0.4196394 -0.030805,0.037439 -0.055205,0.1143259 -0.054685,0.1696414 3.995e-4,0.055314 0.077857,0.4601538 0.171874,0.9006623 0.094022,0.4405125 0.165325,0.816079 0.1584805,0.833699 -0.00683,0.0176 -0.109176,0.091414 -0.2276765,0.1651765 C 7.4965365,5.9142725 7.2810315,6.0697175 7.137361,6.1853725 6.9936965,6.3010275 6.862788,6.396308 6.846069,6.396308 6.829359,6.396308 6.493506,6.213812 6.0994235,5.9911775 5.2891255,5.5334095 5.2505735,5.515754 5.1362615,5.559262 5.0127585,5.606267 4.4063575,6.37575 4.4063575,6.485593 c 0,0.119047 0.029325,0.156125 0.6473155,0.8437435 0.2954625,0.328741 0.536826,0.6211245 0.536826,0.649548 0,0.0284 -0.061838,0.177644 -0.1383915,0.3314705 C 5.3755515,8.464182 5.273253,8.6939325 5.2255465,8.8203955 5.1778365,8.9468545 5.1212085,9.064578 5.0994315,9.08267 5.0751015,9.10291 4.718732,9.11923 4.1742165,9.12508 3.0817654,9.1368 3.1778784,9.08419 3.0748944,9.73445 c -0.03988,0.251865 -0.073797,0.495903 -0.074775,0.542406 -0.0036,0.173251 0.069653,0.211711 0.958697,0.504461 l 0.8470911,0.279015 0.03683,0.415175 c 0.020655,0.22871 0.053554,0.500911 0.072544,0.60379 0.019015,0.102883 0.026365,0.19976 0.01674,0.2154 -0.00967,0.01564 -0.3371015,0.21725 -0.727672,0.448657 -0.3905736,0.23141 -0.7416376,0.456252 -0.7812441,0.498879 -0.0396,0.04263 -0.072544,0.115314 -0.072544,0.161829 0,0.136083 0.3490525,0.994908 0.426336,1.049099 0.101038,0.07084 0.188275,0.06037 1.0613756,-0.126115 0.439874,-0.09395 0.814797,-0.163829 0.832582,-0.156249 0.017775,0.0076 0.092462,0.109682 0.1662935,0.227677 0.073827,0.117991 0.2300255,0.333996 0.3470955,0.479906 0.1456635,0.181554 0.2059805,0.282627 0.1919625,0.319194 -0.01127,0.0294 -0.1916185,0.358668 -0.4017825,0.732137 -0.430756,0.765481 -0.455554,0.818717 -0.427452,0.930796 0.02873,0.114623 0.8209885,0.74805 0.9352605,0.747762 0.11786,-2.96e-4 0.1743075,-0.04338 0.8348145,-0.64062 0.3215375,-0.290738 0.608755,-0.532818 0.6383875,-0.537942 0.029645,-0.0051 0.1825405,0.05463 0.340399,0.132811 0.157858,0.07818 0.3992925,0.181738 0.5357095,0.229909 0.1364165,0.04817 0.250986,0.08939 0.254463,0.09152 0.0036,0.002 0.0137,0.417968 0.02344,0.9241 0.02173,1.130291 -0.02983,1.031692 0.601558,1.133919 0.474458,0.07681 0.661589,0.07734 0.737717,0.0011 0.02653,-0.02656 0.172422,-0.427969 0.324774,-0.891734 l 0.276784,-0.842627 0.319193,-0.02455 c 0.175144,-0.01348 0.4476,-0.04648 0.606022,-0.07255 0.286779,-0.04719 0.288842,-0.04704 0.348211,0.02455 0.03281,0.03956 0.236732,0.374385 0.454238,0.744414 0.217503,0.370029 0.426596,0.699068 0.464281,0.729904 0.103187,0.08443 0.176854,0.07092 0.675217,-0.119418 0.475282,-0.181527 0.570628,-0.247812 0.570309,-0.397319 -9.6e-5,-0.04651 -0.07787,-0.451473 -0.172991,-0.900661 -0.09512,-0.449189 -0.16578,-0.828996 -0.157363,-0.842628 0.0084,-0.01364 0.118014,-0.09425 0.244417,-0.179686 0.1264,-0.08544 0.337849,-0.24348 0.469862,-0.351559 0.132017,-0.108079 0.253892,-0.196407 0.270086,-0.196427 0.01619,-2.4e-5 0.361597,0.185381 0.767852,0.411827 0.830528,0.462928 0.825403,0.460635 0.935259,0.433032 0.116894,-0.02936 0.747763,-0.823109 0.747763,-0.94084 0,-0.11014 -0.02664,-0.144374 -0.655129,-0.84486 -0.282168,-0.314493 -0.518023,-0.597575 -0.523433,-0.629459 -0.0055,-0.03188 0.04899,-0.174511 0.120535,-0.316961 0.07155,-0.142451 0.17368,-0.371113 0.227676,-0.507808 0.05399,-0.136696 0.112321,-0.262512 0.129463,-0.280132 0.01854,-0.01904 0.393682,-0.03845 0.925216,-0.04799 0.852753,-0.01528 0.897176,-0.01981 0.960929,-0.0837 0.05233,-0.05244 0.08326,-0.170538 0.143972,-0.544639 0.04264,-0.262718 0.07787,-0.508062 0.07813,-0.545754 0.0012,-0.152287 -0.09041,-0.198837 -0.959813,-0.487719 l -0.848207,-0.281248 -0.03571,-0.414059 c -0.01985,-0.22771 -0.05188,-0.499314 -0.07143,-0.602674 -0.01953,-0.103358 -0.02765,-0.200664 -0.01785,-0.216515 0.0098,-0.01584 0.33723,-0.217795 0.727672,-0.448657 0.390443,-0.230862 0.741641,-0.454797 0.781243,-0.4977645 0.0396,-0.042965 0.07255,-0.1144615 0.07255,-0.158481 0,-0.126235 -0.343863,-0.9830425 -0.419639,-1.04575 -0.09628,-0.079667 -0.162076,-0.072878 -0.927448,0.090401 -0.898661,0.191718 -0.94697,0.2002815 -0.979903,0.177454 -0.01543,-0.01068 -0.09752,-0.124035 -0.181918,-0.25223 -0.0844,-0.128195 -0.238688,-0.336979 -0.342631,-0.464282 C 15.692948,6.9967145 15.6083,6.878771 15.608276,6.862855 c -2e-5,-0.01592 0.185954,-0.360874 0.412943,-0.7678505 0.226986,-0.406972 0.420828,-0.77071 0.431917,-0.8080295 0.03836,-0.129095 -0.04167,-0.2292335 -0.444193,-0.552451 -0.428978,-0.344457 -0.504158,-0.37633 -0.657361,-0.2712025 -0.04352,0.02988 -0.348891,0.296515 -0.677449,0.5926285 -0.328563,0.2961135 -0.620199,0.5390585 -0.648433,0.5390585 -0.02825,0 -0.176687,-0.063635 -0.330354,-0.140624 C 13.541679,5.3773945 13.322043,5.2823375 13.207626,5.242326 12.872423,5.125103 12.887449,5.1739085 12.887317,4.2055045 12.887209,3.4356827 12.882467,3.3597993 12.825933,3.266896 12.788853,3.2060131 12.728572,3.1590334 12.674149,3.1474735 12.535845,3.1180566 11.758078,3.0004799 11.698705,3.000096 Z"/>
 <path style="opacity:0.2" d="m 10,7.5 h 2 v 4 h 2 l -3,4 -3,-4 h 2 z"/>
 <path style="fill:#8b9cbe" d="m 10,7 h 2 v 4 h 2 l -3,4 -3,-4 h 2 z"/>
 <path style="opacity:0.1;fill:#8b9cbe" d="M 11,1 A 10,10 0 0 0 1,11 10,10 0 0 0 1.0107422,11.291016 10,10 0 0 1 11,1.5 10,10 0 0 1 20.989258,11.208985 10,10 0 0 0 21,11 10,10 0 0 0 11,1 Z"/>
 <path style="opacity:0.1;fill:#8b9cbe" d="m 11.698242,3 c -0.138199,-8e-4 -0.191313,0.1086171 -0.471679,0.961914 L 10.947266,4.810547 10.522461,4.848632 C 10.288275,4.869792 10.017698,4.902931 9.921875,4.92285 9.795192,4.94917 9.735886,4.94959 9.705078,4.92385 9.681788,4.9044905 9.484453,4.58441 9.266602,4.212913 8.8312345,3.4704914 8.7435215,3.351585 8.621094,3.351585 c -0.1286625,0 -0.9909295,0.3436505 -1.053711,0.4199219 -0.030805,0.037439 -0.055207,0.1146063 -0.054687,0.1699218 1.445e-4,0.02004 0.045005,0.2292973 0.0625,0.3261718 C 7.654473,4.186436 8.493845,3.851585 8.621094,3.851585 c 0.1224275,0 0.2101405,0.1189065 0.645508,0.861328 0.217851,0.371497 0.415186,0.6915775 0.438476,0.7109375 0.03081,0.025765 0.09011,0.025345 0.216797,-0.001 0.09582,-0.01992 0.3664,-0.053058 0.600586,-0.074218 L 10.947266,5.310547 11.226563,4.461914 C 11.506929,3.6086169 11.560043,3.4992 11.698242,3.5 c 0.05937,3.839e-4 0.837282,0.118044 0.975586,0.1474609 0.05442,0.01156 0.115264,0.058258 0.152344,0.1191406 0.05653,0.092903 0.06142,0.1696314 0.06152,0.939453 1.32e-4,0.968404 -0.01489,0.91891 0.320312,1.036133 0.114417,0.04001 0.333638,0.134924 0.487305,0.211914 0.153667,0.076988 0.301828,0.140625 0.330078,0.140625 0.02823,0 0.319874,-0.242949 0.648437,-0.5390625 0.328559,-0.2961135 0.634214,-0.561917 0.677734,-0.591797 0.153204,-0.1051275 0.22825,-0.073949 0.657227,0.270508 0.154371,0.123955 0.25027,0.2096745 0.321289,0.2822265 0.02927,-0.05689 0.119894,-0.21888 0.123047,-0.229492 0.03836,-0.129095 -0.04181,-0.229517 -0.444336,-0.5527345 -0.428977,-0.344457 -0.504023,-0.376612 -0.657227,-0.2714845 -0.04352,0.02988 -0.349175,0.29666 -0.677734,0.5927735 -0.328563,0.2961135 -0.620203,0.5390625 -0.648437,0.5390625 -0.02825,0 -0.176411,-0.063637 -0.330078,-0.140625 C 13.541646,5.3771115 13.322425,5.282199 13.208008,5.2421875 12.872804,5.1249645 12.887828,5.173482 12.887696,4.205078 12.887587,3.4352563 12.882695,3.3595048 12.826172,3.2666016 12.789092,3.2057186 12.728251,3.1590208 12.673828,3.1474609 12.535524,3.118044 11.757615,3.0003839 11.698242,3 Z M 5.220703,5.5439455 c -0.03235,-0.0027 -0.055407,0.00475 -0.083984,0.015625 -0.1235035,0.047005 -0.730469,0.815938 -0.730469,0.925781 0,0.064359 0.0312,0.1285565 0.136719,0.2607425 C 4.728405,6.47908 5.0496805,6.092697 5.136719,6.0595705 5.2510305,6.0160605 5.2893115,6.0334405 6.0996095,6.491211 6.493692,6.7138455 6.828993,6.8964845 6.845703,6.8964845 c 0.01672,0 0.148328,-0.095282 0.2919925,-0.2109375 C 7.281366,6.569892 7.496735,6.414584 7.6152345,6.3408205 7.733735,6.2670575 7.8359385,6.193381 7.8427735,6.175781 7.8463735,6.166496 7.7914375,5.9014765 7.7597655,5.736328 7.7178555,5.768798 7.690421,5.794019 7.6152345,5.8408205 7.496735,5.914584 7.281366,6.069892 7.1376955,6.185547 6.994031,6.301202 6.862422,6.3964845 6.845703,6.3964845 6.828993,6.3964845 6.493692,6.2138455 6.0996095,5.991211 5.491886,5.647885 5.317754,5.552014 5.220703,5.5439455 Z M 15.762695,7.076172 c -0.04434,0.083859 -0.154304,0.281162 -0.154297,0.287109 2.4e-5,0.015915 0.08453,0.1334435 0.188477,0.2607425 0.103943,0.127303 0.258378,0.3366485 0.342773,0.4648435 0.0844,0.128195 0.166211,0.2412735 0.181641,0.2519535 0.03293,0.022825 0.08181,0.013985 0.980469,-0.1777345 0.765373,-0.163279 0.830482,-0.1695115 0.926757,-0.089844 0.05028,0.04161 0.213719,0.4252625 0.321289,0.7207035 0.002,-0.00185 0.02503,-0.015155 0.02636,-0.0166 0.0396,-0.042965 0.07227,-0.1151605 0.07227,-0.15918 0,-0.126235 -0.344145,-0.983191 -0.419922,-1.0458985 -0.09627,-0.079667 -0.161385,-0.072458 -0.926758,0.09082 -0.898661,0.191718 -0.947536,0.200562 -0.980469,0.1777345 -0.01543,-0.01068 -0.09725,-0.124735 -0.18164,-0.25293 -0.0844,-0.128195 -0.238831,-0.336564 -0.342774,-0.463867 -0.019,-0.023265 -0.01687,-0.025775 -0.03418,-0.04785 z M 5.457031,8.298828 c -0.00265,0.00541 -0.0022,0.00629 -0.0049,0.01172 C 5.3755755,8.464375 5.273275,8.6938505 5.2255685,8.8203135 5.1778585,8.9467725 5.121369,9.064917 5.099592,9.083009 5.075262,9.103249 4.718326,9.119154 4.1738105,9.124999 3.0813771,9.13672 3.1781793,9.08412 3.0751953,9.734375 3.0353153,9.98624 3.0009785,10.23084 3,10.277344 c -0.0011,0.05303 0.016287,0.0929 0.050781,0.131835 0.010704,-0.07314 0.011573,-0.0937 0.024414,-0.174804 C 3.1781791,9.58412 3.081375,9.63672 4.1738278,9.625 4.7183433,9.6192 5.0752793,9.60325 5.0996093,9.58301 5.1213843,9.56492 5.1778763,9.446773 5.2255858,9.320314 5.2732908,9.193851 5.3755928,8.964376 5.4521483,8.810549 c 0.076554,-0.1538265 0.138672,-0.3036315 0.138672,-0.3320315 0,-0.01204 -0.061416,-0.090233 -0.1337895,-0.1796875 z m 11.658203,1.895508 c -0.0033,0.0026 -0.04721,0.02826 -0.04785,0.02929 -0.0098,0.01585 -0.002,0.112461 0.01758,0.21582 0.01955,0.10336 0.05143,0.375806 0.07129,0.603516 l 0.03614,0.414062 0.847656,0.28125 c 0.605373,0.201152 0.822868,0.284492 0.905274,0.368165 0.02486,-0.163845 0.05451,-0.354561 0.05469,-0.38086 0.0012,-0.152286 -0.09056,-0.198423 -0.959961,-0.487305 l -0.847656,-0.28125 -0.03614,-0.414062 c -0.01147,-0.131534 -0.02617,-0.228694 -0.04101,-0.348633 z M 4.8847655,12.324219 c -0.0465,0.03652 -0.3153575,0.202507 -0.680664,0.418945 -0.3905736,0.23141 -0.7416434,0.456396 -0.78125,0.499024 -0.0396,0.04263 -0.072266,0.115594 -0.072266,0.162109 0,0.04484 0.043091,0.17512 0.09668,0.322266 0.056979,-0.05217 0.3784747,-0.259224 0.7568359,-0.483399 0.3905705,-0.231406 0.717869,-0.432602 0.727539,-0.448242 0.00962,-0.01564 0.0024,-0.112937 -0.0166,-0.21582 -0.00802,-0.04345 -0.019265,-0.167077 -0.030275,-0.254883 z m 11.6601565,1.886719 c -0.0036,0.0072 -0.0073,0.01759 -0.01074,0.02441 -0.07155,0.142451 -0.125602,0.285504 -0.120117,0.317383 0.0054,0.03189 0.24127,0.314413 0.523437,0.628906 0.287571,0.320515 0.42496,0.477209 0.515625,0.589844 0.07907,-0.113785 0.139649,-0.210742 0.139649,-0.245117 0,-0.11014 -0.02679,-0.144241 -0.655274,-0.844727 -0.211366,-0.235581 -0.310581,-0.362755 -0.392578,-0.470703 z M 6.2373045,15.451172 c -0.073005,0.134948 -0.1253315,0.234415 -0.262695,0.478515 -0.430756,0.765481 -0.4558365,0.818585 -0.4277345,0.930664 0.006,0.02392 0.059728,0.07905 0.1191405,0.137696 0.065002,-0.127625 0.136383,-0.26233 0.308594,-0.56836 0.210164,-0.373469 0.390097,-0.703022 0.401367,-0.732422 0.011645,-0.03038 -0.0414,-0.117518 -0.138672,-0.246093 z m 8.0019535,1.338867 c -0.02251,0.01738 -0.07919,0.05596 -0.08203,0.06055 -0.0084,0.01363 0.06211,0.393585 0.157226,0.842773 0.05778,0.27287 0.07401,0.377087 0.105469,0.546875 0.04444,-0.04421 0.06751,-0.08893 0.06738,-0.146484 -9.6e-5,-0.04651 -0.07774,-0.451203 -0.172852,-0.900391 -0.04552,-0.21496 -0.04687,-0.252665 -0.0752,-0.40332 z"/>
</svg>
