<svg xmlns="http://www.w3.org/2000/svg" width="22" height="22" version="1.1">
 <path style="fill:#234780" d="M 11,1 A 10,10 0 0 0 1,11 10,10 0 0 0 11,21 10,10 0 0 0 21,11 10,10 0 0 0 11,1 Z"/>
 <path style="opacity:0.2" d="M 1.01075,11.209 A 10,10 0 0 0 1,11.5 10,10 0 0 0 11,21.5 10,10 0 0 0 21,11.5 10,10 0 0 0 20.9895,11.291 10,10 0 0 1 11,21 10,10 0 0 1 1.011,11.209 Z"/>
 <path style="opacity:0.1;fill:#8b9cbe" d="m 11,1 a 10,10 0 0 0 -10,10 10,10 0 0 0 0.01075,0.209 10,10 0 0 1 9.989,-9.709 10,10 0 0 1 9.9895,9.791 10,10 0 0 0 0.0105,-0.291 10,10 0 0 0 -10,-10 z"/>
 <path style="opacity:0.2" d="m 11,3.5 2.5,4 2.5,4 -5,3 -5,-3 2.5,-4 z"/>
 <path style="fill:#63bfd7" d="M 11,3 13.5,7 16,11 11,14 6,11 8.5,7 Z"/>
 <path style="opacity:0.2" d="m 11,19.5 5,-6.85 -5,3 -5,-3 z"/>
 <path style="fill:#63bfd7" d="m 11,19 5,-6.85 -5,3 -5,-3 z"/>
</svg>
