<svg xmlns="http://www.w3.org/2000/svg" width="22" height="22" version="1">
 <circle style="opacity:0.2" cx="11" cy="11.5" r="10"/>
 <circle style="fill:#b2bfd9" cx="11" cy="11" r="10"/>
 <path style="fill:none;stroke:#474747;stroke-width:0.53399998" d="M 16.09,8.5481 A 6.4169,4.7612 59 0 1 7.9278,13.452 6.4169,4.7612 59 1 1 16.09,8.5481 Z"/>
 <path style="fill:#2a58ae" d="m 12,7.4923 c -2.1236,0 -3.8442,1.7201 -3.8442,3.8442 0,2.1241 1.7201,3.8442 3.8442,3.8442 2.1241,0 3.8442,-1.7201 3.8442,-3.8442 0,-2.1241 -1.7201,-3.8442 -3.8442,-3.8442 z m -0.68753,2.0316 c 1.4441,0 2.6251,1.1656 2.6251,2.6096 0,1.4441 -1.1811,2.6251 -2.6251,2.6251 -1.4441,0 -2.6096,-1.1811 -2.6096,-2.6251 0,-1.4441 1.1656,-2.6096 2.6096,-2.6096 z"/>
 <path style="fill:#474747" d="m 4.1735,11.371 c 0,0 -1.5004,1.4328 -1.3832,2.3276 0.1617,1.2342 1.7116,1.4311 2.9348,1.4168 2.9656,-0.0341 13.528,-3.4996 13.493,-7.6571 -0.011,-1.3442 -2.4288,-1.463 -2.4288,-1.3832 0,0 1.793,0.4499 1.754,1.3156 C 18.3973,10.617 9.5749,14.24 5.6563,14.339 4.8345,14.36 3.6899,14.183 3.3627,13.428 3.0695,12.752 4.1723,11.371 4.1723,11.371 Z"/>
 <path style="fill:#d24646" d="m 16.048,7.5067 a 1.87235,1.87235 0 0 1 -3.7447,0 1.87235,1.87235 0 1 1 3.7447,0 z"/>
 <path style="fill:#606060" d="m 10.938,13.731 a 1.1976,1.1976 0 0 1 -2.3952,0 1.1976,1.1976 0 1 1 2.3952,0 z"/>
 <circle style="fill:#009545" cx="17" cy="17" r="5"/>
 <rect style="fill:#8b9cbe" width="2" height="4" x="16" y="16"/>
 <rect style="fill:#8b9cbe" width="2" height="2" x="16" y="13"/>
 <path style="opacity:0.1;fill:#8b9cbe" d="M 11,1 A 10,10 0 0 0 1,11 10,10 0 0 0 1.0097656,11.292969 10,10 0 0 1 11,1.5 10,10 0 0 1 20.990234,11.207031 10,10 0 0 0 21,11 10,10 0 0 0 11,1 Z"/>
</svg>
