<svg xmlns="http://www.w3.org/2000/svg" width="22" height="22" version="1">
 <circle style="opacity:0.2" cx="11" cy="11.5" r="10"/>
 <path style="opacity:0.1" d="M 10.361328,5.5011025 C 9.695698,5.5158375 9.052155,5.6872315 8.4746095,6.035282 7.3195185,6.731384 6.6642735,7.992354 6.527344,9.431767 c -0.13693,1.439413 0.2346,3.06812 1.1367185,4.5625 0.08884,0.147165 0.1836655,0.28767 0.279297,0.426758 -0.7985645,0.17829 -1.5365335,0.291916 -2.145508,0.307617 -0.8005155,0.02076 -1.9147985,-0.15567 -2.2333984,-0.905274 -0.2841498,-0.669075 0.7758294,-2.0281 0.7851564,-2.040039 -0.012215,0.01192 -1.4573225,1.423418 -1.3437501,2.308594 0.1574258,1.226029 1.6665541,1.421432 2.8574216,1.407226 0.592408,-0.0069 1.5052415,-0.164112 2.567383,-0.43457 0.78774,0.937682 1.730271,1.636234 2.711914,2.040039 1.325517,0.54526 2.735,0.552066 3.882812,-0.139648 1.147813,-0.691715 1.802181,-1.941787 1.944336,-3.371094 0.07264,-0.73038 0.0115,-1.50987 -0.18164,-2.296875 C 18.118628,10.268315 19.01005,9.110791 19,7.892704 18.98929,6.5574035 16.635742,6.4394585 16.635742,6.5186805 c 0,0 1.745049,0.447649 1.707031,1.3076175 -0.03937,0.889388 -0.74227,1.807067 -1.799804,2.673828 C 16.366892,10.012315 16.145054,9.527038 15.864258,9.054814 14.972096,7.554437 13.71282,6.4600325 12.38086,5.9053995 11.714879,5.628083 11.026958,5.486369 10.361328,5.5011025 Z m 0.0166,0.506836 c 0.585289,-0.01229 1.199036,0.113772 1.807618,0.3671875 1.217162,0.5068315 2.401301,1.5269535 3.24121,2.939453 0.296224,0.49817 0.525937,1.010925 0.697266,1.523438 -0.06412,0.04753 -0.137965,0.09252 -0.204102,0.139648 C 15.563984,9.276766 14.057119,8.000126 12.25,8.000126 c -2.071589,0 -3.75,1.677922 -3.75,3.75 0,0.578961 0.135152,1.124844 0.3691405,1.614258 A 1.25,1.25 0 0 0 8.5,14.250126 a 1.25,1.25 0 0 0 10e-4,0.04101 c -0.00734,0.0019 -0.01513,0.004 -0.02246,0.0059 C 8.347087,14.115866 8.219544,13.928588 8.1006105,13.731571 7.2513315,12.324721 6.908993,10.79682 7.034204,9.480595 7.1594155,8.1643685 7.74174,7.0708085 8.737329,6.470829 9.235123,6.1708395 9.792665,6.020226 10.377954,6.0079385 Z M 11.5791,9.981571 c 1.261818,0 2.315016,0.913563 2.521485,2.116211 -1.041058,0.560771 -2.174585,1.061426 -3.302735,1.473633 A 1.25,1.25 0 0 0 9.118163,13.172977 c -0.05359,-0.20665 -0.08496,-0.422433 -0.08496,-0.645507 0,-1.408683 1.137215,-2.545899 2.545897,-2.545899 z m 4.758789,1.641602 c 0.141888,0.663507 0.185177,1.314865 0.125,1.919922 -0.129942,1.306508 -0.71095,2.390171 -1.700195,2.986328 -0.989245,0.596156 -2.215929,0.602574 -3.426758,0.104492 -0.621072,-0.255482 -1.23306,-0.64614 -1.796875,-1.15332 a 1.25,1.25 0 0 0 1.09668,-0.34961 c 0.489414,0.233989 1.035297,0.369141 1.614258,0.369141 2.037154,0 3.689868,-1.622752 3.745116,-3.646485 0.115603,-0.07642 0.231766,-0.152343 0.342774,-0.230468 z m -2.234375,1.319336 c -0.200115,1.212648 -1.257261,2.145507 -2.524414,2.145507 -0.279488,0 -0.547487,-0.04617 -0.798828,-0.129882 a 1.25,1.25 0 0 0 0.21875,-0.686524 c 1.037167,-0.372922 2.098078,-0.821059 3.104492,-1.329101 z"/>
 <circle style="fill:#b2bfd9" cx="11" cy="11" r="10"/>
 <path style="opacity:0.1" d="M 10.361328,5.4996525 C 9.695698,5.5143875 9.052155,5.6867583 8.4746094,6.0348087 7.3195184,6.7309103 6.6642733,7.9918806 6.5273438,9.431293 c -0.13693,1.439414 0.2346002,3.068121 1.1367187,4.562501 0.091485,0.151547 0.2021031,0.278898 0.3007813,0.421875 -0.8070468,0.181249 -1.5534704,0.296657 -2.1679688,0.3125 -0.8005155,0.02076 -1.913822,-0.154693 -2.2324219,-0.904297 -0.2828861,-0.666099 0.7626823,-2.013303 0.78125,-2.03711 -0.024221,0.02367 -1.4529351,1.423261 -1.3398437,2.304688 0.1574258,1.226029 1.6665544,1.422408 2.8574218,1.408203 0.5838916,-0.0069 1.5142865,-0.186054 2.5566407,-0.449219 0.7897681,0.943765 1.7368101,1.6472 2.7226561,2.052735 1.325518,0.545261 2.735002,0.553042 3.882813,-0.138672 1.147813,-0.691715 1.801204,-1.941786 1.943359,-3.371094 0.07287,-0.732651 0.01099,-1.51519 -0.183594,-2.304688 C 18.111905,10.261348 19.010033,9.108232 19,7.8922306 18.98929,6.5569301 16.634766,6.4399617 16.634766,6.5191837 c 0,0 1.747001,0.4466722 1.708984,1.3066407 C 18.30426,8.7179268 17.596214,9.638385 16.533203,10.507465 16.356749,10.017049 16.147515,9.529061 15.865234,9.05434 14.973072,7.5539635 13.712819,6.4605355 12.380859,5.9059025 11.714878,5.628586 11.026958,5.484919 10.361328,5.4996525 Z m 0.01563,0.5078125 c 0.585289,-0.01229 1.200012,0.113772 1.808594,0.3671875 1.217162,0.5068315 2.400325,1.5269536 3.240234,2.9394535 0.298678,0.502296 0.511874,1.018402 0.683594,1.535156 -0.05156,0.03811 -0.111207,0.07348 -0.164063,0.111329 C 15.680035,9.008129 14.025591,7.4996525 12,7.4996525 c -2.209695,0 -4,1.7897835 -4,4.0000005 0,1.02118 0.3943661,1.941812 1.023438,2.648438 -0.1764346,0.04984 -0.3532862,0.100592 -0.5253911,0.144531 C 8.363402,14.107824 8.2211911,13.933478 8.0996094,13.732075 7.2503304,12.325224 6.9079921,10.796347 7.0332031,9.480122 7.1584146,8.1638952 7.7407391,7.0703351 8.7363281,6.4703556 9.234123,6.1703661 9.791665,6.0197525 10.376953,6.007465 Z m 0.908203,3.605469 c 1.441774,0 2.618932,1.121251 2.712891,2.539063 -1.092181,0.580733 -2.283957,1.094414 -3.455078,1.509765 a 1,1 0 0 0 -1.396485,0.31836 C 8.7921256,13.51971 8.5683594,12.954692 8.5683594,12.329731 c 0,-1.502594 1.2142016,-2.716797 2.7167966,-2.716797 z m 5.046875,2.013672 c 0.140999,0.661741 0.190883,1.31251 0.13086,1.916016 -0.129942,1.306508 -0.711927,2.390171 -1.701172,2.986328 -0.989245,0.596156 -2.214953,0.601598 -3.425781,0.103515 -0.831065,-0.341863 -1.640254,-0.937695 -2.3437505,-1.720703 0.02794,-0.0078 0.05769,-0.01904 0.085937,-0.02734 a 1,1 0 0 0 1.5761715,0.36914 c 0.420076,0.154346 0.870965,0.246094 1.345703,0.246094 2.081746,0 3.769325,-1.593648 3.960938,-3.625 0.125375,-0.0824 0.251054,-0.163649 0.371093,-0.248047 z m -2.421875,1.412109 c -0.315741,1.159298 -1.369082,2.021485 -2.625,2.021485 -0.148007,0 -0.292615,-0.01541 -0.433594,-0.03906 A 1,1 0 0 0 11,14.499653 a 1,1 0 0 0 -0.0332,-0.25 c 0.980536,-0.346655 1.976356,-0.733879 2.943359,-1.210938 z"/>
 <path style="fill:#474747" d="M 10.361328,5.0009765 C 9.695698,5.0157115 9.052155,5.1871055 8.4746095,5.535156 7.3195185,6.2312575 6.6642735,7.492228 6.527344,8.9316405 c -0.13693,1.4394135 0.2346,3.0681205 1.1367185,4.5625005 0.896417,1.484935 2.1529985,2.56509 3.4785155,3.110351 1.325518,0.545261 2.735001,0.552066 3.882812,-0.139648 1.147813,-0.691715 1.802181,-1.941786 1.944336,-3.371094 C 17.111881,11.664443 16.750781,10.045582 15.864258,8.5546875 14.972096,7.054311 13.71282,5.9599065 12.38086,5.4052735 11.714879,5.127957 11.026958,4.986243 10.361328,5.0009765 Z m 0.0166,0.506836 c 0.585289,-0.01229 1.199036,0.113772 1.807618,0.3671875 1.217162,0.5068315 2.401301,1.5269535 3.24121,2.939453 0.834576,1.403533 1.166075,2.922007 1.036133,4.228516 -0.129942,1.306508 -0.71095,2.390171 -1.700195,2.986328 -0.989245,0.596156 -2.215929,0.602574 -3.426758,0.104492 C 10.125108,15.635707 8.9444715,14.629364 8.1005845,13.231446 7.2513055,11.824595 6.908967,10.296694 7.034178,8.980469 7.1593895,7.664243 7.741714,6.5706825 8.737303,5.970703 9.235098,5.6707135 9.79264,5.5201 10.377928,5.5078125 Z"/>
 <path style="fill:#2a58ae" d="m 12,7 c -2.209695,0 -4,1.7897835 -4,4 0,2.210215 1.789785,4 4,4 2.210217,0 4,-1.789785 4,-4 0,-2.2102165 -1.789783,-4 -4,-4 z m -0.715424,2.113965 c 1.502595,0 2.731527,1.212804 2.731527,2.715398 0,1.502595 -1.228932,2.731528 -2.731527,2.731528 -1.502595,0 -2.715399,-1.228933 -2.715399,-2.731528 0,-1.502594 1.212804,-2.715398 2.715399,-2.715398 z"/>
 <path style="fill:#474747" d="m 4.3530345,11.279699 c 0,0 -1.4607405,1.423264 -1.3466871,2.312189 0.1574258,1.226029 1.6663576,1.421625 2.8572251,1.40742 2.887211,-0.03387 13.1704185,-3.476479 13.1363425,-7.6063045 -0.01071,-1.3353005 -2.3646,-1.4533135 -2.3646,-1.3740915 0,0 1.745606,0.446921 1.707589,1.3068895 C 18.201006,10.531287 9.611953,14.129953 5.797516,14.228297 4.9970005,14.249057 3.882704,14.073131 3.5641041,13.323527 3.2787029,12.651506 4.352304,11.2796 4.352304,11.2796 Z"/>
 <path style="opacity:0.2" d="m 15.999979,8.0078422 a 1.5,1.5 0 0 1 -2.999959,0 1.5,1.5 0 1 1 2.999959,0 z"/>
 <path style="fill:#d24646" d="m 15.999979,7.5077734 a 1.5,1.5 0 0 1 -2.999959,0 1.5,1.5 0 1 1 2.999959,0 z"/>
 <path style="fill:#606060" d="m 11,14 a 1,1 0 0 1 -2,0 1,1 0 1 1 2,0 z"/>
 <path style="opacity:0.2;fill:#8b9cbe;fill-rule:evenodd" d="M 11,1 A 10,10 0 0 0 1,11 10,10 0 0 0 1.0107422,11.291016 10,10 0 0 1 11,1.5 10,10 0 0 1 20.989258,11.208985 10,10 0 0 0 21,11 10,10 0 0 0 11,1 Z"/>
</svg>
