<svg width="22" height="22" version="1.1" xmlns="http://www.w3.org/2000/svg">
 <g transform="translate(-1,-1)">
  <circle cx="12" cy="12.5" r="10" style="opacity:.2"/>
  <circle cx="12" cy="12" r="10" style="fill:#c21d1e"/>
  <path d="M 12,2 A 10,10 0 0 0 2,12 10,10 0 0 0 2.0098,12.293 10,10 0 0 1 12,2.5 10,10 0 0 1 21.99,12.207 10,10 0 0 0 22,12 10,10 0 0 0 12,2 Z" style="fill:#8b9cbe;opacity:.2"/>
  <path d="M 19.708984,7.8749999 12,12.5 19.708008,17.125 A 9,9 0 0 0 21,12.5 9,9 0 0 0 19.708984,7.8749999 Z" style="opacity:.2"/>
  <path d="M 19.708984,7.3749999 12,12 19.708008,16.625 A 9,9 0 0 0 21,12 9,9 0 0 0 19.708984,7.3749999 Z" style="fill:#b2bfd9"/>
  <circle cx="12" cy="12.5" r="5" style="opacity:.1"/>
  <circle cx="12" cy="12" r="5" style="fill:#951612"/>
  <path d="m9.5 9.5c-0.277 0-0.5 0.223-0.5 0.5v4c0 0.277 0.223 0.5 0.5 0.5s0.5-0.223 0.5-0.5v-4c0-0.277-0.223-0.5-0.5-0.5zm4 0c-0.277 0-0.5 0.223-0.5 0.5v4c0 0.277 0.223 0.5 0.5 0.5s0.5-0.223 0.5-0.5v-4c0-0.277-0.223-0.5-0.5-0.5zm-2 1c-0.277 0-0.5 0.223-0.5 0.5v3c0 0.277 0.223 0.5 0.5 0.5s0.5-0.223 0.5-0.5v-3c0-0.277-0.223-0.5-0.5-0.5z" style="opacity:.2"/>
  <rect x="9" y="9" width="1" height="5" ry=".5" style="fill:#8b9cbe"/>
  <rect x="11" y="10" width="1" height="4" ry=".5" style="fill:#cccccc"/>
  <rect x="13" y="9" width="1" height="5" ry=".5" style="fill:#8b9cbe"/>
 </g>
</svg>
