<svg xmlns="http://www.w3.org/2000/svg" width="22" height="22" version="1.1">
 <path style="fill:#ff7c40" d="M 11,1 A 10,10 0 0 0 1,11 10,10 0 0 0 11,21 10,10 0 0 0 21,11 10,10 0 0 0 11,1 Z"/>
 <path style="opacity:0.2" d="m 13.525391,5.5019531 a 4.5,1.5 0 0 0 -4.5,1.5 4.5,1.5 0 0 0 4.5,1.5 4.5,1.5 0 0 0 4.5,-1.5 4.5,1.5 0 0 0 -4.5,-1.5 z m 4.236328,3 A 4.5,1.499268 0 0 1 13.525391,9.501953 4.5,1.499268 0 0 1 9.289062,8.5039062 4.5,1.499268 0 0 0 9.025391,9.001953 a 4.5,1.499268 0 0 0 4.5,1.5 4.5,1.499268 0 0 0 4.5,-1.5 4.5,1.499268 0 0 0 -0.263672,-0.4999999 z m 0,1.9999999 a 4.5,1.499268 0 0 1 -4.236328,1 4.5,1.499268 0 0 1 -0.822266,-0.02539 C 12.886419,11.640008 13,11.815241 13,12 c 0,0 3.2e-5,0.388975 0,0.490234 a 4.5,1.499268 0 0 0 0.525391,0.01172 4.5,1.499268 0 0 0 4.5,-1.5 4.5,1.499268 0 0 0 -0.263672,-0.500001 z m -8.472657,0.002 a 4.5,1.499268 0 0 0 -0.02148,0.02344 c 0.01593,9.18e-4 0.03295,-9.74e-4 0.04883,0 a 4.5,1.499268 0 0 1 -0.02734,-0.02344 z M 17.761719,12.5 a 4.5,1.499268 0 0 1 -4.236328,1 A 4.5,1.499268 0 0 1 13,13.488281 c -1.07e-4,0.453259 2.7e-5,0.533348 0,1 a 4.5,1.499268 0 0 0 0.525391,0.01172 4.5,1.499268 0 0 0 4.5,-1.5 A 4.5,1.499268 0 0 0 17.761719,12.5 Z m 0,2 a 4.5,1.499268 0 0 1 -4.236328,1 A 4.5,1.499268 0 0 1 13,15.488281 c 8.9e-5,0.125894 -1.66e-4,0.489918 0,0.511719 2.46e-4,0.167981 -0.101189,0.327713 -0.253906,0.478516 a 4.5,1.499268 0 0 0 0.779297,0.02148 4.5,1.499268 0 0 0 4.5,-1.5 4.5,1.499268 0 0 0 -0.263672,-0.5 z"/>
 <path style="opacity:0.2" d="M 1.01075,11.209 A 10,10 0 0 0 1,11.5 10,10 0 0 0 11,21.5 10,10 0 0 0 21,11.5 10,10 0 0 0 20.9895,11.291 10,10 0 0 1 11,21 10,10 0 0 1 1.011,11.209 Z"/>
 <path style="opacity:0.2;fill:#8b9cbe" d="m 11,1 a 10,10 0 0 0 -10,10 10,10 0 0 0 0.01075,0.209 10,10 0 0 1 9.989,-9.709 10,10 0 0 1 9.9895,9.791 10,10 0 0 0 0.0105,-0.291 10,10 0 0 0 -10,-10 z"/>
 <path style="fill:#ffd8c6" d="m 13.525391,5.0019531 a 4.5,1.5 0 0 0 -4.5,1.5 4.5,1.5 0 0 0 4.5,1.5 4.5,1.5 0 0 0 4.5,-1.5 4.5,1.5 0 0 0 -4.5,-1.5 z m 4.236328,3 A 4.5,1.499268 0 0 1 13.525391,9.001953 4.5,1.499268 0 0 1 9.289062,8.0039062 4.5,1.499268 0 0 0 9.025391,8.5019531 a 4.5,1.499268 0 0 0 4.5,1.4999999 4.5,1.499268 0 0 0 4.5,-1.4999999 4.5,1.499268 0 0 0 -0.263672,-0.5 z m 0,1.9999999 a 4.5,1.499268 0 0 1 -4.236328,1 4.5,1.499268 0 0 1 -0.822266,-0.02539 C 12.886419,11.140008 13,11.315241 13,11.5 c 0,0 3.2e-5,0.388975 0,0.490234 a 4.5,1.499268 0 0 0 0.525391,0.01172 4.5,1.499268 0 0 0 4.5,-1.5 4.5,1.499268 0 0 0 -0.263672,-0.500001 z m -8.472657,0.002 a 4.5,1.499268 0 0 0 -0.02148,0.02344 c 0.01593,9.18e-4 0.03295,-9.74e-4 0.04883,0 a 4.5,1.499268 0 0 1 -0.02734,-0.02344 z M 17.761719,12 A 4.5,1.499268 0 0 1 13.525391,13 4.5,1.499268 0 0 1 13,12.988281 c -1.07e-4,0.453259 2.7e-5,0.533348 0,1 A 4.5,1.499268 0 0 0 13.525391,14 a 4.5,1.499268 0 0 0 4.5,-1.5 4.5,1.499268 0 0 0 -0.263672,-0.5 z m 0,2 A 4.5,1.499268 0 0 1 13.525391,15 4.5,1.499268 0 0 1 13,14.988281 c 8.9e-5,0.125894 -1.66e-4,0.489918 0,0.511719 2.46e-4,0.167981 -0.101189,0.327713 -0.253906,0.478516 A 4.5,1.499268 0 0 0 13.525391,16 a 4.5,1.499268 0 0 0 4.5,-1.5 4.5,1.499268 0 0 0 -0.263672,-0.5 z"/>
 <path style="opacity:0.2" d="M 8.5,10.5 A 4.5,1.5 0 0 0 4,12 4.5,1.5 0 0 0 8.5,13.5 4.5,1.5 0 0 0 13,12 4.5,1.5 0 0 0 8.5,10.5 Z m 4.238281,3 A 4.5,1.499268 0 0 1 8.5,14.5 4.5,1.499268 0 0 1 4.2636719,13.501953 4.5,1.499268 0 0 0 4,14 4.5,1.499268 0 0 0 8.5,15.5 4.5,1.499268 0 0 0 13,14 4.5,1.499268 0 0 0 12.738281,13.5 Z m 0,2 A 4.5,1.499268 0 0 1 8.5,16.5 4.5,1.499268 0 0 1 4.2636719,15.501953 4.5,1.499268 0 0 0 4,16 4.5,1.499268 0 0 0 8.5,17.5 4.5,1.499268 0 0 0 13,16 4.5,1.499268 0 0 0 12.738281,15.5 Z"/>
 <path style="fill:#8b9cbe" d="M 8.5,10 A 4.5,1.5 0 0 0 4,11.5 4.5,1.5 0 0 0 8.5,13 4.5,1.5 0 0 0 13,11.5 4.5,1.5 0 0 0 8.5,10 Z m 4.238281,3 A 4.5,1.499268 0 0 1 8.5,14 4.5,1.499268 0 0 1 4.2636719,13.001953 4.5,1.499268 0 0 0 4,13.5 4.5,1.499268 0 0 0 8.5,15 4.5,1.499268 0 0 0 13,13.5 4.5,1.499268 0 0 0 12.738281,13 Z m 0,2 A 4.5,1.499268 0 0 1 8.5,16 4.5,1.499268 0 0 1 4.2636719,15.001953 4.5,1.499268 0 0 0 4,15.5 4.5,1.499268 0 0 0 8.5,17 4.5,1.499268 0 0 0 13,15.5 4.5,1.499268 0 0 0 12.738281,15 Z"/>
</svg>
