<svg xmlns="http://www.w3.org/2000/svg" width="22" height="22" version="1.1">
 <path style="opacity:0.2" d="m 11.056356,16.621901 c -0.06181,0.202323 -0.05013,0.417922 -0.08121,0.625735 -0.051,0.498073 -0.08943,0.999683 -0.218019,1.486273 -0.04661,0.206379 -0.119128,0.406513 -0.177161,0.610141 0.139775,0.269983 0.185404,0.569276 0.216419,0.866022 0.06376,0.3465 0.07999,0.699727 0.107306,1.049539 0.02214,0.174699 -0.06993,0.396376 0.08497,0.528065 0.176398,0.05817 0.35216,0.121135 0.525564,0.188324 -0.02283,-0.337687 -0.05657,-0.675 -0.04717,-1.013797 -0.01392,-0.320396 0.03877,-0.637883 0.06365,-0.956751 0.01629,-0.154298 0.01633,-0.311683 0.07825,-0.457316 0.04696,-0.137621 0.142763,-0.255065 0.209575,-0.384498 -0.102354,-0.06895 -0.199267,-0.150321 -0.287621,-0.233415 -0.07752,-0.176978 -0.176273,-0.34663 -0.23897,-0.528725 -0.152456,-0.579722 -0.243864,-1.180809 -0.235579,-1.779597 z"/>
 <path style="fill:#abacac" d="m 11.056356,16.121901 c -0.06181,0.202323 -0.05013,0.417922 -0.08121,0.625735 -0.051,0.498073 -0.08943,0.999683 -0.218019,1.486273 -0.04661,0.206379 -0.119128,0.406513 -0.177161,0.610141 0.139775,0.269983 0.185404,0.569276 0.216419,0.866022 0.06376,0.3465 0.07999,0.699727 0.107306,1.049539 0.02214,0.174699 -0.06993,0.396376 0.08497,0.528065 0.176398,0.05817 0.35216,0.121135 0.525564,0.188324 -0.02283,-0.337687 -0.05657,-0.675 -0.04717,-1.013797 -0.01392,-0.320396 0.03877,-0.637883 0.06365,-0.956751 0.01629,-0.154298 0.01633,-0.311683 0.07825,-0.457316 0.04696,-0.137621 0.142763,-0.255065 0.209575,-0.384498 -0.102354,-0.06895 -0.199267,-0.150321 -0.287621,-0.233415 -0.07752,-0.176978 -0.176273,-0.34663 -0.23897,-0.528725 -0.152456,-0.579722 -0.243864,-1.180809 -0.235579,-1.779597 z"/>
 <path style="opacity:0.2" d="m 11,0.7063168 c 0.03191,0.9554189 0.0038,1.9128219 0,2.8714466 0.02609,3.1849294 0.02275,6.3698266 0,9.5548286 -0.0047,1.234149 0.06198,2.466605 0,3.698193 0.05126,0.724531 0.160016,1.50618 0.565237,2.133886 0.361238,0.466409 0.779415,-0.308168 1.107789,-0.497944 1.541132,-1.368852 2.601159,-3.205312 3.062024,-5.17288 C 16.20022,11.322674 16.047043,9.217885 15.321443,7.3208598 14.654214,5.3471878 13.447577,3.5653731 11.898815,2.1319387 11.48745,1.7299494 11.273332,1.1952851 11,0.7063168 Z"/>
 <path style="fill:#0d6436" d="m 11.016601,0.6976801 c -0.103936,0.1647508 -0.228547,0.3147982 -0.361328,0.4472656 -0.287397,0.286719 -0.604244,0.5295156 -0.808594,0.7675782 l -0.0059,0.00684 -0.0068,0.00684 C 9.080776,2.6804469 8.353774,3.4572601 7.902339,4.3705394 l -0.0039,0.00879 -0.0049,0.00879 C 7.566603,4.9362363 7.2767955,5.4884663 7.0937395,6.0765878 l -0.00295,0.01172 -0.0049,0.01172 C 6.4980145,7.4856188 6.26236,9.010476 6.25,10.519946 v 0.003 c 0.015865,3.042176 1.712441,5.925944 4.135742,7.839844 l 0.03027,0.02442 0.02149,0.03125 c 0.0046,0.0067 0.0014,0.0016 0.0059,0.0078 0.02382,-0.08227 0.04065,-0.136856 0.07031,-0.248047 0.108989,-0.479604 0.167503,-0.974224 0.21875,-1.477539 l 0.02343,-0.224634 h 0.506836 l 0.02441,0.223633 c 0.06322,0.585795 0.189375,1.158897 0.485352,1.621094 0.02797,0.03408 0.03706,0.04191 0.0459,0.04102 0.01082,-0.0012 0.07493,-0.02649 0.15332,-0.0918 0.148425,-0.123663 0.308945,-0.346066 0.539062,-0.493164 1.498425,-1.332522 2.532534,-3.123502 2.981446,-5.040039 v -10e-4 c 0.453208,-1.920485 0.303469,-3.9757717 -0.404297,-5.8261717 l -0.002,-0.0039 -0.002,-0.0049 C 14.431431,4.9705418 13.249016,3.2231214 11.728515,1.8158442 l -0.0019,-0.00196 -0.003,-0.00293 C 11.378412,1.4736089 11.210918,1.0758651 11.016601,0.6976801 Z"/>
 <path style="fill:#12935a" d="m 11,0.2063168 c 0.03191,0.9554189 0.0038,1.912822 0,2.8714466 0.02609,3.1849294 0.02275,6.3698266 0,9.5548286 -0.0047,1.234149 0.06198,2.466605 0,3.698193 0.05126,0.724531 0.160016,1.50618 0.565237,2.133886 0.361238,0.466409 0.779415,-0.308168 1.107789,-0.497944 1.541132,-1.368852 2.601159,-3.205312 3.062024,-5.17288 C 16.20022,10.822674 16.047043,8.7178853 15.321443,6.8208598 14.654214,4.8471878 13.447577,3.0653731 11.898815,1.6319387 11.48745,1.2299494 11.273332,0.6952851 11,0.2063168 Z"/>
 <path style="opacity:0.2" d="M 11,0.523852 C 10.939657,1.2789309 10.118302,1.7123663 9.657226,2.2494379 8.9004665,3.0072433 8.1521615,3.8023619 7.678711,4.7601798 7.3472405,5.3158978 7.0474905,5.8854433 6.855469,6.5023673 6.2508005,7.9274278 6.012279,9.485958 6,11.020922 c 0.01524,3.134989 1.7551725,6.083118 4.230469,8.038086 0.380131,0.559846 0.43713,0.01394 0.527343,-0.325195 C 10.882888,18.18342 10.944782,17.623406 11,17.062914 Z"/>
 <path style="fill:#10aa50" d="M 11,0.023852 C 10.93966,0.7789309 10.118302,1.2123663 9.657226,1.7494379 8.9004665,2.5072433 8.1521615,3.3023618 7.678711,4.2601799 7.3472405,4.8158978 7.0474905,5.3854433 6.855469,6.0023673 6.2508005,7.4274278 6.012279,8.9859578 6,10.520922 c 0.01524,3.134989 1.7551725,6.083118 4.230469,8.038086 0.380131,0.559846 0.43713,0.01394 0.527343,-0.325195 C 10.882888,17.68342 10.944782,17.123406 11,16.562914 Z"/>
 <path style="opacity:0.2;fill:#8b9cbe" d="m 11,0.2064692 c 0.0057,0.169426 0.0025,0.3392425 0.0049,0.508789 0.271014,0.4865924 0.484638,1.0173955 0.893554,1.4169922 1.548763,1.4334344 2.755623,3.2148044 3.422852,5.1884764 0.420541,1.0994725 0.642886,2.2688162 0.669922,3.4414062 C 16.025963,9.423149 15.801686,8.0766443 15.321306,6.8207268 14.65406,4.8470548 13.4472,3.0656848 11.898437,1.6322504 11.487072,1.2302611 11.273332,0.6954374 11,0.2064692 Z m 0.01172,1.6845703 C 11.00782,2.2864674 11.00157,2.6816645 11,3.0775629 c 9.5e-4,0.1184903 8.6e-5,0.2369785 10e-4,0.3554687 0.0033,-0.5145496 0.009,-1.0282867 0.01074,-1.5419921 z m 0.0059,6.2138668 C 11.01658,9.614039 11.01078,11.123085 11,12.63225 c -1.59e-4,0.04168 10e-4,0.08333 10e-4,0.125 0.01033,-1.550829 0.01682,-3.101545 0.0166,-4.6523437 z m 0.0059,7.3681647 c -0.003,0.285867 -0.0091,0.571658 -0.02344,0.857421 0.0026,0.03661 0.0078,0.07445 0.01074,0.111329 0.0097,-0.322919 0.01415,-0.645686 0.0127,-0.96875 z"/>
 <path style="opacity:0.2;fill:#8b9cbe" d="M 11,0.023852 C 10.93966,0.7789309 10.118302,1.2123663 9.657226,1.7494379 8.9004665,2.5072433 8.1521615,3.302362 7.678711,4.2601799 7.3472405,4.8158978 7.04749,5.3854433 6.855469,6.0023673 6.2508005,7.4274278 6.012279,8.9859578 6,10.520922 c 4.47e-4,0.09192 0.00735,0.182836 0.01074,0.274414 C 6.04378,9.333599 6.2803675,7.8577403 6.855467,6.5023673 7.0474885,5.8854433 7.3472385,5.3158978 7.678709,4.7601798 8.1521595,3.8023619 8.9004645,3.0072433 9.657224,2.2494379 10.118302,1.7123663 10.939657,1.2789309 11,0.523852 Z"/>
</svg>
