<svg xmlns="http://www.w3.org/2000/svg" width="22" height="22" version="1">
 <rect style="opacity:0.2" width="20" height="20" x="1" y="1.5" rx="6" ry="6"/>
 <rect style="fill:#4f4f4f" width="20" height="20" x="1" y="1" rx="6" ry="6"/>
 <path style="opacity:0.1;fill:#8b9cbe" d="M 7,1 C 3.676,1 1,3.676 1,7 v 0.5 c 0,-3.324 2.676,-6 6,-6 h 8 c 3.324,0 6,2.676 6,6 V 7 C 21,3.676 18.324,1 15,1 Z"/>
 <path style="opacity:0.2;fill-rule:evenodd" d="m 11,4.5 c -3.860811,0 -7,3.139189 -7,7 0,3.860811 3.139189,7 7,7 3.860811,0 7,-3.139189 7,-7 0,-3.860811 -3.139189,-7 -7,-7 z m 0,1 c 3.318785,0 6,2.681215 6,6 0,3.318785 -2.681215,6 -6,6 -3.318785,0 -6,-2.681215 -6,-6 0,-3.318785 2.681215,-6 6,-6 z m -3,3 v 2 h 1 v -2 z m 5,0 v 2 h 1 v -2 z m -4.3203125,4.832031 -0.7070313,0.707031 0.3535157,0.353516 C 9.035158,15.101564 9.997342,15.5 11,15.5 c 1.002658,0 1.964842,-0.398436 2.673828,-1.107422 l 0.353516,-0.353516 -0.707032,-0.707031 -0.353515,0.353516 C 12.445075,14.207268 11.737825,14.5 11,14.5 10.262175,14.5 9.554925,14.207268 9.033203,13.685547 Z"/>
 <path style="fill:#d4d4d4;fill-rule:evenodd" d="m 11,4 c -3.860811,0 -7,3.139189 -7,7 0,3.860811 3.139189,7 7,7 3.860811,0 7,-3.139189 7,-7 0,-3.860811 -3.139189,-7 -7,-7 z m 0,1 c 3.318785,0 6,2.681215 6,6 0,3.318785 -2.681215,6 -6,6 C 7.681215,17 5,14.318785 5,11 5,7.681215 7.681215,5 11,5 Z"/>
 <path style="fill:none;stroke:#d4d4d4;stroke-linecap:square" d="M 13.320194,13.538944 A 3.28125,3.28125 0 0 1 11,14.5 3.28125,3.28125 0 0 1 8.6798059,13.538944"/>
 <rect style="fill:#d4d4d4" width="1" height="2" x="8" y="8"/>
 <rect style="fill:#d4d4d4" width="1" height="2" x="13" y="8"/>
 <path style="opacity:0.2;fill:#8b9cbe;fill-rule:evenodd" d="M 11,4 C 7.139189,4 4,7.139189 4,11 4,11.0844 4.010697,11.166314 4.013672,11.25 4.1467933,7.5055817 7.2235904,4.5 11,4.5 c 3.77641,0 6.853207,3.0055817 6.986328,6.75 C 17.989303,11.166314 18,11.084401 18,11 18,7.139189 14.860811,4 11,4 Z M 8,8 V 8.5 H 9 V 8 Z m 5,0 v 0.5 h 1 V 8 Z M 5.0136719,11.25 C 5.0102452,11.333447 5,11.415697 5,11.5 c 0,3.318785 2.681215,6 6,6 3.318785,0 6,-2.681215 6,-6 0,-0.0843 -0.01025,-0.166553 -0.01367,-0.25 C 16.854858,14.451628 14.234482,17 11,17 7.7655182,17 5.1451421,14.451628 5.0136719,11.25 Z m 3.6660156,1.582031 -0.7070313,0.707031 0.25,0.25 0.4570313,-0.457031 0.3535155,0.353516 C 9.554925,14.207268 10.262175,14.5 11,14.5 c 0.737825,0 1.445075,-0.292732 1.966797,-0.814453 l 0.353515,-0.353516 0.457032,0.457031 0.25,-0.25 -0.707032,-0.707031 -0.353515,0.353516 C 12.445075,13.707268 11.737825,14 11,14 10.262175,14 9.554925,13.707268 9.033203,13.185547 Z"/>
</svg>
