<svg xmlns="http://www.w3.org/2000/svg" width="22" height="22" version="1">
 <rect style="opacity:0.2" width="6" height="1" x="11" y="20.5" rx=".375" ry=".5"/>
 <rect style="opacity:0.2" width="14" height="11" x="7" y="1.5" rx="1.5" ry="1.5"/>
 <circle style="opacity:0.2" cx="8" cy="11.5" r="7"/>
 <rect style="fill:#00b4ed" width="14" height="11" x="7" y="1" rx="1.5" ry="1.5"/>
 <circle style="fill:#4f4f4f" cx="8" cy="11" r="7"/>
 <circle style="fill:#17191e" cx="8" cy="11" r="5"/>
 <circle style="opacity:0.2" cx="8" cy="11" r="2"/>
 <rect style="fill:#17191e" width="2" height="2.5" x="13" y="18" rx=".286" ry=".5"/>
 <rect style="opacity:0.2" width="10" height="8" x="9" y="11.5" rx="1.071" ry="1.091"/>
 <rect style="fill:#1d64bc" width="10" height="8" x="9" y="11" rx="1.071" ry="1.091"/>
 <rect style="fill:#4f4f4f" width="6" height="1" x="11" y="20" rx=".375" ry=".5"/>
 <path style="opacity:0.2;fill:#8b9cbe" d="M 8.5,1 C 7.669,1 7,1.669 7,2.5 V 3 C 7,2.169 7.669,1.5 8.5,1.5 h 11 C 20.331,1.5 21,2.169 21,3 V 2.5 C 21,1.669 20.331,1 19.5,1 Z"/>
</svg>
