<svg xmlns="http://www.w3.org/2000/svg" width="22" height="22" version="1.1">
 <path style="opacity:0.2" d="M 11.000005,4.4999989 A 7,7 0 0 0 5.249028,7.5126945 5.5,5.5 0 0 0 0.6718795,10.377928 l -0.00977,0.003 C 0.2397905,11.1595 0,12.052048 0,13.000048 c 5.5e-4,1.123169 0.343598,2.169796 0.9277345,3.044922 l -0.00195,0.001 c 0.00752,0.01129 0.01682,0.021 0.024415,0.03223 0.099898,0.147334 0.206874,0.289022 0.3203125,0.425781 0.01804,0.02178 0.03536,0.04396 0.053711,0.06543 0.11468,0.134015 0.2353005,0.262293 0.3623045,0.384766 0.014925,0.0144 0.02887,0.02973 0.043945,0.04395 0.2870285,0.270623 0.6033385,0.51025 0.944336,0.714843 0.015395,0.0092 0.03139,0.01728 0.046875,0.02637 0.149315,0.08761 0.302824,0.168628 0.4609375,0.242188 0.033845,0.01577 0.068363,0.02984 0.102539,0.04492 0.141503,0.06234 0.2859325,0.119387 0.433594,0.169922 0.0423,0.01453 0.084258,0.02946 0.126953,0.04297 0.147574,0.0465 0.2982835,0.08495 0.451172,0.11914 0.040605,0.0091 0.080216,0.02106 0.121094,0.0293 0.1907985,0.03814 0.3842435,0.06886 0.582031,0.08691 V 18.5 h 0.5 5.5 6.5 c 0.19127,0 0.378485,-0.0159 0.563477,-0.03907 0.04403,-0.0056 0.08715,-0.01364 0.130859,-0.02051 0.15553,-0.02415 0.308176,-0.05508 0.458008,-0.09473 0.02967,-0.0079 0.0594,-0.01495 0.08887,-0.02343 0.366417,-0.105078 0.712504,-0.255118 1.03418,-0.444336 0.02865,-0.01684 0.05669,-0.03429 0.08496,-0.05176 0.150999,-0.09338 0.297112,-0.19367 0.435546,-0.303711 0.0044,-0.0035 0.0093,-0.0063 0.01367,-0.0098 0.0014,-0.0011 0.0024,-0.0027 0.0039,-0.0039 0.149544,-0.120076 0.290844,-0.249792 0.423829,-0.387695 0.0166,-0.01726 0.0315,-0.03617 0.04785,-0.05371 0.118225,-0.126563 0.228895,-0.259847 0.33203,-0.399414 0.01355,-0.0184 0.0277,-0.03606 0.041,-0.05469 0.527735,-0.737261 0.84181,-1.637476 0.84181,-2.613286 0,-2.415692 -1.905045,-4.380767 -4.293947,-4.489258 A 7,7 0 0 0 11.000005,4.4999989 Z"/>
 <circle style="fill:#056ab6" cx="11" cy="11" r="7"/>
 <path style="opacity:0.1;fill:#8b9cbe" d="M 11.000001,3.9999995 A 7,7 0 0 0 4.000001,11 7,7 0 0 0 4.010743,11.292968 7,7 0 0 1 11.000001,4.4999995 7,7 0 0 1 17.989259,11.207031 7,7 0 0 0 18.000001,11 a 7,7 0 0 0 -7,-7.0000005 z"/>
 <path style="fill:#138fe6" d="M 17.500001,8.9999995 C 16.863292,9.0315445 16.310216,9.149615 15.790042,9.339848 l -10e-4,10e-4 c -1.666787,0.695082 -3.39871,1.418637 -4.903299,2.046846 l -9.9599608,4.158203 c 0.9212679,1.383663 2.4189041,2.27643 4.0742188,2.428712 V 18 h 0.5 12 c 2.485281,0 4.5,-2.014719 4.5,-4.5 0,-2.485282 -2.014719,-4.5000005 -4.5,-4.5000005 z"/>
 <path style="fill:#1581d9" d="M 5.500001,6.9999995 A 5.5,5.5 0 0 0 0.671876,9.877929 l -0.00977,0.003 C 0.2397917,10.659451 1e-6,11.551999 1e-6,12.5 c 0.00135,2.842823 2.1689475,5.216171 5,5.474609 V 18 h 0.5 12 c 1.663307,-0.0012 3.190306,-0.919805 3.970703,-2.388672 l -7.716797,-4.59961 -5.5429685,-3.3037105 -0.01758,0.0049 A 5.5,5.5 0 0 0 5.500001,6.9999995 Z"/>
 <path style="fill:#38afec" d="m 12.943361,10.52832 c -0.689889,0.288072 -1.426189,0.595735 -2.057618,0.859375 l -9.9580076,4.157226 c 0.00741,0.01111 0.014971,0.02216 0.022461,0.03321 0.100079,0.147932 0.2075027,0.289561 0.3203125,0.425781 0.018057,0.02177 0.035324,0.04394 0.053711,0.06543 0.1150359,0.134626 0.2356894,0.262634 0.3623047,0.384766 0.014907,0.01438 0.028875,0.02973 0.043945,0.04395 0.2888149,0.272348 0.60583,0.511765 0.9443359,0.714844 0.015348,0.0092 0.031428,0.01731 0.046875,0.02636 0.1496174,0.08778 0.3035094,0.168847 0.4609375,0.242188 0.033792,0.01572 0.068367,0.02987 0.1025391,0.04492 0.1418144,0.06258 0.2865106,0.119394 0.4335937,0.169922 0.04223,0.01445 0.084248,0.02951 0.1269531,0.04297 0.147984,0.04683 0.2988831,0.08484 0.4511721,0.119141 0.04064,0.0091 0.080101,0.0211 0.121094,0.0293 0.191513,0.03858 0.385364,0.06882 0.582031,0.08691 V 18 h 0.5 12 c 0.190115,-1.37e-4 0.377835,-0.01551 0.563477,-0.03907 0.04398,-0.0055 0.08728,-0.01374 0.130859,-0.02051 0.154935,-0.02434 0.307725,-0.05473 0.458008,-0.09473 0.02965,-0.0078 0.05947,-0.015 0.08887,-0.02343 0.363339,-0.104703 0.710699,-0.254237 1.03418,-0.444336 0.0286,-0.01683 0.05677,-0.03432 0.08496,-0.05176 0.150661,-0.09308 0.296635,-0.19333 0.435547,-0.303711 0.0044,-0.0035 0.0093,-0.0063 0.01367,-0.0098 0.0015,-0.0011 0.0024,-0.0027 0.0039,-0.0039 0.148967,-0.119582 0.290534,-0.249305 0.423828,-0.387695 0.01663,-0.01725 0.03149,-0.03619 0.04785,-0.05371 0.117572,-0.126043 0.228811,-0.259328 0.332032,-0.399414 0.01355,-0.01833 0.02774,-0.03615 0.04102,-0.05469 0.113737,-0.159399 0.219104,-0.326161 0.3125,-0.501953 l -7.716788,-4.599614 z"/>
 <path style="opacity:0.2;fill:#8b9cbe" d="M 17.500001,8.9999995 C 16.863292,9.0315445 16.310214,9.14961 15.79004,9.339843 l -10e-4,10e-4 c -1.666787,0.695082 -3.398731,1.418667 -4.903321,2.046875 l -9.9599368,4.15818 c 0.088575,0.133032 0.1872743,0.257124 0.2861328,0.380859 l 9.673828,-4.039062 c 1.50459,-0.628208 3.236534,-1.351793 4.90332,-2.046875 l 10e-4,-0.001 C 16.310214,9.64961 16.863292,9.531544 17.500001,9.5 c 2.400856,0 4.356796,1.881748 4.487304,4.25 0.0046,-0.08328 0.0127,-0.165576 0.0127,-0.25 0,-2.485282 -2.014719,-4.5000005 -4.5,-4.5000005 z"/>
 <path style="opacity:0.1;fill:#8b9cbe" d="M 5.500001,6.9999995 A 5.5,5.5 0 0 0 0.671876,9.877929 l -0.00977,0.003 C 0.2397916,10.659431 1e-6,11.551999 1e-6,12.5 c 4.53e-5,0.09542 0.0088,0.188903 0.013672,0.283203 0.033976,-0.866261 0.2588547,-1.684123 0.6484375,-2.402344 l 0.00977,-0.0029 A 5.5,5.5 0 0 1 5.500001,7.4999995 5.5,5.5 0 0 1 8.1933605,8.21289 l 0.01758,-0.0049 5.5429685,3.303711 7.490234,4.464844 c 0.07879,-0.119211 0.158674,-0.237453 0.226563,-0.365235 L 13.753909,11.011701 8.2109405,7.70799 8.1933605,7.71289 A 5.5,5.5 0 0 0 5.500001,6.9999995 Z"/>
</svg>
