<svg xmlns="http://www.w3.org/2000/svg" width="22" height="22" version="1.1">
 <path style="opacity:0.2" d="m 11.999996,21.5 a 10.029382,10.029382 0 0 0 9.999997,-9.999997 H 1.9999994 A 10.029389,10.029389 0 0 0 11.999996,21.5 Z"/>
 <path style="fill:#ed6c47" d="M 12.000003,1.0000063 A 10.029382,10.029382 0 0 0 2.0000065,11.000003 l 12.6692815,2.669285 z"/>
 <path style="fill:#ff8f6b" d="M 12.000003,1.0000063 A 10.029382,10.029382 0 0 1 22,11.000003 l -4.999999,3.398506 -4.999998,-3.398506 z"/>
 <path style="opacity:0.2;fill:#8b9cbe" d="M 11.999996,1.0000061 A 10.029382,10.029382 0 0 0 1.9999994,11.000003 l 0.017578,0.0039 a 10.029382,10.029382 0 0 1 9.9824186,-9.5038971 10.029382,10.029382 0 0 1 9.974607,9.5175751 l 0.02539,-0.01758 A 10.029382,10.029382 0 0 0 11.999996,1.0000061 Z m 2.458984,12.1708949 0.09961,0.474609 0.110351,0.02343 -0.08691,-0.415039 z"/>
 <path style="fill:#d35230" d="m 11.999996,21 a 10.029382,10.029382 0 0 0 9.999997,-9.999997 H 1.9999994 A 10.029389,10.029389 0 0 0 11.999996,21 Z"/>
 <rect style="opacity:0.1" width="20" height=".5" x="2" y="11"/>
 <path style="opacity:0.1" d="m 0.9166642,5.5000036 h 9.1666828 a 0.91667097,0.91667097 0 0 1 0.91665,0.9166707 V 15.58333 A 0.91666408,0.91666408 0 0 1 10.083354,16.5 H 0.9166712 A 0.91667097,0.91667097 0 0 1 0,15.58333 V 6.4166678 A 0.91666408,0.91666408 0 0 1 0.9166642,5.5000036 Z"/>
 <path style="fill:#c43e1c" d="m 0.9166642,5.0000037 h 9.1666828 a 0.91667097,0.91667097 0 0 1 0.91665,0.9166707 V 15.08333 A 0.91666408,0.91666408 0 0 1 10.083354,16 H 0.9166712 A 0.91667097,0.91667097 0 0 1 0,15.08333 V 5.9166679 A 0.91666408,0.91666408 0 0 1 0.9166642,5.0000037 Z"/>
 <path style="fill:#f9f7f7" d="M 2.9999999,7.0078125 V 14 h 2 V 12 H 5.5097655 C 5.9613759,12.01028 6.4086049,11.94536 6.8183593,11.740234 7.1768882,11.560028 7.4792916,11.271673 7.689453,10.910156 7.8957705,10.583371 8.0031531,9.895325 7.9960937,9.5 8.0328286,8.882716 7.8046869,7.9821789 7.376953,7.5703125 6.8622962,7.1604562 6.228069,6.9614775 5.5898437,7.0078125 Z m 2,1.9960935 H 5.298828 c 0.4657195,0 0.6992188,0.176387 0.6992188,0.529297 0.012786,0.130439 -0.056895,0.257251 -0.1816407,0.328125 -0.1541908,0.103816 -0.3456454,0.153238 -0.5390624,0.140625 H 4.9999999 Z"/>
</svg>
