<svg xmlns="http://www.w3.org/2000/svg" width="22" height="22" version="1">
 <circle style="fill:#b2bfd9" cx="11" cy="11" r="10"/>
 <path style="opacity:0.2;fill:#8b9cbe" d="m 11,1 a 10,10 0 0 0 -10,10 10,10 0 0 0 0.01075,0.291 10,10 0 0 1 9.989,-9.791 10,10 0 0 1 9.9895,9.709 10,10 0 0 0 0.0105,-0.209 10,10 0 0 0 -10,-10 z"/>
 <path style="opacity:0.2" d="M 20.9895,11.209 A 10,10 0 0 1 11,21 10,10 0 0 1 1.011,11.291 10,10 0 0 0 1,11.5 a 10,10 0 0 0 10,10 10,10 0 0 0 10,-10 10,10 0 0 0 -0.0105,-0.291 z"/>
 <g style="opacity:0.1" transform="translate(-1,-0.5)">
  <path d="m 12,5 c -1.6572,0 -3,1.3434 -3,3 0,1.6566 1.3428,3 3,3 1.6572,0 3,-1.3434 3,-3 0,-1.6566 -1.3428,-3 -3,-3 z"/>
  <path d="m 12,12.000001 c -4.9995,0.0032 -5,3.446153 -5,3.446153 v 1.4 C 7,16.846154 7.923071,19 12,19 c 4.076929,0 5,-2.153846 5,-2.153846 v -1.4 c 0,0 0,-3.448307 -4.999,-3.446153 z"/>
 </g>
 <path style="fill:#188eee" d="M 11,4 C 9.3428,4 8,5.3434 8,7 c 0,1.6566 1.3428,3 3,3 1.6572,0 3,-1.3434 3,-3 0,-1.6566 -1.3428,-3 -3,-3 z"/>
 <path style="fill:#188eee" d="m 11,11.000001 c -4.9995,0.0032 -5,3.446153 -5,3.446153 v 1.4 C 6,15.846154 6.923071,18 11,18 c 4.076929,0 5,-2.153846 5,-2.153846 v -1.4 c 0,0 0,-3.448307 -4.999,-3.446153 z"/>
</svg>
