<svg xmlns="http://www.w3.org/2000/svg" width="22" height="22" version="1.1">
 <path style="opacity:0.2" d="m 1,11.5 c 0,5.526525 4.481394,10 10,10 5.518605,0 10,-4.473475 10,-10 0,-5.526524 -4.473475,-10 -10,-10 -5.526524,0 -10,4.473476 -10,10 z"/>
 <path style="fill:#1e3854" d="M 1,11 C 1,16.526525 5.481394,21 11,21 16.518605,21 21,16.526525 21,11 21,5.473476 16.526525,1 11,1 5.473476,1 1,5.473476 1,11 Z"/>
 <path style="opacity:0.2" d="m 12.302734,4.612897 c -0.508683,-0.0198 -0.825958,0.137443 -1.1875,0.394532 -0.283236,0.19483 -0.321516,0.441719 -0.550781,0.5625 -0.07748,-0.03131 -0.15501,-0.04687 -0.240234,-0.04687 -0.418373,0 -0.958976,0.50867 -1.191407,1.048828 C 8.970113,6.963306 8.938474,7.127875 9.054692,7.44884 8.450375,7.581924 7.094677,7.41759 6.738285,7.41759 c 0.02325,0.01566 0.05299,0.03123 0.08398,0.04687 l 2.488281,1.439453 0.02148,0.02344 c 0.736027,0.657583 1.421252,1.404851 2.513672,2.093749 0.68179,0.438389 3.12988,1.205018 3.246094,1.236328 -0.29441,-0.735866 0.495956,-1.705666 0.712891,-2.378906 0.263435,-0.82198 0.35679,-2.023724 0.04687,-2.845703 -0.42724,-1.128665 -1.676909,-2.048695 -2.96875,-2.33789 -0.220886,-0.04863 -0.410517,-0.07543 -0.580078,-0.08203 z m -1.765625,1.136719 c 0.07678,0 0.168233,0.01621 0.257813,0.05664 0.240065,0.101537 0.387153,0.334618 0.433594,0.599609 0.05437,0.301044 0.01068,0.638055 -0.144532,0.955078 -0.228154,0.500684 -0.642648,0.888672 -1.125,0.888672 -0.07972,0 -0.15914,-0.01017 -0.240234,-0.04102 C 9.493917,8.123065 9.385,7.934801 9.333984,7.802345 9.190036,7.454565 9.234334,7.033213 9.408204,6.644141 l 0.002,-0.002 v -0.0039 C 9.645496,6.142207 10.053179,5.749569 10.537157,5.749569 Z M 4.160156,7.525007 c -0.0022,-0.02271 -0.0095,-0.0131 -0.02344,0.04883 L 3.906247,8.552353 C 2.973251,8.148293 2.690928,9.707757 3.541013,9.823837 L 3.00781,10.917587 3.75195,9.868759 c 0.0023,0.366756 -0.06953,1.427745 -0.02539,1.40039 0.06293,-0.341463 0.124572,-0.683927 0.1875,-1.02539 0.772493,1.570664 1.747708,2.724206 3.226562,3.71875 0.675995,0.548632 1.715197,0.358394 2.494141,0.103515 0.708807,-0.238052 1.326045,-0.790142 1.970703,-1.080078 0.188559,0.125975 0.376226,0.254365 0.564453,0.38086 -0.286996,-0.0474 -0.630454,-0.29899 -0.791016,0.0918 -1.031227,1.018114 -2.771911,1.499258 -4.068359,0.699219 -0.981039,0.285586 0.306926,0.986666 0.0039,1.521485 -0.134959,0.626181 -0.381429,0.62539 -0.882812,1.048828 -0.70266,0.473699 0.01253,1.026 0.445312,1.371093 2.046515,1.621929 4.993045,1.770641 7.353516,0.789063 0.873505,-0.371729 1.686244,-0.926822 2.269531,-1.683594 -0.212246,-0.730575 -0.783051,-0.300252 -1.066406,-1.005859 -0.116305,-0.212452 0.51017,0.175711 0.144531,-0.212891 -0.119862,-0.280781 -0.7179,-0.899167 -0.08594,-0.724609 -0.258653,-0.30628 -0.688997,-0.726032 -0.05469,-0.673828 0.06086,-0.148204 -0.922703,-0.893097 -0.236328,-0.679688 0.396719,0.132822 0.199235,-0.07565 0.02148,-0.273437 -0.05687,-0.13765 -0.497437,-0.456835 -0.259765,-0.455078 0.376822,0.07996 -0.02808,-0.25408 -0.08594,-0.404297 -0.344182,-0.330437 -0.943092,-0.31398 -1.378906,-0.53125 C 11.760033,11.689275 10.382806,10.426107 9.019511,9.27306 L 7.558574,8.603138 C 6.527636,8.531988 5.479087,8.4423 4.457011,8.646108 L 4.984355,7.737904 4.177714,8.71642 C 4.024389,8.561791 4.169314,8.250495 4.136694,8.032826 4.132294,7.949576 4.166624,7.593137 4.160134,7.525014 Z"/>
 <path style="fill:#d0933a" d="M 3.008049,10.417429 3.751823,9.368426 c 0.0023,0.366756 -0.07022,1.427504 -0.02608,1.400149 0.06293,-0.341463 0.125854,-0.682924 0.188781,-1.024387 0.772494,1.570664 1.747461,2.723914 3.226315,3.718458 0.675995,0.548632 1.715798,0.358557 2.494742,0.103678 0.708807,-0.238052 1.324347,-0.789483 1.969005,-1.079419 0.188559,0.125975 0.376255,0.253301 0.564482,0.379795 -0.286996,-0.0474 -0.628973,-0.298806 -0.789535,0.09198 -1.031227,1.018114 -2.771792,1.498726 -4.06824,0.698687 -0.981039,0.285586 0.30702,0.986577 0.004,1.521396 -0.134959,0.626181 -0.382085,0.62574 -0.883468,1.049178 -0.70266,0.473699 0.0133,1.026981 0.446085,1.372074 2.046515,1.621929 4.992845,1.770635 7.353316,0.789057 0.873505,-0.371729 1.685473,-0.927609 2.26876,-1.684381 -0.212246,-0.730575 -0.782615,-0.299122 -1.06597,-1.004729 -0.116305,-0.212452 0.510702,0.174757 0.145063,-0.213845 -0.119862,-0.280781 -0.718252,-0.898495 -0.08629,-0.723937 -0.258653,-0.30628 -0.690149,-0.726685 -0.05584,-0.674481 0.06086,-0.148204 -0.922956,-0.89229 -0.236581,-0.678881 0.396719,0.132822 0.200701,-0.07547 0.02295,-0.273257 -0.05687,-0.13765 -0.498661,-0.457488 -0.260989,-0.455731 0.376822,0.07996 -0.02679,-0.25334 -0.08465,-0.403557 C 14.533497,11.945836 13.933941,11.961977 13.498127,11.744707 11.760133,11.190219 10.383675,9.926521 9.02038,8.773474 L 7.559199,8.10342 C 6.528261,8.03227 5.478923,7.943333 4.456847,8.14714 L 4.983685,7.239049 4.177932,8.217596 C 4.024607,8.062967 4.169532,7.750909 4.136872,7.53324 4.130972,7.422241 4.192322,6.826947 4.136677,7.074665 L 3.906758,8.0532 C 2.973762,7.64914 2.691571,9.207732 3.541656,9.323812 l -0.533623,1.093612 z"/>
 <path style="opacity:0.2" d="m 10.535156,5.999443 c -0.320749,0 -0.693514,0.313929 -0.898437,0.746094 -0.151465,0.338955 -0.179177,0.712581 -0.07227,0.966797 0.03564,0.09321 0.108543,0.210876 0.242188,0.261719 0.04455,0.01695 0.09693,0.02539 0.15039,0.02539 0.320749,0 0.704378,-0.313927 0.900391,-0.746093 0.133649,-0.271164 0.16955,-0.558947 0.125,-0.804688 -0.03564,-0.203373 -0.142601,-0.356697 -0.285156,-0.416015 -0.05346,-0.02542 -0.108654,-0.0332 -0.16211,-0.0332 z M 3.650391,8.481865 c -0.356392,0 -0.642578,0.290286 -0.642578,0.650391 0,0.313136 0.22512,0.579951 0.519531,0.642578 h 0.01563 C 3.736665,9.712204 4.124487,9.18761 4.062505,8.858818 4.039255,8.741394 3.983725,8.632447 3.906255,8.538506 3.828775,8.507186 3.735621,8.481866 3.650396,8.481866 Z"/>
 <path style="fill:#fdd321" d="m 11.114954,4.507029 c -0.283236,0.19483 -0.321072,0.442052 -0.550337,0.562833 -0.07748,-0.03131 -0.15501,-0.04687 -0.240234,-0.04687 -0.418373,0 -0.960117,0.510022 -1.192547,1.05018 -0.1627,0.391419 -0.193363,0.555989 -0.07715,0.876954 -0.604317,0.133084 -1.960015,-0.03125 -2.316407,-0.03125 0.02325,0.01566 0.05397,0.03122 0.08496,0.04687 l 2.487305,1.439453 0.02246,0.02344 c 0.736027,0.657584 1.419649,1.403193 2.512069,2.092091 0.68179,0.438389 3.129879,1.205995 3.246093,1.237305 -0.29441,-0.735867 0.495956,-1.706643 0.712891,-2.379883 0.263435,-0.82198 0.356785,-2.02254 0.04687,-2.844519 C 15.423686,5.404968 14.175386,4.483701 12.883546,4.194506 12,4 11.59701,4.164244 11.114954,4.507029 Z m -0.578821,0.742896 c 0.07678,0 0.169209,0.01621 0.258789,0.05664 0.240065,0.101537 0.387153,0.334618 0.433594,0.599609 0.05437,0.301044 0.0097,0.638055 -0.145508,0.955078 -0.228154,0.500684 -0.642648,0.888672 -1.125,0.888672 -0.07972,0 -0.15914,-0.01017 -0.240234,-0.04102 C 9.492941,7.623374 9.384024,7.436087 9.333008,7.303631 9.18906,6.955851 9.234338,6.533523 9.408208,6.144451 l 0.0019,-0.002 0.001,-0.003 C 9.6464,5.643417 10.052155,5.249925 10.536133,5.249925 Z"/>
 <path style="fill:#ffcc86" d="m 3.906775,8.037953 c -0.07748,-0.03132 -0.170447,-0.0548 -0.255672,-0.0548 -0.356392,0 -0.643055,0.289649 -0.643055,0.649755 0,0.313135 0.224682,0.5793 0.519093,0.641926 h 0.0155 C 3.736332,9.212204 4.123715,8.687706 4.061733,8.358914 4.038483,8.24149 3.984253,8.131892 3.90678,8.037951 Z"/>
 <path style="fill:#8b9cbe" d="m 10.535944,5.499925 c -0.320749,0 -0.694629,0.314134 -0.899552,0.7463 -0.151465,0.338954 -0.178791,0.711958 -0.07188,0.966174 0.03564,0.09321 0.107808,0.211313 0.241453,0.262156 0.04455,0.01695 0.09815,0.02537 0.15161,0.02537 0.320749,0 0.703538,-0.313077 0.899551,-0.745243 0.133649,-0.271164 0.169207,-0.559756 0.124657,-0.805497 -0.03564,-0.203373 -0.142696,-0.356116 -0.285251,-0.415433 -0.05346,-0.02542 -0.107137,-0.03383 -0.160593,-0.03383 z"/>
 <path style="opacity:0.1;fill:#8b9cbe" d="M 11,1 C 5.473476,1 1,5.473476 1,11 1,11.08389 1.0038,11.166606 1.0059,11.25 1.138875,5.839629 5.557407,1.5 11.00004,1.5 c 5.442634,0 9.861166,4.339629 9.994141,9.75 0.0021,-0.08339 0.0059,-0.166108 0.0059,-0.25 0,-5.526524 -4.473475,-10 -10,-10 z"/>
 <path style="opacity:0.2;fill:#8b9cbe" d="m 12.302734,4.113281 c -0.508683,-0.0198 -0.825958,0.137443 -1.1875,0.394532 -0.283236,0.194829 -0.321516,0.441719 -0.550781,0.5625 -0.07748,-0.03131 -0.15501,-0.04687 -0.240234,-0.04687 -0.418373,0 -0.958976,0.50867 -1.191407,1.048828 -0.150287,0.361558 -0.182303,0.534048 -0.0957,0.810547 0.02448,-0.09435 0.0414,-0.179902 0.0957,-0.310547 C 9.207192,6.399415 9.318013,6.236711 9.441406,6.085943 9.680218,5.616624 10.071461,5.25 10.537109,5.25 c 0.07678,0 0.168233,0.01621 0.257813,0.05664 0.008,0.0034 0.01366,0.01 0.02148,0.01367 0.07455,-0.10241 0.155076,-0.213617 0.298828,-0.3125 0.361542,-0.257089 0.678817,-0.414331 1.1875,-0.394531 0.169561,0.0066 0.359193,0.0334 0.580078,0.08203 1.291842,0.289195 2.541511,1.209225 2.96875,2.33789 0.118245,0.313613 0.161993,0.686368 0.175782,1.06836 0.03436,-0.554491 -0.0056,-1.11711 -0.175782,-1.56836 -0.42724,-1.128665 -1.676909,-2.048695 -2.96875,-2.33789 -0.220886,-0.04863 -0.410517,-0.07543 -0.580078,-0.08203 z m -1.076172,2.289063 c -0.0249,0.153231 -0.06904,0.308775 -0.142578,0.458984 C 10.85583,7.362012 10.441336,7.75 9.958984,7.75 9.879264,7.75 9.799844,7.73983 9.71875,7.70898 9.493917,7.62345 9.385,7.435186 9.333984,7.30273 9.306244,7.23571 9.291524,7.163522 9.277344,7.091793 9.235184,7.339819 9.244364,7.586196 9.333984,7.80273 9.385004,7.935186 9.493917,8.12345 9.71875,8.20898 9.79984,8.23983 9.879264,8.25 9.958984,8.25 c 0.482352,0 0.896846,-0.387988 1.125,-0.888672 0.155212,-0.317023 0.198902,-0.654034 0.144532,-0.955078 -2.6e-4,-0.0015 -0.0017,-0.0024 -0.002,-0.0039 z M 6.738281,6.917969 c 0.02325,0.01566 0.05299,0.03122 0.08398,0.04687 l 0.884766,0.511719 c 0.492282,0.0294 1.01833,0.04518 1.347657,-0.02734 C 8.986104,7.259811 8.982724,7.112362 9.013664,6.953124 8.39413,7.073367 7.08821,6.917964 6.738273,6.917964 Z M 4.160156,7.025391 c -0.0022,-0.02271 -0.0095,-0.0131 -0.02344,0.04883 L 3.906247,8.052736 C 3.249189,7.768179 2.92541,8.452636 3.082028,8.925783 3.185293,8.605763 3.471209,8.364331 3.906247,8.552736 L 4.13281,7.591799 C 4.13223,7.573269 4.13931,7.550659 4.13671,7.533209 4.13231,7.449959 4.16664,7.09352 4.16015,7.025396 Z m 0.824219,0.21289 -0.806641,0.978516 c -0.02713,-0.02737 -0.03579,-0.06382 -0.04687,-0.09961 -0.0017,0.208768 -0.08882,0.462759 0.04687,0.599609 L 4.671875,8.117187 c -0.07142,0.01145 -0.143666,0.0151 -0.214844,0.0293 z M 6.003906,8.021484 C 5.5909,8.016884 5.180306,8.044914 4.771484,8.103514 L 4.457031,8.646483 C 5.479107,8.442675 6.527656,8.532365 7.558594,8.603513 l 1.460937,0.669923 c 1.363295,1.153047 2.740522,2.416215 4.478516,2.970703 0.435814,0.21727 1.034724,0.200813 1.378906,0.53125 0.05786,0.150217 0.46276,0.484256 0.08594,0.404297 -0.128676,-9.52e-4 -0.06135,0.09176 0.03906,0.199218 0.0358,-0.008 0.09085,-0.0044 0.199219,0.0293 0.396719,0.132822 0.199235,-0.07565 0.02148,-0.273437 -0.05687,-0.13765 -0.497437,-0.456836 -0.259765,-0.455078 0.376822,0.07996 -0.02808,-0.25408 -0.08594,-0.404297 -0.08263,-0.07933 -0.180896,-0.136217 -0.287109,-0.183594 -0.118132,-0.03753 -0.23538,-0.0776 -0.408203,-0.134766 -0.234717,-0.05956 -0.477629,-0.110209 -0.683594,-0.21289 -0.282172,-0.09002 -0.551769,-0.204245 -0.816406,-0.328125 C 12.331827,11.274421 12.0253,11.136962 11.845703,11.021482 11.299493,10.677033 10.85494,10.318016 10.455078,9.962889 9.967764,9.572887 9.489342,9.170792 9.019531,8.773436 L 7.558594,8.103514 C 7.043125,8.067934 6.52267,8.027324 6.003906,8.021484 Z M 3.335938,9.744141 3.007813,10.417969 3.453125,9.789062 C 3.411795,9.776572 3.370725,9.763832 3.335938,9.744141 Z m 0.416015,0.125 -0.01758,0.02539 c -0.01438,0.354501 -0.01821,0.616741 -0.0078,0.738281 0.01167,-0.284001 0.02643,-0.59847 0.02539,-0.763671 z M 15.0625,11.626953 c -0.0079,0.03879 -0.01274,0.07691 -0.01758,0.115235 0.0032,9.23e-4 0.04494,0.0151 0.04687,0.01562 -0.01691,-0.04225 -0.01923,-0.08716 -0.0293,-0.130859 z m -3.457031,1.359375 c -0.644658,0.289936 -1.261896,0.842026 -1.970703,1.080078 -0.778944,0.254879 -1.818146,0.445117 -2.494141,-0.103515 -0.05222,-0.03512 -0.09356,-0.07385 -0.144531,-0.109375 -0.08464,0.122537 -0.04623,0.270182 0.04297,0.43164 0.0593,-0.04838 0.147094,-0.09074 0.271484,-0.126953 1.296448,0.800039 3.037132,0.318895 4.068359,-0.699219 0.160562,-0.39079 0.50402,-0.139196 0.791016,-0.0918 -0.188227,-0.126495 -0.375894,-0.254885 -0.564453,-0.38086 z m 3.412109,0.882813 c -0.13039,7.83e-4 -0.02767,0.136453 0.109375,0.291015 0.02988,-0.05593 0.115934,-0.08828 0.310547,-0.07226 0.01116,-0.02718 -0.03578,-0.08877 -0.07813,-0.146485 -0.0367,-0.0018 -0.07787,-0.0063 -0.158203,-0.0332 -0.0858,-0.02668 -0.144681,-0.0393 -0.183594,-0.03906 z m 0.326172,0.71875 c -0.368439,0.0029 -0.227704,0.230491 -0.02734,0.46875 -0.13597,-0.220401 -0.201428,-0.399113 0.175782,-0.294922 -0.04639,-0.05493 -0.09813,-0.114973 -0.148438,-0.173828 z m -0.03516,0.642578 c -0.307257,0.0053 0.164652,0.510176 0.269531,0.755859 0.365639,0.388602 -0.260836,4.39e-4 -0.144531,0.212891 0.226154,0.563166 0.632555,0.409645 0.896484,0.693359 0.0552,-0.06394 0.118209,-0.120406 0.169922,-0.1875 -0.212246,-0.730575 -0.783051,-0.300252 -1.066406,-1.005859 -0.116305,-0.212452 0.51017,0.175711 0.144531,-0.212891 -0.02635,-0.06172 -0.08817,-0.152041 -0.142578,-0.234375 -0.04663,-0.0099 -0.09661,-0.022 -0.126953,-0.02148 z m -8.013672,0.0078 C 7.156608,15.793527 6.91316,15.821854 6.431641,16.228516 6.092615,16.45707 6.08666,16.704452 6.216797,16.9375 c 0.04745,-0.071 0.113124,-0.14041 0.214844,-0.208984 0.501383,-0.423438 0.747853,-0.422647 0.882812,-1.048828 0.07882,-0.139116 0.04901,-0.290031 -0.01953,-0.441407 z"/>
</svg>
