<svg xmlns="http://www.w3.org/2000/svg" width="22" height="22" version="1">
 <path style="fill:#b7b7b7" d="m3.999985 2h13.99995v7h-13.99995z"/>
 <path style="opacity:.2;fill:#8b9cbe" d="m3.999985 2v0.5h13.99995v-0.5z"/>
 <rect fill="#4f4f4f" width="20" height="12" x="1" y="8" rx="1" ry="1"/>
 <rect style="opacity:.4" width="12" height="2" x="5" y="10"/>
 <rect style="opacity:.4" width="10" height="2" x="6" y="13"/>
 <rect style="opacity:.4" width="8" height="2" x="7" y="16"/>
 <path opacity=".2" d="m1 19v0.5c0 0.554 0.446 1 1 1h18c0.554 0 1-0.446 1-1v-0.5c0 0.554-0.446 1-1 1h-18c-0.554 0-1-0.446-1-1z"/>
 <circle fill="#3cd240" cx="16" cy="16" r="6"/>
 <path style="fill:#8b9cbe" d="m13 16 3 4 3-4h-2v-4h-2v4z"/>
 <rect style="opacity:.5" width="4" height="2" x="5" y="4"/>
 <rect style="opacity:.5" width="4" height="2" x="13" y="4"/>
</svg>
