<svg xmlns="http://www.w3.org/2000/svg" width="22" height="22" version="1">
 <rect style="opacity:0.2" width="20" height="20" x="1" y="1.5" rx="6" ry="6"/>
 <rect style="fill:#e3b36b" width="20" height="20" x="1" y="1" rx="6" ry="6"/>
 <path style="opacity:0.2;fill:#8b9cbe" d="M 7,1 C 3.676,1 1,3.676 1,7 v 0.5 c 0,-3.324 2.676,-6 6,-6 h 8 c 3.324,0 6,2.676 6,6 V 7 C 21,3.676 18.324,1 15,1 Z"/>
 <path style="opacity:0.35;fill:none;stroke:#8b9cbe;stroke-width:2;stroke-linejoin:round" d="M 5,18 V 5 l 6,9 6,-9 v 13"/>
 <path style="opacity:0.1" d="m 10,7.500122 v 4 H 7.7978515 l 2.3701175,3.554687 c 0.395883,0.593588 1.268178,0.593588 1.664062,0 l 2.370118,-3.554687 H 12 v -4 z"/>
 <path style="fill:#4f4f4f" d="m 7.7978515,11 2.3701175,3.554688 c 0.395883,0.593587 1.268178,0.593587 1.664062,0 L 14.202149,11 H 11.797852 L 11,12.197266 10.202149,11 Z"/>
 <rect style="fill:#4f4f4f" width="2" height="5.5" x="10" y="7"/>
</svg>
