<svg xmlns="http://www.w3.org/2000/svg" width="22" height="22" version="1.1">
 <path style="opacity:0.2" d="M 11.5,21.5 C 17.298995,21.5 22,16.798995 22,11 22,5.2010059 17.298995,0.5 11.5,0.5 5.7010059,0.5 1,5.2010059 1,11 1,16.798995 5.7010059,21.5 11.5,21.5 Z"/>
 <path style="fill:#1370ba" d="M 11.5,21 C 17.298995,21 22,16.298995 22,10.5 22,4.7010059 17.298995,0 11.5,0 5.7010059,0 1,4.7010059 1,10.5 1,16.298995 5.7010059,21 11.5,21 Z"/>
 <path style="opacity:0.2" d="m 15.5,4.500145 c -1.403944,0 -2.5,1.097103 -2.5,2.5371095 1.32e-4,0.6171485 1,0.6171485 1,0 0,-0.822858 0.44216,-1.5371095 1.5,-1.5371095 1.05784,0 1.5,0.7142515 1.5,1.5371095 0,0.6171485 1,0.6171485 1,0 C 18,5.597248 16.903963,4.500145 15.5,4.500145 Z m 0,2 c -0.276261,0 -0.5,0.2237215 -0.5,0.5 0,0.276261 0.223739,0.5 0.5,0.5 0.276261,0 0.5,-0.223739 0.5,-0.5 0,-0.2762785 -0.223739,-0.5 -0.5,-0.5 z m -4,1.9998125 c -0.75033,0 -1.634463,0.4623175 -2.042969,1.0390635 C 9.048546,8.962275 8.250329,8.5731995 7.5,8.5731995 6.2602065,8.5731995 5,9.350395 5,11.484332 V 15 c 0,0 0,0.5 0.5,0.5 C 6,15.5 6,15 6,15 v -3.515668 c -4.325e-4,-1.62176 0.7337615,-1.984375 1.5,-1.984375 0.766238,0 1.5,0.600727 1.5,1.698243 V 15 c 0,0 0,0.5 0.5,0.5 C 10,15.5 10,15 10,15 v -3.8018 c 0,-1.097516 0.733762,-1.698243 1.5,-1.698243 0.486455,0 1.503906,0.171004 1.503906,1.698243 l 0.02929,1.297895 C 13.033203,14.894301 14.496689,15.5 15.5,15.5 c 1.003311,0 2.469343,-0.707229 2.5,-2.829101 V 8.92495 c 0,-0.5840735 -1,-0.5840735 -1,0 v 3.695167 C 17,14.22981 16.001655,14.5 15.5,14.5 c -0.501656,0 -1.506836,-0.167681 -1.506836,-2.053711 l -0.02929,-1.177777 C 13.963867,9.449459 12.774776,8.4999575 11.5,8.4999575 Z"/>
 <path style="fill:#8b9cbe" d="M 15.5,4 C 14.096056,4 13,5.097103 13,6.5371095 c 1.32e-4,0.6171485 1,0.6171485 1,0 C 14,5.7142515 14.44216,5 15.5,5 16.55784,5 17,5.7142515 17,6.5371095 c 0,0.6171485 1,0.6171485 1,0 C 18,5.097103 16.903963,4 15.5,4 Z m 0,2 C 15.223739,6 15,6.2237215 15,6.5 15,6.776261 15.223739,7 15.5,7 15.776261,7 16,6.776261 16,6.5 16,6.2237215 15.776261,6 15.5,6 Z m -4,1.9998125 c -0.75033,0 -1.634463,0.4623175 -2.042969,1.0390635 C 9.048546,8.46213 8.250329,8.0730545 7.5,8.0730545 c -1.2397935,0 -2.5,0.777196 -2.5,2.9111325 v 3.515668 c 0,0 0,0.5 0.5,0.5 0.5,0 0.5,-0.5 0.5,-0.5 v -3.515668 c -4.325e-4,-1.62176 0.7337615,-1.9843745 1.5,-1.9843745 0.766238,0 1.5,0.6007265 1.5,1.6982425 v 3.8018 c 0,0 0,0.5 0.5,0.5 0.5,0 0.5,-0.5 0.5,-0.5 v -3.8018 c 0,-1.097516 0.733762,-1.6982425 1.5,-1.6982425 0.486455,0 1.503906,0.1710035 1.503906,1.6982425 l 0.02929,1.297895 c 7e-6,2.398206 1.463493,3.003905 2.466804,3.003905 1.003311,0 2.469343,-0.707229 2.5,-2.829101 V 8.424805 c 0,-0.5840735 -1,-0.5840735 -1,0 v 3.695167 c 0,1.609693 -0.998345,1.879883 -1.5,1.879883 -0.501656,0 -1.506836,-0.167681 -1.506836,-2.053711 l -0.02929,-1.177777 C 13.963867,8.9493145 12.774776,7.9998125 11.5,7.9998125 Z"/>
 <path style="opacity:0.2;fill:#8b9cbe" d="M 11.5,0 C 5.7010059,0 1,4.7010059 1,10.5 1,10.58437 1.011693,10.666111 1.013672,10.75 1.1477132,5.0676054 5.7853711,0.5 11.5,0.5 17.21463,0.5 21.852287,5.0676054 21.986328,10.75 21.988307,10.666111 22,10.584365 22,10.5 22,4.7010059 17.298995,0 11.5,0 Z"/>
</svg>
