<svg xmlns="http://www.w3.org/2000/svg" width="22" height="22" version="1.1">
 <path style="opacity:0.2" d="m 11,21.5 c 5.522852,0 10,-4.477148 10,-10 0,-5.5228515 -4.477148,-10 -10,-10 -5.5228515,0 -10,4.4771485 -10,10 0,5.522852 4.4771485,10 10,10 z"/>
 <circle style="fill:#ff395d" cx="11" cy="11" r="10"/>
 <path style="fill:#8b9cbe;fill-opacity:0.7" d="m 14.378812,6.2306863 -3.349971,2.4250801 c -0.0096,0.00696 -0.02885,0.020885 -0.02885,0.020885 L 7.5895582,6.2519483 C 7.40157,6.1151024 7.1827646,6.0536221 6.9688323,6.0536018 6.4718073,6.0535415 6.0007046,6.3852568 6.0007046,6.8742713 V 8.7130879 L 6,14.179311 C 6,14.668284 6.4711459,15 6.9681282,15 7.1821032,15 7.4008441,14.93852 7.5888537,14.801633 L 11,12.35569 c 1.697308,1.235622 3.378107,2.445943 3.378107,2.445943 C 14.566095,14.938479 14.784923,15 14.998833,15 15.495879,15 16,14.668325 16,14.179311 V 8.713087 6.8371301 c 0,-0.488974 -0.503474,-0.8047903 -1.000455,-0.8047903 -0.213976,0 -0.432717,0.061481 -0.620727,0.1983465 z"/>
 <polygon style="fill:#8b9cbe;fill-opacity:0.6" transform="matrix(0.46948818,0,0,0.45318149,5.9999927,5.9932164)" points="15.95 9.99 10.65 5.92 5.32 9.99 10.65 14.04"/>
 <polyline style="fill:#8b9cbe;fill-opacity:0.6" transform="matrix(0.46948818,0,0,0.45318149,5.9999927,5.9932164)" points="0 5.99 0 13.99 5.32 9.99 0 5.99"/>
 <polyline style="fill:#8b9cbe;fill-opacity:0.6" transform="matrix(0.46948818,0,0,0.45318149,5.9999927,5.9932164)" points="15.95 9.99 21.3 14.04 21.3 5.92 15.95 9.99"/>
 <path style="fill:#8b9cbe" d="m 14.333326,6.2622799 -3.333333,2.4143706 2.486861,1.8425855 2.513138,-1.8425855 V 6.8371301 c 0,-0.6990016 -0.95238,-1.1497004 -1.666666,-0.5748502 z"/>
 <path style="fill:#8b9cbe" d="M 7.5929759,6.2375591 C 6.9673877,5.7830817 6.0019073,6.1604642 6.0019073,6.8594659 V 8.7065584 L 8.4971346,10.519751 10.999993,8.6766505 Z"/>
 <path style="opacity:0.2;fill:#8b9cbe" d="M 11,1 C 5.4771485,1 1,5.4771485 1,11 1,11.08384 1.00381,11.166658 1.00586,11.25 1.1389419,5.843028 5.5609845,1.5 11,1.5 c 5.439015,0 9.861058,4.343028 9.99414,9.75 C 20.996192,11.166658 21,11.083836 21,11 21,5.4771485 16.522852,1 11,1 Z"/>
 <path style="opacity:0.2" d="M 11,12.355469 7.5878906,14.800781 C 7.399881,14.93767 7.182725,15 6.96875,15 6.4717677,15 6,14.668659 6,14.179688 v 0.5 C 6,15.168659 6.4717677,15.5 6.96875,15.5 c 0.213975,0 0.431131,-0.06233 0.6191406,-0.199219 L 11,12.855469 c 1.697308,1.235622 3.378906,2.445312 3.378906,2.445312 C 14.566894,15.437627 14.784137,15.5 14.998047,15.5 15.495093,15.5 16,15.1687 16,14.679688 v -0.5 C 16,14.6687 15.495093,15 14.998047,15 c -0.21391,0 -0.431153,-0.06237 -0.619141,-0.199219 0,0 -1.681598,-1.20969 -3.378906,-2.445312 z"/>
</svg>
