<svg width="22" height="22" version="1.1" xmlns="http://www.w3.org/2000/svg">
 <rect transform="matrix(0,-1,-1,0,0,0)" x="-21" y="-19" width="20" height="16" rx="1" ry="1" style="fill:#8e8e8e"/>
 <path d="m3 20v0.5c0 0.554 0.446 1 1 1h14c0.554 0 1-0.446 1-1v-0.5c0 0.554-0.446 1-1 1h-14c-0.554 0-1-0.446-1-1z" style="opacity:.2"/>
 <rect x="3" y="1.5" width="16" height="17" ry="1" style="opacity:.2"/>
 <rect x="3" y="1" width="16" height="17" ry="1" style="fill:#f49c35"/>
 <path d="m4 1c-0.554 0-1 0.446-1 1v0.5c0-0.554 0.446-1 1-1h14c0.554 0 1 0.446 1 1v-0.5c0-0.554-0.446-1-1-1z" style="fill:#8b9cbe;opacity:.2"/>
 <path d="m14.5 19.5a0.5 0.5 0 0 0-0.5 0.5 0.5 0.5 0 0 0 0.5 0.5 0.5 0.5 0 0 0 0.5-0.5 0.5 0.5 0 0 0-0.5-0.5zm2 0a0.5 0.5 0 0 0-0.5 0.5 0.5 0.5 0 0 0 0.5 0.5 0.5 0.5 0 0 0 0.5-0.5 0.5 0.5 0 0 0-0.5-0.5z" style="opacity:.2"/>
 <circle cx="16.5" cy="19.5" r=".5" style="fill:#b7b7b7"/>
 <circle cx="14.5" cy="19.5" r=".5" style="fill:#b7b7b7"/>
 <rect x="5" y="19.5" width="7" height="1" ry=".5" style="fill:#8b9cbe;opacity:.2"/>
 <rect x="5" y="19" width="7" height="1" ry=".5" style="fill:#3b3a36"/>
 <circle cx="11" cy="9.5" r="6" style="opacity:.2"/>
 <circle cx="11" cy="9" r="6" style="fill:#252a35"/>
 <path d="m9.96439 5.00006-0.0882 1.0536a3.1429 3.1429 0 0 0-0.91852 0.53126l-0.95759-0.4509-1 1.7321 0.86941 0.6038a3.1429 3.1429 0 0 0-0.048 0.53013 3.1429 3.1429 0 0 0 0.0457 0.53237l-0.86719 0.60156 1 1.7321 0.95536-0.44978a3.1429 3.1429 0 0 0 0.92075 0.5279l0.0882 1.0558h2l0.0882-1.0536a3.1429 3.1429 0 0 0 0.91854-0.53126l0.95758 0.4509 1-1.7321-0.86942-0.6038a3.1429 3.1429 0 0 0 0.048-0.53013 3.1429 3.1429 0 0 0-0.0457-0.53237l0.86719-0.60156-1-1.7321-0.95536 0.44978a3.1429 3.1429 0 0 0-0.921-0.528l-0.088-1.056h-2zm1 2.8572a1.1429 1.1429 0 0 1 1.143 1.143 1.1429 1.1429 0 0 1-1.143 1.143 1.1429 1.1429 0 0 1-1.143-1.143 1.1429 1.1429 0 0 1 1.143-1.143z" style="fill:#8b9cbe"/>
</svg>
