<svg width="22" height="22" version="1.1" xmlns="http://www.w3.org/2000/svg">
 <rect x="2" y="3" width="18" height="18" rx=".89999998" ry=".89999998" style="fill:#4f4f4f"/>
 <path d="m3 4.5v2h2v-2h-2zm14 0v2h2v-2h-2zm-14 3v2h2v-2h-2zm14 0v2h2v-2h-2zm-14 4v2h2v-2h-2zm14 0v2h2v-2h-2zm-14 4v2h2v-2h-2zm14 0v2h2v-2h-2zm-14 3v2h2v-2h-2zm14 0v2h2v-2h-2z" style="opacity:.2"/>
 <rect x="3" y="4" width="2" height="2" style="fill:#8b9cbe"/>
 <rect x="3" y="7" width="2" height="2" style="fill:#8b9cbe"/>
 <rect x="3" y="11" width="2" height="2" style="fill:#8b9cbe"/>
 <rect x="3" y="15" width="2" height="2" style="fill:#8b9cbe"/>
 <rect x="3" y="18" width="2" height="2" style="fill:#8b9cbe"/>
 <rect x="17" y="4" width="2" height="2" style="fill:#8b9cbe"/>
 <rect x="17" y="7" width="2" height="2" style="fill:#8b9cbe"/>
 <rect x="17" y="11" width="2" height="2" style="fill:#8b9cbe"/>
 <rect x="17" y="15" width="2" height="2" style="fill:#8b9cbe"/>
 <rect x="17" y="18" width="2" height="2" style="fill:#8b9cbe"/>
 <rect x="6" y="4.5" width="10" height="5" ry="1" style="opacity:.2"/>
 <rect x="6" y="4" width="10" height="5" ry="1" style="fill:#28a1e1"/>
 <rect x="6" y="10.5" width="10" height="5" ry="1" style="opacity:.2"/>
 <rect x="6" y="10" width="10" height="5" ry="1" style="fill:#28a1e1"/>
 <rect x="6" y="16.5" width="10" height="4" ry=".80000001" style="opacity:.2"/>
 <rect x="6" y="16" width="10" height="4" ry=".80000001" style="fill:#28a1e1"/>
 <path d="m7 4c-0.554 0-1 0.446-1 1v0.5c0-0.554 0.446-1 1-1h8c0.554 0 1 0.446 1 1v-0.5c0-0.554-0.446-1-1-1h-8z" style="fill:#8b9cbe;opacity:.2"/>
 <path d="m7 10c-0.554 0-1 0.446-1 1v0.5c0-0.554 0.446-1 1-1h8c0.554 0 1 0.446 1 1v-0.5c0-0.554-0.446-1-1-1h-8z" style="fill:#8b9cbe;opacity:.2"/>
 <path d="m6.8007812 16c-0.4432 0-0.8007812 0.357581-0.8007812 0.800781v0.5c0-0.4432 0.3575812-0.800781 0.8007812-0.800781h8.3984378c0.4432 0 0.800781 0.357581 0.800781 0.800781v-0.5c0-0.4432-0.357581-0.800781-0.800781-0.800781h-8.3984378z" style="fill:#8b9cbe;opacity:.2"/>
 <rect x="8" y="1" width="6" height="6" ry="1" style="fill:#ff961b"/>
 <path d="m6.4457222 6.5179272c-0.3962992 1.422e-4 -0.59473 0.4381876-0.3146018 0.6944983l4.5651726 4.1684605c0.173771 0.158819 0.455432 0.158819 0.629203 0l4.543384-4.1863883c0.280129-0.2563105 0.08169-0.6943558-0.314602-0.6944983z" style="opacity:.2"/>
 <path d="m6.4457222 6.0179278c-0.3962992 1.422e-4 -0.59473 0.4381877-0.3146018 0.6944983l4.5651726 4.1684599c0.173771 0.158819 0.455432 0.158819 0.629203 0l4.543384-4.1863877c0.280129-0.2563105 0.081695-0.6943558-0.314602-0.6944983z" style="fill:#ffe330"/>
 <path d="m9 1c-0.554 0-1 0.446-1 1v0.5c0-0.554 0.446-1 1-1h4c0.554 0 1 0.446 1 1v-0.5c0-0.554-0.446-1-1-1h-4z" style="fill:#8b9cbe;opacity:.2"/>
 <path d="m15.554688 6-9.1093755 0.0175781c-0.381049 1.368e-4 -0.5683185 0.4030957-0.3339844 0.6621094 0.0781467-0.0908031 0.1851061-0.162056 0.3339844-0.1621094l9.1093755-0.0175781c0.148879 5.35e-5 0.255837 0.0713062 0.333984 0.1621094 0.234334-0.2590137 0.047058-0.6619724-0.333984-0.6621094z" style="fill:#8b9cbe;opacity:.2"/>
</svg>
