<svg width="22" height="22" version="1.1" xmlns="http://www.w3.org/2000/svg">
 <g transform="translate(-1,-1)">
  <g>
   <path d="m6 5.5c-0.554 0-1 0.446-1 1v11c0 0.554 0.446 1 1 1h1.5v-2h5v2h9.5c0.554 0 1-0.446 1-1v-11c0-0.554-0.446-1-1-1z" style="opacity:.2"/>
   <path d="m6 5c-0.554 0-1 0.446-1 1v11c0 0.554 0.446 1 1 1h1.5v-2h5v2h9.5c0.554 0 1-0.446 1-1v-11c0-0.554-0.446-1-1-1z" style="fill:#419d45"/>
   <path d="m6 4.9849c-0.554 0-1 0.446-1 1v0.5c0-0.554 0.446-1 1-1h16c0.554 0 1 0.446 1 1v-0.5c0-0.554-0.446-1-1-1z" style="fill:#8b9cbe;opacity:.2"/>
   <g style="opacity:.2">
    <rect x="13" y="16.5" width="2" height="3"/>
    <rect x="15.5" y="16.5" width="2" height="3"/>
    <rect x="18" y="16.5" width="2" height="3"/>
    <rect x="20.5" y="16.5" width="2" height="3"/>
   </g>
   <g style="fill:#f8c44e">
    <rect x="13" y="16" width="2" height="3"/>
    <rect x="15.5" y="16" width="2" height="3"/>
    <rect x="18" y="16" width="2" height="3"/>
    <rect x="20.5" y="16" width="2" height="3"/>
   </g>
   <rect x="11" y="8" width="5" height="5" rx="1" ry="1" style="fill:#4e4e4e"/>
   <g style="fill:#b7b7b7">
    <rect x="12" y="7" width="1" height="1.5"/>
    <rect x="14" y="7" width="1" height="1.5"/>
    <rect x="12" y="12.5" width="1" height="1.5"/>
    <rect x="14" y="12.5" width="1" height="1.5"/>
    <rect transform="rotate(90)" x="9" y="-17" width="1" height="1.5"/>
    <rect transform="rotate(90)" x="11" y="-17" width="1" height="1.5"/>
    <rect transform="rotate(90)" x="9" y="-11.5" width="1" height="1.5"/>
    <rect transform="rotate(90)" x="11" y="-11.5" width="1" height="1.5"/>
   </g>
   <path d="m3 5h2v15.5" style="fill:none;opacity:.2;stroke-linecap:round;stroke-linejoin:round;stroke-width:2;stroke:#000000"/>
   <path d="m3 4h2v16" style="fill:none;stroke-linecap:round;stroke-linejoin:round;stroke-width:2;stroke:#b7b7b7"/>
   <path d="m3 3a1.0001 1.0001 0 0 0-0.9805 1.2461 1.0001 1.0001 0 0 1 0.9805-0.7461h2a1.0001 1.0001 0 0 1 1 1v-0.5a1.0001 1.0001 0 0 0-1-1z" style="fill:#8b9cbe;opacity:.2"/>
  </g>
  <circle cx="17" cy="17" r="6" style="fill:#ff9907"/>
  <path d="m15 14v4a1 1 0 0 0-1 1 1 1 0 0 0 1 1 1 1 0 0 0 1-1v-3h3v2a1 1 0 0 0-1 1 1 1 0 0 0 1 1 1 1 0 0 0 1-1v-5h-4z" style="fill:#8b9cbe"/>
 </g>
</svg>
