<svg width="22" height="22" version="1.1" xmlns="http://www.w3.org/2000/svg">
 <rect transform="matrix(0,-1,-1,0,0,0)" x="-20.5" y="-17" width="16" height="12" rx="1" ry="1" style="opacity:.2"/>
 <rect transform="matrix(0,-1,-1,0,0,0)" x="-20" y="-17" width="16" height="12" rx="1" ry="1" style="fill:#8e8e8e"/>
 <rect transform="matrix(0,-1,-1,0,0,0)" x="-18.5" y="-21" width="16" height="20" rx="1" ry="1" style="opacity:.2"/>
 <rect transform="matrix(0,-1,-1,0,0,0)" x="-18" y="-21" width="16" height="20" rx="1" ry="1" style="fill:#4f4f4f"/>
 <rect transform="matrix(0,-1,-1,0,0,0)" x="-16" y="-19" width="12" height="16" rx="0" ry="0" style="fill:#00ccff"/>
 <path d="m2 2c-0.554 0-1 0.446-1 1v0.5c0-0.554 0.446-1 1-1h18c0.554 0 1 0.446 1 1v-0.5c0-0.554-0.446-1-1-1z" style="fill:#8b9cbe;opacity:.1"/>
 <rect x="3" y="16" width="16" height=".5" style="fill:#8b9cbe;opacity:.1"/>
 <rect x="3" y="4" width="16" height=".5" style="opacity:.2"/>
 <style id="style1086" type="text/css">.st0{fill:#FFFFFF;}
	.st1{fill:#231F20;}</style>
 <path d="m11 5.500003c-1.221453 0.00248-2.399751 0.4519809-3.3125 1.2636719l1.580078 2.734375 2.289063-3.9648438c-0.184785-0.021414-0.370621-0.032499-0.556641-0.0332031zm1.582031 0.2617188-1.582031 2.7382812h4.576172c-0.566201-1.2948941-1.653953-2.2896935-2.994141-2.7382812zm-5.601562 1.7753906c-0.634577 0.8577228-0.978142 1.8959462-0.980469 2.9628906 0.0015 0.336031 0.0368 0.671058 0.105469 1h3.162109zm5.751953 1.9628906 2.287109 3.962891c0.634577-0.857723 0.978142-1.895946 0.980469-2.962891-0.0015-0.336031-0.0368-0.6710577-0.105469-1zm0 2-2.291016 3.966797c0.185432 0.02149 0.371922 0.03257 0.558594 0.0332 1.221453-0.0025 2.399751-0.451981 3.3125-1.263671zm-6.308594 1c0.566202 1.294894 1.653953 2.289693 2.994141 2.738281l1.582031-2.738281z" style="opacity:.2"/>
 <path d="M 11,5 C 9.778547,5.00248 8.600249,5.4519809 7.6875,6.2636719 l 1.580078,2.734375 2.289063,-3.9648438 C 11.371856,5.0117891 11.18602,5.0007041 11,5 Z M 12.582031,5.2617188 11,8 h 4.576172 C 15.009971,6.7051059 13.922219,5.7103065 12.582031,5.2617188 Z M 6.980469,7.0371094 C 6.345892,7.8948322 6.002327,8.9330556 6,10 c 0.0015,0.336031 0.0368,0.671058 0.105469,1 H 9.267578 Z M 12.732422,9 15.019531,12.962891 C 15.654108,12.105168 15.997673,11.066945 16,10 15.99854,9.6639694 15.963201,9.3289423 15.894531,9 Z m 0,2 -2.291016,3.966797 c 0.185432,0.02149 0.371922,0.03257 0.558594,0.0332 1.221453,-0.0025 2.399751,-0.451981 3.3125,-1.263671 z m -6.308594,1 c 0.566202,1.294894 1.653953,2.289693 2.994141,2.738281 L 11,12 Z" style="fill:#4f4f4f"/>
 <circle cx="11" cy="10.5" r="1" style="opacity:.2"/>
 <circle cx="11" cy="10" r="1" style="fill:#8b9cbe"/>
 <style id="style1086-0" type="text/css">.st0{fill:#FFFFFF;}
	.st1{fill:#231F20;}</style>
</svg>
