<svg xmlns="http://www.w3.org/2000/svg" width="22" height="22" version="1.1">
 <rect style="opacity:0.2" width="20" height="20" x="1" y="1.5" rx="2" ry="2"/>
 <rect style="fill:#0072c0" width="20" height="20" x="1" y="1" rx="2" ry="2"/>
 <path style="fill:#00ade5" d="M 3,1 C 1.892,1 1,1.892 1,3 v 16 c 0,0.554 0.2224844,1.054516 0.5839844,1.416016 L 20.416016,1.5839844 C 20.054516,1.2224844 19.554,1 19,1 Z"/>
 <path style="opacity:0.2" d="m 6.7,7.5 c 0,0 4,-3 7,-3 4,0 4,5 2,8 l 2,1 -5,3 -1,-6 2,1 c 1,-2 1,-4 0,-5 -3,-1 -7,1 -7,1 z"/>
 <path style="fill:#8b9cbe" d="m 6.7,7 c 0,0 4,-3 7,-3 4,0 4,5 2,8 l 2,1 -5,3 -1,-6 2,1 c 1,-2 1,-4 0,-5 -3,-1 -7,1 -7,1 z"/>
 <path style="opacity:0.2" d="m 3,17.5 v 2 h 2 v -2 z m 3,0 v 2 h 2 v -2 z m 3,0 v 2 h 2 v -2 z m 3,0 v 2 h 2 v -2 z m 3,0 v 2 h 2 v -2 z"/>
 <path style="fill:#8b9cbe" d="m 3,17 v 2 h 2 v -2 z m 3,0 v 2 h 2 v -2 z m 3,0 v 2 h 2 v -2 z m 3,0 v 2 h 2 v -2 z m 3,0 v 2 h 2 v -2 z"/>
 <path style="opacity:0.2" d="m 3,5.5 v 2 h 2 v -2 z m 0,3 v 2 h 2 v -2 z m 0,3 v 2 h 2 v -2 z m 0,3 v 2 h 2 v -2 z"/>
 <path style="opacity:0.2;fill:#8b9cbe" d="M 3,1 C 1.892,1 1,1.892 1,3 v 16 c 0,0.554 0.222484,1.054516 0.583984,1.416016 L 20.416016,1.5839844 C 20.054516,1.2224844 19.554,1 19,1 Z"/>
 <path style="fill:#4f4f4f" d="M 3,5 V 7 H 5 V 5 Z m 0,3 v 2 H 5 V 8 Z m 0,3 v 2 h 2 v -2 z m 0,3 v 2 h 2 v -2 z m 0,3 v 2 l 2,-2 z"/>
 <path style="opacity:0.2;fill:#8b9cbe" d="M 3,1 C 1.892,1 1,1.892 1,3 v 0.5 c 0,-1.108 0.892,-2 2,-2 h 16 c 1.108,0 2,0.892 2,2 V 3 C 21,1.892 20.108,1 19,1 Z"/>
</svg>
