<svg xmlns="http://www.w3.org/2000/svg" width="22" height="22" version="1.1">
 <path style="opacity:0.2;fill-rule:evenodd" d="m 11,2.5 a 9,9 0 0 0 -9,9 9,9 0 0 0 9,9 9,9 0 0 0 9,-9 9,9 0 0 0 -9,-9 z m 0,4 a 5,5 0 0 1 5,5 5,5 0 0 1 -5,5 5,5 0 0 1 -5,-5 5,5 0 0 1 5,-5 z"/>
 <path style="opacity:0.2" d="M 14.707031,0.508789 A 3.4614054,4.9998078 78.27122 0 0 13.372071,0.6572265 3.4614054,4.9998078 78.27122 0 0 10.500977,2.0175781 9.5,9.5 0 0 1 11,2 9.5,9.5 0 0 1 18.286133,5.417969 3.4614054,4.9998078 78.27122 0 0 18.970703,3.0302734 3.4614054,4.9998078 78.27122 0 0 14.707031,0.508789 Z"/>
 <path style="fill:#ff5e13;fill-rule:evenodd" d="m 11,2 a 9,9 0 0 0 -9,9 9,9 0 0 0 9,9 9,9 0 0 0 9,-9 9,9 0 0 0 -9,-9 z m 0,4 a 5,5 0 0 1 5,5 5,5 0 0 1 -5,5 5,5 0 0 1 -5,-5 5,5 0 0 1 5,-5 z"/>
 <path style="opacity:0.2" d="m 3.2942592,14.5 c 2.4713318,2.882353 3.0075993,0.308824 4.7184058,0.261883 2.247073,1.796941 3.735872,3.163999 8.626033,3.184587 0.269259,0.440589 0.420014,0.902589 0.339761,1.342353 C 16.531445,20.264706 14.506379,21.5 11.008264,21.5 c -2.0955695,0 -3.537867,-1.219647 -3.875378,0 H 3.3527614 c -2.75034057,-0.748588 -0.5340177,-6.285176 -0.057002,-7 z"/>
 <path style="opacity:0.2;fill:#8b9cbe;fill-rule:evenodd" d="M 11,2 A 9,9 0 0 0 2,11 9,9 0 0 0 2.00977,11.212891 9,9 0 0 1 11,2.5 9,9 0 0 1 19.990234,11.287109 9,9 0 0 0 20,11 9,9 0 0 0 11,2 Z m 4.990234,9.197266 A 5,5 0 0 1 11,16 5,5 0 0 1 6.0097656,11.302734 5,5 0 0 0 6,11.5 a 5,5 0 0 0 5,5 5,5 0 0 0 5,-5 5,5 0 0 0 -0.0098,-0.302734 z"/>
 <path style="fill:#6798d7" d="m 3.2942592,14 c 2.4713318,2.882353 3.0075993,0.308824 4.7184058,0.261883 2.247073,1.796941 3.735872,3.163999 8.626033,3.184587 0.269259,0.440589 0.420014,0.902589 0.339761,1.342353 C 16.531445,19.764706 14.506379,21 11.008264,21 8.9126945,21 7.470397,19.780353 7.132886,21 H 3.3527614 C 0.60242083,20.251412 2.8187437,14.714824 3.2957594,14 Z"/>
 <path style="fill:#6798d7" d="M 14.707031,0.008789 A 3.4614054,4.9998078 78.27122 0 0 13.372071,0.1572265 3.4614054,4.9998078 78.27122 0 0 10.500977,1.5175781 9.5,9.5 0 0 1 11,1.5 9.5,9.5 0 0 1 18.286133,4.917969 3.4614054,4.9998078 78.27122 0 0 18.970703,2.5302735 3.4614054,4.9998078 78.27122 0 0 14.707031,0.008789 Z"/>
 <path style="opacity:0.2;fill:#8b9cbe" d="M 14.707031,0.008789 A 3.4614054,4.9998078 78.27122 0 0 13.372071,0.1572265 3.4614054,4.9998078 78.27122 0 0 10.500977,1.5175781 9.5,9.5 0 0 1 11,1.5 a 9.5,9.5 0 0 1 0.206055,0.010742 3.4614054,4.9998078 78.27122 0 1 2.166016,-0.8535156 3.4614054,4.9998078 78.27122 0 1 1.33496,-0.1484375 3.4614054,4.9998078 78.27122 0 1 4.263672,2.5214844 3.4614054,4.9998078 78.27122 0 1 0.03027,0.2304687 3.4614054,4.9998078 78.27122 0 0 -0.03027,-0.7304687 3.4614054,4.9998078 78.27122 0 0 -4.263672,-2.5214843 z"/>
 <path style="opacity:0.2;fill:#8b9cbe" d="m 3.2939453,14 c 0,0 9.75e-4,10e-4 9.75e-4,10e-4 0,0 9.75e-4,-10e-4 9.75e-4,-10e-4 z m 9.75e-4,10e-4 c -0.3141588,0.471672 -1.3705737,3.019277 -1.2822266,4.925781 0.08692,-1.826153 0.9949616,-3.994487 1.2822266,-4.425781 0,0 -9.75e-4,-10e-4 -9.75e-4,-10e-4 h 0.00195 c 0,0 -9.75e-4,10e-4 -9.75e-4,10e-4 2.4704917,2.880526 3.0071937,0.307677 4.7177737,0.260742 2.247074,1.796942 3.735815,3.163982 8.625976,3.18457 0.171496,0.280619 0.285749,0.569733 0.332031,0.856446 0.0022,-0.0046 0.0057,-0.0091 0.0078,-0.01367 0.08025,-0.439764 -0.07059,-0.902185 -0.339843,-1.342774 -4.890161,-0.02059 -6.378903,-1.387628 -8.6259765,-3.18457 -1.71058,0.04693 -2.247282,2.619784 -4.7177737,-0.260742 z"/>
</svg>
