<svg xmlns="http://www.w3.org/2000/svg" width="22" height="22" version="1.1">
 <rect style="opacity:0.2" width="20" height="20" x="1" y="1.5" rx="1" ry="1"/>
 <rect style="fill:#5a4b40" width="20" height="20" x="1" y="1" rx="1" ry="1"/>
 <path style="opacity:0.1;fill:#8b9cbe" d="M 2,1 C 1.446,1 1,1.446 1,2 v 0.5 c 0,-0.554 0.446,-1 1,-1 h 18 c 0.554,0 1,0.446 1,1 V 2 C 21,1.446 20.554,1 20,1 Z"/>
 <path style="opacity:0.2" d="m 3.7966,14.485955 v -0.529412 h 0.1675922 c 0.2922108,0 0.5414498,-0.05042 0.7477173,-0.15126 C 4.918176,13.696039 5.021309,13.443939 5.021309,13.04898 V 6.87251 C 5.021309,6.5027625 4.9138785,6.2674685 4.6990175,6.166628 4.4927505,6.0657875 4.2478085,6.0153675 3.9641922,6.0153675 H 3.7966 V 5.4859555 H 6.155777 L 11.070803,11.507 V 6.87251 c 0,-0.3697475 -0.10743,-0.6050415 -0.322291,-0.705882 C 10.542245,6.0657875 10.297303,6.0153675 10.013686,6.0153675 H 9.846095 v -0.529412 h 3.23581 v 0.529412 h -0.167591 c -0.292212,0 -0.541451,0.054622 -0.747719,0.1638655 -0.206266,0.1008405 -0.304177,0.348774 -0.309399,0.7436975 V 14.485955 H 10.941887 L 5.807703,8.276 v 4.772981 c 0,0.394958 0.103133,0.647059 0.309399,0.756303 0.206267,0.10084 0.4555065,0.15126 0.747718,0.15126 h 0.1675915 v 0.529412 z"/>
 <path style="fill:#ff4040" d="m 3.7966,13.985955 v -0.529412 h 0.1675922 c 0.2922108,0 0.5414498,-0.05042 0.7477173,-0.15126 C 4.918176,13.196039 5.021309,12.943939 5.021309,12.54898 V 6.37251 C 5.021309,6.0027625 4.9138785,5.7674685 4.6990175,5.666628 4.4927505,5.5657875 4.2478085,5.5153675 3.9641922,5.5153675 H 3.7966 V 4.9859555 H 6.155777 L 11.070803,11.007 V 6.37251 c 0,-0.3697475 -0.10743,-0.6050415 -0.322291,-0.705882 C 10.542245,5.5657875 10.297303,5.5153675 10.013686,5.5153675 H 9.846095 v -0.529412 h 3.23581 v 0.529412 h -0.167591 c -0.292212,0 -0.541451,0.054622 -0.747719,0.1638655 -0.206266,0.1008405 -0.304177,0.348774 -0.309399,0.7436975 V 13.985955 H 10.941887 L 5.807703,7.776 v 4.772981 c 0,0.394958 0.103133,0.647059 0.309399,0.756303 0.206267,0.10084 0.4555065,0.15126 0.747718,0.15126 h 0.1675915 v 0.529412 z"/>
 <path style="opacity:0.2" d="m 9.977,19.5 v -0.529412 h 0.167477 c 0.292012,0 0.39132,-0.05042 0.597446,-0.151261 0.206127,-0.109243 0.309189,-0.361344 0.309189,-0.756302 v -6.17647 c 0,-0.369748 -0.107356,-0.605042 -0.322071,-0.705883 -0.206126,-0.10084 -0.30114,-0.15126 -0.584564,-0.15126 H 9.977 V 10.5 h 3.302851 c 1.116517,0 1.945315,0.184874 2.486396,0.554622 0.549671,0.361344 0.824506,0.928571 0.824506,1.70168 0,0.563026 -0.154596,1.000001 -0.463785,1.310925 -0.3006,0.302521 -0.678498,0.52521 -1.133694,0.668067 v 0.05042 c 0.584024,0.100841 1.060691,0.340336 1.43,0.718487 0.369309,0.378152 0.553964,0.89916 0.553964,1.563025 0,1.62185 -1.103633,2.432774 -3.3109,2.432774 z M 13,14.470588 h 0.241203 c 0.755795,0 1.271111,-0.134453 1.545945,-0.403361 0.283423,-0.268908 0.425135,-0.705883 0.425135,-1.310925 0,-0.613445 -0.1503,-1.037815 -0.450901,-1.273109 -0.3006,-0.235294 -0.815915,-0.352941 -1.545946,-0.352941 H 13 Z m 0,4.399159 h 0.601923 c 0.73003,0 1.245344,-0.138655 1.545945,-0.415966 0.300602,-0.277311 0.450902,-0.752101 0.450902,-1.42437 0,-0.655462 -0.141712,-1.138655 -0.425135,-1.44958 C 14.8988,15.260504 14.383485,15.10084 13.627688,15.10084 H 13 Z"/>
 <path style="fill:#13c759" d="m 9.977,19 v -0.529412 h 0.167477 c 0.292012,0 0.39132,-0.05042 0.597446,-0.151261 0.206127,-0.109243 0.309189,-0.361344 0.309189,-0.756302 v -6.17647 c 0,-0.369748 -0.107356,-0.605042 -0.322071,-0.705883 -0.206126,-0.10084 -0.30114,-0.15126 -0.584564,-0.15126 H 9.977 V 10 h 3.302851 c 1.116517,0 1.945315,0.184874 2.486396,0.554622 0.549671,0.361344 0.824506,0.928571 0.824506,1.70168 0,0.563026 -0.154596,1.000001 -0.463785,1.310925 -0.3006,0.302521 -0.678498,0.52521 -1.133694,0.668067 v 0.05042 c 0.584024,0.100841 1.060691,0.340336 1.43,0.718487 0.369309,0.378152 0.553964,0.89916 0.553964,1.563025 0,1.62185 -1.103633,2.432774 -3.3109,2.432774 z M 13,13.970588 h 0.241203 c 0.755795,0 1.271111,-0.134453 1.545945,-0.403361 0.283423,-0.268908 0.425135,-0.705883 0.425135,-1.310925 0,-0.613445 -0.1503,-1.037815 -0.450901,-1.273109 -0.3006,-0.235294 -0.815915,-0.352941 -1.545946,-0.352941 H 13 Z m 0,4.399159 h 0.601923 c 0.73003,0 1.245344,-0.138655 1.545945,-0.415966 0.300602,-0.277311 0.450902,-0.752101 0.450902,-1.42437 0,-0.655462 -0.141712,-1.138655 -0.425135,-1.44958 C 14.8988,14.760504 14.383485,14.60084 13.627688,14.60084 H 13 Z"/>
 <path style="opacity:0.2" d="m 12.815108,12.5 v -0.529413 h 0.321118 c 0.307155,0 0.372356,-0.04622 0.595743,-0.138655 0.232693,-0.10084 0.262778,-0.336169 0.268063,-0.705882 V 4.1302512 h -1.05927 c -0.409539,0 -0.693425,0.105042 -0.851656,0.315126 -0.158233,0.2016813 -0.255964,0.4411773 -0.293195,0.7184878 l -0.06981,0.542017 H 11.0001 l 0.06981,-2.2058827 h 7.860384 L 19.0001,5.705882 H 18.274096 L 18.204288,5.163865 C 18.167058,4.8865545 18.069327,4.6470585 17.911094,4.4453772 17.752863,4.2352932 17.464323,4.1302512 17.045475,4.1302512 h -1.045563 v 6.9327738 c 0,0.394958 0.0028,0.647059 0.226177,0.756303 0.223387,0.10084 0.293499,0.15126 0.609962,0.15126 h 0.321117 V 12.5 Z"/>
 <path style="fill:#2a76ea" d="m 12.815108,12 v -0.529413 h 0.321118 c 0.307155,0 0.372356,-0.04622 0.595743,-0.138655 0.232693,-0.10084 0.262778,-0.336169 0.268063,-0.705882 V 3.6302512 h -1.05927 c -0.409539,0 -0.693425,0.105042 -0.851656,0.315126 -0.158233,0.2016813 -0.255964,0.4411773 -0.293195,0.7184878 l -0.06981,0.542017 H 11.0001 l 0.06981,-2.2058827 h 7.860384 L 19.0001,5.205882 H 18.274096 L 18.204288,4.663865 C 18.167058,4.3865545 18.069327,4.1470585 17.911094,3.9453772 17.752863,3.7352932 17.464323,3.6302512 17.045475,3.6302512 h -1.045563 v 6.9327738 c 0,0.394958 0.0028,0.647059 0.226177,0.756303 0.223387,0.10084 0.293499,0.15126 0.609962,0.15126 h 0.321117 V 12 Z"/>
</svg>
