<svg xmlns="http://www.w3.org/2000/svg" width="22" height="22" version="1">
 <rect style="opacity:.2" width="10.5" height="6" x="-16.5" y="12.5" rx="1" ry="1" transform="scale(-1,1)"/>
 <rect style="opacity:.2" width="10.5" height="6" x="5.5" y="3.5" rx="1" ry="1"/>
 <rect style="fill:#2c6de3" width="10.5" height="6" x="-16.5" y="12" rx="1" ry="1" transform="scale(-1,1)"/>
 <path style="fill:#8b9cbe;opacity:.1" d="m7 12c-0.554 0-1 0.446-1 1v0.5c0-0.554 0.446-1 1-1h8.5c0.554 0 1 0.446 1 1v-0.5c0-0.554-0.446-1-1-1z"/>
 <rect style="fill:#53990f" width="10.5" height="6" x="5.5" y="3" rx="1" ry="1"/>
 <path style="fill:#8b9cbe;opacity:.1" d="m6.5 3.0000002c-0.554 0-1 0.446-1 1v0.5c0-0.554 0.446-1 1-1h8.5c0.554 0 1 0.446 1 1v-0.5c0-0.554-0.446-1-1-1z"/>
 <path style="opacity:.2" d="m14.942942 10.500437a0.91619455 1.0231252 0 0 1 0.431212 0.136869l3.083796 1.988101 3.083795 1.988101a0.91619455 1.0231252 0 0 1 0 1.772308l-3.083795 1.988101-3.083796 1.989099a0.91619455 1.0231252 0 0 1-1.374154-0.886153v-7.953404a0.91619455 1.0231252 0 0 1 0.942942-1.023022z"/>
 <path style="fill:#3ba4fa" d="m14.942942 10.000437a0.91619455 1.0231252 0 0 1 0.431212 0.136869l3.083796 1.988101 3.083795 1.988101a0.91619455 1.0231252 0 0 1 0 1.772308l-3.083795 1.988101-3.083796 1.989099a0.91619455 1.0231252 0 0 1-1.374154-0.886153v-7.953404a0.91619455 1.0231252 0 0 1 0.942942-1.023022z"/>
 <path style="opacity:.2" d="m7.0570585 1.5004365a0.91619455 1.0231252 0 0 0-0.4312125 0.1368697l-3.083796 1.988101-3.0837955 1.988101a0.91619455 1.0231252 0 0 0 0 1.7723075l3.0837955 1.9881014 3.083796 1.9890989a0.91619455 1.0231252 0 0 0 1.374154-0.886153v-7.9534037a0.91619455 1.0231252 0 0 0-0.9429415-1.0230228z"/>
 <path style="fill:#88d216" d="m7.0570585 1.0004364a0.91619455 1.0231252 0 0 0-0.4312125 0.1368697l-3.083796 1.988101-3.0837955 1.9881011a0.91619455 1.0231252 0 0 0 0 1.7723075l3.0837955 1.988101 3.083796 1.9890993a0.91619455 1.0231252 0 0 0 1.374154-0.8861529v-7.9534038a0.91619455 1.0231252 0 0 0-0.9429415-1.0230229z"/>
 <path style="fill:#8b9cbe;opacity:.2" d="m14.942383 10a0.91619455 1.0231252 0 0 0-0.942383 1.023438v0.5a0.91619455 1.0231252 0 0 1 0.94336-1.023438 0.91619455 1.0231252 0 0 1 0.430664 0.137696l3.083984 1.987304 3.083984 1.988281a0.91619455 1.0231252 0 0 1 0.429687 0.635743 0.91619455 1.0231252 0 0 0-0.429687-1.135743l-3.083984-1.988281-3.083984-1.987304a0.91619455 1.0231252 0 0 0-0.430664-0.137696 0.91619455 1.0231252 0 0 1-1e-3 0z"/>
 <path style="fill:#8b9cbe;opacity:.2" d="m7.0566405 1.0000002a0.91619455 1.0231252 0 0 0-0.430664 0.1376953l-3.0839845 1.9873047-3.0839842 1.988281a0.91619455 1.0231252 0 0 0-0.4296875 1.1357425 0.91619455 1.0231252 0 0 1 0.4296875-0.6357425l3.0839842-1.988281 3.0839845-1.9873047a0.91619455 1.0231252 0 0 1 0.430664-0.1376953 0.91619455 1.0231252 0 0 1 0.9433595 1.0234375v-0.5a0.91619455 1.0231252 0 0 0-0.9433595-1.0234375z"/>
</svg>
