<svg xmlns="http://www.w3.org/2000/svg" width="22" height="22" version="1">
 <circle style="opacity:0.2" cx="11" cy="11.5" r="10"/>
 <circle style="fill:#b2bfd9" cx="11" cy="11" r="10"/>
 <path style="opacity:0.1" d="M 17.837891,6.5 7,9.308594 8.1621094,13.5 12.082031,12.484375 A 1.5,1.5 0 0 0 13,13.412109 V 16 a 0.5,0.5 0 0 0 0.5,0.5 H 18 v -1 H 14 V 13.412109 A 1.5,1.5 0 0 0 15,12 1.5,1.5 0 0 0 14.976562,11.734375 L 19,10.691406 Z M 3,10 4.3378906,15 7,12.945312 l -0.6699219,-2.5 z"/>
 <rect style="fill:#17191e" width="11.196" height="4.35" x="4.39" y="10.28" transform="matrix(0.96803763,-0.25080498,0.2670514,0.96368229,0,0)"/>
 <path style="fill:#17191e" d="m 3,9.5 1.3381372,5 L 7,12.446153 6.3309315,9.946152 Z"/>
 <rect style="fill:#17191e" width="1" height="3" x="13" y="12.5"/>
 <rect style="fill:#17191e" width="4.5" height="1" x="13.5" y="15"/>
 <circle style="fill:#17191e" cx="13.5" cy="15.5" r=".5"/>
 <circle style="fill:#17191e" cx="13.5" cy="11.5" r="1.5"/>
 <path style="opacity:0.2;fill:#8b9cbe" d="M 11,1 C 5.46,1 1,5.46 1,11 1,11.084 1.004,11.1665 1.00585,11.25 1.1382,5.827 5.544,1.5 10.99985,1.5 c 5.45585,0 9.862,4.32695 9.994,9.75 0.002,-0.08343 0.0059,-0.166065 0.0059,-0.25 0,-5.54 -4.46,-10 -10,-10 z"/>
</svg>
