<svg xmlns="http://www.w3.org/2000/svg" width="22" height="22" version="1.1">
 <g transform="translate(0,-1030.3622)">
  <circle style="opacity:0.2" cx="11" cy="1041.862" r="10"/>
  <circle style="fill:#404b8b" cx="11" cy="1041.362" r="10"/>
  <path style="opacity:0.2" d="m 5.625,1036.8622 c -0.34625,0 -0.625,0.223 -0.625,0.5 0,0.277 0.27875,0.5 0.625,0.5 l 0.40625,0 c 0,0 0.484651,0.1305 0.4661105,0.5431 -0.1256095,1.7547 -0.79338,6.6525 -1.0012665,7.0409 -0.2621285,0.3669 -0.432381,0.416 -0.871094,0.416 -0.34625,0 -0.625,0.223 -0.625,0.5 0,0.277 0.27875,0.5 0.625,0.5 l 3.25,0 c 0.34625,0 0.625,-0.223 0.625,-0.5 0,-0.277 -0.27875,-0.5 -0.625,-0.5 -0.752811,0.097 -0.903405,-0.098 -1.106584,-0.6606 -0.1035735,-0.5477 -0.067742,-1.4112 0.060685,-2.8355 0.2311485,-2.5635 0.3588225,-3.09 0.6972655,-2.8808 0.2333435,0.1442 1.9270575,3.9598 2.4833995,5.665 0.229314,0.7029 0.504743,1.2489 0.612305,1.2129 0.107561,-0.036 0.442399,-0.7375 0.744139,-1.5596 0.682144,-1.8584 2.031834,-4.8519 2.254883,-5.1015 0.296092,-0.3314 0.47365,0.2535 0.917969,3.0224 0.420401,2.6199 0.422588,2.7022 0.08496,3.0752 -0.122097,0.1196 -0.331802,0.062 -0.499024,0.062 -0.34625,0 -0.625,0.223 -0.625,0.5 0,0.277 0.27875,0.5 0.625,0.5 l 3.25,0 c 0.34625,0 0.625,-0.223 0.625,-0.5 0,-0.277 -0.27875,-0.5 -0.625,-0.5 -0.552972,0.064 -0.526834,-0.1071 -0.698203,-0.528 -0.526975,-1.5993 -1.321843,-6.2112 -1.132852,-6.9642 0.207615,-0.4523 0.349344,-0.5078 0.831055,-0.5078 0.34625,0 0.625,-0.223 0.625,-0.5 0,-0.277 -0.27875,-0.5 -0.625,-0.5 l -3.25,0 c -0.34625,0 -0.625,0.223 -0.625,0.5 0,0.277 0.405435,0.2323 0.625,0.5 0.32583,0.3181 0.09164,0.5864 -0.04185,0.9123 -0.475591,1.1357 -1.227683,2.7889 -1.227683,2.7889 -0.199751,0.5749 -0.627511,1.4964 -0.936524,1.4824 -0.251047,-0.026 -1.086339,-2.3938 -1.630859,-3.4746 -0.205491,-0.4932 -0.340665,-0.6459 -0.46539,-0.9489 -0.398969,-0.6365 0.052302,-0.7601 0.052302,-0.7601 0.34625,0 0.625,-0.223 0.625,-0.5 0,-0.277 -0.27875,-0.5 -0.625,-0.5 z"/>
  <path style="fill:#f26265" d="m 5.625,1036.3622 c -0.34625,0 -0.625,0.223 -0.625,0.5 0,0.277 0.27875,0.5 0.625,0.5 l 0.40625,0 c 0,0 0.484651,0.1304 0.4661105,0.543 -0.1256095,1.7548 -0.79338,6.6526 -1.0012665,7.041 -0.2621285,0.3669 -0.432381,0.416 -0.871094,0.416 -0.34625,0 -0.625,0.223 -0.625,0.5 0,0.277 0.27875,0.5 0.625,0.5 l 3.25,0 c 0.34625,0 0.625,-0.223 0.625,-0.5 0,-0.277 -0.27875,-0.5 -0.625,-0.5 -0.752811,0.097 -0.903405,-0.098 -1.106584,-0.6606 -0.1035735,-0.5477 -0.067742,-1.4112 0.060685,-2.8355 0.2311485,-2.5635 0.3588225,-3.0901 0.6972655,-2.8809 0.2333435,0.1442 1.9270575,3.9598 2.4833995,5.6651 0.229314,0.7029 0.504743,1.2489 0.612305,1.2129 0.107561,-0.036 0.442399,-0.7375 0.744139,-1.5596 0.682144,-1.8584 2.031834,-4.852 2.254883,-5.1016 0.296092,-0.3314 0.47365,0.2536 0.917969,3.0225 0.420401,2.6199 0.422588,2.7022 0.08496,3.0752 -0.122096,0.1195 -0.331802,0.062 -0.499024,0.062 -0.34625,0 -0.625,0.223 -0.625,0.5 0,0.277 0.27875,0.5 0.625,0.5 l 3.25,0 c 0.34625,0 0.625,-0.223 0.625,-0.5 0,-0.277 -0.27875,-0.5 -0.625,-0.5 -0.552972,0.064 -0.526834,-0.1072 -0.698203,-0.5281 -0.526975,-1.5993 -1.321842,-6.2111 -1.132852,-6.9641 0.207615,-0.4523 0.349344,-0.5078 0.831055,-0.5078 0.34625,0 0.625,-0.223 0.625,-0.5 0,-0.277 -0.27875,-0.5 -0.625,-0.5 l -3.25,0 c -0.34625,0 -0.625,0.223 -0.625,0.5 0,0.277 0.405435,0.2323 0.625,0.5 0.32583,0.3181 0.09164,0.5863 -0.04185,0.9123 -0.475591,1.1356 -1.227683,2.7889 -1.227683,2.7889 -0.199751,0.5749 -0.627511,1.4964 -0.936524,1.4824 -0.251047,-0.026 -1.086339,-2.3939 -1.630859,-3.4746 -0.205491,-0.4933 -0.340665,-0.646 -0.46539,-0.9489 -0.398969,-0.6366 0.052302,-0.7601 0.052302,-0.7601 0.34625,0 0.625,-0.223 0.625,-0.5 0,-0.277 -0.27875,-0.5 -0.625,-0.5 z"/>
  <path style="opacity:0.1;fill:#8b9cbe" d="m 11,1031.3622 a 10,10 0 0 0 -10,10 10,10 0 0 0 0.010742,0.291 10,10 0 0 1 9.989258,-9.791 10,10 0 0 1 9.989258,9.709 10,10 0 0 0 0.01074,-0.209 10,10 0 0 0 -10,-10 z"/>
  <path style="opacity:0.2;fill:#8b9cbe" d="m 5.625,1036.3622 c -0.34625,0 -0.625,0.223 -0.625,0.5 0,0.093 0.039755,0.1755 0.094727,0.25 0.108561,-0.1471 0.3004145,-0.25 0.5302735,-0.25 l 3.25,0 c 0.2298585,0 0.4217125,0.1029 0.5302735,0.25 0.05497,-0.074 0.09473,-0.1569 0.09473,-0.25 0,-0.277 -0.27875,-0.5 -0.6249995,-0.5 l -3.25,0 z m 7.5,0 c -0.34625,0 -0.625,0.223 -0.625,0.5 0,0.099 0.06068,0.1534 0.137696,0.1992 0.114102,-0.1183 0.285237,-0.1992 0.487304,-0.1992 l 3.25,0 c 0.229859,0 0.421713,0.1029 0.530273,0.25 0.05497,-0.074 0.09473,-0.1569 0.09473,-0.25 0,-0.277 -0.27875,-0.5 -0.625,-0.5 l -3.25,0 z m -4.385742,1.6016 c -0.089123,0.098 -0.152192,0.2829 0.083008,0.6582 0.124725,0.303 0.26033,0.4559 0.46582,0.9492 0.54452,1.0807 1.379812,3.4486 1.63086,3.4746 0.309012,0.014 0.736772,-0.9075 0.936523,-1.4824 -10e-7,0 0.751948,-1.6534 1.227539,-2.7891 0.117779,-0.2876 0.313113,-0.5301 0.133789,-0.8017 -0.04194,0.097 -0.0905,0.196 -0.133789,0.3017 -0.47559,1.1356 -1.22754,2.7891 -1.227539,2.7891 -0.199751,0.5749 -0.627511,1.4964 -0.936523,1.4824 -0.251048,-0.026 -1.08634,-2.3939 -1.63086,-3.4746 -0.20549,-0.4933 -0.341095,-0.6463 -0.46582,-0.9492 -0.036755,-0.059 -0.059667,-0.108 -0.083008,-0.1582 z m -2.274414,0.2588 c -0.1641725,1.9292 -0.7700995,6.3524 -0.96875,6.7236 -0.262129,0.3669 -0.432381,0.416 -0.871094,0.416 -0.34625,0 -0.625,0.223 -0.625,0.5 0,0.093 0.039755,0.1755 0.094727,0.25 0.108561,-0.1471 0.3004145,-0.25 0.5302735,-0.25 0.438713,0 0.608965,-0.049 0.871094,-0.416 0.207886,-0.3885 0.875367,-5.2863 1.0009765,-7.041 0.00315,-0.07 -0.01143,-0.1283 -0.032225,-0.1826 z m 9.063476,0.2656 c -0.107769,1.0087 0.642548,5.3104 1.148438,6.8457 0.171368,0.4209 0.14527,0.5924 0.698242,0.5283 0.229859,0 0.421713,0.1029 0.530273,0.25 0.05497,-0.074 0.09473,-0.1569 0.09473,-0.25 0,-0.277 -0.27875,-0.5 -0.625,-0.5 -0.552972,0.064 -0.526874,-0.1074 -0.698242,-0.5283 -0.445957,-1.3534 -1.077399,-4.8418 -1.148438,-6.3457 z m -8.813476,5.5674 c -0.01468,0.4874 4.2e-5,0.8626 0.05371,1.1464 0.203179,0.5624 0.3536345,0.7573 1.1064455,0.6602 0.229859,0 0.4217125,0.1029 0.5302735,0.25 0.054971,-0.074 0.094727,-0.1569 0.094727,-0.25 0,-0.277 -0.27875,-0.5 -0.625,-0.5 -0.752811,0.097 -0.9032665,-0.098 -1.1064455,-0.6602 -0.033125,-0.1751 -0.047575,-0.3986 -0.05371,-0.6464 z m 8.129883,0.8447 c -0.03287,0.1725 -0.105289,0.2719 -0.220703,0.3994 -0.122096,0.1195 -0.331802,0.062 -0.499024,0.062 -0.34625,0 -0.625,0.223 -0.625,0.5 0,0.093 0.03975,0.1755 0.09473,0.25 0.108561,-0.1471 0.300414,-0.25 0.530273,-0.25 0.167222,0 0.376928,0.057 0.499024,-0.062 0.189161,-0.209 0.258664,-0.3755 0.220703,-0.8994 z"/>
 </g>
</svg>
