<svg xmlns="http://www.w3.org/2000/svg" width="22" height="22" version="1.1">
 <rect style="opacity:0.2" width="20" height="20" x="1" y="1.5" rx="6" ry="6"/>
 <rect style="fill:#795548" width="20" height="20" x="1" y="1" rx="6" ry="6"/>
 <path style="fill:#6d4c41" d="M 7,1 C 6.2969735,1 5.625867,1.1254824 5,1.3457031 V 5 H 9 V 1 Z m 2,4 v 4 h 4 V 5 Z m 4,0 h 4 V 1.3457031 C 16.374133,1.1254824 15.703026,1 15,1 h -2 z m 4,0 v 4 h 4 V 7 C 21,6.2969735 20.874517,5.625867 20.654297,5 Z m 0,4 h -4 v 4 h 4 z m 0,4 v 4 h 3.654297 C 20.874517,16.374133 21,15.703026 21,15 v -2 z m 0,4 h -4 v 4 h 2 c 0.703026,0 1.374133,-0.125483 2,-0.345703 z m -4,0 V 13 H 9 v 4 z M 9,17 H 5 v 3.654297 C 5.625867,20.874517 6.2969735,21 7,21 H 9 Z M 5,17 V 13 H 1 v 2 c 0,0.703026 0.1254824,1.374133 0.3457031,2 z M 5,13 H 9 V 9 H 5 Z M 5,9 V 5 H 1.3457031 C 1.1254824,5.625867 1,6.2969735 1,7 v 2 z"/>
 <path style="opacity:0.1;fill:#8b9cbe" d="M 7,1 C 3.676,1 1,3.676 1,7 v 0.5 c 0,-3.324 2.676,-6 6,-6 h 8 c 3.324,0 6,2.676 6,6 V 7 C 21,3.676 18.324,1 15,1 Z"/>
 <rect style="fill:#bdbdbd" width="6" height="9" x="8" y="7.5"/>
 <path style="opacity:0.2" d="m 6,4.5 v 3 c 0,1.108 0.892,2 2,2 h 6 c 1.108,0 2,-0.892 2,-2 v -3 h -2 v 2 h -2 v -2 h -2 v 2 H 8 v -2 z"/>
 <path style="fill:#8b9cbe" d="m 6,4 v 3 c 0,1.108 0.892,2 2,2 h 6 c 1.108,0 2,-0.892 2,-2 V 4 H 14 V 6 H 12 V 4 H 10 V 6 H 8 V 4 Z"/>
 <path style="opacity:0.2" d="M 6.5,15.5 C 5.669,15.5 5,16.169 5,17 v 1.5 H 17 V 17 c 0,-0.831 -0.669,-1.5 -1.5,-1.5 z"/>
 <path style="fill:#8b9cbe" d="M 6.5,15 C 5.669,15 5,15.669 5,16.5 V 18 H 17 V 16.5 C 17,15.669 16.331,15 15.5,15 Z"/>
</svg>
