<svg xmlns="http://www.w3.org/2000/svg" width="22" height="22" version="1.1">
 <path style="opacity:0.2" transform="matrix(0.46650621,0.12499996,-0.12499996,0.46650621,30.995183,2.8577015)" d="m -40.71797,7.9999972 4.681881,9.6694048 3.379717,-10.1977897 0.625172,10.7250437 7.024977,-8.128168 -3.526713,10.147891 9.600747,-4.821105 -7.141687,8.025814 10.714891,-0.780074 -9.669405,4.681881 10.19779,3.379717 -10.725043,0.625172 8.128167,7.024977 -10.147891,-3.526713 4.821106,9.600747 -8.025815,-7.141687 0.780074,10.714891 -4.681881,-9.669405 -3.379716,10.19779 -0.625173,-10.725043 -7.024976,8.128167 3.526712,-10.147891 -9.600747,4.821106 7.141687,-8.025815 -10.714891,0.780074 9.669405,-4.681881 -10.19779,-3.379716 10.725044,-0.625173 -8.128168,-7.024976 10.147891,3.526712 -4.821105,-9.600747 8.025814,7.141687 z"/>
 <path style="fill:#663892" transform="matrix(0.46650621,0.12499996,-0.12499996,0.46650621,30.995183,2.3577016)" d="m -40.71797,7.9999972 4.681881,9.6694048 3.379717,-10.1977897 0.625172,10.7250437 7.024977,-8.128168 -3.526713,10.147891 9.600747,-4.821105 -7.141687,8.025814 10.714891,-0.780074 -9.669405,4.681881 10.19779,3.379717 -10.725043,0.625172 8.128167,7.024977 -10.147891,-3.526713 4.821106,9.600747 -8.025815,-7.141687 0.780074,10.714891 -4.681881,-9.669405 -3.379716,10.19779 -0.625173,-10.725043 -7.024976,8.128167 3.526712,-10.147891 -9.600747,4.821106 7.141687,-8.025815 -10.714891,0.780074 9.669405,-4.681881 -10.19779,-3.379716 10.725044,-0.625173 -8.128168,-7.024976 10.147891,3.526712 -4.821105,-9.600747 8.025814,7.141687 z"/>
 <path style="opacity:0.2" d="M 7.4824219,1.5000915 A 1.4989362,1.4989362 0 0 0 6.0644531,2.5762634 L 1.0664062,19.558685 a 1.4993393,1.4993393 0 1 0 2.8769532,0.845703 L 7.4960938,8.3301696 9.560547,15.404388 a 1.4989362,1.4989362 0 0 0 2.878906,0 l 2.064453,-7.0742184 3.552735,12.0742184 a 1.4993392,1.4993392 0 1 0 2.876953,-0.845703 L 15.935547,2.5762634 a 1.4989362,1.4989362 0 0 0 -2.876953,0.00195 L 11,9.632903 8.9414062,2.5782165 A 1.4989362,1.4989362 0 0 0 7.4824219,1.5000915 Z"/>
 <path style="fill:none;stroke:#2a94ef;stroke-width:2.99757266;stroke-linecap:round;stroke-linejoin:round" d="M 2.5049197,19.480729 7.5020259,2.4984002 11,14.485 14.497975,2.4984002 19.49508,19.480729"/>
 <path style="opacity:0.1;fill:#8b9cbe" d="M 7.4824219,0.99999996 A 1.4989362,1.4989362 0 0 0 6.0644531,2.0761719 L 1.0664062,19.058594 a 1.4993393,1.4993393 0 0 0 -0.039062,0.671875 1.4993393,1.4993393 0 0 1 0.039062,-0.171875 L 6.0644531,2.5761719 A 1.4989362,1.4989362 0 0 1 7.4824219,1.5 1.4989362,1.4989362 0 0 1 8.9414062,2.578125 L 11,9.632812 13.058594,2.578125 a 1.4989362,1.4989362 0 0 1 2.876953,-0.00195 l 4.998047,16.982422 a 1.4993392,1.4993392 0 0 1 0.03906,0.175781 1.4993392,1.4993392 0 0 0 -0.03906,-0.675781 L 15.935547,2.0761719 a 1.4989362,1.4989362 0 0 0 -2.876953,0.00195 L 11,9.132812 8.9414062,2.078125 A 1.4989362,1.4989362 0 0 0 7.4824219,0.99999996 Z"/>
</svg>
