<svg xmlns="http://www.w3.org/2000/svg" width="22" height="22" version="1">
 <rect style="fill:#8b9cbe" width="11" height="11" x="5.5" y="5"/>
 <path style="opacity:0.2" d="m 11.018554,1.4999934 c -0.06039,-0.00241 -0.120767,0.00772 -0.177733,0.02832 L 1.3173829,4.9677049 c -0.1902196,0.068829 -0.31752608,0.252932 -0.3173828,0.458976 v 4.0858642 c -2.1018e-4,0.335829 0.3247066,0.5710929 0.6347656,0.458976 L 3.0000001,9.4783661 V 12.52128 L 1.6347657,12.028125 c -0.310059,-0.112117 -0.63497578,0.123148 -0.6347656,0.458976 v 4.085864 c -1.4328e-4,0.206045 0.1271632,0.390148 0.3173828,0.458977 l 9.5234381,3.439391 c 0.05697,0.0206 0.117345,0.03072 0.177733,0.02832 0.04791,-0.0019 0.09544,-0.01197 0.140625,-0.02832 l 9.523438,-3.439391 C 20.872836,16.963113 21.000143,16.779009 21,16.572965 v -4.085864 c 2.1e-4,-0.335828 -0.324707,-0.571092 -0.634766,-0.458976 L 19,12.52128 V 9.4783661 l 1.365234,0.493155 C 20.675293,10.083638 21.00021,9.8483731 21,9.5125451 V 5.4266809 C 21.000143,5.2206374 20.872836,5.0365334 20.682617,4.9677049 L 11.159179,1.5283131 c -0.04519,-0.016343 -0.09272,-0.02641 -0.140625,-0.02832 z M 11,6.5868164 15,8.0321029 V 13.967544 L 11,15.41283 7,13.967544 V 8.0321029 Z"/>
 <path style="fill:#3b5ade" d="m 11.018601,1.0007203 c -0.06039,-0.00241 -0.120675,0.00693 -0.177641,0.027537 L 1.3171507,4.4685199 C 1.1269311,4.5373484 0.99985712,4.7211134 1.0000004,4.9271574 v 4.0860977 c -2.1018e-4,0.335828 0.3251716,0.570755 0.6352306,0.458638 L 11,6.0876559 20.364769,9.4718931 c 0.310059,0.112117 0.63544,-0.12281 0.63523,-0.458638 V 4.9271574 c 1.44e-4,-0.2060435 -0.12693,-0.389809 -0.31715,-0.4586375 L 11.15904,1.0282576 C 11.11385,1.0119136 11.0665,1.0026296 11.018601,1.0007203 Z"/>
 <rect style="fill:#3b5ade" width="4" height="8" x="3" y="6.5"/>
 <path style="fill:#3b5ade" d="m 11.018601,19.999641 c -0.06039,0.0024 -0.120675,-0.0069 -0.177641,-0.02754 L 1.3171507,16.531841 C 1.1269311,16.463011 0.99985712,16.279247 1.0000004,16.073202 V 11.987104 C 0.99979022,11.651275 1.325172,11.416348 1.635231,11.528465 L 11,14.912704 20.364769,11.528465 c 0.310059,-0.112116 0.63544,0.122811 0.63523,0.458639 v 4.086098 c 1.44e-4,0.206044 -0.12693,0.389809 -0.31715,0.458639 l -9.523809,3.440262 c -0.04519,0.01635 -0.09254,0.02563 -0.140439,0.02754 z"/>
 <rect style="fill:#3b5ade" width="4" height="8" x="15" y="6.5"/>
 <path style="opacity:0.2" d="m 2.0000001,13.223924 v 2.991158 L 11,19.466 v -3.053656 a 1.0001,1.0000821 0 0 1 -0.339844,-0.05859 z"/>
 <path style="fill:#b6afff" d="M 2.0000001,12.723772 V 15.71493 L 11,18.965848 v -3.053656 a 1.0001,1.0000821 0 0 1 -0.339844,-0.05859 z"/>
 <path style="opacity:0.2" d="m 11,2.5346625 v 3.0536559 a 1.0001,1.0000821 0 0 1 0.339844,0.058593 L 20,8.7767378 V 5.7855804 Z"/>
 <path style="fill:#b6afff" d="m 11,2.0345105 v 3.0536559 a 1.0001,1.0000821 0 0 1 0.339844,0.058593 L 20,8.2765859 V 5.2854284 Z"/>
 <path style="opacity:0.1;fill:#8b9cbe" d="m 11.018554,1.0003493 c -0.06039,-0.00241 -0.120767,0.00772 -0.177733,0.02832 L 1.3173829,4.4680609 c -0.1902196,0.068829 -0.31752608,0.252932 -0.3173828,0.458976 v 0.499991 C 0.99985682,5.2209839 1.1271633,5.0368804 1.3173829,4.9680519 L 10.840821,1.5286601 c 0.05697,-0.020603 0.117345,-0.03073 0.177733,-0.02832 0.04791,0.00191 0.09544,0.011976 0.140625,0.02832 l 9.523438,3.4393918 C 20.872836,5.0368804 21.000143,5.2209844 21,5.4270279 V 4.9270369 C 21.000143,4.7209934 20.872836,4.5368894 20.682617,4.4680609 L 11.159179,1.0286691 c -0.04519,-0.016343 -0.09272,-0.02641 -0.140625,-0.02832 z M 1.5185548,11.502114 c -0.2699036,-0.02549 -0.51873858,0.191493 -0.5185547,0.485343 v 0.499991 C 0.99978992,12.15162 1.3247067,11.916355 1.6347657,12.028472 l 1.3652344,0.493155 V 12.021636 L 1.6347657,11.528481 c -0.038758,-0.01401 -0.077653,-0.02272 -0.1162109,-0.02637 z m 18.9628902,0 c -0.03856,0.0036 -0.07745,0.01235 -0.116211,0.02637 L 19,12.021636 v 0.499991 l 1.365234,-0.493155 C 20.675293,11.916356 21.00021,12.15162 21,12.487448 v -0.499991 c 1.83e-4,-0.293849 -0.248651,-0.510829 -0.518555,-0.485343 z M 7,13.4679 v 0.499991 l 4,1.445286 4,-1.445286 V 13.4679 l -4,1.445286 z"/>
</svg>
