<svg xmlns="http://www.w3.org/2000/svg" width="22" height="22" version="1.1">
 <rect style="opacity:0.20018999" width="20" height="20" x="1" y="1.5" rx="1" ry="1"/>
 <rect style="fill:#b2bfd9" width="20" height="20" x="1" y="1" rx="1" ry="1"/>
 <path style="opacity:0.1" d="M 10,3.499953 4,6.7597186 v 2.3769534 1.166015 l 0.5390625,0.275391 C 4.8939175,10.39471 5.4804688,10.02925 5.4804688,10.02925 L 6,10.509719 v 4.162109 l 1.5,0.361328 1.515625,-0.537109 V 11.642531 L 10,13.499953 h 2.015625 L 14,12.585891 v 6.066406 L 14.992188,19.248 16,18.613234 v -6.93164 l 2,-1.388672 V 9.093703 7.9140155 L 17,6.1835468 V 7.937453 8.468703 L 12.015625,11.3105 10.146484,9.783156 9.015625,10.431594 14,7.5194842 V 5.9354999 L 13.53125,5.3612811 14,5.9315936 V 4.7284686 L 13.017578,3.843703 12,4.4120624 V 3.499953 Z m 0,3 h 1.611328 L 9.015625,8.0038592 Z M 12.5,7.1210468 9.015625,9.261672 v -0.0059 z"/>
 <path style="opacity:0.2;fill:#8b9cbe" d="M 2,1 C 1.446,1 1,1.4460001 1,2 v 0.5 c 0,-0.554 0.446,-1 1,-1 h 18 c 0.554,0 1,0.446 1,1 V 2 C 21,1.446 20.554,1 20,1 Z"/>
 <path style="fill:#9e9d24" d="m 10,3.0000048 1.999993,-9.6e-6 L 12,5 h -1.999993 z"/>
 <path style="fill:#8e24aa" d="m 10,13 -1.000015,-1.887153 1.002942,-0.506596 1.55e-4,0.916697 0.862613,0.521947 z m 6.999993,-5.563057 0.425777,0.8528385 -0.425763,0.281195 z"/>
 <path style="fill:#b71c1c" d="m 13.999992,11.251661 -1.983639,0.793226 v -1.234321 l 4.98364,-2.8412155 V 9.242171 l -1.991961,1.3772 v 6.921375 l -1.00804,0.611763 z M 5.9998643,7.218529 4.0000005,8.636323 V 6.259898 L 10,3.0000048 10.000007,5 7.5,6.570293 V 13.58919 L 5.9998643,14.171786 Z M 9.016319,7.504839 12.5,5.4849385 V 6.62091 L 9.016333,8.7555975 Z"/>
 <path style="fill:#283593" d="m 13.999992,18.152509 0.991973,-0.608442 1.008042,0.569438 L 14.991965,18.748 Z M 5.9998643,14.171786 7.5,13.58919 9.016333,13.995161 7.5,14.533 Z M 10,13 10.865695,12.044896 h 1.150658 l 1.98364,-0.793235 1.5e-5,0.833339 L 12.016353,13 Z M 9.016333,9.932115 V 8.7617675 L 12.5,6.62091 V 5.4849385 L 11.682,6 H 10 L 9.016319,7.504839 7.5,6.570293 10,5 h 2 l 0.5,0.4849385 1.030552,-0.623373 0.469455,0.5744785 -1.4e-5,1.583956 -4.98366,2.912116 0.986594,0.674136 -1.002942,0.506595 z m 5.991699,0.687255 1.991961,-1.3772 1.4e-5,-0.6711935 L 17.42577,8.2897815 18,8.593795 v 1.199046 l -2.000007,1.389388 z M 4.0000145,9.802711 4.0000005,8.636323 5.9998643,7.218529 v 2.79061 L 5.4802955,9.528952 c 0,0 -0.5858765,0.365334 -0.9407315,0.548702 z"/>
 <path style="fill:#2e7d32" d="m 14.99197,17.544067 0.01606,-6.924696 0.991961,0.562858 v 6.931276 z M 7.5,13.58919 V 6.570293 l 1.516319,0.934546 7.5e-5,6.490322 z m 2.503082,-2.066242 -1.55e-4,-0.916697 -0.986594,-0.674136 1.129682,-0.648615 1.870338,1.527065 v 1.234321 l -1.150658,9e-6 z M 5.5341358,8.6033655 5.9998643,8.389909 V 8.9601345 L 5.5341358,9.166904 Z M 17.42577,8.2897815 16.999993,7.436943 V 5.6840615 L 18,7.41443 l -1e-6,1.179365 z M 12,5 l -7e-6,-1.0871625 1.018319,-0.5683457 0.981681,0.8848302 V 5.431273 L 13.530552,4.8615655 12.5,5.4849385 Z"/>
</svg>
