<svg xmlns="http://www.w3.org/2000/svg" width="22" height="22" version="1">
 <path style="fill:#e14e4e;fill-rule:evenodd" d="m 20.999859,11.000082 c 0,5.522808 -4.477121,9.999929 -9.999929,9.999929 -4.1348595,0 -4.5928987,-2.567345 -6.1154214,-6.146446 -0.5110654,-1.201398 -3.8845077,-2.465534 -3.8845077,-3.853483 0,-5.5228077 4.4771205,-9.9999285 9.9999291,-9.9999285 2.615019,0 3.869089,2.0436108 5.650961,3.6868569 1.981365,1.82722 4.348968,3.4052827 4.348968,6.3130716 z"/>
 <path style="opacity:0.1;fill-rule:evenodd" d="m 11.000001,1.4997502 0,8 c 3.471401,0 7.097959,0.379684 9.972656,1.2812498 A 10,10 0 0 0 19.017579,5.5407658 C 17.061023,3.1272085 14.111225,1.5035588 11.000001,1.4997502 Z"/>
 <path style="fill:#4f4f4f;fill-rule:evenodd" d="m 11.000001,1.0000002 0,8 c 3.471401,0 7.097959,0.379684 9.972656,1.2812498 A 10,10 0 0 0 19.017579,5.0410158 C 17.061023,2.6274585 14.111225,1.0038088 11.000001,1.0000002 Z"/>
 <path style="fill:#4f4f4f;fill-rule:evenodd" d="m 11.000001,9.0000002 c -3.5073925,0 -7.0813821,0.384898 -9.964844,1.3066408 A 10,10 0 0 0 1.0000008,11 10,10 0 0 0 11.000001,21 l 0,-11.9999998 z"/>
 <path style="opacity:0.1;fill:#8b9cbe" d="m 10.99993,1.0001461 c -2.6293302,0 -5.0216467,1.0147732 -6.80667,2.6740389 -1.9643511,1.8259596 -3.1932592,4.4324115 -3.1932592,7.32589 0.00217,0.09705 0.00575,0.194066 0.010742,0.291013 0.1136448,-5.4368509 4.5511501,-9.7862914 9.9891872,-9.7909454 5.406958,0.00352 9.831837,4.3042463 9.989187,9.7089154 0.0043,-0.06962 0.0079,-0.139287 0.01074,-0.208983 0,-5.5228082 -4.477121,-9.9999289 -9.999929,-9.9999289 z"/>
 <path style="opacity:0.2;fill-rule:evenodd" d="M 5.1171883,1.52539 C 4.9881478,1.5102907 4.8556673,1.5199893 4.722657,1.5585932 4.1906161,1.7130085 3.8866011,2.2648335 4.0410164,2.7968744 L 7.0703133,13.234374 c 0.079348,0.353092 0.136479,0.670161 0.1445313,0.880859 0.058184,1.522474 -0.3293009,2.4231 -1.1835938,2.384766 -0.832433,-0.03736 -1.7480346,-0.650686 -2.6699219,-0.900391 -0.9202704,-0.249268 -2.0665497,0.876587 -2.3242187,1.931641 -0.093665,0.383521 0.00273,0.738023 0.1503906,1.087891 0.5368973,1.272094 3.6658821,2.928404 10.2832032,2.880859 7.778026,-0.05589 8.895365,-2.803329 9.341797,-3.806641 0.472653,-1.062237 0.03279,-2.720807 -1.089844,-3.128906 -0.682325,-0.24804 -2.424397,0.20532 -3.4375,0.599609 -1.025065,0.398945 -2.850764,1.36332 -4.291015,1.335938 -1.364639,-0.02634 -2.2263162,-1.789776 -2.6757822,-2.695312 L 5.9609383,2.2402338 C 5.8451268,1.8412031 5.5043097,1.570688 5.1171883,1.52539 Z"/>
 <path style="fill:#b2bfd9;fill-rule:evenodd" d="m 11.470066,20.999264 c 7.778026,-0.05589 8.895633,-2.802346 9.342065,-3.805658 0.472653,-1.062237 0.03231,-2.721255 -1.090322,-3.129354 -0.682325,-0.24804 -2.422647,0.206308 -3.43575,0.600598 C 15.260994,15.063794 13.433583,16.027382 11.993332,16 10.574987,15.97262 9.6878368,14.04882 9.2552138,13.183574 8.826882,12.326911 8.1599658,9.7225922 8.1599658,9.7225922 L 6.3571176,10.185814 c 0,0 0.8244471,2.569654 0.8573049,3.429423 0.058184,1.522474 -0.3285747,2.423136 -1.1828676,2.384802 -0.832433,-0.03736 -1.747382,-0.650249 -2.6692693,-0.899954 -0.9202704,-0.249268 -2.0677497,0.875822 -2.3254187,1.930876 -0.093665,0.383521 0.00368,0.739085 0.1513456,1.088953 0.5368973,1.272094 3.6645323,2.926895 10.2818535,2.87935 z"/>
 <rect style="fill:#b2bfd9" width="2" height="17" x="3.24" y="2.33" rx="1" ry="1" transform="matrix(0.96036951,-0.27873,0.27873,0.96036951,0,0)"/>
 <path style="opacity:0.2;fill:#8b9cbe;fill-rule:evenodd" d="M 5.1171883,1.0253908 C 4.9881478,1.0102915 4.8556673,1.0199901 4.722657,1.058594 4.1906161,1.2130092 3.8866011,1.7648343 4.0410164,2.2968752 4.1198268,1.9560879 4.3613234,1.6634646 4.722657,1.558594 4.8556673,1.51999 4.9881478,1.5102915 5.1171883,1.5253908 c 0.3871214,0.045298 0.7279385,0.3158131 0.84375,0.7148438 L 9.3183598,13.804688 c 0.449466,0.905535 1.3111432,2.668972 2.6757822,2.695312 1.440251,0.02738 3.26595,-0.936992 4.291015,-1.335938 1.013103,-0.394289 2.755175,-0.847649 3.4375,-0.599609 0.745329,0.270942 1.181616,1.092924 1.257813,1.925781 0.09055,-0.97983 -0.361892,-2.100096 -1.257813,-2.425781 -0.682325,-0.24804 -2.424397,0.20532 -3.4375,0.599609 C 15.260092,15.063007 13.434393,16.027382 11.994142,16 10.629503,15.973657 9.7678258,14.210223 9.3183598,13.304688 L 5.9609383,1.7402346 C 5.8451268,1.3412039 5.5043097,1.0706888 5.1171883,1.0253908 Z M 7.1992196,14.017578 C 7.1722194,15.276482 6.8012647,16.034552 6.0312508,16 5.1988178,15.96264 4.2832162,15.349314 3.3613289,15.099609 2.4410585,14.850341 1.2947792,15.976196 1.0371102,17.03125 c -0.048391,0.198143 -0.043695,0.388204 -0.00977,0.574219 0.00454,-0.02489 0.00363,-0.04909 0.00977,-0.07422 0.257669,-1.055054 1.4039483,-2.180909 2.3242187,-1.931641 0.9218873,0.249706 1.8374889,0.863032 2.6699219,0.900392 0.8542929,0.03833 1.2417778,-0.862292 1.1835938,-2.384766 -8.922e-4,-0.02334 -0.013565,-0.0718 -0.015625,-0.09766 z"/>
</svg>
