<svg xmlns="http://www.w3.org/2000/svg" width="22" height="22" version="1">
 <circle style="opacity:0.2" cx="11" cy="11.5" r="10"/>
 <circle style="fill:#008dda" cx="11" cy="11" r="10"/>
 <path style="opacity:0.2" d="M 11,7.5 A 4,4 0 0 0 7.8007812,9.105469 3,3 0 0 0 6,8.5 a 3,3 0 0 0 -3,3 3,3 0 0 0 3,3 A 3,3 0 0 0 7.8027344,13.894531 4,4 0 0 0 11,15.5 4,4 0 0 0 14.199219,13.894531 3,3 0 0 0 16,14.5 3,3 0 0 0 19,11.5 3,3 0 0 0 16,8.5 3,3 0 0 0 14.197266,9.105469 4,4 0 0 0 11,7.5 Z m 0,2 a 2,2 0 0 1 2,2 2,2 0 0 1 -2,2 2,2 0 0 1 -2,-2 2,2 0 0 1 2,-2 z m -5,1 a 1,1 0 0 1 1,1 1,1 0 0 1 -1,1 1,1 0 0 1 -1,-1 1,1 0 0 1 1,-1 z m 10,0 a 1,1 0 0 1 1,1 1,1 0 0 1 -1,1 1,1 0 0 1 -1,-1 1,1 0 0 1 1,-1 z"/>
 <path style="fill:#8b9cbe" d="m 11,7 a 4,4 0 0 0 -4,4 4,4 0 0 0 4,4 4,4 0 0 0 4,-4 4,4 0 0 0 -4,-4 z m 0,2 a 2,2 0 0 1 2,2 2,2 0 0 1 -2,2 2,2 0 0 1 -2,-2 2,2 0 0 1 2,-2 z"/>
 <path style="fill:#8b9cbe" d="M 6,8 A 3,3 0 0 0 3,11 3,3 0 0 0 6,14 3,3 0 0 0 9,11 3,3 0 0 0 6,8 Z m 0,2 a 1,1 0 0 1 1,1 1,1 0 0 1 -1,1 1,1 0 0 1 -1,-1 1,1 0 0 1 1,-1 z"/>
 <path style="opacity:0.2;fill:#8b9cbe" d="M 11,1 A 10,10 0 0 0 1,11 10,10 0 0 0 1.0107422,11.291016 10,10 0 0 1 11,1.5 10,10 0 0 1 20.989258,11.208985 10,10 0 0 0 21,11 10,10 0 0 0 11,1 Z"/>
 <path style="fill:#8b9cbe" d="m 16,8 a 3,3 0 0 0 -3,3 3,3 0 0 0 3,3 3,3 0 0 0 3,-3 3,3 0 0 0 -3,-3 z m 0,2 a 1,1 0 0 1 1,1 1,1 0 0 1 -1,1 1,1 0 0 1 -1,-1 1,1 0 0 1 1,-1 z"/>
</svg>
