<svg xmlns="http://www.w3.org/2000/svg" width="22" height="22" version="1">
 <path style="opacity:0.2" d="m 14.765097,3.5000005 c -2.339089,0 -4.235294,1.8962058 -4.235294,4.2352937 0.470834,3.1176858 -1.4723273,6.2431348 -3.442211,7.7850328 -1.4070824,1.075451 -3.1807854,2.001346 -5.1069624,2.001346 -0.3318445,0 -0.6586051,-0.0188 -0.980239,-0.05584 C 2.8198814,18.603546 4.9807086,19.5 7.302666,19.5 c 7.562286,1e-6 11.697725,-6.227349 11.697725,-11.5258493 0,-0.053678 -0.0034,-0.106774 -0.0041,-0.160271 0.0016,-0.02618 0.003,-0.052378 0.0041,-0.078585 -0.0024,-2.1055459 -1.551238,-3.8895821 -3.63557,-4.1877294 -0.04509,-0.0082 -0.09101,-0.014736 -0.137523,-0.020681 -0.05094,-0.00472 -0.101958,-0.00851 -0.153033,-0.011374 -0.0667,-0.00476 -0.129802,-0.01551 -0.199563,-0.01551 -0.01849,0 -0.03638,0.00286 -0.0548,0.0031 -0.01826,-0.00115 -0.03653,-0.00218 -0.0548,-0.0031 z"/>
 <path style="opacity:0.2" d="m 20.525233,4.5000038 c -0.774307,0.4461715 -1.762601,0.698844 -2.672497,0.8811495 9.5e-4,0.0011 0.0022,0.002 0.0031,0.0031 0.07864,0.090579 0.15307,0.1314515 0.22371,0.228451 0.07157,0.098162 0.139018,0.199855 0.20201,0.3040455 0.05573,0.092178 0.105929,0.587102 0.154599,0.6835975 0.0064,0.012675 0.01436,0.02436 0.02061,0.0371 l 10e-4,0.00205 c 0.05347,0.1088875 0.04952,-0.2317485 0.09362,-0.117994 0.839547,-0.49522 1.66915,-1.0955655 1.973822,-2.0215065 z m 0.475158,1.4999965 c -0.730673,0.3148765 -1.621512,0.4328575 -2.444857,0.5307855 0.182454,0.4536635 0.304504,1.3124209 0.334105,1.5627144 0.8037,-0.563374 1.559212,-1.2919799 2.110752,-2.0934999 z"/>
 <path style="fill:#085585" d="m 20.525233,4.0000039 c -0.774307,0.4461717 -1.762601,0.6988439 -2.672497,0.8811494 9.5e-4,0.0011 0.0022,0.002 0.0031,0.0031 0.07864,0.090579 0.15307,0.1314515 0.22371,0.228451 0.07157,0.098162 0.139018,0.199855 0.20201,0.3040455 0.05573,0.092178 0.105929,0.587102 0.154599,0.6835975 0.0064,0.012675 0.01436,0.02436 0.02061,0.0371 l 10e-4,0.00205 c 0.05347,0.1088875 0.04952,-0.2317485 0.09362,-0.117994 0.839547,-0.49522 1.66915,-1.0955655 1.973822,-2.0215065 z m 0.475158,1.4999964 c -0.730673,0.3148765 -1.621512,0.4328575 -2.444857,0.5307855 0.182454,0.4536635 0.304504,1.3124209 0.334105,1.5627144 0.8037,-0.563374 1.559212,-1.2919799 2.110752,-2.0934999 z"/>
 <path style="opacity:0.1;fill:#8b9cbe" d="m 20.524805,4.0000003 c -0.774307,0.4461717 -1.761979,0.698554 -2.671875,0.8808595 9.5e-4,0.0011 0.002,0.00185 0.0029,0.00295 0.07863,0.090579 0.152992,0.131516 0.223632,0.2285155 0.04495,0.06166 0.08533,0.127216 0.126953,0.1914065 0.679114,-0.1484815 1.369806,-0.3477385 1.97754,-0.6376955 0.143379,-0.2025295 0.260662,-0.4224867 0.3408,-0.666036 z m 0.475586,1.5 c -0.464582,0.200207 -0.994709,0.3168565 -1.530274,0.4033205 -0.246484,0.196921 -0.516104,0.3704485 -0.788086,0.535156 0.0061,0.024035 0.0098,0.04977 0.01563,0.074219 0.584657,-0.070966 1.194645,-0.1567645 1.753907,-0.319336 0.197032,-0.223985 0.384044,-0.4538965 0.548823,-0.6933595 z"/>
 <path style="fill:#0391e9" d="m 14.765097,3.0000005 c -2.339089,0 -4.235294,1.8962058 -4.235294,4.2352937 0.470834,3.1176858 -1.4723273,6.2431348 -3.442211,7.7850328 -1.4070824,1.075451 -3.1807854,2.001346 -5.1069624,2.001346 -0.3318445,0 -0.6586051,-0.0188 -0.980239,-0.05584 C 2.8198814,18.103546 4.9807086,19 7.302666,19 c 7.562286,1e-6 11.697725,-6.227349 11.697725,-11.5258493 0,-0.053678 -0.0034,-0.106774 -0.0041,-0.160271 0.0016,-0.02618 0.003,-0.052378 0.0041,-0.078585 -0.0024,-2.1055459 -1.551238,-3.8895821 -3.63557,-4.1877294 -0.04509,-0.0082 -0.09101,-0.014736 -0.137523,-0.020681 -0.05094,-0.00472 -0.101958,-0.00851 -0.153033,-0.011374 -0.0667,-0.00476 -0.129802,-0.01551 -0.199563,-0.01551 -0.01849,0 -0.03638,0.00286 -0.0548,0.0031 -0.01826,-0.00115 -0.03653,-0.00218 -0.0548,-0.0031 z"/>
 <path style="opacity:0.1;fill:#8b9cbe" d="m 14.766016,3 c -2.339089,0 -4.236328,1.8952871 -4.236328,4.234375 0.01236,0.081838 0.01632,0.1642739 0.02539,0.2460938 C 10.688913,5.2619999 12.513901,3.5 14.766016,3.5 c 0.01827,9.2e-4 0.03643,0.00276 0.05469,0.00391 0.01842,-2.437e-4 0.0362,-0.00391 0.05469,-0.00391 0.06976,0 0.132519,0.010865 0.199219,0.015625 0.05108,0.00286 0.101403,0.007 0.152343,0.011719 0.04651,0.00594 0.09358,0.011331 0.138672,0.019531 2.05401,0.2938099 3.580459,2.0322029 3.626954,4.0976562 9.28e-4,-0.056354 0.0078,-0.1137683 0.0078,-0.1699218 0,-0.053678 -0.0032,-0.1066593 -0.0039,-0.1601563 0.0016,-0.02618 0.0028,-0.053871 0.0039,-0.080078 -0.0024,-2.1055459 -1.550434,-3.8893527 -3.634766,-4.1875 -0.04509,-0.0082 -0.09216,-0.013586 -0.138672,-0.019531 -0.05094,-0.00472 -0.101268,-0.00885 -0.152343,-0.011719 C 15.00791,3.010865 14.945152,3 14.875391,3 14.856901,3 14.839121,3.00367 14.820701,3.00391 14.802444,3.0027563 14.784286,3.00092 14.766016,3 Z m -4.173828,5.4550781 c -0.103932,2.6882069 -1.7915616,5.2241399 -3.5039067,6.5644529 -1.4070824,1.075451 -3.1812449,2.001953 -5.1074218,2.001953 -0.3318445,0 -0.6588349,-0.01765 -0.9804688,-0.05469 0.3165619,0.197943 0.6559099,0.3748 0.9921875,0.554687 1.9216204,-0.0038 3.6914946,-0.928698 5.0957031,-2.001953 1.8182585,-1.423215 3.6085407,-4.19434 3.5039067,-7.0644529 z"/>
 <path style="opacity:0.2" d="M 1.5507813,4.5000003 C 1.1966633,5.0902523 1,6.0318473 1,6.7643053 1,8.1509057 3.0071001,9.3231 4.1109916,10.039696 3.4366299,10.018946 2.0696822,9.787903 1.5150391,9.488598 c -4.775e-4,0.01667 -9.75e-4,0.03295 -9.75e-4,0.04981 0,1.936338 2.59725,3.94507 4.063726,4.47277 -1.466476,0 -2.4940348,-0.527344 -3.0217339,-0.527344 0.5235584,1.587734 2.7065239,2.983936 4.5068343,3.016171 l 3.4082035,0 c 0.03195,0 0.05731,-0.0066 0.08691,-0.0088 0.05901,0.0044 0.117604,0.007 0.176758,0.0088 0.044,0 0.08638,-0.0054 0.129883,-0.0068 0.04521,0.003 0.09046,0.0053 0.135742,0.0068 2.209139,0 4,-1.790861 4,-4 0,-2.209139 -1.790861,-3.9999998 -4,-3.9999998 -0.05374,8.5e-4 -0.107467,0.0028 -0.161133,0.00586 -0.03508,-9.68e-4 -0.06909,-0.00586 -0.104492,-0.00586 -4.4854425,0 -7.1779745,-1.7165689 -9.1839807,-3.9999999 z"/>
 <path style="fill:#3cbbff" d="M 1.5507813,4.0000003 C 1.1966633,4.5902523 1,5.5318473 1,6.2643053 1,7.6509057 3.0071001,8.8231002 4.1109916,9.539696 3.4366299,9.518946 2.0696822,9.287903 1.5150391,8.9885977 c -4.775e-4,0.016665 -9.75e-4,0.03295 -9.75e-4,0.049805 0,1.9363383 2.59725,3.9450703 4.063726,4.4727703 -1.466476,0 -2.4940348,-0.527344 -3.0217339,-0.527344 C 3.0796146,14.571563 5.2625801,15.967765 7.0628905,16 l 3.4082035,0 c 0.03195,0 0.05731,-0.0066 0.08691,-0.0088 0.05901,0.0044 0.117604,0.007 0.176758,0.0088 0.044,0 0.08638,-0.0054 0.129883,-0.0068 0.04521,0.003 0.09046,0.0053 0.135742,0.0068 2.209139,0 4,-1.790861 4,-4 0,-2.209139 -1.790861,-3.9999998 -4,-3.9999998 -0.05374,8.5e-4 -0.107467,0.0028 -0.161133,0.00586 -0.03508,-9.68e-4 -0.06909,-0.00586 -0.104492,-0.00586 -4.4854425,0 -7.1779745,-1.7165689 -9.1839807,-3.9999999 z"/>
 <circle style="fill:#085585" cx="16" cy="6" r="1"/>
 <path style="opacity:0.2;fill:#8b9cbe" d="m 1.5511719,4 c -0.354118,0.590252 -0.5507812,1.5312139 -0.5507812,2.2636719 0,0.044432 0.017458,0.086875 0.021484,0.1308593 C 1.0736542,5.734559 1.2533827,4.9963619 1.5511719,4.5 c 2.0060062,2.283431 4.6981516,4 9.1835941,4 0.0354,0 0.06844,0.00489 0.103516,0.00586 0.05367,-0.00306 0.108369,-0.00501 0.162109,-0.00586 2.123556,0 3.843208,1.659577 3.974609,3.75 0.0053,-0.08425 0.02539,-0.164417 0.02539,-0.25 0,-2.209139 -1.790861,-4 -4,-4 -0.05374,8.5e-4 -0.108443,0.0028 -0.162109,0.00586 C 10.803202,8.0048914 10.770168,8 10.734766,8 6.2493235,8 3.5571781,6.283431 1.5511719,4 Z m -0.037109,4.9882812 c -4.775e-4,0.016665 0,0.033927 0,0.050781 0,0.156806 0.022603,0.313774 0.054687,0.470704 0.5796137,0.288334 1.8855794,0.5090688 2.5429687,0.5292958 C 3.8425851,9.864353 3.5163637,9.660923 3.1820313,9.435547 2.5547792,9.337231 1.8699827,9.180348 1.5140626,8.9882812 Z m 1.0429687,3.9960938 c 0.060823,0.18445 0.1475886,0.365527 0.25,0.542969 0.5708841,0.102698 1.4928362,0.484375 2.7714844,0.484375 C 5.2249444,13.884489 4.8042709,13.666316 4.3714845,13.388672 3.5441752,13.23323 2.9232417,12.984375 2.5570313,12.984375 Z"/>
</svg>
