<svg xmlns="http://www.w3.org/2000/svg" width="22" height="22" version="1">
 <path style="opacity:0.2;fill:none;stroke:#000000;stroke-width:6" d="M 4,4.5001795 18,18.50018"/>
 <rect style="opacity:0.2" width="6" height="20" x="15" y="1.5" rx="2" ry="2"/>
 <rect style="opacity:0.2" width="6" height="20" x="1" y="1.5" rx="2" ry="2"/>
 <path style="fill:none;stroke:#17191e;stroke-width:6" d="M 4,4 18,18"/>
 <path style="opacity:0.1;fill:#8b9cbe" d="m 6.121094,1.8789063 -4.2421877,4.2421877 0.25,0.25 3.9921877,-3.9921877 13.75,13.7499997 0.25,-0.25 z"/>
 <rect style="fill:#4f4f4f" width="6" height="20" x="1" y="1" rx="2" ry="2"/>
 <rect style="fill:#4f4f4f" width="6" height="20" x="15" y="1" rx="2" ry="2"/>
 <path style="opacity:0.1;fill:#8b9cbe" d="M 3,1 C 1.892,1 1,1.892 1,3 v 0.5 c 0,-1.108 0.892,-2 2,-2 h 2 c 1.108,0 2,0.892 2,2 V 3 C 7,1.892 6.108,1 5,1 Z"/>
 <path style="opacity:0.1;fill:#8b9cbe" d="m 17,1 c -1.108,0 -2,0.892 -2,2 v 0.5 c 0,-1.108 0.892,-2 2,-2 h 2 c 1.108,0 2,0.892 2,2 V 3 C 21,1.892 20.108,1 19,1 Z"/>
</svg>
