<svg xmlns="http://www.w3.org/2000/svg" width="22" height="22" version="1">
 <rect style="opacity:0.2" width="20" height="20" x="1" y="1.5" rx="1" ry="1"/>
 <rect style="fill:#f55e07" width="20" height="20" x="1" y="1" rx="1" ry="1"/>
 <path style="opacity:0.2;fill:#8b9cbe" d="M 2,1 C 1.446,1 1,1.446 1,2 v 0.5 c 0,-0.554 0.446,-1 1,-1 h 18 c 0.554,0 1,0.446 1,1 V 2 C 21,1.446 20.554,1 20,1 Z"/>
 <path style="fill:#4c4c4c" d="m 10.991116,3 c 4.535258,0 7.999999,3.4602998 7.999999,7.991116 0,4.535259 -3.46474,8 -7.999999,8 C 6.4602998,18.991116 3,15.526374 3,10.991116 3,6.4602998 6.4602998,3 10.991116,3 Z M 3,3 Z m 16,16 z"/>
 <path style="opacity:0.2" d="m 10.995837,6.5 c 2.835137,0 5,2.1648631 5,4.995837 0,2.835137 -2.164863,5 -5,5 -2.8309741,0 -4.9958367,-2.164863 -4.9958367,-5 C 6.0000003,8.6648631 8.1648629,6.5 10.995837,6.5 Z m -4.9958368,0 z M 16,16.5 Z"/>
 <path style="fill:#808080" d="m 10.995837,6 c 2.835137,0 5,2.1648631 5,4.995837 0,2.835137 -2.164863,5 -5,5 -2.8309741,0 -4.9958367,-2.164863 -4.9958367,-5 C 6.0000003,8.1648631 8.1648629,6 10.995837,6 Z M 6.0000002,6 Z M 16,16 Z"/>
 <path style="fill:#333333" d="m 10.996672,9 c 1.134775,0 2.000001,0.865224 2.000001,1.996672 0,1.134775 -0.865226,2 -2.000001,2 -1.131448,0 -1.9966721,-0.865225 -1.9966721,-2 C 8.9999999,9.865224 9.865224,9 10.996672,9 Z M 9,9 Z m 4,4 z"/>
 <path style="opacity:0.2" d="M 10.990234,3 C 6.4594182,3 3,6.4594182 3,10.990234 c 0,0.08458 0.00933,0.166186 0.011719,0.25 C 3.1378394,6.8341978 6.5441069,3.5 10.990234,3.5 c 4.450487,0 7.862,3.3341978 7.988282,7.740234 0.0024,-0.08381 0.01172,-0.165425 0.01172,-0.25 0,-4.5308158 -3.464742,-7.990234 -8,-7.990234 z"/>
</svg>
