<svg xmlns="http://www.w3.org/2000/svg" width="22" height="22" version="1">
 <path style="opacity:0.2" d="M 2.5,1.5 C 2.396125,1.5 2.295088,1.511334 2.1972656,1.53125 2.0997486,1.551163 2.0055493,1.579449 1.9160156,1.617187 1.8262265,1.6550391 1.7399315,1.7020528 1.6601562,1.7558594 1.261551,2.0249467 1,2.4808932 1,3 V 16.5 L 2.9804688,19.328125 3.1015625,19.5 3.3339844,19.833984 4.5,21.5 5.6660156,19.833984 5.8984375,19.5 6.0195312,19.328125 8,16.5 v -2.787109 l 4.859375,5.984375 c 0.485629,0.645378 1.109887,1.268991 1.855469,1.576172 C 14.943617,21.414371 15.210519,21.5 15.5,21.5 h 0.833984 1.115235 1.216797 H 19.5 C 20.331,21.5 21,20.831 21,20 V 3 C 21,2.169 20.331,1.5 19.5,1.5 H 18.666016 16.333984 15.5 C 14.668999,1.5 14,2.169 14,3 V 9.587891 L 7.6308594,2.0175781 c -0.010957,-0.012621 -0.019882,-0.026819 -0.03125,-0.039063 l -0.00977,-0.00977 h -0.00195 C 7.5127931,1.8895009 7.430665,1.8171703 7.3398438,1.7558594 7.1805004,1.6484065 6.9980596,1.5711353 6.8027344,1.53125 6.7049481,1.5113339 6.6038753,1.5 6.5,1.5 H 5.6660156 3.3339844 Z"/>
 <path style="fill:#fabe5c" d="M 2.5,1.5 C 2.432496,1.5 2.3650851,1.5076 2.296875,1.521484 2.228456,1.535455 2.16565,1.554406 2.109375,1.578125 2.050475,1.602955 1.9925831,1.634087 1.9394531,1.669922 1.6738673,1.8492116 1.5,2.1488426 1.5,2.5 v 13.341797 l 1.8886719,2.699219 0.1210937,0.171875 a 0.50005,0.50005 0 0 0 0.00195,0.002 L 3.7441406,19.046875 4.5,20.126953 5.2558594,19.046875 5.4882812,18.714844 a 0.50005,0.50005 0 0 0 0.00195,-0.002 L 5.6113281,18.541016 7.5,15.841797 v -2.628906 a 0.50005,0.50005 0 0 1 0.8886719,-0.314453 l 4.8593751,5.984374 a 0.50005,0.50005 0 0 1 0.01172,0.01367 c 0.454894,0.604533 1.030388,1.16023 1.646484,1.414063 a 0.50005,0.50005 0 0 1 0.07031,0.03711 C 15.134479,20.44494 15.30912,20.5 15.5,20.5 h 0.833984 1.115235 1.216797 H 19.5 c 0.562649,0 1,-0.437351 1,-1 v -17 c 0,-0.5626486 -0.437351,-1 -1,-1 H 18.666016 16.333984 15.5 c -0.56265,0 -1,0.437351 -1,1 V 9.087891 A 0.50005,0.50005 0 0 1 13.617188,9.410156 L 7.2539062,1.8457031 C 7.2182952,1.8046961 7.2236781,1.8111347 7.2363281,1.8242188 A 0.50005,0.50005 0 0 1 7.2246094,1.8125 C 7.1702128,1.7550979 7.1160749,1.7074069 7.0605469,1.6699219 6.9557555,1.5992564 6.8342187,1.5482534 6.703125,1.5214844 6.6349998,1.5076104 6.567504,1.5 6.5,1.5 H 5.6660156 3.3339844 Z M 7.2617188,1.8476562 7.3828125,1.96875 H 7.5820312 A 0.50005,0.50005 0 0 1 7.2617188,1.8476562 Z"/>
 <path style="fill:#faab00" d="M 5.8880427,2.2345826 C 4.6329932,2.5946961 5.916591,1.1069584 5.8251955,1.180664 l -0.694336,0.5605469 13.2116465,16.3824741 1.620086,2.008911 v 0 l 0.326063,-0.875454 -0.02282,-1.786033 -0.08285,-0.739964 -0.32188,-0.678449 L 7.5904616,1.4681957 6.9381165,1.5597356 C 6.7012015,1.2659584 6.136532,1.306696 5.8251955,1.180664 Z"/>
 <path style="fill:#ffcd6e" d="M 3.1845703,3.3105469 2.4902344,3.8701172 C 1.7971664,4.4290385 1.7639408,5.530288 2.4160156,6.338867 L 12.858451,19.196873 c 0.719601,0.956317 1.738536,1.884308 3.015481,1.767565 L 16.333334,21 h 1.116861 z"/>
 <path style="fill:#f5b94a" d="M 5.1308595,1.741211 3.1845703,3.3105469 17.450195,21 19.962592,20.132596 19.65262,19.748231 Z"/>
 <path style="fill:#faab00" d="m 18.666667,1 v 20 h 0.833072 C 20.330739,21 21,20.331 21,19.5 V 2.5 C 21,1.669 20.330739,1 19.499739,1 Z"/>
 <path style="fill:#f5b94a" d="M 3.3333333,1 V 19.333008 L 4.5,21 5.6666667,19.333008 V 1 Z"/>
 <path style="fill:#faab00" d="M 5.6666667,1 V 19.333008 L 8,16 V 2.5 C 8,1.9808932 7.7387096,1.5249467 7.3401044,1.2558594 c -2.268e-4,-1.529e-4 -7e-4,1.527e-4 -9.333e-4,0 C 7.1798277,1.1484065 6.998559,1.0701588 6.8032338,1.0302735 c -2.912e-4,-5.93e-5 -6.067e-4,5.91e-5 -9.333e-4,0 C 6.7045142,1.0103574 6.6036148,1 6.4997395,1 Z"/>
 <path style="fill:#ffcd6e" d="M 2.5002604,1 C 2.3963854,1 2.2945671,1.0103574 2.1967447,1.0302735 2.0992278,1.0501864 2.0046379,1.0794488 1.9151042,1.1171875 1.8253151,1.1550391 1.7396712,1.2020528 1.6598959,1.2558594 1.2612906,1.5249467 1,1.9808932 1,2.5 V 16 l 2.3333333,3.333008 V 1 Z"/>
 <path style="fill:#ffcd6e" d="M 15.500261,1 C 14.66926,1 14,1.669 14,2.5 v 17 c 0,0.831 0.66926,1.5 1.500261,1.5 h 0.833072 V 1 Z"/>
 <rect style="fill:#f5b94a" width="2.333" height="20" x="16.33" y="1"/>
 <rect style="fill:#8d8d8d" width="7" height="2" x="14" y="5"/>
 <path style="fill:#ff7863" d="M 15.500261,1 C 14.66926,1 14,1.6689997 14,2.5 V 5 h 7 V 2.5 C 21,1.6689997 20.330739,1 19.499739,1 Z"/>
 <path style="fill:#f8e2c8" d="M 1,16 2.9804688,18.828125 3.1015625,19 h 2.796875 L 6.0195312,18.828125 8,16 Z"/>
 <path style="fill:#8d6e63" d="M 3.1015625,19 4.5,21 5.8984375,19 Z"/>
 <path style="opacity:0.2;fill:#8b9cbe" d="M 15.500261,1 C 14.66926,1 14,1.6689997 14,2.5 V 3 c 0,-0.8310002 0.66926,-1.5 1.500261,-1.5 h 3.999478 C 20.330739,1.5 21,2.1689997 21,3 V 2.5 C 21,1.6689997 20.330739,1 19.499739,1 Z"/>
 <rect style="opacity:0.2" width="7" height=".5" x="14" y="5"/>
 <rect style="opacity:0.2;fill:#8b9cbe" width="7" height=".5" x="14" y="7"/>
 <path style="opacity:0.2;fill:#8b9cbe" d="m 1,16 0.35,0.5 h 6.3 L 8,16 Z"/>
 <path style="opacity:0.2;fill:#8b9cbe" d="M 2.5,1 C 2.396125,1 2.295088,1.0113339 2.1972656,1.03125 2.0997487,1.0511629 2.0055493,1.0794488 1.9160156,1.1171875 1.8262265,1.1550391 1.7399315,1.2020528 1.6601562,1.2558594 1.2615512,1.5249467 1,1.9808932 1,2.5 V 3 C 1,2.4808932 1.2615512,2.0249467 1.6601562,1.7558594 1.7399316,1.7020528 1.8262265,1.6550396 1.9160156,1.6171875 2.0055493,1.5794495 2.0997486,1.551163 2.1972656,1.53125 2.295088,1.511334 2.396125,1.5 2.5,1.5 H 3.3339844 5.6660156 6.5 c 0.1038753,0 0.2049481,0.011334 0.3027344,0.03125 0.1953252,0.039885 0.3777658,0.1171565 0.5371094,0.2246094 0.090821,0.061311 0.1729505,0.1336464 0.2480468,0.2128906 h 0.00195 l 0.00977,0.00977 c 0.011368,0.012244 0.020293,0.026441 0.03125,0.039063 L 14,9.585938 v -0.5 L 7.6308594,1.5175781 c -0.010957,-0.012621 -0.019882,-0.026819 -0.03125,-0.039063 l -0.00977,-0.00977 h -0.00195 C 7.5127931,1.3895009 7.4306648,1.3171703 7.3398438,1.2558594 7.1805002,1.1484065 6.9980596,1.0711353 6.8027344,1.03125 6.7049481,1.0113339 6.6038753,1 6.5,1 H 5.6660156 3.3339844 Z"/>
</svg>
