<svg xmlns="http://www.w3.org/2000/svg" width="22" height="22" version="1.1">
 <path style="opacity:0.2" d="M 21,11.499908 C 21,17.022758 16.522856,21.499941 11.000199,21.5 5.481298,21.500059 0.99925203,17.017424 1.0000002,11.498523 1.0007488,5.9762725 5.4776645,1.4999979 11.00009,1.4999979 c 1.651653,0 3.209822,0.4004934 4.582819,1.1097894 0.07006,0.036196 0.09051,0.1269229 0.04286,0.1897696 L 14.578212,4.181535 c -0.0516,0.06807 -0.143568,0.090768 -0.221078,0.054876 C 13.340137,3.7654806 12.207478,3.5018468 11.013532,3.4998826 6.594836,3.4926125 2.999997,7.081311 3.0000549,11.500014 c 5.65e-5,4.405687 3.5612156,7.97942 7.9621191,7.999841 4.433502,0.02057 8.023685,-3.540524 8.037731,-7.97405 0.0021,-0.670257 -0.07822,-1.321547 -0.231501,-1.944032 -0.01702,-0.06909 0.0014,-0.142108 0.04865,-0.195378 L 20.13344,7.899782 C 20.19655,7.828518 20.313172,7.849193 20.347087,7.938132 20.768998,9.044602 21,10.245119 21,11.499908 Z"/>
 <path style="fill:#b2bfd9" d="m 11,20 c 4.970566,0 9,-4.029434 9,-9 0,-4.9705665 -4.029434,-9 -9,-9 -4.9705665,0 -9,4.0294335 -9,9 0,4.970566 4.0294335,9 9,9 z"/>
 <path style="opacity:0.1" class="st0" d="M 20.468246,5.4018994 10.699602,16.457462 c -0.04809,0.05442 -0.131985,0.05699 -0.183294,0.0056 L 6.0369203,11.977594 c -0.041145,-0.0412 -0.04878,-0.105284 -0.018465,-0.155036 L 7.2328128,9.829464 c 0.042495,-0.06974 0.138914,-0.08124 0.1965545,-0.02344 l 2.6858387,2.693258 c 0.03857,0.03868 0.102343,0.03431 0.135306,-0.0093 l 7.519509,-9.9401902 c 0.04206,-0.055597 0.12158,-0.066229 0.176989,-0.023991 0.991025,0.7554536 1.849203,1.6771816 2.532632,2.7236506 0.031,0.04746 0.02613,0.109947 -0.01139,0.1524125 z"/>
 <path style="fill:#0bbe5b" class="st0" d="M 20.468246,4.9019004 10.699602,15.957463 c -0.04809,0.05442 -0.131985,0.05699 -0.183294,0.0056 L 6.0369203,11.477596 c -0.041145,-0.0412 -0.04878,-0.105285 -0.018465,-0.155037 L 7.2328128,9.329466 c 0.042495,-0.06974 0.138914,-0.08124 0.1965545,-0.02344 l 2.6858387,2.693258 c 0.03857,0.03867 0.102343,0.03431 0.135306,-0.0093 l 7.519509,-9.9401902 c 0.04206,-0.055597 0.12158,-0.066229 0.176989,-0.023991 0.991025,0.7554536 1.849203,1.6771816 2.532632,2.7236506 0.031,0.04746 0.02613,0.109947 -0.01139,0.1524125 z"/>
 <path style="fill:#17191e" d="m 21,10.999909 c 0,5.52285 -4.477144,10.000033 -9.999801,10.000092 C 5.481298,21.00006 0.99925203,16.517425 1.0000002,10.998523 1.0007488,5.4762735 5.4776645,0.9999989 11.00009,0.9999989 c 1.651653,0 3.209822,0.4004934 4.582819,1.1097894 0.07006,0.036196 0.09051,0.126923 0.04286,0.1897696 l -1.047562,1.3819782 c -0.0516,0.06807 -0.143568,0.090768 -0.221078,0.054876 C 13.340137,3.2654816 12.207478,3.0018478 11.013532,2.9998837 6.594836,2.9926135 2.999997,6.581312 3.0000549,11.000015 c 5.65e-5,4.405686 3.5612156,7.97942 7.9621191,7.999841 4.433502,0.02057 8.023685,-3.540524 8.037731,-7.97405 0.0021,-0.670257 -0.07822,-1.321547 -0.231501,-1.944032 -0.01702,-0.06909 0.0014,-0.142108 0.04865,-0.195378 L 20.13344,7.399783 C 20.19655,7.32852 20.313172,7.349194 20.347087,7.438133 20.768998,8.544603 21,9.74512 21,10.999909 Z"/>
 <path style="opacity:0.1;fill:#8b9cbe" d="M 11,1 C 5.4775745,1 1.0007486,5.475797 1,10.998047 c -1.137e-5,0.08378 0.00381,0.166714 0.00586,0.25 C 1.1398973,5.841896 5.561563,1.5 11,1.5 c 1.596194,0 3.10357,0.3766545 4.442383,1.0419922 l 0.183593,-0.2421875 c 0.04764,-0.062847 0.0271,-0.1542342 -0.04297,-0.1904297 C 14.21001,1.400079 12.651653,1 11,1 Z m 9.250976,6.3583985 c -0.04128,-0.00738 -0.08563,0.00539 -0.117187,0.041015 l -1.316406,1.487305 c -0.0472,0.05327 -0.06584,0.1262225 -0.04883,0.1953125 0.02356,0.09567 0.04144,0.193043 0.06152,0.290039 l 1.303711,-1.4726565 c 0.0631,-0.071263 0.178976,-0.049875 0.212891,0.039065 0.402211,1.054807 0.625027,2.1964095 0.645508,3.3876955 C 20.995673,11.217638 21,11.109381 21,11 21,9.745211 20.76859,8.5449465 20.346679,7.4384765 c -0.01696,-0.04447 -0.05442,-0.0727 -0.0957,-0.080078 z M 18.991211,11.194336 C 18.887026,15.548282 15.338421,19.020305 10.961914,19 6.6453415,18.97997 3.1456321,15.539011 3.0126953,11.25 3.0100945,11.333745 2.9999989,11.415631 3,11.5 c 5.64e-5,4.405687 3.5610105,7.979579 7.961914,8 4.433502,0.02057 8.02404,-3.541083 8.038086,-7.974609 3.48e-4,-0.111161 -0.0047,-0.220983 -0.0088,-0.331055 z"/>
</svg>
