<svg xmlns="http://www.w3.org/2000/svg" width="22" height="22" version="1">
 <path style="opacity:0.2" d="M 9.0330723,4.5 C 8.1024735,4.4880579 7.1638995,5.1008656 7.0174474,6.2753906 3.9430843,7.1376469 1.7029943,9.128906 1.7029943,9.128906 c -0.67129,0.572028 -0.8886928,1.516223 -0.5351562,2.324219 0,0 1.8224817,3.894386 5.8496093,5.28125 0.1188196,1.006177 0.971207,1.7646 1.9843749,1.765625 h 8.9980467 c 1.104524,-1.1e-4 1.99989,-0.895476 2,-2 v -10 c -1.1e-4,-1.1045238 -0.895476,-1.9998896 -2,-2 z m 1.9394527,1.6835938 0.0098,0.00781 c -0.0025,-6.42e-4 -0.0053,-0.00131 -0.0078,-0.00195 -3.59e-4,-0.00212 -0.0016,-0.00374 -0.002,-0.00586 z"/>
 <path style="fill:#4ca341" d="M 9.0330723,4 C 8.1024735,3.9880579 7.1638995,4.6008656 7.0174474,5.7753906 3.9430843,6.6376469 1.7029943,8.6289063 1.7029943,8.6289062 1.0317043,9.200934 0.8143015,10.145129 1.1678381,10.953125 c 0,0 1.8224817,3.894386 5.8496093,5.28125 0.1188196,1.006177 0.971207,1.7646 1.9843749,1.765625 h 8.9980467 c 1.104524,-1.1e-4 1.99989,-0.895476 2,-2 V 6 c -1.1e-4,-1.1045238 -0.895476,-1.9998896 -2,-2 z m 1.9394527,1.6835938 0.0098,0.00781 c -0.0025,-6.42e-4 -0.0053,-0.00131 -0.0078,-0.00195 -3.59e-4,-0.00212 -0.0016,-0.00374 -0.002,-0.00586 z"/>
 <path style="fill:#262626" d="m 4.5324693,10.305 c 0,0 1.76084,-2.016 4.46864,-2.2245 V 7.3491 c -2.9996,0.2425 -6.00124,2.8019 -6.00124,2.8019 0,0 1.87564,4.2844 6.00114,4.6768 v -0.7774 c -3.0275,-0.384 -4.46854,-3.746 -4.46854,-3.746 z m 4.46864,2.1993 v 0.71195 c -2.2882,-0.411 -3.32794,-2.807 -3.32794,-2.807 0,0 1.50324,-1.2262 3.32784,-1.425 V 9.7655 c -0.0012,0 -0.0019,-4.05e-4 -0.0029,-4.05e-4 -0.95765,-0.11578 -2.11044,0.78555 -2.11044,0.78555 0,0 0.82395,1.5174 2.11384,1.954 m 0,-6.504 v 1.349 c 0.08805,-0.00674 -0.22855,-0.0125 -0.14002,-0.01554 3.4097997,-0.11578 5.6314997,2.8176 5.6314997,2.8176 0,0 -2.5517,3.1262 -5.2099997,3.1262 -0.24364,0 -0.0671,-0.02278 -0.28136,-0.06101 v 0.8342 c 0.1832,0.0234 -0.03149,0.03722 0.16671,0.03722 2.4737997,0 4.2628997,-1.2729 5.9949997,-2.7794 0.28722,0.23176 1.463,0.79555 1.7048,1.0424 -1.6471,1.3894 -5.486,2.5094 -7.6619997,2.5094 -0.20977,0 -0.0066,-0.01279 -0.20461,-0.03204 v 1.1722 h 8.9983597 v -10 H 9.0015293 Z m 0,2.9838 v -0.9034 c 0.08714,-0.00521 -0.2297,-0.01083 -0.14002,-0.013715 2.4519997,-0.0776 4.0605997,2.123 4.0605997,2.123 0,0 -1.7375,2.4312 -3.6003997,2.4312 -0.26811,0 -0.10386,-0.0434 -0.32021,-0.1167 v -2.7392 c 0.95455,0.11621 0.74206,0.54105 1.3159597,1.5049 l 1.2764,-1.0844 c 0,0 -0.9317,-1.2312 -2.5023997,-1.2312 -0.1707,0 0.07054,0.0121 -0.08986,0.0293"/>
 <path style="opacity:0.2;fill:#8b9cbe" d="M 9.0330723,4 C 8.1024736,3.9880579 7.1638995,4.6008656 7.0174474,5.7753906 3.9430843,6.6376469 1.7029943,8.6289063 1.7029943,8.6289062 1.1619592,9.08994 0.9231574,9.792315 1.0330724,10.470703 1.0800794,9.963223 1.295738,9.475943 1.7029943,9.128906 c 0,0 2.24009,-1.9912591 5.3144531,-2.8535154 C 7.1638995,5.1008656 8.1024736,4.4880579 9.0330723,4.5 h 8.9667967 c 1.104524,1.104e-4 1.99989,0.8954762 2,2 V 6 c -1.1e-4,-1.1045238 -0.895476,-1.9998896 -2,-2 z m 1.9394527,2.1835938 c 4e-4,0.00212 0.0016,0.00374 0.002,0.00586 0.0025,6.4e-4 0.0053,0.00131 0.0078,0.00195 z"/>
</svg>
