<svg xmlns="http://www.w3.org/2000/svg" width="22" height="22" version="1.1">
 <g transform="translate(0,-292.65)">
  <rect style="fill:#17191e" width="18" height="18" x="2" y="294.65" rx=".581" ry=".546"/>
  <path style="opacity:0.2;stroke:#808080;stroke-width:0;stroke-linecap:round;stroke-linejoin:round" d="m 1.5000006,294.14999 c -0.2769997,0 -0.5000001,0.22299 -0.5000001,0.49999 v 5.00001 c 0,0.27704 0.2230004,0.5 0.5000001,0.5 h 4.9999989 c 0.2769978,0 0.4999997,-0.223 0.4999997,-0.5 v -5.00001 c 0,-0.27704 -0.2229996,-0.49999 -0.4999997,-0.49999 z m 6.9999985,0 c -0.2770016,0 -0.5000001,0.22299 -0.5000001,0.49999 v 5.00001 c 0,0.27704 0.2229997,0.5 0.5000001,0.5 h 4.9999989 c 0.277001,0 0.5,-0.223 0.5,-0.5 v -5.00001 c 0,-0.27704 -0.223,-0.49999 -0.5,-0.49999 z m 6.9999979,0 c -0.277001,0 -0.499999,0.22299 -0.499999,0.49999 v 5.00001 c 0,0.27704 0.222999,0.5 0.499999,0.5 h 4.999999 c 0.276998,0 0.500001,-0.223 0.500001,-0.5 v -5.00001 c 0,-0.27704 -0.223003,-0.49999 -0.500001,-0.49999 z m -13.9999964,6.99998 c -0.2769997,0 -0.5000001,0.223 -0.5000001,0.50003 v 4.99998 c 0,0.27704 0.2230004,0.49999 0.5000001,0.49999 h 4.9999989 c 0.2769978,0 0.4999997,-0.22299 0.4999997,-0.49999 V 301.65 c 0,-0.27703 -0.2229996,-0.50003 -0.4999997,-0.50003 z m 6.9999985,0 c -0.2770016,0 -0.5000001,0.223 -0.5000001,0.50003 v 4.99998 c 0,0.27704 0.2229997,0.49999 0.5000001,0.49999 h 4.9999989 c 0.277001,0 0.5,-0.22299 0.5,-0.49999 V 301.65 c 0,-0.27703 -0.223,-0.50003 -0.5,-0.50003 z m 6.9999979,0 c -0.277001,0 -0.499999,0.223 -0.499999,0.50003 v 4.99998 c 0,0.27704 0.222999,0.49999 0.499999,0.49999 h 4.999999 c 0.276998,0 0.500001,-0.22299 0.500001,-0.49999 V 301.65 c 0,-0.27703 -0.223003,-0.50003 -0.500001,-0.50003 z M 1.5000006,308.15 c -0.2769997,0 -0.5000001,0.22299 -0.5000001,0.49999 V 313.65 c 0,0.27704 0.2230004,0.5 0.5000001,0.5 h 4.9999989 c 0.2769978,0 0.4999997,-0.22299 0.4999997,-0.5 v -5.00001 c 0,-0.27704 -0.2229996,-0.49999 -0.4999997,-0.49999 z m 6.9999985,0 c -0.2770016,0 -0.5000001,0.22299 -0.5000001,0.49999 V 313.65 c 0,0.27704 0.2229997,0.5 0.5000001,0.5 h 4.9999989 c 0.277001,0 0.5,-0.22299 0.5,-0.5 v -5.00001 c 0,-0.27704 -0.223,-0.49999 -0.5,-0.49999 z m 6.9999979,0 c -0.277001,0 -0.499999,0.22299 -0.499999,0.49999 V 313.65 c 0,0.27704 0.222999,0.5 0.499999,0.5 h 4.999999 c 0.276998,0 0.500001,-0.22299 0.500001,-0.5 v -5.00001 c 0,-0.27704 -0.223003,-0.49999 -0.500001,-0.49999 z"/>
  <path style="fill:#b7e267;stroke:#808080;stroke-width:0;stroke-linecap:round;stroke-linejoin:round" d="m 1.5000006,293.64999 c -0.2769997,0 -0.4999999,0.223 -0.4999999,0.5 V 299.15 c 0,0.27704 0.223,0.49999 0.4999999,0.49999 h 4.9999989 c 0.2770016,0 0.5000001,-0.22299 0.5000001,-0.49999 v -5.00001 c 0,-0.27704 -0.2229997,-0.5 -0.5000001,-0.5 z"/>
  <path style="fill:#3bd3e0;stroke:#808080;stroke-width:0;stroke-linecap:round;stroke-linejoin:round" d="m 8.4999991,293.64999 c -0.2770016,0 -0.5000001,0.223 -0.5000001,0.5 V 299.15 c 0,0.27704 0.2229997,0.49999 0.5000001,0.49999 h 4.9999989 c 0.277001,0 0.5,-0.22299 0.5,-0.49999 v -5.00001 c 0,-0.27704 -0.223,-0.5 -0.5,-0.5 z"/>
  <path style="fill:#3bd3e0;stroke:#808080;stroke-width:0;stroke-linecap:round;stroke-linejoin:round" d="m 15.499998,293.64999 c -0.277002,0 -0.5,0.223 -0.5,0.5 V 299.15 c 0,0.27704 0.222999,0.49999 0.5,0.49999 h 4.999998 c 0.276998,0 0.500001,-0.22299 0.500001,-0.49999 v -5.00001 c 0,-0.27704 -0.223003,-0.5 -0.500001,-0.5 z"/>
  <path style="fill:#b7e267;stroke:#808080;stroke-width:0;stroke-linecap:round;stroke-linejoin:round" d="m 1.5000006,300.64998 c -0.2769997,0 -0.4999999,0.22299 -0.4999999,0.49999 v 5.00002 c 0,0.27703 0.223,0.49999 0.4999999,0.49999 h 4.9999989 c 0.2770016,0 0.5000001,-0.22299 0.5000001,-0.49999 v -5.00002 c 0,-0.27704 -0.2229997,-0.49999 -0.5000001,-0.49999 z"/>
  <path style="fill:#509b1e;stroke:#808080;stroke-width:0;stroke-linecap:round;stroke-linejoin:round" d="m 8.4999991,300.64998 c -0.2770016,0 -0.5000001,0.22299 -0.5000001,0.49999 v 5.00002 c 0,0.27703 0.2229997,0.49999 0.5000001,0.49999 h 4.9999989 c 0.277001,0 0.5,-0.22299 0.5,-0.49999 v -5.00002 c 0,-0.27704 -0.223,-0.49999 -0.5,-0.49999 z"/>
  <path style="fill:#3bd3e0;stroke:#808080;stroke-width:0;stroke-linecap:round;stroke-linejoin:round" d="m 15.499998,300.64998 c -0.277002,0 -0.5,0.22299 -0.5,0.49999 v 5.00002 c 0,0.27703 0.222999,0.49999 0.5,0.49999 h 4.999998 c 0.276998,0 0.500001,-0.22299 0.500001,-0.49999 v -5.00002 c 0,-0.27704 -0.223003,-0.49999 -0.500001,-0.49999 z"/>
  <path style="fill:#509b1e;stroke:#808080;stroke-width:0;stroke-linecap:round;stroke-linejoin:round" d="m 1.5000006,307.65 c -0.2769997,0 -0.4999999,0.223 -0.4999999,0.5 v 4.99997 c 0,0.27704 0.223,0.50003 0.4999999,0.50003 h 4.9999989 c 0.2770016,0 0.5000001,-0.22299 0.5000001,-0.50003 V 308.15 c 0,-0.27704 -0.2229997,-0.5 -0.5000001,-0.5 z"/>
  <path style="fill:#007aa0;stroke:#808080;stroke-width:0;stroke-linecap:round;stroke-linejoin:round" d="m 8.4999991,307.65 c -0.2770016,0 -0.5000001,0.223 -0.5000001,0.5 v 4.99997 c 0,0.27704 0.2229997,0.50003 0.5000001,0.50003 h 4.9999989 c 0.277001,0 0.5,-0.22299 0.5,-0.50003 V 308.15 c 0,-0.27704 -0.223,-0.5 -0.5,-0.5 z"/>
  <path style="fill:#007aa0;stroke:#808080;stroke-width:0;stroke-linecap:round;stroke-linejoin:round" d="m 15.499998,307.65 c -0.277002,0 -0.5,0.223 -0.5,0.5 v 4.99997 c 0,0.27704 0.222999,0.50003 0.5,0.50003 h 4.999998 c 0.276998,0 0.500001,-0.22299 0.500001,-0.50003 V 308.15 c 0,-0.27704 -0.223003,-0.5 -0.500001,-0.5 z"/>
  <path style="opacity:0.2;fill:#8b9cbe;stroke:#808080;stroke-width:0;stroke-linecap:round;stroke-linejoin:round" d="m 1.5000005,293.64999 c -0.2769997,0 -0.4999999,0.223 -0.4999999,0.5 v 0.49999 c 0,-0.27704 0.223,-0.49999 0.4999999,-0.49999 h 4.999999 c 0.2769978,0 0.4999997,0.22299 0.4999997,0.49999 v -0.49999 c 0,-0.27704 -0.2229996,-0.5 -0.4999997,-0.5 z m 6.9999986,0 c -0.2770016,0 -0.5000001,0.223 -0.5000001,0.5 v 0.49999 c 0,-0.27704 0.2229997,-0.49999 0.5000001,-0.49999 h 4.9999989 c 0.277002,0 0.5,0.22299 0.5,0.49999 v -0.49999 c 0,-0.27704 -0.223,-0.5 -0.5,-0.5 z m 6.9999989,0 c -0.277002,0 -0.5,0.223 -0.5,0.5 v 0.49999 c 0,-0.27704 0.222999,-0.49999 0.5,-0.49999 h 4.999999 c 0.276997,0 0.499999,0.22299 0.499999,0.49999 v -0.49999 c 0,-0.27704 -0.222999,-0.5 -0.499999,-0.5 z m -13.9999975,6.99999 c -0.2769997,0 -0.4999999,0.22299 -0.4999999,0.49999 v 0.5 c 0,-0.27704 0.223,-0.5 0.4999999,-0.5 h 4.999999 c 0.2769978,0 0.4999997,0.223 0.4999997,0.5 v -0.5 c 0,-0.27704 -0.2229996,-0.49999 -0.4999997,-0.49999 z m 6.9999986,0 c -0.2770016,0 -0.5000001,0.22299 -0.5000001,0.49999 v 0.5 c 0,-0.27704 0.2229997,-0.5 0.5000001,-0.5 h 4.9999989 c 0.277002,0 0.5,0.223 0.5,0.5 v -0.5 c 0,-0.27704 -0.223,-0.49999 -0.5,-0.49999 z m 6.9999989,0 c -0.277002,0 -0.5,0.22299 -0.5,0.49999 v 0.5 c 0,-0.27704 0.222999,-0.5 0.5,-0.5 h 4.999999 c 0.276997,0 0.499999,0.223 0.499999,0.5 v -0.5 c 0,-0.27704 -0.222999,-0.49999 -0.499999,-0.49999 z m -13.9999975,6.99999 c -0.2769997,0 -0.4999999,0.22299 -0.4999999,0.49999 v 0.50003 c 0,-0.27704 0.223,-0.50003 0.4999999,-0.50003 h 4.999999 c 0.2769978,0 0.4999997,0.22299 0.4999997,0.50003 v -0.50003 c 0,-0.27704 -0.2229996,-0.49999 -0.4999997,-0.49999 z m 6.9999986,0 c -0.2770016,0 -0.5000001,0.22299 -0.5000001,0.49999 v 0.50003 c 0,-0.27704 0.2229997,-0.50003 0.5000001,-0.50003 h 4.9999989 c 0.277002,0 0.5,0.22299 0.5,0.50003 v -0.50003 c 0,-0.27704 -0.223,-0.49999 -0.5,-0.49999 z m 6.9999989,0 c -0.277002,0 -0.5,0.22299 -0.5,0.49999 v 0.50003 c 0,-0.27704 0.222999,-0.50003 0.5,-0.50003 h 4.999999 c 0.276997,0 0.499999,0.22299 0.499999,0.50003 v -0.50003 c 0,-0.27704 -0.222999,-0.49999 -0.499999,-0.49999 z"/>
 </g>
</svg>
