<svg xmlns="http://www.w3.org/2000/svg" width="22" height="22" version="1">
 <path style="opacity:0.2" d="m 9.4988609,1.500384 c -4.6639745,0 -8.4984785,3.8356587 -8.4984785,8.501037 0,4.665378 3.834504,8.501037 8.4984785,8.501037 l 0.0039,0 c 0.9309491,-0.0015 1.8358851,-0.19343 2.7085001,-0.490294 l 2.259361,2.260041 c 1.378787,1.379204 3.850687,1.806071 5.479488,0.17678 1.627625,-1.628116 1.201082,-4.101938 -0.176727,-5.480161 l -2.261308,-2.261995 c 0.294575,-0.871682 0.484915,-1.775098 0.485265,-2.704431 l 0,-10e-4 c 0,-4.6653553 -3.834504,-8.501014 -8.4984771,-8.501014 z"/>
 <path style="fill:#4f4f4f" d="m 9.4988609,1.0003934 c -4.6639745,0 -8.4984785,3.8356589 -8.4984785,8.5010376 0,4.665378 3.834504,8.501037 8.4984785,8.501037 l 0.0039,0 c 0.9309491,-0.0015 1.8358851,-0.193431 2.7085001,-0.490294 l 2.259361,2.260041 c 1.378787,1.379203 3.850687,1.806071 5.479488,0.176779 1.627625,-1.628116 1.201082,-4.101938 -0.176727,-5.48016 L 17.512075,12.206839 C 17.80665,11.335157 17.99699,10.43174 17.99734,9.502407 l 0,-10e-4 c 0,-4.6653547 -3.834504,-8.5010136 -8.4984771,-8.5010136 z"/>
 <path style="opacity:0.2" d="M 12.45463,12.400061 C 11.557213,12.400297 12,13.021828 12,13.400061 l 0.02671,0.440777 4.266254,4.266254 c 0.942508,0.98168 2.395742,-0.471554 1.414062,-1.414062 l -5,-5 c -0.188266,-0.193533 0.01761,0.707047 -0.252396,0.707031 z"/>
 <path style="fill:#a27f41" d="M 12.45463,12 C 11.557213,12.000236 12,12.621767 12,13 l 0.02671,0.440777 4.266254,4.266254 c 0.942508,0.98168 2.395742,-0.471554 1.414062,-1.414062 l -5,-5 C 12.51876,11.099436 12.724632,12.000016 12.45463,12 Z"/>
 <path style="opacity:0.2" d="m 9.4999999,4.5 c -3.0375661,1e-7 -5.4999999,2.4624339 -5.5,5.5 10e-8,3.037566 2.4624339,5.5 5.5,5.5 C 12.537566,15.5 15,13.037566 15,10 15,6.9624339 12.537566,4.5000001 9.4999999,4.5 Z"/>
 <path style="fill:#62aeff" d="M 9.4999999,4 C 6.4624338,4.0000001 4,6.4624339 3.9999999,9.5 4,12.537566 6.4624338,15 9.4999999,15 12.537566,15 15,12.537566 15,9.5 15,6.4624339 12.537566,4.0000001 9.4999999,4 Z"/>
 <path style="opacity:0.1;fill:#8b9cbe" d="M 9.4988609,1.0003934 C 4.8348864,1.0003934 1,4.8358283 1,9.501207 1,9.585547 1.010206,9.667422 1.012695,9.751202 1.1478643,5.2005858 4.9192015,1.5003838 9.4988609,1.5003838 c 4.5806431,0 8.3525351,3.701808 8.4861651,8.2537472 0.0031,-0.08411 0.01266,-0.167405 0.01269,-0.251948 l 0,-0.001 c 0,-4.6653312 -3.834887,-8.5007896 -8.4988601,-8.5007896 z M 17.628588,12.323418 c -0.03815,0.127997 -0.0734,0.257108 -0.116209,0.383782 l 2.260698,2.261675 c 0.692275,0.692483 1.143717,1.66167 1.215798,2.661082 0.06787,-1.169447 -0.408396,-2.353427 -1.215798,-3.161072 z"/>
 <path style="opacity:0.2" d="m 6.9999999,6.5000002 0,0.9999996 0,2.0000002 0,1 0,3 1,0 0,-3 3.0000001,0 0,3 1,0 0,-6.9999998 -4.0000001,0 z m 1,0.9999996 3.0000001,0 L 11,9.5 7.9999999,9.5 Z"/>
 <path style="fill:#8b9cbe" d="m 6.9999999,6.0000002 0,0.9999996 0,2.0000002 0,1 0,3 1,0 0,-3 L 11,10 l 0,3 1,0 0,-6.9999998 -4.0000001,0 z m 1,0.9999996 3.0000001,0 L 11,9 7.9999999,9 Z"/>
</svg>
