<svg xmlns="http://www.w3.org/2000/svg" width="22" height="22" version="1.1">
 <circle style="opacity:0.2" cx="11" cy="11.5" r="10"/>
 <circle style="fill:#5d105d" cx="11" cy="11" r="10"/>
 <path style="opacity:0.1;fill:#8b9cbe" d="M 11,1 A 10,10 0 0 0 1,11 10,10 0 0 0 1.01075,11.291 10,10 0 0 1 11,1.5 10,10 0 0 1 20.9895,11.209 10,10 0 0 0 21,11 10,10 0 0 0 11,1 Z"/>
 <path style="opacity:0.2" d="M 11,4.5 A 7,7 0 0 0 5.9902344,6.6191406 L 6.3105469,6.9394531 8.1113281,8.7402344 A 4,4 0 0 1 11,7.5 a 4,4 0 0 1 4,4 h -2.050781 l 3.5,3.5 3.5,-3.5 H 18 a 7,7 0 0 0 -7,-7 z M 5.5507812,8 l -3.5,3.5 H 4 a 7,7 0 0 0 7,7 7,7 0 0 0 5.009766,-2.119141 L 15.689453,16.060547 13.888672,14.259766 A 4,4 0 0 1 11,15.5 4,4 0 0 1 7,11.5 h 2.050781 z"/>
 <path style="fill:#8b9cbe" d="M 11,4 A 7,7 0 0 0 5.9902344,6.1191406 L 6.3105469,6.4394531 8.1113281,8.2402344 A 4,4 0 0 1 11,7 a 4,4 0 0 1 4,4 4,4 0 0 1 -0.04492,0.568359 l 2.841797,1.076172 A 7,7 0 0 0 18,11 7,7 0 0 0 11,4 Z M 4.125,9.695312 A 7,7 0 0 0 4,11 a 7,7 0 0 0 7,7 7,7 0 0 0 5.009766,-2.119141 L 15.689453,15.560547 13.888672,13.759766 A 4,4 0 0 1 11,15 4,4 0 0 1 7,11 4,4 0 0 1 7.0097656,10.779297 L 4.34375,9.914062 Z"/>
 <path style="fill:#8b9cbe" d="m 5.55,7.5 3.5,3.5 h -7 z"/>
 <path style="fill:#8b9cbe" d="m 16.45,14.5 3.5,-3.5 h -7 z"/>
</svg>
