<svg xmlns="http://www.w3.org/2000/svg" width="22" height="22" version="1.1">
 <path style="opacity:0.2" d="M 2.0537111,1.5009765 C 0.92865658,1.4708674 2.5927992e-4,2.3745427 7.9920164e-8,3.5 V 6.15625 C -2.0107008e-4,6.8694005 0.37931418,7.5287155 0.99609378,7.886719 L 1.5000001,8.178711 v -0.04785 c 2.26e-5,0.7044345 0.3705944,1.356923 0.975586,1.717773 l 0.024414,0.014647 v 0.02832 c 7.85e-4,0.04466 0.00306,0.08928 0.00684,0.133789 C 2.2968871,10.399874 2.2701657,10.5 2.2675782,11.257812 2.2908437,12 2.384929,12.429113 2.7851564,12.861328 l 0.6552734,0.705078 c 0.099623,0.339076 0.287306,0.645703 0.5439453,0.888672 l 1.5908205,1.5 C 5.9463341,16.305033 6.3964846,16.5 6.3964846,16.5 l 0.501953,0.46582 c 0.252376,0.233874 0.5608165,0.398689 0.895508,0.478516 -0.1816825,0.626488 -0.046465,1.302212 0.3623045,1.810547 C 8.5046646,20.524797 9.6329691,21.5 11,21.5 c 1.367031,0 2.495335,-0.975203 2.84375,-2.245117 0.40877,-0.508335 0.543987,-1.184059 0.362305,-1.810547 0.334691,-0.07983 0.643132,-0.244642 0.895507,-0.478516 L 15.603515,16.5 c 0,0 0.450151,-0.194967 0.821289,-0.544922 l 1.590821,-1.5 c 0.256639,-0.242968 0.444322,-0.549595 0.543945,-0.888672 l 0.655274,-0.705078 c 0.400227,-0.432215 0.494312,-0.861327 0.517578,-1.603515 -0.0026,-0.757812 -0.02931,-0.857936 -0.239258,-1.232422 0.0038,-0.04451 0.006,-0.08913 0.0068,-0.133789 v -0.02832 l 0.02442,-0.01465 C 20.129405,9.487783 20.499977,8.835294 20.5,8.1308595 v 0.04785 l 0.503906,-0.291992 C 21.620686,7.5287155 22.000201,6.8694005 22,6.15625 V 3.5 C 21.999741,2.3745427 21.071343,1.4708674 19.946289,1.5009765 19.543598,1.5117015 19.153529,1.6437667 18.827148,1.8798828 L 13.570313,5.6875 C 12.92609,4.972924 12.02047,4.5 11,4.5 9.9795301,4.5 9.0739101,4.972924 8.4296876,5.6875 L 3.1728516,1.8798828 C 2.8464712,1.6437668 2.456402,1.5117014 2.0537111,1.5009765 Z"/>
 <path style="fill:#17191e" d="M 2.0537111,1.0009765 C 0.92865658,0.9708674 2.5927992e-4,1.8745428 7.9920164e-8,3 V 5.65625 C -2.0107008e-4,6.3694005 0.37931418,7.0287155 0.99609378,7.386719 L 1.5000001,7.678711 v -0.04785 c 2.26e-5,0.7044345 0.3705944,1.356923 0.975586,1.717773 l 0.024414,0.014647 v 0.02832 c 7.85e-4,0.04466 0.00306,0.08928 0.00684,0.133789 C 2.2968871,9.899874 2.2701657,10 2.2675782,10.757812 2.2908437,11.5 2.384929,11.929113 2.7851564,12.361328 l 0.6552734,0.705078 c 0.099623,0.339076 0.287306,0.645703 0.5439453,0.888672 l 1.5908205,1.5 C 5.9463341,15.805033 6.3964846,16 6.3964846,16 l 0.501953,0.46582 c 0.252376,0.233874 0.5608165,0.398689 0.895508,0.478516 -0.1816825,0.626488 -0.046465,1.302212 0.3623045,1.810547 C 8.5046646,20.024797 9.6329691,21 11,21 c 1.367031,0 2.495335,-0.975203 2.84375,-2.245117 0.40877,-0.508335 0.543987,-1.184059 0.362305,-1.810547 0.334691,-0.07983 0.643132,-0.244642 0.895507,-0.478516 L 15.603515,16 c 0,0 0.450151,-0.194967 0.821289,-0.544922 l 1.590821,-1.5 c 0.256639,-0.242968 0.444322,-0.549595 0.543945,-0.888672 l 0.655274,-0.705078 c 0.400227,-0.432215 0.494312,-0.861327 0.517578,-1.603515 -0.0026,-0.757812 -0.02931,-0.857936 -0.239258,-1.232422 0.0038,-0.04451 0.006,-0.08913 0.0068,-0.133789 v -0.02832 l 0.02442,-0.01465 C 20.129405,8.9877825 20.499977,8.335294 20.5,7.6308595 v 0.04785 l 0.503906,-0.291992 C 21.620686,7.0287155 22.000201,6.3694005 22,5.65625 V 3 C 21.999741,1.8745428 21.071343,0.9708674 19.946289,1.0009765 19.543598,1.0117015 19.153529,1.1437667 18.827148,1.3798828 L 13.570313,5.1875 C 12.92609,4.472924 12.02047,4 11,4 9.9795301,4 9.0739101,4.472924 8.4296876,5.1875 L 3.1728516,1.3798828 C 2.8464712,1.1437668 2.456402,1.0117014 2.0537111,1.0009765 Z"/>
 <path style="opacity:0.2" d="m 2.0000001,3.5 v 2.65625 l 1.5,0.870117 v 1.1044925 l 1,0.5966795 V 9.891602 L 5.6767581,10.5 H 4.8349611 L 4.2500001,11 h 0.75 v 0.5 h -0.75 L 5.6445311,13 H 5.3564456 l 1.59082,1.5 h 0.234375 l 1.0771485,1 h 1.9492189 l -0.5771479,1 H 10.579102 L 10.356446,16.885742 9.7128911,18 H 10.134766 A 1,1 0 0 0 10,18.5 a 1,1 0 0 0 1,1 1,1 0 0 0 1,-1 A 1,1 0 0 0 11.864258,18 H 12.28711 L 11.643555,16.885742 11.420899,16.5 h 0.948242 l -0.577149,-1 h 1.949219 l 1.077149,-1 h 0.234374 L 16.643554,13 H 16.355469 L 17.75,11.5 H 17 V 11 h 0.75 L 17.165039,10.5 H 16.442383 L 17.75,9.891602 V 8.727539 L 18.65039,8.1308595 V 7.026367 L 20,6.15625 V 3.5 L 12.484375,8.9433595 13.15625,9.81836 12.604492,10.5 H 11.50293 L 11.684571,10.185547 12.369141,9 h -0.25293 A 1.5,1.5 0 0 0 12.5,8 1.5,1.5 0 0 0 11,6.5 1.5,1.5 0 0 0 9.5000001,8 1.5,1.5 0 0 0 9.8847661,9 H 9.6308601 L 10.31543,10.185547 10.497071,10.5 H 9.3955081 L 8.8437501,9.81836 9.5156251,8.9433595 Z"/>
 <path style="fill:#8d5cfe" d="M 12.484219,8.443834 13.156057,9.318393 12.1601,10.55 h 3.1005 L 17.75,9.392011 V 8.2273735 L 18.65,7.6304 V 6.5261 L 20,5.65663 V 3 Z"/>
 <path style="fill:#8d5cfe" d="M 9.5157811,8.443834 8.8439426,9.318393 9.8399001,10.55 h -3.1005 l -2.2394,-1.157989 V 8.2273735 l -1,-0.5969735 V 6.5261 l -1.5,-0.86947 V 3 Z"/>
 <path style="fill:#59deb1" d="m 4.8353516,10 -0.5853515,0.5 h 0.75 V 11 h -0.75 l 1.394824,1.5 H 11 16.355176 L 17.75,11 H 17 v -0.5 h 0.75 L 17.164648,10 H 11 Z"/>
 <path style="fill:#48c1d6" d="M 10.999999,10.413624 9.2846381,12.5 H 5.3559961 L 6.9475996,14 H 10.999999 15.0524 l 1.591604,-1.5 h -3.928641 z"/>
 <path style="fill:#3ea2de" d="M 11,12.3 9.8395931,14 H 7.1819486 l 1.0766865,1 H 11 13.741365 l 1.076686,-1 h -2.657644 z"/>
 <path style="fill:#3d87dd" d="M 11,13.628218 11.684675,14.814109 12.36935,16 H 11 9.6306511 l 0.6846749,-1.185891 z"/>
 <path style="fill:#3d69df" d="m 11,15.271499 0.643313,1.11425 0.643312,1.11425 H 11 9.7133751 l 0.6433129,-1.11425 z"/>
 <circle style="fill:#3d48e1" cx="11" cy="18" r="1"/>
 <path style="fill:#52bae1" d="M 11,10.871783 10.315326,9.685891 9.6306511,8.5 H 11 12.36935 l -0.684675,1.185891 z"/>
 <circle style="fill:#5372ec" cx="11" cy="7.5" r="1.5"/>
 <path style="opacity:0.2;fill:#8b9cbe" d="m 2.0000001,3 v 0.5 l 7.268555,5.2646485 0.24707,-0.321289 z M 20,3 12.484375,8.4433595 12.731446,8.7646485 20,3.5 Z M 11,6 A 1.5,1.5 0 0 0 9.5000001,7.5 1.5,1.5 0 0 0 9.5214851,7.743164 1.5,1.5 0 0 1 11,6.5 1.5,1.5 0 0 1 12.476563,7.75 1.5,1.5 0 0 0 12.5,7.5 1.5,1.5 0 0 0 11,6 Z M 9.0410161,9.561524 8.8437501,9.81836 9.3955081,10.5 H 10.497071 L 10.31543,10.185547 10.208008,10 H 9.3955081 Z m 3.9179689,0 L 12.604492,10 h -0.8125 L 11.684571,10.185547 11.50293,10.5 h 1.101562 L 13.15625,9.81836 Z M 4.7880861,10.040039 4.2500001,10.5 h 0.584961 0.165039 0.676758 z M 17.289062,10.106446 16.442383,10.5 H 17 17.165039 17.75 Z M 4.2500001,11 l 0.464844,0.5 h 0.285156 V 11 Z M 17,11 v 0.5 h 0.285156 L 17.75,11 Z M 9.9199221,15.5 9.6308601,16 h 0.289062 l 0.2880859,-0.5 z m 1.8720699,0 0.288086,0.5 h 0.289063 l -0.289063,-0.5 z m -1.501953,1 -0.5771479,1 H 10.001953 L 10.356446,16.885742 10.579102,16.5 Z m 1.13086,0 0.222656,0.385742 L 11.998047,17.5 h 0.289063 l -0.577149,-1 z M 10,18 A 1,1 0 0 0 10.03321,18.250976 1,1 0 0 1 10.134766,18 Z m 1.864258,0 A 1,1 0 0 1 11.966797,18.253906 1,1 0 0 0 12,18 Z"/>
 <path style="opacity:0.1;fill:#8b9cbe" d="M 2.0537111,1.0009765 C 0.92865658,0.9708674 2.5927992e-4,1.8745428 7.9920164e-8,3 V 3.5 C 2.5927992e-4,2.3745427 0.92865658,1.4708674 2.0537111,1.5009765 2.456402,1.5117014 2.8464712,1.6437668 3.1728516,1.8798828 L 8.4296876,5.6875 C 9.0739101,4.972924 9.9795301,4.5 11,4.5 c 1.02047,0 1.92609,0.472924 2.570313,1.1875 L 18.827148,1.8798828 C 19.153529,1.6437668 19.543598,1.5117016 19.946289,1.5009765 21.071343,1.4708674 21.999741,2.3745427 22,3.5 V 3 C 21.999741,1.8745428 21.071343,0.9708674 19.946289,1.0009765 19.543598,1.0117015 19.153529,1.1437667 18.827148,1.3798828 L 13.570313,5.1875 C 12.92609,4.472924 12.02047,4 11,4 9.9795301,4 9.0739101,4.472924 8.4296876,5.1875 L 3.1728516,1.3798828 C 2.8464712,1.1437668 2.456402,1.0117014 2.0537111,1.0009765 Z M 2.3769532,9.78125 c -0.091846,0.217184 -0.1074678,0.417978 -0.109375,0.976563 0.00126,0.04036 0.00609,0.07081 0.00781,0.109375 0.015759,-0.410029 0.066072,-0.546823 0.2314454,-0.841797 -0.00377,-0.044508 -0.00605,-0.089129 -0.00683,-0.133789 v -0.02832 l -0.024414,-0.01465 c -0.034487,-0.02057 -0.065695,-0.04496 -0.098633,-0.06738 z m 17.2460938,0 c -0.03294,0.02242 -0.06415,0.04682 -0.09863,0.06738 L 19.5,9.863281 v 0.02832 c -8e-4,0.04466 -0.0031,0.08928 -0.0068,0.133789 0.165373,0.294976 0.215683,0.431769 0.231445,0.841797 0.0017,-0.03856 0.0065,-0.06901 0.0078,-0.109375 -0.0019,-0.558584 -0.01753,-0.759378 -0.109375,-0.976562 z M 7.7167971,17.420898 c -0.00445,0.110117 0.003,0.219424 0.0166,0.328125 0.013015,-0.102102 0.031415,-0.204224 0.060547,-0.304687 -0.02622,-0.0063 -0.051267,-0.01615 -0.077148,-0.02343 z m 6.5664059,0 c -0.02588,0.0073 -0.05093,0.01718 -0.07715,0.02343 0.02914,0.100463 0.04753,0.202586 0.06055,0.304688 0.01361,-0.108701 0.02103,-0.218008 0.0166,-0.328125 z"/>
</svg>
