<svg xmlns="http://www.w3.org/2000/svg" width="22" height="22" version="1">
 <path style="opacity:0.2" d="m 3.013752,4.6288145 c -0.0082,0.0265 -0.013651,0.055001 -0.013651,0.084001 0,2.9650323 0.7764796,6.3930705 2.1300812,9.4041035 1.0975419,2.443027 3.071117,5.701063 6.2412378,7.352081 0.0405,0.0205 0.085,0.031 0.129005,0.031 0.044,0 0.0885,-0.0105 0.129005,-0.031 3.170121,-1.651018 5.143196,-4.909054 6.241238,-7.352081 1.353551,-3.011033 2.130081,-6.4390712 2.130081,-9.4041035 0,-0.029 -0.0055,-0.057501 -0.0135,-0.084001 -0.068,2.8675318 -0.825031,6.1155675 -2.116581,8.9880985 -1.098042,2.443027 -3.071117,5.701063 -6.241237,7.352081 -0.0405,0.0205 -0.085,0.031 -0.129006,0.031 -0.044,0 -0.0885,-0.0105 -0.129004,-0.031 C 8.2012996,19.317976 6.2277245,16.05994 5.1301826,13.616913 3.8387834,10.744382 3.0814046,7.4963463 3.013752,4.6288145 Z"/>
 <path style="fill:#e8604d" d="M 19.813488,3.9459567 11.593927,1.0161709 c -0.06037,-0.021552 -0.126248,-0.021552 -0.186622,0 L 3.1877447,3.9459567 c -0.112164,0.039984 -0.1872393,0.1471754 -0.1872393,0.2674115 0,2.9649488 0.7762264,6.3923528 2.1297127,9.4033548 1.0978494,2.44266 3.0720815,5.700996 6.2422419,7.351404 0.04035,0.02098 0.08439,0.03148 0.128492,0.03148 0.04411,0 0.08815,-0.01049 0.128493,-0.03148 3.169993,-1.650748 5.144169,-4.909028 6.242242,-7.351404 1.353431,-3.011229 2.129657,-6.4388595 2.129657,-9.4033548 0,-0.1202361 -0.07507,-0.2274274 -0.187239,-0.2674115 z"/>
 <path style="opacity:0.1" d="M 16.484375,5.2408253 A 0.7500756,0.7500756 0 0 0 15.96875,5.4673878 l -13.75,13.7500002 a 0.75130096,0.75130096 0 1 0 1.0625,1.0625 l 13.75,-13.7500002 A 0.7500756,0.7500756 0 0 0 16.484375,5.2408253 Z"/>
 <path style="fill:none;stroke:#795b42;stroke-width:1.50000119;stroke-linecap:round" d="M 2.7500012,19.25 16.500012,5.5000107"/>
 <path style="opacity:0.1;fill:#8b9cbe" d="m 11.500425,1.0000298 c -0.0315,0 -0.0625,0.00585 -0.093,0.0166 L 3.1876086,3.9463622 c -0.1121543,0.03995 -0.1875072,0.1462014 -0.1875072,0.266703 0,0.1350016 0.010451,0.2760027 0.013651,0.4130043 0.026401,-0.083001 0.089753,-0.1495016 0.1738566,-0.1795016 l 8.219812,-2.9299325 c 0.0605,-0.02155 0.126506,-0.02155 0.187008,0 l 8.218813,2.9299325 c 0.084,0.03 0.147505,0.096501 0.174006,0.1795016 0.003,-0.1370016 0.0135,-0.2780027 0.0135,-0.4130043 0,-0.1205016 -0.0755,-0.2267526 -0.187507,-0.266703 L 11.594429,1.0166299 c -0.0305,-0.01075 -0.0625,-0.0166 -0.094,-0.0166 z"/>
 <path style="fill:none;stroke:#b1b1b2;stroke-width:0.33291188" d="m 11.425289,10.561494 c -0.401227,0.844383 -0.409002,1.565048 0.509493,2.265037 0.918495,0.69999 1.594715,0.501186 2.286228,0.237465"/>
 <path style="opacity:0.2" d="m 2.6743547,1.5310292 a 0.69992046,1.0848766 33.145248 0 0 -0.926562,0.60259 0.69992046,1.0848766 33.145248 0 0 -0.00715,1.2910088 0.69992046,1.0848766 33.145248 0 0 0.4325574,0.057057 L 14.28287,12.699996 15.36207,11.282519 3.1551935,1.990246 A 0.69992046,1.0848766 33.145248 0 0 2.9269666,1.6079176 0.69992046,1.0848766 33.145248 0 0 2.6743572,1.5310292 Z"/>
 <path style="fill:#b1b1b2" d="m 2.6743547,1.0310288 a 0.69992046,1.0848766 33.145248 0 0 -0.926562,0.60259 0.69992046,1.0848766 33.145248 0 0 -0.00715,1.2910088 0.69992046,1.0848766 33.145248 0 0 0.4325574,0.057057 L 14.28287,12.199995 15.36207,10.782519 3.1551935,1.4902456 A 0.69992046,1.0848766 33.145248 0 0 2.9269666,1.1079172 0.69992046,1.0848766 33.145248 0 0 2.6743572,1.0310288 Z"/>
 <path style="opacity:0.2;fill:#8b9cbe" d="M 2.6748058,1.0312355 A 0.69992046,1.0848766 33.145248 0 0 1.7480473,1.6337751 0.69992046,1.0848766 33.145248 0 0 1.5332033,2.6279165 0.69992046,1.0848766 33.145248 0 1 1.7480473,2.1337755 0.69992046,1.0848766 33.145248 0 1 2.6748058,1.5312359 0.69992046,1.0848766 33.145248 0 1 2.9267591,1.6083844 0.69992046,1.0848766 33.145248 0 1 3.155275,1.9902207 L 15.121105,11.098628 15.362316,10.782221 3.155275,1.4902203 A 0.69992046,1.0848766 33.145248 0 0 2.9267591,1.108384 0.69992046,1.0848766 33.145248 0 0 2.6748058,1.0312355 Z"/>
 <path style="fill:#989898" d="m 5.587692,3.1673219 0.6817275,0.5063562 c 0.04006,0.02975 0.064072,0.1100596 0.016875,0.1262591 -0.5119254,0.1757127 -1.1698749,0.4037104 -1.0240928,1.3307296 0.00776,0.049295 -0.0862,0.04663 -0.1262596,0.01687 L 4.4542177,4.6411829 c -0.040059,-0.02975 -0.026824,-0.077362 -0.016872,-0.1262596 0.1365091,-0.67092 0.5312339,-1.016156 1.0240918,-1.3307291 0.04206,-0.026847 0.0862,-0.046629 0.1262596,-0.016875 z"/>
 <path style="fill:#989898" d="m 9.565695,6.2103247 0.681728,0.5063559 c 0.04006,0.02975 0.06407,0.1100596 0.01688,0.1262591 C 9.752378,7.0186523 9.094428,7.24665 9.24021,8.1736692 c 0.0077,0.049295 -0.0862,0.04663 -0.126259,0.01687 L 8.4322212,7.6841853 c -0.04006,-0.02975 -0.026825,-0.077362 -0.01687,-0.1262596 0.1365091,-0.67092 0.531234,-1.0161558 1.0240918,-1.3307285 0.04206,-0.026845 0.0862,-0.04663 0.126259,-0.016875 z"/>
 <path style="fill:#989898" d="m 13.556199,9.231328 0.681727,0.506356 c 0.04006,0.02975 0.06407,0.11006 0.01688,0.126259 -0.511925,0.175713 -1.169875,0.40371 -1.024093,1.33073 0.0078,0.04929 -0.0862,0.04663 -0.126259,0.01687 l -0.68173,-0.506354 c -0.04006,-0.02975 -0.02683,-0.07736 -0.01687,-0.12626 0.136509,-0.67092 0.531234,-1.016156 1.024092,-1.330728 0.04206,-0.02684 0.0862,-0.04663 0.12626,-0.01688 z"/>
 <path style="fill:#b1b1b2" d="M 14,11.899999 V 12.4 h -2.000002 z"/>
 <path style="opacity:0.1" d="m 20.92291,18.783385 c 0.106773,0.478663 0.07262,0.466828 -0.318832,0.763848 -0.48119,0.398113 -0.981849,0.794504 -1.553907,0.902624 -0.184259,0.03501 -0.382936,0.0635 -0.592008,0.04356 -0.341697,-0.02436 -0.427376,-0.136861 -0.596546,-0.420021 L 15.145273,15.526747 14.879705,14.350971 13.678728,13.124534 11.221959,11.141097 7.6998837,8.2976198 C 7.561692,8.0114151 7.3283504,7.6871508 7.0405551,7.3411051 6.878119,7.1457914 6.3525686,6.7736166 6.1297199,6.60358 5.0543205,5.7830378 4.4601374,5.2244379 4.2714879,4.9063411 4.17108,4.5001428 4.4417765,4.5463578 4.6859107,4.740449 l 7.1929283,5.718498 c 0.518743,0.377027 0.995415,0.743537 1.74132,1.177355 0.463006,0.0851 0.754278,0.03911 1.088087,-0.276925 0.181348,-0.207648 0.219856,-0.343876 0.288934,-0.49539 0.812085,0.430724 1.059154,0.547494 0.905908,1.77544 l 0.182101,0.765989 0.889464,2.058165 3.415033,2.490588 c 0.366348,0.187852 0.467953,0.486533 0.533224,0.829216 z"/>
 <path style="fill:#664117" d="m 20.92291,18.283392 c 0.106773,0.478662 0.07262,0.466827 -0.318832,0.763848 -0.48119,0.398113 -0.981849,0.794504 -1.553907,0.902623 -0.184259,0.035 -0.382936,0.0635 -0.592008,0.04355 -0.341697,-0.02436 -0.427376,-0.13686 -0.596546,-0.420021 L 15.145273,15.026754 14.879705,13.850977 13.678728,12.624541 11.221959,10.641104 7.6998837,7.7976254 C 7.561692,7.5114207 7.3283504,7.1871564 7.0405551,6.8411107 6.878119,6.645797 6.3525686,6.2736222 6.1297199,6.1035856 5.0543205,5.2830434 4.4601374,4.7244435 4.2714879,4.4063467 4.17108,4.0001484 4.4417765,4.0463634 4.6859107,4.2404546 L 11.878839,9.958954 c 0.518743,0.377027 0.995415,0.743537 1.74132,1.177355 0.463006,0.0851 0.754278,0.03911 1.088087,-0.276925 0.181348,-0.207648 0.219856,-0.343877 0.288934,-0.495391 0.812085,0.430724 1.059154,0.547495 0.905908,1.775441 l 0.182101,0.765989 0.889464,2.058165 3.415033,2.490588 c 0.366348,0.187852 0.467953,0.486533 0.533224,0.829216 z"/>
 <path style="opacity:0.2" d="m 18.474114,1.5001216 c 0.622397,0.0034 1.337452,0.08424 1.703383,0.3945957 0.407249,0.3453984 0.617256,1.1415867 0.724723,1.8143901 0.207536,0.7082899 0.0594,1.2202758 -0.207099,1.7993728 C 19.857542,7.2658931 18.765702,8.8958149 17.622567,10.500015 15.158879,9.108551 13.244405,7.2959056 12.000008,4.9693918 13.326445,3.8646734 14.80923,2.8383509 16.558172,1.9454857 17.182852,1.5450185 17.8509,1.4994595 18.474114,1.5001216 Z"/>
 <path style="fill:#b1b1b2" d="m 18.474114,1.0001212 c 0.622397,0.0034 1.337452,0.08424 1.703383,0.3945957 0.407249,0.3453984 0.617256,1.1415867 0.724723,1.8143901 0.207536,0.7082898 0.0594,1.2202758 -0.207099,1.7993728 C 19.857542,6.7658927 18.765702,8.3958145 17.622567,10.000014 15.158879,8.6085502 13.244405,6.7959052 12.000008,4.4693914 13.326445,3.364673 14.80923,2.3383505 16.558172,1.4454853 17.182852,1.0450181 17.8509,0.9994591 18.474114,1.0001212 Z"/>
 <path style="opacity:0.2;fill:#8b9cbe" d="m 18.473647,1.0000071 c -0.623214,-6.6e-4 -1.290361,0.044846 -1.915041,0.4453129 -1.748942,0.8928652 -3.232161,1.9196981 -4.558598,3.0244164 0.06249,0.1168201 0.134348,0.2265797 0.200196,0.3408207 1.276416,-1.0433403 2.694899,-2.0159898 4.358402,-2.8652367 0.62468,-0.4004672 1.291827,-0.445975 1.915041,-0.4453129 0.622397,0.0034 1.338171,0.084176 1.704102,0.3945316 0.40725,0.3453984 0.617144,1.1416512 0.724611,1.8144546 0.04079,0.1392157 0.06399,0.2694596 0.0791,0.3955079 0.035,-0.2735928 0.01847,-0.5625084 -0.0791,-0.8955083 C 20.794893,2.5361899 20.584999,1.7399371 20.177749,1.3945387 19.811818,1.0841828 19.096044,1.0034121 18.473647,1.0000071 Z"/>
 <path style="fill:#989898" d="m 16.896484,4.9609375 c -0.272313,0.013288 -1.046739,0.2581191 -3.039062,2.1035156 0.343015,0.3721916 0.708977,0.7272804 1.097656,1.0644531 2.441187,-2.887241 2.076172,-3.1582031 2.076172,-3.1582031 -0.0077,0.0075 -0.04283,-0.014252 -0.134766,-0.00977 z"/>
</svg>
