<svg xmlns="http://www.w3.org/2000/svg" width="22" height="22" version="1">
 <rect style="opacity:0.2" width="18" height="20" x="-20.5" y="-21" rx="1" ry="1" transform="matrix(0,-1,-1,0,0,0)"/>
 <rect style="fill:#5489cd" width="18" height="20" x="-20" y="-21" rx="1" ry="1" transform="matrix(0,-1,-1,0,0,0)"/>
 <rect style="opacity:0.2" width="20" height="11" x="1" y="7.5"/>
 <rect style="fill:#b2bfd9" width="20" height="11" x="1" y="7"/>
 <rect style="opacity:0.2" width="1" height="2" x="5" y="18"/>
 <rect style="opacity:0.2" width="1" height="2" x="16" y="18"/>
 <path style="opacity:0.2;fill:#8b9cbe" d="M 2,2 C 1.446,2 1,2.446 1,3 l 0,0.5 c 0,-0.554 0.446,-1 1,-1 l 18,0 c 0.554,0 1,0.446 1,1 L 21,3 C 21,2.446 20.554,2 20,2 L 2,2 Z"/>
 <path style="opacity:0.2;fill:#8b9cbe" d="M 1,7 1,7.5 21,7.5 21,7 1,7 Z"/>
</svg>
