<svg xmlns="http://www.w3.org/2000/svg" width="22" height="22" version="1">
 <circle style="opacity:0.2" cx="10.5" cy="12" r="9.5"/>
 <circle style="fill:#4bae4f" cx="10.5" cy="11.5" r="9.5"/>
 <path style="opacity:0.2" d="m 6,15.5 h 9 v -7 H 6 Z m 1,-6 h 3 v 1 H 7 Z m 4,0 h 3 v 1 h -3 z m -4,2 h 3 v 1 H 7 Z m 4,0 h 3 v 1 h -3 z m -4,2 h 3 v 1 H 7 Z m 4,0 h 3 v 1 h -3 z"/>
 <path style="fill:#8b9cbe" d="m 6,15 h 9 V 8 H 6 Z M 7,9 h 3 v 1 H 7 Z m 4,0 h 3 v 1 h -3 z m -4,2 h 3 v 1 H 7 Z m 4,0 h 3 v 1 h -3 z m -4,2 h 3 v 1 H 7 Z m 4,0 h 3 v 1 h -3 z"/>
 <path style="opacity:0.2;fill:#8b9cbe" d="M 10.5,2 A 9.5,9.5 0 0 0 1,11.5 9.5,9.5 0 0 0 1.0097656,11.792969 9.5,9.5 0 0 1 10.5,2.5 9.5,9.5 0 0 1 19.990234,11.707031 9.5,9.5 0 0 0 20,11.5 9.5,9.5 0 0 0 10.5,2 Z"/>
</svg>
