<svg xmlns="http://www.w3.org/2000/svg" width="22" height="22" version="1">
 <circle style="opacity:0.2" cx="11" cy="11.5" r="10"/>
 <circle style="fill:#ff5722" cx="11" cy="11" r="10"/>
 <path style="opacity:0.2" d="m 8,8.5 c -1.1046,0 -2,0.89545 -2,2 0,1.10455 0.89545,2 2,2 1.10455,0 2,-0.89545 2,-2 H 8 Z m 4,0 v 1 h 4 v -1 z m 0,2 v 1 h 4 v -1 z m -6,3 v 1 h 8 v -1 z"/>
 <path style="fill:#8b9cbe" d="m 8,8 c -1.1046,0 -2,0.89545 -2,2 0,1.10455 0.89545,2 2,2 1.10455,0 2,-0.89545 2,-2 H 8 Z m 4,0 v 1 h 4 V 8 Z m 0,2 v 1 h 4 v -1 z m -6,3 v 1 h 8 v -1 z"/>
 <path style="opacity:0.2;fill:#8b9cbe" d="M 11,1 A 10,10 0 0 0 1,11 10,10 0 0 0 1.0107422,11.291016 10,10 0 0 1 11,1.5 10,10 0 0 1 20.989258,11.208985 10,10 0 0 0 21,11 10,10 0 0 0 11,1 Z"/>
</svg>
