<svg xmlns="http://www.w3.org/2000/svg" width="22" height="22" version="1.1">
 <circle style="opacity:0.2" cx="11" cy="11.5" r="10"/>
 <circle style="fill:#e74c3c" cx="11" cy="11" r="10"/>
 <path style="opacity:0.2;fill:#8b9cbe" d="M 11,1.0000004 A 10,10 0 0 0 1,11 10,10 0 0 0 1.01075,11.291 10,10 0 0 1 11,1.5000004 10,10 0 0 1 20.9895,11.209 10,10 0 0 0 21,11 10,10 0 0 0 11,1.0000004 Z"/>
 <path style="opacity:0.2" d="M 4.5,7.7472264 5.7022035,12.233911 7.1977655,11.833176 5.9955615,7.3464914 Z M 7.383046,6.9747159 8.5852495,11.461401 10.080811,11.060667 8.8786075,6.5739814 Z M 10.266092,6.2022064 11.468296,10.688891 15.95498,9.486688 14.752777,5.0000029 Z M 6.0739785,13.621395 7.247223,18.000002 8.7427845,17.599267 7.5695405,13.22066 Z m 2.883046,-0.77251 0.4007345,1.495562 7.369731,-1.974714 -0.400735,-1.495561 z M 9.729535,15.73193 10.130269,17.227492 17.5,15.252778 17.099266,13.757217 Z"/>
 <path style="fill:#8b9cbe" d="M 4.5,7.2472259 5.7022035,11.73391 7.1977655,11.333176 5.9955615,6.8464909 Z M 7.383046,6.4747154 8.5852495,10.961401 10.080811,10.560666 8.8786075,6.0739809 Z M 10.266092,5.7022059 11.468296,10.188891 15.95498,8.9866874 14.752777,4.5000024 Z M 6.0739785,13.121394 7.247223,17.500001 8.7427845,17.099267 7.5695405,12.72066 Z m 2.883046,-0.77251 0.4007345,1.495562 7.369731,-1.974714 -0.400735,-1.495561 z M 9.729535,15.23193 10.130269,16.727492 17.5,14.752778 17.099266,13.257217 Z"/>
</svg>
