<svg xmlns="http://www.w3.org/2000/svg" width="22" height="22" version="1.1">
 <rect style="opacity:0.2" width="14.568" height="14.568" x="-23.19" y="-6.93" rx=".728" ry=".728" transform="matrix(-0.70710679,-0.70710678,-0.70710679,0.70710678,0,0)"/>
 <path style="fill:#357ab4" d="M 20.785997,10.484947 12.383402,2.0823521 11.479004,1.5744936 C 11.127154,1.376914 10.770287,0.92866369 10.484948,1.214003 l -9.2709438,9.270944 c -0.28533914,0.285339 -0.28533874,0.744766 1e-7,1.030105 l 9.2709437,9.270943 c 0.285339,0.285339 0.744766,0.285339 1.030105,0 l 9.270944,-9.270943 c 0.285339,-0.285339 0.285339,-0.744766 0,-1.030105 z"/>
 <path style="opacity:0.1;fill:#8b9cbe" d="m 10.963952,1.4325879 c -0.186191,0 -0.336906,-0.3604141 -0.479576,-0.2177445 L 1.2148446,10.484375 C 1.0069249,10.692295 0.95373646,10.991921 1.0488289,11.25 1.0842369,11.1539 1.1374249,11.061794 1.2148446,10.984375 L 10.484376,1.7148434 c 0.285339,-0.2853391 0.745911,-0.2853391 1.03125,0 l 9.269531,9.2695316 c 0.07742,0.07742 0.130608,0.169528 0.166016,0.265625 0.09509,-0.258079 0.0419,-0.557705 -0.166016,-0.765625 L 12.581538,2.2807554 11.515626,1.7148434 C 11.372956,1.5721738 11.150143,1.4325879 10.963952,1.4325879 Z"/>
 <path style="fill:#17191e" d="M 10.000001,0.99999959 V 6.4999996 h 1 V 0.99999959 Z"/>
 <path style="fill:#ee5050" d="m 11.000002,5.4999995 c -1.1878782,1.284e-4 -2.7120347,0.8361219 -2.9496107,2 l -0.050781,0.5 L 8.0000008,11.5 6.5722672,16.888672 10.458986,20.77539 C 10.608789,20.925193 10.804501,21 11.000002,21 c 0.195501,0 0.391212,-0.07481 0.541015,-0.22461 L 15.427736,16.888672 14.000001,11.5 l 3.65e-4,-3.5000005 -0.05273,-0.5 c -0.237428,-1.1631595 -1.760485,-1.9989436 -2.947629,-2 z"/>
 <path style="opacity:0.1;fill:#8b9cbe" d="m 11.000001,5.4999996 c -1.1878782,1.284e-4 -2.7116429,0.8361219 -2.949219,2 l -0.050781,0.5 v 0.5 l 0.050781,-0.5 c 0.2375761,-1.1638781 1.7613408,-1.9998716 2.949219,-2 1.187144,0.00106 2.709838,0.8368405 2.947266,2 l 0.05273,0.5 v -0.5 l -0.05273,-0.5 c -0.237428,-1.1631595 -1.760122,-1.9989436 -2.947266,-2 z M 8.0000008,11.5 6.5722664,16.888672 6.6777352,16.994141 8.0000008,12 Z m 6.0000002,0 V 12 l 1.322266,4.994141 0.105468,-0.105469 z"/>
 <path style="fill:#ffce35" d="m 11.000002,5.4999995 c -1,0 -1,2 -1,2 V 11.5 L 8.6230487,18.939453 10.458986,20.77539 C 10.608789,20.925193 10.804501,21 11.000002,21 c 0.195501,0 0.391212,-0.07481 0.541015,-0.22461 L 13.376955,18.939453 12.000002,11.5 V 7.4999995 c 0,0 0,-2 -1,-2 z"/>
 <rect style="opacity:0.1" width="8" height="1" x="7" y="8.5" rx=".571" ry=".5"/>
 <rect style="fill:#17191e" width="8" height="1" x="7" y="8" rx=".571" ry=".5"/>
 <path style="fill:#17191e" d="m 11.000002,9.9999996 c -1,0 -1,1.0000004 -1,1.0000004 V 11 11.333333 13 h 1 1 V 11.333333 11 11 c 0,0 0,-1.0000004 -1,-1.0000004 z"/>
 <path style="opacity:0.2" d="m 14.500001,3.2499995 -1.75,0.8749999 -1.75,0.8750002 V 3.2499995 1.4999996 l 1.75,0.8749999 z"/>
 <path style="fill:#ffce35" d="m 14.500001,2.7499998 -1.75,0.8749999 -1.75,0.8750002 V 2.7499998 0.99999989 l 1.75,0.87499991 z"/>
</svg>
