<svg xmlns="http://www.w3.org/2000/svg" width="22" height="22" version="1">
 <path style="fill:#4f4f4f" d="M 11,1 C 5.4599999,1 1,5.4599999 1,11 1,16.54 5.4599999,21 11,21 16.54,21 21,16.54 21,11 21,5.4599999 16.54,1 11,1 Z"/>
 <path style="opacity:0.1;fill:#8b9cbe" d="M 11,1 C 5.4604924,1 1.0008889,5.4599999 1.0008889,11 c 0,0.084 -0.002,0.1665 0,0.25 C 1.1330771,5.8269999 5.5444849,1.5 11,1.5 c 5.455515,0 9.867123,4.3269999 9.999111,9.75 0.002,-0.0835 0,-0.166 0,-0.25 C 20.999111,5.4599999 16.539507,1 11,1 Z"/>
 <path style="opacity:0.2" d="M 1.00585,11.25 C 1.0038,11.3335 1,11.416 1,11.5 c 0,5.54 4.4599999,10 10,10 5.54,0 10,-4.46 10,-10 0,-0.084 -0.004,-0.1665 -0.006,-0.25 C 20.862,16.673 16.456,21 11,21 5.5439999,21 1.138,16.673 1.006,11.25 Z"/>
 <path style="opacity:0.2" d="m 5.9999999,5.5 0,5.5 c 0,1.3313 0.6900499,2.41735 1.5878999,3.1924 L 5.9999999,16.776475 C 7.4542998,17.828675 9.2045,18.49995 11,18.5 c 1.7955,5e-5 3.5457,-0.671325 5,-1.723525 L 14.4121,14.1924 C 15.30995,13.4174 16,12.3313 16,11 l 0,-5.5 -2,0 0,1.9003998 C 13.597945,7.1569898 13.18195,6.7270499 12,6.5663999 L 12,5.5 l -2,0 0,1.0663999 C 8.8180498,6.7270499 8.4020498,7.1569998 7.9999998,7.4003998 l 0,-1.9003998 z M 11,8.4999998 c 1.34785,0 2.14285,0.25 3,0.7500002 l 0,2.25 c 0,1.2681 -2,2.5 -3,3 -1,-0.5 -3.0000002,-1.7319 -3.0000002,-3 l 0,-2.25 C 8.8571498,8.7499998 9.65215,8.4999998 11,8.4999998 Z"/>
 <path style="fill:#8b9cbe" d="m 5.9999999,5 0,5.5 c 0,1.3313 0.6900499,2.41735 1.5878999,3.1924 L 5.9999999,16.276475 C 7.4542998,17.328675 9.2045,17.99995 11,18 c 1.7955,5e-5 3.5457,-0.671325 5,-1.723525 L 14.4121,13.6924 C 15.30995,12.9174 16,11.8313 16,10.5 L 16,5 14,5 14,6.9003998 C 13.597945,6.6569898 13.18195,6.2270499 12,6.0663999 L 12,5 10,5 10,6.0663999 C 8.8180498,6.2270499 8.4020498,6.6569998 7.9999998,6.9003998 L 7.9999998,5 Z M 11,7.9999998 c 1.34785,0 2.14285,0.25 3,0.75 L 14,11 c 0,1.2681 -2,2.5 -3,3 -1,-0.5 -3.0000002,-1.7319 -3.0000002,-3 l 0,-2.2500002 c 0.85715,-0.5 1.6521502,-0.75 3.0000002,-0.75 z"/>
</svg>
