<svg xmlns="http://www.w3.org/2000/svg" width="22" height="22" version="1">
 <rect style="opacity:.2" width="20" height="20" x="1" y="1.5" rx="1" ry="1"/>
 <rect style="fill:#636363" width="20" height="20" x="1" y="1" rx="1" ry="1"/>
 <path style="opacity:.2" d="m5 1.5v10c0 3.313709 2.6862915 6 6 6 3.313709 0 6-2.686291 6-6 0-3.3137085-2.686291-6-6-6-1.476954 0.00225-2.901179 0.5492225-4 1.536133v-5.536133zm6 6c2.209139 0 4 1.790861 4 4s-1.790861 4-4 4-4-1.790861-4-4 1.790861-4 4-4zm2 3c-0.552285 0-1 0.447715-1 1s0.447715 1 1 1 1-0.447715 1-1-0.447715-1-1-1z"/>
 <path style="fill:#b2bfd9" d="m11 5a6 6 0 0 0-6 6 6 6 0 0 0 6 6 6 6 0 0 0 6-6 6 6 0 0 0-6-6zm0 2a4 4 0 0 1 4 4 4 4 0 0 1-4 4 4 4 0 0 1-4-4 4 4 0 0 1 4-4z"/>
 <rect style="fill:#b2bfd9" width="2" height="10" x="5" y="1"/>
 <circle style="fill:#ed8f00" cx="13" cy="11" r="1"/>
 <path style="fill:#8b9cbe;opacity:.1" d="m2 1c-0.554 0-1 0.446-1 1v0.5c0-0.554 0.446-1 1-1h18c0.554 0 1 0.446 1 1v-0.5c0-0.554-0.446-1-1-1z"/>
 <path style="fill:#8b9cbe;opacity:.2" d="m5 1v0.5h2v-0.5zm6 4c-1.476954 0.00225-2.901179 0.5492225-4 1.536133v0.5c1.098821-0.9869105 2.523046-1.53386 4-1.536133 3.23219 0.0034 5.880813 2.566536 5.990234 5.796875 0.005705-0.098862 0.008961-0.197851 0.009766-0.296875 0-3.3137085-2.686291-6-6-6zm2 5c-0.552285 0-1 0.447715-1 1 3.19e-4 0.08371 0.01115 0.16704 0.03223 0.248047 0.114701-0.440573 0.51251-0.748062 0.96777-0.748047 0.456386 4.45e-4 0.854568 0.309829 0.967774 0.751953 0.021408-0.082273 0.032237-0.16694 0.032226-0.251953 0-0.552285-0.447715-1-1-1zm1.989258 1.211914c-0.112567 2.121828-1.864448 3.785363-3.989258 3.788086-2.097223-1.86e-4 -3.838213-1.620137-3.989258-3.711914-0.005454 0.070531-0.009036 0.141194-0.010742 0.211914 0 2.209139 1.790861 4 4 4s4-1.790861 4-4c-1.18e-4 -0.09613-0.0037-0.192217-0.01074-0.288086z"/>
</svg>
