<svg xmlns="http://www.w3.org/2000/svg" width="22" height="22" x="0" y="0" version="1.1">
 <path style="fill:#a3a3a3" d="m 10.859287,1.5159475 c -5.5228475,0 -9.2026266,3.961205 -9.2026266,9.4840525 0,5.522847 3.7735876,9.202626 9.2964356,9.202626 2.208407,0 4.296518,0.0815 5.95113,-1.130841 C 19.387513,17.252264 21,14.31444 21,11 21,8.262215 19.899792,5.781397 18.117389,3.9755569 16.304206,2.138533 13.64435,1.5159475 10.859287,1.5159475 Z M 11.25,3.5 c 2.899495,0 5.25,3.3578645 5.25,7.5 0,4.142135 -2.350505,7.5 -5.25,7.5 C 8.350505,18.5 5.0619135,15.095231 5.0619135,10.953096 5.0619135,6.81096 8.350505,3.5 11.25,3.5 Z"/>
 <path style="opacity:0.2" d="M 13.75,2.5 A 7.5,8.5 0 0 0 9.740235,3.8193359 5.25,7.5 0 0 0 6.080078,9.703125 5.25,7.5 0 0 0 6.0146485,10.447266 5.25,7.5 0 0 0 6,11 a 5.25,7.5 0 0 0 0.00683,0.297852 5.25,7.5 0 0 1 0.001,-0.02637 5.25,7.5 0 0 1 0.00683,-0.111329 5.25,7.5 0 0 1 0.1298825,-1.371094 5.25,7.5 0 0 1 0.00782,-0.04101 A 5.25,7.5 0 0 1 9.602562,4.3886745 5.25,7.5 0 0 1 11.25,4 5.25,7.5 0 0 1 16.493164,11.202149 5.25,7.5 0 0 0 16.5,11 5.25,7.5 0 0 0 11.25,3.5 5.25,7.5 0 0 0 11.236328,3.5009765 7.5,8.5 0 0 1 13.75,3 7.5,8.5 0 0 1 18.693359,5.116211 10,10 0 0 0 16.238281,2.9960938 7.5,8.5 0 0 0 13.75,2.5 Z M 1.0107422,11.208985 A 10,10 0 0 0 1,11.5 10,10 0 0 0 11,21.5 10,10 0 0 0 18.668945,17.902344 10,10 0 0 0 21,11.5 a 10,10 0 0 0 -0.01074,-0.208984 10,10 0 0 1 -4.736329,8.208007 7.5,8.5 0 0 1 -0.06641,0.0293 10,10 0 0 1 -4.529296,1.44043 10,10 0 0 1 -0.22168,0.02051 A 10,10 0 0 1 11,21 10,10 0 0 1 1.0107422,11.208985 Z"/>
 <path style="fill:#b2bfd9" d="M 11,1 A 10,10 0 0 0 1,11 10,10 0 0 0 11,21 10,10 0 0 0 18.668945,17.402344 7.5,8.5 0 0 1 13.75,19.5 7.5,8.5 0 0 1 9.766602,18.190429 5.25,7.5 0 0 1 6,11 5.25,7.5 0 0 1 9.71875,3.8339844 7.5,8.5 0 0 1 13.75,2.5 7.5,8.5 0 0 1 18.693359,4.616211 10,10 0 0 0 11,1 Z"/>
 <path style="opacity:0.2;fill:#8b9cbe" d="M 11,1 A 10,10 0 0 0 1,11 10,10 0 0 0 1.0107422,11.208985 10,10 0 0 1 11,1.5 10,10 0 0 1 16.238281,2.9960938 7.5,8.5 0 0 1 18.693359,4.616211 10,10 0 0 0 11,1 Z M 6.0078125,11.271485 A 5.25,7.5 0 0 0 6,11.5 5.25,7.5 0 0 0 9.766602,18.690429 7.5,8.5 0 0 0 13.75,20 7.5,8.5 0 0 0 16.186523,19.52832 10,10 0 0 0 18.668945,17.402344 7.5,8.5 0 0 1 13.75,19.5 7.5,8.5 0 0 1 9.766602,18.190429 5.25,7.5 0 0 1 6.0078125,11.271485 Z"/>
</svg>
