<svg xmlns="http://www.w3.org/2000/svg" width="22" height="22" version="1">
 <rect style="opacity:0.2" width="20" height="20" x="1" y="1.5" rx="6" ry="6"/>
 <rect style="fill:#b2bfd9" width="20" height="20" x="1" y="1" rx="6" ry="6"/>
 <path style="opacity:0.2;fill:#8b9cbe" d="M 7,1 C 3.676,1 1,3.676 1,7 v 0.5 c 0,-3.324 2.676,-6 6,-6 h 8 c 3.324,0 6,2.676 6,6 V 7 C 21,3.676 18.324,1 15,1 Z"/>
 <path style="fill:#3084e9" d="M 7.5,5 A 2.5,2.5 0 0 0 5,7.5 2.5,2.5 0 0 0 7.5,10 h 7 V 5 Z"/>
 <path style="fill:#aeaeae" d="m 7.5,12 v 5 h 7 A 2.5,2.5 0 0 0 17,14.5 2.5,2.5 0 0 0 14.5,12 Z"/>
 <path style="opacity:0.1" d="M 7.5,5 A 2.5,2.5 0 0 0 5,7.5 2.5,2.5 0 0 0 5.01367,7.7578125 2.5,2.5 0 0 1 7.5,5.5 h 7 V 5 Z m 0,7 v 0.5 h 7 A 2.5,2.5 0 0 1 16.986328,14.742188 2.5,2.5 0 0 0 17,14.5 2.5,2.5 0 0 0 14.5,12 Z"/>
 <path style="opacity:0.2" d="M 14.5,5.5 A 2.5,2.5 0 0 0 12,8 2.5,2.5 0 0 0 14.5,10.5 2.5,2.5 0 0 0 17,8 2.5,2.5 0 0 0 14.5,5.5 Z m -7,7 A 2.5,2.5 0 0 0 5,15 2.5,2.5 0 0 0 7.5,17.5 2.5,2.5 0 0 0 10,15 2.5,2.5 0 0 0 7.5,12.5 Z"/>
 <circle style="fill:#8b9cbe" cx="14.5" cy="7.5" r="2.5"/>
 <circle style="fill:#8b9cbe" cx="7.5" cy="14.5" r="2.5"/>
</svg>
