<svg xmlns="http://www.w3.org/2000/svg" width="22" height="22" version="1">
 <g transform="translate(-1,-1)">
  <rect style="opacity:0.2" width="19" height="19" x="2" y="3.5" rx="1" ry="1"/>
  <rect style="fill:#7d6328" width="19" height="19" x="2" y="3" rx="1" ry="1"/>
  <circle style="opacity:0.2" cx="16.5" cy="18" r="2.5"/>
  <circle style="fill:#8b9cbe" cx="16.5" cy="17.5" r="2.5"/>
  <path style="opacity:0.1" d="M 11,3 V 12 H 2 V 13 H 11 V 22 H 12 V 13 H 21 V 12 H 12 V 3 Z"/>
  <path style="opacity:0.1;fill:#8b9cbe" d="M 3,3 C 2.446,3 2,3.446 2,4 V 4.5 C 2,3.946 2.446,3.5 3,3.5 H 20 C 20.554,3.5 21,3.946 21,4.5 V 4 C 21,3.446 20.554,3 20,3 Z"/>
 </g>
</svg>
