<svg xmlns="http://www.w3.org/2000/svg" width="22" height="22" version="1.1">
 <path style="opacity:0.2" d="M 1.1266089,3.5004168 C 0.62060022,6.6138911 1.740059,9.1252107 2.5660621,10.324636 2.119982,11.533659 2.0950248,12.645942 2.0006324,13.211355 c 0.041738,2.156314 6.3218621,8.440256 9.0917976,8.283203 2.565005,0.213709 8.778518,-5.924054 8.908203,-8.283203 C 19.890945,12.179381 19.682086,11.262494 19.355125,10.444753 20.18598,9.2955777 21.396908,6.7138356 20.874656,3.5004168 18.120955,3.5781708 15.773198,4.6827291 14.073875,6.1293226 13.211791,5.8715261 12.241267,5.6610891 11.138328,5.5004166 9.846227,5.5860046 8.7478485,5.7730296 7.803367,6.0306901 6.114189,4.6340321 3.8158609,3.5763512 1.1266089,3.5004168 Z"/>
 <path style="fill:#d79f87" d="m 14.000633,5.6874996 c 1.704529,-1.476158 4.081747,-2.6086686 6.873597,-2.6875 0.529779,3.2597345 -0.725047,5.8765256 -1.556286,7.0000001"/>
 <path style="fill:#946e5d" d="m 15.000633,5.9511081 c 1.522735,-1.040996 3.018273,-1.78214 5,-1.9511085 -0.119661,3.4210156 -0.819887,3.8672016 -1.538984,5.0000001"/>
 <path style="fill:#d79f87" d="M 8.0006325,5.6874996 C 6.2961035,4.2113416 3.9188851,3.078831 1.1270355,2.9999996 0.59725622,6.2597341 1.8520817,8.8765252 2.6833216,9.9999997"/>
 <path style="opacity:0.2;fill:#8b9cbe" d="M 1.1266089,2.9999996 C 1.02324,3.636029 0.99055322,4.2454736 1.0064918,4.8251951 1.0169178,4.3974396 1.0525328,3.9557911 1.1266089,3.4999996 3.8158609,3.5759336 6.114189,4.6336151 7.803367,6.0302731 8.7478485,5.7726126 9.846227,5.5855876 11.138328,5.4999996 c 1.102939,0.1606725 2.073463,0.3711095 2.935547,0.628906 1.699323,-1.4465935 4.04708,-2.5511518 6.800781,-2.628906 0.07418,0.4564211 0.110791,0.8985095 0.121094,1.3271485 0.01611,-0.580631 -0.01766,-1.1907452 -0.121094,-1.8271485 -2.753701,0.077754 -5.101458,1.182313 -6.800781,2.628906 C 13.211791,5.3711096 12.241267,5.1606721 11.138328,4.9999996 9.846227,5.0855876 8.7478485,5.2726126 7.803367,5.5302731 6.114189,4.1336151 3.8158609,3.075934 1.1266089,2.9999996 Z m 1.3310548,7.1513674 c -0.3392601,1.07927 -0.3712509,2.045744 -0.4570313,2.559571 0.00152,0.07855 0.013644,0.163937 0.03125,0.252929 0.076524,-0.603912 0.1339842,-1.554987 0.5341797,-2.639648 -0.035021,-0.05085 -0.072469,-0.117336 -0.1083984,-0.172852 z m 17.0126953,0.117188 c -0.03811,0.05645 -0.07843,0.124882 -0.115234,0.175781 0.299779,0.749758 0.495521,1.587865 0.611328,2.516602 0.01768,-0.08727 0.02983,-0.170853 0.03418,-0.25 -0.09561,-0.899526 -0.271428,-1.707182 -0.530274,-2.442383 z"/>
 <path style="fill:#d79f87" d="m 2.0006324,12.710875 c 0.2565161,-1.536537 -0.024965,-7.1039419 9.1377556,-7.7108754 6.202783,0.9036005 8.392942,3.2955451 8.862245,7.7108754 -0.129685,2.35915 -6.343159,8.497392 -8.908164,8.283683 C 8.3225335,21.151612 2.0423706,14.86719 2.0006324,12.710875 Z"/>
 <path style="fill:#946e5d" d="M 7.0006325,5.9511081 C 5.477897,4.9101121 3.982359,4.1689681 2.0006324,3.9999996 2.1202928,7.4210152 2.8205187,7.8672012 3.5396164,8.9999997"/>
 <path style="fill:#946e5d" d="m 13.000633,16.000446 a 2,1.9995537 0 1 1 -4,0 2,1.9995537 0 1 1 4,0 z"/>
 <path style="opacity:0.1" d="m 8.767234,13.506578 c -1.498033,0.05416 -3.5910585,0.447116 -4.0996096,2.155274 -0.5458545,1.83346 0.6304171,1.879444 0.8232426,3.11914 0.192825,1.239699 -1.1406251,0.925781 -1.1406251,0.925781 l 0.1347655,0.275391 c 0,0 1.2989021,0.24524 1.3408206,-1.083008 C 5.867748,17.570909 4.6284119,16.970422 5.4332495,15.661852 6.238087,14.353283 9.233055,15.119859 9.233055,15.119859 l 1.117187,-1.55664 c 0,0 -0.684188,-0.08913 -1.583008,-0.05664 z m 4.466797,0 c -0.89882,-0.03249 -1.583008,0.05664 -1.583008,0.05664 l 1.117188,1.55664 c 0,0 2.994967,-0.766576 3.799805,0.541993 0.804837,1.30857 -0.434499,1.909057 -0.392579,3.237304 0.04192,1.328248 1.340821,1.083008 1.340821,1.083008 l 0.134765,-0.275391 c 0,0 -1.33345,0.313918 -1.140625,-0.925781 0.192826,-1.239696 1.369097,-1.28568 0.823243,-3.11914 -0.508551,-1.708158 -2.601577,-2.101119 -4.09961,-2.155273 z"/>
 <path style="fill:#4a3025" d="m 10.350633,13.063931 c 0,0 -4.869183,-0.635069 -5.6828641,2.097984 -0.5458545,1.83346 0.6302241,1.880079 0.8230496,3.119775 0.192825,1.239699 -1.1401861,0.924854 -1.1401861,0.924854 l 0.13414,0.275489 c 0,0 1.2994766,0.245972 1.3413951,-1.082275 0.04192,-1.328247 -1.1975621,-1.929273 -0.3927245,-3.237843 0.8048375,-1.308569 3.799736,-0.541422 3.799736,-0.541422 z"/>
 <path style="opacity:0.2" d="m 5.9156545,9.0004757 c 0.751548,0.0068 1.2966325,0.08506 1.7341065,0.287527 0.5832995,0.269957 0.9531215,0.7579373 1.3417105,1.5432793 a 0.09486664,0.09076939 0 0 1 -0.02705,0.110259 C 8.5158945,11.278774 8.096711,11.454126 7.7038585,11.492129 7.311006,11.530134 6.9481375,11.428604 6.6222645,11.228358 5.9705205,10.827869 5.454026,10.043566 5.009693,9.1451257 a 0.09486664,0.09076939 0 0 1 0.081888,-0.129404 c 0.300038,-0.01164 0.573555,-0.0175 0.824072,-0.01525 z"/>
 <path style="opacity:0.1" d="M 6.7506325,6.4999996 C 4.6805289,6.4999996 3.0003629,8.1804987 3.0006324,10.25 3.0001528,12.319681 4.6803964,14 6.7506325,14 8.8207365,14 10.500902,12.319499 10.500633,10.25 10.501112,8.1803192 8.820869,6.4999996 6.7506325,6.4999996 Z m 0,1.0000001 C 8.268806,7.4999997 9.500984,8.7322342 9.500633,10.25 9.50083,11.767633 8.2687085,13 6.7506325,13 5.2324595,13 4.000281,11.767766 4.0006324,10.25 4.000435,8.7323657 5.2325565,7.4999997 6.7506325,7.4999997 Z"/>
 <path style="fill:#aef766" d="m 5.9156545,8.5004742 c 0.751548,0.0068 1.2966325,0.08506 1.7341065,0.2875272 0.5832995,0.2699583 0.9531215,0.7579383 1.3417105,1.5432806 a 0.09486664,0.09076939 0 0 1 -0.02705,0.110259 C 8.5158945,10.778774 8.096711,10.954126 7.7038585,10.992129 7.311006,11.030134 6.9481375,10.928604 6.6222645,10.728358 5.9705205,10.327869 5.454026,9.5435657 5.009693,8.6451243 A 0.09486664,0.09076939 0 0 1 5.091581,8.5157202 c 0.300038,-0.01164 0.573555,-0.017499 0.824072,-0.01525 z"/>
 <path style="fill:#1b65cf" d="m 6.5006322,6.0000002 c -1.9320966,0 -3.5002514,1.5684657 -3.4999998,3.4999995 C 3.0001847,11.431702 4.568412,13 6.5006322,13 8.4327293,13 10.000883,11.431533 10.000632,9.4999997 10.001079,7.5682984 8.4328527,6.0000002 6.5006322,6.0000002 Z m 0,0.9333333 c 1.4169618,0 2.5669948,1.1500855 2.5666668,2.5666662 1.84e-4,1.4164583 -1.149796,2.5666663 -2.5666668,2.5666663 -1.4169614,0 -2.5669946,-1.150084 -2.5666665,-2.5666663 -1.843e-4,-1.416458 1.1497957,-2.5666662 2.5666665,-2.5666662 z"/>
 <path style="opacity:0.2" d="m 15.085611,9.0004757 c -0.751548,0.0068 -1.296633,0.08506 -1.734107,0.287527 -0.583299,0.269957 -0.953121,0.7579373 -1.34171,1.5432793 a 0.09486664,0.09076939 0 0 0 0.02705,0.110259 c 0.448527,0.337233 0.86771,0.512585 1.260563,0.550588 0.392852,0.03801 0.755721,-0.06353 1.081594,-0.263771 0.651744,-0.400489 1.168238,-1.184792 1.612571,-2.0832323 a 0.09486664,0.09076939 0 0 0 -0.08189,-0.129404 c -0.300038,-0.01164 -0.573555,-0.0175 -0.824072,-0.01525 z"/>
 <path style="fill:#263742" d="m 7.4739005,8.9999986 c 0.067626,0.7471131 0.0392,1.0758794 -0.473268,1.5000004 0.03562,-0.6896283 0.054009,-1.0239813 0.473268,-1.5000004 z"/>
 <path style="fill:#4a3025" d="m 11.650633,13.063931 c 0,0 4.869182,-0.635069 5.682863,2.097984 0.545855,1.83346 -0.630224,1.880079 -0.823049,3.119775 -0.192825,1.239699 1.140186,0.924854 1.140186,0.924854 l -0.13414,0.275489 c 0,0 -1.299477,0.245972 -1.341395,-1.082275 -0.04192,-1.328247 1.197562,-1.929273 0.392724,-3.237843 -0.804837,-1.308569 -3.799735,-0.541422 -3.799735,-0.541422 z"/>
 <path style="fill:#383838" d="m 13.000633,14 a 2,2 0 1 1 -4,0 2,2 0 1 1 4,0 z"/>
 <path style="fill:#aef766" d="m 15.085611,8.5004742 c -0.751548,0.0068 -1.296633,0.08506 -1.734107,0.2875272 -0.583299,0.2699583 -0.953121,0.7579383 -1.34171,1.5432806 a 0.09486664,0.09076939 0 0 0 0.02705,0.110259 c 0.448527,0.337233 0.86771,0.512585 1.260563,0.550588 0.392852,0.03801 0.755721,-0.06353 1.081594,-0.263771 0.651744,-0.400489 1.168238,-1.1847923 1.612571,-2.0832337 a 0.09486664,0.09076939 0 0 0 -0.08189,-0.1294041 c -0.300038,-0.01164 -0.573555,-0.017499 -0.824072,-0.01525 z"/>
 <path style="fill:#263742" d="m 13.527365,8.9999986 c -0.06763,0.7471131 -0.0392,1.0758794 0.473268,1.5000004 -0.03562,-0.6896283 -0.05401,-1.0239813 -0.473268,-1.5000004 z"/>
 <path style="opacity:0.1" d="M 20.981454,8.9548878 A 8.3498616,1.8092197 17.065896 1 1 5.019843,4.0451091 8.3498616,1.8092197 17.065896 1 1 20.981454,8.9548878 Z"/>
 <path style="fill:#17191e" d="M 20.981454,8.4548878 A 8.3498616,1.8092197 17.065896 1 1 5.019843,3.5451091 8.3498616,1.8092197 17.065896 1 1 20.981454,8.4548878 Z"/>
 <path style="opacity:0.1" d="m 11.103496,1.4999995 c 1.679009,0.059171 4.541028,0.5735476 6.897137,2.1493204 l -1.20669,3.8209083 c -2.48835,0.2260245 -5.358381,-0.8665166 -6.79331,-2.2052466 z"/>
 <path style="fill:#484848" d="m 11.103496,0.99999954 c 1.679009,0.059171 4.541028,0.57354756 6.897137,2.14932036 l -1.20669,3.8209082 c -2.48835,0.2260246 -5.358381,-0.8665165 -6.79331,-2.2052465 z"/>
 <path style="opacity:0.2" d="m 11.157347,1.0027915 c 2.094536,1.7390898 5.441716,2.4434674 6.813631,2.2400015 l 0.02958,-0.093575 C 15.668629,1.5896158 12.84298,1.070665 11.157347,1.0027915 Z"/>
 <path style="fill:#1b65cf" d="m 3.0935264,9.2998037 c -0.4705176,0.149317 -0.7655535,0.29037 -0.9355469,0.448243 -0.084997,0.07894 -0.1408659,0.166917 -0.1542969,0.2626953 -0.013431,0.09578 0.018604,0.189276 0.074219,0.268555 0.1112282,0.158558 0.312506,0.284922 0.569336,0.412109 0.2568299,0.127188 0.5706271,0.250075 0.9042969,0.372071 l 0.070312,-0.19043 C 3.2910301,10.752095 2.9824972,10.630817 2.7380577,10.509766 2.4936182,10.388715 2.3141002,10.263133 2.243917,10.163086 c -0.035092,-0.05002 -0.044261,-0.08793 -0.039063,-0.125 0.0052,-0.03707 0.028273,-0.08351 0.09082,-0.1416013 0.1250945,-0.116176 0.4016648,-0.258069 0.8593751,-0.403321 z"/>
 <path style="opacity:0.1" d="m 11.000633,15.5 a 2.0000002,2.0000002 0 1 1 -4.0000005,0 2.0000003,2.0000003 0 1 1 4.0000005,0 z"/>
 <path style="fill:#79503c" d="m 11.000633,15 a 2.0000002,2.0000002 0 1 1 -4.0000005,0 2.0000003,2.0000003 0 1 1 4.0000005,0 z"/>
 <path style="opacity:0.1" d="m 15.000633,15.5 a 2,2 0 1 1 -4,0 2,2 0 1 1 4,0 z"/>
 <path style="fill:#79503c" d="m 15.000633,15 a 2,2 0 1 1 -4,0 2,2 0 1 1 4,0 z"/>
 <path style="opacity:0.2;fill:#8b9cbe" d="m 10.259824,3.8798824 -0.259191,0.8847657 c 1.434929,1.33873 4.304848,2.4320791 6.793198,2.2060545 l 0.246324,-0.78125 C 16.313153,6.2520566 14.529056,6.0077246 13.387582,5.6689451 12.161473,5.3050481 10.826124,4.5336311 10.259824,3.8798824 Z"/>
 <path style="opacity:0.3;fill:#1b65cf" d="m 6.5006322,6.9333335 c 1.4169618,0 2.5669948,1.1500855 2.5666668,2.5666662 1.84e-4,1.4164583 -1.149796,2.5666663 -2.5666668,2.5666663 -1.4169614,0 -2.5669946,-1.150084 -2.5666665,-2.5666663 -1.843e-4,-1.416458 1.1497957,-2.5666662 2.5666665,-2.5666662 z"/>
</svg>
