<svg xmlns="http://www.w3.org/2000/svg" width="22" height="22" version="1">
 <rect style="fill:#b2bfd9" width="19.992" height="19.982" x="-20.99" y="-20.99" rx="9.996" ry="9.991" transform="matrix(0,-1,-1,0,0,0)"/>
 <path style="opacity:0.2;fill:#8b9cbe" d="m 11,1.0002 c -5.535,0 -9.991,4.4582 -9.991,9.996 0,0.08382 -0.002,0.16658 0,0.2499 0.1322,-5.421 4.54,-9.746 9.991,-9.746 5.451,0 9.859,4.32505 9.991,9.746 0.002,-0.08332 0,-0.166075 0,-0.2499 0,-5.5375 -4.456,-9.996 -9.991,-9.996 z"/>
 <path style="opacity:0.2" d="M 1.00585,11.245 C 1.0038,11.3285 1,11.411 1,11.495 1,17.038 5.46,21.5 11,21.5 c 5.54,0 10,-4.462 10,-10.005 0,-0.084 -0.004,-0.1665 -0.006,-0.25 C 20.862,16.6705 16.456,21 11,21 5.544,21 1.138,16.6705 1.006,11.245 Z"/>
 <circle style="fill:#17191e" cx="11" cy="11" r="7"/>
 <path style="opacity:0.2" d="m 9,7.5 0,3 0,2 0,3 2,0 0,-3 2,0 0,-2 -2,0 0,-1 3,0 0,-2 -3,0 -1,0 -1,0 z"/>
 <path style="fill:#8b9cbe" d="m 9,7 0,3 0,2 0,3 2,0 0,-3 2,0 0,-2 -2,0 0,-1 3,0 0,-2 -3,0 -1,0 -1,0 z"/>
</svg>
