<svg xmlns="http://www.w3.org/2000/svg" width="22" height="22" x="0" y="0" version="1.1" xml:space="preserve">
 <path style="fill:none" d="m 40.403656,-64.31234 a 20.426046,20.426046 0 1 1 40.153647,-7.521834 20.426046,20.426046 0 1 1 -40.153647,7.521834 z"/>
 <path style="opacity:0.2" d="M 9.5019531,1.5349813 C 7.9498458,1.5764067 6.9237243,3.0284734 6.2460939,4.3025595 4.5692618,4.9635408 3.2992558,6.2036902 2.2929689,7.8006063 1.6006325,9.0226576 1.1813399,10.38222 1.0253907,11.775218 c -0.092676,1.412307 0.067789,2.850593 0.5996094,4.171875 0.4122081,1.161289 1.1374654,2.185524 2.0664062,2.980468 1.2332721,0.822941 2.4647473,1.66867 3.8105469,1.611328 -0.5002656,-0.289239 -2.1079469,-1.35082 -2.5,-3.501953 0.4162122,0.815167 2.4360363,2.251857 3,2.5 C 7.7217797,19.275302 7.0893375,17.663267 7.0156251,16.742015 l -3.890625,-1.19336 C 2.8079768,14.545867 2.6194118,13.509375 2.5039063,12.449046 2.4891584,12.212112 2.4595563,11.954247 2.544922,12.017405 2.8642568,12.523524 3.4456504,13.212467 4.0000001,13.499827 3.474277,12.672964 3.4272507,11.197565 3.513672,10.214671 3.6003877,9.2284256 3.8224754,8.2708382 4.4335939,7.5623251 4.6200169,7.3489042 4.8205603,7.1506178 5.0253907,6.9588095 c -0.00475,0.3717634 0.056012,0.7506637 0.099609,1.1132812 -0.00878,0.1899044 0.1790073,0.5887432 0.087891,0.6289063 -0.1838158,0.5552836 -0.3594616,1.2729646 0.080078,1.757814 0.1392192,-0.6276004 0.8957866,-0.9313384 1.4355468,-1.1953134 0.6101599,-0.2649012 1.1048376,-0.6649529 1.7089844,-0.94336 0.796102,-0.4566794 1.5652319,0.2148438 2.5878909,0.2148437 0.97772,0 1.509061,-0.5649507 2.476562,-1 0.225171,0.2329306 0.62861,0.6122721 0.804688,0.8886719 l -0.002,0 C 14.808989,9.2301786 14.885159,10.16756 15,11.087718 c 0.143307,1.203562 -0.286403,2.537842 -0.998047,3.449218 0.01467,0.002 1.6506,-0.191958 2.501953,-1 -0.607417,4.696561 -3.485419,7.346077 -5.001953,8.001953 2.018803,0.135865 3.497213,-0.999999 3.5,-1 0.0027,0 -0.279993,0.569771 -1,1 1.319185,-0.369385 2.067919,-0.492203 2.900391,-1.099609 -3.12e-4,0 0.675148,-0.368873 1.380859,-1.173828 0.09388,-0.107088 0.25491,-0.254998 0.351563,-0.376953 0.06008,-0.07581 0.117058,-0.154296 0.175781,-0.230469 0.01035,-0.01253 0.0213,-0.02441 0.03125,-0.03711 1.485339,-1.817042 2.209881,-4.075812 2.15625,-6.123047 0.0949,-5.2951116 -4.589214,-9.6887442 -10.638672,-8.9023458 -0.06238,6.865e-4 -0.264296,0.00904 -0.5117189,0.019531 -0.06937,-0.1822512 0.0095,-0.977099 0.1542969,-1.0800782 -0.3181279,0.029781 -0.6078019,0.7371788 -0.8769529,1.1347657 -0.03205,0.00345 -0.064,0.00403 -0.0957,0.00781 0.231893,-0.4991702 0.473963,-1.2832822 0.75,-1.6425782 C 8.7234234,2.2320768 8.3774084,3.1859064 7.8066407,3.888497 7.7526682,3.8969665 7.6977912,3.9043932 7.6445313,3.9138876 7.9243346,2.8072817 8.5657732,2.3092919 9.5019531,1.5349813 Z"/>
 <path style="fill:#304776" d="m 4.1639414,17.4168 c 0.8684953,1.249123 2.0576698,2.424245 3.3375454,2.62159 -0.5002656,-0.28924 -2.1084199,-1.349529 -2.500473,-3.500662 0.4162122,0.815167 2.4366039,2.25233 3.0005676,2.500473 C 7.7214079,18.776567 7.0897559,17.163025 7.0160435,16.241773 L 3.112789,15.044802 c 0.022465,0.03419 0.1022853,1.037406 1.0511524,2.371998 z"/>
 <path style="opacity:0.2" d="M 17.003284,9.0363086 10.502054,6.7564016 3.5348312,7.2206614 1.7566532,9.4397266 C 2.0730554,11.491005 1.87647,13.711529 2.9783407,15.503661 l 11.5244703,3.53454 2.490067,-4.367821 z"/>
 <path style="fill:#ebebeb" d="M 17.003284,8.5362138 10.502054,6.256307 3.5348312,6.7205668 1.7566532,8.9396316 C 2.0730554,10.99091 1.87647,13.211434 2.9783407,15.003567 l 11.5244703,3.534539 2.490067,-4.367821 z"/>
 <path style="opacity:0.2" d="M 16.474475,10.286594 15.509928,7.1180675 3.7122767,6.9996606 3.6453865,7.0820832 3.5348312,7.2206614 8.0015814,13.53716 Z"/>
 <path style="fill:#3f7da7;fill-rule:evenodd" d="M 3.7016117,6.5872696 4.8753925,6.7549103 5.197646,5.1840471 4.5531385,5.4982196 Z"/>
 <path style="fill:#f7f7f7" d="M 16.474475,9.7864986 15.509928,6.6179729 3.7122767,6.499566 3.6453865,6.5819886 3.5348312,6.7205668 8.0015814,13.037066 Z"/>
 <path style="fill:#2f67a4" d="M 10.476659,3.0927304 C 10.475459,3.0930135 8.99333,3.0998704 8.3463732,3.3076148 5.5653766,3.5536256 3.6824187,5.094902 2.2924936,7.3006285 1.6001573,8.5226802 1.1806248,9.8820146 1.0246756,11.275013 c -0.092676,1.412307 0.068879,2.851383 0.6006995,4.172665 0.4122081,1.161289 1.1378565,2.185112 2.0667973,2.980056 1.2332721,0.822941 2.4635148,1.667997 3.8093144,1.610656 C 6.2216112,19.841045 5.0324367,18.665923 4.1639414,17.4168 3.2150742,16.082209 3.1354265,15.079445 3.1129613,15.045258 l 0.012698,0.0039 C 2.808636,14.04637 2.6199532,13.009298 2.5044477,11.948969 c -0.014748,-0.236934 -0.044342,-0.493903 0.041023,-0.430745 0.3193348,0.506119 0.9001793,1.194589 1.454529,1.481949 C 3.474277,12.17331 3.4279831,10.697066 3.5144044,9.7141716 3.6011201,8.7279276 3.8233822,7.7717922 4.4345006,7.0632791 6.03556,5.2303534 8.371736,4.2553649 10.476659,3.0927304 Z M 7.5014868,20.03839 C 7.4387248,19.98164 7.37283,19.94514 7.3051607,19.917273 c 0.073548,0.04724 0.1442033,0.09098 0.1963261,0.121117 z"/>
 <path style="opacity:0.1;fill:#8b9cbe" d="m 10.363281,3.0958757 c -0.06064,6.565e-4 -0.267175,0.00708 -0.5156249,0.017578 0.01079,0.029136 0.02451,0.045232 0.04297,0.039063 0.1598299,-0.027651 0.3146369,-0.036155 0.4726559,-0.056641 z m -1.2382809,0.074219 c -0.03214,0.00345 -0.06391,0.00403 -0.0957,0.00781 -0.037731,0.081215 -0.075949,0.1744743 -0.1132844,0.2363306 0.067341,-0.041003 0.1386724,-0.1402767 0.2089844,-0.2441406 z m -1.3183594,0.21875 c -0.053871,0.00845 -0.1089489,0.015919 -0.1621094,0.025391 -0.020747,0.082055 -0.043865,0.1588531 -0.060547,0.2480469 0.084385,-0.079997 0.1484546,-0.1820985 0.2226562,-0.2734375 z M 6.2460939,3.802907 C 4.5694194,4.4641787 3.2993256,5.7039268 2.2929689,7.3009538 1.6006324,8.5230057 1.1813399,9.8825656 1.0253907,11.275564 c -0.025306,0.38564 -0.028639,0.771514 -0.013672,1.158203 0.00171,-0.21988 -7.078e-4,-0.439072 0.013672,-0.658203 C 1.1813399,10.382566 1.6006325,9.0230056 2.2929689,7.8009538 3.2217185,6.3270846 4.3776734,5.1615792 5.8671876,4.4689226 5.9307683,4.3613945 5.9937025,4.2535342 6.0507813,4.1525164 6.1066571,4.0404526 6.1841924,3.9192945 6.2460939,3.802907 Z"/>
 <path style="fill:#4a96e1" d="M 9.5020751,1.0347973 C 7.8081829,1.0800068 6.7182147,2.8146616 6.0506714,4.1534794 5.8102239,4.5790222 5.4893942,5.0839837 5.2793695,5.4859227 4.8773984,6.1193306 5.0418485,6.880038 5.1251658,7.5730186 5.1163891,7.762923 5.3043217,8.1616279 5.213205,8.201791 5.0293892,8.7570741 4.8542285,9.4736026 5.2937682,9.9584516 5.4329875,9.3308516 6.1894071,9.0284506 6.7291673,8.7644765 7.3393272,8.4995759 7.8332171,8.0982724 8.4373639,7.8198653 9.2334661,7.3631859 10.002175,8.0361192 11.024834,8.0361192 c 0.97772,0 1.510287,-0.5651399 2.477788,-1.0001892 0.225171,0.2329305 0.627899,0.6112656 0.803977,0.8876654 l -0.0025,0 C 14.808401,8.73012 14.885159,9.6676946 15,10.587853 c 0.143307,1.203562 -0.285506,2.537401 -0.99715,3.448777 -8.4e-5,1.4e-5 -0.0057,0.0012 -0.0057,0.0012 1.7e-5,0 0.005,-1.3e-5 0.005,0 0.01467,0.002 1.649618,-0.192772 2.500971,-1.000814 -0.607417,4.696561 -3.484412,7.345637 -5.000946,8.001513 2.018803,0.135864 3.497875,-1.000189 3.500662,-1.000189 0.0027,0 -0.280182,0.56996 -1.000189,1.000189 1.319185,-0.369386 2.06645,-0.492308 2.898922,-1.099714 -3.12e-4,0 0.676455,-0.368249 1.382166,-1.173204 0.09388,-0.107088 0.255182,-0.255686 0.351835,-0.377641 0.06008,-0.07581 0.115622,-0.153558 0.174345,-0.229731 0.01035,-0.01253 0.02215,-0.02444 0.0321,-0.03714 1.485339,-1.817042 2.208702,-4.076214 2.155071,-6.123449 C 21.094446,6.5653394 16.167379,2.0665563 9.8906561,3.1524624 9.7551341,3.197772 9.8349171,2.1539003 10.002175,2.0349841 9.6009411,2.0725447 9.2420911,3.21546 8.9169722,3.4134215 9.1837891,2.9713663 9.4578511,1.952641 9.7787981,1.5348895 8.5856575,1.757608 8.3167541,2.9678281 7.5832698,3.6631734 7.8249231,2.3711003 8.4964831,1.8665207 9.5020811,1.0347949 Z"/>
 <path style="fill:#4271a3" d="m 5.7068862,8.0001726 c 2.2224327,-0.063966 0.8270055,-1.4413466 3.7931139,-4 -2.4164733,1.2511803 -4.716496,1.2494473 -3.7902469,4 l -0.0028,0 z"/>
 <path style="fill:#8b9cbe" d="M 6.9032138,6.6598446 C 6.7433649,6.9518113 6.3703844,7.0694861 6.1640528,6.9595818 5.9531884,6.8496785 5.9543221,6.482222 6.117554,6.1902548 c 0.1575813,-0.2919673 0.85366,-0.16097 0.8570607,-0.16097 0.0033,0 0.088425,0.3397028 -0.071423,0.6305598 z"/>
 <path style="fill:#5c5f60" d="m 6.4400851,8.8864791 c 0,0 0.1283182,-0.1238305 0.061428,-0.3502653 C 5.7016109,8.8006893 5.237339,8.0350145 5.2401301,8.0350145 c 0.0027,0 -0.5284565,1.4390181 0.048474,2.0014835 0.062246,-0.5887324 1.1217497,-1.1192241 1.1245408,-1.1192241"/>
 <path style="opacity:0.1;fill:#8b9cbe" d="M 9.5019531,1.0353288 C 7.808061,1.0805383 6.7183246,2.8136985 6.0507813,4.1525164 5.8103338,4.5780591 5.4893217,5.0845617 5.279297,5.4865007 5.021822,5.8922182 5.0038834,6.3498443 5.0410157,6.8087664 5.0609836,6.5233064 5.1164312,6.2431372 5.279297,5.9865007 5.4893217,5.5845617 5.8103338,5.0800123 6.0507813,4.6544695 6.6110196,3.5308615 7.4737337,2.1401356 8.7363282,1.6915788 8.9658923,1.482543 9.2162721,1.2716142 9.5019531,1.0353288 Z m 0.277344,0.5 c -0.180145,0.033627 -0.335729,0.09449 -0.478516,0.1679688 C 9.0003561,1.9514377 8.7379872,2.1879253 8.5078126,2.4220476 8.2778769,2.7335357 8.0681843,3.0622793 7.8300782,3.3615007 7.7250652,3.5949295 7.6415317,3.8565412 7.5839845,4.1642351 8.2472491,3.5354582 8.536392,2.4929052 9.4667971,2.1329851 c 0.100228,-0.235879 0.202918,-0.4550222 0.3125,-0.5976563 z m 0.2226559,0.5 C 9.8244331,2.0519468 9.6577701,2.2947868 9.4960941,2.5665788 9.2916731,3.0342396 9.1004271,3.608707 8.9160157,3.9142351 9.1963161,3.7435629 9.5019001,2.8730322 9.8378911,2.6115007 9.8643811,2.3547938 9.9229311,2.0915129 10.001953,2.0353288 Z m 2.171875,0.9628907 c -0.735236,-0.029699 -1.498613,0.018559 -2.2832029,0.1542969 -0.02235,0.00747 -0.03566,-0.021695 -0.04687,-0.064453 -0.03309,0.295661 -0.02683,0.5890938 0.04687,0.5644532 6.2073959,-1.0739122 11.0865719,3.3166123 11.0996089,8.6679684 0.0014,-0.107414 0.0106,-0.215903 0.0078,-0.322265 C 21.083224,7.2449482 17.32047,3.2061125 12.173815,2.9982197 Z M 11.501953,21.039235 c -8.3346352,1.307292 -4.1673176,0.653646 0,0 z"/>
</svg>
