<svg xmlns="http://www.w3.org/2000/svg" width="22" height="22" version="1.1">
 <path style="opacity:0.2" d="M 6.8586449,1.5003758 C 6.3306142,1.5044308 5.7529324,1.7151193 5.4123716,2.05994 L 4.3030087,3.1839513 C 3.8491741,3.6438778 3.1067173,4.3960467 2.6526356,4.8558082 L 1.5432727,5.9788425 c -0.4538341,0.459844 -0.66576413,1.341442 -0.470698,1.9579868 l 1.0302622,3.2587537 c 0.1949837,0.616875 0.7300088,1.494151 1.1884637,1.949197 l 8.0770604,8.016515 c 0.45862,0.45521 1.205328,0.450889 1.659162,-0.0088 l 2.992155,-3.030241 c 0.454164,-0.459926 1.196374,-1.212013 1.650373,-1.671856 l 2.992155,-3.030241 c 0.453999,-0.460009 0.449668,-1.208834 -0.0088,-1.664044 L 12.576356,3.7396093 C 12.117901,3.2843987 11.237372,2.7569631 10.620323,2.567747 L 7.359616,1.5677579 C 7.2053332,1.5204745 7.034655,1.4990249 6.8586449,1.5003758 Z M 6.0002557,5.0003376 c 0.8283115,0 1.4999838,0.6715578 1.4999838,1.4999838 -1.145e-4,0.828426 -0.6716723,1.4999837 -1.4999838,1.4999837 -0.828426,0 -1.4999837,-0.6715577 -1.4999837,-1.4999837 0,-0.8283115 0.6715577,-1.4999838 1.4999837,-1.4999838 z"/>
 <path style="fill:#5bb237" d="M 6.8586449,1.0002241 C 6.3306142,1.004279 5.7529324,1.2149676 5.4123716,1.5597883 L 4.3030087,2.6837996 C 3.8491741,3.1437261 3.1067173,3.8958949 2.6526356,4.3556566 L 1.5432727,5.478691 C 1.0894386,5.938535 0.87750857,6.8201329 1.0725747,7.4366777 l 1.0302622,3.2587533 c 0.1949837,0.616876 0.7300088,1.494152 1.1884637,1.949197 l 8.0770604,8.016515 c 0.45862,0.455211 1.205328,0.450889 1.659162,-0.0088 l 2.992155,-3.03024 c 0.454164,-0.459927 1.196374,-1.212013 1.650373,-1.671857 l 2.992155,-3.030241 c 0.453999,-0.460009 0.449668,-1.208833 -0.0088,-1.664044 L 12.576356,3.2394576 C 12.117901,2.784247 11.237372,2.2568113 10.620323,2.0675953 L 7.359616,1.0676062 C 7.2053332,1.0203228 7.034655,0.99887323 6.8586449,1.0002241 Z m -0.8583892,3.499962 c 0.8283115,0 1.4999838,0.6715577 1.4999838,1.4999837 -1.145e-4,0.828426 -0.6716723,1.4999837 -1.4999838,1.4999837 -0.828426,0 -1.4999837,-0.6715577 -1.4999837,-1.4999837 0,-0.8283115 0.6715577,-1.4999837 1.4999837,-1.4999837 z"/>
 <path style="opacity:0.2" d="M 13.45299,4.6094659 C 11.497875,5.1181679 9.551174,5.6664029 7.6210221,6.260815 7.4053115,6.327241 7.2126376,6.4042164 7.0331375,6.4883515 c -0.0049,0.5913791 -0.4833437,1.0693244 -1.0742068,1.0693244 -0.028745,0 -0.055808,-0.00559 -0.083984,-0.00781 -0.2330375,0.460993 -0.3158901,1.0260058 -0.2441378,1.7304503 0.2031522,1.9973168 0.4790258,3.9869738 0.7548743,5.9755208 0.052022,0.374981 0.1100978,0.750118 0.1660142,1.124988 l 3.4540646,3.4277 c 2.006047,-0.557501 4.010373,-1.122047 6.014583,-1.687482 0.454235,-0.46 1.195664,-1.211307 1.649396,-1.67088 l 0.0049,-0.0049 c -0.0404,-0.59817 -0.08073,-1.18648 -0.123045,-1.81541 -0.303987,0.08555 -0.524794,0.147907 -0.74511,0.209959 -1.870043,0.526859 -3.744564,1.039899 -5.608337,1.588849 -0.535111,0.157694 -0.743877,-0.0078 -0.786124,-0.53222 -0.0411,-0.504439 -0.112326,-1.006794 -0.181639,-1.604475 0.284843,-0.08017 0.526323,-0.144997 0.765617,-0.215818 1.437003,-0.426336 2.885928,-0.816663 4.306594,-1.291979 1.303411,-0.435933 1.867899,-1.217513 1.785136,-2.582979 -0.0443,-0.7294248 -0.112726,-1.4599731 -0.205075,-2.1874762 z M 12.687373,7.730526 c 0.182028,-0.00155 0.29028,0.1031894 0.321286,0.3613241 0.0854,0.7138417 0.20929,1.4239631 0.257809,2.1396249 0.01279,0.186403 -0.15463,0.512935 -0.307613,0.562494 C 11.958192,11.119036 10.937876,11.384968 9.85049,11.69142 9.730265,10.759157 9.593966,9.9231622 9.53604,9.0820732 9.523,8.8945124 9.745059,8.5718659 9.925684,8.509814 c 0.838851,-0.2857684 1.702772,-0.4968361 2.55466,-0.7441324 0.07691,-0.022255 0.146353,-0.03464 0.207029,-0.035156 z"/>
 <path style="fill:#8b9cbe" d="M 13.45299,4.1095653 C 11.497875,4.6182673 9.551174,5.1665023 7.6210221,5.7609144 7.4053115,5.8273404 7.2126376,5.9043158 7.0331375,5.9884509 7.0282375,6.57983 6.5497938,7.0577753 5.9589307,7.0577753 c -0.028745,0 -0.055808,-0.00559 -0.083984,-0.00781 -0.2330371,0.4609881 -0.3158897,1.0260009 -0.2441374,1.7304453 0.2031522,1.9973174 0.4790258,3.9869734 0.7548743,5.9755204 0.052022,0.374981 0.1100978,0.750119 0.1660142,1.124988 l 3.4540642,3.427698 c 2.006047,-0.557501 4.010373,-1.122047 6.014583,-1.687482 0.454235,-0.46 1.195664,-1.211307 1.649396,-1.67088 l 0.0049,-0.0049 c -0.0404,-0.59817 -0.08073,-1.18648 -0.123045,-1.81541 -0.303987,0.08555 -0.524794,0.147907 -0.74511,0.209959 -1.870043,0.526859 -3.744564,1.039899 -5.608337,1.588849 -0.535111,0.157694 -0.743877,-0.0078 -0.786124,-0.53222 -0.0411,-0.504439 -0.112326,-1.006794 -0.181639,-1.604476 0.284843,-0.08017 0.526323,-0.144996 0.765617,-0.215817 1.437003,-0.426336 2.885928,-0.816663 4.306594,-1.291979 1.303411,-0.435933 1.867899,-1.217513 1.785136,-2.5829788 -0.0443,-0.7294252 -0.112726,-1.4599733 -0.205075,-2.1874764 z m -0.765617,3.1210601 c 0.182028,-0.00155 0.29028,0.1031894 0.321286,0.3613241 0.0854,0.7138417 0.20929,1.4239627 0.257809,2.1396257 0.01279,0.186403 -0.15463,0.5129338 -0.307613,0.5624928 -1.000663,0.325068 -2.020979,0.590999 -3.108365,0.897451 C 9.730265,10.259256 9.593966,9.4232612 9.53604,8.5821727 9.523,8.3946118 9.745059,8.0719653 9.925684,8.0099135 c 0.838851,-0.2857684 1.702772,-0.4968361 2.55466,-0.7441325 0.07691,-0.022255 0.146353,-0.03464 0.207029,-0.035156 z"/>
 <path style="opacity:0.1" d="m 5.9999457,4.5001861 c -1.102775,0 -1.9999782,0.8972027 -1.9999782,1.9999783 0,1.1026845 0.8972032,1.9999782 1.9999782,1.9999782 1.1027761,0 1.9999783,-0.8972937 1.9999783,-1.9999782 C 7.999833,5.3973888 7.1026308,4.5001861 5.9999457,4.5001861 Z m 0,0.9999891 c 0.552208,0 0.9999892,0.4477052 0.9999892,0.9999892 0,0.552284 -0.4477047,0.9999891 -0.9999892,0.9999891 -0.5522835,0 -0.9999891,-0.4477051 -0.9999891,-0.9999891 0,-0.552284 0.4477056,-0.9999892 0.9999891,-0.9999892 z"/>
 <path style="fill:#c7c7c7" d="m 5.9999457,4.0001915 c -1.102775,0 -1.9999782,0.8972028 -1.9999782,1.9999783 0,1.1026845 0.8972032,1.9999783 1.9999782,1.9999783 1.1027761,0 1.9999783,-0.8972938 1.9999783,-1.9999783 C 7.999833,4.8973943 7.1026308,4.0001915 5.9999457,4.0001915 Z m 0,0.9999891 c 0.552208,0 0.9999892,0.4477052 0.9999892,0.9999892 0,0.552284 -0.4477047,0.9999891 -0.9999892,0.9999891 -0.5522835,0 -0.9999891,-0.4477051 -0.9999891,-0.9999891 0,-0.552284 0.4477056,-0.9999892 0.9999891,-0.9999892 z"/>
 <path style="opacity:0.2;fill:#8b9cbe" d="M 6.8583349,1.0002241 C 6.3303042,1.004279 5.7526224,1.2149676 5.4120616,1.5597883 L 4.3026987,2.6837996 C 3.848864,3.1437261 3.1064075,3.8958946 2.6523259,4.3556566 L 1.5429629,5.478691 C 1.151852,5.8749811 0.94272867,6.5839824 1.0166014,7.1671491 1.0709545,6.717929 1.2593166,6.2660879 1.5429629,5.9786855 L 2.6523259,4.8556512 C 3.1064075,4.3958887 3.848864,3.6437206 4.3026987,3.1837941 L 5.4120616,2.0597829 C 5.7526224,1.7149622 6.3303042,1.5042736 6.8583349,1.5002187 7.034345,1.4988687 7.2050232,1.5203174 7.359306,1.5676007 l 3.260707,0.9999892 c 0.617049,0.189216 1.497578,0.7166516 1.956033,1.1718622 l 8.077061,8.0165149 c 0.166782,0.165601 0.271977,0.370655 0.318356,0.585931 0.08134,-0.38031 -0.02389,-0.793545 -0.318356,-1.085926 L 12.576046,3.2394576 C 12.117591,2.784247 11.237062,2.2568113 10.620013,2.0675953 L 7.359306,1.0676062 C 7.2050232,1.0203228 7.034345,0.99887323 6.8583349,1.0002241 Z"/>
 <path style="opacity:0.1" d="m 5.6430246,15.475054 c -0.077399,0.842081 -0.4849427,2.265382 -1.3047318,3.003052 -0.3856768,0.346909 -0.8517229,0.521895 -1.3890624,0.521895 -0.1140361,0 -0.2313729,-0.0079 -0.3517627,-0.02374 C 1.8574706,18.879373 1.3493416,18.330506 1.1280356,17.389224 0.46642797,14.576466 2.6233572,8.5749878 5.7747812,6.4449629 c 0.1008334,-0.068091 0.2374789,-0.041285 0.3053062,0.059652 0.067993,0.1009369 0.04134,0.2381125 -0.059411,0.3062037 -3.1482056,2.1277914 -5.02961633,8.0744991 -4.4644691,10.4771371 0.178233,0.757857 0.5477364,1.17865 1.0981959,1.250878 0.561599,0.07355 1.0165882,-0.05353 1.3894747,-0.388526 0.8343119,-0.749997 1.153234,-2.405205 1.1850026,-3.086201"/>
 <path style="fill:#17191e" d="m 5.6430246,14.975087 c -0.077399,0.842081 -0.4849427,2.265382 -1.3047318,3.003052 -0.3856768,0.346909 -0.8517229,0.521895 -1.3890624,0.521895 -0.1140361,0 -0.2313729,-0.0079 -0.3517627,-0.02374 C 1.8574706,18.379406 1.3493416,17.830539 1.1280356,16.889257 0.46642797,14.076499 2.6233572,8.0750208 5.7747812,5.9449959 c 0.1008334,-0.068091 0.2374789,-0.041285 0.3053062,0.059652 0.067993,0.1009369 0.04134,0.2381125 -0.059411,0.3062037 -3.1482056,2.1277914 -5.02961633,8.0744991 -4.4644691,10.4771371 0.178233,0.757857 0.5477364,1.17865 1.0981959,1.250878 0.561599,0.07355 1.0165882,-0.05353 1.3894747,-0.388526 0.8343119,-0.749997 1.153234,-2.405205 1.1850026,-3.086201"/>
</svg>
