<svg xmlns="http://www.w3.org/2000/svg" width="22" height="22" version="1">
 <path style="opacity:0.2" d="M 3.015625,15.5 C 2.453525,15.5 2,15.946 2,16.5 v 4 c 0,0.55385 0.45352,1 1.015625,1 h 0.96875 C 4.546475,21.5 5,21.054 5,20.5 v -4 c 0,-0.554 -0.453525,-1 -1.015625,-1 z m 15.998047,0 C 18.451672,15.5 18,15.946 18,16.5 v 4 c 0,0.55385 0.45352,1 1.015625,1 h 0.96875 C 20.546875,21.5 21,21.054 21,20.5 v -4 c 0,-0.55385 -0.451567,-1 -1.013672,-1 h -0.970703 z"/>
 <path style="opacity:0.2" d="m 13.382813,1.4824219 c -0.376035,6.9e-4 -0.740372,0.020268 -1.088867,0.058594 C 11.244208,1.656459 10.329759,1.9426883 9.481446,2.352539 8.8987985,2.6340375 8.3315405,3.1091144 7.866211,3.5205078 L 7.77832,3.5976558 7.608398,3.5781248 C 7.025771,3.5091568 6.4720595,3.4969948 6.014648,3.5439458 5.8227975,3.5636388 5.827857,3.5623148 5.820312,3.6025398 5.813062,3.6411988 5.822162,3.91244 5.835937,4.072266 5.886006,4.6523525 5.999146,5.108348 6.168945,5.4726565 l 0.03418,0.073243 -0.02051,0.041015 c -0.018765,0.038635 -0.02227,0.04199 -0.055664,0.04199 -0.05781,5e-7 -0.1752435,0.03427 -0.248047,0.072266 C 5.834474,5.7243555 5.787819,5.7602345 5.741209,5.806639 5.68132,5.8662675 5.662096,5.8931895 5.617186,5.9843725 5.5228085,6.175992 5.49308,6.34463 5.500975,6.643552 c 0.00667,0.2524255 0.04064,0.479353 0.1201175,0.806641 0.2537155,1.0160865 0.652256,2.084003 1.415039,2.835938 0.614944,0.679855 1.2576865,1.280026 2.1386715,1.686523 C 8.607346,12.912218 8.2711325,14.694275 8,18 h 7 c 0,-2.625828 -0.147877,-4.294501 -0.5625,-5.341797 0.271239,0.05524 0.537417,0.122372 0.813476,0.220703 0.611707,0.224558 1.410733,0.882844 1.916016,1.270508 0.01265,-1.280054 -0.26035,-2.327052 -0.913086,-3.567383 -0.273702,-0.40737 -0.702524,-0.829225 -1.09375,-1.216796 0,-0.01486 0.08834,-0.09553 0.173828,-0.15918 0.199233,-0.148347 0.481376,-0.205034 0.813477,-0.288086 0.787937,-0.197048 1.908937,-0.1398775 3.136718,0.15918 0.115126,0.02804 0.210991,0.05078 0.212891,0.05078 0.02829,0 -0.153587,-0.351486 -0.355469,-0.6875005 -0.298776,-0.497287 -0.68018,-1.0116175 -1.040039,-1.4023435 -0.85896,-0.93264 -1.796093,-1.5547675 -2.784179,-1.7158205 -0.09732,-0.015865 -0.157227,-0.029435 -0.157227,-0.03613 0,-0.023085 0.07385,-0.185389 0.168945,-0.373047 0.516997,-1.0201958 1.28118,-1.8781491 2.098633,-2.2402344 0.224364,-0.099381 0.524068,-0.1918309 0.727539,-0.2246094 0.07886,-0.012703 0.101409,-0.022337 0.08691,-0.036133 C 18.214364,2.3856236 17.642471,2.1944581 17.269531,2.086914 15.961047,1.709589 14.611195,1.4801669 13.382813,1.4824219 Z"/>
 <path style="fill:#0063da" d="M 11.191137,10.5 C 14.218569,10.473664 15,11.45305 15,17.5 H 8 c 0.4983315,-6.075796 1.209252,-7.027189 3.191137,-7 z"/>
 <path style="fill:#0063da" d="m 13.382814,0.9823484 c 1.228383,-0.00226 2.578663,0.226992 3.887146,0.6043171 0.37294,0.1075439 0.944629,0.2987476 0.972452,0.3252333 0.0145,0.013797 -0.0087,0.023337 -0.08754,0.03604 -0.203471,0.032779 -0.502651,0.1252045 -0.727015,0.2245855 -0.817453,0.3620853 -1.582151,1.2206994 -2.099148,2.2408952 -0.0951,0.187658 -0.16818,0.3496415 -0.16818,0.372726 0,0.0067 0.05935,0.02045 0.156671,0.036315 0.988086,0.161053 1.925514,0.7829625 2.784474,1.7156025 0.359859,0.390726 0.74149,0.9052805 1.040266,1.4025675 0.201882,0.3360145 0.383431,0.6874015 0.35514,0.6874015 -0.0019,0 -0.09767,-0.02294 -0.212792,-0.050982 -1.227781,-0.299057 -2.349029,-0.355801 -3.136966,-0.1587535 -0.332101,0.083052 -0.614521,0.1392185 -0.813754,0.287565 -0.08549,0.063655 -0.173039,0.144062 -0.173039,0.1589175 0.391225,0.387571 0.819999,0.809734 1.093702,1.217105 0.652736,1.24033 0.925094,2.287063 0.912439,3.567117 -0.505283,-0.387664 -1.303674,-1.045665 -1.91538,-1.270223 -0.720753,-0.256729 -1.362756,-0.340859 -2.25142,-0.386765 -0.247175,-0.01277 -1.166534,-0.0095 -1.176256,0.01273 C 9.297106,11.985978 8.1359855,11.00268 7.0359535,9.786534 6.2731705,9.034599 5.87477,7.966146 5.621054,6.9500595 5.541579,6.6227715 5.5078815,6.3960415 5.5012125,6.143616 5.4933175,5.844694 5.5230775,5.6758915 5.617455,5.484272 5.662365,5.393089 5.6811705,5.3660045 5.74106,5.306375 5.78767,5.25997 5.8346115,5.224092 5.8790425,5.200905 5.9518455,5.16291 6.068844,5.1288805 6.1266545,5.1288805 c 0.033395,0 0.03754,-0.00305 0.056304,-0.041685 l 0.02024,-0.041685 -0.03396,-0.072883 C 5.9994395,4.6083185 5.8855225,4.1522905 5.835454,3.5722039 5.821659,3.4123775 5.812729,3.1410338 5.819979,3.1023741 c 0.00755,-0.040224 0.0026,-0.038741 0.1944505,-0.058434 0.4574115,-0.046951 1.011688,-0.035212 1.594315,0.033756 l 0.169532,0.020056 0.087689,-0.077523 C 8.331295,2.6088364 8.8992105,2.133594 9.481857,1.8520955 10.33017,1.4422448 11.243942,1.1560626 12.29368,1.0406192 c 0.348495,-0.038326 0.713099,-0.05758 1.089134,-0.0582708 z"/>
 <path style="fill:#8b9cbe" d="m 10.157234,5.0019115 c 0.05743,-0.00355 0.114515,-0.00215 0.171239,0.0044 0.945163,0.109204 1.426535,0.7732345 1.622881,1.7522165 0.07692,0.643588 0.0063,1.4111545 -0.180969,1.9453055 -0.01755,0.05004 -0.02487,0.083787 -0.01946,0.089021 0.0054,0.00524 0.03814,0.0033 0.08627,-0.0044 0.02926,-0.0047 0.103048,-0.00495 0.162805,-0.0069 V 10 H 6.6864 L 6.282948,8.969006 6.234298,8.6862695 C 5.917217,7.7351385 5.9365765,6.4171865 6.204463,6.0664075 c 0.015975,-0.02092 0.045795,-0.04638 0.066161,-0.056423 0.170106,-0.083876 0.408328,0.119186 0.7115505,0.6055965 0.57032,1.132336 0.713291,1.4336735 1.0034355,1.8757185 0.070329,0.073742 0.109513,0.083415 0.177077,0.042005 C 8.341584,8.4236515 8.445153,8.0389355 8.501273,7.132159 8.519708,6.834329 8.537368,6.8395555 8.5713255,6.6757675 8.65824,6.2565045 8.8130925,5.922237 9.05326,5.635722 9.344461,5.2883235 9.755205,5.02674 10.157234,5.0019145 Z"/>
 <path style="fill:#ffc77b" d="m 13.852313,2.4989998 0.01558,0.048761 c 0.02817,0.088201 0.07852,0.3060047 0.0947,0.4096687 0.02768,0.177338 0.0374,0.3095073 0.0374,0.5090094 0,0.3454144 -0.03439,0.5762116 -0.131365,0.8815626 C 13.829647,4.47076 13.817232,4.499 13.802205,4.499 c -0.0051,0 -0.05074,-0.033825 -0.101319,-0.075158 -0.48939,-0.399943 -1.100442,-0.7487188 -1.655932,-0.9451701 -0.0227,-0.00803 -0.04287,-0.019033 -0.04481,-0.024466 -0.0057,-0.01586 0.159358,-0.2026724 0.267885,-0.3032087 0.196097,-0.1816587 0.377473,-0.3013707 0.631692,-0.4169594 0.09178,-0.04173 0.209109,-0.089575 0.260735,-0.1063084 0.192799,-0.062492 0.425902,-0.109901 0.601442,-0.122329 z"/>
 <path style="fill:#fcb9a4" d="m 6.543873,9.516183 c 0.1315775,9e-4 0.2858125,0.06196 0.3856675,0.154406 0.065577,0.06071 0.095947,0.112922 0.097225,0.167176 C 7.0295155,9.95406 6.8906665,9.99726 6.686678,9.943576 6.5461955,9.906606 6.4110695,9.812283 6.3643845,9.718599 6.3058245,9.601082 6.3632845,9.525542 6.517895,9.516804 c 0.00854,-5e-4 0.017205,-6.5e-4 0.025975,-6.5e-4 z"/>
 <path style="fill:#fcb9a4" d="m 6.5319255,9.521536 c -0.15449,0.0013 -0.219358,0.07923 -0.1628825,0.195894 0.039975,0.08258 0.1812825,0.181533 0.317215,0.222146 0.060102,0.01795 0.1795075,0.0266 0.2198075,0.01591 0.074823,-0.01985 0.1169185,-0.06282 0.1169185,-0.119385 0,-0.07918 -0.102919,-0.188526 -0.2360295,-0.250773 -0.103884,-0.04858 -0.167491,-0.06449 -0.255029,-0.06379 z"/>
 <path style="fill:#fcb9a4" d="m 12.02263,9.819039 c -0.13341,7e-4 -0.196902,0.04236 -0.301121,0.197539 -0.17064,0.254075 -0.3474,0.423244 -0.578309,0.553482 -0.183538,0.103519 -0.393749,0.164977 -0.599099,0.175159 -0.06847,0.0034 -0.136858,0.01281 -0.176529,0.02429 -0.05621,0.01628 -0.07248,0.02644 -0.12302,0.07698 -0.04931,0.04931 -0.06123,0.06798 -0.07786,0.121815 -0.0108,0.03497 -0.01964,0.07954 -0.01964,0.09903 0,0.01949 0.0088,0.06405 0.01964,0.09901 0.01661,0.0538 0.02856,0.07251 0.0777,0.12165 0.04913,0.04914 0.06785,0.0611 0.12165,0.07772 0.06044,0.01867 0.163646,0.02417 0.253366,0.0135 0.221038,-0.02628 0.300395,-0.04282 0.467676,-0.09743 0.317172,-0.103538 0.595508,-0.275682 0.842947,-0.521329 0.166163,-0.164961 0.357011,-0.421462 0.392427,-0.527431 0.05054,-0.151216 -0.01769,-0.312419 -0.162353,-0.38364 -0.05523,-0.02719 -0.07112,-0.03071 -0.13747,-0.03036 z"/>
 <path style="fill:#fcb9a4" d="m 11.887095,12.44485 c -0.0046,3.67e-4 -0.01035,7e-4 -0.01433,10e-4 -0.04458,0.0042 -0.09887,0.0081 -0.136448,0.0098 0.02287,-0.0014 0.05178,-0.0037 0.08729,-0.0067 0.0173,-0.0015 0.03941,-0.0029 0.06348,-0.0042 z"/>
 <path style="opacity:0.2" d="m 12.324401,9.078682 c 0.357753,0.146991 0.582596,0.438466 0.655108,0.849236 0.02275,0.128841 0.02759,0.39568 0.0095,0.52599 -0.102283,0.738843 -0.567767,1.44421 -1.252388,1.913029 -0.341998,0.251637 -0.549613,0.319219 -0.931744,0.458887 -0.376036,0.117339 -0.775455,0.173845 -1.220251,0.174175 -0.436212,3.2e-4 -0.7803433,-0.04614 -1.1604603,-0.156668 -0.840945,-0.244528 -1.548085,-0.78722 -1.9588395,-1.503302 -0.297018,-0.640517 -0.623897,-1.187335 -0.380026,-1.58024 0.393894,-0.634608 1.470167,-0.135743 1.8870605,0.0579 0.3762015,0.175267 0.512739,0.224151 0.709933,0.254134 0.4439583,0.0675 0.6847533,-0.0043 1.5173713,-0.452282 C 10.847929,9.2811 11.63223,8.81208 12.324351,9.078683 Z"/>
 <path style="fill:#ffc77b" d="m 12.324401,8.5786825 c 0.357753,0.1469905 0.582596,0.4384655 0.655108,0.8492355 0.02275,0.128841 0.02759,0.39568 0.0095,0.52599 -0.102283,0.738843 -0.567767,1.44421 -1.252388,1.913029 -0.341998,0.251637 -0.549613,0.319219 -0.931744,0.458887 -0.376036,0.117339 -0.775455,0.173845 -1.220251,0.174175 -0.436212,3.2e-4 -0.7803433,-0.04614 -1.1604603,-0.156668 -0.840945,-0.244528 -1.548085,-0.78722 -1.9588395,-1.503302 -0.297018,-0.640517 -0.623897,-1.187335 -0.380026,-1.58024 0.393894,-0.634608 1.470167,-0.135743 1.8870605,0.0579 0.3762015,0.175267 0.512739,0.224151 0.709933,0.254134 0.4439583,0.0675 0.6847533,-0.0043 1.5173713,-0.452282 0.648264,-0.3384415 1.432565,-0.807461 2.124686,-0.5408575 z"/>
 <path style="fill:#4f4f4f" d="M 6.6201898,10.980483 C 6.7735553,10.933293 6.8522193,10.873464 6.9246068,10.74896 7.0945703,10.456625 6.9708968,9.984083 6.6168248,9.572934 6.4850308,9.419897 6.3620298,9.314649 6.1943763,9.211459 5.8111558,8.9755872 5.4274098,8.9336932 5.1977593,9.102659 c -0.088145,0.06485 -0.1318355,0.127872 -0.1685,0.24304 -0.029855,0.09378 -0.0319,0.110392 -0.0275,0.223336 0.00867,0.222716 0.074799,0.40845 0.23091,0.648574 0.1919085,0.295183 0.4909925,0.556946 0.7779085,0.680834 0.215478,0.09304 0.464809,0.126596 0.609612,0.08204 z"/>
 <ellipse style="fill:#17191e" cx="-9.729" cy="7.592" rx=".738" ry="1.009" transform="matrix(-0.99856635,0.0535279,0.13639028,0.99065518,0,0)"/>
 <path style="opacity:0.5;fill:none;stroke:#000000;stroke-width:0.5;stroke-linecap:round" d="m 12.253561,9.749975 c -0.463353,0.666666 -1,1 -2,1"/>
 <path style="fill:#17191e" d="M 3.015625,15 C 2.453525,15 2,15.446 2,16 v 4 c 0,0.55385 0.45352,1 1.015625,1 h 0.96875 C 4.546475,21 5,20.554 5,20 V 16 C 5,15.446 4.546475,15 3.984375,15 Z m 15.998047,0 C 18.451672,15 18,15.446 18,16 v 4 c 0,0.55385 0.45352,1 1.015625,1 h 0.96875 C 20.546875,21 21,20.554 21,20 v -4 c 0,-0.55385 -0.451567,-1 -1.013672,-1 h -0.970703 z"/>
 <path style="opacity:0.2" d="M 4.5,14.5 C 2.5670034,14.5 1,16.067003 1,18 1.001275,18.519161 1.1180255,19.031538 1.3417969,19.5 1.3417969,19.5 1.5,21 6.5,21 h 5 5 c 5,0 5.158203,-1.5 5.158203,-1.5 C 21.881974,19.031538 21.99875,18.519161 22,18 c 0,-1.932997 -1.567003,-3.5 -3.5,-3.5 -1.713535,0.0261 -4.29112,1.152344 -7,1.152344 -2.70888,0 -5.2864655,-1.126246 -7,-1.152344 z"/>
 <path style="fill:#17191e" d="m 13.267767,12.732233 a 2.5,2.5 0 0 0 -3.535534,0 2.5,2.5 0 0 0 0,3.535534 2.5,2.5 0 0 0 3.535534,0 2.5,2.5 0 0 0 0,-3.535534 z M 12.56066,13.43934 a 1.5,1.5 0 0 1 0.434341,0.943952 l -1.086895,-0.291399 -0.291434,-1.085514 a 1.5,1.5 0 0 1 0.944341,0.433102 z m 0.17607,1.90933 a 1.5,1.5 0 0 1 -0.17607,0.212131 1.5,1.5 0 0 1 -1.706319,0.292106 l 0.795495,-0.795494 1.086894,0.291398 z m -2.085435,-2.084021 0.291434,1.085515 -0.794788,0.794788 a 1.5,1.5 0 0 1 0.291399,-1.705612 1.5,1.5 0 0 1 0.211994,-0.174708 z"/>
 <path style="opacity:0.1;fill:#8b9cbe" d="M 2.51465,15 C 1.95255,15 1.5,15.446 1.5,16 v 0.5 c 0,-0.55385 0.452545,-1 1.01465,-1 h 0.9707 C 4.04745,15.5 4.5,15.946 4.5,16.5 V 16 c 0,-0.554 -0.45255,-1 -1.01465,-1 z m 17,0 c -0.562,0 -1.0145,0.446 -1.0145,1 v 0.5 c 0,-0.55385 0.452545,-1 1.01465,-1 h 0.9707 c 0.5625,0 1.015,0.446 1.015,1 V 16 c 0,-0.55385 -0.452545,-1 -1.01465,-1 h -0.9707 z"/>
 <path style="opacity:0.2" d="m 9.963867,12.500858 a 0.6487284,1.1785706 43.486771 0 0 -0.979492,0.49707 0.6487284,1.1785706 43.486771 0 0 -0.448242,1.184571 0.77906485,0.43913375 46.563462 0 0 0.295898,0.49121 0.77906485,0.43913375 46.563462 0 0 0.848633,0.244142 0.77906485,0.43913375 46.563462 0 0 -0.109375,-0.72168 0.6487284,1.1785706 43.486771 0 0 0.0059,-0.0039 0.77906485,0.43913375 46.563462 0 0 0.71582,0.123046 0.77906485,0.43913375 46.563462 0 0 -0.125,-0.743164 0.6487284,1.1785706 43.486771 0 0 0.0098,-0.0166 0.77906485,0.43913375 46.563462 0 0 0.742188,0.144531 0.77906485,0.43913375 46.563462 0 0 -0.237305,-0.874023 0.77906485,0.43913375 46.563462 0 0 -0.674805,-0.322266 0.6487284,1.1785706 43.486771 0 0 -0.04394,-0.003 z m 3.072266,0 a 1.1785706,0.6487284 46.513228 0 0 -0.04394,0.003 0.43913375,0.77906485 43.436539 0 0 -0.674805,0.322266 0.43913375,0.77906485 43.436539 0 0 -0.237305,0.874024 0.43913375,0.77906485 43.436539 0 0 0.742188,-0.144532 1.1785706,0.6487284 46.513228 0 0 0.0098,0.0166 0.43913375,0.77906485 43.436539 0 0 -0.125,0.743164 0.43913375,0.77906485 43.436539 0 0 0.71582,-0.123046 1.1785706,0.6487284 46.513228 0 0 0.0059,0.0039 0.43913375,0.77906485 43.436539 0 0 -0.109375,0.72168 0.43913375,0.77906485 43.436539 0 0 0.848633,-0.244141 0.43913375,0.77906485 43.436539 0 0 0.295898,-0.491211 1.1785706,0.6487284 46.513228 0 0 -0.448242,-1.18457 1.1785706,0.6487284 46.513228 0 0 -0.979492,-0.497071 z"/>
 <path style="fill:#8b9cbe" d="m 14.015326,12.498317 a 1.1785706,0.6487284 46.513228 0 0 -1.023579,-0.494307 0.43913375,0.77906485 43.436539 0 0 -0.674553,0.322508 0.43913375,0.77906485 43.436539 0 0 -0.237019,0.873395 0.43913375,0.77906485 43.436539 0 0 0.742058,-0.144023 1.1785706,0.6487284 46.513228 0 0 0.01,0.01646 0.43913375,0.77906485 43.436539 0 0 -0.12551,0.74326 0.43913375,0.77906485 43.436539 0 0 0.716056,-0.123448 1.1785706,0.6487284 46.513228 0 0 0.0055,0.0037 0.43913375,0.77906485 43.436539 0 0 -0.108509,0.721656 0.43913375,0.77906485 43.436539 0 0 0.848566,-0.243296 0.43913375,0.77906485 43.436539 0 0 0.295523,-0.49122 1.1785706,0.6487284 46.513228 0 0 -0.448535,-1.184587 z"/>
 <path style="fill:#8b9cbe" d="m 8.9846745,12.498316 a 0.6487284,1.1785706 43.486771 0 1 1.0235795,-0.494307 0.77906485,0.43913375 46.563462 0 1 0.674552,0.322509 0.77906485,0.43913375 46.563462 0 1 0.237019,0.873395 0.77906485,0.43913375 46.563462 0 1 -0.742057,-0.144023 0.6487284,1.1785706 43.486771 0 1 -0.01,0.01646 0.77906485,0.43913375 46.563462 0 1 0.125509,0.74326 0.77906485,0.43913375 46.563462 0 1 -0.716055,-0.123449 0.6487284,1.1785706 43.486771 0 1 -0.0055,0.0037 A 0.77906485,0.43913375 46.563462 0 1 9.68023,14.417517 0.77906485,0.43913375 46.563462 0 1 8.831664,14.174221 0.77906485,0.43913375 46.563462 0 1 8.5361415,13.683 0.6487284,1.1785706 43.486771 0 1 8.9846765,12.498414 Z"/>
 <path style="fill:#00a5ff" d="M 4.5,14 C 2.5670034,14 1,15.567003 1,17.5 1.001275,18.019161 1.1180255,18.531538 1.3417969,19 1.3417969,19 1.5,20.5 6.5,20.5 h 5 5 c 5,0 5.158203,-1.5 5.158203,-1.5 C 21.881974,18.531538 21.99875,18.019161 22,17.5 22,15.567003 20.432997,14 18.5,14 c -1.713535,0.0261 -4.29112,1.152344 -7,1.152344 -2.70888,0 -5.2864655,-1.126246 -7,-1.152344 z"/>
 <path style="opacity:0.3" d="M 3.4853515,15.005206 C 2.7938018,14.946895 2.1747698,15.38306 2.03125,16.078458 1.8672277,16.873198 2.3630918,18 3.1914062,18 H 11.5 19.808594 c 0.828314,0 1.324178,-1.126802 1.160156,-1.921542 -0.164023,-0.79474 -0.949317,-1.250311 -1.753906,-1.017011 C 19.214844,15.061447 14.117318,17 11.5,17 8.8826825,17 3.7851562,15.061447 3.7851562,15.061447 3.6845825,15.032287 3.5841444,15.013537 3.4853515,15.005206 Z"/>
 <path style="opacity:0.2" d="m 3.5,16 a 1,1 0 0 0 -1,1 1,1 0 0 0 1,1 1,1 0 0 0 1,-1 1,1 0 0 0 -1,-1 z m 16,0 a 1,1 0 0 0 -1,1 1,1 0 0 0 1,1 1,1 0 0 0 1,-1 1,1 0 0 0 -1,-1 z m -14,0.5 A 0.5,0.5 0 0 0 5,17 0.5,0.5 0 0 0 5.5,17.5 0.5,0.5 0 0 0 6,17 0.5,0.5 0 0 0 5.5,16.5 Z m 12,0 A 0.5,0.5 0 0 0 17,17 0.5,0.5 0 0 0 17.5,17.5 0.5,0.5 0 0 0 18,17 0.5,0.5 0 0 0 17.5,16.5 Z"/>
 <circle style="fill:#8b9cbe" cx="3.5" cy="16.5" r="1"/>
 <circle style="fill:#8b9cbe" cx="19.5" cy="16.5" r="1"/>
 <circle style="fill:#8b9cbe" cx="5.5" cy="16.5" r=".5"/>
 <circle style="fill:#8b9cbe" cx="17.5" cy="16.5" r=".5"/>
 <path style="opacity:0.3;fill:#8b9cbe" d="m 3,18 c 1.505127,1.208599 2.801489,1.984195 1.722656,2.422851 C 5.235603,20.470861 5.8194795,20.5 6.5,20.5 h 5 5 c 0.68052,0 1.264397,-0.02914 1.777344,-0.07715 C 17.198511,19.984195 18.494873,19.208599 20,18 h -8.5 z"/>
 <path style="opacity:0.4" d="m 7,19 c -0.554,0 -1,0.446 -1,1 v 0.5 h 0.5 5 5 c 0.129775,0 0.5,0 0.5,0 0,0 0,-0.319357 0,-0.5 0,-0.554 -0.446,-1 -1,-1 z"/>
 <path style="fill:#17191e" d="m 6.932617,6.542969 a 1.0125872,0.73290425 76.827624 0 0 -0.4199215,0.9960935 1.0125872,0.73290425 76.827624 0 0 0.875,0.959961 1.0125872,0.73290425 76.827624 0 0 0.446289,-0.2666015 C 7.6276915,7.889511 7.443977,7.5316245 6.982422,6.6152345 6.964867,6.5870745 6.949737,6.5692295 6.932617,6.542969 Z"/>
 <path style="opacity:0.1;fill:#8b9cbe" d="m 13.382813,0.9824219 c -0.376035,6.9e-4 -0.740372,0.020268 -1.088867,0.058594 -1.049738,0.1154435 -1.964187,0.4016728 -2.8125,0.8115235 C 8.8987985,2.1340375 8.3315405,2.6091144 7.866211,3.0205078 L 7.77832,3.0976558 7.608398,3.0781248 c -0.582627,-0.068968 -1.1363385,-0.08113 -1.59375,-0.034179 -0.1918505,0.019693 -0.186791,0.018369 -0.194336,0.058594 -0.00725,0.038659 0.00185,0.3099002 0.015625,0.4697265 2.375e-4,0.00275 7.5e-4,0.00507 10e-4,0.00781 0.013375,-0.014446 0.04401,-0.022406 0.1777345,-0.036133 0.4574115,-0.04695 1.011123,-0.034788 1.59375,0.03418 l 0.169922,0.019531 0.08789,-0.077148 C 8.331564,3.1091144 8.898822,2.6340375 9.481469,2.3525391 c 0.848313,-0.4098507 1.762763,-0.69608 2.8125,-0.8115235 0.348496,-0.038326 0.712833,-0.057904 1.088867,-0.058594 1.228383,-0.00225 2.578235,0.2271671 3.886719,0.6044922 0.07861,0.022668 0.115764,0.040583 0.205078,0.068359 0.218401,-0.092075 0.49006,-0.1763257 0.680664,-0.2070313 0.07886,-0.012703 0.101409,-0.022337 0.08691,-0.036133 C 18.214366,1.8856237 17.642471,1.694458 17.269531,1.586914 15.961047,1.209589 14.611195,0.9801669 13.382813,0.9824219 Z M 15.37207,4.834961 c -0.01384,0.02643 -0.02946,0.051469 -0.04297,0.078125 -0.0951,0.187658 -0.168945,0.3499625 -0.168945,0.373047 0,0.0067 0.0599,0.020265 0.157227,0.03613 0.988086,0.161053 1.925219,0.7831805 2.784179,1.7158205 0.359859,0.390726 0.741263,0.9050565 1.040039,1.4023435 0.0262,0.043595 0.04326,0.078757 0.06836,0.1220705 0.02528,0.00598 0.04885,0.00847 0.07422,0.01465 0.115126,0.02804 0.210991,0.050781 0.212891,0.050781 0.02829,0 -0.153587,-0.3514855 -0.355469,-0.6875 C 18.842824,7.4431415 18.46142,6.928811 18.101561,6.538085 17.258582,5.622796 16.339913,5.0097945 15.372069,4.83496 Z M 6.0439455,5.1533205 C 5.98684,5.1662355 5.927328,5.1759005 5.878906,5.2011705 5.834476,5.2243555 5.787821,5.260234 5.741211,5.306639 5.6813215,5.3662685 5.6620975,5.3931905 5.6171875,5.4843735 5.52281,5.675993 5.4930815,5.844631 5.5009765,6.143553 c 0.00165,0.062781 0.01131,0.12498 0.0166,0.1865235 0.016625,-0.1246085 0.0452,-0.235232 0.09961,-0.345703 0.04491,-0.091183 0.064134,-0.118105 0.1240235,-0.1777345 0.04661,-0.046405 0.093264,-0.082281 0.137695,-0.1054685 0.072804,-0.037995 0.1902365,-0.072266 0.248047,-0.072266 0.033395,0 0.0369,-0.00335 0.055664,-0.04199 l 0.02051,-0.041015 -0.03418,-0.073243 C 6.122816,5.3736785 6.081668,5.266487 6.0439455,5.1533205 Z M 15.436523,9.146485 c -0.03502,0.01911 -0.07144,0.03641 -0.102539,0.05957 -0.08549,0.06366 -0.173828,0.144324 -0.173828,0.15918 0.391225,0.387571 0.820047,0.809426 1.09375,1.216796 0.564289,1.072263 0.84402,1.999877 0.901367,3.058594 0.0032,0.0025 0.0085,0.0063 0.01172,0.0088 0.01265,-1.280055 -0.260349,-2.327052 -0.913086,-3.567383 C 16.044256,9.770003 15.741578,9.453698 15.436525,9.146496 Z"/>
 <path style="opacity:0.2;fill:#8b9cbe" d="M 4.5,14 C 2.5670034,14 1,15.567003 1,17.5 1.0001943,17.57912 1.00814,17.657658 1.013672,17.736328 1.149072,15.927083 2.656127,14.5 4.5,14.5 c 1.7135345,0.0261 4.29112,1.152344 7,1.152344 2.70888,0 5.286465,-1.126244 7,-1.152344 1.843873,0 3.350928,1.427083 3.486328,3.236328 C 21.991854,17.657658 21.99981,17.579116 22,17.5 22,15.567003 20.432997,14 18.5,14 c -1.713535,0.0261 -4.29112,1.152344 -7,1.152344 -2.70888,0 -5.2864655,-1.126246 -7,-1.152344 z"/>
</svg>
