<svg xmlns="http://www.w3.org/2000/svg" width="22" height="22" version="1.1">
 <circle style="fill:#17191e" cx="11.5" cy="10.5" r="10"/>
 <circle style="opacity:0.2" cx="11.5" cy="11" r="10.5"/>
 <path style="fill:#0277bd" d="M 1.3527344,7.8524413 A 10.5,10.5 0 0 0 1,10.5 10.5,10.5 0 0 0 11.5,21 10.5,10.5 0 0 0 14.153711,20.652392 Z"/>
 <path style="fill:#558b2f" d="M 4.0720703,3.0884765 A 10.5,10.5 0 0 0 1.3527344,7.8524413 L 14.153711,20.652392 a 10.5,10.5 0 0 0 4.758837,-2.724462 z"/>
 <path style="fill:#f9a825" d="M 8.8206541,0.3537597 A 10.5,10.5 0 0 0 4.0720703,3.0884765 L 18.912548,17.92793 a 10.5,10.5 0 0 0 2.728565,-4.753711 z"/>
 <path style="fill:#ef6c00" d="M 11.5,0 A 10.5,10.5 0 0 0 8.8206541,0.3537597 L 21.641113,13.174219 A 10.5,10.5 0 0 0 22,10.5 10.5,10.5 0 0 0 11.5,0 Z"/>
 <path style="opacity:0.2" d="M 11.5,6.5 A 5.5,3 0 0 0 6,9.5 5.5,3 0 0 0 6.024415,9.758789 l -0.00195,1.345703 C 6.016779,11.166463 6,9.367104 6,10.824219 6.000206,12.781413 8.460201,16.376741 11.5,16.5 13.173937,16.432124 14.669372,15.309553 15.677734,13.989258 16.030904,14.303022 16.490424,14.5 17,14.5 c 1.104569,0 2,-0.89543 2,-2 0,-1.104569 -0.895431,-2 -2,-2 l -0.002,0.002 c -0.0017,-0.256959 -0.0037,-0.228224 -0.0078,0.0078 l -0.01367,0.01367 -0.001,-0.759765 A 5.5,3 0 0 0 17,9.5 5.5,3 0 0 0 11.5,6.5 Z m 5.5,5 c 0.552284,0 1,0.447715 1,1 0,0.552285 -0.447716,1 -1,1 -0.305407,0 -0.575363,-0.139676 -0.758789,-0.355469 0.325149,-0.562476 0.555861,-1.125619 0.670898,-1.635742 C 16.941585,11.506175 16.969844,11.5 17,11.5 Z"/>
 <path style="fill:#8b9cbe" d="m 6.024414,9 -0.00195,1.604188 C 6.016782,10.666158 6,8.867073 6,10.324188 6.000206,12.281382 8.460201,15.876741 11.5,16 c 3.039799,-0.123259 5.499794,-3.718618 5.5,-5.675812 0,-1.457115 -0.01678,0.34197 -0.02246,0.28 L 16.97559,9 H 11.5 Z"/>
 <ellipse style="fill:#4a342a" cx="11.5" cy="9" rx="5.5" ry="3"/>
 <path style="fill:#8b9cbe" d="m 17,10.000004 -2,2 c 0,1.10457 0.89543,2 2,2 1.104569,0 2,-0.89543 2,-2 0,-1.104569 -0.895431,-2 -2,-2 z m 0,1 c 0.552284,0 1,0.447716 1,1 0,0.552285 -0.447716,1 -1,1 -0.552285,0 -1,-0.447715 -1,-1 0,-0.552284 0.447715,-1 1,-1 z"/>
 <path style="opacity:0.2;fill:#8b9cbe" d="M 11.5,1.25e-4 A 10.5,10.5 0 0 0 1,10.500125 10.5,10.5 0 0 0 1.0097656,10.797 10.5,10.5 0 0 1 11.5,0.500125 10.5,10.5 0 0 1 21.990234,10.70325 10.5,10.5 0 0 0 22,10.500125 10.5,10.5 0 0 0 11.5,1.25e-4 Z"/>
</svg>
