<svg xmlns="http://www.w3.org/2000/svg" width="22" height="22" version="1.1">
 <circle style="opacity:0.2" cx="11" cy="11.5" r="10"/>
 <path style="fill:#fff55d" d="M 21,11 C 21,16.522847 16.522847,21 11,21 8.1599215,21 5.5963715,19.816041 3.7759878,17.914763 2.0564339,16.118794 2.3312694,14.332924 2.3312694,11.650155 2.3312694,6.1273075 5.415233,2.5479876 10.938081,2.5479876 16.460928,2.5479876 21,5.4771525 21,11 Z"/>
 <path style="opacity:0.1" d="m 11,1.500094 c -5.5228475,0 -10,4.4771525 -10,10 0.00247,2.651219 1.0576623,5.192947 2.9335937,7.066406 L 11,11.500094 h 10 c 0,-5.5228475 -4.477153,-10 -10,-10 z"/>
 <path style="fill:#4098fe" d="M 21,11 H 11 V 1 c 5.522847,0 10,4.4771525 10,10 z"/>
 <path style="fill:#24db65" d="M 11,1 C 5.4771525,1 1,5.4771525 1,11 c 0.00247,2.651219 1.0576623,5.192947 2.9335937,7.066406 L 11,11 Z"/>
 <path style="opacity:0.2;fill:#8b9cbe" d="M 11,1 A 10,10 0 0 0 1,11 10,10 0 0 0 1.01075,11.291 10,10 0 0 1 11,1.5 10,10 0 0 1 20.9895,11.209 10,10 0 0 0 21,11 10,10 0 0 0 11,1 Z"/>
 <path style="fill:#25a068" d="M 11,9.5 3.9335937,16.566406 C 2.2341953,14.863804 1.2054986,12.605664 1.0361328,10.206055 1.0135724,10.470119 1.0015187,10.734977 1,11 c 0.00247,2.651219 1.0576623,5.192947 2.9335937,7.066406 L 11,11 Z"/>
 <path style="fill:#2379e0" d="m 11,9 v 2 H 21 C 21,10.315121 20.93096,9.646174 20.799804,9 Z"/>
</svg>
