<svg xmlns="http://www.w3.org/2000/svg" width="22" height="22" version="1">
 <path style="opacity:0.2" d="m 2.8640519,4.5007635 c -0.470876,0 -0.8499567,0.334483 -0.8499567,0.7499618 v 6.7496557 a 8.499567,7.4996179 0 0 0 8.4995678,7.499618 8.499567,7.4996179 0 0 0 8.499567,-7.499618 V 5.2507253 c 0,-0.4154788 -0.379081,-0.7499618 -0.849957,-0.7499618 h -7.64961 z"/>
 <path style="opacity:0.2" d="m 0.99363936,1.5002268 a 1.0000491,1.0000491 0 0 0 -0.058591,1.9979451 C 1.9986991,3.5829869 2.6535708,3.76261 3.0130676,3.9542033 3.3725643,4.1457966 3.4935817,4.3030891 3.6409651,4.6670575 3.9357326,5.3949949 3.9843421,7.0043814 4.5442396,9.243972 A 1.0000491,1.0000491 0 1 0 6.483594,8.7586456 C 5.9800747,6.7445682 6.0492931,5.2840686 5.4953634,3.9161193 5.218398,3.2321447 4.697251,2.5850763 3.9534494,2.1886683 3.2096479,1.7922602 2.3002611,1.6003795 1.0932437,1.5041328 a 1.0000491,1.0000491 0 0 0 -0.099604,-0.0039 z"/>
 <circle style="opacity:0.2" cx="18.513" cy="9.001" r="2.5"/>
 <circle style="opacity:0.2" cx="2.514" cy="9.001" r="2.5"/>
 <circle style="fill:#17191e" cx="2.514" cy="8.501" r="2.5"/>
 <circle style="fill:#17191e" cx="18.513" cy="8.501" r="2.5"/>
 <path style="fill:none;stroke:#ffb500;stroke-width:1.99989808;stroke-linecap:round" d="m 1.0141461,2.0011721 c 4.5413362,0.362123 3.436354,2.2460013 4.4997708,6.4996691"/>
 <path style="opacity:0.2;fill:#8b9cbe" d="m 0.99363936,1.000067 a 1.0000491,1.0000491 0 0 0 -0.9608886,1.2489598 1.0000491,1.0000491 0 0 1 0.9608886,-0.7489853 1.0000491,1.0000491 0 0 1 0.099604,0.0039 c 1.2070174,0.096247 2.1164043,0.2881273 2.8602057,0.6845354 0.7438016,0.396408 1.2649486,1.0434764 1.541914,1.727451 0.5539297,1.3679493 0.4847113,2.8284494 0.9882306,4.8425263 a 1.0000491,1.0000491 0 0 1 0.0049,0.021484 1.0000491,1.0000491 0 0 0 -0.0049,-0.5214579 C 5.9800747,6.2444087 6.0492931,4.7839091 5.4953634,3.4159595 5.218398,2.7319849 4.697251,2.0849166 3.9534494,1.6885085 3.209648,1.2921004 2.3002611,1.1002198 1.0932437,1.0039731 a 1.0000491,1.0000491 0 0 0 -0.099604,-0.0039 z"/>
 <path style="fill:#4f4f4f" d="m 2.8640519,4.000763 c -0.470876,0 -0.8499567,0.3344829 -0.8499567,0.7499618 v 6.7496562 a 8.499567,7.4996179 0 0 0 8.4995678,7.499618 8.499567,7.4996179 0 0 0 8.499567,-7.499618 V 4.7507248 c 0,-0.4154789 -0.379081,-0.7499618 -0.849957,-0.7499618 h -7.64961 z"/>
 <path style="opacity:0.2" d="m 12.428676,14.50037 c 0.286976,1.872383 -0.521395,4.236762 -1.468389,4.496262 -1.67572,0.422385 -0.12595,-2.930625 -2.9911812,-3.496322 0.7999819,1.357649 -0.2516631,1.835048 -1.7183524,2.011397 -0.5229629,0.05914 -0.9284662,-0.220783 -0.6892389,-0.955938 -0.045768,-0.150516 -0.2172884,-0.398548 -0.4841034,-0.489992 -0.2593117,-0.108833 -0.5042448,0.0047 -0.7498783,-0.03601 -0.00245,0.0211 -0.026919,0.04857 -0.00395,0.06283 0.5028104,0.516673 0.384511,0.923902 -0.098053,1.164038 -0.1643481,0.04954 -0.3157469,0.03637 -0.4450263,-0.0304 -0.1750361,-0.0904 -0.205389,-0.195557 -0.1496634,-0.304038 0.039568,-0.07699 0.1136038,-0.151246 0.1566016,-0.228027 0.011739,-0.02093 -0.031948,-0.04715 -0.050549,-0.07094 -0.054367,0.01058 -0.1326082,0.0148 -0.1595748,0.03243 -1.5368834,0.903419 0.4773156,2.908378 1.2300808,3.403801 1.5515115,0.936358 3.3248986,1.436931 5.1390493,1.440539 4.230688,-0.185451 8.276231,-2.365594 6.730424,-4.722287 0.04291,0.764258 -0.630903,1.691113 -2.127526,1.1712 0.526336,-1.484907 -2.271111,-3.674627 -2.120668,-3.448551 z"/>
 <path style="fill:#f67c01" d="m 12.428676,14.00039 c 0.286976,1.872383 -0.521395,4.236763 -1.468389,4.496262 -1.67572,0.422385 -0.12595,-2.930625 -2.9911812,-3.496322 0.7999819,1.357649 -0.2516631,1.835049 -1.7183524,2.011398 -0.5229629,0.05914 -0.9284662,-0.220783 -0.6892389,-0.955938 -0.045768,-0.150517 -0.2172884,-0.398548 -0.4841034,-0.489992 -0.2593117,-0.108834 -0.5042448,0.0047 -0.7498783,-0.03601 -0.00245,0.0211 -0.026919,0.04857 -0.00395,0.06283 0.5028104,0.516674 0.384511,0.923903 -0.098053,1.164039 -0.1643481,0.04954 -0.3157469,0.03637 -0.4450263,-0.0304 -0.1750361,-0.0904 -0.205389,-0.195556 -0.1496634,-0.304037 0.039568,-0.07699 0.1136038,-0.151247 0.1566016,-0.228028 0.011739,-0.02093 -0.031948,-0.04715 -0.050549,-0.07094 -0.054367,0.01058 -0.1326082,0.0148 -0.1595748,0.03243 -1.5368834,0.90342 0.4773156,2.908379 1.2300808,3.403801 1.5515115,0.936358 3.3248986,1.436932 5.1390493,1.440539 4.230688,-0.18545 8.276231,-2.365594 6.730424,-4.722286 0.04291,0.764257 -0.630903,1.691112 -2.127526,1.1712 0.526336,-1.484907 -2.271111,-3.674627 -2.120668,-3.448552 z"/>
 <path style="opacity:0.2;fill:#8b9cbe" d="m 12.433487,13.985733 c -0.0121,-0.004 -0.01429,5e-4 -0.0049,0.01465 0.02555,0.166733 0.03997,0.338014 0.04883,0.510716 0.301267,0.186309 1.888173,1.550089 2.107315,2.771343 0.26383,-1.380568 -1.976852,-3.239298 -2.151257,-3.296707 z m 0.04199,0.989208 c -0.04538,1.633878 -0.727903,3.305471 -1.515548,3.521305 -1.675718,0.422385 -0.125826,-2.930219 -2.9910572,-3.495916 0.1239347,0.210329 0.1988504,0.397124 0.2392459,0.567354 2.5215443,0.7082 1.1275303,3.837956 2.7518133,3.428537 0.868554,-0.238005 1.618347,-2.245575 1.515548,-4.02128 z m -7.5904341,0.544894 c -0.1897988,-0.01589 -0.3733639,0.0403 -0.557589,0.0098 -0.00245,0.0211 -0.026874,0.04921 -0.0039,0.06347 0.1523357,0.156536 0.2416391,0.300684 0.2870943,0.435525 0.1526023,-0.01369 0.3067649,-0.03005 0.4667732,0.03711 0.1958326,0.06712 0.3387818,0.219119 0.4199007,0.354475 0.00265,-0.107298 0.019184,-0.225128 0.06445,-0.36424 -0.045768,-0.150516 -0.2175354,-0.398765 -0.4843504,-0.490209 -0.064828,-0.02721 -0.1291069,-0.0406 -0.1923727,-0.0459 z m 3.3230708,0.547824 C 8.035364,16.636112 7.238685,16.893213 6.2511819,17.011947 5.9180628,17.04962 5.6339933,16.947435 5.5324685,16.679932 5.3795958,17.318794 5.7600184,17.567466 6.2511819,17.511921 7.4906497,17.362892 8.4284654,16.99624 8.2081137,16.067659 Z m -4.4714523,0.05566 c -0.054367,0.01058 -0.1322047,0.0146 -0.1591713,0.03222 -0.5068997,0.297969 -0.6232742,0.716154 -0.5302464,1.160097 0.060743,-0.250024 0.2206719,-0.478146 0.5302464,-0.660122 0.014404,-0.0094 0.052742,-0.0128 0.084957,-0.01758 -0.063185,-0.06806 -0.069787,-0.140787 -0.031248,-0.21581 0.039568,-0.07699 0.1132443,-0.150746 0.1562421,-0.227527 0.011739,-0.02093 -0.032178,-0.0475 -0.050779,-0.07129 z m 12.9397716,0.15429 c 0.04236,0.754432 -0.614669,1.664209 -2.071184,1.18744 0.01017,0.166334 -8.5e-4,0.329771 -0.05566,0.48435 1.496623,0.519912 2.169752,-0.407558 2.126845,-1.171815 0.175889,0.268156 0.276342,0.533974 0.315413,0.794881 0.06767,-0.417482 -0.02557,-0.852976 -0.315413,-1.294856 z M 4.5813454,16.447522 c -0.069002,0.121135 -0.1880254,0.226239 -0.3554509,0.309555 -0.1643481,0.04954 -0.3160104,0.03553 -0.4452898,-0.03125 -0.0041,-0.0021 -0.00581,-0.0047 -0.00976,-0.0068 -0.043658,0.06814 -0.1043057,0.134356 -0.1396414,0.203114 -0.055726,0.108481 -0.025629,0.213293 0.1494064,0.303696 0.1292794,0.06678 0.2809417,0.08079 0.4452898,0.03125 0.3656609,-0.181962 0.519846,-0.460765 0.3554509,-0.809529 z"/>
 <path style="opacity:0.1;fill:#8b9cbe" d="m 2.8636613,4.000763 c -0.470876,0 -0.8495661,0.3344829 -0.8495661,0.7499618 v 0.4999745 c 0,-0.4154788 0.3786901,-0.7499618 0.8495661,-0.7499618 h 7.6500017 7.65 c 0.470876,0 0.849567,0.334483 0.849567,0.7499618 V 4.7507248 c 0,-0.4154789 -0.378691,-0.7499618 -0.849567,-0.7499618 h -7.65 z"/>
</svg>
