<svg xmlns="http://www.w3.org/2000/svg" width="22" height="22" version="1">
 <path style="fill:#e48a26" d="M 19,1 3,1 C 2.446,1 2,1.446 2,2 l 0,18 c 0,0.554 0.446,1 1,1 l 16,0 c 0.554,0 1,-0.446 1,-1 L 20,2 C 20,1.446 19.554,1 19,1 Z"/>
 <path style="opacity:0.2" d="m 2,20 0,0.5 c 0,0.554 0.446,1 1,1 l 16,0 c 0.554,0 1,-0.446 1,-1 L 20,20 c 0,0.554 -0.446,1 -1,1 L 3,21 C 2.446,21 2,20.554 2,20 Z"/>
 <path style="opacity:0.1;fill:#8b9cbe" d="M 3,1 C 2.446,1 2,1.446 2,2 l 0,0.5 c 0,-0.554 0.446,-1 1,-1 l 16,0 c 0.554,0 1,0.446 1,1 L 20,2 C 20,1.446 19.554,1 19,1 Z"/>
 <rect style="opacity:0.2" width="6" height="4" x="4" y="3.5" ry="1"/>
 <rect style="fill:#ffebb7" width="6" height="4" x="4" y="3" ry="1"/>
 <rect style="opacity:0.2" width="6" height="4" x="4" y="8.5" ry="1"/>
 <rect style="fill:#ffd774" width="6" height="4" x="4" y="8" ry="1"/>
 <rect style="opacity:0.2" width="6" height="4" x="4" y="13.5" ry="1"/>
 <rect style="fill:#ffb84a" width="6" height="4" x="4" y="13" ry="1"/>
 <path style="opacity:0.2" d="M 6,3.5 6,4 8,4 8,3.5 6,3.5 Z M 5,4.5 5,5 7,5 7,4.5 5,4.5 Z m 0,1 0,0.5 4,0 0,-0.5 -4,0 z"/>
 <rect style="opacity:0.2" width="6" height="4" x="12" y="3.5" ry="1"/>
 <rect style="fill:#ffebb7" width="6" height="4" x="12" y="3" ry="1"/>
 <rect style="opacity:0.2" width="6" height="4" x="12" y="8.5" ry="1"/>
 <rect style="fill:#ffd774" width="6" height="4" x="12" y="8" ry="1"/>
 <rect style="opacity:0.2" width="6" height="4" x="12" y="13.5" ry="1"/>
 <rect style="fill:#ffb84a" width="6" height="4" x="12" y="13" ry="1"/>
 <path style="opacity:0.2" d="m 14,3.5 0,0.5 2,0 0,-0.5 -2,0 z m -1,1 0,0.5 2,0 0,-0.5 -2,0 z m 0,1 0,0.5 4,0 0,-0.5 -4,0 z"/>
 <path style="opacity:0.2" d="M 6,8.5 6,9 8,9 8,8.5 6,8.5 Z m -1,1 0,0.5 2,0 0,-0.5 -2,0 z m 0,1 0,0.5 4,0 0,-0.5 -4,0 z"/>
 <path style="opacity:0.2" d="m 14,8.5 0,0.5 2,0 0,-0.5 -2,0 z m -1,1 0,0.5 2,0 0,-0.5 -2,0 z m 0,1 0,0.5 4,0 0,-0.5 -4,0 z"/>
 <path style="opacity:0.2" d="m 6,13.5 0,0.5 2,0 0,-0.5 -2,0 z m -1,1 0,0.5 2,0 0,-0.5 -2,0 z m 0,1 0,0.5 4,0 0,-0.5 -4,0 z"/>
 <path style="opacity:0.2" d="m 14,13.5 0,0.5 2,0 0,-0.5 -2,0 z m -1,1 0,0.5 2,0 0,-0.5 -2,0 z m 0,1 0,0.5 4,0 0,-0.5 -4,0 z"/>
</svg>
