<svg xmlns="http://www.w3.org/2000/svg" width="22" height="22" version="1">
 <path style="opacity:0.2" d="M 19.050764,19.550764 20,16.685514 V 2.5 c 0,-0.554 -0.446,-1 -1,-1 H 1 c -0.554,0 -1,0.446 -1,1 v 18 c 0,0.554 0.446,1 1,1 h 14.664053 l 2.386711,-0.949236 c 0.51478,-0.204738 0.825775,-0.474109 1,-1 z"/>
 <path style="fill:#b2bfd9" d="M 19.215848,19.463475 20,16.314073 V 2 C 20,1.446 19.554,1 19,1 H 1 C 0.446,1 0,1.446 0,2 v 18 c 0,0.554 0.446,1 1,1 h 14.581511 l 2.634337,-0.536525 c 0.542856,-0.110561 0.866149,-0.462413 1,-1 z"/>
 <path style="opacity:0.2;fill:#8b9cbe" d="M 0,2.5 V 2 C 0,1.446 0.446,1 1,1 h 18 c 0.554,0 1,0.446 1,1 v 0.5 c 0,-0.554 -0.446,-1 -1,-1 H 1 c -0.554,0 -1,0.446 -1,1 z"/>
 <g style="font-size:40px;line-height:1.25;letter-spacing:0px;word-spacing:0px;fill:#3261c2" transform="matrix(0.49708738,0,0,0.50514445,-2.5213167,-0.3718841)">
  <path style="opacity:0.1" d="m 13.119055,9.6445353 v 5.9388957 h 1.976356 c 0.0071,-0.01554 0.0085,-0.02683 0.01572,-0.04253 0.299479,-0.664063 0.646667,-1.2893 1.037292,-1.875237 0.390625,-0.585938 0.813383,-1.106325 1.269112,-1.562054 0.201398,-0.201396 0.399113,-0.354961 0.5933,-0.479442 h 5.166816 v 21.888078 1.867504 h -4.023437 v 1.979632 h 0.499 5.536156 5.536155 0.499001 v -1.979633 h -4.02344 V 33.512245 11.624167 h 5.170744 c 0.194188,0.124482 0.391903,0.278046 0.593301,0.479442 0.455728,0.455729 0.878487,0.976115 1.269112,1.562054 0.390626,0.585937 0.733883,1.211174 1.033364,1.875237 0.0072,0.01568 0.0086,0.02702 0.01572,0.04253 h 1.976357 V 9.6445353 H 36.25382 26.195226 25.189367 24.183508 14.124914 Z"/>
  <path style="fill:#3261c2" transform="matrix(2.0117187,0,0,1.9796318,1.0487426,-1.2434381)" d="m 6,5 v 3 h 0.9824219 c 0.00352,-0.00785 0.00422,-0.01355 0.00781,-0.021484 C 7.1391019,7.6430681 7.3116844,7.327233 7.5058594,7.03125 7.7000339,6.735267 7.9101817,6.4723965 8.1367188,6.2421875 8.2368313,6.1404535 8.3351131,6.062881 8.4316406,6 H 11 V 17.056641 18 H 9 v 1 H 9.2480469 12 14.751953 15 V 18 H 13 V 17.056641 6 h 2.570312 c 0.09653,0.062881 0.19481,0.1404535 0.294922,0.2421875 0.226537,0.230209 0.436685,0.493079 0.63086,0.7890625 0.194175,0.295983 0.364804,0.6118181 0.513672,0.9472656 0.0036,0.00792 0.0043,0.013647 0.0078,0.021484 H 18 V 5 h -0.5 -5 -0.5 -0.5 -5 z"/>
 </g>
 <circle style="fill:#4f4f4f" cx="16" cy="16" r="6"/>
 <path style="fill:#ffd000" d="M 13,17.2984 V 19 h 1.7016 L 19,14.7016 17.2984,13 Z"/>
</svg>
