<svg xmlns="http://www.w3.org/2000/svg" width="22" height="22" version="1">
 <path style="opacity:0.2" d="M 16.855258,1.5 C 14.751064,1.5 12.75521,2.7542407 12.151693,4.7363281 11.721609,4.6746161 11.34785,4.5136719 10.888573,4.5136719 l -1.2143892,0 -1.2026932,0 C 8.3932088,4.5044529 8.3144508,4.4998877 8.2356302,4.5 l -6.2395816,0 C 0.89294888,4.50011 -9.6074651e-4,5.3966667 6.0834901e-6,6.5019531 7.8349009e-7,6.5 0.00390708,10.507812 0.00390708,10.507812 0.00831048,11.609283 0.90064678,12.499897 1.9999466,12.5 l 0.4132432,0 -1.3079535,4.642578 c -0.00333,0.0097 -0.00658,0.01951 -0.00975,0.0293 -0.22549812,0.851611 0.086148,1.93007 0.7270741,2.533203 C 2.46349,20.308211 3.2530799,20.5 3.9842939,20.5 l 3.7757168,0 c 4.5119503,0 7.3567063,-3.265738 8.2941013,-6.339844 0.01223,-0.03872 0.02328,-0.0778 0.03313,-0.117187 l 0.421039,-1.759766 c 0.701896,-0.09778 1.415851,-0.155047 2.058419,-0.480469 0.932951,-0.472482 1.889328,-1.23616 2.26699,-2.529296 l 0,-0.0019 C 21.07529,8.4433755 20.85353,7.5458046 20.494523,6.8164562 20.83506,6.5958008 21.267723,6.4871253 21.508138,6.171925 22.24549,5.2051979 21.981298,4.4360167 21.810273,3.9453625 21.639253,3.4546583 21.378777,3.0742399 21.03837,2.7226562 20.357555,2.019489 19.271211,1.4894629 17.999474,1.5 c -0.233221,7.4e-6 -0.931839,2.783e-4 -1.142266,0 l -0.002,0 z M 14.05807,4.7148438 c -0.0018,0.00611 0.0037,0.013376 0.002,0.019531 -0.0025,0.00862 -0.01127,0.0148 -0.01364,0.023437 l 0.0117,-0.042969 z M 4.9550254,18.197266 c -1.482e-4,5.64e-4 1.493e-4,0.0014 0,0.002 l -0.00975,0.0293 0.00975,-0.03125 z"/>
 <path style="fill:#4f4f4f" d="M 16.855258,1 C 14.751064,1 12.75521,2.2542407 12.151693,4.2363281 11.721609,4.1746166 11.34785,4.0136719 10.888573,4.0136719 l -1.2143892,0 -1.2026932,0 C 8.3932088,4.0044529 8.3144508,3.9998877 8.2356302,4 L 1.9960486,4 C 0.89294888,4.00011 -9.6074651e-4,4.8966667 6.0834901e-6,6.0019531 7.8349009e-7,6 0.00390708,10.007812 0.00390708,10.007812 0.00831048,11.109283 0.90064678,11.999897 1.9999466,12 l 0.4132432,0 -1.3079535,4.642578 c -0.00333,0.0097 -0.00658,0.01951 -0.00975,0.0293 -0.22549812,0.851611 0.086148,1.93007 0.7270741,2.533203 C 2.46349,19.808211 3.2530799,20 3.9842939,20 l 3.7757168,0 c 4.5119503,0 7.3567063,-3.265738 8.2941013,-6.339844 0.01223,-0.03872 0.02328,-0.0778 0.03313,-0.117187 l 0.421039,-1.759766 c 0.701896,-0.09778 1.415851,-0.155047 2.058419,-0.480469 0.932951,-0.472482 1.889328,-1.23616 2.26699,-2.5292965 l 0,-0.00195 C 21.07529,7.9433255 20.85353,7.0457546 20.494523,6.3164062 20.83506,6.0957508 21.267723,5.9870753 21.508138,5.671875 22.24549,4.7051479 21.981298,3.9359667 21.810273,3.4453125 21.639253,2.9546583 21.378777,2.5742399 21.03837,2.2226562 20.357555,1.519489 19.271211,0.9894629 17.999474,1 c -0.233221,7.4e-6 -0.931839,2.783e-4 -1.142266,0 l -0.002,0 z M 14.05807,4.2148438 c -0.0018,0.00611 0.0037,0.013376 0.002,0.019531 -0.0025,0.00862 -0.01127,0.0148 -0.01364,0.023437 l 0.0117,-0.042969 z M 4.9550254,17.697266 c -1.482e-4,5.64e-4 1.493e-4,0.0014 0,0.002 l -0.00975,0.0293 0.00975,-0.03125 z"/>
 <path style="opacity:0.2" d="m 16.88672,3.5 c -1.427527,0 -2.495171,0.7468432 -2.814453,1.8398438 -0.606938,2.0482149 2.782138,2.1749891 2.40625,3.4453124 -0.128429,0.4365908 -0.495965,0.6427628 -0.988282,0.6933598 0.01131,0.330414 -0.02467,0.673103 -0.08398,1.021484 0.06979,-6.8e-5 0.13906,-2.07e-4 0.208984,0 1.427343,0.0063 3.018603,-0.696012 3.337891,-1.7890625 0.623408,-2.126943 -3.327677,-2.171368 -2.953129,-3.421875 0.108817,-0.394764 0.506679,-0.4826341 0.912109,-0.4882813 0.371726,-0.00633 1.16446,0.3475843 1.283203,0.4414063 0.607176,0.4797245 1.345059,0.2625857 1.763672,-0.2851563 C 20.180345,4.6673848 19.53257,3.4877307 18.048829,3.5 c -0.221874,0 -0.940904,2.92e-4 -1.162109,0 z m -14.8886723,3 0.00195,2 1.8300781,0 1.5644531,0 3.5429688,0 0.302734,0 0.244141,0 c 1.5753643,0.114553 2.2364193,0.995948 1.7695313,2.556641 l -0.697265,2.552734 c -0.470694,1.561692 -1.6486379,2.916016 -3.4570319,2.916016 l -0.2109375,0 L 8.316407,11.5 4.7753914,11.5 3.0292977,17.685547 C 2.9200247,18.097408 3.254958,18.5 3.9902352,18.5 l 3.7832031,0 c 3.6167947,0 5.6433427,-2.452462 6.3984377,-4.923828 l 0.580078,-2.416016 C 15.534362,8.5857357 14.524993,6.5136719 10.908204,6.5136719 l -1.2167972,0 -1.3515622,0 -0.091797,0 L 8.2500008,6.5 1.9980477,6.5 Z m 0,3 0.00391,1 2.3398438,0 4.6621093,0 C 9.1924478,9.981911 8.8631145,9.460558 8.474614,9.5 l -4.0019532,0 -2.4746093,0 z"/>
 <path style="fill:#8b9cbe" d="m 8.4743823,9 -4.001437,0 -2.4744345,0 0.00298,0.999959 2.3407475,0 4.6613815,0 C 9.1921568,9.48187 8.8631653,8.960558 8.4746648,9 Z"/>
 <path style="fill:#8b9cbe" d="m 16.88672,3 c -1.427527,0 -2.495171,0.7468432 -2.814453,1.8398438 -0.606938,2.0482149 2.782138,2.174989 2.40625,3.4453124 C 16.350088,8.7217466 15.982552,8.9279187 15.490235,8.9785156 15.501542,9.30893 15.465564,9.651619 15.406251,10 c 0.06979,-6.8e-5 0.13906,-2.07e-4 0.208984,0 1.427343,0.0063 3.018603,-0.696012 3.337891,-1.7890625 0.623412,-2.126943 -3.327673,-2.171368 -2.953125,-3.421875 0.108817,-0.394764 0.506679,-0.4826342 0.912109,-0.4882813 0.371726,-0.00633 1.164459,0.3475843 1.283203,0.4414063 0.607176,0.4797245 1.345059,0.2625857 1.763672,-0.2851563 C 20.180345,4.1673848 19.53257,2.9877307 18.048829,3 17.826955,3 17.107925,3.000292 16.88672,3 Z m -2.408203,6 -0.0957,1 0.0059,0 c 0.07302,-0.355415 0.111979,-0.692649 0.09961,-1 l -0.0098,0 z"/>
 <path style="fill:#f35654" d="m 1.998575,5.9998165 6.25e-4,2 1.8307414,0 1.5655299,0 3.541437,0 0.3039855,0 0.243189,0 c 1.5753642,0.114553 2.2357702,0.995738 1.7688822,2.5564305 l -0.69627,2.553838 c -0.470694,1.561692 -1.6477412,2.915449 -3.4561352,2.915449 l -0.2127885,0 L 8.3172303,11 4.7757938,11 3.0300177,17.186079 c -0.109273,0.411861 0.2241975,0.813822 0.9594747,0.813822 l 3.7846244,0 c 3.6167952,0 5.6430162,-2.452437 6.3981112,-4.923803 l 0.579434,-2.416404 C 15.53407,8.0852735 14.52482,6.012917 10.908031,6.012917 l -1.2159442,0 -1.352741,0 -0.091191,0 0.0012,-0.013 -6.2507945,0 -4.35e-5,0 3.9e-5,2.505e-4 3.4e-6,-2.505e-4 z"/>
 <path style="opacity:0.2;fill:#8b9cbe" d="m 16.88672,3 c -1.427527,0 -2.495171,0.7468432 -2.814453,1.8398438 -0.08131,0.2743958 -0.08644,0.5118142 -0.04297,0.7246093 0.01197,-0.073982 0.01938,-0.1450027 0.04297,-0.2246093 C 14.391549,4.2468432 15.459193,3.5 16.88672,3.5 c 0.221205,2.92e-4 0.940235,0 1.162109,0 1.03306,-0.00854 1.651917,0.5575785 1.863281,1.0019531 0.01416,-0.016974 0.03337,-0.027247 0.04687,-0.044922 C 20.180345,4.1673848 19.53257,2.9877307 18.048829,3 17.826955,3 17.107925,3.000292 16.88672,3 Z m -0.841797,2.2070312 c -0.01324,0.029239 -0.03568,0.048502 -0.04492,0.082031 -0.32773,1.0941936 2.656727,1.2643581 2.990234,2.7148437 0.267451,-1.6701154 -2.46809,-1.9560813 -2.945312,-2.796875 z M 1.9980477,6 l 0,0.5 6.2519531,0 -0.00195,0.013672 0.091797,0 1.351562,0 1.2167972,0 c 2.653945,0 3.900034,1.1173413 4.068359,2.728516 0.04709,-1.8720235 -1.151471,-3.228516 -4.068359,-3.228516 l -1.2167972,0 -1.351562,0 -0.091797,0 L 8.2500008,6 1.9980477,6 Z M 16.451173,8.3417969 C 16.306842,8.7351935 15.958139,8.9304277 15.490235,8.9785156 15.501542,9.30893 15.465564,9.651619 15.406251,10 c 0.02218,-2.2e-5 0.0443,2.3e-5 0.06641,0 0.01612,-0.176453 0.02342,-0.350682 0.01758,-0.521484 0.492317,-0.0506 0.859853,-0.256769 0.988282,-0.6933598 0.04869,-0.1645531 0.03345,-0.310521 -0.02734,-0.4433593 z M 1.9980477,9 l 0.00195,0.5 2.4726562,0 4.0019532,0 C 8.7208401,9.475 8.9259009,9.684862 9.0078128,9.966797 9.1704248,9.460098 8.8546608,8.9614159 8.4746102,9 L 4.472657,9 1.9980477,9 Z M 11.38086,9.929688 c -0.02109,0.196317 -0.05972,0.402198 -0.126953,0.626953 l -0.697265,2.552734 c -0.470694,1.561692 -1.6486378,2.916016 -3.4570318,2.916016 l -0.068359,0 -0.1425781,0.5 0.2109375,0 c 1.808394,0 2.9863374,-1.354324 3.4570314,-2.916016 l 0.697265,-2.552734 c 0.12853,-0.429644 0.164928,-0.802097 0.126953,-1.126953 z M 4.7753914,11 3.0292977,17.185547 c -0.033837,0.127533 -0.010983,0.249203 0.039063,0.363281 L 4.7753914,11.5 8.1738289,11.5 8.316407,11 4.7753914,11 Z"/>
 <path style="opacity:0.1;fill:#8b9cbe" d="M 16.85547,1 C 14.751276,1 12.755862,2.2542407 12.152345,4.2363281 11.722261,4.1746166 11.34795,4.0136719 10.888673,4.0136719 l -1.2148442,0 -1.2031249,0 C 8.3924221,4.0044529 8.3151495,3.9998877 8.2363289,4 L 1.9960946,4 C 0.89299478,4.00011 -9.6604651e-4,4.8966667 7.8349009e-7,6.0019531 l 0,0.4960938 C 0.00117108,5.3945812 0.89431348,4.5001099 1.9960946,4.5 l 6.2402343,0 c 0.078821,-1.123e-4 0.1560932,0.00445 0.234375,0.013672 l 1.2031249,0 1.2148442,0 c 0.459277,0 0.833588,0.1609442 1.263672,0.2226562 C 12.755862,2.7542407 14.751276,1.5 16.85547,1.5 l 0.002,0 c 0.210427,2.783e-4 0.909357,7.4e-6 1.142578,0 1.271737,-0.010537 2.358248,0.5194891 3.039062,1.2226562 0.340407,0.3515837 0.600465,0.7319521 0.771485,1.2226563 0.06706,0.1923795 0.134346,0.4397549 0.164062,0.7128906 0.08247,-0.498059 -0.05818,-0.9091262 -0.164062,-1.2128906 C 21.639528,2.9546583 21.37947,2.5742399 21.039063,2.2226562 20.358249,1.5194891 19.271738,0.9894629 18.000001,1 c -0.233221,7.4e-6 -0.932151,2.783e-4 -1.142578,0 l -0.002,0 z m -2.796875,3.7148438 -0.01172,0.042969 c 0.0024,-0.00864 0.01117,-0.014818 0.01367,-0.023437 0.0017,-0.00615 -0.0038,-0.013421 -0.002,-0.019531 z m 6.605468,2.0117187 c -0.05654,0.030187 -0.116786,0.055414 -0.169921,0.089844 0.220215,0.447384 0.372395,0.9593854 0.414062,1.4785157 0.04952,-0.5351839 -0.05458,-1.0737053 -0.244141,-1.5683594 z M 2.2734383,12.5 1.1054696,16.642578 c -0.00333,0.0097 -0.0066,0.01951 -0.00977,0.0293 -0.06612,0.249708 -0.073738,0.518049 -0.052734,0.789063 0.012082,-0.0983 0.027912,-0.195319 0.052734,-0.289063 0.00317,-0.0098 0.00644,-0.0196 0.00977,-0.0293 L 2.4140633,12.5 l -0.140625,0 z"/>
</svg>
