<svg xmlns="http://www.w3.org/2000/svg" width="22" height="22" version="1.1">
 <path style="opacity:0.2" d="M 2.6153847,1.5 H 20.384615 C 21.276705,1.5 22,2.2164062 22,3.1 v 16.8 c 0,0.883594 -0.723295,1.6 -1.615385,1.6 H 2.6153847 C 1.7232947,21.5 1,20.783594 1,19.9 V 3.1 C 1,2.2164062 1.7232947,1.5 2.6153847,1.5 Z m 0,0"/>
 <path style="fill:#b2bfd9" d="M 2.6153847,1 H 20.384615 C 21.276705,1 22,1.7164062 22,2.6 V 19.4 C 22,20.283594 21.276705,21 20.384615,21 H 2.6153847 C 1.7232947,21 1,20.283594 1,19.4 V 2.6 C 1,1.7164062 1.7232947,1 2.6153847,1 Z m 0,0"/>
 <path style="fill:none;stroke:#e9a119;stroke-linejoin:round" d="M 11.5,3.4 V 21"/>
 <path style="fill:none;stroke:#e22e28" d="m 11.5,21 v -3.65 c 0,-0.99375 0.85625,-1.85 1.85,-1.85 h 1.4 c 0.99375,0 1.75,-0.80625 1.75,-1.8 V 8.6"/>
 <path style="fill:none;stroke:#1a5fb4;stroke-linejoin:round" d="m 11.5,21 c 0,-0.99375 -0.75625,-2.5 -1.75,-2.5 H 8.15 C 7.15625,18.5 6.5,17.69375 6.5,16.7 V 10.2 C 6.5,9.20625 7.15625,8.5 8.15,8.5 h 1.6 c 0.99375,0 1.75,-1.70625 1.75,-2.7 V 4.6"/>
 <path style="opacity:0.1" d="M 11.5,3.5 C 10.676026,3.5 10,4.1760255 10,5 10,5.8239744 10.676026,6.5 11.5,6.5 12.323975,6.5 13,5.8239744 13,5 13,4.1760255 12.323975,3.5 11.5,3.5 Z m 5,4 C 15.676025,7.5 15,8.1760256 15,9 c 0,0.8239744 0.676025,1.5 1.5,1.5 C 17.323974,10.5 18,9.8239744 18,9 18,8.1760256 17.323974,7.5 16.5,7.5 Z m -10,5 C 5.6760256,12.5 5,13.176026 5,14 5,14.823975 5.6760256,15.5 6.5,15.5 7.3239745,15.5 8,14.823975 8,14 8,13.176026 7.3239745,12.5 6.5,12.5 Z"/>
 <path style="fill:#f65d5a" d="M 15,8.5 C 15,7.6760256 15.676025,7 16.5,7 17.323974,7 18,7.6760256 18,8.5 18,9.3239744 17.323974,10 16.5,10 15.676025,10 15,9.3239744 15,8.5 Z m 0,0"/>
 <path style="fill:#8b9cbe" d="M 17,8.4999999 C 17,8.7763673 16.776367,9 16.5,9 16.223633,9 16,8.7763673 16,8.4999999 c 0,-0.2763674 0.223633,-0.5000001 0.5,-0.5000001 0.276367,0 0.5,0.2236327 0.5,0.5000001 z m 0,0"/>
 <path style="fill:#5292de" d="M 5,13.5 C 5,14.323975 5.6760256,15 6.5,15 7.3239745,15 8,14.323975 8,13.5 8,12.676026 7.3239745,12 6.5,12 5.6760256,12 5,12.676026 5,13.5 Z m 0,0"/>
 <path style="fill:#8b9cbe" d="M 7,13.5 C 7,13.776367 6.7763673,14 6.5,14 6.2236327,14 6,13.776367 6,13.5 6,13.223633 6.2236327,13 6.5,13 6.7763673,13 7,13.223633 7,13.5 Z m 0,0"/>
 <path style="fill:#ffc425" d="M 10,4.5 C 10,5.3239744 10.676026,6 11.5,6 12.323975,6 13,5.3239744 13,4.5 13,3.6760255 12.323975,3 11.5,3 10.676026,3 10,3.6760255 10,4.5 Z m 0,0"/>
 <path style="fill:#8b9cbe" d="M 12,4.4999998 C 12,4.7763672 11.776367,5 11.5,5 11.223633,5 11,4.7763672 11,4.4999998 c 0,-0.2763673 0.223633,-0.5 0.5,-0.5 0.276367,0 0.5,0.2236327 0.5,0.5 z m 0,0"/>
 <path style="opacity:0.2;fill:#8b9cbe" d="M 2.6152344,1 C 1.7231444,1 1,1.7160156 1,2.5996094 v 0.5 C 1,2.2160156 1.7231444,1.5 2.6152344,1.5 H 20.384765 C 21.276855,1.5 22,2.2160156 22,3.0996094 v -0.5 C 22,1.7160155 21.276855,1 20.384765,1 Z"/>
</svg>
