<svg xmlns="http://www.w3.org/2000/svg" width="22" height="22" version="1">
 <rect style="opacity:0.2" width="20" height="20" x="1" y="1.5" rx="6" ry="6"/>
 <rect style="fill:#2f9a2f" width="20" height="20" x="1" y="1" rx="6" ry="6"/>
 <path style="opacity:0.2;fill:#8b9cbe" d="M 7,1 C 3.676,1 1,3.676 1,7 v 0.5 c 0,-3.324 2.676,-6 6,-6 h 8 c 3.324,0 6,2.676 6,6 V 7 C 21,3.676 18.324,1 15,1 Z"/>
 <path style="opacity:0.2" d="M 15,15.783409 C 14.554848,16.02012 14.090807,16.19873 13.607874,16.319239 13.124927,16.439746 12.620992,16.5 12.096064,16.5 10.529654,16.5 9.288711,16.052399 8.3732283,15.157199 7.4577418,14.257694 6.9999994,13.039706 7,11.503229 6.9999994,9.962456 7.4577418,8.7444667 8.3732283,7.8492578 9.28871,6.9497622 10.529654,6.5000106 12.096063,6.5 c 0.524928,1.06e-5 1.028864,0.060264 1.511811,0.1807617 C 14.090807,6.8012794 14.554848,6.9798894 15,7.2165917 V 9.100132 C 14.550648,8.7859583 14.107606,8.5557022 13.670867,8.4093633 13.234114,8.2630406 12.934294,8.189875 12.45136,8.1898672 11.586264,8.189875 10.905949,8.4739294 10.410415,9.04203 9.914873,9.610144 9.667038,10.50474 9.667041,11.503229 c -3e-6,0.994193 0.247832,1.886637 0.743374,2.454741 0.495534,0.568111 1.175849,0.852164 2.040945,0.852163 0.482934,10e-7 0.782754,-0.07317 1.219507,-0.219496 C 14.107606,14.444308 14.550648,14.214052 15,13.899868 v 1.883541"/>
 <path style="fill:#8b9cbe" d="M 15,15.283409 C 14.554848,15.52012 14.090807,15.69873 13.607874,15.819239 13.124927,15.939746 12.620992,16 12.096064,16 10.529654,16 9.288711,15.552399 8.3732283,14.657199 7.4577418,13.757694 6.9999994,12.539706 7,11.003229 6.9999994,9.462456 7.4577418,8.2444667 8.3732283,7.3492578 9.28871,6.4497622 10.529654,6.0000106 12.096063,6 c 0.524928,1.06e-5 1.028864,0.060264 1.511811,0.1807617 C 14.090807,6.3012794 14.554848,6.4798894 15,6.7165917 V 8.6001322 C 14.550648,8.2859583 14.107606,8.0557022 13.670867,7.9093633 13.234114,7.7630406 12.934294,7.689875 12.45136,7.6898672 11.586264,7.689875 10.905949,7.9739294 10.410415,8.54203 9.914873,9.110144 9.667038,10.00474 9.667041,11.003229 c -3e-6,0.994193 0.247832,1.886637 0.743374,2.454741 0.495534,0.568111 1.175849,0.852164 2.040945,0.852163 0.482934,10e-7 0.782754,-0.07317 1.219507,-0.219496 C 14.107606,13.944308 14.550648,13.714052 15,13.399868 v 1.883541"/>
</svg>
