<svg xmlns="http://www.w3.org/2000/svg" width="22" height="22" version="1">
 <path style="opacity:0.2" d="m 2,2.5 c 0,0 -1,0 -1,1 v 14 c 0,0.554 0.446,1 1,1 h 18 c 0.554,0 1,-0.446 1,-1 v -14 c 0,-0.554 -0.446,-1 -1,-1 z"/>
 <path style="fill:#0245c5" d="M 2,2 C 2,2 1,2 1,3 v 14 c 0,0.554 0.446,1 1,1 h 18 c 0.554,0 1,-0.446 1,-1 V 3 C 21,2.446 20.554,2 20,2 Z"/>
 <path style="opacity:0.2;fill:#8b9cbe" d="m 11,18 h 9 c 0.554,0 1,-0.446 1,-1 V 3 C 21,2.446 20.554,2 20,2 h -9 z"/>
 <path style="opacity:0.1;fill:#8b9cbe" d="M 2,2 C 2,2 1,2 1,3 v 7 H 21 V 3 C 21,2.446 20.554,2 20,2 Z"/>
 <path style="opacity:0.1;fill:#8b9cbe" d="M 2,2 C 1.446,2 1,2.446 1,3 v 0.5 c 0,-0.554 0.446,-1 1,-1 h 18 c 0.554,0 1,0.446 1,1 V 3 C 21,2.446 20.554,2 20,2 Z"/>
 <rect style="opacity:0.2" width="11" height="9" x="0" y="10.5" rx=".5" ry=".5"/>
 <rect style="fill:#ebebeb" width="11" height="9" x="0" y="10" rx=".5" ry=".5"/>
</svg>
