<svg xmlns="http://www.w3.org/2000/svg" width="22" height="22" version="1.1">
 <circle style="opacity:0.2" cx="11" cy="11.5" r="10"/>
 <circle style="fill:#2ec14a" cx="11" cy="11" r="10"/>
 <path style="opacity:0.2;fill:#8b9cbe" d="M 11,1 A 10,10 0 0 0 1,11 10,10 0 0 0 1.0107422,11.291016 10,10 0 0 1 11,1.5 10,10 0 0 1 20.989258,11.208985 10,10 0 0 0 21,11 10,10 0 0 0 11,1 Z"/>
 <path style="opacity:0.2" d="M 16,6 4,12.28125 7.823242,13.538086 13.47461,8.760742 9.288086,14.03711 11.467774,14.756836 13.771485,15.5 Z M 9.007813,14.997071 9,17.5 10.326172,15.447265 9.901367,15.291992 Z"/>
 <path style="fill:#8b9cbe" d="M 16,5.5 4,11.78125 7.823242,13.038086 13.47461,8.260742 9.288086,13.53711 11.467774,14.256836 13.771485,15 Z M 9.007813,14.497071 9,17 10.326172,14.947266 9.901367,14.791992 Z"/>
</svg>
