<svg xmlns="http://www.w3.org/2000/svg" width="22" height="22" version="1.1">
 <path style="opacity:0.2" d="m 3,5.5 c -1.1073138,0 -2,0.892578 -2,2 v 12 c 0,1.109375 0.8926861,2 2,2 h 8 8 c 1.107314,0 2,-0.890625 2,-2 v -12 c 0,-1.107422 -0.892686,-2 -2,-2 h -8 z"/>
 <path style="fill:#e63e60" d="M 2.9998047,5 C 1.8924909,5 1,5.892578 1,7 v 12 c 0,1.109375 0.8924908,2 1.9998047,2 H 10.999024 V 5 Z m 0,0"/>
 <path style="fill:#177bc7" d="m 10.999024,5 v 16 h 8.001171 C 20.107509,21 21,20.109375 21,19 V 7 C 21,5.892578 20.107509,5 19.000195,5 Z m 0,0"/>
 <path style="opacity:0.1" d="m 11,7.5 c -2.208984,0 -4,1.791016 -4,4 0,2.208985 1.791016,4 4,4 2.210938,0 4,-1.791015 4,-4 0,-2.208984 -1.789062,-4 -4,-4 z"/>
 <path style="fill:#5d6266" d="m 11,7 c -2.208984,0 -4,1.7910155 -4,4 0,2.208985 1.791016,4 4,4 2.210938,0 4,-1.791015 4,-4 0,-2.2089845 -1.789062,-4 -4,-4 z"/>
 <circle style="opacity:0.1" cx="11" cy="11.5" r="3"/>
 <circle style="fill:#9badff" cx="11" cy="11" r="3"/>
 <path style="opacity:0.2" d="m 3,1.5 c -1.107422,0 -2,0.892578 -2,2 v 16 c 0,-1.107422 0.892578,-2 2,-2 1.107422,0 2,0.892578 2,2 V 3.5 C 5,2.392578 4.107422,1.5 3,1.5 Z m 16,0 c -1.109267,0 -2,0.892578 -2,2 v 16 c 0,-1.107422 0.890733,-2 2,-2 1.107314,0 2,0.892578 2,2 v -16 c 0,-1.107422 -0.892686,-2 -2,-2 z"/>
 <path style="opacity:0.2;fill:#8b9cbe" d="M 3,5 C 1.8926862,5 1,5.892578 1,7 v 0.5 c 0,-1.107422 0.8926861,-2 2,-2 H 10.999024 19 c 1.107313,0 2,0.892578 2,2 V 7 C 21,5.892578 20.107313,5 19,5 h -8.000976 z"/>
 <path style="fill:#3daee9" d="m 19.000195,1 c -1.109267,0 -1.999804,0.892578 -1.999804,2 v 16 c 0,-1.107422 0.890537,-2 1.999804,-2 C 20.107509,17 21,17.892578 21,19 V 3 C 21,1.892578 20.107509,1 19.000195,1 Z"/>
 <path style="fill:#ff6c7f" d="M 3,1 C 1.892578,1 1,1.892578 1,3 v 16 c 0,-1.107422 0.892578,-2 2,-2 1.107422,0 2,0.892578 2,2 V 3 C 5,1.892578 4.107422,1 3,1 Z"/>
 <path style="opacity:0.2;fill:#8b9cbe" d="M 3,1 C 1.8925781,1 1,1.892578 1,3 v 0.5 c 0,-1.107422 0.8925781,-2 2,-2 1.107422,0 2,0.892578 2,2 V 3 C 5,1.892578 4.107422,1 3,1 Z m 16,0 c -1.109267,0 -2,0.892578 -2,2 v 0.5 c 0,-1.107422 0.890733,-2 2,-2 1.107313,0 2,0.892578 2,2 V 3 C 21,1.892578 20.107313,1 19,1 Z"/>
</svg>
