<svg xmlns="http://www.w3.org/2000/svg" width="22" height="22" version="1.1">
 <path style="opacity:0.2" d="M 11.055802,1.499949 C 10.705484,1.503759 10.368426,1.523978 10.067073,1.568659 8.9542612,1.7555264 7.8547332,2.1808819 6.9062307,2.6614992 4.0693993,4.1224043 0.94286524,7.7801242 1.0007929,10.537059 l 0.00534,-0.0047 c 0.00181,0.09693 0.019875,0.211682 0.053413,0.342956 0.090318,0.353529 0.2923458,0.825179 0.5887263,1.382488 0.5927609,1.11462 1.5622963,2.57077 2.7685572,4.104224 1.8464185,2.347252 3.7117229,4.195572 4.756101,4.783621 l 0.0012,6e-4 c 0.73349,0.482048 1.3699076,0.354369 1.5934776,0.284908 0.738887,-0.133937 2.383694,-1.200498 4.397644,-2.91898 2.901958,-2.47621 5.479819,-5.37606 5.791715,-6.510249 l 0.01127,0.01896 C 21.452164,7.4385347 16.255269,3.6377416 15.589351,3.1483907 14.362056,2.1193975 12.780994,1.499949 11.055802,1.499949 Z"/>
 <path style="fill:#0060d6" d="m 11.055802,0.99994961 c -0.350318,0.00381 -0.687376,0.02403 -0.988729,0.06871 C 8.9542612,1.255527 7.8547332,1.6808825 6.9062307,2.1614998 4.0693993,3.6224048 0.94286524,7.2801247 1.0007929,10.03706 l 0.00534,-0.0047 c 0.00181,0.09693 0.019875,0.211681 0.053413,0.342956 0.090318,0.353529 0.2923458,0.825178 0.5887263,1.382488 0.5927609,1.114619 1.5622963,2.570769 2.7685572,4.104223 1.8464185,2.347253 3.7117229,4.195573 4.756101,4.783621 l 0.0012,6e-4 c 0.73349,0.482048 1.3699076,0.354369 1.5934776,0.284908 0.738887,-0.133937 2.383694,-1.200497 4.397644,-2.918979 2.901958,-2.47621 5.479819,-5.376061 5.791715,-6.51025 l 0.01127,0.01896 C 21.452164,6.9385352 16.255269,3.1377422 15.589351,2.6483913 14.362056,1.6193981 12.780994,0.99994961 11.055802,0.99994961 Z"/>
 <path style="opacity:0.1;fill:#8b9cbe" d="m 11.055663,0.99994991 c -0.350318,0.00381 -0.686929,0.02368 -0.988281,0.068359 C 8.9545697,1.2551769 7.8547517,1.6804653 6.9062492,2.1610826 4.0694178,3.6219876 0.94304824,7.2801242 1.0009759,10.037059 l 0.00488,-0.0049 c 4.987e-4,0.02678 0.011684,0.06526 0.014648,0.09473 C 1.2526228,7.4277552 4.2075713,4.0508418 6.9062492,2.6610826 7.8547517,2.1804653 8.9545697,1.7551768 10.067382,1.5683092 c 0.301352,-0.04468 0.637963,-0.064549 0.988281,-0.068359 1.725192,0 3.305907,0.6194442 4.533203,1.6484374 0.623127,0.4579065 5.213422,3.8159044 5.404297,7.9999997 0.177,-4.4142033 -4.756522,-8.023981 -5.404297,-8.4999997 C 14.36157,1.6193941 12.780855,0.99994991 11.055663,0.99994991 Z"/>
 <path style="opacity:0.15;fill:#8b9cbe" d="m 11.204029,1.0029117 a 6.9999999,6.9792214 0 0 0 -7.2039027,6.9757755 6.9999999,6.9792214 0 1 0 13.9997457,0 6.9999999,6.9792214 0 0 0 -6.795843,-6.9757755 z"/>
 <path style="opacity:0.15;fill:#8b9cbe" d="M 1.3174644,9.6698719 A 7.0682254,1.2331098 51.519796 0 0 4.4172953,15.862254 7.0682254,1.2331098 51.519796 1 0 6.6020217,14.649364 7.0682254,1.2331098 51.519796 0 0 1.3174644,9.6698719 Z"/>
 <path style="opacity:0.15;fill:#8b9cbe" d="m 20.671386,11.045848 a 1.1738429,7.1715219 47.18196 0 0 -10.300541,9.467774 1.1738429,7.1715219 47.18196 1 0 10.593531,-9.039063 1.1738429,7.1715219 47.18196 0 0 -0.29299,-0.428711 z"/>
 <g style="font-size:6.73961735px;line-height:125%;font-family:Monospace;letter-spacing:0px;word-spacing:0px;opacity:0.2" transform="matrix(0.33256444,0.37931754,-0.36935026,0.34153909,-0.93119236,-0.55615299)">
  <path d="m 21.291758,-14.698858 h 16.301451 v 3.447472 H 31.728952 V 2.9886901 H 27.167863 V -11.251386 h -5.876105 z"/>
 </g>
 <g style="font-size:6.73961735px;line-height:125%;font-family:Monospace;letter-spacing:0px;word-spacing:0px;fill:#8b9cbe" transform="matrix(0.33256444,0.37931754,-0.36935026,0.34153909,-0.93119236,-1.0561529)">
  <path style="fill:#8b9cbe" d="m 21.291758,-14.698858 h 16.301451 v 3.447472 H 31.728952 V 2.9886901 H 27.167863 V -11.251386 h -5.876105 z"/>
 </g>
 <g style="font-size:2.85384536px;line-height:125%;font-family:Monospace;letter-spacing:0px;word-spacing:0px;fill:#8b9cbe" transform="matrix(0.73087974,0.90599738,-0.02650001,0.30920416,-1.0000006,-1.0000501)">
  <path style="fill:#8b9cbe" d="m 6.6472733,20.51031 h 1.9313615 v 6.029861 h 3.3911702 v 1.459808 H 6.6472733 Z"/>
 </g>
 <g style="font-size:2.20785069px;line-height:125%;font-family:Monospace;letter-spacing:0px;word-spacing:0px;fill:#8b9cbe" transform="matrix(0.96094733,-0.87741883,-0.09341901,0.34545867,-1.0000006,-1.0000501)">
  <path style="fill:#8b9cbe" d="m 32.484429,126.84921 q -0.558862,0.27167 -1.160415,0.4075 -0.601553,0.13584 -1.241916,0.13584 -1.447608,0 -2.293664,-0.80725 -0.846055,-0.81112 -0.846055,-2.19664 0,-1.40103 0.861579,-2.2044 0.861579,-0.80336 2.359641,-0.80336 0.578267,0 1.106081,0.10867 0.531695,0.10866 1.001295,0.32212 v 1.19922 q -0.485124,-0.27555 -0.966366,-0.41138 -0.477362,-0.13584 -0.958604,-0.13584 -0.892627,0 -1.377751,0.50065 -0.481242,0.49677 -0.481242,1.42432 0,0.9198 0.465719,1.42044 0.465718,0.50065 1.323416,0.50065 0.232859,0 0.43079,-0.0272 0.201811,-0.031 0.360932,-0.0931 v -1.12549 h -0.912032 v -1.00129 h 2.328592 z"/>
 </g>
</svg>
