<svg xmlns="http://www.w3.org/2000/svg" width="22" height="22" version="1">
 <g transform="translate(-0.9999963,-0.9999995)">
  <path style="opacity:0.2" d="m 12.054151,2.5004983 a 2.2828381,2.27395 0 0 0 -1.19552,0.30335 L 4.141519,6.6668485 A 2.2828381,2.27395 0 0 0 3,8.6363485 v 7.7264995 a 2.2828381,2.27395 0 0 0 1.141419,1.9693 l 6.717112,3.8632 a 2.2828381,2.27395 0 0 0 2.282838,0 l 6.717112,-3.8632 A 2.2828381,2.27395 0 0 0 21,16.362648 V 8.6361485 a 2.2828381,2.27395 0 0 0 -1.141519,-1.9695 L 13.141369,2.8036483 a 2.2828381,2.27395 0 0 0 -1.087518,-0.30335 z"/>
  <path style="fill:#e4ba75" d="m 3.0039063,7.9725745 c -0.00226,0.038045 -0.00357,0.076145 -0.00391,0.1142575 v 7.776449 c 2.343e-4,0.812245 0.4353891,1.562692 1.1416015,1.96875 L 10.8584,21.695312 c 0.706406,0.406342 1.576797,0.406342 2.283203,0 l 6.716795,-3.863281 C 20.564914,17.425798 21.000116,16.674899 21,15.862305 V 8.086832 C 20.9989,8.058157 20.9973,8.029507 20.9951,8.000894 21,8 3.0039063,7.9725745 3.0039063,7.9725745 Z"/>
  <path style="opacity:0.1" d="m 11.946289,2 c -0.02096,4.827e-4 -0.0416,0.00383 -0.0625,0.00488 A 2.2845733,2.27395 0 0 1 12,2.0019531 V 2 Z m -0.210937,0.017578 c -0.03592,0.00416 -0.0718,0.00783 -0.107422,0.013672 a 2.2845733,2.27395 0 0 1 0.107422,-0.013672 z m -0.59668,0.1503906 c -0.03188,0.012907 -0.06244,0.028618 -0.09375,0.042969 a 2.2845733,2.27395 0 0 1 0.09375,-0.042969 z M 3.9208985,6.3095705 c -0.023458,0.01732 -0.045664,0.035575 -0.068359,0.05371 a 2.2845733,2.27395 0 0 1 0.068359,-0.05371 z M 3.7167969,6.480469 C 3.6952214,6.500694 3.6740419,6.520994 3.6533203,6.541992 A 2.2845733,2.27395 0 0 1 3.7167969,6.480469 Z M 3.5253906,6.683594 c -0.013618,0.01633 -0.027874,0.032135 -0.041016,0.04883 a 2.2845733,2.27395 0 0 1 0.041016,-0.04883 z M 3.2070313,7.182617 c -0.00566,0.0122 -0.010184,0.024805 -0.015625,0.03711 a 2.2845733,2.27395 0 0 1 0.015625,-0.03711 z m -0.094727,0.2421875 c -0.00706,0.021365 -0.013101,0.04285 -0.019532,0.064454 a 2.2845733,2.27395 0 0 1 0.019532,-0.064454 z m -0.072266,0.275391 c -0.00255,0.01305 -0.00549,0.025945 -0.00781,0.039065 a 2.2845733,2.27395 0 0 1 0.00781,-0.039065 z M 3.0009765,8 c -1.764e-4,0.00295 -8.099e-4,0.00582 -9.749e-4,0.00879 9.5e-4,0.00912 0.00188,0.018235 0.00293,0.027345 -0.00105,0.016925 -0.00228,0.033835 -0.00293,0.050781 v 7.775391 c -1.16e-4,0.812594 0.4350855,1.563493 1.1416015,1.969726 l 6.7167959,3.863279 C 11.209296,21.897157 11.608375,21.9987 12,22 V 13.998047 A 2.2845733,2.27395 0 0 1 10.857422,13.695313 L 4.1357422,9.832031 A 2.2845733,2.27395 0 0 1 3.0009765,8 Z"/>
  <path style="fill:#b89863" d="m 12.053752,2 v 9.75e-4 A 2.2845733,2.27395 0 0 0 10.85753,2.303711 L 4.1356281,6.166992 A 2.2845733,2.27395 0 0 0 3,7.9902345 2.2845733,2.27395 0 0 0 4.1356281,9.832031 l 6.7219019,3.863282 a 2.2845733,2.27395 0 0 0 2.284939,0 L 19.864372,9.832031 A 2.2845733,2.27395 0 0 0 21,8.008789 2.2845733,2.27395 0 0 0 19.864372,6.166992 L 13.142469,2.303711 A 2.2845733,2.27395 0 0 0 12.053752,2 Z"/>
  <path style="opacity:0.07" d="m 12,2 v 11.989258 a 2.2845733,2.27395 0 0 0 1.142578,-0.302734 l 6.72168,-3.863282 a 2.2845733,2.27395 0 0 0 1.134765,-1.818359 c -0.0053,-0.092979 -0.01678,-0.184998 -0.03321,-0.275391 a 2.2845733,2.27395 0 0 0 0,-0.0039 c -4.88e-4,-0.00265 -0.0014,-0.00516 -0.0019,-0.00781 -0.01639,-0.087515 -0.03717,-0.1735465 -0.06348,-0.2578125 a 2.2845733,2.27395 0 0 0 -0.002,-0.00781 c -9.5e-4,-0.00305 -0.0029,-0.00572 -0.0039,-0.00879 -0.170532,-0.531648 -0.53348,-0.98986 -1.030273,-1.2763675 L 13.142578,2.303711 C 12.810927,2.1132512 12.436502,2.008815 12.053711,2 Z"/>
  <path style="opacity:0.2;fill:#8b9cbe" d="m 12.053711,2 v 9.75e-4 A 2.2845733,2.27395 0 0 0 10.857422,2.303711 L 4.1357422,6.166992 A 2.2845733,2.27395 0 0 0 3,7.9902345 2.2845733,2.27395 0 0 0 3.03125,8.2470705 2.2845733,2.27395 0 0 1 4.1357422,6.666992 L 10.857422,2.803711 A 2.2845733,2.27395 0 0 1 12.053711,2.5009765 V 2.5 a 2.2845733,2.27395 0 0 1 1.088867,0.303711 l 6.72168,3.863281 A 2.2845733,2.27395 0 0 1 20.96875,8.2509765 2.2845733,2.27395 0 0 0 21,8.008789 2.2845733,2.27395 0 0 0 19.864258,6.166992 L 13.142578,2.303711 A 2.2845733,2.27395 0 0 0 12.053711,2 Z"/>
  <path style="opacity:0.1" d="M 3.03125,7.7470705 A 2.2845733,2.27395 0 0 0 3,7.9902345 2.2845733,2.27395 0 0 0 4.1357422,9.832031 l 6.7216798,3.863282 a 2.2845733,2.27395 0 0 0 2.285156,0 l 6.72168,-3.863282 A 2.2845733,2.27395 0 0 0 21,8.008789 2.2845733,2.27395 0 0 0 20.96875,7.751953 2.2845733,2.27395 0 0 1 19.864258,9.332031 l -6.72168,3.863282 a 2.2845733,2.27395 0 0 1 -2.285156,0 L 4.1357422,9.332031 A 2.2845733,2.27395 0 0 1 3.03125,7.7470705 Z"/>
 </g>
</svg>
