<svg xmlns="http://www.w3.org/2000/svg" width="22" height="22" version="1.1">
 <path style="opacity:0.2" d="M 3.5795835,3.5541743 3.939478,6.3687786 c 0.075191,0.6400938 0.2047465,1.47744 0.193097,2.1209801 -0.00617,0.3216847 -0.060012,0.6495718 -0.2186905,0.9321428 -0.079251,0.140596 -0.184801,0.269132 -0.315062,0.367515 -0.1302611,0.0989 -0.2854091,0.167476 -0.4488531,0.187807 -0.265464,0.0336 -0.52881,-0.05927 -0.772917,-0.16558 -0.2434011,-0.106998 -0.4853901,-0.231571 -0.7494421,-0.267926 -0.25858,-0.03618 -0.526692,0.01619 -0.75773761,0.133877 -0.230869,0.118542 -0.424672,0.300836 -0.5660525,0.5150035 -0.282585,0.427993 -0.34806854,1.308794 -0.2778195,1.813633 0.052952,0.382334 0.1853305,0.763804 0.4433815,1.056715 0.128849,0.145938 0.288233,0.268443 0.468798,0.346494 0.18056511,0.07875 0.38266411,0.113201 0.57911461,0.0896 0.271818,-0.0331 0.7166789,-0.1723 0.9634334,-0.288772 0.1242601,-0.05789 0.2509906,-0.110962 0.3840756,-0.142668 0.133085,-0.03172 0.27376,-0.041 0.407551,-0.01136 0.1447345,0.03153 0.2764075,0.108204 0.3819575,0.209863 0.1060801,0.10097 0.1853311,0.226228 0.2426951,0.359417 0.1129635,0.267238 0.134497,0.561354 0.1482645,0.850126 0.083926,1.73036 -0.049445,3.261076 -0.3971371,4.9598 1.2004227,0.41437 2.1828879,0.733021 3.436085,0.95282 0.4151405,0.07358 0.8459906,0.134742 1.2549531,0.03378 0.2047465,-0.05049 0.400667,-0.142663 0.556345,-0.281362 0.1558542,-0.138529 0.2697002,-0.325652 0.3020012,-0.529653 -0.01163,-0.772652 -0.5528731,-1.511553 -0.6315397,-2.259967 -0.052952,-0.268443 -0.00405,-0.552569 0.1193175,-0.798267 0.124083,-0.245528 0.3205332,-0.452974 0.5506962,-0.609085 0.461385,-0.310828 1.0413819,-0.410587 1.6017869,-0.415239 0.513631,-0.0039 1.044847,0.07134 1.481168,0.336502 0.217985,0.132672 0.408257,0.311692 0.536577,0.528965 0.128849,0.216749 0.193626,0.472615 0.168209,0.721592 -0.160341,1.044189 -0.54655,1.50542 -0.660659,2.199231 -0.02754,0.191252 -0.0034,0.297135 0.09796,0.462543 0.07237,0.117854 0.180036,0.211928 0.299353,0.284126 0.119141,0.07271 0.250285,0.124398 0.382664,0.170918 0.858552,0.298678 1.831062,0.32924 2.729774,0.181053 0.898328,-0.150501 1.741949,-0.523873 2.449895,-1.084281 l -0.456619,-3.337625 c -0.07996,-0.586856 -0.201216,-0.873998 -0.184801,-1.465501 0.0076,-0.296181 0.06001,-0.59633 0.201392,-0.858052 0.06939,-0.132213 0.163908,-0.250331 0.278526,-0.34805 0.114294,-0.09828 0.251291,-0.16804 0.399255,-0.203312 0.141204,-0.03153 0.288939,-0.02826 0.43085,-0.0034 0.142793,0.02499 0.280643,0.07064 0.41514,0.121988 0.269524,0.102858 0.533576,0.230879 0.820397,0.268438 0.264758,0.035 0.539224,-0.01068 0.781213,-0.120436 0.242695,-0.110269 0.452913,-0.283949 0.612297,-0.49329 0.319122,-0.41938 0.42679,-1.215191 0.361306,-1.732953 -0.05383,-0.42179 -0.222043,-0.837722 -0.52122,-1.146657 -0.149676,-0.1542075 -0.330947,-0.2808475 -0.53234,-0.3614835 -0.201216,-0.0815 -0.42273,-0.117854 -0.639126,-0.097 -0.288939,0.02705 -0.556521,0.150762 -0.827457,0.25173 -0.135027,0.05117 -0.273584,0.09632 -0.41567,0.121816 -0.142793,0.02567 -0.291058,0.03032 -0.432438,-6.81e-4 -0.214278,-0.04653 -0.405257,-0.173514 -0.543813,-0.339783 -0.138734,-0.16627 -0.42735,-0.368722 -0.473418,-0.578927 -0.09249,-0.4186894 -0.02206,-1.0534111 0.0406,-1.4774409 0.209614,-1.4222684 0.327516,-2.7098592 0.35301,-4.1465562 -1.281559,-0.4016618 -2.399247,-0.6824741 -3.735706,-0.8385838 -0.411081,-0.048418 -0.8384,-0.082704 -1.230242,0.047208 -0.19645,0.06513 -0.37984,0.1723001 -0.517691,0.3230624 -0.13785,0.1499008 -0.227515,0.3464954 -0.231574,0.5484307 -0.0036,0.1419752 0.03512,0.2834336 0.09584,0.4126585 0.518985,0.8075299 0.830133,1.5170595 0.635514,2.4364676 -0.104667,0.2948058 -0.308178,0.5525672 -0.560404,0.7443372 -0.253109,0.1919417 -0.553698,0.3190995 -0.865406,0.3899149 -0.311532,0.070643 -0.634184,0.08615 -0.954188,0.067885 C 10.110897,7.4836719 9.5856171,7.3599618 9.1733001,7.0563696 8.9671424,6.9047448 8.7925784,6.709012 8.6808509,6.4822661 8.5692989,6.2553465 8.5209364,5.9963796 8.5590619,5.7472335 8.6113074,5.4086642 8.9126904,4.6593583 9.0823121,4.3599008 c 0.08472,-0.1500731 0.163268,-0.3049709 0.21163,-0.4691727 0.04889,-0.1642018 0.0669,-0.3404651 0.02965,-0.5074236 C 9.2849371,3.2082518 9.1869771,3.0488743 9.0567161,2.9229224 8.9264554,2.7977955 8.7651299,2.705615 8.5926839,2.6442759 8.2486749,2.5219433 7.8728953,2.5224602 7.5075293,2.5433083 6.1423567,2.6218166 4.8069611,2.9654894 3.5795785,3.5541923 Z"/>
 <path style="fill:#33d17a" d="M 3.5795835,3.0542343 3.939478,5.8688386 c 0.075191,0.6400938 0.2047465,1.47744 0.193097,2.1209801 -0.00617,0.3216847 -0.060012,0.6495722 -0.2186905,0.9321433 -0.079251,0.1405965 -0.184801,0.2691325 -0.315062,0.3675155 -0.1302611,0.0989 -0.2854091,0.167476 -0.4488531,0.187807 -0.265464,0.0336 -0.52881,-0.05927 -0.772917,-0.16558 -0.2434011,-0.106998 -0.4853901,-0.231571 -0.7494421,-0.267926 -0.25858,-0.03618 -0.526692,0.01619 -0.75773761,0.133877 -0.230869,0.118542 -0.424672,0.300836 -0.5660525,0.515004 -0.282585,0.4279925 -0.34806854,1.3087935 -0.2778195,1.8136325 0.052952,0.382334 0.1853305,0.763804 0.4433815,1.056715 0.128849,0.145938 0.288233,0.268443 0.468798,0.346494 0.18056511,0.07875 0.38266411,0.113201 0.57911461,0.0896 0.271818,-0.0331 0.7166789,-0.1723 0.9634334,-0.288772 0.1242601,-0.05789 0.2509906,-0.110962 0.3840756,-0.142668 0.133085,-0.03172 0.27376,-0.041 0.407551,-0.01136 0.1447345,0.03153 0.2764075,0.108204 0.3819575,0.209863 0.1060801,0.10097 0.1853311,0.226228 0.2426951,0.359417 0.1129635,0.267238 0.134497,0.561354 0.1482645,0.850126 0.083926,1.73036 -0.049445,3.261076 -0.3971371,4.9598 1.2004227,0.41437 2.1828879,0.733021 3.436085,0.95282 0.4151405,0.07358 0.8459906,0.134742 1.2549531,0.03378 0.2047465,-0.05049 0.400667,-0.142663 0.556345,-0.281362 0.1558542,-0.138529 0.2697002,-0.325652 0.3020012,-0.529653 -0.01163,-0.772652 -0.5528731,-1.511553 -0.6315397,-2.259967 -0.052952,-0.268443 -0.00405,-0.552569 0.1193175,-0.798267 0.124083,-0.245528 0.3205332,-0.452974 0.5506962,-0.609085 0.461385,-0.310828 1.0413819,-0.410587 1.6017869,-0.415239 0.513631,-0.0039 1.044847,0.07134 1.481168,0.336502 0.217985,0.132672 0.408257,0.311692 0.536577,0.528965 0.128849,0.216749 0.193626,0.472615 0.168209,0.721592 -0.160341,1.044189 -0.54655,1.50542 -0.660659,2.199231 -0.02754,0.191252 -0.0034,0.297135 0.09796,0.462543 0.07237,0.117854 0.180036,0.211928 0.299353,0.284126 0.119141,0.07271 0.250285,0.124398 0.382664,0.170918 0.858552,0.298678 1.831062,0.32924 2.729774,0.181053 0.898328,-0.150501 1.741949,-0.523873 2.449895,-1.084281 l -0.456619,-3.337625 c -0.07996,-0.586856 -0.201216,-0.873998 -0.184801,-1.465501 0.0076,-0.296181 0.06001,-0.59633 0.201392,-0.858052 0.06939,-0.132213 0.163908,-0.250331 0.278526,-0.34805 0.114294,-0.09828 0.251291,-0.16804 0.399255,-0.203312 0.141204,-0.03153 0.288939,-0.02826 0.43085,-0.0034 0.142793,0.02499 0.280643,0.07064 0.41514,0.121988 0.269524,0.102858 0.533576,0.230879 0.820397,0.268438 0.264758,0.035 0.539224,-0.01068 0.781213,-0.120436 0.242695,-0.110269 0.452913,-0.283949 0.612297,-0.49329 0.319122,-0.41938 0.42679,-1.215191 0.361306,-1.732953 -0.05383,-0.42179 -0.222043,-0.8377215 -0.52122,-1.1466565 -0.149676,-0.154208 -0.330947,-0.280848 -0.53234,-0.361484 -0.201216,-0.0815 -0.42273,-0.117854 -0.639126,-0.097 -0.288939,0.02705 -0.556521,0.150762 -0.827457,0.25173 -0.135027,0.05117 -0.273584,0.09632 -0.41567,0.121816 -0.142793,0.02567 -0.291058,0.03032 -0.432438,-6.81e-4 -0.214278,-0.04653 -0.405257,-0.173514 -0.543813,-0.339783 -0.138734,-0.1662702 -0.42735,-0.3687229 -0.473418,-0.5789283 -0.09249,-0.4186891 -0.02206,-1.0534108 0.0406,-1.4774406 0.209614,-1.4222684 0.327516,-2.7098592 0.35301,-4.1465562 -1.281559,-0.4016618 -2.399247,-0.6824741 -3.735706,-0.8385838 -0.411081,-0.048418 -0.8384,-0.082704 -1.230242,0.047208 -0.19645,0.06513 -0.37984,0.1723001 -0.517691,0.3230624 -0.13785,0.1499008 -0.227515,0.3464954 -0.231574,0.5484307 -0.0036,0.1419752 0.03512,0.2834336 0.09584,0.4126585 0.518985,0.8075299 0.830133,1.5170595 0.635514,2.4364676 -0.104667,0.2948058 -0.308178,0.5525672 -0.560404,0.7443372 -0.253109,0.1919417 -0.553698,0.3190995 -0.865406,0.3899149 -0.311532,0.070643 -0.634184,0.08615 -0.954188,0.067885 C 10.110897,6.9837319 9.5856171,6.8600218 9.1733001,6.5564296 8.9671424,6.4048048 8.7925784,6.209072 8.6808509,5.9823261 8.5692989,5.7554065 8.5209364,5.4964396 8.5590619,5.2472935 8.6113074,4.9087242 8.9126904,4.1594183 9.0823121,3.8599608 c 0.08472,-0.1500731 0.163268,-0.3049709 0.21163,-0.4691727 0.04889,-0.1642018 0.0669,-0.3404651 0.02965,-0.5074236 C 9.2849371,2.7083118 9.1869771,2.5489343 9.0567161,2.4229824 8.9264554,2.2978555 8.7651299,2.205675 8.5926839,2.1443359 8.2486749,2.0220033 7.8728953,2.0225202 7.5075293,2.0433683 6.1423567,2.1218766 4.8069611,2.4655494 3.5795785,3.0542523 Z"/>
 <path style="opacity:0.2;fill:#8b9cbe" d="m 13.630859,2.0000005 c -0.207195,0.00162 -0.4115,0.024888 -0.607421,0.089844 -0.196451,0.06513 -0.379728,0.1734564 -0.517579,0.3242187 -0.13785,0.1499008 -0.226409,0.3468928 -0.230468,0.5488281 -0.0024,0.095203 0.01931,0.1880912 0.04883,0.2792969 0.03936,-0.1202063 0.0954,-0.2343444 0.18164,-0.328125 0.137851,-0.1507623 0.321128,-0.2590888 0.517579,-0.3242187 0.391842,-0.129912 0.819387,-0.095293 1.230468,-0.046875 1.327204,0.1550285 2.44049,0.4348135 3.710938,0.8320312 0.0056,-0.1664236 0.02237,-0.3220532 0.02539,-0.4921875 -1.281561,-0.401662 -2.399871,-0.6837342 -3.73633,-0.8398439 -0.20554,-0.024209 -0.415851,-0.044584 -0.623047,-0.042969 z M 8.0585939,2.0410161 C 7.8759771,2.0284598 7.6904956,2.0325452 7.5078126,2.0429693 6.14264,2.1214776 4.8074608,2.4659851 3.5800782,3.054688 l 0.060547,0.4746094 c 1.211027,-0.5714602 2.5239897,-0.9090836 3.8671874,-0.9863281 0.365366,-0.020848 0.7399754,-0.02077 1.0839844,0.1015624 0.172446,0.061339 0.334583,0.15417 0.4648441,0.2792969 0.117005,0.1131348 0.202735,0.2539949 0.248047,0.4082031 0.03655,-0.1473119 0.05244,-0.3016965 0.01953,-0.4492187 C 9.2855641,2.7077603 9.1869021,2.5497805 9.0566411,2.4238286 8.92638,2.2987017 8.764243,2.2058708 8.591797,2.1445317 8.4197925,2.0833654 8.2412106,2.0535725 8.0585939,2.0410161 Z M 13.033203,5.492188 c -0.0092,0.1061757 -0.0037,0.2065274 -0.02734,0.3183594 C 12.901196,6.1053532 12.697543,6.362918 12.445316,6.554688 12.192207,6.7466297 11.89179,6.8744976 11.580082,6.945313 11.268546,7.015956 10.945004,7.0319374 10.625,7.0136724 10.109949,6.9840174 9.5861451,6.8602333 9.1738281,6.5566411 8.9676705,6.4050163 8.7933682,6.2091683 8.6816407,5.9824224 8.6337927,5.8850898 8.6047894,5.7796494 8.5820313,5.6738286 c -0.00406,0.019893 -0.020697,0.056461 -0.023437,0.074219 -0.038126,0.2491461 0.011495,0.5074554 0.1230468,0.734375 0.1117275,0.2267459 0.2860298,0.4225939 0.492187,0.5742187 0.412317,0.3035922 0.9361209,0.4273763 1.4511719,0.4570313 0.320004,0.018265 0.643546,0.00228 0.955078,-0.068359 0.311708,-0.070815 0.612125,-0.1986833 0.865234,-0.390625 0.252227,-0.19177 0.45588,-0.4493348 0.560547,-0.7441406 0.06184,-0.2921469 0.05808,-0.558717 0.02734,-0.8183594 z M 4.1132813,8.1679693 c -0.020996,0.2626188 -0.06989,0.5236 -0.1992187,0.7539062 -0.079251,0.140596 -0.1841921,0.268804 -0.3144531,0.367187 -0.1302611,0.0989 -0.2857748,0.16717 -0.4492188,0.1875 -0.265464,0.0336 -0.5293305,-0.05775 -0.7734375,-0.164062 -0.2434011,-0.106998 -0.485948,-0.233176 -0.75,-0.269531 -0.25858,-0.03618 -0.5267669,0.01708 -0.75781251,0.134765 -0.230869,0.118542 -0.4230726,0.301457 -0.5644531,0.515625 -0.2550248,0.3862515 -0.32786817,1.1279075 -0.2890625,1.6425785 0.025566,-0.423475 0.1102397,-0.87174 0.2890625,-1.142579 0.1413805,-0.2141675 0.3335841,-0.3970825 0.5644531,-0.5156245 0.23104561,-0.117687 0.49923251,-0.170945 0.75781251,-0.134765 0.264052,0.03636 0.5065989,0.162533 0.75,0.269531 0.244107,0.10631 0.5079735,0.1976615 0.7734375,0.164062 0.163444,-0.02033 0.3189577,-0.0886 0.4492188,-0.1875 0.130261,-0.09838 0.2352021,-0.226591 0.3144531,-0.367187 0.1586785,-0.282571 0.21258,-0.6099559 0.21875,-0.9316406 0.00177,-0.097595 -0.015485,-0.2171196 -0.019531,-0.3222656 z M 17.5625,8.2285161 c -0.01684,0.2785392 -0.0156,0.5564122 0.0332,0.7773434 0.04607,0.210205 0.335876,0.411855 0.474609,0.578125 0.138557,0.166269 0.328691,0.293314 0.542969,0.339844 0.14138,0.031 0.288848,0.02762 0.431641,0.002 0.142086,-0.0255 0.280988,-0.07188 0.416016,-0.123047 0.270936,-0.100968 0.539186,-0.22295 0.828124,-0.25 0.216396,-0.02085 0.437456,0.0142 0.638672,0.0957 0.201393,0.08063 0.383528,0.20712 0.533204,0.3613275 0.299176,0.308935 0.467654,0.724694 0.521484,1.146484 0.0021,0.0164 2.28e-4,0.03775 0.002,0.05469 0.01495,-0.197871 0.01868,-0.391552 -0.002,-0.554688 -0.05383,-0.42179 -0.222308,-0.8375485 -0.521484,-1.1464835 -0.149676,-0.154208 -0.331811,-0.280693 -0.533204,-0.361328 -0.201216,-0.0815 -0.422276,-0.116558 -0.638672,-0.0957 -0.288938,0.02705 -0.557188,0.149032 -0.828124,0.25 -0.135028,0.05117 -0.27393,0.09755 -0.416016,0.123047 -0.142793,0.02567 -0.290261,0.02905 -0.431641,-0.002 C 18.399,9.3773005 18.208866,9.2502555 18.070309,9.0839865 17.931579,8.9177147 17.641771,8.7160653 17.595703,8.5058599 17.577253,8.4223404 17.569339,8.3258411 17.5625,8.2285161 Z m 0.142578,6.0957029 c -0.0069,0.06741 -0.02171,0.133668 -0.02344,0.201172 -0.01641,0.591503 0.103633,0.87994 0.183593,1.466797 l 0.394532,2.880859 c 0.02013,-0.01547 0.04258,-0.0272 0.0625,-0.04297 l -0.457032,-3.33789 c -0.06369,-0.467444 -0.134507,-0.775561 -0.160156,-1.167969 z M 4.0625001,15.378906 c -0.026442,1.189867 -0.1629946,2.329995 -0.4140625,3.556641 0.029719,0.01026 0.054525,0.0172 0.083984,0.02734 0.223264,-1.214339 0.3348457,-2.369153 0.3300785,-3.583981 z m 8.9335939,1.357422 c -0.171376,0.950615 -0.52373,1.414874 -0.632813,2.078125 -0.01975,0.137192 1.11e-4,0.235072 0.04297,0.337891 0.142918,-0.605952 0.470158,-1.079611 0.617188,-2.03711 0.01292,-0.12653 0.0029,-0.254856 -0.02734,-0.378906 z m -4.419922,0.154297 c -0.030575,0.152595 -0.039825,0.308552 -0.00977,0.460937 0.06683,0.6358 0.4499761,1.265469 0.5761721,1.914063 0.01945,-0.05138 0.04608,-0.09991 0.05469,-0.154297 -0.01143,-0.759132 -0.5281979,-1.485699 -0.6210944,-2.220703 z"/>
</svg>
