<svg xmlns="http://www.w3.org/2000/svg" width="22" height="22" version="1">
 <path style="opacity:0.2" d="m 2,2.5 c -0.554,0 -1,0.446 -1,1 v 12 4 c 0,0.554 0.446,1 1,1 h 18 c 0.554,0 1,-0.446 1,-1 v -4 -12 c 0,-0.554 -0.446,-1 -1,-1 z"/>
 <path style="fill:#4f4f4f" d="M 2,2 C 1.446,2 1,2.446 1,3 v 12 4 c 0,0.554 0.446,1 1,1 h 18 c 0.554,0 1,-0.446 1,-1 V 15 3 C 21,2.446 20.554,2 20,2 Z"/>
 <rect style="opacity:0.2;stroke:#000000;stroke-width:0;stroke-linejoin:round" width="20" height="1" x="1" y="8"/>
 <rect style="opacity:0.2;stroke:#000000;stroke-width:0;stroke-linejoin:round" width="20" height="1" x="1" y="4"/>
 <rect style="opacity:0.2;stroke:#000000;stroke-width:0;stroke-linejoin:round" width="20" height="1" x="1" y="10"/>
 <rect style="opacity:0.2;stroke:#000000;stroke-width:0;stroke-linejoin:round" width="20" height="1" x="1" y="6"/>
 <path style="fill:#47da72" d="m 4.5,5 c 3.5,0 2.332754,5.96412 6,6 2.280507,0.02231 4.147059,-2 6.5,-2 2.352941,0 4,3.5 4,3.5 v 2.5 4 c 0,0.554 -0.446,1 -1,1 H 2 C 1.446,20 1,19.554 1,19 V 9.5 C 1,9.5 1.739939,5 4.5,5 Z"/>
 <path style="opacity:0.1;fill:#8b9cbe" d="M 2,2 C 1.446,2 1,2.446 1,3 v 0.5 c 0,-0.554 0.446,-1 1,-1 h 18 c 0.554,0 1,0.446 1,1 V 3 C 21,2.446 20.554,2 20,2 Z"/>
 <path style="opacity:0.2;fill:#8b9cbe" d="m 4.5,5 c 3.5,0 2.332754,5.96412 6,6 2.280507,0.02231 4.147059,-2 6.5,-2 2.352941,0 4,3.5 4,3.5 V 13 c 0,0 -1.647059,-3.5 -4,-3.5 -2.352941,0 -4.219493,2.02231 -6.5,2 C 6.832754,11.46412 8,5.5 4.5,5.5 1.739939,5.5 1,10 1,10 V 9.5 C 1,9.5 1.739939,5 4.5,5 Z"/>
</svg>
