<svg xmlns="http://www.w3.org/2000/svg" width="22" height="22" version="1.1">
 <rect style="fill:#b2bfd9" width="20" height="20" x="1" y="1" rx="1.5" ry="1.5"/>
 <path style="opacity:0.1" d="M 8.3457031,5.203125 8.5234375,6.0546875 C 5.5136965,7.571242 5.1994622,8.899385 4.7851562,10.234375 l 1.625,0.287109 C 6.7936613,8.900227 7.8064897,8.071359 8.9960938,7.5625 l 0.3007812,0.921875 2.099609,-2.3125 z M 15.498047,5.5 C 14.745555,5.5 14.14119,5.7132331 13.683594,6.1386719 13.228032,6.5619173 13,7.1195174 13,7.8125 c 0,0.4824562 0.124928,0.900836 0.373047,1.253906 0.248119,0.350878 0.611749,0.747464 1.09375,0.949219 H 13.5 V 9.5 h -0.46875 v 1 h 2.238281 V 9.984375 C 14.956332,9.9142 14.717469,9.591386 14.552734,9.255859 14.388002,8.91814 14.306641,8.4629932 14.306641,7.890625 c 0,-0.6513159 0.09944,-1.1447029 0.300781,-1.4824219 0.203376,-0.3399125 0.500143,-0.5097656 0.890625,-0.5097656 0.390482,0 0.687249,0.1698531 0.890625,0.5097656 0.203376,0.337719 0.304687,0.8296328 0.304687,1.4765625 0,0.5833331 -0.07949,1.0416664 -0.242187,1.3750004 -0.162701,0.333333 -0.403436,0.654439 -0.720703,0.724609 V 10.5 h 2.236328 v -1 H 17.5 v 0.515625 H 16.529297 C 17.013333,9.81387 17.378834,9.417284 17.626953,9.066406 17.875072,8.713336 18,8.2949562 18,7.8125 18,7.1195174 17.772049,6.5619173 17.314453,6.1386719 16.856857,5.7132331 16.250538,5.5 15.498047,5.5 Z m -0.265625,7.269531 c -0.383505,1.621257 -1.396334,2.450124 -2.585938,2.958985 l -0.300781,-0.919922 -2.099609,2.3125 3.050781,0.966797 -0.177734,-0.84961 c 3.009741,-1.516555 3.323975,-2.844699 3.738281,-4.179687 z M 5.9121094,13.5 4,18.5 h 1.1308594 l 0.3613281,-1 h 2.015625 l 0.3554687,1 H 9 l -1.8613281,-5 z M 6.5039062,14.679688 7.2050781,16.5 H 5.8027344 Z"/>
 <path style="opacity:0.2" d="M 1,19.5 V 20 c 0,0.831 0.669,1.5 1.5,1.5 h 17 C 20.331,21.5 21,20.831 21,20 V 19.5 C 21,20.331 20.331,21 19.5,21 H 2.5 C 1.669,21 1,20.331 1,19.5 Z"/>
 <path style="opacity:0.2;fill:#8b9cbe" d="M 2.5,1 C 1.669,1 1,1.669 1,2.5 V 3 C 1,2.169 1.669,1.5 2.5,1.5 h 17 C 20.331,1.5 21,2.169 21,3 V 2.5 C 21,1.669 20.331,1 19.5,1 Z"/>
 <g style="font-weight:bold;font-size:15.23467541px;line-height:0%;font-family:FreeSans;text-align:center;text-anchor:middle;fill:#5e5c64;enable-background:new" transform="matrix(0.48478384,0,0,0.4502039,-0.72582706,1.0995838)">
  <path style="fill:#5e5c64" d="m 16.984789,35.318255 h -4.159067 l -0.746499,2.221216 H 9.748318 l 3.945781,-11.106079 h 2.528956 l 3.839138,11.106079 h -2.34614 z m -0.624622,-2.221216 -1.447294,-4.043283 -1.447294,4.043283 z"/>
 </g>
 <g style="font-weight:bold;font-size:19.29725647px;line-height:0%;font-family:FreeSans;text-align:center;text-anchor:middle;fill:#5e5c64;enable-background:new" transform="matrix(0.41009816,0,0,0.44220449,1.9674585,0.0516101)">
  <path style="fill:#5e5c64" d="m 35.508896,21.400037 h 2.366284 v -1.164173 h 1.137394 v 2.261397 h -5.452646 v -1.164174 c 0.773636,-0.158694 1.358822,-0.886457 1.755559,-1.640256 0.396736,-0.753799 0.595104,-1.790273 0.595104,-3.109421 0,-1.462965 -0.24796,-2.576307 -0.74388,-3.340024 -0.495921,-0.768677 -1.219965,-1.153015 -2.172132,-1.153015 -0.952167,0 -1.676211,0.384338 -2.172131,1.153015 -0.490961,0.763717 -0.736442,1.882018 -0.736442,3.354902 0,1.294352 0.200848,2.323387 0.602543,3.087104 0.401696,0.758759 0.984403,1.489001 1.74812,1.647695 v 1.164174 h -5.460084 v -2.261397 h 1.144832 v 1.164173 h 2.358846 c -1.175331,-0.456247 -2.065509,-1.352623 -2.670532,-2.146096 -0.605023,-0.798431 -0.907534,-1.74316 -0.907534,-2.834185 0,-1.567109 0.555431,-2.829226 1.666292,-3.786352 1.115821,-0.962086 2.591185,-1.443129 4.42609,-1.443129 1.834906,0 3.310269,0.481043 4.42609,1.443129 1.115821,0.957126 1.673731,2.219243 1.673731,3.786352 0,1.091025 -0.302511,2.035754 -0.907534,2.834185 -0.605023,0.793473 -1.497679,1.689849 -2.67797,2.146096 z"/>
 </g>
 <path style="fill:#2cc26f" d="M 8.996138,7.063372 9.29729,7.98367 11.396256,5.670991 8.345525,4.7026655 8.5235945,5.554065 c -3.009741,1.5165545 -3.323882,2.8445385 -3.738188,4.179529 l 1.625338,0.287531 C 6.7942495,8.399868 7.806534,7.572231 8.996138,7.063372 Z"/>
 <path style="fill:#2cc26f" d="m 12.64718,15.228017 -0.301151,-0.920298 -2.098967,2.312677 3.050731,0.968325 -0.17807,-0.851397 c 3.009741,-1.516555 3.323883,-2.844541 3.738189,-4.179529 l -1.625338,-0.287531 c -0.383505,1.621257 -1.39579,2.448892 -2.585394,2.957753 z"/>
</svg>
