<svg xmlns="http://www.w3.org/2000/svg" width="22" height="22" version="1">
 <rect style="fill:#ffd38d" width="1" height="4" x="14.49" y="-7.28" rx=".131" ry=".178" transform="rotate(30)"/>
 <path style="fill:#4f4f4f" d="m 13.51803,1.9070705 c -0.24,-0.1385 -0.5445,-0.0569 -0.683,0.183 l -0.68,1.1773 a 9,9 0 0 0 -9.9493005,4.233 9,9 0 0 0 3.294,12.2939995 9,9 0 0 0 12.2940005,-3.294 9,9 0 0 0 -1.31,-10.7309995 l 0.681,-1.1794 c 0.138,-0.2399 0.057,-0.5445 -0.183,-0.683 l -3.464,-2 z"/>
 <path style="opacity:0.2" d="m 17.16003,4.5979705 -0.6755,1.1709 a 9,9 0 0 1 0.1735,0.1985 l 0.507,-0.877 c 0.092,-0.1593 0.079,-0.3436 -0.005,-0.4923 z M 1.0120295,12.15627 a 9,9 0 0 0 4.4873,8.138 9,9 0 0 0 12.2940005,-3.294 9,9 0 0 0 1.19,-4.653 9,9 0 0 1 -1.19,4.153 9,9 0 0 1 -12.2940005,3.294 9,9 0 0 1 -4.4878,-7.638 z"/>
 <path style="opacity:0.1;fill:#8b9cbe" d="m 13.32903,1.8430705 c -0.193,-0.0242 -0.39,0.0672 -0.494,0.2471 l -0.68,1.1768 a 9,9 0 0 0 -9.9493005,4.2334 9,9 0 0 0 -1.1933,4.6558995 9,9 0 0 1 1.1934,-4.1558995 9,9 0 0 1 9.9492005,-4.2334 l 0.679,-1.1768 c 0.139,-0.2399 0.443,-0.3221 0.683,-0.1836 l 3.465,2 c 0.0805,0.0466 0.135,0.11575 0.1775,0.19125 l 0.005,-0.0075 c 0.138,-0.2401 0.057,-0.5453 -0.183,-0.6838 l -3.463,-2.0001 c -0.06,-0.0346 -0.124,-0.0554 -0.189,-0.0635 z m 3.329,4.1243 -0.1735,0.3015 a 9,9 0 0 1 2.5,6.0779995 9,9 0 0 0 -2.3265,-6.3794995 z"/>
 <path style="opacity:0.2" d="M 9.4590135,6.500744 C 9.3374815,6.4998969 9.2276935,6.504074 9.1308885,6.512463 8.2199718,6.591037 7.0325186,7.3777314 6.0254201,8.5710567 5.0519191,9.7245785 4.7702924,10.646283 5.1855764,11.324964 c 0.4676748,0.764306 1.0085295,1.198934 1.7636719,1.417969 0.6460195,0.187378 0.8392055,0.301048 1.3925781,0.820312 0.8932281,0.838179 1.2020641,0.932469 3.0800786,0.9375 0.793275,0.0022 1.748559,-0.02861 2.123047,-0.06836 0.553689,-0.05877 0.786824,-0.128695 1.24414,-0.371094 1.21313,-0.643008 1.408084,-1.080075 1.050782,-2.339844 C 15.72844,11.328554 15.546273,10.497731 15.435577,9.8757455 15.324881,9.2537565 15.185364,8.6496783 15.12503,8.531994 14.856517,8.0082422 13.992532,7.5047688 12.503936,7.0026971 11.688119,6.7275384 10.309732,6.506604 9.4590135,6.500744 Z m -0.3125,2 c 0.699775,0.033143 0.8571795,0.7238625 0.8535165,1.3144545 0,0.8339695 -0.1073815,1.1557805 -0.4902345,1.4746085 -0.285947,0.23813 -0.9842608,0.287657 -1.1933598,0.08399 -0.2184945,-0.212834 -0.3164062,-0.610868 -0.3164062,-1.287114 0,-1.0184305 0.4095876,-1.585639 1.146484,-1.585939 z m 3.3886725,1.0000015 c 0.19464,-0.0027 0.40131,0.04647 0.650391,0.146484 0.257105,0.10324 0.544662,0.269015 0.640625,0.3691405 0.228876,0.238808 0.231936,0.778504 0.0059,1.376953 -0.341179,0.903179 -1.02133,1.266933 -1.955078,1.044922 -0.359314,-0.08543 -0.783007,-0.492094 -0.859375,-0.824219 -0.123401,-0.536656 0.426256,-1.6711345 0.94336,-1.9492185 0.197548,-0.106234 0.379579,-0.161352 0.574218,-0.164062 z M 5.9648733,13.500745 c -0.2522933,-0.0016 -0.5197436,0.0915 -0.7773438,0.28125 -0.3157198,0.232561 -0.9320483,1.041638 -1.0957031,1.439453 -0.3096905,0.752802 0.204804,1.914295 0.9765625,2.205078 0.2714705,0.102284 0.2757358,0.102321 0.5214844,-0.0293 0.2921603,-0.156485 0.434774,-0.36625 0.9414062,-1.384765 0.3422434,-0.688031 0.4342693,-0.946714 0.4589844,-1.296875 0.027963,-0.396162 0.00883,-0.466133 -0.1894532,-0.75 C 6.5866739,13.659011 6.2892502,13.502738 5.9648733,13.500745 Z m 2.8632812,2 c -0.7279588,0 -1.2471299,0.489048 -1.5839844,1.490234 -0.2919593,0.867767 -0.3235649,1.603332 -0.082031,1.861328 0.420714,0.449388 1.9776924,0.813105 2.4531244,0.572266 0.198469,-0.100541 0.261178,-0.249963 0.355469,-0.859375 0.09025,-0.583353 -0.03579,-1.885831 -0.230469,-2.388672 -0.173611,-0.448391 -0.478941,-0.675781 -0.912109,-0.675781 z m 3.6640635,0 c -0.06528,-5e-4 -0.142013,0.0029 -0.232422,0.0098 -0.539347,0.04117 -0.829561,0.225023 -1.089844,0.6875 -0.173527,0.308314 -0.190056,0.420167 -0.154297,1.044922 0.04462,0.779309 0.164609,1.180347 0.375,1.238281 0.225982,0.06222 1.241686,-0.03106 1.6875,-0.154297 0.548229,-0.151561 0.921875,-0.448041 0.921875,-0.732456 0,-0.303651 -0.789799,-1.746498 -1.068359,-1.951172 -0.139676,-0.102663 -0.243625,-0.140926 -0.439453,-0.142578 z"/>
 <path style="fill:#cbcbcb" d="m 9.4590135,6.0002705 c -0.121532,-8.471e-4 -0.23132,0.00333 -0.328125,0.011719 -0.9109167,0.078574 -2.0983699,0.8652684 -3.1054684,2.0585937 -0.973501,1.1535203 -1.2551277,2.0752248 -0.8398437,2.7539058 0.4676748,0.764306 1.0085295,1.198934 1.7636719,1.417969 0.6460195,0.187378 0.8392055,0.301048 1.3925781,0.820312 0.8932281,0.838179 1.2020641,0.932469 3.0800786,0.9375 0.793275,0.0022 1.748559,-0.02861 2.123047,-0.06836 0.553689,-0.05877 0.786824,-0.128695 1.24414,-0.371094 1.21313,-0.643008 1.408084,-1.080075 1.050782,-2.339844 C 15.72844,10.828079 15.546273,9.9972565 15.435577,9.3752705 15.324881,8.7532829 15.185364,8.1492048 15.12503,8.0315205 14.856517,7.5077687 13.992532,7.0042953 12.503936,6.5022236 11.688119,6.2270649 10.309732,6.0061305 9.4590135,6.0002705 Z m -0.3125,2 c 0.699775,0.033143 0.8571795,0.7238623 0.8535165,1.314453 0,0.8339695 -0.1073815,1.1557805 -0.4902345,1.4746085 -0.285947,0.23813 -0.9842608,0.287657 -1.1933598,0.08399 -0.2184945,-0.212834 -0.3164062,-0.610868 -0.3164062,-1.2871135 0,-1.0184291 0.4095876,-1.585638 1.146484,-1.585938 z m 3.3886725,1 c 0.19464,-0.00266 0.40131,0.04647 0.650391,0.146484 0.257105,0.10324 0.544662,0.269015 0.640625,0.369141 0.228876,0.238808 0.231936,0.7785035 0.0059,1.3769525 -0.341179,0.903179 -1.02133,1.266933 -1.955078,1.044922 -0.359314,-0.08543 -0.783007,-0.492094 -0.859375,-0.824219 -0.123401,-0.536656 0.426256,-1.6711345 0.94336,-1.9492185 0.197507,-0.106234 0.379538,-0.161352 0.574177,-0.164062 z M 5.9648733,13.00027 c -0.2522933,-0.0016 -0.5197436,0.0915 -0.7773438,0.28125 -0.3157198,0.232561 -0.9320483,1.041638 -1.0957031,1.439453 -0.3096905,0.752802 0.204804,1.914295 0.9765625,2.205078 0.2714705,0.102284 0.2757358,0.102321 0.5214844,-0.0293 0.2921603,-0.156485 0.434774,-0.36625 0.9414062,-1.384765 0.3422434,-0.688031 0.4342693,-0.946714 0.4589844,-1.296875 0.027963,-0.396162 0.00883,-0.466133 -0.1894532,-0.75 C 6.5866739,13.158536 6.2892502,13.002263 5.9648733,13.00027 Z m 2.8632812,2 c -0.7279588,0 -1.2471299,0.489048 -1.5839844,1.490234 -0.2919593,0.867767 -0.3235649,1.603332 -0.082031,1.861328 0.420714,0.449388 1.9776924,0.813105 2.4531244,0.572266 0.198469,-0.100541 0.261178,-0.249963 0.355469,-0.859375 0.09025,-0.583353 -0.03579,-1.885831 -0.230469,-2.388672 C 9.5666525,15.22766 9.2613225,15.00027 8.8281545,15.00027 Z m 3.6640635,0 c -0.06528,-5e-4 -0.142013,0.0029 -0.232422,0.0098 -0.539347,0.04117 -0.829561,0.225023 -1.089844,0.6875 -0.173527,0.308314 -0.190056,0.420167 -0.154297,1.044922 0.04462,0.779309 0.164609,1.180347 0.375,1.238281 0.225982,0.06222 1.241686,-0.03106 1.6875,-0.154297 0.548229,-0.151561 0.921875,-0.448041 0.921875,-0.732456 0,-0.303651 -0.789799,-1.746498 -1.068359,-1.951172 -0.139676,-0.102663 -0.243625,-0.140926 -0.439453,-0.142578 z"/>
 <path style="opacity:0.2;fill:#8b9cbe" d="m 9.4590135,6.0002705 c -0.121532,-8.471e-4 -0.23132,0.00333 -0.328125,0.011719 C 8.2199722,6.0905632 7.0325186,6.8772577 6.0254201,8.070583 5.2459875,8.994148 4.9171844,9.7663825 5.0273733,10.386989 5.1136473,9.8654045 5.4433112,9.2603365 6.0254201,8.570583 7.0325186,7.3772577 8.2199722,6.5905632 9.1308885,6.5119893 c 0.096805,-0.00839 0.206593,-0.012566 0.328125,-0.011719 0.8507185,0.00586 2.2291055,0.2267944 3.0449225,0.5019531 1.488596,0.5020717 2.352581,1.0055451 2.621094,1.5292969 0.06033,0.1176843 0.199851,0.721761 0.310547,1.34375 0.110696,0.6219855 0.292863,1.4528095 0.404297,1.8457025 0.07463,0.263112 0.108659,0.47312 0.130859,0.673828 0.06146,-0.305204 0.01103,-0.673575 -0.130859,-1.173828 C 15.72844,10.828079 15.546273,9.9972565 15.435577,9.3752705 15.324881,8.7532829 15.185364,8.1492048 15.12503,8.0315205 14.856517,7.5077687 13.992532,7.0042953 12.503936,6.5022236 11.688119,6.2270649 10.309732,6.0061305 9.4590135,6.0002705 Z m 0.527344,3.628906 c -0.02991,0.5932395 -0.149745,0.8879925 -0.476562,1.1601555 -0.285947,0.23813 -0.9842608,0.287657 -1.1933598,0.08399 -0.181906,-0.177194 -0.2631855,-0.526076 -0.2910156,-1.0136765 -0.00567,0.078741 -0.025391,0.1414515 -0.025391,0.2265625 0,0.676246 0.097912,1.074275 0.3164062,1.287109 0.2090991,0.203667 0.9074128,0.154145 1.1933598,-0.08399 0.382853,-0.318823 0.4902345,-0.640634 0.4902345,-1.4746035 3.78e-4,-0.06098 -0.0102,-0.123262 -0.01367,-0.185547 z m 3.9843755,0.7265625 c -0.02576,0.169874 -0.06716,0.347816 -0.138672,0.537109 -0.341179,0.903179 -1.02133,1.266933 -1.955078,1.044922 -0.345121,-0.08206 -0.742707,-0.459134 -0.841797,-0.783203 -0.03591,0.172678 -0.04649,0.333241 -0.01758,0.458984 0.07637,0.332125 0.500061,0.738789 0.859375,0.824219 0.933748,0.222011 1.613899,-0.141743 1.955078,-1.044922 0.150675,-0.398925 0.190624,-0.76212 0.138672,-1.037109 z M 5.9648733,13.00027 c -0.2522933,-0.0016 -0.5197436,0.0915 -0.7773438,0.28125 -0.3157198,0.232561 -0.9320483,1.041638 -1.0957031,1.439453 -0.09232,0.224414 -0.103599,0.484889 -0.064453,0.748047 0.015021,-0.08544 0.032333,-0.169968 0.064453,-0.248047 0.1636548,-0.397815 0.7799833,-1.206892 1.0957031,-1.439453 0.2576002,-0.18975 0.5250505,-0.28285 0.7773438,-0.28125 0.3243769,0.002 0.6218006,0.158269 0.8359374,0.464844 0.095718,0.137032 0.1467505,0.224167 0.1738282,0.322265 0.00242,-0.02357 0.013911,-0.04799 0.015625,-0.07226 0.027963,-0.396162 0.00883,-0.466133 -0.1894532,-0.75 C 6.5866739,13.158536 6.2892502,13.002263 5.9648733,13.00027 Z m 2.8632812,2 c -0.7279588,0 -1.2471299,0.489048 -1.5839844,1.490234 -0.2034963,0.604836 -0.272549,1.134702 -0.21875,1.494141 0.029359,-0.293624 0.095246,-0.62706 0.21875,-0.994141 0.3368545,-1.001186 0.8560256,-1.490234 1.5839844,-1.490234 0.433168,0 0.738498,0.22739 0.912109,0.675781 0.128285,0.331351 0.219667,1.002528 0.246094,1.59375 0.030131,-0.648516 -0.07756,-1.65846 -0.246094,-2.09375 C 9.5666525,15.22766 9.2613225,15.00027 8.8281545,15.00027 Z m 3.6640635,0 c -0.06528,-5e-4 -0.142013,0.0029 -0.232422,0.0098 -0.539347,0.04117 -0.829561,0.225023 -1.089844,0.6875 -0.153953,0.273535 -0.174374,0.440763 -0.154297,0.90039 0.02166,-0.142369 0.0684,-0.24778 0.154297,-0.40039 0.260283,-0.462477 0.550497,-0.64633 1.089844,-0.6875 0.09041,-0.0069 0.167142,-0.01027 0.232422,-0.0098 0.195828,0.0017 0.299777,0.03992 0.439453,0.142578 0.232471,0.17081 0.79599,1.169899 0.984375,1.683594 0.05188,-0.07642 0.08398,-0.154593 0.08398,-0.232422 0,-0.303651 -0.789799,-1.746498 -1.068359,-1.951172 -0.139676,-0.102663 -0.243626,-0.140926 -0.439453,-0.142578 z"/>
</svg>
