<svg xmlns="http://www.w3.org/2000/svg" width="22" height="22" version="1.1">
 <path style="opacity:0.2" d="M 2.9230769,0.50035 H 19.076923 C 19.588308,0.50035 20,0.9127 20,1.42675 V 17.6287 C 20,18.1428 19.588308,18.5 19.076923,18.5 H 8.5 l -2,2.5 -2,-2.5 H 2.9230769 C 2.4116923,18.5 2,18.1428 2,17.6287 V 1.42675 C 2,0.9127 2.4116923,0.50035 2.9230769,0.50035 Z"/>
 <path style="fill:#b2bfd9" d="M 2.9230769,0 H 19.076923 C 19.588308,0 20,0.41235 20,0.9264 v 16.20195 c 0,0.5141 -0.411692,0.8713 -0.923077,0.8713 H 8.5 l -2,2.5 -2,-2.5 H 2.9230769 C 2.4116923,17.99965 2,17.64245 2,17.12835 V 0.9264 C 2,0.41235 2.4116923,0 2.9230769,0 Z"/>
 <path style="opacity:0.1" d="M 4.3652344,3.4999 C 4.1671354,3.4999 4,3.6689875 4,3.8670875 V 5.1346656 C 4,5.3327656 4.1671354,5.4999 4.3652344,5.4999 H 5.6347656 C 5.8328646,5.4999 6,5.3327656 6,5.1346656 V 3.8670875 C 6,3.6689875 5.8328646,3.4999 5.6347656,3.4999 Z M 9,3.4999 a 1.0001,1.0001 0 1 0 0,2 h 8 a 1.0001,1.0001 0 1 0 0,-2 z m -4.6347656,10 C 4.1671354,13.4999 4,13.668986 4,13.867088 v 1.267578 c 0,0.1981 0.1671354,0.365234 0.3652344,0.365234 H 5.6347656 C 5.8328646,15.4999 6,15.332766 6,15.134666 V 13.867088 C 6,13.668986 5.8328646,13.4999 5.6347656,13.4999 Z M 9,13.4999 a 1.0001,1.0001 0 1 0 0,2 h 8 a 1.0001,1.0001 0 1 0 0,-2 z"/>
 <rect style="fill:#00c7c5" width="18" height="4" x="2" y="7"/>
 <path style="opacity:0.2" d="M 4.3652344,8.4999 C 4.1671354,8.4999 4,8.6689875 4,8.8670875 v 1.2675785 c 0,0.1981 0.1671354,0.365234 0.3652344,0.365234 H 5.6347656 C 5.8328646,10.4999 6,10.332766 6,10.134666 V 8.8670875 C 6,8.6689875 5.8328646,8.4999 5.6347656,8.4999 Z M 9,8.4999 a 1.0001,1.0001 0 1 0 0,2 h 8 a 1.0001,1.0001 0 1 0 0,-2 z"/>
 <path style="fill:#8b9cbe" d="M 4.3652345,8 C 4.1671355,8 4,8.168111 4,8.366211 V 9.634766 C 4,9.832866 4.1671355,10 4.3652345,10 h 1.269531 C 5.8328645,10 6,9.832866 6,9.634766 V 8.366211 C 6,8.168111 5.8328645,8 5.6347655,8 Z"/>
 <path style="opacity:0.2;fill:#8b9cbe" d="M 2.9228515,0 C 2.411467,0 2,0.4127078 2,0.9267578 v 0.5 C 2,0.9127078 2.411467,0.5 2.9228515,0.5 H 19.077148 C 19.588533,0.5 20,0.9127078 20,1.4267578 v -0.5 C 20,0.4127078 19.588533,0 19.077148,0 Z"/>
 <path style="fill:#8b9cbe;stroke:#8b9cbe;stroke-width:2;stroke-linecap:round" d="m 9,9 h 8"/>
 <path style="fill:none;stroke:#898989;stroke-width:2;stroke-linecap:round" d="m 9,4 h 8"/>
 <path style="fill:none;stroke:#898989;stroke-width:2;stroke-linecap:round" d="m 9,14 h 8"/>
 <path style="fill:#898989" d="M 4.3652345,3 C 4.1671355,3 4,3.168111 4,3.366211 V 4.6347655 C 4,4.8328655 4.1671355,5 4.3652345,5 h 1.269531 C 5.8328645,5 6,4.8328655 6,4.6347655 V 3.366211 C 6,3.168111 5.8328645,3 5.6347655,3 Z"/>
 <path style="fill:#898989" d="M 4.3652345,13 C 4.1671355,13 4,13.168111 4,13.366211 v 1.268555 C 4,14.832866 4.1671355,15 4.3652345,15 h 1.269531 C 5.8328645,15 6,14.832866 6,14.634766 V 13.366211 C 6,13.168111 5.8328645,13 5.6347655,13 Z"/>
</svg>
