<svg xmlns="http://www.w3.org/2000/svg" width="22" height="22" version="1.1">
 <path style="opacity:0.2" d="M 5.944336,1.5 A 0.9444019,0.9523428 0 0 0 5,2.4521485 V 20.547851 A 0.944409,0.95234995 0 0 0 5.944336,21.5 h 11.097656 4.013672 A 0.94443735,0.95237855 0 0 0 22,20.547851 V 16.5 H 18.694336 L 22,6.5 V 2.4521485 A 0.94444445,0.9523857 0 0 0 21.055664,1.5 Z"/>
 <path style="fill:#ca64ea" d="M 5.9444235,1.0000004 H 21.055484 c 0.521591,1e-7 0.944423,0.4263881 0.944423,0.9523643 V 6.1420375 L 20.887999,18.720498 c 1.2e-5,0.525984 -0.474392,0.726253 -0.944423,0.952385 l -2.758497,1.327116 H 5.9444655 C 5.4228435,20.999999 4.9999885,20.573579 5,20.047571 V 1.9523647 C 5,1.4263883 5.422833,1.0000002 5.9444235,1.0000004 Z"/>
 <path style="fill:#ae4bd5" d="M 17.041692,6.0000003 V 11 L 19.520846,13.282143 22,11 V 6.0000003 Z"/>
 <path style="fill:#9332bf" d="m 17.041692,11 v 5 L 19.520846,18.425 22,16 v -5 z"/>
 <path style="fill:#7719aa" d="m 17.041585,16 h 4.958308 v 4.047621 A 0.94443735,0.95237855 0 0 1 21.055456,21 h -4.013871 z"/>
 <path style="opacity:0.1" d="M 0.9166645,5.5 H 10.083349 A 0.91667125,0.91667125 0 0 1 11,6.416671 v 9.166658 A 0.9166644,0.9166644 0 0 1 10.083357,16.5 H 0.9166715 A 0.91667125,0.91667125 0 0 1 0,15.583329 V 6.416665 A 0.9166644,0.9166644 0 0 1 0.9166645,5.5 Z"/>
 <path style="fill:#7719aa" d="M 0.9166645,5 H 10.083349 A 0.91667125,0.91667125 0 0 1 11,5.916671 v 9.166658 A 0.9166644,0.9166644 0 0 1 10.083357,16 H 0.9166715 A 0.91667125,0.91667125 0 0 1 0,15.083329 V 5.916665 A 0.9166644,0.9166644 0 0 1 0.9166645,5 Z"/>
 <path style="fill:#8b9cbe" d="m 2,7 h 2.0639186 l 2.6835828,4.712141 c 0.1667488,0.203251 0.2918084,0.366763 0.3751802,0.490532 h 0.023817 C 7.1015474,11.894497 7.0404006,11.584182 7.0496669,11.274004 V 7 H 9 v 7 H 6.9380402 L 4.2926051,9.359511 C 4.1641924,9.20638 4.0507078,9.045572 3.9531564,8.878512 h -0.029762 c 0.038592,0.338796 0.033376,0.678998 0.026522,1.019152 V 14 H 2 Z"/>
 <rect style="opacity:0.1" width="5" height=".5" x="17" y="16"/>
 <rect style="opacity:0.1" width="5" height=".5" x="17" y="11"/>
 <rect style="opacity:0.1" width="5" height=".5" x="17" y="6"/>
 <path style="opacity:0.2;fill:#8b9cbe" d="M 5.944336,1 A 0.9444019,0.9523428 0 0 0 5,1.9521485 v 0.5 A 0.9444019,0.9523428 0 0 1 5.944336,1.5 H 21.055664 A 0.94444445,0.9523857 0 0 1 22,2.4521485 v -0.5 A 0.94444445,0.9523857 0 0 0 21.055664,1 Z"/>
</svg>
