<svg xmlns="http://www.w3.org/2000/svg" width="22" height="22" version="1">
 <rect style="opacity:0.2" width="20" height="20" x="1" y="1.5" rx="6" ry="6"/>
 <rect style="fill:#00539b" width="20" height="20" x="1" y="1" rx="6" ry="6"/>
 <path style="opacity:0.1;fill:#8b9cbe" d="M 7,1 C 3.676,1 1,3.676 1,7 v 0.5 c 0,-3.324 2.676,-6 6,-6 h 8 c 3.324,0 6,2.676 6,6 V 7 C 21,3.676 18.324,1 15,1 Z"/>
 <path style="opacity:0.2" d="m 8.0527344,5.5 -0.6835938,4 H 11.050781 L 11.25,7.75 13.8,11.5 10.25,15 10.410156,13.5 H 6.6835938 L 6,17.5 h 3.976562 c 3.993943,-0.183817 6.4508,-2.504773 6.939454,-5.705078 C 17.34677,8.9738234 16.188048,5.825307 11.728516,5.5 Z"/>
 <path style="fill:#ffcb05" d="M 8.0527344,5 7.3691406,9 H 11.050781 L 11.25,7.25 13.8,11 10.25,14.5 10.410156,13 H 6.6835938 L 6,17 h 3.976562 c 3.993943,-0.183817 6.4508,-2.504773 6.939454,-5.705078 C 17.34677,8.4738234 16.188048,5.325307 11.728516,5 Z"/>
 <path style="opacity:0.2;fill:#8b9cbe" d="M 8.0527344,5 7.3691406,9 h 0.085937 L 8.0527344,5.5 h 3.6757816 c 3.772993,0.2752264 5.168024,2.5735114 5.251953,4.982422 C 17.082217,7.899441 15.763311,5.294324 11.728516,5 Z M 13.597656,11.201172 10.310547,14.441406 10.25,15 13.800781,11.5 Z M 6.6835938,13 6,17 h 0.085937 l 0.5976563,-3.5 h 3.6738287 l 0.05273,-0.5 z"/>
</svg>
