<svg xmlns="http://www.w3.org/2000/svg" width="22" height="22" version="1">
 <rect style="opacity:0.2" width="20" height="20" x="1" y="1.5" rx="6" ry="6"/>
 <rect style="fill:#4c459c" width="20" height="20" x="1" y="1" rx="6" ry="6"/>
 <path style="opacity:0.1;fill:#8b9cbe" d="M 7,1 C 3.676,1 1,3.676 1,7 v 0.5 c 0,-3.324 2.676,-6 6,-6 h 8 c 3.324,0 6,2.676 6,6 V 7 C 21,3.676 18.324,1 15,1 Z"/>
 <path style="opacity:0.2" d="M 16.5,4.5 A 1.5,1.5 0 0 0 15,6 1.5,1.5 0 0 0 15.142578,6.6308594 L 12.429688,9.679688 C 12.134062,9.561113 11.818513,9.500126 11.5,9.5 10.178253,9.5018 9.086292,10.532148 9.007812,11.851562 l -3.7207026,0.53125 C 5.0974804,12.141065 4.8072468,11.99991 4.5,12 c -0.5522847,0 -1,0.447715 -1,1 0,0.552285 0.4477153,1 1,1 0.4082254,-3.2e-5 0.7754471,-0.248196 0.9277344,-0.626953 L 9.148438,12.841797 C 9.503762,13.835438 10.444738,14.498965 11.5,14.5 12.880712,14.5 14,13.380712 14,12 13.999431,11.51343 13.856886,11.037601 13.589844,10.630859 L 16.376953,7.4941406 A 1.5,1.5 0 0 0 16.5,7.5 1.5,1.5 0 0 0 18,6 1.5,1.5 0 0 0 16.5,4.5 Z M 8,5.5 a 1,1 0 0 0 -1,1 1,1 0 0 0 1,1 1,1 0 0 0 1,-1 1,1 0 0 0 -1,-1 z m 8.5,0 A 0.5,0.5 0 0 1 17,6 0.5,0.5 0 0 1 16.5,6.5 0.5,0.5 0 0 1 16,6 0.5,0.5 0 0 1 16.5,5.5 Z M 9.048828,7.5429688 8.4453125,7.9882812 8.8496094,8.5664062 9.453125,8.1191406 Z M 9.751953,8.6074219 9.148438,9.052734 9.681641,9.814453 10.285156,9.367187 Z M 11.5,10.5 c 0.828427,0 1.5,0.671573 1.5,1.5 0,0.828427 -0.671573,1.5 -1.5,1.5 -0.828427,0 -1.5,-0.671573 -1.5,-1.5 0,-0.828427 0.671573,-1.5 1.5,-1.5 z m -7,2 A 0.5,0.5 0 0 1 5,13 0.5,0.5 0 0 1 4.5,13.5 0.5,0.5 0 0 1 4,13 0.5,0.5 0 0 1 4.5,12.5 Z m 9.236328,1.205078 -0.53125,0.53125 0.685547,0.685547 0.53125,-0.53125 z m -4.076172,0.896484 -0.49414,1.236329 0.708984,0.248047 0.494141,-1.234376 z m 5.007813,0.03711 -0.529297,0.53125 0.791016,0.791016 0.53125,-0.53125 z M 16.25,15.5 A 1.25,1.25 0 0 0 15,16.75 1.25,1.25 0 0 0 16.25,18 1.25,1.25 0 0 0 17.5,16.75 1.25,1.25 0 0 0 16.25,15.5 Z M 9,16.5 a 1,1 0 0 0 -1,1 1,1 0 0 0 1,1 1,1 0 0 0 1,-1 1,1 0 0 0 -1,-1 z"/>
 <path style="fill:#8b9cbe" d="M 16.5,4 A 1.5,1.5 0 0 0 15,5.5 1.5,1.5 0 0 0 15.142578,6.1308594 L 12.429688,9.179688 C 12.134062,9.061113 11.818513,9.000126 11.5,9 10.178253,9.0018 9.086292,10.032148 9.007812,11.351562 l -3.7207026,0.53125 C 5.0974804,11.641065 4.8072468,11.49991 4.5,11.5 c -0.5522847,0 -1,0.447715 -1,1 0,0.552285 0.4477153,1 1,1 0.4082254,-3.2e-5 0.7754471,-0.248196 0.9277344,-0.626953 L 9.148438,12.341797 C 9.503762,13.335438 10.444738,13.998965 11.5,14 12.880712,14 14,12.880712 14,11.5 13.999431,11.01343 13.856886,10.537601 13.589844,10.130859 L 16.376953,6.9941406 A 1.5,1.5 0 0 0 16.5,7 1.5,1.5 0 0 0 18,5.5 1.5,1.5 0 0 0 16.5,4 Z M 8,5 A 1,1 0 0 0 7,6 1,1 0 0 0 8,7 1,1 0 0 0 9,6 1,1 0 0 0 8,5 Z m 8.5,0 A 0.5,0.5 0 0 1 17,5.5 0.5,0.5 0 0 1 16.5,6 0.5,0.5 0 0 1 16,5.5 0.5,0.5 0 0 1 16.5,5 Z M 9.048828,7.0429688 8.4453125,7.4882812 8.8496094,8.0664062 9.453125,7.6191406 Z M 9.751953,8.1074219 9.148438,8.5527344 9.681641,9.314453 10.285156,8.8671875 Z M 11.5,10 C 12.328427,10 13,10.671573 13,11.5 13,12.328427 12.328427,13 11.5,13 10.671573,13 10,12.328427 10,11.5 10,10.671573 10.671573,10 11.5,10 Z m -7,2 A 0.5,0.5 0 0 1 5,12.5 0.5,0.5 0 0 1 4.5,13 0.5,0.5 0 0 1 4,12.5 0.5,0.5 0 0 1 4.5,12 Z m 9.236328,1.205078 -0.53125,0.53125 0.685547,0.685547 0.53125,-0.53125 z m -4.076172,0.896484 -0.49414,1.236329 0.708984,0.248047 0.494141,-1.234376 z m 5.007813,0.03711 -0.529297,0.53125 0.791016,0.791016 0.53125,-0.53125 z M 16.25,15 A 1.25,1.25 0 0 0 15,16.25 1.25,1.25 0 0 0 16.25,17.5 1.25,1.25 0 0 0 17.5,16.25 1.25,1.25 0 0 0 16.25,15 Z M 9,16 a 1,1 0 0 0 -1,1 1,1 0 0 0 1,1 1,1 0 0 0 1,-1 1,1 0 0 0 -1,-1 z"/>
</svg>
