<svg xmlns="http://www.w3.org/2000/svg" height="22" width="22" version="1.1">
 <path style="opacity:.2" d="m11.017578 1.4997095c-0.145853-0.00261-0.29051 0.026724-0.423828 0.085937l-9 4c-0.3611503 0.160592-0.59384329 0.5188169-0.59375 0.9140629v10.000001c-0.00009289 0.395246 0.2326 0.75347 0.59375 0.914062l9 4c0.258632 0.114971 0.553868 0.114971 0.8125 0l9-4c0.36115-0.160592 0.593843-0.518816 0.59375-0.914062v-10.000001c0.000093-0.3952454-0.2326-0.75347-0.59375-0.9140621l-9-4c-0.12249-0.0544-0.254665-0.083625-0.388672-0.085937z"/>
 <path style="fill:#17191e" d="m11.017578 1c-0.145853-0.002607-0.29051 0.026724-0.423828 0.085937l-9 4c-0.3611503 0.1605921-0.59384329 0.518817-0.59375 0.914063v10c-0.00009289 0.395246 0.2326 0.75347 0.59375 0.914062l9 4c0.258632 0.114971 0.553868 0.114971 0.8125 0l9-4c0.36115-0.160592 0.593843-0.518816 0.59375-0.914062v-10c0.000093-0.3952458-0.2326-0.7534704-0.59375-0.9140625l-9-4c-0.12249-0.0544001-0.254665-0.0836247-0.388672-0.0859375z"/>
 <path style="fill:#8b9cbe;opacity:.1" d="m11.017578 1c-0.145853-0.002607-0.29051 0.0267245-0.423828 0.0859375l-9 4c-0.3611503 0.1605921-0.59384329 0.5188165-0.59375 0.9140625v0.5c-0.00009329-0.395246 0.2325997-0.7534705 0.59375-0.9140625l9-4c0.133318-0.059213 0.277975-0.0885475 0.423828-0.0859375 0.134007 0.0023124 0.266182 0.0315375 0.388672 0.0859375l9 4c0.36115 0.1605921 0.593843 0.5188167 0.59375 0.9140625v-0.5c0.000093-0.3952458-0.2326-0.7534704-0.59375-0.9140625l-9-4c-0.12249-0.0544-0.254665-0.083625-0.388672-0.0859375z"/>
 <path style="opacity:.2" d="m11.482422 4.4996267c-0.269243 0.0095-0.482563 0.2305896-0.482422 0.5v5.9999993c0.000172 0.189613 0.107574 0.362818 0.277344 0.447266l6 3c0.332219 0.165162 0.722283-0.076257 0.722656-0.447266v-5.9999993c-0.000172-0.1896133-0.107574-0.362818-0.277344-0.4472656l-6-3c-0.07444-0.037305-0.157014-0.055431-0.240234-0.052734z"/>
 <path style="fill:#5891d9" d="m11.482422 3.999813c-0.269243 0.0095-0.482563 0.2305896-0.482422 0.5v6c0.000172 0.189613 0.107574 0.362818 0.277344 0.447266l6 3c0.332219 0.165162 0.722283-0.076257 0.722656-0.447266v-6c-0.000172-0.1896133-0.107574-0.362818-0.277344-0.4472656l-6-3c-0.07444-0.037305-0.157014-0.055431-0.240234-0.052734z"/>
 <path style="opacity:.2" d="m8.482422 6.4998137c-0.2692429 0.0095-0.4825624 0.2305896-0.4824219 0.5v5.9999993c0.0001717 0.189613 0.1075737 0.362818 0.2773438 0.447266l6.0000001 3c0.332219 0.165162 0.722283-0.076257 0.722656-0.447266v-5.9999993c-0.000172-0.1896133-0.107574-0.362818-0.277344-0.4472656l-5.9999997-3c-0.0744388-0.0373047-0.1570147-0.0554311-0.2402343-0.0527344z"/>
 <path style="fill:#8ed599" d="m8.482422 6c-0.2692429 0.0095-0.4825624 0.2305896-0.4824219 0.5v6c0.0001717 0.189613 0.1075737 0.362818 0.2773438 0.447266l6.0000001 3c0.332219 0.165162 0.722283-0.076257 0.722656-0.447266v-6c-0.000172-0.1896133-0.107574-0.362818-0.277344-0.4472656l-5.9999997-3c-0.0744388-0.0373047-0.1570147-0.0554311-0.2402343-0.0527344z"/>
 <path style="opacity:.2" d="m4.4824219 8.4998137c-0.2692429 0.0095-0.4825624 0.2305896-0.4824219 0.5v5.9999993c0.0001717 0.189613 0.1075737 0.362818 0.2773438 0.447266l6.0000002 3c0.332219 0.165162 0.722283-0.07626 0.722656-0.447266v-6c-0.000172-0.189613-0.107574-0.362818-0.277344-0.447266l-5.9999998-2.9999989c-0.0744388-0.037305-0.1570147-0.055431-0.2402343-0.0527344z"/>
 <path style="fill:#8b9cbe" d="m8 12v0.5c0.0001717 0.189613 0.1075736 0.362818 0.2773438 0.447266l6.0000002 3c0.332219 0.165162 0.722283-0.076257 0.722656-0.447266v-1.5l-2-2h-5z"/>
 <path style="fill:#d75a86" d="m4.4824219 8c-0.2692429 0.0094974-0.4825624 0.2305896-0.4824219 0.5v6c0.0001717 0.189613 0.1075737 0.362818 0.2773438 0.447266l6.0000002 3c0.332219 0.165162 0.722283-0.076257 0.722656-0.447266v-6c-0.000172-0.189613-0.107574-0.362818-0.277344-0.447266l-5.9999998-2.9999996c-0.0744388-0.0373047-0.1570147-0.0554311-0.2402343-0.0527344z"/>
 <path style="fill:#8b9cbe;opacity:.2" d="m11.482422 4c-0.269243 0.0095-0.482563 0.2305896-0.482422 0.5v0.5c-0.000141-0.2694104 0.213179-0.4905 0.482422-0.5 0.08322-0.0026966 0.165794 0.0154294 0.240234 0.0527344l6 3c0.16977 0.0844476 0.277172 0.2576523 0.277344 0.4472656v-0.5c-0.000172-0.1896133-0.107574-0.362818-0.277344-0.4472656l-6-3c-0.07444-0.037305-0.157014-0.055431-0.240234-0.0527344z"/>
 <path style="fill:#8b9cbe;opacity:.2" d="m8.4824219 6c-0.2692429 0.0095-0.4825624 0.2305896-0.4824219 0.5v0.5c-0.0001405-0.2694104 0.213179-0.4905 0.4824219-0.5 0.0832196-0.0026967 0.1657955 0.0154297 0.2402343 0.0527344l5.9999998 3c0.16977 0.0844476 0.277172 0.2576523 0.277344 0.4472656v-0.5c-0.000172-0.1896133-0.107574-0.362818-0.277344-0.4472656l-5.9999998-3c-0.0744388-0.0373047-0.1570147-0.0554311-0.2402343-0.0527344z"/>
 <path style="fill:#8b9cbe;opacity:.2" d="m4.4824219 8c-0.2692429 0.0095-0.4825624 0.2305896-0.4824219 0.5v0.5c-0.0001405-0.2694104 0.213179-0.4905 0.4824219-0.5 0.0832196-0.0026966 0.1657955 0.0154294 0.2402343 0.0527344l5.9999998 2.9999996c0.16977 0.084448 0.277172 0.257653 0.277344 0.447266v-0.5c-0.000172-0.189613-0.107574-0.362818-0.277344-0.447266l-5.9999998-2.9999996c-0.0744388-0.037305-0.1570147-0.055431-0.2402343-0.0527344z"/>
 <path style="fill:#8b9cbe" d="m4 12v2.5c0.0001717 0.189613 0.1075736 0.362818 0.2773438 0.447266l5.9003902 2.949218c0.297198 0.184951 0.539261 0.103516 0.700287-0.068359l-4.878021-5.828125z"/>
 <path style="fill:#8b9cbe" d="m16 8s-1 0.2447034-1 1c0 0.4714045 0.577948 1 1 1 0.671364 0 1-0.5476695 1-0.5476695s-0.716592 0.022144-1-0.4523305c-0.259581-0.4345845 0-1 0-1z"/>
</svg>
