<svg xmlns="http://www.w3.org/2000/svg" width="22" height="22" version="1.1">
 <path style="fill:#5a72e3" d="M 4,1 C 3.446,1 3,1.446 3,2 v 18 c 0,0.554 0.446,1 1,1 h 14 c 0.554,0 1,-0.446 1,-1 V 2 C 19,1.446 18.554,1 18,1 Z"/>
 <path style="opacity:0.3" d="M 4,1 C 3.446,1 3,1.446 3,2 v 18 c 0,0.554 0.446,1 1,1 H 5.98925 V 1 h -1.989 z"/>
 <path style="opacity:0.1;fill:#8b9cbe" d="M 4,1 C 3.446,1 3,1.446 3,2 v 0.5 c 0,-0.554 0.446,-1 1,-1 h 14 c 0.554,0 1,0.446 1,1 V 2 C 19,1.446 18.554,1 18,1 Z"/>
 <path style="opacity:0.2" d="m 3,20 v 0.5 c 0,0.554 0.446,1 1,1 h 14 c 0.554,0 1,-0.446 1,-1 V 20 c 0,0.554 -0.446,1 -1,1 H 4 C 3.446,21 3,20.554 3,20 Z"/>
 <path style="opacity:0.2" d="m 14,6.5 v 10 h 2 v -10 z m -6,2 v 8 h 2 v -8 z m 3,3 v 5 h 2 v -5 z"/>
 <path style="fill:#8b9cbe" d="m 14,6 v 10 h 2 V 6 Z M 8,8 v 8 h 2 V 8 Z m 3,3 v 5 h 2 v -5 z"/>
</svg>
