<svg xmlns="http://www.w3.org/2000/svg" width="22" height="22" version="1">
 <rect fill="#b2bfd9" width="20" height="20" x="1" y="1" rx="1" ry="1"/>
 <path opacity=".1" d="m21 20v-18c0-0.554-0.446-1-1-1h-9v20h9c0.554 0 1-0.446 1-1z"/>
 <path fill="#fff" opacity=".2" d="m2 1c-0.554 0-1 0.446-1 1v0.5c0-0.554 0.446-1 1-1h18c0.554 0 1 0.446 1 1v-0.5c0-0.554-0.446-1-1-1h-18z"/>
 <path opacity=".2" d="m2 21.5c-0.554 0-1-0.446-1-1v-0.5c0 0.554 0.446 1 1 1h18c0.554 0 1-0.446 1-1v0.5c0 0.554-0.446 1-1 1h-18z"/>
 <path fill="#c2352a" d="m8.6 0c-0.6 0-0.6 0.51429-0.6 0.51429v8.4857l1.5-1 1.5 1v-8.4857c0-0.5143-0.6-0.5143-0.6-0.5143z"/>
</svg>
