<svg xmlns="http://www.w3.org/2000/svg" width="22" height="22" version="1.1">
 <path style="opacity:0.2" d="m 7.8051536,1.5 c -2.338826,0 -4.3005292,0.7590752 -4.3005293,3.0900915 -1e-7,1.086617 0.4151914,2.1972215 1.0919963,3.076396 0.2660575,0.2763675 0.249735,0.4481415 0.16815,0.7698325 -0.144962,0.52566 -0.359588,1.152935 -0.556263,1.614007 -1.3626079,1.311602 -1.6611118,3.634761 -0.4399272,5.141348 0.4820352,0.774543 0.3105377,1.903628 0.9649062,2.671428 0.6525425,0.917997 1.6424415,1.720799 2.79989,1.815514 C 8.3289156,20.782944 9.6557261,21.467915 11,21.5 c 1.344274,-0.03208 2.671084,-0.717056 3.466624,-1.821383 1.157447,-0.09472 2.147347,-0.897517 2.79989,-1.815514 0.654368,-0.7678 0.48287,-1.896885 0.964906,-2.671428 1.221185,-1.506587 0.92268,-3.829746 -0.439927,-5.141348 C 17.594818,9.589255 17.380191,8.96198 17.23523,8.43632 17.153644,8.114629 17.137322,7.942855 17.40338,7.6664875 18.080185,6.787313 18.495376,5.6767085 18.495376,4.5900915 18.495376,2.2590752 16.533673,1.5 14.194846,1.5 13.312656,1.5 12,2.2982002 11,2.2982002 10,2.2982002 8.6873436,1.5 7.8051536,1.5 Z"/>
 <path style="fill:#17191e" d="m 7.8051536,1 c -2.338826,0 -4.3005292,0.7590752 -4.3005293,3.0900915 -1e-7,1.086617 0.4151914,2.1972215 1.0919963,3.076396 0.2660575,0.2763675 0.249735,0.4481415 0.16815,0.7698325 -0.144962,0.52566 -0.359588,1.152935 -0.556263,1.614007 -1.3626079,1.311602 -1.6611118,3.634761 -0.4399272,5.141348 0.4820352,0.774543 0.3105377,1.903628 0.9649062,2.671428 0.6525425,0.917997 1.6424415,1.720799 2.79989,1.815514 C 8.3289156,20.282944 9.6557261,20.967915 11,21 c 1.344274,-0.03208 2.671084,-0.717056 3.466624,-1.821383 1.157447,-0.09472 2.147347,-0.897517 2.79989,-1.815514 0.654368,-0.7678 0.48287,-1.896885 0.964906,-2.671428 C 19.452605,13.185088 19.1541,10.861929 17.791493,9.550327 17.594818,9.089255 17.380191,8.46198 17.23523,7.93632 17.153644,7.614629 17.137322,7.442855 17.40338,7.1664875 18.080185,6.287313 18.495376,5.1767085 18.495376,4.0900915 18.495376,1.7590752 16.533673,1 14.194846,1 13.312656,1 12,1.7982002 11,1.7982002 10,1.7982002 8.6873436,1 7.8051536,1 Z"/>
 <path style="opacity:0.2" d="m 8.0703126,3.5004562 c 0.084006,0.104176 0.2016335,0.2055312 0.077148,0.3251953 -0.171576,-0.1090816 -0.3444465,-0.2173877 -0.751953,-0.2949218 0.091831,0.1042294 0.281123,0.2082706 0.1660155,0.3125 -0.215446,-0.083775 -0.453031,-0.144371 -0.716797,-0.1796875 0.126285,0.1057624 0.231449,0.2090958 0.1279295,0.2910156 -0.230551,-0.072207 -0.548029,-0.1697422 -0.858398,-0.085937 l 0.196289,0.2011717 c 0.02181,0.02694 -0.459594,0.02164 -0.777344,0.02637 0.115971,0.163996 0.2336965,0.32185 0.3027345,0.6035155 -0.031495,0.032485 -0.1884495,0.01444 -0.336914,0 0.152225,0.326289 0.4168,0.4092 0.4785155,0.548828 -0.092992,0.071705 -0.2222525,0.052651 -0.363281,0.0039 0.109602,0.2298905 0.339864,0.3876625 0.521484,0.574219 C 6.0898266,5.85981 6.0092756,5.878916 5.8193356,5.85592 5.9871246,6.0375025 6.1894166,6.2037135 6.4296871,6.35299 6.3871421,6.403041 6.2411956,6.4014 6.1054686,6.404748 6.3231036,6.6216225 6.6037031,6.733578 6.8662106,6.875451 6.7353496,6.966465 6.6412121,6.946037 6.5410151,6.944787 6.7266826,7.100083 7.0428591,7.180146 7.3359371,7.2738885 7.2801971,7.3620825 7.2236551,7.386824 7.1044916,7.411584 7.4146981,7.58636 7.8590591,7.505863 7.9843746,7.5951775 7.9541196,7.6830275 7.8688576,7.740802 7.7666011,7.788537 8.2660031,7.818057 9.6317396,7.769597 9.8935546,6.717248 9.3823146,6.145427 8.4499516,5.473973 6.8447261,4.6440055 8.0935391,5.0695475 9.2200276,5.636855 10.163085,6.417443 11.271765,5.89189 10.507687,4.566735 9.9667966,4.0404905 c -0.02742,0.138958 -0.05828,0.226047 -0.09375,0.251953 -0.176115,-0.192202 -0.320159,-0.3882893 -0.546875,-0.5732422 -7.5e-4,0.1086275 0.05392,0.2263095 -0.08105,0.3124997 C 9.1235821,3.8652275 8.9593631,3.7164066 8.7412111,3.5903 8.8462881,3.7747757 8.7586411,3.8312271 8.7021461,3.9076828 8.5355281,3.7622153 8.3775611,3.6145823 8.0703101,3.5004562 Z m 6.0654294,0 C 13.82849,3.6145823 13.670525,3.7622153 13.503906,3.9076828 13.447416,3.8312271 13.360744,3.7747756 13.465821,3.5903 13.247669,3.7164066 13.082473,3.8652275 12.960938,4.031706 12.825963,3.9455157 12.88062,3.8278338 12.879883,3.7192062 12.653168,3.9041592 12.5101,4.1002465 12.333985,4.2924485 12.29851,4.2665435 12.266683,4.1794535 12.239258,4.0404955 11.698368,4.56674 10.934288,5.891895 12.042969,6.417448 12.986027,5.63686 14.112515,5.0695525 15.361328,4.6440105 13.756103,5.473978 12.82374,6.145432 12.3125,6.717253 12.574315,7.7696 13.940051,7.818064 14.439453,7.788542 14.337197,7.740807 14.251934,7.683032 14.22168,7.5951825 14.346995,7.505868 14.791356,7.5863675 15.101562,7.411589 14.982399,7.386829 14.926833,7.362089 14.871094,7.2738935 15.164171,7.180151 15.479371,7.100088 15.665039,6.944792 c -0.100198,0.00125 -0.193358,0.02168 -0.324219,-0.069336 0.262508,-0.141873 0.542131,-0.2538285 0.759766,-0.470703 -0.135728,-0.00335 -0.281673,-0.0017 -0.324219,-0.051758 0.240271,-0.1492765 0.442563,-0.3154875 0.610352,-0.49707 -0.18994,0.022995 -0.269516,0.0039 -0.31543,-0.029295 0.181619,-0.1865565 0.410906,-0.3443285 0.520508,-0.574219 -0.141029,0.048745 -0.27029,0.067799 -0.363282,-0.0039 0.06172,-0.139628 0.32629,-0.222539 0.478516,-0.548828 -0.148464,0.01444 -0.305419,0.032485 -0.336914,0 0.06904,-0.2816655 0.186764,-0.4395195 0.302734,-0.6035155 -0.317749,-0.00475 -0.799153,5.5e-4 -0.777343,-0.02637 l 0.196289,-0.2011717 c -0.310369,-0.083805 -0.627848,0.01373 -0.858399,0.085937 -0.103519,-0.08192 0.0017,-0.1852532 0.12793,-0.2910156 -0.263766,0.035317 -0.501351,0.095913 -0.716797,0.1796875 -0.115107,-0.1042294 0.07419,-0.2082706 0.166016,-0.3125 -0.407507,0.077529 -0.579401,0.1858347 -0.750976,0.2949163 -0.124486,-0.1196641 -0.0078,-0.2210193 0.07617,-0.3251953 z M 11.078125,7.835417 c -0.885977,-0.02311 -1.7362459,0.6597625 -1.7382809,1.055664 -0.0024,0.481051 0.7012459,0.972849 1.7451169,0.985352 1.066007,0.0077 1.745587,-0.39419 1.749024,-0.8906255 0.0039,-0.56245 -0.969686,-1.1590795 -1.75586,-1.1503905 z M 8.4033206,8.170378 C 7.1731346,8.193343 6.2328631,9.046946 6.2763671,10.45944 6.3251971,11.078305 9.4931321,8.304506 8.9462891,8.21237 8.7607346,8.18095 8.5790611,8.1671 8.4033206,8.17038 Z m 5.1875004,0.046875 c -0.175742,-0.0033 -0.357415,0.01057 -0.542969,0.04199 -0.546843,0.092136 2.621091,2.866912 2.669921,2.248047 0.0435,-1.412494 -0.896767,-2.267076 -2.126952,-2.290039 z M 13.067383,9.940886 A 2.0387884,1.7260841 56.426594 0 0 12.16211,10.186003 2.0387884,1.7260841 56.426594 1 0 14.405274,13.5903 2.0387884,1.7260841 56.426594 0 0 13.067383,9.940886 Z m -3.9609369,0.09473 A 1.7260841,2.0387884 33.573406 0 0 7.7675781,13.68503 1.7260841,2.0387884 33.573406 1 0 10.011719,10.280734 1.7260841,2.0387884 33.573406 0 0 9.1064461,10.035616 Z m 6.8632799,1.053711 c -0.860265,-0.231162 -0.289716,3.568642 0.410157,3.256836 0.769844,-0.621034 1.017148,-2.439449 -0.410157,-3.256836 z m -9.9394524,0.04687 c -1.4273045,0.817387 -1.1800005,2.63678 -0.4101565,3.257814 0.6998735,0.311806 1.270422,-3.488975 0.4101565,-3.257814 z m 5.1503904,2.446289 a 1.9227955,1.7781355 0 0 0 -1.9794919,1.777344 1.9228515,1.7781873 0 0 0 3.8457029,0 1.9227955,1.7781355 0 0 0 -1.866211,-1.777344 z m 4.193359,0.66211 c -0.450571,0.01178 -0.987375,0.439316 -1.498046,1.017578 -0.595025,0.698956 -0.926273,1.973126 -0.492188,2.383789 0.415041,0.318981 1.528571,0.275097 2.351562,-0.870118 0.597604,-0.769157 0.397999,-2.053533 0.05664,-2.394531 -0.126769,-0.09834 -0.267778,-0.140644 -0.417968,-0.136718 z m -8.6318354,0.272461 c -0.1613655,-0.0069 -0.3116585,0.02637 -0.444336,0.107422 -0.354879,0.270862 -0.420485,1.192606 0.084961,2.098632 0.7494605,1.079725 1.804084,1.188476 2.2382815,0.925781 0.458954,-0.344117 0.208159,-1.512295 -0.341797,-2.176758 -0.4733475,-0.55081 -1.0530125,-0.934266 -1.5371095,-0.955077 z m 4.3906254,3.182617 c -0.76763,-0.01926 -1.9449599,0.308788 -1.9306639,0.728515 -0.01228,0.286272 0.9238329,1.111628 1.8789059,1.070313 0.922219,0.01595 1.875125,-0.80787 1.862305,-1.172852 -0.0021,-0.375852 -1.038089,-0.659786 -1.810547,-0.625976 z"/>
 <g transform="matrix(0.02362443,0,0,0.02369212,4.3073331,2.5312871)">
  <path style="fill:#75a928" d="m 107.39184,68.055583 c 67.94767,35.031357 107.44689,63.368967 129.08717,87.504467 -11.08235,44.41759 -68.89638,46.44464 -90.03559,45.19858 4.32842,-2.01474 7.93988,-4.42778 9.22051,-8.13574 -5.30449,-3.76981 -24.11289,-0.39719 -37.24363,-7.77416 5.04407,-1.04499 7.40348,-2.06302 9.76289,-5.78542 -12.40571,-3.9567 -25.76862,-7.36642 -33.627746,-13.92116 4.241253,0.0524 8.201156,0.9488 13.740366,-2.89271 -11.111694,-5.98819 -22.969108,-10.73351 -32.18139,-19.88738 5.745213,-0.14063 11.939452,-0.0568 13.740371,-2.16953 -10.17044,-6.30068 -18.751242,-13.30787 -25.853592,-20.97215 8.039979,0.97052 11.435284,0.13478 13.378782,-1.26556 -7.687795,-7.87419 -17.417559,-14.52319 -22.056911,-24.22644 5.969606,2.057484 11.431249,2.84506 15.36752,-0.180795 -2.612365,-5.893453 -13.805413,-9.369618 -20.248967,-23.141676 6.284359,0.609377 12.949606,1.371108 14.282753,0 C 61.802068,58.517346 56.796919,51.835885 51.887978,44.913906 65.338021,44.714177 85.715734,44.966253 84.792549,43.82914 l -8.31654,-8.497335 c 13.137617,-3.537241 26.580651,0.568164 36.339661,3.615887 4.38186,-3.457681 -0.0776,-7.82998 -5.42383,-12.294015 11.16496,1.490646 21.25382,4.057389 30.37345,7.593362 4.87238,-4.399329 -3.16389,-8.798658 -7.05098,-13.197987 17.24936,3.272568 24.55716,7.87068 31.81981,12.47481 5.26935,-5.050799 0.30166,-9.343299 -3.2543,-13.740371 13.00566,4.817048 19.70478,11.035551 26.75756,17.175463 2.39119,-3.227053 6.07494,-5.592408 1.62715,-13.378781 9.23416,5.322725 16.18926,11.59506 21.33374,18.621817 5.71336,-3.637941 3.40387,-8.613023 3.43509,-13.197987 9.59665,7.806516 15.68687,16.11395 23.14168,24.226443 1.50169,-1.093437 2.81661,-4.80171 3.97747,-10.666867 22.89539,22.211815 55.24591,78.158241 8.31654,100.340861 C 207.95028,109.95728 160.25292,86.016909 107.39184,68.055583 Z"/>
  <path style="fill:#75a928" d="M 467.92487,68.055583 C 399.9772,103.08694 360.47798,131.42455 338.8377,155.56005 c 11.08235,44.41759 68.89638,46.44464 90.03559,45.19858 -4.32842,-2.01474 -7.93988,-4.42778 -9.22051,-8.13574 5.30449,-3.76981 24.11289,-0.39719 37.24363,-7.77416 -5.04407,-1.04499 -7.40348,-2.06302 -9.76289,-5.78542 12.40571,-3.9567 25.76862,-7.36642 33.62775,-13.92116 -4.24126,0.0524 -8.20116,0.9488 -13.74037,-2.89271 11.11169,-5.98819 22.96911,-10.73351 32.18139,-19.88738 -5.74521,-0.14063 -11.93945,-0.0568 -13.74037,-2.16953 10.17044,-6.30068 18.75124,-13.30787 25.85359,-20.97215 -8.03998,0.97052 -11.43528,0.13478 -13.37878,-1.26556 7.68779,-7.87419 17.41756,-14.52319 22.05691,-24.22644 -5.96961,2.057484 -11.43125,2.84506 -15.36752,-0.180795 2.61237,-5.893453 13.80541,-9.369618 20.24897,-23.141676 -6.28436,0.609377 -12.94961,1.371108 -14.28276,0 2.92231,-11.888563 7.92746,-18.570024 12.8364,-25.492003 -13.45004,-0.199729 -33.82775,0.05235 -32.90457,-1.084766 l 8.31654,-8.497335 c -13.13762,-3.537241 -26.58065,0.568164 -36.33966,3.615887 -4.38186,-3.457681 0.0776,-7.82998 5.42383,-12.294015 -11.16496,1.490646 -21.25382,4.057389 -30.37345,7.593362 -4.87238,-4.399329 3.16389,-8.798658 7.05098,-13.197987 -17.24936,3.272568 -24.55716,7.87068 -31.81981,12.47481 -5.26935,-5.050799 -0.30166,-9.343299 3.2543,-13.740371 -13.00566,4.817048 -19.70478,11.035551 -26.75756,17.175463 -2.39119,-3.227053 -6.07494,-5.592408 -1.62715,-13.378781 -9.23416,5.322725 -16.18926,11.59506 -21.33374,18.621817 -5.71336,-3.637941 -3.40387,-8.613023 -3.43509,-13.197987 -9.59665,7.806516 -15.68687,16.11395 -23.14168,24.226443 -1.50169,-1.093437 -2.81661,-4.80171 -3.97747,-10.666867 -22.89539,22.211815 -55.24591,78.158241 -8.31654,100.340861 39.91877,-32.94716 87.61613,-56.887531 140.47721,-74.848857 z"/>
  <path style="fill:#bc1142" transform="matrix(1.131107,0,0,1.1280497,-43.139135,-68.310983)" d="m 365.2046,521.84937 a 71.956155,66.532319 0 1 1 -143.91231,0 71.956155,66.532319 0 1 1 143.91231,0 z"/>
  <path style="fill:#bc1142" transform="matrix(0.76741684,-1.1613112,2.171115,1.4224368,-560.88858,217.68859)" d="m 262.84091,276.64774 a 61.875,28.125 0 1 1 -123.75,0 61.875,28.125 0 1 1 123.75,0 z"/>
  <path style="fill:#bc1142" transform="matrix(-0.76741684,-1.1613112,-2.171115,1.4224368,1134.8288,213.68859)" d="m 262.84091,276.64774 a 61.875,28.125 0 1 1 -123.75,0 61.875,28.125 0 1 1 123.75,0 z"/>
  <path style="fill:#bc1142" d="M 72.910253,342.0878 C 109.32447,332.33088 85.201845,492.72431 55.576871,479.56357 22.990103,453.35089 12.493801,376.58814 72.910253,342.0878 Z"/>
  <path style="fill:#bc1142" d="m 493.67828,340.0878 c -36.41422,-9.75692 -12.2916,150.63651 17.33338,137.47577 32.58677,-26.21268 43.08307,-102.97543 -17.33338,-137.47577 z"/>
  <path style="fill:#bc1142" d="m 369.97158,220.6534 c 62.83486,-10.61013 115.11594,26.72229 113.01138,94.85796 -2.06693,26.12112 -136.15872,-90.96907 -113.01138,-94.85796 z"/>
  <path style="fill:#bc1142" d="M 196.35975,218.6534 C 133.52489,208.04327 81.24381,245.37569 83.34837,313.51136 85.4153,339.63248 219.50709,222.54229 196.35975,218.6534 Z"/>
  <path style="fill:#bc1142" d="m 286.61932,202.75568 c -37.50259,-0.97548 -73.49548,27.83418 -73.58158,44.54443 -0.10462,20.30426 29.6512,41.09266 73.83726,41.62035 45.12305,0.32321 73.91561,-16.64049 74.0611,-37.59409 0.16484,-23.73996 -41.03879,-48.93744 -74.31678,-48.57069 z"/>
  <path style="fill:#bc1142" d="m 288.90937,619.11675 c 32.69744,-1.42711 76.57083,10.53196 76.6568,26.39598 0.5427,15.4052 -39.78969,50.21055 -78.82634,49.53765 -40.42729,1.74391 -80.06908,-33.11559 -79.54951,-45.19859 -0.60506,-17.71593 49.226,-31.54796 81.71905,-30.73504 z"/>
  <path style="fill:#bc1142" d="m 168.13874,525.10369 c 23.2791,28.04573 33.89066,77.31899 14.46355,91.84353 -18.37917,11.08784 -63.01228,6.52162 -94.736237,-39.05157 -21.395052,-38.24168 -18.637584,-77.15663 -3.615887,-88.58924 22.464424,-13.68429 57.173424,4.79902 83.888574,35.79728 z"/>
  <path style="fill:#bc1142" d="m 405.0209,516.21177 c -25.18682,29.50165 -39.21227,83.30951 -20.83785,100.6428 17.56828,13.46361 64.7292,11.58162 99.56566,-36.75574 25.29599,-32.46471 16.82013,-86.68225 2.37077,-101.07511 -21.46408,-16.60213 -52.27691,4.64489 -81.09858,37.18805 z"/>
 </g>
 <path style="opacity:0.2;fill:#8b9cbe" d="M 8.0703126,3 C 8.1543186,3.1041759 8.2719461,3.2055312 8.1474611,3.3251953 7.9758851,3.2161137 7.8030146,3.1078075 7.3955081,3.0302734 7.4873386,3.1345029 7.6766311,3.238544 7.5615236,3.3427734 7.3460776,3.2589987 7.1084926,3.1984025 6.8447266,3.1630859 6.9710116,3.2688484 7.0761761,3.3721817 6.9726561,3.4541015 6.7421051,3.3818945 6.4246271,3.2843593 6.1142581,3.368164 l 0.196289,0.2011719 c 0.02181,0.026941 -0.459594,0.021637 -0.777344,0.026367 0.09975,0.1410581 0.198307,0.2824055 0.268555,0.4970706 0.264593,-0.00175 0.524919,-0.0035 0.508789,-0.023435 L 6.1142581,3.868164 c 0.310369,-0.083805 0.627847,0.01373 0.858398,0.085937 0.10352,-0.08192 -0.00165,-0.1852531 -0.1279295,-0.2910156 0.263766,0.035317 0.501351,0.095913 0.716797,0.1796875 C 7.6766311,3.738544 7.4873386,3.6345029 7.3955081,3.5302734 7.8030146,3.6078076 7.9758851,3.7161137 8.1474611,3.8251953 8.2719461,3.7055312 8.1543186,3.6041759 8.0703126,3.5 c 0.307251,0.1141261 0.465218,0.261759 0.631836,0.4072265 0.056495,-0.076456 0.1441395,-0.1329071 0.039065,-0.3173828 0.218152,0.1261067 0.3823705,0.2749333 0.5039065,0.4414063 0.134975,-0.08619 0.0803,-0.2038725 0.08105,-0.3125 0.226715,0.1849529 0.370759,0.38104 0.546875,0.573242 0.03547,-0.025905 0.06633,-0.112995 0.09375,-0.251953 C 10.2553,4.3207325 10.598849,4.828586 10.696287,5.321289 10.857506,4.7107655 10.356176,3.9188718 9.9668001,3.540039 9.9393751,3.678997 9.9085251,3.7660862 9.8730501,3.7919922 9.6969321,3.59979 9.5528881,3.4037029 9.3261721,3.21875 c -7.5e-4,0.1086275 0.05392,0.2263095 -0.08105,0.3125 -0.12154,-0.1664787 -0.285759,-0.3152996 -0.503911,-0.4414063 0.105077,0.1844757 0.01743,0.2409272 -0.039065,0.3173828 C 8.5355306,3.261759 8.3775636,3.1141261 8.0703126,3 Z M 14.135742,3 C 13.82849,3.1141261 13.670525,3.261759 13.503906,3.4072265 13.447416,3.3307709 13.360744,3.2743194 13.465821,3.0898437 13.247669,3.2159504 13.082473,3.3647713 12.960938,3.53125 12.825963,3.4450595 12.88062,3.3273775 12.879883,3.21875 12.653168,3.4037029 12.5101,3.59979 12.333985,3.7919922 c -0.03548,-0.025906 -0.0673,-0.1129951 -0.09473,-0.2519532 -0.389376,0.3788328 -0.890707,1.1707265 -0.729492,1.78125 0.09744,-0.492703 0.440987,-1.0005565 0.729492,-1.28125 0.02743,0.138958 0.05925,0.226048 0.09473,0.251953 0.176115,-0.192202 0.319183,-0.388289 0.545898,-0.573242 7.5e-4,0.1086275 -0.05392,0.2263098 0.08106,0.3125 0.121535,-0.1664785 0.286731,-0.3152996 0.504883,-0.4414063 -0.105077,0.1844757 -0.0184,0.2409272 0.03809,0.3173828 C 13.670525,3.761759 13.82849,3.6141261 14.135742,3.5 c -0.08401,0.1041759 -0.200657,0.2055312 -0.07617,0.3251953 0.171575,-0.1090816 0.343469,-0.2173933 0.750976,-0.2949219 -0.09183,0.1042295 -0.281123,0.2082706 -0.166016,0.3125 0.215446,-0.083775 0.453031,-0.1443709 0.716797,-0.1796875 -0.126279,0.1057625 -0.231449,0.2090958 -0.12793,0.2910156 0.230551,-0.072207 0.54803,-0.1697422 0.858399,-0.085937 l -0.196289,0.201172 c -0.01613,0.01991 0.244196,0.021675 0.508789,0.023435 0.07025,-0.2146649 0.168804,-0.3560123 0.268554,-0.4970704 -0.317749,-0.00473 -0.799153,5.75e-4 -0.777343,-0.026367 l 0.196289,-0.2011719 c -0.310369,-0.083805 -0.627848,0.013731 -0.858399,0.085937 -0.103519,-0.08192 0.0017,-0.1852532 0.12793,-0.2910156 -0.263766,0.035316 -0.501351,0.095913 -0.716797,0.1796875 -0.115107,-0.1042294 0.07419,-0.2082706 0.166016,-0.3125 C 14.40304,3.1078076 14.231146,3.2161137 14.059571,3.3251953 13.935085,3.2055312 14.051735,3.1041759 14.135742,3 Z M 5.4990236,4.199219 c 0.081731,0.1751875 0.194273,0.279034 0.291992,0.3603515 -0.051006,-0.143803 -0.1161765,-0.251395 -0.18457,-0.3515625 -0.036535,-0.00325 -0.069796,-0.00513 -0.107422,-0.00879 z m 11.2080074,0 c -0.03763,0.00365 -0.07089,0.00554 -0.107422,0.00879 -0.06839,0.1001675 -0.133564,0.2077595 -0.18457,0.3515625 C 16.512758,4.478254 16.6253,4.3744075 16.707031,4.19922 Z M 6.8447266,4.6435545 C 8.3206101,5.406647 9.2092191,6.0314055 9.7431641,6.5722655 9.8083441,6.4688185 9.8601771,6.350958 9.8935551,6.216797 9.8788251,6.200322 9.8552801,6.181682 9.8398441,6.165039 8.9663001,5.513009 7.9542361,5.021628 6.8447266,4.6435545 Z m 8.5166014,0 C 14.251819,5.021628 13.239755,5.513009 12.366211,6.165039 c -0.01544,0.016645 -0.03898,0.03528 -0.05371,0.051758 0.03338,0.134161 0.08521,0.2520215 0.150391,0.3554685 0.533945,-0.54086 1.422554,-1.1656185 2.898436,-1.928711 z M 11.078125,7.334961 c -0.885977,-0.02311 -1.7362459,0.6597625 -1.7382809,1.055664 -4.69e-4,0.091914 0.03252,0.183181 0.08106,0.272461 0.224789,-0.384794 0.9250179,-0.847224 1.6572259,-0.828125 0.667064,-0.00737 1.463159,0.421939 1.688477,0.895508 0.03939,-0.078435 0.06679,-0.159426 0.06738,-0.2451175 0.0039,-0.56245 -0.969686,-1.1590795 -1.75586,-1.1503905 z M 8.7841796,7.691406 c -0.395062,0.1018975 -0.7934225,0.10993 -1.017578,0.09668 0.018415,-0.00859 0.03174,-0.01993 0.04883,-0.029295 -0.926089,0.2449805 -1.5752555,1.025068 -1.5390625,2.200196 0.0018,0.02263 0.015595,0.03205 0.02539,0.0459 0.150564,-1.138091 1.010217,-1.8145885 2.1015625,-1.8349615 0.117799,-0.0022 0.238815,0.00718 0.361328,0.02051 C 8.9865891,7.9261675 9.0833151,7.735007 8.9462901,7.71192 8.8916606,7.70267 8.8380851,7.69763 8.7841806,7.69141 Z m 4.7451174,0.027345 c -0.156719,6e-4 -0.317224,0.01223 -0.481445,0.04004 -0.136868,0.02306 -0.04074,0.214624 0.180664,0.4785155 0.122843,-0.013405 0.244198,-0.022725 0.362305,-0.02051 1.091344,0.02037 1.950998,0.697673 2.101562,1.8359375 0.0098,-0.01385 0.0236,-0.02326 0.02539,-0.0459 0.03717,-1.2070505 -0.646635,-2.00223 -1.613281,-2.223633 -0.177534,-0.00526 -0.362236,-0.018815 -0.575195,-0.064453 z m -0.461914,1.72168 a 2.0387884,1.7260841 56.426594 0 0 -0.553711,0.07715 c -0.112533,0.0826 -0.249633,0.156095 -0.415039,0.212891 a 2.0387884,1.7260841 56.426594 0 0 -0.651367,1.625 2.0387884,1.7260841 56.426594 0 1 0.714844,-1.169922 2.0387884,1.7260841 56.426594 0 1 0.905273,-0.245117 2.0387884,1.7260841 56.426594 0 1 2.02539,1.995117 2.0387884,1.7260841 56.426594 0 0 -2.02539,-2.495117 z m -3.8847659,0.09375 a 1.7260841,2.0387884 33.573406 0 0 -0.07617,10e-4 1.7260841,2.0387884 33.573406 0 0 -2.026368,2.49707 1.7260841,2.0387884 33.573406 0 1 2.026368,-1.99707 1.7260841,2.0387884 33.573406 0 1 0.9052729,0.245117 1.7260841,2.0387884 33.573406 0 1 0.700195,1.170899 A 1.7260841,2.0387884 33.573406 0 0 10.01172,9.780298 1.7260841,2.0387884 33.573406 0 0 9.1826181,9.534204 Z m 6.7871089,1.054687 c -0.347409,-0.09335 -0.454464,0.474995 -0.420898,1.160157 0.03611,-0.434254 0.163577,-0.729301 0.420898,-0.660157 0.629919,0.360741 0.932184,0.916801 1.008789,1.478516 0.06635,-0.713059 -0.189499,-1.509326 -1.008789,-1.978516 z m -9.9394524,0.04687 c -0.81907,0.469064 -1.074943,1.265328 -1.008789,1.978516 0.076822,-0.561597 0.3792335,-1.117983 1.008789,-1.478516 0.2573635,-0.06916 0.3848055,0.226638 0.4208985,0.661133 0.033565,-0.685352 -0.073489,-1.254485 -0.4208985,-1.161133 z m 5.1503904,2.446289 a 1.9227955,1.7781355 0 0 0 -1.9794919,1.777344 1.9228515,1.7781873 0 0 0 0.02149,0.25 1.9227955,1.7781355 0 0 1 1.9580079,-1.527344 1.9227955,1.7781355 0 0 1 1.845703,1.533203 1.9228515,1.7781873 0 0 0 0.02051,-0.255859 1.9227955,1.7781355 0 0 0 -1.866211,-1.777344 z m 4.193359,0.66211 c -0.450571,0.01178 -0.987375,0.439316 -1.498046,1.017578 -0.466957,0.548518 -0.765389,1.446136 -0.665039,2.007812 0.07096,-0.510364 0.321271,-1.104 0.665039,-1.507812 0.510671,-0.578263 1.047475,-1.005799 1.498046,-1.017578 0.150191,-0.0039 0.2912,0.03838 0.417969,0.136719 0.153735,0.153573 0.274188,0.502251 0.310547,0.905273 0.06203,-0.59979 -0.0952,-1.190158 -0.310547,-1.405273 -0.126769,-0.09833 -0.267778,-0.140645 -0.417969,-0.136719 z m -8.6318354,0.272461 c -0.1613655,-0.0069 -0.3116585,0.02637 -0.444336,0.107422 -0.212428,0.162136 -0.318005,0.559321 -0.2626955,1.044921 0.036865,-0.249481 0.129616,-0.443348 0.2626955,-0.544921 0.1326775,-0.08105 0.2829705,-0.114357 0.444336,-0.107422 0.484097,0.02081 1.063762,0.404267 1.5371095,0.955078 0.2937725,0.354939 0.497154,0.851973 0.557617,1.291992 C 8.9380936,16.25907 8.6938006,15.472488 8.2792971,14.971681 7.8059496,14.42087 7.2262846,14.037414 6.7421876,14.016603 Z m 4.3906254,3.182617 c -0.76763,-0.01926 -1.9449599,0.308788 -1.9306639,0.728515 -0.0028,0.06472 0.0484,0.159115 0.131836,0.262696 0.318988,-0.298055 1.1849909,-0.506613 1.7988279,-0.491211 0.617742,-0.02704 1.395275,0.151157 1.686523,0.415039 0.07701,-0.108313 0.126787,-0.210385 0.124024,-0.289063 -0.0021,-0.375851 -1.038089,-0.659786 -1.810547,-0.625976 z"/>
 <path style="opacity:0.1;fill:#8b9cbe" d="M 7.8046876,1 C 5.4658616,1 3.504883,1.7588274 3.5048829,4.089844 c 0,0.090015 0.00708,0.1803075 0.012696,0.2705075 C 3.6455209,2.2121881 5.5459421,1.5 7.8046876,1.5 8.6868776,1.5 10,2.2978515 11,2.2978515 12,2.2978515 13.313123,1.5 14.195313,1.5 c 2.258745,0 4.159166,0.7121881 4.287109,2.8603515 0.0056,-0.0902 0.0127,-0.180492 0.0127,-0.2705075 C 18.495117,1.7588274 16.534139,1 14.195313,1 13.313123,1 12,1.7978515 11,1.7978515 10,1.7978515 8.6868776,1 7.8046876,1 Z m -3.036133,6.916992 c -0.00175,0.00705 -0.0021,0.012335 -0.0039,0.01953 -0.144962,0.52566 -0.358989,1.153185 -0.555664,1.614258 -0.8423808,0.810848 -1.2768752,2.008038 -1.1982423,3.160156 0.057727,-0.989495 0.477326,-1.966226 1.1982423,-2.660156 0.196675,-0.461073 0.410702,-1.088598 0.555664,-1.614258 0.05439,-0.2144605 0.071859,-0.3629195 0.0039,-0.5195315 z m 12.4628904,0 c -0.06795,0.156612 -0.05048,0.305071 0.0039,0.5195315 0.144962,0.52566 0.35899,1.1531855 0.555664,1.6142575 0.720916,0.693931 1.140516,1.670662 1.198243,2.660157 0.07863,-1.152119 -0.355862,-2.349309 -1.198243,-3.160157 -0.196674,-0.461072 -0.410702,-1.0885975 -0.555664,-1.6142575 -0.0018,-0.00719 -0.0022,-0.01248 -0.0039,-0.01953 z"/>
</svg>
