<svg xmlns="http://www.w3.org/2000/svg" width="22" height="22" version="1.1">
 <circle style="opacity:0.2" cx="10.5" cy="11" r="10.5"/>
 <circle style="fill:#4f4f4f" cx="10.5" cy="10.5" r="10.5"/>
 <path style="opacity:0.2" d="M 10.5,2.5 A 1.5,1.5 0 0 0 9,4 1.5,1.5 0 0 0 10.5,5.5 1.5,1.5 0 0 0 12,4 1.5,1.5 0 0 0 10.5,2.5 Z M 6.964844,3.4384765 A 1.5,1.5 0 0 0 6.25,3.638672 1.5,1.5 0 0 0 5.701172,5.6875 1.5,1.5 0 0 0 7.75,6.2373045 1.5,1.5 0 0 0 8.298828,4.1875 1.5,1.5 0 0 0 6.964844,3.4384765 Z m 6.964844,9.75e-4 A 1.5,1.5 0 0 0 12.701172,4.1875 1.5,1.5 0 0 0 13.25,6.2373045 1.5,1.5 0 0 0 15.298828,5.6875 1.5,1.5 0 0 0 14.75,3.638672 1.5,1.5 0 0 0 13.929688,3.4394531 Z M 16.526367,6 A 1.5,1.5 0 0 0 15.8125,6.201172 1.5,1.5 0 0 0 15.262695,8.25 1.5,1.5 0 0 0 17.3125,8.798828 1.5,1.5 0 0 0 17.861328,6.75 1.5,1.5 0 0 0 16.526367,6 Z M 4.3671875,6.00195 A 1.5,1.5 0 0 0 3.1386719,6.75 1.5,1.5 0 0 0 3.6875,8.798828 1.5,1.5 0 0 0 5.7373045,8.25 1.5,1.5 0 0 0 5.1875,6.201172 1.5,1.5 0 0 0 4.3671875,6.001953 Z M 3.5,9.5 A 1.5,1.5 0 0 0 2,11 1.5,1.5 0 0 0 3.5,12.5 1.5,1.5 0 0 0 5,11 1.5,1.5 0 0 0 3.5,9.5 Z m 14,0 A 1.5,1.5 0 0 0 16,11 1.5,1.5 0 0 0 17.5,12.5 1.5,1.5 0 0 0 19,11 1.5,1.5 0 0 0 17.5,9.5 Z M 4.402344,13 A 1.5,1.5 0 0 0 3.6875,13.201172 1.5,1.5 0 0 0 3.1386719,15.25 1.5,1.5 0 0 0 5.1875,15.798828 1.5,1.5 0 0 0 5.7373045,13.75 1.5,1.5 0 0 0 4.402344,13 Z m 12.088867,0.002 A 1.5,1.5 0 0 0 15.262695,13.75 1.5,1.5 0 0 0 15.8125,15.798828 1.5,1.5 0 0 0 17.861328,15.25 1.5,1.5 0 0 0 17.3125,13.201172 1.5,1.5 0 0 0 16.491211,13.001953 Z m -2.526367,2.5605 A 1.5,1.5 0 0 0 13.25,15.762695 1.5,1.5 0 0 0 12.701172,17.8125 1.5,1.5 0 0 0 14.75,18.361328 1.5,1.5 0 0 0 15.298828,16.3125 a 1.5,1.5 0 0 0 -1.333984,-0.75 z m -7.0351565,10e-4 A 1.5,1.5 0 0 0 5.701172,16.3125 1.5,1.5 0 0 0 6.25,18.361328 1.5,1.5 0 0 0 8.298828,17.8125 1.5,1.5 0 0 0 7.75,15.762695 1.5,1.5 0 0 0 6.9296875,15.563476 Z M 10.5,16.5 A 1.5,1.5 0 0 0 9,18 1.5,1.5 0 0 0 10.5,19.5 1.5,1.5 0 0 0 12,18 1.5,1.5 0 0 0 10.5,16.5 Z"/>
 <path style="fill:#8b9cbe" d="M 10.5,2 A 1.5,1.5 0 0 0 9,3.5 1.5,1.5 0 0 0 10.5,5 1.5,1.5 0 0 0 12,3.5 1.5,1.5 0 0 0 10.5,2 Z M 6.964844,2.9384765 A 1.5,1.5 0 0 0 6.25,3.1386719 1.5,1.5 0 0 0 5.701172,5.1875 1.5,1.5 0 0 0 7.75,5.7373045 1.5,1.5 0 0 0 8.298828,3.6875 1.5,1.5 0 0 0 6.964844,2.9384765 Z m 6.964844,9.75e-4 A 1.5,1.5 0 0 0 12.701172,3.6875 1.5,1.5 0 0 0 13.25,5.7373045 1.5,1.5 0 0 0 15.298828,5.1875 1.5,1.5 0 0 0 14.75,3.1386719 1.5,1.5 0 0 0 13.929688,2.9394531 Z M 16.526367,5.5 A 1.5,1.5 0 0 0 15.8125,5.701172 1.5,1.5 0 0 0 15.262695,7.75 1.5,1.5 0 0 0 17.3125,8.298828 1.5,1.5 0 0 0 17.861328,6.25 1.5,1.5 0 0 0 16.526367,5.5 Z M 4.3671875,5.50195 A 1.5,1.5 0 0 0 3.1386719,6.25 1.5,1.5 0 0 0 3.6875,8.298828 1.5,1.5 0 0 0 5.7373045,7.75 1.5,1.5 0 0 0 5.1875,5.701172 1.5,1.5 0 0 0 4.3671875,5.501953 Z M 3.5,9 A 1.5,1.5 0 0 0 2,10.5 1.5,1.5 0 0 0 3.5,12 1.5,1.5 0 0 0 5,10.5 1.5,1.5 0 0 0 3.5,9 Z m 14,0 A 1.5,1.5 0 0 0 16,10.5 1.5,1.5 0 0 0 17.5,12 1.5,1.5 0 0 0 19,10.5 1.5,1.5 0 0 0 17.5,9 Z M 4.402344,12.5 A 1.5,1.5 0 0 0 3.6875,12.701172 1.5,1.5 0 0 0 3.1386719,14.75 1.5,1.5 0 0 0 5.1875,15.298828 1.5,1.5 0 0 0 5.7373045,13.25 1.5,1.5 0 0 0 4.402344,12.5 Z m 12.088867,0.002 A 1.5,1.5 0 0 0 15.262695,13.25 1.5,1.5 0 0 0 15.8125,15.298828 1.5,1.5 0 0 0 17.861328,14.75 1.5,1.5 0 0 0 17.3125,12.701172 1.5,1.5 0 0 0 16.491211,12.501953 Z m -2.526367,2.5605 A 1.5,1.5 0 0 0 13.25,15.262695 1.5,1.5 0 0 0 12.701172,17.3125 1.5,1.5 0 0 0 14.75,17.861328 1.5,1.5 0 0 0 15.298828,15.8125 a 1.5,1.5 0 0 0 -1.333984,-0.75 z m -7.0351565,10e-4 A 1.5,1.5 0 0 0 5.701172,15.8125 1.5,1.5 0 0 0 6.25,17.861328 1.5,1.5 0 0 0 8.298828,17.3125 1.5,1.5 0 0 0 7.75,15.262695 1.5,1.5 0 0 0 6.9296875,15.063476 Z M 10.5,16 A 1.5,1.5 0 0 0 9,17.5 1.5,1.5 0 0 0 10.5,19 1.5,1.5 0 0 0 12,17.5 1.5,1.5 0 0 0 10.5,16 Z"/>
 <circle style="opacity:0.3" cx="10.5" cy="10.5" r="3.5"/>
 <path style="opacity:0.2" d="m 15.368191,12.500341 c -0.230947,-0.008 -0.261653,0.122719 -0.329822,0.468812 -0.343058,2.278561 1.657172,3.54278 4.285281,4.527741 0.768105,0.07089 0.926989,-1.088717 1.173748,-1.718409 0.319747,-0.815946 0.83203,-1.547788 0.207678,-1.884044 l -5.030964,-1.342284 c -0.130623,-0.03053 -0.228938,-0.04917 -0.30592,-0.05182 z"/>
 <path style="fill:#8e8e8e" d="m 15.368193,12.000433 c -0.230947,-0.008 -0.261653,0.122719 -0.329822,0.468812 -0.343058,2.278561 1.657172,3.54278 4.285281,4.527741 0.768105,0.07089 0.926989,-1.088717 1.173748,-1.718409 0.319747,-0.815945 0.83203,-1.547788 0.207678,-1.884044 l -5.030964,-1.342284 c -0.130623,-0.03053 -0.228938,-0.04917 -0.30592,-0.05182 z"/>
 <path style="opacity:0.2;fill:#8b9cbe" d="m 15.368164,12 c -0.230948,-0.008 -0.261909,0.122657 -0.330078,0.46875 -0.04032,0.267815 -0.04508,0.520737 -0.02343,0.761719 0.0063,-0.0865 0.0099,-0.172125 0.02343,-0.261719 0.06817,-0.346093 0.09913,-0.476705 0.330078,-0.46875 0.07698,0.0026 0.175041,0.02122 0.305664,0.05176 l 5.03125,1.342773 c 0.132115,0.07115 0.205126,0.162975 0.248047,0.266602 0.0915,-0.329055 0.06557,-0.597696 -0.248047,-0.766602 L 15.673828,12.05176 C 15.543205,12.021223 15.445147,12.002647 15.368164,12 Z"/>
 <path style="opacity:0.1;fill:#8b9cbe" d="M 10.5,0 A 10.5,10.5 0 0 0 0,10.5 10.5,10.5 0 0 0 0.0097656,10.796875 10.5,10.5 0 0 1 10.5,0.5 10.5,10.5 0 0 1 20.990234,10.703125 10.5,10.5 0 0 0 21,10.5 10.5,10.5 0 0 0 10.5,0 Z"/>
 <path style="opacity:0.2" d="M 8,4.5 A 4,4 0 0 1 4,8.5 4,4 0 0 1 4e-7,4.5 4,4 0 0 1 4,0.5000002 4,4 0 0 1 8,4.5 Z"/>
 <path style="fill:#ffae4a" d="M 8,4 A 4,4 0 0 1 4,8 4,4 0 0 1 4e-7,4 4,4 0 0 1 4,2e-7 4,4 0 0 1 8,4 Z"/>
 <path style="opacity:0.2;fill:#8b9cbe" d="M 4,0 A 4,4 0 0 0 0,4 4,4 0 0 0 0.0107422,4.288086 4,4 0 0 1 4,0.5 4,4 0 0 1 7.989258,4.211914 4,4 0 0 0 8,4 4,4 0 0 0 4,0 Z"/>
</svg>
