<svg xmlns="http://www.w3.org/2000/svg" width="22" height="22" version="1.1">
 <path style="opacity:0.2" d="M 3.5,1.5 A 2.5,2.5 0 0 0 1,4 2.5,2.5 0 0 0 3.5,6.5 2.5,2.5 0 0 0 6,4 2.5,2.5 0 0 0 3.5,1.5 Z m 15,0 A 2.5,2.5 0 0 0 16,4 2.5,2.5 0 0 0 18.5,6.5 2.5,2.5 0 0 0 21,4 2.5,2.5 0 0 0 18.5,1.5 Z m -5,5 A 2.5,2.5 0 0 0 11,9 2.5,2.5 0 0 0 13.5,11.5 2.5,2.5 0 0 0 16,9 2.5,2.5 0 0 0 13.5,6.5 Z m -5,5 A 2.5,2.5 0 0 0 6,14 2.5,2.5 0 0 0 8.5,16.5 2.5,2.5 0 0 0 11,14 2.5,2.5 0 0 0 8.5,11.5 Z m -5,5 A 2.5,2.5 0 0 0 1,19 2.5,2.5 0 0 0 3.5,21.5 2.5,2.5 0 0 0 6,19 2.5,2.5 0 0 0 3.5,16.5 Z m 10,0 A 2.5,2.5 0 0 0 11,19 2.5,2.5 0 0 0 13.5,21.5 2.5,2.5 0 0 0 16,19 2.5,2.5 0 0 0 13.5,16.5 Z M 16,19 A 2.5,2.5 0 0 0 18.5,21.5 2.5,2.5 0 0 0 21,19 2.5,2.5 0 0 0 18.5,16.5 2.5,2.5 0 0 0 16,19 Z"/>
 <circle style="fill:#4caf50" cx="18.5" cy="18.5" r="2.5"/>
 <circle style="fill:#3f51b5" cx="8.5" cy="13.5" r="2.5"/>
 <circle style="opacity:0.2" cx="8.5" cy="9" r="2.5"/>
 <circle style="fill:#4caf50" cx="8.5" cy="8.5" r="2.5"/>
 <circle style="opacity:0.2" cx="8.5" cy="4" r="2.5"/>
 <circle style="fill:#4caf50" cx="3.5" cy="3.5" r="2.5"/>
 <circle style="fill:#f44336" cx="8.5" cy="3.5" r="2.5"/>
 <circle style="fill:#3f51b5" cx="18.5" cy="3.5" r="2.5"/>
 <circle style="fill:#3f51b5" cx="13.5" cy="8.5" r="2.5"/>
 <circle style="opacity:0.2" cx="18.5" cy="14" r="2.5"/>
 <circle style="fill:#f44336" cx="18.5" cy="13.5" r="2.5"/>
 <circle style="fill:#3f51b5" cx="3.5" cy="18.5" r="2.5"/>
 <circle style="fill:#3f51b5" cx="13.5" cy="18.5" r="2.5"/>
 <path style="opacity:0.1;fill:#8b9cbe" d="M 3.5,1 C 2.1192882,1 1,2.1192882 1,3.5 1.0001139,3.586116 1.00468,3.6721678 1.013672,3.7578125 1.1382697,2.4776871 2.2138256,1.5009844 3.5,1.5 4.780765,1.5001758 5.854249,2.4682511 5.986328,3.7421875 5.9948015,3.6617271 5.999364,3.5809028 6,3.5 6,2.1192882 4.880712,1 3.5,1 Z M 6,3.5 C 6.000114,3.5861156 6.0047,3.6721678 6.01367,3.7578125 6.13827,2.4776872 7.2138255,1.5009844 8.5,1.5 9.780765,1.5001758 10.854249,2.4682511 10.986328,3.7421875 10.994801,3.6617271 10.999364,3.5809028 11,3.5 11,2.1192882 9.880712,1 8.5,1 7.119288,1 6,2.1192882 6,3.5 Z M 18.5,1 C 17.119288,1 16,2.1192882 16,3.5 16.000114,3.586116 16.0047,3.6721678 16.01367,3.7578125 16.13827,2.4776872 17.213825,1.5009844 18.5,1.5 19.780765,1.5001758 20.854249,2.4682511 20.986328,3.7421875 20.994801,3.6617271 20.999364,3.5809028 21,3.5 21,2.1192882 19.880712,1 18.5,1 Z m -5,5 C 12.119288,6 11,7.119288 11,8.5 11.000113,8.586116 11.0047,8.672168 11.01367,8.7578125 11.138268,7.4776865 12.213825,6.5009835 13.5,6.5 14.780765,6.5001755 15.854249,7.468251 15.986328,8.7421875 15.994801,8.661727 15.999364,8.580903 16,8.5 16,7.119288 14.880712,6 13.5,6 Z M 11,8.5 c 0,0 0.01367,0.2578125 -0.01367,0.2421875 C 10.994801,8.661727 10.999364,8.580903 11,8.5 Z m 7.5,2.5 c -1.380712,0 -2.5,1.119288 -2.5,2.5 1.13e-4,0.08612 0.0047,0.172168 0.01367,0.257813 C 16.138268,12.477687 17.213825,11.500984 18.5,11.5 c 1.280765,1.75e-4 2.354249,0.968251 2.486328,2.242188 C 20.994801,13.661727 20.999364,13.580903 21,13.5 21,12.119288 19.880712,11 18.5,11 Z m -15,5 C 2.1192882,16 1,17.119288 1,18.5 1.0001139,18.58611 1.00468,18.672168 1.013672,18.757812 1.1382697,17.477687 2.2138256,16.500985 3.5,16.5 4.780765,16.500175 5.854249,17.468251 5.986328,18.742187 5.9948015,18.661727 5.999364,18.580903 6,18.5 6,17.119288 4.880712,16 3.5,16 Z m 10,0 c -1.380712,0 -2.5,1.119288 -2.5,2.5 1.13e-4,0.08611 0.0047,0.172168 0.01367,0.257812 C 11.138268,17.477686 12.213825,16.500983 13.5,16.5 c 1.280765,1.75e-4 2.354249,0.968251 2.486328,2.242187 C 15.994801,18.661727 15.999364,18.580903 16,18.5 16,17.119288 14.880712,16 13.5,16 Z m 2.5,2.5 c 1.13e-4,0.08611 0.0047,0.172168 0.01367,0.257812 C 16.01367,18.757812 16,19 16,18.5 Z"/>
</svg>
