<svg xmlns="http://www.w3.org/2000/svg" width="22" height="22" version="1">
 <path style="opacity:0.2" d="m 12.50114,1.500384 c 4.663975,0 8.498479,3.8356587 8.498479,8.501037 0,4.665378 -3.834504,8.501037 -8.498479,8.501037 h -0.0039 c -0.930949,-0.0015 -1.835885,-0.19343 -2.7085,-0.490294 L 7.529379,20.272205 C 6.150592,21.651409 3.678692,22.078276 2.049891,20.448985 0.422266,18.820869 0.848809,16.347047 2.226618,14.968824 L 4.487926,12.706829 C 4.193351,11.835147 4.003011,10.931731 4.002661,10.002398 v -10e-4 c 0,-4.6653553 3.834504,-8.501014 8.498477,-8.501014 z"/>
 <path style="fill:#2d4b9a" d="m 12.50114,1.0003934 c 4.663975,0 8.498479,3.8356589 8.498479,8.5010376 0,4.665378 -3.834504,8.501037 -8.498479,8.501037 h -0.0039 c -0.930949,-0.0015 -1.835885,-0.193431 -2.7085,-0.490294 L 7.529379,19.772215 C 6.150592,21.151418 3.678692,21.578286 2.049891,19.948994 0.422266,18.320878 0.848809,15.847056 2.226618,14.468834 L 4.487926,12.206839 C 4.193351,11.335157 4.003011,10.43174 4.002661,9.502407 v -10e-4 c 0,-4.6653547 3.834504,-8.5010136 8.498477,-8.5010136 z"/>
 <path style="opacity:0.2" d="m 9.545371,12.400061 c 0.897417,2.36e-4 0.45463,0.621767 0.45463,1 l -0.02671,0.440777 -4.266254,4.266254 C 4.764529,19.088772 3.311295,17.635538 4.292975,16.69303 l 5,-5 c 0.188266,-0.193533 -0.01761,0.707047 0.252396,0.707031 z"/>
 <path style="fill:#eb8345" d="m 9.545371,12 c 0.897417,2.36e-4 0.45463,0.621767 0.45463,1 l -0.02671,0.440777 -4.266254,4.266254 C 4.764529,18.688711 3.311295,17.235477 4.292975,16.292969 l 5,-5 C 9.481241,11.099436 9.275369,12.000016 9.545371,12 Z"/>
 <path style="opacity:0.2" d="m 12.500001,4.4000602 a 5.5000002,5.5000002 0 0 1 5.5,5.5000008 5.5000002,5.5000002 0 0 1 -5.5,5.5 5.5000002,5.5000002 0 0 1 -5.5,-5.5 5.5000002,5.5000002 0 0 1 5.5,-5.5000008 z m 0,2 a 3.4999999,3.4999999 0 0 0 -3.5,3.5000008 3.4999999,3.4999999 0 0 0 3.5,3.5 3.4999999,3.4999999 0 0 0 3.5,-3.5 3.4999999,3.4999999 0 0 0 -3.5,-3.5000008 z"/>
 <path style="fill:#8b9cbe" d="m 12.500001,4 a 5.5000002,5.5000002 0 0 1 5.5,5.5 5.5000002,5.5000002 0 0 1 -5.5,5.5 5.5000002,5.5000002 0 0 1 -5.5,-5.5 5.5000002,5.5000002 0 0 1 5.5,-5.5 z m 0,2 a 3.4999999,3.4999999 0 0 0 -3.5,3.5 3.4999999,3.4999999 0 0 0 3.5,3.5 3.4999999,3.4999999 0 0 0 3.5,-3.5 3.4999999,3.4999999 0 0 0 -3.5,-3.5 z"/>
 <path style="opacity:0.1;fill:#8b9cbe" d="m 12.50114,1.0003934 c 4.663975,0 8.498861,3.8354349 8.498861,8.5008136 0,0.08434 -0.01021,0.166215 -0.0127,0.249995 -0.135169,-4.5506162 -3.906507,-8.2508182 -8.486166,-8.2508182 -4.580643,0 -8.352535,3.701808 -8.486165,8.2537472 -0.0031,-0.08411 -0.01266,-0.167405 -0.01269,-0.251948 v -0.001 c 0,-4.6653312 3.834887,-8.5007896 8.49886,-8.5007896 z M 4.371413,12.323418 c 0.03815,0.127997 0.0734,0.257108 0.116209,0.383782 L 2.226924,14.968875 C 1.534649,15.661358 1.083207,16.630545 1.011126,17.629957 0.943256,16.46051 1.419522,15.27653 2.226924,14.468885 Z"/>
</svg>
