<svg xmlns="http://www.w3.org/2000/svg" width="22" height="22" version="1">
 <path style="opacity:0.2" d="m 11.053711,1.5009119 c -0.418904,-0.010094 -0.832308,0.09424 -1.195312,0.3027344 L 3.1416015,5.6669274 C 2.4351876,6.0731399 1.9999486,6.8241569 2,7.6366544 v 7.7265636 c -2e-7,0.563978 0.2135816,1.094991 0.578125,1.504883 a 2.2828381,2.27395 0 0 0 0.042969,0.0498 c 0.037362,0.03964 0.076877,0.07723 0.1171875,0.114257 a 2.2828381,2.27395 0 0 0 0.078125,0.06836 c 0.037093,0.03108 0.074032,0.06199 0.1132813,0.09082 a 2.2828381,2.27395 0 0 0 0.211914,0.140625 l 6.7167972,3.863281 a 2.2828381,2.27395 0 0 0 2.283203,0 l 6.716796,-3.863281 A 2.2828381,2.27395 0 0 0 20,15.363218 V 7.6366544 a 2.2828381,2.27395 0 0 0 -0.01855,-0.270508 c -0.0035,-0.02889 -0.0081,-0.057309 -0.0127,-0.085937 a 2.2828381,2.27395 0 0 0 -0.03418,-0.170899 c -0.0093,-0.03879 -0.01899,-0.07711 -0.03027,-0.1152345 A 2.2828381,2.27395 0 0 0 19.86133,6.8680994 C 19.84546,6.8241994 19.831,6.7799974 19.8125,6.7372399 a 2.2828381,2.27395 0 0 0 -0.0078,-0.01758 l -0.001,0.001 C 19.611135,6.2856094 19.285508,5.9125694 18.858367,5.6669489 L 12.141602,1.8036463 c -0.331279,-0.1902501 -0.7056,-0.293943 -1.087891,-0.3027344 z"/>
 <path style="fill:#add439" d="m 11.053711,1.0009809 c -0.03305,-7.95e-4 -0.06568,0.00328 -0.09863,0.00391 L 10.976563,5.7900434 11,10.942487 15.523437,8.457524 19.700195,6.0293014 C 19.503239,5.6780579 19.220285,5.3750944 18.858398,5.1669964 L 12.141602,1.3037153 c -0.331279,-0.1902501 -0.7056,-0.293943 -1.087891,-0.3027344 z"/>
 <path style="fill:#ac1248" d="M 2.3398438,5.9482464 C 2.1228758,6.3003729 1.999973,6.7093389 2,7.1367234 v 3.8632826 3.863281 c -2e-7,0.428024 0.1241071,0.835987 0.3427735,1.1875 L 6.5,13.625006 11,11.000006 6.5,8.3750044 Z"/>
 <path style="fill:#3471b9" d="M 19.657226,5.9492234 15.5,8.3750044 11,11.000006 l 4.5,2.625 4.162109,2.427734 A 2.2828381,2.27395 0 0 0 20,14.863287 V 7.1367234 a 2.2828381,2.27395 0 0 0 -0.01855,-0.270508 c -0.0035,-0.02889 -0.0081,-0.05731 -0.0127,-0.085937 A 2.2828381,2.27395 0 0 0 19.93457,6.6093794 C 19.92527,6.5705894 19.91558,6.5322684 19.9043,6.4941449 A 2.2828381,2.27395 0 0 0 19.86133,6.3681684 C 19.84546,6.3242684 19.831,6.2800664 19.8125,6.2373089 a 2.2828381,2.27395 0 0 0 -0.0078,-0.01758 l -0.001,0.001 C 19.762,6.1265109 19.71108,6.0369814 19.657215,5.9492449 Z"/>
 <path style="opacity:0.2" d="M 2.5546875,6.176567 C 2.4601344,6.2884355 2.3645162,6.3989877 2.2929688,6.5261764 L 6.4765625,8.9148483 11,11.500787 v -0.05859 l 4.523438,-2.48438 4.175781,-2.4277344 C 19.628103,6.4032578 19.53266,6.2926788 19.439453,6.1804733 L 15.523438,8.457817 11,10.942194 v 0.05859 L 6.4765625,8.4148483 Z"/>
 <path style="fill:#86b02f" d="m 11.044922,1.0009809 c -0.415885,-0.00843 -0.826066,0.095703 -1.186523,0.3027344 L 3.1416015,5.1669964 C 2.7796424,5.3751359 2.4904602,5.6743179 2.2929688,6.0253949 L 6.4765625,8.4150434 11,11.000006 11.023438,5.7900434 Z"/>
 <path style="fill:#2e90e8" d="m 11,11.000006 -0.02343,5.209961 -0.02149,4.789062 a 2.2828381,2.27395 0 0 0 1.186524,-0.303711 l 6.716797,-3.863281 a 2.2828381,2.27395 0 0 0 0.847656,-0.857422 L 15.52344,13.584967 Z"/>
 <path style="fill:#eb2f6a" d="m 11,11.000006 -4.5234375,2.584961 -4.1767578,2.385742 c 0.07997,0.140712 0.1701088,0.275788 0.2783203,0.397461 a 2.2828381,2.27395 0 0 0 0.042969,0.0498 c 0.037362,0.03964 0.076877,0.07723 0.1171875,0.114257 a 2.2828381,2.27395 0 0 0 0.078125,0.06836 c 0.037093,0.03108 0.074032,0.06199 0.1132813,0.09082 a 2.2828381,2.27395 0 0 0 0.211914,0.140625 l 6.7167972,3.863281 a 2.2828381,2.27395 0 0 0 1.186524,0.300782 l -0.02149,-4.786133 z"/>
 <path style="opacity:0.2;fill:#8b9cbe" d="m 11,11.000006 -4.5234375,2.584961 -4.1767578,2.385742 c 0.071832,0.126393 0.1540777,0.246729 0.2480469,0.358398 L 6.4765625,14.084967 11,11.500006 l 4.523437,2.584961 3.930664,2.246093 a 2.2828381,2.27395 0 0 0 0.251953,-0.356445 l -4.182617,-2.389648 z"/>
 <g style="opacity:0.2" transform="translate(-1,-0.50000047)">
  <path d="m 12,6 5,2.9 v 5.894 L 12,18 7,14.794 V 8.9 Z"/>
 </g>
 <path style="opacity:0.2;fill:#8b9cbe" d="m 11.053711,1.0009809 c -0.418904,-0.010094 -0.832308,0.09424 -1.195312,0.3027344 L 3.1416015,5.1669964 C 2.4351876,5.5732089 1.9999486,6.3242254 2,7.1367234 v 0.5 C 1.9999486,6.8242254 2.4351876,6.0732089 3.1416015,5.6669964 L 9.858399,1.8037153 c 0.363004,-0.2084949 0.776408,-0.3128289 1.195312,-0.3027344 0.382291,0.00879 0.756612,0.1124843 1.087891,0.3027344 l 6.716796,3.8632811 c 0.427141,0.2456205 0.752768,0.6186605 0.945313,1.053711 l 0.001,-0.001 a 2.2828381,2.27395 0 0 1 0.0078,0.01758 c 0.01851,0.042755 0.03297,0.086959 0.04883,0.1308595 a 2.2828381,2.27395 0 0 1 0.04297,0.1259765 c 0.01129,0.038125 0.02098,0.076445 0.03027,0.1152345 a 2.2828381,2.27395 0 0 1 0.03418,0.1708985 c 0.0046,0.02863 0.0092,0.057047 0.0127,0.085937 A 2.2828381,2.27395 0 0 1 20,7.6367234 v -0.5 a 2.2828381,2.27395 0 0 0 -0.01855,-0.270508 c -0.0035,-0.02889 -0.0081,-0.05731 -0.0127,-0.085937 A 2.2828381,2.27395 0 0 0 19.93457,6.6093794 C 19.92527,6.5705894 19.91558,6.5322684 19.9043,6.4941449 A 2.2828381,2.27395 0 0 0 19.86133,6.3681684 C 19.84546,6.3242684 19.831,6.2800664 19.8125,6.2373089 a 2.2828381,2.27395 0 0 0 -0.0078,-0.01758 l -0.001,0.001 C 19.611135,5.7856784 19.285508,5.4126384 18.858367,5.1670179 L 12.141602,1.3037153 c -0.331279,-0.1902501 -0.7056,-0.293943 -1.087891,-0.3027344 z"/>
 <g transform="translate(-1,-1.0000005)">
  <path style="fill:#8b9cbe" d="m 12,6 5,3.1000001 V 14.794 L 12,18 7,14.794 V 9.1000001 Z"/>
 </g>
 <path style="fill:#cedbe6" d="m 11,4.9999994 5,3.1 v 5.6940016 l -5,3.206 z"/>
 <path style="fill:#dee5c0" d="m 11,4.9999994 -5,3.1 5,2.9125276 5,-2.9125276 z"/>
 <path style="opacity:0.1" d="M 15.583984,8.3417964 11,11.013672 v 0.5 l 5,-2.9140631 z"/>
</svg>
