<svg xmlns="http://www.w3.org/2000/svg" width="22" height="22" version="1.1">
 <rect style="fill:#a448ba" width="20" height="20" x="1" y="1" rx="1.5" ry="1.5"/>
 <path style="opacity:0.2" d="M 1,19.5 V 20 c 0,0.831 0.669,1.5 1.5,1.5 h 17 C 20.331,21.5 21,20.831 21,20 V 19.5 C 21,20.331 20.331,21 19.5,21 H 2.5 C 1.669,21 1,20.331 1,19.5 Z"/>
 <g style="font-weight:bold;font-size:322.10223389px;line-height:1.25;font-family:Montserrat;letter-spacing:0px;word-spacing:0px;opacity:0.2" transform="matrix(0.02813012,0,0,0.02708784,-6.3442201,-29.979452)">
  <path d="m 812.20261,1309.7929 c -27.70079,0 -55.72369,7.4083 -74.72772,20.9366 l 18.03773,35.1092 c 12.56198,-9.9852 31.56602,-16.1051 49.92584,-16.1051 27.05659,0 42.19199,14.4169 42.19199,35.9977 l -50.00981,-0.2354 c -52.82417,-0.2486 -74.40225,26.624 -74.40225,57.2238 0,29.9555 22.04572,51.6578 62.6306,51.6578 25.44607,0 52.4405,-7.5298 61.78146,-23.3128 l 0.003,21.3432 53.33034,-0.01 -0.006,-104.013 c -0.003,-52.5026 -35.93005,-78.5921 -88.75482,-78.5921 z m -11.67969,151.6087 c -17.71562,0 -28.34499,-8.3747 -28.34499,-20.9367 0,-11.5956 7.40547,-23.1197 30.91845,-22.9689 l 44.53407,0.2354 0.003,16.1495 c 0.003,16.8142 -30.36157,27.5207 -47.11089,27.5207 z"/>
 </g>
 <g style="font-size:40px;line-height:1000%;letter-spacing:0px;word-spacing:0px;opacity:0.2" transform="matrix(0.18934366,0,0,0.19230769,1.272625,-32.986177)">
  <path d="m 55.305889,221.92387 c -0.944974,0.77446 -1.612023,1.05106 -2.445832,1.05106 -1.278503,0 -1.667605,-0.77447 -1.667605,-3.20851 v -10.78724 c 0,-2.8766 -0.277936,-4.48085 -1.111745,-5.80851 -1.22291,-1.99149 -4.573306,-3.04255 -7.852936,-3.04255 -5.225182,0 -9.33863,2.71064 -9.33863,6.19575 0,1.27234 1.056163,2.37871 2.39025,2.37871 1.334086,0 2.501413,-1.10637 2.501413,-2.3234 0,-0.22127 -0.05563,-0.49787 -0.111176,-0.8851 -0.111177,-0.49787 -0.16676,-0.94042 -0.16676,-1.32766 0,-1.49362 1.778783,-2.71064 4.002271,-2.71064 2.723757,0 4.672684,1.60425 4.672684,4.59149 v 4.39862 c -7.655771,2.24877 -9.953459,2.84819 -12.343697,4.95032 -1.22292,1.10637 -2.001135,2.98723 -2.001135,4.81276 0,3.48511 2.445832,5.91915 5.836637,5.91915 2.445831,0 5.172972,-1.1617 8.563777,-4.0383 0.277937,2.93191 1.790584,4.0383 4.069655,4.0383 1.889959,0 3.057287,-0.66383 5.002829,-2.76596 z m -9.128066,-3.1532 c 0,1.65958 -0.277936,2.26809 -1.445263,2.93191 -1.389682,0.77448 -3.338597,1.21703 -4.505924,1.21703 -1.945553,0 -3.501982,-1.88085 -3.501982,-4.25958 v -0.22127 c 0.05563,-3.31915 2.949483,-4.39712 9.453169,-6.6652 z"/>
 </g>
 <path style="opacity:0.2" d="m 16.514184,13.002064 c -0.155045,-0.01376 -0.350536,0.04126 -0.586475,0.165062 -0.235938,0.123797 -0.475246,0.309492 -0.717925,0.557085 -0.242679,0.240715 -0.468505,0.533013 -0.677479,0.876891 -0.202233,0.343879 -0.350537,0.725585 -0.444912,1.145116 -0.07415,0.309492 -0.101116,0.577716 -0.08089,0.804677 0.02022,0.220081 0.06741,0.402338 0.141563,0.546765 0.07415,0.137553 0.165156,0.237278 0.273014,0.299176 0.107854,0.06878 0.20897,0.103164 0.303346,0.103164 0.202232,-0.01376 0.404465,-0.05846 0.606697,-0.134114 0.175268,-0.06877 0.360649,-0.175377 0.55614,-0.319806 0.195492,-0.151308 0.37413,-0.364511 0.535916,-0.639615 -0.0067,0.185694 0.0034,0.340441 0.03033,0.464236 0.03371,0.123797 0.06741,0.223517 0.101116,0.299175 0.04045,0.08941 0.091,0.158182 0.151674,0.206328 0.06067,0.04127 0.131452,0.06878 0.212345,0.08253 0.08089,0.02063 0.165156,0.02751 0.252791,0.02063 0.09437,-0.0069 0.18538,-0.02407 0.273013,-0.05158 0.08764,-0.02751 0.165158,-0.0619 0.232568,-0.103162 0.101118,-0.06877 0.225826,-0.185694 0.37413,-0.350756 0.155045,-0.171938 0.31009,-0.357632 0.465137,-0.557084 0.161786,-0.206327 0.316831,-0.409217 0.465135,-0.608666 0.148303,-0.206326 0.269641,-0.378266 0.364016,-0.515817 0.0809,-0.110041 0.128085,-0.206327 0.141565,-0.28886 0.02022,-0.08253 0.01685,-0.144429 -0.01011,-0.185694 -0.02697,-0.04126 -0.06741,-0.05502 -0.121342,-0.04127 -0.05393,0.0069 -0.107855,0.04127 -0.161786,0.103166 -0.04045,0.05502 -0.107855,0.14099 -0.20223,0.257907 -0.08764,0.116921 -0.188751,0.251032 -0.30335,0.40234 -0.114599,0.151305 -0.239307,0.309491 -0.37413,0.474553 -0.12808,0.158182 -0.252792,0.306052 -0.374129,0.443601 -0.12134,0.130675 -0.235939,0.240717 -0.343798,0.330123 -0.107855,0.08253 -0.19549,0.123797 -0.262901,0.123797 -0.08089,0 -0.144933,-0.01719 -0.192121,-0.05158 -0.04044,-0.04126 -0.07078,-0.09285 -0.09101,-0.154747 -0.02022,-0.0619 -0.0337,-0.127235 -0.04044,-0.196009 0,-0.07566 0.0034,-0.14443 0.01011,-0.206329 0.02022,-0.103162 0.03708,-0.189131 0.05056,-0.257909 0.01349,-0.06877 0.0236,-0.127235 0.03033,-0.175377 0.01349,-0.05502 0.0236,-0.106603 0.03034,-0.154746 0.01347,-0.05502 0.02697,-0.11348 0.04044,-0.175377 0.06741,-0.316369 0.12134,-0.574278 0.161786,-0.773729 0.04044,-0.199448 0.07078,-0.357634 0.091,-0.474552 0.02022,-0.116917 0.03034,-0.196012 0.03034,-0.237277 0,-0.04815 -0.0034,-0.0791 -0.01011,-0.09285 -0.01349,-0.0069 -0.04044,-0.01032 -0.08089,-0.01032 -0.03371,0 -0.08426,0.0034 -0.151675,0.01032 -0.06067,0.0069 -0.138192,0.02063 -0.232568,0.04127 0.141565,-0.220083 0.195493,-0.39546 0.161788,-0.526134 -0.02697,-0.137552 -0.08763,-0.240716 -0.182011,-0.309492 -0.114598,-0.07565 -0.262902,-0.130674 -0.444911,-0.165061 z m -0.238129,0.645289 c 0.0257,0.0014 0.0477,0.0098 0.06623,0.02527 0.02022,0.02752 0.0337,0.06534 0.04044,0.113479 0.0067,0.04127 0.0034,0.09972 -0.01011,0.175379 -0.0067,0.06877 -0.03708,0.158184 -0.091,0.268226 0.05393,-0.01374 0.107858,-0.02407 0.161787,-0.03095 0.05393,-0.0069 0.09775,-0.01718 0.131451,-0.03095 0.04044,-0.01374 0.07752,-0.02407 0.111227,-0.03095 0.02697,-0.0069 0.03034,0.04814 0.01011,0.165061 -0.01348,0.110043 -0.03708,0.251033 -0.07078,0.422972 -0.0337,0.171942 -0.07415,0.350759 -0.12134,0.536451 -0.04719,0.185695 -0.08763,0.347317 -0.12134,0.48487 -0.0067,0.03439 -0.03708,0.08941 -0.091,0.165061 -0.04719,0.07565 -0.111228,0.158184 -0.192121,0.247593 -0.07415,0.08941 -0.161786,0.175378 -0.262903,0.257909 -0.09437,0.08253 -0.192121,0.151307 -0.293237,0.206326 -0.09437,0.04814 -0.18875,0.07565 -0.283125,0.08253 -0.09437,0 -0.178639,-0.03783 -0.252791,-0.11348 -0.04045,-0.04127 -0.06741,-0.127233 -0.08089,-0.257908 -0.01348,-0.137552 -0.01011,-0.295739 0.01012,-0.474553 0.02697,-0.178818 0.07078,-0.367951 0.131451,-0.5674 0.06067,-0.206327 0.141563,-0.398899 0.24268,-0.577715 0.242678,-0.43329 0.455023,-0.729025 0.637032,-0.88721 0.141563,-0.123795 0.251021,-0.183887 0.328122,-0.180021 z"/>
 <g style="opacity:0.2" transform="matrix(0.190427,0,0,0.18709021,0.906336,-31.9016)">
  <path style="fill-rule:evenodd" transform="translate(0,172)" d="m 37,66.398819 c -2.704645,-0.03825 -2.704645,4.03825 0,4 h 9.880859 c 0.01107,10e-4 0.285634,0.0327 0.585938,0.197266 0.306304,0.16789 0.485897,0.188343 0.537109,0.939453 v -0.01953 L 48.25,78.310547 C 47.789324,78.134111 47.480469,78.058594 47.480469,78.058594 L 47.244141,78 H 38 c -4.333333,0 -5.896484,4.367188 -5.896484,4.367188 L 32,82.675781 V 85 c 0,3.03333 1.431289,5.127712 2.939453,6.070312 C 36.447617,92.012912 38,92 38,92 h 7.591797 l 3.392578,-2.203125 0.01953,0.320313 c 0.08969,2.735348 4.223189,2.492675 3.992188,-0.234376 l -1,-18.610946 v -0.0098 c -0.140818,-2.06533 -1.461734,-3.545828 -2.607422,-4.173828 -1.145688,-0.62799 -2.257813,-0.685547 -2.257813,-0.685547 l -0.06641,-0.0039 z M 38,82 h 8.644531 c 0.106906,0.0312 0.525263,0.141312 1.03711,0.482422 0.558515,0.372213 0.877827,0.68942 0.894531,1.355469 L 48.714844,85.201172 44.408203,88 H 38 C 38,88 37.552383,87.9871 37.060547,87.679688 36.568711,87.372288 36,86.96667 36,85 V 83.435547 C 36.102847,83.130577 36.534758,82 38,82 Z"/>
 </g>
 <g transform="translate(-1,-1)">
  <g style="font-weight:bold;font-size:322.10223389px;line-height:1.25;font-family:Montserrat;letter-spacing:0px;word-spacing:0px;fill:#8b9cbe" transform="matrix(0.02813012,0,0,0.02708784,-5.3442201,-29.479452)">
   <path style="fill:#8b9cbe" d="m 812.20261,1309.7929 c -27.70079,0 -55.72369,7.4083 -74.72772,20.9366 l 18.03773,35.1092 c 12.56198,-9.9852 31.56602,-16.1051 49.92584,-16.1051 27.05659,0 42.19199,14.4169 42.19199,35.9977 l -50.00981,-0.2354 c -52.82417,-0.2486 -74.40225,26.624 -74.40225,57.2238 0,29.9555 22.04572,51.6578 62.6306,51.6578 25.44607,0 52.4405,-7.5298 61.78146,-23.3128 l 0.003,21.3432 53.33034,-0.01 -0.006,-104.013 c -0.003,-52.5026 -35.93005,-78.5921 -88.75482,-78.5921 z m -11.67969,151.6087 c -17.71562,0 -28.34499,-8.3747 -28.34499,-20.9367 0,-11.5956 7.40547,-23.1197 30.91845,-22.9689 l 44.53407,0.2354 0.003,16.1495 c 0.003,16.8142 -30.36157,27.5207 -47.11089,27.5207 z"/>
  </g>
  <g style="font-size:40px;line-height:1000%;letter-spacing:0px;word-spacing:0px;fill:#8b9cbe" transform="matrix(0.18934366,0,0,0.19230769,2.272625,-32.486177)">
   <path style="fill:#8b9cbe" d="m 55.305889,221.92387 c -0.944974,0.77446 -1.612023,1.05106 -2.445832,1.05106 -1.278503,0 -1.667605,-0.77447 -1.667605,-3.20851 v -10.78724 c 0,-2.8766 -0.277936,-4.48085 -1.111745,-5.80851 -1.22291,-1.99149 -4.573306,-3.04255 -7.852936,-3.04255 -5.225182,0 -9.33863,2.71064 -9.33863,6.19575 0,1.27234 1.056163,2.37871 2.39025,2.37871 1.334086,0 2.501413,-1.10637 2.501413,-2.3234 0,-0.22127 -0.05563,-0.49787 -0.111176,-0.8851 -0.111177,-0.49787 -0.16676,-0.94042 -0.16676,-1.32766 0,-1.49362 1.778783,-2.71064 4.002271,-2.71064 2.723757,0 4.672684,1.60425 4.672684,4.59149 v 4.39862 c -7.655771,2.24877 -9.953459,2.84819 -12.343697,4.95032 -1.22292,1.10637 -2.001135,2.98723 -2.001135,4.81276 0,3.48511 2.445832,5.91915 5.836637,5.91915 2.445831,0 5.172972,-1.1617 8.563777,-4.0383 0.277937,2.93191 1.790584,4.0383 4.069655,4.0383 1.889959,0 3.057287,-0.66383 5.002829,-2.76596 z m -9.128066,-3.1532 c 0,1.65958 -0.277936,2.26809 -1.445263,2.93191 -1.389682,0.77448 -3.338597,1.21703 -4.505924,1.21703 -1.945553,0 -3.501982,-1.88085 -3.501982,-4.25958 v -0.22127 c 0.05563,-3.31915 2.949483,-4.39712 9.453169,-6.6652 z"/>
  </g>
  <path style="fill:#8b9cbe" d="m 17.514184,13.502064 c -0.155045,-0.01376 -0.350536,0.04126 -0.586475,0.165062 -0.235938,0.123797 -0.475246,0.309492 -0.717925,0.557085 -0.242679,0.240715 -0.468505,0.533013 -0.677479,0.876891 -0.202233,0.343879 -0.350537,0.725585 -0.444912,1.145116 -0.07415,0.309492 -0.101116,0.577716 -0.08089,0.804677 0.02022,0.220081 0.06741,0.402338 0.141563,0.546765 0.07415,0.137553 0.165156,0.237278 0.273014,0.299176 C 15.528934,17.965613 15.63005,18 15.724426,18 c 0.202232,-0.01376 0.404465,-0.05846 0.606697,-0.134114 0.175268,-0.06877 0.360649,-0.175377 0.55614,-0.319806 0.195492,-0.151308 0.37413,-0.364511 0.535916,-0.639615 -0.0067,0.185694 0.0034,0.340441 0.03033,0.464236 0.03371,0.123797 0.06741,0.223517 0.101116,0.299175 0.04045,0.08941 0.091,0.158182 0.151674,0.206328 0.06067,0.04127 0.131452,0.06878 0.212345,0.08253 0.08089,0.02063 0.165156,0.02751 0.252791,0.02063 0.09437,-0.0069 0.18538,-0.02407 0.273013,-0.05158 0.08764,-0.02751 0.165158,-0.0619 0.232568,-0.103162 0.101118,-0.06877 0.225826,-0.185694 0.37413,-0.350756 0.155045,-0.171938 0.31009,-0.357632 0.465137,-0.557084 0.161786,-0.206327 0.316831,-0.409217 0.465135,-0.608666 0.148303,-0.206326 0.269641,-0.378266 0.364016,-0.515817 0.0809,-0.110041 0.128085,-0.206327 0.141565,-0.28886 0.02022,-0.08253 0.01685,-0.144429 -0.01011,-0.185694 -0.02697,-0.04126 -0.06741,-0.05502 -0.121342,-0.04127 -0.05393,0.0069 -0.107855,0.04127 -0.161786,0.103166 -0.04045,0.05502 -0.107855,0.14099 -0.20223,0.257907 -0.08764,0.116921 -0.188751,0.251032 -0.30335,0.40234 -0.114599,0.151305 -0.239307,0.309491 -0.37413,0.474553 -0.12808,0.158182 -0.252792,0.306052 -0.374129,0.443601 -0.12134,0.130675 -0.235939,0.240717 -0.343798,0.330123 -0.107855,0.08253 -0.19549,0.123797 -0.262901,0.123797 -0.08089,0 -0.144933,-0.01719 -0.192121,-0.05158 -0.04044,-0.04126 -0.07078,-0.09285 -0.09101,-0.154747 -0.02022,-0.0619 -0.0337,-0.127235 -0.04044,-0.196009 0,-0.07566 0.0034,-0.14443 0.01011,-0.206329 0.02022,-0.103162 0.03708,-0.189131 0.05056,-0.257909 0.01349,-0.06877 0.0236,-0.127235 0.03033,-0.175377 0.01349,-0.05502 0.0236,-0.106603 0.03034,-0.154746 0.01347,-0.05502 0.02697,-0.11348 0.04044,-0.175377 0.06741,-0.316369 0.12134,-0.574278 0.161786,-0.773729 0.04044,-0.199448 0.07078,-0.357634 0.091,-0.474552 0.02022,-0.116917 0.03034,-0.196012 0.03034,-0.237277 0,-0.04815 -0.0034,-0.0791 -0.01011,-0.09285 -0.01349,-0.0069 -0.04044,-0.01032 -0.08089,-0.01032 -0.03371,0 -0.08426,0.0034 -0.151675,0.01032 -0.06067,0.0069 -0.138192,0.02063 -0.232568,0.04127 0.141565,-0.220083 0.195493,-0.39546 0.161788,-0.526134 -0.02697,-0.137552 -0.08763,-0.240716 -0.182011,-0.309492 -0.114598,-0.07565 -0.262902,-0.130674 -0.444911,-0.165061 z m -0.238129,0.645289 c 0.0257,0.0014 0.0477,0.0098 0.06623,0.02527 0.02022,0.02752 0.0337,0.06534 0.04044,0.113479 0.0067,0.04127 0.0034,0.09972 -0.01011,0.175379 -0.0067,0.06877 -0.03708,0.158184 -0.091,0.268226 0.05393,-0.01374 0.107858,-0.02407 0.161787,-0.03095 0.05393,-0.0069 0.09775,-0.01718 0.131451,-0.03095 0.04044,-0.01374 0.07752,-0.02407 0.111227,-0.03095 0.02697,-0.0069 0.03034,0.04814 0.01011,0.165061 -0.01348,0.110043 -0.03708,0.251033 -0.07078,0.422972 -0.0337,0.171942 -0.07415,0.350759 -0.12134,0.536451 -0.04719,0.185695 -0.08763,0.347317 -0.12134,0.48487 -0.0067,0.03439 -0.03708,0.08941 -0.091,0.165061 -0.04719,0.07565 -0.111228,0.158184 -0.192121,0.247593 -0.07415,0.08941 -0.161786,0.175378 -0.262903,0.257909 -0.09437,0.08253 -0.192121,0.151307 -0.293237,0.206326 -0.09437,0.04814 -0.18875,0.07565 -0.283125,0.08253 -0.09437,0 -0.178639,-0.03783 -0.252791,-0.11348 -0.04045,-0.04127 -0.06741,-0.127233 -0.08089,-0.257908 -0.01348,-0.137552 -0.01011,-0.295739 0.01012,-0.474553 0.02697,-0.178818 0.07078,-0.367951 0.131451,-0.5674 0.06067,-0.206327 0.141563,-0.398899 0.24268,-0.577715 0.242678,-0.43329 0.455023,-0.729025 0.637032,-0.88721 0.141563,-0.123795 0.251021,-0.183887 0.328122,-0.180021 z"/>
  <g style="fill:#8b9cbe" transform="matrix(0.190427,0,0,0.18709021,1.906336,-31.4016)">
   <path style="fill:#8b9cbe;fill-rule:evenodd" transform="translate(0,172)" d="m 37,66.398819 c -2.704645,-0.03825 -2.704645,4.03825 0,4 h 9.880859 c 0.01107,10e-4 0.285634,0.0327 0.585938,0.197266 0.306304,0.16789 0.485897,0.188343 0.537109,0.939453 v -0.01953 L 48.25,78.310547 C 47.789324,78.134111 47.480469,78.058594 47.480469,78.058594 L 47.244141,78 H 38 c -4.333333,0 -5.896484,4.367188 -5.896484,4.367188 L 32,82.675781 V 85 c 0,3.03333 1.431289,5.127712 2.939453,6.070312 C 36.447617,92.012912 38,92 38,92 h 7.591797 l 3.392578,-2.203125 0.01953,0.320313 c 0.08969,2.735348 4.223189,2.492675 3.992188,-0.234376 l -1,-18.610946 v -0.0098 c -0.140818,-2.06533 -1.461734,-3.545828 -2.607422,-4.173828 -1.145688,-0.62799 -2.257813,-0.685547 -2.257813,-0.685547 l -0.06641,-0.0039 z M 38,82 h 8.644531 c 0.106906,0.0312 0.525263,0.141312 1.03711,0.482422 0.558515,0.372213 0.877827,0.68942 0.894531,1.355469 L 48.714844,85.201172 44.408203,88 H 38 C 38,88 37.552383,87.9871 37.060547,87.679688 36.568711,87.372288 36,86.96667 36,85 V 83.435547 C 36.102847,83.130577 36.534758,82 38,82 Z"/>
  </g>
 </g>
 <path style="opacity:0.3" d="M 2.5,1 C 1.669,1 1,1.669 1,2.5 v 17 C 1,20.331 1.669,21 2.5,21 H 5 V 1 Z"/>
 <path style="opacity:0.1;fill:#8b9cbe" d="M 2.5,1 C 1.669,1 1,1.669 1,2.5 V 3 C 1,2.169 1.669,1.5 2.5,1.5 h 17 C 20.331,1.5 21,2.169 21,3 V 2.5 C 21,1.669 20.331,1 19.5,1 Z"/>
</svg>
