<svg xmlns="http://www.w3.org/2000/svg" width="22" height="22" version="1">
 <path style="opacity:0.2" d="m 2,1.5 c -0.554,0 -1,0.446 -1,1 v 9 a 10,10 0 0 0 10,10 h 9 c 0.554,0 1,-0.446 1,-1 v -9 -9 c 0,-0.554 -0.446,-1 -1,-1 h -9 z"/>
 <path style="fill:#4f4f4f" d="M 2,1 C 1.446,1 1,1.446 1,2 v 9 a 10,10 0 0 0 10,10 h 9 c 0.554,0 1,-0.446 1,-1 V 11 2 C 21,1.446 20.554,1 20,1 h -9 z"/>
 <path style="opacity:0.2" d="M 3,3.5 V 8.7128905 11.5 11.51953 c 5.7e-4,0.239236 0.015592,0.474688 0.037109,0.708008 0.00796,0.08956 0.018448,0.17795 0.029297,0.266601 0.01643,0.130149 0.037039,0.258645 0.05957,0.386719 0.037329,0.217017 0.084424,0.430139 0.1386719,0.640625 0.016634,0.06416 0.029768,0.129811 0.047851,0.19336 4.239e-4,-6e-4 5.5e-4,-0.0014 9.75e-4,-0.002 0.030009,0.105576 0.06057,0.210751 0.094727,0.314453 -2.094e-4,8.5e-5 -7.65e-4,-8.5e-5 -9.75e-4,0 0.050615,0.153617 0.1072048,0.304143 0.1669922,0.453125 0.047601,0.11955 0.09827,0.236944 0.1513672,0.353516 0.023442,0.051 0.048766,0.100959 0.073242,0.151367 0.1130355,0.234834 0.2365042,0.462417 0.3710937,0.683594 0.00175,0.0028 0.00315,0.0059 0.0049,0.0088 0.054991,0.09011 0.1056475,0.182827 0.1640625,0.270508 -5e-4,-2.31e-4 -0.00145,-7.5e-4 -0.00195,-0.001 0.0044,0.0066 0.00924,0.01293 0.01367,0.01953 0.021215,0.03166 0.044755,0.06145 0.066406,0.09277 0.108685,0.1572 0.2223835,0.310406 0.341797,0.458984 0.036545,0.0455 0.072834,0.09108 0.1103515,0.135742 0.135322,0.160984 0.2772985,0.316197 0.424805,0.465821 0.04318,0.04385 0.087649,0.08607 0.1318355,0.128906 0.1279295,0.12389 0.259457,0.243276 0.395508,0.358398 0.037565,0.03183 0.073165,0.06554 0.111328,0.09668 0.0061,0.005 0.01244,0.0097 0.018555,0.01465 0.148709,0.120445 0.303561,0.234065 0.4609375,0.34375 0.072147,0.05034 0.1448655,0.09948 0.21875,0.147461 0.1597585,0.103673 0.3217595,0.203545 0.4892575,0.295898 2.445e-4,1.35e-4 7.5e-4,-1.35e-4 0.001,0 0.5856705,0.322966 1.2192435,0.568319 1.8847655,0.737305 0.0023,6e-4 0.0046,0.0014 0.0068,0.002 0.282151,0.07137 0.56972,0.127184 0.863281,0.167969 0.0075,10e-4 0.01491,0.0029 0.02246,0.0039 0.174566,0.02375 0.350232,0.04224 0.528321,0.05469 0.07223,0.005 0.145001,0.0076 0.217773,0.01074 0.11842,0.0052 0.234653,0.01761 0.354453,0.01761 h 0.0019 6.444338 H 18.875 19 V 19.34375 18.155273 17.68457 16.683594 15.4375 11.5 5.09375 3.5 h -7.999023 -0.002 z"/>
 <path style="fill:#c6783d" d="m 3,3 v 8 0.01953 C 3.0105434,15.452278 6.563868,19 10.999512,19 h 0.001 7.999511 V 11 3 h -7.999512 -10e-4 z"/>
 <path style="opacity:0.1;fill:#8b9cbe" d="m 12.283203,3.5 c -0.04903,0.023271 -0.08752,0.078534 -0.130859,0.1796875 -0.05598,0.1306481 -0.0973,0.1023222 -0.332032,-0.1660156 -0.167544,0.00669 -0.382812,0.011642 -0.382812,0.025391 0,0.021114 0.147237,0.2075107 0.326172,0.4140625 0.317971,0.3670483 0.32656,0.3715181 0.388672,0.2265625 0.09635,-0.2248655 0.169668,-0.2462219 0.384765,-0.1132813 0.216365,0.1337239 0.400391,0.1589379 0.400391,0.054688 0,-0.036848 -0.07291,-0.1915355 -0.162109,-0.34375 L 12.689451,3.628907 C 12.638591,3.609136 12.595571,3.602541 12.537107,3.566407 12.486356,3.5350382 12.443383,3.5135406 12.40625,3.5 Z m 1.646485,0 0.01953,0.1347656 c 0.01098,0.073833 0.06875,0.1582081 0.128906,0.1875 0.06015,0.029292 0.158595,0.077746 0.21875,0.1074219 0.07082,0.034937 0.102326,0.110206 0.08984,0.2128906 -0.01402,0.1152516 0.05685,0.24418 0.259765,0.4726563 0.18581,0.209218 0.312134,0.4304567 0.378907,0.6601562 0.105619,0.3633265 0.274088,0.5371094 0.517578,0.5371094 0.100084,0 0.176856,0.068096 0.261719,0.234375 0.06579,0.128906 0.177173,0.287467 0.248046,0.3515625 0.135797,0.122812 0.145061,0.122299 0.923828,-0.03125 0.339782,-0.066994 0.420673,-0.061671 0.71875,0.044922 0.289554,0.103545 0.356452,0.16086 0.490235,0.4140625 0.08535,0.161537 0.211917,0.3182948 0.28125,0.3496093 0.188651,0.085209 0.275021,0.025616 0.347656,-0.2441406 C 18.850523,6.7976751 18.906405,6.6875 18.939453,6.6875 18.976333,6.687504 19,6.0719865 19,5.09375 v -0.5 c 0,0.9782365 -0.02367,1.593754 -0.06055,1.59375 -0.03305,0 -0.08893,0.1101751 -0.125,0.2441406 -0.07264,0.269757 -0.159005,0.3293496 -0.347656,0.2441406 -0.06933,-0.031315 -0.1959,-0.1880723 -0.28125,-0.3496093 -0.133783,-0.2532025 -0.200681,-0.3105175 -0.490235,-0.4140625 -0.298077,-0.106593 -0.378968,-0.1119159 -0.71875,-0.044922 -0.778767,0.153549 -0.788031,0.154062 -0.923828,0.03125 C 15.981861,5.834342 15.870477,5.675781 15.804688,5.546875 15.719825,5.380596 15.643053,5.3125 15.542969,5.3125 15.299479,5.3125 15.13101,5.1387171 15.025391,4.7753906 14.958618,4.5456911 14.832294,4.3244524 14.646484,4.1152344 14.443573,3.8867581 14.372699,3.7578297 14.386719,3.6425781 14.393739,3.584822 14.383534,3.5381112 14.363281,3.5 Z m -3.882813,0.6230469 c -0.07342,-0.00829 -0.05623,0.1476852 0.07813,0.4257812 0.147145,0.3045665 0.27533,0.3939319 0.53125,0.3730469 0.140731,-0.011485 0.1875,-0.046804 0.1875,-0.140625 0,-0.086595 -0.0643,-0.1446362 -0.208984,-0.1914062 -0.114867,-0.03713 -0.278002,-0.15666 -0.363282,-0.265625 C 10.168188,4.1922273 10.090935,4.1279969 10.046875,4.1230469 Z m 3.248047,0.4238281 c -0.0618,0.0064 -0.07448,0.042389 -0.07031,0.140625 0.0092,0.2163815 0.18702,0.8496075 0.332032,1.1875 0.06639,0.154687 0.153111,0.3700176 0.193359,0.4785156 0.04025,0.108498 0.219493,0.354592 0.398438,0.546875 C 14.426799,7.1994946 14.505349,7.25 14.697266,7.25 c 0.273738,0 0.378867,-0.114299 0.386718,-0.421875 0.0015,-0.059063 -0.03551,-0.1513171 -0.0625,-0.234375 C 14.964103,6.6987213 14.865717,6.75 14.697266,6.75 14.505349,6.75 14.426799,6.6994946 14.148438,6.4003906 13.969493,6.2081076 13.79025,5.9620136 13.75,5.8535156 13.709752,5.7450176 13.623031,5.529687 13.556641,5.375 13.459125,5.1477785 13.366432,4.8246315 13.300781,4.546875 c -0.0016,1.156e-4 -0.0044,-1.528e-4 -0.0059,0 z m -2.3125,1.2890625 c -0.01798,-0.00181 -0.03776,0.00846 -0.05859,0.029297 C 10.889458,5.8996094 10.8813,5.95964 10.90625,6 c 0.03024,0.048935 0.06576,0.053394 0.107422,0.011719 0.03438,-0.034375 0.04252,-0.096349 0.01758,-0.1367188 -0.01512,-0.02447 -0.03086,-0.037262 -0.04883,-0.039063 z m 2.296875,0.5996094 c -0.156997,0.2515363 -0.183925,0.4221655 -0.06836,0.625 0.02929,-0.058489 0.05308,-0.1134553 0.09961,-0.1835938 0.179349,-0.2703541 0.177608,-0.3312155 -0.03125,-0.4414062 z m -0.199219,0.4003906 c -0.0066,0.00657 -0.01022,0.030001 -0.01172,0.066406 -0.0027,0.065886 0.01049,0.1028012 0.03125,0.082031 0.0208,-0.020771 0.0239,-0.075979 0.0059,-0.1210938 -0.01,-0.024945 -0.01879,-0.033914 -0.02539,-0.027344 z m 0.07617,0.609375 c -0.049,0.1482647 -0.144054,0.3152737 -0.275391,0.4550781 -0.07945,0.084575 -0.128405,0.1781944 -0.109375,0.2089844 0.01903,0.03079 -0.0095,0.1395744 -0.06445,0.2402344 -0.127604,0.233774 -0.22805,0.8288296 -0.21875,1.2988286 0.007,0.355643 0.0031,0.364167 -0.144531,0.335937 -0.136818,-0.02615 -0.125346,0.0019 0.08984,0.259766 0.0156,0.01568 0.03153,0.03879 0.04687,0.05273 0.0013,-0.04955 0.0095,-0.06396 0.0078,-0.148437 -0.0093,-0.469999 0.09115,-1.065055 0.21875,-1.2988286 0.05495,-0.10066 0.08348,-0.2094444 0.06445,-0.2402344 -0.01903,-0.03079 0.02992,-0.1244089 0.109375,-0.2089844 0.233803,-0.2488775 0.370232,-0.5935795 0.292969,-0.7421875 -0.009,-0.017405 -0.0077,-0.022278 0.0039,-0.017578 0.03486,0.014105 0.15621,0.12026 0.314454,0.28125 0.149787,0.1523865 0.244472,0.2614184 0.302734,0.3496094 C 13.737762,8.1840344 13.645184,8.0765724 13.5,7.9277344 13.302177,7.7249336 13.198568,7.5821839 13.15625,7.4453125 Z m -0.675781,2.8515625 c -0.01156,-0.01187 -0.02295,-0.02253 -0.03516,-0.03711 -0.0072,-0.0086 -0.0049,-0.0075 -0.01172,-0.01563 -0.04954,-0.0498 -0.0973,-0.09095 -0.150391,-0.166016 C 11.99381,9.749606 11.738044,9.530679 11.488274,9.396478 11.285725,9.287649 11.082042,9.168143 11.037102,9.130853 c -0.09695,-0.08047 -0.613515,-0.02266 -0.83789,0.09375 -0.113569,0.05892 -0.189633,0.0613 -0.302735,0.0098 -0.132765,-0.06049 -0.172399,-0.04392 -0.332031,0.130859 -0.0998,0.109272 -0.21295,0.197266 -0.25,0.197266 -0.03705,0 -0.177726,-0.07292 -0.3125,-0.162109 C 8.8671766,9.311197 8.7277613,9.256827 8.6914062,9.279297 8.6550462,9.301767 8.625,9.446644 8.625,9.601562 c 0,0.339227 -0.073618,0.499462 -0.3339844,0.72461 -0.1055175,0.09125 -0.1398587,0.146156 -0.1210937,0.166016 -0.022415,-0.0093 -0.028674,-0.03071 -0.00586,-0.07031 0.024757,-0.04297 -0.026226,-0.01485 -0.1113281,0.0625 -0.021965,0.01996 -0.055144,0.03539 -0.083984,0.05273 C 7.965625,10.517059 7.9501625,10.5 7.9140625,10.5 7.8625015,10.5 7.802501,10.52813 7.78125,10.5625 7.769325,10.58181 7.77549,10.59788 7.78906,10.60937 7.764484,10.61467 7.736016,10.62671 7.714841,10.62695 7.5181877,10.629203 7.25,10.813356 7.25,10.945312 c 0,0.02927 -0.047729,0.09356 -0.1191406,0.173829 C 7.1947643,11.220193 7.25,11.339039 7.25,11.417969 c 0,0.07268 -0.1906588,0.287323 -0.4257812,0.507812 C 7.0571738,11.711776 7.25,11.506557 7.25,11.445312 c 0,-0.131956 0.2681877,-0.316109 0.4648438,-0.318359 0.021175,-2.41e-4 0.049643,-0.01225 0.074219,-0.01758 C 7.7754925,11.097885 7.769325,11.08181 7.78125,11.0625 7.802501,11.02813 7.8625011,11 7.9140625,11 c 0.0361,0 0.051562,0.01706 0.054687,0.03711 0.02884,-0.01734 0.062019,-0.03277 0.083984,-0.05273 0.085102,-0.07735 0.1360846,-0.10547 0.1113281,-0.0625 -0.022815,0.0396 -0.016556,0.06099 0.00586,0.07031 -0.018765,-0.01986 0.015576,-0.07477 0.1210937,-0.166016 C 8.4721713,10.66952 8.5455271,10.523612 8.5839844,10.347656 8.6007998,10.27072 8.625,10.204765 8.625,10.101562 c 0,-0.154918 0.030046,-0.299795 0.066406,-0.322265 0.036355,-0.02247 0.1757704,0.0319 0.310547,0.121094 0.134774,0.08919 0.275452,0.162109 0.3125,0.162109 0.03705,0 0.150199,-0.08799 0.25,-0.197266 0.159632,-0.174776 0.199266,-0.191352 0.332031,-0.130859 0.113102,0.05153 0.189166,0.04915 0.302735,-0.0098 0.224375,-0.116407 0.740935,-0.174218 0.83789,-0.09375 0.04494,0.03729 0.248623,0.156796 0.451172,0.265625 0.24977,0.134201 0.505536,0.353128 0.794922,0.681641 0.05309,0.07507 0.100852,0.116216 0.150391,0.166016 -0.21519,-0.257821 -0.226662,-0.28592 -0.08984,-0.259766 0.112111,0.02144 0.132211,-0.02843 0.136719,-0.185547 -3.24e-4,-3.31e-4 3.23e-4,-0.0016 0,-0.002 z m -0.04687,0.447266 c 0.0068,0.0081 0.0045,0.007 0.01172,0.01563 0.0274,0.03271 0.05096,0.05439 0.07813,0.08398 -0.02883,-0.02411 -0.06018,-0.06979 -0.08984,-0.09961 z M 12.425781,7.8125 c -0.07585,0 -0.06133,0.1535082 0.02344,0.2382812 0.09814,0.098142 0.175781,0.09579 0.175781,-0.00586 C 12.625,7.9548629 12.503671,7.8125 12.425781,7.8125 Z m -5.3925779,2.675781 c -0.033492,-0.02398 -0.1114551,0.01117 -0.1738281,0.07813 -0.062373,0.06695 -0.1606,0.121094 -0.21875,0.121094 -0.058153,0 -0.2565001,0.06284 -0.4394531,0.138672 -0.3320035,0.137611 -0.3319938,0.138129 -0.2929688,0.36914 0.082001,0.485369 -0.2647536,0.790245 -0.8066406,0.708985 -0.3804115,-0.05705 -0.5654623,0.06596 -0.7695313,0.511719 -0.148246,0.323818 -0.1658361,0.339001 -0.3398437,0.300781 -0.2391296,-0.05254 -0.4531234,0.0884 -0.6132813,0.402344 -0.018167,0.03561 -0.043415,0.06326 -0.066406,0.0957 C 3.1140746,12.517554 3.00181,11.782932 3,11.019531 v 0.5 c 0.00181,0.763401 0.1140746,1.498023 0.3125,2.195313 0.022991,-0.03244 0.048239,-0.06009 0.066406,-0.0957 C 3.5390639,13.305202 3.7530577,13.164257 3.9921873,13.2168 4.1661949,13.25502 4.183785,13.23984 4.332031,12.916019 4.5361,12.470258 4.7211508,12.347252 5.1015623,12.4043 c 0.541887,0.08126 0.8886411,-0.223616 0.8066406,-0.708985 -0.039025,-0.231011 -0.039035,-0.231529 0.2929688,-0.36914 0.182953,-0.07583 0.3813006,-0.138672 0.4394531,-0.138672 0.05815,0 0.1563765,-0.05414 0.21875,-0.121094 0.062373,-0.06695 0.1403361,-0.102105 0.1738281,-0.07813 0.03023,0.02165 0.062609,0.07679 0.09375,0.125 C 7.2024522,11.024682 7.25,10.953889 7.25,10.917969 7.25,10.799098 7.1272221,10.555601 7.0332031,10.488281 Z m 1.6816407,0.292969 c -0.1103901,0.06174 -0.2025442,0.106714 -0.2832032,0.142578 0.081084,-0.03582 0.1744547,-0.08176 0.2832032,-0.142578 z m -0.3769532,0.179688 c -0.03458,0.01252 -0.06995,0.0245 -0.09375,0.0293 0.025085,-0.0052 0.059275,-0.01692 0.09375,-0.0293 z"/>
 <path style="fill:#3876d2" d="m 3,3 v 5.2128905 2.8066405 c 0.00181,0.763401 0.1140936,1.498023 0.312519,2.195313 0.022991,-0.03244 0.048243,-0.06107 0.06641,-0.09668 0.1601578,-0.313942 0.3732124,-0.45391 0.612342,-0.401367 0.1740076,0.03822 0.1925956,0.02206 0.3408416,-0.301758 0.204069,-0.445761 0.3881895,-0.56779 0.768601,-0.510742 0.541887,0.08126 0.8886905,-0.224593 0.80669,-0.709961 -0.039025,-0.231011 -0.03804,-0.231529 0.2939635,-0.36914 0.182953,-0.07583 0.3803505,-0.137696 0.438503,-0.137696 0.05815,0 0.15639,-0.05512 0.2187635,-0.12207 0.062373,-0.06695 0.141323,-0.10211 0.174815,-0.07813 0.094019,0.06732 0.2168105,0.311793 0.2168105,0.430664 0,0.07268 -0.1906845,0.286347 -0.425807,0.506836 0.232955,-0.214005 0.425807,-0.419224 0.425807,-0.480469 0,-0.131957 0.2682165,-0.315133 0.4648725,-0.317383 0.021175,-2.41e-4 0.04867,-0.01323 0.073246,-0.01856 -0.01357,-0.01149 -0.018765,-0.02659 -0.00684,-0.0459 C 7.8027885,10.528123 7.862802,10.5 7.914363,10.5 c 0.0361,0 0.051566,0.01608 0.054691,0.03613 0.02884,-0.01734 0.062024,-0.0318 0.083989,-0.05176 0.085102,-0.07735 0.1351145,-0.10547 0.110358,-0.0625 -0.022815,0.0396 -0.016555,0.06002 0.00586,0.06934 -0.018765,-0.01986 0.01656,-0.07379 0.1220775,-0.165039 0.260366,-0.225148 0.334005,-0.385382 0.334005,-0.724609 0,-0.154918 0.03005,-0.299796 0.06641,-0.322266 0.036355,-0.02247 0.175789,0.0319 0.3105655,0.121094 0.134774,0.08919 0.275471,0.162109 0.312519,0.162109 0.03705,0 0.149237,-0.08897 0.249038,-0.198242 0.159632,-0.174776 0.199287,-0.190376 0.332052,-0.129883 0.113102,0.05153 0.189184,0.04818 0.302753,-0.01074 0.224375,-0.116407 0.741963,-0.174218 0.838918,-0.09375 0.04494,0.03729 0.247674,0.156796 0.450223,0.265625 0.24977,0.134201 0.505584,0.354104 0.79497,0.682617 0.08489,0.120019 0.164259,0.200271 0.241226,0.264649 -0.02717,-0.02959 -0.05171,-0.05127 -0.07911,-0.08398 -0.235929,-0.281803 -0.242706,-0.301398 -0.101569,-0.274418 0.14764,0.02823 0.15155,0.01873 0.144539,-0.336914 -0.0093,-0.469999 0.09116,-1.065054 0.218764,-1.298828 0.05495,-0.10066 0.08446,-0.208468 0.06543,-0.239258 -0.01903,-0.03079 0.02993,-0.1253855 0.109381,-0.209961 0.233803,-0.2488775 0.369273,-0.592603 0.29201,-0.741211 -0.009,-0.017405 -0.0067,-0.023255 0.0049,-0.018555 0.03486,0.014105 0.155252,0.1212365 0.313496,0.2822265 0.149788,0.1523865 0.245468,0.260442 0.30373,0.348633 -0.05716,-0.08745 -0.149764,-0.193937 -0.294948,-0.342775 C 13.056612,6.9725315 13.026169,6.806578 13.311176,6.376953 13.503198,6.087496 13.496183,6.040194 13.239883,5.913086 13.127707,5.8574535 13.089545,5.779903 13.074834,5.578125 13.059879,5.3730005 13.016709,5.288541 12.877556,5.189453 12.77965,5.119736 12.632063,5.0625 12.549411,5.0625 12.322077,5.0625 12.227154,4.949519 12.028871,4.4433595 11.86533,4.02588 11.822244,3.9693272 11.591345,3.8671875 11.429677,3.7956722 11.224775,3.6151954 11.033694,3.3769531 L 10.730941,3 Z m 9.025942,0 c -0.323287,0 -0.587927,0.016972 -0.587927,0.038086 0,0.021114 0.146281,0.2075107 0.325216,0.4140625 0.317971,0.3670483 0.326583,0.3724946 0.388695,0.227539 0.09635,-0.2248655 0.169692,-0.2462218 0.384789,-0.1132812 0.216365,0.1337238 0.401392,0.1579613 0.401392,0.053711 0,-0.036848 -0.0739,-0.1915355 -0.163096,-0.34375 L 12.612891,3 Z m 1.903436,0 0.01953,0.133789 c 0.01098,0.073833 0.06876,0.1582081 0.128913,0.1875 0.06015,0.029292 0.158609,0.077746 0.218764,0.1074219 0.07082,0.034937 0.103312,0.110206 0.09083,0.2128906 -0.01402,0.1152516 0.05687,0.2441802 0.259781,0.4726565 0.18581,0.209218 0.312156,0.4304565 0.378929,0.660156 0.105619,0.3633265 0.27412,0.538086 0.51761,0.538086 0.100084,0 0.175895,0.068096 0.260758,0.234375 0.06579,0.128906 0.178166,0.28649 0.249039,0.3505855 0.135797,0.122812 0.144141,0.123274 0.922908,-0.030275 0.339782,-0.066994 0.420716,-0.062648 0.718794,0.043945 0.289553,0.103545 0.357458,0.16086 0.491241,0.4140625 0.08535,0.161537 0.211934,0.319271 0.281267,0.3505855 0.188651,0.085209 0.274065,0.02464 0.3467,-0.245117 0.03607,-0.1339655 0.09196,-0.243164 0.125008,-0.243164 C 18.97633,6.1875015 19,5.571986 19,4.5937495 V 3 Z M 13.29555,4.0458985 c -0.0618,0.0064 -0.07449,0.043365 -0.07032,0.1416015 0.0092,0.2163815 0.186063,0.8496075 0.331075,1.1875 0.06639,0.154687 0.153123,0.3700175 0.193371,0.4785155 0.04025,0.108498 0.219517,0.354592 0.398462,0.546875 C 14.426499,6.6994945 14.506063,6.75 14.69798,6.75 14.971718,6.75 15.076871,6.635701 15.084722,6.328125 15.089422,6.1440135 14.984427,5.907411 14.590552,5.21875 14.137456,4.426546 14.062963,4.331024 13.81023,4.205078 13.6567,4.128568 13.461568,4.058258 13.375633,4.048828 c -0.03274,-0.0036 -0.05948,-0.00504 -0.08008,-0.00295 z m -3.248245,0.076172 c 0.04406,0.00495 0.120351,0.06918 0.223647,0.2011715 0.08528,0.108965 0.249413,0.228495 0.36428,0.265625 0.144681,0.04677 0.208997,0.1057885 0.208997,0.192383 0,0.093821 -0.04678,0.12914 -0.187511,0.140625 C 10.400798,4.94276 10.27258,4.852418 10.125435,4.5478515 9.991076,4.2697555 9.973882,4.113779 10.047305,4.1220705 Z m 0.934627,1.713867 c 0.01797,0.0018 0.03469,0.014595 0.04981,0.039065 0.02494,0.04037 0.0168,0.101367 -0.01758,0.135742 -0.04166,0.041675 -0.07719,0.038195 -0.107428,-0.01074 -0.02495,-0.04036 -0.01777,-0.101367 0.0166,-0.135742 0.02083,-0.020835 0.04062,-0.030135 0.0586,-0.02832 z m 2.097785,1 c 0.0066,-0.00657 0.01541,0.0024 0.02539,0.027345 0.01804,0.045115 0.0159,0.099347 -0.0049,0.1201175 -0.02076,0.02077 -0.03492,-0.016145 -0.03222,-0.082031 0.0015,-0.036405 0.0051,-0.05886 0.01172,-0.06543 z M 12.42538,7.8125 c 0.07789,0 0.200208,0.1413865 0.200208,0.2314455 0,0.101649 -0.07765,0.104002 -0.175792,0.00586 C 12.365025,7.9650325 12.349535,7.8125 12.425381,7.8125 Z m -3.7111635,2.46875 c -0.11039,0.06174 -0.202562,0.106714 -0.283221,0.142578 0.081084,-0.03582 0.1744725,-0.08176 0.283221,-0.142578 z m 4.5510585,0.09082 c -0.06065,0.02287 -0.10008,0.02932 -0.170909,0.06543 -0.02788,0.01422 -0.03871,0.01263 -0.06641,0.02539 0.07546,-0.0206 0.154563,-0.05033 0.237319,-0.09082 z M 8.33724,10.45996 c -0.03458,0.01252 -0.069956,0.02449 -0.093756,0.02929 0.025085,-0.0052 0.059281,-0.01691 0.093756,-0.02929 z"/>
 <path style="fill:#56d147" d="m 17.080937,7.071289 c -0.03836,0.00648 -0.07347,0.021705 -0.09766,0.045905 -0.06373,0.063745 -0.11618,0.743561 -0.06446,0.8359375 0.03721,0.066452 0.05753,0.061949 0.334005,-0.079102 C 17.530728,7.732249 17.562832,7.655688 17.367087,7.604498 17.235758,7.570153 17.230463,7.528364 17.319237,7.189459 17.341087,7.106026 17.196035,7.051863 17.080941,7.071295 Z m -3.902581,0.068359 c -0.01162,-0.0047 -0.01393,0.00115 -0.0049,0.018555 0.07726,0.148608 -0.05821,0.4923335 -0.29201,0.741211 -0.07945,0.084575 -0.128413,0.179171 -0.109382,0.209961 0.01903,0.03079 -0.01049,0.138598 -0.06543,0.239258 -0.127609,0.233774 -0.228028,0.828828 -0.218763,1.298827 0.007,0.355648 0.0031,0.365139 -0.14454,0.336914 -0.141137,-0.02698 -0.13436,-0.0074 0.101569,0.274414 0.139756,0.166928 0.288029,0.303711 0.329121,0.303711 0.04109,0 0.185487,-0.05625 0.320332,-0.125 0.134846,-0.06875 0.280923,-0.125 0.325216,-0.125 0.04429,0 0.139814,-0.05875 0.211927,-0.130859 0.08543,-0.08543 0.183448,-0.121239 0.281267,-0.102539 0.126543,0.02419 0.149423,0.0035 0.149423,-0.129883 0,-0.08706 -0.04746,-0.210305 -0.105476,-0.274414 C 13.86488,9.573326 13.86248,9.529021 13.93229,9.335937 13.97784,9.209984 13.99491,9.022676 13.97234,8.902344 13.94093,8.734919 13.95946,8.667342 14.06023,8.581055 14.230853,8.434974 14.220452,8.32205 14.030953,8.25 13.911734,8.204675 13.874693,8.14549 13.874693,8.0009765 c 0,-0.147902 -0.08326,-0.274329 -0.382836,-0.5791015 C 13.333613,7.260885 13.213224,7.153752 13.178361,7.1396485 Z M 10.075628,9.75 c -0.179276,0 -0.946855,0.299411 -1.3614115,0.53125 -0.400193,0.223807 -0.6332,0.283605 -0.5508155,0.140625 0.024755,-0.04297 -0.025255,-0.01484 -0.110358,0.0625 -0.0851,0.07734 -0.2370045,0.141428 -0.337911,0.142578 -0.196656,0.0023 -0.4648725,0.185426 -0.4648725,0.317383 0,0.129082 -0.8351515,0.885005 -1.166087,1.055664 -0.1666465,0.08594 -0.475566,0.280769 -0.686565,0.432617 -0.444907,0.320181 -1.5299403,0.90767 -1.9903561,1.094727 0.1925209,0.584309 0.4533547,1.135507 0.7676246,1.65039 0.10622,0.02514 0.2113365,0.05231 0.2793145,0.0791 0.1653605,0.06518 0.357281,0.118164 0.426784,0.118164 0.069504,0 0.109142,0.02812 0.087896,0.0625 -0.04732,0.07656 -0.476435,0.08099 -0.6318745,0.0098 0.70697,1.061549 1.6613145,1.939929 2.7833735,2.558594 0.572284,-0.224472 1.286824,-0.348309 1.474699,-0.192383 0.049035,0.0407 0.1075445,0.176306 0.129891,0.301758 0.022345,0.125453 0.097749,0.2911 0.1679785,0.368164 0.056419,0.06191 0.096521,0.166283 0.113288,0.259766 0.291673,0.07403 0.588784,0.132519 0.892632,0.173828 0.106148,-0.0495 0.157002,-0.118821 0.135751,-0.206055 -0.01777,-0.07296 0.01083,-0.220613 0.06446,-0.328125 0.0808,-0.161966 0.134089,-0.195312 0.311543,-0.195312 0.204371,0 0.214856,-0.01007 0.214856,-0.225586 0,-0.221344 0.004,-0.225769 0.203138,-0.186524 0.111714,0.02202 0.357851,0.05682 0.546908,0.07715 0.189058,0.02032 0.391453,0.07929 0.450223,0.130859 0.06816,0.0598 0.164373,0.07913 0.265641,0.05371 0.115722,-0.02904 0.159189,-0.01476 0.159189,0.05176 0,0.180855 0.123938,0.161287 0.366234,-0.05762 0.275178,-0.248614 0.351411,-0.480824 0.418971,-1.28418 0.04885,-0.580786 0.01057,-0.625523 -0.472686,-0.558594 -0.189057,0.02619 -0.367582,0.02573 -0.396508,-10e-4 -0.02892,-0.02671 -0.0595,-0.199589 -0.06739,-0.383789 -0.0079,-0.1842 -0.03711,-0.539322 -0.06543,-0.789063 -0.05217,-0.459969 -0.02564,-0.58693 0.239273,-1.139648 0.09169,-0.191315 0.359953,-0.237772 0.5723,-0.09863 0.2207,0.144612 0.396469,0.123691 0.479522,-0.05859 0.06073,-0.133297 0.05024,-0.18666 -0.06446,-0.341797 -0.172467,-0.233255 -0.169597,-0.302185 0.02051,-0.634742 0.08552,-0.149602 0.155816,-0.293556 0.15626,-0.319336 4.14e-4,-0.02578 -0.14199,-0.04687 -0.316426,-0.04687 -0.310426,0 -0.62473,0.132886 -1.432704,0.606446 -0.675181,0.395728 -0.793334,0.454378 -0.914119,0.455078 -0.07287,4.13e-4 -0.410428,0.08376 -0.750046,0.18457 C 9.68425,13.7219 9.092549,13.874514 8.7093335,13.960938 8.2472975,14.065136 7.90809,14.183027 7.702436,14.309571 7.5318625,14.414526 7.3665795,14.5 7.3342475,14.5 c -0.059795,0 -0.6748805,0.398713 -0.959043,0.62207 -0.191702,0.150682 -0.8442245,0.253226 -0.8018065,0.125977 0.02765,-0.08297 0.5292575,-0.380381 1.051822,-0.624023 0.4625935,-0.215681 0.5157675,-0.243285 0.906305,-0.47461 0.4492935,-0.266128 1.260678,-0.529732 3.260942,-1.05957 0.178082,-0.04717 0.557834,-0.218341 0.843801,-0.379883 1.024657,-0.578822 1.0407,-0.584961 1.501068,-0.584961 0.493578,0 0.595911,-0.09529 0.365256,-0.34082 -0.07599,-0.08089 -0.132679,-0.213302 -0.125984,-0.293945 0.02799,-0.33706 -0.08788,-0.420984 -0.376976,-0.271485 -0.09924,0.05132 -0.336611,0.09375 -0.527376,0.09375 -0.342918,0 -0.380124,-0.02495 -0.350607,-0.240234 0.0064,-0.04634 -0.03642,-0.137612 -0.09571,-0.203125 -0.08773,-0.09695 -0.184287,-0.117799 -0.519563,-0.108399 -0.495831,0.0139 -1.02784,-0.128229 -1.057682,-0.283203 -0.01148,-0.05961 0.02274,-0.176728 0.07715,-0.259765 0.05441,-0.08304 0.09962,-0.174887 0.09962,-0.204102 0,-0.06794 -0.408368,-0.263672 -0.549838,-0.263672 z m 6.236708,0.564453 c -0.157491,0.002 -0.281267,0.04703 -0.281267,0.147461 0,0.120369 0.02233,0.137011 0.406274,0.307617 0.406655,0.180696 0.610843,0.116926 0.539096,-0.168945 -0.04361,-0.173789 -0.401619,-0.289435 -0.664103,-0.286133 z m 0.401391,1.748047 c -0.119832,0 -0.182931,0.292713 -0.0879,0.407227 0.08591,0.103519 0.224045,0.121798 0.276385,0.03711 0.05571,-0.09015 -0.09467,-0.444337 -0.188489,-0.444337 z m 2.223769,2.8125 c -0.03437,0 -0.0625,0.02812 -0.0625,0.0625 0,0.03438 0.02813,0.0625 0.0625,0.0625 0.03438,0 0.0625,-0.02812 0.0625,-0.0625 0,-0.03437 -0.02813,-0.0625 -0.0625,-0.0625 z m 0,1.09375 c -0.06991,0.04321 -0.08516,0.362104 -0.02051,0.426758 0.0731,0.0731 0.08301,0.04716 0.08301,-0.211914 0,-0.153211 -0.02476,-0.238173 -0.0625,-0.214844 z m -5.177073,0.03223 c -0.455116,0.0019 -0.533502,0.28221 -0.0918,0.328125 0.130822,0.0136 0.246978,0.02937 0.257829,0.03515 0.05588,0.02975 0.260758,-0.129837 0.260758,-0.203125 0,-0.108968 -0.138807,-0.161357 -0.426784,-0.160157 z m -2.026491,0.699219 c 0.08357,0.01659 0.110358,0.08393 0.110358,0.284179 0,0.281958 0.0084,0.289654 0.259781,0.226563 0.2336,-0.05863 0.38042,0.134019 0.229507,0.300781 -0.05661,0.06256 -0.133267,0.112428 -0.170909,0.111328 -0.07164,-0.0021 -0.440539,-0.305049 -0.448269,-0.368164 -0.0024,-0.02004 -0.0409,-0.111762 -0.08594,-0.204102 -0.09864,-0.202266 -0.04535,-0.38052 0.105476,-0.350585 z m 5.304034,0.289062 c -0.07151,-0.02914 -0.107087,0.0037 -0.129891,0.08887 -0.02069,0.07732 -0.06769,0.241006 -0.104498,0.364258 -0.0546,0.182825 -0.04241,0.314649 0.06739,0.714844 0.07401,0.269793 0.130448,0.549101 0.125007,0.620117 -0.0054,0.07102 -0.0067,0.150001 -0.003,0.175781 0.0038,0.02578 0.207569,0.04687 0.452197,0.04687 0.432732,0 0.443592,-0.0038 0.400414,-0.140625 -0.02441,-0.07734 -0.05751,-0.225 -0.07325,-0.328125 -0.162598,-1.06543 -0.151516,-1.029199 -0.387719,-1.258789 -0.167373,-0.162686 -0.275194,-0.254061 -0.346701,-0.283203 z M 19,17.184568 l -0.250015,0.12793 c -0.317462,0.161959 -0.324117,0.320744 -0.02636,0.601563 0.122757,0.115777 0.235279,0.210937 0.250015,0.210937 0.01474,0 0.02636,-0.211216 0.02636,-0.469726 z m -6.371483,0.06543 c 0.03234,0 0.05957,0.04219 0.05957,0.09375 0,0.09665 -0.07415,0.124098 -0.14454,0.05371 -0.04993,-0.04993 0.0062,-0.147461 0.08497,-0.147461 z m -1.546969,0.148438 c 0.01133,-0.005 0.02676,-0.0028 0.04395,0.0078 0.03437,0.02125 0.0625,0.05125 0.0625,0.06641 0,0.01516 -0.02813,0.02734 -0.0625,0.02734 -0.03438,0 -0.0625,-0.03 -0.0625,-0.06641 0,-0.0182 0.0072,-0.03016 0.01855,-0.03516 z m 0.493194,0.914062 c -0.18628,0 -0.26201,0.119123 -0.184582,0.289063 0.08209,0.180175 0.146689,0.187567 0.232437,0.02735 0.09793,-0.182993 0.0777,-0.316408 -0.04786,-0.316408 z m 0.524446,0.125 c -0.117505,0 -0.182492,0.104959 -0.137704,0.22168 0.03983,0.103781 0.09548,0.111889 0.21974,0.0332 0.106221,-0.06726 0.04567,-0.254884 -0.08204,-0.254884 z m -1.415125,0.0625 c -0.02482,0 -0.06283,0.09683 -0.08497,0.214844 -0.02377,0.126695 -0.0841,0.225542 -0.14747,0.242187 -0.01848,0.0049 -0.02464,0.01009 -0.02441,0.01465 0.07185,0.005 0.144428,0.0076 0.216809,0.01074 0.06798,-0.01044 0.126809,-0.02856 0.143564,-0.05566 0.03045,-0.04927 0.01197,-0.06028 -0.0586,-0.0332 -0.09569,0.03672 -0.09772,0.02483 -0.01367,-0.137695 0.0859,-0.166126 0.07506,-0.255857 -0.03125,-0.255857 z m 8.255386,0.1875 c -0.05569,0 -0.189464,0.195982 -0.189464,0.277344 0,0.01945 0.05626,0.03516 0.125007,0.03516 C 18.966656,19 19,18.958332 19,18.84375 19,18.757812 18.97261,18.6875 18.939449,18.6875 Z"/>
 <path style="opacity:0.1;fill:#8b9cbe" d="m 3,3 v 0.5 h 7.999024 0.0019 H 19 V 3 h -7.999023 -0.002 z"/>
 <path style="opacity:0.1;fill:#8b9cbe" d="M 2,1 C 1.446,1 1,1.446 1,2 v 0.5 c 0,-0.554 0.446,-1 1,-1 h 9 9 c 0.554,0 1,0.446 1,1 V 2 C 21,1.446 20.554,1 20,1 h -9 z"/>
 <path style="opacity:0.1" d="m 17.289062,7.8476562 c -0.01893,0.010428 -0.01511,0.016118 -0.03711,0.027344 -0.269563,0.1375247 -0.294455,0.1413698 -0.330078,0.080078 -0.02257,0.2154713 -0.03423,0.4438851 -0.0039,0.4980469 0.03721,0.066452 0.05751,0.062926 0.333984,-0.078125 0.277906,-0.1417805 0.31098,-0.2183413 0.115235,-0.2695312 -0.09907,-0.02591 -0.108784,-0.099061 -0.07813,-0.2578126 z m -3.318359,0.859375 c -0.01491,0.049562 -0.01428,0.1087657 0.002,0.1953126 0.02257,0.1203322 0.0045,0.3076402 -0.04101,0.4335942 -0.06981,0.193083 -0.06644,0.236412 0.02539,0.33789 0.0033,0.0036 0.0027,0.01164 0.0059,0.01563 0.01678,-0.101549 0.02478,-0.207059 0.0098,-0.287109 C 13.941373,9.234924 13.959903,9.16637 14.060673,9.080083 14.23117,8.9339971 14.220752,8.82205 14.03125,8.75 14.00198,8.738873 13.99073,8.720886 13.9707,8.707031 Z m -0.06445,1.3710938 c -0.09586,-0.01618 -0.191677,0.0198 -0.275391,0.103516 -0.07211,0.07211 -0.166647,0.130859 -0.210937,0.130859 -0.04429,0 -0.191326,0.05625 -0.326172,0.125 -0.134845,0.06875 -0.279222,0.125 -0.320312,0.125 -0.03665,0 -0.167868,-0.1295 -0.292969,-0.271484 -0.004,0.162979 -0.02323,0.215056 -0.136719,0.193359 -0.141137,-0.02698 -0.134367,-0.0084 0.101562,0.273437 0.139757,0.166929 0.287033,0.304688 0.328126,0.304688 0.04109,0 0.185467,-0.05625 0.320312,-0.125 0.134846,-0.06875 0.281879,-0.125 0.326172,-0.125 0.04429,0 0.138824,-0.05875 0.210937,-0.130859 0.08543,-0.08543 0.183431,-0.122216 0.28125,-0.103516 0.126543,0.02419 0.150391,0.0045 0.150391,-0.128906 0,-0.08706 -0.04745,-0.211282 -0.105469,-0.275391 -0.03253,-0.03595 -0.03993,-0.06495 -0.05078,-0.0957 z m -3.435547,0.324219 c -0.0036,0.02425 -0.02476,0.0572 -0.02148,0.07422 0.0082,0.04276 0.05944,0.08525 0.132812,0.123047 0.01355,-0.02953 0.04297,-0.07353 0.04297,-0.08594 0,-0.0238 -0.08309,-0.07007 -0.154297,-0.111328 z m 5.841797,0.412109 c -0.157491,0.002 -0.28125,0.04605 -0.28125,0.146485 0,0.120369 0.02231,0.137987 0.40625,0.308593 0.406655,0.180696 0.610809,0.115949 0.539062,-0.169922 -0.04361,-0.173789 -0.401578,-0.288458 -0.664062,-0.285156 z m -2.910156,1.292969 c -0.07168,0.01002 -0.155935,0.01758 -0.265625,0.01758 -0.460368,0 -0.475343,0.0052 -1.5,0.583984 -0.285967,0.161542 -0.665668,0.33369 -0.84375,0.38086 -2.0002642,0.529838 -2.8124255,0.792465 -3.261719,1.058594 -0.3905375,0.231324 -0.4436565,0.258928 -0.90625,0.474609 -0.5225645,0.243642 -1.0231312,0.54203 -1.0507812,0.625 C 5.5318007,15.375296 6.183298,15.271776 6.375,15.121094 6.6591625,14.897737 7.2741894,14.5 7.3339844,14.5 7.3663164,14.5 7.5325515,14.41355 7.703125,14.308594 7.908779,14.18205 8.2469484,14.065136 8.7089844,13.960938 9.0922,13.874508 9.68382,13.721857 10.023438,13.621094 c 0.339618,-0.10081 0.67713,-0.183181 0.75,-0.183594 0.120784,-7e-4 0.238881,-0.05935 0.914062,-0.455078 0.807974,-0.47356 1.123168,-0.607422 1.433594,-0.607422 0.174436,0 0.31682,0.0211 0.316406,0.04687 -2.62e-4,0.01523 -0.05405,0.114949 -0.0918,0.189453 0.295863,-0.02888 0.346578,-0.125523 0.15625,-0.328125 -0.04557,-0.04851 -0.07743,-0.112487 -0.09961,-0.175781 z m 3.310547,0.455078 c -0.119832,0 -0.182922,0.291736 -0.08789,0.40625 0.08591,0.103519 0.225004,0.121797 0.277344,0.03711 0.05571,-0.09015 -0.09563,-0.443359 -0.189453,-0.443359 z m -3.492188,0.328125 c -0.08253,0.177197 -0.09509,0.29388 0.01758,0.453125 0.01965,-0.03825 0.01558,-0.05364 0.04297,-0.101562 0.08552,-0.149602 0.155806,-0.294533 0.15625,-0.320313 2.84e-4,-0.01765 -0.118712,-0.02326 -0.216797,-0.03125 z m -0.707031,0.810547 c -0.105071,0.01814 -0.19439,0.07817 -0.240234,0.173828 -0.264913,0.552718 -0.292405,0.680656 -0.240235,1.140625 7.72e-4,0.0068 0.0012,0.01453 0.002,0.02148 0.02771,-0.173544 0.09181,-0.356501 0.238282,-0.662109 0.09169,-0.191315 0.359918,-0.236798 0.572265,-0.09766 0.2207,0.144612 0.395463,0.123687 0.478516,-0.05859 0.06073,-0.133297 0.05025,-0.18666 -0.06445,-0.341797 -0.01325,-0.01792 -0.01812,-0.0307 -0.0293,-0.04687 -0.09439,0.06424 -0.227024,0.05063 -0.384766,-0.05273 -0.106173,-0.06957 -0.226961,-0.09431 -0.332031,-0.07617 z m -8.9394532,0.24414 c -0.046019,0.02062 -0.1278575,0.06653 -0.1660157,0.08203 0.1925209,0.584309 0.4533083,1.135507 0.7675781,1.65039 0.1062201,0.02514 0.2113189,0.05133 0.2792969,0.07813 0.056893,0.02243 0.089371,0.02314 0.1464844,0.04102 C 4.5138796,15.679806 4.4191571,15.569291 4.3378906,15.447266 4.4933301,15.518456 4.92143,15.51406 4.96875,15.4375 4.989996,15.40312 4.9503634,15.375 4.8808594,15.375 4.8113564,15.375 4.6204386,15.32104 4.4550781,15.255859 4.3871001,15.229069 4.2820013,15.202879 4.1757812,15.177729 3.938648,14.789228 3.7441132,14.373794 3.5742188,13.945312 Z M 18.9375,15.375 c -0.03437,0 -0.0625,0.02812 -0.0625,0.0625 0,0.03438 0.02813,0.0625 0.0625,0.0625 C 18.97188,15.5 19,15.47188 19,15.4375 19,15.40313 18.97187,15.375 18.9375,15.375 Z M 4.3378906,15.947266 c 0.70697,1.061549 1.6611441,1.939928 2.7832032,2.558593 0.5722839,-0.224472 1.2867343,-0.347332 1.4746093,-0.191406 0.049035,0.0407 0.1065598,0.175329 0.1289063,0.300781 0.022345,0.125453 0.097739,0.292077 0.1679687,0.369141 0.056419,0.06191 0.096514,0.166283 0.1132809,0.259766 0.291673,0.07403 0.58873,0.132519 0.892579,0.173828 0.106147,-0.0495 0.157969,-0.119798 0.136718,-0.207031 -0.01777,-0.07296 0.01082,-0.220614 0.06445,-0.328126 0.0808,-0.161965 0.133093,-0.195312 0.310547,-0.195312 0.204371,0 0.214844,-0.0091 0.214844,-0.224609 0,-0.221344 0.004,-0.226745 0.203125,-0.1875 0.111714,0.02202 0.357818,0.0578 0.546875,0.07813 0.01717,0.0018 0.02375,0.0093 0.04102,0.01172 0.03651,-0.03162 0.08624,-0.05273 0.158203,-0.05273 0.07307,0 0.09846,0.0531 0.09766,0.126953 0.04744,0.01753 0.134192,0.02728 0.154297,0.04492 0.03907,0.03428 0.08745,0.05172 0.140625,0.05859 0.0183,-0.05949 0.05919,-0.105469 0.132812,-0.105469 0.06893,0 0.11477,0.05434 0.128907,0.115234 0.0085,0.01079 0.02148,0.01722 0.02148,0.03711 0,0.180855 0.124892,0.160313 0.367188,-0.05859 0.275178,-0.248614 0.350408,-0.479847 0.417968,-1.283203 0.01824,-0.216866 0.01492,-0.342161 -0.0098,-0.431641 -0.06581,0.727967 -0.144077,0.976215 -0.408203,1.214844 -0.242296,0.218907 -0.367188,0.239449 -0.367188,0.05859 0,-0.0093 -0.008,-0.01028 -0.0098,-0.01758 -0.02772,0.017 -0.061,0.05128 -0.07813,0.05078 -0.0186,-5.45e-4 -0.08176,-0.05235 -0.128906,-0.08398 -0.07867,0.0062 -0.152499,-0.0068 -0.207031,-0.05469 -0.05877,-0.05157 -0.262114,-0.110539 -0.451172,-0.130859 -0.189057,-0.02033 -0.435161,-0.0561 -0.546875,-0.07813 -0.199138,-0.03924 -0.203125,-0.03384 -0.203125,0.1875 0,0.215516 -0.01047,0.224609 -0.214844,0.224609 -0.177454,0 -0.229747,0.03335 -0.310547,0.195312 -0.05363,0.107512 -0.08222,0.255166 -0.06445,0.328126 0.02125,0.08723 -0.03057,0.157531 -0.136718,0.207031 C 9.594519,18.876658 9.297462,18.818168 9.005789,18.74414 8.989022,18.65066 8.948927,18.546284 8.8925081,18.484374 8.8222791,18.407314 8.7468844,18.240686 8.7245394,18.115233 8.7021924,17.989781 8.6446684,17.855152 8.5956331,17.814452 c -0.187875,-0.155926 -0.9023254,-0.03307 -1.4746093,0.191406 -0.9228906,-0.50885 -1.7233524,-1.201877 -2.375,-2.019531 -0.1482782,0.01053 -0.3155935,0.0034 -0.4082032,-0.03906 z M 18.9375,16.46875 c -0.06991,0.04321 -0.08613,0.361127 -0.02148,0.425781 C 18.98912,16.967631 19,16.942671 19,16.683594 19,16.530383 18.97524,16.445421 18.9375,16.46875 Z m -5.177734,0.0332 c -0.455116,0.0019 -0.533499,0.28221 -0.0918,0.328125 0.130822,0.0136 0.246961,0.02742 0.257812,0.0332 0.05588,0.02975 0.261719,-0.129837 0.261719,-0.203125 0,-0.108968 -0.139757,-0.159403 -0.427734,-0.158203 z m -2.025391,0.199219 c -0.150826,-0.02993 -0.204109,0.147343 -0.105469,0.349609 0.03439,0.0705 0.0528,0.118098 0.06641,0.15625 0.01354,-0.0012 0.02334,-0.009 0.03906,-0.0059 0.0623,0.01237 0.08604,0.07298 0.09766,0.175781 0.11526,0.111096 0.27955,0.244613 0.330078,0.246094 0.03764,0.0011 0.115265,-0.04877 0.171875,-0.111328 0.150913,-0.166762 0.0031,-0.359412 -0.230468,-0.300781 -0.251381,0.06309 -0.259766,0.0554 -0.259766,-0.226563 0,-0.200249 -0.02581,-0.266613 -0.109375,-0.283203 z M 12.628906,17.25 c -0.07877,0 -0.135867,0.09655 -0.08594,0.146484 0.07039,0.07039 0.144531,0.04392 0.144531,-0.05273 0,-0.05156 -0.02625,-0.09375 -0.05859,-0.09375 z m -1.546875,0.148438 c -0.01135,0.005 -0.01953,0.01696 -0.01953,0.03516 0,0.03641 0.02812,0.06641 0.0625,0.06641 0.03437,0 0.0625,-0.01218 0.0625,-0.02734 0,-0.01516 -0.02813,-0.04516 -0.0625,-0.06641 -0.01719,-0.0106 -0.03164,-0.01281 -0.04297,-0.0078 z m 7.916016,0.285156 c -0.0013,0.236288 -0.0096,0.441406 -0.02344,0.441406 -0.01474,0 -0.129196,-0.09516 -0.251953,-0.210938 -0.02047,-0.0193 -0.02733,-0.03454 -0.04492,-0.05273 -0.229733,0.146302 -0.223024,0.30003 0.04492,0.552734 C 18.845413,18.52984 18.959873,18.625 18.974609,18.625 18.989349,18.625 19,18.412807 19,18.154297 v -0.470703 z m -7.916016,0.214844 c 0.01133,-0.005 0.02578,-0.0028 0.04297,0.0078 0.03437,0.02125 0.0625,0.05125 0.0625,0.06641 0,0.01516 -0.02813,0.02734 -0.0625,0.02734 -0.03438,0 -0.0625,-0.03 -0.0625,-0.06641 0,-0.0182 0.0082,-0.03016 0.01953,-0.03516 z m 5.732422,0.002 c -0.0045,0.01534 -0.0074,0.02853 -0.01172,0.04297 -0.0546,0.182825 -0.04144,0.314649 0.06836,0.714844 0.07401,0.269793 0.130441,0.548125 0.125,0.619141 -0.0054,0.07102 -0.0076,0.150001 -0.0039,0.175781 0.0038,0.02578 0.208496,0.04687 0.453124,0.04687 0.432733,0 0.443569,-0.0038 0.400391,-0.140625 -0.02441,-0.07734 -0.05848,-0.225 -0.07422,-0.328125 -0.004,-0.02643 -0.004,-0.02178 -0.0078,-0.04687 C 17.703513,18.995293 17.627081,19 17.445312,19 c -0.244628,0 -0.449325,-0.02109 -0.453124,-0.04687 -0.0037,-0.02578 -0.0015,-0.104761 0.0039,-0.175781 0.0054,-0.07102 -0.05099,-0.349348 -0.125,-0.619141 -0.03222,-0.117437 -0.04045,-0.178525 -0.05664,-0.257812 z M 11.574219,18.8125 c -0.18628,0 -0.261022,0.119123 -0.183594,0.289062 0.08209,0.180175 0.146674,0.187561 0.232422,0.02734 0.09793,-0.182993 0.07673,-0.316406 -0.04883,-0.316406 z m 0.52539,0.125 c -0.117505,0 -0.18346,0.103982 -0.138671,0.220703 0.03983,0.103781 0.09644,0.111892 0.220703,0.0332 0.106221,-0.06726 0.04568,-0.253906 -0.08203,-0.253906 z M 10.683594,19 c -0.02482,0 -0.06184,0.09683 -0.08399,0.214844 -0.02377,0.126695 -0.08507,0.225542 -0.148437,0.242187 -0.01848,0.0049 -0.02367,0.0091 -0.02344,0.01367 0.07185,0.005 0.144416,0.0086 0.216797,0.01172 0.06798,-0.01044 0.125823,-0.02954 0.142578,-0.05664 0.03045,-0.04927 0.01198,-0.05833 -0.05859,-0.03125 -0.09569,0.03672 -0.09772,0.02385 -0.01367,-0.138672 C 10.800744,19.089733 10.789904,19 10.683594,19 Z m 8.255859,0.1875 c -0.05569,0 -0.189453,0.195982 -0.189453,0.277344 0,0.01945 0.05625,0.03516 0.125,0.03516 0.09166,-2e-6 0.125,-0.04167 0.125,-0.15625 0,-0.08594 -0.02739,-0.15625 -0.06055,-0.15625 z"/>
</svg>
