<svg xmlns="http://www.w3.org/2000/svg" height="22" width="22" version="1.1">
 <circle cx="11" cy="11.5" r="10" style="opacity:.2"/>
 <circle cx="11" cy="11" r="10" style="fill:#f964a6"/>
 <path d="m11 1a10 10 0 0 0 -10 10 10 10 0 0 0 0.0098 0.293 10 10 0 0 1 9.9902 -9.793 10 10 0 0 1 9.99 9.707 10 10 0 0 0 0.01 -0.207 10 10 0 0 0 -10 -10z" style="opacity:.2;fill:#8b9cbe"/>
 <path style="opacity:.2" d="m17 7.5000004v4.9999996h1v-4.9999996zm-11 2c-0.554 0-1 0.446-1 0.9999996v3c0 0.554 0.446 1 1 1h1c0.554 0 1-0.446 1-1v-3c0-0.5539996-0.446-0.9999996-1-0.9999996zm4 0s-1 0-1 0.9999996v1s0 1 1 1h1v1h-2s0 1 1 1h1s1 0 1-1v-1s0-1-1-1h-1v-1h2s0-0.9999996-1-0.9999996zm3 0v3.9999996c0 1 1 1 1 1h1c1 0 1-1 1-1v-3.9999996h-1v3.9999996h-1v-3.9999996zm-6.5 0.9999996c0.277 0 0.5 0.446 0.5 1v1c0 0.554-0.223 1-0.5 1s-0.5-0.446-0.5-1v-1c0-0.554 0.223-1 0.5-1zm10.5 3v1h1v-1z"/>
 <path style="fill:#8b9cbe" d="m17 7v5h1v-5zm-11 2c-0.554 0-1 0.446-1 1v3c0 0.554 0.446 1 1 1h1c0.554 0 1-0.446 1-1v-3c0-0.554-0.446-1-1-1zm4 0s-1 0-1 1v1s0 1 1 1h1v1h-2s0 1 1 1h1s1 0 1-1v-1s0-1-1-1h-1v-1h2s0-1-1-1zm3 0v4c0 1 1 1 1 1h1c1 0 1-1 1-1v-4h-1v4h-1v-4zm-6.5 1c0.277 0 0.5 0.446 0.5 1v1c0 0.554-0.223 1-0.5 1s-0.5-0.446-0.5-1v-1c0-0.554 0.223-1 0.5-1zm10.5 3v1h1v-1z"/>
</svg>
