<svg xmlns="http://www.w3.org/2000/svg" width="22" height="22" version="1.1">
 <path style="opacity:0.2" d="m 11,1.5 c -5.1012485,-8.7e-6 -8.9999228,4.635952 -9,10 7.72e-5,5.364048 3.8987515,10.000008 9,10 5.101248,8e-6 8.999923,-4.635952 9,-10 -7.7e-5,-5.364048 -3.898752,-10.0000087 -9,-10 z"/>
 <path style="fill:#3a4b37" d="m 11,1 c -5.1012485,-8.8e-6 -8.9999228,4.635952 -9,10 7.72e-5,5.364048 3.8987515,10.000008 9,10 5.101248,8e-6 8.999923,-4.635952 9,-10 C 19.999923,5.635952 16.101248,0.9999912 11,1 Z"/>
 <path style="opacity:0.2" d="m 11,3.5 a 6.9999895,8.0001315 0 0 0 -7,8 6.9999895,8.0001315 0 0 0 7,8 6.9999895,8.0001315 0 0 0 7,-8 6.9999895,8.0001315 0 0 0 -7,-8 z m 0,3 a 3.9998858,4.9999448 0 0 1 4,5 3.9998858,4.9999448 0 0 1 -4,5 3.9998858,4.9999448 0 0 1 -4,-5 3.9998858,4.9999448 0 0 1 4,-5 z"/>
 <path style="fill:#a1eaa4" d="m 11,3 a 6.9999895,8.0001315 0 0 0 -7,8 6.9999895,8.0001315 0 0 0 7,8 6.9999895,8.0001315 0 0 0 7,-8 6.9999895,8.0001315 0 0 0 -7,-8 z m 0,3 a 3.9998858,4.9999448 0 0 1 4,5 3.9998858,4.9999448 0 0 1 -4,5 3.9998858,4.9999448 0 0 1 -4,-5 3.9998858,4.9999448 0 0 1 4,-5 z"/>
 <path style="opacity:0.1;fill:#8b9cbe" d="m 11,1 c -5.1012485,-8.8e-6 -8.9999228,4.635952 -9,10 1.2e-6,0.08415 0.00981,0.166225 0.011719,0.25 C 2.1315414,5.9935325 5.9787775,1.4999914 11,1.5 c 5.021222,-8.6e-6 8.868458,4.4935325 8.988281,9.75 C 19.990191,11.166225 19.999999,11.084149 20,11 19.999923,5.635952 16.101248,0.9999912 11,1 Z"/>
 <path style="opacity:0.1;fill:#8b9cbe" d="M 11,3 A 6.9999895,8.0001315 0 0 0 4,11 6.9999895,8.0001315 0 0 0 4.00977,11.207031 6.9999895,8.0001315 0 0 1 11,3.5 6.9999895,8.0001315 0 0 1 17.990234,11.292969 6.9999895,8.0001315 0 0 0 18,11 6.9999895,8.0001315 0 0 0 11,3 Z m 3.992188,8.207031 A 3.9998858,4.9999448 0 0 1 11,16 3.9998858,4.9999448 0 0 1 7.0078125,11.292969 3.9998858,4.9999448 0 0 0 7,11.5 a 3.9998858,4.9999448 0 0 0 4,5 3.9998858,4.9999448 0 0 0 4,-5 3.9998858,4.9999448 0 0 0 -0.0078,-0.292969 z"/>
</svg>
