<svg xmlns="http://www.w3.org/2000/svg" width="22" height="22" version="1.1">
 <path style="opacity:0.2" d="m 11,1.5 a 10,10 0 0 0 -10,10 10,10 0 0 0 10,10 10,10 0 0 0 10,-10 10,10 0 0 0 -10,-10 z m 0,7.428711 A 2.1052633,2.5714286 0 0 1 13.105263,11.5 2.1052633,2.5714286 0 0 1 11,14.071289 2.1052633,2.5714286 0 0 1 8.894737,11.5 2.1052633,2.5714286 0 0 1 11,8.928711 Z"/>
 <path style="fill:#ae2d20" d="M 11,1 A 10,10 0 0 0 1,11 10,10 0 0 0 11,21 10,10 0 0 0 21,11 10,10 0 0 0 11,1 Z m 0,7.428711 A 2.1052633,2.5714286 0 0 1 13.105263,11 2.1052633,2.5714286 0 0 1 11,13.571289 2.1052633,2.5714286 0 0 1 8.894737,11 2.1052633,2.5714286 0 0 1 11,8.428711 Z"/>
 <path style="opacity:0.2" d="m 11,3.5 a 7.9999995,8 0 0 0 -8,8 7.9999995,8 0 0 0 8,8 7.9999995,8 0 0 0 8,-8 7.9999995,8 0 0 0 -8,-8 z m 0,3.7647059 A 3.5000001,4.2352941 0 0 1 14.5,11.5 3.5000001,4.2352941 0 0 1 11,15.735294 3.5000001,4.2352941 0 0 1 7.5,11.5 3.5000001,4.2352941 0 0 1 11,7.2647059 Z"/>
 <path style="fill:#8b9cbe" d="m 11,3 a 7.9999995,8 0 0 0 -8,8 7.9999995,8 0 0 0 8,8 7.9999995,8 0 0 0 8,-8 7.9999995,8 0 0 0 -8,-8 z m 0,3.7647059 A 3.5000001,4.2352941 0 0 1 14.5,11 3.5000001,4.2352941 0 0 1 11,15.235294 3.5000001,4.2352941 0 0 1 7.5,11 3.5000001,4.2352941 0 0 1 11,6.7647059 Z"/>
 <path style="opacity:0.2" d="m 16.70442,21.215726 c -0.875129,-0.104372 -1.753084,-0.193381 -2.623797,-0.327095 -0.196991,-0.282213 0.02988,-0.686969 0.0228,-1.01954 0.213745,-1.097009 1.060493,-1.974386 2.012357,-2.578394 0.554979,-0.396254 1.213089,-0.74439 1.542443,-1.34816 0.09014,-0.408387 0.04363,-0.856471 -0.141004,-1.236162 -0.332027,-0.374597 -0.929033,-0.353324 -1.394794,-0.282977 -0.385154,0.01405 -0.767934,0.35382 -1.092896,0.346289 -0.02332,-0.512377 0.0099,-1.03208 0.09864,-1.53744 0.193851,-0.544231 0.869579,-0.673213 1.404523,-0.714646 1.052775,-0.08774 2.241933,0.140424 2.930112,0.959297 0.506394,0.582447 0.581414,1.370206 0.518105,2.094053 -0.02345,0.980129 -0.804991,1.749134 -1.613124,2.268388 -0.538513,0.351526 -1.155742,0.624934 -1.588588,1.099407 -0.03672,0.358424 0.651733,0.2312 0.918425,0.329246 0.648741,0.08575 1.30961,0.125946 1.944611,0.280092 0.04957,0.569676 -0.03067,1.146739 -0.103297,1.713166 0.0087,0.417352 -0.568326,0.155471 -0.835602,0.179534 -0.666777,-0.07118 -1.332614,-0.150039 -1.998911,-0.225058 z"/>
 <path style="fill:#fd9a00" d="m 16.70442,20.715726 c -0.875129,-0.104372 -1.753084,-0.193381 -2.623797,-0.327095 -0.196991,-0.282213 0.02988,-0.686969 0.0228,-1.01954 0.213745,-1.097009 1.060493,-1.974386 2.012357,-2.578394 0.554979,-0.396254 1.213089,-0.74439 1.542443,-1.34816 0.09014,-0.408387 0.04363,-0.856471 -0.141004,-1.236162 -0.332027,-0.374597 -0.929033,-0.353324 -1.394794,-0.282977 -0.385154,0.01405 -0.767934,0.35382 -1.092896,0.346289 -0.02332,-0.512377 0.0099,-1.03208 0.09864,-1.53744 0.193851,-0.544231 0.869579,-0.673213 1.404523,-0.714646 1.052775,-0.08774 2.241933,0.140424 2.930112,0.959297 0.506394,0.582447 0.581414,1.370206 0.518105,2.094053 -0.02345,0.980129 -0.804991,1.749134 -1.613124,2.268388 -0.538513,0.351526 -1.155742,0.624934 -1.588588,1.099407 -0.03672,0.358424 0.651733,0.2312 0.918425,0.329246 0.648741,0.08575 1.30961,0.125946 1.944611,0.280092 0.04957,0.569676 -0.03067,1.146739 -0.103297,1.713166 0.0087,0.417352 -0.568326,0.155471 -0.835602,0.179534 -0.666777,-0.07118 -1.332614,-0.150039 -1.998911,-0.225058 z"/>
 <path style="opacity:0.1;fill:#8b9cbe" d="M 11,1 A 10,10 0 0 0 1,11 10,10 0 0 0 1.0097656,11.207031 10,10 0 0 1 11,1.5 10,10 0 0 1 20.990234,11.292969 10,10 0 0 0 21,11 10,10 0 0 0 11,1 Z M 8.90625,11.234375 A 2.1052633,2.5714286 0 0 0 8.8945312,11.5 2.1052633,2.5714286 0 0 0 11,14.070312 2.1052633,2.5714286 0 0 0 13.105469,11.5 2.1052633,2.5714286 0 0 0 13.09375,11.265625 2.1052633,2.5714286 0 0 1 11,13.570312 2.1052633,2.5714286 0 0 1 8.90625,11.234375 Z"/>
</svg>
