<svg xmlns="http://www.w3.org/2000/svg" width="22" height="22" version="1">
 <path style="opacity:0.2" d="M 7,20.5 5,18.5 H 2.5 C 1.669,18.5 1,17.831 1,17 V 5 C 1,4.169 1.669,3.5 2.5,3.5 H 19.5 C 20.331,3.5 21,4.169 21,5 V 17 C 21,17.831 20.331,18.5 19.5,18.5 H 17 L 15,20.5 Z"/>
 <path style="fill:#2c80c2" d="M 7,20 5,18 H 2.5 C 1.669,18 1,17.331 1,16.5 V 4.5 C 1,3.669 1.669,3 2.5,3 H 19.5 C 20.331,3 21,3.669 21,4.5 V 16.5 C 21,17.331 20.331,18 19.5,18 H 17 L 15,20 Z"/>
 <path style="opacity:0.5" d="M 9,17 6.75,15 H 4 V 6 H 18 V 15 H 15 L 13,17 Z"/>
 <g style="fill:#f8c44e" transform="scale(1,-1)">
  <rect width="1" height="2" x="7" y="-8"/>
  <rect width="1" height="2" x="9" y="-8"/>
  <rect width="1" height="2" x="11" y="-8"/>
  <rect width="1" height="2" x="13" y="-8"/>
  <rect width="1" height="2" x="15" y="-8"/>
 </g>
 <path style="opacity:0.2;fill:#8b9cbe" d="M 2.5,3 C 1.669,3 1,3.669 1,4.5 V 5 C 1,4.169 1.669,3.5 2.5,3.5 H 19.5 C 20.331,3.5 21,4.169 21,5 V 4.5 C 21,3.669 20.331,3 19.5,3 Z"/>
 <path style="opacity:0.2;fill:#8b9cbe" d="M 4,15 V 15.5 H 6.75 L 9,17.5 H 13 L 15,15.5 H 18 V 15 H 15 L 13,17 H 9 L 6.75,15 Z"/>
</svg>
