<svg xmlns="http://www.w3.org/2000/svg" width="22" height="22" version="1">
 <path fill="#fecd38" d="m11 1.0001c-5.54 0-10 4.46-10 9.9999 0 5.54 4.46 10 10 10 3.4053 0 6.4025-1.6851 8.207-4.2704l-8.207-5.7295 9.4475-3.2975c-1.357-3.9107-5.065-6.7029-9.448-6.7029z"/>
 <circle fill="#17191e" cx="11.5" cy="5.5" r="1.5"/>
 <path fill="#fff" opacity=".2" d="m11 1.0001c-5.54 0-10 4.46-10 9.9999 0 0.084 0.0038 0.1665 0.00585 0.25 0.13235-5.423 4.5381-9.75 9.994-9.75 4.2158 0 7.8 2.5857 9.2755 6.2615l0.17187-0.05957c-1.357-3.9099-5.064-6.7019-9.447-6.7019zm0.4775 10.333-0.4775 0.167 7.962 5.5585c0.08281-0.10884 0.16674-0.2168 0.24511-0.3291l-7.7295-5.3965z"/>
 <path opacity=".2" d="m20.275 7.7615-9.2755 3.2385 0.47754 0.33301 8.9695-3.1308c-0.053-0.1495-0.114-0.2943-0.173-0.4404zm-19.269 3.4885c-0.00205 0.0835-0.00585 0.166-0.00585 0.25 0 5.54 4.46 10 10 10 3.4053 0 6.403-1.6852 8.207-4.2705l-0.245-0.171c-1.8235 2.397-4.7045 3.9415-7.962 3.9415-5.456 0-9.862-4.327-9.994-9.75z"/>
</svg>
