<svg xmlns="http://www.w3.org/2000/svg" width="22" height="22" version="1.1">
 <path style="opacity:0.2" d="M 2.5384617,20.5 H 19.461538 C 20.313846,20.5 21,19.7864 21,18.9 V 15 H 1.0000001 v 3.9 c 0,0.8864 0.6861538,1.6 1.5384616,1.6 z"/>
 <path style="fill:#b2bfd9" d="M 2.5384617,20 H 19.461538 C 20.313846,20 21,19.2864 21,18.4 V 15 H 1.0000001 v 3.4 c 0,0.8864 0.6861538,1.6 1.5384616,1.6 z"/>
 <path style="fill:#17191e" d="M 2.5384617,1 H 19.461538 C 20.313846,1 21,1.7136 21,2.6 V 15 H 1.0000001 V 2.6 c 0,-0.8864 0.6861538,-1.6 1.5384616,-1.6 z"/>
 <rect style="fill:#7e7e7e" width="10" height="1" x="9" y="17"/>
 <rect style="fill:#f04113" width="6" height="1" x="3" y="17"/>
 <rect style="opacity:0.2;fill:#8b9cbe" width="2" height="1" x="8" y="17"/>
 <path style="opacity:0.2" d="m 11,3.5 c -2.7597309,0 -5,2.2402691 -5,5 0,2.759731 2.2402691,5 5,5 2.759731,0 5,-2.240269 5,-5 0,-2.7597309 -2.240269,-5 -5,-5 z M 11,4 c 2.486899,0 4.5,2.013101 4.5,4.5 C 15.5,10.986898 13.486899,13 11,13 8.5131018,13 6.5,10.986898 6.5,8.5 6.5,6.013101 8.5131018,4 11,4 Z M 10.003906,6.25 10,10.75 13.599609,8.503906 Z"/>
 <path style="fill:#8b9cbe" d="M 13.6,8.003022 10,10.25 10.0032,5.75 Z"/>
 <path style="fill:#8b9cbe" d="M 11,3 C 8.2402691,3 6,5.2402691 6,8 c 0,2.759731 2.2402691,5 5,5 2.759731,0 5,-2.240269 5,-5 0,-2.7597309 -2.240269,-5 -5,-5 z m 0,0.5 c 2.486899,0 4.5,2.013101 4.5,4.5 0,2.486898 -2.013101,4.5 -4.5,4.5 C 8.5131018,12.5 6.5,10.486898 6.5,8 6.5,5.513101 8.5131018,3.5 11,3.5 Z"/>
 <rect style="opacity:0.1" width="16" height=".5" x="3" y="18"/>
 <path style="opacity:0.1;fill:#8b9cbe" d="M 2.538086,1.0003906 C 1.6857782,1.0003906 1,1.7136 1,2.6 V 3.1 C 1,2.2136 1.6857782,1.5003906 2.538086,1.5003906 H 19.461914 C 20.314221,1.5003906 21,2.2136 21,3.1 V 2.6 C 21,1.7136 20.314221,1.0003906 19.461914,1.0003906 Z"/>
 <rect style="opacity:0.2;fill:#8b9cbe" width="20" height=".5" x="1" y="15"/>
</svg>
