<svg xmlns="http://www.w3.org/2000/svg" width="22" height="22" version="1">
 <path style="opacity:0.2;fill:none;stroke:#141414;stroke-width:4;stroke-linecap:round;stroke-linejoin:round" d="m 11.014484,19.535515 c 0,0 0,-9.5 0,-12 0,-2.5 2,-4 4,-4 2,0 4,1.5 4,4 0,2.5 -2,4 -4,4 -2,0 -11.999999,0 -11.999999,0"/>
 <path style="fill:#58a90a" d="M 15.014484,1.0355 A 6,6 0 0 0 9.8806955,3.94175 c -0.02516,0.040897 -0.04805,0.083382 -0.07226,0.125 a 6,6 0 0 0 -0.189454,0.354492 c -0.04956,0.100594 -0.0937,0.204368 -0.137695,0.308594 a 6,6 0 0 0 -0.08398,0.208008 c -0.04752,0.1260245 -0.08983,0.254903 -0.128907,0.385742 a 6,6 0 0 0 -0.05566,0.1992185 c -0.03199,0.122899 -0.06071,0.2472505 -0.08496,0.3740235 a 6,6 0 0 0 -0.04492,0.275391 c -0.01463,0.102442 -0.02865,0.2048435 -0.03809,0.30957 A 6,6 0 0 0 9.0144845,7.0355 v 2 h 1.9999995 v -2 a 4,4 0 0 1 4,-4 4,4 0 0 1 4,4 4,4 0 0 1 -4,4 h -3 -1 H 9.0144845 8.514485 0.98714118 a 2.0002,2.0002 0 0 0 2.02734382,2 h 5.9999995 v 6 a 2.0002,2.0002 0 0 0 1.9999995,2.027344 V 13.0355 h 2 2 a 6,6 0 0 0 6,-6 6,6 0 0 0 -6,-6 z"/>
 <path style="fill:#b2bfd9" d="m 15.014484,3.0355 c -2.209139,0 -4,1.790861 -4,4 v 2 H 9.0144845 3.014485 c -1.1151867,-0.01514 -2.02733502,0.884711 -2.02734382,2 h 7.52734382 0.4999995 1.9999995 1 3 c 2.209139,0 4,-1.790861 4,-4 0,-2.209139 -1.790861,-4 -4,-4 z m 0,2 c 1,0 2,0.5666665 2,2 0,1.4333335 -1,2 -2,2 h -2 v -2 c 0,-1.4333335 1,-2 2,-2 z m -4,8 v 8.027344 c 1.11529,-9e-6 2.015135,-0.912157 2,-2.027344 v -6 z m -0.0088,8.027344 c 0.0088,-0.02734 0,0 0,0 z"/>
 <rect style="opacity:0.2" width="4" height=".5" x="9.01" y="13.04"/>
 <path style="opacity:0.2;fill:#8b9cbe" d="m 15.014484,1.0355 c -3,0 -5.9999995,2.4333334 -5.9999995,6 v 0.5 c 0,-3.5666666 2.9999995,-6 5.9999995,-6 2.92847,0 5.849321,2.3218521 5.987305,5.75 0.0034,-0.083735 0.0127,-0.164959 0.0127,-0.25 0,-3.5666666 -3,-6 -6,-6 z m 1.977539,6.25 c -0.114123,1.242221 -1.040404,1.75 -1.977539,1.75 h -2 v 0.5 h 2 c 1,0 2,-0.5666665 2,-2 0,-0.090107 -0.0148,-0.1666685 -0.02246,-0.25 z M 3.014485,9.0355 A 2.0002,2.0002 0 0 0 1.0037428,11.29136 2.0002,2.0002 0 0 1 3.014485,9.5355 h 5.9999995 v -0.5 z"/>
 <rect style="opacity:0.2;fill:#8b9cbe" width="4" height=".5" x="9.01" y="9.04"/>
</svg>
