<svg width="22" height="22" version="1.1" xmlns="http://www.w3.org/2000/svg">
 <path d="m2 1.5c-0.554 0-1 0.446-1 1v7c0 0.554 0.446 1 1 1h1v2h-1c-0.554 0-1 0.446-1 1v7c0 0.554 0.446 1 1 1h7c0.554 0 1-0.446 1-1v-1h2v1c0 0.554 0.446 1 1 1h7c0.554 0 1-0.446 1-1v-7c0-0.554-0.446-1-1-1h-1v-2h1c0.554 0 1-0.446 1-1v-7c0-0.554-0.446-1-1-1h-7c-0.554 0-1 0.446-1 1v1h-2v-1c0-0.554-0.446-1-1-1z" style="opacity:.2"/>
 <rect x="1" y="1" width="9" height="9" ry="1" style="fill:#b2bfd9"/>
 <rect x="12" y="1" width="9" height="9" ry="1" style="fill:#b2bfd9"/>
 <rect x="1" y="12" width="9" height="9" ry="1" style="fill:#b2bfd9"/>
 <rect x="12" y="12" width="9" height="9" ry="1" style="fill:#b2bfd9"/>
 <path d="m2 1c-0.554 0-1 0.446-1 1v0.5c0-0.554 0.446-1 1-1h7c0.554 0 1 0.446 1 1v-0.5c0-0.554-0.446-1-1-1zm11 0c-0.554 0-1 0.446-1 1v0.5c0-0.554 0.446-1 1-1h7c0.554 0 1 0.446 1 1v-0.5c0-0.554-0.446-1-1-1zm-11 11c-0.554 0-1 0.446-1 1v0.5c0-0.554 0.446-1 1-1h7c0.554 0 1 0.446 1 1v-0.5c0-0.554-0.446-1-1-1zm11 0c-0.554 0-1 0.446-1 1v0.5c0-0.554 0.446-1 1-1h7c0.554 0 1 0.446 1 1v-0.5c0-0.554-0.446-1-1-1z" style="fill:#8b9cbe;opacity:.2"/>
 <path d="m4 3.5c-0.554 0-1 0.446-1 1v5.5h6c0.554 0 1-0.446 1-1v-5.5zm8 0v5.5c0 0.554 0.446 1 1 1h6v-5.5c0-0.554-0.446-1-1-1zm-9 8.5v6.5c0 0.554 0.446 1 1 1h6v-6.5c0-0.554-0.446-1-1-1zm10 0c-0.554 0-1 0.446-1 1v6.5h6c0.554 0 1-0.446 1-1v-6.5z" style="opacity:.1"/>
 <rect x="3" y="3" width="16" height="16" ry="1" style="fill:#4f4f4f"/>
 <path d="m8 7.5c-0.554 0-1 0.446-1 1v6c0 0.554 0.446 1 1 1h6c0.554 0 1-0.446 1-1v-6c0-0.554-0.446-1-1-1zm0.5 1h5c0.277 0 0.5 0.223 0.5 0.5v5c0 0.277-0.223 0.5-0.5 0.5h-5c-0.277 0-0.5-0.223-0.5-0.5v-5c0-0.277 0.2642977-0.5 0.5-0.5z" style="opacity:.2"/>
 <path d="m8 7c-0.554 0-1 0.446-1 1v6c0 0.554 0.446 1 1 1h6c0.554 0 1-0.446 1-1v-6c0-0.554-0.446-1-1-1zm0.5 1h5c0.277 0 0.5 0.223 0.5 0.5v5c0 0.277-0.223 0.5-0.5 0.5h-5c-0.277 0-0.5-0.223-0.5-0.5v-5c0-0.277 0.2642977-0.5 0.5-0.5z" style="fill:#8b9cbe"/>
 <path d="m4 3c-0.554 0-1 0.446-1 1v0.5c0-0.554 0.446-1 1-1h14c0.554 0 1 0.446 1 1v-0.5c0-0.554-0.446-1-1-1z" style="fill:#8b9cbe;opacity:.1"/>
</svg>
