<svg xmlns="http://www.w3.org/2000/svg" width="22" height="22" version="1">
 <rect style="opacity:0.2" width="18" height="22" x="-20.5" y="-22" rx="1.125" ry="1.1" transform="matrix(0,-1,-1,0,0,0)"/>
 <rect style="fill:#4f4f4f" width="18" height="22" x="-20" y="-22" rx="1.125" ry="1.1" transform="matrix(0,-1,-1,0,0,0)"/>
 <path style="opacity:0.2" d="m 6,4.5 v 2 H 2 v 10 h 4 v 2 h 10 v -2 h 4 v -10 h -4 v -2 z"/>
 <rect style="fill:#8b9cbe" width="10" height="14" x="6" y="4"/>
 <rect style="fill:#8b9cbe" width="10" height="18" x="6" y="-20" transform="rotate(90)"/>
 <path style="opacity:0.1" d="m 14,6.5 v 1 h 1 V 9.001953 A 2.5,2.5 0 0 0 13.5,8.5 2.5,2.5 0 0 0 11,11 2.5,2.5 0 0 0 13.5,13.5 2.5,2.5 0 0 0 15,12.996094 V 13.5 h 2 v -1 h -1 v -5 h 1 v -1 z m -10,2 v 1 H 5 V 11 14.5 H 4 v 1 h 3 v -1 H 6 V 12.998047 A 2.5,2.5 0 0 0 7.5,13.5 2.5,2.5 0 0 0 10,11 2.5,2.5 0 0 0 7.5,8.5 2.5,2.5 0 0 0 6,9.003906 V 8.5 H 5 Z m 3.5,1 A 1.4999999,1.4999999 0 0 1 9,11 1.4999999,1.4999999 0 0 1 7.5,12.5 1.4999999,1.4999999 0 0 1 6,11 1.4999999,1.4999999 0 0 1 7.5,9.5 Z m 6,0 A 1.4999999,1.4999999 0 0 1 15,11 1.4999999,1.4999999 0 0 1 13.5,12.5 1.4999999,1.4999999 0 0 1 12,11 1.4999999,1.4999999 0 0 1 13.5,9.5 Z"/>
 <g transform="translate(-2,-1)">
  <rect style="fill:#17191e" width="1" height="6.5" x="7" y="9"/>
  <rect style="fill:#17191e" width="1" height="3" x="15" y="-9" transform="rotate(90)"/>
  <rect style="fill:#17191e" width="1" height="2" x="9" y="-8" transform="rotate(90)"/>
  <path style="fill:#17191e" d="M 9.5,9 A 2.5,2.5 0 0 0 7,11.5 2.5,2.5 0 0 0 9.5,14 2.5,2.5 0 0 0 12,11.5 2.5,2.5 0 0 0 9.5,9 Z m 0,1 A 1.4999999,1.4999999 0 0 1 11,11.5 1.4999999,1.4999999 0 0 1 9.5,13 1.4999999,1.4999999 0 0 1 8,11.5 1.4999999,1.4999999 0 0 1 9.5,10 Z"/>
 </g>
 <g transform="rotate(-180,11.5,11)">
  <rect style="fill:#17191e" width="1" height="6.5" x="7" y="9"/>
  <rect style="fill:#17191e" width="1" height="3" x="15" y="-9" transform="rotate(90)"/>
  <rect style="fill:#17191e" width="1" height="2" x="9" y="-8" transform="rotate(90)"/>
  <path style="fill:#17191e" d="M 9.5,9 A 2.5,2.5 0 0 0 7,11.5 2.5,2.5 0 0 0 9.5,14 2.5,2.5 0 0 0 12,11.5 2.5,2.5 0 0 0 9.5,9 Z m 0,1 A 1.4999999,1.4999999 0 0 1 11,11.5 1.4999999,1.4999999 0 0 1 9.5,13 1.4999999,1.4999999 0 0 1 8,11.5 1.4999999,1.4999999 0 0 1 9.5,10 Z"/>
 </g>
 <path style="opacity:0.1;fill:#8b9cbe" d="M 1.0996094,2 C 0.4902094,2 0,2.50175 0,3.125 v 0.5 C 0,3.00175 0.4902094,2.5 1.0996094,2.5 H 20.900391 C 21.509791,2.5 22,3.00175 22,3.625 v -0.5 C 22,2.50175 21.509791,2 20.900391,2 Z"/>
</svg>
