<svg xmlns="http://www.w3.org/2000/svg" width="22" height="22" version="1.1">
 <path style="opacity:0.2" d="M 7.8896108,20.371561 C 4.5301479,19.846137 2.0257442,17.705288 1.2091747,14.66091 0.91714489,13.57213 0.93247989,11.885811 1.2452247,10.698482 2.276199,6.7842298 5.8262571,3.6209367 10.253444,2.6716673 c 1.13675,-0.2437398 3.384963,-0.2248599 4.431673,0.0372 3.329403,0.8336145 5.440791,2.8257832 6.149126,5.8019164 0.265015,1.1134644 0.20696,2.7976183 -0.13628,3.9535373 -0.518695,1.746789 -1.336514,3.098163 -2.708618,4.475737 -2.680219,2.690914 -6.511621,3.992673 -10.0997192,3.431488 z"/>
 <path style="fill:#4f4f4f" d="M 7.8896108,19.871563 C 4.5301479,19.346138 2.0257442,17.205289 1.2091747,14.160911 0.91714489,13.072132 0.93247989,11.385813 1.2452247,10.198484 2.276199,6.2842311 5.8262571,3.1209379 10.253444,2.1716685 c 1.13675,-0.2437399 3.384963,-0.2248599 4.431673,0.0372 3.329403,0.8336145 5.440791,2.8257834 6.149126,5.8019166 0.265015,1.113464 0.20696,2.7976179 -0.13628,3.9535369 -0.518695,1.746789 -1.336514,3.098164 -2.708618,4.475738 -2.680219,2.690913 -6.511621,3.992672 -10.0997192,3.431488 z"/>
 <path style="opacity:0.2" d="M 17.154297,5.482422 12.078125,6.7050782 9,6.0000001 V 7.4453126 L 5,8.4082032 v 2.0527348 l 5.503906,-1.2734379 c 0.03326,-0.6643263 0.580937,-1.1862538 1.246094,-1.1875 0.443804,3.559e-4 0.854143,0.2360035 1.078125,0.6191406 L 17.822266,7.3789063 C 17.672349,6.6686613 17.43633,6.0448331 17.154297,5.482422 Z m 0.832031,3.1679687 -2.021484,0.4667964 c -0.04626,0.3 -0.09925,0.591229 -0.173828,0.859375 C 15.416307,11.323792 14.758473,12.30936 12.833984,13.150391 10.854997,14.015236 7.791621,14.637716 5,15.244141 v 2.046875 c 1.2371741,-0.271513 2.620124,-0.550913 4,-0.875 V 17.5 h 3 v -1.908203 c 0.567985,-0.186812 1.121117,-0.384903 1.634766,-0.609375 2.360028,-1.031367 3.585697,-2.686184 4.082031,-4.470703 0.126552,-0.455009 0.212048,-0.9169499 0.273437,-1.3808599 0.0064,-0.0479 0.01034,-0.0962 0.0098,-0.1445309 -0.0015,-0.1146764 -0.008,-0.2249016 -0.01367,-0.3359375 z M 9,10.855469 5,11.787109 v 2.095703 l 4,-0.933593 z"/>
 <path style="fill:#ff4b4b" d="M 17.154789,4.982422 5,7.9082032 v 2.0527349 l 5.503906,-1.273438 c 0.03326,-0.6643263 0.580937,-1.1862538 1.246094,-1.1875 0.443804,3.559e-4 0.854143,0.2360035 1.078125,0.6191406 L 17.822758,6.8789063 C 17.672841,6.1686613 17.436822,5.5448331 17.154789,4.982422 Z M 17.98682,8.1503907 15.965336,8.6171876 C 15.919076,8.9171869 15.866086,9.2084151 15.791508,9.4765621 15.416799,10.823792 14.758098,11.80936 12.833609,12.650391 10.854622,13.515236 7.791621,14.137716 5,14.744141 v 2.046875 c 2.6961695,-0.591706 6.077689,-1.191277 8.634391,-2.308594 2.360028,-1.031367 3.586564,-2.686184 4.082898,-4.470703 0.126552,-0.4550089 0.212048,-0.9169499 0.273437,-1.3808595 0.0064,-0.0479 0.01037,-0.096205 0.0098,-0.1445313 -0.0015,-0.1146764 -0.008,-0.2249016 -0.01367,-0.3359375 z M 9,10.355469 5,11.287109 v 2.095703 l 4,-0.933593 z"/>
 <rect style="fill:#ff4b4b" width="3" height="2" x="9" y="15"/>
 <path style="fill:#ff4b4b" d="m 9.000001,5.5000096 3.499998,0.7999995 -0.5,0.6999995 -1.719309,0.4999997 H 9.000001 Z"/>
 <path style="opacity:0.1;fill:#8b9cbe" d="M 12.502928,2.0009883 C 11.667943,1.9939783 10.822281,2.0500167 10.253906,2.1718866 5.8267196,3.121156 2.2760975,6.2839961 1.2451231,10.198249 1.0640455,10.885706 0.98560639,11.739654 1.0058655,12.548833 1.0227969,11.897646 1.1011329,11.244904 1.2451231,10.698248 2.2760975,6.7839958 5.8267196,3.6211557 10.253906,2.6718863 c 1.13675,-0.2437398 3.384929,-0.2249505 4.431639,0.03711 3.329403,0.8336144 5.440099,2.8256207 6.148433,5.8017539 0.09514,0.3997232 0.147513,0.8741399 0.161133,1.3701169 0.01694,-0.673572 -0.03435,-1.3374444 -0.161133,-1.8701166 C 20.125644,5.0346168 18.014948,3.0426105 14.685545,2.2089961 14.16219,2.0779662 13.337914,2.0079984 12.502928,2.0009883 Z"/>
 <path style="opacity:0.2;fill:#8b9cbe" d="M 17.154297,4.982422 12.078125,6.2050782 9,5.5000001 v 0.5 l 3.078125,0.7050781 5.076172,-1.2226562 c 0.216455,0.4316397 0.391031,0.9143935 0.535156,1.4296875 l 0.132813,-0.033203 C 17.672349,6.1686613 17.43633,5.5448331 17.154297,4.982422 Z M 9,6.9453126 5,7.9082032 v 0.5 L 9,7.4453126 Z m 8.986328,1.2050781 -2.021484,0.4667969 C 15.918584,8.9171869 15.865594,9.2084161 15.791016,9.4765621 15.416307,10.823792 14.758473,11.80936 12.833984,12.650391 10.854997,13.515236 7.791621,14.137716 5,14.744141 v 0.5 c 2.791621,-0.606425 5.854997,-1.228905 7.833984,-2.09375 1.924489,-0.841031 2.582323,-1.826599 2.957032,-3.1738289 0.07458,-0.268146 0.127568,-0.559374 0.173828,-0.859374 l 2.021484,-0.4667974 c 8.8e-4,-0.00657 0.003,-0.012957 0.0039,-0.019531 0.0064,-0.0479 0.01034,-0.096205 0.0098,-0.1445313 -0.0015,-0.1146764 -0.008,-0.2249016 -0.01367,-0.3359375 z M 9,10.355469 5,11.287109 v 0.5 l 4,-0.93164 z"/>
</svg>
