<svg xmlns="http://www.w3.org/2000/svg" width="22" height="22" version="1">
 <rect style="fill:#6e85e9" width="20" height="20" x="1" y="1" rx="1" ry="1"/>
 <path style="opacity:0.1;fill:#8b9cbe" d="M 2,1 C 1.446,1 1,1.446 1,2 l 0,0.5 c 0,-0.554 0.446,-1 1,-1 l 18,0 c 0.554,0 1,0.446 1,1 L 21,2 C 21,1.446 20.554,1 20,1 L 2,1 Z"/>
 <path style="opacity:0.2" d="m 2,21.5 c -0.554,0 -1,-0.446 -1,-1 L 1,20 c 0,0.554 0.446,1 1,1 l 18,0 c 0.554,0 1,-0.446 1,-1 l 0,0.5 c 0,0.554 -0.446,1 -1,1 l -18,0 z"/>
 <path style="opacity:0.1;fill-rule:evenodd" d="m 12.893037,6.499848 -0.625,0.455601 -1.590908,0.626419 -0.352272,0.364444 -0.272726,0.2050185 -0.05682,0.478363 0.113635,0.250557 0.106961,0.6087785 0.386364,0.751697 0.420454,0.535315 -0.158908,1.081994 -0.749999,1.617308 -0.454545,0.728915 -0.638545,0.922541 -0.03409,0.421401 -0.486455,0.364471 0.590909,0.535314 -0.097818,0.63781 0.056818,1.601015 0.222818,1.628674 0.227272,1.184516 1.963228,0 -0.159092,-0.04556 0.204545,-0.182235 -0.03409,-0.512532 0.215909,-0.444184 -0.181818,0.02268 0.279589,-0.569463 0,-0.569488 0.21591,-0.296122 0,-0.387228 0.443181,-0.803752 0.03409,-0.512531 -0.09091,-0.421402 0.154728,-0.478358 0.238637,-0.387252 0,-0.239166 0.272726,-0.03417 0.238636,-0.239192 0.21591,-0.603637 0.477272,-0.535313 0.568181,-0.216384 0.352274,0.307513 0.874999,0.261949 0.693181,0.36447 0.329545,0.421402 0.568182,0.05696 1.795454,0.785872 0.920454,0.330296 0.749999,0.569463 L 21,17.097067 21,16.880683 20.602273,16.573169 21,16.675665 l 0,-0.854193 -0.06818,0 -0.352273,-0.148087 -0.238638,-0.125279 0.352274,-0.296122 0.09091,-0.216384 -0.05682,-0.148087 -0.329543,0.05696 -0.693182,0.36447 -0.09091,0.182235 -0.238638,-0.05696 -0.863635,-0.489749 -0.03409,-0.330297 -0.511364,-0.261949 -0.863635,-0.455575 -0.215909,0.148062 0.0341,-0.205018 -0.477272,-0.455575 -0.420456,-0.113887 -0.386363,-0.455575 -0.125,-0.148062 0.386363,0.27334 -0.05682,-0.307514 0.306818,0.159453 -0.09091,-0.455575 0.420455,0.387227 -0.181819,-0.261949 0.420454,0.170844 -0.363636,-0.50114 0.272728,0.0911 -0.125,-0.489724 0.215908,0.18221 -0.306817,-0.444184 0.306817,0.09113 -0.272725,-0.364471 0.363634,-0.03418 -0.397726,-0.239166 0.238636,-0.113913 -0.261363,-0.03417 0.352272,-0.330296 -0.329545,0.03417 0.0341,-0.216383 0.03409,-0.592246 -0.181819,0.410011 -0.215909,-0.592245 0.03409,0.478358 -0.125,0.03417 -0.295455,0 -0.329545,-0.489749 -0.329544,0 -0.386364,-0.330297 -0.181818,0.182236 -0.454545,0.157286 -0.440737,0 -0.124999,0.296123 0.124999,0.480523 -0.06818,0.353054 -0.295454,-0.170819 -0.238637,-0.4556 L 12.306837,9.91032 12.102292,9.693936 11.647746,9.488919 11.336241,8.845966 l 0.03409,-0.387227 1.261363,-0.9681115 0.590909,0.27334 0.09091,0.2050175 0,0.250562 0.159092,0.2050175 0.295453,0.091105 0.204546,-0.182235 0.03409,-0.204997 L 13.915784,7.946202 13.733966,7.855097 13.62033,7.707036 13.881694,7.5817575 13.824874,7.28561 l 0,-0.18221 -0.181832,-0.182235 -0.09091,-0.2733405 -0.352273,-0.079739 -0.306817,-0.068348 z"/>
 <path style="fill:#17191e;fill-rule:evenodd" d="m 12.893037,5.999848 -0.625,0.455601 -1.590908,0.626419 -0.352272,0.364444 -0.272726,0.2050185 -0.05682,0.478363 0.113635,0.250557 0.106961,0.6087785 0.386364,0.751697 0.420454,0.535315 -0.158908,1.081994 -0.749999,1.617308 -0.454545,0.728915 -0.638545,0.922541 -0.03409,0.421401 -0.486455,0.364471 0.590909,0.535314 -0.097818,0.63781 L 9.050092,18.18681 9.27291,19.815484 9.500182,21 l 1.963228,0 -0.159092,-0.04556 0.204545,-0.182235 -0.03409,-0.512532 0.215909,-0.444184 -0.181818,0.02268 0.279589,-0.569463 0,-0.569488 0.21591,-0.296122 0,-0.387228 0.443181,-0.803752 0.03409,-0.512531 -0.09091,-0.421402 0.154728,-0.478358 0.238637,-0.387252 0,-0.239166 0.272726,-0.03417 0.238636,-0.239192 0.21591,-0.603637 0.477272,-0.535313 0.568181,-0.216384 0.352274,0.307513 0.874999,0.261949 0.693181,0.36447 0.329545,0.421402 0.568182,0.05696 1.795454,0.785872 0.920454,0.330296 0.749999,0.569463 L 21,16.597067 21,16.380683 20.602273,16.073169 21,16.175665 l 0,-0.854193 -0.06818,0 -0.352273,-0.148087 -0.238638,-0.125279 0.352274,-0.296122 0.09091,-0.216384 -0.05682,-0.148087 -0.329543,0.05696 -0.693182,0.36447 -0.09091,0.182235 -0.238638,-0.05696 -0.863635,-0.489749 -0.03409,-0.330297 -0.511364,-0.261949 -0.863635,-0.455575 -0.215909,0.148062 0.0341,-0.205018 -0.477272,-0.455575 -0.420456,-0.113887 -0.386363,-0.455575 -0.125,-0.148062 0.386363,0.27334 -0.05682,-0.307514 0.306818,0.159453 -0.09091,-0.455575 0.420455,0.387227 -0.181819,-0.261949 0.420454,0.170844 -0.363636,-0.50114 0.272728,0.0911 -0.125,-0.489724 0.215908,0.18221 -0.306817,-0.444184 0.306817,0.09113 -0.272725,-0.364471 0.363634,-0.03418 -0.397726,-0.239166 0.238636,-0.113913 -0.261363,-0.03417 0.352272,-0.330296 -0.329545,0.03417 0.0341,-0.216383 0.03409,-0.592246 -0.181819,0.410011 -0.215909,-0.5922455 0.03409,0.4783585 -0.125,0.03417 -0.295455,0 -0.329545,-0.489749 -0.329544,0 -0.386364,-0.330297 -0.181818,0.1822355 -0.454545,0.1572865 -0.440737,0 -0.124999,0.296123 0.124999,0.480523 -0.06818,0.353054 L 13.20701,9.979807 12.968373,9.524207 12.306837,9.41032 12.102292,9.193936 11.647746,8.9889185 11.336241,8.345966 l 0.03409,-0.387227 1.261363,-0.9681115 0.590909,0.27334 0.09091,0.2050175 0,0.250562 0.159092,0.2050175 0.295453,0.091105 0.204546,-0.182235 0.03409,-0.204997 L 13.915784,7.446202 13.733966,7.355097 13.62033,7.207036 13.881694,7.0817575 13.824874,6.78561 l 0,-0.18221 -0.181832,-0.182235 -0.09091,-0.2733405 -0.352273,-0.079739 -0.306817,-0.068348 z"/>
</svg>
