<svg xmlns="http://www.w3.org/2000/svg" width="22" height="22" version="1">
 <rect style="fill:#0a7cb4" width="20" height="20" x="1" y="1" rx="1" ry="1"/>
 <path style="opacity:0.2" d="m 6.4523,6.5001 c -1.0034,-0.01123 -2.1996,1.0214 -2.416,3.9561 -0.23063,3.1303 0.6738,3.4394 1.6543,3.4394 0.8167,0 1.4724,-0.4033 2.1914,-1.2304 0.10846,-0.12521 0.22972,-0.18923 0.27734,-0.14258 0.04786,0.04665 0.084165,0.082 0.08008,0.0791 -0.00385,-0.0034 -0.057175,0.1195 -0.1084,0.27734 -0.14117,0.4351 -0.35681,1.2804 -0.13965,1.874 0.056755,0.15542 0.1753,0.13391 0.22364,-0.02442 0.1152,-0.37757 0.33666,-1.0284 0.57715,-1.3554 0.09788,-0.13367 0.21208,-0.05815 0.20703,0.10742 -0.03078,1.0075 0.29946,2.8432 1.8047,4.0098 1.5742,1.2207 3.8685,1.1894 5.1125,0.66795 0.15223,-0.0643 0.38918,-0.0605 0.55175,-0.03125 0.10004,0.01789 0.22726,0.02922 0.38574,0.02051 0.46078,-0.02611 -0.30815,-0.41222 -0.35938,-0.61815 -0.05074,-0.20643 0.35942,-0.24583 0.44238,-0.90235 0.08345,-0.6575 -0.4414,-0.02539 -0.4414,-0.02539 0,0 -0.38516,0.44483 -1.9228,0.34766 -1.4167,-0.08871 -3.1058,-0.80655 -3.0488,-3.335 0.0041,-0.16606 0.05618,-0.31466 0.10644,-0.33496 0.05026,-0.01982 0.19003,0.05537 0.27636,0.19629 0.2138,0.3476 0.40466,0.9109 0.5088,1.253 0.04858,0.15808 0.16616,0.18058 0.22364,0.02539 0.18878,-0.51655 0.05072,-1.2228 -0.08203,-1.6836 -0.04521,-0.1593 0.0026,-0.35964 0.10938,-0.45898 0.1063,-0.09935 0.26898,-0.08322 0.37696,0.04199 0.7234,0.83515 1.3826,1.2432 2.2031,1.2432 0.98025,0 1.884,-0.30892 1.6533,-3.4394 -0.23111,-3.1303 -1.5768,-4.0961 -2.6142,-3.9414 -0.66905,0.09935 -1.1321,0.43931 -1.376,0.66895 -0.12072,0.11312 -0.2041,0.22962 -0.2041,0.24219 -2.4e-4,0.012325 -0.09472,-0.07185 -0.22266,-0.17676 -0.55915,-0.45976 -1.2621,-0.7344 -2.0254,-0.7344 -0.7532,0 -1.4479,0.26645 -2.0039,0.71485 C 8.32515,7.3345 8.22944,7.42361 8.22896,7.41732 8.22896,7.41055 8.147055,7.299 8.02681,7.18588 7.78247,6.95649 7.31986,6.61554 6.65081,6.51598 6.585985,6.50621 6.51946,6.501105 6.45257,6.500355 Z m 3.0479,2.5 c 0.27604,0 0.5,0.22397 0.5,0.5 0,0.27604 -0.22396,0.5 -0.5,0.5 -0.27603,0 -0.5,-0.22396 -0.5,-0.5 0,-0.27603 0.22397,-0.5 0.5,-0.5 z m 2,0 c 0.27604,0 0.5,0.22397 0.5,0.5 0,0.27604 -0.22396,0.5 -0.5,0.5 -0.27603,0 -0.5,-0.22396 -0.5,-0.5 0,-0.27603 0.22397,-0.5 0.5,-0.5 z"/>
 <path style="fill:#8b9cbe" d="m 6.4523,6.0001 c -1.003,-0.011 -2.1995,1.0215 -2.416,3.956 -0.2305,3.1305 0.674,3.4395 1.6545,3.4395 0.8165,0 1.4725,-0.4035 2.1915,-1.2305 0.1085,-0.125 0.2295,-0.189 0.277,-0.1425 0.048,0.0465 0.0845,0.082 0.0805,0.079 -0.004,-0.0035 -0.0575,0.1195 -0.1085,0.2775 -0.1415,0.435 -0.357,1.2805 -0.14,1.874 0.057,0.1555 0.1755,0.134 0.224,-0.0245 0.115,-0.3775 0.3365,-1.0285 0.577,-1.3555 0.098,-0.1335 0.212,-0.058 0.207,0.1075 -0.031,1.0075 0.2995,2.843 1.8045,4.0095 1.5745,1.221 3.8685,1.1895 5.1125,0.668 0.152,-0.064 0.389,-0.0605 0.552,-0.031 0.1,0.018 0.227,0.029 0.3855,0.0205 0.461,-0.026 -0.308,-0.4125 -0.3595,-0.618 -0.0505,-0.2065 0.3595,-0.246 0.4425,-0.9025 0.0835,-0.6575 -0.4415,-0.0255 -0.4415,-0.0255 0,0 -0.385,0.445 -1.9225,0.3475 -1.417,-0.0885 -3.106,-0.8065 -3.049,-3.3345 0.004,-0.1665 0.056,-0.315 0.1065,-0.335 0.05,-0.02 0.19,0.055 0.276,0.196 0.214,0.3475 0.405,0.911 0.509,1.253 0.0485,0.158 0.166,0.1805 0.2235,0.0255 0.189,-0.5165 0.051,-1.223 -0.082,-1.6835 -0.045,-0.1595 0.0025,-0.36 0.1095,-0.459 0.1065,-0.0995 0.269,-0.0835 0.377,0.042 0.7235,0.835 1.3825,1.243 2.203,1.243 0.9805,0 1.884,-0.309 1.6535,-3.4395 -0.231,-3.1305 -1.577,-4.096 -2.6145,-3.9415 -0.669,0.0995 -1.132,0.4395 -1.376,0.669 -0.1205,0.113 -0.204,0.2295 -0.204,0.2425 0,0.012 -0.0945,-0.072 -0.2225,-0.177 -0.559,-0.46 -1.262,-0.7345 -2.0255,-0.7345 -0.753,0 -1.448,0.2665 -2.004,0.715 -0.1285,0.1035 -0.224,0.193 -0.2245,0.1865 0,-0.007 -0.082,-0.1185 -0.202,-0.2315 C 7.7823,6.4561 7.3198,6.1151 6.6508,6.0156 6.5858,6.0061 6.5193,6.0006 6.4523,6.0001 Z m 3.048,2.5 c 0.276,0 0.5,0.224 0.5,0.5 0,0.276 -0.224,0.5 -0.5,0.5 -0.276,0 -0.5,-0.224 -0.5,-0.5 0,-0.276 0.224,-0.5 0.5,-0.5 z m 2,0 c 0.276,0 0.5,0.224 0.5,0.5 0,0.276 -0.224,0.5 -0.5,0.5 -0.276,0 -0.5,-0.224 -0.5,-0.5 0,-0.276 0.224,-0.5 0.5,-0.5 z"/>
 <path style="opacity:0.1;fill:#8b9cbe" d="M 2,1 C 1.446,1 1,1.446 1,2 l 0,0.5 c 0,-0.554 0.446,-1 1,-1 l 18,0 c 0.554,0 1,0.446 1,1 L 21,2 C 21,1.446 20.554,1 20,1 L 2,1 Z"/>
 <path style="opacity:0.2" d="m 2,21.5 c -0.554,0 -1,-0.446 -1,-1 L 1,20 c 0,0.554 0.446,1 1,1 l 18,0 c 0.554,0 1,-0.446 1,-1 l 0,0.5 c 0,0.554 -0.446,1 -1,1 l -18,0 z"/>
</svg>
