<svg width="22" height="22" version="1.1" xmlns="http://www.w3.org/2000/svg">
 <path d="m7 1.5s-6 3-6 10 7 10 7 10-1-1-1-3 1-3 1-3-3-2-3-6 2-8 2-8zm8 0s2 4 2 8-3 6-3 6 1 1 1 3-1 3-1 3 7-3 7-10-6-10-6-10zm-4 1-3 3 3 3 3-3zm0 7c-3 0-3 1-3 1v3s0 1 3 1 3-1 3-1v-3s0-1-3-1zm0 6a3 3 0 0 0-3 3 3 3 0 0 0 3 3 3 3 0 0 0 3-3 3 3 0 0 0-3-3z" style="opacity:.2"/>
 <path d="m11 14c3 0 3-1 3-1v-3s0-1-3-1-3 1-3 1v3s0 1 3 1z" style="fill:#1e1ee1"/>
 <path d="m11 8 3-3-3-3-3 3z" style="fill:#e31d1d"/>
 <circle cx="11" cy="18" r="3" style="fill:#ffff28"/>
 <path d="m14 21s7-3 7-10-6-10-6-10 2 4 2 8-3 6-3 6 1 1 1 3-1 3-1 3z" style="fill:#b5b5b5"/>
 <path d="m8 21s-7-3-7-10 6-10 6-10-2 4-2 8 3 6 3 6-1 1-1 3 1 3 1 3z" style="fill:#f19c04"/>
 <path d="M 7 1 C 7 1 1 4 1 11 C 1 11.079656 1.0118796 11.151847 1.0136719 11.230469 C 1.1480444 5.3521067 5.5061059 2.3745968 6.6933594 1.6738281 C 6.8747304 1.252206 7 1 7 1 z M 15 1 C 15 1 15.12527 1.252206 15.306641 1.6738281 C 16.493894 2.3745968 20.851956 5.3521067 20.986328 11.230469 C 20.98812 11.151847 21 11.079656 21 11 C 21 4 15 1 15 1 z M 11 2 L 8 5 L 8.25 5.25 L 11 2.5 L 13.75 5.25 L 14 5 L 11 2 z M 11 9 C 8 9 8 10 8 10 L 8 10.5 C 8 10.5 8 9.5 11 9.5 C 14 9.5 14 10.5 14 10.5 L 14 10 C 14 10 14 9 11 9 z M 5.0136719 9.2792969 C 5.0123292 9.3532429 5 9.4260286 5 9.5 C 5 13.002541 7.1954474 14.876907 7.7675781 15.3125 C 7.8972222 15.125824 8 15 8 15 C 8 15 5.151001 13.089374 5.0136719 9.2792969 z M 16.986328 9.2792969 C 16.848999 13.089374 14 15 14 15 C 14 15 14.102778 15.125824 14.232422 15.3125 C 14.804553 14.876907 17 13.002541 17 9.5 C 17 9.4260286 16.987671 9.3532429 16.986328 9.2792969 z M 11 15 A 3 3 0 0 0 8 18 A 3 3 0 0 0 8.0136719 18.244141 A 3 3 0 0 1 11 15.5 A 3 3 0 0 1 13.986328 18.255859 A 3 3 0 0 0 14 18 A 3 3 0 0 0 11 15 z M 7.015625 18.25 C 7.0118493 18.334945 7 18.411104 7 18.5 C 7 19.498603 7.2483965 20.248048 7.4980469 20.748047 C 7.7877363 20.899101 8 21 8 21 C 8 21 7.0967945 20.076158 7.015625 18.25 z M 14.984375 18.25 C 14.903206 20.076158 14 21 14 21 C 14 21 14.212264 20.899101 14.501953 20.748047 C 14.751603 20.248048 15 19.498603 15 18.5 C 15 18.411104 14.988151 18.334945 14.984375 18.25 z " style="fill:#8b9cbe;opacity:.2"/>
</svg>
