<svg xmlns="http://www.w3.org/2000/svg" width="22" height="22" version="1">
 <rect style="opacity:0.2" width="20" height="20" x="1" y="1.5" rx="1" ry="1"/>
 <rect style="fill:#4f4f4f" width="20" height="20" x="1" y="1" rx="1" ry="1"/>
 <path style="opacity:0.1;fill:#8b9cbe" d="M 2,1 C 1.446,1 1,1.446 1,2 v 0.5 c 0,-0.554 0.446,-1 1,-1 h 18 c 0.554,0 1,0.446 1,1 V 2 C 21,1.446 20.554,1 20,1 Z"/>
 <path style="opacity:0.2;fill:none;stroke:#000000;stroke-linecap:round;stroke-linejoin:bevel" d="m 3.5070766,11.992871 c 0,0 2.9998466,0.338925 2.9998466,-1.499906 0,-1.8388323 -2.9998466,-1.4999418 -2.9998466,-1.4999418 m 7.2e-5,5.9998558 V 8.9930972"/>
 <path style="fill:none;stroke:#a287e9;stroke-linecap:round;stroke-linejoin:bevel" d="m 3.5070766,11.492871 c 0,0 2.9998466,0.338925 2.9998466,-1.499906 0,-1.8388317 -2.9998466,-1.4999412 -2.9998466,-1.4999412 m 7.2e-5,5.9998552 V 8.4930978"/>
 <path style="opacity:0.2;fill:none;stroke:#000000;stroke-linecap:round;stroke-linejoin:round" d="M 13.5,14.992879 V 8.9931332 m -4.9957073,0 L 11,11.992945 13.5,8.9931332 M 8.5042927,14.992879 V 8.9931332"/>
 <path style="fill:none;stroke:#ffb145;stroke-linecap:round;stroke-linejoin:round" d="M 13.497851,14.492879 V 8.4931338 m -4.9957067,0 2.4957067,2.9998112 2.5,-2.9998112 M 8.5021443,14.492879 V 8.4931338"/>
 <path style="opacity:0.2;fill:none;stroke:#000000;stroke-linecap:round;stroke-linejoin:bevel" d="m 15.507121,12.492913 h 2.999848 m -2.999774,2.499966 v -4.476767 m 2.999774,4.476767 v -4.476767 m -2.999848,0 c 0,0 0.0077,-1.5229788 1.499942,-1.5229788 1.492256,0 1.499906,1.5229788 1.499906,1.5229788"/>
 <path style="fill:none;stroke:#ffb145;stroke-linecap:round;stroke-linejoin:bevel" d="m 15.507121,11.992913 h 2.999848 m -2.999774,2.499966 v -4.476767 m 2.999774,4.476767 v -4.476767 m -2.999848,0 c 0,0 0.0077,-1.5229782 1.499942,-1.5229782 1.492256,0 1.499906,1.5229782 1.499906,1.5229782"/>
</svg>
