<svg xmlns="http://www.w3.org/2000/svg" width="22" height="22" version="1">
 <path style="opacity:0.2" d="m 11.054151,1.500499 a 2.2828381,2.27395 0 0 0 -1.19552,0.30335 l -6.717112,3.863 A 2.2828381,2.27395 0 0 0 2,7.636349 v 7.726499 a 2.2828381,2.27395 0 0 0 1.141419,1.9693 l 6.717112,3.8632 a 2.2828381,2.27395 0 0 0 2.282838,0 l 6.717112,-3.8632 A 2.2828381,2.27395 0 0 0 20,15.362648 V 7.636149 a 2.2828381,2.27395 0 0 0 -1.141519,-1.9695 l -6.717112,-3.863 a 2.2828381,2.27395 0 0 0 -1.087518,-0.30335 z"/>
 <path style="fill:#f68048" d="m 11.053711,1.0000005 v 9.75e-4 C 10.634935,0.990734 10.363653,1.5933345 10.000646,1.8015777 L 3.9239628,6.127163 C 3.2174469,6.5333955 3.1023021,6.7508675 3.1024182,7.563462 L 2.889047,14.863281 c 2.343e-4,0.812245 0.00865,1.100387 0.7148589,1.506446 L 9.858399,20.44638 c 0.359128,0.206579 0.760641,0.557069 1.161442,0.553603 0.387574,-0.0034 0.774484,-0.104908 1.121761,-0.30467 l 6.716796,-3.863282 C 19.564611,16.425973 19.999765,15.675526 20,14.863281 V 7.1367195 C 20.000116,6.324125 19.564914,5.573225 18.858398,5.1669925 L 12.141602,1.3037115 C 11.810247,1.1132757 11.43616,1.0088403 11.053711,1.0000005 Z"/>
 <path style="fill:#8d259c" d="M 11,1.0019536 A 2.2828381,2.27395 0 0 0 9.858399,1.3037115 L 3.1416015,5.1669925 A 2.2828381,2.27395 0 0 0 2,7.1367195 v 7.7265615 a 2.2828381,2.27395 0 0 0 1.1416015,1.96875 L 9.858399,20.695312 A 2.2828381,2.27395 0 0 0 11,20.998047 Z"/>
 <path style="opacity:0.2" d="m 14.560547,5.403196 c -0.275201,0 -0.52615,0.13914 -0.671875,0.3710935 -0.08801,0.1389645 -0.127555,0.2943735 -0.123047,0.4472655 0,0 0,10e-4 0,10e-4 0.0023,0.076117 0.01537,0.151403 0.03907,0.223633 0,0 0,10e-4 0,10e-4 0.02378,0.072236 0.05844,0.1416215 0.102539,0.2050785 -0.05924,0.067013 -0.120895,0.1257465 -0.18457,0.177734 0,0 -10e-4,0.001 -10e-4,0.001 -0.06333,0.051609 -0.128295,0.096138 -0.193359,0.134766 0,0 -10e-4,0.001 -10e-4,0.001 C 13.135034,7.199199 12.7346,7.2128425 12.614214,7.210907 12.254255,7.0545195 11.905257,6.974313 11.601518,6.9355165 11.143893,6.8806395 10.266156,6.7255335 9.594682,6.7480165 8.949845,6.7875365 8.233079,7.0760455 7.6454635,8.0351255 7.5883955,8.0249855 7.5302,8.0195005 7.4726115,8.0195005 c -0.473315,0 -0.8793725,0.337936 -0.96582,0.803711 -0.04823,0.258432 0.00656,0.520602 0.1552735,0.737305 0.1485855,0.216573 0.3734045,0.362187 0.631836,0.410156 0.059668,0.01118 0.120216,0.0166 0.180664,0.0166 0.473315,0 0.8802195,-0.337806 0.9667965,-0.80371 C 8.5074,8.8286725 8.371805,8.482223 8.117143,8.26071 c 0.458711,-0.721866 0.994231,-0.954584 1.5,-0.991211 0.891387,-0.068071 1.413928,0.1063905 2.228515,0.234375 0.192598,0.04367 0.397801,0.108845 0.605469,0.203125 6.5e-4,2.605e-4 0.0013,6e-4 0.002,0.001 0.11196,0.050795 0.219464,0.1071805 0.322266,0.170898 0.102802,0.063719 0.200544,0.134516 0.293945,0.210938 0.187118,0.153133 0.355028,0.4810325 0.50293,0.6835935 -0.01767,0.022465 -0.0346,0.045 -0.0498,0.069336 -0.05837,0.09275 -0.09563,0.192907 -0.112305,0.294922 0,0 0,0.001 0,0.001 -0.0082,0.05069 -0.01134,0.101573 -0.0098,0.152344 0,0 0,10e-4 0,10e-4 0.0016,0.05077 0.0084,0.101983 0.01953,0.151367 0.01127,0.05013 0.02715,0.09832 0.04785,0.145508 0.04086,0.09316 0.100177,0.179088 0.175781,0.251953 0.03811,0.03679 0.07953,0.07022 0.125977,0.09961 0.127396,0.08087 0.275116,0.1240235 0.425781,0.1240235 0.274681,0 0.526673,-0.1388785 0.673828,-0.3710935 0.05869,-0.09266 0.09552,-0.192944 0.112305,-0.294922 0.02518,-0.152967 0.005,-0.309578 -0.05664,-0.4501955 -0.0616,-0.1406175 -0.164339,-0.265234 -0.30371,-0.3535155 -0.04525,-0.028485 -0.09288,-0.051183 -0.142579,-0.069336 -0.04902,-0.018035 -0.09989,-0.030945 -0.151367,-0.039065 0,0 -10e-4,0 -10e-4,0 -0.0518,-0.0081 -0.103831,-0.01159 -0.15625,-0.00977 -0.05249,0.0019 -0.105064,0.00886 -0.15625,0.02051 -0.199933,-0.280007 -0.431484,-0.6726575 -0.694336,-0.8740235 0.08152,-0.025185 0.166318,-0.056712 0.251953,-0.094726 0.04287,-0.01901 0.08663,-0.04568 0.129883,-0.06836 0.04368,-0.02296 0.08724,-0.041325 0.130859,-0.068359 0.08682,-0.053625 0.17195,-0.1158865 0.255859,-0.1875 0.08369,-0.071493 0.164873,-0.152265 0.242188,-0.2441405 0.07436,0.022275 0.151952,0.035155 0.230469,0.035155 0.06844,0 0.135889,-0.00893 0.200195,-0.02539 0.06454,-0.016635 0.126828,-0.04142 0.18457,-0.073242 0.115614,-0.063596 0.215223,-0.155751 0.288086,-0.2714845 0.0284,-0.044695 0.05157,-0.091347 0.07031,-0.1396485 0.05621,-0.144906 0.06889,-0.303467 0.03418,-0.4589845 -0.02321,-0.103931 -0.06625,-0.200438 -0.125977,-0.285156 -0.02972,-0.04216 -0.06388,-0.081328 -0.101562,-0.1171875 -0.03805,-0.0362 -0.07958,-0.068922 -0.125,-0.097656 -0.06344,-0.039995 -0.13194,-0.071077 -0.203125,-0.091797 0,0 -10e-4,0 -10e-4,0 -0.07149,-0.020725 -0.145566,-0.03125 -0.220703,-0.03125 z m 0,0.521484 c 0.05161,0 0.102675,0.01564 0.146484,0.04297 0.03113,0.01975 0.05741,0.044975 0.07813,0.074218 0.02039,0.02909 0.03595,0.061881 0.04394,0.097657 0,0 0,0.001 0,0.001 1.46e-4,6.5e-4 -1.41e-4,0.0013 0,0.00195 0.015,0.070177 0.003,0.14197 -0.03613,0.203125 -0.039,0.061813 -0.102815,0.1033295 -0.171875,0.119141 -0.06889,0.01535 -0.144117,0.00582 -0.207031,-0.03418 l -0.01269,-0.00781 c -0.05969,-0.04223 -0.09751,-0.10401 -0.110352,-0.1708985 -0.01272,-0.066248 -9e-4,-0.137508 0.03809,-0.1992185 0.05018,-0.079745 0.136418,-0.12793 0.231446,-0.12793 z m 2.743164,1.0800785 c -0.274811,0 -0.52602,0.1381445 -0.671875,0.370117 -0.208384,0.329146 -0.146028,0.754843 0.132812,1.0097655 0.0027,0.00185 0.0058,0.00594 0.0088,0.00782 -0.175364,0.587307 -0.248767,1.692525 -0.104492,2.224609 -0.01859,0.01685 -0.03753,0.03285 -0.05469,0.05176 -0.02977,0.03313 -0.05844,0.0677 -0.08301,0.106445 -0.04134,0.06533 -0.07113,0.134169 -0.0918,0.205079 -0.438215,0.06346 -0.676322,0.06754 -0.887695,0.205078 -0.264542,0.172032 -0.514227,0.334586 -1.251953,0.346679 -0.255312,-0.02995 -0.762478,-0.02368 -0.988281,-0.01563 -0.186024,0.0075 -0.377821,0.01371 -0.629883,10e-4 -0.173545,-0.0094 -0.274181,-0.115074 -0.450195,-0.315429 C 11.997063,10.934877 11.669479,10.597337 11,10.548703 v 0.520508 c 0.428337,0.03894 0.637051,0.245301 0.839844,0.476562 0.193304,0.220217 0.412959,0.469496 0.813477,0.491211 0.27533,0.01497 0.488523,0.0083 0.676757,10e-4 0.32382,-0.01123 0.879043,-0.02102 1.321289,0.08887 0.338899,0.08349 1.57329,1.256986 1.920898,1.861328 -0.01404,0.01872 -0.02867,0.03698 -0.04102,0.05664 -0.226582,0.358142 -0.133877,0.829698 0.209961,1.072265 0.0094,0.0075 0.01995,0.0136 0.03711,0.02539 0.127525,0.08068 0.27427,0.123047 0.424805,0.123047 0.275071,0 0.527126,-0.139626 0.672851,-0.371094 0.113746,-0.178584 0.150642,-0.390431 0.104493,-0.597656 -0.04654,-0.207993 -0.171716,-0.385605 -0.35254,-0.5 -0.127396,-0.08012 -0.273422,-0.123047 -0.423828,-0.123047 -0.06864,0 -0.136694,0.0095 -0.201172,0.02539 -0.332919,-0.544289 -1.125052,-1.359181 -1.714843,-1.792969 0.235682,-0.08162 0.396796,-0.186183 0.547851,-0.284179 0.185764,-0.120554 0.340255,-0.06916 0.631836,-0.118165 0.05525,0.134594 0.147928,0.255416 0.274414,0.344727 0.0094,0.0075 0.01898,0.01262 0.03614,0.02441 0.127525,0.08068 0.274269,0.124024 0.424805,0.124024 0.275071,0 0.527126,-0.139627 0.672851,-0.371094 0.113746,-0.178772 0.150641,-0.391427 0.104493,-0.598633 -0.04654,-0.207731 -0.170739,-0.384628 -0.351563,-0.499023 -0.127395,-0.08012 -0.2744,-0.123047 -0.424805,-0.123047 -0.01625,0 -0.03258,0.0011 -0.04883,0.0019 -0.0923,-0.4103885 -0.01952,-1.3599985 0.104493,-1.814453 0.01457,0.0014 0.02939,0.00295 0.04395,0.00295 0.275071,0 0.526149,-0.1384815 0.671875,-0.370117 0.11374,-0.1787175 0.151612,-0.391241 0.105463,-0.598579 C 18.034515,7.4190075 17.909341,7.24224 17.728516,7.1278455 17.601121,7.0477255 17.454117,7.004799 17.303712,7.004799 Z m 0,0.521484 c 0.05187,0 0.102937,0.014665 0.146484,0.041995 0.0624,0.0395 0.105951,0.1005945 0.12207,0.1728515 0.01585,0.070948 0.0033,0.1439055 -0.03614,0.2060545 -0.07774,0.123549 -0.25229,0.165455 -0.378906,0.084961 l -0.0127,-0.00782 c -0.119328,-0.084046 -0.150642,-0.246226 -0.07226,-0.370112 v -10e-4 C 17.122703,7.5734275 17.208942,7.526219 17.303709,7.526219 Z M 7.504883,8.530149 c 0.017925,0.0049 0.039475,0.013995 0.053711,0.0166 0.251412,0.0468 0.417632,0.2896035 0.3710935,0.5410155 -0.04615,0.247512 -0.2911635,0.416982 -0.5410155,0.371094 -0.251672,-0.0468 -0.4177625,-0.288628 -0.371094,-0.540039 0.04095,-0.219563 0.232135,-0.379883 0.455078,-0.379883 0,-0.014365 0.0143,-0.01368 0.032225,-0.00879 z m 6.691406,0.463867 c 0.052,0 0.103326,0.013846 0.146485,0.041016 0.03207,0.02037 0.05774,0.04676 0.07813,0.07617 0.02038,0.02941 0.0352,0.06233 0.04297,0.09668 0.01532,0.06882 0.0043,0.143141 -0.03614,0.207032 -0.05096,0.08031 -0.138242,0.127929 -0.233399,0.127929 -0.05161,0 -0.10144,-0.01447 -0.145508,-0.042 -0.03198,-0.02028 -0.05879,-0.04676 -0.0791,-0.07617 -0.02013,-0.02916 -0.03422,-0.0616 -0.04199,-0.0957 0,0 0,-9.99e-4 0,-9.99e-4 -0.0077,-0.03443 -0.0087,-0.07016 -0.003,-0.105469 0.0058,-0.03531 0.01791,-0.06949 0.03809,-0.101561 0.02197,-0.03463 0.05175,-0.06366 0.08789,-0.08594 0.04355,-0.02691 0.09364,-0.041014 0.145508,-0.041014 z m 3.007812,1.932617 c 0.05187,0 0.102938,0.01466 0.146485,0.04199 0.0624,0.0395 0.104974,0.100781 0.121093,0.172851 0.01585,0.07095 0.0033,0.143962 -0.03614,0.206055 -0.07774,0.123549 -0.251314,0.165455 -0.37793,0.08496 l -0.0127,-0.0078 c -0.119334,-0.08405 -0.151626,-0.246227 -0.07324,-0.370113 v -9.99e-4 c 0.05044,-0.07975 0.137656,-0.126953 0.232422,-0.126953 z m -3.404296,2.129883 c -0.278971,0 -0.541575,0.149136 -0.68457,0.388671 -0.108937,0.182703 -0.14002,0.396362 -0.08789,0.60254 0.04563,0.181017 0.151349,0.336252 0.299805,0.445312 -0.526873,1.198313 -1.498628,1.700662 -1.933594,1.90918 -0.01664,0.0056 -0.03231,0.01366 -0.04687,0.02246 -0.154305,0.06908 -0.280512,0.09101 -0.34668,0.104493 v 0.520507 c 0.03575,-0.0038 0.259356,-0.01525 0.566406,-0.155273 0.695218,-0.176338 0.88894,-0.04635 1.092774,0.0918 0.132725,0.08985 0.297359,0.202548 0.553711,0.21582 0.01299,6.5e-4 0.02639,0.001 0.04004,0.001 0.27416,0 1.172723,-0.282952 1.413086,-0.374023 0.148715,0.145076 0.347477,0.227539 0.55664,0.227539 0.189924,0 0.373673,-0.06865 0.517578,-0.192383 0.161196,-0.13815 0.259141,-0.331082 0.275391,-0.542969 0.01625,-0.212018 -0.05101,-0.417193 -0.189453,-0.578125 -0.151445,-0.176712 -0.370824,-0.27832 -0.603516,-0.27832 -0.189664,0 -0.374519,0.06774 -0.518555,0.191406 -0.209553,0.179708 -0.301576,0.446327 -0.270507,0.702149 -0.253232,0.09098 -1.054264,0.327548 -1.19336,0.323242 -0.106726,-0.0056 -0.169206,-0.04454 -0.289062,-0.125977 -0.152355,-0.103332 -0.113845,-0.196692 -0.338868,-0.240234 0.381668,-0.358929 0.881082,-0.888452 1.215821,-1.668945 0.267921,-0.0094 0.517218,-0.154575 0.655273,-0.385742 0.224243,-0.376469 0.10023,-0.866264 -0.276367,-1.091797 -0.123366,-0.07338 -0.263971,-0.112305 -0.407227,-0.112305 z m 0,0.521484 c 0.04914,0 0.09727,0.01361 0.139648,0.03907 0.129996,0.07806 0.173182,0.246119 0.0957,0.375977 -0.05005,0.08405 -0.138441,0.134765 -0.236328,0.134765 -0.04927,0 -0.09786,-0.01304 -0.140625,-0.03907 -0.06279,-0.03744 -0.107061,-0.09781 -0.125,-0.168945 -0.01793,-0.07113 -0.0072,-0.14483 0.03027,-0.208008 0.05018,-0.08386 0.13844,-0.133789 0.236327,-0.133789 z m 3.404296,0.618164 c 0.05187,0 0.102938,0.01467 0.146485,0.04199 0.0624,0.0395 0.104974,0.100594 0.121093,0.172852 0.01585,0.07113 0.0033,0.143906 -0.03614,0.206055 -0.07774,0.123549 -0.251314,0.165455 -0.37793,0.08496 l -0.0127,-0.0078 c -0.119337,-0.08405 -0.151628,-0.2461 -0.07324,-0.370118 v -9.99e-4 c 0.05044,-0.07975 0.137655,-0.126953 0.232422,-0.126953 z m -1.981445,1.789062 c 0.08021,0 0.15549,0.03546 0.208008,0.09668 0.04784,0.05597 0.07102,0.126194 0.06543,0.199219 -0.0056,0.07301 -0.03883,0.139578 -0.09473,0.1875 -0.0637,0.05466 -0.132563,0.06641 -0.178711,0.06641 -0.08073,0 -0.156856,-0.03524 -0.208984,-0.0957 -0.09854,-0.114938 -0.08477,-0.289025 0.03027,-0.387695 0.06396,-0.05504 0.132564,-0.06641 0.17871,-0.06641 z"/>
 <path style="opacity:0.2" d="M 7.9349215,7.2500005 5.5460095,8.4144995 4.25,15.459286 6.5323065,14.87408 8.453459,16.25 9.75,9.2052135 Z M 7.461712,9.7374625 C 7.0598825,9.6617925 6.794699,9.2712075 6.869535,8.864896 6.944371,8.4584505 7.3306485,8.1903095 7.7324785,8.26598 c 0.4020955,0.075671 0.667279,0.466391 0.592443,0.8727025 -0.074704,0.406311 -0.46138,0.674452 -0.8632095,0.59878 z"/>
 <path style="fill:#b66bc2" d="M 7.9349215,6.7500005 5.5460095,7.9144995 4.25,14.959286 6.5323065,14.37408 8.453459,15.75 9.75,8.7052135 Z M 7.461712,9.2374625 C 7.0598825,9.1617925 6.794699,8.771207 6.869535,8.364896 6.944371,7.9584505 7.3306485,7.6903095 7.7324785,7.76598 8.134574,7.841651 8.3997575,8.232371 8.3249215,8.638682 8.2502175,9.0449935 7.8635415,9.3131345 7.461712,9.2374625 Z"/>
 <path style="fill:#8b9cbe" d="m 14.560547,4.9042974 c -0.275201,0 -0.52615,0.1371871 -0.671875,0.3691406 -0.08801,0.1389645 -0.127555,0.2943736 -0.123047,0.4472656 0,0 0,0.00195 0,0.00195 0.0023,0.076118 0.01537,0.1523794 0.03906,0.2246094 0.02378,0.072236 0.05942,0.1416216 0.103515,0.2050782 -0.05924,0.067013 -0.121872,0.1257468 -0.185547,0.1777343 0,0 -0.002,0.00195 -0.002,0.00195 -0.06333,0.051609 -0.128295,0.096138 -0.193359,0.1347657 -0.392221,0.2324387 -0.793627,0.2460823 -0.914013,0.2441468 -0.359959,-0.1563875 -0.70798,-0.2365941 -1.011719,-0.2753906 -0.457625,-0.054877 -1.334386,-0.209983 -2.005859,-0.1875 -0.6448374,0.03952 -1.3635562,0.3280288 -1.9511718,1.2871093 -0.057068,-0.01014 -0.114287,-0.015625 -0.171875,-0.015625 -0.473315,0 -0.8803493,0.3389125 -0.9667968,0.8046876 -0.04823,0.258432 0.00754,0.5196251 0.15625,0.7363282 0.1485855,0.216573 0.3724278,0.362188 0.6308594,0.410156 0.059668,0.01118 0.1211926,0.01758 0.1816406,0.01758 0.473315,0 0.8802193,-0.338783 0.9667968,-0.8046872 C 8.5074442,8.3287072 8.3718492,7.9832343 8.1171875,7.7617213 8.5758985,7.0398552 9.111418,6.8061602 9.617188,6.7695337 c 0.891386,-0.068072 1.413927,0.1063905 2.228515,0.234375 0.192598,0.04367 0.3978,0.1088446 0.605469,0.203125 0,0 0.002,0.00195 0.002,0.00195 0.111959,0.050796 0.219464,0.1062038 0.322266,0.1699218 0.102803,0.063719 0.199566,0.1345161 0.292968,0.2109376 0.187117,0.1531334 0.356005,0.4810327 0.503907,0.6835937 -0.01767,0.022465 -0.03558,0.044023 -0.05078,0.068359 -0.05837,0.09275 -0.09465,0.1929068 -0.111328,0.2949219 0,0 0,0.00195 0,0.00195 -0.0082,0.050689 -0.01131,0.1015727 -0.0098,0.1523437 0.0016,0.050769 0.0084,0.1029598 0.01953,0.1523438 0.01127,0.050125 0.02618,0.097347 0.04687,0.1445313 0.04086,0.09316 0.100177,0.179089 0.175781,0.251953 0.03811,0.03679 0.08051,0.07022 0.126953,0.09961 0.127396,0.08087 0.275117,0.125 0.425781,0.125 0.274681,0 0.526674,-0.138879 0.673829,-0.371094 0.05869,-0.09266 0.09454,-0.192944 0.111328,-0.2949212 0.02518,-0.152967 0.005,-0.3105544 -0.05664,-0.4511719 -0.0616,-0.1406175 -0.163363,-0.2652341 -0.302734,-0.3535156 -0.04525,-0.028485 -0.09288,-0.050206 -0.142578,-0.068359 -0.04902,-0.018035 -0.100867,-0.030947 -0.152344,-0.039063 -0.0518,-0.0081 -0.103831,-0.011596 -0.15625,-0.00977 -0.05249,0.0019 -0.105064,0.00788 -0.15625,0.019531 -0.199933,-0.280007 -0.432461,-0.6716809 -0.695313,-0.8730469 0.08152,-0.025185 0.166319,-0.055735 0.251953,-0.09375 0.04287,-0.01901 0.08761,-0.045679 0.13086,-0.068359 0.04368,-0.02296 0.08724,-0.041325 0.130859,-0.068359 0.08682,-0.053625 0.171951,-0.1158865 0.25586,-0.1875 0.08369,-0.071493 0.164873,-0.1522651 0.242187,-0.2441406 0.07436,0.022275 0.151952,0.035156 0.230469,0.035156 0.06844,0 0.134913,-0.00893 0.199219,-0.025391 0.06454,-0.016635 0.127803,-0.042397 0.185546,-0.074219 0.115614,-0.063596 0.214247,-0.1557509 0.28711,-0.2714844 0.0284,-0.044695 0.05157,-0.09037 0.07031,-0.1386719 0.05621,-0.144906 0.06987,-0.3034669 0.03516,-0.4589843 -0.02321,-0.1039311 -0.06723,-0.2004383 -0.126953,-0.2851563 -0.02972,-0.04216 -0.06388,-0.081328 -0.101563,-0.1171875 -0.03805,-0.0362 -0.07958,-0.068921 -0.125,-0.097656 -0.06344,-0.039995 -0.13194,-0.071077 -0.203125,-0.091797 -0.07149,-0.020725 -0.145565,-0.03125 -0.220703,-0.03125 z m 0,0.5195312 c 0.05161,0 0.102675,0.017592 0.146484,0.044922 0.03113,0.01975 0.0574,0.044976 0.07813,0.074219 0.02039,0.02909 0.03498,0.06188 0.04297,0.097656 0,0 0,0.00195 0,0.00195 0.015,0.070176 0.004,0.14197 -0.03516,0.203125 -0.039,0.061813 -0.102815,0.1033296 -0.171875,0.1191407 -0.06889,0.01535 -0.144117,0.0068 -0.207032,-0.033203 l -0.01172,-0.00781 c -0.05969,-0.04223 -0.09849,-0.1049865 -0.111328,-0.171875 -0.01272,-0.066249 7.2e-5,-0.1375082 0.03906,-0.1992187 0.05018,-0.079745 0.135441,-0.1269532 0.230469,-0.1269532 z m 2.744141,1.0800781 c -0.274811,0 -0.527974,0.1391213 -0.673829,0.3710938 -0.208384,0.329146 -0.144074,0.7548431 0.134766,1.0097656 0.0028,0.00185 0.0048,0.00593 0.0078,0.00781 -0.175365,0.587307 -0.247792,1.6925244 -0.103516,2.2246089 -0.01859,0.01685 -0.03948,0.03187 -0.05664,0.05078 -0.02977,0.03313 -0.05746,0.06868 -0.08203,0.107422 -0.04134,0.06533 -0.07113,0.134168 -0.0918,0.205078 -0.438215,0.06346 -0.675346,0.06755 -0.886719,0.205078 -0.264542,0.172033 -0.516179,0.33361 -1.253906,0.345703 -0.255311,-0.02995 -0.762478,-0.02172 -0.988281,-0.01367 -0.186023,0.0075 -0.376844,0.01274 -0.628906,0 -0.173545,-0.0094 -0.273204,-0.11605 -0.449219,-0.316406 C 11.998078,10.434034 11.669479,10.097462 11,10.048828 v 0.519531 c 0.428337,0.03894 0.63705,0.245302 0.839844,0.476563 0.193304,0.220217 0.411983,0.470472 0.8125,0.492187 0.275331,0.01497 0.4895,0.0074 0.677734,0 0.323819,-0.01123 0.88002,-0.02004 1.322266,0.08984 0.338899,0.08349 1.572313,1.256986 1.919922,1.861328 -0.01404,0.01872 -0.02867,0.03698 -0.04102,0.05664 -0.226582,0.358142 -0.132902,0.829698 0.210938,1.072266 0.0094,0.0075 0.01995,0.0136 0.03711,0.02539 0.127524,0.08068 0.273293,0.123047 0.423828,0.123047 0.275071,0 0.52615,-0.139626 0.671875,-0.371094 0.113746,-0.178584 0.151619,-0.390431 0.105469,-0.597656 -0.04654,-0.207993 -0.170739,-0.385605 -0.351563,-0.5 -0.127396,-0.08012 -0.275376,-0.123047 -0.425781,-0.123047 -0.06864,0 -0.134741,0.0095 -0.199219,0.02539 -0.332919,-0.54429 -1.125052,-1.359181 -1.714844,-1.792969 0.235683,-0.08162 0.395821,-0.185207 0.546876,-0.283203 0.185763,-0.120554 0.339278,-0.07013 0.630859,-0.119141 0.05525,0.134593 0.148904,0.254439 0.275391,0.34375 0.0094,0.0075 0.01995,0.0136 0.03711,0.02539 0.127525,0.08068 0.273292,0.123047 0.423828,0.123047 0.275071,0 0.528103,-0.137674 0.673828,-0.369141 0.113746,-0.178771 0.149665,-0.392402 0.103516,-0.599609 -0.04654,-0.207731 -0.170739,-0.385605 -0.351563,-0.5 -0.127395,-0.080119 -0.275376,-0.1210935 -0.425781,-0.1210935 -0.01625,0 -0.03258,-8e-4 -0.04883,0 -0.0923,-0.410388 -0.01855,-1.3599986 0.105469,-1.8144531 0.01457,0.0014 0.02841,0.00391 0.04297,0.00391 0.275071,0 0.528103,-0.1375051 0.673828,-0.3691406 0.113747,-0.1788265 0.149665,-0.3922714 0.103516,-0.5996094 -0.04654,-0.2078615 -0.170737,-0.3856055 -0.351562,-0.5 -0.127395,-0.08012 -0.273423,-0.1230468 -0.423828,-0.1230469 z m 0,0.5214844 c 0.05187,0 0.100984,0.015639 0.144531,0.042969 0.0624,0.0395 0.106927,0.1015711 0.123047,0.1738281 0.01585,0.070947 0.0023,0.1429291 -0.03711,0.2050781 -0.07774,0.123549 -0.25229,0.1644779 -0.378906,0.083984 l -0.01172,-0.00586 C 17.025192,7.4413393 16.99388,7.2781826 17.07226,7.1542966 17.1227,7.0745516 17.209914,7.0253903 17.304682,7.0253903 Z M 7.4726562,8.039063 c 0,-0.02873 0.05747,0.00259 0.085938,0.00781 0.251412,0.0468 0.4176322,0.2896036 0.3710937,0.5410156 C 7.8835379,8.8353956 7.6385243,9.0048705 7.3886723,8.9589824 7.1370003,8.9121824 6.97091,8.6693782 7.0175785,8.4179668 7.0585285,8.1984038 7.2497136,8.0390605 7.4726566,8.0390605 Z m 6.7226558,0.4550781 c 0.052,0 0.105279,0.013846 0.148438,0.041016 0.03207,0.020375 0.05773,0.04676 0.07813,0.076172 0.02038,0.02941 0.0352,0.061351 0.04297,0.095703 0.01532,0.06882 0.0033,0.1431413 -0.03711,0.2070313 -0.05096,0.080307 -0.139218,0.1289061 -0.234375,0.1289061 -0.05161,0 -0.100463,-0.01545 -0.144531,-0.04297 -0.03198,-0.02028 -0.05781,-0.046761 -0.07813,-0.076172 -0.02013,-0.029165 -0.0352,-0.061596 -0.04297,-0.095703 -0.0077,-0.034425 -0.0096,-0.070157 -0.0039,-0.1054688 0.0058,-0.03531 0.01888,-0.069486 0.03906,-0.1015624 0.02197,-0.03463 0.05175,-0.063663 0.08789,-0.085938 0.04355,-0.02691 0.09266,-0.041016 0.144531,-0.041016 z m 3.007813,1.9316399 c 0.05187,0 0.102937,0.01564 0.146484,0.04297 0.0624,0.0395 0.106928,0.101758 0.123047,0.173828 0.01585,0.07095 0.0023,0.142985 -0.03711,0.205078 -0.07774,0.123549 -0.25229,0.164478 -0.378906,0.08399 l -0.01172,-0.0059 c -0.119338,-0.08405 -0.150651,-0.247208 -0.07227,-0.371093 0.05044,-0.07974 0.135702,-0.128907 0.230469,-0.128907 z m -3.404297,2.13086 c -0.278971,0 -0.540599,0.149136 -0.683594,0.388671 -0.108937,0.182704 -0.140016,0.395386 -0.08789,0.601563 0.04563,0.181018 0.150373,0.338206 0.298828,0.447266 -0.526873,1.198313 -1.498627,1.699686 -1.933594,1.908203 -0.01664,0.0056 -0.03232,0.01269 -0.04687,0.02148 -0.154311,0.06907 -0.27954,0.092 -0.345708,0.105473 v 0.519531 c 0.03575,-0.0038 0.259356,-0.01428 0.566406,-0.154297 0.695217,-0.176339 0.887963,-0.04635 1.091797,0.0918 0.132725,0.08985 0.298337,0.201572 0.554688,0.214844 0.01299,6.5e-4 0.02736,0.002 0.04101,0.002 0.274161,0 1.171747,-0.28393 1.41211,-0.375 0.148715,0.145076 0.347477,0.228516 0.55664,0.228516 0.189924,0 0.373673,-0.06767 0.517578,-0.191407 0.161196,-0.138151 0.259141,-0.331082 0.275391,-0.542968 0.01625,-0.212018 -0.05101,-0.419146 -0.189453,-0.580078 -0.151445,-0.176712 -0.370823,-0.277344 -0.603516,-0.277344 -0.189664,0 -0.373542,0.06775 -0.517578,0.191406 -0.209553,0.179707 -0.302553,0.44535 -0.271484,0.701172 -0.253232,0.09098 -1.054265,0.328525 -1.19336,0.324219 -0.106726,-0.0056 -0.169206,-0.04552 -0.289062,-0.126953 -0.152354,-0.103333 -0.114821,-0.196694 -0.339844,-0.240235 0.381668,-0.358929 0.882058,-0.887476 1.216797,-1.667969 0.267921,-0.0094 0.516241,-0.155551 0.654297,-0.386718 0.224243,-0.376469 0.101206,-0.864311 -0.275391,-1.089844 -0.123366,-0.07338 -0.264948,-0.113281 -0.408203,-0.113281 z m 0,0.521484 c 0.04914,0 0.09825,0.01361 0.140625,0.03906 0.129996,0.07806 0.173178,0.247095 0.0957,0.376953 -0.05005,0.08405 -0.138441,0.132812 -0.236328,0.132812 -0.04927,0 -0.09786,-0.01304 -0.140625,-0.03906 -0.06279,-0.03744 -0.107061,-0.09684 -0.125,-0.167969 -0.01793,-0.07113 -0.0082,-0.143852 0.0293,-0.207031 0.05018,-0.08386 0.138441,-0.134766 0.236328,-0.134766 z m 3.404297,0.617187 c 0.05187,0 0.102937,0.01563 0.146484,0.04297 0.0624,0.0395 0.106928,0.101571 0.123047,0.173828 0.01585,0.07113 0.0023,0.14293 -0.03711,0.205079 -0.07774,0.123549 -0.25229,0.164478 -0.378906,0.08398 l -0.01172,-0.0059 c -0.119338,-0.08405 -0.150651,-0.247076 -0.07227,-0.371093 v -0.002 c 0.05044,-0.07975 0.135702,-0.126954 0.230469,-0.126954 z m -1.980469,1.791016 c 0.08021,0 0.156467,0.03448 0.208985,0.0957 0.04784,0.05597 0.07004,0.126194 0.06445,0.199219 -0.0056,0.07301 -0.0398,0.139578 -0.0957,0.1875 -0.0637,0.05466 -0.131588,0.06641 -0.177735,0.06641 -0.08073,0 -0.156856,-0.03523 -0.208984,-0.0957 -0.09854,-0.114938 -0.08575,-0.288049 0.0293,-0.386719 0.06396,-0.05504 0.13354,-0.06641 0.179687,-0.06641 z"/>
 <path style="opacity:0.2;fill:#8b9cbe" d="m 11.053349,1.0010005 a 2.2827619,2.27395 0 0 0 -1.19498,0.3027 l -6.7168881,3.8633 A 2.2827619,2.27395 0 0 0 2,7.1365005 v 0.5 a 2.2827619,2.27395 0 0 1 1.1415809,-1.9695 l 6.7168881,-3.8633 a 2.2827619,2.27395 0 0 1 1.19528,-0.302735 2.2827619,2.27395 0 0 1 1.087882,0.302735 l 6.716888,3.8633 A 2.2827619,2.27395 0 0 1 20,7.6365005 v -0.5 a 2.2827619,2.27395 0 0 0 -1.141481,-1.9695 l -6.716888,-3.8633 a 2.2827619,2.27395 0 0 0 -1.087982,-0.3027 z"/>
 <path d="m 12.484047,7.5290365 c 0.0091,0.00185 0.01846,0.00375 0.02756,0.00562 -0.0094,-0.00155 -0.01846,-0.00375 -0.02756,-0.00562 z"/>
 <path style="fill:#fffedb" d="m 12.484047,7.2162515 c 0.0091,0.00185 0.01846,0.00375 0.02756,0.00562 -0.0094,-0.00145 -0.01846,-0.00375 -0.02756,-0.00562 z"/>
</svg>
