<svg xmlns="http://www.w3.org/2000/svg" width="22" height="22" version="1">
 <rect style="opacity:0.2" width="20" height="20" x="1" y="1.5" rx="6" ry="6"/>
 <path style="fill:#4f4f4f" d="m 7,1 h 8 c 3.324,0 6,2.676 6,6 v 8 c 0,0.753925 -0.137664,1.474515 -0.38933,2.138106 -0.857907,2.262131 -2.982842,3.408947 -5.5529,3.399733 L 7,20.508955 C 4.4111685,20.499674 2.2153705,19.37678 1.3707418,17.088428 1.1308936,16.438607 1,15.735152 1,15 V 7 C 1,3.676 3.676,1 7,1 Z"/>
 <path style="opacity:0.2" d="M 16.154297,3.5001555 C 15.538694,4.7188828 14.882937,6.1586994 14.244141,7.3653899 14.046752,6.1801189 13.880514,4.8442546 12.878906,4.0411711 12.400161,3.669484 11.787032,3.5302349 11.191406,3.5060149 9.120678,3.4168974 7.2695116,4.6959373 6.0019531,6.2306243 4.7654301,7.8280132 3.9893927,9.835847 4,11.867342 c 0.04542,1.292089 0.531995,2.755162 1.796875,3.324218 1.0456455,0.471556 2.2355299,0.302726 3.333984,0.152344 1.669863,-0.376168 2.978536,-1.588191 4.019532,-2.886719 0.199008,-0.32307 0.237904,-0.179539 0.220703,0.126953 0.05206,0.702361 -0.0057,1.480154 0.410156,2.083985 0.587595,0.704351 1.695804,0.432403 2.277344,-0.138672 0.673786,-0.687676 1.132066,-1.586725 1.376953,-2.511719 -0.614089,-0.114797 -0.687204,0.941615 -1.195313,1.207031 -0.475769,0.503399 -1.626076,0.693019 -1.84375,-0.154297 -0.196185,-0.716211 -0.119452,-1.4671 -0.130859,-2.201171 C 15.509631,8.5275936 16.765444,5.8464128 18,3.5001555 Z m -5.212891,0.8535156 c 1.215819,-0.053864 2.086398,1.0681154 2.3125,2.1621094 0.175411,0.719683 0.186722,1.4622261 0.242188,2.1972656 C 12.57842,10.409281 11.6785,12.157308 10.328125,13.556795 9.631426,14.209887 8.673037,14.862171 7.671875,14.621248 6.716087,14.386019 6.2165342,13.378871 6.2226562,12.457185 6.2014262,11.313889 6.5992821,10.214604 6.8847656,9.121249 7.3804631,7.4145632 8.1582184,5.6349029 9.740234,4.6700774 10.100001,4.446597 10.521795,4.3487071 10.941406,4.3536711 Z M 9.5,7.5001555 A 1.5,1.5 0 0 0 8,9.000155 1.5,1.5 0 0 0 9.5,10.500154 1.5,1.5 0 0 0 11,9.000155 1.5,1.5 0 0 0 9.5,7.5001555 Z"/>
 <path style="opacity:0.1;fill:#8b9cbe" d="M 7,1 C 3.676,1 1,3.676 1,7 v 0.5 c 0,-3.324 2.676,-6 6,-6 h 8 c 3.324,0 6,2.676 6,6 V 7 C 21,3.676 18.324,1 15,1 Z"/>
 <path style="fill:#ff4e4e" d="M 11.191707,3.0049147 C 9.120979,2.9157972 7.2703315,4.1963725 6.002773,5.7310595 4.76625,7.3284485 3.9894997,9.33495 4.000107,11.366445 c 0.04542,1.29209 0.5319435,2.755002 1.7968235,3.324058 1.0456455,0.471556 2.23606,0.302843 3.3345145,0.152461 1.669863,-0.376168 2.978326,-1.588248 4.019322,-2.886776 0.199008,-0.32307 0.237187,-0.177837 0.219986,0.128655 0.05206,0.702361 -0.0058,1.479154 0.410014,2.082985 0.587595,0.704351 1.696395,0.432547 2.277935,-0.138528 0.673786,-0.687676 1.131212,-1.586623 1.376099,-2.511617 -0.614089,-0.114797 -0.68729,0.94195 -1.195399,1.207366 -0.475769,0.503399 -1.625623,0.691725 -1.843297,-0.155591 C 14.19992,11.853246 14.277525,11.102956 14.266118,10.368885 15.510124,8.0271825 16.765444,5.3462555 18,2.9999982 H 16.154536 C 15.538933,4.2187255 14.882444,5.65893 14.243648,6.8656205 14.046259,5.6803495 13.880562,4.3450745 12.878954,3.541991 12.400209,3.1703039 11.787333,3.0291192 11.191707,3.0048992 Z m -0.250096,0.8492442 c 1.215819,-0.053864 2.086323,1.0669026 2.312425,2.1608966 0.175411,0.719683 0.186798,1.463319 0.242264,2.1983585 -0.917674,1.696236 -1.81689,3.444324 -3.167265,4.843811 C 9.632336,13.710317 8.673926,14.362674 7.672764,14.121751 6.716976,13.886522 6.216852,12.878224 6.222974,11.956538 6.201744,10.813242 6.599621,9.714294 6.8851045,8.620938 7.380802,6.914252 8.157643,5.133948 9.739659,4.1691225 10.099426,3.9456421 10.522,3.8491949 10.941611,3.8541589 Z"/>
 <circle style="fill:#ff4e4e" cx="9.5" cy="8.5" r="1.5"/>
 <path style="fill:#00d8f4" d="M 1.3457031,17 C 1.9464935,18.707445 3.2925551,20.053506 5,20.654297 V 17 Z"/>
 <path style="fill:#02b4f2" d="m 5,17 v 3.654297 C 5.625867,20.874517 6.2969735,21 7,21 h 2 v -4 z"/>
 <rect style="fill:#039bf1" width="4" height="4" x="9" y="17"/>
 <path style="fill:#0480f0" d="m 13,17 v 4 h 2 c 0.703026,0 1.374133,-0.125483 2,-0.345703 V 17 Z"/>
 <path style="fill:#065fee" d="m 17,17 v 3.654297 C 18.707445,20.053506 20.053506,18.707445 20.654297,17 Z"/>
 <path style="opacity:0.1;fill:#8b9cbe" d="m 1.3457031,17 c 0.060248,0.171224 0.1331578,0.336431 0.2080079,0.5 h 18.892578 c 0.07485,-0.163569 0.14776,-0.328776 0.208008,-0.5 z"/>
 <path style="opacity:0.2;fill:#8b9cbe" d="M 16.154297,3 C 15.538694,4.2187273 14.882937,5.6585439 14.244141,6.8652344 14.046752,5.6799634 13.880514,4.3440991 12.878906,3.5410156 12.400161,3.1693285 11.787032,3.0300794 11.191406,3.0058594 9.120678,2.9167419 7.2695116,4.1957818 6.0019531,5.7304688 4.7654301,7.3278576 3.9893927,9.335693 4,11.367188 c 0.00151,0.04292 0.01313,0.0876 0.015625,0.130859 C 4.094274,9.593962 4.8405229,7.7308498 6.0019531,6.2304688 7.2695116,4.6957818 9.120678,3.4167419 11.191406,3.5058594 c 0.595626,0.02422 1.208755,0.1634691 1.6875,0.5351562 1.001608,0.8030835 1.167846,2.1389478 1.365235,3.3242188 C 14.882937,6.1585439 15.538694,4.7187273 16.154297,3.5 h 1.59375 C 17.831919,3.3380857 17.916313,3.1590463 18,3 Z M 9.5,7 A 1.5,1.5 0 0 0 8,8.5 1.5,1.5 0 0 0 8.0214844,8.7460938 1.5,1.5 0 0 1 9.5,7.5 1.5,1.5 0 0 1 10.978516,8.7558594 1.5,1.5 0 0 0 11,8.5 1.5,1.5 0 0 0 9.5,7 Z m 3.964844,1.2695312 C 12.557733,9.947952 11.663447,11.672754 10.328125,13.056641 9.631426,13.709733 8.673037,14.362017 7.671875,14.121094 6.7732985,13.899945 6.2951322,12.996293 6.2441406,12.123047 c -0.0055,0.111544 -0.023571,0.221626 -0.021484,0.333984 -0.00612,0.921686 0.4934308,1.928834 1.4492188,2.164063 1.001162,0.240923 1.9595506,-0.411361 2.6562496,-1.064453 1.350375,-1.399487 2.250295,-3.147515 3.167969,-4.8437504 -0.01114,-0.1476731 -0.02198,-0.2953267 -0.03125,-0.4433594 z m 0.798828,3.2343748 c -0.0067,0.527549 -0.0071,1.055458 0.132812,1.566406 0.217674,0.847317 1.367981,0.657696 1.84375,0.154297 0.457183,-0.238814 0.565506,-1.110956 1.029297,-1.201171 0.05972,-0.167734 0.120834,-0.335196 0.166016,-0.50586 -0.614089,-0.114797 -0.687204,0.941615 -1.195313,1.207031 -0.475769,0.503399 -1.626076,0.693019 -1.84375,-0.154297 -0.09566,-0.34921 -0.125068,-0.706676 -0.132812,-1.066406 z"/>
</svg>
