<svg width="22" height="22" version="1.1" xmlns="http://www.w3.org/2000/svg">
 <path d="m6 1.5v1h-2v1h-2v3h-1v10h1v3h2v1h2v1h10v-1h2v-1h2v-3h1v-10h-1v-3h-2v-1h-2v-1z" style="opacity:.2"/>
 <path d="m6 1v1h-2v1h-2v3h-1v10h1v3h2v1h2v1h10v-1h2v-1h2v-3h1v-10h-1v-3h-2v-1h-2v-1h-10z" style="fill:#17191e"/>
 <path d="m6 2.5v1h-2v1h-1v2h-1v10h1v2h1v1h2v1h10v-1h2v-1h1v-2h1v-10h-1v-2h-1v-1h-2v-1z" style="opacity:.2"/>
 <path d="m6 2v1h-2v1h-1v2h-1v10h1v2h1v1h2v1h10v-1h2v-1h1v-2h1v-10h-1v-2h-1v-1h-2v-1h-10z" style="fill:#b2bfd9"/>
 <path d="m6 3.5v1h-2v2h-1v10h1v2h2v1h10v-1h2v-2h1v-10h-1v-2h-2v-1h-8z" style="opacity:.1"/>
 <rect x="8" y="3" width="6" height="16" style="fill:#73d216"/>
 <path d="m8 19v-16h-2v1h-2v2h-1v10h1v2h2v1z" style="fill:#3465a4"/>
 <path d="m14 19v-16h2v1h2v2h1v10h-1v2h-2v1z" style="fill:#ef2929"/>
 <path d="m5 7.5v-2h2v-1h8v1h2v2h1v8h-1v2h-2v1h-8v-1h-2v-2h-1v-8z" style="opacity:.1"/>
 <path d="m5 7v-2h2v-1h8v1h2v2h1v8h-1v2h-2v1h-8v-1h-2v-2h-1v-8z" style="fill:#17191e"/>
 <path d="m8 7.5v1h-1v3h1v1h3v-1h1v-3h-1v-1zm5 7v2h2v-2z" style="opacity:.2"/>
 <path d="m8 7v1h-1v3h1v1h3v-1h1v-3h-1v-1h-3zm5 7v2h2v-2h-2z" style="fill:#8b9cbe"/>
 <path d="m6 1v0.5h10v-0.5h-10zm-2 1v0.5h2v-0.5h-2zm12 0v0.5h2v-0.5h-2zm-14 1v0.5h2v-0.5h-2zm16 0v0.5h2v-0.5h-2zm-17 3v0.5h1v-0.5h-1zm19 0v0.5h1v-0.5h-1z" style="fill:#8b9cbe;opacity:.1"/>
 <path d="m6 2v0.5h10v-0.5h-10zm-2 1v0.5h2v-0.5h-2zm12 0v0.5h2v-0.5h-2zm-13 1v0.5h1v-0.5h-1zm15 0v0.5h1v-0.5h-1zm-16 2v0.5h1v-0.5h-1zm17 0v0.5h1v-0.5h-1z" style="fill:#8b9cbe;opacity:.2"/>
</svg>
