<svg xmlns="http://www.w3.org/2000/svg" width="22" height="22" version="1.1">
 <rect style="opacity:0.2" width="18" height="18" x="2" y="3.5" rx="1.588" ry="1.5"/>
 <rect style="fill:#b2bfd9" width="18" height="18" x="2" y="3" rx="1.588" ry="1.5"/>
 <rect style="opacity:0.1" width="20" height="4" x="1" y="1.5" rx="1.667" ry="1.5"/>
 <rect style="fill:#2ea881" width="20" height="4" x="1" y="1" rx="1.667" ry="1.5"/>
 <circle style="fill:#ff4f4f" cx="5" cy="11" r="2"/>
 <rect style="fill:#ff4f4f" width="9.5" height="1" x="8" y="10"/>
 <rect style="opacity:0.3" width="11" height="1" x="7" y="7"/>
 <path style="opacity:0.2;fill:#8b9cbe" d="M 2.6669922,1 C 1.7436589,1 1,1.669 1,2.5 V 3 C 1,2.169 1.7436589,1.5 2.6669922,1.5 H 19.333008 C 20.256341,1.5 21,2.169 21,3 V 2.5 C 21,1.669 20.256341,1 19.333008,1 Z"/>
 <circle style="opacity:0.2" cx="5" cy="11.5" r="1"/>
 <circle style="fill:#8b9cbe" cx="5" cy="11" r="1"/>
 <rect style="opacity:0.3" width="1" height="1" x="4" y="7"/>
 <rect style="opacity:0.3" width="11" height="1" x="7" y="14"/>
 <rect style="opacity:0.3" width="1" height="1" x="4" y="14"/>
 <rect style="opacity:0.3" width="11" height="1" x="7" y="16"/>
 <rect style="opacity:0.3" width="1" height="1" x="4" y="16"/>
 <rect style="opacity:0.3" width="11" height="1" x="7" y="18"/>
 <rect style="opacity:0.3" width="1" height="1" x="4" y="18"/>
</svg>
