<svg xmlns="http://www.w3.org/2000/svg" width="22" height="22" version="1.1">
 <path style="opacity:0.2" d="M 15.100586,9.5 C 14.676232,11.561947 13.75968,13.409334 12.47461,14.807617 9.36302,17.732943 6.0839315,18.583613 2.7519531,19.118164 1.1214949,19.384562 0,19.618564 0,20.180664 0,21.069553 3.78,21.5 10.5,21.5 c 8.495735,0 8.51717,-4.985346 8.5,-9.479492 V 9.5 c 0,0 -4,0 -3.899414,0 z"/>
 <path style="fill:#17191e" d="M 15.100586,8.5 C 14.676232,10.561947 13.75968,12.909334 12.47461,14.307617 9.36302,17.232943 6.0839315,18.083613 2.7519531,18.618164 1.1214949,18.884562 0,19.118564 0,19.680664 0,20.569553 3.78,21 10.5,21 18.995735,21 19.01717,16.014654 19,11.520508 V 8.5 Z"/>
 <path style="opacity:0.2" d="m 20,1.5 a 1,1 0 0 0 -1,1 V 5.6757812 A 3,3 0 0 0 18,5.5 3,3 0 0 0 17,5.6738281 V 4.5 a 1,1 0 0 0 1,-1 1,1 0 0 0 -1,-1 1,1 0 0 0 -1,1 V 6.2695312 A 3,3 0 0 0 15,8.5 a 3,3 0 0 0 3,3 3,3 0 0 0 3,-3 3,3 0 0 0 -1,-2.2324219 V 3.5 a 1,1 0 0 0 1,-1 1,1 0 0 0 -1,-1 z"/>
 <circle style="fill:#4f4f4f" cx="18" cy="8" r="3"/>
 <path style="fill:#4f4f4f" d="m 17,2 a 1,1 0 0 0 -1,1 v 5.5 h 1 V 4 A 1,1 0 0 0 18,3 1,1 0 0 0 17,2 Z"/>
 <path style="fill:#4f4f4f" d="m 20,1 a 1,1 0 0 0 -1,1 v 5.5 h 1 V 3 A 1,1 0 0 0 21,2 1,1 0 0 0 20,1 Z"/>
 <circle style="opacity:0.2" cx="7" cy="12.5" r="7"/>
 <circle style="fill:#af2158" cx="7" cy="12" r="7"/>
 <path style="opacity:0.2;fill:none;stroke:#000000;stroke-width:0.97000003" d="m 7.4350424,12.500094 c -0.1315181,-0.227796 0.2421782,-0.28967 0.3786121,-0.218591 0.3697274,0.192618 0.2980021,0.713083 0.058571,0.975816 -0.4282858,0.469967 -1.1779742,0.337589 -1.5730196,-0.10145 -0.579745,-0.644306 -0.3801744,-1.649831 0.2614699,-2.170223 0.8552109,-0.693601 2.1242482,-0.424147 2.7674271,0.42149 0.809375,1.064149 0.4688599,2.599906 -0.5815108,3.364631 C 7.4744525,15.697952 5.6703256,15.285772 4.7847575,14.030236 3.741146,12.55063 4.2253352,10.47717 5.6863093,9.4711974 7.3730619,8.3097627 9.7164685,8.8661762 10.842552,10.53277 12.122079,12.426459 11.493298,15.040227 9.6209587,16.286216 7.5204764,17.684026 4.6360528,16.98278 3.2703089,14.904602 1.7540744,12.597431 2.5278581,9.4421355 4.8119428,7.9567488"/>
 <path style="fill:none;stroke:#8b9cbe;stroke-width:0.9700231" d="m 7.4350424,12.000083 c -0.1315181,-0.227796 0.2421782,-0.28967 0.3786121,-0.218592 0.3697274,0.192619 0.2980021,0.713084 0.058571,0.975816 C 7.4439398,13.227274 6.6942514,13.094896 6.299206,12.655858 5.719461,12.011552 5.9190316,11.006026 6.5606759,10.485634 7.4158868,9.792034 8.6849241,10.061487 9.328103,10.907125 10.137478,11.971273 9.7969629,13.507031 8.7465922,14.271756 7.4744525,15.19794 5.6703256,14.785761 4.7847575,13.530224 3.741146,12.050618 4.2253352,9.9771581 5.6863093,8.9711859 7.3730619,7.8097512 9.7164685,8.3661647 10.842552,10.032758 c 1.279527,1.89369 0.650746,4.507458 -1.2215933,5.753446 C 7.5204764,17.184015 4.6360528,16.482769 3.2703089,14.404591 1.7540744,12.097419 2.5278581,8.9421241 4.8119428,7.4567374"/>
 <path style="opacity:0.2;fill:#8b9cbe" d="M 7,5 A 7,7 0 0 0 0,12 7,7 0 0 0 0.010742,12.292969 7,7 0 0 1 7,5.5 7,7 0 0 1 13.989258,12.207031 7,7 0 0 0 14,12 7,7 0 0 0 7,5 Z"/>
 <path style="opacity:0.3" d="m 17,7.000047 a 1,1 0 0 0 -1,1 A 1,1 0 0 0 16.032226,8.252 1,1 0 0 1 17,7.500047 1,1 0 0 1 17.967773,8.248094 1,1 0 0 0 18,8.000047 a 1,1 0 0 0 -1,-1 z"/>
 <path style="opacity:0.3" d="m 19.5,7.000047 a 1,1 0 0 0 -1,1 A 1,1 0 0 0 18.532225,8.252 1,1 0 0 1 19.5,7.500047 1,1 0 0 1 20.467773,8.248094 1,1 0 0 0 20.5,8.000047 a 1,1 0 0 0 -1,-1 z"/>
 <path style="opacity:0.1;fill:#8b9cbe" d="m 20,1 a 1,1 0 0 0 -1,1 v 0.5 a 1,1 0 0 1 1,-1 1,1 0 0 1 0.966797,0.75 A 1,1 0 0 0 21,2 1,1 0 0 0 20,1 Z m -3,1 a 1,1 0 0 0 -1,1 v 0.5 a 1,1 0 0 1 1,-1 1,1 0 0 1 0.966797,0.75 A 1,1 0 0 0 18,3 1,1 0 0 0 17,2 Z m 1,3 a 3,3 0 0 0 -1,0.1738281 v 0.5 A 3,3 0 0 1 18,5.5 3,3 0 0 1 19,5.6757812 v -0.5 A 3,3 0 0 0 18,5 Z m 2,0.7675781 v 0.5 A 3,3 0 0 1 20.986328,8.2558594 3,3 0 0 0 21,8 3,3 0 0 0 20,5.7675781 Z m -4,0.00195 A 3,3 0 0 0 15,8 3,3 0 0 0 15.013672,8.2578125 3,3 0 0 1 16,6.2695312 Z"/>
</svg>
