<svg xmlns="http://www.w3.org/2000/svg" width="22" height="22" version="1">
 <path style="opacity:0.2" d="m 2.0011668,5.5000048 c 0.00462,3.720004 -0.00928,7.4402832 0.007,11.1601142 0.075265,2.395886 2.1784298,4.540078 4.7026088,4.794076 1.6272805,0.08513 3.2612045,0.02077 4.8913494,0.0408 1.274019,-0.02303 2.553667,0.05494 3.822872,-0.05853 2.517619,-0.314387 4.562849,-2.509575 4.572967,-4.907499 0.0041,-3.676302 5.99e-4,-7.3526512 0.0017,-11.0289712 -5.999516,0 -11.9990344,0 -17.9985511,0 z"/>
 <path style="opacity:0.2" d="m 11.00001,1.5000038 a 5,5 0 0 0 -4.9999999,5 5,5 0 0 0 4.9999999,5.0000002 5,5 0 0 0 5,-5.0000002 5,5 0 0 0 -5,-5 z m 0,2 a 3,3 0 0 1 3,3 3,3 0 0 1 -3,3 3,3 0 0 1 -2.9999999,-3 3,3 0 0 1 2.9999999,-3 z"/>
 <path style="fill:#ec770b" d="m 11.00001,1.0000038 a 5,5 0 0 0 -4.9999999,5 5,5 0 0 0 4.9999999,5.0000002 5,5 0 0 0 5,-5.0000002 5,5 0 0 0 -5,-5 z m 0,2 a 3,3 0 0 1 3,3 3,3 0 0 1 -3,3 3,3 0 0 1 -2.9999999,-3 3,3 0 0 1 2.9999999,-3 z"/>
 <path style="opacity:0.2;fill:#8b9cbe" d="m 11.00001,1.0000038 a 5,5 0 0 0 -4.9999999,5 5,5 0 0 0 0.010742,0.207031 5,5 0 0 1 4.9892579,-4.707031 5,5 0 0 1 4.989258,4.792969 5,5 0 0 0 0.01074,-0.292969 5,5 0 0 0 -5,-5 z M 8.0127056,6.2490273 a 3,3 0 0 0 -0.012695,0.2509765 3,3 0 0 0 2.9999999,3 3,3 0 0 0 3,-3 3,3 0 0 0 -0.0127,-0.2490235 3,3 0 0 1 -2.9873,2.7490235 3,3 0 0 1 -2.9873044,-2.7509765 z"/>
 <path style="fill:#ffa123" d="m 2.0011668,5.0000048 c 0.00462,3.720004 -0.00928,7.4402832 0.007,11.1601142 0.075265,2.395886 2.1784298,4.540078 4.7026088,4.794076 1.6272805,0.08513 3.2612045,0.02077 4.8913494,0.0408 1.274019,-0.02303 2.553667,0.05494 3.822872,-0.05853 2.517619,-0.314387 4.562849,-2.509575 4.572967,-4.907499 0.0041,-3.676302 5.99e-4,-7.3526512 0.0017,-11.0289712 -5.999516,0 -11.9990344,0 -17.9985511,0 z"/>
 <path style="opacity:0.2" d="m 10.752258,8.5009803 c -0.212748,0.00559 -0.429112,0.032785 -0.645508,0.082031 -0.7012119,0.156556 -1.4140779,0.33811 -2.0468746,0.4980465 -0.57722,0.118473 -1.146681,0.74646 -1.0488285,1.2597672 l 1.9111332,8.4541 c 0.118029,0.522301 0.710951,0.818742 1.3300779,0.664063 0.619127,-0.15468 1.023304,-0.699379 0.905273,-1.22168 L 10.45343,15.125004 c 0.328031,-0.08918 0.694273,-0.172801 1.007813,-0.232422 1.751431,-0.437275 2.852171,-2.202268 2.458984,-3.941406 C 13.580129,9.4542018 12.241493,8.4618278 10.752258,8.5009803 Z m -0.01953,2.0000007 a 1.1668754,1.4209131 78.331056 0 1 1.240234,0.857422 1.1668754,1.4209131 78.331056 0 1 -1.108398,1.455078 1.1668754,1.4209131 78.331056 0 1 -0.02343,0.0039 l -0.788095,0.182623 -0.5527339,-2.267578 0.8115229,-0.1875 a 1.1668754,1.4209131 78.331056 0 1 0.420899,-0.04394 z"/>
 <path style="fill:#8b9cbe" d="m 10.752258,8.0009803 c -0.212748,0.00559 -0.429112,0.032785 -0.645508,0.082031 -0.7012119,0.156556 -1.4140779,0.33811 -2.0468746,0.4980465 -0.57722,0.1184725 -1.146681,0.7464595 -1.0488285,1.2597665 l 1.9111332,8.4541012 c 0.118029,0.522301 0.710951,0.818742 1.3300779,0.664062 0.619127,-0.154679 1.023304,-0.699379 0.905273,-1.22168 L 10.45343,14.625004 c 0.328031,-0.08918 0.694273,-0.172801 1.007813,-0.232422 1.751431,-0.437275 2.852171,-2.202268 2.458984,-3.941406 C 13.580129,8.9542018 12.241493,7.9618278 10.752258,8.0009803 Z m -0.01953,2.0000007 a 1.1668754,1.4209131 78.331056 0 1 1.240234,0.857422 1.1668754,1.4209131 78.331056 0 1 -1.108398,1.455078 1.1668754,1.4209131 78.331056 0 1 -0.02343,0.0039 l -0.788095,0.182623 -0.5527339,-2.267578 0.8115229,-0.1875 a 1.1668754,1.4209131 78.331056 0 1 0.420899,-0.04394 z"/>
 <path style="opacity:0.2;fill:#8b9cbe" d="m 2.0000435,5.0000038 c 2.074e-4,0.1666645 -1.373e-4,0.3333345 0,0.5 H 20.000001 c 3.5e-5,-0.1666615 -5.3e-5,-0.3333385 0,-0.5 z"/>
</svg>
