<svg xmlns="http://www.w3.org/2000/svg" width="22" height="22" version="1">
 <rect style="fill:#dd9f59" width="20" height="20" x="1" y="1" rx="1" ry="1"/>
 <rect style="opacity:0.2" width="16.5" height="16" x="-19.5" y="-19" rx="1" ry="1" transform="matrix(0,-1,-1,0,0,0)"/>
 <rect style="fill:#8b9cbe" width="16" height="16" x="-19" y="-19" rx=".97" ry="1" transform="matrix(0,-1,-1,0,0,0)"/>
 <path style="opacity:0.2;fill:#8b9cbe" d="M 2,1 C 1.446,1 1,1.446 1,2 l 0,0.5 c 0,-0.554 0.446,-1 1,-1 l 18,0 c 0.554,0 1,0.446 1,1 L 21,2 C 21,1.446 20.554,1 20,1 L 2,1 Z"/>
 <path style="opacity:0.2" d="m 1,20 0,0.5 c 0,0.554 0.446,1 1,1 l 18,0 c 0.554,0 1,-0.446 1,-1 L 21,20 c 0,0.554 -0.446,1 -1,1 L 2,21 C 1.446,21 1,20.554 1,20 Z"/>
 <path style="fill:#6b6b6b" d="M 7.5149297,4.5 C 6.9870832,4.824216 5.3745267,5.239479 4.5002812,5.493164 l 0.027345,0.077148 C 4.9434182,5.528787 5.5374532,5.469945 5.9543837,5.399414 l 0,0.6132815 -1.448242,0 0.035155,0.517578 1.211914,0 c -0.208181,0.856044 -0.689958,1.7160075 -1.238281,2.376953 l 0.083007,0.077148 c 0.514195,-0.372564 1.029547,-0.7034615 1.355469,-1.194336 l 0,2.2099615 0.1328125,0 c 0.3537935,0 0.933198,-0.136621 0.939453,-0.178711 l 0,-2.242188 c 0.2639235,0.237759 0.314367,0.515748 0.363282,0.811524 0.08987,0.075648 0.187473,0.111328 0.2773435,0.111328 0.187135,0 0.34668,-0.135377 0.34668,-0.3242185 0,-0.2553915 -0.092014,-0.4915965 -0.987305,-0.692383 l 0,-0.955078 1.171875,0 c 0.187704,0 0.277822,-0.429641 0.326172,-0.5058595 L 7.5149297,5.5 7.2903202,6.011719 l -0.2646485,0 0,-0.7539065 C 7.3385117,5.1867125 7.6304397,5.116022 7.8664922,5.044922 8.0036157,5.048412 8.5149297,5 8.5149297,5 Z M 9.000468,5.515625 9.000468,10 C 9.652882,10 9.991742,9.763447 9.986796,9.751953 l 0,-0.232422 1.010743,0 0,0.368165 c 0.549461,0 0.993164,-0.159523 0.993164,-0.170899 l 0,-3.634766 c 0.145613,-0.02901 0.257305,-0.075846 0.298828,-0.1298825 L 11.486796,5.519531 10.929179,6 10.021953,6 Z m 0.986328,1.001953 1.010743,0 0,2.501953 -1.010743,0 z M 12,13 l 0,1.5 0,1 0,1.5 1,0 0,-1.5 1.066406,0 C 14.294135,16.381993 15.089083,16.99868 16,17 c 1.104569,0 2,-0.895431 2,-2 0,-1.104569 -0.895431,-2 -2,-2 -0.911281,8.76e-4 -1.70675,0.617655 -1.93457,1.5 L 13,14.5 13,13 Z m 4,1 c 0.552285,0 1,0.447715 1,1 0,0.552285 -0.447715,1 -1,1 -0.552285,0 -1,-0.447715 -1,-1 0,-0.552285 0.447715,-1 1,-1 z"/>
</svg>
