<svg xmlns="http://www.w3.org/2000/svg" width="22" height="22" version="1">
 <path style="opacity:0.2" d="M 3.8496094,5.5 C 3.3787094,5.5 3,5.8825645 3,6.357422 V 8 H 2.25 2 1.75 C 1.3345,8 1,8.3345 1,8.75 v 5.5 C 1,14.6655 1.3345,15 1.75,15 H 2 2.25 3 v 1.642578 C 3,17.117435 3.3787094,17.5 3.8496094,17.5 H 19.15039 C 19.62129,17.5 20,17.117435 20,16.642578 V 15 H 20.75 21 21.25 C 21.6655,15 22,14.6655 22,14.25 V 8.75 C 22,8.3345 21.6655,8 21.25,8 H 21 20.75 20 V 6.357422 C 20,5.8825645 19.62129,5.5 19.15039,5.5 Z"/>
 <rect style="fill:#afafb1" width="17" height="12" x="3" y="5" rx=".85" ry=".857"/>
 <path style="opacity:0.2" d="M 3.8496094,5 C 3.3787094,5 3,5.3825645 3,5.857422 V 6 H 20 V 5.857422 C 20,5.3825645 19.62129,5 19.15039,5 Z M 3,16 v 0.142578 C 3,16.617435 3.3787094,17 3.8496094,17 H 19.15039 C 19.62129,17 20,16.617435 20,16.142578 V 16 Z"/>
 <path style="fill:#afafb1" d="M 1.75,7.5 C 1.3345,7.5 1,7.8345 1,8.25 v 5.5 c 0,0.4155 0.3345,0.75 0.75,0.75 H 2 2.25 3 V 13.75 8.25 7.5 H 2.25 2 Z"/>
 <path style="fill:#afafb1" d="M 21.25,7.5 C 21.6655,7.5 22,7.8345 22,8.25 v 5.5 c 0,0.4155 -0.3345,0.75 -0.75,0.75 H 21 20.75 20 V 13.75 8.25 7.5 H 20.75 21 Z"/>
 <path style="opacity:0.1" d="m 11.5,8.5 c -1.269804,0.0018 -2.4009515,0.802815 -2.824219,2 H 8.5 7.5001365 7.15541 L 7.0313865,10.3125 6.6202535,9.6875 C 6.5400295,9.565174 6.388323,9.492717 6.2276755,9.5 6.0830715,9.5068 5.9522245,9.57737 5.8800195,9.6875 L 5.4688865,10.3125 5.3448635,10.5 H 4 c 0,-0.554 -0.446,-1 -1,-1 -0.554,0 -1,0.446 -1,1 v 2 c 0,0.554 0.446,1 1,1 0.554,0 1,-0.446 1,-1 h 1.3448635 l 0.124023,0.1875 0.411133,0.625 c 0.072476,0.109753 0.2032745,0.179929 0.347656,0.186524 0.1604115,0.0075 0.3120595,-0.06457 0.392578,-0.186524 L 7.0313865,12.6875 7.15541,12.5 H 7.5001365 8.5 8.6748045 c 0.423387,1.197522 1.5550325,1.998632 2.8251955,2 1.269804,-0.0018 2.400952,-0.802815 2.824219,-2 H 14.5 15.499864 15.84459 l 0.124023,0.1875 0.411133,0.625 c 0.07248,0.109753 0.203274,0.179929 0.347656,0.186524 0.160411,0.0075 0.31206,-0.06457 0.392578,-0.186524 L 17.531113,12.6875 17.655136,12.5 H 19 c 0,0.554 0.446,1 1,1 0.554,0 1,-0.446 1,-1 v -2 c 0,-0.554 -0.446,-1 -1,-1 -0.554,0 -1,0.446 -1,1 H 17.655136 L 17.531113,10.3125 17.11998,9.6875 C 17.03976,9.565174 16.888049,9.492717 16.727402,9.5 16.582798,9.5068 16.451951,9.57737 16.379746,9.6875 L 15.968613,10.3125 15.84459,10.5 H 15.499864 14.5 14.325196 C 13.901809,9.302478 12.770163,8.5013685 11.5,8.5 Z"/>
 <path style="fill:#17191e" d="M 11.5,8 C 10.230196,8.0018 9.0990485,8.8028155 8.675781,10 H 8.5 7.5001365 7.15541 L 7.0313865,9.8125 6.6202535,9.1875 C 6.5400295,9.065174 6.388323,8.9927175 6.2276755,9 6.0830715,9.0068 5.9522245,9.07737 5.8800195,9.1875 L 5.4688865,9.8125 5.3448635,10 H 4 C 4,9.446 3.554,9 3,9 2.446,9 2,9.446 2,10 v 2 c 0,0.554 0.446,1 1,1 0.554,0 1,-0.446 1,-1 h 1.3448635 l 0.124023,0.1875 0.411133,0.625 c 0.072476,0.109753 0.2032745,0.179929 0.347656,0.186524 0.1604115,0.0075 0.3120595,-0.06457 0.392578,-0.186524 L 7.0313865,12.1875 7.15541,12 H 7.5001365 8.5 8.6748045 c 0.423387,1.197522 1.5550325,1.998632 2.8251955,2 1.269804,-0.0018 2.400952,-0.802815 2.824219,-2 H 14.5 15.499864 15.84459 l 0.124023,0.1875 0.411133,0.625 c 0.07248,0.109753 0.203274,0.179929 0.347656,0.186524 0.160411,0.0075 0.31206,-0.06457 0.392578,-0.186524 L 17.531113,12.1875 17.655136,12 H 19 c 0,0.554 0.446,1 1,1 0.554,0 1,-0.446 1,-1 V 10 C 21,9.446 20.554,9 20,9 19.446,9 19,9.446 19,10 H 17.655136 L 17.531113,9.8125 17.11998,9.1875 C 17.039756,9.065174 16.888049,8.9927175 16.727402,9 16.582798,9.0068 16.451951,9.07737 16.379746,9.1875 L 15.968613,9.8125 15.84459,10 H 15.499864 14.5 14.325196 C 13.901809,8.802478 12.770163,8.0013685 11.5,8 Z"/>
 <path style="opacity:0.2;fill:#8b9cbe" d="M 1.75,7.5 C 1.3345,7.5 1,7.8345 1,8.25 v 0.5 C 1,8.3345 1.3345,8 1.75,8 H 2 2.25 3 V 7.5 H 2.25 2 Z M 20,7.5 V 8 H 20.75 21 21.25 C 21.6655,8 22,8.3345 22,8.75 V 8.25 C 22,7.8345 21.6655,7.5 21.25,7.5 H 21 20.75 Z"/>
</svg>
