<svg xmlns="http://www.w3.org/2000/svg" width="22" height="22" version="1">
 <path style="opacity:0.2" d="m 11.562051,1.5003319 c -0.430144,-0.0095 -0.898198,0.07018 -1.496094,0.2324219 -0.4334477,0.1176179 -1.4067463,0.3465863 -2.2402338,0.53125 a 4.5000852,4.5000852 0 0 1 0.1738281,1.2363281 4.5000852,4.5000852 0 0 1 -0.00977,0.2167969 4.5,4.5 0 0 1 0.00977,0.2832031 4.5,4.5 0 0 1 -4.5,4.5 A 4.5,4.5 0 0 1 1.9038482,8.2015038 C 1.8256172,8.5403018 1.6825698,9.0467382 1.4780669,9.6370502 0.90820742,11.281983 0.86765402,11.8582 1.2456451,13.00619 c 0.147583,0.448215 0.3169661,1.111864 0.375,1.476563 0.1498295,0.941526 0.423534,1.426658 1.4140624,2.503906 0.4788376,0.520763 1.1602774,1.395043 1.5136719,1.941406 0.568996,0.879689 0.7645662,1.056079 1.7128907,1.544922 1.1466879,0.591093 2.0237235,0.751624 5.1406249,0.939453 1.017966,0.202477 1.572051,0.05025 2.427734,-0.419921 0.510124,-0.280368 1.183921,-0.594349 1.498047,-0.697266 0.963596,-0.315698 2.224079,-1.0779 2.574219,-1.558594 0.182957,-0.251176 0.64241,-1.096716 1.021484,-1.878906 0.453114,-0.934955 0.921303,-1.653673 1.367188,-2.09961 0.932882,-0.681725 0.677734,-1.503192 0.677734,-2.580078 0,-1.847591 -0.01544,-1.945151 -0.552734,-3.4199206 C 20.111405,7.9232319 19.751091,6.9152386 19.614785,6.5198631 19.41115,5.9292026 19.146179,5.6102803 18.13041,4.7268944 16.574136,3.3734541 16.108535,3.0770887 15.04252,2.7581444 14.57133,2.6171665 13.754244,2.2749497 13.226113,1.9983788 12.605464,1.673358 12.115092,1.5125478 11.562051,1.5003319 Z"/>
 <path style="fill:#ffaa46" d="m 11.562051,1.0000002 c -0.430144,-0.0095 -0.898198,0.07018 -1.496094,0.2324219 C 9.6325093,1.35004 8.6592107,1.5790084 7.8257232,1.7636721 a 4.5000852,4.5000852 0 0 1 0.1738281,1.2363281 4.5000852,4.5000852 0 0 1 -0.00977,0.2167969 4.5,4.5 0 0 1 0.00977,0.2832031 4.5,4.5 0 0 1 -4.5,4.5 A 4.5,4.5 0 0 1 1.9038482,7.7011721 C 1.8256172,8.0399701 1.6825698,8.5464068 1.4780669,9.1367192 0.90820742,10.781652 0.86765402,11.357869 1.2456451,12.505859 c 0.147583,0.448215 0.3169661,1.111864 0.375,1.476563 0.1498295,0.941526 0.423534,1.426658 1.4140624,2.503906 0.4788376,0.520763 1.1602774,1.395043 1.5136719,1.941406 0.568996,0.879689 0.7645662,1.056079 1.7128907,1.544922 1.1466879,0.591093 2.0237235,0.751624 5.1406249,0.939453 1.017966,0.202477 1.572051,0.05025 2.427734,-0.419921 0.510124,-0.280368 1.183921,-0.594349 1.498047,-0.697266 0.963596,-0.315698 2.224079,-1.0779 2.574219,-1.558594 0.182957,-0.251176 0.64241,-1.096716 1.021484,-1.878906 0.453114,-0.934955 0.921303,-1.653673 1.367188,-2.09961 0.932882,-0.681725 0.677734,-1.503192 0.677734,-2.580078 0,-1.8475908 -0.01544,-1.9451508 -0.552734,-3.4199213 C 20.111405,7.4229002 19.751091,6.4149069 19.614785,6.0195314 19.41115,5.4288709 19.146179,5.1099486 18.13041,4.2265627 16.574136,2.8731224 16.108535,2.576757 15.04252,2.2578127 14.57133,2.1168348 13.754244,1.774618 13.226113,1.4980471 12.605464,1.1730263 12.115092,1.0122161 11.562051,1.0000002 Z"/>
 <path style="opacity:0.1" d="m 12.361807,4.5070817 c -0.155955,0.019115 -0.309236,0.076172 -0.466797,0.1259765 -0.763874,0.2697429 -1.603817,0.7208464 -1.798828,1.4062499 -0.1154977,0.3411965 -0.1234827,0.461099 -0.04687,0.6992185 0.02991,0.092971 0.06441,0.2309945 0.07617,0.306641 0.03037,0.195294 0.08538,0.2960855 0.286133,0.519531 0.09705,0.108018 0.235016,0.2890155 0.30664,0.402344 0.115323,0.182468 0.155453,0.218915 0.347656,0.3203125 0.223396,0.099545 0.248499,-0.258513 1.041993,0.194336 0.206319,0.042 0.31876,0.01061 0.492187,-0.086915 0.103391,-0.058154 0.240045,-0.1231835 0.303711,-0.144531 0.195299,-0.065482 0.450519,-0.223535 0.521484,-0.323242 0.515383,-0.738714 0.680514,-1.3268955 0.509766,-2.0703125 -0.06165,-0.17318 -0.135459,-0.381858 -0.163086,-0.4638675 -0.04127,-0.122517 -0.09491,-0.188836 -0.300781,-0.37207 C 13.15576,4.7400192 13.062239,4.6787067 12.846182,4.6125502 12.677077,4.5072667 12.517762,4.4879657 12.361807,4.5070817 Z M 5.7446199,8.5031751 c -0.1282945,-0.014 -0.2519105,0.025025 -0.361328,0.131836 -0.2676615,-0.014355 -0.3539665,0.00345 -0.5078125,0.107422 -0.060066,0.040595 -0.151615,0.093277 -0.203125,0.1171875 -0.132981,0.06173 -0.1931945,0.1224895 -0.310547,0.3134766 -0.4460162,0.635876 -0.3909509,0.8958178 -0.2998045,1.4169918 0.013275,0.158122 0.060078,0.232963 0.1660155,0.338867 0.063167,0.06313 0.1374395,0.148613 0.1660155,0.19043 0.435115,0.543971 1.394754,0.380712 1.9238284,0.260742 0.110646,-0.07991 0.245127,-0.175208 0.2978515,-0.211914 0.078768,-0.05484 0.1145595,-0.107428 0.2021485,-0.293945 0.134195,-0.285768 0.1582395,-0.366039 0.160156,-0.536133 C 7.0573708,10.050114 6.9012758,9.8607982 6.7641513,9.6525892 6.5565938,9.0628592 6.1295048,8.5451716 5.7446199,8.5031751 Z M 16.54833,11.501222 c -0.332706,-0.0122 -0.675735,0.05916 -0.919922,0.11914 -0.102133,0.07991 -0.225745,0.175209 -0.274414,0.211914 -0.07271,0.05484 -0.105672,0.107428 -0.186523,0.293946 -0.123872,0.285768 -0.146669,0.366038 -0.148438,0.536133 -0.07325,0.288021 0.07167,0.477338 0.198243,0.685546 0.255453,0.786307 0.869436,1.444819 1.273437,1.017579 0.24707,0.01436 0.327716,-0.0034 0.469727,-0.107422 0.05544,-0.04059 0.139952,-0.09328 0.1875,-0.117188 0.122751,-0.06173 0.177808,-0.12249 0.286133,-0.313476 0.888573,-0.738459 0.524975,-0.9312 0.276367,-1.416993 -0.01226,-0.158122 -0.05456,-0.232963 -0.152344,-0.338867 -0.05831,-0.06313 -0.127918,-0.148612 -0.154297,-0.190429 -0.200821,-0.271986 -0.522762,-0.367681 -0.855469,-0.379883 z m -8.7128897,1.999023 c -0.121242,-0.0043 -0.2124795,0.03233 -0.336914,0.105469 -0.098911,0.05815 -0.2291315,0.123184 -0.290039,0.144531 -0.186836,0.06548 -0.4311335,0.223535 -0.4990235,0.323242 -1.0029619,0.504933 -0.7186229,1.295734 -0.487305,2.070313 0.058976,0.17318 0.1288445,0.381858 0.1552735,0.463867 0.03948,0.122517 0.090157,0.188836 0.2871095,0.37207 0.301754,0.280735 0.391938,0.342048 0.598633,0.408204 0.323555,0.210567 0.608689,0.0791 0.910156,-0.02051 1.3382855,-0.269744 2.1237172,-0.720847 1.7207025,-1.40625 0.1104927,-0.341197 0.1182097,-0.461099 0.04492,-0.699219 -0.02862,-0.09297 -0.06199,-0.230995 -0.07324,-0.306641 -0.02906,-0.195294 -0.08138,-0.296085 -0.273437,-0.519531 -0.418606,-0.788014 -0.8084365,-0.440804 -1.623047,-0.916992 -0.049345,-0.0105 -0.093375,-0.01712 -0.133789,-0.01856 z m 6.2119137,3 c -0.119309,-0.0054 -0.246111,0.04064 -0.402344,0.09961 -0.665279,0.300286 -1.140872,0.274668 -1.574219,0.764648 -0.161446,0.33634 -0.01634,0.735782 0.109375,1.129883 0.04794,0.131784 0.104494,0.291109 0.125977,0.353515 0.03209,0.09323 0.07428,0.143769 0.234375,0.283204 0.245276,0.213629 0.31832,0.260204 0.486328,0.310546 0.574464,0.225568 0.659129,-0.256429 1.081055,-0.534179 0.556369,-0.294272 1.038196,-0.259825 0.816406,-0.611328 0.08981,-0.25964 0.0957,-0.351026 0.03613,-0.532227 -0.02326,-0.07075 -0.04945,-0.175834 -0.05859,-0.233398 -0.02362,-0.148613 -0.06655,-0.225473 -0.222656,-0.395508 -0.255025,-0.473796 -0.432989,-0.625767 -0.631836,-0.634766 z"/>
 <path style="fill:#835145" d="m 10.096447,5.5393126 c -0.1154967,0.3411965 -0.1234667,0.460662 -0.04686,0.6987815 0.02991,0.09297 0.06398,0.23092 0.07574,0.3065665 0.03037,0.195294 0.08592,0.2958805 0.286682,0.519326 0.09705,0.108018 0.23501,0.289101 0.306635,0.4024295 0.115323,0.182468 0.155071,0.2191925 0.347274,0.32059 0.223395,0.099545 0.2485,-0.258042 1.041994,0.194807 0.206319,0.042 0.318545,0.010545 0.491972,-0.086977 0.103391,-0.058155 0.24003,-0.123232 0.303696,-0.1445795 0.195299,-0.065483 0.450455,-0.223723 0.521421,-0.32343 0.515382,-0.738714 0.680355,-1.3265135 0.509607,-2.0699305 -0.06165,-0.17318 -0.13465,-0.3819505 -0.162276,-0.46396 C 13.731062,4.7704187 13.677392,4.7040222 13.471519,4.5207882 13.156097,4.2400537 13.061758,4.1784707 12.845701,4.1123142 12.50749,3.9017468 12.210335,4.0336897 11.895213,4.1332992 11.131339,4.4030422 10.291457,4.8539086 10.096446,5.5393121 Z"/>
 <path style="fill:#835145" d="m 9.8936803,15.460689 c 0.1104927,-0.341196 0.1181177,-0.460662 0.04483,-0.698781 -0.02862,-0.09297 -0.06121,-0.23092 -0.07246,-0.306566 -0.02905,-0.195295 -0.0822,-0.295881 -0.274259,-0.519327 -0.418606,-0.788014 -0.8078035,-0.441638 -1.622414,-0.917826 -0.1973785,-0.042 -0.3047415,-0.01055 -0.470654,0.08698 -0.098911,0.05815 -0.229628,0.123232 -0.2905355,0.14458 -0.186836,0.06548 -0.430936,0.223723 -0.498826,0.32343 -1.0029619,0.504933 -0.7188434,1.295351 -0.487525,2.06993 0.058976,0.17318 0.1288155,0.381951 0.1552445,0.46396 0.03948,0.122517 0.090825,0.188914 0.2877775,0.372148 0.301754,0.280734 0.392005,0.342318 0.5987,0.408474 0.323555,0.210567 0.607833,0.07862 0.9093,-0.02098 1.3382855,-0.269744 2.1238362,-0.72061 1.7208215,-1.406014 z"/>
 <path style="fill:#835145" d="m 16.491109,13.865532 c 0.24707,0.01436 0.327296,-0.0041 0.469307,-0.108123 0.05544,-0.0406 0.139712,-0.09334 0.18726,-0.117251 0.122751,-0.06173 0.178251,-0.122463 0.286576,-0.313449 0.888573,-0.738459 0.524988,-0.930375 0.276379,-1.416168 -0.01225,-0.158122 -0.05469,-0.23309 -0.152475,-0.338993 -0.05831,-0.06313 -0.127607,-0.148963 -0.153985,-0.19078 -0.401642,-0.543971 -1.287461,-0.38078 -1.775834,-0.26081 -0.102134,0.07991 -0.225513,0.175291 -0.274181,0.211996 -0.07271,0.05484 -0.106056,0.107247 -0.186906,0.293765 -0.123872,0.285768 -0.14618,0.366686 -0.147948,0.536781 -0.07325,0.288021 0.07115,0.476627 0.197724,0.684836 0.255454,0.786307 0.87008,1.445437 1.274081,1.018197 z"/>
 <path style="fill:#835145" d="M 5.3835859,8.1344681 C 5.1159244,8.1201131 5.0290124,8.1386181 4.8751664,8.2425916 4.8151004,8.2831866 4.7238099,8.3359326 4.6722999,8.3598426 4.5393189,8.4215726 4.4791929,8.4823051 4.3618404,8.6732921 3.915824,9.3091682 3.9712815,9.5682852 4.0624279,10.089459 c 0.013275,0.158122 0.059244,0.23309 0.165182,0.338994 0.063167,0.06313 0.138242,0.148962 0.1668185,0.190779 0.4351145,0.543971 1.394758,0.38078 1.9238324,0.26081 0.110646,-0.07991 0.244307,-0.175291 0.2970315,-0.211996 0.078768,-0.05484 0.114894,-0.107247 0.202483,-0.293764 0.134195,-0.285768 0.1583615,-0.366687 0.160278,-0.5367808 0.079352,-0.288022 -0.077078,-0.476628 -0.214203,-0.684837 C 6.4871073,8.3663576 5.8212579,7.7072271 5.3835874,8.1344676 Z"/>
 <path style="fill:#835145" d="m 14.924115,17.795475 c 0.08981,-0.259639 0.09601,-0.350548 0.03644,-0.531749 -0.02326,-0.07075 -0.04975,-0.175723 -0.0589,-0.233287 -0.02361,-0.148613 -0.06682,-0.225155 -0.222928,-0.39519 -0.408039,-0.758074 -0.617175,-0.692412 -1.033797,-0.535158 -0.665279,0.300286 -1.140533,0.274555 -1.57388,0.764535 -0.161447,0.33634 -0.01655,0.735829 0.10917,1.12993 0.04793,0.131784 0.104706,0.290652 0.126188,0.353058 0.03209,0.09323 0.07383,0.143758 0.233916,0.283192 0.245276,0.21363 0.318635,0.260493 0.486644,0.310835 0.574463,0.225567 0.659381,-0.256311 1.081307,-0.534061 0.556369,-0.294272 1.037628,-0.260599 0.815838,-0.612103 z"/>
 <path style="opacity:0.2;fill:#8b9cbe" d="m 11.562051,1.0000002 c -0.430144,-0.0095 -0.898198,0.07018 -1.496094,0.2324219 C 9.6325093,1.35004 8.6592107,1.5790084 7.8257232,1.7636721 A 4.5000852,4.5000852 0 0 1 7.9311919,2.2382814 C 8.7365242,2.0586696 9.6529323,1.8444981 10.065957,1.7324221 c 0.597896,-0.1622419 1.06595,-0.2419219 1.496094,-0.2324219 0.553041,0.012216 1.043413,0.1730261 1.664062,0.4980469 0.528132,0.2765709 1.345217,0.6187877 1.816407,0.7597656 1.066015,0.3189443 1.531616,0.6153097 3.08789,1.96875 1.015769,0.8833859 1.28074,1.2023083 1.484375,1.7929687 0.136306,0.3953755 0.49662,1.4033688 0.800782,2.2382813 0.537294,1.4747693 0.552734,1.5723303 0.552734,3.4199213 0,0.202267 0.01109,0.387254 0.01953,0.572266 0.0022,-0.330543 -0.01953,-0.67933 -0.01953,-1.072266 0,-1.8475908 -0.01544,-1.9451508 -0.552734,-3.4199213 C 20.111405,7.4229002 19.751091,6.4149069 19.614785,6.0195314 19.41115,5.4288709 19.146179,5.1099486 18.13041,4.2265627 16.574136,2.8731224 16.108535,2.576757 15.04252,2.2578127 14.57133,2.1168348 13.754245,1.774618 13.226113,1.4980471 12.605464,1.1730263 12.115092,1.0122161 11.562051,1.0000002 Z m -3.5624997,2.5 a 4.5,4.5 0 0 1 -4.5,4.5 A 4.5,4.5 0 0 1 1.9038482,7.7011721 C 1.8256172,8.0399701 1.6825698,8.5464066 1.4780669,9.1367192 1.1157065,10.182693 0.98969492,10.794924 1.0268951,11.398438 1.0736654,10.929819 1.2123328,10.403776 1.4780669,9.6367192 1.6825698,9.0464072 1.8256172,8.5399701 1.9038482,8.2011721 a 4.5,4.5 0 0 0 1.5957031,0.2988281 4.5,4.5 0 0 0 4.5,-4.5 4.5,4.5 0 0 0 -0.00977,-0.2832031 4.5000852,4.5000852 0 0 0 0.00977,-0.2167969 z"/>
</svg>
