<svg xmlns="http://www.w3.org/2000/svg" width="22" height="22" version="1">
 <path style="fill:#1ab5bc" d="M 11,1 C 5.46,1 1,5.46 1,11 1,12.837134 1.4904527,14.555504 2.3481014,16.031853 12.672975,16.390202 18,5 18.348425,4.204219 16.524142,2.2315569 13.911184,1 11,1 Z"/>
 <path style="fill:#df5b6f" d="M 20.354492,7.479492 6.6972655,12.654297 16.083984,19.609375 C 19.027526,17.872726 21,14.678757 21,11 21,9.757718 20.764905,8.5750525 20.354492,7.479492 Z"/>
 <path style="fill:#445c5c" d="M 6.713867,12.610352 2.2783203,15.897461 C 3.987783,18.945534 7.243044,21 11,21 c 1.884705,0 3.638014,-0.525525 5.139648,-1.424805 z"/>
 <path style="fill:#9f327b" d="M 18.241211,4.102539 6.698242,12.655274 20.354492,7.479492 C 19.878828,6.209751 19.15764,5.0646715 18.241211,4.102539 Z"/>
 <path style="opacity:0.2;fill:#8b9cbe" d="M 11,1 C 5.46,1 1,5.46 1,11 1,11.084 1.004,11.1665 1.00585,11.25 1.1382,5.827 5.544,1.5 10.99985,1.5 c 5.45585,0 9.862,4.32695 9.994,9.75 0.002,-0.08343 0.0059,-0.166065 0.0059,-0.25 0,-5.54 -4.46,-10 -10,-10 z"/>
 <path style="opacity:0.2" d="M 1.00585,11.25 C 1.0038,11.3335 1,11.416 1,11.5 c 0,5.54 4.46,10 10,10 5.54,0 10,-4.46 10,-10 0,-0.084 -0.004,-0.1665 -0.006,-0.25 C 20.862,16.673 16.456,21 11,21 5.544,21 1.138,16.673 1.006,11.25 Z"/>
 <path style="opacity:0.2" d="m 7,4.5 c -0.554,0 -1,0.446 -1,1 0,0.554 0.446,1 1,1 0.554,0 1,-0.446 1,-1 0,-0.554 -0.446,-1 -1,-1 z m 6,0 -2,2 3,3 -3,3 2,2 3,-3 2,-2 -2,-2 z m -7.5,5 C 4.669006,9.5 4,10.168994 4,11 4,11.830994 4.669006,12.5 5.5,12.5 6.331006,12.5 7,11.830994 7,11 7,10.168994 6.331006,9.5 5.5,9.5 Z m 3.5,5 c -1.108,0 -2,0.892 -2,2 0,1.108 0.892,2 2,2 1.108,0 2,-0.892 2,-2 0,-1.108 -0.892,-2 -2,-2 z"/>
 <path style="fill:#8b9cbe" d="M 7,4 C 6.446,4 6,4.446 6,5 6,5.554 6.446,6 7,6 7.554,6 8,5.554 8,5 8,4.446 7.554,4 7,4 Z m 6,0 -2,2 3,3 -3,3 2,2 3,-3 2,-2 -2,-2 z M 5.5,9 C 4.669006,9 4,9.668994 4,10.5 4,11.330994 4.669006,12 5.5,12 6.331006,12 7,11.330994 7,10.5 7,9.668994 6.331006,9 5.5,9 Z M 9,14 c -1.108,0 -2,0.892 -2,2 0,1.108 0.892,2 2,2 1.108,0 2,-0.892 2,-2 0,-1.108 -0.892,-2 -2,-2 z"/>
</svg>
