<svg xmlns="http://www.w3.org/2000/svg" width="22" height="22" version="1">
 <path style="opacity:0.2" d="m 1.5,2.5000005 9.5,2e-7 9.5,-4e-7 L 11,14.2 Z"/>
 <path style="opacity:0.2" d="M 14,10 H 8 v 7.5 l 6,4 z"/>
 <path style="fill:#e53935" d="m 1.5,2.0000004 9.5,2e-7 9.5,-5e-7 L 11,13.7 Z"/>
 <rect style="opacity:0.2" width="20" height="2" x="1" y="1.5" rx="1" ry="1"/>
 <rect style="fill:#ec6b68" width="20" height="2" x="1" y="1" rx="1" ry="1"/>
 <path style="fill:#b4231f" d="M 14,10 H 8 v 7 l 6,4 z"/>
 <path style="opacity:0.2;fill:#8b9cbe" d="M 2,1 C 1.446,1 1,1.446 1,2 1,2.0869174 1.0145053,2.1697047 1.0351563,2.25 1.1461319,1.8185035 1.5329174,1.5 2,1.5 h 18 c 0.467082,0 0.853868,0.3185035 0.964844,0.75 C 20.985495,2.1697047 21,2.0869174 21,2 21,1.446 20.554,1 20,1 Z"/>
</svg>
