<svg xmlns="http://www.w3.org/2000/svg" width="22" height="22" version="1">
 <rect style="opacity:0.2" width="20" height="18" x="1" y="2.5" rx="1" ry="1"/>
 <rect style="fill:#1e88e5" width="20" height="18" x="1" y="2" rx="1" ry="1"/>
 <rect style="opacity:0.2" width="10" height="7" x="12" y="5.5" rx=".5" ry=".5"/>
 <rect style="fill:#ebebeb" width="10" height="7" x="12" y="5" rx=".5" ry=".5"/>
 <rect style="opacity:0.2" width="10" height="7" x="0" y="5.5" rx=".5" ry=".5"/>
 <rect style="fill:#ebebeb" width="10" height="7" x="0" y="5" rx=".5" ry=".5"/>
 <rect style="opacity:0.2" width="10" height="7" x="6" y="14.5" rx=".5" ry=".5"/>
 <rect style="fill:#ebebeb" width="10" height="7" x="6" y="14" rx=".5" ry=".5"/>
 <path style="opacity:0.2;fill:#8b9cbe" d="M 2,2 C 1.446,2 1,2.446 1,3 V 3.5 C 1,2.946 1.446,2.5 2,2.5 H 20 C 20.554,2.5 21,2.946 21,3.5 V 3 C 21,2.446 20.554,2 20,2 Z"/>
</svg>
