<svg xmlns="http://www.w3.org/2000/svg" width="22" height="22" version="1">
 <rect style="opacity:0.2" width="8.5" height="20" x="-15.5" y="-21" rx="1" ry="1" transform="matrix(0,-1,-1,0,0,0)"/>
 <path style="opacity:0.2" d="m 3,13 0,7.5 c 0,0.554 0.446,1 1,1 l 14,0 c 0.554,0 1,-0.446 1,-1 L 19,13 3,13 Z"/>
 <path style="fill:#b2bfd9" d="M 4,1 C 3.446,1 3,1.446 3,2 L 3,8 19,8 19,2 C 19,1.446 18.554,1 18,1 L 4,1 Z"/>
 <rect style="fill:#4f4f4f" width="9" height="20" x="-15" y="-21" rx="1.059" ry="1" transform="matrix(0,-1,-1,0,0,0)"/>
 <rect style="opacity:0.2" width="18" height="2" x="2" y="11.5"/>
 <rect style="opacity:0.2" width="2" height="2" x="2" y="7.5" rx=".75" ry=".75"/>
 <rect style="fill:#76ff03" width="2" height="2" x="2" y="7" rx=".75" ry=".75"/>
 <path style="fill:#b2bfd9" d="M 3,12.5 3,20 c 0,0.554 0.446,1 1,1 l 14,0 c 0.554,0 1,-0.446 1,-1 l 0,-7.5 -16,0 z"/>
 <path style="opacity:0.2;fill:#8b9cbe" d="M 4,1 C 3.446,1 3,1.446 3,2 l 0,0.5 c 0,-0.554 0.446,-1 1,-1 l 14,0 c 0.554,0 1,0.446 1,1 L 19,2 C 19,1.446 18.554,1 18,1 L 4,1 Z"/>
 <rect style="opacity:0.5" width="10.5" height="1" x="5" y="18"/>
 <rect style="opacity:0.5" width="8.5" height="1" x="5" y="16"/>
 <rect style="opacity:0.5" width="12" height="1" x="5" y="14"/>
 <path style="opacity:0.2;fill:#8b9cbe" d="m 2.75,7.0000006 c -0.4155,0 -0.75,0.3345 -0.75,0.75 l 0,0.5 c 0,-0.4155 0.3345,-0.75 0.75,-0.75 l 0.5,0 c 0.4155,0 0.75,0.3345 0.75,0.75 l 0,-0.5 c 0,-0.4155 -0.3345,-0.75 -0.75,-0.75 l -0.5,0 z"/>
 <path style="opacity:0.1;fill:#8b9cbe" d="M 2,6 C 1.446,6 1,6.4720055 1,7.0585938 l 0,0.5 C 1,6.9720055 1.446,6.5 2,6.5 l 18,0 c 0.554,0 1,0.4720055 1,1.0585938 l 0,-0.5 C 21,6.4720055 20.554,6 20,6 L 2,6 Z"/>
</svg>
