<svg xmlns="http://www.w3.org/2000/svg" width="22" height="22" version="1">
 <path style="opacity:0.2" d="M 8.25,1.5 A 5.25,5.25 0 0 0 3.0029297,6.691406 4.25,4.25 0 0 0 0,10.75 4.25,4.25 0 0 0 4,14.987305 V 15 H 4.25 17.75 18 V 14.9912 A 4.25,4.25 0 0 0 22,10.75 4.25,4.25 0 0 0 18.734375,6.620117 5.25,5.25 0 0 0 13.75,3 5.25,5.25 0 0 0 12.158203,3.2539062 5.25,5.25 0 0 0 8.25,1.5 Z"/>
 <circle style="fill:#b2bfd9" cx="4.25" cy="10.25" r="4.25"/>
 <circle style="fill:#b2bfd9" cx="8.25" cy="6.25" r="5.25"/>
 <circle style="fill:#b2bfd9" cx="13.75" cy="7.25" r="5.25"/>
 <circle style="fill:#b2bfd9" cx="17.75" cy="10.25" r="4.25"/>
 <rect style="fill:#b2bfd9" width="14" height="6" x="4" y="8.5"/>
 <path style="opacity:0.2" d="m 3,13 v 7.5 c 0,0.554 0.446,1 1,1 h 14 c 0.554,0 1,-0.446 1,-1 V 13 Z"/>
 <rect style="fill:#29565b" width="18" height="2" x="2" y="10"/>
 <rect style="fill:#4cb009" width="2" height="2" x="2" y="7" rx=".75" ry=".75"/>
 <path style="fill:#2995ff" d="m 3,11 v 9 c 0,0.554 0.446,1 1,1 h 14 c 0.554,0 1,-0.446 1,-1 v -9 z"/>
 <rect style="opacity:0.5;fill:#8b9cbe" width="11" height="1" x="5" y="17"/>
 <rect style="opacity:0.5;fill:#8b9cbe" width="9" height="1" x="5" y="15"/>
 <rect style="opacity:0.5;fill:#8b9cbe" width="12" height="1" x="5" y="13"/>
 <path style="opacity:0.2;fill:#8b9cbe" d="M 8.25,1 A 5.25,5.25 0 0 0 3.0019531,6.1914062 4.25,4.25 0 0 0 0,10.25 4.25,4.25 0 0 0 0.0117188,10.464844 4.25,4.25 0 0 1 3.0019531,6.6914062 5.25,5.25 0 0 1 8.25,1.5 5.25,5.25 0 0 1 11.791016,2.8828125 5.25,5.25 0 0 1 13.75,2.5 5.25,5.25 0 0 1 18.878906,6.65625 4.25,4.25 0 0 1 21.990234,10.550781 4.25,4.25 0 0 0 22,10.25 4.25,4.25 0 0 0 18.878906,6.15625 5.25,5.25 0 0 0 13.75,2 5.25,5.25 0 0 0 11.791016,2.3828125 5.25,5.25 0 0 0 8.25,1 Z"/>
</svg>
