<svg width="22" height="22" version="1.1" xmlns="http://www.w3.org/2000/svg">
 <g transform="translate(-1,-1)">
  <path d="m12 7.5s-10 0-10 13c0 2 2 2 2 2h16s2 0 2-2c0-13-10-13-10-13z" style="opacity:.2"/>
  <path d="m12 7s-10 0-10 13c0 2 2 2 2 2h16s2 0 2-2c0-13-10-13-10-13z" style="fill:#f7941d"/>
  <path d="M 12,7 C 12,7 2,7 2,20 2,20.04862 2.00648,20.09044 2.00879,20.136719 2.1974172,7.5081265 12,7.5 12,7.5 c 0,0 9.802583,0.00813 9.991211,12.636719 C 21.993516,20.090441 22,20.048612 22,20 22,7 12,7 12,7 Z" style="fill:#f9f9f9;opacity:.2"/>
  <rect x="11" y="7" width="2" height="15" style="fill:#8b9cbe;opacity:.3"/>
  <circle cx="12" cy="8" r="4" style="opacity:.2"/>
  <circle cx="12" cy="7.5" r="4" style="fill:#dfb189"/>
  <path d="m15 8.5s0.5 0 1 0.5v-4.5c0-1.5-2.509288-2-4-2s-4 0.5-4 2v4.5c0.5-0.5 1-0.5 1-0.5v-2s1 1 3 1 3-1 3-1z" style="opacity:.1"/>
  <path d="m15 8s0.5 0 1 0.5v-4.5c0-1.5-2.509288-2-4-2s-4 0.5-4 2v4.5c0.5-0.5 1-0.5 1-0.5v-2s1 1 3 1 3-1 3-1z" style="fill:#674b42"/>
  <path d="m12 2c-1.490712 0-4 0.5-4 2v0.5c0-1.5 2.509288-2 4-2s4 0.5 4 2v-0.5c0-1.5-2.509288-2-4-2z" style="fill:#f9f9f9;opacity:.1"/>
  <path d="m10.5 8.5a0.5 0.5 0 0 0-0.5 0.5 0.5 0.5 0 0 0 0.5 0.5 0.5 0.5 0 0 0 0.5-0.5 0.5 0.5 0 0 0-0.5-0.5zm3 0a0.5 0.5 0 0 0-0.5 0.5 0.5 0.5 0 0 0 0.5 0.5 0.5 0.5 0 0 0 0.5-0.5 0.5 0.5 0 0 0-0.5-0.5z" style="opacity:.1"/>
  <path d="m10.5 8a0.5 0.5 0 0 0-0.5 0.5 0.5 0.5 0 0 0 0.5 0.5 0.5 0.5 0 0 0 0.5-0.5 0.5 0.5 0 0 0-0.5-0.5zm3 0a0.5 0.5 0 0 0-0.5 0.5 0.5 0.5 0 0 0 0.5 0.5 0.5 0.5 0 0 0 0.5-0.5 0.5 0.5 0 0 0-0.5-0.5z" style="fill:#17191e"/>
 </g>
</svg>
