<svg xmlns="http://www.w3.org/2000/svg" width="22" height="22" version="1.1">
 <rect style="opacity:0.2" width="20" height="20" x="1" y="1.5" rx="2.5" ry="2.5"/>
 <rect style="fill:#2e4153" width="20" height="20" x="1" y="1" rx="2.5" ry="2.5"/>
 <path style="opacity:0.2" d="M 6.9355469,5.5 C 6.0471635,5.5000136 5.4885717,5.7279967 5.2539062,6.1835938 5.1365717,6.4198479 5.0589133,6.6307994 5.0253906,6.8164062 5.0086255,7.0020372 4.9999952,7.2915866 5,7.6796875 V 21.5 h 4 v -4.177734 c 0.620185,0.776225 1.918487,1.164062 3.292969,1.164062 1.374466,0 2.664225,-0.649886 3.871093,-1.949219 C 17.387667,15.237781 17.999986,13.72901 18,12.007812 17.999986,10.286627 17.387667,8.7719979 16.164062,7.4726562 14.940432,6.1733375 13.642044,5.5254042 12.267578,5.5253906 10.909856,5.5254042 9.636948,5.964339 9,6.8417969 8.949709,6.4030745 8.7403466,6.0748497 8.421875,5.8554688 8.120156,5.6192404 7.8239241,5.5000136 6.9355469,5.5 Z m 4.5234371,3.964844 c 0.760124,1e-5 1.372058,0.265006 1.839844,0.794922 0.467764,0.51031 0.701162,1.090602 0.701172,1.738281 -1.2e-5,0.647695 -0.253021,1.226036 -0.759766,1.736328 -0.487274,0.510304 -1.093308,0.765631 -1.814453,0.765625 -0.701667,5e-6 -1.286139,-0.255321 -1.753906,-0.765625 C 9.223585,13.204456 8.999994,12.626115 9,11.998047 c -6e-6,-0.628052 0.223585,-1.208346 0.671875,-1.738281 0.448275,-0.529916 1.04646,-0.794912 1.787109,-0.794922 z"/>
 <path style="fill:#8b9cbe" d="M 6.9355469,5 C 6.0471635,5.0000136 5.4885717,5.2279967 5.2539062,5.6835938 5.1365717,5.9198479 5.0589133,6.1307994 5.0253906,6.3164062 5.0086255,6.5020372 4.9999952,6.7915866 5,7.1796875 V 21 h 4 v -4.177734 c 0.620185,0.776225 1.918487,1.164062 3.292969,1.164062 1.374466,0 2.664225,-0.649886 3.871093,-1.949219 C 17.387667,14.737781 17.999986,13.22901 18,11.507812 17.999986,9.786627 17.387667,8.2719979 16.164062,6.9726562 14.940432,5.6733375 13.642044,5.0254042 12.267578,5.0253906 10.909856,5.0254042 9.636948,5.464339 9,6.3417969 8.949709,5.9030745 8.7403466,5.5748497 8.421875,5.3554688 8.120156,5.1192404 7.8239241,5.0000136 6.9355469,5 Z m 4.5234371,3.9648438 c 0.760124,1.04e-5 1.372058,0.2650062 1.839844,0.7949222 0.467764,0.51031 0.701162,1.090602 0.701172,1.738281 -1.2e-5,0.647695 -0.253021,1.226036 -0.759766,1.736328 C 12.75296,13.744679 12.146926,14.000006 11.425781,14 10.724114,14.000005 10.139642,13.744679 9.671875,13.234375 9.223585,12.704456 8.999994,12.126115 9,11.498047 8.999994,10.869995 9.223585,10.289701 9.671875,9.759766 10.12015,9.22985 10.718335,8.9648541 11.458984,8.9648438 Z"/>
 <path style="opacity:0.1;fill:#8b9cbe" d="M 3.5,1 C 2.115,1 1,2.115 1,3.5 V 4 C 1,2.615 2.115,1.5 3.5,1.5 h 15 C 19.885,1.5 21,2.615 21,4 V 3.5 C 21,2.115 19.885,1 18.5,1 Z"/>
</svg>
