<svg xmlns="http://www.w3.org/2000/svg" width="22" height="22" version="1">
 <path style="opacity:0.2" d="m 8.6108248,14.829523 c -2.1478587,-2.147859 -2.1478587,-5.630226 0,-7.7780844 C 10.758684,4.9035798 18.483643,0.66098804 20.631502,2.8088468 22.779361,4.9567057 18.536768,12.681664 16.38891,14.829523 c -2.147859,2.147859 -5.630226,2.147859 -7.7780852,0 z"/>
 <path style="fill:#25509a" d="m 8.6108248,14.329529 c -2.1478587,-2.147859 -2.1478587,-5.6302259 0,-7.7780846 C 10.758684,4.4035857 18.483643,0.16099394 20.631502,2.3088527 22.779361,4.4567115 18.536768,12.18167 16.38891,14.329529 c -2.147859,2.147859 -5.630226,2.147859 -7.7780852,0 z"/>
 <path style="opacity:0.1;fill:#8b9cbe" d="M 18.908973,1.7184745 C 15.783179,1.678055 10.356376,4.8062915 8.6112403,6.5514269 7.4736749,7.6889922 6.9442425,9.200329 7.0116497,10.69005 7.0716191,9.36716 7.6010655,8.061596 8.6112403,7.0514211 10.759099,4.9035623 18.483751,0.66142354 20.63161,2.8092823 21.00461,3.1822824 21.181645,3.7256737 21.213634,4.376647 21.261814,3.5014337 21.096847,2.774526 20.63161,2.309288 20.228886,1.9065645 19.63031,1.7278021 18.908973,1.7184745 Z"/>
 <path style="opacity:0.2" d="m 14.974713,13.415208 c -1.38357,1.38357 -3.566121,1.38357 -4.949691,0 -1.3835695,-1.38357 -1.3835695,-3.566121 0,-4.9496902 0.691785,-0.6917845 3.142859,-2.3450235 5.386103,-3.3090004 1.121622,-0.4819884 2.222662,-0.8149446 2.980311,-0.9073511 0.467647,-0.057037 0.698932,-0.012178 0.794104,0.00552 0.0177,0.095172 0.06256,0.3264573 0.0055,0.7941049 -0.09238,0.7576522 -0.425338,1.8586921 -0.907326,2.9803146 -0.963977,2.2432442 -2.617216,4.6943172 -3.309001,5.3861022 z"/>
 <path style="fill:#8b9cbe" d="m 14.974713,12.915332 c -1.38357,1.38357 -3.566121,1.38357 -4.949691,0 -1.3835695,-1.38357 -1.3835695,-3.56612 0,-4.9496904 0.691785,-0.6917846 3.142859,-2.3450235 5.386103,-3.3090004 1.121622,-0.4819885 2.222662,-0.8149447 2.980311,-0.9073511 0.467647,-0.057037 0.698932,-0.012178 0.794104,0.00552 0.0177,0.095172 0.06256,0.3264571 0.0055,0.7941049 -0.09241,0.7576483 -0.425363,1.8586881 -0.907351,2.9803107 -0.963977,2.2432433 -2.617216,4.6943173 -3.309001,5.3861023 z"/>
 <path style="opacity:0.2" d="m 8.6018942,7.1088257 c -2.1478586,2.1478583 -2.1478592,5.6302263 0,7.7780843 2.1478588,2.147859 9.8728178,6.39045 12.0206768,4.242592 2.147858,-2.147859 -2.094733,-9.872818 -4.242592,-12.020677 -2.147859,-2.1478583 -5.630226,-2.1478584 -7.7780848,7e-7 z"/>
 <path style="fill:#9e51c3" d="m 8.6018942,6.6088257 c -2.1478586,2.1478587 -2.1478592,5.6302263 0,7.7780843 2.1478588,2.147859 9.8728178,6.39045 12.0206768,4.242592 2.147858,-2.147859 -2.094733,-9.8728185 -4.242592,-12.020677 -2.147859,-2.1478583 -5.630226,-2.1478584 -7.7780848,7e-7 z"/>
 <path style="opacity:0.2" d="m 14.965781,8.5230223 c -1.383569,-1.3835694 -3.56612,-1.3835694 -4.94969,5e-7 -1.383569,1.3835692 -1.3835699,3.5661202 0,4.9496902 0.691785,0.691785 3.142859,2.345023 5.386104,3.309001 1.121622,0.481988 2.222661,0.814944 2.98031,0.90735 0.467648,0.05704 0.698931,0.01218 0.794105,-0.0055 0.0177,-0.09517 0.06256,-0.326456 0.0055,-0.794105 C 19.0897,16.131812 18.756752,15.03077 18.27476,13.909148 17.310783,11.665905 15.657544,9.214832 14.965758,8.5230463 Z"/>
 <path style="fill:#8b9cbe" d="m 14.965781,8.0230223 c -1.383569,-1.3835694 -3.56612,-1.3835694 -4.94969,5e-7 -1.383569,1.3835692 -1.3835699,3.5661202 0,4.9496902 0.691785,0.691785 3.142859,2.345023 5.386104,3.309001 1.121622,0.481988 2.222661,0.814944 2.98031,0.90735 0.467648,0.05704 0.698931,0.01218 0.794105,-0.0055 0.0177,-0.09517 0.06256,-0.326456 0.0055,-0.794105 C 19.0897,15.631812 18.756752,14.53077 18.27476,13.409148 17.310783,11.165905 15.657544,8.7148319 14.965758,8.0230463 Z"/>
 <path style="opacity:0.2" d="m 17.999804,10.999617 c 0,3.037531 -2.462405,5.499937 -5.499936,5.499937 C 9.462337,16.499554 1,14.037148 1,10.999617 1,7.9620866 9.462337,5.499681 12.499868,5.499681 c 3.037531,0 5.499936,2.4624056 5.499936,5.499936 z"/>
 <path style="fill:#d97f33" d="m 17.999804,10.499623 c 0,3.037531 -2.462405,5.499937 -5.499936,5.499937 C 9.462337,15.99956 1,13.537154 1,10.499623 1,7.4620924 9.462337,4.9996867 12.499868,4.9996867 c 3.037531,0 5.499936,2.4624057 5.499936,5.4999363 z"/>
 <path style="opacity:0.2" d="m 12.499868,7.4995399 c 1.956662,0 3.499959,1.5432971 3.499959,3.4999591 0,1.956663 -1.543297,3.49996 -3.499959,3.49996 -0.978332,0 -3.8805193,-0.564155 -6.1483672,-1.468733 C 5.2175769,12.578437 4.2035886,12.035319 3.6025091,11.564922 3.231501,11.274577 3.0996777,11.079314 3.0448983,10.999499 3.0996777,10.919685 3.231501,10.724422 3.6025091,10.434076 4.2035886,9.963679 5.2175769,9.420562 6.3515008,8.968273 8.6193487,8.0636944 11.521536,7.4995399 12.499868,7.4995399 Z"/>
 <path style="fill:#8b9cbe" d="m 12.499868,6.9996637 c 1.956662,0 3.499959,1.5432967 3.499959,3.4999593 0,1.956663 -1.543297,3.49996 -3.499959,3.49996 -0.978332,0 -3.8805193,-0.564155 -6.1483672,-1.468733 C 5.2175769,12.07856 4.2035886,11.535443 3.6025091,11.065046 3.231501,10.7747 3.0996777,10.579438 3.0448983,10.499623 3.0996777,10.419808 3.231501,10.224546 3.6025091,9.9342 4.2035886,9.463803 5.2175769,8.9206861 6.3515008,8.4683968 8.6193487,7.5638182 11.521536,6.9996637 12.499868,6.9996637 Z"/>
 <path style="opacity:0.1;fill:#8b9cbe" d="M 12.499868,4.9996867 C 9.462337,4.9996867 1,7.4620924 1,10.499623 c 0,0.08379 0.0089,0.16712 0.021484,0.249997 0.4437214,-2.9214869 8.524645,-5.249939 11.478384,-5.249939 2.953153,0 5.355654,2.3292666 5.487241,5.249939 0.0038,-0.08345 0.0127,-0.16562 0.0127,-0.249997 0,-3.0375306 -2.462405,-5.4999363 -5.499936,-5.4999363 z"/>
</svg>
