<svg xmlns="http://www.w3.org/2000/svg" width="22" height="22" version="1.1">
 <rect style="opacity:0.2" width="22" height="8" x="0" y="13.5" rx="1.5" ry="1.5"/>
 <rect style="fill:#45c034" width="2" height="19" x="12" y="1"/>
 <rect style="fill:#e7d324" width="2" height="19" x="10" y="1"/>
 <rect style="fill:#c033e3" width="2" height="19" x="16" y="1"/>
 <rect style="fill:#3266b4" width="2" height="19" x="14" y="1"/>
 <rect style="fill:#8b5a3a" width="2" height="19" x="4" y="1"/>
 <rect style="fill:#4f4f4f" width="2" height="19" x="2" y="1"/>
 <rect style="fill:#ff7d27" width="2" height="19" x="8" y="1"/>
 <rect style="fill:#f24040" width="2" height="19" x="6" y="1"/>
 <rect style="fill:#80809d" width="2" height="19" x="18" y="1"/>
 <rect style="fill:#9e9c89" width="22" height="8" x="0" y="13" rx="1.5" ry="1.5"/>
 <path style="opacity:0.2;fill:none;stroke:#000000" d="m 3,20 h 1.5 v -5 h 7 v 5 h 3 v -5 h 3.000102 v 5 H 19"/>
 <path style="fill:none;stroke:#d6d5cd" d="m 3,19.5 h 1.5 v -5 h 7 v 5 h 3 v -5 h 3.000102 v 5 H 19"/>
 <path style="opacity:0.2;fill:#8b9cbe" d="M 1.5,13 C 0.669,13 0,13.669 0,14.5 V 15 c 0,-0.831 0.669,-1.5 1.5,-1.5 h 19 c 0.831,0 1.5,0.669 1.5,1.5 V 14.5 C 22,13.669 21.331,13 20.5,13 Z"/>
 <rect style="opacity:0.1;fill:#8b9cbe" width="18" height=".5" x="2" y="1"/>
</svg>
