<svg xmlns="http://www.w3.org/2000/svg" width="22" height="22" version="1.1">
 <g transform="translate(-1,-1)">
  <rect style="opacity:0.2" width="20" height="20" x="2" y="2.5" rx="1" ry="1"/>
  <rect style="fill:#8e8e8e" width="20" height="20" x="2" y="2" rx="1" ry="1"/>
  <path style="opacity:0.2" d="M 11.5,4.5 C 7.9102,4.5 5,7.4102 5,11 V 20.5 H 9 V 16.998 C 9.792,17.329 10.642,17.499 11.5,17.5 11.811,17.498 12.121,17.474 12.428,17.428 L 16,21 19,18 16.334,15.334 C 17.404,14.144 17.997,12.601 18,11 18,7.4102 15.09,4.5001 11.5,4.5001 Z"/>
  <path style="fill:#dddddd" d="M 11.5,4 C 7.9102,4 5,6.9102 5,10.5 V 20 H 9 V 16.498 C 9.792,16.829 10.642,16.999 11.5,17 11.811,16.998 12.121,16.974 12.428,16.928 L 16,20.5 19,17.5 16.334,14.834 C 17.404,13.644 17.997,12.101 18,10.5 18,6.9102 15.09,4.0001 11.5,4.0001 Z"/>
  <path style="opacity:0.2" d="M 11.5,5.5 C 8.4624,5.5 6,7.9624 6,11 V 19.5 H 8 V 15.24 C 8.9849,16.054 10.222,16.499 11.5,16.5 14.538,16.5 17,14.038 17,11 17,7.9624 14.538,5.5 11.5,5.5 Z"/>
  <path style="fill:#333333" d="M 11.5,5 C 8.4624,5 6,7.4624 6,10.5 V 19 H 8 V 14.74 C 8.9849,15.554 10.222,15.999 11.5,16 14.538,16 17,13.538 17,10.5 17,7.4624 14.538,5 11.5,5 Z"/>
  <circle style="opacity:0.2" cx="11.5" cy="11" r="3.5"/>
  <circle style="fill:#8b9cbe" cx="11.5" cy="10.5" r="3.5"/>
  <path style="opacity:0.2;fill:#8b9cbe" d="M 3,2 C 2.446,2 2,2.446 2,3 V 3.5 C 2,2.946 2.446,2.5 3,2.5 H 21 C 21.554,2.5 22,2.946 22,3.5 V 3 C 22,2.446 21.554,2 21,2 Z"/>
  <path style="opacity:0.1;fill:#8b9cbe" d="M 11.5,5 C 8.4624,5 6,7.4624 6,10.5 V 11 C 6,7.9624 8.4624,5.5 11.5,5.5 14.454,5.5 16.855,7.8293 16.986,10.75 16.99,10.667 17,10.584 17,10.5 17,7.4624 14.538,5 11.5,5 Z"/>
 </g>
</svg>
