<svg xmlns="http://www.w3.org/2000/svg" width="22" height="22" version="1.1">
 <g transform="translate(-1,-1)">
  <rect style="opacity:0.20019" width="20" height="20" x="2" y="2.5" rx="1" ry="1"/>
  <rect style="fill:#eef4f7" width="20" height="20" x="2" y="2" rx="1" ry="1"/>
  <path fill="#8b9cbe" style="opacity:0.2" d="M 3,2 C 2.446,2 2,2.446 2,3 V 3.5 C 2,2.946 2.446,2.5 3,2.5 H 21 C 21.554,2.5 22,2.946 22,3.5 V 3 C 22,2.446 21.554,2 21,2 Z"/>
  <path style="opacity:0.1;fill:none;stroke:#000000;stroke-width:0.99998;stroke-linecap:round;stroke-linejoin:round" d="M 9.5,19 H 11.5 M 9.5,20 V 17 C 9.5,17 9.5,16 10.5,16 11.5,16 11.5,17 11.5,17 V 20 M 13.5,16 V 20 H 15.5 M 19.499,19.5 C 19.499,19.5 19.499,20 18.499,20 17.499,20 17.499,19 17.499,18 17.499,17 17.499,16 18.499,16 19.499,16 19.499,16.5 19.499,16.5 M 13.5,10.5 C 13.5,10.5 13.75,11 14.5,11 15.25,11 15.5,10.5 15.5,10 15.5,7.9999 13.5,10 13.5,7.9999 13.5,7.4999 13.75,7 14.5,7 15.25,7 15.5,7.4999 15.5,7.4999 M 9.5,10 H 11.5 M 9.5,11 V 7.9999 C 9.5,7.9999 9.5,7 10.5,7 11.5,7 11.5,7.9999 11.5,7.9999 V 11 M 17.5,8.9999 H 19.5 M 19.5,11 V 7 M 17.5,11 V 7 M 7.5,19.5 C 7.5,19.5 7.5,20 6,20 4.5,20 4.5,18.491 4.5,17 4.5,15.507 4.5,14 6,14 7.5,14 7.5,14.5 7.5,14.5 M 4.5,7.9998 H 7.5 M 7.5,11 V 5 M 4.5,11 V 5"/>
  <path style="fill:none;stroke:#0051cb;stroke-width:0.99998;stroke-linecap:round;stroke-linejoin:round" d="M 9.5,18.5 H 11.5 M 9.5,19.5 V 16.5 C 9.5,16.5 9.5,15.5 10.5,15.5 11.5,15.5 11.5,16.5 11.5,16.5 V 19.5 M 13.5,15.5 V 19.5 H 15.5 M 19.499,19 C 19.499,19 19.499,19.5 18.499,19.5 17.499,19.5 17.499,18.5 17.499,17.5 17.499,16.5 17.499,15.5 18.499,15.5 19.499,15.5 19.499,16 19.499,16 M 13.5,10 C 13.5,10 13.75,10.5 14.5,10.5 15.25,10.5 15.5,10 15.5,9.4999 15.5,7.4999 13.5,9.4999 13.5,7.4999 13.5,6.9999 13.75,6.5 14.5,6.5 15.25,6.5 15.5,6.9999 15.5,6.9999 M 9.5,9.4998 H 11.5 M 9.5,10.5 V 7.4999 C 9.5,7.4999 9.5,6.5 10.5,6.5 11.5,6.5 11.5,7.4999 11.5,7.4999 V 10.5 M 17.5,8.4999 H 19.5 M 19.5,10.5 V 6.5 M 17.5,10.5 V 6.5 M 7.5,19 C 7.5,19 7.5,19.5 6,19.5 4.5,19.5 4.5,17.991 4.5,16.5 4.5,15.007 4.5,13.5 6,13.5 7.5,13.5 7.5,14 7.5,14 M 4.5,7.4998 H 7.5 M 7.5,10.5 V 4.5 M 4.5,10.5 V 4.5"/>
 </g>
</svg>
