<svg xmlns="http://www.w3.org/2000/svg" width="22" height="22" version="1.1">
 <g transform="translate(-1,-1)">
  <path style="fill:#8b9cbe" d="m 14,18 h 6 l -1.5,1 H 14 Z"/>
  <path style="fill:#8b9cbe" d="m 20,18 -3,3 v -2.499999 z"/>
 </g>
 <path style="opacity:0.2" d="M 2.8636364,2.5 H 20 c 0,0 1,0 1,1 v 13 l -2.863636,3 H 1.0000004 c 0,0 -1,0 -1,-1 v -13 z"/>
 <path style="fill:#00cc5c" d="M 2.8636364,2 H 20 c 0,0 1,0 1,1 v 13 l -2.863636,3 H 1.0000004 c 0,0 -1,0 -1,-1 V 5 Z"/>
 <path style="opacity:0.2" d="M 7.5175781,5.5 C 4.7382681,5.5 4,7 4,10 c 0,3 0.7252781,4.5 3.5175781,4.5 H 8.3105469 L 9.466797,16.5 10.804688,16 9.712891,14 C 10.751886,13.5 11,12 11,10 11,7 10.296888,5.5 7.5175781,5.5 Z M 13,5.5 v 2 h -1 v 1 h 1 V 12 c 0,2 0.467967,2.5 1.935547,2.5 h 1.095703 l -0.0625,-1 H 14.730469 C 14.055118,13.5 14,13 14,12 V 8.5 h 2 v -1 h -2 v -2 z m -5.4921875,1 C 9.52615,6.5 10.000005,7.6666667 10,10 10,12.333333 9.541444,13.5 7.5078125,13.5 5.4741812,13.5 5,12.333333 5,10 5,7.6666667 5.489475,6.5 7.5078125,6.5 Z"/>
 <path style="fill:#8b9cbe" d="M 7.5175781,5 C 4.7382681,5 4,6.5 4,9.5 4,12.5 4.7252781,14 7.5175781,14 h 0.7929688 l 1.1562501,2 1.337891,-0.5 -1.091797,-2 C 10.751886,13 11,11.5 11,9.5 11,6.5 10.296888,5 7.5175781,5 Z M 13,5 v 2 h -1 v 1 h 1 v 3.5 c 0,2 0.467967,2.5 1.935547,2.5 h 1.095703 l -0.0625,-1 H 14.730469 C 14.055118,13 14,12.5 14,11.5 V 8 h 2 V 7 H 14 V 5 Z M 7.5078125,6 C 9.52615,6 10.000005,7.1666667 10,9.5 10,11.833333 9.541444,13 7.5078125,13 5.4741812,13 5,11.833333 5,9.5 5,7.1666667 5.489475,6 7.5078125,6 Z"/>
 <path style="opacity:0.2;fill:#8b9cbe" d="M 2.8632813,2 0,5 v 0.5 l 2.8632813,-3 H 20 c 0,0 1,0 1,1 V 3 C 21,2 20,2 20,2 Z"/>
 <circle style="fill:#e55252" cx="16" cy="16" r="6"/>
 <g transform="translate(-1,-2)">
  <path style="fill:#8b9cbe" d="m 14,18 h 6 l -1.5,1 H 14 Z"/>
  <path style="fill:#8b9cbe" d="m 20,18 -3,3 v -2.499999 z"/>
 </g>
 <g transform="rotate(-180,16.5,16.5)">
  <path style="fill:#8b9cbe" d="m 14,18 h 6 l -1.5,1 H 14 Z"/>
  <path style="fill:#8b9cbe" d="m 20,18 -3,3 v -2.499999 z"/>
 </g>
</svg>
