<svg xmlns="http://www.w3.org/2000/svg" width="22" height="22" version="1.1">
 <path style="opacity:0.2" d="M 11,1.4999996 A 9.9999857,9.9999857 0 0 0 1,11.5 a 9.9999857,9.9999857 0 0 0 10,10 9.9999857,9.9999857 0 0 0 5.123047,-1.425781 l 0.392578,0.960937 A 0.7500739,0.7500739 0 0 0 17.208984,21.5 H 21.25 a 0.7500739,0.7500739 0 0 0 0.697266,-1.027344 l -1.894532,-4.75 A 9.9999857,9.9999857 0 0 0 21,11.5 9.9999857,9.9999857 0 0 0 11,1.4999996 Z"/>
 <circle style="fill:#4f4f4f" cx="11" cy="11" r="10"/>
 <path style="opacity:0.2" d="m 8.8024367,2.9473316 c -0.01026,0.393306 -0.6958004,0.05134 -0.7255849,0.5009758 -0.7602004,-0.3384508 0.058471,0.5164007 -0.01758,0.5957025 h -0.0049 l -0.05664,-0.00586 C 7.9610415,4.0250499 7.9075675,4.0027049 7.8287862,3.9541655 7.6685574,4.0818233 7.5554171,4.2511466 7.4606227,4.4385398 6.8269106,5.4243768 6.5186001,6.2465411 6.3102339,7.2852151 6.0441623,8.6115462 5.9787419,10.162056 6.0055468,11.46978 c 0.028545,0.368684 0.1208763,0.716278 0.4228509,0.949217 0.8508033,0.698859 1.5580837,1.582733 2.2724577,2.423825 1.4063516,1.906632 2.6391336,3.532565 3.4423776,5.24218 -0.08846,-0.574543 -0.20381,-1.488062 -0.25877,-2.194333 -0.487759,-2.488787 -1.770516,-3.804942 -1.884762,-6.584951 -0.02679,-0.68769 0.715296,-2.0772061 1.544919,-2.8066366 1.251886,-1.1006964 2.442643,-0.8231468 4.040033,-0.5869132 0.0086,0.00145 0.01971,0.00445 0.02832,0.00586 0.05301,0.00887 0.110468,0.018015 0.163086,0.02832 0.426791,0.038035 1.285505,0.2047562 1.439452,-0.089843 -0.588931,-0.5014723 -1.43638,-0.5665257 -2.153318,-0.7636709 -0.113492,-0.02064 -0.254925,-0.04367 -0.39453,-0.05664 l -0.702148,-0.1572268 -0.174804,-0.04492 v 0.0049 L 11.277043,6.34969 c -0.03997,-0.0364 -0.08386,-0.073019 -0.124024,-0.1005859 l 2.452145,0.3037106 v -0.01172 c 0.08641,0.019255 0.172087,0.03477 0.258789,0.04492 v 0.00586 l 1.732419,0.3203121 c 0.298947,0.1114993 0.61795,0.1951922 0.916991,0.2138667 0.493611,0.071823 1.120292,0.8083688 1.282225,0.8437487 -0.07936,-0.7751624 -0.853519,-1.1220909 -1.496092,-1.3496076 -0.750721,-0.3649995 -1.872387,-0.351954 -1.991208,-1.361326 -0.0316,-0.070345 -0.06314,-0.1405203 -0.101563,-0.2080247 l -0.291991,-0.3876944 0.01074,-0.00586 C 13.526422,4.1863091 12.964691,3.8430096 12.367861,3.7119789 11.775484,3.5075049 11.110579,3.3040085 10.484075,3.2227218 10.271464,3.8487295 10.033415,2.7267933 9.522162,3.0596361 9.074026,3.1127078 9.136089,3.2312564 8.8024367,2.9473316 Z M 12.10712,4.5010402 c 0.177092,-0.00548 0.37958,0.032075 0.583006,0.1142578 0.542464,0.2191482 0.895137,0.680816 0.791015,1.0332015 -0.104122,0.352385 -0.629409,0.4564513 -1.171873,0.2373042 -0.542465,-0.2191482 -0.895135,-0.6739795 -0.791015,-1.0263655 0.06508,-0.2202397 0.293715,-0.3492855 0.588867,-0.358398 z"/>
 <path style="fill:#ff7111" d="m 8.8024367,2.4472933 c -0.01026,0.3933061 -0.6958004,0.051341 -0.7255849,0.5009759 -0.7602004,-0.3384508 0.058471,0.5164006 -0.01758,0.5957022 h -0.0049 l -0.05664,-0.00586 C 7.9610415,3.5250094 7.9075675,3.5026694 7.8287862,3.4541276 7.6685574,3.5817853 7.5554171,3.7511087 7.4606227,3.9385019 6.8269106,4.9243391 6.5186001,5.7465034 6.3102339,6.7851774 6.0441623,8.1115084 5.9787419,9.6620179 6.0055468,10.969742 c 0.028545,0.368684 0.1208763,0.716278 0.4228509,0.949217 0.8508033,0.698859 1.5580837,1.582734 2.2724577,2.423825 1.4063516,1.906633 2.6391336,3.532565 3.4423776,5.24218 -0.08846,-0.574543 -0.20381,-1.488063 -0.25877,-2.194333 -0.487759,-2.488787 -1.770516,-3.804942 -1.884762,-6.584951 -0.02679,-0.68769 0.715296,-2.077206 1.544919,-2.8066369 1.251886,-1.1006964 2.442643,-0.8231468 4.040033,-0.5869132 0.0086,0.00145 0.01971,0.00445 0.02832,0.00586 0.05301,0.00887 0.110468,0.018015 0.163086,0.02832 0.426791,0.038035 1.285505,0.2047562 1.439452,-0.089843 C 16.62658,6.8549947 15.779131,6.7899412 15.062193,6.592796 14.948701,6.572156 14.807268,6.549131 14.667663,6.536156 l -0.702148,-0.1572268 -0.174804,-0.04492 v 0.0049 L 11.277043,5.8496517 c -0.03997,-0.0364 -0.08386,-0.073019 -0.124024,-0.1005858 l 2.452145,0.3037105 v -0.01172 c 0.08641,0.019255 0.172087,0.03477 0.258789,0.04492 v 0.00586 l 1.732419,0.320312 c 0.298947,0.1114993 0.61795,0.1951922 0.916991,0.2138667 0.493611,0.071823 1.120292,0.8083688 1.282225,0.8437488 C 17.716225,6.6946015 16.942069,6.347673 16.299496,6.1201563 15.548775,5.7551569 14.427109,5.7682023 14.308288,4.7588303 14.276683,4.6885024 14.245147,4.618327 14.206725,4.5508226 l -0.291991,-0.3876944 0.01074,-0.00586 C 13.526422,3.6862711 12.964691,3.3429713 12.367861,3.2119406 11.775484,3.0074667 11.110579,2.8039703 10.484075,2.7226835 10.271464,3.3486913 10.033415,2.2267551 9.522162,2.5595978 9.074026,2.6126695 9.136089,2.7312182 8.8024367,2.4472933 Z M 12.10712,4.0010019 c 0.177092,-0.00549 0.37958,0.032075 0.583006,0.1142579 0.542464,0.2191481 0.895137,0.680816 0.791015,1.0332014 -0.104122,0.352385 -0.629409,0.4564514 -1.171873,0.2373042 -0.542465,-0.2191482 -0.895135,-0.6739795 -0.791015,-1.0263655 0.06508,-0.2202397 0.293715,-0.3492855 0.588867,-0.358398 z"/>
 <path style="fill:#4f4f4f" d="m 14.750222,13.500012 a 0.7500739,0.7500739 0 0 0 -0.694335,1.034178 l 2.458981,5.999991 a 0.7500739,0.7500739 0 0 0 0.694335,0.46582 h 4.041009 A 0.7500739,0.7500739 0 0 0 21.9465,19.971682 L 19.551973,13.97169 a 0.7500739,0.7500739 0 0 0 -0.696288,-0.471678 z"/>
 <path style="opacity:0.2;fill:#8b9cbe" d="m 8.8024367,2.4472933 c -0.01026,0.3933061 -0.6958004,0.051341 -0.7255849,0.5009759 -0.6200881,-0.276071 -0.1950912,0.2371457 -0.05664,0.480468 0.021605,0.0086 0.03173,0.00844 0.05664,0.019532 0.029785,-0.4496354 0.715325,-0.1076698 0.7255849,-0.5009759 0.3336523,0.2839249 0.2715893,0.1653762 0.7197253,0.1123045 0.511253,-0.3328427 0.749302,0.7890935 0.961913,0.1630858 0.626504,0.081287 1.291409,0.2847831 1.883786,0.489257 0.59683,0.1310307 1.158563,0.474331 1.557615,0.9453114 l -0.01074,0.00586 0.291991,0.3876944 c 0.03842,0.067505 0.06996,0.1376628 0.101563,0.2080077 0.113334,0.9627646 1.135896,0.998711 1.881833,1.3164046 0.108498,0.021075 0.217947,0.044205 0.323242,0.050781 0.493611,0.071823 1.120292,0.8083688 1.282225,0.8437488 C 17.71623,6.6945855 16.942071,6.347657 16.299498,6.1201403 15.548777,5.7551409 14.427111,5.7681863 14.30829,4.7588143 14.27669,4.6884863 14.24515,4.6183115 14.206727,4.5508066 l -0.291991,-0.3876944 0.01074,-0.00586 C 13.526422,3.6862711 12.964691,3.3429713 12.367861,3.2119406 11.775484,3.0074667 11.110579,2.8039703 10.484075,2.7226835 10.271464,3.3486913 10.033415,2.2267551 9.522162,2.5595978 9.074026,2.6126695 9.136089,2.7312182 8.8024367,2.4472933 Z M 7.7760707,3.5097917 C 7.6460999,3.6301838 7.5434511,3.774801 7.4606417,3.9385021 6.8269296,4.9243391 6.5186191,5.7465034 6.3102529,6.7851774 6.0788112,7.9388822 6.0037528,9.2538579 6.0045893,10.439469 6.0245693,9.3928459 6.1114287,8.2762877 6.3102529,7.2851766 6.5186191,6.2465026 6.8269296,5.4243383 7.4606417,4.4385013 7.5554361,4.2511081 7.6685764,4.0817848 7.8288052,3.954127 c 0.078781,0.04854 0.1322553,0.070884 0.1689452,0.083984 l 0.05664,0.00586 h 0.0049 C 8.1035108,3.9978629 7.8506071,3.6932723 7.7760877,3.5097922 Z m 3.7949163,1.2499981 c -0.01985,0.03185 -0.04175,0.062422 -0.05273,0.099609 -0.10412,0.352386 0.24855,0.8072173 0.791015,1.0263655 0.01051,0.00425 0.02075,0.00674 0.03125,0.010745 l 0.703124,0.086914 c 0.21967,-0.040255 0.384225,-0.1546637 0.437499,-0.3349605 0.03649,-0.1234883 0.01441,-0.2603181 -0.0498,-0.3955074 C 13.261221,5.5181987 12.792814,5.5811136 12.309268,5.3857679 11.960076,5.2446996 11.691673,5.0059895 11.570987,4.7597923 Z m -0.417968,1.4892558 c 0.04017,0.027565 0.08405,0.064186 0.124024,0.1005859 l 2.513668,0.4892568 v -0.0049 l 0.174804,0.04492 0.702148,0.1572268 c 0.139605,0.01297 0.281038,0.036 0.39453,0.05664 0.514352,0.1414378 1.094561,0.2172252 1.599607,0.4326164 0.187909,0.00185 0.356584,-0.01581 0.461914,-0.078125 C 16.922932,7.2943681 16.709652,7.1545398 16.513363,7.1259784 16.214322,7.1073034 15.895319,7.023611 15.596372,6.9121117 L 13.863953,6.5917996 v -0.00586 c -0.0867,-0.01015 -0.172381,-0.025665 -0.258789,-0.04492 v 0.01172 z M 10.018255,11.084 c -0.01104,0.07791 -0.02113,0.155538 -0.01855,0.221679 0.114247,2.780009 1.397003,4.096164 1.884763,6.584951 0.03703,0.475876 0.10085,1.013773 0.166015,1.51074 0.03003,0.06136 0.06385,0.122032 0.09277,0.183594 -0.08848,-0.574543 -0.20383,-1.488063 -0.25879,-2.194333 C 11.413508,14.987585 10.204055,13.673867 10.018255,11.084 Z"/>
 <path style="opacity:0.1;fill:#8b9cbe" d="M 11,0.99999993 A 9.9999857,9.9999857 0 0 0 1,11 9.9999857,9.9999857 0 0 0 1.0097656,11.207031 9.9999857,9.9999857 0 0 1 11,1.4999999 9.9999857,9.9999857 0 0 1 20.992188,11.351562 9.9999857,9.9999857 0 0 0 21,11 9.9999857,9.9999857 0 0 0 11,0.99999993 Z M 20.154297,15.476562 a 9.9999857,9.9999857 0 0 1 -0.101563,0.246094 l 1.894532,4.75 a 0.7500739,0.7500739 0 0 1 0.0098,0.02539 0.7500739,0.7500739 0 0 0 -0.0098,-0.525391 z"/>
</svg>
