<svg xmlns="http://www.w3.org/2000/svg" width="22" height="22" version="1.1">
 <path style="opacity:0.2;fill-rule:evenodd" d="m 9.5820306,6.8438436 c -2.518855,0.1557949 -3.9948997,4.1560284 -4.3496091,5.5878914 0.035679,0.002 0.057691,0.0048 0.080078,0.0078 0.00601,0.04243 0.015625,0.62463 0.015625,0.761719 0,0.08386 -0.00749,0.17132 -0.023437,0.236328 -0.015945,0.06499 -0.038778,0.101725 -0.050781,0.109375 l -0.015625,0.0059 -0.00586,0.0078 c 0,0 -0.1536677,0.157116 -0.2109375,0.419922 -0.068747,0.571107 0.2032575,0.753548 0.5117187,1.130859 0.1210576,0.107873 0.2441946,0.206763 0.3691407,0.302734 0.6994753,0.494679 1.3447063,0.942344 1.9414062,1.556641 0.091874,0.09688 0.1634624,0.181214 0.2109375,0.251953 0.047504,0.07074 0.066406,0.125742 0.066406,0.136719 -0.00175,0.01395 -0.092291,0.777851 -0.1386719,1.566406 -0.023385,0.397884 -0.034496,0.590823 -0.013672,0.90625 0.01043,0.157725 0.024529,0.294871 0.056641,0.404297 0.01607,0.05472 0.037045,0.101108 0.066406,0.144531 0.029359,0.04342 0.070209,0.08599 0.1308593,0.101563 0.2630763,0.0676 0.5445914,-0.07085 0.765625,-0.246094 0.2210341,-0.175243 0.3973141,-0.386711 0.4082031,-0.613281 0.01709,-0.35536 -0.220997,-0.533878 -0.248046,-0.564453 -0.0064,-0.02442 -0.141212,0.03003 -0.1640633,-0.16211 -0.01234,-0.10371 -0.024075,-0.207005 -0.015625,-0.294938 0.0084,-0.08793 0.038783,-0.155906 0.058594,-0.175781 0.02763,-0.02777 0.06617,-0.03614 0.138672,-0.03516 0.0725,9.5e-4 0.16777,0.01247 0.269531,0.03516 0.101737,0.02267 0.311725,0.05689 0.419922,0.06641 0.108173,0.0095 0.2199267,-0.0041 0.3203117,-0.06641 0.215461,-0.133829 0.219269,-0.427711 0.427735,-0.693359 0.104231,-0.132836 0.143915,-0.219215 0.283203,-0.337891 0.03222,-0.02745 0.06393,-0.03421 0.09766,-0.03125 C 9.2187603,11.603821 11.000378,7.4996585 10.339847,6.865328 9.7752883,6.856668 9.5888193,6.844488 9.5820343,6.843844 Z m 2.8203134,0 c -0.0068,6.44e-4 -0.193254,0.012824 -0.757813,0.021484 C 10.984003,7.4996585 12.765618,11.603821 11,17.363375 c 0.03373,-0.003 0.06544,0.0038 0.09766,0.03125 0.139288,0.118676 0.178972,0.205055 0.283203,0.337891 0.208466,0.265648 0.212274,0.55953 0.427735,0.693359 0.100385,0.06233 0.212139,0.07591 0.320312,0.06641 0.108197,-0.0095 0.318185,-0.04374 0.419922,-0.06641 0.101761,-0.02269 0.197031,-0.03421 0.269531,-0.03516 0.0725,-9.8e-4 0.111042,0.0074 0.138672,0.03516 0.01981,0.01987 0.05019,0.08785 0.05859,0.175781 0.0084,0.08793 -0.0033,0.191228 -0.01563,0.294922 -0.02285,0.192143 -0.157663,0.13769 -0.164062,0.16211 -0.02705,0.03057 -0.265137,0.209093 -0.248047,0.564453 0.01089,0.22657 0.18717,0.438038 0.408203,0.613281 0.221034,0.175242 0.502572,0.313694 0.765625,0.246094 0.06065,-0.01557 0.101499,-0.05814 0.130859,-0.101563 0.02936,-0.04342 0.05034,-0.08981 0.06641,-0.144531 0.03212,-0.109426 0.04621,-0.246572 0.05664,-0.404297 0.02082,-0.315427 0.0097,-0.508366 -0.01367,-0.90625 -0.04638,-0.788555 -0.136972,-1.552456 -0.138672,-1.566406 0,-0.01098 0.01891,-0.06598 0.06641,-0.136719 0.04747,-0.07074 0.119067,-0.155073 0.210937,-0.251953 0.5967,-0.614297 1.24193,-1.061962 1.941406,-1.556641 0.124946,-0.09597 0.248083,-0.194861 0.369141,-0.302734 0.308461,-0.377311 0.580469,-0.559752 0.511719,-1.130859 -0.05727,-0.262806 -0.210938,-0.419922 -0.210938,-0.419922 l -0.0059,-0.0078 -0.01563,-0.0059 c -0.01201,-0.0076 -0.03483,-0.04439 -0.05078,-0.109375 -0.01596,-0.06501 -0.02344,-0.152468 -0.02344,-0.236328 0,-0.137089 0.0096,-0.719289 0.01563,-0.761719 0.02238,-0.003 0.0444,-0.0058 0.08008,-0.0078 -0.35471,-1.431863 -1.830754,-5.4320965 -4.349609,-5.5878914 z"/>
 <path style="fill:#cccccc;fill-rule:evenodd" d="M 9.5820586,6.3440302 C 7.0632033,6.4998251 5.5862691,10.500237 5.2315597,11.9321 c 0.035679,0.002 0.058666,0.0048 0.081053,0.0078 0.00601,0.04243 0.01465,0.623347 0.01465,0.760436 0,0.08386 -0.00651,0.172291 -0.02246,0.237299 -0.015945,0.06499 -0.039754,0.100747 -0.051757,0.108397 l -0.01465,0.0068 -0.00683,0.0078 c 0,0 -0.1536635,0.15613 -0.2109333,0.418936 -0.068747,0.571107 0.2045292,0.754566 0.5129904,1.131877 0.1210576,0.107873 0.2437689,0.206059 0.368715,0.302031 0.6994753,0.494678 1.3454138,0.94197 1.9421137,1.556267 0.091874,0.09688 0.1634582,0.181209 0.2109333,0.251948 0.047504,0.07074 0.065428,0.126716 0.065428,0.137693 -0.00175,0.01395 -0.091311,0.77782 -0.1376923,1.566375 -0.023385,0.397884 -0.035474,0.590805 -0.01465,0.906232 0.01043,0.157725 0.025504,0.29584 0.057616,0.405266 0.01607,0.05472 0.037044,0.101105 0.066405,0.144528 0.029359,0.04342 0.070206,0.08501 0.1308564,0.100584 0.2630762,0.0676 0.5435997,-0.06987 0.7646333,-0.245112 0.2210334,-0.175243 0.3973064,-0.387676 0.4081954,-0.614246 0.01709,-0.35536 -0.220016,-0.533318 -0.247066,-0.563893 -0.0064,-0.02442 -0.142518,0.02906 -0.1653685,-0.163083 -0.01234,-0.103694 -0.0231,-0.206983 -0.01465,-0.294916 0.0084,-0.08793 0.03781,-0.154926 0.057621,-0.174801 0.02763,-0.02777 0.06617,-0.03711 0.13867,-0.03613 0.0725,9.5e-4 0.167764,0.01344 0.269525,0.03613 0.101737,0.02267 0.312047,0.05591 0.420244,0.06543 0.108173,0.0095 0.2208979,-0.0031 0.3212829,-0.06543 0.215461,-0.133829 0.217651,-0.427698 0.426117,-0.693346 0.104231,-0.132836 0.143909,-0.220184 0.283196,-0.33886 0.03222,-0.02745 0.0649,-0.03421 0.09863,-0.03125 C 9.2187601,11.103308 11.000388,6.9997827 10.339861,6.3654522 9.7753001,6.3567922 9.5888471,6.3446122 9.5820631,6.3439682 Z"/>
 <g style="opacity:0.2" transform="matrix(0.23988116,0,0,0.23610254,-0.86382181,-1.0632223)">
  <path style="fill-rule:evenodd" d="m 25.63825,57.444681 c 0,0 10.808695,0.407656 17.001734,-9.746061 6.19304,-10.153717 4.529632,-16.514958 4.529632,-16.514958 0,0 -3.213294,-0.115689 -3.218866,-0.116225 -0.335462,-0.03224 -0.5178,-0.5199 -1,-0.9063 -1.795298,-1.730199 -4.275716,-2.016094 -6.3125,-2.360169 -0.269,0.0755 0.0394,-0.0037 -0.0313,0 -0.0706,0.0037 -0.1158,-0.0038 -0.3125,0 -0.1966,0.0038 -0.6357,-0.005 -1.0937,0 -0.916,0.01 -2.18,0.0351 -3.6875,0.0938 -3.0151,0.1172 -6.9784,0.4145 -10.9688,1.125 -3.9903,0.7105 -8.01105,1.8192 -11.15627,3.6875 -3.13608,1.8628 -5.44221,4.831232 -5.7812498,8.454632 -9.9e-4,0.0105 9.5e-4,0.0207 0,0.0313 -0.00252,0.0271 -0.00982,0.0854 0,0.1875 0.01145,0.119 0.05769,0.282 0.1249998,0.4687 0.13462,0.3733 0.40615,0.8857 0.96875,1.4688 1.1252,1.1661 3.36525,2.6981 7.96872,4.4687 0,0 0.8212,0.347 1.50005,0.875 0.3395,0.264 0.6171,0.5841 0.75,0.8438 0.133,0.2596 0.1563,0.3982 0,0.6562 v 0.0313 c 0,0 -0.1098,0.1752 -0.1562,0.4062 -0.0464,0.231 -0.0532,0.5451 0.0312,0.9375 0.1689,0.7848 0.7239,2.412381 2.1563,3.689081 4e-4,4e-4 0.0989,0.0802 0.125,0.0937 0.0261,0.0135 0.0466,0.0255 0.0625,0.0313 0.0316,0.0115 0.0466,-0.0037 0.0625,0 0.0318,0.0073 0.0436,0.0285 0.0625,0.0312 0.0377,0.0054 0.0526,-0.0042 0.0937,0 0.0822,0.0084 0.2172,0.0164 0.3438,0.0313 0.2532,0.0297 0.5877,0.0667 0.9375,0.1562 0.6995,0.1791 1.3966,0.549 1.6875,1.0938 0.1567,0.2934 0.3986,0.3607 0.625,0.4375 0.2264,0.0767 0.4716,0.1208 0.75,0.1562 0.5567,0.0709 1.2273,0.1116 1.875,0.125 0.6476,0.0135 1.2718,0.0059 1.7187,0.0313"/>
 </g>
 <path style="fill:#b2bfd9;fill-rule:evenodd" d="m 5.2863113,11.999623 c 0,0 2.5928023,0.09625 4.0783957,-2.3010701 1.485594,-2.3973183 1.086573,-3.8992235 1.086573,-3.8992235 0,0 -0.7708083,-0.027315 -0.7721449,-0.027441 C 9.5986641,5.7642764 9.5549246,5.6491387 9.4392539,5.5579087 9.0085958,5.1494043 8.4135902,5.0819037 7.9250041,5.0006668 c -0.064528,0.017826 0.00945,-8.736e-4 -0.00751,0 -0.016936,8.735e-4 -0.027778,-8.972e-4 -0.074963,0 -0.047161,8.971e-4 -0.1524925,-0.00118 -0.2623581,0 -0.2197311,0.00236 -0.5229409,0.00829 -0.8845617,0.022146 -0.7232657,0.027671 -1.6739867,0.097865 -2.6312085,0.2656153 -0.9571978,0.1677509 -1.9217,0.4295178 -2.676179,0.8706282 -0.75228651,0.4398118 -1.30548365,1.1406661 -1.38681291,1.99616 -2.3748e-4,0.00248 2.2789e-4,0.00489 0,0.00739 -6.0450011e-4,0.0064 -0.002355633,0.020163 0,0.044269 0.00274664,0.028096 0.01383874,0.066581 0.0299851,0.1106612 0.0322928,0.088137 0.09742773,0.2091161 0.23238487,0.3467874 0.26991428,0.2753192 0.80726004,0.6370283 1.91154584,1.0550715 0,0 0.1969904,0.081928 0.3598337,0.2065897 0.08144,0.062331 0.1480307,0.1379069 0.1799109,0.1992229 0.031904,0.06129 0.037493,0.09402 0,0.154931 v 0.0074 c 0,0 -0.026339,0.04136 -0.037469,0.0959 -0.011131,0.05454 -0.012762,0.1287 0.00748,0.221347 0.040516,0.185293 0.17365,0.569569 0.5172558,0.871001 9.59e-5,9.4e-5 0.023724,0.01893 0.029985,0.02212 0.00626,0.0032 0.011178,0.006 0.014993,0.0074 0.00758,0.0027 0.011178,-8.74e-4 0.014993,0 0.00763,0.0017 0.010459,0.0067 0.014992,0.0074 0.00904,0.0013 0.012618,-9.91e-4 0.022477,0 0.019718,0.002 0.052102,0.0039 0.082471,0.0074 0.060738,0.007 0.1409782,0.01575 0.2248886,0.03688 0.1677969,0.04229 0.335018,0.129621 0.4047995,0.258249 0.037589,0.06927 0.095617,0.08516 0.1499257,0.103295 0.054309,0.01811 0.113128,0.02852 0.1799109,0.03688 0.1335418,0.01674 0.2944061,0.02635 0.4497771,0.02951 0.1553471,0.0032 0.3050809,0.0014 0.4122838,0.0074"/>
 <path style="fill:#cccccc;fill-rule:evenodd" d="m 12.402321,6.3440302 c 2.518855,0.1557949 3.995789,4.1562068 4.350499,5.5880698 -0.03568,0.002 -0.05867,0.0048 -0.08105,0.0078 -0.006,0.04243 -0.01465,0.623347 -0.01465,0.760436 0,0.08386 0.0065,0.172291 0.02246,0.237299 0.01595,0.06499 0.03975,0.100747 0.05176,0.108397 l 0.01465,0.0068 0.0068,0.0078 c 0,0 0.153663,0.15613 0.210933,0.418936 0.06875,0.571107 -0.204529,0.754566 -0.51299,1.131877 -0.121058,0.107873 -0.243769,0.206059 -0.368715,0.302031 -0.699476,0.494678 -1.345414,0.94197 -1.942114,1.556267 -0.09187,0.09688 -0.163458,0.181209 -0.210933,0.251948 -0.0475,0.07074 -0.06543,0.126716 -0.06543,0.137693 0.0017,0.01395 0.09131,0.77782 0.137692,1.566375 0.02339,0.397884 0.03547,0.590805 0.01465,0.906232 -0.01043,0.157725 -0.0255,0.29584 -0.05762,0.405266 -0.01607,0.05472 -0.03704,0.101105 -0.0664,0.144528 -0.02936,0.04342 -0.07021,0.08501 -0.130856,0.100584 -0.263053,0.0676 -0.543576,-0.06987 -0.76461,-0.245112 -0.221033,-0.175243 -0.397306,-0.387676 -0.408195,-0.614246 -0.01709,-0.35536 0.220016,-0.533318 0.247066,-0.563893 0.0064,-0.02442 0.142518,0.02906 0.165368,-0.163083 0.01234,-0.103694 0.0231,-0.206983 0.01465,-0.294916 -0.0084,-0.08793 -0.03781,-0.154926 -0.05762,-0.174801 -0.02763,-0.02777 -0.06617,-0.03711 -0.13867,-0.03613 -0.0725,9.5e-4 -0.167764,0.01344 -0.269525,0.03613 -0.101737,0.02267 -0.312047,0.05591 -0.420244,0.06543 -0.108173,0.0095 -0.220898,-0.0031 -0.321283,-0.06543 -0.215461,-0.133829 -0.217651,-0.427698 -0.426117,-0.693346 -0.104231,-0.132836 -0.143909,-0.220184 -0.283197,-0.33886 -0.03222,-0.02745 -0.0649,-0.03421 -0.09863,-0.03125 1.765618,-5.759554 -0.01601,-9.8630793 0.644518,-10.4974098 0.564559,-0.00866 0.751013,-0.02084 0.757798,-0.021484 z"/>
 <g style="opacity:0.2" transform="matrix(-0.23988116,0,0,0.23610254,22.863822,-1.0632223)">
  <path style="fill-rule:evenodd" d="m 25.63825,57.444681 c 0,0 10.808695,0.407656 17.001734,-9.746061 6.19304,-10.153717 4.529632,-16.514958 4.529632,-16.514958 0,0 -3.213294,-0.115689 -3.218866,-0.116225 -0.335462,-0.03224 -0.5178,-0.5199 -1,-0.9063 -1.795298,-1.730199 -4.275716,-2.016094 -6.3125,-2.360169 -0.269,0.0755 0.0394,-0.0037 -0.0313,0 -0.0706,0.0037 -0.1158,-0.0038 -0.3125,0 -0.1966,0.0038 -0.6357,-0.005 -1.0937,0 -0.916,0.01 -2.18,0.0351 -3.6875,0.0938 -3.0151,0.1172 -6.9784,0.4145 -10.9688,1.125 -3.9903,0.7105 -8.01105,1.8192 -11.15627,3.6875 -3.13608,1.8628 -5.44221,4.831232 -5.7812498,8.454632 -9.9e-4,0.0105 9.5e-4,0.0207 0,0.0313 -0.00252,0.0271 -0.00982,0.0854 0,0.1875 0.01145,0.119 0.05769,0.282 0.1249998,0.4687 0.13462,0.3733 0.40615,0.8857 0.96875,1.4688 1.1252,1.1661 3.36525,2.6981 7.96872,4.4687 0,0 0.8212,0.347 1.50005,0.875 0.3395,0.264 0.6171,0.5841 0.75,0.8438 0.133,0.2596 0.1563,0.3982 0,0.6562 v 0.0313 c 0,0 -0.1098,0.1752 -0.1562,0.4062 -0.0464,0.231 -0.0532,0.5451 0.0312,0.9375 0.1689,0.7848 0.7239,2.412381 2.1563,3.689081 4e-4,4e-4 0.0989,0.0802 0.125,0.0937 0.0261,0.0135 0.0466,0.0255 0.0625,0.0313 0.0316,0.0115 0.0466,-0.0037 0.0625,0 0.0318,0.0073 0.0436,0.0285 0.0625,0.0312 0.0377,0.0054 0.0526,-0.0042 0.0937,0 0.0822,0.0084 0.2172,0.0164 0.3438,0.0313 0.2532,0.0297 0.5877,0.0667 0.9375,0.1562 0.6995,0.1791 1.3966,0.549 1.6875,1.0938 0.1567,0.2934 0.3986,0.3607 0.625,0.4375 0.2264,0.0767 0.4716,0.1208 0.75,0.1562 0.5567,0.0709 1.2273,0.1116 1.875,0.125 0.6476,0.0135 1.2718,0.0059 1.7187,0.0313"/>
 </g>
 <path style="fill:#b2bfd9;fill-rule:evenodd" d="m 16.713689,11.999623 c 0,0 -2.592802,0.09625 -4.078396,-2.3010701 C 11.1497,7.3012346 11.54872,5.7993294 11.54872,5.7993294 c 0,0 0.770808,-0.027315 0.772145,-0.027441 0.08047,-0.00761 0.124211,-0.1227497 0.239881,-0.2139797 0.430658,-0.4085044 1.025664,-0.476005 1.51425,-0.5572419 0.06453,0.017826 -0.0095,-8.736e-4 0.0075,0 0.01694,8.735e-4 0.02778,-8.972e-4 0.07496,0 0.04716,8.971e-4 0.152493,-0.00118 0.262358,0 0.219731,0.00236 0.522941,0.00829 0.884562,0.022146 0.723266,0.027671 1.673987,0.097865 2.631209,0.2656153 0.957197,0.1677509 1.921699,0.4295178 2.676178,0.8706282 0.752287,0.4398118 1.305484,1.1406661 1.386813,1.99616 2.38e-4,0.00248 -2.27e-4,0.00489 0,0.00739 6.05e-4,0.0064 0.0024,0.020163 0,0.044269 -0.0027,0.028096 -0.01384,0.066581 -0.02998,0.1106612 -0.03229,0.088137 -0.09743,0.2091161 -0.232385,0.3467874 -0.269914,0.2753192 -0.80726,0.6370283 -1.911545,1.0550715 0,0 -0.196991,0.081928 -0.359834,0.2065897 -0.08144,0.062331 -0.148031,0.1379069 -0.179911,0.1992229 -0.0319,0.06129 -0.03749,0.09402 0,0.154931 v 0.0074 c 0,0 0.02634,0.04136 0.03747,0.0959 0.01113,0.05454 0.01276,0.1287 -0.0075,0.221347 -0.04052,0.185293 -0.17365,0.569569 -0.517256,0.871001 -9.6e-5,9.4e-5 -0.02372,0.01893 -0.02998,0.02212 -0.0063,0.0032 -0.01118,0.006 -0.01499,0.0074 -0.0076,0.0027 -0.01118,-8.74e-4 -0.01499,0 -0.0076,0.0017 -0.01046,0.0067 -0.01499,0.0074 -0.009,0.0013 -0.01262,-9.91e-4 -0.02248,0 -0.01972,0.002 -0.0521,0.0039 -0.08247,0.0074 -0.06074,0.007 -0.140979,0.01575 -0.224889,0.03688 -0.167797,0.04229 -0.335018,0.129621 -0.404799,0.258249 -0.03759,0.06927 -0.09562,0.08516 -0.149926,0.103295 -0.05431,0.01811 -0.113128,0.02852 -0.179911,0.03688 -0.133542,0.01674 -0.294406,0.02635 -0.449777,0.02951 -0.155347,0.0032 -0.305081,0.0014 -0.412284,0.0074"/>
 <path style="opacity:0.2" d="m 8.3583671,1.5128576 c -0.197496,0 -0.3584928,0.1766465 -0.3584928,0.3945422 0,0.1780914 0.1071378,0.3278535 0.2548799,0.3769475 0.2220206,0.8328835 0.7447852,1.6174679 1.4667714,2.1874566 A 1.4999702,1.9999603 0 0 0 9.5000296,5.5127832 1.4999702,1.9999603 0 0 0 10.00002,7.0012537 V 17.012555 c 0,0.868033 0.399067,1.49997 0.99998,1.49997 0.600913,0 0.99863,-0.657687 0.99998,-1.49997 V 7.0002537 A 1.4999702,1.9999603 0 0 0 12.49997,5.5127832 1.4999702,1.9999603 0 0 0 12.279475,4.4718039 c 0.721485,-0.5699887 1.243475,-1.3549731 1.465471,-2.1874566 0.147997,-0.049099 0.254995,-0.1988961 0.254995,-0.3769425 0,-0.2178957 -0.160997,-0.3945422 -0.358493,-0.3945422 -0.198291,0 -0.359368,0.1770165 -0.359368,0.3945222 0,0.1200376 0.04899,0.2268005 0.125972,0.298824 -0.202511,0.7354355 -0.670536,1.4298717 -1.312474,1.9433115 A 1.4999702,1.9999603 0 0 0 11.0001,3.5130329 1.4999702,1.9999603 0 0 0 9.9056216,4.1495203 C 9.2631346,3.6360305 8.7946435,2.9420442 8.5921475,2.2064088 8.6691465,2.1344108 8.718145,2.0276124 8.718145,1.9076148 c 0,-0.2175457 -0.1614968,-0.3945422 -0.3594929,-0.3945422 z"/>
 <g style="fill:#8b9cbe" transform="matrix(0.23988116,0,0,0.23610254,-0.86382181,-1.5632124)">
  <path style="opacity:0.2;fill:#8b9cbe;fill-rule:evenodd" transform="matrix(2.0843241,0,0,2.1176819,-0.56669883,0.26952161)" d="m 17.160156,13 c -0.439471,0.0047 -1.046275,0.0172 -1.769531,0.04492 -1.44656,0.05534 -3.347237,0.195742 -5.261719,0.53125 -1.9144331,0.335508 -3.8445274,0.859949 -5.3535154,1.742187 -1.5046028,0.879641 -2.6107757,2.281166 -2.7734375,3.992188 -4.749e-4,0.005 4.558e-4,0.0087 0,0.01367 -0.00121,0.0128 -0.00471,0.04163 0,0.08984 0.00549,0.05619 0.028254,0.132541 0.060547,0.220704 0.00834,0.02276 0.028374,0.0552 0.039063,0.08008 0.3340906,-1.440462 1.3478966,-2.621301 2.6738281,-3.396485 1.508988,-0.882238 3.4390823,-1.406679 5.3535158,-1.742187 1.914482,-0.335508 3.815159,-0.475907 5.261719,-0.53125 0.723256,-0.02772 1.33006,-0.0402 1.769531,-0.04492 0.219736,-0.0024 0.431068,0.0018 0.525391,0 0.09437,-0.0018 0.114565,0.0017 0.148437,0 0.03392,-0.0017 -0.113433,0.03565 0.01563,0 0.977192,0.162477 2.167964,0.298209 3.029297,1.115234 0.231346,0.182464 0.317571,0.412511 0.478516,0.427735 0.0027,2.53e-4 1.544922,0.05469 1.544922,0.05469 0,0 0.04339,0.197485 0.07227,0.50586 0.05377,-0.957265 -0.07227,-1.50586 -0.07227,-1.50586 0,0 -1.542249,-0.05443 -1.544922,-0.05469 -0.160945,-0.01522 -0.24717,-0.245271 -0.478516,-0.427735 C 20.017573,13.298209 18.826801,13.162477 17.849609,13 c -0.129058,0.03565 0.01829,-0.0017 -0.01563,0 -0.03387,0.0017 -0.05407,-0.0018 -0.148437,0 -0.09432,0.0018 -0.305655,-0.0024 -0.525391,0 z m 12.990235,0 c -0.977192,0.162477 -2.167964,0.298209 -3.029297,1.115234 -0.231346,0.182464 -0.317571,0.412511 -0.478516,0.427735 -0.0027,2.53e-4 -1.544922,0.05469 -1.544922,0.05469 0,0 -0.126036,0.548595 -0.07227,1.50586 0.02888,-0.308375 0.07227,-0.50586 0.07227,-0.50586 0,0 1.542249,-0.05443 1.544922,-0.05469 0.160945,-0.01522 0.24717,-0.245271 0.478516,-0.427735 0.861333,-0.817025 2.052105,-0.952757 3.029297,-1.115234 0.129058,0.03565 -0.01829,-0.0017 0.01563,0 0.03387,0.0017 0.05407,-0.0018 0.148437,0 0.09432,0.0018 0.305655,-0.0024 0.525391,0 0.439471,0.0047 1.046275,0.0172 1.769531,0.04492 1.44656,0.05534 3.347237,0.195742 5.261719,0.53125 1.914433,0.335508 3.844527,0.859949 5.353515,1.742187 1.325932,0.775184 2.339737,1.956023 2.673829,3.396485 0.01069,-0.02488 0.03072,-0.05732 0.03906,-0.08008 0.03229,-0.08816 0.05505,-0.16451 0.06055,-0.220704 0.0047,-0.04821 0.0012,-0.07705 0,-0.08984 -4.56e-4,-0.005 4.75e-4,-0.0087 0,-0.01367 C 45.835385,17.599525 44.729212,16.198 43.224609,15.318359 41.715621,14.436121 39.785527,13.91168 37.871094,13.576172 35.956612,13.240664 34.055935,13.100265 32.609375,13.044922 31.886119,13.017203 31.279315,13.004722 30.839844,13 c -0.219736,-0.0024 -0.431068,0.0018 -0.525391,0 -0.09437,-0.0018 -0.114565,0.0017 -0.148437,0 -0.03392,-0.0017 0.113433,0.03565 -0.01563,0 z M 7.3632812,24.15625 c 0.00332,0.01869 0.0016,0.03323 0.00586,0.05273 0.016796,0.07681 0.04722,0.179168 0.082031,0.285157 0.031555,-0.08125 0.028823,-0.147494 -0.021484,-0.244141 -0.014951,-0.02876 -0.044334,-0.06257 -0.066406,-0.09375 z m 33.2734378,0 c -0.02207,0.03118 -0.05145,0.06499 -0.06641,0.09375 -0.05031,0.09665 -0.05304,0.162894 -0.02148,0.244141 0.03481,-0.105989 0.06524,-0.208344 0.08203,-0.285157 0.0043,-0.01951 0.0025,-0.03405 0.0059,-0.05273 z"/>
 </g>
 <path style="fill:#4f4f4f" d="m 8.3583671,1.0128675 c -0.197496,0 -0.3584928,0.1766465 -0.3584928,0.3945422 0,0.1780915 0.1071378,0.3278535 0.2548799,0.3769475 0.2220206,0.8328835 0.7447852,1.6174679 1.4667714,2.1874566 A 1.4999702,1.9999603 0 0 0 9.5000296,5.0127932 1.4999702,1.9999603 0 0 0 10.00002,6.5012636 V 16.512565 c 0,0.868033 0.399067,1.49997 0.99998,1.49997 0.600913,0 0.99863,-0.657687 0.99998,-1.49997 V 6.5002636 A 1.4999702,1.9999603 0 0 0 12.49997,5.0127932 1.4999702,1.9999603 0 0 0 12.279475,3.9718138 c 0.721485,-0.5699887 1.243475,-1.3549731 1.465471,-2.1874566 0.147997,-0.049099 0.254995,-0.198896 0.254995,-0.3769425 0,-0.2178957 -0.160997,-0.3945422 -0.358493,-0.3945422 -0.198291,0 -0.359368,0.1770165 -0.359368,0.3945222 0,0.1200376 0.04899,0.2268005 0.125972,0.2988241 -0.202511,0.7354354 -0.670536,1.4298716 -1.312474,1.9433114 A 1.4999702,1.9999603 0 0 0 11.0001,3.0130428 1.4999702,1.9999603 0 0 0 9.9056216,3.6495302 C 9.2631346,3.1360404 8.7946435,2.4420542 8.5921475,1.7064188 8.669146,1.6344202 8.718145,1.5276223 8.718145,1.4076247 8.718145,1.190079 8.5566482,1.0130825 8.3586521,1.0130825 Z"/>
</svg>
