<svg xmlns="http://www.w3.org/2000/svg" width="22" height="22" version="1.1">
 <path style="opacity:.2" d="m2.8636364 2.5h17.136364s1 0 1 1v13l-2.863636 3h-17.136364s-1 0-1-1v-13z"/>
 <path style="fill:#00cc5c" d="m2.8636364 2h17.136364s1 0 1 1v13l-2.863636 3h-17.136364s-1 0-1-1v-13z"/>
 <path style="opacity:.2" d="m7.5175781 5.5c-2.77931 0-3.5175781 1.5-3.5175781 4.5s0.7252781 4.5 3.5175781 4.5h0.7929688l1.1562501 2 1.337891-0.5-1.091797-2c1.038995-0.5 1.287109-2 1.287109-4 0-3-0.703112-4.5-3.4824219-4.5zm5.4824219 0v2h-1v1h1v3.5c0 2 0.467967 2.5 1.935547 2.5h1.095703l-0.0625-1h-1.238281c-0.675351 0-0.730469-0.5-0.730469-1.5v-3.5h2v-1h-2v-2zm-5.4921875 1c2.0183375 0 2.4921925 1.1666667 2.4921875 3.5 0 2.333333-0.458556 3.5-2.4921875 3.5-2.0336313 0-2.5078125-1.166667-2.5078125-3.5 0-2.3333333 0.489475-3.5 2.5078125-3.5z"/>
 <path style="fill:#8b9cbe" d="M 7.5175781,5 C 4.7382681,5 4,6.5 4,9.5 4,12.5 4.7252781,14 7.5175781,14 h 0.7929688 l 1.1562501,2 1.337891,-0.5 -1.091797,-2 C 10.751886,13 11,11.5 11,9.5 11,6.5 10.296888,5 7.5175781,5 Z M 13,5 v 2 h -1 v 1 h 1 v 3.5 c 0,2 0.467967,2.5 1.935547,2.5 h 1.095703 l -0.0625,-1 H 14.730469 C 14.055118,13 14,12.5 14,11.5 V 8 h 2 V 7 H 14 V 5 Z M 7.5078125,6 C 9.52615,6 10.000005,7.1666667 10,9.5 10,11.833333 9.541444,13 7.5078125,13 5.4741812,13 5,11.833333 5,9.5 5,7.1666667 5.489475,6 7.5078125,6 Z"/>
 <path style="fill:#8b9cbe;opacity:.2" d="m2.8632813 2-2.8632813 3v0.5l2.8632813-3h17.136719s1 0 1 1v-0.5c0-1-1-1-1-1z"/>
</svg>
