<svg xmlns="http://www.w3.org/2000/svg" width="22" height="22" version="1">
 <circle style="opacity:0.2" cx="11" cy="11.5" r="10"/>
 <circle style="fill:#787784" cx="11" cy="11" r="10"/>
 <path style="opacity:0.2" d="m 11,4.499531 a 7,7 0 0 0 -7,7 7,7 0 0 0 7,7 7,7 0 0 0 4.775391,-1.894531 l 2.126953,2.125 a 10,10 0 0 0 2.310547,-3.345703 l -2.384766,-2.384766 a 7,7 0 0 0 0.171875,-1.5 7,7 0 0 0 -7,-7 z m 0,3 a 4,4 0 0 1 4,4 4,4 0 0 1 -4,4 4,4 0 0 1 -4,-4 4,4 0 0 1 4,-4 z"/>
 <path style="fill:#8b9cbe" d="m 11,4 c -3.8659932,0 -7,3.1340068 -7,7 0,3.865993 3.1340068,7 7,7 1.774381,-0.0034 3.481242,-0.680604 4.775391,-1.894531 l 2.126953,2.125 c 0.991175,-0.945236 1.777611,-2.084006 2.310547,-3.345703 L 17.828125,12.5 C 17.939329,12.007659 17.996956,11.504734 18,11 18,7.1340068 14.865993,4 11,4 Z m 0,3 c 2.209139,0 4,1.790861 4,4 0,2.209139 -1.790861,3.6 -4,3.6 C 8.790861,14.6 7,13.209139 7,11 7,8.790861 8.790861,7 11,7 Z"/>
 <path style="opacity:0.1" d="M 17.398438,3.8178904 11.011719,10.485859 8.5996094,8.2163279 5.2597656,11.481953 8.5839844,14.681172 c 0.6825676,0.511628 1.5266326,0.818359 2.4453126,0.818359 0.897111,0 1.724363,-0.2932 2.398437,-0.783203 l 6.783204,-7.0839845 a 10,10 0 0 0 -2.8125,-3.8144531 z"/>
 <path style="fill:#94c000" d="M 17.398438,3.3183594 11.011719,9.986328 8.5996094,7.7167969 5.2597656,10.982422 8.5839844,14.181641 C 9.266552,14.693269 10.110617,15 11.029297,15 c 0.897111,0 1.724363,-0.2932 2.398437,-0.783203 l 6.783204,-7.0839845 a 10,10 0 0 0 -2.8125,-3.8144531 z"/>
 <path style="opacity:0.1;fill:#8b9cbe" d="M 11,1 A 10,10 0 0 0 1,11 10,10 0 0 0 1.0107422,11.291016 10,10 0 0 1 11,1.5 10,10 0 0 1 20.989258,11.208985 10,10 0 0 0 21,11 10,10 0 0 0 11,1 Z"/>
</svg>
