<svg xmlns="http://www.w3.org/2000/svg" width="22" height="22" version="1.1">
 <path style="opacity:0.2" d="M 11,21.5 4.2557,14.7859 A 4.287191,4.2679802 0 1 1 11,9.634 a 4.287191,4.2679802 0 1 1 6.7443,5.1519 z"/>
 <path style="opacity:0.2" d="M 11,1.5 C 9.4834,1.5 8.1772,2.1373 7.3118,3.1207 6.4463,4.1041 6,5.4028 6,6.75 V 15 H 8 V 6.75 C 8,5.8472 8.3037,5.0209 8.8133,4.4418 9.3229,3.8627 10.0167,3.5 11,3.5 c 0.9834,0 1.6772,0.3627 2.1868,0.9418 C 13.6963,5.0209 14,5.8472 14,6.75 V 15 h 2 V 6.75 C 16,5.4028 15.5537,4.1041 14.6883,3.1207 13.8229,2.1373 12.5167,1.5 11,1.5 Z"/>
 <path style="fill:none;stroke:#8e8e8e;stroke-width:1.99999774" d="M 7,14.5 V 6.25 C 7,4 8.5,2 11,2 c 2.5,0 4,2 4,4.25 v 8.25"/>
 <path style="fill:#1b61a4" d="M 11,21 4.2557,14.2859 A 4.287191,4.2679802 0 1 1 11,9.134 a 4.287191,4.2679802 0 1 1 6.7443,5.1519 z"/>
 <circle style="fill:#272727" cx="11" cy="-12" r="2" transform="scale(1,-1)"/>
 <path style="fill:#272727" d="M 10.9334,12.75 9,17 h 4 l -2,-4.25 z"/>
 <path style="opacity:0.1;fill:#8b9cbe" d="M 11,1 C 9.4834,1 8.177,1.6377 7.3116,2.6211 6.4461,3.6045 6,4.9028 6,6.25 v 0.5 C 6,5.4028 6.4461,4.1045 7.3116,3.1211 8.177,2.1377 9.4834,1.5 11,1.5 c 1.5167,0 2.8231,0.6377 3.6885,1.6211 C 15.5539,4.1045 16,5.4028 16,6.75 V 6.25 C 16,4.9028 15.5539,3.6045 14.6885,2.6211 13.8231,1.6377 12.5167,1 11,1 Z"/>
 <path style="opacity:0.1;fill:#8b9cbe" d="M 7.4747,7.0039 A 4.2871908,4.2679802 0 0 0 3.0118,11.5283 4.2871908,4.2679802 0 0 1 11,9.6338 4.2871908,4.2679802 0 0 1 18.9883,11.5322 4.2871908,4.2679802 0 0 0 11,9.1338 4.2871908,4.2679802 0 0 0 7.4747,7.0039 Z"/>
</svg>
