<svg width="22" height="22" version="1.1" xmlns="http://www.w3.org/2000/svg">
 <path d="m11.054074 1.0002c-0.418899-0.010095-0.832508 0.094856-1.1955092 0.3033525l-6.7170554 3.8630317c-0.7064077 0.4062158-1.1415611 1.157013-1.1415094 1.9695162v7.6267296c0 0.812411 0.4351023 1.56311 1.1414094 1.969316l6.7170554 3.863232c0.3773412 0.217013 0.8014622 0.318088 1.2223802 0.303225 0.366954-0.01296 0.590422-0.209885 0.919387-0.399076l6.500054-4.000033c0.706407-0.406216 1.000059-0.687509 1.000008-1.500012v-7.5000622c1.7e-5 -0.2754837 0.449558-0.9073939 0.355905-1.1576645-0.182565-0.48787-0.530964-0.9068849-0.997861-1.1753711l-6.717055-3.8630317c-0.331275-0.1902514-0.705221-0.2945608-1.087509-0.3033525z" style="fill:#00e600"/>
 <path d="m11.053574 1.00055a2.2828187 2.2739686 0 0 0-1.1950092 0.3027025l-6.7170554 3.8633317a2.2828187 2.2739686 0 0 0-1.1415094 1.9695162v0.5000041a2.2828187 2.2739686 0 0 1 1.1416094-1.9695162l6.7170554-3.8633317a2.2828187 2.2739686 0 0 1 1.1953092-0.3027375 2.2828187 2.2739686 0 0 1 1.087909 0.3027375l6.717055 3.8633317a2.2828187 2.2739686 0 0 1 1.14151 1.9695162v-0.5000041a2.2828187 2.2739686 0 0 0-1.14151-1.9695162l-6.717055-3.8633317a2.2828187 2.2739686 0 0 0-1.088009-0.3027025z" style="fill:#8b9cbe;opacity:.2"/>
 <path d="m2 14.862664v0.500004a2.2828187 2.2739686 0 0 0 1.1416094 1.968766l6.7170554 3.863332a2.2828187 2.2739686 0 0 0 2.2832182 0l6.717055-3.863532a2.2828187 2.2739686 0 0 0 1.14151-1.969016v-0.500004a2.2828187 2.2739686 0 0 1-1.14161 1.968766l-6.717055 3.863332a2.2828187 2.2739686 0 0 1-2.2832182 0l-6.7170554-3.863532a2.2828187 2.2739686 0 0 1-1.1415094-1.969016z" style="opacity:.2"/>
 <path d="m2.2306206 6.1419867a2.2828187 2.2739686 0 0 0-0.2304706 0.9941492v7.7266261a2.2828187 2.2739686 0 0 0 1.1416109 1.968766l6.7168519 3.863313a2.2828187 2.2739686 0 0 0 1.1416112 0.303713v-9.981527z" style="fill:#00bc00"/>
 <path d="m19.775686 6.1605419-8.776439 4.8779701 9.77e-4 9.960042a2.2828187 2.2739686 0 0 0 1.140634-0.303713l6.717829-3.863313a2.2828187 2.2739686 0 0 0 1.141611-1.968766v-7.7266261a2.2828187 2.2739686 0 0 0-0.224612-0.975594z" style="fill:#009200"/>
 <path d="m19.775615 6.1596909-8.775391 4.8769531v0.499999l8.775391-4.8769521a2.2828187 2.2739686 0 0 1 0.224609 0.9765626v-0.5a2.2828187 2.2739686 0 0 0-0.224609-0.9765626z" style="fill:#8b9cbe;opacity:.1"/>
 <path d="m2.2306926 6.1421128a2.2828187 2.2739686 0 0 0-0.2304688 0.9941407v0.5a2.2828187 2.2739686 0 0 1 0.2304688-0.9941407l8.7695314 4.8750002v-0.499999z" style="fill:#8b9cbe;opacity:.2"/>
 <path d="m3 5.5 1 10h3l1 2 2-1-1-2 1-1v-8zm8 0 1 12h6l1-4-1-2 1-3-2-3zm-5 2h1.9921875l0.0078125 5h-2zm8 0h2v2h-2zm0 5h2v3h-2z" style="opacity:.2"/>
 <path d="m3 5 1 10h3l1 2 2-1-1-2 1-1v-8zm8 0 1 12h6l1-4-1-2 1-3-2-3zm-5 2h1.9921875l0.0078125 5h-2zm8 0h2v2h-2zm0 5h2v3h-2z" style="fill:#ffbb32"/>
 <path d="m10 12-6.1171875 1.833984 0.1171875 1.166016h3l1 2 2-1-1-2 1-1v-1zm8.572266 0.142578-2.572266 0.857422v2h-2v-1.333984l-2.216797 0.740234 0.216797 2.59375h6l1-4-0.427734-0.857422z" style="fill:#fd6447"/>
 <path d="m3 5 0.0507812 0.5h6.9492188v-0.5h-7zm8 0 0.041016 0.5h5.958984l1.888672 2.8339844 0.111328-0.3339844-2-3h-6zm3 4v0.5h2v-0.5h-2zm4.099609 2.199219-0.099609 0.300781 0.916016 1.833984 0.083984-0.333984-0.900391-1.800781zm-12.099609 0.800781v0.5h2v-0.5h-2zm3.1660156 2.333984-0.1660156 0.166016 0.8007812 1.599609 0.1992188-0.099609-0.8339844-1.666016zm4.8339844 0.666016v0.5h2v-0.5h-2z" style="fill:#8b9cbe;opacity:.2"/>
 <path d="m10 12-6.1171875 1.833984 0.0488281 0.486328 6.0683594-1.820312v-0.5zm8.572266 0.142578-2.572266 0.857422v0.5l2.572266-0.857422 0.34375 0.691406 0.083984-0.333984-0.427734-0.857422zm-4.572266 1.523438-2.216797 0.740234 0.041016 0.486328 2.175781-0.726562v-0.5zm-4.8339844 0.667968-0.1660156 0.166016 0.8007812 1.599609 0.1992188-0.099609-0.8339844-1.666016zm4.8339844 0.666016v0.5h2v-0.5h-2z" style="fill:#8b9cbe;opacity:.1"/>
</svg>
