<svg xmlns="http://www.w3.org/2000/svg" width="22" height="22" version="1.1">
 <ellipse style="fill:#005e76" cx="11.053" cy="9.91" rx="8.514" ry="8.308"/>
 <path style="opacity:0.2" d="M 11.178711,0.5 C 8.052746,0.5 5.5704355,1.407539 3.7304687,3.2216797 1.9102868,5.0358195 1,7.460552 1,10.496094 c 0,3.01758 0.919799,5.442313 2.7597656,7.274414 1.8597509,1.81414 4.3030364,2.720703 7.3300784,2.720703 1.919104,0 3.66065,-0.395229 5.223632,-1.185547 1.622337,1.113631 2.905335,1.745293 4.34961,2.194336 L 21.49414,19.87207 C 20.307066,19.458949 19.34018,18.866105 18.09375,18.09375 20.25027,16.225724 21.5,13.693292 21.5,10.496094 21.5,7.3887055 20.428326,4.9452085 18.627929,3.1669922 16.827532,1.3887756 14.344245,0.5 11.178711,0.5 Z M 11.264651,3 C 13.52997,3 15.297047,3.688147 16.566408,5.064453 17.855295,6.4233395 18.5,8.235192 18.5,10.5 c 0,2.595819 -0.849838,4.599591 -2.548828,6.010742 -1.074074,-0.783973 -2.382044,-1.385593 -3.924805,-1.803711 l -0.703125,1.803711 c 0.898316,0.191637 1.806765,0.539695 2.72461,1.044922 C 13.364349,17.851831 12.436366,18 11.264649,18 8.9798005,18 7.1931855,17.329744 5.904297,15.988281 4.6349365,14.629396 4,12.799653 4,10.5 4,8.148083 4.6447045,6.310369 5.933594,4.986328 7.2224825,3.662286 8.9993285,3 11.264649,3 Z"/>
 <path style="fill:#66d5ff" d="M 11.178711,0 C 8.052746,0 5.5704355,0.907539 3.7304687,2.7216797 1.9102868,4.5358195 1,6.960552 1,9.996094 c 0,3.01758 0.919799,5.442313 2.7597656,7.274414 1.8597509,1.81414 4.3030364,2.720703 7.3300784,2.720703 1.919104,0 3.66065,-0.395229 5.223632,-1.185547 1.622337,1.113631 2.905335,1.745293 4.34961,2.194336 L 21.49414,19.37207 C 20.307066,18.958949 19.34018,18.366105 18.09375,17.59375 20.25027,15.725724 21.5,13.193292 21.5,9.996094 21.5,6.8887055 20.428326,4.4452085 18.627929,2.6669922 16.827532,0.8887755 14.344245,0 11.178711,0 Z m 0.08594,2.5 c 2.265319,0 4.032396,0.6881472 5.301757,2.064453 C 17.855295,5.9233395 18.5,7.735192 18.5,10 c 0,2.595819 -0.849838,4.599591 -2.548828,6.010742 -1.074074,-0.783973 -2.382044,-1.385593 -3.924805,-1.803711 l -0.703125,1.803711 c 0.898316,0.191637 1.806765,0.539695 2.72461,1.044922 C 13.364349,17.351831 12.436366,17.5 11.264649,17.5 8.9798005,17.5 7.1931855,16.829744 5.904297,15.488281 4.6349365,14.129397 4,12.299653 4,10 4,7.648083 4.6447045,5.810369 5.933594,4.486328 7.2224825,3.1622861 8.9993285,2.5 11.264649,2.5 Z"/>
 <path style="opacity:0.2" d="m 11.186611,7.429889 q -0.856905,0 -1.245188,0.297047 Q 9.566527,8.01107 9.352301,8.7084865 L 8.2276155,8.553504 Q 8.669457,6.5 11.347281,6.5 q 1.472803,0 2.075313,0.529519 0.6159,0.516606 0.6159,2.001845 v 2.944651 q 0,0.710332 0.361506,1.369003 H 13.18159 Q 13.007531,12.983394 12.953975,12.518449 11.735565,13.5 10.383264,13.5 9.338912,13.5 8.669457,12.99631 8,12.479703 8,11.588561 8,10.55535 9.004185,9.935425 9.432636,9.664206 10.851883,9.47048 12.27113,9.263837 12.846862,9.07011 V 8.7859765 q 0,-1.3560875 -1.660251,-1.3560875 z m -0.508786,5.140222 q 2.169036,0 2.169036,-2.169743 V 10 q -0.441839,0.180811 -1.472803,0.335792 -1.017572,0.142067 -1.606694,0.40037 -0.575731,0.245388 -0.575731,0.813653 0,1.020296 1.486192,1.020296 z"/>
 <path style="fill:#66d5ff" d="m 11.186611,6.929889 q -0.856905,0 -1.245188,0.297047 Q 9.566527,7.51107 9.352301,8.2084865 L 8.2276155,8.053504 Q 8.669457,6 11.347281,6 q 1.472803,0 2.075313,0.529519 0.6159,0.516606 0.6159,2.001845 v 2.944651 q 0,0.710332 0.361506,1.369003 H 13.18159 Q 13.007531,12.483394 12.953975,12.018449 11.735565,13 10.383264,13 9.338912,13 8.669457,12.49631 8,11.979703 8,11.088561 8,10.05535 9.004185,9.435425 9.432636,9.164206 10.851883,8.9704795 12.27113,8.7638365 12.846862,8.57011 V 8.2859765 q 0,-1.3560875 -1.660251,-1.3560875 z m -0.508786,5.140222 q 2.169036,0 2.169036,-2.169743 V 9.5 q -0.441839,0.180811 -1.472803,0.335792 -1.017572,0.142067 -1.606694,0.40037 -0.575731,0.245388 -0.575731,0.813653 0,1.020296 1.486192,1.020296 z"/>
 <path style="opacity:0.2;fill:#8b9cbe" d="M 11.178711,0 C 8.052746,0 5.5704355,0.907539 3.7304687,2.7216797 1.9102868,4.5358195 1,6.960552 1,9.996094 1,10.081214 1.0083,10.16094 1.00977,10.245117 1.0597938,7.3289875 1.9617602,4.984517 3.7304687,3.2216797 5.5704355,1.407539 8.052746,0.5 11.178711,0.5 c 3.165534,0 5.648821,0.8887756 7.449218,2.6669922 1.748624,1.7270813 2.806624,4.0835073 2.866211,7.0644538 C 21.49568,10.152798 21.5,10.075563 21.5,9.996094 21.5,6.8887055 20.428326,4.4452085 18.627929,2.6669922 16.827532,0.8887755 14.344245,0 11.178711,0 Z m 7.311523,10.231446 c -0.05042,2.481246 -0.892068,4.411332 -2.539062,5.779296 -1.074074,-0.783973 -2.382044,-1.385593 -3.924805,-1.803711 l -0.703125,1.803711 c 0.05872,0.01253 0.117954,0.03106 0.176758,0.04492 l 0.526367,-1.348633 c 1.542761,0.418118 2.850731,1.019738 3.924805,1.803711 C 17.650162,15.099591 18.5,13.095819 18.5,10.5 c 0,-0.09181 -0.0076,-0.178237 -0.0098,-0.268554 z M 4.008789,10.251955 C 4.007103,10.335658 4,10.41495 4,10.5 4,12.799653 4.6349365,14.629396 5.904297,15.988281 7.1931855,17.329744 8.9798005,18 11.264649,18 c 1.171717,0 2.0997,-0.148169 2.783203,-0.444336 C 13.8513,17.447472 13.655644,17.349643 13.459961,17.255859 12.860684,17.417526 12.130277,17.5 11.264649,17.5 8.9798005,17.5 7.1931855,16.829744 5.904297,15.488281 4.682482,14.180296 4.0545715,12.431584 4.008789,10.251953 Z m 14.413086,7.542967 c -0.107404,0.100951 -0.215748,0.201484 -0.328125,0.298828 1.169339,0.724586 2.09858,1.284933 3.188476,1.693359 L 21.49414,19.37207 c -1.077731,-0.375068 -1.983551,-0.905962 -3.072265,-1.577148 z"/>
 <path style="opacity:0.2;fill:#8b9cbe" d="M 11.347656,6 C 9.562441,6 8.5221,6.6847085 8.227539,8.053711 l 0.145508,0.01953 C 8.7936365,7.024543 9.785178,6.5 11.347656,6.5 c 0.981869,0 1.673522,0.176284 2.075196,0.529297 0.410599,0.344404 0.615234,1.0117935 0.615234,2.001953 v -0.5 c 0,-0.9901595 -0.204635,-1.657549 -0.615234,-2.001953 C 13.021178,6.176284 12.329525,6 11.347656,6 Z m 1.482422,2.574219 C 12.444441,8.7021005 11.787771,8.834391 10.851563,8.970703 9.905399,9.099854 9.28954,9.254734 9.003906,9.435547 8.3344495,9.848831 8,10.400061 8,11.088867 c 0,0.07666 0.014055,0.14527 0.021485,0.217774 C 8.102477,10.748158 8.428716,10.290637 9.003906,9.935547 9.289541,9.754735 9.905399,9.599854 10.851563,9.470703 11.797728,9.332941 12.462859,9.199464 12.84668,9.070313 v -0.28418 c 0,-0.075214 -0.0089,-0.1429575 -0.0166,-0.211914 z M 12.84668,10 c -0.0017,7e-4 -0.0051,0.0013 -0.0068,0.002 -0.03518,1.375209 -0.752167,2.06836 -2.16211,2.06836 -0.851179,0 -1.33416,-0.252876 -1.454101,-0.754883 -0.01896,0.07356 -0.03223,0.150182 -0.03223,0.234375 0,0.680198 0.495533,1.020508 1.486328,1.020508 1.446025,0 2.168945,-0.723427 2.168945,-2.169922 z m 1.191406,1.475586 v 0.5 c 0,0.296535 0.05394,0.586111 0.148438,0.869141 h 0.213867 c -0.241004,-0.439114 -0.362305,-0.895586 -0.362305,-1.369141 z"/>
</svg>
