<svg xmlns="http://www.w3.org/2000/svg" width="22" height="22" version="1">
 <rect style="fill:#696969" width="16" height="12" x="-20" y="-17" rx="1" ry="1" transform="matrix(0,-1,-1,0,0,0)"/>
 <rect style="fill:#8e8e8e" width="16" height="20" x="-18" y="-21" rx="1" ry="1" transform="matrix(0,-1,-1,0,0,0)"/>
 <rect style="fill:#8b9cbe" width="12" height="16" x="-16" y="-19" rx="0" ry="0" transform="matrix(0,-1,-1,0,0,0)"/>
 <path style="opacity:0.1;fill:#8b9cbe" d="M 2,2 C 1.446,2 1,2.446 1,3 v 0.5 c 0,-0.554 0.446,-1 1,-1 h 18 c 0.554,0 1,0.446 1,1 V 3 C 21,2.446 20.554,2 20,2 Z"/>
 <path style="opacity:0.2" d="m 5,19 v 0.5 c 0,0.554 0.446,1 1,1 h 10 c 0.554,0 1,-0.446 1,-1 V 19 c 0,0.554 -0.446,1 -1,1 H 6 C 5.446,20 5,19.554 5,19 Z"/>
 <path style="opacity:0.2" d="m 1,17 v 0.5 c 0,0.554 0.446,1 1,1 h 18 c 0.554,0 1,-0.446 1,-1 V 17 c 0,0.554 -0.446,1 -1,1 H 2 C 1.446,18 1,17.554 1,17 Z"/>
 <rect style="opacity:0.1" width="16" height=".5" x="3" y="16"/>
 <path style="fill:#3e5ba9" d="M 11,5 A 5,5 0 0 0 9.308594,5.2998047 c 2.86168,1.8610451 4.371323,4.6770813 5.587891,7.8261723 A 5,5 0 0 0 16,10 5,5 0 0 0 11,5 Z"/>
 <path style="fill:#d82b2f" d="M 7.7851563,6.1772461 A 5,5 0 0 0 6,10 5,5 0 0 0 7.2407227,13.291016 l 0.180664,-0.354004 1.1225586,0.57373 c 0.092914,0.337426 0.1118245,0.626947 0.072266,0.878907 A 5,5 0 0 0 11,15 5,5 0 0 0 13.459473,14.346192 C 13.027825,11.396591 10.91866,7.886248 7.7851563,6.1772461 Z"/>
 <path style="opacity:0.2" d="M 9.367188,5.78125 A 5,5 0 0 0 7.7207031,6.734375 C 8.6315273,7.1775598 9.514539,7.8613699 10.283203,8.6894531 9.261509,9.716024 8.066133,11.52437 7.359375,13.421875 A 5,5 0 0 0 8.75,14.458984 c 0.462783,-1.74618 1.464067,-3.568676 2.455078,-4.636718 0.926199,1.29948 1.659978,2.896302 2.095703,4.613281 a 5,5 0 0 0 1.517578,-1.208985 C 13.800572,10.121056 11.305822,6.8322479 9.367188,5.78125 Z"/>
 <path style="fill:#8b9cbe" d="M 9.366211,5.2807617 A 5,5 0 0 0 7.7202148,6.234375 C 8.631039,6.6775598 9.515028,7.3613698 10.283692,8.189453 9.199103,9.279219 7.9102242,11.248625 7.2275391,13.271973 a 5,5 0 0 0 1.4096679,1.132324 c 0.396988,-1.874165 1.492464,-3.922056 2.567871,-5.081055 1.004771,1.40972 1.801441,3.160544 2.215332,5.04541 a 5,5 0 0 0 1.518067,-1.297851 C 14.000042,9.868511 11.37625,6.3704706 9.366211,5.2807617 Z"/>
</svg>
