<svg xmlns="http://www.w3.org/2000/svg" width="22" height="22" version="1.1">
 <circle style="opacity:0.2" cx="11" cy="11.5" r="10"/>
 <circle style="fill:#ff5836" cx="11" cy="11" r="10"/>
 <path style="opacity:0.2;fill:#8b9cbe" d="M 11.000006,1.0017358 A 10.000006,9.9993703 0 0 0 1,11.001094 10.000006,9.9993703 0 0 0 1.0107414,11.292099 10.000006,9.9993703 0 0 1 11.000005,1.501698 10.000006,9.9993703 0 0 1 20.989269,11.210051 10.000006,9.9993703 0 0 0 21,11.001056 10.000006,9.9993703 0 0 0 10.999993,1.001698 Z"/>
 <path style="opacity:0.2" d="m 11.473097,5.4999647 c -0.24214,0.015115 -0.439731,0.1987706 -0.46875,0.4394115 L 10.559035,9.5169067 A 5.9999997,3.9993447 0 0 0 6.9340347,10.565555 1.5000001,1.4997545 0 0 0 5.5004407,9.5012997 1.5000001,1.4997545 0 0 0 4.000441,11.001036 a 1.5000001,1.4997545 0 0 0 1.2089843,1.472414 5.9999997,3.9993447 0 0 0 -0.2089851,1.027183 5.9999997,3.9993447 0 0 0 5.9999998,3.999332 5.9999997,3.9993447 0 0 0 6,-3.999332 5.9999997,3.9993447 0 0 0 -0.205077,-1.031075 1.5000001,1.4997545 0 0 0 1.205078,-1.468522 1.5000001,1.4997545 0 0 0 -1.5,-1.4997363 1.5000001,1.4997545 0 0 0 -1.435547,1.0642553 5.9999997,3.9993447 0 0 0 -3.500001,-1.0408253 l 0.367189,-2.9585082 2.140625,0.3064696 c 0.151666,0.379478 0.519026,0.6284703 0.927735,0.6288104 0.552294,0 1.000014,-0.4476117 1,-0.9998236 -7e-6,-0.5521742 -0.447721,-0.9998616 -1,-0.9998616 -0.306566,5.291e-4 -0.595955,0.1417091 -0.785157,0.3827657 L 11.570754,5.5097142 c -0.03288,-0.00756 -0.06623,-0.00756 -0.09961,-0.00756 z M 9.000441,11.500948 a 0.99999996,0.99983623 0 0 1 1,0.999861 0.99999996,0.99983623 0 0 1 -1,0.999824 0.99999996,0.99983623 0 0 1 -1,-0.999824 0.99999996,0.99983623 0 0 1 1,-0.999861 z m 4,0 a 0.99999996,0.99983623 0 0 1 1,0.999861 0.99999996,0.99983623 0 0 1 -1,0.999824 0.99999996,0.99983623 0 0 1 -1,-0.999824 0.99999996,0.99983623 0 0 1 1,-0.999861 z m 0.490234,2.983902 a 0.50179484,0.50171268 0 0 1 0.458984,0.740099 c 0,0 -0.21349,0.384467 -0.673827,0.691314 -0.460339,0.306847 -1.192057,0.581914 -2.275391,0.581914 -1.083334,0 -1.818958,-0.274727 -2.279297,-0.581914 C 8.2608054,15.609416 8.0551284,15.224949 8.0551284,15.224949 a 0.50005002,0.49996815 0 0 1 0.4023436,-0.73035 0.50005002,0.49996815 0 0 1 0.050782,-0.002 0.50005002,0.49996815 0 0 1 0.4394532,0.283041 c 0,0 0.038464,0.117524 0.3281228,0.310626 0.289663,0.193102 0.805989,0.415944 1.722657,0.415944 0.916665,0 1.434949,-0.222577 1.724608,-0.415944 0.289663,-0.193102 0.328124,-0.310626 0.328124,-0.310626 a 0.50179484,0.50171268 0 0 1 0.437499,-0.289087 z"/>
 <path style="fill:#8b9cbe" d="m 11.473096,4.9999647 c -0.242138,0.015115 -0.43973,0.1987782 -0.468749,0.4393816 L 10.559035,9.0168897 A 5.9999997,3.9993487 0 0 0 6.9340346,10.065547 1.4999999,1.4997559 0 0 0 5.5004408,9.0012667 1.4999999,1.4997559 0 0 0 4.0004409,10.501022 a 1.4999999,1.4997559 0 0 0 1.2089843,1.472418 5.9999997,3.9993487 0 0 0 -0.2089843,1.027176 5.9999997,3.9993487 0 0 0 6.0000001,3.999349 5.9999997,3.9993487 0 0 0 5.999999,-3.999349 5.9999997,3.9993487 0 0 0 -0.205077,-1.031082 1.4999999,1.4997559 0 0 0 1.205077,-1.468512 1.4999999,1.4997559 0 0 0 -1.499999,-1.4997553 1.4999999,1.4997559 0 0 0 -1.435547,1.0642803 5.9999997,3.9993487 0 0 0 -3.5,-1.0408463 l 0.367187,-2.9585034 2.140626,0.3065908 c 0.151665,0.3794784 0.519025,0.6284637 0.927734,0.6288039 0.552294,0 1.000014,-0.4476248 1,-0.9998373 -7e-6,-0.5521748 -0.447721,-0.9998373 -1,-0.9998373 -0.306566,5.291e-4 -0.595954,0.1416934 -0.785156,0.3827502 l -2.644532,-0.374939 c -0.03288,-0.00756 -0.06624,-0.00781 -0.09961,-0.00781 z M 9.000441,11.000942 a 0.99999996,0.99983724 0 0 1 1,0.999837 0.99999996,0.99983724 0 0 1 -1,0.999837 0.99999996,0.99983724 0 0 1 -1.0000002,-0.999837 0.99999996,0.99983724 0 0 1 1.0000002,-0.999837 z m 4,0 a 0.99999996,0.99983724 0 0 1 1,0.999837 0.99999996,0.99983724 0 0 1 -1,0.999837 0.99999996,0.99983724 0 0 1 -1,-0.999837 0.99999996,0.99983724 0 0 1 1,-0.999837 z m 0.490234,2.983889 a 0.50179484,0.50171319 0 0 1 0.458984,0.740113 c 0,0 -0.213488,0.384447 -0.673827,0.691295 -0.460339,0.306846 -1.192057,0.581936 -2.275391,0.581936 -1.083334,0 -1.818958,-0.274901 -2.2792971,-0.581936 C 8.2608054,15.109391 8.0551283,14.724944 8.0551283,14.724944 a 0.50005002,0.49996866 0 0 1 0.4023437,-0.730349 0.50005002,0.49996866 0 0 1 0.050781,-0.002 0.50005002,0.49996866 0 0 1 0.4394531,0.283158 c 0,0 0.038465,0.117393 0.3281259,0.310496 0.289662,0.1931 0.805989,0.415947 1.722656,0.415947 0.916665,0 1.43495,-0.222733 1.724609,-0.415947 0.289662,-0.193103 0.328125,-0.310496 0.328125,-0.310496 a 0.50179484,0.50171319 0 0 1 0.437499,-0.289016 z"/>
</svg>
