<svg xmlns="http://www.w3.org/2000/svg" width="22" height="22" version="1">
 <path d="m 2,2.5 c -0.554,0 -1,0.446 -1,1 v 5 8 3 c 0,0.554 0.446,1 1,1 h 18 c 0.554,0 1,-0.446 1,-1 v -3 -7 -3 c 0,-0.554 -0.446,-1 -1,-1 h -7.2 c -1.3,0 -2.3,-3 -3.8,-3 z" style="opacity:0.2"/>
 <path style="fill:#ae9d6a" d="M 2,2 C 1.446,2 1,2.446 1,3 v 5 8 3 c 0,0.554 0.446,1 1,1 h 18 c 0.554,0 1,-0.446 1,-1 V 16 9 6 C 21,5.446 20.554,5 20,5 H 12.8 C 11.5,5 10.5,2 9,2 Z"/>
 <path style="opacity:0.2;fill:#8b9cbe" d="M 2,2 C 1.446,2 1,2.446 1,3 v 0.5 c 0,-0.554 0.446,-1 1,-1 h 7 c 1.5,0 2.499805,3 3.799805,3 H 20 c 0.554,0 1,0.446 1,1 V 6 C 21,5.446 20.554,5 20,5 H 12.799805 C 11.499805,5 10.5,2 9,2 Z"/>
 <path d="m 9.999999,8.4855046 a 4,4 0 0 1 4,4.0000024 4,4 0 0 1 -0.558594,2.027344 l 2.265625,2.265625 a 1.0001,1.0001 0 1 1 -1.414062,1.414062 L 12.027343,15.926913 A 4,4 0 0 1 9.999999,16.485507 4,4 0 0 1 6,12.485507 4,4 0 0 1 9.999999,8.4855046 Z m 0,2.0000024 c -1.112821,0 -2,0.888515 -2,2 0,1.111485 0.887179,2 2,2 1.112821,0 2,-0.888515 2,-2 0,-1.111485 -0.887179,-2 -2,-2 z" style="opacity:0.2"/>
 <path style="fill:#8b9cbe" d="m 9.999999,7.9855066 a 4,4 0 0 1 4,4.0000004 4,4 0 0 1 -0.558594,2.027344 l 2.265625,2.265625 a 1.0001,1.0001 0 1 1 -1.414062,1.414062 L 12.027343,15.426913 A 4,4 0 0 1 9.999999,15.985507 4,4 0 0 1 6,11.985507 4,4 0 0 1 9.999999,7.9855066 Z m 0,2.0000004 c -1.112821,0 -2,0.888515 -2,2 0,1.111485 0.887179,2 2,2 1.112821,0 2,-0.888515 2,-2 0,-1.111485 -0.887179,-2 -2,-2 z"/>
</svg>
