<svg xmlns="http://www.w3.org/2000/svg" width="22" height="22" version="1.1">
 <circle style="opacity:0.2" cx="11" cy="11.5" r="10"/>
 <circle style="fill:#b2bfd9" cx="11" cy="11" r="10"/>
 <path style="opacity:0.2;fill:#8b9cbe" d="M 11,1 A 10,10 0 0 0 1,11 10,10 0 0 0 1.0098,11.293 10,10 0 0 1 11,1.5 10,10 0 0 1 20.99,11.207 10,10 0 0 0 21,11 10,10 0 0 0 11,1 Z"/>
 <path style="opacity:0.1" d="m 15.420932,9.854601 -3.230855,-2.4141775 -3.8691655,0.123327 -2.546942,2.8881125 0.092985,3.067175 2.8851035,2.297817 2.001073,-0.002 1.648342,-0.729662 1.062018,-2.122192 -0.605672,-2.383302 -1.710764,-1.095996 -1.600964,0.129526 -1.2909605,1.307193 -0.1546325,1.58306 1.658856,1.278986 1.202972,-0.316885 -0.07014,-0.689517 -0.841156,-0.13135 -0.890824,-0.802428 0.480105,-1.155959 1.347287,-0.119773 1.274163,0.969267 0.03464,1.634944 -0.716093,1.3045 -2.481554,0.461748 -2.2475275,-1.840582 0.04064,-2.87014 2.2340555,-1.880942 3.030747,0.1532835 2.401301,2.0838175 0.168471,3.565454 -2.105689,2.609042 L 9.418667,17.5 5.5329775,15.78895 4,12.934264 4.604273,8.9891685 8.3191025,5.8215215 12.338209,5.4999885 15.400659,6.7610965 17.273617,9.114725 18,12.524499 16.035573,13.017735 Z"/>
 <path style="fill:#3e4f9c" d="m 15.420932,9.354606 -3.230855,-2.414177 -3.8691655,0.123327 -2.546942,2.888113 0.092985,3.067174 2.8851035,2.297818 2.001073,-0.002 1.648342,-0.729663 1.062018,-2.122192 -0.605672,-2.383301 -1.710764,-1.095996 -1.600964,0.129526 -1.2909605,1.307192 -0.1546325,1.583061 1.658856,1.278986 1.202972,-0.316886 -0.07014,-0.689516 -0.841156,-0.13135 -0.890824,-0.802428 0.480105,-1.155959 1.347287,-0.119774 1.274163,0.969267 0.03464,1.634945 -0.716093,1.304499 -2.481554,0.461748 -2.2475275,-1.840581 0.04064,-2.87014 2.2340555,-1.8809425 3.030747,0.1532835 2.401301,2.083818 0.168471,3.565454 -2.105689,2.609042 -3.202086,0.743001 -3.8856885,-1.711 L 4,12.43427 4.604273,8.489174 8.3191025,5.321527 12.338209,4.999994 15.400659,6.261102 17.273617,8.6147305 18,12.024505 16.035573,12.517741 Z"/>
</svg>
