<svg xmlns="http://www.w3.org/2000/svg" width="22" height="22" version="1.1">
 <g transform="translate(0,-310.3)">
  <circle style="fill:#8b9cbe" cx="11" cy="321.3" r="9"/>
  <path style="opacity:0.1" d="m 7,316.13397 v 2.42578 L 8.8613281,319.79998 7,321.04022 v 2.42578 l 5.5,-3.66602 z"/>
  <path style="fill:#20aa73" d="m 7,315.63398 v 2.42579 L 8.8613281,319.3 7,320.54023 v 2.42579 L 12.5,319.3 Z"/>
  <path style="opacity:0.1" d="m 15,320.13397 -5.5,3.66601 5.5,3.66602 v -2.42578 L 13.140625,323.79998 15,322.55975 Z"/>
  <path style="fill:#3989da" d="M 15,319.63398 9.5,323.3 15,326.96602 v -2.42579 L 13.140625,323.3 15,322.05977 Z"/>
  <path style="opacity:0.2" d="m 19.749024,316.97285 -1.681641,1.11914 A 7.9999998,7.9999998 0 0 1 19,321.79999 7.9999998,7.9999998 0 0 1 11,329.8 7.9999998,7.9999998 0 0 1 4.8447265,326.88886 L 3.1689452,328.0041 C 5.0021465,330.31363 7.8291174,331.8 11,331.8 c 5.513956,0 10,-4.48578 10,-10.00001 0,-1.75071 -0.457001,-3.39445 -1.250976,-4.82714 z"/>
  <path style="fill:#20aa73" d="m 19.749024,316.47285 -1.681641,1.11914 A 7.9999998,7.9999998 0 0 1 19,321.29999 7.9999998,7.9999998 0 0 1 11,329.3 7.9999998,7.9999998 0 0 1 4.8447265,326.38886 L 3.1689452,327.5041 C 5.0021465,329.81363 7.8291174,331.3 11,331.3 c 5.513956,0 10,-4.48578 10,-10.00001 0,-1.75071 -0.457001,-3.39445 -1.250976,-4.82714 z"/>
  <path style="opacity:0.2" d="m 11,311.79999 c -5.5142169,0 -10,4.48579 -10,10 0,1.62736 0.3920263,3.16411 1.0849609,4.52345 L 3.774414,325.19941 A 7.9999998,7.9999998 0 0 1 3,321.79999 a 7.9999998,7.9999998 0 0 1 8,-8 7.9999998,7.9999998 0 0 1 5.927734,2.64747 l 1.685547,-1.1211 C 16.77782,313.17072 14.046049,311.79999 11,311.79999 Z"/>
  <path style="fill:#3989da" d="m 11,311.3 c -5.5142169,0 -10,4.48578 -10,9.99999 0,1.62736 0.3920263,3.16411 1.0849609,4.52345 L 3.774414,324.69941 A 7.9999998,7.9999998 0 0 1 3,321.29999 a 7.9999998,7.9999998 0 0 1 8,-8 7.9999998,7.9999998 0 0 1 5.927734,2.64747 l 1.685547,-1.1211 C 16.77782,312.67072 14.046049,311.3 11,311.3 Z"/>
  <path style="opacity:0.2;fill:#8b9cbe" d="m 11,311.3 c -5.5142169,0 -10,4.48578 -10,9.99999 0,0.0751 0.00517,0.1489 0.00684,0.22364 0.1473438,-5.38655 4.5716591,-9.72364 9.993164,-9.72364 2.895142,0 5.50445,1.24031 7.332031,3.21387 l 0.28125,-0.1875 C 16.77782,312.67072 14.046049,311.3 11,311.3 Z M 3.008789,321.62519 A 7.9999998,7.9999998 0 0 0 3,321.79999 a 7.9999998,7.9999998 0 0 0 0.6113281,3.00782 l 0.1630859,-0.1084 a 7.9999998,7.9999998 0 0 1 -0.765625,-3.07422 z"/>
 </g>
</svg>
