<svg xmlns="http://www.w3.org/2000/svg" width="22" height="22" version="1">
 <rect style="fill:#e7a522" width="16" height="20" x="-19" y="-21" rx="1" ry="1" transform="matrix(0,-1,-1,0,0,0)"/>
 <path style="fill:#8b9cbe" d="M 16,11 C 16,5.4615 13.667,5 9,5 4.3333,5 2,5.4615 2,11 c 0,5.5385 2.3333,6 7,6 4.6667,0 7,-0.46154 7,-6 z"/>
 <path style="opacity:0.2;fill:#8b9cbe" d="M 2,3 C 1.446,3 1,3.446 1,4 v 0.5 c 0,-0.554 0.446,-1 1,-1 h 18 c 0.554,0 1,0.446 1,1 V 4 C 21,3.446 20.554,3 20,3 Z"/>
 <path style="opacity:0.2" d="m 1,18 v 0.5 c 0,0.554 0.446,1 1,1 h 18 c 0.554,0 1,-0.446 1,-1 V 18 c 0,0.554 -0.446,1 -1,1 H 2 C 1.446,19 1,18.554 1,18 Z"/>
 <circle style="opacity:0.2" cx="18.5" cy="11" r="1.5"/>
 <circle style="fill:#8b9cbe" cx="18.5" cy="10.5" r="1.5"/>
 <circle style="opacity:0.2" cx="18.5" cy="7" r="1.5"/>
 <circle style="fill:#8b9cbe" cx="18.5" cy="6.5" r="1.5"/>
 <path style="opacity:0.2" d="M 6,13.163503 V 14.5 H 7.3363964 L 10.711737,11.124659 9.375341,9.788262 Z m 5.893984,-3.216841 c 0.141354,-0.141355 0.141354,-0.364089 0,-0.505449 L 11.058736,8.605965 c -0.141355,-0.141354 -0.364089,-0.141354 -0.505449,0 l -0.698198,0.702499 1.336397,1.336396 z"/>
 <path style="fill:#848484" d="M 6,12.663503 V 14 H 7.3363964 L 10.711737,10.624659 9.375341,9.288262 Z m 5.893984,-3.216841 c 0.141354,-0.141355 0.141354,-0.364089 0,-0.505449 L 11.058736,8.105965 c -0.141355,-0.141354 -0.364089,-0.141354 -0.505449,0 l -0.698198,0.702499 1.336397,1.336396 z"/>
 <path style="fill:#8b9cbe" d="m 17,16 v 1 h 3 v -1 z"/>
 <path style="fill:#8b9cbe" d="m 17,14 v 1 h 3 v -1 z"/>
</svg>
