<svg xmlns="http://www.w3.org/2000/svg" width="22" height="22" version="1.1">
 <path style="opacity:0.2" d="M 11.41606,1.5012642 C 10.971462,1.4858011 10.563877,1.6126084 10.290103,1.8967721 7.3414575,5.3123758 4.4674725,8.6813713 1.5754098,12.11064 1.0976162,12.685303 0.75338867,13.342864 1.22483,14.096968 c 1.4255465,2.296717 2.7680303,4.576581 4.298754,7.013671 0.2829485,0.424978 1.1747365,0.61282 1.7909845,-0.01856 C 11.586242,16.820911 16.00314,12.394418 20.578987,7.8459908 21.135272,7.2942243 21.206571,6.0253743 20.387584,5.5969673 19.5686,5.1685693 13.258573,2.1897286 12.473659,1.7873971 12.130259,1.6113807 11.761862,1.513272 11.41606,1.5012642 Z"/>
 <path style="fill:#a54923" d="M 11.41606,1.0012617 C 10.971462,0.98579848 10.563877,1.1126059 10.290103,1.3967695 7.3414575,4.8123733 4.4674725,8.1813688 1.5754098,11.610637 1.0976162,12.1853 0.75338867,12.842861 1.22483,13.596965 c 1.4255465,2.296718 2.7680303,4.576581 4.298754,7.013672 0.2829485,0.424977 1.1747365,0.612819 1.7909845,-0.01855 C 11.586242,16.320908 16.00314,11.894416 20.578987,7.3459883 21.135272,6.7942218 21.206571,5.5253718 20.387584,5.0969648 19.5686,4.6685668 13.258573,1.689726 12.473659,1.2873945 12.130259,1.1113781 11.761862,1.0132694 11.41606,1.0012617 Z"/>
 <path style="opacity:0.2" d="m 8.5273438,9.5000008 c -0.053699,-1.22e-4 -0.1084201,0.0025 -0.1640626,0.0078 -0.890313,0.08669 -3.3730468,0.339844 -3.3730468,0.339844 L 4.90625,11.265626 c 0,0 1.344487,-0.103344 1.625,-0.117187 0.280514,-0.01386 0.4655739,0.204872 0.4667969,0.43164 0.0013,0.226773 0.00648,0.662921 0.00781,0.888672 0.0013,0.225754 -0.2100962,0.53125 -0.4707032,0.53125 -0.2606025,0 -1.7148437,0.04297 -1.7148437,0.04297 l -0.09375,1.460937 c 0,0 1.414879,0.0022 1.6953125,0.0078 0.2804345,0.0055 0.4971731,0.23285 0.4863281,0.513672 -0.01085,0.280822 -0.1171875,3.203125 -0.1171875,3.203125 l 3.1191429,0.271496 c 0.02934,-0.02935 0.06049,-0.06048 0.08984,-0.08984 -0.0036,-0.171751 -0.06525,-2.984982 -0.07813,-3.716797 -0.0129,-0.731965 -0.591797,-1.105468 -0.591797,-1.105468 0,0 0.686545,-0.598079 0.660156,-1.201172 C 9.963855,11.78363 9.945125,11.562027 9.925775,10.812505 9.907637,10.109828 9.33279,9.5018778 8.5273438,9.5000008 Z m -3.984375,0.425781 -1.1816407,0.09375 C 3.0790907,10.352629 2.7920721,10.68365 2.5097656,11.017579 L 2.1074219,15.53711 c 0.4621416,0.756731 0.9501161,1.543495 1.4160156,2.310547 l 0.5429687,0.05078 z"/>
 <path style="fill:#8b9cbe" d="m 8.5273438,9.0000008 c -0.053699,-1.225e-4 -0.1084201,0.0025 -0.1640626,0.0078 -0.890313,0.08669 -3.3730468,0.339844 -3.3730468,0.339844 L 4.90625,10.765626 c 0,0 1.344487,-0.103344 1.625,-0.117187 0.280514,-0.01386 0.4655739,0.204872 0.4667969,0.43164 0.0013,0.226773 0.00648,0.662921 0.00781,0.888672 0.0013,0.225754 -0.2100962,0.53125 -0.4707032,0.53125 -0.2606025,0 -1.7148437,0.04297 -1.7148437,0.04297 l -0.09375,1.460937 c 0,0 1.414879,0.0022 1.6953125,0.0078 0.2804345,0.0055 0.4971731,0.23285 0.4863281,0.513672 -0.01085,0.280822 -0.1171875,3.203125 -0.1171875,3.203125 l 3.1191429,0.271496 c 0.02934,-0.02935 0.06049,-0.06048 0.08984,-0.08984 -0.0036,-0.171751 -0.06525,-2.984982 -0.07813,-3.716797 -0.0129,-0.731965 -0.591797,-1.105468 -0.591797,-1.105468 0,0 0.686545,-0.598079 0.660156,-1.201172 C 9.963855,11.28363 9.945125,11.062027 9.925775,10.312505 9.907637,9.6098278 9.33279,9.0018778 8.5273438,9.0000008 Z m -3.984375,0.425781 -1.1816407,0.09375 C 3.0790907,9.8526288 2.7920721,10.18365 2.5097656,10.517579 L 2.1074219,15.03711 c 0.4621416,0.756731 0.9501161,1.543495 1.4160156,2.310547 l 0.5429687,0.05078 z"/>
 <path style="opacity:0.1;fill:#8b9cbe" d="M 11.416016,1.0009773 C 10.971418,0.98551418 10.563813,1.1123215 10.290039,1.3964852 7.3413935,4.8120888 4.467258,8.1810843 1.5751953,11.610353 1.2021347,12.059049 0.91676577,12.558967 1.03125,13.115236 1.1043289,12.755125 1.3176252,12.420143 1.5751953,12.110353 4.467258,8.6810843 7.3413935,5.3120888 10.290039,1.8964852 c 0.273774,-0.2841637 0.681379,-0.410971 1.125977,-0.3955079 0.345802,0.012008 0.714217,0.1101165 1.057617,0.2861329 0.784914,0.4023315 7.095078,3.3811721 7.914062,3.8095701 0.35783,0.187179 0.537139,0.536891 0.588867,0.9150395 C 21.063819,5.9657213 20.901785,5.3655983 20.387695,5.0966803 19.568711,4.6682823 13.258547,1.6894417 12.473633,1.2871102 12.130233,1.1110938 11.761817,1.0129851 11.416016,1.0009773 Z"/>
</svg>
