<svg xmlns="http://www.w3.org/2000/svg" width="22" height="22" version="1">
 <path style="opacity:0.2" d="m 5.5003344,1.5003934 -2.5,2.5 V 19.000395 c -0.047813,3.380807 5.047813,3.380807 5,0 v -4.5 h 3.4999996 c 3.589851,0 6.5,-2.910149 6.5,-6.5000015 0,-3.589851 -2.91021,-6.4790955 -6.5,-6.5000001 z m 2.5,5 h 3.4999996 c 0.88765,0 1.5,0.6123497 1.5,1.5000001 0,0.8876503 -0.61235,1.5000013 -1.5,1.5000013 H 8.0003344 Z"/>
 <path style="fill:#a2ddef" d="m 5.5003344,0.99999975 -2.5,2.50000005 V 18.5 c -0.047813,3.380807 5.047813,3.380807 5,0 V 14 h 3.4999996 c 3.589851,0 6.5,-2.910149 6.5,-6.5000002 0,-3.5898509 -2.91021,-6.4790954 -6.5,-6.50000005 z m 2.5,5.00000005 h 3.4999996 c 0.88765,0 1.5,0.6123497 1.5,1.5 0,0.8876503 -0.61235,1.5 -1.5,1.5 H 8.0003344 Z"/>
 <path style="opacity:0.3;fill:#001851" d="M 5.3147875,2.9999998 V 3.5292967 A 0.50005,0.50005 0 0 0 5.0003344,3.9999998 V 18.5 a 0.50005,0.50005 0 1 0 1,0 V 12 h 5.3691406 c 2.557303,0 4.630859,-2.0147192 4.630859,-4.5000002 0,-2.4852814 -2.073556,-4.5 -4.630859,-4.5 z m 0.6855469,1 h 0.3144531 1.6855469 3.3691406 c 2.032083,0 3.630859,1.5708198 3.630859,3.5 C 15.000334,9.4291798 13.401558,11 11.369475,11 H 8.0003344 6.3147875 6.0003344 Z"/>
 <path style="opacity:0.2;fill:#8b9cbe" d="m 5.5003344,0.99999975 -2.5,2.50000005 v 0.5 l 2.5,-2.5 h 5.9999996 c 3.505338,0.020413 6.355778,2.7779635 6.488281,6.25 0.0032,-0.083672 0.01172,-0.1655461 0.01172,-0.25 0,-3.5898509 -2.91021,-6.4790954 -6.5,-6.50000005 z M 12.97885,7.7499998 c -0.105488,0.7488481 -0.677998,1.25 -1.478516,1.25 H 8.0003344 v 0.5 h 3.4999996 c 0.88765,0 1.5,-0.6123497 1.5,-1.5 0,-0.087132 -0.01,-0.1684923 -0.02148,-0.25 z"/>
 <path style="opacity:0.1;fill-rule:evenodd" d="M 5.4554125,1.4995868 C 4.9738856,1.5074762 4.4900787,1.6541217 4.0667406,1.9507587 3.5198016,2.3337692 3.1552575,2.9081563 3.0393969,3.565993 2.9233886,4.2238296 3.070558,4.8860434 3.4534594,5.4331806 4.243942,6.5628248 5.8050265,6.8394466 6.9339282,6.0484149 7.4807186,5.6652561 7.8452635,5.0911654 7.9612719,4.4331806 8.0771319,3.7756403 7.9301106,3.1131297 7.5472094,2.565993 7.0531578,1.8599655 6.2579574,1.4864378 5.4554125,1.4995868 Z m 5.3085935,7.970703 A 2.50025,2.50025 0 0 0 8.7249438,13.394118 l 4.6992182,7 a 2.5010412,2.5010412 0 1 0 4.152344,-2.789062 l -4.701172,-7 A 2.50025,2.50025 0 0 0 10.764006,9.4702898 Z"/>
 <path style="fill:#368bd6;fill-rule:evenodd" d="M 7.5476624,2.0655606 C 7.9305636,2.6126973 8.0776058,3.2766018 7.9617458,3.9341421 7.8457374,4.592127 7.480717,5.1653107 6.9339266,5.5484695 5.8050249,6.3395011 4.2434199,6.0640833 3.4529373,4.9344391 3.0700359,4.387302 2.9229935,3.7235458 3.0390018,3.0657093 3.1548624,2.4078725 3.5198822,1.8345408 4.0668212,1.4515303 5.1957228,0.66049835 6.7571799,0.93591655 7.5476624,2.0655606 Z"/>
 <path style="fill:none;stroke:#368bd6;stroke-width:5;stroke-linecap:round" d="m 15.500334,18.5 -4.7,-7"/>
</svg>
