<svg xmlns="http://www.w3.org/2000/svg" width="22" height="22" version="1">
 <rect style="opacity:0.2" width="20" height="20" x="1" y="1.5" rx="10" ry="10"/>
 <path style="fill:#4f4f4f" d="M 21,11 C 21,10.46319 20.95812,9.93652 20.87745,9.423066 20.520564,7.1516834 18.14684,6.3964591 16.537572,4.908506 14.756317,3.261532 13.35183,1.7293763 11.905433,1.5784708 11.515953,1.5378358 10.222208,1.022284 9.842599,1.065657 4.8517747,1.6359051 1,5.8515942 1,11 c 0,3.442188 1.7218074,6.467437 4.3546641,8.264987 1.6045716,1.095501 3.4217696,0.452317 5.5195809,0.452317 2.277629,0 4.171505,-2.514407 5.849169,-3.787219 1.092929,-0.829185 2.335667,1.164641 3.009353,-0.0401 C 20.540308,14.445866 21,12.778591 21,11 Z"/>
 <path style="opacity:0.1;fill:#8b9cbe" d="M 11,1 C 5.46,1 1,5.46 1,11 1,11.084 1.0038,11.1665 1.00585,11.25 1.1382,5.827 5.544,1.5 10.99985,1.5 c 5.45585,0 9.862,4.327 9.994,9.75 0.002,-0.0835 0.006,-0.166 0.006,-0.25 0,-5.54 -4.46,-10 -10,-10 z"/>
 <path style="opacity:0.2" d="m 10.847656,1.5078125 c -0.223419,0.00334 -0.444509,0.015575 -0.664062,0.033203 -0.170348,0.013754 -0.338085,0.032591 -0.50586,0.054687 -0.141044,0.018525 -0.280827,0.040156 -0.419922,0.064453 -0.0095,0.00938 -0.01953,0.018895 -0.01953,0.029297 0,0.039518 0.08959,0.072266 0.197266,0.072266 1.615027,0.2035263 3.258944,0.773033 4.548828,1.6679687 0.984691,0.6942917 1.802549,2.0227465 2.339844,3.078125 C 16.622029,7.0927852 16.912091,7.7952105 15.674766,7.354 14.720338,7.0136675 13.590971,6.367336 13.516563,6.4492185 13.486013,6.4828385 13.4053,6.6820893 13.336875,6.8925778 13.20695,7.2922333 12.923155,7.512567 12.866172,7.455586 c -0.01816,-0.01818 0.0163,-0.4704479 0.07813,-0.7622269 0.134684,-0.6357515 0.142177,-1.1696249 0.0332,-1.6777344 C 12.859506,4.4654186 12.788665,4.4304966 12.155234,4.6191406 10.553315,4.8568042 8.7604637,5.6831919 7.5860547,6.4003906 7.0636777,6.7144226 6.9505437,6.728536 7.0157422,6.46875 7.0990197,6.136952 6.8672103,6.243016 6.2676953,6.8125 5.7024618,7.349416 5.5294141,7.448697 5.5294141,7.234375 5.5294141,6.9840385 5.3783008,7.147276 5.0880078,7.7128906 4.9205618,8.0391486 4.6867186,8.5651264 4.5684766,8.8808594 4.3944695,9.345481 4.2390444,9.582953 3.7520703,10.126953 2.8069852,11.182713 2.7708647,11.40625 3.543086,11.40625 c 0.5736132,0 0.5898209,0.146838 0.029297,0.267578 l -0.3769531,0.08008 0.00586,0.462891 c 0.00906,0.632187 0.2051453,1.019139 0.6132812,1.208984 0.1947283,0.09058 0.3698068,0.246239 0.4570313,0.408203 0.140565,0.261013 0.5213255,0.632813 0.6484375,0.632813 0.036885,0 0.045624,-0.167164 0.021484,-0.371094 -0.048885,-0.412749 0.1190628,-0.879063 0.3632813,-1.009765 0.1123935,-0.06015 0.1777338,-0.02504 0.3398437,0.1875 0.199877,0.262053 0.5582001,0.54532 0.6171876,0.486328 0.0171,-0.01711 -0.053228,-0.251674 -0.1582032,-0.519532 -0.288056,-0.735032 -0.263481,-0.846296 0.1328125,-1.191406 0.4496745,-0.391594 0.9278454,-0.595227 1.2480469,-0.535156 0.4923685,0.09237 1.3811241,0.884054 1.488164,1.310547 0.064288,0.25613 -0.090998,0.606419 -0.3730468,0.84375 -0.292065,0.245755 -0.7242623,0.568359 -0.9139453,0.568359 -0.07967,0 -0.3067083,-0.140877 -0.5039063,-0.314453 -0.197193,-0.17358 -0.3761465,-0.297678 -0.3984375,-0.275391 -0.022275,0.02229 -0.00378,0.172171 0.041016,0.333985 0.044905,0.161813 0.081802,0.338004 0.082031,0.390625 0.001,0.168816 -0.4275728,0.102647 -0.8789062,-0.134766 -0.240085,-0.126292 -0.4500219,-0.228516 -0.4667969,-0.228516 -0.1403875,0 0.3797874,1.786016 0.6230469,2.109376 0.180615,0.240089 0.3624264,0.371565 0.59375,0.386718 0.3069435,0.02011 0.7003713,-0.16328 1.2871093,-0.55664 0.9742361,-0.653146 1.1749241,-1.243602 2.1502741,-1.402344 0.534783,-0.08704 0.809948,0.02027 1.199218,0.470703 0.534799,0.618814 1.755792,3.58458 1.63086,3.910156 -1.330534,0.856307 -2.792736,1.061477 -4.2617193,1.074219 -1.537952,0.04408 -2.6855659,-0.295895 -4.0214843,-0.681641 0.4230753,0.337575 0.8725066,0.641609 1.3476562,0.908203 0.00458,0.0026 0.00908,0.0052 0.013672,0.0078 4.868e-4,2.71e-4 0.00147,-2.71e-4 0.00195,0 0.1696363,0.09479 0.3459051,0.178638 0.5214844,0.263672 0.094547,0.04565 0.1870094,0.09399 0.2832031,0.136719 0.1660054,0.07401 0.337131,0.139983 0.5078125,0.205078 0.1126628,0.04277 0.2252496,0.08621 0.3398438,0.125 0.154282,0.05248 0.311133,0.09948 0.46875,0.144531 0.1661009,0.04722 0.3343466,0.09014 0.5039062,0.128906 0.1181381,0.02716 0.2357386,0.05518 0.3554694,0.07813 0.205914,0.03923 0.414733,0.06922 0.625,0.0957 0.104946,0.0133 0.208487,0.03099 0.314453,0.04102 C 10.359435,21.482686 10.6775,21.5 11,21.5 c 0.30273,0 0.600755,-0.01884 0.896484,-0.04492 0.09496,-0.0084 0.189044,-0.0183 0.283204,-0.0293 0.145639,-0.017 0.288018,-0.04326 0.43164,-0.06641 0.330696,-0.05335 0.655845,-0.122252 0.97461,-0.207031 0.08623,-0.0229 0.174481,-0.04128 0.259765,-0.06641 0.399368,-0.117836 0.78949,-0.25734 1.166016,-0.421876 0.05202,-0.0227 0.100799,-0.05067 0.152343,-0.07422 0.324881,-0.148656 0.638509,-0.314775 0.94336,-0.496094 0.07994,-0.04748 0.15981,-0.09491 0.238281,-0.144531 0.70086,-0.443941 1.344471,-0.968837 1.912109,-1.56836 0.03708,-0.03911 0.07097,-0.08138 0.107422,-0.121093 0.253435,-0.276497 0.493518,-0.567174 0.714844,-0.871094 0.03185,-0.04371 0.06455,-0.08661 0.0957,-0.13086 0.24611,-0.349758 0.473369,-0.712749 0.673828,-1.09375 -0.985291,-0.509007 -2.695999,-1.285853 -3.746093,-1.660156 -0.347896,-0.124008 -0.568926,-0.241619 -0.529297,-0.28125 0.142427,-0.142424 2.946062,0.341171 4.246093,0.732422 0.09701,0.02919 0.324496,0.102398 0.5,0.16211 0.0042,-0.01092 0.0075,-0.02226 0.01172,-0.0332 0.06471,-0.167304 0.128363,-0.333951 0.183594,-0.505859 -0.221972,-0.116273 -0.478259,-0.252798 -0.599609,-0.318359 -1.039447,-0.561604 -2.603076,-1.128415 -4.095704,-1.486328 -1.329938,-0.318904 -1.273612,-0.300735 -1.126953,-0.382813 0.271945,-0.152189 3.692114,0.172667 5.431641,0.515625 0.08059,0.01589 0.456737,0.08545 0.744141,0.138672 0.0085,-0.05535 0.01776,-0.11036 0.02539,-0.166016 0.03111,-0.305266 0.05729,-0.789686 0.07422,-1.015625 -0.365204,-0.169615 -0.797634,-0.340298 -1.271484,-0.511719 -1.425069,-0.515532 -3.466418,-0.80366 -5.296875,-0.908203 -0.780868,-0.0446 -1.070905,-0.200993 -0.878907,-0.28125 1.225236,-0.226744 1.478128,-0.5625 3.806641,-0.5625 1.252419,0.07225 2.424722,0.330981 3.574219,0.564453 C 20.38585,6.2730922 17.65811,3.0993997 14.007811,1.9570242 c -0.0093,-0.00279 -0.01802,-0.007 -0.02734,-0.00977 -0.0051,-0.00158 -0.01053,-0.00234 -0.01563,-0.00391 -0.29649,-0.09131 -0.600476,-0.1665772 -0.908203,-0.2304688 -0.02118,-0.0045 -0.04107,-0.00911 -0.0625,-0.013672 -0.239155,-0.048055 -0.483406,-0.080557 -0.728516,-0.1113282 -0.443477,-0.049162 -0.94413,-0.075265 -1.417969,-0.080078 z"/>
 <path style="fill:#11a0ee" d="m 10.847656,1.0078125 c -0.223419,0.00334 -0.444509,0.015575 -0.664062,0.033203 -0.170348,0.013754 -0.338085,0.032591 -0.50586,0.054687 -0.141044,0.018525 -0.280827,0.040156 -0.419922,0.064453 -0.0095,0.00938 -0.01953,0.018895 -0.01953,0.029297 0,0.039518 0.08959,0.072266 0.197266,0.072266 1.615027,0.2035263 3.258944,0.773033 4.548828,1.6679687 0.984691,0.6942917 1.802549,2.0227465 2.339844,3.078125 C 16.622029,6.5927852 16.912091,7.2952105 15.674766,6.854 14.720338,6.5136675 13.590971,5.867336 13.516563,5.9492185 13.486013,5.9828385 13.4053,6.1820893 13.336875,6.3925778 13.20695,6.7922333 12.923155,7.012567 12.866172,6.955586 c -0.01816,-0.01818 0.0163,-0.4704479 0.07813,-0.7622269 0.134684,-0.6357515 0.142177,-1.1696249 0.0332,-1.6777344 C 12.859506,3.9654186 12.788665,3.9304966 12.155234,4.1191406 10.553315,4.3568042 8.7604637,5.1831919 7.5860547,5.9003906 7.0636777,6.2144226 6.9505437,6.228536 7.0157422,5.96875 7.0990197,5.636952 6.8672103,5.743016 6.2676953,6.3125 5.7024618,6.849416 5.5294141,6.948697 5.5294141,6.734375 5.5294141,6.4840385 5.3783008,6.647276 5.0880078,7.2128906 4.9205618,7.5391486 4.6867186,8.0651264 4.5684766,8.3808594 4.3944695,8.8454814 4.2390444,9.082953 3.7520703,9.626953 2.8069852,10.682713 2.7708647,10.90625 3.543086,10.90625 c 0.5736132,0 0.5898209,0.146838 0.029297,0.267578 l -0.3769531,0.08008 0.00586,0.462891 c 0.00906,0.632187 0.2051453,1.019139 0.6132812,1.208984 0.1947283,0.09058 0.3698068,0.246239 0.4570313,0.408203 0.140565,0.261013 0.5213255,0.632813 0.6484375,0.632813 0.036885,0 0.045624,-0.167164 0.021484,-0.371094 -0.048885,-0.412749 0.1190628,-0.879063 0.3632813,-1.009765 0.1123935,-0.06015 0.1777338,-0.02504 0.3398437,0.1875 0.199877,0.262053 0.5582001,0.54532 0.6171876,0.486328 0.0171,-0.01711 -0.053228,-0.251674 -0.1582032,-0.519532 -0.288056,-0.735032 -0.263481,-0.846296 0.1328125,-1.191406 0.4496745,-0.391594 0.9278454,-0.595227 1.2480469,-0.535156 0.4923685,0.09237 1.3811241,0.884054 1.488164,1.310547 0.064288,0.25613 -0.090998,0.606419 -0.3730468,0.84375 -0.292065,0.245755 -0.7242623,0.568359 -0.9139453,0.568359 -0.07967,0 -0.3067083,-0.140877 -0.5039063,-0.314453 -0.197193,-0.17358 -0.3761465,-0.297678 -0.3984375,-0.275391 -0.022275,0.02229 -0.00378,0.172171 0.041016,0.333985 0.044905,0.161813 0.081802,0.338004 0.082031,0.390625 0.001,0.168816 -0.4275728,0.102647 -0.8789062,-0.134766 -0.240085,-0.126292 -0.4500219,-0.228516 -0.4667969,-0.228516 -0.1403875,0 0.3797874,1.786016 0.6230469,2.109376 0.180615,0.240089 0.3624264,0.371565 0.59375,0.386718 0.3069435,0.02011 0.7003713,-0.16328 1.2871093,-0.55664 0.9742361,-0.653146 1.1749241,-1.243602 2.1502741,-1.402344 0.534783,-0.08704 0.809948,0.02027 1.199218,0.470703 0.534799,0.618814 1.755792,3.58458 1.63086,3.910156 -1.330534,0.856307 -2.792736,1.061477 -4.2617193,1.074219 -1.537952,0.04408 -2.6855659,-0.295895 -4.0214843,-0.681641 0.4230753,0.337575 0.8725066,0.641609 1.3476562,0.908203 0.00458,0.0026 0.00908,0.0052 0.013672,0.0078 4.868e-4,2.71e-4 0.00147,-2.71e-4 0.00195,0 0.1696363,0.09479 0.3459051,0.178638 0.5214844,0.263672 0.094547,0.04565 0.1870094,0.09399 0.2832031,0.136719 0.1660054,0.07401 0.337131,0.139983 0.5078125,0.205078 0.1126628,0.04277 0.2252496,0.08621 0.3398438,0.125 0.154282,0.05248 0.311133,0.09948 0.46875,0.144531 0.1661009,0.04722 0.3343466,0.09014 0.5039062,0.128906 0.1181381,0.02716 0.2357386,0.05518 0.3554694,0.07813 0.205914,0.03923 0.414733,0.06922 0.625,0.0957 0.104946,0.0133 0.208487,0.03099 0.314453,0.04102 C 10.359435,20.982686 10.6775,21 11,21 c 0.30273,0 0.600755,-0.01884 0.896484,-0.04492 0.09496,-0.0084 0.189044,-0.0183 0.283204,-0.0293 0.145639,-0.017 0.288018,-0.04326 0.43164,-0.06641 0.330696,-0.05335 0.655845,-0.122252 0.97461,-0.207031 0.08623,-0.0229 0.174481,-0.04128 0.259765,-0.06641 0.399368,-0.117836 0.78949,-0.25734 1.166016,-0.421876 0.05202,-0.0227 0.100799,-0.05067 0.152343,-0.07422 0.324881,-0.148656 0.638509,-0.314775 0.94336,-0.496094 0.07994,-0.04748 0.15981,-0.09491 0.238281,-0.144531 0.70086,-0.443941 1.344471,-0.968837 1.912109,-1.56836 0.03708,-0.03911 0.07097,-0.08138 0.107422,-0.121093 0.253435,-0.276497 0.493518,-0.567174 0.714844,-0.871094 0.03185,-0.04371 0.06455,-0.08661 0.0957,-0.13086 0.24611,-0.349758 0.473369,-0.712749 0.673828,-1.09375 -0.985291,-0.509007 -2.695999,-1.285853 -3.746093,-1.660156 -0.347896,-0.124008 -0.568926,-0.241619 -0.529297,-0.28125 0.142427,-0.142424 2.946062,0.341171 4.246093,0.732422 0.09701,0.02919 0.324496,0.102398 0.5,0.16211 0.0042,-0.01092 0.0075,-0.02226 0.01172,-0.0332 0.06471,-0.167304 0.128363,-0.333951 0.183594,-0.505859 -0.221972,-0.116273 -0.478259,-0.252798 -0.599609,-0.318359 -1.039447,-0.561604 -2.603076,-1.128415 -4.095704,-1.486328 -1.329938,-0.318904 -1.273612,-0.300735 -1.126953,-0.382813 0.271945,-0.152189 3.692114,0.172667 5.431641,0.515625 0.08059,0.01589 0.456737,0.08545 0.744141,0.138672 0.0085,-0.05535 0.01776,-0.11036 0.02539,-0.166016 0.03111,-0.305266 0.05729,-0.789686 0.07422,-1.015625 -0.365204,-0.169615 -0.797634,-0.340298 -1.271484,-0.511719 -1.425069,-0.515532 -3.466418,-0.80366 -5.296875,-0.908203 -0.780868,-0.0446 -1.070905,-0.200993 -0.878907,-0.28125 1.225236,-0.226744 1.478128,-0.5625 3.806641,-0.5625 1.252419,0.07225 2.424722,0.330981 3.574219,0.564453 C 20.38585,5.7730922 17.65811,2.5993997 14.007811,1.4570242 c -0.0093,-0.00279 -0.01802,-0.007 -0.02734,-0.00977 -0.0051,-0.00158 -0.01053,-0.00234 -0.01563,-0.00391 -0.29649,-0.09131 -0.600476,-0.1665772 -0.908203,-0.2304688 -0.02118,-0.0045 -0.04107,-0.00911 -0.0625,-0.013672 -0.239155,-0.048055 -0.483406,-0.080557 -0.728516,-0.1113282 -0.443477,-0.049162 -0.94413,-0.075265 -1.417969,-0.080078 z"/>
 <path style="opacity:0.2" d="m 6.3818579,8.5003495 c 0.038245,0.0018 0.068196,0.00988 0.085592,0.02595 C 6.6402734,8.6857695 6.0877589,9.316644 5.6848939,9.419903 4.9846054,9.599399 4.8239639,9.478023 5.1909054,9.047569 5.4027914,8.7990055 6.1139764,8.4881235 6.3818579,8.50035 Z"/>
 <path style="fill:#8b9cbe" d="m 6.3818579,8.0003495 c 0.038245,0.0018 0.068196,0.00988 0.085592,0.02595 C 6.6402734,8.1857695 6.0877589,8.816644 5.6848939,8.919903 4.9846054,9.099399 4.8239639,8.978024 5.1909054,8.5475685 5.4027914,8.2990055 6.1139764,7.9881235 6.3818579,8.00035 Z"/>
 <path style="opacity:0.2;fill:#8b9cbe" d="m 10.847656,1.0078125 c -0.223419,0.00334 -0.444509,0.015575 -0.664062,0.033203 -0.170348,0.013754 -0.338085,0.032591 -0.50586,0.054687 -0.141044,0.018525 -0.280827,0.040156 -0.419922,0.064453 -0.0095,0.00938 -0.01953,0.018895 -0.01953,0.029297 0,0.039518 0.08959,0.072266 0.197266,0.072266 0.438435,0.055252 0.877467,0.143569 1.3125,0.2519531 0.03343,-8.9e-4 0.06608,-0.00536 0.09961,-0.00586 0.473839,0.00481 0.974492,0.030916 1.417969,0.080078 0.24511,0.030771 0.489361,0.063273 0.728516,0.1113282 0.02143,0.00456 0.04132,0.00917 0.0625,0.013672 0.307727,0.063892 0.611713,0.1391588 0.908203,0.2304688 0.0051,0.00157 0.01053,0.00233 0.01563,0.00391 0.0093,0.00277 0.01804,0.00698 0.02734,0.00977 3.486481,1.0911081 6.126241,4.0371267 6.806641,7.6894524 0.02895,0.0059 0.05897,0.0117 0.08789,0.01758 -0.516493,-3.8909619 -3.244232,-7.0646549 -6.894532,-8.2070304 -0.0093,-0.00279 -0.01802,-0.007 -0.02734,-0.00977 -0.0051,-0.00158 -0.01052,-0.00234 -0.01563,-0.00391 -0.29649,-0.09131 -0.600476,-0.1665772 -0.908203,-0.2304688 -0.02118,-0.0045 -0.04107,-0.00911 -0.0625,-0.013672 -0.239155,-0.048055 -0.483406,-0.080557 -0.728516,-0.1113282 -0.443477,-0.049162 -0.94413,-0.075265 -1.417969,-0.080078 z m 1.6875,3.015625 c -0.09756,0.014657 -0.222501,0.048542 -0.380859,0.095703 C 10.552378,4.3568042 8.7603465,5.1831919 7.5859375,5.9003906 7.0635605,6.2144226 6.9504265,6.228536 7.015625,5.96875 7.0989025,5.636952 6.8670931,5.743016 6.2675781,6.3125 5.7023446,6.849416 5.5292969,6.948697 5.5292969,6.734375 5.5292969,6.4840385 5.3781836,6.647276 5.0878906,7.2128906 4.9204446,7.5391486 4.6866014,8.0651264 4.5683594,8.3808594 4.3943523,8.8454814 4.2389272,9.082953 3.7519531,9.626953 3.0171102,10.44785 2.8471392,10.760576 3.1640625,10.861328 3.285676,10.676326 3.4611478,10.451813 3.7519531,10.126953 4.2389272,9.582953 4.3943523,9.345481 4.5683594,8.8808594 4.6866014,8.5651264 4.9204446,8.0391486 5.0878906,7.7128906 5.3781836,7.147276 5.5292969,6.9840385 5.5292969,7.234375 c 0,0.214322 0.1730477,0.115041 0.7382812,-0.421875 C 6.8670931,6.243016 7.0989025,6.136952 7.015625,6.46875 6.950426,6.728536 7.06356,6.7144226 7.5859375,6.400391 8.7603465,5.6831923 10.552378,4.8568046 12.154297,4.619141 c 0.633431,-0.188644 0.704269,-0.1537217 0.822265,0.3964844 0.03511,0.1637162 0.03826,0.3381539 0.04883,0.5097656 0.02518,-0.3552028 0.0191,-0.693024 -0.04883,-1.0097656 -0.0885,-0.4126546 -0.148722,-0.536159 -0.441406,-0.4921875 z m 0.980469,1.9257813 c -0.03055,0.03362 -0.111263,0.2328708 -0.179687,0.4433593 -0.108507,0.3337724 -0.316567,0.5300941 -0.417969,0.5566407 -0.02697,0.2208645 -0.0648,0.4937839 -0.05274,0.5058593 0.05698,0.056981 0.340779,-0.1628445 0.470704,-0.5625 0.06842,-0.2104885 0.149137,-0.4097394 0.179687,-0.4433593 0.07441,-0.081882 1.203775,0.5639643 2.158203,0.9042968 0.947025,0.3376941 0.997068,0.00514 0.835938,-0.4316406 C 16.400694,7.02119 16.153632,7.0246079 15.673823,6.853516 14.7194,6.5131831 13.590033,5.8673363 13.515625,5.9492188 Z m 0.916016,3.9960932 c -0.269914,0.0743 -0.549474,0.150049 -0.910157,0.216797 -0.191998,0.08026 0.09804,0.23665 0.878907,0.28125 1.830457,0.104543 3.871806,0.392671 5.296875,0.908203 0.460809,0.166704 0.877595,0.333043 1.236328,0.498047 0.01187,-0.178663 0.02705,-0.378144 0.03516,-0.486328 -0.365204,-0.169615 -0.797634,-0.340298 -1.271484,-0.511719 -1.417131,-0.51266 -3.443054,-0.800254 -5.265625,-0.90625 z m -11.2343754,1.419922 0.00391,0.351563 c 1.855e-4,0.01295 0.00356,0.02242 0.00391,0.03516 l 0.3671875,-0.07813 c 0.5605239,-0.12074 0.5443163,-0.267578 -0.029297,-0.267578 -0.1567353,0 -0.2564094,-0.01751 -0.3457032,-0.04102 z m 11.7363284,0.990235 c -0.122944,0.005 -0.206241,0.01613 -0.240235,0.03516 -0.146659,0.08208 -0.202985,0.06391 1.126953,0.382813 1.492629,0.357912 3.056257,0.924724 4.095704,1.486328 0.09059,0.04894 0.276698,0.148196 0.447265,0.238281 0.05324,-0.138832 0.106498,-0.277225 0.152344,-0.419922 -0.221972,-0.116273 -0.478259,-0.252798 -0.599609,-0.318359 -0.906131,-0.489575 -2.211002,-0.974428 -3.519532,-1.330078 -0.609176,-0.04945 -1.172704,-0.08605 -1.46289,-0.07422 z m -8.9628909,0.0078 c -0.090641,0.178858 -0.054079,0.389662 0.1152344,0.828125 0.082494,0.05528 0.1535999,0.09054 0.1757813,0.06836 0.0171,-0.01711 -0.053228,-0.251674 -0.1582032,-0.519532 -0.060749,-0.155014 -0.1004267,-0.26938 -0.1328125,-0.376953 z m 2.9511719,0.371094 c -0.064947,0.155983 -0.1750386,0.309709 -0.3222656,0.433594 -0.292065,0.245755 -0.7243795,0.568359 -0.9140625,0.568359 -0.07967,0 -0.3067083,-0.140877 -0.5039063,-0.314453 -0.197193,-0.17358 -0.3761465,-0.297678 -0.3984375,-0.275391 -0.022275,0.02229 -0.00378,0.172171 0.041016,0.333985 0.026029,0.09379 0.031809,0.149973 0.046875,0.226562 0.065967,0.02925 0.1568057,0.07951 0.3105468,0.214844 0.197198,0.173576 0.4242363,0.314453 0.5039063,0.314453 0.189683,0 0.6219975,-0.322604 0.9140625,-0.568359 0.2820488,-0.237331 0.4373343,-0.58762 0.3730468,-0.84375 -0.00648,-0.02584 -0.038821,-0.06156 -0.050781,-0.08984 z M 5.5605469,13.5078 c -0.04858,0 -0.00437,0.240081 0.066406,0.533204 0.05883,0.02367 0.1946011,0.08706 0.4003907,0.195312 0.4513333,0.237413 0.8799062,0.303582 0.8789062,0.134766 -2.29e-4,-0.05262 -0.037126,-0.228812 -0.082031,-0.390625 -0.00342,-0.01235 -8.007e-4,-0.01323 -0.00391,-0.02539 -0.1456073,0.03583 -0.4612387,-0.04425 -0.7929687,-0.21875 -0.240085,-0.126292 -0.4500219,-0.228516 -0.4667969,-0.228516 z m -0.6113281,0.25 c -0.00627,0.04476 -0.00397,0.08929 -0.00586,0.134766 0.00601,-0.03453 0.00734,-0.07577 0.00586,-0.134766 z m 10.7949222,0.439454 c -0.09283,-3.57e-4 -0.152119,0.0076 -0.169922,0.02539 -0.03963,0.03963 0.181401,0.157242 0.529297,0.28125 0.982475,0.350201 2.503936,1.040973 3.507812,1.546875 0.07723,-0.130424 0.167402,-0.252002 0.238281,-0.386719 -0.773785,-0.399741 -1.934385,-0.920754 -2.93164,-1.326171 -0.495043,-0.07786 -0.95124,-0.139769 -1.173828,-0.140625 z m -2.771485,4.269531 C 11.661294,19.285134 10.225966,19.487485 8.7832031,19.5 7.2452511,19.54408 6.0976372,19.204105 4.7617188,18.818359 5.1486133,19.127066 5.5597457,19.404672 5.9902344,19.654297 6.8624539,19.875393 7.730847,20.030162 8.7832031,20 c 1.4689829,-0.01274 2.9311849,-0.217912 4.2617189,-1.074219 0.02379,-0.06199 -0.0125,-0.240014 -0.07227,-0.458984 z"/>
</svg>
