<svg xmlns="http://www.w3.org/2000/svg" width="22" height="22" version="1">
 <path style="opacity:0.2" d="M 9.875718,0.50087128 A 0.91312513,0.91312513 0 0 0 9.280106,0.75409548 L 1.2812519,8.4275026 A 0.91312513,0.91312513 0 0 0 1.0289191,9.3137878 l 2.2397864,8.7014632 a 0.91312513,0.91312513 0 0 0 0.6303854,0.650001 l 9.6617531,2.798841 a 0.91312513,0.91312513 0 0 0 0.844378,-0.181002 l 7.272172,-6.167437 A 0.91312513,0.91312513 0 0 0 21.99749,14.351523 L 21.324306,5.3005401 A 0.91312513,0.91312513 0 0 0 20.735827,4.5141185 L 10.234155,0.55882748 A 0.91312513,0.91312513 0 0 0 9.875718,0.50087128 Z"/>
 <path style="fill:#36c53c" d="M 9.875718,8.9448227e-4 A 0.91312513,0.91312513 0 0 0 9.280106,0.25411878 L 1.2812519,7.927526 A 0.91312513,0.91312513 0 0 0 1.0289193,8.8138112 l 2.2397861,8.7014628 a 0.91312513,0.91312513 0 0 0 0.6303857,0.650001 l 9.6617529,2.798841 a 0.91312513,0.91312513 0 0 0 0.844378,-0.181002 l 7.272172,-6.167437 a 0.91312513,0.91312513 0 0 0 0.320096,-0.76413 L 21.324306,4.8005635 A 0.91312513,0.91312513 0 0 0 20.735827,4.0141419 L 10.234155,0.05885078 A 0.91312513,0.91312513 0 0 0 9.875718,8.9448227e-4 Z"/>
 <path style="opacity:0.3;fill:#8b9cbe" d="m 9.58214,0.06268808 c -0.112209,0.043306 -0.214757,0.1083522 -0.301755,0.1914045 L 1.2814318,7.9278535 C 1.1576443,8.0469879 1.0699775,8.1986276 1.0285043,8.3653497 l 4.971636,3.6347333 z"/>
 <path style="opacity:0.1;fill:#8b9cbe" d="m 9.870223,0.00214168 c -0.09867,0.00447 -0.195962,0.024916 -0.288083,0.060546 L 6.0001403,12.000083 17.00002,7.9999998 Z"/>
 <path style="opacity:0.05" d="m 9.876083,0.00116508 c -0.0019,3.192e-4 -0.0039,6.45e-4 -0.0059,9.75e-4 L 16.99998,7.9999998 21.202115,4.4093294 C 21.096667,4.227739 20.931811,4.0880597 20.735362,4.0138254 L 10.234478,0.05878178 C 10.120073,0.01578488 9.9982,-0.00380782 9.876083,0.00116508 Z"/>
 <path style="opacity:0.1" d="m 1.0285043,8.3653497 c -0.037242,0.1470922 -0.037242,0.3011458 0,0.448238 L 3.268719,17.51566 c 0.035721,0.137263 0.1029257,0.264317 0.1962873,0.371091 l 2.535134,-5.886668 z"/>
 <path style="opacity:0.16000001" d="m 6.0001403,12.000083 -2.535134,5.886668 c 0.115082,0.132627 0.2659637,0.229258 0.4345665,0.278317 l 9.6610482,2.798804 c 0.100215,0.02859 0.204586,0.03982 0.308591,0.0332 z"/>
 <path style="opacity:0.23000004" d="M 17.00002,7.9999998 6.0001403,12.000083 13.869212,20.997075 c 0.06069,-0.0034 0.120882,-0.01292 0.179686,-0.02832 z"/>
 <path style="opacity:0.3" d="M 17.00002,7.9999998 14.048898,20.968755 c 0.131118,-0.03462 0.25288,-0.098 0.356442,-0.185546 l 7.272397,-6.167914 c 0.103845,-0.08832 0.186598,-0.198766 0.242186,-0.32324 z"/>
 <path style="opacity:0.22000002" d="m 21.202155,4.4093294 -4.202135,3.5906704 4.919903,6.2920552 c 0.06182,-0.138146 0.08833,-0.289492 0.07715,-0.440425 L 21.324225,4.8009274 c -0.01046,-0.1381007 -0.05221,-0.2720116 -0.12207,-0.391598 z"/>
 <path style="opacity:0.2;fill:#8b9cbe" d="M 9.876083,0.00116508 A 0.91312513,0.91312513 0 0 0 9.280385,0.25409258 L 1.2814318,7.9278535 A 0.91312513,0.91312513 0 0 0 1.0285043,8.8135877 l 0.00684,0.027345 A 0.91312513,0.91312513 0 0 1 1.2814318,8.4278491 L 9.280385,0.75408818 a 0.91312513,0.91312513 0 0 1 0.595698,-0.2529274 0.91312513,0.91312513 0 0 1 0.358395,0.057617 L 20.735362,4.5138214 a 0.91312513,0.91312513 0 0 1 0.588863,0.7871021 l 0.655267,8.8085165 a 0.91312513,0.91312513 0 0 0 0.01758,-0.25781 L 21.324225,4.8009274 A 0.91312513,0.91312513 0 0 0 20.735362,4.0138254 L 10.234478,0.05878178 A 0.91312513,0.91312513 0 0 0 9.876083,0.00116508 Z"/>
</svg>
