<svg xmlns="http://www.w3.org/2000/svg" width="22" height="22" version="1.1">
 <path style="opacity:0.2" d="m 11,1.5 0,10 10,0 A 10,10 0 0 0 11,1.5 Z m 0,10 -10,0 a 10,10 0 0 0 10,10 l 0,-10 z"/>
 <path style="fill:#b2bfd9" d="m 11,1 0,10 10,0 A 10,10 0 0 0 11,1 Z m 0,10 -10,0 a 10,10 0 0 0 10,10 l 0,-10 z"/>
 <path style="opacity:0.2;fill:#8b9cbe" d="m 11,1 0,0.5 A 10,10 0 0 1 20.974609,11 L 21,11 A 10,10 0 0 0 11,1 Z M 1,11 a 10,10 0 0 0 0.02539,0.5 L 11,11.5 11,11 1,11 Z"/>
 <circle style="opacity:0.2" cx="11" cy="11.5" r="8"/>
 <circle style="fill:#8b9cbe" cx="11" cy="11" r="8"/>
 <circle style="fill:#3ca2e4" cx="11" cy="11" r="6"/>
 <path style="opacity:0.2;fill:none;stroke:#000000;stroke-width:2;stroke-linecap:round;stroke-linejoin:round" d="m 9,8.4999 4,0 0,3 -4,0 0,3 4,0"/>
 <path style="fill:none;stroke:#ffc34c;stroke-width:2;stroke-linecap:round;stroke-linejoin:round" d="m 9,8 4,0 0,3 -4,0 0,3 4,0"/>
 <path style="opacity:0.2;fill:#8b9cbe;fill-rule:evenodd" d="M 9,7 A 1.0001,1.0001 0 0 0 8.0195312,8.2460938 1.0001,1.0001 0 0 1 9,7.5 l 4,0 a 1.0001,1.0001 0 0 1 1,1 L 14,8 A 1.0001,1.0001 0 0 0 13,7 L 9,7 Z m 0,3 a 1.0001,1.0001 0 0 0 -1,1 l 0,0.5 a 1.0001,1.0001 0 0 1 1,-1 l 3,0 0,-0.5 -3,0 z m 1,3 0,0.5 3,0 A 1.0001,1.0001 0 0 1 13.980469,14.253906 1.0001,1.0001 0 0 0 13,13 l -3,0 z"/>
</svg>
