<svg xmlns="http://www.w3.org/2000/svg" width="22" height="22" version="1">
 <rect style="opacity:0.2" width="20" height="20" x="1" y="1.5" rx="1" ry="1"/>
 <rect style="fill:#4f4f4f" width="20" height="20" x="1" y="1" rx="1" ry="1"/>
 <path style="opacity:0.2" d="m 5,3.5214844 a 2,2 0 0 0 -2,2 2,2 0 0 0 2,2 2,2 0 0 0 2,-2 2,2 0 0 0 -2,-2 z m 6,0.029297 c -1.108,0 -2,0.892 -2,2 0,1.1080001 0.892,2 2,2 h 6 c 1.108,0 2,-0.892 2,-2 0,-1.108 -0.892,-2 -2,-2 z M 5,9.470703 a 2,2 0 0 0 -2,2.001953 2,2 0 0 0 2,2 2,2 0 0 0 2,-2 A 2,2 0 0 0 5,9.470703 Z M 11,9.5 c -1.108,0 -2,0.892 -2,2 0,1.108 0.892,2 2,2 h 6 c 1.108,0 2,-0.892 2,-2 0,-1.108 -0.892,-2 -2,-2 z m -6,5.972656 a 2,2 0 0 0 -2,1.998047 2,2 0 0 0 2,2 2,2 0 0 0 2,-2 2,2 0 0 0 -2,-1.998047 z M 11,15.5 c -1.108,0 -2,0.892 -2,2 0,1.108 0.892,2 2,2 h 6 c 1.108,0 2,-0.892 2,-2 0,-1.108 -0.892,-2 -2,-2 z"/>
 <path style="opacity:0.1;fill:#8b9cbe" d="M 2,1 C 1.446,1 1,1.446 1,2 v 0.5 c 0,-0.554 0.446,-1 1,-1 h 18 c 0.554,0 1,0.446 1,1 V 2 C 21,1.446 20.554,1 20,1 Z"/>
 <g transform="translate(-1,-1)">
  <path style="fill:#8b9cbe" d="m 6,9.9716795 a 2,2 0 0 0 -2,2.0000005 2,2 0 0 0 2,2 2,2 0 0 0 2,-2 2,2 0 0 0 -2,-2.0000005 z"/>
  <path style="fill:#8b9cbe" d="m 12,10 c -1.108,0 -2,0.892 -2,2 0,1.108 0.892,2 2,2 h 6 c 1.108,0 2,-0.892 2,-2 0,-1.108 -0.892,-2 -2,-2 z"/>
  <path style="fill:#ff9448" d="m 6,15.97168 a 2,2 0 0 0 -2,1.999999 2,2 0 0 0 2,2 2,2 0 0 0 2,-2 2,2 0 0 0 -2,-1.999999 z"/>
  <path style="fill:#ff9448" d="m 12,16 c -1.108,0 -2,0.892 -2,2 0,1.108 0.892,2 2,2 h 6 c 1.108,0 2,-0.892 2,-2 0,-1.108 -0.892,-2 -2,-2 z"/>
  <path style="fill:#8b9cbe" d="m 6,4.0216795 a 2,2 0 0 0 -2,2 2,2 0 0 0 2,2 2,2 0 0 0 2,-2 2,2 0 0 0 -2,-2 z"/>
  <path style="fill:#8b9cbe" d="m 12,4.0499995 c -1.108,0 -2,0.892 -2,2 0,1.108 0.892,2 2,2 h 6 c 1.108,0 2,-0.892 2,-2 0,-1.108 -0.892,-2 -2,-2 z"/>
 </g>
</svg>
