<svg xmlns="http://www.w3.org/2000/svg" width="22" height="22" version="1">
 <rect style="opacity:0.2" width="17.149" height="17.149" x="-8.93" y="7.33" rx="5.145" ry="5.145" transform="rotate(-45)"/>
 <rect style="fill:#8e8e8e" width="17.149" height="17.149" x="-8.57" y="6.98" rx="5.145" ry="5.145" transform="rotate(-45)"/>
 <path style="opacity:0.1;fill:#8b9cbe" d="m 10.99996,1.0002444 c -1.3150872,0 -2.6299634,0.5040125 -3.6376519,1.5117007 l -4.850528,4.850528 C 1.440114,8.4341393 0.94375811,9.8528575 1.011798,11.250123 1.071714,10.01969 1.5680699,8.8061773 2.5117801,7.8624671 l 4.850528,-4.8505279 c 2.0153767,-2.01537648 5.2599279,-2.01537648 7.2753049,0 L 19.48814,7.8624671 C 20.431851,8.8061773 20.928207,10.01969 20.988122,11.250123 21.056162,9.8528575 20.559806,8.4341393 19.48814,7.3624731 L 14.637613,2.5119451 C 13.629924,1.5042569 12.315048,1.0002444 10.99996,1.0002444 Z"/>
 <path style="opacity:0.1" d="M 10.984336,4.5003957 A 1.0000881,1.0000881 0 0 0 10.291961,4.7933612 L 4.2930092,10.792313 a 1.0000881,1.0000881 0 0 0 0,1.414046 l 5.9999288,6.000905 a 1.0000881,1.0000881 0 0 0 1.414045,0 l 4.706975,-4.706975 h -2.829067 l -2.584931,2.58493 -4.5858826,-4.585883 4.5849066,-4.5849066 2.585907,2.5859071 h 2.829067 L 11.706007,4.7933612 A 1.0000881,1.0000881 0 0 0 10.984336,4.5003957 Z m 1.015612,5.9999293 a 1.0000881,1.0000881 0 1 0 0,1.999976 h 4.999941 a 1.0000881,1.0000881 0 1 0 0,-1.999976 z"/>
 <path style="fill:#17191e" d="M 10.984336,4.0002086 A 1.0000881,1.0000881 0 0 0 10.291961,4.2931741 L 4.2930092,10.292126 a 1.0000881,1.0000881 0 0 0 0,1.414046 l 5.9999288,6.000905 a 1.0000881,1.0000881 0 0 0 1.414045,0 l 4.706975,-4.706975 h -2.829067 l -2.584931,2.58493 -4.5858826,-4.585883 4.5849066,-4.5849066 2.585907,2.5859071 h 2.829067 L 11.706007,4.2931741 A 1.0000881,1.0000881 0 0 0 10.984336,4.0002086 Z"/>
 <path style="fill:none;stroke:#17191e;stroke-width:1.99997616;stroke-linecap:round;stroke-linejoin:round" d="m 11.999948,11.000126 h 4.999941"/>
</svg>
