<svg xmlns="http://www.w3.org/2000/svg" width="22" height="22" version="1">
 <g transform="translate(-1,-1)">
  <circle style="opacity:0.2" cx="12.5" cy="12" r="10.5"/>
  <circle style="fill:#b2bfd9" cx="12.5" cy="11.5" r="10.5"/>
  <path style="opacity:0.2;fill:#8b9cbe" d="M 12.5,1 A 10.5,10.5 0 0 0 2,11.5 10.5,10.5 0 0 0 2.0098,11.797 10.5,10.5 0 0 1 12.5,1.5 10.5,10.5 0 0 1 22.99,11.703 10.5,10.5 0 0 0 23,11.5 10.5,10.5 0 0 0 12.5,1 Z"/>
  <path style="opacity:0.2" d="M 6.5,15.5 A 1.5,1.5 0 0 1 5,14 1.5,1.5 0 0 1 6.5,12.5 H 8 V 14 A 1.5,1.5 0 0 1 6.5,15.5 Z M 10.5,12.5 A 1.5,1.5 0 0 0 9,14 V 18 A 1.5,1.5 0 0 0 10.5,19.5 1.5,1.5 0 0 0 12,18 V 14 A 1.5,1.5 0 0 0 10.5,12.5 Z M 14.5,19.5 A 1.5,1.5 0 0 0 16,18 1.5,1.5 0 0 0 14.5,16.5 H 13 V 18 A 1.5,1.5 0 0 0 14.5,19.5 Z M 20,14 A 1.5,1.5 0 0 0 18.5,12.5 H 14.5 A 1.5,1.5 0 0 0 13,14 1.5,1.5 0 0 0 14.5,15.5 H 18.5 A 1.5,1.5 0 0 0 20,14 Z M 18.5,8.5 A 1.5,1.5 0 0 1 20,10 1.5,1.5 0 0 1 18.5,11.5 H 17 V 10 A 1.5,1.5 0 0 1 18.5,8.5 Z M 14.5,4.5 A 1.5,1.5 0 0 0 13,6 V 10 A 1.5,1.5 0 0 0 14.5,11.5 1.5,1.5 0 0 0 16,10 V 6 A 1.5,1.5 0 0 0 14.5,4.5 Z M 10.5,4.5 A 1.5,1.5 0 0 0 9,6 1.5,1.5 0 0 0 10.5,7.5 H 12 V 6 A 1.5,1.5 0 0 0 10.5,4.5 Z M 12,10 A 1.5,1.5 0 0 0 10.5,8.5 H 6.5 A 1.5,1.5 0 0 0 5,10 1.5,1.5 0 0 0 6.5,11.5 H 10.5 A 1.5,1.5 0 0 0 12,10 Z"/>
  <path style="fill:#36c5f0" d="M 10.5,4 A 1.5,1.5 0 0 0 9,5.5 1.5,1.5 0 0 0 10.5,7 H 12 V 5.5 A 1.5,1.5 0 0 0 10.5,4 Z M 12,9.5 A 1.5,1.5 0 0 0 10.5,8 H 6.5 A 1.5,1.5 0 0 0 5,9.5 1.5,1.5 0 0 0 6.5,11 H 10.5 A 1.5,1.5 0 0 0 12,9.5 Z"/>
  <path style="fill:#2eb67d" d="M 18.5,8 A 1.5,1.5 0 0 1 20,9.5 1.5,1.5 0 0 1 18.5,11 H 17 V 9.5 A 1.5,1.5 0 0 1 18.5,8 Z M 14.5,4 A 1.5,1.5 0 0 0 13,5.5 V 9.5 A 1.5,1.5 0 0 0 14.5,11 1.5,1.5 0 0 0 16,9.5 V 5.5 A 1.5,1.5 0 0 0 14.5,4 Z"/>
  <path style="fill:#ecb22e" d="M 14.5,19 A 1.5,1.5 0 0 0 16,17.5 1.5,1.5 0 0 0 14.5,16 H 13 V 17.5 A 1.5,1.5 0 0 0 14.5,19 Z M 20,13.5 A 1.5,1.5 0 0 0 18.5,12 H 14.5 A 1.5,1.5 0 0 0 13,13.5 1.5,1.5 0 0 0 14.5,15 H 18.5 A 1.5,1.5 0 0 0 20,13.5 Z"/>
  <path style="fill:#e01e5a" d="M 6.5,15 A 1.5,1.5 0 0 1 5,13.5 1.5,1.5 0 0 1 6.5,12 H 8 V 13.5 A 1.5,1.5 0 0 1 6.5,15 Z M 10.5,12 A 1.5,1.5 0 0 0 9,13.5 V 17.5 A 1.5,1.5 0 0 0 10.5,19 1.5,1.5 0 0 0 12,17.5 V 13.5 A 1.5,1.5 0 0 0 10.5,12 Z"/>
 </g>
</svg>
