<svg xmlns="http://www.w3.org/2000/svg" width="22" height="22" version="1.1">
 <g transform="translate(0,-1030.3622)">
  <path style="opacity:0.2" d="m 11.175087,1031.8622 c -0.878745,0 -1.740235,0.1239 -2.5601206,0.377 l -0.00195,0 c -0.832513,0.2577 -1.6115944,0.6553 -2.2867311,1.1914 -0.6947584,0.5518 -1.2646446,1.2575 -1.6657378,2.0507 -0.4653878,0.9202 -0.6405182,1.9019 -0.6405182,2.9024 0,1.1331 0.3487514,2.1405 0.7830725,2.9258 0.2776515,0.5022 0.659635,0.8939 1.0232668,1.3047 -0.8441806,0.4114 -0.9327834,0.8027 -1.0369364,0.9492 -0.2070601,0.2912 -0.5425906,0.7171 -0.8533733,1.1367 -0.1553913,0.2098 -0.3049084,0.4167 -0.4510966,0.6523 -0.1459755,0.2352 -0.3498849,0.3513 -0.4491439,1.1661 -0.1611192,0.865 0.2502785,1.2985 0.6561406,1.8886 0.2286787,0.2865 0.4904108,0.5695 0.7947894,0.8653 0.5981286,0.5813 1.2889814,1.1839 2.2125216,1.6289 1.2978219,0.684 2.764111,0.9609 4.374271,0.9609 0.86701,0 1.763549,-0.1011 2.657759,-0.3437 l 0.002,0 c 0.878044,-0.2388 1.740202,-0.6024 2.523016,-1.1504 0.798215,-0.5589 1.465117,-1.2908 1.954752,-2.1407 C 18.767194,1047.262 19,1046.1678 19,1045.0614 c 0,-1.103 -0.202194,-2.1763 -0.693245,-3.1367 l -0.002,0 c -0.34705,-0.677 -0.829397,-1.2707 -1.359149,-1.8184 0.196641,-0.1948 0.519359,-0.3234 0.632708,-0.5371 0.01148,-0.022 0.02255,-0.044 0.03319,-0.066 -0.104597,0.216 0.454064,-0.6546 0.859232,-1.2773 0.0196,-0.03 0.240647,-0.2497 0.429615,-0.8379 0.188971,-0.5882 -0.02277,-1.8939 -0.663951,-2.4727 -0.693953,-0.6267 -1.728006,-1.5227 -3.257269,-2.1718 -0.930125,-0.4169 -2.135442,-0.8809 -3.80405,-0.8809 z"/>
  <path style="fill:#4f4f4f" d="m 11.175087,1031.3622 c -0.878745,0 -1.740235,0.1239 -2.5601206,0.377 l -0.00195,0 c -0.832513,0.2577 -1.6115944,0.6553 -2.2867311,1.1914 -0.6947584,0.5518 -1.2646446,1.2575 -1.6657378,2.0507 -0.4653878,0.9202 -0.6405182,1.9019 -0.6405182,2.9024 0,1.1331 0.3487514,2.1405 0.7830725,2.9258 0.2776515,0.5022 0.659635,0.8939 1.0232668,1.3047 -0.8441806,0.4114 -0.9327834,0.8027 -1.0369364,0.9492 -0.2070601,0.2912 -0.5425906,0.7171 -0.8533733,1.1367 -0.1553913,0.2098 -0.3049084,0.4167 -0.4510966,0.6523 -0.1459755,0.2352 -0.3498849,0.3513 -0.4491439,1.1661 -0.1611192,0.865 0.2502785,1.2985 0.6561406,1.8886 0.2286787,0.2865 0.4904108,0.5695 0.7947894,0.8653 0.5981286,0.5813 1.2889814,1.1839 2.2125216,1.6289 1.2978219,0.684 2.764111,0.9609 4.374271,0.9609 0.86701,0 1.763549,-0.1011 2.657759,-0.3437 l 0.002,0 c 0.878044,-0.2388 1.740202,-0.6024 2.523016,-1.1504 0.798215,-0.5589 1.465117,-1.2908 1.954752,-2.1407 C 18.767194,1046.762 19,1045.6678 19,1044.5614 c 0,-1.103 -0.202194,-2.1763 -0.693245,-3.1367 l -0.002,0 c -0.34705,-0.677 -0.829397,-1.2707 -1.359149,-1.8184 0.196641,-0.1948 0.519359,-0.3234 0.632708,-0.5371 0.01148,-0.022 0.02255,-0.044 0.03319,-0.066 -0.104597,0.216 0.454064,-0.6546 0.859232,-1.2773 0.0196,-0.03 0.240647,-0.2497 0.429615,-0.8379 0.188971,-0.5882 -0.02277,-1.8939 -0.663951,-2.4727 -0.693953,-0.6267 -1.728006,-1.5227 -3.257269,-2.1718 -0.930125,-0.4169 -2.135442,-0.8809 -3.80405,-0.8809 z"/>
  <path style="opacity:0.2" d="m 16.50759,1042.8354 c 0.316561,0.619 0.475313,1.3685 0.475313,2.2242 0,0.8251 -0.17402,1.5641 -0.521746,2.1676 -0.34783,0.6037 -0.812328,1.1124 -1.369002,1.5021 -0.556464,0.3897 -1.199166,0.6675 -1.902355,0.8587 -0.703711,0.1909 -1.423382,0.2742 -2.13431,0.2742 -1.422481,0 -2.5174378,-0.2232 -3.4835387,-0.7423 -1.102645,-0.5194 -2.6014499,-2.1137 -2.5715109,-2.3607 0.03892,-0.3212 0.885996,-1.3159 1.3994629,-2.0379 0.250074,-0.3516 0.349185,-0.5177 0.72382,-0.1893 0.468189,0.5676 1.1184219,0.9325 1.7178429,1.2373 0.3785748,0.1914 0.6039538,0.2986 1.0601308,0.433 0.394367,0.1227 0.835756,0.1712 1.175952,0.1712 0.339882,0 0.566579,-0.025 0.727197,-0.1694 0.177575,-0.159 0.22957,-0.3269 0.22957,-0.6631 0,-0.2901 -0.245681,-0.6265 -0.562242,-0.8867 -1.389287,-0.967 -2.5699244,-1.8312 -3.8186329,-2.8879 -0.471859,-0.443 -0.803998,-0.853 -1.120769,-1.4259 C 6.2157952,1039.7675 6,1039.1313 6,1038.3825 c 0,-0.7336 0.1468322,-1.4488 0.4251182,-1.999 0.2782829,-0.5502 0.6529889,-1.0121 1.1247449,-1.3867 0.471338,-0.3742 1.0162979,-0.6568 1.6347779,-0.8482 0.618166,-0.1908 1.275445,-0.2864 1.971104,-0.2864 1.397791,0 2.095656,0.3011 3.015424,0.7148 1.242163,0.5245 2.032548,1.2115 2.707627,1.821 0.263136,0.2375 0.036,0.5243 -0.101184,0.735 -0.344775,0.5298 -0.832552,1.183 -0.984749,1.4973 -0.121143,0.2284 -0.345065,0.3143 -0.530797,0.1551 -1.071512,-0.7255 -2.368092,-1.8041 -3.378839,-1.923 -0.278285,0 -0.55788,0.081 -0.689022,0.2185 -0.131561,0.1375 -0.179202,0.4144 -0.172321,0.6282 0.504579,1.2232 1.794305,1.8297 2.736577,2.3985 0.54862,0.3134 1.099941,0.7162 1.579332,1.1591 0.479285,0.4437 0.852609,0.95 1.169797,1.5687 z"/>
  <path style="fill:#8dc808" d="m 16.50759,1042.3354 c 0.316561,0.619 0.475313,1.3685 0.475313,2.2242 0,0.8251 -0.17402,1.5641 -0.521746,2.1676 -0.34783,0.6037 -0.812328,1.1124 -1.369002,1.5021 -0.556464,0.3897 -1.199166,0.6675 -1.902355,0.8587 -0.703711,0.1909 -1.423382,0.2742 -2.13431,0.2742 -1.422481,0 -2.5174378,-0.2232 -3.4835387,-0.7423 -1.102645,-0.5194 -2.6014499,-2.1137 -2.5715109,-2.3607 0.03892,-0.3212 0.885996,-1.3159 1.3994629,-2.0379 0.250074,-0.3516 0.349185,-0.5177 0.72382,-0.1893 0.468189,0.5676 1.1184219,0.9325 1.7178429,1.2373 0.3785748,0.1914 0.6039538,0.2986 1.0601308,0.433 0.394367,0.1227 0.835756,0.1712 1.175952,0.1712 0.339882,0 0.566579,-0.025 0.727197,-0.1694 0.177575,-0.159 0.22957,-0.3269 0.22957,-0.6631 0,-0.2901 -0.245681,-0.6265 -0.562242,-0.8867 -1.389287,-0.967 -2.5699244,-1.8312 -3.8186329,-2.8879 -0.471859,-0.443 -0.803998,-0.853 -1.120769,-1.4259 C 6.2157952,1039.2675 6,1038.6313 6,1037.8825 c 0,-0.7336 0.1468322,-1.4488 0.4251182,-1.999 0.2782829,-0.5502 0.6529889,-1.0121 1.1247449,-1.3867 0.471338,-0.3742 1.0162979,-0.6568 1.6347779,-0.8482 0.618166,-0.1908 1.275445,-0.2864 1.971104,-0.2864 1.397791,0 2.095656,0.3011 3.015424,0.7148 1.242163,0.5245 2.032548,1.2115 2.707627,1.821 0.263136,0.2375 0.036,0.5243 -0.101184,0.735 -0.344775,0.5298 -0.832552,1.183 -0.984749,1.4973 -0.121143,0.2284 -0.345065,0.3143 -0.530797,0.1551 -1.071512,-0.7255 -2.368092,-1.8041 -3.378839,-1.923 -0.278285,0 -0.55788,0.081 -0.689022,0.2185 -0.131561,0.1375 -0.179202,0.4144 -0.172321,0.6282 0.504579,1.2232 1.794305,1.8297 2.736577,2.3985 0.54862,0.3134 1.099941,0.7162 1.579332,1.1591 0.479285,0.4437 0.852609,0.95 1.169797,1.5687 z"/>
  <path style="opacity:0.1;fill:#8b9cbe" d="m 11.175781,1031.3622 c -0.878745,0 -1.740661,0.1239 -2.5605466,0.377 l -0.00195,0 c -0.832513,0.2577 -1.6119726,0.6553 -2.2871093,1.1914 -0.6947584,0.5518 -1.2649224,1.2575 -1.6660157,2.0507 -0.4653878,0.9202 -0.6406249,1.9019 -0.640625,2.9024 0,0.066 0.011374,0.1265 0.013672,0.1914 0.033573,-0.8932 0.2096815,-1.7687 0.6269531,-2.5938 0.4010933,-0.7932 0.9712573,-1.4989 1.6660157,-2.0507 0.6751367,-0.5361 1.4545963,-0.9337 2.2871093,-1.1914 l 0.00195,0 c 0.8198855,-0.2531 1.6818015,-0.377 2.5605465,-0.377 1.668608,0 2.87261,0.464 3.802735,0.8809 1.529263,0.6491 2.563859,1.5451 3.257812,2.1718 0.42441,0.3832 0.642784,1.0766 0.699219,1.6778 0.07069,-0.6534 -0.143557,-1.6762 -0.699219,-2.1778 -0.693953,-0.6267 -1.728549,-1.5227 -3.257812,-2.1718 -0.930125,-0.4169 -2.134127,-0.8809 -3.802735,-0.8809 z m 6.03125,8.5469 c -0.09189,0.063 -0.187669,0.1239 -0.261719,0.1972 0.529753,0.5477 1.012326,1.1414 1.359376,1.8184 l 0.002,0 c 0.451305,0.8827 0.651037,1.8623 0.68164,2.8711 0.0023,-0.078 0.01167,-0.1559 0.01167,-0.2344 0,-1.103 -0.202308,-2.1763 -0.693359,-3.1367 l -0.002,0 c -0.286134,-0.5583 -0.676714,-1.0497 -1.09761,-1.5156 z m -11.6699216,2.3769 c -0.5513187,0.3436 -0.6588154,0.6519 -0.7480469,0.7774 -0.2070601,0.2912 -0.5427329,0.7171 -0.8535156,1.1367 -0.1553913,0.2098 -0.3049837,0.4167 -0.4511719,0.6523 -0.1459755,0.2352 -0.3499597,0.3513 -0.4492188,1.1661 -0.045108,0.2421 -0.037815,0.4453 -0.00586,0.6328 0.00559,-0.047 -0.00343,-0.083 0.00586,-0.1328 0.099259,-0.8148 0.3032433,-0.9309 0.4492188,-1.1661 0.1461882,-0.2356 0.2957806,-0.4425 0.4511719,-0.6523 0.3107827,-0.4196 0.6464555,-0.8455 0.8535156,-1.1367 0.104153,-0.1465 0.1929288,-0.5378 1.0371094,-0.9492 -0.096719,-0.1093 -0.1920551,-0.2192 -0.2890625,-0.3282 z"/>
  <path style="opacity:0.2;fill:#8b9cbe" d="m 11.15625,1033.3622 c -0.695659,0 -1.352537,0.096 -1.970703,0.2871 -0.6184801,0.1914 -1.1634278,0.4735 -1.6347658,0.8477 -0.4717559,0.3746 -0.8467171,0.8365 -1.125,1.3867 C 6.1474952,1036.4339 6,1037.1481 6,1037.8817 c 0,0.071 0.011871,0.1364 0.015625,0.2051 0.034221,-0.6273 0.1696641,-1.2276 0.4101562,-1.7031 0.2782829,-0.5502 0.6532441,-1.0121 1.125,-1.3867 0.471338,-0.3742 1.0162857,-0.6563 1.6347658,-0.8477 0.618166,-0.1908 1.275044,-0.2871 1.970703,-0.2871 1.397791,0 2.095857,0.3011 3.015625,0.7148 1.242163,0.5245 2.031952,1.2109 2.707031,1.8204 0.0095,0.01 0.0074,0.019 0.01563,0.027 0.09927,-0.1731 0.170652,-0.3592 -0.01563,-0.5273 -0.675079,-0.6095 -1.464868,-1.2959 -2.707031,-1.8204 -0.919768,-0.4137 -1.617834,-0.7148 -3.015625,-0.7148 z m -0.07813,3.957 c -0.03865,0.1272 -0.06064,0.2663 -0.05664,0.3907 0.504579,1.2232 1.794056,1.8296 2.736328,2.3984 0.54862,0.3134 1.100688,0.7153 1.580079,1.1582 0.479285,0.4437 0.852733,0.9497 1.169921,1.5684 0.283217,0.5538 0.432979,1.2175 0.462891,1.9628 0.0034,-0.08 0.01172,-0.1565 0.01172,-0.2382 0,-0.8557 -0.158048,-1.6056 -0.47461,-2.2246 -0.317188,-0.6187 -0.690636,-1.1247 -1.169921,-1.5684 -0.479388,-0.4429 -1.031456,-0.8448 -1.580076,-1.1582 -0.91235,-0.5507 -2.143956,-1.1421 -2.679687,-2.2891 z m -4.3632762,6.5528 c -0.1028664,0.044 -0.1894162,0.1738 -0.3144532,0.3496 -0.5134669,0.722 -1.3614706,1.7159 -1.4003906,2.0371 -0.0051,0.042 0.047031,0.1339 0.1210938,0.2422 0.242587,-0.4381 0.8600748,-1.1898 1.2792968,-1.7793 0.250074,-0.3516 0.3480213,-0.5179 0.7226563,-0.1895 0.468189,0.5676 1.119329,0.9316 1.71875,1.2364 0.3785751,0.1914 0.6043701,0.2991 1.0605471,0.4335 0.394367,0.1227 0.835585,0.1719 1.175781,0.1719 0.339882,0 0.565944,-0.025 0.726563,-0.1699 0.177574,-0.159 0.230468,-0.3259 0.230468,-0.6621 0,-0.062 -0.01842,-0.1265 -0.03906,-0.1914 -0.03153,0.14 -0.08297,0.2564 -0.191406,0.3535 -0.160619,0.1444 -0.386681,0.1699 -0.726563,0.1699 -0.340196,0 -0.781414,-0.049 -1.175781,-0.1719 -0.456177,-0.1344 -0.681972,-0.2421 -1.0605471,-0.4335 -0.599421,-0.3048 -1.250561,-0.6688 -1.71875,-1.2364 -0.1873175,-0.1642 -0.3053368,-0.2046 -0.4082031,-0.1601 z"/>
 </g>
</svg>
