<svg xmlns="http://www.w3.org/2000/svg" width="22" height="22" version="1">
 <rect style="opacity:0.2" width="20" height="20" x="1" y="1.5" rx="1" ry="1"/>
 <rect style="fill:#4f4f4f" width="20" height="20" x="1" y="1" rx="1" ry="1"/>
 <path style="opacity:0.1;fill:#8b9cbe" d="M 2,1 C 1.446,1 1,1.446 1,2 v 0.5 c 0,-0.554 0.446,-1 1,-1 h 18 c 0.554,0 1,0.446 1,1 V 2 C 21,1.446 20.554,1 20,1 Z"/>
 <path style="opacity:0.2" d="m 14.818359,4.511643 c -0.68074,-0.036069 -1.375597,0.017605 -2.039062,0.068359 -0.822445,0.107148 -1.669778,0.246161 -2.402344,0.6484375 -0.24451,0.126886 -0.543941,0.4567248 -0.263672,0.6992188 0.42137,0.37032 1.027129,0.4251751 1.566407,0.5097656 1.576273,0.149444 3.22547,0.051634 4.707031,-0.5273438 C 16.77713,5.7982325 17.306936,5.2745073 16.775391,4.9784398 16.165563,4.6734428 15.499099,4.5477116 14.818359,4.511643 Z m -0.55664,0.265625 c 0.496143,0.012923 0.987907,0.077985 1.46289,0.2246093 0.198121,0.077072 0.50032,0.1908199 0.4375,0.4511719 -0.341156,0.3956975 -0.901604,0.4861012 -1.390625,0.6054688 -1.137507,0.2030184 -2.341833,0.2765972 -3.464843,-0.042969 -0.204886,-0.068612 -0.618105,-0.231189 -0.425782,-0.5 0.504485,-0.46055 1.243168,-0.5415825 1.896485,-0.65625 0.489021,-0.056394 0.988232,-0.094955 1.484375,-0.082031 z M 6.7792969,7.4999242 C 5.1358764,7.4833548 3.5438984,8.1296516 2,8.6659406 3.0827341,10.489856 4.5778758,12.169405 6.5273438,13.044847 7.9436473,13.715988 9.695797,13.667174 11,12.753831 9.655696,11.878389 9.375358,10.193089 8.9160156,8.7694556 8.7884206,8.0964656 8.1453948,7.6024739 7.4882812,7.5507054 7.2514331,7.5190435 7.0140712,7.5022913 6.7792969,7.4999242 Z m 8.5683591,1.0000004 c -0.353601,0.0032 -0.704234,0.0296 -1.044922,0.08203 -0.913225,0.137517 -1.823219,0.6848074 -2.126953,1.5742194 -0.342206,0.985376 -0.22507,2.275737 0.697266,2.929688 1.007382,0.753872 2.358968,0.659502 3.472656,1.164062 0.65404,0.318565 0.488591,1.367985 -0.208984,1.533203 C 14.76182,16.169957 13.221008,15.644536 12,15.033128 v 1.861328 c 1.426534,0.500598 3.079298,0.745048 4.587891,0.523438 0.790718,-0.119711 1.613397,-0.472315 2.023437,-1.179688 0.572031,-1.063535 0.595034,-2.665895 -0.488281,-3.43164 -1.083315,-0.751894 -2.490138,-0.654888 -3.677735,-1.138672 -0.632777,-0.264153 -0.500035,-1.256504 0.134766,-1.433594 1.271631,-0.387819 2.752502,0.01672 3.921875,0.537109 -0.0011,-0.619323 0.0022,-1.238099 -0.0039,-1.8574224 -0.994727,-0.235954 -2.089587,-0.423801 -3.150391,-0.414062 z"/>
 <path style="fill:#4d88ef" d="m 12.779457,4.0794356 c 1.32693,-0.101509 2.776598,-0.211477 3.996253,0.398517 0.531545,0.2960675 0.0019,0.8205315 -0.388511,0.9323795 -1.481561,0.5789775 -3.130318,0.6767265 -4.706591,0.5272825 -0.539277,-0.084591 -1.146205,-0.1391045 -1.567575,-0.5094245 -0.280269,-0.242494 0.01933,-0.5733385 0.26384,-0.7002245 0.732566,-0.4022765 1.580139,-0.541382 2.402584,-0.64853 m -0.003,0.28009 c -0.653317,0.1146675 -1.391682,0.1964385 -1.896167,0.6569885 -0.192323,0.268811 0.221317,0.431414 0.426203,0.500026 1.12301,0.319566 2.327201,0.2453135 3.464708,0.042295 0.489021,-0.1193675 1.050526,-0.2105375 1.391682,-0.606235 0.06282,-0.260352 -0.239679,-0.374079 -0.4378,-0.451151 C 14.775117,4.2082006 13.75455,4.2467366 12.776507,4.3595246 Z"/>
 <path style="fill:#4d88ef" d="M 2,8.1660246 C 3.7644553,7.5531234 5.5927088,6.7969344 7.4874938,7.0502299 8.1446073,7.1019984 8.7880508,7.5974964 8.9156458,8.2704866 9.374988,9.69412 9.655696,11.378444 11,12.253886 9.695797,13.167229 7.9431893,13.2153 6.5268858,12.544159 4.5774178,11.668717 3.0827341,9.98994 2,8.1660246 Z"/>
 <path style="fill:#4d88ef" d="m 14.302851,8.0811496 c 1.362749,-0.2097394 2.869322,0.01781 4.195624,0.332416 0.0061,0.6193234 0.002,1.2376574 0.0031,1.8569804 -1.169373,-0.52039 -2.649621,-0.924038 -3.921252,-0.536219 -0.634801,0.17709 -0.767431,1.169392 -0.134654,1.433545 1.187597,0.483784 2.593882,0.386829 3.677197,1.138723 1.083315,0.765745 1.060029,2.368465 0.487998,3.432 -0.41004,0.707373 -1.232145,1.059575 -2.022863,1.179286 C 15.079408,17.139491 13.426534,16.89512 12,16.394522 v -1.861926 c 1.221008,0.611408 2.762513,1.136744 4.137412,0.749915 0.697575,-0.165218 0.861591,-1.214902 0.207551,-1.533467 -1.113688,-0.50456 -2.465301,-0.409585 -3.472683,-1.163457 -0.922336,-0.65395 -1.037755,-1.943052 -0.695549,-2.928428 0.303734,-0.8894124 1.212908,-1.4384924 2.126133,-1.5760094 z"/>
 <path style="opacity:0.2;fill:#8b9cbe" d="m 14.818359,4.0117184 c -0.68074,-0.036069 -1.375597,0.017605 -2.039062,0.068359 -0.822445,0.107148 -1.669778,0.246161 -2.402344,0.6484375 -0.24451,0.126886 -0.543941,0.4567248 -0.263672,0.6992188 0.0047,0.00412 0.01089,0.00572 0.01563,0.00977 0.07281,-0.085408 0.159491,-0.1630289 0.248047,-0.2089844 0.182618,-0.1002817 0.371688,-0.184713 0.566406,-0.2558594 4.2e-4,-3.478e-4 0.0015,3.474e-4 0.002,0 0.501952,-0.4153775 1.203828,-0.5030215 1.832032,-0.6132812 0.489021,-0.056394 0.988232,-0.094955 1.484375,-0.082031 0.496143,0.012923 0.987907,0.077985 1.46289,0.2246093 0.124017,0.048244 0.280572,0.1148015 0.371094,0.21875 0.232202,0.067509 0.460186,0.1480317 0.679688,0.2578125 0.04603,0.025639 0.07458,0.055346 0.105468,0.083984 C 17.030283,4.8685054 17.067316,4.641116 16.775391,4.4785152 16.165563,4.1735182 15.499099,4.047787 14.818359,4.0117184 Z m 1.144532,1.1074218 c -0.338071,0.2502929 -0.785519,0.340378 -1.191407,0.4394532 -1.137507,0.2030184 -2.341833,0.2765972 -3.464843,-0.042969 -0.07037,-0.023566 -0.161498,-0.074859 -0.248047,-0.1210938 -0.05879,0.041008 -0.123894,0.071942 -0.177735,0.1210938 -0.08301,0.1160241 -0.04201,0.2077274 0.03516,0.2851562 0.25232,0.060194 0.515028,0.097717 0.763672,0.1367188 1.481594,0.1404677 3.022909,0.047305 4.433593,-0.4433594 0.01501,-0.015499 0.03457,-0.024474 0.04883,-0.041016 0.03918,-0.162397 -0.06821,-0.2589891 -0.199218,-0.3339844 z M 6.7792969,6.9999996 C 5.1358764,6.9834302 3.5438984,7.6297263 2,8.1660156 c 0.08235,0.138722 0.1843443,0.267534 0.2714844,0.404296 1.4592936,-0.514662 2.9600744,-1.0859167 4.5078125,-1.070312 0.2347743,0.00237 0.4721363,0.019119 0.7089843,0.050781 0.6571136,0.051768 1.3001394,0.5457588 1.4277344,1.2187498 C 9.33024,10.053329 9.606033,11.545152 10.640625,12.46875 10.762559,12.401345 10.884543,12.334761 11,12.253906 9.655696,11.378464 9.375358,9.693164 8.9160156,8.2695306 8.7884206,7.5965409 8.1453948,7.1025494 7.4882812,7.0507808 7.2514332,7.019119 7.0140712,7.0023667 6.7792969,6.9999996 Z m 8.5683591,1 c -0.353601,0.00325 -0.704234,0.029596 -1.044922,0.082031 -0.913225,0.137517 -1.823219,0.684807 -2.126953,1.5742194 -0.136841,0.394033 -0.196237,0.836204 -0.164062,1.267578 0.02349,-0.264985 0.07998,-0.525455 0.164062,-0.767578 0.303734,-0.889412 1.213728,-1.4367024 2.126953,-1.5742194 0.340688,-0.05243 0.691321,-0.078831 1.044922,-0.082031 1.060804,-0.00974 2.155664,0.178109 3.150391,0.414062 0.0045,0.4526074 0.0022,0.9049734 0.002,1.3574224 5.36e-4,2.39e-4 0.0014,-2.38e-4 0.002,0 -0.0011,-0.619323 0.0022,-1.238098 -0.0039,-1.8574224 C 17.50332,8.1781086 16.40846,7.9902612 15.347656,7.9999996 Z m -1.269531,2.7539064 c -0.107488,0.346637 -0.0075,0.757632 0.367187,0.914063 1.187597,0.483784 2.59442,0.386778 3.677735,1.138672 0.546651,0.386402 0.810383,0.985364 0.865234,1.621093 0.06244,-0.809747 -0.176455,-1.634227 -0.865234,-2.121093 -1.083315,-0.751894 -2.490137,-0.654888 -3.677735,-1.138672 -0.196544,-0.08205 -0.310456,-0.237759 -0.367187,-0.414063 z M 12,14.533203 v 0.5 c 1.221008,0.611408 2.76182,1.13683 4.136719,0.75 0.487026,-0.11535 0.705701,-0.658225 0.576172,-1.085937 -0.07867,0.273032 -0.273192,0.514177 -0.576172,0.585937 C 14.76182,15.670032 13.221008,15.144611 12,14.533203 Z"/>
</svg>
