<svg xmlns="http://www.w3.org/2000/svg" width="22" height="22" version="1.1">
 <circle style="opacity:0.2" cx="11" cy="11.5" r="10"/>
 <circle style="fill:#b2bfd9" cx="11" cy="11" r="10"/>
 <path style="opacity:0.2;fill:#8b9cbe" d="M 11,1 A 10,10 0 0 0 1,11 10,10 0 0 0 1.01075,11.291 10,10 0 0 1 11,1.5 10,10 0 0 1 20.9895,11.209 10,10 0 0 0 21,11 10,10 0 0 0 11,1 Z"/>
 <path style="opacity:0.1" d="m 12.540001,18.46204 c -0.221184,-0.02716 -0.432458,-0.08404 -0.476657,-0.128222 -0.06675,-0.06676 -0.07753,-0.290406 -0.06769,-1.404492 0.009,-1.019611 -0.0039,-0.837897 -0.05602,-0.879446 -0.03724,-0.02974 -0.433364,-0.240711 -0.880252,-0.468968 -0.446885,-0.228213 -0.803147,-0.424317 -0.791678,-0.435781 0.01147,-0.01164 0.784596,0.354581 1.718082,0.813422 3.463221,1.702311 2.756772,1.610551 2.950359,1.536291 0.04635,-0.01767 0.08426,-0.05978 0.08426,-0.09327 0,-0.03362 -0.746502,-0.666268 -1.691348,-1.146485 -0.944846,-0.480175 -1.28844,-0.69909 -1.342655,-0.746112 -0.088,-0.07633 -0.09465,-0.13779 -0.062,-0.573184 0.02719,-0.3629 0.01422,-0.597319 -0.05081,-0.916042 -0.04805,-0.235627 -0.08007,-0.555599 -0.07116,-0.71106 l 0.0162,-0.282691 0.119857,0.227997 c 0.06592,0.125421 0.119851,0.28726 0.119851,0.359582 0,0.282906 0.431899,0.465046 0.469805,0.198129 0.02107,-0.148565 0.116456,-0.156797 0.153986,-0.01336 0.04099,0.156711 0.121964,0.129644 0.121964,-0.04094 0,-0.193475 -0.175257,-0.519999 -0.421291,-0.78489 -0.108848,-0.117188 -0.265977,-0.320964 -0.349177,-0.452806 -0.0832,-0.131799 -0.183583,-0.258857 -0.223084,-0.282303 -0.07959,-0.0472 -0.09932,-0.250367 -0.02431,-0.250367 0.09472,0 0.124295,-0.285622 0.03625,-0.350013 -0.04606,-0.03362 -0.08374,-0.132144 -0.08374,-0.218817 0,-0.08667 -0.03702,-0.282304 -0.08232,-0.434791 -0.04527,-0.152444 -0.06878,-0.299069 -0.05223,-0.325834 0.01655,-0.02672 0.0069,-0.152099 -0.02159,-0.278511 -0.03345,-0.148737 -0.03327,-0.423929 4.31e-4,-0.780364 0.06568,-0.6935612 -0.05016,-0.9541877 -0.284721,-1.3218722 -0.09301,-0.145634 -0.196255,-0.3434185 -0.22942,-0.439445 -0.05761,-0.166796 -0.05435,-0.17464 0.07272,-0.17464 0.157624,0 0.463016,-0.3081205 0.580084,-0.585209 0.04314,-0.1021465 0.131235,-0.242005 0.195751,-0.310792 0.09366,-0.099863 0.115908,-0.183476 0.110348,-0.4148355 -0.01483,-0.6172315 -0.598233,-1.044135 -1.108944,-0.811439 -0.113357,0.051633 -0.153362,0.045515 -0.245195,-0.037495 -0.09039,-0.081803 -0.127851,-0.08801 -0.212563,-0.03491 -0.05656,0.03534 -0.137497,0.064219 -0.179869,0.064219 -0.04237,0 -0.094,0.053444 -0.11474,0.118783 -0.02073,0.065339 -0.104935,0.181579 -0.187122,0.258383 -0.101521,0.094819 -0.140402,0.17408 -0.121287,0.247177 0.01875,0.071761 -0.02663,0.1700285 -0.136066,0.294673 -0.179838,0.2048535 -0.207741,0.3061375 -0.08432,0.3061375 0.154444,0 0.07752,0.093009 -0.148268,0.179209 C 9.199404,7.0474223 9.18491,7.0463448 9.18491,6.9142458 9.18491,6.8539928 9.15775,6.6968938 9.1246,6.5651808 9.07054,6.3504983 9.04981,6.3273103 8.9248398,6.3418348 l -0.139497,0.015945 v 0.529696 0.5296965 l -0.2263941,0.153004 c -0.1245154,0.08413 -0.2263904,0.173778 -0.2263904,0.199207 0,0.02543 -0.071705,0.161624 -0.1593395,0.302733 -0.115098,0.185372 -0.1689296,0.3527285 -0.19388,0.602836 -0.019005,0.190415 -0.069947,0.4163867 -0.113223,0.5021127 -0.04748,0.09404 -0.039155,0.228905 -0.055354,0.568876 -0.02405,0.504741 -0.040425,0.577838 -0.157758,0.70369 -0.115503,0.123911 -0.1244635,0.161537 -0.076118,0.319584 0.182592,0.596975 0.360857,1.015732 0.5508625,1.294071 0.375989,0.550858 0.78773,1.265624 0.757362,1.314757 -0.054879,0.08879 -0.129502,0.04758 -0.131394,-0.07254 -0.0013,-0.0659 -0.03099,-0.169253 -0.066585,-0.229593 -0.1212616,-0.205754 -0.384153,-0.502841 -0.444967,-0.502841 -0.03336,0 -0.076239,-0.08305 -0.09528,-0.184553 -0.06552,-0.349237 -0.1371219,-0.259374 -0.133971,0.168089 0.0043,0.58689 0.05128,0.788855 0.183372,0.788855 0.076619,0 0.1112665,0.04095 0.1233905,0.146496 0.01181,0.102492 -0.00728,0.146497 -0.063443,0.146497 -0.044155,0 -0.095113,-0.02414 -0.113219,-0.05327 -0.0181,-0.02931 -0.100185,-0.05327 -0.182398,-0.05327 -0.082209,0 -0.2066459,-0.04457 -0.2765109,-0.09904 -0.069873,-0.05448 -0.242626,-0.116117 -0.3839031,-0.137021 l -0.2568659,-0.03793 0.03728,0.256874 c 0.03827,0.263556 0.07692,0.370314 0.07692,0.212482 0,-0.09848 0.1852131,-0.123696 0.2413461,-0.03275 0.019005,0.0306 0.236165,0.149039 0.482562,0.262865 0.246393,0.11387 0.447992,0.232523 0.447992,0.263685 0,0.03103 -0.02043,0.05672 -0.045395,0.05672 -0.070127,0 -0.17386,0.707612 -0.1126845,0.768771 0.088824,0.08883 0.05678,0.346435 -0.054991,0.442117 -0.1400825,0.119946 -0.156422,0.60025 -0.02043,0.60025 0.063904,0 0.077312,0.03103 0.051987,0.11986 -0.01879,0.0659 -0.048115,-0.315969 -0.065202,-0.238002 -0.017585,0.08034 -0.077188,0.153823 -0.1374925,0.169597 -0.1119735,0.02931 -0.1088915,0.145721 0.00485,0.183649 0.03672,0.01207 0.080277,-0.02931 0.096776,-0.09249 0.042365,-0.161969 0.1986985,-0.116413 0.21952,0.064 0.020125,0.174467 0.031895,0.177183 0.1695845,0.03965 0.059189,-0.05922 0.1065385,-0.177571 0.1065385,-0.266356 0,-0.08788 0.023965,0.339803 0.053267,0.339803 0.054193,0 0.07183,-0.433248 0.057641,-0.282567 -0.01461,0.15503 0.153043,0.704121 0.2465259,0.807431 0.088553,0.09784 0.086855,0.106672 -0.038835,0.201491 -0.1170245,0.08823 -0.121257,0.103052 -0.038575,0.134773 0.051082,0.01939 0.092875,0.08822 0.092875,0.152444 0,0.17033 0.1008791,0.244678 0.3319331,0.244678 0.25281,0 0.30003,0.09538 0.195281,0.394406 C 9.36897,18.2715 9.35844,18.278956 9.154108,18.265681 8.793245,18.241971 8.4682685,18.136853 8.3360425,18.000571 8.2446015,17.906311 8.170936,17.877478 8.070656,17.896657 7.878569,17.933297 7.679646,17.817357 7.4738575,17.548627 7.1806153,17.165728 6.8210727,16.810974 6.6248652,16.710983 6.4171847,16.605173 5.7540385,16.518327 5.312589,16.468891 5.022907,16.436566 4.620105,16.232705 4.620105,16.11862 c 0,-0.03017 -0.085441,-0.0909 -0.189859,-0.134558 -0.280954,-0.117361 -0.6136369,0.125814 -0.7271489,-0.06085 -0.2220455,-0.365098 -0.270942,-0.625852 -0.228627,-1.219163 0.066775,-0.936256 0.053953,-1.028145 -0.226291,-1.621844 -0.251392,-0.532584 -0.252724,-0.538359 -0.2467545,-1.068185 0.00539,-0.480347 0.026935,-0.590208 0.219283,-1.118611 0.117309,-0.3223 0.2418885,-0.751962 0.276847,-0.954875 C 3.5811126,9.455575 3.6528646,9.295157 3.9286601,8.9767363 4.262657,8.5911658 4.411834,8.4287523 4.446805,7.9185373 4.4737,7.5261143 4.48857,7.4818508 4.628005,7.3787563 4.814166,7.2410953 4.820894,7.1799368 4.6499,7.1799368 c -0.221046,0 -0.1940095,-0.074304 0.1336265,-0.367339 0.1738085,-0.155418 0.316012,-0.3112665 0.316012,-0.34635 0,-0.077795 0.381954,-0.4582365 0.4600855,-0.4582365 0.03086,0 0.09947,-0.047925 0.1524955,-0.1065425 0.05303,-0.058573 0.1415955,-0.1064995 0.1968195,-0.1064995 0.117352,0 0.4491175,-0.035775 0.4996435,-0.1175355 0.019095,-0.03103 0.077929,-0.04267 0.130717,-0.02586 0.1343635,0.04267 0.427731,-0.214335 0.427731,-0.374666 0,-0.101414 0.085893,-0.282991 0.233143,-0.310618 0.100642,-0.018965 0.203577,-0.02155 0.228752,-0.00603 0.02517,0.015515 0.1494655,-0.0181 0.276209,-0.074907 C 8.032615,4.7387703 9.04021,4.5546048 9.241146,4.6046438 c 0.0877,0.02198 0.119851,0.00647 0.119851,-0.057538 0,-0.1309368 0.107586,-0.1478753 0.393187,-0.061934 0.177592,0.053487 0.298086,0.062063 0.388389,0.027584 0.194281,-0.073826 0.654901,-0.060336 0.953289,0.028015 0.144479,0.04267 0.48707,0.113913 0.76131,0.158133 0.274243,0.044265 0.53251,0.1085685 0.573924,0.142919 0.04142,0.03448 0.08963,0.048185 0.107142,0.0306 0.0175,-0.01767 0.142772,0.024135 0.278369,0.092707 0.135591,0.068529 0.40131,0.164124 0.590488,0.2124385 0.189169,0.04827 0.380933,0.1202055 0.426144,0.159771 0.08164,0.071503 0.50566,0.2974745 0.558164,0.2974745 0.01508,0 0.003,-0.06383 -0.02651,-0.141841 -0.02965,-0.078011 -0.03383,-0.161969 -0.0093,-0.186536 0.05611,-0.056116 0.50706,0.2230845 0.772235,0.4781055 0.168529,0.1620985 0.253181,0.199552 0.532683,0.2356695 0.571839,0.073917 0.281665,0.073313 0.345017,-0.03922 0.03301,-0.058572 0.06536,-0.1158525 0.07189,-0.1272735 0.0065,-0.011205 0.094,0.041805 0.19438,0.118481 0.189527,0.1445565 0.239652,0.1310235 0.316956,-0.085596 0.01853,-0.051935 0.07619,-0.1095165 0.128123,-0.1279635 0.05194,-0.018535 0.138539,-0.071503 0.192457,-0.117964 0.08978,-0.077278 0.103728,-0.076588 0.16568,0.00819 0.110241,0.150763 0.223718,0.108827 0.527632,-0.1950695 0.407827,-0.407853 0.673533,-0.526679 0.673533,-0.301224 0,0.066503 -0.104246,0.172916 -0.290644,0.2966125 -0.325614,0.216145 -0.614913,0.519697 -0.614913,0.6452035 0,0.045645 -0.04794,0.14391 -0.106538,0.2184295 -0.0586,0.074476 -0.106538,0.203603 -0.106538,0.286958 0,0.083355 -0.034,0.241919 -0.07561,0.352384 -0.09171,0.2435565 -0.138337,0.6725285 -0.08287,0.7623055 0.02952,0.04771 0.09223,0.02586 0.232609,-0.081243 0.22224,-0.1695115 0.252315,-0.10706 0.05904,0.1226615 -0.118167,0.1404195 -0.18342,0.382597 -0.103099,0.382597 0.04658,0 0.311581,-0.3251015 0.354409,-0.4347905 0.04657,-0.119257 0.112965,-0.1246445 0.202763,-0.01638 0.05606,0.067581 0.04675,0.103698 -0.05456,0.2115335 -0.149979,0.1596415 -0.09636,0.2472205 0.206922,0.338118 0.114512,0.03448 0.219516,0.092104 0.233342,0.12848 0.0772,0.202914 -0.234476,0.5020695 -0.463245,0.4446175 -0.144634,-0.036205 -0.227347,0.043705 -0.147996,0.143177 0.02819,0.03534 0.06805,0.3086377 0.08855,0.6073617 0.02051,0.298724 0.0723,0.670287 0.115076,0.825662 0.237527,0.862599 0.305246,1.239778 0.324723,2.566734 l 0.01927,1.312086 -0.139786,0.166106 c -0.07688,0.09137 -0.170765,0.16615 -0.208624,0.16615 -0.136036,0 -0.343932,0.361348 -0.432873,0.752349 -0.04903,0.215585 -0.124511,0.445953 -0.167735,0.511896 -0.04877,0.07448 -0.06538,0.172528 -0.04378,0.258599 0.02035,0.08098 0.0079,0.171063 -0.02995,0.216662 -0.03646,0.04392 -0.07148,0.277175 -0.08015,0.533791 -0.01051,0.311223 -0.04313,0.498147 -0.102789,0.589173 -0.08582,0.130981 -0.09506,0.132575 -0.521403,0.08905 -0.66962,-0.0684 -0.676998,-0.05504 -1.120348,0.151797 -0.310309,0.144772 -0.523438,-0.201325 -0.854841,0.116062 -0.604849,0.579218 -0.786066,0.666107 -1.421831,0.681709 -0.278321,0.0069 -0.18444,-0.0095 -0.402938,-0.03664 z M 8.5870248,17.726629 c 0.042365,-0.02672 0.071029,-0.143867 0.071029,-0.290062 0,-0.393199 -0.109448,-0.475864 -0.2418545,-0.182657 -0.114167,0.252867 -0.1512025,0.40475 -0.1135635,0.46565 0.04021,0.06508 0.1871305,0.06874 0.2843895,0.0069 z m -0.790144,-0.832257 c 0,-0.04396 -0.035945,-0.07991 -0.079902,-0.07991 -0.043945,0 -0.079903,0.03578 -0.079903,0.07991 0,0.04396 0.035945,0.07991 0.079903,0.07991 0.04395,0 0.079902,-0.03578 0.079902,-0.07991 z M 6.5594997,16.271796 c -0.03293,-0.09878 -0.147595,-0.115163 -0.147595,-0.02112 0,0.04637 0.03797,0.08435 0.084342,0.08435 0.04639,0 0.074851,-0.02845 0.063253,-0.06327 z m 0.7405271,-0.355999 c -0.01642,-0.06594 -0.04918,-0.198948 -0.072795,-0.295621 -0.02362,-0.09667 -0.066908,-0.180545 -0.096203,-0.186449 -0.075399,-0.01508 -0.095569,0.287432 -0.030555,0.458409 0.06849,0.180157 0.2437205,0.200931 0.199556,0.0237 z M 7.1407778,14.58742 c -0.01698,-0.04267 -0.02961,-0.02974 -0.032195,0.03233 -0.00215,0.05616 0.0103,0.08762 0.02797,0.06991 0.017715,-0.01767 0.01961,-0.06366 0.0043,-0.102103 z m 0.028705,-0.451772 -0.054077,-0.204077 -0.00552,0.263641 c -0.0039,0.194423 0.01013,0.248039 0.054077,0.20412 0.04241,-0.04267 0.04401,-0.118395 0.00552,-0.263684 z M 17.553346,8.3239333 c 0.05645,-0.04267 0.08754,-0.092794 0.06907,-0.1112405 -0.05945,-0.059477 -0.304888,0.031895 -0.304888,0.1133955 0,0.099474 0.102698,0.098569 0.23582,-0.0043 z M 9.909855,18.323732 c -0.05279,-0.0528 -0.04297,-0.364107 0.01642,-0.520343 0.04701,-0.12361 0.07962,-0.136626 0.342622,-0.136626 0.260034,0 0.302272,-0.01638 0.400828,-0.154728 0.06059,-0.08508 0.110163,-0.179554 0.110163,-0.209896 0,-0.123395 0.113874,-0.112361 0.239475,0.02328 0.09931,0.107189 0.133406,0.20244 0.133406,0.372727 0,0.125851 -0.02397,0.2436 -0.05327,0.261702 -0.02931,0.0181 -0.05327,0.006 -0.05327,-0.02672 0,-0.03276 -0.02397,-0.04474 -0.05327,-0.02672 -0.02931,0.0181 -0.05327,0.08943 -0.05327,0.158564 0,0.226963 -0.05537,0.294199 -0.242264,0.294199 -0.09768,0 -0.19241,-0.02414 -0.210517,-0.05327 -0.0181,-0.02931 -0.09002,-0.05327 -0.159805,-0.05327 -0.06979,0 -0.141699,0.02414 -0.159805,0.05327 -0.0372,0.06021 -0.203552,0.07167 -0.257461,0.01767 z M 9.874335,15.18336 c 0,-0.02931 0.02397,-0.05327 0.05327,-0.05327 0.02931,0 0.05327,0.02413 0.05327,0.05327 0,0.02931 -0.02396,0.05327 -0.05327,0.05327 -0.02931,0 -0.05327,-0.02414 -0.05327,-0.05327 z m 0.221636,-0.612878 c 0.01134,-0.09952 0.05281,-0.165202 0.111288,-0.176278 0.12839,-0.02457 0.117938,0.111068 -0.01806,0.234117 -0.11065,0.100164 -0.11118,0.09982 -0.09322,-0.05784 z M 8.9786108,11.816881 c -0.04642,-0.15253 -0.07192,-1.001509 -0.030085,-1.001509 0.02556,0 0.1621802,0.332773 0.2345182,0.571287 0.07245,0.238901 0.02495,0.547496 -0.09016,0.585855 -0.03341,0.0112 -0.08483,-0.05888 -0.1142662,-0.155634 z M 18.010009,8.8622063 c 0,-0.04642 0.03797,-0.084346 0.08434,-0.084346 0.09407,0 0.07768,0.114645 -0.02107,0.1475735 -0.03478,0.011635 -0.06326,-0.01681 -0.06326,-0.063227 z m 0.439463,-0.492501 c -0.127628,-0.051504 -0.07405,-0.3575555 0.09944,-0.5680115 0.144272,-0.1750285 0.191385,-0.1993365 0.35956,-0.185286 0.289454,0.024135 0.276459,0.1705025 -0.0452,0.508922 -0.266337,0.2801915 -0.29015,0.294242 -0.413803,0.2443755 z M 8.8653463,7.7305468 c -2.361e-4,-0.080725 0.3767827,-0.191535 0.4391437,-0.12917 0.03875,0.03879 0.0088,0.066202 -0.09851,0.090251 -0.0848,0.018965 -0.196143,0.0459 -0.2474103,0.05978 -0.051271,0.01379 -0.093146,0.00475 -0.09322,-0.02069 z M 17.712742,7.0679203 c 0.163495,-0.149427 0.297268,-0.3038105 0.297268,-0.3431175 0,-0.100767 0.105103,-0.1536935 0.172136,-0.086673 0.14538,0.1453755 -0.368111,0.7014915 -0.647733,0.7014915 -0.09976,0 -0.071,-0.04383 0.178329,-0.271701 z M 4.30061,6.8069078 c 0,-0.029305 0.04794,-0.053271 0.106534,-0.053271 0.058594,0 0.1065385,0.024135 0.1065385,0.053271 0,0.02931 -0.047945,0.053272 -0.1065385,0.053272 -0.058594,0 -0.106534,-0.024135 -0.106534,-0.053272 z m 5.737821,-0.382413 c 0.0017,-0.094388 0.197681,-0.338247 0.238807,-0.2971295 0.04458,0.044565 -0.120468,0.3637185 -0.188091,0.3637185 -0.02853,0 -0.05137,-0.03017 -0.05072,-0.066589 z m 8.414213,-0.02432 c -0.07517,-0.195888 0.217163,-0.3701405 0.385954,-0.230023 0.09837,0.081631 0.09698,0.12973 -0.0067,0.233471 -0.109482,0.1094735 -0.336682,0.107405 -0.379221,-0.0043 z M 13.285187,4.5873993 c -0.119162,-0.1191273 0.09641,-0.4331522 0.255483,-0.3721228 0.09727,0.037495 0.108551,0.2531245 0.01797,0.3437203 -0.06964,0.069649 -0.216904,0.08495 -0.273442,0.028445 z M 7.0528015,4.4275856 c -0.05593,-0.0559 -0.04146,-0.2208431 0.022885,-0.260624 C 7.1607525,4.1144236 7.293487,4.2689786 7.253275,4.373754 7.218365,4.464695 7.11711,4.4918906 7.052818,4.427586 Z"/>
 <path style="fill:#9e2323" d="m 12.540001,17.962431 c -0.221184,-0.02716 -0.432458,-0.08404 -0.476657,-0.128222 -0.06675,-0.06676 -0.07753,-0.290406 -0.06769,-1.404492 0.009,-1.019611 -0.0039,-0.837897 -0.05602,-0.879446 -0.03724,-0.02974 -0.433364,-0.240711 -0.880252,-0.468968 -0.446885,-0.228213 -0.803147,-0.424317 -0.791678,-0.435781 0.01147,-0.01164 0.784596,0.354581 1.718082,0.813422 3.463221,1.702311 2.756772,1.610551 2.950359,1.536291 0.04635,-0.01767 0.08426,-0.05978 0.08426,-0.09327 0,-0.03362 -0.746502,-0.666268 -1.691348,-1.146485 -0.944846,-0.480175 -1.28844,-0.69909 -1.342655,-0.746112 -0.088,-0.07633 -0.09465,-0.13779 -0.062,-0.573184 0.02719,-0.3629 0.01422,-0.597319 -0.05081,-0.916042 -0.04805,-0.235627 -0.08007,-0.555599 -0.07116,-0.71106 l 0.0162,-0.282691 0.119857,0.227997 c 0.06592,0.125421 0.119851,0.28726 0.119851,0.359582 0,0.282906 0.431899,0.465046 0.469805,0.198129 0.02107,-0.148565 0.116456,-0.156797 0.153986,-0.01336 0.04099,0.156711 0.121964,0.129644 0.121964,-0.04094 0,-0.193475 -0.175257,-0.519999 -0.421291,-0.78489 -0.108848,-0.117188 -0.265977,-0.320964 -0.349177,-0.452806 -0.0832,-0.131799 -0.183583,-0.258857 -0.223084,-0.282303 -0.07959,-0.0472 -0.09932,-0.250367 -0.02431,-0.250367 0.09472,0 0.124295,-0.285622 0.03625,-0.350013 -0.04606,-0.03362 -0.08374,-0.132144 -0.08374,-0.218817 0,-0.08667 -0.03702,-0.282304 -0.08232,-0.434791 -0.04527,-0.152444 -0.06878,-0.299069 -0.05223,-0.325834 0.01655,-0.02672 0.0069,-0.152099 -0.02159,-0.278511 -0.03345,-0.148737 -0.03327,-0.423929 4.31e-4,-0.780364 0.06568,-0.6935615 -0.05016,-0.954188 -0.284721,-1.3218725 -0.09301,-0.145634 -0.196255,-0.3434185 -0.22942,-0.439445 -0.05761,-0.166796 -0.05435,-0.17464 0.07272,-0.17464 0.157624,0 0.463016,-0.3081205 0.580084,-0.585209 0.04314,-0.1021465 0.131235,-0.242005 0.195751,-0.310792 0.09366,-0.099863 0.115908,-0.183476 0.110348,-0.4148355 C 12.012966,5.2350775 11.429563,4.808174 10.918852,5.04087 10.805495,5.092503 10.76549,5.086385 10.673657,5.003375 c -0.09039,-0.081803 -0.127851,-0.08801 -0.212563,-0.03491 -0.05656,0.03534 -0.137497,0.064219 -0.179869,0.064219 -0.04237,0 -0.094,0.053444 -0.11474,0.118783 C 10.145755,5.216806 10.06155,5.333046 9.979363,5.40985 9.877842,5.504669 9.838961,5.58393 9.858076,5.657027 9.876826,5.728788 9.831446,5.8270555 9.72201,5.9517 9.542172,6.1565535 9.514269,6.2578375 9.63769,6.2578375 c 0.154444,0 0.07752,0.093009 -0.148268,0.179209 C 9.199404,6.547813 9.18491,6.5467355 9.18491,6.4146365 9.18491,6.3543835 9.15775,6.1972845 9.1246,6.0655715 9.070538,5.850889 9.049812,5.827701 8.9248398,5.8422255 l -0.139497,0.015945 V 6.3878665 6.917563 L 8.5589487,7.070567 c -0.1245154,0.08413 -0.2263904,0.173778 -0.2263904,0.199207 0,0.02543 -0.071705,0.161624 -0.1593395,0.302733 -0.115098,0.185372 -0.1689296,0.3527285 -0.19388,0.602836 -0.019005,0.190415 -0.069947,0.416387 -0.113223,0.5021125 -0.04748,0.094043 -0.039155,0.228905 -0.055354,0.5688765 -0.02405,0.504741 -0.040425,0.577838 -0.157758,0.70369 -0.115503,0.123911 -0.1244635,0.161537 -0.076118,0.319584 0.182592,0.596975 0.360857,1.015732 0.5508625,1.294071 0.375989,0.550858 0.78773,1.265624 0.757362,1.314757 -0.054879,0.08879 -0.129502,0.04758 -0.131394,-0.07254 -0.0013,-0.0659 -0.03099,-0.169253 -0.066585,-0.229593 -0.1212616,-0.205754 -0.384153,-0.502841 -0.444967,-0.502841 -0.03336,0 -0.076239,-0.08305 -0.09528,-0.184553 -0.06552,-0.349237 -0.1371219,-0.259374 -0.133971,0.168089 0.0043,0.58689 0.05128,0.788855 0.183372,0.788855 0.076619,0 0.1112665,0.04095 0.1233905,0.146496 0.01181,0.102492 -0.00728,0.146497 -0.063443,0.146497 -0.044155,0 -0.095113,-0.02414 -0.113219,-0.05327 -0.0181,-0.02931 -0.100185,-0.05327 -0.182398,-0.05327 -0.082209,0 -0.2066459,-0.04457 -0.2765109,-0.09904 -0.069873,-0.05448 -0.242626,-0.116117 -0.3839031,-0.137021 l -0.2568659,-0.03793 0.03728,0.256874 c 0.03827,0.263556 0.07692,0.370314 0.07692,0.212482 0,-0.09848 0.1852131,-0.123696 0.2413461,-0.03275 0.019005,0.0306 0.236165,0.149039 0.482562,0.262865 0.246393,0.11387 0.447992,0.232523 0.447992,0.263685 0,0.03103 -0.02043,0.05672 -0.045395,0.05672 -0.070127,0 -0.17386,0.707612 -0.1126845,0.768771 0.088824,0.08883 0.05678,0.346435 -0.054991,0.442117 -0.1400825,0.119946 -0.156422,0.60025 -0.02043,0.60025 0.063904,0 0.077312,0.03103 0.051987,0.11986 -0.01879,0.0659 -0.048115,-0.315969 -0.065202,-0.238002 -0.017585,0.08034 -0.077188,0.153823 -0.1374925,0.169597 -0.1119735,0.02931 -0.1088915,0.145721 0.00485,0.183649 0.03672,0.01207 0.080277,-0.02931 0.096776,-0.09249 0.042365,-0.161969 0.1986985,-0.116413 0.21952,0.064 0.020125,0.174467 0.031895,0.177183 0.1695845,0.03965 0.059189,-0.05922 0.1065385,-0.177571 0.1065385,-0.266356 0,-0.08788 0.023965,0.339803 0.053267,0.339803 0.054193,0 0.07183,-0.433248 0.057641,-0.282567 -0.01461,0.15503 0.153043,0.704121 0.2465259,0.807431 0.088553,0.09784 0.086855,0.106672 -0.038835,0.201491 -0.1170245,0.08823 -0.121257,0.103052 -0.038575,0.134773 0.051082,0.01939 0.092875,0.08822 0.092875,0.152444 0,0.17033 0.1008791,0.244678 0.3319331,0.244678 0.25281,0 0.30003,0.09538 0.195281,0.394406 C 9.36897,17.771891 9.35844,17.779347 9.154108,17.766072 8.793245,17.742362 8.4682685,17.637244 8.3360425,17.500962 8.2446015,17.406702 8.170936,17.377869 8.070656,17.397048 7.878569,17.433688 7.679646,17.317748 7.4738575,17.049018 7.1806153,16.666119 6.8210727,16.311365 6.6248652,16.211374 6.4171847,16.105564 5.7540385,16.018718 5.312589,15.969282 5.022907,15.936957 4.620105,15.733096 4.620105,15.619011 c 0,-0.03017 -0.085441,-0.0909 -0.189859,-0.134558 C 4.149292,15.367092 3.8166091,15.610267 3.7030971,15.423603 3.4810516,15.058505 3.4321551,14.797751 3.4744701,14.20444 3.5412451,13.268184 3.5284231,13.176295 3.2481791,12.582596 2.9967871,12.050012 2.9954551,12.044237 3.0014246,11.514411 3.0068146,11.034064 3.0283596,10.924203 3.2207076,10.3958 3.3380166,10.0735 3.4625961,9.643838 3.4975546,9.440925 3.5811121,8.9559655 3.6528646,8.795548 3.9286601,8.477127 4.262657,8.0915565 4.411834,7.929143 4.446805,7.418928 4.4737,7.026505 4.48857,6.9822415 4.628005,6.879147 4.814166,6.741486 4.820894,6.6803275 4.6499,6.6803275 c -0.221046,0 -0.1940095,-0.074304 0.1336265,-0.367339 0.1738085,-0.155418 0.316012,-0.3112665 0.316012,-0.34635 0,-0.077795 0.381954,-0.4582365 0.4600855,-0.4582365 0.03086,0 0.09947,-0.047925 0.1524955,-0.1065425 C 5.7651495,5.343287 5.853715,5.29536 5.908939,5.29536 c 0.117352,0 0.4491175,-0.035775 0.4996435,-0.1175355 0.019095,-0.03103 0.077929,-0.04267 0.130717,-0.02586 0.1343635,0.04267 0.427731,-0.214335 0.427731,-0.374666 0,-0.101414 0.085893,-0.282991 0.233143,-0.310618 0.100642,-0.018965 0.203577,-0.02155 0.228752,-0.00603 0.02517,0.015515 0.1494655,-0.0181 0.276209,-0.074907 C 8.032615,4.239161 9.04021,4.0549955 9.241146,4.1050345 c 0.0877,0.02198 0.119851,0.00647 0.119851,-0.057538 0,-0.1309368 0.107586,-0.1478753 0.393187,-0.061934 0.177592,0.053487 0.298086,0.062063 0.388389,0.027584 0.194281,-0.073826 0.654901,-0.060336 0.953289,0.028015 0.144479,0.04267 0.48707,0.113913 0.76131,0.158133 0.274243,0.044265 0.53251,0.1085685 0.573924,0.142919 0.04142,0.03448 0.08963,0.048185 0.107142,0.0306 0.0175,-0.01767 0.142772,0.024135 0.278369,0.092707 0.135591,0.068529 0.40131,0.164124 0.590488,0.2124385 0.189169,0.04827 0.380933,0.1202055 0.426144,0.159771 0.08164,0.071503 0.50566,0.2974745 0.558164,0.2974745 0.01508,0 0.003,-0.06383 -0.02651,-0.141841 -0.02965,-0.078011 -0.03383,-0.161969 -0.0093,-0.186536 0.05611,-0.056116 0.50706,0.2230845 0.772235,0.4781055 0.168529,0.1620985 0.253181,0.199552 0.532683,0.2356695 0.571839,0.073917 0.281665,0.073313 0.345017,-0.03922 0.03301,-0.058572 0.06536,-0.1158525 0.07189,-0.1272735 0.0065,-0.011205 0.094,0.041805 0.19438,0.118481 0.189527,0.1445565 0.239652,0.1310235 0.316956,-0.085596 0.01853,-0.051935 0.07619,-0.1095165 0.128123,-0.1279635 0.05194,-0.018535 0.138539,-0.071503 0.192457,-0.117964 0.08978,-0.077278 0.103728,-0.076588 0.16568,0.00819 0.110241,0.150763 0.223718,0.108827 0.527632,-0.1950695 0.407827,-0.407853 0.673533,-0.526679 0.673533,-0.301224 0,0.066503 -0.104246,0.172916 -0.290644,0.2966125 -0.325614,0.216145 -0.614913,0.519697 -0.614913,0.6452035 0,0.045645 -0.04794,0.14391 -0.106538,0.2184295 -0.0586,0.074476 -0.106538,0.203603 -0.106538,0.286958 0,0.083355 -0.034,0.241919 -0.07561,0.352384 -0.09171,0.2435565 -0.138337,0.6725285 -0.08287,0.7623055 0.02952,0.04771 0.09223,0.02586 0.232609,-0.081243 0.22224,-0.1695115 0.252315,-0.10706 0.05904,0.1226615 -0.118167,0.1404195 -0.18342,0.382597 -0.103099,0.382597 0.04658,0 0.311581,-0.3251015 0.354409,-0.4347905 0.04657,-0.119257 0.112965,-0.1246445 0.202763,-0.01638 0.05606,0.067581 0.04675,0.103698 -0.05456,0.2115335 -0.149979,0.1596415 -0.09636,0.2472205 0.206922,0.338118 0.114512,0.03448 0.219516,0.092104 0.233342,0.12848 0.0772,0.202914 -0.234476,0.5020695 -0.463245,0.4446175 -0.144634,-0.036205 -0.227347,0.043705 -0.147996,0.143177 0.02819,0.03534 0.06805,0.3086375 0.08855,0.607362 0.02051,0.298724 0.0723,0.670287 0.115076,0.825662 0.237527,0.862599 0.305246,1.239778 0.324723,2.566734 l 0.01927,1.312086 -0.139786,0.166106 c -0.07688,0.09137 -0.170765,0.16615 -0.208624,0.16615 -0.136036,0 -0.343932,0.361348 -0.432873,0.752349 -0.04903,0.215585 -0.124511,0.445953 -0.167735,0.511896 -0.04877,0.07448 -0.06538,0.172528 -0.04378,0.258599 0.02035,0.08098 0.0079,0.171063 -0.02995,0.216662 -0.03646,0.04392 -0.07148,0.277175 -0.08015,0.533791 -0.01051,0.311223 -0.04313,0.498147 -0.102789,0.589173 -0.08582,0.130981 -0.09506,0.132575 -0.521403,0.08905 -0.66962,-0.0684 -0.676998,-0.05504 -1.120348,0.151797 -0.310309,0.144772 -0.523438,-0.201325 -0.854841,0.116062 -0.604849,0.579218 -0.786066,0.666107 -1.421831,0.681709 -0.278321,0.0069 -0.18444,-0.0095 -0.402938,-0.03664 z M 8.5870248,17.22702 c 0.042365,-0.02672 0.071029,-0.143867 0.071029,-0.290062 0,-0.393199 -0.109448,-0.475864 -0.2418545,-0.182657 -0.114167,0.252867 -0.1512025,0.40475 -0.1135635,0.46565 0.04021,0.06508 0.1871305,0.06874 0.2843895,0.0069 z m -0.790144,-0.832257 c 0,-0.04396 -0.035945,-0.07991 -0.079902,-0.07991 -0.043945,0 -0.079903,0.03578 -0.079903,0.07991 0,0.04396 0.035945,0.07991 0.079903,0.07991 0.04395,0 0.079902,-0.03578 0.079902,-0.07991 z M 6.5594997,15.772187 c -0.03293,-0.09878 -0.147595,-0.115163 -0.147595,-0.02112 0,0.04637 0.03797,0.08435 0.084342,0.08435 0.04639,0 0.074851,-0.02845 0.063253,-0.06327 z m 0.7405271,-0.355999 c -0.01642,-0.06594 -0.04918,-0.198948 -0.072795,-0.295621 -0.02362,-0.09667 -0.066908,-0.180545 -0.096203,-0.186449 -0.075399,-0.01508 -0.095569,0.287432 -0.030555,0.458409 0.06849,0.180157 0.2437205,0.200931 0.199556,0.0237 z m -0.159249,-1.328377 c -0.01698,-0.04267 -0.02961,-0.02974 -0.032195,0.03233 -0.00215,0.05616 0.0103,0.08762 0.02797,0.06991 0.017715,-0.01767 0.01961,-0.06366 0.0043,-0.102103 z m 0.028705,-0.451772 -0.054077,-0.204077 -0.00552,0.263641 c -0.0039,0.194423 0.01013,0.248039 0.054077,0.20412 0.04241,-0.04267 0.04401,-0.118395 0.00552,-0.263684 z M 17.553346,7.824324 c 0.05645,-0.04267 0.08754,-0.092794 0.06907,-0.1112405 -0.05945,-0.059477 -0.304888,0.031895 -0.304888,0.1133955 0,0.099474 0.102698,0.098569 0.23582,-0.0043 z m -7.643491,9.999799 c -0.05279,-0.0528 -0.04297,-0.364107 0.01642,-0.520343 0.04701,-0.12361 0.07962,-0.136626 0.342622,-0.136626 0.260034,0 0.302272,-0.01638 0.400828,-0.154728 0.06059,-0.08508 0.110163,-0.179554 0.110163,-0.209896 0,-0.123395 0.113874,-0.112361 0.239475,0.02328 0.09931,0.107189 0.133406,0.20244 0.133406,0.372727 0,0.125851 -0.02397,0.2436 -0.05327,0.261702 -0.02931,0.0181 -0.05327,0.006 -0.05327,-0.02672 0,-0.03276 -0.02397,-0.04474 -0.05327,-0.02672 -0.02931,0.0181 -0.05327,0.08943 -0.05327,0.158564 0,0.226963 -0.05537,0.294199 -0.242264,0.294199 -0.09768,0 -0.19241,-0.02414 -0.210517,-0.05327 -0.0181,-0.02931 -0.09002,-0.05327 -0.159805,-0.05327 -0.06979,0 -0.141699,0.02414 -0.159805,0.05327 -0.0372,0.06021 -0.203552,0.07167 -0.257461,0.01767 z m -0.03552,-3.140372 c 0,-0.02931 0.02397,-0.05327 0.05327,-0.05327 0.02931,0 0.05327,0.02413 0.05327,0.05327 0,0.02931 -0.02396,0.05327 -0.05327,0.05327 -0.02931,0 -0.05327,-0.02414 -0.05327,-0.05327 z m 0.221636,-0.612878 c 0.01134,-0.09952 0.05281,-0.165202 0.111288,-0.176278 0.12839,-0.02457 0.117938,0.111068 -0.01806,0.234117 -0.11065,0.100164 -0.11118,0.09982 -0.09322,-0.05784 z M 8.9786108,11.317272 c -0.04642,-0.15253 -0.07192,-1.001509 -0.030085,-1.001509 0.02556,0 0.1621802,0.332773 0.2345182,0.571287 0.07245,0.238901 0.02495,0.547496 -0.09016,0.585855 -0.03341,0.0112 -0.08483,-0.05888 -0.1142662,-0.155634 z M 18.010009,8.362597 c 0,-0.04642 0.03797,-0.084346 0.08434,-0.084346 0.09407,0 0.07768,0.114645 -0.02107,0.1475735 -0.03478,0.011635 -0.06326,-0.01681 -0.06326,-0.063227 z m 0.439463,-0.492501 c -0.127628,-0.051504 -0.07405,-0.3575555 0.09944,-0.5680115 0.144272,-0.1750285 0.191385,-0.1993365 0.35956,-0.185286 0.289454,0.024135 0.276459,0.1705025 -0.0452,0.508922 -0.266337,0.2801915 -0.29015,0.294242 -0.413803,0.2443755 z M 8.8653463,7.2309375 c -2.361e-4,-0.080725 0.3767827,-0.191535 0.4391437,-0.12917 0.03875,0.03879 0.0088,0.066202 -0.09851,0.090251 -0.0848,0.018965 -0.196143,0.0459 -0.2474103,0.05978 -0.051271,0.01379 -0.093146,0.00475 -0.09322,-0.02069 z M 17.712742,6.568311 c 0.163495,-0.149427 0.297268,-0.3038105 0.297268,-0.3431175 0,-0.100767 0.105103,-0.1536935 0.172136,-0.086673 0.14538,0.1453755 -0.368111,0.7014915 -0.647733,0.7014915 -0.09976,0 -0.071,-0.04383 0.178329,-0.271701 z M 4.30061,6.3072985 c 0,-0.029305 0.04794,-0.053271 0.106534,-0.053271 0.058594,0 0.1065385,0.024135 0.1065385,0.053271 0,0.02931 -0.047945,0.053272 -0.1065385,0.053272 -0.058594,0 -0.106534,-0.024135 -0.106534,-0.053272 z m 5.737821,-0.382413 c 0.0017,-0.094388 0.197681,-0.338247 0.238807,-0.2971295 0.04458,0.044565 -0.120468,0.3637185 -0.188091,0.3637185 -0.02853,0 -0.05137,-0.03017 -0.05072,-0.066589 z m 8.414213,-0.02432 c -0.07517,-0.195888 0.217163,-0.3701405 0.385954,-0.230023 0.09837,0.081631 0.09698,0.12973 -0.0067,0.233471 -0.109482,0.1094735 -0.336682,0.107405 -0.379221,-0.0043 z M 13.285187,4.08779 c -0.119162,-0.1191273 0.09641,-0.4331522 0.255483,-0.3721228 0.09727,0.037495 0.108551,0.2531245 0.01797,0.3437203 -0.06964,0.069649 -0.216904,0.08495 -0.273442,0.028445 z M 7.0528015,3.9279763 c -0.05593,-0.0559 -0.04146,-0.2208431 0.022885,-0.260624 0.085066,-0.052538 0.2178005,0.102017 0.1775885,0.2067924 -0.03491,0.090941 -0.136165,0.1181366 -0.200457,0.053832 z"/>
</svg>
