<svg xmlns="http://www.w3.org/2000/svg" width="22" height="22" version="1">
 <path style="opacity:0.2" d="m 11,1.5 a 10,10 0 0 0 -9.9999997,10 10,10 0 0 0 0.7792969,3.846679 l -0.6816406,2.543946 a 2.8681372,2.8679292 0 0 0 3.5117187,3.511719 L 7.1416018,20.723633 A 10,10 0 0 0 11,21.5 10,10 0 0 0 21,11.5 10,10 0 0 0 11,1.5 Z"/>
 <circle style="fill:#3a76f0" cx="11" cy="11" r="10"/>
 <path style="fill:#3a76f0" d="M 6.5755013,5.000295 A 2.8681372,2.8679292 0 0 0 3.8476828,7.1258225 L 1.0974592,17.390806 a 2.8681372,2.8679292 0 0 0 3.5119966,3.511743 L 14.875184,18.152525 a 2.8681372,2.8679292 0 0 0 1.285491,-4.79714 L 8.6451708,5.8404245 A 2.8681372,2.8679292 0 0 0 6.5755013,5.000295 Z"/>
 <path style="opacity:0.2" d="m 11,4.5 a 7,7 0 0 0 -6.9999997,7 7,7 0 0 0 0.9404295,3.488281 L 4.0000003,18.5 7.5078128,17.560547 A 7,7 0 0 0 11,18.5 a 7,7 0 0 0 7,-7 7,7 0 0 0 -7,-7 z"/>
 <circle style="fill:#8b9cbe" cx="11" cy="11" r="7"/>
 <path style="fill:#8b9cbe" d="m 5.6076974,11.999993 4.3923046,4.392304 -5.9999998,1.607695 z"/>
 <path style="opacity:0.5;fill:#8b9cbe" d="m 10.108399,2.0449219 -0.05078,0.00489 -0.8417957,0.1298828 -0.04883,0.00977 -0.2724615,0.070312 0.2509775,0.9677734 0.241211,-0.0625 0.8007817,-0.1230489 0.837891,-0.042969 -0.05078,-0.998047 z m 1.750976,0.5458984 -0.06934,0.4472656 0.823242,0.1269531 0.766602,0.1992188 0.253906,0.09375 L 13.978516,2.5195313 13.69336,2.4140625 13.646485,2.399414 12.833008,2.1894531 12.784178,2.1796876 11.942382,2.0498047 11.8916,2.0449198 H 11.8867 Z M 7.5263673,2.7011719 7.4814473,2.7207029 6.7382828,3.0791013 6.6962928,3.1025388 6.0253943,3.510742 6.5459023,4.3652345 7.1953128,3.96875 7.9023443,3.6279297 8.2373048,3.5048828 7.8925783,2.5664063 Z m 6.9824217,1.125 0.295899,0.1425781 0.666015,0.40625 0.628906,0.4716795 0.243164,-0.325195 0.399414,-0.4384765 -0.0068,-0.00586 L 16.699217,4.046873 16.043944,3.555662 16.004879,3.529295 15.303707,3.1025372 15.261717,3.0790997 14.944334,2.9257794 Z M 4.6601563,4.6259765 4.6259763,4.6601565 4.0771483,5.264649 4.0468733,5.300779 3.7392561,5.7109355 4.5390608,6.310545 4.8339828,5.91699 5.3505843,5.350584 5.8281233,4.915037 5.1562483,4.175779 Z M 16.762695,5.4746095 17.166015,5.916992 17.625,6.529297 17.90625,6.991211 18.760742,6.470703 18.470703,5.995117 18.444338,5.956052 17.953127,5.3007785 17.922852,5.2646485 17.50293,4.801758 Z M 3.1025393,6.696289 l -0.023437,0.04199 -0.3583984,0.7431645 -0.019531,0.04492 -0.2871094,0.7802735 -0.014649,0.046875 -0.054687,0.211914 0.96875,0.25 L 3.3642581,8.6191405 3.62793,7.902344 3.9687503,7.1953125 4.0214848,7.109375 3.167969,6.588867 Z m 15.2382807,1.140625 0.03027,0.064453 0.264648,0.7177735 0.199219,0.7675785 0.03418,0.21875 0.988282,-0.151367 -0.03711,-0.238281 -0.0098,-0.04883 -0.209961,-0.813477 -0.01465,-0.046875 -0.28711,-0.7802735 -0.01953,-0.04492 -0.03809,-0.080078 z m -16.291015,2.220703 -0.00488,0.05078 -0.043945,0.866211 -9.765e-4,0.04297 0.016602,0.46875 0.00195,0.03223 0.019532,0.189454 0.9951151,-0.09961 -0.018554,-0.176761 -0.014648,-0.43457 L 3.0419925,10.1875 3.1103518,9.742188 2.1220706,9.589844 Z M 18.976562,10.547852 19,11 l -0.04199,0.8125 -0.0957,0.625 0.988281,0.151367 0.09961,-0.646484 0.0049,-0.05078 0.04395,-0.866211 v -0.05078 l -0.02442,-0.477539 z m -16.770507,2.205078 0.041992,0.19043 0.010742,0.03906 0.2714844,0.881836 0.016602,0.0459 0.3388672,0.813477 L 3.8095711,14.338862 3.479493,13.54687 3.2207039,12.710933 3.1816409,12.536128 Z m 16.436523,0.607422 h -0.001 l -0.0049,0.01758 -0.264649,0.719726 -0.34082,0.707032 -0.147461,0.241211 0.854492,0.520507 0.15918,-0.262695 0.02343,-0.04199 0.358398,-0.743164 0.01953,-0.04492 0.28711,-0.780274 0.01465,-0.04687 0.0088,-0.03613 -0.841797,-0.217773 -0.120117,-0.04395 z M 2.1171878,17.296875 3.0830081,17.55664 3.6015628,15.624023 2.6357425,15.365234 Z m 15.0478512,-1.212891 -0.515625,0.56543 -0.566406,0.516601 -0.01074,0.0078 10e-4,10e-4 -0.0098,0.0088 0.0918,0.101562 0.516601,0.689453 0.02735,-0.02149 0.03614,-0.03027 0.604492,-0.548828 0.03418,-0.03418 0.548828,-0.604492 0.03027,-0.03613 0.199219,-0.265625 -0.800782,-0.59961 z m -2.360351,1.947266 -0.707032,0.34082 -0.504882,0.185547 0.344726,0.938477 0.536133,-0.197266 0.04492,-0.01953 0.743164,-0.358399 0.04199,-0.02343 0.515625,-0.314453 L 15.299801,17.7295 Z M 2.5585941,18.410156 2.0664066,18.516601 v 10e-4 l 0.030273,0.09277 0.1513673,0.350586 0.064453,0.108398 0.2324219,0.298828 0.086914,0.08692 0.2988281,0.232421 0.1083984,0.06445 0.350586,0.151367 0.092773,0.03027 0.1904297,0.04101 0.066406,0.0098 0.1972656,0.0156 0.06836,0.001 0.085937,-0.0049 -0.057618,-0.998047 -0.045899,0.003 L 3.8505862,18.990234 3.7402347,18.96582 3.4941409,18.859375 3.2958987,18.704101 3.1406253,18.505859 3.0136722,18.21289 Z m 2.3466797,0.382813 0.258789,0.96582 1.9316405,-0.517578 -0.258789,-0.965821 z m 2.8125,0.506835 0.3710935,0.154297 0.04492,0.0166 0.883789,0.271485 0.03907,0.01074 0.451172,0.09961 0.02832,0.0059 0.208984,0.0332 0.15918,-0.987304 -0.180664,-0.02832 -0.0059,-10e-4 -0.430664,-0.0957 -0.839809,-0.258828 -0.3447265,-0.143555 z M 12.612305,18.834961 11.8125,18.958008 11.000977,19 l -0.165039,-0.0059 -0.03418,0.999024 0.178711,0.0068 0.04297,-0.001 0.868164,-0.04394 0.05078,-0.0049 0.841797,-0.129883 0.04883,-0.0098 0.09668,-0.02539 -0.25,-0.967773 z"/>
 <path style="opacity:0.2;fill:#8b9cbe" d="M 11,1 A 10,10 0 0 0 1.0000003,11 10,10 0 0 0 1.0107425,11.202149 10,10 0 0 1 11,1.5 10,10 0 0 1 20.989258,11.291016 10,10 0 0 0 21,11 10,10 0 0 0 11,1 Z m -9.2978512,14.134765 -0.6044922,2.25586 a 2.8681372,2.8679292 0 0 0 -0.083008,0.989258 2.8681372,2.8679292 0 0 1 0.083008,-0.489258 l 0.6816406,-2.543946 a 10,10 0 0 1 -0.077148,-0.211914 z"/>
</svg>
