<svg xmlns="http://www.w3.org/2000/svg" width="22" height="22" version="1">
 <path style="opacity:0.2" d="m 11,16.5 c 0,-1.301085 0,-5 0,-5 0,0 -3.539661,0 -5,0 -2.7614235,0 -5,2.238577 -5,5 0,2.761423 2.2385765,5 5,5 2.7614235,0 5,-2.238577 5,-5 z"/>
 <path style="opacity:0.2" d="m 11,6.5 c 0,1.3010845 0,5 0,5 0,0 -3.539661,0 -5,0 -2.7614237,0 -5,-2.238577 -5,-5 0,-2.7614237 2.2385763,-5 5,-5 2.7614235,0 5,2.2385763 5,5 z"/>
 <path style="opacity:0.2" d="m 11,6.5 c 0,1.3010845 0,5 0,5 0,0 3.539661,0 5,0 2.761423,0 5,-2.238577 5,-5 0,-2.7614237 -2.238577,-5 -5,-5 -2.761423,0 -5,2.2385763 -5,5 z"/>
 <path style="opacity:0.2" d="m 11,16.5 c 0,-1.301085 0,-5 0,-5 0,0 3.539661,0 5,0 2.761423,0 5,2.238577 5,5 0,2.761423 -2.238577,5 -5,5 -2.761423,0 -5,-2.238577 -5,-5 z"/>
 <path style="fill:#d32f2f" d="m 11,6 c 0,1.3010845 0,5 0,5 0,0 -3.539661,0 -5,0 C 3.2385763,11 1,8.7614235 1,6 1,3.2385763 3.2385763,1 6,1 c 2.7614235,0 5,2.2385763 5,5 z"/>
 <path style="fill:#92dc39" d="m 11,6 c 0,1.3010845 0,5 0,5 0,0 3.539661,0 5,0 2.761423,0 5,-2.2385765 5,-5 0,-2.7614237 -2.238577,-5 -5,-5 -2.761423,0 -5,2.2385763 -5,5 z"/>
 <path style="fill:#fdd835" d="m 11,16 c 0,-1.301084 0,-5 0,-5 0,0 3.539661,0 5,0 2.761423,0 5,2.238577 5,5 0,2.761423 -2.238577,5 -5,5 -2.761423,0 -5,-2.238577 -5,-5 z"/>
 <path style="fill:#2f58d3" d="m 11,16 c 0,-1.301084 0,-5 0,-5 0,0 -3.539661,0 -5,0 -2.7614235,0 -5,2.238577 -5,5 0,2.761423 2.2385765,5 5,5 2.7614235,0 5,-2.238577 5,-5 z"/>
 <circle style="opacity:0.2" cx="11" cy="11.5" r="4"/>
 <circle style="fill:#8b9cbe" cx="11" cy="11" r="4"/>
 <path style="opacity:0.1;fill:#8b9cbe" d="M 6,1 C 3.2385763,1 1,3.2385763 1,6 1,6.084484 1.0085535,6.166544 1.0126955,6.25 1.1439234,3.6056306 3.3230602,1.5 6,1.5 c 2.7614235,0 5,2.2385763 5,5 V 6 C 11,3.2385763 8.7614235,1 6,1 Z"/>
 <path style="opacity:0.2;fill:#8b9cbe" d="m 16,1 c -2.761423,0 -5,2.2385763 -5,5 v 0.5 c 0,-2.7614237 2.238577,-5 5,-5 2.676939,0 4.856076,2.1056306 4.987304,4.75 C 20.991446,6.166544 21,6.084484 21,6 21,3.2385763 18.761423,1 16,1 Z"/>
 <path style="opacity:0.2;fill:#8b9cbe" d="m 11,11 v 0.5 h 5 c 2.676939,0 4.856076,2.105631 4.987304,4.75 C 20.991446,16.166544 21,16.084484 21,16 21,13.238577 18.761423,11 16,11 Z"/>
 <path style="opacity:0.1;fill:#8b9cbe" d="m 6,11 c -2.7614235,0 -5,2.238577 -5,5 0,0.08448 0.00855,0.166544 0.012695,0.25 C 1.1439234,13.605631 3.3230604,11.5 6,11.5 h 5 V 11 Z"/>
</svg>
