<svg xmlns="http://www.w3.org/2000/svg" width="22" height="22" version="1.1">
 <path style="opacity:0.2" d="m 11.873862,1.5003855 c -0.172749,-10e-4 -0.240084,0.1358692 -0.590542,1.2024931 l -0.34817,1.0597488 -0.532253,0.0481 c -0.292734,0.02645 -0.6302365,0.06842 -0.7500155,0.09331 -0.158355,0.0329 -0.232228,0.03325 -0.270737,10e-4 C 9.3530245,3.8808367 9.1064225,3.4811141 8.8341078,3.0167417 8.2898975,2.0887121 8.1782941,1.940253 8.0252595,1.940253 c -0.1608266,0 -1.2380143,0.4291775 -1.3164924,0.5245169 -0.03851,0.0468 -0.069487,0.1415692 -0.068838,0.2107138 4.995e-4,0.069145 0.097348,0.5762967 0.2148698,1.1269335 0.1175273,0.550642 0.2067088,1.0191893 0.1981528,1.0412142 -0.00854,0.022 -0.1367567,0.1154593 -0.2848818,0.2076638 -0.1481248,0.092204 -0.4162687,0.2859333 -0.5958562,0.4305025 -0.1795819,0.1445692 -0.3436,0.2628835 -0.3644984,0.2628835 -0.02088,0 -0.4410234,-0.2276887 -0.9336276,-0.5059821 C 3.8612126,4.6664874 3.8126884,4.6447025 3.669798,4.6990872 3.5154195,4.7578419 2.758277,5.7194563 2.758277,5.8567605 c 0,0.1488092 0.036212,0.1960039 0.8086936,1.0555289 0.3693284,0.4109276 0.6714923,0.7761955 0.6714923,0.8117253 0,0.0355 -0.078313,0.2219487 -0.174008,0.4142326 -0.095695,0.1922839 -0.2227469,0.4789123 -0.2823794,0.6369914 -0.059633,0.158074 -0.1306883,0.3059678 -0.1579097,0.3285828 -0.030418,0.0253 -0.4761367,0.04565 -1.1567844,0.05295 -1.3655657,0.01465 -1.2455014,-0.05185 -1.3742317,0.760961 -0.049848,0.3148325 -0.091679,0.6200005 -0.092903,0.6781305 -0.00449,0.216563 0.087593,0.265033 1.1989002,0.630971 l 1.0580176,0.348373 0.046901,0.519822 c 0.025823,0.285888 0.066345,0.625011 0.090091,0.753611 0.023775,0.128604 0.033315,0.249828 0.021278,0.269378 -0.012087,0.01955 -0.4213491,0.272173 -0.9095631,0.561432 -0.488219,0.289263 -0.9281935,0.569552 -0.9777017,0.622836 -0.049498,0.05329 -0.090011,0.144434 -0.090011,0.202579 0,0.170104 0.4362734,1.244258 0.5328773,1.311997 0.1262978,0.08855 0.2355834,0.07558 1.3269611,-0.157529 0.5498446,-0.117439 1.0179,-0.205798 1.0401313,-0.196324 0.022225,0.0095 0.1158639,0.13792 0.2081523,0.285414 0.092283,0.147489 0.2875439,0.417447 0.433881,0.599836 0.1820795,0.226944 0.25802,0.352643 0.2404981,0.398353 -0.014085,0.03675 -0.2405631,0.448762 -0.5032681,0.9156 -0.5384464,0.956854 -0.5690197,1.023439 -0.5338914,1.163538 0.035915,0.143279 1.0266006,0.93528 1.1694413,0.93492 0.1473256,-3.7e-4 0.2173822,-0.05407 1.0430184,-0.800621 0.4019242,-0.363423 0.7611031,-0.666016 0.7981444,-0.672421 0.03706,-0.0064 0.2287457,0.06825 0.4260691,0.165974 0.1973233,0.09773 0.4983136,0.226994 0.6688351,0.287209 0.1705215,0.06021 0.3135817,0.111619 0.3179272,0.114274 0.0045,0.0025 0.01783,0.522502 0.03002,1.155168 0.02717,1.412867 -0.03806,1.289728 0.7511887,1.417512 0.593074,0.09602 0.8272195,0.09627 0.9223795,10e-4 0.03317,-0.0332 0.216174,-0.534717 0.406614,-1.114424 l 0.346213,-1.053958 0.398019,-0.03065 c 0.21893,-0.01685 0.560113,-0.05729 0.758141,-0.08987 0.358475,-0.05898 0.360373,-0.05883 0.434585,0.03065 0.04101,0.04945 0.29694,0.468312 0.56882,0.93085 0.27188,0.462537 0.532887,0.872515 0.579993,0.911059 0.128985,0.105545 0.221368,0.08923 0.844326,-0.148689 0.594104,-0.226908 0.712829,-0.309633 0.71243,-0.496517 -1.2e-4,-0.05813 -0.09746,-0.565057 -0.216354,-1.126543 -0.118895,-0.561487 -0.207577,-1.034889 -0.197058,-1.051929 0.01054,-0.01705 0.148364,-0.118305 0.306369,-0.225104 0.157999,-0.106799 0.422318,-0.304788 0.587335,-0.439887 0.165022,-0.1351 0.316599,-0.245649 0.336842,-0.245674 0.02023,-3e-5 0.452297,0.231524 0.960116,0.514582 1.038163,0.578662 1.032279,0.575992 1.169601,0.541487 0.146117,-0.0367 0.933862,-1.028029 0.933862,-1.175193 0,-0.137675 -0.03331,-0.180619 -0.818928,-1.056229 -0.352711,-0.393118 -0.646833,-0.747311 -0.653596,-0.787166 -0.0068,-0.03985 0.0609,-0.218178 0.150333,-0.396242 0.08943,-0.178064 0.217852,-0.463543 0.285346,-0.634412 0.06749,-0.170869 0.140233,-0.328693 0.161661,-0.350718 0.02318,-0.0238 0.49174,-0.04815 1.15616,-0.06007 1.065944,-0.0191 1.121002,-0.02385 1.200694,-0.103715 0.06541,-0.06555 0.104515,-0.213168 0.180411,-0.680796 0.0533,-0.328398 0.09719,-0.635706 0.09751,-0.682821 0.0015,-0.190359 -0.112772,-0.248358 -1.199525,-0.609461 l -1.06013,-0.352208 -0.0451,-0.517552 c -0.02482,-0.284639 -0.06512,-0.623242 -0.08954,-0.752441 -0.02442,-0.129199 -0.03441,-0.2510475 -0.02218,-0.2708625 0.01224,-0.0198 0.42159,-0.272149 0.909644,-0.560727 0.488054,-0.288578 0.927883,-0.5686568 0.977387,-0.6223665 0.0495,-0.05371 0.09001,-0.1426292 0.09001,-0.1976539 0,-0.1577941 -0.429561,-1.2287579 -0.524282,-1.3071424 C 19.915911,7.1167937 19.833063,7.1248277 18.876344,7.328927 17.753015,7.5685756 17.692438,7.5795206 17.651271,7.5509857 17.631991,7.5376358 17.529943,7.3956266 17.424449,7.2353826 17.318954,7.0751385 17.126356,6.813835 16.996427,6.6547059 16.866497,6.4955818 16.760174,6.3490677 16.760144,6.3291728 c -2.5e-5,-0.0199 0.232032,-0.4523974 0.51577,-0.9611195 0.283733,-0.508717 0.527218,-0.9631194 0.541079,-1.0097691 0.04795,-0.1613691 -0.05299,-0.2867784 -0.556158,-0.6908012 -0.536224,-0.4305725 -0.630395,-0.4693023 -0.8219,-0.3378931 -0.0544,0.03735 -0.43495,0.3707179 -0.84565,0.7408609 -0.410705,0.3701429 -0.775593,0.6730462 -0.810886,0.6730462 -0.03532,0 -0.221323,-0.078735 -0.413408,-0.174969 C 14.176907,4.4722985 13.902715,4.3526092 13.759694,4.3025945 13.340688,4.1560654 13.359653,4.217535 13.359488,3.0070268 13.359353,2.0447474 13.353093,1.9500729 13.282374,1.8339436 13.236024,1.757844 13.160531,1.6980594 13.092503,1.6836094 12.919629,1.6469097 11.948135,1.5005955 11.873918,1.5001155 Z"/>
 <path style="fill:#60a0ff" d="m 11.873862,1.0003918 c -0.172749,-0.001 -0.240084,0.1358692 -0.590542,1.202493 l -0.34817,1.0597489 -0.532253,0.0481 c -0.292734,0.02645 -0.6302365,0.06842 -0.7500155,0.09331 -0.158355,0.0329 -0.232228,0.03325 -0.270737,10e-4 C 9.3530245,3.380843 9.1064225,2.9811203 8.8341078,2.516748 8.2898975,1.5887184 8.1782941,1.4402592 8.0252595,1.4402592 c -0.1608266,0 -1.2380143,0.4291776 -1.3164924,0.524517 -0.03851,0.0468 -0.069487,0.1415692 -0.068838,0.2107138 4.995e-4,0.069145 0.097348,0.5762967 0.2148698,1.1269335 0.1175273,0.5506418 0.2067088,1.0191894 0.1981528,1.0412143 -0.00854,0.022 -0.1367567,0.1154593 -0.2848818,0.2076638 -0.1481252,0.092204 -0.4162691,0.2859333 -0.5958566,0.4305025 -0.1795819,0.1445691 -0.3436,0.2628835 -0.3644984,0.2628835 -0.02088,0 -0.4410234,-0.2276887 -0.9336276,-0.5059821 C 3.8612126,4.1664938 3.8126884,4.1447089 3.669798,4.1990936 3.5154195,4.2578483 2.758277,5.2194627 2.758277,5.3567669 c 0,0.1488092 0.036212,0.1960039 0.8086936,1.0555289 0.3693284,0.4109276 0.6714923,0.7761955 0.6714923,0.8117253 0,0.0355 -0.078313,0.2219487 -0.174008,0.4142326 C 3.9687601,7.8305376 3.841708,8.117166 3.7820755,8.275245 3.7224429,8.4333191 3.6513872,8.5812133 3.6241658,8.6038281 c -0.030418,0.0253 -0.4761367,0.04565 -1.1567844,0.052955 -1.3655657,0.01465 -1.2455014,-0.051855 -1.3742317,0.7609604 -0.049848,0.314833 -0.091679,0.6200005 -0.092903,0.6781305 -0.00449,0.216564 0.087593,0.265033 1.1989002,0.630971 l 1.0580176,0.348373 0.046901,0.519822 c 0.025823,0.285889 0.066345,0.625012 0.090091,0.753611 0.023775,0.128604 0.033315,0.249829 0.021278,0.269378 -0.012087,0.01955 -0.4213491,0.272174 -0.9095631,0.561432 -0.488219,0.289264 -0.9281935,0.569552 -0.9777017,0.622837 -0.049498,0.05329 -0.090011,0.144434 -0.090011,0.202578 0,0.170104 0.4362734,1.244258 0.5328773,1.311998 0.1262978,0.08855 0.2355834,0.07557 1.3269611,-0.157529 0.5498446,-0.11744 1.0179,-0.205799 1.0401313,-0.196324 0.022225,0.0095 0.1158639,0.137919 0.2081523,0.285413 0.092283,0.147489 0.2875439,0.417448 0.433881,0.599837 0.1820795,0.226943 0.25802,0.352643 0.2404981,0.398352 -0.014085,0.03675 -0.2405631,0.448763 -0.5032681,0.9156 -0.5384464,0.956855 -0.5690197,1.023439 -0.5338914,1.163538 0.035915,0.14328 1.0266006,0.93528 1.1694413,0.93492 0.1473256,-3.7e-4 0.2173822,-0.05407 1.0430184,-0.80062 0.4019242,-0.363423 0.7611031,-0.666016 0.7981444,-0.672421 0.03706,-0.0064 0.2287457,0.06825 0.4260691,0.165974 0.1973233,0.09772 0.4983136,0.226993 0.6688351,0.287208 0.1705215,0.06021 0.3135817,0.111619 0.3179272,0.114274 0.0045,0.0025 0.01783,0.522502 0.03002,1.155169 0.02717,1.412866 -0.03806,1.289727 0.7511887,1.417511 0.593074,0.09602 0.8272195,0.09628 0.9223795,10e-4 0.03317,-0.0332 0.216174,-0.534717 0.406614,-1.114423 l 0.346213,-1.053959 0.398019,-0.03065 c 0.21893,-0.01685 0.560113,-0.05729 0.758141,-0.08987 0.358475,-0.05898 0.360373,-0.05883 0.434585,0.03065 0.04101,0.04945 0.29694,0.468313 0.56882,0.93085 0.27188,0.462537 0.532887,0.872515 0.579993,0.91106 0.128985,0.105544 0.221368,0.08923 0.844326,-0.148689 0.594104,-0.226909 0.712829,-0.309634 0.71243,-0.496517 -1.2e-4,-0.05813 -0.09746,-0.565057 -0.216354,-1.126544 -0.118895,-0.561487 -0.207577,-1.034889 -0.197058,-1.051929 0.01054,-0.01705 0.148364,-0.118304 0.306369,-0.225104 0.157999,-0.106799 0.422318,-0.304788 0.587335,-0.439887 0.165022,-0.135099 0.316599,-0.245649 0.336842,-0.245674 0.02023,-3e-5 0.452297,0.231524 0.960116,0.514582 1.038163,0.578662 1.032279,0.575992 1.169601,0.541487 0.146117,-0.0367 0.933862,-1.028029 0.933862,-1.175193 0,-0.137674 -0.03331,-0.180619 -0.818928,-1.056229 -0.352711,-0.393118 -0.646833,-0.74731 -0.653596,-0.787165 -0.0068,-0.03985 0.0609,-0.218179 0.150333,-0.396243 0.08943,-0.178064 0.217852,-0.463542 0.285346,-0.634411 0.06749,-0.170869 0.140233,-0.328693 0.161661,-0.350718 0.02318,-0.0238 0.49174,-0.04815 1.15616,-0.06007 1.065944,-0.0191 1.121002,-0.02385 1.200694,-0.103714 0.06541,-0.06555 0.104515,-0.213169 0.180411,-0.680796 0.0533,-0.328398 0.09719,-0.635707 0.09751,-0.682821 0.0015,-0.190359 -0.112772,-0.248359 -1.199525,-0.609462 l -1.06013,-0.352208 -0.0451,-0.517552 c -0.02482,-0.284638 -0.06512,-0.6232405 -0.08954,-0.7524405 -0.02442,-0.129199 -0.03441,-0.251048 -0.02218,-0.270863 0.01224,-0.0198 0.42159,-0.272148 0.909644,-0.5607264 0.488054,-0.2885784 0.927883,-0.5686568 0.977387,-0.6223664 0.0495,-0.05371 0.09001,-0.1426292 0.09001,-0.1976539 0,-0.1577941 -0.429561,-1.2287579 -0.524282,-1.3071424 -0.120344,-0.099585 -0.203192,-0.09155 -1.159911,0.1125493 -1.123329,0.2396486 -1.183906,0.2505936 -1.225073,0.2220587 -0.01928,-0.01335 -0.121328,-0.1553591 -0.226822,-0.3156032 -0.105495,-0.160244 -0.298093,-0.4215475 -0.428022,-0.5806766 -0.12993,-0.1591241 -0.236253,-0.3056382 -0.236283,-0.3255331 -2.5e-5,-0.0199 0.232032,-0.4523974 0.51577,-0.9611195 0.283733,-0.508717 0.527218,-0.9631197 0.541079,-1.0097694 0.04795,-0.1613691 -0.05299,-0.2867784 -0.556158,-0.690801 -0.536224,-0.4305725 -0.630395,-0.4693023 -0.8219,-0.3378931 -0.0544,0.03735 -0.43495,0.3707179 -0.84565,0.7408607 -0.410705,0.3701429 -0.775593,0.6730464 -0.810886,0.6730464 -0.03532,0 -0.221323,-0.078735 -0.413408,-0.1749689 C 14.176905,3.9723047 13.902713,3.8526156 13.759692,3.8026009 13.340686,3.6560717 13.359651,3.7175409 13.359486,2.5070334 13.359351,1.5447539 13.353086,1.4500795 13.282376,1.3339502 13.236026,1.2578502 13.160533,1.1980659 13.092505,1.183616 12.919631,1.146916 11.948137,1.0006021 11.87392,1.0001221 Z"/>
 <path style="fill:#17191e" d="m 10.979535,10.581124 -3.1425599,7.464801 c 0.1622341,0.07277 0.3368336,0.154592 0.4521459,0.195311 0.1305387,0.04609 0.1947209,0.06906 0.2431626,0.08691 l 2.4882674,-5.910121 3.74119,7.899368 c 0.480104,-0.18945 0.59802,-0.278064 0.597652,-0.450193 -7e-6,-0.0035 -0.01203,-0.05995 -0.0127,-0.06641 z"/>
 <path style="opacity:0.1" d="m 11.000043,6.5000108 c 1.499992,-0.00706 4.999971,0 4.999971,1.9999885 v 6.5000447 c 0,0.830995 -0.668996,1.499991 -1.499991,1.499991 H 7.5000631 c -0.8309952,0 -1.4999914,-0.668996 -1.4999914,-1.499991 V 8.4999993 c 0,-1.9999885 3.4999798,-1.992936 4.9999713,-1.9999885 z"/>
 <path style="fill:#606040" d="m 11.000043,6.0000138 c 1.499992,-0.00706 4.999971,0 4.999971,1.9999884 v 6.5000448 c 0,0.830995 -0.668996,1.499991 -1.499991,1.499991 H 7.5000631 c -0.8309952,0 -1.4999914,-0.668996 -1.4999914,-1.499991 V 8.0000022 c 0,-1.9999884 3.4999798,-1.992936 4.9999713,-1.9999884 z"/>
 <circle style="opacity:0.2" cx="8" cy="14.5" r="1"/>
 <circle style="fill:#8b9cbe" cx="8" cy="14" r="1"/>
 <circle style="opacity:0.2" cx="14" cy="14.5" r="1"/>
 <circle style="fill:#8b9cbe" cx="14" cy="14" r="1"/>
 <rect style="fill:#8deaff" width="10" height="3" x="6" y="8"/>
 <rect style="fill:#606040" width="2" height="4" x="10" y="7.5"/>
 <rect style="opacity:0.1" width="4" height=".5" x="6" y="8"/>
 <rect style="opacity:0.1" width="4" height=".5" x="12" y="8"/>
 <path style="opacity:0.2;fill:#8b9cbe" d="m 11.874062,1.0001251 c -0.172749,-0.001 -0.240359,0.1364942 -0.590817,1.203118 l -0.347654,1.0595642 -0.532224,0.047851 c -0.292734,0.02645 -0.6311935,0.06886 -0.7509725,0.093749 -0.158355,0.0329 -0.231997,0.033226 -0.270506,9.75e-4 C 9.3527685,3.3811831 9.1063545,2.9810885 8.8340398,2.5167162 8.2898295,1.5886866 8.1784851,1.4405506 8.0254505,1.4405506 c -0.1608266,0 -1.2379203,0.4290716 -1.3163984,0.524411 -0.03851,0.0468 -0.069985,0.1417917 -0.069336,0.2109363 1.37e-4,0.018989 0.04549,0.2326817 0.058593,0.3095685 0.0039,-0.00598 0.00664,-0.015526 0.010745,-0.020508 0.078478,-0.095339 1.1555718,-0.524411 1.3163984,-0.524411 0.1530346,0 0.264379,0.148136 0.8085893,1.0761656 0.2723157,0.4643724 0.5187287,0.8644669 0.5478487,0.8886668 0.03851,0.03225 0.112152,0.031923 0.270507,-9.75e-4 0.119778,-0.02489 0.4582385,-0.0673 0.7509725,-0.093749 l 0.532221,-0.047851 0.347654,-1.0595642 c 0.350458,-1.0666238 0.418068,-1.204118 0.590817,-1.203118 0.07422,4.8e-4 1.045869,0.1468929 1.218743,0.1835927 0.06803,0.01445 0.143102,0.07429 0.189451,0.1503898 0.07072,0.1161293 0.07701,0.2105653 0.07715,1.1728447 1.66e-4,1.2105081 -0.01862,1.149362 0.400388,1.2958911 0.14302,0.050015 0.417287,0.169394 0.609371,0.2656235 0.192085,0.096234 0.377769,0.1748035 0.413084,0.1748035 0.0353,0 0.400814,-0.3027048 0.811519,-0.6728477 0.4107,-0.370143 0.790318,-0.7038568 0.844721,-0.7412066 0.191505,-0.1314093 0.286037,-0.092684 0.822261,0.3378887 0.224577,0.1803272 0.359439,0.3001668 0.446287,0.3974585 0.02034,-0.04047 0.107522,-0.1965349 0.110351,-0.2060534 0.04795,-0.161369 -0.05347,-0.2873796 -0.556638,-0.6914022 -0.536224,-0.4305725 -0.630756,-0.469298 -0.822261,-0.3378887 -0.0544,0.03735 -0.434021,0.3710638 -0.844721,0.7412066 -0.410705,0.3701429 -0.776225,0.6728476 -0.811519,0.6728476 -0.03531,0 -0.220999,-0.078569 -0.413084,-0.1748034 C 14.17708,3.972237 13.902813,3.852858 13.759793,3.8028433 13.340786,3.6563141 13.35957,3.7174603 13.359405,2.5069523 13.35927,1.5446729 13.352976,1.4502369 13.282257,1.3341076 13.235907,1.258008 13.160833,1.1981677 13.092805,1.1837178 12.919931,1.147018 11.948279,1.0006051 11.874062,1.0001251 Z M 3.7754752,4.1797942 c -0.040469,-0.00335 -0.069746,0.00594 -0.1054681,0.01953 C 3.5156286,4.2580782 2.757903,5.2192398 2.757903,5.356544 c 0,0.07504 0.012908,0.1279963 0.121093,0.268553 0.220322,-0.3311951 0.6752921,-0.8817344 0.7910111,-0.9257757 0.1428904,-0.054385 0.1912195,-0.03315 1.2040946,0.5390589 0.4926042,0.2782939 0.9127083,0.5058566 0.9335881,0.5058566 0.0209,0 0.184674,-0.1181243 0.3642559,-0.2626935 C 6.3515332,5.3369741 6.6195201,5.1430857 6.7676453,5.0508813 6.9157704,4.9586773 7.0442602,4.8658513 7.0528001,4.8438515 7.0564001,4.8345515 6.9948241,4.5454562 6.9688161,4.404401 6.9192061,4.445156 6.8722501,4.48577 6.7676453,4.5508842 6.6195201,4.6430885 6.3515332,4.8369769 6.1719457,4.9815461 5.9923638,5.1261152 5.8285882,5.2442396 5.8076898,5.2442396 5.7868098,5.2442396 5.3667059,5.0166769 4.8741017,4.738383 4.1144451,4.309226 3.8968831,4.1898002 3.7754752,4.1797942 Z M 16.914072,6.042088 c -0.03661,0.070629 -0.154304,0.2811628 -0.154296,0.2871078 3e-5,0.019895 0.106397,0.1660695 0.236327,0.3251936 0.129928,0.1591291 0.323213,0.4208071 0.428708,0.5810512 0.105494,0.160244 0.207281,0.3020777 0.226561,0.3154276 0.04117,0.028535 0.101273,0.01797 1.224602,-0.2216782 0.956719,-0.2040988 1.039806,-0.2128648 1.16015,-0.1132803 0.06837,0.05658 0.308665,0.6258243 0.438474,0.9999942 0.04769,-0.054058 0.08594,-0.1388272 0.08594,-0.1923819 0,-0.1577941 -0.42969,-1.2292249 -0.524411,-1.3076094 -0.120347,-0.099585 -0.203434,-0.090819 -1.160153,0.1132803 -1.123329,0.2396486 -1.183435,0.2502136 -1.224602,0.2216782 -0.01928,-0.01335 -0.121067,-0.1551836 -0.226561,-0.3154277 -0.105495,-0.160244 -0.29878,-0.421922 -0.428708,-0.5810511 -0.04495,-0.05505 -0.04616,-0.064994 -0.08203,-0.1123043 z M 4.1035982,7.5440328 c -0.01916,0.04121 -0.01742,0.050262 -0.039065,0.093749 C 3.9688387,7.8300661 3.8419411,8.1173945 3.7823086,8.2754735 3.722676,8.4335476 3.6513279,8.5809818 3.6241064,8.6035966 c -0.030418,0.0253 -0.4755957,0.04543 -1.1562433,0.052734 -1.3655658,0.01465 -1.2462618,-0.051101 -1.3749921,0.7617149 -0.049845,0.314833 -0.091547,0.6195995 -0.09277,0.6777295 -0.0013,0.06263 0.00971,0.11097 0.046875,0.157226 0.016786,-0.122224 0.021261,-0.179354 0.045898,-0.3349585 0.1287302,-0.812816 0.00943,-0.747065 1.374992,-0.761715 0.6806477,-0.0073 1.125825,-0.02743 1.1562434,-0.05273 0.027221,-0.02262 0.098569,-0.170049 0.1582021,-0.328123 0.059633,-0.1580791 0.1865301,-0.4454075 0.2822248,-0.6376914 0.095695,-0.1922839 0.173827,-0.3785603 0.173827,-0.4140601 0,-0.01209 -0.074064,-0.1024464 -0.1347647,-0.1796864 z M 18.629882,9.8760505 c -0.0026,0.0022 -0.04625,0.02731 -0.04687,0.02832 -0.01224,0.01982 -0.0019,0.1413055 0.02246,0.2705055 0.02443,0.129199 0.06502,0.468287 0.08984,0.752925 l 0.04492,0.517575 1.06054,0.351561 c 0.784935,0.260816 1.054365,0.364003 1.147455,0.472653 0.01966,-0.136106 0.05159,-0.338242 0.05176,-0.363278 0.0015,-0.190359 -0.11246,-0.248269 -1.199213,-0.609372 l -1.06054,-0.35156 -0.04492,-0.517575 c -0.01819,-0.20857 -0.04296,-0.388854 -0.06543,-0.5517545 z M 3.3702041,12.645565 c -0.047928,0.03994 -0.4000649,0.259153 -0.8642528,0.534177 -0.488219,0.289263 -0.9280252,0.569758 -0.9775334,0.623043 -0.049498,0.05329 -0.089843,0.144003 -0.089843,0.202147 0,0.04642 0.034777,0.164402 0.083984,0.306639 0.00234,-0.0028 0.00347,-0.0072 0.00586,-0.0098 0.049508,-0.05328 0.4893144,-0.332803 0.9775335,-0.622067 0.4882139,-0.289258 0.8970869,-0.54197 0.9091744,-0.56152 0.012037,-0.01955 0.00326,-0.140925 -0.020508,-0.269529 -0.0064,-0.03465 -0.016196,-0.143073 -0.024414,-0.203124 z m 14.5214009,2.332994 c -0.07357,0.155195 -0.130009,0.301806 -0.124023,0.336912 0.0068,0.03985 0.301582,0.393988 0.654293,0.787105 0.387711,0.432125 0.587631,0.655946 0.695309,0.793941 0.07483,-0.112563 0.123046,-0.200882 0.123046,-0.237303 0,-0.137675 -0.03274,-0.181025 -0.818355,-1.056635 -0.242198,-0.269944 -0.417396,-0.479958 -0.53027,-0.62402 z m -12.8055905,1.51464 c -0.084471,0.157438 -0.17605,0.327551 -0.3681619,0.668942 -0.5384464,0.956854 -0.5693047,1.023956 -0.5341764,1.164055 0.00537,0.02142 0.064432,0.07745 0.1064444,0.123047 0.0776,-0.158229 0.1890179,-0.362895 0.427732,-0.787105 0.262705,-0.466838 0.4888417,-0.878284 0.5029266,-0.915034 0.01277,-0.03332 -0.043335,-0.12738 -0.1347647,-0.253905 z m 9.9423265,1.634756 c -0.01908,0.01517 -0.07921,0.05597 -0.08203,0.06055 -0.01052,0.01704 0.07837,0.490265 0.197264,1.051752 0.08335,0.39363 0.115273,0.585866 0.151366,0.790034 0.04081,-0.04894 0.06459,-0.09994 0.06445,-0.163085 -1.2e-4,-0.05813 -0.09692,-0.56546 -0.215819,-1.126946 -0.06923,-0.326921 -0.08011,-0.417795 -0.115233,-0.612302 z"/>
</svg>
