<svg xmlns="http://www.w3.org/2000/svg" width="22" height="22" version="1">
 <rect fill="#848484" width="20" height="19.998" x="-21" y="-21" rx="10" ry="9.999" transform="matrix(0,-1,-1,0,0,0)"/>
 <path fill="#fff" style="opacity:0.1" d="m11 1c-5.5395 0-9.9991 4.46-9.9991 10 0 0.084-0.002 0.1665 0 0.25 0.1322-5.423 4.5436-9.75 9.9991-9.75s9.8671 4.327 9.9991 9.75c0.002-0.0835 0-0.166 0-0.25 0-5.54-4.459-10-9.999-10z"/>
 <g style="fill:#17191e" transform="matrix(.49967 0 0 .49971 5.0005 5)">
  <g style="fill:#17191e">
   <path style="fill:#17191e" d="m24.013 0.001s-3.601-0.101-7.2 1.7c-1.1 0.5-2.3 1.3-3.3 2.3-1.617 1.617-4.129 4.594-6.107 7h-4.393l-2 3 3.392 0.917c0.01 0.121 0.042 0.292 0.136 0.523l-0.527 1.159s-0.2 0.4 1.3 2c1.6 1.601 2.1 1.4 2.1 1.4l1.243-0.564c0.186 0.058 0.324 0.078 0.414 0.078l0.943 3.486 3-2v-4.527c2.423-1.959 5.396-4.421 7-5.973 1-1 1.8-2.2 2.399-3.3 1.699-3.599 1.6-7.199 1.6-7.199zm-7 9c-1.101 0-2-0.9-2-2 0-1.101 0.899-2 2-2 1.1 0 2 0.899 2 2 0 1.1-0.901 2-2 2zm-10.5 12c0.2 0.101 0.3 0.2 0.5 0.3-0.2 0.2-0.4 0.5-0.601 0.7-2.301 2.3-6.399 2-6.399 2s-0.3-4.101 2-6.399c0.2-0.201 0.5-0.399 0.7-0.601 0.1 0.2 0.199 0.3 0.3 0.5-1.5 1.899-1.3 4.8-1.3 4.8s2.899 0.2 4.8-1.3z"/>
  </g>
 </g>
 <path opacity=".2" d="m1.0067 11.25c-0.00205 0.0835-0.00585 0.166-0.00585 0.25 0 5.54 4.4596 10 9.9991 10s9.9991-4.46 9.9991-10c0-0.084-0.004-0.1665-0.006-0.25-0.132 5.423-4.537 9.75-9.993 9.75-5.4555 0-9.8611-4.327-9.9931-9.75z"/>
</svg>
