<svg xmlns="http://www.w3.org/2000/svg" width="22" height="22" version="1">
 <path style="opacity:0.2" d="M 9.3554789,18.487417 C 6.0497943,18.424588 4.7080644,18.369111 3.8876043,18.261337 3.2859294,18.182299 2.9904494,18.105245 2.6571944,17.940477 2.1067845,17.668348 1.7644745,17.288877 1.5174395,16.676993 1.2915795,16.117575 1.1996145,15.673255 1.1152146,14.73365 c -0.095245,-1.060349 -0.10269,-1.25231 -0.11258,-2.904415 -0.01165,-1.9428799 0.0118,-2.5795439 0.1422749,-3.8691228 0.06842,-0.6760624 0.16814,-1.1253629 0.355515,-1.6018169 0.170645,-0.4338974 0.32644,-0.6733604 0.609775,-0.9372464 C 2.4662994,5.0893934 2.8573844,4.88778 3.3510944,4.781349 4.0880144,4.6224865 7.4187791,4.5000015 11.001719,4.5000015 c 3.58294,0 6.913705,0.122485 7.650625,0.2813475 0.532935,0.1148885 0.924075,0.3270989 1.305705,0.7084004 0.29869,0.298432 0.45253,0.5696065 0.635605,1.1204174 0.18864,0.5675465 0.260985,1.0698209 0.368175,2.5561623 0.0509,0.705842 0.05089,3.9550669 0,4.6605619 -0.05956,0.825318 -0.13264,1.560285 -0.181305,1.823269 -0.12511,0.676123 -0.37083,1.309161 -0.647865,1.669085 -0.19007,0.246935 -0.56528,0.541164 -0.879035,0.68931 -0.317705,0.150013 -0.6204,0.224384 -1.108375,0.272339 -1.512105,0.148594 -6.129585,0.25709 -8.7897501,0.206523 z"/>
 <path style="fill:#e53935" d="M 9.3554789,17.987417 C 6.0497943,17.924587 4.7080644,17.869111 3.8876043,17.761336 3.2859294,17.682298 2.9904494,17.605245 2.6571944,17.440477 2.1067845,17.168347 1.7644745,16.788876 1.5174395,16.176992 1.2915795,15.617574 1.1996145,15.173255 1.1152146,14.23365 c -0.095245,-1.060349 -0.10269,-1.252311 -0.11258,-2.904415 -0.01165,-1.9428799 0.0118,-2.5795449 0.1422749,-3.8691233 0.06842,-0.6760624 0.16814,-1.1253629 0.355515,-1.6018168 0.170645,-0.4338975 0.32644,-0.6733605 0.609775,-0.9372465 C 2.4662994,4.589393 2.8573844,4.3877795 3.3510944,4.2813485 4.0880144,4.122486 7.4187791,4.000001 11.001719,4.000001 c 3.58294,0 6.913705,0.122485 7.650625,0.2813475 0.532935,0.1148885 0.924075,0.327099 1.305705,0.7084004 0.29869,0.298432 0.45253,0.5696065 0.635605,1.1204175 0.18864,0.5675464 0.260985,1.0698209 0.368175,2.5561623 0.0509,0.7058424 0.05089,3.9550663 0,4.6605613 -0.05956,0.825318 -0.13264,1.560285 -0.181305,1.82327 -0.12511,0.676122 -0.37083,1.30916 -0.647865,1.669084 -0.19007,0.246936 -0.56528,0.541164 -0.879035,0.689311 -0.317705,0.150012 -0.6204,0.224384 -1.108375,0.272338 -1.512105,0.148595 -6.129585,0.25709 -8.7897501,0.206524 z"/>
 <path style="opacity:0.2" d="m 11.226131,13.198843 c 2.83472,-1.693461 2.77377,-1.656318 2.77377,-1.690317 0,-0.03181 -4.9617851,-3.0256823 -4.9859781,-3.0084538 -0.01634,0.011645 -0.01938,5.9757158 -0.0033,5.9945358 0.006,0.007 0.02322,0.0072 0.03815,5.5e-4 0.01493,-0.0066 0.9946601,-0.589985 2.1771131,-1.29638 z"/>
 <path style="fill:#8b9cbe" d="m 11.226131,12.698844 c 2.83472,-1.693461 2.77377,-1.656318 2.77377,-1.690317 0,-0.03182 -4.9617851,-3.0256823 -4.9859781,-3.0084538 -0.01634,0.011645 -0.01938,5.9757158 -0.0033,5.9945358 0.006,0.007 0.02322,0.0072 0.03815,5.5e-4 0.01493,-0.0066 0.9946601,-0.589985 2.1771131,-1.29638 z"/>
 <path style="opacity:0.2;fill:#8b9cbe" d="m 11.001953,4.000001 c -3.5829399,0 -6.9134701,0.1223875 -7.65039,0.28125 -0.49371,0.106431 -0.8851109,0.307993 -1.2412109,0.6396484 -0.283335,0.263886 -0.4397065,0.5036025 -0.6103515,0.9375 -0.187375,0.4764539 -0.2870487,0.9254999 -0.3554687,1.6015623 -0.130475,1.2895784 -0.1532515,1.9262604 -0.1416015,3.8691403 5.25e-4,0.08772 0.0024,0.0979 0.00293,0.177734 C 1.0002404,9.8765171 1.0237024,9.1542081 1.1445322,7.9599617 1.2129522,7.2838993 1.3126256,6.8348533 1.5000006,6.3583993 1.6706456,5.9245019 1.8270171,5.6847854 2.1103521,5.4208994 2.4664521,5.0892439 2.857853,4.887682 3.351563,4.781251 c 0.7369199,-0.1588625 4.0674501,-0.28125 7.65039,-0.28125 3.58294,0 6.91347,0.1223875 7.65039,0.28125 0.532935,0.1148885 0.924034,0.3276829 1.305664,0.7089844 0.29869,0.298432 0.452667,0.569306 0.635742,1.1201169 0.18864,0.5675465 0.260974,1.0693224 0.368164,2.5556638 0.02319,0.321507 0.03407,1.1849229 0.03614,2.0810549 0.0024,-1.071291 -0.0084,-2.1966969 -0.03614,-2.5810548 C 20.854723,7.1796748 20.782389,6.6778988 20.593749,6.1103524 20.410674,5.5595414 20.256697,5.2886674 19.958007,4.9902354 19.576377,4.608934 19.185278,4.3961395 18.652343,4.281251 c -0.73692,-0.1588625 -4.06745,-0.28125 -7.65039,-0.28125 z"/>
</svg>
