<svg xmlns="http://www.w3.org/2000/svg" width="22" height="22" version="1.1">
 <path style="opacity:0.2" d="M 10.999999,2.5000098 C 4.935725,2.5000098 1.1592388e-7,7.317653 1.1592388e-7,13.236845 a 0.9167583,0.8948258 0 0 0 0,9e-4 C 0.00110012,15.317283 0.62089513,17.351485 1.7840981,19.093725 A 0.9167583,0.8948258 0 0 0 2.5521646,19.5 H 19.440673 a 0.9167583,0.8948258 0 0 0 0.76717,-0.405427 c 1.165958,-1.741408 1.788723,-3.775671 1.792156,-5.85598 a 0.9167583,0.8948258 0 0 0 0,-0.0017 c 0,-5.9192 -4.935725,-10.736843 -11,-10.736843 z"/>
 <path style="fill:#ffa800" d="M 10.999999,2.0000097 C 4.935725,2.0000097 1.1592388e-7,6.817653 1.1592388e-7,12.736845 a 0.9167583,0.8948258 0 0 0 0,9e-4 C 0.00110012,14.817283 0.62089513,16.851485 1.7840981,18.593725 A 0.9167583,0.8948258 0 0 0 2.5521646,19 H 19.440673 a 0.9167583,0.8948258 0 0 0 0.76717,-0.405427 c 1.165958,-1.741408 1.788723,-3.775671 1.792156,-5.85598 a 0.9167583,0.8948258 0 0 0 0,-0.0017 C 21.999999,6.817643 17.064274,2 10.999999,2 Z"/>
 <path style="opacity:0.2;fill:#8b9cbe" d="M 11,2 C 4.9357255,2 1.5923882e-8,6.818112 1.5923882e-8,12.737305 3.6625924e-5,12.806535 0.00640802,12.875215 0.00781302,12.944336 0.16786053,7.160316 5.03635,2.5 11,2.5 c 5.96231,0 10.830057,4.658209 10.992187,10.44043 0.0014,-0.06752 0.0077,-0.134526 0.0078,-0.202149 a 0.9167583,0.8948258 0 0 0 0,-0.001 C 22,6.8181045 17.064275,2 11,2 Z"/>
 <path style="opacity:0.2" d="m 16.984376,6.4902304 c -0.380742,-0.00793 -0.765491,0.180111 -0.988281,0.5683594 -0.127126,0.2215427 -0.155414,0.3593731 -0.128906,0.6132812 l 0.0332,0.328125 -0.728516,0.7246094 C 14.771353,9.123766 14.209746,9.664059 14.16992,9.664058 c -0.03975,0 -0.06251,-0.109108 -0.296875,-0.347656 -0.659772,-0.6715471 -0.932449,-0.7604458 -1.720703,-0.7949216 -0.529345,-0.023141 -0.759278,8.18e-5 -1.164063,0.1230468 -0.277325,0.084221 -0.503906,0.1777907 -0.503906,0.2070313 0,0.073095 1.095994,1.1562495 1.169922,1.1562495 0.03266,0 0.154825,-0.07959 0.271484,-0.177734 0.31565,-0.265602 0.632454,-0.241597 0.986328,0.07813 0.157175,0.141998 0.285157,0.302047 0.285157,0.353516 0,0.138749 -0.488443,0.514697 -0.84375,0.65039 -0.254196,0.09707 -0.352058,0.105455 -0.541016,0.03711 -0.126965,-0.04595 -0.277717,-0.08399 -0.333984,-0.08399 -0.05624,0 -1.6273987,1.18178 -3.4921876,3.046875 -0.9677743,0.967934 -3.6844026,3.605465 -5.6835937,5.552735 a 0.9167583,0.8948258 0 0 0 0.25,0.03516 h 4.9257812 c 1.8435044,-1.754377 4.1924351,-3.989155 4.5390621,-4.335938 2.00633,-2.007211 1.660537,-2.069119 1.578125,-2.25 -0.176768,-0.387959 -0.07358,-0.789421 0.335938,-1.302734 0.102031,-0.12788 0.238588,-0.232415 0.302734,-0.232422 0.06419,0 0.233003,0.127986 0.375,0.285156 0.330854,0.366221 0.340046,0.617397 0.0332,0.966797 l -0.226562,0.25586 0.5625,0.566406 c 0.309713,0.311544 0.603862,0.566406 0.652343,0.566406 0.127198,0 0.310873,-0.663 0.357422,-1.289062 0.06387,-0.858996 -0.08141,-1.236533 -0.732422,-1.917969 -0.292729,-0.3064 -0.357421,-0.470258 -0.357421,-0.505859 0,-0.03551 0.560361,-0.51292 0.96875,-0.919922 0.632757,-0.6306095 0.767437,-0.7340645 0.914062,-0.6972659 0.234846,0.058966 0.699098,-0.076952 0.902344,-0.2636719 0.365232,-0.3354754 0.47941,-0.9089944 0.263672,-1.3261718 -0.205374,-0.3971651 -0.582153,-0.601427 -0.962891,-0.609375 z"/>
 <path style="fill:#8b9cbe" d="m 16.984376,5.9902344 c -0.380742,-0.00793 -0.765491,0.180111 -0.988281,0.5683594 -0.127126,0.2215427 -0.155414,0.3593731 -0.128906,0.6132812 L 15.900392,7.5 15.171876,8.2246094 C 14.771356,8.62377 14.209749,9.164063 14.169923,9.164062 c -0.03975,0 -0.06251,-0.109108 -0.296875,-0.3476558 -0.659772,-0.6715473 -0.932449,-0.760446 -1.720703,-0.7949218 -0.529345,-0.023141 -0.759278,8.18e-5 -1.164063,0.1230468 -0.277325,0.084221 -0.503906,0.1777907 -0.503906,0.2070313 0,0.073095 1.095994,1.1562495 1.169922,1.1562495 0.03266,0 0.154825,-0.07959 0.271484,-0.177734 0.31565,-0.265602 0.632454,-0.241597 0.986328,0.07813 0.157175,0.141998 0.285157,0.302047 0.285157,0.353516 0,0.138749 -0.488443,0.514697 -0.84375,0.65039 -0.254196,0.09707 -0.352058,0.105455 -0.541016,0.03711 -0.126965,-0.04595 -0.277717,-0.08399 -0.333984,-0.08399 -0.05624,0 -1.6273987,1.18178 -3.4921876,3.046875 -0.9677743,0.967934 -3.6844026,3.605465 -5.6835937,5.552735 a 0.9167583,0.8948258 0 0 0 0.25,0.03516 h 4.9257812 c 1.8435044,-1.754377 4.1924351,-3.989155 4.5390621,-4.335938 2.00633,-2.007211 1.660537,-2.069119 1.578125,-2.25 -0.176768,-0.387959 -0.07358,-0.789421 0.335938,-1.302734 0.102031,-0.12788 0.238588,-0.232415 0.302734,-0.232422 0.06419,0 0.233003,0.127986 0.375,0.285156 0.330854,0.366221 0.340046,0.617397 0.0332,0.966797 l -0.226562,0.25586 0.5625,0.566406 c 0.309713,0.311544 0.603862,0.566406 0.652343,0.566406 0.127198,0 0.310873,-0.663 0.357422,-1.289062 0.06387,-0.858996 -0.08141,-1.236533 -0.732422,-1.917969 -0.292729,-0.3064 -0.357421,-0.470258 -0.357421,-0.505859 0,-0.03551 0.560361,-0.51292 0.96875,-0.9199222 0.632757,-0.6306093 0.767437,-0.7340643 0.914062,-0.6972657 0.234846,0.058966 0.699098,-0.076952 0.902344,-0.2636719 0.365232,-0.3354754 0.47941,-0.9089944 0.263672,-1.3261718 -0.205374,-0.3971651 -0.582153,-0.601427 -0.962891,-0.609375 z"/>
</svg>
