<svg xmlns="http://www.w3.org/2000/svg" width="22" height="22" version="1">
 <g transform="matrix(0.5,0,0,0.5,-1,-1)">
  <rect style="fill:#5b3a2b" width="40" height="40" x="-44" y="-44" rx="2" ry="2" transform="matrix(0,-1,-1,0,0,0)"/>
  <path style="opacity:0.1;fill:#8b9cbe" d="M 4,7 V 6 C 4,4.892 4.892,4 6,4 h 36 c 1.108,0 2,0.892 2,2 V 7 C 44,5.892 43.108,5 42,5 H 6 C 4.892,5 4,5.892 4,7 Z"/>
  <path style="opacity:0.2" d="m 4,42 v 1 c 0,1.108 0.892,2 2,2 h 36 c 1.108,0 2,-0.892 2,-2 v -1 c 0,1.108 -0.892,2 -2,2 H 6 C 4.892,44 4,43.108 4,42 Z"/>
  <path style="opacity:0.2" d="m 25.742188,5 c 0.286771,0.067712 3.345852,0.7962561 6.513671,2.0664062 1.659248,0.6652824 3.288343,1.47837 4.365235,2.2773438 0.892578,0.662227 1.04556,1.080118 1.142578,1.373047 -0.0067,0.0033 -0.003,0.0026 -0.0098,0.0059 -0.585229,0.283323 -1.715527,1.019946 -3.121094,1.28125 -2.811132,0.522607 -6.756763,0.823493 -10.707031,0.96875 C 16.025212,13.26321 8.0761379,12.964897 8.0761379,12.964897 6.9610055,12.922086 6.026538,13.399923 6,14.515625 c -0.025912,1.084118 0.6617996,1.821186 1.15625,2.1875 0.4944504,0.366314 0.9738721,0.5688 1.5097656,0.763672 1.071787,0.389743 2.3769034,0.684916 3.9238284,0.96875 3.093849,0.567668 7.10229,1.044944 11.103515,1.509765 3.050847,0.354418 5.753997,0.705663 8.326172,1.060547 -2.622037,0.366979 -5.386805,0.727805 -8.501953,1.13086 -4.072667,0.526944 -8.139361,1.104843 -11.27539,1.857422 -1.568017,0.376289 -2.8935114,0.774233 -4.0019536,1.355468 -0.5542212,0.290618 -1.0743856,0.621095 -1.5371094,1.175782 -0.4293715,0.514705 -0.7329398,1.364989 -0.6582031,2.191406 0.058963,0.963403 0.5490633,1.538828 0.9472656,1.908203 0.4269404,0.396033 0.8766863,0.681915 1.3945313,0.96875 1.0356897,0.573671 2.3430112,1.115118 3.8925782,1.669922 1.106728,0.396251 2.692669,0.728679 3.996094,1.117187 -1.314838,0.472103 -2.911647,0.853923 -4.03125,1.341797 -1.569788,0.684046 -2.8997683,1.359117 -3.9492191,2.060547 -0.5247254,0.350715 -0.9818022,0.701116 -1.390625,1.146485 C 6.4954741,39.375053 6.0329196,39.959569 6.0019531,40.9375 5.9646485,42.115595 6.2807068,43.133284 6.7480469,44 H 12.4375 c -0.263785,-0.121507 -0.6945,-0.338162 -1.220703,-0.763672 -0.625052,-0.505443 -1.008846,-1.087338 -1.119141,-1.796875 0.118567,-0.101575 0.195311,-0.179953 0.419922,-0.330078 0.71475,-0.477724 1.891932,-1.09377 3.326172,-1.71875 2.495556,-1.087455 5.916279,-2.167748 9.291016,-3.089844 0.121072,0.02732 0.212843,0.06682 0.333984,0.09375 4.057634,0.902139 8.112039,1.585676 11.3125,1.777344 1.60023,0.09583 2.968455,0.08805 4.183594,-0.164063 0.607569,-0.126055 1.195951,-0.30021 1.792968,-0.722656 0.597018,-0.422446 1.192456,-1.281064 1.240235,-2.179687 0.0016,-0.03643 0.0023,-0.07291 0.002,-0.109375 -0.003,-1.645983 -1.157083,-3.159517 -2.482422,-3.820313 -1.325339,-0.660795 -2.808336,-0.850876 -4.46875,-0.882812 -3.320828,-0.06387 -7.403814,0.638926 -11.5,1.667969 -0.182619,0.04588 -0.321481,0.120782 -0.503906,0.167968 -3.433652,-0.81012 -6.898894,-1.729633 -9.416016,-2.630859 -1.014262,-0.363145 -1.661833,-0.679986 -2.339844,-0.996094 0.581543,-0.208656 1.023846,-0.410117 1.886719,-0.617187 2.815743,-0.675717 6.819719,-1.257129 10.855469,-1.779297 4.03575,-0.522168 8.109304,-0.991417 11.240234,-1.498047 1.565465,-0.253315 2.882912,-0.507696 3.94336,-0.830078 0.530224,-0.161191 0.991732,-0.321076 1.488281,-0.626953 0.248275,-0.152939 0.518665,-0.342701 0.791016,-0.691407 0.27235,-0.348705 0.537265,-0.937619 0.503906,-1.564453 -0.0649,-1.219439 -0.865732,-1.767357 -1.351563,-2.058593 -0.48583,-0.291238 -0.949736,-0.45551 -1.478515,-0.617188 -1.057558,-0.323355 -2.365585,-0.580711 -3.914063,-0.832031 -2.34491,-0.380583 -5.416493,-0.721684 -8.404297,-1.070313 3.015443,-0.172445 6.110876,-0.332239 8.515625,-0.779297 1.594522,-0.296431 2.96583,-0.648872 4.13086,-1.21289 0.582515,-0.282009 1.127741,-0.616231 1.611328,-1.138672 C 41.590962,12.663106 41.99966,11.857012 42,11 42.000861,8.8288281 40.553791,7.2793101 39.005859,6.1308594 38.450858,5.7190894 37.844743,5.3503562 37.222656,5 Z"/>
  <path style="fill:#f19037" d="m 25.742188,4 c 0.286771,0.067712 3.345852,0.796256 6.513671,2.0664062 1.659248,0.6652823 3.288343,1.47837 4.365235,2.2773438 0.892578,0.6622268 1.04556,1.0801184 1.142578,1.3730469 -0.0067,0.00328 -0.003,0.00256 -0.0098,0.00586 -0.585229,0.2833231 -1.715527,1.0196651 -3.121094,1.2809691 -2.811132,0.522607 -6.756763,0.823493 -10.707031,0.96875 -7.900535,0.290513 -15.8496091,-0.0078 -15.8496091,-0.0078 C 6.9609715,11.921858 6.026538,12.399923 6,13.515625 c -0.025912,1.084118 0.6617996,1.821186 1.15625,2.1875 0.4944504,0.366314 0.9738721,0.5688 1.5097656,0.763672 1.071787,0.389743 2.3769034,0.684916 3.9238284,0.96875 3.093849,0.567668 7.10229,1.044944 11.103515,1.509765 3.050847,0.354418 5.753997,0.705663 8.326172,1.060547 -2.622037,0.366979 -5.386805,0.727805 -8.501953,1.13086 -4.072667,0.526944 -8.139361,1.104843 -11.27539,1.857422 -1.568016,0.376289 -2.8935114,0.774233 -4.0019536,1.355468 -0.5542212,0.290618 -1.0743856,0.621095 -1.5371094,1.175782 -0.4293715,0.514705 -0.7329398,1.364989 -0.6582031,2.191406 0.058963,0.963403 0.5490633,1.538828 0.9472656,1.908203 0.4269404,0.396033 0.8766863,0.681915 1.3945313,0.96875 1.0356897,0.573671 2.3430112,1.115118 3.8925782,1.669922 1.106728,0.396251 2.692669,0.728679 3.996094,1.117187 -1.314838,0.472103 -2.911647,0.853923 -4.03125,1.341797 -1.569788,0.684046 -2.8997683,1.359117 -3.9492191,2.060547 -0.5247254,0.350715 -0.9818022,0.701116 -1.390625,1.146485 C 6.4954741,38.375054 6.0329196,38.959569 6.0019531,39.9375 5.9492442,41.602067 6.5823263,42.962966 7.3867188,44 h 6.3437502 c -0.230021,-0.399333 -0.590836,-0.707026 -1.021485,-0.871094 0,0 -0.751512,-0.293637 -1.492187,-0.892578 -0.625052,-0.505443 -1.008846,-1.087338 -1.119141,-1.796875 0.118567,-0.101575 0.195311,-0.179953 0.419922,-0.330078 0.71475,-0.477724 1.891932,-1.09377 3.326172,-1.71875 2.495556,-1.087455 5.916279,-2.167748 9.291016,-3.089844 0.121072,0.02732 0.212843,0.06682 0.333984,0.09375 4.057634,0.902139 8.112039,1.585676 11.3125,1.777344 1.60023,0.09583 2.968455,0.08805 4.183594,-0.164063 0.607569,-0.126055 1.195951,-0.30021 1.792968,-0.722656 0.597018,-0.422446 1.192456,-1.281064 1.240235,-2.179687 0.0016,-0.03643 0.0023,-0.07291 0.002,-0.109375 -0.003,-1.645983 -1.157083,-3.159517 -2.482422,-3.820313 -1.325339,-0.660795 -2.808336,-0.850876 -4.46875,-0.882812 -3.320828,-0.06387 -7.403814,0.638926 -11.5,1.667969 -0.182619,0.04588 -0.321481,0.120782 -0.503906,0.167968 -3.433652,-0.81012 -6.898894,-1.729633 -9.416016,-2.630859 -1.014262,-0.363145 -1.661833,-0.679986 -2.339844,-0.996094 0.581543,-0.208656 1.023846,-0.410117 1.886719,-0.617187 2.815743,-0.675717 6.819719,-1.257129 10.855469,-1.779297 4.03575,-0.522168 8.109304,-0.991417 11.240234,-1.498047 1.565465,-0.253315 2.882912,-0.507696 3.94336,-0.830078 0.530224,-0.161191 0.991732,-0.321076 1.488281,-0.626953 0.248275,-0.152939 0.518665,-0.342701 0.791016,-0.691407 0.27235,-0.348705 0.537265,-0.937619 0.503906,-1.564453 -0.0649,-1.219439 -0.865732,-1.767356 -1.351563,-2.058593 -0.48583,-0.291238 -0.949736,-0.45551 -1.478515,-0.617188 -1.057558,-0.323355 -2.365585,-0.580711 -3.914063,-0.832031 -2.34491,-0.380583 -5.416493,-0.721684 -8.404297,-1.070313 3.015443,-0.172445 6.110876,-0.332239 8.515625,-0.779297 1.594522,-0.296431 2.96583,-0.648872 4.13086,-1.21289 0.582515,-0.282009 1.127741,-0.616231 1.611328,-1.138672 C 41.591009,11.663106 41.99966,10.857012 42,10 42.000861,7.8288281 40.553791,6.2793101 39.005859,5.1308594 38.450858,4.7190894 37.844743,4.3503562 37.222656,4 Z"/>
 </g>
</svg>
