<svg xmlns="http://www.w3.org/2000/svg" width="22" height="22" version="1.1">
 <circle style="opacity:0.2" cx="11" cy="11.5" r="10"/>
 <circle style="fill:#4f4f4f" cx="11" cy="11" r="10"/>
 <path style="opacity:0.1" d="M 7.8671875,2.015625 A 10,10 0 0 0 7.15625,2.2773438 C 7.3406184,3.5150599 7.3791935,3.7247996 7.5371094,4.7480469 L 3.9355469,9.585938 C 2.3973043,9.621498 1.3778258,9.563948 1.1953125,9.548828 a 10,10 0 0 0 -0.1132813,0.736328 c 0.1190867,0.01056 1.0917127,0.07661 2.609375,0.05274 l 1.2089844,5.439453 c -0.7132037,0.601299 -1.316262,1.051423 -1.7773437,1.378906 a 10,10 0 0 0 0.4863281,0.564453 c 0.4235557,-0.304955 0.9497455,-0.704268 1.5605469,-1.208984 0.028315,0.02383 0.052079,0.05361 0.085937,0.07031 l 5.5214851,2.720703 c 0.0025,0.0012 0.0053,7.29e-4 0.0078,0.002 -0.0016,0.722951 0.0093,1.232626 0.01953,1.685546 A 10,10 0 0 0 11,21 10,10 0 0 0 11.546875,20.98047 c -0.01216,-0.468719 -0.02631,-1.00498 -0.02148,-1.839844 l 5.207031,-2.494141 c 0.08172,-0.0391 0.141253,-0.104211 0.1875,-0.179687 0.06074,0.06093 0.131102,0.138484 0.189453,0.195312 0.619574,0.603398 1.005356,0.899122 1.257813,1.080079 a 10,10 0 0 0 0.482421,-0.564454 c -0.226188,-0.158864 -0.596722,-0.437283 -1.222656,-1.046875 -0.14777,-0.143912 -0.314001,-0.326161 -0.478515,-0.501953 l 1.193359,-5.164062 C 19.669885,9.948756 20.631457,9.588338 20.792973,9.529298 A 10,10 0 0 0 20.625,8.796875 C 20.52526,8.83223 19.583442,9.171115 18.154297,9.722656 L 14.761719,5.078125 C 15.526835,3.8155496 16.062088,2.9532921 16.091797,2.90625 A 10,10 0 0 0 15.4375,2.5527344 c -0.04782,0.075764 -0.517896,0.8283286 -1.220703,1.9863281 -0.03295,-0.00759 -0.06319,-0.023233 -0.09766,-0.023437 L 8.2480469,4.484375 C 8.0778322,3.3827745 8.0594679,3.3085174 7.8671875,2.015625 Z m 0.5253906,3.3964844 5.2910159,0.029297 c -0.54816,0.9124909 -1.12275,1.8723225 -1.824219,3.0917969 L 8.953125,9.044922 C 8.9179759,8.8260371 8.6155763,6.8406117 8.3925781,5.4121094 Z M 14.25,5.9414062 17.253906,10.076172 c -0.974617,0.383541 -2.067741,0.822576 -3.335937,1.357422 L 12.544922,8.8300781 C 13.197858,7.6963976 13.727398,6.8124081 14.25,5.9414062 Z m -6.515625,0.085938 c 0.1730431,1.105983 0.4631286,3.0145798 0.5,3.2421868 -1.1717711,0.14608 -2.1851276,0.22223 -3.1035156,0.271485 z m 4.205078,3.2441398 1.40625,2.669922 -2.076172,2.169922 -2.6953122,-1.322266 0.4199218,-2.998046 z m -3.7285155,0.748047 -0.4042969,2.90625 C 7.0867024,13.74694 6.3729257,14.449123 5.6914062,15.068359 L 4.6347656,10.302734 c 1.0333852,-0.03995 2.1898339,-0.113836 3.5761719,-0.283203 z m 9.0800785,0.867188 -0.896485,3.880859 c -0.611426,-0.737259 -1.280296,-1.631411 -1.976562,-2.728516 1.133285,-0.4731 1.969961,-0.795367 2.873047,-1.152343 z m -3.464844,1.626953 c 0.839602,1.317844 1.646544,2.366359 2.357422,3.166016 l -0.05273,0.226562 -4.585937,2.197266 c 0.02118,-0.979601 0.06357,-2.089692 0.15039,-3.363282 z m -5.5234376,0.966797 2.6464846,1.300781 c -0.08849,1.323856 -0.1333,2.490715 -0.152344,3.498047 L 5.9140625,15.871094 c 0.7578311,-0.671288 1.5718643,-1.46563 2.3886719,-2.390625 z"/>
 <path style="opacity:0.1;fill:#8b9cbe" d="M 11,1 A 10,10 0 0 0 1,11 10,10 0 0 0 1.01075,11.291 10,10 0 0 1 11,1.5 10,10 0 0 1 20.9895,11.209 10,10 0 0 0 21,11 10,10 0 0 0 11,1 Z"/>
 <path id="polygon154" style="fill:#afafaf" d="M 7.970997,3.9815725 C 7.8291195,3.9808225 7.69469,4.045 7.606086,4.155811 L 3.7549443,9.326573 C 3.6673073,9.436194 3.6339914,9.579588 3.6643213,9.716617 l 1.3431616,6.049308 c 0.03047,0.137306 0.1215735,0.253383 0.2477055,0.315612 l 5.5215166,2.720883 c 0.127688,0.06286 0.277162,0.06366 0.40551,0.0021 l 5.54979,-2.657326 c 0.127306,-0.06091 0.219977,-0.176433 0.251812,-0.31392 l 1.39488,-6.032126 C 18.410337,9.664474 18.378441,9.520825 18.291937,9.41038 L 14.480915,4.193752 C 14.393559,4.082089 14.25995,4.0164865 14.118179,4.015647 Z m 0.2196715,0.929195 5.6979305,0.03166 3.536012,4.8655405 -1.294589,5.598607 -5.145246,2.463754 -5.1198725,-2.52272 -1.246498,-5.615282 z"/>
 <path id="polygon156" style="fill:#afafaf" d="m 12.135575,7.9880015 a 0.37123149,0.37123149 0 0 0 -0.05896,0.00556 L 8.598595,8.607625 A 0.37123149,0.37123149 0 0 0 8.2953085,8.9217865 L 7.802074,12.451759 a 0.37123149,0.37123149 0 0 0 0.203964,0.384485 l 3.179559,1.561143 a 0.37123149,0.37123149 0 0 0 0.431611,-0.07637 l 2.450705,-2.560179 a 0.37123149,0.37123149 0 0 0 0.06017,-0.429676 L 12.469554,8.1859235 A 0.37123149,0.37123149 0 0 0 12.135575,7.9880015 Z M 11.939103,8.771714 13.346548,11.440882 11.26873,13.611257 8.574429,12.288394 8.9932305,9.291773 Z"/>
 <path style="fill:#afafaf" d="M 7.8671875,1.5166015 A 10,10 0 0 0 7.1552735,1.7783203 C 7.6770465,5.281127 8.155834,8.27867 8.2353515,8.769531 4.192698,9.273514 1.513664,9.074303 1.194336,9.047852 A 10,10 0 0 0 1.0830078,9.785156 C 1.3039274,9.804736 4.2884415,10.052591 8.711914,9.461914 L 8.663084,9.09375 9.029295,9.03418 c 0,0 -0.576421,-3.579413 -1.1621095,-7.5175784 z M 15.438476,2.0527344 C 15.345748,2.1996583 13.72322,4.7724145 11.727539,8.254883 l 0.643555,0.3691405 c 2.011284,-3.509698 3.665615,-6.129569 3.720703,-6.216797 A 10,10 0 0 0 15.438476,2.0527344 Z m 5.1875,6.2441406 c -0.182298,0.064622 -3.018557,1.072415 -6.924804,2.727539 l -0.396484,0.167969 0.224609,0.368164 c 1.339365,2.193568 2.624862,3.670334 3.581054,4.601562 0.883575,0.860507 1.447933,1.225535 1.53711,1.282227 a 10,10 0 0 0 0.448242,-0.590821 c -0.0087,-0.0053 -0.561498,-0.341018 -1.467774,-1.223632 -0.851291,-0.829066 -2.001266,-2.18531 -3.20996,-4.089844 3.448587,-1.439646 6.081959,-2.404601 6.375,-2.511718 A 10,10 0 0 0 20.625976,8.296875 Z M 7.991211,12.227539 c -1.9974635,2.331233 -4.1004727,3.909158 -5.1025391,4.600586 a 10,10 0 0 0 0.4541015,0.58789 C 4.3938515,16.687598 6.526144,15.077467 8.5546875,12.709961 Z m 2.981445,1.631836 c -0.257186,3.531213 -0.198798,6.168637 -0.163085,7.130859 A 10,10 0 0 0 11,21 10,10 0 0 0 11.552735,20.98047 c -0.03468,-0.911015 -0.09706,-3.522426 0.161132,-7.067383 z"/>
 <path style="opacity:0.1" d="M 8.4824219,8.499803 C 7.1959026,8.529846 6.2509844,9.469373 5.5332031,10.279101 4.8154218,11.088828 4.3359375,11.886523 4.3359375,11.886523 l 1.2832031,0.77539 c 0,0 0.4232678,-0.694246 1.0371094,-1.386718 0.6138416,-0.692473 1.4309429,-1.26534 1.8613281,-1.275391 0.304931,-0.0071 0.5579769,0.103401 0.8789059,0.363281 0.32093,0.259881 0.665992,0.663844 1.03125,1.105469 0.365259,0.441625 0.751355,0.920336 1.236328,1.318359 0.484974,0.398024 1.112268,0.722221 1.845704,0.712891 0.66767,-0.0085 1.243982,-0.276849 1.753906,-0.595703 0.336535,0.134194 0.698816,0.103655 0.976562,0.01758 0.38996,-0.120854 0.733757,-0.347475 1.042969,-0.65625 0.312667,-0.309178 0.542388,-0.654979 0.664063,-1.048828 0.121944,-0.394718 0.141841,-0.957979 -0.271485,-1.371094 -0.208777,-0.208557 -0.452746,-0.306222 -0.693359,-0.335937 -0.240613,-0.02972 -0.478441,0.0079 -0.673828,0.06836 -0.390509,0.120963 -0.735276,0.348632 -1.044922,0.658203 -0.311618,0.308816 -0.540712,0.653802 -0.66211,1.046875 -0.02419,0.07833 -0.03918,0.166698 -0.05273,0.255859 -0.437199,0.25381 -0.873227,0.45858 -1.058594,0.460938 -0.2997,0.0038 -0.554108,-0.109688 -0.875,-0.373047 -0.320891,-0.263359 -0.66507,-0.670543 -1.03125,-1.113281 C 11.217805,10.070738 10.830721,9.592988 10.341797,9.197069 9.852873,8.8011503 9.218604,8.4826131 8.4824219,8.499803 Z"/>
 <path style="fill:none;stroke:#e53a3f;stroke-width:1.5;stroke-linejoin:round" d="m 4.978302,11.774311 c 0,0 1.8047935,-2.9843524 3.521698,-3.0244464 2.082226,-0.04862 2.933728,3.5262844 5,3.4999994 1.211482,-0.01541 3,-1.749864 3,-1.749864"/>
 <path style="fill:#e53a3f" d="m 16.982002,9.01038 c -0.240613,-0.029716 -0.477515,0.0079 -0.672902,0.06838 -0.390509,0.120963 -0.734887,0.347474 -1.044533,0.657045 -1.34e-4,1.33e-4 -8.5e-4,-1.32e-4 -10e-4,0 -0.311618,0.308816 -0.540602,0.653443 -0.662,1.046516 -0.121883,0.394641 -0.141538,0.958493 0.271539,1.37157 0.417242,0.417023 0.97678,0.388696 1.367605,0.267575 0.38996,-0.120854 0.73334,-0.34728 1.042552,-0.656055 0.312667,-0.309178 0.542307,-0.654648 0.663982,-1.048497 0.121944,-0.394718 0.141787,-0.958455 -0.271539,-1.37157 -0.208777,-0.208557 -0.4531,-0.305249 -0.693713,-0.334964 z"/>
</svg>
