<svg xmlns="http://www.w3.org/2000/svg" width="22" height="22" version="1.1">
 <path style="opacity:0.2" d="M 10.000113,10.500113 A 9.9998872,4.9999436 0 0 0 2.253e-4,15.500056 9.9998872,4.9999436 0 0 0 10.000113,20.5 9.9998872,4.9999436 0 0 0 20,15.500056 9.9998872,4.9999436 0 0 0 10.000113,10.500113 Z"/>
 <path style="fill:#6f8a94" d="M 10.000113,10.000118 A 9.9998872,4.9999436 0 0 0 2.253e-4,15.000062 9.9998872,4.9999436 0 0 0 10.000113,20.000006 9.9998872,4.9999436 0 0 0 20,15.000062 9.9998872,4.9999436 0 0 0 10.000113,10.000118 Z"/>
 <path style="opacity:0.2" d="M 10.000113,5.5001692 A 9.9998872,4.9999436 0 0 0 2.253e-4,10.500113 9.9998872,4.9999436 0 0 0 10.000113,15.500056 9.9998872,4.9999436 0 0 0 20,10.500113 9.9998872,4.9999436 0 0 0 10.000113,5.5001692 Z"/>
 <path style="fill:#9daeb5" d="M 10.000113,5.0001749 A 9.9998872,4.9999436 0 0 0 2.253e-4,10.000118 9.9998872,4.9999436 0 0 0 10.000113,15.000062 9.9998872,4.9999436 0 0 0 20,10.000118 9.9998872,4.9999436 0 0 0 10.000113,5.0001749 Z"/>
 <path style="opacity:0.2" d="M 10.000113,0.5002256 A 9.9998872,4.9999436 0 0 0 2.253e-4,5.5001692 9.9998872,4.9999436 0 0 0 10.000113,10.500113 9.9998872,4.9999436 0 0 0 20,5.5001692 9.9998872,4.9999436 0 0 0 10.000113,0.5002256 Z"/>
 <path style="fill:#d1dbe0" d="M 10.000113,2.313e-4 A 9.9998872,4.9999436 0 0 0 2.253e-4,5.0001749 9.9998872,4.9999436 0 0 0 10.000113,10.000118 9.9998872,4.9999436 0 0 0 20,5.0001749 9.9998872,4.9999436 0 0 0 10.000113,2.313e-4 Z"/>
 <path style="opacity:0.2;fill:#8b9cbe" d="M 9.9998869,2.313e-4 A 9.9998872,4.9999436 0 0 0 0,5.0001749 9.9998872,4.9999436 0 0 0 0.0205076,5.209157 9.9998872,4.9999436 0 0 1 9.9998869,0.5002256 9.9998872,4.9999436 0 0 1 19.979267,5.29607 9.9998872,4.9999436 0 0 0 19.999774,5.0001749 9.9998872,4.9999436 0 0 0 9.9998869,2.313e-4 Z"/>
 <circle style="opacity:0.2" cx="16.5" cy="16" r="5.5"/>
 <circle style="fill:#44ad4d" cx="16.5" cy="15.5" r="5.5"/>
 <path style="fill:#8b9cbe" transform="matrix(0.92376041,0,0,1,-0.3137918,-2.6370316)" d="m 20.907793,18.137032 -2.165063,1.25 -2.165064,1.25 0,-2.500001 0,-2.5 2.165064,1.250001 z"/>
</svg>
