<svg xmlns="http://www.w3.org/2000/svg" width="22" height="22" version="1.1">
 <g transform="translate(0,-1100.5197)">
  <ellipse style="opacity:0.2" cx="11" cy="1112.02" rx="9.994" ry="10"/>
  <ellipse style="fill:#8e8e8e" cx="11" cy="1111.52" rx="9.994" ry="10"/>
  <path style="opacity:0.2;fill:#8b9cbe" d="m 11,1101.5197 a 9.9937132,10 0 0 0 -9.9937133,10 9.9937132,10 0 0 0 0.010735,0.291 9.9937132,10 0 0 1 9.9829783,-9.791 9.9937132,10 0 0 1 9.982978,9.709 9.9937132,10 0 0 0 0.01073,-0.209 9.9937132,10 0 0 0 -9.993713,-10 z"/>
  <ellipse style="opacity:0.1;stroke:#000000;stroke-width:0;stroke-linecap:round;stroke-linejoin:round" cx="11" cy="1116.77" rx="1.499" ry="1.25"/>
  <ellipse style="fill:#17191e" cx="11" cy="1116.27" rx="1.499" ry="1.25"/>
  <path style="opacity:0.1;fill-rule:evenodd" d="m 5.1638165,1105.0106 c -0.1601739,-0.019 -0.3238681,-0.016 -0.491878,0.012 v 0 c -0.3965853,0.065 -0.7185814,0.3448 -0.8939689,0.666 -0.1753875,0.3211 -0.2520903,0.6865 -0.2888808,1.0859 -0.073581,0.7988 0.025429,1.7503 0.1795746,2.6895 0.3082909,1.8783 0.8568828,3.6953 0.8568828,3.6953 a 0.49973563,0.50005 0 1 0 0.9564296,-0.2891 c 0,0 -0.5314185,-1.7755 -0.8256524,-3.5683 -0.1471172,-0.8963 -0.230442,-1.7986 -0.171767,-2.4356 0.029338,-0.3185 0.097677,-0.5671 0.169815,-0.6992 0.072139,-0.1321 0.1005082,-0.1449 0.1815264,-0.1582 0.2870768,-0.047 0.6181107,0.075 0.9974194,0.3848 0.3793088,0.3096 0.766758,0.7859 1.0989181,1.2812 0.6643203,0.9906 1.1086776,2.0352 1.1086776,2.0352 a 0.50029526,0.50060998 0 0 0 0.9212954,-0.3906 c 0,0 -0.4704795,-1.1127 -1.2004167,-2.2012 -0.3649686,-0.5442 -0.7948051,-1.0892 -1.2980116,-1.5 -0.3774049,-0.308 -0.8194415,-0.5532 -1.2999635,-0.6094 z m 11.6723455,0 c -0.480522,0.056 -0.922558,0.3013 -1.299965,0.6093 -0.503206,0.4108 -0.93304,0.9558 -1.298011,1.5 -0.729943,1.0885 -1.200417,2.2012 -1.200417,2.2012 a 0.50029572,0.50061044 0 0 0 0.921297,0.3906 c 0,0 0.444352,-1.0445 1.108676,-2.0351 0.332163,-0.4953 0.719607,-0.9717 1.098919,-1.2813 0.379311,-0.3096 0.710342,-0.4321 0.997419,-0.3847 0.08102,0.013 0.109388,0.026 0.181526,0.1582 0.07213,0.1321 0.140478,0.3807 0.169815,0.6992 0.05867,0.637 -0.02465,1.5392 -0.171767,2.4355 -0.294233,1.7928 -0.825652,3.5684 -0.825652,3.5684 a 0.49973563,0.50005 0 1 0 0.95643,0.2891 c 0,0 0.548591,-1.8171 0.856883,-3.6954 0.154144,-0.9392 0.253155,-1.8906 0.179574,-2.6894 -0.03679,-0.3994 -0.113493,-0.7648 -0.288881,-1.0859 -0.175387,-0.3212 -0.497383,-0.6006 -0.893969,-0.6661 v 0 c -0.168009,-0.028 -0.331704,-0.031 -0.491877,-0.012 z m -8.3346014,6.0078 a 1.499057,1.7500001 0 0 0 -1.499057,1.75 1.499057,1.7500001 0 0 0 1.499057,1.75 1.499057,1.7500001 0 0 0 1.4990574,-1.75 1.499057,1.7500001 0 0 0 -1.4990574,-1.75 z m 4.9968564,0 a 1.499057,1.7500001 0 0 0 -1.499057,1.75 1.499057,1.7500001 0 0 0 1.499057,1.75 1.499057,1.7500001 0 0 0 1.499057,-1.75 1.499057,1.7500001 0 0 0 -1.499057,-1.75 z m -8.3189853,3.8321 c -2.0588467,-4e-4 -4.79190731,0.6816 -4.79190731,0.6816 a 0.50041547,0.50073027 0 1 0 0.2381314,0.9727 c 0,0 2.72429191,-0.6546 4.55377591,-0.6543 0.7688215,10e-5 1.4415639,0.1257 1.9811756,0.2617 -0.7126373,-0.1263 -1.5988577,-0.1958 -2.5452739,-0.033 v 0 c -1.8854847,0.3242 -3.86280433,1.5098 -3.86280423,1.5098 a 0.50047462,0.50078946 0 1 0 0.50749313,0.8633 c 0,0 1.9368026,-1.1159 3.5231743,-1.3887 0.9197878,-0.1582 1.8310797,-0.06 2.4945245,0.084 0.08668,0.019 0.1252171,0.037 0.2029973,0.057 -0.2495106,-0.045 -0.5136992,-0.076 -0.7827107,-0.072 -2.1551878,0.031 -3.5583085,1.5468 -3.5583085,1.5468 a 0.49990889,0.50022337 0 1 0 0.7300096,0.6836 c 0,0 1.1511084,-1.2058 2.8419622,-1.2304 0.6652855,-0.01 1.5986035,0.3515 1.5986037,0.3515 a 0.49973563,0.50005 0 1 0 0.3825718,-0.9238 c 0,0 -0.1044934,-0.035 -0.1229695,-0.043 a 0.49973563,0.50005 0 0 0 0.052701,-0.012 c 5.897e-4,-10e-5 0.1597015,-0.07 0.1600555,-0.07 1.77e-4,-1e-4 0.1052842,-0.096 0.1054025,-0.096 1.182e-4,-2e-4 0.085823,-0.1483 0.085883,-0.1484 5.99e-5,-2e-4 0.029276,-0.1678 0.029279,-0.168 2e-6,-2e-4 -0.017511,-0.1346 -0.017567,-0.1348 -1.128e-4,-4e-4 -0.069925,-0.1518 -0.070268,-0.1523 -3.436e-4,-5e-4 -0.041131,-0.053 -0.056605,-0.068 -0.015474,-0.016 -0.028098,-0.028 -0.039038,-0.037 -0.021878,-0.018 -0.035492,-0.028 -0.048797,-0.037 -0.053223,-0.035 -0.081827,-0.046 -0.1171138,-0.062 -0.011087,-0.01 -0.029191,-0.012 -0.04099,-0.018 a 0.49973563,0.50005 0 0 0 0.095643,-0.9472 c 0,0 -1.5513271,-0.7126 -3.5290299,-0.7129 z m 11.6411153,0 c -1.977703,3e-4 -3.52903,0.7129 -3.52903,0.7129 a 0.49973563,0.50005 0 0 0 0.09174,0.9472 c -0.01058,0 -0.02708,0.011 -0.03709,0.016 -0.03529,0.017 -0.06389,0.029 -0.117113,0.064 -0.0133,0.01 -0.02692,0.019 -0.0488,0.037 -0.01094,0.01 -0.02357,0.021 -0.03904,0.037 -0.01547,0.016 -0.05626,0.066 -0.0566,0.066 -3.45e-4,5e-4 -0.07016,0.152 -0.07027,0.1524 -5.6e-5,2e-4 -0.01757,0.1345 -0.01757,0.1347 10e-7,2e-4 0.02922,0.1678 0.02928,0.168 6e-5,10e-5 0.08577,0.1482 0.08589,0.1484 1.18e-4,10e-5 0.105225,0.098 0.105402,0.098 3.54e-4,2e-4 0.159466,0.068 0.160056,0.068 a 0.49973563,0.50005 0 0 0 0.0566,0.012 c -0.01969,0.01 -0.126873,0.045 -0.126873,0.045 a 0.49973563,0.50005 0 1 0 0.382571,0.9238 c 0,0 0.933319,-0.3612 1.598604,-0.3515 1.690855,0.025 2.841963,1.2304 2.841963,1.2304 a 0.49990858,0.50022306 0 1 0 0.730008,-0.6836 c 0,0 -1.403119,-1.5155 -3.558307,-1.5468 -0.285714,0 -0.563311,0.032 -0.825653,0.082 0.09172,-0.024 0.140952,-0.046 0.245939,-0.068 0.663444,-0.1436 1.574737,-0.2422 2.494524,-0.084 1.586371,0.2728 3.523175,1.3887 3.523175,1.3887 a 0.50047458,0.50078942 0 1 0 0.507493,-0.8633 c 0,0 -1.977319,-1.1855 -3.862804,-1.5097 v 0 c -0.928095,-0.1596 -1.796941,-0.096 -2.502332,0.025 0.533898,-0.1318 1.188315,-0.2519 1.938234,-0.2519 1.829483,-3e-4 4.553775,0.6543 4.553775,0.6543 a 0.50041557,0.50073037 0 1 0 0.238132,-0.9727 c 0,0 -2.733062,-0.682 -4.791907,-0.6816 z"/>
  <path style="fill:none;stroke:#17191e;stroke-width:0.99968559;stroke-linecap:round;stroke-linejoin:round" d="m 5.003772,1112.5197 c 0,0 -2.160257,-7.1846 -0.2498428,-7.5 1.9182327,-0.3166 3.7476314,4 3.7476314,4"/>
  <path style="fill:none;stroke:#17191e;stroke-width:0.99968559;stroke-linecap:round;stroke-linejoin:round" d="m 8.5015716,1115.5197 c 0,0 -1.4648045,-0.6687 -3.3227277,-0.669 -1.9441655,-3e-4 -4.67224282,0.669 -4.67224282,0.669"/>
  <path style="fill:none;stroke:#17191e;stroke-width:0.99968559;stroke-linecap:round;stroke-linejoin:round" d="m 8.5015716,1116.5197 c 0.075506,-0.019 -1.7887487,-0.796 -3.8020712,-0.4497 -1.7359283,0.2985 -3.6932137,1.4497 -3.6932137,1.4497"/>
  <path style="fill:none;stroke:#17191e;stroke-width:0.99968559;stroke-linecap:round;stroke-linejoin:round" d="m 8.5015716,1117.5197 c 0,0 -0.9650829,-0.4002 -1.7962405,-0.3881 -1.9230208,0.028 -3.2006161,1.3881 -3.2006161,1.3881"/>
  <ellipse style="fill:#17191e" cx="8.502" cy="1112.27" rx="1.499" ry="1.75"/>
  <ellipse style="opacity:0.2" cx="9.001" cy="1112.77" rx=".5" ry=".75"/>
  <ellipse style="fill:#8b9cbe" cx="9.001" cy="1112.27" rx=".5" ry=".75"/>
  <path style="fill:none;stroke:#17191e;stroke-width:0.99968559;stroke-linecap:round;stroke-linejoin:round" d="m 16.996228,1112.5197 c 0,0 2.160257,-7.1846 0.249843,-7.5 -1.918233,-0.3166 -3.747654,4 -3.747654,4"/>
  <path style="fill:none;stroke:#17191e;stroke-width:0.99968559;stroke-linecap:round;stroke-linejoin:round" d="m 13.498428,1115.5197 c 0,0 1.464805,-0.6687 3.322728,-0.669 1.944165,-3e-4 4.672243,0.669 4.672243,0.669"/>
  <path style="fill:none;stroke:#17191e;stroke-width:0.99968559;stroke-linecap:round;stroke-linejoin:round" d="m 13.498428,1116.5197 c -0.0755,-0.019 1.788749,-0.796 3.802072,-0.4497 1.735928,0.2985 3.693213,1.4497 3.693213,1.4497"/>
  <path style="fill:none;stroke:#17191e;stroke-width:0.99968559;stroke-linecap:round;stroke-linejoin:round" d="m 13.498428,1117.5197 c 0,0 0.965083,-0.4002 1.79624,-0.3881 1.923022,0.028 3.200617,1.3881 3.200617,1.3881"/>
  <ellipse style="fill:#17191e" cx="13.498" cy="-1112.27" rx="1.499" ry="1.75" transform="scale(1,-1)"/>
  <ellipse style="opacity:0.2" cx="13.998" cy="-1112.77" rx=".5" ry=".75" transform="scale(1,-1)"/>
  <ellipse style="fill:#8b9cbe" cx="13.998" cy="-1112.27" rx=".5" ry=".75" transform="scale(1,-1)"/>
 </g>
</svg>
