<svg xmlns="http://www.w3.org/2000/svg" width="22" height="22" version="1">
 <circle style="opacity:0.2" cx="11" cy="11.5" r="10"/>
 <circle style="fill:#0068c8" cx="11" cy="11" r="10"/>
 <path style="fill:#8b9cbe" d="M 13.475,3.6406 C 13.168,3.6306 11.488,4.12 10.996,4.75 9.637,4.8508 4.5678,8.2444 1.0137,10.727 A 10,10 0 0 0 1,11 10,10 0 0 0 1.043,11.855 C 2.3624,11.374 3.6849,10.939 4.2871,10.939 4.4361,10.939 4.5438,10.969 4.5938,11.029 4.8827,11.369 3.6519,13.021 2.3809,14.891 2.2633,15.062 2.1486,15.237 2.0312,15.41 A 10,10 0 0 0 2.3926,16.064 C 3.9944,14.07 5.7404,11.969 6.2734,11.881 6.3044,11.881 6.3354,11.881 6.3574,11.891 6.4539,12.007 4.8305,14.625 3.2109,17.268 A 10,10 0 0 0 3.8887,18.025 C 4.5936,17.05 5.3153,16.049 6.0332,15.061 7.9432,12.421 9.631,9.959 10.455,9.939 H 10.531 C 12.873,9.958 15.152,15.36 16.518,19.332 A 10,10 0 0 0 17.227,18.826 C 16.525,14.344 15.067,7.963 12.242,6.0801 12.571,5.8601 12.598,4.7402 12.598,4.7402 Z"/>
 <path style="opacity:0.1;fill:#8b9cbe" d="M 11,1 A 10,10 0 0 0 1,11 10,10 0 0 0 1.0098,11.293 10,10 0 0 1 11,1.5 10,10 0 0 1 20.99,11.207 10,10 0 0 0 21,11 10,10 0 0 0 11,1 Z"/>
</svg>
