<svg xmlns="http://www.w3.org/2000/svg" width="22" height="22" version="1.1">
 <path style="opacity:0.2" d="M 14.008856,2.5045465 C 13.653895,2.5131065 13.288624,2.5530945 12.916169,2.627561 10.665189,3.0777077 9.138364,4.6464051 7.9015162,6.3472823 7.8903587,5.8780486 7.9556841,5.4182771 7.6966375,4.917972 7.2921401,4.1367538 6.2318934,3.503377 5.3883363,3.5023301 4.3016446,3.5009815 3.6359754,3.9803738 3.0624741,4.4942558 2.4889727,5.0081377 2.0181806,5.6517151 1.6575908,6.4214815 0.48821279,8.9179242 1.0628998,11.595898 1.9522261,13.898023 c 0.8893262,2.302125 2.1950691,4.35857 3.2156216,5.771914 a 1.9982559,1.9996722 0 0 0 3.469281,-1.929178 C 8.4387676,17.255534 8.3659718,16.905636 8.2234686,16.483278 c 0.099224,-0.0022 0.2000317,0.02157 0.2985378,0.01562 4.8076246,-0.289906 6.3069186,-0.842094 10.5893076,1.280912 a 1.9982559,1.9996722 0 0 0 2.175617,-3.321389 C 19.458089,12.914465 16.550401,10.745933 13.216659,9.9127462 14.099518,9.3917632 14.835898,8.930685 16.110327,8.1944511 16.747226,7.8265609 17.324892,7.3929602 17.708382,6.6030742 18.091872,5.8131882 17.971699,4.5962716 17.476186,3.9162833 16.48516,2.5563069 15.255235,2.4744953 14.008856,2.5045465 Z"/>
 <path style="fill:#124364" d="m 14.008856,2.0045461 c -0.354961,0.00856 -0.720232,0.048548 -1.092687,0.1230145 C 10.665189,2.5777073 9.138364,4.1464047 7.9015162,5.8472819 7.8903587,5.3780482 7.9556841,4.9182767 7.6966375,4.4179716 7.2921401,3.6367534 6.2318934,3.0033766 5.3883363,3.0023297 4.3016446,3.0009811 3.6359754,3.4803734 3.0624741,3.9942554 2.4889727,4.5081373 2.0181806,5.1517147 1.6575908,5.9214811 0.48821279,8.4179238 1.0628998,11.095898 1.9522261,13.398023 c 0.8893262,2.302125 2.1950691,4.35857 3.2156216,5.771914 a 1.9982559,1.9996722 0 0 0 3.469281,-1.929178 C 8.4387676,16.755534 8.3659718,16.405636 8.2234686,15.983278 c 0.099224,-0.0022 0.2000317,0.02157 0.2985378,0.01562 4.8076246,-0.289906 6.3069186,-0.842094 10.5893076,1.280912 a 1.9982559,1.9996722 0 0 0 2.175617,-3.321389 C 19.458089,12.414465 16.550401,10.245933 13.216659,9.4127462 14.099518,8.8917625 14.835898,8.4306846 16.110327,7.6944507 16.747226,7.3265605 17.324892,6.8929598 17.708382,6.1030738 18.091872,5.3131878 17.971699,4.0962712 17.476186,3.4162829 16.48516,2.0563065 15.255235,1.9744949 14.008856,2.0045461 Z"/>
 <path style="opacity:0.2" d="m 14.052734,4.5019533 c -0.240087,0.00578 -0.493033,0.032644 -0.75,0.083984 C 9.624226,5.3210373 7.2747808,10.863554 6.3007812,13.974609 8.9227252,9.6019322 11.076167,8.7881337 15.107422,6.4609377 16.837176,5.4624914 15.733348,4.4614609 14.052734,4.5019533 Z M 5.3730469,5.5000002 C 4.7872923,5.4992738 3.9541131,6.1966417 3.4511719,7.2695314 1.8515575,10.682044 4.8737091,15.868263 6.7753906,18.5 4.8471936,13.786647 5.4791668,11.559729 6.0195312,6.917969 6.1353863,5.9223082 5.8286338,5.5005652 5.3730469,5.5000002 Z m 5.6386721,6.0058588 c -0.741403,-0.03097 -1.455666,0.0698 -2.1171878,0.34375 C 6.9226678,12.666485 6.0848405,14.64297 8.390625,14.503906 13.093416,14.220522 15.370734,13.694936 20,15.988281 17.939041,14.249597 14.224466,11.640073 11.011719,11.505859 Z"/>
 <path style="fill:#3eb9ff" d="M 20,15.489 C 17.463435,13.349081 12.42264,9.8882212 8.8945254,11.349278 6.9226619,12.166154 6.0849674,14.142486 8.3907519,14.003422 13.093543,13.720038 15.370734,13.195655 20,15.489"/>
 <path style="fill:#007ae0" d="M 6.3,13.47371 C 7.2739995,10.362655 9.624418,4.8204542 13.302926,4.0853542 15.358661,3.6746327 17.085143,4.8190997 15.108281,5.9601812 11.077026,8.2873772 8.921944,9.1010332 6.3,13.47371"/>
 <path style="fill:#0055b2" d="M 6.774668,18 C 4.8729865,15.368263 1.8516433,10.181447 3.4512577,6.7689347 4.3453755,4.8615752 6.2836405,4.1429382 6.018829,6.4187342 5.4784645,11.060494 4.846471,13.286647 6.774668,18"/>
 <path style="opacity:0.1;fill:#8b9cbe" d="m 14.009766,2.0039064 c -0.354961,0.00856 -0.721295,0.04858 -1.09375,0.1230469 C 10.665036,2.5771 9.139192,4.1467793 7.9023438,5.8476564 7.8911863,5.3784227 7.9563122,4.9182741 7.6972656,4.417969 7.2927682,3.6367508 6.232229,3.0030002 5.3886719,3.0019533 4.3019802,3.0006047 3.6360013,3.4802588 3.0625,3.9941408 2.4889986,4.5080227 2.0187929,5.1521088 1.6582031,5.9218752 1.164088,6.9767353 0.99284089,8.0629927 1.0136719,9.1406252 1.0514779,8.2280206 1.2405222,7.3135599 1.6582031,6.4218752 2.0187929,5.6521088 2.4889986,5.0080227 3.0625,4.4941408 3.6360013,3.9802588 4.3019802,3.5006047 5.3886719,3.5019533 6.232229,3.5030002 7.2927682,4.1367507 7.6972656,4.917969 7.9563122,5.4182741 7.8911863,5.8784227 7.9023438,6.3476564 9.139192,4.6467793 10.665036,3.0771 12.916016,2.6269533 c 0.372455,-0.074467 0.738789,-0.1144868 1.09375,-0.1230469 1.246379,-0.030051 2.475771,0.052133 3.466796,1.4121094 0.23849,0.327277 0.383305,0.78144 0.433594,1.25 0.03285,-0.6342931 -0.109575,-1.305352 -0.433594,-1.75 C 16.485537,2.0560394 15.256145,1.9738552 14.009766,2.0039064 Z m -0.234375,7.5761718 c -0.16456,0.09859 -0.388036,0.231384 -0.558594,0.332031 3.333742,0.8331868 6.24147,3.0029188 8.070312,4.5468748 a 1.9982559,1.9996722 0 0 1 0.695313,1.28711 1.9982559,1.9996722 0 0 0 -0.695313,-1.78711 C 19.562173,12.502748 16.872078,10.503075 13.775391,9.5800782 Z M 8.2226562,16.482422 c 0.1425033,0.422358 0.2157015,0.772587 0.4140626,1.257812 a 1.9982559,1.9996722 0 0 1 0.1328124,0.517578 1.9982559,1.9996722 0 0 0 -0.1328124,-1.017578 c -0.1151337,-0.281636 -0.187146,-0.518914 -0.2558594,-0.75 -0.052834,-0.0051 -0.1056808,-0.009 -0.1582032,-0.0078 z"/>
 <path style="opacity:0.2;fill:#8b9cbe" d="m 14.052734,4.0019533 c -0.240087,0.00578 -0.493033,0.032644 -0.75,0.083984 C 9.624226,4.8210373 7.2747808,10.363554 6.3007812,13.474609 6.4210285,13.27407 6.5357876,13.115743 6.6542969,12.929688 7.7818788,9.7587312 10.003195,5.245306 13.302734,4.5859377 14.540967,4.3385474 15.654022,4.6567939 15.916016,5.1972658 16.213405,4.5113059 15.294291,3.9720394 14.052734,4.0019533 Z M 5.3730469,5.0000002 C 4.7872923,4.9992738 3.9541131,5.6966417 3.4511719,6.7695314 3.1051819,7.5076438 2.9853793,8.3310864 3.0136719,9.1914062 3.0424127,8.5128996 3.1728016,7.8633884 3.4511719,7.2695314 4.23223,5.6033544 5.8095132,4.8435912 6.0195312,6.1953127 6.0588502,5.3796369 5.7882005,5.000515 5.3730469,5.0000002 Z m 5.6386721,6.0058588 c -0.741403,-0.03097 -1.455666,0.0698 -2.1171878,0.34375 -1.2865275,0.532965 -2.0828151,1.555467 -1.8457031,2.166016 0.1773285,-0.57504 0.8704873,-1.262017 1.8457031,-1.666016 2.9284578,-1.212728 6.8800058,0.963667 9.5957028,2.962891 0.479003,0.194331 0.975438,0.411074 1.509766,0.675781 -2.060959,-1.738684 -5.775534,-4.348208 -8.988281,-4.482422 z m -5.5312502,1.353516 c -0.01934,1.555786 0.2119875,3.11368 0.9023437,5.070313 C 6.5141768,17.620954 6.6518976,17.829098 6.7753906,18 5.8440738,15.723456 5.5160639,14.027889 5.4804688,12.359375 Z"/>
</svg>
