<svg width="22" height="22" version="1.1" xmlns="http://www.w3.org/2000/svg">
 <path d="m8 15.5s-2 1-2 3c0 1 1 1 1 1h1v1s0 1 1 1h1c1 0 1-1 1-1s0 1 1 1h1c1 0 1-1 1-1v-1h1s1 0 1-1c0-2-2-3-2-3h-3z" style="opacity:.2"/>
 <path d="m8 15s-2 1-2 3c0 1 1 1 1 1h1v1s0 1 1 1h1c1 0 1-1 1-1s0 1 1 1h1c1 0 1-1 1-1v-1h1s1 0 1-1c0-2-2-3-2-3h-3z" style="fill:#faa7b0"/>
 <path d="m8 15s-2 1-2 3c0 0.091703 0.0159736 0.166533 0.03125 0.242188 0.1668946-1.82089 1.96875-2.742188 1.96875-2.742188h3 3s1.801855 0.921298 1.96875 2.742188c0.015276-0.075655 0.03125-0.150485 0.03125-0.242188 0-2-2-3-2-3h-3-3z" style="fill:#8b9cbe;opacity:.1"/>
 <ellipse cx="11" cy="9.5" rx="8" ry="7" style="opacity:.2"/>
 <ellipse cx="11" cy="9" rx="8" ry="7" style="fill:#fcd0d5"/>
 <path d="m6 9.9453125v4.5117185a8 7 0 0 0 2 1.027344v-5.5390625h-2zm8 0.0546875v5.484375a8 7 0 0 0 2-1.023437v-4.460938h-2z" style="fill:#b2e8fa"/>
 <path d="m7 8.5a2 2 0 0 0-2 2 2 2 0 0 0 2 2 2 2 0 0 0 2-2 2 2 0 0 0-2-2zm8 0a2 2 0 0 0-2 2 2 2 0 0 0 2 2 2 2 0 0 0 2-2 2 2 0 0 0-2-2z" style="opacity:.2"/>
 <circle cx="7" cy="10" r="2" style="fill:#2f2f2f"/>
 <circle cx="15" cy="10" r="2" style="fill:#2f2f2f"/>
 <path d="m9 13.5h4s0-3-2-3-2 3-2 3z" style="opacity:.2"/>
 <path d="m9 13h4s0-3-2-3-2 3-2 3z" style="fill:#2f2f2f"/>
 <rect x="9" y="12" width="4" height="1" style="fill:#8b9cbe"/>
 <circle cx="6.5" cy="9.5" r=".5" style="fill:#8b9cbe"/>
 <circle cx="14.5" cy="9.5" r=".5" style="fill:#8b9cbe"/>
 <path d="M 11 2 A 8 7 0 0 0 3 9 A 8 7 0 0 0 3.0117188 9.2929688 A 8 7 0 0 1 11 2.5 A 8 7 0 0 1 18.988281 9.2070312 A 8 7 0 0 0 19 9 A 8 7 0 0 0 11 2 z " style="fill:#8b9cbe;opacity:.2"/>
</svg>
