<svg xmlns="http://www.w3.org/2000/svg" width="22" height="22" version="1">
 <path style="opacity:0.2" d="m 16.961169,20.5 1.036869,-16 c 0.03583,-0.5529208 -0.41385,-0.8555726 -0.874749,-1 l -6.123247,-2 -6.1232463,2 C 4.4177868,3.6499233 3.9662144,3.9470792 4.0020462,4.5 l 1.0368698,16 c 0.03583,0.552921 0.3901383,1 0.8747495,1 l 10.1727535,0 c 0.484612,0 0.838918,-0.447079 0.87475,-1 z"/>
 <path style="fill:#ffd787" d="M 16.961169,20 17.998038,4 C 18.033868,3.4470792 17.584188,3.1444274 17.123289,3 L 11.000042,1 4.8767957,3 C 4.4177868,3.1499233 3.9662144,3.4470792 4.0020462,4 L 5.038916,20 c 0.03583,0.552921 0.3901383,1 0.8747495,1 l 10.1727535,0 c 0.484612,0 0.838918,-0.447079 0.87475,-1 z"/>
 <path style="opacity:0.2" d="m 10.250046,4.5 0.375,1.75 0.375,1.75 0.375,-1.75 0.375,-1.75 -0.75,0 z m -1.4375,0.5 -0.40625,0.3300781 -0.40625,0.3300781 0.75,1.1699219 L 9.500046,8 9.156296,6.5 Z m 4.375,0 -0.34375,1.5 -0.34375,1.5 0.75,-1.1699219 0.75,-1.1699219 -0.40625,-0.3300781 z m -4.6875,3.5 c -0.8284272,0 -1.5,1.119288 -1.5,2.5 0,1.380712 0.6715728,2.5 1.5,2.5 0.828427,0 1.5,-1.119288 1.5,-2.5 0,-1.380712 -0.671573,-2.5 -1.5,-2.5 z m 5,0 c -0.828428,0 -1.5,1.119288 -1.5,2.5 0,1.380712 0.671572,2.5 1.5,2.5 0.828427,0 1.5,-1.119288 1.5,-2.5 0,-1.380712 -0.671573,-2.5 -1.5,-2.5 z m -2.521484,3.001953 c -0.171171,0.0077 -0.320641,0.10752 -0.375,0.253906 l -0.416016,1.125 -0.416016,1.125 c -0.122016,0.330067 0.278033,0.618246 0.609375,0.439453 0.567936,-0.386993 0.666013,-0.307783 1.236329,0 0.331341,0.178794 0.731389,-0.109386 0.609374,-0.439453 l -0.416015,-1.125 -0.416016,-1.125 c -0.05929,-0.159694 -0.229302,-0.262578 -0.416015,-0.253906 z M 8.7148898,15.5 C 7.7651752,15.5 7.000046,16.169 7.000046,17 l 0,0.5 0,0.5 0,0.5 c 0,0.831 0.7651292,1.5 1.7148438,1.5 l 4.5703122,0 c 0.949715,0 1.714844,-0.669 1.714844,-1.5 l 0,-1.5 c 0,-0.766442 -0.653749,-1.387421 -1.5,-1.480469 l 0,-0.01953 -0.214844,0 -0.285156,0 -1.5,0 -0.5,0 -1.5,0 -0.5,0 z m 0,0.5 0.2851562,0 0,1.5 -1.5,0 0,-0.5 c 0,-0.524313 0.4999369,-1 1.2148438,-1 z m 0.7851562,0 1.5,0 0,1.5 -1.5,0 z m 2,0 1.5,0 0,1.5 -1.5,0 z m 2,0.03516 c 0.59213,0.08792 1,0.49772 1,0.964844 l 0,0.5 -1,0 z m -6,1.96484 1.5,0 0,1.5 -0.2851562,0 c -0.7149072,0 -1.2148438,-0.475687 -1.2148438,-1 z m 2,0 1.5,0 0,1.5 -1.5,0 z m 2,0 1.5,0 0,1.5 -1.5,0 z m 2,0 1,0 0,0.5 c 0,0.467124 -0.40787,0.876919 -1,0.964844 z"/>
 <path style="fill:#593333" d="m 10.250046,4 0.375,1.75 0.375,1.75 0.375,-1.75 0.375,-1.75 -0.75,0 z m -1.4375,0.5 -0.40625,0.3300781 -0.40625,0.3300781 0.75,1.1699219 L 9.500046,7.5 9.156296,6 Z m 4.375,0 -0.34375,1.5 -0.34375,1.5 0.75,-1.1699219 0.75,-1.1699219 -0.40625,-0.3300781 z M 8.500046,8 c -0.8284272,0 -1.5,1.119288 -1.5,2.5 0,1.380712 0.6715728,2.5 1.5,2.5 0.828427,0 1.5,-1.119288 1.5,-2.5 0,-1.380712 -0.671573,-2.5 -1.5,-2.5 z m 5,0 c -0.828428,0 -1.5,1.119288 -1.5,2.5 0,1.380712 0.671572,2.5 1.5,2.5 0.828427,0 1.5,-1.119288 1.5,-2.5 0,-1.380712 -0.671573,-2.5 -1.5,-2.5 z m -2.521484,3.001953 c -0.171171,0.0077 -0.320641,0.10752 -0.375,0.253906 l -0.416016,1.125 -0.416016,1.125 c -0.122016,0.330067 0.278033,0.618246 0.609375,0.439453 0.567936,-0.386993 0.666013,-0.307783 1.236329,0 0.331341,0.178794 0.731389,-0.109386 0.609374,-0.439453 l -0.416015,-1.125 -0.416016,-1.125 c -0.05929,-0.159694 -0.229302,-0.262578 -0.416015,-0.253906 z M 8.7148898,15 C 7.7651752,15 7.000046,15.669 7.000046,16.5 l 0,0.5 0,0.5 0,0.5 c 0,0.831 0.7651292,1.5 1.7148438,1.5 l 4.5703122,0 c 0.949715,0 1.714844,-0.669 1.714844,-1.5 l 0,-1.5 c 0,-0.766442 -0.653749,-1.387421 -1.5,-1.480469 l 0,-0.01953 -0.214844,0 -0.285156,0 -1.5,0 -0.5,0 -1.5,0 -0.5,0 z m 0,0.5 0.2851562,0 0,1.5 -1.5,0 0,-0.5 c 0,-0.524313 0.4999369,-1 1.2148438,-1 z m 0.7851562,0 1.5,0 0,1.5 -1.5,0 z m 2,0 1.5,0 0,1.5 -1.5,0 z m 2,0.03516 c 0.59213,0.08792 1,0.49772 1,0.964844 l 0,0.5 -1,0 z m -6,1.96484 1.5,0 0,1.5 -0.2851562,0 C 7.9999826,19 7.500046,18.524313 7.500046,18 Z m 2,0 1.5,0 0,1.5 -1.5,0 z m 2,0 1.5,0 0,1.5 -1.5,0 z m 2,0 1,0 0,0.5 c 0,0.467124 -0.40787,0.876919 -1,0.964844 z"/>
 <path style="opacity:0.2;fill:#8b9cbe" d="M 11.000046,1 4.8769991,3 c -0.4590089,0.1499233 -0.9108318,0.4470792 -0.875,1 l 0.023437,0.3515625 C 4.0770383,3.8995571 4.4641648,3.6348416 4.8769991,3.5 l 6.1230469,-2 6.123047,2 c 0.414534,0.1298985 0.80025,0.3987127 0.851562,0.8515625 L 17.998093,4 c 0.03583,-0.5529208 -0.414101,-0.8555726 -0.875,-1 L 11.000046,1 Z"/>
</svg>
