<svg width="22" height="22" version="1.1" xmlns="http://www.w3.org/2000/svg">
 <g>
  <path d="M 2.9,4 C 2.4014,4 2,4.3468885 2,4.777778 V 17.222222 C 2,17.653112 2.4014,18 2.9,18 h 14.85 c 0.4986,0 0.9,-0.346888 0.9,-0.777778 V 4.777778 C 18.65,4.3468885 18.2486,4 17.75,4 Z M 17.3,4 C 16.8014,4 16.4,4.3468885 16.4,4.777778 V 17.222222 C 16.4,17.653112 16.8014,18 17.3,18 h 1.8 C 19.5986,18 20,17.653112 20,17.222222 V 4.777778 C 20,4.3468885 19.5986,4 19.1,4 Z" style="fill:#49c940"/>
  <rect x="1" y="2.5" width="4" height="18" rx="1" ry="1" style="opacity:.2"/>
  <rect x="17" y="2.5" width="4" height="18" rx="1" ry="1" style="opacity:.2"/>
  <rect x="1" y="2" width="4" height="18" rx="1" ry="1" style="fill:#ff6801"/>
  <rect x="17" y="2" width="4" height="18" rx="1" ry="1" style="fill:#ff6801"/>
  <path d="m11.000001 7v7m0-7-6.0000005 7h12z" style="fill:none;stroke-linecap:round;stroke-linejoin:round;stroke-width:2;stroke:#17191e"/>
  <path d="m11 5.5c-1.104569 0-2 0.8954305-2 2s0.895431 2 2 2 2-0.8954305 2-2-0.895431-2-2-2zm-6 7c-1.1045695 0-2 0.895431-2 2s0.8954305 2 2 2 2-0.895431 2-2-0.8954305-2-2-2zm6 0c-1.104569 0-2 0.895431-2 2s0.895431 2 2 2 2-0.895431 2-2-0.895431-2-2-2zm6 0c-1.104569 0-2 0.895431-2 2s0.895431 2 2 2 2-0.895431 2-2-0.895431-2-2-2z" style="opacity:.2"/>
  <path d="m11 5c-1.104569 0-2 0.8954305-2 2s0.895431 2 2 2 2-0.8954305 2-2-0.895431-2-2-2zm-6 7c-1.1045695 0-2 0.895431-2 2s0.8954305 2 2 2 2-0.895431 2-2-0.8954305-2-2-2zm6 0c-1.104569 0-2 0.895431-2 2s0.895431 2 2 2 2-0.895431 2-2-0.895431-2-2-2zm6 0c-1.104569 0-2 0.895431-2 2s0.895431 2 2 2 2-0.895431 2-2-0.895431-2-2-2z" style="fill:#8b9cbe"/>
  <path d="m2 2c-0.554 0-1 0.446-1 1v0.5c0-0.554 0.446-1 1-1h2c0.554 0 1 0.446 1 1v-0.5c0-0.554-0.446-1-1-1z" style="fill:#8b9cbe;opacity:.1"/>
  <path d="m18 2c-0.554 0-1 0.446-1 1v0.5c0-0.554 0.446-1 1-1h2c0.554 0 1 0.446 1 1v-0.5c0-0.554-0.446-1-1-1z" style="fill:#8b9cbe;opacity:.1"/>
 </g>
</svg>
