<svg width="22" height="22" version="1.1" xmlns="http://www.w3.org/2000/svg">
 <path d="m11 20.5c9 0 9-8 9-8s1-9-9-9c-9 0-9 8-9 8s0 9 9 9z" style="opacity:.2"/>
 <path d="m11 20c9 0 9-8 9-8s1-9-9-9c-9 0-9 8-9 8s0 9 9 9z" style="fill:#4f4f4f"/>
 <path d="m6 4.5c-4 0-5 4-5 4s0 6 4 6c5 0 5-3 5-5 0-1-1-5-4-5zm11 1c-2 0-2 4-2 4s0 4 3 4c4 0 3-4 3-4s0-4-4-4z" style="opacity:.2"/>
 <path d="m11 3c-9 0-9 8-9 8s0.0060235 0.144341 0.0117188 0.265625c0.059795-1.14105 0.7552822-7.765625 8.9882812-7.765625 8.304613 0 9.010773 6.1453486 9.015625 8.25 0.076529-1.229081 0.176202-8.75-9.015625-8.75z" style="fill:#8b9cbe;opacity:.1"/>
 <path d="m5 14c5 0 5-3 5-5 0-1-1-5-4-5-4 0-5 4-5 4s0 6 4 6z" style="fill:#efefef"/>
 <path d="m18 13c-3 0-3-4-3-4s0-4 2-4c4 0 4 4 4 4s1 4-3 4z" style="fill:#efefef"/>
 <circle cx="19" cy="9" r="1" style="fill:#4f4f4f"/>
 <circle cx="5" cy="9" r="1" style="fill:#4f4f4f"/>
 <path d="M 6 4 C 2 4 1 8 1 8 C 1 8 1.0217289 8.2863254 1.0273438 8.4199219 C 1.0911705 8.1804219 2.127784 4.5 6 4.5 C 8.9576597 4.5 9.9661157 8.3753619 9.9941406 9.4433594 C 9.995873 9.2944074 10 9.1404718 10 9 C 10 8 9 4 6 4 z M 17 5 C 15 5 15 9 15 9 C 15 9 15.014106 9.1524433 15.015625 9.1992188 C 15.041097 8.4543355 15.240648 5.5 17 5.5 C 21 5.5 21 9.5 21 9.5 C 21 9.5 21.075264 9.8485288 21.097656 10.322266 C 21.143193 9.5939533 21 9 21 9 C 21 9 21 5 17 5 z " style="fill:#8b9cbe;opacity:.2"/>
</svg>
