<svg width="22" height="22" version="1.1" xmlns="http://www.w3.org/2000/svg">
 <g>
  <path d="m4 20.5c0 1 2 1 2 1h9s1 0 1-1-1-1-1-1-4 0-4-3c0-4 5-4 5-4s2 0 2-4c0-5-2-6-2-6s-2.5-1-10-1c-1 0-2 0-2 1s1 1 2 1 1 2 1 2v12.25c0 1.75-1 1.75-1 1.75s-2 0-2 1z" style="opacity:.2"/>
  <path d="m4 20c0 1 2 1 2 1h9s1 0 1-1-1-1-1-1-4 0-4-3c0-4 5-4 5-4s2 0 2-4c0-5-2-6-2-6s-2.5-1-10-1c-1 0-2 0-2 1s1 1 2 1 1 2 1 2v12.25c0 1.75-1 1.75-1 1.75s-2 0-2 1z" style="fill:#ec4040"/>
  <path d="m10 11.5s6 0 6-3.5-6-3.5-6-3.5 1 2 1 3.5-1 3.5-1 3.5z" style="opacity:.1"/>
  <path d="m10 11s6 0 6-3.5-6-3.5-6-3.5 1 2 1 3.5-1 3.5-1 3.5z" style="fill:#4f4f4f"/>
  <path d="M 6,1 C 5,1 4,1 4,2 4,2.094633 4.0161398,2.1724303 4.0332031,2.25 4.1964504,1.5078803 5.094633,1.5 6,1.5 c 7.5,0 10,1 10,1 0,0 1.906704,0.9839035 1.986328,5.71875 C 17.988008,8.1393183 18,8.0828263 18,8 18,3 16,2 16,2 16,2 13.5,1 6,1 Z m 5.021484,15.242188 C 11.016351,16.329719 11,16.408313 11,16.5 c 0,3 4,3 4,3 0,0 0.811562,0.0081 0.966797,0.75 C 15.983037,20.172383 16,20.094706 16,20 c 0,-1 -1,-1 -1,-1 0,0 -3.761818,-0.0089 -3.978516,-2.757812 z M 7,17.25 C 7,19 6,19 6,19 6,19 4,19 4,20 4,20.09462 4.032033,20.172441 4.064453,20.25 4.3746874,19.507838 6,19.5 6,19.5 c 0,0 1,0 1,-1.75 z" style="fill:#8b9cbe;opacity:.2"/>
 </g>
 <circle cx="16.5" cy="16.5" r="5.5" style="fill:#42a1cd"/>
 <path d="m16.5 14s-0.354375-7e-3 -0.723635 0.17775c-0.369255 0.1846-0.776365 0.655601-0.776365 1.32225h1c0-0.5 0.5-0.5 0.5-0.5s0.5 0 0.5 0.5c0 0.2639-0.0698 0.41145-0.203125 0.578099-0.133325 0.166701-0.34668 0.334-0.59668 0.5215s-0.536645 0.395201-0.77832 0.6973c-0.241675 0.302051-0.421875 0.717001-0.421875 1.203101v0.5h3v-1h-1.82422c0.01565-0.022 0.0094-0.0556 0.02735-0.0781 0.133325-0.1667 0.34668-0.334 0.59668-0.5215s0.536645-0.3952 0.77832-0.6973c0.241675-0.30205 0.421875-0.717 0.421875-1.2031 0-0.666649-0.40711-1.13765-0.776365-1.32225-0.369265-0.18465-0.72364-0.17775-0.72364-0.17775z" style="fill-rule:evenodd;fill:#8b9cbe"/>
</svg>
