<svg xmlns="http://www.w3.org/2000/svg" width="22" height="22" version="1.1">
 <path style="opacity:0.2" d="m 18.999999,19.5325 c -0.0017,1.4675 -0.353577,1.956847 -4.825685,1.956846 -1.271362,0 -2.818968,0.115194 -3.633734,-0.411992 -0.76933,-0.497788 -0.491851,-1.228334 -0.491851,-1.971806 0,-1.530856 1.453732,-2.605548 3.925556,-2.605548 2.471825,0 5.027559,1.5 5.025714,3.0325 z"/>
 <path style="fill:#d48003" d="m 18.999999,19.0325 c -0.0017,1.4675 -0.353577,1.956847 -4.825685,1.956846 -1.271362,0 -2.818968,0.115194 -3.633734,-0.411992 C 9.77125,20.079566 10.048729,19.34902 10.048729,18.605548 10.048729,17.074692 11.502461,16 13.974285,16 c 2.471825,0 5.027559,1.5 5.025714,3.0325 z"/>
 <path style="opacity:0.2" d="M 11,1.5000004 A 8.9999998,8.9999998 0 0 0 2.0000002,10.5 8.9999998,8.9999998 0 0 0 11,19.5 a 8.9999998,8.9999998 0 0 0 9,-9 8.9999998,8.9999998 0 0 0 -9,-8.9999996 z"/>
 <path style="fill:#fdc33b" d="M 11,1.0000004 A 8.9999998,8.9999998 0 0 0 2.0000002,10 8.9999998,8.9999998 0 0 0 11,19 8.9999998,8.9999998 0 0 0 20,10 8.9999998,8.9999998 0 0 0 11,1.0000004 Z"/>
 <ellipse style="opacity:0.1" cx="9.5" cy="9.5" rx="1.5" ry="2"/>
 <path style="opacity:0.2" d="m 10.999999,19.5325 c -0.0018,1.4675 -0.353577,1.956847 -4.8256851,1.956846 -1.2713615,0 -2.8189678,0.115194 -3.6337341,-0.411992 C 1.7712498,20.579566 2.0487288,19.84902 2.0487287,19.105548 2.0487284,17.574692 3.5024609,16.5 5.9742854,16.5 c 2.4718249,0 5.0275586,1.5 5.0257136,3.0325 z"/>
 <path style="fill:#d48003" d="m 10.999999,19.0325 c -0.0017,1.4675 -0.353577,1.956847 -4.8256851,1.956846 -1.2713615,0 -2.8189678,0.115194 -3.6337341,-0.411992 C 1.7712498,20.079566 2.0487288,19.34902 2.0487287,18.605548 2.0487284,17.074692 3.5024609,16 5.9742854,16 c 2.4718249,0 5.0275586,1.5 5.0257136,3.0325 z"/>
 <ellipse style="fill:#414141" cx="9.5" cy="9" rx="1.5" ry="2"/>
 <ellipse style="opacity:0.1" cx="14" cy="9.5" rx="1.5" ry="2"/>
 <ellipse style="fill:#414141" cx="14" cy="9" rx="1.5" ry="2"/>
 <path style="opacity:0.2;fill:#8b9cbe" d="M 11,1.0000003 A 8.9999998,8.9999998 0 0 0 2,10 8.9999998,8.9999998 0 0 0 2.00977,10.212891 8.9999998,8.9999998 0 0 1 11,1.5000003 8.9999998,8.9999998 0 0 1 19.990234,10.287109 8.9999998,8.9999998 0 0 0 20,10 8.9999998,8.9999998 0 0 0 11,1.0000003 Z"/>
</svg>
