<svg width="22" height="22" version="1.1" xmlns="http://www.w3.org/2000/svg">
 <path d="m11 18.5c-10 0-10-5-10-5s0-10 10-10 10 10 10 10 0 5-10 5z" style="opacity:.2"/>
 <path d="m11 18c-10 0-10-5-10-5s0-10 10-10 10 10 10 10 0 5-10 5z" style="fill:#4f4f4f"/>
 <path d="m4.9941406 9.5c-2 0-3 4 0 4h5s-2.5-4-5-4zm12 0c-2.5 0-5 4-5 4h5c3 0 2-4 0-4z" style="opacity:.2"/>
 <path d="m4.9933909 13h5.0066091s-2.5066091-4-5.0066091-4c-2 0-3 4 0 4z" style="fill:#f0b530"/>
 <path d="m16.993391 13h-4.993391s2.493391-4 4.993391-4c2 0 3 4 0 4z" style="fill:#f0b530"/>
 <path d="m5 9c-1.164144 0-1.9840095 1.35355-1.8789062 2.486328 0.1300585-0.995453 0.8775729-1.986328 1.8730468-1.986328 2 0 3.93625 2.476 4.65625 3.5h0.3496094s-2.5-4-5-4zm12 0c-2.5 0-5 4-5 4h0.337891c0.72-1.024 2.65625-3.5 4.65625-3.5 1.01309 0 1.766959 1.026145 1.876953 2.039062 0.136592-1.143077-0.688664-2.539062-1.871094-2.539062z" style="fill:#8b9cbe;opacity:.2"/>
 <path d="M 11 3 C 1 3 1 13 1 13 C 1 13 1.0066054 13.081683 1.015625 13.166016 C 1.1008619 11.582011 1.9716495 3.5 11 3.5 C 20.028351 3.5 20.899138 11.582011 20.984375 13.166016 C 20.993395 13.081683 21 13 21 13 C 21 13 21 3 11 3 z " style="fill:#8b9cbe;opacity:.2"/>
</svg>
