<svg xmlns="http://www.w3.org/2000/svg" width="22" height="22" version="1">
 <rect style="opacity:0.2" width="20" height="20" x="1" y="1.5" rx="1" ry="1"/>
 <path style="fill:#4f4f4f" d="M 2,1 C 1.446,1 1,1.446 1,2 V 16.05 H 21 V 2 C 21,1.446 20.554,1 20,1 Z"/>
 <path style="opacity:0.1;fill:#8b9cbe" d="M 2,1 C 1.446,1 1,1.446 1,2 v 0.5 c 0,-0.554 0.446,-1 1,-1 h 18 c 0.554,0 1,0.446 1,1 V 2 C 21,1.446 20.554,1 20,1 Z"/>
 <path style="opacity:0.2" d="m 14.484497,3.500002 c -0.818244,1.81e-4 -0.77784,0.042355 -1.195071,0.7048705 -1.20242,1.909292 -2.184948,3.3870875 -2.251824,3.3870875 -0.04407,0 -0.270808,-0.3010585 -0.503856,-0.669113 C 10.300698,6.554792 10.073226,6.2303465 10.028158,6.201863 9.983093,6.173358 9.912918,6.0594435 9.872246,5.9487825 9.831571,5.838122 9.678058,5.5702925 9.531102,5.353551 9.384142,5.1368055 9.233211,4.909145 9.195687,4.847657 8.700363,4.0360185 8.520051,3.765555 8.408255,3.6661005 8.291475,3.5622135 8.085403,3.5447285 6.7057275,3.5214825 5.392304,3.4993475 5.136064,3.5103175 5.136064,3.588943 c 0,0.158332 0.706544,1.1484895 0.8697835,1.2188915 0.096948,0.041805 0.169048,0.147342 0.195628,0.286612 0.0344,0.1802215 0.785364,1.3822135 1.4555955,2.3298395 0.2470165,0.3492595 0.984108,1.4499485 1.204532,1.798666 0.116476,0.184267 0.25464,0.368928 0.307032,0.410269 0.05239,0.04134 0.169392,0.210045 0.259988,0.375034 0.0906,0.164989 0.275844,0.450877 0.41164,0.635314 0.135796,0.18444 0.353364,0.512598 0.483468,0.729107 0.130104,0.216509 0.302484,0.436797 0.383119,0.489521 0.08064,0.05272 0.184132,0.184822 0.230008,0.293686 0.04587,0.108864 0.10396,0.197931 0.128996,0.197931 0.02504,0 0.644748,-0.880826 1.37724,-1.957428 0.732488,-1.076601 1.468246,-1.969361 1.512974,-1.984019 0.06214,-0.02037 0.08142,0.683748 0.08142,2.985721 0,1.656868 0.02044,3.032653 0.04545,3.057247 0.025,0.02458 0.612629,0.04467 1.427933,0.04467 1.081395,0 1.394679,-0.0098 1.489042,-0.06746 V 3.818707 C 16.982428,3.646932 16.948241,3.608308 16.881305,3.573093 16.679984,3.4671825 16.547369,3.484011 16.393841,3.634924 c -0.170724,0.1678195 -0.218664,0.1678195 -0.325284,0 -0.07945,-0.1250605 -0.159224,-0.134135 -1.177084,-0.134135 -0.155775,0 -0.290084,-8e-4 -0.406975,-8e-4 z M 5.16738,4.9092245 c -0.102852,0 -0.166828,0.806031 -0.167376,2.1074115 -3.44e-4,0.8462005 0.0174,1.0201385 0.115004,1.126148 0.108408,0.1177505 0.108408,0.1369975 0,0.317396 -0.165304,0.2750755 -0.149012,0.576543 0.03812,0.705657 L 5.306644,9.271811 5.174716,9.488214 c -0.122704,0.201438 -0.132964,0.379225 -0.14792,2.563267 -0.01184,1.731128 0.0049,2.360135 0.0637,2.397433 0.04383,0.0278 0.739804,0.04312 1.546612,0.03405 l 1.3669295,-0.01652 0.01772,-2.867043 0.01784,-2.867172 L 7.790402,8.363357 C 7.677704,8.141374 7.5437545,7.950532 7.4313155,7.7717945 7.3470635,7.573584 6.9704395,6.9931725 6.30274,6.032339 5.990876,5.5835645 5.683724,5.4532365 5.680816,5.768387 5.680016,5.866123 5.670656,5.867794 5.613652,5.781087 5.577292,5.725756 5.547036,5.5684895 5.546492,5.431599 5.545292,5.1836615 5.346232,4.909199 5.167368,4.909199 Z m 9.530596,1.096147 c 0.08568,0.00355 0.1266,0.085808 0.1266,0.249278 0,0.206656 -0.08393,0.2426765 -0.289975,0.124706 -0.15948,-0.091308 -0.151173,-0.241422 0.0184,-0.3306265 0.05785,-0.030435 0.106044,-0.045025 0.144984,-0.04336 z m -0.172703,0.991746 c 0.03244,-0.00275 0.0591,0.0012 0.07249,0.014275 0.01968,0.019345 0.01556,0.067284 -0.0092,0.1066265 -0.05531,0.087966 -0.309827,0.095401 -0.309827,0.00905 0,-0.054076 0.149276,-0.121706 0.246527,-0.129947 z m 1.838451,0.6619095 c 0.01656,0 0.03012,0.030195 0.03012,0.067068 0,0.03688 -0.03248,0.067068 -0.07222,0.067068 -0.03972,0 -0.05331,-0.0302 -0.03012,-0.067068 0.0232,-0.03688 0.05568,-0.067068 0.07223,-0.067068 z m 0.577148,0.195965 c 0.0118,0.00155 0.02492,0.00865 0.03892,0.02241 0.02208,0.021705 0.0268,0.094595 0.01052,0.162036 -0.02828,0.1171645 -0.03188,0.1172705 -0.08262,0.00235 -0.04348,-0.098468 -0.01792,-0.1937865 0.0332,-0.1867955 z M 9.028179,8.678938 c 0.04391,0.00275 0.06516,0.073217 0.06516,0.2153535 0,0.2675855 -0.01504,0.2835695 -0.133791,0.1429115 C 8.861379,8.9209225 8.888703,8.720884 9.008056,8.68182 9.015256,8.67947 9.021896,8.67867 9.028176,8.67907 Z m -2.670923,2.009954 c 0.066892,-0.0044 0.1297955,0.07676 0.1547115,0.21601 0.03232,0.180658 -0.097904,0.20145 -0.205084,0.03275 -0.064807,-0.102007 -0.06948,-0.162642 -0.01652,-0.214697 0.02196,-0.02158 0.044595,-0.0326 0.066896,-0.03405 z M 6.04516,11.188106 c 0.01996,-1.73e-4 0.04317,0.0023 0.06956,0.0072 0.127024,0.02386 0.153588,0.0634 0.128596,0.191903 -0.0246,0.126507 -0.074492,0.161777 -0.228272,0.161777 -0.108204,0 -0.196692,0.0302 -0.196692,0.06707 0,0.03688 -0.080556,0.06707 -0.178968,0.06707 -0.156472,0 -0.167524,-0.01344 -0.088084,-0.107547 0.04996,-0.05917 0.16122,-0.133836 0.247196,-0.165968 0.085976,-0.03213 0.1563155,-0.100296 0.1563155,-0.151427 0,-0.04602 0.03052,-0.06956 0.090349,-0.07008 z m 5.185669,0.119468 c 0.02924,-0.0044 0.05988,0.0084 0.07636,0.03456 0.02196,0.03496 0.01076,0.08111 -0.0248,0.102699 -0.03556,0.02159 -0.08251,0.0107 -0.104472,-0.02422 -0.02196,-0.03496 -0.01088,-0.0811 0.02464,-0.102702 0.0089,-0.0054 0.01848,-0.0089 0.02824,-0.01034 z M 7.3740275,11.78596 c 0.043255,-0.0052 0.082744,0.01506 0.08542,0.06484 0.002,0.03688 -0.047615,0.07751 -0.110208,0.09025 -0.071144,0.01447 -0.102416,-0.01065 -0.083289,-0.06707 0.01772,-0.05221 0.064821,-0.08284 0.108077,-0.08802 z"/>
 <path style="fill:#8b9cbe" d="m 14.484497,3.000002 c -0.818244,1.81e-4 -0.77784,0.042355 -1.195071,0.7048705 -1.20242,1.909292 -2.184948,3.3870875 -2.251824,3.3870875 -0.04407,0 -0.270808,-0.3010585 -0.503856,-0.669113 C 10.300698,6.054792 10.073226,5.7303465 10.028158,5.701863 9.983093,5.673358 9.912918,5.5594435 9.872246,5.4487825 9.831571,5.338122 9.678058,5.0702925 9.531102,4.853551 9.384142,4.6368055 9.233211,4.409145 9.195687,4.347657 8.700363,3.5360185 8.520051,3.265555 8.408255,3.1661005 8.291475,3.0622135 8.085403,3.0447285 6.7057275,3.0214825 5.392304,2.9993475 5.136064,3.0103175 5.136064,3.088943 c 0,0.158332 0.706544,1.1484895 0.8697835,1.2188915 0.096948,0.041805 0.169048,0.147342 0.195628,0.286612 0.0344,0.1802215 0.785364,1.3822135 1.4555955,2.3298395 0.2470165,0.3492595 0.984108,1.4499485 1.204532,1.798666 0.116476,0.184267 0.25464,0.368928 0.307032,0.410269 0.05239,0.04134 0.169392,0.210045 0.259988,0.375034 0.0906,0.164989 0.275844,0.450877 0.41164,0.635314 0.135796,0.18444 0.353364,0.512598 0.483468,0.729107 0.130104,0.216509 0.302484,0.436797 0.383119,0.489521 0.08064,0.05272 0.184132,0.184822 0.230008,0.293686 0.04587,0.108864 0.10396,0.197931 0.128996,0.197931 0.02504,0 0.644748,-0.880826 1.37724,-1.957428 0.732488,-1.0766015 1.468246,-1.969361 1.512974,-1.984019 0.06214,-0.02037 0.08142,0.683748 0.08142,2.985721 0,1.656868 0.02044,3.032653 0.04545,3.057247 0.025,0.02458 0.612629,0.04467 1.427933,0.04467 1.081395,0 1.394679,-0.0098 1.489042,-0.06746 V 3.318707 C 16.982428,3.146932 16.948241,3.108308 16.881305,3.073093 16.679984,2.9671825 16.547369,2.984011 16.393841,3.134924 c -0.170724,0.1678195 -0.218664,0.1678195 -0.325284,0 -0.07945,-0.1250605 -0.159224,-0.134135 -1.177084,-0.134135 -0.155775,0 -0.290084,-8e-4 -0.406975,-8e-4 z M 5.16738,4.4092245 c -0.102852,0 -0.166828,0.806031 -0.167376,2.1074115 -3.44e-4,0.8462005 0.0174,1.0201385 0.115004,1.126148 0.108408,0.1177505 0.108408,0.1369975 0,0.317396 -0.165304,0.2750755 -0.149012,0.5765425 0.03812,0.7056565 L 5.306644,8.7718105 5.174716,8.988214 c -0.122704,0.201438 -0.132964,0.379225 -0.14792,2.563267 -0.01184,1.731128 0.0049,2.360135 0.0637,2.397433 0.04383,0.0278 0.739804,0.04312 1.546612,0.03405 l 1.3669295,-0.01652 0.01772,-2.867043 0.01784,-2.867172 L 7.790402,7.863357 C 7.677704,7.641374 7.5437545,7.450532 7.4313155,7.2717945 7.3470635,7.073584 6.9704395,6.4931725 6.30274,5.532339 5.990876,5.0835645 5.683724,4.9532365 5.680816,5.268387 5.680016,5.366123 5.670656,5.367794 5.613652,5.281087 5.577292,5.225756 5.547036,5.0684895 5.546492,4.931599 5.545292,4.6836615 5.346232,4.409199 5.167368,4.409199 Z m 9.530596,1.096147 c 0.08568,0.00355 0.1266,0.085808 0.1266,0.249278 0,0.206656 -0.08393,0.2426765 -0.289975,0.124706 -0.15948,-0.091308 -0.151173,-0.241422 0.0184,-0.3306265 0.05785,-0.030435 0.106044,-0.045025 0.144984,-0.04336 z m -0.172703,0.991746 c 0.03244,-0.00275 0.0591,0.0012 0.07249,0.014275 0.01968,0.019345 0.01556,0.067284 -0.0092,0.1066265 -0.05531,0.087966 -0.309827,0.095401 -0.309827,0.00904 0,-0.054075 0.149276,-0.121706 0.246527,-0.129947 z m 1.838451,0.6619095 c 0.01656,0 0.03012,0.030195 0.03012,0.067068 0,0.03688 -0.03248,0.067068 -0.07222,0.067068 -0.03972,0 -0.05331,-0.0302 -0.03012,-0.067068 0.0232,-0.03688 0.05568,-0.067068 0.07223,-0.067068 z m 0.577148,0.195965 c 0.0118,0.00155 0.02492,0.00865 0.03892,0.02241 0.02208,0.021705 0.0268,0.094595 0.01052,0.162036 -0.02828,0.1171645 -0.03188,0.1172705 -0.08262,0.00235 -0.04348,-0.098468 -0.01792,-0.1937865 0.0332,-0.1867955 z M 9.028179,8.178938 c 0.04391,0.00275 0.06516,0.073217 0.06516,0.2153535 0,0.2675855 -0.01504,0.283569 -0.133791,0.1429115 C 8.861379,8.4209225 8.888703,8.220884 9.008056,8.18182 9.015256,8.17947 9.021896,8.17867 9.028176,8.17907 Z m -2.670923,2.009954 c 0.066892,-0.0044 0.1297955,0.07676 0.1547115,0.21601 0.03232,0.180658 -0.097904,0.20145 -0.205084,0.03275 -0.064807,-0.102007 -0.06948,-0.162642 -0.01652,-0.214697 0.02196,-0.02158 0.044595,-0.0326 0.066896,-0.03405 z M 6.04516,10.688106 c 0.01996,-1.73e-4 0.04317,0.0023 0.06956,0.0072 0.127024,0.02386 0.153588,0.0634 0.128596,0.191903 -0.0246,0.126507 -0.074492,0.161777 -0.228272,0.161777 -0.108204,0 -0.196692,0.0302 -0.196692,0.06707 0,0.03688 -0.080556,0.06707 -0.178968,0.06707 -0.156472,0 -0.167524,-0.01344 -0.088084,-0.107547 0.04996,-0.05917 0.16122,-0.133836 0.247196,-0.165968 0.085976,-0.03213 0.1563155,-0.100296 0.1563155,-0.151427 0,-0.04602 0.03052,-0.06956 0.090349,-0.07008 z m 5.185669,0.119468 c 0.02924,-0.0044 0.05988,0.0084 0.07636,0.03456 0.02196,0.03496 0.01076,0.08111 -0.0248,0.102699 -0.03556,0.02159 -0.08251,0.0107 -0.104472,-0.02422 -0.02196,-0.03496 -0.01088,-0.0811 0.02464,-0.102702 0.0089,-0.0054 0.01848,-0.0089 0.02824,-0.01034 z M 7.3740275,11.28596 c 0.043255,-0.0052 0.082744,0.01506 0.08542,0.06484 0.002,0.03688 -0.047615,0.07751 -0.110208,0.09025 -0.071144,0.01447 -0.102416,-0.01065 -0.083289,-0.06707 0.01772,-0.05221 0.064821,-0.08284 0.108077,-0.08802 z"/>
 <path style="fill:#f4be01" d="m 1,16 v 4 c 0,0.554 0.446,1 1,1 h 18 c 0.554,0 1,-0.446 1,-1 v -4 z"/>
 <path style="fill:#17191e" d="m 4.8277315,17 q 0.5588235,0 0.823529,0.214286 0.2689075,0.210083 0.2689075,0.638655 0,0.239496 -0.088235,0.399159 -0.088236,0.159664 -0.226891,0.256303 -0.1344535,0.09664 -0.285714,0.147059 L 6.142857,20 H 5.701681 L 4.97479,18.760504 H 4.3781515 V 20 H 4 v -3 z m -0.02101,0.327731 h -0.428571 v 1.113445 H 4.82773 q 0.365546,0 0.5336135,-0.142857 0.1680675,-0.147059 0.1680675,-0.428572 0,-0.294117 -0.176471,-0.415966 -0.1764705,-0.12605 -0.5462185,-0.12605 z"/>
 <path style="fill:#17191e" d="M 8.67647,20 H 7 v -3 h 1.67647 v 0.331932 H 7.378151 v 0.936975 H 8.60084 v 0.327731 H 7.378151 v 1.071429 H 8.67647 Z"/>
 <path style="fill:#17191e" d="m 12.003362,18.470588 q 0,0.760504 -0.415967,1.147059 Q 11.175631,20 10.436135,20 H 9.6 v -3 h 0.92437 q 0.44958,0 0.781513,0.168067 0.336133,0.168067 0.516806,0.495798 0.180672,0.327731 0.180673,0.806723 z m -0.39916,0.01261 q 0,-0.600841 -0.298319,-0.878151 -0.294118,-0.281513 -0.836135,-0.281513 H 9.978152 v 2.352941 h 0.407563 q 1.218487,0 1.218487,-1.193277 z"/>
 <path style="fill:#17191e" d="m 14.979006,17 v 1.914364 q 0,0.30663 -0.12431,0.555249 -0.124309,0.244475 -0.381215,0.389503 Q 14.216574,20 13.827072,20 13.271824,20 12.985912,19.701657 12.7,19.39917 12.7,18.906076 V 17 h 0.372929 v 1.918507 q 0,0.360498 0.190607,0.559393 0.194752,0.198895 0.584254,0.198895 0.401934,0 0.580111,-0.211326 0.18232,-0.215469 0.18232,-0.551105 V 17 Z"/>
 <path style="fill:#17191e" d="M 18.145027,20 H 17.722375 L 16.939226,18.715469 16.143646,20 H 15.75 l 0.982044,-1.541437 -0.91989,-1.417127 h 0.414365 l 0.725138,1.160221 0.729282,-1.160221 h 0.393646 l -0.915746,1.40884 z"/>
 <rect style="opacity:0.2;fill:#8b9cbe" width="20" height=".5" x="1" y="16"/>
</svg>
