<svg xmlns="http://www.w3.org/2000/svg" width="22" height="22" version="1">
 <rect style="opacity:0.2" width="20" height="20" x="1" y="1.5" rx="1" ry="1"/>
 <rect style="fill:#3c4164" width="20" height="20" x="1" y="1" rx="1" ry="1"/>
 <rect style="fill:#ff6a5b" width="4.281" height=".313" x="7.81" y="-.56" transform="matrix(0.70710678,0.70710678,0.70710678,-0.70710678,0,0)"/>
 <path style="opacity:0.2" d="m 14.729908,5.9194055 c 0.972681,-0.972681 1.102984,-2.4194058 1.102984,-2.4194058 0,0 -1.446724,0.1303032 -2.419405,1.1029843 -0.972681,0.972681 -0.683452,1.2728345 -0.319933,1.636354 0.36352,0.36352 0.663673,0.6527485 1.636354,-0.3199325 z"/>
 <path style="fill:#5f5f5f" d="m 8.4917055,9.073606 0.309383,0.602916 -0.293532,0.293532 1.1741305,1.17413 2.358897,-2.416242 0.992005,-2.188709 c 0.16257,-0.288298 0.143655,-0.310879 -0.07531,-0.5298475 L 12.787702,5.839812 C 12.555912,5.6126005 12.608259,5.69217 12.348243,5.7664555 l -1.297455,0.747944 z"/>
 <path style="fill:#797979" d="M 4.86007,5.3986305 10.22296,10.76152 12.357864,8.5634785 6.497731,3.7609696 Z"/>
 <rect style="opacity:0.2" width="1.222" height="3.818" x="7.61" y="-1.68" rx=".623" ry=".623" transform="matrix(0.70710678,0.70710678,0.70710678,-0.70710678,0,0)"/>
 <rect style="fill:#959595" width="1.222" height="3.818" x="7.25" y="-1.32" rx=".623" ry=".623" transform="matrix(0.70710678,0.70710678,0.70710678,-0.70710678,0,0)"/>
 <path style="fill:#ff5722" d="m 14.729908,5.4194055 c 0.972681,-0.972681 1.102984,-2.4194056 1.102984,-2.4194056 0,0 -1.446724,0.1303032 -2.419405,1.1029841 -0.972681,0.972681 -0.683452,1.2728345 -0.319933,1.636354 0.36352,0.36352 0.663673,0.6527485 1.636354,-0.3199325 z"/>
 <path style="fill:#ffee58" d="M 13.093428,5.739632 C 12.891445,5.537649 12.721327,5.3510755 12.768937,5.0619845 c 0.0088,-0.00896 0.01382,-0.016105 0.02293,-0.025225 0.713627,-0.713627 1.774955,-0.809508 1.774955,-0.809508 0,0 -0.09588,1.061328 -0.809508,1.774955 -0.03039,0.03039 -0.05506,0.049725 -0.0837,0.076822 -0.236396,-9.5e-4 -0.401061,-0.160272 -0.580185,-0.3393965 z"/>
 <rect style="opacity:0.2" width="1.222" height="3.818" x="11.39" y="-1.26" rx=".623" ry=".623" transform="matrix(0.70710678,0.70710678,0.70710678,-0.70710678,0,0)"/>
 <rect style="fill:#959595" width="1.222" height="3.818" x="11.03" y="-.91" rx=".623" ry=".623" transform="matrix(0.70710678,0.70710678,0.70710678,-0.70710678,0,0)"/>
 <rect style="fill:#ff6a5b" width="4.281" height=".313" x="-23.3" y="-.56" transform="rotate(-135)"/>
 <path style="fill:#5f5f5f" d="m 12.926395,13.508295 -0.602916,-0.309384 -0.293533,0.293533 -1.17413,-1.17413 2.416242,-2.358897 2.188709,-0.9920055 c 0.288298,-0.162571 0.310879,-0.1436555 0.529847,0.075314 l 0.169574,0.169574 c 0.227211,0.23179 0.147642,0.179442 0.07336,0.439458 l -0.747943,1.2974555 z"/>
 <path style="fill:#797979" d="M 16.601369,17.13993 11.23848,11.777041 13.436522,9.642136 18.23903,15.502269 Z"/>
 <path style="opacity:0.2" d="m 3.2050523,19.445153 c 0.1297881,0.09627 0.3821638,0.07341 0.7131923,-0.129567 L 7.05136,16.583785 c 0,0 1.1144845,-0.329599 1.5020605,-0.729245 0.372764,-0.38437 0.6564355,-1.465942 0.6564355,-1.465942 L 10.786447,14.27279 13.758463,11.140249 13.436838,10.142123 14.425217,9.087241 13.918988,8.581012 13.412759,8.074783 12.357877,9.063162 11.359752,8.7415375 8.22721,11.713554 8.111402,13.290144 c 0,0 -1.0815725,0.283671 -1.4659425,0.656435 -0.399646,0.387576 -0.729245,1.502061 -0.729245,1.502061 l -2.7318011,3.133115 c -0.2029797,0.331029 -0.2258406,0.583404 -0.1295669,0.713192 0.021799,0.02939 0.05498,0.04563 0.088289,0.06192 0.016285,0.03331 0.03253,0.06649 0.061917,0.08829 z"/>
 <rect style="opacity:0.2" width="1.222" height="3.818" x="-24.21" y="-1.68" rx=".623" ry=".623" transform="rotate(-135)"/>
 <rect style="fill:#959595" width="1.222" height="3.818" x="-23.86" y="-1.32" rx=".623" ry=".623" transform="rotate(-135)"/>
 <path style="fill:#959595" d="m 3.2050523,18.945153 c 0.1297881,0.09627 0.3821638,0.07341 0.7131923,-0.129567 L 7.05136,16.083785 c 0,0 1.1144845,-0.329599 1.5020605,-0.729245 0.372764,-0.38437 0.6564355,-1.465942 0.6564355,-1.465942 L 10.786447,13.77279 13.758463,10.640249 13.436838,9.642123 14.425217,8.5872405 13.918988,8.081012 13.412759,7.574783 12.357877,8.563162 11.359752,8.2415375 8.22721,11.213554 8.111402,12.790144 c 0,0 -1.0815725,0.283671 -1.4659425,0.656435 -0.399646,0.387576 -0.729245,1.502061 -0.729245,1.502061 l -2.7318011,3.133115 c -0.2029797,0.331029 -0.2258406,0.583404 -0.1295669,0.713192 0.021799,0.02939 0.05498,0.04563 0.088289,0.06192 0.016285,0.03331 0.03253,0.06649 0.061917,0.08829 z"/>
 <path style="opacity:0.4" d="m 7.3545205,15.631565 c 0.169953,-0.06878 0.610616,-0.48714 0.757088,-0.571337 l -1.171837,-1.171837 c -0.084197,0.146472 -0.502561,0.587135 -0.571337,0.757088 -0.2279865,0.541473 0.5345605,1.216438 0.986086,0.986086 z"/>
 <path style="opacity:0.2" d="M 16.580594,7.770092 C 17.553276,6.797411 19,6.667108 19,6.667108 c 0,0 -0.130303,1.4467245 -1.102984,2.419405 -0.972681,0.972682 -1.272835,0.683453 -1.636354,0.319933 -0.36352,-0.36352 -0.652748,-0.6636735 0.319932,-1.636354 z"/>
 <path style="fill:#ff5722" d="M 16.580594,7.270092 C 17.553276,6.297411 19,6.167108 19,6.167108 c 0,0 -0.130303,1.4467245 -1.102984,2.4194055 C 16.924335,9.559195 16.624181,9.269966 16.260662,8.906446 15.897142,8.5429265 15.607914,8.2427725 16.580594,7.270092 Z"/>
 <path style="fill:#ffee58" d="m 16.260368,8.906572 c 0.201983,0.201983 0.388556,0.372101 0.677647,0.324491 0.009,-0.0088 0.0161,-0.01382 0.02522,-0.02293 0.713627,-0.713627 0.809508,-1.7749545 0.809508,-1.7749545 0,0 -1.061328,0.09588 -1.774954,0.8095075 -0.03039,0.03039 -0.04972,0.055065 -0.07682,0.083703 9.5e-4,0.2363965 0.160272,0.401061 0.339397,0.5801855 z"/>
 <rect style="opacity:0.2" width="1.222" height="3.818" x="-20.43" y="-1.26" rx=".623" ry=".623" transform="rotate(-135)"/>
 <rect style="fill:#959595" width="1.222" height="3.818" x="-20.08" y="-.91" rx=".623" ry=".623" transform="rotate(-135)"/>
 <path style="opacity:0.2;fill:#8b9cbe" d="M 9.209856,13.888599 8.111402,12.790145 12.357877,8.563162 13.895345,8.104655 13.436838,9.642124 Z"/>
 <path style="opacity:0.1;fill:#8b9cbe" d="M 2,1 C 1.446,1 1,1.446 1,2 v 0.5 c 0,-0.554 0.446,-1 1,-1 h 18 c 0.554,0 1,0.446 1,1 V 2 C 21,1.446 20.554,1 20,1 Z"/>
</svg>
