<svg xmlns="http://www.w3.org/2000/svg" width="22" height="22" version="1.1">
 <rect style="opacity:0.2" width="19" height="20" x="-20.5" y="-21" rx="1.508" ry="1.519" transform="matrix(0,-1,-1,0,0,0)"/>
 <path style="fill:#0088b5" d="M 21,13.890323 V 2.5099502 C 21,1.6734464 20.321863,0.99999519 19.479511,0.99999519 H 2.5205484 c -0.8423507,0 -1.5204887,0.67345121 -1.5204887,1.50995501 V 13.890323 c 0,0.836542 0.678138,1.509956 1.5204887,1.509956 H 19.479511 C 20.321863,15.400279 21,14.726865 21,13.890323 Z"/>
 <path style="fill:#003c56;fill-rule:evenodd" d="m 16.518379,5.0001853 c -0.40473,1.1138894 -1.435204,2.6581255 -1.435203,2.6581255 0.588689,0.1644131 0.736177,0 0.736177,0 -0.294346,0.73041 -1.398052,1.5702394 -1.398052,1.5702394 0.551897,0.109609 1.214251,-0.109608 1.214251,-0.109608 -0.147159,0.73041 -1.839953,1.2426978 -1.839953,1.2426978 0.588694,0.292164 1.729478,0 1.729478,0 -0.404737,0.657351 -2.649455,1.240733 -2.649455,1.240733 0.66228,0.328827 2.391353,0.182934 2.391353,0.182934 -0.846245,1.022574 -1.775428,1.365876 -1.775428,1.365876 0,0 -0.563519,0.58943 -1.409784,-0.433144 0,0 0.965537,-0.171972 1.627802,-0.500571 0,0 -1.671815,-0.409371 -2.076548,-1.06672 0,0 1.139804,0.292164 1.728501,0 0,0 -1.691807,-0.511306 -1.838976,-1.2417168 0,0 0.662336,0.2192188 1.214252,0.1096088 0,0 -1.104677,-1.340023 -1.399029,-2.070433 0,0 0.147473,0.1644131 0.736176,0 0,0 -1.029504,-0.8341603 -1.434225,-1.9480498 -0.404728,1.1138895 -1.435203,1.9480498 -1.435203,1.9480498 0.588687,0.1644131 0.736177,0 0.736177,0 C 9.646344,8.678617 8.5426376,10.01864 8.5426376,10.01864 9.094535,10.12825 9.756891,9.9090312 9.756891,9.9090312 9.60973,10.639442 7.916936,11.150748 7.916936,11.150748 c 0.5886936,0.292164 1.729479,0 1.729479,0 -0.40474,0.657349 -2.6494554,1.241715 -2.6494554,1.241715 0.662281,0.328827 2.3913524,0.182555 2.3913524,0.182555 -0.8462455,1.022537 -2.0403731,1.234876 -2.0403734,1.234876 0,0 -0.7404761,0.28158 -1.58674,-0.741107 0,0 0.9655349,-0.171972 1.6278019,-0.500609 0,0 -1.6727889,-0.409333 -2.0775253,-1.06672 0,0 1.1407822,0.292164 1.7294785,0 0,0 -1.6918106,-0.511306 -1.8389764,-1.241716 0,0 0.6623371,0.219218 1.2142524,0.109609 0,0 -1.1046774,-0.6396998 -1.39903,-1.3701096 0,0 0.1474771,0.1644138 0.7361776,0 3.7e-6,0 -1.0304857,-0.8851472 -1.4352032,-1.9990366 -0.4047327,1.1138894 -1.4342255,1.9990366 -1.4342255,1.9990366 0.5886861,0.1644138 0.7361772,0 0.7361772,0 C 3.32578,9.7296512 2.2210959,10.369351 2.2210959,10.369351 c 0.5518978,0.109609 1.21523,-0.109609 1.21523,-0.109609 -0.1471634,0.73041 -1.839954,1.241716 -1.839954,1.241716 0.5886934,0.292164 1.7285006,0 1.7285006,0 -0.3129411,0.508282 -1.5417627,1.064867 -2.1664918,1.249464 v 0.199563 c 0.7782224,0.182556 1.9093678,0.07522 1.9093678,0.07522 C 2.6467893,13.534365 1.7224401,13.786918 1,14.021141 v 4.46924 c 0,0.836504 0.6779085,1.509615 1.5202594,1.509615 H 19.479708 c 0.842351,0 1.520258,-0.673111 1.520258,-1.509615 v -4.368513 c -1.073934,0.538707 -2.602528,0.740123 -2.602528,0.740123 0,0 0.40925,-1.910631 -0.437014,-2.933206 0,0 0.965536,-0.173106 1.627804,-0.501554 0,0 -1.671815,-0.408387 -2.076548,-1.065737 0,0 1.140782,0.292164 1.729479,0 0,0 -1.692789,-0.5122878 -1.839954,-1.2426978 0,0 0.662337,0.219217 1.214251,0.109608 0,0 -1.103698,-0.8398296 -1.398052,-1.5702396 0,0 0.146496,0.1644131 0.7352,0 0,0 -1.029504,-1.5441983 -1.434225,-2.6580877 z m 4.481587,6.8320637 c -0.349009,0.145515 -0.707824,0.240383 -0.707824,0.240383 0.173272,0.08617 0.46482,0.113767 0.707824,0.120193 v -0.360954 z m 0,0.962101 c -0.738892,0.308416 -1.626824,0.52015 -1.626824,0.52015 0.356345,0.176508 1.081282,0.210902 1.626824,0.209391 v -0.72939 z"/>
 <rect style="fill:#625323" width="1" height="4" x="14" y="16"/>
 <path style="opacity:0.2" d="M 20.999996,15.369652 V 8.6072564 c 0,-0.3061224 -0.0198,-1.1072562 -0.0198,-1.1072562 0,0 -0.746641,0.00189 -1.040284,0.00189 H 13.060076 C 12.472792,7.5018902 12,7.9945583 12,8.6065009 v 6.7624341 c 0,0.611942 0.472792,1.104611 1.060076,1.104611 h 6.879834 c 0.293643,0 1.040286,0.02645 1.040286,0.02645 0,0 0.0198,-0.82449 0.0198,-1.130499 z"/>
 <path style="fill:#08c688" d="M 20.999996,14.869652 V 8.1072565 c 0,-0.3061225 -0.0198,-1.1072563 -0.0198,-1.1072563 0,0 -0.746641,0.00189 -1.040284,0.00189 H 13.060076 C 12.472792,7.0018902 12,7.4945584 12,8.106501 v 6.762434 c 0,0.611943 0.472792,1.104611 1.060076,1.104611 h 6.879834 c 0.293643,0 1.040286,0.02645 1.040286,0.02645 0,0 0.0198,-0.82449 0.0198,-1.130499 z"/>
 <path style="opacity:0.2" d="M 14.1875,8.4999962 C 13.550148,8.4999962 13,8.9241733 13,9.4931442 v 5.0136648 c 0,0.56901 0.550148,0.993187 1.1875,0.993187 H 21 v -0.498068 h -6.811523 c -0.415678,0 -0.686523,-0.248693 -0.686523,-0.495119 V 9.4911782 c 0,-0.246424 0.270844,-0.4911874 0.686523,-0.4911874 H 21 V 8.4999962 Z"/>
 <path style="fill:#8b9cbe" d="M 14.1875,7.9999962 C 13.550147,7.9999962 13,8.4241733 13,8.9931822 v 5.0136648 c 0,0.569009 0.550147,0.993149 1.1875,0.993149 H 21 v -0.49803 h -6.811524 c -0.415677,0 -0.686523,-0.248693 -0.686523,-0.495119 V 8.9912168 c 0,-0.2464256 0.270844,-0.4912261 0.686523,-0.4912261 H 21 V 7.9999962 Z"/>
 <path style="opacity:0.2;fill:#8b9cbe" d="M 2.5214844,0.99999619 C 1.6791337,0.99999619 1,1.673258 1,2.5097618 v 0.5 C 1,2.173258 1.6791337,1.4999962 2.5214844,1.4999962 H 19.480469 C 20.322821,1.4999962 21,2.173258 21,3.0097618 v -0.5 C 21,1.673258 20.322821,0.99999619 19.480469,0.99999619 Z"/>
</svg>
