<svg width="22" height="22" version="1.1" xmlns="http://www.w3.org/2000/svg">
 <g transform="translate(-1,-1.0000001)">
  <path d="m8 2.5000001c-0.4499075-1.21e-4 -0.8761165 0.2016921-1.161133 0.549805l-4.4999998 5.4999994c-0.3432689 0.4198055-0.4332521 0.9921885-0.2353516 1.4970705l4.4999999 11.5c0.225079 0.574752 0.7792325 0.952971 1.3964845 0.953125h8c0.617252-1.54e-4 1.171405-0.378373 1.396484-0.953125l4.5-11.5c0.197901-0.504882 0.107918-1.077265-0.235351-1.4970705l-4.5-5.4999994c-0.285016-0.3481129-0.711225-0.549926-1.161133-0.549805l-4 8.4999999z" style="opacity:.2"/>
  <path d="m8 2.0000001c-0.4499075-1.21e-4 -0.8761165 0.2016921-1.161133 0.549805l-4.4999998 5.4999994c-0.3432689 0.4198055-0.4332521 0.9921885-0.2353516 1.4970705l4.4999999 11.5c0.225079 0.574752 0.7792325 0.952971 1.3964845 0.953125h8c0.617252-1.54e-4 1.171405-0.378373 1.396484-0.953125l4.5-11.5c0.197901-0.504882 0.107918-1.077265-0.235351-1.4970705l-4.5-5.4999994c-0.285016-0.3481129-0.711225-0.549926-1.161133-0.549805l-4 8.4999999z" style="fill:#4f4f4f"/>
  <path d="m8 2.0000001c-0.4499075-1.21e-4 -0.8761165 0.2016921-1.161133 0.549805l-4.4999998 5.4999994c-0.2761087 0.337671-0.3850677 0.7737645-0.3154297 1.194336 0.0433189-0.2504765 0.1488228-0.4905815 0.3154297-0.694336l4.4999998-5.4999994c0.2850165-0.3481129 0.7112255-0.549926 1.161133-0.549805l4 8.4999999 4-8.4999999c0.449908-1.21e-4 0.876117 0.2016921 1.161133 0.549805l4.5 5.4999994c0.166607 0.2037545 0.27211 0.4438595 0.315429 0.694336 0.06964-0.4205715-0.03932-0.856665-0.315429-1.194336l-4.5-5.4999994c-0.285016-0.3481129-0.711225-0.549926-1.161133-0.549805l-4 8.4999999z" style="fill:#8b9cbe;opacity:.1"/>
  <path d="m8 2.5000001-2 3 2 1.4999999-1 1 5 6 5-6-1-1 2-1.4999999-2-3h-4z" style="opacity:.2"/>
  <path d="m8 2.0000001-2 3 2 1.4999999-1 1 5 6 5-6-1-1 2-1.4999999-2-3h-4z" style="fill:#696969"/>
  <path d="m 8,2.0000001 -2,3 L 6.222656,5.1669922 8,2.5000001 h 4 4 L 17.777344,5.1669921 18,5.0000001 l -2,-3 H 12 Z M 7.713867,6.786133 7,7.5 7.227539,7.772461 8,7 Z m 8.572266,0 L 16,7 16.772461,7.772461 17,7.5 Z" style="fill:#8b9cbe;opacity:.1"/>
  <path d="m8 2.0000001h8l-4 11.5z" style="fill:#b2bfd9"/>
  <path d="m10 4.5 1 2.9999999v10l1 1 1-1v-10l1-2.9999999z" style="opacity:.2"/>
  <path d="m10 4.0000001 1 2.9999999v10l1 1 1-1v-10l1-2.9999999z" style="fill:#d32a2c"/>
  <path d="m11 6.9999999h2l1-2.9999999h-4z" style="opacity:.2"/>
  <path d="M 8,2.5 9,6.4999999 12,4.5 15,6.4999999 16,2.5 Z" style="opacity:.2"/>
  <path d="M 8,2.0000001 9,6 12,4.0000001 15,6 16,2.0000001 Z" style="fill:#8b9cbe"/>
 </g>
</svg>
