<svg xmlns="http://www.w3.org/2000/svg" width="22" height="22" version="1">
 <rect style="opacity:0.2" width="20" height="20" x="1" y="1.5" rx="1" ry="1"/>
 <rect style="fill:#efe1cb" width="20" height="20" x="1" y="1" rx="1" ry="1"/>
 <path style="fill:#d8b67e" d="M 3.5,1 1,3.5 3.5,6 6,3.5 Z M 6,3.5 8.5,6 11,3.5 8.5,1 Z m 5,0 L 13.5,6 16,3.5 13.5,1 Z m 5,0 L 18.5,6 21,3.5 18.5,1 Z M 18.5,6 16,8.5 18.5,11 21,8.5 Z m 0,5 -2.5,2.5 2.5,2.5 2.5,-2.5 z m 0,5 L 16,18.5 18.5,21 21,18.5 Z M 16,18.5 13.5,16 11,18.5 13.5,21 Z m -5,0 L 8.5,16 6,18.5 8.5,21 Z M 6,18.5 3.5,16 1,18.5 3.5,21 Z M 3.5,16 6,13.5 3.5,11 1,13.5 Z M 3.5,11 6,8.5 3.5,6 1,8.5 Z M 6,8.5 8.5,11 11,8.5 8.5,6 Z m 5,0 L 13.5,11 16,8.5 13.5,6 Z M 13.5,11 11,13.5 13.5,16 16,13.5 Z M 11,13.5 8.5,11 6,13.5 8.5,16 Z"/>
 <path style="opacity:0.1" d="M 3.5,1 1,3.5 1.25,3.75 3.5,1.5 5.75,3.75 6,3.5 Z M 6,3.5 6.25,3.75 8.5,1.5 10.75,3.75 11,3.5 8.5,1 Z m 5,0 0.25,0.25 L 13.5,1.5 15.75,3.75 16,3.5 13.5,1 Z m 5,0 0.25,0.25 L 18.5,1.5 20.75,3.75 21,3.5 18.5,1 Z M 3.5,6 1,8.5 1.25,8.75 3.5,6.5 5.75,8.75 6,8.5 Z M 6,8.5 6.25,8.75 8.5,6.5 10.75,8.75 11,8.5 8.5,6 Z m 5,0 0.25,0.25 L 13.5,6.5 15.75,8.75 16,8.5 13.5,6 Z m 5,0 0.25,0.25 L 18.5,6.5 20.75,8.75 21,8.5 18.5,6 Z M 3.5,11 1,13.5 1.25,13.75 3.5,11.5 5.75,13.75 6,13.5 Z M 6,13.5 6.25,13.75 8.5,11.5 10.75,13.75 11,13.5 8.5,11 Z m 5,0 0.25,0.25 2.25,-2.25 2.25,2.25 L 16,13.5 13.5,11 Z m 5,0 0.25,0.25 2.25,-2.25 2.25,2.25 L 21,13.5 18.5,11 Z M 3.5,16 1,18.5 1.25,18.75 3.5,16.5 5.75,18.75 6,18.5 Z M 6,18.5 6.25,18.75 8.5,16.5 10.75,18.75 11,18.5 8.5,16 Z m 5,0 0.25,0.25 2.25,-2.25 2.25,2.25 L 16,18.5 13.5,16 Z m 5,0 0.25,0.25 2.25,-2.25 2.25,2.25 L 21,18.5 18.5,16 Z"/>
 <path style="opacity:0.1" d="M 12.126953,4.5 8.5917969,4.50195 C 8.0002414,4.4732591 8.0996094,4.9726562 8.0996094,4.9726562 l 0.4511718,1.0996094 c 1e-7,0 -3.6831331,4.0475904 -2.1972656,5.5390624 1.5895805,1.595575 4.0018024,-2.159255 4.4726564,-1.292969 1.029063,1.893289 -2.7019472,5.209763 -3.8984376,6.210938 C 6.4048376,16.603317 6,16.998706 6,17.5 c 0,0.554 0.4862476,1 1.0898438,1 H 14.910156 C 15.513752,18.5 16,18.054 16,17.5 16,17.048338 15.671018,16.683528 15.224609,16.558594 14.917718,16.211705 14.465883,15.775017 14.482422,15.328125 14.537462,13.841014 16.0401,11.62859 16,9.529297 15.954067,7.1243854 14.587782,4.983367 12.126953,4.5 Z"/>
 <rect style="fill:#514e48" width="10" height="2" x="6" y="16" rx="1.09" ry="1.163"/>
 <path style="fill:#514e48" d="M 8.5922265,4.0012095 12.126798,4 C 14.587627,4.483367 15.954067,6.6242875 16,9.029199 c 0.0401,2.099293 -1.462181,4.312179 -1.517221,5.79929 C 14.458019,15.49751 15.509658,16.161966 15.5,16.5 L 6.4119155,16.46576 c 0,0 5.6244065,-4.420068 4.4135845,-6.64776 C 10.354646,8.951714 7.942682,12.707075 6.3531015,11.1115 4.867234,9.620028 8.5514335,5.571499 8.5514335,5.571499 L 8.0991,4.4726065 c 0,0 -0.098429,-0.500089 0.4931265,-0.471395 z"/>
 <path style="opacity:0.2;fill:#8b9cbe" d="M 2,1 C 1.446,1 1,1.446 1,2 v 0.5 c 0,-0.554 0.446,-1 1,-1 h 18 c 0.554,0 1,0.446 1,1 V 2 C 21,1.446 20.554,1 20,1 Z"/>
</svg>
