<svg xmlns="http://www.w3.org/2000/svg" height="22" width="22" version="1.1">
 <rect style="opacity:.2" ry="1" height="5" width="14" y="11.5" x="4"/>
 <path style="opacity:.2" d="m11 1.5c6 0 6 3 6 3v14l-6 3-6-3v-14s0-3 6-3z"/>
 <path style="opacity:.1;fill:#8b9cbe" d="m5 11c-0.554 0-1 0.446-1 1v0.5c0-0.554 0.446-1 1-1h12c0.554 0 1 0.446 1 1v-0.5c0-0.554-0.446-1-1-1h-12z"/>
 <rect style="fill:#d01818" ry="1" height="5" width="14" y="11" x="4"/>
 <path style="fill:#f15555" d="m11 1c6 0 6 3 6 3v14l-6 3-6-3v-14s0-3 6-3z"/>
 <path style="opacity:.2" d="m9 5.5v6h-4v5h4v4l2 1 2-1v-4h4v-5h-4v-6l-2 2z"/>
 <path style="fill:#b2bfd9" d="m9 5v6h-4v5h4v4l2 1 2-1v-4h4v-5h-4v-6l-2 2-2-2z"/>
 <path style="fill:#17191e" d="m7.0644531 12.064453a1.5 1.5 0 0 0 -1.0644531 1.435547 1.5 1.5 0 0 0 1.5 1.5 1.5 1.5 0 0 0 1.4335938 -1.066406l-1.8691407-1.869141zm7.8691409 0.001953l-1.869141 1.869141a1.5 1.5 0 0 0 1.435547 1.064453 1.5 1.5 0 0 0 1.5 -1.5 1.5 1.5 0 0 0 -1.066406 -1.433594z"/>
 <path style="opacity:.2;fill:#8b9cbe" d="m11 1c-6 0-6 3-6 3v0.5s0-3 6-3 6 3 6 3v-0.5s0-3-6-3z"/>
</svg>
