<svg width="22" height="22" version="1.1" xmlns="http://www.w3.org/2000/svg">
 <g transform="translate(-1 -.9756097)">
  <path d="m11 2.5-1 1-1 0.9512195-1 1.0487805-1 1.8780488-2 5.1219512-1 1.707317v1.463415l-1 1.902438v2.92683l4.5-0.439024 4.5-3.902439 4.5 3.902439 4.5 0.439024v-3l-1-1.829268v-2.170732l-1-1-2-5.1219512-1-1.8780488-3-3z" style="opacity:.2"/>
  <path d="M 11,2 10,3 9,3.9512195 8,5 7,6.8780488 5,12 4,13.707317 v 1.463415 L 3,17.07317 V 20 L 7.5,19.560976 12,15.658537 16.5,19.560976 21,20 V 17 L 20,15.170732 V 13 L 19,12 17,6.8780488 16,5 15,4 14,3 13,2 Z" style="fill:#922292"/>
  <path d="m11 2-1 1-1 0.9511719-1 1.0488281-1 1.8789062-2 5.1210938-1 1.707031v0.5l1-1.707031 2-5.1210938 1-1.8789062 1-1.0488281 1-0.9511719 1-1h2l3 3 1 1.8789062 2 5.1210938 1 1v-0.5l-1-1-2-5.1210938-1-1.8789062-3-3zm-7 13.169922-1 1.902344v0.5l1-1.902344zm16 0v0.5l1 1.830078v-0.5z" style="fill:#8b9cbe;opacity:.1"/>
  <path d="m10.5 15.482422c-0.5 0-2 1.051734-2.5 2.027344h-2c-1 0-1.9729535 0.411589-2.5 0.925781-0.5 0.487805-0.5 2.064453-0.5 2.064453s0.2198506 0.425905 1.1738281 0.728516a2.5 2 0 0 0 2.3261719 1.271484 2.5 2 0 0 0 2.5-2 2.5 2 0 0 0-0.00195-0.0293c0.1721401-0.133554 0.283708-0.214977 0.361325-0.285153a3 2.5 0 0 0 2.640625 1.314453 3 2.5 0 0 0 2.638672-1.316406c0.07719 0.06987 0.189875 0.150577 0.363281 0.285156a2.5 2 0 0 0-0.001953 0.03125 2.5 2 0 0 0 2.5 2 2.5 2 0 0 0 2.320312-1.257812c0.958463-0.288229 1.179688-0.69336 1.179688-0.69336s0-1.576648-0.5-2.064453c-0.527047-0.514192-1.5-0.974609-2.5-0.974609h-2c-0.5-0.97561-2-2.027344-2.5-2.027344z" style="opacity:.2"/>
  <path d="m10.5 14.983c-0.5 0-2 1.05139-2.5 2.027h-2c-1 0-1.9729535 0.412027-2.5 0.926219-0.5 0.487805-0.5 2.063781-0.5 2.063781s0.5 1.02439 3.5 1.02439c1.5 0 3-1.463414 3-1.463414h5s1.5 1.463414 3 1.463414c3 0 3.5-0.97539 3.5-0.97539s0-1.576195-0.5-2.064c-0.527047-0.514192-1.5-0.975-2.5-0.975h-2c-0.5-0.97561-2-2.027-2.5-2.027z" style="fill:#f46baa"/>
  <path d="m12 16a3 2.5 0 0 0-3 2.5 3 2.5 0 0 0 3 2.5 3 2.5 0 0 0 3-2.5 3 2.5 0 0 0-3-2.5zm-5.5 2a2.5 2 0 0 0-2.5 2 2.5 2 0 0 0 2.5 2 2.5 2 0 0 0 2.5-2 2.5 2 0 0 0-2.5-2zm11 0a2.5 2 0 0 0-2.5 2 2.5 2 0 0 0 2.5 2 2.5 2 0 0 0 2.5-2 2.5 2 0 0 0-2.5-2z" style="fill:#922292"/>
  <path d="m11 2.5-2 0.9756097v0.9756098l1.75-0.9756097-0.75 3.0243902h-1v-1h-1s-1 1-1 1.8780488h1.5 3l0.5-0.8780488 0.5 0.8780488h4.5c0-0.8780488-1-1.8780488-1-1.8780488h-1v1h-1l-0.75-3.0243902 1.75 1.0243902v-0.9756098l-2-1.0243902 0.444336 3.99h-0.444336l-0.5-0.975h-1l-0.5 0.975h-0.444336zm-4 6.0655683c-0.5425925 0-0.9976185 0.2802093-1.3359375 0.6288108-0.338319 0.3486029-0.580116 0.7806956-0.6572265 1.2442839-0.09631 0.579014 0.2287675 1.02609 0.4873045 1.354802 0.2585375 0.328712 0.4749545 0.602742 0.5195315 0.786967 0.069337 0.286553 0.081698 0.188601 0.058594 0.681763-0.023105 0.493163-0.069336 0.889863-0.069336 0.889863-0.075617 0.64667 0.918524 0.757188 0.994141 0.110518 0 0 0.049455-0.427067 0.074218-0.955602 0.02476-0.528535 0.037165-0.446684-0.084961-0.95139-0.1266705-0.523499-0.469743-0.866111-0.698242-1.156631-0.228499-0.290521-0.318005-0.465267-0.294922-0.60404 0.036155-0.217364 0.190873-0.516935 0.397461-0.7298022 0.206588-0.2128664 0.4448605-0.3239327 0.609375-0.3239327h1c0.6761615 0.00933 0.6761615-0.984939 0-0.9756098zm4-0.0655686-1 3.0000003h4l-1-3.0000003v2.0000003h-2zm5 0.065569c-0.676161-0.00933-0.676161 0.9849391 0 0.9756098h1c0.164514 0 0.402787 0.1110659 0.609375 0.3239327 0.206588 0.2128678 0.361305 0.5124378 0.397461 0.7298018 0.02309 0.138773-0.06642 0.313519-0.294922 0.60404-0.228499 0.29052-0.571572 0.633132-0.698242 1.156631-0.122124 0.504706-0.109723 0.422855-0.08496 0.95139 0.02476 0.528535 0.07422 0.955602 0.07422 0.955602 0.07544 0.646689 1.069585 0.536171 0.994141-0.110518 0 0-0.04623-0.3967-0.06934-0.889863-0.02311-0.493162-0.01075-0.39521 0.05859-0.681763 0.04457-0.184225 0.260994-0.458255 0.519531-0.786967s0.583615-0.775788 0.487305-1.354802c-0.077106-0.4635883-0.318903-0.895681-0.657222-1.2442839-0.338318-0.348602-0.793344-0.6288108-1.335937-0.6288108zm-8 3.9344313v2.92683c-0.391857 0.618573-2.5 1.219511-2.5 1.219511s2.5-0.146341 3.5-1.146341v-2.02439zm8 0-1 0.97561v2.02439c1 1 3.5 1.146341 3.5 1.146341s-2.108143-0.600938-2.5-1.219511zm-11 0.731707v1.463415l-1 0.97561v0.975609l1.5-0.975609v-1.95122zm14 0.268293-0.5 0.219512v1.95122l1.5 0.975609v-0.975609l-1-0.97561z" style="opacity:.2"/>
  <path d="m11 2-2 0.9756097v0.9756098l1.75-0.9756097-0.75 3.0243902h-1v-1h-1s-1 1-1 1.8780488h1.5 3l0.5-0.8780488 0.5 0.8780488h4.5c0-0.8780488-1-1.8780488-1-1.8780488h-1v1h-1l-0.75-3.0243902 1.75 1.0243902v-0.9756098l-2-1.0243902 0.444336 3.99h-0.444336l-0.5-0.975h-1l-0.5 0.975h-0.444336zm-4 6.0655683c-0.5425925 0-0.9976185 0.2802093-1.3359375 0.6288108-0.338319 0.3486029-0.580116 0.7806956-0.6572265 1.2442839-0.09631 0.579014 0.2287675 1.02609 0.4873045 1.354802 0.2585375 0.328712 0.4749545 0.602742 0.5195315 0.786967 0.069337 0.286553 0.081698 0.188601 0.058594 0.681763-0.023105 0.493163-0.069336 0.889863-0.069336 0.889863-0.075617 0.64667 0.918524 0.757188 0.994141 0.110518 0 0 0.049455-0.427067 0.074218-0.955602 0.02476-0.528535 0.037165-0.446684-0.084961-0.95139-0.1266705-0.523499-0.469743-0.866111-0.698242-1.156631-0.228499-0.290521-0.318005-0.465267-0.294922-0.60404 0.036155-0.2173642 0.190873-0.5169349 0.397461-0.7298022 0.206588-0.2128664 0.4448605-0.3239327 0.609375-0.3239327h1c0.6761615 0.00933 0.6761615-0.984939 0-0.9756098zm4-0.0655686-1 3.0000003h4l-1-3.0000003v2.0000003h-2zm5 0.065569c-0.676161-0.00933-0.676161 0.9849391 0 0.9756098h1c0.164514 0 0.402787 0.1110659 0.609375 0.3239327 0.206588 0.2128678 0.361305 0.512438 0.397461 0.7298018 0.02309 0.138773-0.06642 0.313519-0.294922 0.60404-0.228499 0.29052-0.571572 0.633132-0.698242 1.156631-0.122124 0.504706-0.109723 0.422855-0.08496 0.95139 0.02476 0.528535 0.07422 0.955602 0.07422 0.955602 0.07544 0.646689 1.069585 0.536171 0.994141-0.110518 0 0-0.04623-0.3967-0.06934-0.889863-0.02311-0.493162-0.01075-0.39521 0.05859-0.681763 0.04457-0.184225 0.260994-0.458255 0.519531-0.786967s0.583615-0.775788 0.487305-1.3548016c-0.077106-0.4635887-0.318903-0.8956814-0.657222-1.2442843-0.338318-0.348602-0.793344-0.6288108-1.335937-0.6288108zm-8 3.9344313v2.92683c-0.391857 0.618573-2.5 1.219511-2.5 1.219511s2.5-0.146341 3.5-1.146341v-2.02439zm8 0-1 0.97561v2.02439c1 1 3.5 1.146341 3.5 1.146341s-2.108143-0.600938-2.5-1.219511zm-11 0.731707v1.463415l-1 0.97561v0.975609l1.5-0.975609v-1.95122zm14 0.268293-0.5 0.219512v1.95122l1.5 0.975609v-0.975609l-1-0.97561z" style="fill:#f46baa"/>
  <path d="m12 17.5a2 1.5 0 0 0-2 1.5 2 1.5 0 0 0 2 1.5 2 1.5 0 0 0 2-1.5 2 1.5 0 0 0-2-1.5zm-5.5 2a1.5 1 0 0 0-1.5 1 1.5 1 0 0 0 1.5 1 1.5 1 0 0 0 1.5-1 1.5 1 0 0 0-1.5-1zm11 0a1.5 1 0 0 0-1.5 1 1.5 1 0 0 0 1.5 1 1.5 1 0 0 0 1.5-1 1.5 1 0 0 0-1.5-1z" style="opacity:.2"/>
  <path d="m12 17a2 1.5 0 0 0-2 1.5 2 1.5 0 0 0 2 1.5 2 1.5 0 0 0 2-1.5 2 1.5 0 0 0-2-1.5zm-5.5 2a1.5 1 0 0 0-1.5 1 1.5 1 0 0 0 1.5 1 1.5 1 0 0 0 1.5-1 1.5 1 0 0 0-1.5-1zm11 0a1.5 1 0 0 0-1.5 1 1.5 1 0 0 0 1.5 1 1.5 1 0 0 0 1.5-1 1.5 1 0 0 0-1.5-1z" style="fill:#f46baa"/>
  <path d="m10.5 14.982422c-0.5 0-2 1.051734-2.5 2.027344h-2c-1 0-1.9729535 0.411589-2.5 0.925781-0.5 0.487805-0.5 2.064453-0.5 2.064453s0.028141 0.03443 0.033203 0.04297c0.0264397-0.478844 0.1012708-1.250812 0.466797-1.607423 0.5270465-0.514192 1.5-0.925781 2.5-0.925781h2c0.5-0.97561 2-2.027344 2.5-2.027344h3c0.5 0 2 1.051734 2.5 2.027344h2c1 0 1.972953 0.460417 2.5 0.974609 0.364955 0.356053 0.440174 1.12588 0.466797 1.605469 0.0051-0.0082 0.0332-0.04102 0.0332-0.04102s0-1.576648-0.5-2.064453c-0.527044-0.514188-1.499997-0.974605-2.499997-0.974605h-2c-0.5-0.97561-2-2.027344-2.5-2.027344z" style="fill:#8b9cbe;opacity:.2"/>
  <path d="M 12,16 A 3,2.5 0 0 0 9,18.5 3,2.5 0 0 0 9.0175781,18.757812 3,2.5 0 0 1 12,16.5 3,2.5 0 0 1 14.982422,18.742188 3,2.5 0 0 0 15,18.5 3,2.5 0 0 0 12,16 Z M 6.5,18 A 2.5,2 0 0 0 4,20 2.5,2 0 0 0 4.0234375,20.253906 2.5,2 0 0 1 6.5,18.5 2.5,2 0 0 1 8.9765625,20.246094 2.5,2 0 0 0 9,20 2.5,2 0 0 0 6.5,18 Z m 11,0 A 2.5,2 0 0 0 15,20 2.5,2 0 0 0 15.023438,20.253906 2.5,2 0 0 1 17.5,18.5 2.5,2 0 0 1 19.976562,20.246094 2.5,2 0 0 0 20,20 2.5,2 0 0 0 17.5,18 Z" style="fill:#8b9cbe;opacity:.1"/>
 </g>
</svg>
