<svg xmlns="http://www.w3.org/2000/svg" width="22" height="22" version="1.1">
 <circle style="opacity:0.2" cx="11" cy="11.5" r="10"/>
 <circle style="fill:#4f4f4f" cx="11" cy="11" r="10"/>
 <circle style="opacity:0.2" cx="11" cy="11.5" r="7"/>
 <path style="opacity:0.1;fill:#8b9cbe" d="M 11,1 A 10,10 0 0 0 1,11 10,10 0 0 0 1.01075,11.291 10,10 0 0 1 11,1.5 10,10 0 0 1 20.9895,11.209 10,10 0 0 0 21,11 10,10 0 0 0 11,1 Z"/>
 <path style="fill:#afafb1" d="m 11,4 a 7,7 0 0 0 -7,7 7,7 0 0 0 7,7 7,7 0 0 0 7,-7 7,7 0 0 0 -7,-7 z m 0,1 a 6,6 0 0 1 1.851563,0.2958985 L 12,7 11,9 10,7 9.150391,5.2998045 A 6,6 0 0 1 11,5 Z M 8.2753905,5.654297 8.878906,7.464844 9.585938,9.585938 7.464844,8.878906 5.660156,8.277344 A 6,6 0 0 1 6.819336,6.696289 6,6 0 0 1 8.2753905,5.654297 Z m 5.4472655,0.00586 a 6,6 0 0 1 1.581055,1.15918 6,6 0 0 1 1.041992,1.4560545 L 14.535156,8.878907 12.414063,9.585938 13.121094,7.464845 13.722656,5.660157 Z M 5.2958985,9.148438 7,10 9,11 7,12 5.2998045,12.84961 A 6,6 0 0 1 5,11 6,6 0 0 1 5.2958985,9.148438 Z m 11.4042965,0.0019 A 6,6 0 0 1 17,11 6,6 0 0 1 16.704101,12.851563 L 15,12 13,11 15,10 16.700195,9.150391 Z M 11,9.5 A 0.5,0.5 0 0 1 11.5,10 0.5,0.5 0 0 1 11,10.5 0.5,0.5 0 0 1 10.5,10 0.5,0.5 0 0 1 11,9.5 Z m -1,1 A 0.5,0.5 0 0 1 10.5,11 0.5,0.5 0 0 1 10,11.5 0.5,0.5 0 0 1 9.5,11 0.5,0.5 0 0 1 10,10.5 Z m 2,0 A 0.5,0.5 0 0 1 12.5,11 0.5,0.5 0 0 1 12,11.5 0.5,0.5 0 0 1 11.5,11 0.5,0.5 0 0 1 12,10.5 Z m -1,1 A 0.5,0.5 0 0 1 11.5,12 0.5,0.5 0 0 1 11,12.5 0.5,0.5 0 0 1 10.5,12 0.5,0.5 0 0 1 11,11.5 Z M 9.585938,12.414063 8.878906,14.535156 8.277344,16.339844 A 6,6 0 0 1 6.696289,15.180664 6,6 0 0 1 5.654297,13.72461 l 1.810547,-0.603516 2.121094,-0.707031 z m 2.828125,0 2.121093,0.707031 1.804688,0.601562 a 6,6 0 0 1 -1.15918,1.581055 6,6 0 0 1 -1.456054,1.041992 L 13.121094,14.535156 12.414063,12.414063 Z M 11,13 l 1,2 0.84961,1.700195 A 6,6 0 0 1 11,17 6,6 0 0 1 9.148438,16.704101 L 10,15 11,13 Z"/>
 <path style="opacity:0.2;fill-rule:evenodd" d="M 12.631836,5.236328 12,6.5 11,8.5 10,6.5 9.369141,5.238281 A 6,6 0 0 0 9.150391,5.299804 L 10,7 11,9 12,7 12.851563,5.2958985 a 6,6 0 0 0 -0.219727,-0.05957 z m 3.472656,2.619141 -1.569336,0.523437 -1.933593,0.644531 -0.1875,0.5625 2.121093,-0.707031 1.810547,-0.6035155 A 6,6 0 0 0 16.104492,7.855469 Z M 5.902344,7.858419 A 6,6 0 0 0 5.660156,8.2773645 L 7.464844,8.8789265 9.585938,9.585958 9.398438,9.023458 7.464844,8.3789265 5.902344,7.858419 Z M 10.567383,9.75 A 0.5,0.5 0 0 0 10.5,10 0.5,0.5 0 0 0 11,10.5 0.5,0.5 0 0 0 11.5,10 0.5,0.5 0 0 0 11.432617,9.75 0.5,0.5 0 0 1 11,10 0.5,0.5 0 0 1 10.567383,9.75 Z M 5.0126955,10.736328 A 6,6 0 0 0 5,11 6,6 0 0 0 5.2998045,12.84961 L 7,12 9,11 8.5,10.75 7,11.5 5.2998045,12.34961 A 6,6 0 0 1 5.0126955,10.736328 Z M 9.567383,10.75 A 0.5,0.5 0 0 0 9.5,11 0.5,0.5 0 0 0 10,11.5 0.5,0.5 0 0 0 10.5,11 0.5,0.5 0 0 0 10.432617,10.75 0.5,0.5 0 0 1 10,11 0.5,0.5 0 0 1 9.567383,10.75 Z m 2,0 A 0.5,0.5 0 0 0 11.5,11 0.5,0.5 0 0 0 12,11.5 0.5,0.5 0 0 0 12.5,11 0.5,0.5 0 0 0 12.432617,10.75 0.5,0.5 0 0 1 12,11 0.5,0.5 0 0 1 11.567383,10.75 Z M 13.5,10.75 13,11 l 2,1 1.704101,0.851563 A 6,6 0 0 0 17,11 6,6 0 0 0 16.9873,10.763672 6,6 0 0 1 16.704097,12.351563 L 15,11.5 13.5,10.75 Z m -2.932617,1 A 0.5,0.5 0 0 0 10.5,12 0.5,0.5 0 0 0 11,12.5 0.5,0.5 0 0 0 11.5,12 0.5,0.5 0 0 0 11.432617,11.75 0.5,0.5 0 0 1 11,12 0.5,0.5 0 0 1 10.567383,11.75 Z m -0.981445,0.664063 -0.1875,0.0625 -0.519532,1.558593 -0.601562,1.804688 A 6,6 0 0 1 6.696289,14.680664 6,6 0 0 1 5.895508,13.644531 l -0.241211,0.08008 a 6,6 0 0 0 1.041992,1.456054 6,6 0 0 0 1.581055,1.15918 l 0.601562,-1.804688 0.707032,-2.121094 z m 2.828125,0 0.707031,2.121093 0.603516,1.810547 a 6,6 0 0 0 1.456054,-1.041992 6,6 0 0 0 1.15918,-1.581055 l -0.242188,-0.08105 a 6,6 0 0 1 -0.916992,1.162109 6,6 0 0 1 -1.456054,1.041992 l -0.603516,-1.810547 -0.519531,-1.558593 -0.1875,-0.0625 z m 0.216797,3.847656 A 6,6 0 0 1 11,16.5 6,6 0 0 1 9.368164,16.263672 L 9.148438,16.704101 A 6,6 0 0 0 11,17 6,6 0 0 0 12.84961,16.700195 l -0.21875,-0.438476 z"/>
 <path style="opacity:0.2;fill:#8b9cbe" d="M 11,4 A 7,7 0 0 0 4,11 7,7 0 0 0 4.010742,11.207031 7,7 0 0 1 11,4.5 7,7 0 0 1 17.989258,11.292969 7,7 0 0 0 18,11 7,7 0 0 0 11,4 Z M 12.632813,5.734375 12,7 11,9 10,7 9.370117,5.739258 A 6,6 0 0 0 9.150391,5.799804 L 10,7.5 l 1,2 1,-2 0.851563,-1.7041015 a 6,6 0 0 0 -0.21875,-0.061523 z m 3.471679,2.621094 -1.569336,0.523437 -1.933593,0.644531 -0.1875,0.5625 2.121093,-0.707031 1.810547,-0.6035155 A 6,6 0 0 0 16.104492,8.355469 Z M 5.899414,8.357419 A 6,6 0 0 0 5.660156,8.777341 l 1.804688,0.601562 2.121094,0.707031 -0.1875,-0.5625 L 7.464844,8.878903 5.899414,8.357419 Z M 10.567383,10.25 A 0.5,0.5 0 0 0 10.5,10.5 0.5,0.5 0 0 0 11,11 0.5,0.5 0 0 0 11.5,10.5 0.5,0.5 0 0 0 11.432617,10.25 0.5,0.5 0 0 1 11,10.5 0.5,0.5 0 0 1 10.567383,10.25 Z m 6.419921,0.993164 a 6,6 0 0 1 -0.283203,1.608399 L 15,12 13.5,11.25 13,11.5 l 2,1 1.704101,0.851563 A 6,6 0 0 0 17,11.5 6,6 0 0 0 16.987304,11.243164 Z M 8.5,11.25 7,12 5.2998045,12.84961 A 6,6 0 0 1 5.0126955,11.256836 6,6 0 0 0 5,11.5 6,6 0 0 0 5.2998045,13.34961 L 7,12.5 9,11.5 8.5,11.25 Z m 1.067383,0 A 0.5,0.5 0 0 0 9.5,11.5 0.5,0.5 0 0 0 10,12 0.5,0.5 0 0 0 10.5,11.5 0.5,0.5 0 0 0 10.432617,11.25 0.5,0.5 0 0 1 10,11.5 0.5,0.5 0 0 1 9.567383,11.25 Z m 2,0 A 0.5,0.5 0 0 0 11.5,11.5 0.5,0.5 0 0 0 12,12 0.5,0.5 0 0 0 12.5,11.5 0.5,0.5 0 0 0 12.432617,11.25 0.5,0.5 0 0 1 12,11.5 0.5,0.5 0 0 1 11.567383,11.25 Z m -1,1 A 0.5,0.5 0 0 0 10.5,12.5 0.5,0.5 0 0 0 11,13 0.5,0.5 0 0 0 11.5,12.5 0.5,0.5 0 0 0 11.432617,12.25 0.5,0.5 0 0 1 11,12.5 0.5,0.5 0 0 1 10.567383,12.25 Z m -0.981445,0.664063 -0.1875,0.0625 -0.519532,1.558593 -0.601562,1.804688 A 6,6 0 0 1 6.696289,15.180664 6,6 0 0 1 5.895508,14.144531 l -0.241211,0.08008 a 6,6 0 0 0 1.041992,1.456054 6,6 0 0 0 1.581055,1.15918 l 0.601562,-1.804688 0.707032,-2.121093 z m 2.828125,0 0.707031,2.121093 0.603516,1.810547 a 6,6 0 0 0 1.456054,-1.041992 6,6 0 0 0 1.15918,-1.581055 l -0.239258,-0.08008 a 6,6 0 0 1 -0.919922,1.161133 6,6 0 0 1 -1.456054,1.041992 l -0.603516,-1.810547 -0.519531,-1.558593 -0.1875,-0.0625 z m 0.21582,3.846679 A 6,6 0 0 1 11,17 6,6 0 0 1 9.367188,16.765625 l -0.21875,0.438476 A 6,6 0 0 0 11,17.5 6,6 0 0 0 12.84961,17.200195 l -0.219727,-0.439453 z"/>
 <circle style="fill:#cc8e31" cx="16.5" cy="16.5" r="5.5"/>
 <path style="fill:#8b9cbe;fill-rule:evenodd" d="m 16.5,14 c 0,0 -0.354375,-0.007 -0.723635,0.17775 C 15.40711,14.36235 15,14.833351 15,15.5 l 1,0 C 16,15 16.5,15 16.5,15 c 0,0 0.5,0 0.5,0.5 0,0.2639 -0.0698,0.41145 -0.203125,0.578099 -0.133325,0.166701 -0.34668,0.334 -0.59668,0.5215 -0.25,0.1875 -0.536645,0.395201 -0.77832,0.6973 C 15.1802,17.59895 15,18.0139 15,18.5 l 0,0.5 3,0 0,-1 -1.82422,0 c 0.01565,-0.022 0.0094,-0.0556 0.02735,-0.0781 0.133325,-0.1667 0.34668,-0.334 0.59668,-0.5215 0.25,-0.1875 0.536645,-0.3952 0.77832,-0.6973 0.241675,-0.30205 0.421875,-0.717 0.421875,-1.2031 0,-0.666649 -0.40711,-1.13765 -0.776365,-1.32225 C 16.854375,13.9931 16.5,14 16.5,14 Z"/>
</svg>
