<svg width="22" height="22" version="1.1" xmlns="http://www.w3.org/2000/svg">
 <circle cx="11" cy="11.5" r="10" style="opacity:.2"/>
 <circle cx="11" cy="11" r="10" style="fill:#4f4f4f"/>
 <path d="M 11,1 A 10,10 0 0 0 1,11 10,10 0 0 0 1.0098,11.293 10,10 0 0 1 11,1.5 10,10 0 0 1 20.99,11.207 10,10 0 0 0 21,11 10,10 0 0 0 11,1 Z" style="fill:#8b9cbe;opacity:.1"/>
 <path d="m11.043945 3.8880366c-0.204223-0.00237-0.40565 0.015684-0.600586 0.056152-0.4823564 0.1001374-1.1282181 0.4054795-1.4477535 0.6860355-0.3767364 0.3307759-0.3152575 0.5419145 0.090332 0.3100585 0.1845292-0.1054863 1.1308495-0.1295746 1.4355465-0.036621 0.255615 0.07798 0.06414 0.1252377-0.6323239 0.15625-0.5295391 0.023579-0.633786 0.050142-0.883789 0.2270507-0.4245085 0.3003933-0.4556701 0.3848985-0.2392578 0.6420899 0.1006987 0.119675 0.2004552 0.2998949 0.222168 0.4003906 0.074029 0.3426365 0.2999603 0.8325195 0.3833007 0.8325195 0.031245 0 0.056152 0.050081 0.056152 0.112305 0 0.2098466-0.2603175-0.1000537-0.402832-0.4809571-0.114216-0.3052721-0.5252206-0.8618166-0.6372067-0.8618166-0.021506 0-0.056229 0.045479-0.078125 0.1025387-0.06071 0.1582076 0.166459 0.5810548 0.3125 0.5810548 0.191537 0 0.4119731 0.7281573 0.3466797 1.1450195-0.019176 0.1224313-0.013594 0.3915962 0.012213 0.5981445l0.046381 0.3759769h0.332031c0.1825975 0 0.3726811 0.039467 0.4223633 0.08789 0.049682 0.048424 0.2133788 0.1430487 0.3637697 0.209961 0.15039 0.066913 0.334961 0.1493766 0.410156 0.1831054 0.07519 0.033729 0.229004 0.069841 0.341797 0.080566 0.296467 0.028192 0.25458 0.1450976-0.153809 0.4199228-0.350514 0.2358789-0.372426 0.2391138-0.8544919 0.2001954-0.3174178-0.0256265-0.5598562-0.0845961-0.6762695-0.1660156-0.2054885-0.1437188-0.3504621-0.1586559-0.5419921-0.0561524-0.1755331 0.093942-0.1850841 0.4733984-0.012213 0.4809574 0.276107 0.01207 0.394318 0.06665 0.5761719 0.261231 0.1469651 0.157252 0.1928711 0.272557 0.1928711 0.490722 0 0.26975-0.00862 0.28342-0.1757812 0.251465-0.1532269-0.02929-0.1730084-0.01627-0.1391602 0.109864 0.021466 0.07999 0.040991 0.278971 0.041504 0.441894 0.00122 0.385622 0.1120387 0.351596 0.3637695-0.112305 0.10578-0.194934 0.2211365-0.354003 0.2563476-0.354003 0.035211 0 0.064729 0.161499 0.065917 0.358886l0.00244 0.358887 0.1684568-0.192871c0.209039-0.237602 0.208658-0.258235-0.0024-0.456543-0.1975293-0.185569-0.251119-0.683594-0.073242-0.683594 0.054177 0 0.119223 0.03308 0.144044 0.07324 0.02482 0.04016 0.08464 0.05717 0.131836 0.03906 0.05967-0.0229 0.08318 0.04319 0.07813 0.212402-0.01175 0.393202 0.13992 0.338605 0.454101-0.163574l0.290528-0.466309 0.02197 0.366211c0.02648 0.463102-0.0095 0.5542-0.219725 0.5542-0.232363 0-0.28941 0.123187-0.129395 0.283203 0.08649 0.08649 0.267928 0.147825 0.515136 0.17334 0.450287 0.04647 0.475508 0.201986 0.04395 0.270996-0.146329 0.023398-0.266155 0.069751-0.266155 0.102543 0 0.03279-0.08835 0.05859-0.195312 0.05859-0.110657 0-0.248466 0.06249-0.322267 0.144043-0.110094 0.121653-0.180501 0.136716-0.456543 0.100098-0.3147645-0.04176-0.3247066-0.03792-0.3247066 0.131836 0 0.194559 0.1702578 0.300933 0.2905274 0.180664 0.04259-0.04259 0.1344512-0.07813 0.2026362-0.07813 0.06819 0 0.184104-0.03881 0.25879-0.08545 0.108801-0.06795 0.165907-0.06684 0.280762 0.0049 0.07884 0.04924 0.28648 0.08406 0.461426 0.07813 0.432306-0.01467 0.470289-0.0059 0.351562 0.0708-0.0564 0.03645-0.199851 0.06778-0.319824 0.06836-0.119974 5.46e-4 -0.237994 0.03076-0.261231 0.06836-0.02324 0.0376-0.164387 0.06836-0.314941 0.06836-0.26765 0-0.274851 0.0049-0.253906 0.222168 0.02134 0.221291 0.02408 0.222081 0.361328 0.200195 0.282012-0.0183 0.53829-0.09818 0.874023-0.270996 0.0282-0.01451 0.05127 0.0197 0.05127 0.07568 0 0.115746-0.583124 0.525482-0.74707 0.524902-0.433423-0.0015-0.860383-0.296826-0.776368-0.537113 0.03109-0.08891 0.02188-0.09472-0.04883-0.0293-0.06172 0.0571-0.1271924 0.06156-0.2148447 0.01465-0.1510654-0.08085-0.4003907 0.02838-0.4003907 0.175782 0 0.158922 0.5556494 0.854038 0.7104494 0.888672 0.07859 0.01759 0.297852 0.04145 0.48584 0.05126 0.287231 0.01501 0.341797 0.03931 0.341797 0.151367 0 0.09756-0.09573 0.170928-0.358887 0.273438-0.290406 0.113125-0.407315 0.206961-0.600586 0.495606-0.2825984 0.422051-0.6268436 0.779307-0.9765626 1.010741-0.3135069 0.207469-0.9875825 0.442941-1.2695313 0.444336-0.1163062 5.48e-4 -0.2592052 0.03067-0.3149413 0.06591-0.085488 0.05405-0.073825 0.09504 0.073242 0.256347 0.095885 0.105175 0.2288575 0.275025 0.2929687 0.378419 0.2212579 0.356826-0.044829 0.22396-1.2133789-0.605469-0.2310572-0.163998-1.1153659-1.265681-1.4477506-1.804187-0.2317815-0.375514-0.2744789-0.410157-0.4956055-0.410155-0.1326867 0-0.2964135-0.04891-0.3637695-0.109863-0.1226163-0.110962-0.3320313-0.09001-0.3320313 0.03417 0 0.113138 0.8166174 1.106525 1.430664 1.740723 0.6159893 0.636203 1.3808682 1.259122 1.9970704 1.623535 0.3768143 0.222841 1.1520025 0.53955 1.3183594 0.539551 0.1889281 0 0.1666129-0.217138-0.056152-0.566408-0.2954309-0.463193-0.5383964-0.941096-0.4980469-0.981445 0.058362-0.05836 0.5249024 0.399485 0.5249024 0.515138 0 0.111125 0.5503914 0.913019 0.8374024 1.220702 0.1800435 0.193013 0.5787146 0.211969 0.6518556 0.03174 0.02699-0.0665 0.177821-0.289521 0.334472-0.495606 0.156652-0.206084 0.367127-0.588867 0.46875-0.85205 0.101623-0.263184 0.213113-0.550045 0.246582-0.637208 0.07328-0.190842 0.351262-0.183874 0.388185 0.0098 0.01309 0.06865-0.175965 0.469698-0.419922 0.891112-0.243958 0.421414-0.453174 0.842367-0.46631 0.935059l-0.02441 0.168458 0.717774-0.0074c1.938466-0.02056 3.915824-0.856795 5.427244-2.297363 0.457547-0.436097 0.519035-0.527351 0.51758-0.737305-0.0024-0.335675-0.205343-0.748563-0.495605-1.003417-0.303281-0.266284-1.161631-0.773926-1.308595-0.773926-0.139611 0-0.134345 0.05703 0.02441 0.317382 0.128638 0.210963 0.127701 0.216589-0.0049 0.434571l-0.134277 0.219727-0.585937-0.04883-0.583497-0.04882-0.258788 0.253906c-0.287217 0.280456-0.546875 0.288749-0.546875 0.01709 0-0.07964-0.06732-0.215865-0.148927-0.302735-0.189085-0.201272-0.106582-0.296148 0.09766-0.1123 0.255718 0.230194 0.30918 0.237702 0.488281 0.05859 0.09471-0.09471 0.238006-0.17334 0.317382-0.17334 0.07937 0 0.199779-0.0291 0.268555-0.06591 0.09084-0.04861 0.146567-0.03926 0.207519 0.03417 0.09713 0.117038 0.427891 0.132168 0.620118 0.0293 0.130644-0.06993 0.129709-0.07544-0.0049-0.339355-0.101785-0.199343-0.250323-0.328743-0.583509-0.515071-0.24568-0.137393-0.585555-0.39771-0.756837-0.578614-0.400191-0.422678-0.66362-0.542549-0.842284-0.380859-0.172447 0.156063-0.216652 0.357369-0.100098 0.454102 0.05252 0.04358 0.09521 0.15424 0.09521 0.24414s0.03904 0.223534 0.08545 0.297852c0.07091 0.113548 0.05727 0.187034-0.08545 0.454101-0.09341 0.174797-0.293945 0.406279-0.444336 0.515137-0.460683 0.333455-0.491028 0.371003-0.537109 0.65918-0.02455 0.153533-0.10142 0.317162-0.170899 0.366211-0.06948 0.04905-0.178738 0.190307-0.241699 0.3125-0.09553 0.185397-0.15292 0.222167-0.349121 0.222167-0.129313 0-0.376424 0.04873-0.549317 0.107425-0.172891 0.0587-0.381661 0.09715-0.463867 0.08545-0.187211-0.02665-0.196498-0.216746-0.01221-0.246582 0.0752-0.01213 0.253756-0.06794 0.395508-0.122075 0.141757-0.05414 0.329323-0.09765 0.417486-0.09765 0.229646 0 0.484847-0.225975 0.656738-0.581055 0.08183-0.169044 0.177551-0.307615 0.212402-0.307617 0.03485 0 0.115472-0.107663 0.178223-0.239258 0.06275-0.131591 0.13638-0.239257 0.166016-0.239257 0.08869 0 0.537109-0.704831 0.537109-0.844727 0-0.07126-0.06204-0.231666-0.13916-0.356445-0.127766-0.20673-0.132564-0.245557-0.0415-0.419922 0.05496-0.105245 0.196351-0.280197 0.3125-0.390625 0.11615-0.110428 0.209961-0.24502 0.209961-0.297852 0-0.05283 0.05989-0.169761 0.131836-0.26123 0.07195-0.09147 0.168008-0.389982 0.214844-0.661621 0.09794-0.568037 0.208944-0.820697 0.461425-1.054688 0.165686-0.1535539 0.179716-0.2157303 0.205079-0.8471683 0.023-0.572742 0.01037-0.695523-0.08301-0.7641601-0.09019-0.06633-0.116826-0.2641471-0.14648-1.040039-0.04205-1.1003283-0.04447-1.1108341-0.32959-1.5869141-0.265287-0.442958-0.416376-0.461515-0.749511-0.092773-0.180407 0.1996885-0.231295 0.3087054-0.202637 0.427246 0.03108 0.128546 0.02066 0.142861-0.05127 0.075684-0.155197-0.1450159-0.096323-0.4504749 0.166057-0.8594058 0.335768-0.5233085 0.317294-0.6967787-0.112305-0.9838867-0.537122-0.358969-1.171997-0.554411-1.784668-0.5615234zm1.667481 5.3857421c0.295179-0.00136 0.586333 0.022371 0.634765 0.070801 0.06946 0.069469-0.434849 0.4150386-0.605468 0.4150386-0.07509 0-0.09932 0.054701-0.08545 0.1855469 0.03357 0.3165698-0.187799 0.2760698-0.566407-0.1025391-0.185796-0.1857955-0.336913-0.3901714-0.336913-0.4565426 0-0.099516 0.01798-0.1068 0.102539-0.036621 0.08124 0.067425 0.124737 0.066676 0.205078 0 0.05896-0.04893 0.356676-0.074315 0.651856-0.075684zm-0.507813 1.2695313c0.0831 0.02914 0.211397 0.202732 0.317383 0.446778 0.133206 0.306724 0.133203 0.306689 0.236817 0.153808 0.111515-0.164541 0.356119-0.209893 0.368652-0.06836 0.02142 0.241836-0.03501 0.433641-0.151367 0.515137-0.07139 0.05-0.129395 0.144273-0.129395 0.209961 0 0.113436-0.396342 0.55664-0.498047 0.55664-0.02641 0-0.04883-0.04502-0.04883-0.100097 0-0.05507 0.06152-0.133097 0.136718-0.17334 0.140658-0.07528 0.190199-0.273438 0.06836-0.273438-0.0376 0-0.06836 0.03076-0.06836 0.06836s-0.06152 0.06836-0.136718 0.06836c-0.182556 0-0.173523-0.112024 0.01709-0.212403 0.316796-0.166829 0.338994-0.35309 0.03906-0.322265-0.129659 0.01333-0.227044-0.01229-0.244141-0.06348-0.0157-0.047 0.02104-0.08545 0.08057-0.08545 0.13537 0 0.137546-0.198207 0.0073-0.449219-0.05447-0.104996-0.08126-0.216304-0.06104-0.249023 0.01543-0.02497 0.03822-0.03168 0.06592-0.02197z" style="opacity:.2"/>
 <path d="m11.043945 3.487793c-0.204223-0.00237-0.40565 0.015684-0.600586 0.056152-0.4823564 0.1001374-1.1282181 0.4054795-1.4477535 0.6860355-0.3767364 0.3307759-0.3152575 0.5419145 0.090332 0.3100585 0.1845292-0.1054863 1.1308495-0.1295746 1.4355465-0.036621 0.255615 0.07798 0.064143 0.1252377-0.6323239 0.15625-0.5295391 0.0235794-0.633786 0.050142-0.883789 0.2270507-0.4245085 0.3003933-0.4556701 0.3848985-0.2392578 0.6420899 0.1006987 0.119675 0.2004552 0.2998949 0.222168 0.4003906 0.0740287 0.3426365 0.2999603 0.8325195 0.3833007 0.8325195 0.031245 0 0.056152 0.050081 0.056152 0.112305 0 0.2098466-0.2603175-0.1000537-0.402832-0.4809571-0.114216-0.3052721-0.5252206-0.8618166-0.6372067-0.8618166-0.021506 0-0.056229 0.045479-0.078125 0.1025387-0.06071 0.1582076 0.166459 0.5810548 0.3125 0.5810548 0.191537 0 0.4119731 0.7281573 0.3466797 1.1450195-0.019176 0.1224313-0.013594 0.3915962 0.012213 0.5981445l0.046381 0.3759769h0.332031c0.1825975 0 0.3726811 0.039467 0.4223633 0.08789 0.049682 0.048424 0.2133788 0.1430487 0.3637697 0.209961 0.15039 0.066913 0.334961 0.1493766 0.410156 0.1831054 0.07519 0.033729 0.229004 0.069841 0.341797 0.080566 0.296467 0.028192 0.25458 0.1450976-0.153809 0.4199228-0.350514 0.2358789-0.372426 0.2391138-0.8544919 0.2001954-0.3174178-0.0256265-0.5598562-0.0845961-0.6762695-0.1660156-0.2054885-0.1437188-0.3504621-0.1586559-0.5419921-0.0561524-0.1755331 0.0939425-0.1850841 0.4733985-0.0122125 0.480957 0.276107 0.012075 0.394318 0.066648 0.5761719 0.261231 0.1469651 0.157252 0.1928711 0.272557 0.1928711 0.490722 0 0.26975-0.00862 0.28342-0.1757812 0.251465-0.1532269-0.02929-0.1730084-0.01627-0.1391602 0.109864 0.021466 0.07999 0.040991 0.278971 0.041504 0.441894 0.00122 0.385622 0.1120387 0.351596 0.3637695-0.112305 0.10578-0.194934 0.2211365-0.354003 0.2563476-0.354003 0.035211 0 0.064729 0.161499 0.065917 0.358886l0.00244 0.358887 0.1684573-0.192871c0.209039-0.237602 0.208658-0.258235-0.0024-0.456543-0.1975288-0.185569-0.2511185-0.683594-0.073242-0.683594 0.054177 0 0.1192218 0.03308 0.1440428 0.07324 0.02482 0.04016 0.08464 0.05717 0.131836 0.03906 0.05967-0.0229 0.08318 0.04319 0.07813 0.212402-0.01175 0.393202 0.139921 0.338605 0.454101-0.163574l0.290528-0.4663085 0.02197 0.3662105c0.02648 0.463102-0.0095 0.5542-0.219726 0.5542-0.232363 0-0.28941 0.123187-0.129395 0.283203 0.08649 0.08649 0.267928 0.147825 0.515137 0.17334 0.450287 0.04647 0.475509 0.201986 0.04395 0.270996-0.1463288 0.023398-0.2661548 0.069751-0.2661548 0.102543 0 0.03279-0.08835 0.05859-0.195312 0.05859-0.110657 0-0.248465 0.06249-0.322266 0.144043-0.110094 0.121653-0.180502 0.136716-0.456543 0.100098-0.314765-0.04176-0.3247071-0.03792-0.3247071 0.131836 0 0.194559 0.1702578 0.300933 0.2905274 0.180664 0.04259-0.04259 0.1344507-0.07813 0.2026367-0.07813 0.06819 0 0.184104-0.03881 0.258789-0.08545 0.108802-0.06795 0.165908-0.06684 0.280762 0.0049 0.07884 0.04924 0.28648 0.08406 0.461426 0.07813 0.432306-0.01467 0.470289-0.0059 0.351562 0.0708-0.0564 0.03645-0.199851 0.06778-0.319824 0.06836-0.119974 5.46e-4 -0.237994 0.03076-0.261231 0.06836-0.02324 0.0376-0.164387 0.06836-0.314941 0.06836-0.26765 0-0.274851 0.0049-0.253906 0.222168 0.02134 0.221291 0.02408 0.222081 0.361328 0.200195 0.282012-0.0183 0.53829-0.09818 0.874023-0.270996 0.0282-0.01451 0.05127 0.0197 0.05127 0.07568 0 0.115746-0.583124 0.525482-0.74707 0.524902-0.433423-0.0015-0.860383-0.296826-0.776368-0.537113 0.03109-0.08891 0.02188-0.09472-0.04883-0.0293-0.06172 0.0571-0.1271919 0.06156-0.2148442 0.01465-0.1510654-0.08085-0.4003907 0.02838-0.4003907 0.175782 0 0.158922 0.5556489 0.854038 0.7104489 0.888672 0.07859 0.01759 0.297852 0.04145 0.48584 0.05126 0.287231 0.01501 0.341797 0.03931 0.341797 0.151367 0 0.09756-0.09573 0.170928-0.358887 0.273438-0.290406 0.113125-0.407315 0.206961-0.600586 0.495606-0.2825979 0.422051-0.6268431 0.779307-0.9765621 1.010741-0.3135069 0.207469-0.9875825 0.442941-1.2695313 0.444336-0.1163062 5.48e-4 -0.2592052 0.03067-0.3149413 0.06591-0.085488 0.05405-0.073825 0.09504 0.073242 0.256347 0.095885 0.105175 0.2288575 0.275025 0.2929687 0.378419 0.2212579 0.356826-0.044829 0.22396-1.2133789-0.605469-0.2310577-0.163998-1.1153664-1.265681-1.4477511-1.804187-0.2317815-0.375514-0.2744789-0.410157-0.4956055-0.410155-0.1326867 0-0.2964135-0.04891-0.3637695-0.109863-0.1226163-0.110962-0.3320313-0.09001-0.3320313 0.03417 0 0.113138 0.8166174 1.106525 1.430664 1.740723 0.6159893 0.636203 1.3808682 1.259122 1.9970704 1.623535 0.3768143 0.222841 1.1520025 0.53955 1.3183594 0.539551 0.1889281 0 0.1666129-0.217138-0.056152-0.566408-0.2954309-0.463193-0.5383964-0.941096-0.4980469-0.981445 0.058362-0.05836 0.5249024 0.399485 0.5249024 0.515138 0 0.111125 0.5503914 0.913019 0.8374024 1.220702 0.1800435 0.193013 0.5787146 0.211969 0.6518556 0.03174 0.02699-0.0665 0.177821-0.289521 0.334472-0.495606 0.156652-0.206084 0.367127-0.588867 0.46875-0.85205 0.101623-0.263184 0.213113-0.550045 0.246582-0.637208 0.07328-0.190842 0.351262-0.183874 0.388185 0.0098 0.01309 0.06865-0.175965 0.469698-0.419922 0.891112-0.243958 0.421414-0.453174 0.842367-0.46631 0.935059l-0.02441 0.168458 0.717774-0.0074c1.938466-0.02056 3.915824-0.856795 5.427244-2.297363 0.457547-0.436097 0.519035-0.527351 0.51758-0.737305-0.0024-0.335675-0.205343-0.748563-0.495605-1.003417-0.303281-0.266284-1.161631-0.773926-1.308595-0.773926-0.139611 0-0.134345 0.05703 0.02441 0.317382 0.128638 0.210963 0.127701 0.216589-0.0049 0.434571l-0.134277 0.219727-0.585937-0.04883-0.583497-0.04882-0.258788 0.253906c-0.287217 0.280456-0.546875 0.288749-0.546875 0.01709 0-0.07964-0.06732-0.215865-0.148927-0.302735-0.189085-0.201272-0.106582-0.296148 0.09766-0.1123 0.255718 0.230194 0.30918 0.237702 0.488281 0.05859 0.09471-0.09471 0.238006-0.17334 0.317382-0.17334 0.07937 0 0.199779-0.0291 0.268555-0.06591 0.09084-0.04861 0.146567-0.03926 0.207519 0.03417 0.09713 0.117038 0.427891 0.132168 0.620118 0.0293 0.130644-0.06993 0.129709-0.07544-0.0049-0.339355-0.101785-0.199343-0.250323-0.328743-0.583509-0.515071-0.24568-0.137393-0.585555-0.39771-0.756837-0.578614-0.400191-0.422678-0.66362-0.542549-0.842284-0.380859-0.172447 0.156063-0.216652 0.357369-0.100098 0.454102 0.05252 0.04358 0.09521 0.15424 0.09521 0.24414s0.03904 0.223534 0.08545 0.297852c0.07091 0.113548 0.05727 0.187034-0.08545 0.454101-0.09341 0.174797-0.293945 0.406279-0.444336 0.515137-0.460683 0.333455-0.491028 0.371003-0.537109 0.65918-0.02455 0.153533-0.10142 0.317162-0.170899 0.366211-0.06948 0.04905-0.178738 0.190307-0.241699 0.3125-0.09553 0.185397-0.15292 0.222167-0.349121 0.222167-0.129313 0-0.376424 0.04873-0.549317 0.107425-0.172891 0.0587-0.381661 0.09715-0.463867 0.08545-0.187211-0.02665-0.196498-0.216746-0.01221-0.246582 0.0752-0.01213 0.253756-0.06794 0.395508-0.122075 0.141757-0.05414 0.329323-0.09765 0.417486-0.09765 0.229646 0 0.484847-0.225975 0.656738-0.581055 0.08183-0.169044 0.177551-0.307615 0.212402-0.307617 0.03485 0 0.115472-0.107663 0.178223-0.239258 0.06275-0.131591 0.13638-0.239257 0.166016-0.239257 0.08869 0 0.537109-0.704831 0.537109-0.844727 0-0.07126-0.06204-0.231666-0.13916-0.356445-0.127766-0.20673-0.132564-0.245557-0.0415-0.419922 0.05496-0.105245 0.196351-0.280197 0.3125-0.390625 0.11615-0.110428 0.209961-0.24502 0.209961-0.297852 0-0.05283 0.05989-0.169761 0.131836-0.26123 0.07195-0.09147 0.168008-0.389982 0.214844-0.661621 0.09794-0.568037 0.208944-0.8206964 0.461425-1.0546879 0.165686-0.1535536 0.179716-0.21573 0.205079-0.847168 0.023-0.572742 0.01037-0.695523-0.08301-0.7641601-0.09019-0.06633-0.116826-0.2641471-0.14648-1.040039-0.04205-1.1003283-0.04447-1.1108341-0.32959-1.5869141-0.265287-0.442958-0.416376-0.461515-0.749511-0.092773-0.180407 0.1996885-0.231295 0.3087054-0.202637 0.427246 0.03108 0.128546 0.02066 0.142861-0.05127 0.075684-0.155197-0.1450159-0.096323-0.4504749 0.166057-0.8594058 0.335768-0.5233085 0.317294-0.6967787-0.112305-0.9838867-0.537122-0.358969-1.171997-0.554411-1.784668-0.5615234zm1.667481 5.3857421c0.295179-0.00136 0.586333 0.022371 0.634765 0.070801 0.06946 0.069469-0.434849 0.4150386-0.605468 0.4150386-0.07509 0-0.09932 0.054701-0.08545 0.1855469 0.03357 0.3165696-0.187799 0.2760694-0.566407-0.1025391-0.185796-0.1857955-0.336913-0.3901714-0.336913-0.4565426 0-0.099516 0.01798-0.1068 0.102539-0.036621 0.08124 0.067425 0.124737 0.066676 0.205078 0 0.05896-0.04893 0.356676-0.074315 0.651856-0.075684zm-0.507813 1.2695309c0.0831 0.02914 0.211397 0.202732 0.317383 0.446778 0.133206 0.306724 0.133203 0.306689 0.236817 0.153808 0.111515-0.164541 0.356119-0.209893 0.368652-0.06836 0.02142 0.241836-0.03501 0.433641-0.151367 0.515137-0.07139 0.05-0.129395 0.144273-0.129395 0.209961 0 0.113436-0.396342 0.55664-0.498047 0.55664-0.02641 0-0.04883-0.04502-0.04883-0.100097 0-0.05507 0.06152-0.133097 0.136718-0.17334 0.140658-0.07528 0.190199-0.273438 0.06836-0.273438-0.0376 0-0.06836 0.03076-0.06836 0.06836s-0.06152 0.06836-0.136718 0.06836c-0.182556 0-0.173523-0.112024 0.01709-0.212403 0.316796-0.166829 0.338994-0.35309 0.03906-0.322265-0.129659 0.01333-0.227044-0.01229-0.244141-0.06348-0.0157-0.047 0.02104-0.08545 0.08057-0.08545 0.13537 0 0.137546-0.198207 0.0073-0.449219-0.05447-0.104996-0.08126-0.216304-0.06104-0.249023 0.01543-0.02497 0.03822-0.03168 0.06592-0.02197z" style="fill:#8b9cbe"/>
</svg>
