<svg width="22" height="22" version="1.1" xmlns="http://www.w3.org/2000/svg">
 <g transform="translate(-1,-1)">
  <path d="m5 4.5h6l2 3.3333333 3-3.3333333h6l-6.5 8 4.5 8h-7l-1.5-3.2-2.5 3.2h-7l7-8.533333z" style="opacity:.2"/>
  <path d="m5 4h6l2 3.3333333 3-3.3333333h6l-6.5 8 4.5 8h-7l-1.5-3.2-2.5 3.2h-7l7-8.533333z" style="fill:#ccab3c"/>
  <path d="M 5,4 5.2675781,4.5 H 11 L 13,7.8339844 16,4.5 h 5.59375 L 22,4 H 16 L 13,7.3339844 11,4 Z M 8.8378906,11.664062 2,20 H 2.4101562 L 9,11.966797 Z M 15.666016,12.294922 15.5,12.5 19.71875,20 H 20 Z" style="fill:#8b9cbe;opacity:.1"/>
 </g>
 <circle cx="16.5" cy="16.5" r="5.5" style="fill:#498391"/>
 <path d="m15 14v3h2v2h1v-5h-1v2h-1v-2z" style="fill:#8b9cbe"/>
</svg>
