<svg width="22" height="22" version="1.1" xmlns="http://www.w3.org/2000/svg">
 <circle cx="11" cy="11.5" r="10" style="opacity:.2"/>
 <circle cx="11" cy="11" r="10" style="fill:#21437c"/>
 <circle cx="11" cy="11" r="6.25" style="fill:#d42c3c"/>
 <path d="M 11,1 A 10,10 0 0 0 1,11 10,10 0 0 0 1.01075,11.291 10,10 0 0 1 11,1.5 10,10 0 0 1 20.9895,11.209 10,10 0 0 0 21,11 10,10 0 0 0 11,1 Z" style="fill:#8b9cbe;opacity:.1"/>
 <path d="m11 4.5a7 7 0 0 0-7 7 7 7 0 0 0 7 7 7 7 0 0 0 7-7 7 7 0 0 0-7-7zm0 1a6 6 0 0 1 1.851563 0.2958985l-0.851563 1.7041015-1 2-1-2-0.849609-1.7001955a6 6 0 0 1 1.849609-0.2998045zm-2.7246095 0.654297 0.6035155 1.810547 0.707032 2.121094-2.121094-0.707032-1.804688-0.601562a6 6 0 0 1 1.15918-1.581055 6 6 0 0 1 1.4560545-1.041992zm5.4472655 0.00586a6 6 0 0 1 1.581055 1.15918 6 6 0 0 1 1.041992 1.4560545l-1.810547 0.6035155-2.121093 0.707031 0.707031-2.121093zm-8.4267575 3.488281 1.7041015 0.851562 2 1-2 1-1.7001955 0.84961a6 6 0 0 1-0.2998045-1.84961 6 6 0 0 1 0.2958985-1.851562zm11.404296 0.0019a6 6 0 0 1 0.299805 1.849662 6 6 0 0 1-0.295899 1.851563l-1.704101-0.851563-2-1 2-1 1.700195-0.849609zm-5.700195 0.349662a0.5 0.5 0 0 1 0.5 0.5 0.5 0.5 0 0 1-0.5 0.5 0.5 0.5 0 0 1-0.5-0.5 0.5 0.5 0 0 1 0.5-0.5zm-1 1a0.5 0.5 0 0 1 0.5 0.5 0.5 0.5 0 0 1-0.5 0.5 0.5 0.5 0 0 1-0.5-0.5 0.5 0.5 0 0 1 0.5-0.5zm2 0a0.5 0.5 0 0 1 0.5 0.5 0.5 0.5 0 0 1-0.5 0.5 0.5 0.5 0 0 1-0.5-0.5 0.5 0.5 0 0 1 0.5-0.5zm-1 1a0.5 0.5 0 0 1 0.5 0.5 0.5 0.5 0 0 1-0.5 0.5 0.5 0.5 0 0 1-0.5-0.5 0.5 0.5 0 0 1 0.5-0.5zm-1.414062 0.914063-0.707032 2.121093-0.601562 1.804688a6 6 0 0 1-1.581055-1.15918 6 6 0 0 1-1.041992-1.456054l1.810547-0.603516zm2.828125 0 2.121093 0.707031 1.804688 0.601562a6 6 0 0 1-1.15918 1.581055 6 6 0 0 1-1.456054 1.041992l-0.603516-1.810547zm-1.414063 0.585937 1 2 0.84961 1.700195a6 6 0 0 1-1.84961 0.299805 6 6 0 0 1-1.851562-0.295899l0.851562-1.704101z" style="opacity:.2"/>
 <path d="m 11,4 a 7,7 0 0 0 -7,7 7,7 0 0 0 7,7 7,7 0 0 0 7,-7 7,7 0 0 0 -7,-7 z m 0,1 a 6,6 0 0 1 1.851563,0.2958985 L 12,7 11,9 10,7 9.150391,5.2998045 A 6,6 0 0 1 11,5 Z M 8.2753905,5.654297 8.878906,7.464844 9.585938,9.585938 7.464844,8.878906 5.660156,8.277344 A 6,6 0 0 1 6.819336,6.696289 6,6 0 0 1 8.2753905,5.654297 Z m 5.4472655,0.00586 a 6,6 0 0 1 1.581055,1.15918 6,6 0 0 1 1.041992,1.4560545 L 14.535156,8.878907 12.414063,9.585938 13.121094,7.464845 Z M 5.2958985,9.148438 7,10 9,11 7,12 5.2998045,12.84961 A 6,6 0 0 1 5,11 6,6 0 0 1 5.2958985,9.148438 Z m 11.4042965,0.0019 A 6,6 0 0 1 17,11 6,6 0 0 1 16.704101,12.851563 L 15,12 13,11 15,10 16.700195,9.150391 Z M 11,9.5 A 0.5,0.5 0 0 1 11.5,10 0.5,0.5 0 0 1 11,10.5 0.5,0.5 0 0 1 10.5,10 0.5,0.5 0 0 1 11,9.5 Z m -1,1 A 0.5,0.5 0 0 1 10.5,11 0.5,0.5 0 0 1 10,11.5 0.5,0.5 0 0 1 9.5,11 0.5,0.5 0 0 1 10,10.5 Z m 2,0 A 0.5,0.5 0 0 1 12.5,11 0.5,0.5 0 0 1 12,11.5 0.5,0.5 0 0 1 11.5,11 0.5,0.5 0 0 1 12,10.5 Z m -1,1 A 0.5,0.5 0 0 1 11.5,12 0.5,0.5 0 0 1 11,12.5 0.5,0.5 0 0 1 10.5,12 0.5,0.5 0 0 1 11,11.5 Z M 9.585938,12.414063 8.878906,14.535156 8.277344,16.339844 A 6,6 0 0 1 6.696289,15.180664 6,6 0 0 1 5.654297,13.72461 l 1.810547,-0.603516 z m 2.828125,0 2.121093,0.707031 1.804688,0.601562 a 6,6 0 0 1 -1.15918,1.581055 6,6 0 0 1 -1.456054,1.041992 L 13.121094,14.535156 Z M 11,13 l 1,2 0.84961,1.700195 A 6,6 0 0 1 11,17 6,6 0 0 1 9.148438,16.704101 L 10,15 Z" style="fill:#dba824"/>
 <path d="M 11,4 A 7,7 0 0 0 4,11 7,7 0 0 0 4.010742,11.207031 7,7 0 0 1 11,4.5 7,7 0 0 1 17.989258,11.292969 7,7 0 0 0 18,11 7,7 0 0 0 11,4 Z M 12.632813,5.734375 12,7 11,9 10,7 9.370117,5.739258 A 6,6 0 0 0 9.150391,5.799804 L 10,7.5 l 1,2 1,-2 0.851563,-1.7041015 a 6,6 0 0 0 -0.21875,-0.061523 z m 3.471679,2.621094 -1.569336,0.523437 -1.933593,0.644531 -0.1875,0.5625 2.121093,-0.707031 1.810547,-0.6035155 A 6,6 0 0 0 16.104492,8.355469 Z M 5.899414,8.357419 A 6,6 0 0 0 5.660156,8.777341 l 1.804688,0.601562 2.121094,0.707031 -0.1875,-0.5625 L 7.464844,8.878903 Z M 10.567383,10.25 A 0.5,0.5 0 0 0 10.5,10.5 0.5,0.5 0 0 0 11,11 0.5,0.5 0 0 0 11.5,10.5 0.5,0.5 0 0 0 11.432617,10.25 0.5,0.5 0 0 1 11,10.5 0.5,0.5 0 0 1 10.567383,10.25 Z m 6.419921,0.993164 a 6,6 0 0 1 -0.283203,1.608399 L 15,12 13.5,11.25 13,11.5 l 2,1 1.704101,0.851563 A 6,6 0 0 0 17,11.5 6,6 0 0 0 16.987304,11.243164 Z M 8.5,11.25 7,12 5.2998045,12.84961 A 6,6 0 0 1 5.0126955,11.256836 6,6 0 0 0 5,11.5 6,6 0 0 0 5.2998045,13.34961 L 7,12.5 l 2,-1 z m 1.067383,0 A 0.5,0.5 0 0 0 9.5,11.5 0.5,0.5 0 0 0 10,12 0.5,0.5 0 0 0 10.5,11.5 0.5,0.5 0 0 0 10.432617,11.25 0.5,0.5 0 0 1 10,11.5 0.5,0.5 0 0 1 9.567383,11.25 Z m 2,0 A 0.5,0.5 0 0 0 11.5,11.5 0.5,0.5 0 0 0 12,12 0.5,0.5 0 0 0 12.5,11.5 0.5,0.5 0 0 0 12.432617,11.25 0.5,0.5 0 0 1 12,11.5 0.5,0.5 0 0 1 11.567383,11.25 Z m -1,1 A 0.5,0.5 0 0 0 10.5,12.5 0.5,0.5 0 0 0 11,13 0.5,0.5 0 0 0 11.5,12.5 0.5,0.5 0 0 0 11.432617,12.25 0.5,0.5 0 0 1 11,12.5 0.5,0.5 0 0 1 10.567383,12.25 Z m -0.981445,0.664063 -0.1875,0.0625 -0.519532,1.558593 -0.601562,1.804688 A 6,6 0 0 1 6.696289,15.180664 6,6 0 0 1 5.895508,14.144531 l -0.241211,0.08008 a 6,6 0 0 0 1.041992,1.456054 6,6 0 0 0 1.581055,1.15918 l 0.601562,-1.804688 z m 2.828125,0 0.707031,2.121093 0.603516,1.810547 a 6,6 0 0 0 1.456054,-1.041992 6,6 0 0 0 1.15918,-1.581055 l -0.239258,-0.08008 a 6,6 0 0 1 -0.919922,1.161133 6,6 0 0 1 -1.456054,1.041992 l -0.603516,-1.810547 -0.519531,-1.558593 -0.1875,-0.0625 z m 0.21582,3.846679 A 6,6 0 0 1 11,17 6,6 0 0 1 9.367188,16.765625 l -0.21875,0.438476 A 6,6 0 0 0 11,17.5 6,6 0 0 0 12.84961,17.200195 Z" style="fill:#8b9cbe;opacity:.2"/>
</svg>
