<svg width="22" height="22" version="1.1" xmlns="http://www.w3.org/2000/svg">
 <path d="m13 7.5h-4s1 3 1 6c0 1-2 2-3 2-2 0-2-2-2-4 0-4 3-7 3-7l-6 1s-1.0000036 2-1.0000018 6 2.0000018 8 5.0000018 8 4.999998-3 4.999998-3 1.000002 3 4.000002 3c4 0 6-4 6-7 0-4-1-6-1-6l-5-1s2 3 2 7c0 1 0 3-3 3-1 0-2-1-2-2 0-3 1-6 1-6z" style="opacity:.2"/>
 <path d="m13 7h-4s1 3 1 6c0 1-2 2-3 2-2 0-2-2-2-4 0-4 3-7 3-7l-6 1s-1.0000036 2-1.0000018 6 2.0000018 8 5.0000018 8 4.999998-3 4.999998-3 1.000002 3 4.000002 3c4 0 6-4 6-7 0-4-1-6-1-6l-5-1s2 3 2 7c0 1 0 3-3 3-1 0-2-1-2-2 0-3 1-6 1-6z" style="fill:#afafb1"/>
 <path d="m21 12s-3 6-6 6c-2 0-4-3-4-3s-3 3-5 3c-1.930093 0-4.7320131-5.478508-4.9296875-5.869141 0.3349195 3.58856 2.213894 6.869141 4.9296875 6.869141 3 0 5-3 5-3s1 3 4 3c4 0 6-4 6-7z" style="opacity:.2"/>
 <path d="m8 4-6 1 1 1 5-2zm7 1 4 2 1-1-5-1zm-6 2 2 1 2-1h-4z" style="fill:#8b9cbe;opacity:.2"/>
 <path d="m8 4-6 1s-1.0000018 2-1 6c0 0.055619 0.0089949 0.110407 0.0097656 0.166016 0.0558984-3.766035 0.9902344-5.666016 0.9902344-5.666016l5.4902344-0.9140625c0.3016603-0.3726123 0.5097656-0.5859375 0.5097656-0.5859375zm7 1s0.133829 0.2041656 0.330078 0.5664062l4.669922 0.9335938s0.927799 1.8908941 0.988281 5.636719c8.66e-4 -0.044553 0.011719-0.092584 0.011719-0.136719 0-4-1-6-1-6l-5-1zm-6 2s0.0632302 0.1898589 0.1523438 0.5h3.6953122c0.089114-0.3101411 0.152344-0.5 0.152344-0.5h-4zm-3.9921875 4.339844c-0.0010884 0.053869-0.0078125 0.105914-0.0078125 0.160156 0 2 0 4 2 4 1 0 3-1 3-2 0-0.143968-0.0112401-0.286051-0.015625-0.429688-0.0901359 0.975972-2.0078648 1.929688-2.984375 1.929688-1.8843043 0-1.9858819-1.782158-1.9921875-3.660156zm11.978516 0.925781c-0.015433 1.048007-0.209999 2.734375-2.986328 2.734375-0.95946 0-1.910112-0.921023-1.986328-1.878906-0.00343 0.126725-0.013672 0.251954-0.013672 0.378906 0 1 1 2 2 2 3 0 3-2 3-3 0-0.080858-0.01207-0.154351-0.013672-0.234375z" style="fill:#8b9cbe;opacity:.2"/>
</svg>
