<svg xmlns="http://www.w3.org/2000/svg" width="22" height="22" version="1">
 <path style="opacity:0.2" d="m 1,1.5 c 0,0 -1.1688e-4,3.9999219 0.017578,4.0449219 -0.1710732,1.6542035 0.677909,1.8913004 2.1796875,1.984375 0.4252,-0.0281 0.7781125,-0.1094 1.1328125,-0.4375 C 4.8922781,6.4155969 5,6.5 5,6.5 l -1,0 C 4.1179,6.9731 3.2731906,7.1852094 3.0253906,6.7871094 2.0923906,5.1466094 5.1893491,3.6893491 8,5 L 7.9257812,18.548828 C 7.4612812,19.606828 7.1647,20.027 6,20.5 l 0,1 c 2.4714,-0.786 5,-1 8,-1 l 0,-1 c -1.034,-0.183 -1.878,-1.051 -2,-2 l 0,-12 4.175781,0 C 16.671481,5.511003 16.8741,5.34369 17,6.5 l 2,0 c -0.559,-1.3089 -0.933594,-4 -0.933594,-4 0,0 -5.218528,0.027775 -9.925781,-0.2480469 C 4.4349582,2.0348194 1.0002995,1.5000595 1,1.5 Z m 16.201172,9 c -1.20093,0 -2.154451,0.06217 -2.201172,1 0,0.86743 0.10364,1.2939 1,1.5 0,0 -0.107911,-0.373583 -0.01953,-0.658203 0.4194,-1.1778 1.694699,-0.841591 1.80664,-0.462891 C 18.511092,14.844059 16.888752,17.908814 15,19.5 l 0,1 c 3,0 3.7142,0.40162 5,1 0.18093,-0.74781 2.344169,-2.415913 1.980469,-3.132812 C 21.416606,16.784557 19.999613,17.775936 20.03125,18.5 c 1.071325,0.04386 0.46875,1 0.46875,1 l -3.5,0 c 2.2317,-2.2259 4.32903,-5.725191 2.439453,-7.982422 C 18.678213,10.808518 18.133572,10.49595 17.201172,10.5 Z"/>
 <path style="fill:#fecd38" d="M 1 1 C 1 1 0.99988312 4.9999219 1.0175781 5.0449219 C 0.8465049 6.6991254 1.6954871 6.9362223 3.1972656 7.0292969 C 3.6224656 7.0011969 3.9753781 6.9198969 4.3300781 6.5917969 C 4.8922781 5.9155969 5 6 5 6 L 4 6 C 4.1179 6.4731 3.2731906 6.6852094 3.0253906 6.2871094 C 2.0923906 4.6466094 5.1893491 3.1893491 8 4.5 L 7.9257812 18.048828 C 7.4612812 19.106828 7.1647 19.527 6 20 L 6 21 C 8.4714 20.214 11 20 14 20 L 14 19 C 12.966 18.817 12.122 17.949 12 17 L 12 5 L 16.175781 5 C 16.671481 5.011003 16.8741 4.84369 17 6 L 19 6 C 18.441 4.6911 18.066406 2 18.066406 2 C 18.066406 2 12.847878 2.0277746 8.140625 1.7519531 C 4.4349582 1.5348194 1.0002995 1.0000595 1 1 z M 17.201172 10 C 16.000242 10 15.046721 10.062169 15 11 C 15 11.86743 15.10364 12.2939 16 12.5 C 16 12.5 15.892089 12.126417 15.980469 11.841797 C 16.399869 10.663997 17.675168 11.000206 17.787109 11.378906 C 18.511092 14.344059 16.888752 17.408814 15 19 L 15 20 C 18 20 18.7142 20.40162 20 21 C 20.18093 20.25219 22.344169 18.584087 21.980469 17.867188 C 21.416606 16.284557 19.999613 17.275936 20.03125 18 C 21.102575 18.043864 20.5 19 20.5 19 L 17 19 C 19.2317 16.7741 21.32903 13.274809 19.439453 11.017578 C 18.678213 10.308518 18.133572 9.99595 17.201172 10 z"/>
 <path style="fill:#8b9cbe;opacity:0.2" d="M 1 1 C 1 1 1.0019228 1.3927887 1.0019531 1.5 C 1.00527 1.5005292 4.4365872 2.0349149 8.140625 2.2519531 C 12.847878 2.527775 18.066406 2.5 18.066406 2.5 C 18.066406 2.5 18.375148 4.608771 18.837891 6 L 19 6 C 18.441 4.6911 18.066406 2 18.066406 2 C 18.066406 2 12.847878 2.0277746 8.140625 1.7519531 C 4.4349582 1.5348194 1.0002995 1.0000595 1 1 z M 7.9980469 4.9980469 L 7.9257812 18.048828 C 7.4612812 19.106828 7.1647 19.527 6 20 L 6 20.5 C 7.1647 20.027 7.4612812 19.606828 7.9257812 18.548828 L 8 5 C 7.9992176 4.9996351 7.9988293 4.9984113 7.9980469 4.9980469 z M 1.015625 5.1054688 C 0.99644577 5.3215866 0.99741577 5.5106018 1.0136719 5.6796875 C 1.0169907 5.6321902 1.0124013 5.5949792 1.0175781 5.5449219 C 1.0156557 5.5400329 1.0171499 5.1935194 1.015625 5.1054688 z M 2.890625 5.9414062 C 2.8248892 6.2078731 2.8588394 6.4942612 3.0253906 6.7871094 C 3.1251999 6.9474567 3.3220917 6.9874816 3.5136719 6.9726562 C 3.5883809 6.9592734 3.6688308 6.9559331 3.7402344 6.9335938 C 3.9209675 6.8543025 4.0506006 6.7030462 4 6.5 L 4.4140625 6.5 C 4.8909466 5.9494743 5 6 5 6 L 4 6 C 4.1179 6.4731 3.2731906 6.6852094 3.0253906 6.2871094 C 2.9590167 6.1704036 2.9177621 6.0553267 2.890625 5.9414062 z M 17.201172 10 C 16.000242 10 15.046721 10.062169 15 11 C 15 11.148755 15.00996 11.268647 15.019531 11.392578 C 15.13759 10.565517 16.051791 10.5 17.201172 10.5 C 18.133572 10.49595 18.678213 10.808518 19.439453 11.517578 C 19.896237 12.063238 20.116872 12.6826 20.162109 13.337891 C 20.21363 12.497223 20.011156 11.700517 19.439453 11.017578 C 18.678213 10.308518 18.133572 9.99595 17.201172 10 z M 15.974609 12.373047 C 15.965244 12.409336 15.961192 12.446718 15.957031 12.484375 C 15.974343 12.488679 15.982058 12.495875 16 12.5 C 16 12.5 15.98512 12.423172 15.974609 12.373047 z M 17.941406 12.882812 C 17.932803 15.336938 16.569228 17.677998 15 19 L 15 19.5 C 16.675866 18.088161 18.137927 15.515944 17.941406 12.882812 z M 12 17 L 12 17.5 C 12.122 18.449 12.966 19.317 14 19.5 L 14 19 C 12.966 18.817 12.122 17.949 12 17 z M 21.107422 17.023438 C 20.557406 16.991134 20.011477 17.54746 20.03125 18 C 20.098983 18.002773 20.142339 18.017749 20.197266 18.027344 C 20.570174 17.481635 21.497494 17.149062 21.951172 18.310547 C 22.012427 18.143912 22.041988 17.98845 21.980469 17.867188 C 21.76902 17.273701 21.437431 17.042819 21.107422 17.023438 z M 20.603516 18.755859 C 20.554689 18.890587 20.5 19 20.5 19 L 17.462891 19 C 17.308567 19.168314 17.156994 19.343414 17 19.5 L 20.5 19.5 C 20.5 19.5 20.772752 19.052576 20.603516 18.755859 z"/>
</svg>
