<svg xmlns="http://www.w3.org/2000/svg" height="22" width="22" version="1.1">
 <circle cx="11" cy="11.5" r="10" style="opacity:.2"/>
 <circle cx="11" cy="11" r="10" style="fill:#b2bfd9"/>
 <path d="m11 1a10 10 0 0 0 -10 10 10 10 0 0 0 0.0098 0.293 10 10 0 0 1 9.9902 -9.793 10 10 0 0 1 9.99 9.707 10 10 0 0 0 0.01 -0.207 10 10 0 0 0 -10 -10z" style="opacity:.2;fill:#8b9cbe"/>
 <path style="opacity:.2" d="m5 9.5c-1 0-1 1-1 1v3s0 1 1 1h1c1 0 1-1 1-1v-1s0-1-1-1h-1v-1h2v-1zm3 0v5h1v-5zm3 0c-1 0-1 1-1 1v1l1 0.5-1 0.5v1s0 1 1 1h1c1 0 1-1 1-1v-1l-1-0.5 1-0.5v-1s0-1-1-1zm4 0c-0.554 0-1 0.446-1 1v3c0 0.554 0.446 1 1 1h1c0.554 0 1-0.446 1-1v-3c0-0.554-0.446-1-1-1zm-4 1h1v1h-1zm4 0h1v3h-1zm-10 2h1v1h-1zm6 0h1v1h-1z"/>
 <path style="fill:#4f4f4f" d="m5 9c-1 0-1 1-1 1v3s0 1 1 1h1c1 0 1-1 1-1v-1s0-1-1-1h-1v-1h2v-1h-2zm0 3h1v1h-1z"/>
 <rect style="fill:#4f4f4f" height="5" width="1" y="9" x="8"/>
 <path style="fill:#4f4f4f" d="m11 9c-1 0-1 1-1 1v1l1 0.5-1 0.5v1s0 1 1 1h1c1 0 1-1 1-1v-1l-1-0.5 1-0.5v-1s0-1-1-1h-1zm0 1h1v1h-1zm0 2h1v1h-1z"/>
 <path style="fill:#4f4f4f" d="m15 9c-0.554 0-1 0.446-1 1v3c0 0.554 0.446 1 1 1h1c0.554 0 1-0.446 1-1v-3c0-0.554-0.446-1-1-1zm0 1h1v3h-1z"/>
</svg>
