<svg width="22" height="22" version="1.1" xmlns="http://www.w3.org/2000/svg">
 <g>
  <path d="m1 4.5v14.5c0 0.5544 0.445625 1 1 1h18.0005c0.554 0 0.9995-0.4455 0.9995-1v-14.5z" style="fill:#c7c7c7"/>
  <path d="M 2,2 C 1.4456,2 1,2.44575 1,2.99975 V 5 H 21 V 2.99975 C 21,2.44575 20.5545,2 20,2 Z" style="fill:#00caff"/>
  <path d="m2 2c-0.5544 0-1 0.446-1 1v0.5c0-0.554 0.4456-1 1-1h18c0.5544 0 1 0.446 1 1v-0.5c0-0.554-0.4455-1-1-1z" style="fill:#8b9cbe;opacity:.1"/>
  <path d="m1 19v0.5c0 0.5544 0.445625 1 1 1h18.001c0.5535 0 0.999-0.4455 0.999-1v-0.5c0 0.5544-0.445275 1-0.999 1h-18.001c-0.5544 0-1-0.4455-1-1z" style="opacity:.2"/>
  <rect x="6" y="8.5" width="7" height="10" style="opacity:.1"/>
  <rect x="6" y="8" width="7" height="10" style="fill:#f4b801"/>
  <path d="m8 7.5v5c0 3 3 4 3 4h7s-3-1-3-4v-5z" style="opacity:.2"/>
  <path d="m8 7v5c0 3 3 4 3 4h7s-3-1-3-4v-5z" style="fill:#fecd38"/>
 </g>
 <circle cx="16.5" cy="16.5" r="5.5" style="fill:#333333"/>
 <path d="m16.5 14s-0.354375-7e-3 -0.723635 0.17775c-0.369255 0.1846-0.776365 0.655601-0.776365 1.32225h1c0-0.5 0.5-0.5 0.5-0.5s0.5 0 0.5 0.5c0 0.2639-0.0698 0.41145-0.203125 0.578099-0.133325 0.166701-0.34668 0.334-0.59668 0.5215s-0.536645 0.395201-0.77832 0.6973c-0.241675 0.302051-0.421875 0.717001-0.421875 1.203101v0.5h3v-1h-1.82422c0.01565-0.022 0.0094-0.0556 0.02735-0.0781 0.133325-0.1667 0.34668-0.334 0.59668-0.5215s0.536645-0.3952 0.77832-0.6973c0.241675-0.30205 0.421875-0.717 0.421875-1.2031 0-0.666649-0.40711-1.13765-0.776365-1.32225-0.369265-0.18465-0.72364-0.17775-0.72364-0.17775z" style="fill-rule:evenodd;fill:#8b9cbe"/>
</svg>
