<svg xmlns="http://www.w3.org/2000/svg" width="22" height="22" version="1">
 <rect style="fill:#5838cf" width="20" height="20" x="1" y="1" rx="1" ry="1"/>
 <path style="fill:#1f8ce5" d="M 19,10.5 C 17,10.5 16.5,13 15,13 13.5,13 12,12 10.5,12 9,12 8,13.5 6.5,13.5 5,13.5 4.5,11 3,11 2.4154169,11 1.6811767,11.228763 1,11.506836 V 17 H 21 V 11.064453 C 20.387936,10.748246 19.696553,10.5 19,10.5 Z"/>
 <path style="opacity:0.2;fill:#8b9cbe" d="M 19,10.5 C 17,10.5 16.5,13 15,13 13.5,13 12,12 10.5,12 9,12 8,13.5 6.5,13.5 5,13.5 4.5,11 3,11 2.4154169,11 1.6811767,11.228763 1,11.506836 v 0.5 C 1.6811767,11.728763 2.4154169,11.5 3,11.5 c 1.5,0 2,2.5 3.5,2.5 1.5,0 2.5,-1.5 4,-1.5 1.5,0 3,1 4.5,1 1.5,0 2,-2.5 4,-2.5 0.696553,0 1.387936,0.248246 2,0.564453 v -0.5 C 20.387936,10.748246 19.696553,10.5 19,10.5 Z"/>
 <path style="fill:#61aeec" d="M 19,13.5 C 17,13.5 16.5,16 15,16 13.5,16 12,15 10.5,15 9,15 8,16.5 6.5,16.5 5,16.5 4.5,14 3,14 2.4154169,14 1.6811767,14.228763 1,14.506836 V 20 H 21 V 14.064453 C 20.387936,13.748246 19.696553,13.5 19,13.5 Z"/>
 <path style="opacity:0.2;fill:#8b9cbe" d="M 19,13.5 C 17,13.5 16.5,16 15,16 13.5,16 12,15 10.5,15 9,15 8,16.5 6.5,16.5 5,16.5 4.5,14 3,14 2.4154169,14 1.6811767,14.228763 1,14.506836 v 0.5 C 1.6811767,14.728763 2.4154169,14.5 3,14.5 c 1.5,0 2,2.5 3.5,2.5 1.5,0 2.5,-1.5 4,-1.5 1.5,0 3,1 4.5,1 1.5,0 2,-2.5 4,-2.5 0.696553,0 1.387936,0.248246 2,0.564453 v -0.5 C 20.387936,13.748246 19.696553,13.5 19,13.5 Z"/>
 <path style="fill:#d54b3e" d="m 7,15 h 12 c 0,0.5 -3.017327,4 -4.5,4 H 10.138614 C 7,19 7,16.5 7,15 Z"/>
 <rect style="fill:#d54b3e" width=".5" height="8" x="15.5" y="7"/>
 <rect style="fill:#d54b3e" width=".5" height="5" x="13.5" y="-15.5" transform="rotate(90)"/>
 <path style="opacity:0.2" d="m 13.896627,4.5 c 0,0 2.189509,3.424661 2.100745,10 H 11.5 c 1.408981,-2.997589 2.169968,-6.4650665 2.396627,-10 z"/>
 <path style="fill:#fed7ea" d="m 13.896627,4 c 0,0 2.189509,3.424661 2.100745,10 H 11.5 c 1.408981,-2.997589 2.169968,-6.4650665 2.396627,-10 z"/>
 <path style="opacity:0.1;fill:#8b9cbe" d="M 2,1 C 1.446,1 1,1.446 1,2 v 0.5 c 0,-0.554 0.446,-1 1,-1 h 18 c 0.554,0 1,0.446 1,1 V 2 C 21,1.446 20.554,1 20,1 Z"/>
 <path style="opacity:0.2" d="m 2,21.5 c -0.554,0 -1,-0.446 -1,-1 V 20 c 0,0.554 0.446,1 1,1 h 18 c 0.554,0 1,-0.446 1,-1 v 0.5 c 0,0.554 -0.446,1 -1,1 z"/>
 <path style="fill:#a8d0f1" d="M 19,16.5 C 17,16.5 16.5,19 15,19 13.5,19 12,18 10.5,18 9,18 8,19.5 6.5,19.5 5,19.5 4.5,17 3,17 2.4154169,17 1.6811767,17.228763 1,17.506836 V 20 c 0,0.554 0.446,1 1,1 h 18 c 0.554,0 1,-0.446 1,-1 V 17.064453 C 20.387936,16.748246 19.696553,16.5 19,16.5 Z"/>
 <circle style="opacity:0.2" cx="6.5" cy="7" r="2.5"/>
 <circle style="fill:#8b9cbe" cx="6.5" cy="6.5" r="2.5"/>
 <path style="opacity:0.2;fill:#8b9cbe" d="M 19,16.5 C 17,16.5 16.5,19 15,19 13.5,19 12,18 10.5,18 9,18 8,19.5 6.5,19.5 5,19.5 4.5,17 3,17 2.4154169,17 1.6811767,17.228763 1,17.506836 v 0.5 C 1.6811767,17.728763 2.4154169,17.5 3,17.5 c 1.5,0 2,2.5 3.5,2.5 1.5,0 2.5,-1.5 4,-1.5 1.5,0 3,1 4.5,1 1.5,0 2,-2.5 4,-2.5 0.696553,0 1.387936,0.248246 2,0.564453 v -0.5 C 20.387936,16.748246 19.696553,16.5 19,16.5 Z"/>
</svg>
