<svg width="22" height="22" version="1.1" xmlns="http://www.w3.org/2000/svg">
 <circle cx="11" cy="11.5" r="10" style="opacity:.2"/>
 <circle cx="11" cy="11" r="10" style="fill:#07314a"/>
 <path d="M 11,1 A 10,10 0 0 0 1,11 10,10 0 0 0 1.0098,11.293 10,10 0 0 1 11,1.5 10,10 0 0 1 20.99,11.207 10,10 0 0 0 21,11 10,10 0 0 0 11,1 Z" style="fill:#8b9cbe;opacity:.1"/>
 <path d="m2 5.5h8l2 2 2-2h7l-6 6 5 6h-8l-2-2-2 2h-7l6-6z" style="opacity:.2"/>
 <path d="m2 5h8l2 2 2-2h7l-6 6 5 6h-8l-2-2-2 2h-7l6-6z" style="fill:#21b0df"/>
 <path d="m2 5 0.4160156 0.5h7.5839844l2 2 2-2h6.5l0.5-0.5h-7l-2 2-2-2h-8zm4.7734375 6.226562-5.7734375 5.773438h0.5l5.5-5.5-0.2265625-0.273438zm8.4531245 0.046876-0.226562 0.226562 4.583984 5.5h0.416016l-4.773438-5.726562z" style="fill:#8b9cbe;opacity:.2"/>
</svg>
