<svg width="22" height="22" version="1.1" xmlns="http://www.w3.org/2000/svg">
 <circle cx="11" cy="11.5" r="10" style="opacity:.2"/>
 <circle cx="11" cy="11" r="10" style="fill:#69aa35"/>
 <path d="M 11,1 A 10,10 0 0 0 1,11 10,10 0 0 0 1.0098,11.293 10,10 0 0 1 11,1.5 10,10 0 0 1 20.99,11.207 10,10 0 0 0 21,11 10,10 0 0 0 11,1 Z" style="fill:#8b9cbe;opacity:.1"/>
 <path d="m12.000119 6.5c-1.370835 0-2.6528445 0.6417703-3.5449226 1.1445313-0.093476 0.052572-0.1778873 0.1198377-0.25 0.1992187-1.7741316 1.1491317-3.070875 2.1515155-4.0996095 4.208985-0.1407825 0.28156-0.1407825 0.612971 0 0.89453 0 0 2.3611975 4.552735 7.8945321 4.552735 1.751757 0 3.100337-0.572451 4.015624-1.392578 0.804026-0.720434 1.234769-1.578751 1.513672-2.353515 0.260547-0.170762 0.527894-0.326581 0.783204-0.605469 0.356875-0.389834 0.687499-0.95943 0.6875-1.648437 0-0.762391-0.543627-1.443585-1.0625-1.7011729-0.32408-0.1608848-0.576401-0.1531095-0.851563-0.1875-0.814025-1.3293583-2.345194-3.1113281-5.085937-3.1113281z" style="opacity:.1"/>
 <path d="m12.000119 5.9999995c-1.370835 0-2.6528445 0.6417703-3.5449226 1.1445313-0.093476 0.052572-0.1778873 0.1198377-0.25 0.1992187-1.7741317 1.1491317-3.070875 2.1515155-4.0996095 4.2089845-0.1407825 0.28156-0.1407825 0.612971 0 0.894531 0 0 2.3611975 4.552735 7.8945321 4.552735 1.751757 0 3.100337-0.572451 4.015624-1.392579 0.804026-0.720434 1.234769-1.578751 1.513672-2.353515 0.260547-0.170762 0.527894-0.326581 0.783204-0.605469 0.356875-0.389834 0.687499-0.95943 0.6875-1.648437 0-0.762391-0.543627-1.4435848-1.0625-1.7011724-0.32408-0.1608848-0.576401-0.1531095-0.851563-0.1875-0.814025-1.3293583-2.345194-3.1113281-5.085937-3.1113281z" style="fill:#4f4f4f"/>
 <path d="m16.023438 10.054688s2-0.25 2 1-2 2-2 2z" style="fill:#e68673"/>
 <path d="m5.023438 12.054688c1-2 2.0859375-2.7760851 4-4 0.8203125-0.46875 1.75 0.5 1.75 0.5l3.75 2.5h2.5s0 5-5 5-7-4-7-4z" style="fill:#f2dbb7"/>
 <path d="m12.023438 7.054688c-1 0-2.2395959 0.5562524-3.0546875 1.015625-0.0068 0.010572-0.010871 0.022579-0.017578 0.033203-0.1235914 0.0791941-0.2171069 0.1485534-0.3339845 0.2246095a4.5 4.5 0 0 0-0.59375 2.2265625 4.5 4.5 0 0 0 4.5 4.5 4.5 4.5 0 0 0 4.476562-4.054688c-0.132308-0.374413-1.430606-3.945312-4.976562-3.945312z" style="fill:#4f4f4f"/>
 <path d="m11.023438 13.054688h2c1.25 0 3-1 3-1s-0.5 2-3 2c-1.25 0-2-1-2-1z" style="fill:#2898b5"/>
 <circle cx="10.523438" cy="9.5546885" r="1.5" style="fill:#8b9cbe"/>
</svg>
