<svg xmlns="http://www.w3.org/2000/svg" width="22" height="22" version="1.1">
 <path style="opacity:0.2" d="m 11.509739,1.5001901 a 0.89482351,0.90918391 0 0 0 -0.523436,0.164062 C 9.974273,2.3846174 8.9980218,2.9363777 7.969711,3.1134663 6.9414007,3.2905549 5.8193497,3.1401752 4.3417927,2.2736252 A 0.89482351,0.90918391 0 0 0 3,3.0607321 V 13.281404 c 0,0.811874 0.3426108,1.552182 0.8261693,2.326165 0.4835586,0.773983 1.1401516,1.566711 1.9091737,2.328117 1.5380452,1.522814 3.50829,2.920147 5.508772,3.526356 a 0.89482351,0.90918391 0 0 0 0.511717,0 c 2.000482,-0.606209 3.970727,-2.003542 5.508772,-3.526356 0.769023,-0.761406 1.425615,-1.554134 1.909174,-2.328117 0.483559,-0.773983 0.826169,-1.514291 0.826169,-2.326165 V 3.0607321 A 0.89482351,0.90918391 0 0 0 18.658154,2.2736252 C 17.180597,3.1401752 16.058546,3.2905549 15.030236,3.1134663 14.001925,2.9363777 13.025674,2.3846174 12.013644,1.6642521 a 0.89482351,0.90918391 0 0 0 -0.503905,-0.164062 z"/>
 <path style="fill:#f84300" d="m 11.509739,1.0000643 c -0.187068,-0.00225 -0.370126,0.055124 -0.523436,0.164062 C 9.974273,1.8844916 8.9980218,2.2364713 7.969711,2.4135599 6.9414007,2.5906485 5.8193497,2.6400494 4.3417927,1.7734994 3.7454442,1.424133 3.0004003,1.8611819 3,2.5606064 V 12.781278 c 0,0.811874 0.3426108,1.552182 0.8261693,2.326165 0.4835586,0.773983 1.1401516,1.566711 1.9091737,2.328118 1.5380452,1.522813 3.50829,2.920146 5.508772,3.526356 0.166936,0.05061 0.344781,0.05061 0.511717,0 2.000482,-0.60621 3.970727,-2.003543 5.508772,-3.526356 0.769023,-0.761407 1.425615,-1.554135 1.909174,-2.328118 0.483559,-0.773983 0.826169,-1.514291 0.826169,-2.326165 V 2.5606064 c -4.01e-4,-0.6994245 -0.745444,-1.1364736 -1.341793,-0.787107 -1.477557,0.86655 -2.599608,0.8171491 -3.627918,0.6400605 -1.028311,-0.1770886 -2.004562,-0.5290683 -3.016592,-1.2494336 -0.14785,-0.1050507 -0.3235,-0.162239 -0.503905,-0.164062 z"/>
 <path style="opacity:0.2" d="M 11.051733,4.474935 C 9.036326,4.46293 8.702233,4.7160727 6.2610241,5.0794251 5.5626198,5.0881551 5.0008485,5.5606191 5.000286,6.2638474 c 8.7e-5,0.7097053 0.5714717,1.285025 1.276363,1.285152 0.013025,-1.25e-4 0.02605,-4.505e-4 0.039065,-10e-4 C 6.000283,6.5001747 6.302536,6.5885119 6.8290922,6.4835497 c 0.1041491,-9.5e-4 0.066815,-8e-4 0.1708979,-0.00195 V 15.053839 L 10,17.160277 V 6.4249794 c 1.521689,-0.02888 2.146225,0.017545 3.723697,0.4941395 2.632873,0.7954555 0.792705,2.7086636 -0.806026,3.7070201 0.900566,0.562374 2.078082,1.740736 2.082022,2.849518 0.0031,0.859584 -0.815892,1.677349 -2.275381,2.133865 -1.400205,0.362017 -1.746548,0.551972 -2.724312,1.550776 0,0 0.251341,-0.137896 1.932592,-0.20703 2.032091,-0.08356 3.490366,-0.786782 4.913095,-2.266595 C 17.561875,13.157357 16.608661,11.90859 14.494814,10.695475 16.654049,9.4699395 17.603969,8.0555268 16.616188,6.6632602 15.428356,4.9890244 14.03624,4.5730477 12.003878,4.4964194 11.656311,4.4833145 11.341594,4.4766595 11.051733,4.474935 Z m 1.865935,6.151204 -0.760052,-1.5703085 c -1.313322,0.927814 -1.680859,1.9164955 -0.07129,3.0341715 z"/>
 <path style="fill:#8b9cbe" d="M 11.051733,3.974809 C 9.036326,3.962806 8.702233,4.2159468 6.2610241,4.5792992 5.5626198,4.5880292 5.0008485,5.0604932 5.000286,5.7637215 c 8.7e-5,0.7097052 0.5714717,1.285025 1.276363,1.285152 0.013025,-1.25e-4 0.02605,-4.505e-4 0.039065,-0.001 C 6.000283,6.0000487 6.302536,6.0883859 6.8290922,5.9834238 c 0.1041491,-9.5e-4 0.066815,-8e-4 0.1708979,-0.00195 V 14.553713 L 10,16.660151 V 5.9248535 c 1.521689,-0.02888 2.146225,0.017545 3.723697,0.4941394 2.632873,0.7954555 0.792705,2.7086636 -0.806026,3.7070201 0.900566,0.562374 2.078082,1.740736 2.082022,2.849518 0.0031,0.859584 -0.815892,1.677349 -2.275381,2.133865 -1.400205,0.362017 -1.746548,0.551972 -2.724312,1.550776 0,0 0.251341,-0.137896 1.932592,-0.20703 2.032091,-0.08356 3.490366,-0.786782 4.913095,-2.266595 0.716188,-1.529316 -0.237026,-2.778083 -2.350873,-3.991198 C 16.654049,8.9698135 17.603969,7.5554009 16.616188,6.1631342 15.428356,4.4888984 14.03624,4.0729217 12.003878,3.9962934 11.656311,3.9831884 11.341594,3.9765354 11.051733,3.974809 Z m 1.865935,6.151204 -0.760052,-1.5703082 C 10.844294,9.4835185 10.476757,10.4722 12.086326,11.589876 Z"/>
 <path style="opacity:0.2;fill:#8b9cbe" d="m 11.509739,1.0000643 c -0.187068,-0.00225 -0.370126,0.055124 -0.523436,0.164062 C 9.974273,1.8844916 8.9980218,2.2360573 7.969711,2.4131459 6.9414007,2.5902345 5.8193497,2.6400494 4.3417927,1.7734994 3.7454441,1.424133 3.0004003,1.8611819 3,2.5606064 v 0.4999984 c 4.003e-4,-0.6994245 0.7454441,-1.1364734 1.3417927,-0.7871069 1.477557,0.8665499 2.599608,0.8177115 3.6279183,0.640623 1.0283108,-0.1770886 2.004562,-0.5296308 3.016592,-1.2499961 0.15331,-0.1089384 0.336368,-0.1663149 0.523436,-0.164062 0.180405,0.00182 0.356055,0.059011 0.503905,0.164062 1.01203,0.7203653 1.988281,1.0729075 3.016592,1.2499961 1.02831,0.1770885 2.150361,0.2259269 3.627918,-0.640623 0.596349,-0.3493667 1.341392,0.087682 1.341793,0.7871069 V 2.5606064 c -4.01e-4,-0.6994245 -0.745444,-1.1364736 -1.341793,-0.787107 -1.477557,0.86655 -2.599608,0.8167351 -3.627918,0.6396465 -1.028311,-0.1770886 -2.004562,-0.5286543 -3.016592,-1.2490196 -0.14785,-0.1050507 -0.3235,-0.162239 -0.503905,-0.164062 z"/>
</svg>
