<svg xmlns="http://www.w3.org/2000/svg" width="22" height="22" version="1.1">
 <rect style="opacity:0.2" width="20" height="20" x="1" y="1.5" rx="1" ry="1"/>
 <rect style="fill:#55448e" width="20" height="20" x="1" y="1" rx="1" ry="1"/>
 <path style="opacity:0.1;fill:#8b9cbe" d="M 2,1 C 1.446,1 1,1.446 1,2 v 0.5 c 0,-0.554 0.446,-1 1,-1 h 18 c 0.554,0 1,0.446 1,1 V 2 C 21,1.446 20.554,1 20,1 Z"/>
 <path style="opacity:0.2" d="m 4.6329575,18.470207 c -0.01,-0.01585 0.18715,-0.256005 0.4377,-0.533715 1.7081,-1.893555 1.95525,-2.212145 2.14945,-2.77082 0.0613,-0.17634 0.1271,-0.325845 0.14625,-0.332225 0.019,-0.0063 0.1265,0.11028 0.2386,0.25924 0.11215,0.14896 0.39985,0.505055 0.63945,0.791335 0.242,0.289215 0.42195,0.53349 0.405,0.549735 -0.017,0.0161 -0.14955,0.06884 -0.29495,0.11725 -0.14535,0.0484 -0.40965,0.17096 -0.5872,0.27235 -0.35675,0.20368 -0.83965,0.6207 -0.7976,0.688765 0.02,0.03215 0.8692,0.04195 3.6382995,0.04195 3.21285,0 3.621001,-0.0061 3.6902,-0.05448 0.043,-0.02995 0.07775,-0.08151 0.07775,-0.114545 0,-0.03305 -0.12335,-0.23294 -0.2742,-0.444235 -0.1508,-0.211295 -0.78365,-1.100745 -1.40635,-1.976555 -1.2145,-1.70817 -4.4156995,-6.192255 -4.9015495,-6.865915 -0.1622,-0.224875 -0.73585,-1.026225 -1.27485,-1.78077 -0.84825,-1.187555 -1.01165,-1.397335 -1.21615,-1.56123 -0.1299,-0.104135 -0.2362,-0.204415 -0.2362,-0.222845 0,-0.01905 0.14815,-0.0335 0.34385,-0.0335 0.31225,0 0.3504,0.00725 0.4148,0.078745 0.039,0.0433 1.9658,2.74818 4.2817995,6.010825 2.316,3.262645 4.5153,6.360475 4.88735,6.884065 0.37205,0.523585 0.67645,0.96849 0.67645,0.98868 0,0.04465 -11.0103495,0.05252 -11.0378995,0.0079 z M 15.844557,18.210262 C 14.536208,16.407572 6.0940575,4.545832 6.1054575,4.526232 c 0.0085,-0.01445 2.4002,-0.02625 5.3152495,-0.02625 4.5575,0 5.30005,0.00695 5.30005,0.04975 0,0.02735 -0.24805,0.282585 -0.5512,0.56717 -1.4096,1.323185 -2.01975,2.00849 -2.3201,2.605805 -0.0766,0.15237 -0.1588,0.27641 -0.1826,0.275645 -0.0648,-0.002 -1.09195,-1.396615 -1.0548,-1.432055 0.0175,-0.01655 0.14175,-0.08933 0.27645,-0.16178 0.3516,-0.18904 0.7515,-0.475275 0.9211,-0.65925 0.16005,-0.173645 0.1744,-0.212105 0.091,-0.244105 -0.0305,-0.0117 -1.2643,-0.02125 -2.7419,-0.02125 -2.6074495,0 -2.6882995,0.002 -2.7474995,0.06739 -0.0335,0.03705 -0.05565,0.088955 -0.049,0.115315 0.0065,0.02635 0.27165,0.42114 0.58925,0.8773 0.6154495,0.883955 0.6719495,0.964545 1.2948995,1.84716 0.22135,0.313625 0.4748,0.673695 0.56325,0.800145 0.0884,0.126455 0.3153,0.450395 0.5042,0.71988 0.3714,0.529915 0.65,0.936275 1.26325,1.84262 0.2169,0.320485 0.47125,0.690585 0.5653,0.82244 0.1939,0.27183 1.5326,2.222325 2.4925,3.63164 0.35295,0.518145 0.7472,1.096575 0.8762,1.2854 0.26235,0.384035 0.4254,0.57097 0.69285,0.794345 0.1001,0.08362 0.1732,0.166295 0.16245,0.183735 -0.011,0.01745 -0.31045,0.0317 -0.66585,0.0317 h -0.64625 z"/>
 <path style="fill:#8b9cbe" d="m 4.6329575,17.970216 c -0.01,-0.01585 0.18715,-0.256005 0.4377,-0.533715 1.7081,-1.893555 1.95525,-2.212145 2.14945,-2.77082 0.0613,-0.17634 0.1271,-0.325845 0.14625,-0.332225 0.019,-0.0063 0.1265,0.11028 0.2386,0.25924 0.11215,0.14896 0.39985,0.505055 0.63945,0.791335 0.242,0.289215 0.42195,0.53349 0.405,0.549735 -0.017,0.0161 -0.14955,0.06885 -0.29495,0.11725 -0.14535,0.0484 -0.40965,0.17096 -0.5872,0.27235 -0.35675,0.20368 -0.83965,0.6207 -0.7976,0.688765 0.02,0.03215 0.8692,0.04195 3.6382995,0.04195 3.21285,0 3.621001,-0.006 3.6902,-0.05448 0.043,-0.02995 0.07775,-0.08151 0.07775,-0.114545 0,-0.03305 -0.12335,-0.23294 -0.2742,-0.444235 -0.1508,-0.211295 -0.78365,-1.100745 -1.40635,-1.976555 -1.2145,-1.70817 -4.4156995,-6.192255 -4.9015495,-6.865915 -0.1622,-0.224875 -0.73585,-1.026225 -1.27485,-1.78077 -0.84825,-1.187555 -1.01165,-1.397335 -1.21615,-1.56123 -0.1299,-0.104135 -0.2362,-0.204415 -0.2362,-0.222845 0,-0.01905 0.14815,-0.0335 0.34385,-0.0335 0.31225,0 0.3504,0.00725 0.4148,0.078745 0.039,0.0433 1.9658,2.74818 4.2817995,6.010825 2.316,3.262645 4.5153,6.360475 4.88735,6.884065 0.37205,0.523585 0.67645,0.96849 0.67645,0.98868 0,0.04465 -11.0103495,0.05252 -11.0378995,0.0079 z M 15.844557,17.710271 C 14.536208,15.907581 6.0940575,4.045841 6.1054575,4.026241 c 0.0085,-0.01445 2.4002,-0.02625 5.3152495,-0.02625 4.5575,0 5.30005,0.00695 5.30005,0.04975 0,0.02735 -0.24805,0.282585 -0.5512,0.56717 -1.4096,1.323185 -2.01975,2.00849 -2.3201,2.605805 -0.0766,0.15237 -0.1588,0.27641 -0.1826,0.275645 -0.0648,-0.002 -1.09195,-1.396615 -1.0548,-1.432055 0.0175,-0.01655 0.14175,-0.08933 0.27645,-0.16178 0.3516,-0.18904 0.7515,-0.475275 0.9211,-0.65925 0.16005,-0.173645 0.1744,-0.212105 0.091,-0.244105 -0.0305,-0.0117 -1.2643,-0.02125 -2.7419,-0.02125 -2.6074495,0 -2.6882995,0.002 -2.7474995,0.06739 -0.0335,0.03705 -0.05565,0.088955 -0.049,0.115315 0.0065,0.02635 0.27165,0.42114 0.58925,0.8773 0.6154495,0.883955 0.6719495,0.964545 1.2948995,1.84716 0.22135,0.313625 0.4748,0.673695 0.56325,0.800145 0.0884,0.126455 0.3153,0.450395 0.5042,0.71988 0.3714,0.529915 0.65,0.936275 1.26325,1.84262 0.2169,0.320485 0.47125,0.690585 0.5653,0.82244 0.1939,0.27183 1.5326,2.222325 2.4925,3.63164 0.35295,0.518145 0.7472,1.096575 0.8762,1.2854 0.26235,0.384035 0.4254,0.57097 0.69285,0.794345 0.1001,0.08361 0.1732,0.166295 0.16245,0.183735 -0.011,0.01745 -0.31045,0.0317 -0.66585,0.0317 h -0.64625 z"/>
</svg>
