<svg width="22" height="22" version="1.1" xmlns="http://www.w3.org/2000/svg">
 <rect x="1" y="1.5" width="20" height="20" rx="1" ry="1" style="opacity:.2"/>
 <rect x="1" y="1" width="20" height="20" rx="1" ry="1" style="fill:#a1441e"/>
 <path d="m5.5 16.496h2.0645l3.292-5.1875 2.245 5.6915 3.338-0.964-0.5155-1.7335-1.548 0.504-3.5195-8.951h-3.0655v1.749h1.791l0.5155 1.467z" style="opacity:.2"/>
 <path d="m5.5 15.996h2.0645l3.292-5.1875 2.245 5.6915 3.338-0.964-0.5155-1.7335-1.548 0.504-3.5195-8.951h-3.0655v1.749h1.791l0.5155 1.467z" style="fill:#c9c9c9"/>
 <path d="m2 1c-0.554 0-1 0.446-1 1v0.5c0-0.554 0.446-1 1-1h18c0.554 0 1 0.446 1 1v-0.5c0-0.554-0.446-1-1-1h-18z" style="fill:#8b9cbe;opacity:.2"/>
</svg>
