<svg width="22" height="22" version="1.1" xmlns="http://www.w3.org/2000/svg">
 <circle cx="5.5" cy="5.5" r="3.5" style="fill:#c9c9c9"/>
 <path d="M 5.5 2 A 3.5 3.5 0 0 0 2 5.5 A 3.5 3.5 0 0 0 2.0117188 5.7753906 A 3.5 3.5 0 0 1 5.5 2.5 A 3.5 3.5 0 0 1 8.9882812 5.7246094 A 3.5 3.5 0 0 0 9 5.5 A 3.5 3.5 0 0 0 5.5 2 z " style="fill:#8b9cbe;opacity:.1"/>
 <ellipse cx="11" cy="11.5" rx="10" ry="9" style="opacity:.2"/>
 <path d="m11 2a10 9 0 0 0-10 9 10 9 0 0 0 10 9v-18z" style="fill:#b2bfd9"/>
 <circle cx="16.5" cy="5.5" r="3.5" style="fill:#17191e"/>
 <path d="m11 2a10 9 0 0 0-10 9 10 9 0 0 0 0.0117188 0.207031 10 9 0 0 1 9.9882812-8.707031v-0.5z" style="fill:#8b9cbe;opacity:.2"/>
 <circle cx="7" cy="9.5" r="1" style="opacity:.1"/>
 <circle cx="7" cy="9" r="1" style="fill:#17191e"/>
 <path d="M 16.5 2 A 3.5 3.5 0 0 0 13 5.5 A 3.5 3.5 0 0 0 13.011719 5.7753906 A 3.5 3.5 0 0 1 16.5 2.5 A 3.5 3.5 0 0 1 19.988281 5.7246094 A 3.5 3.5 0 0 0 20 5.5 A 3.5 3.5 0 0 0 16.5 2 z " style="fill:#8b9cbe;opacity:.1"/>
 <path d="m11 2v18a10 9 0 0 0 10-9 10 9 0 0 0-10-9z" style="fill:#4f4f4f"/>
 <path d="m11 2v0.5a10 9 0 0 1 9.988281 8.792969 10 9 0 0 0 0.011719-0.292969 10 9 0 0 0-10-9z" style="fill:#8b9cbe;opacity:.1"/>
 <path d="m11 13v3c4 0 8-5 8-5s-3 2-8 2z" style="fill:#8b9cbe"/>
 <rect x="9" y="12" width="2" height="4" style="fill:#17191e"/>
 <path d="m9 14.5-1-2v3s1 2 3 2c1 0 3-2 3-2h-3c-1 0-2-1-2-1z" style="opacity:.1"/>
 <path d="m9 14-1-2v3s1 2 3 2c1 0 3-2 3-2h-3c-1 0-2-1-2-1z" style="fill:#b3b3b3"/>
 <path d="m9 14.5c1 0 2-1 2-1s1 1 2 1 2-1 2-2-2-2-4-2-4 1-4 2 1 2 2 2z" style="opacity:.2"/>
 <path d="m9 14c1 0 2-1 2-1s1 1 2 1 2-1 2-2-2-2-4-2-4 1-4 2 1 2 2 2z" style="fill:#b3b3b3"/>
 <path d="m15 8.5-2.440678 1.743644s0.76169-0.174305 1.440678-0.141949c1 0.04765 0.697034 0.885593 0.697034 0.885593s0.738341-0.487288 1.302966-0.487288c0.58793 0 0.533898 1 0.533898 1l2.466102-4s-2 2-4 2c-0.496469 0 0-1 0-1z" style="opacity:.2"/>
 <path d="m15 8-2.440678 1.7436441s0.76169-0.1743053 1.440678-0.1419492c1 0.047653 0.697034 0.8855931 0.697034 0.8855931s0.738341-0.487288 1.302966-0.487288c0.58793 0 0.533898 1 0.533898 1l2.466102-4s-2 2-4 2c-0.496469 0 0-1 0-1z" style="fill:#f00e0e"/>
 <path d="m11 12.5 1-1h-2z" style="opacity:.1"/>
 <path d="m11 12 1-1h-2z" style="fill:#17191e"/>
</svg>
