<svg width="22" height="22" version="1.1" xmlns="http://www.w3.org/2000/svg">
 <g transform="translate(-1,-1)">
  <circle cx="12" cy="12.5" r="10" style="opacity:.2"/>
  <circle cx="12" cy="12" r="10" style="fill:#b2bfd9"/>
  <path d="m12 4.5-4 8 4 8 4-8z" style="opacity:.1"/>
  <path d="M 12,2 A 10,10 0 0 0 2,12 10,10 0 0 0 2.01075,12.291 10,10 0 0 1 12,2.5 10,10 0 0 1 21.9895,12.209 10,10 0 0 0 22,12 10,10 0 0 0 12,2 Z" style="fill:#8b9cbe;opacity:.2"/>
  <path d="m12 4-4 8 4 8 4-8z" style="fill:#72be45"/>
  <path d="m10 12h4l-2-8z" style="fill:#a7e077"/>
  <path d="m8 12 4 8-2-8zm4 8 4-8h-2z" style="fill:#008000;opacity:.4"/>
  <path d="M 12,4 8,12 8.125,12.25 12,4.5 15.875,12.25 16,12 Z" style="fill:#8b9cbe;opacity:.2"/>
 </g>
</svg>
