<svg xmlns="http://www.w3.org/2000/svg" height="22" width="22" version="1.1">
 <rect style="opacity:.2" rx="4" ry="4" height="20" width="20" y="1.5" x="1"/>
 <rect style="fill:#b2bfd9" rx="4" ry="4" height="20" width="20" y="1" x="1"/>
 <path style="opacity:.2" d="m5.9673775 6.625a0.50005 0.50005 0 0 0 -0.3378907 0.1640625l-3.5 3.8749995a0.50056463 0.50056463 0 1 0 0.7421876 0.671876l3.1289062-3.4648442 3.1289062 3.4648442a0.50056463 0.50056463 0 1 0 0.7421876 -0.671876l-3.5-3.8749995a0.50005 0.50005 0 0 0 -0.3535157 -0.1640625 0.50005 0.50005 0 0 0 -0.050781 0zm10 0a0.50005 0.50005 0 0 0 -0.337891 0.1640625l-3.5 3.8749995a0.50056478 0.50056478 0 1 0 0.742188 0.671876l3.128906-3.4648442 3.128906 3.4648442a0.50056478 0.50056478 0 1 0 0.742188 -0.671876l-3.5-3.8749995a0.50005 0.50005 0 0 0 -0.353516 -0.1640625 0.50005 0.50005 0 0 0 -0.05078 0zm-11.488282 7.869141a0.50005 0.50005 0 0 0 -0.453125 0.664062s0.1409245 0.430137 0.4335938 0.869141c0.2926692 0.439004 0.7910156 0.972656 1.5410156 0.972656 2.8412046 0 4.6169784-1.170789 5.0000004-1.435547 0.383022 0.264758 2.158795 1.435547 5 1.435547 0.75 0 1.248346-0.533652 1.541016-0.972656 0.292669-0.439004 0.433593-0.869141 0.433593-0.869141a0.50028181 0.50028181 0 0 0 -0.949218 -0.316406s-0.109076 0.319863-0.316407 0.630859c-0.20733 0.310996-0.458984 0.527344-0.708984 0.527344-2.833333 0-4.699219-1.400391-4.699219-1.400391a0.50005 0.50005 0 0 0 -0.601562 0s-1.8658861 1.400391-4.6992194 1.400391c-0.25 0-0.5016536-0.216348-0.7089844-0.527344-0.2073307-0.310996-0.3164062-0.630859-0.3164062-0.630859a0.50005 0.50005 0 0 0 -0.4960938 -0.347656z"/>
 <path style="stroke-linejoin:round;stroke:#32b7ff;stroke-linecap:round;fill:none" d="m2.5047898 10.5 3.499995-3.875 3.500005 3.875"/>
 <path style="stroke-linejoin:round;stroke:#32b7ff;stroke-linecap:round;fill:none" d="m19.50479 10.5-3.5-3.875-3.5 3.875"/>
 <path style="stroke-linejoin:round;stroke:#32b7ff;stroke-linecap:round;fill:none" d="m4.5022861 14.5s0.5 1.5 1.5 1.5c3 0 4.9999999-1.5 4.9999999-1.5s2 1.5 5 1.5c1 0 1.5-1.5 1.5-1.5"/>
 <path style="opacity:.2;fill:#8b9cbe" d="m5 1c-2.216 0-4 1.784-4 4v0.5c0-2.216 1.784-4 4-4h12c2.216 0 4 1.784 4 4v-0.5c0-2.216-1.784-4-4-4h-12z"/>
</svg>
