<svg width="22" height="22" version="1.1" xmlns="http://www.w3.org/2000/svg">
 <rect x="1" y="1" width="20" height="20" rx="1" ry="1" style="fill:#a52727"/>
 <path d="m1 2.5v-0.5c0-0.554 0.446-1 1-1h18c0.554 0 1 0.446 1 1v0.5c0-0.554-0.446-1-1-1h-18c-0.554 0-1 0.446-1 1z" style="fill:#8b9cbe;opacity:.1"/>
 <path d="m1 20v0.5c0 0.554 0.446 1 1 1h18c0.554 0 1-0.446 1-1v-0.5c0 0.554-0.446 1-1 1h-18c-0.554 0-1-0.446-1-1z" style="opacity:.2"/>
 <path d="m7.4453125 6.5-0.2226563 0.1699219-0.2226562 0.1699219v4.9335942l1.7636719 1.726562 1.2363281-0.947266-0.001953-2.855468-0.003906-2.8554691-0.216797-0.171875-0.220703-0.1699219h-0.806641zm3.9980465 0-0.220703 0.1699219-0.216797 0.171875-0.0039 2.8554691-0.001959 2.855468 1.236328 0.947266 1.763672-1.726562v-4.9335942l-0.445312-0.3398438h-1.304688zm8.056641 0-0.757812 0.0234375c-0.554975-0.0038-0.752098-0.00587-0.757813-0.00391l-0.984375 1.4355506s-0.999881-1.4554498-1.115234-1.4277343l-0.0918-0.00586c-0.05027-0.0033 0.139696-0.00586-0.189453-0.00586h-0.603513v5.2812502l-0.04687 0.03711c-0.04204 0.03022-0.05079 0.04126-0.04102 0.05078l1.076172 1.080078 0.0039-1.050782c0.0044-0.967119 0.0059-1.04778 0.01953-1.003906l0.988288 1.472658 1.003906-1.53125 0.0059 1.392579 0.0059 1.390625 0.980469 1 0.0039-3.878907 0.0059-3.7304684zm-17 0.00195v0.00195l0.5117188 0.5058594v3.5898436c0 1.9742 0.00436 3.724512 0.00781 3.890625v2e-3c0.00444 0.213765 0.00827 0.512218 0.015625 0.507812 0.024612-0.01469 3.0599127-2.967398 3.0644532-2.974609 0.0027-0.0044-0.019473-0.02486-0.050781-0.04687l-0.0585916-0.041061v-5.0957031l-0.2167969-0.1660157-0.2167969-0.1679687-1.3066406-0.0039063c-1.1813829-0.0019058-1.7558736-0.0074581-1.75-0.0019531zm2.3222656 0.9882813 0.085937 0.039063 0.083984 0.037109v3.8964847l-0.9785156 1.083984c-0.01759 0.0061-0.019435-1.838431-0.015625-3.2988279l0.00391-1.7539064 0.6601563-0.00195zm3.9082032 0.015625v0.00195c0.06563-0.00534 0.07719-0.00433 0.1699218 0.039063l0.0976563 0.0468807 0.0019531 2.253906c3.78e-4 0.991861-0.0051 2.252329-0.011719 2.251953l-0.9863281-1.0625v-1.521484l-0.0019529-1.9238281 0.0917969-0.0410157 0.0898437-0.0390624h0.4902344c0.268982 0 0.020064-0.00271 0.058594-0.00586zm3.5390622 0c0.03853 0.00315-0.210384 0.00586 0.05859 0.00586h0.490234l0.08984 0.039062 0.0918 0.041016-2e-3 1.9238281v1.5214836l-0.986328 1.0625c-0.006548 3.82e-4 -0.012037-1.260089-0.011667-2.25195l2e-3 -2.253906 0.09766-0.046875c0.09273-0.043393 0.104292-0.044403 0.169922-0.039063zm-6.269531 5.9941437-3 2 0.5 1h0.5v0.5l0.5 0.5h3.5l1.068359 1h1.103516l0.552734 1h0.550782l0.552734-1h1.103516l1.068359-1h3.5l0.5-0.5v-0.5h0.5l0.5-1-3-2h-1l2 2h-2l-1-1h-2l-1-1-1 1h-2l-1 1h-2l2-2z" style="opacity:.2"/>
 <path d="m7.4453125 6-0.2226563 0.1699219-0.2226562 0.1699219v4.9335942l1.7636719 1.726562 1.2363281-0.947266-0.001953-2.855468-0.003906-2.8554691-0.216797-0.171875-0.220703-0.1699219h-0.806641zm3.9980465 0-0.220703 0.1699219-0.216797 0.171875-0.0039 2.8554691-0.001959 2.855468 1.236328 0.947266 1.763672-1.726562v-4.9335942l-0.445312-0.3398438h-1.304688zm8.056641 0-0.757812 0.0234375c-0.554975-0.0038-0.752098-0.00587-0.757813-0.00391l-0.984375 1.4355506s-0.999881-1.4554498-1.115234-1.4277343l-0.0918-0.00586c-0.05027-0.0033 0.139696-0.00586-0.189453-0.00586h-0.603513v5.2812502l-0.04687 0.03711c-0.04204 0.03022-0.05079 0.04126-0.04102 0.05078l1.076172 1.080078 0.0039-1.050782c0.0044-0.967119 0.0059-1.04778 0.01953-1.003906l0.988288 1.472658 1.003906-1.53125 0.0059 1.392579 0.0059 1.390625 0.980469 1 0.0039-3.878907 0.0059-3.7304684zm-17 0.00195v0.00195l0.5117188 0.5058594v3.5898436c0 1.9742 0.00436 3.724512 0.00781 3.890625v2e-3c0.00444 0.213765 0.00827 0.512218 0.015625 0.507812 0.024612-0.01469 3.0599127-2.967398 3.0644532-2.974609 0.0027-0.0044-0.019473-0.02486-0.050781-0.04687l-0.0585916-0.041061v-5.0957031l-0.2167969-0.1660157-0.2167969-0.1679687-1.3066406-0.0039063c-1.1813829-0.0019058-1.7558736-0.0074581-1.75-0.0019531zm2.3222656 0.9882813 0.085937 0.039063 0.083984 0.037109v3.8964847l-0.9785156 1.083984c-0.01759 0.0061-0.019435-1.838431-0.015625-3.298828l0.00391-1.7539063 0.6601563-0.00195zm3.9082032 0.015625v0.00195c0.06563-0.00534 0.07719-0.00433 0.1699218 0.039063l0.0976563 0.0468807 0.0019531 2.253906c3.78e-4 0.991861-0.0051 2.252329-0.011719 2.251953l-0.9863281-1.0625v-1.521484l-0.0019529-1.9238281 0.0917969-0.0410157 0.0898437-0.0390624h0.4902344c0.268982 0 0.020064-0.00271 0.058594-0.00586zm3.5390622 0c0.03853 0.00315-0.210384 0.00586 0.05859 0.00586h0.490234l0.08984 0.039062 0.0918 0.041016-2e-3 1.9238281v1.5214836l-0.986328 1.0625c-0.0066 3.79e-4 -0.0121-1.260092-0.01172-2.2519526l2e-3 -2.253906 0.09766-0.046875c0.09273-0.043393 0.104292-0.044403 0.169922-0.039063zm-6.269531 5.9941437-3 2 0.5 1h0.5v0.5l0.5 0.5h3.5l1.068359 1h1.103516l0.552734 1h0.550782l0.552734-1h1.103516l1.068359-1h3.5l0.5-0.5v-0.5h0.5l0.5-1-3-2h-1l2 2h-2l-1-1h-2l-1-1-1 1h-2l-1 1h-2l2-2z" style="fill:#8b9cbe"/>
</svg>
