<svg width="22" height="22" version="1.1" xmlns="http://www.w3.org/2000/svg">
 <path d="m16.990234 6.4899919a1.0001 1.0001 0 0 0-0.697265 1.7167968l1 1c0.382149 0.3821488 0.549976 0.7358658 0.632812 0.9843753 0.082837 0.248509 0.074219 0.308594 0.074219 0.308594a1.0001 1.0001 0 1 0 2 0s-0.0086-0.439915-0.175781-0.9414065c-0.167164-0.5014914-0.499337-1.1477741-1.117188-1.7656252l-1-1a1.0001 1.0001 0 0 0-0.716797-0.3027344z" style="opacity:.2"/>
 <path d="m14.5 13.5c-1.932997 0-3.5 1.567003-3.5 3.5s1.567003 3.5 3.5 3.5c1.141237-5.19e-4 2.5 0 2.5 0s1.348752-2e-3 2 0c1.104569 0 2-1.567003 2-3.5s0-3.5-1-3.5c-0.652143 0.0013-2 1-3 2-0.653855-0.934955-1.359095-1.998398-2.5-2z" style="opacity:.2"/>
 <path d="m16.990234 5.9902344a1.0001 1.0001 0 0 0-0.697265 1.7167968l1 1c0.382149 0.3821489 0.549976 0.7358662 0.632812 0.984375 0.082837 0.2485089 0.074219 0.3085938 0.074219 0.3085938a1.0001 1.0001 0 1 0 2 0s-0.0086-0.4399151-0.175781-0.9414062c-0.167164-0.5014912-0.499337-1.1477739-1.117188-1.765625l-1-1a1.0001 1.0001 0 0 0-0.716797-0.3027344z" style="fill:#fcbbb8"/>
 <path d="m14.5 13c-1.932997 0-3.5 1.567003-3.5 3.5s1.567003 3.5 3.5 3.5c1.141237-5.19e-4 2.5 0 2.5 0s1.348752-2e-3 2 0c1.104569 0 2-1.567003 2-3.5s0-3.5-1-3.5c-0.652143 0.0013-2 1-3 2-0.653855-0.934955-1.359095-1.998398-2.5-2z" style="fill:#3b655d"/>
 <path d="m14.5 13c-1.932997 0-3.5 1.567003-3.5 3.5 0 0.085689 0.019337 0.165854 0.025391 0.25 0.130514-1.814043 1.627301-3.25 3.474609-3.25 1.140905 0.001602 1.846145 1.065045 2.5 2 1-1 2.347857-1.9987 3-2 0.923354 0 0.990669 1.355508 0.996094 3.082031 3.76e-4 -0.027936 0.003906-0.053937 0.003906-0.082031 0-1.932997 0-3.5-1-3.5-0.652143 0.0013-2 1-3 2-0.653855-0.934955-1.359095-1.998398-2.5-2z" style="fill:#8b9cbe;opacity:.1"/>
 <circle cx="14.5" cy="3.5" r="1.5" style="fill:#d3c76a"/>
 <path d="M 14.5 2 A 1.5 1.5 0 0 0 13 3.5 A 1.5 1.5 0 0 0 13.021484 3.7558594 A 1.5 1.5 0 0 1 14.5 2.5 A 1.5 1.5 0 0 1 15.978516 3.7441406 A 1.5 1.5 0 0 0 16 3.5 A 1.5 1.5 0 0 0 14.5 2 z " style="fill:#8b9cbe;opacity:.1"/>
 <path d="m11 20.499778c7 0 7-3 7-3s0-4-2-8.0000002c2 0 4-0.509288 4-2 0-1-3-4-7-4-10 0-9.1723941 6.179267-10 8.0000002-5 11 7 9 8 9z" style="opacity:.2"/>
 <path d="m11 20c7 0 7-3 7-3s0-4-2-8c2 0 4-0.509288 4-2 0-1-3-4-7-4-10 0-9.1723941 6.179267-10 8-5 11 7 9 8 9z" style="fill:#4f877c"/>
 <path d="M 13 3 C 3 3 3.8276059 9.179267 3 11 C 2.1026116 12.974255 1.7609259 14.52459 1.796875 15.748047 C 1.8569903 14.609227 2.2217427 13.212166 3 11.5 C 3.8276059 9.679267 3.0000003 3.5 13 3.5 C 16.722443 3.5 19.574641 6.0971676 19.953125 7.2636719 C 19.96908 7.1759399 20 7.0956959 20 7 C 20 6 17 3 13 3 z M 16.21875 9.4921875 C 16.145546 9.493579 16.073303 9.5 16 9.5 C 17.737242 12.974485 17.954389 16.285695 17.984375 17.138672 C 17.999233 17.05231 18 17 18 17 C 18 17 17.981256 13.320613 16.21875 9.4921875 z " style="fill:#8b9cbe;opacity:.1"/>
 <circle cx="14.5" cy="6" r="1.5" style="opacity:.2"/>
 <circle cx="14.5" cy="5.5" r="1.5" style="fill:#8b9cbe"/>
 <circle cx="14.5" cy="5.5" r=".5" style="fill:#17191e"/>
 <path d="m12 11c-1 0-2 2-2 2s0-1-1-1-2 1-2 1 0-1-1-1c-2 0-3 2-3 2s0.6373068-1.918456-0.1328125-2.685547c-4.620537 10.638267 7.1426965 8.685547 8.1328125 8.685547 7 0 7-3 7-3s-0.01757-2.765007-1.162109-5.990234c-1.821479 0.057662-1.837891 0.990234-1.837891 0.990234h-1s-1-1-2-1z" style="fill:#e6dfa4"/>
 <path d="m7.5 14.5c-1.9329966 0-3.5 1.567003-3.5 3.5s1.5670034 3.5 3.5 3.5c1.1412368-5.19e-4 2.5 0 2.5 0s1.348752-2e-3 2 0c1.104569 0 2-1.567003 2-3.5s0-3.5-1-3.5c-0.652143 0.0013-2 1-3 2-0.6538554-0.934955-1.3590944-1.998398-2.5-2z" style="opacity:.2"/>
 <path d="m7.5 14c-1.9329966 0-3.5 1.567003-3.5 3.5s1.5670034 3.5 3.5 3.5c1.1412368-5.19e-4 2.5 0 2.5 0s1.348752-2e-3 2 0c1.104569 0 2-1.567003 2-3.5s0-3.5-1-3.5c-0.652143 0.0013-2 1-3 2-0.6538554-0.934955-1.3590944-1.998398-2.5-2z" style="fill:#4f877c"/>
 <path d="m7.5 14c-1.9329966 0-3.5 1.567003-3.5 3.5 0 0.085689 0.0193366 0.165854 0.0253906 0.25 0.1305145-1.814043 1.6273013-3.25 3.4746094-3.25 1.1409056 0.001602 1.8461446 1.065045 2.5 2 1-1 2.347857-1.9987 3-2 0.923354 0 0.990669 1.355508 0.996094 3.082031 3.76e-4 -0.027936 0.003906-0.053937 0.003906-0.082031 0-1.932997 0-3.5-1-3.5-0.652143 0.0013-2 1-3 2-0.6538554-0.934955-1.3590944-1.998398-2.5-2z" style="fill:#8b9cbe;opacity:.2"/>
 <path d="m5 9.5s-1 2-1 4c0 1 0.254644 2 1 2 3 0 3-1 3-1v-5z" style="opacity:.2"/>
 <path d="m5 9s-1 2-1 4c0 1 0.254644 2 1 2 3 0 3-1 3-1v-5z" style="fill:#4f877c"/>
 <path d="m2 13.5s2-7.9999996 4-8.9999996 2 0 2 0 4 5.9999996 6 5.9999996 2-1 2-1 1 0 1 1-1 1-3 1c-7 0-12 2-12 2z" style="opacity:.2"/>
 <path d="m2 13s2-8 4-9 2 0 2 0 4 6 6 6 2-1 2-1 1 0 1 1-1 1-3 1c-7 0-12 2-12 2z" style="fill:#af2323"/>
 <path d="m7.5117188 3.5605469c-0.2929688-0.0292969-0.7617188 0.0644531-1.5117188 0.4394531-2 1-4 9-4 9s0.1327978-0.045908 0.1503906-0.052734c0.3678437-1.397024 2.0680001-7.5564614 3.8496094-8.447266 2-1 2 0 2 0s4 6 6 6 2-1 2-1 0.805971 0.00702 0.966797 0.738281c0.016273-0.074664 0.033203-0.148078 0.033203-0.238281 0-0.9999996-1-1-1-1s0 1-2 1-6-6-6-6 0-0.390625-0.4882812-0.4394531z" style="fill:#8b9cbe;opacity:.1"/>
 <path d="m10 2.5001724a1.0001 1.0001 0 0 0-0.1992188 0.0214843 1.0001 1.0001 0 0 0-0.3652343 0.1582031 1.0001 1.0001 0 0 0-0.1523438 0.1289063 1.0001 1.0001 0 0 0-0.1230469 0.1582031 1.0001 1.0001 0 0 0-0.048828 0.085937 1.0001 1.0001 0 0 0-0.070312 0.1875 1.0001 1.0001 0 0 0-0.033203 0.1972657 1.0001 1.0001 0 0 0 0 0.099609 1.0001 1.0001 0 0 0 0.054687 0.2929688 1.0001 1.0001 0 0 0 0.042969 0.1054687l0.9999998 2a1.0001 1.0001 0 0 0 0.175781 0.2421875 1.0001 1.0001 0 0 0 0.07422 0.066406 1.0001 1.0001 0 0 0 1.287109-0.00781 1.0001 1.0001 0 0 0 0.07422-0.068359 1.0001 1.0001 0 0 0 0.06445-0.076172 1.0001 1.0001 0 0 0 0.113281-1.0507812l-1-2a1.0001 1.0001 0 0 0-0.05078-0.085937 1.0001 1.0001 0 0 0-0.125-0.15625 1.0001 1.0001 0 0 0-0.07422-0.066406 1.0001 1.0001 0 0 0-0.08008-0.060547 1.0001 1.0001 0 0 0-0.175781-0.095703 1.0001 1.0001 0 0 0-0.09375-0.033203 1.0001 1.0001 0 0 0-0.09765-0.02344 1.0001 1.0001 0 0 0-0.09766-0.013672 1.0001 1.0001 0 0 0-0.099609-0.0058593z" style="opacity:.2"/>
 <path d="m10 3 1 2z" style="fill:none;stroke-linecap:round;stroke-linejoin:round;stroke-width:2;stroke:#e6dfa4"/>
 <path d="m14 10.5005h1s2 0 2 2-2-1-2-1h-1s-2 3-2 1 2-2 2-2z" style="opacity:.2"/>
 <path d="m14 10h1s2 0 2 2-2-1-2-1h-1s-2 3-2 1 2-2 2-2z" style="fill:#d63030"/>
 <path d="m10 2.0117188a1.0001 1.0001 0 0 0-0.1992188 0.0214843 1.0001 1.0001 0 0 0-0.3652343 0.1582031 1.0001 1.0001 0 0 0-0.1523438 0.1289063 1.0001 1.0001 0 0 0-0.1230469 0.1582031 1.0001 1.0001 0 0 0-0.0488281 0.0859375 1.0001 1.0001 0 0 0-0.0703125 0.1875 1.0001 1.0001 0 0 0-0.0332031 0.1972657 1.0001 1.0001 0 0 0 0 0.0996093 1.0001 1.0001 0 0 0 0.0292969 0.2070313 1.0001 1.0001 0 0 1 0.0039062-0.015625 1.0001 1.0001 0 0 1 0.0703125-0.1875 1.0001 1.0001 0 0 1 0.0488281-0.0859375 1.0001 1.0001 0 0 1 0.1230469-0.1582031 1.0001 1.0001 0 0 1 0.1523438-0.1289063 1.0001 1.0001 0 0 1 0.3652343-0.1582031 1.0001 1.0001 0 0 1 0.1992188-0.0214844 1.0001 1.0001 0 0 1 0.099609 0.0058594 1.0001 1.0001 0 0 1 0.097657 0.0136718 1.0001 1.0001 0 0 1 0.097656 0.0234376 1.0001 1.0001 0 0 1 0.09375 0.0332031 1.0001 1.0001 0 0 1 0.175781 0.0957031 1.0001 1.0001 0 0 1 0.080078 0.0605469 1.0001 1.0001 0 0 1 0.074219 0.0664062 1.0001 1.0001 0 0 1 0.125 0.15625 1.0001 1.0001 0 0 1 0.050781 0.0859375l1 2a1.0001 1.0001 0 0 1 0.06836 0.1894532 1.0001 1.0001 0 0 0-0.06836-0.6777344l-1-2a1.0001 1.0001 0 0 0-0.050781-0.0859375 1.0001 1.0001 0 0 0-0.125-0.15625 1.0001 1.0001 0 0 0-0.074219-0.0664063 1.0001 1.0001 0 0 0-0.080078-0.0605468 1.0001 1.0001 0 0 0-0.175781-0.0957032 1.0001 1.0001 0 0 0-0.09375-0.0332031 1.0001 1.0001 0 0 0-0.097656-0.0234375 1.0001 1.0001 0 0 0-0.097657-0.0136719 1.0001 1.0001 0 0 0-0.099609-0.0058593z" style="fill:#8b9cbe;opacity:.2"/>
 <path d="m14 10s-2 0-2 2c0 0.125 0.008789 0.230469 0.023438 0.318359 0.128255-1.800683 1.976562-1.818359 1.976562-1.818359h1s1.848307 0.017676 1.976562 1.818359c0.014649-0.08789 0.023438-0.193359 0.023438-0.318359 0-2-2-2-2-2h-1z" style="fill:#8b9cbe;opacity:.2"/>
</svg>
