<svg xmlns="http://www.w3.org/2000/svg" width="24" height="24" version="1.1">
 <path style="opacity:0.2" d="m 10.464495,16.511944 4.215102,-8.9669674 6.403079,4.5587924 -7.553171,6.978332 z"/>
 <circle style="opacity:0.2" cx="12.5" cy="17" r="3.5"/>
 <circle style="opacity:0.2" cx="4.5" cy="12" r="3.5"/>
 <path style="fill:#2d4461" d="m 10.464495,16.011946 4.215102,-8.9669679 6.403079,4.5587929 -7.553171,6.978332 z"/>
 <circle style="opacity:0.2" cx="18" cy="9.5" r="5"/>
 <circle style="fill:#3b597f" cx="18" cy="9" r="5"/>
 <circle style="fill:#3b597f" cx="12.5" cy="16.5" r="3.5"/>
 <path style="opacity:0.1;fill:#8b9cbe" d="M 12.5 13 A 3.5 3.5 0 0 0 9 16.5 A 3.5 3.5 0 0 0 9.0117188 16.775391 A 3.5 3.5 0 0 1 12.5 13.5 A 3.5 3.5 0 0 1 15.988281 16.724609 A 3.5 3.5 0 0 0 16 16.5 A 3.5 3.5 0 0 0 12.5 13 z"/>
 <circle style="fill:#3b597f" cx="4.5" cy="11.5" r="3.5"/>
 <path style="opacity:0.2;fill:none;stroke:#000000;stroke-width:3;stroke-linecap:round" d="m 4.5,11.999607 8,5"/>
 <path style="fill:none;stroke:#3db8ff;stroke-width:3;stroke-linecap:round" d="m 4.5,11.5 8,5"/>
 <circle style="opacity:0.2" cx="18" cy="9.5" r="3"/>
 <circle style="fill:#3db8ff" cx="18" cy="9" r="3"/>
 <path style="opacity:0.1;fill:#8b9cbe" d="M 18 4 A 5 5 0 0 0 13 9 A 5 5 0 0 0 13.009766 9.3027344 A 5 5 0 0 1 18 4.5 A 5 5 0 0 1 22.990234 9.1972656 A 5 5 0 0 0 23 9 A 5 5 0 0 0 18 4 z"/>
 <path style="opacity:0.1;fill:#8b9cbe" d="M 4.5 8 A 3.5 3.5 0 0 0 1 11.5 A 3.5 3.5 0 0 0 1.0117188 11.775391 A 3.5 3.5 0 0 1 4.5 8.5 A 3.5 3.5 0 0 1 7.9882812 11.724609 A 3.5 3.5 0 0 0 8 11.5 A 3.5 3.5 0 0 0 4.5 8 z"/>
 <path style="opacity:0.2;fill:#8b9cbe" d="M 18 6 A 3 3 0 0 0 15 9 A 3 3 0 0 0 15.013672 9.2558594 A 3 3 0 0 1 18 6.5 A 3 3 0 0 1 20.986328 9.2441406 A 3 3 0 0 0 21 9 A 3 3 0 0 0 18 6 z"/>
 <path style="opacity:0.2;fill:#8b9cbe" d="M 4.4414062 9.9882812 A 1.50015 1.50015 0 0 0 3.0039062 11.736328 A 1.50015 1.50015 0 0 1 4.4414062 10.488281 A 1.50015 1.50015 0 0 1 5.2949219 10.728516 L 13.294922 15.728516 A 1.50015 1.50015 0 0 1 14.013672 16.773438 A 1.50015 1.50015 0 0 0 13.294922 15.228516 L 5.2949219 10.228516 A 1.50015 1.50015 0 0 0 4.4414062 9.9882812 z"/>
</svg>
