<svg xmlns="http://www.w3.org/2000/svg" width="22" height="22" version="1">
 <rect style="fill:#41ab93" width="19" height="17" x="2" y="3"/>
 <rect style="fill:#b2bfd9" width="1" height="10" x="16" y="2"/>
 <rect style="fill:#b2bfd9" width="1" height="10" x="11" y="2"/>
 <rect style="fill:#b2bfd9" width="1" height="10" x="6" y="2"/>
 <circle style="opacity:0.1" cx="6.5" cy="14" r="2.5"/>
 <circle style="fill:#17191e" cx="6.5" cy="13.5" r="2.5"/>
 <path style="opacity:0.2" d="M 3.0019531,4 V 4.5 H 20 V 4 Z"/>
 <path style="opacity:0.2" d="m 1.0019531,20 v 0.5 H 3 3.0019531 20 22 V 20 H 20 3.0019531 3 Z"/>
 <circle style="opacity:0.1" cx="11.5" cy="14" r="2.5"/>
 <path style="fill:#4f4f4f" d="M 2.0016679,2 C 1.4477166,2 0.96720116,2.4470789 1.0017557,3 V 20 H 3.0015802 V 4 H 20.000044 v 16 h 1.999824 V 3 c 0,-0.554 -0.445961,-1 -0.999912,-1 z"/>
 <circle style="opacity:0.1" cx="16.5" cy="14" r="2.5"/>
 <circle style="fill:#17191e" cx="11.5" cy="13.5" r="2.5"/>
 <circle style="fill:#17191e" cx="16.5" cy="13.5" r="2.5"/>
 <path style="opacity:0.1;fill:#8b9cbe" d="m 2.0019531,2 c -0.5539513,0 -1.03455454,0.4470789 -1,1 v 0.5 c -0.034555,-0.5529211 0.4460487,-1 1,-1 H 20.999956 c 0.553951,0 1,0.446 1,1 V 3 c 0,-0.554 -0.446049,-1 -1,-1 z"/>
</svg>
