<svg xmlns="http://www.w3.org/2000/svg" width="22" height="22" version="1.1">
 <path style="opacity:0.2" d="m 7,4.5 a 7,7 0 0 0 -7,7 7,7 0 0 0 7,7 7,7 0 0 0 5.741211,-3 H 21 c 0.554,0 1,-0.446 1,-1 v -6 c 0,-0.554 -0.446,-1 -1,-1 H 12.734375 A 7,7 0 0 0 7,4.5 Z"/>
 <circle style="fill:#8e8e8e" cx="7" cy="11" r="7"/>
 <rect style="fill:#8e8e8e" width="14" height="8" x="8" y="7" rx="1" ry="1"/>
 <circle style="opacity:0.1" cx="7" cy="11.5" r="5"/>
 <circle style="fill:#3949ab" cx="7" cy="11" r="5"/>
 <rect style="opacity:0.3" width="6" height="3" x="14" y="9.5" rx=".5" ry=".5"/>
 <path style="opacity:0.1;fill:#8b9cbe" d="M 7,4 A 7,7 0 0 0 0,11 7,7 0 0 0 0.0107422,11.207031 7,7 0 0 1 7,4.5 a 7,7 0 0 1 5.734375,3 H 21 c 0.554,0 1,0.446 1,1 V 8 C 22,7.446 21.554,7 21,7 H 12.734375 A 7,7 0 0 0 7,4 Z"/>
</svg>
