<svg xmlns="http://www.w3.org/2000/svg" width="22" height="22" version="1">
 <path style="opacity:.2" d="m1 20v0.5c0 0.554 0.446 1 1 1h18c0.554 0 1-0.446 1-1v-0.5c0 0.554-0.446 1-1 1h-18c-0.554 0-1-0.446-1-1z"/>
 <rect style="fill:#4f4f4f" width="20" height="20" x="1" y="1" rx="1" ry="1"/>
 <path style="opacity:.1;fill:#8b9cbe" d="m2 1c-0.554 0-1 0.446-1 1v0.5c0-0.554 0.446-1 1-1h18c0.554 0 1 0.446 1 1v-0.5c0-0.554-0.446-1-1-1z"/>
 <path style="opacity:.2" d="m16 4.5-11 3.5v4l4.2305 1.154-4.2305 1.346v4l11-3.5v-4l-4.23-1.1543 4.23-1.3457z"/>
 <path style="fill:#ffab36" d="m16 4-11 3.5v4l11-3.5z"/>
 <path style="fill:#ffab36" d="m16 10.5-11 3.5v4l11-3.5z"/>
 <path style="opacity:.2" d="m15.154 10.77-6.7692 2.153 6.7692 1.847 0.846-0.27v-3.5z"/>
 <path style="fill:#ffab36" d="m5 7.5 11 3v4l-11-3z"/>
</svg>
