<svg xmlns="http://www.w3.org/2000/svg" height="22" width="22" version="1.1">
 <rect style="opacity:.2" rx="1" ry="1" height="20" width="20" y="1.5" x="1"/>
 <rect style="fill:#811623" rx="1" ry="1" height="20" width="20" y="1" x="1"/>
 <path style="opacity:.2" d="m2 1.5c-0.554 0-1 0.446-1 1v10l6-1 2 3-2 7h13c0.277 0 0.526281-0.112219 0.707031-0.292969l-7.707031-7.707031 2-4 6-2v-5c0-0.554-0.446-1-1-1h-6l-2 5-3 1z"/>
 <path style="fill:#581118" d="m2 1c-0.554 0-1 0.446-1 1v10l6-1 2 3-2 7h13c0.277 0 0.526281-0.112219 0.707031-0.292969l-7.707031-7.707031 2-4 6-2v-5c0-0.554-0.446-1-1-1h-6l-2 5-3 1-7-6z"/>
 <path style="opacity:.2" d="m14 1.5-0.826172 2 5.826172 5-3 8-9 2-3.5039062-6 3.1660156-7l-1.6621094-1.4277344-4 9.4277344 6 8 12-3 2-5v-6.5546875zm-2 5-3 1-2 4 2 3 4-1 2-4zm0 1 2 2-2 3.5-3 0.5-1-2 1.5-3z"/>
 <path style="fill:#d12b43" d="m14 1l-0.826172 2 5.826172 5-3 8-9 2-3.5039062-6 3.1660156-7-1.6621094-1.4277344-4 9.4277344 6 8 12-3 2-5v-6.5546875l-7-5.4453125zm-2 5l-3 1-2 4 2 3 4-1 2-4-3-3zm0 1l2 2-2 3.5-3 0.5-1-2 1.5-3 2.5-1z"/>
 <path style="opacity:.1;fill:#8b9cbe" d="m2 1c-0.554 0-1 0.446-1 1v0.5c0-0.554 0.446-1 1-1h18c0.554 0 1 0.446 1 1v-0.5c0-0.554-0.446-1-1-1h-18z"/>
</svg>
