<svg xmlns="http://www.w3.org/2000/svg" width="22" height="22" version="1">
 <rect style="fill:#2d6abe" width="20" height="20" x="-20" y="-21" rx="1" ry="1" transform="matrix(0,-1,-1,0,0,0)"/>
 <path style="opacity:0.2;fill:#8b9cbe" d="m 2,-2e-7 c -0.554,0 -1,0.446 -1,1 V 4.1748043 L 5.129883,11.328125 5.972656,11.699219 8.4189455,9.702148 10.097656,8.816406 16.846679,5.0820308 16.982422,4.4980468 14.385742,-2e-7 Z"/>
 <path style="opacity:0.1;fill:#8b9cbe" d="m 2,-2e-7 c -0.554,0 -1,0.446 -1,1 v 0.5 c 0,-0.554 0.446,-1 1,-1 h 18 c 0.554,0 1,0.446 1,1 v -0.5 c 0,-0.554 -0.446,-1 -1,-1 z"/>
 <path style="opacity:0.2" d="m 2,20.5 c -0.554,0 -1,-0.446 -1,-1 V 19 c 0,0.554 0.446,1 1,1 h 18 c 0.554,0 1,-0.446 1,-1 v 0.5 c 0,0.554 -0.446,1 -1,1 z"/>
 <path style="opacity:0.2;fill:none;stroke:#000000;stroke-width:2;stroke-linecap:round" d="M 11.115128,8.510356 18.025,20.499647"/>
 <path style="fill:#adadad" d="m 11.070312,7 a 1.0001,1.0001 0 0 0 -0.960937,0.9648438 l 1.46875,-0.8476563 A 1.0001,1.0001 0 0 0 11.070312,7 Z m 1.666016,1.820312 -1.732422,1 L 17.158203,20.5 a 1.0001607,1.0001607 0 1 0 1.732422,-1 z"/>
 <rect style="opacity:0.1" width="7.816" height=".977" x="1.46" y="13.79" rx=".558" ry=".489" transform="rotate(-30)"/>
 <rect style="fill:#17191e" width="7.816" height=".977" x="1.71" y="13.35" rx=".558" ry=".489" transform="rotate(-30)"/>
 <g style="font-size:10.89918232px;line-height:1.25;letter-spacing:0px;word-spacing:0px;opacity:0.2" transform="matrix(0.5,0,0,0.5,-0.5000001,-2)">
  <path d="m 11.915531,38.809263 q 0,1.035422 -0.752043,1.613079 -0.752044,0.577656 -2.0272481,0.577656 -0.6539509,0 -1.2098092,-0.09809 -0.5558583,-0.09809 -0.9264305,-0.27248 v -0.93733 q 0.3923705,0.174387 0.9700272,0.316077 0.5885558,0.141689 1.2098092,0.141689 0.8610354,0 1.3079024,-0.337875 0.446866,-0.337874 0.446866,-0.915531 0,-0.381471 -0.163488,-0.643052 Q 10.60763,37.991824 10.20436,37.77384 9.80109,37.555857 9.1035424,37.294276 8.1008176,36.934603 7.5994552,36.411443 7.0980928,35.888282 7.0980928,34.98365 q 0,-0.610355 0.3160763,-1.057221 0.3160763,-0.446867 0.8719346,-0.686649 0.5558583,-0.239782 1.2970027,-0.239782 0.6321526,0 1.1662126,0.119891 0.53406,0.119891 0.980926,0.316077 l -0.305177,0.839237 q -0.40327,-0.174387 -0.882834,-0.294278 -0.479564,-0.119891 -0.980926,-0.119891 -0.7302452,0 -1.1008174,0.316076 -0.3705722,0.305177 -0.3705722,0.817439 0,0.39237 0.1634877,0.653951 0.1634878,0.26158 0.53406,0.479564 0.3705722,0.207084 1.0027247,0.435967 0.6866482,0.250681 1.1553132,0.544959 0.479564,0.283379 0.719346,0.686649 0.250681,0.403269 0.250681,1.013624 z"/>
  <path d="m 18.965429,33.10899 -2.779292,7.782016 H 15.205211 L 12.42592,33.10899 h 1.024523 l 1.754768,4.991826 q 0.174387,0.479564 0.283379,0.904632 0.119891,0.414169 0.207084,0.79564 0.0763,-0.381471 0.196186,-0.806539 0.119891,-0.425068 0.294277,-0.915532 l 1.74387,-4.970027 z"/>
  <path d="m 23.290701,36.782015 h 2.692098 v 3.814714 q -0.632152,0.207084 -1.275204,0.305177 -0.643052,0.09809 -1.460491,0.09809 -1.209809,0 -2.038147,-0.479564 -0.828338,-0.490463 -1.264305,-1.384196 -0.425068,-0.904632 -0.425068,-2.13624 0,-1.209809 0.468665,-2.103542 0.479564,-0.904632 1.384196,-1.395095 0.904632,-0.501363 2.179837,-0.501363 0.65395,0 1.231607,0.119891 0.588556,0.119891 1.089918,0.337875 L 25.503235,34.3079 q -0.414169,-0.174387 -0.93733,-0.305177 -0.512261,-0.141689 -1.068119,-0.141689 -1.395096,0 -2.179837,0.850136 -0.773842,0.839237 -0.773842,2.288828 0,0.926431 0.294278,1.645777 0.305177,0.708447 0.948229,1.111717 0.643052,0.39237 1.689373,0.39237 0.512262,0 0.871935,-0.0545 0.359673,-0.0545 0.653951,-0.13079 v -2.310627 h -1.711172 z"/>
 </g>
 <g style="font-size:10.89918232px;line-height:1.25;letter-spacing:0px;word-spacing:0px;fill:#8b9cbe" transform="matrix(0.5,0,0,0.5,-0.5000001,-2.4999998)">
  <path style="fill:#8b9cbe" d="m 11.915531,38.809263 q 0,1.035422 -0.752043,1.613079 -0.752044,0.577656 -2.0272481,0.577656 -0.6539509,0 -1.2098092,-0.09809 -0.5558583,-0.09809 -0.9264305,-0.27248 v -0.93733 q 0.3923705,0.174387 0.9700272,0.316077 0.5885558,0.141689 1.2098092,0.141689 0.8610354,0 1.3079024,-0.337875 0.446866,-0.337874 0.446866,-0.915531 0,-0.381471 -0.163488,-0.643052 Q 10.60763,37.991824 10.20436,37.77384 9.80109,37.555857 9.1035424,37.294276 8.1008176,36.934603 7.5994552,36.411443 7.0980928,35.888282 7.0980928,34.98365 q 0,-0.610355 0.3160763,-1.057221 0.3160763,-0.446867 0.8719346,-0.686649 0.5558583,-0.239782 1.2970027,-0.239782 0.6321526,0 1.1662126,0.119891 0.53406,0.119891 0.980926,0.316077 l -0.305177,0.839237 q -0.40327,-0.174387 -0.882834,-0.294278 -0.479564,-0.119891 -0.980926,-0.119891 -0.7302452,0 -1.1008174,0.316076 -0.3705722,0.305177 -0.3705722,0.817439 0,0.39237 0.1634877,0.653951 0.1634878,0.26158 0.53406,0.479564 0.3705722,0.207084 1.0027247,0.435967 0.6866482,0.250681 1.1553132,0.544959 0.479564,0.283379 0.719346,0.686649 0.250681,0.403269 0.250681,1.013624 z"/>
  <path style="fill:#8b9cbe" d="m 18.965429,33.10899 -2.779292,7.782016 H 15.205211 L 12.42592,33.10899 h 1.024523 l 1.754768,4.991826 q 0.174387,0.479564 0.283379,0.904632 0.119891,0.414169 0.207084,0.79564 0.0763,-0.381471 0.196186,-0.806539 0.119891,-0.425068 0.294277,-0.915532 l 1.74387,-4.970027 z"/>
  <path style="fill:#8b9cbe" d="m 23.290701,36.782015 h 2.692098 v 3.814714 q -0.632152,0.207084 -1.275204,0.305177 -0.643052,0.09809 -1.460491,0.09809 -1.209809,0 -2.038147,-0.479564 -0.828338,-0.490463 -1.264305,-1.384196 -0.425068,-0.904632 -0.425068,-2.13624 0,-1.209809 0.468665,-2.103542 0.479564,-0.904632 1.384196,-1.395095 0.904632,-0.501363 2.179837,-0.501363 0.65395,0 1.231607,0.119891 0.588556,0.119891 1.089918,0.337875 L 25.503235,34.3079 q -0.414169,-0.174387 -0.93733,-0.305177 -0.512261,-0.141689 -1.068119,-0.141689 -1.395096,0 -2.179837,0.850136 -0.773842,0.839237 -0.773842,2.288828 0,0.926431 0.294278,1.645777 0.305177,0.708447 0.948229,1.111717 0.643052,0.39237 1.689373,0.39237 0.512262,0 0.871935,-0.0545 0.359673,-0.0545 0.653951,-0.13079 v -2.310627 h -1.711172 z"/>
 </g>
 <rect style="opacity:0.1" width="13.679" height="1.954" x="-1.47" y="11.83" rx=".977" ry=".977" transform="rotate(-30)"/>
 <rect style="fill:#17191e" width="13.679" height="1.954" x="-1.22" y="11.4" rx=".977" ry=".977" transform="rotate(-30)"/>
</svg>
