<svg xmlns="http://www.w3.org/2000/svg" width="22" height="22" version="1.1">
 <circle style="opacity:0.2" cx="11" cy="11.5" r="10"/>
 <path style="fill:#3a8eed" d="m 20.182983,11.204254 c 0,5.522847 -3.619285,9.142133 -9.142132,9.142133 -1.580262,0 -3.115761,0.287063 -4.444412,-0.365653 C 3.2815932,18.352278 1,14.942587 1,11 1,6.8413155 3.538562,3.2755435 7.150619,1.7677516 c 1.184854,-0.4945972 2.444368,-0.032436 3.80853,-0.032436 5.522847,0 9.223834,3.9460914 9.223834,9.4689384 z"/>
 <path style="fill:#ffd32c" d="m 11.045899,1.0058594 c -0.224725,-6.65e-4 -0.449569,0.00701 -0.673828,0.021485 -0.150485,0.00959 -0.300091,0.026265 -0.450196,0.042969 -0.0068,7.6e-4 -0.01367,0.00119 -0.02051,0.00195 -0.01896,0.00211 -0.03773,0.00536 -0.05664,0.00781 a 10,10 0 0 0 -0.01074,9.75e-4 10,10 0 0 0 -1.325196,0.2421875 c -10e-4,3.329e-4 -9.5e-4,0.00267 -0.00195,0.00293 -0.015875,0.00411 -0.03199,0.00754 -0.04785,0.011719 -0.1670405,0.044067 -0.3328065,0.094392 -0.498047,0.147461 a 10,10 0 0 0 -0.001,0 l -0.012695,0.00391 c -0.04115,0.013259 -0.082071,0.027224 -0.1230465,0.041015 -0.010135,0.00346 -0.020145,0.00727 -0.030275,0.010742 -0.035835,0.012288 -0.071744,0.024372 -0.107422,0.03711 -0.076719,0.027049 -0.250242,0.090586 -0.4072265,0.1445312 A 10,10 0 0 0 6.564433,2.0429676 L 8,3 V 5 L 9.902344,5.194336 9.381836,6.0566405 14.551758,9.142578 16.818359,12.025391 18,10.5 l 1.5,1 1.482422,-0.988281 c -0.01131,-0.227291 -0.03688,-0.451991 -0.06348,-0.676758 -0.0083,-0.07826 -0.01817,-0.156336 -0.02832,-0.234375 a 10,10 0 0 0 -0.0049,-0.04199 c -4.6e-5,-3.18e-4 4.7e-5,-6.5e-4 0,-10e-4 -0.03111,-0.211954 -0.07075,-0.42206 -0.115234,-0.630859 -0.0034,-0.016315 -0.0073,-0.03253 -0.01074,-0.04883 a 10,10 0 0 0 -0.04492,-0.2021485 c -8e-4,-0.0033 -0.0022,-0.00646 -0.0029,-0.00976 C 20.660728,8.4537985 20.603832,8.243105 20.53903,8.035134 20.52466,7.990014 20.50912,7.945281 20.49411,7.9003685 a 10,10 0 0 0 -0.02148,-0.066406 c -4.6e-4,-0.00135 -0.0015,-0.00255 -0.002,-0.0039 -0.07493,-0.2234815 -0.153632,-0.445607 -0.244141,-0.663086 -0.0054,-0.01242 -0.01113,-0.02471 -0.0166,-0.03711 a 10,10 0 0 0 -0.0166,-0.038085 c -0.0011,-0.0027 -0.0027,-0.00513 -0.0039,-0.00781 -0.438114,-1.026329 -1.047019,-1.980028 -1.810547,-2.8164065 -0.0026,-0.00325 -0.0052,-0.00652 -0.0078,-0.00976 a 10,10 0 0 0 -0.0088,-0.01074 c -0.0016,-0.00155 -0.0032,-0.0033 -0.0049,-0.0049 -3.26e-4,-3.145e-4 -6.5e-4,-6.5e-4 -10e-4,-0.001 -0.31331,-0.3018758 -0.623418,-0.6002043 -0.954043,-0.919866 l -10e-4,-9.75e-4 a 10,10 0 0 0 -0.001,-9.75e-4 c -0.14143,-0.1136258 -0.286012,-0.2233689 -0.433502,-0.3291146 -0.0026,-0.00195 -0.0052,-0.00391 -0.0078,-0.00586 -9.5e-4,-7.05e-4 -0.002,-0.00125 -0.0029,-0.00196 C 16.841707,2.8967018 16.730546,2.8068998 16.612304,2.7265625 16.459025,2.6230877 16.298395,2.5313203 16.139648,2.4365235 16.123251,2.426101 16.1063,2.4165765 16.089844,2.40625 A 10,10 0 0 0 15.874023,2.2734375 c -6.5e-4,-3.522e-4 -0.0013,-6.25e-4 -0.002,-9.75e-4 -0.142493,-0.078681 -0.289432,-0.1490387 -0.43555,-0.2207047 -0.127548,-0.065263 -0.256484,-0.1277776 -0.386719,-0.1875 -0.03036,-0.013679 -0.06029,-0.027884 -0.09082,-0.041015 -0.148547,-0.064714 -0.30164,-0.1183722 -0.453125,-0.1757813 -0.136254,-0.053138 -0.273657,-0.10328 -0.41211,-0.1503907 -0.04882,-0.014334 -0.09778,-0.028971 -0.146484,-0.043945 -0.126737,-0.038964 -0.254638,-0.072555 -0.382813,-0.1064453 -0.113088,-0.030967 -0.226712,-0.059943 -0.34082,-0.086914 -0.06407,-0.015234 -0.127952,-0.031626 -0.192383,-0.044922 -0.137775,-0.028945 -0.277164,-0.04819 -0.416015,-0.071289 -0.138537,-0.024088 -0.277564,-0.045252 -0.416993,-0.063477 -0.09714,-0.01047 -0.194769,-0.020539 -0.291992,-0.029297 -0.09433,-0.0085 -0.188685,-0.013836 -0.283203,-0.019531 a 10,10 0 0 0 -0.01172,-9.75e-4 c -0.09596,-0.00595 -0.191995,-0.010501 -0.288085,-0.013673 -0.09233,-0.00415 -0.184779,-0.010399 -0.277343,-0.010742 z"/>
 <path style="fill:#f14f4f" d="m 19.734375,6.154297 -0.0059,0.001 c 0.143915,0.2591365 0.276822,0.524134 0.398438,0.7939455 -0.09844,-0.227196 -0.205285,-0.450657 -0.320313,-0.669922 -0.02379,-0.04184 -0.04788,-0.083508 -0.07227,-0.125 z m 0.392578,0.794922 c 0.0718,0.1635295 0.139208,0.3289535 0.202148,0.4960935 -0.03265,-0.087656 -0.06087,-0.1772495 -0.09668,-0.263672 -0.0068,-0.016295 -0.01363,-0.03257 -0.02051,-0.04883 -0.0039,-0.00879 -0.0078,-0.01758 -0.01172,-0.026365 -0.0039,-0.00925 -0.0085,-0.01819 -0.0127,-0.027345 -0.01971,-0.043505 -0.04093,-0.086354 -0.06055,-0.1298825 z m 0.320312,0.818359 c 0.09532,0.2771395 0.178406,0.5583355 0.249024,0.8427735 -0.0464,-0.188233 -0.09507,-0.3757085 -0.152344,-0.560547 -0.02143,-0.066963 -0.04357,-0.1336985 -0.06641,-0.200195 -0.0092,-0.02765 -0.02092,-0.054432 -0.03027,-0.082031 z m 0.280274,0.966797 c 0.05086,0.2211185 0.09418,0.443903 0.129883,0.667969 -0.02558,-0.153953 -0.05178,-0.307605 -0.08398,-0.459961 -0.01099,-0.051521 -0.02238,-0.1029555 -0.03418,-0.154297 -0.0038,-0.017915 -0.0078,-0.03582 -0.01172,-0.053711 z m 0.193359,1.116211 c 0.0063,0.05392 0.0087,0.109132 0.01465,0.163086 l 0.0039,-0.01269 c -0.0058,-0.05018 -0.01199,-0.100308 -0.01855,-0.150391 z m 0.02636,0.227539 c -0.0017,0.0014 -0.0031,0.0018 -0.0049,0.003 0.0066,0.06151 0.01114,0.123854 0.0166,0.185547 -0.0041,-0.05669 -0.0046,-0.113163 -0.0098,-0.169922 z m -2.946289,0.432617 -1.183593,1.523437 -0.621094,-0.791992 -4.720703,3.737305 -3.34668,1.047852 H 7.4990215 L 8.098631,17.389648 6.62122,18.277395 6.66406,19.995117 C 6.449271,19.89071 6.2369885,19.781841 6.0312475,19.664062 c -0.03295,-0.0187 -0.065918,-0.03851 -0.098633,-0.05762 -0.00924,-0.0054 -0.01811,-0.01021 -0.027345,-0.01563 0.4039445,0.243279 0.8245905,0.457681 1.258789,0.641602 l -0.02539,-0.02442 c 0.050304,0.02041 0.099968,0.04433 0.1503905,0.06445 0.04285,0.01722 0.085821,0.03415 0.1289065,0.05078 -0.080113,-0.02763 -0.1598725,-0.05628 -0.239258,-0.08594 0.3890065,0.15806 0.787582,0.291463 1.1933595,0.399415 -0.071841,-0.0197 -0.1434605,-0.04021 -0.214844,-0.06152 -0.1493215,-0.04419 -0.296763,-0.09473 -0.444336,-0.145508 0.2172765,0.07658 0.437134,0.145635 0.65918,0.207032 C 9.228024,20.873985 10.111776,20.996154 11,21 c 0.02344,-9e-4 0.04688,-0.0019 0.07031,-0.0029 -0.287594,-0.002 -0.57497,-0.01627 -0.861328,-0.04297 -0.05435,-0.004 -0.108832,-0.0046 -0.163086,-0.0098 -0.02736,-0.0022 -0.0547,-0.0044 -0.08203,-0.0068 -0.09156,-0.0095 -0.182278,-0.02729 -0.273437,-0.04004 0.172329,0.02339 0.34524,0.04228 0.518555,0.05664 0.298434,0.02207 0.597759,0.0306 0.897461,0.02735 l -0.0039,0.01465 c 0.291334,-0.0052 0.582301,-0.02311 0.87207,-0.05371 v -0.0078 c 0.919414,-0.09056 1.828893,-0.301469 2.700195,-0.646484 0.0085,-0.0026 0.01693,-0.0052 0.02539,-0.0078 0.0021,-10e-4 0.0038,-0.002 0.0059,-0.003 0.358391,-0.169214 0.716939,-0.339207 1.091797,-0.515625 0.108555,-0.05952 0.215995,-0.121058 0.322265,-0.184571 0.08346,-0.052 0.168189,-0.101956 0.25,-0.15625 0.0027,-0.0018 0.006,-0.0032 0.0088,-0.0049 0.07223,-0.04581 0.143812,-0.09205 0.215821,-0.137695 0.119666,-0.08206 0.237533,-0.166716 0.353515,-0.253906 0.07744,-0.06042 0.156449,-0.118773 0.233399,-0.179688 0.05744,-0.04333 0.114408,-0.08728 0.170898,-0.131836 0.105043,-0.08836 0.208255,-0.178874 0.309571,-0.271484 0.04258,-0.0395 0.08648,-0.07751 0.128906,-0.117187 0.103043,-0.09314 0.203665,-0.189701 0.302734,-0.28711 0.08869,-0.09143 0.175615,-0.184546 0.260742,-0.279297 0.04762,-0.05385 0.09678,-0.10627 0.144532,-0.160156 0.08829,-0.09773 0.174388,-0.197665 0.258789,-0.298828 0.0808,-0.102291 0.15959,-0.206152 0.236328,-0.311524 0.03987,-0.05439 0.08071,-0.108045 0.120117,-0.163085 0.06909,-0.09473 0.136432,-0.190982 0.202148,-0.288086 0.01565,-0.02306 0.03112,-0.04629 0.04687,-0.06934 0.07575,-0.117914 0.149004,-0.237406 0.219727,-0.358399 0.0192,-0.0334 0.03918,-0.06631 0.05859,-0.09961 0.07169,-0.120965 0.140503,-0.243306 0.207031,-0.367188 0.0065,-0.0127 0.01309,-0.02535 0.01953,-0.03808 0.06138,-0.120537 0.120315,-0.242307 0.176758,-0.365235 0.01788,-0.03907 0.03607,-0.078 0.05371,-0.117187 l 0.0049,-0.01074 c 0.03961,-0.0876 0.07816,-0.175942 0.115235,-0.264648 0.02378,-0.05505 0.04682,-0.110651 0.07031,-0.166016 0.0416,-0.108026 0.08132,-0.216766 0.119141,-0.326172 0.04697,-0.133129 0.0962,-0.265491 0.137695,-0.40039 0.04205,-0.136321 0.0776,-0.274726 0.113281,-0.413086 0.0023,-0.0078 0.0045,-0.01562 0.0068,-0.02343 0.0017,-0.0067 0.0032,-0.01286 0.0049,-0.01953 0.0017,-0.0065 0.0034,-0.01299 0.0049,-0.01953 0.0037,-0.01563 0.0069,-0.03137 0.01074,-0.04687 0.02232,-0.08923 0.0446,-0.178738 0.06445,-0.268555 0.03853,-0.174387 0.07267,-0.349754 0.102539,-0.526367 0.02987,-0.176613 0.05548,-0.354473 0.0752,-0.533203 0.0018,-0.0163 0.0041,-0.03252 0.0059,-0.04883 0.01758,-0.166947 0.02914,-0.334561 0.03808,-0.50293 l 0.001,-0.01465 c 0.0026,-0.04783 0.0049,-0.09569 0.0068,-0.143555 3.3e-5,-9.5e-4 -3.2e-5,-0.002 0,-0.003 3.18e-4,-0.0097 6.5e-4,-0.01957 0.001,-0.0293 0.0012,-0.03787 0.0022,-0.07541 0.0029,-0.113281 0.0057,-0.237001 6e-4,-0.476251 -0.0098,-0.714844 l -1.475586,0.980469 z M 5.4433595,19.299804 v 0.0078 c 0.093748,0.05984 0.1884875,0.11812 0.2841795,0.174804 -0.095733,-0.05962 -0.1903185,-0.120402 -0.2841795,-0.182617 z m 1.461914,0.807618 c 0.056858,0.02455 0.1136745,0.04973 0.1708985,0.07324 1.64e-4,0.0021 -3.935e-4,0.0047 0,0.0068 l -0.0166,-0.0078 c -0.052388,-0.02245 -0.102495,-0.04889 -0.154297,-0.07227 z m 1.5810545,0.557617 c 0.282371,0.07299 0.5678,0.133597 0.855469,0.18164 -0.02722,-0.0047 -0.05483,-0.0069 -0.08203,-0.01172 -0.06914,-0.01165 -0.138152,-0.02401 -0.207031,-0.03711 -0.1898195,-0.0376 -0.378775,-0.08403 -0.566406,-0.132813 z"/>
 <path style="fill:#ff7d2c" d="m 18,10.5 -10,7 v -13 z"/>
 <path style="fill:#8b9cbe" d="M 11,4 A 7,7 0 0 0 8.1748045,4.605469 l 9.8056645,5.882812 A 7,7 0 0 0 11,4 Z M 8,4.683594 A 7,7 0 0 0 4,11 7,7 0 0 0 8,17.315429 Z m 9.982422,5.828125 -9.826172,6.878906 A 7,7 0 0 0 11,18 7,7 0 0 0 18,11 7,7 0 0 0 17.98242,10.511719 Z"/>
 <path style="opacity:0.2" d="M 17.989258,11.207031 A 7,7 0 0 1 11,18 7,7 0 0 1 4.010742,11.292969 7,7 0 0 0 4,11.5 a 7,7 0 0 0 7,7 7,7 0 0 0 7,-7 7,7 0 0 0 -0.01074,-0.292969 z"/>
 <path style="opacity:0.2" d="M 8,4.5 V 5 L 17.615234,10.769531 18,10.5 Z"/>
 <path style="opacity:0.2" d="m 7.667969,17.648437 -1.046875,0.628907 0.012695,0.492187 1.464844,-0.879883 -0.015625,-0.03614 A 7,7 0 0 1 7.667969,17.648435 Z"/>
 <path style="opacity:0.2;fill:#8b9cbe" d="M 11,1 A 10,10 0 0 0 1,11 10,10 0 0 0 1.01075,11.291 10,10 0 0 1 11,1.5 10,10 0 0 1 20.9895,11.209 10,10 0 0 0 21,11 10,10 0 0 0 11,1 Z"/>
 <path style="opacity:0.2" d="M 7.0126955,2.3417969 C 6.8616565,2.4051731 6.712197,2.4722506 6.564453,2.5429688 L 8,3.5 V 3 Z M 18,11 l 1.5,1 1.482422,-0.988281 c -0.0079,-0.158081 -0.02673,-0.314235 -0.04395,-0.470704 L 19.5,11.5 18,10.5 Z"/>
</svg>
