<svg xmlns="http://www.w3.org/2000/svg" width="22" height="22" version="1.1">
 <circle style="opacity:0.2" cx="11" cy="11.5" r="10"/>
 <circle style="fill:#28b4e4" cx="11" cy="11" r="10"/>
 <path style="opacity:0.2;fill:#8b9cbe" d="M 11,1 A 10,10 0 0 0 1,11 10,10 0 0 0 1.01075,11.291 10,10 0 0 1 11,1.5 10,10 0 0 1 20.9895,11.209 10,10 0 0 0 21,11 10,10 0 0 0 11,1 Z"/>
 <path style="opacity:0.2" d="M 9.073517,14.348411 C 8.4412382,14.159534 7.8886038,13.663716 7.7232244,13.136935 7.5183987,12.484513 7.6290376,10.900888 7.9489692,10.217846 8.0961112,9.903706 8.1648422,9.630213 8.1648422,9.610084 8.1648422,9.589954 7.8877508,9.448175 7.549082,9.29502 6.4195132,8.7841988 5.1379676,7.0181949 5.0119401,5.6393867 4.9355613,4.8037879 5.2112535,4.5461236 6.256561,4.4761533 7.3221539,4.4048253 8.6022612,4.9546068 10.071,5.7323464 c 0.653185,0.3458823 1.217899,0.5970364 1.254919,0.5581203 0.03004,-0.2812658 0.09462,-0.9298293 0.285133,-0.9988002 0.318275,-0.1152212 0.526654,0.5283254 0.808385,0.7135396 0.03815,0 0.411177,-0.5357278 0.828958,-1.1905064 0.803323,-1.259026 1.977822,-2.5918894 2.681054,-3.0425578 0.869462,-0.5571968 1.680818,-0.2382271 1.955551,0.7687902 0.34567,1.267024 -0.332947,2.6121414 -0.733588,4.0823321 l -0.164518,0.6037173 0.662343,0.5143677 C 18.65444,8.5219809 19,9.066072 19,9.868153 c 0,0.513934 -0.0835,0.805611 -0.370189,1.293071 -1.06103,1.804098 -2.725677,1.880981 -4.276434,0.197511 -0.26618,-0.288958 -0.662884,-0.716417 -0.720633,-0.716417 -0.08606,0.617994 0.253984,1.606888 0.182071,2.232682 -0.450733,-0.432314 -0.512655,-1.215462 -0.835311,-1.796731 -0.05303,0.0141 -0.332978,0.628178 -0.493346,1.162886 -0.557605,1.859184 -1.736782,2.607872 -3.412641,2.107256 z"/>
 <path style="fill:#8b9cbe" d="M 9.073517,13.848411 C 8.4412382,13.659534 7.8886038,13.163716 7.7232244,12.636935 7.5183987,11.984513 7.6290376,10.400888 7.9489692,9.717846 8.0961112,9.403706 8.1648422,9.130213 8.1648422,9.110084 8.1648422,9.089954 7.8877508,8.9481757 7.549082,8.7950205 6.4195132,8.2841991 5.1379676,6.5181952 5.0119401,5.139387 4.9355613,4.3037882 5.2112535,4.0461239 6.256561,3.9761536 7.3221539,3.9048256 8.6022612,4.4546071 10.071,5.2323467 c 0.653185,0.3458823 1.217899,0.5970364 1.254919,0.5581203 0.03004,-0.2812658 0.09462,-0.9298293 0.285133,-0.9988002 0.318275,-0.1152212 0.526654,0.5283254 0.808385,0.7135396 0.03815,0 0.411177,-0.5357278 0.828958,-1.1905064 0.803323,-1.259026 1.977822,-2.5918894 2.681054,-3.0425578 0.869462,-0.5571968 1.680818,-0.2382271 1.955551,0.7687902 0.34567,1.267024 -0.332947,2.6121414 -0.733588,4.0823321 l -0.164518,0.6037173 0.662343,0.5143677 C 18.65444,8.0219812 19,8.5660724 19,9.368153 c 0,0.513934 -0.0835,0.805611 -0.370189,1.293071 -1.06103,1.804098 -2.725677,1.880981 -4.276434,0.197511 -0.26618,-0.288958 -0.662884,-0.716417 -0.720633,-0.716417 -0.08606,0.617994 0.253984,1.606888 0.182071,2.232682 -0.450733,-0.432314 -0.512655,-1.215462 -0.835311,-1.796731 -0.05303,0.0141 -0.332978,0.628178 -0.493346,1.162886 -0.557605,1.859184 -1.736782,2.607872 -3.412641,2.107256 z"/>
</svg>
