<svg xmlns="http://www.w3.org/2000/svg" width="22" height="22" version="1.1">
 <rect style="opacity:0.2" width="20" height="20" x="1" y="1.5" rx="1" ry="1"/>
 <rect style="fill:#373548" width="20" height="20" x="1" y="1" rx="1" ry="1"/>
 <path style="fill:#306082" d="M 21,6.522461 A 12.864078,9.7528685 0 0 0 10.032227,16.160156 12.864078,9.7528685 0 0 0 11.747071,21 H 20 c 0.554,0 1,-0.446 1,-1 z"/>
 <path style="fill:#6abe30" d="m 13.011719,11.481446 c -2.04164,0.07661 -1.892285,0.682123 -3.124023,1.300781 C 9.452887,13.000616 8.7077695,13.110443 8.279297,13.371094 5.849664,14.849104 3.679306,16.923493 3.5458984,18.65332 3.4753572,19.567993 3.9862222,20.349428 4.830078,21 H 20 c 0.554,0 1,-0.446 1,-1 v -4.729492 c -2.35033,-2.096629 -5.697625,-3.875016 -7.988281,-3.789062 z"/>
 <path style="fill:#37946e" d="M 9.501953,13.497071 C 7.948896,13.458175 6.5485065,13.789557 5.6953125,14.694336 4.08498,16.402031 2.0388019,17.376469 2.7353515,19.15332 2.8722937,19.502651 3.5713351,20.170109 4.602539,21 h 14.78125 c -0.65266,-1.838955 -1.302645,-3.424814 -1.585938,-4.021485 -0.72013,-1.516736 -4.879172,-3.39587 -8.295898,-3.481444 z"/>
 <path style="fill:#306082" d="M 2.7753906,13.083985 C 2.0663544,13.048155 1.4985382,13.561825 1,14.256836 V 20 c 0,0.554 0.446,1 1,1 H 13.366211 C 12.743387,18.886236 11.809697,17.020208 10.766602,16.047851 9.548167,14.912046 5.6731645,14.367798 3.4589844,13.274414 3.2174007,13.155118 2.9900754,13.094833 2.7753906,13.083985 Z"/>
 <path style="fill:#d95763" d="M 1.8720703,12.916016 A 5.524452,8.218677 5.9096559 0 0 1,13.019531 V 20 c 0,0.554 0.446,1 1,1 H 6.9160155 A 5.524452,8.218677 5.9096559 0 0 5.207031,14.72461 5.524452,8.218677 5.9096559 0 0 1.8720703,12.916016 Z"/>
 <path style="fill:#ac3232" d="M 1.1123047,12.578125 C 1.0750802,12.579703 1.0373933,12.585434 1,12.587891 V 20 c 0,0.554 0.446,1 1,1 H 2.7802735 C 2.6943024,20.61315 2.719067,20.28559 2.9228515,20.069336 4.0891865,18.831634 5.387956,16.371577 4.691406,14.594727 4.168994,13.262089 2.7239328,12.509809 1.1123047,12.578125 Z"/>
 <path style="fill:#76428a" d="m 1,11.930664 v 6.426758 A 3.4556487,4.25 68.594142 0 0 3.2353515,13.800781 3.4556487,4.25 68.594142 0 0 1,11.930664 Z"/>
 <path style="fill:#99e550" d="m 13.011719,11.481446 c -2.04164,0.07661 -1.892285,0.682123 -3.124023,1.300781 -0.434809,0.218389 -1.1799265,0.328216 -1.608399,0.588867 -0.04942,0.03007 -0.096317,0.06418 -0.145508,0.09473 0.7926245,0.191238 1.819807,0.310546 2.958008,0.310546 2.486013,0 8.352301,3.584824 8.472656,2.913086 0.294562,-1.644049 -0.453142,-2.808748 -1.636719,-3.624023 -0.617453,-0.354368 -1.243493,-0.662499 -1.858398,-0.912109 -0.912013,-0.325506 -1.877791,-0.539144 -2.764648,-0.668946 -0.09851,-0.0028 -0.197948,-0.0065 -0.292969,-0.003 z"/>
 <path style="fill:#fbf236" d="m 13.011719,11.481446 c -2.04164,0.07661 -1.892285,0.682123 -3.124023,1.300781 -0.434809,0.218389 -1.1799265,0.328216 -1.608399,0.588867 -0.051659,0.03143 -0.100937,0.06668 -0.152344,0.09863 a 4.5013237,1.2356575 0 0 0 2.964844,0.30664 4.5013237,1.2356575 0 0 0 4.500976,-1.235351 4.5013237,1.2356575 0 0 0 -2.169921,-1.054688 c -0.140105,-0.0073 -0.277785,-0.0099 -0.411133,-0.0049 z"/>
 <path style="opacity:0.1;fill:#8b9cbe" d="M 2,1 C 1.446,1 1,1.446 1,2 v 0.5 c 0,-0.554 0.446,-1 1,-1 h 18 c 0.554,0 1,0.446 1,1 V 2 C 21,1.446 20.554,1 20,1 Z"/>
 <path style="opacity:0.2" d="m 13,1.5 v 2 h 1 v -2 z m -7,4 v 4 H 4 v 2 h 3 v -2 -2 h 2 v -2 H 7 Z m 5,0 v 2 h 1 v -2 z m 0,2 h -1 v 2 h 1 z m 0,2 v 2 h 6 v -2 h -1 v -4 h -1 v 4 h -1 v -4 h -1 v 4 z m 6,0 h 1 v -4 h -1 z m -7,0 H 9 v 2 h 1 z"/>
 <rect style="fill:#8b9cbe" width="3" height="2" x="4" y="9"/>
 <rect style="fill:#8b9cbe" width="1" height="2" x="13" y="1"/>
 <rect style="fill:#8b9cbe" width="1" height="4" x="6" y="5"/>
 <rect style="fill:#8b9cbe" width="2.5" height="2" x="6.5" y="5"/>
 <rect style="fill:#8b9cbe" width="1" height="2" x="9" y="9"/>
 <path style="opacity:0.1" d="m 21,6.522461 a 12.864078,9.7528685 0 0 0 -9.570312,5.25293 C 10.88374,12.025952 10.646684,12.401014 9.887696,12.782227 9.452887,13.000616 8.7077695,13.110443 8.279297,13.371094 8.1544685,13.44703 8.0343515,13.530417 7.911133,13.609375 7.2690945,13.725743 6.693348,13.940169 6.214844,14.264649 5.3730165,14.013799 4.556902,13.749809 3.852539,13.44336 3.4742791,13.121911 3.0143573,12.88712 2.5029297,12.743164 A 3.4556487,4.25 68.594142 0 0 1,11.930664 v 0.5 a 3.4556487,4.25 68.594142 0 1 1.5029297,0.8125 c 0.5114276,0.143956 0.9713494,0.378747 1.3496093,0.700196 0.704363,0.306449 1.5204775,0.570439 2.362305,0.821289 0.478504,-0.32448 1.0542505,-0.538907 1.696289,-0.655274 0.1232185,-0.07896 0.2433355,-0.162345 0.368164,-0.238281 0.4284725,-0.260651 1.17359,-0.370479 1.608399,-0.588867 0.758988,-0.381214 0.996044,-0.756275 1.541992,-1.006836 A 12.864078,9.7528685 0 0 1 21,7.022461 Z"/>
 <rect style="fill:#8b9cbe" width="1" height="2" x="10" y="7"/>
 <rect style="fill:#8b9cbe" width="1" height="2" x="11" y="5"/>
 <rect style="fill:#8b9cbe" width="6" height="2" x="11" y="9"/>
 <rect style="fill:#8b9cbe" width="1" height="4" x="13" y="5"/>
 <rect style="fill:#8b9cbe" width="1" height="4" x="15" y="5"/>
 <rect style="fill:#8b9cbe" width="1" height="4" x="17" y="5"/>
</svg>
