<svg xmlns="http://www.w3.org/2000/svg" width="22" height="22" version="1">
 <path style="fill:#c46c6c" d="M 19,20 V 2 C 19,1.446 18.554,1 18,1 H 4 C 3.446,1 3,1.446 3,2 v 18 c 0,0.554 0.446,1 1,1 h 14 c 0.554,0 1,-0.446 1,-1 z"/>
 <path style="fill:#8b9cbe" d="M 5.1115,2 V 2.5 H 6.6113 V 2 h -1.5 z m 2,0 v 0.5 h 1.5 V 2 Z m 2,0 V 2.5 H 10.5 V 2 Z M 11,2 v 0.5 h 1.25 V 2 Z m 1.75,0 v 0.5 h 1.5 V 2 Z m 2,0 v 0.5 h 1.5 V 2 Z m 2,0 v 0.5 h 0.48438 l 0.16699,0.015625 0.1416,0.044922 0.12696,0.069335 0.11035,0.089845 0.09082,0.11035 0.01563,0.019531 0.09961,-0.08203 0.32422,-0.17578 -0.011,-0.0204 -0.012,-0.0215 -0.016,-0.0185 -0.122,-0.1485 -0.014,-0.0185 -0.019,-0.0147 -0.148,-0.1221 -0.019,-0.0156 -0.021,-0.0117 -0.17,-0.0918 -0.022,-0.0117 -0.023,-0.0069 -0.189,-0.0586 -0.0235,-0.00685 -0.0255,-0.0029 -0.201,-0.0205 -0.013,-10e-4 h -0.5125 z M 4.587,2.0146 4.5235,2.0215 4.4981,2.0244 4.4747,2.0313 4.2862,2.0898 4.2628,2.0967 4.2413,2.1084 4.0714,2.2002 4.0499,2.2119 4.031345,2.227525 l -0.1482,0.122 -0.01855,0.01465 -0.01465,0.01855 -0.09665,0.1172 h 0.88255 l -0.0485,-0.48535 z M 18.492,3.1562 17.994,3.206 18,3.26555 v 1.415 h 0.5 V 3.23735 L 18.499,3.22465 18.492,3.1563 Z M 18,5.1804 v 1.5 h 0.5 v -1.5 z m 0,2 v 1.5 h 0.5 v -1.5 z m 0,2 v 1.5 h 0.5 v -1.5 z m 0,2 v 1.5 h 0.5 v -1.5 z m 0,2 v 1.5 h 0.5 v -1.5 z m 0,2 v 1.5 h 0.5 v -1.5 z m 0,2 v 1.5 h 0.5 v -1.5 z m 0,2 v 0.05371 l -0.01563,0.16699 -0.04492,0.1416 -0.06933,0.12696 -0.08985,0.11035 -0.11035,0.08985 -0.12696,0.06933 -0.14062,0.04395 -0.03907,0.0039 0.0498,0.49804 0.06348,-0.0068 0.02539,-0.003 0.02343,-0.0068 0.18848,-0.0586 0.02343,-0.0068 0.02149,-0.01172 0.16992,-0.0918 0.02149,-0.01172 0.01855,-0.01563 0.14844,-0.12207 0.01855,-0.01465 0.01465,-0.01855 0.12207,-0.14844 0.01563,-0.01855 0.01172,-0.02149 0.09179,-0.16992 0.01172,-0.02149 0.0068,-0.02343 0.05859,-0.18848 0.0068,-0.02343 0.0029,-0.02539 0.02051,-0.20117 0.001,-0.013 v -0.08184 h -0.5 z m -14.247,0.8195 0.09668,0.11719 0.014648,0.01856 0.018554,0.01465 0.14844,0.12207 0.018555,0.01563 0.021485,0.01172 0.16992,0.0918 0.021485,0.01172 0.023435,0.0068 0.18848,0.0586 0.023435,0.0068 0.02539,0.003 0.20117,0.02051 0.012695,10e-4 h 0.5127 v -0.5 h -1.4971 z m 1.997,0 v 0.5 h 1.5 v -0.5 z m 2,0 v 0.5 h 1.5 v -0.5 z m 2,0 v 0.5 H 11 v -0.5 z m 1.75,0 v 0.5 h 1.3886 v -0.5 h -1.3885 z m 1.8886,0 v 0.5 h 1.5 v -0.5 z m 2,0 v 0.5 h 1.5 v -0.5 z"/>
 <path style="opacity:0.1" d="m 16,8.5 h 4 v 6 h -4 c -0.554,0 -1,-0.446 -1,-1 v -4 c 0,-0.554 0.446,-1 1,-1 z"/>
 <path style="opacity:0.2;fill:#8b9cbe" d="M 4,1 C 3.446,1 3,1.446 3,2 v 0.5 c 0,-0.554 0.446,-1 1,-1 h 14 c 0.554,0 1,0.446 1,1 V 2 C 19,1.446 18.554,1 18,1 Z"/>
 <path style="fill:#9b3e3e" d="m 16,8 h 4 v 6 h -4 c -0.554,0 -1,-0.446 -1,-1 V 9 c 0,-0.554 0.446,-1 1,-1 z"/>
 <g transform="matrix(0.5,0,0,0.5,1,-0.5)">
  <path style="fill:#c8c8c8" d="m 36,23 a 2,2 0 0 1 -2,2 2,2 0 0 1 -2,-2 2,2 0 0 1 2,-2 2,2 0 0 1 2,2 z"/>
  <path style="fill:#8b9cbe" d="M 35.5,22.25 A 1.5,1.25 0 0 1 34,23.5 1.5,1.25 0 0 1 32.5,22.25 1.5,1.25 0 0 1 34,21 a 1.5,1.25 0 0 1 1.5,1.25 z"/>
 </g>
 <path style="fill:#8b9cbe" d="m 16.629517,8.7890487 v 0.1054756 l -0.01185,-0.1046487 -0.04373,0.00415 0.02459,0.2092974 0.03099,-0.0033 h 0.466414 V 8.7890655 h -0.466414 z m 0.699622,0 V 9 h 0.466415 V 8.7890487 Z m 0.699623,0 V 9 h 0.466414 V 8.7890487 Z m 0.699622,0 V 9 h 0.466414 V 8.7890487 Z m 0.699621,0 V 9 h 0.303356 V 8.7890487 Z m -3.103709,0.054388 -0.02094,0.00577 -0.01184,0.0033 -0.01,0.00495 -0.126622,0.065099 -0.01,0.00495 -0.0091,0.00659 -0.110225,0.085696 -0.008,0.0066 -0.0073,0.0082 -0.0911,0.103822 -0.0065,0.0082 -0.0056,0.009 -0.0026,0.005 0.133004,0.06263 0.06467,0.04615 0.08563,-0.09724 0.09019,-0.07087 0.1075,-0.05438 0.01,-0.0033 -9.33e-4,-0.0016 0.0021,-8.44e-4 -0.0045,-0.0066 -0.0674,-0.191174 z M 15.80415,9.37246 l -0.01733,0.05355 -0.0035,0.0091 -9.33e-4,0.01071 -0.01457,0.141735 -9.33e-4,0.005 v 0.229077 h 0.233208 v -0.22415 l 0.01366,-0.122781 0.01366,-0.04202 -0.223188,-0.06015 z m -0.03736,0.660067 v 0.421902 H 16 v -0.421902 z m 0,0.632853 v 0.421901 H 16 V 10.66538 Z m 0,0.632854 v 0.421901 H 16 v -0.421901 z m 0,0.632853 V 12.35299 H 16 v -0.421903 z m 0.246873,0.601549 -0.223189,0.06015 0.03917,0.121955 0.0035,0.0099 0.0056,0.0083 0.06832,0.119483 0.0056,0.0091 0.0065,0.0083 0.0911,0.103821 0.0073,0.0083 0.008,0.0066 0.02276,0.01731 0.152125,-0.159867 -0.01275,-0.0099 -0.07834,-0.089 -0.05921,-0.103004 -0.03647,-0.111247 z m 0.358011,0.421903 -0.11387,0.183762 0.0237,0.01237 0.01,0.005 0.01185,0.0032 0.139382,0.04121 0.01184,0.0032 0.01185,8.44e-4 0.151221,0.01399 0.0065,8.45e-4 h 0.145755 V 13.008047 H 16.6296 l -0.128452,-0.01318 -0.117517,-0.03461 -0.01184,-0.0059 z m 0.631294,0.05356 v 0.210951 h 0.466413 v -0.210951 z m 0.699619,0 v 0.210951 h 0.466416 v -0.210951 z m 0.699624,0 v 0.210951 h 0.466414 v -0.210951 z m 0.699621,0 v 0.210951 h 0.466417 v -0.210951 z"/>
 <path style="opacity:0.2" d="m 3,20 v 0.5 c 0,0.554 0.446,1 1,1 h 14 c 0.554,0 1,-0.446 1,-1 V 20 c 0,0.554 -0.446,1 -1,1 H 4 C 3.446,21 3,20.554 3,20 Z"/>
</svg>
