<svg xmlns="http://www.w3.org/2000/svg" width="22" height="22" version="1">
 <rect style="opacity:0.2" width="20" height="20" x="1" y="1.5" rx="1" ry="1"/>
 <rect style="fill:#b2bfd9" width="20" height="20" x="1" y="1" rx="1" ry="1"/>
 <path style="opacity:0.1;fill:none;stroke:#000000;stroke-width:2;stroke-linecap:round;stroke-linejoin:round" d="m 11,4.4786365 0,4.4997575 m -5,-1.4997575 10,0 m -7,6.9999005 4,0 m -2,4.007221 0,-11.5 c 1.700339,2.754794 3.616861,6.850416 7,7.500001 m -6.989899,3.985756 0,-11.4999995 C 9.309762,9.726309 7.383139,13.821931 4,14.471516"/>
 <path style="opacity:0.2;fill:#8b9cbe" d="M 2,1 C 1.446,1 1,1.446 1,2 l 0,0.5 c 0,-0.554 0.446,-1 1,-1 l 18,0 c 0.554,0 1,0.446 1,1 L 21,2 C 21,1.446 20.554,1 20,1 L 2,1 Z"/>
 <path style="fill:none;stroke:#17191e;stroke-width:2;stroke-linecap:round;stroke-linejoin:round" d="M 11,18.007121 11,6.5071215 c 1.700339,2.7547935 3.616861,6.8504155 7,7.5000005 m -6.989899,3.985756 0,-11.499999 C 9.309762,9.247672 7.383139,13.343294 4,13.992879"/>
 <path style="fill:none;stroke:#17191e;stroke-width:2;stroke-linecap:round;stroke-linejoin:round" d="m 9,13.9999 4,0"/>
 <path style="fill:none;stroke:#17191e;stroke-width:2;stroke-linecap:round;stroke-linejoin:round" d="M 6,7 16,7"/>
 <path style="fill:none;stroke:#17191e;stroke-width:2;stroke-linecap:round;stroke-linejoin:round" d="m 11,4 0,4.4997575"/>
</svg>
