<svg xmlns="http://www.w3.org/2000/svg" width="22" height="22" version="1.1">
 <rect style="fill:#ff7964" width="22" height="1.5" x="0" y="3.5"/>
 <rect style="fill:#ff7964" width="22" height="1.5" x="0" y="12.5"/>
 <rect style="fill:#ff7964" width="22" height="1.5" x="0" y="17"/>
 <rect style="fill:#ff7964" width="22" height="1.5" x="0" y="8"/>
 <rect style="opacity:0.2" width="20" height="20" x="-21.5" y="-21" rx="1" ry="1" transform="matrix(0,-1,-1,0,0,0)"/>
 <rect style="fill:#414141" width="20" height="20" x="-21" y="-21" rx="1" ry="1" transform="matrix(0,-1,-1,0,0,0)"/>
 <path style="opacity:0.1;fill:#8b9cbe" d="M 2,1 C 1.446,1 1,1.446 1,2 v 0.5 c 0,-0.554 0.446,-1 1,-1 h 18 c 0.554,0 1,0.446 1,1 V 2 C 21,1.446 20.554,1 20,1 Z"/>
 <g style="opacity:0.2" transform="matrix(-0.45971308,0,0,0.46337109,0.1538452,0.4230775)">
  <path d="m -12.04765,27.905301 h -0.94792 c -0.682502,6.332105 -3.260844,7.355858 -9.213781,7.355858 H -32.674386 L -23.15727,24.49279 c 0.341251,-0.379168 0.341251,-0.606669 0.341251,-0.606669 0,-0.189584 -0.151667,-0.379168 -0.265418,-0.530835 L -30.85438,12.131915 h 8.75878 c 6.407938,0 8.303778,1.365004 9.10003,7.355858 h 0.94792 l -1.06167,-8.531279 h -21.043821 c -0.910003,0 -0.985836,0 -0.985836,0.872086 l 9.441281,13.72588 -9.024196,10.275451 c -0.379168,0.417085 -0.379168,0.492918 -0.379168,0.606669 0,0.417084 0.379168,0.417084 0.947919,0.417084 h 21.043821 z"/>
 </g>
 <g style="fill:#b4b4b4" transform="matrix(-0.45971308,0,0,0.46337109,0.1538452,-0.0769225)">
  <path style="fill:#b4b4b4" d="m -12.04765,27.905301 h -0.94792 c -0.682502,6.332105 -3.260844,7.355858 -9.213781,7.355858 H -32.674386 L -23.15727,24.49279 c 0.341251,-0.379168 0.341251,-0.606669 0.341251,-0.606669 0,-0.189584 -0.151667,-0.379168 -0.265418,-0.530835 L -30.85438,12.131915 h 8.75878 c 6.407938,0 8.303778,1.365004 9.10003,7.355858 h 0.94792 l -1.06167,-8.531279 h -21.043821 c -0.910003,0 -0.985836,0 -0.985836,0.872086 l 9.441281,13.72588 -9.024196,10.275451 c -0.379168,0.417085 -0.379168,0.492918 -0.379168,0.606669 0,0.417084 0.379168,0.417084 0.947919,0.417084 h 21.043821 z"/>
 </g>
</svg>
