<svg xmlns="http://www.w3.org/2000/svg" width="22" height="22" version="1">
 <circle style="opacity:0.2" cx="11" cy="11.5" r="10"/>
 <circle style="fill:#664f41" cx="11" cy="11" r="10"/>
 <path style="opacity:0.2" d="M 11.298828,3.5 11.1875,4.5839844 a 6.9227357,6.9227357 0 0 0 -0.746094,0.017578 L 10.271484,3.5273438 9.21875,3.6953125 9.390625,4.7734375 A 6.9227357,6.9227357 0 0 0 8.6757812,4.984375 L 8.2324219,3.9882812 7.2597656,4.421875 7.7050781,5.4199219 A 6.9227357,6.9227357 0 0 0 7.0722656,5.8105469 L 6.3828125,4.9609375 5.5566406,5.6308594 6.2402344,6.4746094 A 6.9227357,6.9227357 0 0 0 5.7285156,7.0175781 L 4.8476562,6.3769531 4.2207031,7.2402344 5.1074219,7.8828125 A 6.9227357,6.9227357 0 0 0 4.7519531,8.5351562 L 3.7324219,8.1464844 3.3496094,9.138672 4.3691406,9.529297 a 6.9227357,6.9227357 0 0 0 -0.171875,0.724609 L 3.1113281,10.140625 3,11.201172 4.0839844,11.3125 a 6.9227357,6.9227357 0 0 0 0.017578,0.746094 l -1.0742187,0.169922 0.1679687,1.052734 1.078125,-0.171875 a 6.9227357,6.9227357 0 0 0 0.2109375,0.714844 l -0.9960938,0.443359 0.4335938,0.972656 0.9980469,-0.445312 a 6.9227357,6.9227357 0 0 0 0.390625,0.632812 l -0.8496094,0.689454 0.6699219,0.826171 0.84375,-0.683593 a 6.9227357,6.9227357 0 0 0 0.5429687,0.511718 l -0.640625,0.88086 0.8632813,0.626953 0.6425781,-0.886719 a 6.9227357,6.9227357 0 0 0 0.6523437,0.355469 l -0.3886718,1.019531 0.9921875,0.382813 0.3906252,-1.019532 a 6.9227357,6.9227357 0 0 0 0.724609,0.171875 L 9.640625,19.388672 10.701172,19.5 10.8125,18.416016 a 6.9227357,6.9227357 0 0 0 0.746094,-0.01758 l 0.169922,1.074218 1.052734,-0.167968 -0.171875,-1.078126 a 6.9227357,6.9227357 0 0 0 0.714844,-0.210937 l 0.443359,0.996094 0.972656,-0.433594 -0.445312,-0.998047 a 6.9227357,6.9227357 0 0 0 0.632812,-0.390625 l 0.689454,0.849609 0.826171,-0.669921 -0.683593,-0.84375 a 6.9227357,6.9227357 0 0 0 0.511718,-0.542969 l 0.88086,0.640625 0.626953,-0.863281 -0.886719,-0.642578 a 6.9227357,6.9227357 0 0 0 0.355469,-0.652344 l 1.019531,0.388672 0.382813,-0.992188 -1.019532,-0.390625 a 6.9227357,6.9227357 0 0 0 0.171875,-0.724609 L 18.888672,12.859375 19,11.798828 17.916016,11.6875 a 6.9227357,6.9227357 0 0 0 -0.01758,-0.746094 L 18.972654,10.771484 18.804686,9.71875 17.72656,9.890625 A 6.9227357,6.9227357 0 0 0 17.515625,9.175781 L 18.511719,8.7324219 18.078125,7.7597656 17.080078,8.2050781 A 6.9227357,6.9227357 0 0 0 16.689453,7.5722656 L 17.539062,6.8828125 16.869141,6.0566406 16.025391,6.7402344 A 6.9227357,6.9227357 0 0 0 15.482422,6.2285156 L 16.123047,5.3476562 15.259766,4.7207031 14.617188,5.6074219 A 6.9227357,6.9227357 0 0 0 13.964844,5.2519531 L 14.353516,4.2324219 13.361328,3.8496094 12.970703,4.8691406 A 6.9227357,6.9227357 0 0 0 12.246094,4.6972656 L 12.359375,3.6113281 Z M 11.125,5.5058594 10.619141,6.3847656 9.720703,5.8652344 A 1.3333334,1.3333334 0 0 1 10.097656,5.5703125 5.9999998,5.9999998 0 0 1 11.125,5.5058594 Z m 1.087891,0.125 a 5.9999998,5.9999998 0 0 1 4.71289,4.9257816 5.9999998,5.9999998 0 0 1 -0.01953,1.970703 l -0.189453,0.05078 c -0.04892,-0.08645 -0.108867,-0.166675 -0.179688,-0.236328 l 0.285157,-0.492188 -0.462891,-0.267578 -0.283203,0.492188 c -0.09595,-0.02626 -0.19546,-0.03833 -0.294922,-0.03711 l -0.146484,-0.548828 -0.515625,0.136719 0.146484,0.550781 c -0.08645,0.04892 -0.164722,0.108867 -0.234375,0.179688 l -0.492188,-0.285157 -0.267578,0.462891 0.492188,0.283203 c -0.02626,0.09595 -0.03833,0.195461 -0.03711,0.294922 l -0.550781,0.146484 0.138672,0.515626 0.548828,-0.146485 c 0.04892,0.08646 0.108862,0.164722 0.179688,0.234375 l -0.283203,0.492188 0.460937,0.267578 0.285156,-0.492188 c 0.09595,0.02625 0.193508,0.03833 0.292969,0.03711 l 0.148438,0.550781 0.136718,-0.03711 a 5.9999998,5.9999998 0 0 1 -0.851562,1.0625 1.8666667,1.8666667 0 0 0 -0.09375,-0.367188 l 0.484375,-0.267578 -0.257813,-0.466797 -0.484375,0.267578 a 1.8666667,1.8666667 0 0 0 -0.302734,-0.318359 l 0.285156,-0.472656 -0.457031,-0.275391 -0.287109,0.472656 a 1.8666667,1.8666667 0 0 0 -0.421875,-0.121094 l 0.0098,-0.554687 -0.533203,-0.0098 -0.0098,0.554688 a 1.8666667,1.8666667 0 0 0 -0.427734,0.105468 l -0.205078,-0.373046 0.101562,0.101562 0.375,-0.378906 -0.390624,-0.386719 a 2.4000001,2.4000001 0 0 0 0.222656,-0.341797 l 0.509765,0.208985 0.201172,-0.494141 -0.507812,-0.207031 a 2.4000001,2.4000001 0 0 0 0.07422,-0.400391 l 0.550781,-0.0039 -0.002,-0.533203 -0.550782,0.0039 a 2.4000001,2.4000001 0 0 0 -0.08398,-0.398437 l 0.507812,-0.212891 -0.207031,-0.492188 -0.505859,0.212891 a 2.4000001,2.4000001 0 0 0 -0.228516,-0.335938 l 0.386719,-0.390624 -0.378906,-0.375 -0.386719,0.390624 A 2.4000001,2.4000001 0 0 0 11.876913,9.66012 l 0.208985,-0.509765 -0.494141,-0.2011722 -0.0059,0.013672 -0.134766,-0.5019531 a 1.8666667,1.8666667 0 0 0 0.382812,-0.21875 l 0.390625,0.3925781 0.378907,-0.3789062 -0.392578,-0.390625 A 1.8666667,1.8666667 0 0 0 12.431641,7.484375 L 12.964844,7.6289062 13.103516,7.1113281 12.568359,6.96875 a 1.8666667,1.8666667 0 0 0 0,-0.4414062 l 0.535157,-0.1425782 -0.138672,-0.515625 -0.535156,0.1445313 a 1.8666667,1.8666667 0 0 0 -0.21875,-0.3808594 z m -0.613282,0.1210937 a 1.3333334,1.3333334 0 0 1 0.40625,0.6503907 1.3333334,1.3333334 0 0 1 -0.02539,0.7675781 L 11.082031,6.6503906 Z m -2.49414,0.056641 A 1.8666667,1.8666667 0 0 0 9.001953,6.0117191 L 8.7519531,5.9453125 A 5.9999998,5.9999998 0 0 1 9.105469,5.8085941 Z M 8.40625,6.09375 8.3300781,6.3847656 8.8652344,6.5292969 a 1.8666667,1.8666667 0 0 0 0,0.4394531 L 8.3300781,7.1132812 8.4667969,7.6269531 9.003906,7.4824219 a 1.8666667,1.8666667 0 0 0 0.21875,0.3828125 L 8.8320312,8.2558594 9.208984,8.6347656 9.601562,8.2421875 A 1.8666667,1.8666667 0 0 0 9.980469,8.4648438 L 9.84375,8.9746094 9.83785,8.9609374 9.347615,9.167969 9.560506,9.673828 A 2.4000001,2.4000001 0 0 0 9.224568,9.902344 L 8.8319902,9.515625 8.4589434,9.894531 8.8495684,10.28125 a 2.4000001,2.4000001 0 0 0 -0.2226563,0.341797 l -0.5097656,-0.208985 -0.2011719,0.494141 0.5078125,0.207031 a 2.4000001,2.4000001 0 0 0 -0.074219,0.400391 l -0.5507813,0.0039 0.00195,0.533203 0.5507813,-0.0039 a 2.4000001,2.4000001 0 0 0 0.083984,0.398438 l -0.5078125,0.214843 0.2070312,0.490235 0.5058594,-0.212891 a 2.4000001,2.4000001 0 0 0 0.2285156,0.335938 l -0.3867187,0.392578 0.3789062,0.373047 0.3867187,-0.390625 a 2.4000001,2.4000001 0 0 0 0.341797,0.222656 l -0.208985,0.509765 0.494141,0.201172 0.207031,-0.507812 a 2.4000001,2.4000001 0 0 0 0.400391,0.07422 l 0.0039,0.550781 0.533203,-0.002 -0.0039,-0.550781 a 2.4000001,2.4000001 0 0 0 0.398437,-0.08399 l 0.212891,0.507813 0.492188,-0.207032 -0.212891,-0.505859 a 2.4000001,2.4000001 0 0 0 0.335938,-0.228516 L 12.435547,13.822266 12,14.060547 l 0.267578,0.486328 a 1.8666667,1.8666667 0 0 0 -0.318359,0.302734 l -0.472657,-0.285156 -0.27539,0.457031 0.474609,0.28711 a 1.8666667,1.8666667 0 0 0 -0.123047,0.421875 L 11,15.720703 l -0.01172,0.533203 0.556641,0.0098 a 1.8666667,1.8666667 0 0 0 0.103516,0.427734 l -0.484376,0.267578 0.257813,0.46875 0.486328,-0.267578 a 1.8666667,1.8666667 0 0 0 0.208985,0.230469 5.9999998,5.9999998 0 0 1 -0.173829,0.03516 A 5.9999998,5.9999998 0 0 1 5.0742188,12.443359 5.9999998,5.9999998 0 0 1 8.40625,6.09375 Z M 9.453125,6.3261719 10.351562,6.8457031 9.833984,7.7460938 A 1.3333334,1.3333334 0 0 1 9.429688,7.09375 1.3333334,1.3333334 0 0 1 9.453125,6.3261719 Z m 1.361328,0.7871093 0.898438,0.5195313 A 1.3333334,1.3333334 0 0 1 11.060547,8.0371094 1.3333334,1.3333334 0 0 1 10.294922,8.0117184 Z M 10.9375,8.5996094 11.080078,9.134766 11.568359,9.005859 11.384766,9.457031 a 2.4000001,2.4000001 0 0 0 -0.400391,-0.07422 l -0.0039,-0.5507813 -0.533203,0.00195 0.0039,0.5507813 a 2.4000001,2.4000001 0 0 0 -0.398438,0.08398 L 9.855469,9.001944 10.353516,9.134757 10.496094,8.6015534 A 1.8666667,1.8666667 0 0 0 10.9375,8.5996034 Z M 10.738281,9.898438 a 1.8666667,1.8666667 0 0 1 0.72461,0.15039 1.8666667,1.8666667 0 0 1 0.867187,0.753906 L 10.875,11.417969 10.261719,9.962891 a 1.8666667,1.8666667 0 0 1 0.46875,-0.0625 1.8666667,1.8666667 0 0 1 0.0039,0 z m -0.96875,0.271484 0.615235,1.455078 -1.4550785,0.613281 a 1.8666667,1.8666667 0 0 1 -0.0625,-0.46875 1.8666667,1.8666667 0 0 1 -0.00195,-0.0078 1.8666667,1.8666667 0 0 1 0.1503905,-0.72461 1.8666667,1.8666667 0 0 1 0.753906,-0.867187 z m 2.767578,1.125 a 1.8666667,1.8666667 0 0 1 0.0625,0.46875 1.8666667,1.8666667 0 0 1 0,0.0039 l 0.002,0.0039 a 1.8666667,1.8666667 0 0 1 -0.15039,0.72461 1.8666667,1.8666667 0 0 1 -0.753906,0.867187 l -0.615235,-1.455078 z m -1.945312,0.820312 0.613281,1.455078 a 1.8666667,1.8666667 0 0 1 -0.46875,0.0625 1.8666667,1.8666667 0 0 1 -0.0078,0.002 1.8666667,1.8666667 0 0 1 -0.72461,-0.150391 1.8666667,1.8666667 0 0 1 -0.867187,-0.753906 z m 5.207031,0.451172 a 0.53333335,0.53333335 0 0 1 0.535156,0.533203 0.53333335,0.53333335 0 0 1 -0.535156,0.533203 0.53333335,0.53333335 0 0 1 -0.533203,-0.533203 0.53333335,0.53333335 0 0 1 0.533203,-0.533203 z m 0.699219,1.320313 a 5.9999998,5.9999998 0 0 1 -0.140625,0.302734 l -0.04297,-0.160156 c 0.06777,-0.03835 0.126088,-0.09061 0.183594,-0.142578 z m -3.078125,0.814453 a 1.3333334,1.3333334 0 0 1 0.730469,0.236328 l -0.75,0.71875 -0.71875,-0.748047 a 1.3333334,1.3333334 0 0 1 0.738281,-0.207031 z m -1.123047,0.576172 0.720703,0.748047 -0.75,0.720703 a 1.3333334,1.3333334 0 0 1 -0.207031,-0.738282 1.3333334,1.3333334 0 0 1 0.236328,-0.730468 z m 2.222656,0.04297 a 1.3333334,1.3333334 0 0 1 0.207031,0.738282 1.3333334,1.3333334 0 0 1 -0.01172,0.144531 5.9999998,5.9999998 0 0 1 -0.466797,0.333984 l -0.476563,-0.496093 z m -1.132812,1.089844 0.386719,0.402344 a 5.9999998,5.9999998 0 0 1 -0.980469,0.408203 1.3333334,1.3333334 0 0 1 -0.154297,-0.08984 z"/>
 <path style="opacity:0.1;fill:#8b9cbe" d="M 11,1 A 10,10 0 0 0 1,11 10,10 0 0 0 1.0107422,11.291016 10,10 0 0 1 11,1.5 10,10 0 0 1 20.989258,11.208985 10,10 0 0 0 21,11 10,10 0 0 0 11,1 Z"/>
 <path style="fill:#ca9159" d="M 9.347389,8.6676815 9.561175,9.174402 A 2.4000001,2.4000001 0 0 0 9.224367,9.402428 L 8.8328975,9.015863 8.4583012,9.3955 8.8493641,9.781101 a 2.4000001,2.4000001 0 0 0 -0.22228,0.341376 L 8.1166991,9.914971 7.9158527,10.408979 8.423506,10.615373 A 2.4000001,2.4000001 0 0 0 8.34957,11.016266 l -0.5515131,0.0032 0.00341,0.533322 0.5501514,-0.0037 a 2.4000001,2.4000001 0 0 0 0.083106,0.397952 L 7.9270208,12.161242 8.1343397,12.65263 8.6410603,12.438844 A 2.4000001,2.4000001 0 0 0 8.86909,12.77562 l -0.3865643,0.391469 0.3796358,0.374596 0.3856015,-0.391062 a 2.4000001,2.4000001 0 0 0 0.341375,0.222279 l -0.207505,0.510386 0.494007,0.200846 0.206395,-0.507653 a 2.4000001,2.4000001 0 0 0 0.400893,0.07393 l 0.0032,0.551512 0.533324,-0.0034 -0.0037,-0.550151 a 2.4000001,2.4000001 0 0 0 0.397951,-0.0831 l 0.214202,0.507703 0.49139,-0.207318 -0.213787,-0.506721 a 2.4000001,2.4000001 0 0 0 0.336809,-0.228026 l 0.39147,0.386564 0.374596,-0.379636 -0.391064,-0.385601 A 2.4000001,2.4000001 0 0 0 12.8396,12.410861 l 0.510385,0.207506 0.200846,-0.494009 -0.507654,-0.206393 a 2.4000001,2.4000001 0 0 0 0.07393,-0.400893 l 0.551514,-0.0032 -0.0034,-0.533324 -0.550151,0.0037 a 2.4000001,2.4000001 0 0 0 -0.08308,-0.397959 l 0.507704,-0.214201 -0.20732,-0.49139 -0.506721,0.213786 A 2.4000001,2.4000001 0 0 0 12.597578,9.757694 L 12.984142,9.366224 12.604507,8.9916277 12.218905,9.38269 A 2.4000001,2.4000001 0 0 0 11.877532,9.160415 L 12.085037,8.6500298 11.591029,8.4491834 11.384635,8.9568362 a 2.4000001,2.4000001 0 0 0 -0.400893,-0.073931 l -0.0032,-0.5515125 -0.533324,0.00341 0.0037,0.5501515 a 2.4000001,2.4000001 0 0 0 -0.397952,0.083104 L 9.838746,8.460359 Z m 0.422743,1.0019925 0.61385,1.454954 -1.4540205,0.613456 A 1.8666667,1.8666667 0 0 1 8.8668145,11.26953 1.8666667,1.8666667 0 0 1 8.8659084,11.26193 1.8666667,1.8666667 0 0 1 9.014846,10.537691 1.8666667,1.8666667 0 0 1 9.770122,9.669574 Z m 0.491805,-0.206336 a 1.8666667,1.8666667 0 0 1 0.468554,-0.06315 1.8666667,1.8666667 0 0 1 0.0043,-6.4e-4 l 0.0033,-2.4e-4 a 1.8666667,1.8666667 0 0 1 0.72421,0.148868 1.8666667,1.8666667 0 0 1 0.868117,0.755276 l -1.454954,0.61385 z m -1.12559,2.766529 1.454954,-0.61385 0.613456,1.454021 a 1.8666667,1.8666667 0 0 1 -0.468553,0.06315 1.8666667,1.8666667 0 0 1 -0.0076,9.07e-4 1.8666667,1.8666667 0 0 1 -0.724239,-0.148938 1.8666667,1.8666667 0 0 1 -0.868117,-0.755274 z m 1.946343,-0.821168 1.454021,-0.613456 a 1.8666667,1.8666667 0 0 1 0.06315,0.468553 1.8666667,1.8666667 0 0 1 6.4e-4,0.0043 l 2.4e-4,0.0033 a 1.8666667,1.8666667 0 0 1 -0.148887,0.724219 1.8666667,1.8666667 0 0 1 -0.755277,0.868117 z"/>
 <path style="fill:#ca9159" d="m 13.173869,13.128932 -0.01076,0.555096 a 1.8666667,1.8666667 0 0 0 -0.427104,0.104245 l -0.267741,-0.48445 -0.467584,0.25765 0.267721,0.48549 a 1.8666667,1.8666667 0 0 0 -0.318442,0.303259 l -0.472679,-0.285261 -0.275584,0.457245 0.473705,0.28632 a 1.8666667,1.8666667 0 0 0 -0.12176,0.422721 l -0.554082,-0.01075 -0.01035,0.533233 0.555096,0.01076 a 1.8666667,1.8666667 0 0 0 0.104235,0.427104 l -0.48445,0.26774 0.25765,0.467585 0.48549,-0.267721 a 1.8666667,1.8666667 0 0 0 0.303259,0.318441 l -0.185153,0.306884 a 6.4000002,6.4000002 0 0 0 1.509629,-0.427062 1.3333334,1.3333334 0 0 1 -0.166876,0.0093 1.3333334,1.3333334 0 0 1 -0.729961,-0.236075 l 0.7485,-0.720023 0.674062,0.70072 a 6.4000002,6.4000002 0 0 0 1.699468,-1.298548 l -0.516569,-0.01003 a 1.8666667,1.8666667 0 0 0 -0.104245,-0.427104 l 0.484449,-0.267739 -0.257649,-0.467584 -0.485489,0.26772 a 1.8666667,1.8666667 0 0 0 -0.30326,-0.318441 l 0.285261,-0.472681 -0.457245,-0.275583 -0.28632,0.473706 a 1.8666667,1.8666667 0 0 0 -0.422721,-0.12176 l 0.01074,-0.554083 -0.533234,-0.01035 z m 0.245937,1.071637 a 1.3333334,1.3333334 0 0 1 0.72996,0.236074 l -0.748501,0.720024 -0.720023,-0.748502 a 1.3333334,1.3333334 0 0 1 0.738564,-0.207596 z m -1.122871,0.577271 0.720024,0.7485 -0.7485,0.720024 A 1.3333334,1.3333334 0 0 1 12.060861,15.5078 1.3333334,1.3333334 0 0 1 12.296935,14.77784 Z m 2.222516,0.04309 a 1.3333334,1.3333334 0 0 1 0.207598,0.738564 1.3333334,1.3333334 0 0 1 -0.236075,0.72996 l -0.720024,-0.7485 z"/>
 <path style="fill:#ca9159" d="m 15.63413,10.987735 -0.515625,0.137499 0.147913,0.549973 c -0.08645,0.04892 -0.165765,0.109387 -0.235418,0.180208 l -0.49271,-0.284373 -0.266666,0.461461 0.49167,0.284374 c -0.02626,0.09595 -0.03871,0.194288 -0.03749,0.293749 l -0.549974,0.147915 0.138544,0.514581 0.54896,-0.146874 c 0.04892,0.08646 0.109382,0.165765 0.180208,0.235418 l -0.284373,0.49271 0.462501,0.266666 0.283333,-0.491664 c 0.09595,0.02625 0.195328,0.03871 0.294789,0.03749 l 0.146875,0.54896 0.515626,-0.137499 -0.146874,-0.549973 c 0.08645,-0.04892 0.164725,-0.109382 0.234373,-0.180208 l 0.492709,0.284373 0.266667,-0.461461 -0.491669,-0.284374 c 0.02625,-0.09595 0.03975,-0.194288 0.03855,-0.293749 L 17.405004,12.445026 17.26646,11.930445 16.7175,12.07732 c -0.04892,-0.08645 -0.109387,-0.165766 -0.180208,-0.235419 l 0.284373,-0.49271 -0.462501,-0.266666 -0.283333,0.49167 c -0.09595,-0.02626 -0.195328,-0.03871 -0.29479,-0.03749 l -0.146875,-0.54896 z m 0.165627,1.079147 a 0.53333335,0.53333335 0 0 1 0.533333,0.533334 0.53333335,0.53333335 0 0 1 -0.533333,0.533333 0.53333335,0.53333335 0 0 1 -0.533333,-0.533333 0.53333335,0.53333335 0 0 1 0.533333,-0.533334 z"/>
 <path style="fill:#ca9159" d="m 10.999997,4.6000025 a 6.4000002,6.4000002 0 0 0 -1.98544,0.3239573 l 0.20833,0.2083307 A 1.8666667,1.8666667 0 0 0 9.00101,5.5124985 L 8.4676772,5.3697892 8.3301785,5.8854158 l 0.5344,0.1437494 a 1.8666667,1.8666667 0 0 0 0,0.439584 L 8.3291652,6.6124985 8.4677039,7.1270799 9.004183,6.9833305 A 1.8666667,1.8666667 0 0 0 9.222935,7.3645786 L 8.8312665,7.7562479 9.208349,8.1343706 9.601058,7.7427012 a 1.8666667,1.8666667 0 0 0 0.379168,0.2218774 l -0.142709,0.5333333 0.515626,0.1374987 0.14375,-0.5344 a 1.8666667,1.8666667 0 0 0 0.440624,-0.00107 l 0.142709,0.5354134 0.515627,-0.1374987 -0.14375,-0.53648 a 1.8666667,1.8666667 0 0 0 0.381248,-0.218752 l 0.39167,0.3916693 0.378122,-0.3781227 -0.392709,-0.3916693 a 1.8666667,1.8666667 0 0 0 0.221877,-0.380208 L 12.965645,7.1280452 13.104183,6.6113785 12.56877,6.4686692 a 1.8666667,1.8666667 0 0 0 0,-0.440624 L 13.104183,5.8853358 12.965645,5.3697092 12.430231,5.5134585 A 1.8666667,1.8666667 0 0 0 12.211479,5.1322105 L 12.545853,4.7967918 A 6.4000002,6.4000002 0 0 0 11.913586,4.6728345 l -0.08125,0.081248 a 1.8666667,1.8666667 0 0 0 -0.183333,-0.120832 6.4000002,6.4000002 0 0 0 -0.64896,-0.033333 z m -0.232293,0.3166666 a 1.3333334,1.3333334 0 0 1 0.370831,0.067707 l -0.519791,0.9 -0.898934,-0.519792 a 1.3333334,1.3333334 0 0 1 0.652107,-0.4041653 1.3333334,1.3333334 0 0 1 0.395835,-0.043749 z m 0.832267,0.3343734 a 1.3333334,1.3333334 0 0 1 0.405211,0.6521067 1.3333334,1.3333334 0 0 1 -0.025,0.7666667 l -0.898933,-0.5187521 0.518752,-0.9 z m -2.14688,0.5760533 0.898933,0.5187521 -0.518752,0.9 A 1.3333334,1.3333334 0 0 1 9.429107,6.5937412 1.3333334,1.3333334 0 0 1 9.453067,5.8270745 Z m 1.36144,0.7854401 0.898934,0.519792 a 1.3333334,1.3333334 0 0 1 -0.652107,0.4041653 1.3333334,1.3333334 0 0 1 -0.766667,-0.023957 l 0.519792,-0.9 z"/>
 <path style="fill:#ecc895" d="M 11.298828,3 11.1875,4.0839844 a 6.9227357,6.9227357 0 0 0 -0.746094,0.017578 L 10.271484,3.0273438 9.21875,3.1953125 9.390625,4.2734375 A 6.9227357,6.9227357 0 0 0 8.6757812,4.484375 L 8.2324219,3.4882812 7.2597656,3.921875 7.7050781,4.9199219 A 6.9227357,6.9227357 0 0 0 7.0722656,5.3105469 L 6.3828125,4.4609375 5.5566406,5.1308594 6.2402344,5.9746094 A 6.9227357,6.9227357 0 0 0 5.7285156,6.5175781 L 4.8476562,5.8769531 4.2207031,6.7402344 5.1074219,7.3828125 A 6.9227357,6.9227357 0 0 0 4.7519531,8.0351562 L 3.7324219,7.6464844 3.3496094,8.6386719 4.3691406,9.029297 A 6.9227357,6.9227357 0 0 0 4.1972656,9.753906 L 3.1113281,9.640625 3,10.701172 4.0839844,10.8125 a 6.9227357,6.9227357 0 0 0 0.017578,0.746094 l -1.0742187,0.169922 0.1679687,1.052734 1.078125,-0.171875 a 6.9227357,6.9227357 0 0 0 0.2109375,0.714844 l -0.9960938,0.443359 0.4335938,0.972656 0.9980469,-0.445312 a 6.9227357,6.9227357 0 0 0 0.390625,0.632812 l -0.8496094,0.689454 0.6699219,0.826171 0.84375,-0.683593 a 6.9227357,6.9227357 0 0 0 0.5429687,0.511718 l -0.640625,0.88086 0.8632813,0.626953 0.6425781,-0.886719 a 6.9227357,6.9227357 0 0 0 0.6523437,0.355469 l -0.3886718,1.019531 0.9921875,0.382813 0.3906252,-1.019532 a 6.9227357,6.9227357 0 0 0 0.724609,0.171875 L 9.640625,18.888672 10.701172,19 10.8125,17.916016 a 6.9227357,6.9227357 0 0 0 0.746094,-0.01758 l 0.169922,1.074218 1.052734,-0.167968 -0.171875,-1.078126 a 6.9227357,6.9227357 0 0 0 0.714844,-0.210937 l 0.443359,0.996094 0.972656,-0.433594 -0.445312,-0.998047 a 6.9227357,6.9227357 0 0 0 0.632812,-0.390625 l 0.689454,0.849609 0.826171,-0.669921 -0.683593,-0.84375 a 6.9227357,6.9227357 0 0 0 0.511718,-0.542969 l 0.88086,0.640625 0.626953,-0.863281 -0.886719,-0.642578 a 6.9227357,6.9227357 0 0 0 0.355469,-0.652344 l 1.019531,0.388672 0.382813,-0.992188 -1.019532,-0.390625 a 6.9227357,6.9227357 0 0 0 0.171875,-0.724609 L 18.888672,12.359375 19,11.298828 17.916016,11.1875 a 6.9227357,6.9227357 0 0 0 -0.01758,-0.746094 L 18.972654,10.271484 18.804686,9.21875 17.72656,9.390625 A 6.9227357,6.9227357 0 0 0 17.515625,8.6757812 L 18.511719,8.2324219 18.078125,7.2597656 17.080078,7.7050781 A 6.9227357,6.9227357 0 0 0 16.689453,7.0722656 L 17.539062,6.3828125 16.869141,5.5566406 16.025391,6.2402344 A 6.9227357,6.9227357 0 0 0 15.482422,5.7285156 L 16.123047,4.8476562 15.259766,4.2207031 14.617188,5.1074219 A 6.9227357,6.9227357 0 0 0 13.964844,4.7519531 L 14.353516,3.7324219 13.361328,3.3496094 12.970703,4.3691406 a 6.9227357,6.9227357 0 0 0 -0.724609,-0.171875 l 0.113281,-1.0859375 z m -0.04492,2.0058594 a 5.9999998,5.9999998 0 0 1 5.671875,5.0507816 5.9999998,5.9999998 0 0 1 -4.982422,6.86914 5.9999998,5.9999998 0 0 1 -6.8691402,-4.982422 5.9999998,5.9999998 0 0 1 4.9824222,-6.8691402 5.9999998,5.9999998 0 0 1 1.197265,-0.068359 z"/>
</svg>
