<svg xmlns="http://www.w3.org/2000/svg" width="22" height="22" version="1.1">
 <path style="opacity:0.2" d="m 2.0005706,5.4999 a 1.0001,1.0001 0 1 0 0,2 h 2 a 1.0001,1.0001 0 1 0 0,-2 z m 5.0136719,0 a 1.0001,1.0001 0 1 0 0,2 h 0.9863281 0.5078125 a 0.50005,0.50005 0 1 1 0,1 H 8.0005706 4.4732268 4.0142425 a 1.0001,1.0001 0 1 0 0,2 h 0.4941406 3.4921875 1.507812 a 0.50005,0.50005 0 1 1 0,1 h -1.507812 a 1.0001,1.0001 0 1 0 0,2 h 0.5078125 a 0.50005,0.50005 0 1 1 0,1 H 8.0005706 6.0142425 a 1.0001,1.0001 0 1 0 0,2 h 6.6855475 3.800781 a 5.5,5.5 0 0 0 5.5,-5.5 5.5,5.5 0 0 0 -5.5,-5.5 H 9.0142426 Z m -3,6 a 1.0001,1.0001 0 1 0 0,2 h 0.4941406 0.4921875 a 1.0001,1.0001 0 1 0 0,-2 H 4.4732268 Z m -3,3 a 1.0001,1.0001 0 1 0 0,2 h 1.9863281 a 1.0001,1.0001 0 1 0 0,-2 z"/>
 <path style="fill:#4f4f4f" d="m 2.0005706,5 a 1.0001,1.0001 0 1 0 0,2 h 2 a 1.0001,1.0001 0 1 0 0,-2 z m 5.0136719,0 a 1.0001,1.0001 0 1 0 0,2 h 0.9863281 0.5078125 a 0.50005,0.50005 0 1 1 0,1 H 8.0005706 4.4732268 4.0142425 a 1.0001,1.0001 0 1 0 0,2 h 0.4941406 3.4921875 1.507812 a 0.50005,0.50005 0 1 1 0,1 h -1.507812 a 1.0001,1.0001 0 1 0 0,2 h 0.5078125 a 0.50005,0.50005 0 1 1 0,1 H 8.0005706 6.0142425 a 1.0001,1.0001 0 1 0 0,2 h 6.6855475 3.800781 a 5.5,5.5 0 0 0 5.5,-5.5 5.5,5.5 0 0 0 -5.5,-5.5 H 9.0142426 Z m -3,6 a 1.0001,1.0001 0 1 0 0,2 h 0.4941406 0.4921875 a 1.0001,1.0001 0 1 0 0,-2 H 4.4732268 Z m -3,3 a 1.0001,1.0001 0 1 0 0,2 h 1.9863281 a 1.0001,1.0001 0 1 0 0,-2 z"/>
 <path style="opacity:0.2" d="m 17.000549,7.499946 v 0 c -1.658372,0 -3,1.3062484 -3,2.916503 v 1.166994 c 0,1.612216 1.341628,2.916503 3,2.916503 1.656356,0 3,-1.304287 3,-2.916503 v -1.166994 c 0,-1.6102546 -1.343644,-2.916503 -3,-2.916503 z"/>
 <path style="fill:#8b9cbe" d="m 17.000549,7.000046 v 0 c -1.658372,0 -3,1.3062484 -3,2.916503 v 1.166994 c 0,1.612216 1.341628,2.916503 3,2.916503 1.656356,0 3,-1.304287 3,-2.916503 V 9.916549 c 0,-1.6102546 -1.343644,-2.916503 -3,-2.916503 z"/>
 <path style="fill:none;stroke:#4f4f4f;stroke-linecap:round" d="m 15.500571,10.5 h 3"/>
 <path style="opacity:0.1;fill:#8b9cbe" d="M 2.0005706,5 A 1.0001,1.0001 0 0 0 1.0201018,6.2460938 1.0001,1.0001 0 0 1 2.0005706,5.5 h 2 A 1.0001,1.0001 0 0 1 4.9810394,6.2539062 1.0001,1.0001 0 0 0 4.0005706,5 Z M 7.0142425,5 A 1.0001,1.0001 0 0 0 6.0337737,6.2460938 1.0001,1.0001 0 0 1 7.0142425,5.5 h 2.0000001 7.4863284 a 5.5,5.5 0 0 1 5.490234,5.292969 5.5,5.5 0 0 0 0.0098,-0.292969 5.5,5.5 0 0 0 -5.5,-5.5 H 9.0142426 Z M 8.9478362,7.75 A 0.50005,0.50005 0 0 1 8.5083831,8 H 8.0005706 4.4732268 4.0142425 A 1.0001,1.0001 0 0 0 3.0337737,9.246094 1.0001,1.0001 0 0 1 4.0142425,8.5 H 4.4732268 8.0005706 8.5083831 A 0.50005,0.50005 0 0 0 8.9478362,7.75 Z m 1.0000004,3 A 0.50005,0.50005 0 0 1 9.5083826,11 H 8.0005706 A 1.0001,1.0001 0 0 0 7.0201018,12.246094 1.0001,1.0001 0 0 1 8.0005706,11.5 h 1.507812 a 0.50005,0.50005 0 0 0 0.439454,-0.75 z M 4.0142425,11 A 1.0001,1.0001 0 0 0 3.0337737,12.246094 1.0001,1.0001 0 0 1 4.0142425,11.5 H 4.4732268 5.0005706 A 1.0001,1.0001 0 0 1 5.9810394,12.253906 1.0001,1.0001 0 0 0 5.0005706,11 H 4.4732268 Z m 4.9335937,2.75 A 0.50005,0.50005 0 0 1 8.5083831,14 H 8.0005706 6.0142425 A 1.0001,1.0001 0 0 0 5.0337737,15.246094 1.0001,1.0001 0 0 1 6.0142425,14.5 H 8.0005706 8.5083831 A 0.50005,0.50005 0 0 0 8.9478362,13.75 Z M 1.0142425,14 A 1.0001,1.0001 0 0 0 0.03377369,15.246094 1.0001,1.0001 0 0 1 1.0142425,14.5 H 3.0005706 A 1.0001,1.0001 0 0 1 3.9810394,15.253906 1.0001,1.0001 0 0 0 3.0005706,14 Z"/>
</svg>
