<svg xmlns="http://www.w3.org/2000/svg" width="22" height="22" version="1.1">
 <rect style="opacity:0.2" width="20" height="20" x="1" y="1.5" rx="1" ry="1"/>
 <rect style="fill:#0a384e" width="20" height="20" x="1" y="1" rx="1" ry="1"/>
 <path style="fill:#004465" d="m 7.386719,1 3.067383,8.19043 A 3,3 0 0 0 9.548828,9.725586 L 1.1425781,1.491211 C 1.0538842,1.6406385 1,1.8129301 1,2 V 5.0703125 L 8.8154295,10.669922 A 3,3 0 0 0 8.5,12 3,3 0 0 0 8.52539,12.357422 L 1,13.856446 v 3.492187 l 7.939453,-3.790039 a 3,3 0 0 0 0.428711,0.549805 L 2.1875,21 H 7.0058595 L 10.500977,14.825196 A 3,3 0 0 0 11.5,15 3,3 0 0 0 11.695313,14.9932 L 12.347656,21 h 3.324219 l -2.799804,-6.333008 a 3,3 0 0 0 0.526367,-0.345703 L 19.501953,21 H 20 c 0.554,0 1,-0.446 1,-1 v -3.139649 l -6.736328,-3.694335 a 3,3 0 0 0 0.225586,-0.951172 L 21,11.681641 V 8.260742 l -6.711914,2.634766 a 3,3 0 0 0 -0.46875,-0.794922 L 21,2.4746094 V 2 C 21,1.446 20.554,1 20,1 h -4.739258 l -2.80957,8.157227 A 3,3 0 0 0 12.081055,9.057617 L 12.981446,1 Z"/>
 <path style="opacity:0.2" d="m 12.246094,1.5 -0.0078,0.2001953 c -0.008,0.22651 -0.176066,4.3191162 -0.310547,7.5556647 -0.04904,1.182287 -0.08428,2.154991 -0.07813,2.161132 0.006,0.0062 0.01502,0.0074 0.01953,0.003 0.005,-0.0045 0.558793,-1.601738 1.231446,-3.549805 1.747953,-5.0625572 2.117245,-6.1307389 2.165042,-6.2578323 L 15.308594,1.5 Z M 8.951172,5.673828 c 0,0 -2.134627,1.7809085 -2.152344,1.8271485 -0.00701,0.01852 0.3487945,0.3835705 1.042969,1.069336 0.5797625,0.5727265 1.586472,1.5678385 2.237305,2.2109375 0.650881,0.643095 1.19076,1.168946 1.199219,1.168946 0.0085,0 0.01563,-0.0077 0.01563,-0.0166 h -10e-4 c 0,-0.0089 -0.438815,-1.195214 -0.975586,-2.636718 C 9.780539,7.8553715 9.259128,6.452699 9.158179,6.179689 9.057281,5.906684 8.951172,5.673828 8.9511485,5.6738295 Z m 8.27832,1.3115235 c -0.02302,-0.00765 -4.827555,5.0898555 -4.836914,5.1318365 -0.005,0.02242 0.0058,0.02338 0.0498,0.0078 0.03052,-0.01065 1.445392,-0.563344 3.144531,-1.227539 1.69907,-0.664194 3.094154,-1.216777 3.097656,-1.227539 0.008,-0.02502 -1.428503,-2.6757125 -1.455078,-2.684571 z M 7.548828,10.275391 c -0.02102,-0.0081 -0.033505,0.0026 -0.041015,0.03418 -0.016515,0.07099 -0.34375,2.682864 -0.34375,2.742187 0,0.03919 0.010535,0.05273 0.039065,0.05273 0.02102,0 0.7629775,-0.149645 1.6484375,-0.333008 0.8854595,-0.183363 1.6177205,-0.342344 1.6279295,-0.352539 0.01001,-0.01021 0.01427,-0.02134 0.0098,-0.02539 -0.05205,-0.04504 -2.918008,-2.109556 -2.94043,-2.118164 z m 10.189453,2.164062 c -0.02052,-0.01862 -4.852076,0.416085 -4.873046,0.438477 -0.0085,0.0092 -0.0071,0.02069 0.0049,0.02539 0.01051,0.0045 0.983566,0.540027 2.16211,1.189453 1.178594,0.649425 2.16052,1.179495 2.18164,1.177734 0.03504,-0.003 0.05922,-0.121029 0.290039,-1.410156 h -0.001 c 0.138485,-0.773546 0.244311,-1.412861 0.235352,-1.420899 z m -6.878906,0.702149 c -0.02502,0.0096 -1.599329,0.75951 -3.4990235,1.666015 -1.8996945,0.906505 -3.8528208,1.837266 -4.3398437,2.069336 -0.4870229,0.232065 -0.8857422,0.433522 -0.8857422,0.447266 0,0.01376 0.344466,0.520934 0.765625,1.126953 0.9970181,1.434613 0.9769239,1.405273 0.9941406,1.405273 0.00801,0 1.5854948,-1.505436 3.5058593,-3.345703 v -0.001 c 1.9203145,-1.840272 3.4943435,-3.355135 3.4980475,-3.366211 0.005,-0.01321 -0.009,-0.01362 -0.03907,-0.0019 z m 1.3125,0.357422 c -0.0095,-0.0035 -0.01758,0.0022 -0.01758,0.01269 0,0.01046 0.184311,0.436534 0.40918,0.946289 0.224868,0.509755 1.005417,2.278519 1.734375,3.930663 0.728907,1.65214 1.327347,3.029846 1.34082,3.057618 L 15.664062,21.5 h 0.04004 c 0.02405,-0.01373 0.06905,-0.03739 0.07031,-0.03907 0.0055,-0.0073 0.532203,-0.341574 1.169922,-0.743164 0.637719,-0.401585 1.15918,-0.736493 1.15918,-0.744141 0,-0.01747 -5.907517,-6.465721 -5.931641,-6.474609 z m -0.696289,0.137695 c -0.0064,-0.0062 -0.01342,-0.0034 -0.02149,0.0059 -0.03954,0.0446 -2.352539,4.178582 -2.352539,4.204101 0,0.02112 0.06593,0.03601 0.269531,0.0625 0.147994,0.01927 0.783424,0.102962 1.413086,0.185547 0.629661,0.08259 1.156985,0.14544 1.170898,0.140625 0.01752,-0.0062 0.02168,-0.03224 0.01367,-0.08887 -0.01001,-0.07418 -0.354216,-3.355791 -0.433594,-4.136719 -0.0259,-0.25393 -0.04025,-0.354458 -0.05957,-0.373046 z"/>
 <path style="fill:#26aaff" d="m 12.246094,1 -0.0078,0.2001953 c -0.008,0.22651 -0.176066,4.3191162 -0.310547,7.5556642 -0.04904,1.1822875 -0.08428,2.1549915 -0.07813,2.1611325 0.006,0.0062 0.01502,0.0074 0.01953,0.003 0.005,-0.0045 0.558793,-1.601738 1.231446,-3.549805 1.747953,-5.0625572 2.117245,-6.1307389 2.165042,-6.2578323 L 15.308594,1 Z M 8.951172,5.173828 c 0,0 -2.134627,1.7809085 -2.152344,1.8271485 -0.00701,0.01852 0.3487945,0.3835705 1.042969,1.069336 0.5797625,0.5727265 1.586472,1.5678385 2.237305,2.2109375 0.650881,0.643095 1.19076,1.168946 1.199219,1.168946 0.0085,0 0.01563,-0.0077 0.01563,-0.0166 h -10e-4 c 0,-0.0089 -0.438815,-1.195214 -0.975586,-2.6367185 C 9.780539,7.3553715 9.259128,5.952699 9.158179,5.679689 9.057281,5.406684 8.951172,5.173828 8.9511485,5.1738295 Z m 8.27832,1.3115235 c -0.02302,-0.00765 -4.827555,5.0898555 -4.836914,5.1318365 -0.005,0.02242 0.0058,0.02338 0.0498,0.0078 0.03052,-0.01065 1.445392,-0.563344 3.144531,-1.227539 1.69907,-0.664194 3.094154,-1.216777 3.097656,-1.227539 0.008,-0.02502 -1.428503,-2.6757125 -1.455078,-2.684571 z M 7.548828,9.775391 c -0.02102,-0.0081 -0.033505,0.0026 -0.041015,0.03418 -0.016515,0.07099 -0.34375,2.682864 -0.34375,2.742187 0,0.03919 0.010535,0.05273 0.039065,0.05273 0.02102,0 0.7629775,-0.149645 1.6484375,-0.333008 0.8854595,-0.183363 1.6177205,-0.342344 1.6279295,-0.352539 0.01001,-0.01021 0.01427,-0.02134 0.0098,-0.02539 -0.05205,-0.04504 -2.918008,-2.109556 -2.94043,-2.118164 z m 10.189453,2.164062 c -0.02052,-0.01862 -4.852076,0.416085 -4.873046,0.438477 -0.0085,0.0092 -0.0071,0.02069 0.0049,0.02539 0.01051,0.0045 0.983566,0.540027 2.16211,1.189453 1.178594,0.649425 2.16052,1.179496 2.18164,1.177734 0.03504,-0.003 0.05922,-0.121029 0.290039,-1.410156 h -0.001 c 0.138485,-0.773546 0.244311,-1.412861 0.235352,-1.420899 z m -6.878906,0.702149 c -0.02502,0.0096 -1.599329,0.75951 -3.4990235,1.666015 -1.8996945,0.906505 -3.8528208,1.837266 -4.3398437,2.069336 -0.4870229,0.232065 -0.8857422,0.433522 -0.8857422,0.447266 0,0.01376 0.344466,0.520934 0.765625,1.126953 0.9970181,1.434613 0.9769239,1.405273 0.9941406,1.405273 0.00801,0 1.5854948,-1.505436 3.5058593,-3.345703 v -0.001 c 1.9203145,-1.840272 3.4943435,-3.355135 3.4980475,-3.366211 0.005,-0.01321 -0.009,-0.01362 -0.03907,-0.0019 z m 1.3125,0.357422 c -0.0095,-0.0035 -0.01758,0.0022 -0.01758,0.01269 0,0.01046 0.184311,0.436534 0.40918,0.946289 0.224868,0.509755 1.005417,2.278519 1.734375,3.930663 0.728907,1.65214 1.327347,3.029846 1.34082,3.057618 L 15.664062,21 h 0.04004 c 0.02405,-0.01373 0.06905,-0.03739 0.07031,-0.03907 0.0055,-0.0073 0.532203,-0.341574 1.169922,-0.743164 0.637719,-0.401585 1.15918,-0.736493 1.15918,-0.744141 0,-0.01747 -5.907517,-6.465721 -5.931641,-6.474609 z m -0.696289,0.137695 c -0.0064,-0.0062 -0.01342,-0.0034 -0.02149,0.0059 -0.03954,0.0446 -2.352539,4.178582 -2.352539,4.204101 0,0.02112 0.06593,0.03601 0.269531,0.0625 0.147994,0.01927 0.783424,0.102962 1.413086,0.185547 0.629661,0.08259 1.156985,0.14544 1.170898,0.140625 0.01752,-0.0062 0.02168,-0.03224 0.01367,-0.08887 -0.01001,-0.07418 -0.354216,-3.355791 -0.433594,-4.136719 -0.0259,-0.25393 -0.04025,-0.354458 -0.05957,-0.373046 z"/>
 <path style="opacity:0.1;fill:#8b9cbe" d="M 2,1 C 1.446,1 1,1.446 1,2 v 0.5 c 0,-0.554 0.446,-1 1,-1 h 18 c 0.554,0 1,0.446 1,1 V 2 C 21,1.446 20.554,1 20,1 Z"/>
 <path style="opacity:0.2;fill:#8b9cbe" d="m 12.246094,1 -0.0078,0.2001953 c -0.008,0.22651 -0.176066,4.3191162 -0.310547,7.5556642 -0.04904,1.1822875 -0.08428,2.1549915 -0.07813,2.1611325 0.0054,0.0056 0.01278,0.0059 0.01758,0.003 0.0088,-0.316249 0.02278,-0.753698 0.06055,-1.664062 0.13448,-3.2365685 0.302541,-7.3291747 0.310546,-7.5556847 L 12.246094,1.5 h 2.885742 c 0.0057,-0.015817 0.130828,-0.3798235 0.133789,-0.3876953 L 15.308594,1 Z M 8.951172,5.173828 c 0,0 -2.134627,1.7809085 -2.152344,1.8271485 -0.00345,0.00915 0.085414,0.105326 0.2558595,0.2802735 C 7.45896,6.9223895 8.951172,5.673828 8.951172,5.673828 c 2.35e-5,-1.5e-6 0.106133,0.2328545 0.207031,0.5058595 0.100948,0.27301 0.622359,1.6756825 1.15918,3.1171875 0.387461,1.04053 0.546921,1.475585 0.704102,1.903321 0.04637,0.04417 0.255025,0.25 0.256836,0.25 0.0085,0 0.01563,-0.0077 0.01563,-0.0166 h -10e-4 c 0,-0.0089 -0.438815,-1.195214 -0.975586,-2.6367185 C 9.780539,7.3553715 9.259128,5.952699 9.158179,5.679689 9.057281,5.406684 8.951172,5.173828 8.9511485,5.1738295 Z m 8.27832,1.3115235 c -0.02302,-0.00765 -4.827555,5.0898555 -4.836914,5.1318365 -0.005,0.02242 0.0058,0.02338 0.0498,0.0078 0.0063,-0.0022 0.531391,-0.207918 0.644531,-0.251953 1.019728,-1.101451 4.122871,-4.3942495 4.142578,-4.387696 0.0225,0.0075 0.925155,1.673924 1.236328,2.271485 0.01375,-0.006 0.218503,-0.08615 0.21875,-0.08691 0.008,-0.02502 -1.428503,-2.6757125 -1.455078,-2.684571 z M 7.548828,9.775391 c -0.02102,-0.0081 -0.033505,0.0026 -0.041015,0.03418 -0.016515,0.07099 -0.34375,2.682864 -0.34375,2.742187 0,0.03919 0.010535,0.05273 0.039065,0.05273 2.25e-4,0 0.01719,-0.0038 0.01758,-0.0039 0.075537,-0.636122 0.273312,-2.231703 0.2871095,-2.291016 0.00751,-0.03158 0.019995,-0.04224 0.041015,-0.03418 0.018545,0.0071 1.7234825,1.237743 2.4316415,1.751954 0.122471,-0.02751 0.495893,-0.105273 0.499023,-0.108399 0.01001,-0.01021 0.01427,-0.02134 0.0098,-0.02539 -0.05205,-0.04504 -2.9180085,-2.109556 -2.9404305,-2.118164 z m 10.189453,2.164062 c -0.02052,-0.01862 -4.852076,0.416085 -4.873046,0.438477 -0.0085,0.0092 -0.0071,0.02069 0.0049,0.02539 0.0036,0.0015 0.53791,0.29589 0.733399,0.40332 1.045556,-0.105952 3.898277,-0.363057 4.050781,-0.360352 0.02229,-0.140953 0.08718,-0.503969 0.08398,-0.506836 z m -6.878906,0.702149 c -0.02502,0.0096 -1.599329,0.75951 -3.4990235,1.666015 -1.8996945,0.906505 -3.8528208,1.837266 -4.3398437,2.069336 -0.4870229,0.232065 -0.8857422,0.433522 -0.8857422,0.447266 0,0.0046 0.1874474,0.274125 0.2529297,0.37207 0.1446276,-0.07727 0.2849088,-0.153561 0.6328125,-0.319336 0.4870229,-0.23207 2.4401492,-1.162831 4.3398437,-2.069336 1.3853735,-0.661079 1.9871535,-0.946711 2.5517585,-1.214843 0.223313,-0.215836 0.985283,-0.946097 0.986328,-0.949219 0.005,-0.01321 -0.009,-0.01362 -0.03907,-0.0019 z m 1.3125,0.357422 c -0.0095,-0.0035 -0.01758,0.0022 -0.01758,0.01269 0,0.0098 0.178351,0.42006 0.383789,0.886718 0.627581,0.671423 4.791544,5.216446 5.277343,5.760742 0.0583,-0.0384 0.288086,-0.183644 0.288086,-0.185547 0,-0.01746 -5.907517,-6.46572 -5.93164,-6.474609 z m -0.696289,0.137695 c -0.0064,-0.0062 -0.01342,-0.0034 -0.02149,0.0059 -0.03954,0.0446 -2.352539,4.178582 -2.352539,4.204101 0,0.02 0.06806,0.03464 0.24707,0.05859 0.389475,-0.71414 2.070081,-3.722783 2.105469,-3.762695 0.0081,-0.0093 0.01505,-0.01206 0.02149,-0.0059 0.01932,0.01859 0.03367,0.119116 0.05957,0.373046 0.07141,0.702569 0.325731,3.127557 0.389649,3.72168 0.0011,-3.5e-5 0.02992,0.004 0.03028,0.0039 0.01751,-0.0062 0.02168,-0.03224 0.01367,-0.08887 -0.01001,-0.07418 -0.354217,-3.355791 -0.433594,-4.136719 -0.0259,-0.25393 -0.04025,-0.354458 -0.05957,-0.373046 z"/>
</svg>
