<svg xmlns="http://www.w3.org/2000/svg" width="22" height="22" version="1.1">
 <circle style="opacity:0.2" cx="11" cy="11.5" r="10"/>
 <circle style="fill:#17191e" cx="11" cy="11" r="10"/>
 <path style="opacity:0.2" d="m 12,4.5 v 2.5 5 1.5 c 0,1.104569 -0.89543,2 -2,2 -1.1045695,0 -2,-0.895431 -2,-2 0,-1.104569 0.8954305,-2 2,-2 v -2 c -2.209139,0 -4,1.790861 -4,4 0,2.209139 1.790861,4 4,4 2.209139,0 4,-1.790861 4,-4 V 8.9042969 C 14.858487,9.492594 15.880629,10 17,10 V 8.0859375 7.6152344 c -0.58221,3.5e-4 -1.13715,-0.1640798 -1.630859,-0.4726563 v 0.00195 C 14.697276,6.7254448 14.200133,6.0552216 14,5.2675781 L 13.849609,4.5 Z"/>
 <path style="fill:#8b9cbe" d="m 12,4 v 3 5 1 c 0,1.10457 -0.89543,2 -2,2 -1.1045695,0 -2,-0.89543 -2,-2 0,-1.104569 0.8954305,-2 2,-2 V 9 c -2.209139,0 -4,1.790861 -4,4 0,2.209139 1.790861,4 4,4 2.209139,0 4,-1.790861 4,-4 V 8.4042969 C 14.858487,8.9925939 15.880629,9.5 17,9.5 V 7.5859375 7.1152344 c -0.58221,3.5e-4 -1.13715,-0.1640798 -1.630859,-0.4726563 v 0.00195 C 14.697276,6.2254448 14.200133,5.5552216 14,4.7675781 L 13.849609,4 Z"/>
 <path style="opacity:0.1;fill:#8b9cbe" d="M 11,1 A 10,10 0 0 0 1,11 10,10 0 0 0 1.0107422,11.291016 10,10 0 0 1 11,1.5 10,10 0 0 1 20.989258,11.208985 10,10 0 0 0 21,11 10,10 0 0 0 11,1 Z"/>
</svg>
