<svg xmlns="http://www.w3.org/2000/svg" width="22" height="22" version="1">
 <rect style="opacity:0.2" width="20" height="18" x="1" y="2.5" rx="1.5" ry="1.5"/>
 <rect style="fill:#4f4f4f" width="20" height="18" x="1" y="2" rx="1.5" ry="1.5"/>
 <path style="opacity:0.1;fill:#8b9cbe" d="M 2.5,2 C 1.669,2 1,2.669 1,3.5 V 4 C 1,3.169 1.669,2.5 2.5,2.5 h 17 C 20.331,2.5 21,3.169 21,4 V 3.5 C 21,2.669 20.331,2 19.5,2 Z"/>
 <rect style="opacity:0.2" width="6" height="2" x="9" y="10.5" rx=".5" ry=".5"/>
 <rect style="fill:#8b9cbe" width="6" height="2" x="9" y="10" rx=".5" ry=".5"/>
 <rect style="opacity:0.2" width="6.122" height="2.041" x="-6.31" y="10.14" rx=".51" ry=".51" transform="matrix(0.72685813,-0.68678763,0.72685813,0.68678763,0,0)"/>
 <rect style="fill:#a2a2a2" width="6.122" height="2.041" x="-5.95" y="9.78" rx=".51" ry=".51" transform="matrix(0.72685813,-0.68678763,0.72685813,0.68678763,0,0)"/>
 <rect style="opacity:0.2" width="6.122" height="2.041" x="6.06" y="-2.23" rx=".51" ry=".51" transform="matrix(0.72685813,0.68678763,0.72685813,-0.68678763,0,0)"/>
 <rect style="fill:#8b9cbe" width="6.122" height="2.041" x="5.7" y="-1.87" rx=".51" ry=".51" transform="matrix(0.72685813,0.68678763,0.72685813,-0.68678763,0,0)"/>
</svg>
