<svg xmlns="http://www.w3.org/2000/svg" width="22" height="22" version="1.1">
 <g transform="translate(-1,-1)">
  <rect style="opacity:0.2" width="20" height="18" x="2" y="3.5" rx="1" ry="1"/>
  <rect style="fill:#4f4f4f" width="20" height="18" x="2" y="3" rx="1" ry="1"/>
  <path style="opacity:0.1;fill:#8b9cbe" d="M 3,3 C 2.446,3 2,3.446 2,4 V 4.5 C 2,3.946 2.446,3.5 3,3.5 H 21 C 21.554,3.5 22,3.946 22,4.5 V 4 C 22,3.446 21.554,3 21,3 Z"/>
  <path style="opacity:0.2" d="M 4.8,5.5 C 4.3576,5.5 4,5.8576 4,6.3 V 9.5 L 7,12.5 V 8.5 H 12 L 9,5.5 Z M 12,8.5 H 15 V 19.5 H 18 V 8.5 H 20 V 6.3 C 20,5.8576 19.642,5.5 19.2,5.5 H 15 Z M 7,12.5 4,15.5 V 18.7 C 4,19.142 4.3576,19.5 4.8,19.5 H 9 L 12,16.5 H 7 Z"/>
  <path style="fill:#b2bfd9" d="M 4.8,5 C 4.3576,5 4,5.3576 4,5.8 V 9 L 7,12 V 8 H 12 L 9,5 Z M 12,8 H 15 V 19 H 18 V 8 H 20 V 5.8 C 20,5.3576 19.642,5 19.2,5 H 15 Z M 7,12 4,15 V 18.2 C 4,18.642 4.3576,19 4.8,19 H 9 L 12,16 H 7 Z"/>
 </g>
</svg>
