<svg xmlns="http://www.w3.org/2000/svg" width="22" height="22" version="1">
 <path style="opacity:0.2" d="M 10.785185,1.6095974 C 10.288353,1.3194311 9.580475,1.6253064 9.198014,2.2954193 L 6.2064403,7.5369771 3.2148662,12.778535 2.5245087,13.988129 c -1.0198984,1.786966 -0.5077138,4.004241 1.1483922,4.971465 l 3.5872324,2.095073 c 1.6561007,0.967235 3.8104327,0.307288 4.8303307,-1.47968 l 0.690383,-1.209579 2.991573,-5.241556 2.991574,-5.2415593 c 0.382437,-0.6701303 0.290362,-1.443207 -0.206469,-1.7333746 z"/>
 <path style="fill:#17191e" d="M 10.785185,1.1095734 C 10.288353,0.81940714 9.580475,1.1252824 9.198014,1.7953953 L 6.2064403,7.0369531 3.2148662,12.27851 2.5245087,13.488104 c -1.0198984,1.786966 -0.5077138,4.004241 1.1483922,4.971465 l 3.5872324,2.095073 c 1.6561007,0.967235 3.8104327,0.307288 4.8303307,-1.47968 l 0.690383,-1.209579 2.991573,-5.241556 2.991574,-5.2415583 c 0.382437,-0.6701303 0.290362,-1.443207 -0.206469,-1.7333746 z"/>
 <path style="opacity:0.2" d="M 10.623047,3.8343899 8.1464844,8.1703274 14.277344,11.70939 16.734375,7.4027493 Z M 7.4355469,9.3500145 7.0410156,10.033609 8.0664062,10.625406 8.4609375,9.9418115 Z M 9.142578,10.336344 8.7480469,11.019937 9.773438,11.611734 10.167969,10.92814 Z M 6.6464844,10.717203 6.2519531,11.398844 7.2773438,11.99064 7.671875,11.309 Z m 4.2050776,0.605469 -0.394531,0.683593 1.025391,0.591797 0.394531,-0.683594 z m -2.4980464,0.380859 -0.3945312,0.681641 1.0253906,0.591796 0.394531,-0.68164 z m -2.4960937,0.378906 -0.3945313,0.683594 1.0234375,0.591797 0.3945313,-0.683594 z m 6.7031251,0.226563 -0.394531,0.683594 1.02539,0.591796 0.394532,-0.683593 z M 10.0625,12.689859 9.667969,13.3715 l 1.02539,0.591797 0.394532,-0.681641 z m -2.4980469,0.378906 -0.3945312,0.683594 1.0253906,0.591797 0.3945313,-0.683594 z m -2.4960937,0.38086 -0.3945313,0.683593 1.0234375,0.591797 0.3945313,-0.683593 z m 6.7031246,0.226562 -0.394531,0.683594 1.025391,0.591797 0.394531,-0.683594 z M 9.273438,14.055094 8.8789062,14.738687 9.904297,15.330484 10.298828,14.64689 Z M 6.7753906,14.435953 6.3808594,15.119547 7.40625,15.711344 7.8007812,15.02775 Z m 4.2070314,0.605469 -0.394531,0.683593 1.02539,0.591797 0.394531,-0.683594 z m -2.498047,0.380859 -0.3945312,0.683594 1.0253902,0.591797 0.394532,-0.683594 z m 1.708984,0.986328 -0.394531,0.683594 1.025391,0.591797 0.394531,-0.683594 z"/>
 <path style="fill:#d7dcd7" d="M 10.623991,3.3332947 8.1472189,7.6700664 14.277055,11.209129 16.734559,6.9018273 Z"/>
 <rect style="fill:#6771f2" width="1.184" height=".789" x="10.86" y="3.95" transform="rotate(30)"/>
 <rect style="fill:#6771f2" width="1.184" height=".789" x="12.84" y="3.95" transform="rotate(30)"/>
 <rect style="fill:#6771f2" width="1.184" height=".789" x="14.81" y="3.95" transform="rotate(30)"/>
 <rect style="fill:#6771f2" width="1.184" height=".789" x="16.78" y="3.95" transform="rotate(30)"/>
 <rect style="fill:#ffb845" width="1.184" height=".789" x="10.86" y="5.52" transform="rotate(30)"/>
 <rect style="fill:#ff45ea" width="1.184" height=".789" x="12.84" y="5.52" transform="rotate(30)"/>
 <rect style="fill:#6771f2" width="1.184" height=".789" x="14.81" y="5.52" transform="rotate(30)"/>
 <rect style="fill:#6771f2" width="1.184" height=".789" x="16.78" y="5.52" transform="rotate(30)"/>
 <rect style="opacity:0.4;fill:#8b9cbe" width="1.184" height=".789" x="10.86" y="7.1" transform="rotate(30)"/>
 <rect style="opacity:0.4;fill:#8b9cbe" width="1.184" height=".789" x="12.84" y="7.1" transform="rotate(30)"/>
 <rect style="opacity:0.4;fill:#8b9cbe" width="1.184" height=".789" x="14.81" y="7.1" transform="rotate(30)"/>
 <rect style="opacity:0.4;fill:#8b9cbe" width="1.184" height=".789" x="16.78" y="7.1" transform="rotate(30)"/>
 <rect style="opacity:0.4;fill:#8b9cbe" width="1.184" height=".789" x="10.86" y="8.68" transform="rotate(30)"/>
 <rect style="opacity:0.4;fill:#8b9cbe" width="1.184" height=".789" x="12.84" y="8.68" transform="rotate(30)"/>
 <rect style="opacity:0.4;fill:#8b9cbe" width="1.184" height=".789" x="14.81" y="8.68" transform="rotate(30)"/>
 <rect style="opacity:0.4;fill:#8b9cbe" width="1.184" height=".789" x="16.78" y="8.68" transform="rotate(30)"/>
 <path style="opacity:0.1;fill:#8b9cbe" d="M 10.380859,0.99999954 C 9.95424,0.99502464 9.484111,1.2923367 9.197266,1.7949214 L 6.2070312,7.0371089 3.2148438,12.279297 2.5253906,13.488281 c -0.4084845,0.715707 -0.5600598,1.49834 -0.5019531,2.244141 0.032005,-0.589601 0.1841197,-1.187264 0.5019531,-1.744141 L 3.2148438,12.779297 6.2070312,7.5371089 9.197266,2.2949214 c 0.382461,-0.6701129 1.091058,-0.9757132 1.58789,-0.6855469 l 7.771485,4.5390625 c 0.226798,0.1324584 0.358681,0.3724017 0.410156,0.6503906 0.08377,-0.4867395 -0.05514,-0.9430467 -0.410156,-1.1503906 L 10.785156,1.1093745 C 10.660948,1.0368329 10.523066,1.0016578 10.380859,0.99999954 Z"/>
</svg>
