<svg xmlns="http://www.w3.org/2000/svg" width="22" height="22" version="1">
 <circle style="opacity:0.2" cx="11" cy="11.5" r="10"/>
 <circle style="fill:#d44e41" cx="11" cy="11" r="10"/>
 <path style="opacity:0.2;fill:#8b9cbe" d="M 11,1 A 10,10 0 0 0 1,11 10,10 0 0 0 1.0107422,11.291016 10,10 0 0 1 11,1.5 10,10 0 0 1 20.989258,11.208985 10,10 0 0 0 21,11 10,10 0 0 0 11,1 Z"/>
 <path style="opacity:0.2" d="M 11.529429,16.652534 C 10.0602,16.134067 9.290242,15.981206 8.686363,15.999967 c -0.641587,0.05421 -1.1877615,0.247634 -1.81689,0.44984 -0.3447605,0.09831 -0.3452165,0.0932 -0.023095,-0.259076 0.180727,-0.197648 0.819295,-0.668002 1.4190375,-1.04523 0.8161975,-0.513376 1.2684635,-0.645534 1.7982805,-0.645534 0.834506,0 1.386668,-0.497105 1.208237,-1.039834 C 10.601824,12.392993 9,10.999967 9,10.62034 9,10.302587 9.619641,9.495788 10.361228,8.7297904 c 0.328144,-0.338944 0.47011,-0.610031 0.367756,-0.7022285 -0.213281,-0.192112 -2.2586745,-0.527595 -3.2144855,-0.527595 -0.763415,0 -1.4363365,0.2341975 -1.4363365,0.7273195 0,0.136806 0.093605,0.5167405 0.391513,0.8442996 l 0.54165,0.595562 C 6.6530525,10.066781 6.5,10.499967 5.883791,10.499967 5,10.499967 5,9.800126 5.0046745,9.119398 5.1294675,7.4524529 7.7309315,6.2814124 10.191497,6.5206589 c 1.556331,0.1515995 2.920539,0.3701165 4.410442,0.4792125 0.828911,0.04 1.348562,-0.1634005 2.125988,-0.4514035 0.563372,-0.208706 0.204094,0.4627625 -0.639298,1.194807 -1.014414,0.88049 -1.614605,0.8976685 -3.239411,0.751192 -1.215293,-0.1095595 -1.547797,-0.1726495 -1.826215,0.5527221 -0.220944,0.575639 0.02024,1.124266 1.167895,2.295756 0.565925,0.577677 0.813027,0.950803 0.809102,1.315913 -0.0035,0.326738 -0.202661,0.647057 -0.641911,1.101812 -0.387282,0.400953 -0.609013,0.799796 -0.553622,0.886318 0.173786,0.271463 1.32441,0.852979 1.951536,0.852979 0.330549,0 0.95446,-0.09094 1.325494,-0.273677 0.627608,-0.309104 0.894005,-0.306316 0.894005,0.0094 0,0.249976 -1.975505,1.767196 -3.105289,1.764306 -0.205519,-5.5e-4 -0.808844,-0.159704 -1.340784,-0.347417 z"/>
 <path style="fill:#17191e" d="M 11.529429,16.152567 C 10.0602,15.6341 9.290242,15.481239 8.686363,15.5 8.044776,15.55421 7.4986015,15.747634 6.869473,15.94984 6.5247125,16.04815 6.5242565,16.04304 6.846378,15.690764 7.027105,15.493116 7.665673,15.022762 8.2654155,14.645534 9.081613,14.132158 9.533879,14 10.063696,14 10.898202,14 11.450364,13.502895 11.271933,12.960166 10.601824,11.893026 9,10.5 9,10.120373 9,9.80262 9.619641,8.9958215 10.361228,8.2298235 10.689372,7.8908795 10.831338,7.6197925 10.728984,7.527595 10.515703,7.335483 8.4703095,7 7.5144985,7 6.7510835,7 6.078162,7.2341975 6.078162,7.7273195 c 0,0.136806 0.093605,0.5167405 0.391513,0.8442995 l 0.54165,0.595562 C 6.6530525,9.566814 6.5,10 5.883791,10 5,10 5,9.300159 5.0046745,8.619431 5.1294675,6.952486 7.7309315,5.7814455 10.191497,6.020692 c 1.556331,0.1515995 2.920539,0.3701165 4.410442,0.4792125 0.828911,0.04 1.348562,-0.1634005 2.125988,-0.4514035 0.563372,-0.208706 0.204094,0.4627625 -0.639298,1.194807 -1.014414,0.88049 -1.614605,0.8976685 -3.239411,0.751192 -1.215293,-0.1095595 -1.547797,-0.1726495 -1.826215,0.552722 -0.220944,0.575639 0.02024,1.124266 1.167895,2.295756 0.565925,0.577677 0.813027,0.950803 0.809102,1.315913 -0.0035,0.326738 -0.202661,0.647057 -0.641911,1.101812 -0.387282,0.400953 -0.609013,0.799796 -0.553622,0.886318 C 11.978253,14.418484 13.128877,15 13.756003,15 c 0.330549,0 0.95446,-0.09094 1.325494,-0.273677 0.627608,-0.309104 0.894005,-0.306316 0.894005,0.0094 0,0.249976 -1.975505,1.767196 -3.105289,1.764306 -0.205519,-5.5e-4 -0.808844,-0.159704 -1.340784,-0.347417 z"/>
</svg>
