<svg xmlns="http://www.w3.org/2000/svg" width="22" height="22" version="1.1">
 <rect style="opacity:0.2" width="20" height="20" x="1" y="1.5" rx="1" ry="1"/>
 <path style="fill:#00a1f1" d="m 2,1 15.654784,2.3452157 c 0.554,0 1,0.446 1,1.0000003 L 21,20 c 0,0.554 -0.446,1 -1,1 H 2 C 1.446,21 1,20.554 1,20 V 2 C 1,1.446 1.446,1 2,1 Z"/>
 <path style="fill:#008aee" d="M 2,1 C 1.723,1 1.4727422,1.1112422 1.2919922,1.2919922 L 20.708008,20.708008 C 20.888758,20.527258 21,20.277 21,20 V 2 C 21,1.446 20.554,1 20,1 Z"/>
 <path style="opacity:0.1;fill:#8b9cbe" d="M 2,1 C 1.446,1 1,1.446 1,2 v 0.5 c 0,-0.554 0.446,-1 1,-1 h 18 c 0.554,0 1,0.446 1,1 V 2 C 21,1.446 20.554,1 20,1 Z"/>
 <path style="opacity:0.2" d="m 3,3.5 v 4 h 4 v -4 z m 1,1 h 2 v 2 H 4 Z m 5,0 v 2 h 10 v -2 z m -6,5 v 4 h 4 v -4 z m 1,1 h 2 v 2 H 4 Z m 5,0 v 2 h 10 v -2 z m -6,5 v 4 h 4 v -4 z m 1,1 h 2 v 2 H 4 Z m 5,0 v 2 h 10 v -2 z"/>
 <path style="fill:#8b9cbe" d="M 3,3 V 7 H 7 V 3 Z M 4,4 H 6 V 6 H 4 Z M 9,4 V 6 H 19 V 4 Z M 3,9 v 4 H 7 V 9 Z m 1,1 h 2 v 2 H 4 Z m 5,0 v 2 h 10 v -2 z m -6,5 v 4 h 4 v -4 z m 1,1 h 2 v 2 H 4 Z m 5,0 v 2 h 10 v -2 z"/>
</svg>
