<svg xmlns="http://www.w3.org/2000/svg" width="22" height="22" version="1">
 <path style="opacity:0.2" d="M 3.499844,1.5 A 2.5054616,2.50875 0 0 0 1.0000001,4 v 15 c 0,1.375 1.1247737,2.5 2.4998439,2.5 H 18.500156 C 19.875226,21.5 21,20.375 21,19 V 4 C 21,2.625 19.875226,1.5 18.500156,1.5 Z"/>
 <path style="fill:#e44332" d="M 3.499844,1 A 2.5054616,2.50875 0 0 0 1.0000001,3.5 v 15 c 0,1.375 1.1247737,2.5 2.4998439,2.5 H 18.500156 C 19.875226,21 21,19.875 21,18.5 V 3.5 C 21,2.125 19.875226,1 18.500156,1 Z"/>
 <path style="opacity:0.2" d="m 11.900391,4.4996721 a 0.60651788,0.6491803 0 0 0 -0.308594,0.087891 c -0.09303,0.05819 -6.3025589,3.9181899 -6.5097658,4.0449219 -0.24889,0.152597 -0.5550529,0.155182 -0.8027343,0 L 1,6.5719377 v 1.7519532 c 0.798018,0.503049 2.7828069,1.7526751 3.2636719,2.0468761 0.2869478,0.17458 0.5625612,0.170684 0.8398437,-0.002 L 12.873047,5.5328752 C 13.039176,5.4294192 13.047987,5.1102139 12.861328,4.9957659 12.675257,4.8807218 12.3231,4.6631602 12.191406,4.5797502 a 0.60651788,0.6491803 0 0 0 -0.291015,-0.080078 z m 0,4 a 0.60651788,0.6491803 0 0 0 -0.308594,0.087891 c -0.09303,0.05819 -6.3025589,3.9181899 -6.5097658,4.0449219 -0.24889,0.152598 -0.5550529,0.155183 -0.8027343,0 L 1,10.571939 v 1.751953 c 0.798018,0.503049 2.7828069,1.752674 3.2636719,2.046875 0.2869478,0.17458 0.5625612,0.170684 0.8398437,-0.002 L 12.873047,9.532876 C 13.039176,9.42942 13.047987,9.110214 12.861328,8.9957659 12.675257,8.8807219 12.3231,8.6631602 12.191406,8.5797502 a 0.60651788,0.6491803 0 0 0 -0.291015,-0.080078 z m 0,4.0000009 a 0.60651788,0.6491803 0 0 0 -0.308594,0.08789 c -0.09303,0.05819 -6.3025589,3.918189 -6.5097658,4.044921 -0.24889,0.152598 -0.5550529,0.155183 -0.8027343,0 L 1,14.571939 v 1.751953 c 0.798018,0.503049 2.7828069,1.752674 3.2636719,2.046875 0.2869478,0.17458 0.5625612,0.170684 0.8398437,-0.002 l 7.7695314,-4.835938 c 0.166129,-0.103456 0.174942,-0.422661 -0.01172,-0.537109 -0.18607,-0.114997 -0.538227,-0.332559 -0.669921,-0.415969 a 0.60651788,0.6491803 0 0 0 -0.291015,-0.08008 z"/>
 <path style="fill:#8b9cbe" d="m 11.900391,3.9998399 a 0.60651788,0.6491803 0 0 0 -0.308594,0.087891 c -0.09303,0.05819 -6.3025589,3.9181899 -6.5097658,4.0449219 -0.24889,0.152597 -0.5550529,0.155182 -0.8027343,0 L 1,6.0721055 v 1.7519532 c 0.798018,0.503049 2.7828069,1.7526743 3.2636719,2.0468753 0.2869478,0.17458 0.5625612,0.170684 0.8398437,-0.002 L 12.873047,5.033043 C 13.039176,4.929587 13.047987,4.6103817 12.861328,4.4959337 12.675257,4.3808896 12.3231,4.163328 12.191406,4.079918 a 0.60651788,0.6491803 0 0 0 -0.291015,-0.080078 z m 0,4 a 0.60651788,0.6491803 0 0 0 -0.308594,0.087891 c -0.09303,0.05819 -6.3025589,3.9181891 -6.5097658,4.0449211 -0.24889,0.152598 -0.5550529,0.155183 -0.8027343,0 L 1,10.072106 v 1.751953 c 0.798018,0.503049 2.7828069,1.752674 3.2636719,2.046875 0.2869478,0.17458 0.5625612,0.170684 0.8398437,-0.002 L 12.873047,9.033043 C 13.039176,8.929587 13.047987,8.6103816 12.861328,8.4959337 12.675257,8.3808897 12.3231,8.163328 12.191406,8.079918 a 0.60651788,0.6491803 0 0 0 -0.291015,-0.080078 z m 0,4.0000001 a 0.60651788,0.6491803 0 0 0 -0.308594,0.08789 c -0.09303,0.05819 -6.3025589,3.918189 -6.5097658,4.044921 -0.24889,0.152598 -0.5550529,0.155183 -0.8027343,0 L 1,14.072106 v 1.751953 c 0.798018,0.503049 2.7828069,1.752674 3.2636719,2.046875 0.2869478,0.17458 0.5625612,0.170684 0.8398437,-0.002 l 7.7695314,-4.835938 c 0.166129,-0.103456 0.174942,-0.422661 -0.01172,-0.537109 -0.18607,-0.114997 -0.538227,-0.332559 -0.669921,-0.415969 a 0.60651788,0.6491803 0 0 0 -0.291015,-0.08008 z"/>
 <path style="opacity:0.2;fill:#8b9cbe" d="M 3.5,1 A 2.5054616,2.50875 0 0 0 1,3.5 V 4 A 2.5054616,2.50875 0 0 1 3.5,1.5 h 15 C 19.87507,1.5 21,2.625 21,4 V 3.5 C 21,2.125 19.87507,1 18.5,1 Z"/>
</svg>
