<svg xmlns="http://www.w3.org/2000/svg" width="22" height="22" version="1">
 <circle style="opacity:0.2" class="cls-1" cx="11" cy="11.5" r="10"/>
 <circle style="fill:#e03137" class="cls-1" cx="11" cy="11" r="10"/>
 <path style="opacity:0.2;fill:#8b9cbe" d="M 11,1 A 10,10 0 0 0 1,11 10,10 0 0 0 1.0107422,11.291016 10,10 0 0 1 11,1.5 10,10 0 0 1 20.989258,11.208985 10,10 0 0 0 21,11 10,10 0 0 0 11,1 Z"/>
 <path style="opacity:0.2" d="m 10,5 v 7 h 2 V 5 Z m 3,1.3496094 V 8.5410156 C 14.236022,9.254632 14.998173,10.572766 15,12 15,14.209139 13.209139,16 11,16 8.790861,16 7,14.209139 7,12 7.00183,10.572766 7.7639776,9.254632 9,8.5410156 V 6.3554688 C 6.6069797,7.2015232 5.0052149,9.461826 5,12 c 0,3.313708 2.6862915,6 6,6 3.313708,0 6,-2.686292 6,-6 C 16.9973,9.459675 15.395044,7.1963835 13,6.3496094 Z"/>
 <path style="fill:#8b9cbe" d="M 13,5.3496094 V 7.5410156 A 4,4 0 0 1 15,11 4,4 0 0 1 11,15 4,4 0 0 1 7,11 4,4 0 0 1 9,7.5410156 V 5.3554688 A 6,6 0 0 0 5,11 a 6,6 0 0 0 6,6 6,6 0 0 0 6,-6 6,6 0 0 0 -4,-5.6503906 z"/>
 <path style="fill:#8b9cbe" d="m 10,4 h 2 v 7 h -2 z"/>
</svg>
