<svg xmlns="http://www.w3.org/2000/svg" width="22" height="22" version="1.1">
 <circle style="opacity:0.2" cx="11" cy="11.5" r="10"/>
 <circle style="fill:#ecc138" cx="11" cy="11" r="10"/>
 <path style="opacity:0.2;fill:#8b9cbe" d="M 11,1 A 10,10 0 0 0 1,11 10,10 0 0 0 1.0107422,11.291016 10,10 0 0 1 11,1.5 10,10 0 0 1 20.989258,11.208985 10,10 0 0 0 21,11 10,10 0 0 0 11,1 Z"/>
 <path style="opacity:0.1" d="M 12,4.5062819 V 6.1911474 C 11.050947,5.8661534 9.85639,6.3736939 9,7.4999989 9.122322,5.9564899 9.454444,4.3881349 12,4.5062819 Z"/>
 <path style="fill:#17191e" d="M 12,4.0062819 V 5.6911474 C 11.050947,5.3661534 9.85639,5.8736939 9,6.9999989 9.122322,5.4564899 9.454444,3.8881349 12,4.0062819 Z"/>
 <path style="opacity:0.1" d="M 14.321732,5.5332714 13.349,7.2180924 c 1.127626,0.2177215 2.197101,1.3366085 2.395062,2.9526026 0.483024,-1.075398 0.485649,-4.4118236 -1.42233,-4.6374236 z"/>
 <path style="fill:#17191e" d="M 14.321732,5.0332714 13.349,6.7180924 c 1.127626,0.2177215 2.197101,1.336608 2.395062,2.9526026 0.483024,-1.0753981 0.485649,-4.4118236 -1.42233,-4.6374236 z"/>
 <ellipse style="opacity:0.2" cx="10.972" cy="11.371" rx="2.928" ry="4.535" transform="rotate(9.336414)"/>
 <ellipse style="fill:#8b9cbe" cx="10.891" cy="10.877" rx="2.928" ry="4.535" transform="rotate(9.336414)"/>
 <path style="fill:#17191e" d="m 10.446058,10.501318 a 1.0012093,1.8107904 18.004805 0 0 -1.169966,1.119894 l 1.454995,1.103524 -1.675508,-0.4131 a 1.0012093,1.8107904 18.004805 0 0 0.505541,1.665879 1.0012093,1.8107904 18.004805 0 0 1.505068,-1.448255 1.0012093,1.8107904 18.004805 0 0 -0.418877,-2.006757 1.0012093,1.8107904 18.004805 0 0 -0.201253,-0.02118 z"/>
 <ellipse style="opacity:0.2" cx="13.583" cy="13.5" rx="2.583" ry="4"/>
 <ellipse style="fill:#8b9cbe" cx="13.583" cy="13" rx="2.583" ry="4"/>
 <path style="fill:#17191e" d="m 13.10942,11.500024 a 1.2586946,0.777916 81.349429 0 0 -0.07733,0.0054 1.2586946,0.777916 81.349429 0 0 -0.59709,0.919914 l 1.060194,0.159164 -0.960379,0.623167 a 1.2586946,0.777916 81.349429 0 0 0.875851,0.786825 1.2586946,0.777916 81.349429 0 0 0.579104,-1.361435 1.2586946,0.777916 81.349429 0 0 -0.880346,-1.13303 z"/>
</svg>
