<svg xmlns="http://www.w3.org/2000/svg" width="22" height="22" version="1.1">
 <g transform="translate(0,-1030.3622)">
  <path style="opacity:0.2" d="m 3.1467636,1031.8624 c -0.1341143,0 -0.1914166,1.396 -0.1074219,2.6318 0.1146933,1.6875 0.4225812,3.3869 0.970703,3.8567 0.2763435,0.2369 1.1829225,0.543 1.5703125,0.543 0.6855078,0.105 -0.1331476,1.6404 -0.390121,2.5749 -0.1899993,0.6558 -0.2482601,0.7953 -0.1899569,1.1631 0.094577,0.5965 0.641812,1.4954 1.050781,1.9619 0.055172,0.063 0.107765,0.1072 0.15918,0.1514 0.3937319,-1.5342 1.3341314,-2.8719 2.644531,-3.7617 l 0.1542967,-0.7412 c 0.184144,-0.883 0.37532,-1.3312 0.424805,-1.3797 0.06183,-0.06 0.82752,0.032 2.449219,0 2.070319,-0.077 3.112994,-0.7036 4.117187,-2.2824 7.5e-4,-0.1979 -0.01162,-0.2025 -0.643554,-0.253 -3.958395,-0.3159 -7.6585922,-1.576 -11.0175787,-3.7529 -0.6040055,-0.3914 -1.1402442,-0.7119 -1.1923827,-0.7119 z"/>
  <path style="opacity:0.2;fill-rule:evenodd" d="m 12.500279,1040.8622 a 5.5,5.5 0 0 0 -5.4999998,5.5 5.5,5.5 0 0 0 5.4999998,5.5 5.5,5.5 0 0 0 5.5,-5.5 5.5,5.5 0 0 0 -5.5,-5.5 z"/>
  <path style="fill:#4f4f4f;fill-rule:evenodd" d="m 12.500279,1040.3622 a 5.5,5.5 0 0 0 -5.4999998,5.5 5.5,5.5 0 0 0 5.4999998,5.5 5.5,5.5 0 0 0 5.5,-5.5 5.5,5.5 0 0 0 -5.5,-5.5 z"/>
  <path style="opacity:0.2;fill-rule:evenodd" d="m 12.5,1043.8622 a 2.5,2.5 0 0 1 2.5,2.5 2.5,2.5 0 0 1 -2.5,2.5 2.5,2.5 0 0 1 -2.5,-2.5 2.5,2.5 0 0 1 2.5,-2.5 z"/>
  <path style="fill:#8b9cbe;fill-rule:evenodd" d="m 12.5,1043.3622 a 2.5,2.5 0 0 1 2.5,2.5 2.5,2.5 0 0 1 -2.5,2.5 2.5,2.5 0 0 1 -2.5,-2.5 2.5,2.5 0 0 1 2.5,-2.5 z"/>
  <path style="fill:#d24343" d="m 3.1467636,1031.3622 c -0.1341143,0 -0.1914166,1.396 -0.1074219,2.6318 0.1146933,1.6875 0.4225812,3.3869 0.970703,3.8567 0.2763435,0.2369 1.1829225,0.543 1.5703125,0.543 0.6855078,0.105 -0.1331476,1.6404 -0.390121,2.5749 -0.1899993,0.6558 -0.2482601,0.7953 -0.1899569,1.1631 0.094577,0.5965 0.641812,1.4954 1.050781,1.9619 0.055172,0.063 0.107765,0.1072 0.15918,0.1514 0.3937319,-1.5342 1.3341314,-2.8719 2.644531,-3.7617 l 0.1542967,-0.7412 c 0.184144,-0.883 0.37532,-1.3312 0.424805,-1.3797 0.06183,-0.06 0.82752,0.032 2.449219,0 2.070319,-0.077 3.112994,-0.7036 4.117187,-2.2824 7.5e-4,-0.1979 -0.01162,-0.2025 -0.643554,-0.253 -3.958395,-0.3159 -7.6585922,-1.576 -11.0175787,-3.7529 -0.6040055,-0.3914 -1.1402442,-0.7119 -1.1923827,-0.7119 z"/>
  <path style="fill:#d24343;fill-rule:evenodd" d="M 12.472849,1044.3618 A 1.4999475,1.4999475 0 0 0 11,1045.5849 l 1.315383,0.3523 c 0.100333,0.027 0.159448,0.1296 0.132564,0.23 l -0.309803,1.155 a 1.4999475,1.4999475 0 0 0 0.334705,0.04 1.4999475,1.4999475 0 0 0 1.499947,-1.4999 1.4999475,1.4999475 0 0 0 -1.499947,-1.5 z"/>
  <path style="opacity:0.1;fill:#8b9cbe;fill-rule:evenodd" d="m 12.5,1040.3622 a 5.5,5.5 0 0 0 -5.5,5.5 5.5,5.5 0 0 0 0.00977,0.207 5.5,5.5 0 0 1 5.490234,-5.207 5.5,5.5 0 0 1 5.490234,5.293 5.5,5.5 0 0 0 0.0098,-0.293 5.5,5.5 0 0 0 -5.5,-5.5 z"/>
  <path style="opacity:0.2;fill:#8b9cbe" d="m 3.1464844,1031.3622 c -0.08303,0 -0.1200592,0.5745 -0.1289063,1.2754 0.022494,-0.4524 0.066104,-0.7754 0.1289063,-0.7754 0.052138,0 0.5893539,0.3215 1.1933594,0.7129 3.3589865,2.1769 7.0591832,3.436 11.0175782,3.7519 0.244214,0.02 0.337485,0.037 0.43164,0.057 0.0702,-0.1003 0.14144,-0.1935 0.210938,-0.3027 7.5e-4,-0.1979 -0.01064,-0.2035 -0.642578,-0.254 -3.958395,-0.3159 -7.6585917,-1.577 -11.0175782,-3.7539 -0.6040055,-0.3914 -1.1412209,-0.7109 -1.1933594,-0.7109 z m 2.6582031,7.7324 c -0.1153037,0.5537 -0.4622776,1.3168 -0.6152344,1.8731 -0.1899993,0.6558 -0.2477563,0.7962 -0.1894531,1.164 7.665e-4,0 0.00503,0.011 0.00586,0.016 0.031545,-0.1613 0.090234,-0.3555 0.1835937,-0.6778 0.2101565,-0.7642 0.7837061,-1.918 0.6152344,-2.375 z"/>
 </g>
</svg>
