<svg xmlns="http://www.w3.org/2000/svg" width="22" height="22" version="1">
 <path style="opacity:0.1" d="m 11,1.5 c -3.865993,0 -7,3.134007 -7,7 v 7 h 2 v -7 c 0,-2.7614235 2.2385765,-5 5,-5 2.761423,0 5,2.2385765 5,5 v 7 h 2 v -7 c 0,-3.865993 -3.134007,-7 -7,-7 z"/>
 <path style="opacity:0.2" d="M 9.5,9.5 A 6,6 0 0 0 3.5898437,14.504883 3.5,3.5 0 0 0 3.5,14.5 3.5,3.5 0 0 0 0,18 3.5,3.5 0 0 0 3.5,21.5 h 6 9.5 a 3,3 0 0 0 3,-3 3,3 0 0 0 -3,-3 3,3 0 0 0 -0.04004,0.002 A 3.5,3.5 0 0 0 19,15 3.5,3.5 0 0 0 15.5,11.5 3.5,3.5 0 0 0 14.188477,11.757813 6,6 0 0 0 9.5,9.5 Z"/>
 <path style="fill:#17191e" d="M 11,1 C 7.134007,1 4,4.134007 4,8 v 7 H 6 V 8 c 0,-2.7614235 2.2385765,-5 5,-5 2.761423,0 5,2.2385765 5,5 v 7 h 2 V 8 C 18,4.134007 14.865993,1 11,1 Z"/>
 <circle style="fill:#b2bfd9" cx="3.5" cy="17.5" r="3.5"/>
 <circle style="fill:#b2bfd9" cx="19" cy="18" r="3"/>
 <circle style="fill:#b2bfd9" cx="15.5" cy="14.5" r="3.5"/>
 <circle style="fill:#b2bfd9" cx="9.5" cy="15" r="6"/>
 <rect style="fill:#b2bfd9" width="15.5" height="4.5" x="3.5" y="16.5"/>
 <path style="opacity:0.1" d="M 11.650391,11.880859 C 10.825427,12.009264 5,14.387009 5,20.5 h 0.9472656 c -0.287422,-5.712133 5.5836024,-8.658982 5.7031254,-8.619141 z m 3.078125,1.650391 C 13.795948,13.372711 8.609756,16.108673 8,20.5 H 8.9472656 C 9.592411,15.110679 14.728516,13.53125 14.728516,13.53125 Z m 1.875,1.541016 C 15.670948,14.913727 11.824964,17.507525 11,20.5 h 0.947266 c 0.501674,-3.057901 4.65625,-5.427734 4.65625,-5.427734 z"/>
 <path style="fill:#54ae1d" d="M 11.650822,11.380918 C 11.531299,11.341077 5.6603875,14.287867 5.9478095,20 H 5 c 0,-6.112991 5.825858,-8.490677 6.650822,-8.619082 z"/>
 <path style="fill:#54ae1d" d="m 14.728,13.030846 c 0,0 -5.135045,1.579833 -5.7801905,6.969154 H 8 c 0.609756,-4.391327 5.795432,-7.127693 6.728,-6.969154 z"/>
 <path style="fill:#54ae1d" d="m 16.604,14.57317 c 0,0 -4.154517,2.368929 -4.656191,5.42683 H 11 c 0.824964,-2.992475 4.671432,-5.585369 5.604,-5.42683 z"/>
 <path style="opacity:0.2;fill:#8b9cbe" d="M 9.5,9 A 6,6 0 0 0 3.5898437,14.004883 3.5,3.5 0 0 0 3.5,14 3.5,3.5 0 0 0 0,17.5 3.5,3.5 0 0 0 0.0117187,17.729492 3.5,3.5 0 0 1 3.5,14.5 3.5,3.5 0 0 1 3.5898437,14.504883 6,6 0 0 1 9.5,9.5 6,6 0 0 1 14.188477,11.757813 3.5,3.5 0 0 1 15.5,11.5 3.5,3.5 0 0 1 18.986328,14.737305 3.5,3.5 0 0 0 19,14.5 3.5,3.5 0 0 0 15.5,11 3.5,3.5 0 0 0 14.188477,11.257813 6,6 0 0 0 9.5,9 Z M 19,15 A 3.5,3.5 0 0 1 18.959961,15.501953 3,3 0 0 1 19,15.5 3,3 0 0 1 21.987304,18.249023 3,3 0 0 0 22,18 3,3 0 0 0 19,15 Z"/>
 <path style="opacity:0.1;fill:#8b9cbe" d="M 11,1 C 7.134007,1 4,4.134007 4,8 v 0.5 c 0,-3.865993 3.134007,-7 7,-7 3.865993,0 7,3.134007 7,7 V 8 C 18,4.134007 14.865993,1 11,1 Z"/>
</svg>
