<svg xmlns="http://www.w3.org/2000/svg" width="22" height="22" version="1">
 <rect style="opacity:0.2" width="20" height="20" x="1" y="1.5" rx="10" ry="10"/>
 <rect style="fill:#493f40" width="20" height="20" x="1" y="1" rx="10" ry="10"/>
 <path style="opacity:0.1;fill:#8b9cbe" d="M 11,1 C 5.46,1 1,5.46 1,11 1,11.08394 1.00382,11.166571 1.00586,11.25 1.1381952,5.8269315 5.543937,1.5 11,1.5 c 5.456063,0 9.861805,4.3269315 9.99414,9.75 C 20.996176,11.166571 21,11.083937 21,11 21,5.46 16.54,1 11,1 Z"/>
 <circle style="opacity:0.2" cx="11" cy="11.5" r="8"/>
 <circle style="fill:#8b9cbe" cx="11" cy="11" r="8"/>
 <g transform="matrix(0.48670119,0,0,0.5,-0.54017367,-1.246785)">
  <path style="fill:#493f40" d="m 19.601706,16.49357 v 8 h -2.054649 v -8 H 13.43776 v -2 h 10.273244 v 2 z"/>
 </g>
 <g transform="matrix(0.44628947,0,0,0.46486292,-6.7216122,3.3187119)">
  <path style="fill:#493f40" transform="matrix(1.0163792,0,0,1,16.994403,-6.94838)" d="m 29.078125,25.623047 c -1.214187,0 -2.190842,0.230092 -2.908203,0.744141 h -0.002 v 0.002 c -0.712399,0.514193 -1.091797,1.304157 -1.091797,2.232421 0,0.404694 0.0667,0.778668 0.207031,1.113282 v 0.002 l 0.002,0.002 c 0.142528,0.32728 0.347455,0.618368 0.609375,0.863281 l 0.002,0.002 0.002,0.002 c 0.267321,0.24453 0.608158,0.449267 1.023437,0.630859 h 0.002 c 0.43134,0.186449 1.021374,0.360331 1.789063,0.533203 0.431441,0.100505 0.825116,0.194577 1.179687,0.28125 0.336749,0.08232 0.619011,0.18174 0.845703,0.294922 0.214164,0.106926 0.361554,0.23098 0.460938,0.371094 v 0.002 l 0.002,0.0039 c 0.08787,0.120004 0.144531,0.288077 0.144531,0.546875 0,0.462037 -0.147792,0.733108 -0.513672,0.96875 -0.364893,0.233169 -0.938619,0.376953 -1.732422,0.376953 -0.768041,0 -1.345555,-0.132528 -1.736328,-0.357422 -0.386361,-0.226551 -0.621274,-0.551196 -0.746093,-1.054687 l -0.08789,-0.347656 -1.976563,0.402343 0.08398,0.378907 c 0.204387,0.906939 0.706826,1.629031 1.46289,2.089843 0.756066,0.460813 1.743248,0.671874 2.951172,0.671875 1.300935,0 2.350443,-0.252462 3.125,-0.80664 0.779077,-0.553769 1.195313,-1.397149 1.195313,-2.392578 0,-0.387816 -0.05156,-0.740613 -0.169922,-1.054688 l -0.002,-0.002 c -0.109874,-0.302172 -0.270003,-0.572887 -0.47461,-0.802735 -0.199018,-0.22357 -0.434438,-0.412749 -0.701171,-0.564453 l -0.0039,-0.002 c -0.248485,-0.143309 -0.51386,-0.2665 -0.796875,-0.36914 l -0.0039,-0.002 C 30.937774,30.276608 30.644795,30.187398 30.33804,30.115369 h -0.002 c -0.289323,-0.07357 -0.581382,-0.144022 -0.875,-0.21289 l -0.002,-0.002 h -0.002 c -0.866805,-0.195274 -1.449726,-0.36599 -1.68164,-0.470703 l -0.0039,-0.002 c -0.250857,-0.118327 -0.425896,-0.250961 -0.539062,-0.386718 -0.0966,-0.124756 -0.150391,-0.277648 -0.150391,-0.509766 0,-0.409302 0.120849,-0.634523 0.429688,-0.832031 0.312778,-0.200027 0.82933,-0.328125 1.552734,-0.328125 0.655575,0 1.136318,0.115516 1.447266,0.300781 h 0.002 v 0.002 c 0.306073,0.178785 0.508742,0.449373 0.628906,0.890625 l 0.08984,0.330078 2.015625,-0.359375 -0.115235,-0.404297 c -0.24968,-0.880732 -0.710448,-1.55674 -1.378906,-1.947265 -0.66242,-0.391806 -1.552659,-0.560547 -2.675781,-0.560547 z"/>
 </g>
 <path style="opacity:0.1" d="M 7.748727,10.741576 16.5,1.5 12.281437,8.6089045 15.198528,7.986875 11.360207,13.068296 13.846078,12.825611 5.5,21.5 9.379734,15.020111 7.023132,15.227634 10.295177,10.310127 Z"/>
 <path style="fill:#f99007" d="M 7.748727,10.241576 16.5,1 12.281437,8.1089045 15.198528,7.486875 11.360207,12.568296 13.846078,12.325611 5.5,21 9.379734,14.520111 7.023132,14.727634 10.295177,9.810127 Z"/>
</svg>
