<svg xmlns="http://www.w3.org/2000/svg" width="22" height="22" version="1">
 <path style="opacity:0.2" d="m 13.939453,1.5000301 c -0.498169,0.00549 -0.641358,0.049955 -0.953125,0.1611328 C 9.601847,3.0450823 6.3471826,4.4137062 2.2675784,5.5674131 1.2911202,5.7947146 0.87963393,6.3175511 1.0302738,7.1377256 c 0,0 0.7421875,7.0164724 0.7421875,7.4335934 0,0.417067 0.3717802,2.380272 0.3222655,3.091796 -0.04952,0.71147 -0.6190901,2.895051 -0.6933593,3.189453 -0.074263,0.294459 -7.24e-5,0.490478 0.074219,0.637696 0.04751,0.09415 1.0933164,-0.5096 2.111328,-1.160157 1.1546634,-0.817972 2.3425363,-1.589451 3.5468748,-2.336914 3.2454487,-1.810661 6.5278277,-3.567421 9.6650387,-5.507812 0.383294,-0.231989 1.443677,-0.887477 2.15625,-1.324218 0.221793,-0.13158 0.446213,-0.259556 0.666992,-0.392579 2.74e-4,-0.0055 -2.51e-4,-0.01107 0,-0.0166 C 20.155531,10.423713 20.285389,10.349374 21,9.9062812 20.97155,8.647921 20.547723,7.3761945 20.081054,6.3594066 c -0.201885,-0.4381985 -0.301632,-0.4251 -0.754882,-0.1220705 -0.2463,0.1802655 -0.527671,0.4764175 -0.797852,0.6914065 -0.0093,0.00797 -0.07409,0.066897 -0.08594,0.077147 C 17.731881,5.7234886 16.743384,4.2272067 15.550781,2.2900691 15.139369,1.7070333 14.437622,1.4950278 13.939453,1.5000301 Z"/>
 <path style="fill:#932c93" d="m 1.0302452,6.6377096 c 0,0 0.742687,7.0167624 0.742687,7.4338834 0,0.417067 0.37134,2.37979 0.3218253,3.091315 -0.04952,0.711469 -0.6189025,2.89501 -0.6931716,3.189412 -0.074264,0.294459 -2.21e-5,0.49072 0.074269,0.637938 0.047509,0.09415 1.0935001,-0.509193 2.1115117,-1.15975 C 8.6505815,16.243688 14.29323,13.479467 19.622099,10.268754 19.731493,8.054383 18.074967,5.8898586 15.550664,1.7896492 15.139252,1.2066134 14.437296,0.99508395 13.939127,1.0000863 13.440959,1.0055779 13.298405,1.0500963 12.986638,1.1612741 9.602157,2.5451936 6.3476551,3.9137799 2.268051,5.0674866 1.2915928,5.2947881 0.87960533,5.8175351 1.0302452,6.6377096 Z"/>
 <path style="opacity:0.1;fill:#8b9cbe" d="M 13.939453,0.99999975 C 13.441284,1.0054898 13.298095,1.0499548 12.986328,1.1611326 9.601847,2.545052 6.3471826,3.9136757 2.2675784,5.0673826 1.3174907,5.2885451 0.90643573,5.7918231 1.0234378,6.5742186 1.1229635,6.0727781 1.5372024,5.7374006 2.2675784,5.5673826 6.3471826,4.4136762 9.601847,3.045052 12.986328,1.6611326 c 0.311767,-0.1111778 0.454956,-0.1556413 0.953125,-0.1611328 0.498169,-0.005 1.199916,0.2070032 1.611328,0.790039 2.336233,3.7947268 3.925803,5.9306802 4.063477,7.9833982 0.0026,-0.0016 0.0052,-0.0033 0.0078,-0.0049 C 19.731464,8.0541825 18.075085,5.8902481 15.550781,1.7900388 15.139369,1.207003 14.437622,0.99499745 13.939453,0.99999975 Z M 2.0859378,17.219725 c -0.067328,0.751044 -0.6116902,2.843917 -0.6845703,3.132813 -0.049381,0.195798 -0.030483,0.345336 0.00781,0.46875 0.083988,-0.331426 0.6365645,-2.454466 0.6855468,-3.158203 0.00807,-0.116008 0.00208,-0.272954 -0.00879,-0.44336 z"/>
 <path style="opacity:0.4" d="M 18.422979,6.4718331 C 11.229584,10.285256 6.4014591,12.382843 1.8041857,14.380961 c 0.029052,0.262472 0.07566,0.60532 0.1334101,1.020765 C 6.3811931,13.57242 13.194676,10.378473 18.89094,7.3754105 18.826652,7.241211 18.75981,7.1062281 18.687746,6.9673106 L 18.501999,6.6095801 c -0.02426,-0.044345 -0.05406,-0.092862 -0.07902,-0.137747 z m 0.780962,1.6005344 C 12.004705,11.889036 6.6659256,14.380696 2.0586911,16.385484 c 0.031031,0.310884 0.048993,0.589248 0.035918,0.777138 -0.00536,0.07698 -0.035067,0.220731 -0.051311,0.327919 C 6.4907456,15.65971 13.459225,12.377419 19.159813,9.3717102 l 0.04721,-1.2931747 c -8.5e-4,-0.0021 -0.0023,-0.00405 -0.0031,-0.00617 z"/>
 <path style="fill:#b72dc5" d="m 6.6525176,17.760617 c 0,0 6.5888974,-6.300566 7.7442424,-7.497632 1.155346,-1.1970128 3.746124,-3.5043689 4.131238,-3.8339444 0.270181,-0.214989 0.552166,-0.511761 0.798466,-0.6920265 0.45325,-0.3030295 0.552998,-0.315882 0.754884,0.1223165 C 20.548016,6.8761186 20.971552,8.1475725 21,9.4059332 18.821076,10.75697 17.545709,11.533159 16.798988,11.985114 13.50677,14.021378 10.053953,15.854173 6.6525176,17.760617 Z"/>
 <path style="opacity:0.2;fill:#8b9cbe" d="m 19.797851,5.5205076 c -0.106829,-0.013685 -0.245054,0.065282 -0.471679,0.2167965 -0.2463,0.1802655 -0.527671,0.4764175 -0.797852,0.6914065 -0.385114,0.3295755 -2.97649,2.6369716 -4.131836,3.8339844 -1.155345,1.197066 -7.7441399,7.498046 -7.7441399,7.498046 0.411169,-0.230453 0.824031,-0.457733 1.236328,-0.686523 1.6243419,-1.555706 5.5601469,-5.329637 6.5078119,-6.311523 1.155346,-1.1970128 3.746722,-3.504409 4.131836,-3.8339844 0.270181,-0.214989 0.551552,-0.511141 0.797852,-0.6914065 0.45325,-0.3030295 0.552997,-0.316128 0.754882,0.1220705 0.407247,0.8873174 0.781999,1.9681784 0.889649,3.0654296 0.01524,-0.0094 0.01397,-0.009 0.0293,-0.01855 C 20.971548,8.1478885 20.547721,6.8761621 20.081052,5.8593741 19.98011,5.6402751 19.904678,5.5341901 19.797849,5.5205071 Z"/>
</svg>
