<svg xmlns="http://www.w3.org/2000/svg" width="22" height="22" version="1">
 <rect style="opacity:0.2" width="20" height="20" x="1" y="1.5" rx="6" ry="6"/>
 <rect style="fill:#fa4641" width="20" height="20" x="1" y="1" rx="6" ry="6"/>
 <path style="opacity:0.2;fill:#8b9cbe" d="M 7,1 C 3.676,1 1,3.676 1,7 v 0.5 c 0,-3.324 2.676,-6 6,-6 h 8 c 3.324,0 6,2.676 6,6 V 7 C 21,3.676 18.324,1 15,1 Z"/>
 <path style="opacity:0.2" d="m 10,4.5 c -1.104569,0 -2,0.8954305 -2,2 0,1.1045695 0.895431,2 2,2 0.390297,0 0.655359,-0.2246615 1.177735,-0.2871095 C 11.70011,8.1504425 11.892327,8.368077 12.5,8.5 13.328427,8.5 14,7.828427 14,7 14,6.171573 13.328427,5.5 12.5,5.5 11.436608,5.84453 11.003075,4.523244 10,4.5 Z m 1.463867,5 c -2.177238,0 -2.199805,10e-4 -2.279296,0.06152 -0.04415,0.03361 -0.09091,0.09979 -0.104493,0.147461 -0.01359,0.04767 -0.03628,0.658398 -0.04981,1.357421 -0.02633,1.362022 -0.039715,1.507016 -0.2021485,2.149415 -0.2500175,0.988784 -0.644679,1.795538 -1.53125,3.129882 C 7.0999145,16.642142 7,16.819617 7,16.873047 c 0,0.314152 1.019015,1.6261 1.263672,1.626953 0.01743,5.9e-5 0.128014,-0.06889 0.2460935,-0.153321 0.280945,-0.200888 0.8443565,-0.783024 1.1689455,-1.208007 0.858226,-1.123674 1.346664,-2.158202 1.714844,-3.633789 0.140712,-0.563942 0.18852,-0.66504 0.319336,-0.665039 0.123719,0 0.160629,0.103314 0.331055,0.930664 0.195902,0.951028 0.382054,1.535434 0.710937,2.235351 0.163882,0.348769 0.25059,0.454813 0.371094,0.454102 0.196742,-0.0011 0.845103,-0.328533 1.356445,-0.684571 C 14.732128,15.601525 15,15.342275 15,15.274414 15,15.254824 14.92201,15.09887 14.827149,14.926758 14.185671,13.762821 13.91549,12.513369 13.886719,10.585938 13.875449,9.83078 13.853699,9.683745 13.737304,9.572266 L 13.66211,9.5 Z"/>
 <path style="fill:#8b9cbe" d="m 8.5099485,17.846597 c 0.280945,-0.200889 0.8440235,-0.78288 1.1686125,-1.207863 0.858226,-1.123674 1.346331,-2.158172 1.714511,-3.633758 0.140712,-0.563943 0.189386,-0.665033 0.320202,-0.665033 0.123719,0 0.160586,0.103695 0.331011,0.931046 0.195903,0.951028 0.381575,1.53514 0.710459,2.235056 0.163882,0.348769 0.250518,0.454802 0.371021,0.454091 0.196742,-0.0011 0.845607,-0.328487 1.35695,-0.684524 C 14.732421,15.101746 15,14.842719 15,14.774857 15,14.755262 14.92239,14.598409 14.827533,14.426296 14.186056,13.26236 13.915205,12.013124 13.886435,10.085693 13.87516,9.330536 13.8535,9.183446 13.737111,9.071967 L 13.661976,9 H 11.463538 C 9.2863,9 9.264327,9.0006 9.184836,9.06112 9.140686,9.09474 9.093456,9.161236 9.079874,9.208904 9.066284,9.256574 9.044124,9.867502 9.030604,10.566525 9.004264,11.928547 8.990614,12.073527 8.8281805,12.715926 8.578163,13.70471 8.1836775,14.511018 7.2971065,15.845362 7.100141,16.141798 7,16.31968 7,16.37311 7,16.687262 8.0189125,17.999147 8.2635695,18 c 0.01743,5.9e-5 0.1282975,-0.06897 0.246377,-0.153403 z"/>
 <path style="fill:#8b9cbe" d="M 10,4 C 8.895431,4 8,4.8954305 8,6 8,7.1045695 8.895431,8 10,8 10.390297,8 10.655125,7.774948 11.1775,7.7125 11.699875,7.650052 11.892327,7.868077 12.5,8 13.328427,8 14,7.328427 14,6.5 14,5.671573 13.328427,5 12.5,5 11.436608,5.34453 11.003075,4.023244 10,4 Z"/>
</svg>
