<svg xmlns="http://www.w3.org/2000/svg" width="22" height="22" version="1.1">
 <path style="opacity:0.2" d="M 8.8779296,0.50319446 C 8.5586791,0.49011546 8.2322476,0.52393046 7.9082031,0.61061626 6.1802901,1.0728572 5.1473826,2.860209 5.6103516,4.5852257 c 0.1795355,0.668949 0.559667,1.235958 1.0546875,1.6484376 L 6.9863281,6.5002648 7.3134766,6.2404993 C 7.8672756,5.8009742 8.4950256,5.4681357 9.196289,5.2805382 9.88087,5.0974032 10.573668,5.0704127 11.257813,5.1662802 l 0.414062,0.05664 0.140625,-0.392578 C 12.024877,4.2333632 12.066344,3.5639037 11.88965,2.9055378 11.542423,1.6117749 10.448454,0.70754576 9.194337,0.53151426 9.089827,0.51684526 8.9843471,0.50755326 8.8779306,0.50319426 Z M 14.747071,2.5432336 c -0.233625,-0.00967 -0.473044,0.014643 -0.709961,0.078125 -1.119096,0.2998613 -1.840496,1.3591411 -1.754883,2.4785156 l 0.02539,0.332031 0.310547,0.118164 c 0.828215,0.316033 1.607085,0.8187051 2.277344,1.4843751 L 15.12793,7.2658898 15.4375,7.1565148 C 16.595955,6.7507223 17.275177,5.5095347 16.952149,4.3039757 16.677032,3.2772209 15.759446,2.5851499 14.747071,2.5432336 Z M 4.1904295,5.5149132 C 4.048612,5.5260932 3.9058657,5.5500582 3.7636719,5.5881552 2.5001123,5.9267252 1.7426004,7.2390893 2.0810547,8.5022178 2.4111962,9.7343229 3.6673245,10.478633 4.9003905,10.201437 l 0.3085941,-0.06836 0.082031,-0.3056641 C 5.5317941,8.9372703 5.9386331,8.1292378 6.4765626,7.4514368 l 0.198242,-0.25 -0.130859,-0.2919925 C 6.1325231,5.9966907 5.1831546,5.4366392 4.1904295,5.5149132 Z M 17.766515,13.752218 c -0.143521,-0.0068 -0.28866,-4.81e-4 -0.434571,0.01953 l -0.353515,0.04785 -0.08398,0.345703 c -0.236541,0.967409 -0.661154,1.84449 -1.240234,2.56836 l -0.225586,0.283203 0.183594,0.311523 c 0.527537,0.895127 1.606035,1.372487 2.657226,1.090821 1.263129,-0.338454 2.022238,-1.650227 1.683594,-2.914063 -0.273568,-1.020972 -1.181882,-1.705063 -2.186523,-1.75293 z m -10.8329209,3.024414 -0.322266,0.119141 c -1.137205,0.418957 -1.7993916,1.647916 -1.479492,2.841797 0.3384545,1.263128 1.6514795,2.02021 2.915039,1.681641 C 9.11514,21.13297 9.816335,20.153403 9.803711,19.093039 L 9.798811,18.744406 9.474593,18.614523 C 8.6324996,18.275272 7.8452241,17.73328 7.1708816,17.026632 Z m 7.0742189,2.40625 -0.381836,0.136719 c -0.148459,0.05293 -0.288721,0.10383 -0.429688,0.141602 -0.215451,0.05773 -0.432289,0.101868 -0.649414,0.132812 L 12.125977,19.653586 13.5,21.000265 Z"/>
 <path style="fill:#134f13" d="m 14.007813,18.683117 -0.381836,0.136719 c -0.148459,0.05293 -0.288721,0.10383 -0.429688,0.141602 -0.215451,0.05773 -0.432289,0.101868 -0.649414,0.132812 L 12.125977,19.15382 13.5,20.5005 Z"/>
 <path style="fill:#134f13" d="m 14.746846,2.0434481 c -0.233625,-0.00967 -0.472366,0.015146 -0.709284,0.078627 -1.119096,0.2998614 -1.840803,1.3590233 -1.75519,2.4783978 l 0.02539,0.331709 0.310413,0.117941 c 0.828216,0.316033 1.606657,0.819239 2.276916,1.4849091 L 15.127696,6.7659995 15.437292,6.657068 C 16.595746,6.2512758 17.275532,5.0099312 16.952504,3.8043722 16.677387,2.7776173 15.759221,2.0853645 14.746846,2.0434481 Z"/>
 <path style="fill:#134f13" d="m 17.766756,13.252202 c -0.14352,-0.0068 -0.288997,-3.58e-4 -0.434907,0.01966 l -0.353004,0.04833 -0.08436,0.345633 c -0.236542,0.967409 -0.660939,1.844622 -1.240019,2.568491 l -0.226053,0.282567 0.184283,0.312052 c 0.52915,0.894174 1.605755,1.37262 2.656947,1.090954 1.263128,-0.338454 2.021759,-1.650288 1.683115,-2.914124 -0.273568,-1.020972 -1.18136,-1.705686 -2.186002,-1.753553 z"/>
 <path style="fill:#134f13" d="M 6.9334536,16.276651 6.6115731,16.39623 c -1.137205,0.418957 -1.7998946,1.647349 -1.479995,2.84123 0.3384545,1.263129 1.6513835,2.020866 2.914943,1.682297 C 9.114786,20.633516 9.815973,19.654063 9.80335,18.593699 L 9.79845,18.244791 9.474931,18.114564 C 8.6328381,17.775313 7.8453301,17.233104 7.1709876,16.526457 Z"/>
 <path style="fill:#134f13" d="M 4.1905075,5.0151762 C 4.04869,5.0263562 3.9059846,5.0499712 3.7637908,5.0880702 2.5002312,5.4266402 1.7422212,6.7390658 2.0806755,8.0021943 2.410817,9.2342989 3.6675444,9.9788859 4.9006105,9.7016899 l 0.3087761,-0.0688 0.081903,-0.3055 C 5.5320681,8.4372488 5.9385031,7.6291743 6.4764326,6.9513733 L 6.6746391,6.7015678 6.5435936,6.4099918 C 6.1321711,5.4972382 5.1832326,4.9369022 4.1905075,5.0151762 Z"/>
 <path style="fill:#134f13" d="m 8.8780596,0.00319296 c -0.3192505,-0.013079 -0.645767,0.021251 -0.9698115,0.1079371 -1.727913,0.4622408 -2.760564,2.24946784 -2.297595,3.97448464 0.1795355,0.668949 0.559679,1.2353605 1.0546995,1.64784 l 0.3211345,0.2670451 0.326741,-0.2598491 c 0.553799,-0.439525 1.1814995,-0.7718435 1.8827629,-0.959441 0.684581,-0.183135 1.378005,-0.2110005 2.06215,-0.115133 l 0.414032,0.057567 0.140146,-0.393371 C 12.024695,3.7332932 12.065895,3.0641594 11.889199,2.4057933 11.541973,1.1120305 10.448507,0.20800766 9.19439,0.03197616 9.08988,0.01730716 8.9844761,0.00755216 8.8780596,0.00319296 Z"/>
 <path style="opacity:0.1;fill:#8b9cbe" d="m 8.8779296,0.00342926 c -0.3192505,-0.013079 -0.645682,0.020736 -0.9697265,0.1074219 C 6.3737566,0.52133706 5.3901146,1.9765578 5.5126956,3.5053827 5.6147696,2.1696375 6.5426161,0.97616476 7.9082031,0.61085116 c 0.3240445,-0.0866859 0.650476,-0.1205009 0.9697265,-0.1074219 0.1064165,0.00436 0.2118964,0.013652 0.3164064,0.028321 1.254117,0.1760315 2.348086,1.08026074 2.695313,2.37402354 0.05234,0.1950251 0.08042,0.3901613 0.0957,0.584961 0.02745,-0.3560728 0.0018,-0.721596 -0.0957,-1.084961 C 11.542422,1.1120108 10.448453,0.20778156 9.194336,0.03175006 9.089826,0.01708106 8.9843461,0.00778906 8.8779296,0.00342926 Z M 14.747071,2.0434684 c -0.233625,-0.00967 -0.473044,0.014643 -0.709961,0.078125 -1.119096,0.2998614 -1.840496,1.3591411 -1.754883,2.4785158 l 0.0059,0.078125 c 0.09822,-0.954289 0.771848,-1.794807 1.749023,-2.0566408 0.236918,-0.063482 0.476336,-0.087798 0.709961,-0.078125 1.012376,0.041917 1.929961,0.7339875 2.205078,1.7607423 0.03385,0.126309 0.05104,0.2528165 0.06348,0.378906 0.03336,-0.2866 0.01559,-0.5837995 -0.06348,-0.878906 C 16.677032,2.7774557 15.759446,2.0853848 14.747071,2.0434684 Z M 4.1904295,5.0151482 C 4.048612,5.0263282 3.9058657,5.0502932 3.7636719,5.0883902 2.6238683,5.3938002 1.9037543,6.4920968 2.0205078,7.6313593 2.1259293,6.6850993 2.7924923,5.8486172 3.7636719,5.5883902 3.9058657,5.5502952 4.048612,5.5263282 4.1904295,5.5151482 5.1735116,5.4376347 6.1125441,5.9872142 6.5302736,6.8842888 L 6.6748046,6.7016718 6.5439456,6.4096793 C 6.1325231,5.4969257 5.1831546,4.9368742 4.1904295,5.0151482 Z M 17.766515,13.252453 c -0.143521,-0.0068 -0.28866,-4.81e-4 -0.434571,0.01953 l -0.353515,0.04785 -0.08398,0.345703 c -0.236541,0.967409 -0.661154,1.84449 -1.240234,2.56836 l -0.225586,0.283203 0.168945,0.287109 0.05664,-0.07031 c 0.57908,-0.72387 1.003693,-1.600951 1.240234,-2.56836 l 0.08398,-0.345703 0.353515,-0.04785 c 0.145911,-0.02001 0.29105,-0.02637 0.434571,-0.01953 1.004641,0.04787 1.912955,0.731958 2.186523,1.75293 0.03317,0.123783 0.04789,0.247351 0.06055,0.371094 0.03184,-0.284925 0.01781,-0.57865 -0.06055,-0.871094 -0.273568,-1.020972 -1.181882,-1.705064 -2.186523,-1.75293 z m -10.8329209,3.024414 -0.322266,0.119141 c -1.016792,0.374595 -1.6481241,1.397253 -1.5429685,2.462891 0.1014055,-0.872891 0.686915,-1.647513 1.5429685,-1.962891 l 0.322266,-0.119141 0.2373045,0.25 c 0.6743425,0.706648 1.461618,1.24864 2.3037114,1.587891 l 0.318359,0.12793 c 0.0026,-0.05001 0.01135,-0.09897 0.01074,-0.149414 L 9.798809,18.244641 9.474591,18.114758 C 8.6324976,17.775507 7.8452221,17.233515 7.1708796,16.526867 Z m 7.0742189,2.40625 -0.381836,0.136719 c -0.148459,0.05293 -0.288721,0.10383 -0.429688,0.141602 -0.215451,0.05773 -0.432289,0.101868 -0.649414,0.132812 l -0.420898,0.05957 0.444336,0.435546 c 0.209261,-0.03074 0.418307,-0.07229 0.625976,-0.127929 0.140967,-0.03777 0.281229,-0.08867 0.429688,-0.141602 l 0.226562,-0.08105 z"/>
 <g style="opacity:0.2" transform="matrix(0.39745156,-0.10917634,0.10649682,0.40745164,-3.1706305,3.1070367)">
  <path transform="rotate(15,26.653467,29.784442)" d="m 26.080078,11.222656 c -1.129182,0.03488 -2.266168,0.199609 -3.394531,0.501953 -9.026904,2.418752 -14.0226678,12.778721 -11.332031,22.820313 1.300302,4.852795 4.228443,9.067138 8.193359,11.726562 3.96493,2.659518 8.668809,3.5361 13.03125,2.367188 4.362441,-1.168913 7.999545,-4.278779 10.103516,-8.564453 2.104005,-4.285587 2.532725,-9.401112 1.232421,-14.253907 C 41.559756,17.033919 33.984355,10.978519 26.080078,11.222656 Z"/>
 </g>
 <g style="fill:#00a000" transform="matrix(0.39745156,-0.10917634,0.10649682,0.40745164,-3.1706305,2.6070367)">
  <path style="fill:#35a535" transform="rotate(15,26.653467,29.784442)" d="m 26.080078,11.222656 c -1.129182,0.03488 -2.266168,0.199609 -3.394531,0.501953 -9.026904,2.418752 -14.0226678,12.778721 -11.332031,22.820313 1.300302,4.852795 4.228443,9.067138 8.193359,11.726562 3.96493,2.659518 8.668809,3.5361 13.03125,2.367188 4.362441,-1.168913 7.999545,-4.278779 10.103516,-8.564453 2.104005,-4.285587 2.532725,-9.401112 1.232421,-14.253907 C 41.559756,17.033919 33.984355,10.978519 26.080078,11.222656 Z"/>
 </g>
 <g style="fill:#00a000;stroke:#155715;stroke-width:1.5" transform="matrix(0.40426907,-0.11081107,0.10832357,0.41355256,-3.2366598,2.4192042)">
  <path style="fill:none;stroke:#155715;stroke-width:1.5" d="m 25.875,33.75 -1.542,-4.625 3.164,-2.587 3.615,2.626 -1.487,4.669 z"/>
  <path style="fill:none;stroke:#155715;stroke-width:1.5" d="m 27.501,41.551 c -3.968,-0.16 -5.543,-2.009 -5.543,-2.009 l 3.57,-4.163 4.465,0.168 3.132,4.12 c 0,0 -2.89,1.994 -5.624,1.884 z"/>
  <path style="fill:none;stroke:#155715;stroke-width:1.5" d="m 18.453,33.843 c -0.849,-2.968 0.172,-6.884 0.172,-6.884 l 4,2.167 1.493,4.629 -3.582,4.233 c 0,-10e-4 -1.465,-1.99 -2.083,-4.145 z"/>
  <path style="fill:none;stroke:#155715;stroke-width:1.5" d="m 19.458,25.125 c 0,0 0.5,-1.958 3.039,-3.822 2.237,-1.643 4.465,-1.72 4.465,-1.72 l -0.037,4.981 -3.521,2.75 z"/>
  <path style="fill:none;stroke:#155715;stroke-width:1.5" d="M 32.084,27.834 28.625,24.959 29,19.75 c 0,0 1.834,-0.042 3.959,1.667 2.228,1.791 3.362,4.983 3.362,4.983 z"/>
  <path style="fill:none;stroke:#155715;stroke-width:1.5" d="m 31.292,34.042 1.313,-4.464 4.187,-1.536 c 0,0 0.677,2.663 -0.042,5.667 -0.54,2.256 -2.084,4.361 -2.084,4.361 z"/>
 </g>
 <g style="opacity:0.2;fill:#8b9cbe" transform="matrix(0.39745156,-0.10917634,0.10649682,0.40745164,-3.1706305,2.6070367)">
  <path style="fill:#8b9cbe" transform="matrix(2.3474878,0.62900748,-0.61356972,2.2898735,7.3086973,-6.8943151)" d="M 11.359375,5.0039062 C 10.894748,5.0186195 10.427181,5.0873075 9.9628906,5.2148438 6.860338,6.067087 4.921153,9.2577637 5.0097656,12.753906 5.1089214,9.4575548 7.0088897,6.5262812 9.9628906,5.7148438 10.427181,5.5873075 10.894748,5.5186195 11.359375,5.5039062 c 3.25239,-0.1029831 6.369159,2.44993 7.337891,6.1562498 0.18031,0.689858 0.273412,1.392454 0.292968,2.089844 0.02324,-0.860373 -0.06942,-1.734546 -0.292968,-2.589844 C 17.728534,7.4538362 14.611765,4.9009231 11.359375,5.0039062 Z"/>
 </g>
</svg>
