<svg xmlns="http://www.w3.org/2000/svg" width="22" height="22" version="1.1">
 <path style="opacity:0.2" d="m 2.000001,19.5325 c 0.00175,1.4675 0.3535765,1.956847 4.825685,1.956846 1.2713615,0 2.818968,0.115194 3.633734,-0.411992 0.76933,-0.497788 0.491851,-1.228334 0.491851,-1.971806 C 10.951272,17.574692 9.497539,16.5 7.0257145,16.5 4.5538895,16.5 1.9981555,18 2.000001,19.5325 Z"/>
 <path style="fill:#9d7730" d="m 2.000001,19.0325 c 0.00175,1.4675 0.3535765,1.956847 4.825685,1.956846 1.2713615,0 2.818968,0.115194 3.633734,-0.411992 0.76933,-0.497788 0.491851,-1.228334 0.491851,-1.971806 C 10.951272,17.074692 9.497539,16 7.0257145,16 4.5538895,16 1.9981555,17.5 2.000001,19.0325 Z"/>
 <path style="opacity:0.2" d="m 11,1.5 c -5.5228475,0 -10,4.4771525 -10,10 0,1.988428 0.5804871,3.841255 1.5810547,5.398437 0.1111565,0.172993 0.2293561,0.336163 0.3535156,0.490235 8.8e-4,0.0011 0.00205,0.0019 0.00293,0.003 A 10,10 0 0 0 11,21.5 10,10 0 0 0 21,11.5 10,10 0 0 0 20.65625,8.966797 C 20.646175,8.899562 20.64042,8.8313115 20.62207,8.7666015 19.432884,4.5724885 15.575119,1.5 11,1.5 Z"/>
 <path style="fill:#ffa500" d="m 11,1.0000001 c 4.575119,0 8.432636,3.0724204 9.621823,7.2665334 0.246338,0.8688025 -0.302889,1.9803285 -0.302889,2.9280575 -10e-7,5.522847 -3.406906,8.248685 -8.929754,8.248685 -3.534419,0 -7.0297515,-0.276907 -8.8082549,-3.044788 C 1.5803575,14.841306 1.0000001,12.988428 1.0000001,11 1.0000001,5.4771525 5.4771525,1.0000001 11,1.0000001 Z"/>
 <ellipse style="fill:#17191e" cx="-13" cy="9.5" rx="1.5" ry="2.5" transform="scale(-1,1)"/>
 <path style="opacity:0.2;fill:#8b9cbe" d="M 11,1 C 5.4771525,1 1,5.4771525 1,11 1,11.06732 1.00649,11.133198 1.00781,11.200196 1.1667421,5.816389 5.5776965,1.5 11,1.5 c 4.575119,0 8.432884,3.0724885 9.62207,7.2666015 0.02491,0.087839 0.03684,0.180079 0.04687,0.2724615 C 20.694485,8.7689175 20.69051,8.507991 20.62207,8.2666015 19.432884,4.0724885 15.575119,1 11,1 Z"/>
 <path style="fill:#f27300" d="M 20.572482,8.134332 C 20.32207,14.078648 15.433742,18.493071 9.484158,18.5 6.9600185,18.496368 4.51234,17.911182 2.5440539,16.330946 4.37431,19.235682 7.5667325,20.998417 11,21 16.522847,21 21,16.522847 21,11 20.99735,10.029089 20.853348,9.063736 20.572482,8.134332 Z"/>
 <path style="opacity:0.2" d="M 20.572265,8.1347655 C 20.321852,14.079081 15.433959,18.493071 9.484375,18.5 6.9602355,18.49635 4.5122315,17.91129 2.5439453,16.331054 c 0.2315371,0.367465 0.4849465,0.71624 0.7578125,1.045899 6e-4,3.85e-4 0.00136,6e-4 0.00195,0.001 C 5.1253195,18.548622 7.275753,18.996821 9.484375,19 15.433959,18.99307 20.321852,14.579081 20.572265,8.6347655 20.834444,9.502331 20.972174,10.401146 20.992187,11.306641 20.99527,11.204553 21,11.102835 21,11 20.99735,10.029089 20.853131,9.064169 20.572265,8.1347655 Z"/>
 <path style="opacity:0.2" d="m 19.999999,19.5325 c -0.0017,1.4675 -0.353577,1.956847 -4.825685,1.956846 -1.271361,0 -2.818968,0.115194 -3.633734,-0.411992 -0.76933,-0.497788 -0.491851,-1.228333 -0.491852,-1.971806 0,-1.530856 1.453733,-2.605548 3.925558,-2.605548 2.471824,0 5.027558,1.5 5.025713,3.0325 z"/>
 <path style="fill:#9d7730" d="m 19.999999,19.0325 c -0.0017,1.4675 -0.353577,1.956847 -4.825685,1.956846 -1.271361,0 -2.818968,0.115194 -3.633734,-0.411992 -0.76933,-0.497788 -0.491851,-1.228333 -0.491852,-1.971806 0,-1.530856 1.453733,-2.605548 3.925558,-2.605548 2.471824,0 5.027558,1.5 5.025713,3.0325 z"/>
 <ellipse style="fill:#17191e" cx="-8.5" cy="9.5" rx="1.5" ry="2.5" transform="scale(-1,1)"/>
 <path style="opacity:0.2" d="M 8.5,7.0000007 A 1.5,2.5 0 0 0 7,9.500001 1.5,2.5 0 0 0 7.00879,9.757814 1.5,2.5 0 0 1 8.5,7.5000007 1.5,2.5 0 0 1 9.991211,9.742189 1.5,2.5 0 0 0 10,9.500001 1.5,2.5 0 0 0 8.5,7.0000007 Z m 4.5,0 A 1.5,2.5 0 0 0 11.5,9.500001 1.5,2.5 0 0 0 11.5088,9.757814 1.5,2.5 0 0 1 13,7.5000007 1.5,2.5 0 0 1 14.491211,9.742189 1.5,2.5 0 0 0 14.5,9.500001 1.5,2.5 0 0 0 13,7.0000007 Z"/>
 <path style="opacity:0.2" d="m 19.511719,17.853515 a 11.111111,11.111111 0 0 1 -4.738281,3.139649 c 0.133253,-0.0016 0.271748,-0.0039 0.40039,-0.0039 4.472108,0 4.824422,-0.489532 4.826172,-1.957032 4.87e-4,-0.404597 -0.18084,-0.805649 -0.488281,-1.178711 z"/>
</svg>
