<svg xmlns="http://www.w3.org/2000/svg" width="22" height="22" version="1">
 <rect style="fill:#636363" width="15.714" height="3.014" x="7.47" y=".47" transform="matrix(0.70773135,0.70648166,-0.70773135,0.70648166,0,0)"/>
 <path style="opacity:0.2" d="m 11.920101,1.5036986 c -0.255549,0.021571 -0.385683,0.1497877 -0.63086,0.3945313 l -0.851562,0.8515625 c -0.384658,0.3010737 -0.437499,0.4502687 -0.4375,0.9042969 v 0.4414062 2.3535157 0.4414062 l 0.0059,0.00586 -5.9472647,5.9394546 -2.4140626,0.179687 c -0.65989644,-0.0053 -0.5859381,0.0963 -0.5859374,0.705078 l 0.9453124,1.664063 2.5644532,2.429687 2.3417968,2.46875 1.8496094,1.154297 c 0.6663844,0.04211 0.6675074,0.03899 0.7187504,-0.589844 l 0.179687,-2.419922 5.9570305,-5.945312 h 2.517578 c 0.501651,0.0685 0.623044,-0.07285 0.958985,-0.408203 l 0.207031,-0.207031 c 0.07452,-0.06368 0.152336,-0.138832 0.248047,-0.234376 l 1.037109,-1.033203 C 21.056545,10.24773 20.998267,9.9834858 20.998267,9.4294808 V 5.6951049 L 20.480648,4.3415893 18.168148,2.0349486 16.791195,1.5173705 H 16.334163 12.68182 c -0.122382,-0.016282 -0.221458,-0.020862 -0.306641,-0.013672 -0.01565,0.00132 -0.02431,0.011542 -0.03906,0.013672 h -0.109376 c -0.12238,-0.016282 -0.221457,-0.020862 -0.30664,-0.013672 z M 6.2618983,1.8728393 1.5001795,6.6247924 C 1.1590501,6.9653197 0.93334566,7.0964403 1.0177576,7.6013549 l 0.027344,4.2558601 c 0.014813,0.828287 0.027497,0.648156 0.5761719,0.105469 L 9.0197105,4.6247924 Z M 17.904476,13.493934 10.554867,20.882605 c -0.543648,0.547707 -0.7242835,0.559433 0.105468,0.574219 l 4.263672,0.02539 c 0.505807,0.08426 0.635434,-0.139942 0.976563,-0.480469 l 4.761718,-4.753906 z"/>
 <path style="fill:#138f32" d="m 11.920101,1.003906 c -0.255549,0.021571 -0.385683,0.1497877 -0.63086,0.3945313 l -0.851562,0.8515625 c -0.384658,0.3010737 -0.437499,0.4502687 -0.4375,0.9042969 v 0.4414062 2.3535157 0.4414062 l 0.0059,0.00586 -5.9472647,5.9394542 -2.4140626,0.179687 c -0.65989644,-0.0053 -0.5859381,0.0963 -0.5859374,0.705078 l 0.9453124,1.664063 2.5644532,2.429687 2.3417968,2.46875 1.8496094,1.154297 c 0.6663844,0.04211 0.6675074,0.03899 0.7187504,-0.589844 l 0.179687,-2.419922 5.9570305,-5.945312 h 2.517578 c 0.501651,0.0685 0.623044,-0.07285 0.958985,-0.408203 l 0.207031,-0.207031 c 0.07452,-0.06368 0.152336,-0.138832 0.248047,-0.234376 L 20.584204,10.09961 C 21.056545,9.7479368 20.998267,9.4836928 20.998267,8.9296879 V 5.1953123 L 20.480648,3.8417967 18.168148,1.535156 16.791195,1.0175779 H 16.334163 12.68182 c -0.122382,-0.016282 -0.221458,-0.0208623 -0.306641,-0.013672 -0.01565,0.00132 -0.02431,0.011542 -0.03906,0.013672 h -0.109376 c -0.12238,-0.016282 -0.221457,-0.020862 -0.30664,-0.013672 z M 6.2618983,1.3730467 1.5001795,6.1249998 C 1.1590501,6.4655271 0.93334566,6.5966477 1.0177576,7.1015623 l 0.027344,4.2558597 c 0.014813,0.828287 0.027497,0.648156 0.5761719,0.105469 L 9.0197105,4.1249998 Z M 17.904476,12.994141 10.554867,20.382812 c -0.543648,0.547707 -0.7242835,0.559433 0.105468,0.574219 l 4.263672,0.02539 c 0.505807,0.08426 0.635434,-0.139942 0.976563,-0.480469 l 4.761718,-4.753906 z"/>
 <path style="opacity:0.2;fill:#8b9cbe" d="m 11.920101,1.003906 c -0.255549,0.021571 -0.385683,0.1497877 -0.63086,0.3945313 l -0.851562,0.8515625 c -0.384658,0.3010737 -0.437499,0.4502687 -0.4375,0.9042969 v 0.4414062 0.058594 c 1e-6,-0.4540284 0.05284,-0.6032234 0.4375,-0.9042971 l 0.851562,-0.8515625 c 0.245177,-0.2447436 0.375311,-0.3729603 0.63086,-0.3945313 0.08518,-0.00719 0.184261,-0.00261 0.30664,0.013672 h 0.109376 c 0.01475,-0.00213 0.02341,-0.012352 0.03906,-0.013672 0.08518,-0.00719 0.184259,-0.00261 0.306641,0.013672 h 3.652343 0.457032 l 1.376953,0.5175781 2.3125,2.3066407 0.517578,1.3535156 v -0.5 L 20.480648,3.8417967 18.168148,1.535156 16.791195,1.0175779 H 16.334163 12.68182 c -0.122382,-0.016282 -0.221458,-0.0208622 -0.306641,-0.013672 -0.01565,0.00132 -0.02431,0.011542 -0.03906,0.013672 H 12.226741 C 12.104362,1.0012959 12.005284,0.99671583 11.920101,1.003906 Z M 6.2618983,1.3730467 1.5001795,6.1249998 C 1.1590501,6.4655271 0.93334566,6.5966477 1.0177576,7.1015623 l 0.00195,0.1582031 C 1.0716362,7.0110806 1.2530194,6.8717236 1.5001795,6.6249998 l 4.7617188,-4.7519531 2.5058593,2.5019531 0.2519529,-0.25 z M 10.000179,6.4023436 4.0587733,12.335938 1.6447107,12.515625 c -0.65989634,-0.0053 -0.5859381,0.0963 -0.5859374,0.705078 l 0.019531,0.0332 c 0.034022,-0.185445 0.1472746,-0.241647 0.5664062,-0.238281 l 2.4140628,-0.179684 5.9472647,-5.9394538 -0.0059,-0.00586 V 6.4492186 Z m 10.998047,2.5273437 v 0.3847655 c 0.0028,-0.113136 0,-0.23795 0,-0.3847655 z m -3.09375,4.0644537 -7.349609,7.388671 c -0.490359,0.49402 -0.6437245,0.54894 -0.06836,0.566407 0.02619,-0.02564 0.04012,-0.03795 0.06836,-0.06641 l 7.349609,-7.388671 2.507812,2.503906 0.25,-0.25 z"/>
 <path style="opacity:0.2" d="m 16.612265,1.5175869 4.38563,4.3778175 V 4.6083283 c 0,0 -4.12e-4,-0.7825417 -0.509753,-1.2909827 L 19.305555,2.1367118 C 18.685822,1.5180729 17.805594,1.5175869 17.805594,1.5175869 Z M 6.8439606,1.5810619 C 6.5402283,1.5668637 6.2638974,1.870117 6.2638974,1.870117 L 5.7424263,2.391588 8.4991917,5.1434706 9.0216395,4.6229765 c 0,0 0.555997,-0.4730356 0.137691,-0.8906025 L 7.1476638,1.7246129 C 7.0493283,1.6264514 6.9452045,1.5857946 6.8439606,1.5810619 Z M 18.484287,13.201859 c -0.309736,-0.02019 -0.576157,0.291008 -0.576157,0.291008 l -0.522448,0.521471 2.757742,2.752859 0.522448,-0.521471 c 0,0 0.538845,-0.489167 0.145504,-0.881814 l -2.011667,-2.00776 C 18.695132,13.25176 18.587533,13.208589 18.484287,13.201859 Z M 1.0589523,13.525092 v 1.278288 c 0,0 0.1908973,0.981852 0.7206847,1.510704 l 4.4354337,4.427621 C 6.9107309,21.436137 7.8331933,21.437 7.8331933,21.437 h 1.1093466 l 0.020509,-0.02148 z"/>
 <path style="fill:#ff6e23" d="m 16.612265,1.0171279 4.38563,4.3778175 V 4.1078693 c 0,0 -4.12e-4,-0.7825417 -0.509753,-1.2909827 L 19.305555,1.6362528 C 18.685822,1.0176139 17.805594,1.0171279 17.805594,1.0171279 Z M 6.8439606,1.0806029 C 6.5402283,1.0664047 6.2638974,1.369658 6.2638974,1.369658 L 5.7424263,1.891129 8.4991917,4.6430116 9.0216395,4.1225175 c 0,0 0.555997,-0.4730356 0.137691,-0.8906025 L 7.1476638,1.2241539 C 7.0493283,1.1259924 6.9452045,1.0853356 6.8439606,1.0806029 Z M 18.484287,12.7014 c -0.309736,-0.02019 -0.576157,0.291008 -0.576157,0.291008 l -0.522448,0.521471 2.757742,2.752859 0.522448,-0.521471 c 0,0 0.538845,-0.489167 0.145504,-0.881814 l -2.011667,-2.00776 C 18.695132,12.751301 18.587533,12.70813 18.484287,12.7014 Z M 1.0589523,13.024633 v 1.278288 c 0,0 0.1908973,0.981852 0.7206847,1.510704 l 4.4354337,4.427621 c 0.6956602,0.694432 1.6181226,0.695295 1.6181226,0.695295 h 1.1093466 l 0.020509,-0.02148 z"/>
 <path style="opacity:0.2" d="M 17.528846,4.0746637 C 17.004805,3.5515483 16.260287,3.5521359 16.260287,3.5521359 l -0.857739,10e-8 -0.150898,-7.2e-4 -3.632395,7.2e-4 2.602819,0.9001885 h 1.770351 l 2.065649,2.0620018 -7e-4,1.7665033 0.902503,2.5989444 V 7.2530724 7.0844217 6.1647737 c 0,0 3.8e-4,-0.6612491 -0.430313,-1.0911821 z"/>
 <path style="fill:#ffd82b" d="M 17.528846,3.5745171 C 17.004805,3.0514016 16.260287,3.0519892 16.260287,3.0519892 l -0.857739,10e-8 -0.150898,-7.2e-4 -3.632395,7.2e-4 2.602819,0.9001884 h 1.770351 l 2.065649,2.0620019 -7e-4,1.7665033 0.902503,2.5989451 V 6.7529257 6.584275 5.664627 c 0,0 3.8e-4,-0.6612491 -0.430313,-1.0911821 z"/>
 <path style="opacity:0.2;fill:#8b9cbe" d="m 15.251948,3.0512556 -3.63272,9.75e-4 1.444299,0.4999872 2.188421,-9.75e-4 0.150387,9.75e-4 h 0.858376 c 0,0 0.744482,-6.7e-4 1.268523,0.5224479 l 0.999974,0.9989974 c 0.430694,0.429933 0.430653,1.0907926 0.430653,1.0907926 V 5.6644685 c 0,0 4.1e-5,-0.6608596 -0.430653,-1.0907926 L 17.529234,3.5746782 C 17.005193,3.0515642 16.260711,3.0522321 16.260711,3.0522321 h -0.858376 z"/>
 <path style="opacity:0.2;fill:#8b9cbe" d="m 16.611507,1.0175779 0.501953,0.5 h 0.691407 c 0,0 0.880266,5.017e-4 1.5,0.6191407 L 20.48846,3.316406 c 0.509341,0.5084411 0.509766,1.2910157 0.509766,1.2910157 v -0.5 c 0,0 -4.25e-4,-0.7825747 -0.509766,-1.2910157 L 19.304867,1.6367186 c -0.619734,-0.618639 -1.5,-0.6191407 -1.5,-0.6191407 z m -9.7675775,0.0625 C 6.5401972,1.0658797 6.2638514,1.3691404 6.2638514,1.3691404 l -0.5214844,0.5214844 0.25,0.25 0.2714844,-0.2695312 c 0,-1e-7 0.2763458,-0.3032608 0.5800781,-0.2890626 0.1012439,0.00473 0.206352,0.044417 0.3046875,0.1425782 l 2.0097655,2.0078125 c 0.03736,0.037299 0.05912,0.075474 0.08203,0.1132812 0.09192,-0.172146 0.132892,-0.3987383 -0.08203,-0.6132812 L 7.148617,1.2246092 C 7.0502815,1.1264477 6.9451734,1.0848106 6.8439295,1.0800779 Z M 18.484554,12.701172 c -0.309736,-0.02019 -0.576172,0.291015 -0.576172,0.291016 l -0.523437,0.521484 0.25,0.25 0.273437,-0.271484 c 0,0 0.266436,-0.311206 0.576172,-0.291016 0.103246,0.0067 0.209876,0.04991 0.314453,0.154297 l 2.011719,2.007812 c 0.03201,0.03196 0.04986,0.06474 0.07031,0.09766 0.08961,-0.172922 0.130751,-0.396949 -0.07031,-0.597657 L 18.799007,12.855469 C 18.69443,12.751077 18.5878,12.707902 18.484554,12.701172 Z M 1.0587733,13.025391 v 0.5 L 8.4845545,20.9375 h 0.4570312 l 0.021484,-0.02148 z"/>
</svg>
