<svg xmlns="http://www.w3.org/2000/svg" width="22" height="22" version="1.1">
 <circle style="opacity:0.2" cx="11" cy="11.5" r="10"/>
 <circle style="fill:#17191e" cx="11" cy="11" r="10"/>
 <path style="opacity:0.1;fill:#8b9cbe" d="M 11,1 A 10,10 0 0 0 1,11 10,10 0 0 0 1.0098,11.293 10,10 0 0 1 11,1.5 10,10 0 0 1 20.99,11.207 10,10 0 0 0 21,11 10,10 0 0 0 11,1 Z"/>
 <path style="opacity:0.2" d="M 6.5957031,5.0255705 C 6.0522871,5.0354505 5.5886852,5.2517964 5.1835938,5.6173674 4.8476633,5.9137759 4.7894179,6.1321935 5.2636719,6.3693205 6.0639754,6.7744125 6.8344621,7.2492704 7.6347656,7.6642424 8.4745906,8.0989754 9.264837,7.9892525 10.005859,7.4161955 10.480113,7.0506245 10.50102,6.7847553 9.908203,6.4982268 9.177061,6.1524163 8.4750529,5.7274237 7.7636719,5.3322111 7.3981014,5.1247261 7.0106756,5.00581 6.5957031,5.0255705 Z m 9.0468749,0.5214844 c -0.428557,-0.03211 -0.883396,0.075143 -1.33789,0.3320312 -1.264678,0.7113815 -2.26485,1.2999947 -3.509766,2.0410157 -0.237126,0.1383245 -0.642464,0.1877372 -0.652344,0.5039062 -0.0099,0.3853315 0.395457,0.5328633 0.652344,0.730469 0.711381,0.37545 1.42189,0.356151 2.09375,-0.03906 1.383241,-0.7904228 2.503363,-1.4675051 3.896484,-2.2480471 0.523656,-0.2865285 0.39475,-0.514024 0.03906,-0.8203125 -0.350751,-0.296407 -0.753083,-0.4678893 -1.181641,-0.5 z M 4.3242188,8.2658049 C 4.151796,8.2984149 4.0826046,8.4951031 4.0332031,8.7853361 3.8751184,9.694323 4.2707003,10.5234 5.1796875,11.047055 c 1.254797,0.721262 2.5379425,1.413849 3.8125,2.105469 0.2470075,0.138324 0.4948365,0.462771 0.7714845,0.304687 0.32605,-0.187726 0.247588,-0.61145 0.287109,-0.9375 C 10.011261,11.709527 9.634866,11.11598 8.953125,10.730649 7.560004,9.940225 6.148866,9.200874 4.765625,8.4005705 4.5692545,8.285712 4.4276724,8.2462369 4.3242188,8.2658049 Z M 18.658203,8.5900237 c -0.09853,-0.00926 -0.226049,0.037087 -0.396484,0.1445312 -0.760783,0.4841351 -1.561368,0.8987921 -2.332031,1.3730471 -0.800303,0.484134 -1.10673,1.223597 -0.998047,2.152344 0.06916,0.592818 0.286548,0.752289 0.839843,0.386718 0.681741,-0.454493 1.392135,-0.841001 2.103516,-1.246093 0.365571,-0.207486 0.661769,-0.474387 0.859375,-0.830079 0.266768,-0.484133 0.317553,-0.987947 0.21875,-1.521484 -0.0494,-0.2778835 -0.1307,-0.4435463 -0.294922,-0.4589843 z M 13.597656,11.50018 c -0.228262,0.0047 -0.453817,0.186057 -0.660156,0.283203 -0.632773,0.438406 -0.94667,1.066378 -0.9375,1.853516 0.0092,1.604164 0.06387,3.217902 0.05469,4.832031 0,0.607789 0.248836,0.59692 0.652343,0.4375 C 13.504875,18.577626 13.99083,17.831531 14,16.785336 c 0,-1.464671 -0.02777,-2.927906 -0.06445,-4.392578 -0.0092,-0.278986 0.136278,-0.668705 -0.111328,-0.828125 -0.07566,-0.04733 -0.150475,-0.06601 -0.226563,-0.06445 z m -5.2343748,2.503906 c -0.273006,-0.03254 -0.3910743,0.141967 -0.3574218,0.613282 0.053844,0.769109 0.042969,1.54925 0.042969,2.318359 0,0.403313 0.082661,0.767811 0.2890625,1.105469 0.2602455,0.450211 0.636869,0.723749 1.1035151,0.892578 0.385883,0.140689 0.583563,0.08266 0.556641,-0.423828 -0.04487,-0.853522 -0.02777,-1.714837 -0.05469,-2.56836 C 9.916437,15.041168 9.468237,14.439401 8.6875,14.101742 8.5618645,14.047812 8.4542842,14.014922 8.3632812,14.004082 Z"/>
 <path style="fill:#8b9cbe" d="M 6.5957031,4.5253906 C 6.0522871,4.5352706 5.5886852,4.7516165 5.1835938,5.1171875 4.8476633,5.413596 4.7894179,5.6320136 5.2636719,5.8691406 6.0639754,6.2742326 6.8344621,6.7490905 7.6347656,7.1640625 8.4745906,7.5987955 9.264837,7.4890726 10.005859,6.9160156 10.480113,6.5504446 10.50102,6.2845754 9.908203,5.9980469 9.177061,5.6522364 8.4750529,5.2272438 7.7636719,4.8320312 7.3981014,4.6245462 7.0106756,4.5056301 6.5957031,4.5253906 Z M 15.642578,5.046875 c -0.428557,-0.03211 -0.883396,0.075143 -1.33789,0.3320312 -1.264678,0.7113815 -2.26485,1.2999947 -3.509766,2.0410157 -0.237126,0.1383245 -0.642464,0.1877372 -0.652344,0.5039062 -0.0099,0.3853315 0.395457,0.5328633 0.652344,0.7304688 0.711381,0.3754501 1.42189,0.3561511 2.09375,-0.039063 1.383241,-0.7904226 2.503363,-1.4675049 3.896484,-2.2480469 0.523656,-0.2865285 0.39475,-0.514024 0.03906,-0.8203125 -0.350751,-0.296407 -0.753083,-0.4678893 -1.181641,-0.5 z M 4.3242188,7.765625 C 4.151796,7.798235 4.0826046,7.9949232 4.0332031,8.2851562 3.8751184,9.194143 4.2707003,10.02322 5.1796875,10.546875 c 1.254797,0.721262 2.5379425,1.413849 3.8125,2.105469 0.2470075,0.138324 0.4948365,0.462771 0.7714845,0.304687 0.32605,-0.187726 0.247588,-0.61145 0.287109,-0.9375 C 10.011261,11.209347 9.634866,10.6158 8.953125,10.230469 7.560004,9.440045 6.148866,8.7006941 4.765625,7.9003906 4.5692545,7.7855321 4.4276724,7.746057 4.3242188,7.765625 Z M 18.658203,8.0898438 c -0.09853,-0.00926 -0.226049,0.037087 -0.396484,0.1445312 -0.760783,0.4841345 -1.561368,0.898792 -2.332031,1.373047 -0.800303,0.484134 -1.10673,1.223597 -0.998047,2.152344 0.06916,0.592818 0.286548,0.752289 0.839843,0.386718 0.681741,-0.454493 1.392135,-0.841001 2.103516,-1.246093 0.365571,-0.207486 0.661769,-0.474387 0.859375,-0.830079 0.266768,-0.484133 0.317553,-0.987947 0.21875,-1.5214839 -0.0494,-0.2778835 -0.1307,-0.4435463 -0.294922,-0.4589843 z M 13.597656,11 c -0.228262,0.0047 -0.453817,0.186057 -0.660156,0.283203 -0.632773,0.438406 -0.94667,1.066378 -0.9375,1.853516 0.0092,1.604164 0.06387,3.217902 0.05469,4.832031 0,0.607789 0.248836,0.59692 0.652343,0.4375 C 13.504875,18.077446 13.99083,17.331351 14,16.285156 14,14.820485 13.97223,13.35725 13.93555,11.892578 13.92635,11.613592 14.071828,11.223873 13.824222,11.064453 13.748559,11.017123 13.673744,10.99844 13.597656,11 Z m -5.2343748,2.503906 c -0.273006,-0.03254 -0.3910743,0.141967 -0.3574218,0.613282 0.053844,0.769109 0.042969,1.54925 0.042969,2.318359 0,0.403313 0.082661,0.767811 0.2890625,1.105469 0.2602455,0.450211 0.636869,0.723749 1.1035151,0.892578 0.385883,0.140689 0.583563,0.08266 0.556641,-0.423828 -0.04487,-0.853522 -0.02777,-1.714837 -0.05469,-2.56836 -0.02692,-0.900418 -0.475122,-1.502185 -1.2558587,-1.839844 -0.1256355,-0.05393 -0.2332158,-0.08682 -0.3242188,-0.09766 z"/>
</svg>
