<svg xmlns="http://www.w3.org/2000/svg" width="22" height="22" version="1">
 <rect style="fill:#1159d4" width="20" height="20" x="1" y="1" rx="1" ry="1"/>
 <path style="fill:none;stroke:#1159d4;stroke-width:2;stroke-linecap:square" d="M 2.5,9 H 6 l 2,5.85 2.5,-7.35 1.75,4 L 14,7 l 2,6 h 3"/>
 <path style="opacity:0.2" d="M 3.7998045,3.4999999 C 3.3566045,3.4999999 3,3.8566046 3,4.2998045 V 8.5 h 3.714844 l 1.283203,3.751953 2.384766,-7.013672 1.8125,4.143555 L 14.072266,4.5546875 16.720703,12.5 H 19 V 4.2998045 C 19,3.8566046 18.643395,3.4999999 18.200195,3.4999999 Z m 10.1279305,6.9443361 -1.623047,4.174805 -1.6875,-3.858399 -2.615235,7.6875 L 5.285156,10.5 H 3 v 8.200195 C 3,19.143395 3.3566045,19.5 3.7998045,19.5 H 18.200195 C 18.643395,19.5 19,19.143395 19,18.700195 V 14.5 h -3.720703 z"/>
 <path style="opacity:0.1;fill:#8b9cbe" d="M 2,1 C 1.446,1 1,1.446 1,2 v 0.5 c 0,-0.554 0.446,-1 1,-1 h 18 c 0.554,0 1,0.446 1,1 V 2 C 21,1.446 20.554,1 20,1 Z"/>
 <path style="opacity:0.2" d="m 2,21.5 c -0.554,0 -1,-0.446 -1,-1 V 20 c 0,0.554 0.446,1 1,1 h 18 c 0.554,0 1,-0.446 1,-1 v 0.5 c 0,0.554 -0.446,1 -1,1 z"/>
 <path style="fill:#39dcff" d="M 3.7998045,2.9999999 C 3.3566045,2.9999999 3,3.3566046 3,3.7998046 V 8 h 3.714844 l 1.283203,3.751953 2.384766,-7.013672 1.8125,4.143555 L 14.072266,4.0546875 16.720703,12 H 19 V 3.7998046 c 0,-0.4432 -0.356605,-0.7998047 -0.799805,-0.7998047 z m 10.1279305,6.9443361 -1.623047,4.174805 -1.6875,-3.858399 -2.615235,7.6875 L 5.285156,10 H 3 v 8.200195 C 3,18.643395 3.3566045,19 3.7998045,19 H 18.200195 C 18.643395,19 19,18.643395 19,18.200195 V 14 h -3.720703 z"/>
 <path style="opacity:0.2;fill:#8b9cbe" d="M 3.7998047,3 C 3.3566047,3 3,3.3566047 3,3.7998047 V 4.2998045 C 3,3.8566048 3.3566047,3.5 3.7998047,3.5 H 18.200195 C 18.643395,3.5 19,3.8566048 19,4.2998045 V 3.7998047 C 19,3.3566047 18.643395,3 18.200195,3 Z m 10.1279303,6.944336 -1.623047,4.174805 -1.6875,-3.858399 -2.615235,7.6875 L 5.285156,10 H 3 v 0.5 h 2.285156 l 2.716797,7.948242 2.615235,-7.6875 1.6875,3.858399 1.623047,-4.174805 L 15.279297,14.5 H 19 V 14 h -3.720703 z"/>
</svg>
