<svg xmlns="http://www.w3.org/2000/svg" width="22" height="22" version="1.1">
 <circle style="opacity:0.2" cx="11" cy="11.5" r="10"/>
 <circle style="fill:#17191e" cx="11" cy="11" r="10"/>
 <path style="opacity:0.1;fill:#8b9cbe" d="M 11,1 A 10,10 0 0 0 1,11 10,10 0 0 0 1.01075,11.291 10,10 0 0 1 11,1.5 10,10 0 0 1 20.9895,11.209 10,10 0 0 0 21,11 10,10 0 0 0 11,1 Z"/>
 <path style="fill:none;stroke:#8b9cbe;stroke-width:3.00049019;stroke-linecap:round;stroke-linejoin:round" d="M 13.751135,15.766228 A 5.5037947,5.5035563 0 0 1 6.7851455,14.540078 5.5037947,5.5035563 0 0 1 6.7789732,7.4672987 5.5037947,5.5035563 0 0 1 13.742812,6.2289935"/>
 <circle style="opacity:0.2" cx="11" cy="11.5" r="2"/>
 <circle style="fill:#8b9cbe" cx="11" cy="11" r="2"/>
 <path style="opacity:0.2;fill:none;stroke:#000000;stroke-width:3.00049019;stroke-linecap:round;stroke-linejoin:round" d="M 13.751135,16.266229 A 5.5037947,5.5035563 0 0 1 6.7851455,15.040079 5.5037947,5.5035563 0 0 1 6.7789732,7.9672997 5.5037947,5.5035563 0 0 1 13.742812,6.7289944"/>
 <path style="fill:none;stroke:#8b9cbe;stroke-width:3.00049019;stroke-linecap:round;stroke-linejoin:round" d="M 13.751135,15.766228 A 5.5037947,5.5035563 0 0 1 6.7851455,14.540078 5.5037947,5.5035563 0 0 1 6.7789732,7.4672987 5.5037947,5.5035563 0 0 1 13.742812,6.2289935"/>
</svg>
