<svg xmlns="http://www.w3.org/2000/svg" width="22" height="22" version="1.1">
 <path style="opacity:0.2;fill-rule:evenodd" d="m 15.210736,19.5 c 0.426602,-4.2e-5 0.77242,-0.342272 0.772463,-0.764447 0,-3.468644 1.147391,-5.781894 1.811466,-6.795053 0.376294,-0.574101 0.663786,-0.877697 1.11645,-1.092921 0.452665,-0.215224 1.147898,-0.34863 2.31739,-0.34863 0.426602,-4.2e-5 0.772421,-0.342273 0.772463,-0.764448 l 0,-6.470053 C 22.000925,2.842273 21.655107,2.500042 21.228505,2.5 17.016158,2.5 13.193576,4.346001 11.098224,7.542816 9.0405161,10.682199 8.5009681,14.49069 8.5009681,18.735553 c 4.3e-5,0.422175 0.345861,0.764405 0.772463,0.764447 z"/>
 <path style="opacity:0.2" d="m 15.220232,19.5 c 0.576088,-2.54e-4 0.953485,-0.606791 0.702091,-1.128373 L 8.9886251,2.942605 C 8.8579931,2.671726 8.5849901,2.499809 8.2857721,2.5 l -6.504828,0 c -0.575558,5.28e-4 -0.95269097,0.60623 -0.702091,1.127606 l 7.434088,15.42979 c 0.130513,0.27063 0.403149,0.442501 0.702092,0.442604 z"/>
 <path style="fill:#115ccc;fill-rule:evenodd" d="m 15.210736,19 c 0.426602,-4.2e-5 0.77242,-0.342272 0.772463,-0.764447 0,-3.468644 1.147391,-5.781894 1.811466,-6.795053 0.376294,-0.574101 0.663786,-0.877697 1.11645,-1.092921 0.452665,-0.215224 1.147898,-0.34863 2.31739,-0.34863 0.426602,-4.2e-5 0.772421,-0.342273 0.772463,-0.764448 l 0,-6.470053 C 22.000925,2.342273 21.655107,2.000042 21.228505,2 17.016158,2 13.193576,3.846001 11.098224,7.042816 9.0405161,10.182199 8.5009681,13.99069 8.5009681,18.235553 8.5010111,18.657728 8.8468291,18.999958 9.2734311,19 Z"/>
 <path style="opacity:0.1;fill:#8b9cbe;fill-rule:evenodd" d="M 21.228516,2 C 17.016169,2 13.193008,3.8461538 11.097656,7.0429688 9.0399481,10.182352 8.5000001,13.991465 8.5000001,18.236328 c 1.4e-6,0.01386 0.00708,0.02539 0.00781,0.03906 C 8.5471741,14.217195 9.1153541,10.567307 11.097656,7.5429688 13.193008,4.3461538 17.016169,2.5 21.228516,2.5 21.655118,2.500042 21.999957,2.8414969 22,3.2636719 l 0,-0.5 C 21.999957,2.3414969 21.655118,2.000042 21.228516,2 Z"/>
 <path style="fill:#3387f5" d="m 15.220232,19 c 0.576088,-2.54e-4 0.953485,-0.606791 0.702091,-1.128373 L 8.9886251,2.442605 C 8.8579931,2.171726 8.5849901,1.999809 8.2857721,2 l -6.504828,0 c -0.575558,5.28e-4 -0.95269097,0.60623 -0.702091,1.127606 l 7.434088,15.42979 c 0.130513,0.27063 0.403149,0.442501 0.702092,0.442604 z"/>
 <path style="opacity:0.2;fill:#8b9cbe" d="M 1.7812501,2 C 1.2292446,2.0005064 0.86487893,2.5569476 1.0566407,3.0625 1.1530277,2.7520115 1.4168702,2.5003343 1.7812501,2.5 l 6.5039062,0 c 0.2992181,-1.91e-4 0.572493,0.1724804 0.703125,0.4433594 L 15.921875,18.371094 c 0.01044,0.02167 0.01318,0.04449 0.02148,0.06641 0.05592,-0.180182 0.07081,-0.374922 -0.02148,-0.566406 L 8.9882813,2.4433594 C 8.8576493,2.1724804 8.5843744,1.999809 8.2851563,2 L 1.7812501,2 Z"/>
</svg>
