<svg xmlns="http://www.w3.org/2000/svg" width="22" height="22" version="1">
 <rect style="opacity:0.2" width="20" height="20" x="1" y="1.5" rx="6" ry="6"/>
 <rect style="fill:#653d32" width="20" height="20" x="1" y="1" rx="6" ry="6"/>
 <path style="opacity:0.2" d="m 7,3.5 h 8 c 2.250594,0 4,1.7494055 4,4 v 8 c 0,2.250594 -1.749406,4 -4,4 H 7 c -2.2505945,0 -4,-1.749406 -4,-4 v -8 c 0,-2.2505945 1.7494055,-4 4,-4 z"/>
 <path style="opacity:0.1;fill:#8b9cbe" d="M 7,1 C 3.676,1 1,3.676 1,7 v 0.5 c 0,-3.324 2.676,-6 6,-6 h 8 c 3.324,0 6,2.676 6,6 V 7 C 21,3.676 18.324,1 15,1 Z"/>
 <path style="fill:#346f8a" d="m 7,3 h 8 c 2.250594,0 4,1.7494055 4,4 v 8 c 0,2.250594 -1.749406,4 -4,4 H 7 C 4.7494055,19 3,17.250594 3,15 V 7 C 3,4.7494055 4.7494055,3 7,3 Z"/>
 <path style="opacity:0.2" d="M 6.1777345,5.5 C 5.3790655,5.5 5,5.7694 5,6.6191405 5,7.3445295 5.3396865,7.7389525 6.0185545,7.738281 h 0.15918 L 9.212891,16.504883 C 9.472458,17.250997 9.532597,17.5 10.411133,17.5 H 11 11.588867 c 0.878536,0 0.938675,-0.249003 1.198243,-0.995117 l 3.035155,-8.766602 h 0.15918 C 16.660313,7.7389525 17,7.3445295 17,6.6191405 17,5.7694 16.620934,5.5 15.822265,5.5 h -2.595702 c -0.798669,0 -1.197266,0.2901255 -1.197266,1.1191405 0,0.829016 0.398597,1.1191405 1.197266,1.1191405 h -0.04004 L 11,14.5 8.8134765,7.738281 h -0.04004 C 9.572105,7.738281 9.970702,7.4481565 9.970702,6.6191405 9.970703,5.7901255 9.572106,5.5 8.7734375,5.5 Z"/>
 <path style="fill:#5fd6ff" d="M 6.1777345,5 C 5.3790655,5 5,5.2694 5,6.1191405 5,6.8445295 5.3396865,7.2389525 6.0185545,7.238281 h 0.15918 L 9.212891,16.004883 C 9.472458,16.750997 9.532597,17 10.411133,17 H 11 11.588867 c 0.878536,0 0.938675,-0.249003 1.198243,-0.995117 l 3.035155,-8.766602 h 0.15918 C 16.660313,7.2389525 17,6.8445295 17,6.1191405 17,5.2694 16.620934,5 15.822265,5 h -2.595702 c -0.798669,0 -1.197266,0.2901255 -1.197266,1.1191405 0,0.829016 0.398597,1.1191405 1.197266,1.1191405 h -0.04004 L 11,14 8.8134765,7.238281 h -0.04004 C 9.572105,7.238281 9.970702,6.9481565 9.970702,6.1191405 9.970703,5.2901255 9.572106,5 8.7734375,5 Z"/>
 <path style="opacity:0.1;fill:#8b9cbe" d="M 7,3 C 4.7494055,3 3,4.7494055 3,7 v 0.5 c 0,-2.2505945 1.7494055,-4 4,-4 h 8 c 2.250594,0 4,1.7494055 4,4 V 7 C 19,4.7494055 17.250594,3 15,3 Z"/>
 <path style="opacity:0.2;fill:#8b9cbe" d="M 6.1777345,5 C 5.3790655,5 5,5.2694 5,6.1191405 5,6.2070455 5.00465,6.290094 5.01465,6.368164 5.087762,5.717804 5.464866,5.5 6.1777345,5.5 h 2.595703 c 0.7114335,0 1.1030855,0.232895 1.1806645,0.8691405 0.0095,-0.078016 0.0166,-0.15945 0.0166,-0.25 C 9.970703,5.2901255 9.572106,5 8.7734375,5 Z m 7.0488285,0 c -0.798669,0 -1.197266,0.2901255 -1.197266,1.1191405 0,0.09055 0.0071,0.171984 0.0166,0.25 C 12.123478,5.732895 12.51513,5.5 13.226563,5.5 h 2.595702 c 0.712869,0 1.089973,0.217804 1.163086,0.868164 C 16.995327,6.290094 17,6.2070455 17,6.1191405 17,5.2694 16.620934,5 15.822265,5 Z M 8.9716795,7.7285155 c -0.064362,0.0047 -0.1276265,0.00976 -0.198242,0.00976 h 0.04004 L 11,14.5 13.186524,7.738281 h 0.04004 c -0.07062,0 -0.13388,-0.00506 -0.198242,-0.00976 L 11,14 Z"/>
</svg>
