<svg xmlns="http://www.w3.org/2000/svg" width="22" height="22" version="1">
 <path style="opacity:.2" d="m7 16.5h5.5l-5.5 5z"/>
 <path style="fill:#694088" d="m7 16h5.5l-5.5 5z"/>
 <rect style="opacity:.2" width="18" height="17" x="2" y=".5" rx="6.365" ry="6.565"/>
 <rect style="fill:#924cc4" width="18" height="17" x="2" rx="6.365" ry="6.565"/>
 <path style="fill:#8b9cbe" d="m8.398 3.78146c-8.5e-4 -9.5e-4 -0.0018-0.0017-0.00355-0.00355-8.5e-4 -9e-4 -0.00465-0.00465-0.0047-0.0047l-0.00823-0.005885-0.0247-0.012935 0.04116 0.02705z"/>
 <path style="fill:#8b9cbe" d="m6.3975 4.40396c-0.00175 0.0026-0.00255 0.011065-0.0047 0.016465-0.0017 0.00205-0.00185 0.00385-0.00355 0.005885 0.00205-0.008195 0.0048-0.016635 0.0047-0.016465-2.26e-4 4.14e-4 0.0064-0.010185 0.00355-0.005885z"/>
 <path style="fill:#8b9cbe;opacity:.1" d="M 8.364258,0 C 4.8381925,0 2,2.9281708 2,6.5654295 v 0.5 C 2,3.428171 4.8381925,0.5 8.364258,0.5 h 5.271484 C 17.161807,0.5 20,3.428171 20,7.0654295 v -0.5 C 20,2.9281708 17.161807,0 13.635742,0 Z"/>
 <path style="opacity:.2" d="m12.443776 3.5000313c-0.24157 0-0.44204 0.19294-0.44434 0.42676-0.0014 0.23488 0.1991 0.43239 0.44238 0.4336 1.05 0.00788 1.9132 0.33972 2.6094 0.99415 0.68795 0.64835 1.0466 1.5466 1.0556 2.7187997v1e-3c0.0025 0.23318 0.20311 0.425759 0.44531 0.425759 2.5e-5 0 0.0046-8.99e-4 0.0049-9.99e-4 0.24275-0.0023 0.44434-0.19795 0.44238-0.43262v-1e-3c-0.0057-0.6832001-0.11672-1.3113997-0.334-1.8641997-0.2199-0.55855-0.55415-1.0528-0.99025-1.4638-0.86125-0.80995-1.9614-1.2284-3.2276-1.2373h-0.0039zm-4.5092004 1.0108c-0.1694-0.0288-0.353 0.0026-0.5362 0.0908h-0.01465l-0.02051 0.01172c-0.3395 0.193-0.6579 0.4518-0.956 0.7763l-0.023435 0.02539v0.023435c-0.2063 0.2572-0.34265 0.51605-0.37402 0.7754-0.01001 0.04395-0.00976 0.08357-0.00976 0.12598 0 0.11798 0.01734 0.23788 0.05371 0.35547l0.0097 0.0333 0.0206 0.0117c0.11776 0.4040396 0.385 1.0327996 0.96975 2.0975987 0.38946 0.70575 0.7874 1.2953 1.1826 1.792 0.2082 0.26105 0.44404 0.53285 0.71775 0.80665 0.00325 0.0032 0.014795 0.01504 0.027345 0.02636 0.00435 0.0044 0.010435 0.01337 0.02539 0.02832l0.02735 0.02735h2e-3c0.0096 0.0096 0.01614 0.01663 0.01758 0.01855l0.0049 0.0059 0.0049 0.0049c0.27372 0.27074 0.5437 0.508 0.8076 0.71485 0.4959404 0.39526 1.0854004 0.79635 1.7910004 1.1865 1.066 0.5881 1.7006 0.8539 2.1026 0.96975l0.01465 0.01758 0.02441 0.0088c0.11385 0.03796 0.23232 0.05548 0.34961 0.05371 0.04757 0.0026 0.0897-7.5e-4 0.12988-0.0098 0.27524-0.03218 0.54775-0.1625 0.8174-0.38867l0.0029-0.0039 3e-3 -2e-3c0.0042-0.0041 0.0017-0.0022 0.0039-0.0049 0.0024-0.0022 0.0035-0.0047 0.0059-0.0068 0.31912-0.29126 0.5767-0.60805 0.7705-0.94725l0.0127-0.02149v-0.02051c0.178-0.37064 0.1075-0.74905-0.18164-0.99025-0.0071-0.0061-0.146-0.1222-0.31836-0.2627-0.17626-0.14364-0.3853-0.31246-0.52645-0.41603-0.26704-0.19754-0.6798-0.45308-0.91505-0.584h-1e-3c-0.453-0.252-0.925-0.105-1.133 0.164l-0.36426 0.45606c-0.1469 0.1851-0.44045 0.16744-0.44824 0.16699-2.4707004-0.63565-3.1350096-3.12-3.1396096-3.137699-4.405e-4 -0.0078-0.0182-0.30184 0.1669992-0.45117l0.4541-0.3632801c0.2696-0.2066 0.4213-0.6786996 0.1669-1.1317996-0.1327-0.2343-0.3893-0.6501-0.584-0.9151h-1e-3c-0.1044076-0.1406-0.2727076-0.3509-0.4160076-0.5273-0.0717-0.0883-0.1369-0.169-0.1846-0.2266-0.0238-0.0288-0.043-0.0521-0.0566-0.0684-0.0069-0.0081-0.0126-0.0138-0.0166-0.0185-2e-3 -0.0024-0.0032-0.0039-0.0049-0.0059-0.1259-0.1494-0.2863-0.2405-0.4629-0.2705zm4.5362004 0.9902c-0.23826-0.0168-0.45236 0.16173-0.46972 0.3916-0.01739 0.23012 0.16825 0.43537 0.40625 0.45215 0.58855 0.041595 0.9857 0.21462 1.2842 0.53025v1e-3c0.30464 0.3214996 0.44326 0.6886496 0.43164 1.1903997v2e-3c-0.0052 0.23089 0.1885 0.42656 0.42774 0.431619h0.01074c0.23574 0 0.43226-0.186099 0.4375-0.414059 0.015-0.6896001-0.209-1.3049997-0.662-1.7821997-0.455-0.4796-1.099-0.7481-1.867-0.8027z"/>
 <path style="fill:#8b9cbe" d="m12.443776 3.0000307c-0.24157 0-0.44204 0.19294-0.44434 0.42676-0.0014 0.23488 0.1991 0.43239 0.44238 0.4336 1.05 0.00788 1.9132 0.33972 2.6094 0.99415 0.68795 0.64835 1.0466 1.5466 1.0556 2.7187996v1e-3c0.0025 0.23318 0.20311 0.4257597 0.44531 0.4257597 2.5e-5 0 0.0046-8.997e-4 0.0049-9.997e-4 0.24275-0.0023 0.44434-0.19795 0.44238-0.43262v-1e-3c-0.0057-0.6832-0.11672-1.3113996-0.334-1.8641996-0.2199-0.55855-0.55415-1.0528-0.99025-1.4638-0.86125-0.80995-1.9614-1.2284-3.2276-1.2373h-0.0039zm-4.5092004 1.0108c-0.1694-0.0288-0.353 0.0026-0.5362 0.0908h-0.01465l-0.02051 0.01172c-0.3395 0.193-0.6579 0.4518-0.956 0.7763l-0.023435 0.02539v0.023435c-0.2063 0.2572-0.34265 0.51605-0.37402 0.7754-0.01001 0.04395-0.00976 0.08357-0.00976 0.12598 0 0.11798 0.01734 0.23788 0.05371 0.35547l0.0097 0.0333 0.0206 0.0117c0.11776 0.4040396 0.385 1.0327996 0.96975 2.0975993 0.38946 0.70575 0.7874 1.2953 1.1826 1.792 0.2082 0.26105 0.44404 0.53285 0.71775 0.80665 0.00325 0.0032 0.014795 0.01504 0.027345 0.02636 0.00435 0.0044 0.010435 0.01337 0.02539 0.02832l0.02735 0.02735h2e-3c0.0096 0.0096 0.01614 0.01663 0.01758 0.01855l0.0049 0.0059 0.0049 0.0049c0.27372 0.27074 0.5437 0.508 0.8076 0.71485 0.4959404 0.39526 1.0854004 0.79635 1.7910004 1.1865 1.066 0.5881 1.7006 0.8539 2.1026 0.96975l0.01465 0.01758 0.02441 0.0088c0.11385 0.03796 0.23232 0.05548 0.34961 0.05371 0.04757 0.0026 0.0897-7.5e-4 0.12988-0.0098 0.27524-0.03218 0.54775-0.1625 0.8174-0.38867l0.0029-0.0039 3e-3 -2e-3c0.0042-0.0041 0.0017-0.0022 0.0039-0.0049 0.0024-0.0022 0.0035-0.0047 0.0059-0.0068 0.31912-0.29126 0.5767-0.60805 0.7705-0.94725l0.0127-0.02149v-0.02051c0.178-0.37064 0.1075-0.74905-0.18164-0.99025-0.0071-0.0061-0.146-0.1222-0.31836-0.2627-0.17626-0.14364-0.3853-0.31246-0.52645-0.41603-0.26704-0.19754-0.6798-0.45308-0.91505-0.584h-1e-3c-0.453-0.252-0.925-0.105-1.133 0.164l-0.36426 0.45606c-0.1469 0.1851-0.44045 0.16744-0.44824 0.16699-2.4707004-0.63565-3.1350076-3.12-3.1396076-3.1376997-4.405e-4 -0.0078-0.0182-0.30184 0.1669972-0.45117l0.4541-0.36328c0.2696-0.2066 0.4213-0.6786996 0.1669-1.1317996-0.1327-0.2343-0.3893-0.6501-0.584-0.9151h-1e-3c-0.1044072-0.1406-0.2727072-0.3509-0.4160072-0.5273-0.0717-0.0883-0.1369-0.169-0.1846-0.2266-0.0238-0.0288-0.043-0.0521-0.0566-0.0684-0.0069-0.0081-0.0126-0.0138-0.0166-0.0185-2e-3 -0.0024-0.0032-0.0039-0.0049-0.0059-0.1259-0.1494-0.2863-0.2405-0.4629-0.2705zm4.5362004 0.9902c-0.23826-0.0168-0.45236 0.16173-0.46972 0.3916-0.01739 0.23012 0.16825 0.43537 0.40625 0.45215 0.58855 0.041595 0.9857 0.21462 1.2842 0.53025v1e-3c0.30464 0.3214996 0.44326 0.6886496 0.43164 1.1903996v2e-3c-0.0052 0.23089 0.1885 0.42656 0.42774 0.4316197h0.01074c0.23574 0 0.43226-0.1860997 0.4375-0.4140597 0.015-0.6896-0.209-1.3049996-0.662-1.7821996-0.455-0.4796-1.099-0.7481-1.867-0.8027z"/>
</svg>
