<svg xmlns="http://www.w3.org/2000/svg" width="22" height="22" version="1">
 <rect style="opacity:0.2" width="20" height="20" x="1" y="1.5" rx="6" ry="6"/>
 <rect style="fill:#ef3939" width="20" height="20" x="1" y="1" rx="6" ry="6"/>
 <circle style="opacity:0.2" cx="11" cy="11.5" r="7"/>
 <circle style="fill:#8b9cbe" cx="11" cy="11" r="7"/>
 <path style="fill:#cc2626" d="m 14.774737,7.0002125 c -0.200516,1.455e-4 -0.403543,0.041103 -0.566053,0.1208622 -0.237482,0.1165529 -0.476514,0.3634497 -0.582553,0.6017173 -0.112688,0.2532125 -0.128872,0.6996033 -0.03394,0.9368809 0.04016,0.1003376 0.109456,0.2727422 0.153961,0.3831171 0.100521,0.249268 0.136705,0.797544 0.07298,1.105496 -0.07175,0.346747 -0.294705,0.747302 -0.556054,0.999085 -0.784274,0.755456 -1.969991,0.768691 -2.748932,0.03067 C 10.245362,10.92336 10.207242,10.862553 8.9938804,8.7514226 8.5822134,8.0346091 8.2127714,7.4344801 8.1361051,7.3569228 7.8949951,7.1081573 7.5597188,7.019218 7.2527203,7.0177356 6.5927233,7.0072846 6.135281,7.5107985 6.0267259,8.0512853 c -0.080183,0.4325312 -0.1170661,0.358071 2.0149352,4.0621477 1.3457179,2.337993 1.9853259,3.415749 2.0902139,3.521681 0.371504,0.375303 0.900774,0.46833 1.396049,0.245378 0.130222,-0.05862 0.277639,-0.163982 0.371804,-0.265728 0.18445,-0.199293 3.99876,-6.8012154 4.060648,-7.0283285 0.06487,-0.2380239 0.04875,-0.5762 -0.03853,-0.8102482 C 15.813255,7.4850697 15.513683,7.1863816 15.218235,7.074625 15.08562,7.0244692 14.931176,6.9998789 14.775221,7.0000004 Z"/>
 <path style="opacity:0.2;fill:#8b9cbe" d="M 7,1 C 3.676,1 1,3.676 1,7 v 0.5 c 0,-3.324 2.676,-6 6,-6 h 8 c 3.324,0 6,2.676 6,6 V 7 C 21,3.676 18.324,1 15,1 Z"/>
</svg>
