<svg xmlns="http://www.w3.org/2000/svg" width="22" height="22" version="1">
 <rect style="opacity:0.2" width="12" height="10" x="-13.5" y="-16" rx="5" ry="5" transform="matrix(0,-1,-1,0,0,0)"/>
 <path style="opacity:0.2" d="m 4,8.5 a 1,1 0 0 0 -1,1 l 0,0.75 c 0,3.1793 2.3222,5.783653 6,6.189453 L 9,19.5 l -3,0 a 1,1 0 0 0 -1,1 1,1 0 0 0 1,1 l 10,0 a 1,1 0 0 0 1,-1 1,1 0 0 0 -1,-1 l -3,0 0,-3.060547 c 3.678,-0.406 6,-3.012406 6,-6.191406 L 19,9.5 19,9.498 A 1,1 0 0 0 18,8.5 1,1 0 0 0 17,9.498047 l 0,0.002 0,0.417969 c 0,2.539 -2.453,4.580078 -5.5,4.580078 l -1,0 C 7.453,14.498094 5,12.457016 5,9.918016 L 5,9.5 A 1,1 0 0 0 5,9.498 1,1 0 0 0 4,8.5 Z"/>
 <rect style="fill:#8e8e8e" width="12" height="10" x="-13" y="-16" rx="5" ry="5" transform="matrix(0,-1,-1,0,0,0)"/>
 <path style="fill:#ca42ca" d="M 4,8 A 1,1 0 0 0 3,9 l 0,0.75 c 0,3.1793 2.3222,5.783653 6,6.189453 L 9,19 6,19 a 1,1 0 0 0 -1,1 1,1 0 0 0 1,1 l 10,0 a 1,1 0 0 0 1,-1 1,1 0 0 0 -1,-1 l -3,0 0,-3.060547 c 3.678,-0.406 6,-3.012406 6,-6.191406 L 19,9 19,8.9980469 A 1,1 0 0 0 18,8 1,1 0 0 0 17,8.9980469 L 17,9 17,9.417969 c 0,2.539 -2.453,4.580078 -5.5,4.580078 l -1,0 C 7.453,13.998047 5,11.956969 5,9.417969 L 5,9 A 1,1 0 0 0 5,8.9980469 1,1 0 0 0 4,8 Z"/>
 <path style="opacity:0.1;fill:#8b9cbe" d="M 11,1 C 8.23,1 6,3.23 6,6 l 0,0.5 c 0,-2.77 2.23,-5 5,-5 2.77,0 5,2.23 5,5 L 16,6 C 16,3.23 13.77,1 11,1 Z"/>
 <path style="opacity:0.1;fill:#8b9cbe" d="M 4,8 A 1,1 0 0 0 3,9 l 0,0.5 a 1,1 0 0 1 1,-1 1,1 0 0 1 1,0.998047 1,1 0 0 0 0,0.002 l 0,0.417969 c 0,2.539 2.453,4.580078 5.5,4.580078 l 1,0 c 3.047,0 5.5,-2.041078 5.5,-4.580078 L 17,9.5 17,9.498 A 1,1 0 0 1 18,8.5 1,1 0 0 1 19,9.498047 L 19,9 19,8.9980469 A 1,1 0 0 0 18,8 1,1 0 0 0 17,8.9980469 L 17,9 17,9.417969 c 0,2.539 -2.453,4.580078 -5.5,4.580078 l -1,0 C 7.453,13.998047 5,11.956969 5,9.417969 L 5,9 A 1,1 0 0 0 5,8.9980469 1,1 0 0 0 4,8 Z M 6,19 A 1,1 0 0 0 5,20 1,1 0 0 0 5.0332031,20.25 1,1 0 0 1 6,19.5 l 3,0 0,-0.5 -3,0 z m 7,0 0,0.5 3,0 A 1,1 0 0 1 16.966797,20.25 1,1 0 0 0 17,20 1,1 0 0 0 16,19 l -3,0 z"/>
</svg>
