<svg width="22" height="22" version="1.1" xmlns="http://www.w3.org/2000/svg">
 <path d="m6.0015658 5c-0.3343443 2.71e-5 -0.6465597 0.1671283-0.8320312 0.4453125l-4 5.9999995c-0.4428425 0.664554 0.0334442 1.554517 0.8320312 1.554688h18c0.798587-1.71e-4 1.274873-0.890134 0.832031-1.554688l-4-5.9999995c-0.185471-0.2781842-0.497687-0.4452853-0.832031-0.4453125z" style="fill:#3b3b3b"/>
 <path d="m6.0015658 5c-0.3343443 2.71e-5 -0.6465598 0.1671283-0.8320312 0.4453125l-4 5.9999995c-0.1714382 0.25727-0.2022474 0.546511-0.1328126 0.806641 0.027214-0.104572 0.067297-0.208324 0.1328126-0.306641l4-5.9999995c0.1854714-0.2781842 0.4976869-0.4452854 0.8320312-0.4453125h10c0.334344 2.72e-5 0.64656 0.1671283 0.832031 0.4453125l4 5.9999995c0.06552 0.09832 0.105599 0.202069 0.132813 0.306641 0.06943-0.26013 0.03862-0.549371-0.132813-0.806641l-4-5.9999995c-0.185471-0.2781842-0.497687-0.4452853-0.832031-0.4453125z" style="fill:#8b9cbe;opacity:.1"/>
 <rect x="1.0015659" y="11.5" width="20" height="7" rx="0" ry="1" style="opacity:.2"/>
 <rect x="1.0015659" y="11" width="20" height="7" rx="0" ry="1" style="fill:#505050"/>
 <circle cx="13.501566" cy="15" r="1.5" style="opacity:.2"/>
 <circle cx="13.501566" cy="14.5" r="1.5" style="fill:#e25104"/>
 <circle cx="17.501566" cy="15" r="1.5" style="opacity:.2"/>
 <circle cx="17.501566" cy="14.5" r="1.5" style="fill:#fc9602"/>
 <path d="m2.0015658 11c-0.554 0-1 0.446-1 1v0.5c0-0.554 0.446-1 1-1h17.998047c0.554 0 1 0.446 1 1v-0.5c0-0.554-0.446-1-1-1z" style="fill:#8b9cbe;opacity:.2"/>
</svg>
