<svg xmlns="http://www.w3.org/2000/svg" xmlns:xlink="http://www.w3.org/1999/xlink" width="22" height="22" version="1.1">
 <defs>
  <linearGradient id="linearGradient862">
   <stop style="stop-color:#000000" offset="0"/>
   <stop style="stop-color:#000000;stop-opacity:0" offset="1"/>
  </linearGradient>
  <linearGradient id="linearGradient864" x1="22.856" x2="16.436" y1="38.187" y2="30.314" gradientTransform="matrix(0.5,0,0,0.5,-0.99986333,-1)" gradientUnits="userSpaceOnUse" xlink:href="#linearGradient862"/>
 </defs>
 <path style="opacity:0.2" d="M 11,1.5 C 9.3366101,1.4931459 7.6761796,2.0065914 6.3311181,3.0107422 3.1017857,5.354628 1.525272,9.365478 1.1202522,13.228516 c -0.030963,1.092786 -0.34948697,2.296984 0.1972629,3.310546 0.8610453,1.359887 2.6278742,1.413288 4.0272885,1.807617 2.1658135,0.365786 3.580393,2.248861 5.5028544,3.135743 L 11,21.5 11.152342,21.48242 c 1.92246,-0.886882 3.337041,-2.769957 5.502854,-3.135743 1.399414,-0.394329 3.166243,-0.44773 4.027288,-1.807617 0.54675,-1.013562 0.228228,-2.21776 0.197264,-3.310546 C 20.474728,9.365478 18.898214,5.354628 15.668881,3.0107422 14.32382,2.0065914 12.66339,1.493146 11,1.5 Z m 0,5 c 1.700152,-0.0091 3.3977,0.9475513 4.393494,2.3663243 0.912463,1.2534737 1.45068,3.1829527 1.550761,4.7284027 -2.252875,0.664695 -4.002579,2.271551 -5.851483,3.631835 0,0 -0.06217,0.0459 -0.09277,0.05469 -0.0306,-0.0088 -0.09277,-0.05469 -0.09277,-0.05469 C 9.0583231,15.866278 7.3086191,14.259422 5.0557451,13.594727 5.1558256,12.049277 5.6940426,10.119798 6.6065056,8.8663243 7.6022991,7.4475513 9.2998481,6.4909025 11,6.5 Z"/>
 <path style="fill:#80d955" d="M 11,1 C 9.3366101,0.9931459 7.6761796,1.5065914 6.3311181,2.5107422 3.1017857,4.854628 1.525272,8.865478 1.1202522,12.728516 c -0.030963,1.092786 -0.34948697,2.296984 0.1972629,3.310546 0.8610453,1.359887 2.6278742,1.413288 4.0272885,1.807617 2.1658135,0.365786 3.580393,2.248861 5.5028544,3.135743 L 11,21 11.152342,20.98242 c 1.92246,-0.886882 3.337041,-2.769957 5.502854,-3.135743 1.399414,-0.394329 3.166243,-0.44773 4.027288,-1.807617 0.54675,-1.013562 0.228228,-2.21776 0.197264,-3.310546 C 20.474728,8.865478 18.898214,4.854628 15.668881,2.5107422 14.32382,1.5065914 12.66339,0.993146 11,1 Z m 0,5 c 1.700152,-0.0091 3.3977,0.9475513 4.393494,2.3663243 0.912463,1.2534737 1.45068,3.1829527 1.550761,4.7284027 -2.252875,0.664695 -4.002579,2.271551 -5.851483,3.631835 0,0 -0.06217,0.0459 -0.09277,0.05469 -0.0306,-0.0088 -0.09277,-0.05469 -0.09277,-0.05469 C 9.0583231,15.366278 7.3086191,13.759422 5.0557451,13.094727 5.1558256,11.549277 5.6940426,9.619798 6.6065056,8.3663243 7.6022991,6.9475513 9.2998481,5.9909025 11,6 Z"/>
 <path style="opacity:0.4;fill:url(#linearGradient864)" d="m 7.1095116,14.006836 c -1.5583285,0.694103 -3.1133318,1.551435 -4.6738281,2.237304 -0.4102164,0.06542 -0.5548117,0.24087 -0.5478516,0.431641 0.9392341,0.754684 2.3195747,0.850384 3.4570312,1.170898 0.5426565,0.09165 1.03772,0.278866 1.5058595,0.521485 1.4469555,0.08197 3.0821655,-0.683199 4.1494144,-1.586914 -0.0306,-0.0088 -0.09277,-0.05469 -0.09277,-0.05469 -0.119845,-0.08817 -0.238246,-0.181563 -0.357422,-0.271484 -0.01439,-0.01099 -0.02861,-0.02215 -0.04297,-0.0332 C 9.4000021,15.584665 8.3079161,14.700469 7.1095101,14.006834 Z"/>
 <path style="opacity:0.2;fill:#8b9cbe" d="M 11.000137,1 C 9.9605181,0.995715 8.9221276,1.1948687 7.9610741,1.5898438 7.7688671,1.6688388 7.5790936,1.7559674 7.3936911,1.850586 7.0231526,2.0397366 6.6672276,2.2598754 6.3311911,2.5107422 5.7256916,2.9502208 5.1781461,3.4484397 4.6856836,3.993164 4.3573751,4.3563135 4.0539936,4.7405375 3.7735741,5.1416015 2.2312671,7.347455 1.398705,10.072678 1.1202538,12.728516 c -0.014956,0.527846 -0.095039,1.081159 -0.1142578,1.626953 -0.00563,0.160077 -0.00748,0.31968 9.75e-4,0.477539 0.020616,-0.53854 0.09853,-1.083863 0.1132813,-1.604492 C 1.5252737,9.365478 3.1018595,5.354628 6.3311911,3.0107422 7.6762526,2.0065914 9.3367471,1.4931459 11.000137,1.5 12.663527,1.49315 14.324021,2.0065914 15.669082,3.0107422 18.898415,5.354628 20.475,9.365478 20.88002,13.228516 c 0.01475,0.520632 0.09267,1.06595 0.113281,1.604492 0.0084,-0.157609 0.0066,-0.31674 0.001,-0.476562 -0.01916,-0.546111 -0.09929,-1.09977 -0.114258,-1.62793 -0.101255,-0.96576 -0.276031,-1.940604 -0.53125,-2.896485 C 20.221187,9.354091 20.073373,8.8808525 19.904457,8.4160155 19.566625,7.486342 19.144394,6.5896095 18.630043,5.754883 18.244273,5.128838 17.807076,4.5378885 17.314613,3.9931641 17.150437,3.8115892 16.979349,3.6346341 16.802871,3.4638672 16.626393,3.2931002 16.444058,3.1287995 16.25502,2.9697265 16.065981,2.8106536 15.870915,2.6572351 15.669082,2.5107422 14.324021,1.5065914 12.663527,0.993146 11.000137,1 Z m 5.895508,12.112305 c -1.392953,0.420998 -2.594697,1.199889 -3.748047,2.054687 -0.691931,0.513444 -1.366342,1.053137 -2.054688,1.55957 0,0 -0.06217,0.0459 -0.09277,0.05469 -0.105187,0.08907 -0.220441,0.175043 -0.335938,0.260742 -0.119848,0.08893 -0.245638,0.174002 -0.375,0.257812 -0.01905,0.01236 -0.03741,0.02488 -0.05664,0.03711 -0.119843,0.07608 -0.2427959,0.148384 -0.3691409,0.21875 -0.03227,0.01803 -0.06403,0.0361 -0.09668,0.05371 -0.116638,0.06272 -0.234676,0.121939 -0.355468,0.178711 -0.05282,0.02492 -0.105699,0.0486 -0.15918,0.07227 -0.105648,0.04656 -0.211558,0.09062 -0.3193365,0.131836 -0.072263,0.02775 -0.144778,0.053 -0.217773,0.07813 -0.097827,0.03353 -0.195199,0.06626 -0.2939455,0.09473 -0.088447,0.02562 -0.176763,0.04616 -0.265625,0.06738 -0.083502,0.01985 -0.1664175,0.04189 -0.25,0.05762 -0.1155145,0.02183 -0.2306015,0.0345 -0.345703,0.04785 -0.061597,0.0071 -0.123256,0.01791 -0.1845705,0.02246 -0.176487,0.01317 -0.3518605,0.01759 -0.524414,0.0078 0.2654,0.137547 0.521037,0.29478 0.772461,0.460938 1.22923,-0.158912 2.4962894,-0.802132 3.3769534,-1.547852 0.0306,-0.0088 0.09277,-0.05469 0.09277,-0.05469 1.848904,-1.360284 3.598688,-2.96714 5.851563,-3.631835 -0.01044,-0.1612 -0.02893,-0.32187 -0.04883,-0.482422 z"/>
</svg>
