<svg xmlns="http://www.w3.org/2000/svg" id="图层_1" width="22" height="22" x="0" y="0" version="1.1" xml:space="preserve">
 <path style="opacity:0.2" d="m 14.14947,2.8362329 c 0,0 -0.11628,-0.6866157 -1.961379,-0.339445 -2.201326,0.4138041 -2.802459,1.3019113 -2.925466,3.1806885 0,0 -0.7316275,2.027092 -2.722858,2.7890325 C 6.135456,8.0671669 3.970679,8.8879079 5.7211045,9.9339439 5.906106,10.185993 5.7573695,10.359289 5.624521,10.556293 5.4847855,10.763436 5.0683315,10.84898 4.905471,10.900645 4.587622,11.001078 4.290438,9.6558519 3.1986315,10.704608 2.2377041,11.55829 2.4655123,12.7519 1.9301876,13.096173 1.4996646,13.314905 0.59236802,13.714707 1.207401,14.77843 c 0,0 0.4998987,0.935473 2.001563,0.72157 0.4703772,-0.06712 1.0561575,-0.0039 1.3405485,0.478911 0.333102,0.565419 0.2628965,0.361719 0.401156,0.587694 0,0 0.3085695,0.88248 0.472906,1.3803 0,0 0.5126915,1.569269 2.742063,2.142897 0,0 0.7995425,0.188795 1.7530895,0.309509 1.037683,0.105744 1.929727,0.935766 2.629388,1.062757 0,0 0.55353,0.129404 0.844318,-0.08981 0,0 0.393129,-0.384351 -1.013575,-0.671165 0,0 -1.753089,-0.467883 -0.496946,-0.842577 0,0 1.67705,-0.153547 2.199582,-0.447603 0,0 1.722092,-0.535483 1.242859,-1.101386 0,0 -0.212556,-0.256394 -1.219733,0.44519 0,0 -0.699662,0.430221 -0.653903,0.163686 0,0 0.328449,-0.819424 -0.515105,-1.52336 -0.738445,-0.473976 -1.379653,-0.884305 -1.955584,-1.114943 0,0 -1.53912,-0.581774 -1.076123,-0.832374 0,0 2.124716,-0.539908 2.575412,-3.959948 0,0 0.730082,-1.8015051 2.477759,1.872516 0,0 0.358688,0.588596 -1.756042,0.435049 0,0 -0.768053,0.01014 -0.468409,0.387248 0,0 0.215508,0.286814 1.38407,0.06277 0,0 0.545658,-0.0705 1.270904,0.140993 0,0 1.234986,0.339445 2.665799,-0.230803 0,0 0.737548,-0.319648 1.975486,-0.417667 0,0 1.299441,-0.03766 0.892043,-0.641227 0,0 -0.130879,-0.384834 -1.19956,0.226457 0,0 -2.029608,0.882654 -2.152615,0.09802 0,0 -0.434934,-0.519198 0.764626,-1.613341 0,0 1.172498,-0.871065 0.464965,-1.236584 0,0 -0.74542,-0.34379 -1.006686,0.939147 0,0 -0.222413,1.571333 -1.206958,1.612376 0,0 -1.260571,0.185415 -1.565135,-1.995145 0,0 -0.586987,-2.0897841 -0.520072,-2.5890531 0.08364,-0.6243275 0.173424,-0.051245 0.534572,-2.6161555 -0.758359,0.140961 0.522601,-2.0953322 -0.884594,-3.0861455 z"/>
 <path style="fill:#1d52bf" d="m 14.14947,2.3362329 c 0,0 -0.11628,-0.6866156 -1.961379,-0.339445 -2.201326,0.4138042 -2.802459,1.3019114 -2.925466,3.1806885 0,0 -0.7316275,2.027092 -2.722858,2.7890325 C 6.135456,7.5671669 3.970679,8.3879079 5.7211045,9.4339439 5.906106,9.6859929 5.7573695,9.8592889 5.624521,10.056293 5.4847855,10.263436 5.0683315,10.34898 4.905471,10.400645 4.587622,10.501078 4.290438,9.1558519 3.1986315,10.204608 2.2377041,11.05829 2.4655123,12.2519 1.9301876,12.596173 1.4996646,12.814905 0.59236802,13.214707 1.207401,14.27843 c 0,0 0.4998987,0.935473 2.001563,0.72157 0.4703772,-0.06712 1.0561575,-0.0039 1.3405485,0.47891 0.333102,0.56542 0.2628965,0.36172 0.401156,0.587695 0,0 0.3085695,0.882479 0.472906,1.3803 0,0 0.5126915,1.569269 2.742063,2.142897 0,0 0.7995425,0.188795 1.7530895,0.309509 1.037683,0.105744 1.929727,0.935766 2.629388,1.062757 0,0 0.55353,0.129404 0.844318,-0.08981 0,0 0.393129,-0.384351 -1.013575,-0.671165 0,0 -1.753089,-0.467883 -0.496946,-0.842577 0,0 1.67705,-0.153547 2.199582,-0.447603 0,0 1.722092,-0.535483 1.242859,-1.101386 0,0 -0.212556,-0.256394 -1.219733,0.44519 0,0 -0.699662,0.430221 -0.653903,0.163686 0,0 0.328449,-0.819424 -0.515105,-1.52336 -0.738445,-0.473976 -1.379653,-0.884305 -1.955584,-1.114943 0,0 -1.53912,-0.581774 -1.076123,-0.832374 0,0 2.124716,-0.539908 2.575412,-3.959948 0,0 0.730082,-1.8015051 2.477759,1.872516 0,0 0.358688,0.588596 -1.756042,0.435049 0,0 -0.768053,0.01014 -0.468409,0.387248 0,0 0.215508,0.286814 1.38407,0.06277 0,0 0.545658,-0.0705 1.270904,0.140993 0,0 1.234986,0.339445 2.665799,-0.230803 0,0 0.737548,-0.319648 1.975486,-0.417667 0,0 1.299441,-0.03766 0.892043,-0.641227 0,0 -0.130879,-0.384834 -1.19956,0.226457 0,0 -2.029608,0.882654 -2.152615,0.09802 0,0 -0.434934,-0.519198 0.764626,-1.613341 0,0 1.172498,-0.871065 0.464965,-1.236584 0,0 -0.74542,-0.3437901 -1.006686,0.939147 0,0 -0.222413,1.571333 -1.206958,1.612376 0,0 -1.260571,0.185415 -1.565135,-1.995145 0,0 -0.586987,-2.0897841 -0.520072,-2.5890531 0.08364,-0.6243275 0.173424,-0.051245 0.534572,-2.6161555 -0.758359,0.140961 0.522601,-2.0953322 -0.884594,-3.0861445 z"/>
 <path style="opacity:0.1;fill:#8b9cbe" d="m 13.273438,1.9033202 c -0.270369,-0.015549 -0.623687,0.00696 -1.084961,0.09375 -2.201326,0.4138042 -2.802775,1.301887 -2.925781,3.1806642 0,0 -0.7314265,2.027122 -2.722657,2.7890625 C 6.2103085,7.6411184 4.7111035,8.1270744 5.118164,8.8847654 5.3771525,8.4378254 6.2911135,8.2209304 6.540039,8.4667969 8.5312695,7.7048564 9.262696,5.6777344 9.262696,5.6777344 c 0.123006,-1.8787773 0.724455,-2.76686 2.925781,-3.1806642 1.845098,-0.3471706 1.960937,0.3388672 1.960937,0.3388672 0.490506,0.3453675 0.650982,0.8423208 0.688477,1.336914 0.03463,-0.6383687 -0.02927,-1.3727606 -0.688477,-1.836914 0,0 -0.06487,-0.3859692 -0.875976,-0.4326172 z m 1.518554,3.3720702 c -0.03484,0.3735415 -0.03496,0.629146 0.16211,0.6464845 0.02802,-0.1815695 0.04795,-0.270832 0.08008,-0.4990235 -0.141615,0.026325 -0.212015,-0.031575 -0.242187,-0.147461 z m -0.269531,3.1572265 c -0.0074,0.03841 -0.01633,0.052436 -0.02343,0.105469 -0.06691,0.499269 0.520508,2.5898441 0.520508,2.5898441 0.304564,2.18056 1.565429,1.995117 1.565429,1.995117 0.984546,-0.04104 1.207032,-1.612305 1.207032,-1.612305 0.261265,-1.282937 1.006835,-0.939453 1.006835,-0.939453 0.05757,0.02974 0.09849,0.06391 0.132813,0.09961 0.126821,-0.222073 0.153237,-0.451834 -0.132813,-0.59961 0,0 -0.74557,-0.3434841 -1.006835,0.939453 0,0 -0.222486,1.571263 -1.207032,1.612305 0,0 -1.260865,0.185443 -1.565429,-1.995117 0,0 -0.395741,-1.4181081 -0.49707,-2.1953131 z M 4.0146485,9.8056639 C 3.803778,9.7830039 3.5394317,9.8773419 3.1982422,10.205078 2.2373148,11.05876 2.4659887,12.25143 1.930664,12.595703 1.5563655,12.78587 0.82235302,13.114307 1.0410156,13.895508 1.1717325,13.463252 1.6493495,13.238628 1.930664,13.095703 2.4659887,12.75143 2.2373148,11.55876 3.1982422,10.705078 4.2900485,9.6563229 4.5874245,11.000824 4.9052735,10.900391 5.068134,10.848721 5.4852645,10.763784 5.625,10.556641 5.7578485,10.359637 5.9057045,10.185643 5.720703,9.9335939 c -0.0038,-0.0023 -0.006,-0.0046 -0.00977,-0.0068 -0.027315,0.04268 -0.056329,0.08598 -0.085937,0.1298831 -0.1397355,0.207143 -0.556866,0.292085 -0.7197265,0.34375 -0.218521,0.06905 -0.42671,-0.5448701 -0.890625,-0.5947271 z M 20.721679,12.480469 c -0.166304,-0.0198 -0.465659,0.03713 -1,0.342773 0,0 -2.030313,0.882291 -2.15332,0.09766 0,0 -0.01487,-0.03249 -0.02442,-0.04883 -0.115982,0.365801 0.02442,0.548828 0.02442,0.548828 0.02605,0.166167 0.141099,0.255065 0.300781,0.295899 0.06203,-0.02165 0.121693,-0.03646 0.184571,-0.06152 0,0 0.672916,-0.277911 1.785156,-0.392578 0.653099,-0.34989 0.91932,-0.302445 1.019531,-0.232422 0.135556,-0.09509 0.199896,-0.230039 0.0625,-0.433594 0,0 -0.03292,-0.09641 -0.199219,-0.11621 z m -5.872069,0.666016 c -0.185146,0.122843 -0.622862,0.222902 -1.648438,0.148437 0,0 -0.768394,0.01059 -0.46875,0.387695 0,0 0.07223,0.08516 0.325195,0.125977 0.08042,-0.0095 0.143555,-0.01367 0.143555,-0.01367 0.17509,0.01272 0.309362,0.01331 0.452149,0.0166 0.136279,-0.01324 0.285073,-0.03232 0.46289,-0.06641 0,0 0.186484,-0.01757 0.46875,0.001 0.514101,-0.129349 0.37207,-0.385743 0.37207,-0.385743 -0.03725,-0.0783 -0.0711,-0.140467 -0.107421,-0.213867 z m -4.734375,2.219726 c -0.121599,0.05189 -0.210938,0.08105 -0.210938,0.08105 -0.462997,0.2506 1.076172,0.833008 1.076172,0.833008 0.575931,0.230639 1.216633,0.641258 1.955078,1.115235 0.361615,0.301763 0.502692,0.621041 0.551758,0.891601 0.05459,-0.255711 0.09271,-0.853798 -0.551758,-1.391601 -0.738445,-0.473977 -1.379147,-0.884596 -1.955078,-1.115235 0,0 -0.520718,-0.199002 -0.865234,-0.414062 z m 5.088866,2.399414 c -0.150793,-0.01346 -0.470123,0.05077 -1.099609,0.489258 0,0 -0.435654,0.265442 -0.594726,0.24414 0.0042,0.247995 -0.05859,0.418946 -0.05859,0.418946 -0.04576,0.266534 0.65332,-0.163086 0.65332,-0.163086 0.748425,-0.521341 1.057288,-0.513921 1.166992,-0.475586 0.135177,-0.146521 0.191526,-0.305835 0.05273,-0.469727 0,0 -0.02964,-0.03588 -0.120118,-0.04395 z m -3.524413,2.164062 c -0.840352,0.360046 0.699218,0.771485 0.699218,0.771485 0.40862,0.08331 0.653866,0.173756 0.8125,0.261718 0.07271,-0.01978 0.142966,-0.04694 0.201172,-0.09082 0,0 0.393032,-0.384084 -1.013672,-0.670898 0,0 -0.417677,-0.113339 -0.699218,-0.271485 z"/>
 <path style="opacity:0.2" d="m 14.942004,1.9473282 c 0,0 -1.06483,-0.7021015 -3.000415,-0.3471009 -2.309283,0.4231371 -3.7338732,1.7666097 -3.862912,3.6877601 0,0 -0.031512,1.0021208 -0.648124,1.909551 C 5.9777442,7.992855 4.907512,9.7827039 4.4010653,11.112666 3.634018,14.227302 2.4373735,14.364876 3.2995648,16.64406 c 0.349438,0.578173 0.9298806,0.736997 1.198538,0.794432 1.6443858,0.351542 3.9297385,-0.892636 5.5435152,-1.482708 0,0 2.477034,-0.793937 2.949832,-4.291114 0.804883,-2.9045685 2.83001,-3.2300214 2.928154,-5.8360348 -0.0015,-9.807e-4 0.498606,-2.868148 -0.9776,-3.881307 z"/>
 <path style="fill:#377def" d="m 14.942004,1.4473292 c 0,0 -1.06483,-0.70210154 -3.000415,-0.3471009 -2.309283,0.4231371 -3.7338732,1.7666097 -3.862912,3.6877601 0,0 -0.031512,1.0021208 -0.648124,1.909551 C 5.9777442,7.492856 4.907512,9.2827039 4.4010653,10.612666 3.634018,13.727302 2.4373735,13.864876 3.2995648,16.14406 c 0.349438,0.578173 0.9298806,0.736997 1.198538,0.794432 1.6443858,0.351542 3.9297385,-0.892636 5.5435152,-1.482708 0,0 2.477034,-0.793937 2.949832,-4.291114 0.804883,-2.9045675 2.83001,-3.2300204 2.928154,-5.8360338 -0.0015,-9.807e-4 0.498606,-2.868148 -0.9776,-3.881307 z"/>
 <path style="opacity:0.2;fill:#8b9cbe" d="m 13.226562,1.0039061 c -0.372019,-0.0159 -0.801259,0.00695 -1.285156,0.095703 -2.309283,0.4231371 -3.7342422,1.7663496 -3.863281,3.6875 0,0 -0.031826,1.002726 -0.6484375,1.9101562 C 5.9768787,7.4925821 4.9068373,9.2833189 4.4003906,10.613281 3.7845225,13.114046 2.9110334,13.707716 3.0292969,15.019531 3.1410746,14.011184 3.8668459,13.279768 4.4003906,11.113281 4.9068373,9.7833189 5.9768787,7.9925821 7.4296875,7.1972655 8.0462995,6.2898353 8.078125,5.2871093 8.078125,5.2871093 c 0.1290388,-1.9211504 1.553998,-3.2643629 3.863281,-3.6875 1.935585,-0.3550006 3,0.3476562 3,0.3476562 0.818645,0.5618572 1.023158,1.6848404 1.048828,2.5820313 0.03798,-0.9251419 -0.0659,-2.4074211 -1.048828,-3.0820313 0,0 -0.598785,-0.3956592 -1.714844,-0.4433594 z"/>
</svg>
