<svg xmlns="http://www.w3.org/2000/svg" width="22" height="22" version="1">
 <path style="opacity:0.2" d="M 19.510105,6.4675355 A 2.4965589,2.50025 0 0 0 17.20687,7.9851135 L 15.234201,12.42945 c -0.400679,-0.715502 -0.830592,-1.546817 -1.303737,-2.373047 -0.249813,0.363633 -0.490932,0.732773 -0.722565,1.103515 l -0.08191,0.12793 -2.130639,3.792969 2.103336,3.744141 a 2.4965589,2.50025 0 0 0 4.502133,0.52539 2.4965589,2.50025 0 0 0 0.0029,-0.0039 c 0.0022,-0.0034 0.0038,-0.0073 0.0059,-0.01074 a 2.4965589,2.50025 0 0 0 0.12189,-0.228515 c 0.01551,-0.03146 0.0343,-0.05928 0.04876,-0.0918 l 1.42075,-3.201172 c -0.0025,0.0015 -0.0053,0.0024 -0.0078,0.0039 l 2.575278,-5.802737 A 2.4965589,2.50025 0 0 0 19.510105,6.4675355 Z M 2.4152619,6.468512 a 2.4965589,2.50025 0 0 0 -2.18329564,3.546875 l 2.57821954,5.809571 c 0.7020435,0.405434 1.4405722,0.623431 2.1013852,-0.08301 l 1.8507796,-3.294922 -0.00781,-0.01269 c 0.00235,-0.0042 0.00545,-0.0095 0.00781,-0.01367 L 4.7935814,7.9851155 A 2.4965589,2.50025 0 0 0 2.4152619,6.468512 Z M 8.9124917,18.789801 8.6677366,19.225348 C 7.7866877,20.792535 5.674834,20.894552 4.6014829,19.637458 A 2.4965589,2.50025 0 0 0 8.9124917,18.789801 Z M 4.6014829,19.637458 C 4.5450094,19.571318 4.49488,19.497238 4.4444885,19.42359 a 2.4965589,2.50025 0 0 0 0.1569944,0.213868 z"/>
 <path style="opacity:0.2" d="m 15.958509,1.4997641 c -0.550751,0 -0.997223,0.4465814 -0.997223,0.9974675 0,0.550886 0.446472,0.9974674 0.997223,0.9974674 0.550753,0 0.997225,-0.4465814 0.997225,-0.9974674 0,-0.5508861 -0.446472,-0.9974675 -0.997225,-0.9974675 z m -4.072091,-0.00143 c -0.327926,3.83e-4 -0.676252,0.093381 -1.027413,0.2805378 -1.3106552,0.69854 -1.9562746,1.9083374 -1.8746648,3.5115919 0.020605,0.40517 0.084877,0.840139 0.1421826,0.9662965 0.0573,0.1261575 0.152786,0.228911 0.2123,0.228911 0.05951,0 0.312197,-0.219624 0.561911,-0.488019 0.3395972,-0.3650055 0.6337952,-0.5769845 1.1676482,-0.842587 1.426708,-0.709811 1.557448,-0.790568 1.899985,-1.175726 0.645975,-0.726351 0.662086,-1.4414049 0.04674,-2.0261054 -0.31892,-0.30304 -0.707064,-0.4554019 -1.12869,-0.4549027 z M 7.0970161,5.489634 C 7.0271641,5.487584 6.9573076,5.493784 6.8876376,5.508144 6.3341899,5.622984 5.9010113,6.4919215 6.0004588,7.2878055 6.0621168,7.7812875 6.4828097,8.536677 6.8418668,8.798618 6.9977494,8.9123365 7.1998939,8.993102 7.2917861,8.9788245 7.4357063,8.9564495 7.467006,8.8644365 7.5177196,8.312547 7.5500917,7.9601715 7.6695526,7.430898 7.783581,7.136821 8.0324226,6.495076 8.0407838,6.286286 7.8313004,5.913365 7.6889459,5.65995 7.399699,5.499433 7.0970161,5.489636 Z"/>
 <path style="fill:none;stroke:#00a5f5;stroke-width:4.99630785;stroke-linecap:round;stroke-linejoin:round" d="M 2.512735,8.5000685 6.50683,17.500069"/>
 <path style="fill:none;stroke:#7369e8;stroke-width:4.99630785;stroke-linecap:round;stroke-linejoin:round" d="m 15.493543,17.500069 3.994095,-9.0000005 v 0 0"/>
 <path style="opacity:0.1;fill:#8b9cbe" d="m 19.510105,5.9675355 a 2.4965589,2.50025 0 0 0 -2.303235,1.517578 l -3.994095,9.0000005 a 2.4965589,2.50025 0 0 0 -0.223303,1.317383 2.4965589,2.50025 0 0 1 0.223303,-0.817383 L 17.20687,7.9851135 a 2.4965589,2.50025 0 0 1 2.303235,-1.517578 2.4965589,2.50025 0 0 1 2.472907,2.248047 2.4965589,2.50025 0 0 0 -2.472907,-2.748047 z M 2.4152619,5.968512 A 2.4965589,2.50025 0 0 0 0.01743976,8.716559 2.4965589,2.50025 0 0 1 2.4152619,6.468512 2.4965589,2.50025 0 0 1 4.7935814,7.9851135 L 8.7876762,16.985114 A 2.4965589,2.50025 0 0 1 9.0109788,17.803473 2.4965589,2.50025 0 0 0 8.7876762,16.485114 L 4.7935814,7.4851135 A 2.4965589,2.50025 0 0 0 2.4152619,5.968512 Z"/>
 <path style="fill:#00aeda" d="m 10.781526,7.751638 c 3.575562,3.462914 0.384462,-0.4902715 1.057597,-0.262071 1.632873,0.540837 0.152555,-0.628679 0.889708,0.2055075 1.007405,1.3192003 1.794617,2.9659005 2.508011,4.2392585 l -0.0078,0.01269 1.85078,3.294922 c 0.666924,0.712971 1.413045,0.484894 2.120888,0.07227 l -1.420751,3.201172 c -0.834562,1.877833 -3.449389,2.001032 -4.456303,0.209961 l -4.4582416,-7.9375 -0.08191,-0.12793 C 7.8922951,9.2335098 10.385669,10.35107 9.1884748,9.2661688 c -0.133925,-0.118661 0.280241,-0.26462 0.363067,-0.4677438 0.335896,-0.82376 0.288586,0.4146778 0.9958062,0.2665348 0.14738,-0.02032 -0.161482,0.0027 0,0 z"/>
 <path style="opacity:0.2;fill:#8b9cbe" d="m 12.508738,7.3874575 c -0.0072,0.012085 0.03856,0.082167 0.128716,0.1943355 0.03407,-0.081449 -0.113659,-0.2196025 -0.128716,-0.1943355 z m 0.128716,0.1943355 c -0.03113,0.074402 -0.213983,0.101847 -0.798624,-0.091796 -0.186334,-0.06317 -0.07214,0.197653 0.108238,0.5292965 0.481039,0.147156 0.661494,0.131833 0.690386,0.063477 -0.278758,-0.3468475 0.05086,-0.120334 0,0 0.03005,0.03739 0.04558,0.061144 0.09167,0.113281 1.007404,1.3192003 1.794616,2.9659005 2.508011,4.2392575 l -0.0078,0.01269 1.85078,3.294922 c 0.576001,0.615773 1.210854,0.528312 1.829326,0.227539 l 0.29156,-0.65625 c -0.707842,0.412629 -1.453963,0.640706 -2.120886,-0.07227 l -1.850795,-3.294912 0.0078,-0.01269 C 14.523734,10.660975 13.736522,9.0142748 12.729118,7.6950745 12.683048,7.6429385 12.667508,7.6191825 12.637458,7.581793 Z m -1.855655,0.169922 -0.233055,1.3066408 c 0.0353,-0.0023 0.06712,-0.0025 -9.97e-4,0.0068 -0.7072212,0.148144 -0.6606782,-1.0903613 -0.9965752,-0.2666013 -0.082827,0.2031243 -0.496669,0.3491123 -0.362744,0.4677733 0.09245,0.08377 0.156984,0.150267 0.208675,0.209961 0.06598,-0.05453 0.127412,-0.111383 0.154069,-0.176758 0.335897,-0.8237598 0.289353,0.414746 0.9965752,0.266602 -0.08688,0.0015 -0.04014,-0.0041 9.97e-4,-0.0068 l 0.233054,-1.3066413 c 2.055299,1.9905475 1.862819,1.5161433 1.465607,0.8085943 C 11.999787,8.8891505 11.55606,8.501584 10.781799,7.751715 Z m -0.233055,1.8076178 -9.97e-4,0.0068 c 0.06809,-0.0094 0.03627,-0.0091 9.97e-4,-0.0068 z m -9.97e-4,-0.494141 9.97e-4,-0.0068 c -0.0411,0.0026 -0.08785,0.0083 -9.97e-4,0.0068 z m -1.3056872,0.753906 c -0.3465705,0.03559 -0.8566823,0.0329 -0.5655707,0.6435552 0.311877,-0.267258 1.3156247,0.06502 0.5655707,-0.6435552 z"/>
 <path style="opacity:0.2" d="m 14.347816,5.531409 c -0.484447,-0.008 -1.040153,0.07258 -1.713288,0.300781 -1.632873,0.540837 -2.6348132,1.5289195 -3.3719672,2.363106 -1.0074052,1.3192008 -1.7946163,2.9659 -2.5080111,4.239258 l 0.0078,0.01269 -1.8507796,3.294922 c -0.6669235,0.712971 -1.4130443,0.484894 -2.1208876,0.07227 l 1.4207512,3.201172 c 0.8345606,1.877832 3.4493892,2.001031 4.456302,0.209961 l 4.4582513,-7.9375 0.08191,-0.12793 C 14.099088,9.7337308 15.118344,8.318457 16.315539,7.2335565 16.449464,7.114895 16.550484,6.922032 16.467658,6.718908 16.131762,5.895148 15.517238,5.7147075 14.810018,5.566564 14.662638,5.546239 14.509292,5.534079 14.34781,5.531409 Z"/>
 <path style="fill:#20ebff" d="m 14.347816,5.0311875 c -0.484447,-0.00801 -1.040153,0.07258 -1.713288,0.300781 C 11.001655,5.8728055 9.9997148,6.860888 9.2625608,7.6950745 8.2551556,9.0142748 7.4679445,10.660975 6.7545497,11.934333 l 0.0078,0.01269 -1.8507796,3.294922 c -0.6669235,0.712971 -1.4130443,0.484894 -2.1208877,0.07227 l 1.4207513,3.201172 c 0.8345606,1.877833 3.4493892,2.001032 4.456302,0.209961 l 4.4582513,-7.9375 0.08191,-0.12793 c 0.891202,-1.4264082 1.910458,-2.8416815 3.107653,-3.926582 0.133925,-0.1186615 0.234945,-0.3115245 0.152119,-0.5146485 -0.335896,-0.82376 -0.95042,-1.0042005 -1.65764,-1.152344 -0.14738,-0.020325 -0.300726,-0.032485 -0.462208,-0.035155 z"/>
 <ellipse style="fill:#20ebff" cx="15.978" cy="2" rx=".999" ry="1"/>
 <path style="fill:#20ebff" d="M 11.901327,1.000001 C 11.572974,1.0003849 11.224452,1.09361 10.872833,1.2812423 9.5604698,1.9815559 8.9137211,3.1942108 8.9954371,4.8015358 c 0.02063,0.4061985 0.084525,0.842067 0.1419067,0.968545 0.057386,0.1264775 0.153158,0.229919 0.212749,0.229919 0.059591,0 0.312833,-0.2201555 0.562873,-0.489232 C 10.253005,5.1448353 10.547775,4.9318483 11.082324,4.6655713 12.510891,3.9539583 12.641278,3.8730918 12.984262,3.4869558 13.63108,2.7587604 13.647865,2.0425884 13.031722,1.4564033 12.712383,1.1525968 12.323501,0.99950039 11.901327,1.000001 Z"/>
 <path style="fill:#20ebff" d="m 7.1060728,5.0001725 c -0.069942,-0.00205 -0.1406042,0.00365 -0.210365,0.01803 -0.5541692,0.115132 -0.9880073,0.98632 -0.8884305,1.7842245 0.061738,0.494735 0.4828926,1.2518685 0.8424175,1.5144745 0.1560858,0.1140075 0.3589908,0.195544 0.4510027,0.18123 C 7.4448049,8.4757015 7.4761411,8.383036 7.526921,7.8297455 7.559333,7.4764755 7.6793322,6.9461865 7.7935094,6.651363 8.042675,6.0079885 8.050841,5.7985295 7.841084,5.4246615 7.6985443,5.1706035 7.4091477,5.010007 7.1060703,5.000185 Z"/>
 <path style="opacity:0.2;fill:#8b9cbe" d="m 15.978653,0.99976199 c -0.55147,0 -0.998524,0.44771531 -0.998524,1.00000001 2.37e-4,0.084032 0.01106,0.1676995 0.03219,0.2490234 0.114534,-0.4405717 0.511754,-0.7480608 0.966342,-0.7480469 0.45543,3.305e-4 0.852931,0.3092409 0.966344,0.7509766 0.02138,-0.082273 0.03219,-0.1669403 0.03218,-0.2519531 0,-0.5522847 -0.447055,-1.00000001 -0.998523,-1.00000001 z m -4.077115,1.513e-4 c -0.328352,3.8391e-4 -0.677132,0.093618 -1.028751,0.28125001 -1.3123632,0.7003136 -1.9588242,1.913183 -1.8771083,3.520508 4.274e-4,0.00841 0.0015,0.015985 0.002,0.024415 0.059439,-1.3699995 0.6966611,-2.4150682 1.8751553,-3.0439455 0.351619,-0.1876319 0.700398,-0.280866 1.028751,-0.28125 0.422177,-5e-4 0.810827,0.1522482 1.130166,0.4560547 0.224644,0.2137207 0.362678,0.4448204 0.419302,0.6875 C 13.544053,2.2177853 13.406693,1.812723 13.031704,1.455968 12.712365,1.1521615 12.323715,0.99941269 11.901538,0.99991329 Z M 7.1058949,4.999762 C 7.0359529,4.997712 6.9660047,5.003912 6.8962439,5.018317 6.3420747,5.133449 5.908332,6.0045925 6.0079088,6.802497 c 8.487e-4,0.0068 0.00484,0.01556 0.00585,0.02246 0.077275,-0.635996 0.4386949,-1.2134645 0.8824843,-1.3056645 0.069761,-0.014405 0.1397084,-0.020605 0.209651,-0.018555 0.3030774,0.00982 0.5927012,0.170747 0.735241,0.4248045 0.048718,0.086836 0.083337,0.163652 0.1082385,0.2402345 C 8.0189622,5.869351 7.9854593,5.6818055 7.8411342,5.4245655 7.6985961,5.1705085 7.4089723,5.009584 7.1058949,4.999762 Z m 7.2419211,0.03125 c -0.484447,-0.008 -1.040153,0.07258 -1.713288,0.300781 C 11.001655,5.8726305 9.9997148,6.860888 9.2625608,7.6950745 8.2551556,9.0142748 7.4679445,10.660975 6.7545497,11.934333 l 0.0078,0.01269 -1.8507796,3.294922 c -0.6669235,0.712971 -1.4130443,0.484894 -2.1208877,0.07227 l 0.2915611,0.65625 c 0.618472,0.300773 1.2533241,0.388234 1.8293266,-0.227539 l 1.8507796,-3.294922 -0.0078,-0.01269 C 7.4679445,11.161951 8.2551556,9.5152518 9.2625608,8.196051 9.9997148,7.3618645 11.001655,6.373607 12.634528,5.83277 c 0.673135,-0.2282005 1.228841,-0.3087865 1.713288,-0.3007815 0.161482,0.00265 0.314828,0.01483 0.462207,0.035155 0.674254,0.141238 1.261399,0.318402 1.606024,1.0478515 0.0739,-0.1114845 0.111027,-0.250944 0.05168,-0.3964845 -0.335896,-0.82376 -0.950485,-1.0042005 -1.657705,-1.152344 -0.147379,-0.020325 -0.300725,-0.032485 -0.462207,-0.035155 z"/>
</svg>
