<svg xmlns="http://www.w3.org/2000/svg" width="22" height="22" version="1.1">
 <circle style="opacity:0.2" cx="11" cy="11.5" r="10"/>
 <circle style="fill:#3c4153" cx="11" cy="11" r="10"/>
 <path style="opacity:0.2" d="m 11.001953,3.4999783 c -0.705665,0 -1.022594,0.027243 -1.542968,0.133789 -0.430126,0.088089 -1.1265465,0.2860372 -1.222657,0.3476563 -0.02437,0.01561 0.255137,0.3071949 1.351563,1.4082034 0.760359,0.7635345 1.3971,1.388672 1.414062,1.388672 0.01697,0 0.652732,-0.6251375 1.413086,-1.388672 1.096426,-1.1010085 1.375931,-1.3925838 1.351563,-1.4082034 -0.09611,-0.061619 -0.792526,-0.2595672 -1.222656,-0.3476563 -0.520369,-0.106561 -0.836328,-0.133789 -1.541993,-0.133789 z m 4.775391,1.5566407 c -0.03313,-0.013525 -3.259766,3.216961 -3.259766,3.263672 0,0.033865 1.6149,1.665039 1.648438,1.665039 0.01145,0 0.163421,-0.144266 0.33789,-0.320312 0.174475,-0.176046 0.527305,-0.523488 0.783203,-0.7724615 l 0.464844,-0.453125 0.08398,0.1308595 c 0.207912,0.3208575 0.475359,0.933397 0.601563,1.37793 0.155309,0.547046 0.207031,0.934475 0.207031,1.569336 0,0.540645 -0.01703,0.720774 -0.105469,1.146484 -0.09556,0.460066 -0.23301,0.873332 -0.427734,1.28418 -0.138951,0.293167 -0.330852,0.62207 -0.363281,0.62207 -0.01368,0 -1.087429,-1.065931 -2.385742,-2.36914 L 11.001949,9.831033 8.640621,12.201151 c -1.298308,1.303209 -2.3710715,2.36914 -2.3847655,2.36914 -0.032425,0 -0.2253075,-0.328903 -0.364258,-0.62207 -0.2492315,-0.52587 -0.418844,-1.105758 -0.5048825,-1.72168 -0.036375,-0.260428 -0.036375,-1.158512 0,-1.418945 C 5.447793,10.370374 5.5528605,9.944294 5.701168,9.534158 5.797233,9.268483 6.0401205,8.76608 6.166988,8.570291 L 6.2509765,8.4394315 6.696289,8.872049 c 0.244631,0.23766 0.596485,0.585113 0.7822265,0.772461 0.185747,0.187348 0.3470605,0.34082 0.3583985,0.34082 0.03354,0 1.649414,-1.6311765 1.649414,-1.665039 0,-0.017035 -0.728277,-0.7620585 -1.618164,-1.6552735 C 6.3039415,5.0949435 6.2487395,5.042413 6.2041015,5.070291 6.1134825,5.126892 5.7623015,5.4203285 5.553711,5.6142365 3.6703736,7.3650085 2.7334459,9.969491 3.0664062,12.526345 c 0.1699151,1.30476 0.6571211,2.550051 1.4189453,3.626954 0.2712745,0.383473 0.473336,0.619339 0.8720705,1.018554 0.3509355,0.351355 0.8287275,0.768327 0.881836,0.769531 0.011145,2.5e-4 1.0803175,-1.062879 2.3759765,-2.363281 1.2956535,-1.300402 2.3698675,-2.365234 2.3867185,-2.365234 0.01687,0 1.08104,1.055927 2.365234,2.345703 1.284194,1.28978 2.351613,2.353814 2.372071,2.365234 0.09218,0.05146 1.082012,-0.872763 1.504882,-1.405273 0.726948,-0.915435 1.251718,-1.987875 1.527344,-3.120117 0.272759,-1.120482 0.301904,-2.347684 0.08203,-3.454102 C 18.52207,8.27645 17.681501,6.765228 16.439453,5.606424 16.231151,5.4120845 15.827671,5.0771605 15.777344,5.056619 Z M 11.001953,16.26658 c -0.01692,0 -0.642618,0.616401 -1.389648,1.370117 l -1.358399,1.370117 0.119141,0.04492 c 0.5608125,0.211907 1.471605,0.392006 2.180664,0.430664 0.427668,0.02328 0.444144,0.02332 0.847656,0.001 0.443135,-0.02445 0.753659,-0.06325 1.177735,-0.146485 0.313308,-0.0615 0.825439,-0.200769 1.052734,-0.286133 l 0.117188,-0.04395 -1.358399,-1.370117 C 11.6436,16.882981 11.018849,16.26658 11.001953,16.26658 Z"/>
 <path style="opacity:0.1;fill:#8b9cbe" d="M 11,1 A 10,10 0 0 0 1,11 10,10 0 0 0 1.0107422,11.291016 10,10 0 0 1 11,1.5 10,10 0 0 1 20.989258,11.208985 10,10 0 0 0 21,11 10,10 0 0 0 11,1 Z"/>
 <path style="fill:#984ee5" d="m 11.400942,18.983428 c 0.443135,-0.02445 0.753632,-0.063 1.177708,-0.14624 0.313308,-0.0615 0.826028,-0.200787 1.053323,-0.286151 l 0.11676,-0.04383 -1.358231,-1.370391 c -0.747025,-0.753716 -1.372057,-1.370395 -1.388953,-1.370395 -0.01692,0 -0.641927,0.616679 -1.388958,1.370396 l -1.3582305,1.37039 0.119081,0.045 c 0.5608125,0.211907 1.4711565,0.391522 2.1802155,0.43018 0.427668,0.02329 0.443773,0.02334 0.847285,0.001 z"/>
 <path style="fill:#d8d9e2" d="m 8.615327,15.077651 c 1.295654,-1.300403 2.369524,-2.36437 2.386375,-2.36437 0.01687,0 1.081338,1.055278 2.365532,2.345054 1.284194,1.28978 2.351635,2.354399 2.372092,2.365819 0.09219,0.05145 1.081932,-0.872968 1.504801,-1.405479 0.726949,-0.915434 1.252145,-1.988116 1.527772,-3.120359 0.272758,-1.120482 0.3019,-2.347611 0.08203,-3.454029 C 18.52248,7.776422 17.681523,6.2656995 16.439475,5.1068955 16.231173,4.912556 15.827185,4.5769125 15.776857,4.556371 c -0.03313,-0.013525 -3.259654,3.216843 -3.259654,3.263554 0,0.033865 1.615401,1.665485 1.648939,1.665485 0.01145,0 0.163577,-0.144044 0.338047,-0.32009 0.174474,-0.1760455 0.526595,-0.523785 0.782494,-0.772758 l 0.465269,-0.452673 0.08441,0.130265 c 0.207912,0.3208575 0.475361,0.933535 0.601565,1.378068 0.155309,0.547047 0.206164,0.934023 0.206164,1.568884 0,0.540646 -0.01656,0.72169 -0.104997,1.1474 -0.09556,0.460066 -0.233131,0.87279 -0.427855,1.283638 -0.138951,0.293168 -0.331228,0.622079 -0.363657,0.622079 -0.01368,0 -1.087154,-1.066266 -2.385467,-2.369475 L 11.00155,9.331273 8.640982,11.700748 c -1.298308,1.303209 -2.3717685,2.369475 -2.3854625,2.369475 -0.032425,0 -0.224711,-0.328911 -0.3636615,-0.622079 -0.2492315,-0.525869 -0.4195265,-1.105808 -0.5055655,-1.721729 -0.036375,-0.260428 -0.036375,-1.158189 0,-1.418622 C 5.4473705,9.870571 5.5526815,9.444363 5.700989,9.034227 5.797054,8.768551 6.039867,8.265948 6.1667345,8.070159 l 0.084408,-0.13026 0.4447915,0.4321165 c 0.244631,0.23766 0.596762,0.5854045 0.7825035,0.7727535 0.185747,0.187348 0.346999,0.340641 0.358337,0.340641 0.03354,0 1.6491175,-1.631434 1.6491175,-1.6652965 0,-0.017035 -0.7280885,-0.761796 -1.6179755,-1.655011 C 6.303694,4.5950285 6.2484065,4.542028 6.2037685,4.569906 6.1131495,4.626507 5.762513,4.9200705 5.5539225,5.1139785 3.6705852,6.8647505 2.7332432,9.469109 3.0662035,12.025963 c 0.1699151,1.30476 0.6572423,2.550453 1.4190665,3.627355 0.2712745,0.383474 0.473071,0.619206 0.8718055,1.018421 0.3509355,0.351355 0.8291285,0.768614 0.882237,0.769819 0.011145,2.49e-4 1.0803555,-1.063505 2.3760145,-2.363907 z"/>
 <path style="fill:#984ee5" d="M 12.41485,4.8898435 C 13.511276,3.7888353 13.790965,3.4975187 13.766597,3.4818991 13.670486,3.42028 12.973986,3.2221421 12.543855,3.1340531 12.023487,3.027492 11.707214,3.0000001 11.001549,3.0000001 c -0.705664,0 -1.021937,0.027507 -1.542311,0.134053 -0.430125,0.088089 -1.126625,0.286227 -1.2227355,0.347846 -0.02437,0.01561 0.2553155,0.3069362 1.3517405,1.4079444 0.76036,0.7635345 1.396345,1.388247 1.413306,1.388247 0.01697,0 0.652946,-0.6247125 1.413301,-1.388247 z"/>
 <path style="opacity:0.2;fill:#8b9cbe" d="M 11.001953,3 C 10.296288,3 9.979359,3.027243 9.458985,3.133789 9.028859,3.2218781 8.3324385,3.4198262 8.236328,3.4814453 8.223183,3.4898648 8.333946,3.6135002 8.578125,3.8662109 8.844699,3.7838174 9.179999,3.690925 9.458985,3.633789 9.979359,3.527243 10.296288,3.5 11.001953,3.5 c 0.705665,0 1.021624,0.027228 1.541993,0.133789 0.278988,0.057136 0.614286,0.1500284 0.880858,0.2324219 0.24418,-0.2527092 0.354942,-0.3763407 0.341798,-0.3847656 C 13.670491,3.4198262 12.974076,3.2218781 12.543946,3.133789 12.023577,3.027228 11.707618,3 11.001953,3 Z m 4.775391,1.5566405 c -0.03313,-0.013525 -3.259766,3.216961 -3.259766,3.263672 0,0.00505 0.180993,0.1865985 0.242188,0.251953 0.413947,-0.4511775 2.986925,-3.0281365 3.017578,-3.015625 0.05033,0.02054 0.453807,0.3554655 0.662109,0.549805 1.242048,1.158804 2.082617,2.670026 2.414062,4.3378905 0.08719,0.438729 0.123599,0.897825 0.132813,1.360352 0.02551,-0.631594 -0.01418,-1.263349 -0.132813,-1.860352 C 18.52207,7.7764715 17.681501,6.2652495 16.439453,5.1064455 16.231151,4.912106 15.827671,4.577182 15.777344,4.5566405 Z m -9.5732425,0.01367 C 6.1134825,4.6269115 5.7623015,4.920348 5.553711,5.114256 3.8607236,6.688076 2.9353099,8.9521655 3.0068359,11.250975 3.0739642,9.12697 3.983621,7.0738295 5.553711,5.614256 5.7623015,5.420348 6.1134825,5.1269115 6.2041015,5.0703105 6.2487415,5.0424305 6.3039415,5.0949655 7.868164,6.665037 8.6247795,7.424482 9.069479,7.8834415 9.244141,8.0722635 9.305311,8.0069755 9.486328,7.825356 9.486328,7.8203105 9.486328,7.8032755 8.758051,7.058252 7.868164,6.165037 6.3039415,4.594963 6.2487395,4.5424325 6.2041015,4.5703105 Z M 11.001953,9.331053 8.640625,11.70117 c -1.298308,1.303209 -2.3710715,2.369141 -2.3847655,2.369141 -0.032425,0 -0.2253075,-0.328903 -0.364258,-0.622071 C 5.64237,12.922371 5.4727575,12.342482 5.386719,11.726561 c -0.011775,-0.0843 -0.013425,-0.284319 -0.01758,-0.458985 -0.00863,0.364785 -0.007,0.783033 0.01758,0.958985 0.086038,0.615921 0.255651,1.19581 0.5048825,1.721679 0.1389505,0.293168 0.331833,0.622071 0.364258,0.622071 0.013695,0 1.0864575,-1.065932 2.3847655,-2.369141 l 2.361328,-2.370117 2.360352,2.370117 c 1.298313,1.303209 2.372062,2.369141 2.385742,2.369141 0.03243,0 0.22433,-0.328903 0.363281,-0.622071 0.194724,-0.410848 0.33217,-0.824113 0.427734,-1.284179 0.08843,-0.42571 0.105469,-0.605839 0.105469,-1.146485 0,-0.102258 -0.0039,-0.190129 -0.0068,-0.28125 -0.0064,0.355127 -0.02589,0.577586 -0.09863,0.927735 -0.09556,0.460066 -0.23301,0.873331 -0.427734,1.284179 -0.138951,0.293168 -0.330852,0.622071 -0.363281,0.622071 -0.01368,0 -1.087429,-1.065932 -2.385743,-2.369141 z m 0,6.435546 c -0.01692,0 -0.642618,0.616401 -1.389648,1.370118 l -1.358399,1.370117 0.119141,0.04492 c 0.074251,0.02806 0.167689,0.05339 0.2529295,0.08008 L 9.612305,17.636717 c 0.74703,-0.753717 1.372728,-1.370118 1.389648,-1.370118 0.01689,0 0.641647,0.616379 1.388672,1.370118 L 13.375,18.629883 c 0.08905,-0.02715 0.197772,-0.05692 0.256836,-0.0791 l 0.117188,-0.04395 -1.358399,-1.370117 C 11.6436,16.383002 11.018849,15.766601 11.001953,15.766601 Z"/>
</svg>
