<svg xmlns="http://www.w3.org/2000/svg" width="22" height="22" version="1.1">
 <path style="fill:#f3b616" d="M 11,1 A 10,10 0 0 0 1,11 10,10 0 0 0 11,21 10,10 0 0 0 21,11 10,10 0 0 0 11,1 Z"/>
 <path style="opacity:0.2" d="M 1.01075,11.209 A 10,10 0 0 0 1,11.5 10,10 0 0 0 11,21.5 10,10 0 0 0 21,11.5 10,10 0 0 0 20.9895,11.291 10,10 0 0 1 11,21 10,10 0 0 1 1.011,11.209 Z"/>
 <path style="opacity:0.2;fill:#8b9cbe" d="m 11,1 a 10,10 0 0 0 -10,10 10,10 0 0 0 0.01075,0.209 10,10 0 0 1 9.989,-9.709 10,10 0 0 1 9.9895,9.791 10,10 0 0 0 0.0105,-0.291 10,10 0 0 0 -10,-10 z"/>
 <path style="opacity:0.2" d="m 18.44905,1.5 c 0.353048,2.06e-5 0.550349,0.2795412 0.591899,0.8385724 l -0.445933,2.6327176 0.109034,0 0.233642,-0.195018 0.06231,0 0,0.058506 c -0.321929,0.247038 -0.633456,0.92309 -0.934581,2.028166 -0.11424,0.9490935 -0.30635,1.8266645 -0.576327,2.632723 -0.238847,0.832078 -0.358267,1.599138 -0.358252,2.301192 l -0.451715,1.384614 c -10e-6,0.117015 0.171328,0.234026 0.514018,0.351027 -0.06232,0.27303 -0.155775,0.409542 -0.280372,0.409538 l 0,0.07801 0.109034,0 0,0.0585 c -1.5e-5,0.143019 -0.176543,0.214525 -0.529595,0.21452 l 0.0623,0.07801 0,0.273021 -0.109034,0 c 0.07268,0.273031 0.22844,0.409538 0.467292,0.409538 l 0,0.136508 -0.467292,0 0,0.07801 c 0.15575,5e-6 0.233636,0.117016 0.233646,0.351032 l -0.654203,0.27302 0.0623,0.07801 0,0.05851 c -9e-6,0.09101 -0.07789,0.136512 -0.233646,0.136512 l 0,0.078 c 0.197287,5e-6 0.29594,0.04549 0.29595,0.136513 -0.280382,0.117011 -0.649021,0.695559 -1.105917,1.735645 C 14.576312,19.038463 14.171328,19.5 13.828662,19.5 l -0.124612,0 c -0.259613,-0.208019 -0.472492,-0.897078 -0.638629,-2.067176 -0.664598,-1.781144 -0.996893,-2.82773 -0.996883,-3.139759 -10e-6,-0.806059 -0.212888,-1.164292 -0.63863,-2.074371 -0.114235,-0.403027 -0.192115,-1.107791 -0.233646,-1.718853 l -0.280372,0 c -0.706134,1.339119 -1.074773,2.005584 -1.105922,2.759638 -0.197301,0.442041 -0.353067,0.975085 -0.467288,1.599133 0.425748,0.143018 0.638626,0.279526 0.638631,0.409532 l 0,0.07801 C 9.649007,15.294154 9.415365,15.196643 9.280372,15.05363 9.134993,15.404662 8.9428825,15.97967 8.7040505,17.578797 8.517131,18.319861 8.283485,18.599928 8.0031175,18.599928 7.2139125,18.274903 6.554515,17.832321 6.0249245,17.091257 c -0.083076,6e-6 -0.218074,-0.370529 -0.404984,-1.111592 -0.11423,5e-6 -0.1921105,-0.370529 -0.233646,-1.111593 C 4.991692,13.81499 4.721706,13.012462 4.5763265,11.660347 l 0,-2.028172 -0.062308,0 -0.2803724,0.07801 0,-0.07801 c 0,-0.09099 0.093457,-0.136497 0.2803724,-0.136507 l -0.062303,-1.1700985 0,-0.9165795 L 4,3.9841014 4,2.7359965 C 4.1973012,1.95595 4.5399815,1.5659191 5.0280365,1.5658986 l 0.186925,0.195018 -0.186915,-0.058505 c 0.758046,1.0401013 1.20457,2.4173208 1.339563,3.1323663 l 0.5295955,0 0,0.1365125 -0.4049835,0 0,0.1560145 C 6.647982,5.725365 6.762207,6.0243925 6.834902,6.0243775 l 0.1246115,0 0.280372,-0.078008 0.062304,0.078008 0.062308,-0.078008 0.062303,0.078008 0,0.058505 C 7.219113,6.2389075 7.0789295,6.453427 7.0062395,6.726437 l -0.04672,0 0,0.1365075 0.1090345,0 C 7.2139285,9.03414 7.4839195,10.178406 7.878522,11.296494 l 0.233646,0.195013 0.1246065,0 c 0.155761,10e-6 0.4828645,0.239651 0.9813105,-1.281484 C 9.539993,9.52098 9.773634,9.016437 9.919018,8.4963838 l -0.0623,-0.2145201 c 0.3219,-0.5070314 0.654194,-0.7605494 0.996879,-0.7605649 l 0.109035,0 c 0.218064,1.55e-5 0.373825,0.1430235 0.467292,0.4290395 0.290749,0.429045 0.524395,0.972592 0.700933,1.8306507 l 0.872276,2.028166 c 0.114216,0.143024 0.171328,0.305534 0.171338,0.487546 0.321903,0.767066 0.612657,0.956281 0.872276,1.203299 l 0.186915,0 c 0.218059,5e-6 0.508813,-1.131087 0.872271,-3.029252 0.0623,10e-6 0.233636,-0.507032 0.514018,-1.521126 l 0,-0.078007 -0.29634,-0.136513 -0.233646,0.078008 -0.29595,0 0,-0.1560145 0.591899,-0.058506 0.467683,0 c 0.44651,-1.677124 0.856685,-2.977234 1.230529,-3.9003245 0.124597,-1.8981397 0.29594,-2.8472172 0.514019,-2.8472326 L 18.449067,1.5"/>
 <path style="fill:#8b9cbe" d="m 18.44905,1 c 0.353048,2.06e-5 0.550349,0.2795412 0.591899,0.8385724 l -0.445933,2.6327176 0.109034,0 0.233642,-0.195018 0.06231,0 0,0.058506 c -0.321929,0.247038 -0.633456,0.92309 -0.934581,2.028166 -0.11424,0.9490935 -0.30635,1.8266645 -0.576327,2.632723 -0.238847,0.832078 -0.358267,1.599138 -0.358252,2.301192 l -0.451715,1.384614 c -10e-6,0.117015 0.171328,0.234026 0.514018,0.351027 -0.06232,0.27303 -0.155775,0.409542 -0.280372,0.409538 l 0,0.07801 0.109034,0 0,0.0585 c -1.5e-5,0.143019 -0.176543,0.214525 -0.529595,0.21452 l 0.0623,0.07801 0,0.273021 -0.109034,0 c 0.07268,0.273031 0.22844,0.409538 0.467292,0.409538 l 0,0.136508 -0.467292,0 0,0.07801 c 0.15575,5e-6 0.233636,0.117016 0.233646,0.351032 l -0.654203,0.27302 0.0623,0.07801 0,0.05851 c -9e-6,0.09101 -0.07789,0.136512 -0.233646,0.136512 l 0,0.078 c 0.197287,5e-6 0.29594,0.04549 0.29595,0.136513 -0.280382,0.117011 -0.649021,0.695559 -1.105917,1.735645 C 14.576312,18.538463 14.171328,19 13.828662,19 l -0.124612,0 c -0.259613,-0.208019 -0.472492,-0.897078 -0.638629,-2.067176 -0.664598,-1.781144 -0.996893,-2.82773 -0.996883,-3.139759 -10e-6,-0.806059 -0.212888,-1.164292 -0.63863,-2.074371 -0.114235,-0.403027 -0.192115,-1.107791 -0.233646,-1.718853 l -0.280372,0 c -0.706134,1.339119 -1.074773,2.005584 -1.105922,2.759638 -0.197301,0.442041 -0.353067,0.975085 -0.467288,1.599133 0.425748,0.143018 0.638626,0.279526 0.638631,0.409532 l 0,0.07801 C 9.649007,14.794154 9.415365,14.696643 9.280372,14.55363 9.134993,14.904662 8.9428825,15.47967 8.7040505,17.078797 8.517131,17.819861 8.283485,18.099928 8.0031175,18.099928 7.2139125,17.774903 6.554515,17.332321 6.0249245,16.591257 c -0.083076,6e-6 -0.218074,-0.370529 -0.404984,-1.111592 -0.11423,5e-6 -0.1921105,-0.370529 -0.233646,-1.111593 C 4.991692,13.31499 4.721706,12.512462 4.5763265,11.160347 l 0,-2.028172 -0.062308,0 -0.2803724,0.07801 0,-0.07801 c 0,-0.09099 0.093457,-0.1364975 0.2803724,-0.1365075 l -0.062303,-1.170098 0,-0.9165795 L 4,3.4841014 4,2.2359965 C 4.1973012,1.45595 4.5399815,1.0659191 5.0280365,1.0658986 l 0.186925,0.195018 -0.186915,-0.058505 c 0.758046,1.0401013 1.20457,2.4173208 1.339563,3.1323663 l 0.5295955,0 0,0.1365125 -0.4049835,0 0,0.1560145 C 6.647982,5.225365 6.762207,5.5243925 6.834902,5.5243775 l 0.1246115,0 0.280372,-0.078008 0.062304,0.078008 0.062308,-0.078008 0.062303,0.078008 0,0.058505 C 7.219113,5.7389075 7.0789295,5.953427 7.0062395,6.226437 l -0.04672,0 0,0.1365075 0.1090345,0 C 7.2139285,8.53414 7.4839195,9.678406 7.878522,10.796494 l 0.233646,0.195013 0.1246065,0 c 0.155761,10e-6 0.4828645,0.239651 0.9813105,-1.281484 C 9.539993,9.02098 9.773634,8.5164367 9.919018,7.9963838 l -0.0623,-0.2145201 c 0.3219,-0.5070314 0.654194,-0.7605494 0.996879,-0.7605649 l 0.109035,0 c 0.218064,1.55e-5 0.373825,0.1430235 0.467292,0.4290395 0.290749,0.429045 0.524395,0.972592 0.700933,1.8306507 l 0.872276,2.028166 c 0.114216,0.143024 0.171328,0.305534 0.171338,0.487546 0.321903,0.767066 0.612657,0.956281 0.872276,1.203299 l 0.186915,0 c 0.218059,5e-6 0.508813,-1.131087 0.872271,-3.029252 0.0623,10e-6 0.233636,-0.507032 0.514018,-1.521126 l 0,-0.078007 -0.29634,-0.136513 -0.233646,0.078008 -0.29595,0 0,-0.1560145 0.591899,-0.058506 0.467683,0 c 0.44651,-1.677124 0.856685,-2.977234 1.230529,-3.9003245 0.124597,-1.8981397 0.29594,-2.8472172 0.514019,-2.8472326 L 18.449067,1"/>
</svg>
