<svg xmlns="http://www.w3.org/2000/svg" width="22" height="22" version="1">
 <path style="fill:#0091cf" d="m 20,11.487715 c 0,2.540378 -0.997124,4.847865 -2.62134,6.552432 -1.730318,1.815917 -4.606784,0.003 -7.313111,0.003 -2.7478395,0 -4.7887454,1.77798 -6.5233292,-0.087 C 1.9648016,16.260105 1,13.986582 1,11.487715 1,6.2410123 5.2532949,1.9877174 10.5,1.9877174 c 5.246704,0 9.5,4.2532949 9.5,9.4999976 z"/>
 <path style="opacity:0.1;fill:#8b9cbe" d="m 10.5,1.9882812 c -5.2467051,0 -9.5,4.2532974 -9.5,9.4999998 0,0.08566 0.00947,0.168792 0.011719,0.253907 C 1.1432895,6.6101623 5.3362516,2.4882812 10.5,2.4882812 c 5.16309,0 9.355692,4.1208382 9.488281,9.2519528 C 19.990499,11.655796 20,11.573254 20,11.488281 20,6.2415786 15.746704,1.9882812 10.5,1.9882812 Z"/>
 <path style="opacity:0.2" d="m 15,1.5 -2,2 h -3 v 3 l -2,2 2,2 v 3 h 3 l 2,2 2,-2 h 3 v -3 l 2,-2 -2,-2 v -3 h -3 z"/>
 <path style="fill:#ff8a47" d="m 15,1 -2,2 h -3 v 3 l -2,2 2,2 v 3 h 3 l 2,2 2,-2 h 3 V 10 L 22,8 20,6 V 3 h -3 z"/>
 <circle style="opacity:0.2" cx="15" cy="8.5" r="4"/>
 <circle style="fill:#ffcc42" cx="15" cy="8" r="4"/>
 <path style="opacity:0.2;fill:#8b9cbe" d="m 15,1 -2,2 h -3 v 0.5 h 3 l 2,-2 2,2 h 3 V 3 H 17 Z M 10,6 8,8 8.25,8.25 10,6.5 Z M 20,6 V 6.5 L 21.75,8.25 22,8 Z"/>
 <path style="opacity:0.2;fill:#8b9cbe" d="M 15,4 A 4,4 0 0 0 11,8 4,4 0 0 0 11.01074,8.288086 4,4 0 0 1 15,4.5 4,4 0 0 1 18.989258,8.211914 4,4 0 0 0 19,8 4,4 0 0 0 15,4 Z"/>
 <circle style="opacity:0.2" cx="10.5" cy="14.5" r="4"/>
 <path style="opacity:0.2" d="M 10.5,9.5 A 4.5,4.5 0 0 0 6,14 4.5,4.5 0 0 0 6.0585938,14.697266 3,3 0 0 0 5,14.5 a 3,3 0 0 0 -3,3 3,3 0 0 0 3,3 h 11 a 3,3 0 0 0 3,-3 3,3 0 0 0 -3,-3 3,3 0 0 0 -1.060547,0.193359 A 4.5,4.5 0 0 0 15,14 4.5,4.5 0 0 0 10.5,9.5 Z"/>
 <circle style="fill:#8b9cbe" cx="5" cy="17" r="3"/>
 <circle style="fill:#8b9cbe" cx="10.5" cy="13.5" r="4.5"/>
 <circle style="fill:#8b9cbe" cx="16" cy="17" r="3"/>
 <rect style="fill:#8b9cbe" width="11" height="4" x="5" y="16"/>
</svg>
