<svg xmlns="http://www.w3.org/2000/svg" width="22" height="22" version="1.1">
 <path style="opacity:0.2" d="m 1,6.21875 c -1e-6,0.00449 0.007,7.111991 0,10.917969 C 1,17.889944 1.67125,18.5 2.5,18.5 H 6 V 10.894531 L 2.0722656,8.0605469 C 1.9567936,7.9772658 1.8648613,7.8853059 1.7695312,7.7949219 1.2912182,7.3414207 1.0524487,6.8109922 1.0117188,6.2753906 1.0096988,6.2636116 1,6.2186087 1,6.21875 Z m 20,0 c 0,-1.413e-4 -0.0097,0.044862 -0.01172,0.056641 -0.04073,0.5356016 -0.279499,1.0660301 -0.757812,1.5195313 -0.09533,0.090385 -0.187263,0.1823439 -0.302735,0.265625 L 16,10.894531 V 18.5 h 3.5 c 0.82875,0 1.5,-0.610056 1.5,-1.363281 -0.007,-3.805978 1e-6,-10.9134771 0,-10.917969 z"/>
 <path style="fill:#afafaf" d="m 1,5.71875 c 0,-1.413e-4 0.0097,0.044862 0.01172,0.056641 0.04073,0.5356016 0.279499,1.0660301 0.757812,1.5195313 0.09533,0.090384 0.187263,0.1823439 0.302735,0.265625 L 6,10.394531 V 18 H 2.5 C 1.67125,18 1,17.389944 1,16.636719 1.007,12.830741 0.999999,5.7232419 1,5.71875 Z"/>
 <path style="fill:#5f5f5f" d="m 21,5.71875 c 0,-1.413e-4 -0.0097,0.044862 -0.01172,0.056641 -0.04073,0.5356016 -0.279499,1.0660301 -0.757812,1.5195313 -0.09533,0.090384 -0.187263,0.1823439 -0.302735,0.265625 L 16,10.394531 V 18 h 3.5 c 0.82875,0 1.5,-0.610056 1.5,-1.363281 -0.007,-3.805978 1e-6,-10.9134771 0,-10.917969 z"/>
 <path style="opacity:0.2" d="M 3.4804688,3.5 C 1.3938351,3.5155584 -0.11506477,6.4829939 2.0722656,8.0605469 L 6,10.894531 11,14.5 16,10.894531 19.927734,8.0605469 C 22.115065,6.4829939 20.60608,3.515868 18.519531,3.5 18.03802,3.4963381 17.526253,3.6496212 17.021484,4.0136719 L 16,4.7480469 11,8.3398438 6,4.7480469 4.9785156,4.0136719 C 4.4737469,3.6496212 3.9619996,3.4964096 3.4804688,3.5 Z"/>
 <path style="fill:#8f8f8f" d="M 6,4.2480469 V 10.394531 L 11,14 16,10.394531 V 4.2480469 l -5,3.5917969 z"/>
 <path style="fill:#727272" d="M 3.4804688,3 C 1.3938351,3.0155584 -0.11506479,5.9829939 2.0722656,7.5605469 L 6,10.394531 V 4.2480469 L 4.9785156,3.5136719 C 4.4737469,3.1496212 3.9619996,2.9964096 3.4804688,3 Z"/>
 <path style="fill:#7d7d7d" d="M 18.519531,3 C 18.03802,2.9963381 17.526253,3.1496212 17.021484,3.5136719 L 16,4.2480469 V 10.394531 L 19.927734,7.5605469 C 22.115065,5.9829939 20.60608,3.015868 18.519531,3 Z"/>
 <path style="opacity:0.2;fill:#8b9cbe" d="M 3.4804688,3 C 2.0304501,3.0108117 0.8631532,4.446805 1.0175781,5.8515625 1.1463357,4.6254934 2.2029598,3.5095254 3.4804688,3.5 3.9619996,3.4964096 4.4737469,3.6496212 4.9785156,4.0136719 L 6,4.7480469 11,8.3398438 16,4.7480469 17.021484,4.0136719 C 17.526253,3.6496212 18.03802,3.4963381 18.519531,3.5 19.796988,3.50971 20.853648,4.6255549 20.982422,5.8515625 21.136827,4.4468762 19.969491,3.0110268 18.519531,3 18.03802,2.9963381 17.526253,3.1496212 17.021484,3.5136719 L 16,4.2480469 11,7.8398438 6,4.2480469 4.9785156,3.5136719 C 4.4737469,3.1496212 3.9619996,2.9964096 3.4804688,3 Z"/>
</svg>
