<svg width="22" height="22" version="1.1" xmlns="http://www.w3.org/2000/svg">
 <path d="m11 14.500001c6 0 10 6.999999 10 6.999999s-5-1.999999-10-1.999999-10 1.999999-10 1.999999 4-6.999999 10-6.999999z" style="opacity:.2"/>
 <path d="m11 14c6 0 10 6.999999 10 6.999999s-5-1.999999-10-1.999999-10 1.999999-10 1.999999 4-6.999999 10-6.999999z" style="fill:#8c8c8c"/>
 <path d="m11 14c-6 0-10 7-10 7s0.2840173-0.101154 0.4316406-0.15625c0.9819604-1.517518 4.4686053-6.34375 9.5683594-6.34375 5.099754 0 8.586399 4.826232 9.568359 6.34375 0.147624 0.055096 0.431641 0.15625 0.431641 0.15625s-4-7-10-7z" style="fill:#8b9cbe;opacity:.1"/>
 <circle cx="11" cy="9.500001" r="8" style="opacity:.1"/>
 <circle cx="11" cy="9" r="8" style="fill:#b2bfd9"/>
 <circle cx="11" cy="9.500001" r="5" style="opacity:.1"/>
 <circle cx="11" cy="9" r="5" style="fill:#a6a6a6"/>
 <circle cx="11" cy="9" r="3" style="fill:#0086cc"/>
 <path d="M 11 6 A 3 3 0 0 0 8 9 A 3 3 0 0 0 8.0136719 9.2558594 A 3 3 0 0 1 11 6.5 A 3 3 0 0 1 13.986328 9.2441406 A 3 3 0 0 0 14 9 A 3 3 0 0 0 11 6 z " style="opacity:.1"/>
 <path d="M 11 1 A 8 8 0 0 0 3 9 A 8 8 0 0 0 3.0097656 9.2929688 A 8 8 0 0 1 11 1.5 A 8 8 0 0 1 18.990234 9.2070312 A 8 8 0 0 0 19 9 A 8 8 0 0 0 11 1 z " style="fill:#8b9cbe;opacity:.2"/>
 <path d="M 11 4 A 5 5 0 0 0 6 9 A 5 5 0 0 0 6.0097656 9.3027344 A 5 5 0 0 1 11 4.5 A 5 5 0 0 1 15.990234 9.1972656 A 5 5 0 0 0 16 9 A 5 5 0 0 0 11 4 z " style="fill:#8b9cbe;opacity:.1"/>
</svg>
