<svg xmlns="http://www.w3.org/2000/svg" width="22" height="22" version="1">
 <path style="opacity:0.2" d="M 11,1.5 C 10.96658,1.5 10.9327,1.50583 10.90073,1.516601 8.4070654,3.2624417 5.6015357,4.4182049 2.1985294,4.446289 2.0797735,4.486274 2,4.593629 2,4.713867 2,7.678876 2.8221372,11.106125 4.2551702,14.117188 5.4175413,16.559897 7.5070353,19.818309 10.863511,21.46875 10.906224,21.48973 10.95331,21.5 11,21.5 c 0.04669,0 0.09377,-0.01027 0.136488,-0.03125 3.356476,-1.650441 5.44597,-4.908853 6.608341,-7.351562 1.433033,-3.011063 2.25517,-6.438312 2.25517,-9.403321 0,-0.120238 -0.07977,-0.227593 -0.198529,-0.267578 C 16.398463,4.4182049 13.592935,3.2624417 11.099264,1.5166015 11.067304,1.5058255 11.033416,1.5 11,1.5 Z"/>
 <path style="fill:#ffad34" d="M 11,1 C 10.96658,1 10.9327,1.00583 10.90073,1.016601 8.4070654,2.7624417 5.6015357,3.9182049 2.1985294,3.946289 2.0797735,3.986274 2,4.093629 2,4.213867 2,7.178876 2.8221372,10.606125 4.2551702,13.617188 5.4175413,16.059897 7.5070353,19.318309 10.863511,20.96875 10.906224,20.98973 10.95331,21 11,21 c 0.04669,0 0.09377,-0.01027 0.136488,-0.03125 3.356476,-1.650441 5.44597,-4.908853 6.608341,-7.351562 1.433033,-3.011063 2.25517,-6.438312 2.25517,-9.403321 0,-0.120238 -0.07977,-0.227593 -0.198529,-0.267578 C 16.398463,3.9182049 13.592935,2.7624417 11.099264,1.0166015 11.067304,1.0058255 11.033416,1 11,1 Z"/>
 <path style="opacity:0.1" d="M 11,3.8349609 C 12.966618,5.030131 15.187012,5.9081625 17.685891,6.25 17.466501,8.5408475 16.886717,11.041437 15.813303,13.296875 14.871539,15.275983 13.212678,17.686643 11,19.133789 8.7873218,17.686643 7.1284603,15.275983 6.1866956,13.296875 5.1132815,11.041437 4.5334989,8.5408475 4.3141085,6.25 6.8129871,5.9081625 9.0333811,5.030131 11,3.8349609 Z"/>
 <path style="fill:#ffe0a9" d="M 11,3.3349609 C 12.966618,4.530131 15.187012,5.4081625 17.685891,5.75 17.466501,8.0408475 16.886717,10.541437 15.813303,12.796875 14.871539,14.775983 13.212678,17.186643 11,18.633789 8.7873218,17.186643 7.1284603,14.775983 6.1866956,12.796875 5.1132815,10.541437 4.5334989,8.0408475 4.3141085,5.75 6.8129871,5.4081625 9.0333811,4.530131 11,3.3349609 Z"/>
 <path style="fill:#f77e23" d="M 11,3.3349609 V 18.633789 c 2.212678,-1.447146 3.871539,-3.857806 4.813303,-5.836914 C 16.886717,10.541437 17.466501,8.0408475 17.685891,5.75 15.187012,5.4081625 12.966618,4.530131 11,3.3349609 Z"/>
 <path style="opacity:0.2;fill:#8b9cbe" d="M 11,1 C 10.96658,1 10.93236,1.00485 10.90039,1.015625 8.406726,2.7614657 5.6022252,3.9172284 2.1992189,3.9453125 2.0804629,3.9852975 2.0000001,4.0926526 2.0000001,4.2128906 c 0,0.1482505 0.011541,0.3026732 0.015625,0.453125 0.018984,-0.09872 0.081987,-0.186492 0.1835938,-0.2207031 C 5.6022252,4.4172284 8.406726,3.2614657 10.900391,1.515625 10.932361,1.504854 10.96658,1.5 11,1.5 c 0.03342,0 0.06765,0.00485 0.09961,0.015625 2.493671,1.7458402 5.298165,2.9016034 8.701172,2.9296875 0.10161,0.034211 0.16461,0.1219833 0.183594,0.2207031 C 19.988459,4.5155638 20,4.3611411 20,4.2128906 20,4.0926526 19.91954,3.9852975 19.800781,3.9453125 16.397774,3.9172284 13.59328,2.7614652 11.099609,1.015625 11.067649,1.004849 11.033416,1 11,1 Z"/>
</svg>
