<svg xmlns="http://www.w3.org/2000/svg" width="22" height="22" version="1.1">
 <rect style="opacity:.2" width="20" height="20" x="1" y="1.5" rx="1" ry="1"/>
 <rect style="fill:#b2bfd9" width="20" height="20" x="1" y="1" rx="1" ry="1"/>
 <path style="fill:#8b9cbe;opacity:.2" d="m2 0.9999998c-0.554 0-1 0.446-1 1v0.5c0-0.554 0.446-1 1-1h18c0.554 0 1 0.446 1 1v-0.5c0-0.554-0.446-1-1-1z"/>
 <path style="fill:none;opacity:.2;stroke-linecap:round;stroke-width:2;stroke:#000000" d="m7.0001 18.4999 6-6"/>
 <path style="fill:none;stroke-linecap:round;stroke-width:2;stroke:#17191e" d="m7.0001 18 6-6"/>
 <path style="fill:none;opacity:.2;stroke-linecap:round;stroke-width:2;stroke:#000000" d="m18 12.4999-6 6"/>
 <path style="fill:none;stroke-linecap:round;stroke-width:2;stroke:#17191e" d="m18 12-6 6"/>
</svg>
