<svg xmlns="http://www.w3.org/2000/svg" width="22" height="22" version="1">
 <rect fill="#b2bfd9" width="20" height="20" x="1" y="1" rx="10" ry="10"/>
 <path fill="#fff" opacity=".2" d="m11 1c-5.54 0-10 4.46-10 10 0 0.084 0.004 0.166 0.0058 0.25 0.1324-5.423 4.5382-9.75 9.9942-9.75 5.4558 0 9.862 4.327 9.994 9.75 0.002-0.08343 0.0059-0.16606 0.0059-0.25 0-5.54-4.46-10-10-10z"/>
 <path opacity=".2" d="m1.0058 11.25c-0.002 0.084-0.0058 0.166-0.0058 0.25 0 5.54 4.46 10 10 10s10-4.46 10-10c0-0.084-0.004-0.1665-0.006-0.25-0.132 5.423-4.538 9.75-9.994 9.75s-9.862-4.327-9.994-9.75z"/>
 <path fill="#ef3939" d="m6 7c-0.554 0-1 0.446-1 1l6 3.5 6-3.5c0-0.554-0.446-1-1-1h-10zm0.9844 1h8.0316l-4.016 2.342-4.0156-2.342zm-1.9844 1v6c0 0.554 0.446 1 1 1h10c0.554 0 1-0.446 1-1v-6l-6 3.5-6-3.5zm1 1.7402 4.4961 2.623a1.0001 1.0001 0 0 0 1.0078 0l4.496-2.623v4.26h-10v-4.26z"/>
</svg>
