<svg xmlns="http://www.w3.org/2000/svg" width="22" height="22" version="1">
 <path fill="#b2bfd9" d="m19 20v-18c0-0.554-0.446-1-1-1h-14c-0.554 0-1 0.446-1 1v18c0 0.554 0.446 1 1 1h14c0.554 0 1-0.446 1-1z"/>
 <path fill="#4c4c4c" d="m6 5h10v1h-10z"/>
 <path fill="#4c4c4c" d="m6 11h10v1h-10z"/>
 <path fill="#4c4c4c" d="m6 7h10v1h-10z"/>
 <path fill="#4c4c4c" d="m6 13h10v1h-10z"/>
 <path fill="#4c4c4c" d="m6 9h10v1h-10z"/>
 <path fill="#4c4c4c" d="m6 15h10v1h-10z"/>
 <path fill="#fff" opacity=".2" d="m4 1c-0.554 0-1 0.446-1 1v0.5c0-0.554 0.446-1 1-1h14c0.554 0 1 0.446 1 1v-0.5c0-0.554-0.446-1-1-1z"/>
 <path opacity=".2" d="m3 20v0.5c0 0.554 0.446 1 1 1h14c0.554 0 1-0.446 1-1v-0.5c0 0.554-0.446 1-1 1h-14c-0.554 0-1-0.446-1-1z"/>
</svg>
