<svg xmlns="http://www.w3.org/2000/svg" width="22" height="22" version="1.1">
 <path style="opacity:0.2" d="m 5.8828124,1.5 c -0.04141,0 -0.082644,0.00408 -0.1240235,0.00586 -0.00587,2.624e-4 -0.011705,6.8e-4 -0.01758,9.75e-4 -0.049235,0.00242 -0.098377,0.00385 -0.147461,0.00879 -0.010835,0.00109 -0.021405,0.00368 -0.032225,0.00489 -0.144087,0.016158 -0.2868795,0.043114 -0.4277345,0.081055 -0.010415,0.00279 -0.02086,0.00489 -0.03125,0.00781 -0.137987,0.038835 -0.273075,0.089573 -0.4052735,0.1494141 -0.025545,0.011545 -0.050898,0.022825 -0.076172,0.035156 -0.1278465,0.062445 -0.252536,0.1342837 -0.3720705,0.2167969 -0.016245,0.011216 -0.031785,0.023568 -0.04785,0.035156 -0.029245,0.021085 -0.058283,0.04214 -0.086914,0.064453 -0.00185,0.00142 -0.004,0.00248 -0.00586,0.00391 C 4.0158154,2.186782 3.9261493,2.2642238 3.8408202,2.3496176 L 1.8486332,4.341796 C 1.7624895,4.428005 1.6853409,4.5196715 1.6123051,4.61328 1.6051951,4.62256 1.5987841,4.63226 1.5917971,4.6416 1.5775361,4.66034 1.5635491,4.67924 1.5498051,4.69824 1.5361241,4.717155 1.5219561,4.73572 1.5087891,4.754881 1.4271191,4.8736885 1.3568504,4.997024 1.2949219,5.1240215 c -0.013167,0.027015 -0.025813,0.053732 -0.038086,0.081054 -0.058739,0.1306415 -0.1091477,0.264121 -0.1474609,0.400391 -0.00291,0.0104 -0.00501,0.020825 -0.00781,0.03125 C 1.063624,5.777709 1.036688,5.9202205 1.02051,6.0644505 1.0193,6.0752755 1.01671,6.0858405 1.01562,6.0966755 1.0102,6.1505145 1.00825,6.204772 1.00585,6.258785 c -3.312e-4,0.00716 -7e-4,0.014325 -9.75e-4,0.021485 -0.00316,0.085353 -0.00147,0.1705515 0.00293,0.2558595 9.2e-4,0.017625 7.1e-4,0.035125 0.00196,0.052734 0.00308,0.044035 0.00662,0.087949 0.011719,0.131836 0.00157,0.01375 0.00409,0.027285 0.00586,0.041015 0.011415,0.087387 0.026464,0.174478 0.045899,0.260742 0.0034,0.015045 0.0071,0.02992 0.010742,0.04492 0.035828,0.1479255 0.082047,0.293588 0.1416015,0.4355465 0.013244,0.03157 0.028552,0.062567 0.042969,0.09375 0.010388,0.02252 0.020248,0.04508 0.03125,0.067383 0.04443,0.089915 0.094063,0.177757 0.1484375,0.263672 0.00219,0.00345 0.00366,0.00729 0.00586,0.01074 0.017993,0.028165 0.037574,0.055337 0.056641,0.083008 0.016216,0.02355 0.033784,0.04616 0.050781,0.069336 0.086723,0.118207 0.1801618,0.232815 0.2871094,0.3398435 L 13.180664,19.771484 c 0,0 0.14544,0.101947 0.350586,0.135742 0.05128,0.0084 0.106787,0.01259 0.164063,0.0098 0.02614,-0.0013 0.05407,-0.01021 0.08105,-0.01465 L 21,21.5 20.366211,18.662109 19.256836,13.689453 7.9248044,2.3496094 C 7.8172659,2.2419891 7.7018219,2.1477131 7.5830079,2.0605469 c -0.02236,-0.016387 -0.0437,-0.034145 -0.066406,-0.049805 -0.027475,-0.018976 -0.055044,-0.037748 -0.083008,-0.055664 -0.0025,-0.00159 -0.00532,-0.00232 -0.00781,-0.0039 -0.089282,-0.056819 -0.1808195,-0.1072891 -0.274419,-0.153325 -0.02011,-0.00987 -0.040265,-0.018945 -0.060547,-0.028321 -0.1335075,-0.061836 -0.2705805,-0.1159699 -0.4101565,-0.15625 -6e-4,-1.769e-4 -0.00135,1.765e-4 -0.00195,0 -0.03681,-0.010584 -0.07421,-0.018259 -0.111328,-0.027344 -0.01769,-0.00434 -0.034985,-0.00967 -0.052734,-0.013672 -0.094101,-0.021151 -0.188783,-0.037241 -0.28418,-0.048828 -0.00587,-7.05e-4 -0.01171,-0.00128 -0.01758,-0.00195 -0.042635,-0.00492 -0.085155,-0.00871 -0.1279295,-0.011719 -0.017615,-0.00125 -0.035105,-0.00103 -0.052734,-0.00195 C 5.9823794,1.5052257 5.9327124,1.5 5.8828124,1.5 Z"/>
 <path style="fill:#ffbe69" d="m 13.180258,19.27126 6.076793,-6.081419 1.127189,5.050696 -0.576819,1.632766 -1.57509,0.514598 z"/>
 <path style="opacity:0.372;fill:#ff00ff" d="M 1.8490668,3.8421899 C 0.71742214,4.974692 0.71675564,6.7982945 1.8484004,7.9307965 L 13.180246,19.271249 c 0,0 0.584827,0.409506 1.056051,-0.139643 0.471225,-0.549149 0.504347,-1.35635 0.504347,-1.35635 0,0 1.359006,-0.261561 1.911197,-0.780833 0.552191,-0.519272 1.079101,-2.236876 1.079101,-2.236876 0,0 0.634209,0.162972 1.163285,-0.370478 0.529076,-0.53345 0.362824,-1.197228 0.362824,-1.197228 L 7.9251719,1.8493764 c -1.131645,-1.132502 -2.9531555,-1.1325019 -4.0848003,1e-7 z"/>
 <path style="fill:#99a5eb" d="M 4.3996169,1.4157906 17.731211,14.757485 c 0,0 0.633511,0.162906 1.162587,-0.370544 0.52909,-0.533436 0.363264,-1.197089 0.363264,-1.197089 L 7.9251719,1.8493764 C 6.9650664,0.8885437 5.5102674,0.7462516 4.3996169,1.4157906 Z"/>
 <path style="fill:#2c3b9c" d="M 18.15887,20.371686 20.999892,21 20.366453,18.16243 c 0,0 -0.778448,0.347937 -1.321034,0.891313 -0.542586,0.543375 -0.88655,1.317943 -0.886549,1.317943 z"/>
 <path style="fill:#24307f" d="M 1.4018106,4.4256745 C 0.74888034,5.534271 0.89508514,6.976781 1.8483669,7.930785 L 13.180258,19.27126 c 0,0 0.584971,0.409758 1.056196,-0.139392 0.471225,-0.549149 0.504651,-1.356794 0.504651,-1.356794 z"/>
 <path style="fill:#2841d5" d="M 1.8490668,3.8421899 C 1.6707036,4.0206885 1.5239761,4.218252 1.4018106,4.4256745 L 14.741105,17.775074 c 0,0 1.358622,-0.261042 1.910812,-0.780314 0.552193,-0.519272 1.079294,-2.237275 1.079294,-2.237275 L 4.3996169,1.4157906 C 4.2011804,1.5354152 4.0119109,1.6777074 3.8403716,1.8493766 Z"/>
 <path style="opacity:0.2" d="M 1.8490668,4.3423295 C 0.86973584,5.3224025 0.73873504,6.819099 1.4543055,7.9385 L 7.4331199,1.9551561 c -1.11841,-0.7162469 -2.6134175,-0.585713 -3.5927483,0.39436 z"/>
 <path style="fill:#646989" d="M 1.8490668,3.8421899 C 0.86973584,4.822263 0.73873504,6.3189595 1.4543055,7.4383605 L 7.4331199,1.4550166 c -1.11841,-0.7162469 -2.6134175,-0.585713 -3.5927483,0.39436 z"/>
 <path style="opacity:0.2;fill:#8b9cbe" d="m 5.7499999,1.0058594 c -0.02032,9.7e-4 -0.040245,0.00641 -0.060547,0.00781 -0.1003465,0.00668 -0.199476,0.021873 -0.298828,0.039063 -0.05502,0.00964 -0.109554,0.018395 -0.1640625,0.03125 -0.102909,0.02403 -0.203386,0.056279 -0.303711,0.091797 -0.04745,0.016889 -0.094892,0.03231 -0.1416015,0.05176 -0.1023545,0.042435 -0.20084,0.092681 -0.298828,0.147461 -0.027095,0.015162 -0.0563,0.024915 -0.083008,0.041016 l 0.0049,0.00489 C 4.2050304,1.5407214 4.0130434,1.6772555 3.8408202,1.8496094 L 1.8486327,3.8417969 C 1.2209407,4.4699645 0.94574144,5.3105195 1.0146484,6.1279295 1.0726511,5.477208 1.3487443,4.842064 1.8486327,4.341797 L 3.8408202,2.3496094 C 4.0130434,2.1772556 4.2050134,2.0407193 4.4042969,1.9208985 l -0.0049,-0.00488 c 0.026725,-0.016103 0.05593,-0.025857 0.083025,-0.041019 0.097988,-0.05478 0.1964735,-0.1050264 0.298828,-0.147461 0.04671,-0.01945 0.094151,-0.03487 0.1416015,-0.051758 0.100325,-0.035518 0.200802,-0.067767 0.303711,-0.091797 0.054508,-0.012855 0.109043,-0.021612 0.1640625,-0.03125 0.099352,-0.01719 0.1984815,-0.032379 0.298828,-0.039063 0.0203,-0.0014 0.040225,-0.00684 0.060547,-0.00781 0.043315,-0.00207 0.08653,0.00402 0.129883,0.00391 0.089533,-3.86e-5 0.178344,0.00148 0.267578,0.00977 0.075149,0.00681 0.149097,0.019505 0.223633,0.032226 0.079006,0.013648 0.157458,0.026591 0.2353515,0.046875 0.085882,0.022181 0.1689575,0.052739 0.2529295,0.083008 0.063676,0.023053 0.127171,0.044577 0.189453,0.072266 0.087943,0.038972 0.1722865,0.086512 0.256836,0.1347657 0.041935,0.023964 0.086944,0.040172 0.12793,0.066406 l -0.0049,0.00489 C 7.6034484,2.07154 7.7717684,2.1964752 7.9247874,2.3496101 L 19.256836,13.689453 20.383789,18.740234 20.882812,20.973633 21,21 20.383789,18.240234 19.256836,13.189453 7.9248044,1.8496094 C 7.7717854,1.6964745 7.6034654,1.5715393 7.4287109,1.459961 l 0.0049,-0.00488 C 7.3926254,1.4288414 7.3475994,1.4126361 7.3056639,1.3886719 7.2211144,1.3404185 7.1367709,1.2928779 7.0488279,1.2539063 6.9865459,1.226217 6.9230514,1.2046938 6.8593749,1.1816406 6.7754029,1.1513719 6.6923279,1.1208137 6.6064454,1.0986328 6.5285519,1.078349 6.4500999,1.065406 6.3710939,1.0517578 c -0.074536,-0.012721 -0.148484,-0.025421 -0.223633,-0.032227 -0.089234,-0.00829 -0.178045,-0.0098 -0.267578,-0.00977 -0.043354,1.147e-4 -0.086565,-0.00597 -0.129883,-0.00391 z"/>
</svg>
