<svg xmlns="http://www.w3.org/2000/svg" width="22" height="22" version="1.1">
 <path style="fill:#ee902f" d="M 2.5,11 C 1.669,11 1,11.669 1,12.5 V 13 H 11 V 12.5 C 11,11.669 10.331,11 9.5,11 Z"/>
 <path style="fill:#f05353" d="M 12.5,11 C 11.669,11 11,11.669 11,12.5 V 13 H 21 V 12.5 C 21,11.669 20.331,11 19.5,11 Z"/>
 <path style="opacity:0.2" d="m 1,4 v 6 c 0,0.831 0.669,1.5 1.5,1.5 h 7 c 0.831,0 1.5,-0.669 1.5,-1.5 0,0.831 0.669,1.5 1.5,1.5 h 7 C 20.331,11.5 21,10.831 21,10 V 4 H 11 Z m 0,10 v 6 c 0,0.831 0.669,1.5 1.5,1.5 h 7 c 0.831,0 1.5,-0.669 1.5,-1.5 0,0.831 0.669,1.5 1.5,1.5 h 7 C 20.331,21.5 21,20.831 21,20 V 14 H 11 Z"/>
 <path style="fill:#b2bfd9" d="M 1,3 V 9.5 C 1,10.331 1.669,11 2.5,11 h 7 C 10.331,11 11,10.331 11,9.5 V 3 Z"/>
 <path style="fill:#2fb0ee" d="M 2.5,1 C 1.669,1 1,1.669 1,2.5 V 3 H 11 V 2.5 C 11,1.669 10.331,1 9.5,1 Z"/>
 <path style="fill:#cccccc" d="m 11,3 v 6.5 c 0,0.831 0.669,1.5 1.5,1.5 h 7 C 20.331,11 21,10.331 21,9.5 V 3 Z"/>
 <path style="fill:#208c6e" d="M 12.5,1 C 11.669,1 11,1.669 11,2.5 V 3 H 21 V 2.5 C 21,1.669 20.331,1 19.5,1 Z"/>
 <path style="fill:#cccccc" d="m 1,13 v 6.5 C 1,20.331 1.669,21 2.5,21 h 7 C 10.331,21 11,20.331 11,19.5 V 13 Z"/>
 <path style="fill:#b2bfd9" d="m 11,13 v 6.5 c 0,0.831 0.669,1.5 1.5,1.5 h 7 C 20.331,21 21,20.331 21,19.5 V 13 Z"/>
 <rect style="opacity:0.1" width="20" height=".5" x="1" y="13"/>
 <path style="opacity:0.1" d="M 3,5.5 V 6.423077 L 5.196721,6.697505 9.590164,11.56237 4.868853,16.377339 3.0000001,16.576922 V 17.5 H 9 V 16.576922 L 7.3278695,16.402287 7.163935,16.102911 10.508197,12.485447 13.557378,16.202702 13.393443,16.402287 12,16.576922 V 17.5 h 7 V 16.576922 L 17.032788,16.377339 12.213115,11.038462 16.540983,6.6725575 18.5,6.423077 V 5.5 h -6 V 6.423077 L 14.049181,6.572765 14.311476,6.8970895 11.32787,10.090437 8.5737715,6.822245 8.737705,6.572765 10.5,6.423077 V 5.5 Z"/>
 <path style="fill:#17191e" d="M 3,5 V 5.923077 L 5.196721,6.197505 9.590164,11.06237 4.868853,15.877339 3.0000001,16.076922 V 17 H 9 V 16.076922 L 7.3278695,15.902287 7.163935,15.602911 10.508197,11.985447 13.557378,15.702702 13.393443,15.902287 12,16.076922 V 17 h 7 V 16.076922 L 17.032788,15.877339 12.213115,10.538462 16.540983,6.1725575 18.5,5.923077 V 5 h -6 V 5.923077 L 14.049181,6.072765 14.311476,6.3970895 11.32787,9.590437 8.5737715,6.322245 8.737705,6.072765 10.5,5.923077 V 5 Z"/>
 <rect style="opacity:0.1" width="20" height=".5" x="1" y="3"/>
 <path style="opacity:0.2;fill:#8b9cbe" d="M 2.5,1 C 1.669,1 1,1.669 1,2.5 V 3 C 1,2.169 1.669,1.5 2.5,1.5 h 7 C 10.331,1.5 11,2.169 11,3 11,2.169 11.669,1.5 12.5,1.5 h 7 C 20.331,1.5 21,2.169 21,3 V 2.5 C 21,1.669 20.331,1 19.5,1 h -7 C 11.669,1 11,1.669 11,2.5 11,1.669 10.331,1 9.5,1 Z"/>
</svg>
