<svg width="22" height="22" version="1.1" xmlns="http://www.w3.org/2000/svg">
 <g transform="translate(-1,-1)">
  <path d="m5 4.5h6l2 3.3333333 3-3.3333333h6l-6.5 8 4.5 8h-7l-1.5-3.2-2.5 3.2h-7l7-8.533333z" style="opacity:.2"/>
  <path d="m5 4h6l2 3.3333333 3-3.3333333h6l-6.5 8 4.5 8h-7l-1.5-3.2-2.5 3.2h-7l7-8.533333z" style="fill:#a64599"/>
  <path d="M 5,4 5.2675781,4.5 H 11 L 13,7.8339844 16,4.5 h 5.59375 L 22,4 H 16 L 13,7.3339844 11,4 Z M 8.8378906,11.664062 2,20 H 2.4101562 L 9,11.966797 Z M 15.666016,12.294922 15.5,12.5 19.71875,20 H 20 Z" style="fill:#8b9cbe;opacity:.1"/>
 </g>
 <circle cx="16.5" cy="16.5" r="5.5" style="fill:#465096"/>
 <path d="m16.5 14s-0.354375-7e-3 -0.723635 0.17775c-0.369255 0.1846-0.776365 0.655601-0.776365 1.32225h1c0-0.5 0.5-0.5 0.5-0.5s0.5 0 0.5 0.5c0 0.2639-0.0698 0.41145-0.203125 0.578099-0.133325 0.166701-0.34668 0.334-0.59668 0.5215s-0.536645 0.395201-0.77832 0.6973c-0.241675 0.302051-0.421875 0.717001-0.421875 1.203101v0.5h3v-1h-1.82422c0.01565-0.022 0.0094-0.0556 0.02735-0.0781 0.133325-0.1667 0.34668-0.334 0.59668-0.5215s0.536645-0.3952 0.77832-0.6973c0.241675-0.30205 0.421875-0.717 0.421875-1.2031 0-0.666649-0.40711-1.13765-0.776365-1.32225-0.369265-0.18465-0.72364-0.17775-0.72364-0.17775z" style="fill-rule:evenodd;fill:#8b9cbe"/>
</svg>
