<svg xmlns="http://www.w3.org/2000/svg" width="22" height="22" version="1">
 <rect style="opacity:0.2" width="19" height="19" x="-20.5" y="-21" rx="9.5" ry="9.5" transform="matrix(0,-1,-1,0,0,0)"/>
 <rect style="fill:#936ff6" width="19" height="19" x="-20" y="-21" rx="9.5" ry="9.5" transform="matrix(0,-1,-1,0,0,0)"/>
 <path style="opacity:0.2;fill-rule:evenodd" d="m 11.499137,3.5000065 c -0.552285,0 -1,0.4477155 -1,1 6.5e-4,0.356634 0.191145,0.6859415 0.5,0.864258 l 0,1.139648 -1.200196,-0.899414 C 9.261693,5.174799 8.6362367,6.009082 9.199332,6.4043035 l 1.799805,1.349609 0,2.3798825 -2.0605473,-1.1894525 -0.258789,-2.152344 c 0.01235,-0.2871965 -0.219404,-0.525634 -0.506836,-0.521484 l -0.00586,0 -0.00684,0.001 c -0.01436,4e-4 -0.028695,0.00135 -0.04297,0.00295 -0.2754435,0.03113 -0.4730095,0.280384 -0.4404245,0.555664 l 0.178712,1.489214 -0.9863285,-0.569336 C 6.8691727,7.3932245 6.6790107,7.06351 6.3702302,6.884772 5.8920657,6.6091995 5.2810532,6.7730975 5.0049962,7.250983 c -0.275737,0.477909 -0.112297,1.088843 0.365234,1.3652345 0.309153,0.178257 0.6898705,0.178257 0.9990235,0 l 0.987305,0.5693355 -1.379883,0.589844 c -0.5093535,0.211176 -0.3521105,0.970414 0.1992185,0.961914 0.067004,-0.0011 0.133091,-0.01577 0.194336,-0.04297 l 2.069336,-0.883788 2.0595708,1.189453 -2.0595708,1.189453 -2.069336,-0.883789 c -0.061245,-0.0272 -0.1273325,-0.04181 -0.194336,-0.04297 -0.551329,-0.0085 -0.708572,0.750738 -0.1992185,0.961914 l 1.379883,0.589844 -0.987305,0.569336 c -0.309153,-0.178257 -0.6898705,-0.178257 -0.9990235,0 -0.477531,0.276391 -0.640971,0.887325 -0.365234,1.365234 0.276057,0.477885 0.8870695,0.641783 1.365234,0.366211 0.3087805,-0.178738 0.4989425,-0.508453 0.4990235,-0.865234 l 0.9863285,-0.569336 -0.178711,1.489257 c -0.032585,0.27528 0.164981,0.524535 0.4404295,0.555664 0.014275,0.0016 0.02861,0.0025 0.04297,0.0029 l 0.00683,10e-4 0.00586,0 c 0.287432,0.0041 0.519188,-0.234287 0.506836,-0.521484 l 0.258789,-2.152344 2.0605473,-1.189453 0,2.379883 -1.799805,1.349609 c -0.5630953,0.395222 0.06236,1.229505 0.599609,0.799805 l 1.200195,-0.899414 0,1.139648 c -0.308854,0.178317 -0.499369,0.507624 -0.5,0.864258 0,0.552285 0.447716,1 1,1 0.552285,0 1,-0.447715 1,-1 -2.82e-4,-0.356983 -0.190843,-0.686743 -0.5,-0.865234 l 0,-1.138672 1.200196,0.899414 c 0.06974,0.0521 0.151877,0.08509 0.238281,0.0957 0.0058,7.5e-4 0.01171,0.0014 0.01758,0.002 0.0146,0.0016 0.02926,0.0026 0.04395,0.0029 0.515183,0.0059 0.701611,-0.676918 0.254883,-0.933594 l -1.754883,-1.316406 0,-2.379883 2.061524,1.189453 0.269531,2.233399 c 0.02769,0.228998 0.20844,0.409338 0.4375,0.436523 l 0.002,0 0.0068,10e-4 c 0.0081,8.5e-4 0.01626,0.0015 0.02442,0.0019 0.0062,4.41e-4 0.01236,7.5e-4 0.01855,10e-4 l 0.0068,0 c 0.335751,0.0041 0.580092,-0.317228 0.486328,-0.639649 l -0.169901,-1.409179 0.987305,0.569336 c 8e-5,0.356782 0.190242,0.686495 0.499023,0.865234 0.478382,0.276238 1.090127,0.112261 1.366211,-0.36621 0.275573,-0.478166 0.111674,-1.089178 -0.366211,-1.365235 -0.309152,-0.178257 -0.689871,-0.178257 -0.999023,0 l -0.987305,-0.569336 1.379883,-0.589843 c 0.518869,-0.213545 0.346603,-0.988345 -0.213867,-0.961914 -0.06171,0.0031 -0.122308,0.01773 -0.178711,0.04297 l -2.069336,0.883787 -2.060547,-1.189453 2.060547,-1.189453 2.069336,0.883789 c 0.0564,0.02524 0.116997,0.03982 0.178711,0.04297 0.56047,0.02643 0.732736,-0.74837 0.213867,-0.961914 L 15.642691,9.185554 16.629996,8.616219 c 0.309152,0.178257 0.689871,0.178257 0.999023,0 0.477885,-0.276057 0.641784,-0.8870695 0.366211,-1.3652345 -0.276084,-0.478473 -0.887829,-0.64245 -1.366211,-0.3662125 -0.308781,0.1787395 -0.498943,0.508453 -0.499023,0.8652345 l -0.987305,0.569336 0.169922,-1.40918 c 0.09376,-0.32242 -0.150576,-0.643798 -0.486328,-0.639648 l -0.0068,0 c -0.0062,2.5e-4 -0.01238,5.5e-4 -0.01856,0.001 -0.0082,4.5e-4 -0.01629,0.0011 -0.02441,0.00195 l -0.0068,10e-4 -0.0019,0 c -0.22906,0.027185 -0.409805,0.207525 -0.4375,0.4365235 l -0.269531,2.2333985 -2.061524,1.1894525 0,-2.3798825 1.754883,-1.316406 c 0.446728,-0.256676 0.2603,-0.939529 -0.254883,-0.933594 -0.01469,3.505e-4 -0.02934,0.00135 -0.04394,0.00295 -0.0059,5.5e-4 -0.01174,0.0012 -0.01758,0.00195 -0.0864,0.010615 -0.168538,0.043605 -0.238281,0.095703 l -1.200195,0.899414 0,-1.1386715 c 0.309156,-0.1784915 0.499717,-0.5082515 0.5,-0.8652345 0,-0.5522845 -0.447716,-1 -1,-1 z"/>
 <path style="fill:#8b9cbe;fill-rule:evenodd" d="m 11.499137,3.000008 c -0.552285,0 -1,0.4477155 -1,1 6.5e-4,0.356634 0.191145,0.6859415 0.5,0.864258 l 0,1.139648 L 9.798941,5.1045 C 9.261693,4.6748005 8.6362367,5.5090835 9.199332,5.904305 l 1.799805,1.349609 0,2.379883 L 8.9385897,8.444344 8.6798007,6.292 C 8.6921507,6.0048035 8.4603967,5.766366 8.1729647,5.770516 l -0.00586,0 -0.00684,0.001 c -0.01436,4e-4 -0.028695,0.00135 -0.04297,0.00295 C 7.8418512,5.805596 7.6442852,6.05485 7.6768702,6.33013 L 7.8555822,7.819344 6.8692537,7.250008 C 6.8691727,6.893226 6.6790107,6.5635115 6.3702302,6.3847735 5.8920657,6.109201 5.2810532,6.273099 5.0049962,6.7509845 c -0.275737,0.477909 -0.112297,1.088843 0.365234,1.3652345 0.309153,0.178257 0.6898705,0.178257 0.9990235,0 l 0.987305,0.569336 -1.379883,0.589844 c -0.5093535,0.211176 -0.3521105,0.970414 0.1992185,0.961914 0.067004,-0.0011 0.133091,-0.01577 0.194336,-0.04297 l 2.069336,-0.883788 2.0595708,1.189453 -2.0595708,1.189453 -2.069336,-0.883789 c -0.061245,-0.0272 -0.1273325,-0.04181 -0.194336,-0.04297 -0.551329,-0.0085 -0.708572,0.750738 -0.1992185,0.961914 l 1.379883,0.589844 -0.987305,0.569336 c -0.309153,-0.178257 -0.6898705,-0.178257 -0.9990235,0 -0.477531,0.276391 -0.640971,0.887325 -0.365234,1.365234 0.276057,0.477885 0.8870695,0.641783 1.365234,0.366211 0.3087805,-0.178738 0.4989425,-0.508453 0.4990235,-0.865234 l 0.9863285,-0.569336 -0.178711,1.489257 c -0.032585,0.27528 0.164981,0.524535 0.4404295,0.555664 0.014275,0.0016 0.02861,0.0025 0.04297,0.0029 l 0.00683,0.001 0.00586,0 c 0.287432,0.0041 0.519188,-0.234287 0.506836,-0.521484 l 0.258789,-2.152344 2.0605473,-1.189453 0,2.379883 -1.799805,1.349609 c -0.5630953,0.395222 0.06236,1.229505 0.599609,0.799805 l 1.200195,-0.899414 0,1.139648 c -0.308854,0.178317 -0.499369,0.507624 -0.5,0.864258 0,0.552285 0.447716,1 1,1 0.552285,0 1,-0.447715 1,-1 -2.82e-4,-0.356983 -0.190843,-0.686743 -0.5,-0.865234 l 0,-1.138672 1.200196,0.899414 c 0.06974,0.0521 0.151877,0.08509 0.238281,0.0957 0.0058,7.5e-4 0.01171,0.0014 0.01758,0.002 0.0146,0.0016 0.02926,0.0026 0.04395,0.0029 0.515183,0.0059 0.701611,-0.676918 0.254883,-0.933594 l -1.754883,-1.316406 0,-2.379883 2.061524,1.189453 0.269531,2.233399 c 0.02769,0.228998 0.20844,0.409338 0.4375,0.436523 l 0.002,0 0.0068,10e-4 c 0.0081,8.5e-4 0.01626,0.0015 0.02442,0.0019 0.0062,4.41e-4 0.01236,7.5e-4 0.01855,10e-4 l 0.0068,0 c 0.335751,0.0041 0.580092,-0.317228 0.486328,-0.639649 l -0.169901,-1.409179 0.987305,0.569336 c 8e-5,0.356782 0.190242,0.686495 0.499023,0.865234 0.478382,0.276238 1.090127,0.112261 1.366211,-0.36621 0.275573,-0.478166 0.111674,-1.089178 -0.366211,-1.365235 -0.309152,-0.178257 -0.689871,-0.178257 -0.999023,0 l -0.987305,-0.569336 1.379883,-0.589843 c 0.518869,-0.213545 0.346603,-0.988345 -0.213867,-0.961914 -0.06171,0.0031 -0.122308,0.01773 -0.178711,0.04297 l -2.069336,0.883787 -2.060547,-1.189453 2.060547,-1.189453 2.069336,0.883789 c 0.0564,0.02524 0.116997,0.03982 0.178711,0.04297 0.56047,0.02643 0.732736,-0.74837 0.213867,-0.961914 L 15.642691,8.685556 16.629996,8.1162205 c 0.309152,0.178257 0.689871,0.178257 0.999023,0 C 18.106904,7.8401635 18.270803,7.229151 17.99523,6.750986 17.719146,6.272513 17.107401,6.108536 16.629019,6.3847735 16.320238,6.563513 16.130076,6.8932265 16.129996,7.250008 l -0.987305,0.569336 0.169922,-1.40918 c 0.09376,-0.32242 -0.150576,-0.643798 -0.486328,-0.639648 l -0.0068,0 c -0.0062,2.5e-4 -0.01238,5.5e-4 -0.01856,0.001 -0.0082,4.5e-4 -0.01629,0.0011 -0.02441,0.00195 l -0.0068,0.001 -0.0019,0 c -0.22906,0.027185 -0.409805,0.207525 -0.4375,0.4365235 l -0.269531,2.2333985 -2.061524,1.189453 0,-2.379883 1.754883,-1.316406 c 0.446728,-0.256676 0.2603,-0.939529 -0.254883,-0.933594 -0.01469,3.505e-4 -0.02934,0.00135 -0.04394,0.00295 -0.0059,5.5e-4 -0.01174,0.0012 -0.01758,0.00195 -0.0864,0.010615 -0.168538,0.043605 -0.238281,0.095703 l -1.200195,0.899414 0,-1.1386715 c 0.309156,-0.1784915 0.499717,-0.5082515 0.5,-0.8652345 0,-0.5522845 -0.447716,-1 -1,-1 z"/>
 <path style="opacity:0.2;fill:#8b9cbe" d="M 11.5,1 C 6.237,1 2,5.237 2,10.5 2,10.58436 2.00955,10.666177 2.011719,10.75 2.1445634,5.6045402 6.3213632,1.5 11.5,1.5 c 5.178637,0 9.355437,4.1045402 9.488281,9.25 C 20.990445,10.666177 21,10.584363 21,10.5 21,5.237 16.763,1 11.5,1 Z"/>
</svg>
