<svg xmlns="http://www.w3.org/2000/svg" width="22" height="22" version="1">
 <rect style="fill:#8e8e8e" width="1" height="19" x="14" y="-20" transform="rotate(90)"/>
 <rect style="fill:#8e8e8e" width="1" height="19" x="12" y="-20" transform="rotate(90)"/>
 <rect style="fill:#8e8e8e" width="1" height="19" x="10" y="-20" transform="rotate(90)"/>
 <rect style="fill:#8e8e8e" width="1" height="19" x="8" y="-20" transform="rotate(90)"/>
 <rect style="fill:#8e8e8e" width="1" height="19" x="16" y="-20" transform="rotate(90)"/>
 <rect style="fill:#8e8e8e" width="1" height="19" x="18" y="-20" transform="rotate(90)"/>
 <rect style="fill:#8e8e8e" width="1" height="19" x="6" y="-20" transform="rotate(90)"/>
 <rect style="fill:#8e8e8e" width="1" height="19" x="4" y="-20" transform="rotate(90)"/>
 <rect style="fill:#8e8e8e" width="1" height="19" x="10" y="2"/>
 <rect style="fill:#8e8e8e" width="1" height="19" x="8" y="2"/>
 <rect style="fill:#8e8e8e" width="1" height="19" x="6" y="2"/>
 <rect style="fill:#8e8e8e" width="1" height="19" x="4" y="2"/>
 <rect style="fill:#8e8e8e" width="1" height="19" x="12" y="2"/>
 <rect style="fill:#8e8e8e" width="1" height="19" x="14" y="2"/>
 <rect style="fill:#8e8e8e" width="1" height="19" x="16" y="2"/>
 <rect style="fill:#8e8e8e" width="1" height="19" x="2" y="2"/>
 <rect style="fill:#8e8e8e" width="1" height="19" x="18" y="2"/>
 <rect style="opacity:0.2" width="17" height="17" x="-20.5" y="-19" rx=".85" ry="1.063" transform="matrix(0,-1,-1,0,0,0)"/>
 <rect style="fill:#b7b7b7" width="17" height="17" x="-20" y="-19" rx=".85" ry="1.063" transform="matrix(0,-1,-1,0,0,0)"/>
 <path style="opacity:0.2;fill:#8b9cbe" d="M 3.0625,3 C 2.473875,3 2,3.3787094 2,3.8496094 v 0.5 C 2,3.8787094 2.473875,3.5 3.0625,3.5 h 14.875 C 18.526125,3.5 19,3.8787094 19,4.3496094 v -0.5 C 19,3.3787094 18.526125,3 17.9375,3 Z"/>
 <path style="opacity:0.1;fill:none;stroke:#000000;stroke-width:2;stroke-linecap:round;stroke-linejoin:round" d="M 1.0142425,11.500199 H 7.5142491 L 9.51425,6.5001952 12.514248,16.500203 14.514249,11.500199 H 20.986"/>
 <path style="fill:none;stroke:#009688;stroke-width:2;stroke-linecap:round;stroke-linejoin:round" d="M 1.0142425,11 H 7.5142491 L 9.51425,5.9999965 12.514248,16.000004 14.514249,11 H 20.986"/>
</svg>
