<svg xmlns="http://www.w3.org/2000/svg" width="22" height="22" version="1">
 <path style="opacity:0.2" d="m 11,1.5 c -5.5400001,0 -10,4.4599999 -10,10 0,5.54 4.4599999,10 10,10 5.54,0 10,-4.46 10,-10 0,-5.5400001 -4.46,-10 -10,-10 z"/>
 <path style="fill:#ffa50c" d="M 11,1 C 5.4599999,1 1,5.4599999 1,11 1,16.54 5.4599999,21 11,21 16.54,21 21,16.54 21,11 21,5.4599999 16.54,1 11,1 Z"/>
 <path style="opacity:0.1" d="m 7.4999998,8.4998108 c -0.828427,0 -1.4999999,0.6715732 -1.4999999,1.4999992 0,0.828427 0.6715729,0 1.4999999,0 0.828427,0 1.5,0.828427 1.5,0 0,-0.828426 -0.671573,-1.4999992 -1.5,-1.4999992 z"/>
 <path style="opacity:0.1" d="m 14.5,8.4998108 c -0.828427,0 -1.5,0.6715732 -1.5,1.4999992 0,0.828427 0.671573,0 1.5,0 0.828427,0 1.5,0.828427 1.5,0 0,-0.828426 -0.671573,-1.4999992 -1.5,-1.4999992 z"/>
 <path style="opacity:0.1" d="m 15.518554,14.49414 a 0.50004999,0.50004999 0 0 0 -0.418945,0.206055 c 0,0 -1.321831,1.799805 -4.099609,1.799805 -2.7777782,0 -4.0996097,-1.799805 -4.0996097,-1.799805 a 0.50019524,0.50019524 0 1 0 -0.8007809,0.599609 c 0,0 1.6781684,2.200196 4.9003906,2.200196 3.222222,0 4.90039,-2.200196 4.90039,-2.200196 A 0.50004999,0.50004999 0 0 0 15.518554,14.49414 Z"/>
 <path style="opacity:0.2;fill:#8b9cbe" d="M 11,1 C 5.4604924,1 1.0008889,5.4599999 1.0008889,11 c 0,0.084 -0.002,0.1665 0,0.25 C 1.1330771,5.8269999 5.5444849,1.5 11,1.5 c 5.455515,0 9.867123,4.3269999 9.999111,9.75 0.002,-0.0835 0,-0.166 0,-0.25 C 20.999111,5.4599999 16.539507,1 11,1 Z"/>
 <path style="fill:#17191e" d="m 8.9999998,9.49962 c 0,0.828427 -0.671573,0 -1.5,0 -0.828427,0 -1.4999999,0.828427 -1.4999999,0 0,-0.8284262 0.6715729,-1.4999992 1.4999999,-1.4999992 0.828427,0 1.5,0.671573 1.5,1.4999992 z"/>
 <path style="fill:#17191e" d="m 16,9.49962 c 0,0.828427 -0.671573,0 -1.5,0 -0.828427,0 -1.5,0.828427 -1.5,0 0,-0.8284262 0.671573,-1.4999992 1.5,-1.4999992 0.828427,0 1.5,0.671573 1.5,1.4999992 z"/>
 <path style="fill:none;stroke:#17191e;stroke-linecap:round;stroke-linejoin:round" d="m 6.4999998,14.5 c 0,0 1.5,2 4.5000002,2 3,0 4.5,-2 4.5,-2 v 0 0"/>
</svg>
