<svg xmlns="http://www.w3.org/2000/svg" width="22" height="22" version="1">
 <rect style="fill:#4f4f4f" width="16" height="20" x="-19" y="1" rx="1" ry="1" transform="scale(-1,1)"/>
 <circle style="opacity:0.4" cx="-13" cy="11" r="7" transform="matrix(0,-1,1,0,0,0)"/>
 <circle style="opacity:0.2" cx="-13.5" cy="-11" r="5" transform="matrix(0,-1,-1,0,0,0)"/>
 <circle style="fill:#fec006" cx="-13" cy="-11" r="5" transform="matrix(0,-1,-1,0,0,0)"/>
 <circle style="fill:#17191e" cx="-13" cy="-11" r="2" transform="matrix(0,-1,-1,0,0,0)"/>
 <circle style="opacity:0.4" cx="4" cy="-6.5" r="1" transform="matrix(0,1,-1,0,0,0)"/>
 <circle style="opacity:0.4" cx="4" cy="-15.5" r="1" transform="matrix(0,1,-1,0,0,0)"/>
 <path style="opacity:0.2" d="m 3,20 0,0.5 c 0,0.554 0.446,1 1,1 l 14,0 c 0.554,0 1,-0.446 1,-1 L 19,20 c 0,0.554 -0.446,1 -1,1 L 4,21 C 3.446,21 3,20.554 3,20 Z"/>
 <path style="opacity:0.1;fill:#8b9cbe" d="M 4,1 C 3.446,1 3,1.446 3,2 l 0,0.5 c 0,-0.554 0.446,-1 1,-1 l 14,0 c 0.554,0 1,0.446 1,1 L 19,2 C 19,1.446 18.554,1 18,1 L 4,1 Z"/>
</svg>
