<svg xmlns="http://www.w3.org/2000/svg" width="22" height="22" version="1">
 <g transform="translate(-2)">
  <rect style="fill:#8e8e8e" width="1" height="19" x="14" y="-22" transform="rotate(90)"/>
  <rect style="fill:#8e8e8e" width="1" height="19" x="12" y="-22" transform="rotate(90)"/>
  <rect style="fill:#8e8e8e" width="1" height="19" x="10" y="-22" transform="rotate(90)"/>
  <rect style="fill:#8e8e8e" width="1" height="19" x="8" y="-22" transform="rotate(90)"/>
  <rect style="fill:#8e8e8e" width="1" height="19" x="16" y="-22" transform="rotate(90)"/>
  <rect style="fill:#8e8e8e" width="1" height="19" x="18" y="-22" transform="rotate(90)"/>
  <rect style="fill:#8e8e8e" width="1" height="19" x="6" y="-22" transform="rotate(90)"/>
  <rect style="fill:#8e8e8e" width="1" height="19" x="4" y="-22" transform="rotate(90)"/>
  <rect style="fill:#8e8e8e" width="1" height="19" x="12" y="2"/>
  <rect style="fill:#8e8e8e" width="1" height="19" x="10" y="2"/>
  <rect style="fill:#8e8e8e" width="1" height="19" x="8" y="2"/>
  <rect style="fill:#8e8e8e" width="1" height="19" x="6" y="2"/>
  <rect style="fill:#8e8e8e" width="1" height="19" x="14" y="2"/>
  <rect style="fill:#8e8e8e" width="1" height="19" x="16" y="2"/>
  <rect style="fill:#8e8e8e" width="1" height="19" x="18" y="2"/>
  <rect style="fill:#8e8e8e" width="1" height="19" x="4" y="2"/>
  <rect style="fill:#8e8e8e" width="1" height="19" x="20" y="2"/>
  <rect style="opacity:0.2" width="17" height="17" x="-20.5" y="-21" rx=".85" ry="1.063" transform="matrix(0,-1,-1,0,0,0)"/>
  <rect style="fill:#b7b7b7" width="17" height="17" x="-20" y="-21" rx=".85" ry="1.063" transform="matrix(0,-1,-1,0,0,0)"/>
  <rect style="fill:#d13232" width="13" height="13" x="6" y="5" rx=".929" ry=".929"/>
  <path style="opacity:0.2;fill:#8b9cbe" d="M 5.0625,3 C 4.473875,3 4,3.3787094 4,3.8496094 v 0.5 C 4,3.8787094 4.473875,3.5 5.0625,3.5 h 14.875 C 20.526125,3.5 21,3.8787094 21,4.3496094 v -0.5 C 21,3.3787094 20.526125,3 19.9375,3 Z"/>
 </g>
</svg>
