<svg xmlns="http://www.w3.org/2000/svg" width="22" height="22" version="1">
 <circle style="opacity:0.2" cx="11" cy="11.5" r="10"/>
 <circle style="fill:#00796b" cx="11" cy="11" r="10"/>
 <path style="opacity:0.1;fill:#8b9cbe" d="M 11,1 A 10,10 0 0 0 1,11 10,10 0 0 0 1.0107422,11.291016 10,10 0 0 1 11,1.5 10,10 0 0 1 20.989258,11.208985 10,10 0 0 0 21,11 10,10 0 0 0 11,1 Z"/>
 <path style="opacity:0.2" d="M 12.38086,4.500356 C 12.138444,4.494756 11.961575,4.582022 11.802735,4.7630515 11.666854,4.9179425 11.515259,5.19504 11.465821,5.380239 11.28446,6.0596615 10.435893,6.496913 9.6875,6.295278 9.320286,6.196342 9.146135,6.039915 8.551758,5.279653 8.281223,4.9336075 8.0503595,4.9413925 7.386719,5.319693 6.7562005,5.679183 6.680166,5.9130725 6.964844,6.621451 7.0824745,6.91426 7.182263,7.2886975 7.1845705,7.4544585 7.1903355,7.86429 6.8275285,8.5134535 6.4628905,8.7474275 6.164014,8.939205 5.537675,8.9828775 5.0371095,8.848013 c -0.476,-0.1282455 -0.719947,0.098451 -0.9208985,0.85254 -0.1564741,0.587182 -0.15587,0.673738 0.00879,0.861328 0.1006025,0.114696 0.426916,0.313004 0.725586,0.441406 0.298686,0.128407 0.6293045,0.329639 0.7333985,0.448242 0.219769,0.250426 0.3599735,0.973185 0.2617185,1.352539 -0.071086,0.27546 -0.411756,0.703753 -0.6875,0.866211 -0.3005385,0.177064 -0.5900745,0.569548 -0.5810545,0.786133 0.01156,0.277469 0.4052925,0.970562 0.65625,1.154296 0.143734,0.10526 0.265494,0.119705 0.4501955,0.05078 0.5413565,-0.201942 1.413194,-0.345161 1.675781,-0.274414 0.395882,0.106659 0.959409,0.633969 1.026367,0.961914 0.031505,0.154453 0.030965,0.494237 0,0.754883 -0.075166,0.632139 -0.01354,0.95671 0.204102,1.068359 0.098978,0.05064 0.25778,0.133073 0.352539,0.183594 0.094587,0.05116 0.321791,0.112091 0.504883,0.135742 0.477483,0.06194 0.815555,-0.215671 1.078125,-0.889649 0.240082,-0.616239 0.325115,-0.703157 0.870117,-0.876953 0.553428,-0.17649 0.938537,-0.136697 1.256836,0.13086 0.263907,0.221861 0.367375,0.327376 0.773437,0.791992 0.297502,0.340473 0.533314,0.361298 1.054688,0.08887 0.783946,-0.409681 0.863357,-0.65792 0.475586,-1.47168 -0.36914,-0.774501 -0.168991,-1.551904 0.517578,-2.004882 0.262913,-0.17345 0.465774,-0.203128 1.096679,-0.16211 0.952571,0.06195 1.139596,-0.04705 1.338868,-0.784179 0.199038,-0.736231 0.115112,-0.888556 -0.698243,-1.250977 -0.773916,-0.344832 -0.984246,-0.596744 -1.096679,-1.316406 -0.09348,-0.598377 0.0546,-0.894571 0.753906,-1.493164 0.358602,-0.306929 0.560357,-0.5470465 0.561523,-0.670899 0.0025,-0.276417 -0.628403,-1.273298 -0.842773,-1.3310545 -0.09927,-0.02675 -0.400795,0.045525 -0.670898,0.1591795 -0.74509,0.3136135 -1.142985,0.3234495 -1.632813,0.039065 C 13.707637,7.1155025 13.557341,6.79179 13.603517,5.98864 13.656547,5.0662515 13.581962,4.8785805 13.085939,4.6819995 12.920721,4.61637 12.775777,4.5671635 12.646486,4.5374685 v -0.001 c -0.09697,-0.022275 -0.18482,-0.034265 -0.265625,-0.036135 z"/>
 <path style="fill:#18c28c" d="M 12.38086,4.000357 C 12.138444,3.994758 11.961575,4.082023 11.802735,4.2630525 11.666854,4.4179435 11.515259,4.695041 11.465821,4.88024 11.28446,5.5596625 10.435893,5.996914 9.6875,5.795279 9.320286,5.696343 9.146135,5.539916 8.551758,4.779654 8.281223,4.4336085 8.0503595,4.4413935 7.386719,4.819694 6.7562005,5.179184 6.680166,5.4130735 6.964844,6.121452 c 0.1176305,0.292809 0.217419,0.6672465 0.2197265,0.8330075 0.00577,0.4098315 -0.357042,1.058995 -0.72168,1.292969 -0.2988765,0.1917775 -0.9252155,0.23545 -1.425781,0.1005855 -0.476,-0.1282455 -0.719947,0.098451 -0.9208985,0.85254 -0.1564741,0.587182 -0.15587,0.673738 0.00879,0.861328 0.1006025,0.114696 0.426916,0.313004 0.725586,0.441406 0.298686,0.128407 0.6293045,0.329639 0.7333985,0.448242 0.219769,0.250426 0.3599735,0.973185 0.2617185,1.352539 -0.071086,0.27546 -0.411756,0.703753 -0.6875,0.866211 -0.3005385,0.177064 -0.5900745,0.569548 -0.5810545,0.786133 0.01156,0.277469 0.4052925,0.970562 0.65625,1.154297 0.143734,0.105259 0.265494,0.119705 0.4501955,0.05078 0.5413565,-0.201941 1.413194,-0.345161 1.675781,-0.274414 0.395882,0.10666 0.959409,0.633969 1.026367,0.961914 0.031505,0.154453 0.030965,0.494237 0,0.754883 -0.075166,0.632139 -0.01354,0.95671 0.204102,1.068359 0.098978,0.05064 0.25778,0.133073 0.352539,0.183594 0.094587,0.05116 0.321791,0.112091 0.504883,0.135742 0.477483,0.06194 0.815555,-0.215671 1.078125,-0.889648 0.240082,-0.616239 0.325115,-0.703158 0.870117,-0.876953 0.553428,-0.176491 0.938537,-0.136698 1.256836,0.130859 0.263907,0.221861 0.367375,0.327376 0.773437,0.791992 0.297502,0.340473 0.533314,0.361299 1.054688,0.08887 0.783946,-0.409681 0.863357,-0.65792 0.475586,-1.471679 -0.36914,-0.774502 -0.168991,-1.551905 0.517578,-2.004883 0.262913,-0.17345 0.465774,-0.203128 1.096679,-0.16211 0.952571,0.06195 1.139596,-0.04704 1.338868,-0.784179 0.199038,-0.736231 0.115112,-0.888556 -0.698243,-1.250977 -0.773916,-0.344832 -0.984246,-0.596744 -1.096679,-1.316406 -0.09348,-0.598377 0.0546,-0.894571 0.753906,-1.4931645 0.358602,-0.3069285 0.560357,-0.547046 0.561523,-0.6708985 0.0025,-0.276417 -0.628403,-1.273298 -0.842773,-1.3310545 -0.09927,-0.02675 -0.400795,0.045525 -0.670898,0.1591795 -0.74509,0.3136135 -1.142985,0.3234495 -1.632813,0.039065 -0.575567,-0.3340775 -0.725863,-0.65779 -0.679687,-1.46094 0.05303,-0.9223885 -0.02155,-1.1100595 -0.517578,-1.3066405 -0.165218,-0.06563 -0.310162,-0.114836 -0.439453,-0.144531 v -0.001 c -0.09697,-0.022275 -0.18482,-0.034265 -0.265625,-0.036135 z"/>
 <circle style="opacity:0.2" cx="11" cy="11.5" r="3"/>
 <circle style="fill:#8b9cbe" cx="11" cy="11" r="3"/>
 <path style="opacity:0.2;fill:#8b9cbe" d="M 12.38086,4 C 12.138444,3.994401 11.961575,4.081666 11.802735,4.2626955 11.666854,4.4175865 11.515259,4.694684 11.465821,4.879883 11.28446,5.5593055 10.435893,5.996557 9.6875,5.794922 9.320286,5.695986 9.146135,5.539559 8.551758,4.779297 8.281223,4.4332515 8.050359,4.4410355 7.386719,4.819337 6.8728795,5.1123025 6.741582,5.336186 6.859375,5.7871105 6.935751,5.620634 7.1018595,5.4817495 7.386719,5.319337 8.050359,4.9410365 8.281223,4.9332525 8.551758,5.279297 9.146135,6.039559 9.320286,6.195986 9.6875,6.294922 10.435894,6.496557 11.28446,6.0593055 11.465821,5.379883 11.515261,5.194684 11.666854,4.9175865 11.802735,4.7626955 11.961575,4.581666 12.138444,4.4944 12.38086,4.5 c 0.0808,0.00185 0.168656,0.01386 0.265625,0.036135 v 0.001 c 0.129291,0.029695 0.274235,0.078901 0.439453,0.144531 0.34703,0.1375335 0.485425,0.2766885 0.520508,0.6601565 0.03299,-0.776561 -0.05661,-0.976307 -0.520508,-1.1601565 C 12.92072,4.1160365 12.775776,4.06683 12.646485,4.037135 v -0.001 C 12.549516,4.013858 12.461664,4.00187 12.38086,4 Z m 1.226562,1.8125 c -0.0024,0.063163 2.15e-4,0.104091 -0.0039,0.175781 -0.04617,0.80315 0.104121,1.126862 0.679688,1.460938 0.489827,0.2843845 0.887722,0.274551 1.632812,-0.039065 0.270104,-0.1136545 0.571625,-0.1859295 0.670898,-0.1591795 0.162504,0.043785 0.563213,0.6261945 0.747071,1.0263675 0.05666,-0.0786 0.09526,-0.147951 0.0957,-0.195313 0.0025,-0.276417 -0.628404,-1.273298 -0.842774,-1.3310545 -0.09927,-0.02675 -0.400794,0.045525 -0.670898,0.1591795 -0.74509,0.3136135 -1.142985,0.3234475 -1.632813,0.039065 C 13.797272,6.6671665 13.624789,6.3745415 13.607428,5.8125 Z M 7.1435545,7.225586 C 7.041915,7.6090535 6.754554,8.0599215 6.4628905,8.2470705 6.164014,8.438848 5.537675,8.4825205 5.0371095,8.347656 4.5611095,8.2194105 4.3171625,8.446107 4.116211,9.200196 3.9903288,9.672579 3.9716591,9.82135 4.052734,9.958985 4.070739,9.881815 4.087819,9.806741 4.116211,9.700196 4.3171625,8.946107 4.5611095,8.7194105 5.0371095,8.847656 5.537675,8.9825205 6.164014,8.938848 6.4628905,8.7470705 c 0.364638,-0.233974 0.727445,-0.8831375 0.72168,-1.292969 -7e-4,-0.051435 -0.023905,-0.1455695 -0.041016,-0.2285155 z m 8.9697265,3.015625 c -0.03082,0.150818 -0.02927,0.311273 10e-4,0.504883 0.112433,0.719662 0.322763,0.971574 1.09668,1.316406 0.434477,0.193598 0.655939,0.32969 0.742187,0.524414 0.106561,-0.528151 -0.03004,-0.70709 -0.742187,-1.024414 -0.773917,-0.344832 -0.984247,-0.596744 -1.09668,-1.316406 -2.73e-4,-0.0017 -7e-4,-0.0031 -10e-4,-0.0049 z M 5.8515625,12.239258 c -0.00365,0.01968 -0.00115,0.04626 -0.00586,0.06445 -0.071086,0.27546 -0.411756,0.703753 -0.6875,0.866211 -0.3005385,0.177064 -0.5900745,0.569548 -0.5810545,0.786133 0.00285,0.06837 0.029885,0.162571 0.071289,0.267578 0.101019,-0.20076 0.299497,-0.42983 0.5097655,-0.553711 0.275744,-0.162458 0.6164135,-0.590751 0.6875,-0.866211 0.039005,-0.150601 0.032075,-0.356647 0.00586,-0.564453 z m 8.9482425,3.024414 c -0.05282,0.315892 -0.0073,0.657731 0.15625,1.000976 0.08127,0.170548 0.136761,0.311893 0.174804,0.439453 0.102174,-0.224564 0.0354,-0.498325 -0.174804,-0.939453 -0.08016,-0.168185 -0.128932,-0.335869 -0.15625,-0.500976 z M 8.3935545,16.46289 c -0.0035,0.04718 -0.0026,0.09668 -0.00782,0.140625 -0.03393,0.285336 -0.036275,0.500237 -0.012695,0.668946 0.0048,-0.0577 0.0051,-0.105055 0.012695,-0.168946 0.02573,-0.216579 0.025025,-0.466494 0.00782,-0.640625 z"/>
</svg>
