<svg xmlns="http://www.w3.org/2000/svg" width="22" height="22" version="1">
 <rect style="opacity:0.2" width="20" height="20" x="1" y="1.5" rx="1" ry="1"/>
 <rect style="fill:#ff7515" width="20" height="20" x="1" y="1" rx="1" ry="1"/>
 <path style="opacity:0.2" d="M 4.1464845,7.5 C 4.0651925,7.5 4,7.565391 4,7.645508 v 8.709961 C 4,16.434888 4.0651925,16.5 4.1464845,16.5 H 5.895508 c 0.080829,0 0.147461,-0.06511 0.147461,-0.144531 V 9.668946 c 0,-0.07896 0.066168,-0.143555 0.1474605,-0.143555 H 10.53125 c 1.15033,0 1.476563,0.885533 1.476563,1.457031 v 5.373047 c 0,0.07942 0.06617,0.144531 0.147461,0.144531 h 1.697265 C 13.93337,16.5 14,16.434888 14,16.355469 V 10.176758 C 14,9.667031 13.939187,8.9341755 13.285156,8.2890625 12.600871,7.6156185 11.976232,7.5 11.278321,7.5 Z m 11.9873045,0 C 16.059652,7.5 16,7.565391 16,7.645508 v 8.709961 C 16,16.434888 16.059652,16.5 16.133789,16.5 h 1.731445 C 17.938738,16.5 18,16.434888 18,16.355469 V 7.645508 C 18,7.565391 17.938738,7.5 17.865234,7.5 Z m -8.004883,4 C 8.05786,11.5 8,11.558855 8,11.63086 v 4.739257 C 8,16.441702 8.0578595,16.5 8.128906,16.5 H 9.872071 C 9.942511,16.5 10,16.441702 10,16.370117 V 11.63086 C 10,11.558855 9.942511,11.5 9.872071,11.5 Z"/>
 <path style="fill:#8b9cbe" d="M 4.1464845,7 C 4.0651925,7 4,7.065391 4,7.145508 v 8.709961 C 4,15.934888 4.0651925,16 4.1464845,16 H 5.895508 c 0.080829,0 0.147461,-0.06511 0.147461,-0.144531 V 9.168946 c 0,-0.07896 0.066168,-0.143555 0.1474605,-0.143555 H 10.53125 c 1.15033,0 1.476563,0.885533 1.476563,1.457031 v 5.373047 c 0,0.07942 0.06617,0.144531 0.147461,0.144531 h 1.697265 C 13.93337,16 14,15.934888 14,15.855469 V 9.676758 C 14,9.167031 13.939187,8.4341755 13.285156,7.7890625 12.600871,7.1156185 11.976232,7 11.278321,7 Z M 16.133789,7 C 16.059652,7 16,7.065391 16,7.145508 v 8.709961 C 16,15.934888 16.059652,16 16.133789,16 h 1.731445 C 17.938738,16 18,15.934888 18,15.855469 V 7.145508 C 18,7.065391 17.938738,7 17.865234,7 Z M 8.128906,11 C 8.05786,11 8,11.058855 8,11.13086 v 4.739257 C 8,15.941702 8.0578595,16 8.128906,16 H 9.872071 C 9.942511,16 10,15.941702 10,15.870117 V 11.13086 C 10,11.058855 9.942511,11 9.872071,11 Z"/>
 <path style="opacity:0.2;fill:#8b9cbe" d="M 2,1 C 1.446,1 1,1.446 1,2 v 0.5 c 0,-0.554 0.446,-1 1,-1 h 18 c 0.554,0 1,0.446 1,1 V 2 C 21,1.446 20.554,1 20,1 Z"/>
</svg>
