<svg xmlns="http://www.w3.org/2000/svg" width="22" height="22" version="1">
 <path style="opacity:0.2" d="M 19,20.5 V 6 C 19,5.446 18.554,5 18,5 H 4 C 3.446,5 3,5.446 3,6 v 14.5 c 0,0.554 0.446,1 1,1 h 14 c 0.554,0 1,-0.446 1,-1 z"/>
 <path style="fill:#b2bfd9" d="M 19,20 V 5.5 c 0,-0.554 -0.446,-1 -1,-1 H 4 c -0.554,0 -1,0.446 -1,1 V 20 c 0,0.554 0.446,1 1,1 h 14 c 0.554,0 1,-0.446 1,-1 z"/>
 <path style="fill:#4f4f4f" d="M 19,6 V 4 C 19,3.446 18.554,3 18,3 H 4 C 3.446,3 3,3.446 3,4 v 2 z"/>
 <path style="opacity:0.2" d="M 4.46875,1.5 C 4.2091615,1.5 4,1.7039324 4,1.9570313 V 4.042969 C 4,4.2960675 4.2091615,4.5 4.46875,4.5 h 1.0625 C 5.7908385,4.5 6,4.2960675 6,4.042969 V 1.9570313 C 6,1.7039324 5.7908385,1.5 5.53125,1.5 Z m 4,0 C 8.2091615,1.5 8,1.7039324 8,1.9570313 V 4.042969 C 8,4.2960675 8.2091615,4.5 8.46875,4.5 h 1.0625 C 9.790839,4.5 10,4.2960675 10,4.042969 V 1.9570313 C 10,1.7039324 9.790839,1.5 9.53125,1.5 Z m 4,0 C 12.209162,1.5 12,1.7039324 12,1.9570313 V 4.042969 C 12,4.2960675 12.209162,4.5 12.46875,4.5 h 1.0625 C 13.790839,4.5 14,4.2960675 14,4.042969 V 1.9570313 C 14,1.7039324 13.790839,1.5 13.53125,1.5 Z m 4,0 C 16.209161,1.5 16,1.7039324 16,1.9570313 V 4.042969 C 16,4.2960675 16.209161,4.5 16.46875,4.5 h 1.0625 C 17.790838,4.5 18,4.2960675 18,4.042969 V 1.9570313 C 18,1.7039324 17.790838,1.5 17.53125,1.5 Z"/>
 <path style="fill:#f7c13e" d="M 4.46875,1 C 4.2091615,1 4,1.2039324 4,1.4570313 V 3.5429687 C 4,3.7960677 4.2091615,4 4.46875,4 h 1.0625 C 5.7908385,4 6,3.7960677 6,3.5429687 V 1.4570313 C 6,1.2039324 5.7908385,1 5.53125,1 Z m 4,0 C 8.2091615,1 8,1.2039324 8,1.4570313 V 3.5429687 C 8,3.7960677 8.2091615,4 8.46875,4 h 1.0625 C 9.790839,4 10,3.7960677 10,3.5429687 V 1.4570313 C 10,1.2039324 9.790839,1 9.53125,1 Z m 4,0 C 12.209162,1 12,1.2039324 12,1.4570313 V 3.5429687 C 12,3.7960677 12.209162,4 12.46875,4 h 1.0625 C 13.790839,4 14,3.7960677 14,3.5429687 V 1.4570313 C 14,1.2039324 13.790839,1 13.53125,1 Z m 4,0 C 16.209161,1 16,1.2039324 16,1.4570313 V 3.5429687 C 16,3.7960677 16.209161,4 16.46875,4 h 1.0625 C 17.790838,4 18,3.7960677 18,3.5429687 V 1.4570313 C 18,1.2039324 17.790838,1 17.53125,1 Z"/>
 <path style="opacity:0.2;fill:#8b9cbe" d="M 4.46875,1 C 4.2091615,1 4,1.2039324 4,1.4570313 v 0.5 C 4,1.7039324 4.2091615,1.5 4.46875,1.5 h 1.0625 C 5.7908385,1.5 6,1.7039324 6,1.9570313 v -0.5 C 6,1.2039324 5.7908385,1 5.53125,1 Z m 4,0 C 8.2091615,1 8,1.2039324 8,1.4570313 v 0.5 C 8,1.7039324 8.2091615,1.5 8.46875,1.5 h 1.0625 C 9.790839,1.5 10,1.7039324 10,1.9570313 v -0.5 C 10,1.2039324 9.790839,1 9.53125,1 Z m 4,0 C 12.209162,1 12,1.2039324 12,1.4570313 v 0.5 C 12,1.7039324 12.209162,1.5 12.46875,1.5 h 1.0625 C 13.790839,1.5 14,1.7039324 14,1.9570313 v -0.5 C 14,1.2039324 13.790839,1 13.53125,1 Z m 4,0 C 16.209161,1 16,1.2039324 16,1.4570313 v 0.5 C 16,1.7039324 16.209161,1.5 16.46875,1.5 h 1.0625 C 17.790838,1.5 18,1.7039324 18,1.9570313 v -0.5 C 18,1.2039324 17.790838,1 17.53125,1 Z"/>
 <path style="opacity:0.1" d="m 12.515775,12.652386 c 0.03655,0.04113 0.133586,0.132414 0.291106,0.273875 2.21109,2.192933 3.274083,3.170916 3.188557,3.433699 -0.06147,0.1933 -0.238655,0.357209 -0.531554,0.49173 -0.292415,0.126696 -0.555855,0.184146 -0.790321,0.172351 -0.185638,-0.0093 -1.067265,-0.683613 -2.644457,-2.522584 -0.318245,-0.385212 -0.50516,-0.602785 -0.560745,-0.65272 -0.231085,0.23976 -0.576506,0.732997 -1.036265,1.479712 -0.591813,1.191418 -1.370517,2.290826 -1.8165084,3.549683 -0.1362225,0.440914 -0.4827735,0.647367 -1.0396515,0.619359 -0.2930975,-0.01474 -0.4731775,-0.11021 -0.5402365,-0.286404 -0.067064,-0.176196 -0.03964,-0.449759 0.082272,-0.820696 C 7.3520191,17.648033 8.4776046,15.84681 10.494732,12.986718 10.483252,12.860459 10.194235,12.402085 9.627666,11.611593 9.061087,10.821117 8.6112746,10.222336 8.2782261,9.91492 7.9173746,9.582559 7.7671756,9.327555 7.8276301,9.149908 7.9638456,8.7090037 8.3934396,8.5067267 9.116412,8.5430797 c 0.351712,0.0177 0.978576,0.7589303 1.880597,2.1240203 0.385294,0.56142 0.637665,0.904046 0.757114,1.027879 0.207999,-0.185919 0.504506,-0.528433 0.889518,-1.027543 0.385503,-0.506923 0.652101,-0.917714 0.799798,-1.232372 0.146168,-0.291149 0.37674,-0.5230743 0.69172,-0.6957753 0.314963,-0.172681 0.61411,-0.251902 0.897446,-0.237662 0.439632,0.02212 0.598752,0.214731 0.477357,0.5778253 -0.136229,0.440925 -0.928898,1.410493 -2.378009,2.908709 -0.377953,0.389487 -0.583344,0.610894 -0.616178,0.664225"/>
 <path style="fill:#ff6600" d="m 12.515775,12.152386 c 0.03655,0.04113 0.133586,0.132414 0.291106,0.273875 2.21109,2.192933 3.274083,3.170916 3.188557,3.433699 -0.06147,0.1933 -0.238655,0.357209 -0.531554,0.49173 -0.292415,0.126696 -0.555855,0.184146 -0.790321,0.172351 -0.185638,-0.0093 -1.067265,-0.683613 -2.644457,-2.522584 -0.318245,-0.385212 -0.50516,-0.602785 -0.560745,-0.65272 -0.231085,0.23976 -0.576506,0.732997 -1.036265,1.479711 -0.591813,1.191418 -1.370517,2.290826 -1.8165084,3.549684 -0.1362225,0.440914 -0.4827735,0.647367 -1.0396515,0.619359 -0.2930975,-0.01474 -0.4731775,-0.11021 -0.5402365,-0.286405 -0.067064,-0.176196 -0.03964,-0.449759 0.082272,-0.820695 0.2340475,-0.742359 1.359633,-2.543582 3.3767604,-5.403673 C 10.483252,12.360459 10.194235,11.902084 9.627666,11.111593 9.061087,10.321116 8.6112746,9.722336 8.2782261,9.41492 7.9173746,9.082558 7.7671756,8.8275537 7.8276301,8.6499077 c 0.1362155,-0.440905 0.5658095,-0.643183 1.2887819,-0.60683 0.351712,0.0177 0.978576,0.758932 1.880597,2.1240223 0.385294,0.56142 0.637665,0.904045 0.757114,1.027878 0.207999,-0.185919 0.504506,-0.528432 0.889518,-1.027543 0.385503,-0.506923 0.652101,-0.917713 0.799798,-1.2323723 0.146168,-0.291149 0.37674,-0.523073 0.69172,-0.695775 0.314963,-0.172682 0.61411,-0.251902 0.897446,-0.237663 0.439632,0.02212 0.598752,0.214732 0.477357,0.577827 -0.136229,0.4409243 -0.928898,1.4104933 -2.378009,2.9087093 -0.377953,0.389487 -0.583344,0.610894 -0.616178,0.664225"/>
</svg>
