<svg xmlns="http://www.w3.org/2000/svg" width="22" height="22" version="1">
 <path style="opacity:0.2" d="m 19,20.5 v -18 c 0,-0.554 -0.473876,-1 -1.0625,-1 H 3.0625 C 2.473875,1.5 2,1.946 2,2.5 v 18 c 0,0.554 0.473875,1 1.0625,1 h 14.875 C 18.526124,21.5 19,21.054 19,20.5 Z"/>
 <path style="fill:#ce3f39" d="M 19,20 V 2 C 19,1.446 18.526124,1 17.9375,1 H 3.0625 C 2.473875,1 2,1.446 2,2 v 18 c 0,0.554 0.473875,1 1.0625,1 h 14.875 C 18.526124,21 19,20.554 19,20 Z"/>
 <path style="opacity:0.3" d="M 5,3 C 4.446,3 4,3.446 4,4 V 8 C 4,8.554 4.446,9 5,9 H 9 C 9.554,9 10,8.554 10,8 V 4 C 10,3.446 9.554,3 9,3 Z m 6,0 v 1 h 6 V 3 Z m 0,3 v 1 h 6 V 6 Z m 0,3 v 1 h 6 V 9 Z m -7,3 v 1 h 13 v -1 z m 0,3 v 1 h 13 v -1 z m 0,3 v 1 h 13 v -1 z"/>
 <circle style="fill:#5b5b5b" cx="16.5" cy="16.5" r="5.5"/>
 <path style="fill:#8b9cbe;fill-rule:evenodd" d="m 16.5,14 c -0.7754,0.0076 -1.55605,0.18472 -2.23145,0.5675 -0.269205,0.17535 -0.5924,0.40183 -0.83595,0.63 -0.383245,0.37529 -0.71125,0.81315 -0.9326,1.303 0.60745,1.34005 1.94295,2.32225 3.4121,2.4673 0.9637,0.109085 1.9722,-0.05744 2.81935,-0.5343 0.269195,-0.17535 0.5924,-0.40183 0.83595,-0.63 0.38325,-0.375295 0.71125,-0.8132 0.9326,-1.303 -0.6075,-1.34 -1.9429,-2.3224 -3.4121,-2.46735 C 16.89296,14.0104 16.696255,13.9999 16.5,13.9999 Z m 0,1.0002 c 0.8035,-0.0178 1.51515,0.70105 1.5,1.50035 0.02575,0.8834 -0.8545,1.6458 -1.7246,1.4808 -0.8788,-0.103185 -1.49605,-1.0891 -1.20705,-1.92425 0.184585,-0.6148 0.7879,-1.0645 1.43165,-1.0569 z m 0,1.0002 a 0.5,0.5001 0 0 0 -0.5,0.5001 0.5,0.5001 0 0 0 0.5,0.5001 0.5,0.5001 0 0 0 0.499995,-0.5001 0.5,0.5001 0 0 0 -0.5,-0.4995 z"/>
 <path style="opacity:0.2;fill:#8b9cbe" d="M 3.0625,1 C 2.473875,1 2,1.446 2,2 v 0.5 c 0,-0.554 0.473875,-1 1.0625,-1 h 14.875 C 18.526124,1.5 19,1.946 19,2.5 V 2 C 19,1.446 18.526124,1 17.9375,1 Z"/>
</svg>
