<svg xmlns="http://www.w3.org/2000/svg" width="22" height="22" version="1.1">
 <rect style="opacity:0.2" width="18" height="17" x="2" y="3.5" rx=".9" ry=".85"/>
 <rect style="fill:#4f4f4f" width="18" height="17" x="2" y="3" rx=".9" ry=".85"/>
 <path style="opacity:0.2" d="M 6.6542969,7.4475316 5.9472656,8.1545629 8.7929688,11.000266 5.9472656,13.845969 6.6542969,14.553 9.853516,11.353782 10.207031,11.000266 13.052734,8.1545629 12.345703,7.4475316 9.5,10.293235 Z"/>
 <path style="fill:none;stroke:#236ac6;stroke-width:1px" d="M 12.7,7.3 9.5,10.5"/>
 <path style="opacity:0.1;fill:#8b9cbe" d="m 12.345703,6.9472656 -3.199219,3.1992184 0.25,0.25 2.949219,-2.9492184 0.457031,0.4570313 0.25,-0.25 z"/>
 <rect style="opacity:0.2" width="22" height="2" x="0" y="2.5" rx="1" ry="1"/>
 <rect style="fill:#a5b1b3" width="22" height="2" x="0" y="2" rx="1" ry="1"/>
 <path style="fill:none;stroke:#3498db" d="m 11,15.5 h 5"/>
 <path style="opacity:0.2;fill:#8b9cbe" d="M 1,2 C 0.446,2 0,2.446 0,3 0,3.0869174 0.0145052,3.1697047 0.0351562,3.25 0.1461319,2.8185035 0.5329174,2.5 1,2.5 h 20 c 0.467082,0 0.853868,0.3185035 0.964844,0.75 C 21.985495,3.1697047 22,3.0869174 22,3 22,2.446 21.554,2 21,2 Z"/>
 <path style="opacity:0.2;fill:#8b9cbe" d="m 11,15 v 0.5 h 5 V 15 Z"/>
 <path style="fill:none;stroke:#3498db;stroke-width:1px" d="m 6.3,13.7 3.2,-3.2 v 0 m 0,0 -3.2,-3.2 v 0 0 l 3.2,3.2 -3.2,3.2"/>
 <path style="opacity:0.2;fill:#8b9cbe" d="m 6.6542969,6.9472656 -0.7070313,0.7070313 0.25,0.25 L 6.6542969,7.4472656 9.853516,10.646484 9.957031,10.75 l 0.25,-0.25 -0.353515,-0.353516 z M 8.5429688,10.75 l -2.5957032,2.595703 0.25,0.25 L 8.7929688,11 Z"/>
</svg>
