<svg xmlns="http://www.w3.org/2000/svg" width="22" height="22" version="1.1">
 <g transform="translate(-1,-1)">
  <rect style="opacity:0.2" width="20" height="20" x="2" y="2.5" rx="1" ry="1"/>
  <rect style="fill:#419d45" width="20" height="20" x="2" y="2" rx="1" ry="1"/>
  <rect style="opacity:0.2" width="8" height="8" x="8" y="8.5" rx="2" ry="2"/>
  <rect style="fill:#37474f" width="8" height="8" x="8" y="8" rx="2" ry="2"/>
  <path style="opacity:0.1;fill:#8b9cbe" d="M 10,8 C 8.892,8 8,8.892 8,10 V 10.5 C 8,9.392 8.892,8.5 10,8.5 H 14 C 15.108,8.5 16,9.392 16,10.5 V 10 C 16,8.892 15.108,8 14,8 Z"/>
  <path style="opacity:0.1;fill:#8b9cbe" d="M 3,2 C 2.446,2 2,2.446 2,3 V 3.5 C 2,2.946 2.446,2.5 3,2.5 H 21 C 21.554,2.5 22,2.946 22,3.5 V 3 C 22,2.446 21.554,2 21,2 Z"/>
  <g style="opacity:0.2" transform="translate(0,0.5)">
   <rect width="1" height="1" x="7" y="5"/>
   <rect width="1" height="1" x="9" y="5"/>
   <rect width="1" height="1" x="12" y="5"/>
   <rect width="1" height="1" x="14" y="5"/>
   <rect width="1" height="1" x="16" y="5"/>
   <rect width="1" height="1" x="18" y="5"/>
   <rect width="1" height="1" x="5" y="5"/>
   <rect width="1" height="1" x="18" y="7"/>
   <rect width="1" height="1" x="18" y="9"/>
   <rect width="1" height="1" x="18" y="14"/>
   <rect width="1" height="1" x="18" y="16"/>
   <rect width="1" height="1" x="18" y="18"/>
   <rect width="1" height="1" x="16" y="18"/>
   <rect width="1" height="1" x="14" y="18"/>
   <rect width="1" height="1" x="11" y="18"/>
   <rect width="1" height="1" x="9" y="18"/>
   <rect width="1" height="1" x="7" y="18"/>
   <rect width="1" height="1" x="5" y="18"/>
   <rect width="1" height="1" x="5" y="16"/>
   <rect width="1" height="1" x="5" y="14"/>
   <rect width="1" height="1" x="5" y="11"/>
   <rect width="1" height="1" x="5" y="7"/>
   <rect width="1" height="1" x="5" y="9"/>
   <rect width="1" height="1" x="18" y="12"/>
   <rect width="1" height="1" x="20" y="7"/>
   <rect width="1" height="1" x="20" y="5"/>
   <rect width="1" height="1" x="20" y="3"/>
   <rect width="1" height="1" x="18" y="3"/>
   <rect width="1" height="1" x="16" y="3"/>
   <rect width="1" height="1" x="14" y="3"/>
   <rect width="1" height="1" x="12" y="3"/>
   <rect width="1" height="1" x="9" y="3"/>
   <rect width="1" height="1" x="7" y="3"/>
   <rect width="1" height="1" x="20" y="9"/>
   <rect width="1" height="1" x="20" y="12"/>
   <rect width="1" height="1" x="20" y="14"/>
   <rect width="1" height="1" x="20" y="16"/>
   <rect width="1" height="1" x="20" y="18"/>
   <rect width="1" height="1" x="20" y="20"/>
   <rect width="1" height="1" x="18" y="20"/>
   <rect width="1" height="1" x="16" y="20"/>
   <rect width="1" height="1" x="14" y="20"/>
   <rect width="1" height="1" x="11" y="20"/>
   <rect width="1" height="1" x="9" y="20"/>
   <rect width="1" height="1" x="7" y="20"/>
   <rect width="1" height="1" x="3" y="20"/>
   <rect width="1" height="1" x="3" y="18"/>
   <rect width="1" height="1" x="3" y="16"/>
   <rect width="1" height="1" x="3" y="14"/>
   <rect width="1" height="1" x="3" y="11"/>
   <rect width="1" height="1" x="3" y="9"/>
   <rect width="1" height="1" x="3" y="7"/>
   <rect width="1" height="1" x="3" y="5"/>
  </g>
  <g style="fill:#ffdc65">
   <rect width="1" height="1" x="7" y="5"/>
   <rect width="1" height="1" x="9" y="5"/>
   <rect width="1" height="1" x="12" y="5"/>
   <rect width="1" height="1" x="14" y="5"/>
   <rect width="1" height="1" x="16" y="5"/>
   <rect width="1" height="1" x="18" y="5"/>
   <rect width="1" height="1" x="5" y="5"/>
   <rect width="1" height="1" x="18" y="7"/>
   <rect width="1" height="1" x="18" y="9"/>
   <rect width="1" height="1" x="18" y="14"/>
   <rect width="1" height="1" x="18" y="16"/>
   <rect width="1" height="1" x="18" y="18"/>
   <rect width="1" height="1" x="16" y="18"/>
   <rect width="1" height="1" x="14" y="18"/>
   <rect width="1" height="1" x="11" y="18"/>
   <rect width="1" height="1" x="9" y="18"/>
   <rect width="1" height="1" x="7" y="18"/>
   <rect width="1" height="1" x="5" y="18"/>
   <rect width="1" height="1" x="5" y="16"/>
   <rect width="1" height="1" x="5" y="14"/>
   <rect width="1" height="1" x="5" y="11"/>
   <rect width="1" height="1" x="5" y="7"/>
   <rect width="1" height="1" x="5" y="9"/>
   <rect width="1" height="1" x="18" y="12"/>
   <rect width="1" height="1" x="20" y="7"/>
   <rect width="1" height="1" x="20" y="5"/>
   <rect width="1" height="1" x="20" y="3"/>
   <rect width="1" height="1" x="18" y="3"/>
   <rect width="1" height="1" x="16" y="3"/>
   <rect width="1" height="1" x="14" y="3"/>
   <rect width="1" height="1" x="12" y="3"/>
   <rect width="1" height="1" x="9" y="3"/>
   <rect width="1" height="1" x="7" y="3"/>
   <rect width="1" height="1" x="20" y="9"/>
   <rect width="1" height="1" x="20" y="12"/>
   <rect width="1" height="1" x="20" y="14"/>
   <rect width="1" height="1" x="20" y="16"/>
   <rect width="1" height="1" x="20" y="18"/>
   <rect width="1" height="1" x="20" y="20"/>
   <rect width="1" height="1" x="18" y="20"/>
   <rect width="1" height="1" x="16" y="20"/>
   <rect width="1" height="1" x="14" y="20"/>
   <rect width="1" height="1" x="11" y="20"/>
   <rect width="1" height="1" x="9" y="20"/>
   <rect width="1" height="1" x="7" y="20"/>
   <rect width="1" height="1" x="3" y="20"/>
   <rect width="1" height="1" x="3" y="18"/>
   <rect width="1" height="1" x="3" y="16"/>
   <rect width="1" height="1" x="3" y="14"/>
   <rect width="1" height="1" x="3" y="11"/>
   <rect width="1" height="1" x="3" y="9"/>
   <rect width="1" height="1" x="3" y="7"/>
   <rect width="1" height="1" x="3" y="5"/>
  </g>
 </g>
</svg>
