<svg width="22" height="22" version="1.1" xmlns="http://www.w3.org/2000/svg">
 <path d="m1 19v0.5c0 0.554 0.446 1 1 1h18c0.554 0 1-0.446 1-1v-0.5c0 0.554-0.446 1-1 1h-18c-0.554 0-1-0.446-1-1z" style="opacity:.2"/>
 <rect x="1" y="2" width="20" height="18" rx="1" ry="1" style="fill:#00a5c3"/>
 <path d="m2 2c-0.554 0-1 0.446-1 1v0.5c0-0.554 0.446-1 1-1h18c0.554 0 1 0.446 1 1v-0.5c0-0.554-0.446-1-1-1z" style="fill:#8b9cbe;opacity:.2"/>
 <path d="m14 3.5-1 5-1-2h-1v1l1 2h2l1-5v-1zm-11 1v3s0 1 1 1h3v2h-4v1h4c1 0 1-1 1-1v-6h-1v3h-3v-3zm7 6v1h6v-1z" style="opacity:.2"/>
 <path d="m14 3-1 5-1-2h-1v1l1 2h2l1-5v-1zm-11 1v3s0 1 1 1h3v2h-4v1h4c1 0 1-1 1-1v-6h-1v3h-3v-3zm7 6v1h6v-1z" style="fill:#8b9cbe"/>
</svg>
