<svg xmlns="http://www.w3.org/2000/svg" width="22" height="22" version="1.1">
 <path style="fill:#9aca3c" d="m11 1a10 10 0 0 0 -10 10 10 10 0 0 0 10 10 10 10 0 0 0 10 -10 10 10 0 0 0 -10 -10z"/>
 <path style="opacity:.2" d="m1.01075 11.209a10 10 0 0 0 -0.01075 0.291 10 10 0 0 0 10 10 10 10 0 0 0 10 -10 10 10 0 0 0 -0.0105 -0.209 10 10 0 0 1 -9.9895 9.709 10 10 0 0 1 -9.989 -9.791z"/>
 <path style="opacity:.2;stroke-linejoin:round;stroke:#000000;stroke-linecap:round;stroke-width:2;fill:none" d="m8.0004958 16.499737 7.0000002-9.000016"/>
 <path style="opacity:.2;fill:#8b9cbe" d="m11 1a10 10 0 0 0 -10 10 10 10 0 0 0 0.01075 0.209 10 10 0 0 1 9.989 -9.709 10 10 0 0 1 9.9895 9.791 10 10 0 0 0 0.0105 -0.291 10 10 0 0 0 -10 -10z"/>
 <path style="opacity:.2;stroke-linejoin:round;stroke:#000000;stroke-linecap:round;stroke-width:2;fill:none" d="m7.0004958 7.499721 3.9995042 5.000002"/>
 <path style="stroke-linejoin:round;stroke:#8b9cbe;stroke-width:2;stroke-linecap:round;fill:none" d="m8.0004958 16.000014 7.0000002-9.000014"/>
 <path style="stroke-linejoin:round;stroke:#8b9cbe;stroke-width:2;stroke-linecap:round;fill:none" d="m7.0004958 7 3.9995042 5"/>
 <circle style="fill:#ff8c10" cx="16.5" cy="16.5" r="5.5"/>
 <path style="stroke-linejoin:round;stroke:#8b9cbe;stroke-linecap:round;fill:none" d="m14.5 18.5v-4h4v2h-4"/>
</svg>
