<svg width="22" height="22" version="1.1" xmlns="http://www.w3.org/2000/svg">
 <path d="M 1.4921875,6.4921875 A 0.50005,0.50005 0 0 0 1,7 v 7.5 a 0.50005,0.50005 0 1 0 1,0 V 7 A 0.50005,0.50005 0 0 0 1.4921875,6.4921875 Z" style="opacity:.2"/>
 <path d="m1.5 14v-7.5" style="fill:none;stroke-linecap:round;stroke-linejoin:round;stroke-width:1px;stroke:#515153"/>
 <circle cx="3" cy="14.5" r="2" style="opacity:.2"/>
 <circle cx="3" cy="14" r="2" style="fill:#6b6c6e"/>
 <path d="M 20.492188,6.4921875 A 0.50005,0.50005 0 0 0 20,7 v 7.5 a 0.50005,0.50005 0 1 0 1,0 V 7 A 0.50005,0.50005 0 0 0 20.492188,6.4921875 Z" style="opacity:.2"/>
 <path d="m20.5 14v-7.5" style="fill:none;stroke-linecap:round;stroke-linejoin:round;stroke-width:1px;stroke:#515153"/>
 <circle cx="19" cy="14.5" r="2" style="opacity:.2"/>
 <circle cx="19" cy="14" r="2" style="fill:#6b6c6e"/>
 <path d="m19 12.5c0-1-1-2-2-2h-12c-1 0-2 1-2 2v6s2 1 8 1 8-1 8-1v-6z" style="opacity:.2"/>
 <rect x="7" y="3" width="8" height="10" ry="1" style="fill:#6b6c6e"/>
 <rect x="8" y="6" width="6" height="5" style="fill:#17191e"/>
 <circle cx="11" cy="9" r="2" style="fill:#d56d36"/>
 <path d="m19 12a2 2 0 0 0-2 2 2 2 0 0 0 0.017578 0.244141 2 2 0 0 1 1.982422-1.744141 2 2 0 0 1 1.982422 1.755859 2 2 0 0 0 0.017578-0.255859 2 2 0 0 0-2-2z" style="fill:#8b9cbe;opacity:.1"/>
 <path d="M 3 12 A 2 2 0 0 0 1 14 A 2 2 0 0 0 1.0175781 14.244141 A 2 2 0 0 1 3 12.5 A 2 2 0 0 1 4.9824219 14.255859 A 2 2 0 0 0 5 14 A 2 2 0 0 0 3 12 z " style="fill:#8b9cbe;opacity:.1"/>
 <path d="m19 12c0-1-1-2-2-2h-12c-1 0-2 1-2 2v6s2 1 8 1 8-1 8-1v-6z" style="fill:#8a8a8c"/>
 <circle cx="11" cy="4.5" r=".5" style="fill:#8b9cbe"/>
 <circle cx="8" cy="15.5" r="2" style="opacity:.2"/>
 <circle cx="8" cy="15" r="2" style="fill:#8b9cbe"/>
 <circle cx="14" cy="15.5" r="2" style="opacity:.2"/>
 <circle cx="14" cy="15" r="2" style="fill:#8b9cbe"/>
 <circle cx="11" cy="9" r="1" style="fill:#8b9cbe"/>
 <path d="m8 3c-0.554 0-1 0.446-1 1v0.5c0-0.554 0.446-1 1-1h6c0.554 0 1 0.446 1 1v-0.5c0-0.554-0.446-1-1-1h-6z" style="fill:#8b9cbe;opacity:.1"/>
 <path d="M 1.4921875 5.9921875 A 0.50005 0.50005 0 0 0 1 6.5 L 1 6.9648438 A 0.50005 0.50005 0 0 1 1.4921875 6.4921875 A 0.50005 0.50005 0 0 1 2 7 L 2 6.5 A 0.50005 0.50005 0 0 0 1.4921875 5.9921875 z " style="fill:#8b9cbe;opacity:.1"/>
 <path d="M 20.492188 5.9921875 A 0.50005 0.50005 0 0 0 20 6.5 L 20 6.9648438 A 0.50005 0.50005 0 0 1 20.492188 6.4921875 A 0.50005 0.50005 0 0 1 21 7 L 21 6.5 A 0.50005 0.50005 0 0 0 20.492188 5.9921875 z " style="fill:#8b9cbe;opacity:.1"/>
 <path d="m5 10c-1 0-2 1-2 2v0.5c0-1 1-2 2-2h12c1 0 2 1 2 2v-0.5c0-1-1-2-2-2h-12z" style="fill:#8b9cbe;opacity:.2"/>
</svg>
