<svg xmlns="http://www.w3.org/2000/svg" width="22" height="22" version="1">
 <rect style="opacity:0.2" width="20" height="20" x="1" y="1.5" rx="1" ry="1"/>
 <rect style="fill:#00c8c8" width="20" height="20" x="1" y="1" rx="1" ry="1"/>
 <path style="opacity:0.2;fill:#8b9cbe" d="M 2,1 C 1.446,1 1,1.446 1,2 v 0.5 c 0,-0.554 0.446,-1 1,-1 h 18 c 0.554,0 1,0.446 1,1 V 2 C 21,1.446 20.554,1 20,1 Z"/>
 <path style="opacity:0.1" d="M 6.4716795,18.415283 C 5.713446,18.189169 5.5282435,17.228578 5.832191,16.57049 6.2919565,15.383362 7.2876505,14.543025 8.2807845,13.817496 7.6700025,13.608296 7.8128395,12.873874 7.963641,12.71545 8.059896,12.61433 7.6018825,12.469373 7.415237,12.388377 5.631255,11.308345 3.9709117,9.786224 3.2095123,7.781809 2.8641586,6.814548 2.8720475,5.502246 3.8018137,4.8694535 4.8848315,4.140521 6.277701,4.6469305 7.2774945,5.2917695 c 1.290238,0.833204 2.2752365,2.05927 3.0809955,3.3603295 0.35963,-0.4800065 1.135709,-0.345607 1.317059,0.01356 1.085402,-1.767671 2.612228,-3.544906 4.671567,-4.083819 0.972608,-0.26714 2.199419,0.1189435 2.525438,1.169572 0.435376,1.394348 -0.319102,2.8177905 -1.139919,3.899395 -0.985889,1.267642 -2.272115,2.27347 -3.674155,3.027051 0.383272,0.428452 0.110318,0.971914 -0.308056,1.119058 1.065535,0.798459 2.296718,1.855841 2.542728,3.251877 0.211185,0.959573 -0.842032,1.732178 -1.7012,1.352575 -1.537935,-0.538428 -2.603698,-1.933259 -3.39863,-3.307929 -0.124185,-0.358778 -0.249117,-0.365917 -0.374829,-0.0038 -0.795461,1.373512 -1.8461315,2.763092 -3.3757855,3.31199 -0.313594,0.09067 -0.657436,0.120773 -0.971028,0.01356 z M 7.767662,17.087197 c 0.98761,-0.579472 1.632255,-1.625972 2.02511,-2.687667 -1.006678,0.25552 -1.9346305,0.893534 -2.5796005,1.718974 -0.526769,0.586606 -0.353861,1.514396 0.5544905,0.968693 z m 7.253637,0.03433 c 0.326195,-0.698517 -0.545841,-1.460043 -1.029933,-1.882276 -0.448266,-0.39098 -1.734018,-0.853999 -1.734018,-0.853999 0.444955,1.080529 1.099113,2.3006 2.183369,2.808181 0.185925,0.07097 0.485985,0.130665 0.580582,-0.07191 z M 7.936327,9.568494 c -1.4423275,0.928414 2.116149,2.717075 2.20645,2.381414 0.180681,0.06106 -1.027051,-3.1405835 -2.20645,-2.381414 z m 4.790662,2.191212 c 0.73176,-0.293411 1.630504,-0.860191 1.62909,-1.755825 -0.303308,-0.912901 -1.428996,-0.203184 -1.754108,0.34597 -0.249466,0.396312 -0.735777,1.367174 -0.620062,1.608879 0.23779,-0.04084 0.518143,-0.117924 0.74508,-0.199024 z M 8.164797,8.498607 C 7.621359,8.04988 6.9080025,7.3738165 6.215741,7.6612465 5.5345095,7.944095 6.3407465,9.182034 6.642152,9.683892 6.876909,8.4409145 7.844882,8.5554005 8.164797,8.498607 Z m 7.128837,-0.8271655 c -0.474496,0.084392 -1.407439,0.636537 -1.458335,0.8932515 0.616526,-0.07734 1.412955,0.095421 1.589362,1.1278 0,0 1.488674,-2.3556445 -0.131027,-2.0210515 z M 4.868504,7.434338 C 5.1076675,6.714856 5.8617665,6.3706095 6.57052,6.414509 7.1036555,6.441079 6.112449,6.06852 6.0233845,5.9799435 5.4727445,5.697057 4.377161,5.4633725 4.2314675,6.3301555 4.1317655,6.882475 4.4223345,7.868692 4.7422715,8.0617225 4.7610315,7.848772 4.7970445,7.6361105 4.868504,7.434338 Z M 17.149268,5.7346505 c -0.710358,-0.069171 -1.35273,0.308379 -1.937798,0.6681 1.472529,-0.2157625 2.124708,0.848053 2.113804,1.707831 0.763089,-1.4096125 0.541456,-2.240646 -0.176006,-2.375931 z"/>
 <path style="fill:#17191e" d="M 6.4716795,17.915283 C 5.713446,17.689169 5.5282435,16.728578 5.832191,16.07049 6.2919565,14.883362 7.2876505,14.043025 8.2807845,13.317496 7.6700025,13.108296 7.8128395,12.373874 7.963641,12.21545 8.059896,12.11433 7.6018825,11.969373 7.415237,11.888377 5.631255,10.808345 3.9709117,9.286224 3.2095123,7.281809 2.8641586,6.314548 2.8720475,5.002246 3.8018137,4.3694535 4.8848315,3.6405212 6.277701,4.1469305 7.2774945,4.7917695 c 1.290238,0.833204 2.2752365,2.05927 3.0809955,3.3603295 0.35963,-0.4800065 1.135709,-0.345607 1.317059,0.01356 1.085402,-1.767671 2.612228,-3.544906 4.671567,-4.083819 0.972608,-0.2671399 2.199419,0.1189435 2.525438,1.169572 0.435376,1.394348 -0.319102,2.8177905 -1.139919,3.899395 -0.985889,1.267642 -2.272115,2.27347 -3.674155,3.027051 0.383272,0.428452 0.110318,0.971914 -0.308056,1.119058 1.065535,0.798459 2.296718,1.855841 2.542728,3.251877 0.211185,0.959573 -0.842032,1.732178 -1.7012,1.352575 -1.537935,-0.538428 -2.603698,-1.933259 -3.39863,-3.307929 -0.124185,-0.358778 -0.249117,-0.365917 -0.374829,-0.0038 -0.795461,1.373512 -1.8461315,2.763092 -3.3757855,3.31199 -0.313594,0.09067 -0.657436,0.120773 -0.971028,0.01356 z M 7.767662,16.587197 c 0.98761,-0.579472 1.632255,-1.625972 2.02511,-2.687667 -1.006678,0.25552 -1.9346305,0.893534 -2.5796005,1.718974 -0.526769,0.586606 -0.353861,1.514396 0.5544905,0.968693 z m 7.253637,0.03433 c 0.326195,-0.698517 -0.545841,-1.460043 -1.029933,-1.882276 -0.448266,-0.390981 -1.734018,-0.854 -1.734018,-0.854 0.444955,1.08053 1.099113,2.300601 2.183369,2.808181 0.185925,0.07097 0.485985,0.130666 0.580582,-0.07191 z M 7.936327,9.068494 c -1.4423275,0.928414 2.116149,2.717075 2.20645,2.381414 0.180681,0.06106 -1.027051,-3.1405835 -2.20645,-2.381414 z m 4.790662,2.191212 c 0.73176,-0.293411 1.630504,-0.860191 1.62909,-1.755825 -0.303308,-0.9129015 -1.428996,-0.203184 -1.754108,0.34597 -0.249466,0.396312 -0.735777,1.367174 -0.620062,1.608879 0.23779,-0.04084 0.518143,-0.117924 0.74508,-0.199024 z M 8.164797,7.998607 C 7.621359,7.54988 6.9080025,6.8738165 6.215741,7.1612465 5.5345095,7.444095 6.3407465,8.6820335 6.642152,9.183892 6.876909,7.9409145 7.844882,8.0554005 8.164797,7.998607 Z m 7.128837,-0.8271655 c -0.474496,0.084392 -1.407439,0.636537 -1.458335,0.8932515 0.616526,-0.07734 1.412955,0.095421 1.589362,1.1278 0,0 1.488674,-2.3556445 -0.131027,-2.0210515 z M 4.868504,6.934338 C 5.1076675,6.214856 5.8617665,5.8706095 6.57052,5.914509 7.1036555,5.941079 6.112449,5.56852 6.0233845,5.4799435 5.4727445,5.197057 4.377161,4.9633725 4.2314675,5.8301555 4.1317655,6.382475 4.4223345,7.368692 4.7422715,7.5617225 4.7610315,7.348772 4.7970445,7.1361105 4.868504,6.934338 Z M 17.149268,5.2346505 c -0.710358,-0.069171 -1.35273,0.308379 -1.937798,0.6681 1.472529,-0.2157625 2.124708,0.848053 2.113804,1.707831 0.763089,-1.4096125 0.541456,-2.240646 -0.176006,-2.375931 z"/>
</svg>
