<svg width="22" height="22" version="1.1" xmlns="http://www.w3.org/2000/svg">
 <circle cx="11" cy="11.5" r="10" style="opacity:.2"/>
 <circle cx="11" cy="11" r="10" style="fill:#cf6237"/>
 <path d="M 11,1 A 10,10 0 0 0 1,11 10,10 0 0 0 1.0098,11.293 10,10 0 0 1 11,1.5 10,10 0 0 1 20.99,11.207 10,10 0 0 0 21,11 10,10 0 0 0 11,1 Z" style="fill:#8b9cbe;opacity:.2"/>
 <g transform="translate(-1 -.5)" style="opacity:.2">
  <path d="M 12,8.0000018 A 4.0000001,4.0000001 0 0 0 8,12 a 4.0000001,4.0000001 0 0 0 4,4 4.0000001,4.0000001 0 0 0 4,-4 4.0000001,4.0000001 0 0 0 -4,-3.9999982 z m 0,1.142857 A 2.8571429,2.8571429 0 0 1 14.857143,12 2.8571429,2.8571429 0 0 1 12,14.857143 2.8571429,2.8571429 0 0 1 9.1428572,12 2.8571429,2.8571429 0 0 1 12,9.1428588 Z"/>
 </g>
 <g transform="translate(-1,-1)">
  <path d="M 12,8.0000018 A 4.0000001,4.0000001 0 0 0 8,12 a 4.0000001,4.0000001 0 0 0 4,4 4.0000001,4.0000001 0 0 0 4,-4 4.0000001,4.0000001 0 0 0 -4,-3.9999982 z m 0,1.142857 A 2.8571429,2.8571429 0 0 1 14.857143,12 2.8571429,2.8571429 0 0 1 12,14.857143 2.8571429,2.8571429 0 0 1 9.1428572,12 2.8571429,2.8571429 0 0 1 12,9.1428588 Z" style="fill:#8b9cbe"/>
 </g>
 <path d="m10.787885 4.5075462c-2.3915759 0.1127485-4.2737739 2.0781765-4.2871094 4.4697249-0.4272205 0.2117319-0.830702 0.4869519-1.1865235 0.8427739-1.6707713 1.674809-1.7595921 4.357135-0.203125 6.138672-0.9731895-1.192894-0.8853605-2.928867 0.203125-4.017579 1.171573-1.171573 3.0706145-1.171572 4.2421879 0 1.171573 1.171574 1.171573 3.070615 0 4.242188-1.1134574 1.113219-2.8977129 1.176444-4.0869144 0.144531 1.5549155 1.414906 3.8423324 1.543409 5.5283204 0.415039 1.685987 1.12837 3.973405 0.999867 5.52832-0.415039-1.189202 1.031914-2.973457 0.968689-4.086914-0.144531-1.171573-1.171573-1.171573-3.070614 0-4.242188 1.171573-1.171572 3.070615-1.171573 4.242187 0 1.088486 1.088712 1.176315 2.824685 0.203125 4.017579 1.556468-1.781537 1.467647-4.463863-0.203125-6.138672-0.354697-0.354697-0.756913-0.629304-1.182617-0.8408209-0.01351-2.3563869-1.842863-4.3051824-4.196288-4.4638654 1.531651 0.1553545 2.697105 1.4448645 2.697265 2.984375 0 1.6568523-1.343146 2.9999983-3 2.9999983s-2.9999999-1.343146-2.9999999-2.9999983c1.67e-4 -1.5744985 1.2175199-2.880968 2.7880859-2.9921875zm0.211914 6.4921858 0.75 0.75-0.75 0.75-0.75-0.75z" style="opacity:.2"/>
 <path d="m10.787885 4.0078142c-2.3915759 0.1127485-4.2737739 2.0781765-4.2871094 4.4697264-0.4272205 0.2117318-0.830702 0.4869505-1.1865235 0.8427724-1.6707713 1.674809-1.7595921 4.357135-0.203125 6.138671-0.9731895-1.192893-0.8853605-2.928866 0.203125-4.017578 1.171573-1.171573 3.0706145-1.171572 4.2421879 0 1.171573 1.171574 1.171573 3.070615 0 4.242188-1.1134574 1.113219-2.8977129 1.176444-4.0869144 0.144531 1.5549155 1.414906 3.8423324 1.543409 5.5283204 0.415039 1.685987 1.12837 3.973405 0.999867 5.52832-0.415039-1.189202 1.031914-2.973457 0.968689-4.086914-0.144531-1.171573-1.171573-1.171573-3.070614 0-4.242188 1.171573-1.171572 3.070615-1.171573 4.242187 0 1.088486 1.088712 1.176315 2.824685 0.203125 4.017578 1.556468-1.781536 1.467647-4.463862-0.203125-6.138671-0.354697-0.3546969-0.756914-0.6293026-1.182617-0.8408194-0.01351-2.3563884-1.842863-4.3051839-4.196288-4.4638669 1.531652 0.1553545 2.697105 1.4448645 2.697265 2.984375 0 1.6568537-1.343146 2.9999983-3 2.9999983s-2.9999999-1.3431446-2.9999999-2.9999983c1.67e-4 -1.5744985 1.2175199-2.880968 2.7880859-2.9921875zm0.211914 6.4921858 0.75 0.75-0.75 0.75-0.75-0.75z" style="fill:#8b9cbe"/>
</svg>
