<svg xmlns="http://www.w3.org/2000/svg" width="16" height="16" version="1.1">
 <rect style="fill:#db3c30" width="16" height="16" x="0" y="0" rx=".8" ry=".8"/>
 <path style="fill:#f4f4f7" d="M 3.5,4.5 7,8 3.5,11.5 5,13 8.5,9.5 12,13 13.5,11.5 10,8 13.5,4.5 12,3 8.5,6.5 5,3 Z"/>
</svg>
