<svg xmlns="http://www.w3.org/2000/svg" width="16" height="16" version="1.1">
 <rect style="fill:#3f83d6" width="16" height="16" x="0" y="0" rx=".8" ry=".8"/>
 <path style="fill:#f4f4f7" d="M 12.5,3.5 7,9 4.5,6.5 3,8 7,12 14,5 Z"/>
</svg>
