<svg xmlns="http://www.w3.org/2000/svg" width="48" height="48" version="1.1">
 <path style="opacity:0.2" d="M 10,5 C 8.892,5 8,5.892 8,7 V 43 C 8,44.108 8.892,45 10,45 H 38 C 39.108,45 40,44.108 40,43 V 17 L 28,5 Z"/>
 <path style="fill:#00879d" d="M 10,4 C 8.892,4 8,4.892 8,6 V 42 C 8,43.108 8.892,44 10,44 H 38 C 39.108,44 40,43.108 40,42 V 16 L 30,14 28,4 Z"/>
 <path style="opacity:0.2" d="M 40,17 28,5 V 15 C 28,16.108 28.892,17 30,17 Z"/>
 <path style="fill:#00a6c1" d="M 40,16 28,4 V 14 C 28,15.108 28.892,16 30,16 Z"/>
 <path style="opacity:0.1;fill:#8b9cbe" d="M 10 4 C 8.892 4 8 4.892 8 6 L 8 7 C 8 5.892 8.892 5 10 5 L 28 5 L 28 4 L 10 4 z"/>
 <path style="opacity:0.2" d="m 22.375,20.005448 c -0.450749,-0.01338 -0.897789,-0.0078 -1.333984,0.01563 -0.581594,0.03125 -1.145213,0.09526 -1.673828,0.191407 -1.029559,0.332702 -1.888477,0.7688 -2.478516,1.828125 -0.635057,1.004765 -0.858916,2.001541 -0.878906,2.99414 -0.01516,0.773079 -0.154626,3.146999 1.345703,5.150391 0.550307,0.644596 1.361737,1.329383 2.332031,1.716797 2.261903,0.683513 2.966171,-0.827968 4.111328,-3.056641 -0.274412,1.186495 -0.405561,2.407973 -1.349609,3.425781 0.764659,1.185216 2.021114,1.654197 3.208984,2.697266 0.237148,0.21061 0.612083,0.33124 0.265625,0.867188 -0.503623,0.830092 -0.538611,1.360417 -1.076172,2.019531 -0.352051,0.468649 -0.580489,0.790767 -0.697265,1.162109 -0.107428,0.822183 -0.03291,1.546082 0.408203,2.333984 0.204298,0.4248 0.455917,0.826567 0.802734,1.216797 0.3605,0.433389 0.594249,0.539276 1.191406,0.324219 0.501339,-0.176465 0.863055,-0.39348 1.259766,-0.792969 0.176544,-0.290281 0.219477,-0.925056 -0.287109,-1.189453 -0.184193,-0.117022 -0.381296,-0.240467 -0.50586,-0.375 -0.219551,-0.23712 -0.438667,-0.466661 -0.466797,-0.832031 -0.01879,-0.24404 0.332032,-0.654297 0.332032,-0.654297 1.320357,-1.193146 2.38185,-2.358333 3.058593,-3.109375 1.487541,-1.689125 2.213141,-4.488214 2.027344,-7.185547 0.03723,-2.033458 -0.831216,-4.281713 -2.275391,-6.02539 -0.897323,-0.999047 -1.893036,-1.742051 -3.330078,-2.09961 C 25.115473,20.252421 23.727246,20.045577 22.375,20.005448 Z M 28,26.999589 a 1,1 0 0 1 1,1 1,1 0 0 1 -1,1 1,1 0 0 1 -1,-1 1,1 0 0 1 1,-1 z m -0.943359,4.539062 c 0.105344,0.01134 0.209483,0.0982 0.396484,0.246094 l 2.966797,2.222656 c -0.405499,-0.0103 -0.9378,0.123128 -1.527344,0.07617 -1.281345,-0.102063 -2.811046,-0.426673 -2.935547,-0.845703 -0.07027,-0.581429 0.06525,-1.035476 0.69336,-1.496093 0.193485,-0.150915 0.300906,-0.214463 0.40625,-0.203126 z"/>
 <path style="fill:#8b9cbe" d="M 22.375 19.005859 C 21.924251 18.992483 21.477211 18.998044 21.041016 19.021484 C 20.459422 19.052738 19.895803 19.116741 19.367188 19.212891 C 18.337629 19.545593 17.478711 19.981691 16.888672 21.041016 C 16.253615 22.045781 16.029756 23.042557 16.009766 24.035156 C 15.994604 24.808235 15.85514 27.182155 17.355469 29.185547 C 17.905776 29.830143 18.717206 30.51493 19.6875 30.902344 C 21.949403 31.585857 22.653671 30.074376 23.798828 27.845703 C 23.524416 29.032198 23.393267 30.253676 22.449219 31.271484 C 23.213878 32.4567 24.470333 32.925681 25.658203 33.96875 C 25.895351 34.17936 26.270286 34.29999 25.923828 34.835938 C 25.420205 35.66603 25.385217 36.196355 24.847656 36.855469 C 24.495605 37.324118 24.267167 37.646236 24.150391 38.017578 C 24.042963 38.839761 24.117476 39.56366 24.558594 40.351562 C 24.762892 40.776362 25.014511 41.178129 25.361328 41.568359 C 25.721828 42.001748 25.955577 42.107635 26.552734 41.892578 C 27.054073 41.716113 27.415789 41.499098 27.8125 41.099609 C 27.989044 40.809328 28.031977 40.174553 27.525391 39.910156 C 27.341198 39.793134 27.144095 39.669689 27.019531 39.535156 C 26.79998 39.298036 26.580864 39.068495 26.552734 38.703125 C 26.533948 38.459085 26.884766 38.048828 26.884766 38.048828 C 28.205123 36.855682 29.266616 35.690495 29.943359 34.939453 C 31.4309 33.250328 32.1565 30.451239 31.970703 27.753906 C 32.007933 25.720448 31.139487 23.472193 29.695312 21.728516 C 28.797989 20.729469 27.802276 19.986465 26.365234 19.628906 C 25.115473 19.252832 23.727246 19.045988 22.375 19.005859 z M 28 26 A 1 1 0 0 1 29 27 A 1 1 0 0 1 28 28 A 1 1 0 0 1 27 27 A 1 1 0 0 1 28 26 z M 27.056641 30.539062 C 27.161985 30.550401 27.266124 30.637266 27.453125 30.785156 L 30.419922 33.007812 C 30.014423 32.997512 29.482122 33.13094 28.892578 33.083984 C 27.611233 32.981921 26.081532 32.657311 25.957031 32.238281 C 25.886761 31.656852 26.022285 31.202805 26.650391 30.742188 C 26.843876 30.591273 26.951297 30.527725 27.056641 30.539062 z"/>
</svg>
