<svg xmlns="http://www.w3.org/2000/svg" width="48" height="48" version="1">
 <path style="opacity:0.2" d="M 10,5 C 8.892,5 8,5.892 8,7 v 36 c 0,1.108 0.892,2 2,2 h 28 c 1.108,0 2,-0.892 2,-2 V 17 L 29,16 28,5 Z"/>
 <path fill="#b2bfd9" d="m10 4c-1.108 0-2 0.892-2 2v36c0 1.108 0.892 2 2 2h28c1.108 0 2-0.892 2-2v-26l-11-1-1-11z"/>
 <path fill="#fff" opacity=".2" d="m10 4c-1.108 0-2 0.892-2 2v1c0-1.108 0.892-2 2-2h18l11 11h1l-12-12z"/>
 <path style="opacity:0.2" d="m 28,5 v 10 c 0,1.1046 0.89543,2 2,2 h 10 z"/>
 <path fill="#fafafa" d="m28 4v10c0 1.1046 0.89543 2 2 2h10l-12-12z"/>
 <g opacity=".5" transform="translate(104.75 20.644)">
  <path d="m-87.325 3.3025 0.51599-0.633 0.96128 0.65006c-0.06907 0.10889-0.19746 0.15195-0.46561 0.15195h-1.3887v0.93528c1.279 0.28684 1.6959 0.76708 1.6959 1.1319 0 0.26978-0.22833 0.46398-0.49567 0.46398-0.12839 0-0.26815-0.05201-0.39654-0.16008-0.06988-0.42254-0.4266-0.96291-0.80364-1.3026v3.5607c-0.0089 0.060131-0.33722 0.25515-0.84264 0.25515h-0.18852v-3.1569c-0.46561 0.70126-1.0596 1.3164-1.7942 1.8486l-0.11864-0.11051c0.78333-0.94422 1.3286-2.2435 1.626-3.4665h-1.5171l-0.04957-0.1682h1.8543v-1.5187c-0.59562 0.10076-1.2302 0.18527-1.8242 0.24459l-0.039-0.11051c1.2489-0.36241 2.7652-1.0117 3.5193-1.4748l1.1896 0.80933c-0.06013 0.05038-0.15845 0.076382-0.27872 0.076382-0.09832 0-0.20802-0.017064-0.33641-0.051192-0.33722 0.10157-0.75326 0.20152-1.2002 0.30309v1.721h0.37704v0.0008126zm4.8186-1.6869 1.1498 0.71588c-0.05932 0.077195-0.21858 0.14383-0.4266 0.18527v5.2647c0 0.01625-0.27628 0.24377-1.0612 0.24377v-0.81014h-1.873v0.61594c0 0.01788-0.11945 0.35428-1.0515 0.35428v-6.4771l1.1019 0.40548h1.7243l0.43636-0.49811zm-2.211 5.4321h1.873v-4.7658h-1.873v4.7658z"/>
  <path d="m-71.693 11.427c-0.46398-0.50949-1.2156-0.7622-2.2549-0.7622-1.0962 0-1.8909 0.25596-2.3865 0.76707-0.41116 0.42254-0.64275 1.0685-0.71182 1.9161h-1.8819v-1.6057c0-0.20965 0.03169-0.36078 0.09588-0.45179 0.06338-0.0902 0.16658-0.13976 0.31041-0.14952l0.29172-0.01706c0.10807-0.0098 0.16252-0.06338 0.16252-0.16089 0-0.07232-0.0081-0.11782-0.02519-0.13489-0.01788-0.01706-0.06338-0.026-0.13651-0.026-0.01706 0-0.06744 0.0016-0.15033 0.0073-0.32584 0.01463-0.64031 0.02194-0.9434 0.02194-0.31609 0-0.64356-0.0073-0.97753-0.02194-0.07963-0.0057-0.12758-0.0073-0.1422-0.0073-0.07069 0-0.11539 0.0098-0.13408 0.026-0.01869 0.01707-0.02844 0.06176-0.02844 0.13489 0 0.09832 0.05688 0.15195 0.17227 0.16089l0.27303 0.01706c0.15114 0.0089 0.25678 0.05769 0.32016 0.14708 0.06338 0.0902 0.09507 0.24052 0.09507 0.45342v4.3075c0 0.21046-0.03007 0.36078-0.09263 0.45179-0.06176 0.0902-0.16577 0.13895-0.31203 0.14951l-0.28359 0.01706c-0.0073 0.0024-0.01544 0.0041-0.02681 0.0041-0.0967 0.0057-0.14545 0.05444-0.14545 0.14708 0 0.07638 0.01056 0.1227 0.03088 0.14058 0.02031 0.0195 0.06501 0.02844 0.13164 0.02844 0.01788 0 0.06338-0.000812 0.13651-0.0041 0.33884-0.01625 0.66631-0.02519 0.98241-0.02519 0.30309 0 0.61675 0.0073 0.9434 0.02194 0.07963 0.0049 0.1292 0.0073 0.15033 0.0073 0.0707 0 0.11539-0.0089 0.13408-0.02844 0.01869-0.01788 0.02844-0.06501 0.02844-0.14058 0-0.09263-0.04469-0.14139-0.1357-0.14708-0.01219-0.0024-0.0195-0.0041-0.026-0.0041l-0.28278-0.01706c-0.15114-0.0098-0.25677-0.05851-0.32016-0.14789-0.06419-0.08857-0.09588-0.23971-0.09588-0.45342v-1.7795h1.8689c0.04713 0.93528 0.26246 1.643 0.66632 2.0932 0.45748 0.50949 1.1961 0.76382 2.2127 0.76382 1.1059 0 1.9136-0.25678 2.4215-0.77032 0.50785-0.51431 0.76219-1.3342 0.76219-2.4588 0-1.1392-0.23158-1.9624-0.69638-2.4702zm-0.71263 4.6959c-0.33722 0.45586-0.88165 0.68338-1.6382 0.68338-0.75732 0-1.305-0.22752-1.6422-0.68338-0.3356-0.45504-0.5038-1.2018-0.5038-2.2411 0-1.0182 0.16983-1.7592 0.51111-2.2192 0.34128-0.45992 0.88571-0.6915 1.6349-0.6915 0.75895 0 1.305 0.22834 1.6414 0.68338 0.33478 0.45423 0.50136 1.2026 0.50136 2.2403 0 1.0295-0.1682 1.773-0.50461 2.2281z"/>
 </g>
</svg>
