<svg xmlns="http://www.w3.org/2000/svg" width="48" height="48" version="1.1">
 <path style="opacity:0.2" d="m 10,5 c -1.108,0 -2,0.892 -2,2 V 43 c 0,1.107999 0.892,2 2,2 h 28 c 1.108,0 2,-0.892001 2,-2 V 17 L 29,16 28,5 Z"/>
 <path style="fill:#1273b2" d="m10 4c-1.108 0-2 0.892-2 2v36c0 1.108 0.892 2 2 2h28c1.108 0 2-0.892 2-2v-26l-11-1-1-11z"/>
 <path style="fill:#8b9cbe;opacity:0.2" d="M 10 4 C 8.892 4 8 4.892 8 6 L 8 7 C 8 5.892 8.892 5 10 5 L 28 5 L 28 4 L 10 4 z"/>
 <path style="opacity:0.2" d="M 28,5 V 15 c 0,1.104599 0.89543,2 2,2 h 10 z"/>
 <path style="fill:#4e92be" d="m28 4v10c0 1.1046 0.89543 2 2 2h10l-12-12z"/>
 <path style="opacity:0.2" d="M 17,5 V 29 H 12 V 34 H 8 V 36 H 12 V 41 H 17 V 44 H 19 V 41 H 24 V 36 H 40 V 34 H 24 V 29 H 19 V 5 Z M 14,31 H 22 V 39 H 14 Z M 17,34 V 36 H 19 V 34 Z"/>
 <path style="fill:#8b9cbe" d="M 17,4 V 28 H 12 V 33 H 8 V 35 H 12 V 40 H 17 V 44 H 19 V 40 H 24 V 35 H 40 V 33 H 24 V 28 H 19 V 4 Z M 14,30 H 22 V 38 H 14 Z M 17,33 V 35 H 19 V 33 Z"/>
</svg>
