<svg xmlns="http://www.w3.org/2000/svg" width="48" height="48" version="1">
 <path style="opacity:0.2" d="M 10,5 C 8.892,5 8,5.892 8,7 v 36 c 0,1.108 0.892,2 2,2 h 28 c 1.108,0 2,-0.892 2,-2 V 17 L 29,16 28,5 Z"/>
 <path fill="#4f4f4f" d="m10 4c-1.108 0-2 0.892-2 2v36c0 1.108 0.892 2 2 2h28c1.108 0 2-0.892 2-2v-26l-11-1-1-11z"/>
 <path fill="#fff" opacity=".1" d="m10 4c-1.108 0-2 0.892-2 2v1c0-1.108 0.892-2 2-2h18l11 11h1l-12-12z"/>
 <path style="opacity:0.2" d="m 28,5 v 10 c 0,1.1046 0.89543,2 2,2 h 10 z"/>
 <path fill="#696969" d="m28 4v10c0 1.1046 0.89543 2 2 2h10l-12-12z"/>
 <circle style="opacity:0.2" cx="24" cy="31" r="10"/>
 <g transform="matrix(0.50012868,0,0,0.50021719,32.956526,18.657031)">
  <circle style="fill:#8b9cbe;stroke:#000000;stroke-width:0;stroke-linecap:round;stroke-linejoin:round" cx="-17.917" cy="22.688" r="19.5"/>
  <path style="fill:#e040fb;stroke:#000000;stroke-width:0;stroke-linecap:round;stroke-linejoin:round" d="M -0.596414,12.688108 A 20,20 0 0 0 -27.916922,5.3676 a 20,20 0 0 0 -7.344002,7.408722 l 17.344002,9.911786 z"/>
  <path style="fill:#fdfd4b;stroke:#000000;stroke-width:0;stroke-linecap:round;stroke-linejoin:round" d="m -0.596414,12.688108 -17.320508,10 -0.08886,19.978907 a 20,20 0 0 0 10.088857,-2.658399 20,20 0 0 0 7.320508,-27.320508 z"/>
  <path style="fill:#18ffff;stroke:#000000;stroke-width:0;stroke-linecap:round;stroke-linejoin:round" d="m -17.916922,22.688108 -17.344002,-9.911786 a 20,20 0 0 0 0.02349,19.911786 20,20 0 0 0 17.231651,9.978907 z"/>
 </g>
</svg>
