<svg xmlns="http://www.w3.org/2000/svg" width="48" height="48" version="1">
 <rect style="opacity:0.2" width="40" height="40" x="4" y="5" rx="2" ry="2"/>
 <rect style="fill:#b2bfd9" width="40" height="40" x="4" y="4" rx="2" ry="2"/>
 <path style="opacity:0.1" d="m 19,5 v 6 a 1.0001,1.0001 0 0 0 1,1 h 2 v 5.1875 c -1.155515,0.418832 -2,1.523466 -2,2.8125 0,1.289034 0.844485,2.393668 2,2.8125 v 3.857422 a 1.0001,1.0001 0 0 0 -0.0059,0.0039 L 18,29.363281 V 27 A 1.0001,1.0001 0 0 0 16.984375,25.986328 1.0001,1.0001 0 0 0 16,27 v 5 H 15 14 4 v 2 h 10 1 1 v 0.849609 a 1.0001,1.0001 0 0 0 0,0.291016 V 38 a 1.0001,1.0001 0 1 0 2,0 v -1.130859 l 2.744141,1.828125 -1.060547,0.353515 a 1.0005646,1.0005646 0 1 0 0.632812,1.898438 L 22,40.388672 V 45 h 2 v -5.839844 a 1.0001,1.0001 0 0 0 0,-0.30664 V 38 h -0.154297 l -0.359375,-2.164062 a 1.0001,1.0001 0 0 0 -0.96875,-0.84961 1.0001,1.0001 0 0 0 -1.003906,1.177734 L 21.634766,36.886719 18,34.464844 v -1.296875 a 1.0001,1.0001 0 0 0 0,-0.326172 v -1.066406 a 1.0005282,1.0005282 0 0 0 0.01172,-0.0078 l 5.099609,-3.433594 a 1.0001,1.0001 0 0 0 0.375,-0.445312 A 1.0001,1.0001 0 0 0 24,27 V 22.8125 C 24.840441,22.50787 25.50787,21.840441 25.8125,21 H 28 v 1.832031 a 1.0001,1.0001 0 0 0 0.289062,0.884766 1.0001,1.0001 0 0 0 0.0059,0.0059 1.0001,1.0001 0 0 0 0.01367,0.01367 A 1.0001,1.0001 0 0 0 29.158203,24 H 41 a 1.0001,1.0001 0 0 0 1,-1 v -2 h 2 V 19 H 42 V 17 A 1.0001,1.0001 0 0 0 41,16 H 29 a 1.0001,1.0001 0 0 0 -1,1 v 2 H 25.8125 C 25.50787,18.159559 24.840441,17.49213 24,17.1875 V 12 h 1.832031 a 1.0001,1.0001 0 0 0 0.884766,-0.289062 1.0001,1.0001 0 0 0 0.0039,-0.0039 1.0001,1.0001 0 0 0 0.0078,-0.0078 1.0001,1.0001 0 0 0 0.0078,-0.0078 A 1.0001,1.0001 0 0 0 27,10.841797 V 5 h -2 v 5 H 24 V 5 h -2 v 5 H 21 V 5 Z m -6,8 a 1.0001,1.0001 0 1 0 0,2 h 4 a 1.0001,1.0001 0 1 0 0,-2 z m -4,3 a 1.0001,1.0001 0 1 0 0,2 h 8 a 1.0001,1.0001 0 1 0 0,-2 z m 21,2 h 10 v 1 H 30 Z m 0,3 h 10 v 1 H 30 Z m -4,9 a 1.0001,1.0001 0 1 0 0,2 h 5 a 1.0001,1.0001 0 1 0 0,-2 z m 0,3 a 1.0001,1.0001 0 1 0 0,2 h 9 a 1.0001,1.0001 0 1 0 0,-2 z"/>
 <path style="fill:#4e9a06" d="M 22 4 L 22 18 L 22 20 L 22 26 A 1.0001 1.0001 0 1 0 24 26 L 24 20 L 44 20 L 44 18 L 24 18 L 24 4 L 22 4 z M 4 31 L 4 33 L 14 33 L 15 33 L 15 31 L 14 31 L 4 31 z M 22 37 L 22 38 L 22 44 L 24 44 L 24 38 L 24 37 L 22 37 z"/>
 <rect style="fill:#e8cc8d" width="12" height="6" x="29" y="16"/>
 <rect style="fill:#e8cc8d" width="6" height="6" x="20" y="4"/>
 <path style="fill:#d71010" d="M 19 4 L 19 10 A 1.0001 1.0001 0 0 0 20 11 L 25.832031 11 A 1.0001 1.0001 0 0 0 26.716797 10.710938 A 1.0001 1.0001 0 0 0 26.720703 10.707031 A 1.0001 1.0001 0 0 0 26.728516 10.699219 A 1.0001 1.0001 0 0 0 26.736328 10.691406 A 1.0001 1.0001 0 0 0 27 9.8417969 L 27 4 L 25 4 L 25 9 L 21 9 L 21 4 L 19 4 z M 29 15 A 1.0001 1.0001 0 0 0 28 16 L 28 21.832031 A 1.0001 1.0001 0 0 0 28.289062 22.716797 A 1.0001 1.0001 0 0 0 28.294922 22.722656 A 1.0001 1.0001 0 0 0 28.308594 22.736328 A 1.0001 1.0001 0 0 0 29.158203 23 L 41 23 A 1.0001 1.0001 0 0 0 42 22 L 42 16 A 1.0001 1.0001 0 0 0 41 15 L 29 15 z M 30 17 L 40 17 L 40 21 L 30 21 L 30 17 z M 16.984375 24.986328 A 1.0001 1.0001 0 0 0 16 26 L 16 31 L 14 31 A 1.0001 1.0001 0 1 0 14 33 L 16 33 L 16 33.849609 A 1.0001 1.0001 0 0 0 16 34.140625 L 16 37 A 1.0001 1.0001 0 1 0 18 37 L 18 35.869141 L 20.744141 37.697266 L 19.683594 38.050781 A 1.0005646 1.0005646 0 1 0 20.316406 39.949219 L 23.181641 38.994141 A 1.0001 1.0001 0 0 0 23.960938 37.689453 L 23.486328 34.835938 A 1.0001 1.0001 0 0 0 22.517578 33.986328 A 1.0001 1.0001 0 0 0 21.513672 35.164062 L 21.634766 35.886719 L 18 33.464844 L 18 32.167969 A 1.0001 1.0001 0 0 0 18 31.841797 L 18 30.775391 A 1.0005282 1.0005282 0 0 0 18.011719 30.767578 L 23.111328 27.333984 A 1.0001 1.0001 0 0 0 22.527344 25.496094 A 1.0001 1.0001 0 0 0 21.994141 25.673828 L 18 28.363281 L 18 26 A 1.0001 1.0001 0 0 0 16.984375 24.986328 z"/>
 <path style="fill:#3c3d3a" d="M 13 12 A 1.0001 1.0001 0 1 0 13 14 L 17 14 A 1.0001 1.0001 0 1 0 17 12 L 13 12 z M 9 15 A 1.0001 1.0001 0 1 0 9 17 L 17 17 A 1.0001 1.0001 0 1 0 17 15 L 9 15 z M 26 29 A 1.0001 1.0001 0 1 0 26 31 L 31 31 A 1.0001 1.0001 0 1 0 31 29 L 26 29 z M 26 32 A 1.0001 1.0001 0 1 0 26 34 L 35 34 A 1.0001 1.0001 0 1 0 35 32 L 26 32 z"/>
 <path style="fill:#4e9a06" d="m 23,16 c -1.640514,0 -3,1.359485 -3,3 0,1.640515 1.359486,3 3,3 1.640515,0 3,-1.359485 3,-3 0,-1.640515 -1.359485,-3 -3,-3 z"/>
 <path style="opacity:0.2;fill:#8b9cbe" d="M 6 4 C 4.892 4 4 4.892 4 6 L 4 7 C 4 5.892 4.892 5 6 5 L 42 5 C 43.108 5 44 5.892 44 7 L 44 6 C 44 4.892 43.108 4 42 4 L 6 4 z"/>
</svg>
