<svg xmlns="http://www.w3.org/2000/svg" width="48" height="48" version="1.1">
 <path style="opacity:0.2" d="M 10,5 C 8.892,5 8,5.892 8,7 v 36 c 0,1.108 0.892,2 2,2 h 28 c 1.108,0 2,-0.892 2,-2 V 17 L 29,16 28,5 Z"/>
 <path style="fill:#13a553" d="M 10,4 C 8.892,4 8,4.892 8,6 V 42 C 8,43.108 8.892,44 10,44 H 38 C 39.108,44 40,43.108 40,42 V 16 L 29,15 28,4 Z"/>
 <path style="fill:#8b9cbe;opacity:0.2" d="M 10 4 C 8.892 4 8 4.892 8 6 L 8 7 C 8 5.892 8.892 5 10 5 L 28 5 L 28 4 L 10 4 z"/>
 <path style="opacity:0.2" d="m 28,5 v 10 c 0,1.105 0.895,2 2,2 h 10 z"/>
 <path style="fill:#70c896" d="M 28,4 V 14 C 28,15.105 28.895,16 30,16 H 40 Z"/>
 <path style="fill:#8b9cbe;stroke:#8b9cbe;stroke-width:2;stroke-linejoin:round" d="M 22,34 V 39 L 24,37 26,39 V 34 Z"/>
 <g>
  <circle style="fill:#8b9cbe" cx="24" cy="23" r="3"/>
  <circle style="fill:#8b9cbe" cx="27.5" cy="24.5" r="3"/>
  <circle style="fill:#8b9cbe" cx="29" cy="28" r="3"/>
  <circle style="fill:#8b9cbe" cx="27.5" cy="31.5" r="3"/>
  <circle style="fill:#8b9cbe" cx="24" cy="33" r="3"/>
  <circle style="fill:#8b9cbe" cx="20.5" cy="31.5" r="3"/>
  <circle style="fill:#8b9cbe" cx="19" cy="28" r="3"/>
  <circle style="fill:#8b9cbe" cx="20.5" cy="24.5" r="3"/>
 </g>
 <circle style="fill:#13a553" cx="24" cy="28" r="5"/>
 <circle style="fill:#8b9cbe" cx="24" cy="28" r="4"/>
 <path style="opacity:0.2" d="M 24,20.998291 A 3,3 0 0 0 21.337891,22.621338 3,3 0 0 0 20.5,22.498291 a 3,3 0 0 0 -3,3 3,3 0 0 0 0.121094,0.835938 A 3,3 0 0 0 16,28.998291 3,3 0 0 0 17.623047,31.6604 3,3 0 0 0 17.5,32.498291 a 3,3 0 0 0 3,3 3,3 0 0 0 0.5,-0.04687 v 4.546875 c 3.5e-4,0.890637 1.077036,1.336587 1.707031,0.707031 L 24,39.412353 25.292969,40.705322 C 25.922964,41.334878 26.99965,40.888928 27,39.998291 v -4.546875 a 3,3 0 0 0 0.5,0.04687 3,3 0 0 0 3,-3 A 3,3 0 0 0 30.378906,31.662353 3,3 0 0 0 32,28.998291 3,3 0 0 0 30.376953,26.336182 3,3 0 0 0 30.5,25.498291 a 3,3 0 0 0 -3,-3 3,3 0 0 0 -0.835938,0.121094 A 3,3 0 0 0 24,20.998291 Z m 0,3 a 5,5 0 0 1 5,5 5,5 0 0 1 -5,5 5,5 0 0 1 -5,-5 5,5 0 0 1 5,-5 z m 0,1 a 4,4 0 0 0 -4,4 4,4 0 0 0 4,4 4,4 0 0 0 4,-4 4,4 0 0 0 -4,-4 z"/>
 <path style="fill:#8b9cbe" d="M 24 20 A 3 3 0 0 0 21.337891 21.623047 A 3 3 0 0 0 20.5 21.5 A 3 3 0 0 0 17.5 24.5 A 3 3 0 0 0 17.621094 25.335938 A 3 3 0 0 0 16 28 A 3 3 0 0 0 17.623047 30.662109 A 3 3 0 0 0 17.5 31.5 A 3 3 0 0 0 20.5 34.5 A 3 3 0 0 0 21 34.453125 L 21 39 C 21.00035 39.890637 22.077036 40.336587 22.707031 39.707031 L 24 38.414062 L 25.292969 39.707031 C 25.922964 40.336587 26.99965 39.890637 27 39 L 27 34.453125 A 3 3 0 0 0 27.5 34.5 A 3 3 0 0 0 30.5 31.5 A 3 3 0 0 0 30.378906 30.664062 A 3 3 0 0 0 32 28 A 3 3 0 0 0 30.376953 25.337891 A 3 3 0 0 0 30.5 24.5 A 3 3 0 0 0 27.5 21.5 A 3 3 0 0 0 26.664062 21.621094 A 3 3 0 0 0 24 20 z M 24 23 A 5 5 0 0 1 29 28 A 5 5 0 0 1 24 33 A 5 5 0 0 1 19 28 A 5 5 0 0 1 24 23 z M 24 24 A 4 4 0 0 0 20 28 A 4 4 0 0 0 24 32 A 4 4 0 0 0 28 28 A 4 4 0 0 0 24 24 z"/>
</svg>
