<svg xmlns="http://www.w3.org/2000/svg" width="48" height="48" version="1.1">
 <path style="opacity:0.2" d="M 10,5 C 8.892,5 8,5.892 8,7 V 43 C 8,44.108 8.892,45 10,45 H 38 C 39.108,45 40,44.108 40,43 V 17 L 28,5 Z"/>
 <path style="fill:#26557c" d="M 10,4 C 8.892,4 8,4.892 8,6 V 42 C 8,43.108 8.892,44 10,44 H 38 C 39.108,44 40,43.108 40,42 V 16 L 30,14 28,4 Z"/>
 <path style="opacity:0.2" d="M 40,17 28,5 V 15 C 28,16.108 28.892,17 30,17 Z"/>
 <path style="fill:#396b95" d="M 40,16 28,4 V 14 C 28,15.108 28.892,16 30,16 Z"/>
 <path style="opacity:0.1;fill:#8b9cbe" d="M 10 4 C 8.892 4 8 4.892 8 6 L 8 7 C 8 5.892 8.892 5 10 5 L 28 5 L 28 4 L 10 4 z"/>
 <path style="opacity:0.2" d="m 34.602151,40.845502 c -0.135426,-0.08736 -0.878396,-0.506534 -1.65097,-0.931481 -1.608145,-0.884518 -3.212089,-2.238814 -3.212089,-2.711998 0,-0.419941 0.525867,-0.755629 1.32982,-0.849036 0.385859,-0.0448 0.891747,-0.118104 1.124172,-0.162918 l 0.422617,-0.08147 -0.626564,-0.452082 c -0.592739,-0.427673 -1.051647,-0.63991 -2.396993,-1.108666 -0.871048,-0.30345 -1.503146,-1.010887 -2.215344,-2.479108 -1.855194,-3.824886 -2.198842,-4.453404 -2.829291,-5.174885 -0.709866,-0.812444 -1.734295,-1.658888 -3.109865,-2.56948 -1.350671,-0.894147 -1.561046,-0.975109 -2.535294,-0.975109 -0.775798,0 -0.939297,-0.04242 -1.42237,-0.369149 -0.763123,-0.516073 -1.521296,-0.835185 -1.991618,-0.838295 -0.605527,-0.004 -0.533947,0.42311 0.226356,1.350739 0.73802,0.900444 0.912223,1.209407 1.279796,2.269924 0.151297,0.436511 0.559903,1.281482 0.908022,1.877703 0.348112,0.596214 0.632924,1.136665 0.632924,1.201036 0,0.06435 -0.145928,0.529503 -0.324285,1.033703 -0.392068,1.108294 -0.500541,2.293479 -0.290332,3.17222 0.364785,1.524887 0.812699,1.732591 1.067548,0.495014 0.221205,-1.074296 0.603298,-1.723406 1.012721,-1.720591 0.12597,8.14e-4 0.5274,0.610072 1.119747,1.699257 0.507846,0.933852 1.241547,2.11348 1.63042,2.621405 0.388875,0.507934 0.681951,0.948148 0.651284,0.978296 -0.07267,0.07145 -1.078947,-0.766296 -1.81267,-1.508962 -0.317601,-0.32151 -0.773024,-0.905406 -1.012047,-1.297629 -0.412492,-0.67671 -0.440301,-0.698295 -0.545692,-0.42354 -0.06104,0.15923 -0.149631,0.463934 -0.196799,0.67711 -0.136035,0.614859 -0.51572,1.004 -0.979571,1.004 -0.649386,0 -1.115172,-0.6432 -1.493695,-2.06259 -0.252923,-0.948371 -0.188745,-2.965925 0.126335,-3.972071 0.203198,-0.648851 0.203078,-0.649993 -0.09939,-0.968074 -0.389378,-0.409503 -0.611025,-0.84837 -1.090273,-2.158664 -0.303966,-0.831111 -0.58484,-1.310518 -1.282496,-2.189333 -0.627358,-0.790221 -0.917621,-1.266813 -0.975072,-1.600812 -0.178117,-1.036297 0.22785,-1.637999 1.092673,-1.619554 0.66863,0.01427 2.037667,0.466347 2.627466,0.867627 0.347932,0.236726 0.695525,0.339919 1.368746,0.406334 1.65607,0.163377 3.461164,1.205184 5.353859,3.089849 1.833295,1.825554 3.213665,3.977923 3.72674,5.810958 0.34382,1.228296 0.887247,1.807925 2.379217,2.537554 1.095372,0.535688 1.432121,0.778814 2.426617,1.752295 0.635098,0.621658 1.154697,1.222443 1.154697,1.335035 0,0.247497 -0.515451,0.423556 -1.53892,0.525638 -1.435046,0.143125 -1.424021,0.115733 -0.349754,0.868591 1.83127,1.283406 2.489618,1.908888 2.684391,2.550442 0.09301,0.306319 -0.0045,0.33323 -0.364829,0.10075 z M 18.840948,25.480329 c -0.100176,-0.235667 -0.293039,-0.48683 -0.428579,-0.558126 -0.288343,-0.15168 -0.318065,-0.396089 -0.07254,-0.596392 0.263248,-0.214748 1.027197,0.134052 1.124021,0.513184 0.230348,0.902074 -0.286071,1.433779 -0.622932,0.641334 z"/>
 <path style="fill:#8b9cbe" d="m 34.602151,39.845502 c -0.135426,-0.08736 -0.878396,-0.506534 -1.65097,-0.931481 -1.608145,-0.884518 -3.212089,-2.238814 -3.212089,-2.711998 0,-0.419941 0.525867,-0.755629 1.32982,-0.849036 0.385859,-0.0448 0.891747,-0.118104 1.124172,-0.162918 l 0.422617,-0.08147 -0.626564,-0.452082 c -0.592739,-0.427673 -1.051647,-0.63991 -2.396993,-1.108666 -0.871048,-0.30345 -1.503146,-1.010887 -2.215344,-2.479108 -1.855194,-3.824886 -2.198842,-4.453404 -2.829291,-5.174885 -0.709866,-0.812444 -1.734295,-1.658888 -3.109865,-2.56948 -1.350671,-0.894147 -1.561046,-0.975109 -2.535294,-0.975109 -0.775798,0 -0.939297,-0.04242 -1.42237,-0.369149 -0.763123,-0.516073 -1.521296,-0.835185 -1.991618,-0.838295 -0.605527,-0.004 -0.533947,0.42311 0.226356,1.350739 0.73802,0.900444 0.912223,1.209407 1.279796,2.269924 0.151297,0.436511 0.559903,1.281482 0.908022,1.877703 0.348112,0.596214 0.632924,1.136665 0.632924,1.201036 0,0.06435 -0.145928,0.529503 -0.324285,1.033703 -0.392068,1.108294 -0.500541,2.293479 -0.290332,3.17222 0.364785,1.524887 0.812699,1.732591 1.067548,0.495014 0.221205,-1.074296 0.603298,-1.723406 1.012721,-1.720591 0.12597,8.14e-4 0.5274,0.610072 1.119747,1.699257 0.507846,0.933852 1.241547,2.11348 1.63042,2.621405 0.388875,0.507934 0.681951,0.948148 0.651284,0.978296 -0.07267,0.07145 -1.078947,-0.766296 -1.81267,-1.508962 -0.317601,-0.32151 -0.773024,-0.905406 -1.012047,-1.297629 -0.412492,-0.67671 -0.440301,-0.698295 -0.545692,-0.42354 -0.06104,0.15923 -0.149631,0.463934 -0.196799,0.67711 -0.136035,0.614859 -0.51572,1.004 -0.979571,1.004 -0.649386,0 -1.115172,-0.6432 -1.493695,-2.06259 -0.252923,-0.948371 -0.188745,-2.965925 0.126335,-3.972071 0.203198,-0.648851 0.203078,-0.649993 -0.09939,-0.968074 -0.389378,-0.409503 -0.611025,-0.84837 -1.090273,-2.158664 -0.303966,-0.831111 -0.58484,-1.310518 -1.282496,-2.189333 -0.627358,-0.790221 -0.917621,-1.266813 -0.975072,-1.600812 -0.178117,-1.036297 0.22785,-1.637999 1.092673,-1.619554 0.66863,0.01427 2.037667,0.466347 2.627466,0.867627 0.347932,0.236726 0.695525,0.339919 1.368746,0.406334 1.65607,0.163377 3.461164,1.205184 5.353859,3.089849 1.833295,1.825554 3.213665,3.977923 3.72674,5.810958 0.34382,1.228296 0.887247,1.807925 2.379217,2.537554 1.095372,0.535688 1.432121,0.778814 2.426617,1.752295 0.635098,0.621658 1.154697,1.222443 1.154697,1.335035 0,0.247497 -0.515451,0.423556 -1.53892,0.525638 -1.435046,0.143125 -1.424021,0.115733 -0.349754,0.868591 1.83127,1.283406 2.489618,1.908888 2.684391,2.550442 0.09301,0.306319 -0.0045,0.33323 -0.364829,0.10075 z M 18.840948,24.480329 c -0.100176,-0.235667 -0.293039,-0.48683 -0.428579,-0.558126 -0.288343,-0.15168 -0.318065,-0.396089 -0.07254,-0.596392 0.263248,-0.214748 1.027197,0.134052 1.124021,0.513184 0.230348,0.902074 -0.286071,1.433779 -0.622932,0.641334 z"/>
</svg>
