<svg xmlns="http://www.w3.org/2000/svg" width="48" height="48" version="1.1">
 <path style="opacity:0.2" d="M 10,5 C 8.892,5 8,5.892 8,7 V 43 C 8,44.108 8.892,45 10,45 H 38 C 39.108,45 40,44.108 40,43 V 17 L 28,5 Z"/>
 <path style="fill:#b2bfd9" d="M 10,4 C 8.892,4 8,4.892 8,6 V 42 C 8,43.108 8.892,44 10,44 H 38 C 39.108,44 40,43.108 40,42 V 16 L 30,14 28,4 Z"/>
 <path style="opacity:0.2" d="M 40,17 28,5 V 15 C 28,16.108 28.892,17 30,17 Z"/>
 <path style="fill:#fafafa" d="M 40,16 28,4 V 14 C 28,15.108 28.892,16 30,16 Z"/>
 <path style="opacity:0.2;fill:#8b9cbe" d="M 10 4 C 8.892 4 8 4.892 8 6 L 8 7 C 8 5.892 8.892 5 10 5 L 28 5 L 28 4 L 10 4 z"/>
 <path style="opacity:0.1" d="m 26.03155,28.304772 c 0.07311,0.08225 0.267172,0.264829 0.582213,0.547749 4.422179,4.385867 6.548166,6.341833 6.377112,6.867399 -0.122941,0.3866 -0.477309,0.714419 -1.063107,0.983461 -0.584831,0.25339 -1.111711,0.368291 -1.580643,0.3447 -0.371275,-0.01867 -2.13453,-1.367225 -5.288913,-5.045168 -0.63649,-0.770424 -1.01032,-1.20557 -1.121491,-1.305439 -0.462169,0.47952 -1.153011,1.465994 -2.072529,2.959423 -1.183626,2.382836 -2.741034,4.581652 -3.633017,7.099367 -0.272445,0.881828 -0.965547,1.294734 -2.079303,1.238717 -0.586195,-0.02948 -0.946355,-0.220419 -1.080473,-0.572808 -0.134128,-0.352392 -0.07928,-0.899518 0.164543,-1.641391 0.468095,-1.484717 2.719266,-5.087163 6.753519,-10.807346 -0.02295,-0.252519 -0.600991,-1.169267 -1.73413,-2.75025 -1.133158,-1.580953 -2.032782,-2.778515 -2.698879,-3.393346 -0.721703,-0.664723 -1.022101,-1.174731 -0.901192,-1.530024 0.272431,-0.881809 1.131619,-1.286362 2.577564,-1.213657 0.703423,0.0354 1.957152,1.517861 3.761194,4.248041 0.770587,1.12284 1.275329,1.808091 1.514227,2.055757 0.415999,-0.371838 1.009013,-1.056865 1.779037,-2.055086 0.771005,-1.013846 1.304201,-1.835427 1.599595,-2.464744 0.292336,-0.582298 0.75348,-1.046147 1.383441,-1.39155 0.629925,-0.345361 1.22822,-0.503802 1.794892,-0.475323 0.879264,0.04424 1.197504,0.429462 0.954714,1.15565 -0.272459,0.881849 -1.857797,2.820986 -4.756019,5.817418 -0.755905,0.778973 -1.166687,1.221788 -1.232356,1.32845"/>
 <path style="fill:#ff6600" d="m 26.03155,27.304772 c 0.07311,0.08225 0.267172,0.264829 0.582213,0.547749 4.422179,4.385867 6.548166,6.341833 6.377112,6.867399 -0.122941,0.3866 -0.477309,0.714419 -1.063107,0.983461 -0.584831,0.25339 -1.111711,0.368291 -1.580643,0.3447 -0.371275,-0.01867 -2.13453,-1.367225 -5.288913,-5.045168 -0.63649,-0.770424 -1.01032,-1.20557 -1.121491,-1.305439 -0.462169,0.47952 -1.153011,1.465994 -2.072529,2.959423 -1.183626,2.382836 -2.741034,4.581652 -3.633017,7.099367 -0.272445,0.881828 -0.965547,1.294734 -2.079303,1.238717 -0.586195,-0.02948 -0.946355,-0.220419 -1.080473,-0.572808 -0.134128,-0.352392 -0.07928,-0.899518 0.164543,-1.641391 0.468095,-1.484717 2.719266,-5.087163 6.753519,-10.807346 -0.02295,-0.252519 -0.600991,-1.169267 -1.73413,-2.75025 -1.133158,-1.580953 -2.032782,-2.778515 -2.698879,-3.393346 -0.721703,-0.664723 -1.022101,-1.174731 -0.901192,-1.530024 0.272431,-0.881809 1.131619,-1.286362 2.577564,-1.213657 0.703423,0.0354 1.957152,1.517861 3.761194,4.248041 0.770587,1.12284 1.275329,1.808091 1.514227,2.055757 0.415999,-0.371838 1.009013,-1.056865 1.779037,-2.055086 0.771005,-1.013846 1.304201,-1.835427 1.599595,-2.464744 0.292336,-0.582298 0.75348,-1.046147 1.383441,-1.39155 0.629925,-0.345361 1.22822,-0.503802 1.794892,-0.475323 0.879264,0.04424 1.197504,0.429462 0.954714,1.15565 -0.272459,0.881849 -1.857797,2.820986 -4.756019,5.817418 -0.755905,0.778973 -1.166687,1.221788 -1.232356,1.32845"/>
</svg>
