<svg xmlns="http://www.w3.org/2000/svg" width="48" height="48" version="1">
 <rect style="opacity:0.2" width="40" height="26" x="4" y="17" rx="2" ry="2"/>
 <path style="fill:#c18600" d="M 4,34 C 4,35.108 4.892,36 6,36 H 42 C 43.108,36 44,35.108 44,34 V 12 C 44,10.892 43.108,10 42,10 H 22 V 8 C 22,6.892 21.108,6 20,6 H 6 C 4.892,6 4,6.892 4,8"/>
 <rect style="opacity:0.2" width="40" height="26" x="4" y="15" rx="2" ry="2"/>
 <rect style="fill:#b2bfd9" width="36" height="16" x="6" y="13" rx="2" ry="2"/>
 <rect style="fill:#e8a80e" width="40" height="26" x="4" y="16" rx="2" ry="2"/>
 <path style="opacity:0.1;fill:#8b9cbe" d="M 6,6 C 4.892,6 4,6.892 4,8 V 9 C 4,7.892 4.892,7 6,7 H 20 C 21.108,7 22,7.892 22,9 V 8 C 22,6.892 21.108,6 20,6 Z M 22,10 V 11 H 42 C 43.108,11 44,11.892 44,13 V 12 C 44,10.892 43.108,10 42,10 Z"/>
 <g style="fill:#513b05">
  <circle cx="17.5" cy="24.5" r="1.5"/>
  <circle cx="21.5" cy="24.5" r="1.5"/>
  <circle cx="25.5" cy="24.5" r="1.5"/>
  <circle cx="29.5" cy="24.5" r="1.5"/>
  <circle cx="13.5" cy="28.5" r="1.5"/>
  <circle cx="17.5" cy="28.5" r="1.5"/>
  <circle cx="21.5" cy="28.5" r="1.5"/>
  <circle cx="25.5" cy="28.5" r="1.5"/>
  <circle cx="29.5" cy="28.5" r="1.5"/>
  <circle cx="33.5" cy="28.5" r="1.5"/>
  <circle cx="13.5" cy="32.5" r="1.5"/>
  <circle cx="17.5" cy="32.5" r="1.5"/>
  <circle cx="29.5" cy="32.5" r="1.5"/>
  <circle cx="33.5" cy="32.5" r="1.5"/>
 </g>
</svg>
