<svg xmlns="http://www.w3.org/2000/svg" width="48" height="48" version="1.1">
 <path style="opacity:0.2" d="M 10,5 C 8.892,5 8,5.892 8,7 v 36 c 0,1.108 0.892,2 2,2 h 28 c 1.108,0 2,-0.892 2,-2 V 17 L 29,16 28,5 Z"/>
 <path style="fill:#0a99d6" d="M 10,4 C 8.892,4 8,4.892 8,6 v 36 c 0,1.108 0.892,2 2,2 h 28 c 1.108,0 2,-0.892 2,-2 V 16 L 29,15 28,4 Z"/>
 <path fill="#8b9cbe" opacity=".2" d="m10 4c-1.108 0-2 0.892-2 2v1c0-1.108 0.892-2 2-2h18l11 11h1l-12-12z"/>
 <path style="opacity:0.2" d="m 28,5 v 10 c 0,1.1046 0.89543,2 2,2 h 10 z"/>
 <path style="fill:#6ac1e6" d="m 28,4 v 10 c 0,1.1046 0.89543,2 2,2 h 10 z"/>
 <path style="opacity:0.2" d="M 24,20 A 10,10 0 0 0 14,30 h 6 v -4 l 6,6 -6,6 V 34 H 14.847656 A 10,10 0 0 0 24,40 10,10 0 0 0 34,30 10,10 0 0 0 24,20 Z"/>
 <path style="fill:#8b9cbe" d="M 24 19 A 10 10 0 0 0 14 29 L 20 29 L 20 25 L 26 31 L 20 37 L 20 33 L 14.847656 33 A 10 10 0 0 0 24 39 A 10 10 0 0 0 34 29 A 10 10 0 0 0 24 19 z"/>
</svg>
