<svg xmlns="http://www.w3.org/2000/svg" width="48" height="48" version="1">
 <rect style="opacity:0.2" width="40" height="40" x="-45" y="-44" rx="2" ry="2" transform="matrix(0,-1,-1,0,0,0)"/>
 <rect style="fill:#ee4a58" width="40" height="40" x="-44" y="-44" rx="2" ry="2" transform="matrix(0,-1,-1,0,0,0)"/>
 <path style="opacity:0.2;fill:#8b9cbe" d="M 6,4 C 4.892,4 4,4.892 4,6 L 4,7 C 4,5.892 4.892,5 6,5 l 36,0 c 1.108,0 2,0.892 2,2 L 44,6 C 44,4.892 43.108,4 42,4 L 6,4 Z"/>
 <path style="opacity:0.2" d="m 6,20 v 10 h 2 v -4 -2 -1 -1 h 5 c 0.270833,0 0.505208,0.09896 0.703125,0.296875 C 13.901042,22.494792 14,22.729167 14,23 h 2 V 22 C 16,21.458333 15.802083,20.989583 15.40625,20.59375 15.020833,20.197917 14.552083,20 14,20 Z m 11,0 v 3 7 h 2 v -3 c 0,-0.270833 0.09375,-0.505208 0.28125,-0.703125 C 19.479167,26.098958 19.71875,26 20,26 h 5 c 0.552083,0 1.020833,-0.192708 1.40625,-0.578125 C 26.802083,25.026042 27,24.552083 27,24 V 22 C 27,21.447917 26.802083,20.979167 26.40625,20.59375 26.010417,20.197917 25.541667,20 25,20 Z m 11,0 v 10 h 2 v -7 c 0,-0.270833 0.09375,-0.505208 0.28125,-0.703125 C 30.479167,22.098958 30.71875,22 31,22 h 2 c 0.270833,0 0.505208,0.09896 0.703125,0.296875 C 33.901042,22.494792 34,22.729167 34,23 v 7 h 2 v -7 c 0,-0.270833 0.09375,-0.505208 0.28125,-0.703125 C 36.479167,22.098958 36.71875,22 37,22 h 2 c 0.270833,0 0.505208,0.09896 0.703125,0.296875 C 39.901042,22.494792 40,22.729167 40,23 v 7 h 2 V 22 C 42,21.458333 41.802083,20.989583 41.40625,20.59375 41.020833,20.197917 40.552083,20 40,20 Z m -8,2 h 4 c 0.270833,0 0.505208,0.09896 0.703125,0.296875 C 24.901042,22.494792 25,22.729167 25,23 c 0,0.28125 -0.09896,0.520833 -0.296875,0.71875 C 24.505208,23.90625 24.270833,24 24,24 H 20 C 19.71875,24 19.479167,23.90625 19.28125,23.71875 19.09375,23.520833 19,23.28125 19,23 19,22.729167 19.09375,22.494792 19.28125,22.296875 19.479167,22.098958 19.71875,22 20,22 Z"/>
 <path style="fill:#8b9cbe" d="M 6 19 L 6 29 L 8 29 L 8 25 L 8 23 L 8 22 L 8 21 L 13 21 C 13.270833 21 13.505208 21.098958 13.703125 21.296875 C 13.901042 21.494792 14 21.729167 14 22 L 16 22 L 16 21 C 16 20.458333 15.802083 19.989583 15.40625 19.59375 C 15.020833 19.197917 14.552083 19 14 19 L 6 19 z M 17 19 L 17 22 L 17 29 L 19 29 L 19 26 C 19 25.729167 19.09375 25.494792 19.28125 25.296875 C 19.479167 25.098958 19.71875 25 20 25 L 25 25 C 25.552083 25 26.020833 24.807292 26.40625 24.421875 C 26.802083 24.026042 27 23.552083 27 23 L 27 21 C 27 20.447917 26.802083 19.979167 26.40625 19.59375 C 26.010417 19.197917 25.541667 19 25 19 L 17 19 z M 28 19 L 28 29 L 30 29 L 30 22 C 30 21.729167 30.09375 21.494792 30.28125 21.296875 C 30.479167 21.098958 30.71875 21 31 21 L 33 21 C 33.270833 21 33.505208 21.098958 33.703125 21.296875 C 33.901042 21.494792 34 21.729167 34 22 L 34 29 L 36 29 L 36 22 C 36 21.729167 36.09375 21.494792 36.28125 21.296875 C 36.479167 21.098958 36.71875 21 37 21 L 39 21 C 39.270833 21 39.505208 21.098958 39.703125 21.296875 C 39.901042 21.494792 40 21.729167 40 22 L 40 29 L 42 29 L 42 21 C 42 20.458333 41.802083 19.989583 41.40625 19.59375 C 41.020833 19.197917 40.552083 19 40 19 L 28 19 z M 20 21 L 24 21 C 24.270833 21 24.505208 21.098958 24.703125 21.296875 C 24.901042 21.494792 25 21.729167 25 22 C 25 22.28125 24.901042 22.520833 24.703125 22.71875 C 24.505208 22.90625 24.270833 23 24 23 L 20 23 C 19.71875 23 19.479167 22.90625 19.28125 22.71875 C 19.09375 22.520833 19 22.28125 19 22 C 19 21.729167 19.09375 21.494792 19.28125 21.296875 C 19.479167 21.098958 19.71875 21 20 21 z"/>
</svg>
