<svg xmlns="http://www.w3.org/2000/svg" width="48" height="48" version="1.1">
 <path style="opacity:0.2" d="M 10,5 C 8.892,5 8,5.892 8,7 V 43 C 8,44.108 8.892,45 10,45 H 38 C 39.108,45 40,44.108 40,43 V 17 L 28,5 Z"/>
 <path style="fill:#293e91" d="M 10,4 C 8.892,4 8,4.892 8,6 V 42 C 8,43.108 8.892,44 10,44 H 38 C 39.108,44 40,43.108 40,42 V 16 L 28,4 Z"/>
 <path style="opacity:0.2" d="M 40,17 28,5 V 15 C 28,16.108 28.892,17 30,17 Z"/>
 <path style="fill:#3554b9" d="M 40,16 28,4 V 14 C 28,15.108 28.892,16 30,16 Z"/>
 <path style="opacity:0.1;fill:#8b9cbe" d="M 10 4 C 8.892 4 8 4.892 8 6 L 8 7 C 8 5.892 8.892 5 10 5 L 28 5 L 28 4 L 10 4 z"/>
 <path style="opacity:0.2" d="m 23.402629,37.002345 c -0.09802,0.0061 -0.196089,0.0234 -0.291016,0.04883 -0.37971,0.101712 -0.715556,0.358885 -0.912109,0.699219 -0.196552,0.340335 -0.25018,0.759078 -0.148438,1.138672 0.101743,0.379594 0.358781,0.715617 0.699219,0.912109 0.34044,0.196492 0.758961,0.25015 1.138672,0.148438 0.379709,-0.101711 0.715557,-0.358886 0.912109,-0.699219 0.196552,-0.340335 0.250181,-0.759078 0.148438,-1.138672 -0.101743,-0.379601 -0.358781,-0.713666 -0.699219,-0.910158 -0.255329,-0.14737 -0.553593,-0.217398 -0.847656,-0.199219 z m 5.178052,-8.001953 c -0.477858,0.01376 -0.952877,0.175829 -1.339844,0.470703 -0.448742,0.341947 -0.767129,0.834014 -1.117187,1.285156 -0.17503,0.225572 -0.361454,0.442865 -0.576172,0.626953 -0.214719,0.184087 -0.460568,0.334905 -0.728516,0.410157 -0.267947,0.07525 -0.550451,0.07229 -0.824218,0.02539 -0.273767,-0.04689 -0.539644,-0.138563 -0.798829,-0.242187 -0.518368,-0.207246 -1.028335,-0.466383 -1.580078,-0.527344 -0.761263,-0.08412 -1.553551,0.247403 -2.050781,0.857422 -0.497228,0.610018 -0.68445,1.482819 -0.486328,2.257812 0.19812,0.774996 0.774482,1.429558 1.496094,1.697266 0.721612,0.267707 1.566398,0.139768 2.185547,-0.332031 0.448741,-0.341946 0.767129,-0.834013 1.117187,-1.285156 0.175028,-0.225571 0.361453,-0.442867 0.576172,-0.626953 0.214718,-0.184088 0.460569,-0.334903 0.728516,-0.410157 0.267947,-0.07525 0.550451,-0.07229 0.824218,-0.02539 0.273769,0.04689 0.539642,0.136612 0.798829,0.240234 0.518367,0.207247 1.028335,0.468335 1.580078,0.529297 0.761262,0.08411 1.553552,-0.247404 2.050781,-0.857422 0.497229,-0.610018 0.684449,-1.482819 0.486328,-2.257812 -0.198123,-0.774996 -0.774481,-1.431511 -1.496094,-1.699219 -0.270605,-0.100391 -0.558989,-0.144966 -0.845703,-0.136719 z m -0.01008,-7.998047 c -0.67686,0.01768 -1.350317,0.222472 -1.898437,0.601562 -0.63562,0.439609 -1.084239,1.074307 -1.580078,1.654297 -0.496993,0.671984 -1.097775,1.213128 -1.847656,1.332032 -1.569212,0.248819 -3.005169,-1.333112 -4.539063,-1.454625 -1.032161,-0.08177 -2.199997,0.317321 -2.904297,1.101562 -0.704299,0.784241 -0.972034,2.405557 -0.691406,3.401891 0.280628,0.996333 1.100919,1.839429 2.123047,2.183594 1.022127,0.344167 2.218711,0.180763 3.095703,-0.425782 0.635621,-0.439607 1.08424,-1.074306 1.580078,-1.654296 0.496993,-0.671983 1.096918,-1.21866 1.847656,-1.332032 0.800185,-0.12084 1.530483,0.540822 2.300782,0.774915 0.734244,0.266436 1.456765,0.601314 2.238281,0.679687 1.078289,0.108135 2.199997,-0.319273 2.904297,-1.103515 0.7043,-0.784241 0.972033,-2.403585 0.691406,-3.399919 -0.280628,-0.99633 -1.100919,-1.839424 -2.123047,-2.18359 -0.383297,-0.129062 -0.791147,-0.186385 -1.197266,-0.175781 z"/>
 <path style="fill:#fed909" d="m 23.402629,36.002345 c -0.09802,0.0061 -0.196089,0.0234 -0.291016,0.04883 -0.37971,0.101712 -0.715556,0.358885 -0.912109,0.699219 -0.196552,0.340335 -0.25018,0.759078 -0.148438,1.138672 0.101743,0.379594 0.358781,0.715617 0.699219,0.912109 0.34044,0.196492 0.758961,0.25015 1.138672,0.148438 0.379709,-0.101711 0.715557,-0.358886 0.912109,-0.699219 0.196552,-0.340335 0.250181,-0.759078 0.148438,-1.138672 -0.101743,-0.379601 -0.358781,-0.713666 -0.699219,-0.910158 -0.255329,-0.14737 -0.553593,-0.217398 -0.847656,-0.199219 z m 5.178052,-8.001953 c -0.477858,0.01376 -0.952877,0.175829 -1.339844,0.470703 -0.448742,0.341947 -0.767129,0.834014 -1.117187,1.285156 -0.17503,0.225572 -0.361454,0.442865 -0.576172,0.626953 -0.214719,0.184087 -0.460568,0.334905 -0.728516,0.410157 -0.267947,0.07525 -0.550451,0.07229 -0.824218,0.02539 -0.273767,-0.04689 -0.539644,-0.138563 -0.798829,-0.242187 -0.518368,-0.207246 -1.028335,-0.466383 -1.580078,-0.527344 -0.761263,-0.08412 -1.553551,0.247403 -2.050781,0.857422 -0.497228,0.610018 -0.68445,1.482819 -0.486328,2.257812 0.19812,0.774996 0.774482,1.429558 1.496094,1.697266 0.721612,0.267707 1.566398,0.139768 2.185547,-0.332031 0.448741,-0.341946 0.767129,-0.834013 1.117187,-1.285156 0.175028,-0.225571 0.361453,-0.442867 0.576172,-0.626953 0.214718,-0.184088 0.460569,-0.334903 0.728516,-0.410157 0.267947,-0.07525 0.550451,-0.07229 0.824218,-0.02539 0.273769,0.04689 0.539642,0.136612 0.798829,0.240234 0.518367,0.207247 1.028335,0.468335 1.580078,0.529297 0.761262,0.08411 1.553552,-0.247404 2.050781,-0.857422 0.497229,-0.610018 0.684449,-1.482819 0.486328,-2.257812 -0.198123,-0.774996 -0.774481,-1.431511 -1.496094,-1.699219 -0.270605,-0.100391 -0.558989,-0.144966 -0.845703,-0.136719 z m -0.01008,-7.998047 c -0.67686,0.01768 -1.350317,0.222472 -1.898437,0.601562 -0.63562,0.439609 -1.084239,1.074307 -1.580078,1.654297 -0.496993,0.671984 -1.097775,1.213128 -1.847656,1.332032 -1.569212,0.248819 -3.005169,-1.333112 -4.539063,-1.454625 -1.032161,-0.08177 -2.199997,0.317321 -2.904297,1.101562 -0.704299,0.784241 -0.972034,2.405557 -0.691406,3.401891 0.280628,0.996333 1.100919,1.839429 2.123047,2.183594 1.022127,0.344167 2.218711,0.180763 3.095703,-0.425782 0.635621,-0.439607 1.08424,-1.074306 1.580078,-1.654296 0.496993,-0.671983 1.096918,-1.21866 1.847656,-1.332032 0.800185,-0.12084 1.530483,0.540822 2.300782,0.774915 0.734244,0.266436 1.456765,0.601314 2.238281,0.679687 1.078289,0.108135 2.199997,-0.319273 2.904297,-1.103515 0.7043,-0.784241 0.972033,-2.403585 0.691406,-3.399919 -0.280628,-0.99633 -1.100919,-1.839424 -2.123047,-2.18359 -0.383297,-0.129062 -0.791147,-0.186385 -1.197266,-0.175781 z"/>
</svg>
