<svg xmlns="http://www.w3.org/2000/svg" width="48" height="48" version="1.1">
 <path style="opacity:0.2" d="M 10,5 C 8.892,5 8,5.892 8,7 l 0,36 c 0,1.108 0.892,2 2,2 l 28,0 c 1.108,0 2,-0.892 2,-2 L 40,17 28,5 Z"/>
 <path style="fill:#ffba3a" d="M 10,4 C 8.892,4 8,4.892 8,6 l 0,36 c 0,1.108 0.892,2 2,2 l 28,0 c 1.108,0 2,-0.892 2,-2 L 40,16 28,4 Z"/>
 <path style="opacity:0.2" d="M 40,17 28,5 28,15 c 0,1.108 0.892,2 2,2 z"/>
 <path style="fill:#ffdea2" d="M 40,16 28,4 28,14 c 0,1.108 0.892,2 2,2 z"/>
 <path style="opacity:0.2;fill:#8b9cbe" d="M 10,4 C 8.892,4 8,4.892 8,6 L 8,7 C 8,5.892 8.892,5 10,5 L 28,5 28,4 10,4 Z"/>
 <path style="fill:#17191e" d="m 21,22 c 0,3 0,6 -1.767578,6 -0.800273,0 -1.751642,-0.188246 -2.31836,-1.179688 C 16.141152,25.468365 18,23 18,23 c -4.635406,1.435104 -8,4.292983 -8,7.761719 0,2.707993 2.441699,5.62311 5.5,7.238281 0,0 -1.469386,-4.417859 0.472656,-5 1.052788,-0.167294 2.433479,0.97735 3.027344,2 0,0 -0.213675,-1.96949 1.314453,-2 1.528128,-0.03051 3.426879,2.683517 3.685547,5 0.258668,-2.316483 2.157419,-5.030509 3.685547,-5 C 29.213675,33.030509 29,35 29,35 29.593865,33.97735 30.974556,32.832706 32.027344,33 33.969386,33.582141 32.5,38 32.5,38 35.558301,36.384829 38,33.469712 38,30.761719 38,27.292983 34.635406,24.435104 30,23 c 0,0 1.858848,2.468365 1.085938,3.820312 C 30.51922,27.811754 29.567851,28 28.767578,28 27,28 27,25 27,22 L 24.90625,24 24,24 23.09375,24 Z"/>
</svg>
