<svg xmlns="http://www.w3.org/2000/svg" width="48" height="48" version="1">
 <path style="opacity:0.2" d="M 10,5 C 8.892,5 8,5.892 8,7 v 36 c 0,1.108 0.892,2 2,2 h 28 c 1.108,0 2,-0.892 2,-2 V 17 L 29,16 28,5 Z"/>
 <path fill="#b2bfd9" d="m10 4c-1.108 0-2 0.892-2 2v36c0 1.108 0.892 2 2 2h28c1.108 0 2-0.892 2-2v-26l-11-1-1-11z"/>
 <path fill="#fff" opacity=".2" d="m10 4c-1.108 0-2 0.892-2 2v1c0-1.108 0.892-2 2-2h18l11 11h1l-12-12z"/>
 <path style="opacity:0.2" d="m 28,5 v 10 c 0,1.1046 0.89543,2 2,2 h 10 z"/>
 <path fill="#fafafa" d="m28 4v10c0 1.1046 0.89543 2 2 2h10l-12-12z"/>
 <path style="opacity:0.1" d="m 20.586726,40.979563 c -0.455405,-0.01716 -0.841391,-0.04496 -0.857748,-0.06181 -0.01636,-0.01678 0.182171,-0.133579 0.441181,-0.259521 1.040836,-0.506106 1.86353,-1.360497 2.597473,-2.69755 0.112847,-0.205576 0.486894,-1.004515 0.831222,-1.77543 2.519708,-5.641406 5.821321,-12.95368 5.874107,-13.009729 0.05573,-0.05921 0.215056,-0.0574 1.259057,0.01411 2.783183,0.19065 3.29638,0.269237 3.789248,0.580255 0.456898,0.288316 0.874713,0.844734 1.023994,1.363682 0.223866,0.778231 0.454052,4.235427 0.45474,6.829754 5.32e-4,2.666315 -0.237036,6.226688 -0.462863,6.931791 -0.240659,0.751413 -0.817146,1.340032 -1.535511,1.567834 -0.408892,0.129658 -2.559568,0.318226 -5.328239,0.467176 -1.098962,0.05915 -6.892024,0.09454 -8.086661,0.04939 z m -4.974365,-0.265752 c -0.08759,-0.0098 -0.374308,-0.04217 -0.637124,-0.07132 -1.398589,-0.154998 -2.170171,-0.665629 -2.504869,-1.657704 -0.302398,-0.896334 -0.5401,-5.412458 -0.451675,-8.581382 0.07068,-2.533021 0.26701,-4.862081 0.452832,-5.371968 0.290077,-0.79597 0.935114,-1.380891 1.714105,-1.554363 0.363005,-0.08083 1.965185,-0.221741 3.747681,-0.32959 1.017284,-0.06157 1.270111,-0.09027 1.350986,-0.153494 0.05473,-0.04278 0.71516,-0.786111 1.467636,-1.651862 0.75248,-0.865754 1.385185,-1.584908 1.406008,-1.598124 0.175413,-0.111302 1.236427,-0.0745 1.236427,0.04284 0,0.04442 -8.399772,10.138131 -9.865479,11.85496 -0.03854,0.04516 -0.05904,0.09333 -0.04557,0.107177 0.01349,0.01385 0.229877,-0.01786 0.48092,-0.07035 0.327145,-0.06846 0.631239,-0.09547 1.073474,-0.09547 2.098242,0 4.373927,0.853366 5.665874,2.12466 0.874474,0.860494 1.23268,1.668393 1.233117,2.781142 0.0011,2.227831 -1.347301,3.663857 -3.865938,4.117848 -0.500938,0.0903 -2.026834,0.156719 -2.458399,0.107016 z m 6.96258,-4.29728 c -0.0011,-1.612733 -0.645544,-3.099837 -1.909739,-4.406408 -0.664913,-0.687201 -1.414637,-1.243424 -2.273761,-1.686898 -0.376382,-0.194284 -1.364469,-0.560234 -1.516207,-0.56154 -0.04381,-3.73e-4 -0.07964,-0.02801 -0.07964,-0.06136 0,-0.04549 4.779889,-5.73696 8.929011,-10.631892 l 0.132887,-0.156775 0.317526,0.10482 c 0.385857,0.127379 0.947415,0.415493 1.010754,0.518583 0.0478,0.07784 0.171,-0.07205 -6.077623,7.395102 -0.969578,1.158654 -1.763134,2.120669 -1.763464,2.137806 -3.21e-4,0.0171 0.178594,0.174618 0.397604,0.349952 1.540313,1.233113 2.740598,3.194455 3.040621,4.968545 0.128217,0.758187 0.02894,2.197294 -0.165846,2.403843 -0.02558,0.02715 -0.04194,-0.1183 -0.0421,-0.373774 z"/>
 <path style="fill:#ec2f36" d="m 20.586726,39.952904 c -0.455405,-0.01715 -0.841391,-0.04496 -0.857748,-0.06181 -0.01636,-0.01678 0.182171,-0.133579 0.441181,-0.259522 1.040836,-0.506107 1.86353,-1.360498 2.597473,-2.697548 0.112847,-0.205578 0.486894,-1.004519 0.831222,-1.775433 2.519708,-5.641404 5.821321,-12.95368 5.874107,-13.009727 0.05573,-0.05921 0.215056,-0.0574 1.259057,0.01411 2.783183,0.190648 3.29638,0.269235 3.789248,0.580254 0.456898,0.288315 0.874713,0.844733 1.023994,1.363681 0.223866,0.778231 0.454052,4.235427 0.45474,6.829755 5.32e-4,2.666316 -0.237036,6.226688 -0.462863,6.931791 -0.240659,0.751412 -0.817146,1.340034 -1.535511,1.567832 -0.408892,0.129658 -2.559568,0.318229 -5.328239,0.467176 -1.098962,0.05915 -6.892024,0.09454 -8.086661,0.04939 z m -4.974365,-0.265752 c -0.08759,-0.0098 -0.374308,-0.04217 -0.637124,-0.07132 -1.398589,-0.155 -2.170171,-0.66563 -2.504869,-1.657706 -0.302398,-0.896333 -0.5401,-5.412456 -0.451675,-8.581382 0.07068,-2.53302 0.26701,-4.862081 0.452832,-5.371967 0.290077,-0.795969 0.935114,-1.380891 1.714105,-1.554364 0.363005,-0.08083 1.965185,-0.22174 3.747681,-0.329591 1.017284,-0.06157 1.270111,-0.09027 1.350986,-0.153494 0.05473,-0.04279 0.71516,-0.78611 1.467636,-1.651861 0.75248,-0.865752 1.385185,-1.584908 1.406008,-1.598123 0.175413,-0.111302 1.236427,-0.0745 1.236427,0.04283 0,0.04442 -8.399772,10.138133 -9.865479,11.85496 -0.03854,0.04517 -0.05904,0.09334 -0.04557,0.107178 0.01349,0.01385 0.229877,-0.01786 0.48092,-0.07035 0.327145,-0.06846 0.631239,-0.09547 1.073474,-0.09547 2.098242,0 4.373927,0.853364 5.665874,2.12466 0.874474,0.860492 1.23268,1.668391 1.233117,2.781142 0.0011,2.227832 -1.347301,3.663856 -3.865938,4.117847 -0.500938,0.0903 -2.026834,0.156719 -2.458399,0.107014 z m 6.96258,-4.297277 c -0.0011,-1.612733 -0.645544,-3.099837 -1.909739,-4.406409 -0.664913,-0.687202 -1.414637,-1.243422 -2.273761,-1.686899 -0.376382,-0.194282 -1.364469,-0.560232 -1.516207,-0.56154 -0.04381,-3.71e-4 -0.07964,-0.02801 -0.07964,-0.06137 0,-0.04549 4.779889,-5.736959 8.929011,-10.631894 l 0.132887,-0.156774 0.317526,0.104822 c 0.385857,0.12738 0.947415,0.415492 1.010754,0.518582 0.0478,0.07784 0.171,-0.07205 -6.077623,7.395102 -0.969578,1.158653 -1.763134,2.12067 -1.763464,2.137807 -3.21e-4,0.0171 0.178594,0.174616 0.397604,0.349952 1.540313,1.233112 2.740598,3.194455 3.040621,4.968546 0.128217,0.758186 0.02894,2.197292 -0.165846,2.403842 -0.02558,0.02715 -0.04194,-0.1183 -0.0421,-0.373775 z"/>
</svg>
