<svg xmlns="http://www.w3.org/2000/svg" width="48" height="48" version="1">
 <rect style="opacity:0.2" width="40" height="40" x="4" y="5" rx="2" ry="2"/>
 <rect style="fill:#237223" width="40" height="40" x="4" y="4" rx="2" ry="2"/>
 <path style="opacity:0.2" d="M 5.999957,5.0008595 V 23.262187 L 4,25.000429 h 8.6e-4 V 43.000042 C 4.00086,44.108019 4.8928408,45 6.000817,45 H 8.000774 V 44.000021 34.439679 C 6.8132715,33.74338 6.000817,32.466877 6.000817,31.000301 c 0,-2.197229 1.802685,-3.999914 3.999914,-3.999914 2.197229,0 3.999914,1.802685 3.999914,3.999914 0,1.466576 -0.812455,2.743079 -1.999957,3.439378 V 44.000021 45 h 3.999054 V 44.000021 27.855838 L 8.6170881,20.793489 C 8.222791,20.416111 7.9998334,19.893995 7.999914,19.348207 V 6.000838 5.0008595 Z m 5.999871,0 V 6.000838 18.49471 l 7.382653,7.060396 c 0.394297,0.377377 0.617255,0.899492 0.617175,1.445281 V 44.000021 45 h 1.999957 V 44.000021 25.36761 l -7.36703,-6.908056 C 14.229078,18.081595 14.000014,17.553476 13.999785,17.000601 V 6.000838 5.0008595 Z m 5.999871,0 V 6.000838 16.133432 l 7.36703,6.908056 c 0.403505,0.377959 0.63257,0.906078 0.632798,1.458952 V 44.000021 45 h 1.999957 V 23.000473 h 5.000752 l 1.999957,1.999956 H 44 V 13.000687 h -8.999807 l -1.999957,1.999957 h -3.739919 l -3.25993,-3.042903 V 5.0008595 H 23.99957 V 6.000838 12.17258 l 4.828022,4.828021 h 5.733157 c 0.696295,-1.187502 1.97279,-1.999957 3.43938,-1.999957 2.197251,0 3.999914,1.802664 3.999914,3.999915 0,2.19725 -1.802663,3.999914 -3.999914,3.999914 -1.46659,0 -2.743085,-0.812455 -3.43938,-1.999958 H 26.799016 C 26.268629,21.000413 25.76,20.789655 25.384984,20.41459 L 20.585581,16.114994 C 20.210517,15.739979 19.999758,15.231349 19.999656,14.700962 V 6.000838 5.0008595 Z"/>
 <path style="fill:#dfbd8a" d="M 5.999957,4.0008815 V 22.262209 L 4,24.000451 h 8.6e-4 v 17.999613 c 0,1.107977 0.8919808,1.999958 1.999957,1.999958 H 8.000774 V 43.000043 33.439701 C 6.8132715,32.743402 6.000817,31.466899 6.000817,30.000323 c 0,-2.197229 1.802685,-3.999914 3.999914,-3.999914 2.197229,0 3.999914,1.802685 3.999914,3.999914 0,1.466576 -0.812455,2.743079 -1.999957,3.439378 v 9.560342 0.999979 h 3.999054 V 43.000043 26.85586 L 8.6170881,19.793511 C 8.222791,19.416133 7.9998334,18.894017 7.999914,18.348229 V 5.00086 4.0008815 Z m 5.999871,0 V 5.00086 17.494732 l 7.382653,7.060396 c 0.394297,0.377377 0.617255,0.899492 0.617175,1.445281 v 16.999634 0.999979 h 1.999957 V 43.000043 24.367632 l -7.36703,-6.908056 C 14.229078,17.081617 14.000014,16.553498 13.999785,16.000623 V 5.00086 4.0008815 Z m 5.999871,0 V 5.00086 15.133454 l 7.36703,6.908056 c 0.403505,0.377959 0.63257,0.906078 0.632798,1.458952 v 19.499581 0.999979 h 1.999957 V 22.000495 h 5.000752 l 1.999957,1.999956 H 44 V 12.000709 h -8.999807 l -1.999957,1.999957 h -3.739919 l -3.25993,-3.042903 V 4.0008815 H 23.99957 V 5.00086 11.172602 l 4.828022,4.828021 h 5.733157 c 0.696295,-1.187502 1.97279,-1.999957 3.43938,-1.999957 2.197251,0 3.999914,1.802664 3.999914,3.999915 0,2.19725 -1.802663,3.999914 -3.999914,3.999914 -1.46659,0 -2.743085,-0.812455 -3.43938,-1.999958 H 26.799016 C 26.268629,20.000435 25.76,19.789677 25.384984,19.414612 L 20.585581,15.115016 C 20.210517,14.740001 19.999758,14.231371 19.999656,13.700984 V 5.00086 4.0008815 Z"/>
 <path style="opacity:0.2" d="m 38.000129,17.000602 c -1.104546,0 -1.999957,0.895411 -1.999957,1.999957 0,1.104546 0.895411,1.999957 1.999957,1.999957 1.104546,0 1.999957,-0.895411 1.999957,-1.999957 0,-1.104546 -0.895411,-1.999957 -1.999957,-1.999957 z M 10.000731,29.000344 c -1.1045457,0 -1.999957,0.895411 -1.999957,1.999957 0,1.104546 0.8954113,1.999957 1.999957,1.999957 1.104546,0 1.999957,-0.895411 1.999957,-1.999957 0,-1.104546 -0.895411,-1.999957 -1.999957,-1.999957 z"/>
 <circle style="fill:#8b9cbe" cx="38" cy="18" r="2"/>
 <circle style="fill:#8b9cbe" cx="10" cy="30" r="2"/>
 <path style="opacity:0.1;fill:#8b9cbe" d="m 6.000817,4.0008815 c -1.1079762,0 -1.999957,0.8919808 -1.999957,1.999957 V 7.000817 c 0,-1.1079762 0.8919808,-1.999957 1.999957,-1.999957 H 42.000043 C 43.108019,5.00086 44,5.8928408 44,7.000817 V 6.0008385 c 0,-1.1079762 -0.891981,-1.999957 -1.999957,-1.999957 z"/>
 <path style="opacity:0.2;fill:#8b9cbe" d="M 6 4 L 6 5 L 8 5 L 8 4 L 6 4 z M 12 4 L 12 5 L 14 5 L 14 4 L 12 4 z M 18 4 L 18 5 L 20 5 L 20 4 L 18 4 z M 24 4 L 24 5 L 26 5 L 26 4 L 24 4 z M 26 10.957031 L 26 11.957031 L 29.259766 15 L 33 15 L 35 13 L 44 13 L 44 12 L 35 12 L 33 14 L 29.259766 14 L 26 10.957031 z M 20 13.701172 L 20 14.701172 C 20.000102 15.231559 20.210873 15.740219 20.585938 16.115234 L 25.384766 20.414062 C 25.759782 20.789128 26.268441 20.999898 26.798828 21 L 34.560547 21 C 35.256842 22.187503 36.53341 23 38 23 C 40.197251 23 42 21.19725 42 19 C 42 18.828935 41.970407 18.665617 41.949219 18.5 C 41.698253 20.461658 40.026186 22 38 22 C 36.53341 22 35.256842 21.187503 34.560547 20 L 26.798828 20 C 26.268441 19.999898 25.759782 19.789128 25.384766 19.414062 L 20.585938 15.115234 C 20.210873 14.740219 20.000102 14.231559 20 13.701172 z M 14 16 L 14 17 C 14.000229 17.552875 14.229307 18.081025 14.632812 18.458984 L 22 25.367188 L 22 24.367188 L 14.632812 17.458984 C 14.229307 17.081025 14.000229 16.552875 14 16 z M 8 18.347656 L 8 19.347656 C 7.9999194 19.893444 8.2228904 20.415591 8.6171875 20.792969 L 16 27.855469 L 16 26.855469 L 8.6171875 19.792969 C 8.2228904 19.415591 7.9999194 18.893444 8 18.347656 z M 6 22.261719 L 4 24 L 4 25 L 6 23.261719 L 6 22.261719 z M 6.0429688 30.572266 C 6.0273956 30.714673 6 30.853677 6 31 C 6 32.466576 6.8124975 33.743154 8 34.439453 L 8 33.439453 C 6.9698544 32.835421 6.2230921 31.794863 6.0429688 30.572266 z M 13.957031 30.572266 C 13.776901 31.794852 13.030138 32.835426 12 33.439453 L 12 34.439453 C 13.187502 33.743154 14 32.466576 14 31 C 14 30.853677 13.972604 30.714673 13.957031 30.572266 z"/>
</svg>
