<svg xmlns="http://www.w3.org/2000/svg" width="48" height="48" version="1">
 <path style="opacity:0.2" d="M 10,5 C 8.892,5 8,5.892 8,7 v 36 c 0,1.108 0.892,2 2,2 h 28 c 1.108,0 2,-0.892 2,-2 V 17 L 29,16 28,5 Z"/>
 <path style="fill:#1e98d1" d="M 10,4 C 8.892,4 8,4.892 8,6 v 36 c 0,1.108 0.892,2 2,2 h 28 c 1.108,0 2,-0.892 2,-2 V 16 L 29,15 28,4 Z"/>
 <path style="opacity:0.2;fill:#8b9cbe" d="M 10,4 C 8.892,4 8,4.892 8,6 V 7 C 8,5.892 8.892,5 10,5 h 18 l 11,11 h 1 L 28,4 Z"/>
 <path style="opacity:0.2" d="m 28,5 v 10 c 0,1.1046 0.89543,2 2,2 h 10 z"/>
 <path style="fill:#67bbe9" d="m 28,4 v 10 c 0,1.1046 0.89543,2 2,2 h 10 z"/>
 <path style="opacity:0.2" d="M 18.599138,22.000426 A 1.5626729,1.5634188 0 0 0 17,23.563688 v 14.873384 a 1.5626729,1.5634188 0 0 0 2.343775,1.353605 l 12.875503,-7.436692 a 1.5626729,1.5634188 0 0 0 0,-2.707211 L 19.343775,22.210081 a 1.5626729,1.5634188 0 0 0 -0.744637,-0.209655 z"/>
 <path style="fill:#8b9cbe" d="M 18.599138,21.000426 A 1.5626729,1.5634188 0 0 0 17,22.563688 v 14.873384 a 1.5626729,1.5634188 0 0 0 2.343775,1.353605 l 12.875503,-7.436692 a 1.5626729,1.5634188 0 0 0 0,-2.707211 L 19.343775,21.210081 a 1.5626729,1.5634188 0 0 0 -0.744637,-0.209655 z"/>
</svg>
