<svg xmlns="http://www.w3.org/2000/svg" width="48" height="48" version="1">
 <path style="opacity:0.2" d="M 10,5 C 8.892,5 8,5.892 8,7 v 36 c 0,1.108 0.892,2 2,2 h 28 c 1.108,0 2,-0.892 2,-2 V 17 L 29,16 28,5 Z"/>
 <path style="fill:#fe9700" d="M 10,4 C 8.892,4 8,4.892 8,6 v 36 c 0,1.108 0.892,2 2,2 h 28 c 1.108,0 2,-0.892 2,-2 V 16 L 29,15 28,4 Z"/>
 <path style="opacity:0.2" d="m 13,27 v 8 h 0.931641 v -4.851562 c 0,-0.425771 -0.0085,-0.832282 -0.02344,-1.220704 -0.01496,-0.395892 -0.03225,-0.709846 -0.05469,-0.941406 h 0.04492 L 16.535156,35 h 0.830078 l 2.669922,-7.001953 h 0.04492 c -0.01496,0.239028 -0.0342,0.548734 -0.05664,0.929687 -0.01496,0.380952 -0.02148,0.765876 -0.02148,1.154297 V 35 H 21 v -8 h -1.480469 l -2.513672,6.554688 h -0.04492 L 14.492188,27 Z M 25.943359,27 22,32.160156 v 0.833985 h 4.009766 V 35 h 0.947265 v -2.005859 h 0.958985 V 32.115234 H 26.957031 V 27 Z m 5.673829,0 -3.113282,8 h 1.015625 l 0.845703,-2.056641 h 3.363282 L 34.583984,35 h 1.039063 l -3.101563,-8 z m 0.435546,1.037109 c 0.02977,0.08926 0.06671,0.219541 0.111328,0.390625 0.05207,0.163645 0.10418,0.324262 0.15625,0.480469 0.05207,0.156209 0.08901,0.264709 0.111329,0.324219 l 0.996093,2.818359 h -2.726562 l 1.005859,-2.818359 c 0.04463,-0.126453 0.09674,-0.297959 0.15625,-0.513672 0.06695,-0.223153 0.129943,-0.451051 0.189453,-0.681641 z m -6.03125,0.0098 h 0.04492 c -0.01485,0.245125 -0.03006,0.506413 -0.04492,0.78125 -0.0074,0.26741 -0.01172,0.59421 -0.01172,0.980469 v 2.30664 h -3.050782 l 2.583985,-3.199218 c 0.08171,-0.111421 0.166719,-0.248693 0.255859,-0.41211 0.08914,-0.163417 0.163236,-0.315899 0.222656,-0.457031 z"/>
 <path style="opacity:0.2;fill:#8b9cbe" d="M 10,4 C 8.892,4 8,4.892 8,6 V 7 C 8,5.892 8.892,5 10,5 h 18 l 11,11 h 1 L 28,4 Z"/>
 <path style="opacity:0.2" d="m 28,5 v 10 c 0,1.1046 0.89543,2 2,2 h 10 z"/>
 <path style="fill:#ffbd63" d="m 28,4 v 10 c 0,1.1046 0.89543,2 2,2 h 10 z"/>
 <path style="fill:#8b9cbe" d="m 16.534361,34 -2.636745,-7.014006 h -0.04488 q 0.03366,0.34734 0.0561,0.941178 0.02244,0.582632 0.02244,1.221288 V 34 H 13 v -8 h 1.492286 l 2.468442,6.554622 h 0.04489 L 19.51894,26 H 21 v 8 h -0.9986 v -4.918768 q 0,-0.582632 0.02244,-1.15406 0.03366,-0.57143 0.0561,-0.929972 H 20.03506 L 17.364654,34 Z"/>
 <path style="fill:#8b9cbe" d="M 27.916435,31.995111 H 26.957522 V 34 H 26.010446 V 31.995111 H 22 V 31.159456 L 25.943594,26 h 1.013928 v 5.114889 h 0.958913 z M 26.010446,31.114889 V 28.8078 c 0,-0.386259 0.0037,-0.713093 0.01114,-0.980503 0.01486,-0.274837 0.02972,-0.534818 0.04457,-0.779943 h -0.04457 c -0.05942,0.141132 -0.133701,0.293407 -0.222841,0.456824 -0.08914,0.163417 -0.174559,0.300835 -0.256268,0.412256 l -2.584263,3.198455 z"/>
 <path style="fill:#8b9cbe" d="M 34.584893,34 33.728135,31.943327 H 30.365629 L 29.519342,34 H 28.504 l 3.112971,-8 h 0.903766 l 3.101813,8 z M 33.426879,31.050719 32.431476,28.23152 c -0.02232,-0.05951 -0.05951,-0.167361 -0.111576,-0.32357 -0.05207,-0.156207 -0.104135,-0.316132 -0.156206,-0.479777 -0.04462,-0.171084 -0.08181,-0.301256 -0.111576,-0.390516 -0.05951,0.23059 -0.122732,0.457461 -0.18968,0.680614 -0.05951,0.215713 -0.111574,0.386796 -0.156207,0.513249 l -1.005873,2.819199 z"/>
</svg>
