<svg xmlns="http://www.w3.org/2000/svg" width="48" height="48" version="1">
 <path style="opacity:0.2" d="M 10,5 C 8.892,5 8,5.892 8,7 v 36 c 0,1.108 0.892,2 2,2 h 28 c 1.108,0 2,-0.892 2,-2 V 17 L 29,16 28,5 Z"/>
 <path fill="#b2bfd9" d="m10 4c-1.108 0-2 0.892-2 2v36c0 1.108 0.892 2 2 2h28c1.108 0 2-0.892 2-2v-26l-11-1-1-11z"/>
 <path fill="#fff" opacity=".2" d="m10 4c-1.108 0-2 0.892-2 2v1c0-1.108 0.892-2 2-2h18l11 11h1l-12-12z"/>
 <path style="opacity:0.2" d="m 28,5 v 10 c 0,1.1046 0.89543,2 2,2 h 10 z"/>
 <path fill="#fafafa" d="m28 4v10c0 1.1046 0.89543 2 2 2h10l-12-12z"/>
 <path style="opacity:0.1" d="m 24,22 a 10,10 0 0 0 -1.005859,0.05273 c -0.317771,0.03197 -0.631049,0.07945 -0.939453,0.140625 a 10,10 0 0 0 -0.04102,0.0059 c -0.289894,0.05875 -0.573211,0.13541 -0.853516,0.21875 a 10,10 0 0 0 -0.11914,0.03125 c -0.316146,0.09827 -0.625771,0.209877 -0.927735,0.33789 a 10,10 0 0 0 -0.875,0.421875 10,10 0 0 0 -1.59375,1.078125 10,10 0 0 0 -0.710937,0.646485 10,10 0 0 0 -0.617188,0.677734 c -0.01153,0.01384 -0.0237,0.02711 -0.03516,0.04102 a 10,10 0 0 0 -0.451172,0.603515 c -0.05071,0.07188 -0.103496,0.141597 -0.152344,0.214844 a 10,10 0 0 0 -0.310546,0.507813 c -0.06933,0.118654 -0.140559,0.235741 -0.205079,0.357422 a 10,10 0 0 0 -0.228515,0.470703 c -0.06692,0.143955 -0.133192,0.288003 -0.19336,0.435547 a 10,10 0 0 0 -0.167968,0.457031 c -0.05687,0.161702 -0.113462,0.322932 -0.16211,0.488281 a 10,10 0 0 0 -0.113281,0.4375 c -0.04271,0.17411 -0.08572,0.347874 -0.119141,0.525391 a 10,10 0 0 0 -0.07617,0.505859 c -0.02127,0.15698 -0.04278,0.313484 -0.05664,0.472656 A 10,10 0 0 0 14,32 a 10,10 0 0 0 0.05273,1.005859 c 0.171933,1.708955 0.777435,3.291501 1.703125,4.638672 0.0085,0.01237 0.01684,0.02478 0.02539,0.03711 a 10,10 0 0 0 0.220703,0.304687 c 5.31e-4,-0.0032 0.0014,-0.0066 0.002,-0.0098 C 17.830046,40.412482 20.730571,42 24,42 c 1.877967,0 3.631344,-0.530194 5.134766,-1.435547 l 0.002,0.002 a 10,10 0 0 0 0.06055,-0.04102 c 0.238519,-0.146037 0.470451,-0.29994 0.695312,-0.464844 a 10,10 0 0 0 0.154297,-0.115235 c 0.197444,-0.150693 0.38866,-0.308016 0.574219,-0.472656 a 10,10 0 0 0 0.222656,-0.205078 c 0.154589,-0.14567 0.304118,-0.296043 0.449219,-0.451172 a 10,10 0 0 0 0.253906,-0.279297 c 0.136318,-0.157118 0.266102,-0.31894 0.392578,-0.484375 a 10,10 0 0 0 0.203125,-0.271484 c 0.132874,-0.186513 0.256851,-0.378558 0.376953,-0.574219 a 10,10 0 0 0 0.146485,-0.240234 c 0.118943,-0.206581 0.227765,-0.419292 0.332031,-0.634766 a 10,10 0 0 0 0.119141,-0.248047 c 0.09347,-0.207595 0.176455,-0.419996 0.255859,-0.634765 a 10,10 0 0 0 0.111328,-0.306641 c 0.06891,-0.207128 0.128153,-0.418022 0.183594,-0.630859 A 10,10 0 0 0 33.75,34.189453 c 0.04524,-0.201201 0.08042,-0.405796 0.113281,-0.611328 a 10,10 0 0 0 0.06055,-0.40625 c 0.02073,-0.176121 0.03156,-0.354445 0.04297,-0.533203 A 10,10 0 0 0 34,32 c 0,-0.337165 -0.01797,-0.669327 -0.05078,-0.998047 a 10,10 0 0 0 -0.002,-0.0078 c -0.03197,-0.317771 -0.07945,-0.631049 -0.140625,-0.939453 -0.0027,-0.01345 -0.0031,-0.02758 -0.0059,-0.04102 -0.05875,-0.289894 -0.13541,-0.573211 -0.21875,-0.853516 -0.01125,-0.03784 -0.01761,-0.07758 -0.0293,-0.115234 a 10,10 0 0 0 -0.0039,-0.01367 c -0.09759,-0.312867 -0.209199,-0.619012 -0.335937,-0.917969 a 10,10 0 0 0 -0.421875,-0.875 10,10 0 0 0 -1.078125,-1.59375 10,10 0 0 0 -0.646485,-0.710937 10,10 0 0 0 -0.677734,-0.617188 10,10 0 0 0 -0.0332,-0.0293 c -0.0025,-0.0021 -0.0053,-0.0038 -0.0078,-0.0059 a 10,10 0 0 0 -0.603515,-0.451172 c -0.07188,-0.05071 -0.141597,-0.103496 -0.214844,-0.152344 a 10,10 0 0 0 -0.507813,-0.310546 c -0.118654,-0.06933 -0.235741,-0.140559 -0.357422,-0.205079 a 10,10 0 0 0 -0.470703,-0.228515 c -0.143955,-0.06692 -0.288003,-0.133192 -0.435547,-0.19336 A 10,10 0 0 0 27.300781,22.572266 C 27.139079,22.5154 26.977849,22.458804 26.8125,22.410156 A 10,10 0 0 0 26.375,22.296875 c -0.17411,-0.04271 -0.347874,-0.08572 -0.525391,-0.119141 a 10,10 0 0 0 -0.505859,-0.07617 c -0.15698,-0.02127 -0.313484,-0.04278 -0.472656,-0.05664 A 10,10 0 0 0 24,22 Z m -1.519531,1.443359 1.279297,3.171875 L 26,24.652344 v 5.484375 L 31.5,34.5 l -1.646484,1.523438 -4.576172,-0.04688 2.5625,3.046876 C 26.700879,39.645568 25.393544,40 24,40 c -3.333502,0 -6.177876,-2.02205 -7.382812,-4.910156 0.630681,-2.436666 1.572664,-4.789207 2.921874,-6.101563 0.57558,-2.118187 1.698766,-3.871442 2.941407,-5.544922 z M 24,31 24.072266,31.851562 26,32 c -0.248024,-0.599537 -0.85885,-0.875701 -2,-1 z"/>
 <path style="fill:#d6342a" d="M 24 21 A 10 10 0 0 0 22.994141 21.052734 C 22.67637 21.084704 22.363092 21.132186 22.054688 21.193359 A 10 10 0 0 0 22.013672 21.199219 C 21.723778 21.257971 21.440461 21.334629 21.160156 21.417969 A 10 10 0 0 0 21.041016 21.449219 C 20.72487 21.547488 20.415245 21.659096 20.113281 21.787109 A 10 10 0 0 0 19.238281 22.208984 A 10 10 0 0 0 17.644531 23.287109 A 10 10 0 0 0 16.933594 23.933594 A 10 10 0 0 0 16.316406 24.611328 C 16.304873 24.625171 16.292709 24.638439 16.28125 24.652344 A 10 10 0 0 0 15.830078 25.255859 C 15.779368 25.327736 15.726582 25.397456 15.677734 25.470703 A 10 10 0 0 0 15.367188 25.978516 C 15.297855 26.09717 15.226629 26.214257 15.162109 26.335938 A 10 10 0 0 0 14.933594 26.806641 C 14.86667 26.950596 14.800402 27.094644 14.740234 27.242188 A 10 10 0 0 0 14.572266 27.699219 C 14.5154 27.860921 14.458804 28.022151 14.410156 28.1875 A 10 10 0 0 0 14.296875 28.625 C 14.254165 28.79911 14.211157 28.972874 14.177734 29.150391 A 10 10 0 0 0 14.101562 29.65625 C 14.08029 29.81323 14.058783 29.969734 14.044922 30.128906 A 10 10 0 0 0 14 31 A 10 10 0 0 0 14.052734 32.005859 C 14.224667 33.714814 14.830169 35.29736 15.755859 36.644531 C 15.764358 36.656899 15.772698 36.669313 15.78125 36.681641 A 10 10 0 0 0 16.001953 36.986328 C 16.002484 36.983122 16.003374 36.97977 16.003906 36.976562 C 17.830046 39.412482 20.730571 41 24 41 C 25.877967 41 27.631344 40.469806 29.134766 39.564453 L 29.136719 39.566406 A 10 10 0 0 0 29.197266 39.525391 C 29.435785 39.379354 29.667717 39.225451 29.892578 39.060547 A 10 10 0 0 0 30.046875 38.945312 C 30.244319 38.794619 30.435535 38.637296 30.621094 38.472656 A 10 10 0 0 0 30.84375 38.267578 C 30.998339 38.121908 31.147868 37.971535 31.292969 37.816406 A 10 10 0 0 0 31.546875 37.537109 C 31.683193 37.379991 31.812977 37.218169 31.939453 37.052734 A 10 10 0 0 0 32.142578 36.78125 C 32.275452 36.594737 32.399429 36.402692 32.519531 36.207031 A 10 10 0 0 0 32.666016 35.966797 C 32.784959 35.760216 32.893781 35.547505 32.998047 35.332031 A 10 10 0 0 0 33.117188 35.083984 C 33.210655 34.876389 33.293643 34.663988 33.373047 34.449219 A 10 10 0 0 0 33.484375 34.142578 C 33.553283 33.93545 33.612528 33.724556 33.667969 33.511719 A 10 10 0 0 0 33.75 33.189453 C 33.795242 32.988252 33.83042 32.783657 33.863281 32.578125 A 10 10 0 0 0 33.923828 32.171875 C 33.944561 31.995754 33.955391 31.81743 33.966797 31.638672 A 10 10 0 0 0 34 31 C 34 30.662835 33.98203 30.330673 33.949219 30.001953 A 10 10 0 0 0 33.947266 29.994141 C 33.915296 29.67637 33.867814 29.363092 33.806641 29.054688 C 33.803972 29.041235 33.803504 29.027105 33.800781 29.013672 C 33.742029 28.723778 33.665371 28.440461 33.582031 28.160156 C 33.570782 28.12232 33.564419 28.082571 33.552734 28.044922 A 10 10 0 0 0 33.548828 28.03125 C 33.451235 27.718383 33.339629 27.412238 33.212891 27.113281 A 10 10 0 0 0 32.791016 26.238281 A 10 10 0 0 0 31.712891 24.644531 A 10 10 0 0 0 31.066406 23.933594 A 10 10 0 0 0 30.388672 23.316406 A 10 10 0 0 0 30.355469 23.287109 C 30.352959 23.285037 30.350168 23.28332 30.347656 23.28125 A 10 10 0 0 0 29.744141 22.830078 C 29.672264 22.779368 29.602544 22.726582 29.529297 22.677734 A 10 10 0 0 0 29.021484 22.367188 C 28.90283 22.297855 28.785743 22.226629 28.664062 22.162109 A 10 10 0 0 0 28.193359 21.933594 C 28.049404 21.86667 27.905356 21.800402 27.757812 21.740234 A 10 10 0 0 0 27.300781 21.572266 C 27.139079 21.5154 26.977849 21.458804 26.8125 21.410156 A 10 10 0 0 0 26.375 21.296875 C 26.20089 21.254165 26.027126 21.211157 25.849609 21.177734 A 10 10 0 0 0 25.34375 21.101562 C 25.18677 21.08029 25.030266 21.058783 24.871094 21.044922 A 10 10 0 0 0 24 21 z M 22.480469 22.443359 L 23.759766 25.615234 L 26 23.652344 L 26 29.136719 L 31.5 33.5 L 29.853516 35.023438 L 25.277344 34.976562 L 27.839844 38.023438 C 26.700879 38.645568 25.393544 39 24 39 C 20.666498 39 17.822124 36.97795 16.617188 34.089844 C 17.247869 31.653178 18.189852 29.300637 19.539062 27.988281 C 20.114642 25.870094 21.237828 24.116839 22.480469 22.443359 z M 24 30 L 24.072266 30.851562 L 26 31 C 25.751976 30.400463 25.14115 30.124299 24 30 z"/>
</svg>
