<svg xmlns="http://www.w3.org/2000/svg" width="48" height="48" version="1.1">
 <path style="opacity:0.2" d="M 10,5 C 8.892,5 8,5.892 8,7 V 43 C 8,44.108 8.892,45 10,45 H 38 C 39.108,45 40,44.108 40,43 V 17 L 28,5 Z"/>
 <path style="fill:#efefef" d="M 10,4 C 8.892,4 8,4.892 8,6 V 42 C 8,43.108 8.892,44 10,44 H 38 C 39.108,44 40,43.108 40,42 V 16 L 30,14 28,4 Z"/>
 <path style="opacity:0.1" d="m 23,20 v 4 h 2 v -4 z m -5,0 v 4 h 2 v -4 z m 10,0 v 4 h 2 v -4 z m -15,5 v 2 h 4 v -2 z m 8,0 c -1.662,0 -3,1.338 -3,3 v 6 c 0,1.662 1.338,3 3,3 h 6 c 1.662,0 3,-1.338 3,-3 v -6 c 0,-1.662 -1.338,-3 -3,-3 z m 10,0 v 2 h 4 v -2 z m -18,5 v 2 h 4 v -2 z m 18,0 v 2 h 4 v -2 z m -18,5 v 2 h 4 v -2 z m 18,0 v 2 h 4 v -2 z m -13,3 v 4 h 2 v -4 z m 5,0 v 4 h 2 v -4 z m 5,0 v 4 h 2 v -4 z"/>
 <path style="opacity:0.2" d="M 40,17 28,5 V 15 C 28,16.108 28.892,17 30,17 Z"/>
 <path style="fill:#fafafa" d="M 40,16 28,4 V 14 C 28,15.108 28.892,16 30,16 Z"/>
 <path style="opacity:0.2;fill:#8b9cbe" d="M 10 4 C 8.892 4 8 4.892 8 6 L 8 7 C 8 5.892 8.892 5 10 5 L 28 5 L 28 4 L 10 4 z"/>
 <path style="fill:#4f4f4f" d="m 23,19 v 4 h 2 v -4 z m -5,0 v 4 h 2 v -4 z m 10,0 v 4 h 2 v -4 z m -15,5 v 2 h 4 v -2 z m 8,0 c -1.662,0 -3,1.338 -3,3 v 6 c 0,1.662 1.338,3 3,3 h 6 c 1.662,0 3,-1.338 3,-3 v -6 c 0,-1.662 -1.338,-3 -3,-3 z m 10,0 v 2 h 4 v -2 z m -18,5 v 2 h 4 v -2 z m 18,0 v 2 h 4 v -2 z m -18,5 v 2 h 4 v -2 z m 18,0 v 2 h 4 v -2 z m -13,3 v 4 h 2 v -4 z m 5,0 v 4 h 2 v -4 z m 5,0 v 4 h 2 v -4 z"/>
</svg>
