<svg xmlns="http://www.w3.org/2000/svg" width="48" height="48" version="1">
 <path style="opacity:0.2" d="M 10,5 C 8.892,5 8,5.892 8,7 v 36 c 0,1.108 0.892,2 2,2 h 28 c 1.108,0 2,-0.892 2,-2 V 17 L 29,16 28,5 Z"/>
 <path style="fill:#6966b2" d="m10 4c-1.108 0-2 0.892-2 2v36c0 1.108 0.892 2 2 2h28c1.108 0 2-0.892 2-2v-26l-11-1-1-11z"/>
 <path fill="#fff" style="opacity:0.1" d="m10 4c-1.108 0-2 0.892-2 2v1c0-1.108 0.892-2 2-2h18l11 11h1l-12-12z"/>
 <path style="opacity:0.2" d="m 28,5 v 10 c 0,1.1046 0.89543,2 2,2 h 10 z"/>
 <path style="fill:#9592ca" d="m28 4v10c0 1.1046 0.89543 2 2 2h10l-12-12z"/>
 <path style="opacity:0.2" d="m 18.053513,40.102854 c 0,0 1.167964,0.346173 2.722684,0.544081 0.629627,0.08015 2.525472,0.360273 4.362194,0.352923 0,0 2.236982,0.0029 3.471843,-0.176465 1.29203,-0.187344 2.024046,-0.426438 2.431374,-0.903575 0.01064,-0.113772 0.196625,-0.484624 -0.305598,-0.842218 -1.283983,-0.914289 -2.44409,-1.164576 -5.668289,-1.946151 -3.565331,-0.915004 -4.630781,-1.79115 -5.163085,-2.425295 -0.504651,-0.63551 0.09472,-1.654796 2.967598,-2.302299 1.454584,-0.361323 6.872031,-0.427709 6.872031,-0.427709 -2.110663,-1.839294 -4.996119,-4.117745 -6.924758,-5.637261 -0.122233,-0.561496 0.743632,-0.831861 1.202042,-0.863004 1.477047,-0.103979 3.893482,-0.227612 5.686329,0.136314 0.901147,0.182937 1.059432,0.155972 1.059432,0.155972 1.283493,0.06243 2.281766,-0.623881 2.230824,-2.069223 -0.01022,-1.466148 -1.446258,-2.641725 -3.035545,-2.693082 -1.496709,-0.04836 -5.184917,0.218358 -5.184917,0.218358 4.298675,0.904647 5.001441,1.135505 5.225643,1.663721 C 29,25 21.33226,21.525133 19.233954,23.61467 c -0.499115,0.665732 0.07131,1.476506 0.295409,1.954794 0.998273,1.778079 3.124029,2.697539 4.219428,3.557257 0.412178,0.323479 1.670599,1.03979 1.670599,1.03979 -3.911639,-1.091791 -7.028356,-0.47831 -9.005168,0.582295 -2.271551,1.372577 -1.883046,3.688729 1.721541,5.854095 2.128939,1.278934 3.189001,1.893365 6.67477,2.330224 2.037481,0.33163 2.341106,0.467316 2.325641,0.640438 -0.02184,0.24373 -2.411572,0.33608 -3.068434,0.38233 -1.671088,0.117636 -5.992855,0.147058 -6.014478,0.147058 z"/>
 <path style="fill:#8b9cbe" d="m 18.053513,39.102854 c 0,0 1.167964,0.346173 2.722684,0.544081 0.629627,0.08015 2.525472,0.360273 4.362194,0.352923 0,0 2.236982,0.0029 3.471843,-0.176465 1.29203,-0.187344 2.024046,-0.426438 2.431374,-0.903575 0.01064,-0.113772 0.196625,-0.484624 -0.305598,-0.842218 -1.283983,-0.914289 -2.44409,-1.164576 -5.668289,-1.946151 -3.565331,-0.915004 -4.630781,-1.79115 -5.163085,-2.425295 -0.504651,-0.63551 0.09472,-1.654796 2.967598,-2.302299 1.454584,-0.361323 6.872031,-0.427709 6.872031,-0.427709 -2.110663,-1.839294 -4.996119,-4.117745 -6.924758,-5.637261 -0.122233,-0.561496 0.743632,-0.831861 1.202042,-0.863004 1.477047,-0.103979 3.893482,-0.227612 5.686329,0.136314 0.901147,0.182937 1.059432,0.155972 1.059432,0.155972 1.283493,0.06243 2.281766,-0.623881 2.230824,-2.069223 -0.01022,-1.466148 -1.446258,-2.641725 -3.035545,-2.693082 -1.496709,-0.04836 -5.184917,0.218358 -5.184917,0.218358 4.298675,0.904647 5.001441,1.135505 5.225643,1.663721 C 29,24 21.33226,20.525133 19.233954,22.61467 c -0.499115,0.665732 0.07131,1.476506 0.295409,1.954794 0.998273,1.778079 3.124029,2.697539 4.219428,3.557257 0.412178,0.323479 1.670599,1.03979 1.670599,1.03979 -3.911639,-1.091791 -7.028356,-0.47831 -9.005168,0.582295 -2.271551,1.372577 -1.883046,3.688729 1.721541,5.854095 2.128939,1.278934 3.189001,1.893365 6.67477,2.330224 2.037481,0.33163 2.341106,0.467316 2.325641,0.640438 -0.02184,0.24373 -2.411572,0.33608 -3.068434,0.38233 -1.671088,0.117636 -5.992855,0.147058 -6.014478,0.147058 z"/>
</svg>
