<svg xmlns="http://www.w3.org/2000/svg" width="48" height="48" version="1">
 <rect style="opacity:0.2" width="40" height="40" x="-45" y="-44" rx="20" ry="20" transform="matrix(0,-1,-1,0,0,0)"/>
 <rect style="fill:#b2bfd9" width="40" height="40" x="-44" y="-44" rx="20" ry="20" transform="matrix(0,-1,-1,0,0,0)"/>
 <circle style="fill:#3f3f3f" cx="24" cy="24" r="12"/>
 <circle style="opacity:0.2" cx="24" cy="-25" r="9" transform="scale(1,-1)"/>
 <circle style="fill:#696969" cx="24" cy="-24" r="9" transform="scale(1,-1)"/>
 <path style="opacity:0.1;fill:#f4f4f7" d="M 24,4 C 12.92,4 4,12.92 4,24 4,24.168 4.0076,24.333 4.0117,24.5 4.2764,13.654 13.088,5 23.9997,5 c 10.9117,0 19.724,8.654 19.988,19.5 0.004,-0.167 0.012,-0.332 0.012,-0.5 0,-11.08 -8.92,-20 -20,-20 z"/>
 <circle style="opacity:0.2" cx="24" cy="25" r="6"/>
 <circle style="fill:#a5a5a5" cx="24" cy="24" r="6"/>
 <circle style="fill:#db3c30" cx="37" cy="36" r="10"/>
 <path style="opacity:0.2" d="M 46.979,36.414 A 10,10 0 0 1 37,46 10,10 0 0 1 27.021,36.586 10,10 0 0 0 27,37 10,10 0 0 0 37,47 10,10 0 0 0 47,37 10,10 0 0 0 46.979,36.414 Z"/>
 <rect style="fill:#f4f4f7" width="12" height="2" x="-5.48" y="50.8" transform="matrix(0.70710678,-0.70710678,0.70710678,0.70710678,0,0)"/>
 <rect style="fill:#f4f4f7" width="12" height="2" x="-57.8" y="-.48" transform="matrix(-0.70710678,-0.70710678,0.70710678,-0.70710678,0,0)"/>
</svg>
