<svg xmlns="http://www.w3.org/2000/svg" width="48" height="48" version="1">
 <rect style="opacity:0.2" width="17" height="40" x="-33" y="-44" rx="2" ry="2" transform="matrix(0,-1,-1,0,0,0)"/>
 <path style="opacity:0.2" d="m 8,28 0,15 c 0,1.108 0.892,2 2,2 l 28,0 c 1.108,0 2,-0.892 2,-2 L 40,28 8,28 Z"/>
 <path style="fill:#b2bfd9" d="M 10 4 C 8.892 4 8 4.892 8 6 L 8 18 L 40 18 L 40 6 C 40 4.892 39.108 4 38 4 L 10 4 z"/>
 <rect fill="#4f4f4f" width="17" height="40" x="-32" y="-44" rx="2" ry="2" transform="matrix(0,-1,-1,0,0,0)"/>
 <path fill="#fff" opacity=".1" d="m6 15.004c-1.108 0-2 0.892-2 2v1c0-1.108 0.892-2 2-2h36c1.108 0 2 0.892 2 2v-1c0-1.108-0.892-2-2-2h-36z"/>
 <rect style="opacity:0.2" width="36" height="4" x="6" y="25"/>
 <rect style="opacity:0.2" width="4" height="4" x="6" y="18" rx="1.5" ry="1.5"/>
 <rect style="fill:#db3c30" width="4" height="4" x="6" y="17" rx="1.5" ry="1.5"/>
 <path style="fill:#b2bfd9" d="M 8 27 L 8 42 C 8 43.108 8.892 44 10 44 L 38 44 C 39.108 44 40 43.108 40 42 L 40 27 L 8 27 z"/>
 <path style="fill:#f4f4f7;opacity:0.2" d="M 10 4 C 8.892 4 8 4.892 8 6 L 8 7 C 8 5.892 8.892 5 10 5 L 38 5 C 39.108 5 40 5.892 40 7 L 40 6 C 40 4.892 39.108 4 38 4 L 10 4 z"/>
 <rect style="opacity:0.5" width="21" height="2" x="12" y="38"/>
 <rect style="opacity:0.5" width="17" height="2" x="12" y="34"/>
 <rect style="opacity:0.5" width="24" height="2" x="12" y="30"/>
 <path style="fill:#f4f4f7;opacity:0.2" d="M 7.5 17 C 6.669 17 6 17.669 6 18.5 L 6 19.5 C 6 18.669 6.669 18 7.5 18 L 8.5 18 C 9.331 18 10 18.669 10 19.5 L 10 18.5 C 10 17.669 9.331 17 8.5 17 L 7.5 17 z"/>
 <circle style="fill:#db3c30" cx="36" cy="36" r="10"/>
 <path style="opacity:0.2" d="M 45.979,36.414 A 10,10 0 0 1 36,46 10,10 0 0 1 26.021,36.586 10,10 0 0 0 26,37 10,10 0 0 0 36,47 10,10 0 0 0 46,37 10,10 0 0 0 45.979,36.414 Z"/>
 <g style="fill:#f4f4f7" transform="matrix(0.70711,-0.70711,0.70711,0.70711,-13.497,34.846)">
  <rect width="12" height="2" x="28" y="35"/>
  <rect width="12" height="2" x="-42" y="33" transform="matrix(0,-1,1,0,0,0)"/>
 </g>
</svg>
