<svg xmlns="http://www.w3.org/2000/svg" width="48" height="48" version="1.1">
 <g transform="translate(0,-284.3)">
  <rect style="opacity:0.2" width="37" height="36" x="-329.3" y="-42" rx="3" ry="3" transform="matrix(0,-1,-1,0,0,0)"/>
  <rect style="fill:#e5a057" width="37" height="36" x="-328.3" y="-42" rx="3" ry="3" transform="matrix(0,-1,-1,0,0,0)"/>
  <path style="opacity:0.2;fill:#f4f4f7" d="m 9,291.3 c -1.662,0 -3,1.338 -3,3 v 1 c 0,-1.662 1.338,-3 3,-3 h 30 c 1.662,0 3,1.338 3,3 v -1 c 0,-1.662 -1.338,-3 -3,-3 z"/>
  <rect style="fill:#f4f4f7" width="28" height="29" x="10" y="295.3"/>
  <path style="fill:#cccccc" d="m 24,286.3 c -2.216,0 -4,1.784 -4,4 v 2 h -2 c -1.108,0 -2,0.892 -2,2 v 1 3 h 8 8 v -3 -1 c 0,-1.108 -0.892,-2 -2,-2 h -2 v -2 c 0,-2.216 -1.784,-4 -4,-4 z"/>
  <circle style="opacity:0.2" cx="24" cy="291.3" r="2"/>
  <circle style="fill:#f4f4f7" cx="24" cy="290.3" r="2"/>
  <path style="opacity:0.2;fill:#f4f4f7" d="m 24,286.3 c -2.216,0 -4,1.784 -4,4 v 1 c 0,-2.216 1.784,-4 4,-4 2.216,0 4,1.784 4,4 v -1 c 0,-2.216 -1.784,-4 -4,-4 z m -6,6 c -1.108,0 -2,0.892 -2,2 v 1 c 0,-1.108 0.892,-2 2,-2 h 2 v -1 z m 10,0 v 1 h 2 c 1.108,0 2,0.892 2,2 v -1 c 0,-1.108 -0.892,-2 -2,-2 z"/>
  <path style="fill:#b3b3b3" d="m 16,296.3 v 2 h 8 8 v -2 z"/>
  <path style="fill:#f44336" d="m 26.0003,301.3 v 12 h -4 v -12 z m 0,14 v 4 h -4 v -4 z"/>
  <rect style="opacity:0.2" width="28" height="1" x="10" y="324.3"/>
 </g>
</svg>
