<svg xmlns="http://www.w3.org/2000/svg" width="16" height="16" version="1.1">
 <defs>
  <style id="current-color-scheme" type="text/css">
   .ColorScheme-Text { color:#323a41; } .ColorScheme-Highlight { color:#4285f4; } .ColorScheme-NeutralText { color:#ff9800; } .ColorScheme-PositiveText { color:#4caf50; } .ColorScheme-NegativeText { color:#f44336; }
  </style>
 </defs>
 <path style="fill:currentColor" class="ColorScheme-Text" d="M 0.80078 0 C 0.35758 0 0 0.35758 0 0.80078 L 0 14.199 C 0 14.642 0.35758 15 0.80078 15 L 3 15 L 3 14.5 C 3 14 3.5 14 3.5 14 C 3.5 14 4 14 4 14.5 L 4 15 L 14.199 15 C 14.642 15 15 14.642 15 14.199 L 15 0.80078 C 15 0.35758 14.642 0 14.199 0 L 4 0 L 4 0.5 C 4 1 3.5 1 3.5 1 C 3.5 1 3 1 3 0.5 L 3 0 L 0.80078 0 z M 5 1 L 6 1 L 6 2 L 5 2 L 5 1 z M 7 1 L 8 1 L 8 2 L 7 2 L 7 1 z M 9 1 L 10 1 L 10 2 L 9 2 L 9 1 z M 11 1 L 12 1 L 12 2 L 11 2 L 11 1 z M 13 1 L 14 1 L 14 2 L 13 2 L 13 1 z M 1 3 L 2 3 L 2 4 L 1 4 L 1 3 z M 3 3 L 4 3 L 4 4 L 3 4 L 3 3 z M 5 3 L 6 3 L 6 4 L 5 4 L 5 3 z M 7 3 L 8 3 L 8 4 L 7 4 L 7 3 z M 9 3 L 10 3 L 10 4 L 9 4 L 9 3 z M 11 3 L 12 3 L 12 4 L 11 4 L 11 3 z M 13 3 L 14 3 L 14 4 L 13 4 L 13 3 z M 1 5 L 2 5 L 2 6 L 1 6 L 1 5 z M 3 5 L 4 5 L 4 6 L 3 6 L 3 5 z M 11 5 L 12 5 L 12 6 L 11 6 L 11 5 z M 13 5 L 14 5 L 14 6 L 13 6 L 13 5 z M 1 7 L 2 7 L 2 8 L 1 8 L 1 7 z M 3 7 L 4 7 L 4 8 L 3 8 L 3 7 z M 11 7 L 12 7 L 12 8 L 11 8 L 11 7 z M 13 7 L 14 7 L 14 8 L 13 8 L 13 7 z M 1 9 L 2 9 L 2 10 L 1 10 L 1 9 z M 3 9 L 4 9 L 4 10 L 3 10 L 3 9 z M 11 9 L 12 9 L 12 10 L 11 10 L 11 9 z M 13 9 L 14 9 L 14 10 L 13 10 L 13 9 z M 1 11 L 2 11 L 2 12 L 1 12 L 1 11 z M 3 11 L 4 11 L 4 12 L 3 12 L 3 11 z M 5 11 L 6 11 L 6 12 L 5 12 L 5 11 z M 7 11 L 8 11 L 8 12 L 7 12 L 7 11 z M 9 11 L 10 11 L 10 12 L 9 12 L 9 11 z M 11 11 L 12 11 L 12 12 L 11 12 L 11 11 z M 13 11 L 14 11 L 14 12 L 13 12 L 13 11 z M 1 13 L 2 13 L 2 14 L 1 14 L 1 13 z M 5 13 L 6 13 L 6 14 L 5 14 L 5 13 z M 7 13 L 8 13 L 8 14 L 7 14 L 7 13 z M 9 13 L 10 13 L 10 14 L 9 14 L 9 13 z M 11 13 L 12 13 L 12 14 L 11 14 L 11 13 z M 13 13 L 14 13 L 14 14 L 13 14 L 13 13 z"/>
</svg>
