<svg xmlns="http://www.w3.org/2000/svg" width="16" height="16" version="1.1">
 <defs>
  <style id="current-color-scheme" type="text/css">
   .ColorScheme-Text { color:#323a41; } .ColorScheme-Highlight { color:#4285f4; } .ColorScheme-NeutralText { color:#ff9800; } .ColorScheme-PositiveText { color:#4caf50; } .ColorScheme-NegativeText { color:#f44336; }
  </style>
 </defs>
 <path style="fill:currentColor" class="ColorScheme-Text" d="M 4,-5e-8 V 2.9999999 h 8 V -5e-8 Z M 2,3.9999999 c -0.5,0 -1,0.5 -1,1 V 8 H 15 V 4.9999999 c 0,-0.5 -0.5,-1 -1,-1 z M 1,9 v 3 c 0,0 0,1 1,1 h 5 v 2 h 2 v -2 h 5 c 1,0 1,-1 1,-1 V 9.0000001 Z m 2,1 h 1 v 1 H 3 Z"/>
</svg>
