<svg xmlns="http://www.w3.org/2000/svg" width="16" height="16">
 <defs>
  <style id="current-color-scheme" type="text/css">
   .ColorScheme-Text { color:#323a41; } .ColorScheme-Highlight { color:#4285f4; } .ColorScheme-NeutralText { color:#ff9800; } .ColorScheme-PositiveText { color:#4caf50; } .ColorScheme-NegativeText { color:#f44336; }
  </style>
 </defs>
 <path style="fill:currentColor" class="ColorScheme-Text" d="M 1 1 C 0 1 0 2 0 2 L 0 13 C 0 13 0 14 1 14 L 15 14 C 15 14 16 14 16 13 L 16 2 C 16 1 15 1 15 1 L 1 1 z M 2 3 L 14 3 L 14 9 L 2 9 L 2 3 z M 2 10 L 7 10 L 7 12 L 2 12 L 2 10 z M 9 10 L 14 10 L 14 12 L 9 12 L 9 10 z"/>
</svg>
