<svg xmlns="http://www.w3.org/2000/svg" width="48" height="48" version="1.1">
 <path style="opacity:0.2" d="M 10,5 C 8.892,5 8,5.892 8,7 V 43 C 8,44.108 8.892,45 10,45 H 38 C 39.108,45 40,44.108 40,43 V 17 L 28,5 Z"/>
 <path style="fill:#83bc3d" d="M 10,4 C 8.892,4 8,4.892 8,6 V 42 C 8,43.108 8.892,44 10,44 H 38 C 39.108,44 40,43.108 40,42 V 16 L 30,14 28,4 Z"/>
 <path style="opacity:0.2" d="M 40,17 28,5 V 15 C 28,16.108 28.892,17 30,17 Z"/>
 <path style="fill:#b2d885" d="M 40,16 28,4 V 14 C 28,15.108 28.892,16 30,16 Z"/>
 <path style="opacity:0.2;fill:#f4f4f7" d="M 10 4 C 8.892 4 8 4.892 8 6 L 8 7 C 8 5.892 8.892 5 10 5 L 28 5 L 28 4 L 10 4 z"/>
 <path style="opacity:0.2" d="m 14.9375,22.988281 a 1.0001,1.0001 0 0 0 -0.794922,1.525391 l 2.027344,3.378906 c -2.30473,1.965973 -3.863009,4.774494 -4.167969,7.953125 C 11.946834,37.000662 13.166016,37 13.166016,37 h 21.638672 c 0,0 1.254153,-2.52e-4 1.193359,-1.212891 -0.318231,-3.156451 -1.873062,-5.944478 -4.166016,-7.898437 l 2.025391,-3.375 a 1.0001,1.0001 0 0 0 -0.824219,-1.525391 1.0001,1.0001 0 0 0 -0.890625,0.498047 l -1.9375,3.230469 C 28.391977,25.631192 26.27184,25 24.001953,25 c -2.271513,0 -4.39142,0.631553 -6.205078,1.71875 l -1.939453,-3.232422 a 1.0001,1.0001 0 0 0 -0.820313,-0.498047 1.0001,1.0001 0 0 0 -0.09961,0 z M 18.5,31 A 1.5,1.5 0 0 1 20,32.5 1.5,1.5 0 0 1 18.5,34 1.5,1.5 0 0 1 17,32.5 1.5,1.5 0 0 1 18.5,31 Z m 11,0 A 1.5,1.5 0 0 1 31,32.5 1.5,1.5 0 0 1 29.5,34 1.5,1.5 0 0 1 28,32.5 1.5,1.5 0 0 1 29.5,31 Z"/>
 <path style="fill:none;stroke:#f4f4f7;stroke-width:2;stroke-linecap:round" d="M 17.4,27 15,23"/>
 <path style="fill:none;stroke:#f4f4f7;stroke-width:2;stroke-linecap:round" d="M 30.6,27 33,23"/>
 <path style="fill:#f4f4f7" d="M 24.001953 24 C 17.735039 24 12.585806 28.760143 12.001953 34.845703 C 11.946834 36.000662 13.166016 36 13.166016 36 L 34.804688 36 C 34.804688 36 36.058841 35.999748 35.998047 34.787109 C 35.387292 28.729181 30.249053 24 24.001953 24 z M 18.5 30 A 1.5 1.5 0 0 1 20 31.5 A 1.5 1.5 0 0 1 18.5 33 A 1.5 1.5 0 0 1 17 31.5 A 1.5 1.5 0 0 1 18.5 30 z M 29.5 30 A 1.5 1.5 0 0 1 31 31.5 A 1.5 1.5 0 0 1 29.5 33 A 1.5 1.5 0 0 1 28 31.5 A 1.5 1.5 0 0 1 29.5 30 z"/>
</svg>
