<svg xmlns="http://www.w3.org/2000/svg" width="48" height="48" version="1">
 <path style="opacity:0.2" d="M 10,5 C 8.892,5 8,5.892 8,7 v 36 c 0,1.108 0.892,2 2,2 h 28 c 1.108,0 2,-0.892 2,-2 V 17 L 29,16 28,5 Z"/>
 <path style="fill:#c63166" d="M 20.916016,4 C 19.276453,5.5372913 12.319984,12.592812 8,17.017578 v 0.865234 c 0.6915686,-0.625087 1.698924,-1.524332 2.048828,-1.816406 0.205833,-0.171815 1.005645,-0.875242 1.777344,-1.5625 0.771699,-0.687257 1.769269,-1.566086 2.216797,-1.953125 0.447528,-0.387038 1.37567,-1.231145 2.0625,-1.875 1.324741,-1.2418518 5.416554,-4.8706879 5.871093,-5.207031 0.14849,-0.1098764 0.286541,-0.1841785 0.306641,-0.1640625 0.04443,0.044454 -0.213387,0.476972 -1.123047,1.8808594 -0.381698,0.5890781 -1.872,2.8992241 -3.3125,5.1328121 -1.440502,2.233588 -3.228212,5.004592 -3.972656,6.158203 -0.744443,1.153612 -2.389709,3.704376 -3.65625,5.667969 C 9.4534959,25.33095 8.7634847,26.39926 8,27.582031 V 42 c 0,1.108 0.892,2 2,2 h 13.1875 c 1.884192,-7.161025 3.832971,-18.726418 7.048828,-28.886719 L 29,15 28,4 Z"/>
 <path style="fill:#b8da6c" d="M 10,4 C 8.892,4 8,4.892 8,6 V 17.015625 C 12.318506,12.592882 19.277484,5.5358437 20.916016,4 Z m 12.283203,1.3046875 c -0.0201,-0.020116 -0.158151,0.054186 -0.306641,0.1640625 -0.45454,0.3363431 -4.546352,3.9651798 -5.871093,5.207031 -0.68683,0.643855 -1.614972,1.487962 -2.0625,1.875 -0.447528,0.387039 -1.445098,1.265868 -2.216797,1.953125 -0.771699,0.687258 -1.571511,1.390685 -1.777344,1.5625 C 9.6989241,16.35848 8.6915686,17.257725 8,17.882812 v 9.699219 c 0.7634847,-1.182771 1.4534959,-2.251081 2.21875,-3.4375 1.266541,-1.963593 2.911807,-4.514356 3.65625,-5.667969 0.744444,-1.153611 2.532154,-3.924615 3.972656,-6.158203 1.4405,-2.233588 2.930802,-4.543734 3.3125,-5.1328121 0.90966,-1.4038874 1.167477,-1.8364054 1.123047,-1.8808594 z"/>
 <path style="fill:#778b3c" d="M 40,30.013672 26.246094,44 H 38 c 1.108,0 2,-0.892 2,-2 z"/>
 <path style="fill:#eddf36" d="m 29,14.992188 c -3.475322,9.140307 -5.825698,18.662145 -6.255859,26.320312 -0.05239,0.932707 -0.12288,2.078568 -0.15625,2.544922 L 22.578125,44 h 3.667969 L 40,30.013672 V 16 L 29,15 Z"/>
 <path style="opacity:0.2;fill:#f4f4f7" d="M 10,4 C 8.892,4 8,4.892 8,6 V 7 C 8,5.892 8.892,5 10,5 h 18 l 11,11 h 1 L 28,4 Z"/>
 <path style="opacity:0.1" d="m 28,5 v 10 c 0,1.1046 0.89543,2 2,2 h 10 z"/>
 <path style="fill:#faf5bc" d="m 28,4 v 10 c 0,1.1046 0.89543,2 2,2 h 10 z"/>
 <path style="opacity:0.2" d="M 19.896484,5 C 17.425438,7.4210943 11.794653,13.12938 8,17.015625 v 0.867187 C 8.3435106,17.572324 8.6375145,17.318232 9.0175781,16.980469 13.342668,12.559877 19.389207,6.4311224 20.916016,5 Z m 2.386719,1.3046875 c -0.0201,-0.020116 -0.158151,0.054186 -0.306641,0.1640625 -0.07005,0.051835 -0.585299,0.5098176 -0.804687,0.6972656 -0.006,0.00922 -0.0057,0.010229 -0.01172,0.019531 -0.381698,0.5890781 -1.872,2.8992244 -3.3125,5.1328124 -1.440502,2.233588 -3.228212,5.004592 -3.972656,6.158203 -0.744443,1.153613 -2.389709,3.704376 -3.65625,5.667969 C 9.4534959,25.33095 8.7634847,26.39926 8,27.582031 v 1 c 0.7634847,-1.182771 1.4534959,-2.251081 2.21875,-3.4375 1.266541,-1.963593 2.911807,-4.514356 3.65625,-5.667969 0.744444,-1.153611 2.532154,-3.924615 3.972656,-6.158203 1.4405,-2.233588 2.930802,-4.543734 3.3125,-5.1328121 0.90966,-1.4038874 1.167477,-1.8364054 1.123047,-1.8808594 z M 40,30.013672 26.246094,44 h -3.605469 c -0.01756,0.277249 -0.04149,0.700299 -0.05273,0.857422 L 22.578125,45 h 3.667969 L 40,31.013672 Z"/>
</svg>
