<svg xmlns="http://www.w3.org/2000/svg" width="48" height="48" version="1.1">
 <g transform="translate(0,-284.3)">
  <path style="opacity:0.2" d="m 20.97372,327.23915 c -0.422489,-0.12193 -0.766153,-0.33128 -1.108712,-0.67543 -0.587101,-0.58985 -0.879119,-1.21463 -0.778101,-2.11324 0.114875,-1.60151 1.417666,-3.11241 3.588391,-3.19491 0.380103,-10e-4 0.787501,0.0553 1.217031,0.15017 0.22351,0.0494 0.501217,0.12402 0.61713,0.16587 0.189785,0.0685 0.221886,0.0687 0.322714,0.002 0.149209,-0.0983 0.141888,-0.19052 -0.05382,-0.67833 -0.58187,-1.45021 -1.778709,-2.92911 -3.300402,-3.37557 -0.321405,-0.0943 -0.807701,-0.15172 -1.278664,-0.1621 -3.152167,0.0802 -5.449665,3.07391 -6.885933,5.30911 -0.459193,0.71092 -0.997389,1.51172 -1.195988,1.77955 -1.012153,1.36497 -2.1936836,2.28208 -3.3806556,2.62408 -0.4484983,0.12922 -1.5252193,0.18233 -1.9725453,0.0973 -2.3785,-0.45218 -3.967481,-2.56093 -3.743092,-4.96748 0.01896,-0.20326 0.04876,-0.36834 0.06624,-0.36683 0.01748,0.002 0.11233,0.10903 0.210783,0.23894 0.408133,0.53858 1.2986121,1.00467 1.9963291,1.16946 0.519182,0.12262 1.026964,0.14155 1.5128159,0.0565 1.315009,-0.23039 2.1557303,-0.77889 3.5286079,-2.62268 2.079727,-2.7931 3.562189,-5.49072 6.481354,-11.79399 1.925866,-4.15848 2.979075,-6.24014 4.132066,-8.16698 1.486336,-2.48393 3.053039,-4.4823 4.522559,-5.76862 2.246754,-1.96667 4.908124,-3.15637 7.966464,-3.5612 0.921534,-0.12199 2.515558,-0.11081 3.386519,0.0238 3.124834,0.48279 5.528085,2.03751 7.00689,4.5329 0.47705,0.80499 0.88769,1.9468 1.077487,2.99602 0.121026,0.66902 0.121092,2.16052 1.44e-4,2.83293 -0.09929,0.55192 -0.351028,1.45436 -0.521822,1.87068 l -0.11696,0.2851 -0.0054,-0.5141 c -0.0229,-2.16846 -1.447242,-4.39325 -3.578092,-4.98374 -0.417376,-0.11566 -0.547541,-0.12939 -1.208791,-0.12757 -0.647983,0.002 -0.800948,0.0182 -1.21802,0.13034 -2.389461,0.64256 -4.125509,3.5686 -4.90979,6.67866 -0.575452,2.28194 -0.484973,4.79721 0.269632,7.49557 0.708916,2.53497 4.10494,5.97341 4.800071,6.48395 2.466383,1.81144 3.570099,2.4259 5.456584,3.725 0.650408,0.44521 0.832305,0.66962 0.890873,1.09903 0.07226,0.52982 -0.253132,1.02482 -1.075178,1.6356 -0.227323,0.16891 -0.65643,0.50019 -0.95357,0.7362 -0.986503,0.78357 -1.526891,0.99347 -2.189698,0.99685 -0.377053,0.002 -0.464016,-0.0145 -0.702925,-0.13235 -0.763036,-0.37657 -1.077492,-1.17942 -0.708171,-1.93338 0.34255,-0.69929 1.11947,-1.02109 1.855556,-0.76855 0.166229,0.057 0.349097,0.17608 0.532294,0.34654 0.297957,0.27723 0.586833,0.23373 0.67306,0.0718 0.09307,-0.17477 0.109954,-0.78631 0.03272,-1.18548 -0.271814,-1.4049 -1.519534,-2.39537 -2.920775,-2.31855 -0.816644,0.0447 -1.593888,0.41429 -2.242064,1.06596 -0.429053,0.43135 -0.723793,0.82727 -1.229322,1.65133 -1.088653,1.77462 -1.952431,2.4364 -2.679137,2.86039 -0.61342,0.35788 -1.475493,0.44904 -2.036343,0.23159 -0.212703,-0.0825 -0.423695,-0.22934 -0.608654,-0.41683 -0.522881,-0.5168 -0.46561,-1.20783 -0.415915,-1.87266 0.05638,-0.75423 0.527079,-1.3227 0.977704,-1.7452 0.653466,-0.53264 1.318191,-0.75067 2.038913,-0.82457 0.904108,-0.0864 1.604878,-0.02 2.424804,0.19605 0.454727,0.14638 0.606119,0.1494 0.658155,0.0131 0.07757,-0.20316 -0.351546,-1.87865 -0.706896,-2.37164 -0.588341,-0.81621 -1.453293,-1.42499 -2.428689,-1.70938 -0.44915,-0.13095 -1.504772,-0.17947 -2.037787,-0.0937 -2.976552,0.55696 -3.970699,3.02932 -5.150635,5.0938 -1.363573,2.36428 -1.913295,3.26505 -3.193971,3.70531 -0.459072,0.15782 -1.320572,0.20488 -1.707346,0.0933 z"/>
  <path style="fill:#5245ac" d="m 20.97372,326.23919 c -0.422489,-0.12193 -0.766153,-0.33128 -1.108712,-0.67543 -0.587101,-0.58985 -0.879119,-1.21463 -0.778101,-2.11324 0.114875,-1.60151 1.417666,-3.11241 3.588391,-3.19491 0.380103,-10e-4 0.787501,0.0553 1.217031,0.15017 0.22351,0.0494 0.501217,0.12402 0.61713,0.16587 0.189785,0.0685 0.221886,0.0687 0.322714,0.002 0.149209,-0.0983 0.141888,-0.19052 -0.05382,-0.67833 -0.58187,-1.45021 -1.778709,-2.92911 -3.300402,-3.37557 -0.321405,-0.0943 -0.807701,-0.15172 -1.278664,-0.1621 -3.152167,0.0802 -5.449665,3.07391 -6.885933,5.30911 -0.459193,0.71092 -0.997389,1.51172 -1.195988,1.77955 -1.012153,1.36497 -2.1936836,2.28208 -3.3806556,2.62408 -0.4484983,0.12922 -1.5252193,0.18233 -1.9725453,0.0973 -2.3785,-0.45218 -3.967481,-2.56093 -3.743092,-4.96748 0.01896,-0.20326 0.04876,-0.36834 0.06624,-0.36683 0.01748,0.002 0.11233,0.10903 0.210783,0.23894 0.408133,0.53858 1.2986121,1.00467 1.9963291,1.16946 0.519182,0.12262 1.026964,0.14155 1.5128159,0.0565 1.315009,-0.23039 2.1557303,-0.77889 3.5286079,-2.62268 2.079727,-2.7931 3.562189,-5.49072 6.481354,-11.79399 1.925866,-4.15848 2.979075,-6.24014 4.132066,-8.16698 1.486336,-2.48393 3.053039,-4.4823 4.522559,-5.76862 2.246754,-1.96667 4.908124,-3.15637 7.966464,-3.5612 0.921534,-0.12199 2.515558,-0.11081 3.386519,0.0238 3.124834,0.48279 5.528085,2.03751 7.00689,4.5329 0.47705,0.80499 0.88769,1.9468 1.077487,2.99602 0.121026,0.66902 0.121092,2.16052 1.44e-4,2.83293 -0.09929,0.55192 -0.351028,1.45436 -0.521822,1.87068 l -0.11696,0.2851 -0.0054,-0.5141 c -0.0229,-2.16846 -1.447242,-4.39325 -3.578092,-4.98374 -0.417376,-0.11566 -0.547541,-0.12939 -1.208791,-0.12757 -0.647983,0.002 -0.800948,0.0182 -1.21802,0.13034 -2.389461,0.64256 -4.125509,3.5686 -4.90979,6.67866 -0.575452,2.28194 -0.484973,4.79721 0.269632,7.49557 0.708916,2.53497 4.10494,5.97341 4.800071,6.48395 2.466383,1.81144 3.570099,2.4259 5.456584,3.725 0.650408,0.44521 0.832305,0.66962 0.890873,1.09903 0.07226,0.52982 -0.253132,1.02482 -1.075178,1.6356 -0.227323,0.16891 -0.65643,0.50019 -0.95357,0.7362 -0.986503,0.78357 -1.526891,0.99347 -2.189698,0.99685 -0.377053,0.002 -0.464016,-0.0145 -0.702925,-0.13235 -0.763036,-0.37657 -1.077492,-1.17942 -0.708171,-1.93338 0.34255,-0.69929 1.11947,-1.02109 1.855556,-0.76855 0.166229,0.057 0.349097,0.17608 0.532294,0.34654 0.297957,0.27723 0.586833,0.23373 0.67306,0.0718 0.09307,-0.17477 0.109954,-0.78631 0.03272,-1.18548 -0.271814,-1.4049 -1.519534,-2.39537 -2.920775,-2.31855 -0.816644,0.0447 -1.593888,0.41429 -2.242064,1.06596 -0.429053,0.43135 -0.723793,0.82727 -1.229322,1.65133 -1.088653,1.77462 -1.952431,2.4364 -2.679137,2.86039 -0.61342,0.35788 -1.475493,0.44904 -2.036343,0.23159 -0.212703,-0.0825 -0.423695,-0.22934 -0.608654,-0.41683 -0.522881,-0.5168 -0.46561,-1.20783 -0.415915,-1.87266 0.05638,-0.75423 0.527079,-1.3227 0.977704,-1.7452 0.653466,-0.53264 1.318191,-0.75067 2.038913,-0.82457 0.904108,-0.0864 1.604878,-0.02 2.424804,0.19605 0.454727,0.14638 0.606119,0.1494 0.658155,0.0131 0.07757,-0.20316 -0.351546,-1.87865 -0.706896,-2.37164 -0.588341,-0.81621 -1.453293,-1.42499 -2.428689,-1.70938 -0.44915,-0.13095 -1.504772,-0.17947 -2.037787,-0.0937 -2.976552,0.55696 -3.970699,3.02932 -5.150635,5.0938 -1.363573,2.36428 -1.913295,3.26505 -3.193971,3.70531 -0.459072,0.15782 -1.320572,0.20488 -1.707346,0.0933 z"/>
  <path style="opacity:0.1;fill:#f4f4f7" d="m 35.150391,290.3 c -0.622568,-0.004 -1.252124,0.023 -1.712891,0.084 -3.05834,0.40483 -5.71809,1.59583 -7.964844,3.5625 -1.46952,1.28632 -3.037101,3.28365 -4.523437,5.76758 -1.152991,1.92684 -2.206947,4.00949 -4.132813,8.16797 -2.919165,6.30327 -4.400741,8.99987 -6.480468,11.79297 -1.3728781,1.84379 -2.2142884,2.39266 -3.5292974,2.62305 -0.4858519,0.0851 -0.9925367,0.066 -1.5117187,-0.0566 -0.697717,-0.16479 -1.5879608,-0.63135 -1.9960938,-1.16993 -0.098453,-0.12991 -0.1934575,-0.23628 -0.2109375,-0.23828 -0.01748,-0.001 -0.047446,0.16393 -0.066406,0.36719 -0.030126,0.3231 -0.023004,0.63819 0.00977,0.94727 0.018493,-0.16238 0.041673,-0.31575 0.056641,-0.31446 0.01748,0.002 0.1124845,0.10837 0.2109375,0.23828 0.408133,0.53858 1.2983768,1.00514 1.9960938,1.16993 0.519182,0.12262 1.0258668,0.14169 1.5117187,0.0566 1.315009,-0.23039 2.1564193,-0.77926 3.5292974,-2.62305 2.079727,-2.7931 3.561303,-5.4897 6.480468,-11.79297 1.925866,-4.15848 2.979822,-6.24113 4.132813,-8.16797 1.486336,-2.48393 3.053917,-4.48126 4.523437,-5.76758 2.246754,-1.96667 4.906504,-3.15767 7.964844,-3.5625 0.921534,-0.12199 2.515758,-0.10922 3.386719,0.0254 3.124834,0.4828 5.529007,2.03587 7.007812,4.53125 0.47705,0.80499 0.888328,1.94688 1.078125,2.9961 0.04124,0.22799 0.06107,0.56195 0.07422,0.91601 0.02536,-0.6856 0.0056,-1.47499 -0.07422,-1.91601 -0.189797,-1.04922 -0.601075,-2.19111 -1.078125,-2.9961 -1.47881,-2.49538 -3.882983,-4.04845 -7.007817,-4.53125 -0.435481,-0.0673 -1.051261,-0.105 -1.673828,-0.10937 z m -2.16211,17.42187 c -0.05408,1.54641 0.153953,3.17747 0.63086,4.88282 0.708916,2.53497 4.10565,5.97383 4.800781,6.48437 0.852812,0.62635 1.517147,1.08795 2.132812,1.50586 0.324297,0.13986 0.617839,0.33715 0.869141,0.58594 0.798578,0.52756 1.533011,0.99784 2.455078,1.63281 0.430078,0.29439 0.645453,0.49434 0.765625,0.71875 0.100669,-0.20681 0.153425,-0.41072 0.125,-0.61914 -0.05857,-0.42941 -0.240217,-0.6544 -0.890625,-1.09961 -1.886485,-1.2991 -2.990648,-1.91317 -5.457031,-3.72461 -0.695131,-0.51054 -4.091865,-3.9494 -4.800781,-6.48437 -0.375354,-1.34221 -0.58437,-2.63739 -0.63086,-3.88282 z m -10.3125,12.53321 c -2.170725,0.0825 -3.474968,1.5938 -3.589843,3.19531 -0.0325,0.28911 -0.0085,0.54283 0.03711,0.7832 0.212534,-1.51781 1.481139,-2.89978 3.552734,-2.97851 0.380103,-0.001 0.787267,0.0555 1.216797,0.15039 0.22351,0.0494 0.501275,0.12416 0.617188,0.16601 0.189785,0.0685 0.221437,0.0686 0.322265,0.002 0.149209,-0.0983 0.142974,-0.18992 -0.05273,-0.67773 -0.03844,-0.0958 -0.08713,-0.19135 -0.130859,-0.28711 -0.03775,-0.007 -0.07134,-0.0128 -0.138672,-0.0371 -0.115913,-0.0419 -0.393678,-0.11661 -0.617188,-0.16601 -0.42953,-0.0949 -0.836694,-0.1514 -1.216797,-0.1504 z m 11.085938,1.02148 c -0.205649,0.002 -0.420458,0.0136 -0.646485,0.0352 -0.720722,0.0739 -1.383643,0.29158 -2.037109,0.82422 -0.450625,0.4225 -0.922136,0.99186 -0.978516,1.74609 -0.02548,0.34095 -0.0498,0.68794 0,1.01563 3.88e-4,-0.005 -3.87e-4,-0.0104 0,-0.0156 0.05638,-0.75423 0.527891,-1.32359 0.978516,-1.74609 0.653466,-0.53265 1.316387,-0.75032 2.037109,-0.82422 0.904108,-0.0864 1.605856,-0.0188 2.425782,0.19726 0.454727,0.14638 0.606167,0.14802 0.658203,0.0117 0.034,-0.089 -0.03857,-0.475 -0.150391,-0.90625 -0.100266,0.007 -0.25385,-0.0237 -0.507812,-0.10547 -0.614945,-0.16203 -1.162351,-0.24007 -1.779297,-0.23242 z m 6.679687,2.08594 c -0.545102,0.0168 -1.045822,0.32905 -1.302734,0.85352 -0.190836,0.38958 -0.196541,0.79244 -0.05469,1.14257 0.01783,-0.0475 0.03155,-0.0953 0.05469,-0.14257 0.34255,-0.69929 1.119383,-1.02012 1.855469,-0.76758 0.166229,0.057 0.348053,0.17524 0.53125,0.3457 0.297957,0.27723 0.587601,0.2342 0.673828,0.0723 0.09307,-0.17477 0.110437,-0.78638 0.0332,-1.18555 -6.4e-4,-0.003 -0.0013,-0.007 -0.002,-0.01 -0.01212,0.061 -0.01341,0.16182 -0.03125,0.19532 -0.08623,0.16193 -0.375871,0.20496 -0.673828,-0.0723 -0.183197,-0.17046 -0.365021,-0.28871 -0.53125,-0.34571 -0.184022,-0.0631 -0.371034,-0.0915 -0.552735,-0.0859 z"/>
 </g>
</svg>
