<svg xmlns="http://www.w3.org/2000/svg" width="48" height="48" version="1.1">
 <path style="opacity:0.2" d="M 10,5 C 8.892,5 8,5.892 8,7 V 43 C 8,44.108 8.892,45 10,45 H 38 C 39.108,45 40,44.108 40,43 V 17 L 28,5 Z"/>
 <path style="fill:#f54b3e" d="M 10,4 C 8.892,4 8,4.892 8,6 V 42 C 8,43.108 8.892,44 10,44 H 38 C 39.108,44 40,43.108 40,42 V 16 L 30,14 28,4 Z"/>
 <path style="opacity:0.2" d="M 40,17 28,5 V 15 C 28,16.108 28.892,17 30,17 Z"/>
 <path style="fill:#ff7d74" d="M 40,16 28,4 V 14 C 28,15.108 28.892,16 30,16 Z"/>
 <path style="opacity:0.2;fill:#f4f4f7" d="M 10 4 C 8.892 4 8 4.892 8 6 L 8 7 C 8 5.892 8.892 5 10 5 L 28 5 L 28 4 L 10 4 z"/>
 <path style="opacity:0.2" d="m 24,21 -9,4.5 v 4 L 28.2,33.9 24,36 19,33.5 V 32 L 15,30.667 V 35.5 l 9,4.5 9,-4.5 v -4 L 19.8,27.1 24,25 29,27.5 V 29 l 4,1.333 V 25.5 Z"/>
 <path style="fill:#f4f4f7" d="m 24,20 -9,4.5 v 4 L 28.2,32.9 24,35 19,32.5 V 31 L 15,29.667 V 34.5 l 9,4.5 9,-4.5 v -4 L 19.8,26.1 24,24 29,26.5 V 28 l 4,1.333 V 24.5 Z"/>
</svg>
