<svg xmlns="http://www.w3.org/2000/svg" width="48" height="48" version="1">
 <path fill="#b2bfd9" d="m41 42v-36c0-1.108-0.892-2-2-2h-28c-1.108 0-2 0.892-2 2v36c0 1.108 0.892 2 2 2h28c1.108 0 2-0.892 2-2z"/>
 <path fill="#fff" opacity=".1" d="m11 4c-1.108 0-2 0.892-2 2v1c0-1.108 0.892-2 2-2h28c1.108 0 2 0.892 2 2v-1c0-1.108-0.892-2-2-2z"/>
 <path opacity=".2" d="m5 9v30s0 2 2 2h37zm8 16.857 8.75 7.143h-8.75z"/>
 <path fill="#689f38" d="m5 8v30c0 2 2 2 2 2h37zm8 16.857 8.75 7.143h-8.75z"/>
 <path opacity=".2" d="m9 42v1c0 1.108 0.892 2 2 2h28c1.108 0 2-0.892 2-2v-1c0 1.108-0.892 2-2 2h-28c-1.108 0-2-0.892-2-2z"/>
</svg>
