<svg xmlns="http://www.w3.org/2000/svg" width="48" height="48" version="1">
 <path style="fill:#1fa5cd" d="m19.899 4.0009c-0.425 0.0462-0.799 0.3931-0.877 0.8125l-0.845 4.2812c-1.517 0.5923-2.943 1.4062-4.195 2.4062l-4.1635-1.4062c-0.4326-0.1489-0.9572 0.0441-1.1896 0.4374l-4.0072 6.9378c-0.2257 0.399-0.1289 0.951 0.2192 1.25l3.3184 2.906c-0.11686 0.77924-0.18783 1.5632-0.18783 2.375 0 0.81174 0.071027 1.5957 0.18783 2.375l-3.3184 2.906c-0.3481 0.299-0.4449 0.851-0.2192 1.25l4.0071 6.9374c0.2324 0.39342 0.75706 0.58638 1.1896 0.43749l4.1637-1.4062c1.2514 0.99995 2.6776 1.8138 4.195 2.4062l0.84526 4.2812c0.08565 0.44814 0.51346 0.80628 0.97048 0.81248h8.0143c0.45701-0.006 0.88479-0.36434 0.97048-0.81248l0.84526-4.2812c1.5174-0.59236 2.9436-1.4063 4.195-2.4062l4.1637 1.4062c0.43256 0.14889 0.95722-0.0441 1.1896-0.43749l4.0071-6.9374c0.22571-0.399 0.1289-0.95119-0.21914-1.25l-3.317-2.906c0.11686-0.77924 0.18784-1.5632 0.18784-2.375 0-0.81174-0.07103-1.5957-0.18784-2.375l3.3184-2.9062c0.34804-0.29878 0.44485-0.85097 0.21914-1.25l-4.007-6.9378c-0.232-0.3934-0.757-0.5863-1.189-0.4374l-4.1637 1.4062c-1.252-1-2.678-1.8139-4.195-2.4062l-0.845-4.2812c-0.086-0.4481-0.514-0.8063-0.971-0.8125h-8.0143c-0.03126-0.001-0.06261-0.001-0.09387 0z"/>
 <path fill="#fff" opacity=".2" d="m19.795 4.0005c-0.436 0.0457-0.82 0.3889-0.899 0.8038l-0.867 4.2353c-1.556 0.5861-3.019 1.3912-4.302 2.3802l-4.2695-1.3909c-0.4436-0.1473-0.9816 0.0436-1.2199 0.4328l-4.1092 6.8631c0.055884 0.09895 0.13549 0.17342 0.22472 0.24732l0.16051 0.12366 3.7239-6.2448c0.2384-0.389 0.7764-0.5799 1.22-0.433l4.2697 1.3912c1.2833-0.98924 2.7457-1.7944 4.3018-2.3804l0.86677-4.2353c0.07962-0.41492 0.4633-0.75808 0.89888-0.80378 0.03205-0.0009893 0.0642-0.0009893 0.09626 0h8.2183c0.46865 0.00594 0.90731 0.36044 0.99518 0.80378l0.86677 4.2353c1.5561 0.58601 3.0185 1.3912 4.3018 2.3804l4.2697-1.3912c0.44357-0.14729 0.98158 0.04363 1.2199 0.4328l3.7239 6.2448 0.16051-0.12366c0.08927-0.0739 0.16883-0.14837 0.22472-0.24732l-4.11-6.8631c-0.238-0.3892-0.776-0.5801-1.22-0.4328l-4.269 1.3909c-1.283-0.989-2.746-1.7941-4.302-2.3802l-0.867-4.2353c-0.088-0.4433-0.526-0.7976-0.995-0.8038h-8.2183c-0.03205-0.0009893-0.06421-0.0009893-0.09626 0zm-15.763 13.973c0.018799 0.11692 0.038934 0.23845 0.096257 0.34006-0.0559-0.099-0.0761-0.229-0.0963-0.34zm39.936 0c-0.02024 0.11143-0.04048 0.24112-0.09626 0.34006 0.05743-0.10161 0.07756-0.22314 0.09626-0.34006zm-36.308 4.359c-0.032668 0.31731-0.046536 0.63829-0.064206 0.95836 0.00616 0.16677 0.022498 0.32868 0.032051 0.49464 0.026401-0.45654 0.059069-0.91396 0.12841-1.3602l-0.0963-0.093zm32.681 0-0.09626 0.09269c0.06934 0.44629 0.10201 0.90371 0.12841 1.3602 0.0092-0.16595 0.02589-0.32786 0.03205-0.49464-0.01767-0.32007-0.03154-0.64105-0.06421-0.95836zm-32.681 3.895-3.3066 2.783c-0.089271 0.0739-0.16883 0.14837-0.22472 0.24732l0.38523 0.61829 3.2424-2.7514c-0.0457-0.294-0.0657-0.6-0.0962-0.897zm32.681 0c-0.03061 0.29673-0.05064 0.60243-0.09626 0.89653l3.2424 2.7514 0.38523-0.61829c-0.057-0.1-0.136-0.174-0.225-0.248l-3.308-2.783zm-36.341 3.617c0.0031 0.054 0.0198 0.103 0.0321 0.155-0.0134-0.053-0.0274-0.1-0.0321-0.155zm40 0c-0.005 0.055-0.019 0.102-0.032 0.155 0.012-0.052 0.029-0.101 0.032-0.155z"/>
 <path opacity=".2" d="m4.6289 18.453-0.00781 0.01563c-0.22571 0.399-0.12734 0.95122 0.2207 1.25l3.2109 2.8125c0.03-0.304 0.0624-0.607 0.1075-0.907l-3.3184-2.906c-0.087-0.076-0.1584-0.167-0.2129-0.267zm38.742 0c-0.05449 0.10002-0.12588 0.19093-0.21289 0.26562l-3.318 2.906c0.04502 0.30033 0.07745 0.6032 0.10742 0.90625l3.2109-2.8125c0.34804-0.29878 0.44642-0.851 0.2207-1.25l-0.0078-0.01563zm-35.379 6.047c-0.00594 0.16702-0.021484 0.33077-0.021484 0.5 0 0.49837 0.034327 0.98598 0.082031 1.4688l0.1075-0.094c-0.0925-0.617-0.1454-1.241-0.168-1.875zm32.016 0c-0.02256 0.63414-0.07547 1.2582-0.16797 1.875l0.10742 0.09375c0.0477-0.48277 0.08203-0.97038 0.08203-1.4688 0-0.16923-0.01554-0.33298-0.02148-0.5zm-35.379 6.047c-0.1636 0.3-0.1772 0.685-0.0079 0.984l4.0078 6.9375c0.2324 0.39342 0.75689 0.58639 1.1895 0.4375l4.1636-1.406c1.2514 0.99995 2.6779 1.8139 4.1953 2.4062l0.84375 4.2812c0.08565 0.44814 0.51369 0.80629 0.9707 0.8125h8.0156c0.45702-0.006 0.88501-0.36436 0.9707-0.8125l0.84375-4.2812c1.517-0.593 2.943-1.407 4.195-2.407l4.1641 1.4062c0.43256 0.14889 0.95705-0.04411 1.1895-0.4375l4.0078-6.9375c0.16928-0.29925 0.15566-0.68432-0.0078-0.98438l-4 6.9219c-0.2324 0.39339-0.75689 0.58639-1.1895 0.4375l-4.164-1.406c-1.2514 0.99995-2.6779 1.8139-4.1953 2.4062l-0.84375 4.2812c-0.086 0.449-0.514 0.807-0.971 0.813h-8.0156c-0.45702-0.0062-0.88505-0.36436-0.9707-0.8125l-0.84375-4.2812c-1.517-0.593-2.943-1.407-4.195-2.407l-4.1641 1.4062c-0.43256 0.14889-0.95705-0.04408-1.1895-0.4375l-4-6.9219z"/>
 <path style="opacity:0.2" d="m 22,15 c -0.554,0 -1,0.446 -1,1 v 11 h -4 l 7,9 7,-9 H 27 V 16 c 0,-0.554 -0.446,-1 -1,-1 z"/>
 <path style="fill:#f4f4f7" d="m 22,14 c -0.554,0 -1,0.446 -1,1 v 11 h -4 l 7,9 7,-9 H 27 V 15 c 0,-0.554 -0.446,-1 -1,-1 z"/>
</svg>
