<svg xmlns="http://www.w3.org/2000/svg" width="48" height="48" version="1.1">
 <path style="opacity:.2" d="m10 5c-1.108 0-2 0.892-2 2v36c0 1.108 0.892 2 2 2h28c1.108 0 2-0.892 2-2v-26l-12-12z"/>
 <path style="fill:#369eda" d="m10 4c-1.108 0-2 0.892-2 2v36c0 1.108 0.892 2 2 2h28c1.108 0 2-0.892 2-2v-26l-10-2-2-10z"/>
 <path style="opacity:.2" d="m40 17-12-12v10c0 1.108 0.892 2 2 2z"/>
 <path style="fill:#81c2e8" d="m40 16-12-12v10c0 1.108 0.892 2 2 2z"/>
 <path style="fill:#f4f4f7;opacity:.2" d="m10 4c-1.108 0-2 0.892-2 2v1c0-1.108 0.892-2 2-2h18v-1h-18z"/>
 <path style="opacity:0.2" d="m 22,21 c -3.073181,0 -7,2 -7,6 0,4 4,7 5.5,8 C 15,35 12,30 12,30 c 0,0 5,11 14,11 4,0 7,-3 7,-7 0,-3 -2,-6 -5,-7.5 6,0.5 8,4.5 8,4.5 0,0 -4,-10 -14,-10 z m 1.033203,4.996094 c 1.508097,0.04497 3.243048,0.657524 4.667969,1.86914 2.334386,1.98494 3.038116,4.901356 2.158203,6.636719 a 3.308772,2.6555652 45.000001 0 0 -1.248047,-3.623047 3.308772,2.6555652 45.000001 0 0 -4.140625,0 3.308772,2.6555652 45.000001 0 0 0.917969,4.242188 3.308772,2.6555652 45.000001 0 0 1.888672,0.853515 c -1.760236,0.121602 -4.028071,-0.587306 -5.728516,-2.033203 -2.605569,-2.215528 -2.885656,-5.308176 -1.492187,-6.90625 0.522551,-0.599277 1.363534,-0.94357 2.345703,-1.023437 0.204618,-0.01664 0.415417,-0.02205 0.630859,-0.01563 z"/>
 <path style="fill:#f4f4f7" d="m 22,20.101695 c -3.073181,0 -7,2 -7,6 0,4 4,7 5.5,8 -5.5,0 -8.5,-5 -8.5,-5 0,0 5,11 14,11 4,0 7,-3 7,-7 0,-3 -2,-6 -5,-7.5 6,0.5 8,4.5 8,4.5 0,0 -4,-10 -14,-10 z m 1.033203,4.996094 c 1.508097,0.04497 3.243048,0.657524 4.667969,1.86914 2.334386,1.98494 3.038116,4.901356 2.158203,6.636719 a 3.308772,2.6555652 45.000001 0 0 -1.248047,-3.623047 3.308772,2.6555652 45.000001 0 0 -4.140625,0 3.308772,2.6555652 45.000001 0 0 0.917969,4.242188 3.308772,2.6555652 45.000001 0 0 1.888672,0.853515 c -1.760236,0.121602 -4.028071,-0.587306 -5.728516,-2.033203 -2.605569,-2.215528 -2.885656,-5.308176 -1.492187,-6.90625 0.522551,-0.599277 1.363534,-0.94357 2.345703,-1.023437 0.204618,-0.01664 0.415417,-0.02205 0.630859,-0.01563 z"/>
</svg>
