<svg xmlns="http://www.w3.org/2000/svg" width="48" height="48" version="1.1">
 <path style="opacity:0.2" d="M 10,5 C 8.892,5 8,5.892 8,7 V 43 C 8,44.108 8.892,45 10,45 H 38 C 39.108,45 40,44.108 40,43 V 17 L 28,5 Z"/>
 <path style="fill:#2095f2" d="M 10,4 C 8.892,4 8,4.892 8,6 V 42 C 8,43.108 8.892,44 10,44 H 38 C 39.108,44 40,43.108 40,42 V 16 L 30,14 28,4 Z"/>
 <path style="opacity:0.2" d="M 40,17 28,5 V 15 C 28,16.108 28.892,17 30,17 Z"/>
 <path style="fill:#7cc0f5" d="M 40,16 28,4 V 14 C 28,15.108 28.892,16 30,16 Z"/>
 <path style="opacity:0.2;fill:#f4f4f7" d="M 10 4 C 8.892 4 8 4.892 8 6 L 8 7 C 8 5.892 8.892 5 10 5 L 28 5 L 28 4 L 10 4 z"/>
 <rect style="opacity:0.2" width="20" height="6" x="14" y="21" rx="1" ry="1"/>
 <rect style="fill:#f4f4f7" width="20" height="6" x="14" y="20" rx="1" ry="1"/>
 <rect style="opacity:0.2" width="6" height="12" x="28" y="29" rx="1" ry="1"/>
 <rect style="fill:#f4f4f7" width="6" height="12" x="28" y="28" rx="1" ry="1"/>
 <rect style="opacity:0.2" width="12" height="12" x="14" y="29" rx="1" ry="1"/>
 <rect style="fill:#f4f4f7" width="12" height="12" x="14" y="28" rx="1" ry="1"/>
</svg>
