<svg xmlns="http://www.w3.org/2000/svg" width="48" height="48" version="1.1">
 <path style="opacity:0.2" d="m 10,5 c -1.108,0 -2,0.892 -2,2 V 43 c 0,1.107999 0.892,2 2,2 h 28 c 1.108,0 2,-0.892001 2,-2 V 17 L 29,16 28,5 Z"/>
 <path style="fill:#005e8b" d="m10 4c-1.108 0-2 0.892-2 2v36c0 1.108 0.892 2 2 2h28c1.108 0 2-0.892 2-2v-26l-11-1-1-11z"/>
 <path style="fill:#f4f4f7;opacity:0.1" d="M 10 4 C 8.892 4 8 4.892 8 6 L 8 7 C 8 5.892 8.892 5 10 5 L 28 5 L 28 4 L 10 4 z"/>
 <path style="opacity:0.2" d="M 28,5 V 15 c 0,1.104599 0.89543,2 2,2 h 10 z"/>
 <path style="fill:#2a80a9" d="m28 4v10c0 1.1046 0.89543 2 2 2h10l-12-12z"/>
 <path style="opacity:0.2" d="m 26.987133,31.725822 c 0.196091,1.127176 0.32922,1.96422 0.3988,3.105482 0.01929,0.710718 -0.193436,1.409042 -0.607507,1.994246 -0.09742,0.339117 -0.389534,0 -0.598242,0 -0.514837,0 -0.704929,-0.542699 -0.983261,-0.87734 -0.278249,-0.334639 -0.07897,-0.637614 0.106692,-0.904368 0.19944,-0.140174 0.278249,-0.452185 0.565845,-0.452185 0.287518,0 0.250449,-0.384375 0.208708,-0.587877 0.190093,-0.284904 0.07414,-0.405812 0.259716,-0.717824 0.333851,-0.144653 0.236508,-0.65113 0.352465,-0.936034 0.09275,-0.203501 0,-0.592435 0.26431,-0.678314 0,0 0.03223,0 0.0274,0.0448 m -0.319994,-11.6127 c -0.435948,-0.0495 -0.765206,0.239725 -1.131612,0.402526 -0.304104,0.09867 -0.613782,0.180177 -0.927498,0.244124 -0.227242,0.452262 -0.751348,0.719017 -1.03427,1.144094 -0.289496,0.844674 -0.82834,1.587191 -1.548946,2.134418 -1.029596,0.520072 -1.549027,1.650571 -1.887552,2.713262 -0.115958,0.239645 -0.09742,0.592436 -0.222647,0.79586 -0.408149,0.113066 -0.190175,-0.406926 -0.23651,-0.655687 -0.06043,-0.370783 0.273657,-0.610429 0.296785,-0.972255 0.138129,-0.257011 0.196166,-0.547797 0.166965,-0.836559 -0.04675,-0.646651 0.153025,-1.433475 -0.315317,-1.962582 -0.278331,-0.158245 -0.190174,-0.492885 -0.29219,-0.750681 -0.276634,-0.368193 -0.628867,-0.676186 -1.03427,-0.904368 -0.33385,-0.03143 -0.639982,-0.452262 -0.98318,-0.257795 -0.213301,0.244203 -0.607508,0.239645 -0.732732,0.565249 -0.07897,0.407006 -0.547232,0.298497 -0.853362,0.397969 -0.389534,0.149209 -0.890431,0 -1.210422,0.302976 -0.319991,0.302975 -0.844096,0.746123 -0.686398,1.257158 0.366407,0.700865 1.312439,0.348153 1.827277,0.773231 -0.162596,0.470325 -0.349901,0.932181 -0.561172,1.383738 -0.08416,0.613172 -0.0966,1.233684 -0.03707,1.849594 0.09742,0.614985 -0.06527,1.406367 0.46383,1.84048 0.301457,0.108509 0.282923,0.452184 0.398801,0.705423 0.115957,0.253239 0.338604,-0.09044 0.431355,0.153766 0.268982,0.144651 0.02739,0.452184 0.176232,0.633058 0.247494,0.04776 0.474995,0.165764 0.653923,0.339196 0.285044,0.193571 0.550573,0.413121 0.793006,0.655688 0.1855,0.370782 0.422088,-0.361748 0.626123,-0.08596 0.104392,0.251264 0.410499,0.357117 0.653923,0.22613 0.3776,-0.06207 0.734098,-0.212604 1.038862,-0.438669 0.19944,0.691908 0.04594,1.442589 0.134491,2.157047 0.123267,0.521719 0.200825,1.052711 0.231835,1.587242 0.139052,0.526699 0.219906,1.066394 0.241181,1.609869 0.15078,1.129252 -0.04615,2.276719 -0.565765,3.296583 -0.06197,0.319685 -0.317252,0.570407 -0.644657,0.633138 -0.231914,0.10395 -0.714197,0.289382 -0.551905,0.614986 0.537966,0.452184 1.391328,0.402448 2.008184,0.171837 0.408066,-0.194466 0.05561,-0.678315 0.264307,-0.972254 0.273658,-1.031027 0.139166,-2.134419 0.463749,-3.165447 0.25118,-0.5198 0.346069,-1.098387 0.273658,-1.668642 0.06527,-0.348232 -0.08348,-0.768752 0.148431,-1.053655 0.0036,-0.350368 0.136956,-0.687658 0.375592,-0.949626 0.07559,-0.531984 0.114327,-1.068329 0.115958,-1.605391 0.326639,-0.09955 0.67061,-0.133396 1.011062,-0.09947 0,0.298497 -0.217975,0.642172 -0.153025,0.976811 0.06831,0.375926 -0.0059,0.463557 -0.208708,0.790112 -0.143758,0.587878 -0.241181,1.311372 0.134492,1.808815 0.621447,0.664722 1.433069,1.135055 2.022043,1.845037 0.200122,0.157457 0.212987,0.450463 0.0274,0.624022 -0.108065,0.383036 -0.403118,0.689343 -0.788414,0.818488 -0.245774,0.09499 -0.639981,0.452184 -0.352465,0.700943 0.578715,0.127184 1.182844,0.08791 1.73912,-0.113064 0.380348,-0.135695 0.241182,-0.583323 0.389614,-0.863747 0.204801,0.271258 0.393691,0.553601 0.565765,0.845675 0.23659,0.343675 0.644657,0.05893 0.92758,-0.0495 0.03334,-0.502818 -0.07068,-1.005264 -0.301449,-1.456097 -0.129818,-0.298497 -0.635389,-0.307533 -0.612181,-0.673838 0.250448,-0.904368 0.871896,-1.609791 1.363527,-2.374064 0.408066,-0.37982 0.102014,-0.945147 0.125224,-1.424439 -0.130064,-1.231929 0.175949,-2.170486 0.867223,-3.209432 0.143184,0.577108 0.327603,1.143742 0.551906,1.695749 0.161672,0.647212 0.455016,1.256169 0.86263,1.790743 0.190092,0.642172 0.139084,1.356631 0.26431,2.021353 0.179236,1.149441 0.112927,2.322597 -0.194768,3.445871 0.03222,0.411484 -0.366405,0.714459 -0.329258,1.116908 0.111285,0.370861 0.556499,0.07229 0.788414,0.23061 0.418756,0.126792 0.869408,-0.06592 1.057396,-0.452184 -0.09676,-0.31417 -0.162012,-0.636756 -0.194846,-0.96322 -0.318225,-0.950982 -0.388351,-1.964305 -0.204035,-2.948351 0.03706,-0.533585 0.366407,-1.184792 -0.06044,-1.641534 -0.115958,-0.488407 0.08348,-1.017433 -0.03706,-1.519433 -0.285974,-1.286105 -0.319036,-2.613445 -0.09743,-3.91157 0.07414,-0.180874 0,-0.515513 0.19944,-0.614986 0.19736,0.287305 0.285916,0.63267 0.250449,0.976735 0.180327,0.53329 0.202948,1.105323 0.06527,1.650569 -0.338525,0.42052 -0.129817,0.990327 -0.08808,1.46514 0.05561,0.33464 0.412741,0.09499 0.463749,-0.113067 0.311653,-0.565986 0.5634,-1.161439 0.751347,-1.77715 0.213301,-0.280345 0,-0.610507 0,-0.904446 0.329258,-0.04086 0.204034,-0.402448 0.0274,-0.560694 -0.176233,-0.578842 -0.134491,-1.248121 -0.533372,-1.741006 -0.630623,-0.635845 -1.153475,-1.365476 -1.548948,-2.161529 -0.422088,-1.297859 -1.627836,-2.161605 -2.035983,-3.472978 -0.153128,-0.760989 -0.621195,-1.426779 -1.293904,-1.84048 -0.299605,-0.134129 -0.609801,-0.244513 -0.927581,-0.330082 -0.270376,0.05501 -0.544928,0.08828 -0.820888,0.09947"/>
 <path style="fill:#f4f4f7" d="m 26.987133,30.725822 c 0.196091,1.127176 0.32922,1.96422 0.3988,3.105482 0.01929,0.710718 -0.193436,1.409042 -0.607507,1.994246 -0.09742,0.339117 -0.389534,0 -0.598242,0 -0.514837,0 -0.704929,-0.542699 -0.983261,-0.87734 -0.278249,-0.334639 -0.07897,-0.637614 0.106692,-0.904368 0.19944,-0.140174 0.278249,-0.452185 0.565845,-0.452185 0.287518,0 0.250449,-0.384375 0.208708,-0.587877 0.190093,-0.284904 0.07414,-0.405812 0.259716,-0.717824 0.333851,-0.144653 0.236508,-0.65113 0.352465,-0.936034 0.09275,-0.203501 0,-0.592435 0.26431,-0.678314 0,0 0.03223,0 0.0274,0.0448 m -0.319994,-11.6127 c -0.435948,-0.0495 -0.765206,0.239725 -1.131612,0.402526 -0.304104,0.09867 -0.613782,0.180177 -0.927498,0.244124 -0.227242,0.452262 -0.751348,0.719017 -1.03427,1.144094 -0.289496,0.844674 -0.82834,1.587191 -1.548946,2.134418 -1.029596,0.520072 -1.549027,1.650571 -1.887552,2.713262 -0.115958,0.239645 -0.09742,0.592436 -0.222647,0.79586 -0.408149,0.113066 -0.190175,-0.406926 -0.23651,-0.655687 -0.06043,-0.370783 0.273657,-0.610429 0.296785,-0.972255 0.138129,-0.257011 0.196166,-0.547797 0.166965,-0.836559 -0.04675,-0.646651 0.153025,-1.433475 -0.315317,-1.962582 -0.278331,-0.158245 -0.190174,-0.492885 -0.29219,-0.750681 -0.276634,-0.368193 -0.628867,-0.676186 -1.03427,-0.904368 -0.33385,-0.03143 -0.639982,-0.452262 -0.98318,-0.257795 -0.213301,0.244203 -0.607508,0.239645 -0.732732,0.565249 -0.07897,0.407006 -0.547232,0.298497 -0.853362,0.397969 -0.389534,0.149209 -0.890431,0 -1.210422,0.302976 -0.319991,0.302975 -0.844096,0.746123 -0.686398,1.257158 0.366407,0.700865 1.312439,0.348153 1.827277,0.773231 -0.162596,0.470325 -0.349901,0.932181 -0.561172,1.383738 -0.08416,0.613172 -0.0966,1.233684 -0.03707,1.849594 0.09742,0.614985 -0.06527,1.406367 0.46383,1.84048 0.301457,0.108509 0.282923,0.452184 0.398801,0.705423 0.115957,0.253239 0.338604,-0.09044 0.431355,0.153766 0.268982,0.144651 0.02739,0.452184 0.176232,0.633058 0.247494,0.04776 0.474995,0.165764 0.653923,0.339196 0.285044,0.193571 0.550573,0.413121 0.793006,0.655688 0.1855,0.370782 0.422088,-0.361748 0.626123,-0.08596 0.104392,0.251264 0.410499,0.357117 0.653923,0.22613 0.3776,-0.06207 0.734098,-0.212604 1.038862,-0.438669 0.19944,0.691908 0.04594,1.442589 0.134491,2.157047 0.123267,0.521719 0.200825,1.052711 0.231835,1.587242 0.139052,0.526699 0.219906,1.066394 0.241181,1.609869 0.15078,1.129252 -0.04615,2.276719 -0.565765,3.296583 -0.06197,0.319685 -0.317252,0.570407 -0.644657,0.633138 -0.231914,0.10395 -0.714197,0.289382 -0.551905,0.614986 0.537966,0.452184 1.391328,0.402448 2.008184,0.171837 0.408066,-0.194466 0.05561,-0.678315 0.264307,-0.972254 0.273658,-1.031027 0.139166,-2.134419 0.463749,-3.165447 0.25118,-0.5198 0.346069,-1.098387 0.273658,-1.668642 0.06527,-0.348232 -0.08348,-0.768752 0.148431,-1.053655 0.0036,-0.350368 0.136956,-0.687658 0.375592,-0.949626 0.07559,-0.531984 0.114327,-1.068329 0.115958,-1.605391 0.326639,-0.09955 0.67061,-0.133396 1.011062,-0.09947 0,0.298497 -0.217975,0.642172 -0.153025,0.976811 0.06831,0.375926 -0.0059,0.463557 -0.208708,0.790112 -0.143758,0.587878 -0.241181,1.311372 0.134492,1.808815 0.621447,0.664722 1.433069,1.135055 2.022043,1.845037 0.200122,0.157457 0.212987,0.450463 0.0274,0.624022 -0.108065,0.383036 -0.403118,0.689343 -0.788414,0.818488 -0.245774,0.09499 -0.639981,0.452184 -0.352465,0.700943 0.578715,0.127184 1.182844,0.08791 1.73912,-0.113064 0.380348,-0.135695 0.241182,-0.583323 0.389614,-0.863747 0.204801,0.271258 0.393691,0.553601 0.565765,0.845675 0.23659,0.343675 0.644657,0.05893 0.92758,-0.0495 0.03334,-0.502818 -0.07068,-1.005264 -0.301449,-1.456097 -0.129818,-0.298497 -0.635389,-0.307533 -0.612181,-0.673838 0.250448,-0.904368 0.871896,-1.609791 1.363527,-2.374064 0.408066,-0.37982 0.102014,-0.945147 0.125224,-1.424439 -0.130064,-1.231929 0.175949,-2.170486 0.867223,-3.209432 0.143184,0.577108 0.327603,1.143742 0.551906,1.695749 0.161672,0.647212 0.455016,1.256169 0.86263,1.790743 0.190092,0.642172 0.139084,1.356631 0.26431,2.021353 0.179236,1.149441 0.112927,2.322597 -0.194768,3.445871 0.03222,0.411484 -0.366405,0.714459 -0.329258,1.116908 0.111285,0.370861 0.556499,0.07229 0.788414,0.23061 0.418756,0.126792 0.869408,-0.06592 1.057396,-0.452184 -0.09676,-0.31417 -0.162012,-0.636756 -0.194846,-0.96322 -0.318225,-0.950982 -0.388351,-1.964305 -0.204035,-2.948351 0.03706,-0.533585 0.366407,-1.184792 -0.06044,-1.641534 -0.115958,-0.488407 0.08348,-1.017433 -0.03706,-1.519433 -0.285974,-1.286105 -0.319036,-2.613445 -0.09743,-3.91157 0.07414,-0.180874 0,-0.515513 0.19944,-0.614986 0.19736,0.287305 0.285916,0.63267 0.250449,0.976735 0.180327,0.53329 0.202948,1.105323 0.06527,1.650569 -0.338525,0.42052 -0.129817,0.990327 -0.08808,1.46514 0.05561,0.33464 0.412741,0.09499 0.463749,-0.113067 0.311653,-0.565986 0.5634,-1.161439 0.751347,-1.77715 0.213301,-0.280345 0,-0.610507 0,-0.904446 0.329258,-0.04086 0.204034,-0.402448 0.0274,-0.560694 -0.176233,-0.578842 -0.134491,-1.248121 -0.533372,-1.741006 -0.630623,-0.635845 -1.153475,-1.365476 -1.548948,-2.161529 -0.422088,-1.297859 -1.627836,-2.161605 -2.035983,-3.472978 -0.153128,-0.760989 -0.621195,-1.426779 -1.293904,-1.84048 -0.299605,-0.134129 -0.609801,-0.244513 -0.927581,-0.330082 -0.270376,0.05501 -0.544928,0.08828 -0.820888,0.09947"/>
</svg>
