<svg xmlns="http://www.w3.org/2000/svg" width="48" height="48" version="1.1">
 <path style="opacity:0.2" d="M 6.0078,16.748 C 6.0033,16.825 6.0007,16.902 6,16.978 V 32.64 C 6.0005,34.276 6.8708,35.788 8.2832,36.605 L 21.717,44.386 C 23.13,45.205 24.87,45.205 26.283,44.386 L 39.717,36.605 C 41.13,35.787 42,34.275 42,32.638 V 16.978 C 41.998,16.921 41.995,16.863 41.99,16.805 42,16.803 6.0079,16.748 6.0079,16.748 Z"/>
 <path style="fill:#c25824" d="M 6.0078,16.029 C 6.0033,16.106 6.0007,16.182 6,16.259 V 31.921 C 6.0005,33.557 6.8708,35.068 8.2832,35.886 L 21.717,43.667 C 23.13,44.485 24.87,44.485 26.283,43.667 L 39.717,35.886 C 41.13,35.068 42,33.556 42,31.919 V 16.259 C 41.998,16.201 41.995,16.144 41.99,16.086 42,16.084 6.0079,16.029 6.0079,16.029 Z"/>
 <path style="fill:#f36128" d="M 24.108,4 V 4.002 A 4.5691,4.6343 0 0 0 21.715,4.619 L 8.2713,12.492 A 4.5691,4.6343 0 0 0 6,16.208 4.5691,4.6343 0 0 0 8.2713,19.962 L 21.715,27.835 A 4.5691,4.6343 0 0 0 26.285,27.835 L 39.729,19.962 A 4.5691,4.6343 0 0 0 42,16.246 4.5691,4.6343 0 0 0 39.729,12.492 L 26.285,4.619 A 4.5691,4.6343 0 0 0 24.108,4 Z"/>
 <path style="opacity:0.2;fill:#f4f4f7" d="M 24.107,4 V 4.0028 A 4.5691,4.6343 0 0 0 21.716,4.6181 L 8.2725,12.491 A 4.5691,4.6343 0 0 0 6,16.208 4.5691,4.6343 0 0 0 6.0394,16.551 4.5691,4.6343 0 0 1 8.2725,13.21 L 21.716,5.3374 A 4.5691,4.6343 0 0 1 24.107,4.7221 V 4.7193 A 4.5691,4.6343 0 0 1 26.284,5.3374 L 39.727,13.21 A 4.5691,4.6343 0 0 1 41.961,16.583 4.5691,4.6343 0 0 0 42,16.245 4.5691,4.6343 0 0 0 39.727,12.491 L 26.284,4.6181 A 4.5691,4.6343 0 0 0 24.107,4 Z"/>
 <path style="opacity:0.1" d="M 6.0084,16.029 C 6.0055,16.079 6.0041,16.13 6.0028,16.18 A 4.5691,4.6343 0 0 1 6.0183,16.029 Z M 6.0014,16.221 C 6.0011,16.234 6,16.246 6,16.259 V 31.921 C 6.0005,33.556 6.8714,35.069 8.2838,35.887 L 21.716,43.667 C 22.443,44.088 23.189,44.293 24,44.281 V 28.452 A 4.5691,4.6343 0 0 1 21.715,27.835 L 8.2711,19.962 A 4.5691,4.6343 0 0 1 6.0014,16.221 Z"/>
 <path style="opacity:0.1" d="M 6.0394,15.87 A 4.5691,4.6343 0 0 0 6,16.208 4.5691,4.6343 0 0 0 8.2725,19.962 L 21.716,27.835 A 4.5691,4.6343 0 0 0 26.284,27.835 L 39.727,19.962 A 4.5691,4.6343 0 0 0 42,16.245 4.5691,4.6343 0 0 0 41.961,15.902 4.5691,4.6343 0 0 1 39.727,19.243 L 26.284,27.116 A 4.5691,4.6343 0 0 1 21.716,27.116 L 8.2725,19.243 A 4.5691,4.6343 0 0 1 6.0394,15.87 Z"/>
 <path style="opacity:0.2" d="M 32.3,22.629 C 29.451,24.291 25.956,25.253 24.179,25.516 22.765,25.725 21.005,25.746 18.924,25.481 17.248,24.499 16.206,23.892 15.187,23.291 16.732,23.52 18.611,23.734 20.366,23.888 22.854,24.107 26.587,23.224 29.438,21.595 29.629,21.486 29.818,21.372 30.006,21.254 34.286,18.564 33.927,14.74 30.407,12.561 26.46,10.118 21.184,10.008 17.01,12.664 14.208,14.448 13.42,17.288 16.421,18.969 18.78,20.291 22.268,20.395 24.958,18.857 27.152,17.602 26.588,16.214 25.697,15.675 24.85,15.161 23.236,14.812 21.705,15.424 20.473,15.917 20.089,17.416 22.595,17.61 21.538,18.308 19.892,18.481 18.615,17.792 16.123,16.448 17.675,14.365 19.53,13.531 22.958,11.992 25.952,12.466 28.479,14.03 31.095,15.649 30.907,18.535 27.742,20.446 25.238,21.958 21.773,23.047 16.698,21.751 11.622,20.455 10.335,17.604 11.341,14.563 12.158,12.18 15.643,9.5447 20.606,8.7774 25.569,8.01 29.543,8.5578 33.241,10.864 38.467,14.126 38.507,19.007 32.3,22.629 V 22.629"/>
 <path style="fill:#b2bfd9" d="M 32.3,21.91 C 29.451,23.572 25.956,24.534 24.179,24.797 22.403,25.059 20.05,25.025 17.248,24.499 L 13.457,22.279 C 15.136,22.611 17.877,22.951 20.366,23.169 22.854,23.388 26.587,22.505 29.438,20.876 29.629,20.767 29.818,20.653 30.006,20.535 34.286,17.845 33.927,14.021 30.407,11.842 26.46,9.3989 21.184,9.2886 17.01,11.945 14.208,13.728 13.42,16.569 16.421,18.25 18.78,19.571 22.268,19.676 24.958,18.138 27.152,16.883 26.588,15.495 25.697,14.955 24.85,14.442 23.236,14.093 21.705,14.705 20.473,15.198 20.089,16.697 22.595,16.891 21.538,17.589 19.892,17.762 18.615,17.073 16.123,15.728 17.675,13.645 19.53,12.812 22.958,11.273 25.952,11.747 28.479,13.311 31.095,14.929 30.907,17.816 27.742,19.727 25.238,21.239 21.773,22.328 16.698,21.032 11.622,19.735 10.335,16.885 11.341,13.844 12.158,11.461 15.643,8.8256 20.606,8.0583 25.569,7.2909 29.543,7.8387 33.241,10.145 38.467,13.407 38.507,18.288 32.3,21.91 V 21.91"/>
</svg>
