<svg xmlns="http://www.w3.org/2000/svg" width="48" height="48" version="1">
 <path style="opacity:0.2" d="M 10,5 C 8.892,5 8,5.892 8,7 v 36 c 0,1.108 0.892,2 2,2 h 28 c 1.108,0 2,-0.892 2,-2 V 17 L 29,16 28,5 Z"/>
 <path opacity=".1" transform="translate(-135.61 -237.72)" d="m163.22 242.45v11c0 1.1046 0.89543 2 2 2h10l-1-1-10-9z"/>
 <path fill="#b2bfd9" d="m10 4c-1.108 0-2 0.892-2 2v36c0 1.108 0.892 2 2 2h28c1.108 0 2-0.892 2-2v-26l-11-1-1-11z"/>
 <path fill="#fff" opacity=".2" d="m10 4c-1.108 0-2 0.892-2 2v1c0-1.108 0.892-2 2-2h18l11 11h1l-12-12z"/>
 <path style="opacity:0.2" d="m 28,5 v 10 c 0,1.1046 0.89543,2 2,2 h 10 z"/>
 <path fill="#fafafa" d="m28 4v10c0 1.1046 0.89543 2 2 2h10l-12-12z"/>
 <path style="opacity:0.5" d="m 17,26 v 11.7 c 6.4e-5,0.68065 0.60635,1.2999 1.2727,1.3 h 11.455 c 0.666,0 1.272,-0.619 1.272,-1.3 V 26 Z"/>
 <path style="opacity:0.5" d="m 16,23.3682 v 1.6316 l 16,-0.0046 -2.46e-4,-1.6271 c 0,-1.3318 -1.2305,-1.3363 -1.2305,-1.3363 h -3.6923 c 0,0 0,-1.032 -1.2308,-1.032 l -3.6923,3.1e-5 c -1.2308,0 -1.2308,1.032 -1.2308,1.032 h -3.6923 c 0,0 -1.231,0.004 -1.231,1.3363 z"/>
</svg>
