<svg xmlns="http://www.w3.org/2000/svg" width="48" height="48" version="1">
 <path style="opacity:0.2" d="M 10,5 C 8.892,5 8,5.892 8,7 v 36 c 0,1.108 0.892,2 2,2 h 28 c 1.108,0 2,-0.892 2,-2 V 17 L 29,16 28,5 Z"/>
 <path style="fill:#fe9700" d="M 10,4 C 8.892,4 8,4.892 8,6 v 36 c 0,1.108 0.892,2 2,2 h 28 c 1.108,0 2,-0.892 2,-2 V 16 L 29,15 28,4 Z"/>
 <path style="opacity:0.2;fill:#f4f4f7" d="M 10,4 C 8.892,4 8,4.892 8,6 V 7 C 8,5.892 8.892,5 10,5 h 18 l 11,11 h 1 L 28,4 Z"/>
 <path style="opacity:0.2" d="m 28,5 v 10 c 0,1.1046 0.89543,2 2,2 h 10 z"/>
 <path style="fill:#ffbd63" d="m 28,4 v 10 c 0,1.1046 0.89543,2 2,2 h 10 z"/>
 <path style="opacity:0.2" d="m 15.763672,27 -3.113281,8 h 1.015625 l 0.845703,-2.056641 H 17.875 L 18.732422,35 h 1.037109 L 16.667969,27 Z M 21,27 v 0.582031 l 0.941406,0.22461 v 6.398437 L 21,34.417969 V 35 h 2.890625 v -0.582031 l -0.941406,-0.212891 v -6.398437 l 0.941406,-0.22461 V 27 Z m 4.054688,0 v 8 H 26.0625 v -3.095703 h 2.832031 V 31.019531 H 26.0625 v -3.134765 h 3.042969 V 27 Z M 31,27 v 8 h 1.007812 v -3.095703 h 2.894532 v -0.884766 h -2.894532 v -3.134765 h 3.107422 V 27 Z m -14.800781,1.037109 c 0.02977,0.08926 0.06671,0.219541 0.111328,0.390625 0.05207,0.163645 0.10418,0.324262 0.15625,0.480469 0.05207,0.156209 0.08901,0.264709 0.111328,0.324219 l 0.996094,2.818359 h -2.726563 l 1.00586,-2.818359 c 0.04463,-0.126453 0.09674,-0.297959 0.15625,-0.513672 0.06695,-0.223153 0.129943,-0.451051 0.189453,-0.681641 z"/>
 <path style="fill:#f4f4f7" d="M 18.731893,34 17.875135,31.943327 H 14.512629 L 13.666342,34 H 12.651 l 3.112971,-8 h 0.903766 l 3.101813,8 z M 17.573879,31.050719 16.578476,28.23152 c -0.02232,-0.05951 -0.05951,-0.167361 -0.111576,-0.32357 -0.05207,-0.156207 -0.104135,-0.316132 -0.156206,-0.479777 -0.04462,-0.171084 -0.08181,-0.301256 -0.111576,-0.390516 -0.05951,0.23059 -0.122732,0.457461 -0.18968,0.680614 -0.05951,0.215713 -0.111574,0.386796 -0.156207,0.513249 l -1.005873,2.819199 z"/>
 <path style="fill:#f4f4f7" d="M 23.890757,34 H 21 v -0.582633 l 0.941177,-0.212884 v -6.39776 L 21,26.582634 V 26 h 2.890757 v 0.582634 l -0.941177,0.224089 v 6.39776 l 0.941177,0.212884 z"/>
 <path style="fill:#f4f4f7" d="M 26.063404,34 H 25.055 v -8 h 4.051443 v 0.885155 h -3.043039 v 3.134269 h 2.830153 v 0.885152 h -2.830153 z"/>
 <path style="fill:#f4f4f7" d="M 32.008404,34 H 31 v -8 h 4.114846 v 0.885155 h -3.106442 v 3.134269 h 2.893557 v 0.885152 h -2.893557 z"/>
</svg>
