<svg xmlns="http://www.w3.org/2000/svg" width="48" height="48" version="1">
 <path style="opacity:0.2" d="M 10,5 C 8.892,5 8,5.892 8,7 v 36 c 0,1.108 0.892,2 2,2 h 28 c 1.108,0 2,-0.892 2,-2 V 17 L 29,16 28,5 Z"/>
 <path style="fill:#fe9700" d="M 10,4 C 8.892,4 8,4.892 8,6 v 36 c 0,1.108 0.892,2 2,2 h 28 c 1.108,0 2,-0.892 2,-2 V 16 L 29,15 28,4 Z"/>
 <path style="opacity:0.2;fill:#f4f4f7" d="M 10,4 C 8.892,4 8,4.892 8,6 V 7 C 8,5.892 8.892,5 10,5 h 18 l 11,11 h 1 L 28,4 Z"/>
 <path style="opacity:0.2" d="m 28,5 v 10 c 0,1.1046 0.89543,2 2,2 h 10 z"/>
 <path style="fill:#ffbd63" d="m 28,4 v 10 c 0,1.1046 0.89543,2 2,2 h 10 z"/>
 <path style="opacity:0.2" d="m 16.515625,26.999515 c -0.793121,0 -1.450583,0.166213 -1.974609,0.5 -0.516944,0.333787 -0.903271,0.802029 -1.158204,1.404297 C 13.127881,29.498823 13,30.192961 13,30.98389 c 0,0.805443 0.12788,1.509061 0.382812,2.111328 0.254933,0.602267 0.64126,1.07051 1.158204,1.404297 0.524026,0.333787 1.178804,0.5 1.964843,0.5 0.757714,0 1.395165,-0.166213 1.91211,-0.5 0.524026,-0.333787 0.915721,-0.79952 1.177734,-1.394531 C 19.864797,32.502716 20,31.799098 20,30.993656 c 0,-0.805443 -0.135203,-1.504598 -0.404297,-2.09961 -0.262013,-0.602267 -0.651023,-1.068 -1.167969,-1.394531 -0.516944,-0.333787 -1.154395,-0.5 -1.912109,-0.5 z m 8.078125,0.002 C 22.978341,26.971545 22.228134,27.580489 21.462891,28.898 21.153687,29.49382 21,30.194868 21,31.001468 c 0,0.821134 0.13948,1.533586 0.419922,2.136719 0.287632,0.595867 0.705452,1.055812 1.251953,1.382812 0.87664,0.392173 1.940198,0.619361 3.066406,0.382813 C 26.162539,34.838412 26.582934,34.735237 27,34.597171 V 30.98389 h -2.664062 v 0.871094 h 1.693359 v 2.111328 c -0.194151,0.05086 -0.409188,0.09453 -0.646485,0.130859 -0.237296,0.03633 -0.528667,0.102688 -0.863281,0.05469 -0.789884,-0.113313 -1.70362,-0.433001 -2.214843,-1.50586 -0.194158,-0.4796 -0.291016,-1.026864 -0.291016,-1.644531 0,-0.966468 0.255078,-1.729528 0.765625,-2.289062 0.58003,-0.7412 1.674676,-1.025774 2.818359,-0.708985 0.345159,0.0872 0.654485,0.188421 0.927735,0.304688 l 0.367187,-0.84961 c -0.330776,-0.145333 -0.689821,-0.25795 -1.078125,-0.33789 -0.381112,-0.07994 -0.789255,-0.119141 -1.220703,-0.119141 z m 8,0 C 30.978341,26.971545 30.228134,27.580489 29.462891,28.898 29.153687,29.49382 29,30.194868 29,31.001468 c 0,0.821134 0.13948,1.533586 0.419922,2.136719 0.287632,0.595867 0.705452,1.055812 1.251953,1.382812 0.87664,0.392173 1.940198,0.619361 3.066406,0.382813 C 34.162539,34.838412 34.582934,34.735237 35,34.597171 V 30.98389 h -2.664062 v 0.871094 h 1.693359 v 2.111328 c -0.194151,0.05086 -0.409188,0.09453 -0.646485,0.130859 -0.237295,0.03633 -0.528667,0.102688 -0.863281,0.05469 -0.789884,-0.113313 -1.70362,-0.433001 -2.214843,-1.50586 -0.194158,-0.4796 -0.291016,-1.026864 -0.291016,-1.644531 0,-0.966468 0.255078,-1.729528 0.765625,-2.289062 0.58003,-0.7412 1.674676,-1.025774 2.818359,-0.708985 0.345159,0.0872 0.654485,0.188421 0.927735,0.304688 l 0.367187,-0.84961 C 34.561802,27.313168 34.202757,27.200551 33.814453,27.120611 33.433341,27.040671 33.025198,27.00147 32.59375,27.00147 Z M 16.515625,27.85889 c 0.856854,0 1.484299,0.279161 1.880859,0.837891 0.396561,0.551474 0.59375,1.317283 0.59375,2.296875 0,0.979591 -0.201826,1.752372 -0.605468,2.318359 -0.39656,0.55873 -1.022053,0.837891 -1.878907,0.837891 -0.856854,0 -1.486983,-0.279161 -1.890625,-0.837891 -0.403642,-0.565987 -0.605468,-1.338768 -0.605468,-2.318359 0,-0.979592 0.201826,-1.745401 0.605468,-2.296875 0.403642,-0.55873 1.036456,-0.837891 1.900391,-0.837891 z"/>
 <path style="fill:#f4f4f7" d="m 20,29.994557 q 0,1.208163 -0.403641,2.111564 -0.39302,0.892517 -1.17906,1.393198 -0.775417,0.50068 -1.911988,0.50068 -1.179059,0 -1.965099,-0.50068 Q 13.764796,32.998638 13.382398,32.095237 13,31.191836 13,29.983672 q 0,-1.186394 0.382398,-2.078911 0.382398,-0.903402 1.157814,-1.404082 0.78604,-0.50068 1.975721,-0.50068 1.136571,0 1.911988,0.50068 0.775418,0.489796 1.168438,1.393197 Q 20,28.786393 20,29.994557 Z m -5.990895,0 q 0,1.469387 0.605463,2.318367 0.605462,0.838095 1.890743,0.838095 1.285281,0 1.880121,-0.838095 0.605464,-0.84898 0.605464,-2.318367 0,-1.469388 -0.594841,-2.296599 -0.594841,-0.838095 -1.880122,-0.838095 -1.295903,0 -1.901365,0.838095 -0.605463,0.827211 -0.605463,2.296599 z"/>
 <path style="fill:#f4f4f7" d="M 24.335808,29.983416 H 27 v 3.614944 c -0.417066,0.138066 -0.837728,0.2398 -1.261986,0.3052 -1.126208,0.236548 -2.189513,0.01067 -3.066153,-0.381503 -0.546501,-0.327 -0.963567,-0.788434 -1.251199,-1.384301 C 21.14022,31.534623 21,30.822489 21,30.001355 c 0,-0.8066 0.154603,-1.507834 0.463807,-2.103702 0.765243,-1.317511 1.515461,-1.926573 3.13087,-1.8966 0.431448,0 0.837729,0.03996 1.218841,0.1199 0.388304,0.07994 0.747844,0.192567 1.07862,0.3379 l -0.366731,0.8502 c -0.27325,-0.116267 -0.582455,-0.218001 -0.927614,-0.3052 -1.143683,-0.316789 -2.23804,-0.0327 -2.81807,0.7085 -0.510547,0.559534 -0.76582,1.322534 -0.76582,2.289002 0,0.617667 0.09707,1.166301 0.291227,1.645901 0.511223,1.072859 1.424159,1.390888 2.214043,1.504201 0.334614,0.048 0.6256,-0.01817 0.862896,-0.0545 0.237296,-0.03633 0.453021,-0.07994 0.647172,-0.1308 V 30.85542 h -1.693433 z"/>
 <path style="fill:#f4f4f7" d="M 32.335808,29.983416 H 35 v 3.614944 c -0.417066,0.138066 -0.837728,0.2398 -1.261986,0.3052 -1.126208,0.236548 -2.189513,0.01067 -3.066153,-0.381503 -0.546501,-0.327 -0.963567,-0.788434 -1.251199,-1.384301 C 29.14022,31.534623 29,30.822489 29,30.001355 c 0,-0.8066 0.154603,-1.507834 0.463807,-2.103702 0.765243,-1.317511 1.515461,-1.926573 3.13087,-1.8966 0.431448,0 0.837729,0.03996 1.218841,0.1199 0.388304,0.07994 0.747844,0.192567 1.07862,0.3379 l -0.366731,0.8502 c -0.27325,-0.116267 -0.582455,-0.218001 -0.927614,-0.3052 -1.143683,-0.316789 -2.23804,-0.0327 -2.81807,0.7085 -0.510547,0.559534 -0.76582,1.322534 -0.76582,2.289002 0,0.617667 0.09707,1.166301 0.291227,1.645901 0.511223,1.072859 1.424159,1.390888 2.214043,1.504201 0.334614,0.048 0.6256,-0.01817 0.862896,-0.0545 0.237296,-0.03633 0.453021,-0.07994 0.647172,-0.1308 V 30.85542 h -1.693433 z"/>
</svg>
