<svg xmlns="http://www.w3.org/2000/svg" width="48" height="48" version="1">
 <path style="opacity:0.2" d="M 10,5 C 8.892,5 8,5.892 8,7 v 36 c 0,1.108 0.892,2 2,2 h 28 c 1.108,0 2,-0.892 2,-2 V 17 L 29,16 28,5 Z"/>
 <path style="fill:#7282d9" d="M 10,4 C 8.892,4 8,4.892 8,6 v 36 c 0,1.108 0.892,2 2,2 h 28 c 1.108,0 2,-0.892 2,-2 V 16 L 29,15 28,4 Z"/>
 <path style="opacity:0.2" d="m 11,26.999515 v 8 h 0.931641 v -4.851562 c 0,-0.425771 -0.0085,-0.832282 -0.02344,-1.220704 -0.01497,-0.395892 -0.03225,-0.709846 -0.05469,-0.941406 h 0.04492 l 2.636718,7.013672 h 0.830078 l 2.669922,-7.001953 h 0.04492 c -0.01496,0.239028 -0.0342,0.548734 -0.05664,0.929687 -0.01496,0.380952 -0.02148,0.765876 -0.02148,1.154297 v 4.917969 H 19 v -8 h -1.480469 l -2.513672,6.554688 h -0.04492 l -2.46875,-6.554688 z m 10,0 v 8 h 0.984375 V 31.98389 h 0.898437 c 0.77565,0.08646 1.395433,-0.118393 1.847657,-0.357422 0.459519,-0.239029 0.784967,-0.548734 0.974609,-0.929687 C 25.902013,30.308359 26,29.79374 26,29.353031 26,28.606065 25.76564,28.027533 25.298828,27.616703 24.832015,27.205872 24.089512,26.999515 23.068359,26.999515 Z m 6,0 v 8 h 4.101562 v -0.884766 h -3.09375 v -3.05664 h 2.890626 v -0.875 h -2.890626 v -2.298828 h 3.09375 v -0.884766 z m 8.59375,0.002 C 33.978341,26.971545 33.228134,27.580489 32.462891,28.898 32.153687,29.49382 32,30.194868 32,31.001468 c 0,0.821134 0.13948,1.533586 0.419922,2.136719 0.287632,0.595867 0.705452,1.055812 1.251953,1.382812 0.87664,0.392173 1.940198,0.619361 3.066406,0.382813 C 37.162539,34.838412 37.582934,34.735237 38,34.597171 V 30.98389 h -2.664062 v 0.871094 h 1.693359 v 2.111328 c -0.194151,0.05086 -0.409188,0.09453 -0.646485,0.130859 -0.237296,0.03633 -0.528667,0.102688 -0.863281,0.05469 -0.789884,-0.113313 -1.70362,-0.433001 -2.214843,-1.50586 -0.194158,-0.4796 -0.291016,-1.026864 -0.291016,-1.644531 0,-0.966468 0.255078,-1.729528 0.765625,-2.289062 0.58003,-0.7412 1.674676,-1.025774 2.818359,-0.708985 0.345159,0.0872 0.654485,0.188421 0.927735,0.304688 l 0.367187,-0.84961 c -0.330776,-0.145333 -0.689821,-0.25795 -1.078125,-0.33789 -0.381112,-0.07994 -0.789255,-0.119141 -1.220703,-0.119141 z m -13.609375,0.861328 h 0.996094 c 0.685631,0 1.188832,0.126891 1.509765,0.38086 0.328227,0.253968 0.492188,0.638891 0.492188,1.154297 0,0.590103 -0.182178,1.107016 -0.546875,1.353515 -0.364697,0.246499 -0.92008,0.371094 -1.664063,0.371094 h -0.787109 z"/>
 <path style="opacity:0.2;fill:#f4f4f7" d="M 10,4 C 8.892,4 8,4.892 8,6 V 7 C 8,5.892 8.892,5 10,5 h 18 l 11,11 h 1 L 28,4 Z"/>
 <path style="opacity:0.2" d="m 28,5 v 10 c 0,1.1046 0.89543,2 2,2 h 10 z"/>
 <path style="fill:#98a4e3" d="m 28,4 v 10 c 0,1.1046 0.89543,2 2,2 h 10 z"/>
 <path style="fill:#f4f4f7" d="M 35.335808,29.983416 H 38 v 3.614944 c -0.417066,0.138066 -0.837728,0.2398 -1.261986,0.3052 -1.126208,0.236548 -2.189513,0.01067 -3.066153,-0.381503 -0.546501,-0.327 -0.963567,-0.788434 -1.251199,-1.384301 C 32.14022,31.534623 32,30.822489 32,30.001355 c 0,-0.8066 0.154603,-1.507834 0.463807,-2.103702 0.765243,-1.317511 1.515461,-1.926573 3.13087,-1.8966 0.431448,0 0.837729,0.03996 1.218841,0.1199 0.388304,0.07994 0.747844,0.192567 1.07862,0.3379 l -0.366731,0.8502 c -0.27325,-0.116267 -0.582455,-0.218001 -0.927614,-0.3052 -1.143683,-0.316789 -2.23804,-0.0327 -2.81807,0.7085 -0.510547,0.559534 -0.76582,1.322534 -0.76582,2.289002 0,0.617667 0.09707,1.166301 0.291227,1.645901 0.511223,1.072859 1.424159,1.390888 2.214043,1.504201 0.334614,0.048 0.6256,-0.01817 0.862896,-0.0545 0.237296,-0.03633 0.453021,-0.07994 0.647172,-0.1308 V 30.85542 h -1.693433 z"/>
 <path style="fill:#f4f4f7" d="m 14.53436,34 -2.636745,-7.014006 h -0.04488 q 0.03366,0.34734 0.05611,0.941178 0.02244,0.582632 0.02244,1.221288 V 34 H 11 v -8 h 1.492285 l 2.468442,6.554622 h 0.04488 L 17.51893,26 H 19 v 8 h -0.9986 v -4.918768 q 0,-0.582632 0.02244,-1.15406 0.03366,-0.57143 0.0561,-0.929972 H 18.03506 L 15.364655,34 Z"/>
 <path style="fill:#f4f4f7" d="m 23.067834,26 c 1.021153,0 1.765135,0.205415 2.231948,0.616246 C 25.766594,27.027077 26,27.605976 26,28.352942 c 0,0.440709 -0.09847,0.955378 -0.295405,1.3438 -0.189642,0.380953 -0.514223,0.690943 -0.973742,0.929972 -0.452224,0.239029 -1.073366,0.445 -1.849015,0.358544 H 21.984682 V 34 H 21 v -8 z m -0.08752,0.862745 h -0.995628 v 3.259768 h 0.787747 c 0.743983,0 1.298323,-0.123249 1.66302,-0.369748 0.364697,-0.246499 0.547045,-0.764903 0.547045,-1.355006 0,-0.515406 -0.164114,-0.900093 -0.492341,-1.154061 -0.320933,-0.253969 -0.824216,-0.380953 -1.509847,-0.380953 z"/>
 <path style="fill:#f4f4f7" d="M 31.10084,34 H 27 v -8 h 4.10084 v 0.885155 h -3.092436 v 2.29887 h 2.890756 v 0.87395 h -2.890756 v 3.05687 h 3.092436 z"/>
</svg>
