<svg xmlns="http://www.w3.org/2000/svg" width="48" height="48" version="1.1">
 <path style="opacity:0.2" d="M 10,5 C 8.892,5 8,5.892 8,7 v 36 c 0,1.108 0.892,2 2,2 h 28 c 1.108,0 2,-0.892 2,-2 V 17 L 29,16 28,5 Z"/>
 <path fill="#b2bfd9" d="m10 4c-1.108 0-2 0.892-2 2v36c0 1.108 0.892 2 2 2h28c1.108 0 2-0.892 2-2v-26l-11-1-1-11z"/>
 <path style="fill:#f4f4f7;opacity:0.2" d="M 10 4 C 8.892 4 8 4.892 8 6 L 8 7 C 8 5.892 8.892 5 10 5 L 28 5 L 28 4 L 10 4 z"/>
 <path style="opacity:0.2" d="m 28,5 v 10 c 0,1.1046 0.89543,2 2,2 h 10 z"/>
 <path fill="#fafafa" d="m28 4v10c0 1.1046 0.89543 2 2 2h10l-12-12z"/>
 <path style="fill:#3f3f3f" d="M 24 20 A 10 10 0 0 0 14 30 A 10 10 0 0 0 24 40 A 10 10 0 0 0 34 30 A 10 10 0 0 0 24 20 z M 24 22 A 8 8 0 0 1 32 30 A 8 8 0 0 1 24 38 A 8 8 0 0 1 16 30 A 8 8 0 0 1 24 22 z M 24 24 A 6 6 0 0 0 18 30 A 6 6 0 0 0 24 36 A 6 6 0 0 0 28.126953 34.345703 L 26.498047 33.123047 A 4 4 0 0 1 24 34 A 4 4 0 0 1 20 30 A 4 4 0 0 1 24 26 A 4 4 0 0 1 26.494141 26.878906 L 28.130859 25.652344 A 6 6 0 0 0 24 24 z"/>
</svg>
