<svg xmlns="http://www.w3.org/2000/svg" width="48" height="48" version="1">
 <path style="opacity:0.2" d="M 10,5 C 8.892,5 8,5.892 8,7 v 36 c 0,1.108 0.892,2 2,2 h 28 c 1.108,0 2,-0.892 2,-2 V 17 L 29,16 28,5 Z"/>
 <path fill="#b2bfd9" d="m10 4c-1.108 0-2 0.892-2 2v36c0 1.108 0.892 2 2 2h28c1.108 0 2-0.892 2-2v-26l-11-1-1-11z"/>
 <path fill="#fff" opacity=".2" d="m10 4c-1.108 0-2 0.892-2 2v1c0-1.108 0.892-2 2-2h18l11 11h1l-12-12z"/>
 <path style="opacity:0.2" d="m 28,5 v 10 c 0,1.1046 0.89543,2 2,2 h 10 z"/>
 <path fill="#fafafa" d="m28 4v10c0 1.1046 0.89543 2 2 2h10l-12-12z"/>
 <path style="fill:#8d6e63" d="m 21.732,21.002 -0.201,2.369 a 7.1348,7.0712 0 0 0 -2.084,1.193 l -2.174,-1.013 -2.271,3.896 1.975,1.36 A 7.1348,7.0712 0 0 0 16.867,30 7.1348,7.0712 0 0 0 16.971,31.197 L 15,32.551 l 2.27,3.898 2.169,-1.011 a 7.1348,7.0712 0 0 0 2.09,1.187 l 0.2,2.375 h 4.541 l 0.201,-2.371 a 7.1348,7.0712 0 0 0 2.084,-1.195 L 30.729,36.449 33,32.551 31.025,31.193 A 7.1348,7.0712 0 0 0 31.135,30 7.1348,7.0712 0 0 0 31.031,28.803 L 33,27.451 30.73,23.555 28.561,24.566 a 7.1348,7.0712 0 0 0 -2.09,-1.189 l -0.2,-2.375 z M 24,27 a 3,3 0 0 1 3,3 3,3 0 0 1 -3,3 3,3 0 0 1 -3,-3 3,3 0 0 1 3,-3 z"/>
</svg>
