<svg xmlns="http://www.w3.org/2000/svg" width="48" height="48" version="1.1">
 <path style="opacity:0.2" d="M 10,5 C 8.892,5 8,5.892 8,7 V 43 C 8,44.108 8.892,45 10,45 H 38 C 39.108,45 40,44.108 40,43 V 17 L 28,5 Z"/>
 <path style="fill:#3b9a6a" d="M 10,4 C 8.892,4 8,4.892 8,6 V 42 C 8,43.108 8.892,44 10,44 H 38 C 39.108,44 40,43.108 40,42 V 16 L 30,14 28,4 Z"/>
 <path style="opacity:0.2" d="M 40,17 28,5 V 15 C 28,16.108 28.892,17 30,17 Z"/>
 <path style="fill:#61c391" d="M 40,16 28,4 V 14 C 28,15.108 28.892,16 30,16 Z"/>
 <path style="opacity:0.2;fill:#f4f4f7" d="M 10 4 C 8.892 4 8 4.892 8 6 L 8 7 C 8 5.892 8.892 5 10 5 L 28 5 L 28 4 L 10 4 z"/>
 <path style="fill:#f4f4f7" d="m 22.667969,25.820312 c -0.334861,-0.01328 -1.003907,0.61776 -1.003907,1.564454 0,0.109789 -0.01165,0.209682 -0.02734,0.304687 0.229856,-0.02621 0.43885,-0.04271 0.607422,-0.04492 1.038216,-0.01366 1.003906,0.365235 1.003906,0.365235 -0.0326,0.160467 -0.01558,0.246137 0.07227,0.333984 0.437868,0.362514 0.396681,1.117188 0.396485,1.117188 -0.219226,-0.269592 -0.453066,-0.491648 -0.724609,-0.583985 0.06911,0.204585 0.04314,0.39013 0,0.572266 -0.289308,-0.31781 -0.618963,-0.553738 -1.044922,-0.609375 0.192677,0.25905 0.133564,0.531386 0.07422,0.804687 -0.185454,-0.417565 -0.501769,-0.646334 -0.916015,-0.736328 0.03748,0.425373 -0.08508,0.654177 -0.328125,0.804688 0.119684,-0.09629 0.0072,-0.660934 -0.04297,-0.884766 -0.01011,0.0043 -0.0217,0.0098 -0.03125,0.01367 -0.103107,0.0851 -0.171809,0.05961 -0.173828,0.05859 -3.52e-4,-3.13e-4 -0.160869,-0.148253 -0.310547,-0.404297 -0.116856,-0.17298 -0.216083,-0.3565 -0.193359,-0.458985 -0.0252,-0.09419 -0.04581,-0.193962 -0.05469,-0.300781 -0.113615,-0.739865 -0.962512,-1.86571 -1.376953,-0.474609 -0.629763,1.492613 -0.681703,1.841379 -0.804688,2.568359 -0.02892,0.17021 -0.04989,0.315947 -0.06836,0.451172 0.02093,0.717764 0.228211,1.207176 0.392578,1.59375 0.115372,0.378521 0.307777,0.796698 0.626953,1.224609 1.079734,1.447909 1.375,2.160305 1.375,2.847657 0.15012,0.371494 -0.735257,-1.426124 -1.326172,-2.111328 0.392187,0.764656 0.746126,1.528697 0.810547,2.283203 -0.662169,-1.284709 -1.17111,-1.818031 -1.595703,-1.939453 0.280914,0.819121 0.511843,1.596716 0.369141,2.0625 -0.392968,-0.977638 -0.856887,-1.489423 -1.349609,-1.816407 -0.298875,0.709801 -0.32967,1.480515 0.09766,2.355469 -0.418541,-0.211028 -0.871937,-0.622258 -1.386719,-1.386719 0.14563,0.597162 0.282301,1.194836 0.822266,1.804688 -0.391016,0.04431 -0.793174,-0.06457 -1.203125,-0.294922 0.407413,1.086957 1.19272,2.139186 2.257812,3.166015 -1.074463,-0.559289 -2.129997,-1.252663 -3.140625,-2.283203 0.139384,0.741817 0.40544,1.402136 1.128906,1.767579 -0.581349,0.06052 -1.162008,0.01626 -1.742187,-0.269532 0.483548,0.982907 1.389765,1.745471 2.404297,2.453125 -0.970413,-0.280914 -1.935198,-0.604974 -2.798828,-1.570312 -0.04724,0.568661 0.114813,1.115694 0.443359,1.644531 -0.520247,-0.325813 -0.958564,-0.746756 -1.289062,-1.289062 0.012,1.262318 0.549648,2.38687 1.21875,3.476562 H 26.15625 c -0.796322,-0.791309 -1.697243,-1.528568 -2.712891,-2.117188 -2.977613,-1.624577 -1.109853,-4.421977 -0.896484,-5.410156 0,0 2.387584,1.670011 4.117187,-0.882812 1.562499,0.402533 2.609267,-0.285304 3.953126,0.201172 0.816583,0.357829 4.250533,0.141618 2.974609,-1.777344 -0.189163,0.16359 0.08839,0.342309 -0.0957,0.585937 -0.05505,0.07008 -0.163068,0.294975 -0.519532,0.400391 -0.40019,0.189554 -1.056437,0.345296 -1.822265,-0.46875 -0.552263,-0.407023 -0.953671,-0.05294 -1.263672,-0.08203 0.193262,-0.125913 0.734227,-0.402344 1.609375,-0.402344 0.494284,0 0.757782,0.429494 1.087891,0.431641 0.22274,0.0014 0.873502,-0.33444 1.003906,-0.464844 0.802333,-0.523761 0.885747,-0.354891 1.287109,-1.152344 0.21571,-0.966704 -0.272731,-1.172984 -0.421875,-1.4375 -0.04002,-0.614927 -0.5548,-0.851539 -1.169922,-0.414062 -1.409256,-0.253194 -2.792333,-0.134013 -3.474609,-0.191407 -1.495736,-0.209465 -2.742188,-1.001953 -2.742188,-1.001953 0.181941,-0.241871 0.0959,-0.764861 -1.072265,-0.800781 -0.641671,-0.211223 -1.317436,-0.612112 -1.8125,-0.617187 -0.501117,0 -0.570313,-0.494141 -0.570313,-0.494141 -0.313515,-0.169837 -0.764645,-0.831365 -0.759765,-1.84375 0,-0.159832 -0.07588,-0.235809 -0.1875,-0.240235 z m -0.402344,4.338664 c 0.913996,0.34104 2.217284,0.332951 2.794922,0.220704 -0.04997,0.03241 0.07758,0.0035 -0.224609,0.113281 -0.08336,0.103268 -0.08809,-0.0182 -0.109376,0.310547 -0.193262,0.193263 -0.834429,0.25832 -1.333984,0.103515 -0.552849,-0.248118 -0.529709,-0.389719 -0.572266,-0.529297 -0.05408,-0.03241 -0.478162,-0.173851 -0.554687,-0.21875 z m 8.933663,1.691261 c 0.14746,-0.0092 0.310048,0.009 0.480469,0.04687 0.456412,0.132161 0.310103,0.463781 0.203125,0.683593 0.156172,-0.54953 -0.343728,-0.656423 -1.080078,-0.611328 0.11625,-0.07291 0.249025,-0.109892 0.396484,-0.11914 z m 0.01758,0.226562 c 0.328351,0 0.59375,0.177649 0.59375,0.396485 0,0.218836 -0.265399,0.396484 -0.59375,0.396484 0.697503,-0.218836 -0.03856,-0.908534 -0.59375,-0.396484 0,-0.218837 0.265399,-0.396485 0.59375,-0.396485 z M 11.917969,41.517578 C 11.875996,42.375069 12.062785,43.199432 12.414062,44 h 1.326172 C 13.046514,43.29713 12.3679,42.573316 11.917969,41.517578 Z m -1.570313,0.882813 C 10.160954,42.989857 10.200999,43.513863 10.373047,44 h 1.628906 c -0.324333,-0.325153 -0.641954,-0.783545 -0.943359,-1.574219 -0.161443,0.215126 -0.120057,0.540418 0,0.908203 -0.34026,-0.120057 -0.583853,-0.418811 -0.710938,-0.933593 z"/>
 <path style="fill:#f4f4f7" d="m 27.84331,20.11188 c -0.107073,0.0017 -0.262802,0.133558 -0.394242,0.429321 -0.3223,0.585839 -0.735765,0.841443 -0.732056,1.274234 0.147387,0.245776 -1.097963,0.606481 -0.704605,1.376799 -0.278767,0.344163 -0.934063,0.786603 -0.70117,1.314268 -0.118301,0.258855 -0.954215,0.865406 -0.593653,1.438947 -0.78652,0.524543 -0.739571,0.651036 -0.573443,1.130874 -0.420688,0.269396 -0.860956,0.806405 -0.640168,1.245639 0,0 -0.04923,1.458746 1.311219,0.508244 0.704725,0.0164 0.393481,-0.754169 0.393481,-0.754169 0.475348,-0.131185 0.548095,-0.750013 0.360688,-1.114479 0.606338,0.0164 0.510017,-0.920996 0.42627,-1.245639 0.47535,-0.180183 0.541073,-0.747849 0.344296,-1.196453 0.573541,-0.130989 0.589652,-0.802895 0.540653,-1.278048 0.58994,-0.0328 0.508244,-1.065635 0.508244,-1.278809 0.50834,-0.327766 0.393706,-0.770175 0.473549,-1.283004 0.176244,-0.356877 0.118602,-0.56985 -0.01907,-0.567725 z m -0.859785,1.326089 c -0.150901,0.428496 0.110572,0.376813 0.427796,0.372128 -0.14485,0.155196 -0.571156,0.202157 -0.571156,0.04423 0,-0.157928 0.14336,-0.416356 0.14336,-0.416356 z m -0.831568,1.223905 c -0.151097,0.428692 0.339718,0.489672 0.656943,0.484987 -0.14485,0.155196 -0.616261,0.158521 -0.692785,-0.03279 -0.12279,-0.243628 0.03584,-0.452197 0.03584,-0.452197 z m -0.612335,1.260128 c -0.108734,0.443918 0.285578,0.543804 0.602802,0.539509 -0.144849,0.155196 -0.698504,0.126664 -0.698504,-0.03126 -0.09878,-0.24519 0.0957,-0.508245 0.0957,-0.508245 z m -0.600515,1.39815 c -0.108734,0.444114 0.529598,0.433615 0.846822,0.42932 -0.14485,0.155196 -0.59508,0.303577 -0.875799,0.145649 -0.244799,-0.273887 0.02898,-0.574969 0.02898,-0.574969 z m -0.586788,1.117147 c -0.136065,0.267249 0.716238,0.534663 1.033265,0.529978 -0.144845,0.155196 -0.756359,0.274219 -1.037078,0.11629 -0.303559,-0.370518 0.0038,-0.646268 0.0038,-0.646268 z m -0.614241,1.315794 c -0.108539,0.444114 0.976837,0.387676 1.294061,0.383186 -0.144849,0.155195 -1.042319,0.349712 -1.323038,0.191783 -0.244799,-0.273886 0.02898,-0.574969 0.02898,-0.574969 z"/>
 <path style="fill:#f4f4f7;opacity:0.5" d="M 22.244141 27.644531 C 21.772224 27.650731 21.079447 27.737604 20.060547 27.978516 C 19.851277 28.122975 20.529297 28.900391 20.529297 28.900391 C 20.529297 28.900391 20.609637 28.941349 20.732422 28.818359 C 20.781812 29.037585 20.898184 29.615674 20.777344 29.712891 C 21.020387 29.56238 21.14295 29.331623 21.105469 28.90625 C 21.519715 28.99624 21.83603 29.226966 22.021484 29.644531 C 22.080834 29.37123 22.139942 29.098894 21.947266 28.839844 C 22.373225 28.895484 22.70288 29.131409 22.992188 29.449219 C 23.035328 29.267083 23.061297 29.081538 22.992188 28.876953 C 23.263731 28.969293 23.497571 29.191346 23.716797 29.460938 C 23.716993 29.460938 23.758184 28.706264 23.320312 28.34375 C 23.232463 28.2559 23.215446 28.170233 23.248047 28.009766 C 23.248047 28.009766 23.282358 27.630871 22.244141 27.644531 z M 17.994141 28.509766 C 17.482873 28.826404 17.298485 29.815352 15.441406 30.439453 C 14.814571 30.65009 13.997308 30.820357 12.912109 30.908203 C 11.526442 31.02014 9.2062642 32.827097 8 35.009766 L 8 42 C 8 43.108 8.892 44 10 44 L 10.373047 44 C 10.200999 43.513863 10.160954 42.989857 10.347656 42.400391 C 10.474741 42.915173 10.718335 43.213927 11.058594 43.333984 C 10.938537 42.966199 10.897151 42.640908 11.058594 42.425781 C 11.359999 43.216456 11.67762 43.674847 12.001953 44 L 12.414062 44 C 12.062785 43.199432 11.875995 42.375069 11.917969 41.517578 C 12.3679 42.573315 13.046514 43.29713 13.740234 44 L 13.835938 44 C 13.166837 42.910308 12.629189 41.785756 12.617188 40.523438 C 12.947686 41.065743 13.386003 41.486687 13.90625 41.8125 C 13.577704 41.283663 13.415649 40.73663 13.462891 40.167969 C 14.326521 41.133306 15.291306 41.457367 16.261719 41.738281 C 15.247188 41.030627 14.34097 40.268063 13.857422 39.285156 C 14.437601 39.570951 15.018259 39.615205 15.599609 39.554688 C 14.876142 39.189245 14.610087 38.528926 14.470703 37.787109 C 15.481331 38.817649 16.536865 39.511023 17.611328 40.070312 C 16.546236 39.043483 15.760929 37.991254 15.353516 36.904297 C 15.763467 37.134651 16.165625 37.243533 16.556641 37.199219 C 16.016676 36.589367 15.880005 35.991694 15.734375 35.394531 C 16.249157 36.158993 16.702553 36.570222 17.121094 36.78125 C 16.693769 35.906296 16.724565 35.135583 17.023438 34.425781 C 17.516161 34.752766 17.980079 35.264552 18.373047 36.242188 C 18.515749 35.776406 18.284822 34.998809 18.003906 34.179688 C 18.428499 34.301111 18.93744 34.834432 19.599609 36.119141 C 19.535189 35.364636 19.18125 34.600595 18.789062 33.835938 C 19.379978 34.521141 20.265354 36.31876 20.115234 35.947266 C 20.115234 35.259915 19.819968 34.547518 18.740234 33.099609 C 18.421058 32.671698 18.228653 32.253522 18.113281 31.875 C 17.839785 31.231768 17.445001 30.308475 17.994141 28.509766 z"/>
 <path style="opacity:0.2" d="M 27.84375 21.111328 C 27.83545 21.111459 27.823263 21.125253 27.814453 21.126953 C 27.787833 21.44512 27.737073 21.738249 27.388672 21.962891 C 27.388672 22.089071 27.399641 22.489201 27.300781 22.8125 C 27.337991 22.8115 27.372451 22.811147 27.412109 22.810547 C 27.377669 22.847447 27.326369 22.877141 27.269531 22.900391 C 27.195521 23.080432 27.088491 23.230643 26.880859 23.242188 C 26.910469 23.529325 26.900139 23.876686 26.773438 24.144531 C 26.784627 24.144535 26.797774 24.146584 26.808594 24.146484 C 26.796524 24.159414 26.772049 24.164981 26.755859 24.175781 C 26.671329 24.335554 26.552684 24.470921 26.339844 24.519531 C 26.536621 24.968135 26.471444 25.536614 25.996094 25.716797 C 26.079844 26.04144 26.176651 26.977337 25.570312 26.960938 C 25.757721 27.325402 25.684332 27.944987 25.208984 28.076172 C 25.208984 28.076172 25.365572 28.474088 25.191406 28.691406 C 25.301909 28.738106 25.415235 28.778896 25.527344 28.826172 C 25.691758 28.57603 25.699371 28.211931 25.570312 27.960938 C 26.176651 27.977338 26.079841 27.04144 25.996094 26.716797 C 26.471444 26.536614 26.536621 25.968135 26.339844 25.519531 C 26.913385 25.388542 26.929858 24.717339 26.880859 24.242188 C 27.470799 24.209387 27.388672 23.176065 27.388672 22.962891 C 27.897012 22.635125 27.783438 22.192516 27.863281 21.679688 C 28.039525 21.32281 27.98142 21.109203 27.84375 21.111328 z M 27.412109 21.810547 C 27.362719 21.811276 27.318778 21.811472 27.273438 21.8125 C 27.250238 21.84575 27.228128 21.88681 27.205078 21.917969 C 27.287418 21.893889 27.36506 21.860959 27.412109 21.810547 z M 26.5 23.119141 C 26.45115 23.158101 26.40374 23.19768 26.349609 23.242188 C 26.517133 23.269848 26.720523 23.240884 26.808594 23.146484 C 26.712924 23.147884 26.604788 23.137881 26.5 23.119141 z M 25.810547 24.408203 C 25.765237 24.454163 25.726936 24.502043 25.679688 24.550781 C 25.850065 24.571971 26.059789 24.549678 26.142578 24.460938 C 26.031127 24.462438 25.915984 24.442743 25.810547 24.408203 z M 25.173828 25.685547 C 25.115718 25.754407 25.060309 25.830179 24.988281 25.916016 C 25.268382 26.016162 25.652351 25.892296 25.785156 25.75 C 25.615975 25.7523 25.363345 25.749723 25.173828 25.685547 z M 24.652344 26.777344 C 24.666544 26.833274 24.681817 26.889669 24.716797 26.945312 C 24.612729 27.014713 24.556972 27.061933 24.480469 27.119141 C 24.787695 27.198491 25.258407 27.102191 25.384766 26.966797 C 25.354756 26.96724 25.303926 26.955372 25.265625 26.951172 C 25.139811 26.961072 25.013795 26.952871 24.910156 26.894531 C 24.902456 26.885831 24.903254 26.877831 24.896484 26.869141 C 24.808944 26.841731 24.730503 26.813694 24.652344 26.777344 z M 22.244141 27.644531 C 22.122708 27.646131 21.962713 27.663024 21.806641 27.677734 C 21.805719 27.680034 21.803634 27.681194 21.802734 27.683594 C 21.949188 27.670924 22.126677 27.646071 22.244141 27.644531 z M 24.132812 28.085938 C 24.044743 28.143518 23.96516 28.223117 23.884766 28.300781 C 23.944966 28.336771 24.016248 28.366686 24.107422 28.378906 C 24.474851 28.363856 24.930924 28.24421 25.03125 28.136719 C 25.01551 28.136942 24.970462 28.134366 24.951172 28.134766 C 24.789138 28.161896 24.625125 28.156484 24.484375 28.121094 C 24.348354 28.115894 24.257467 28.110618 24.132812 28.085938 z M 20.669922 28.857422 C 20.667222 28.857947 20.664709 28.858775 20.662109 28.859375 C 20.654309 28.862375 20.644619 28.87166 20.636719 28.875 C 20.647809 28.8702 20.659352 28.861802 20.669922 28.857422 z M 21.105469 28.90625 L 21.105469 28.908203 C 21.20903 28.930703 21.305888 28.961133 21.396484 29.001953 C 21.305974 28.960783 21.209272 28.9288 21.105469 28.90625 z M 22.265625 30.158203 C 22.342155 30.203103 22.766233 30.344543 22.820312 30.376953 C 22.862873 30.516531 22.839732 30.658132 23.392578 30.90625 C 23.892133 31.061055 24.5333 30.996 24.726562 30.802734 C 24.747853 30.473988 24.752582 30.595453 24.835938 30.492188 C 25.138126 30.382404 25.010577 30.411318 25.060547 30.378906 C 24.482909 30.491153 23.179621 30.499243 22.265625 30.158203 z M 31.216797 32.076172 C 30.888446 32.076172 30.623047 32.253819 30.623047 32.472656 C 31.178237 31.960606 31.9143 32.650305 31.216797 32.869141 C 31.545148 32.869141 31.810547 32.691492 31.810547 32.472656 C 31.810547 32.25382 31.545148 32.076172 31.216797 32.076172 z M 34.826172 32.951172 C 34.473305 33.619032 34.353387 33.516508 33.591797 34.013672 C 33.810511 34.342613 33.882494 34.618955 33.861328 34.853516 C 34.349537 34.57427 34.5457 34.523364 34.878906 33.861328 C 34.976726 33.422934 34.920652 33.153145 34.826172 32.951172 z M 33.591797 34.013672 C 33.461393 34.144076 32.810631 34.479916 32.587891 34.478516 C 32.257782 34.476416 31.994284 34.046875 31.5 34.046875 C 30.624852 34.046875 30.083887 34.323306 29.890625 34.449219 C 30.200626 34.478309 30.602034 34.124228 31.154297 34.53125 C 31.920125 35.345296 32.576372 35.189554 32.976562 35 C 33.333027 34.894584 33.441044 34.669689 33.496094 34.599609 C 33.680184 34.355981 33.402637 34.177262 33.591797 34.013672 z M 33.714844 35.238281 C 33.671024 35.298301 33.620174 35.354927 33.560547 35.40625 C 33.561647 35.46639 33.548654 35.530045 33.496094 35.599609 C 33.441044 35.669689 33.333026 35.894584 32.976562 36 C 32.664499 36.147812 32.194638 36.268762 31.640625 35.931641 C 31.209856 35.934541 30.826865 35.882901 30.617188 35.791016 C 29.273326 35.30454 28.226561 35.992377 26.664062 35.589844 C 24.934461 38.142667 22.546875 36.472656 22.546875 36.472656 C 22.40939 37.10939 21.590749 38.496599 21.818359 39.837891 C 21.960811 38.85221 22.443795 37.950054 22.546875 37.472656 C 22.546875 37.472656 24.934461 39.142667 26.664062 36.589844 C 28.226561 36.992377 29.273327 36.30454 30.617188 36.791016 C 31.400012 37.134052 34.576715 36.944801 33.714844 35.238281 z"/>
</svg>
