<svg xmlns="http://www.w3.org/2000/svg" width="48" height="48" version="1">
 <path style="opacity:0.2" d="M 10,5 C 8.892,5 8,5.892 8,7 v 36 c 0,1.108 0.892,2 2,2 h 28 c 1.108,0 2,-0.892 2,-2 V 17 L 29,16 28,5 Z"/>
 <path fill="#b2bfd9" d="m10 4c-1.108 0-2 0.892-2 2v36c0 1.108 0.892 2 2 2h28c1.108 0 2-0.892 2-2v-26l-11-1-1-11z"/>
 <path style="fill:#3173c9" d="m 17.391,23 c 0,0 -2.391,0.001 -2.391,2.381 v 7.238 C 15,33.938 16.082,35 17.428,35 H 23 l 3,3 3,-3 h 0.572 C 29.572,35 32,34.999 32,32.619 V 25.381 C 32,23.001 29.572,23 29.572,23 Z M 17,25 h 12 v 1 H 17 Z m 0,2 h 8 v 1 h -8 z m 0,2 h 6 v 1 h -6 z m 0,2 h 10 v 1 H 17 Z"/>
 <path fill="#fff" opacity=".2" d="m10 4c-1.108 0-2 0.892-2 2v1c0-1.108 0.892-2 2-2h18l11 11h1l-12-12z"/>
 <path style="opacity:0.2" d="m 28,5 v 10 c 0,1.1046 0.89543,2 2,2 h 10 z"/>
 <path fill="#fafafa" d="m28 4v10c0 1.1046 0.89543 2 2 2h10l-12-12z"/>
</svg>
