<svg xmlns="http://www.w3.org/2000/svg" width="48" height="48" version="1">
 <path style="opacity:0.2" d="M 10,5 C 8.892,5 8,5.892 8,7 v 36 c 0,1.108 0.892,2 2,2 h 28 c 1.108,0 2,-0.892 2,-2 V 17 L 29,16 28,5 Z"/>
 <path opacity=".1" transform="translate(-135.61 -237.72)" d="m163.22 242.45v11c0 1.1046 0.89543 2 2 2h10l-1-1-10-9z"/>
 <path fill="#b2bfd9" d="m10 4c-1.108 0-2 0.892-2 2v36c0 1.108 0.892 2 2 2h28c1.108 0 2-0.892 2-2v-26l-11-1-1-11z"/>
 <path style="fill:#a341d1" d="m 17.391,22.9998 c 0,0 -2.391,0.001 -2.391,2.381 V 32.619 C 15,33.938 16.082,35 17.428,35 H 23 l 3,3 3,-3 h 0.57227 c 0,0 2.428,-10e-4 2.428,-2.381 v -7.2383 c 0,-2.38 -2.428,-2.381 -2.428,-2.381 h -12.182 z"/>
 <path fill="#fff" opacity=".2" d="m10 4c-1.108 0-2 0.892-2 2v1c0-1.108 0.892-2 2-2h18l11 11h1l-12-12z"/>
 <path style="opacity:0.2" d="m 28,5 v 10 c 0,1.1046 0.89543,2 2,2 h 10 z"/>
 <path fill="#fafafa" d="m28 4v10c0 1.1046 0.89543 2 2 2h10l-12-12z"/>
</svg>
