<svg xmlns="http://www.w3.org/2000/svg" width="48" height="48" version="1">
 <path style="opacity:0.2" d="M 10,5 C 8.892,5 8,5.892 8,7 v 36 c 0,1.108 0.892,2 2,2 h 28 c 1.108,0 2,-0.892 2,-2 V 17 L 29,16 28,5 Z"/>
 <path fill="#b2bfd9" d="m10 4c-1.108 0-2 0.892-2 2v36c0 1.108 0.892 2 2 2h28c1.108 0 2-0.892 2-2v-26l-11-1-1-11z"/>
 <path fill="#fff" opacity=".2" d="m10 4c-1.108 0-2 0.892-2 2v1c0-1.108 0.892-2 2-2h18l11 11h1l-12-12z"/>
 <path style="opacity:0.2" d="m 28,5 v 10 c 0,1.1046 0.89543,2 2,2 h 10 z"/>
 <path fill="#fafafa" d="m28 4v10c0 1.1046 0.89543 2 2 2h10l-12-12z"/>
 <path style="opacity:0.5" d="M 23.5 21 C 20.657925 21.0024 18.285714 23.169693 18.027344 26 L 21.050781 26 C 21.288357 24.836122 22.312122 24.000129 23.5 24 C 24.880712 24 26 25.119288 26 26.5 C 26 29 22 29.000006 22 34.021484 L 25 33.978516 C 24.756308 30.50275 28.916942 29.608005 29 26.5 C 29 23.462434 26.537566 21 23.5 21 z M 22 36 L 22 39.085938 L 25 39.085938 L 25 36 L 22 36 z"/>
</svg>
