<svg xmlns="http://www.w3.org/2000/svg" width="48" height="48" version="1">
 <path style="opacity:0.2" d="M 10,5 C 8.892,5 8,5.892 8,7 v 36 c 0,1.108 0.892,2 2,2 h 28 c 1.108,0 2,-0.892 2,-2 V 17 L 29,16 28,5 Z"/>
 <path fill="#dc682a" d="m10 4c-1.108 0-2 0.892-2 2v36c0 1.108 0.892 2 2 2h28c1.108 0 2-0.892 2-2v-26l-11-1-1-11z"/>
 <path fill="#fff" style="opacity:0.2" d="m10 4c-1.108 0-2 0.892-2 2v1c0-1.108 0.892-2 2-2h18l11 11h1l-12-12z"/>
 <path style="opacity:0.2" d="m 28,5 v 10 c 0,1.1046 0.89543,2 2,2 h 10 z"/>
 <path fill="#e58c5c" d="m28 4v10c0 1.1046 0.89543 2 2 2h10l-12-12z"/>
 <path style="opacity:0.2" d="M 23,19 18,35 14.922,25 H 8 v 3 h 5.062 L 18,42 l 5,-16 3,10 4,-11 3,11 h 7 v -3 h -5 l -5,-13 -4,8 z"/>
 <path style="fill:#f4f4f7" d="M 23,18 18,34 14.922,24 H 8 v 3 h 5.062 L 18,41 l 5,-16 3,10 4,-11 3,11 h 7 v -3 h -5 l -5,-13 -4,8 z"/>
</svg>
