<svg xmlns="http://www.w3.org/2000/svg" width="16" height="16" version="1.1">
 <path style="fill:#00879d" d="M 2.8125,0 C 2.362375,0 2,0.3568 2,0.8 V 15.2 C 2,15.6432 2.362375,16 2.8125,16 h 11.375 C 14.637625,16 15,15.6432 15,15.2 V 5 L 10.9375,4 10,0 Z"/>
 <path style="fill:#00a6c1" d="M 15,5 10,0 V 4.1666667 C 10,4.6283333 10.371667,5 10.833333,5 Z"/>
 <path style="fill:#f4f4f7" d="M 7.3907878,6.0027906 C 7.2217518,5.9975553 7.0541067,5.9997387 6.8905285,6.0089062 6.6724241,6.0211336 6.4610604,6.0461792 6.2628237,6.0837991 5.8767272,6.2139773 5.554623,6.3846118 5.3333517,6.7990999 5.095198,7.19224 5.0112484,7.5822541 5.0037518,7.9706339 c -0.00568,0.302487 -0.057987,1.5315239 0.5046542,2.3154021 0.2063715,0.252214 0.5106669,0.520155 0.8745385,0.671741 0.8482396,0.267441 1.1123481,-0.323965 1.5417953,-1.195989 -0.1029078,0.464245 -0.1520902,0.94218 -0.506119,1.340424 0.2867559,0.463746 0.7579411,0.347066 1.2034059,0.755194 0.088933,0.0824 0.2295382,0.129606 0.099612,0.33931 -0.1888644,0.324794 -0.2019852,0.532298 -0.4035768,0.790193 -0.1320233,0.183371 -0.21769,0.309407 -0.2614824,0.454705 -0.040287,0.3217 -0.012342,0.604944 0.1530808,0.913231 0.076614,0.166214 0.1709742,0.323416 0.3010345,0.476103 0.1351917,0.169574 0.2228503,0.211006 0.446791,0.126859 0.1880079,-0.06905 0.3236555,-0.153959 0.4724266,-0.310269 0.066205,-0.113581 0.082304,-0.361953 -0.107669,-0.465405 C 9.2531694,14.136343 9.1792529,14.088043 9.13254,14.035405 9.050206,13.942625 8.9680348,13.852812 8.9574858,13.709852 8.9504458,13.614362 9.0820016,13.453841 9.0820016,13.453841 9.5771504,12.986993 9.975223,12.531083 10.22901,12.237218 10.786854,11.576305 11.058963,10.48109 10.989286,9.4256902 11.003246,8.6300476 10.677572,7.7503602 10.13599,7.0681019 9.799483,6.6771992 9.4260792,6.3864798 8.8871714,6.2465757 8.4184968,6.0994251 7.8978956,6.0184921 7.3907878,6.0027906 Z m 2.3092126,2.3369338 c 0.207113,2e-7 0.3750106,0.1751803 0.3750106,0.3912757 0,0.2160954 -0.1678976,0.3912754 -0.3750106,0.3912756 -0.2071132,2e-7 -0.3750118,-0.1751799 -0.3750118,-0.3912756 0,-0.2160957 0.1678985,-0.3912759 0.3750118,-0.3912757 z M 9.4465493,10.015122 c 0.039506,0.0044 0.078558,0.03842 0.148686,0.09629 l 1.1125817,0.869672 c -0.152066,-0.004 -0.351685,0.04818 -0.57277,0.0298 -0.4805194,-0.03993 -1.0541748,-0.166946 -1.1008642,-0.330903 -0.026352,-0.227499 0.02447,-0.405157 0.2600181,-0.585385 0.072559,-0.05905 0.1128431,-0.08391 0.1523484,-0.07948 z"/>
</svg>
