<svg xmlns="http://www.w3.org/2000/svg" width="16" height="16" version="1.1">
 <path style="fill:#9264c3" d="m2.75 1c-0.4172 0-0.75 0.3328-0.75 0.75v13.5c0 0.417 0.3328 0.75 0.75 0.75h10.5c0.418 0 0.75-0.332 0.75-0.75v-9.25l-4.125-0.875-0.875-4.125z"/>
 <path style="fill:#b783f6" d="m9 1v4.1667c0 0.4584 0.3749 0.8333 0.8333 0.8333h4.1667z"/>
 <g transform="translate(0.3898305,-0.008475)">
  <path style="fill:#f4f4f7" d="m 8.1101695,7.0084746 c -1.932997,0 -3.5,1.567003 -3.5,3.5000004 0,1.932997 1.567003,3.5 3.5,3.5 H 13.61017 v -1 H 8.1101695 c -1.380712,0 -2.5,-1.119288 -2.5,-2.5 0,-1.3807124 1.119288,-2.5000004 2.5,-2.5000004 0.344234,3.94e-4 0.684677,0.07187 1,0.209961 v -1.060547 c -0.324344,-0.097944 -0.661192,-0.148273 -1,-0.149414 z"/>
  <path style="fill:#c090f9" d="m 8.1101695,9.0084746 c -0.828427,0 -1.5,0.671573 -1.5,1.5000004 0,0.828427 0.671573,1.5 1.5,1.5 H 13.61017 v -1 h -2.5 -1.5878915 -1.412109 c -0.276142,0 -0.5,-0.223858 -0.5,-0.5 0,-0.276142 0.223858,-0.5 0.5,-0.5 h 1.408203 C 9.3117805,9.4271296 8.7623845,9.0084746 8.1101695,9.0084746 Z"/>
 </g>
</svg>
