<svg xmlns="http://www.w3.org/2000/svg" width="16" height="16" version="1.1">
 <path style="fill:#26557c" d="M 2.8125,0 C 2.362375,0 2,0.3568 2,0.8 V 15.2 C 2,15.6432 2.362375,16 2.8125,16 h 11.375 C 14.637625,16 15,15.6432 15,15.2 V 5 L 10.9375,4 10,0 Z"/>
 <path style="fill:#396b95" d="M 15,5 10,0 V 4.1666667 C 10,4.6283333 10.371667,5 10.833333,5 Z"/>
 <path style="fill:#f4f4f7" d="m 12.82949,13.938201 c -0.05804,-0.03494 -0.376456,-0.202614 -0.707559,-0.372593 -0.689205,-0.353807 -1.376609,-0.895525 -1.376609,-1.084799 0,-0.167976 0.225372,-0.302251 0.569924,-0.339614 0.165368,-0.01792 0.382177,-0.04724 0.481787,-0.06517 l 0.181122,-0.03259 -0.268528,-0.180833 C 11.455597,11.691538 11.258921,11.606643 10.682345,11.41914 10.309038,11.29776 10.038139,11.014786 9.7329119,10.427497 8.9378291,8.8975432 8.7905515,8.646136 8.5203591,8.3575436 8.216131,8.032566 7.7770902,7.6939884 7.1875604,7.3297516 6.6087016,6.9720928 6.5185409,6.939708 6.1010063,6.939708 5.7685216,6.939708 5.6984506,6.92274 5.4914194,6.7920484 5.1643668,6.5856192 4.8394356,6.4579744 4.6378691,6.4567304 4.3783576,6.4551304 4.4090347,6.6259744 4.7348791,6.997026 5.0511732,7.3572036 5.1258316,7.4807888 5.2833628,7.9049956 5.3482038,8.0796 5.5233212,8.4175884 5.672515,8.6560768 c 0.1491908,0.2384856 0.271253,0.454666 0.271253,0.4804144 0,0.02574 -0.06254,0.2118012 -0.1389793,0.4134812 -0.168029,0.4433177 -0.2145174,0.9173916 -0.1244278,1.2688876 0.1563363,0.609955 0.3482993,0.693036 0.4575203,0.198006 0.094803,-0.429719 0.2585563,-0.689363 0.4340231,-0.688237 0.053987,3.26e-4 0.2260285,0.244029 0.4798915,0.679703 0.2176481,0.373541 0.5320913,0.845392 0.6987511,1.048562 0.1666607,0.203174 0.2922646,0.379259 0.2791216,0.391318 -0.031145,0.02858 -0.462406,-0.306518 -0.7768586,-0.603584 C 7.1166953,11.716024 6.921514,11.482465 6.8190756,11.325576 6.6422935,11.054892 6.6303754,11.046258 6.5852078,11.15616 c -0.026161,0.06369 -0.064128,0.185574 -0.084343,0.270844 -0.058301,0.245944 -0.2210228,0.4016 -0.419816,0.4016 -0.2783082,0 -0.4779307,-0.25728 -0.6401547,-0.825036 C 5.3324991,10.62422 5.3600041,9.8171982 5.4950381,9.41474 5.582123,9.1551996 5.5820716,9.1547428 5.4524425,9.0275104 5.2855663,8.8637092 5.1905748,8.6881624 4.9851829,8.1640448 4.8549117,7.8316004 4.7345372,7.6398376 4.4355419,7.2883116 4.1666743,6.9722232 4.0422759,6.7815864 4.0176541,6.6479868 3.9413182,6.233468 4.115304,5.9927872 4.4859423,6.0001652 c 0.2865556,0.00571 0.8732855,0.1865388 1.1260564,0.3470508 0.1491137,0.09469 0.2980821,0.1359676 0.5866052,0.1625336 0.709744,0.065351 1.4833555,0.4820736 2.2945101,1.2359396 0.7856976,0.7302216 1.3772849,1.5911692 1.597174,2.3243828 0.147351,0.491318 0.380249,0.72317 1.019663,1.015022 0.469445,0.214275 0.613767,0.311525 1.03998,0.700918 0.272184,0.248663 0.494869,0.488977 0.494869,0.534014 0,0.099 -0.220908,0.169422 -0.659537,0.210255 -0.615019,0.05725 -0.610295,0.04629 -0.149895,0.347436 0.784831,0.513363 1.06698,0.763555 1.150453,1.020177 0.03987,0.122528 -0.0019,0.133292 -0.156354,0.0403 z M 6.0746911,7.792132 C 6.0317585,7.6978652 5.949103,7.5974 5.8910145,7.5688816 5.767439,7.5082096 5.7547009,7.410446 5.8599259,7.3303248 5.9727464,7.2444256 6.300153,7.3839456 6.341649,7.5355984 6.4403695,7.896428 6.2190472,8.10911 6.0746782,7.792132 Z"/>
</svg>
