<svg xmlns="http://www.w3.org/2000/svg" width="16" height="16" version="1.1">
 <path fill="#4f4f4f" d="m2.75 1c-0.4172 0-0.75 0.3328-0.75 0.75v13.5c0 0.417 0.3328 0.75 0.75 0.75h10.5c0.418 0 0.75-0.332 0.75-0.75v-9.25l-4.125-0.875-0.875-4.125z"/>
 <path fill="#696969" d="m9 1v4.1667c0 0.4584 0.3749 0.8333 0.8333 0.8333h4.1667z"/>
 <path style="fill:#f4f4f7" d="m 12,13 h -1 v 1 h 1 z m 0,-5 h -1 v 4 h 1 z m -6,2 h 2 v 2 H 6 Z M 5,8 V 9 H 4 v 1 h 1 v 2 H 4 v 1 h 1 v 1 h 1 v -1 h 2 v 1 h 1 v -1 h 1 V 12 H 9 v -2 h 1 V 9 H 9 V 8 H 8 V 9 H 6 V 8 Z"/>
</svg>
