<svg xmlns="http://www.w3.org/2000/svg" width="16" height="16" version="1.1">
 <path style="fill:#7282d9" d="M 15.999508,15.164999 V 1.8350001 C 15.999508,1.371125 15.643826,1 15.201994,1 H 0.7975139 C 0.3558044,1 0,1.371125 0,1.8350001 V 15.164999 C 0,15.62875 0.3558044,16 0.7980062,16 H 15.201255 C 15.644319,16 16,15.62875 16,15.164999 Z"/>
 <path style="fill:#f4f4f7" d="M 5.3362,6.0003 H 9.69 c 0.33621,0 0.31,0.35589 0.31,0.35589 v 4.2878 c 0,0.356 -0.31,0.356 -0.31,0.356 H 5.3362 c 0,0 -0.3362,0 -0.3362,-0.356 v -4.2881 c 0,0 0,-0.3559 0.3362,-0.3559 z M 12,7 v 3 L 10,8.5003 Z"/>
</svg>
