<svg xmlns="http://www.w3.org/2000/svg" width="16" height="16" version="1.1">
 <path style="fill:#1c59a5" d="M 2.8008,1 C 2.3576,1 2,1.3576 2,1.8008 V 15.199 C 2,15.642 2.3576,16 2.8008,16 H 13.199 C 13.642,16 14,15.642 14,15.199 V 6 L 9,1 Z"/>
 <path style="fill:#6295d3" d="M 14,6 9,1 V 5.1992 C 9,5.6424 9.358,6 9.801,6 Z"/>
 <path style="fill:none;stroke:#f4f4f7;stroke-width:1px;stroke-linecap:round" d="M 11.5,10.5 C 8.5,9.5 12.5,8.5 9.5,7.5 M 9.5,13.5 C 12.5,12.5 8.5,11.5 11.5,10.5 M 4.5,10.5 C 7.5,9.5 3.5,8.5 6.5,7.5 M 6.5,13.5 C 3.5,12.5 7.5,11.5 4.5,10.5"/>
</svg>
