<svg xmlns="http://www.w3.org/2000/svg" width="16" height="16" version="1.1">
 <path style="fill:#ffba3a" d="M 2.8008,1 C 2.3576,1 2,1.3576 2,1.8008 V 15.199 C 2,15.642 2.3576,16 2.8008,16 H 13.199 C 13.642,16 14,15.642 14,15.199 V 6 L 9,1 Z"/>
 <path style="fill:#ffdea2" d="M 14,6 9,1 V 5.1992 C 9,5.6424 9.358,6 9.801,6 Z"/>
 <path style="fill:#17191e" d="M 7,8 7,9.510103 C 7,9.510103 7.1378337,10 6.2972936,10 6.011482,10 5.2714817,9.979307 5.0690826,9.607515 4.7930433,9.1005335 5.4569174,8 5.4569174,8 3.8014157,8.5381644 3.0000001,9.984868 3.0000001,11.285645 3.0000001,12.301142 3.9717497,13.394312 5.064,14 5.064,14 4.4395054,12.218303 5.133091,12 5.5090874,11.93726 5.7879054,12.616505 6,13 6,13 6.1379726,12.011441 6.6837329,12 7.2294927,11.98857 7.9076189,13.131319 8.0000001,14 8.0923811,13.131319 8.7705072,11.988558 9.316267,12 9.8620271,12.01144 10,13 10,13 c 0.212095,-0.383495 0.490913,-1.062735 0.866909,-1 0.693586,0.218303 0.06909,2 0.06909,2 C 12.02825,13.394312 13,12.301142 13,11.285645 13,9.984868 12.198584,8.5381644 10.543082,8 c 0,0 0.663876,1.1005335 0.387836,1.607515 C 10.728519,9.979305 9.9885182,10 9.7027066,10 8.8621661,10 9,9.510103 9,9.510103 L 9,8 8.3236608,9 8.0000001,9 7.6763394,9 Z"/>
</svg>
