<svg xmlns="http://www.w3.org/2000/svg" width="16" height="16" version="1.1">
 <path style="fill:#0a99d6" d="M 2.75,1 C 2.3328,1 2,1.3328 2,1.75 v 13.5 C 2,15.667 2.3328,16 2.75,16 h 10.5 C 13.668,16 14,15.668 14,15.25 V 6 L 9.875,5.125 9,1 Z"/>
 <path style="fill:#6ac1e6" d="M 9,1 V 5.1667 C 9,5.6251 9.3749,6 9.8333,6 H 14 Z"/>
 <path style="fill:#f4f4f7" d="M 8,7 C 5.790861,7 4,8.790861 4,11 H 7 V 9.5 L 9.5,12 7,14.5 V 13 H 4.5410156 C 5.2546319,14.236022 6.5727662,14.998173 8,15 10.209139,15 12,13.209139 12,11 12,8.790861 10.209139,7 8,7 Z"/>
</svg>
