<svg xmlns="http://www.w3.org/2000/svg" width="16" height="16" version="1.1">
 <path style="fill:#369eda" d="M 2.8125,0 C 2.362375,0 2,0.3568 2,0.8 V 15.2 C 2,15.6432 2.362375,16 2.8125,16 h 11.375 C 14.637625,16 15,15.6432 15,15.2 V 5 L 11,4 10,0 Z"/>
 <path style="fill:#81c2e8" d="M 15,5 10,0 V 4.1666667 C 10,4.6283333 10.371667,5 10.833333,5 Z"/>
 <path style="fill:#f4f4f7" d="M 7.8007812 7 C 6.7251679 7 5 7.6996094 5 9.0996094 C 5 10.499609 6.7503906 11.550391 7.2753906 11.900391 C 5.3503906 11.900391 4.3007813 10.150391 4.3007812 10.150391 C 4.3007812 10.150391 6.0492187 14 9.1992188 14 C 10.599219 14 12 12.950781 12 11.550781 C 12 10.500781 10.950391 9.4507812 9.9003906 8.9257812 C 12.000391 9.1007812 12.699219 10.5 12.699219 10.5 C 12.699219 10.5 11.300781 7 7.8007812 7 z M 8.3320312 9.0019531 C 8.8598653 9.0176931 9.4661213 9.2321844 9.9648438 9.65625 C 10.781879 10.350977 11.028673 11.373093 10.720703 11.980469 C 10.864053 11.568884 10.684169 11.047216 10.283203 10.710938 C 9.794253 10.301232 9.1455798 10.301232 8.8339844 10.710938 C 8.5224793 11.120949 8.6672907 11.787212 9.15625 12.197266 C 9.3528101 12.361844 9.5844761 12.467032 9.8164062 12.496094 C 9.2003236 12.538654 8.4076557 12.289267 7.8125 11.783203 C 6.9005508 11.007768 6.8013484 9.9265134 7.2890625 9.3671875 C 7.4719554 9.1574406 7.7675689 9.0357659 8.1113281 9.0078125 C 8.1829441 9.0019825 8.2566266 8.9997031 8.3320312 9.0019531 z"/>
</svg>
