<svg xmlns="http://www.w3.org/2000/svg" width="16" height="16" version="1.1">
 <path style="fill:#b2bfd9" d="m 2.8125001,2.4933332e-6 c -0.4519668,0 -0.8125,0.3549866466668 -0.8125,0.7999998466668 V 15.2 c 0,0.4448 0.3605332,0.800001 0.8125,0.800001 H 14.1875 C 14.640334,16.000001 15,15.645867 15,15.2 V 5 L 10.53125,4.4000019 10,2.4933332e-6 Z"/>
 <path style="fill:#fafafa" d="m 10,0 v 4.1667001 c 0,0.4584 0.3749,0.8333001 0.8333,0.8333001 H 15 Z"/>
 <path style="fill:#129a4d" d="M 6.5,9 C 5.1192881,9 4,10.119288 4,11.5 4,12.880712 5.1192881,14 6.5,14 c 1.1871442,-0.0011 2.2098371,-0.83684 2.4472656,-2 h 2.0273434 v 1 h 1 V 12 H 13 V 11 H 8.9492188 C 8.7116432,9.8361219 7.6878781,9.0001287 6.5,9 Z m 0,1 c 0.7228736,1.24e-4 1.3428353,0.515801 1.4746094,1.226562 v 0.546876 C 7.8428353,12.484199 7.2228736,12.999876 6.5,13 5.6715729,13 5,12.328427 5,11.5 5,10.671573 5.6715729,10 6.5,10 Z"/>
</svg>
