<svg xmlns="http://www.w3.org/2000/svg" width="16" height="16" version="1.1">
 <path fill="#b2bfd9" d="m2.75 1c-0.4172 0-0.75 0.3328-0.75 0.75v13.5c0 0.417 0.3328 0.75 0.75 0.75h10.5c0.418 0 0.75-0.332 0.75-0.75v-9.25l-4.125-0.875-0.875-4.125z"/>
 <path fill="#fafafa" d="m9 1v4.1667c0 0.4584 0.3749 0.8333 0.8333 0.8333h4.1667z"/>
 <path style="fill:#d84747" d="M 8,7 C 6.9219,7 6,7.5081 6,8.5146 V 9.9997 H 5.5 c 0,0 -0.5,0 -0.5,0.5 V 13.55 C 5,14 5.2188,14 5.4844,14 h 4.8645 c 0.266,0 0.651,0 0.651,-0.448 v -3.0519 c 0,-0.5 -0.5,-0.5 -0.5,-0.5 0,0 -0.07792,3.16e-4 -0.15107,3.16e-4 H 9.9999 v -1.4851 c 0,-1.0062 -0.9219,-1.5143 -2,-1.5143 z M 8,8 C 8.6667,7.9951 9,8.263 9,8.6577 v 1.342 H 7 V 8.6577 C 7,8.263 7.3333,8.0049 8,8 Z"/>
</svg>
