<svg xmlns="http://www.w3.org/2000/svg" width="16" height="16" version="1.1">
 <path style="fill:#b2bfd9" d="M 2.8008,1 C 2.3576,1 2,1.3576 2,1.8008 V 15.199 C 2,15.642 2.3576,16 2.8008,16 H 13.199 C 13.642,16 14,15.642 14,15.199 V 6 L 10,5 9,1 Z"/>
 <path style="fill:#f8f8f0" d="M 14,6 9,1 V 5.1992 C 9,5.6424 9.358,6 9.801,6 Z"/>
 <path style="fill:#0c49a0" d="m 8.8353964,7.8943467 c 0,0 -0.5273233,0.9148896 -0.8999249,1.2797281 C 7.7064927,9.3982829 7.4299782,9.5795984 7.1374122,9.7103867 6.5206212,9.986116 5.1729587,10.21027 5.1729587,10.21027 l 0.346073,0.472898 -0.3845255,0.849014 c 0,0 1.2095301,0.152768 1.7917543,0.323813 0.2941931,0.08642 0.5953204,0.380391 0.8493292,0.552142 0.4366727,0.295262 1.1056797,1.13064 1.1056797,1.13064 l 0.2657952,-0.532264 0.9404014,-0.05936 c 0,0 -0.347484,-1.167722 -0.425677,-1.769493 C 9.622279,10.873586 9.586104,10.559186 9.640875,10.257492 9.7350379,9.7388436 10.229807,8.7902238 10.229807,8.7902238 L 9.3231355,8.7456996 Z M 8.5540856,9.4911395 c 0.048206,0.00496 0.079234,0.015328 0.09377,0.021587 0.03742,0.028547 0.076033,0.055305 0.116707,0.079604 0.077376,0.046098 0.156729,0.082585 0.2374614,0.1092865 0.094536,0.101058 0.2686398,0.387875 0.2867077,1.142108 C 9.3071967,11.603724 9.108442,11.896405 9,12 8.8882353,12.05682 8.7835323,12.132602 8.6896812,12.224644 8.5866165,12.265564 8.2927726,12.211033 7.6730494,11.837936 7.001931,11.433474 6.9023654,10.995428 6.8878078,10.894006 c 0.00954,-0.12305 0.00318,-0.0459 -0.015515,-0.165638 l 0.00404,0.0075 c 0,0 -0.054856,-0.328855 0.7130588,-0.86417 C 8.104889,9.5125027 8.4094683,9.4762449 8.5540866,9.4911381 Z"/>
 <circle style="fill:#246dd4" cx="5.5" cy="10.5" r="1.5"/>
 <circle style="fill:#246dd4" cx="9.5" cy="8.5" r="1.5"/>
 <circle style="fill:#246dd4" cx="9.5" cy="13.5" r="1.5"/>
</svg>
