<svg width="16" height="16" version="1.1" xmlns="http://www.w3.org/2000/svg">
 <path d="M 2.8008,1 C 2.3576,1 2,1.3576 2,1.8008 V 15.199 C 2,15.642 2.3576,16 2.8008,16 H 13.199 C 13.642,16 14,15.642 14,15.199 V 6 L 10,5 9,1 Z" style="fill:#4f4f4f"/>
 <path d="M 14,6 9,1 V 5.1992 C 9,5.6424 9.358,6 9.801,6 Z" style="fill:#696969"/>
 <path d="m8 7c-0.4502679 0-0.8417258 0.0592083-1.1835938 0.1601562 0.7647735 0.3198597 1.1835938 1.0782627 1.1835938 1.8398438 0 1-0.6117132 3-2.4003906 3-0.4300651 0-0.7363062-0.257569-0.9667969-0.609375 0.2514164 1.036718 1.0103224 2.609375 3.3671875 2.609375 2.589594 0 3.260334-1.637817 3.435547-2.492188-0.218042 0.285245-0.512774 0.492188-0.935547 0.492188-1 0-1.5-1-1.5-2s0.5-2 1.5-2c0.06129 0 0.105726 0.0166804 0.162109 0.0214844-0.519631-0.5833021-1.342712-1.0214844-2.662109-1.0214844zm-2 1c-0.9 0-1.1992187 1.1992188-1.1992188 1.1992188 0 0 0.0589844 1.8007812 0.9589844 1.8007812 1.0732064 0 1.4394532-1.2007812 1.4394532-1.8007812s-0.4303448-1.1992188-1.1992188-1.1992188zm4.5 1c-0.5 0-0.75 0.5-0.75 1s0.25 1 0.75 1c0.75 0 0.75-1.25 0.75-1.25s0-0.75-0.75-0.75z" style="fill:#f4f4f7"/>
</svg>
