<svg xmlns="http://www.w3.org/2000/svg" width="16" height="16" version="1.1">
 <path fill="#4f4f4f" d="m2.75 1c-0.4172 0-0.75 0.3328-0.75 0.75v13.5c0 0.417 0.3328 0.75 0.75 0.75h10.5c0.418 0 0.75-0.332 0.75-0.75v-9.25l-4.125-0.875-0.875-4.125z"/>
 <path fill="#696969" d="m9 1v4.1667c0 0.4584 0.3749 0.8333 0.8333 0.8333h4.1667z"/>
 <path style="opacity:0.5;fill:#f4f4f7" d="M 3.1992 3 C 3.0884 3 3 3.0884 3 3.1992 L 3 5.8008 C 3 5.9116 3.0884 6 3.1992 6 L 4.8008 6 C 4.9116 6 5 5.9116 5 5.8008 L 5 3.1992 C 5 3.0884 4.9116 3 4.8008 3 L 3.1992 3 z M 6.1992 3 C 6.0884 3 6 3.0884 6 3.1992 L 6 5.8008 C 6 5.9116 6.0884 6 6.1992 6 L 6.8008 6 C 6.9116 6 7 5.9116 7 5.8008 L 7 3.1992 C 7 3.0884 6.9116 3 6.8008 3 L 6.1992 3 z M 8.1992 3 C 8.0884 3 8 3.0884 8 3.1992 L 8 5.8008 C 8 5.9116 8.0884 6 8.1992 6 L 8.8008 6 C 8.9116 6 9 5.9116 9 5.8008 L 9 3.1992 C 9 3.0884 8.9116 3 8.8008 3 L 8.1992 3 z M 4.1992 7 C 4.0884 7 4 7.0884 4 7.1992 L 4 9.8008 C 4 9.9116 4.0884 10 4.1992 10 L 5.8008 10 C 5.9116 10 6 9.9116 6 9.8008 L 6 7.1992 C 6 7.0884 5.9116 7 5.8008 7 L 4.1992 7 z M 7.1992 7 C 7.0884 7 7 7.0884 7 7.1992 L 7 9.8008 C 7 9.9116 7.0884 10 7.1992 10 L 7.8008 10 C 7.9116 10 8 9.9116 8 9.8008 L 8 7.1992 C 8 7.0884 7.9116 7 7.8008 7 L 7.1992 7 z M 9.1992 7 C 9.0884 7 9 7.0884 9 7.1992 L 9 9.8008 C 9 9.9116 9.0884 10 9.1992 10 L 9.8008 10 C 9.9116 10 10 9.9116 10 9.8008 L 10 7.1992 C 10 7.0884 9.9116 7 9.8008 7 L 9.1992 7 z M 11.199 7 C 11.088 7 11 7.0884 11 7.1992 L 11 9.8008 C 11 9.9116 11.088 10 11.199 10 L 12.801 10 C 12.912 10 13 9.9116 13 9.8008 L 13 7.1992 C 13 7.0884 12.912 7 12.801 7 L 11.199 7 z M 3.1992 11 C 3.0884 11 3 11.088 3 11.199 L 3 13.801 C 3 13.912 3.0884 14 3.1992 14 L 3.8008 14 C 3.9116 14 4 13.912 4 13.801 L 4 11.199 C 4 11.088 3.9116 11 3.8008 11 L 3.1992 11 z M 5.1992 11 C 5.0884 11 5 11.088 5 11.199 L 5 13.801 C 5 13.912 5.0884 14 5.1992 14 L 6.8008 14 C 6.9116 14 7 13.912 7 13.801 L 7 11.199 C 7 11.088 6.9116 11 6.8008 11 L 5.1992 11 z M 8.1992 11 C 8.0884 11 8 11.088 8 11.199 L 8 13.801 C 8 13.912 8.0884 14 8.1992 14 L 9.8008 14 C 9.9116 14 10 13.912 10 13.801 L 10 11.199 C 10 11.088 9.9116 11 9.8008 11 L 8.1992 11 z M 11.199 11 C 11.088 11 11 11.088 11 11.199 L 11 13.801 C 11 13.912 11.088 14 11.199 14 L 11.801 14 C 11.912 14 12 13.912 12 13.801 L 12 11.199 C 12 11.088 11.912 11 11.801 11 L 11.199 11 z"/>
</svg>
