<svg xmlns="http://www.w3.org/2000/svg" width="16" height="16" version="1.1">
 <path style="fill:#c25824" d="M 2.0026,5.1807 C 2.0011,5.2074 2.0002,5.234 2,5.2607 V 10.704 C 2.0002,11.273 2.2903,11.798 2.7611,12.082 L 7.2389,14.786 C 7.7099,15.071 8.2901,15.071 8.7611,14.786 L 13.239,12.082 C 13.71,11.798 14,11.272 14,10.703 V 5.2607 C 13.999,5.2406 13.998,5.2206 13.997,5.2006 14,5.1999 2.0026,5.1807 2.0026,5.1807 Z"/>
 <path style="fill:#f36128" d="M 8.0358,1 V 1.0007 A 1.523,1.6107 0 0 0 7.2384,1.2151 L 2.7571,3.9516 A 1.523,1.6107 0 0 0 2,5.243 1.523,1.6107 0 0 0 2.7571,6.5476 L 7.2384,9.284 A 1.523,1.6107 0 0 0 8.7616,9.284 L 13.243,6.5476 A 1.523,1.6107 0 0 0 14,5.2561 1.523,1.6107 0 0 0 13.243,3.9516 L 8.7616,1.2151 A 1.523,1.6107 0 0 0 8.0358,1 Z"/>
 <path style="opacity:0.1" d="M 2.0028,5.1806 C 2.0018,5.1981 2.0014,5.2158 2.0009,5.2333 A 1.523,1.6107 0 0 1 2.0061,5.1806 Z M 2.0005,5.2475 C 2.0004,5.2519 2,5.2563 2,5.2607 V 10.704 C 2.0002,11.273 2.2904,11.798 2.7613,12.082 L 7.2387,14.786 C 7.4811,14.933 7.7296,15.004 8,15 V 9.4984 A 1.523,1.6107 0 0 1 7.2383,9.2841 L 2.757,6.5478 A 1.523,1.6107 0 0 1 2.0005,5.2475 Z"/>
 <path style="fill:#b2bfd9" d="M 10.767,7.2247 C 9.8171,7.8024 8.5922,8.1671 8,8.2583 7.4078,8.3496 6.62,8.3751 5.3915,8.1564 L 4,7.3018 C 4.5598,7.4173 5.935,7.6411 6.7885,7.6624 7.642,7.6837 8.8622,7.4315 9.8125,6.8655 9.8762,6.8275 9.9395,6.788 10.002,6.747 11.429,5.8121 11.309,4.4829 10.136,3.7256 8.8201,2.8764 7.0613,2.8381 5.6699,3.7614 4.736,4.3812 4.4733,5.3686 5.4737,5.9527 6.2601,6.4119 7.4228,6.4483 8.3193,5.9137 9.0507,5.4775 8.8628,4.9951 8.5658,4.8076 8.2832,4.6293 7.7452,4.508 7.2349,4.7207 6.8242,4.8919 6.6962,5.4129 7.5315,5.4805 7.1795,5.7228 6.6307,5.7829 6.2051,5.5436 5.3743,5.0763 5.8916,4.3523 6.51,4.0628 7.6528,3.5277 8.6506,3.6926 9.493,4.2359 10.365,4.7986 10.302,5.8019 9.2475,6.4661 8.4128,6.9916 7.2578,7.3701 5.566,6.9196 3.8741,6.469 3.4449,5.4782 3.7803,4.4212 4.0528,3.5931 5.2144,2.6772 6.8688,2.4105 8.5232,2.1438 9.8478,2.3342 11.08,3.1359 12.822,4.2693 12.836,5.966 10.767,7.2247 V 7.2247"/>
</svg>
