<svg xmlns="http://www.w3.org/2000/svg" width="16" height="16" version="1.1">
 <path style="fill:#b2bfd9" d="M 2.8675333,0 C 2.3874,0 2,0.38144001 2,0.85418669 V 15.1456 c 0,0.472534 0.3874,0.854401 0.8675333,0.854401 H 14.13225 C 14.612166,16.000001 15,15.618134 15,15.1456 V 5 L 10,0 Z"/>
 <path style="fill:#f8f8f0" d="M 15,5 10,0 V 4.1992 C 10,4.6424 10.358,5 10.801,5 Z"/>
 <path style="fill:#d6342a" d="M 7.9353523,5.9999995 C 6.2843239,5.9999781 4.9999489,7.5310776 5,9.3311009 c 2.34e-5,1.7999651 1.1599625,3.1451101 2.810938,3.1450891 2.0813001,-0.148485 2.494899,-3.446138 0.6794929,-3.059524 -0.021905,0.07834 0.5090429,0.304235 0.5468746,0.71503 0.074359,0.807421 -0.5053599,1.293907 -1.2291012,1.140625 C 7.2794242,11.160329 6.6408635,10.667704 6.5168945,10.177082 6.4022733,9.723452 6.4594319,9.1792613 6.5811545,8.817707 7.1558163,7.1107561 9.1848039,6.6586539 9.9000034,6.6800585 9.3404588,6.2159893 8.7252585,6.0008884 7.9353541,5.9999995 Z M 9.1890637,7.523809 C 7.1077636,7.672294 6.6941644,10.969947 8.5095717,10.583333 8.531477,10.504989 8.0005279,10.279097 7.9626962,9.868303 7.8883375,9.0608817 8.4680561,8.5743954 9.1917974,8.7276773 9.7205775,8.8396692 10.359138,9.3322944 10.483107,9.822915 c 0.114622,0.453631 0.05746,0.997822 -0.06426,1.359377 -0.5746616,1.706951 -2.6036483,2.159053 -3.3188487,2.13765 C 7.6595438,13.78401 8.2747431,13.999111 9.0646475,14 10.715676,14.000022 12.000051,12.468921 12,10.668898 11.999977,8.8689324 10.840037,7.5237877 9.1890618,7.523809 Z"/>
</svg>
