<svg xmlns="http://www.w3.org/2000/svg" width="16" height="16" version="1.1">
 <path style="fill:#eb6637" d="M 2.8125,0 C 2.362375,0 2,0.3568 2,0.8 V 15.2 C 2,15.6432 2.362375,16 2.8125,16 h 11.375 C 14.637625,16 15,15.6432 15,15.2 V 5 L 10.9375,4 10,0 Z"/>
 <path style="fill:#f19676" d="M 15,5 10,0 V 4.1666667 C 10,4.6283333 10.371667,5 10.833333,5 Z"/>
 <path style="fill:#f4f4f7" d="M 5,7.4615384 V 12.538461 C 5,12.538461 5,13 5.5000003,13 H 11.499999 C 11.499999,13 12,13 12,12.538461 V 8.6095579 C 12,8.1480191 11.499999,8 11.499999,8 H 8.9999999 L 7.9999997,7 H 5.5000003 C 5.5000003,7 5,7 5,7.4615384 Z"/>
</svg>
