<svg xmlns="http://www.w3.org/2000/svg" width="16" height="16" version="1.1">
 <path fill="#ff5721" d="m2.75 1c-0.4172 0-0.75 0.3328-0.75 0.75v13.5c0 0.417 0.3328 0.75 0.75 0.75h10.5c0.418 0 0.75-0.332 0.75-0.75v-9.25l-4.125-0.875-0.875-4.125z"/>
 <path fill="#ff855e" d="m9 1v4.1667c0 0.4584 0.3749 0.8333 0.8333 0.8333h4.1667z"/>
 <path style="fill:#f4f4f7" d="M 6,7 C 4.8938,7 4,7.8938 4,9 c 0,1.106 0.8938,2 2,2 1.1062,0 2,-0.894 2,-2 H 6 Z"/>
 <path style="fill:#f4f4f7" d="m 9,8 v 1 h 3 V 8 Z"/>
 <path style="fill:#f4f4f7" d="m 9,10 v 1 h 3 v -1 z"/>
 <path fill="#fff" d="m4 12v1h6v-1z"/>
</svg>
