<svg xmlns="http://www.w3.org/2000/svg" width="16" height="16" version="1.1">
 <path style="fill:#b2bfd9" d="m 2.8125001,0 c -0.4519667,0 -0.8125,0.35498668 -0.8125,0.80000002 V 15.2 c 0,0.4448 0.3605333,0.800001 0.8125,0.800001 H 14.1875 C 14.640334,16.000001 15,15.645867 15,15.2 V 5 L 10.53125,4.4000001 10,0 Z"/>
 <path style="fill:#fafafa" d="M 10,0 V 4.1667 C 10,4.6251 10.3749,5 10.8333,5 H 15 Z"/>
 <path style="fill:#6b6cd0" d="m 4,8 v 1 h 1 v 3 H 6 V 9 H 7 V 8 Z"/>
 <path style="fill:#6b6cd0" d="m 7,9 v 4 h 3 V 12 H 8 v -0.5 h 2 v -1 H 8 V 10 h 2 V 9 Z"/>
 <path style="fill:#6b6cd0" d="m 10,8 1,2 -1,2 h 1 l 0.5,-1 0.5,1 h 1 L 12,10 13,8 H 12 L 11.5,9 11,8 Z"/>
</svg>
