<svg xmlns="http://www.w3.org/2000/svg" width="16" height="16" version="1.1">
 <path style="fill:#d92b1a" d="M 2.75,1 C 2.3328,1 2,1.3328 2,1.75 V 15.25 C 2,15.667 2.3328,16 2.75,16 H 13.25 C 13.668,16 14,15.668 14,15.25 V 6 L 9.875,5.125 9,1 Z"/>
 <path style="fill:#e88076" d="M 9,1 V 5.1667 C 9,5.6251 9.3749,6 9.8333,6 H 14 Z"/>
 <path style="fill:#f4f4f7" d="M 5,8.5 11,7 V 8.5 L 5,10 Z"/>
 <path style="fill:#f4f4f7" d="M 5,11 11,9.5 V 11 L 5,12.5 Z"/>
 <path style="fill:#f4f4f7" d="M 5,13.5 11,12 V 13.5 L 5,15 Z"/>
</svg>
