<svg xmlns="http://www.w3.org/2000/svg" width="16" height="16" version="1.1">
 <path style="fill:#f44336" d="M 2.8675333,0 C 2.3874,0 2,0.38144 2,0.85418667 V 15.1456 C 2,15.618133 2.3874,16 2.8675333,16 H 14.13225 C 14.612167,16 15,15.618133 15,15.1456 V 5 L 10,0 Z"/>
 <path style="fill:#f88e86" d="M 15,5 10,0 V 4.1992 C 10,4.6424 10.358,5 10.801,5 Z"/>
 <path style="fill:none;stroke:#f4f4f7;stroke-linejoin:round" d="M 8.5,7.5 H 11.5 V 13.5 H 5.5 V 10.5 Z M 11.5,7.5 5.5,13.5 M 11.5,13.5 7.5,11.5 9.5,9.5 Z"/>
</svg>
