<svg xmlns="http://www.w3.org/2000/svg" width="16" height="16" version="1">
 <path style="fill:#b2bfd9" d="M 0,4.56 0,14.2 C 0,14.6432 0.3568,15 0.8,15 l 13.4,0 c 0.4432,0 0.75427,-0.359166 0.8,-0.8 l 0,-9.64 z"/>
 <path style="fill:#f54b3e" d="M 15,5 15,1.8 C 15,1.3568 14.6432,1 14.2,1 L 0.8,1 C 0.3568,1 0,1.3568 0,1.8 L 0,5 Z"/>
 <rect style="opacity:0.2" width="2" height="2" x="8" y="6"/>
 <rect style="opacity:0.2" width="2" height="2" x="11" y="6"/>
 <rect style="opacity:0.2" width="2" height="2" x="5" y="6"/>
 <rect style="opacity:0.2" width="2" height="2" x="2" y="6"/>
 <circle style="fill:#f54b3e" cx="9" cy="10" r="1"/>
 <circle style="fill:#f4f4f7" cx="2.5" cy="2.5" r=".5"/>
 <circle style="fill:#f4f4f7" cx="12.5" cy="2.5" r=".5"/>
 <rect style="opacity:0.2" width="2" height="2" x="11" y="9"/>
 <rect style="opacity:0.2" width="2" height="2" x="5" y="9"/>
 <rect style="opacity:0.2" width="2" height="2" x="2" y="9"/>
 <rect style="opacity:0.2" width="2" height="2" x="8" y="12"/>
 <rect style="opacity:0.2" width="2" height="2" x="11" y="12"/>
 <rect style="opacity:0.2" width="2" height="2" x="5" y="12"/>
 <rect style="opacity:0.2" width="2" height="2" x="2" y="12"/>
</svg>
