<svg xmlns="http://www.w3.org/2000/svg" width="16" height="16" version="1.1">
 <path style="fill:#31519b" d="M 2.75,1 C 2.3328,1 2,1.3328 2,1.75 V 15.25 C 2,15.667 2.3328,16 2.75,16 H 13.25 C 13.668,16 14,15.668 14,15.25 V 6 L 9.875,5.125 9,1 Z"/>
 <path style="fill:#4d6eb9" d="M 9,1 V 5.1667 C 9,5.6251 9.3749,6 9.8333,6 H 14 Z"/>
 <circle style="fill:#f4f4f7" cx="11" cy="8" r="1"/>
 <path style="fill:#f4f4f7" d="M 8,8 A 3,3 0 0 0 5,11 3,3 0 0 0 8,14 3,3 0 0 0 11,11 3,3 0 0 0 8,8 Z M 9,9 A 1,1 0 0 1 10,10 1,1 0 0 1 9,11 1,1 0 0 1 8,10 1,1 0 0 1 9,9 Z"/>
</svg>
