<svg xmlns="http://www.w3.org/2000/svg" width="16" height="16" version="1.1">
 <path fill="#b2bfd9" d="m2.75 1c-0.4172 0-0.75 0.3328-0.75 0.75v13.5c0 0.417 0.3328 0.75 0.75 0.75h10.5c0.418 0 0.75-0.332 0.75-0.75v-9.25l-4.125-0.875-0.875-4.125z"/>
 <path fill="#fafafa" d="m9 1v4.1667c0 0.4584 0.3749 0.8333 0.8333 0.8333h4.1667z"/>
 <path style="fill:#c554d9" d="m7 8v6h1v-3h1v3h1v-4h-2v-2h-1zm-2 4c-0.5521 0-1 0.448-1 1s0.4479 1 1 1 1-0.448 1-1-0.4479-1-1-1z"/>
</svg>
