<svg xmlns="http://www.w3.org/2000/svg" width="16" height="16" version="1.1">
 <path fill="#b2bfd9" d="m2.75 1c-0.4172 0-0.75 0.3328-0.75 0.75v13.5c0 0.417 0.3328 0.75 0.75 0.75h10.5c0.418 0 0.75-0.332 0.75-0.75v-9.25l-4.125-0.875-0.875-4.125z"/>
 <path fill="#fafafa" d="m9 1v4.1667c0 0.4584 0.3749 0.8333 0.8333 0.8333h4.1667z"/>
 <path style="fill:#8d6e63" d="m7 7v1.1738a3 3 0 0 0 -0.29102 0.12109l-0.83008-0.83008-1.4141 1.4141 0.83008 0.83008a3 3 0 0 0 -0.11914 0.29102h-1.1758v2h1.1738a3 3 0 0 0 0.12109 0.29102l-0.83008 0.83008 1.4141 1.4141 0.83008-0.83008a3 3 0 0 0 0.29102 0.11914v1.1758h2v-1.1738a3 3 0 0 0 0.29102 -0.12109l0.83008 0.83008 1.4141-1.4141-0.83008-0.83008a3 3 0 0 0 0.119 -0.291h1.176v-2h-1.1738a3 3 0 0 0 -0.121 -0.291l0.83-0.8301-1.414-1.4141-0.83 0.8301a3 3 0 0 0 -0.29102 -0.11914v-1.1758h-2zm1 2a2 2 0 0 1 2 2 2 2 0 0 1 -2 2 2 2 0 0 1 -2 -2 2 2 0 0 1 2 -2z"/>
</svg>
