<svg xmlns="http://www.w3.org/2000/svg" width="16" height="16" version="1.1">
 <path style="fill:#b2bfd9" d="m 2.8125001,0 c -0.4519667,0 -0.8125,0.35498668 -0.8125,0.80000002 V 15.2 c 0,0.4448 0.3605333,0.800001 0.8125,0.800001 H 14.1875 C 14.640334,16.000001 15,15.645867 15,15.2 V 5 L 10.53125,4.4000001 10,0 Z"/>
 <path style="fill:#fafafa" d="M 10,-4.7e-7 V 4.1666999 C 10,4.6251 10.3749,5 10.8333,5 H 15 Z"/>
 <path style="fill:#8b82a4" d="M 4.055,7 6.0003,10.5 4.055,14 h 1.5 L 7.5003,10.5 5.555,7 Z"/>
 <path style="fill:#5f5088" d="M 6.555,7 8.5003,10.5 6.555,14 h 1.5293 l 1.166,-2 1.166,2 h 1.529 L 8.055,7 Z"/>
 <path style="fill:#8b82a4" d="m 10.1663,9 0.5567,1 h 2.2773 V 9 Z"/>
 <path style="fill:#8b82a4" d="m 11.2773,11 0.557,1 h 1.166 v -1 z"/>
</svg>
