<svg xmlns="http://www.w3.org/2000/svg" width="16" height="16" version="1.1">
 <path fill="#b2bfd9" d="m2.75 1c-0.4172 0-0.75 0.3328-0.75 0.75v13.5c0 0.417 0.3328 0.75 0.75 0.75h10.5c0.418 0 0.75-0.332 0.75-0.75v-9.25l-4.125-0.875-0.875-4.125z"/>
 <path fill="#fafafa" d="m9 1v4.1667c0 0.4584 0.3749 0.8333 0.8333 0.8333h4.1667z"/>
 <path style="fill:#d74c4c" d="M 4 9 L 4 13 L 5 13 L 5 10.801 L 6 12.4 L 7 10.801 L 7 13 L 8 13 L 8 9 L 7 9 L 6 10.6 L 5 9 L 4 9 z M 10 9 L 10 11 L 9 11 L 10 13 L 11 13 L 12 11 L 11 11 L 11 9 L 10 9 z"/>
</svg>
