<svg xmlns="http://www.w3.org/2000/svg" width="16" height="16" version="1.1">
 <path fill="#b2bfd9" d="m2.75 1c-0.4172 0-0.75 0.3328-0.75 0.75v13.5c0 0.417 0.3328 0.75 0.75 0.75h10.5c0.418 0 0.75-0.332 0.75-0.75v-9.25l-4.125-0.875-0.875-4.125z"/>
 <path style="fill:#3173c9" d="M 5.8438,8 C 5.8438,8 5,8.0007 5,8.7949 V 12.207 C 5,12.645 5.3852,13.028 5.8574,13 h 1.8691 l 1.0918,1 1.0898,-1 h 0.23438 c 10e-4,0 0.858,10e-4 0.858,-0.793 V 8.7949 C 11.00048,8.0004 10.14348,8 10.14348,8 Z M 6,9 h 4 v 1 H 6 Z m 0,2 h 3 v 1 H 6 Z"/>
 <path fill="#fafafa" d="m9 1v4.1667c0 0.4584 0.3749 0.8333 0.8333 0.8333h4.1667z"/>
</svg>
