<svg xmlns="http://www.w3.org/2000/svg" width="16" height="16" version="1.1">
 <path fill="#b2bfd9" d="m2.75 1c-0.4172 0-0.75 0.3328-0.75 0.75v13.5c0 0.417 0.3328 0.75 0.75 0.75h10.5c0.418 0 0.75-0.332 0.75-0.75v-9.25l-4.125-0.875-0.875-4.125z"/>
 <path fill="#fafafa" d="m9 1v4.1667c0 0.4584 0.3749 0.8333 0.8333 0.8333h4.1667z"/>
 <path style="fill:#7142d2" d="m8 7c-1.1041 0-2 0.8959-2 2 0 1.104 0.8959 2 2 2s2-0.896 2-2c0-1.1041-0.8959-2-2-2zm-1.7129 5c-1.2864 0-1.2871 2-1.2871 2h6s-0.001-2-1.2871-2h-3.4258z"/>
</svg>
