<svg xmlns="http://www.w3.org/2000/svg" width="16" height="16" version="1.1">
 <path fill="#1e98d1" d="m2.75 1c-0.4172 0-0.75 0.3328-0.75 0.75v13.5c0 0.417 0.3328 0.75 0.75 0.75h10.5c0.418 0 0.75-0.332 0.75-0.75v-9.25l-4.125-0.875-0.875-4.125z"/>
 <path fill="#67bbe9" d="m9 1v4.1667c0 0.4584 0.3749 0.8333 0.8333 0.8333h4.1667z"/>
 <path style="fill:#f4f4f7" d="M 5.5996767,7.000166 A 0.58600224,0.60799619 0 0 0 5,7.608101 v 5.784094 a 0.58600224,0.60799619 0 0 0 0.8789154,0.526402 L 10.707228,11.02655 a 0.58600224,0.60799619 0 0 0 0,-1.0528054 L 5.8789154,7.081698 A 0.58600224,0.60799619 0 0 0 5.5996767,7.000168 Z"/>
</svg>
