<svg xmlns="http://www.w3.org/2000/svg" width="24" height="24" version="1.1">
 <circle style="opacity:0.2" cx="12" cy="12.5" r="10"/>
 <circle style="fill:#b2bfd9" cx="12" cy="12" r="10"/>
 <circle style="opacity:0.2" cx="12" cy="12" r="3"/>
 <path style="opacity:0.2;fill:#8b9cbe" d="M 12,2 A 10,10 0 0 0 2,12 10,10 0 0 0 2.0098,12.293 10,10 0 0 1 12,2.5 10,10 0 0 1 21.99,12.207 10,10 0 0 0 22,12 10,10 0 0 0 12,2 Z"/>
 <path style="opacity:0.1" d="M 10.666667,7.5 C 10.297333,7.5 10,7.7477777 10,8.0555556 v 2.2515184 c 0,0 0.722656,0.529268 0.722656,0.886503 C 10.722656,11.550811 10,12.080079 10,12.080079 v 4.864365 C 10,17.252223 10.297333,17.5 10.666667,17.5 h 2.666666 C 13.702667,17.5 14,17.252223 14,16.944444 v -2.242837 l -0.0065,-0.0076 c 0,0 -0.753784,-0.551895 -0.753906,-0.924478 C 13.239472,13.396662 13.9935,12.84398 13.9935,12.84398 L 14,12.836373 V 8.0555556 C 14,7.7477777 13.702667,7.5 13.333333,7.5 Z"/>
 <path style="fill:#394045" d="M 10.666667,7 C 10.297333,7 10,7.2477777 10,7.5555556 v 2.2515188 c 0,0 0.722656,0.5292676 0.722656,0.8865026 C 10.722656,11.050811 10,11.580079 10,11.580079 v 4.864365 C 10,16.752223 10.297333,17 10.666667,17 h 2.666666 C 13.702667,17 14,16.752223 14,16.444444 v -2.242837 l -0.0065,-0.0076 c 0,0 -0.753784,-0.551895 -0.753906,-0.924478 C 13.239472,12.896662 13.9935,12.34398 13.9935,12.34398 L 14,12.336373 V 7.5555556 C 14,7.2477777 13.702667,7 13.333333,7 Z"/>
 <path style="opacity:0.1" d="m 12,4.5 c -4.4064335,0 -8,3.5935665 -8,8 0,4.406433 3.5935665,8 8,8 4.406433,0 8,-3.593567 8,-8 0,-4.4064335 -3.593567,-8 -8,-8 z m 0,2 c 3.325553,0 6,2.674447 6,6 0,3.325553 -2.674447,6 -6,6 -3.325553,0 -6,-2.674447 -6,-6 0,-3.325553 2.674447,-6 6,-6 z"/>
 <path style="fill:#0076e2" d="m 12,4 c -4.4064335,0 -8,3.5935665 -8,8 0,4.406433 3.5935665,8 8,8 4.406433,0 8,-3.593567 8,-8 0,-4.4064335 -3.593567,-8 -8,-8 z m 0,2 c 3.325553,0 6,2.674447 6,6 0,3.325553 -2.674447,6 -6,6 C 8.674447,18 6,15.325553 6,12 6,8.674447 8.674447,6 12,6 Z"/>
</svg>
