<svg xmlns="http://www.w3.org/2000/svg" height="24" width="24" version="1.1">
 <circle cx="12" cy="12.5" r="10" style="opacity:.2"/>
 <circle cx="12" cy="12" r="10" style="fill:#309fb1"/>
 <path d="m12 2a10 10 0 0 0 -10 10 10 10 0 0 0 0.0098 0.293 10 10 0 0 1 9.9902 -9.793 10 10 0 0 1 9.99 9.707 10 10 0 0 0 0.01 -0.207 10 10 0 0 0 -10 -10z" style="opacity:.2;fill:#8b9cbe"/>
 <path style="opacity:.2" d="m8 9.5c-1 0-1 1-1 1s-0.0001608 2-1.5507812 2c-0.8690732 0-1.2116239-0.625463-1.3515626-1.177734-0.0615434 0.389633-0.0941845 0.783285-0.0976562 1.177734 0 4.418278 3.581722 8 8 8s8-3.581722 8-8c0 0-0.000874-1-0.445312-1-0.444441 0-0.554688 1-0.554688 1v2s-0.000404 1-0.433594 1c-0.56681 0-0.566406-1-0.566406-1v-2s0-1-0.455078-1c-0.544922 0-0.544922 1-0.544922 1v1s0 1-1 1-1-1-1-1v-2s-0.000742-2-1.476562-2c-1.475819 0-1.523438 2-1.523438 2v3s-0.000794 2-1.515625 2c-1.5148305 0-1.484375-2-1.484375-2v-4s0-1-1-1z"/>
 <path style="fill:#8b9cbe" d="m8 9c-1 0-1 1-1 1s-0.0001608 2-1.5507812 2c-0.8690732 0-1.2116239-0.625463-1.3515626-1.177734-0.0615434 0.389633-0.0941845 0.783285-0.0976562 1.177734 0 4.418278 3.581722 8 8 8s8-3.581722 8-8c0 0-0.000874-1-0.445312-1-0.444441 0-0.554688 1-0.554688 1v2s-0.000404 1-0.433594 1c-0.56681 0-0.566406-1-0.566406-1v-2s0-1-0.455078-1c-0.544922 0-0.544922 1-0.544922 1v1s0 1-1 1-1-1-1-1v-2s-0.000742-2-1.476562-2c-1.475819 0-1.523438 2-1.523438 2v3s-0.000794 2-1.515625 2c-1.5148305 0-1.484375-2-1.484375-2v-4s0-1-1-1z"/>
</svg>
