<svg width="24" height="24" version="1.1" xmlns="http://www.w3.org/2000/svg">
 <rect x="2" y="2.5" width="20" height="20" rx="2" ry="2" style="opacity:.2"/>
 <rect x="2" y="2" width="20" height="20" rx="2" ry="2" style="fill:#5e5e5e"/>
 <path d="m5 7.5v10h1v1h-1v1h-1v2h1v1h14v-1h1v-1h-1v-2h-1v-1h1v-10z" style="opacity:.2"/>
 <path d="m5 7v10h1v1h-1v1h-1v2h1v1h14v-1h1v-1h-1v-2h-1v-1h1v-10z" style="fill:#17191e"/>
 <path d="m6 8.5v9h12v-9zm2 3h3v1h-3zm5 0h3v1h-3zm-7 7v2h1v1h-1v1h12v-1h-1v-2h1v-1z" style="opacity:.2"/>
 <path d="m6 8v9h12v-9zm2 3h3v1h-3zm5 0h3v1h-3zm-7 7v2h1v1h-1v1h12v-1h-1v-2h1v-1z" style="fill:#8b9cbe"/>
 <path d="m5 7v0.5h14v-0.5zm0 11v0.5h1v-0.5zm13 0v0.5h1v-0.5zm-14 1v0.5h1v-0.5zm15 1v0.5h1v-0.5z" style="fill:#8b9cbe;opacity:.1"/>
 <path d="m4 2c-1.108 0-2 0.892-2 2v0.5c0-1.108 0.892-2 2-2h16c1.108 0 2 0.892 2 2v-0.5c0-1.108-0.892-2-2-2z" style="fill:#8b9cbe;opacity:.2"/>
</svg>
