<svg width="24" height="24" version="1.1" xmlns="http://www.w3.org/2000/svg">
 <g transform="translate(1,1)">
  <rect x="1" y="1.5" width="20" height="20" rx="2" ry="2" style="opacity:.2"/>
  <rect x="1" y="1" width="20" height="20" rx="2" ry="2" style="fill:#4f4f4f"/>
  <path d="m11 4.5-6 3v2l6 3 4-2v3l-4 2-3.4863281-2-2.5136719 1.486328 6 3.513672 6-3.513672v-6.9218749zm0 2 3 2-3 2-3-2z" style="opacity:.2"/>
  <path d="m11 4-6 3v2l6 3 4-2v3l-4 2-3.4863281-2-2.5136719 1.486328 6 3.513672 6-3.513672v-6.9218749zm0 2 3 2-3 2-3-2z" style="fill:#8b9cbe"/>
  <path d="m3 1c-1.108 0-2 0.892-2 2v0.5c0-1.108 0.892-2 2-2h16c1.108 0 2 0.892 2 2v-0.5c0-1.108-0.892-2-2-2z" style="fill:#8b9cbe;opacity:.1"/>
 </g>
</svg>
