<svg width="24" height="24" version="1.1" xmlns="http://www.w3.org/2000/svg">
 <g transform="translate(1,1)">
  <rect x="1" y="1.5" width="20" height="20" ry="1" style="opacity:.2"/>
  <rect x="1" y="1" width="20" height="20" ry="1" style="fill:#4f4f4f"/>
  <path d="m3 6.5v10l3-3h3v3l-3 3h10l-3-3v-3h3l3 3v-10l-3 3h-3v-3l3-3h-10l3 3v3h-3z" style="opacity:.2"/>
  <path d="m3 6v10l3-3h3v3l-3 3h10l-3-3v-3h3l3 3v-10l-3 3h-3v-3l3-3h-10l3 3v3h-3z" style="fill:#fae214"/>
  <path d="m2 1c-0.554 0-1 0.446-1 1v0.5c0-0.554 0.446-1 1-1h18c0.554 0 1 0.446 1 1v-0.5c0-0.554-0.446-1-1-1z" style="fill:#8b9cbe;opacity:.1"/>
  <path d="m6 3 0.5 0.5h9l0.5-0.5zm-3 3v0.5l3 3h3v-0.5h-3zm16 0-3 3h-3v0.5h3l3-3zm-10 10-3 3h0.5l2.5-2.5zm4 0v0.5l2.5 2.5h0.5z" style="fill:#8b9cbe;opacity:.2"/>
 </g>
</svg>
