<svg width="24" height="24" version="1.1" xmlns="http://www.w3.org/2000/svg">
 <g transform="translate(1,1.041016)">
  <rect x=".99989998" y=".95889997" width="20" height="20" rx="1" ry="1" style="fill:#97719d"/>
  <path d="m1.9999 0.9589c-0.554 0-1 0.446-1 1v0.5c0-0.554 0.446-1 1-1h18c0.554 0 1 0.446 1 1v-0.5c0-0.554-0.446-1-1-1z" style="fill:#8b9cbe;opacity:.1"/>
  <path d="m0.9999 19.9589v0.5c0 0.554 0.446 1 1 1h18c0.554 0 1-0.446 1-1v-0.5c0 0.554-0.446 1-1 1h-18c-0.554 0-1-0.446-1-1z" style="opacity:.2"/>
  <path d="m7.5527344 6.458984c-1.153 0-2.5527344 0.0410156-2.5527344 0.0410156v9.9589844h2v-2.990234s0.1986444-3e-3 0.5527344-0.01953c1.6 0.010199 3.4472656-0.490236 3.4472656-3.490236s-1.8472656-3.5-3.4472656-3.5zm-0.5527344 2s0.2681438-0.0156 0.6523438 0c0.9639999 0.0393 1.3476562 0.5754 1.3476562 1.5 0 1.029-0.4919937 1.490907-1.4960938 1.503907-0.3014299 0.00404-0.3005362 0.014237-0.5039062-0.007813zm5 0.041016v8h2v-5c1-1.439708 3-1 3-1v-2.0000004s-2 0-3 1v-1z" style="opacity:.2"/>
  <path d="m7.5527344 5.9589844c-1.153 0-2.5527344 0.0410156-2.5527344 0.0410156v9.958984h2v-2.990234s0.1986444-3e-3 0.5527344-0.01953c1.6 0.010199 3.4472656-0.490236 3.4472656-3.4902356 0-3-1.8472656-3.5-3.4472656-3.5zm-0.5527344 2s0.2681438-0.0156 0.6523438 0c0.9639999 0.0393 1.3476562 0.5754 1.3476562 1.5 0 1.0289996-0.4919937 1.4909066-1.4960938 1.5039066-0.3014299 0.00404-0.3005362 0.014237-0.5039062-0.007813zm5 0.0410156v8h2v-5c1-1.4397078 3-1 3-1v-2s-2 0-3 1v-1z" style="fill:#dccdde"/>
 </g>
</svg>
