<svg xmlns="http://www.w3.org/2000/svg" height="24" width="24" version="1.1">
 <g transform="translate(1,1)">
  <path style="opacity:.2" d="m1 20v0.5c0 0.554 0.446 1 1 1h18c0.554 0 1-0.446 1-1v-0.5c0 0.554-0.446 1-1 1h-18c-0.554 0-1-0.446-1-1z"/>
  <rect style="fill:#62400c" rx="1" ry="1" height="20" width="20" y="1" x="1"/>
  <path style="opacity:.1;fill:#8b9cbe" d="m2 1c-0.554 0-1 0.446-1 1v0.5c0-0.554 0.446-1 1-1h18c0.554 0 1 0.446 1 1v-0.5c0-0.554-0.446-1-1-1z"/>
  <g style="opacity:.2" transform="matrix(.076503 0 0 .084756 -.40452 -.84752)">
   <path d="m162.15 175.18c5.109 3.135 14.876 11.799 23.094 11.799 8.396 0 16.12-4.236 16.12-8.849 0-4.619-3.4288-10.288-13.836-13.796-18.439-6.279-25.559-13.795-25.375-24.315 0-16.991 14.238-29.731 36.328-29.731 10.407 0 23.553 3.1313 29.026 5.8993v17.698c-4.019-2.218-20.446-5.8993-28.112-5.8993-6.758 0-11.103 4.463-11.103 9.076 0 5.9349 3.9836 6.464 14.937 10.344 16.976 5.908 24.096 14.584 24.277 27.879 0 16.805-12.954 30.168-38.701 29.357-8.835-0.278-19.901-2.1752-26.656-5.8642-0.00019-6.7093-0.00014-16.888 0.001-23.597z"/>
  </g>
  <g style="fill:#f29517" transform="matrix(.076503 0 0 .084756 -.40452 -1.3475)">
   <path style="fill:#f29517" d="m162.15 175.18c5.109 3.135 14.876 11.799 23.094 11.799 8.396 0 16.12-4.236 16.12-8.849 0-4.619-3.4288-10.288-13.836-13.796-18.439-6.279-25.559-13.795-25.375-24.315 0-16.991 14.238-29.731 36.328-29.731 10.407 0 23.553 3.1313 29.026 5.8993v17.698c-4.019-2.218-20.446-5.8993-28.112-5.8993-6.758 0-11.103 4.463-11.103 9.076 0 5.9349 3.9836 6.464 14.937 10.344 16.976 5.908 24.096 14.584 24.277 27.879 0 16.805-12.954 30.168-38.701 29.357-8.835-0.278-19.901-2.1752-26.656-5.8642-0.00019-6.7093-0.00014-16.888 0.001-23.597z"/>
  </g>
  <path style="opacity:.2" d="m5 6.5v10h2v-3h4v-2h-4v-3h4v-2h-4z"/>
  <path style="fill:#f29517" d="m5 6v10h2v-3h4v-2h-4v-3h4v-2h-4z"/>
 </g>
</svg>
