<svg width="24" height="24" version="1.1" xmlns="http://www.w3.org/2000/svg">
 <g transform="translate(1,1)">
  <path d="m1 20v0.5c0 0.554 0.446 1 1 1h18c0.554 0 1-0.446 1-1v-0.5c0 0.554-0.446 1-1 1h-18c-0.554 0-1-0.446-1-1z" style="opacity:.2"/>
  <rect x="1" y="1" width="20" height="20" rx="1" ry="1" style="fill:#5052c1"/>
  <path d="m5 6.5v10h6v-2h-4v-2h4v-2h-4v-2h4v-2h-4z" style="opacity:.2"/>
  <path d="m2 1c-0.554 0-1 0.446-1 1v0.5c0-0.554 0.446-1 1-1h18c0.554 0 1 0.446 1 1v-0.5c0-0.554-0.446-1-1-1z" style="fill:#8b9cbe;opacity:.1"/>
  <path d="m5 6v10h6v-2h-4v-2h4v-2h-4v-2h4v-2h-4z" style="fill:#aabbfd"/>
  <path d="m17 16.5v-5s0-2-2-2c-3 0-3 1-3 1v6h1.461417v-5l0.04421-1c1.494373 0 1.494373 1 1.494373 1v5z" style="opacity:.2"/>
  <path d="m17 16v-5s0-2-2-2c-3 0-3 1-3 1v6h1.461417v-5l0.04421-1c1.494373 0 1.494373 1 1.494373 1v5z" style="fill:#aabbfd"/>
 </g>
</svg>
