<svg xmlns="http://www.w3.org/2000/svg" height="24" width="24" version="1.1">
 <g transform="translate(1,1)">
  <rect style="fill:#661708" rx="1" ry="1" height="20" width="20" y="1" x="1"/>
  <path style="opacity:.1;fill:#8b9cbe" d="m2 1c-0.554 0-1 0.446-1 1v0.5c0-0.554 0.446-1 1-1h18c0.554 0 1 0.446 1 1v-0.5c0-0.554-0.446-1-1-1z"/>
  <path style="opacity:.2" d="m1 20v0.5c0 0.554 0.446 1 1 1h18c0.554 0 1-0.446 1-1v-0.5c0 0.554-0.446 1-1 1h-18c-0.554 0-1-0.446-1-1z"/>
  <path style="opacity:.2" d="m7 6.5-2 10h2l0.2851562-2h1.4296876l0.2851562 2h2l-2-10zm1 3 0.4277344 3h-0.8554688zm7 0c-3 0-3 1-3 1v6h1.460938v-5l0.04492-1c1.494374 0 1.494142 1 1.494142 1v5h2v-5s0-2-2-2z"/>
  <path style="fill:#db5b46" d="m7 6-2 10h2l0.2851562-2h1.4296876l0.2851562 2h2l-2-10zm1 3 0.4277344 3h-0.8554688z"/>
  <path d="m17 16v-5s0-2-2-2c-3 0-3 1-3 1v6h1.461417v-5l0.04421-1c1.494373 0 1.494373 1 1.494373 1v5z" style="fill:#db5b46"/>
 </g>
</svg>
