<svg xmlns="http://www.w3.org/2000/svg" width="24" height="24" version="1.1">
 <circle style="opacity:0.2" cx="12" cy="12.5" r="10"/>
 <circle style="fill:#1940ae" cx="12" cy="12" r="10"/>
 <path style="opacity:0.1;fill:#8b9cbe" d="M 12,2 A 10,10 0 0 0 2,12 10,10 0 0 0 2.01075,12.291 10,10 0 0 1 12,2.5 10,10 0 0 1 21.9895,12.209 10,10 0 0 0 22,12 10,10 0 0 0 12,2 Z"/>
 <path style="opacity:0.2" d="m 11.527935,19.057137 c -0.555601,-1.009171 -0.577418,-1.569253 -0.09223,-2.367569 l 0.275343,-0.453036 -0.598493,-0.475982 c -0.919598,-0.731356 -1.2248655,-1.201623 -1.2248655,-1.886924 0,-0.563569 0.3228345,-1.288337 0.5738635,-1.288337 0.0602,0 0.109449,-0.06411 0.109449,-0.142461 0,-0.07835 -0.294677,-0.194367 -0.654841,-0.257808 C 9.091246,12.039713 8.6438925,11.719238 8.6366975,11.268435 8.6318475,10.967652 9.083286,10.617486 9.96717,10.23632 10.648343,9.942572 10.896801,9.7717395 10.786403,9.673038 10.699253,9.595121 10.461393,9.574466 10.257821,9.627138 10.044804,9.682253 9.8876935,9.655548 9.8876935,9.564225 9.8876935,9.476953 9.644265,9.403165 9.3467375,9.400253 8.3401905,9.390403 8.1655425,9.371923 8.0397175,9.261981 7.9706695,9.201648 7.7634075,9.135516 7.5791355,9.115021 7.3948635,9.0945265 7.1681855,8.9704365 7.075406,8.839265 6.9264105,8.628613 6.9710365,8.587436 7.45765,8.48656 8.2009745,8.332466 8.9170665,8.1685758 9.4376205,7.5036758 10.365513,6.3184863 10.650441,6.2373603 10.878956,7.0932958 c 0.11135,0.417074 0.573226,0.5759252 0.706849,0.4022927 0.02573,-0.033425 -0.04739,-0.3079825 -0.16248,-0.610123 C 11.225437,6.365954 11.224586,6.313433 11.407655,5.918427 11.640383,5.4162575 12.15064,5.354896 12.432472,5.7951865 c 0.240738,0.3760895 0.239851,0.807532 -0.0025,1.1860425 -0.29243,0.456849 -0.02831,1.0474328 0.355895,0.6915128 0.159809,-0.148041 0.290563,-0.339951 0.290563,-0.426466 0,-0.086515 0.10367,-0.303873 0.230381,-0.4830165 0.276757,-0.391283 0.46655,-0.2857795 1.25013,0.6949325 0.605546,0.7578895 1.215441,0.8633822 1.979678,1.0165127 0.499269,0.100038 0.538292,0.1366185 0.381793,0.35788 -0.09588,0.135549 -0.320502,0.262933 -0.499169,0.283076 -0.178666,0.020145 -0.414647,0.092307 -0.524403,0.160365 -0.109754,0.068059 -0.32442,0.079434 -0.477033,0.02528 -0.152615,-0.054154 -0.311504,-0.020625 -0.35309,0.074503 -0.04604,0.105328 -0.244604,0.132598 -0.507777,0.069736 -0.268123,-0.064045 -0.461588,-0.03592 -0.509677,0.074086 -0.04654,0.106455 -0.22804,0.1373885 -0.454189,0.077407 -0.216235,-0.057353 -0.40783,-0.028635 -0.44982,0.067418 -0.04398,0.100608 0.25733,0.3045825 0.755685,0.5115695 0.997101,0.414136 1.341314,0.701853 1.341314,1.121164 0,0.437971 -0.406369,0.766133 -1.110384,0.896687 -0.328844,0.06098 -0.597898,0.146318 -0.597898,0.189635 0,0.04332 0.153745,0.326328 0.341656,0.62891 0.372105,0.599179 0.411048,0.858214 0.209699,1.394846 -0.152953,0.407641 -0.371717,0.648264 -1.206471,1.327021 l -0.605434,0.492289 0.234778,0.382718 c 0.129126,0.210496 0.263284,0.568611 0.29813,0.795812 0.03484,0.227201 0.08353,0.505282 0.108187,0.617959 0.06059,0.276852 -0.726483,1.488026 -0.959722,1.476857 -0.102327,-0.0049 -0.29354,-0.204152 -0.424919,-0.442784 z m 1.206898,-1.145956 c 0,-0.359349 -0.427596,-1.300577 -0.590845,-1.300577 -0.05086,0 -0.09247,0.618394 -0.09247,1.374209 v 1.37421 l 0.341656,-0.550149 c 0.187912,-0.302583 0.341657,-0.706544 0.341657,-0.897693 z m -0.805206,0.179287 c -0.0044,-0.503977 -0.04828,-1.061232 -0.0975,-1.238346 -0.08183,-0.29442 -0.110641,-0.273716 -0.33614,0.241519 -0.26258,0.599958 -0.247368,1.073555 0.05576,1.736016 0.251674,0.550009 0.386833,0.285619 0.377879,-0.739189 z m -0.105878,-3.814547 c 0,-1.520924 -0.0016,-1.52962 -0.282411,-1.52962 -0.500717,0 -1.194803,0.488909 -1.266367,0.892019 -0.115919,0.652987 0.06382,1.017862 0.786847,1.597286 0.387743,0.310732 0.7178,0.566086 0.733458,0.567452 0.01566,0.0014 0.02848,-0.685846 0.02848,-1.527137 z m 1.093422,0.950576 c 0.754147,-0.565061 0.842631,-0.684969 0.842631,-1.141889 0,-0.632673 -0.20083,-0.99056 -0.656183,-1.169351 -0.926845,-0.363919 -0.938214,-0.348403 -0.938214,1.280158 0,0.797012 0.04361,1.449113 0.09692,1.449113 0.05331,0 0.347987,-0.188114 0.654842,-0.418031 z m -1.13613,-3.627411 c -0.03915,-0.27674 -0.07118,-0.856385 -0.07118,-1.2881 0,-0.431715 -0.05065,-0.784937 -0.112545,-0.784937 -0.0619,0 -0.100335,0.1562805 -0.08541,0.3472895 0.02433,0.3114555 -0.09038,0.3906725 -1.111727,0.7677565 -1.5270425,0.563789 -1.5270425,0.807323 0,1.162499 1.566812,0.364426 1.463507,0.379726 1.380861,-0.204508 z m 2.197191,0.127135 c 0.402005,-0.103133 0.75116,-0.273657 0.775899,-0.378942 0.0444,-0.188948 -1.032559,-0.714343 -1.933884,-0.94345 -0.445915,-0.113345 -0.554925,-0.335484 -0.246696,-0.502708 0.145231,-0.078792 0.15078,-0.1243885 0.02848,-0.234001 -0.28854,-0.258592 -0.322734,-0.1360145 -0.322734,1.156895 v 1.297967 l 0.484013,-0.104124 c 0.266207,-0.05727 0.812925,-0.188505 1.214929,-0.291637 z"/>
 <path style="fill:#8b9cbe" d="m 11.527935,18.557136 c -0.555601,-1.009171 -0.577418,-1.569253 -0.09223,-2.367569 l 0.275343,-0.453037 -0.598493,-0.475981 c -0.919598,-0.731356 -1.2248655,-1.201623 -1.2248655,-1.886924 0,-0.563569 0.3228345,-1.288337 0.5738635,-1.288337 0.0602,0 0.109449,-0.06411 0.109449,-0.142461 0,-0.07835 -0.294677,-0.194367 -0.654841,-0.257808 C 9.091246,11.539712 8.6438925,11.219237 8.6366975,10.768434 8.6318475,10.467651 9.083286,10.117485 9.96717,9.7363195 10.648343,9.442571 10.896801,9.2717385 10.786403,9.173037 10.699253,9.09512 10.461393,9.074465 10.257821,9.127137 10.044804,9.182252 9.8876935,9.155547 9.8876935,9.064225 9.8876935,8.976953 9.644265,8.903165 9.3467375,8.900253 8.3401905,8.890403 8.1655425,8.871923 8.0397175,8.761981 7.9706695,8.701648 7.7634075,8.635516 7.5791355,8.615021 7.3948635,8.5945255 7.1681855,8.4704355 7.075406,8.339264 6.9264105,8.128612 6.9710365,8.087435 7.45765,7.986559 8.2009745,7.832465 8.9170665,7.6685748 9.4376205,7.0036748 10.365513,5.8184853 10.650441,5.7373593 10.878956,6.5932948 10.990306,7.0103688 11.452182,7.16922 11.585805,6.9955875 11.611534,6.9621625 11.53841,6.687605 11.423325,6.3854645 11.225437,5.865953 11.224586,5.813432 11.407655,5.418426 11.640383,4.9162567 12.15064,4.854895 12.432472,5.2951855 c 0.240738,0.3760895 0.239851,0.807532 -0.0025,1.1860425 -0.29243,0.456849 -0.02831,1.0474328 0.355895,0.6915128 0.159809,-0.148041 0.290563,-0.339951 0.290563,-0.426466 0,-0.086515 0.10367,-0.303873 0.230381,-0.4830165 0.276757,-0.391283 0.46655,-0.2857795 1.25013,0.6949325 0.605546,0.7578895 1.215441,0.8633822 1.979678,1.0165127 0.499269,0.100038 0.538292,0.1366185 0.381793,0.35788 -0.09588,0.135549 -0.320502,0.262933 -0.499169,0.283076 -0.178666,0.020145 -0.414647,0.092307 -0.524403,0.160365 -0.109754,0.068058 -0.32442,0.079434 -0.477033,0.02528 -0.152615,-0.054154 -0.311504,-0.020625 -0.35309,0.074503 -0.04604,0.105328 -0.244604,0.132598 -0.507777,0.069736 -0.268123,-0.064045 -0.461588,-0.03592 -0.509677,0.074086 -0.04654,0.106455 -0.22804,0.1373885 -0.454189,0.077407 -0.216235,-0.057353 -0.40783,-0.028635 -0.44982,0.067418 -0.04398,0.100608 0.25733,0.3045825 0.755685,0.5115695 0.997101,0.414135 1.341314,0.701853 1.341314,1.121164 0,0.437971 -0.406369,0.766133 -1.110384,0.896687 -0.328844,0.06098 -0.597898,0.146318 -0.597898,0.189635 0,0.04332 0.153745,0.326328 0.341656,0.62891 0.372105,0.599179 0.411048,0.858214 0.209699,1.394846 -0.152953,0.407641 -0.371717,0.648264 -1.206471,1.327021 l -0.605434,0.492289 0.234778,0.382718 c 0.129126,0.210496 0.263284,0.568611 0.29813,0.795812 0.03484,0.227201 0.08353,0.505282 0.108187,0.617959 0.06059,0.276852 -0.726483,1.488026 -0.959722,1.476857 -0.102327,-0.0049 -0.29354,-0.204152 -0.424919,-0.442784 z m 1.206898,-1.145956 c 0,-0.359349 -0.427596,-1.300577 -0.590845,-1.300577 -0.05086,0 -0.09247,0.618394 -0.09247,1.374209 v 1.374211 l 0.341656,-0.55015 c 0.187912,-0.302582 0.341657,-0.706544 0.341657,-0.897693 z m -0.805206,0.179287 c -0.0044,-0.503977 -0.04828,-1.061232 -0.0975,-1.238346 -0.08183,-0.29442 -0.110641,-0.273716 -0.33614,0.241519 -0.26258,0.599958 -0.247368,1.073555 0.05576,1.736016 0.251674,0.550009 0.386833,0.285619 0.377879,-0.739189 z m -0.105878,-3.814546 c 0,-1.520924 -0.0016,-1.52962 -0.282411,-1.52962 -0.500717,0 -1.194803,0.488909 -1.266367,0.892019 -0.115919,0.652986 0.06382,1.017861 0.786847,1.597285 0.387743,0.310733 0.7178,0.566087 0.733458,0.567453 0.01566,0.0014 0.02848,-0.685847 0.02848,-1.527137 z m 1.093422,0.950576 c 0.754147,-0.565061 0.842631,-0.68497 0.842631,-1.141889 0,-0.632673 -0.20083,-0.990561 -0.656183,-1.169352 -0.926845,-0.363918 -0.938214,-0.348403 -0.938214,1.280158 0,0.797013 0.04361,1.449114 0.09692,1.449114 0.05331,0 0.347987,-0.188114 0.654842,-0.418031 z m -1.13613,-3.627412 c -0.03915,-0.27674 -0.07118,-0.856385 -0.07118,-1.2881 0,-0.431715 -0.05065,-0.784937 -0.112545,-0.784937 -0.0619,0 -0.100335,0.1562805 -0.08541,0.3472895 0.02433,0.3114555 -0.09038,0.390673 -1.111727,0.7677565 -1.5270425,0.563789 -1.5270425,0.807324 0,1.1625 1.566812,0.364426 1.463507,0.379725 1.380861,-0.204509 z m 2.197191,0.127135 c 0.402005,-0.103133 0.75116,-0.273657 0.775899,-0.378942 0.0444,-0.188947 -1.032559,-0.714343 -1.933884,-0.9434495 C 12.374332,9.790483 12.265322,9.568344 12.573551,9.40112 c 0.145231,-0.078792 0.15078,-0.1243885 0.02848,-0.234001 -0.28854,-0.258592 -0.322734,-0.1360145 -0.322734,1.156896 v 1.297967 l 0.484013,-0.104124 c 0.266207,-0.05727 0.812925,-0.188505 1.214929,-0.291638 z"/>
</svg>
