<svg xmlns="http://www.w3.org/2000/svg" width="24" height="24" version="1">
 <path style="opacity:0.2" d="M 12,2.5 A 10,10 0 0 0 2,12.5 10,10 0 0 0 3.2012,17.234 L 3.1836,17.219 C 3.6876,18.403 3.6496,18.726 3.5703,19.715 3.5151,20.404 3.3292,21.108 3.0957,21.504 2.884,21.863 2.7109,22.234 2.7109,22.328 2.7109,22.62 4.3985,22.517 5.8906,22.135 7.6385,21.687 7.7913,21.657 9.2246,22.107 L 9.209,22.094 A 10,10 0 0 0 12,22.5 10,10 0 0 0 22,12.5 10,10 0 0 0 12,2.5 Z"/>
 <path style="fill:#3ebc45" d="M 12,2 A 10,10 0 0 0 2,12 10,10 0 0 0 3.2012,16.734 L 3.1836,16.719 C 3.6876,17.903 3.6496,18.226 3.5703,19.215 3.5151,19.904 3.3292,20.608 3.0957,21.004 2.884,21.363 2.7109,21.734 2.7109,21.828 2.7109,22.12 4.3985,22.017 5.8906,21.635 7.6385,21.187 7.7913,21.157 9.2246,21.607 L 9.209,21.594 A 10,10 0 0 0 12,22 10,10 0 0 0 22,12 10,10 0 0 0 12,2 Z"/>
 <path style="fill:#8b9cbe;opacity:0.2" d="M 12 2 A 10 10 0 0 0 2 12 A 10 10 0 0 0 2.0098 12.207 A 10 10 0 0 1 12 2.5 A 10 10 0 0 1 21.99 12.293 A 10 10 0 0 0 22 12 A 10 10 0 0 0 12 2 z M 3.6016 18.738 C 3.5929 18.886 3.5851 19.031 3.5703 19.215 C 3.5151 19.904 3.3292 20.608 3.0957 21.004 C 2.884 21.363 2.7109 21.734 2.7109 21.828 C 2.7109 21.878 2.7758 21.912 2.8652 21.939 C 2.931 21.805 3.0057 21.657 3.0957 21.504 C 3.3292 21.108 3.5151 20.404 3.5703 19.715 C 3.6026 19.312 3.6168 19.023 3.6016 18.738 z"/>
 <path style="opacity:0.1" d="M 12,4.5 C 7.582,4.5 4,8.082 4,12.5 4,16.918 7.582,20.5 12,20.5 H 14 C 14,20.5 14.937,20.5 15,19.5 15,18.5 14,18.5 14,18.5 H 12 C 8.686,18.5 6,15.814 6,12.5 6,9.186 8.686,6.5 12,6.5 15.314,6.5 18,9.186 18,12.5 V 13.5 C 18,14.052 17.552,14.5 17,14.5 16.448,14.5 16,14.052 16,13.5 V 12.5 C 16,10.291 14.209,8.5 12,8.5 9.791,8.5 8,10.291 8,12.5 8,14.709 9.791,16.5 12,16.5 13.046,16.5 13.99,16.089 14.703,15.432 15.273,16.109 16.114,16.5 17,16.5 18.657,16.5 20,15.156 20,13.5 V 12.5 C 20,8.082 16.418,4.5 12,4.5 Z M 12,10.5 C 13.105,10.5 14,11.395 14,12.5 14,13.605 13.105,14.5 12,14.5 10.895,14.5 10,13.605 10,12.5 10,11.395 10.895,10.5 12,10.5 Z"/>
 <path style="fill:#8b9cbe" d="M 12,4 C 7.582,4 4,7.582 4,12 4,16.418 7.582,20 12,20 H 14 C 14,20 14.937,20 15,19 15,18 14,18 14,18 H 12 C 8.686,18 6,15.314 6,12 6,8.686 8.686,6 12,6 15.314,6 18,8.686 18,12 V 13 C 18,13.552 17.552,14 17,14 16.448,14 16,13.552 16,13 V 12 C 16,9.791 14.209,8 12,8 9.791,8 8,9.791 8,12 8,14.209 9.791,16 12,16 13.046,16 13.99,15.589 14.703,14.932 15.273,15.609 16.114,16 17,16 18.657,16 20,14.656 20,13 V 12 C 20,7.582 16.418,4 12,4 Z M 12,10 C 13.105,10 14,10.895 14,12 14,13.105 13.105,14 12,14 10.895,14 10,13.105 10,12 10,10.895 10.895,10 12,10 Z"/>
</svg>
