<svg width="24" height="24" version="1.1" xmlns="http://www.w3.org/2000/svg">
 <path d="m8 2.5002654c-0.4787505 1.615e-4 -0.8902385 0.339588-0.9814455 0.8095705l-3.9996287 17.999999c-0.1604801 0.826303 0.709326 1.469152 1.4521484 1.073242l7.5289258-3.882812 7.528926 3.882812c0.742822 0.39591 1.612628-0.246939 1.452148-1.073242l-3.999629-17.999999c-0.091206-0.4699825-0.502695-0.809409-0.981445-0.8095705z" style="opacity:.2"/>
 <path d="m8 2c-0.4787505 1.615e-4 -0.8902385 0.339588-0.9814455 0.8095705l-3.9996287 18c-0.1604801 0.826303 0.709326 1.469152 1.4521484 1.073242l7.5289258-3.882812 7.528926 3.882812c0.742822 0.39591 1.612628-0.246939 1.452148-1.073242l-3.999629-18c-0.091206-0.4699825-0.502695-0.809409-0.981445-0.8095705z" style="fill:#4f4f4f"/>
 <path d="m12 16.500265 3-5-3-4.9999996-3 4.9999996z" style="opacity:.2"/>
 <path d="m12 16 3-5-3-5-3 5z" style="fill:#8b9cbe"/>
 <path d="m8 2c-0.4787505 1.615e-4 -0.8912149 0.3405644-0.9824219 0.8105469l-3.9980469 17.998047c-0.0293111 0.150921-0.0147996 0.292311 0.0175782 0.425781l3.9804687-17.923828c0.091207-0.4699825 0.5036714-0.8103854 0.9824219-0.8105469h8c0.47875 1.615e-4 0.889263 0.3405644 0.980469 0.8105469l3.982422 17.923828c0.032377-0.13347 0.046889-0.27486 0.017578-0.425781l-4-17.998047c-0.091206-0.4699825-0.501719-0.8103854-0.980469-0.8105469h-8z" style="fill:#8b9cbe;opacity:.1"/>
</svg>
