<svg width="24" height="24" version="1.1" xmlns="http://www.w3.org/2000/svg">
 <g transform="translate(1,1)">
  <path d="m8 17.5h6l-1 4h-4z" style="opacity:.2"/>
  <path d="m12.50005 17.5v-4" style="fill:none;stroke-linecap:round;stroke-linejoin:round;stroke-width:1px;stroke:#b2bfd9"/>
  <path d="m9.5 17.5v-4" style="fill:none;stroke-linecap:round;stroke-linejoin:round;stroke-width:1px;stroke:#b2bfd9"/>
  <circle cx="11" cy="8.5" r="7" style="opacity:.2"/>
  <circle cx="11" cy="8" r="7" style="fill:#db3c30"/>
  <path d="m8 17h6l-1 4h-4z" style="fill:#906739"/>
  <path d="m11 15s-2-3-2-7 2-7 2-7-5 2-5 7 5 7 5 7z" style="fill:#b2bfd9"/>
  <path d="m11 15s2-3 2-7-2-7-2-7 5 2 5 7-5 7-5 7z" style="fill:#b2bfd9"/>
  <path d="M 11,1 A 7,7 0 0 0 4,8 7,7 0 0 0 4.0097656,8.2929688 7,7 0 0 1 11,1.5 7,7 0 0 1 17.990234,8.2070312 7,7 0 0 0 18,8 7,7 0 0 0 11,1 Z" style="fill:#8b9cbe;opacity:.2"/>
  <path d="m8 17 0.125 0.5h5.75l0.125-0.5z" style="fill:#8b9cbe;opacity:.1"/>
 </g>
</svg>
