<svg xmlns="http://www.w3.org/2000/svg" width="24" height="24" version="1">
 <path style="fill:#cddff0" d="M 20,11.5 A 8.5,8.5 0 0 1 11.5,20 8.5,8.5 0 0 1 3,11.5 8.5,8.5 0 0 1 11.5,3 8.5,8.5 0 0 1 20,11.5 Z"/>
 <path style="opacity:0.2;fill:#8b9cbe" d="m 11.5,3 a 8.5,8.5 0 0 0 -8.5,8.5 8.5,8.5 0 0 0 0.01075,0.29 8.5,8.5 0 0 1 8.489,-8.29 8.5,8.5 0 0 1 8.4895,8.21 8.5,8.5 0 0 0 0.0105,-0.21 8.5,8.5 0 0 0 -8.5,-8.5 z"/>
 <path style="fill:#62b4e7" d="M 16.752,19.226 C 12.208,21.849 6.398,20.292 3.774,15.748 1.151,11.204 2.7078,5.394 7.2515,2.771 c 5.354,-0.02459 8.7535,11.544 9.5,16.454 z"/>
 <path style="fill:#357dc5" d="M 21,11.5 C 21,16.746 16.746,21 11.5,21 6.2535,21 2,16.746 2,11.5 4.6556,6.851 16.374,9.6916 21,11.5 Z"/>
 <path style="opacity:0.2" d="M 2.0234,11.965 C 2.0162,11.977 2.007,11.988 2,12 2,17.246 6.2535,21.5 11.5,21.5 16.746,21.5 21,17.246 21,12 20.992,11.997 20.983,11.994 20.976,11.991 20.718,17.008 16.581,21 11.5,21 6.41,21 2.2675,16.994 2.0235,11.965 Z"/>
</svg>
