<svg xmlns="http://www.w3.org/2000/svg" width="24" height="24" version="1.1">
 <path style="opacity:0.2" d="M 9.6408,3.5908 C 8.7654,3.9544 7.8897,4.3166 7.0139,4.6791 6.5747,4.8609 6.4625,5.0869 6.6293,5.6082 L 6.9875,6.7279 C 6.5193,7.099 6.094,7.5212 5.7194,7.9867 L 4.6069,7.6306 C 4.0855,7.464 3.8597,7.5762 3.6777,8.0153 3.3156,8.8912 2.9525,9.7666 2.5895,10.642 2.4075,11.081 2.4875,11.32 2.9741,11.571 L 4.021,12.11 C 3.9358,12.722 3.9649,13.326 4.0153,13.894 L 2.9741,14.431 C 2.4875,14.682 2.4075,14.921 2.5894,15.36 2.9528,16.236 3.3152,17.111 3.6777,17.987 3.8596,18.426 4.0855,18.538 4.6069,18.372 L 5.7265,18.013 C 6.0977,18.482 6.5199,18.907 6.9854,19.282 L 6.6293,20.394 C 6.4625,20.915 6.5747,21.141 7.0139,21.323 7.8898,21.685 8.7653,22.048 9.6408,22.411 10.08,22.593 10.319,22.513 10.57,22.027 L 11.109,20.98 C 11.721,21.065 12.325,21.036 12.893,20.984 L 13.43,22.025 C 13.681,22.511 13.92,22.591 14.359,22.41 15.235,22.046 16.11,21.684 16.986,21.321 17.425,21.139 17.537,20.913 17.371,20.392 L 17.013,19.272 C 17.481,18.901 17.906,18.479 18.281,18.014 L 19.393,18.37 C 19.914,18.536 20.14,18.424 20.322,17.985 20.684,17.109 21.048,16.234 21.411,15.358 21.592,14.919 21.512,14.68 21.026,14.429 L 19.979,13.89 C 20.064,13.278 20.035,12.674 19.985,12.106 L 21.026,11.569 C 21.512,11.318 21.592,11.079 21.411,10.64 21.047,9.7648 20.685,8.889 20.322,8.0133 20.14,7.5741 19.914,7.4619 19.393,7.6286 L 18.273,7.9869 C 17.902,7.5188 17.48,7.0935 17.015,6.7189 L 17.371,5.6063 C 17.537,5.085 17.425,4.8591 16.986,4.6772 16.11,4.3151 15.235,3.952 14.359,3.5889 13.92,3.4071 13.681,3.4869 13.43,3.9736 L 12.891,5.0205 C 12.279,4.9354 11.675,4.9645 11.107,5.0167 L 10.57,3.9755 C 10.302,3.5042 10.063,3.478 9.6407,3.5909 Z"/>
 <path style="fill:#16aca8" d="M 9.6408,3.0903 C 8.7654,3.4539 7.8897,3.8161 7.0139,4.1786 6.5747,4.3604 6.4625,4.5864 6.6293,5.1077 L 6.9875,6.2274 C 6.5193,6.5985 6.094,7.0207 5.7194,7.4862 L 4.6069,7.1301 C 4.0855,6.9635 3.8597,7.0757 3.6777,7.5148 3.3156,8.3907 2.9525,9.2661 2.5895,10.142 2.4075,10.581 2.4875,10.82 2.9741,11.071 L 4.021,11.61 C 3.9358,12.222 3.9649,12.826 4.0153,13.394 L 2.9741,13.931 C 2.4875,14.182 2.4075,14.421 2.5894,14.86 2.9528,15.736 3.3152,16.611 3.6777,17.487 3.8596,17.926 4.0855,18.038 4.6069,17.872 L 5.7265,17.513 C 6.0977,17.982 6.5199,18.407 6.9854,18.782 L 6.6293,19.894 C 6.4625,20.415 6.5747,20.641 7.0139,20.823 7.8898,21.185 8.7653,21.548 9.6408,21.911 10.08,22.093 10.319,22.013 10.57,21.527 L 11.109,20.48 C 11.721,20.565 12.325,20.536 12.893,20.484 L 13.43,21.525 C 13.681,22.011 13.92,22.091 14.359,21.91 15.235,21.546 16.11,21.184 16.986,20.821 17.425,20.639 17.537,20.413 17.371,19.892 L 17.013,18.772 C 17.481,18.401 17.906,17.979 18.281,17.514 L 19.393,17.87 C 19.914,18.036 20.14,17.924 20.322,17.485 20.684,16.609 21.048,15.734 21.411,14.858 21.592,14.419 21.512,14.18 21.026,13.929 L 19.979,13.39 C 20.064,12.778 20.035,12.174 19.985,11.606 L 21.026,11.069 C 21.512,10.818 21.592,10.579 21.411,10.14 21.047,9.2643 20.685,8.3885 20.322,7.5128 20.14,7.0736 19.914,6.9614 19.393,7.1281 L 18.273,7.4864 C 17.902,7.0183 17.48,6.593 17.015,6.2184 L 17.371,5.1058 C 17.537,4.5845 17.425,4.3586 16.986,4.1767 16.11,3.8146 15.235,3.4515 14.359,3.0884 13.92,2.9066 13.681,2.9864 13.43,3.4731 L 12.891,4.52 C 12.279,4.4349 11.675,4.464 11.107,4.5162 L 10.57,3.475 C 10.302,3.0037 10.063,2.9775 9.6407,3.0904 Z"/>
 <path style="fill:#8b9cbe;opacity:0.2" d="M 14.064 3.0039 C 13.8 2.9725 13.618 3.1076 13.43 3.4727 L 12.891 4.5195 C 12.279 4.4344 11.675 4.4634 11.107 4.5156 L 10.57 3.4746 C 10.302 3.0033 10.063 2.9769 9.6406 3.0898 C 8.7652 3.4534 7.8895 3.8152 7.0137 4.1777 C 6.6092 4.3452 6.4928 4.5615 6.6055 5 C 6.671 4.8647 6.803 4.7669 7.0137 4.6797 C 7.8895 4.3172 8.7652 3.9534 9.6406 3.5898 L 9.6406 3.5918 C 10.063 3.4789 10.302 3.5033 10.57 3.9746 L 11.107 5.0176 C 11.675 4.9654 12.279 4.9344 12.891 5.0195 L 13.43 3.9727 C 13.681 3.486 13.92 3.408 14.359 3.5898 C 15.235 3.9529 16.11 4.3156 16.986 4.6777 C 17.197 4.765 17.329 4.8627 17.395 4.998 C 17.507 4.5596 17.391 4.3433 16.986 4.1758 C 16.11 3.8137 15.235 3.451 14.359 3.0879 C 14.25 3.0424 14.153 3.0144 14.064 3.0039 z M 17.139 6.3301 L 17.016 6.7188 C 17.481 7.0934 17.902 7.5182 18.273 7.9863 L 19.393 7.6289 C 19.914 7.4622 20.14 7.5745 20.322 8.0137 C 20.685 8.8894 21.046 9.7654 21.41 10.641 C 21.423 10.671 21.424 10.694 21.434 10.723 C 21.52 10.565 21.511 10.385 21.41 10.141 C 21.046 9.2649 20.685 8.3894 20.322 7.5137 C 20.14 7.0745 19.914 6.9622 19.393 7.1289 L 18.273 7.4863 C 17.937 7.0617 17.553 6.6784 17.139 6.3301 z M 6.8633 6.3379 C 6.4461 6.6829 6.0584 7.0643 5.7188 7.4863 L 4.6074 7.1309 C 4.086 6.9643 3.8597 7.0765 3.6777 7.5156 C 3.3156 8.3915 2.9528 9.2667 2.5898 10.143 C 2.4883 10.387 2.4798 10.567 2.5664 10.725 C 2.5765 10.696 2.5772 10.673 2.5898 10.643 C 2.9528 9.7672 3.3156 8.8915 3.6777 8.0156 C 3.8597 7.5765 4.086 7.4643 4.6074 7.6309 L 5.7188 7.9863 C 6.0933 7.5208 6.5201 7.0996 6.9883 6.7285 L 6.8633 6.3379 z M 20.012 12.092 L 19.984 12.105 C 20.002 12.305 20.011 12.515 20.02 12.723 C 20.024 12.509 20.023 12.3 20.012 12.092 z M 3.9922 12.094 C 3.9804 12.325 3.9714 12.552 3.9805 12.777 C 3.9855 12.556 3.9902 12.334 4.0215 12.109 L 3.9922 12.094 z M 20.008 13.406 C 20 13.568 20.001 13.727 19.979 13.891 L 21.025 14.43 C 21.24 14.541 21.365 14.651 21.434 14.775 C 21.568 14.392 21.478 14.163 21.025 13.93 L 20.008 13.406 z M 3.9883 13.408 L 2.9746 13.932 C 2.5218 14.165 2.4316 14.394 2.5664 14.777 C 2.6351 14.653 2.7594 14.543 2.9746 14.432 L 4.0156 13.895 C 4.0016 13.737 3.997 13.571 3.9883 13.408 z M 17.139 19.16 C 17.096 19.196 17.057 19.237 17.014 19.271 L 17.371 20.393 C 17.384 20.434 17.385 20.462 17.395 20.5 C 17.466 20.353 17.457 20.164 17.371 19.893 L 17.139 19.16 z M 6.8613 19.17 L 6.6289 19.895 C 6.5421 20.166 6.5344 20.355 6.6055 20.502 C 6.6152 20.464 6.6156 20.436 6.6289 20.395 L 6.9863 19.281 C 6.9428 19.246 6.9041 19.206 6.8613 19.17 z"/>
 <path style="opacity:0.2" d="M 12,6.5 6,9.5 V 12.5 L 14.4,15.3 12,16.5 9,15 V 14.5 L 6,13.5 V 16.5 L 12,19.5 18,16.5 V 13.5 L 9.6,10.7 12,9.5 15,11 V 11.5 L 18,12.5 V 9.5 Z"/>
 <path style="fill:#fdffff" d="M 12,6 6,9 V 12 L 14.4,14.8 12,16 9,14.5 V 14 L 6,13 V 16 L 12,19 18,16 V 13 L 9.6,10.2 12,9 15,10.5 V 11 L 18,12 V 9 Z"/>
</svg>
