<svg xmlns="http://www.w3.org/2000/svg" width="24" height="24" version="1.1">
 <rect style="opacity:0.2" width="18" height="17" x="3" y="4.5" rx=".9" ry=".85"/>
 <rect style="fill:#4f4f4f" width="18" height="17" x="3" y="4" rx=".9" ry=".85"/>
 <path style="opacity:0.2" d="M 7.6542969,8.4475316 6.9472656,9.1545629 9.7929688,12.000266 6.9472656,14.845969 7.6542969,15.553 10.853516,12.353782 11.207031,12.000266 14.052734,9.1545629 13.345703,8.4475316 10.5,11.293235 Z"/>
 <path style="fill:none;stroke:#236ac6;stroke-width:1px" d="m 13.7,8.3 -3.2,3.2"/>
 <path style="opacity:0.1;fill:#8b9cbe" d="M 13.345703 7.9472656 L 10.146484 11.146484 L 10.396484 11.396484 L 13.345703 8.4472656 L 13.802734 8.9042969 L 14.052734 8.6542969 L 13.345703 7.9472656 z"/>
 <rect style="opacity:0.2" width="22" height="2" x="1" y="3.5" rx="1" ry="1"/>
 <rect style="fill:#a5b1b3" width="22" height="2" x="1" y="3" rx="1" ry="1"/>
 <path style="fill:none;stroke:#3498db" d="m 12,16.5 h 5"/>
 <path style="opacity:0.2;fill:#8b9cbe" d="M 2,3 C 1.446,3 1,3.446 1,4 1,4.0869174 1.0145052,4.1697047 1.0351562,4.25 1.1461319,3.8185035 1.5329174,3.5 2,3.5 h 20 c 0.467082,0 0.853868,0.3185035 0.964844,0.75 C 22.985495,4.1697047 23,4.0869174 23,4 23,3.446 22.554,3 22,3 Z"/>
 <path style="opacity:0.2;fill:#8b9cbe" d="M 12 16 L 12 16.5 L 17 16.5 L 17 16 L 12 16 z"/>
 <path style="fill:none;stroke:#3498db;stroke-width:1px" d="m 7.3,14.7 3.2,-3.2 v 0 m 0,0 -3.2,-3.2 v 0 0 l 3.2,3.2 -3.2,3.2"/>
 <path style="opacity:0.2;fill:#8b9cbe" d="M 7.6542969 7.9472656 L 6.9472656 8.6542969 L 7.1972656 8.9042969 L 7.6542969 8.4472656 L 10.853516 11.646484 L 10.957031 11.75 L 11.207031 11.5 L 10.853516 11.146484 L 7.6542969 7.9472656 z M 9.5429688 11.75 L 6.9472656 14.345703 L 7.1972656 14.595703 L 9.7929688 12 L 9.5429688 11.75 z"/>
</svg>
