<svg xmlns="http://www.w3.org/2000/svg" width="24" height="24" version="1">
 <g transform="translate(1.0003 1)">
  <path opacity=".2" d="m20.982 6.8359a2.1112 2.056 0 0 1 -0.27832 0.79492l-2.3486 3.8447 0.13379 0.28222 2.2148-3.6269a2.1112 2.056 0 0 0 0.278 -1.2949zm-19.965 4.1171a2.1112 2.056 0 0 0 1.0605 2.0381l4.0068 2.1865 0.4209 4.4541a2.1112 2.056 0 0 0 3.5342 1.3232l3.376-3.0361 4.4795 0.98632a2.1112 2.056 0 0 0 2.5586 -2.2568 2.1112 2.056 0 0 1 -2.5586 1.7568l-4.4795-0.98632-3.376 3.0361a2.1112 2.056 0 0 1 -3.5344 -1.323l-0.4209-4.454-4.0068-2.187a2.1112 2.056 0 0 1 -1.0605 -1.538z"/>
  <path fill="#0088d1" d="m8.9412 1.0641a2.1112 2.056 0 0 0 -1.5484 1.5896l-0.8979 4.3879-4.2192 1.7677a2.1112 2.056 0 0 0 -0.1976 3.6817l4.0063 2.187 0.42139 4.4543a2.1112 2.056 0 0 0 3.5345 1.3224l3.3752-3.0357 4.48 0.98591a2.1112 2.056 0 0 0 2.382 -2.8663l-1.922-4.062 2.349-3.8456a2.1112 2.056 0 0 0 -2.062 -3.0919l-4.563 0.524-3.029-3.3633a2.1112 2.056 0 0 0 -2.1088 -0.6351z"/>
  <path fill="#b2bfd9" d="m9.3591 1.0029a2.1112 2.056 0 0 0 -0.418 0.0616 2.1112 2.056 0 0 0 -1.5478 1.5888l-0.8984 4.3887-4.2188 1.7675a2.1112 2.056 0 0 0 -0.1982 3.6815l4.0068 2.1865 0.4209 4.4541a2.1112 2.056 0 0 0 3.5342 1.3232l3.376-3.0361 4.4795 0.98632a2.1112 2.056 0 0 0 2.381 -2.867l-1.9219-4.0625 2.3486-3.8447a2.1112 2.056 0 0 0 -2.062 -3.0927l-4.563 0.5244-3.028-3.3633a2.1112 2.056 0 0 0 -1.6919 -0.6963zm0.064453 2.0019a2.0002 2.0002 0 0 0 0.001 0c0.060112-0.014968 0.11919 0.010419 0.14062 0.034179l3.0278 3.3623a2.0002 2.0002 0 0 0 1.7139 0.64843l4.5625-0.52441c0.1286-0.0147 0.10436 0.013965 0.125 0.04492 0.0049 0.0073 0.0094 0.00779 0.01367 0.00586-0.0034 0.00215-0.0011-0.00631-0.0127 0.012695l-2.3476 3.8447a2.0002 2.0002 0 0 0 -0.10058 1.8974l1.9219 4.0625a2.0002 2.0002 0 0 0 0 0.001c0.06721 0.142 0.10451 0.11136-0.14453 0.05664l-4.479-0.986a2.0002 2.0002 0 0 0 -1.7676 0.46582l-3.375 3.0361c-0.15155 0.13626-0.19334 0.11124-0.20605-0.02343a2.0002 2.0002 0 0 0 0 -0.001l-0.4201-4.455a2.0002 2.0002 0 0 0 -1.0332 -1.567l-4.0058-2.1865c-0.1014-0.0554-0.03819-0.01795-0.037109-0.03809 0.00106-0.01971-0.053166-0.000034 0.048828-0.04297l0.000975-0.001 4.2177-1.7666a2.0002 2.0002 0 0 0 1.1865 -1.4451l0.8985-4.3867c0.0016-0.00788 0.00946-0.035418 0.071289-0.050781z"/>
  <path fill="#fff" opacity=".2" d="m9.3591 1.0029a2.1112 2.056 0 0 0 -0.418 0.0616 2.1112 2.056 0 0 0 -1.5478 1.5888l-0.8984 4.3887-4.2188 1.7675a2.1112 2.056 0 0 0 -1.2587 2.1435 2.1112 2.056 0 0 1 1.2587 -1.6435l4.2188-1.7676 0.8984-4.3886a2.1112 2.056 0 0 1 1.5478 -1.5889 2.1112 2.056 0 0 1 2.1099 0.6348l3.028 3.3633 4.563-0.5244a2.1112 2.056 0 0 1 2.34 1.7978 2.1112 2.056 0 0 0 -2.34 -2.2978l-4.563 0.5244-3.028-3.3633a2.1112 2.056 0 0 0 -1.6919 -0.6963zm9.1299 10.755-0.134 0.218 1.922 4.062a2.1112 2.056 0 0 1 0.177 0.61 2.1112 2.056 0 0 0 -0.177 -1.11l-1.7881-3.7802z"/>
 </g>
</svg>
