<svg xmlns="http://www.w3.org/2000/svg" width="24" height="24" version="1.1">
 <path style="fill:#c2352a" d="m4 2h16c0.554 0 1 0.446 1 1v18c0 0.554-0.446 1-1 1h-16c-0.554 0-1-0.446-1-1v-18c0-0.554 0.446-1 1-1z"/>
 <path style="opacity:.2" d="m15 2.5v11l1-1h1l1 1v-11z"/>
 <path style="fill:#fec006" d="m15 2v11l1-1h1l1 1v-11z"/>
 <path style="opacity:.2;fill:#8b9cbe" d="m4 2c-0.554 0-1 0.446-1 1v0.5c0-0.554 0.446-1 1-1h16c0.554 0 1 0.446 1 1v-0.5c0-0.554-0.446-1-1-1z"/>
 <path style="opacity:.2" d="m4 2c-0.554 0-1 0.446-1 1v18c0 0.9625 1 1 1 1h2v-20z"/>
 <path style="opacity:.2" d="m3 21v0.5c0 0.554 0.446 1 1 1h16c0.554 0 1-0.446 1-1v-0.5c0 0.554-0.446 1-1 1h-16c-0.554 0-1-0.446-1-1z"/>
</svg>
