<svg xmlns="http://www.w3.org/2000/svg" width="24" height="24" version="1">
 <path style="fill:#14ddb1" d="M 12,2 H 3 C 2.446,2 2,2.446 2,3 v 9 h 10 z"/>
 <path style="fill:#2086e7" d="m 12,2 h 9 c 0.554,0 1,0.446 1,1 v 9 H 12 Z"/>
 <path style="fill:#2086e7" d="M 12,22 H 3 C 2.446,22 2,21.554 2,21 v -9 h 10 z"/>
 <path style="fill:#14ddb1" d="m 12,22 h 9 c 0.554,0 1,-0.446 1,-1 V 12 H 12 Z"/>
 <path style="opacity:0.2;fill:#8b9cbe" d="M 3,2 C 2.446,2 2,2.446 2,3 v 0.5 c 0,-0.554 0.446,-1 1,-1 h 18 c 0.554,0 1,0.446 1,1 V 3 C 22,2.446 21.554,2 21,2 Z"/>
 <path style="opacity:0.2" d="m 3,22.5 c -0.554,0 -1,-0.446 -1,-1 V 21 c 0,0.554 0.446,1 1,1 h 18 c 0.554,0 1,-0.446 1,-1 v 0.5 c 0,0.554 -0.446,1 -1,1 z"/>
 <rect style="fill:#17191e" width="14" height="14" x="5" y="5"/>
 <path style="opacity:0.2;fill:none;stroke:#000000;stroke-width:0.99999994;stroke-linecap:round;stroke-linejoin:bevel" d="m 13.507121,11.499829 c 0,0 0,0.500002 -1,0.500002 -0.999999,0 -0.999999,-1.000001 -0.999999,-2.000002 0,-0.9999985 0,-1.999999 0.999999,-1.999999 1,0 1,0.499999 1,0.499999"/>
 <path style="fill:none;stroke:#8b9cbe;stroke-width:0.99999994;stroke-linecap:round;stroke-linejoin:bevel" d="m 13.507121,10.999879 c 0,0 0,0.500002 -1,0.500002 -0.999999,0 -0.999999,-1.000001 -0.999999,-2.000002 0,-0.9999985 0,-1.999999 0.999999,-1.999999 1,0 1,0.499999 1,0.499999"/>
 <path style="opacity:0.2;fill:none;stroke:#000000;stroke-width:0.99999994;stroke-linecap:round;stroke-linejoin:bevel" d="m 7.5071212,10.499829 h 2 m -1.99995,1.5 v -3 m 1.99995,3 v -3 m -2,0 c 0,0 0,-1.0000005 1,-1.0000005 1,0 1,1.0000005 1,1.0000005"/>
 <path style="fill:none;stroke:#8b9cbe;stroke-width:0.99999994;stroke-linecap:round;stroke-linejoin:bevel" d="m 7.5071212,9.999879 h 2 m -1.99995,1.5 v -3 m 1.99995,3 v -3 m -2,0 c 0,0 0,-1.0000005 1,-1.0000005 1,0 1,1.0000005 1,1.0000005"/>
 <path style="opacity:0.2;fill:none;stroke:#000000;stroke-linecap:round" d="M 7.5071212,15.99995 H 11.507121"/>
 <path style="fill:none;stroke:#8b9cbe;stroke-linecap:round" d="M 7.5071212,15.5 H 11.507121"/>
</svg>
