<svg xmlns="http://www.w3.org/2000/svg" width="24" height="24" version="1">
 <rect style="fill:#2979ff" width="20" height="20" x="2" y="2" rx="1" ry="1"/>
 <path style="opacity:0.1;fill:#8b9cbe" d="M 3,2 C 2.446,2 2,2.446 2,3 v 0.5 c 0,-0.554 0.446,-1 1,-1 h 18 c 0.554,0 1,0.446 1,1 V 3 C 22,2.446 21.554,2 21,2 Z"/>
 <path style="opacity:0.2" d="m 3,22.5 c -0.554,0 -1,-0.446 -1,-1 V 21 c 0,0.554 0.446,1 1,1 h 18 c 0.554,0 1,-0.446 1,-1 v 0.5 c 0,0.554 -0.446,1 -1,1 z"/>
 <path style="opacity:0.2" d="m 9,6.5 -3,3 v 6 3 h 3 5.5 l 3,-3 H 10.920899 L 17.458008,8.9453125 15.333985,6.826172 9,13.177735 Z"/>
 <path style="fill:#8b9cbe" d="M 9,6 6,9 v 6 3 h 3 5.5 l 3,-3 H 10.920899 L 17.458008,8.4453125 15.333985,6.326172 9,12.677735 Z"/>
</svg>
