<svg xmlns="http://www.w3.org/2000/svg" width="24" height="24" version="1.1">
 <path style="opacity:0.2" d="m 12.500012,2.5000006 c -5.77471,0 -10.5000002,4.7231806 -10.5,10.4988054 v 0.0059 0.0059 c 0.00352,0.583659 0,1.249206 0,1.822397 v 0.0039 0.0039 c 0.010667,2.742886 1.7644502,4.628971 3.2617188,5.523837 1.4610231,0.873468 2.8850353,1.101373 2.8867187,1.101643 h 0.00195 c 1.5038934,0.257257 2.8505495,-1.010262 2.8496125,-2.431884 v -7.068871 c 1.47e-4,-1.305689 -1.1030437,-2.5046837 -2.5097656,-2.4650209 -0.00524,9.14e-5 -0.010382,-1.239e-4 -0.015625,0 l -0.064453,0.00195 -0.0625,0.00586 -0.013672,0.00391 C 9.3720055,8.2542066 10.88553,7.5003624 12.500012,7.5003624 c 1.614482,0 3.128006,0.7538443 4.166016,2.0118643 -6.2e-5,-4.6e-6 -0.01367,-0.00391 -0.01367,-0.00391 l -0.05274,-0.00391 -0.05078,-0.00195 c -0.0052,-1.822e-4 -0.01043,1.48e-4 -0.01563,0 -1.435149,-0.057803 -2.533341,1.1570823 -2.533196,2.4630713 v 7.068871 c -9.36e-4,1.422263 1.346852,2.690632 2.851562,2.431817 0.0017,-2.7e-4 1.425696,-0.228175 2.886719,-1.101643 1.49725,-0.894855 3.251108,-2.780906 3.261719,-5.523837 v -0.0039 -0.0039 c 0,-0.573143 -0.0035,-1.238539 0,-1.822397 v -0.0059 -0.0059 c 0,-5.7754809 -4.725261,-10.4987384 -10.5,-10.4987384 z"/>
 <path style="fill:#b2bfd9" d="m 12.500012,1.9999997 c -5.77471,0 -10.5000002,4.7231806 -10.5,10.4988063 v 0.0059 0.0059 c 0.00352,0.583659 0,1.249206 0,1.822397 v 0.0039 0.0039 c 0.010667,2.742886 1.7644502,4.628971 3.2617188,5.523837 1.4610231,0.873468 2.8850353,1.101373 2.8867187,1.101643 h 0.00195 c 1.5038934,0.257257 2.8505495,-1.010262 2.8496125,-2.431884 v -7.068871 c 1.47e-4,-1.305689 -1.1030437,-2.5046846 -2.5097656,-2.4650218 -0.00524,9.14e-5 -0.010382,-1.239e-4 -0.015625,0 l -0.064453,0.00195 -0.0625,0.00586 -0.013672,0.00391 C 9.3720055,7.7542057 10.88553,7.0003615 12.500012,7.0003615 c 1.614482,0 3.128006,0.7538443 4.166016,2.0118643 -6.2e-5,-4.6e-6 -0.01367,-0.00391 -0.01367,-0.00391 l -0.05274,-0.00391 -0.05078,-0.00195 c -0.0052,-1.822e-4 -0.01043,1.48e-4 -0.01563,0 -1.435149,-0.057803 -2.533341,1.1570832 -2.533196,2.4630722 v 7.068871 c -9.36e-4,1.422263 1.346852,2.690632 2.851562,2.431817 0.0017,-2.7e-4 1.425696,-0.228175 2.886719,-1.101643 1.49725,-0.894855 3.251108,-2.780906 3.261719,-5.523837 v -0.0039 -0.0039 c 0,-0.573143 -0.0035,-1.238539 0,-1.822397 v -0.0059 -0.0059 c 0,-5.7754818 -4.725261,-10.4987393 -10.5,-10.4987393 z"/>
 <path style="opacity:0.1" d="m 12.500012,4.5005009 c -4.6944204,0 -8.5000001,3.8035 -8.5,8.4977991 0.00362,0.6006 0,1.2693 0,1.8339 0.00754,1.9386 1.1813939,3.1535 2.2871094,3.8143 1.1057149,0.661 2.1992187,0.8476 2.1992187,0.8476 0.2690573,0.047 0.5138612,-0.1716 0.5136719,-0.4589 v -7.07015 c 2.94e-5,-0.2617 -0.2048375,-0.4719 -0.453125,-0.4649 -0.00846,-2e-4 -0.016929,-2e-4 -0.025391,0 0,0 -1.1034871,0.096 -2.2207032,0.6699 -0.4267358,0.2194 -0.8627518,0.5248 -1.2402343,0.9238 -0.060547,-4.5938491 3.6044637,-7.5933491 7.4394535,-7.5933491 3.834989,0 7.5,2.9995 7.439453,7.5933491 -0.377482,-0.3991 -0.813498,-0.7044 -1.240234,-0.9238 -1.117216,-0.5739 -2.220703,-0.6699 -2.220703,-0.6699 -0.0085,-3e-4 -0.01689,-3e-4 -0.02539,0 -0.248287,-0.01 -0.453154,0.2033 -0.453125,0.4649 v 7.07015 c -1.89e-4,0.2873 0.244615,0.5059 0.513672,0.4589 0,0 1.093504,-0.1866 2.199219,-0.8476 1.105715,-0.6608 2.279609,-1.8757 2.287109,-3.8143 0,-0.5646 -0.0036,-1.2332 0,-1.8339 0,-4.6941991 -3.80558,-8.4977991 -8.500001,-8.4977991 z"/>
 <path style="opacity:0.2;fill:#8b9cbe" d="m 12.500012,2 c -5.77471,0 -10.5000002,4.7224212 -10.5,10.498047 v 0.0059 0.0059 c 9.432e-4,0.156393 -1.355e-4,0.323481 0,0.488281 C 2.0000118,7.2224218 6.725302,2.5 12.500012,2.5 c 5.774739,0 10.5,4.7225657 10.5,10.498047 1.35e-4,-0.164812 -9.38e-4,-0.331835 0,-0.488281 v -0.0059 -0.0059 C 23.000012,6.7225651 18.274751,2 12.500012,2 Z M 8.7910276,9.0234375 C 8.6307031,9.177149 8.4772028,9.3381589 8.3339964,9.5117188 l 0.013672,-0.00391 0.0625,-0.00586 L 8.4746214,9.5 c 0.00524,-1.239e-4 0.010385,9.14e-5 0.015625,0 1.4067219,-0.039663 2.5099126,1.159155 2.5097656,2.464844 v -0.5 C 11.000148,10.255071 10.049093,9.1496442 8.7910276,9.0234375 Z m 7.4199224,0.00195 C 14.938909,9.1469991 13.999878,10.25975 14.000012,11.464844 v 0.5 c -1.45e-4,-1.305989 1.098054,-2.5206938 2.533203,-2.4628909 0.0052,1.48e-4 0.01043,-1.822e-4 0.01563,0 l 0.05078,0.00195 0.05274,0.00391 c 0,0 0.01361,0.0039 0.01367,0.00391 C 16.523416,9.3388807 16.370541,9.1785479 16.21095,9.0253906 Z"/>
 <path style="fill:#4f4f4f" d="m 12.500012,4 c -4.6944204,0 -8.5000001,3.8037469 -8.5,8.498047 0.00362,0.6006 0,1.269384 0,1.833984 0.00754,1.9386 1.2438939,1.007169 2.3496094,1.667969 1.1057149,0.661 1.6503906,2 1.6503906,2 0.2690573,0.047 1.893e-4,-0.0545 0,-0.341797 v -5.097656 c 2.94e-5,-0.2617 -0.2048375,-0.471844 -0.453125,-0.464844 -0.00846,-2e-4 -0.016929,-2e-4 -0.025391,0 0,0 -1.4042683,1.330397 -2.5214844,1.904297 l 0.060547,-1.40625 C 5.0000119,7.9999 8.6650222,5 12.500012,5 c 3.83499,0 7.500004,2.9999 7.439453,7.59375 L 20.000012,14 c -1.117216,-0.5739 -2.521484,-1.904297 -2.521484,-1.904297 -0.0085,-2e-4 -0.01689,-2e-4 -0.02539,0 -0.248288,-0.007 -0.453154,0.203144 -0.453125,0.464844 v 5.097656 c -1.89e-4,0.287297 -0.269057,0.388797 0,0.341797 0,0 0.544676,-1.339 1.650391,-2 1.105715,-0.6608 2.342069,0.270631 2.349609,-1.667969 0,-0.5646 -0.0036,-1.233384 0,-1.833984 C 21.000012,7.8037469 17.194432,4 12.500012,4 Z"/>
 <path style="fill:#e91e63" d="m 8.4808646,11.006379 c 0,0 -1.1051597,0.186633 -2.2226608,0.847547 C 5.2752753,12.435074 4.2405099,13.446173 4.000012,15 c 0.2404979,1.553827 1.2752633,2.564927 2.2581918,3.146075 1.1175011,0.660914 2.2226608,0.847547 2.2226608,0.847547 0.2719253,0.04699 0.5193386,-0.171663 0.5191473,-0.458925 V 15 11.465304 c 1.913e-4,-0.287263 -0.247222,-0.505919 -0.5191473,-0.458925 z"/>
 <path style="fill:#e91e63" d="m 16.519159,11.006379 c 0,0 1.10516,0.186633 2.222661,0.847547 0.982929,0.581148 2.017694,1.592247 2.258192,3.146074 -0.240498,1.553827 -1.275263,2.564927 -2.258192,3.146075 -1.117501,0.660914 -2.222661,0.847547 -2.222661,0.847547 -0.271925,0.04699 -0.519338,-0.171663 -0.519147,-0.458925 V 15 11.465304 c -1.91e-4,-0.287263 0.247222,-0.505919 0.519147,-0.458925 z"/>
</svg>
