<svg xmlns="http://www.w3.org/2000/svg" width="24" height="24" version="1.1">
 <g transform="translate(1,1)">
  <path style="opacity:.2" d="m1 19v0.5c0 0.554 0.446 1 1 1h18c0.554 0 1-0.446 1-1v-0.5c0 0.554-0.446 1-1 1h-18c-0.554 0-1-0.446-1-1z"/>
  <rect style="fill:#4f4f4f" width="20" height="18" x="1" y="2" rx="1" ry="1"/>
  <path style="fill:#8b9cbe;opacity:.1" d="m2 2c-0.554 0-1 0.446-1 1v0.5c0-0.554 0.446-1 1-1h18c0.554 0 1 0.446 1 1v-0.5c0-0.554-0.446-1-1-1z"/>
  <path style="opacity:.2" d="m4 4.5v1h2v-1zm2 1v1h1v-1zm-2 0h-1v4h1zm0 4v1h2v-1zm2 0h1v-1h-1zm2-5v6h1v-2h2v-1h-2v-2h2v-1zm3 1v2h1v-2zm0 3v2h1v-2zm2-4v1h1v5h1v-5h1v-1h-2zm-10 7v6h4v-6z"/>
  <path style="fill:#ffc105" d="m4 4v1h2v-1zm2 1v1h1v-1zm-2 0h-1v4h1zm0 4v1h2v-1zm2 0h1v-1h-1zm2-5v6h1v-2h2v-1h-2v-2h2v-1zm3 1v2h1v-2zm0 3v2h1v-2zm2-4v1h1v5h1v-5h1v-1h-2zm-10 7v6h4v-6z"/>
 </g>
</svg>
