<svg xmlns="http://www.w3.org/2000/svg" width="24" height="24" version="1">
 <rect style="opacity:0.2" width="20" height="20" x="2" y="2.5" rx="6" ry="6"/>
 <rect style="fill:#00aae1" width="20" height="20" x="2" y="2" rx="6" ry="6"/>
 <path style="opacity:0.2;fill:#8b9cbe" d="M 8,2 C 4.676,2 2,4.676 2,8 v 0.5 c 0,-3.324 2.676,-6 6,-6 h 8 c 3.324,0 6,2.676 6,6 V 8 C 22,4.676 19.324,2 16,2 Z"/>
 <path style="opacity:0.2" d="M 12,4.5 C 10.391508,4.5 8.9021662,5.2014083 7.796875,6.2109375 6.6915838,7.2204667 5.911463,8.5800266 6.0019531,10.060547 6.080964,11.353253 6.6463109,12.566241 7.7011719,13.351562 8.7560329,14.136885 10.196495,14.5 12,14.5 c 1.640689,0 2.9772,-0.303705 4,-0.949219 v 2.925781 c 0,0 0.01193,0.370771 -0.416016,0.876954 C 15.156038,17.859698 14.260736,18.5 12,18.5 9.95667,18.5 9.104468,17.974211 8.6289062,17.5 H 10 v -2 H 5.9746094 L 6,16.523438 c 0,0 0.04846,1.129229 0.8886719,2.123046 C 7.7288835,19.640302 9.333367,20.5 12,20.5 c 2.666633,0 4.271116,-0.859698 5.111328,-1.853516 C 17.95154,17.652667 18,16.523438 18,16.523438 V 16.511719 10 H 17.998 C 18.063714,8.5432264 17.293176,7.2065468 16.203125,6.2109375 15.097834,5.2014083 13.608492,4.5 12,4.5 Z m 0,2 c 1.005066,0 2.081536,0.4806206 2.855469,1.1875 0.773932,0.7068794 1.186448,1.598108 1.146484,2.2519531 C 15.95051,10.781112 15.682558,11.316961 15.103516,11.748047 14.524473,12.179133 13.530426,12.5 12,12.5 10.469574,12.5 9.4755273,12.179133 8.8964844,11.748047 8.3174415,11.316961 8.0494895,10.781112 7.9980469,9.9394531 7.9580835,9.2856079 8.3705986,8.3943795 9.1445312,7.6875 9.9184641,6.9806205 10.994934,6.5 12,6.5 Z"/>
 <path style="fill:none;stroke:#cff0f5;stroke-width:2" d="M 12,13 C 8.666069,13 7.1304535,11.634365 7,9.5 6.8695465,7.3656345 9.3864425,5 12,5 c 2.613558,0 5.130454,2.3656345 5,4.5 -0.130454,2.134365 -1.666069,3.5 -5,3.5 z"/>
 <path style="fill:none;stroke:#cff0f5;stroke-width:2" d="M 10,16 H 7 c 0,0 0.07263,3 5,3 4.927369,0 5,-3 5,-3 V 9.5"/>
</svg>
