<svg xmlns="http://www.w3.org/2000/svg" width="24" height="24" version="1">
 <path style="opacity:0.2" d="M 11.557159,1.5009356 A 2.4096624,2.3876006 0 0 0 10.295222,1.8194469 L 3.2049367,5.8755172 A 2.4096624,2.3876006 0 0 0 2,7.9434516 v 8.1126654 a 2.4096624,2.3876006 0 0 0 1.2048311,2.067725 l 7.0902849,4.05628 a 2.4096624,2.3876006 0 0 0 2.409662,0 l 7.090285,-4.05628 A 2.4096624,2.3876006 0 0 0 21,16.055907 V 7.9432415 A 2.4096624,2.3876006 0 0 0 19.795063,5.8753072 L 12.704778,1.8192368 A 2.4096624,2.3876006 0 0 0 11.556843,1.5007256 Z"/>
 <path style="fill:#c8f178" d="M 11.557159,1.0006983 A 2.4096624,2.3876006 0 0 0 10.295222,1.3192096 L 3.2049367,5.3752799 A 2.4096624,2.3876006 0 0 0 2,7.4432143 V 15.55588 a 2.4096624,2.3876006 0 0 0 1.2048311,2.067725 l 7.0902849,4.05628 a 2.4096624,2.3876006 0 0 0 2.409662,0 l 7.090285,-4.05628 A 2.4096624,2.3876006 0 0 0 21,15.55567 V 7.4430042 A 2.4096624,2.3876006 0 0 0 19.795063,5.3750699 L 12.704778,1.3189995 A 2.4096624,2.3876006 0 0 0 11.556843,1.0004883 Z"/>
 <path style="fill:#86bd1f" d="M 11.523627,3.0002972 C 11.34018,2.9958572 11.158355,3.0411682 10.997228,3.13408 L 4.4980466,6.8866385 C 4.2080103,7.0540832 3.999979,7.4165614 4,7.7481618 v 7.5070152 c -2e-7,0.331629 0.2113724,0.695052 0.4980466,0.860575 l 6.5001264,3.753506 c 0.301913,0.174324 0.701742,0.174322 1.003655,0 l 6.500125,-3.753506 C 18.788603,15.950262 19.000022,15.586779 19,15.255177 V 7.7481618 7.7472056 C 19.000022,7.4156292 18.788603,7.0521202 18.501953,6.8866311 L 12.002773,3.13408 a 0.72587904,0.72876193 0 0 0 -9.65e-4,0 C 11.854195,3.0489473 11.691732,3.0041532 11.524572,3.0002972 a 0.72587904,0.72876193 0 0 0 -9.64e-4,0 z"/>
 <path style="opacity:0.1" d="M 18.798828 7.1738281 L 11.439453 11.359375 L 4.1933594 7.1855469 C 4.0768003 7.3551522 3.9999878 7.5546133 4 7.7480469 L 4 8.2285156 L 11 12.259766 L 11 19.869141 C 11.301204 20.042257 11.698796 20.042256 12 19.869141 L 12 12.191406 L 19 8.2128906 L 19 7.7480469 C 19.000013 7.5505095 18.920104 7.3454103 18.798828 7.1738281 z"/>
 <path style="opacity:0.1" d="M 11.523438 3 C 11.339991 2.99556 11.159174 3.0418538 10.998047 3.1347656 L 4.4980469 6.8867188 C 4.2080106 7.0541634 3.999979 7.4164465 4 7.7480469 L 4 8.2480469 C 3.999979 7.9164465 4.2080106 7.5541634 4.4980469 7.3867188 L 10.998047 3.6347656 C 11.159174 3.5418538 11.339991 3.49556 11.523438 3.5 A 0.72587904 0.72876193 0 0 0 11.525391 3.5 C 11.692551 3.503856 11.85434 3.5496329 12.001953 3.6347656 L 18.501953 7.3867188 C 18.788603 7.5522079 19.000022 7.9164705 19 8.2480469 L 19 7.7480469 C 19.000022 7.4164705 18.788603 7.0522078 18.501953 6.8867188 L 12.001953 3.1347656 C 11.85434 3.0496329 11.692551 3.003856 11.525391 3 A 0.72587904 0.72876193 0 0 0 11.523438 3 z"/>
 <path style="fill:#c8f178" d="M 20.335938 5.8007812 L 11.439453 10.859375 L 2.6601562 5.8027344 A 2.4096624 2.3876006 0 0 0 2.1367188 6.65625 L 11 11.759766 L 11 21.945312 A 2.4096624 2.3876006 0 0 0 12 21.945312 L 12 11.691406 L 20.861328 6.6542969 A 2.4096624 2.3876006 0 0 0 20.335938 5.8007812 z"/>
 <path style="fill:#8b9cbe;opacity:0.2" d="M 11.556641 1 A 2.4096624 2.3876006 0 0 0 10.294922 1.3183594 L 3.2050781 5.375 A 2.4096624 2.3876006 0 0 0 2 7.4433594 L 2 7.9433594 A 2.4096624 2.3876006 0 0 1 3.2050781 5.875 L 10.294922 1.8203125 A 2.4096624 2.3876006 0 0 1 11.556641 1.5 A 2.4096624 2.3876006 0 0 1 12.705078 1.8183594 L 19.794922 5.875 A 2.4096624 2.3876006 0 0 1 21 7.9433594 L 21 7.4433594 A 2.4096624 2.3876006 0 0 0 19.794922 5.375 L 12.705078 1.3183594 A 2.4096624 2.3876006 0 0 0 11.556641 1 z"/>
 <path style="opacity:0.2;fill:#8b9cbe" d="m 4,15.255976 v 0.5 c -2e-7,0.331629 0.2113727,0.693852 0.4980469,0.859375 l 6.5000001,3.753907 c 0.301913,0.174324 0.701993,0.174322 1.003906,0 l 6.5,-3.753907 C 18.788603,16.449861 19.000022,16.087578 19,15.755976 v -0.5 c 2.2e-5,0.331602 -0.211397,0.693885 -0.498047,0.859375 l -6.5,3.753907 c -0.301913,0.174322 -0.701993,0.174324 -1.003906,0 L 4.4980469,16.115351 C 4.2113727,15.949828 3.9999998,15.587605 4,15.255976 Z"/>
</svg>
