<svg xmlns="http://www.w3.org/2000/svg" width="24" height="24" version="1">
 <rect style="opacity:0.2" width="20" height="20" x="2" y="2.5" rx="10" ry="10"/>
 <rect style="fill:#3c5771" width="20" height="20" x="2" y="2" rx="10" ry="10"/>
 <path style="opacity:0.2" d="m 17.795555,14.052915 -6.054374,-0.586989 0.517638,-1.931852 z"/>
 <path style="fill:#f0f2f7" d="m 17.795555,13.552915 -6.054374,-0.586989 0.517638,-1.931852 z"/>
 <circle style="opacity:0.2" cx="8.968" cy="-14.826" r="2" transform="matrix(-0.25881904,0.96592583,-0.96592583,-0.25881904,0,0)"/>
 <circle style="fill:#24303e" cx="8.485" cy="-14.697" r="2" transform="matrix(-0.25881904,0.96592583,-0.96592583,-0.25881904,0,0)"/>
 <path style="opacity:0.1;fill:#8b9cbe" d="M 12,2 C 6.46,2 2,6.46 2,12 c 0,0.08394 0.00382,0.166571 0.00586,0.25 C 2.1381952,6.8269315 6.543937,2.5 12,2.5 c 5.456063,0 9.861805,4.3269315 9.99414,9.75 C 21.996176,12.166571 22,12.083937 22,12 22,6.46 17.54,2 12,2 Z"/>
 <path style="opacity:0.2" d="m 12,3.5000896 a 1,1 0 0 0 -1,1 1,1 0 0 0 1,1 1,1 0 0 0 1,-1 1,1 0 0 0 -1,-1 z m -4.0234375,1 A 1,1 0 0 0 7.5,4.6329021 1,1 0 0 0 7.1347656,6.0000896 1,1 0 0 0 8.5,6.365324 1,1 0 0 0 8.8652344,5.0000896 a 1,1 0 0 0 -0.8886719,-0.5 z m 8.0468755,0 a 1,1 0 0 0 -0.888672,0.5 A 1,1 0 0 0 15.5,6.365324 1,1 0 0 0 16.865234,6.0000896 1,1 0 0 0 16.5,4.6329021 1,1 0 0 0 16.023438,4.5000896 Z m -11.0000005,3 A 1,1.0008931 0 0 0 4.953125,7.5020427 1,1.0008931 0 0 0 4.1328125,8.0000896 1,1.0008931 0 0 0 4.5,9.365324 1,1.0008931 0 0 0 5.8652344,9.0000896 1,1.0008931 0 0 0 5.5,7.6348552 1,1.0008931 0 0 0 5.0234375,7.5000896 Z m 13.9531245,0 A 1,1.0008931 0 0 0 18.5,7.6348552 1,1.0008931 0 0 0 18.134766,9.0000896 1,1.0008931 0 0 0 19.5,9.365324 1,1.0008931 0 0 0 19.867188,8.0000896 1,1.0008931 0 0 0 19.046875,7.5020427 1,1.0008931 0 0 0 18.976562,7.5000896 Z M 4,11.500089 a 1,1 0 0 0 -1,1 1,1 0 0 0 1,1 1,1 0 0 0 1,-1 1,1 0 0 0 -1,-1 z m 16,0 a 1,1 0 0 0 -1,1 1,1 0 0 0 1,1 1,1 0 0 0 1,-1 1,1 0 0 0 -1,-1 z m -15.0234375,4 A 1,1 0 0 0 4.5,15.634855 1,1 0 0 0 4.1328125,17.000089 1,1 0 0 0 5.5,17.365323 a 1,1 0 0 0 0.3652344,-1.365234 1,1 0 0 0 -0.8886719,-0.5 z m 13.9765625,0 a 1,1 0 0 0 -0.818359,0.5 A 1,1 0 0 0 18.5,17.365323 1,1 0 0 0 19.867188,17.000089 1,1 0 0 0 19.5,15.634855 a 1,1 0 0 0 -0.476562,-0.134766 1,1 0 0 0 -0.07031,0 z"/>
 <path style="fill:#64dedc" d="M 12 3 A 1 1 0 0 0 11 4 A 1 1 0 0 0 12 5 A 1 1 0 0 0 13 4 A 1 1 0 0 0 12 3 z M 7.9765625 4 A 1 1 0 0 0 7.5 4.1328125 A 1 1 0 0 0 7.1347656 5.5 A 1 1 0 0 0 8.5 5.8652344 A 1 1 0 0 0 8.8652344 4.5 A 1 1 0 0 0 7.9765625 4 z M 16.023438 4 A 1 1 0 0 0 15.134766 4.5 A 1 1 0 0 0 15.5 5.8652344 A 1 1 0 0 0 16.865234 5.5 A 1 1 0 0 0 16.5 4.1328125 A 1 1 0 0 0 16.023438 4 z M 5.0234375 7 A 1 1.0008931 0 0 0 4.953125 7.0019531 A 1 1.0008931 0 0 0 4.1328125 7.5 A 1 1.0008931 0 0 0 4.5 8.8652344 A 1 1.0008931 0 0 0 5.8652344 8.5 A 1 1.0008931 0 0 0 5.5 7.1347656 A 1 1.0008931 0 0 0 5.0234375 7 z M 18.976562 7 A 1 1.0008931 0 0 0 18.5 7.1347656 A 1 1.0008931 0 0 0 18.134766 8.5 A 1 1.0008931 0 0 0 19.5 8.8652344 A 1 1.0008931 0 0 0 19.867188 7.5 A 1 1.0008931 0 0 0 19.046875 7.0019531 A 1 1.0008931 0 0 0 18.976562 7 z M 4 11 A 1 1 0 0 0 3 12 A 1 1 0 0 0 4 13 A 1 1 0 0 0 5 12 A 1 1 0 0 0 4 11 z M 20 11 A 1 1 0 0 0 19 12 A 1 1 0 0 0 20 13 A 1 1 0 0 0 21 12 A 1 1 0 0 0 20 11 z M 4.9765625 15 A 1 1 0 0 0 4.5 15.134766 A 1 1 0 0 0 4.1328125 16.5 A 1 1 0 0 0 5.5 16.865234 A 1 1 0 0 0 5.8652344 15.5 A 1 1 0 0 0 4.9765625 15 z M 18.953125 15 A 1 1 0 0 0 18.134766 15.5 A 1 1 0 0 0 18.5 16.865234 A 1 1 0 0 0 19.867188 16.5 A 1 1 0 0 0 19.5 15.134766 A 1 1 0 0 0 19.023438 15 A 1 1 0 0 0 18.953125 15 z"/>
</svg>
