<svg xmlns="http://www.w3.org/2000/svg" width="24" height="24" version="1">
 <rect style="opacity:0.2" width="20" height="20" x="-22.5" y="-22" rx="1" ry="1" transform="matrix(0,-1,-1,0,0,0)"/>
 <rect style="fill:#1775d2" width="20" height="20" x="-22" y="-22" rx="1" ry="1" transform="matrix(0,-1,-1,0,0,0)"/>
 <path style="opacity:0.15" d="M 3,2 C 2.446,2 2,2.446 2,3 v 18 c 0,0.277 0.1112422,0.527258 0.2919922,0.708008 L 21.708008,2.2919922 C 21.527258,2.1112422 21.277,2 21,2 Z"/>
 <path style="opacity:0.2" d="M 7.0917969,6.5 C 6.4874332,6.5 6,7.0240165 6,7.6757812 V 13.044922 15.324219 18.5 l 2,-2 h 8.908203 C 17.512567,16.5 18,15.975983 18,15.324219 V 7.6757812 C 18,7.0240165 17.512567,6.5 16.908203,6.5 Z"/>
 <rect style="fill:#8b9cbe" width="12" height="10" x="6" y="6" rx="1.091" ry="1.176"/>
 <path style="fill:#8b9cbe" d="M 5.9999999,12.545455 H 11.454545 L 5.9999999,18 Z"/>
 <path style="fill:#b7b7b7" d="M 8 8.5 L 8 10 L 14.001953 10 L 15.501953 8.5 L 8 8.5 z M 8 10.5 L 8 12 L 12.001953 12 L 13.501953 10.5 L 8 10.5 z M 8 12.5 L 8 14 L 10.001953 14 L 11.501953 12.5 L 8 12.5 z"/>
 <path style="opacity:0.1;fill:#8b9cbe" d="M 3,2 C 2.446,2 2,2.446 2,3 v 0.5 c 0,-0.554 0.446,-1 1,-1 h 18 c 0.554,0 1,0.446 1,1 V 3 C 22,2.446 21.554,2 21,2 Z"/>
 <path style="fill:#8b9cbe;opacity:0.1" d="M 21.410156 2.5917969 L 17.378906 6.6230469 C 17.484965 6.6780362 17.584482 6.7467783 17.667969 6.8339844 L 21.707031 2.7949219 C 21.622045 2.7096605 21.521487 2.6419667 21.410156 2.5917969 z M 6 18.001953 L 2.2949219 21.707031 C 2.3798807 21.791715 2.4811007 21.859941 2.5917969 21.910156 L 6 18.5 L 6 18.001953 z"/>
</svg>
