<svg xmlns="http://www.w3.org/2000/svg" width="24" height="24" version="1">
 <path style="opacity:0.2" d="m 12.053711,2.5000002 v 9.75e-4 A 2.282838,2.2739422 0 0 0 10.858399,2.80371 L 4.1416015,6.6669775 A 2.282838,2.2739422 0 0 0 3,8.636698 v 7.726535 a 2.282838,2.2739422 0 0 0 1.1416015,1.968743 l 6.7167975,3.863268 a 2.282838,2.2739422 0 0 0 2.283202,0 l 6.716797,-3.863268 A 2.282838,2.2739422 0 0 0 21,16.363233 V 8.636698 A 2.282838,2.2739422 0 0 0 19.858398,6.6669775 L 13.141601,2.80371 a 2.282838,2.2739422 0 0 0 -1.08789,-0.3037098 z"/>
 <path style="fill:#1c5b6c" d="m 12.053711,2 v 9.75e-4 A 2.282838,2.2739422 0 0 0 10.858399,2.3037099 L 4.1416015,6.1669775 A 2.282838,2.2739422 0 0 0 3,8.136698 v 7.726535 a 2.282838,2.2739422 0 0 0 1.1416015,1.968743 l 6.7167975,3.863268 a 2.282838,2.2739422 0 0 0 2.283202,0 l 6.716797,-3.863268 A 2.282838,2.2739422 0 0 0 21,15.863233 V 8.136698 A 2.282838,2.2739422 0 0 0 19.858398,6.1669775 L 13.141601,2.3037099 A 2.282838,2.2739422 0 0 0 12.053711,2 Z"/>
 <path style="opacity:0.2" d="M 9.0390625,8.499959 C 8.9143755,8.502959 8.7931336,8.511621 8.7207031,8.523396 8.3733838,8.579941 8.0805471,8.6966071 7.8339844,8.8769121 7.3739173,9.2133476 7.1060503,9.739104 7.0175781,10.476522 c -0.023369,0.194824 -0.023423,0.593016 0,0.779296 0.1062494,0.845488 0.5192343,1.581811 1.2324219,2.197266 0.2301953,0.198647 0.4973357,0.375883 0.7617188,0.527344 0.05058,1.707228 1.0546222,3.117006 2.3906252,3.445312 0.0032,7.82e-4 0.0066,0.0012 0.0098,0.002 0.06522,0.01697 0.161612,0.03805 0.220703,0.04687 0.0617,0.0092 0.126059,0.019 0.142579,0.02149 0.01859,0.0028 0.09896,-0.0058 0.152343,-0.0059 0.02461,7.26e-4 0.04751,0.0098 0.07227,0.0098 0.04277,0 0.08267,-0.01347 0.125,-0.01563 0.107123,-0.0044 0.211995,-8.89e-4 0.251953,-0.0078 0.04676,-0.0082 0.08896,-0.02833 0.134766,-0.03906 0.09284,-0.01948 0.181774,-0.04852 0.271484,-0.07813 0.05724,-0.0205 0.114623,-0.03987 0.169922,-0.06445 1.156456,-0.473852 1.994532,-1.770031 2.037109,-3.324219 0.191778,-0.110934 0.393233,-0.223471 0.556641,-0.349609 0.689834,-0.532508 1.143075,-1.173666 1.34375,-1.898438 C 16.970511,11.434063 17.000246,11.203331 17,10.8691 16.999089,9.5400968 16.385408,8.7054266 15.279297,8.5253496 15.134435,8.5017846 14.795568,8.4918065 14.623047,8.5077715 13.742961,8.5892345 12.843916,9.0172242 12.148438,9.6835528 12.055108,9.7729726 12.023773,9.7948809 12,9.7948809 c -0.02378,0 -0.0551,-0.021888 -0.148438,-0.1113281 C 11.156085,9.0172242 10.258993,8.5892345 9.3789062,8.5077715 9.2926457,8.4997865 9.1637496,8.496969 9.0390625,8.499959 Z m 0.6269531,1.990234 c 0.065662,-0.003 0.1288484,0.0014 0.1679688,0.01367 0.07117,0.0222 0.2358836,0.115033 0.3398436,0.191406 0.294466,0.216337 0.46498,0.556212 0.529297,1.048829 0.02179,0.166951 0.01986,0.209959 -0.0098,0.242187 -0.0175,0.01905 -0.03526,0.02734 -0.0625,0.02734 -0.03477,0 -0.04587,-0.0084 -0.123047,-0.09375 C 10.292445,11.68168 10.048863,11.500705 9.7753906,11.373006 9.7130296,11.343866 9.5749013,11.288916 9.46875,11.251912 9.2580907,11.178472 9.1625782,11.130396 9.1035156,11.068318 c -0.051199,-0.05381 -0.070312,-0.09543 -0.070312,-0.15625 0,-0.150373 0.1826526,-0.310563 0.4453125,-0.392578 0.052773,-0.01647 0.1218396,-0.02625 0.1875,-0.0293 z m 4.7285154,0.0039 c 0.08691,0.01198 0.179048,0.04024 0.261719,0.07813 0.126294,0.05788 0.248413,0.162415 0.289062,0.248046 0.02435,0.05131 0.02547,0.1309 0.0039,0.175782 -0.04744,0.0985 -0.152172,0.16317 -0.417969,0.255859 -0.301975,0.105308 -0.459872,0.183206 -0.669922,0.333985 -0.124632,0.08946 -0.254394,0.207091 -0.36914,0.333984 -0.0772,0.08537 -0.08828,0.09375 -0.123047,0.09375 -0.02723,0 -0.04499,-0.0083 -0.0625,-0.02734 -0.0296,-0.03223 -0.03151,-0.07523 -0.0098,-0.242187 0.06432,-0.492617 0.236783,-0.832493 0.53125,-1.048829 0.103958,-0.07638 0.268675,-0.169207 0.339844,-0.191406 0.05889,-0.01837 0.139653,-0.0217 0.226562,-0.0098 z m -3.021484,3.0625 c 0.05921,0 0.07655,0.02374 0.109375,0.140625 0.128281,0.456695 0.08868,0.886349 -0.113281,1.216796 -0.09225,0.150948 -0.148956,0.188129 -0.208985,0.136719 -0.07995,-0.06847 -0.120623,-0.409774 -0.08203,-0.689453 0.02783,-0.201905 0.112337,-0.507892 0.191406,-0.695312 0.0398,-0.09434 0.05379,-0.109375 0.103516,-0.109375 z m 1.251953,0.002 c 0.02143,-6e-4 0.04513,0.0022 0.05664,0.01172 0.03709,0.03041 0.149463,0.354182 0.201171,0.576172 0.07169,0.307746 0.07329,0.622041 0.0039,0.824219 -0.03575,0.104102 -0.09917,0.130399 -0.164063,0.06836 -0.01956,-0.01865 -0.06132,-0.07513 -0.0918,-0.125 -0.201955,-0.330447 -0.241561,-0.760101 -0.113281,-1.216796 0.0203,-0.07223 0.03764,-0.111532 0.05273,-0.123047 0.01331,-0.01016 0.03326,-0.01501 0.05469,-0.01563 z"/>
 <path style="fill:#8b9cbe" d="M 9.0390625 8 C 8.9143755 8.003 8.7931336 8.0116625 8.7207031 8.0234375 C 8.3733838 8.079982 8.0805471 8.1966481 7.8339844 8.3769531 C 7.3739173 8.7133886 7.1060503 9.239145 7.0175781 9.9765625 C 6.9942091 10.171387 6.9941551 10.569579 7.0175781 10.755859 C 7.1238275 11.601347 7.5368124 12.33767 8.25 12.953125 C 8.4801953 13.151772 8.7473357 13.329008 9.0117188 13.480469 C 9.0622991 15.187697 10.066341 16.597475 11.402344 16.925781 C 11.405526 16.926563 11.408924 16.926965 11.412109 16.927734 C 11.47733 16.944702 11.573721 16.965779 11.632812 16.974609 C 11.694514 16.983809 11.758871 16.993614 11.775391 16.996094 C 11.793977 16.998905 11.874354 16.990286 11.927734 16.990234 C 11.952348 16.99096 11.975243 17 12 17 C 12.04277 17 12.082666 16.986531 12.125 16.984375 C 12.232123 16.979977 12.336995 16.983486 12.376953 16.976562 C 12.423718 16.968346 12.465909 16.948227 12.511719 16.9375 C 12.604559 16.918022 12.693493 16.888981 12.783203 16.859375 C 12.840448 16.838871 12.897826 16.81951 12.953125 16.794922 C 14.109581 16.32107 14.947657 15.024891 14.990234 13.470703 C 15.182012 13.359769 15.383467 13.247232 15.546875 13.121094 C 16.236709 12.588586 16.68995 11.947428 16.890625 11.222656 C 16.970511 10.934104 17.000246 10.703372 17 10.369141 C 16.999089 9.0401378 16.385408 8.2054676 15.279297 8.0253906 C 15.134435 8.0018256 14.795568 7.9918475 14.623047 8.0078125 C 13.742961 8.0892755 12.843916 8.5172652 12.148438 9.1835938 C 12.055108 9.2730136 12.023773 9.2949219 12 9.2949219 C 11.97622 9.2949219 11.944901 9.2730339 11.851562 9.1835938 C 11.156085 8.5172652 10.258993 8.0892755 9.3789062 8.0078125 C 9.2926457 7.9998275 9.1637496 7.99701 9.0390625 8 z M 9.6660156 9.9902344 C 9.7316776 9.9872344 9.794864 9.9916544 9.8339844 10.003906 C 9.9051544 10.026106 10.069868 10.118939 10.173828 10.195312 C 10.468294 10.411649 10.638808 10.751524 10.703125 11.244141 C 10.724915 11.411092 10.722989 11.4541 10.693359 11.486328 C 10.675859 11.505378 10.658099 11.513672 10.630859 11.513672 C 10.596089 11.513672 10.58499 11.505272 10.507812 11.419922 C 10.292445 11.181721 10.048863 11.000746 9.7753906 10.873047 C 9.7130296 10.843907 9.5749013 10.788956 9.46875 10.751953 C 9.2580907 10.678513 9.1625782 10.630437 9.1035156 10.568359 C 9.0523166 10.514549 9.0332031 10.472929 9.0332031 10.412109 C 9.0332031 10.261736 9.2158557 10.101546 9.4785156 10.019531 C 9.5312886 10.003061 9.6003552 9.993284 9.6660156 9.9902344 z M 14.394531 9.9941406 C 14.481441 10.006121 14.573579 10.034386 14.65625 10.072266 C 14.782544 10.130146 14.904663 10.234681 14.945312 10.320312 C 14.969664 10.371623 14.970779 10.451212 14.949219 10.496094 C 14.901779 10.594594 14.797047 10.659264 14.53125 10.751953 C 14.229275 10.857261 14.071378 10.935159 13.861328 11.085938 C 13.736696 11.175397 13.606934 11.293029 13.492188 11.419922 C 13.414988 11.505292 13.403908 11.513672 13.369141 11.513672 C 13.341911 11.513672 13.324151 11.505368 13.306641 11.486328 C 13.277041 11.454098 13.275135 11.411098 13.296875 11.244141 C 13.361195 10.751524 13.533658 10.411648 13.828125 10.195312 C 13.932083 10.118933 14.0968 10.026105 14.167969 10.003906 C 14.226859 9.9855364 14.307622 9.9822056 14.394531 9.9941406 z M 11.373047 13.056641 C 11.432257 13.056641 11.449597 13.080381 11.482422 13.197266 C 11.610703 13.653961 11.571102 14.083615 11.369141 14.414062 C 11.276891 14.56501 11.220185 14.602191 11.160156 14.550781 C 11.080206 14.482311 11.039533 14.141007 11.078125 13.861328 C 11.105955 13.659423 11.190462 13.353436 11.269531 13.166016 C 11.309331 13.071676 11.323321 13.056641 11.373047 13.056641 z M 12.625 13.058594 C 12.64643 13.057994 12.670131 13.060792 12.681641 13.070312 C 12.718731 13.100722 12.831104 13.424494 12.882812 13.646484 C 12.954504 13.95423 12.956099 14.268525 12.886719 14.470703 C 12.850969 14.574805 12.787549 14.601102 12.722656 14.539062 C 12.703096 14.520414 12.661339 14.463933 12.630859 14.414062 C 12.428904 14.083615 12.389298 13.653961 12.517578 13.197266 C 12.537878 13.125036 12.555223 13.085734 12.570312 13.074219 C 12.583624 13.064059 12.60357 13.059214 12.625 13.058594 z"/>
 <path style="opacity:0.1;fill:#8b9cbe" d="m 12.053711,2 v 9.75e-4 A 2.282838,2.2739422 0 0 0 10.858399,2.303711 L 4.1416015,6.166992 A 2.282838,2.2739422 0 0 0 3,8.136719 v 0.5 A 2.282838,2.2739422 0 0 1 4.1416015,6.666992 L 10.858399,2.803711 A 2.282838,2.2739422 0 0 1 12.053711,2.5009765 V 2.5 a 2.282838,2.2739422 0 0 1 1.087891,0.303711 l 6.716796,3.863281 A 2.282838,2.2739422 0 0 1 21,8.636719 v -0.5 A 2.282838,2.2739422 0 0 0 19.858398,6.166992 L 13.141602,2.303711 A 2.282838,2.2739422 0 0 0 12.053711,2 Z"/>
</svg>
