<svg xmlns="http://www.w3.org/2000/svg" width="24" height="24" version="1">
 <path style="opacity:0.2" d="M 12.443359,2.4995662 C 10.357268,2.4851237 8.3184694,3.4456392 7.0800781,5.2437068 6.3380739,6.3210524 5.9894157,7.5464514 6,8.761285 6.7514692,8.565622 7.5500534,8.4882527 8.3730469,8.5503474 l 0.6347656,0.046875 C 9.0372865,7.9874122 9.2342163,7.4983612 9.5800781,6.9937068 10.647197,5.4443133 12.790301,5.092979 14.402344,6.1558162 c 1.506277,0.9947349 2.047975,2.7962637 1.193359,4.3300788 l -1.625,2.359375 0.640625,1.654297 1.861328,-0.0059 1.447266,-2.103516 C 19.901342,9.5132763 19.078926,5.5822475 16.085938,3.6089412 14.963472,2.8688886 13.695014,2.5082317 12.443359,2.4995662 Z m -1.482421,7 -2.5781255,0.00195 C 4.8569824,9.5015254 2,12.41264 2,16.00152 c 0,3.589184 2.8569824,6.498047 6.3828125,6.498047 1.143155,0 2.2067095,-0.319777 3.1347655,-0.855469 -0.574588,-0.506834 -1.079148,-1.108781 -1.482422,-1.80664 L 9.6855469,19.233942 C 9.2743827,19.406164 8.8325792,19.498545 8.3847656,19.499567 6.4858895,19.499567 5,17.932564 5,15.999567 c 0.00138,-1.807097 1.3007014,-3.33361 3.0683594,-3.5 H 10.960938 L 12,11.03277 Z m 8.84375,1.0253918 c -0.193427,0.846836 -0.538027,1.672548 -1.060547,2.43164 v 0.002 l -0.201172,0.291016 c 0.413236,0.284182 0.763308,0.651208 1.015625,1.085938 0.949437,1.644473 0.33418,3.71514 -1.339844,4.68164 -1.565681,0.902356 -3.536526,0.539439 -4.564453,-0.908203 l -1.445313,-2.503906 -1.791015,-0.166016 -0.808594,1.666016 1.291016,2.230469 c 1.76292,3.053454 5.712252,4.073736 8.820312,2.279296 3.108325,-1.794592 4.198462,-5.723885 2.435547,-8.777343 -0.580546,-1.005535 -1.405055,-1.775873 -2.351562,-2.3125 z"/>
 <path style="fill:#aee5ff" d="M 19.804688 10.025391 C 19.611261 10.872227 19.266661 11.697939 18.744141 12.457031 L 18.744141 12.458984 L 18.542969 12.75 C 18.956205 13.034182 19.306277 13.401209 19.558594 13.835938 C 20.508031 15.480412 19.892774 17.551078 18.21875 18.517578 C 16.653069 19.419934 14.682224 19.057017 13.654297 17.609375 L 12.208984 15.105469 L 10.417969 14.939453 L 9.609375 16.605469 L 10.900391 18.835938 C 12.663311 21.889392 16.612643 22.909674 19.720703 21.115234 C 22.829028 19.320642 23.919165 15.391349 22.15625 12.337891 C 21.575704 11.332356 20.751196 10.562018 19.804688 10.025391 z"/>
 <path style="fill:#64cefe" d="m 16.473474,13.994489 1.446439,-2.103575 C 19.901333,9.0139991 19.079424,5.0817535 16.086436,3.1084472 13.093195,1.1349736 9.0614666,1.8671655 7.0800406,4.7440737 6.3380364,5.8214193 5.9896496,7.0468945 6.0002339,8.261728 6.7517031,8.066065 7.549361,7.9879924 8.3723545,8.0500871 l 0.6350826,0.04766 C 9.0369111,7.4879369 9.2349844,6.9995445 9.5808462,6.4948901 10.647965,4.9454966 12.790097,4.5942727 14.40214,5.6571099 15.908417,6.6518448 16.451098,8.4519046 15.596482,9.985719 L 13.971606,12.344982 14.610457,14 Z"/>
 <path style="fill:#2279ca" d="M 10.960938 9 L 8.3828125 9.0019531 C 4.8569824 9.0019592 2 11.913073 2 15.501953 C 2 19.091137 4.8569824 22 8.3828125 22 C 9.5259675 22 10.589522 21.680223 11.517578 21.144531 C 10.94299 20.637697 10.43843 20.03575 10.035156 19.337891 L 9.6855469 18.734375 C 9.2743827 18.906597 8.8325792 18.998978 8.3847656 19 C 6.4858895 19 5 17.432997 5 15.5 C 5.0013753 13.692903 6.3007014 12.16639 8.0683594 12 L 10.960938 12 L 12 10.533203 L 10.960938 9 z"/>
 <path style="fill:#8b9cbe;opacity:0.2" d="M 12.443359 2 C 10.357268 1.9855575 8.3184694 2.946073 7.0800781 4.7441406 C 6.3380739 5.8214862 5.9894157 7.0468851 6 8.2617188 C 6.0107589 8.2589174 6.022425 8.2586122 6.0332031 8.2558594 C 6.1106129 7.2099238 6.4411682 6.1717995 7.0800781 5.2441406 C 8.3184694 3.446073 10.357268 2.4855575 12.443359 2.5 C 13.695014 2.5086655 14.963472 2.8693224 16.085938 3.609375 C 17.894414 4.8017211 18.904475 6.7085754 18.988281 8.6660156 C 19.070197 6.5382832 18.047972 4.4029634 16.085938 3.109375 C 14.963472 2.3693224 13.695014 2.0086655 12.443359 2 z M 15.984375 8.6699219 C 15.953209 9.1142659 15.833097 9.5602677 15.595703 9.9863281 L 13.970703 12.345703 L 14.09375 12.666016 L 15.595703 10.486328 C 15.922254 9.9002545 16.041468 9.2742247 15.984375 8.6699219 z M 19.804688 10.025391 C 19.611261 10.872227 19.266661 11.697939 18.744141 12.457031 L 18.744141 12.458984 L 18.542969 12.75 C 18.621028 12.803682 18.684494 12.874102 18.757812 12.933594 C 19.271662 12.180724 19.613178 11.363831 19.804688 10.525391 C 20.751195 11.062018 21.575704 11.832356 22.15625 12.837891 C 22.680484 13.74589 22.946671 14.731112 22.988281 15.714844 C 23.030237 14.567646 22.769377 13.399857 22.15625 12.337891 C 21.575704 11.332356 20.751195 10.562018 19.804688 10.025391 z M 10.417969 14.939453 L 9.609375 16.605469 L 9.7421875 16.833984 L 10.417969 15.439453 L 12.208984 15.605469 L 13.654297 18.109375 C 14.682224 19.557017 16.653069 19.919934 18.21875 19.017578 C 19.411744 18.328801 20.05188 17.078701 19.986328 15.822266 C 19.879619 16.90137 19.252953 17.92048 18.21875 18.517578 C 16.653069 19.419934 14.682224 19.057017 13.654297 17.609375 L 12.208984 15.105469 L 10.417969 14.939453 z"/>
 <path style="fill:#8b9cbe;opacity:0.1" d="M 10.960938 9 L 8.3828125 9.0019531 C 4.8569824 9.0019592 2 11.913073 2 15.501953 C 2 15.586391 2.0085848 15.668297 2.0117188 15.751953 C 2.141799 12.279851 4.9399302 9.5019621 8.3828125 9.5019531 L 10.960938 9.5 L 11.826172 10.777344 L 12 10.533203 L 10.960938 9 z M 5.0234375 15.742188 C 5.0173171 15.828686 5.0000669 15.912048 5 16 C 5 17.932997 6.4858895 19.5 8.3847656 19.5 C 8.8325792 19.498978 9.2743827 19.406597 9.6855469 19.234375 L 10.035156 19.837891 C 10.356619 20.394177 10.757057 20.871839 11.191406 21.306641 C 11.299725 21.251741 11.412643 21.205102 11.517578 21.144531 C 10.94299 20.637697 10.43843 20.03575 10.035156 19.337891 L 9.6855469 18.734375 C 9.2743827 18.906597 8.8325792 18.998978 8.3847656 19 C 6.5674188 19 5.1436612 17.559992 5.0234375 15.742188 z"/>
</svg>
