<svg width="24" height="24" version="1.1" xmlns="http://www.w3.org/2000/svg">
 <path d="M 4,5.5 C 3.1093632,5.5003495 2.6634127,6.5770366 3.2929688,7.2070312 L 8.3183594,12.232422 2.3222656,17.765625 C 1.6546174,18.383012 2.0906491,19.498851 3,19.5 h 5 c 0.265199,-5.1e-5 0.5195195,-0.105433 0.7070312,-0.292969 L 12,15.914062 15.292969,19.207031 C 15.480481,19.394567 15.734801,19.499949 16,19.5 h 5 c 0.909351,-0.0011 1.345382,-1.116988 0.677734,-1.734375 l -5.996093,-5.533203 5.02539,-5.0253908 C 21.336587,6.5770367 20.890637,5.5003496 20,5.5 h -4 c -0.251257,2.637e-4 -0.49321,0.095092 -0.677734,0.265625 L 12,8.8320312 8.6777344,5.765625 C 8.4932105,5.5950924 8.2512576,5.5002636 8,5.5 Z" style="opacity:.2"/>
 <path d="M 4,5 C 3.1093632,5.0003495 2.6634127,6.0770366 3.2929688,6.7070312 L 8.3183594,11.732422 2.3222656,17.265625 C 1.6546174,17.883012 2.0906491,18.998851 3,19 h 5 c 0.265199,-5.1e-5 0.5195195,-0.105433 0.7070312,-0.292969 L 12,15.414062 15.292969,18.707031 C 15.480481,18.894567 15.734801,18.999949 16,19 h 5 c 0.909351,-0.0011 1.345382,-1.116988 0.677734,-1.734375 l -5.996093,-5.533203 5.02539,-5.0253908 C 21.336587,6.0770367 20.890637,5.0003496 20,5 h -4 c -0.251257,2.637e-4 -0.49321,0.095092 -0.677734,0.265625 L 12,8.3320312 8.6777344,5.265625 C 8.4932105,5.0950924 8.2512576,5.0002636 8,5 Z" style="fill:#3e9e90"/>
 <path d="m7 12.5c0-3 2-5 5-5s5 2 5 5c0 2-3 6-5 6s-5-4-5-6z" style="opacity:.2"/>
 <path d="M 4,5 C 3.2986475,5.0002752 2.8808587,5.6663641 3.0390625,6.2578125 3.1450236,5.8457184 3.4973332,5.5001973 4,5.5 h 4 c 0.2512576,2.636e-4 0.4932105,0.095092 0.6777344,0.265625 L 12,8.8320312 15.322266,5.765625 C 15.50679,5.595092 15.748743,5.5002637 16,5.5 h 4 c 0.502667,1.973e-4 0.854977,0.3457184 0.960938,0.7578125 C 21.119141,5.6663642 20.701353,5.0002753 20,5 h -4 c -0.251257,2.637e-4 -0.49321,0.095092 -0.677734,0.265625 L 12,8.3320312 8.6777344,5.265625 C 8.4932105,5.0950924 8.2512576,5.0002636 8,5 Z m 4.0585938,6.972656 -5.7363282,5.292969 c -0.296809,0.274465 -0.3653044,0.644853 -0.28125,0.974609 0.04575,-0.170659 0.1313105,-0.335957 0.28125,-0.474609 l 5.9960938,-5.533203 z m 7.8828122,0 -0.259765,0.259766 5.996093,5.533203 c 0.14994,0.138652 0.2355,0.303946 0.28125,0.474609 0.08405,-0.329762 0.01556,-0.700144 -0.28125,-0.974609 z" style="fill:#8b9cbe;opacity:.1"/>
 <path d="m7 12c0-3 2-5 5-5s5 2 5 5c0 2-3 6-5 6s-5-4-5-6z" style="fill:#67c3b5"/>
 <path d="m8 11.5s0 2 1 2h2s-1-2-2-2zm7 0c-1 0-2 2-2 2h2c1 0 1-2 1-2z" style="opacity:.1"/>
 <path d="m8 11s0 2 1 2h2s-1-2-2-2zm7 0c-1 0-2 2-2 2h2c1 0 1-2 1-2z" style="fill:#393939"/>
 <path d="m12 7c-3 0-5 2-5 5 0 0.07758 0.012691 0.162849 0.021484 0.246094 0.1136382-2.853445 2.0669864-4.746094 4.978516-4.746094 2.91153 0 4.864878 1.892649 4.978516 4.746094 0.0088-0.08324 0.02148-0.168517 0.02148-0.246094 0-3-2-5-5-5z" style="fill:#8b9cbe;opacity:.2"/>
</svg>
