<svg xmlns="http://www.w3.org/2000/svg" width="24" height="24" version="1.1">
 <path style="opacity:0.2" d="m 9.0000001,2.5 a 6,6 0 0 0 -6,6 6,6 0 0 0 1.5371094,4 6,6 0 0 0 -1.5371094,4 6,6 0 0 0 6,6 6,6 0 0 0 5.6542969,-4.017578 6,6 0 0 0 0.345703,0.01758 6,6 0 0 0 6,-6 6,6 0 0 0 -6,-6 A 6,6 0 0 0 14.654297,6.513674 6,6 0 0 0 9.0000001,2.5 Z"/>
 <circle style="fill:#5f81d4" cx="15" cy="12" r="6"/>
 <circle style="fill:#5f81d4" cx="9" cy="8" r="6"/>
 <path style="opacity:0.2;fill:#8b9cbe" d="m 9.0000001,2 a 6,6 0 0 0 -6,6 6,6 0 0 0 0.00977,0.2148438 A 6,6 0 0 1 9.0000001,2.5 6,6 0 0 1 14.654297,6.5136719 6,6 0 0 1 15,6.5 6,6 0 0 1 20.990234,12.285156 6,6 0 0 0 21,12 6,6 0 0 0 15,6 6,6 0 0 0 14.654297,6.013672 6,6 0 0 0 9.0000001,2 Z"/>
 <circle style="fill:#5f81d4" cx="9" cy="16" r="6"/>
 <path style="opacity:0.2" d="M 12.5,5.5 A 3.5,3.5 0 0 0 9.0000001,9 3.5,3.5 0 0 0 12.5,12.5 3.5,3.5 0 0 0 16,9 3.5,3.5 0 0 0 12.5,5.5 Z m 0,7 A 3.5,3.5 0 0 0 9.9414063,13.619141 3.5,3.5 0 0 0 10,13 3.5,3.5 0 0 0 6.5000001,9.5 a 3.5,3.5 0 0 0 -3.5,3.5 3.5,3.5 0 0 0 3.5,3.5 A 3.5,3.5 0 0 0 9.0585939,15.380859 3.5,3.5 0 0 0 9.0000001,16 3.5,3.5 0 0 0 12.5,19.5 3.5,3.5 0 0 0 16,16 3.5,3.5 0 0 0 12.5,12.5 Z"/>
 <circle style="fill:#f2f2f2" cx="6.5" cy="12.5" r="3.5"/>
 <circle style="fill:#f2f2f2" cx="12.5" cy="15.5" r="3.5"/>
 <circle style="fill:#f2f2f2" cx="12.5" cy="8.5" r="3.5"/>
 <path style="opacity:0.2" d="m 6.2303886,5.5390755 c 0.2427275,-0.1186895 0.475915,0.07086 0.475915,0.07086 l 5.5685894,3.21916 5.384159,3.1157055 c 0,0 0.340948,0.162623 0.340948,0.551289 0,0.389729 -0.343774,0.516568 -0.343774,0.516568 l -5.393699,3.115705 -5.6940164,3.288958 c 0,0 -0.1660575,0.144199 -0.380166,0.05173 -0.244494,-0.10629 -0.180897,-0.37662 -0.180897,-0.37662 V 12.478732 5.9716775 c 3.53e-4,0 -0.02685,-0.3103655 0.222941,-0.432599 z"/>
 <path style="fill:#ffbf00" d="m 6.2303886,5.0390748 c 0.2427275,-0.1186897 0.475915,0.07086 0.475915,0.07086 l 5.5685894,3.21916 5.384159,3.1157062 c 0,0 0.340948,0.162623 0.340948,0.551289 0,0.389729 -0.343774,0.516568 -0.343774,0.516568 l -5.393699,3.115705 -5.6940164,3.288958 c 0,0 -0.1660575,0.144199 -0.380166,0.05173 -0.244494,-0.10629 -0.180897,-0.37662 -0.180897,-0.37662 V 11.978732 5.4716768 c 3.53e-4,0 -0.02685,-0.3103655 0.222941,-0.432599 z"/>
</svg>
