<svg xmlns="http://www.w3.org/2000/svg" width="24" height="24" version="1">
 <rect style="opacity:0.2" width="20" height="20" x="2" y="2.5" rx="1" ry="1"/>
 <rect style="fill:#38bdec" width="20" height="20" x="2" y="2" rx="1" ry="1"/>
 <path style="opacity:0.2;fill:#8b9cbe" d="M 3,2 C 2.446,2 2,2.446 2,3 v 0.5 c 0,-0.554 0.446,-1 1,-1 h 18 c 0.554,0 1,0.446 1,1 V 3 C 22,2.446 21.554,2 21,2 Z"/>
 <path style="opacity:0.2" d="M 7,5 V 9.6503905 L 8.5654295,11.22168 a 4.7583643,4.7583643 0 0 0 -0.0039,0.003 l 1.7021485,1.702148 0.250977,0.250977 v 0.001 a 2,2 0 0 1 0.336914,-0.213867 2,2 0 0 1 0.001,-10e-4 2,2 0 0 1 0.373047,-0.141602 2,2 0 0 1 0.274384,-0.05378 2,2 0 0 1 0.01172,-0.0019 V 10.003906 A 4.7583643,4.7583643 0 0 0 11.5,10.004883 V 9 Z m 4.988281,5 v 2.765625 a 2,2 0 0 1 0.995118,0.414063 L 14.938477,11.22461 A 4.7583643,4.7583643 0 0 0 11.988281,10 Z M 7,10.289063 V 14.5 H 7.001 A 4.7583643,4.7583643 0 0 0 7,14.511719 h 2.765625 a 2,2 0 0 1 0.414063,-0.995117 l -0.02539,-0.02539 0.0088,-0.0068 z m 8.275391,1.272461 -1.953125,1.953125 a 2,2 0 0 1 0.411133,0.99707 h 2.762695 a 4.7583643,4.7583643 0 0 0 -1.220703,-2.950195 z m -8.271485,3.426757 a 4.7583643,4.7583643 0 0 0 1.2207035,2.950195 L 10.177735,15.985352 A 2,2 0 0 1 9.766602,14.988281 Z m 6.730469,0 a 2,2 0 0 1 -0.414062,0.995118 l 1.955078,1.955077 A 4.7583643,4.7583643 0 0 0 16.5,14.988281 Z M 10.516602,16.320312 8.5615235,18.27539 A 4.7583643,4.7583643 0 0 0 11.511719,19.5 v -2.765625 a 2,2 0 0 1 -0.995117,-0.414063 z m 2.46875,0.0019 a 2,2 0 0 1 -0.997071,0.411133 v 2.762696 a 4.7583643,4.7583643 0 0 0 2.950196,-1.220704 z"/>
 <g transform="matrix(0.5,0,0,0.5,-0.5,0)">
  <path style="fill:#8b9cbe" d="m 24.976562,19 v 5.53125 a 4,4 0 0 1 1.990235,0.828125 l 3.910156,-3.910156 A 9.5167286,9.5167286 0 0 0 24.976562,19 Z m -0.953124,0.0078 a 9.5167286,9.5167286 0 0 0 -5.900391,2.441407 l 3.90625,3.90625 a 4,4 0 0 1 1.994141,-0.822266 z m -6.574219,3.115235 A 9.5167286,9.5167286 0 0 0 15,28.023438 h 5.53125 a 4,4 0 0 1 0.828125,-1.990235 z m 14.101562,0 -3.90625,3.90625 a 4,4 0 0 1 0.822266,1.994141 h 5.525391 A 9.5167286,9.5167286 0 0 0 31.550781,22.123035 Z M 15.007812,28.97655 a 9.5167286,9.5167286 0 0 0 2.441407,5.900391 l 3.90625,-3.90625 A 4,4 0 0 1 20.533203,28.97655 Z m 13.460938,0 a 4,4 0 0 1 -0.828125,1.990235 l 3.910156,3.910156 A 9.5167286,9.5167286 0 0 0 34,28.976562 Z m -6.435547,2.664063 -3.910156,3.910156 A 9.5167286,9.5167286 0 0 0 24.023438,38 v -5.53125 a 4,4 0 0 1 -1.990235,-0.828125 z m 4.9375,0.0039 a 4,4 0 0 1 -1.994141,0.822266 v 5.525391 a 9.5167286,9.5167286 0 0 0 5.900391,-2.441407 z"/>
  <path style="fill:#8b9cbe" d="m 15,9 v 9.300781 l 7.029297,7.056641 A 4,4 0 0 1 24,24.537109 V 17 Z"/>
  <path style="fill:#8b9cbe" d="M 15,19.577327 21.326172,25.968673 20,27 18,28 h -3 z"/>
 </g>
</svg>
