<svg xmlns="http://www.w3.org/2000/svg" width="24" height="24" version="1">
 <rect style="opacity:0.2" width="22" height="18" x="1" y="3.5" rx="1.1" ry="1"/>
 <rect style="fill:#ff670b" width="22" height="18" x="1" y="3" rx="1.1" ry="1"/>
 <rect style="fill:#5e473a" width="22" height="12" x="1" y="6"/>
 <path style="opacity:0.1" d="m 1,18.5 v 2 h 1 v -2 z m 3,0 v 2 h 1 v -2 z m 3,0 v 2 h 1 v -2 z m 3,0 v 2 h 1 v -2 z m 3,0 v 2 h 1 v -2 z m 3,0 v 2 h 1 v -2 z m 3,0 v 2 h 1 v -2 z m 3,0 v 2 h 1 v -2 z"/>
 <path style="fill:#8b9cbe" d="M 1,4 V 6 H 2 V 4 Z M 4,4 V 6 H 5 V 4 Z M 7,4 V 6 H 8 V 4 Z m 3,0 v 2 h 1 V 4 Z m 3,0 v 2 h 1 V 4 Z m 3,0 v 2 h 1 V 4 Z m 3,0 v 2 h 1 V 4 Z m 3,0 v 2 h 1 V 4 Z M 1,18 v 2 h 1 v -2 z m 3,0 v 2 h 1 v -2 z m 3,0 v 2 h 1 v -2 z m 3,0 v 2 h 1 v -2 z m 3,0 v 2 h 1 v -2 z m 3,0 v 2 h 1 v -2 z m 3,0 v 2 h 1 v -2 z m 3,0 v 2 h 1 v -2 z"/>
 <rect style="opacity:0.1" width="22" height=".5" x="1" y="6"/>
 <path style="opacity:0.2" d="m 4,8.5 v 8 h 1.015625 v -4 H 8 v -1 H 5.015625 V 9.384766 H 8.5 V 8.5 Z m 5.5039062,0 C 9.3615112,8.5 9.2435717,8.5416667 9.1464844,8.625 9.049397,8.702381 9,8.827381 9,9 9,9.172619 9.049397,9.301432 9.1464844,9.384766 9.2435717,9.462147 9.3615112,9.5 9.5039062,9.5 9.6333559,9.5 9.7466627,9.462147 9.84375,9.384766 9.94731,9.301432 10,9.172619 10,9 10,8.827381 9.94731,8.702381 9.84375,8.625 9.7466627,8.5416667 9.6333559,8.5 9.5039062,8.5 Z M 11,8.5 v 8 h 1 v -8 z m -2,2 v 6 h 1 v -6 z m 6.570312,0 c -0.332899,0 -0.649042,0.07662 -0.947265,0.230469 -0.291287,0.14652 -0.523883,0.373948 -0.697266,0.68164 h -0.05273 l -0.13477,-0.802734 H 13 V 16.5 h 0.916016 v -3.054688 c 0,-0.688644 0.107267,-1.215731 0.322265,-1.582031 0.214998,-0.3663 0.602295,-0.550781 1.164063,-0.550781 0.762895,0 1.144531,0.466082 1.144531,1.396484 V 16.5 h 0.90625 v -3.251953 c 0,-0.630037 0.112928,-1.109783 0.341797,-1.439453 0.235804,-0.32967 0.625053,-0.496094 1.166016,-0.496094 0.75596,0 1.134765,0.466082 1.134765,1.396484 V 16.5 H 21 V 12.664062 C 21,11.909484 20.843343,11.359948 20.53125,11.015625 20.219156,10.671302 19.74831,10.5 19.117188,10.5 c -0.367577,0 -0.710268,0.08102 -1.029297,0.242188 -0.319029,0.161172 -0.572512,0.409097 -0.759766,0.746093 h -0.05273 C 17.011845,10.828941 16.444174,10.5 15.570312,10.5 Z"/>
 <path style="fill:#8b9cbe" d="M 5.0150375,16 H 4 V 8 H 8.5 V 8.8851545 H 5.0150375 L 5.0155187,11 h 2.9849626 v 1 H 5.0155187 Z"/>
 <path style="fill:#8b9cbe" d="M 9.5048545,8 Q 9.699029,8 9.84466,8.125 10,8.2410715 10,8.5 10,8.7589285 9.84466,8.8839285 9.699029,9 9.5048545,9 9.291262,9 9.145631,8.8839285 9,8.7589285 9,8.5 9,8.2410715 9.145631,8.125 9.291262,8 9.5048545,8 Z"/>
 <path style="fill:#8b9cbe" d="m 10,10 v 6 H 9 v -6 z"/>
 <path style="fill:#8b9cbe" d="M 12,16 H 11 V 8 h 1 z"/>
 <path style="fill:#8b9cbe" d="m 19.117035,10 q 0.946684,0 1.414825,0.516484 Q 21,11.032968 21,12.164836 V 16 h -0.905071 v -3.791209 q 0,-1.395604 -1.13394,-1.395604 -0.811444,0 -1.16515,0.494505 -0.343303,0.494506 -0.343303,1.439561 V 16 h -0.905072 v -3.791209 q 0,-1.395604 -1.144343,-1.395604 -0.842652,0 -1.165149,0.549451 -0.322497,0.54945 -0.322497,1.582417 V 16 H 13 v -5.890109 h 0.738622 l 0.13524,0.802197 h 0.05202 Q 14.185956,10.450549 14.622887,10.230769 15.070222,10 15.569571,10 q 1.310793,0 1.706111,0.989011 h 0.05202 Q 17.608583,10.483517 18.087126,10.241759 18.56567,10 19.117035,10 Z"/>
 <rect style="opacity:0.1;fill:#8b9cbe" width="22" height=".5" x="1" y="18"/>
 <path style="opacity:0.2;fill:#8b9cbe" d="M 2.0996094,3 C 1.4902094,3 1,3.446 1,4 v 0.5 c 0,-0.554 0.4902094,-1 1.0996094,-1 H 21.900391 C 22.509791,3.5 23,3.946 23,4.5 V 4 C 23,3.446 22.509791,3 21.900391,3 Z"/>
</svg>
