<svg xmlns="http://www.w3.org/2000/svg" width="24" height="24" version="1">
 <rect width="20" height="20" x="2" y="2.5" rx="6" ry="6" style="opacity:0.2"/>
 <rect width="20" height="20" x="2" y="2" rx="6" ry="6" style="fill:#176fd0"/>
 <path d="m11 7.5v-2h7v2h-1.5s-0.5 0-0.5 0.5v8c0 1-0.5 3.5-4.5 3.5-3.5 0-5.4-2.772322-5.4-5.25 0-5 5.9-3.5 5.9-3.5v2.75s-0.5-0.5-1.5-0.5c-0.600925 0-1.5 0.5-1.5 1.5 0 1.301709 1.3 2 2.3 2 1.5 0 1.7-1 1.7-1.5v-7c0-0.5-0.5-0.5-0.5-0.5z" style="opacity:0.2"/>
 <path d="m11 7v-2h7v2h-1.5s-0.5 0-0.5 0.5v8c0 1-0.5 3.5-4.5 3.5-3.5 0-5.4-2.772322-5.4-5.25 0-5 5.9-3.5 5.9-3.5v2.75s-0.5-0.5-1.5-0.5c-0.600925 0-1.5 0.5-1.5 1.5 0 1.301709 1.3 2 2.3 2 1.5 0 1.7-1 1.7-1.5v-7c0-0.5-0.5-0.5-0.5-0.5z" style="fill:#8b9cbe"/>
 <path style="fill:#8b9cbe;opacity:0.1" d="M 8 2 C 4.676 2 2 4.676 2 8 L 2 8.5 C 2 5.176 4.676 2.5 8 2.5 L 16 2.5 C 19.324 2.5 22 5.176 22 8.5 L 22 8 C 22 4.676 19.324 2 16 2 L 8 2 z"/>
</svg>
