<svg xmlns="http://www.w3.org/2000/svg" width="24" height="24" version="1">
 <path style="opacity:0.2" d="m 14.938594,2.5008808 a 0.67250059,0.69778604 0 0 0 -0.293945,0.086916 L 8.596797,6.0781204 A 0.67250059,0.69778604 0 0 0 8.313594,6.3935579 l -0.0039,0.00879 -2.2470767,5.0108691 a 0.67250059,0.69778604 0 0 0 -0.00684,0.57228 l 3.5136722,8.384002 0.0459,0.110354 a 0.67250059,0.69778604 0 0 0 0.4267575,0.391612 l 5.267579,1.600627 a 0.67250059,0.69778604 0 0 0 0.469726,-0.03614 0.67250059,0.69778604 0 0 0 0.333008,-0.348642 l 0.929687,-2.161188 a 0.67250059,0.69778604 0 0 0 0.0498,-0.166996 L 18.990353,8.2100116 A 0.67250059,0.69778604 0 0 0 19.000118,8.080124 0.67250059,0.69778604 0 0 0 18.876095,7.6885125 L 15.518672,2.7928804 a 0.67250059,0.69778604 0 0 0 -0.440429,-0.2841869 0.67250059,0.69778604 0 0 0 -0.139649,-0.00781 z"/>
 <path style="fill:#251c50" d="m 14.95129,2.2509757 c -0.06336,0.00318 -0.125273,0.021235 -0.181641,0.053711 L 8.721797,5.7949214 C 8.644466,5.8394664 8.5809945,5.9088829 8.5421095,5.9951164 v 0.001 l -0.0039,0.00781 -2.2470707,5.0117196 c -0.05259,0.117402 -0.054687,0.2542 -0.0049,0.373047 l 3.5136718,8.384766 0.0459,0.110351 c 0.05132,0.122758 0.150889,0.211607 0.2685554,0.248047 l 5.267578,1.600586 c 0.09621,0.02912 0.198402,0.02135 0.290039,-0.02246 0.09211,-0.04389 0.167697,-0.121617 0.210937,-0.22168 l 0.929698,-2.161154 v -10e-4 c 0.01481,-0.03389 0.02578,-0.07052 0.03223,-0.107422 L 18.743281,7.6689215 h 0.001 c 0.0046,-0.02803 0.0063,-0.056471 0.0059,-0.084961 C 18.748591,7.49194 18.720411,7.403645 18.670063,7.330054 L 15.312618,2.4345695 c -0.067,-0.097669 -0.166039,-0.1613215 -0.275391,-0.1796875 -0.0284,-0.00469 -0.05725,-0.00541 -0.08594,-0.00391 z"/>
 <path style="fill:#4a37a0" d="m 9.4181055,9.2432536 0.151367,10.6262474 0.0459,0.110354 a 0.67250059,0.69776834 0 0 0 0.4267575,0.391612 l 5.267579,1.600626 a 0.67250059,0.69776834 0 0 0 0.469726,-0.03614 z"/>
 <path style="fill:#6d55d2" d="M 15.086074,5.0165834 9.4181055,9.2432536 15.779434,21.93596 a 0.67250059,0.69776834 0 0 0 0.333007,-0.348642 l 0.929688,-2.161188 a 0.67250059,0.69776834 0 0 0 0.0498,-0.166996 L 18.990372,7.7100115 a 0.67250059,0.69776834 0 0 0 0.0098,-0.1298865 z"/>
 <path style="fill:#4a37a0" d="M 14.938613,2.0008817 A 0.67250059,0.69776834 0 0 0 14.644668,2.087798 L 8.596816,5.5781214 A 0.67250059,0.69776834 0 0 0 8.313613,5.8935589 l -0.0039,0.00879 1.1083985,3.3409052 5.6679685,-4.2266702 -0.0078,-3.007889 a 0.67250059,0.69776834 0 0 0 -0.139648,-0.00781 z"/>
 <path style="fill:#412e8b" d="M 8.309707,5.9023484 6.0626363,10.913218 a 0.67250059,0.69776834 0 0 0 -0.00684,0.57228 L 9.5694735,19.869501 9.4181065,9.2432536 Z"/>
 <path style="fill:#9782f1" d="m 15.078262,2.0086944 0.0078,3.007889 3.914063,2.5635416 A 0.67250059,0.69776834 0 0 0 18.876114,7.188514 L 15.518691,2.2928814 a 0.67250059,0.69776834 0 0 0 -0.440429,-0.284187 z"/>
 <path style="opacity:0.2;fill:#8b9cbe" d="m 15.078243,2.0087882 10e-4,0.5000001 a 0.67250059,0.69778599 0 0 1 0.439453,0.2841797 l 3.357422,4.895508 a 0.67250059,0.69778599 0 0 1 0.08789,0.178711 l 0.02636,-0.1572265 a 0.67250059,0.69778599 0 0 0 0.0097,-0.129883 A 0.67250059,0.69778599 0 0 0 18.876095,7.188476 L 15.518672,2.2929679 A 0.67250059,0.69778599 0 0 0 15.078243,2.0087882 Z"/>
 <path style="opacity:0.1;fill:#8b9cbe" d="m 14.938594,2.0009757 a 0.67250059,0.69778599 0 0 0 -0.293945,0.086914 L 8.596797,5.5781244 A 0.67250059,0.69778599 0 0 0 8.313594,5.8935539 l -0.0039,0.00879 -2.2470767,5.0107421 a 0.67250059,0.69778599 0 0 0 -0.01758,0.544922 0.67250059,0.69778599 0 0 1 0.01758,-0.04492 l 2.2470707,-5.0107426 0.0039,-0.00879 a 0.67250059,0.69778599 0 0 1 0.283209,-0.315431 l 6.047852,-3.4902346 a 0.67250059,0.69778599 0 0 1 0.293945,-0.086914 0.67250059,0.69778599 0 0 1 0.139649,0.00781 0.67250059,0.69778599 0 0 1 10e-4,0 l -10e-4,-0.5000001 a 0.67250059,0.69778599 0 0 0 -0.139649,-0.00781 z"/>
</svg>
