<svg xmlns="http://www.w3.org/2000/svg" width="24" height="24" version="1.1">
 <circle style="opacity:0.2" cx="12" cy="12.5" r="10"/>
 <circle stroke-miterlimit="10" style="fill:#b2bfd9" cx="12" cy="12" r="10"/>
 <path style="opacity:0.1" d="m 16.771484,5.5175781 c -0.254555,-0.027872 -0.520593,-0.018995 -0.808593,0.00391 -0.288255,0.02308 -0.563104,0.1016251 -0.857422,0.1894531 -0.289611,0.094288 -0.564238,0.2274753 -0.841797,0.3789063 -0.265965,0.1598505 -0.523885,0.3448159 -0.767578,0.546875 -0.231623,0.211132 -0.464054,0.4296876 -0.658203,0.6738281 -0.198086,0.241491 -0.378094,0.4954582 -0.525391,0.7617187 -0.305857,0.5245185 -0.499814,1.0889412 -0.613281,1.6035156 -0.05273,0.2615965 -0.08913,0.5067961 -0.105469,0.7363281 -0.01958,0.226593 -0.01089,0.442246 -0.0059,0.615235 -1.84e-4,0.0812 0.0073,0.158452 0.01563,0.228515 0.05612,-0.08066 0.11663,-0.16523 0.183593,-0.257812 0.33355,-0.45803 0.804109,-1.0482338 1.322266,-1.5839848 0.258675,-0.2687105 0.531411,-0.5175794 0.794922,-0.7402344 0.136581,-0.1049035 0.269763,-0.2053317 0.394531,-0.3007812 0.130464,-0.086158 0.253795,-0.1672975 0.367188,-0.2421875 0.118797,-0.064183 0.22762,-0.1216036 0.324218,-0.1738282 0.09438,-0.05669 0.186766,-0.082197 0.257813,-0.1132812 0.143981,-0.057633 0.226562,-0.091797 0.226562,-0.091797 0,0 -0.08125,0.040277 -0.220703,0.109375 -0.06894,0.03758 -0.156162,0.070764 -0.246094,0.1347657 -0.09167,0.059175 -0.195657,0.1245716 -0.308593,0.1972656 -0.10691,0.083436 -0.223078,0.1743362 -0.345703,0.2695312 -0.115555,0.1038335 -0.236445,0.2124309 -0.363282,0.3261719 -0.243785,0.2401295 -0.494365,0.5074076 -0.728515,0.7910156 -0.447206,0.5366103 -0.857704,1.0722583 -1.181641,1.5175783 l -0.189453,0.175782 c -0.54792,0.422639 -0.868702,1.376165 -0.869141,2.068359 v 0.375 l -0.300781,-0.285156 c -1.83e-4,-0.0079 -0.01346,-0.01162 -0.01367,-0.01953 -0.01266,0.0027 -0.01221,-0.05123 -0.02734,-0.05469 -0.04596,-0.05427 -0.0934,-0.110992 -0.146485,-0.171875 C 10.188852,12.792235 9.7077754,12.287121 9.1855159,11.833987 8.9250274,11.605892 8.6513094,11.395552 8.3886409,11.208987 8.2537079,11.122277 8.1248951,11.040147 8.0019221,10.960941 7.8737476,10.890741 7.7524125,10.823319 7.640594,10.761722 7.524874,10.710902 7.4181297,10.664452 7.3241878,10.62305 7.2310878,10.57693 7.1457229,10.55991 7.0761409,10.53516 6.9364459,10.49149 6.8554378,10.4668 6.8554378,10.4668 c 0,0 0.080561,0.01836 0.2226562,0.05078 0.070534,0.01843 0.1597924,0.0277 0.2558594,0.06641 0.097422,0.03429 0.2083205,0.07313 0.328125,0.115235 0.1164705,0.05279 0.2429356,0.109182 0.3769531,0.169922 0.130171,0.07012 0.2675858,0.145506 0.4101563,0.222656 0.2782,0.167557 0.5707064,0.357556 0.8515624,0.568359 0.562206,0.419951 0.9799248,0.912284 1.3593748,1.28711 0.07629,0.07583 0.127026,0.146522 0.191406,0.21289 -0.0031,-0.06591 0.0017,-0.139231 -0.0039,-0.214844 0.0027,-0.129801 -0.02659,-0.355902 -0.0625,-0.566406 -0.03797,-0.210983 -0.09041,-0.446617 -0.158203,-0.68164 -0.184652,-0.45887 -0.4347,-0.95233 -0.798803,-1.392584 C 9.6506625,10.080067 9.4452059,9.872146 9.2246094,9.6777344 9.0072364,9.4803279 8.7586353,9.3119178 8.5117188,9.1503906 8.2550213,8.9989867 7.9875424,8.8650751 7.7167969,8.7558594 7.4366184,8.6561075 7.1633274,8.5725668 6.8808594,8.5273438 6.5950399,8.4887493 6.3268366,8.497256 6.0566406,8.5175781 5.7867011,8.5380447 5.5397223,8.5683458 5.3085938,8.6308594 5.0744803,8.703377 4.8666962,8.7870251 4.6894531,8.8769531 4.5125949,8.9617695 4.3592077,9.0559375 4.2421875,9.1464844 4.1240134,9.2348591 4.0367601,9.3411743 3.9785156,9.3984375 c -0.058299,0.062694 -0.085937,0.1054688 -0.085937,0.1054687 0,0 0.032308,0.041804 0.091797,0.1230469 0.058354,0.070062 0.140566,0.1958843 0.2382812,0.3085938 0.092568,0.1152851 0.2038384,0.2548081 0.3320313,0.4160161 0.1215259,0.157954 0.2526827,0.318593 0.3867187,0.474609 0.1346401,0.159411 0.2762455,0.334364 0.421875,0.486328 0.1452085,0.153479 0.2981228,0.326656 0.4570313,0.464844 0.3187515,0.300332 0.6719839,0.565172 1.0527344,0.794922 0.189716,0.123112 0.3888018,0.215352 0.5917969,0.318359 0.2026839,0.09876 0.4141956,0.177216 0.6269531,0.253906 0.21523,0.06959 0.4306615,0.135698 0.6484375,0.181641 0.2187465,0.04636 0.4319636,0.08974 0.6425781,0.115234 0.208508,0.02739 0.4106327,0.04429 0.5976563,0.05274 0.017912,0.0012 0.033124,-8.5e-4 0.050781,0 0.09872,0.09709 0.237112,0.287878 0.291016,0.341797 C 10.391156,13.904837 11,14.535156 11,14.535156 V 20.601562 22.5 h 1 v -4.980469 c 0,0 1.164042,-0.92536 1.324219,-1.027343 0.118363,-0.0038 0.236825,-0.0075 0.363281,-0.01953 0.175173,-0.0149 0.351729,-0.04447 0.533203,-0.07617 0.180668,-0.03138 0.357145,-0.07813 0.535156,-0.128906 0.175778,-0.05666 0.350721,-0.114508 0.517579,-0.189453 0.167021,-0.07843 0.332798,-0.14893 0.488281,-0.244141 0.312433,-0.176956 0.600315,-0.384732 0.859375,-0.621093 0.12942,-0.108395 0.253469,-0.243956 0.371094,-0.365235 0.118027,-0.120035 0.233128,-0.260299 0.341796,-0.386718 0.108265,-0.123673 0.212776,-0.249409 0.310547,-0.375 0.103246,-0.128079 0.192996,-0.240475 0.267578,-0.332032 0.07894,-0.08932 0.144317,-0.188557 0.191407,-0.24414 0.04777,-0.06468 0.07422,-0.09766 0.07422,-0.09766 0,0 -0.02413,-0.03503 -0.07422,-0.08789 -0.04993,-0.04841 -0.125899,-0.137382 -0.226563,-0.212891 -0.09975,-0.07724 -0.23131,-0.19333 -0.380859,-0.267578 -0.149989,-0.07843 -0.324443,-0.15294 -0.521485,-0.21875 -0.194314,-0.05758 -0.401211,-0.08897 -0.626953,-0.113281 -0.225945,-0.02422 -0.447917,-0.0059 -0.685547,0.01758 -0.234664,0.029 -0.461847,0.09046 -0.693359,0.164062 -0.223418,0.08157 -0.443591,0.18239 -0.654297,0.298829 -0.202317,0.124988 -0.405191,0.256984 -0.582031,0.412109 -0.179605,0.152602 -0.347335,0.315659 -0.490234,0.494141 -0.293678,0.349351 -0.504969,0.745633 -0.648438,1.115234 -0.06909,0.188595 -0.124708,0.367292 -0.162109,0.537109 -0.03962,0.167124 -0.05553,0.328515 -0.07031,0.458985 -0.0089,0.06087 -0.01259,0.122026 -0.01367,0.175781 0.0522,-0.05242 0.109986,-0.108167 0.171875,-0.167969 0.307982,-0.295484 0.735841,-0.66891 1.195313,-0.996094 0.229516,-0.164279 0.468976,-0.312386 0.697265,-0.441406 0.117185,-0.05901 0.228918,-0.116317 0.335938,-0.169922 0.110427,-0.04583 0.216525,-0.08906 0.3125,-0.128906 0.09902,-0.03102 0.189015,-0.05873 0.269531,-0.08398 0.04992,-0.01821 0.08968,-0.01092 0.132813,-0.0078 -0.04051,0.01061 -0.07703,0.01801 -0.123047,0.03906 -0.07744,0.03119 -0.16633,0.06722 -0.261719,0.105468 -0.09189,0.04718 -0.19154,0.09861 -0.296875,0.152344 -0.100774,0.06123 -0.205796,0.124371 -0.316406,0.191406 -0.214882,0.144992 -0.438293,0.309293 -0.650391,0.488282 -0.42535,0.355437 -0.815495,0.754837 -1.09375,1.066406 -0.02011,0.02261 -0.03793,0.04119 -0.05664,0.0625 0,0 -0.002,0 -0.002,0 l -0.03906,0.0332 L 12,16.794922 v -3.753906 c -6e-4,-0.556143 0.271441,-1.229348 0.734375,-1.53711 l 0.0059,-0.0039 c 0.01597,-0.01103 0.02156,-0.01728 0.03711,-0.0293 0.01158,-0.01069 0.03286,-0.0237 0.04883,-0.03711 0.165197,-0.03609 0.334737,-0.07483 0.511719,-0.126953 0.217391,-0.06161 0.432033,-0.141602 0.654297,-0.226563 0.221311,-0.08434 0.435929,-0.187961 0.65039,-0.296875 0.210615,-0.115991 0.421098,-0.23349 0.617188,-0.371094 0.195687,-0.142158 0.390237,-0.274371 0.568359,-0.4355465 0.360567,-0.3051845 0.684018,-0.6422968 0.966797,-1.0117187 0.14301,-0.1719905 0.276477,-0.3805158 0.402344,-0.5664063 0.126599,-0.184348 0.243735,-0.3916583 0.357422,-0.5820313 0.113668,-0.186725 0.222114,-0.3777821 0.322265,-0.5644531 0.10658,-0.1912435 0.200179,-0.3572451 0.277344,-0.4941406 0.08303,-0.1350265 0.148161,-0.2797362 0.197265,-0.3632813 0.04834,-0.095523 0.07422,-0.1464843 0.07422,-0.1464843 0,0 -0.0369,-0.039159 -0.109375,-0.095703 C 18.244932,6.1015187 18.134257,6.0034695 17.994141,5.9296875 17.854848,5.8534365 17.668107,5.7361177 17.466797,5.6757812 17.264168,5.6101282 17.030947,5.5555036 16.771484,5.5175781 Z"/>
 <path style="fill:#444444" d="M 11.00001,20.10251 10.99999,22 H 12 v -4.981102 c 0,0 1.249354,-0.994058 1.358076,-1.053091 -0.08389,-0.02486 -0.357984,-0.06189 -0.357984,-0.06189 -0.08215,-0.06606 -0.235103,-0.07416 -0.337635,-0.108815 l -0.04035,0.03337 L 12,16.294246 v -3.75278 c -6e-4,-0.556143 0.272201,-1.230486 0.735135,-1.538248 l 0.0047,-0.0038 c 0.01597,-0.01103 0.02224,-0.01591 0.03779,-0.02793 0.0798,-0.07368 0.283621,-0.226735 0.338441,-0.254868 -0.01863,-0.09358 -0.102972,-0.169895 -0.195834,-0.233085 -0.07678,-0.05226 -0.564062,0.04786 -0.649488,0.01127 -0.08288,-0.03552 -0.0922,-0.0222 -0.143358,0.05922 l -0.236385,0.219736 c -0.54792,0.422639 -0.869126,1.375829 -0.869565,2.068023 v 0.374079 l -0.301535,-0.285014 c -1.83e-4,-0.0079 -0.01221,-0.01074 -0.01242,-0.01865 -0.01266,0.0027 -0.01175,-0.05137 -0.02688,-0.05483 l -0.7311175,0.05663 c 0.072002,0.0031 0.3035485,0.35265 0.3724165,0.421536 0.06889,0.0689 0.678072,0.699686 0.678072,0.699686 v 6.067289"/>
 <path style="fill:#ff6d00" d="m 12.339564,10.998658 c 0.10136,0.0058 0.243144,-0.0071 0.376593,-0.03762 0.195559,-0.03973 0.406155,-0.09099 0.620982,-0.154262 0.217391,-0.06161 0.433464,-0.141632 0.655727,-0.226593 0.221311,-0.08434 0.436156,-0.188921 0.650617,-0.297835 0.210615,-0.115991 0.420039,-0.233234 0.616129,-0.3708375 0.195687,-0.142158 0.390439,-0.2731375 0.568561,-0.434313 0.360567,-0.3051845 0.684593,-0.6437395 0.967372,-1.0131615 0.14301,-0.1719905 0.274958,-0.378913 0.400825,-0.5648035 0.126599,-0.184348 0.244737,-0.392903 0.358424,-0.583276 0.113668,-0.186725 0.222886,-0.376626 0.323037,-0.563297 0.10658,-0.1912435 0.199112,-0.35799 0.276277,-0.4948855 0.08303,-0.1350265 0.148395,-0.2802695 0.1975,-0.3638145 0.04834,-0.095523 0.07402,-0.145915 0.07402,-0.145915 0,0 -0.03711,-0.03934 -0.109584,-0.095884 C 18.24457,5.6013355 18.134308,5.503617 17.994192,5.429835 17.854899,5.353584 17.668975,5.235742 17.467665,5.1754055 17.265036,5.1097525 17.031857,5.055749 16.772394,5.0178235 16.517839,4.989951 16.251417,4.997772 15.963417,5.0206735 15.675162,5.0437535 15.399618,5.122728 15.1053,5.210556 c -0.289611,0.094288 -0.563196,0.22828 -0.840755,0.379711 -0.265965,0.1598505 -0.524438,0.344017 -0.768131,0.546076 -0.231623,0.211132 -0.463978,0.4299215 -0.658127,0.674062 -0.198086,0.241491 -0.378186,0.4947585 -0.525483,0.761019 -0.305857,0.5245185 -0.500372,1.0890495 -0.613839,1.603624 -0.05273,0.2615965 -0.08837,0.5073335 -0.104711,0.736866 -0.01958,0.226593 -0.01103,0.441844 -0.006,0.614833 -1.84e-4,0.0812 0.0067,0.159578 0.01507,0.229641 0.05612,-0.08066 0.117075,-0.166184 0.184038,-0.258766 0.33355,-0.45803 0.803371,-1.0468595 1.321528,-1.5826105 0.258675,-0.2687105 0.532626,-0.5180405 0.796137,-0.7406955 0.136581,-0.1049035 0.268822,-0.2058515 0.39359,-0.301301 0.130464,-0.086158 0.253895,-0.1674355 0.367288,-0.2423255 0.118797,-0.064183 0.228033,-0.1223605 0.324631,-0.174585 0.09438,-0.05669 0.186108,-0.082112 0.257155,-0.1131965 0.143981,-0.057633 0.225945,-0.090187 0.225945,-0.090187 0,0 -0.07999,0.039725 -0.219442,0.108823 -0.06894,0.03758 -0.157187,0.069791 -0.247118,0.1337925 -0.09167,0.059175 -0.194918,0.1256815 -0.307854,0.1983755 -0.10691,0.083436 -0.222629,0.1732425 -0.345254,0.2684375 -0.115555,0.1038335 -0.237869,0.213673 -0.364706,0.327414 -0.243785,0.2401295 -0.49409,0.5060455 -0.72824,0.7896535 -0.470187,0.5641865 -0.910794,1.140222 -1.240755,1.597091 -0.05189,0.08469 -0.165136,0.221059 -0.172792,0.227301 0,1.8e-5 0.372105,0.09639 0.492111,0.09505 z"/>
 <path style="fill:#444444" d="m 12.885723,15.993079 c 0.09502,0.0042 0.196639,0.0093 0.303366,0.0057 0.155868,-0.0016 0.324667,-0.0097 0.498009,-0.02625 0.175173,-0.0149 0.35128,-0.04379 0.532754,-0.07549 0.180668,-0.03138 0.358479,-0.07888 0.53649,-0.12966 0.175778,-0.05666 0.350768,-0.114442 0.517626,-0.189387 0.167022,-0.07843 0.332122,-0.148627 0.487605,-0.243838 0.312433,-0.176956 0.600139,-0.384198 0.859199,-0.620559 0.12942,-0.108395 0.254023,-0.244592 0.371648,-0.365871 0.118027,-0.120035 0.232099,-0.259434 0.340767,-0.385854 0.108265,-0.123672 0.213416,-0.250375 0.311187,-0.375967 0.103246,-0.128079 0.192976,-0.239827 0.267558,-0.331384 0.07894,-0.08932 0.145264,-0.18884 0.192354,-0.244423 0.04777,-0.06468 0.07312,-0.09877 0.07312,-0.09877 0,0 -0.02453,-0.03484 -0.07462,-0.0877 -0.04993,-0.04841 -0.124841,-0.13759 -0.225505,-0.213099 -0.09975,-0.07724 -0.231165,-0.192419 -0.380714,-0.266667 -0.149989,-0.07843 -0.324924,-0.152526 -0.521966,-0.218336 -0.194314,-0.05758 -0.401687,-0.09007 -0.627429,-0.114385 -0.225945,-0.02422 -0.448062,-0.0047 -0.685692,0.01882 -0.234664,0.029 -0.461195,0.09009 -0.692707,0.163695 -0.223418,0.08157 -0.443648,0.182493 -0.654354,0.298932 -0.202317,0.124989 -0.406045,0.255629 -0.582885,0.410754 -0.179605,0.152602 -0.346555,0.316599 -0.489455,0.49508 -0.293677,0.349352 -0.505372,0.744737 -0.648841,1.114338 -0.06909,0.188595 -0.123247,0.367773 -0.160648,0.53759 -0.03962,0.167124 -0.05621,0.329802 -0.07099,0.460272 -0.0089,0.06087 -0.01201,0.120658 -0.01309,0.174413 0.0522,-0.05242 0.108687,-0.107774 0.170576,-0.167576 0.307982,-0.295484 0.735695,-0.669454 1.195167,-0.996638 0.229516,-0.164279 0.468777,-0.311833 0.697066,-0.440853 0.117185,-0.05901 0.230597,-0.115685 0.337617,-0.16929 0.110427,-0.04583 0.214882,-0.089 0.310857,-0.12885 0.09902,-0.03102 0.189973,-0.05892 0.270489,-0.08417 0.07927,-0.02891 0.15314,0.0013 0.211567,-0.01179 0.117826,-0.02249 0.184881,-0.07116 0.184881,-0.07116 0,0 -0.06629,0.01827 -0.181859,0.05001 -0.05749,0.01825 -0.129365,0.0297 -0.205998,0.06475 -0.07744,0.03119 -0.16466,0.06619 -0.260049,0.10444 -0.09189,0.04718 -0.191273,0.09787 -0.296608,0.151604 -0.100774,0.06123 -0.207427,0.126006 -0.318037,0.193041 -0.214882,0.144992 -0.437603,0.308367 -0.649701,0.487356 -0.42535,0.355437 -0.815021,0.754439 -1.093276,1.066008 -0.04289,0.04822 -0.08233,0.09318 -0.119438,0.136215"/>
 <path style="fill:#444444" d="m 10.680599,12.857365 c -0.04596,-0.05427 -0.0948,-0.110966 -0.147883,-0.171849 C 10.188396,12.292201 9.7074935,11.787135 9.185234,11.334001 8.9247455,11.105906 8.652077,10.89648 8.3894085,10.709915 8.2544755,10.623202 8.1243595,10.539424 8.0013865,10.460217 7.873212,10.390016 7.7522905,10.323789 7.640472,10.262192 7.524752,10.21137 7.4189595,10.164871 7.3250175,10.123466 7.2319175,10.077346 7.14532,10.060356 7.075738,10.035606 6.936043,9.99194 6.855911,9.966806 6.855911,9.966806 c 0,0 0.080846,0.018233 0.222941,0.050656 0.070534,0.01843 0.1593115,0.02868 0.2553785,0.06739 0.097422,0.03429 0.207482,0.07222 0.3272865,0.114328 0.1164705,0.05279 0.2432165,0.11001 0.377234,0.17075 0.130171,0.07012 0.2681265,0.144256 0.410697,0.221406 0.2782,0.167557 0.5702105,0.358255 0.8510665,0.569058 0.562206,0.419951 0.9799185,0.912478 1.3593685,1.287304 0.07629,0.07583 0.127332,0.146014 0.191713,0.212382 -0.0031,-0.06591 0.0026,-0.138626 -0.003,-0.214238 0.0027,-0.129801 -0.02768,-0.356438 -0.06359,-0.566942 -0.03797,-0.210983 -0.09088,-0.447044 -0.158671,-0.682067 C 10.441658,10.737969 10.192929,10.244722 9.8288265,9.8044674 9.651364,9.5798465 9.4455665,9.3719579 9.22497,9.1775463 9.007597,8.9801398 8.7588125,8.8116249 8.511896,8.6500977 8.2551985,8.4986938 7.987622,8.3659387 7.7168765,8.256723 7.436698,8.1569711 7.1629125,8.0727336 6.8804445,8.0275105 6.594625,7.9889161 6.3275245,7.9964217 6.0573285,8.0167438 5.787389,8.0372104 5.53974,8.068477 5.3086115,8.1309906 5.074498,8.2035082 4.867162,8.2870673 4.6899189,8.3769953 4.5130607,8.4618117 4.3593171,8.5568708 4.2422969,8.6474177 4.1241228,8.7357924 4.0372688,8.8419925 3.9790243,8.8992557 3.9207248,8.9619499 3.8925,9.0036392 3.8925,9.0036392 c 0,0 0.031559,0.042828 0.091048,0.1240706 0.058354,0.070062 0.1412887,0.1947705 0.239004,0.30748 0.092568,0.1152852 0.2039658,0.255928 0.3321587,0.4171352 0.1215259,0.157954 0.2519535,0.317563 0.3859895,0.473579 0.13464,0.159411 0.276185,0.334954 0.4218145,0.486918 0.1452085,0.153479 0.299282,0.325528 0.4581905,0.463716 0.3187515,0.300332 0.6708745,0.566203 1.051625,0.795953 0.189716,0.123112 0.3901285,0.215955 0.5931235,0.318962 0.202684,0.09876 0.4145435,0.176781 0.627301,0.253471 0.21523,0.06959 0.4301305,0.135132 0.6479065,0.181075 0.2187465,0.04636 0.4309725,0.08903 0.641587,0.114526 0.208508,0.02739 0.4112285,0.04432 0.598252,0.05276 0.1281568,0.0089 0.2498658,0.0069 0.3636988,0.0056"/>
 <path style="opacity:0.2;fill:#8b9cbe" d="M 12,2 A 10,10 0 0 0 2,12 10,10 0 0 0 2.01075,12.291 10,10 0 0 1 12,2.5 10,10 0 0 1 21.9895,12.209 10,10 0 0 0 22,12 10,10 0 0 0 12,2 Z"/>
</svg>
