<svg width="24" height="24" version="1.1" xmlns="http://www.w3.org/2000/svg">
 <g transform="translate(1,1.0000002)">
  <path d="m7 1.4999902c-1.6567856 1.657e-4 -2.9998343 1.3432144-3 3-1.6567856 1.657e-4 -2.9998343 1.3432144-3 3v1c5.124e-4 1.0059015 0.5050701 1.9446138 1.34375 2.4999998-0.8386799 0.555386-1.3432376 1.494099-1.34375 2.5v4c7.717e-4 1.047571 0.5478763 2.018886 1.4433594 2.5625 0.5439618 0.891457 1.512329 1.435932 2.5566406 1.4375h2c0.1630075-0.0011 0.3256552-0.01546 0.4863281-0.04297 0.1696743 0.029033 0.3415323 0.043409 0.5136719 0.04297h1c0.8917663-5.76e-4 1.737063-0.397815 2.306641-1.083984 0.147694 0.03543 0.297865 0.05959 0.449218 0.07227 0.568894 0.642715 1.385816 1.011003 2.244141 1.011714h1c0.163007-0.0011 0.325655-0.01546 0.486328-0.04297 0.169674 0.02903 0.341532 0.04341 0.513672 0.04297h1c1.047571-7.72e-4 2.018886-0.547876 2.5625-1.443359 0.891457-0.543962 1.435932-1.512329 1.4375-2.556641v-1c-0.0011-0.163007-0.01546-0.325655-0.04297-0.486328 0.029033-0.169674 0.043409-0.341532 0.04297-0.513672v-1c-0.0013-0.857645-0.369511-1.673746-1.011719-2.242188-0.01268-0.151353-0.03684-0.301524-0.07227-0.449218 0.6867-0.570015 1.083994-1.416144 1.083989-2.3085938v-1c-0.001088-0.1630075-0.015458-0.3256552-0.042969-0.4863281 0.029032-0.1696743 0.043408-0.3415323 0.042969-0.5136719v-2c-7.72e-4 -1.0475713-0.547876-2.0188856-1.443359-2.5625-0.543962-0.8914567-1.512329-1.4359321-2.556641-1.4375h-4c-1.005901 5.124e-4 -1.944614 0.5050701-2.5 1.34375-0.5553864-0.8386799-1.4940985-1.3432376-2.5-1.34375z" style="opacity:.2"/>
  <path d="m7 1c-1.6567856 1.657e-4 -2.9998343 1.3432144-3 3-1.6567856 1.657e-4 -2.9998343 1.3432144-3 3v1c5.124e-4 1.0059015 0.5050701 1.9446136 1.34375 2.5-0.8386799 0.555386-1.3432376 1.494099-1.34375 2.5v4c7.717e-4 1.047571 0.5478763 2.018886 1.4433594 2.5625 0.5439618 0.891457 1.512329 1.435932 2.5566406 1.4375h2c0.1630075-0.0011 0.3256552-0.01546 0.4863281-0.04297 0.1696743 0.029033 0.3415323 0.043409 0.5136719 0.04297h1c0.8917663-5.76e-4 1.737063-0.397815 2.306641-1.083984 0.147694 0.03543 0.297865 0.05959 0.449218 0.07227 0.568894 0.642715 1.385816 1.011003 2.244141 1.011714h1c0.163007-0.0011 0.325655-0.01546 0.486328-0.04297 0.169674 0.029033 0.341532 0.043409 0.513672 0.04297h1c1.047571-7.72e-4 2.018886-0.547876 2.5625-1.443359 0.891457-0.543962 1.435932-1.512329 1.4375-2.556641v-1c-0.0011-0.163007-0.01546-0.325655-0.04297-0.486328 0.029033-0.169674 0.043409-0.341532 0.04297-0.513672v-1c-0.0013-0.857645-0.369511-1.673746-1.011719-2.242188-0.01268-0.151353-0.03684-0.301524-0.07227-0.449218 0.6867-0.570015 1.083994-1.4161442 1.083989-2.308594v-1c-0.001088-0.1630075-0.015458-0.3256552-0.042969-0.4863281 0.029032-0.1696743 0.043408-0.3415323 0.042969-0.5136719v-2c-7.72e-4 -1.0475713-0.547876-2.0188856-1.443359-2.5625-0.543962-0.8914567-1.512329-1.4359321-2.556641-1.4375h-4c-1.005901 5.124e-4 -1.944614 0.5050701-2.5 1.34375-0.5553864-0.8386799-1.4940985-1.3432376-2.5-1.34375z" style="fill:#17306a"/>
  <path d="m7 4.4999902v1h1v-1zm6 0v1h-1v1h-1v2h-1v1h-1v0.9999998h-1v1h-2v1h-1v1h-1v4h1v-3h1v-1h1v-1h2v-1h1v-1h1v-0.9999998h1v-2h1v-1h1v-1h3v-1zm4 1v2h1v-2zm0 2h-1v1h1zm0 1v1h1v-1zm0 1h-1v0.9999998h1zm-1 0v-1h-1v1zm-1 0h-1v0.9999998h1zm-1 0.9999998h-1v-0.9999998h-1v0.9999998h-1v1h1v1h-1v-1h-1v1h-1v1h1v1h1v-1h1v1h-1v2h1v1h1v-3h1v-1h3v-1h-1v-1h-2v1h-1v-1h1zm0 4v4h1v-2h1v-1h2v-1h-2zm2 2v2h1v-1h1v-1zm-6-2h-1v1h1zm-1 1h-1v1h1zm0 1v1h1v-1zm0 1h-1v1h1zm-1 0v-1h-1v1zm-1 0h-2v1h2zm1-7v-1.9999998h-2v1.9999998zm0-1.9999998h2v-2h-2zm-4-1v1h1v-1z" style="opacity:.2"/>
  <path d="m7 4v1h1v-1zm6 0v1h-1v1h-1v2h-1v1h-1v1h-1v1h-2v1h-1v1h-1v4h1v-3h1v-1h1v-1h2v-1h1v-1h1v-1h1v-2h1v-1h1v-1h3v-1zm4 1v2h1v-2zm0 2h-1v1h1zm0 1v1h1v-1zm0 1h-1v1h1zm-1 0v-1h-1v1zm-1 0h-1v1h1zm-1 1h-1v-1h-1v1h-1v1h1v1h-1v-1h-1v1h-1v1h1v1h1v-1h1v1h-1v2h1v1h1v-3h1v-1h3v-1h-1v-1h-2v1h-1v-1h1zm0 4v4h1v-2h1v-1h2v-1h-2zm2 2v2h1v-1h1v-1zm-6-2h-1v1h1zm-1 1h-1v1h1zm0 1v1h1v-1zm0 1h-1v1h1zm-1 0v-1h-1v1zm-1 0h-2v1h2zm1-7v-2h-2v2zm0-2h2v-2h-2zm-4-1v1h1v-1z" style="fill:#7095ce"/>
  <path d="m7 1c-1.6567856 1.657e-4 -2.9998343 1.3432144-3 3-1.6567856 1.657e-4 -2.9998343 1.3432144-3 3v0.5c1.657e-4 -1.6567856 1.3432144-2.9998343 3-3 1.657e-4 -1.6567856 1.3432144-2.9998343 3-3h1c1.0059015 5.124e-4 1.9446136 0.5050701 2.5 1.34375 0.555386-0.8386799 1.494099-1.3432376 2.5-1.34375h4c1.044312 0.00157 2.012679 0.5460433 2.556641 1.4375 0.895483 0.5436144 1.442587 1.5149287 1.443359 2.5625v-0.5c-7.72e-4 -1.0475713-0.547876-2.0188856-1.443359-2.5625-0.543962-0.8914567-1.512329-1.4359321-2.556641-1.4375h-4c-1.005901 5.124e-4 -1.944614 0.5050701-2.5 1.34375-0.5553864-0.8386799-1.4940985-1.3432376-2.5-1.34375zm13.978516 6.7578125c-0.0072 0.085365-7e-3 0.1713426-0.02148 0.2558594 0.027506 0.1606729 0.041876 0.3233206 0.042964 0.4863281v-0.5c-5.42e-4 -0.081179-0.014372-0.1613865-0.021484-0.2421875zm-18.925782 2.9921875c-0.6530099 0.565302-1.0522881 1.373812-1.0527344 2.25v0.5c5.124e-4 -1.005901 0.5050701-1.944614 1.34375-2.5-0.1081494-0.071618-0.1943426-0.166311-0.2910156-0.25zm17.931641 0.986328c-0.02499 0.02219-0.04255 0.05084-0.06836 0.07227 0.03543 0.147694 0.05959 0.297865 0.07227 0.449218 0.642204 0.568438 1.010415 1.384539 1.011715 2.242184v-0.5c-0.0013-0.857645-0.369511-1.673746-1.011719-2.242188-6.08e-4 -0.0073-0.0032-0.01423-0.0039-0.02148zm0.994141 4.021484c-0.0072 0.08537-7e-3 0.171343-0.02148 0.25586 0.027505 0.160673 0.041864 0.323321 0.042964 0.486328v-0.5c-5.48e-4 -0.08118-0.01437-0.161386-0.02148-0.242188z" style="fill:#8b9cbe;opacity:.1"/>
 </g>
</svg>
