<svg xmlns="http://www.w3.org/2000/svg" width="24" height="24" version="1.1">
 <circle style="opacity:0.2" cx="12" cy="12.5" r="10"/>
 <circle style="fill:#aaaaaa" cx="12" cy="12" r="10"/>
 <path style="opacity:0.1" d="m 12,4.5 a 8,8 0 0 0 -8,8 8,8 0 0 0 8,8 8,8 0 0 0 5.277344,-2 h -3.16211 L 11,12.453125 14.115234,6.5 H 17.28125 A 8,8 0 0 0 12,4.5 Z m 4,5.5 -2,1.25 -2,1.25 2,1.25 2,1.25 v -2.5 z m 0,2.5 2,1.25 2,1.25 V 12.5 10 l -2,1.25 z"/>
 <path style="opacity:0.2;fill:#8b9cbe" d="M 12,2 A 10,10 0 0 0 2,12 10,10 0 0 0 2.01075,12.291 10,10 0 0 1 12,2.5 10,10 0 0 1 21.9895,12.209 10,10 0 0 0 22,12 10,10 0 0 0 12,2 Z"/>
 <path style="fill:#17191e" d="M 12 4 A 8 8 0 0 0 4 12 A 8 8 0 0 0 12 20 A 8 8 0 0 0 17.277344 18 L 14.115234 18 L 11 11.953125 L 14.115234 6 L 17.28125 6 A 8 8 0 0 0 12 4 z"/>
 <path style="fill:#17191e" transform="matrix(0.49503454,0,0,0.5358906,0.01887208,-1.1370726)" d="m 24.20261,24.514467 4.040122,-2.332565 4.040122,-2.332566 0,4.665131 0,4.665131 -4.040122,-2.332565 z"/>
 <path style="fill:#17191e" transform="matrix(0.49503454,0,0,0.5358906,4.018872,-1.1370726)" d="m 24.20261,24.514467 4.040122,-2.332565 4.040122,-2.332566 0,4.665131 0,4.665131 -4.040122,-2.332565 z"/>
 <path style="opacity:0.2" d="M 7.95868,6.5 C 7.591059,6.500077 7.2535145,6.715088 7.0811615,7.0589665 L 2.1172633,16.954449 C 1.7661731,17.655226 2.2456861,18.49978 2.9947812,18.5 h 8.0104998 c 0.748143,-2.63e-4 1.22769,-0.842903 0.87845,-1.543577 L 9.4993235,12.5 11.686034,8.047527 C 12.03898,7.3466485 11.559499,6.500172 10.809448,6.5 Z"/>
 <path style="fill:#8b9cbe" d="M 7.95868,6 C 7.591059,6.000077 7.2535145,6.215088 7.0811615,6.5589665 L 2.1172633,16.454449 C 1.7661731,17.155226 2.2456861,17.99978 2.9947812,18 h 8.0104998 c 0.748143,-2.63e-4 1.22769,-0.842903 0.87845,-1.543577 L 9.4993235,12 11.686034,7.547527 C 12.03898,6.8466485 11.559499,6.000172 10.809448,6 Z"/>
</svg>
