<svg xmlns="http://www.w3.org/2000/svg" width="24" height="24" version="1">
 <path style="opacity:0.2" d="M 11.983398,7.5002778 A 1.0677701,0.74740205 0 0 0 11.245117,7.7190279 L 2.3124961,13.970983 a 1.0677701,0.74740205 0 0 0 0,1.056641 l 8.9326209,6.253909 a 1.0677701,0.74740205 0 0 0 1.50879,0 l 8.933597,-6.253909 a 1.0677701,0.74740205 0 0 0 0,-1.056641 L 12.753907,7.7190279 A 1.0677701,0.74740205 0 0 0 11.983398,7.5002778 Z M 12,9.6321146 18.955081,14.499304 12,19.368447 5.0449192,14.499304 Z"/>
 <path style="fill:#435779" d="M 11.983398,7.0002776 A 1.0677701,0.74740205 0 0 0 11.245117,7.2190277 L 2.3124961,13.470983 a 1.0677701,0.74740205 0 0 0 0,1.056641 l 8.9326209,6.253909 a 1.0677701,0.74740205 0 0 0 1.50879,0 l 8.933597,-6.253909 a 1.0677701,0.74740205 0 0 0 0,-1.056641 L 12.753907,7.2190277 A 1.0677701,0.74740205 0 0 0 11.983398,7.0002776 Z M 12,9.1321144 18.955081,13.999304 12,18.868446 5.0449192,13.999304 Z"/>
 <path style="opacity:0.2" d="M 11.983398,5.500175 A 1.0677701,0.74740205 0 0 0 11.245117,5.7189251 L 2.3124961,11.970881 a 1.0677701,0.74740205 0 0 0 0,1.056641 l 8.9326209,6.253909 a 1.0677701,0.74740205 0 0 0 1.50879,0 l 8.933597,-6.253909 a 1.0677701,0.74740205 0 0 0 0,-1.056641 L 12.753907,5.7189251 A 1.0677701,0.74740205 0 0 0 11.983398,5.500175 Z M 12,7.6320118 18.955081,12.499201 12,17.368344 5.0449192,12.499201 Z"/>
 <path style="fill:#ff9556" d="M 11.983398,5.0001748 A 1.0677701,0.74740205 0 0 0 11.245117,5.2189249 L 2.3124961,11.47088 a 1.0677701,0.74740205 0 0 0 0,1.056641 l 8.9326209,6.253909 a 1.0677701,0.74740205 0 0 0 1.50879,0 l 8.933597,-6.253909 a 1.0677701,0.74740205 0 0 0 0,-1.056641 L 12.753907,5.2189249 A 1.0677701,0.74740205 0 0 0 11.983398,5.0001748 Z M 12,7.1320116 18.955081,11.999201 12,16.868344 5.0449192,11.999201 Z"/>
 <path style="opacity:0.2" d="M 11.983398,3.5002749 A 1.0677701,0.74740205 0 0 0 11.245117,3.719025 L 2.3124961,9.9709818 a 1.0677701,0.74740205 0 0 0 0,1.0566412 l 8.9326209,6.253909 a 1.0677701,0.74740205 0 0 0 1.50879,0 l 8.933597,-6.253909 a 1.0677701,0.74740205 0 0 0 0,-1.0566412 L 12.753907,3.719025 A 1.0677701,0.74740205 0 0 0 11.983398,3.5002749 Z M 12,5.632112 18.955081,10.499302 12,15.368445 5.0449192,10.499302 Z"/>
 <path style="fill:#6187ab" d="M 11.983398,3.0002748 A 1.0677701,0.74740205 0 0 0 11.245117,3.2190249 L 2.3124961,9.4709816 a 1.0677701,0.74740205 0 0 0 0,1.0566414 l 8.9326209,6.253909 a 1.0677701,0.74740205 0 0 0 1.50879,0 l 8.933597,-6.253909 a 1.0677701,0.74740205 0 0 0 0,-1.0566414 L 12.753907,3.2190249 A 1.0677701,0.74740205 0 0 0 11.983398,3.0002748 Z M 12,5.1321118 18.955081,9.9993023 12,14.868445 5.0449192,9.9993023 Z"/>
 <path style="opacity:0.2;fill:#8b9cbe" d="M 11.983398,2.9999925 A 1.0677701,0.74740205 0 0 0 11.245117,3.2187426 L 2.3124961,9.4706981 A 1.0677701,0.74740205 0 0 0 2.062496,10.249019 1.0677701,0.74740205 0 0 1 2.3124961,9.9706983 L 11.245117,3.7187428 a 1.0677701,0.74740205 0 0 1 0.738281,-0.2187501 1.0677701,0.74740205 0 0 1 0.770508,0.2187501 l 8.933598,6.2519555 a 1.0677701,0.74740205 0 0 1 0.25,0.2783207 1.0677701,0.74740205 0 0 0 -0.25,-0.7783209 L 12.753906,3.2187426 A 1.0677701,0.74740205 0 0 0 11.983398,2.9999925 Z m -6.5810566,7.2490265 -0.3574222,0.25 L 12,15.368161 l 6.955081,-4.869142 -0.357422,-0.25 L 12,14.868161 Z"/>
</svg>
