<svg xmlns="http://www.w3.org/2000/svg" width="24" height="24" version="1">
 <path style="opacity:0.2" d="m 3,3.5 c -0.554,0 -1,0.446 -1,1 l 0,12 0,4 c 0,0.554 0.446,1 1,1 l 18,0 c 0.554,0 1,-0.446 1,-1 l 0,-4 0,-12 c 0,-0.554 -0.446,-1 -1,-1 l -18,0 z"/>
 <path style="fill:#4f4f4f" d="M 3,3 C 2.446,3 2,3.446 2,4 l 0,12 0,4 c 0,0.554 0.446,1 1,1 l 18,0 c 0.554,0 1,-0.446 1,-1 L 22,16 22,4 C 22,3.446 21.554,3 21,3 L 3,3 Z"/>
 <rect style="opacity:0.2;stroke:#000000;stroke-width:0;stroke-linejoin:round" width="20" height="1" x="2" y="9"/>
 <rect style="opacity:0.2;stroke:#000000;stroke-width:0;stroke-linejoin:round" width="20" height="1" x="2" y="5"/>
 <rect style="opacity:0.2;stroke:#000000;stroke-width:0;stroke-linejoin:round" width="20" height="1" x="2" y="11"/>
 <rect style="opacity:0.2;stroke:#000000;stroke-width:0;stroke-linejoin:round" width="20" height="1" x="2" y="7"/>
 <path style="fill:#47da72" d="m 5.5,6 c 3.5,0 2.332754,5.96412 6,6 2.280507,0.02231 4.147059,-2 6.5,-2 2.352941,0 4,3.5 4,3.5 v 2.5 4 c 0,0.554 -0.446,1 -1,1 H 3 C 2.446,21 2,20.554 2,20 V 10.5 C 2,10.5 2.739939,6 5.5,6 Z"/>
 <path style="opacity:0.1;fill:#8b9cbe" d="M 3,3 C 2.446,3 2,3.446 2,4 l 0,0.5 c 0,-0.554 0.446,-1 1,-1 l 18,0 c 0.554,0 1,0.446 1,1 L 22,4 C 22,3.446 21.554,3 21,3 L 3,3 Z"/>
 <path style="opacity:0.2;fill:#8b9cbe" d="m 5.5,6 c 3.5,0 2.332754,5.96412 6,6 2.280507,0.02231 4.147059,-2 6.5,-2 2.352941,0 4,3.5 4,3.5 V 14 c 0,0 -1.647059,-3.5 -4,-3.5 -2.352941,0 -4.219493,2.02231 -6.5,2 C 7.832754,12.46412 9,6.5 5.5,6.5 2.739939,6.5 2,11 2,11 V 10.5 C 2,10.5 2.739939,6 5.5,6 Z"/>
</svg>
