<svg xmlns="http://www.w3.org/2000/svg" width="24" height="24" version="1">
 <rect style="fill:#569a40" width="20" height="20" x="2" y="2" rx="1" ry="1"/>
 <path style="opacity:0.2;fill:#8b9cbe" d="M 3,2 C 2.446,2 2,2.446 2,3 v 0.5 c 0,-0.554 0.446,-1 1,-1 h 18 c 0.554,0 1,0.446 1,1 V 3 C 22,2.446 21.554,2 21,2 Z"/>
 <path style="opacity:0.2" d="m 3,22.5 c -0.554,0 -1,-0.446 -1,-1 V 21 c 0,0.554 0.446,1 1,1 h 18 c 0.554,0 1,-0.446 1,-1 v 0.5 c 0,0.554 -0.446,1 -1,1 z"/>
 <path style="opacity:0.5;fill:#8b9cbe" d="M 3,3 V 18 H 4 V 4 H 20 V 20 H 6 v 1 H 21 V 3 Z m 0,16 v 2 h 2 v -2 z"/>
 <g style="font-size:34.2857132px;line-height:1.25;letter-spacing:0px;word-spacing:0px" transform="matrix(0.5167323,0,0,0.5,-16.68263,-8.756918)">
  <path style="opacity:0.2" d="m 54.48718,30.513836 c -1.028571,0 -2.159939,0.04529 -3.394226,0.136719 -1.211428,0.06857 -2.320475,0.216741 -3.32619,0.445312 v 1.417969 1 21 h 4.320268 0.517827 0.967619 v -7.964844 h 0.676577 c 1.737143,0 3.277857,-0.14817 4.626428,-0.445312 1.348571,-0.297144 2.4911,-0.757858 3.428245,-1.375 0.937141,-0.64 1.648006,-1.450736 2.128005,-2.433594 0.502858,-1.005714 0.752173,-2.203372 0.752173,-3.597656 0,-2.674286 -0.922917,-5.039733 -2.774346,-6.296875 -1.828569,-1.257143 -4.470951,-1.886719 -7.92238,-1.886719 z m 0.30994,3.734375 c 0.822859,0 1.589523,0.06989 2.298095,0.207031 0.731431,0.114286 1.356608,0.323951 1.882323,0.621094 0.525713,0.297143 0.93884,0.708661 1.235982,1.234375 0.297142,0.525715 0.44601,1.574419 0.44601,2.351563 0,1.622856 -0.561993,2.729932 -1.681992,3.324218 -1.120002,0.571428 -2.716519,0.859376 -4.796519,0.859376 H 53.572478 V 34.29118 c 0.396842,-0.01509 0.743147,-0.04297 1.224642,-0.04297 z"/>
  <path style="fill:#8b9cbe" transform="matrix(1.935238,0,0,2,32.28486,17.513836)" d="M 11.472656 6 C 10.94116 6 10.356546 6.0226449 9.71875 6.0683594 C 9.092766 6.1026449 8.5196855 6.1767301 8 6.2910156 L 8 7 L 8 7.5 L 8 18 L 10.232422 18 L 10.5 18 L 11 18 L 11 14.017578 L 11.349609 14.017578 C 12.247247 14.017578 13.043384 13.943493 13.740234 13.794922 C 14.437084 13.64635 15.027466 13.415993 15.511719 13.107422 C 15.99597 12.787422 16.363297 12.382054 16.611328 11.890625 C 16.871171 11.387768 17 10.788939 17 10.091797 C 17 8.7546539 16.523099 7.5719304 15.566406 6.9433594 C 14.621525 6.3147879 13.256121 6 11.472656 6 z M 11.632812 7.8671875 C 12.05801 7.8671875 12.45417 7.9021326 12.820312 7.9707031 C 13.198266 8.0278461 13.521315 8.1326785 13.792969 8.28125 C 14.064622 8.4298215 14.278098 8.6355805 14.431641 8.8984375 C 14.585184 9.161295 14.662109 9.6856472 14.662109 10.074219 C 14.662109 10.885647 14.371709 11.439185 13.792969 11.736328 C 13.214228 12.022042 12.389256 12.166016 11.314453 12.166016 L 11 12.166016 L 11 7.8886719 C 11.205061 7.8811275 11.384008 7.8671875 11.632812 7.8671875 z"/>
 </g>
</svg>
