<svg xmlns="http://www.w3.org/2000/svg" width="24" height="24" version="1">
 <rect style="opacity:0.2" width="20" height="20" x="2" y="2.5" rx="1" ry="1"/>
 <rect style="fill:#b2bfd9" width="20" height="20" x="2" y="2" rx="1" ry="1"/>
 <path style="opacity:0.1" d="M 5.5,6.5 8.75,12.5 5.5,18.5 H 7.5 L 10.75,12.5 7.5,6.5 Z M 9,6.5 12.25,12.5 9,18.5 H 11 L 13.25,14.35 15.5,18.5 H 17.5 L 11,6.5 Z M 14.667,10.5 15.48,12 H 18.5 V 10.5 Z M 16.02,13 16.833,14.5 H 18.5 V 13 Z"/>
 <path style="fill:#8b82a4" d="M 5.5,6 8.75,12 5.5,18 H 7.5 L 10.75,12 7.5,6 Z M 14.667,10 15.48,11.5 H 18.5 V 10 Z M 16.02,12.5 16.833,14 H 18.5 V 12.5 Z"/>
 <path style="fill:#5f5088" d="M 9,6 12.25,12 9,18 H 11 L 13.25,13.85 15.5,18 H 17.5 L 11,6 Z"/>
 <path style="opacity:0.2;fill:#8b9cbe" d="M 3 2 C 2.446 2 2 2.446 2 3 L 2 3.5 C 2 2.946 2.446 2.5 3 2.5 L 21 2.5 C 21.554 2.5 22 2.946 22 3.5 L 22 3 C 22 2.446 21.554 2 21 2 L 3 2 z"/>
</svg>
