<svg xmlns="http://www.w3.org/2000/svg" width="24" height="24" version="1">
 <path style="opacity:0.2;fill-rule:evenodd" d="m 12.226251,22.498583 c 1.721933,-0.0301 3.439586,-0.529768 4.945553,-1.494188 2.220872,-1.422246 3.65868,-3.69567 4.144863,-6.212111 0.244892,-0.185776 0.513345,-0.334898 0.700237,-0.602558 0.610098,-0.873759 0.675207,-2.379992 0.0058,-3.345809 a 2.4969199,2.500329 0 0 0 -0.002,-0.003 L 21.31569,9.8272613 a 2.4969199,2.500329 0 0 0 -0.002,-0.00195 L 20.6076,8.8126011 a 2.4969199,2.500329 0 0 0 -0.002,-0.00295 C 19.934398,7.8493104 18.931395,7.5000597 18.052465,7.5000597 c -0.87893,0 -1.881931,0.3492302 -2.553235,1.3096119 a 2.4969199,2.500329 0 0 0 -0.003,0.0039 l -0.705114,1.0127277 -0.70609,1.0127287 a 2.4969199,2.500329 0 0 0 -0.0029,0.0049 c -0.668819,0.965045 -0.605116,2.469963 0.0039,3.343856 0.026,0.03731 0.07022,0.04826 0.09753,0.08399 -0.192745,0.325697 -0.442886,0.619862 -0.777285,0.834011 -0.801783,0.513461 -1.796785,0.531393 -2.615652,0.04687 C 9.966862,14.664403 8.84832,14.523023 7.953583,14.80987 c -0.894737,0.286847 -1.541812,0.87887 -1.951498,1.572315 -0.409688,0.693446 -0.616656,1.547402 -0.436918,2.470782 0.179738,0.923379 0.841773,1.837382 1.665747,2.325269 l 0,-10e-4 c 1.538631,0.911106 3.273273,1.351419 4.99534,1.32132 z"/>
 <path style="fill:#ff9932;fill-rule:evenodd" d="m 12.226251,21.998559 c 1.721933,-0.0301 3.439586,-0.529768 4.945553,-1.494188 2.220872,-1.422246 3.65868,-3.69567 4.144863,-6.21211 0.244892,-0.185776 0.513345,-0.334899 0.700237,-0.602558 0.610098,-0.873759 0.675207,-2.379992 0.0058,-3.34581 a 2.4969199,2.500329 0 0 0 -0.002,-0.003 L 21.31569,9.3272374 a 2.4969199,2.500329 0 0 0 -0.002,-0.00195 L 20.6076,8.3125773 a 2.4969199,2.500329 0 0 0 -0.002,-0.00295 C 19.934398,7.3492865 18.931395,7.0000358 18.052465,7.0000358 c -0.87893,0 -1.881931,0.3492302 -2.553235,1.309612 a 2.4969199,2.500329 0 0 0 -0.003,0.0039 l -0.705114,1.0127276 -0.70609,1.0127276 a 2.4969199,2.500329 0 0 0 -0.0029,0.0049 c -0.668819,0.965047 -0.605116,2.469964 0.0039,3.343857 0.026,0.03731 0.07022,0.04826 0.09753,0.08399 -0.192745,0.325698 -0.442886,0.619862 -0.777285,0.834011 -0.801783,0.513461 -1.796785,0.531393 -2.615652,0.04687 -0.823757,-0.488252 -1.942299,-0.629632 -2.837036,-0.342784 -0.894737,0.286846 -1.541812,0.878869 -1.951498,1.572314 -0.409688,0.693446 -0.616656,1.547402 -0.436918,2.470782 0.179738,0.923379 0.841773,1.837382 1.665747,2.325269 l 0,-10e-4 c 1.538631,0.911106 3.273273,1.351419 4.99534,1.32132 z"/>
 <path style="fill:#ffda43;fill-rule:evenodd" d="M 11.773736,2.0014306 C 10.051802,2.0315286 8.334149,2.5311983 6.828183,3.4956184 4.607311,4.9178638 3.169502,7.1912881 2.68332,9.707729 2.438427,9.893505 2.169974,10.042627 1.983082,10.310287 c -0.610097,0.873759 -0.675207,2.379992 -0.0058,3.345809 a 2.4969199,2.500329 0 0 0 0.002,0.003 L 2.684396,14.6728 a 2.4969199,2.500329 0 0 0 0.002,0.0019 l 0.706091,1.01271 a 2.4969199,2.500329 0 0 0 0.002,0.003 c 0.671303,0.960341 1.674306,1.309592 2.553236,1.309592 0.87893,0 1.88193,-0.349231 2.553235,-1.309612 a 2.4969199,2.500329 0 0 0 0.0029,-0.0039 L 9.208971,14.673712 9.91506,13.660985 a 2.4969199,2.500329 0 0 0 0.0029,-0.0049 C 10.586779,12.69104 10.523076,11.186122 9.91406,10.31223 9.88806,10.27492 9.84384,10.26397 9.81653,10.22824 10.009275,9.902545 10.259415,9.608381 10.593814,9.3942315 11.395597,8.8807701 12.390599,8.8628382 13.209466,9.3473565 14.033223,9.835608 15.151765,9.976988 16.046502,9.690141 16.941143,9.4032944 17.588219,8.8112713 17.997905,8.1178259 18.407592,7.42438 18.61456,6.570424 18.434822,5.6470446 18.255085,4.7236653 17.593049,3.809662 16.769075,3.3217757 l 0,9.75e-4 C 15.230445,2.4116443 13.495802,1.9713311 11.773736,2.0014306 Z"/>
 <path style="opacity:0.2;fill:#8b9cbe;fill-rule:evenodd" d="M 11.773407,2.0009627 C 10.051473,2.0310607 8.334072,2.5316563 6.828106,3.4960764 4.607234,4.9183218 3.169766,7.1915356 2.683584,9.707976 2.438692,9.893752 2.170282,10.042854 1.98339,10.310514 1.627606,10.820055 1.464128,11.543826 1.516594,12.250939 1.555444,11.714695 1.711763,11.199528 1.98339,10.810513 2.170282,10.542853 2.438692,10.393751 2.683584,10.207975 3.169766,7.6915344 4.607234,5.4183207 6.828106,3.9960752 c 1.505966,-0.96442 3.223367,-1.4650161 4.945301,-1.4951137 1.722066,-0.030099 3.457451,0.4111561 4.996082,1.3222626 l 0,-9.75e-4 c 0.823974,0.4878862 1.485298,1.4018105 1.665035,2.3251899 0.02745,0.1410042 0.04365,0.2795488 0.05371,0.416991 0.02154,-0.2956593 0.0077,-0.6014871 -0.05371,-0.9169899 C 18.254787,4.7240608 17.593463,3.8101365 16.769489,3.3222502 l 0,9.75e-4 C 15.230858,2.4121188 13.495473,1.9708632 11.773407,2.0009627 Z M 9.99802,10.458951 c -0.06498,0.08668 -0.126636,0.176586 -0.18164,0.269531 0.02731,0.03572 0.07165,0.04667 0.09766,0.08398 0.270661,0.388379 0.427003,0.902627 0.465819,1.437497 0.04767,-0.643191 -0.08878,-1.294166 -0.381835,-1.791012 z"/>
 <path style="opacity:0.2;fill-rule:evenodd" d="M 11.877898,5.5028761 C 10.60607,5.5250761 9.340104,5.8925552 8.228493,6.6034596 6.20564,7.8971281 5.004831,10.131136 5.004868,12.500907 l -0.416015,0 a 0.58819019,0.48744813 0 0 0 -0.510741,0.730467 l 0.706053,1.01367 0.70703,1.012693 a 0.58819019,0.48744813 0 0 0 1.017575,0 l 0.706054,-1.012693 0.707029,-1.01367 A 0.58819019,0.48744813 0 0 0 7.412089,12.500907 l -0.40332,0 c -6.5e-4,-1.694433 0.849266,-3.286123 2.29687,-4.2119043 1.59101,-1.0174932 3.613695,-1.0531446 5.239246,-0.091797 A 1.0002019,1.0002019 0 1 0 15.563437,6.4755304 C 14.427694,5.8038534 13.149727,5.4806767 11.877898,5.5028761 Z"/>
 <path style="fill:#17191e;fill-rule:evenodd" d="M 11.877898,5.0019943 C 10.60607,5.0241943 9.340104,5.3916734 8.228493,6.1025778 6.20564,7.3962463 5.004831,9.6302546 5.004868,12.000025 l -0.416015,0 a 0.58819019,0.48744813 0 0 0 -0.510741,0.730468 l 0.706053,1.013669 0.70703,1.012693 a 0.58819019,0.48744813 0 0 0 1.017575,0 L 7.214824,13.744162 7.921853,12.730493 A 0.58819019,0.48744813 0 0 0 7.412089,12.000025 l -0.40332,0 c -6.5e-4,-1.694433 0.849266,-3.2861228 2.29687,-4.2119042 1.59101,-1.0174931 3.613695,-1.0531445 5.239246,-0.091797 A 1.0002019,1.0002019 0 1 0 15.563437,5.9746485 C 14.427694,5.3029716 13.149727,4.9797947 11.877898,5.0019943 Z"/>
 <path style="fill:#ff9932;fill-rule:evenodd" d="m 22.497488,12.132322 c 0.0241,-0.632157 -0.125141,-1.284 -0.474734,-1.788429 l -0.002,-0.003 -0.705114,-1.0137056 -0.002,-0.00195 -0.70609,-1.0127101 -0.002,-0.00295 C 19.934398,7.3492865 18.931395,7.0000358 18.052465,7.0000358 c -0.87893,0 -1.881931,0.3492302 -2.553235,1.309612 l -0.003,0.0039 -0.705114,1.0127276 -0.70609,1.0127276 -0.0029,0.0049 c -0.215497,0.310944 -0.354946,0.677935 -0.42461,1.061806 z"/>
 <path style="opacity:0.2;fill-rule:evenodd" d="m 12.122088,19.498938 c 1.271828,-0.0222 2.537794,-0.389679 3.649405,-1.100584 2.022853,-1.293668 3.223662,-3.527676 3.223625,-5.897447 l 0.416015,0 A 0.58819019,0.48744813 0 0 0 19.921874,11.77044 L 19.215821,10.756771 18.508792,9.7440773 a 0.58819019,0.48744813 0 0 0 -1.017576,0 l -0.706053,1.0126937 -0.70703,1.013669 a 0.58819019,0.48744813 0 0 0 0.509765,0.730467 l 0.403319,0 c 6.5e-4,1.694434 -0.849265,3.286123 -2.29687,4.211904 -1.591009,1.017493 -3.613695,1.053145 -5.239245,0.0918 a 1.0002023,1.0002023 0 1 0 -1.018553,1.721676 c 1.135744,0.671677 2.41371,0.994853 3.685539,0.972654 z"/>
 <path style="fill:#17191e;fill-rule:evenodd" d="m 12.122088,18.998056 c 1.271828,-0.0222 2.537794,-0.389679 3.649405,-1.100583 2.022853,-1.293669 3.223662,-3.527677 3.223625,-5.897448 l 0.416015,0 a 0.58819019,0.48744813 0 0 0 0.510741,-0.730467 L 19.215821,10.255889 18.508792,9.2431955 a 0.58819019,0.48744813 0 0 0 -1.017576,0 l -0.706053,1.0126935 -0.70703,1.013669 a 0.58819019,0.48744813 0 0 0 0.509765,0.730467 l 0.403319,0 c 6.5e-4,1.694434 -0.849265,3.286123 -2.29687,4.211904 -1.591009,1.017494 -3.613695,1.053145 -5.239245,0.0918 a 1.0002019,1.0002019 0 1 0 -1.018553,1.721673 c 1.135744,0.671677 2.41371,0.994853 3.685539,0.972654 z"/>
 <path style="opacity:0.2;fill-rule:evenodd" d="m 11.8945,8.9970404 c -0.451226,0.0081 -0.899887,0.1407292 -1.300778,0.3974596 -0.334399,0.21415 -0.584597,0.508285 -0.777342,0.833983 0.02731,0.03573 0.07165,0.04667 0.09766,0.08398 0.0315,0.0452 0.05543,0.09807 0.08398,0.146484 0.162714,-0.21707 0.35673,-0.411414 0.595701,-0.564452 0.801783,-0.513461 1.796362,-0.531393 2.615228,-0.04687 0.163525,0.09692 0.340682,0.176169 0.523437,0.245117 0.04439,-0.151793 0.102215,-0.297618 0.170898,-0.437499 C 13.658108,9.576606 13.423267,9.4746538 13.20895,9.3476251 12.799517,9.1053666 12.345726,8.9889394 11.8945,8.9970404 Z m -1.514645,3.2529226 c -0.0375,0.505878 -0.182694,1.003359 -0.461913,1.406246 a 2.4969199,2.500329 0 0 1 -0.0029,0.0049 L 9.20899,14.673802 8.503913,15.686495 a 2.4969199,2.500329 0 0 1 -0.0029,0.0039 c -0.671265,0.960371 -1.674734,1.309557 -2.553665,1.309557 -0.87893,0 -1.881425,-0.349227 -2.552728,-1.309568 a 2.4969199,2.500329 0 0 1 -0.002,-0.0029 L 2.686514,14.674761 a 2.4969199,2.500329 0 0 1 -0.002,-0.002 l -0.70507,-1.013622 a 2.4969199,2.500329 0 0 1 -0.0019,-0.003 c -0.279017,-0.402521 -0.423437,-0.899758 -0.46094,-1.4052 -0.04853,0.668367 0.08949,1.369307 0.460937,1.905269 a 2.4969199,2.500329 0 0 0 0.002,0.003 l 0.705076,1.01367 a 2.4969199,2.500329 0 0 0 0.002,0.002 l 0.70605,1.012675 a 2.4969199,2.500329 0 0 0 0.002,0.0029 C 4.065968,17.150774 5.068463,17.5 5.947393,17.5 c 0.878931,0 1.8824,-0.349185 2.553705,-1.309567 a 2.4969199,2.500329 0 0 0 0.0029,-0.0039 L 9.20907,15.17379 9.915123,14.161097 a 2.4969199,2.500329 0 0 0 0.003,-0.0049 c 0.37158,-0.536156 0.510436,-1.237604 0.461913,-1.906245 z"/>
</svg>
