<svg xmlns="http://www.w3.org/2000/svg" height="24" width="24" version="1.1">
 <g transform="translate(1,1)">
  <circle style="opacity:.2" cx="11" r="10" cy="11.5"/>
  <circle style="fill:#b2bfd9" cx="11" r="10" cy="11"/>
  <path style="opacity:.2;fill:#8b9cbe" d="m11 1a10 10 0 0 0 -10 10 10 10 0 0 0 0.0098 0.293 10 10 0 0 1 9.9902 -9.793 10 10 0 0 1 9.99 9.707 10 10 0 0 0 0.01 -0.207 10 10 0 0 0 -10 -10z"/>
  <path style="opacity:.2" d="m8.98094 5.4999986a0.50005 0.50005 0 0 0 -0.4082031 0.2402344l-5.4999999 9a0.50005 0.50005 0 0 0 0.4257812 0.759766h15a0.50005 0.50005 0 0 0 0.458984 -0.701172l-3.5-8.0000003a0.50005 0.50005 0 0 0 -0.480468 -0.2988281 0.50005 0.50005 0 0 0 -0.4375 0.3027344l-1.976563 4.582032-3.1269529-5.6269539a0.50005 0.50005 0 0 0 -0.4550781 -0.2578125zm-0.00391 1.4921875 1.392578 2.5078125h-1.3710899l-1 1.0000004-0.7226562-0.7226564zm6.023441 1.2636719 1.164063 2.660157-1.166016 0.583984-1.150391-0.574219zm-8.1679685 2.244141h0.1660156l1 1 1-1h1.9277339l1.230469 2.212891a0.50005 0.50005 0 0 0 0.05078 0.09375l0.941408 1.693359h-8.7597659zm9.6914065 1.236328 1.208984 2.763672h-3.439453l-1.119141-2.011719 0.320313-0.740234 1.503906 0.751953z"/>
  <path d="m8.9809401 5a0.50005 0.50005 0 0 0 -0.4082031 0.2402344l-5.5 8.9999996a0.50005 0.50005 0 0 0 0.4257812 0.759766h15a0.50005 0.50005 0 0 0 0.458984 -0.701172l-3.5-7.9999999a0.50005 0.50005 0 0 0 -0.480468 -0.2988281 0.50005 0.50005 0 0 0 -0.4375 0.3027344l-1.976563 4.5820316-3.1269528-5.6269535a0.50005 0.50005 0 0 0 -0.4550781 -0.2578125zm-0.0039063 1.4921875 1.3925782 2.5078125h-1.3710938l-1 1-0.7226562-0.7226562zm6.0234372 1.2636719 1.164063 2.6601566-1.166016 0.583984-1.150391-0.574219zm-8.1679684 2.2441406h0.1660156l1 1 1-1h1.9277338l1.230469 2.212891a0.50005 0.50005 0 0 0 0.05078 0.09375l0.941408 1.693359h-8.7597658zm9.6914064 1.236328 1.208984 2.763672h-3.439453l-1.119141-2.011719 0.320313-0.740234 1.503906 0.751953z" style="fill:#17191e"/>
 </g>
</svg>
