<svg xmlns="http://www.w3.org/2000/svg" width="24" height="24" version="1">
 <circle style="opacity:0.2" cx="12.5" cy="12" r="9.5"/>
 <circle style="fill:#b2bfd9" cx="12.5" cy="11.5" r="9.5"/>
 <path style="opacity:0.1" d="M 17.5 7.5 C 16.291667 7.5 15.249734 8.0833111 14.332031 8.8105469 C 13.414329 9.537783 12.580078 10.445313 11.767578 11.320312 C 10.955078 12.195313 10.164329 13.037783 9.4257812 13.623047 C 8.6872336 14.208311 8.0416674 14.5 7.5 14.5 C 6.0357113 14.5 5.5920781 13.995457 5.3007812 13.496094 C 5.0094844 12.99673 5 12.5 5 12.5 L 3 12.5 C 3 12.5 2.9905199 13.503282 3.5742188 14.503906 C 4.1579194 15.504531 5.4642887 16.5 7.5 16.5 C 8.7083325 16.5 9.7502663 15.916689 10.667969 15.189453 C 11.585671 14.462217 12.419922 13.554688 13.232422 12.679688 C 14.044922 11.804687 14.835671 10.962217 15.574219 10.376953 C 16.312766 9.7916891 16.958333 9.5 17.5 9.5 C 18.869046 9.5 19.307112 10.124668 19.646484 10.900391 C 19.985857 11.676113 20 12.5 20 12.5 L 22 12.5 C 22 12.5 22.01413 11.323899 21.478516 10.099609 C 20.942899 8.8753202 19.630954 7.5 17.5 7.5 z M 17.492188 10.492188 A 0.50004875 0.50004875 0 0 0 17 11 L 17 11.5 L 16.5 11.5 A 0.50004875 0.50004875 0 1 0 16.5 12.5 L 17 12.5 L 17 13 A 0.50004875 0.50004875 0 1 0 18 13 L 18 12.5 L 18.5 12.5 A 0.50004875 0.50004875 0 1 0 18.5 11.5 L 18 11.5 L 18 11 A 0.50004875 0.50004875 0 0 0 17.492188 10.492188 z M 6.5 11.5 A 0.50004875 0.50004875 0 1 0 6.5 12.5 L 8.5 12.5 A 0.50004875 0.50004875 0 1 0 8.5 11.5 L 6.5 11.5 z"/>
 <path style="fill:none;stroke:#00797d;stroke-linecap:round;stroke-linejoin:round" d="m 6.5,11.5 h 2"/>
 <path style="fill:none;stroke:#009da2;stroke-linecap:round;stroke-linejoin:round" d="m 17.5,10.5 v 2.0 M 16.5,11.5 h 2"/>
 <path style="fill:none;stroke:#00797d;stroke-width:2" d="m 21.0,12.0 c 0,0 2.2e-5,-4.0000245 -3.499978,-4.0000245 -3.5,0 -6.5,7.0000005 -9.9999997,7.0000005 -3.5,0 -3.499995,-2.999976 -3.499995,-2.999976 v 0 0"/>
 <path style="opacity:0.1" d="M 7.5,7.5 C 5.3690462,7.5 4.057101,8.8753202 3.5214844,10.099609 3.298899,10.608386 3.1864548,11.088815 3.1132812,11.5 H 5.1503906 C 5.2001527,11.306838 5.2651275,11.102424 5.3535156,10.900391 5.692888,10.124668 6.1309538,9.5 7.5,9.5 c 0.5416675,0 1.1872335,0.291689 1.9257812,0.876953 0.7385478,0.585264 1.5292968,1.427734 2.3417968,2.302735 0.8125,0.875 1.646751,1.782529 2.564453,2.509765 C 15.249734,15.916689 16.291667,16.5 17.5,16.5 c 2.035711,0 3.342081,-0.995469 3.925781,-1.996094 C 22.009482,13.503282 22,12.5 22,12.5 h -2 c 0,0 -0.0095,0.49673 -0.300781,0.996094 C 19.407922,13.995457 18.964289,14.5 17.5,14.5 c -0.541667,0 -1.187234,-0.291689 -1.925781,-0.876953 -0.738548,-0.585264 -1.529297,-1.427734 -2.341797,-2.302735 -0.8125,-0.875 -1.646751,-1.782529 -2.564453,-2.5097651 C 9.7502663,8.0833111 8.7083325,7.5 7.5,7.5 Z"/>
 <path style="fill:none;stroke:#009da2;stroke-width:2" d="m 4.0,12.0 c 0,0 -2.2e-5,-4.0000245 3.499978,-4.0000245 3.5,0 6.5,7.0000005 10,7.0000005 3.5,0 3.499995,-2.999976 3.499995,-2.999976 v 0 0"/>
 <path style="opacity:0.2;fill:#8b9cbe" d="M 12.5 2 A 9.5 9.5 0 0 0 3 11.5 A 9.5 9.5 0 0 0 3.0097656 11.792969 A 9.5 9.5 0 0 1 12.5 2.5 A 9.5 9.5 0 0 1 21.990234 11.707031 A 9.5 9.5 0 0 0 22 11.5 A 9.5 9.5 0 0 0 12.5 2 z"/>
</svg>
