<svg xmlns="http://www.w3.org/2000/svg" width="24" height="24" version="1.1">
 <path style="opacity:0.2" d="M 12.032227,7.5 5.5,17.5 c 0,0 4.0603935,-3.952371 6.5,-6.25 2.46559,2.101198 6.5,6.25 6.5,6.25 z M 12,12.5 l -0.857422,1 h 1.714844 z m -1.713867,2 L 9,16 h 3 3 l -1.286133,-1.5 z"/>
 <rect style="opacity:0.2" width="20" height="20" x="2" y="2.5" rx="1" ry="1"/>
 <rect style="fill:#ed2a2d" width="20" height="20" x="2" y="2" rx="1" ry="1"/>
 <path style="opacity:0.2" d="M 12.033203,7.5 5.5,17.5 c 0,0 4.0603935,-3.952371 6.5,-6.25 2.46559,2.101198 6.5,6.25 6.5,6.25 z m -0.0332,5 -0.857422,1 h 1.714844 z m -1.513672,2 -0.7441405,1 h 4.5156245 l -0.74414,-1 z"/>
 <path style="fill:#8b9cbe" d="M 12.033203 7 L 5.5 17 C 5.5 17 9.5603935 13.047629 12 10.75 C 14.46559 12.851198 18.5 17 18.5 17 L 12.033203 7 z M 12 12 L 11.142578 13 L 12.857422 13 L 12 12 z M 10.486328 14 L 9.7421875 15 L 14.257812 15 L 13.513672 14 L 10.486328 14 z"/>
 <path style="opacity:0.2;fill:#8b9cbe" d="M 3,2 C 2.446,2 2,2.446 2,3 v 0.5 c 0,-0.554 0.446,-1 1,-1 h 18 c 0.554,0 1,0.446 1,1 V 3 C 22,2.446 21.554,2 21,2 Z"/>
</svg>
