<svg xmlns="http://www.w3.org/2000/svg" width="24" height="24" version="1">
 <rect style="opacity:0.2" width="20" height="20" x="2" y="2.5" rx="10" ry="10"/>
 <rect style="fill:#9d9d9d" width="20" height="20" x="2" y="2" rx="10" ry="10"/>
 <circle style="fill:#707070" cx="-12" cy="-12" r="8" transform="matrix(0,-1,-1,0,0,0)"/>
 <circle style="fill:#17191e" cx="-12" cy="-12" r="6" transform="matrix(0,-1,-1,0,0,0)"/>
 <circle style="opacity:0.1" cx="-12.5" cy="-12" r="3" transform="matrix(0,-1,-1,0,0,0)"/>
 <circle style="fill:#4f4f4f" cx="-12" cy="-12" r="3" transform="matrix(0,-1,-1,0,0,0)"/>
 <path style="opacity:0.1;fill:#8b9cbe" d="M 12,9 A 3,3 0 0 0 9,12 3,3 0 0 0 9.012695,12.250977 3,3 0 0 1 12,9.5 3,3 0 0 1 14.987305,12.249024 3,3 0 0 0 15,12 3,3 0 0 0 12,9 Z"/>
 <path style="opacity:0.1;fill:#8b9cbe" d="M 12,2 C 6.4601975,2 2,6.4601975 2,12 2,12.08378 2.00383,12.16673 2.00586,12.25 2.1379458,6.8269035 6.543973,2.5 12,2.5 c 5.456027,0 9.862054,4.3269035 9.99414,9.75 C 21.996169,12.16673 22,12.083776 22,12 22,6.4601975 17.539802,2 12,2 Z"/>
 <circle style="opacity:0.2" cx="17.5" cy="18" r="5.5"/>
 <circle style="fill:#be53d1" cx="17.5" cy="17.5" r="5.5"/>
 <path style="fill:#8b9cbe" d="m 16.617738,14 -0.0012,0.0022 h 0.0012 z m 0,0.0022 -0.07747,0.920423 a 2.7742904,2.7495611 0 0 0 -0.811066,0.464769 l -0.845239,-0.395281 -0.882832,1.516191 0.767779,0.527421 a 2.7742904,2.7495611 0 0 0 -0.04328,0.46483 2.7742904,2.7495611 0 0 0 0.041,0.464768 L 14,18.492758 l 0.882832,1.515053 0.842961,-0.393002 a 2.7742904,2.7495611 0 0 0 0.812205,0.461351 L 16.616598,21 h 1.764524 l 0.0786,-0.921562 a 2.7742904,2.7495611 0 0 0 0.809927,-0.464769 l 0.846379,0.394142 0.881692,-1.515053 -0.766639,-0.52856 a 2.7742904,2.7495611 0 0 0 0.04215,-0.463629 2.7742904,2.7495611 0 0 0 -0.04101,-0.465907 l 0.766641,-0.525143 -0.882832,-1.515052 -0.844101,0.393002 a 2.7742904,2.7495611 0 0 0 -0.812205,-0.46135 l -0.07747,-0.923841 h -1.76452 z m 0.881693,2.331876 a 1.1664769,1.1664769 0 0 1 1.166477,1.166477 1.1664769,1.1664769 0 0 1 -1.166477,1.166477 1.1664769,1.1664769 0 0 1 -1.166477,-1.166477 1.1664769,1.1664769 0 0 1 1.166477,-1.166477 z"/>
</svg>
