<svg xmlns="http://www.w3.org/2000/svg" width="24" height="24" version="1">
 <rect style="opacity:0.2" width="21" height="20" x="1" y="2.5" rx="1" ry="1"/>
 <rect style="fill:#1f4690" width="21" height="20" x="1" y="2" rx="1" ry="1"/>
 <rect style="opacity:0.2" width="17" height="16" x="3" y="4.5" rx="1" ry="1"/>
 <rect style="fill:#378137" width="17" height="16" x="3" y="4" rx="1" ry="1"/>
 <rect style="opacity:0.2" width="13" height="12" x="5" y="6.5" rx="1" ry="1"/>
 <rect style="fill:#e35c33" width="13" height="12" x="5" y="6" rx="1" ry="1"/>
 <path style="opacity:0.2" d="M 7.75,8.5 C 7.3345,8.5 7,8.8345 7,9.25 v 5.5 c 0,0.415499 0.3345,0.75 0.75,0.75 H 9 l 1,1 h 3 l 1,-1 h 1.25 C 15.6655,15.5 16,15.165499 16,14.75 V 9.25 C 16,8.8345 15.6655,8.5 15.25,8.5 Z m 1.25,2 h 5 v 3 h -0.828125 l -1,1 h -1.34375 l -1,-1 H 9 Z"/>
 <path style="fill:#fef600" d="M 7.75 8 C 7.3345 8 7 8.3345 7 8.75 L 7 14.25 C 7 14.665499 7.3345 15 7.75 15 L 9 15 L 10 16 L 13 16 L 14 15 L 15.25 15 C 15.6655 15 16 14.665499 16 14.25 L 16 8.75 C 16 8.3345 15.6655 8 15.25 8 L 7.75 8 z M 9 10 L 14 10 L 14 13 L 13.171875 13 L 12.171875 14 L 10.828125 14 L 9.828125 13 L 9 13 L 9 10 z"/>
 <path style="opacity:0.1;fill:#8b9cbe" d="M 2,2 C 1.446,2 1,2.446 1,3 v 0.5 c 0,-0.554 0.446,-1 1,-1 h 19 c 0.554,0 1,0.446 1,1 V 3 C 22,2.446 21.554,2 21,2 Z"/>
 <path style="opacity:0.1;fill:#8b9cbe" d="M 4,4 C 3.446,4 3,4.446 3,5 v 0.5 c 0,-0.554 0.446,-1 1,-1 h 15 c 0.554,0 1,0.446 1,1 V 5 C 20,4.446 19.554,4 19,4 Z"/>
 <path style="opacity:0.1;fill:#8b9cbe" d="M 6,6 C 5.446,6 5,6.446 5,7 v 0.5 c 0,-0.554 0.446,-1 1,-1 h 11 c 0.554,0 1,0.446 1,1 V 7 C 18,6.446 17.554,6 17,6 Z"/>
 <path style="fill:#8b9cbe;opacity:0.2" d="M 7.75 8 C 7.3345 8 7 8.3345 7 8.75 L 7 9.25 C 7 8.8345 7.3345 8.5 7.75 8.5 L 15.25 8.5 C 15.6655 8.5 16 8.8345 16 9.25 L 16 8.75 C 16 8.3345 15.6655 8 15.25 8 L 7.75 8 z M 9 13 L 9 13.5 L 9.828125 13.5 L 10.828125 14.5 L 12.171875 14.5 L 13.171875 13.5 L 14 13.5 L 14 13 L 13.171875 13 L 12.171875 14 L 10.828125 14 L 9.828125 13 L 9 13 z"/>
</svg>
