<svg width="24" height="24" version="1.1" xmlns="http://www.w3.org/2000/svg">
 <rect x="2" y="2.5" width="20" height="20" ry="4.5" style="opacity:.2"/>
 <rect x="2" y="2" width="20" height="20" ry="4.5" style="fill:#e0b833"/>
 <path d="m6.5 2c-2.493 0-4.5 2.007-4.5 4.5v0.5c0-2.493 2.007-4.5 4.5-4.5h11c2.493 0 4.5 2.007 4.5 4.5v-0.5c0-2.493-2.007-4.5-4.5-4.5z" style="fill:#8b9cbe;opacity:.2"/>
 <path d="m10.101562 2c-0.313076 0.695644-0.6595661 1.6693254-0.6816401 2.6523438-0.02412 1.0741392 0.46875 2.4453135 0.46875 2.4453124l1.7597661-0.3242187s-0.57988-0.8111535-0.609376-2.2285156c-0.0188-0.903422 0.304138-1.8493097 0.603516-2.5449219zm11.875 4.0683594c-0.886699 0.053735-2.215771 0.1615375-3.029296 0.3828125-2.360488 0.6420405-5.355469 1.4097656-5.355469 1.4097656l1.222656 1.078125s2.336792-0.7602473 4.277344-1.1382813c0.861943-0.1679124 2.081123-0.2396243 2.908203-0.2792968v-1.0214844c0-0.146247-0.01-0.2890456-0.02344-0.4316406zm-19.976562 0.5655312v1.3241094c0 0.5268107 1.3990931 0.587156 2.3867188 0.751668 0.9399772 0.156575 2.8398437 0.3242187 2.8398437 0.3242187l0.3242187-1.2949218s-1.7598646 0.025808-2.625-0.109375c-1.1522607-0.180051-2.2311541-0.7815478-2.9257812-0.9956993zm6.0332031 4.0438434c-2.365451 0.0028-3.8886719 1.576172-3.8886719 1.576172l1.3554688 1.246094s0.6791035-1.049875 2.5-1c2.416504 0.06619 2 2 2 2s-6 0-6 3c0 1.53659 0.5 3 3 3 2 0 3-1 3-1v1h2v-5.5s0.51301-4.327552-3.9667969-4.322266zm5.7734379-0.011922-1.306641 1.234375s1.580232 0.272939 5.296875 4.295125c1.593138 1.724109 2.561536 3.117549 3.152344 4.197266 0.555586-0.662274 0.922289-1.48771 1.021484-2.396484-0.82099-1.156453-1.970868-2.492984-3.597656-3.958985-2.388983-2.152863-4.566406-3.371297-4.566406-3.371297zm-4.431641 5.789266c0.375 0.017479 0.625 0.044922 0.625 0.044922v1c0 0.5-0.5 1-2 1-1 0-2-0.166667-2-1 0-1.067797 2.25-1.097358 3.375-1.044922z" style="opacity:.2"/>
 <path d="m9.894531 2c-0.241764 0.6302228-0.457423 1.387964-0.474609 2.1533203-0.02412 1.0741392 0.4677735 2.4443357 0.4677735 2.4443357l1.7617185-0.323242s-0.581832-0.81213-0.611328-2.2294921c-0.014446-0.6941987 0.178276-1.4248209 0.40332-2.0449219zm12.009766 3.5722655c-0.888053 0.055811-2.164623 0.163641-2.956055 0.3789065-2.360488 0.6420405-5.357421 1.2097655-5.357421 1.2097655l1.222656 1.078125s2.337768-0.5592715 4.27832-0.9373045c0.861943-0.1679125 2.081123-0.2412895 2.908203-0.28125v-0.520508c0-0.318335-0.03342-0.628415-0.095703-0.9277345zm-19.904297 0.9613477v1.3251955c0.5856846 0.124254 1.3990931 0.186847 2.3867187 0.351359 0.9399773 0.156575 2.8398438 0.324219 2.8398438 0.324219l0.3242185-1.294922s-1.7598645 0.027765-2.6249998-0.107422c-1.1522608-0.180051-2.2311541-0.383993-2.9257812-0.5984295zm11.806641 3.5321998-1.306641 1.234375s1.581208 0.371961 5.297851 4.394148c1.745796 1.889316 2.736602 3.380816 3.306641 4.49707 0.553704-0.741672 0.886097-1.658213 0.893555-2.657227-0.822515-1.16466-1.981175-2.515715-3.625-3.997069-2.388983-2.152863-4.566406-3.471297-4.566406-3.471297zm-5.7724615 0.112052c-2.365451 0.0028-3.8896483 1.576085-3.8896483 1.576085l1.3554688 1.246097s0.6791035-1.049789 2.5-0.999914c2.416504 0.06619 2 1.999867 2 1.999867s-6 0-6 3c0 1.53659 0.5 3 3 3 2 0 3-1 3-1v1h2v-5.5s0.513986-4.327418-3.9658205-4.322132zm1.9658205 5.822135v1c0 0.5-0.5 1-2 1-1 0-2-0.166667-2-1 0-1.423729 4-1 4-1z" style="fill:#8b9cbe"/>
</svg>
