<svg xmlns="http://www.w3.org/2000/svg" width="24" height="24" version="1">
 <rect style="fill:#7c30b0" width="20" height="20" x="2" y="2" rx="10" ry="10"/>
 <path style="opacity:0.2;fill:#8b9cbe" d="M 12,2 C 6.46,2 2,6.46 2,12 2,12.084 2.004,12.166 2.0058,12.25 2.1382,6.827 6.544,2.5 12,2.5 c 5.4558,0 9.862,4.327 9.994,9.75 0.002,-0.08343 0.0059,-0.16606 0.0059,-0.25 0,-5.54 -4.46,-10 -10,-10 z"/>
 <path style="opacity:0.2" d="M 2.0058,12.25 C 2.0038,12.334 2,12.416 2,12.5 c 0,5.54 4.46,10 10,10 5.54,0 10,-4.46 10,-10 0,-0.084 -0.004,-0.1665 -0.006,-0.25 C 21.862,17.673 17.456,22 12,22 6.544,22 2.138,17.673 2.006,12.25 Z"/>
 <path style="opacity:0.2" d="M 12.25,4.25 12.095703,4.578125 11.75,4.6308594 12,4.8886719 11.941406,5.25 12.25,5.078125 12.558594,5.25 12.5,4.8886719 12.75,4.6308594 12.404297,4.578125 Z M 9.8515625,6.5 C 9.7147382,6.4957 9.5856371,6.5093856 9.5,6.5410156 9.0798895,6.6989296 8.815807,7.0400419 8.6699219,7.6074219 8.5438902,8.1019189 8.5480821,8.990728 8.6796875,9.765625 c 0.023086,0.134632 0.047187,0.257604 0.052734,0.277344 0.00692,0.02784 -0.037814,0.04415 -0.2363281,0.09375 -0.9704096,0.242946 -1.679818,0.605464 -2.1054688,1.076172 -0.1911277,0.209541 -0.2960219,0.393695 -0.3574219,0.625 -0.043394,0.160445 -0.043394,0.478296 0,0.636718 0.1191077,0.435278 0.4543893,0.84319 0.984375,1.205079 0.3679431,0.249017 0.4765946,0.277067 0.5957031,0.146484 0.055864,-0.06124 0.070313,-0.09067 0.070313,-0.164063 0,-0.142224 -0.039769,-0.199774 -0.2128907,-0.308593 C 6.3853408,12.68339 6.1931621,12.011305 6.9179688,11.414062 7.2859109,11.111391 7.7996986,10.873252 8.4921875,10.6875 8.795498,10.60652 8.8632812,10.59709 8.8632812,10.64063 c 0,0.05922 0.2244293,0.84159 0.3398438,1.179687 l 0.1191406,0.353516 -0.1582031,0.332031 c -0.6273957,1.328611 -1.0296508,2.683316 -1.078125,3.673829 -0.039701,0.763255 0.087992,1.308384 0.3945313,1.646484 0.3351645,0.367962 0.8065187,0.447965 1.4140624,0.234375 0.2289838,-0.08098 0.6842258,-0.335303 0.9492188,-0.533203 0.191128,-0.1402 0.232424,-0.180517 0.257812,-0.253906 0.02539,-0.07339 0.02539,-0.09689 0,-0.173829 -0.03786,-0.114893 -0.11658,-0.179687 -0.224609,-0.179687 -0.07017,0 -0.118319,0.02552 -0.298828,0.160156 -0.409493,0.304695 -0.7942742,0.493517 -1.1132812,0.552734 -0.4418083,0.08301 -0.7237889,-0.13058 -0.8535157,-0.636718 -0.055864,-0.219663 -0.053622,-0.923197 0.00781,-1.28711 0.093717,-0.579021 0.2576643,-1.179828 0.4921875,-1.8125 0.1389593,-0.375554 0.4053973,-1.005372 0.4414063,-1.046875 0.018009,-0.02177 0.040058,0.01373 0.099609,0.164063 0.3033105,0.747058 0.7663241,1.659042 1.2187501,2.396484 1.080285,1.758322 2.262973,2.902419 3.173828,3.066406 l -0.0098,0.002 c 0.400259,0.07086 0.738701,-0.03775 1,-0.324219 0.212826,-0.237379 0.354188,-0.570522 0.433594,-1.035156 0.04847,-0.290523 0.04847,-1.104636 0,-1.501953 -0.14773,-1.184365 -0.541319,-2.542133 -1.130859,-3.894532 -0.09187,-0.211566 -0.144564,-0.263672 -0.263672,-0.263672 -0.133419,-0.002 -0.240235,0.111682 -0.240235,0.253907 0,0.0496 0.04343,0.183239 0.119141,0.359375 0.726653,1.698091 1.117827,3.340887 1.078125,4.529296 -0.02447,0.708087 -0.187491,1.134841 -0.492188,1.298829 -0.160193,0.08655 -0.362066,0.08343 -0.628906,-0.01172 -1.224783,-0.454511 -2.88392,-2.728861 -3.9531247,-5.417969 L 9.8515625,12.203125 10.005859,11.914062 c 0.174969,-0.330002 0.616721,-1.068423 0.820313,-1.371093 l 0.136719,-0.201172 h 0.361328 c 2.191498,0 4.361261,0.542404 5.511719,1.375 0.234522,0.170062 0.516617,0.480405 0.601562,0.662109 0.0614,0.126534 0.06641,0.160087 0.06641,0.328125 0,0.164495 -0.0043,0.203967 -0.05469,0.304688 -0.140806,0.296597 -0.512418,0.604553 -0.990235,0.824219 -0.221597,0.102743 -0.28125,0.170345 -0.28125,0.310546 0,0.118436 0.0696,0.218478 0.175782,0.253907 0.06879,0.02177 0.094,0.01798 0.216796,-0.03516 0.771896,-0.334557 1.300176,-0.854982 1.408204,-1.380859 0.03047,-0.142224 0.02851,-0.4087 -0.002,-0.546875 -0.05771,-0.271268 -0.26363,-0.620187 -0.5,-0.853516 -1.05305,-1.036065 -3.286647,-1.7040961 -5.9375,-1.7734371 l -0.189453,-0.00586 0.220703,-0.2714844 c 0.119109,-0.152348 0.330678,-0.4063956 0.476563,-0.5683593 0.753889,-0.8401883 1.455169,-1.3898607 2.066406,-1.6191407 0.194821,-0.07491 0.235294,-0.082031 0.4375,-0.082031 0.187896,0 0.231248,0.00528 0.3125,0.050781 0.110337,0.05719 0.23558,0.1974702 0.298828,0.3300781 0.124186,0.270783 0.165022,0.7458152 0.105469,1.2519532 -0.01986,0.174111 -0.03516,0.3759715 -0.03516,0.4453125 0,0.116918 0.003,0.1342122 0.06445,0.1914062 0.05032,0.05163 0.08334,0.064453 0.148437,0.064453 0.104799,0 0.203336,-0.061523 0.232422,-0.1445312 0.08633,-0.244971 0.13008,-1.1125776 0.07422,-1.4785156 -0.0868,-0.561812 -0.306312,-0.941272 -0.65625,-1.125 -0.618625,-0.327977 -1.516486,-0.00706 -2.564453,0.9140625 -0.54799,0.482349 -1.26991,1.300012 -1.767578,2 l -0.04687,0.064453 -0.294922,0.017578 c -0.246988,0.01569 -0.6480343,0.057898 -1.1152344,0.1191407 L 9.2050781,9.9804688 9.1601562,9.7089844 c -0.084489,-0.539542 -0.089844,-0.6204588 -0.089844,-1.1367188 0,-0.452993 0.00519,-0.5409532 0.044922,-0.7226562 0.09741,-0.458561 0.2885939,-0.7435164 0.5429687,-0.8027344 0.3499381,-0.08098 0.7851411,0.1114079 1.3945311,0.6074219 0.194821,0.160446 0.431428,0.024547 0.402344,-0.2285157 C 11.442608,7.3154433 11.351251,7.2194435 11.041016,6.9921875 10.781101,6.8003615 10.488216,6.6413851 10.25,6.5644531 10.132739,6.5259831 9.9883868,6.50424 9.8515625,6.5 Z M 6.75,7.25 6.5957031,7.578125 6.25,7.6308594 6.5,7.8886719 6.4414062,8.25 6.75,8.078125 7.0585938,8.25 7,7.8886719 7.25,7.6308594 6.9042969,7.578125 Z M 18.25,8.75 18.095703,9.078125 17.75,9.1308594 18,9.3886719 17.941406,9.75 18.25,9.578125 18.558594,9.75 18.5,9.3886719 18.75,9.1308594 18.404297,9.078125 Z m -7.933594,1.642578 c 0,0.01012 -0.0826,0.150393 -0.185547,0.316406 -0.102951,0.163988 -0.2485062,0.404359 -0.3242184,0.541016 -0.073864,0.132608 -0.1458449,0.253769 -0.1601562,0.271484 -0.019855,0.02328 -0.04854,-0.03942 -0.1367188,-0.347656 C 9.383733,10.748672 9.3295447,10.519741 9.3457031,10.5 9.3724811,10.47014 10.316406,10.362716 10.316406,10.392578 Z m 1.94336,1.587891 c -0.41952,0 -0.759766,0.340683 -0.759766,0.759765 0,0.419082 0.340246,0.759766 0.759766,0.759766 0.41952,0 0.759765,-0.340684 0.759765,-0.759766 0,-0.419082 -0.340245,-0.759765 -0.759765,-0.759765 z M 5.375,15 5.1816406,15.412109 4.75,15.478516 5.0625,15.798828 4.9882812,16.25 5.375,16.037109 5.7617188,16.25 5.6875,15.798828 6,15.478516 5.5683594,15.412109 Z M 18.25,15.25 17.941406,15.908203 17.25,16.013672 17.75,16.525391 17.632812,17.25 18.25,16.908203 18.869141,17.25 18.75,16.525391 l 0.5,-0.511719 -0.691406,-0.105469 z m -6.5,3.5 -0.154297,0.328125 L 11.25,19.130859 11.5,19.388672 11.441406,19.75 11.75,19.578125 12.058594,19.75 12,19.388672 l 0.25,-0.257813 -0.345703,-0.05273 z"/>
 <path style="fill:#f9f9f9" d="M 12.25 3.75 L 12.095703 4.078125 L 11.75 4.1308594 L 12 4.3886719 L 11.941406 4.75 L 12.25 4.578125 L 12.558594 4.75 L 12.5 4.3886719 L 12.75 4.1308594 L 12.404297 4.078125 L 12.25 3.75 z M 9.8515625 6 C 9.7147382 5.9957 9.5856371 6.0093856 9.5 6.0410156 C 9.0798895 6.1989296 8.815807 6.5400419 8.6699219 7.1074219 C 8.5438902 7.6019189 8.5480821 8.490728 8.6796875 9.265625 C 8.7027735 9.400257 8.7268749 9.5232287 8.7324219 9.5429688 C 8.7393419 9.5708087 8.6946079 9.5871186 8.4960938 9.6367188 C 7.5256842 9.8796645 6.8162758 10.242183 6.390625 10.712891 C 6.1994973 10.922432 6.0946031 11.106586 6.0332031 11.337891 C 5.9898091 11.498336 5.9898091 11.816187 6.0332031 11.974609 C 6.1523108 12.409887 6.4875924 12.817799 7.0175781 13.179688 C 7.3855212 13.428705 7.4941727 13.456755 7.6132812 13.326172 C 7.6691452 13.264932 7.6835938 13.235499 7.6835938 13.162109 C 7.6835938 13.019885 7.643825 12.962335 7.4707031 12.853516 C 6.3853408 12.18339 6.1931621 11.511305 6.9179688 10.914062 C 7.2859109 10.611391 7.7996986 10.373252 8.4921875 10.1875 C 8.795498 10.10652 8.8632812 10.097095 8.8632812 10.140625 C 8.8632812 10.199845 9.0877105 10.982215 9.203125 11.320312 L 9.3222656 11.673828 L 9.1640625 12.005859 C 8.5366668 13.33447 8.1344117 14.689175 8.0859375 15.679688 C 8.0462365 16.442943 8.1739297 16.988072 8.4804688 17.326172 C 8.8156333 17.694134 9.2869875 17.774137 9.8945312 17.560547 C 10.123515 17.479567 10.578757 17.225244 10.84375 17.027344 C 11.034878 16.887144 11.076174 16.846827 11.101562 16.773438 C 11.126952 16.700048 11.126953 16.676544 11.101562 16.599609 C 11.063702 16.484716 10.984982 16.419922 10.876953 16.419922 C 10.806783 16.419922 10.758634 16.445442 10.578125 16.580078 C 10.168632 16.884773 9.7838508 17.073595 9.4648438 17.132812 C 9.0230355 17.215823 8.7410549 17.002232 8.6113281 16.496094 C 8.5554641 16.276431 8.5577066 15.572897 8.6191406 15.208984 C 8.7128576 14.629963 8.8768049 14.029156 9.1113281 13.396484 C 9.2502874 13.02093 9.5167254 12.391112 9.5527344 12.349609 C 9.5707434 12.327839 9.5927929 12.363343 9.6523438 12.513672 C 9.9556543 13.26073 10.418668 14.172714 10.871094 14.910156 C 11.951379 16.668478 13.134067 17.812575 14.044922 17.976562 L 14.035156 17.978516 C 14.435415 18.049376 14.773857 17.940771 15.035156 17.654297 C 15.247982 17.416918 15.389344 17.083775 15.46875 16.619141 C 15.51722 16.328618 15.51722 15.514505 15.46875 15.117188 C 15.32102 13.932823 14.927431 12.575055 14.337891 11.222656 C 14.246021 11.01109 14.193327 10.958984 14.074219 10.958984 C 13.9408 10.956984 13.833984 11.070666 13.833984 11.212891 C 13.833984 11.262491 13.877409 11.39613 13.953125 11.572266 C 14.679778 13.270357 15.070952 14.913153 15.03125 16.101562 C 15.00678 16.809649 14.843759 17.236403 14.539062 17.400391 C 14.378869 17.486941 14.176996 17.483822 13.910156 17.388672 C 12.685373 16.934161 11.026236 14.659811 9.9570312 11.970703 L 9.8515625 11.703125 L 10.005859 11.414062 C 10.180828 11.08406 10.62258 10.345639 10.826172 10.042969 L 10.962891 9.8417969 L 11.324219 9.8417969 C 13.515717 9.8417969 15.68548 10.384201 16.835938 11.216797 C 17.07046 11.386859 17.352555 11.697202 17.4375 11.878906 C 17.4989 12.00544 17.503906 12.038993 17.503906 12.207031 C 17.503906 12.371526 17.499619 12.410998 17.449219 12.511719 C 17.308413 12.808316 16.936801 13.116272 16.458984 13.335938 C 16.237387 13.438681 16.177734 13.506283 16.177734 13.646484 C 16.177734 13.76492 16.247337 13.864962 16.353516 13.900391 C 16.422306 13.922161 16.447512 13.918374 16.570312 13.865234 C 17.342208 13.530677 17.870488 13.010252 17.978516 12.484375 C 18.008986 12.342151 18.007023 12.075675 17.976562 11.9375 C 17.918852 11.666232 17.712932 11.317313 17.476562 11.083984 C 16.423512 10.047919 14.189915 9.3798879 11.539062 9.3105469 L 11.349609 9.3046875 L 11.570312 9.0332031 C 11.689421 8.8808551 11.90099 8.6268075 12.046875 8.4648438 C 12.800764 7.6246555 13.502044 7.0749831 14.113281 6.8457031 C 14.308102 6.7707931 14.348575 6.7636719 14.550781 6.7636719 C 14.738677 6.7636719 14.782029 6.7689531 14.863281 6.8144531 C 14.973618 6.8716431 15.098861 7.0119233 15.162109 7.1445312 C 15.286295 7.4153142 15.327131 7.8903464 15.267578 8.3964844 C 15.247718 8.5705954 15.232422 8.7724559 15.232422 8.8417969 C 15.232422 8.9587149 15.235455 8.9760091 15.296875 9.0332031 C 15.347195 9.0848331 15.380215 9.0976562 15.445312 9.0976562 C 15.550111 9.0976562 15.648648 9.036133 15.677734 8.953125 C 15.764064 8.708154 15.807814 7.8405474 15.751953 7.4746094 C 15.665153 6.9127974 15.445641 6.5333374 15.095703 6.3496094 C 14.477078 6.0216324 13.579217 6.3425519 12.53125 7.2636719 C 11.98326 7.7460209 11.26134 8.5636839 10.763672 9.2636719 L 10.716797 9.328125 L 10.421875 9.3457031 C 10.174887 9.3613931 9.7738407 9.4036006 9.3066406 9.4648438 L 9.2050781 9.4804688 L 9.1601562 9.2089844 C 9.0756673 8.6694424 9.0703125 8.5885256 9.0703125 8.0722656 C 9.0703125 7.6192726 9.0755014 7.5313124 9.1152344 7.3496094 C 9.2126444 6.8910484 9.4038283 6.606093 9.6582031 6.546875 C 10.008141 6.465895 10.443344 6.6582829 11.052734 7.1542969 C 11.247555 7.3147429 11.484162 7.1788443 11.455078 6.9257812 C 11.442608 6.8154433 11.351251 6.7194435 11.041016 6.4921875 C 10.781101 6.3003615 10.488216 6.1413851 10.25 6.0644531 C 10.132739 6.0259831 9.9883868 6.00424 9.8515625 6 z M 6.75 6.75 L 6.5957031 7.078125 L 6.25 7.1308594 L 6.5 7.3886719 L 6.4414062 7.75 L 6.75 7.578125 L 7.0585938 7.75 L 7 7.3886719 L 7.25 7.1308594 L 6.9042969 7.078125 L 6.75 6.75 z M 18.25 8.25 L 18.095703 8.578125 L 17.75 8.6308594 L 18 8.8886719 L 17.941406 9.25 L 18.25 9.078125 L 18.558594 9.25 L 18.5 8.8886719 L 18.75 8.6308594 L 18.404297 8.578125 L 18.25 8.25 z M 10.316406 9.8925781 C 10.316406 9.9026981 10.233805 10.042971 10.130859 10.208984 C 10.027908 10.372972 9.8823528 10.613343 9.8066406 10.75 C 9.7327766 10.882608 9.6607957 11.003769 9.6464844 11.021484 C 9.6266294 11.044764 9.5979445 10.982067 9.5097656 10.673828 C 9.383733 10.248672 9.3295447 10.019741 9.3457031 10 C 9.3724811 9.97014 10.316406 9.8627161 10.316406 9.8925781 z M 12.259766 11.480469 C 11.840246 11.480469 11.5 11.821152 11.5 12.240234 C 11.5 12.659316 11.840246 13 12.259766 13 C 12.679286 13 13.019531 12.659316 13.019531 12.240234 C 13.019531 11.821152 12.679286 11.480469 12.259766 11.480469 z M 5.375 14.5 L 5.1816406 14.912109 L 4.75 14.978516 L 5.0625 15.298828 L 4.9882812 15.75 L 5.375 15.537109 L 5.7617188 15.75 L 5.6875 15.298828 L 6 14.978516 L 5.5683594 14.912109 L 5.375 14.5 z M 18.25 14.75 L 17.941406 15.408203 L 17.25 15.513672 L 17.75 16.025391 L 17.632812 16.75 L 18.25 16.408203 L 18.869141 16.75 L 18.75 16.025391 L 19.25 15.513672 L 18.558594 15.408203 L 18.25 14.75 z M 11.75 18.25 L 11.595703 18.578125 L 11.25 18.630859 L 11.5 18.888672 L 11.441406 19.25 L 11.75 19.078125 L 12.058594 19.25 L 12 18.888672 L 12.25 18.630859 L 11.904297 18.578125 L 11.75 18.25 z"/>
</svg>
