<svg xmlns="http://www.w3.org/2000/svg" width="24" height="24" version="1.1">
 <rect style="opacity:0.2" width="17" height="17" x="4" y="3.5" rx=".85" ry=".85"/>
 <rect style="fill:#f44336" width="17" height="17" x="4" y="3" rx=".85" ry=".85"/>
 <path style="opacity:0.2" d="M 6.4472656,5.5 1.5,18.5 H 4.9628906 L 5.8125,16.5 h 5.384766 L 12,18.412109 V 18.5 H 12.037109 15.5 23 v -3 H 16.832031 L 23,7.5292969 V 5.5 H 12 v 3 h 6.171875 L 13.828125,14.109375 10.552734,5.5 Z M 8.5039062,8.546875 10.330078,13.5 H 6.6699219 Z"/>
 <path style="fill:#8b9cbe" d="M 11.197125,16 H 5.811821 L 4.9619808,18 H 1.5 L 6.446965,5 h 4.10607 L 15.5,18 H 12.038019 Z M 6.670607,13 h 3.658786 L 8.5044735,8.047555 Z"/>
 <path style="fill:#8b9cbe" d="M 12,5 H 23 V 7.028801 L 16.833,15 H 23 v 3 H 12 V 15.971198 L 18.172,8 H 12 Z"/>
 <path style="fill:#8b9cbe;opacity:0.2" d="M 4.8496094 3 C 4.3787094 3 4 3.3787094 4 3.8496094 L 4 4.3496094 C 4 3.8787094 4.3787094 3.5 4.8496094 3.5 L 20.150391 3.5 C 20.621291 3.5 21 3.8787094 21 4.3496094 L 21 3.8496094 C 21 3.3787094 20.621291 3 20.150391 3 L 4.8496094 3 z"/>
</svg>
