<svg xmlns="http://www.w3.org/2000/svg" width="24" height="24" version="1">
 <rect style="opacity:0.2" width="20" height="20" x="-22.5" y="-22" rx="1" ry="1" transform="matrix(0,-1,-1,0,0,0)"/>
 <rect style="fill:#4f4f4f" width="20" height="20" x="-22" y="-22" rx="1" ry="1" transform="matrix(0,-1,-1,0,0,0)"/>
 <path style="opacity:0.1;fill:#8b9cbe" d="M 3,2 C 2.446,2 2,2.446 2,3 v 0.5 c 0,-0.554 0.446,-1 1,-1 h 18 c 0.554,0 1,0.446 1,1 V 3 C 22,2.446 21.554,2 21,2 Z"/>
 <path style="opacity:0.2" d="m 15.073183,6.0002645 c -0.159238,0 -0.339432,0.1059545 -0.459961,0.270508 -0.06899,0.094188 -0.07824,0.1690265 -0.09473,0.776367 l -0.01855,0.471826 -0.555664,0.00976 -0.304628,0.010745 C 13.5,7.5002645 13.248084,7.14936 13.086914,7.0354225 12.890897,6.821986 12.679592,6.5765005 12.618164,6.490501 12.348491,6.1129445 11.998248,6.025176 11.718138,6.2815165 c -0.190845,0.174652 -0.219483,0.095146 -0.219727,0.730615 -1.47e-4,0.390391 -0.01218,0.531194 -0.0459,0.5410155 -0.02507,0.0073 -0.200313,0.041485 -0.389649,0.076172 -0.189335,0.03469 -0.45256,0.094134 -0.523801,0.1328125 -0.07124,0.038675 -0.155622,0.071289 -0.1875,0.071289 -0.03188,0 -0.1886,0.038965 -0.347657,0.086914 -0.159059,0.04795 -0.4064935,0.09816 -0.550781,0.112305 -0.1442875,0.014145 -0.3537745,0.058112 -0.464844,0.097656 -0.111069,0.039545 -0.234264,0.072266 -0.273437,0.072266 -0.144163,0 -0.9409345,0.2905365 -1.1708985,0.4267575 C 7.177367,8.8464645 7.0366225,8.958917 6.480467,9.4808815 6.2996055,9.650624 5.9696915,10.043039 5.8310525,10.253342 c -0.067001,0.101636 -0.15176,0.218133 -0.1875,0.258788 -0.03574,0.04065 -0.1452995,0.232673 -0.2441405,0.425782 -0.217706,0.425347 -0.4331504,1.252779 -0.395508,1.521483 0.012295,0.08777 0.037665,0.726265 0.055664,1.112484 0.031785,0.681991 0.03677,0.71514 0.180664,1.148437 0.081488,0.245381 0.18,0.520735 0.21875,0.612305 0.079656,0.188236 0.3752945,0.471308 0.616211,0.589844 0.085286,0.04195 0.1552735,0.09458 0.1552735,0.11621 0,0.02163 -0.04056,0.126771 -0.090821,0.234375 -0.1960101,0.272503 -0.2273093,0.596787 -0.34668,0.892081 -7.15e-5,0.05265 -0.04122,0.195419 -0.090821,0.317383 -0.166226,0.408757 -0.085351,0.816817 0.2001955,1.010742 0.1048795,0.07123 0.163819,0.08396 0.3291015,0.07227 0.2520315,-0.01783 0.4094625,-0.128359 0.5117185,-0.359375 0.04103,-0.09269 0.1063235,-0.230493 0.145508,-0.305665 0.039185,-0.07517 0.071289,-0.158784 0.071289,-0.185546 0,-0.02675 0.035155,-0.113022 0.077149,-0.192383 0.1384485,-0.261662 0.3314605,-0.485476 0.356445,-0.749827 0.017625,-0.186384 0.054044,-0.260641 0.12793,-0.388348 0.117942,-0.203862 0.1381075,-0.20571 0.5703125,-0.05859 0.130436,0.0444 0.357038,0.08739 0.382121,0.09473 0.035045,0.01025 0.045745,-0.202961 0.0459,0.571768 1.07e-4,0.588092 0.015815,1.066218 0.038085,1.147461 0.04634,0.169023 0.24794,0.381482 0.4091795,0.431641 0.211673,0.06585 0.3285655,0.01945 0.5890115,-0.115234 C 9.722549,18.370078 9.828018,18.28505 9.9057,18.172954 l 0.110352,-0.160156 0.01172,-0.966797 c 0.0062,-0.531897 0.02228,-0.529504 0.03613,-0.543448 0.01388,-0.01393 0.970989,-0.02857 2.004454,-0.0332 l 1.878906,-0.0088 0.04395,0.08984 c 0.211512,0.34783 0.371674,0.712465 0.509762,1.099112 0.156302,0.477372 0.267373,0.677317 0.442383,0.792969 0.353442,0.233569 0.811574,0.09584 0.954102,-0.287109 0.12372,-0.523235 -0.06936,-0.865258 -0.253912,-1.307445 -0.131112,-0.280325 -0.175144,-0.448894 -0.100585,-0.448894 0.06387,0 0.260803,-0.102709 0.730468,-0.380859 0.195481,-0.11577 0.371742,-0.210938 0.391602,-0.210938 0.0471,0 0.06788,0.09553 0.108398,0.499024 0.114487,0.427841 0.205602,0.602345 0.356311,1.069561 0.13091,0.507653 0.194121,0.518576 0.387829,0.633559 0.321561,0.190875 0.655758,0.156954 0.875,-0.08887 0.07126,-0.0799 0.139653,-0.201007 0.152344,-0.269531 0.0322,-0.173846 -0.04005,-0.289746 -0.144532,-0.729816 -0.105659,-0.445008 -0.20057,-1.18484 -0.207032,-1.673504 -0.0043,-0.329414 0.0027,-0.366181 0.08887,-0.480469 0.05126,-0.06807 0.126015,-0.201375 0.166016,-0.295898 0.04,-0.09452 0.141642,-0.282354 0.225586,-0.416993 0.08394,-0.134638 0.191625,-0.356457 0.239258,-0.493164 0.08013,-0.229982 0.0862,-0.355044 0.08691,-1.050129 6e-4,-0.673595 -0.0086,-0.793774 -0.0918,-1.164062 -0.05103,-0.227128 -0.126824,-0.496014 -0.167954,-0.597651 -0.04113,-0.101637 -0.09914,-0.274484 -0.128906,-0.384765 -0.162984,-0.603722 -1.055038,-1.643315 -1.685607,-2.0770015 -0.241074,-0.165802 -0.473632,-0.434233 -0.473632,-0.546875 0,-0.1517305 -0.08789,-0.324369 -0.274414,-0.537109 C 15.949101,6.9428395 15.804818,6.9079645 15.743104,6.69753 15.606139,6.230505 15.384599,6.0002645 15.073183,6.0002645 Z m 1.64752,3 c 0.521328,9e-4 0.854812,0.396382 0.764648,0.9345705 -0.03048,0.181914 -0.258573,0.48416 -0.392578,0.520506 -0.178963,0.04854 -0.29042,0.057 -0.407226,0.02929 -0.353176,-0.08376 -0.631349,-0.355774 -0.676758,-0.6611315 -0.06162,-0.4143755 0.208219,-0.779961 0.604492,-0.818359 0.03635,-0.0035 0.07267,-0.00495 0.107422,-0.0049 z m -2.949218,1.4999985 c 0.405165,0.0039 0.776548,0.316632 0.723632,0.763672 -0.05426,0.458401 -0.30871,0.718243 -0.71875,0.735352 -0.127307,0.0053 -0.279739,-0.0063 -0.339843,-0.02539 -0.142653,-0.04527 -0.321414,-0.214468 -0.386719,-0.367188 -0.06638,-0.155224 -0.0669,-0.506206 -10e-4,-0.664062 0.02802,-0.06715 0.111591,-0.175263 0.185547,-0.240235 0.161625,-0.141972 0.352969,-0.203913 0.537133,-0.202149 z"/>
 <path style="fill:#8b9cbe" d="m 15.073183,5.5 c -0.159238,0 -0.339432,0.1059545 -0.459961,0.270508 -0.06899,0.094188 -0.07824,0.1690265 -0.09473,0.776367 l -0.01855,0.471826 -0.555664,0.00976 -0.304628,0.010745 C 13.5,7 13.248084,6.6490955 13.086914,6.535158 12.890897,6.3217215 12.679592,6.076236 12.618164,5.9902365 12.348491,5.61268 11.998248,5.5249115 11.718138,5.781252 c -0.190845,0.174652 -0.219483,0.095146 -0.219727,0.730615 -1.47e-4,0.390391 -0.01218,0.531194 -0.0459,0.5410155 -0.02507,0.0073 -0.200313,0.041485 -0.389649,0.076172 -0.189335,0.03469 -0.45256,0.094134 -0.523801,0.1328125 -0.07124,0.038675 -0.155622,0.071289 -0.1875,0.071289 -0.03188,0 -0.1886,0.038965 -0.347657,0.086914 C 9.844845,7.46802 9.5974105,7.51823 9.453123,7.532375 9.3088355,7.54652 9.0993485,7.590487 8.988279,7.630031 8.87721,7.669576 8.754015,7.7022965 8.714842,7.702297 8.570679,7.702297 7.7739075,7.9928335 7.5439435,8.1290545 7.177367,8.3462 7.0366225,8.4586525 6.480467,8.980617 6.2996055,9.1503595 5.9696915,9.542774 5.8310525,9.753078 c -0.067001,0.1016365 -0.15176,0.218134 -0.1875,0.258789 -0.03574,0.04065 -0.1452995,0.232673 -0.2441405,0.425782 -0.217706,0.425347 -0.4331504,1.252779 -0.395508,1.521483 0.012295,0.08777 0.037665,0.726265 0.055664,1.112484 0.031785,0.681991 0.03677,0.71514 0.180664,1.148437 0.081488,0.245381 0.18,0.520735 0.21875,0.612305 0.079656,0.188236 0.3752945,0.471308 0.616211,0.589844 0.085286,0.04195 0.1552735,0.09458 0.1552735,0.11621 0,0.02163 -0.04056,0.126771 -0.090821,0.234375 -0.1960101,0.272503 -0.2273093,0.596787 -0.34668,0.892081 -7.15e-5,0.05265 -0.04122,0.195419 -0.090821,0.317383 -0.166226,0.408757 -0.085351,0.816817 0.2001955,1.010742 0.1048795,0.07123 0.163819,0.08396 0.3291015,0.07227 0.2520315,-0.01783 0.4094625,-0.128359 0.5117185,-0.359375 0.04103,-0.09269 0.1063235,-0.230493 0.145508,-0.305665 0.039185,-0.07517 0.071289,-0.158784 0.071289,-0.185546 0,-0.02675 0.035155,-0.113022 0.077149,-0.192383 0.1384485,-0.261662 0.3314605,-0.485476 0.356445,-0.749827 0.017625,-0.186384 0.054044,-0.260641 0.12793,-0.388348 0.117942,-0.203862 0.1381075,-0.20571 0.5703125,-0.05859 0.130436,0.0444 0.357038,0.08739 0.382121,0.09473 0.035045,0.01025 0.045745,-0.202961 0.0459,0.571768 1.07e-4,0.588092 0.015815,1.066218 0.038085,1.147461 0.04634,0.169023 0.24794,0.381482 0.4091795,0.431641 0.211673,0.06585 0.3285655,0.01945 0.5890115,-0.115234 C 9.722549,17.869815 9.828018,17.784787 9.9057,17.672691 l 0.110352,-0.160156 0.01172,-0.966797 c 0.0062,-0.531897 0.02228,-0.529504 0.03613,-0.543448 0.01388,-0.01393 0.970989,-0.02857 2.004454,-0.0332 l 1.878906,-0.0088 0.04395,0.08984 c 0.211512,0.34783 0.371674,0.712465 0.509762,1.099112 0.156302,0.477372 0.267373,0.677317 0.442383,0.792969 0.353442,0.233569 0.811574,0.09584 0.954102,-0.287109 0.12372,-0.523235 -0.06936,-0.865258 -0.253912,-1.307445 -0.131112,-0.280325 -0.175144,-0.448894 -0.100585,-0.448894 0.06387,0 0.260803,-0.102709 0.730468,-0.380859 0.195481,-0.11577 0.371742,-0.210938 0.391602,-0.210938 0.0471,0 0.06788,0.09553 0.108398,0.499024 0.114487,0.427841 0.205602,0.602345 0.356311,1.069561 0.13091,0.507653 0.194121,0.518576 0.387829,0.633559 0.321561,0.190875 0.655758,0.156954 0.875,-0.08887 0.07126,-0.0799 0.139653,-0.201007 0.152344,-0.269531 0.0322,-0.173846 -0.04005,-0.289746 -0.144532,-0.729816 -0.105659,-0.445008 -0.20057,-1.18484 -0.207032,-1.673504 -0.0043,-0.329414 0.0027,-0.366181 0.08887,-0.480469 0.05126,-0.06807 0.126015,-0.201375 0.166016,-0.295898 0.04,-0.09452 0.141642,-0.282354 0.225586,-0.416993 0.08394,-0.134638 0.191625,-0.356457 0.239258,-0.493164 0.08013,-0.229982 0.0862,-0.355044 0.08691,-1.050129 6e-4,-0.673595 -0.0086,-0.793774 -0.0918,-1.164062 C 18.857157,10.619546 18.781366,10.35066 18.740236,10.249023 18.699106,10.147386 18.6411,9.9745385 18.61133,9.8642575 18.448346,9.2605345 17.556292,8.2209415 16.925723,7.787255 16.684649,7.621453 16.452091,7.353022 16.452091,7.24038 c 0,-0.1517305 -0.08789,-0.324369 -0.274414,-0.537109 C 15.949101,6.442575 15.804818,6.4077 15.743104,6.1972655 15.606139,5.7302405 15.384599,5.5 15.073183,5.5 Z m 1.64752,3 c 0.521328,9e-4 0.854812,0.396382 0.764648,0.9345705 -0.03048,0.181914 -0.258573,0.4841615 -0.392578,0.5205075 -0.178963,0.04854 -0.29042,0.057 -0.407226,0.029295 -0.353176,-0.083759 -0.631349,-0.355775 -0.676758,-0.661133 -0.06162,-0.4143755 0.208219,-0.779961 0.604492,-0.818359 0.03635,-0.0035 0.07267,-0.00495 0.107422,-0.0049 z M 13.771485,10 c 0.405165,0.0039 0.776548,0.316632 0.723632,0.763672 -0.05426,0.458401 -0.30871,0.718243 -0.71875,0.735352 -0.127307,0.0053 -0.279739,-0.0063 -0.339843,-0.02539 -0.142653,-0.04527 -0.321414,-0.214468 -0.386719,-0.367188 -0.06638,-0.155224 -0.0669,-0.506206 -10e-4,-0.664062 0.02802,-0.06715 0.111591,-0.175263 0.185547,-0.240235 C 13.395977,10.060177 13.587321,9.9982355 13.771485,10 Z"/>
</svg>
