<svg xmlns="http://www.w3.org/2000/svg" width="24" height="24" version="1">
 <g transform="translate(1,1)">
  <path fill="#b2bfd9" d="m11.5 6c-4.155 0-7.5 3.345-7.5 7.5s3.345 7.5 7.5 7.5 7.5-3.345 7.5-7.5-3.345-7.5-7.5-7.5z"/>
  <path fill="#fff" opacity=".2" d="m11.5 6c-4.155 0-7.5 3.345-7.5 7.5 0 0.084 0.01 0.166 0.0127 0.25 0.1322-4.037 3.4168-7.25 7.4873-7.25s7.355 3.213 7.4875 7.25c0.0025-0.084 0.0125-0.1655 0.0125-0.25 0-4.155-3.345-7.5-7.5-7.5z"/>
  <path opacity=".2" d="m4.0127 13.75c-0.0027 0.084-0.0127 0.166-0.0127 0.25 0 4.155 3.345 7.5 7.5 7.5s7.5-3.345 7.5-7.5c0-0.0845-0.01-0.166-0.0125-0.25-0.133 4.037-3.418 7.25-7.488 7.25-4.0705 0-7.355-3.213-7.4875-7.25z"/>
  <path fill="#3c8cf8" d="m8.5 2c-3.5 0-3.5 3.9992-3.5 5.2793 0.5-0.48 3-3.8396 3-1.2793 0 1.8153-0.012 3.6474 0 5.455 0.053 1.419 1.521 2.544 3 2.545 1.519 0 2.963-1.183 3-2.641 0.062-2.4486-1.481-3.359-3-3.359-0.254 0.001-0.756 0.0319-1 0.0996v-5.1387c0-0.9599-0.5-0.9609-1.5-0.9609zm2.5 8a1 1 0 0 1 1 1 1 1 0 0 1 -1 1 1 1 0 0 1 -1 -1 1 1 0 0 1 1 -1z"/>
  <path fill="#fff" opacity=".2" d="m8.5 2c-3.5 0-3.5 3.9992-3.5 5.2793 0.0039-0.0037 0.0174-0.0194 0.0215-0.0234 0.0291-1.573 0.314-4.7559 3.4785-4.7559 1 0 1.5 0.0009529 1.5 0.96094v-0.5c0-0.9599-0.5-0.9609-1.5-0.9609zm2.5 6c-0.254 0.00096-0.756 0.03193-1 0.099609v0.5c0.244-0.0677 0.746-0.0986 1-0.0996 1.4385 0 2.8804 0.83364 2.9785 3 0.0043-0.04764 0.02026-0.09235 0.02148-0.14062 0.062-2.4486-1.481-3.359-3-3.359zm-0.9668 3.25a1 1 0 0 0 -0.033 0.25 1 1 0 0 0 1 1 1 1 0 0 0 1 -1 1 1 0 0 0 -0.033 -0.25 1 1 0 0 1 -0.967 0.75 1 1 0 0 1 -0.967 -0.75z"/>
  <path opacity=".2" d="m7.6016 5.0527c-0.7191-0.1115-2.1861 1.814-2.5801 2.2032-0.0031 0.1667-0.0215 0.4007-0.0215 0.5234 0.5-0.48 3-3.8396 3-1.2793 0.0002-0.1666 0-0.3336 0-0.5 0-0.6401-0.1562-0.9097-0.3984-0.9473zm3.3984 4.9473a1 1 0 0 0 -1 1 1 1 0 0 0 0.0332 0.25 1 1 0 0 1 0.967 -0.75 1 1 0 0 1 0.967 0.75 1 1 0 0 0 0.033 -0.25 1 1 0 0 0 -1 -1zm-3 1.4551c0.0007244 0.16606-0.0011 0.33432 0 0.5 0.053 1.4193 1.521 2.5435 3 2.5449 1.519 0 2.9631-1.1829 3-2.6406 0.003-0.129-0.016-0.238-0.021-0.359-0.125 1.391-1.51 2.5-2.979 2.5-1.479-0.001-2.947-1.126-3-2.545z"/>
 </g>
</svg>
