<svg xmlns="http://www.w3.org/2000/svg" width="24" height="24" version="1.1">
 <rect style="fill:#5f5f5f" width="19.5" height="19.5" x="-21.75" y="-21.75" rx="9.75" ry="9.75" transform="matrix(0,-1,-1,0,0,0)"/>
 <path style="fill:#f9e1b5" d="m 12,2 v 20 a 10,10 0 0 0 2,-0.212891 V 2.203125 A 10,10 0 0 0 12,2 Z M 10,2.2128906 A 10,10 0 0 0 8,2.8476563 V 21.160156 a 10,10 0 0 0 2,0.636719 z m 6,0.6269532 V 21.152344 a 10,10 0 0 0 2,-1.16504 V 4.015625 A 10,10 0 0 0 16,2.8398438 Z M 6,4.0126953 A 10,10 0 0 0 4,6.020508 v 11.961914 a 10,10 0 0 0 2,2.001953 z M 20,6.017578 V 17.979492 A 10,10 0 0 0 22,12 10,10 0 0 0 20,6.017578 Z"/>
 <path style="opacity:0.2" d="M 2.0058,12.25 C 2.0038,12.334 2,12.416 2,12.5 c 0,5.54 4.46,10 10,10 5.54,0 10,-4.46 10,-10 0,-0.084 -0.004,-0.1665 -0.006,-0.25 C 21.862,17.673 17.456,22 12,22 6.544,22 2.138,17.673 2.006,12.25 Z"/>
 <path style="fill:#b42223" d="M 12,2 A 10,10 0 0 0 10,2.2128906 V 21.796875 A 10,10 0 0 0 12,22 Z m 2,0.203125 v 19.583984 a 10,10 0 0 0 2,-0.634765 V 2.8398438 A 10,10 0 0 0 14,2.203125 Z M 8,2.8476563 A 10,10 0 0 0 6,4.0126953 V 19.984375 a 10,10 0 0 0 2,1.175781 z M 18,4.015625 v 15.971679 a 10,10 0 0 0 2,-2.007812 V 6.017578 A 10,10 0 0 0 18,4.015625 Z M 4,6.020508 A 10,10 0 0 0 2,12 10,10 0 0 0 4,17.982422 Z"/>
 <path style="opacity:0.2;fill:#8b9cbe" d="M 12,2 C 6.4605,2 2.001,6.46 2.001,12 c 0,0.08386 -0.002,0.16664 0,0.25 C 2.1331,6.827 6.5445,2.5 12,2.5 c 5.4555,0 9.867,4.3268 9.999,9.75 0.002,-0.08335 0,-0.16614 0,-0.25 C 21.999,6.46 17.54,2 12,2 Z"/>
 <path style="opacity:0.1" d="M 5.419346,7.5 4.1520323,8.661946 c 0,0 0.7361047,1.230684 0.7545836,1.917696 0.021451,0.797028 -0.7545836,2.269485 -0.7545836,2.269485 -1.3186354,4.484007 6.3432867,2.545492 7.4543047,4.468909 L 12,18 12.393664,17.318037 c 1.111018,-1.923418 8.772939,0.01509 7.454303,-4.46891 0,0 -0.776034,-1.472457 -0.754583,-2.269485 0.01848,-0.687012 0.754583,-1.917696 0.754583,-1.917696 L 18.580654,7.5 12,7.51416 Z"/>
 <path style="fill:#0b5f8a" d="M 5.419346,7 4.1520323,8.161946 c 0,0 0.7361047,1.230684 0.7545836,1.917696 0.021451,0.797028 -0.7545836,2.269485 -0.7545836,2.269485 -1.3186354,4.484007 6.3432867,2.545492 7.4543047,4.468909 L 12,17.5 12.393664,16.818037 c 1.111018,-1.923418 8.772939,0.01509 7.454303,-4.46891 0,0 -0.776034,-1.472457 -0.754583,-2.269485 0.01848,-0.687012 0.754583,-1.917696 0.754583,-1.917696 L 18.580654,7 12,7.01416 Z"/>
 <path style="opacity:0.2" d="M 12,8.5 13.081559,10.804258 15.5,11.173762 13.75,12.967376 14.163119,15.5 12,14.304258 9.836881,15.5 10.25,12.967375 8.5,11.173762 10.918441,10.804258 Z"/>
 <path style="fill:#faa600" d="M 12,8 13.081559,10.304258 15.5,10.673762 13.75,12.467376 14.163119,15 12,13.804258 9.836881,15 10.25,12.467375 8.5,10.673762 10.918441,10.304258 Z"/>
 <path style="opacity:0.2;fill:#8b9cbe" d="M 12,8 10.917969,10.304688 8.5,10.673828 8.9248045,11.109375 10.917969,10.804688 12,8.5 13.082031,10.804688 15.075196,11.109375 15.5,10.673828 13.082031,10.304688 Z M 10.179688,12.896485 9.836914,15 9.926758,14.950196 10.25,12.967774 Z m 3.640625,0 -0.07031,0.07129 0.323242,1.982422 0.08984,0.0498 z"/>
</svg>
