<svg xmlns="http://www.w3.org/2000/svg" height="24" width="24" version="1.1">
 <g transform="translate(1,1)">
  <circle style="opacity:.2" cx="11" r="10" cy="11.5"/>
  <circle style="fill:#ffc129" cx="11" r="10" cy="11"/>
  <path style="opacity:.2;fill:#8b9cbe" d="m11 1a10 10 0 0 0 -10 10 10 10 0 0 0 0.0098 0.293 10 10 0 0 1 9.9902 -9.793 10 10 0 0 1 9.99 9.707 10 10 0 0 0 0.01 -0.207 10 10 0 0 0 -10 -10z"/>
  <path style="opacity:.2" d="m3.9082032 4.5a10 10 0 0 0 -2.4082032 4h0.5371094v12h2v-12h16.527344a10 10 0 0 0 -2.388672 -4z"/>
  <path style="fill:#f13c3c" d="m3.8710938 4a10 10 0 0 0 -2.4082032 4h0.5371094v12h2v-12h16.527344a10 10 0 0 0 -2.388672 -4z"/>
  <path style="opacity:.2;fill:#8b9cbe" d="m3.8710938 4a10 10 0 0 0 -2.4082032 4h0.2148438a10 10 0 0 1 2.2304687 -3.5h14.267578a10 10 0 0 1 2.205078 3.5h0.146485a10 10 0 0 0 -2.388672 -4zm-1.8710938 4.5v11.5h0.037109v-11.5z"/>
  <path style="opacity:.1" d="m6 9.5v1l4 1v-1zm10 0-4 1v1l4-1zm-8 2a2 2 0 0 0 -2 2 2 2 0 0 0 2 2 2 2 0 0 0 2 -2 2 2 0 0 0 -2 -2zm6 0a2 2 0 0 0 -2 2 2 2 0 0 0 2 2 2 2 0 0 0 2 -2 2 2 0 0 0 -2 -2z"/>
  <path style="fill:#17191e" d="m6 9v1l4 1v-1zm10 0-4 1v1l4-1zm-8 2a2 2 0 0 0 -2 2 2 2 0 0 0 2 2 2 2 0 0 0 2 -2 2 2 0 0 0 -2 -2zm6 0a2 2 0 0 0 -2 2 2 2 0 0 0 2 2 2 2 0 0 0 2 -2 2 2 0 0 0 -2 -2z"/>
 </g>
</svg>
