<svg xmlns="http://www.w3.org/2000/svg" width="24" height="24" version="1">
 <circle style="opacity:0.2" cx="-12" cy="12.5" r="10" transform="scale(-1,1)"/>
 <circle style="fill:#aa3131" cx="-12" cy="12" r="10" transform="scale(-1,1)"/>
 <path style="opacity:0.2" d="M 13.66,4.676 C 12.815,4.495 11.933,4.4528 11.071,4.5535 9.82,4.6997 8.609,5.1463 7.557,5.8487 6.518,6.5429 5.665,7.4582 5.05,8.5371 4.814,8.9504 4.613,9.3914 4.453,9.8486 4.341,10.168 4.238,10.538 4.168,10.875 3.803,12.629 4.035,14.437 4.831,16.045 L 4.896,16.161 11.68,6.4948 C 11.89,6.1811 12.104,5.9507 12.346,5.7802 12.404,5.7394 12.545,5.6582 12.608,5.63 12.899,5.4999 13.206,5.4617 13.551,5.5139 13.776,5.548 13.92,5.5943 14.073,5.6537 14.398,5.7808 14.646,5.9678 14.832,6.2256 14.872,6.2816 14.955,6.4228 14.984,6.487 15.108,6.7553 15.178,7.0618 15.203,7.4384 L 16.299,19.233 16.367,19.198 C 16.752,18.95 17.138,18.65 17.479,18.332 18.359,17.512 19.036,16.503 19.467,15.37 19.616,14.979 19.755,14.466 19.829,14.132 20.149,12.609 20.018,11.035 19.448,9.5819 19.216,8.9899 18.906,8.4139 18.539,7.8927 17.544,6.4812 16.135,5.4375 14.5,4.902 14.239,4.8165 13.931,4.734 13.66,4.676 Z M 13.441,6.806 C 12.836,6.7432 12.449,7.1705 12.118,7.6203 L 6.222,18.022 6.325,18.135 C 7.279,19.097 8.46,19.797 9.765,20.176 10.122,20.279 10.58,20.386 11.085,20.445 12.096,20.565 13.11,20.488 14.095,20.217 L 14.168,20.194 14.261,9.094 C 14.207,8.107 14.255,7.0791 13.441,6.806 Z"/>
 <path style="fill:#f7b400" d="M 13.66,4.1759 C 12.815,3.9949 11.933,3.9527 11.071,4.0534 9.82,4.1996 8.609,4.6462 7.557,5.3486 6.518,6.0428 5.665,6.9581 5.05,8.037 4.814,8.4503 4.613,8.8913 4.453,9.3485 4.341,9.6684 4.238,10.038 4.168,10.375 3.803,12.129 4.035,13.937 4.831,15.545 L 4.896,15.661 11.68,5.9947 C 11.89,5.681 12.104,5.4506 12.346,5.2801 12.404,5.2393 12.545,5.1581 12.608,5.1299 12.899,4.9998 13.206,4.9616 13.551,5.0138 13.776,5.0479 13.92,5.0942 14.073,5.1536 14.398,5.2807 14.646,5.4677 14.832,5.7255 14.872,5.7815 14.955,5.9227 14.984,5.9869 15.108,6.2552 15.178,6.5617 15.203,6.9383 L 16.299,18.733 16.367,18.698 C 16.752,18.45 17.138,18.15 17.479,17.832 18.359,17.012 19.036,16.003 19.467,14.87 19.616,14.479 19.755,13.966 19.829,13.632 20.149,12.109 20.018,10.535 19.448,9.0818 19.216,8.4898 18.906,7.9138 18.539,7.3926 17.544,5.9811 16.135,4.9374 14.5,4.4019 14.239,4.3164 13.931,4.2339 13.66,4.1759 Z M 13.441,6.3059 C 12.836,6.2431 12.449,6.6704 12.118,7.1202 L 6.222,17.522 6.325,17.635 C 7.279,18.597 8.46,19.297 9.765,19.676 10.122,19.779 10.58,19.886 11.085,19.945 12.096,20.065 13.11,19.988 14.095,19.717 L 14.168,19.694 14.261,8.5939 C 14.207,7.6069 14.255,6.579 13.441,6.3059 Z"/>
 <path style="opacity:0.1;fill:#8b9cbe" d="M 12,2 A 10,10 0 0 1 22,12 10,10 0 0 1 21.99,12.293 10,10 0 0 0 12,2.5 10,10 0 0 0 2.01,12.207 10,10 0 0 1 2,12 10,10 0 0 1 12,2 Z"/>
 <path style="opacity:0.2;fill:#8b9cbe" d="M 11.721,4.0039 C 12.372,3.9818 13.026,4.04 13.66,4.1758 13.931,4.2338 14.239,4.3168 14.5,4.4023 16.135,4.9378 17.544,5.9811 18.539,7.3926 18.906,7.9138 19.215,8.49 19.447,9.082 19.879,10.183 20.058,11.353 19.98,12.518 19.983,11.519 19.817,10.525 19.447,9.582 19.215,8.99 18.906,8.4138 18.539,7.8926 17.544,6.4811 16.135,5.4378 14.5,4.9023 14.239,4.8168 13.931,4.7338 13.66,4.6758 12.815,4.4948 11.932,4.452 11.07,4.5527 9.819,4.6989 8.609,5.1472 7.557,5.8496 6.518,6.5438 5.666,7.4582 5.051,8.5371 4.815,8.9504 4.613,9.3905 4.453,9.8477 4.341,10.167 4.238,10.538 4.168,10.875 4.078,11.308 4.026,11.744 4.008,12.18 3.995,11.578 4.043,10.974 4.168,10.375 4.238,10.038 4.341,9.6676 4.453,9.3477 4.613,8.8905 4.815,8.4504 5.051,8.0371 5.666,6.9582 6.518,6.0419 7.557,5.3477 8.609,4.6453 9.819,4.1989 11.07,4.0527 11.286,4.0276 11.504,4.0113 11.721,4.0039 Z M 13.441,6.3066 C 14.255,6.5797 14.207,7.6068 14.26,8.5938 L 14.256,9.0195 C 14.208,8.056 14.235,7.0728 13.441,6.8066 12.836,6.7438 12.448,7.1713 12.117,7.6211 L 6.402,17.705 C 6.377,17.68 6.349,17.66 6.324,17.635 L 6.223,17.521 12.117,7.1211 C 12.448,6.6713 12.836,6.2438 13.441,6.3066 Z"/>
</svg>
