<svg xmlns="http://www.w3.org/2000/svg" width="24" height="24" version="1">
 <rect style="fill:#b2bfd9" width="20" height="20" x="2" y="2" rx="1" ry="1"/>
 <path style="opacity:0.1;fill:none;stroke:#000000;stroke-width:2;stroke-linecap:round;stroke-linejoin:round" d="m 5,16.485758 v -9 c 0,0 4,-0.5 4,4.500001 0,4.999999 -4,4.499999 -4,4.499999 z"/>
 <path style="opacity:0.2;fill:#8b9cbe" d="M 2,3.5 V 3 C 2,2.446 2.446,2 3,2 h 18 c 0.554,0 1,0.446 1,1 v 0.5 c 0,-0.554 -0.446,-1 -1,-1 H 3 c -0.554,0 -1,0.446 -1,1 z"/>
 <path style="opacity:0.2" d="m 2,21 v 0.5 c 0,0.554 0.446,1 1,1 h 18 c 0.554,0 1,-0.446 1,-1 V 21 c 0,0.554 -0.446,1 -1,1 H 3 C 2.446,22 2,21.554 2,21 Z"/>
 <path style="fill:none;stroke:#c2352a;stroke-width:2;stroke-linecap:round;stroke-linejoin:round" d="M 5,15.986001 V 6.9860005 c 0,0 4,-0.5 4,4.5000005 0,5 -4,4.5 -4,4.5 z"/>
 <path style="opacity:0.1;fill:none;stroke:#000000;stroke-width:2;stroke-linecap:round;stroke-linejoin:round" d="m 12.0001,16.485758 v -9 c 0,0 3.9999,-0.5 4,2.2500005 10e-5,2.7500005 -4,2.7500005 -4,2.7500005 l 4,3.999999 v 0 0 0"/>
 <path style="fill:none;stroke:#169d41;stroke-width:2;stroke-linecap:round;stroke-linejoin:round" d="M 12.0001,15.986001 V 6.9860005 c 0,0 3.9999,-0.5 4,2.25 10e-5,2.7500005 -4,2.7500005 -4,2.7500005 l 4,4 v 0 0 0"/>
 <path style="opacity:0.1;fill:none;stroke:#000000;stroke-width:2;stroke-linecap:round;stroke-linejoin:round" d="m 19.0001,7.485758 v 9"/>
 <path style="fill:none;stroke:#2a72c2;stroke-width:2;stroke-linecap:round;stroke-linejoin:round" d="M 19.0001,6.9860005 V 15.986001"/>
</svg>
