<svg xmlns="http://www.w3.org/2000/svg" width="24" height="24" version="1">
 <path style="opacity:0.2" d="m 12,1.5000009 c -0.421357,0 -0.842397,0.1615487 -1.165263,0.4847886 L 8.8247559,4.4963389 H 5.7146457 c -0.9396184,0 -1.6661307,0.7579993 -1.6962569,1.6982239 V 9.3083182 L 1.5097095,11.320629 c -0.71267006,0.571661 -0.64573126,1.686749 0,2.333229 l 2.5086793,2.012312 v 3.113677 c 0,0.940707 0.7566385,1.698223 1.6962569,1.698223 h 3.1101102 l 2.0099811,2.511628 c 0.570993,0.7135 1.684795,0.64648 2.330526,0 l 2.009981,-2.511628 h 3.11011 c 0.939618,0 1.666131,-0.758 1.696257,-1.698223 V 15.66617 l 2.50868,-2.012312 c 0.712669,-0.571661 0.645731,-1.686748 0,-2.333229 L 19.981611,9.3083182 V 6.1945628 c 0,-0.9407081 -0.756639,-1.6982239 -1.696257,-1.6982239 h -3.11011 L 13.165263,1.9847895 C 12.879761,1.6280437 12.421358,1.5000009 12,1.5000009 Z"/>
 <path style="fill:#546e7a" d="m 12,1.0000001 c -0.421357,0 -0.842397,0.1615487 -1.165263,0.4847886 L 8.8247559,3.9963381 H 5.7146457 c -0.9396184,0 -1.6661307,0.7579993 -1.6962569,1.6982239 V 8.8083174 L 1.5097095,10.820629 c -0.71267006,0.571661 -0.64573126,1.686749 0,2.333229 l 2.5086793,2.012312 v 3.113677 c 0,0.940707 0.7566385,1.698223 1.6962569,1.698223 h 3.1101102 l 2.0099811,2.511628 c 0.570993,0.7135 1.684795,0.64648 2.330526,0 l 2.009981,-2.511628 h 3.11011 c 0.939618,0 1.666131,-0.758 1.696257,-1.698223 V 15.16617 l 2.50868,-2.012312 c 0.712669,-0.571661 0.645731,-1.686748 0,-2.333229 L 19.981611,8.8083174 V 5.694562 c 0,-0.9407081 -0.756639,-1.6982239 -1.696257,-1.6982239 h -3.11011 L 13.165263,1.4847887 C 12.879761,1.1280429 12.421358,1.0000001 12,1.0000001 Z"/>
 <path style="opacity:0.2" d="M 12,6.5001103 A 5.9999611,5.9999611 0 0 0 6.0000389,12.500071 5.9999611,5.9999611 0 0 0 12,18.500033 Z"/>
 <path style="fill:#8b9cbe" d="M 12,6.0001135 A 5.9999611,5.9999611 0 0 0 6.0000389,12.000075 5.9999611,5.9999611 0 0 0 12,18.000036 Z"/>
 <path style="opacity:0.1;fill:#8b9cbe" d="M 12 1 C 11.578643 1 11.15685 1.1611351 10.833984 1.484375 L 8.8242188 3.9960938 L 5.7148438 3.9960938 C 4.7752254 3.9960938 4.0477043 4.7550879 4.0175781 5.6953125 L 4.0175781 6.1953125 C 4.0477043 5.2550879 4.7752254 4.4960938 5.7148438 4.4960938 L 8.8242188 4.4960938 L 10.833984 1.984375 C 11.15685 1.6611351 11.578643 1.5 12 1.5 C 12.421358 1.5 12.880514 1.6276292 13.166016 1.984375 L 15.175781 4.4960938 L 18.285156 4.4960938 C 19.224774 4.4960937 19.982422 5.2546044 19.982422 6.1953125 L 19.982422 5.6953125 C 19.982422 4.7546044 19.224774 3.9960937 18.285156 3.9960938 L 15.175781 3.9960938 L 13.166016 1.484375 C 12.880514 1.1276292 12.421358 1 12 1 z M 4.0175781 8.8085938 L 1.5097656 10.820312 C 1.0970835 11.151341 0.95228146 11.665101 1.0234375 12.164062 C 1.0781975 11.840717 1.2354541 11.540349 1.5097656 11.320312 L 4.0175781 9.3085938 L 4.0175781 8.8085938 z M 19.982422 8.8085938 L 19.982422 9.3085938 L 22.490234 11.320312 C 22.762045 11.592439 22.924838 11.94784 22.976562 12.310547 C 23.064778 11.793374 22.887872 11.218412 22.490234 10.820312 L 19.982422 8.8085938 z"/>
</svg>
