<svg xmlns="http://www.w3.org/2000/svg" width="24" height="24" version="1">
 <rect style="opacity:0.2" width="18" height="20" x="3" y="2.5" rx="1" ry="1"/>
 <rect style="fill:#4f4f4f" width="18" height="20" x="3" y="2" rx="1" ry="1"/>
 <path style="opacity:0.2" d="M 5.3691406,4.5 C 5.1650465,4.5 5,4.6698118 5,4.8808594 V 7.1660156 8.5 v 3 3 2.572266 0.427734 1.285156 1.28711 C 5,20.309694 5.1650465,20.5 5.3691406,20.5 H 18.630859 C 18.834953,20.5 19,20.309694 19,20.072266 V 18.785156 17.5 17.072266 14.5 11.5 8.5 7.1660156 4.8808594 C 19,4.6698118 18.834953,4.5 18.630859,4.5 H 16.421875 13.474609 10.525391 7.578125 Z"/>
 <path style="fill:#68c7ff" d="M 5.368421,4 C 5.1643269,4 5,4.1699048 5,4.3809524 V 6.6666668 8 H 7.5789475 10.526317 13.473684 16.421052 19 V 6.6666668 4.3809524 C 19,4.1699048 18.835674,4 18.63158,4 H 16.421052 13.473684 10.526317 7.5789475 Z"/>
 <path style="fill:#ab70ff" d="m 5,8 v 3 H 7.5789475 10.526317 13.473684 16.421052 19 V 8 H 16.421052 13.473684 10.526317 7.5789475 Z"/>
 <path style="fill:#ff639c" d="m 5,11 v 3 H 7.5789475 10.526317 13.473684 16.421052 19 V 11 H 16.421052 13.473684 10.526317 7.5789475 Z"/>
 <path style="fill:#ffdb49" d="M 5,14 V 16.571429 17 h 0.736842 1.8421055 2.9473695 2.947367 2.947368 1.842106 H 18.63158 19 V 16.571429 14 H 16.421052 13.473684 10.526317 7.5789475 Z"/>
 <path style="fill:#c9c9c9" d="m 5,17 v 1.285714 1.285715 C 5,19.808857 5.1643269,20 5.368421,20 H 18.63158 C 18.835674,20 19,19.808857 19,19.571429 V 18.285714 17 H 18.63158 5.368421 Z"/>
 <path style="opacity:0.1;fill:#8b9cbe" d="m 3.9999998,1.9999999 c -0.5539999,0 -0.9999999,0.446 -0.9999999,1 v 0.5 c 0,-0.554 0.446,-1 0.9999999,-1 H 19.999999 c 0.554,0 1,0.446 1,1 v -0.5 c 0,-0.554 -0.446,-1 -1,-1 z"/>
 <path style="opacity:0.2;fill:#8b9cbe" d="M 5.3691406 4 C 5.1650465 4 5 4.1698118 5 4.3808594 L 5 4.8808594 C 5 4.6698118 5.1650465 4.5 5.3691406 4.5 L 7.578125 4.5 L 10.525391 4.5 L 13.474609 4.5 L 16.421875 4.5 L 18.630859 4.5 C 18.834953 4.5 19 4.6698118 19 4.8808594 L 19 4.3808594 C 19 4.1698118 18.834953 4 18.630859 4 L 16.421875 4 L 13.474609 4 L 10.525391 4 L 7.578125 4 L 5.3691406 4 z"/>
 <rect style="opacity:0.1" width="14" height=".5" x="5" y="8"/>
 <rect style="opacity:0.1" width="14" height=".5" x="5" y="11"/>
 <rect style="opacity:0.1" width="14" height=".5" x="5" y="14"/>
 <rect style="opacity:0.1" width="14" height=".5" x="5" y="17"/>
</svg>
