<svg xmlns="http://www.w3.org/2000/svg" width="24" height="24" version="1.1">
 <circle style="opacity:0.2" cx="12.5" cy="12" r="10.5"/>
 <circle style="fill:#395a95" cx="12.5" cy="11.5" r="10.5"/>
 <path style="opacity:0.2" d="m 6.5,6.5001775 c -0.276131,2.75e-5 -0.4999725,0.223869 -0.5,0.5 v 1.5 H 5.5039062 C 5.4998512,8.5001775 5,8.4922156 5,8.9943181 v 6.7558599 c 4.15e-5,0.414197 0.3358035,0.749959 0.75,0.75 h 4.824219 c 1.373575,0.04473 1.145155,1.03329 1.925781,1 0.780625,0.03329 0.552205,-0.955271 1.925781,-1 H 19.25 c 0.414196,-4.1e-5 0.749958,-0.335803 0.75,-0.75 V 8.9943181 C 20,8.4922156 19.500149,8.5001775 19.496094,8.5001775 H 19 v -1.5 c -2.8e-5,-0.276131 -0.223869,-0.4999725 -0.5,-0.5 h -4 c -0.916667,0 -1.606338,0.5013905 -1.986328,1.109375 -0.0055,0.00879 -0.0083,0.018514 -0.01367,0.027344 -0.0054,-0.00883 -0.0082,-0.018551 -0.01367,-0.027344 C 12.106338,7.001568 11.416667,6.5001775 10.5,6.5001775 Z m 0.5,1 h 3.5 c 0.583334,0 0.893663,0.2466564 1.138672,0.6386719 C 11.883682,8.5308644 12,9.0835115 12,9.5001775 v 3.5000005 c -0.006,0.422601 0.390142,0.58026 0.685547,0.474609 C 12.862786,13.411397 13.0036,13.253738 13,13.000178 V 9.5001775 C 13,9.0835115 13.116318,8.5308644 13.361328,8.1388494 13.606337,7.7468339 13.916666,7.5001775 14.5,7.5001775 H 18 v 1 0.9140625 5.085938 H 14.273438 C 13.486285,14.504739 13.021993,15.10737 12.5,15.486506 11.978008,15.10737 11.513715,14.504739 10.726562,14.500178 H 7 V 8.5001775 Z"/>
 <path style="fill:#8b9cbe" d="M 5.503906,7.9995131 C 5.499851,7.9995131 5,7.9915511 5,8.4936536 v 6.7558594 c 4.15e-5,0.414197 0.3358035,0.749959 0.75,0.75 h 4.824219 c 1.373575,0.04473 1.145155,1.032955 1.925781,0.999665 0.780625,0.03329 0.552205,-0.954936 1.925781,-0.999665 H 19.25 c 0.414196,-4.1e-5 0.749958,-0.335803 0.75,-0.75 V 8.4936536 C 20,7.9915511 19.500149,7.9995131 19.496094,7.9995131 H 18 V 14.000003 H 14.274414 C 13.487262,14.004564 13.021993,14.606861 12.5,14.985997 11.978008,14.606861 11.512738,14.004564 10.725586,14.000003 H 7 V 7.9995131 Z"/>
 <path style="fill:#8b9cbe" d="m 6.5,5.9995131 c -0.276131,2.75e-5 -0.4999725,0.223869 -0.5,0.5 v 2.4140625 c -0.00957,0.676161 1.0095625,0.676161 1,0 V 6.9995131 h 3.5 c 0.583334,0 0.893663,0.247633 1.138672,0.6396485 C 11.883682,8.0311766 12,8.5828466 12,8.9995126 v 3.4998304 c -0.0096,0.676161 1.009562,0.676161 1,0 V 8.9995126 C 13,8.4161796 12.866319,7.7178496 12.486328,7.1098646 12.106338,6.5018801 11.416667,5.9995131 10.5,5.9995131 Z"/>
 <path style="fill:#8b9cbe" d="m 18.5,5.9995131 c 0.276131,2.75e-5 0.499972,0.223869 0.5,0.5 v 2.4140625 c 0.0096,0.676161 -1.009563,0.676161 -1,0 V 6.9995131 h -3.5 c -0.583334,0 -0.893663,0.247633 -1.138672,0.6396485 C 13.116318,8.0311766 13,8.5828466 13,8.9995126 v 3.4998304 c 0.0096,0.676161 -1.009562,0.676161 -1,0 V 8.9995126 c 0,-0.583333 0.133681,-1.281663 0.513672,-1.889648 C 12.893662,6.5018801 13.583333,5.9995131 14.5,5.9995131 Z"/>
 <path style="fill:#8b9cbe;opacity:0.1" d="M 12.5 1 A 10.5 10.5 0 0 0 2 11.5 A 10.5 10.5 0 0 0 2.0097656 11.796875 A 10.5 10.5 0 0 1 12.5 1.5 A 10.5 10.5 0 0 1 22.990234 11.703125 A 10.5 10.5 0 0 0 23 11.5 A 10.5 10.5 0 0 0 12.5 1 z"/>
</svg>
