<svg xmlns="http://www.w3.org/2000/svg" width="24" height="24" version="1">
 <rect style="fill:#26ace2" width="20" height="20" x="2" y="2" rx="1" ry="1"/>
 <path style="opacity:0.2" d="m 3,22.5 c -0.554,0 -1,-0.446 -1,-1 V 21 c 0,0.554 0.446,1 1,1 h 18 c 0.554,0 1,-0.446 1,-1 v 0.5 c 0,0.554 -0.446,1 -1,1 z"/>
 <path style="opacity:0.2" d="m 5,6.5 v 6 H 6.4746094 V 10.535156 H 8.5 V 9.5214844 H 6.4746094 V 7.5136719 H 9 V 6.5 Z m 6.689453,0 -1.970703,6 h 1.3125 l 0.308594,-0.966797 h 2.228515 L 13.876953,12.5 h 1.308594 l -1.966797,-6 z m 0.765625,0.8085938 0.03125,0.15625 c 0.01779,0.074129 0.03683,0.1590212 0.06055,0.2539062 0.02372,0.094885 0.04948,0.1978709 0.07617,0.3105469 0.02965,0.109711 0.06019,0.2194261 0.08984,0.3261719 l 0.580078,2.1894532 h -1.677735 l 0.582032,-2.1894532 c 0.02965,-0.1067458 0.05729,-0.2164609 0.08398,-0.3261719 0.02965,-0.112676 0.05636,-0.2156619 0.08008,-0.3105469 0.02372,-0.094885 0.04181,-0.1797772 0.05664,-0.2539062 0.01779,-0.074131 0.03121,-0.1266 0.03711,-0.15625 z M 5,13.5 v 6 h 1.8691406 c 0.4142015,0 0.783931,-0.06485 1.109375,-0.195312 0.3284025,-0.130467 0.6052261,-0.323122 0.8300782,-0.578126 0.2248515,-0.257968 0.3953283,-0.57749 0.5136718,-0.957031 C 9.4406091,17.389991 9.5,16.951272 9.5,16.453125 9.5,15.940152 9.4358128,15.497598 9.3085938,15.126953 9.1843333,14.753343 8.9994682,14.44721 8.7539062,14.207031 8.5083443,13.966853 8.204697,13.789469 7.84375,13.673828 7.4828035,13.558186 7.069018,13.5 6.6015625,13.5 Z m 7.396484,0 c -0.415077,0 -0.773646,0.06386 -1.074218,0.193359 -0.300572,0.129497 -0.548575,0.320981 -0.746094,0.574219 -0.194657,0.250359 -0.339124,0.56237 -0.433594,0.933594 C 10.048119,15.569517 10,15.994033 10,16.474609 c 0,0.440287 0.04811,0.845575 0.142578,1.216797 0.09733,0.368346 0.243886,0.685499 0.441406,0.953125 0.197519,0.267625 0.444478,0.478342 0.742188,0.63086 0.300573,0.149641 0.653015,0.224609 1.05664,0.224609 0.237595,0 0.460953,-0.02838 0.669922,-0.08594 0.208969,-0.05755 0.402597,-0.130466 0.580078,-0.216796 0.180344,-0.08921 0.341246,-0.185466 0.484376,-0.289063 C 14.26318,18.804606 14.391222,18.707324 14.5,18.615234 V 16.505859 H 12 V 17.5 h 1.339844 v 0.662109 c -0.03149,0.0259 -0.07556,0.05829 -0.132813,0.0957 -0.05439,0.03454 -0.119975,0.06899 -0.197265,0.103516 -0.07443,0.03165 -0.160483,0.06004 -0.257813,0.08594 -0.09447,0.02302 -0.195909,0.0332 -0.304687,0.0332 -0.392176,0 -0.683206,-0.173284 -0.875,-0.521485 -0.191791,-0.348201 -0.289063,-0.842648 -0.289063,-1.484375 0,-0.322302 0.02048,-0.606957 0.06055,-0.851562 0.04008,-0.247482 0.104619,-0.45316 0.193359,-0.617188 0.08874,-0.166907 0.204527,-0.29155 0.347657,-0.375 0.14313,-0.08633 0.31733,-0.128906 0.523437,-0.128906 0.183205,0 0.34202,0.06993 0.476563,0.210938 0.134541,0.138129 0.241069,0.350901 0.318359,0.638671 l 1.175781,-0.232421 C 14.310209,14.87741 14.222063,14.657541 14.113284,14.45898 14.004505,14.260419 13.869292,14.090223 13.708987,13.949215 13.551544,13.805331 13.364044,13.694884 13.146487,13.617184 12.931789,13.53949 12.682743,13.5 12.396484,13.5 Z M 15,13.5 v 6 h 1.5 v -6 z m -8.4746094,1.013672 h 0.054687 c 0.2721895,0 0.5078009,0.0372 0.7089844,0.111328 0.2011835,0.07116 0.3678694,0.184644 0.4980469,0.341797 0.1331365,0.154189 0.231786,0.355454 0.296875,0.601562 0.065088,0.243143 0.097656,0.537842 0.097656,0.884766 0,0.676056 -0.1158818,1.184397 -0.3496094,1.525391 -0.233728,0.338028 -0.5910225,0.507812 -1.0703124,0.507812 H 6.5253906 Z"/>
 <path style="fill:#8b9cbe" d="M 6.4737425,7.014085 V 9.021958 H 8.5 v 1.014084 H 6.4737425 V 12 H 5 V 6.0000005 H 9 V 7.014085 Z"/>
 <path style="fill:#8b9cbe" d="M 15.185322,12 H 13.877686 L 13.56888,11.032699 H 11.34012 L 11.031133,12 H 9.719051 l 1.970348,-5.9999995 h 1.530022 z M 12.45441,6.809489 c -0.0059,0.02965 -0.01779,0.08154 -0.03558,0.1556705 -0.01483,0.074129 -0.0341,0.1586362 -0.05782,0.2535215 -0.02372,0.094885 -0.05041,0.1986655 -0.08006,0.3113415 -0.02669,0.109711 -0.05486,0.2179393 -0.08451,0.324685 l -0.580559,2.1905935 h 1.67724 L 12.71238,7.8547075 C 12.68273,7.7479618 12.65308,7.6397335 12.62343,7.5300225 12.59674,7.4173465 12.57154,7.313566 12.54782,7.218681 12.5241,7.123796 12.50334,7.0392885 12.48555,6.9651595 L 12.454411,6.809489 Z"/>
 <path style="fill:#8b9cbe" d="m 9.5,15.953299 c 0,0.498147 -0.059171,0.93699 -0.1775145,1.31653 C 9.204142,17.64937 9.032544,17.968125 8.8076925,18.226093 8.5828405,18.481097 8.3062135,18.673832 7.977811,18.804299 7.652367,18.934766 7.2825445,19 6.868343,19 H 5 v -6 h 1.602071 c 0.4674555,0 0.881657,0.05782 1.2426035,0.173462 0.360947,0.115641 0.6642015,0.29355 0.9097635,0.533728 C 9,13.947369 9.184911,14.254262 9.3091715,14.627872 9.4363905,14.998517 9.5,15.440326 9.5,15.953299 Z m -1.318047,0 c 0,-0.346924 -0.032545,-0.641958 -0.097633,-0.885101 C 8.019231,14.82209 7.9201185,14.621942 7.786982,14.467753 7.6568045,14.3106 7.4911245,14.196441 7.289941,14.125278 7.0887575,14.051149 6.852071,14.014084 6.5798815,14.014084 h -0.053624 v 3.971831 h 0.235577 c 0.47929,0 0.835799,-0.169014 1.069527,-0.507042 C 8.065089,17.137879 8.181953,16.629355 8.181953,15.953299 Z"/>
 <path style="fill:#8b9cbe" d="m 14.5,18.115108 c -0.108778,0.09209 -0.236164,0.189928 -0.382157,0.293525 -0.143129,0.103597 -0.304866,0.2 -0.485209,0.289208 -0.177482,0.08633 -0.370707,0.158274 -0.579676,0.215828 C 12.843989,18.971223 12.620706,19 12.383111,19 11.979485,19 11.627386,18.92518 11.326813,18.775539 11.029103,18.623021 10.781489,18.412949 10.58397,18.145324 10.38645,17.877698 10.239027,17.559712 10.141699,17.191366 10.047233,16.820144 10,16.414388 10,15.974101 c 0,-0.480576 0.04724,-0.905036 0.141699,-1.273381 0.09447,-0.371224 0.239026,-0.682015 0.433683,-0.932374 0.197519,-0.253238 0.446565,-0.444604 0.747137,-0.574101 C 11.623091,13.064749 11.980916,13 12.395993,13 c 0.286259,0 0.536736,0.03885 0.751431,0.116547 0.217557,0.0777 0.405057,0.18849 0.5625,0.332374 0.160305,0.141008 0.294847,0.310792 0.403626,0.509353 0.108779,0.198561 0.197519,0.418705 0.266222,0.660432 l -1.176527,0.233093 c -0.07729,-0.28777 -0.183207,-0.50072 -0.317748,-0.638849 -0.134543,-0.141007 -0.293417,-0.211511 -0.476622,-0.211511 -0.206107,0 -0.380726,0.04317 -0.523856,0.129497 -0.14313,0.08345 -0.259065,0.208633 -0.347805,0.37554 -0.08874,0.164028 -0.153149,0.369783 -0.193225,0.617265 -0.04007,0.244605 -0.06011,0.528058 -0.06011,0.85036 0,0.641727 0.0959,1.136691 0.287691,1.484892 0.191794,0.348201 0.483779,0.522302 0.875955,0.522302 0.108778,0 0.2104,-0.01151 0.304866,-0.03453 0.09733,-0.0259 0.183206,-0.05468 0.257634,-0.08633 0.07729,-0.03453 0.143129,-0.06906 0.197518,-0.103597 0.05725,-0.03741 0.101623,-0.06906 0.133111,-0.09496 V 16.999752 H 12 v -0.993504 h 2.5 z"/>
 <rect style="fill:#8b9cbe" width="1.5" height="6" x="15" y="13"/>
 <path style="opacity:0.3" d="m 16,2 v 2 4 h 4 2 V 4 3 C 22,2.446 21.554,2 21,2 h -1 z"/>
 <rect style="opacity:0.2" width="4" height="4" x="16" y="4"/>
 <rect style="opacity:0.1" width="6" height=".5" x="16" y="7.5"/>
 <path style="opacity:0.2;fill:#8b9cbe" d="M 3,2 C 2.446,2 2,2.446 2,3 v 0.5 c 0,-0.554 0.446,-1 1,-1 h 18 c 0.554,0 1,0.446 1,1 V 3 C 22,2.446 21.554,2 21,2 Z"/>
 <rect style="opacity:0.1;fill:#8b9cbe" width="6" height=".5" x="16" y="8"/>
</svg>
