<svg xmlns="http://www.w3.org/2000/svg" height="24" width="24" version="1.1">
 <g transform="translate(1,1)">
  <circle style="opacity:.2" cx="11" r="10" cy="11.5"/>
  <circle style="fill:#fecd38" cx="11" r="10" cy="11"/>
  <path style="opacity:.2;fill:#8b9cbe" d="m11 1a10 10 0 0 0 -10 10 10 10 0 0 0 0.0098 0.293 10 10 0 0 1 9.9902 -9.793 10 10 0 0 1 9.99 9.707 10 10 0 0 0 0.01 -0.207 10 10 0 0 0 -10 -10z"/>
  <path d="m15 4.5h-5l-3 6h3l-2 4h3l-2 5 6-6h-3l3-4h-3z" style="opacity:.2"/>
  <path d="m15 4h-5l-3 6h3l-2 4h3l-2 5 6-6h-3l3-4h-3z" style="fill:#8b9cbe"/>
 </g>
</svg>
