<svg width="24" height="24" version="1.1" xmlns="http://www.w3.org/2000/svg">
 <path d="m22 4.5000001v14c0 2-2 2-2 2h-18zm-4 8.3219999-4.5977 3.678h4.5977z" style="opacity:.2"/>
 <path d="m22 4v14c0 2-2 2-2 2h-18zm-4 8.322-4.5977 3.678h4.5977z" style="fill:#f69a0d"/>
 <path d="m22 4-20 16h0.625l19.375-15.5v-0.5zm-7.972656 12-0.625 0.5h4.597656v-0.5h-3.972656z" style="fill:#8b9cbe;opacity:.2"/>
 <path d="m8.4891402 3.4651561c-0.2190385 0.00485-0.4094285 0.1522045-0.469727 0.3635715l-2 7.0244734c-0.075905 0.266267 0.077507 0.543901 0.3427735 0.620326l7.0000003 2.006992c0.265339 0.07617 0.542005-0.07778 0.618164-0.343972l2-7.0244734c0.0759-0.266267-0.07751-0.5439-0.342774-0.6203255l-6.9999993-2.0069925c-0.04822-0.01397-0.098259-0.02058-0.1484375-0.019599z" style="opacity:.2"/>
 <path d="m8.4891402 2.965156c-0.2190385 0.00485-0.4094285 0.1522045-0.469727 0.3635715l-2 7.0244735c-0.075905 0.266267 0.077507 0.543901 0.3427735 0.620326l7.0000003 2.006992c0.265339 0.07617 0.542005-0.07778 0.618164-0.343972l2-7.0244735c0.0759-0.266267-0.07751-0.5439-0.342774-0.6203255l-6.9999993-2.0069925c-0.04822-0.01397-0.098259-0.02058-0.1484375-0.019599z" style="fill:#d7e50b"/>
 <path d="m8.4882812 2.9648438c-0.2190384 0.0048499-0.4084515 0.1519142-0.46875 0.3632812l-2 7.025391c-0.0363698 0.127581-0.0169413 0.255817 0.0390626 0.365234l1.9609374-6.890625c0.0602985-0.211367 0.2497116-0.3584313 0.46875-0.3632812 0.0501786-9.805e-4 0.1002175 0.0055612 0.1484376 0.0195312l7.0000002 2.0078125c0.138163 0.0398063 0.243809 0.1349672 0.304687 0.2539063l0.039063-0.1347657c0.0759-0.266267-0.078486-0.5427151-0.34375-0.6191406l-7.0000002-2.0078125c-0.0482201-0.01397-0.098259-0.0205117-0.1484376-0.0195312z" style="fill:#8b9cbe;opacity:.2"/>
</svg>
