<svg width="24" height="24" version="1.1" xmlns="http://www.w3.org/2000/svg">
 <g transform="translate(1,1)">
  <rect x="5" y="8" width="12" height="3" style="fill:#885e3d"/>
  <rect x="5" y="14" width="12" height="3" style="fill:#885e3d"/>
  <rect x="5" y="11.5" width="12" height="3" style="opacity:.2"/>
  <rect x="5" y="11" width="12" height="3" style="fill:#c29875"/>
  <path d="m5 11v0.5h12v-0.5z" style="fill:#8b9cbe;opacity:.2"/>
  <rect x="5" y="5.5" width="12" height="3" style="opacity:.2"/>
  <rect x="5" y="5" width="12" height="3" style="fill:#c29875"/>
  <rect x="4" y="4" width="2" height="14" style="fill:#c5c5c5"/>
  <rect x="16" y="4" width="2" height="14" style="fill:#c5c5c5"/>
  <path d="M 2.5,1.5 A 1.5,1.5 0 0 0 1,3 1.5,1.5 0 0 0 2.5,4.5 1.5,1.5 0 0 0 1,6 1.5,1.5 0 0 0 2.5,7.5 1.5,1.5 0 0 0 4,6 1.5,1.5 0 0 0 3.9121094,5.5 H 18.087891 A 1.5,1.5 0 0 0 18,6 1.5,1.5 0 0 0 19.5,7.5 1.5,1.5 0 0 0 21,6 1.5,1.5 0 0 0 19.5,4.5 1.5,1.5 0 0 0 21,3 1.5,1.5 0 0 0 19.5,1.5 1.5,1.5 0 0 0 18,3 1.5,1.5 0 0 0 18.087891,3.5 H 3.9121094 A 1.5,1.5 0 0 0 4,3 1.5,1.5 0 0 0 2.5,1.5 Z" style="opacity:.2"/>
  <path d="M 2.5,1 A 1.5,1.5 0 0 0 1,2.5 1.5,1.5 0 0 0 2.5,4 1.5,1.5 0 0 0 1,5.5 1.5,1.5 0 0 0 2.5,7 1.5,1.5 0 0 0 4,5.5 1.5,1.5 0 0 0 3.9121094,5 H 18.087891 A 1.5,1.5 0 0 0 18,5.5 1.5,1.5 0 0 0 19.5,7 1.5,1.5 0 0 0 21,5.5 1.5,1.5 0 0 0 19.5,4 1.5,1.5 0 0 0 21,2.5 1.5,1.5 0 0 0 19.5,1 1.5,1.5 0 0 0 18,2.5 1.5,1.5 0 0 0 18.087891,3 H 3.9121094 A 1.5,1.5 0 0 0 4,2.5 1.5,1.5 0 0 0 2.5,1 Z" style="fill:#b2bfd9"/>
  <path d="m2.5 15.5a1.5 1.5 0 0 0-1.5 1.5 1.5 1.5 0 0 0 1.5 1.5 1.5 1.5 0 0 0-1.5 1.5 1.5 1.5 0 0 0 1.5 1.5 1.5 1.5 0 0 0 1.5-1.5 1.5 1.5 0 0 0-0.0878906-0.5h14.175782a1.5 1.5 0 0 0-0.08789 0.5 1.5 1.5 0 0 0 1.5 1.5 1.5 1.5 0 0 0 1.5-1.5 1.5 1.5 0 0 0-1.5-1.5 1.5 1.5 0 0 0 1.5-1.5 1.5 1.5 0 0 0-1.5-1.5 1.5 1.5 0 0 0-1.5 1.5 1.5 1.5 0 0 0 0.08789 0.5h-14.175782a1.5 1.5 0 0 0 0.087891-0.5 1.5 1.5 0 0 0-1.5000004-1.5z" style="opacity:.2"/>
  <path d="m2.5 15a1.5 1.5 0 0 0-1.5 1.5 1.5 1.5 0 0 0 1.5 1.5 1.5 1.5 0 0 0-1.5 1.5 1.5 1.5 0 0 0 1.5 1.5 1.5 1.5 0 0 0 1.5-1.5 1.5 1.5 0 0 0-0.0878906-0.5h14.175782a1.5 1.5 0 0 0-0.08789 0.5 1.5 1.5 0 0 0 1.5 1.5 1.5 1.5 0 0 0 1.5-1.5 1.5 1.5 0 0 0-1.5-1.5 1.5 1.5 0 0 0 1.5-1.5 1.5 1.5 0 0 0-1.5-1.5 1.5 1.5 0 0 0-1.5 1.5 1.5 1.5 0 0 0 0.08789 0.5h-14.175782a1.5 1.5 0 0 0 0.087891-0.5 1.5 1.5 0 0 0-1.5000004-1.5z" style="fill:#b2bfd9"/>
  <path d="M 2.5,1 A 1.5,1.5 0 0 0 1,2.5 1.5,1.5 0 0 0 1.0214844,2.7441406 1.5,1.5 0 0 1 2.5,1.5 1.5,1.5 0 0 1 3.9765625,2.7460938 1.5,1.5 0 0 0 4,2.5 1.5,1.5 0 0 0 2.5,1 Z m 17,0 A 1.5,1.5 0 0 0 18,2.5 1.5,1.5 0 0 0 18.021484,2.7421875 1.5,1.5 0 0 1 19.5,1.5 1.5,1.5 0 0 1 20.978516,2.7558594 1.5,1.5 0 0 0 21,2.5 1.5,1.5 0 0 0 19.5,1 Z M 4,3 A 1.5,1.5 0 0 1 3.9121094,3.5 H 18.087891 A 1.5,1.5 0 0 1 18,3 Z M 1.671875,4.25 A 1.5,1.5 0 0 0 1,5.5 1.5,1.5 0 0 0 1.0214844,5.7441406 1.5,1.5 0 0 1 2.5,4.5 1.5,1.5 0 0 1 1.671875,4.25 Z m 18.65625,0 A 1.5,1.5 0 0 1 19.5,4.5 1.5,1.5 0 0 1 20.978516,5.7558594 1.5,1.5 0 0 0 21,5.5 1.5,1.5 0 0 0 20.328125,4.25 Z M 3.9121094,5.5 A 1.5,1.5 0 0 1 3.9785156,5.7558594 1.5,1.5 0 0 0 4,5.5 Z M 18,5.5 A 1.5,1.5 0 0 0 18.023438,5.7539062 1.5,1.5 0 0 1 18.087891,5.5 Z" style="fill:#8b9cbe;opacity:.2"/>
  <path d="M 2.5,15 A 1.5,1.5 0 0 0 1,16.5 1.5,1.5 0 0 0 1.0214844,16.744141 1.5,1.5 0 0 1 2.5,15.5 1.5,1.5 0 0 1 3.9765625,16.746094 1.5,1.5 0 0 0 4,16.5 1.5,1.5 0 0 0 2.5,15 Z m 17,0 A 1.5,1.5 0 0 0 18,16.5 1.5,1.5 0 0 0 18.021484,16.742188 1.5,1.5 0 0 1 19.5,15.5 1.5,1.5 0 0 1 20.978516,16.755859 1.5,1.5 0 0 0 21,16.5 1.5,1.5 0 0 0 19.5,15 Z M 4,17 A 1.5,1.5 0 0 1 3.912109,17.5 H 18.087891 A 1.5,1.5 0 0 1 18,17 Z M 1.671875,18.25 A 1.5,1.5 0 0 0 1,19.5 1.5,1.5 0 0 0 1.0214844,19.744141 1.5,1.5 0 0 1 2.5,18.5 1.5,1.5 0 0 1 1.671875,18.25 Z m 18.65625,0 A 1.5,1.5 0 0 1 19.5,18.5 1.5,1.5 0 0 1 20.978516,19.755859 1.5,1.5 0 0 0 21,19.5 1.5,1.5 0 0 0 20.328125,18.25 Z M 3.9121094,19.5 A 1.5,1.5 0 0 1 3.9785156,19.755859 1.5,1.5 0 0 0 4,19.5 Z M 18,19.5 A 1.5,1.5 0 0 0 18.02344,19.753906 1.5,1.5 0 0 1 18.087891,19.5 Z" style="fill:#8b9cbe;opacity:.2"/>
 </g>
</svg>
