<svg xmlns="http://www.w3.org/2000/svg" width="24" height="24" version="1">
 <circle style="opacity:0.2" cx="12.5" cy="12" r="10.5"/>
 <circle style="fill:#108beb" cx="12.5" cy="11.5" r="10.5"/>
 <path style="fill:#206420" d="m 11.508275,1.056385 a 10.5,10.5 0 0 0 -3.79995,1.10229 C 7.76135,2.3267275 7.6994,2.516305 7.5062,2.683675 7.375475,2.79697 7.268375,2.9734225 7.268375,3.0764275 7.268375,3.39127 7.552925,3.87469 7.78025,3.944935 8.082125,4.038385 7.9808,4.360525 7.5923,4.5385 7.41275,4.620925 7.191725,4.858225 7.101425,5.0656 7.0106,5.2735 6.87725,5.47825 6.8048,5.520775 6.732875,5.563825 6.67355,5.72605 6.67355,5.881975 c 0,0.217875 0.09975,0.3234 0.426825,0.454125 0.23415,0.093975 0.5145,0.162225 0.623175,0.151725 0.625275,-0.0588 0.66885,0.30555 0.122325,1.01745 C 7.55555,7.883275 7.4159,7.9783 7.217975,7.930525 7.0337,7.886425 6.9329,7.9384 6.8489,8.1211 6.7607,8.314825 6.6158,8.38045 6.226775,8.407225 5.84405,8.434 5.6729,8.5117 5.529575,8.721175 5.424575,8.87395 5.273375,8.99785 5.19305,8.99785 c -0.080535,0 -0.26964,0.1029 -0.42042,0.22785 -0.30681,0.254625 -0.426615,0.28035 -0.5341875,0.113925 -0.14217,-0.2205 -0.4489275,-0.1092 -0.905415,0.328125 -0.403725,0.3864 -0.4526025,0.489825 -0.3917025,0.8253 0.10836,0.596925 0.4321275,1.12665 0.8018325,1.31145 0.3226125,0.161175 0.3289125,0.1785 0.1332975,0.38535 -0.1125075,0.119175 -0.30555,0.24675 -0.42861,0.284025 -0.355425,0.10815 -0.1553475,0.2436 0.4788525,0.32445 0.64911,0.08243 0.850815,0.317625 0.547575,0.6384 C 4.30517,13.61575 4.3146725,13.64935 4.586045,13.81945 5.116295,14.1523 5.537975,13.9486 5.040275,13.6 4.7203925,13.375825 4.944095,13.284475 5.41355,13.447225 5.787875,13.5769 5.8619,13.56955 6.082925,13.3774 6.53705,12.984175 7.03055,13.565875 6.615275,14.004775 6.3512,14.2846 6.431,14.62165 6.7733,14.668375 c 0.1512,0.02048 0.46515,0.161175 0.69825,0.3129 0.2331,0.1512 0.4872,0.275625 0.56385,0.275625 0.07665,0 0.29295,0.153825 0.4809,0.341775 0.38115,0.380625 0.592725,0.428925 0.70035,0.16065 0.12915,-0.32235 0.077175,-0.488775 -0.2709,-0.86835 -0.276675,-0.3024 -0.7266,-1.10565 -0.7266,-1.298325 0,-0.11865 0.457275,-0.01785 0.713475,0.156975 0.160125,0.109725 0.419475,0.25095 0.57645,0.315 0.16695,0.06825 0.3402,0.28035 0.419475,0.5124 0.123375,0.36435 0.1722,0.39585 0.609,0.39585 h 0.4746 L 11.08408,15.826 c 0.0861,1.026375 0.168525,1.234275 0.5208,1.3188 0.25935,0.06247 0.536025,0.4641 0.536025,0.77805 0,0.08347 -0.186375,0.288225 -0.414225,0.45465 -0.28245,0.206325 -0.40425,0.381675 -0.38535,0.55335 0.02363,0.214725 -0.0252,0.248325 -0.329175,0.22575 C 10.81633,19.1419 10.47613,19.21067 10.25773,19.309375 9.9989,19.425925 9.71855,19.4632 9.455525,19.41595 9.153125,19.361875 9.05075,19.382875 9.05075,19.501 c 0,0.08715 -0.10605,0.2499 -0.2352,0.36225 -0.3192,0.276675 -0.187425,0.42315 0.302925,0.33495 0.3045,-0.0546 0.42315,-0.03045 0.47565,0.1008 0.111825,0.278775 -0.171675,0.677775 -0.4347,0.61215 -0.16695,-0.042 -0.24675,0.01523 -0.298725,0.2121 -0.01785,0.06983 -0.050925,0.12915 -0.0903,0.17955 a 10.5,10.5 0 0 0 1.661625,0.490875 C 10.379525,21.6934 10.319675,21.60205 10.2614,21.5611 9.991025,21.37 10.17215,20.87335 10.544375,20.7841 10.92395,20.69275 10.8641,20.446525 10.45145,20.399275 c -0.361725,-0.04095 -0.74655,-0.4074 -0.6258,-0.594825 0.081375,-0.125475 0.42735,-0.1071 1.127175,0.0588 0.31605,0.07455 0.531825,-0.0756 1.2642,-0.87675 0.423675,-0.4641 0.7497,-0.6573 1.107225,-0.6573 0.1365,0 0.623175,-0.125475 1.082025,-0.278775 0.86625,-0.290325 1.204875,-0.279825 1.17285,0.03675 -0.06615,0.65835 0.357525,0.6363 1.0479,-0.05355 0.2877,-0.287175 0.550725,-0.495075 0.58485,-0.462525 0.131775,0.126525 -0.105525,0.74235 -0.382725,0.991725 -0.351225,0.31605 -0.36855,0.51555 -0.05932,0.673575 0.16905,0.08715 0.240975,0.263025 0.26775,0.65835 l 0.0357,0.5397 h 0.4389 c 0.153825,0 0.2814,0.021 0.3843,0.06038 a 10.5,10.5 0 0 0 5.08725,-8.66565 c -0.16065,-0.34335 -0.1491,-0.550725 0,-0.78435 a 10.5,10.5 0 0 0 -0.04725,-0.58853 c -0.09555,-0.0047 -0.1932,-0.0089 -0.30555,-0.0042 -0.5292,0.02205 -0.982275,-0.186375 -0.982275,-0.452025 0,-0.056175 -0.18795,-0.2877 -0.417375,-0.513975 -0.2604,-0.2562 -0.39375,-0.483 -0.3549,-0.6006 0.0357,-0.1071 -0.04095,-0.279825 -0.1764,-0.3969 C 20.5682,8.37415 20.46005,8.1904 20.46005,8.08015 c 0,-0.175875 -0.111825,-0.197925 -0.92085,-0.1785 L 18.61835,7.924225 18.6341,8.83195 c 0.0273,1.5897 0.264075,2.00235 0.99435,1.736175 0.334425,-0.122325 1.15605,-0.02993 1.389675,0.1554 0.08452,0.0672 0.20685,0.3108 0.271425,0.5418 0.0651,0.230475 0.30555,0.63 0.5355,0.886725 0.46515,0.5208 0.501375,0.723975 0.234675,1.335075 -0.232575,0.5334 -0.483525,0.471975 -0.43365,-0.106575 l 0.03675,-0.4305 -0.39375,0.0735 c -0.217875,0.04148 -0.490875,0.202125 -0.6132,0.3612 -0.1743,0.226275 -0.255675,0.25935 -0.3864,0.155925 -0.09135,-0.07245 -0.165375,-0.225225 -0.165375,-0.338625 0,-0.1134 -0.11235,-0.2394 -0.24885,-0.280875 -0.137025,-0.04148 -0.32445,-0.2478 -0.416325,-0.459375 -0.147525,-0.3381 -0.14385,-0.441525 0.02782,-0.852075 0.173775,-0.416325 0.17535,-0.4851 0.01522,-0.638925 -0.147,-0.1407 -0.223125,-0.145425 -0.416325,-0.0294 -0.19425,0.116025 -0.286125,0.107625 -0.517125,-0.04725 -0.153825,-0.103425 -0.42315,-0.189 -0.59745,-0.189 -0.354375,0 -0.461475,-0.1722 -0.461475,-0.74235 0,-0.526575 -0.31395,-0.717675 -1.06155,-0.6489 C 15.90935,9.361675 15.7949,9.32755 15.376475,9.0052 15.11765,8.806225 14.7092,8.327425 14.4677,7.939975 14.2262,7.552525 13.966325,7.14775 13.8902,7.04065 13.781,6.885775 13.807775,6.7372 14.02145,6.315625 L 14.2913,5.785375 13.72115,5.86255 c -1.0143,0.137025 -1.219575,0.268275 -0.7833,0.502425 0.1701,0.090825 0.17745,0.13755 0.0462,0.289275 -0.0861,0.0987 -0.126525,0.255675 -0.08925,0.3486 0.03727,0.0924 -0.01,0.3108 -0.104475,0.484575 -0.09502,0.1743 -0.1743,0.418425 -0.17745,0.5439 C 12.6029,8.42245 11.933,8.733775 11.18645,8.6923 10.0556,8.629825 9.963725,8.647675 9.5621,9.020425 9.0602,9.486625 8.995625,9.70345 9.22925,10.13605 c 0.226275,0.42 0.628425,0.587475 1.324575,0.552825 0.62265,-0.03097 0.693,0.02415 0.550725,0.43575 -0.121275,0.34965 -0.527625,0.48405 -0.80325,0.26565 C 10.0892,11.22175 9.357875,11.35195 9.1337,11.5987 9.039725,11.7016 8.900075,11.9725 8.82395,12.1993 8.6927,12.59095 8.654375,12.6151 8.066375,12.6718 7.479425,12.729025 7.422725,12.710125 7.000625,12.3211 6.5297,11.88745 6.4499,11.55565 6.6767,10.98445 6.7775,10.7314 6.85205,10.689925 7.12085,10.739275 7.6532,10.8364 7.8632,10.6516 7.8632,10.083025 7.8632,9.8074 7.80965,9.549625 7.744025,9.510775 7.678925,9.471925 7.625375,9.325975 7.625375,9.1858 7.625375,9.045625 7.558175,8.865025 7.4768,8.78575 7.357625,8.67025 7.37495,8.6083 7.565,8.4739 7.6952,8.382025 7.9094,8.320075 8.04065,8.335825 8.171375,8.351575 8.5331,8.294875 8.844425,8.21035 9.29435,8.089075 9.42665,7.9972 9.48755,7.760425 9.60305,7.311025 9.884975,6.95035 10.121225,6.95035 c 0.373275,0 0.38115,-0.8778 0.01837,-2.1546 C 10.08605,4.607275 9.938525,4.487575 9.678125,4.423 9.467075,4.3705 9.23765,4.22665 9.16835,4.102855 9.099575,3.97906 8.97305,3.87826 8.887475,3.87826 8.8019,3.87826 8.634425,3.77578 8.5163,3.65062 8.397125,3.52462 8.1509,3.42298 7.963475,3.42298 7.51985,3.42298 7.5125,3.117535 7.95245,2.956465 c 0.464625,-0.17031 1.188075,0.05292 1.3629,0.4203675 0.236775,0.4982775 0.4998,0.2903775 0.584325,-0.46242 0.104475,-0.9310875 0.425775,-1.19868 1.4385,-1.19868 h 0.728175 l -0.3192,-0.318885 C 11.647925,1.2973075 11.5655,1.175665 11.508275,1.056385 Z m 3.77475,0.3301725 c -0.02048,0.01848 -0.04043,0.0336 -0.06038,0.054337 -0.2436,0.24864 -0.35805,0.2840775 -0.734475,0.2266425 -0.6573,-0.1002225 -0.572775,0.16443 0.154875,0.4839975 0.393225,0.1727775 0.646275,0.3697575 0.732375,0.5690475 0.41475,0.96159 0.70035,1.4792925 0.843675,1.5317925 0.2898,0.106575 0.462525,-0.10731 0.5271,-0.654045 0.07402,-0.62727 0.286125,-0.7602525 0.667275,-0.4173225 0.14805,0.1330875 0.3549,0.2419725 0.459375,0.2419725 0.326025,0 0.567,0.1308825 0.567,0.30765 0,0.093135 0.11025,0.3175725 0.245175,0.49917 0.198975,0.267225 0.3339,0.331275 0.7056,0.331275 0.456225,0 0.73605,0.085575 1.30725,0.4011 0.0089,0.00472 0.01785,0.0063 0.02678,0.011025 A 10.5,10.5 0 0 0 15.283025,1.3865575 Z M 2.0021,11.455008 a 10.5,10.5 0 0 0 -0.00205,0.04515 10.5,10.5 0 0 0 0.205065,2.01705 c 0.380415,0.154875 0.48552,0.09345 0.525,-0.2604 0.020423,-0.183225 0.1160775,-0.3906 0.2133075,-0.462525 C 3.093625,12.683508 3.066535,12.626808 2.7588325,12.416807 2.5596475,12.280832 2.36335,12.043533 2.32303,11.889707 2.28397,11.740607 2.15188,11.577857 2.0020975,11.455008 Z m 3.3049275,3.470775 c -0.098175,-0.01 -0.2164575,0.04253 -0.3477075,0.168525 -0.2776725,0.26565 -0.235725,0.799575 0.07896,1.010624 0.3606225,0.242026 0.4997475,0.171675 0.5454225,-0.274574 0.056175,-0.5502 -0.061425,-0.882 -0.276675,-0.904575 z m 1.78185,1.5876 c -0.1071,0.0037 -0.225225,0.08032 -0.34335,0.242024 -0.125475,0.17115 -0.1596,0.392175 -0.111825,0.72765 0.059325,0.41265 0.0336,0.50085 -0.182175,0.611625 -0.277725,0.141751 -0.33705,0.56385 -0.109725,0.7812 0.22575,0.2163 0.441,0.1596 0.5187,-0.136499 0.11025,-0.422101 0.728175,-0.471451 1.150275,-0.0924 0.180075,0.1617 0.327075,0.2436 0.327075,0.18165 0,-0.06195 -0.187425,-0.287175 -0.416325,-0.499275 -0.350175,-0.3255 -0.415275,-0.4641 -0.415275,-0.88305 0,-0.59115 -0.181125,-0.940275 -0.417375,-0.932925 z M 4.16258,17.868932 a 10.5,10.5 0 0 0 0.2430225,0.306601 C 4.334045,18.064757 4.252355,17.958707 4.16258,17.868932 Z m 3.5384475,1.61175 c -0.053025,0.01837 -0.0756,0.08505 -0.0756,0.202125 0,0.11865 -0.0756,0.243075 -0.168,0.276675 -0.12285,0.04515 -0.1512,0.187425 -0.10395,0.5271 0.00892,0.06353 0.01155,0.114451 0.0147,0.167475 a 10.5,10.5 0 0 0 0.4368,0.224175 c -0.00735,-0.181649 0.025725,-0.395325 0.12075,-0.663075 0.161175,-0.454649 0.16695,-0.568575 0.0357,-0.648374 -0.12285,-0.07455 -0.20685,-0.104475 -0.2604,-0.0861 z"/>
 <path style="opacity:0.2;fill:none;stroke:#000000;stroke-width:2;stroke-linecap:round;stroke-linejoin:bevel" d="m 11.000829,9.9998605 c 0,0 -0.0077,0.5000925 -1.4999053,0.5000925 -1.4922555,0 -1.4999055,-1.5076795 -1.4999055,-2.999936 0,-1.4922545 0.00765,-2.999811 1.4999055,-2.999811 1.4922553,0 1.4999053,0.499968 1.4999053,0.499968"/>
 <path style="fill:none;stroke:#8b9cbe;stroke-width:2;stroke-linecap:round;stroke-linejoin:bevel" d="m 11.000829,9.499862 c 0,0 -0.0077,0.500091 -1.4999053,0.500091 -1.4922555,0 -1.4999055,-1.507678 -1.4999055,-2.9999345 0,-1.4922545 0.00765,-2.999811 1.4999055,-2.999811 1.4922553,0 1.4999053,0.499968 1.4999053,0.499968"/>
 <path style="opacity:0.2;fill:none;stroke:#000000;stroke-width:2;stroke-linecap:round;stroke-linejoin:bevel" d="m 14.014197,19.490543 c 0,0 3.027186,0.243638 2.994519,-3.002203 -0.03267,-3.245852 -2.994519,-2.997419 -2.994519,-2.997419 m -0.01058,5.994837 v -5.99962"/>
 <path style="fill:none;stroke:#8b9cbe;stroke-width:2;stroke-linecap:round;stroke-linejoin:bevel" d="m 14.014197,18.990543 c 0,0 3.027186,0.243638 2.994519,-3.002203 -0.03267,-3.245852 -2.994519,-2.997419 -2.994519,-2.997419 m -0.01058,5.994837 v -5.99962"/>
 <path style="opacity:0.2;fill:none;stroke:#000000;stroke-width:2;stroke-linecap:round;stroke-linejoin:bevel" d="m 17.000829,9.9999085 c 0,0 -0.0077,0.5000915 -1.499905,0.5000915 -1.492256,0 -1.499906,-1.507679 -1.499906,-2.9999355 0,-1.4922545 0.0077,-2.999811 1.499906,-2.999811 1.492255,0 1.499905,0.499968 1.499905,0.499968"/>
 <path style="fill:none;stroke:#8b9cbe;stroke-width:2;stroke-linecap:round;stroke-linejoin:bevel" d="m 17.000829,9.49991 c 0,0 -0.0077,0.50009 -1.499905,0.50009 -1.492256,0 -1.499906,-1.5076775 -1.499906,-2.999934 0,-1.4922545 0.0077,-2.999811 1.499906,-2.999811 1.492255,0 1.499905,0.499968 1.499905,0.499968"/>
 <path style="opacity:0.2;fill:none;stroke:#000000;stroke-width:2;stroke-linecap:round;stroke-linejoin:round" d="m 8.0142425,13.496318 h 1.739318 c 0,0 1.2606815,-0.104839 1.2606815,1.250202 v 1.749549 H 9.0142425 11.014242 v 1.750451 c 0,1.322511 -1.2606815,1.249797 -1.2606815,1.249797 h -1.739318"/>
 <path style="fill:none;stroke:#f8f8f8;stroke-width:2;stroke-linecap:round;stroke-linejoin:round" d="m 8.0142425,12.996318 h 1.739318 c 0,0 1.2606815,-0.104839 1.2606815,1.250202 v 1.749549 H 9.0142425 11.014242 v 1.750451 c 0,1.322511 -1.2606815,1.249797 -1.2606815,1.249797 h -1.739318"/>
 <path style="fill:#8b9cbe;opacity:0.2" d="M 12.5 1 A 10.5 10.5 0 0 0 2 11.5 A 10.5 10.5 0 0 0 2.0097656 11.796875 A 10.5 10.5 0 0 1 12.5 1.5 A 10.5 10.5 0 0 1 22.990234 11.703125 A 10.5 10.5 0 0 0 23 11.5 A 10.5 10.5 0 0 0 12.5 1 z"/>
</svg>
