<svg xmlns="http://www.w3.org/2000/svg" width="24" height="24" version="1">
 <rect style="opacity:0.2" width="20" height="20" x="2" y="2.5" rx="6" ry="6"/>
 <rect style="fill:#00a3e2" width="20" height="20" x="2" y="2" rx="6" ry="6"/>
 <path style="opacity:0.2;fill:#8b9cbe" d="M 8,2 C 4.676,2 2,4.676 2,8 v 0.5 c 0,-3.324 2.676,-6 6,-6 h 8 c 3.324,0 6,2.676 6,6 V 8 C 22,4.676 19.324,2 16,2 Z"/>
 <path style="opacity:0.2" d="m 8.9995137,12.438975 c 0.096827,2.841132 1.8708603,5.735522 4.6376233,4.833009 1.271316,-0.471082 2.033926,-1.103892 2.509553,-2.175948 L 18,15.750237 c -0.668137,1.483446 -1.859542,2.90833 -3.656763,3.460974 -1.447594,0.433054 -3.083588,0.362883 -4.5101108,-0.102219 C 8.0991265,18.51386 6.9259725,17.088585 6.4545386,15.567688 5.8868423,13.723363 5.8805554,11.763327 6.2714795,9.8918967 6.6051083,8.319081 7.569973,6.7223466 9.3222186,6.0257235 10.795255,5.4318481 12.531292,5.3574464 14.090675,5.7202068 c 1.603945,0.3886413 2.807517,1.5315097 3.438712,2.827531 0.363075,0.352826 -0.0853,0.4110801 -0.398957,0.5137252 L 15.727073,9.5302971 C 15.288369,8.2726659 14.034135,7.562723 12.437886,7.5273628 9.8087279,7.6884816 9.0408818,10.402363 8.9995137,12.438975 Z"/>
 <path style="fill:#8b9cbe" d="m 8.9995137,11.938974 c 0.096827,2.841133 1.8708603,5.735523 4.6376233,4.833009 1.271316,-0.471081 2.033926,-1.103891 2.509553,-2.175947 L 18,15.250237 c -0.668137,1.483446 -1.859542,2.90833 -3.656763,3.460974 -1.447594,0.433054 -3.083588,0.362882 -4.5101108,-0.102219 C 8.0991265,18.01386 6.9259725,16.588584 6.4545386,15.067688 5.8868423,13.223363 5.8805554,11.263327 6.2714795,9.3918965 6.6051083,7.8190808 7.569973,6.2223464 9.3222186,5.5257233 10.795255,4.9318479 12.531292,4.8574462 14.090675,5.2202066 c 1.603945,0.3886413 2.807517,1.5315097 3.438712,2.827531 0.363075,0.352826 -0.0853,0.4110801 -0.398957,0.5137252 L 15.727073,9.0302969 C 15.288369,7.7726657 14.034135,7.0627228 12.437886,7.0273626 9.8087279,7.1884814 9.0408818,9.9023626 8.9995137,11.938974 Z"/>
</svg>
