<svg xmlns="http://www.w3.org/2000/svg" width="24" height="24" version="1">
 <path style="opacity:0.2" d="m 12.090575,8.5021445 a 1.9324752,1.9466645 0 0 0 -1.764339,0.971334 L 7.7929465,13.893904 5.258714,18.314329 a 1.9324752,1.9466645 0 0 0 0.5906285,2.585155 c 0,0 2.4344195,1.600516 6.1506575,1.600516 3.716238,0 6.150657,-1.600516 6.150657,-1.600516 a 1.9324752,1.9466645 0 0 0 0.590629,-2.585155 L 16.207053,13.893904 13.673764,9.4734785 a 1.9324752,1.9466645 0 0 0 -1.583189,-0.971334 z"/>
 <path style="fill:#337f36" d="m 12.090575,8.0021445 a 1.9324752,1.9466645 0 0 0 -1.764339,0.971334 L 7.7929465,13.393904 5.258714,17.814329 a 1.9324752,1.9466645 0 0 0 0.5906285,2.585155 C 5.8493425,20.399484 8.283762,22 12,22 c 3.716238,0 6.150657,-1.600516 6.150657,-1.600516 a 1.9324752,1.9466645 0 0 0 0.590629,-2.585155 L 16.207053,13.393904 13.673764,8.9734785 a 1.9324752,1.9466645 0 0 0 -1.583189,-0.971334 z"/>
 <path style="opacity:0.2" d="M 12.077636,6.501838 A 1.6564074,1.6685697 0 0 0 10.565345,7.33441 l -2.171391,3.788936 -2.1721995,3.788937 a 1.6564074,1.6685697 0 0 0 0.506253,2.215847 c 0,0 2.0866455,1.37187 5.2719915,1.37187 3.185348,0 5.271993,-1.37187 5.271993,-1.37187 a 1.6564074,1.6685697 0 0 0 0.506254,-2.215847 L 15.606046,11.123346 13.434655,7.33441 A 1.6564074,1.6685697 0 0 0 12.077636,6.501838 Z"/>
 <path style="fill:#3e9d43" d="M 12.077636,6.001838 A 1.6564074,1.6685697 0 0 0 10.565345,6.83441 l -2.171391,3.788936 -2.1721995,3.788937 a 1.6564074,1.6685697 0 0 0 0.506253,2.215847 c 0,0 2.0866455,1.37187 5.2719915,1.37187 3.185348,0 5.271993,-1.37187 5.271993,-1.37187 a 1.6564074,1.6685697 0 0 0 0.506254,-2.215847 L 15.606046,10.623346 13.434655,6.83441 A 1.6564074,1.6685697 0 0 0 12.077636,6.001838 Z"/>
 <path style="opacity:0.2" d="m 12.064696,4.5015315 a 1.3803395,1.3904748 0 0 0 -1.260242,0.69381 L 8.9949615,8.352788 7.1847955,11.510236 a 1.3803395,1.3904748 0 0 0 0.4218775,1.846539 c 0,0 1.738871,1.143225 4.393326,1.143225 2.654457,0 4.393327,-1.143225 4.393327,-1.143225 a 1.3803395,1.3904748 0 0 0 0.421878,-1.846539 L 15.005038,8.352788 13.195546,5.1953415 a 1.3803395,1.3904748 0 0 0 -1.13085,-0.69381 z"/>
 <path style="fill:#5dc062" d="m 12.064696,4.0015315 a 1.3803395,1.3904748 0 0 0 -1.260242,0.69381 L 8.9949615,7.852788 7.1847955,11.010236 a 1.3803395,1.3904748 0 0 0 0.4218775,1.846539 c 0,0 1.738871,1.143225 4.393326,1.143225 2.654457,0 4.393327,-1.143225 4.393327,-1.143225 a 1.3803395,1.3904748 0 0 0 0.421878,-1.846539 L 15.005038,7.852788 13.195546,4.6953415 a 1.3803395,1.3904748 0 0 0 -1.13085,-0.69381 z"/>
 <path style="opacity:0.2" d="m 11,12.5 a 1,1 0 0 1 -1,1 1,1 0 0 1 -1,-1 1,1 0 0 1 1,-1 1,1 0 0 1 1,1 z"/>
 <path style="opacity:0.2" d="m 11.999952,2.500091 c -0.360604,0.00534 -0.617775,0.230315 -0.738465,0.6027375 l 0.0045,-0.016795 -0.56659,1.4645345 -1.4108258,0 c -0.00415,-6.92e-5 -0.00811,-6.92e-5 -0.012275,0 -0.228172,0.00766 -0.4339125,0.1180012 -0.5788675,0.3007831 -0.3134935,0.372713 -0.247049,0.809042 0.1510415,1.0870065 L 9.8508145,7.0754741 9.267855,8.4508048 c -6.5e-4,0.00205 -0.00125,0.00415 -0.00185,0.00625 -0.089076,0.303075 -0.00534,0.615315 0.21875,0.828911 0.00155,0.0016 0.0035,0.00315 0.00522,0.0047 0.2692515,0.2479095 0.647566,0.2794185 0.951634,0.074219 0.0058,-0.0039 0.01154,-0.00792 0.01711,-0.01211 l 1.541297,-1.15274 1.54129,1.15274 c 0.0056,0.00415 0.01132,0.00824 0.01711,0.01211 0.304068,0.205199 0.682383,0.17369 0.951634,-0.074219 0.0016,-0.00155 0.0035,-0.0031 0.0052,-0.0047 0.224061,-0.213596 0.307826,-0.525836 0.218749,-0.828911 l -0.0018,-0.00625 -0.582993,-1.3753307 1.002327,-1.137116 c 0.39809,-0.277965 0.464535,-0.714294 0.15104,-1.0870068 -0.144954,-0.182782 -0.350695,-0.2931232 -0.578867,-0.3007832 -0.0042,-6.91e-5 -0.0081,-6.91e-5 -0.01228,0 l -1.410807,0 -0.56659,-1.4645344 0.0045,0.016795 C 12.617727,2.730406 12.360556,2.5054294 11.999952,2.500091 Z"/>
 <path style="fill:#ae3030" d="m 11.999952,1.9996312 c -0.360604,0.00534 -0.617775,0.230315 -0.738465,0.6027375 l 0.0045,-0.016795 -0.56659,1.4645345 -1.4108258,0 c -0.00415,-6.92e-5 -0.00811,-6.92e-5 -0.012275,0 -0.228172,0.00766 -0.4339125,0.1180012 -0.5788675,0.3007831 -0.3134935,0.372713 -0.247049,0.809042 0.1510415,1.0870065 L 9.8508145,6.5750143 9.267855,7.950345 c -6.5e-4,0.00205 -0.00125,0.00415 -0.00185,0.00625 -0.089076,0.303075 -0.00534,0.615315 0.21875,0.828911 0.00155,0.0016 0.0035,0.00315 0.00522,0.0047 0.2692515,0.2479095 0.647566,0.2794185 0.951634,0.074219 0.0058,-0.0039 0.01154,-0.00792 0.01711,-0.01211 l 1.541297,-1.15274 1.54129,1.15274 c 0.0056,0.00415 0.01132,0.00824 0.01711,0.01211 0.304068,0.205199 0.682383,0.17369 0.951634,-0.074219 0.0016,-0.00155 0.0035,-0.0031 0.0052,-0.0047 0.224061,-0.213596 0.307826,-0.525836 0.218749,-0.828911 l -0.0018,-0.00625 -0.582993,-1.3753307 1.002327,-1.137116 c 0.39809,-0.277965 0.464535,-0.714294 0.15104,-1.0870068 -0.144954,-0.182782 -0.350695,-0.2931232 -0.578867,-0.3007832 -0.0042,-6.91e-5 -0.0081,-6.91e-5 -0.01228,0 l -1.410807,0 -0.56659,-1.4645344 0.0045,0.016795 C 12.617727,2.2299462 12.360556,2.0049696 11.999952,1.9996312 Z"/>
 <path style="fill:#ffe15e" d="m 11,12 a 1,1 0 0 1 -1,1 1,1 0 0 1 -1,-1 1,1 0 0 1 1,-1 1,1 0 0 1 1,1 z"/>
 <path style="opacity:0.2" d="m 16,15.5 a 1,1 0 0 1 -1,1 1,1 0 0 1 -1,-1 1,1 0 0 1 1,-1 1,1 0 0 1 1,1 z"/>
 <path style="fill:#ffe15e" d="m 16,15 a 1,1 0 0 1 -1,1 1,1 0 0 1 -1,-1 1,1 0 0 1 1,-1 1,1 0 0 1 1,1 z"/>
 <path style="opacity:0.2" d="m 10,20.5 a 1,1 0 0 1 -1,1 1,1 0 0 1 -1,-1 1,1 0 0 1 1,-1 1,1 0 0 1 1,1 z"/>
 <path style="fill:#ffe15e" d="m 10,20 a 1,1 0 0 1 -1,1 1,1 0 0 1 -1,-1 1,1 0 0 1 1,-1 1,1 0 0 1 1,1 z"/>
 <path style="opacity:0.2" d="M 14,12 A 0.5,0.5 0 0 1 13.5,12.5 0.5,0.5 0 0 1 13,12 0.5,0.5 0 0 1 13.5,11.5 0.5,0.5 0 0 1 14,12 Z"/>
 <path style="fill:#ffe15e" d="M 14,11.5 A 0.5,0.5 0 0 1 13.5,12 0.5,0.5 0 0 1 13,11.5 0.5,0.5 0 0 1 13.5,11 0.5,0.5 0 0 1 14,11.5 Z"/>
 <path style="opacity:0.2" d="M 12,17 A 0.5,0.5 0 0 1 11.5,17.5 0.5,0.5 0 0 1 11,17 0.5,0.5 0 0 1 11.5,16.5 0.5,0.5 0 0 1 12,17 Z"/>
 <path style="fill:#ffe15e" d="M 12,16.5 A 0.5,0.5 0 0 1 11.5,17 0.5,0.5 0 0 1 11,16.5 0.5,0.5 0 0 1 11.5,16 0.5,0.5 0 0 1 12,16.5 Z"/>
 <path style="opacity:0.2" d="M 15,20 A 0.5,0.5 0 0 1 14.5,20.5 0.5,0.5 0 0 1 14,20 0.5,0.5 0 0 1 14.5,19.5 0.5,0.5 0 0 1 15,20 Z"/>
 <path style="fill:#ffe15e" d="M 15,19.5 A 0.5,0.5 0 0 1 14.5,20 0.5,0.5 0 0 1 14,19.5 0.5,0.5 0 0 1 14.5,19 0.5,0.5 0 0 1 15,19.5 Z"/>
 <path style="opacity:0.2" d="M 9,15 A 0.5,0.5 0 0 1 8.5,15.5 0.5,0.5 0 0 1 8,15 0.5,0.5 0 0 1 8.5,14.5 0.5,0.5 0 0 1 9,15 Z"/>
 <path style="fill:#ffe15e" d="M 9,14.5 A 0.5,0.5 0 0 1 8.5,15 0.5,0.5 0 0 1 8,14.5 0.5,0.5 0 0 1 8.5,14 0.5,0.5 0 0 1 9,14.5 Z"/>
 <path style="opacity:0.2" d="M 18,19 A 0.5,0.5 0 0 1 17.5,19.5 0.5,0.5 0 0 1 17,19 0.5,0.5 0 0 1 17.5,18.5 0.5,0.5 0 0 1 18,19 Z"/>
 <path style="fill:#ffe15e" d="M 18,18.5 A 0.5,0.5 0 0 1 17.5,19 0.5,0.5 0 0 1 17,18.5 0.5,0.5 0 0 1 17.5,18 0.5,0.5 0 0 1 18,18.5 Z"/>
 <path style="fill:#8b9cbe;opacity:0.2" d="M 12 2 C 11.639396 2.00534 11.382409 2.22914 11.261719 2.6015625 L 11.265625 2.5859375 L 10.699219 4.0507812 L 9.2890625 4.0507812 C 9.2849125 4.050712 9.2795556 4.050712 9.2753906 4.0507812 C 9.0472186 4.0584412 8.8422206 4.1687806 8.6972656 4.3515625 C 8.4967857 4.5899135 8.4687544 4.8497023 8.5664062 5.0820312 C 8.5991018 5.0040298 8.6344521 4.9262416 8.6972656 4.8515625 C 8.8422206 4.6687806 9.0472186 4.5584412 9.2753906 4.5507812 C 9.2795556 4.550712 9.2849125 4.550712 9.2890625 4.5507812 L 10.699219 4.5507812 L 11.265625 3.0859375 L 11.261719 3.1035156 C 11.382409 2.7310931 11.639396 2.50534 12 2.5 C 12.360604 2.5053384 12.617479 2.7310929 12.738281 3.1035156 L 12.734375 3.0859375 L 13.300781 4.5507812 L 14.710938 4.5507812 C 14.715117 4.5507121 14.720409 4.5507121 14.724609 4.5507812 C 14.952781 4.5584412 15.15778 4.6687805 15.302734 4.8515625 C 15.365548 4.9262416 15.400898 5.0040298 15.433594 5.0820312 C 15.531245 4.8497022 15.503215 4.5899134 15.302734 4.3515625 C 15.15778 4.1687805 14.952781 4.0584413 14.724609 4.0507812 C 14.720409 4.0507121 14.715117 4.0507121 14.710938 4.0507812 L 13.300781 4.0507812 L 12.734375 2.5859375 L 12.738281 2.6015625 C 12.617479 2.2291398 12.360604 2.0053384 12 2 z M 9.7070312 6.9140625 L 9.2675781 7.9511719 C 9.2669281 7.9532219 9.266225 7.9549313 9.265625 7.9570312 C 9.2172349 8.1216753 9.2250323 8.2866836 9.2734375 8.4394531 L 9.8515625 7.0761719 L 9.7070312 6.9140625 z M 14.292969 6.9140625 L 14.148438 7.0761719 L 14.726562 8.4394531 C 14.774971 8.2866836 14.782766 8.1216753 14.734375 7.9570312 L 14.732422 7.9511719 L 14.292969 6.9140625 z"/>
</svg>
