<svg xmlns="http://www.w3.org/2000/svg" width="24" height="24" version="1.1">
 <path style="opacity:0.2" d="m 12,2.5 a 9,8.5 0 0 0 -9,8.5 9,8.5 0 0 0 8.882813,8.49414 c 0.08949,0.0043 0.119782,0.02915 0.11914,0.125 -0.0048,0.873551 -0.0022,1.897785 -0.002,2.771485 1.14e-4,0.03391 0.0029,0.06721 0.0049,0.109375 0.02965,-0.01152 0.0485,-0.01833 0.06641,-0.02636 1.72155,-0.77085 3.301687,-1.74482 4.710937,-2.96582 0.28041,-0.242895 0.548591,-0.497616 0.806641,-0.762696 0.1105,-0.11335 0.22033,-0.228556 0.331055,-0.341796 0.17105,-0.174321 0.319223,-0.369155 0.480468,-0.552735 0.186215,-0.211705 0.353645,-0.436611 0.518555,-0.663086 0.364565,-0.50055 0.690217,-1.022569 0.963867,-1.574219 0.138435,-0.278869 0.270064,-0.559956 0.386719,-0.847656 0.0039,-0.0054 0.0092,-0.0098 0.01172,-0.01563 0.317925,-0.7877 0.521433,-1.603203 0.629883,-2.439453 0.01825,-0.14045 0.02555,-0.281774 0.03808,-0.422851 a 9,8.5 0 0 0 0.0098,-0.116211 c 0.0089,-0.112801 0.02429,-0.225031 0.03027,-0.337891 0.0071,-0.134857 0.0087,-0.269794 0.0088,-0.404297 A 9,8.5 0 0 0 21,11 9,8.5 0 0 0 20.999,10.98535 c -7.5e-4,-0.165322 -0.0063,-0.330438 -0.01758,-0.495117 -1.8e-4,-0.0026 -8e-4,-0.0052 -0.001,-0.0078 A 9,8.5 0 0 0 20.95601,10.233409 C 20.94195,10.095774 20.92473,9.9583435 20.903271,9.821285 A 9,8.5 0 0 0 12,2.5 Z"/>
 <path style="fill:#16a05d" d="m 12,2 a 9,8.5 0 0 0 -9,8.5 9,8.5 0 0 0 8.882813,8.49414 c 0.08949,0.0043 0.119782,0.02915 0.11914,0.125 -0.0048,0.873551 -0.0022,1.897785 -0.002,2.771485 1.14e-4,0.03391 0.0029,0.06721 0.0049,0.109375 0.02965,-0.01152 0.0485,-0.01833 0.06641,-0.02636 1.72155,-0.77085 3.301687,-1.74482 4.710937,-2.96582 0.28041,-0.242895 0.548591,-0.497616 0.806641,-0.762696 0.1105,-0.11335 0.22033,-0.228556 0.331055,-0.341796 0.17105,-0.174321 0.319223,-0.369155 0.480468,-0.552735 0.186215,-0.211705 0.353645,-0.436611 0.518555,-0.663086 0.364565,-0.50055 0.690217,-1.022569 0.963867,-1.574219 0.138435,-0.278869 0.270064,-0.559956 0.386719,-0.847656 0.0039,-0.0054 0.0092,-0.0098 0.01172,-0.01563 0.317925,-0.7877 0.521433,-1.603203 0.629883,-2.439453 0.01825,-0.14045 0.02555,-0.281774 0.03808,-0.422851 a 9,8.5 0 0 0 0.0098,-0.116211 c 0.0089,-0.112801 0.02429,-0.225031 0.03027,-0.337891 0.0071,-0.134857 0.0087,-0.269794 0.0088,-0.404297 A 9,8.5 0 0 0 21,10.5 9,8.5 0 0 0 20.999,10.48535 c -7.5e-4,-0.165322 -0.0063,-0.330438 -0.01758,-0.495117 -1.8e-4,-0.0026 -8e-4,-0.0052 -0.001,-0.00782 A 9,8.5 0 0 0 20.956005,9.7333945 C 20.94195,9.595774 20.92473,9.4583435 20.903271,9.321285 A 9,8.5 0 0 0 12,2 Z"/>
 <path style="opacity:0.2" d="m 10.5625,8.5001529 c -1.04095,0.00125 -2.0812205,3.765e-4 -3.1220705,10e-4 -0.079095,0 -0.153921,0.017515 -0.222656,0.061523 -0.176965,0.112575 -0.2345825,0.2787605 -0.2138675,0.4814455 6.5e-4,0.01043 0.00195,0.020825 0.00195,0.03125 -7e-4,1.0830996 -0.0026,1.8418046 -0.00295,2.9248056 0,0.27507 0.18432,0.493497 0.453125,0.498047 0.071695,0.0013 0.143264,-1.16e-4 0.214844,0 0.65845,0.0013 1.3163595,0.0025 1.9746095,0.0039 -0.05235,0.30395 -0.167558,0.868559 -0.395508,1.083984 -0.18994,0.1794 -0.256005,0.259541 -0.5,0.316407 -0.192445,0.0447 -0.2497725,0.111039 -0.25,0.268554 -1e-4,0.04505 0.00205,0.09046 0.00295,0.135742 -0.0019,0.20502 -0.0039,0.41012 -0.00586,0.615235 9e-4,0.114545 0.00135,0.228343 0.00295,0.342773 0.00195,0.163305 -0.042365,0.255306 0.1171875,0.231446 0.209185,-0.03104 0.413411,-0.07933 0.616211,-0.137696 0.00751,-0.0043 0.01495,-0.0083 0.02246,-0.0127 0.013545,-0.0039 0.02695,-0.0082 0.04004,-0.01172 0.023895,-0.01228 0.0478,-0.02646 0.072265,-0.03711 0.970501,-0.4108 1.628984,-1.411118 1.629884,-2.480469 0.0011,-1.1971 0,-2.393821 0,-3.5908206 L 11,8.9298404 C 10.995,8.7005834 10.795478,8.4998609 10.5625,8.5001529 Z m 6,0 c -1.04095,0.00125 -2.081221,3.765e-4 -3.12207,10e-4 -0.07909,0 -0.153921,0.017515 -0.222656,0.061523 -0.176965,0.112575 -0.234582,0.2787605 -0.213868,0.4814455 6.5e-4,0.01043 0.0019,0.020825 0.0019,0.03125 -7e-4,1.0830996 -0.0026,1.8418046 -0.003,2.9248056 0,0.27507 0.18432,0.493497 0.453125,0.498047 0.0717,0.0013 0.143264,-1.16e-4 0.214844,0 0.65845,0.0013 1.31636,0.0025 1.97461,0.0039 -0.05235,0.30395 -0.167558,0.868559 -0.395508,1.083984 -0.18994,0.1794 -0.256005,0.259541 -0.5,0.316407 -0.192445,0.0447 -0.249773,0.111039 -0.25,0.268554 -10e-5,0.04505 0.0021,0.09046 0.003,0.135742 -0.0019,0.20502 -0.0039,0.41012 -0.0059,0.615235 9e-4,0.114545 0.0014,0.228343 0.003,0.342773 0.002,0.163305 -0.04237,0.255306 0.117187,0.231446 0.209185,-0.03104 0.413411,-0.07933 0.616211,-0.137696 0.0075,-0.0043 0.01495,-0.0083 0.02246,-0.0127 0.01355,-0.0039 0.02695,-0.0082 0.04004,-0.01172 0.02389,-0.01228 0.0478,-0.02646 0.07227,-0.03711 0.9705,-0.4108 1.628983,-1.411118 1.629882,-2.480469 0.0011,-1.1971 0,-2.393821 0,-3.5908206 L 17,8.9386294 c -1.6e-5,-0.232919 -0.201523,-0.4387725 -0.4375,-0.4384765 z"/>
 <path style="fill:#8b9cbe" d="m 10.5625,7.9999824 c -1.04095,0.00125 -2.0812205,3.765e-4 -3.1220705,10e-4 -0.079095,0 -0.153921,0.017515 -0.222656,0.061523 -0.176965,0.1125755 -0.2345825,0.278761 -0.2138675,0.481446 6.5e-4,0.01043 0.00195,0.020825 0.00195,0.03125 -7e-4,1.0831 -0.0026,1.8418046 -0.00295,2.9248066 0,0.27507 0.18432,0.493497 0.453125,0.498047 0.071695,0.0013 0.143264,-1.16e-4 0.214844,0 0.65845,0.0013 1.3163595,0.0025 1.9746095,0.0039 -0.05235,0.30395 -0.167558,0.868559 -0.395508,1.083984 -0.18994,0.1794 -0.256005,0.259541 -0.5,0.316407 -0.192445,0.04471 -0.2497725,0.111039 -0.25,0.268554 -1e-4,0.04505 0.00205,0.09046 0.00295,0.135742 -0.0019,0.20502 -0.0039,0.41012 -0.00586,0.615235 9e-4,0.114545 0.00135,0.228343 0.00295,0.342773 0.00195,0.163305 -0.042365,0.255306 0.1171875,0.231446 0.209185,-0.03104 0.413411,-0.07933 0.616211,-0.137696 0.00751,-0.0043 0.01495,-0.0083 0.02246,-0.0127 0.013545,-0.0039 0.02695,-0.0082 0.04004,-0.01172 0.023895,-0.01228 0.0478,-0.02646 0.072265,-0.03711 0.970501,-0.4108 1.628984,-1.411119 1.629884,-2.480469 0.0011,-1.1971 0,-2.3938216 0,-3.5908216 L 11,8.4296699 C 10.995,8.2004129 10.795478,7.9996904 10.5625,7.9999824 Z m 6,0 c -1.04095,0.00125 -2.081221,3.765e-4 -3.12207,10e-4 -0.07909,0 -0.153921,0.017515 -0.222656,0.061523 -0.176965,0.112575 -0.234582,0.2787605 -0.213868,0.4814455 6.5e-4,0.01043 0.0019,0.020825 0.0019,0.03125 -7e-4,1.0831 -0.0026,1.8418041 -0.003,2.9248071 0,0.27507 0.18432,0.493497 0.453125,0.498047 0.0717,0.0013 0.143264,-1.16e-4 0.214844,0 0.65845,0.0013 1.31636,0.0025 1.97461,0.0039 -0.05235,0.30395 -0.167558,0.868559 -0.395508,1.083984 -0.18994,0.179399 -0.256005,0.259541 -0.5,0.316407 -0.192445,0.04471 -0.249773,0.111038 -0.25,0.268554 -10e-5,0.04505 0.0021,0.09046 0.003,0.135742 -0.0019,0.205019 -0.0039,0.410119 -0.0059,0.615235 9e-4,0.114545 0.0014,0.228343 0.003,0.342773 0.002,0.163304 -0.04237,0.255305 0.117187,0.231446 0.209185,-0.03104 0.413411,-0.07933 0.616211,-0.137696 0.0075,-0.0043 0.01495,-0.0083 0.02246,-0.0127 0.01355,-0.0039 0.02695,-0.0082 0.04004,-0.01172 0.02389,-0.01228 0.0478,-0.02646 0.07227,-0.03711 0.9705,-0.4108 1.628983,-1.411119 1.629882,-2.480469 0.0011,-1.1971 0,-2.3938211 0,-3.5908211 L 17,8.4384589 c -1.6e-5,-0.232919 -0.201523,-0.4387725 -0.4375,-0.4384765 z"/>
 <path style="opacity:0.2;fill:#8b9cbe" d="M 12,2 A 9,8.5 0 0 0 3,10.5 9,8.5 0 0 0 3.0107422,10.704102 9,8.5 0 0 1 12,2.5 9,8.5 0 0 1 20.90332,9.821289 c 0.02146,0.1370585 0.03868,0.274489 0.05273,0.41211 a 9,8.5 0 0 1 0.02442,0.249023 c 1.99e-4,0.0026 8e-4,0.0052 0.001,0.0078 0.0069,0.10134 0.0079,0.20307 0.01074,0.304688 0.0025,-0.0886 0.0058,-0.177256 0.0059,-0.265625 A 9,8.5 0 0 0 21,10.5 9,8.5 0 0 0 20.999,10.48535 c -7.5e-4,-0.165322 -0.0063,-0.330438 -0.01758,-0.495117 -1.8e-4,-0.0026 -8e-4,-0.00519 -0.001,-0.00782 A 9,8.5 0 0 0 20.956005,9.7333945 C 20.94195,9.595774 20.92473,9.4583435 20.903271,9.321285 A 9,8.5 0 0 0 12,2 Z"/>
</svg>
