<svg xmlns="http://www.w3.org/2000/svg" width="24" height="24" version="1">
 <circle style="opacity:0.2" cx="12" cy="12.5" r="10"/>
 <circle style="fill:#28a4e2" cx="12" cy="12" r="10"/>
 <path style="opacity:0.2;fill:#8b9cbe" d="M 12,2 C 6.4605,2 2.001,6.46 2.001,12 c 0,0.08386 -0.002,0.166645 0,0.25 C 2.1331,6.827 6.5445,2.5 12,2.5 c 5.4555,0 9.867,4.3268 9.999,9.75 0.002,-0.08335 0,-0.16614 0,-0.25 C 21.999,6.46 17.5395,2 12,2 Z"/>
 <path style="opacity:0.2" d="M 15.539454,17.064779 C 15.729677,16.695934 16.822718,10.389096 16.978973,8.7587669 17.148015,7.1432479 16.266606,7.4436674 15.455569,7.7165794 13.465781,8.3884579 7.1747015,11.11184 5.4527105,12.010662 c -0.423938,0.175794 -0.6071821,0.474064 -0.298717,0.732223 0.265588,0.218821 1.237427,0.519365 2.0211905,0.671884 0.668123,0.202411 1.1870905,0.0085 1.666141,-0.261695 1.15125,-0.682568 4.581713,-2.853368 4.766448,-2.974369 0.184734,-0.121002 0.386923,0.103558 0.283534,0.212269 -0.10339,0.10871 -2.532899,2.287458 -3.330563,3.272542 -0.42259,0.541643 -0.409932,0.830819 0.02419,1.172375 0.97392,0.763708 3.576036,2.504767 3.963222,2.610002 0.49372,0.134192 0.782877,0.02302 0.991301,-0.381114 z"/>
 <path style="fill:#8b9cbe" d="M 15.539454,16.564779 C 15.729677,16.195934 16.822718,9.8890963 16.978973,8.2587669 17.148015,6.6432479 16.266606,6.9436674 15.455569,7.2165794 13.465781,7.8884579 7.1747015,10.61184 5.4527105,11.510663 c -0.423938,0.175794 -0.6071821,0.474063 -0.298717,0.732223 0.265588,0.218821 1.237427,0.519364 2.0211905,0.671884 0.668123,0.20241 1.1870905,0.0085 1.666141,-0.261695 1.15125,-0.682568 4.581713,-2.8533677 4.766448,-2.9743697 0.184734,-0.121001 0.386923,0.103559 0.283534,0.212269 -0.10339,0.10871 -2.532899,2.2874587 -3.330563,3.2725427 -0.42259,0.541643 -0.409932,0.830819 0.02419,1.172375 0.97392,0.763708 3.576036,2.504766 3.963222,2.610001 0.49372,0.134192 0.782877,0.02302 0.991301,-0.381114 z"/>
</svg>
