<svg xmlns="http://www.w3.org/2000/svg" width="24" height="24" version="1.1">
 <circle style="opacity:0.2" cx="12" cy="12.5" r="10"/>
 <circle style="fill:#b2bfd9" cx="12" cy="12" r="10"/>
 <path style="opacity:0.2;fill:#8b9cbe" d="M 12,2 A 10,10 0 0 0 2,12 10,10 0 0 0 2.0107422,12.291016 10,10 0 0 1 12,2.5 10,10 0 0 1 21.989258,12.208985 10,10 0 0 0 22,12 10,10 0 0 0 12,2 Z"/>
 <path style="opacity:0.1" d="M 9.5816615,10.146178 C 12.273239,9.224945 12.731379,6.825193 12.387774,4.618786 c 0,-0.079612 0.06872,-0.1364791 0.137442,-0.1137325 C 15.102259,5.756109 18,8.485685 18,12.580049 18,15.719061 15.548946,18.49413 11.986901,18.49413 A 5.7267605,5.686616 0 0 1 8.7570075,7.951143 c 0.068722,-0.045495 0.1603495,0 0.1603495,0.079612 0.03436,0.4208095 0.148896,1.4785215 0.6184905,2.115423 z"/>
 <path style="fill:#ff5473" d="M 9.5816615,9.6461776 C 12.273239,8.724945 12.731379,6.325193 12.387774,4.1187859 c 0,-0.079613 0.06872,-0.1364788 0.137442,-0.1137325 C 15.102259,5.256109 18,7.985685 18,12.080049 18,15.219061 15.548946,17.99413 11.986901,17.99413 A 5.7267605,5.686616 0 0 1 8.7570075,7.451143 c 0.068722,-0.045495 0.1603495,0 0.1603495,0.079613 0.03436,0.4208095 0.148896,1.4785205 0.6184905,2.1154226 z"/>
</svg>
