<svg xmlns="http://www.w3.org/2000/svg" width="24" height="24" version="1">
 <path style="opacity:0.2" d="m 12.054151,2.5004985 a 2.2828381,2.27395 0 0 0 -1.19552,0.30335 l -6.717112,3.863 A 2.2828381,2.27395 0 0 0 3,8.6363485 v 7.7264995 a 2.2828381,2.27395 0 0 0 1.141419,1.9693 l 6.717112,3.8632 a 2.2828381,2.27395 0 0 0 2.282838,0 l 6.717112,-3.8632 A 2.2828381,2.27395 0 0 0 21,16.362648 V 8.6361485 a 2.2828381,2.27395 0 0 0 -1.141519,-1.9695 l -6.717112,-3.863 a 2.2828381,2.27395 0 0 0 -1.087518,-0.30335 z"/>
 <path style="opacity:0.2;fill:#8b9cbe" d="m 12.053349,2.001 a 2.2827619,2.27395 0 0 0 -1.19498,0.3027 L 4.1414809,6.167 A 2.2827619,2.27395 0 0 0 3,8.1365 v 0.5 A 2.2827619,2.27395 0 0 1 4.1415809,6.667 L 10.858469,2.8037 A 2.2827619,2.27395 0 0 1 12.053749,2.500965 2.2827619,2.27395 0 0 1 13.141631,2.8037 L 19.858519,6.667 A 2.2827619,2.27395 0 0 1 21,8.6365 v -0.5 A 2.2827619,2.27395 0 0 0 19.858519,6.167 L 13.141631,2.3037 A 2.2827619,2.27395 0 0 0 12.053649,2.001 Z"/>
 <path style="fill:#ee5c37" d="M 3.328125,6.9628905 C 3.1135856,7.3171475 3.0001375,7.722995 3,8.136719 v 7.726562 c 0.00115,0.410556 0.1138576,0.813144 0.3261719,1.165039 L 7.7890625,14.442383 12,12 7.7890625,9.555664 Z"/>
 <path style="fill:#ffbd4b" d="M 7.7890625,14.442383 3.3261719,17.02832 c 0.1987029,0.332673 0.4793742,0.60931 0.8154297,0.803711 l 6.7167974,3.863281 c 0.354248,0.202604 0.756583,0.306813 1.165039,0.301758 V 17.012695 L 12,12 Z"/>
 <path style="fill:#5dc940" d="M 20.669922,6.963867 16.210937,9.555664 12,12 l 4.210937,2.442383 4.464844,2.586914 C 20.887581,16.676922 20.99962,16.273986 21,15.863281 V 8.136719 C 20.9991,7.723143 20.884974,7.3176435 20.669922,6.963867 Z"/>
 <path style="fill:#d5f389" d="M 16.210937,14.442383 12,12 l 0.02343,5.012695 v 4.984375 c 0.392569,-0.0032 0.777691,-0.107074 1.118164,-0.301758 l 6.716797,-3.863281 c 0.33677,-0.194137 0.618136,-0.470796 0.817382,-0.803711 z"/>
 <path style="fill:#7bb7ff" d="m 12.023438,2.0019531 c -0.408456,-0.00506 -0.810791,0.099154 -1.165039,0.3017579 L 4.1416015,6.166992 C 3.8044732,6.3609975 3.52276,6.637668 3.3232422,6.970703 L 7.7890625,9.557617 12,12 12.023438,6.9873045 Z"/>
 <path style="fill:#3683f0" d="m 12.053711,2 v 9.75e-4 c -0.01009,2.588e-4 -0.02018,5.85e-4 -0.03027,9.75e-4 V 6.9873045 L 12,12 16.210937,9.557617 20.674804,6.9716795 C 20.475962,6.6385285 20.194932,6.3615325 19.858398,6.166992 L 13.141602,2.303711 C 12.810247,2.1132752 12.43616,2.0088398 12.053711,2 Z"/>
 <path style="opacity:0.1" d="m 12,6.5 c -0.931298,0 -1.701923,0.771371 -1.701923,1.7028245 0,0.13246 0.04919,0.2503605 0.07843,0.375 C 10.073539,8.0984175 9.5632465,7.759315 8.961238,7.759315 c -0.9311195,0 -1.7028245,0.770445 -1.702825,1.701923 0,0.60213 0.339764,1.112311 0.8194115,1.415264 C 7.952857,10.847137 7.8346215,10.798077 7.701923,10.798077 6.7707915,10.798077 6,11.568934 6,12.5 c 0,0.931137 0.770989,1.701923 1.701923,1.701923 0.132592,0 0.2509545,-0.04915 0.3759015,-0.07843 -0.4796505,0.303049 -0.8194115,0.813943 -0.8194115,1.416166 0,0.930995 0.7703445,1.701922 1.7019235,1.701923 0.6028225,0 1.1133975,-0.34017 1.4161665,-0.820313 -0.02947,0.125231 -0.07843,0.243729 -0.07843,0.376803 0,0.931412 0.770887,1.701923 1.701923,1.701923 0.930894,0 1.701923,-0.770577 1.701923,-1.701923 0,-0.132775 -0.04911,-0.250977 -0.07843,-0.375902 0.302826,0.479656 0.812813,0.819411 1.415264,0.819412 0.931544,0 1.701923,-0.770864 1.701923,-1.701923 0,-0.602375 -0.339636,-1.113161 -0.819411,-1.416167 0.125379,0.02951 0.244633,0.07843 0.377704,0.07843 C 17.229806,14.201923 18,13.431269 18,12.5 c 0,-0.931197 -0.769997,-1.701923 -1.701022,-1.701923 -0.133012,0 -0.251691,0.04901 -0.376802,0.07843 0.479606,-0.302939 0.81941,-0.813091 0.819411,-1.415264 0,-0.9311495 -0.770858,-1.701923 -1.701923,-1.701923 -0.602697,0 -1.113366,0.3399725 -1.416167,0.820312 0.0295,-0.125158 0.07843,-0.2436965 0.07843,-0.3768025 C 13.701923,7.2710375 12.930894,6.5 12,6.5 Z"/>
 <path style="fill:#17191e" d="m 12,6 c -0.931298,0 -1.701923,0.771371 -1.701923,1.7028245 0,0.13246 0.04919,0.2503605 0.07843,0.375 C 10.073539,7.5984175 9.5632465,7.259315 8.961238,7.259315 c -0.9311195,0 -1.7028245,0.770445 -1.702825,1.701923 0,0.60213 0.339764,1.112311 0.8194115,1.415264 C 7.952857,10.347137 7.8346215,10.298077 7.701923,10.298077 6.7707915,10.298077 6,11.068934 6,12 c 0,0.931137 0.770989,1.701923 1.701923,1.701923 0.132592,0 0.2509545,-0.04915 0.3759015,-0.07843 -0.4796505,0.303049 -0.8194115,0.813943 -0.8194115,1.416166 0,0.930995 0.7703445,1.701922 1.7019235,1.701923 0.6028225,0 1.1133975,-0.34017 1.4161665,-0.820313 -0.02947,0.12523 -0.07843,0.243729 -0.07843,0.376803 C 10.298077,17.229489 11.068964,18 12,18 c 0.930894,0 1.701923,-0.770577 1.701923,-1.701923 0,-0.132775 -0.04911,-0.250977 -0.07843,-0.375901 0.302826,0.479655 0.812813,0.81941 1.415264,0.819411 0.931544,0 1.701923,-0.770864 1.701923,-1.701923 0,-0.602375 -0.339636,-1.113161 -0.819411,-1.416167 0.125379,0.02951 0.244633,0.07843 0.377704,0.07843 C 17.229806,13.701923 18,12.931269 18,12 c 0,-0.931197 -0.769997,-1.701923 -1.701022,-1.701923 -0.133012,0 -0.251691,0.04901 -0.376802,0.07843 0.479606,-0.302939 0.81941,-0.8130915 0.819411,-1.415264 0,-0.9311495 -0.770858,-1.701923 -1.701923,-1.701923 -0.602697,0 -1.113366,0.3399725 -1.416167,0.820312 0.0295,-0.125158 0.07843,-0.2436965 0.07843,-0.3768025 C 13.701923,6.7710375 12.930894,6 12,6 Z"/>
 <path style="opacity:0.2" d="m 13.532933,13.134989 h 1.891918 c 0.166349,0.173165 0.400182,0.280667 0.659861,0.280667 0.505321,0 0.915288,-0.409696 0.915288,-0.915692 0,-0.505727 -0.409967,-0.915626 -0.915288,-0.915626 -0.259139,0 -0.493512,0.108042 -0.659861,0.281004 h -1.891918 l 1.337537,-1.338077 c 0.0061,0 0.01174,5e-4 0.01789,5e-4 0.505725,0 0.915625,-0.409966 0.915625,-0.915692 0,-0.505794 -0.4099,-0.9156245 -0.915626,-0.9156245 -0.505794,0 -0.915693,0.4098315 -0.915693,0.9156245 0,0.00567 3.38e-4,0.011745 3.38e-4,0.01748 L 12.6354,10.967359 V 9.0758445 c 0.17276,-0.1667525 0.280667,-0.400451 0.280667,-0.6595225 0,-0.5064685 -0.410371,-0.916232 -0.915692,-0.916232 -0.505862,0 -0.915963,0.410033 -0.915963,0.916232 0,0.2590715 0.10784,0.49277 0.280734,0.6595225 V 10.967359 L 10.027403,9.629541 c 0,-0.00573 2.71e-4,-0.011805 2.71e-4,-0.017475 0,-0.505794 -0.409697,-0.9156245 -0.9156255,-0.9156245 -0.5059285,0 -0.9161655,0.4098315 -0.9161655,0.9156245 0,0.505727 0.4098315,0.915692 0.9157605,0.915692 0.00581,0 0.011745,-5e-4 0.017415,-5e-4 l 1.3380755,1.338076 H 8.575149 C 8.4085975,11.692046 8.174697,11.584342 7.9155575,11.584342 7.4098315,11.584342 7,11.994241 7,12.499967 c 0,0.505997 0.4098315,0.915693 0.9155575,0.915693 0.2591395,0 0.493377,-0.107503 0.659591,-0.280667 h 1.8919855 l -1.338076,1.337739 c -0.00567,0 -0.011605,-5e-4 -0.01741,-5e-4 -0.505929,0 -0.9157605,0.409831 -0.9157605,0.916098 0,0.505456 0.4098315,0.915759 0.9157605,0.915759 0.5058615,0 0.915761,-0.410303 0.915761,-0.91576 0,-0.0061 -5.01e-4,-0.01181 -5.01e-4,-0.01782 l 1.337672,-1.337941 v 1.892121 c -0.172759,0.166349 -0.280532,0.400047 -0.280532,0.659658 0,0.505794 0.410168,0.915558 0.91603,0.915558 0.505321,0 0.915422,-0.409764 0.915422,-0.915558 0,-0.259206 -0.107839,-0.493309 -0.280531,-0.659658 v -1.892121 l 1.337671,1.337941 c 0,0.006 -4.06e-4,0.01134 -4.06e-4,0.01782 0,0.505457 0.409765,0.915761 0.915626,0.915761 0.505795,0 0.915693,-0.410304 0.915693,-0.91576 0,-0.506267 -0.409899,-0.916099 -0.915693,-0.916099 -0.0061,0 -0.0116,5e-4 -0.01775,5e-4 z"/>
 <path style="fill:#8b9cbe" d="m 13.532933,12.634989 h 1.891918 c 0.166349,0.173165 0.400182,0.280667 0.659861,0.280667 0.505321,0 0.915288,-0.409696 0.915288,-0.915692 0,-0.505727 -0.409967,-0.915626 -0.915288,-0.915626 -0.259139,0 -0.493512,0.108042 -0.659861,0.281004 h -1.891918 l 1.337537,-1.338077 c 0.0061,0 0.01174,5e-4 0.01789,5e-4 0.505725,0 0.915625,-0.4099655 0.915625,-0.915692 0,-0.505794 -0.4099,-0.9156245 -0.915626,-0.9156245 -0.505794,0 -0.915693,0.4098315 -0.915693,0.9156245 0,0.00567 3.38e-4,0.011745 3.38e-4,0.01748 L 12.6354,10.467359 V 8.5758445 c 0.17276,-0.1667525 0.280667,-0.400451 0.280667,-0.6595225 0,-0.5064685 -0.410371,-0.916232 -0.915692,-0.916232 -0.505862,0 -0.915963,0.410033 -0.915963,0.916232 0,0.2590715 0.10784,0.49277 0.280734,0.6595225 V 10.467359 L 10.027403,9.129541 c 0,-0.00573 2.71e-4,-0.011805 2.71e-4,-0.017475 0,-0.505794 -0.409697,-0.9156245 -0.9156255,-0.9156245 -0.5059285,0 -0.9161655,0.4098315 -0.9161655,0.9156245 0,0.5057265 0.4098315,0.915692 0.9157605,0.915692 0.00581,0 0.011745,-5e-4 0.017415,-5e-4 l 1.3380755,1.338076 H 8.575149 C 8.4085975,11.192046 8.174697,11.084342 7.9155575,11.084342 7.4098315,11.084342 7,11.494241 7,11.999967 c 0,0.505997 0.4098315,0.915693 0.9155575,0.915693 0.2591395,0 0.493377,-0.107503 0.659591,-0.280667 h 1.8919855 l -1.338076,1.337739 c -0.00567,0 -0.011605,-5e-4 -0.01741,-5e-4 -0.505929,0 -0.9157605,0.409831 -0.9157605,0.916098 0,0.505456 0.4098315,0.91576 0.9157605,0.91576 0.5058615,0 0.915761,-0.410304 0.915761,-0.91576 0,-0.0061 -5.01e-4,-0.01181 -5.01e-4,-0.01782 l 1.337672,-1.337941 v 1.89212 c -0.172759,0.166349 -0.280532,0.400047 -0.280532,0.659659 0,0.505793 0.410168,0.915557 0.91603,0.915557 0.505321,0 0.915422,-0.409764 0.915422,-0.915557 0,-0.259207 -0.107839,-0.49331 -0.280531,-0.659659 v -1.89212 l 1.337671,1.337941 c 0,0.006 -4.06e-4,0.01134 -4.06e-4,0.01782 0,0.505456 0.409765,0.91576 0.915626,0.91576 0.505795,0 0.915693,-0.410304 0.915693,-0.91576 0,-0.506267 -0.409899,-0.916099 -0.915693,-0.916099 -0.0061,0 -0.0116,5.01e-4 -0.01775,5.01e-4 z"/>
 <path style="opacity:0.2;fill:#8b9cbe" d="m 12.053711,2 v 9.75e-4 A 2.2828381,2.27395 0 0 0 10.858399,2.303711 L 4.1416015,6.166992 A 2.2828381,2.27395 0 0 0 3,8.136719 v 0.5 A 2.2828381,2.27395 0 0 1 4.1416015,6.666992 L 10.858399,2.803711 A 2.2828381,2.27395 0 0 1 12.053711,2.5009765 V 2.5 a 2.2828381,2.27395 0 0 1 1.087891,0.303711 l 6.716796,3.863281 A 2.2828381,2.27395 0 0 1 21,8.635742 V 8.136719 A 2.2828381,2.27395 0 0 0 19.858398,6.166992 L 13.141602,2.303711 A 2.2828381,2.27395 0 0 0 12.053711,2 Z"/>
</svg>
