<svg xmlns="http://www.w3.org/2000/svg" width="24" height="24" version="1">
 <path style="opacity:0.2" d="m 12,2.5 a 10,10 0 0 0 -10,10 10,10 0 0 0 0.7792969,3.846679 L 2.0976563,18.890625 A 2.8681372,2.8679292 0 0 0 5.609375,22.402344 L 8.1416015,21.723633 A 10,10 0 0 0 12,22.5 10,10 0 0 0 22,12.5 10,10 0 0 0 12,2.5 Z"/>
 <circle style="fill:#3a76f0" cx="12" cy="12" r="10"/>
 <path style="fill:#3a76f0" d="M 7.575501,6.000295 A 2.8681372,2.8679292 0 0 0 4.8476825,8.1258225 L 2.0974589,18.390806 a 2.8681372,2.8679292 0 0 0 3.5119966,3.511743 L 15.875184,19.152525 a 2.8681372,2.8679292 0 0 0 1.285491,-4.79714 L 9.6451705,6.8404245 A 2.8681372,2.8679292 0 0 0 7.575501,6.000295 Z"/>
 <path style="opacity:0.2" d="m 12,5.5 a 7,7 0 0 0 -7,7 7,7 0 0 0 0.9404295,3.488281 L 5,19.5 8.5078125,18.560547 A 7,7 0 0 0 12,19.5 a 7,7 0 0 0 7,-7 7,7 0 0 0 -7,-7 z"/>
 <circle style="fill:#8b9cbe" cx="12" cy="12" r="7"/>
 <path style="fill:#8b9cbe" d="m 6.607697,12.999993 4.392305,4.392304 -6.0000002,1.607695 z"/>
 <path style="opacity:0.5;fill:#8b9cbe" d="m 11.108399,3.0449219 -0.05078,0.00489 -0.841796,0.1298828 -0.04883,0.00977 -0.2724615,0.070312 0.2509775,0.9677734 0.241211,-0.0625 0.800782,-0.1230489 0.837891,-0.042969 -0.05078,-0.998047 z m 1.750976,0.5458984 -0.06934,0.4472656 0.823242,0.1269531 0.766602,0.1992188 0.253906,0.09375 L 14.978516,3.5195313 14.69336,3.4140625 14.646485,3.399414 13.833008,3.1894531 13.784178,3.1796876 12.942382,3.0498047 12.8916,3.0449198 H 12.8867 Z M 8.526367,3.7011719 8.481447,3.7207029 7.7382825,4.0791013 7.6962925,4.1025388 7.025394,4.510742 7.545902,5.3652345 8.1953125,4.96875 8.902344,4.6279297 9.2373045,4.5048828 8.892578,3.5664063 Z m 6.982422,1.125 0.295899,0.1425781 0.666015,0.40625 0.628906,0.4716795 0.243164,-0.325195 0.399414,-0.4384765 -0.0068,-0.00586 L 17.699217,5.046873 17.043944,4.555662 17.004879,4.529295 16.303707,4.1025372 16.261717,4.0790997 15.944334,3.9257794 Z M 5.660156,5.6259765 5.625976,5.6601565 5.077148,6.264649 5.046873,6.300779 4.7392558,6.7109355 5.5390605,7.310545 5.8339825,6.91699 6.350584,6.350584 6.828123,5.915037 6.156248,5.175779 Z M 17.762695,6.4746095 18.166015,6.916992 18.625,7.529297 18.90625,7.991211 19.760742,7.470703 19.470703,6.995117 19.444338,6.956052 18.953127,6.3007785 18.922852,6.2646485 18.50293,5.801758 Z M 4.102539,7.696289 4.079102,7.738279 3.7207036,8.4814435 l -0.019531,0.04492 -0.2871094,0.7802735 -0.014649,0.046875 -0.054687,0.211914 0.96875,0.25 L 4.3642578,9.6191405 4.6279297,8.902344 4.96875,8.1953125 5.0214845,8.109375 4.1679687,7.588867 Z m 15.238281,1.140625 0.03027,0.064453 0.264648,0.7177735 0.199219,0.7675785 0.03418,0.21875 0.988282,-0.151367 -0.03711,-0.238281 -0.0098,-0.04883 -0.209961,-0.813477 -0.01465,-0.046875 -0.28711,-0.7802735 -0.01953,-0.04492 -0.03809,-0.080078 z M 3.0498047,11.057617 3.0449219,11.108399 3.0009765,11.97461 3,12.017578 l 0.016602,0.46875 0.00195,0.03223 0.019532,0.189454 0.9951151,-0.09961 L 4.0146484,12.431641 4,11.997071 4.0419922,11.1875 4.1103515,10.742188 3.1220703,10.589844 Z M 19.976562,11.547852 20,12 l -0.04199,0.8125 -0.0957,0.625 0.988281,0.151367 0.09961,-0.646484 0.0049,-0.05078 0.04395,-0.866211 v -0.05078 l -0.02442,-0.477539 z m -16.7705073,2.205078 0.041992,0.19043 0.010742,0.03906 0.2714844,0.881836 0.016602,0.0459 0.3388672,0.813477 L 4.8095708,15.338862 4.4794927,14.54687 4.2207036,13.710933 4.1816406,13.536128 Z m 16.4365233,0.607422 h -0.001 l -0.0049,0.01758 -0.264649,0.719726 -0.34082,0.707032 -0.147461,0.241211 0.854492,0.520507 0.15918,-0.262695 0.02343,-0.04199 0.358398,-0.743164 0.01953,-0.04492 0.28711,-0.780274 0.01465,-0.04687 0.0088,-0.03613 -0.841797,-0.217773 -0.120117,-0.04395 z M 3.1171875,18.296875 4.0830078,18.55664 4.6015625,16.624023 3.6357422,16.365234 Z m 15.0478515,-1.212891 -0.515625,0.56543 -0.566406,0.516601 -0.01074,0.0078 10e-4,10e-4 -0.0098,0.0088 0.0918,0.101562 0.516601,0.689453 0.02735,-0.02149 0.03614,-0.03027 0.604492,-0.548828 0.03418,-0.03418 0.548828,-0.604492 0.03027,-0.03613 0.199219,-0.265625 -0.800782,-0.59961 z m -2.360351,1.947266 -0.707032,0.34082 -0.504882,0.185547 0.344726,0.938477 0.536133,-0.197266 0.04492,-0.01953 0.743164,-0.358399 0.04199,-0.02343 0.515625,-0.314453 L 16.299801,18.7295 Z M 3.5585938,19.410156 3.0664063,19.516601 v 10e-4 l 0.030273,0.09277 0.1513673,0.350586 0.064453,0.108398 0.2324219,0.298828 0.086914,0.08692 0.2988281,0.232421 0.1083984,0.06445 0.350586,0.151367 0.092773,0.03027 0.1904297,0.04101 0.066406,0.0098 0.1972656,0.0156 0.06836,0.001 0.085937,-0.0049 -0.057618,-0.998047 -0.045899,0.003 L 4.8505859,19.990234 4.7402344,19.96582 4.4941406,19.859375 4.2958984,19.704101 4.140625,19.505859 4.0136719,19.21289 Z m 2.3466797,0.382813 0.258789,0.96582 L 8.095703,20.241211 7.836914,19.27539 Z m 2.8125,0.506835 0.3710935,0.154297 0.04492,0.0166 0.883789,0.271485 0.03907,0.01074 0.451172,0.09961 0.02832,0.0059 0.208984,0.0332 0.15918,-0.987304 -0.180664,-0.02832 -0.0059,-10e-4 -0.430664,-0.0957 L 9.447265,19.520484 9.1025385,19.376929 Z M 13.612305,19.834961 12.8125,19.958008 12.000977,20 l -0.165039,-0.0059 -0.03418,0.999024 0.178711,0.0068 0.04297,-0.001 0.868164,-0.04394 0.05078,-0.0049 0.841797,-0.129883 0.04883,-0.0098 0.09668,-0.02539 -0.25,-0.967773 z"/>
 <path style="opacity:0.2;fill:#8b9cbe" d="M 12,2 A 10,10 0 0 0 2,12 10,10 0 0 0 2.0107422,12.202149 10,10 0 0 1 12,2.5 10,10 0 0 1 21.989258,12.291016 10,10 0 0 0 22,12 10,10 0 0 0 12,2 Z m -9.2978515,14.134765 -0.6044922,2.25586 a 2.8681372,2.8679292 0 0 0 -0.083008,0.989258 2.8681372,2.8679292 0 0 1 0.083008,-0.489258 l 0.6816406,-2.543946 a 10,10 0 0 1 -0.077148,-0.211914 z"/>
</svg>
