<svg xmlns="http://www.w3.org/2000/svg" width="24" height="24" version="1">
 <rect style="fill:#1b9dce" width="20" height="20" x="2" y="2" rx="10" ry="10"/>
 <path style="opacity:0.2;fill:#8b9cbe" d="m 12.0009,2 c -5.54,0 -10,4.46 -10,10 0,0.084 -0.002,0.166 0,0.25 0.1322,-5.423 4.544,-9.75 10,-9.75 5.456,0 9.868,4.327 10,9.75 0.002,-0.084 0,-0.166 0,-0.25 0,-5.54 -4.46,-10 -10,-10 z"/>
 <path style="opacity:0.2" d="m 2.0067,12.25 c -0.002,0.084 -0.0058,0.166 -0.0058,0.25 0,5.54 4.46,10 10,10 5.54,0 10,-4.46 10,-10 0,-0.084 -0.004,-0.1665 -0.006,-0.25 -0.132,5.423 -4.538,9.75 -9.994,9.75 -5.456,0 -9.862,-4.327 -9.994,-9.75 z"/>
 <path style="opacity:0.2" d="M 11.9699,6.4997 C 11.3659,6.4936 10.7663,6.5779 10.1845,6.7282 7.4719,7.4135 5.4518,9.8537 5.4931,12.5 l -1.4922,0 2.2871,3 2.1875,-3 -1.4316,0 c -0.0052,-1.109 0.4356,-2.1359 1.2187,-2.9632 1.472,-1.6671 4.2313,-2.0584 6.1873,-0.9434 0.65,0.8013 2.093,-0.0786 1.336,-0.9003 -1.077,-0.7903 -2.456,-1.1906 -3.816,-1.1934 z m 5.7441,3 -2.1875,3 1.4316,0 c 0.0052,1.1082 -0.43559,2.1356 -1.2188,2.9629 -1.472,1.6671 -4.2311,2.0584 -6.1875,0.94336 -0.64989,-0.80128 -2.0932,0.07864 -1.3359,0.90039 1.0772,0.79028 2.4564,1.1906 3.8164,1.1934 0.60419,0.0061 1.2033,-0.07816 1.7852,-0.22852 2.7126,-0.68526 4.7327,-3.1255 4.6914,-5.7715 l 1.4922,0 -2.2871,-3 z"/>
 <path style="fill:#77ffe4" d="M 11.9699,6 C 11.3659,5.9939 10.7663,6.0782 10.1845,6.2285 7.4719,6.9138 5.4518,9.3541 5.4931,12 L 4.0009,12 6.288,15 8.4755,12 7.0439,12 C 7.0387,10.8918 7.4795,9.8644 8.2626,9.0371 c 1.472,-1.667 4.2313,-2.0584 6.1873,-0.9433 0.65,0.8012 2.093,-0.0787 1.336,-0.9004 C 14.7089,6.4031 13.3299,6.0028 11.9699,6 Z m 5.7441,3 -2.1875,3 1.4316,0 c 0.0052,1.1082 -0.43559,2.1356 -1.2188,2.9629 -1.472,1.6671 -4.2311,2.0584 -6.1875,0.94336 -0.64989,-0.80128 -2.0932,0.07864 -1.3359,0.90039 1.0772,0.79028 2.4564,1.1906 3.8164,1.1934 0.60419,0.0061 1.2033,-0.07816 1.7852,-0.22852 2.7126,-0.68526 4.7327,-3.1255 4.6914,-5.7715 l 1.491,0 -2.287,-3 z"/>
</svg>
