<svg xmlns="http://www.w3.org/2000/svg" height="24" width="24" version="1.1">
 <g transform="translate(1,1)">
  <path d="m5 18-3-5v-5l4-3 11 11-4 4h-4z" style="fill:#63637c"/>
  <circle cx="13" cy="9.5" r="7" style="opacity:.2"/>
  <circle cx="13" cy="9" r="7" style="fill:#345ed2"/>
  <path style="opacity:.2;fill:#8b9cbe" d="m13 2a7 7 0 0 0 -7 7 7 7 0 0 0 0.0097656 0.2929688 7 7 0 0 1 6.9902344 -6.7929688 7 7 0 0 1 6.990234 6.7070312 7 7 0 0 0 0.009766 -0.2070312 7 7 0 0 0 -7 -7z"/>
  <path d="m11 1.5c-5.5228475 0-10 4.4771525-10 10 0 5.522847 4.4771525 10 10 10 5.522847 0 10-4.477153 10-10-0.004525-1.369694-0.290381-2.7238555-0.839844-3.9785156-0.053788-0.0063107-0.103166-0.0214844-0.160156-0.0214844-2 0-2 1-2 1s-1 7-3 9-7 3-10 0-3-7-1-9 10-4 10-4 1 0 1-2c0-0.0617686-0.0181-0.115816-0.027344-0.1738281-1.253845-0.543981-2.605893-0.8251591-3.972656-0.8261719z" style="opacity:.2"/>
  <path d="m11 1c-5.5228475 0-10 4.4771525-10 10 0 5.522847 4.4771525 10 10 10 5.522847 0 10-4.477153 10-10-0.004525-1.3696936-0.290381-2.7238555-0.839844-3.9785156-0.053788-0.0063107-0.103166-0.0214844-0.160156-0.0214844-2 0-2 1-2 1s-1 7-3 9-7 3-10 0-3-7-1-9 10-4 10-4 1 0 1-2c0-0.0617686-0.0181-0.115816-0.027344-0.1738281-1.253845-0.543981-2.605893-0.8251591-3.972656-0.8261719z" style="fill:#b2bfd9"/>
  <path style="opacity:.2;fill:#8b9cbe" d="m11 1c-5.5228475 0-10 4.4771525-10 10 0 0.08447 0.00964 0.166034 0.011719 0.25 0.1340639-5.4060925 4.5499016-9.75 9.988281-9.75 1.366763 0.00101 2.718811 0.2821909 3.972656 0.8261719 0.0015 0.00911 0.0021 0.018389 0.0039 0.027344 0.008369-0.116561 0.023444-0.2196297 0.023444-0.3535159 0-0.0617686-0.0181-0.115816-0.027344-0.1738281-1.253845-0.543981-2.605893-0.8251591-3.972656-0.8261719zm9 6c-2 0-2 1-2 1s-1 7-3 9-7 3-10 0c-1.5794935-1.579494-2.3205737-3.434801-2.3828125-5.130859-0.079598 1.824587 0.6465708 3.894617 2.3828125 5.630859 3 3 8 2 10 0s3-9 3-9 0-1 2-1c0.05699 0 0.106368 0.015174 0.160156 0.021484 0.517739 1.1822202 0.791353 2.4535293 0.826172 3.742188 0.002317-0.08855 0.013672-0.174563 0.013672-0.263672-0.004525-1.3696936-0.290381-2.7238555-0.839844-3.9785156-0.053788-0.0063107-0.103166-0.0214844-0.160156-0.0214844z"/>
 </g>
</svg>
