<svg xmlns="http://www.w3.org/2000/svg" width="24" height="24" version="1.1">
 <path style="opacity:0.2" d="m 3,4.5 a 2.0002,2.0002 0 0 0 -2,2 v 12 a 2.0002,2.0002 0 0 0 2,2 h 6 a 2.0002,2.0002 0 0 0 2,-2 v -5 H 7 v 3 H 5 v -8 h 2 v 3 h 4 v -5 a 2.0002,2.0002 0 0 0 -2,-2 z m 12,0 a 2.0002,2.0002 0 0 0 -2,2 v 6 a 2.0002,2.0002 0 0 0 2,2 h 4 v 2 h -2 v -1 h -4 v 3 a 2.0002,2.0002 0 0 0 2,2 h 6 a 2.0002,2.0002 0 0 0 2,-2 v -6 a 2.0002,2.0002 0 0 0 -2,-2 h -4 v -2 h 2 v 1 h 4 v -3 a 2.0002,2.0002 0 0 0 -2,-2 z"/>
 <path style="fill:none;stroke:#43c3ff;stroke-width:4;stroke-linejoin:round" d="M 9,11 V 6 H 3 v 12 h 6 v -5"/>
 <path style="fill:none;stroke:#43c3ff;stroke-width:4;stroke-linejoin:round" d="M 21,9 V 6 h -6 v 6 h 6 v 6 h -6 v -3"/>
 <path style="fill:#4572ab" d="M 8 14 L 8 18.5 L 7.5 18.5 L 7.5 18 L 6.8203125 18.015625 L 6.5 18.244141 L 6.5 19 L 6 19 L 6 17 L 5 17 L 5 18 L 4.5 18 L 4 18.275391 L 4 16.017578 L 3.4179688 15.353516 L 3 16.017578 L 3 19.933594 C 3.1632391 19.97641 3.3312405 19.99937 3.5 20 L 9 20 A 2.0002 2.0002 0 0 0 11 18 L 11 16.5 L 10.5 16 L 10 16.5 L 10 16 L 9 16 L 9 14 L 8 14 z M 22.5 14.5 L 22 15 L 22 17 L 22 19.730469 A 2.0002 2.0002 0 0 0 22.992188 18.160156 C 22.993285 18.105392 22.999915 18.055736 23 18 L 23 15 L 22.5 14.5 z M 1 15 L 1 18 C 1.0002727 18.174286 1.0248362 18.345623 1.0683594 18.509766 A 2.0002 2.0002 0 0 0 1.0742188 18.535156 C 1.1194008 18.69699 1.1842777 18.8516 1.2675781 18.996094 C 1.270233 19.000699 1.2726992 19.005182 1.2753906 19.009766 C 1.3613106 19.156098 1.4649344 19.291262 1.5859375 19.412109 C 1.7092654 19.535279 1.8505737 19.643454 2.0058594 19.732422 L 2.0488281 15 L 1 15 z M 13 16 L 13 18 C 13.000014 18.138065 13.014365 18.272154 13.041016 18.402344 C 13.065326 18.521103 13.102141 18.636021 13.146484 18.746094 A 2.0002 2.0002 0 0 0 13.171875 18.808594 C 13.216227 18.908719 13.268625 19.005026 13.328125 19.095703 A 2.0002 2.0002 0 0 0 13.349609 19.126953 A 2.0002 2.0002 0 0 0 13.349609 19.128906 C 13.416363 19.226385 13.491698 19.316376 13.574219 19.400391 C 13.580367 19.406651 13.585567 19.413743 13.591797 19.419922 C 13.672146 19.499613 13.760641 19.569544 13.853516 19.634766 A 2.0002 2.0002 0 0 0 13.896484 19.666016 C 13.985177 19.724824 14.079882 19.776033 14.177734 19.820312 A 2.0002 2.0002 0 0 0 14.253906 19.853516 C 14.356418 19.894813 14.464112 19.927189 14.574219 19.951172 A 2.0002 2.0002 0 0 0 14.615234 19.960938 C 14.740113 19.985362 14.867972 19.999987 15 20 L 20 20 L 20 19 L 19.363281 18.582031 L 19 18.5 L 19 17 L 18 17 L 18 19.5 L 17 19 L 17 18.5 L 16.742188 18 L 16 18 L 16 19 L 15 19 L 15 17 L 14 17 L 14 16 L 13 16 z"/>
 <path style="fill:#4572ab" d="m 20,17 v 3 h 1 v -3 z"/>
 <path style="opacity:0.2;fill:#8b9cbe" d="M 3 4 A 2.0002 2.0002 0 0 0 1 6 L 1 6.5 A 2.0002 2.0002 0 0 1 3 4.5 L 9 4.5 A 2.0002 2.0002 0 0 1 11 6.5 L 11 6 A 2.0002 2.0002 0 0 0 9 4 L 3 4 z M 15 4 A 2.0002 2.0002 0 0 0 13 6 L 13 6.5 A 2.0002 2.0002 0 0 1 15 4.5 L 21 4.5 A 2.0002 2.0002 0 0 1 23 6.5 L 23 6 A 2.0002 2.0002 0 0 0 21 4 L 15 4 z M 17 10 L 17 10.5 L 21 10.5 A 2.0002 2.0002 0 0 1 23 12.5 L 23 12 A 2.0002 2.0002 0 0 0 21 10 L 17 10 z M 7 13 L 7 13.5 L 11 13.5 L 11 13 L 7 13 z M 13 15 L 13 15.5 L 17 15.5 L 17 15 L 13 15 z M 5 16 L 5 16.5 L 7 16.5 L 7 16 L 5 16 z M 17 16 L 17 16.5 L 19 16.5 L 19 16 L 17 16 z"/>
</svg>
