<svg xmlns="http://www.w3.org/2000/svg" width="24" height="24" version="1">
 <rect style="opacity:0.2" width="20" height="20" x="2" y="2.5" rx="1" ry="1"/>
 <rect style="fill:#17191e" width="20" height="20" x="2" y="2" rx="1" ry="1"/>
 <path style="opacity:0.2" d="M 6.25,7.5 4,17.5 h 1 l 2.25,-10 z m 2,0 -2.25,10 h 2 l 2.25,-10 z m 3,0 -2.25,10 h 3.5 l 2.25,-10 z m 4.5,0 -2.25,10 h 4 l 2.25,-10 z"/>
 <path style="opacity:0.1;fill:#8b9cbe" d="M 3,2 C 2.446,2 2,2.446 2,3 v 0.5 c 0,-0.554 0.446,-1 1,-1 h 18 c 0.554,0 1,0.446 1,1 V 3 C 22,2.446 21.554,2 21,2 Z"/>
 <path style="fill:#f47c04" d="m 15.75,7.0000001 h 4 L 17.5,17 h -4 z"/>
 <path style="fill:#05caf4" d="m 11.25,7.0000001 h 3.5 L 12.5,17 H 9 Z"/>
 <path style="fill:#05caf4" d="m 8.25,7.0000001 h 2 L 8,17 H 6 Z"/>
 <path style="fill:#05caf4" d="m 6.25,7.0000001 h 1 L 5,17 H 4 Z"/>
 <path style="opacity:0.2;fill:#8b9cbe" d="M 6.25,7 4,17 H 4.1132812 L 6.25,7.5 H 7.1367188 L 7.25,7 Z m 2,0 L 6,17 H 6.1132812 L 8.25,7.5 h 1.886719 L 10.25,7 Z m 3,0 L 9,17 H 9.1132812 L 11.25,7.5 h 3.386719 L 14.75,7 Z m 4.5,0 -2.25,10 h 0.113281 L 15.75,7.5 h 3.886719 L 19.75,7 Z"/>
</svg>
