<svg width="24" height="24" version="1.1" xmlns="http://www.w3.org/2000/svg">
 <g transform="translate(1,1)">
  <rect x="1" y="1.5" width="20" height="20" rx="1" ry="1" style="opacity:.2"/>
  <rect x="1" y="1" width="20" height="20" rx="1" ry="1" style="fill:#752828"/>
  <path d="m1 2.5v-0.5c0-0.554 0.446-1 1-1h18c0.554 0 1 0.446 1 1v0.5c0-0.554-0.446-1-1-1h-18c-0.554 0-1 0.446-1 1z" style="fill:#8b9cbe;opacity:.1"/>
  <path d="m11 10.5a7 4 0 0 0-7 4 7 4 0 0 0 7 4 7 4 0 0 0 7-4 7 4 0 0 0-7-4zm0 1a6 3 0 0 1 6 3 6 3 0 0 1-6 3 6 3 0 0 1-6-3 6 3 0 0 1 6-3z" style="opacity:.2"/>
  <path d="m11 10a7 4 0 0 0-7 4 7 4 0 0 0 7 4 7 4 0 0 0 7-4 7 4 0 0 0-7-4zm0 1a6 3 0 0 1 6 3 6 3 0 0 1-6 3 6 3 0 0 1-6-3 6 3 0 0 1 6-3z" style="fill:#6c7f94"/>
  <path d="M 12.482422,4.5 C 12.215105,4.5 12,4.7163705 12,4.9863281 V 12.703125 A 2,1.5 0 0 0 11,12.5 2,1.5 0 0 0 9,14 2,1.5 0 0 0 11,15.5 2,1.5 0 0 0 13,14 2,1.5 0 0 0 12.988281,13.861328 C 12.990627,13.841769 13,13.824907 13,13.804688 V 4.9863281 C 13,4.7163705 12.784895,4.5 12.517578,4.5 Z" style="opacity:.2"/>
  <path d="M 12.482422,4 C 12.215105,4 12,4.2163705 12,4.4863281 V 12.203125 A 2,1.5 0 0 0 11,12 2,1.5 0 0 0 9,13.5 2,1.5 0 0 0 11,15 2,1.5 0 0 0 13,13.5 2,1.5 0 0 0 12.988281,13.361328 C 12.990627,13.341769 13,13.324907 13,13.304688 V 4.4863281 C 13,4.2163705 12.784895,4 12.517578,4 Z" style="fill:#4c66cc"/>
 </g>
</svg>
