<svg xmlns="http://www.w3.org/2000/svg" width="24" height="24" version="1">
 <rect style="opacity:0.2" width="20" height="20" x="2" y="2.5" rx="1" ry="1"/>
 <rect style="fill:#ca1e1e" width="20" height="20" x="2" y="2" rx="1" ry="1"/>
 <path style="opacity:0.2" d="m 6,4.5 a 2,2 0 0 0 -2,2 2,2 0 0 0 2,2 2,2 0 0 0 2,-2 2,2 0 0 0 -2,-2 z m 12,0 a 2,2 0 0 0 -2,2 2,2 0 0 0 2,2 2,2 0 0 0 2,-2 2,2 0 0 0 -2,-2 z m -6,6 a 2,2 0 0 0 -2,2 2,2 0 0 0 2,2 2,2 0 0 0 2,-2 2,2 0 0 0 -2,-2 z m -6,6 a 2,2 0 0 0 -2,2 2,2 0 0 0 2,2 2,2 0 0 0 2,-2 2,2 0 0 0 -2,-2 z m 12,0 a 2,2 0 0 0 -2,2 2,2 0 0 0 2,2 2,2 0 0 0 2,-2 2,2 0 0 0 -2,-2 z"/>
 <path style="opacity:0.2;fill:#8b9cbe" d="M 3,2 C 2.446,2 2,2.446 2,3 v 0.5 c 0,-0.554 0.446,-1 1,-1 h 18 c 0.554,0 1,0.446 1,1 V 3 C 22,2.446 21.554,2 21,2 Z"/>
 <circle style="fill:#ffb0b0" cx="6" cy="6" r="2"/>
 <circle style="fill:#ffb0b0" cx="18" cy="6" r="2"/>
 <circle style="fill:#ffb0b0" cx="6" cy="18" r="2"/>
 <circle style="fill:#ffb0b0" cx="18" cy="18" r="2"/>
 <circle style="fill:#ffb0b0" cx="12" cy="12" r="2"/>
 <path style="opacity:0.2;fill:#8b9cbe" d="M 6,4 A 2,2 0 0 0 4,6 2,2 0 0 0 4.0175781,6.2529295 2,2 0 0 1 6,4.5 2,2 0 0 1 7.982422,6.2470705 2,2 0 0 0 8,6 2,2 0 0 0 6,4 Z M 18,4 A 2,2 0 0 0 16,6 2,2 0 0 0 16.01758,6.2529295 2,2 0 0 1 18,4.5 2,2 0 0 1 19.982422,6.2470705 2,2 0 0 0 20,6 2,2 0 0 0 18,4 Z m -6,6 a 2,2 0 0 0 -2,2 2,2 0 0 0 0.01758,0.25293 A 2,2 0 0 1 12,10.5 2,2 0 0 1 13.982422,12.247071 2,2 0 0 0 14,12 2,2 0 0 0 12,10 Z M 6,16 A 2,2 0 0 0 4,18 2,2 0 0 0 4.0175781,18.252929 2,2 0 0 1 6,16.5 2,2 0 0 1 7.982422,18.24707 2,2 0 0 0 8,18 2,2 0 0 0 6,16 Z m 12,0 a 2,2 0 0 0 -2,2 2,2 0 0 0 0.01758,0.252929 A 2,2 0 0 1 18,16.5 2,2 0 0 1 19.982422,18.24707 2,2 0 0 0 20,18 2,2 0 0 0 18,16 Z"/>
</svg>
