<svg xmlns="http://www.w3.org/2000/svg" width="24" height="24" version="1">
 <rect style="fill:#ffa023" width="20" height="20" x="2" y="2" rx="1" ry="1"/>
 <path style="opacity:0.2;fill:#8b9cbe" d="M 3,2 C 2.446,2 2,2.446 2,3 v 0.5 c 0,-0.554 0.446,-1 1,-1 h 18 c 0.554,0 1,0.446 1,1 V 3 C 22,2.446 21.554,2 21,2 Z"/>
 <path style="opacity:0.2" d="m 3,22.5 c -0.554,0 -1,-0.446 -1,-1 V 21 c 0,0.554 0.446,1 1,1 h 18 c 0.554,0 1,-0.446 1,-1 v 0.5 c 0,0.554 -0.446,1 -1,1 z"/>
 <path style="fill:#17191e" d="M 4,4 V 20 H 20 V 4 Z"/>
 <path style="opacity:0.2" d="m 14.246403,17.36721 c 0.419913,-0.107974 0.893823,-0.156204 1.242151,-0.426383 0.06002,-0.528836 -0.127328,-0.857431 -0.298489,-1.35226 -0.101477,-0.525865 -0.669512,-0.213218 -1.012851,-0.154961 -0.982974,0.255988 -2.139979,0.05863 -2.829448,-0.730172 -0.742371,-1.025845 -1.041385,-2.830847 -0.417913,-3.840886 0.356487,-0.730869 1.090915,-1.2661115 1.913457,-1.321096 0.68988,-0.089396 1.464081,0.117765 2.145634,0.176698 0.347652,-0.179036 0.332817,-0.634133 0.436112,-0.9946785 0.08582,-0.3710665 0.101799,-0.784266 -0.396355,-0.949975 -1.055976,-0.315039 -2.282499,-0.319934 -3.370737,-0.2040895 -1.383136,0.1742495 -2.5805835,1.1483345 -3.1421295,2.401486 -0.52647,1.079821 -0.576649,2.320369 -0.470075,3.495934 0.199668,1.669394 1.3587325,3.213995 2.9739075,3.763674 1.011052,0.375381 2.118843,0.291803 3.166436,0.148288 z"/>
 <path style="fill:#ffa023" d="m 14.246403,16.86721 c 0.419913,-0.107974 0.893823,-0.156204 1.242151,-0.426383 0.06002,-0.528836 -0.127328,-0.857431 -0.298489,-1.35226 -0.101477,-0.525865 -0.669512,-0.213218 -1.012851,-0.154961 -0.982974,0.255988 -2.139979,0.05863 -2.829448,-0.730172 -0.742371,-1.025845 -1.041385,-2.830847 -0.417913,-3.840886 0.356487,-0.7308695 1.090915,-1.2661115 1.913457,-1.321096 0.68988,-0.089396 1.464081,0.117765 2.145634,0.176698 0.347652,-0.179036 0.332817,-0.634133 0.436112,-0.9946785 0.08582,-0.3710665 0.101799,-0.784266 -0.396355,-0.949975 -1.055976,-0.315039 -2.282499,-0.319934 -3.370737,-0.2040895 -1.383136,0.1742495 -2.5805835,1.1483345 -3.1421295,2.401486 -0.52647,1.079821 -0.576649,2.320369 -0.470075,3.495934 0.199668,1.669394 1.3587325,3.213995 2.9739075,3.763674 1.011052,0.375381 2.118843,0.291803 3.166436,0.148288 z"/>
 <rect style="opacity:0.2" width="16" height=".5" x="4" y="4"/>
 <rect style="opacity:0.2;fill:#8b9cbe" width="16" height=".5" x="4" y="20"/>
 <path style="opacity:0.2;fill:#8b9cbe" d="m 12.495117,7.0078125 c -0.284519,0.01091 -0.564854,0.032565 -0.836914,0.061523 C 10.275067,7.243585 9.077171,8.217551 8.515625,9.4707025 8.1004255,10.3223 7.9862995,11.273049 8.006836,12.213867 8.034711,11.439674 8.1740795,10.671233 8.515625,9.9707025 9.077171,8.717551 10.275067,7.743585 11.658203,7.5693355 12.746442,7.453491 13.972344,7.458398 15.028321,7.773437 c 0.237199,0.078904 0.356173,0.2151385 0.408203,0.375 0.06959,-0.350401 0.05679,-0.720323 -0.408203,-0.875 C 14.236338,7.037158 13.348676,6.9750845 12.495117,7.0078125 Z m -1.885742,5.0009765 c -0.06123,0.927694 0.22996,1.991913 0.738281,2.694336 0.689469,0.788797 1.846129,0.986456 2.829102,0.730469 0.343338,-0.05826 0.912195,-0.370592 1.013672,0.155273 0.112142,0.324203 0.224452,0.579701 0.276367,0.864258 0.0067,-0.005 0.01483,-0.0075 0.02149,-0.0127 0.06002,-0.528837 -0.126689,-0.856734 -0.297851,-1.351563 -0.101477,-0.525864 -0.670333,-0.21353 -1.013672,-0.155272 -0.982973,0.255986 -2.139633,0.05833 -2.829102,-0.730469 -0.418532,-0.578348 -0.687443,-1.402758 -0.738281,-2.194336 z"/>
</svg>
