<svg xmlns="http://www.w3.org/2000/svg" width="24" height="24" version="1">
 <ellipse style="opacity:0.2" cx="12" cy="19.5" rx="9" ry="3"/>
 <ellipse style="fill:#4f4f4f" cx="12" cy="19" rx="9" ry="3"/>
 <ellipse style="fill:#17191e" cx="12" cy="17.5" rx="6" ry="1.5"/>
 <path style="opacity:0.2" d="m 4,4.5 h 16 l -5,13 H 9 Z"/>
 <path style="fill:#008bad" d="M 4,4 H 20 L 15,17 H 9 Z"/>
 <ellipse style="opacity:0.2;fill:none;stroke:#000000;stroke-width:2;stroke-linecap:square;stroke-linejoin:bevel" cx="12" cy="13" rx="5" ry="1.5"/>
 <path style="fill:none;stroke:#61fff7;stroke-width:2;stroke-linecap:square;stroke-linejoin:bevel" d="M 17,12.5 A 5,1.5 0 0 1 12,14 5,1.5 0 0 1 7,12.5 5,1.5 0 0 1 12,11 a 5,1.5 0 0 1 5,1.5 z"/>
 <ellipse style="opacity:0.2;fill:none;stroke:#000000;stroke-width:2;stroke-linecap:square;stroke-linejoin:bevel" cx="12" cy="9.5" rx="7" ry="2"/>
 <path style="fill:none;stroke:#61fff7;stroke-width:2;stroke-linecap:square;stroke-linejoin:bevel" d="M 19,9.0000945 A 7,1.9999053 0 0 1 12,11 7,1.9999053 0 0 1 5,9.0000945 7,1.9999053 0 0 1 12,7.000189 7,1.9999053 0 0 1 19,9.0000945 Z"/>
 <ellipse style="opacity:0.2;fill:none;stroke:#000000;stroke-width:2;stroke-linecap:square;stroke-linejoin:bevel" cx="12" cy="5.5" rx="9" ry="2"/>
 <path style="fill:none;stroke:#61fff7;stroke-width:2;stroke-linecap:square;stroke-linejoin:bevel" d="M 21,5 A 9,2 0 0 1 12,7 9,2 0 0 1 3,5 9,2 0 0 1 12,3 9,2 0 0 1 21,5 Z"/>
 <path style="opacity:0.2;fill:#8b9cbe" d="M 12,2 C 9.4546695,2 7.152774,2.2240798 5.4189455,2.609375 4.5520307,2.8020227 3.8304007,3.0268947 3.2421875,3.3359375 2.9480809,3.4904589 2.6819728,3.6650363 2.4472656,3.9199219 2.2125585,4.1748075 2,4.5579312 2,5 2,5.086531 2.014437,5.1685055 2.029297,5.25 2.090354,4.9151563 2.2585002,4.624916 2.4472656,4.4199219 2.6819728,4.1650362 2.9480809,3.9904589 3.2421875,3.8359375 3.8304007,3.5268947 4.5520307,3.3020227 5.4189455,3.109375 7.152774,2.7240798 9.4546695,2.5 12,2.5 c 2.545331,0 4.847226,0.2240798 6.581054,0.609375 0.866915,0.1926477 1.588545,0.4175197 2.176758,0.7265625 0.294107,0.1545214 0.560215,0.3290987 0.794922,0.5839844 C 21.741499,4.624916 21.909646,4.9151563 21.970703,5.25 21.985563,5.1685055 22,5.086531 22,5 22,4.5579312 21.787441,4.1748075 21.552734,3.9199219 21.318027,3.6650363 21.051919,3.4904589 20.757812,3.3359375 20.169599,3.0268947 19.447969,2.8020227 18.581054,2.609375 16.847226,2.2240798 14.545331,2 12,2 Z M 5.173828,5.25 C 4.9175819,5.3334205 4.6938374,5.417952 4.5009765,5.5 4.8432709,5.6456205 5.239583,5.802264 5.852539,5.9384765 7.3760695,6.277039 9.5747675,6.5 12,6.5 14.425233,6.5 16.62393,6.277039 18.147461,5.9384765 18.760417,5.802264 19.156729,5.6456205 19.499023,5.5 19.306162,5.417952 19.082418,5.3334205 18.826172,5.25 18.627625,5.3146365 18.415056,5.379011 18.147461,5.4384765 16.62393,5.777039 14.425233,6 12,6 9.5747675,6 7.3760695,5.777039 5.852539,5.4384765 5.584944,5.379011 5.3723745,5.3146365 5.173828,5.25 Z"/>
</svg>
