<svg xmlns="http://www.w3.org/2000/svg" width="24" height="24" version="1.1">
 <rect style="fill:#a4a4a4" width="4" height="20" x="4" y="2"/>
 <rect style="fill:#a4a4a4" width="4" height="20" x="16" y="2"/>
 <rect style="fill:#a4a4a4" width="4" height="20" x="10" y="2"/>
 <rect style="opacity:0.2" width="20" height="12" x="2" y="6.5" rx="2" ry="2"/>
 <rect style="fill:#536365" width="20" height="12" x="2" y="6" rx="2" ry="2"/>
 <path style="opacity:0.2" d="m 5,10.5 v 4 h 1.1425781 v -1.513672 h 0.3242188 c 0.1859552,0 0.3345313,0.03615 0.4453125,0.109375 0.1127596,0.07323 0.2232284,0.210112 0.3320312,0.410156 L 7.7832031,14.5 H 9 L 8.3808594,13.363281 C 8.2542521,13.132873 8.1285355,12.962135 8.0039062,12.849609 7.8812551,12.735299 7.7402647,12.661055 7.5839844,12.628906 c 0.2848659,-0.08038 0.4982166,-0.205319 0.6386718,-0.375 0.1424328,-0.169682 0.2128907,-0.386045 0.2128907,-0.65039 0,-0.382228 -0.1352059,-0.661066 -0.4082031,-0.837891 C 7.7563254,10.5888 7.327721,10.5 6.7441406,10.5 Z m 7,0 c -0.623263,0 -1.112847,0.176613 -1.46875,0.53125 C 10.177083,11.385888 10,11.877034 10,12.501953 c 0,0.623198 0.177083,1.112159 0.53125,1.466797 C 10.887153,14.323387 11.376737,14.5 12,14.5 c 0.625001,0 1.114583,-0.176613 1.46875,-0.53125 C 13.822917,13.614112 14,13.125151 14,12.501953 14,11.877034 13.822917,11.385888 13.46875,11.03125 13.114583,10.676613 12.625001,10.5 12,10.5 Z m 3,0 v 4 h 0.878906 v -2.925781 l 0.828125,2.15625 h 0.587891 l 0.828125,-2.15625 V 14.5 H 19 v -4 H 17.822266 L 16.998047,12.640625 16.179688,10.5 Z m -3,0.720703 c 0.307292,0 0.544487,0.112138 0.712891,0.335938 0.168402,0.2238 0.253906,0.539029 0.253906,0.945312 0,0.404562 -0.0855,0.717606 -0.253906,0.941406 -0.168404,0.2238 -0.405599,0.335938 -0.712891,0.335938 -0.305555,0 -0.542534,-0.112138 -0.710938,-0.335938 -0.168402,-0.2238 -0.251953,-0.536844 -0.251953,-0.941406 0,-0.406283 0.08355,-0.721512 0.251953,-0.945312 0.168405,-0.2238 0.405383,-0.335938 0.710938,-0.335938 z m -5.8574219,0.02734 h 0.4804688 c 0.2393673,0 0.4108038,0.0386 0.5136719,0.117187 0.1048467,0.07859 0.1582032,0.208441 0.1582031,0.390625 0,0.183969 -0.053357,0.31611 -0.1582031,0.396485 -0.102868,0.08037 -0.2743046,0.121093 -0.5136719,0.121094 H 6.1425781 Z"/>
 <path style="fill:#8b9cbe" d="M 5 10 L 5 14 L 6.1425781 14 L 6.1425781 12.486328 L 6.4667969 12.486328 C 6.6527521 12.486328 6.8013282 12.522478 6.9121094 12.595703 C 7.024869 12.668933 7.1353378 12.805815 7.2441406 13.005859 L 7.7832031 14 L 9 14 L 8.3808594 12.863281 C 8.2542521 12.632873 8.1285355 12.462135 8.0039062 12.349609 C 7.8812551 12.235299 7.7402647 12.161055 7.5839844 12.128906 C 7.8688503 12.048526 8.082201 11.923587 8.2226562 11.753906 C 8.365089 11.584224 8.4355469 11.367861 8.4355469 11.103516 C 8.4355469 10.721288 8.300341 10.44245 8.0273438 10.265625 C 7.7563254 10.0888 7.327721 10 6.7441406 10 L 5 10 z M 12 10 C 11.376737 10 10.887153 10.176613 10.53125 10.53125 C 10.177083 10.885888 10 11.377034 10 12.001953 C 10 12.625151 10.177083 13.114112 10.53125 13.46875 C 10.887153 13.823387 11.376737 14 12 14 C 12.625001 14 13.114583 13.823387 13.46875 13.46875 C 13.822917 13.114112 14 12.625151 14 12.001953 C 14 11.377034 13.822917 10.885888 13.46875 10.53125 C 13.114583 10.176613 12.625001 10 12 10 z M 15 10 L 15 14 L 15.878906 14 L 15.878906 11.074219 L 16.707031 13.230469 L 17.294922 13.230469 L 18.123047 11.074219 L 18.123047 14 L 19 14 L 19 10 L 17.822266 10 L 16.998047 12.140625 L 16.179688 10 L 15 10 z M 12 10.720703 C 12.307292 10.720703 12.544487 10.832841 12.712891 11.056641 C 12.881293 11.280441 12.966797 11.59567 12.966797 12.001953 C 12.966797 12.406515 12.881297 12.719559 12.712891 12.943359 C 12.544487 13.167159 12.307292 13.279297 12 13.279297 C 11.694445 13.279297 11.457466 13.167159 11.289062 12.943359 C 11.12066 12.719559 11.037109 12.406515 11.037109 12.001953 C 11.037109 11.59567 11.12066 11.280441 11.289062 11.056641 C 11.457467 10.832841 11.694445 10.720703 12 10.720703 z M 6.1425781 10.748047 L 6.6230469 10.748047 C 6.8624142 10.748047 7.0338507 10.786647 7.1367188 10.865234 C 7.2415655 10.943824 7.294922 11.073675 7.2949219 11.255859 C 7.2949219 11.439828 7.2415648 11.571969 7.1367188 11.652344 C 7.0338508 11.732714 6.8624142 11.773437 6.6230469 11.773438 L 6.1425781 11.773438 L 6.1425781 10.748047 z"/>
 <path style="opacity:0.2" d="m 4,22 v 0.5 H 8 V 22 Z m 6,0 v 0.5 h 4 V 22 Z m 6,0 v 0.5 h 4 V 22 Z"/>
 <path style="opacity:0.2;fill:#8b9cbe" d="M 4,2 V 2.5 H 8 V 2 Z m 6,0 v 0.5 h 4 V 2 Z m 6,0 v 0.5 h 4 V 2 Z"/>
</svg>
