<svg xmlns="http://www.w3.org/2000/svg" width="24" height="24" version="1">
 <rect style="opacity:0.2" width="20" height="20" x="2" y="2.5" rx="1" ry="1"/>
 <rect style="fill:#b2bfd9" width="20" height="20" x="2" y="2" rx="1" ry="1"/>
 <path style="opacity:0.2;fill:#8b9cbe" d="M 3,2 C 2.446,2 2,2.446 2,3 v 0.5 c 0,-0.554 0.446,-1 1,-1 h 18 c 0.554,0 1,0.446 1,1 V 3 C 22,2.446 21.554,2 21,2 Z"/>
 <path style="opacity:0.1" d="M 5.9999997,6.5 13.144845,12.064369 5.9999997,17.5 V 15.415947 L 10.494581,12 5.9999997,8.5624093 Z M 18,8.2401579 13.144845,12.064369 18,15.802647 v -2.08381 L 15.816312,11.999919 18,10.281246 Z"/>
 <path style="fill:#d87d00" d="M 5.9999997,6 13.144845,11.564369 5.9999997,17 V 14.915947 L 10.494581,11.5 5.9999997,8.0624093 Z M 18,7.7401579 13.144845,11.564369 18,15.302647 v -2.08381 L 15.816312,11.499919 18,9.781246 Z"/>
</svg>
