<svg xmlns="http://www.w3.org/2000/svg" width="24" height="24" version="1">
 <path style="fill:#23c2c2" d="m 6.95,4 0,16 14.05,0 c 0.554,0 1,-0.446 1,-1 L 22,5 C 22,4.446 21.554,4 21,4 Z"/>
 <path style="fill:#b2bfd9" d="M 3,4 C 2.446,4 2,4.446 2,5 l 0,14 c 0,0.554 0.446,1 1,1 L 7,20 7,4 Z"/>
 <path style="opacity:0.2;fill:#8b9cbe" d="M 3,4 C 2.446,4 2,4.446 2,5 l 0,0.5 c 0,-0.554 0.446,-1 1,-1 l 18,0 c 0.554,0 1,0.446 1,1 L 22,5 C 22,4.446 21.554,4 21,4 L 3,4 Z"/>
 <path style="opacity:0.2" d="m 2,19 0,0.5 c 0,0.554 0.446,1 1,1 l 18,0 c 0.554,0 1,-0.446 1,-1 L 22,19 c 0,0.554 -0.446,1 -1,1 L 3,20 C 2.446,20 2,19.554 2,19 Z"/>
 <circle style="fill:#17191e" cx="15" cy="12" r="5"/>
 <g style="opacity:0.2" transform="matrix(0.4494382,0,0,0.43537415,11.179955,8.7857145)">
  <g transform="translate(-293.0004,-128)">
   <path d="M 304.9375,131.9375 300,136.875 l -1.9375,-1.9375 -2.125,2.125 3,3 1.0625,1.0625 1.0625,-1.0625 6,-6 -2.125,-2.125 z"/>
  </g>
 </g>
 <g style="fill:#8b9cbe" transform="matrix(0.4494382,0,0,0.43537415,11.179955,8.2857145)">
  <g style="fill:#8b9cbe" transform="translate(-293.0004,-128)">
   <path style="fill:#8b9cbe" d="M 304.9375,131.9375 300,136.875 l -1.9375,-1.9375 -2.125,2.125 3,3 1.0625,1.0625 1.0625,-1.0625 6,-6 -2.125,-2.125 z"/>
  </g>
 </g>
 <rect style="opacity:0.1" width=".5" height="16" x="7" y="4"/>
</svg>
