<svg xmlns="http://www.w3.org/2000/svg" width="24" height="24" version="1">
 <rect style="opacity:0.2" width="12" height="10" x="-14.5" y="-17" rx="5" ry="5" transform="matrix(0,-1,-1,0,0,0)"/>
 <path style="opacity:0.2" d="m 5,9.5 a 1,1 0 0 0 -1,1 l 0,0.75 c 0,3.1793 2.3222,5.783653 6,6.189453 L 10,20.5 l -3,0 a 1,1 0 0 0 -1,1 1,1 0 0 0 1,1 l 10,0 a 1,1 0 0 0 1,-1 1,1 0 0 0 -1,-1 l -3,0 0,-3.060547 c 3.678,-0.406 6,-3.012406 6,-6.191406 L 20,10.5 20,10.498 A 1,1 0 0 0 19,9.5 1,1 0 0 0 18,10.498047 l 0,0.002 0,0.417969 c 0,2.539 -2.453,4.580078 -5.5,4.580078 l -1,0 c -3.047,0 -5.5,-2.041078 -5.5,-4.580078 L 6,10.5 A 1,1 0 0 0 6,10.498 1,1 0 0 0 5,9.5 Z"/>
 <rect style="fill:#8e8e8e" width="12" height="10" x="-14" y="-17" rx="5" ry="5" transform="matrix(0,-1,-1,0,0,0)"/>
 <path style="fill:#ca42ca" d="M 5 9 A 1 1 0 0 0 4 10 L 4 10.75 C 4 13.9293 6.3222 16.533653 10 16.939453 L 10 20 L 7 20 A 1 1 0 0 0 6 21 A 1 1 0 0 0 7 22 L 17 22 A 1 1 0 0 0 18 21 A 1 1 0 0 0 17 20 L 14 20 L 14 16.939453 C 17.678 16.533453 20 13.927047 20 10.748047 L 20 10 L 20 9.9980469 A 1 1 0 0 0 19 9 A 1 1 0 0 0 18 9.9980469 L 18 10 L 18 10.417969 C 18 12.956969 15.547 14.998047 12.5 14.998047 L 11.5 14.998047 C 8.453 14.998047 6 12.956969 6 10.417969 L 6 10 A 1 1 0 0 0 6 9.9980469 A 1 1 0 0 0 5 9 z"/>
 <path style="fill:#8b9cbe;opacity:0.1" d="M 12 2 C 9.23 2 7 4.23 7 7 L 7 7.5 C 7 4.73 9.23 2.5 12 2.5 C 14.77 2.5 17 4.73 17 7.5 L 17 7 C 17 4.23 14.77 2 12 2 z"/>
 <path style="fill:#8b9cbe;opacity:0.1" d="M 5 9 A 1 1 0 0 0 4 10 L 4 10.5 A 1 1 0 0 1 5 9.5 A 1 1 0 0 1 6 10.498047 A 1 1 0 0 0 6 10.5 L 6 10.917969 C 6 13.456969 8.453 15.498047 11.5 15.498047 L 12.5 15.498047 C 15.547 15.498047 18 13.456969 18 10.917969 L 18 10.5 L 18 10.498047 A 1 1 0 0 1 19 9.5 A 1 1 0 0 1 20 10.498047 L 20 10 L 20 9.9980469 A 1 1 0 0 0 19 9 A 1 1 0 0 0 18 9.9980469 L 18 10 L 18 10.417969 C 18 12.956969 15.547 14.998047 12.5 14.998047 L 11.5 14.998047 C 8.453 14.998047 6 12.956969 6 10.417969 L 6 10 A 1 1 0 0 0 6 9.9980469 A 1 1 0 0 0 5 9 z M 7 20 A 1 1 0 0 0 6 21 A 1 1 0 0 0 6.0332031 21.25 A 1 1 0 0 1 7 20.5 L 10 20.5 L 10 20 L 7 20 z M 14 20 L 14 20.5 L 17 20.5 A 1 1 0 0 1 17.966797 21.25 A 1 1 0 0 0 18 21 A 1 1 0 0 0 17 20 L 14 20 z"/>
</svg>
