<svg width="24" height="24" version="1.1" xmlns="http://www.w3.org/2000/svg">
 <g transform="translate(1,1)">
  <circle cx="11" cy="11.5" r="10" style="opacity:.2"/>
  <circle cx="11" cy="11" r="10" style="fill:#f93157"/>
  <path d="M 11,1 A 10,10 0 0 0 1,11 10,10 0 0 0 1.0098,11.293 10,10 0 0 1 11,1.5 10,10 0 0 1 20.99,11.207 10,10 0 0 0 21,11 10,10 0 0 0 11,1 Z" style="fill:#8b9cbe;opacity:.2"/>
  <path d="m11.492188 5.4921877c-0.276145 0.0043087-0.496509 0.2316677-0.492188 0.5078125v7.4999998c-2 0-3 1-3 2s1 2 2 2c1.985379 0 1.999894-1.971758 2-3.957031v-0.0078c4.12e-4 -0.01173 4.12e-4 -0.02345 0-0.03517v-4.9999988s1.519972 1.0001816 1.5 1.9999998c-0.03995 2-0.5 3-0.5 3s1-1.945907 1-3c0-0.9999998-0.64077-1.9611544-1-2.4999998-0.477936-0.615064-0.772014-1.2618578-1-1.984375 0.004417-0.2822664-0.225546-0.5278543-0.507812-0.5234375z" style="opacity:.2"/>
  <path d="m11.492188 4.9921875c-0.276145 0.0043087-0.496509 0.2316677-0.492188 0.5078125v7.5c-2 0-3 1-3 2s1 2 2 2c1.985379 0 1.999894-1.971758 2-3.957031v-0.0078c4.12e-4 -0.01173 4.12e-4 -0.02345 0-0.03517v-4.999999s1.519972 1.0001816 1.5 2c-0.03995 2-0.5 3-0.5 3s1-1.945907 1-3c0-1-0.64077-1.9611546-1-2.5-0.477936-0.615064-0.772014-1.2618578-1-1.984375 0.004417-0.2822664-0.225546-0.5278543-0.507812-0.5234375z" style="fill:#8b9cbe"/>
 </g>
</svg>
