<svg xmlns="http://www.w3.org/2000/svg" width="24" height="24" version="1">
 <path style="fill:#4f4f4f" d="M 22,21 22,3 C 22,2.446 21.554,2 21,2 L 3,2 C 2.446,2 2,2.446 2,3 l 0,18 c 0,0.554 0.446,1 1,1 l 18,0 c 0.554,0 1,-0.446 1,-1 z"/>
 <path style="fill:#8e8e8e" d="M 22,21 22,3 C 22,2.446 21.554,2 21,2 l -9,0 0,20 9,0 c 0.554,0 1,-0.446 1,-1 z"/>
 <path style="opacity:0.2;fill-rule:evenodd" d="m 5,7.4997555 a 1.0001,1.0001 0 0 0 -1,1 l 0,8.0000025 a 1.0001,1.0001 0 0 0 1,1 l 1.1875,0 c 1.6519529,0 2.9575411,-0.305762 3.8007812,-1.25 C 10.831521,15.30552 11,14.031757 11,12.499758 11,10.97557 10.829782,9.7030079 9.9882812,8.757568 9.1467809,7.8121281 7.841287,7.4997555 6.1875,7.4997555 l -1.1875,0 z m 10,0 a 1.0001,1.0001 0 0 0 -1,1 l 0,6.0000025 a 1.0001,1.0001 0 0 0 -1,1 l 0,2 a 1.0001,1.0001 0 1 0 2,0 l 0,-1 4,0 0,1 a 1.0001,1.0001 0 0 0 1,1 1.0001,1.0001 0 0 0 1,-1.158203 l 0,-1.841797 a 1.0001,1.0001 0 0 0 -1,-1 l 0,-6.0000025 a 1.0001,1.0001 0 0 0 -1,-1 l -4,0 z m -9,2 0.1875,0 c 1.408713,0 2.0094691,0.2518192 2.3085938,0.5878905 C 8.7952182,10.42372 9,11.149518 9,12.499758 9,13.85881 8.7934785,14.584723 8.4960938,14.917727 8.1987088,15.25073 7.5980471,15.499758 6.1875,15.499758 l -0.1875,0 0,-6.0000025 z m 10,0 2,0 0,5.0000025 -2,0 0,-5.0000025 z"/>
 <path style="opacity:0.1;fill:#8b9cbe" d="M 3,2 C 2.446,2 2,2.446 2,3 l 0,0.5 c 0,-0.554 0.446,-1 1,-1 l 18,0 c 0.554,0 1,0.446 1,1 L 22,3 C 22,2.446 21.554,2 21,2 L 3,2 Z"/>
 <path style="opacity:0.2" d="m 3,22.5 c -0.554,0 -1,-0.446 -1,-1 L 2,21 c 0,0.554 0.446,1 1,1 l 18,0 c 0.554,0 1,-0.446 1,-1 l 0,0.5 c 0,0.554 -0.446,1 -1,1 l -18,0 z"/>
 <path style="fill:none;stroke:#8b9cbe;stroke-width:2;stroke-linecap:round;stroke-linejoin:round" d="m 5,7.9998805 0,8.0002455 c 0,0 0.75,1.8e-5 1.1875,1.8e-5 C 9.25,16.000144 10,14.891186 10,12.000135 10,9.1257075 9.25,7.9998985 6.1875,7.9998985 5.75,7.9998985 5,7.9998805 5,7.9998805 Z"/>
 <path style="fill:none;stroke:#17191e;stroke-width:2;stroke-linecap:round;stroke-linejoin:round" d="m 15,15 0,-7 4,0 0,7 z"/>
 <path style="fill:none;stroke:#17191e;stroke-width:2;stroke-linecap:round;stroke-linejoin:round" d="m 14,16.999757 0,-2.000242 6,0 0,2.000242 0,0"/>
</svg>
