<svg xmlns="http://www.w3.org/2000/svg" width="24" height="24" version="1">
 <rect style="fill:#8e8e8e" width="16" height="12" x="-21" y="-18" rx="1" ry="1" transform="matrix(0,-1,-1,0,0,0)"/>
 <rect style="fill:#4f4f4f" width="16" height="20" x="-19" y="-22" rx="1" ry="1" transform="matrix(0,-1,-1,0,0,0)"/>
 <rect style="fill:#dc4f47" width="12" height="16" x="-17" y="-20" rx="0" ry="0" transform="matrix(0,-1,-1,0,0,0)"/>
 <path style="opacity:0.1;fill:#8b9cbe" d="M 3,3 C 2.446,3 2,3.446 2,4 v 0.5 c 0,-0.554 0.446,-1 1,-1 h 18 c 0.554,0 1,0.446 1,1 V 4 C 22,3.446 21.554,3 21,3 Z"/>
 <path style="opacity:0.2" d="m 6,20 v 0.5 c 0,0.554 0.446,1 1,1 h 10 c 0.554,0 1,-0.446 1,-1 V 20 c 0,0.554 -0.446,1 -1,1 H 7 C 6.446,21 6,20.554 6,20 Z"/>
 <path style="opacity:0.2" d="m 2,18 v 0.5 c 0,0.554 0.446,1 1,1 h 18 c 0.554,0 1,-0.446 1,-1 V 18 c 0,0.554 -0.446,1 -1,1 H 3 C 2.446,19 2,18.554 2,18 Z"/>
 <circle style="opacity:0.2" cx="12" cy="11.5" r="2"/>
 <circle style="fill:#8b9cbe" cx="12" cy="11" r="2"/>
 <path style="opacity:0.2" d="m 7,6.5 c -1.108,0 -2,0.892 -2,2 h 1 c 0,-0.571297 0.428703,-1 1,-1 z m 2,0 v 1 h 2 v -1 z m 4,0 v 1 h 2 v -1 z m 4,0 v 1 c 0.571297,0 1,0.428703 1,1 h 1 c 0,-1.108 -0.892,-2 -2,-2 z m -12,4 v 2 h 1 v -2 z m 13,0 v 2 h 1 v -2 z m -13,4 c 0,1.108 0.892,2 2,2 v -1 c -0.571297,0 -1,-0.428703 -1,-1 z m 13,0 c 0,0.571297 -0.428703,1 -1,1 v 1 c 1.108,0 2,-0.892 2,-2 z m -9,1 v 1 h 2 v -1 z m 4,0 v 1 h 2 v -1 z"/>
 <path style="fill:#8b9cbe" d="M 7 6 C 5.892 6 5 6.892 5 8 L 6 8 C 6 7.428703 6.428703 7 7 7 L 7 6 z M 9 6 L 9 7 L 11 7 L 11 6 L 9 6 z M 13 6 L 13 7 L 15 7 L 15 6 L 13 6 z M 17 6 L 17 7 C 17.571297 7 18 7.428703 18 8 L 19 8 C 19 6.892 18.108 6 17 6 z M 5 10 L 5 12 L 6 12 L 6 10 L 5 10 z M 18 10 L 18 12 L 19 12 L 19 10 L 18 10 z M 5 14 C 5 15.108 5.892 16 7 16 L 7 15 C 6.428703 15 6 14.571297 6 14 L 5 14 z M 18 14 C 18 14.571297 17.571297 15 17 15 L 17 16 C 18.108 16 19 15.108 19 14 L 18 14 z M 9 15 L 9 16 L 11 16 L 11 15 L 9 15 z M 13 15 L 13 16 L 15 16 L 15 15 L 13 15 z"/>
</svg>
