<svg xmlns="http://www.w3.org/2000/svg" width="24" height="24" version="1.1">
 <path style="opacity:0.2" d="m 9,11.500007 h 6 v 8.000012 L 12.000001,22.5 9,19.500019 Z"/>
 <path style="fill:#afafb1" d="m 9,10.999994 h 6 v 8.000013 L 12.000001,21.999988 9,19.000007 Z"/>
 <path style="fill:#b2bfd9" d="m 9,10.999994 h 3.000001 V 21.999988 L 9,19.000007 Z"/>
 <rect style="opacity:0.2" width="4" height="14" x="7.5" y="-19" rx="1.999" ry="2" transform="rotate(90)"/>
 <rect style="fill:#ec8a2b" width="4" height="14" x="7" y="-19" rx="1.999" ry="2" transform="rotate(90)"/>
 <rect style="fill:#d13808" width="4" height="5" x="10" y="2"/>
 <rect style="opacity:0.2" width="6" height="2" x="9" y="2.5" rx=".999" ry="1"/>
 <rect style="fill:#ec8a2b" width="6" height="2" x="9" y="2" rx=".999" ry="1"/>
 <path style="opacity:0.2;fill:#8b9cbe" d="m 7,7.0000205 c -1.1077625,0 -2,0.891439 -2,1.9990235 v 0.00195 C 5,9.086469 5.014105,9.1674305 5.024415,9.2500205 5.1477195,8.262375 5.9777235,7.5000205 7,7.5000205 h 10 c 1.022276,0 1.85228,0.7623545 1.975586,1.75 C 18.985897,9.1674305 19,9.086469 19,9.000997 V 8.999047 C 19,7.8914595 18.107762,7.0000205 17,7.0000205 Z"/>
 <path style="opacity:0.2;fill:#8b9cbe" d="m 9.9990235,2.0000205 c -0.553723,0 -0.9990235,0.4461386 -0.9990235,1 0,0.086896 0.014515,0.1697248 0.035155,0.25 0.1109215,-0.4313886 0.4970195,-0.75 0.9638685,-0.75 h 4.0019535 c 0.466849,0 0.852947,0.3186114 0.963867,0.75 C 14.985485,3.1697453 15,3.0869162 15,3.0000205 c 0,-0.5538614 -0.4453,-1 -0.999023,-1 z"/>
</svg>
