<svg width="24" height="24" version="1.1" xmlns="http://www.w3.org/2000/svg">
 <rect x="2" y="2.5" width="20" height="20" rx="1" ry="1" style="opacity:.2"/>
 <rect x="2" y="2" width="20" height="20" rx="1" ry="1" style="fill:#b2bfd9"/>
 <path d="m9.8847656 6.5-2.7695312 12h2l2.7695316-12zm5.0000004 0-2.769532 12h2l2.769532-12z" style="opacity:.1"/>
 <path d="m9.8847656 6-2.7695312 12h2l2.7695316-12h-2.0000004zm5.0000004 0-2.769532 12h2l2.769532-12h-2z" style="fill:#8e8e8e"/>
 <path d="m3 2c-0.554 0-1 0.446-1 1v0.5c0-0.554 0.446-1 1-1h18c0.554 0 1 0.446 1 1v-0.5c0-0.554-0.446-1-1-1h-18z" style="fill:#8b9cbe;opacity:.2"/>
</svg>
