<svg xmlns="http://www.w3.org/2000/svg" width="24" height="24" version="1">
 <path style="opacity:0.2;fill:none;stroke:#000000;stroke-width:6" d="M 5,5.5001795 19,19.50018"/>
 <rect style="opacity:0.2" width="6" height="20" x="16" y="2.5" rx="2" ry="2"/>
 <rect style="opacity:0.2" width="6" height="20" x="2" y="2.5" rx="2" ry="2"/>
 <path style="fill:none;stroke:#17191e;stroke-width:6" d="M 5,5 19,19"/>
 <path style="opacity:0.1;fill:#8b9cbe" d="m 7.121094,2.8789063 -4.2421877,4.2421877 0.25,0.25 3.9921877,-3.9921877 13.75,13.7499997 0.25,-0.25 z"/>
 <rect style="fill:#4f4f4f" width="6" height="20" x="2" y="2" rx="2" ry="2"/>
 <rect style="fill:#4f4f4f" width="6" height="20" x="16" y="2" rx="2" ry="2"/>
 <path style="opacity:0.1;fill:#8b9cbe" d="M 4,2 C 2.892,2 2,2.892 2,4 v 0.5 c 0,-1.108 0.892,-2 2,-2 h 2 c 1.108,0 2,0.892 2,2 V 4 C 8,2.892 7.108,2 6,2 Z"/>
 <path style="opacity:0.1;fill:#8b9cbe" d="m 18,2 c -1.108,0 -2,0.892 -2,2 v 0.5 c 0,-1.108 0.892,-2 2,-2 h 2 c 1.108,0 2,0.892 2,2 V 4 C 22,2.892 21.108,2 20,2 Z"/>
</svg>
