<svg xmlns="http://www.w3.org/2000/svg" height="24" width="24" version="1.1">
 <g transform="translate(1,1)">
  <path style="opacity:.2" d="m7.2692761 2.5a1.6155455 1.6365273 0 0 0 -1.395319 0.8117895l-5.6538442 9.8181825a1.6155455 1.6365273 0 0 0 0.051269 1.732244l3.2307683 4.909091a1.6155455 1.6365273 0 0 0 1.3440499 0.728693h11.307688a1.6155455 1.6365273 0 0 0 1.34405 -0.728693l3.230768-4.909091a1.6155455 1.6365273 0 0 0 0.05127 -1.732244l-5.653845-9.8181825a1.6155455 1.6365273 0 0 0 -1.395319 -0.8117895z"/>
  <path style="fill:#abacae" d="m7.1088121 14-0.391422-0.130593-2.971146 5.401173 0.2062425 0.455982c0.2649155 0.178299 0.5758925 0.27342 0.8939505 0.273438h11.307215c0.540109 0.000042 1.044512-0.273332 1.344188-0.728516l3.230899-4.909179c0.073593-0.112889 0.133084-0.234585 0.177112-0.362305l-0.02711-0.378788h-6.452611l-0.222509 0.378788zm-6.8915284 0.269531c0.011943 0.02177 0.024375 0.04326 0.037287 0.06445-0.012912-0.0212-0.025344-0.04269-0.037287-0.06445z"/>
  <path style="fill:#7e8087" d="m7.2691451 2c-0.574508-0.0000781-1.105837 0.3089143-1.3954575 0.8115235l-5.6536074 9.8183595c-0.31096399 0.539993-0.29106869 1.212268 0.051269 1.732422l3.230899 4.909179c0.118828 0.180416 0.271873 0.335106 0.450238 0.455078l9.9123168-17.726562z"/>
  <path style="opacity:.2;fill:#8b9cbe" d="m7.2691451 2c-0.574508-0.0000781-1.105837 0.3089143-1.3954575 0.8115235l-5.6536074 9.8183595c-0.19163 0.332768-0.25717739 0.71535-0.1994841 1.082031 0.029864-0.201618 0.09445-0.399638 0.1994842-0.582031l5.6536073-9.8183596c0.2896205-0.5026091 0.8209495-0.8116015 1.3954575-0.8115234h6.3163799l0.27965-0.5z"/>
  <path style="opacity:.2" d="m7.2695311 2.5c-0.02955 0.000481-0.059389 0.00178-0.088867 0.00391l6.6113279 11.99609h6.845703l0.09082-0.137695a1.6155455 1.6365273 0 0 0 0.248047 -0.638672c-0.02894-0.206604-0.09031-0.409127-0.196289-0.59375l-5.654297-9.8183596c-0.28962-0.5026091-0.820999-0.8116015-1.395507-0.8115234z"/>
  <path style="fill:#555761" d="m7.2691451 2c-0.02955 0.000481-0.059078 0.00178-0.088556 0.00391l6.6109449 11.99609h7.114317c0.158842-0.453249 0.112819-0.954332-0.125843-1.370117l-5.653608-9.8183595c-0.28962-0.5026092-0.820948-0.8116016-1.395457-0.8115235zm13.633909 12.006836c-0.01961 0.05607-0.04258 0.110577-0.06805 0.164063 0.0256-0.0534 0.04832-0.108166 0.06805-0.164063zm-0.0783 0.185547c-0.0288 0.0583-0.06048 0.115419-0.09601 0.169921 0.03533-0.05465 0.06738-0.11139 0.09601-0.169921zm-20.607468 0.07715c0.011943 0.02177 0.024375 0.04326 0.037287 0.06445-0.012912-0.0212-0.025344-0.04269-0.037287-0.06445z"/>
  <path style="opacity:.2" d="m10.497248 8.022461-6.5447614 11.704101c0.068092 0.0451 0.139451 0.08493 0.213467 0.119141l6.4701874-11.571289zm-6.9949994 11.249023c0.059169 0.08955 0.126925 0.172965 0.202281 0.249024-0.075032-0.07597-0.143116-0.159194-0.202281-0.249024zm0.2050775 0.251953c0.073412 0.07369 0.1536355 0.140076 0.2395675 0.198242-0.086099-0.05849-0.1664055-0.124535-0.2395675-0.198242z"/>
  <path style="opacity:.2" d="m10.542966 7.5008255a1.0000054 0.8750911 0 0 0 -0.907141 0.4332295l-1.7498354 2.625011-1.7498352 2.625011a1.0000054 0.8750911 0 0 0 0.8641766 1.315923h6.999339a1.0000054 0.8750911 0 0 0 0.864176 -1.315923l-1.749834-2.625011-1.749835-2.625011a1.0000054 0.8750911 0 0 0 -0.821211 -0.4332295z"/>
  <path style="fill:#8b9cbe" d="m10.542966 7.0008255a1.0000054 0.8750911 0 0 0 -0.907141 0.4332295l-1.7498354 2.625011-1.7498352 2.625011a1.0000054 0.8750911 0 0 0 0.8641766 1.315923h6.999339a1.0000054 0.8750911 0 0 0 0.864176 -1.315923l-1.749834-2.625011-1.749835-2.625011a1.0000054 0.8750911 0 0 0 -0.821211 -0.4332295z"/>
  <path style="opacity:.2;fill:#8b9cbe" d="m7.2691451 2a1.6155455 1.6365273 0 0 0 -0.088556 0.00391l0.273126 0.49609h6.2772279a1.6155455 1.6365273 0 0 1 1.395457 0.8115234l5.653608 9.8183596a1.6155455 1.6365273 0 0 1 0.199484 0.576171 1.6155455 1.6365273 0 0 0 -0.199484 -1.076171l-5.653608-9.8183595a1.6155455 1.6365273 0 0 0 -1.395457 -0.8115235z"/>
 </g>
</svg>
