<svg xmlns="http://www.w3.org/2000/svg" width="24" height="24" version="1">
 <rect style="opacity:0.2" width="20" height="20" x="2" y="2.5" rx="1" ry="1"/>
 <rect style="fill:#4f4f4f" width="20" height="20" x="2" y="2" rx="1" ry="1"/>
 <path style="opacity:0.1;fill:#8b9cbe" d="M 3,2 C 2.446,2 2,2.446 2,3 v 0.5 c 0,-0.554 0.446,-1 1,-1 h 18 c 0.554,0 1,0.446 1,1 V 3 C 22,2.446 21.554,2 21,2 Z"/>
 <path style="opacity:0.2" d="m 18,7.5 -3.222656,5.164062 -3.25,-5.1582026 H 9.3046875 L 10,8.609375 v 7.072266 L 8.9394531,16.5 H 10 11 11.767578 L 11,15.681641 v -5.273438 l 2.666016,4.134766 0.574218,0.970703 L 18,9.4414062 V 15.681641 L 17.236328,16.5 H 18 20 21.150391 L 20,15.681641 V 8.3242188 L 21.150391,7.5058594 H 20 Z M 7.5585938,10.496094 C 6.8634257,10.541335 6.3242525,11.039074 6,11.583984 V 10.5 L 4,11.357422 3.1992188,11.720703 4,12.412109 v 3.283203 L 3.2558594,16.5 H 4 6 7.1699219 L 6,15.695312 v -3.544921 c 0.633779,-0.151356 1.100123,-0.285473 1.8203125,0.167968 l 0.484375,-1.701171 C 8.04048,10.516768 7.7903162,10.481014 7.5585938,10.496094 Z"/>
 <path style="fill:#8b9cbe" d="M 18 7 L 14.777344 12.164062 L 11.527344 7.0058594 L 9.3046875 7.0058594 L 10 8.109375 L 10 15.181641 L 8.9394531 16 L 10 16 L 11 16 L 11.767578 16 L 11 15.181641 L 11 9.9082031 L 13.666016 14.042969 L 14.240234 15.013672 L 18 8.9414062 L 18 15.181641 L 17.236328 16 L 18 16 L 20 16 L 21.150391 16 L 20 15.181641 L 20 7.8242188 L 21.150391 7.0058594 L 20 7.0058594 L 18 7 z M 7.5585938 9.9960938 C 6.8634257 10.041335 6.3242525 10.539074 6 11.083984 L 6 10 L 4 10.857422 L 3.1992188 11.220703 L 4 11.912109 L 4 15.195312 L 3.2558594 16 L 4 16 L 6 16 L 7.1699219 16 L 6 15.195312 L 6 11.650391 C 6.633779 11.499035 7.100123 11.364918 7.8203125 11.818359 L 8.3046875 10.117188 C 8.04048 10.016768 7.7903162 9.9810138 7.5585938 9.9960938 z"/>
</svg>
