<svg width="24" height="24" version="1.1" xmlns="http://www.w3.org/2000/svg">
 <g transform="translate(1,1)">
  <rect x="1" y="1.5" width="20" height="20" ry="6" style="opacity:.2"/>
  <rect x="1" y="1" width="20" height="20" ry="6" style="fill:#2097d4"/>
  <path d="m11 4.5a7 7 0 0 0-7 7 7 7 0 0 0 7 7 7 7 0 0 0 7-7 7 7 0 0 0-7-7zm0 1a6 6 0 0 1 6 6 6 6 0 0 1-6 6 6 6 0 0 1-4.2246094-1.746094c0.3553744-0.131558 0.7832717-0.253906 1.2246094-0.253906h6s1 0 1-1v-2c0-1-1-1-1-1s1 0 1-1v-2c0-1-1-1-1-1h-6c-0.4420266 0-0.8709024-0.1220999-1.2265625-0.2539062a6 6 0 0 1 4.2265625-1.7460938zm-2 3h4c0.554 0 1 0.446 1 1s-0.446 1-1 1h-4zm0 4h4c0.554 0 1 0.446 1 1s-0.446 1-1 1h-4z" style="opacity:.2"/>
  <path d="m11 4a7 7 0 0 0-7 7 7 7 0 0 0 7 7 7 7 0 0 0 7-7 7 7 0 0 0-7-7zm0 1a6 6 0 0 1 6 6 6 6 0 0 1-6 6 6 6 0 0 1-4.2246094-1.746094c0.3553744-0.131558 0.7832717-0.253906 1.2246094-0.253906h6s1 0 1-1v-2c0-1-1-1-1-1s1 0 1-1v-2c0-1-1-1-1-1h-6c-0.4420266 0-0.8709024-0.1220999-1.2265625-0.2539062a6 6 0 0 1 4.2265625-1.7460938zm-2 3h4c0.554 0 1 0.446 1 1s-0.446 1-1 1h-4zm0 4h4c0.554 0 1 0.446 1 1s-0.446 1-1 1h-4z" style="fill:#8b9cbe"/>
  <path d="m7 1c-3.324 0-6 2.676-6 6v0.5c0-3.324 2.676-6 6-6h8c3.324 0 6 2.676 6 6v-0.5c0-3.324-2.676-6-6-6z" style="fill:#8b9cbe;opacity:.2"/>
 </g>
</svg>
