<svg xmlns="http://www.w3.org/2000/svg" width="24" height="24" version="1.1">
 <rect style="opacity:0.2" width="20" height="20" x="2" y="2.5" rx="6" ry="6"/>
 <rect style="fill:#f8a084" width="20" height="20" x="2" y="2" rx="6" ry="6"/>
 <circle style="opacity:0.2" cx="12" cy="12.5" r="7"/>
 <path style="opacity:0.2;fill:#8b9cbe" d="M 7.9999998,1.9999999 C 4.6759999,1.9999999 2,4.6759999 2,7.9999998 v 0.5 C 2,5.1759999 4.6759999,2.4999999 7.9999998,2.4999999 H 16 c 3.324,0 6,2.676 6,5.9999999 v -0.5 C 22,4.6759999 19.324,1.9999999 16,1.9999999 Z"/>
 <path style="fill:#cccccc" d="m 15.761816,6.1060544 c -0.382568,0.07128 -0.764628,0.153809 -0.961816,0.153809 -1.616154,0 -3.497021,0.6802755 -4.611524,2.0453119 C 9.2368318,9.4707443 8.9320693,11.21618 8.8629878,12.579004 8.9316633,11.902769 9.8355433,11.768129 10.298535,11.388183 10.802229,10.974836 11.244605,9.4802733 12,9.4802733 c 0.09474,-1.75e-5 0.189431,0.00475 0.283691,0.014355 0.0028,1.415e-4 0.0054,5e-4 0.0082,7e-4 C 15.248155,9.6480308 17.425,11.80573 17.425,14.8 c 0,0.600068 -0.0973,1.17663 -0.272071,1.718554 0.0491,0.02182 0.09567,0.03867 0.142188,0.05469 a 6.9999999,6.9999999 0 0 0 0.0027,-0.0035 c 0.09875,-0.114352 0.18891,-0.234262 0.27959,-0.354102 a 6.9999999,6.9999999 0 0 0 0.130566,-0.171582 c 0.07666,-0.108069 0.14652,-0.220352 0.216699,-0.332226 a 6.9999999,6.9999999 0 0 0 0.141504,-0.231055 c 0.06131,-0.106692 0.118129,-0.215811 0.173633,-0.325391 a 6.9999999,6.9999999 0 0 0 0.127148,-0.263183 c 0.05036,-0.110656 0.09768,-0.22258 0.142188,-0.335645 a 6.9999999,6.9999999 0 0 0 0.103956,-0.28296 c 0.03761,-0.109141 0.07445,-0.218559 0.106641,-0.329492 a 6.9999999,6.9999999 0 0 0 0.08408,-0.331543 c 0.02374,-0.09979 0.04901,-0.199202 0.06836,-0.300097 a 6.9999999,6.9999999 0 0 0 0.05947,-0.393067 c 0.01169,-0.08764 0.02717,-0.174273 0.03554,-0.2625 A 6.9999999,6.9999999 0 0 0 19,12 c -6e-4,-0.147102 -0.0058,-0.294147 -0.01572,-0.440918 -4.4e-5,-6.5e-4 4.5e-5,-0.0014 0,-0.0021 -0.0027,-0.04159 -0.0075,-0.08294 -0.01094,-0.124415 -0.01536,-0.194581 -0.03885,-0.388435 -0.07041,-0.581054 -0.0073,-0.04332 -0.01638,-0.08612 -0.02461,-0.129199 a 6.9999999,6.9999999 0 0 0 -0.0013,-0.0075 c -0.02988,-0.1584 -0.06522,-0.31572 -0.105958,-0.47168 -1.26e-4,-4.9e-4 -5.5e-4,-8.5e-4 -7e-4,-0.0014 -0.02096,-0.08022 -0.04323,-0.159942 -0.06699,-0.239258 -0.03946,-0.1313547 -0.08277,-0.2615217 -0.129883,-0.3903317 -0.03657,-0.100236 -0.07512,-0.19965 -0.116211,-0.298047 -0.04697,-0.1129425 -0.09689,-0.2246345 -0.149707,-0.3349605 -0.03915,-0.081466 -0.07811,-0.163393 -0.120312,-0.2433595 a 6.9999999,6.9999999 0 0 0 -0.0021,-0.0048 l -7e-4,-7e-4 c -0.06501,-0.1218445 -0.133642,-0.24177 -0.205762,-0.3595705 -0.0013,-0.0021 -0.0028,-0.00405 -0.0041,-0.00615 -0.05634,-0.092358 -0.114336,-0.18366 -0.175,-0.2734375 l -0.0013,-0.00205 a 6.9999999,6.9999999 0 0 0 -0.0014,-0.00275 C 17.726084,7.9818668 17.651838,7.8788703 17.575351,7.7780878 17.504432,7.6846448 17.43099,7.5932923 17.355233,7.5032833 a 6.9999999,6.9999999 0 0 0 -0.0027,-0.00345 c -0.02505,-0.028915 -0.05035,-0.05763 -0.07588,-0.086133 C 17.135475,7.2516298 16.98769,7.0949208 16.83095,6.9454388 c -0.002,-0.0019 -0.0041,-0.0036 -0.0062,-0.00547 a 6.9999999,6.9999999 0 0 0 -0.03415,-0.03208 c -0.08402,-0.078871 -0.169438,-0.156721 -0.257715,-0.231738 0.0017,-0.0017 0.0024,-0.00305 0.0041,-0.0048 A 6.9999999,6.9999999 0 0 0 15.76179,6.1060189 Z M 17.07705,16.611523 c -0.03399,0.0382 -0.0684,0.07603 -0.103222,0.113477 0.03482,-0.03745 0.06923,-0.07528 0.103222,-0.113477 z m -0.397167,0.41084 c -0.04322,0.04134 -0.08698,0.08214 -0.13125,0.122363 -0.0025,0.0054 -0.0043,0.01106 -0.0068,0.01641 0.04668,-0.04561 0.09271,-0.09187 0.138086,-0.138769 z"/>
 <path style="fill:#8b9cbe" d="m 12.286425,9.2143553 c 1.411918,0.143388 2.058301,1.3707597 2.058301,2.8205077 1.8e-5,0.09475 -0.0047,0.189431 -0.01436,0.283691 -1.41e-4,0.0028 -5e-4,0.0054 -7e-4,0.0082 -0.152702,2.95626 -2.135401,5.133104 -5.1296712,5.133104 -0.6000685,0 -1.471943,-0.454818 -2.0138669,-0.62959 0.017755,0.01513 -0.00724,0.08933 -0.050586,0.192773 A 6.9999999,6.9999999 0 0 0 12,19 c 0.147101,-6e-4 0.294147,-0.0058 0.440918,-0.01572 6.5e-4,-4.4e-5 0.0014,4.5e-5 0.0021,0 0.04159,-0.0027 0.08294,-0.0075 0.124414,-0.01094 0.194582,-0.01536 0.388436,-0.03885 0.581055,-0.07041 0.04332,-0.0073 0.08612,-0.01638 0.129199,-0.02461 a 6.9999999,6.9999999 0 0 0 0.0075,-0.0013 c 0.158399,-0.02988 0.31572,-0.06522 0.47168,-0.105958 4.9e-4,-1.26e-4 8.5e-4,-5.5e-4 0.0014,-7e-4 0.08021,-0.02096 0.159942,-0.04323 0.239257,-0.06699 0.131355,-0.03946 0.261522,-0.08277 0.390332,-0.129883 0.100236,-0.03657 0.19965,-0.07512 0.298047,-0.116211 0.112943,-0.04697 0.224635,-0.09689 0.334961,-0.149707 0.08147,-0.03915 0.163393,-0.07811 0.243359,-0.120312 a 6.9999999,6.9999999 0 0 0 0.0048,-0.0021 l 7e-4,-7e-4 c 0.121861,-0.06502 0.24177,-0.133642 0.359571,-0.205762 0.0021,-0.0013 0.004,-0.0028 0.0062,-0.0041 0.09236,-0.05634 0.18366,-0.114336 0.273437,-0.175 l 0.0021,-0.0013 a 6.9999999,6.9999999 0 0 0 0.0028,-0.0014 c 0.104522,-0.07075 0.207519,-0.144997 0.308301,-0.221484 0.09344,-0.07092 0.184796,-0.144361 0.274805,-0.220118 a 6.9999999,6.9999999 0 0 0 0.0034,-0.0027 c 0.02892,-0.02506 0.05763,-0.05035 0.08613,-0.07588 0.162071,-0.141178 0.31878,-0.288963 0.468262,-0.445703 0.0019,-0.002 0.0036,-0.0041 0.0055,-0.0062 a 6.9999999,6.9999999 0 0 0 0.03213,-0.03418 c 0.07887,-0.08402 0.156721,-0.169438 0.231738,-0.257715 C 17.501471,15.986896 17.6,15.405289 17.6,14.8 17.6,11.803855 15.245297,9.3643408 12.286425,9.2143553 Z M 6.8388669,16.57666 c 0.04561,0.04668 0.091872,0.09271 0.1387695,0.138086 -0.041345,-0.04323 -0.082138,-0.08698 -0.122363,-0.13125 -0.00535,-0.0025 -0.01106,-0.0043 -0.016405,-0.0068 z"/>
 <path style="fill:#cccccc" d="m 7.4233399,6.8388669 c -0.046675,0.04561 -0.092707,0.091872 -0.138086,0.1387695 0.043225,-0.041345 0.086979,-0.082138 0.13125,-0.122363 0.0025,-0.00535 0.00435,-0.01106 0.00683,-0.016405 z m -0.4320315,0.436133 c -0.03482,0.037445 -0.069231,0.075275 -0.1032225,0.1134765 0.03399,-0.0382 0.068402,-0.076029 0.1032225,-0.1134765 z m -0.226953,0.088183 A 6.9999999,6.9999999 0 0 0 4.9999999,12 a 6.9999999,6.9999999 0 0 0 0.01572,0.440918 c 0.00275,0.04228 0.00745,0.08432 0.010935,0.126465 a 6.9999999,6.9999999 0 0 0 0.070411,0.581054 c 0.0077,0.04584 0.01738,0.0911 0.025975,0.136719 a 6.9999999,6.9999999 0 0 0 0.105957,0.47168 c 0.02107,0.08071 0.04377,0.16083 0.067676,0.240625 a 6.9999999,6.9999999 0 0 0 0.1298825,0.390332 c 0.036575,0.100236 0.075124,0.19965 0.116211,0.298047 a 6.9999999,6.9999999 0 0 0 0.149707,0.33496 c 0.0399,0.08303 0.079205,0.166732 0.122363,0.248145 1.43e-4,2.7e-4 5.5e-4,4.2e-4 7e-4,7e-4 a 6.9999999,6.9999999 0 0 0 0.205762,0.359571 c 0.057532,0.09452 0.1170565,0.187767 0.1791015,0.279589 0.07169,0.106096 0.1466175,0.210837 0.224219,0.313086 0.0718,0.09461 0.1460925,0.18713 0.2228515,0.278223 a 6.9999999,6.9999999 0 0 0 0.075879,0.08613 c 0.1411775,0.16207 0.2889625,0.318779 0.445703,0.468261 a 6.9999999,6.9999999 0 0 0 0.04033,0.0376 c 0.084016,0.07887 0.169438,0.156722 0.257715,0.231739 C 8.0131153,17.501486 8.5947108,17.6 9.1999998,17.6 12.196145,17.6 14.635659,15.245297 14.785644,12.286425 14.642256,13.698343 13.449747,14.694726 12,14.694726 c -0.09475,1.8e-5 -0.189432,-0.0047 -0.283692,-0.01436 -0.0028,-1.41e-4 -0.0054,-5e-4 -0.0082,-7e-4 -2.9562602,-0.15272 -5.1679666,-2.485401 -5.1679666,-5.4796712 0,-0.6000685 0.097299,-1.1766305 0.2720705,-1.7185544 -0.015885,-0.04381 -0.031925,-0.077009 -0.04785,-0.118262 z"/>
 <path style="fill:#8b9cbe" d="m 11.713574,14.785644 c -0.372595,-0.03784 1.612287,-0.473313 1.311802,-0.64272 C 12.187198,13.670379 9.3399998,13.067169 9.3399998,12 c -1.75e-5,-0.09475 -0.135226,-0.189432 -0.125643,-0.283692 1.415e-4,-0.0028 5e-4,-0.0054 7e-4,-0.0082 C 9.3677933,8.7518418 11.80573,6.3999999 14.8,6.3999999 c 0.600068,0 1.17663,0.097299 1.718554,0.2720705 C 15.257673,5.5975994 13.656588,5.0051254 12,4.9999999 c -2.0502752,0.003 -3.9961562,0.9047445 -5.3238286,2.46709 -0.177658,0.5460254 -0.2761715,1.1276209 -0.2761715,1.7329099 0,2.9961452 2.3547029,5.4356592 5.3135741,5.5856442 z m 5.447559,-7.5024406 c -0.04561,-0.046675 -0.09187,-0.092707 -0.13877,-0.1380865 0.04134,0.043225 0.08214,0.086979 0.122363,0.13125 0.0054,0.0025 0.01106,0.00435 0.01641,0.00683 z M 16.725,6.8511714 c -0.03745,-0.03482 -0.07528,-0.06923 -0.113477,-0.103222 0.0382,0.03399 0.07603,0.068401 0.113477,0.103222 z"/>
 <circle style="fill:#4f4f4f" cx="12" cy="12" r="3"/>
 <path style="opacity:0.1" d="m 20.21875,2.5 c -0.266602,0 -0.533021,0.1023564 -0.737305,0.3066405 l -1.84375,1.84375 -5.53125,5.5312495 -0.553711,1.65918 L 11.36914,12.393554 11,13.5 l 1.106445,-0.369141 0.552734,-0.183594 1.65918,-0.553711 5.53125,-5.5312496 1.84375,-1.84375 c 0.408568,-0.408568 0.408568,-1.0660409 0,-1.4746092 L 20.956054,2.8066405 C 20.75177,2.6023564 20.485352,2.5 20.21875,2.5 Z"/>
 <path style="fill:#b94141" d="m 17.637695,4.1503905 -5.53125,5.5312498 2.211914,2.2119137 5.53125,-5.5312496 z"/>
 <path style="fill:#f6b473" d="m 12.106445,9.6816403 -0.553711,1.6591797 -0.183594,0.552734 0.737305,0.737305 0.552734,-0.183594 1.65918,-0.553711 -1.105469,-1.106445 z"/>
 <path style="fill:#8a5f5a" d="m 17.637391,4.1501461 2.212463,2.2124633 1.84372,-1.8437194 c 0.408568,-0.4085683 0.408568,-1.0664074 0,-1.4749757 L 20.956086,2.3064265 c -0.408568,-0.4085682 -1.066408,-0.4085682 -1.474976,0 z"/>
 <rect style="fill:#8b9cbe" width=".521" height="3.129" x="9.54" y="15.41" transform="rotate(-45)"/>
 <path style="fill:#7d5651" d="M 11.368744,11.893768 11,13 12.106232,12.631256 Z"/>
</svg>
