<svg xmlns="http://www.w3.org/2000/svg" width="24" height="24" version="1">
 <path style="fill:#cf4f8c" d="M 12,2 H 3 C 2.446,2 2,2.446 2,3 v 9 h 10 z"/>
 <path style="fill:#6655e4" d="m 12,2 h 9 c 0.554,0 1,0.446 1,1 v 9 H 12 Z"/>
 <path style="fill:#6655e4" d="M 12,22 H 3 C 2.446,22 2,21.554 2,21 v -9 h 10 z"/>
 <path style="fill:#cf4f8c" d="m 12,22 h 9 c 0.554,0 1,-0.446 1,-1 V 12 H 12 Z"/>
 <path style="opacity:0.2;fill:#8b9cbe" d="M 3,2 C 2.446,2 2,2.446 2,3 v 0.5 c 0,-0.554 0.446,-1 1,-1 h 18 c 0.554,0 1,0.446 1,1 V 3 C 22,2.446 21.554,2 21,2 Z"/>
 <path style="opacity:0.2" d="m 3,22.5 c -0.554,0 -1,-0.446 -1,-1 V 21 c 0,0.554 0.446,1 1,1 h 18 c 0.554,0 1,-0.446 1,-1 v 0.5 c 0,0.554 -0.446,1 -1,1 z"/>
 <rect style="fill:#17191e" width="14" height="14" x="5" y="5"/>
 <path style="opacity:0.2;fill:none;stroke:#000000;stroke-linecap:round" d="M 7.5071212,15.99995 H 11.507121"/>
 <path style="fill:none;stroke:#8b9cbe;stroke-linecap:round" d="M 7.5071212,15.5 H 11.507121"/>
 <path style="opacity:0.2;fill:none;stroke:#000000;stroke-width:0.99999994;stroke-linecap:round;stroke-linejoin:bevel" d="m 7.5071212,9.99995 c 0,0 2.000002,0.23225 2.000002,-0.9999985 0,-1.2322505 -2.000002,-1.0000005 -2.000002,-1.0000005 M 7.5071707,12 V 8"/>
 <path style="fill:none;stroke:#8b9cbe;stroke-width:0.99999994;stroke-linecap:round;stroke-linejoin:bevel" d="m 7.5071212,9.5 c 0,0 2.000002,0.23225 2.000002,-0.9999985 0,-1.2322505 -2.000002,-1.0000005 -2.000002,-1.0000005 m 4.95e-5,4.00005 V 7.50005"/>
 <path style="opacity:0.2;fill:none;stroke:#000000;stroke-width:0.99999994;stroke-linecap:round;stroke-linejoin:round" d="m 11.507121,11.49995 c 0,0 0.252193,0.500484 1.000001,0.500242 0.747806,-2.4e-4 0.999998,-0.500242 0.999998,-1.000241 0,-2.1071925 -1.999999,0.105581 -1.994008,-1.9953525 -0.006,-0.5046485 0.235933,-1.0046475 0.99401,-1.0046475 0.758075,0 0.999942,0.499999 0.999942,0.499999"/>
 <path style="fill:none;stroke:#8b9cbe;stroke-width:0.99999994;stroke-linecap:round;stroke-linejoin:round" d="m 11.507121,11 c 0,0 0.252193,0.500484 1.000001,0.500242 0.747805,-2.4e-4 0.999998,-0.500242 0.999998,-1.000241 0,-2.1071925 -1.999999,0.105581 -1.994009,-1.9953525 C 11.507067,8 11.749045,7.500001 12.507122,7.500001 13.265197,7.500001 13.507064,8 13.507064,8"/>
</svg>
