<svg xmlns="http://www.w3.org/2000/svg" width="24" height="24" version="1.1">
 <circle style="opacity:0.2" cx="12" cy="12.5" r="10"/>
 <circle style="fill:#2fbd8c" cx="12" cy="12" r="10"/>
 <path style="opacity:0.2;fill:#8b9cbe" d="M 12,2 A 10,10 0 0 0 2,12 10,10 0 0 0 2.01075,12.291 10,10 0 0 1 12,2.5 10,10 0 0 1 21.9895,12.209 10,10 0 0 0 22,12 10,10 0 0 0 12,2 Z"/>
 <path style="opacity:0.3;fill:#8b9cbe;fill-rule:evenodd" d="M 19,18.5 9.7661775,13.782841 13.907804,10.265987 Z"/>
 <path style="opacity:0.3;fill-rule:evenodd" d="m 5,5.5 8.903244,4.790702 -4.1729555,3.46764 z"/>
 <path style="opacity:0.2;fill-rule:evenodd" d="m 6.4097373,16 c -0.2160655,-1.006992 -0.4003625,-2.008744 -0.409704,-2.949789 -0.00945,-2.093779 1.995204,-4.2661295 4.2260047,-4.508846 2.796871,-0.3043065 5.918913,1.1256245 8.024234,2.476589 0.325395,0.191422 0.286174,0.420172 0.144808,0.643257 -0.894505,1.207809 -2.216061,2.298373 -3.348588,2.942986 -2.587478,1.460434 -4.659945,0.558953 -7.1447542,1.000607 C 7.6500103,15.649544 6.6606943,15.925933 6.4097373,16 Z"/>
 <path style="fill:#8b9cbe;fill-rule:evenodd" d="m 6.4097373,15.5 c -0.2160655,-1.006992 -0.4003625,-2.008744 -0.409704,-2.949789 -0.00945,-2.093779 1.995204,-4.2661295 4.2260047,-4.508846 2.796871,-0.3043065 5.918913,1.1256245 8.024234,2.476589 0.325395,0.191422 0.286174,0.420172 0.144808,0.643257 -0.894505,1.207809 -2.216061,2.298373 -3.348588,2.942986 -2.587478,1.460435 -4.659945,0.558953 -7.1447542,1.000607 C 7.6500103,15.149544 6.6606943,15.425933 6.4097373,15.5 Z"/>
 <circle style="fill:#f7785b" cx="10.5" cy="11.5" r="2.5"/>
 <circle style="fill:#17191e" cx="10.5" cy="11.5" r="1.5"/>
</svg>
