<svg xmlns="http://www.w3.org/2000/svg" width="24" height="24" version="1">
 <path style="opacity:0.2" d="M 2,16.5 2,21 c 0,0.831 0.669,1.5 1.5,1.5 l 16,0 c 0.831,0 1.5,-0.669 1.5,-1.5 l 0,-4.5 z"/>
 <path style="fill:#ffbf3f" d="M 3.5,2 C 2.669,2 2,2.669 2,3.5 l 0,12.55 19,0 L 21,3.5 C 21,2.669 20.331,2 19.5,2 Z"/>
 <path style="fill:#b2bfd9" d="m 2,15 0,5.5 C 2,21.331 2.669,22 3.5,22 l 16,0 c 0.831,0 1.319731,-0.688789 1.5,-1.5 L 21,15 Z"/>
 <rect style="opacity:0.6;fill:#4f4f4f" width="6" height="1" x="3" y="19" rx=".462" ry=".5"/>
 <path style="opacity:0.2;fill:#8b9cbe" d="M 3.5,2 C 2.669,2 2,2.669 2,3.5 L 2,4 C 2,3.169 2.669,2.5 3.5,2.5 l 16,0 C 20.331,2.5 21,3.169 21,4 L 21,3.5 C 21,2.669 20.331,2 19.5,2 Z"/>
 <path style="opacity:0.2;fill:#8b9cbe" d="m 2,15 0,0.5 19,0 0,-0.5 z"/>
 <rect style="fill:#4f4f4f" width="13" height="1" x="3" y="17" rx=".5" ry=".5"/>
 <path style="opacity:0.1" d="m 2,14.5 0,0.5 19,0 0,-0.5 z"/>
</svg>
