<svg xmlns="http://www.w3.org/2000/svg" width="24" height="24" version="1">
 <rect style="opacity:0.2" width="20" height="17" x="2" y="4.5" rx="1.065" ry="1.078"/>
 <rect style="fill:#ec4b02" width="18" height="2" x="3" y="3" rx=".641" ry=".693"/>
 <path style="opacity:0.2;fill:#8b9cbe;fill-rule:evenodd" d="M 3.640625,3 C 3.2857489,3 3,3.3085455 3,3.6923828 v 0.5 C 3,3.8085455 3.2857489,3.5 3.640625,3.5 h 16.71875 C 20.714251,3.5 21,3.8085455 21,4.1923828 v -0.5 C 21,3.3085455 20.714251,3 20.359375,3 Z"/>
 <rect style="fill:#959595" width="20" height="17" x="2" y="4" rx="1.065" ry="1.078"/>
 <rect style="fill:#14232b" width="16" height="13" x="4" y="6" rx="0" ry="0"/>
 <path style="opacity:0.2" d="m 11.091031,14.087639 -0.285194,0.691 C 11.572182,17.138447 11.572182,17.138447 12,19.197 c 0.427818,-2.058553 0.427818,-2.058553 1.194163,-4.418361 l -0.285194,-0.691 L 12,11.885282 Z"/>
 <path style="fill:#3c98fe" d="m 11.091031,13.587473 -0.285194,0.691 c 0.766345,2.359808 0.766345,2.359808 1.194163,4.418361 0.427818,-2.058553 0.427818,-2.058553 1.194163,-4.418361 l -0.285194,-0.691 L 12,11.385116 Z"/>
 <path style="opacity:0.2" d="m 11.078948,7.5 h 1.842104 L 17,17.5 H 15.289473 L 12,9.8623041 8.7105268,17.5 H 7 Z"/>
 <path style="fill:#ec7a02" d="m 11.078948,7 h 1.842104 L 17,17 H 15.289473 L 12,9.3623041 8.7105268,17 H 7 Z"/>
 <rect style="opacity:0.2" width="16" height=".5" x="4" y="6"/>
 <rect style="opacity:0.2;fill:#8b9cbe" width="16" height=".5" x="4" y="19"/>
 <path style="opacity:0.2;fill:#8b9cbe;fill-rule:evenodd" d="M 3.0644531,4 C 2.4746543,4 2,4.4810699 2,5.078125 v 0.5 C 2,4.9810699 2.4746543,4.5 3.0644531,4.5 H 20.935547 C 21.525346,4.5 22,4.9810699 22,5.578125 v -0.5 C 22,4.4810699 21.525346,4 20.935547,4 Z"/>
 <path style="opacity:0.2;fill:#8b9cbe" d="m 12,11.384766 -0.909179,2.203125 -0.285157,0.69043 c 0.03859,0.118833 0.05596,0.173819 0.09082,0.28125 L 11.090821,14.087891 12,11.885742 l 0.90918,2.202149 0.194336,0.47168 c 0.03485,-0.107431 0.05223,-0.162417 0.09082,-0.28125 l -0.285156,-0.69043 z"/>
 <path style="fill:#8b9cbe;opacity:0.2" d="M 11.078125 7 L 7 17 L 7.203125 17 L 11.078125 7.5 L 12.921875 7.5 L 16.796875 17 L 17 17 L 12.921875 7 L 11.078125 7 z"/>
</svg>
