<svg xmlns="http://www.w3.org/2000/svg" width="24" height="24" version="1.1">
 <g transform="translate(0,-1028.3622)">
  <circle style="opacity:0.2" cx="12" cy="1040.862" r="10"/>
  <circle style="fill:#b2bfd9" cx="12" cy="1040.362" r="10"/>
  <path style="fill:#17191e" d="M 16.0878,1037.3622 7,1040.4421 l 0.047718,0.1516 0.8644825,2.7685 L 17,1040.2831 l -0.9122,-2.9209 z"/>
  <path style="opacity:0.2;fill:#8b9cbe" d="m 12,1030.3622 a 10,10 0 0 0 -9.999998,10 10,10 0 0 0 0.010742,0.291 10,10 0 0 1 9.9892558,-9.791 10,10 0 0 1 9.989256,9.709 10,10 0 0 0 0.01074,-0.209 10,10 0 0 0 -9.999998,-10 z"/>
  <path style="fill:#17191e" d="m 21.859375,1038.5879 -18.7226562,6.293 a 10,10 0 0 0 0.2304687,0.4023 l 18.5468745,-6.2324 a 10,10 0 0 0 -0.05469,-0.4629 z"/>
 </g>
</svg>
