<svg xmlns="http://www.w3.org/2000/svg" width="24" height="24" version="1">
 <rect style="fill:#4f4f4f" width="20" height="20" x="2" y="2" rx="1" ry="1"/>
 <path style="opacity:0.2" d="m 11,9.5 v 7 4 h 2 v -4 h 1.507812 l 3.076172,4 h 2.523438 L 16.828125,16.236328 C 18.102312,15.71316 19,14.462733 19,13 19,11.067003 17.432997,9.5 15.5,9.5 H 13 Z m 2,2 h 2.5 c 0.852116,0 1.5,0.647884 1.5,1.5 0,0.852116 -0.647884,1.5 -1.5,1.5 H 13 Z m -9,1 v 8 h 2 v -6 h 3 v -2 C 7.85912,12.4954 6.8648112,12.759312 6,13.259766 V 12.5 Z"/>
 <path style="opacity:0.1;fill:#8b9cbe" d="M 2,3.5 V 3 C 2,2.446 2.446,2 3,2 h 18 c 0.554,0 1,0.446 1,1 v 0.5 c 0,-0.554 -0.446,-1 -1,-1 H 3 c -0.554,0 -1,0.446 -1,1 z"/>
 <path style="opacity:0.2" d="m 2,21 v 0.5 c 0,0.554 0.446,1 1,1 h 18 c 0.554,0 1,-0.446 1,-1 V 21 c 0,0.554 -0.446,1 -1,1 H 3 C 2.446,22 2,21.554 2,21 Z"/>
 <path style="fill:#8b9cbe" d="M 15.792969,14.390625 14.207031,15.609375 17.583984,20 h 2.523438 z"/>
 <rect style="fill:#9c9c9c" width="2" height="8" x="4" y="12"/>
 <path style="fill:#9c9c9c" d="m 9,12 v 2 H 4.5 v 0 C 5.652023,12.696685 7.131468,11.992411 9,12 Z"/>
 <path style="fill:#8b9cbe" d="m 11,9 v 7 h 4.5 C 17.432997,16 19,14.432997 19,12.5 19,10.567003 17.432997,9 15.5,9 Z m 2,2 h 2.5 c 0.852116,0 1.5,0.647884 1.5,1.5 0,0.852116 -0.647884,1.5 -1.5,1.5 H 13 Z"/>
 <rect style="fill:#8b9cbe" width="2" height="11" x="11" y="9"/>
</svg>
