<svg xmlns="http://www.w3.org/2000/svg" width="24" height="24" version="1">
 <rect style="opacity:0.2" width="14" height="20" x="5" y="2.5" rx="1.5" ry="1.5"/>
 <rect style="fill:#868686" width="14" height="20" x="5" y="2" rx="1.5" ry="1.5"/>
 <circle style="fill:#555761" cx="12" cy="11" r="5"/>
 <path style="opacity:0.2" d="M 10.747787,8.5000013 C 10.121549,8.5005584 9.5427813,8.8355744 9.2293713,9.3789074 l -0.189174,0.3272884 -0.00334,0.0059 c -0.018441,0.03197 -0.00854,0.07206 0.021763,0.08957 l 2.2106587,1.2781812 c -0.465855,-0.144187 -0.970461,-0.08809 -1.3928574,0.154851 -0.5429207,0.313322 -0.8770359,0.892839 -0.8763999,1.52009 4.286e-4,0.626875 0.3351322,1.206305 0.8780691,1.520089 l 0.3272882,0.189174 0.0059,0.0033 c 0.03193,0.01845 0.07207,0.0086 0.08956,-0.02176 l 1.268137,-2.198939 c -0.137311,0.46147 -0.07951,0.958953 0.159877,1.376115 0.312835,0.543028 0.891294,0.877405 1.517578,0.877233 0.626536,-2.65e-4 1.205691,-0.335314 1.519252,-0.878907 l 0.189174,-0.327287 0.0033,-0.0058 c 0.01845,-0.03197 0.0085,-0.07206 -0.02176,-0.08957 l -2.137835,-1.23549 c 0.447664,0.118874 0.923955,0.05599 1.325057,-0.174945 0.542656,-0.313173 0.876732,-0.892301 0.876395,-1.519252 -3.9e-4,-0.6268582 -0.335094,-1.2062876 -0.87803,-1.5200717 l -0.327288,-0.189174 -0.0058,-0.00334 c -0.03194,-0.01845 -0.07207,-0.00856 -0.08956,0.021763 L 12.409334,10.813619 C 12.569452,10.336185 12.517328,9.8131138 12.266202,9.3772334 11.953218,8.8339463 11.37437,8.499529 10.747787,8.5000013 Z"/>
 <path style="fill:#9ab4c0" d="M 10.747787,8.0000014 C 10.121549,8.0005585 9.5427813,8.3355745 9.2293713,8.8789075 l -0.189174,0.3272884 -0.00334,0.0059 c -0.018441,0.03197 -0.00854,0.07206 0.021763,0.08957 l 2.2106587,1.2781811 c -0.465855,-0.144187 -0.970461,-0.08809 -1.3928574,0.154851 -0.5429207,0.313322 -0.8770359,0.892839 -0.8763999,1.52009 4.286e-4,0.626875 0.3351322,1.206305 0.8780691,1.520089 l 0.3272882,0.189174 0.0059,0.0033 c 0.03193,0.01845 0.07207,0.0086 0.08956,-0.02176 l 1.268137,-2.198939 c -0.137311,0.46147 -0.07951,0.958953 0.159877,1.376115 0.312835,0.543028 0.891294,0.877405 1.517578,0.877233 0.626536,-2.65e-4 1.205691,-0.335314 1.519252,-0.878907 l 0.189174,-0.327287 0.0033,-0.0058 c 0.01845,-0.03197 0.0085,-0.07206 -0.02176,-0.08957 l -2.137835,-1.23549 c 0.447664,0.118874 0.923955,0.05599 1.325057,-0.174945 0.542656,-0.313173 0.876732,-0.892301 0.876395,-1.5192521 -3.9e-4,-0.626858 -0.335094,-1.2062874 -0.87803,-1.5200715 l -0.327288,-0.189174 -0.0058,-0.00334 c -0.03194,-0.01845 -0.07207,-0.00856 -0.08956,0.021763 L 12.409334,10.313619 C 12.569452,9.8361849 12.517328,9.3131139 12.266202,8.8772335 11.953218,8.3339464 11.37437,7.9995291 10.747787,8.0000014 Z"/>
 <circle style="opacity:0.2" cx="16.142" cy="3.959" r="1" transform="matrix(0.86602252,0.500005,-0.499995,0.86602829,0,0)"/>
 <circle style="fill:#8b9cbe" cx="15.893" cy="3.526" r="1" transform="matrix(0.86602252,0.500005,-0.499995,0.86602829,0,0)"/>
 <circle style="opacity:0.2" cx="12" cy="4.5" r="1"/>
 <circle style="fill:#87d22b" cx="12" cy="4" r="1"/>
 <path style="fill:#555761" d="m 8,17 v 1.5 h 2 V 17 Z m 3,0 v 2.5 h 2 V 17 Z m 3,0 v 1 h 2 v -1 z"/>
 <path style="fill:#87d22b" d="M 14,17.5 V 20 h 2 V 17.5 Z M 8,18 v 2 h 2 v -2 z m 3,1 v 1 h 2 v -1 z"/>
 <path style="opacity:0.2;fill:#8b9cbe" d="M 6.5,2 C 5.669,2 5,2.669 5,3.5 V 4 C 5,3.169 5.669,2.5 6.5,2.5 h 11 C 18.331,2.5 19,3.169 19,4 V 3.5 C 19,2.669 18.331,2 17.5,2 Z"/>
 <path style="opacity:0.2;fill:#8b9cbe" d="M 12,3 A 1,1 0 0 0 11,4 1,1 0 0 0 11.032227,4.2519531 1,1 0 0 1 12,3.5 1,1 0 0 1 12.967774,4.2480469 1,1 0 0 0 13,4 1,1 0 0 0 12,3 Z"/>
 <path style="opacity:0.2;fill:#8b9cbe" d="M 14,17.5 V 18 h 2 V 17.5 Z M 8,18 v 0.5 h 2 V 18 Z m 3,1 v 0.5 h 2 V 19 Z"/>
 <path style="opacity:0.2" d="m 8,17 v 0.5 h 2 V 17 Z m 3,0 v 0.5 h 2 V 17 Z m 3,0 v 0.5 h 2 V 17 Z"/>
 <path style="opacity:0.2" d="m 8,20 v 0.5 h 2 V 20 Z m 3,0 v 0.5 h 2 V 20 Z m 3,0 v 0.5 h 2 V 20 Z"/>
 <path style="opacity:0.2" d="M 12,6 A 5,5 0 0 0 7,11 5,5 0 0 0 7.010742,11.292969 5,5 0 0 1 12,6.5 5,5 0 0 1 16.989258,11.207031 5,5 0 0 0 17,11 5,5 0 0 0 12,6 Z"/>
</svg>
