<svg xmlns="http://www.w3.org/2000/svg" width="24" height="24" version="1.1">
 <g transform="translate(0,-308.3)">
  <path style="opacity:0.2" d="m 2.000008,327.8 v 0.5 c 0,1.385 1.1149995,2.5 2.499999,2.5 h 2.499999 4.999998 4.999998 2.499999 C 20.885,330.8 22,329.685 22,328.3 c 0,-0.0846 -0.0045,-0.16762 -0.0127,-0.25 -0.124914,1.26649 -1.18689,2.25 -2.487304,2.25 H 17.000002 12.000004 7.000006 4.500007 c -1.3849995,0 -2.499999,-1.115 -2.499999,-2.5 z"/>
  <path style="fill:#ff7c70" d="m 16.999994,325.30001 h 2.499999 c 1.384999,0 2.499999,1.115 2.499999,2.5 0,1.38499 -1.115,2.49999 -2.499999,2.49999 h -2.499999 z"/>
  <path style="fill:#7a0000" d="M 6.999998,325.3 H 4.499999 C 3.1149996,325.3 2,326.415 2,327.8 c 0,1.385 1.1149996,2.5 2.499999,2.5 h 2.499999 z"/>
  <path style="fill:#ed5353" d="m 16.999994,325.3 v 5 h -4.999998 c -1.612204,-1.80101 -1.917779,-3.49315 0,-5 z"/>
  <path style="fill:#c6262e" d="m 11.999996,325.3 v 5 H 6.999998 v -5 z"/>
  <path style="opacity:0.2" d="m 17.667971,318.30196 c -0.479955,-0.0335 -0.975989,0.0714 -1.425781,0.33105 l -2.165038,1.25 -4.3300766,2.5 -4.3300768,2.5 -2.165038,1.25 C 2.5193349,326.55599 2.086335,327.28982 2.0146564,328.06953 2.1485491,329.32654 3.2063153,330.3 4.500007,330.3 h 1.5341789 l 1.8828117,-1.08691 4.3300764,-2.5 4.330077,-2.5 2.165038,-1.25 c 1.199445,-0.6925 1.607538,-2.21559 0.915038,-3.41504 -0.432812,-0.74965 -1.189333,-1.19018 -1.989256,-1.24609 z M 2.0195392,328.59981 c 6.8e-4,0.006 0.00123,0.0111 0.00195,0.0166 -6.95e-4,-0.006 -0.00129,-0.011 -0.00195,-0.0166 z m 0.082031,0.37011 c 0.022067,0.0783 0.042155,0.15649 0.072266,0.2334 -0.029193,-0.0755 -0.050371,-0.15454 -0.072266,-0.2334 z m 0.1162109,0.34375 c 0.035398,0.0792 0.074799,0.15758 0.1191406,0.23438 0.013317,0.0231 0.029046,0.0439 0.042968,0.0664 -0.059886,-0.0966 -0.1156299,-0.19587 -0.1621086,-0.30078 z m 0.2499999,0.4375 c 0.060779,0.0855 0.1279005,0.16264 0.1972656,0.23828 -0.069833,-0.0759 -0.1371825,-0.15415 -0.1972656,-0.23828 z m 0.4521483,0.47364 c 0.037074,0.0305 0.071785,0.0636 0.1103515,0.0918 -0.038751,-0.0283 -0.073345,-0.0614 -0.1103515,-0.0918 z m 0.3749999,0.25488 c 0.053261,0.0295 0.1050617,0.0605 0.1601561,0.0859 -0.055379,-0.0255 -0.1070743,-0.0566 -0.1601561,-0.0859 z m 0.4130857,0.18066 c 0.070352,0.0237 0.1397631,0.0481 0.211914,0.0654 -0.072665,-0.0172 -0.1418957,-0.042 -0.211914,-0.0654 z m 0.5957029,0.12989 c 0.019569,0.002 0.038974,0.002 0.058594,0.003 -0.01955,-0.001 -0.039169,-0.001 -0.058594,-0.003 z"/>
  <path style="fill:#ffc27d" d="m 14.077504,319.38276 2.165062,-1.25 c 1.199445,-0.6925 2.722563,-0.28438 3.415062,0.91507 0.6925,1.19944 0.284382,2.72256 -0.915063,3.41506 l -2.165062,1.25 z"/>
  <path style="fill:#cc3b02" d="m 5.4172526,324.38276 -2.1650625,1.25 c -1.1994446,0.6925 -1.6075628,2.21562 -0.9150631,3.41506 0.6924998,1.19945 2.2156176,1.60756 3.4150625,0.91506 l 2.1650626,-1.25 z"/>
  <path style="fill:#ffa154" d="m 14.077503,319.38276 2.5,4.33013 -4.330126,2.5 c -2.2967187,-0.75363 -3.4074198,-2.06627 -2.4999991,-4.33013 z"/>
  <path style="fill:#f37329" d="m 9.7473779,321.88276 2.4999991,4.33013 -4.3301249,2.49999 -2.4999995,-4.33012 z"/>
  <path style="opacity:0.2" d="m 11.827153,312.81173 c -0.799924,0.0559 -1.557422,0.49644 -1.9902342,1.24609 l -1.2499995,2.16504 -2.499999,4.33007 -2.4999989,4.33008 -1.2499995,2.16504 c -0.1897731,0.3287 -0.2894804,0.6816 -0.3203124,1.03516 C 2.1567572,329.33352 3.2110606,330.3 4.500007,330.3 h 1.4999994 c 0.2627744,-0.19713 0.4918248,-0.44855 0.6669917,-0.75195 l 1.2499995,-2.16504 2.4999994,-4.33008 2.499999,-4.33007 1.249999,-2.16504 c 0.6925,-1.19945 0.284406,-2.72254 -0.915039,-3.41504 -0.449791,-0.25969 -0.94485,-0.36461 -1.424803,-0.33105 z M 2.0068439,328.4377 c 0.0011,0.0196 0.00138,0.039 0.00293,0.0586 -0.0015,-0.0194 -0.00187,-0.039 -0.00293,-0.0586 z m 0.067383,0.44238 c 0.017297,0.0721 0.041783,0.14156 0.06543,0.21191 -0.023387,-0.07 -0.048199,-0.13925 -0.06543,-0.21191 z m 0.1601562,0.46484 c 0.025431,0.0551 0.056455,0.1069 0.085937,0.16016 -0.029328,-0.0531 -0.060446,-0.10478 -0.085937,-0.16016 z m 0.2490233,0.42481 c 0.027807,0.0381 0.059748,0.0728 0.089844,0.10937 -0.029934,-0.0365 -0.061987,-0.0712 -0.089844,-0.10937 z m 0.330078,0.36816 c 0.074606,0.0681 0.1512343,0.13452 0.2353515,0.19434 -0.083007,-0.0593 -0.1603905,-0.12556 -0.2353515,-0.19434 z m 0.3720702,0.28223 c 0.022479,0.0139 0.04334,0.0297 0.066406,0.043 0.076805,0.0443 0.1552186,0.0837 0.2343749,0.11914 -0.1049091,-0.0465 -0.204141,-0.10223 -0.3007811,-0.16211 z m 0.416992,0.20801 c 0.072102,0.028 0.1454472,0.0464 0.2187499,0.0674 -0.073762,-0.0208 -0.1479623,-0.0402 -0.2187499,-0.0674 z m 0.5810545,0.15039 c 0.00553,7e-4 0.011071,10e-4 0.016601,0.002 -0.00556,-6.5e-4 -0.011056,-0.001 -0.016601,-0.002 z"/>
  <path style="fill:#8cd5ff" d="m 8.5871233,315.72251 1.2499995,-2.16506 c 0.6925002,-1.19944 2.2156172,-1.60756 3.4150622,-0.91506 1.199444,0.6925 1.607563,2.21562 0.915063,3.41506 l -1.249999,2.16506 z"/>
  <path style="fill:#0d52bf" d="m 3.5871246,324.38276 -1.2499995,2.16507 c -0.6924997,1.19944 -0.2843815,2.72255 0.9150632,3.41505 1.1994449,0.6925 2.7225626,0.28439 3.4150623,-0.91506 l 1.2499995,-2.16506 z"/>
  <path style="fill:#64baff" d="m 8.5871228,315.72251 4.3301252,2.5 -2.499999,4.33013 c -2.3658294,0.4957 -3.9840453,-0.0857 -4.3301252,-2.5 z"/>
  <path style="fill:#3689e6" d="m 6.0871238,320.05264 4.3301252,2.5 -2.4999989,4.33012 -4.3301255,-2.5 z"/>
  <path style="fill:#e2ffb4" d="m 2.0000081,315.30001 v -2.5 c 0,-1.385 1.1149996,-2.5 2.4999991,-2.5 1.3849992,0 2.4999988,1.115 2.4999988,2.5 v 2.5 z"/>
  <path style="opacity:0.2;fill:#8b9cbe" d="m 4.500007,310.30001 c -1.3849995,0 -2.499999,1.115 -2.499999,2.5 v 0.5 c 0,-1.385 1.1149995,-2.5 2.499999,-2.5 1.3849994,0 2.499999,1.115 2.499999,2.5 v -0.5 c 0,-1.385 -1.1149996,-2.5 -2.499999,-2.5 z m 7.327146,2.01172 c -0.799924,0.0559 -1.557422,0.49644 -1.9902342,1.24609 l -1.2499995,2.16504 -2.499999,4.33007 c 0.01902,0.13269 0.042705,0.25914 0.069336,0.38086 l 2.430663,-4.21093 1.2499995,-2.16504 c 0.4328122,-0.74965 1.1903102,-1.19017 1.9902342,-1.24609 0.479953,-0.0336 0.975012,0.0714 1.424803,0.33105 0.72675,0.41959 1.157456,1.14528 1.234375,1.91797 0.09756,-0.94914 -0.351791,-1.90841 -1.234375,-2.41797 -0.449791,-0.25969 -0.94485,-0.3646 -1.424803,-0.33105 z m 5.839841,5.49023 c -0.47995,-0.0335 -0.975012,0.0714 -1.424804,0.33105 l -2.165038,1.25 -2.312499,1.33496 -0.432618,0.75 2.745117,-1.58496 2.165038,-1.25 c 1.199445,-0.6925 2.722538,-0.2844 3.415037,0.91504 0.18294,0.31686 0.28431,0.65632 0.319336,0.99707 0.05003,-0.50258 -0.04642,-1.02437 -0.319336,-1.49707 -0.432812,-0.74965 -1.190317,-1.19018 -1.990233,-1.24609 z m -2.972655,7.49804 -0.866211,0.5 h 3.171874 2.499999 c 1.300414,0 2.36239,0.98351 2.487303,2.25 0.0081,-0.0824 0.0127,-0.16541 0.0127,-0.25 0,-1.385 -1.115,-2.5 -2.499999,-2.5 h -2.499999 z"/>
  <path style="fill:#3a9104" d="m 2.0000073,325.30001 v 2.5 c 0,1.38499 1.1149995,2.49999 2.499999,2.49999 1.3849996,0 2.4999992,-1.115 2.4999992,-2.49999 v -2.5 z"/>
  <path style="fill:#9bdb4d" d="m 2.0000073,315.30001 h 4.9999982 v 5 c -1.8010183,1.6122 -3.4931488,1.91778 -4.9999982,0 z"/>
  <path style="fill:#68b723" d="m 2.0000073,320.30001 h 4.9999982 v 5 H 2.0000073 Z"/>
  <circle style="opacity:0.2" cx="4.5" cy="328.3" r="1.5"/>
  <circle style="fill:#8b9cbe" cx="4.5" cy="327.8" r="1.5"/>
 </g>
</svg>
