<svg xmlns="http://www.w3.org/2000/svg" width="24" height="24" version="1">
 <rect style="opacity:0.2" width="18" height="18" x="-22.5" y="-22" rx=".9" ry=".9" transform="matrix(0,-1,-1,0,0,0)"/>
 <rect style="fill:#4f4f4f" width="18" height="18" x="-22" y="-22" rx=".9" ry=".9" transform="matrix(0,-1,-1,0,0,0)"/>
 <rect style="opacity:0.2" width="18" height="18" x="-20.5" y="-20" rx=".9" ry=".9" transform="matrix(0,-1,-1,0,0,0)"/>
 <rect style="fill:#2d50e6" width="18" height="18" x="-20" y="-20" rx=".9" ry=".9" transform="matrix(0,-1,-1,0,0,0)"/>
 <path style="opacity:0.1" d="M 19.43457,2.5654297 2.2626953,19.737304 C 2.1000203,19.574629 2,19.34891 2,19.099609 v 0.5 c 0,0.249301 0.1000203,0.47502 0.2626953,0.637695 L 19.737304,2.7626953 C 19.652006,2.6773961 19.548848,2.6108886 19.43457,2.5654297 Z"/>
 <path style="opacity:0.1;fill:#8b9cbe" d="M 2.9003906,2 C 2.4017906,2 2,2.4017907 2,2.9003906 V 19.099609 c 0,0.249301 0.1000203,0.47502 0.2626953,0.637695 L 19.737304,2.2626953 C 19.574629,2.1000203 19.34891,2 19.099609,2 Z"/>
 <path style="opacity:0.2" d="m 4,6.5 v 10 h 3 3 v -2 h 1 v -1 h 1 v -4 h -1 v -1 h -1 v -2 H 7 Z m 10,0 v 2 h 3 v -2 z m -7,2 h 2 v 1 h 1 v 4 H 9 v 1 H 7 Z m 7,1 v 5 h 1 v 2 h 3 v -2 h -1 v -5 z"/>
 <rect style="fill:#8b9cbe" width="3" height="10" x="4" y="6"/>
 <rect style="fill:#8b9cbe" width="3" height="2" x="7" y="6"/>
 <rect style="fill:#8b9cbe" width="2" height="1" x="9" y="8"/>
 <rect style="fill:#8b9cbe" width="3" height="2" x="7" y="14"/>
 <rect style="fill:#8b9cbe" width="2" height="1" x="9" y="13"/>
 <rect style="fill:#8b9cbe" width="2" height="4" x="10" y="9"/>
 <rect style="fill:#8b9cbe" width="3" height="5" x="14" y="9"/>
 <rect style="fill:#8b9cbe" width="3" height="2" x="15" y="14"/>
 <rect style="fill:#8b9cbe" width="3" height="2" x="14" y="6"/>
 <path style="opacity:0.1;fill:#8b9cbe" d="M 2.9003906,2 C 2.4017907,2 2,2.4017907 2,2.9003906 v 0.5 C 2,2.9017907 2.4017907,2.5 2.9003906,2.5 H 19.099609 C 19.598209,2.5 20,2.9017907 20,3.4003906 v -0.5 C 20,2.4017907 19.598209,2 19.099609,2 Z"/>
</svg>
