<svg xmlns="http://www.w3.org/2000/svg" width="24" height="24" version="1">
 <rect style="opacity:0.2" width="20" height="20" x="2" y="2.5" rx="1" ry="1"/>
 <rect style="fill:#b2bfd9" width="20" height="20" x="2" y="2" rx="1" ry="1"/>
 <path style="opacity:0.2;fill:#8b9cbe" d="M 3,2 C 2.446,2 2,2.446 2,3 v 0.5 c 0,-0.554 0.446,-1 1,-1 h 18 c 0.554,0 1,0.446 1,1 V 3 C 22,2.446 21.554,2 21,2 Z"/>
 <path style="opacity:0.1" d="M 8.5,7.5 A 4.5,4.5 0 0 0 4,12 a 4.5,4.5 0 0 0 4.5,4.5 4.5,4.5 0 0 0 4.466797,-4 H 12.5 11.958984 8 v 1 h 3.65625 A 3.5,3.5 0 0 1 8.5,15.5 3.5,3.5 0 0 1 5,12 3.5,3.5 0 0 1 8.5,8.5 a 3.5,3.5 0 0 1 3.158203,2 h 1.078125 A 4.5,4.5 0 0 0 8.5,7.5 Z m 5.5,0 v 9 h 1 v -3.921875 c 0,-0.669802 0.186343,-1.047107 0.357422,-1.351563 0.232179,-0.414058 1.159587,-0.644531 1.697266,-0.644531 0.953157,0 1.996619,0.560917 1.945312,1.972657 V 16.5 h 1 V 12.689453 C 20,11.703018 19.876814,11.153603 19.546875,10.654297 19.094736,9.9601394 18.314986,9.5 17.349609,9.5 16.653071,9.5 15.488799,9.7783804 15,10.216797 V 7.5 Z"/>
 <path style="fill:#7d7d7d" d="M 8.5 7 A 4.5 4.5 0 0 0 4 11.5 A 4.5 4.5 0 0 0 8.5 16 A 4.5 4.5 0 0 0 12.966797 12 L 12.5 12 L 11.958984 12 L 8 12 L 8 13 L 11.65625 13 A 3.5 3.5 0 0 1 8.5 15 A 3.5 3.5 0 0 1 5 11.5 A 3.5 3.5 0 0 1 8.5 8 A 3.5 3.5 0 0 1 11.658203 10 L 12.736328 10 A 4.5 4.5 0 0 0 8.5 7 z M 14 7 L 14 16 L 15 16 L 15 12.078125 C 15 11.408323 15.186343 11.031018 15.357422 10.726562 C 15.589601 10.312504 16.517009 10.082031 17.054688 10.082031 C 18.007845 10.082031 19.051307 10.642948 19 12.054688 L 19 16 L 20 16 L 20 12.189453 C 20 11.203018 19.876814 10.653603 19.546875 10.154297 C 19.094736 9.4601394 18.314986 9 17.349609 9 C 16.653071 9 15.488799 9.2783804 15 9.7167969 L 15 7 L 14 7 z"/>
</svg>
