<svg xmlns="http://www.w3.org/2000/svg" width="24" height="24" version="1">
 <rect style="opacity:0.2" width="21" height="21" x="2" y="1.5" rx="1.05" ry="1.05"/>
 <rect style="fill:#226ccc" width="21" height="21" x="2" y="1" rx="1.05" ry="1.05"/>
 <path style="opacity:0.3" d="M 3.0488281 1 C 2.4671281 1 2 1.4671281 2 2.0488281 L 2 8 L 9 8 L 9 1 L 3.0488281 1 z M 9 8 L 9 15 L 16 15 L 16 8 L 9 8 z M 16 8 L 23 8 L 23 2.0488281 C 23 1.4671281 22.532872 1 21.951172 1 L 16 1 L 16 8 z M 16 15 L 16 22 L 21.951172 22 C 22.532872 22 23 21.532872 23 20.951172 L 23 15 L 16 15 z M 9 15 L 2 15 L 2 20.951172 C 2 21.532872 2.4671281 22 3.0488281 22 L 9 22 L 9 15 z"/>
 <path style="opacity:0.1;fill:#8b9cbe" d="M 3.0507812 1 C 2.4690812 1 2 1.4690812 2 2.0507812 L 2 2.5507812 C 2 1.9690812 2.4690812 1.5 3.0507812 1.5 L 21.949219 1.5 C 22.530919 1.5 23 1.9690812 23 2.5507812 L 23 2.0507812 C 23 1.4690812 22.530919 1 21.949219 1 L 3.0507812 1 z"/>
 <path style="opacity:0.2" d="m 19.470703,2.5 c -0.318499,0 -0.828327,0.056774 -1.085937,0.171875 -0.252925,0.1104972 -0.477109,0.2470613 -0.673828,0.4082031 l 0.330078,0.4082031 c 0.192036,-0.1473297 0.37788,-0.2628301 0.560546,-0.3457031 0.18267,-0.082872 0.620899,-0.125 0.869141,-0.125 0.262293,0 0.474739,0.072118 0.638672,0.2148438 0.16393,0.1381216 0.246094,0.3435952 0.246094,0.6152343 0,0.2255987 -0.04578,0.4291193 -0.134766,0.6132813 -0.08899,0.1841622 -0.222406,0.3730363 -0.400391,0.5664063 -0.1733,0.1933699 -0.382617,0.4154434 -0.630859,0.6640624 L 17.654297,6.9960938 V 7.5 h 3.316406 V 6.9472656 h -2.537109 v -0.027344 l 1.267578,-1.015625 C 19.958781,5.6602823 20.184917,5.4280253 20.376953,5.2070312 20.568989,4.9860366 20.718444,4.762708 20.826172,4.5371094 20.933894,4.3115109 20.988281,4.0703269 20.988281,3.8125 c 0,-0.4051565 -0.136542,-0.7261309 -0.408203,-0.9609375 C 20.308417,2.6167559 19.939083,2.5 19.470703,2.5 Z M 12.375,9.5 c -0.340426,0 -0.755887,0.050479 -1.025391,0.1503906 -0.264775,0.099909 -0.488299,0.2172763 -0.667968,0.3535154 l 0.3125,0.408203 c 0.189125,-0.118074 0.380365,-0.215766 0.574218,-0.292968 0.193854,-0.0772 0.540222,-0.115235 0.814453,-0.115235 0.283688,0 0.508345,0.06557 0.673829,0.197266 0.165485,0.127157 0.248046,0.308773 0.248047,0.544922 0,0.277021 -0.108678,0.49994 -0.326172,0.667968 -0.212766,0.16803 -0.638612,0.306641 -1.054688,0.306641 h -0.158203 v 0.457031 h 0.150391 c 0.449172,0 0.797104,0.06884 1.042968,0.205078 0.25059,0.131699 0.376954,0.348075 0.376954,0.652344 0,0.299728 -0.101378,0.536414 -0.304688,0.708985 -0.198581,0.168029 -0.526568,0.251953 -0.980469,0.251953 -0.22695,0 -0.463121,-0.02753 -0.708984,-0.08203 -0.245863,-0.05449 -0.474734,-0.13383 -0.6875,-0.238281 v 0.558594 c 0.208038,0.09991 0.425393,0.166795 0.652344,0.203125 0.22695,0.04087 0.473505,0.0625 0.738281,0.0625 0.449173,0 0.813968,-0.06098 1.097656,-0.183594 0.288417,-0.122616 0.501556,-0.293735 0.638672,-0.511718 0.137116,-0.217984 0.207031,-0.469756 0.207031,-0.75586 0,-0.322434 -0.103331,-0.583384 -0.30664,-0.783203 -0.198582,-0.199818 -0.4985,-0.321774 -0.900391,-0.367187 v -0.02734 c 0.316785,-0.06358 0.681969,-0.192077 0.871094,-0.382813 0.193854,-0.195277 0.291015,-0.456227 0.291015,-0.783203 0,-0.349682 -0.130578,-0.638168 -0.390625,-0.8652342 C 13.297415,9.6127737 12.904551,9.5 12.375,9.5 Z m -7.1425781,7 c -0.3262412,0 -0.611559,0.06557 -0.8574219,0.197266 -0.2411348,0.131698 -0.4281595,0.321172 -0.5605469,0.566406 -0.1323877,0.245231 -0.1992187,0.538307 -0.1992187,0.878906 0,0.467757 0.1317089,0.830988 0.3964844,1.089844 0.2695033,0.254314 0.6216524,0.380859 1.0566406,0.380859 0.3073286,0 0.5580998,-0.05507 0.7519531,-0.164062 0.1938534,-0.113533 0.3463311,-0.247939 0.4550781,-0.402344 h 0.042969 c -0.00946,0.263397 -0.042872,0.517122 -0.099609,0.757813 -0.056738,0.236148 -0.1496842,0.443345 -0.2773438,0.625 -0.1276596,0.177111 -0.3000841,0.319377 -0.5175781,0.423828 -0.2127659,0.10445 -0.485437,0.15625 -0.8164062,0.15625 -0.2316785,0 -0.4386497,-0.02885 -0.6230469,-0.08789 v 0.509766 c 0.07565,0.02271 0.1770279,0.03974 0.3046875,0.04883 0.1276589,0.01362 0.2394217,0.01953 0.3339844,0.01953 0.4775413,0 0.8673215,-0.08261 1.1699219,-0.246094 0.3073284,-0.163487 0.5434997,-0.379864 0.7089843,-0.652344 0.1702126,-0.27702 0.2861903,-0.583863 0.3476563,-0.919921 0.066194,-0.3406 0.099609,-0.685475 0.099609,-1.035157 -3e-7,-0.485922 -0.075262,-0.885867 -0.2265626,-1.199218 C 6.5713563,17.129371 6.365516,16.892686 6.1054688,16.738281 5.8454216,16.579335 5.5539348,16.5 5.2324219,16.5 Z m 0,0.503906 c 0.2411347,0 0.4427592,0.06425 0.6035156,0.191406 0.1607565,0.127159 0.2809499,0.285827 0.3613281,0.476563 0.080378,0.190736 0.1210938,0.382848 0.1210938,0.578125 0,0.145323 -0.048015,0.287588 -0.1425782,0.423828 -0.089834,0.136239 -0.217328,0.249017 -0.3828124,0.339844 -0.1654848,0.08629 -0.3628935,0.128906 -0.5898438,0.128906 -0.3309693,0 -0.5755716,-0.08851 -0.7363281,-0.265625 -0.1560284,-0.181653 -0.234375,-0.428835 -0.234375,-0.742187 0,-0.381472 0.092947,-0.665369 0.2773437,-0.851563 0.1891254,-0.186194 0.4295121,-0.279297 0.7226563,-0.279297 z"/>
 <path style="fill:#8b9cbe" d="M 19.470703 2 C 19.152204 2 18.642376 2.056774 18.384766 2.171875 C 18.131841 2.2823722 17.907657 2.4189363 17.710938 2.5800781 L 18.041016 2.9882812 C 18.233052 2.8409515 18.418896 2.7254511 18.601562 2.6425781 C 18.784232 2.5597061 19.222461 2.5175781 19.470703 2.5175781 C 19.732996 2.5175781 19.945442 2.5896961 20.109375 2.7324219 C 20.273305 2.8705435 20.355469 3.0760171 20.355469 3.3476562 C 20.355469 3.5732549 20.309689 3.7767755 20.220703 3.9609375 C 20.131713 4.1450997 19.998297 4.3339738 19.820312 4.5273438 C 19.647012 4.7207137 19.437695 4.9427872 19.189453 5.1914062 L 17.654297 6.4960938 L 17.654297 7 L 20.970703 7 L 20.970703 6.4472656 L 18.433594 6.4472656 L 18.433594 6.4199219 L 19.701172 5.4042969 C 19.958781 5.1602823 20.184917 4.9280253 20.376953 4.7070312 C 20.568989 4.4860366 20.718444 4.262708 20.826172 4.0371094 C 20.933894 3.8115109 20.988281 3.5703269 20.988281 3.3125 C 20.988281 2.9073435 20.851739 2.5863691 20.580078 2.3515625 C 20.308417 2.1167559 19.939083 2 19.470703 2 z M 12.375 9 C 12.034574 9 11.619113 9.050479 11.349609 9.1503906 C 11.084834 9.2502996 10.86131 9.3676669 10.681641 9.5039062 L 10.994141 9.9121094 C 11.183266 9.7940349 11.374506 9.6963434 11.568359 9.6191406 C 11.762213 9.5419386 12.108581 9.5039063 12.382812 9.5039062 C 12.6665 9.5039062 12.891157 9.5694732 13.056641 9.7011719 C 13.222126 9.8283292 13.304687 10.009945 13.304688 10.246094 C 13.304688 10.523115 13.19601 10.746034 12.978516 10.914062 C 12.76575 11.082092 12.339904 11.220703 11.923828 11.220703 L 11.765625 11.220703 L 11.765625 11.677734 L 11.916016 11.677734 C 12.365188 11.677734 12.71312 11.746574 12.958984 11.882812 C 13.209574 12.014511 13.335938 12.230887 13.335938 12.535156 C 13.335938 12.834884 13.23456 13.07157 13.03125 13.244141 C 12.832669 13.41217 12.504682 13.496094 12.050781 13.496094 C 11.823831 13.496094 11.58766 13.468562 11.341797 13.414062 C 11.095934 13.359573 10.867063 13.280232 10.654297 13.175781 L 10.654297 13.734375 C 10.862335 13.834285 11.07969 13.90117 11.306641 13.9375 C 11.533591 13.97837 11.780146 14 12.044922 14 C 12.494095 14 12.85889 13.93902 13.142578 13.816406 C 13.430995 13.69379 13.644134 13.522671 13.78125 13.304688 C 13.918366 13.086704 13.988281 12.834932 13.988281 12.548828 C 13.988281 12.226394 13.88495 11.965444 13.681641 11.765625 C 13.483059 11.565807 13.183141 11.443851 12.78125 11.398438 L 12.78125 11.371094 C 13.098035 11.307514 13.463219 11.179017 13.652344 10.988281 C 13.846198 10.793004 13.943359 10.532054 13.943359 10.205078 C 13.943359 9.8553961 13.812781 9.5669104 13.552734 9.3398438 C 13.297415 9.1127737 12.904551 9 12.375 9 z M 5.2324219 16 C 4.9061807 16 4.6208629 16.06557 4.375 16.197266 C 4.1338652 16.328964 3.9468405 16.518438 3.8144531 16.763672 C 3.6820654 17.008903 3.6152344 17.301979 3.6152344 17.642578 C 3.6152344 18.110335 3.7469433 18.473566 4.0117188 18.732422 C 4.2812221 18.986736 4.6333712 19.113281 5.0683594 19.113281 C 5.375688 19.113281 5.6264592 19.058211 5.8203125 18.949219 C 6.0141659 18.835686 6.1666436 18.70128 6.2753906 18.546875 L 6.3183594 18.546875 C 6.3088994 18.810272 6.275487 19.063997 6.21875 19.304688 C 6.162012 19.540836 6.0690658 19.748033 5.9414062 19.929688 C 5.8137466 20.106799 5.6413221 20.249065 5.4238281 20.353516 C 5.2110622 20.457966 4.9383911 20.509766 4.6074219 20.509766 C 4.3757434 20.509766 4.1687722 20.480915 3.984375 20.421875 L 3.984375 20.931641 C 4.060025 20.954351 4.1614029 20.971379 4.2890625 20.980469 C 4.4167214 20.994089 4.5284842 21 4.6230469 21 C 5.1005882 21 5.4903684 20.91739 5.7929688 20.753906 C 6.1002972 20.590419 6.3364685 20.374042 6.5019531 20.101562 C 6.6721657 19.824542 6.7881434 19.517699 6.8496094 19.181641 C 6.9158034 18.841041 6.9492188 18.496166 6.9492188 18.146484 C 6.9492185 17.660562 6.8739568 17.260617 6.7226562 16.947266 C 6.5713563 16.629371 6.365516 16.392686 6.1054688 16.238281 C 5.8454216 16.079335 5.5539348 16 5.2324219 16 z M 5.2324219 16.503906 C 5.4735566 16.503906 5.6751811 16.568157 5.8359375 16.695312 C 5.996694 16.822471 6.1168874 16.981139 6.1972656 17.171875 C 6.2776436 17.362611 6.3183594 17.554723 6.3183594 17.75 C 6.3183594 17.895323 6.2703445 18.037588 6.1757812 18.173828 C 6.0859473 18.310067 5.9584532 18.422845 5.7929688 18.513672 C 5.627484 18.599962 5.4300753 18.642578 5.203125 18.642578 C 4.8721557 18.642578 4.6275534 18.554068 4.4667969 18.376953 C 4.3107685 18.1953 4.2324219 17.948118 4.2324219 17.634766 C 4.2324219 17.253294 4.3253689 16.969397 4.5097656 16.783203 C 4.698891 16.597009 4.9392777 16.503906 5.2324219 16.503906 z"/>
</svg>
