<svg xmlns="http://www.w3.org/2000/svg" width="24" height="24" version="1">
 <path style="fill:#4f4f4f" d="m 9.4693103,16.342 c -0.5357,-0.0284 -1.15,0.21736 -1.6396,0.70705 l -2.121,2.121 c -0.7835,0.7835 -0.94115,1.887 -0.35355,2.4745 0.5876,0.5875 1.691,0.43 2.4745,-0.3535 l 2.1211,-2.1211 c 0.7833997,-0.783 0.9409997,-1.887 0.3534997,-2.475 -0.2204,-0.22 -0.5135997,-0.336 -0.8349997,-0.353 z m 6.7194997,0 c -0.32142,0.01704 -0.61365,0.13316 -0.834,0.35352 -0.5876,0.5876 -0.42996,1.6911 0.35352,2.4746 l 2.1211,2.1211 c 0.78345,0.78345 1.887,0.9411 2.4746,0.35352 0.5876,-0.58758 0.42996,-1.6911 -0.35352,-2.4746 l -2.1211,-2.1211 c -0.48967,-0.48967 -1.105,-0.73545 -1.6406,-0.70705 z"/>
 <path style="opacity:0.2" d="m 10.63481,17.89 c -0.06993,0.43831 -0.30059,0.89725 -0.6835997,1.2802 l -2.1211,2.1211 c -0.784,0.7835 -1.8874,0.941 -2.475,0.3535 -0.18695,-0.187 -0.29015,-0.429 -0.33005,-0.6935 -0.072865,0.458 0.029908,0.8932 0.33008,1.1933 0.5876,0.5876 1.6911,0.42996 2.4746,-0.35352 l 2.1211,-2.1211 c 0.5338997,-0.534 0.7687997,-1.214 0.6834997,-1.78 z m 4.3906,0 c -0.08529,0.5667 0.14958,1.2462 0.6836,1.7802 l 2.1211,2.1211 c 0.78345,0.78345 1.887,0.9411 2.4746,0.35352 0.30017,-0.30017 0.40294,-0.73535 0.33008,-1.1933 -0.0399,0.26454 -0.14308,0.50635 -0.33008,0.69335 -0.5876,0.5876 -1.6912,0.42996 -2.4746,-0.35351 l -2.121,-2.121 c -0.383,-0.383 -0.6135,-0.842 -0.6835,-1.2805 z"/>
 <path style="fill:#48a040" d="M 5.5,2 A 3.5,3.5 0 0 0 2,5.5 3.5,3.5 0 0 0 5.5,9 3.5,3.5 0 0 0 9,5.5 3.5,3.5 0 0 0 5.5,2 Z m 14,0 A 3.5,3.5 0 0 0 16,5.5 3.5,3.5 0 0 0 19.5,9 3.5,3.5 0 0 0 23,5.5 3.5,3.5 0 0 0 19.5,2 Z"/>
 <path style="opacity:0.2;fill:#8b9cbe" d="M 5.5,2 A 3.5,3.5 0 0 0 2,5.5 3.5,3.5 0 0 0 2.0117,5.7246 3.5,3.5 0 0 1 5.5,2.5 3.5,3.5 0 0 1 8.9883,5.7754 3.5,3.5 0 0 0 9,5.5 3.5,3.5 0 0 0 5.5,2 Z m 14,0 A 3.5,3.5 0 0 0 16,5.5 3.5,3.5 0 0 0 16.012,5.7246 3.5,3.5 0 0 1 19.5,2.5 3.5,3.5 0 0 1 22.988,5.7754 3.5,3.5 0 0 0 23,5.5 3.5,3.5 0 0 0 19.5,2 Z"/>
 <rect style="fill:#48a040" width="20" height="20" x="-22" y="-23" rx="10" ry="10" transform="matrix(0,-1,-1,0,0,0)"/>
 <path style="opacity:0.2;fill:#8b9cbe" d="m 13,2.0091 c -5.535,0 -9.991,4.4559 -9.991,9.991 0,0.08379 -0.002,0.1665 0,0.24978 0.1322,-5.4185 4.54,-9.7415 9.991,-9.7415 5.451,0 9.859,4.3229 9.991,9.741 0.002,-0.08328 0,-0.16599 0,-0.24978 0,-5.5345 -4.456,-9.9905 -9.991,-9.9905 z"/>
 <rect style="opacity:0.7;fill:#8b9cbe" width="16" height="16" x="-20" y="-21" rx="8" ry="8" transform="matrix(0,-1,-1,0,0,0)"/>
 <path style="opacity:0.7" d="m 13,5 c -0.552285,0 -1,0.4477153 -1,1 0,0.5522847 0.447715,1 1,1 0.552285,0 1,-0.4477153 1,-1 0,-0.5522847 -0.447715,-1 -1,-1 z"/>
 <path style="opacity:0.7" d="m 7,10.99981 c -0.5522848,0 -1,0.447715 -1,1 0,0.552285 0.4477152,1 1,1 0.5522845,0 1,-0.447715 1,-1 0,-0.552285 -0.4477155,-1 -1,-1 z"/>
 <path style="opacity:0.7" d="m 19,10.99981 c -0.552285,0 -1,0.447715 -1,1 0,0.552285 0.447715,1 1,1 0.552284,0 1,-0.447715 1,-1 0,-0.552285 -0.447716,-1 -1,-1 z"/>
 <path style="opacity:0.7" d="m 13,17 c -0.552285,0 -1,0.447715 -1,1 0,0.552284 0.447715,1 1,1 0.552285,0 1,-0.447716 1,-1 0,-0.552285 -0.447715,-1 -1,-1 z"/>
 <path style="opacity:0.7" d="m 11.59,12.384 1.5106,2.6164 c 0.27674,0.47933 0.88555,0.64185 1.3653,0.36483 0.47978,-0.277 0.64345,-0.8855 0.36672,-1.3648 l -1.4999,-2.5978 3.4641,-2 C 17.03671,9.26413 17.11838,8.95959 16.97994,8.71978 16.8415,8.47999 16.53692,8.39844 16.29704,8.53694 l -4.154,2.3988 c -0.567,0.2827 -0.782,1.0207 -0.553,1.4477 z"/>
 <path style="opacity:0.2" d="M 3.00585,12.25 C 3.0038,12.3335 3,12.416 3,12.5 c 0,5.54 4.46,10 10,10 5.54,0 10,-4.46 10,-10 0,-0.08394 -0.0038,-0.16657 -0.0059,-0.25 -0.132,5.423 -4.538,9.75 -9.994,9.75 -5.4559,0 -9.8619,-4.327 -9.9939,-9.75 z"/>
</svg>
