<svg xmlns="http://www.w3.org/2000/svg" width="24" height="24" version="1">
 <rect style="opacity:0.2" width="20" height="18" x="2" y="2.5" rx="1.5" ry="1.5"/>
 <rect style="fill:#635d4c" width="20" height="18" x="2" y="2" rx="1.5" ry="1.5"/>
 <path style="opacity:0.2" d="m 5.25,5.4999994 a 0.24960792,0.24969989 0 0 0 -0.1582031,0.060547 0.24960792,0.24969989 0 0 0 -0.00977,0.00781 0.24960792,0.24969989 0 0 0 -0.00977,0.00977 0.24960792,0.24969989 0 0 0 0,0.00195 0.24960792,0.24969989 0 0 0 -0.015625,0.015625 0.24960792,0.24969989 0 0 0 -0.00195,0.00195 0.24960792,0.24969989 0 0 0 -0.050781,0.1972657 v 2.4550781 a 0.24960792,0.24969989 0 0 0 0.25,0.25 H 6.75 a 0.24960792,0.24969989 0 0 0 0.25,-0.25 V 5.7539056 a 0.24960792,0.24969989 0 0 0 -0.25,-0.25 H 5.2929688 A 0.24960792,0.24969989 0 0 0 5.25,5.4999994 Z m 3,0 a 0.24960792,0.24969989 0 0 0 -0.1582031,0.060547 0.24960792,0.24969989 0 0 0 -0.00977,0.00781 0.24960792,0.24969989 0 0 0 -0.00977,0.00977 0.24960792,0.24969989 0 0 0 0,0.00195 0.24960792,0.24969989 0 0 0 -0.015625,0.015625 0.24960792,0.24969989 0 0 0 -0.00195,0.00195 0.24960792,0.24969989 0 0 0 -0.050781,0.1972657 v 2.4550781 a 0.24960792,0.24969989 0 0 0 0.25,0.25 H 9.75 a 0.24960792,0.24969989 0 0 0 0.25,-0.25 V 5.7539056 a 0.24960792,0.24969989 0 0 0 -0.25,-0.25 H 8.2929688 A 0.24960792,0.24969989 0 0 0 8.25,5.4999994 Z m 3,0 c -0.05818,0.00112 -0.114135,0.022535 -0.158203,0.060547 -0.0033,0.00252 -0.0066,0.00513 -0.0098,0.00781 -0.0034,0.00317 -0.0066,0.00642 -0.0098,0.00977 0,0 0,0.00195 0,0.00195 -0.0054,0.00497 -0.01065,0.010188 -0.01563,0.015625 0,0 -0.002,0.00195 -0.002,0.00195 -0.04418,0.055547 -0.06266,0.1272805 -0.05078,0.1972657 v 2.4550781 c -1.66e-4,0.138176 0.111875,0.2502171 0.25,0.25 H 11.75 c 0.138125,2.171e-4 0.250166,-0.111824 0.25,-0.25 V 5.7539056 c 1.66e-4,-0.1381759 -0.111875,-0.2502171 -0.25,-0.25 h -0.457031 c -0.01418,-0.00254 -0.02856,-0.00385 -0.04297,-0.00391 z m 2,0 a 0.24960792,0.24969989 0 0 0 -0.158203,0.060547 0.24960792,0.24969989 0 0 0 -0.0098,0.00781 0.24960792,0.24969989 0 0 0 -0.0098,0.00977 0.24960792,0.24969989 0 0 0 0,0.00195 0.24960792,0.24969989 0 0 0 -0.01563,0.015625 0.24960792,0.24969989 0 0 0 -0.002,0.00195 0.24960792,0.24969989 0 0 0 -0.05078,0.1972657 v 2.4550781 a 0.24960792,0.24969989 0 0 0 0.25,0.25 H 14.75 a 0.24960792,0.24969989 0 0 0 0.25,-0.25 V 5.7539056 a 0.24960792,0.24969989 0 0 0 -0.25,-0.25 H 13.292969 A 0.24960792,0.24969989 0 0 0 13.25,5.4999994 Z m 3,0 c -0.05818,0.00112 -0.114135,0.022535 -0.158203,0.060547 -0.0033,0.00252 -0.0066,0.00513 -0.0098,0.00781 -0.0034,0.00317 -0.0066,0.00642 -0.0098,0.00977 0,0 0,0.00195 0,0.00195 -0.0054,0.00497 -0.01065,0.010188 -0.01563,0.015625 0,0 -0.002,0.00195 -0.002,0.00195 -0.04418,0.055547 -0.06266,0.1272805 -0.05078,0.1972657 v 2.4550781 c -1.66e-4,0.138176 0.111875,0.2502171 0.25,0.25 H 16.75 c 0.138125,2.171e-4 0.250166,-0.111824 0.25,-0.25 V 5.7539056 c 1.66e-4,-0.1381759 -0.111875,-0.2502171 -0.25,-0.25 h -0.457031 c -0.01418,-0.00254 -0.02856,-0.00385 -0.04297,-0.00391 z m -11,4 a 0.24960792,0.24969989 0 0 0 -0.1582031,0.060547 0.24960792,0.24969989 0 0 0 -0.00977,0.00781 0.24960792,0.24969989 0 0 0 -0.00977,0.00977 0.24960792,0.24969989 0 0 0 0,0.00195 0.24960792,0.24969989 0 0 0 -0.015625,0.015625 0.24960792,0.24969989 0 0 0 -0.00195,0.00195 0.24960792,0.24969989 0 0 0 -0.050781,0.1972657 V 12.25 a 0.24960792,0.24969989 0 0 0 0.25,0.25 H 6.75 A 0.24960792,0.24969989 0 0 0 7,12.25 V 9.7539056 a 0.24960792,0.24969989 0 0 0 -0.25,-0.25 H 5.2929688 A 0.24960792,0.24969989 0 0 0 5.25,9.4999994 Z m 3,0 c -0.05818,0.00112 -0.1141351,0.022535 -0.1582031,0.060547 -0.0033,0.00252 -0.00657,0.00513 -0.00977,0.00781 -0.0034,0.00317 -0.00657,0.00642 -0.00977,0.00977 0,0 0,0.00195 0,0.00195 -0.0054,0.00497 -0.010645,0.010188 -0.015625,0.015625 0,0 -0.00195,0.00195 -0.00195,0.00195 -0.04418,0.055547 -0.062661,0.1272805 -0.050781,0.1972657 V 12.25 c -1.66e-4,0.138176 0.111875,0.250217 0.25,0.25 H 8.75 C 8.888125,12.500217 9.000166,12.388176 9,12.25 V 9.7539056 c 1.66e-4,-0.1381759 -0.111875,-0.2502171 -0.25,-0.25 H 8.2929688 C 8.2787858,9.5013657 8.264409,9.5000594 8.25,9.4999994 Z m 2,0 a 0.24960792,0.24969989 0 0 0 -0.158203,0.060547 0.24960792,0.24969989 0 0 0 -0.0098,0.00781 0.24960792,0.24969989 0 0 0 -0.0098,0.00977 0.24960792,0.24969989 0 0 0 0,0.00195 0.24960792,0.24969989 0 0 0 -0.01563,0.015625 0.24960792,0.24969989 0 0 0 -0.002,0.00195 0.24960792,0.24969989 0 0 0 -0.05078,0.1972657 V 12.25 a 0.24960792,0.24969989 0 0 0 0.25,0.25 H 11.75 A 0.24960792,0.24969989 0 0 0 12,12.25 V 9.7539056 a 0.24960792,0.24969989 0 0 0 -0.25,-0.25 H 10.292969 A 0.24960792,0.24969989 0 0 0 10.25,9.4999994 Z m 3,0 a 0.24960792,0.24969989 0 0 0 -0.158203,0.060547 0.24960792,0.24969989 0 0 0 -0.0098,0.00781 0.24960792,0.24969989 0 0 0 -0.0098,0.00977 0.24960792,0.24969989 0 0 0 0,0.00195 0.24960792,0.24969989 0 0 0 -0.01563,0.015625 0.24960792,0.24969989 0 0 0 -0.002,0.00195 0.24960792,0.24969989 0 0 0 -0.05078,0.1972657 V 12.25 a 0.24960792,0.24969989 0 0 0 0.25,0.25 H 14.75 A 0.24960792,0.24969989 0 0 0 15,12.25 V 9.7539056 a 0.24960792,0.24969989 0 0 0 -0.25,-0.25 H 13.292969 A 0.24960792,0.24969989 0 0 0 13.25,9.4999994 Z m 3,0 a 0.24960792,0.24969989 0 0 0 -0.158203,0.060547 0.24960792,0.24969989 0 0 0 -0.0098,0.00781 0.24960792,0.24969989 0 0 0 -0.0098,0.00977 0.24960792,0.24969989 0 0 0 0,0.00195 0.24960792,0.24969989 0 0 0 -0.01563,0.015625 0.24960792,0.24969989 0 0 0 -0.002,0.00195 0.24960792,0.24969989 0 0 0 -0.05078,0.1972657 V 12.25 a 0.24960792,0.24969989 0 0 0 0.25,0.25 H 17.75 A 0.24960792,0.24969989 0 0 0 18,12.25 V 9.7539056 a 0.24960792,0.24969989 0 0 0 -0.25,-0.25 H 16.292969 A 0.24960792,0.24969989 0 0 0 16.25,9.4999994 Z M 5.25,13.5 a 0.24960792,0.24969989 0 0 0 -0.1582031,0.06055 0.24960792,0.24969989 0 0 0 -0.00977,0.0078 0.24960792,0.24969989 0 0 0 -0.00977,0.0098 0.24960792,0.24969989 0 0 0 0,0.002 0.24960792,0.24969989 0 0 0 -0.015625,0.01563 0.24960792,0.24969989 0 0 0 -0.00195,0.002 0.24960792,0.24969989 0 0 0 -0.050781,0.197266 V 16.25 a 0.24960792,0.24969989 0 0 0 0.25,0.25 H 6.75 A 0.24960792,0.24969989 0 0 0 7,16.25 v -2.496094 a 0.24960792,0.24969989 0 0 0 -0.25,-0.25 H 5.2929688 A 0.24960792,0.24969989 0 0 0 5.25,13.5 Z m 3,0 c -0.05818,0.0011 -0.1141351,0.02254 -0.1582031,0.06055 -0.0033,0.0025 -0.00657,0.0051 -0.00977,0.0078 -0.0034,0.0032 -0.00657,0.0064 -0.00977,0.0098 0,0 0,0.002 0,0.002 -0.0054,0.005 -0.010645,0.01018 -0.015625,0.01563 0,0 -0.00195,0.002 -0.00195,0.002 -0.04418,0.05555 -0.062661,0.12728 -0.050781,0.197266 V 16.25 c -1.66e-4,0.138176 0.111875,0.250217 0.25,0.25 H 8.75 C 8.888125,16.500217 9.000166,16.388176 9,16.25 v -2.496094 c 1.66e-4,-0.138176 -0.111875,-0.250217 -0.25,-0.25 H 8.2929688 C 8.2787858,13.501406 8.264409,13.5001 8.25,13.5 Z m 2,0 c -0.05818,0.0011 -0.114135,0.02254 -0.158203,0.06055 -0.0033,0.0025 -0.0066,0.0051 -0.0098,0.0078 -0.0034,0.0032 -0.0066,0.0064 -0.0098,0.0098 0,0 0,0.002 0,0.002 -0.0054,0.005 -0.01065,0.01018 -0.01563,0.01563 0,0 -0.002,0.002 -0.002,0.002 -0.04418,0.05555 -0.062662,0.12728 -0.05078,0.197266 V 16.25 c -1.66e-4,0.138176 0.111875,0.250217 0.25,0.25 H 10.75 c 0.138125,2.17e-4 0.250166,-0.111824 0.25,-0.25 v -2.496094 c 1.66e-4,-0.138176 -0.111875,-0.250217 -0.25,-0.25 H 10.292969 C 10.278789,13.501406 10.26441,13.5001 10.25,13.5 Z m 2,0 a 0.24960792,0.24969989 0 0 0 -0.158203,0.06055 0.24960792,0.24969989 0 0 0 -0.0098,0.0078 0.24960792,0.24969989 0 0 0 -0.0098,0.0098 0.24960792,0.24969989 0 0 0 0,0.002 0.24960792,0.24969989 0 0 0 -0.01563,0.01563 0.24960792,0.24969989 0 0 0 -0.002,0.002 0.24960792,0.24969989 0 0 0 -0.05078,0.197266 V 16.25 a 0.24960792,0.24969989 0 0 0 0.25,0.25 H 13.75 A 0.24960792,0.24969989 0 0 0 14,16.25 v -2.496094 a 0.24960792,0.24969989 0 0 0 -0.25,-0.25 H 12.292969 A 0.24960792,0.24969989 0 0 0 12.25,13.5 Z m 3,0 c -0.05818,0.0011 -0.114135,0.02254 -0.158203,0.06055 -0.0033,0.0025 -0.0066,0.0051 -0.0098,0.0078 -0.0034,0.0032 -0.0066,0.0064 -0.0098,0.0098 0,0 0,0.002 0,0.002 -0.0054,0.005 -0.01065,0.01018 -0.01563,0.01563 0,0 -0.002,0.002 -0.002,0.002 -0.04418,0.05555 -0.06266,0.12728 -0.05078,0.197266 V 16.25 c -1.66e-4,0.138176 0.111875,0.250217 0.25,0.25 H 15.75 c 0.138125,2.17e-4 0.250166,-0.111824 0.25,-0.25 v -2.496094 c 1.66e-4,-0.138176 -0.111875,-0.250217 -0.25,-0.25 H 15.292969 C 15.278789,13.501406 15.26441,13.5001 15.25,13.5 Z"/>
 <path style="opacity:0.2" d="m 20.794922,11.50293 c -0.169044,-0.01569 -0.256836,0.03418 -0.256836,0.03418 l -1.563477,1.133789 -1.575195,1.152343 -6.629883,4.94043 -1.1054685,2.37793 L 9,22.5 l 1.517578,-0.228515 2.526368,-0.451172 6.698241,-4.898438 1.570313,-1.158203 1.564453,-1.133789 c 0,0 0.523977,-0.488045 -0.591797,-1.96582 0,0 0,-0.001 0,-0.001 -8e-4,-10e-4 -0.0022,-0.0028 -0.003,-0.0039 -0.698722,-0.922579 -1.205565,-1.130104 -1.487304,-1.15625 z"/>
 <path style="fill:#8b9cbe" d="M 5.25 5 A 0.24960792 0.24969989 0 0 0 5.0917969 5.0605469 A 0.24960792 0.24969989 0 0 0 5.0820312 5.0683594 A 0.24960792 0.24969989 0 0 0 5.0722656 5.078125 A 0.24960792 0.24969989 0 0 0 5.0722656 5.0800781 A 0.24960792 0.24969989 0 0 0 5.0566406 5.0957031 A 0.24960792 0.24969989 0 0 0 5.0546875 5.0976562 A 0.24960792 0.24969989 0 0 0 5.0039062 5.2949219 L 5.0039062 7.75 A 0.24960792 0.24969989 0 0 0 5.2539062 8 L 6.75 8 A 0.24960792 0.24969989 0 0 0 7 7.75 L 7 5.2539062 A 0.24960792 0.24969989 0 0 0 6.75 5.0039062 L 5.2929688 5.0039062 A 0.24960792 0.24969989 0 0 0 5.25 5 z M 8.25 5 A 0.24960792 0.24969989 0 0 0 8.0917969 5.0605469 A 0.24960792 0.24969989 0 0 0 8.0820312 5.0683594 A 0.24960792 0.24969989 0 0 0 8.0722656 5.078125 A 0.24960792 0.24969989 0 0 0 8.0722656 5.0800781 A 0.24960792 0.24969989 0 0 0 8.0566406 5.0957031 A 0.24960792 0.24969989 0 0 0 8.0546875 5.0976562 A 0.24960792 0.24969989 0 0 0 8.0039062 5.2949219 L 8.0039062 7.75 A 0.24960792 0.24969989 0 0 0 8.2539062 8 L 9.75 8 A 0.24960792 0.24969989 0 0 0 10 7.75 L 10 5.2539062 A 0.24960792 0.24969989 0 0 0 9.75 5.0039062 L 8.2929688 5.0039062 A 0.24960792 0.24969989 0 0 0 8.25 5 z M 11.25 5 C 11.19182 5.00112 11.135865 5.0225349 11.091797 5.0605469 C 11.088497 5.0630669 11.085231 5.0656794 11.082031 5.0683594 C 11.078631 5.0715294 11.075466 5.074775 11.072266 5.078125 C 11.072266 5.078125 11.072266 5.0800781 11.072266 5.0800781 C 11.066866 5.0850481 11.061621 5.0902661 11.056641 5.0957031 C 11.056641 5.0957031 11.054688 5.0976562 11.054688 5.0976562 C 11.010507 5.1532032 10.992026 5.2249367 11.003906 5.2949219 L 11.003906 7.75 C 11.00374 7.888176 11.115781 8.0002171 11.253906 8 L 11.75 8 C 11.888125 8.0002171 12.000166 7.888176 12 7.75 L 12 5.2539062 C 12.000166 5.1157303 11.888125 5.0036891 11.75 5.0039062 L 11.292969 5.0039062 C 11.278786 5.0013659 11.264409 5.0000589 11.25 5 z M 13.25 5 A 0.24960792 0.24969989 0 0 0 13.091797 5.0605469 A 0.24960792 0.24969989 0 0 0 13.082031 5.0683594 A 0.24960792 0.24969989 0 0 0 13.072266 5.078125 A 0.24960792 0.24969989 0 0 0 13.072266 5.0800781 A 0.24960792 0.24969989 0 0 0 13.056641 5.0957031 A 0.24960792 0.24969989 0 0 0 13.054688 5.0976562 A 0.24960792 0.24969989 0 0 0 13.003906 5.2949219 L 13.003906 7.75 A 0.24960792 0.24969989 0 0 0 13.253906 8 L 14.75 8 A 0.24960792 0.24969989 0 0 0 15 7.75 L 15 5.2539062 A 0.24960792 0.24969989 0 0 0 14.75 5.0039062 L 13.292969 5.0039062 A 0.24960792 0.24969989 0 0 0 13.25 5 z M 16.25 5 C 16.19182 5.00112 16.135865 5.0225349 16.091797 5.0605469 C 16.088497 5.0630669 16.085231 5.0656794 16.082031 5.0683594 C 16.078631 5.0715294 16.075466 5.074775 16.072266 5.078125 C 16.072266 5.078125 16.072266 5.0800781 16.072266 5.0800781 C 16.066866 5.0850481 16.061621 5.0902661 16.056641 5.0957031 C 16.056641 5.0957031 16.054688 5.0976562 16.054688 5.0976562 C 16.010507 5.1532032 15.992026 5.2249367 16.003906 5.2949219 L 16.003906 7.75 C 16.00374 7.888176 16.115781 8.0002171 16.253906 8 L 16.75 8 C 16.888125 8.0002171 17.000166 7.888176 17 7.75 L 17 5.2539062 C 17.000166 5.1157303 16.888125 5.0036891 16.75 5.0039062 L 16.292969 5.0039062 C 16.278786 5.0013659 16.264409 5.0000589 16.25 5 z M 5.25 9 A 0.24960792 0.24969989 0 0 0 5.0917969 9.0605469 A 0.24960792 0.24969989 0 0 0 5.0820312 9.0683594 A 0.24960792 0.24969989 0 0 0 5.0722656 9.078125 A 0.24960792 0.24969989 0 0 0 5.0722656 9.0800781 A 0.24960792 0.24969989 0 0 0 5.0566406 9.0957031 A 0.24960792 0.24969989 0 0 0 5.0546875 9.0976562 A 0.24960792 0.24969989 0 0 0 5.0039062 9.2949219 L 5.0039062 11.75 A 0.24960792 0.24969989 0 0 0 5.2539062 12 L 6.75 12 A 0.24960792 0.24969989 0 0 0 7 11.75 L 7 9.2539062 A 0.24960792 0.24969989 0 0 0 6.75 9.0039062 L 5.2929688 9.0039062 A 0.24960792 0.24969989 0 0 0 5.25 9 z M 8.25 9 C 8.19182 9.00112 8.1358649 9.0225349 8.0917969 9.0605469 C 8.0884969 9.0630669 8.0852313 9.0656794 8.0820312 9.0683594 C 8.0786313 9.0715294 8.0754656 9.074775 8.0722656 9.078125 C 8.0722656 9.078125 8.0722656 9.0800781 8.0722656 9.0800781 C 8.0668656 9.0850481 8.0616206 9.0902661 8.0566406 9.0957031 C 8.0566406 9.0957031 8.0546875 9.0976562 8.0546875 9.0976562 C 8.0105075 9.1532033 7.9920263 9.2249367 8.0039062 9.2949219 L 8.0039062 11.75 C 8.0037402 11.888176 8.1157812 12.000217 8.2539062 12 L 8.75 12 C 8.888125 12.000217 9.000166 11.888176 9 11.75 L 9 9.2539062 C 9.000166 9.1157303 8.888125 9.0036891 8.75 9.0039062 L 8.2929688 9.0039062 C 8.2787858 9.0013663 8.264409 9.00006 8.25 9 z M 10.25 9 A 0.24960792 0.24969989 0 0 0 10.091797 9.0605469 A 0.24960792 0.24969989 0 0 0 10.082031 9.0683594 A 0.24960792 0.24969989 0 0 0 10.072266 9.078125 A 0.24960792 0.24969989 0 0 0 10.072266 9.0800781 A 0.24960792 0.24969989 0 0 0 10.056641 9.0957031 A 0.24960792 0.24969989 0 0 0 10.054688 9.0976562 A 0.24960792 0.24969989 0 0 0 10.003906 9.2949219 L 10.003906 11.75 A 0.24960792 0.24969989 0 0 0 10.253906 12 L 11.75 12 A 0.24960792 0.24969989 0 0 0 12 11.75 L 12 9.2539062 A 0.24960792 0.24969989 0 0 0 11.75 9.0039062 L 10.292969 9.0039062 A 0.24960792 0.24969989 0 0 0 10.25 9 z M 13.25 9 A 0.24960792 0.24969989 0 0 0 13.091797 9.0605469 A 0.24960792 0.24969989 0 0 0 13.082031 9.0683594 A 0.24960792 0.24969989 0 0 0 13.072266 9.078125 A 0.24960792 0.24969989 0 0 0 13.072266 9.0800781 A 0.24960792 0.24969989 0 0 0 13.056641 9.0957031 A 0.24960792 0.24969989 0 0 0 13.054688 9.0976562 A 0.24960792 0.24969989 0 0 0 13.003906 9.2949219 L 13.003906 11.75 A 0.24960792 0.24969989 0 0 0 13.253906 12 L 14.75 12 A 0.24960792 0.24969989 0 0 0 15 11.75 L 15 9.2539062 A 0.24960792 0.24969989 0 0 0 14.75 9.0039062 L 13.292969 9.0039062 A 0.24960792 0.24969989 0 0 0 13.25 9 z M 16.25 9 A 0.24960792 0.24969989 0 0 0 16.091797 9.0605469 A 0.24960792 0.24969989 0 0 0 16.082031 9.0683594 A 0.24960792 0.24969989 0 0 0 16.072266 9.078125 A 0.24960792 0.24969989 0 0 0 16.072266 9.0800781 A 0.24960792 0.24969989 0 0 0 16.056641 9.0957031 A 0.24960792 0.24969989 0 0 0 16.054688 9.0976562 A 0.24960792 0.24969989 0 0 0 16.003906 9.2949219 L 16.003906 11.75 A 0.24960792 0.24969989 0 0 0 16.253906 12 L 17.75 12 A 0.24960792 0.24969989 0 0 0 18 11.75 L 18 9.2539062 A 0.24960792 0.24969989 0 0 0 17.75 9.0039062 L 16.292969 9.0039062 A 0.24960792 0.24969989 0 0 0 16.25 9 z M 5.25 13 A 0.24960792 0.24969989 0 0 0 5.0917969 13.060547 A 0.24960792 0.24969989 0 0 0 5.0820312 13.068359 A 0.24960792 0.24969989 0 0 0 5.0722656 13.078125 A 0.24960792 0.24969989 0 0 0 5.0722656 13.080078 A 0.24960792 0.24969989 0 0 0 5.0566406 13.095703 A 0.24960792 0.24969989 0 0 0 5.0546875 13.097656 A 0.24960792 0.24969989 0 0 0 5.0039062 13.294922 L 5.0039062 15.75 A 0.24960792 0.24969989 0 0 0 5.2539062 16 L 6.75 16 A 0.24960792 0.24969989 0 0 0 7 15.75 L 7 13.253906 A 0.24960792 0.24969989 0 0 0 6.75 13.003906 L 5.2929688 13.003906 A 0.24960792 0.24969989 0 0 0 5.25 13 z M 8.25 13 C 8.19182 13.0011 8.1358649 13.022537 8.0917969 13.060547 C 8.0884969 13.063047 8.0852313 13.065659 8.0820312 13.068359 C 8.0786313 13.071559 8.0754656 13.074725 8.0722656 13.078125 C 8.0722656 13.078125 8.0722656 13.080078 8.0722656 13.080078 C 8.0668656 13.085078 8.0616206 13.090263 8.0566406 13.095703 C 8.0566406 13.095703 8.0546875 13.097656 8.0546875 13.097656 C 8.0105075 13.153206 7.9920263 13.224936 8.0039062 13.294922 L 8.0039062 15.75 C 8.0037402 15.888176 8.1157812 16.000217 8.2539062 16 L 8.75 16 C 8.888125 16.000217 9.000166 15.888176 9 15.75 L 9 13.253906 C 9.000166 13.11573 8.888125 13.003689 8.75 13.003906 L 8.2929688 13.003906 C 8.2787858 13.001406 8.264409 13.0001 8.25 13 z M 10.25 13 C 10.19182 13.0011 10.135865 13.022537 10.091797 13.060547 C 10.088497 13.063047 10.085231 13.065659 10.082031 13.068359 C 10.078631 13.071559 10.075466 13.074725 10.072266 13.078125 C 10.072266 13.078125 10.072266 13.080078 10.072266 13.080078 C 10.066866 13.085078 10.061621 13.090263 10.056641 13.095703 C 10.056641 13.095703 10.054688 13.097656 10.054688 13.097656 C 10.010507 13.153206 9.9920263 13.224936 10.003906 13.294922 L 10.003906 15.75 C 10.00374 15.888176 10.115781 16.000217 10.253906 16 L 10.75 16 C 10.888125 16.000217 11.000166 15.888176 11 15.75 L 11 13.253906 C 11.000166 13.11573 10.888125 13.003689 10.75 13.003906 L 10.292969 13.003906 C 10.278789 13.001406 10.26441 13.0001 10.25 13 z M 12.25 13 A 0.24960792 0.24969989 0 0 0 12.091797 13.060547 A 0.24960792 0.24969989 0 0 0 12.082031 13.068359 A 0.24960792 0.24969989 0 0 0 12.072266 13.078125 A 0.24960792 0.24969989 0 0 0 12.072266 13.080078 A 0.24960792 0.24969989 0 0 0 12.056641 13.095703 A 0.24960792 0.24969989 0 0 0 12.054688 13.097656 A 0.24960792 0.24969989 0 0 0 12.003906 13.294922 L 12.003906 15.75 A 0.24960792 0.24969989 0 0 0 12.253906 16 L 13.75 16 A 0.24960792 0.24969989 0 0 0 14 15.75 L 14 13.253906 A 0.24960792 0.24969989 0 0 0 13.75 13.003906 L 12.292969 13.003906 A 0.24960792 0.24969989 0 0 0 12.25 13 z M 15.25 13 C 15.19182 13.0011 15.135865 13.022537 15.091797 13.060547 C 15.088497 13.063047 15.085231 13.065659 15.082031 13.068359 C 15.078631 13.071559 15.075466 13.074725 15.072266 13.078125 C 15.072266 13.078125 15.072266 13.080078 15.072266 13.080078 C 15.066866 13.085078 15.061621 13.090263 15.056641 13.095703 C 15.056641 13.095703 15.054688 13.097656 15.054688 13.097656 C 15.010507 13.153206 14.992026 13.224936 15.003906 13.294922 L 15.003906 15.75 C 15.00374 15.888176 15.115781 16.000217 15.253906 16 L 15.75 16 C 15.888125 16.000217 16.000166 15.888176 16 15.75 L 16 13.253906 C 16.000166 13.11573 15.888125 13.003689 15.75 13.003906 L 15.292969 13.003906 C 15.278789 13.001406 15.26441 13.0001 15.25 13 z"/>
 <path style="opacity:0.1;fill:#8b9cbe" d="M 3.5,2 C 2.669,2 2,2.669 2,3.5 V 4 C 2,3.169 2.669,2.5 3.5,2.5 h 17 C 21.331,2.5 22,3.169 22,4 V 3.5 C 22,2.669 21.331,2 20.5,2 Z"/>
 <path style="fill:#ea5a67" d="m 18.974496,12.171319 1.563723,-1.134223 c 0,0 0.626285,-0.353591 1.74424,1.122535 l 2.8e-5,-2.8e-5 c 8e-4,10e-4 0.0015,0.002 0.0023,0.0031 3.07e-4,3.85e-4 6e-4,7.5e-4 8.5e-4,0.0011 v 0 c 1.115774,1.477775 0.591121,1.965776 0.591121,1.965776 l -1.563827,1.134016 z"/>
 <path style="fill:#9e9e9e" d="m 18.974496,12.171319 -1.575528,1.152214 2.343048,3.098398 1.570924,-1.15833 z"/>
 <path style="fill:#ffb505" d="m 17.398969,13.323533 2.343048,3.098399 -6.698418,4.898291 0.188813,-1.207386 -1.298941,-0.285314 0.138053,-1.299275 -1.302016,-0.264643 z"/>
 <path style="fill:#fbe289" d="m 10.769508,18.263605 1.302016,0.264643 -0.138053,1.299275 1.298941,0.285314 -0.188813,1.207386 -2.525656,0.451087 -0.8540075,-1.129324 z"/>
 <path style="fill:#17191e" d="M 10.517943,21.77131 9.6639355,20.641986 9,22 Z"/>
 <path style="opacity:0.2;fill:#8b9cbe" d="m 20.794922,11.00293 c -0.169044,-0.01569 -0.256836,0.03418 -0.256836,0.03418 l -1.563477,1.133789 -1.575195,1.152343 -6.629883,4.94043 -1.1054685,2.37793 L 9,22 l 0.263672,-0.04004 0.4003905,-0.818359 1.1054685,-2.37793 6.629883,-4.94043 1.575195,-1.152343 1.563477,-1.133789 c 0,0 0.08779,-0.04987 0.256836,-0.03418 0.281739,0.02614 0.788583,0.233671 1.487304,1.15625 8.01e-4,10e-4 0.0022,0.0029 0.0029,0.0039 v 10e-4 c 0.42869,0.567773 0.613365,0.986989 0.680665,1.291015 0.0771,-0.247742 0.07717,-0.787304 -0.680665,-1.791015 v -10e-4 c -8e-4,-10e-4 -0.0022,-0.0029 -0.0029,-0.0039 C 21.583505,11.2366 21.076661,11.029075 20.794922,11.00293 Z"/>
</svg>
