<svg xmlns="http://www.w3.org/2000/svg" width="24" height="24" version="1.1">
 <path style="opacity:0.2" d="m 2,4.5 v 16 h 2 v -1 h 1.0731707 v 1 H 20 v -1 h 1 v 1 h 2 v -16 h -2 v 1 h -1 v -1 H 5.0731707 v 1 H 4 v -1 z m 2,3 h 1.0731707 v 1 H 4 Z m 16,0 h 1 v 1 h -1 z m -16,3 h 1.0731707 v 1 H 4 Z m 16,0 h 1 v 1 h -1 z m -16,3 h 1.0731707 v 1 H 4 Z m 16,0 h 1 v 1 h -1 z m -16,3 h 1.0731707 v 1 H 4 Z m 16,0 h 1 v 1 h -1 z"/>
 <path style="fill:#ed5b36" d="m 2,4 v 16 h 2 v -1 h 1.0731707 v 1 H 20 v -1 h 1 v 1 h 2 V 4 H 21 V 5 H 20 V 4 H 5.0731707 V 5 H 4 V 4 Z M 4,7 H 5.0731707 V 8 H 4 Z m 16,0 h 1 V 8 H 20 Z M 4,10 h 1.0731707 v 1 H 4 Z m 16,0 h 1 v 1 H 20 Z M 4,13 h 1.0731707 v 1 H 4 Z m 16,0 h 1 v 1 H 20 Z M 4,16 h 1.0731707 v 1 H 4 Z m 16,0 h 1 v 1 h -1 z"/>
 <path style="opacity:0.2" d="M 12.5,18.655 8.2743902,14.5 H 16.72561 Z"/>
 <path style="fill:#8b9cbe" d="M 12.5,18.155 8.2743902,14 H 16.72561 Z"/>
 <path style="fill:#8b9cbe" d="m 9.995,11.800001 h 5 V 15 h -5 z"/>
 <path style="fill:#8b9cbe;fill-opacity:0.68000034" d="m 9.995,11.800001 h 1.666666 V 10.2 H 9.995 Z"/>
 <path style="fill:#8b9cbe" d="m 11.661666,11.800001 h 1.666668 V 10.2 h -1.666668 z"/>
 <path style="fill:#8b9cbe;fill-opacity:0.87999998" d="M 13.328334,11.800001 H 14.995 V 10.2 h -1.666666 z"/>
 <path style="fill:#8b9cbe;fill-opacity:0.68000034" d="M 14.995,10.2 H 13.328334 V 8.6000001 H 14.995 Z"/>
 <path style="fill:#8b9cbe;fill-opacity:0.54000005" d="M 13.328334,10.2 H 11.661666 V 8.6000001 h 1.666668 z"/>
 <path style="fill:#8b9cbe;fill-opacity:0.87999998" d="M 11.661666,10.2 H 9.995 V 8.6000001 h 1.666666 z"/>
 <path style="fill:#8b9cbe;fill-opacity:0.18999999" d="m 14.995,8.6000001 h -1.666666 v -1.6 H 14.995 Z"/>
 <path style="fill:#8b9cbe;fill-opacity:0.34000017" d="m 13.328334,8.6000001 h -1.666668 v -1.6 h 1.666668 z"/>
 <path style="fill:#8b9cbe;fill-opacity:0.06000001" d="M 11.661666,8.6000001 H 9.995 v -1.6 h 1.666666 z"/>
 <path style="fill:#8b9cbe;opacity:0.2" d="M 2 4 L 2 4.5 L 4 4.5 L 4 4 L 2 4 z M 5.0722656 4 L 5.0722656 4.5 L 20 4.5 L 20 4 L 5.0722656 4 z M 21 4 L 21 4.5 L 23 4.5 L 23 4 L 21 4 z M 4 5 L 4 5.5 L 5.0722656 5.5 L 5.0722656 5 L 4 5 z M 20 5 L 20 5.5 L 21 5.5 L 21 5 L 20 5 z M 4 8 L 4 8.5 L 5.0722656 8.5 L 5.0722656 8 L 4 8 z M 20 8 L 20 8.5 L 21 8.5 L 21 8 L 20 8 z M 4 11 L 4 11.5 L 5.0722656 11.5 L 5.0722656 11 L 4 11 z M 20 11 L 20 11.5 L 21 11.5 L 21 11 L 20 11 z M 4 14 L 4 14.5 L 5.0722656 14.5 L 5.0722656 14 L 4 14 z M 20 14 L 20 14.5 L 21 14.5 L 21 14 L 20 14 z M 4 17 L 4 17.5 L 5.0722656 17.5 L 5.0722656 17 L 4 17 z M 20 17 L 20 17.5 L 21 17.5 L 21 17 L 20 17 z"/>
</svg>
