<svg xmlns="http://www.w3.org/2000/svg" xmlns:xlink="http://www.w3.org/1999/xlink" width="24" height="24" preserveAspectRatio="xMidYMid meet" version="1.1">
 <defs>
  <path id="b1Uu1ewGb" d="m 490.72,139.23 c 4.1,0 7.42,3.32 7.42,7.42 0,13.65 0,47.18 0,60.83 0,4.1 -3.32,7.42 -7.42,7.42 -27.3,0 -101.77,0 -129.07,0 -4.1,0 -7.43,-3.32 -7.43,-7.42 0,-13.65 0,-47.18 0,-60.83 0,-4.1 3.33,-7.42 7.43,-7.42 27.3,0 101.77,0 129.07,0 z"/>
  <path id="b24bcEG6b5" d="m 297.34,214.9 c 5.52,0 10,4.48 10,10 0,13.14 0,42.55 0,55.68 0,5.52 -4.48,10 -10,10 -36.79,0 -137.14,0 -173.92,0 -5.52,0 -10,-4.48 -10,-10 0,-13.13 0,-42.54 0,-55.68 0,-5.52 4.48,-10 10,-10 36.78,0 137.13,0 173.92,0 z"/>
  <path id="d4HHCachsN" d="m 490.72,290.58 c 4.1,0 7.42,3.32 7.42,7.42 0,13.65 0,47.18 0,60.83 0,4.1 -3.32,7.43 -7.42,7.43 -27.3,0 -101.77,0 -129.07,0 -4.1,0 -7.43,-3.33 -7.43,-7.43 0,-13.65 0,-47.18 0,-60.83 0,-4.1 3.33,-7.42 7.43,-7.42 27.3,0 101.77,0 129.07,0 z"/>
 </defs>
 <path style="opacity:0.2" d="M 9.75,1.5000005 A 5.2499999,5.2499999 0 0 0 4.9570311,4.6152348 4.9999997,4.9999997 0 0 0 0.99999997,9.5000002 4.9999997,4.9999997 0 0 0 5.9999998,14.5 4.9999997,4.9999997 0 0 0 6.4980467,14.470703 5.2499999,5.2499999 0 0 0 11.25,17.5 5.2499999,5.2499999 0 0 0 14.974609,15.943359 3.9999992,3.9999992 0 0 0 17,16.5 3.9999992,3.9999992 0 0 0 20.999999,12.5 3.9999992,3.9999992 0 0 0 20.960938,11.980469 3.9999992,3.9999992 0 0 0 22.999999,8.4999998 3.9999992,3.9999992 0 0 0 19.251952,4.5117192 3.2499998,3.2499998 0 0 0 16.25,2.5000005 3.2499998,3.2499998 0 0 0 13.888672,3.5214848 5.2499999,5.2499999 0 0 0 9.75,1.5000005 Z M 14.999999,17.5 A 1.9999997,1.9999997 0 0 0 13,19.5 1.9999997,1.9999997 0 0 0 14.999999,21.499999 1.9999997,1.9999997 0 0 0 17,19.5 a 1.9999997,1.9999997 0 0 0 -2.000001,-2 z m -5.4999995,2 a 1.4999999,1.4999999 0 0 0 -1.5,1.5 1.4999999,1.4999999 0 0 0 1.5,1.5 A 1.4999999,1.4999999 0 0 0 10.999999,21 1.4999999,1.4999999 0 0 0 9.4999995,19.5 Z"/>
 <ellipse style="fill:#b2bfd9" cx="13.75" cy="7.25" rx="2.75" ry="2.75"/>
 <circle style="fill:#b2bfd9" cx="9.75" cy="6.25" r="5.25"/>
 <circle style="fill:#b2bfd9" cx="16.25" cy="5.25" r="3.25"/>
 <circle style="fill:#b2bfd9" cx="6" cy="9" r="5"/>
 <circle style="fill:#b2bfd9" cx="19" cy="8" r="4"/>
 <circle style="fill:#b2bfd9" cx="17" cy="12" r="4"/>
 <circle style="fill:#b2bfd9" cx="11.25" cy="11.75" r="5.25"/>
 <path style="fill:none;stroke:#17191e;stroke-width:0.99999988" d="m 9.999999,8.9000003 3.5,-2.8999996"/>
 <use style="opacity:0.1" width="100%" height="100%" x="0" y="0" transform="matrix(0.03474152,0,0,0.03964583,0.69385759,-0.0198877)" xlink:href="#b1Uu1ewGb"/>
 <use style="fill:#68b723" width="100%" height="100%" x="0" y="0" transform="matrix(0.03474152,0,0,0.03964583,0.69385759,-0.51988768)" xlink:href="#b1Uu1ewGb"/>
 <path style="fill:none;stroke:#17191e;stroke-width:0.99999988" d="m 9.999999,10.06499 3.5,2.9"/>
 <use style="opacity:0.1" width="100%" height="100%" x="0" y="0" transform="matrix(0.03609736,0,0,0.03964059,-0.09416254,-0.01876285)" xlink:href="#b24bcEG6b5"/>
 <use style="fill:#c6262e" width="100%" height="100%" x="0" y="0" transform="matrix(0.03609736,0,0,0.03964059,-0.09416254,-0.51876283)" xlink:href="#b24bcEG6b5"/>
 <use style="opacity:0.1" width="100%" height="100%" x="0" y="0" transform="matrix(0.03474152,0,0,0.03964059,0.69385759,-0.01876297)" xlink:href="#d4HHCachsN"/>
 <use style="fill:#3689e6" width="100%" height="100%" x="0" y="0" transform="matrix(0.03474152,0,0,0.03964059,0.69385759,-0.51876294)" xlink:href="#d4HHCachsN"/>
 <circle style="fill:#b2bfd9" cx="15" cy="19" r="2"/>
 <circle style="fill:#b2bfd9" cx="9.5" cy="20.5" r="1.5"/>
 <path style="opacity:0.2;fill:#8b9cbe" d="M 9.75,1 A 5.2499999,5.2499999 0 0 0 4.9570312,4.1152344 4.9999997,4.9999997 0 0 0 1,9 4.9999997,4.9999997 0 0 0 1.0097656,9.1992188 4.9999997,4.9999997 0 0 1 4.9570312,4.6152344 5.2499999,5.2499999 0 0 1 9.75,1.5 5.2499999,5.2499999 0 0 1 13.888672,3.5214844 3.2499998,3.2499998 0 0 1 16.25,2.5 3.2499998,3.2499998 0 0 1 19.251953,4.5117188 3.9999992,3.9999992 0 0 1 22.988281,8.2734375 3.9999992,3.9999992 0 0 0 23,8 3.9999992,3.9999992 0 0 0 19.251953,4.0117188 3.2499998,3.2499998 0 0 0 16.25,2 3.2499998,3.2499998 0 0 0 13.888672,3.0214844 5.2499999,5.2499999 0 0 0 9.75,1 Z m 11.248047,10.957031 a 3.9999992,3.9999992 0 0 1 -0.03711,0.02344 3.9999992,3.9999992 0 0 1 0.02734,0.318359 A 3.9999992,3.9999992 0 0 0 21,12 3.9999992,3.9999992 0 0 0 20.998,11.95703 Z M 15,17 a 1.9999998,1.9999998 0 0 0 -2,2 1.9999998,1.9999998 0 0 0 0.01758,0.255859 A 1.9999997,1.9999997 0 0 1 15,17.5 1.9999997,1.9999997 0 0 1 16.982422,19.244141 1.9999998,1.9999998 0 0 0 17,19 1.9999998,1.9999998 0 0 0 15,17 Z M 9.5,19 A 1.5,1.5 0 0 0 8,20.5 1.5,1.5 0 0 0 8.0214844,20.744141 1.4999999,1.4999999 0 0 1 9.5,19.5 1.4999999,1.4999999 0 0 1 10.978516,20.755859 1.5,1.5 0 0 0 11,20.5 1.5,1.5 0 0 0 9.5,19 Z"/>
</svg>
