<svg xmlns="http://www.w3.org/2000/svg" width="24" height="24" version="1.1">
 <rect style="opacity:0.2" width="22" height="19" x="1" y="2.5" rx="2" ry="2"/>
 <rect style="fill:#d63f36" width="22" height="19" x="1" y="2" rx="2" ry="2"/>
 <rect style="opacity:0.1" width="8" height="8" x="8" y="7.5" rx=".889" ry=".889"/>
 <rect style="fill:#7ea193" width="8" height="8" x="8" y="7" rx=".889" ry=".889"/>
 <path style="opacity:0.1" d="M 10,3.5 V 6.5 8 9.5 H 8 7 6 V 7 C 6,6.723 5.777,6.5 5.5,6.5 h -2 C 3.223,6.5 3,6.723 3,7 3,7.277 3.223,7.5 3.5,7.5 H 5 V 10 c 0,0.277 0.223,0.5 0.5,0.5 H 7 8 9.5 v 1 H 8 7 3.5 C 3.223,11.5 3,11.712547 3,11.976562 v 0.04688 C 3,12.287453 3.223,12.5 3.5,12.5 H 7 8 9.5 v 1 H 8 7 3.5 C 3.223,13.5 3,13.712547 3,13.976562 v 0.04688 3 C 3,17.287454 3.223,17.5 3.5,17.5 3.777,17.5 4,17.287453 4,17.023438 V 14.5 h 3 1 1 v 1.5 0.5 4 h 1 v -4 -0.5 -1.5 h 1 v 1.5 0.5 4 h 0.5 0.5 v -4 -0.5 -1.5 h 1 v 1.5 0.5 4 h 1 v -4 -0.5 -1.5 h 2 1 1 V 17 c 0,0.277 0.223,0.5 0.5,0.5 h 2 c 0.277,0 0.5,-0.223 0.5,-0.5 0,-0.277 -0.223,-0.5 -0.5,-0.5 H 19 V 14 c 0,-0.277 -0.223,-0.5 -0.5,-0.5 H 17 16 14.5 v -1 h 1.5 1 3.5 c 0.277,0 0.5,-0.212547 0.5,-0.476562 v -0.04688 C 21,11.712547 20.777,11.5 20.5,11.5 H 17 16 14.5 v -1 h 1.5 1 3.5 c 0.06925,0 0.135468,-0.01306 0.195312,-0.03711 C 20.874893,10.390738 21,10.221449 21,10.023438 v -0.046876 -3 C 21.000026,6.712547 20.777,6.5 20.5,6.5 20.223,6.5 20.00003,6.712547 20,6.9765625 V 9.5 H 17 16 15 V 8 6.5 3.5 H 14 V 6.5 8 9.5 H 13 V 8 6.5 3.5 H 12.5 12 V 6.5 8 9.5 H 11 V 8 6.5 3.5 Z m 0.5,7 h 1 v 1 h -1 z m 2,0 h 1 v 1 h -1 z m -2,2 h 1 v 1 h -1 z m 2,0 h 1 v 1 h -1 z"/>
 <path style="fill:#569c81" d="m 10,2.999939 v 4.5 c 0,0.277 0.223,0.5 0.5,0.5 0.277,0 0.56009,-0.2295962 0.5,-0.5 v -4.5 z m 2,0 v 4.5 c 0,0.277 0.223,0.5 0.5,0.5 0.277,0 0.506154,-0.2230684 0.5,-0.5 v -4.5 h -0.5 z m 2,0 v 4.5 c 0,0.277 0.223,0.5 0.5,0.5 0.277,0 0.506154,-0.2230684 0.5,-0.5 v -4.5 z m 6.5,2.9997798 c -0.277,0 -0.49997,0.212547 -0.5,0.4765625 l -2.9e-4,2.5236577 h -4 c -0.277,0 -0.5,0.212547 -0.5,0.4765625 v 0.046875 c 0,0.2640155 0.223,0.4765625 0.5,0.4765625 h 4.5 c 0.06925,0 0.135465,-0.01306 0.19531,-0.03711 0.17958,-0.072153 0.30469,-0.241441 0.30469,-0.4394525 V 9.4765015 L 21,6.4762813 C 21.000026,6.2122658 20.777,5.9997188 20.5,5.9997188 Z M 3.49971,5.999939 c -0.277,0 -0.5,0.223 -0.5,0.5 0,0.277 0.223,0.5 0.5,0.5 H 5 v 2.5 c 0,0.277 0.223,0.5 0.5,0.5 h 2.49971 c 0.277,0 0.5,-0.223 0.5,-0.5 0,-0.277 -0.223,-0.5 -0.5,-0.5 H 6 v -2.5 c 0,-0.277 -0.223,-0.5 -0.5,-0.5 z m 0,5 c -0.277,0 -0.5,0.212547 -0.5,0.476562 v 0.04687 c 0,0.264016 0.223,0.476563 0.5,0.476563 h 4.5 c 0.277,0 0.5,-0.212547 0.5,-0.476563 v -0.04687 c 0,-0.264015 -0.223,-0.476562 -0.5,-0.476562 z m 12.5,0 c -0.277,0 -0.5,0.212547 -0.5,0.476562 v 0.04687 c 0,0.264016 0.223,0.476563 0.5,0.476563 h 4.5 c 0.277,0 0.5,-0.212547 0.5,-0.476563 v -0.04687 c 0,-0.264015 -0.223,-0.476562 -0.5,-0.476562 z m -12.5,2 c -0.277,0 -0.5,0.212547 -0.5,0.476562 v 0.04687 3.000347 c 0,0.264017 0.223,0.476563 0.5,0.476563 0.277,0 0.5,-0.212547 0.5,-0.476563 v -2.523784 h 4 c 0.277,0 0.5,-0.212547 0.5,-0.476563 v -0.04687 c 0,-0.264015 -0.223,-0.476562 -0.5,-0.476562 z m 12.5,0 c -0.277,0 -0.5,0.223 -0.5,0.5 0,0.277 0.223,0.5 0.5,0.5 H 18 v 2.5 c 0,0.277 0.223,0.5 0.5,0.5 h 1.99971 c 0.277,0 0.5,-0.223 0.5,-0.5 0,-0.277 -0.223,-0.5 -0.5,-0.5 H 19 v -2.5 c 0,-0.277 -0.223,-0.5 -0.5,-0.5 z m -6.49971,2 c -0.277,0 -0.5,0.223 -0.5,0.5 v 4.5 h 1 v -4.5 c 0,-0.277 -0.223,-0.5 -0.5,-0.5 z m 2,0 c -0.277,0 -0.506154,0.223068 -0.5,0.5 v 4.5 h 0.5 0.5 v -4.5 c 0,-0.277 -0.223,-0.5 -0.5,-0.5 z m 2,0 c -0.277,0 -0.506154,0.223068 -0.5,0.5 v 4.5 h 1 v -4.5 c 0,-0.277 -0.223,-0.5 -0.5,-0.5 z"/>
 <path style="fill:#fbd14e" d="m 10,5.999939 v 3 H 7 v 1 h 2.49971 v 1 H 7 v 1 h 2.49971 v 1 H 7 v 1 H 9 V 16 h 1 v -2.000061 h 1 V 16 h 1 v -2.000061 h 1 V 16 h 1 v -2.000061 h 3 v -1 h -2.50029 v -1 H 17 v -1 h -2.50029 v -1 H 17 v -1 h -2 v -3 h -1 v 3 h -1 v -3 h -1 v 3 h -1 v -3 z m 0.49971,4 h 1 v 1 h -1 z m 2,0 h 1 v 1 h -1 z m -2,2 h 1 v 1 h -1 z m 2,0 h 1 v 1 h -1 z"/>
 <rect style="fill:#414141" width="6" height="6" x="9" y="8"/>
 <circle style="fill:#8b9cbe" cx="20.5" cy="6.5" r=".5"/>
 <circle style="fill:#8b9cbe" cx="20.5" cy="16.5" r=".5"/>
 <circle style="fill:#81e9c0" cx="3.5" cy="11.5" r=".5"/>
 <circle style="fill:#febd78" cx="20.5" cy="11.5" r=".5"/>
 <circle style="fill:#efa0d7" cx="3.5" cy="6.5" r=".5"/>
 <circle style="fill:#aeb4f1" cx="3.5" cy="16.5" r=".5"/>
 <path style="opacity:0.2;fill:#8b9cbe" d="M 3,2 C 1.892,2 1,2.892 1,4 v 0.5 c 0,-1.108 0.892,-2 2,-2 h 18 c 1.108,0 2,0.892 2,2 V 4 C 23,2.892 22.108,2 21,2 Z"/>
</svg>
