<svg xmlns="http://www.w3.org/2000/svg" width="24" height="24" version="1.1">
 <circle style="opacity:.2" cx="12" cy="12.5" r="10"/>
 <circle style="fill:#bfee00" cx="12" cy="12" r="10"/>
 <path style="fill:#8b9cbe;opacity:.2" d="M 12,2 A 10,10 0 0 0 2,12 10,10 0 0 0 2.0098,12.293 10,10 0 0 1 12,2.5 10,10 0 0 1 21.99,12.207 10,10 0 0 0 22,12 10,10 0 0 0 12,2 Z"/>
 <path style="opacity:.2" d="m9 3.5c-1.6666667 0-4 1-4 1l1 1s1.7981496-1 3-1c1.20185 0 3 1 3 1l1-1s-2.333333-1-4-1zm0 2c-0.942809 0-2 1-2 1l1 1s0.5285955-1 1-1 1 1 1 1l1-1s-1.057191-1-2-1zm0 2-1 2h-5.537109c-0.306058 0.970619-0.462152 1.982271-0.462891 3 0.0039 1.018232 0.163287 2.029896 0.472656 3h8.527344l1 2 1-2h8.537109c0.306057-0.970619 0.462152-1.982271 0.462891-3-0.0039-1.018232-0.163287-2.029896-0.472656-3h-5.527344l-1-2-1 2h-4z"/>
 <path style="fill:#162d50" d="m9 3c-1.6666667 0-4 1-4 1l1 1s1.7981496-1 3-1c1.20185 0 3 1 3 1l1-1s-2.333333-1-4-1zm0 2c-0.942809 0-2 1-2 1l1 1s0.5285955-1 1-1 1 1 1 1l1-1s-1.057191-1-2-1zm0 2-1 2h-5.5371094c-0.3060572 0.9706189-0.462152 1.982271-0.4628906 3 0.0039 1.018232 0.1632871 2.029896 0.4726562 3h8.5273438l1 2 1-2h8.537109c0.306057-0.970619 0.462152-1.982271 0.462891-3-0.003897-1.018232-0.163287-2.0298959-0.472656-3h-5.527344l-1-2-1 2h-4z"/>
 <path style="opacity:.2" d="m10 11.5v2h1v-2zm3 0v2h1v-2z"/>
 <path style="fill:#ffaaee" d="m10 11v2h1v-2zm3 0v2h1v-2z"/>
</svg>
