<svg xmlns="http://www.w3.org/2000/svg" width="24" height="24" version="1">
 <path style="fill:#b2bfd9" d="M 2,5.95 V 21 c 0,0.554 0.446,1 1,1 h 18 c 0.554,0 1,-0.446 1,-1 V 5.95 Z"/>
 <rect style="opacity:0.1" width="20" height=".5" x="2" y="6"/>
 <path style="opacity:0.1" d="m 12.757813,8 c -0.20154,0.016865 -0.401675,0.02653 -0.59961,0.051758 l 0.08691,0.012695 C 12.390577,8.011257 12.602982,8.0350315 12.757813,8 Z M 11.878906,8.091797 C 11.551513,8.111692 11.096058,8.2823605 11.236328,8.126952 10.702206,8.365397 9.7540715,8.7009595 9.2216795,9.2001945 l -0.0166,-0.112305 c -0.243923,0.2927945 -1.0636,0.8743265 -1.128906,1.2539065 l -0.06543,0.01563 c -0.126719,0.214946 -0.2089445,0.45771 -0.30957,0.678711 -0.165931,0.282991 -0.243369,0.108918 -0.2197265,0.15332 -0.326528,0.661995 -0.4889245,1.218386 -0.6289065,1.674805 0.099761,0.149208 0.0024,0.898474 0.04004,1.498046 -0.163769,2.961675 2.0782455,5.837252 4.5292975,6.500977 0.35925,0.128738 0.893253,0.124034 1.347653,0.13672 -0.535996,-0.153389 -0.605484,-0.0816 -1.127929,-0.263672 C 11.264905,20.558719 11.183004,20.356669 10.916016,20.125 l 0.105469,0.186523 c -0.523304,-0.185246 -0.304613,-0.229466 -0.730469,-0.364258 l 0.113281,-0.146484 c -0.169679,-0.01298 -0.4499615,-0.285985 -0.5263675,-0.4375 l -0.1855465,0.0068 C 9.469508,19.095342 9.350581,18.896984 9.359375,18.743163 l -0.05957,0.107422 C 9.231904,18.733958 8.479725,17.818178 8.870117,18.03125 8.7976035,17.965223 8.7002205,17.923548 8.595703,17.733398 l 0.080078,-0.09082 C 8.4882255,17.400817 8.329687,17.091501 8.341797,16.988281 8.44199,17.123505 8.5121445,17.148665 8.5810545,17.171875 8.1066155,15.994933 8.079812,17.106894 7.720703,15.973633 l 0.075195,-0.0059 C 7.737801,15.879691 7.702959,15.784968 7.65625,15.691406 L 7.688475,15.362305 C 7.347098,14.967876 7.593131,13.68275 7.642575,12.978516 7.676455,12.692209 7.9284105,12.387367 8.1191375,11.90918 L 8.0029265,11.88965 C 8.225225,11.502141 9.27187,10.332608 9.756833,10.392579 9.9916735,10.097623 9.710048,10.391479 9.6640595,10.317384 10.180017,9.78355 10.342274,9.940884 10.690427,9.8447275 11.065682,9.6219965 10.367999,9.9317525 10.545896,9.7597665 11.19506,9.594124 11.00587,9.382876 11.852536,9.298829 c 0.08938,0.050745 -0.207838,0.077673 -0.282226,0.143555 0.540609,-0.2646825 1.711078,-0.2035755 2.471679,0.147461 0.881843,0.412449 1.873874,1.630819 1.913086,2.777344 l 0.04394,0.01172 c -0.02249,0.455842 0.07032,0.983676 -0.08984,1.467773 l 0.108399,-0.229492 c 0.01298,0.348297 -0.102402,0.517125 -0.206055,0.816407 l -0.185547,0.09277 c -0.152379,0.29611 0.0144,0.188411 -0.09473,0.423828 -0.238157,0.211486 -0.721146,0.660918 -0.875977,0.702149 -0.113167,-0.0025 0.07677,-0.133393 0.101563,-0.184571 -0.318455,0.218551 -0.256039,0.327876 -0.743164,0.460938 L 14,15.897461 c -1.200874,0.565117 -2.869568,-0.554485 -2.847656,-2.082031 -0.01268,0.09688 -0.03695,0.0724 -0.06348,0.111328 -0.06199,-0.78583 0.363302,-1.575657 1.080079,-1.898437 0.701062,-0.346855 1.523561,-0.204713 2.02539,0.263671 -0.275638,-0.361271 -0.825269,-0.743471 -1.475586,-0.708007 -0.637343,0.01038 -1.233673,0.414652 -1.432617,0.854492 -0.326384,0.205431 -0.364692,0.792845 -0.506836,0.90039 -0.191592,1.407026 0.359804,2.014302 1.292969,2.729492 0.146469,0.0989 0.04191,0.1142 0.06152,0.189453 -0.309949,-0.145027 -0.593605,-0.364525 -0.827148,-0.632812 0.12398,0.181212 0.256836,0.357698 0.429687,0.496094 -0.292506,-0.09875 -0.682154,-0.708602 -0.795898,-0.733398 0.503848,0.902168 2.043708,1.582601 2.850586,1.245116 -0.373381,0.01384 -0.847377,0.0075 -1.266602,-0.147461 -0.176599,-0.09068 -0.415863,-0.278445 -0.373047,-0.313476 1.100825,0.411007 2.237116,0.311192 3.189454,-0.452148 0.242481,-0.188853 0.507433,-0.509348 0.583983,-0.513672 -0.115186,0.173283 0.02016,0.08337 -0.06836,0.236328 0.241039,-0.389383 -0.105473,-0.159056 0.249023,-0.672852 l 0.130859,0.180665 c -0.04902,-0.323501 0.401313,-0.71634 0.355469,-1.22754 0.103364,-0.156272 0.11542,0.168779 0.0059,0.528321 0.152092,-0.398898 0.04017,-0.463702 0.0791,-0.792969 0.04195,0.110717 0.09758,0.228787 0.125976,0.345703 -0.09918,-0.385635 0.101487,-0.649851 0.151367,-0.874023 -0.04931,-0.02163 -0.152826,0.171086 -0.176757,-0.28418 0.0036,-0.197791 0.05544,-0.103617 0.0752,-0.152344 -0.03864,-0.02234 -0.14128,-0.174068 -0.203125,-0.464843 0.04454,-0.06848 0.120515,0.176576 0.18164,0.186523 -0.03936,-0.231093 -0.107468,-0.407497 -0.110351,-0.584961 -0.178762,-0.373381 -0.06327,0.05003 -0.208008,-0.160156 -0.190294,-0.593085 0.157998,-0.136955 0.181641,-0.40625 0.288037,0.41735 0.452635,1.064033 0.52832,1.332031 -0.05767,-0.326816 -0.150904,-0.64385 -0.264648,-0.950195 0.08779,0.03705 -0.14091,-0.67183 0.114257,-0.202149 -0.272323,-1.001208 -1.165322,-1.937146 -1.986328,-2.3759765 0.100193,0.091831 0.226908,0.2074215 0.181641,0.225586 -0.408557,-0.242914 -0.336001,-0.261614 -0.394531,-0.364258 -0.332295,-0.1353685 -0.354372,0.01081 -0.574219,0 -0.627142,-0.332727 -0.748148,-0.297689 -1.32523,-0.5058595 L 13,8.345703 c -0.415332,-0.138396 -0.484816,0.051899 -0.933594,0 -0.02725,-0.02119 0.144166,-0.07733 0.285157,-0.097656 -0.401638,0.053052 -0.382404,-0.079201 -0.775391,0.01465 0.09673,-0.0679 0.199514,-0.1132335 0.302734,-0.1708985 z m 0.472657,0.15625 0.07519,-0.00683 0.0049,-0.00977 z m 0.08008,-0.0166 C 12.557929,8.203622 12.5862,8.178927 12.202151,8.16797 c 0.115042,0.02047 0.248666,0.035945 0.229492,0.063477 z m -5.299805,2.551758 c 0.03359,0.310526 -0.2340565,0.431561 0.058593,0.226562 0.157137,-0.353775 -0.060612,-0.09797 -0.058593,-0.226562 z M 6.89258,11.769533 C 6.7061775,12.007977 6.806717,12.059498 6.7871115,12.221681 6.8547235,12.01452 6.8667745,11.88962 6.89258,11.769533 Z m 7.677735,1.44043 c -0.02665,7e-4 -0.0609,0.06869 -0.07813,0.142578 0.04007,0.02104 0.07157,0.273459 0.110351,0.117187 0.01312,-0.193971 -0.0056,-0.26045 -0.03223,-0.259765 z m 2.355468,0.654296 -0.03223,0.0791 c -0.05795,0.412016 -0.182976,0.820104 -0.375,1.198242 0.212207,-0.398897 0.349129,-0.835197 0.407226,-1.277344 z m -2.495117,0.144532 c -0.02898,0.14272 -0.106452,0.266161 -0.179687,0.396484 -0.402646,0.253582 -0.03777,-0.14989 0,-0.303711 -0.432776,0.545367 -0.05934,0.326135 -0.0752,0.478516 0.128738,-0.177176 0.22187,-0.370904 0.254883,-0.571289 z m -0.877929,0.832031 c -0.17487,0.04282 -0.353577,0.04364 -0.533204,0.02735 -0.215379,0.0029 0.04101,0.110904 0.322266,0.154297 0.07799,-0.06084 0.148082,-0.121957 0.210938,-0.181641 z m -2.71875,0.02832 c 0.04758,0.174581 0.144961,0.324727 0.235351,0.477539 l -0.06641,-0.195314 c -0.07496,-0.08304 -0.119065,-0.183042 -0.168945,-0.282226 z m -0.166016,0.294922 -0.03027,0.151367 c 0.141712,0.192457 0.253935,0.400852 0.43457,0.550782 -0.130034,-0.253582 -0.2264,-0.358754 -0.404296,-0.702149 z"/>
 <path style="opacity:0.2" d="m 2,21 v 0.5 c 0,0.554 0.446,1 1,1 h 18 c 0.554,0 1,-0.446 1,-1 V 21 c 0,0.554 -0.446,1 -1,1 H 3 C 2.446,22 2,21.554 2,21 Z"/>
 <path style="fill:#e91e63" d="m 12.757813,7.5 c -0.20154,0.016865 -0.401675,0.02653 -0.59961,0.051758 l 0.08691,0.012695 C 12.390577,7.511257 12.602982,7.5350315 12.757813,7.5 Z M 11.878906,7.591797 C 11.551513,7.611692 11.096058,7.7823605 11.236328,7.626952 10.702206,7.865397 9.7540715,8.2009595 9.2216795,8.7001945 l -0.0166,-0.112305 C 8.9611565,8.880684 8.1414795,9.462216 8.0761735,9.841796 l -0.06543,0.015625 c -0.126719,0.214946 -0.2089445,0.45771 -0.30957,0.678711 -0.165931,0.282991 -0.243369,0.108918 -0.2197265,0.15332 -0.326528,0.661995 -0.4889245,1.218386 -0.6289065,1.674805 0.099761,0.149208 0.0024,0.898474 0.04004,1.498046 -0.163769,2.961675 2.0782455,5.837252 4.5292975,6.500977 0.35925,0.128738 0.893253,0.124034 1.347653,0.13672 C 12.233535,20.346611 12.164047,20.4184 11.641602,20.236328 11.264905,20.058719 11.183004,19.856669 10.916016,19.625 l 0.105469,0.186523 c -0.523304,-0.185246 -0.304613,-0.229466 -0.730469,-0.364258 l 0.113281,-0.146484 c -0.169679,-0.01298 -0.4499615,-0.285985 -0.5263675,-0.4375 l -0.1855465,0.0068 C 9.469508,18.595342 9.350581,18.396984 9.359375,18.243163 l -0.05957,0.107422 C 9.231904,18.233958 8.479725,17.318178 8.870117,17.53125 8.7976035,17.465223 8.7002205,17.423548 8.595703,17.233398 l 0.080078,-0.09082 C 8.4882255,16.900817 8.329687,16.591501 8.341797,16.488281 8.44199,16.623505 8.5121445,16.648665 8.5810545,16.671875 8.1066155,15.494933 8.079812,16.606894 7.720703,15.473633 l 0.075195,-0.0059 C 7.737801,15.379691 7.702959,15.284968 7.65625,15.191406 L 7.688475,14.862305 C 7.347098,14.467876 7.593131,13.18275 7.642575,12.478516 7.676455,12.192209 7.9284105,11.887367 8.1191375,11.40918 L 8.0029265,11.38965 C 8.225225,11.002141 9.27187,9.8326075 9.756833,9.892579 9.9916735,9.5976225 9.710048,9.891479 9.6640595,9.817384 10.180017,9.28355 10.342274,9.440884 10.690427,9.3447275 11.065682,9.1219965 10.367999,9.4317525 10.545896,9.2597665 11.19506,9.094124 11.00587,8.882876 11.852536,8.798829 c 0.08938,0.050745 -0.207838,0.077673 -0.282226,0.143555 0.540609,-0.2646825 1.711078,-0.2035755 2.471679,0.147461 0.881843,0.412449 1.873874,1.630819 1.913086,2.777344 l 0.04394,0.01172 c -0.02249,0.455842 0.07032,0.983676 -0.08984,1.467773 l 0.108399,-0.229492 c 0.01298,0.348297 -0.102402,0.517125 -0.206055,0.816407 l -0.185547,0.09277 c -0.152379,0.29611 0.0144,0.188411 -0.09473,0.423828 -0.238157,0.211486 -0.721146,0.660918 -0.875977,0.702149 -0.113167,-0.0025 0.07677,-0.133393 0.101563,-0.184571 -0.318455,0.218551 -0.256039,0.327876 -0.743164,0.460938 L 14,15.397461 c -1.200874,0.565117 -2.869568,-0.554485 -2.847656,-2.082031 -0.01268,0.09688 -0.03695,0.0724 -0.06348,0.111328 -0.06199,-0.78583 0.363302,-1.575657 1.080079,-1.898437 0.701062,-0.346855 1.523561,-0.204713 2.02539,0.263671 -0.275638,-0.361271 -0.825269,-0.743471 -1.475586,-0.708007 -0.637343,0.01038 -1.233673,0.414652 -1.432617,0.854492 -0.326384,0.205431 -0.364692,0.792845 -0.506836,0.90039 -0.191592,1.407026 0.359804,2.014302 1.292969,2.729493 0.146469,0.0989 0.04191,0.1142 0.06152,0.189453 -0.309949,-0.145028 -0.593605,-0.364526 -0.827148,-0.632813 0.12398,0.181212 0.256836,0.357698 0.429687,0.496094 -0.292506,-0.09875 -0.682154,-0.708602 -0.795898,-0.733398 0.503848,0.902169 2.043708,1.582601 2.850586,1.245116 -0.373381,0.01384 -0.847377,0.0075 -1.266602,-0.14746 -0.176599,-0.09068 -0.415863,-0.278445 -0.373047,-0.313477 1.100825,0.411007 2.237116,0.311192 3.189454,-0.452148 0.242481,-0.188853 0.507433,-0.509348 0.583983,-0.513672 -0.115186,0.173283 0.02016,0.08337 -0.06836,0.236328 0.241039,-0.389383 -0.105473,-0.159056 0.249023,-0.672852 l 0.130859,0.180665 c -0.04902,-0.323501 0.401313,-0.71634 0.355469,-1.22754 0.103364,-0.156272 0.11542,0.168779 0.0059,0.528321 0.152092,-0.398898 0.04017,-0.463702 0.0791,-0.792969 0.04195,0.110717 0.09758,0.228787 0.125976,0.345703 -0.09918,-0.385635 0.101487,-0.649851 0.151367,-0.874023 -0.04931,-0.02163 -0.152826,0.171086 -0.176757,-0.28418 0.0036,-0.197791 0.05544,-0.103617 0.0752,-0.152344 -0.03864,-0.02234 -0.14128,-0.174068 -0.203125,-0.464843 0.04454,-0.06848 0.120515,0.176576 0.18164,0.186523 -0.03936,-0.231093 -0.107468,-0.407497 -0.110351,-0.584961 -0.178762,-0.373381 -0.06327,0.05003 -0.208008,-0.160156 -0.190294,-0.593085 0.157998,-0.136955 0.181641,-0.40625 0.288037,0.41735 0.452635,1.064033 0.52832,1.332031 -0.05767,-0.326816 -0.150904,-0.64385 -0.264648,-0.950195 0.08779,0.03705 -0.14091,-0.67183 0.114257,-0.202149 -0.272323,-1.0012085 -1.165322,-1.937146 -1.986328,-2.3759765 0.100193,0.091831 0.226908,0.2074215 0.181641,0.225586 -0.408557,-0.242914 -0.336001,-0.261614 -0.394531,-0.364258 -0.332295,-0.1353685 -0.354372,0.01081 -0.574219,0 -0.627142,-0.332727 -0.748148,-0.297689 -1.32523,-0.5058595 L 13,7.845703 c -0.415332,-0.138396 -0.484816,0.051899 -0.933594,0 -0.02725,-0.02119 0.144166,-0.07733 0.285157,-0.097656 -0.401638,0.053052 -0.382404,-0.079201 -0.775391,0.01465 0.09673,-0.067901 0.199514,-0.1132335 0.302734,-0.1708985 z m 0.472657,0.15625 0.07519,-0.00683 0.0049,-0.00976 z m 0.08008,-0.0166 C 12.557929,7.703622 12.5862,7.678927 12.202151,7.66797 c 0.115042,0.02047 0.248666,0.03594 0.229492,0.063477 z m -5.299805,2.551758 c 0.03359,0.310526 -0.2340565,0.431561 0.058593,0.226562 0.157137,-0.353775 -0.060612,-0.09797 -0.058593,-0.226562 z M 6.89258,11.269533 C 6.7061775,11.507977 6.806717,11.559498 6.7871115,11.721681 6.8547235,11.51452 6.8667745,11.38962 6.89258,11.269533 Z m 7.677735,1.44043 c -0.02665,7e-4 -0.0609,0.06869 -0.07813,0.142578 0.04007,0.02104 0.07157,0.273459 0.110351,0.117187 0.01312,-0.193971 -0.0056,-0.26045 -0.03223,-0.259765 z m 2.355468,0.654296 -0.03223,0.0791 c -0.05795,0.412016 -0.182976,0.820104 -0.375,1.198242 0.212207,-0.398897 0.349129,-0.835197 0.407226,-1.277344 z m -2.495117,0.144532 c -0.02898,0.14272 -0.106452,0.266161 -0.179687,0.396484 -0.402646,0.253582 -0.03777,-0.14989 0,-0.303711 -0.432776,0.545367 -0.05934,0.326135 -0.0752,0.478516 0.128738,-0.177176 0.22187,-0.370904 0.254883,-0.571289 z m -0.877929,0.832031 c -0.17487,0.04282 -0.353577,0.04364 -0.533204,0.02735 -0.215379,0.0029 0.04101,0.110904 0.322266,0.154297 0.07799,-0.06084 0.148082,-0.121957 0.210938,-0.181641 z m -2.71875,0.02832 c 0.04758,0.174581 0.144961,0.324727 0.235351,0.477539 l -0.06641,-0.195314 c -0.07496,-0.08304 -0.119065,-0.183042 -0.168945,-0.282226 z m -0.166016,0.294922 -0.03027,0.151367 c 0.141712,0.192457 0.253935,0.400852 0.43457,0.550782 -0.130034,-0.253582 -0.2264,-0.358754 -0.404296,-0.702149 z"/>
 <path style="fill:#e91e63" d="M 3,2 C 2.446,2 2,2.446 2,3 V 6 H 22 V 3 C 22,2.446 21.554,2 21,2 Z"/>
 <path style="opacity:0.2;fill:#8b9cbe" d="M 3,2 C 2.446,2 2,2.446 2,3 v 0.5 c 0,-0.554 0.446,-1 1,-1 h 18 c 0.554,0 1,0.446 1,1 V 3 C 22,2.446 21.554,2 21,2 Z"/>
 <circle style="opacity:0.1" cx="18.5" cy="6" r="4.5"/>
 <circle style="fill:#06ad9c" cx="18.5" cy="5.5" r="4.5"/>
 <path style="fill:#8b9cbe" d="M 19,2.5002005 V 5 h 1.412 L 18.5,8.1 16.588,5 H 18 V 2.5 h 1 z"/>
</svg>
