<svg xmlns="http://www.w3.org/2000/svg" width="24" height="24" version="1">
 <path style="opacity:0.2" d="M 8,8.5 6.232422,10.267578 11.464844,15.5 H 13 v 1 h 2 v 2 h 2 v 2 h 1 v 1.535156 L 18.464844,22.5 H 22 Z"/>
 <path style="fill:#e8973e" d="M 8,8 6.232422,9.767578 11.464844,15 H 13 v 1 h 2 v 2 h 2 v 2 h 1 v 1.535156 L 18.464844,22 H 22 Z"/>
 <path style="opacity:0.2" d="M 9.767578,6.732422 8,8.5 l 14,14 v -3.535156 z"/>
 <path style="fill:#f0c550" d="M 9.767578,6.232422 8,8 22,22 v -3.535156 z"/>
 <path style="opacity:0.2;fill:#8b9cbe" d="M 9.767578,6.232422 8,8 8.25,8.25 9.767578,6.732422 22,18.964844 v -0.5 z"/>
 <circle style="opacity:0.2" cx="8" cy="8.5" r="6"/>
 <circle style="fill:#f0c550" cx="8" cy="8" r="6"/>
 <circle style="opacity:0.2" cx="6.5" cy="7" r="2.5"/>
 <circle style="fill:#8b9cbe" cx="6.5" cy="6.5" r="2.5"/>
 <path style="opacity:0.2;fill:#8b9cbe" d="M 8,2 A 6,6 0 0 0 2,8 6,6 0 0 0 2.0097656,8.296875 6,6 0 0 1 8,2.5 6,6 0 0 1 13.990235,8.203125 6,6 0 0 0 14,8 6,6 0 0 0 8,2 Z"/>
</svg>
