<svg xmlns="http://www.w3.org/2000/svg" width="24" height="24" version="1">
 <rect style="opacity:0.2" width="20" height="20" x="2" y="2.5" rx="6" ry="6"/>
 <rect style="fill:#b2bfd9" width="20" height="20" x="2" y="2" rx="6" ry="6"/>
 <path style="opacity:0.2;fill:#8b9cbe" d="M 8,2 C 4.676,2 2,4.676 2,8 v 0.5 c 0,-3.324 2.676,-6 6,-6 h 8 c 3.324,0 6,2.676 6,6 V 8 C 22,4.676 19.324,2 16,2 Z"/>
 <circle style="fill:#304f58" cx="12" cy="12" r="8"/>
 <path style="opacity:0.2" d="M 9.116211,6.123047 C 7.4821165,6.859996 6.1865045,8.2011495 5.5126955,9.8691405 6.184955,10.455341 8.6083735,12.571216 8.803711,12.743164 c 0.081299,0.07156 0.2407495,0.211852 0.354492,0.311524 l 0.2070315,0.18164 0.1455075,-0.0088 c 0.080125,-0.0044 0.3449705,-0.02227 0.588868,-0.04004 0.243897,-0.01777 0.551287,-0.03903 0.682617,-0.04687 0.131329,-0.0078 0.263652,-0.01718 0.294922,-0.02149 0.03127,-0.0043 0.164569,-0.01479 0.295898,-0.02246 0.131329,-0.0077 0.367093,-0.02347 0.523438,-0.03516 0.156344,-0.01168 0.452804,-0.03233 0.659179,-0.0459 0.526711,-0.03464 0.470497,0.0018 0.451172,-0.288086 -0.04062,-0.60928 -0.08637,-1.281171 -0.166015,-2.416992 -0.01798,-0.256405 -0.03952,-0.579214 -0.04785,-0.716797 l -0.01563,-0.25 -0.105468,-0.1035155 C 12.61405,9.183525 12.495758,9.0752085 12.408205,8.9990215 12.320652,8.9228345 12.075072,8.708507 11.862306,8.522459 11.64954,8.336411 11.434662,8.1490385 11.384767,8.1064435 11.334877,8.0638485 11.222319,7.96611 11.134767,7.88867 11.047214,7.8112295 10.67815,7.488459 10.315431,7.171873 9.952712,6.855287 9.425953,6.3940755 9.1445325,6.147459 9.1309825,6.135584 9.1296525,6.134819 9.1162125,6.123044 Z"/>
 <path style="fill:#b0b0b0" d="M 9.116211,5.623047 C 7.4821165,6.359996 6.1865045,7.7011495 5.5126955,9.3691405 c 0.6722595,0.586201 3.095678,2.7020755 3.2910155,2.8740235 0.081299,0.07156 0.2407495,0.211852 0.354492,0.311524 l 0.2070315,0.18164 0.1455075,-0.0088 c 0.080125,-0.0044 0.3449705,-0.02227 0.588868,-0.04004 0.243897,-0.01777 0.551287,-0.03903 0.682617,-0.04687 0.131329,-0.0078 0.263652,-0.01718 0.294922,-0.02149 0.03127,-0.0043 0.164569,-0.01479 0.295898,-0.02246 0.131329,-0.0077 0.367093,-0.02347 0.523438,-0.03516 0.156344,-0.01168 0.452804,-0.03233 0.659179,-0.0459 0.526711,-0.03464 0.470497,0.0018 0.451172,-0.288086 -0.04062,-0.60928 -0.08637,-1.281171 -0.166015,-2.416992 -0.01798,-0.256405 -0.03952,-0.579214 -0.04785,-0.716797 l -0.01563,-0.25 -0.105468,-0.1035155 C 12.61405,8.683525 12.495758,8.5752085 12.408205,8.4990215 12.320652,8.4228345 12.075072,8.208507 11.862306,8.022459 11.64954,7.836411 11.434662,7.6490385 11.384767,7.6064435 11.334877,7.5638485 11.222319,7.46611 11.134767,7.38867 11.047214,7.3112295 10.67815,6.988459 10.315431,6.671873 9.952712,6.355287 9.425953,5.8940755 9.1445325,5.647459 9.1309825,5.635584 9.1296525,5.634819 9.1162125,5.623044 Z"/>
 <path style="opacity:0.2" d="m 13.67323,15.447286 c -0.24448,-0.08095 -0.50975,-0.347965 -0.611185,-0.615203 -0.183511,-0.483474 0.05281,-1.031446 0.5406,-1.253483 0.164973,-0.07509 0.23198,-0.08635 0.444563,-0.07464 0.401909,0.02213 0.684823,0.20784 0.861994,0.565843 0.124573,0.251722 0.120533,0.623326 -0.0095,0.870666 -0.239852,0.456335 -0.746582,0.665729 -1.226501,0.506821 z"/>
 <path style="fill:#b0b0b0" d="m 13.67323,14.947286 c -0.24448,-0.08095 -0.50975,-0.347965 -0.611185,-0.615203 -0.183511,-0.483474 0.05281,-1.031446 0.5406,-1.253483 0.164973,-0.07509 0.23198,-0.08635 0.444563,-0.07464 0.401909,0.02213 0.684823,0.20784 0.861994,0.565843 0.124573,0.251722 0.120533,0.623326 -0.0095,0.870666 -0.239852,0.456335 -0.746582,0.665729 -1.226501,0.506821 z"/>
 <path style="opacity:0.2" d="M 12,4 A 8.000001,8.000001 0 0 0 4,12 8.000001,8.000001 0 0 0 4.0107422,12.290039 8.000001,8.000001 0 0 1 12,4.5 8.000001,8.000001 0 0 1 19.989258,12.209961 8.000001,8.000001 0 0 0 20,12 8.000001,8.000001 0 0 0 12,4 Z"/>
 <path style="opacity:0.2;fill:#8b9cbe" d="M 9.116211,5.623047 C 7.4821165,6.359996 6.1865045,7.7011495 5.5126955,9.3691405 5.5462355,9.3983905 5.634992,9.476263 5.676758,9.5126955 6.384164,8.012258 7.601539,6.8061385 9.116211,6.123047 c 0.01344,0.011775 0.01477,0.01254 0.02832,0.024415 0.2814205,0.2466165 0.8081795,0.707828 1.170899,1.024414 0.362719,0.316586 0.731783,0.6393565 0.819336,0.716797 0.08755,0.07744 0.20011,0.1751785 0.25,0.2177735 0.04989,0.042595 0.264772,0.2299675 0.477539,0.4160155 0.212766,0.186048 0.458345,0.4003755 0.545898,0.4765625 0.08755,0.076187 0.205846,0.1845035 0.263672,0.241211 l 0.105469,0.1035155 0.01563,0.25 c 0.0083,0.137583 0.02987,0.460392 0.04785,0.716797 0.07089,1.010986 0.109993,1.592486 0.14746,2.151367 0.04288,-0.03261 0.02787,-0.09471 0.01855,-0.234375 -0.04062,-0.60928 -0.08637,-1.281171 -0.166015,-2.416992 -0.01798,-0.256405 -0.03952,-0.579214 -0.04785,-0.716797 l -0.01563,-0.25 L 12.67187,8.7402355 C 12.614049,8.683528 12.495756,8.5752115 12.408203,8.4990245 12.32065,8.4228375 12.075071,8.20851 11.862305,8.022462 11.649538,7.836414 11.434661,7.6490415 11.384766,7.6064465 11.334876,7.5638515 11.222318,7.466113 11.134766,7.388673 11.047213,7.3112325 10.678149,6.988462 10.31543,6.671876 9.9527105,6.35529 9.4259515,5.8940785 9.144531,5.647462 9.130981,5.635587 9.129651,5.634822 9.116211,5.623047 Z"/>
 <path style="opacity:0.2;fill:#8b9cbe" d="M 19.989258,12.209961 A 8.000001,8.000001 0 0 1 12,20 8.000001,8.000001 0 0 1 4.0107422,12.290039 8.000001,8.000001 0 0 0 4,12.5 a 8.000001,8.000001 0 0 0 8,8 8.000001,8.000001 0 0 0 8,-8 8.000001,8.000001 0 0 0 -0.01074,-0.290039 z"/>
 <path style="fill:#8b9cbe;opacity:0.2" d="M 14.046875 13.003906 C 13.834292 12.992196 13.768489 13.003035 13.603516 13.078125 C 13.143441 13.287546 12.920228 13.786319 13.048828 14.248047 C 13.124423 13.965163 13.311409 13.711089 13.603516 13.578125 C 13.768489 13.503035 13.834292 13.492196 14.046875 13.503906 C 14.448784 13.526036 14.732985 13.712309 14.910156 14.070312 C 14.936888 14.124329 14.953837 14.185402 14.96875 14.248047 C 15.022603 14.024619 15.005355 13.762679 14.910156 13.570312 C 14.732985 13.212309 14.448784 13.026036 14.046875 13.003906 z"/>
</svg>
