<svg xmlns="http://www.w3.org/2000/svg" width="24" height="24" version="1">
 <rect style="fill:#b2bfd9" width="20" height="20" x="2" y="2" rx="1" ry="1"/>
 <path style="opacity:0.2;fill:#8b9cbe" d="M 3,2 C 2.446,2 2,2.446 2,3 v 0.5 c 0,-0.554 0.446,-1 1,-1 h 18 c 0.554,0 1,0.446 1,1 V 3 C 22,2.446 21.554,2 21,2 Z"/>
 <path style="opacity:0.2" d="m 3,22.5 c -0.554,0 -1,-0.446 -1,-1 V 21 c 0,0.554 0.446,1 1,1 h 18 c 0.554,0 1,-0.446 1,-1 v 0.5 c 0,0.554 -0.446,1 -1,1 z"/>
 <path style="opacity:0.2" d="m 20,4.5 0,6 -6,0 0,-6 z m -8,0 0,1 -1,0 0,-1 z m 0,1 1,0 0,2 -1,0 0,1 -1,0 0,-2 1,0 z m 0,3 1,0 0,2 -1,0 z m 0,2 0,1 -1,0 0,-1 z m -1,1 0,2 -2,0 0,-1 1,0 0,-1 z m -2,1 -2,0 0,-1 2,0 z m -2,0 0,1 -3,0 0,-2 2,0 0,1 z m 4,1 2,0 0,2 -1,0 0,-1 -1,0 z m 2,2 1,0 0,1 -1,0 z m 0,1 0,1 0,1 -1,0 0,-1 -1,0 0,-1 z m -1,2 0,2 -1,0 0,-2 z m 1,0 2,0 0,2 -2,0 z m 2,0 0,-1 1,0 0,1 z m 1,0 1,0 0,2 -1,0 z m 0,-1 0,-1 2,0 0,1 z m 2,0 1,0 0,1 1,0 0,1 -1,0 0,1 -1,0 z m -3,0 -1,0 0,-1 1,0 z m -1,-2 0,-1 1,0 0,1 z m 1,-1 0,-1 2,0 0,2 -1,0 0,-1 z m 0,-1 -2,0 0,-1 1,0 0,-1 1,0 z m -2,-1 -1,0 0,-1 1,0 z m -3,-8 0,6 -6,0 0,-6 z m 9,1 -4,0 0,4 4,0 z m -10,0 -4,0 0,4 4,0 z m 9,1 0,2 -2,0 0,-2 z m -10,0 0,2 -2,0 0,-2 z m 11,5 0,1 1,0 0,1 -2,0 0,-1 -2,0 0,-1 2,0 z m 1,3 0,2 -1,0 0,-1 -1,0 0,-1 1,0 z m -10,0 0,6 -6,0 0,-6 z m -1,1 -4,0 0,4 4,0 z m -1,1 0,2 -2,0 0,-2 z"/>
 <path style="fill:#17191e" d="m 20,4 v 6 H 14 V 4 Z M 12,4 V 5 H 11 V 4 Z m 0,1 h 1 V 7 H 12 V 8 H 11 V 6 h 1 z m 0,3 h 1 v 2 h -1 z m 0,2 v 1 h -1 v -1 z m -1,1 v 2 H 9 v -1 h 1 V 11 Z M 9,12 H 7 v -1 h 2 z m -2,0 v 1 H 4 v -2 h 2 v 1 z m 4,1 h 2 v 2 h -1 v -1 h -1 z m 2,2 h 1 v 1 h -1 z m 0,1 v 1 1 h -1 v -1 h -1 v -1 z m -1,2 v 2 h -1 v -2 z m 1,0 h 2 v 2 h -2 z m 2,0 v -1 h 1 v 1 z m 1,0 h 1 v 2 h -1 z m 0,-1 v -1 h 2 v 1 z m 2,0 h 1 v 1 h 1 v 1 h -1 v 1 h -1 z m -3,0 h -1 v -1 h 1 z m -1,-2 v -1 h 1 v 1 z m 1,-1 v -1 h 2 v 2 h -1 v -1 z m 0,-1 h -2 v -1 h 1 v -1 h 1 z m -2,-1 h -1 v -1 h 1 z M 10,4 v 6 H 4 V 4 Z m 9,1 h -4 v 4 h 4 z M 9,5 H 5 v 4 h 4 z m 9,1 V 8 H 16 V 6 Z M 8,6 V 8 H 6 V 6 Z m 11,5 v 1 h 1 v 1 h -2 v -1 h -2 v -1 h 2 z m 1,3 v 2 h -1 v -1 h -1 v -1 h 1 z m -10,0 v 6 H 4 V 14 Z M 9,15 H 5 v 4 h 4 z m -1,1 v 2 H 6 v -2 z"/>
</svg>
