<svg width="24" height="24" version="1.1" xmlns="http://www.w3.org/2000/svg">
 <g transform="translate(1,1)">
  <path d="m7 16.5 3 1 1 4 1-4 3-1v-1h-3v-14h-2v14h-3z" style="opacity:.2"/>
  <path d="m7 16 3 1 1 4 1-4 3-1v-1h-3v-14h-2v14h-3z" style="fill:#b2b2b2"/>
  <path d="m7 16h8v-11h-8z" style="fill:#d33e33"/>
  <path d="m9.5 1.49995a0.50005 0.50005 0 1 0 0 1h3a0.50005 0.50005 0 1 0 0-1z" style="opacity:.2"/>
  <path d="m9.5 1a0.50005 0.50005 0 1 0 0 1h3a0.50005 0.50005 0 1 0 0-1z" style="fill:#b2bfd9"/>
  <path d="m9 14.5h1l1-1 1 1h1l-2-2z" style="opacity:.1"/>
  <path d="m9 14h1l1-1 1 1h1l-2-2z" style="fill:#17191e"/>
  <rect x="12" y="8.5" width="1" height="3" style="opacity:.1"/>
  <rect x="12" y="8" width="1" height="3" style="fill:#17191e"/>
  <path d="m6.5 5.49995a0.50005 0.50005 0 1 0 0 1h9a0.50005 0.50005 0 1 0 0-1z" style="opacity:.2"/>
  <path d="m6.5 5a0.50005 0.50005 0 1 0 0 1h9a0.50005 0.50005 0 1 0 0-1z" style="fill:#b2bfd9"/>
  <path d="M 9.5,1 A 0.50005,0.50005 0 0 0 9.0605469,1.75 0.50005,0.50005 0 0 1 9.5,1.5 h 3 A 0.50005,0.50005 0 0 1 12.939453,1.75 0.50005,0.50005 0 0 0 12.5,1 Z" style="fill:#8b9cbe;opacity:.2"/>
  <path d="M 6.5,5 A 0.50005,0.50005 0 0 0 6.0605469,5.75 0.50005,0.50005 0 0 1 6.5,5.5 h 9 A 0.50005,0.50005 0 0 1 15.939453,5.75 0.50005,0.50005 0 0 0 15.5,5 Z" style="fill:#8b9cbe;opacity:.2"/>
 </g>
</svg>
