<svg xmlns="http://www.w3.org/2000/svg" width="24" height="24" version="1">
 <rect style="opacity:0.2" width="16" height="20" x="4" y="2.5" rx="1" ry="1"/>
 <rect style="fill:#f06a05" width="16" height="20" x="4" y="2" rx="1" ry="1"/>
 <path style="opacity:0.7;stroke:#fafafa;stroke-width:0.16949999;stroke-opacity:0.49710987" d="m 6,5.5848105 h 1.036432 z m 1.188442,0 h 0.967337 z m 1.1193465,0 h 0.856784 z m 0.9949755,0 h 0.3731155 z m 0.5251255,0 h 0.8291455 z m 0.9949755,0 h 2.183417 z m 2.321607,0 h 1.672111 z m 1.810302,0 h 0.511307 z M 6,6.6220885 h 1.616834 z m 1.7964825,0 h 0.773869 z m 0.91206,0 h 0.386935 z m 0.538945,0 h 0.704774 z m 0.8567835,0 h 0.718594 z m 0.856785,0 h 1.146985 z m 1.298994,0 h 1.492463 z m 1.630653,0 h 0.994975 z m 1.133166,0 h 0.248744 z M 6,7.652214 h 1.3680905 z m 1.5062815,0 H 9.744975 Z m 2.3768845,0 h 1.091708 z m 1.229899,0 h 1.022613 z m 1.160804,0 h 0.870603 z m 1.008794,0 1.368091,0.014305 z m 1.492463,0.014305 H 17 Z M 6,8.696645 h 1.893216 z m 2.0452265,0 h 2.0452255 z m 2.1834165,0 h 0.815328 z m 0.953518,0 h 1.920854 z m 2.045226,0 h 1.312814 z m 1.464824,0 h 0.525126 z m 0.663317,0 h 0.290201 z m 0.442211,0 h 0.815326 z M 6,9.7339235 h 0.704774 z m 0.9258795,0 h 2.611809 z M 6,11.462721 h 1.036432 z m 1.188442,0 H 8.14196 Z m 1.1193465,0 h 0.856784 z m 0.9949755,0 h 0.3731155 z m 0.5251255,0 h 0.8291455 z m 0.9949755,0 h 2.169598 z m 2.321607,0 h 1.658292 z m 1.796483,0 h 0.525126 z m 0.663316,0 H 16.84799 Z M 6,12.499999 h 1.741206 z m 1.879397,0 h 1.865578 z m 2.003769,0 h 0.718593 z m 0.856784,0 h 1.755025 z m 1.893215,0 h 2.211056 z m 2.363066,0 h 0.815327 z M 6,13.537278 h 1.893216 z m 2.0452265,0 h 2.0452255 z m 2.1834165,0 h 0.815328 z m 0.953518,0 h 1.920854 z m 2.045226,0 h 1.312814 z m 1.464824,0 h 0.525126 z m 0.663317,0 h 0.290201 z m 0.442211,0 h 0.815326 z M 6,14.574556 h 1.616834 z m 1.7964825,0 h 0.773869 z m 0.91206,0 h 0.386935 z m 0.538945,0 h 0.704774 z m 0.8567835,0 h 0.718594 z m 0.856785,0 h 1.146985 z m 1.298994,0 h 1.492463 z m 1.630653,0 h 0.994975 z m 1.133166,0 h 0.248744 z M 6,16.296202 h 1.3680905 z m 1.5062815,0 H 9.744975 Z m 2.3768845,0 h 1.091708 z m 1.229899,0 h 1.022613 z m 1.160804,0 h 0.870603 z m 1.008794,0 1.368091,0.01431 z m 1.492463,0.01431 H 17 Z M 6,17.340633 h 1.616834 z m 1.7964825,0 h 0.773869 z m 0.91206,0 h 0.386935 z m 0.538945,0 h 0.704774 z m 0.8567835,0 h 0.718594 z m 0.856785,0 h 1.146985 z m 1.298994,0 h 1.492463 z m 1.630653,0 h 0.994975 z m 1.133166,0 h 0.248744 z M 6,18.377911 h 1.713568 z m 1.8655775,0 h 0.538945 z m 0.677136,0 H 9.772613 Z m 1.3680905,0 h 1.810302 z m 1.962312,0 h 1.229899 z m 1.354271,0 h 0.262563 z m 0.400754,0 h 1.561558 z m 1.727387,0 h 0.815327 z M 6,19.415189 h 1.713568 z m 1.8655775,0 h 0.77387 z m 0.9120605,0 h 1.2160805 z m 1.354272,0 h 1.312814 z m 1.464824,0 h 0.525126 z m 0.663316,0 h 0.290202 z m 0.442212,0 h 0.815326 z"/>
 <path style="opacity:0.2" d="m 12,6.5 c -0.05312,0 -0.104749,3.531e-4 -0.158203,0.00195 C 8.9225464,6.5885381 7.0008245,8.9918579 7,11.927734 V 13.056641 14.5 H 6.3359375 C 6.1494085,14.5 6,14.646474 6,14.833984 v 2.337891 C 6,17.359385 6.1495955,17.491647 6.3359375,17.5 H 6.5996094 6.765625 7 v 0.660156 C 7,18.347669 7.1533147,18.5 7.3398438,18.5 H 8.6777344 C 8.8642629,18.5 9,18.347666 9,18.160156 V 13.84375 C 9,13.65624 8.8642559,13.498371 8.6777344,13.5 h -0.671875 v -0.441406 h -0.00977 v -1.13086 C 8.1064718,9.6802099 9.468916,7.5 12,7.5 c 2.531084,0 3.895446,2.1802099 4.005859,4.427734 v 1.13086 h -0.01172 V 13.5 H 15.322266 C 15.135744,13.498371 15,13.65624 15,13.84375 v 4.316406 C 15,18.347666 15.135738,18.5 15.322266,18.5 h 1.33789 C 16.846685,18.5 17,18.347669 17,18.160156 V 17.5 h 0.236328 0.164063 0.263671 C 17.850405,17.491647 18,17.359385 18,17.171875 V 14.833984 C 18,14.646474 17.850592,14.5 17.664062,14.5 H 17 V 13.056641 11.927734 C 16.999176,8.9918579 15.077454,6.5885381 12.158203,6.5019531 12.104749,6.5003531 12.05312,6.5 12,6.5 Z"/>
 <path style="fill:#8b9cbe" d="M 12 6 C 11.946877 6 11.895251 6.0003531 11.841797 6.0019531 C 8.9225464 6.0885381 7.0008245 8.4918579 7 11.427734 L 7 12.556641 L 7 14 L 6.3359375 14 C 6.1494085 14 6 14.146474 6 14.333984 L 6 16.671875 C 6 16.859385 6.1495955 16.991647 6.3359375 17 L 6.5996094 17 L 6.765625 17 L 7 17 L 7 17.660156 C 7 17.847669 7.1533147 18 7.3398438 18 L 8.6777344 18 C 8.8642629 18 9 17.847666 9 17.660156 L 9 13.34375 C 9 13.15624 8.8642559 12.998371 8.6777344 13 L 8.0058594 13 L 8.0058594 12.558594 L 7.9960938 12.558594 L 7.9960938 11.427734 C 8.1064718 9.1802099 9.468916 7 12 7 C 14.531084 7 15.895446 9.1802099 16.005859 11.427734 L 16.005859 12.558594 L 15.994141 12.558594 L 15.994141 13 L 15.322266 13 C 15.135744 12.998371 15 13.15624 15 13.34375 L 15 17.660156 C 15 17.847666 15.135738 18 15.322266 18 L 16.660156 18 C 16.846685 18 17 17.847669 17 17.660156 L 17 17 L 17.236328 17 L 17.400391 17 L 17.664062 17 C 17.850405 16.991647 18 16.859385 18 16.671875 L 18 14.333984 C 18 14.146474 17.850592 14 17.664062 14 L 17 14 L 17 12.556641 L 17 11.427734 C 16.999176 8.4918579 15.077454 6.0885381 12.158203 6.0019531 C 12.104749 6.0003531 12.05312 6 12 6 z"/>
 <path style="opacity:0.2;fill:#8b9cbe" d="M 5,2 C 4.446,2 4,2.446 4,3 v 0.5 c 0,-0.554 0.446,-1 1,-1 h 14 c 0.554,0 1,0.446 1,1 V 3 C 20,2.446 19.554,2 19,2 Z"/>
</svg>
