<svg xmlns="http://www.w3.org/2000/svg" width="24" height="24" version="1.1">
 <rect style="fill:#17191e" width="18" height="18" x="3" y="3" rx=".581" ry=".546"/>
 <path style="opacity:0.2;stroke:#808080;stroke-width:0;stroke-linecap:round;stroke-linejoin:round" d="m 2.5000019,2.49999 c -0.2769997,0 -0.5000001,0.22299 -0.5000001,0.49999 l 0,5.00001 c 0,0.27704 0.2230004,0.5 0.5000001,0.5 l 4.9999989,0 c 0.2769978,0 0.4999997,-0.223 0.4999997,-0.5 l 0,-5.00001 c 0,-0.27704 -0.2229996,-0.49999 -0.4999997,-0.49999 z m 6.9999985,0 c -0.2770016,0 -0.5000001,0.22299 -0.5000001,0.49999 l 0,5.00001 c 0,0.27704 0.2229997,0.5 0.5000001,0.5 l 4.9999986,0 c 0.277001,0 0.5,-0.223 0.5,-0.5 l 0,-5.00001 c 0,-0.27704 -0.223,-0.49999 -0.5,-0.49999 z m 6.9999976,0 c -0.277001,0 -0.499999,0.22299 -0.499999,0.49999 l 0,5.00001 c 0,0.27704 0.222999,0.5 0.499999,0.5 l 4.999999,0 c 0.276998,0 0.500001,-0.223 0.500001,-0.5 l 0,-5.00001 c 0,-0.27704 -0.223003,-0.49999 -0.500001,-0.49999 z M 2.5000019,9.49997 c -0.2769997,0 -0.5000001,0.223 -0.5000001,0.50003 l 0,4.99998 c 0,0.27704 0.2230004,0.49999 0.5000001,0.49999 l 4.9999989,0 c 0.2769978,0 0.4999997,-0.22299 0.4999997,-0.49999 l 0,-4.99998 c 0,-0.27703 -0.2229996,-0.50003 -0.4999997,-0.50003 z m 6.9999985,0 c -0.2770016,0 -0.5000001,0.223 -0.5000001,0.50003 l 0,4.99998 c 0,0.27704 0.2229997,0.49999 0.5000001,0.49999 l 4.9999986,0 c 0.277001,0 0.5,-0.22299 0.5,-0.49999 l 0,-4.99998 c 0,-0.27703 -0.223,-0.50003 -0.5,-0.50003 z m 6.9999976,0 c -0.277001,0 -0.499999,0.223 -0.499999,0.50003 l 0,4.99998 c 0,0.27704 0.222999,0.49999 0.499999,0.49999 l 4.999999,0 c 0.276998,0 0.500001,-0.22299 0.500001,-0.49999 l 0,-4.99998 c 0,-0.27703 -0.223003,-0.50003 -0.500001,-0.50003 z M 2.5000019,16.5 c -0.2769997,0 -0.5000001,0.22299 -0.5000001,0.49999 l 0,5.00001 c 0,0.27704 0.2230004,0.5 0.5000001,0.5 l 4.9999989,0 c 0.2769978,0 0.4999997,-0.22299 0.4999997,-0.5 l 0,-5.00001 C 8.0000005,16.72295 7.7770009,16.5 7.5000008,16.5 Z m 6.9999985,0 c -0.2770016,0 -0.5000001,0.22299 -0.5000001,0.49999 l 0,5.00001 c 0,0.27704 0.2229997,0.5 0.5000001,0.5 l 4.9999986,0 c 0.277001,0 0.5,-0.22299 0.5,-0.5 l 0,-5.00001 c 0,-0.27704 -0.223,-0.49999 -0.5,-0.49999 z m 6.9999976,0 c -0.277001,0 -0.499999,0.22299 -0.499999,0.49999 l 0,5.00001 c 0,0.27704 0.222999,0.5 0.499999,0.5 l 4.999999,0 c 0.276998,0 0.500001,-0.22299 0.500001,-0.5 l 0,-5.00001 c 0,-0.27704 -0.223003,-0.49999 -0.500001,-0.49999 z"/>
 <path style="fill:#b2bfd9;stroke:#808080;stroke-width:0;stroke-linecap:round;stroke-linejoin:round" d="m 2.5000019,1.99999 c -0.2769997,0 -0.4999999,0.223 -0.4999999,0.5 l 0,5.00001 c 0,0.27704 0.223,0.49999 0.4999999,0.49999 l 4.9999989,0 C 7.7770024,7.99999 8.0000009,7.777 8.0000009,7.5 l 0,-5.00001 c 0,-0.27704 -0.2229997,-0.5 -0.5000001,-0.5 z"/>
 <path style="fill:#f57e26;stroke:#808080;stroke-width:0;stroke-linecap:round;stroke-linejoin:round" d="m 9.5000004,1.99999 c -0.2770016,0 -0.5000001,0.223 -0.5000001,0.5 l 0,5.00001 c 0,0.27704 0.2229997,0.49999 0.5000001,0.49999 l 4.9999986,0 c 0.277001,0 0.5,-0.22299 0.5,-0.49999 l 0,-5.00001 c 0,-0.27704 -0.223,-0.5 -0.5,-0.5 z"/>
 <path style="fill:#b130ae;stroke:#808080;stroke-width:0;stroke-linecap:round;stroke-linejoin:round" d="m 16.499999,1.99999 c -0.277002,0 -0.5,0.223 -0.5,0.5 l 0,5.00001 c 0,0.27704 0.222999,0.49999 0.5,0.49999 l 4.999998,0 c 0.276998,0 0.500001,-0.22299 0.500001,-0.49999 l 0,-5.00001 c 0,-0.27704 -0.223003,-0.5 -0.500001,-0.5 z"/>
 <path style="fill:#b130ae;stroke:#808080;stroke-width:0;stroke-linecap:round;stroke-linejoin:round" d="m 2.5000019,8.99998 c -0.2769997,0 -0.4999999,0.22299 -0.4999999,0.49999 l 0,5.00002 c 0,0.27703 0.223,0.49999 0.4999999,0.49999 l 4.9999989,0 c 0.2770016,0 0.5000001,-0.22299 0.5000001,-0.49999 l 0,-5.00002 c 0,-0.27704 -0.2229997,-0.49999 -0.5000001,-0.49999 z"/>
 <path style="fill:#b2bfd9;stroke:#808080;stroke-width:0;stroke-linecap:round;stroke-linejoin:round" d="m 9.5000004,8.99998 c -0.2770016,0 -0.5000001,0.22299 -0.5000001,0.49999 l 0,5.00002 c 0,0.27703 0.2229997,0.49999 0.5000001,0.49999 l 4.9999986,0 c 0.277001,0 0.5,-0.22299 0.5,-0.49999 l 0,-5.00002 c 0,-0.27704 -0.223,-0.49999 -0.5,-0.49999 z"/>
 <path style="fill:#b2bfd9;stroke:#808080;stroke-width:0;stroke-linecap:round;stroke-linejoin:round" d="m 16.499999,8.99998 c -0.277002,0 -0.5,0.22299 -0.5,0.49999 l 0,5.00002 c 0,0.27703 0.222999,0.49999 0.5,0.49999 l 4.999998,0 c 0.276998,0 0.500001,-0.22299 0.500001,-0.49999 l 0,-5.00002 c 0,-0.27704 -0.223003,-0.49999 -0.500001,-0.49999 z"/>
 <path style="fill:#23992b;stroke:#808080;stroke-width:0;stroke-linecap:round;stroke-linejoin:round" d="M 2.5000019,16 C 2.2230022,16 2.000002,16.223 2.000002,16.5 l 0,4.99997 c 0,0.27704 0.223,0.50003 0.4999999,0.50003 l 4.9999989,0 c 0.2770016,0 0.5000001,-0.22299 0.5000001,-0.50003 l 0,-4.99997 c 0,-0.27704 -0.2229997,-0.5 -0.5000001,-0.5 z"/>
 <path style="fill:#f57e26;stroke:#808080;stroke-width:0;stroke-linecap:round;stroke-linejoin:round" d="m 9.5000004,16 c -0.2770016,0 -0.5000001,0.223 -0.5000001,0.5 l 0,4.99997 C 9.0000003,21.77701 9.223,22 9.5000004,22 l 4.9999986,0 c 0.277001,0 0.5,-0.22299 0.5,-0.50003 l 0,-4.99997 c 0,-0.27704 -0.223,-0.5 -0.5,-0.5 z"/>
 <path style="fill:#23992b;stroke:#808080;stroke-width:0;stroke-linecap:round;stroke-linejoin:round" d="m 16.499999,16 c -0.277002,0 -0.5,0.223 -0.5,0.5 l 0,4.99997 c 0,0.27704 0.222999,0.50003 0.5,0.50003 l 4.999998,0 c 0.276998,0 0.500001,-0.22299 0.500001,-0.50003 l 0,-4.99997 c 0,-0.27704 -0.223003,-0.5 -0.500001,-0.5 z"/>
 <path style="opacity:0.2;fill:#8b9cbe;stroke:#808080;stroke-width:0;stroke-linecap:round;stroke-linejoin:round" d="m 2.5000018,1.99999 c -0.2769997,0 -0.4999999,0.223 -0.4999999,0.5 l 0,0.49999 c 0,-0.27704 0.223,-0.49999 0.4999999,-0.49999 l 4.999999,0 c 0.2769978,0 0.4999997,0.22299 0.4999997,0.49999 l 0,-0.49999 c 0,-0.27704 -0.2229996,-0.5 -0.4999997,-0.5 z m 6.9999986,0 c -0.2770016,0 -0.5000001,0.223 -0.5000001,0.5 l 0,0.49999 c 0,-0.27704 0.2229997,-0.49999 0.5000001,-0.49999 l 4.9999986,0 c 0.277002,0 0.5,0.22299 0.5,0.49999 l 0,-0.49999 c 0,-0.27704 -0.223,-0.5 -0.5,-0.5 z m 6.9999986,0 c -0.277002,0 -0.5,0.223 -0.5,0.5 l 0,0.49999 c 0,-0.27704 0.222999,-0.49999 0.5,-0.49999 l 4.999999,0 c 0.276997,0 0.499999,0.22299 0.499999,0.49999 l 0,-0.49999 c 0,-0.27704 -0.222999,-0.5 -0.499999,-0.5 z M 2.5000018,8.99998 c -0.2769997,0 -0.4999999,0.22299 -0.4999999,0.49999 l 0,0.5 c 0,-0.27704 0.223,-0.5 0.4999999,-0.5 l 4.999999,0 c 0.2769978,0 0.4999997,0.223 0.4999997,0.5 l 0,-0.5 c 0,-0.27704 -0.2229996,-0.49999 -0.4999997,-0.49999 z m 6.9999986,0 c -0.2770016,0 -0.5000001,0.22299 -0.5000001,0.49999 l 0,0.5 c 0,-0.27704 0.2229997,-0.5 0.5000001,-0.5 l 4.9999986,0 c 0.277002,0 0.5,0.223 0.5,0.5 l 0,-0.5 c 0,-0.27704 -0.223,-0.49999 -0.5,-0.49999 z m 6.9999986,0 c -0.277002,0 -0.5,0.22299 -0.5,0.49999 l 0,0.5 c 0,-0.27704 0.222999,-0.5 0.5,-0.5 l 4.999999,0 c 0.276997,0 0.499999,0.223 0.499999,0.5 l 0,-0.5 c 0,-0.27704 -0.222999,-0.49999 -0.499999,-0.49999 z M 2.5000018,15.99997 c -0.2769997,0 -0.4999999,0.22299 -0.4999999,0.49999 l 0,0.50003 c 0,-0.27704 0.223,-0.50003 0.4999999,-0.50003 l 4.999999,0 c 0.2769978,0 0.4999997,0.22299 0.4999997,0.50003 l 0,-0.50003 c 0,-0.27704 -0.2229996,-0.49999 -0.4999997,-0.49999 z m 6.9999986,0 c -0.2770016,0 -0.5000001,0.22299 -0.5000001,0.49999 l 0,0.50003 c 0,-0.27704 0.2229997,-0.50003 0.5000001,-0.50003 l 4.9999986,0 c 0.277002,0 0.5,0.22299 0.5,0.50003 l 0,-0.50003 c 0,-0.27704 -0.223,-0.49999 -0.5,-0.49999 z m 6.9999986,0 c -0.277002,0 -0.5,0.22299 -0.5,0.49999 l 0,0.50003 c 0,-0.27704 0.222999,-0.50003 0.5,-0.50003 l 4.999999,0 c 0.276997,0 0.499999,0.22299 0.499999,0.50003 l 0,-0.50003 c 0,-0.27704 -0.222999,-0.49999 -0.499999,-0.49999 z"/>
</svg>
