<svg xmlns="http://www.w3.org/2000/svg" width="24" height="24" version="1">
 <path style="opacity:0.2" d="m 12,2.5000013 c -0.0094,0 -0.01945,0.00143 -0.02877,0.00143 h -0.0031 C 8.4789999,2.5214299 4.9999998,5.8421443 4.9999998,8.3342868 V 16.573572 C 4.9999998,19.96 7.6249999,22.5 12,22.5 c 4.375,7e-4 7,-2.538571 7,-5.925 V 8.5614298 c 0,-2.59 -3.495334,-6.037857 -7,-6.0585713 z"/>
 <path style="fill:#4f4f4f" d="m 12,2.0000004 c -0.0094,0 -0.01945,0.00143 -0.02877,0.00143 h -0.0031 C 8.4789999,2.021429 4.9999998,5.3421434 4.9999998,7.8342859 v 8.2392851 c 0,3.386428 2.6250001,5.926428 7.0000002,5.926428 4.375,7e-4 7,-2.538571 7,-5.925 V 8.0614289 c 0,-2.59 -3.495334,-6.037857 -7,-6.0585713 z"/>
 <path style="opacity:0.1" d="m 12,2.0000004 c -0.0094,0 -0.01906,9.75e-4 -0.0284,9.75e-4 h -0.0032 c -3.4890232,0.02 -6.9683712,3.340867 -6.9683712,5.8330095 V 12 H 19 V 8.0615239 c 0,-2.59 -3.495334,-6.0378795 -7,-6.0585938 z"/>
 <path style="opacity:0.1" d="m 12,2.0000004 c -0.0094,0 -0.01906,9.75e-4 -0.0284,9.75e-4 h -0.0032 c -3.4890232,0.02 -6.9683712,3.340867 -6.9683712,5.8330095 V 12 H 12 c 0,0 0,-9.9999996 0,-9.9970699 z"/>
 <path style="opacity:0.2" d="m 12,5.5002499 c 0.551,0 1,0.480033 1,1.0714885 V 9.4290959 C 13,10.019968 12.551,10.5 12,10.5 11.449,10.5 11,10.019968 11,9.4282624 V 6.5709049 c 0,-0.5908725 0.449,-1.0709045 1,-1.0709045"/>
 <path style="fill:#b2bfd9" d="m 12,5.0002499 c 0.551,0 1,0.480033 1,1.0714885 V 8.9290959 C 13,9.5199684 12.551,10 12,10 11.449,10 11,9.5199684 11,8.9282624 V 6.0709049 c 0,-0.5908725 0.449,-1.0709045 1,-1.0709045"/>
 <path style="fill:#8b9cbe;opacity:0.1" d="M 12 2 C 11.9906 2 11.980023 2.0019531 11.970703 2.0019531 L 11.96875 2.0019531 C 8.4796199 2.0219517 5 5.3418419 5 7.8339844 L 5 8.3339844 C 5 5.8418419 8.4796199 2.5219517 11.96875 2.5019531 L 11.970703 2.5019531 C 11.980023 2.5019531 11.9906 2.5 12 2.5 L 12 2.5019531 C 15.504666 2.5226674 19 5.9705469 19 8.5605469 L 19 8.0605469 C 19 5.4705469 15.504666 2.0226674 12 2.0019531 L 12 2 z"/>
</svg>
