<svg xmlns="http://www.w3.org/2000/svg" width="24" height="24" version="1.1">
 <circle style="opacity:0.2" cx="12" cy="12.5" r="10"/>
 <circle style="fill:#ffeb3b" cx="12" cy="12" r="10"/>
 <path style="opacity:0.2;fill:#8b9cbe" d="M 12,2 A 10,10 0 0 0 2,12 10,10 0 0 0 2.0107422,12.291016 10,10 0 0 1 12,2.5 10,10 0 0 1 21.989258,12.208985 10,10 0 0 0 22,12 10,10 0 0 0 12,2 Z"/>
 <path style="opacity:0.1" d="m 12,4.5 a 8,8 0 0 0 -8,8 8,8 0 0 0 8,8 8,8 0 0 0 5.654297,-2.345703 L 16.947266,17.447266 A 7,7 0 0 1 12,19.5 a 7,7 0 0 1 -7,-7 7,7 0 0 1 7,-7 7,7 0 0 1 4.947266,2.0527344 L 17.654297,6.8457031 A 8,8 0 0 0 12,4.5 Z m 0,2 a 6,6 0 0 0 -6,6 6,6 0 0 0 6,6 6,6 0 0 0 4.240234,-1.759766 L 15.533203,16.033203 A 5,5 0 0 1 12,17.5 a 5,5 0 0 1 -5,-5 5,5 0 0 1 5,-5 5,5 0 0 1 3.533203,1.4667969 L 16.240234,8.2597656 A 6,6 0 0 0 12,6.5 Z m 0,2 a 4,4 0 0 0 -4,4 4,4 0 0 0 4,4 4,4 0 0 0 2.826172,-1.173828 L 14.119141,14.619141 A 3,3 0 0 1 12,15.5 a 3,3 0 0 1 -3,-3 3,3 0 0 1 3,-3 3,3 0 0 1 2.119141,0.880859 L 14.826172,9.6738281 A 4,4 0 0 0 12,8.5 Z"/>
 <path style="fill:#424242" d="M 12 4 A 8 8 0 0 0 4 12 A 8 8 0 0 0 12 20 A 8 8 0 0 0 17.654297 17.654297 L 16.947266 16.947266 A 7 7 0 0 1 12 19 A 7 7 0 0 1 5 12 A 7 7 0 0 1 12 5 A 7 7 0 0 1 16.947266 7.0527344 L 17.654297 6.3457031 A 8 8 0 0 0 12 4 z M 12 6 A 6 6 0 0 0 6 12 A 6 6 0 0 0 12 18 A 6 6 0 0 0 16.240234 16.240234 L 15.533203 15.533203 A 5 5 0 0 1 12 17 A 5 5 0 0 1 7 12 A 5 5 0 0 1 12 7 A 5 5 0 0 1 15.533203 8.4667969 L 16.240234 7.7597656 A 6 6 0 0 0 12 6 z M 12 8 A 4 4 0 0 0 8 12 A 4 4 0 0 0 12 16 A 4 4 0 0 0 14.826172 14.826172 L 14.119141 14.119141 A 3 3 0 0 1 12 15 A 3 3 0 0 1 9 12 A 3 3 0 0 1 12 9 A 3 3 0 0 1 14.119141 9.8808594 L 14.826172 9.1738281 A 4 4 0 0 0 12 8 z"/>
</svg>
