<svg xmlns="http://www.w3.org/2000/svg" width="24" height="24" version="1">
 <path style="opacity:0.2" d="M 8.8183595,2.5 2,9.317383 V 21.5 c 0,0.554 0.446,1 1,1 h 9 3.181641 L 22,15.682617 V 3.5 c 0,-0.554 -0.446,-1 -1,-1 h -9 z"/>
 <path style="fill:#0ca9e3" d="M 8.8183595,2 2,8.817383 V 21 c 0,0.554 0.446,1 1,1 h 9 3.181641 L 22,15.182617 V 3 C 22,2.446 21.554,2 21,2 h -9 z"/>
 <path style="opacity:0.2" d="m 11,6.5 c -2.77,0 -5,2.23 -5,5 v 1 c 0,2.77 2.23,5 5,5 h 5 v -3 h -5 c -1.159892,0 -2,-0.840108 -2,-2 v -1 c 0,-1.159892 0.840108,-2 2,-2 h 5 v -3 z"/>
 <path style="fill:#8b9cbe" d="M 11,6 C 8.23,6 6,8.23 6,11 v 1 c 0,2.77 2.23,5 5,5 h 5 V 14 H 11 C 9.840108,14 9,13.159892 9,12 V 11 C 9,9.8401085 9.840108,9 11,9 h 5 V 6 Z"/>
 <path style="opacity:0.2;fill:#8b9cbe" d="M 8.8183595,2 2,8.817383 v 0.5 L 8.8183595,2.5 H 12 21 c 0.554,0 1,0.446 1,1 V 3 C 22,2.446 21.554,2 21,2 h -9 z"/>
</svg>
