<svg xmlns="http://www.w3.org/2000/svg" width="24" height="24" version="1">
 <rect style="opacity:0.2" width="20" height="20" x="2" y="2.5" rx="6" ry="6"/>
 <rect style="fill:#797979" width="20" height="20" x="2" y="2" rx="6" ry="6"/>
 <path style="opacity:0.1" d="M 14.245117,5.509476 C 13.67771,5.597085 13.132851,6.282629 12.372071,7.6852575 l -0.825196,1.521484 2.668946,3.1562505 0.137695,0.136718 h 4.442382 C 18.297527,11.387202 16.213978,7.158334 15.811524,6.523148 15.596294,6.1834555 15.154409,5.775882 14.829102,5.616898 14.62619,5.5177315 14.434253,5.4802735 14.245117,5.509476 Z M 9.3115235,8.8073275 C 9.0383485,8.8443425 8.73584,9.0632305 8.214844,9.4098665 7.1886905,10.208339 5.987911,11.586094 5.373047,12.49971 h 7.635742 C 12.382467,11.632556 11.061501,10.093261 10.228516,9.2965855 9.8278345,8.915199 9.5846985,8.7703115 9.3115235,8.8073275 Z M 5.178711,13.49971 c 0.066778,0.120909 0.138275,0.248242 0.2265625,0.385743 0.2230495,0.347379 0.7883525,1.381754 1.2558595,2.297851 1.0220605,2.002764 1.55146,2.76746 2.162109,3.121094 1.029862,0.596405 1.618983,-0.04023 3.465821,-3.746094 0.474242,-0.951615 0.804905,-1.660082 0.976562,-2.058594 z m 9.219727,0 -1.251953,2.482422 c 0.729876,0.624502 1.546233,1.141207 2.039062,1.110352 1.124652,-0.07041 1.44522,-0.845594 2.666992,-2.575196 l 0.71875,-1.017578 z"/>
 <path style="fill:#4a4a4a" d="m 14.398438,13 -1.251953,2.482422 c 0.729876,0.624501 1.546233,1.141206 2.039062,1.110351 1.124652,-0.07041 1.44522,-0.845593 2.666992,-2.575195 L 18.571289,13 Z"/>
 <path style="opacity:0.1;fill:#8b9cbe" d="M 8,2 C 4.676,2 2,4.676 2,8 v 0.5 c 0,-3.324 2.676,-6 6,-6 h 8 c 3.324,0 6,2.676 6,6 V 8 C 22,4.676 19.324,2 16,2 Z"/>
 <path style="fill:#0eb5fd" d="m 5.178711,13 c 0.066778,0.120909 0.138275,0.248242 0.2265625,0.385742 0.2230495,0.34738 0.7883525,1.381755 1.2558595,2.297852 1.0220605,2.002763 1.55146,2.767459 2.162109,3.121093 1.029862,0.596406 1.618983,-0.04023 3.465821,-3.746093 C 12.763305,14.106979 13.093968,13.398512 13.265625,13 Z"/>
 <path style="fill:#f05abe" d="m 14.245117,5.0097655 c -0.567407,0.087609 -1.112266,0.773153 -1.873046,2.1757815 l -0.825196,1.521484 2.668946,3.15625 L 14.3535,12 h 4.442398 C 18.297527,10.887492 16.213978,6.6586235 15.811524,6.0234375 15.596294,5.683745 15.154409,5.2761715 14.829102,5.1171875 14.62619,5.018021 14.434253,4.9805628 14.245117,5.0097655 Z"/>
 <path style="fill:#00d49f" d="M 9.1613435,8.00605 C 8.8881685,8.04609 8.58566,8.282853 8.064664,8.6578 7.0385105,9.521486 5.987911,11.011765 5.373047,12 h 7.635742 C 12.382467,11.062022 10.911321,9.3970095 10.078336,8.535267 9.6776545,8.1227315 9.4345185,7.9660105 9.1613435,8.00605 Z"/>
</svg>
