<svg xmlns="http://www.w3.org/2000/svg" width="24" height="24" version="1.1">
 <circle style="opacity:0.2" cx="12" cy="12.5" r="10"/>
 <circle style="fill:#b2bfd9" cx="4.392" cy="16.392" r="10" transform="rotate(-30)"/>
 <g style="font-size:13.17357063px;line-height:1.25;letter-spacing:0px;word-spacing:0px;opacity:0.1" transform="matrix(0.42244545,-0.23479226,0.243899,0.40667212,1.0798506,0.95463452)">
  <path d="m 8.1454244,34.322117 h 1.7520849 v -9.735269 h -2.977227 v 1.646696 h 1.2251421 z"/>
  <path d="m 15.160968,29.632326 h 0.289819 c 1.159274,0 1.910167,0.645505 1.910167,1.633522 0,0.935324 -0.645505,1.62035 -1.528134,1.62035 -0.843108,0 -1.462266,-0.592811 -1.580828,-1.514961 h -1.765259 c 0.105389,1.831126 1.488614,3.122136 3.359261,3.122136 1.88382,0 3.267045,-1.383225 3.267045,-3.267045 0,-1.225142 -0.513769,-2.068251 -1.51496,-2.516152 0.566463,-0.408381 0.816761,-0.92215 0.816761,-1.673044 0,-1.501787 -1.119753,-2.62154 -2.62154,-2.62154 -0.764068,0 -1.462267,0.302992 -1.949689,0.829935 -0.408381,0.447901 -0.566463,0.869455 -0.632331,1.65987 h 1.778432 c 0.07904,-0.605985 0.342513,-0.88263 0.816761,-0.88263 0.500596,0 0.856282,0.382034 0.856282,0.92215 0,0.408381 -0.197603,0.711373 -0.566463,0.869456 -0.223951,0.09221 -0.461075,0.118562 -0.935324,0.131736 z"/>
 </g>
 <path style="opacity:0.2;fill:#8b9cbe" d="M 12,2 A 9.9999998,9.9999998 0 0 0 2,12 9.9999998,9.9999998 0 0 0 2.01075,12.291 9.9999998,9.9999998 0 0 1 12,2.5 9.9999998,9.9999998 0 0 1 21.9895,12.209 9.9999998,9.9999998 0 0 0 22,12 9.9999998,9.9999998 0 0 0 12,2 Z"/>
 <path style="fill:#ffa81f" d="M 15.886719 2.796875 C 13.092468 3.7529114 10.328507 4.8216133 8.3847656 5.8730469 C 8.1010926 6.0264954 7.8021174 6.1944905 7.4921875 6.375 C 5.9227085 7.2890965 4.0563287 8.5180068 2.2695312 9.7460938 C 2.1983545 10.051718 2.1434926 10.359468 2.1015625 10.667969 C 2.1006695 10.674539 2.098536 10.680929 2.0976562 10.6875 C 2.0575604 10.986968 2.0323537 11.287601 2.0195312 11.587891 A 10 10 0 0 0 2.0175781 11.654297 C 2.0071312 11.944177 2.0087317 12.234584 2.0234375 12.523438 A 10 10 0 0 0 2.0292969 12.615234 C 2.0457454 12.888692 2.0725388 13.160694 2.1113281 13.431641 A 10 10 0 0 0 2.1445312 13.625 C 2.1850152 13.87299 2.229959 14.120767 2.2890625 14.365234 A 10 10 0 0 0 2.3457031 14.566406 C 2.4068496 14.798026 2.4709878 15.028656 2.5488281 15.255859 A 10 10 0 0 0 2.703125 15.650391 C 2.7678363 15.816074 2.8286233 15.983952 2.9023438 16.146484 A 10 10 0 0 0 3.3398438 17 A 10 10 0 0 0 6.3886719 20.267578 C 7.8630213 18.78222 10.20069 17.061673 12.847656 15.632812 C 15.392063 14.259316 18.771331 13.136694 21.984375 12.265625 A 10 10 0 0 0 21.150391 7.9804688 C 20.994464 7.6400876 20.835094 7.3037148 20.660156 7 C 20.533035 6.780608 20.396494 6.5673539 20.253906 6.359375 A 10 10 0 0 0 19.71875 5.6484375 C 19.64037 5.5534904 19.554384 5.4649205 19.472656 5.3730469 A 10 10 0 0 0 19.130859 5 C 19.007467 4.874668 18.879754 4.7553045 18.75 4.6367188 A 10 10 0 0 0 18.501953 4.4160156 C 18.356595 4.2917835 18.208974 4.1704501 18.056641 4.0546875 A 10 10 0 0 0 17.833984 3.8945312 C 17.667274 3.7749102 17.500272 3.6542639 17.326172 3.5449219 C 16.869972 3.2584092 16.388169 3.0079756 15.886719 2.796875 z M 13.394531 5 A 4.4999999 4.4999999 0 0 1 17.398438 7.25 A 4.4999999 4.4999999 0 0 1 15.75 13.398438 A 4.4999999 4.4999999 0 0 1 9.6035156 11.75 A 4.4999999 4.4999999 0 0 1 11.25 5.6015625 A 4.4999999 4.4999999 0 0 1 13.394531 5 z"/>
 <path style="opacity:0.1" d="M 15.886719 2.796875 C 13.092468 3.7529114 10.328507 4.8216133 8.3847656 5.8730469 C 8.1010926 6.0264954 7.8021174 6.1944905 7.4921875 6.375 C 5.9227085 7.2890965 4.0563287 8.5180068 2.2695312 9.7460938 C 2.1983546 10.051718 2.1434926 10.359468 2.1015625 10.667969 C 2.1006695 10.674539 2.098536 10.680929 2.0976562 10.6875 C 2.0575604 10.986968 2.0323538 11.287601 2.0195312 11.587891 A 10 10 0 0 0 2.0175781 11.654297 C 2.0124839 11.795652 2.0187734 11.93676 2.0195312 12.078125 C 2.0324793 11.78106 2.0579919 11.483744 2.0976562 11.1875 C 2.0985363 11.18093 2.1006695 11.174569 2.1015625 11.167969 C 2.1434926 10.859468 2.1983542 10.551718 2.2695312 10.246094 C 4.0563287 9.0180065 5.9227085 7.7890965 7.4921875 6.875 C 7.8021174 6.6944905 8.1010926 6.5264954 8.3847656 6.3730469 C 10.328507 5.3216133 13.092468 4.2529114 15.886719 3.296875 C 16.388169 3.5079756 16.869972 3.7584092 17.326172 4.0449219 C 17.500272 4.1542639 17.667274 4.2749103 17.833984 4.3945312 A 10 10 0 0 1 18.056641 4.5546875 C 18.208974 4.6704501 18.356595 4.7917835 18.501953 4.9160156 A 10 10 0 0 1 18.75 5.1367188 C 18.879754 5.2553045 19.007467 5.374668 19.130859 5.5 A 10 10 0 0 1 19.472656 5.8730469 C 19.554384 5.9649205 19.64037 6.0534904 19.71875 6.1484375 A 10 10 0 0 1 20.253906 6.859375 C 20.396494 7.0673539 20.533035 7.280608 20.660156 7.5 C 20.835094 7.8037148 20.994464 8.1400875 21.150391 8.4804688 A 10 10 0 0 1 21.974609 12.269531 C 21.977939 12.268628 21.981046 12.266528 21.984375 12.265625 A 10 10 0 0 0 21.150391 7.9804688 C 20.994464 7.6400876 20.835094 7.3037148 20.660156 7 C 20.533035 6.780608 20.396494 6.5673539 20.253906 6.359375 A 10 10 0 0 0 19.71875 5.6484375 C 19.64037 5.5534904 19.554384 5.4649205 19.472656 5.3730469 A 10 10 0 0 0 19.130859 5 C 19.007467 4.874668 18.879754 4.7553045 18.75 4.6367188 A 10 10 0 0 0 18.501953 4.4160156 C 18.356595 4.2917835 18.208974 4.1704501 18.056641 4.0546875 A 10 10 0 0 0 17.833984 3.8945312 C 17.667274 3.7749103 17.500272 3.6542639 17.326172 3.5449219 C 16.869972 3.2584092 16.388169 3.0079756 15.886719 2.796875 z M 9.0117188 9.7363281 A 4.4999999 4.4999999 0 0 0 9.6035156 12.25 A 4.4999999 4.4999999 0 0 0 15.75 13.898438 A 4.4999999 4.4999999 0 0 0 17.990234 9.7636719 A 4.4999999 4.4999999 0 0 1 15.75 13.398438 A 4.4999999 4.4999999 0 0 1 9.6035156 11.75 A 4.4999999 4.4999999 0 0 1 9.0117188 9.7363281 z"/>
 <g style="font-size:13.17357063px;line-height:1.25;letter-spacing:0px;word-spacing:0px;fill:#17191e" transform="matrix(0.42244545,-0.23479226,0.243899,0.40667212,1.0798506,0.45463452)">
  <path style="fill:#17191e" d="m 8.1454244,34.322117 h 1.7520849 v -9.735269 h -2.977227 v 1.646696 h 1.2251421 z"/>
  <path style="fill:#17191e" d="m 15.160968,29.632326 h 0.289819 c 1.159274,0 1.910167,0.645505 1.910167,1.633522 0,0.935324 -0.645505,1.62035 -1.528134,1.62035 -0.843108,0 -1.462266,-0.592811 -1.580828,-1.514961 h -1.765259 c 0.105389,1.831126 1.488614,3.122136 3.359261,3.122136 1.88382,0 3.267045,-1.383225 3.267045,-3.267045 0,-1.225142 -0.513769,-2.068251 -1.51496,-2.516152 0.566463,-0.408381 0.816761,-0.92215 0.816761,-1.673044 0,-1.501787 -1.119753,-2.62154 -2.62154,-2.62154 -0.764068,0 -1.462267,0.302992 -1.949689,0.829935 -0.408381,0.447901 -0.566463,0.869455 -0.632331,1.65987 h 1.778432 c 0.07904,-0.605985 0.342513,-0.88263 0.816761,-0.88263 0.500596,0 0.856282,0.382034 0.856282,0.92215 0,0.408381 -0.197603,0.711373 -0.566463,0.869456 -0.223951,0.09221 -0.461075,0.118562 -0.935324,0.131736 z"/>
 </g>
</svg>
