<svg xmlns="http://www.w3.org/2000/svg" width="24" height="24" version="1.1" viewBox="0 0 48 48">
 <circle style="opacity:.2" cx="24" cy="25" r="20"/>
 <circle style="fill:#f9548f" cx="24" cy="24" r="20"/>
 <path style="opacity:.2" d="m31.676 22.984c0.02502 0.75553-0.19601 1.1227-0.39592 1.7718l-0.3595 0.20108c-0.29388 0.64232 0.02918 0.40778-0.18128 0.91844-0.45931 0.45876-1.3918 1.4351-1.6904 1.5245-0.21825-0.0054 0.14764-0.28958 0.19546-0.40059-0.61418 0.47407-0.49295 0.71174-1.4324 1.0004l-0.02724-0.06912c-2.316 1.2258-5.5334-1.203-5.4911-4.5165-0.02447 0.21015-0.07035 0.15762-0.1215 0.24204-0.11955-1.7046 0.70009-3.4168 2.0825-4.1169 1.3521-0.7524 2.9371-0.44406 3.905 0.57196-0.5316-0.78367-1.5906-1.6146-2.8448-1.5376-1.2292 0.02252-2.3794 0.90094-2.7631 1.8551-0.62947 0.44562-0.70287 1.7187-0.97701 1.952-0.36951 3.0522 0.69425 4.3702 2.494 5.9217 0.28248 0.21452 0.07952 0.24736 0.11733 0.4106-0.59777-0.3146-1.1449-0.78993-1.5954-1.3719 0.23911 0.39309 0.49684 0.77523 0.83021 1.0754-0.56413-0.21421-1.3173-1.5364-1.5367-1.5902 0.97172 1.9569 3.9419 3.4321 5.4981 2.7-0.72011 0.03001-1.6346 0.01656-2.4431-0.31959-0.34059-0.19671-0.80184-0.60355-0.71927-0.67954 2.1231 0.89156 4.3156 0.67484 6.1523-0.98099 0.46765-0.40966 0.97812-1.1061 1.1258-1.1155-0.22215 0.37588 0.03808 0.18075-0.13262 0.51254 0.46487-0.84464-0.20269-0.34398 0.481-1.4586l0.25245 0.39089c-0.09453-0.70174 0.77432-1.553 0.68591-2.6619 0.19935-0.33899 0.22215 0.36525 0.01084 1.1452 0.29333-0.86529 0.07757-1.0044 0.15264-1.7187 0.08091 0.24017 0.18851 0.49503 0.24328 0.74864-0.19129-0.83652 0.19546-1.4082 0.29166-1.8945-0.09508-0.04691-0.29499 0.36964-0.34115-0.61793 0.007-0.42905 0.10649-0.22485 0.14458-0.33054-0.07452-0.04847-0.27108-0.37745-0.39036-1.0082 0.08591-0.14854 0.23132 0.38432 0.34921 0.4059-0.07591-0.50129-0.2063-0.88374-0.21186-1.2687-0.34476-0.80994-0.12206 0.10821-0.4012-0.34774-0.367-1.2865 0.30417-0.29865 0.34977-0.8828 0.55551 0.90532 0.87219 2.3094 1.0182 2.8907-0.11122-0.70892-0.29055-1.396-0.50991-2.0604 0.16932 0.08036-0.27219-1.4582 0.21992-0.43936-0.5252-2.1718-2.2459-4.2013-3.8293-5.1533 0.19323 0.1992 0.43762 0.44937 0.35032 0.48877-0.78794-0.52693-0.64948-0.56852-0.76236-0.79118-0.64086-0.29364-0.68368 0.02408-1.1077 0.000626-1.2094-0.72174-1.4424-0.64513-2.5554-1.0967l0.05061 0.26644c-0.80101-0.30021-0.93336 0.1132-1.7989 0.000626-0.05255-0.04595 0.27748-0.16762 0.54939-0.21171-0.7746 0.11508-0.73845-0.17199-1.4964 0.03158 0.18656-0.14729 0.38452-0.24517 0.58359-0.37026-0.63141 0.04315-1.508 0.41341-1.2375 0.0763-1.0301 0.51724-2.8598 1.2431-3.8866 2.326l-0.03225-0.24267c-0.47043 0.63512-2.0516 1.897-2.1776 2.7204l-0.12595 0.03284c-0.24439 0.46627-0.40315 0.99444-0.59722 1.4738-0.32002 0.61386-0.46932 0.23641-0.42372 0.33273-0.63 1.4366-0.943 2.6427-1.213 3.6335 0.1924 0.32366 0.0048 1.9489 0.07729 3.2494-0.31584 6.4245 4.0087 12.661 8.7358 14.101 0.69286 0.27926 1.723 0.26925 2.5993 0.29677-1.0337-0.33273-1.1672-0.17606-2.1748-0.57102-0.7265-0.38527-0.88554-0.82464-1.4005-1.3272l0.2038 0.40497c-1.009-0.40276-0.587-0.49753-1.408-0.79044l0.2177-0.31928c-0.32725-0.02815-0.86663-0.61981-1.014-0.94847l-0.35811 0.01595c-0.42984-0.59604-0.65922-1.0267-0.64226-1.3603l-0.11566 0.23204c-0.132-0.25307-1.583-2.2389-0.83-1.7758-0.14-0.14323-0.326-0.23369-0.527-0.64614l0.1532-0.1967c-0.36172-0.52443-0.66672-1.1964-0.64337-1.4203 0.19323 0.29333 0.32725 0.34837 0.46014 0.39871-0.915-2.553-0.96644-0.14041-1.659-2.5987l0.14624-0.01313c-0.11205-0.19109-0.18072-0.39716-0.2708-0.60012l0.06395-0.71456c-0.658-0.85506-0.184-3.641-0.089-5.1691 0.066-0.6203 0.55-1.2826 0.918-2.3196l-0.22409-0.04315c0.42873-0.84058 2.4472-3.3771 3.3825-3.247 0.45292-0.63982-0.09009-0.0025-0.17878-0.16324 0.99508-1.158 1.3079-0.81807 1.9793-1.0267 0.72372-0.48315-0.6214 0.18888-0.27831-0.18419 1.252-0.35932 0.88692-0.81744 2.5198-0.99975 0.17238 0.11008-0.39953 0.17012-0.543 0.31303 1.0426-0.57415 3.3-0.44312 4.7669 0.31834 1.7007 0.89469 3.6128 3.538 3.6884 6.0251l0.08591 0.02594c-0.04337 0.98881 0.13457 2.1324-0.17432 3.1826l0.2088-0.49753"/>
 <path style="fill:#8b9cbe" d="m31.676 21.984c0.02502 0.75553-0.19601 1.1227-0.39592 1.7718l-0.3595 0.20108c-0.29388 0.64232 0.02918 0.40778-0.18128 0.91844-0.45931 0.45876-1.3918 1.4351-1.6904 1.5245-0.21825-0.0054 0.14764-0.28958 0.19546-0.40059-0.61418 0.47407-0.49295 0.71174-1.4324 1.0004l-0.02724-0.06912c-2.316 1.2258-5.5334-1.203-5.4911-4.5165-0.02447 0.21015-0.07035 0.15762-0.1215 0.24204-0.11955-1.7046 0.70009-3.4168 2.0825-4.1169 1.3521-0.7524 2.9371-0.44406 3.905 0.57196-0.5316-0.78367-1.5906-1.6146-2.8448-1.5376-1.2292 0.02252-2.3794 0.90094-2.7631 1.8551-0.62947 0.44562-0.70287 1.7187-0.97701 1.952-0.36951 3.0522 0.69425 4.3702 2.494 5.9217 0.28248 0.21452 0.07952 0.24736 0.11733 0.4106-0.59777-0.3146-1.1449-0.78993-1.5954-1.3719 0.23911 0.39309 0.49684 0.77523 0.83021 1.0754-0.56413-0.21421-1.3173-1.5364-1.5367-1.5902 0.97172 1.9569 3.9419 3.4321 5.4981 2.7-0.72011 0.03001-1.6346 0.01656-2.4431-0.31959-0.34059-0.19671-0.80184-0.60355-0.71927-0.67954 2.1231 0.89156 4.3156 0.67484 6.1523-0.98099 0.46765-0.40966 0.97812-1.1061 1.1258-1.1155-0.22215 0.37588 0.03808 0.18075-0.13262 0.51254 0.46487-0.84464-0.20269-0.34398 0.481-1.4586l0.25245 0.39089c-0.09453-0.70174 0.77432-1.553 0.68591-2.6619 0.19935-0.33899 0.22215 0.36525 0.01084 1.1452 0.29333-0.86529 0.07757-1.0044 0.15264-1.7187 0.08091 0.24017 0.18851 0.49503 0.24328 0.74864-0.19129-0.83652 0.19546-1.4082 0.29166-1.8945-0.09508-0.04691-0.29499 0.36964-0.34115-0.61793 0.007-0.42905 0.10649-0.22485 0.14458-0.33054-0.07452-0.04847-0.27108-0.37745-0.39036-1.0082 0.08591-0.14854 0.23132 0.38432 0.34921 0.4059-0.07591-0.50129-0.2063-0.88374-0.21186-1.2687-0.34476-0.80994-0.12206 0.10821-0.4012-0.34774-0.367-1.2865 0.30417-0.29865 0.34977-0.8828 0.55551 0.90532 0.87219 2.3094 1.0182 2.8907-0.11122-0.70892-0.29055-1.396-0.50991-2.0604 0.16932 0.08036-0.27219-1.4582 0.21992-0.43936-0.5252-2.1718-2.2459-4.2013-3.8293-5.1533 0.19323 0.1992 0.43762 0.44937 0.35032 0.48877-0.787-0.5274-0.648-0.5689-0.761-0.7916-0.641-0.2936-0.684 0.0241-1.108 0.0006-1.209-0.7217-1.442-0.6451-2.555-1.0967l0.05061 0.26644c-0.801-0.3002-0.934 0.1133-1.799 0.0007-0.053-0.046 0.277-0.1676 0.549-0.2117-0.775 0.115-0.738-0.172-1.496 0.0315 0.18656-0.14729 0.38452-0.24517 0.58359-0.37026-0.63141 0.043151-1.508 0.41341-1.2375 0.076298-1.0301 0.51724-2.8598 1.2431-3.8866 2.326l-0.03225-0.24267c-0.47043 0.63512-2.0516 1.897-2.1776 2.7204l-0.12595 0.03284c-0.24439 0.46627-0.40315 0.99444-0.59722 1.4738-0.32002 0.61386-0.46932 0.23641-0.42372 0.33273-0.63 1.4366-0.943 2.6427-1.213 3.6335 0.1924 0.32366 0.0048 1.9489 0.07729 3.2494-0.31584 6.4245 4.0087 12.661 8.7358 14.101 0.69286 0.27926 1.723 0.26925 2.5993 0.29677-1.0337-0.33273-1.1672-0.17606-2.1748-0.57102-0.7265-0.38527-0.88554-0.82464-1.4005-1.3272l0.2038 0.40497c-1.009-0.40276-0.587-0.49753-1.408-0.79044l0.2177-0.31928c-0.32725-0.02815-0.86663-0.61981-1.014-0.94847l-0.35811 0.01595c-0.43-0.597-0.659-1.027-0.642-1.361l-0.11566 0.23204c-0.132-0.25307-1.583-2.2389-0.83-1.7758-0.14-0.14323-0.326-0.23369-0.527-0.64614l0.1532-0.1967c-0.36172-0.52443-0.66672-1.1964-0.64337-1.4203 0.19323 0.29333 0.32725 0.34837 0.46014 0.39871-0.915-2.553-0.96644-0.14041-1.659-2.5987l0.14624-0.01313c-0.112-0.191-0.181-0.397-0.271-0.6l0.06395-0.71456c-0.658-0.85506-0.184-3.641-0.089-5.1691 0.066-0.6203 0.55-1.2826 0.918-2.3196l-0.22409-0.04315c0.42873-0.84058 2.4472-3.3771 3.3825-3.247 0.45292-0.63982-0.09009-0.0025-0.17878-0.16324 0.99508-1.158 1.3079-0.81807 1.9793-1.0267 0.72372-0.48315-0.6214 0.18888-0.27831-0.18419 1.252-0.35932 0.88692-0.81744 2.5198-0.99975 0.17238 0.11008-0.39953 0.17012-0.543 0.31303 1.0426-0.57415 3.3-0.44312 4.7669 0.31834 1.7007 0.89469 3.6128 3.538 3.6884 6.0251l0.08591 0.02594c-0.04337 0.98881 0.13457 2.1324-0.17432 3.1826l0.2088-0.49753"/>
 <path style="opacity:.2;fill:#8b9cbe" d="m24 4a20 20 0 0 0 -20 20 20 20 0 0 0 0.0196 0.586 20 20 0 0 1 19.98 -19.586 20 20 0 0 1 19.98 19.414 20 20 0 0 0 0.02 -0.414 20 20 0 0 0 -20 -20z"/>
</svg>
