<svg xmlns="http://www.w3.org/2000/svg" width="24" height="24" version="1">
 <path style="opacity:0.2" d="M 9.25,2.5 A 5.25,5.25 0 0 0 4.0029297,7.691406 4.25,4.25 0 0 0 1,11.75 4.25,4.25 0 0 0 5,15.987305 V 16 H 5.25 18.75 19 V 15.9912 A 4.25,4.25 0 0 0 23,11.75 4.25,4.25 0 0 0 19.734375,7.620117 5.25,5.25 0 0 0 14.75,4 5.25,5.25 0 0 0 13.158203,4.2539062 5.25,5.25 0 0 0 9.25,2.5 Z"/>
 <circle style="fill:#b2bfd9" cx="5.25" cy="11.25" r="4.25"/>
 <circle style="fill:#b2bfd9" cx="9.25" cy="7.25" r="5.25"/>
 <circle style="fill:#b2bfd9" cx="14.75" cy="8.25" r="5.25"/>
 <circle style="fill:#b2bfd9" cx="18.75" cy="11.25" r="4.25"/>
 <rect style="fill:#b2bfd9" width="14" height="6" x="5" y="9.5"/>
 <path style="opacity:0.2" d="m 4,14 v 7.5 c 0,0.554 0.446,1 1,1 h 14 c 0.554,0 1,-0.446 1,-1 V 14 Z"/>
 <rect style="fill:#29565b" width="18" height="2" x="3" y="11"/>
 <rect style="fill:#4cb009" width="2" height="2" x="3" y="8" rx=".75" ry=".75"/>
 <path style="fill:#2995ff" d="m 4,12 v 9 c 0,0.554 0.446,1 1,1 h 14 c 0.554,0 1,-0.446 1,-1 v -9 z"/>
 <rect style="opacity:0.5;fill:#8b9cbe" width="11" height="1" x="6" y="18"/>
 <rect style="opacity:0.5;fill:#8b9cbe" width="9" height="1" x="6" y="16"/>
 <rect style="opacity:0.5;fill:#8b9cbe" width="12" height="1" x="6" y="14"/>
 <path style="opacity:0.2;fill:#8b9cbe" d="M 9.25 2 A 5.25 5.25 0 0 0 4.0019531 7.1914062 A 4.25 4.25 0 0 0 1 11.25 A 4.25 4.25 0 0 0 1.0117188 11.464844 A 4.25 4.25 0 0 1 4.0019531 7.6914062 A 5.25 5.25 0 0 1 9.25 2.5 A 5.25 5.25 0 0 1 12.791016 3.8828125 A 5.25 5.25 0 0 1 14.75 3.5 A 5.25 5.25 0 0 1 19.878906 7.65625 A 4.25 4.25 0 0 1 22.990234 11.550781 A 4.25 4.25 0 0 0 23 11.25 A 4.25 4.25 0 0 0 19.878906 7.15625 A 5.25 5.25 0 0 0 14.75 3 A 5.25 5.25 0 0 0 12.791016 3.3828125 A 5.25 5.25 0 0 0 9.25 2 z"/>
</svg>
