<svg xmlns="http://www.w3.org/2000/svg" width="24" height="24" version="1.1">
 <g transform="translate(0,-1028.3622)">
  <rect style="opacity:0.2;stroke:#4285f4;stroke-width:0;stroke-linecap:round;stroke-linejoin:round" width="20" height="18" x="2" y="1031.86" rx="1.218" ry="1.189"/>
  <rect style="fill:#0fbbaf;stroke:#4285f4;stroke-width:0;stroke-linecap:round;stroke-linejoin:round" width="20" height="18" x="2" y="1031.36" rx="1.218" ry="1.189"/>
  <path style="opacity:0.2" d="m 16.133241,1036.362 c -0.130607,0 -0.256833,0.062 -0.355286,0.1629 -0.508937,0.5196 -2.329176,2.3466 -3.301412,3.3024 l 2.728271,2.7202 -3.261708,3.3116 c -6.5e-4,-4e-4 -0.0055,-0.01 -0.0061,-0.01 v -0.013 c -1.333906,-1.266 -2.6506579,-2.5586 -3.9834794,-3.8399 l -0.012215,-0.012 -0.01425,-0.012 c -0.659768,-0.5504 -1.0412735,-1.4445 -0.9039945,-2.2732 l 0.00105,-0.01 0.00205,-0.01 c 0.143328,-1.0949 1.2381445,-2.0553 2.3414275,-2.032 0.2138719,0 0.4296794,0.045 0.5935004,0.079 0.521574,0.1119 1.005449,0.5825 1.452703,1.0354 -9e-4,0 -0.0012,0 -0.0021,0 l 0.244323,0.2422 0.635238,0.6322 1.280659,-1.2806 c 0.196683,-0.1967 0.305347,-0.5734 0,-0.8755 -0.156205,-0.1562 -0.327895,-0.2044 -0.484573,-0.1894 -0.156685,0.015 -0.298369,0.093 -0.393971,0.1894 -0.201368,0.2014 -0.415357,0.4154 -0.595537,0.5956 -0.461093,-0.4596 -1.175122,-1.1539 -1.922005,-1.3163 -0.2667145,-0.068 -0.541543,-0.1032 -0.8164454,-0.1039 -0.0016,0 -0.003,0 -0.00511,0 -0.0026,0 -0.0047,0 -0.00713,0 v 0 c -1.654035,-0.034 -3.088045,1.2668 -3.3054835,2.8799 -0.1995705,1.2203 0.333604,2.4318 1.2480825,3.1946 l -0.026465,-0.024 c 1.3369185,1.2853 2.7763574,2.6698 4.1280364,3.952 0.190371,0.1659 0.345412,0.1934 0.545655,0.1934 v 0 c 0.154405,0.01 0.330061,-0.05 0.510023,-0.2229 l 3.017386,-3.0245 c 0,0 2.021056,-2.0142 3.018404,-3.0052 0.212831,-0.2129 0.228101,-0.511 0.01527,-0.7238 -0.212779,-0.2127 -0.517241,-0.2055 -0.729915,0.01 l -2.156148,2.1561 c -0.05649,0.012 -0.175793,-0.1121 -0.170008,-0.1822 l 3.185358,-3.1864 c 0.212836,-0.2129 0.228674,-0.5171 0.01527,-0.7299 -0.21283,-0.2129 -0.496723,-0.1832 -0.709554,0.029 l -2.522632,2.5236 c -0.06603,0.012 -0.209572,-0.113 -0.191387,-0.1975 l 2.985828,-2.9868 c 0.171232,-0.1831 0.273305,-0.5086 0.05396,-0.7381 -0.21283,-0.2128 -0.539475,-0.1985 -0.752311,0.015 l -3.080503,3.0816 c -0.0739,0 -0.186633,-0.1036 -0.185278,-0.1802 l 2.254884,-2.2523 c 0.212622,-0.2127 0.251338,-0.51 0.01934,-0.7299 -0.116001,-0.11 -0.251147,-0.1576 -0.381755,-0.1527 z"/>
  <path style="fill:#8b9cbe" d="m 16.133241,1035.862 c -0.130607,0 -0.256833,0.062 -0.355286,0.1629 -0.508937,0.5196 -2.329176,2.3466 -3.301412,3.3024 l 2.728271,2.7202 -3.261708,3.3116 c -6.5e-4,-4e-4 -0.0055,-0.01 -0.0061,-0.01 v -0.013 c -1.333906,-1.266 -2.6506579,-2.5586 -3.9834794,-3.8399 l -0.012215,-0.012 -0.01425,-0.012 c -0.659768,-0.5504 -1.0412735,-1.4445 -0.9039945,-2.2732 l 0.00105,-0.01 0.00205,-0.01 c 0.143328,-1.0949 1.2381445,-2.0553 2.3414275,-2.032 0.2138719,0 0.4296794,0.045 0.5935004,0.079 0.521574,0.1119 1.005449,0.5825 1.452703,1.0354 -9e-4,0 -0.0012,0 -0.0021,0 l 0.244323,0.2422 0.635238,0.6322 1.280659,-1.2806 c 0.196683,-0.1967 0.305347,-0.5734 0,-0.8755 -0.156205,-0.1562 -0.327895,-0.2044 -0.484573,-0.1894 -0.156685,0.015 -0.298369,0.093 -0.393971,0.1894 -0.201368,0.2014 -0.415357,0.4154 -0.595537,0.5956 -0.461093,-0.4596 -1.175122,-1.1539 -1.922005,-1.3163 -0.2667145,-0.068 -0.541543,-0.1032 -0.8164454,-0.1039 -0.0016,0 -0.003,0 -0.00511,0 -0.0026,0 -0.0047,0 -0.00713,0 v 0 c -1.654035,-0.034 -3.088045,1.2668 -3.3054835,2.8799 -0.1995705,1.2203 0.333604,2.4318 1.2480825,3.1946 l -0.026465,-0.024 c 1.3369185,1.2853 2.7763574,2.6698 4.1280364,3.952 0.190371,0.1659 0.345412,0.1934 0.545655,0.1934 v 0 c 0.154405,0.01 0.330061,-0.05 0.510023,-0.2229 l 3.017386,-3.0245 c 0,0 2.021056,-2.0142 3.018404,-3.0052 0.212831,-0.2129 0.228101,-0.511 0.01527,-0.7238 -0.212779,-0.2127 -0.517241,-0.2055 -0.729915,0.01 l -2.156148,2.1561 c -0.05649,0.012 -0.175793,-0.1121 -0.170008,-0.1822 l 3.185358,-3.1864 c 0.212836,-0.2129 0.228674,-0.5171 0.01527,-0.7299 -0.21283,-0.2129 -0.496723,-0.1832 -0.709554,0.029 l -2.522632,2.5236 c -0.06603,0.012 -0.209572,-0.113 -0.191387,-0.1975 l 2.985828,-2.9868 c 0.171232,-0.1831 0.273305,-0.5086 0.05396,-0.7381 -0.21283,-0.2128 -0.539475,-0.1985 -0.752311,0.015 l -3.080503,3.0816 c -0.0739,0 -0.186633,-0.1036 -0.185278,-0.1802 l 2.254884,-2.2523 c 0.212622,-0.2127 0.251338,-0.51 0.01934,-0.7299 -0.116001,-0.11 -0.251147,-0.1576 -0.381755,-0.1527 z"/>
  <path style="opacity:0.2;fill:#8b9cbe;stroke:#4285f4;stroke-width:0;stroke-linecap:round;stroke-linejoin:round" d="m 3.2177736,1031.362 c -0.674495,0 -1.2177734,0.5307 -1.2177734,1.1895 v 0.5 c 0,-0.6588 0.5432784,-1.1895 1.2177734,-1.1895 H 20.782226 c 0.674495,0 1.217774,0.5307 1.217774,1.1895 v -0.5 c 0,-0.6588 -0.543279,-1.1895 -1.217774,-1.1895 z"/>
 </g>
</svg>
