<svg xmlns="http://www.w3.org/2000/svg" width="24" height="24" version="1">
 <path style="opacity:0.2" d="M 11.999823,22.4996 C 6.444421,22.4996 2,18.055189 2,12.4998 2,6.944411 6.844143,2.5 12.399594,2.5 c 0.888884,0 1.66662,0.7777845 1.66662,1.6666167 0,0.4444361 -0.111108,0.7777844 -0.444437,1.1110777 -0.221996,0.3334936 -0.443992,1.1665061 -0.443992,1.6109971 0,0.8888825 0.777787,1.666617 1.66662,1.666617 h 1.600194 C 19.555543,8.5553085 22,10.50024 22,13.611178 22,18.50008 17.555579,22.5 12.000178,22.5 Z"/>
 <path style="fill:#b2bfd9" d="M 11.999823,21.9996 C 6.444421,21.9996 2,17.555189 2,11.9998 2,6.444411 6.844143,2 12.399594,2 c 0.888884,0 1.66662,0.7777845 1.66662,1.6666167 0,0.4444361 -0.111108,0.7777844 -0.444437,1.1110777 -0.221996,0.3334936 -0.443992,1.1665061 -0.443992,1.6109971 0,0.8888825 0.777787,1.666617 1.66662,1.666617 h 1.600194 C 19.555543,8.0553085 22,10.00024 22,13.111178 22,18.00008 17.555579,22 12.000178,22 Z"/>
 <path style="fill:#8b9cbe;opacity:0.2" d="M 12.400391 2 C 6.8449396 2 2 6.444611 2 12 C 2 12.089124 2.0113979 12.175134 2.0136719 12.263672 C 2.1501393 6.8203373 6.9248244 2.5 12.400391 2.5 C 13.219437 2.5 13.936105 3.1618095 14.044922 3.9609375 C 14.058567 3.8675235 14.066406 3.7702104 14.066406 3.6660156 C 14.066406 2.7771834 13.289275 2 12.400391 2 z M 13.203125 6.6289062 C 13.191984 6.7196609 13.177734 6.8151556 13.177734 6.8886719 C 13.177734 7.7775544 13.954917 8.5546875 14.84375 8.5546875 L 16.445312 8.5546875 C 19.464354 8.5546875 21.847674 10.390277 21.986328 13.341797 C 21.988561 13.264538 22 13.189049 22 13.111328 C 22 10.00039 19.556256 8.0546875 16.445312 8.0546875 L 14.84375 8.0546875 C 14.03673 8.0546875 13.328 7.4122656 13.203125 6.6289062 z"/>
 <path style="fill:#ff9008" d="m 5.5,11.9996 c -0.8,0 -1.5,0.7 -1.5,1.5 0,0.8 0.7,1.5 1.5,1.5 0.8,0 1.5,-0.7 1.5,-1.5 0,-0.8 -0.7,-1.5 -1.5,-1.5 z"/>
 <path style="fill:#3d81db" d="M 14.5,17 C 13.7,17 13,17.7 13,18.5 13,19.3 13.7,20 14.5,20 15.3,20 16,19.3 16,18.5 16,17.7 15.3,17 14.5,17 Z"/>
 <path style="fill:#ef5454" d="m 18,11.9996 c -0.8,0 -1.5,0.7 -1.5,1.5 0,0.8 0.7,1.5 1.5,1.5 0.8,0 1.5,-0.7 1.5,-1.5 0,-0.8 -0.7,-1.5 -1.5,-1.5 z"/>
 <path style="opacity:0.1;fill-rule:evenodd" d="M 10.960863,11.555 C 10.046082,11.640586 8.783349,12.505913 8.3127565,13.816501 7.482757,16.128032 8.925798,19.129438 6.3,19.045918 c 0.1682225,0.08602 0.3365455,0.15476 0.5051475,0.215334 0.00518,0.0033 0.010485,0.0065 0.015665,0.0097 0.033925,0.01204 0.067894,0.02013 0.1018125,0.03118 0.050593,0.01648 0.1011755,0.03246 0.1517395,0.04677 0.067348,0.01906 0.134417,0.03633 0.2016675,0.05164 0.048345,0.011 0.096615,0.02208 0.144887,0.03118 0.068085,0.01284 0.135733,0.023 0.203625,0.03215 0.04637,0.0063 0.092758,0.01199 0.1390135,0.01656 0.06705,0.0066 0.133915,0.01044 0.2006885,0.01364 0.049705,0.0024 0.099277,0.0053 0.148803,0.0058 0.063561,7e-4 0.126693,-0.0016 0.1899195,-0.0039 0.0013,-4.8e-5 0.0026,4.9e-5 0.0039,0 0.00225,9.5e-4 0.00455,0.002 0.00685,0.0029 0.01283,-4.99e-4 0.025365,-0.0033 0.03818,-0.0039 0.03132,-0.0015 0.062752,-0.0026 0.093981,-0.0049 0.072106,-0.0052 0.1438145,-0.01355 0.2153735,-0.02241 0.03914,-0.0048 0.07851,-0.0087 0.117476,-0.01461 0.02326,-0.0035 0.04633,-0.0078 0.06951,-0.0117 0.03188,-0.0054 0.06321,-0.01243 0.09496,-0.01851 0.159326,-0.03049 0.317306,-0.06672 0.472841,-0.114 0.0069,-0.0021 0.01366,-0.0047 0.02056,-0.0068 0.0037,-0.0012 0.0071,-0.0027 0.01076,-0.0039 10e-4,-3.06e-4 0.002,-6.5e-4 0.003,-10e-4 0.01281,-0.004 0.02539,-0.0086 0.03818,-0.01266 0.118588,-0.03811 0.234581,-0.08451 0.350471,-0.13154 0.06127,-0.02487 0.122621,-0.04878 0.183066,-0.076 0.06913,-0.03113 0.135652,-0.06728 0.203626,-0.101334 0.0081,-0.004 0.0164,-0.0076 0.02448,-0.0117 0.05816,-0.02948 0.117001,-0.05617 0.174256,-0.08769 0.05399,-0.02973 0.106437,-0.06208 0.159572,-0.09354 0.06596,-0.03905 0.130237,-0.08021 0.194814,-0.121795 0.06411,-0.04127 0.130186,-0.07915 0.192857,-0.12277 0.01933,-0.01346 0.03758,-0.02822 0.05678,-0.04189 0.02707,-0.01928 0.05251,-0.04071 0.0793,-0.06041 0.06588,-0.04845 0.130739,-0.09728 0.194814,-0.148103 0.06437,-0.05105 0.128445,-0.101648 0.190898,-0.154924 0.04263,-0.03636 0.08263,-0.07473 0.124329,-0.112052 0.0014,-0.0012 0.0025,-0.0027 0.0039,-0.0039 0.05252,-0.04708 0.105642,-0.09278 0.156635,-0.141283 0.01435,-0.01364 0.02984,-0.0262 0.04405,-0.03995 -1.43e-4,6e-4 1.44e-4,0.0014 0,0.002 0.0035,-0.0034 0.0063,-0.0073 0.0098,-0.01071 0.04535,-0.04401 0.08713,-0.0904 0.131181,-0.135437 0.04841,-0.04948 0.09614,-0.09847 0.14293,-0.149078 0.03805,-0.04117 0.0776,-0.08093 0.114539,-0.12277 0.0095,-0.01071 0.019,-0.0214 0.02839,-0.03215 0.04149,-0.04756 0.07844,-0.09686 0.118455,-0.14518 0.0148,-0.01787 0.02947,-0.03563 0.04405,-0.05359 0.03884,-0.04781 0.07817,-0.0948 0.115517,-0.143232 0.02553,-0.0331 0.0535,-0.06504 0.07832,-0.09841 0.01095,-0.01472 0.01953,-0.03005 0.03035,-0.04482 0.037,-0.05055 0.06942,-0.101938 0.10475,-0.152975 0.02176,-0.03143 0.04351,-0.06293 0.06461,-0.09451 0.0289,-0.04326 0.06143,-0.08511 0.08909,-0.128616 0.01401,-0.02204 0.02645,-0.04416 0.04014,-0.06626 0.01475,-0.02381 0.02968,-0.04726 0.04405,-0.07113 0.03083,-0.05121 0.05711,-0.102566 0.08615,-0.15395 0.04285,-0.0758 0.08747,-0.151086 0.126287,-0.227027 0.0095,-0.01853 0.0172,-0.03701 0.02643,-0.05554 0.0011,-0.0022 0.0018,-0.0046 0.003,-0.0068 0.01409,-0.02839 0.02956,-0.0564 0.04307,-0.08477 0.01989,-0.04175 0.03524,-0.08304 0.05384,-0.124719 0.03586,-0.08033 0.07086,-0.159924 0.101812,-0.239693 0.01314,-0.03386 0.02693,-0.06762 0.03916,-0.101334 0.0074,-0.02047 0.01542,-0.04098 0.02252,-0.06139 0.01078,-0.03101 0.0184,-0.06074 0.02839,-0.09159 0.02355,-0.07275 0.04358,-0.144637 0.06265,-0.21631 8e-4,0.0023 0.0031,0.0045 0.0039,0.0068 0.0097,-0.03617 0.01594,-0.07134 0.02447,-0.10718 0.005,-0.02114 0.01103,-0.04232 0.01567,-0.06333 0.0029,-0.01328 0.0061,-0.02671 0.0088,-0.03995 0.0023,-0.01087 0.0037,-0.02132 0.0059,-0.03216 0.0058,-0.02926 0.01262,-0.0587 0.01763,-0.08769 0.0014,-0.0086 0.0015,-0.0168 0.0029,-0.02533 0.01607,-0.09775 0.02693,-0.193349 0.03329,-0.287438 9e-4,-0.01324 0.0032,-0.02679 0.0039,-0.03995 1.71e-4,-0.0033 8e-4,-0.0065 0.001,-0.0097 5.5e-4,-0.0113 -4.16e-4,-0.02189 0,-0.03313 9e-4,-0.02437 7.5e-4,-0.04803 10e-4,-0.0721 2.67e-4,-0.03176 0.0019,-0.06428 10e-4,-0.09549 -0.0027,-0.08644 -0.0093,-0.171575 -0.02154,-0.253335 -0.0776,-0.518224 -0.257748,-0.930211 -0.496336,-1.255956 l -1.986325,-0.964622 -0.138035,-0.06723 -0.01272,-0.0058 -0.0039,-0.002 -10e-4,-10e-4 z"/>
 <path style="opacity:0.1;fill:none;stroke:#000000;stroke-width:2;stroke-linecap:round" d="M 10.568676,15.193287 16.5,3.500189"/>
 <path style="fill:none;stroke:#806121;stroke-width:2;stroke-linecap:round" d="M 10.568676,14.6931 16.5,3"/>
 <path style="fill:#4f4f4f;fill-rule:evenodd" d="M 10.960863,11.055002 C 10.046082,11.140592 8.783349,12.005915 8.3127565,13.316503 7.482757,15.628034 8.925798,18.629441 6.3,18.545919 c 0.1682225,0.08602 0.3365455,0.154761 0.5051475,0.215335 0.00518,0.0033 0.010485,0.0065 0.015665,0.0097 0.033925,0.01204 0.067894,0.02013 0.1018125,0.03118 0.050593,0.01648 0.1011755,0.03246 0.1517395,0.04677 0.067348,0.01907 0.134417,0.03634 0.2016675,0.05164 0.048345,0.011 0.096615,0.02208 0.144887,0.03118 0.068085,0.01284 0.135733,0.023 0.203625,0.03215 0.04637,0.0063 0.092758,0.01199 0.1390135,0.01656 0.06705,0.0066 0.133915,0.01044 0.2006885,0.01364 0.049705,0.0024 0.099277,0.0053 0.148803,0.0058 0.063561,7e-4 0.126693,-0.0016 0.1899195,-0.0039 0.0013,-4.8e-5 0.0026,4.9e-5 0.0039,0 0.00225,9.5e-4 0.00455,0.002 0.00685,0.003 0.01283,-4.99e-4 0.025365,-0.0033 0.03818,-0.0039 0.03132,-0.0015 0.062752,-0.0027 0.093981,-0.0049 0.072106,-0.0052 0.1438145,-0.01356 0.2153735,-0.02241 0.03914,-0.0048 0.07851,-0.0087 0.117476,-0.01461 0.02326,-0.0036 0.04633,-0.0078 0.06951,-0.0117 0.03188,-0.0054 0.06321,-0.01243 0.09496,-0.01852 0.159326,-0.03049 0.317306,-0.06672 0.472841,-0.114 0.0069,-0.0021 0.01366,-0.0047 0.02056,-0.0068 0.0037,-0.0012 0.0071,-0.0028 0.01076,-0.0039 10e-4,-3.06e-4 0.002,-6.5e-4 0.003,-0.001 0.01281,-0.004 0.02539,-0.0086 0.03818,-0.01266 0.118588,-0.03811 0.234581,-0.08451 0.350471,-0.13154 0.06127,-0.02487 0.122621,-0.04878 0.183066,-0.076 0.06913,-0.03112 0.135652,-0.06728 0.203626,-0.101334 0.0081,-0.004 0.0164,-0.0076 0.02448,-0.0117 0.05816,-0.02949 0.117001,-0.05617 0.174256,-0.08769 0.05399,-0.02973 0.106437,-0.06208 0.159572,-0.09354 0.06596,-0.03905 0.130237,-0.08021 0.194814,-0.121795 0.06411,-0.04127 0.130186,-0.07915 0.192857,-0.12277 0.01933,-0.01346 0.03758,-0.02822 0.05678,-0.04189 0.02707,-0.01928 0.05251,-0.04072 0.0793,-0.06041 0.06588,-0.04845 0.130739,-0.09728 0.194814,-0.148103 0.06437,-0.05105 0.128445,-0.101648 0.190898,-0.154924 0.04263,-0.03636 0.08263,-0.07473 0.124329,-0.112052 0.0014,-0.0012 0.0025,-0.0027 0.0039,-0.0039 0.05252,-0.04708 0.105642,-0.09278 0.156635,-0.141283 0.01435,-0.01364 0.02984,-0.0262 0.04405,-0.03995 -1.43e-4,6e-4 1.44e-4,0.0014 0,0.002 0.0035,-0.0034 0.0063,-0.0073 0.0098,-0.01072 0.04535,-0.04401 0.08713,-0.0904 0.131181,-0.135437 0.04841,-0.04949 0.09614,-0.09847 0.14293,-0.149078 0.03805,-0.04116 0.0776,-0.08093 0.114539,-0.12277 0.0095,-0.01071 0.019,-0.0214 0.02839,-0.03215 0.04149,-0.04756 0.07844,-0.09686 0.118455,-0.14518 0.0148,-0.01787 0.02947,-0.03563 0.04405,-0.05359 0.03884,-0.04781 0.07817,-0.09479 0.115517,-0.143232 0.02553,-0.0331 0.0535,-0.06504 0.07832,-0.09841 0.01095,-0.01472 0.01953,-0.03006 0.03035,-0.04482 0.037,-0.05055 0.06942,-0.101938 0.10475,-0.152975 0.02176,-0.03143 0.04351,-0.06293 0.06461,-0.09451 0.0289,-0.04326 0.06143,-0.08511 0.08909,-0.128616 0.01401,-0.02204 0.02645,-0.04416 0.04014,-0.06626 0.01475,-0.02381 0.02968,-0.04726 0.04405,-0.07113 0.03083,-0.05121 0.05711,-0.102566 0.08615,-0.15395 0.04285,-0.0758 0.08747,-0.151086 0.126287,-0.227027 0.0095,-0.01853 0.0172,-0.03701 0.02643,-0.05554 0.0011,-0.0022 0.0018,-0.0047 0.003,-0.0068 0.01409,-0.02839 0.02956,-0.0564 0.04307,-0.08477 0.01989,-0.04176 0.03524,-0.08304 0.05384,-0.124719 0.03586,-0.08033 0.07086,-0.159924 0.101812,-0.239693 0.01314,-0.03385 0.02693,-0.06762 0.03916,-0.101334 0.0074,-0.02047 0.01542,-0.04098 0.02252,-0.06138 0.01078,-0.03101 0.0184,-0.06074 0.02839,-0.09159 0.02355,-0.07275 0.04358,-0.144637 0.06265,-0.21631 8e-4,0.0023 0.0031,0.0044 0.0039,0.0068 0.0097,-0.03617 0.01594,-0.07134 0.02447,-0.10718 0.005,-0.02114 0.01103,-0.04231 0.01567,-0.06333 0.0029,-0.01328 0.0061,-0.02671 0.0088,-0.03995 0.0023,-0.01087 0.0037,-0.02133 0.0059,-0.03216 0.0058,-0.02926 0.01262,-0.0587 0.01763,-0.08769 0.0014,-0.0086 0.0015,-0.0168 0.0029,-0.02533 0.01607,-0.09776 0.02693,-0.193349 0.03329,-0.287438 9e-4,-0.01324 0.0032,-0.02679 0.0039,-0.03995 1.71e-4,-0.0032 8e-4,-0.0065 0.001,-0.0097 5.5e-4,-0.0113 -4.16e-4,-0.02189 0,-0.03313 9e-4,-0.02437 7.5e-4,-0.04803 10e-4,-0.0721 2.67e-4,-0.03176 0.0019,-0.06428 10e-4,-0.09549 -0.0027,-0.08644 -0.0093,-0.171575 -0.02154,-0.253335 -0.0776,-0.518224 -0.257748,-0.930211 -0.496336,-1.255956 l -1.986325,-0.964622 -0.138035,-0.06723 -0.01272,-0.0058 -0.0039,-0.0019 -10e-4,-10e-4 z"/>
 <path style="opacity:0.1;fill-rule:evenodd" d="m 12.073839,9.759021 c -0.162809,-0.0219 -0.33032,0.03753 -0.443472,0.165642 l -0.838975,0.949031 c -0.02761,0.03125 -0.0515,0.06621 -0.07049,0.103283 -0.125675,0.245491 -0.02736,0.546253 0.219288,0.671337 l 2.25652,1.143905 c 0.04041,0.0205 0.08282,0.03584 0.127266,0.04482 0.271292,0.0548 0.536241,-0.119729 0.591296,-0.389746 l 0.25551,-1.253033 c 0.04489,-0.220163 -0.06387,-0.442329 -0.2653,-0.543695 L 12.23341,9.808713 c -0.05098,-0.02566 -0.105302,-0.04239 -0.159571,-0.04969 z"/>
 <path style="fill:#808080;fill-rule:evenodd" d="m 12.073839,9.259187 c -0.162809,-0.0219 -0.33032,0.03753 -0.443472,0.165643 l -0.838975,0.949031 c -0.02761,0.03125 -0.0515,0.06621 -0.07049,0.103282 -0.125675,0.245492 -0.02736,0.546254 0.219288,0.671338 l 2.25652,1.143905 c 0.04041,0.02049 0.08282,0.03584 0.127266,0.04482 0.271292,0.0548 0.536241,-0.119728 0.591296,-0.389745 l 0.25551,-1.253034 c 0.04489,-0.220163 -0.06387,-0.442328 -0.2653,-0.543695 L 12.23341,9.30888 C 12.18243,9.28322 12.128108,9.26648 12.073839,9.25919 Z"/>
</svg>
