<svg xmlns="http://www.w3.org/2000/svg" width="24" height="24" version="1.1">
 <path style="opacity:0.2" d="M 11.702989,2.5005764 C 10.356948,2.5275182 9.0031977,2.7321274 7.8276561,3.0943264 6.6246251,3.4649951 5.5199138,4.0000168 4.4640862,4.7212795 4.032214,5.0163018 3.6990647,5.3671961 3.5323655,5.7037014 3.3844484,6.0022954 3.1661219,7.2995956 3.0713884,8.4341702 2.775016,11.983601 3.4149734,15.591735 4.7395004,17.84042 c 0.1649935,0.280113 0.806418,1.246379 1.0528248,1.583984 0.9629212,1.319318 2.2528499,2.246393 3.7659482,2.707031 0.6202806,0.188835 1.2034996,0.292077 2.0431436,0.365235 0.0678,0.0059 0.241104,0.0027 0.398473,0 0.291092,-0.005 0.624219,-0.01815 0.808663,-0.03906 1.349388,-0.152976 2.496448,-0.542933 3.480767,-1.189453 0.297367,-0.195316 0.575354,-0.421395 0.843822,-0.664062 0.264731,-0.239288 0.521219,-0.492936 0.759831,-0.779297 0.235488,-0.28261 0.381873,-0.48811 0.828196,-1.150391 0.587563,-0.871859 0.832442,-1.315625 1.14463,-2.074219 1.113141,-2.704852 1.435429,-6.5075 0.839916,-9.9062492 C 20.557444,5.8477154 20.511809,5.7102304 20.260365,5.3872952 20.007742,5.0628455 19.760866,4.861371 19.125501,4.4576076 17.350929,3.3298936 15.353476,2.6975641 13.039041,2.5337795 12.696209,2.5095185 12.34834,2.5024518 11.99989,2.5025295 c -0.09936,2.22e-5 -0.197348,-0.00395 -0.296901,-0.00195 z"/>
 <path style="fill:#b2bfd9" d="M 11.702372,2.0006848 C 10.356447,2.0276266 9.0043655,2.2323877 7.8289248,2.5945867 6.6259971,2.9652554 5.5199532,3.4997165 4.4642162,4.2209792 4.0323812,4.5160015 3.6992471,4.867147 3.5325622,5.2036523 3.3846578,5.5022463 3.1661136,6.7982918 3.0713883,7.9328664 2.7750413,11.482298 3.4148527,15.09186 4.739266,17.340545 c 0.1649793,0.280113 0.8072835,1.244832 1.053669,1.582437 0.9628387,1.319318 2.2529405,2.247085 3.7659089,2.707723 0.6202271,0.188835 1.2026211,0.293148 2.0421941,0.366306 0.06779,0.0059 0.241777,0.0017 0.399132,-0.001 V 2.0016616 c -0.09935,2.22e-5 -0.198254,-0.00297 -0.297798,-9.753e-4 z m 0.297798,9.768e-4 c 0.348421,-7.77e-5 0.696392,0.00797 1.039194,0.032234 -0.342802,-0.024261 -0.690773,-0.032312 -1.039194,-0.032234 z m 0,19.9943714 c 0.291068,-0.005 0.623145,-0.01718 0.807573,-0.03809 -0.184428,0.0209 -0.516505,0.03309 -0.807573,0.03809 z M 20.414009,5.1079249 c 0.126243,0.214942 0.180402,0.451553 0.291595,1.0862153 C 20.594411,5.5594779 20.540393,5.3228669 20.414009,5.1079249 Z m 0.472548,2.3765844 C 20.978567,8.353499 21.013849,9.2357637 20.99513,10.108228 21.0139,9.2357637 20.97855,8.353499 20.886557,7.4845093 Z M 17.133056,20.102972 c -0.268582,0.242832 -0.546251,0.469782 -0.843762,0.665209 0.29771,-0.195556 0.575019,-0.422186 0.843762,-0.665209 z"/>
 <path style="fill:#9c9c9c" d="M 12.00017,2.0016616 V 21.996033 c 0.291068,-0.005 0.623145,-0.01718 0.807573,-0.03809 2.158836,-0.244762 3.802809,-1.096415 5.084286,-2.634463 0.235467,-0.28261 0.383001,-0.487427 0.829286,-1.149708 0.587512,-0.871859 0.832502,-1.316156 1.144663,-2.07475 C 20.979024,13.39417 21.301066,9.5928946 20.705604,6.1941452 20.557346,5.3479248 20.510329,5.2091248 20.258906,4.8861895 20.006305,4.5617399 19.759893,4.3600265 19.124583,3.9562631 17.350163,2.8285491 15.3536,2.197681 13.039364,2.0338964 12.696562,2.0096354 12.348591,2.0015839 12.00017,2.0016616 Z"/>
 <path style="opacity:0.1" d="m 11.674593,19.475778 c -0.305522,-0.03979 -0.665539,-0.169142 -0.984718,-0.353805 -0.174299,-0.100843 -0.210735,-0.150059 -0.180048,-0.243198 0.01759,-0.05339 0.03147,-0.06047 0.118589,-0.06047 0.05427,0 0.309558,0.02703 0.567315,0.06006 0.961097,0.123166 1.366513,0.07337 2.445983,-0.300414 0.284677,-0.09858 0.33414,-0.10148 0.357391,-0.02099 0.02402,0.08317 -0.434974,0.489202 -0.779735,0.689758 -0.357076,0.207719 -0.989071,0.301432 -1.544777,0.229061 z"/>
 <path style="fill:#17191e" d="m 11.674593,18.97578 c -0.305522,-0.03979 -0.665539,-0.169141 -0.984718,-0.353805 -0.174299,-0.100843 -0.210735,-0.150058 -0.180048,-0.243198 0.01759,-0.05339 0.03147,-0.06047 0.118589,-0.06047 0.05427,0 0.309558,0.02703 0.567315,0.06006 0.961097,0.123166 1.366513,0.07337 2.445983,-0.300414 0.284677,-0.09858 0.33414,-0.10148 0.357391,-0.02098 0.02402,0.08317 -0.434974,0.489203 -0.779735,0.689758 -0.357076,0.207719 -0.989071,0.301432 -1.544777,0.229062 z"/>
 <path style="opacity:0.1" d="m 11.612166,15.502833 c -0.01848,-0.0076 -0.03047,8.5e-4 -0.05178,0.01902 -0.157485,0.134226 -0.518984,0.782668 -0.551983,0.990085 -0.0352,0.221278 0.04332,0.499604 0.182692,0.643706 0.06803,0.07034 0.477218,0.278133 0.626232,0.318349 0.06568,0.01772 0.124272,0.02506 0.182691,0.02603 0.05842,-9.5e-4 0.117012,-0.0083 0.182692,-0.02603 0.149013,-0.04021 0.558201,-0.248009 0.626232,-0.318349 0.139373,-0.144102 0.217895,-0.422428 0.182691,-0.643706 -0.033,-0.207417 -0.394497,-0.855859 -0.551983,-0.990085 -0.02131,-0.01815 -0.0333,-0.02666 -0.05178,-0.01902 -0.01848,0.0076 -0.04353,0.03054 -0.09086,0.07708 -0.09713,0.0955 -0.179859,0.129398 -0.296996,0.123135 -0.117137,0.0063 -0.199869,-0.02763 -0.296996,-0.123135 -0.04733,-0.04654 -0.07238,-0.06945 -0.09086,-0.07708 z"/>
 <path style="fill:#17191e" d="m 11.612166,15.002836 c -0.01848,-0.0076 -0.03047,8.5e-4 -0.05178,0.01902 -0.157485,0.134226 -0.518984,0.782668 -0.551983,0.990085 -0.0352,0.221278 0.04332,0.499604 0.182692,0.643707 0.06803,0.07034 0.477218,0.278132 0.626232,0.318348 0.06568,0.01773 0.124272,0.02506 0.182691,0.02603 0.05842,-9.5e-4 0.117012,-0.0083 0.182692,-0.02603 0.149013,-0.04021 0.558201,-0.248008 0.626232,-0.318348 0.139373,-0.144103 0.217895,-0.422429 0.182691,-0.643707 -0.033,-0.207417 -0.394497,-0.855859 -0.551983,-0.990085 -0.02131,-0.01815 -0.0333,-0.02666 -0.05178,-0.01902 -0.01848,0.0076 -0.04353,0.03054 -0.09086,0.07709 -0.09713,0.0955 -0.179859,0.129398 -0.296996,0.123134 -0.117137,0.0063 -0.199869,-0.02763 -0.296996,-0.123134 -0.04733,-0.04655 -0.07238,-0.06945 -0.09086,-0.07709 z"/>
 <path style="fill:#17191e" d="m 7.2088661,10.001409 c -0.379138,0.01044 -0.6781379,0.08246 -0.8670154,0.241865 -0.1216352,0.102649 -0.2076257,0.278842 -0.2864731,0.588415 -0.096349,0.378276 -0.069297,0.661393 0.1020024,1.044467 0.2626941,0.58747 0.8556892,1.007377 1.5625808,1.108243 0.020134,0.0029 0.052492,0.01116 0.072703,0.01565 h 3.0752452 c 0.07302,-0.02275 0.10464,-0.05783 0.123705,-0.121534 0.03241,-0.108312 -0.02659,-0.308268 -0.194237,-0.65941 C 10.58156,11.76705 10.373627,11.441195 10.063831,11.073552 9.5610433,10.476881 9.1599259,10.225532 8.5533368,10.125349 8.0463516,10.041616 7.5880046,9.9909425 7.2088661,10.001409 Z"/>
 <path style="opacity:0.3" d="m 13.5,9.400041 v 4.1 h 0.499998 v -4.1 z m 0.999996,0 v 4.1 h 0.499998 v -4.1 z m 0.999995,0 v 4.1 h 0.499998 v -4.1 z m 0.999996,0 v 4.1 h 0.499997 v -4.1 z"/>
 <rect style="fill:#17191e" width="5" height="3" x="13" y="10" rx=".833" ry=".9"/>
 <path style="fill:#8b9cbe" d="m 14.666668,10.599998 v 1.800004 h 1.666666 v -1.800004 z m 0.277777,0.300001 h 1.111111 v 1.200003 h -1.111111 z"/>
 <rect style="fill:#8b9cbe" width=".556" height=".3" x="13.72" y="10.72"/>
 <rect style="fill:#8b9cbe" width=".389" height=".3" x="14.11" y="11.02"/>
 <rect style="fill:#8b9cbe" width=".556" height=".3" x="13.72" y="11.92"/>
 <rect style="fill:#8b9cbe" width=".389" height=".3" x="14.11" y="11.62"/>
 <rect style="fill:#8b9cbe" width=".556" height=".3" x="-17.28" y="10.72" transform="scale(-1,1)"/>
 <rect style="fill:#8b9cbe" width=".389" height=".3" x="-16.89" y="11.02" transform="scale(-1,1)"/>
 <rect style="fill:#8b9cbe" width=".556" height=".3" x="-17.28" y="11.92" transform="scale(-1,1)"/>
 <rect style="fill:#8b9cbe" width=".389" height=".3" x="-16.89" y="11.62" transform="scale(-1,1)"/>
 <rect style="fill:#8b9cbe" width=".778" height=".3" x="15.11" y="11.05"/>
 <rect style="fill:#8b9cbe" width=".778" height=".3" x="15.11" y="11.65"/>
 <rect style="fill:#8b9cbe" width=".6" height=".278" x="11.17" y="-15.64" transform="rotate(90)"/>
 <path style="fill:#8b9cbe;opacity:0.2" d="M 11.703125 2 C 10.3572 2.0269418 9.0035657 2.231551 7.828125 2.59375 C 6.6251973 2.9644187 5.5205808 3.4994404 4.4648438 4.2207031 C 4.0330087 4.5157254 3.699888 4.8666197 3.5332031 5.203125 C 3.3852987 5.501719 3.1669909 6.7990191 3.0722656 7.9335938 C 3.0240981 8.5105102 3.0095455 9.0862277 3.0097656 9.6601562 C 3.019431 9.2516287 3.038106 8.8427333 3.0722656 8.4335938 C 3.1669909 7.2990191 3.3852987 6.001719 3.5332031 5.703125 C 3.699888 5.3666197 4.0330087 5.0157254 4.4648438 4.7207031 C 5.5205808 3.9994404 6.6251973 3.4644187 7.828125 3.09375 C 9.0035657 2.731551 10.3572 2.526942 11.703125 2.5 C 11.802669 2.498 11.90065 2.5019753 12 2.5019531 C 12.348421 2.5018754 12.696261 2.5089421 13.039062 2.5332031 C 15.353299 2.6969877 17.35058 3.3293172 19.125 4.4570312 C 19.76031 4.8607946 20.007165 5.0622691 20.259766 5.3867188 C 20.511189 5.7096539 20.55682 5.847139 20.705078 6.6933594 C 20.904119 7.8294365 20.99153 9.0094385 20.990234 10.179688 C 21.023494 8.8473469 20.932518 7.4915301 20.705078 6.1933594 C 20.55682 5.347139 20.511189 5.209654 20.259766 4.8867188 C 20.007165 4.5622691 19.76031 4.3607946 19.125 3.9570312 C 17.35058 2.8293173 15.353299 2.1969877 13.039062 2.0332031 C 12.696261 2.0089421 12.348421 2.0018754 12 2.0019531 C 11.90065 2.0019753 11.802669 1.9980053 11.703125 2 z"/>
</svg>
