<svg xmlns="http://www.w3.org/2000/svg" width="24" height="24" version="1">
 <path style="opacity:0.2" d="m 16.764142,2.5000893 c -1.13656,0 -2.150199,0.4684112 -2.904864,1.0986276 C 13.773088,3.5293425 13.715175,3.4426752 13.616394,3.3828977 13.047655,3.0387253 12.349869,2.9516496 11.790368,3.0303603 11.008177,3.1404392 10.370364,3.6369142 9.8921604,4.1914876 9.543411,4.0642058 9.1800607,3.9779093 8.8133229,4.0137541 8.5257968,4.041849 8.260783,4.1108438 8.0202892,4.2022297 7.1366318,4.5380292 6.3971643,5.3878057 6.1464675,6.2246813 5.9142581,6.2959615 5.6465263,6.295039 5.4529292,6.4092504 4.6564582,6.8794032 4.027015,7.9129704 4.0014728,8.8047472 3.9759309,9.696524 4.3039171,10.339724 4.6598954,10.84673 c 0.2291783,0.326409 0.549865,0.541214 0.8466831,0.783199 -0.1582723,0.347212 -0.3078476,0.702337 -0.3921272,1.097651 -0.4683716,2.197016 0.422413,4.255977 1.7479898,5.865207 C 8.1882174,20.202259 10.112751,21.5 12.439036,21.5 c 2.516093,0 4.643358,-1.684743 5.377648,-4.139603 0.289886,-0.758517 0.11813,-1.634438 -0.01139,-2.359134 C 17.450873,13.032326 16.890202,11.077974 19.319799,7.7207443 19.758814,6.929172 20.197014,6.0487536 19.906038,4.7617737 19.760549,4.1183077 19.295224,3.3993249 18.672104,3.0039932 18.048984,2.6086614 17.386878,2.5000893 16.764142,2.5000893 Z"/>
 <path style="fill:#569c3b" d="m 16.764142,2.0000917 c -1.13656,0 -2.150199,0.4684111 -2.904864,1.0986276 C 13.773088,3.0293449 13.715175,2.9426776 13.616394,2.8829 13.047655,2.5387277 12.349869,2.451652 11.790368,2.5303626 11.008177,2.6404415 10.370364,3.1369166 9.8921604,3.69149 9.543411,3.5642082 9.1800607,3.4779117 8.8133229,3.5137564 8.5257968,3.5418513 8.260783,3.6108462 8.0202892,3.7022321 7.1366318,4.0380314 6.3971643,4.8878081 6.1464675,5.7246836 5.9142581,5.7959638 5.6465263,5.7950413 5.4529292,5.9092528 4.6564582,6.3794056 4.027015,7.4129727 4.0014728,8.3047495 c -0.025542,0.8917768 0.3024443,1.5349773 0.6584226,2.0419825 0.2291783,0.326409 0.549865,0.541214 0.8466831,0.7832 -0.1582723,0.347212 -0.3078476,0.702336 -0.3921272,1.097651 -0.4683716,2.197015 0.422413,4.255977 1.7479898,5.865207 1.3257763,1.609471 3.2503099,2.907212 5.5765949,2.907212 2.516093,0 4.643358,-1.684743 5.377648,-4.139603 0.289886,-0.758517 0.11813,-1.634438 -0.01139,-2.359134 C 17.450873,12.532328 16.890202,10.577977 19.319799,7.2207466 19.758814,6.4291743 20.197014,5.548756 19.906038,4.2617763 19.760549,3.61831 19.295224,2.8993273 18.672104,2.5039955 18.048984,2.1086638 17.386878,2.0000917 16.764142,2.0000917 Z"/>
 <path style="opacity:0.2" d="m 16.77858,4.5000799 c -2.96175,0 -3.516769,4.4999789 -1.85062,4.4999789 1.665909,0 4.81249,-4.4999789 1.85062,-4.4999789 z m -4.701258,0.5107396 c -1.694046,0.2381329 -1.098315,3.4286329 -0.196292,3.4882651 0.901655,0.059633 1.890951,-3.7263975 0.196292,-3.4882651 z M 9.0128135,6.0039788 C 8.9262879,6.0124238 8.8335883,6.0347237 8.7344883,6.072338 7.1485963,6.6743047 8.4935319,9.159255 9.3819608,8.9922463 10.215533,8.835921 10.310703,5.8772689 9.0128135,6.0039788 Z M 6.9278148,8.0000635 C 6.786219,7.9960135 6.6328317,8.0358283 6.4697985,8.1318988 5.1661221,8.9005722 6.9088604,10.757766 7.6758748,10.469778 8.3470136,10.217681 7.9189861,8.0285283 6.9278148,8.0000635 Z M 13.00898,9.5010329 C 10.675032,9.4597246 7.5964247,10.684628 7.0713721,13.14457 c -0.5686513,2.662083 2.3413095,6.355439 5.3770499,6.355439 1.493428,0 3.215878,-1.41106 3.538151,-3.198227 0.246134,-1.362813 -3.096378,-0.816805 -2.983453,0.08496 0.09221,0.736709 -0.293318,1.119837 -0.82521,1.13183 -0.726189,-0.088 -1.082219,-0.507211 -1.177756,-1.140619 -0.130052,-1.663272 5.108334,-2.848656 4.693445,-5.427709 C 15.541853,10.006959 14.409348,9.5258183 13.00898,9.5010329 Z"/>
 <path style="fill:#8b9cbe" d="m 16.77858,4.0000822 c -2.96175,0 -3.516769,4.4999789 -1.85062,4.4999789 1.665909,0 4.81249,-4.4999789 1.85062,-4.4999789 z M 12.077322,4.5108218 C 10.383276,4.7489547 10.979007,7.9394547 11.88103,7.999087 12.782685,8.0587202 13.771981,4.2726896 12.077322,4.5108218 Z M 9.0128135,5.5039812 C 8.9262879,5.5124261 8.8335883,5.534726 8.7344883,5.5723404 7.1485963,6.174307 8.4935319,8.6592574 9.3819608,8.4922486 10.215533,8.3359234 10.310703,5.3772713 9.0128135,5.5039812 Z M 6.9278148,7.5000658 C 6.786219,7.4960158 6.6328317,7.5358306 6.4697985,7.6319012 5.1661221,8.4005746 6.9088604,10.257768 7.6758748,9.9697807 8.3470136,9.7176829 7.9189861,7.5285307 6.9278148,7.5000658 Z M 13.00898,9.0010352 C 10.675032,8.9597269 7.5964247,10.18463 7.0713721,12.644573 c -0.5686513,2.662083 2.3413095,6.355439 5.3770499,6.355439 1.493428,0 3.215878,-1.411061 3.538151,-3.198227 0.246134,-1.362814 -3.096378,-0.816805 -2.983453,0.08496 0.09221,0.736709 -0.293318,1.119838 -0.82521,1.131831 -0.726189,-0.088 -1.082219,-0.507212 -1.177756,-1.14062 -0.130052,-1.663271 5.108334,-2.848655 4.693445,-5.427709 C 15.541853,9.5069609 14.409348,9.0258206 13.00898,9.0010352 Z"/>
 <path style="opacity:0.2;fill:#8b9cbe" d="m 16.763685,2.0000917 c -1.13656,0 -2.149618,0.4684111 -2.904283,1.0986276 C 13.773212,3.0293449 13.71502,2.9426776 13.616239,2.8829 13.0475,2.5387277 12.349576,2.451652 11.790075,2.5303626 11.007884,2.6404415 10.370827,3.1369166 9.8926234,3.69149 9.543874,3.5642082 9.1802647,3.4779117 8.8135269,3.5137564 8.5260008,3.5418513 8.261056,3.6108462 8.0205622,3.7022321 7.1369048,4.0380314 6.3972443,4.8878081 6.1465475,5.7246836 5.9143381,5.7959638 5.6467883,5.7950413 5.4531912,5.9092528 4.6567202,6.3794056 4.0265918,7.4129727 4.0010496,8.3047495 3.9972746,8.4365084 4.0041096,8.5614088 4.0147215,8.6826772 4.0900846,7.8201473 4.6924923,6.8582873 5.4531912,6.4092504 5.6467883,6.295039 5.9143381,6.2959615 6.1465475,6.2246813 6.3972443,5.3878057 7.1369048,4.5380292 8.0205622,4.2022297 8.261056,4.1108438 8.5260008,4.0418489 8.8135269,4.0137541 9.1802647,3.9779093 9.543874,4.0642058 9.8926234,4.1914876 10.370827,3.6369142 11.007884,3.1404392 11.790075,3.0303603 c 0.559501,-0.078711 1.257425,0.00836 1.826164,0.3525374 0.09878,0.059778 0.156973,0.1464448 0.243163,0.2158192 0.754665,-0.6302164 1.767723,-1.0986276 2.904283,-1.0986276 0.622737,0 1.285074,0.1085721 1.908194,0.5039039 0.623121,0.3953317 1.08888,1.1143382 1.234369,1.7578045 0.04331,0.1915806 0.0657,0.3712847 0.0791,0.5458954 0.0234,-0.319439 0.0075,-0.6627794 -0.0791,-1.0458933 C 19.760759,3.6183335 19.295,2.8993273 18.671879,2.5039955 18.048759,2.1086638 17.386422,2.0000917 16.763685,2.0000917 Z M 5.3486997,11.502976 c -0.094182,0.231439 -0.1796991,0.468153 -0.2343739,0.724607 -0.1041785,0.488675 -0.1373217,0.969814 -0.1171871,1.441399 0.013731,-0.31059 0.049546,-0.624115 0.1171871,-0.941402 0.08428,-0.395314 0.2343039,-0.750439 0.3925762,-1.097651 -0.052273,-0.04261 -0.1050785,-0.08526 -0.1582023,-0.126953 z m 12.1434973,0.762692 c -0.04056,0.991235 0.156277,1.862046 0.313475,2.735339 0.06291,0.351998 0.133104,0.740237 0.158202,1.132807 0.03697,-0.557425 -0.06855,-1.1312 -0.158202,-1.632805 -0.130214,-0.723386 -0.286103,-1.445596 -0.313475,-2.235341 z"/>
</svg>
