<svg xmlns="http://www.w3.org/2000/svg" width="24" height="24" version="1">
 <g transform="translate(1,1)">
  <path fill="#b2bfd9" d="m19 20v-18c0-0.554-0.446-1-1-1h-14c-0.554 0-1 0.446-1 1v18c0 0.554 0.446 1 1 1h14c0.554 0 1-0.446 1-1z"/>
  <path fill="none" stroke="#4f4f4f" stroke-width="2" d="m5 5h6.5s4.5011 0.035562 4.5 5.5c-0.001 5.4644-4.5 5.5-4.5 5.5h-6.5"/>
  <path fill="#fff" opacity=".2" d="m4 1c-0.554 0-1 0.446-1 1v0.5c0-0.554 0.446-1 1-1h14c0.554 0 1 0.446 1 1v-0.5c0-0.554-0.446-1-1-1z"/>
  <path fill="#4f4f4f" fill-rule="evenodd" d="m6 5v13.5h-2l3 2 3-2h-2v-13.5z"/>
  <path opacity=".2" d="m3 20v0.5c0 0.554 0.446 1 1 1h14c0.554 0 1-0.446 1-1v-0.5c0 0.554-0.446 1-1 1h-14c-0.554 0-1-0.446-1-1z"/>
 </g>
</svg>
