<svg xmlns="http://www.w3.org/2000/svg" width="24" height="24" version="1">
 <path style="opacity:0.2" d="M 3.5,5.5 C 2.669,5.5 2,6.1487273 2,6.9545455 V 20.045455 C 2,20.851273 2.669,21.5 3.5,21.5 h 7 C 11.331,21.5 12,20.851273 12,20.045455 12,20.851273 12.669,21.5 13.5,21.5 h 7 c 0.831,0 1.5,-0.648727 1.5,-1.454545 V 6.9545455 C 22,6.1487273 21.331,5.5 20.5,5.5 h -7 C 12.669,5.5 12,6.1487273 12,6.9545455 12,6.1487273 11.331,5.5 10.5,5.5 Z"/>
 <rect style="fill:#ff881b" width="10" height="16" x="2" y="5" rx="1.5" ry="1.455"/>
 <rect style="fill:#ff881b" width="10" height="16" x="12" y="5" rx="1.5" ry="1.455"/>
 <path style="opacity:0.2" d="M 4.9414062,3.5 C 4.4199945,3.5 4,3.9315379 4,4.46875 v 14.0625 C 4,19.068462 4.4199945,19.5 4.9414062,19.5 H 11.058594 C 11.580006,19.5 12,19.068462 12,18.53125 12,19.068462 12.419994,19.5 12.941406,19.5 h 6.117188 C 19.580006,19.5 20,19.068462 20,18.53125 V 4.46875 C 20,3.9315379 19.580006,3.5 19.058594,3.5 H 12.941406 C 12.419994,3.5 12,3.9315379 12,4.46875 12,3.9315379 11.580006,3.5 11.058594,3.5 Z"/>
 <rect style="fill:#cccccc" width="8" height="16" x="12" y="3" rx=".941" ry=".97"/>
 <rect style="fill:#b2bfd9" width="8" height="16" x="4" y="3" rx=".941" ry=".97"/>
 <path style="fill:#17191e" d="M 6.60101,14 C 6.5302994,13.612432 6.6911857,13.157999 6.715909,13.005109 6.803451,12.701731 6.9457073,12.414606 7.142677,12.143733 7.3505893,11.87286 7.6296297,11.591151 7.979798,11.298608 8.4065657,10.941055 8.7348485,10.643095 8.9646465,10.404726 9.2053872,10.166358 9.375,9.9334073 9.473485,9.705874 9.5719697,9.4783403 9.621212,9.2020495 9.621212,8.8770015 9.621212,8.3569252 9.4515992,7.956033 9.1123735,7.674325 8.7731482,7.3926167 8.280724,7.2517625 7.635101,7.2517625 c -0.5361953,0 -1.0122053,0.070427 -1.42803,0.2112815 C 5.791246,7.593063 5.3918352,7.7501693 5.0088385,7.934363 L 4.5000002,6.7966955 C 4.9377107,6.5691622 5.4191922,6.379551 5.9444445,6.227862 6.4806398,6.0761733 7.0770203,6.000329 7.733586,6.000329 c 1.0395623,0 1.8438553,0.2546207 2.412879,0.763862 C 10.715488,7.2734327 11,7.966868 11,8.844497 c 0,0.4875717 -0.08207,0.9047163 -0.246212,1.251434 -0.153199,0.335883 -0.377525,0.650096 -0.67298,0.942639 C 9.7962963,11.320278 9.4570708,11.623656 9.0631315,11.948704 8.7020202,12.252081 8.4229797,12.517537 8.22601,12.74507 7.8196477,13.174802 7.8014316,13.745656 7.75,14 Z"/>
 <path style="fill:#17191e" d="M 6,15.992593 Q 6,15.444444 6.276423,15.222222 6.5691055,15 7.00813,15 7.414634,15 7.7073165,15.222222 8,15.444444 8,15.992593 8,16.525926 7.7073165,16.762963 7.414634,17 7.00813,17 6.5691055,17 6.276423,16.762963 6,16.525926 6,15.992593 Z"/>
 <rect style="fill:#17191e" width="6" height="1" x="13" y="7"/>
 <rect style="fill:#17191e" width="5" height="1" x="14" y="10"/>
 <rect style="fill:#17191e" width="3" height="1" x="13" y="13"/>
 <rect style="fill:#17191e" width="2" height="1" x="17" y="13"/>
 <path style="opacity:0.1" d="M 17.857143,16.5 C 17.382286,16.5 17,16.882286 17,17.357143 V 19.5 l 3,-3 z"/>
 <path style="fill:#b2bfd9" d="M 17.857143,16 C 17.382286,16 17,16.382286 17,16.857143 V 19 l 3,-3 z"/>
 <path style="opacity:0.2;fill:#8b9cbe" d="M 4.9414062 3 C 4.4199945 3 4 3.4315379 4 3.96875 L 4 4.46875 C 4 3.9315379 4.4199945 3.5 4.9414062 3.5 L 11.058594 3.5 C 11.580006 3.5 12 3.9315379 12 4.46875 C 12 3.9315379 12.419994 3.5 12.941406 3.5 L 19.058594 3.5 C 19.580006 3.5 20 3.9315379 20 4.46875 L 20 3.96875 C 20 3.4315379 19.580006 3 19.058594 3 L 12.941406 3 C 12.419994 3 12 3.4315379 12 3.96875 C 12 3.4315379 11.580006 3 11.058594 3 L 4.9414062 3 z"/>
</svg>
