<svg xmlns="http://www.w3.org/2000/svg" width="24" height="24" version="1">
 <path style="opacity:0.2;fill-rule:evenodd" d="m 21.210811,21.091 c 0,0 0.979286,-1.921865 0.756114,-2.302396 -0.196196,-0.334498 -1.99727,-0.252538 -1.99727,-0.252538 0,0 1.239325,-1.706335 0.997845,-2.118043 -0.237743,-0.405329 -2.538362,-0.424375 -2.538362,-0.424375 0,0 2.537094,-1.152452 2.61799,-1.616456 0.08489,-0.486287 -2.242937,-2.243602 -2.242937,-2.243602 0,0 2.369347,-3.163833 2.187309,-3.5955185 C 20.763003,7.9963685 17.5,7.999335 17.5,7.999335 c 0,0 1.223414,-4.1335089 0.719574,-4.4525 -0.42333,-0.2679059 -5.040316,1.3296145 -5.040316,1.3296145 0,0 -1.404935,-3.3771146 -2.187209,-3.3771146 -0.787218,0 -2.4502851,3.3820041 -2.4502851,3.3820041 0,0 -2.7606215,-2.097542 -3.2717775,-1.807004 C 4.8180829,3.3311578 5.0219999,6.857454 5.0219999,6.857454 Z"/>
 <path style="opacity:0.2" d="m 10.5,4.4994542 a 8.5,8.5 0 0 0 -8.5000001,8.5000008 8.5,8.5 0 0 0 8.5000001,8.5 8.5,8.5 0 0 0 4.351562,-1.209961 c 2.432286,0.800006 6.359353,2.023877 6.661133,1.636719 C 21.86205,21.47797 19.447473,17.879237 18.34082,16.277775 A 8.5,8.5 0 0 0 19,12.999455 8.5,8.5 0 0 0 10.5,4.4994542 Z"/>
 <path style="fill:#455a64;fill-rule:evenodd" d="m 21.210811,20.591165 c 0,0 0.979286,-1.921865 0.756114,-2.302396 -0.196196,-0.334498 -1.99727,-0.252538 -1.99727,-0.252538 0,0 1.239325,-1.706335 0.997845,-2.118043 -0.237743,-0.405329 -2.538362,-0.424375 -2.538362,-0.424375 0,0 2.537094,-1.152452 2.61799,-1.616456 0.08489,-0.486287 -2.242937,-2.243602 -2.242937,-2.243602 0,0 2.369347,-3.163833 2.187309,-3.5955185 C 20.763003,7.4965335 17.5,7.4995 17.5,7.4995 c 0,0 1.223414,-4.1335089 0.719574,-4.4525 -0.42333,-0.2679059 -5.040316,1.3296145 -5.040316,1.3296145 0,0 -1.404935,-3.3771146 -2.187209,-3.3771146 -0.787218,0 -2.4502851,3.3820041 -2.4502851,3.3820041 0,0 -2.7606215,-2.097542 -3.2717775,-1.807004 C 4.8180829,2.8313228 5.0219999,6.357619 5.0219999,6.357619 Z"/>
 <path style="opacity:0.1;fill:#8b9cbe;fill-rule:evenodd" d="m 10.992187,0.9995 c -0.787218,0 -2.4501951,3.381836 -2.4501951,3.381836 0,0 -2.7613045,-2.0971787 -3.272461,-1.8066407 -0.2531725,0.1438814 -0.2954158,1.2848643 -0.2880857,2.2861327 0.01341,-0.845956 0.078901,-1.6672503 0.2880857,-1.7861327 0.5111565,-0.290538 3.272461,1.8066407 3.272461,1.8066407 0,0 1.6629771,-3.381836 2.4501951,-3.381836 0.782275,0 2.1875,3.376953 2.1875,3.376953 0,0 4.616709,-1.5979839 5.040039,-1.330078 0.05648,0.035757 0.08824,0.1256683 0.105469,0.2460938 0.03242,-0.3862712 0.01159,-0.6710013 -0.105469,-0.7451172 -0.42333,-0.267906 -5.040039,1.3291014 -5.040039,1.3291014 0,0 -1.405225,-3.376953 -2.1875,-3.376953 z m 6.648438,6.501953 C 17.571812,7.748071 17.5,7.9995 17.5,7.9995 c 0,0 2.811322,-0.00195 3.395508,0.4316405 0.07678,-0.1774185 0.124045,-0.3253665 0.0957,-0.392578 -0.212859,-0.504629 -2.961995,-0.535098 -3.350586,-0.5371095 z m 1.397461,4.313477 c -0.09998,0.13622 -0.234375,0.318359 -0.234375,0.318359 0,0 1.657233,1.254153 2.117187,1.935547 0.0704,-0.07135 0.11638,-0.136358 0.125977,-0.191406 0.07121,-0.407925 -1.482718,-1.653372 -2.008789,-2.0625 z m 0.317383,3.723633 c -0.492189,0.250903 -0.926758,0.455078 -0.926758,0.455078 0,0 2.122985,0.01887 2.49707,0.380859 0.06787,-0.19489 0.09748,-0.361457 0.04199,-0.456054 -0.137334,-0.234141 -0.939354,-0.33275 -1.612305,-0.379883 z m 0.952148,2.491211 c -0.181433,0.279686 -0.337891,0.505859 -0.337891,0.505859 0,0 1.729317,-0.07742 1.980469,0.235352 0.05192,-0.214412 0.06899,-0.393091 0.0166,-0.482422 -0.143034,-0.243862 -1.129913,-0.264492 -1.65918,-0.258789 z"/>
 <g transform="matrix(0.5,0,0,0.5,-9.1796931e-8,-1.0005)">
  <path style="fill:#80cbc4" d="M 38,27 C 38,36.388841 30.388841,44 21,44 13.736194,44 7.5364304,39.444299 5.1020782,33.034267 4.3899054,31.159004 5,29.125035 5,27 5,17.611159 11.764887,15.918524 21.153728,15.918524 30.542569,15.918524 38,17.611159 38,27 Z"/>
  <path style="fill:#80cbc4;fill-rule:evenodd" d="m 35.537456,32.917376 c 0,0 8.385019,11.787769 7.488544,12.937999 -0.87055,1.116842 -17.177092,-4.556916 -17.177092,-4.556916 z"/>
 </g>
 <path style="fill:#009688;fill-rule:evenodd" d="m 10.5,3.9994995 c -4.6944206,0 -8.5000001,3.8055795 -8.5000001,8.5000005 0,0.03199 0.00453,0.06283 0.00489,0.09473 -3.998e-4,0.03352 -0.00489,0.066 -0.00489,0.09961 0,0.448148 0.036213,0.888095 0.1044922,1.317383 0.021966,0.104267 0.057522,0.19314 0.086914,0.289062 0.4144372,1.352519 1.4941406,1.896485 1.4941406,1.896485 0.2619409,0.211603 0.5879155,0.427367 0.9638672,0.640625 h -0.03125 c 0,0 0.7885674,4.197734 2.2343749,4.162109 1.093486,-0.02695 1.9515515,-2.043704 3.3417972,-2 1.389039,0.04367 1.952734,1.985564 3.334961,2 0.798264,0.0083 1.491479,-1.386046 1.929687,-2.5 h 0.414063 c 1.314246,1.223389 4.301892,2.536845 5.596458,2.958985 0.01769,-0.0092 0.03211,-0.01955 0.04199,-0.03223 C 21.828369,21.019758 19.593317,17.538495 18.355469,15.74071 18.768367,14.741278 19,13.648068 19,12.4995 19,7.805079 15.19442,3.9994995 10.5,3.9994995 Z"/>
 <circle style="opacity:0.2" cx="7" cy="10.5" r="1"/>
 <circle style="fill:#8b9cbe" cx="7" cy="10" r="1"/>
 <path style="opacity:0.1;fill:#8b9cbe;fill-rule:evenodd" d="m 10.5,3.999028 c -4.6944206,0 -8.5000001,3.8055795 -8.5000001,8.5 0,0.03199 0.00453,0.06283 0.00489,0.09473 -4.02e-4,0.03352 -0.00489,0.066 -0.00489,0.09961 0,0.05783 0.00564,0.114328 0.00684,0.171875 C 2.0790913,8.2331895 5.8507444,4.499028 10.5,4.499028 c 4.610025,0 8.353859,3.6722845 8.487304,8.25 0.0025,-0.08378 0.0127,-0.165603 0.0127,-0.25 0,-4.6944205 -3.80558,-8.5 -8.5,-8.5 z m 7.971679,11.916016 c -0.03965,0.108033 -0.07243,0.219225 -0.11621,0.325195 1.026993,1.491551 2.719812,4.118173 3.092773,5.209961 0.0063,0.0021 0.01525,0.0058 0.02148,0.0078 0.01769,-0.0092 0.03212,-0.01955 0.04199,-0.03223 0.30817,-0.395335 -1.78552,-3.675889 -3.04004,-5.510742 z"/>
</svg>
