<svg xmlns="http://www.w3.org/2000/svg" width="24" height="24" version="1.1">
 <path style="opacity:0.2" d="M 10,17.5 H 14 L 18,19.5 C 18,19.5 19,18.5 21,18.5 22,19.5 22,20.5 22,20.5 L 19,21.5 H 15 L 12,19.5 9,21.5 H 5 L 2,20.5 C 2,20.5 2,18.5 3,18.5 5,18.5 6,19.5 6,19.5 Z"/>
 <path style="fill:#f77d00" d="M 6,17 H 18 L 19,19 C 19,19 20,18 21,18 22,18 22,20 22,20 L 19,21 H 15 L 12,19 9,21 H 5 L 2,20 C 2,20 2,18 3,18 4,18 5,19 5,19 Z"/>
 <path style="opacity:0.2" d="M 14,22.5 H 20 C 20,20.5 17.66,19.65 16,19.5 14.515,19.366 12,21.5 12,21.5 12,21.5 8.7584,19.139 7,19.5 5.6147,19.784 4,20.5 4,22.5 H 10 L 12,21.5 Z"/>
 <path style="fill:#eab108" d="M 14,22 H 20 C 20,20 17.66,19.15 16,19 14.515,18.866 12,21 12,21 12,21 8.7584,18.639 7,19 5.6147,19.284 4,20 4,22 H 10 L 12,21 Z"/>
 <path style="opacity:0.2;fill:#8b9cbe" d="M 6,17 5,19 C 5,19 4,18 3,18 2,18 2,20 2,20 L 2.043,20.014 C 2.1103,19.423 2.3132,18.5 3,18.5 4,18.5 5,19.5 5,19.5 L 6,17.5 H 18 L 19,19.5 C 19,19.5 20,18.5 21,18.5 21.687,18.5 21.89,19.423 21.957,20.014 L 22,20 C 22,20 22,18 21,18 20,18 19,19 19,19 L 18,17 Z"/>
 <path style="opacity:0.2;fill:#8b9cbe" d="M 7.3457,18.963 C 7.2254,18.965 7.1099,18.977 7,19 5.6147,19.284 4,20 4,22 H 4.0527 C 4.3046,20.386 5.7399,19.759 7,19.5 8.4089,19.211 10.693,20.62 11.576,21.211 L 12,21 C 12,21 9.1507,18.925 7.3457,18.963 Z M 12,21 12.385,21.193 C 13.133,20.616 14.858,19.397 16,19.5 17.513,19.636 19.586,20.358 19.941,22 H 20 C 20,20 17.66,19.15 16,19 14.515,18.866 12,21 12,21 Z"/>
 <path style="opacity:0.2" d="M 5,10.5 C 5,10.5 4,9.5 3,7.5 3,7.0689 3,6.5 4,6.5 7,8.5 11,10.5 11,10.5 H 13 C 13,10.5 17,8.5 20,6.5 20.467,6.5626 21,7.0615 21,7.5 20,9.5 19,10.5 19,10.5 L 12,11.5 Z"/>
 <path style="fill:#4f4f4f" d="M 5,10 C 5,10 4,9 3,7 3,6.5689 3,6 4,6 7,8 11,10 11,10 H 13 C 13,10 17,8 20,6 20.467,6.0626 21,6.5615 21,7 20,9 19,10 19,10 L 12,11 Z"/>
 <path style="opacity:0.1;fill:#8b9cbe" d="M 4,6 C 3,6 3,6.5689 3,7 3.0148,7.0296 3.0282,7.0489 3.043,7.0781 3.1108,6.7711 3.3145,6.5 4,6.5 7,8.5 11,10.5 11,10.5 H 13 C 13,10.5 17,8.5 20,6.5 20.349,6.5468 20.735,6.8373 20.908,7.1641 20.939,7.1035 20.969,7.0625 21,7 21,6.5615 20.467,6.0626 20,6 17,8 13,10 13,10 H 11 C 11,10 7,8 4,6 Z"/>
 <path style="opacity:0.2" d="M 12,1.5 C 9.9118,1.5 8,3.284 8,5.5 8,7.9583 7.2744,9.3259 6.5371,10.5 H 2 V 11.5 C 3,12.5 4,12.5 4,12.5 5,12.5 5,13.715 5,14.5 5,18.366 8.134,21.5 12,21.5 15.866,21.5 19,18.366 19,14.5 19,13.715 18.843,13.085 18.609,12.518 18.609,12.518 21,12.5 22,11.5 V 10.5 H 17.463 C 16.726,9.3259 16,7.9583 16,5.5 16,3.284 14.088,1.5 12,1.5 Z"/>
 <path style="fill:#cbcbcb" d="M 12,1 C 9.9118,1 8,2.784 8,5 8,7.4583 7.2744,8.8259 6.5371,10 H 2 V 11 C 3,12 4,12 4,12 5,12 5,13.215 5,14 5,17.866 8.134,21 12,21 15.866,21 19,17.866 19,14 19,13.215 18.843,12.585 18.609,12.018 18.609,12.018 21,12 22,11 V 10 H 17.463 C 16.726,8.8259 16,7.4583 16,5 16,2.784 14.088,1 12,1 Z"/>
 <path style="opacity:0.1" d="M 12,7.4999 C 10.807,7.4999 10,8.5703 10,9.8999 10,12.9 8.0001,13.2 8.0001,15.3 8.0001,17.619 9.7909,19.5 12,19.5 14.209,19.5 16,17.619 16,15.3 16,13.2 14,12.9 14,9.8999 14,8.5703 13.193,7.4999 12,7.4999 Z"/>
 <path style="fill:#8b9cbe" d="M 12,7 C 10.807,7 10,8.0704 10,9.4 10,12.4 8.0001,12.7 8.0001,14.8 8.0001,17.119 9.7909,19 12,19 14.209,19 16,17.119 16,14.8 16,12.7 14,12.4 14,9.4 14,8.0704 13.193,7 12,7 Z"/>
 <circle style="opacity:0.1" cx="10.5" cy="6" r="1.5"/>
 <circle style="fill:#8b9cbe" cx="10.5" cy="5.5" r="1.5"/>
 <circle style="fill:#8b9cbe" cx="10.5" cy="5.5" r=".5"/>
 <circle style="opacity:0.1" cx="13.5" cy="6" r="1.5"/>
 <circle style="fill:#8b9cbe" cx="13.5" cy="5.5" r="1.5"/>
 <path style="opacity:0.1" d="M 14,7.6997 C 14,9.0803 13.105,10.5 12,10.5 10.895,10.5 10,9.0803 10,7.6997 Z"/>
 <path style="fill:#f77d00" d="M 14,7.1997 C 14,8.5803 13.105,9.9997 12,9.9997 10.895,9.9997 10,8.5803 10,7.1997 Z"/>
 <circle style="fill:#8b9cbe" cx="13.5" cy="5.5" r=".5"/>
 <path style="fill:#eab108" d="M 14,7.2501 C 14,7.5 13.105,9 12,9 10.895,9 10,7.5 10,7.2501 10,6.5597 10.895,6.0001 12,6.0001 13.105,6.0001 14,6.5597 14,7.2501 Z"/>
 <path style="opacity:0.2;fill:#8b9cbe" d="M 12,1 C 9.9118,1 8,2.784 8,5 8,7.4583 7.2744,8.8259 6.5371,10 H 2 V 10.5 H 6.5371 C 7.2744,9.3259 8,7.9583 8,5.5 8,3.284 9.9118,1.5 12,1.5 14.088,1.5 16,3.284 16,5.5 16,7.9583 16.726,9.3259 17.463,10.5 H 22 V 10 H 17.463 C 16.726,8.8259 16,7.4583 16,5 16,2.784 14.088,1 12,1 Z M 18.764,12.51 C 18.72,12.511 18.609,12.518 18.609,12.518 18.817,13.02 18.957,13.578 18.988,14.242 18.991,14.161 19,14.082 19,14 19,13.427 18.9,12.953 18.764,12.51 Z"/>
</svg>
