<svg xmlns="http://www.w3.org/2000/svg" width="24" height="24" version="1.1">
 <path style="opacity:0.2" d="M 7.4418,22.5 C 6.8348,22.5 6.09,22.062 5.7869,21.527 L 1.2273,13.473 C 0.92423,12.938 0.92423,12.062 1.2273,11.527 L 5.7869,3.4735 C 6.09,2.9381 6.8348,2.5 7.4418,2.5 H 16.558 C 17.165,2.5 17.91,2.9381 18.213,3.4735 L 22.773,11.527 C 23.076,12.062 23.076,12.938 22.773,13.473 L 18.213,21.527 C 17.91,22.062 17.165,22.5 16.558,22.5 Z"/>
 <path style="fill:#0d597f" d="M 7.4418,22 C 6.8348,22 6.09,21.562 5.7869,21.027 L 1.2273,12.973 C 0.92423,12.438 0.92423,11.562 1.2273,11.027 L 5.7869,2.9735 C 6.09,2.4381 6.8348,2 7.4418,2 H 16.558 C 17.165,2 17.91,2.4381 18.213,2.9735 L 22.773,11.027 C 23.076,11.562 23.076,12.438 22.773,12.973 L 18.213,21.027 C 17.91,21.562 17.165,22 16.558,22 Z"/>
 <path style="opacity:0.1;fill:#8b9cbe" d="M 7.4414,2 C 6.8344,2 6.0902,2.4382 5.7871,2.9736 L 1.2275,11.026 C 1.0401,11.358 0.96924,11.819 1.0137,12.25 1.0411,11.984 1.1119,11.731 1.2275,11.526 L 5.7871,3.4736 C 6.0902,2.9382 6.8344,2.5 7.4414,2.5 H 16.559 C 17.166,2.5 17.91,2.9382 18.213,3.4736 L 22.772,11.526 C 22.888,11.731 22.959,11.984 22.986,12.25 23.031,11.819 22.96,11.358 22.772,11.026 L 18.213,2.9736 C 17.91,2.4382 17.166,2 16.559,2 Z"/>
 <path style="opacity:0.2" d="M 10,8.5 3,15.5 H 6 L 10,11.5 14,15.5 H 17 L 14.5,13 15,12.5 18,15.5 H 21 L 15,9.5 13,11.5 Z M 9,13.5 7,15.5 H 9 Z"/>
 <path style="fill:#8b9cbe" d="M 10,8 3,15 H 6 L 10,11 14,15 H 17 L 14.5,12.5 15,12 18,15 H 21 L 15,9 13,11 Z M 9,13 7,15 H 9 Z"/>
</svg>
