<svg xmlns="http://www.w3.org/2000/svg" width="24" height="24" version="1.1">
 <circle style="opacity:0.2" cx="12" cy="12.5" r="10"/>
 <circle style="fill:#ff6600" cx="12" cy="12" r="10"/>
 <circle style="opacity:0.2" cx="12" cy="12.5" r="8"/>
 <circle style="fill:#8b9cbe" cx="12" cy="12" r="8"/>
 <path style="opacity:0.2;fill:#8b9cbe" d="M 12,2 A 10,10 0 0 0 2,12 10,10 0 0 0 2.01075,12.291 10,10 0 0 1 12,2.5 10,10 0 0 1 21.9895,12.209 10,10 0 0 0 22,12 10,10 0 0 0 12,2 Z"/>
 <g style="opacity:0.1" transform="matrix(0.12015865,0,0,0.12063024,-2.1318614,15.900993)">
  <path d="M 186.56017,45.31822 C 169.54353,30.824731 163.17243,22.126838 145.15565,8.8368253 c -3.15476,-1.30232 -3.71374,0.4277158 -7.5,2.6193857 -14.60684,8.45511 -17.35822,10.00604 -24.55233,10.00604 -6.12314,0 -7.87129,-0.45849 -13.972463,-3.66457 -3.835524,-2.01551 -7.630332,-4.60301 -8.432907,-5.75 -4.845162,-6.9243999 -6.606738,-9.82066 -9.895054,-16.2687799 -2.014792,-3.95084 -3.912143,-9.1258371 -4.216334,-11.4999971 -0.304192,-2.374159 -1.347466,-5.902078 -2.318387,-7.839821 -0.970921,-1.937742 -2.965576,-8.237742 -4.432568,-14 -2.102127,-8.257033 -2.534088,-13.414109 -2.038735,-18.171115 0.794682,-7.631544 -1.564088,-10.549938 -7.518205,-16.469331 -5.565005,-5.53255 -21.886299,-26.920684 -24.671105,-33.095537 -2.389232,-5.29773 -0.99227,-8.04207 1.781969,-3.50068 8.639069,14.142021 23.203099,31.068518 30.319588,35.239059 4.202392,2.462765 4.568877,1.67543 11.215999,0.487523 11.74418,-2.098802 31.583842,0.235823 37.779162,4.44565 2.10345,1.429331 4.40624,2.598784 5.1173,2.598784 0.71107,0 3.85351,0.9 6.98321,2 3.1297,1.1 6.76294,2 8.07388,2 3.55807,0 10.19313,2.680076 11.9233,5.531551 0.84105,1.386124 3.733,3.971076 6.42656,5.744338 3.96438,2.609893 5.61121,4.65292 8.64442,10.724111 4.24734,8.501356 4.49647,11.311387 2.26472,18.826489 -1.19912,4.037863 -2.91362,6.670709 -6.95425,10.679196 -7.01133,6.9555343 -9.53501,10.67067427 -5.48552,16.5249643 4.72019,6.8238797 15.06282,16.3700447 31.0052,30.4755747 8.23928,7.28998 15.23856,13.92696 15.55396,14.74887 2.38354,6.21142 -2.71278,4.01232 -13.69689,-5.91031 z"/>
 </g>
 <g transform="matrix(0.12015865,0,0,0.12063024,-2.1318614,15.400993)">
  <path style="fill:#5a860b" d="M 186.56017,45.31822 C 169.54353,30.824731 163.17243,22.126838 145.15565,8.8368253 c -3.15476,-1.30232 -3.71374,0.4277158 -7.5,2.6193857 -14.60684,8.45511 -17.35822,10.00604 -24.55233,10.00604 -6.12314,0 -7.87129,-0.45849 -13.972463,-3.66457 -3.835524,-2.01551 -7.630332,-4.60301 -8.432907,-5.75 -4.845162,-6.9243999 -6.606738,-9.82066 -9.895054,-16.2687799 -2.014792,-3.95084 -3.912143,-9.1258371 -4.216334,-11.4999971 -0.304192,-2.374159 -1.347466,-5.902078 -2.318387,-7.839821 -0.970921,-1.937742 -2.965576,-8.237742 -4.432568,-14 -2.102127,-8.257033 -2.534088,-13.414109 -2.038735,-18.171115 0.794682,-7.631544 -1.564088,-10.549938 -7.518205,-16.469331 -5.565005,-5.53255 -21.886299,-26.920684 -24.671105,-33.095537 -2.389232,-5.29773 -0.99227,-8.04207 1.781969,-3.50068 8.639069,14.142021 23.203099,31.068518 30.319588,35.239059 4.202392,2.462765 4.568877,1.67543 11.215999,0.487523 11.74418,-2.098802 31.583842,0.235823 37.779162,4.44565 2.10345,1.429331 4.40624,2.598784 5.1173,2.598784 0.71107,0 3.85351,0.9 6.98321,2 3.1297,1.1 6.76294,2 8.07388,2 3.55807,0 10.19313,2.680076 11.9233,5.531551 0.84105,1.386124 3.733,3.971076 6.42656,5.744338 3.96438,2.609893 5.61121,4.65292 8.64442,10.724111 4.24734,8.501356 4.49647,11.311387 2.26472,18.826489 -1.19912,4.037863 -2.91362,6.670709 -6.95425,10.679196 -7.01133,6.9555343 -9.53501,10.67067427 -5.48552,16.5249643 4.72019,6.8238797 15.06282,16.3700447 31.0052,30.4755747 8.23928,7.28998 15.23856,13.92696 15.55396,14.74887 2.38354,6.21142 -2.71278,4.01232 -13.69689,-5.91031 z"/>
 </g>
</svg>
