<svg xmlns="http://www.w3.org/2000/svg" width="24" height="24" version="1.1">
 <circle style="fill:#7ea043" cx="12" cy="12" r="10"/>
 <path style="opacity:0.2;fill:#8b9cbe" d="m 12,2 a 10,10 0 0 0 -10,10 10,10 0 0 0 0.01075,0.291 10,10 0 0 1 9.989,-9.791 10,10 0 0 1 9.9895,9.709 10,10 0 0 0 0.0105,-0.209 10,10 0 0 0 -10,-10 z"/>
 <path style="opacity:0.2" d="M 21.9895,12.209 A 10,10 0 0 1 12,22 10,10 0 0 1 2.011,12.291 10,10 0 0 0 2,12.5 a 10,10 0 0 0 10,10 10,10 0 0 0 10,-10 10,10 0 0 0 -0.011,-0.291 z"/>
 <path style="opacity:0.2" d="m 13,5.5 v 5 L 17,8 Z m -1,1 A 6,6 0 0 0 6.6269531,9.8378906 L 7.4824219,10.373047 A 5,5 0 0 1 12,7.5 Z m 0,2 a 4,4 0 0 0 -3.6640625,2.40625 l 0.859375,0.537109 A 3,3 0 0 1 12,9.5 Z m 4.994141,0.6816406 -0.84961,0.53125 A 5,5 0 0 1 17,12.5 5,5 0 0 1 16.148438,15.289062 l 0.845703,0.529297 A 6,6 0 0 0 18,12.5 6,6 0 0 0 16.994141,9.1816406 Z M 5,10 v 5 l 4,-2.5 z m 10.300781,0.240234 -0.851562,0.533204 A 3,3 0 0 1 15,12.5 3,3 0 0 1 14.451172,14.228516 l 0.845703,0.529296 A 4,4 0 0 0 16,12.5 4,4 0 0 0 15.300781,10.240234 Z m -6.1074216,3.31836 -0.859375,0.537109 A 4,4 0 0 0 12,16.5 v -1 A 3,3 0 0 1 9.1933594,13.558594 Z M 13,14.5 v 5 L 17,17 Z M 7.4824219,14.626953 6.6308594,15.160156 A 6,6 0 0 0 12,18.5 v -1 A 5,5 0 0 1 7.4824219,14.626953 Z"/>
 <path style="fill:#8b9cbe" d="M 13 5 L 13 10 L 17 7.5 L 13 5 z M 12 6 A 6 6 0 0 0 6.6269531 9.3378906 L 7.4824219 9.8730469 A 5 5 0 0 1 12 7 L 12 6 z M 12 8 A 4 4 0 0 0 8.3359375 10.40625 L 9.1953125 10.943359 A 3 3 0 0 1 12 9 L 12 8 z M 16.994141 8.6816406 L 16.144531 9.2128906 A 5 5 0 0 1 17 12 A 5 5 0 0 1 16.148438 14.789062 L 16.994141 15.318359 A 6 6 0 0 0 18 12 A 6 6 0 0 0 16.994141 8.6816406 z M 5 9.5 L 5 14.5 L 9 12 L 5 9.5 z M 15.300781 9.7402344 L 14.449219 10.273438 A 3 3 0 0 1 15 12 A 3 3 0 0 1 14.451172 13.728516 L 15.296875 14.257812 A 4 4 0 0 0 16 12 A 4 4 0 0 0 15.300781 9.7402344 z M 9.1933594 13.058594 L 8.3339844 13.595703 A 4 4 0 0 0 12 16 L 12 15 A 3 3 0 0 1 9.1933594 13.058594 z M 13 14 L 13 19 L 17 16.5 L 13 14 z M 7.4824219 14.126953 L 6.6308594 14.660156 A 6 6 0 0 0 12 18 L 12 17 A 5 5 0 0 1 7.4824219 14.126953 z"/>
</svg>
