<svg xmlns="http://www.w3.org/2000/svg" width="24" height="24" version="1.1">
 <circle style="opacity:0.2" cx="12.5" cy="12" r="10.5"/>
 <circle style="fill:#448aff" cx="12.5" cy="11.5" r="10.5"/>
 <path style="opacity:0.2" d="M 12,5.5213985 C 8.8073935,5.770198 6.2716485,8.307186 6.024414,11.499914 h 4.541992 C 10.748402,10.796928 11.297138,10.247818 12,10.065344 Z m 1,0.00295 V 10.06634 c 0.702987,0.181977 1.252095,0.730732 1.434571,1.433594 h 4.543944 C 18.729716,8.3073075 16.192728,5.7715625 13,5.524328 Z m 1.810547,6.6650395 -2.121094,2.121094 3.5,3.5 2.121094,-2.121094 z M 6.0214845,12.499914 C 6.270284,15.692521 8.807272,18.228265 12,18.4755 v -4.541992 c -0.702986,-0.181997 -1.252095,-0.730731 -1.43457,-1.433594 z"/>
 <path style="fill:#8b9cbe" d="M 12,5.0214845 C 8.8073935,5.270284 6.2716485,7.807272 6.024414,11 h 4.541992 C 10.748402,10.297014 11.297138,9.7479046 12,9.56543 Z m 1,0.00295 V 9.566426 C 13.702987,9.7484016 14.252095,10.297138 14.434571,11 h 4.543944 C 18.729716,7.8073935 16.192728,5.2716485 13,5.024414 Z M 6.0214845,12 C 6.270284,15.192607 8.807272,17.728351 12,17.975586 V 13.433594 C 11.297014,13.251598 10.747905,12.702863 10.56543,12 Z"/>
 <path style="fill:none;stroke:#8b9cbe;stroke-width:3" d="m 13.75,12.75 3.5,3.5"/>
 <path style="fill:#8b9cbe;opacity:0.2" d="M 12.5 1 A 10.5 10.5 0 0 0 2 11.5 A 10.5 10.5 0 0 0 2.0097656 11.796875 A 10.5 10.5 0 0 1 12.5 1.5 A 10.5 10.5 0 0 1 22.990234 11.703125 A 10.5 10.5 0 0 0 23 11.5 A 10.5 10.5 0 0 0 12.5 1 z"/>
</svg>
