<svg width="24" height="24" version="1.1" xmlns="http://www.w3.org/2000/svg">
 <rect x="2" y="2.5" width="20" height="20" rx="2" ry="2" style="opacity:.2"/>
 <rect x="2" y="2" width="20" height="20" rx="2" ry="2" style="fill:#24b8eb"/>
 <path d="m4 2c-1.108 0-2 0.892-2 2v0.5c0-1.108 0.892-2 2-2h16c1.108 0 2 0.892 2 2v-0.5c0-1.108-0.892-2-2-2z" style="fill:#8b9cbe;opacity:.2"/>
 <path d="m5 4.5c-0.554 0-1 0.446-1 1v7c0 0.554 0.446 1 1 1h13v5h-5v-4h-2v5c0 0.554 0.446 1 1 1h7c0.554 0 1-0.446 1-1v-7c0-0.554-0.446-1-1-1h-13v-5h5v4h2v-5c0-0.554-0.446-1-1-1z" style="opacity:.2"/>
 <path d="m5 4c-0.554 0-1 0.446-1 1v7c0 0.554 0.446 1 1 1h13v5h-5v-4h-2v5c0 0.554 0.446 1 1 1h7c0.554 0 1-0.446 1-1v-7c0-0.554-0.446-1-1-1h-13v-5h5v4h2v-5c0-0.554-0.446-1-1-1z" style="fill:#17191e"/>
</svg>
