<svg width="24" height="24" version="1.1" xmlns="http://www.w3.org/2000/svg">
 <rect x="2" y="2.5" width="20" height="20" rx="1" ry="1" style="opacity:.2"/>
 <rect x="2" y="2" width="20" height="20" rx="1" ry="1" style="fill:#aeea66"/>
 <path d="M 2.2089844,2.4179688 C 2.0870339,2.5837173 2,2.7775346 2,3 v 18 c 0,0.554 0.446,1 1,1 h 9 z" style="fill:#f8d057"/>
 <path d="m21.791016 2.4179688-9.791016 19.582031h9c0.554 0 1-0.446 1-1v-18c0-0.2224654-0.087034-0.4162827-0.208984-0.5820312z" style="fill:#3195d2"/>
 <path d="m3 2c-0.554 0-1 0.446-1 1v0.5c0-0.554 0.446-1 1-1h18c0.554 0 1 0.446 1 1v-0.5c0-0.554-0.446-1-1-1z" style="fill:#8b9cbe;opacity:.2"/>
 <path d="m2.22734 2.8769533c-0.01042 0.012782-0.01756 0.027716-0.02734 0.041016l9.791012 19.582031 9.791016-19.582031c-0.0098-0.0133-0.01693-0.028233-0.02734-0.041016l-9.763676 15.623047z" style="opacity:.2"/>
 <path d="M 2.2273437,2.3769531 C 2.2169254,2.3897354 2.2097853,2.404669 2.2,2.4179688 L 11.991016,22 21.782032,2.4179688 c -0.0098,-0.0133 -0.01693,-0.028233 -0.02734,-0.041016 L 11.991016,18 Z" style="fill:#8b9cbe"/>
</svg>
