<svg xmlns="http://www.w3.org/2000/svg" width="24" height="24" version="1.1">
 <circle style="opacity:0.2" cx="12" cy="12.5" r="10"/>
 <circle style="fill:#2d4a5e" cx="12" cy="12" r="9.75"/>
 <path style="fill:#bcdced" d="m 14.341709,10.959834 c 0,5.522848 2.514888,1.168829 -3.007959,1.168829 -5.522848,0 -8.67018,5.228292 -8.67018,-0.294555 0,-0.353367 -0.6452414,-0.536561 -0.6094831,-0.880468 C 2.5040118,6.6264715 5.713355,3.1193311 9.891684,2.2226514 10.571384,2.0767862 11.276725,2.530856 12,2.530856 c 5.522847,0 2.341709,2.9061305 2.341709,8.428978 z"/>
 <path style="fill:#65a3cf" d="M 12,2 C 11.397619,2.00441 10.79687,2.063244 10.205078,2.1757813 L 13.109375,7.2158205 17.952148,3.991211 C 16.233203,2.7059063 14.146328,2.0077703 12,2 Z"/>
 <path style="fill:#6d8da4" d="m 13.931641,16.541015 -2.004883,5.455079 -0.05957,-0.0029 v 0.001 A 10,10 0 0 0 12,22 10,10 0 0 0 19.21289,18.909179 Z"/>
 <path style="fill:#426f8e" d="m 10.365235,18.745117 -2.1181645,2.515625 a 10,10 0 0 0 3.1035155,0.709961 v -0.003 l -0.07715,-0.0039 z"/>
 <path style="opacity:0.7;fill:#ff0000" d="m 19.21289,18.909179 h 10e-4 a 10,10 0 0 0 0.186523,-0.200195 10,10 0 0 1 -0.1875,0.200195 z"/>
 <path style="opacity:0.7;fill:#ff0000" d="M 7.6933595,21.010742 A 10,10 0 0 0 8.229492,21.253906 10,10 0 0 1 7.6933595,21.010742 Z"/>
 <path style="opacity:0.7;fill:#1b5e99" d="M 17.959961,3.9853515 2.305664,14.41211 a 10,10 0 0 0 0.1708985,0.601562 L 21.273437,15.723633 A 10,10 0 0 0 22,12 10,10 0 0 0 17.959961,3.9853515 Z"/>
 <path style="fill:#81bde3" d="M 6.738281,3.5039063 C 6.5543185,3.6203901 6.3742095,3.7428512 6.198242,3.8710938 l 2.3808595,8.4882812 0.720703,-6.8046875 z"/>
 <path style="fill:#316f9f;fill-opacity:0" d="m 17.920898,3.9560547 -4.804687,3.2714843 2.587891,4.490235 2.713867,-7.3847662 C 18.256239,4.2022179 18.090468,4.0765057 17.920898,3.9560547 Z"/>
 <path style="fill:#4f96cb" d="m 10.200196,2.1679688 a 10,10 0 0 0 -0.555665,0.125 L 9.2998045,5.5546875 12.18164,7.863281 13.116211,7.227539 Z"/>
 <path style="fill:#5687a5" d="m 15.704102,11.717774 -1.772461,4.823241 5.282226,2.368164 a 10,10 0 0 0 0.391602,-0.420898 z"/>
 <path style="opacity:0.7;fill:#3885c0" d="M 8.5791015,12.359375 7.665039,20.998047 a 10,10 0 0 0 0.581055,0.263672 l 2.123047,-2.521485 z"/>
 <path style="fill:#224c6d" d="m 20.49707,6.739258 -3.217773,0.6904295 v 0.001 L 14.915039,13.864282 20.805664,7.278344 C 20.708406,7.0955045 20.605492,6.91573 20.49707,6.7392815 Z"/>
 <path style="fill:#29628f" d="m 8.373047,14.019531 -0.7890625,6.938477 c 0.2295495,0.115082 0.463447,0.221281 0.7011715,0.318359 l 2.124023,-2.375 -1.2851555,-4.55664 z"/>
 <path style="fill:#438ec5" d="M 9.2998045,5.5546875 8.911133,9.2265625 10.652344,8.852539 12.16211,7.847656 Z"/>
 <path style="fill:#2f6c9f" d="m 13.116211,7.227539 -0.93457,0.635742 -0.01953,-0.015625 -1.509766,1.004883 3.026367,-0.649414 z"/>
 <path style="fill:#316e9e" d="M 13.678711,8.203125 17.328125,7.419922 18.449219,4.368164 C 18.287489,4.2373741 18.121718,4.1116619 17.952148,3.991211 l -4.812499,3.276367 z"/>
 <path style="fill:#4c7da1" d="m 18.405273,4.3486328 -1.132812,3.0830077 3.209961,-0.689453 C 19.921671,5.8389965 19.220485,5.0310005 18.405273,4.3486328 Z"/>
 <path style="opacity:0.7;fill:#ff00ff" d="m 20.796875,7.2666015 c 0,0 0.0069,0.01378 0,0 z"/>
 <path style="fill:#4c7798" d="m 2.0732422,11.289063 c -0.020876,0.241993 -0.032928,0.484667 -0.036133,0.727539 0.00447,0.800815 0.105132,1.598194 0.2998047,2.375 L 5.0546875,12.581055 2.2050781,11.345703 Z"/>
 <path style="fill:#71848e" d="m 17.939453,15.597656 1.666016,2.890625 a 10,10 0 0 0 1.667968,-2.764648 z"/>
 <path style="fill:#35576f" d="m 20.802734,7.279297 -5.89746,6.592774 -0.583985,1.588867 6.952148,0.262695 C 21.751012,14.540155 21.997637,13.276202 22,12 21.99605,10.351811 21.584756,8.7301535 20.802734,7.279297 Z"/>
 <path style="fill:#285477" d="M 5.064453,12.574219 2.3056641,14.41211 c 0.050681,0.202253 0.1076747,0.402872 0.1708984,0.601562 l 5.756836,0.217774 0.140625,-1.234375 z"/>
 <path style="fill:#265679" d="m 16.146484,12.485352 -1.229492,1.373047 -0.588867,1.602539 3.611328,0.136718 z"/>
 <path style="fill:#4f82a6" d="m 2.368164,14.632813 c -0.00434,0.0031 -0.00737,0.0057 -0.011719,0.0088 0.7599311,2.756628 2.664324,5.052615 5.227539,6.313477 l 0.65332,-5.739258 h -0.00195 l -0.00195,0.01563 -5.756842,-0.217774 C 2.436529,14.887861 2.4031808,14.760096 2.368164,14.632813 Z m 5.2597655,6.344726 c 0.012605,0.0061 0.024475,0.01346 0.03711,0.01953 4.7e-5,-7e-4 -4.65e-5,-0.0012 0,-0.002 -0.01229,-0.006 -0.02484,-0.0115 -0.03711,-0.01758 z"/>
 <path style="fill:#20476a" d="m 8.373047,14.019531 -0.1357425,1.19043 1.1425785,0.04297 -0.2558595,-0.908203 z"/>
 <path style="fill:#1d4568" d="m 15.704102,11.717774 -0.789063,2.146484 1.231445,-1.376953 z"/>
 <path style="fill:#204a6c" d="m 15.994141,10.928711 -1.079102,2.935547 1.979492,-2.212891 z"/>
 <path style="fill:#2c5774" d="m 16.892578,11.650391 -0.746094,0.834961 1.792969,3.112304 0.863281,0.03222 2.454102,0.09277 c 0.03248,-0.07383 0.06405,-0.148058 0.09473,-0.222656 0.02661,-0.07074 0.04924,-0.142608 0.07422,-0.213867 z"/>
 <path style="fill:#2e639c" d="m 12.157227,7.850586 -1.504883,1.001953 2.171875,-0.46582 z"/>
 <path style="fill:#1d4568" d="m 15.704102,11.717774 -0.789063,2.145507 1.232422,-1.376953 z"/>
 <path style="opacity:0.2;fill:#8b9cbe" d="M 12,2 A 10,10 0 0 0 2,12 10,10 0 0 0 2.01075,12.291 10,10 0 0 1 12,2.5 10,10 0 0 1 21.9895,12.209 10,10 0 0 0 22,12 10,10 0 0 0 12,2 Z"/>
 <path style="fill:#343f4b" d="M 17.279297,7.4296875 2.1679688,10.674805 2.0966797,10.69043 c -0.025856,0.193378 -0.046047,0.387472 -0.060547,0.582031 l 7.0878907,3.072266 2.1494146,7.61914 0.65332,0.03223 z"/>
 <path style="opacity:0.2" d="M 10.285336,13.849756 5.619411,11.606623 15.288587,9.621845 11.771115,18.947 Z"/>
 <path style="fill:#8b9cbe" d="M 10.285336,13.349702 5.619411,11.106569 15.288587,9.121791 11.771115,18.446946 Z"/>
</svg>
