<svg xmlns="http://www.w3.org/2000/svg" height="24" width="24" version="1.1">
 <g transform="translate(1,1)">
  <circle cx="11" cy="11.5" r="10" style="opacity:.2"/>
  <circle cx="11" cy="11" r="10" style="fill:#acaeb5"/>
  <path style="opacity:.2" d="m7 1.5c-1.25 0-2 0-5 2 4-1 6.7978979 1.4543355 10.308594 5.2363281-4.8039108 5.1839489-11.308594 12.763672-11.308594 12.763672h5l7.983399-10.64209c1.910862 2.774422 3.016601 5.64209 3.016601 10.64209h3c0-4-2.266401-8.333799-4.773926-12.299805l2.023926-2.700195s1.5-1.25 2.75 0c0-1.25 1-2 1-2h-4c-0.33408 0-1.428181 0.7906763-3.177735 2.6225586-2.384085-3.2708428-4.822265-5.6225586-6.822265-5.6225586z"/>
  <path d="m7 1c-1.25 0-2 0-5 2 4-1 6.7978979 1.4543355 10.308594 5.2363281-4.8039108 5.1839489-11.308594 12.763672-11.308594 12.763672h5l7.983399-10.64209c1.910862 2.774422 3.016601 5.64209 3.016601 10.64209h3c0-4-2.266401-8.333799-4.773926-12.299805l2.023926-2.700195s1.5-1.25 2.75 0c0-1.25 1-2 1-2h-4c-0.33408 0-1.428181 0.7906763-3.177735 2.6225586-2.384085-3.2708428-4.822265-5.6225586-6.822265-5.6225586z" style="fill:#b2bfd9"/>
  <path style="opacity:.1;fill:#8b9cbe" d="m11 1a10 10 0 0 0 -10 10 10 10 0 0 0 0.01075 0.291 10 10 0 0 1 9.98925 -9.791 10 10 0 0 1 9.9895 9.709 10 10 0 0 0 0.0105 -0.209 10 10 0 0 0 -10 -10z"/>
  <path style="opacity:.2;fill:#8b9cbe" d="m7 1c-1.25 0-2 0-5 2 0.3804769-0.0951192 0.7470494-0.1491516 1.1074219-0.1835938 2.0403309-1.2372881 2.8274783-1.3164062 3.8925781-1.3164062 2 0 4.438181 2.3522041 6.822266 5.6230469 1.749554-1.8318823 2.843654-2.6230469 3.177734-2.6230469h3.527344c0.239703-0.3181568 0.472656-0.5 0.472656-0.5h-4c-0.33408 0-1.42818 0.7911646-3.177734 2.6230469-2.384085-3.2708428-4.822266-5.6230469-6.822266-5.6230469zm5.076172 7.4921875c-4.7797551 5.1745185-11.076172 12.507812-11.076172 12.507812h0.4335938c0.6666928-0.77564 6.3415698-7.371601 10.875-12.263672-0.079258-0.085382-0.153869-0.1601362-0.232422-0.2441405zm3.318359 0.4824219-0.167969 0.2246094c2.403581 3.8016032 4.579087 7.9412212 4.75586 11.800781h0.017578c0-3.908619-2.167027-8.133926-4.605469-12.025391z"/>
 </g>
</svg>
