<svg xmlns="http://www.w3.org/2000/svg" height="24" width="24" version="1.1">
 <g transform="translate(1,1)">
  <rect style="opacity:.2" rx="1" ry="1" height="20" width="20" y="1.5" x="1"/>
  <rect style="fill:#4f4f4f" rx="1" ry="1" height="20" width="20" y="1" x="1"/>
  <path style="opacity:.2" d="m3 3.5v16h2v-16zm5 0v2l9 4v1h2v-2l-9-4v-1zm9 0v1l-2.375 1.0546875 2.125 0.9453125 2.25-1v-2zm-6.75 4-2.25 1v2h2v-1l2.375-1.0546875zm-0.25 4c-1.108 0-2 0.892-2 2v4c0 1.108 0.892 2 2 2h9v-2h-8c-0.554 0-1-0.446-1-1v-2c0-0.554 0.446-1 1-1h5l-4 3h3l4-3c0-1.108-0.892-2-2-2z"/>
  <path style="fill:#8b9cbe" d="m3 3v16h2v-16zm5 0v2l9 4v1h2v-2l-9-4v-1zm9 0v1l-2.375 1.0546875 2.125 0.9453125 2.25-1v-2zm-6.75 4-2.25 1v2h2v-1l2.375-1.0546875zm-0.25 4c-1.108 0-2 0.892-2 2v4c0 1.108 0.892 2 2 2h9v-2h-8c-0.554 0-1-0.446-1-1v-2c0-0.554 0.446-1 1-1h5l-4 3h3l4-3c0-1.108-0.892-2-2-2z"/>
  <path style="opacity:.1;fill:#8b9cbe" d="m2 1c-0.554 0-1 0.446-1 1v0.5c0-0.554 0.446-1 1-1h18c0.554 0 1 0.446 1 1v-0.5c0-0.554-0.446-1-1-1z"/>
 </g>
</svg>
