<svg xmlns="http://www.w3.org/2000/svg" width="24" height="24" version="1.1">
 <path style="opacity:0.2" d="m 8.8051535,2.5 c -2.338826,0 -4.3005292,0.7590752 -4.3005293,3.0900915 -1e-7,1.086617 0.4151914,2.1972215 1.0919963,3.076396 0.2660575,0.2763675 0.249735,0.4481415 0.16815,0.7698325 -0.144962,0.52566 -0.359588,1.152935 -0.556263,1.614007 -1.3626079,1.311602 -1.6611118,3.634761 -0.4399272,5.141348 0.4820352,0.774543 0.3105377,1.903628 0.9649062,2.671428 0.6525425,0.917997 1.6424415,1.720799 2.79989,1.815514 C 9.3289155,21.782944 10.655726,22.467915 12,22.5 c 1.344274,-0.03208 2.671084,-0.717056 3.466624,-1.821383 1.157447,-0.09472 2.147347,-0.897517 2.79989,-1.815514 0.654368,-0.7678 0.48287,-1.896885 0.964906,-2.671428 1.221185,-1.506587 0.92268,-3.829746 -0.439927,-5.141348 C 18.594818,10.589255 18.380191,9.96198 18.23523,9.43632 18.153644,9.114629 18.137322,8.942855 18.40338,8.6664875 19.080185,7.787313 19.495376,6.6767085 19.495376,5.5900915 19.495376,3.2590752 17.533673,2.5 15.194846,2.5 14.312656,2.5 13,3.2982002 12,3.2982002 11,3.2982002 9.6873435,2.5 8.8051535,2.5 Z"/>
 <path style="fill:#17191e" d="m 8.8051535,2 c -2.338826,0 -4.3005292,0.7590752 -4.3005293,3.0900915 -1e-7,1.086617 0.4151914,2.1972215 1.0919963,3.076396 0.2660575,0.2763675 0.249735,0.4481415 0.16815,0.7698325 -0.144962,0.52566 -0.359588,1.152935 -0.556263,1.614007 -1.3626079,1.311602 -1.6611118,3.634761 -0.4399272,5.141348 0.4820352,0.774543 0.3105377,1.903628 0.9649062,2.671428 0.6525425,0.917997 1.6424415,1.720799 2.79989,1.815514 C 9.3289155,21.282944 10.655726,21.967915 12,22 c 1.344274,-0.03208 2.671084,-0.717056 3.466624,-1.821383 1.157447,-0.09472 2.147347,-0.897517 2.79989,-1.815514 0.654368,-0.7678 0.48287,-1.896885 0.964906,-2.671428 1.221185,-1.506587 0.92268,-3.829746 -0.439927,-5.141348 C 18.594818,10.089255 18.380191,9.46198 18.23523,8.93632 18.153644,8.614629 18.137322,8.442855 18.40338,8.1664875 19.080185,7.287313 19.495376,6.1767085 19.495376,5.0900915 19.495376,2.7590752 17.533673,2 15.194846,2 14.312656,2 13,2.7982002 12,2.7982002 11,2.7982002 9.6873435,2 8.8051535,2 Z"/>
 <path style="opacity:0.2" d="M 9.0703125,4.5004562 C 9.1543185,4.6046322 9.271946,4.7059874 9.147461,4.8256515 8.975885,4.7165699 8.8030145,4.6082638 8.395508,4.5307297 8.4873385,4.6349591 8.676631,4.7390003 8.5615235,4.8432297 8.3460775,4.759455 8.1084925,4.6988587 7.8447265,4.6635422 7.9710115,4.7693046 8.0761755,4.872638 7.972656,4.9545578 7.742105,4.8823507 7.424627,4.7848156 7.114258,4.8686203 L 7.310547,5.069792 c 0.02181,0.02694 -0.459594,0.02164 -0.777344,0.02637 0.115971,0.163996 0.2336965,0.32185 0.3027345,0.6035155 -0.031495,0.032485 -0.1884495,0.01444 -0.336914,0 0.152225,0.326289 0.4168,0.4092 0.4785155,0.548828 -0.092992,0.071705 -0.2222525,0.052651 -0.363281,0.0039 C 6.72386,6.482296 6.954122,6.640068 7.135742,6.8266245 7.089827,6.8598095 7.009276,6.878916 6.819336,6.8559195 6.987125,7.037502 7.189417,7.203713 7.4296875,7.3529895 7.3871425,7.40304 7.241196,7.4013995 7.105469,7.4047475 c 0.217635,0.2168745 0.4982345,0.32883 0.760742,0.470703 -0.130861,0.091014 -0.2249985,0.070586 -0.3251955,0.069336 0.1856675,0.155296 0.501844,0.235359 0.794922,0.3291015 -0.05574,0.088194 -0.112282,0.1129355 -0.2314455,0.1376955 0.3102065,0.174776 0.7545675,0.094279 0.879883,0.1835935 -0.030255,0.08785 -0.115517,0.1456245 -0.2177735,0.1933595 0.499402,0.02952 1.8651385,-0.01894 2.1269535,-1.071289 -0.51124,-0.571821 -1.443603,-1.243275 -3.0488285,-2.0732425 1.248813,0.425542 2.3753015,0.9928495 3.3183595,1.7734375 1.10868,-0.525553 0.344602,-1.850708 -0.196289,-2.3769525 -0.02742,0.138958 -0.05828,0.226047 -0.09375,0.251953 -0.176115,-0.192202 -0.320159,-0.3882893 -0.546875,-0.5732422 -7.5e-4,0.1086275 0.05392,0.2263095 -0.08105,0.3124997 C 10.123582,4.8652275 9.959363,4.7164066 9.741211,4.5903 9.846288,4.7747757 9.758641,4.8312271 9.702146,4.9076828 9.535528,4.7622153 9.377561,4.6145823 9.07031,4.5004562 Z m 6.0654295,0 C 14.82849,4.6145823 14.670525,4.7622153 14.503906,4.9076828 14.447416,4.8312271 14.360744,4.7747756 14.465821,4.5903 14.247669,4.7164066 14.082473,4.8652275 13.960938,5.031706 13.825963,4.9455157 13.88062,4.8278338 13.879883,4.7192062 13.653168,4.9041592 13.5101,5.1002465 13.333985,5.2924485 13.29851,5.2665435 13.266683,5.1794535 13.239258,5.0404955 12.698368,5.56674 11.934288,6.891895 13.042969,7.417448 13.986027,6.63686 15.112515,6.0695525 16.361328,5.6440105 14.756103,6.473978 13.82374,7.145432 13.3125,7.717253 13.574315,8.7696 14.940051,8.818064 15.439453,8.788542 15.337197,8.740807 15.251934,8.683032 15.22168,8.5951825 15.346995,8.505868 15.791356,8.5863675 16.101562,8.411589 15.982399,8.386829 15.926833,8.362089 15.871094,8.2738935 16.164171,8.180151 16.479371,8.100088 16.665039,7.944792 c -0.100198,0.00125 -0.193358,0.02168 -0.324219,-0.069336 0.262508,-0.141873 0.542131,-0.2538285 0.759766,-0.470703 -0.135728,-0.00335 -0.281673,-0.0017 -0.324219,-0.051758 0.240271,-0.1492765 0.442563,-0.3154875 0.610352,-0.49707 -0.18994,0.022995 -0.269516,0.0039 -0.31543,-0.029295 0.181619,-0.1865565 0.410906,-0.3443285 0.520508,-0.574219 -0.141029,0.048745 -0.27029,0.067799 -0.363282,-0.0039 0.06172,-0.139628 0.32629,-0.222539 0.478516,-0.548828 -0.148464,0.01444 -0.305419,0.032485 -0.336914,0 0.06904,-0.2816655 0.186764,-0.4395195 0.302734,-0.6035155 -0.317749,-0.00475 -0.799153,5.5e-4 -0.777343,-0.02637 l 0.196289,-0.2011717 c -0.310369,-0.083805 -0.627848,0.01373 -0.858399,0.085937 -0.103519,-0.08192 0.0017,-0.1852532 0.12793,-0.2910156 -0.263766,0.035317 -0.501351,0.095913 -0.716797,0.1796875 -0.115107,-0.1042294 0.07419,-0.2082706 0.166016,-0.3125 -0.407507,0.077529 -0.579401,0.1858347 -0.750976,0.2949163 -0.124486,-0.1196641 -0.0078,-0.2210193 0.07617,-0.3251953 z M 12.078125,8.835417 c -0.885977,-0.02311 -1.736246,0.6597625 -1.738281,1.055664 -0.0024,0.481051 0.701246,0.972849 1.745117,0.985352 1.066007,0.0077 1.745587,-0.39419 1.749024,-0.8906255 0.0039,-0.56245 -0.969686,-1.1590795 -1.75586,-1.1503905 z M 9.4033205,9.170378 C 8.1731345,9.193343 7.232863,10.046946 7.276367,11.45944 7.325197,12.078305 10.493132,9.304506 9.946289,9.21237 9.7607345,9.18095 9.579061,9.1671 9.4033205,9.17038 Z m 5.1875005,0.046875 c -0.175742,-0.0033 -0.357415,0.01057 -0.542969,0.04199 -0.546843,0.092136 2.621091,2.866912 2.669921,2.248047 0.0435,-1.412494 -0.896767,-2.267076 -2.126952,-2.290039 z m -0.523438,1.723633 a 2.0387884,1.7260841 56.426594 0 0 -0.905273,0.245117 2.0387884,1.7260841 56.426594 1 0 2.243164,3.404297 2.0387884,1.7260841 56.426594 0 0 -1.337891,-3.649414 z m -3.960937,0.09473 a 1.7260841,2.0387884 33.573406 0 0 -1.338868,3.649414 1.7260841,2.0387884 33.573406 1 0 2.244141,-3.404296 1.7260841,2.0387884 33.573406 0 0 -0.905273,-0.245118 z m 6.86328,1.053711 c -0.860265,-0.231162 -0.289716,3.568642 0.410157,3.256836 0.769844,-0.621034 1.017148,-2.439449 -0.410157,-3.256836 z m -9.9394525,0.04687 C 5.602969,12.953584 5.850273,14.772977 6.620117,15.394011 7.3199905,15.705817 7.890539,11.905036 7.0302735,12.136198 Z m 5.1503905,2.446289 a 1.9227955,1.7781355 0 0 0 -1.979492,1.777344 1.9228515,1.7781873 0 0 0 3.845703,0 1.9227955,1.7781355 0 0 0 -1.866211,-1.777344 z m 4.193359,0.66211 c -0.450571,0.01178 -0.987375,0.439316 -1.498046,1.017578 -0.595025,0.698956 -0.926273,1.973126 -0.492188,2.383789 0.415041,0.318981 1.528571,0.275097 2.351562,-0.870118 0.597604,-0.769157 0.397999,-2.053533 0.05664,-2.394531 -0.126769,-0.09834 -0.267778,-0.140644 -0.417968,-0.136718 z m -8.6318355,0.272461 c -0.1613655,-0.0069 -0.3116585,0.02637 -0.444336,0.107422 -0.354879,0.270862 -0.420485,1.192606 0.084961,2.098632 0.7494605,1.079725 1.804084,1.188476 2.2382815,0.925781 0.458954,-0.344117 0.208159,-1.512295 -0.341797,-2.176758 -0.4733475,-0.55081 -1.0530125,-0.934266 -1.5371095,-0.955077 z m 4.3906255,3.182617 c -0.76763,-0.01926 -1.94496,0.308788 -1.930664,0.728515 -0.01228,0.286272 0.923833,1.111628 1.878906,1.070313 0.922219,0.01595 1.875125,-0.80787 1.862305,-1.172852 -0.0021,-0.375852 -1.038089,-0.659786 -1.810547,-0.625976 z"/>
 <g transform="matrix(0.02362443,0,0,0.02369212,5.307333,3.5312871)">
  <path style="fill:#75a928" d="m 107.39184,68.055583 c 67.94767,35.031357 107.44689,63.368967 129.08717,87.504467 -11.08235,44.41759 -68.89638,46.44464 -90.03559,45.19858 4.32842,-2.01474 7.93988,-4.42778 9.22051,-8.13574 -5.30449,-3.76981 -24.11289,-0.39719 -37.24363,-7.77416 5.04407,-1.04499 7.40348,-2.06302 9.76289,-5.78542 -12.40571,-3.9567 -25.76862,-7.36642 -33.627746,-13.92116 4.241253,0.0524 8.201156,0.9488 13.740366,-2.89271 -11.111694,-5.98819 -22.969108,-10.73351 -32.18139,-19.88738 5.745213,-0.14063 11.939452,-0.0568 13.740371,-2.16953 -10.17044,-6.30068 -18.751242,-13.30787 -25.853592,-20.97215 8.039979,0.97052 11.435284,0.13478 13.378782,-1.26556 -7.687795,-7.87419 -17.417559,-14.52319 -22.056911,-24.22644 5.969606,2.057484 11.431249,2.84506 15.36752,-0.180795 -2.612365,-5.893453 -13.805413,-9.369618 -20.248967,-23.141676 6.284359,0.609377 12.949606,1.371108 14.282753,0 C 61.802068,58.517346 56.796919,51.835885 51.887978,44.913906 65.338021,44.714177 85.715734,44.966253 84.792549,43.82914 l -8.31654,-8.497335 c 13.137617,-3.537241 26.580651,0.568164 36.339661,3.615887 4.38186,-3.457681 -0.0776,-7.82998 -5.42383,-12.294015 11.16496,1.490646 21.25382,4.057389 30.37345,7.593362 4.87238,-4.399329 -3.16389,-8.798658 -7.05098,-13.197987 17.24936,3.272568 24.55716,7.87068 31.81981,12.47481 5.26935,-5.050799 0.30166,-9.343299 -3.2543,-13.740371 13.00566,4.817048 19.70478,11.035551 26.75756,17.175463 2.39119,-3.227053 6.07494,-5.592408 1.62715,-13.378781 9.23416,5.322725 16.18926,11.59506 21.33374,18.621817 5.71336,-3.637941 3.40387,-8.613023 3.43509,-13.197987 9.59665,7.806516 15.68687,16.11395 23.14168,24.226443 1.50169,-1.093437 2.81661,-4.80171 3.97747,-10.666867 22.89539,22.211815 55.24591,78.158241 8.31654,100.340861 C 207.95028,109.95728 160.25292,86.016909 107.39184,68.055583 Z"/>
  <path style="fill:#75a928" d="M 467.92487,68.055583 C 399.9772,103.08694 360.47798,131.42455 338.8377,155.56005 c 11.08235,44.41759 68.89638,46.44464 90.03559,45.19858 -4.32842,-2.01474 -7.93988,-4.42778 -9.22051,-8.13574 5.30449,-3.76981 24.11289,-0.39719 37.24363,-7.77416 -5.04407,-1.04499 -7.40348,-2.06302 -9.76289,-5.78542 12.40571,-3.9567 25.76862,-7.36642 33.62775,-13.92116 -4.24126,0.0524 -8.20116,0.9488 -13.74037,-2.89271 11.11169,-5.98819 22.96911,-10.73351 32.18139,-19.88738 -5.74521,-0.14063 -11.93945,-0.0568 -13.74037,-2.16953 10.17044,-6.30068 18.75124,-13.30787 25.85359,-20.97215 -8.03998,0.97052 -11.43528,0.13478 -13.37878,-1.26556 7.68779,-7.87419 17.41756,-14.52319 22.05691,-24.22644 -5.96961,2.057484 -11.43125,2.84506 -15.36752,-0.180795 2.61237,-5.893453 13.80541,-9.369618 20.24897,-23.141676 -6.28436,0.609377 -12.94961,1.371108 -14.28276,0 2.92231,-11.888563 7.92746,-18.570024 12.8364,-25.492003 -13.45004,-0.199729 -33.82775,0.05235 -32.90457,-1.084766 l 8.31654,-8.497335 c -13.13762,-3.537241 -26.58065,0.568164 -36.33966,3.615887 -4.38186,-3.457681 0.0776,-7.82998 5.42383,-12.294015 -11.16496,1.490646 -21.25382,4.057389 -30.37345,7.593362 -4.87238,-4.399329 3.16389,-8.798658 7.05098,-13.197987 -17.24936,3.272568 -24.55716,7.87068 -31.81981,12.47481 -5.26935,-5.050799 -0.30166,-9.343299 3.2543,-13.740371 -13.00566,4.817048 -19.70478,11.035551 -26.75756,17.175463 -2.39119,-3.227053 -6.07494,-5.592408 -1.62715,-13.378781 -9.23416,5.322725 -16.18926,11.59506 -21.33374,18.621817 -5.71336,-3.637941 -3.40387,-8.613023 -3.43509,-13.197987 -9.59665,7.806516 -15.68687,16.11395 -23.14168,24.226443 -1.50169,-1.093437 -2.81661,-4.80171 -3.97747,-10.666867 -22.89539,22.211815 -55.24591,78.158241 -8.31654,100.340861 39.91877,-32.94716 87.61613,-56.887531 140.47721,-74.848857 z"/>
  <path style="fill:#bc1142" transform="matrix(1.131107,0,0,1.1280497,-43.139135,-68.310983)" d="m 365.2046,521.84937 a 71.956155,66.532319 0 1 1 -143.91231,0 71.956155,66.532319 0 1 1 143.91231,0 z"/>
  <path style="fill:#bc1142" transform="matrix(0.76741684,-1.1613112,2.171115,1.4224368,-560.88858,217.68859)" d="m 262.84091,276.64774 a 61.875,28.125 0 1 1 -123.75,0 61.875,28.125 0 1 1 123.75,0 z"/>
  <path style="fill:#bc1142" transform="matrix(-0.76741684,-1.1613112,-2.171115,1.4224368,1134.8288,213.68859)" d="m 262.84091,276.64774 a 61.875,28.125 0 1 1 -123.75,0 61.875,28.125 0 1 1 123.75,0 z"/>
  <path style="fill:#bc1142" d="M 72.910253,342.0878 C 109.32447,332.33088 85.201845,492.72431 55.576871,479.56357 22.990103,453.35089 12.493801,376.58814 72.910253,342.0878 Z"/>
  <path style="fill:#bc1142" d="m 493.67828,340.0878 c -36.41422,-9.75692 -12.2916,150.63651 17.33338,137.47577 32.58677,-26.21268 43.08307,-102.97543 -17.33338,-137.47577 z"/>
  <path style="fill:#bc1142" d="m 369.97158,220.6534 c 62.83486,-10.61013 115.11594,26.72229 113.01138,94.85796 -2.06693,26.12112 -136.15872,-90.96907 -113.01138,-94.85796 z"/>
  <path style="fill:#bc1142" d="M 196.35975,218.6534 C 133.52489,208.04327 81.24381,245.37569 83.34837,313.51136 85.4153,339.63248 219.50709,222.54229 196.35975,218.6534 Z"/>
  <path style="fill:#bc1142" d="m 286.61932,202.75568 c -37.50259,-0.97548 -73.49548,27.83418 -73.58158,44.54443 -0.10462,20.30426 29.6512,41.09266 73.83726,41.62035 45.12305,0.32321 73.91561,-16.64049 74.0611,-37.59409 0.16484,-23.73996 -41.03879,-48.93744 -74.31678,-48.57069 z"/>
  <path style="fill:#bc1142" d="m 288.90937,619.11675 c 32.69744,-1.42711 76.57083,10.53196 76.6568,26.39598 0.5427,15.4052 -39.78969,50.21055 -78.82634,49.53765 -40.42729,1.74391 -80.06908,-33.11559 -79.54951,-45.19859 -0.60506,-17.71593 49.226,-31.54796 81.71905,-30.73504 z"/>
  <path style="fill:#bc1142" d="m 168.13874,525.10369 c 23.2791,28.04573 33.89066,77.31899 14.46355,91.84353 -18.37917,11.08784 -63.01228,6.52162 -94.736237,-39.05157 -21.395052,-38.24168 -18.637584,-77.15663 -3.615887,-88.58924 22.464424,-13.68429 57.173424,4.79902 83.888574,35.79728 z"/>
  <path style="fill:#bc1142" d="m 405.0209,516.21177 c -25.18682,29.50165 -39.21227,83.30951 -20.83785,100.6428 17.56828,13.46361 64.7292,11.58162 99.56566,-36.75574 25.29599,-32.46471 16.82013,-86.68225 2.37077,-101.07511 -21.46408,-16.60213 -52.27691,4.64489 -81.09858,37.18805 z"/>
 </g>
 <path style="opacity:0.2;fill:#8b9cbe" d="M 9.0703125,4 C 9.1543185,4.1041759 9.271946,4.2055312 9.147461,4.3251953 8.975885,4.2161137 8.8030145,4.1078075 8.395508,4.0302734 8.4873385,4.1345029 8.676631,4.238544 8.5615235,4.3427734 8.3460775,4.2589987 8.1084925,4.1984025 7.8447265,4.1630859 7.9710115,4.2688484 8.076176,4.3721817 7.972656,4.4541015 7.742105,4.3818945 7.424627,4.2843593 7.114258,4.368164 l 0.196289,0.2011719 c 0.02181,0.026941 -0.459594,0.021637 -0.777344,0.026367 0.09975,0.1410581 0.198307,0.2824055 0.268555,0.4970706 0.264593,-0.00175 0.524919,-0.0035 0.508789,-0.023435 L 7.114258,4.868164 c 0.310369,-0.083805 0.627847,0.01373 0.858398,0.085937 0.10352,-0.08192 -0.00165,-0.1852531 -0.1279295,-0.2910156 0.263766,0.035317 0.501351,0.095913 0.716797,0.1796875 C 8.676631,4.738544 8.4873385,4.6345029 8.395508,4.5302734 8.8030145,4.6078076 8.975885,4.7161137 9.147461,4.8251953 9.271946,4.7055312 9.1543185,4.6041759 9.0703125,4.5 9.3775635,4.6141261 9.5355305,4.761759 9.7021485,4.9072265 9.7586435,4.8307708 9.846288,4.7743194 9.7412135,4.5898437 9.9593655,4.7159504 10.123584,4.864777 10.24512,5.03125 c 0.134975,-0.08619 0.0803,-0.2038725 0.08105,-0.3125 0.226715,0.1849529 0.370759,0.38104 0.546875,0.573242 0.03547,-0.025905 0.06633,-0.112995 0.09375,-0.251953 0.288505,0.2806935 0.632054,0.788547 0.729492,1.28125 C 11.857506,5.7107655 11.356176,4.9188718 10.9668,4.540039 10.939375,4.678997 10.908525,4.7660862 10.87305,4.7919922 10.696932,4.59979 10.552888,4.4037029 10.326172,4.21875 c -7.5e-4,0.1086275 0.05392,0.2263095 -0.08105,0.3125 C 10.123582,4.3647713 9.959363,4.2159504 9.741211,4.0898437 9.846288,4.2743194 9.758641,4.3307709 9.702146,4.4072265 9.5355305,4.261759 9.3775635,4.1141261 9.0703125,4 Z M 15.135742,4 C 14.82849,4.1141261 14.670525,4.261759 14.503906,4.4072265 14.447416,4.3307709 14.360744,4.2743194 14.465821,4.0898437 14.247669,4.2159504 14.082473,4.3647713 13.960938,4.53125 13.825963,4.4450595 13.88062,4.3273775 13.879883,4.21875 13.653168,4.4037029 13.5101,4.59979 13.333985,4.7919922 c -0.03548,-0.025906 -0.0673,-0.1129951 -0.09473,-0.2519532 -0.389376,0.3788328 -0.890707,1.1707265 -0.729492,1.78125 0.09744,-0.492703 0.440987,-1.0005565 0.729492,-1.28125 0.02743,0.138958 0.05925,0.226048 0.09473,0.251953 0.176115,-0.192202 0.319183,-0.388289 0.545898,-0.573242 7.5e-4,0.1086275 -0.05392,0.2263098 0.08106,0.3125 0.121535,-0.1664785 0.286731,-0.3152996 0.504883,-0.4414063 -0.105077,0.1844757 -0.0184,0.2409272 0.03809,0.3173828 C 14.670525,4.761759 14.82849,4.6141261 15.135742,4.5 c -0.08401,0.1041759 -0.200657,0.2055312 -0.07617,0.3251953 0.171575,-0.1090816 0.343469,-0.2173933 0.750976,-0.2949219 -0.09183,0.1042295 -0.281123,0.2082706 -0.166016,0.3125 0.215446,-0.083775 0.453031,-0.1443709 0.716797,-0.1796875 -0.126279,0.1057625 -0.231449,0.2090958 -0.12793,0.2910156 0.230551,-0.072207 0.54803,-0.1697422 0.858399,-0.085937 l -0.196289,0.201172 c -0.01613,0.01991 0.244196,0.021675 0.508789,0.023435 0.07025,-0.2146649 0.168804,-0.3560123 0.268554,-0.4970704 -0.317749,-0.00473 -0.799153,5.75e-4 -0.777343,-0.026367 l 0.196289,-0.2011719 c -0.310369,-0.083805 -0.627848,0.013731 -0.858399,0.085937 -0.103519,-0.08192 0.0017,-0.1852532 0.12793,-0.2910156 -0.263766,0.035316 -0.501351,0.095913 -0.716797,0.1796875 -0.115107,-0.1042294 0.07419,-0.2082706 0.166016,-0.3125 C 15.40304,4.1078076 15.231146,4.2161137 15.059571,4.3251953 14.935085,4.2055312 15.051735,4.1041759 15.135742,4 Z M 6.4990235,5.199219 c 0.081731,0.1751875 0.194273,0.279034 0.291992,0.3603515 C 6.740009,5.4157675 6.674839,5.3081755 6.6064455,5.208008 6.5699105,5.204758 6.536649,5.202878 6.4990235,5.199218 Z m 11.2080075,0 c -0.03763,0.00365 -0.07089,0.00554 -0.107422,0.00879 -0.06839,0.1001675 -0.133564,0.2077595 -0.18457,0.3515625 C 17.512758,5.478254 17.6253,5.3744075 17.707031,5.19922 Z M 7.8447265,5.6435545 C 9.32061,6.406647 10.209219,7.0314055 10.743164,7.5722655 10.808344,7.4688185 10.860177,7.350958 10.893555,7.216797 10.878825,7.200322 10.85528,7.181682 10.839844,7.165039 9.9663,6.513009 8.954236,6.021628 7.8447265,5.6435545 Z m 8.5166015,0 C 15.251819,6.021628 14.239755,6.513009 13.366211,7.165039 c -0.01544,0.016645 -0.03898,0.03528 -0.05371,0.051758 0.03338,0.134161 0.08521,0.2520215 0.150391,0.3554685 0.533945,-0.54086 1.422554,-1.1656185 2.898437,-1.928711 z M 12.078125,8.334961 c -0.885977,-0.02311 -1.736246,0.6597625 -1.738281,1.055664 -4.69e-4,0.091914 0.03252,0.183181 0.08106,0.272461 0.224789,-0.384794 0.925018,-0.847224 1.657226,-0.828125 0.667064,-0.00737 1.463159,0.421939 1.688477,0.895508 0.03939,-0.078435 0.06679,-0.159426 0.06738,-0.2451175 0.0039,-0.56245 -0.969686,-1.1590795 -1.75586,-1.1503905 z M 9.7841795,8.691406 c -0.395062,0.1018975 -0.7934225,0.10993 -1.017578,0.09668 0.018415,-0.00859 0.03174,-0.01993 0.04883,-0.029295 -0.926089,0.2449805 -1.5752555,1.025068 -1.5390625,2.200196 0.0018,0.02263 0.015595,0.03205 0.02539,0.0459 0.150564,-1.138091 1.010217,-1.8145885 2.1015625,-1.8349615 0.117799,-0.0022 0.238815,0.00718 0.361328,0.02051 C 9.986589,8.9261675 10.083315,8.735007 9.94629,8.71192 9.8916605,8.70267 9.838085,8.69763 9.7841805,8.69141 Z m 4.7451175,0.027345 c -0.156719,6e-4 -0.317224,0.01223 -0.481445,0.04004 -0.136868,0.02306 -0.04074,0.214624 0.180664,0.4785155 0.122843,-0.013405 0.244198,-0.022725 0.362305,-0.02051 1.091344,0.02037 1.950998,0.697673 2.101562,1.8359375 0.0098,-0.01385 0.0236,-0.02326 0.02539,-0.0459 0.03717,-1.2070505 -0.646635,-2.00223 -1.613281,-2.223633 -0.177534,-0.00526 -0.362236,-0.018815 -0.575195,-0.064453 z m -0.461914,1.72168 a 2.0387884,1.7260841 56.426594 0 0 -0.553711,0.07715 c -0.112533,0.0826 -0.249633,0.156095 -0.415039,0.212891 a 2.0387884,1.7260841 56.426594 0 0 -0.651367,1.625 2.0387884,1.7260841 56.426594 0 1 0.714844,-1.169922 2.0387884,1.7260841 56.426594 0 1 0.905273,-0.245117 2.0387884,1.7260841 56.426594 0 1 2.02539,1.995117 2.0387884,1.7260841 56.426594 0 0 -2.02539,-2.495117 z m -3.884766,0.09375 a 1.7260841,2.0387884 33.573406 0 0 -0.07617,10e-4 1.7260841,2.0387884 33.573406 0 0 -2.026368,2.49707 1.7260841,2.0387884 33.573406 0 1 2.026368,-1.99707 1.7260841,2.0387884 33.573406 0 1 0.905273,0.245117 1.7260841,2.0387884 33.573406 0 1 0.700195,1.170899 1.7260841,2.0387884 33.573406 0 0 -0.700195,-1.670899 1.7260841,2.0387884 33.573406 0 0 -0.829102,-0.246094 z m 6.787109,1.054687 c -0.347409,-0.09335 -0.454464,0.474995 -0.420898,1.160157 0.03611,-0.434254 0.163577,-0.729301 0.420898,-0.660157 0.629919,0.360741 0.932184,0.916801 1.008789,1.478516 0.06635,-0.713059 -0.189499,-1.509326 -1.008789,-1.978516 z m -9.9394525,0.04687 c -0.81907,0.469064 -1.074943,1.265328 -1.008789,1.978516 0.076822,-0.561597 0.3792335,-1.117983 1.008789,-1.478516 0.2573635,-0.06916 0.3848055,0.226638 0.4208985,0.661133 0.033565,-0.685352 -0.073489,-1.254485 -0.4208985,-1.161133 z m 5.1503905,2.446289 a 1.9227955,1.7781355 0 0 0 -1.979492,1.777344 1.9228515,1.7781873 0 0 0 0.02149,0.25 1.9227955,1.7781355 0 0 1 1.958008,-1.527344 1.9227955,1.7781355 0 0 1 1.845703,1.533203 1.9228515,1.7781873 0 0 0 0.02051,-0.255859 1.9227955,1.7781355 0 0 0 -1.866211,-1.777344 z m 4.193359,0.66211 c -0.450571,0.01178 -0.987375,0.439316 -1.498046,1.017578 -0.466957,0.548518 -0.765389,1.446136 -0.665039,2.007812 0.07096,-0.510364 0.321271,-1.104 0.665039,-1.507812 0.510671,-0.578263 1.047475,-1.005799 1.498046,-1.017578 0.150191,-0.0039 0.2912,0.03838 0.417969,0.136719 0.153735,0.153573 0.274188,0.502251 0.310547,0.905273 0.06203,-0.59979 -0.0952,-1.190158 -0.310547,-1.405273 -0.126769,-0.09833 -0.267778,-0.140645 -0.417969,-0.136719 z m -8.6318355,0.272461 c -0.1613655,-0.0069 -0.3116585,0.02637 -0.444336,0.107422 -0.212428,0.162136 -0.318005,0.559321 -0.2626955,1.044921 0.036865,-0.249481 0.129616,-0.443348 0.2626955,-0.544921 0.1326775,-0.08105 0.2829705,-0.114357 0.444336,-0.107422 0.484097,0.02081 1.063762,0.404267 1.5371095,0.955078 0.2937725,0.354939 0.497154,0.851973 0.557617,1.291992 C 9.9380935,17.25907 9.6938005,16.472488 9.279297,15.971681 8.8059495,15.42087 8.2262845,15.037414 7.7421875,15.016603 Z m 4.3906255,3.182617 c -0.76763,-0.01926 -1.94496,0.308788 -1.930664,0.728515 -0.0028,0.06472 0.0484,0.159115 0.131836,0.262696 0.318988,-0.298055 1.184991,-0.506613 1.798828,-0.491211 0.617742,-0.02704 1.395275,0.151157 1.686523,0.415039 0.07701,-0.108313 0.126787,-0.210385 0.124024,-0.289063 -0.0021,-0.375851 -1.038089,-0.659786 -1.810547,-0.625976 z"/>
 <path style="opacity:0.1;fill:#8b9cbe" d="m 8.8046875,2 c -2.338826,0 -4.2998046,0.7588274 -4.2998047,3.089844 0,0.090015 0.00708,0.1803075 0.012696,0.2705075 C 4.6455208,3.2121881 6.545942,2.5 8.8046875,2.5 9.6868775,2.5 11,3.2978515 12,3.2978515 13,3.2978515 14.313123,2.5 15.195313,2.5 c 2.258745,0 4.159166,0.7121881 4.287109,2.8603515 0.0056,-0.0902 0.0127,-0.180492 0.0127,-0.2705075 C 19.495117,2.7588274 17.534139,2 15.195313,2 14.313123,2 13,2.7978515 12,2.7978515 11,2.7978515 9.6868775,2 8.8046875,2 Z m -3.036133,6.916992 c -0.00175,0.00705 -0.0021,0.012335 -0.0039,0.01953 -0.144962,0.52566 -0.358989,1.153185 -0.555664,1.614258 -0.8423808,0.810848 -1.2768752,2.008038 -1.1982423,3.160156 0.057727,-0.989495 0.477326,-1.966226 1.1982423,-2.660156 0.196675,-0.461073 0.410702,-1.088598 0.555664,-1.614258 0.05439,-0.2144605 0.071859,-0.3629195 0.0039,-0.5195315 z m 12.4628905,0 c -0.06795,0.156612 -0.05048,0.305071 0.0039,0.5195315 0.144962,0.52566 0.35899,1.1531855 0.555664,1.6142575 0.720916,0.693931 1.140516,1.670662 1.198243,2.660157 0.07863,-1.152119 -0.355862,-2.349309 -1.198243,-3.160157 -0.196674,-0.461072 -0.410702,-1.0885975 -0.555664,-1.6142575 -0.0018,-0.00719 -0.0022,-0.01248 -0.0039,-0.01953 z"/>
</svg>
