<svg xmlns="http://www.w3.org/2000/svg" width="24" height="24" version="1.1">
 <g transform="translate(0,-1028.3622)">
  <path style="opacity:0.2" d="m 12,1029.8627 c -2.0881538,0 -4,1.7839 -4,3.9999 0,4.9998 -3,5.4998 -3,8.9997 0,3.8659 3.1340067,6.9999 7,6.9999 3.865993,0 7,-3.134 7,-6.9999 0,-3.4999 -3,-3.9999 -3,-8.9997 0,-2.216 -1.911846,-3.9999 -4,-3.9999 z"/>
  <path style="fill:#3d7284" d="m 12,1029.3627 c -2.0881538,0 -4,1.7839 -4,3.9999 0,4.9998 -3,5.4998 -3,8.9997 0,3.8659 3.1340067,6.9999 7,6.9999 3.865993,0 7,-3.134 7,-6.9999 0,-3.4999 -3,-3.9999 -3,-8.9997 0,-2.216 -1.911846,-3.9999 -4,-3.9999 z"/>
  <path style="opacity:0.1" d="m 11.999777,1035.8624 c -1.193201,0 -1.999777,1.0704 -1.999777,2.4 0,2.9999 -2.0001241,3.2999 -2.0001241,5.3999 0,2.3194 1.7908167,4.1999 3.9999011,4.1999 2.209084,0 3.999901,-1.8805 3.999901,-4.1999 0,-2.1 -1.999678,-2.4 -1.999678,-5.3999 0,-1.3296 -0.807022,-2.4 -2.000223,-2.4 z"/>
  <path style="fill:#8b9cbe" d="m 11.999777,1035.3625 c -1.193201,0 -1.999777,1.0704 -1.999777,2.4 0,2.9999 -2.0001241,3.2999 -2.0001241,5.3999 0,2.3194 1.7908167,4.1999 3.9999011,4.1999 2.209084,0 3.999901,-1.8805 3.999901,-4.1999 0,-2.1 -1.999678,-2.4 -1.999678,-5.3999 0,-1.3296 -0.807022,-2.4 -2.000223,-2.4 z"/>
  <circle style="opacity:0.1" cx="10.5" cy="1034.362" r="1.5"/>
  <path style="opacity:0.2" d="m 8.2627229,1050.8474 c -0.2109202,-0.034 -0.3974331,-0.096 -0.806097,-0.2721 -0.6084329,-0.2619 -0.8921469,-0.3468 -2.0057403,-0.6003 -0.5554659,-0.1264 -0.7624786,-0.1826 -1.2445877,-0.3382 -0.1753736,-0.057 -0.4091194,-0.1287 -0.5194349,-0.1604 -0.2994658,-0.086 -0.3788595,-0.1193 -0.4885782,-0.2055 -0.1496763,-0.1176 -0.2194304,-0.2989 -0.1926781,-0.5009 0.017141,-0.1294 0.06244,-0.7534 0.1874772,-1.0143 0.167116,-0.3489 0.8020842,-0.4744 0.8275398,-0.8177 -0.087852,-0.9418 -0.023962,-0.795 -0.064554,-1.5156 0.074928,-0.2768 0.1319523,-0.4365 0.3971972,-0.5054 0.076776,-0.02 0.1263091,-0.023 0.4866244,-0.03 0.2242975,0 -0.076058,-0.013 -0.047302,-0.019 0.1554079,-0.035 0.268553,-0.093 0.3739969,-0.1937 0.1004415,-0.095 0.1691833,-0.1929 0.3002861,-0.4255 0.2040824,-0.359 0.6066844,-0.3555 0.9354523,-0.3688 0.09321,0.02 0.1242009,0.033 0.2262884,0.091 0.102745,0.059 0.1318027,0.082 0.2211455,0.1774 0.2248315,0.2388 0.3321623,0.3862 0.8364313,1.148 0.3996736,0.604 0.5217911,0.7972 0.6828966,1.0806 0.1755017,0.3087 0.4918808,0.804 0.6091679,0.9537 0.019875,0.025 0.1415585,0.1795 0.2704068,0.3424 0.1288538,0.1631 0.2466914,0.3157 0.2618665,0.3391 0.2419755,0.3367 0.4118448,0.7235 0.4722713,1.1102 0.020309,0.1347 0.021019,0.1575 0.00965,0.3117 -0.01442,0.1958 -0.026954,0.2795 -0.048234,0.3223 -0.00854,0.017 -0.027304,0.064 -0.041694,0.1039 -0.1850114,0.5141 -0.646171,0.8998 -1.1804302,0.9874 -0.1136107,0.018 -0.3388971,0.018 -0.4593677,0 z"/>
  <path style="fill:#eab108" d="m 8.2627229,1050.3479 c -0.2109202,-0.034 -0.3974331,-0.096 -0.806097,-0.2721 -0.6084329,-0.2619 -0.8921469,-0.3468 -2.0057403,-0.6003 -0.5554659,-0.1264 -0.7624786,-0.1826 -1.2445877,-0.3382 -0.1753736,-0.057 -0.4091194,-0.1287 -0.5194349,-0.1604 -0.2994658,-0.086 -0.3788595,-0.1193 -0.4885782,-0.2055 -0.1496763,-0.1176 -0.2194304,-0.2989 -0.1926781,-0.5009 0.017141,-0.1294 0.06244,-0.7534 0.1874772,-1.0143 0.167116,-0.3489 0.8020842,-0.4744 0.8275398,-0.8177 -0.087852,-0.9418 -0.023962,-0.795 -0.064554,-1.5156 0.074928,-0.2768 0.1319523,-0.4365 0.3971972,-0.5054 0.076776,-0.02 0.1263091,-0.023 0.4866244,-0.03 0.2242975,0 -0.076058,-0.013 -0.047302,-0.019 0.1554079,-0.035 0.268553,-0.093 0.3739969,-0.1937 0.1004415,-0.095 0.1691833,-0.1929 0.3002861,-0.4255 0.2040824,-0.359 0.6066844,-0.3555 0.9354523,-0.3688 0.09321,0.02 0.1242009,0.033 0.2262884,0.091 0.102745,0.059 0.1318027,0.082 0.2211455,0.1774 0.2248315,0.2388 0.3321623,0.3862 0.8364313,1.148 0.3996736,0.604 0.5217911,0.7972 0.6828966,1.0806 0.1755017,0.3087 0.4918808,0.804 0.6091679,0.9537 0.019875,0.025 0.1415585,0.1795 0.2704068,0.3424 0.1288538,0.1631 0.2466914,0.3157 0.2618665,0.3391 0.2419755,0.3367 0.4118448,0.7235 0.4722713,1.1102 0.020309,0.1347 0.021019,0.1575 0.00965,0.3117 -0.01442,0.1958 -0.026954,0.2795 -0.048234,0.3223 -0.00854,0.017 -0.027304,0.064 -0.041694,0.1039 -0.1850114,0.5141 -0.646171,0.8998 -1.1804302,0.9874 -0.1136107,0.018 -0.3388971,0.018 -0.4593677,0 z"/>
  <path style="opacity:0.2" d="m 17.309758,1050.6076 c 0.165448,-0.1162 0.297633,-0.2465 0.570743,-0.5642 0.406593,-0.473 0.612089,-0.6626 1.45284,-1.3401 0.419396,-0.3378 0.571809,-0.4713 0.916218,-0.8028 0.125299,-0.1205 0.293654,-0.2786 0.374145,-0.3512 0.218498,-0.1969 0.271885,-0.258 0.328549,-0.3759 0.07732,-0.1606 0.05925,-0.3411 -0.04986,-0.4984 -0.06994,-0.1008 -0.161736,-0.1856 -0.379857,-0.3509 -0.291563,-0.2211 -0.374949,-0.4113 -0.543404,-0.687 -0.09912,-0.1622 -0.185778,-0.3569 -0.344169,-0.773 -0.0937,-0.2462 -0.131877,-0.3351 -0.207653,-0.4839 -0.08222,-0.1614 -0.09906,-0.1891 -0.147537,-0.2421 -0.182191,-0.1996 -0.384463,-0.267 -0.639987,-0.2135 -0.07398,0.015 -0.117467,0.034 -0.427577,0.1786 -0.193309,0.09 -0.366784,0.1665 -0.394073,0.173 -0.147394,0.036 -0.268873,0.034 -0.401577,-0.01 -0.12643,-0.037 -0.226659,0.01 -0.437831,-0.1292 -0.144464,-0.095 -0.299518,-0.2127 -0.410474,-0.2433 -0.154161,-0.043 -0.153653,-0.043 -0.297711,-0.026 -0.138673,0.017 -0.240843,0.057 -0.353655,0.1449 -0.07111,0.055 -0.09196,0.079 -0.153946,0.1706 -0.06226,0.092 -0.07707,0.124 -0.112645,0.2405 -0.08952,0.2933 -0.117989,0.4612 -0.222101,1.3077 -0.08244,0.6711 -0.103932,0.8833 -0.120092,1.1872 -0.0176,0.3309 -0.07551,0.8765 -0.111503,1.0504 -0.006,0.029 -0.04392,0.209 -0.08408,0.3989 -0.0401,0.1899 -0.07532,0.3664 -0.07823,0.3923 -0.0623,0.3822 -0.04171,0.7759 0.07208,1.1238 0.04027,0.1208 0.04942,0.1402 0.125045,0.2641 0.096,0.1573 0.142456,0.2219 0.178867,0.2486 0.01453,0.011 0.0506,0.042 0.07996,0.069 0.377478,0.3515 0.935428,0.4803 1.428228,0.3299 0.104724,-0.032 0.296756,-0.1264 0.391523,-0.1922 z"/>
  <path style="fill:#eab108" d="m 17.309758,1050.1076 c 0.165448,-0.1162 0.297633,-0.2465 0.570743,-0.5642 0.406593,-0.473 0.612089,-0.6626 1.45284,-1.3401 0.419396,-0.3378 0.571809,-0.4713 0.916218,-0.8028 0.125299,-0.1205 0.293654,-0.2786 0.374145,-0.3512 0.218498,-0.1969 0.271885,-0.258 0.328549,-0.3759 0.07732,-0.1606 0.05925,-0.3411 -0.04986,-0.4984 -0.06994,-0.1008 -0.161736,-0.1856 -0.379857,-0.3509 -0.291563,-0.2211 -0.374949,-0.4113 -0.543404,-0.687 -0.09912,-0.1622 -0.185778,-0.3569 -0.344169,-0.773 -0.0937,-0.2462 -0.131877,-0.3351 -0.207653,-0.4839 -0.08222,-0.1614 -0.09906,-0.1891 -0.147537,-0.2421 -0.182191,-0.1996 -0.384463,-0.267 -0.639987,-0.2135 -0.07398,0.015 -0.117467,0.034 -0.427577,0.1786 -0.193309,0.09 -0.366784,0.1665 -0.394073,0.173 -0.147394,0.036 -0.268873,0.034 -0.401577,-0.01 -0.12643,-0.037 -0.226659,0.01 -0.437831,-0.1292 -0.144464,-0.095 -0.299518,-0.2127 -0.410474,-0.2433 -0.154161,-0.043 -0.153653,-0.043 -0.297711,-0.026 -0.138673,0.017 -0.240843,0.057 -0.353655,0.1449 -0.07111,0.055 -0.09196,0.079 -0.153946,0.1706 -0.06226,0.092 -0.07707,0.124 -0.112645,0.2405 -0.08952,0.2933 -0.117989,0.4612 -0.222101,1.3077 -0.08244,0.6711 -0.103932,0.8833 -0.120092,1.1872 -0.0176,0.3309 -0.07551,0.8765 -0.111503,1.0504 -0.006,0.029 -0.04392,0.209 -0.08408,0.3989 -0.0401,0.1899 -0.07532,0.3664 -0.07823,0.3923 -0.0623,0.3822 -0.04171,0.7759 0.07208,1.1238 0.04027,0.1208 0.04942,0.1402 0.125045,0.2641 0.096,0.1573 0.142456,0.2219 0.178867,0.2486 0.01453,0.011 0.0506,0.042 0.07996,0.069 0.377478,0.3515 0.935428,0.4803 1.428228,0.3299 0.104724,-0.032 0.296756,-0.1264 0.391523,-0.1922 z"/>
  <circle style="fill:#8b9cbe" cx="10.5" cy="1033.862" r="1.5"/>
  <circle style="fill:#8b9cbe" cx="10.5" cy="1033.862" r=".5"/>
  <circle style="opacity:0.1" cx="13.5" cy="1034.362" r="1.5"/>
  <circle style="fill:#8b9cbe" cx="13.5" cy="1033.862" r="1.5"/>
  <path style="opacity:0.1" d="m 13.999727,1036.0622 c 0,1.3806 -0.895408,2.8 -1.99995,2.8 -1.104542,0 -1.9999506,-1.4194 -1.9999506,-2.8 z"/>
  <path style="fill:#f77d00" d="m 13.999727,1035.5622 c 0,1.3806 -0.895408,2.8 -1.99995,2.8 -1.104542,0 -1.9999506,-1.4194 -1.9999506,-2.8 z"/>
  <circle style="fill:#8b9cbe" cx="13.5" cy="1033.862" r=".5"/>
  <path style="fill:#eab108" d="m 13.999727,1035.612 c 0,0.2499 -0.895408,1.7499 -1.99995,1.7499 -1.104542,0 -1.9999506,-1.5 -1.9999506,-1.7499 0,-0.6904 0.8954086,-1.25 1.9999506,-1.25 1.104542,0 1.99995,0.5596 1.99995,1.25 z"/>
  <path style="opacity:0.2;fill:#8b9cbe" d="m 16.271484,1043.3681 c -0.138673,0.017 -0.242656,0.057 -0.355468,0.1445 -0.07111,0.055 -0.09036,0.078 -0.152344,0.1699 -0.06226,0.092 -0.07771,0.1237 -0.113281,0.2402 -0.08952,0.2933 -0.118545,0.4621 -0.222657,1.3086 -0.08244,0.6711 -0.10298,0.8836 -0.11914,1.1875 -0.0176,0.3309 -0.07533,0.8769 -0.111328,1.0508 -0.006,0.029 -0.04383,0.2086 -0.08399,0.3985 -0.0401,0.1899 -0.07522,0.3666 -0.07813,0.3925 -0.03758,0.2306 -0.03478,0.4612 -0.0098,0.6875 0.0057,-0.063 -4.05e-4,-0.1251 0.0098,-0.1875 0.0029,-0.026 0.03802,-0.2026 0.07813,-0.3925 0.04016,-0.1899 0.07798,-0.3695 0.08399,-0.3985 0.03599,-0.1739 0.09373,-0.7199 0.111328,-1.0508 0.01616,-0.3039 0.0367,-0.5164 0.11914,-1.1875 0.104112,-0.8465 0.133137,-1.0153 0.222657,-1.3086 0.03557,-0.1165 0.05102,-0.1482 0.113281,-0.2402 0.06199,-0.092 0.08123,-0.1149 0.152344,-0.1699 0.112812,-0.088 0.216795,-0.1275 0.355468,-0.1445 0.144058,-0.017 0.142714,-0.018 0.296875,0.025 0.110956,0.031 0.265693,0.1491 0.410157,0.2441 0.211172,0.1392 0.31107,0.092 0.4375,0.1289 0.132704,0.044 0.254949,0.046 0.402343,0.01 0.02729,-0.01 0.201223,-0.084 0.394532,-0.1739 0.31011,-0.1446 0.353754,-0.1627 0.427734,-0.1777 0.255524,-0.053 0.456481,0.013 0.638672,0.2129 0.04848,0.053 0.06622,0.081 0.148437,0.2422 0.07578,0.1488 0.113332,0.2382 0.207032,0.4844 0.158391,0.4161 0.24463,0.6112 0.34375,0.7734 0.168455,0.2757 0.253358,0.4644 0.544922,0.6855 0.218121,0.1653 0.308966,0.2508 0.378906,0.3516 0.01027,0.015 0.0089,0.032 0.01758,0.047 0.0093,-0.016 0.02436,-0.03 0.0332,-0.049 0.07732,-0.1606 0.05833,-0.3407 -0.05078,-0.498 -0.06994,-0.1008 -0.160785,-0.1863 -0.378906,-0.3516 -0.291564,-0.2211 -0.376467,-0.4098 -0.544922,-0.6855 -0.09912,-0.1622 -0.185359,-0.3573 -0.34375,-0.7734 -0.0937,-0.2462 -0.131256,-0.3356 -0.207032,-0.4844 -0.08222,-0.1614 -0.09996,-0.1892 -0.148437,-0.2422 -0.182191,-0.1996 -0.383148,-0.2664 -0.638672,-0.2129 -0.07398,0.015 -0.117624,0.033 -0.427734,0.1777 -0.193309,0.09 -0.367243,0.1674 -0.394532,0.1739 -0.147394,0.036 -0.269639,0.034 -0.402343,-0.01 -0.12643,-0.037 -0.226328,0.01 -0.4375,-0.1289 -0.144464,-0.095 -0.299201,-0.2135 -0.410157,-0.2441 -0.154161,-0.043 -0.152817,-0.042 -0.296875,-0.025 z"/>
  <path style="fill:#3d7284" d="m 16.999653,1045.3622 c -0.828406,0 -0.969551,-1.172 -0.999975,-1.9999 -0.03319,-0.9031 0.05795,-1.4252 1.499963,-1.4999 1.618774,-0.6159 2.352876,3.4806 -0.499988,3.4998 z"/>
  <path style="opacity:0.1;fill:#8b9cbe" d="m 12,1029.3622 c -2.0881538,0 -4,1.784 -4,4 0,4.9998 -3,5.5001 -3,9 0,0.086 0.010609,0.1688 0.013672,0.2539 C 5.1545843,1039.3426 8,1038.7386 8,1033.8622 c 0,-2.216 1.9118462,-4 4,-4 2.088154,0 4,1.784 4,4 0,4.8764 2.845416,5.4804 2.986328,8.7539 0.0031,-0.085 0.01367,-0.1681 0.01367,-0.2539 0,-3.4999 -3,-4.0002 -3,-9 0,-2.216 -1.911846,-4 -4,-4 z"/>
  <path style="opacity:0.2;fill:#8b9cbe" d="m 6.4023438,1043.3798 c -0.3287679,0.013 -0.7314645,0.01 -0.9355469,0.3691 -0.1311028,0.2326 -0.2003398,0.3308 -0.3007813,0.4258 -0.1054439,0.1007 -0.2176389,0.1584 -0.3730468,0.1934 -0.028756,0.01 0.2711724,0.02 0.046875,0.02 -0.3603153,0.01 -0.4095522,0.01 -0.4863282,0.029 -0.2652449,0.069 -0.3215564,0.229 -0.3964844,0.5058 0.014254,0.2531 0.010184,0.3508 0.00977,0.4747 0.071044,-0.2576 0.1316756,-0.4143 0.3867187,-0.4805 0.076776,-0.02 0.1260129,-0.022 0.4863282,-0.029 0.2242974,0 -0.075631,-0.014 -0.046875,-0.02 0.1554079,-0.035 0.2676029,-0.093 0.3730468,-0.1934 0.1004415,-0.095 0.1696785,-0.1932 0.3007813,-0.4258 0.2040824,-0.359 0.606779,-0.3558 0.9355469,-0.3691 0.09321,0.02 0.124475,0.034 0.2265624,0.092 0.102745,0.059 0.1313604,0.082 0.2207032,0.1777 0.2248315,0.2388 0.3316685,0.3847 0.8359375,1.1465 0.3996736,0.604 0.5224882,0.7986 0.6835937,1.082 0.1755017,0.3087 0.4920879,0.8035 0.609375,0.9532 0.019875,0.025 0.140683,0.1788 0.2695313,0.3417 0.1288538,0.1631 0.2465436,0.3165 0.2617187,0.3399 0.2333494,0.3247 0.3951861,0.6955 0.4609375,1.0684 0.00677,-0.049 0.014935,-0.058 0.021484,-0.1465 0.01137,-0.1542 0.010544,-0.1778 -0.00977,-0.3125 -0.060427,-0.3867 -0.2306808,-0.7727 -0.4726563,-1.1094 -0.015175,-0.023 -0.1328649,-0.1768 -0.2617187,-0.3399 -0.1288483,-0.1629 -0.2496563,-0.3167 -0.2695313,-0.3417 -0.1172871,-0.1497 -0.4338733,-0.6445 -0.609375,-0.9532 -0.1611055,-0.2834 -0.2839201,-0.4761 -0.6835937,-1.0801 -0.504269,-0.7618 -0.611106,-0.9096 -0.8359375,-1.1484 -0.089343,-0.095 -0.1179582,-0.1187 -0.2207032,-0.1777 -0.1020874,-0.058 -0.1333524,-0.072 -0.2265624,-0.092 z m -2.40625,3.1406 c -0.1118185,0.2825 -0.6499934,0.4174 -0.8027344,0.7363 -0.1250372,0.2609 -0.170359,0.8843 -0.1875,1.0137 -0.012448,0.094 -3.248e-4,0.181 0.027344,0.2617 0.026088,-0.2431 0.067575,-0.5841 0.1601563,-0.7773 0.167116,-0.3489 0.8026694,-0.4731 0.828125,-0.8164 -0.021811,-0.2338 -0.018365,-0.2884 -0.025391,-0.418 z"/>
 </g>
</svg>
