<svg xmlns="http://www.w3.org/2000/svg" width="24" height="24" version="1.1">
 <path style="opacity:0.2" d="M 21.567986,2.8383274 C 21.530765,2.727302 21.534001,2.587418 21.464011,2.4956316 c -0.956816,0.1378799 -1.903923,0.3739592 -2.789533,0.763951 -0.938206,0.4028178 -1.957666,1.0790633 -2.67457,1.8025321 1.168192,1.215944 2.07305,2.6992648 3.13247,3.8524247 0.493579,0.7146508 0.990784,1.8234946 1.412349,2.5810326 0.09346,-0.169143 0.657929,-0.89268 0.736012,-1.070241 0.616975,-1.2701787 0.747247,-2.7082982 0.714477,-4.0995231 -0.01416,-1.1735828 -0.188531,-2.3391491 -0.42723,-3.4874805 z"/>
 <path style="opacity:0.2" d="M 2.4318822,2.8383274 C 2.4691029,2.727302 2.4658663,2.587418 2.5358575,2.4956316 3.4926736,2.6335115 4.4397799,2.8695908 5.3253906,3.2595826 6.2635964,3.6624004 7.2830562,4.3386459 7.9999605,5.0621147 6.8317682,6.2780587 5.9269106,7.7613795 4.8674901,8.9145394 4.3739106,9.6291902 3.8767061,10.738034 3.4551406,11.495572 3.3616841,11.326429 2.7972119,10.602892 2.7191293,10.425331 2.1021548,9.1551523 1.9718821,7.7170328 2.0046526,6.3258079 2.0188127,5.1522251 2.1931838,3.9866588 2.4318822,2.8383274 Z"/>
 <path style="opacity:0.2" d="M 8.523673,4.6424266 C 8.3305778,4.7708819 8.1429165,4.9067139 7.9597217,5.0482478 7.5277651,5.3725397 7.1330007,5.7459242 6.7483587,6.1243107 6.6020882,6.2750747 6.4590151,6.4286197 6.3186585,6.5845032 6.2543625,6.6553482 6.1905154,6.7265683 6.1274753,6.7984193 c -0.04812,0.055849 -0.095919,0.1119613 -0.1433726,0.1683484 -3.05e-4,3.535e-4 -6e-4,7e-4 -9e-4,0.00105 -9e-4,0.0011 -0.00185,0.0022 -0.00275,0.00325 -1.3238134,1.5600227 -2.3745169,3.3440663 -3.2154776,5.2048863 -0.087641,0.200024 -0.1724343,0.401267 -0.2547916,0.603497 -0.018177,0.04369 -0.036491,0.08733 -0.054428,0.13111 -0.00618,0.01703 -0.012681,0.03397 -0.018957,0.05098 -0.093237,0.234433 -0.1827864,0.470341 -0.2682048,0.707719 -0.010122,0.02789 -0.019974,0.05589 -0.029807,0.08388 -0.041074,0.115602 -0.081512,0.231401 -0.1206031,0.347701 -0.015051,0.03348 -0.019637,0.06706 -0.017825,0.100533 -1.215e-4,4.75e-4 -2.363e-4,9.5e-4 -3.577e-4,0.0015 2.258e-4,7e-4 4.894e-4,0.0014 7.15e-4,0.0022 0.00487,0.07212 0.038578,0.143676 0.060568,0.21225 0.1447,0.409179 0.3137704,0.810024 0.5056488,1.199618 4.777e-4,9.5e-4 9.55e-4,0.0019 0.00143,0.0029 0.030622,0.06213 0.061844,0.123953 0.093654,0.185481 0.00262,0.0051 0.00524,0.01011 0.00787,0.01517 0.3405082,0.656055 0.747997,1.277184 1.2215571,1.845589 0.3114954,0.382922 0.6534878,0.739306 1.0177359,1.071661 0.032593,0.02991 0.065699,0.05925 0.098662,0.08875 0.011085,0.0099 0.022025,0.01991 0.033145,0.02974 0.1315337,0.11675 0.2658873,0.230271 0.4030529,0.340326 0.840932,0.684024 1.826664,1.242435 2.8361538,1.619479 0.034165,0.01269 0.068268,0.02548 0.1025964,0.03771 0.2826686,0.104285 0.5697197,0.19623 0.8604138,0.275187 0.07142,0.0194 0.1430295,0.03823 0.2148496,0.0561 0.7035148,0.176408 1.4255228,0.277282 2.1504678,0.303741 0.003,1.22e-4 0.0059,3.08e-4 0.0089,4.17e-4 0.06325,0.0023 0.126528,0.0037 0.189812,0.0047 0.02142,3.99e-4 0.04284,0.0011 0.06426,0.0013 0.04282,4.97e-4 0.08564,3.2e-4 0.128469,3.05e-4 0.0428,2.1e-5 0.08561,2.13e-4 0.128409,-3.05e-4 0.02144,-2.74e-4 0.04289,-9e-4 0.06432,-0.0013 0.06324,-0.0011 0.126432,-0.0025 0.189634,-0.0047 0.0031,-1.22e-4 0.0063,-3.04e-4 0.0095,-4.17e-4 0.724787,-0.02649 1.446688,-0.127367 2.15005,-0.303741 0.07088,-0.01763 0.141497,-0.03626 0.211989,-0.05538 10e-4,-2.75e-4 0.002,-5e-4 0.003,-7.5e-4 0.290918,-0.07903 0.578249,-0.171032 0.861128,-0.275425 0.03362,-0.01199 0.06705,-0.02451 0.10051,-0.03694 4.86e-4,-1.82e-4 9.5e-4,-4.14e-4 0.0015,-6e-4 1.021213,-0.377146 1.997791,-0.943606 2.837168,-1.620431 0.137192,-0.110112 0.271616,-0.223694 0.403172,-0.340504 0.04374,-0.03883 0.0874,-0.07775 0.130495,-0.117309 0.364225,-0.332338 0.706199,-0.688701 1.017677,-1.071601 0.47313,-0.567889 0.880281,-1.188408 1.220603,-1.843804 0.0034,-0.0064 0.0066,-0.0128 0.01,-0.01921 0.0314,-0.06077 0.06222,-0.121809 0.09246,-0.183162 4.97e-4,-10e-4 10e-4,-0.002 0.0015,-0.003 0.191863,-0.389571 0.360898,-0.790404 0.505589,-1.199558 0.02199,-0.06857 0.05575,-0.140125 0.06063,-0.21225 2.14e-4,-7e-4 4.89e-4,-0.0014 7e-4,-0.0022 -1.22e-4,-4.75e-4 -2.44e-4,-9.5e-4 -3.57e-4,-0.0015 0.0018,-0.03348 -0.0028,-0.06706 -0.01783,-0.100533 -0.03894,-0.11586 -0.07927,-0.231225 -0.120182,-0.346394 -0.01016,-0.02893 -0.02041,-0.05784 -0.03088,-0.08667 -0.08547,-0.237455 -0.174976,-0.473449 -0.268265,-0.707957 -0.0061,-0.01642 -0.01233,-0.0328 -0.0183,-0.04925 -0.0175,-0.04272 -0.03532,-0.08532 -0.05306,-0.127957 -0.08276,-0.203296 -0.168005,-0.405583 -0.256103,-0.60665 -0.840943,-1.86078 -1.891645,-3.6447686 -3.215418,-5.2047678 -6.5e-4,-7.5e-4 -0.0012,-0.0015 -0.0019,-0.00225 -4.36e-4,-5e-4 -9e-4,-0.00105 -0.0013,-0.00155 -1.83e-4,-2.13e-4 -3.54e-4,-4.385e-4 -5.5e-4,-6.5e-4 C 17.968314,6.9103816 17.920517,6.8542684 17.872396,6.7984198 17.812203,6.7298142 17.751252,6.6617722 17.689916,6.5940816 17.546794,6.4348857 17.400792,6.2781782 17.251512,6.1243112 16.867061,5.7461172 16.472497,5.3729002 16.040799,5.0487238 15.857401,4.9070106 15.669512,4.7710317 15.476192,4.6424266 14.291922,3.8646401 13.302611,3.5319616 11.959421,3.4956715 10.739633,3.5029057 9.3834499,4.0794683 8.523673,4.6424266 Z"/>
 <path style="fill:#db3d7f" d="m 21.567986,2.3383306 c -0.03722,-0.1110253 -0.03399,-0.2509094 -0.103975,-0.3426957 -0.956816,0.1378799 -1.903923,0.3739592 -2.789533,0.763951 -0.938206,0.4028178 -1.957666,1.0790633 -2.67457,1.8025321 1.168192,1.215944 2.07305,2.6992648 3.13247,3.8524247 0.493579,0.7146508 0.990784,1.8234953 1.412349,2.5810333 0.09346,-0.169144 0.657929,-0.892681 0.736012,-1.0702413 0.616975,-1.2701791 0.747247,-2.7082987 0.714477,-4.0995235 -0.01416,-1.1735827 -0.188531,-2.3391491 -0.42723,-3.4874806 z"/>
 <path style="opacity:0.1;fill:#8b9cbe" d="m 21.463739,1.9956349 c -0.956816,0.1378799 -1.903434,0.3736751 -2.789044,0.7636669 -0.938206,0.4028178 -1.957883,1.0792536 -2.674787,1.8027225 0.08561,0.089108 0.167054,0.1826676 0.249998,0.2744122 0.694328,-0.6353631 1.586252,-1.2171129 2.424789,-1.577138 0.88561,-0.3899918 1.832228,-0.625787 2.789044,-0.7636669 0.06999,0.091786 0.06727,0.2317458 0.104492,0.3427712 0.232334,1.117713 0.400817,2.2516637 0.422848,3.3935322 1.78e-4,-0.1354016 0.0071,-0.2715297 0.0039,-0.4062473 C 21.980824,4.6521052 21.80693,3.4867375 21.568231,2.3384061 21.53101,2.2273807 21.533729,2.0874212 21.463739,1.9956349 Z"/>
 <path style="fill:#db3d7f" d="M 2.4318822,2.3383306 C 2.4691029,2.2273053 2.4658663,2.0874212 2.5358575,1.9956349 3.4926736,2.1335148 4.4397799,2.3695941 5.3253906,2.7595859 6.2635964,3.1624037 7.2830562,3.8386492 7.9999605,4.562118 6.8317682,5.778062 5.9269106,7.2613828 4.8674901,8.4145427 4.3739106,9.1291935 3.8767061,10.238038 3.4551406,10.995576 3.3616841,10.826432 2.7972119,10.102895 2.7191293,9.9253347 2.1021548,8.6551556 1.9718821,7.217036 2.0046526,5.8258112 2.0188127,4.6522285 2.1931838,3.4866621 2.4318822,2.3383306 Z"/>
 <path style="opacity:0.1;fill:#8b9cbe" d="m 2.5361292,1.9956349 c -0.069991,0.091786 -0.067271,0.2317458 -0.1044915,0.3427712 -0.2386983,1.1483314 -0.4125949,2.313699 -0.426755,3.4872816 -0.00318,0.1347176 0.00373,0.2708457 0.00391,0.4062473 0.022033,-1.1418685 0.1905162,-2.2758192 0.42285,-3.3935322 0.037221,-0.1110254 0.0345,-0.2509848 0.1044915,-0.3427712 0.9568161,0.1378799 1.9034335,0.3736751 2.7890444,0.7636669 0.838537,0.3600251 1.7304606,0.9417749 2.4247885,1.577138 C 7.8329066,4.7446919 7.914352,4.6511322 7.9999605,4.5620243 7.2830562,3.8385554 6.2633794,3.1621196 5.3251736,2.7593018 4.4395627,2.36931 3.4929453,2.1335148 2.5361292,1.9956349 Z"/>
 <path style="fill:#b2bfd9" d="M 8.523673,4.1423841 C 8.3305778,4.2708394 8.1429165,4.4066714 7.9597217,4.5482054 7.5277651,4.8724972 7.1330007,5.2458815 6.7483587,5.624268 6.6020882,5.775032 6.4590151,5.928577 6.3186585,6.0844605 6.2543625,6.1553055 6.1905154,6.2265256 6.1274753,6.2983766 c -0.04812,0.055849 -0.095919,0.1119613 -0.1433726,0.1683484 -3.05e-4,3.535e-4 -6e-4,7e-4 -9e-4,0.00105 -9e-4,0.0011 -0.00185,0.0022 -0.00275,0.00325 -1.3238134,1.5600227 -2.3745169,3.3440664 -3.2154776,5.204886 -0.087641,0.200024 -0.1724343,0.401268 -0.2547916,0.603498 -0.018177,0.04369 -0.036491,0.08733 -0.054428,0.131109 -0.00618,0.01703 -0.012681,0.03397 -0.018957,0.05098 -0.093237,0.234432 -0.1827864,0.47034 -0.2682048,0.707718 -0.010122,0.0279 -0.019974,0.05589 -0.029807,0.08388 -0.041074,0.115602 -0.081512,0.231401 -0.1206031,0.347701 -0.015051,0.03348 -0.019637,0.06706 -0.017825,0.100533 -1.215e-4,4.75e-4 -2.363e-4,9.5e-4 -3.577e-4,0.0015 2.258e-4,7e-4 4.894e-4,0.0014 7.15e-4,0.0022 0.00487,0.07212 0.038578,0.143676 0.060568,0.21225 0.1447,0.40918 0.3137704,0.810025 0.5056488,1.199618 4.777e-4,9.5e-4 9.55e-4,0.0019 0.00143,0.0029 0.030622,0.06213 0.061844,0.123953 0.093654,0.185481 0.00262,0.0051 0.00524,0.01011 0.00787,0.01517 0.3405082,0.656054 0.747997,1.277183 1.2215571,1.845589 0.3114954,0.382922 0.6534878,0.739306 1.0177359,1.07166 0.032593,0.02991 0.065699,0.05925 0.098662,0.08875 0.011085,0.0099 0.022025,0.01991 0.033145,0.02975 0.1315337,0.116749 0.2658873,0.230271 0.4030529,0.340326 0.840932,0.684024 1.826664,1.242434 2.8361538,1.619478 0.034165,0.01269 0.068268,0.02548 0.1025964,0.03772 0.2826686,0.104285 0.5697197,0.19623 0.8604138,0.275187 0.07142,0.0194 0.1430295,0.03823 0.2148496,0.0561 0.7035148,0.176409 1.4255228,0.277282 2.1504678,0.303741 0.003,1.22e-4 0.0059,3.08e-4 0.0089,4.17e-4 0.06325,0.0023 0.126528,0.0037 0.189812,0.0048 0.02142,3.99e-4 0.04284,10e-4 0.06426,0.0013 0.04282,4.97e-4 0.08564,3.2e-4 0.128469,3.05e-4 0.0428,2.1e-5 0.08561,2.13e-4 0.128409,-3.05e-4 0.02144,-2.74e-4 0.04289,-9e-4 0.06432,-0.0013 0.06324,-0.0011 0.126432,-0.0025 0.189634,-0.0048 0.0031,-1.22e-4 0.0063,-3.04e-4 0.0095,-4.17e-4 0.724787,-0.02649 1.446688,-0.127366 2.15005,-0.303741 0.07088,-0.01764 0.141497,-0.03626 0.211989,-0.05538 10e-4,-2.74e-4 0.002,-5e-4 0.003,-7.5e-4 0.290918,-0.07902 0.578249,-0.171032 0.861128,-0.275425 0.03362,-0.01199 0.06705,-0.02452 0.10051,-0.03694 4.86e-4,-1.82e-4 9.5e-4,-4.14e-4 0.0015,-6e-4 1.021213,-0.377146 1.997791,-0.943606 2.837168,-1.62043 0.137192,-0.110113 0.271616,-0.223695 0.403172,-0.340505 0.04374,-0.03883 0.0874,-0.07775 0.130495,-0.117308 0.364225,-0.332338 0.706199,-0.688701 1.017677,-1.071601 0.47313,-0.56789 0.880281,-1.188409 1.220603,-1.843804 0.0034,-0.0064 0.0066,-0.01281 0.01,-0.01922 0.0314,-0.06077 0.06222,-0.121808 0.09246,-0.183161 4.97e-4,-10e-4 10e-4,-0.002 0.0015,-0.003 0.191863,-0.389571 0.360898,-0.790404 0.505589,-1.199559 0.02199,-0.06857 0.05575,-0.140125 0.06063,-0.21225 2.14e-4,-7e-4 4.89e-4,-0.0014 7e-4,-0.0021 -1.22e-4,-4.75e-4 -2.44e-4,-9.5e-4 -3.57e-4,-0.0015 0.0018,-0.03347 -0.0028,-0.06706 -0.01783,-0.100533 -0.03894,-0.11586 -0.07927,-0.231225 -0.120182,-0.346394 -0.01016,-0.02893 -0.02041,-0.05784 -0.03088,-0.08667 -0.08547,-0.237455 -0.174976,-0.473449 -0.268265,-0.707956 -0.0061,-0.01642 -0.01233,-0.0328 -0.0183,-0.04926 -0.0175,-0.04272 -0.03532,-0.08532 -0.05306,-0.127957 -0.08276,-0.203296 -0.168005,-0.405583 -0.256103,-0.60665 -0.840943,-1.8607801 -1.891645,-3.6447683 -3.215418,-5.2047675 -6.5e-4,-7.5e-4 -0.0012,-0.0015 -0.0019,-0.00225 -4.36e-4,-5e-4 -9e-4,-0.00105 -0.0013,-0.00155 -1.83e-4,-2.13e-4 -3.54e-4,-4.385e-4 -5.5e-4,-6.5e-4 -0.04754,-0.0565 -0.09533,-0.1126128 -0.143455,-0.1684614 C 17.812203,6.2297715 17.751252,6.1617295 17.689916,6.0940389 17.546794,5.934843 17.400792,5.7781355 17.251512,5.6242685 16.867061,5.2460745 16.472497,4.8728578 16.040799,4.5486812 15.857401,4.4069681 15.669512,4.2709892 15.476192,4.1423841 14.291922,3.3645976 13.302611,3.0319191 11.959421,2.995629 10.739633,3.0028632 9.3834499,3.5794258 8.523673,4.1423841 Z"/>
 <path style="fill:#17191e" d="m 7.3646582,11.000027 c -0.4268852,3.12e-4 -0.8540429,0.06031 -1.2616277,0.184209 -0.1185473,0.717401 -0.1780524,1.47145 0.065415,2.171376 0.1907803,0.617947 0.6743366,1.142655 1.2853421,1.386505 0.7444236,0.30835 1.5929305,0.319603 2.3721954,0.142333 0.1002763,-0.449001 0.183994,-0.905882 0.1720968,-1.367366 0.019545,-0.566348 -0.1130542,-1.156048 -0.457223,-1.620029 -0.3964314,-0.547622 -1.0834913,-0.827649 -1.7501585,-0.877584 -0.1414915,-0.013 -0.2837456,-0.01955 -0.4260401,-0.01944 z m -0.00877,0.590481 c 0.2286945,-0.0043 0.4577835,0.01386 0.6808555,0.05937 0.097727,0.04036 0.2451729,0.01832 0.3140065,0.09905 -0.312301,0.120677 -0.5796122,0.372838 -0.6662917,0.695752 -0.1057998,0.338311 -0.00125,0.725348 0.2515789,0.976272 0.3641391,0.404475 1.0860218,0.423191 1.4650319,0.03078 -0.00977,0.310847 -0.019985,0.627907 -0.096038,0.927935 -0.3152754,0.03162 -0.6398553,0.04457 -0.9542812,-0.0054 C 7.7762858,14.312677 7.1831147,14.034253 6.8941831,13.522833 6.5657358,12.96231 6.5627453,12.292804 6.6434758,11.671111 c 0.092628,-0.05077 0.2010032,-0.03957 0.3025545,-0.04956 0.1355961,-0.01779 0.2726407,-0.02849 0.4098578,-0.03109 z"/>
 <path style="fill:#17191e" d="m 16.63521,11.000027 c 0.426885,3.12e-4 0.854043,0.06031 1.261628,0.184209 0.118547,0.717401 0.178052,1.47145 -0.06541,2.171376 -0.19078,0.617947 -0.674337,1.142655 -1.285342,1.386505 -0.744424,0.30835 -1.592931,0.319603 -2.372196,0.142333 -0.100276,-0.449001 -0.183994,-0.905882 -0.172097,-1.367366 -0.01954,-0.566348 0.113055,-1.156048 0.457223,-1.620029 0.396432,-0.547622 1.083492,-0.827649 1.750159,-0.877584 0.141492,-0.013 0.283746,-0.01955 0.42604,-0.01944 z m 0.0088,0.590481 c -0.228694,-0.0043 -0.457783,0.01386 -0.680855,0.05937 -0.09773,0.04036 -0.245173,0.01832 -0.314007,0.09905 0.312301,0.120677 0.579612,0.372838 0.666292,0.695752 0.1058,0.338311 0.0012,0.725348 -0.251579,0.976272 -0.364139,0.404475 -1.086022,0.423191 -1.465032,0.03078 0.0098,0.310847 0.01999,0.627907 0.09604,0.927935 0.315275,0.03162 0.639855,0.04457 0.954281,-0.0054 0.574464,-0.06159 1.167635,-0.340014 1.456567,-0.851434 0.328447,-0.560523 0.331438,-1.230029 0.250707,-1.851722 -0.09263,-0.05077 -0.201003,-0.03957 -0.302554,-0.04956 -0.135596,-0.01779 -0.272641,-0.02849 -0.409858,-0.03109 z"/>
 <path style="fill:#17191e" d="m 10.005751,16.243489 c -0.028495,0.06503 0.05563,0.109186 0.08775,0.159764 0.468144,0.496555 0.930409,0.997525 1.406695,1.488059 0.09634,0.103164 0.240179,0.148123 0.379491,0.185856 9e-4,0.292634 0.0031,0.58567 -9e-4,0.878705 0.05428,0.05981 0.153787,0.05098 0.224348,0.01967 -0.005,-0.295846 0.0054,-0.592092 -0.0059,-0.887536 0.143384,-0.05098 0.297171,-0.09554 0.403012,-0.203519 0.477643,-0.511809 0.962976,-1.019201 1.439262,-1.532214 0.01764,-0.03372 0.07916,-0.06383 0.05473,-0.105573 -0.535992,-0.149729 -1.0946,-0.212752 -1.652302,-0.24045 -0.787478,-0.02729 -1.580836,0.03212 -2.336201,0.237239 z"/>
 <path style="fill:#17191e" d="m 11.959423,2.9956505 c -0.517293,0.00307 -1.059007,0.1087019 -1.577097,0.2720942 0.463239,1.6792893 0.903198,3.3648962 1.360339,5.0456991 0.06349,-0.0069 0.126982,-0.013015 0.190469,-0.01951 0.124698,-1.7598905 0.307733,-3.517354 0.426182,-5.2776394 -0.130067,-0.010006 -0.263061,-0.016945 -0.399893,-0.020642 z M 10.163064,3.3407949 C 9.5424898,3.5583947 8.9670206,3.8520907 8.5236705,4.1423841 8.2659342,4.3293656 7.7501816,4.6811333 8.2174915,4.3637357 9.1319465,5.8256917 10.05743,7.2811121 10.975548,8.741037 11.033338,8.718297 11.091118,8.695157 11.148907,8.671199 11.016235,8.0088523 10.913647,7.3416302 10.778941,6.6796891 10.667024,6.1278002 10.584438,5.5710639 10.472523,5.0195815 10.358137,4.461603 10.270969,3.8993319 10.163064,3.3407949 Z"/>
 <g transform="matrix(0.49999671,0,0,0.49999671,1.3110387e-5,0.49575347)">
  <path style="opacity:0.2;fill:none;stroke:#000000;stroke-width:2;stroke-linecap:round;stroke-linejoin:round" d="M 14.000263,35.000723 5.0002634,43"/>
  <path style="opacity:0.2;fill:none;stroke:#000000;stroke-width:2;stroke-linecap:round;stroke-linejoin:round" d="m 19.000263,35.000723 -9,7.999277"/>
  <path style="opacity:0.2;fill:none;stroke:#000000;stroke-width:2;stroke-linecap:round;stroke-linejoin:round" d="M 29,35.000723 38,43"/>
  <path style="opacity:0.2;fill:none;stroke:#000000;stroke-width:2;stroke-linecap:round;stroke-linejoin:round" d="M 34,35.000723 43,43"/>
 </g>
 <path style="fill:none;stroke:#db3d7f;stroke-width:0.99999344;stroke-linecap:round;stroke-linejoin:round" d="M 7.0000985,17.496 2.5001284,21.495507"/>
 <path style="fill:none;stroke:#db3d7f;stroke-width:0.99999344;stroke-linecap:round;stroke-linejoin:round" d="M 9.5000821,17.496 5.0001117,21.495507"/>
 <path style="fill:none;stroke:#db3d7f;stroke-width:0.99999344;stroke-linecap:round;stroke-linejoin:round" d="m 14.499918,17.496 4.49997,3.999507"/>
 <path style="fill:none;stroke:#db3d7f;stroke-width:0.99999344;stroke-linecap:round;stroke-linejoin:round" d="m 16.999901,17.496 4.499971,3.999507"/>
</svg>
