<svg xmlns="http://www.w3.org/2000/svg" width="24" height="24" version="1">
 <path style="opacity:0.2" d="M 10.75 16.333984 C 7.123461 17.452177 4.538182 19.569469 2 21.5 L 11 21.5 L 11 21 L 13 21 L 13 18.732422 L 14.052734 18.351562 L 14.019531 17.429688 L 12.724609 16.810547 C 12.724609 16.810547 11.970402 16.876685 11.599609 16.859375 C 11.256673 16.580567 11.157782 16.483246 10.75 16.333984 z"/>
 <path style="fill:#b2bfd9" d="m 8.835564,15 h 6.003825 L 17,17.5 H 7 Z"/>
 <path style="fill:#d59f5b" d="m 14.019878,16.930277 -1.295435,-0.620355 c 0,0 -0.754251,0.06669 -1.125044,0.04938 -0.342936,-0.278807 -0.440688,-0.376974 -0.84847,-0.526236 C 7.12439,16.951259 4.538182,19.069469 2,21 h 11.511414 l 0.0041,-2.767898 0.536934,-0.380458 z"/>
 <path style="opacity:0.2" d="m 10,17.830087 1.555262,-1.020165 c 0,0 0.754252,0.06669 1.125044,0.04938 0.342936,-0.278807 0.440687,-0.376974 0.84847,-0.526236 C 17.155315,17.451259 19.461818,19.569469 22,21.5 H 11 v -2.368088 l -1,-0.380458 z"/>
 <path style="fill:#febd6a" d="m 10,17.330087 1.555262,-1.020165 c 0,0 0.754252,0.06669 1.125044,0.04938 0.342936,-0.278807 0.440687,-0.376974 0.84847,-0.526236 C 17.155315,16.951259 19.461818,19.069469 22,21 H 11 v -2.368088 l -1,-0.380458 z"/>
 <path style="opacity:0.1" d="M 8.5,6 11.875282,4.9 15,6 l 2,2.5 0.499576,3.201378 c 0.04406,2.676736 -3.35813,4.638008 -5.603846,4.69861 -1.854404,0.0048 -3.7119445,-1.504347 -4.5268165,-2.529771 C 6.4809785,12.896687 6.566758,12.460358 6.54821,11.209986 L 7,8 Z"/>
 <path style="fill:#17191e" d="M 8.5,5.5 11.875282,4.4 15,5.5 17,8 l 0.499576,3.201378 c 0.04406,2.676736 -3.35813,4.638008 -5.603846,4.69861 -1.854404,0.0048 -3.7119445,-1.504347 -4.5268165,-2.529771 C 6.4809785,12.396687 6.566758,11.960358 6.54821,10.709986 L 7,7.5 Z"/>
 <path style="opacity:0.1" d="M 8,9.7707815 9.3314005,8.5 H 10.004158 L 10.5,9.545817 l -2e-6,1.416506 L 8.8409855,12 8,11.5 Z"/>
 <path style="fill:#bddff5" d="M 8,9.2707815 9.3314005,8 H 10.004158 L 10.5,9.045817 l -2e-6,1.416506 L 8.8409855,11.5 8,11 Z"/>
 <path style="fill:#17191e" d="M 8.1259765,16.885742 C 7.708077,17.092026 7.304819,17.311237 6.9121095,17.539062 L 6.3125,21 h 1.100586 z"/>
 <path style="fill:#17191e" d="M 15.735352,16.701172 17.256836,21 h 1.15039 l -1.252929,-3.536133 c -0.451763,-0.27 -0.924137,-0.525122 -1.418945,-0.762695 z"/>
 <path style="opacity:0.2;fill:#8b9cbe" d="M 10.750977,15.833008 C 7.124438,16.951201 4.538182,19.069469 2,21 h 0.6582031 c 2.3356649,-1.700fae9 4.7757599,-3.644237 8.0927739,-4.666992 0.37983,0.139031 0.503395,0.245755 0.793945,0.483398 l 0.01074,-0.0068 c 0,0 0.278221,0.01975 0.583985,0.03516 0.305853,-0.0154 0.58496,-0.03516 0.58496,-0.03516 l 0.0127,0.0059 c 0.289009,-0.236401 0.412091,-0.343723 0.791018,-0.482423 3.317007,1.022753 5.532349,2.879837 7.828124,4.666992 H 22 c -2.538182,-1.930531 -4.845141,-4.048799 -8.471679,-5.166992 -0.378928,0.1387 -0.502009,0.246022 -0.791017,0.482422 l -0.0127,-0.0059 c 0,0 -0.279107,0.01976 -0.584961,0.03515 -0.305763,-0.0154 -0.583984,-0.03515 -0.583984,-0.03515 l -0.01074,0.0068 c -0.29055,-0.237643 -0.414115,-0.344368 -0.793946,-0.483398 z"/>
 <circle style="fill:#ec503a" cx="11.5" cy="17.5" r=".5"/>
 <path style="opacity:0.2" d="M 7.0600585,7.40075 C 7.6749885,5.837935 9.679138,4.652528 11.163252,3.8005943 L 11.642827,2.5 h 0.990976 l 0.553725,1.2053803 c 1.488058,0.8782227 3.255034,2.2457617 3.878261,3.6841377 0.540475,1.2457675 1.168448,2.1947025 0.846423,3.508291 L 17.642011,12 C 17.356489,11.656076 17.181291,10.972673 17.018684,10.027027 16.607887,7.274251 14.429787,6.4702915 12.213768,6.5 9.699577,6.6939815 8.1542255,7.6331255 7.198555,9.8288965 6.988251,10.320805 6.8485885,10.853329 6.634628,11.637304 L 6.2939215,11.169835 C 5.4490915,10.137697 6.6531895,8.5254 7.0600585,7.40075 Z"/>
 <path style="fill:#ed5e4a" d="M 7.0600585,6.90075 C 7.6749885,5.337935 9.679138,4.152528 11.163252,3.3005943 L 11.642827,2 h 0.990976 l 0.553725,1.2053803 c 1.488058,0.8782227 3.255034,2.2457617 3.878261,3.6841377 0.540475,1.2457675 1.168448,2.1947025 0.846423,3.508291 L 17.642011,11.5 C 17.356489,11.156076 17.181291,10.472673 17.018684,9.527027 16.607887,6.774251 14.429787,5.9702915 12.213768,6 9.699577,6.1939815 8.1542255,7.1331255 7.198555,9.3288965 6.988251,9.8208045 6.8485885,10.353329 6.634628,11.137304 L 6.2939215,10.669835 C 5.4490915,9.6376965 6.6531895,8.0254 7.0600585,6.90075 Z"/>
 <path style="opacity:0.1" d="M 16,9.7707815 14.668599,8.5 H 13.995842 L 13.5,9.545817 l 2e-6,1.416506 L 15.159015,12 16,11.5 Z"/>
 <path style="fill:#bddff5" d="M 16,9.2707815 14.668599,8 H 13.995842 L 13.5,9.045817 l 2e-6,1.416506 L 15.159015,11.5 16,11 Z"/>
 <path style="opacity:0.1" d="m 11,12.5 -1,0.929688 v 2.012695 L 11,16.5 h 1 1 l 1,-1.057617 V 13.429688 L 13,12.5 h -1 z m 0.392578,1 H 12 12.607422 L 13,13.865235 v 1.179687 L 12.569336,15.5 H 12 11.430664 L 11,15.044922 v -1.179687 z"/>
 <path style="fill:#bddff5" d="m 11,12 -1,0.929688 v 2.012695 L 11,16 h 1 1 l 1,-1.057617 V 12.929688 L 13,12 h -1 z m 0.392578,1 H 12 12.607422 L 13,13.365235 v 1.179687 L 12.569336,15 H 12 11.430664 L 11,14.544922 v -1.179687 z"/>
 <path style="opacity:0.1;fill:#8b9cbe" d="M 11.642578,2 11.163086,3.3007813 C 9.678972,4.152715 7.6745005,5.3375755 7.0595705,6.9003905 6.72754,7.818175 5.865646,9.0608755 6.0185545,10.047852 6.133078,9.16473 6.7815785,8.168804 7.0595705,7.4003905 7.6745005,5.8375755 9.678972,4.652715 11.163086,3.8007813 L 11.642578,2.5 h 0.991211 L 13.1875,3.7050781 c 1.488058,0.8782229 3.254702,2.2461944 3.877929,3.6845704 0.400309,0.922692 0.847114,1.683039 0.921875,2.548828 C 18.08259,8.851824 17.540838,7.9854415 17.065429,6.8896485 16.442202,5.4512725 14.675558,4.083301 13.1875,3.2050781 L 12.633789,2 Z"/>
</svg>
