<svg xmlns="http://www.w3.org/2000/svg" width="24" height="24" version="1.1">
 <path style="fill:#1e88e5" d="M 3,3 C 2.446,3 2,3.446 2,4 v 1 14 c 0,0.554 0.446,1 1,1 h 18 c 0.554,0 1,-0.446 1,-1 V 5 4 C 22,3.446 21.554,3 21,3 Z"/>
 <rect style="opacity:0.1" width="20" height="4" x="2" y="16.5" rx="1" ry="1"/>
 <rect style="fill:#253951" width="20" height="4" x="2" y="17" rx="1" ry="1"/>
 <path style="opacity:0.2;fill:#8b9cbe" d="M 3,3 C 2.446,3 2,3.446 2,4 v 0.5 c 0,-0.554 0.446,-1 1,-1 h 18 c 0.554,0 1,0.446 1,1 V 4 C 22,3.446 21.554,3 21,3 Z"/>
 <path style="opacity:0.2" d="m 2,20 v 0.5 c 0,0.554 0.446,1 1,1 h 18 c 0.554,0 1,-0.446 1,-1 V 20 c 0,0.554 -0.446,1 -1,1 H 3 C 2.446,21 2,20.554 2,20 Z"/>
 <rect style="opacity:0.2;fill:#8b9cbe" width="4" height="4" x="10" y="17" rx="1" ry="1"/>
 <rect style="opacity:0.1;fill:#8b9cbe" width="4" height="4" x="4" y="17" rx="1" ry="1"/>
 <rect style="opacity:0.1;fill:#8b9cbe" width="4" height="4" x="16" y="17" rx="1" ry="1"/>
 <path style="opacity:0.2;fill:#8b9cbe" d="M 12 19 A 2.5 2.5 0 0 0 10.001953 20.007812 C 10.006425 20.557922 10.448797 21 11 21 L 13 21 C 13.551869 21 13.994634 20.556896 13.998047 20.005859 A 2.5 2.5 0 0 0 12 19 z"/>
 <path style="opacity:0.2;fill:#8b9cbe" d="m 12,20 a 1,1 0 0 0 -1,1 h 2 a 1,1 0 0 0 -1,-1 z"/>
 <path style="opacity:0.2" d="m 6,7 v 6.75 c 0,0.4155 0.3345,0.75 0.75,0.75 h 10.5 C 17.6655,14.5 18,14.1655 18,13.75 V 7 Z"/>
 <path style="fill:#8b9cbe" d="m 6,6.5 v 6.75 C 6,13.6655 6.3345,14 6.75,14 h 10.5 C 17.6655,14 18,13.6655 18,13.25 V 6.5 Z"/>
 <path style="fill:#253951" d="m 6.75,5 h 10.5 C 17.6655,5 18,5.3345 18,5.75 V 7 H 6 V 5.75 C 6,5.3345 6.3345,5 6.75,5 Z"/>
 <path style="opacity:0.2;fill:#8b9cbe" d="M 12 19 A 2.5 2.5 0 0 0 10.001953 20.007812 C 10.003095 20.148337 10.032945 20.281542 10.085938 20.402344 A 2.5 2.5 0 0 1 12 19.5 A 2.5 2.5 0 0 1 13.912109 20.404297 C 13.966049 20.28226 13.997166 20.148096 13.998047 20.005859 A 2.5 2.5 0 0 0 12 19 z"/>
 <path style="opacity:0.2;fill:#8b9cbe" d="m 12,20 a 1,1 0 0 0 -1,1 h 0.135742 A 1,1 0 0 1 12,20.5 1,1 0 0 1 12.865235,21 H 13 a 1,1 0 0 0 -1,-1 z"/>
</svg>
