<svg xmlns="http://www.w3.org/2000/svg" width="24" height="24" version="1.1">
 <path style="opacity:.2" d="m17.464692 14.2694c0.507763 3.5481-2.028287 8.453-2.868663 8.2067-0.28538 0.3345-5.5440657-2.8904-6.156167-6.3764-0.057094-0.3252-1.5175639-2.6027-0.8482682-1.8914 0.9517193 1.0114-0.9836227-1.9992-0.5525944-2.926 0.6355243-1.3664 4.1632636-1.5667 5.8153406-1.5667 1.507753 0 3.275385-0.685 4.032517 0.1768 0.635135 0.7228 0.358051 2.8412 0.577835 4.377z"/>
 <path style="fill:#fec786" d="m17.464692 13.7694c0.507763 3.5481-2.028287 8.453-2.868663 8.2067-0.28538 0.3345-5.5440657-2.8904-6.156167-6.3764-0.057094-0.3252-1.5175639-2.6027-0.8482682-1.8914 0.9517193 1.0114-0.9836227-1.9992-0.5525944-2.926 0.6355243-1.3664 4.1632636-1.5667 5.8153406-1.5667 1.507753 0 3.275385-0.685 4.032517 0.1768 0.635135 0.7229 0.358051 2.8412 0.577835 4.377z"/>
 <path style="fill:#4f4f4f" d="m13.00015 18.9331c0-0.07 0.225196-0.1558 0.927103-0.3547 0.323013-0.091 0.433968-0.1002 0.508715-0.04 0.05258 0.043 0.07801 0.091 0.05651 0.1086-0.03642 0.03-1.369499 0.3531-1.453986 0.3531-0.02108 0-0.03834-0.03-0.03834-0.067z"/>
 <path style="fill:#4f4f4f" d="m13.3317 17.859c-0.363103-0.1449-0.46425-0.3624-0.120241-0.2586 0.552233 0.1667 0.570647 0.139 0.529028-0.7964-0.026-0.5843 0.0011-0.8545 0.07973-0.7961 0.06549 0.049 0.139301 0.5164 0.164014 1.0393 0.04934 1.0441 0.02024 1.0803-0.652527 0.8118z"/>
 <path style="opacity:.2" d="m5.598533 14.677c-0.3435884-0.2288-0.6241915-0.4341-0.6235628-0.4562 0.000645-0.022 0.1788118-0.1821 0.3959601-0.3553 0.3758313-0.2999 0.5707126-0.5638 0.5697411-0.7715-0.0005-0.1122-1.3941033-1.9893-2.2640312-3.0496-0.336613-0.4103-0.6359635-0.8111-0.6652226-0.8908-0.033077-0.09 0.00905-0.224 0.1113864-0.3543 0.343809-0.4378 0.9256501-1.3456 1.2467555-1.9452 0.318468-0.5948 0.7007406-1.0833 0.7664113-0.9795 0.095055 0.1502 0.1908234 0.056 0.9473354-0.9309 0.7604264-0.9921 1.3833365-1.9191 1.5357431-1.9191 0.1719477 0 0.1006985 0.1668-0.2261557 0.5296-0.5839433 0.6077-0.7655973 1.4471-0.7666173 1.9959-0.051564 1.0354 0.8122274 2.343 1.7525539 2.7647 0.7649289 0.3215 1.5581147 0.21 2.2355748-0.3142 0.534051-0.4131 0.496148-0.9743-0.125344-1.8558-0.408269-0.5791-0.7271083-0.63-0.9620203-0.5254-0.1671393 0.074-0.651773 0.8547-0.8060205 1.3309-0.053812 0.1661-0.2086085 0.1046-0.2086085-0.083 0-0.3902 0.4513228-1.8766 0.6907202-2.3012 0.3358616-0.5957 0.7026416-0.6247 1.0037471-0.5658 0.168051 0.033 0.295814-0.069 0.448482-0.1877l0.213485-0.164 1.143312 0.5591c0.628822 0.3074 1.310663 0.6751 1.515202 0.8169 0.890417 0.6174 1.603752 1.1767 1.613137 1.2649 0.0056 0.052 0.002 0.4054-0.0081 0.7843-0.01739 0.6571-0.01024 0.689 0.154279 0.689 0.334112 0 0.814289-0.323 1.259874-0.8477 0.780261-0.9187 0.881096-1.1371 0.881096-1.9082 0.05636-0.5902-0.453334-1.7142-0.953206-1.2402-0.209558 0.2047-0.452562 0.9255-0.376931 1.118 0.05102 0.1299 0.371429 0.2193 0.548274 0.153 0.185524-0.07 0.155689 0.074-0.05405 0.26-0.274856 0.2438-0.574643 0.2858-0.795202 0.1113-0.272667-0.2157-0.346169-1.0727-0.139164-1.6227 0.19656-0.5222 0.610597-1.2174 0.757965-1.2726 0.165867-0.062 0.352132 0.067 1.015853 0.9181 1.068845 1.5685 2.235102 2.9728 3.27783 4.471 0.129758 0.1853 0.255824 0.4567 0.280149 0.6031 0.0405 0.2438-0.0082 0.3248-0.57884 0.9624-0.939611 1.0498-1.57205 1.9013-1.57205 2.1166 0 0.232 0.270519 0.4199 0.696788 0.4839 0.308886 0.046 0.512322 0.1493 0.512322 0.259-0.506794 0.6743-2.291379 3.4292-2.532106 3.2416-0.02353-0.037-0.06286-0.4801-0.08738-0.9843-0.184684-1.3659-0.251446-3.3235-0.414754-4.6562-0.04894-0.26-0.05647-0.2643-0.381963-0.2201-0.798284 0.1083-2.574767 0.4304-3.087198 0.7443-0.552488 0.3384-0.667252 0.3672-0.925478 0.2322-0.264643-0.1383-1.65844-0.5939-2.485821-0.695-2.4418656-0.2982-2.2570056-0.2478-2.2570056 0.045l0.5349657 5.3752s0.2564766 1.1341 0.042159 1.1341c-1.1646372-0.4331-1.9475547-1.2588-2.8542838-1.8687z"/>
 <path style="fill:#4f4f4f" d="m5.598533 14.177c-0.3435884-0.2288-0.6241915-0.4341-0.6235628-0.4562 0.000645-0.022 0.1788118-0.1821 0.3959601-0.3553 0.3758313-0.2999 0.5707126-0.5637 0.5697411-0.7715-0.0005-0.1121-1.3941033-1.9893-2.2640312-3.0496-0.336613-0.4103-0.6359635-0.8111-0.6652226-0.8908-0.033077-0.09 0.00905-0.224 0.1113864-0.3543 0.343809-0.4378 0.9256501-1.3456 1.2467555-1.9452 0.318468-0.5948 0.7007406-1.0833 0.7664113-0.9795 0.095055 0.1502 0.1908234 0.056 0.9473354-0.9309 0.7604264-0.9921 1.3833365-1.9191 1.5357431-1.9191 0.1719477 0 0.1006985 0.1668-0.2261557 0.5296-0.5839433 0.6077-0.7655973 1.4471-0.7666173 1.996-0.051564 1.0353 0.8122274 2.343 1.7525539 2.7646 0.7649289 0.3215 1.5581147 0.21 2.2355748-0.3141 0.534051-0.4132 0.496148-0.9744-0.125344-1.8559-0.408269-0.5791-0.7271083-0.6299-0.9620203-0.5253-0.1671393 0.074-0.651773 0.8546-0.8060205 1.3308-0.053812 0.1661-0.2086085 0.1046-0.2086085-0.083 0-0.3902 0.4513228-1.8766 0.6907202-2.3012 0.3358616-0.5957 0.7026416-0.6247 1.0037471-0.5658 0.168051 0.033 0.295814-0.069 0.448482-0.1877l0.213485-0.164 1.143312 0.5591c0.628822 0.3074 1.310663 0.6751 1.515202 0.8169 0.890417 0.6174 1.603752 1.1767 1.613137 1.2649 0.0056 0.052 0.002 0.4054-0.0081 0.7843-0.01739 0.6571-0.01024 0.6891 0.154279 0.6891 0.334112 0 0.814289-0.3231 1.259874-0.8478 0.780261-0.9187 0.881096-1.1371 0.881096-1.9082 0.05636-0.5902-0.453334-1.7142-0.953206-1.2402-0.209558 0.2047-0.452562 0.9255-0.376931 1.118 0.05102 0.1299 0.371429 0.2193 0.548274 0.153 0.185524-0.07 0.155689 0.074-0.05405 0.2601-0.274856 0.2438-0.574643 0.2857-0.795202 0.1113-0.272667-0.2157-0.346169-1.0728-0.139164-1.6228 0.19656-0.5222 0.610597-1.2173 0.757965-1.2726 0.165867-0.062 0.352132 0.067 1.015853 0.9181 1.068845 1.5685 2.235102 2.9728 3.27783 4.4711 0.129758 0.1853 0.255824 0.4566 0.280149 0.603 0.0405 0.2438-0.0082 0.3248-0.57884 0.9624-0.939611 1.0499-1.57205 1.9013-1.57205 2.1166 0 0.232 0.270519 0.4199 0.696788 0.4839 0.308886 0.046 0.512322 0.1493 0.512322 0.259-0.506794 0.6743-2.291379 3.4293-2.532106 3.2417-0.02353-0.037-0.06286-0.4802-0.08738-0.9844-0.184684-1.3659-0.251446-2.5232-0.414754-3.8558-0.04894-0.26-0.05647-0.2643-0.381963-0.2202-0.798284 0.1084-2.574767 0.4304-3.087198 0.7443-0.552488 0.3384-0.667252 0.3672-0.925478 0.2322-0.264643-0.1383-1.65844-0.5939-2.485821-0.6949-2.4418656-0.2982-2.2570056-0.2478-2.2570056 0.045l0.5349657 4.5748s0.2564766 1.1341 0.042159 1.1341c-1.1646372-0.4331-1.9475547-1.2588-2.8542838-1.8687z"/>
 <path style="fill:#4f4f4f" d="m9.206304 14.0009c-0.054088 0-0.088126 0.01-0.099826 0.017-0.040884 0.035-0.081362 0.241-0.090318 0.4581l-0.01616 0.3943 1.034383 0.067c0.582438 0.066 1.229594 0.084 1.776896 0.034 0.192413 0 0.21419-0.02 0.168278-0.1507-0.122708-0.3496-0.317636-0.5517-0.550467-0.57-0.127373-0.01-0.685315-0.081-1.239739-0.1574-0.47595-0.066-0.820779-0.098-0.9830449-0.093z"/>
 <path style="fill:#4f4f4f" d="m14.180082 13.0005c-0.07344 0-0.118476 0.01-0.129167 0.021-0.04002 0.049-0.0604 0.2874-0.04635 0.5288 0.02324 0.3989 0.04388 0.4374 0.228755 0.4209 0.515104 0.035 1.034597 0.029 1.558884 0.029 0.41118-0.023 0.918159-0.3704 1.207865-0.5587 0-0.056-0.03866-0.1018-0.08677-0.1018-0.0481 0-0.695715-0.092-1.438591-0.2036-0.595325-0.09-1.074313-0.1388-1.294633-0.1353z"/>
 <path style="opacity:.1;fill:#8b9cbe" d="m16.479576 2.0004c-0.02227 0.0007-0.04372 0.01-0.06445 0.014-0.147368 0.055-0.561238 0.7503-0.757798 1.2725-0.108843 0.2892-0.137947 0.6613-0.103514 0.9824 0.01703-0.1707 0.04882-0.3371 0.103514-0.4824 0.19656-0.5222 0.61043-1.2172 0.757798-1.2725 0.165867-0.062 0.351885 0.067 1.015605 0.918 1.068845 1.5684 2.23553 2.9724 3.278258 4.4706 0.09136 0.1305 0.167221 0.2914 0.220699 0.4336 0.07651-0.1285 0.07965-0.2092 0.05957-0.3301-0.02432-0.1464-0.15051-0.4182-0.280268-0.6035-1.042728-1.4982-2.209413-2.9022-3.278258-4.4706-0.580755-0.7445-0.795309-0.9369-0.951153-0.9316zm-8.8601822 0.5244c-0.1524066 0-0.7756767 0.9268-1.5361031 1.9189-0.756512 0.987-0.8521927 1.0809-0.9472479 0.9306-0.065671-0.1038-0.4481187 0.3848-0.7665867 0.9795-0.3211054 0.5996-0.9032374 1.5075-1.2470464 1.9453-0.1023331 0.1303-0.1444033 0.2645-0.1113259 0.3545 0.00711 0.019 0.069839 0.1034 0.1054667 0.1562 0.00275 0 0.00301-0.01 0.00586-0.011 0.3438089-0.4378 0.9259409-1.3457 1.2470464-1.9453 0.3184679-0.5948 0.7009158-1.0833 0.7665865-0.9795 0.095055 0.1503 0.1907359 0.056 0.9472479-0.9306 0.2937769-0.3833 0.5359892-0.7152 0.7695163-1.0293 0.1198627-0.3018 0.2918994-0.6021 0.5400286-0.8603 0.3268542-0.3628 0.3985059-0.5293 0.2265582-0.5293zm3.2499372 0.624-0.213862 0.164c-0.152668 0.1182-0.280183 0.2205-0.448234 0.1875-0.3011055-0.059-0.6680255-0.03-1.0038871 0.5655-0.2393974 0.4245-0.6913927 1.9114-0.6913927 2.3017 0 0.072 0.02641 0.1174 0.057616 0.1464 0.1195847-0.5904 0.439904-1.6043 0.6337768-1.9482 0.3358616-0.5957 0.7027816-0.6242 1.003887-0.5654 0.168051 0.033 0.295566-0.069 0.448234-0.1875l0.213862-0.164 1.142557 0.5586c0.628822 0.3074 1.311057 0.6755 1.515596 0.8173 0.881077 0.611 1.583549 1.1618 1.607391 1.2588 0.0031-0.203 0.0094-0.4611 0.0059-0.4941-0.0094-0.088-0.722833-0.6472-1.61325-1.2647-0.204539-0.1418-0.886775-0.5099-1.515596-0.8173l-1.142558-0.5586zm5.281149 1.2929c-0.0532 0.1872-0.08412 0.3635-0.05273 0.4434 0.01691 0.043 0.06785 0.078 0.128904 0.1084 0.120956-0.028 0.2451-0.089 0.365227-0.1953 0.209739-0.1861 0.239234-0.3303 0.05371-0.2608-0.148386 0.056-0.38852-0.0001-0.495108-0.096zm1.264625 0.2822c-0.0259 0.5921-0.173475 0.8735-0.868148 1.6914-0.445584 0.5247-0.926605 0.8477-1.260718 0.8477-0.107024 0-0.143895-0.032-0.154294-0.2227-0.000401 0.016 0.000425 0.017 0 0.033-0.01739 0.6571-0.01023 0.6894 0.154294 0.6894 0.334113 0 0.815134-0.323 1.260718-0.8476 0.780262-0.9187 0.880843-1.137 0.880843-1.9082 0.0081-0.085 0.001-0.1823-0.0127-0.2832zm-10.772255 0.6299c-0.00455 0.065-0.01649 0.1375-0.0166 0.1963-0.051564 1.0354 0.8125694 2.343 1.7528959 2.7646 0.7649274 0.3215 1.5578477 0.2097 2.2353081-0.3145 0.325593-0.2519 0.435229-0.5599 0.333001-0.9609-0.0519 0.1729-0.158339 0.3258-0.333001 0.461-0.6774604 0.5241-1.4703807 0.6359-2.2353096 0.3144-0.8507267-0.3815-1.6320172-1.4867-1.7362944-2.4609zm12.307382 5.9599c-0.07263 0.1246-0.112303 0.2181-0.112303 0.2714 0 0.232 0.270983 0.4194 0.697252 0.4834 0.115755 0.018 0.21003 0.045 0.29101 0.075 0.05645-0.079 0.180551-0.2607 0.221676-0.3154 0-0.1097-0.2038-0.2133-0.512686-0.2598-0.271059-0.041-0.469356-0.1345-0.584949-0.2548zm-13.127679 1.5888c-0.094434 0.1415-0.2413759 0.2955-0.4511629 0.4629-0.2171488 0.1732-0.395832 0.3334-0.396477 0.3554-0.0003978 0.014 0.1303171 0.1113 0.2997989 0.2315 0.046354-0.039 0.043664-0.045 0.096678-0.087 0.3758313-0.2999 0.5702961-0.5638 0.5693246-0.7715-0.0000635-0.014-0.076707-0.125-0.1181617-0.1914z"/>
 <path style="fill:#4f4f4f" d="m12 15.5a0.5 0.5 0 0 1 -0.5 0.5 0.5 0.5 0 0 1 -0.5 -0.5 0.5 0.5 0 0 1 0.5 -0.5 0.5 0.5 0 0 1 0.5 0.5z"/>
 <path style="fill:#4f4f4f" d="m15 14.5a0.5 0.5 0 0 1 -0.5 0.5 0.5 0.5 0 0 1 -0.5 -0.5 0.5 0.5 0 0 1 0.5 -0.5 0.5 0.5 0 0 1 0.5 0.5z"/>
</svg>
