<svg xmlns="http://www.w3.org/2000/svg" width="24" height="24" version="1.1">
 <path opacity=".2" d="m2.0098 12.207a10 10 0 0 0 -0.0098 0.293 10 10 0 0 0 10 10 10 10 0 0 0 10 -10 10 10 0 0 0 -0.0098 -0.20703 10 10 0 0 1 -9.99 9.707 10 10 0 0 1 -9.9902 -9.793z"/>
 <path fill="#8b9cbe" opacity=".2" d="m12 2a10 10 0 0 0 -10 10 10 10 0 0 0 0.0098 0.207 10 10 0 0 1 9.9902 -9.707 10 10 0 0 1 9.99 9.793 10 10 0 0 0 0.01 -0.293 10 10 0 0 0 -10 -10z"/>
 <path style="fill:#f4b400" d="m12 2a10 10 0 0 0 -10 10 10 10 0 0 0 10 10 10 10 0 0 0 10 -10 10 10 0 0 0 -10 -10z"/>
 <g style="opacity:.3" transform="matrix(.35714286 0 0 .35714286 .57142841 .9286795)">
  <path d="m21 31.411697-2.472136-5.009094-5.527864-0.803245 4-3.899037-0.944272-5.505527 4.944272 2.599357 4.944271-2.599357-0.944271 5.505527l4 3.899036-5.527864 0.803246z"/>
  <path d="m40 26.608452-2.472136-5.009095-5.527864-0.803245 4-3.899036-0.944272-5.505528 4.944272 2.599358 4.944271-2.599358-0.944271 5.505528l4 3.899036-5.527864 0.803246z"/>
  <path d="m23 51.411697-2.472136-5.009094-5.527864-0.803245 4-3.899037-0.944272-5.505527 4.944272 2.599357 4.944271-2.599357-0.944271 5.505527l4 3.899036-5.527864 0.803246z"/>
  <path d="m45 45.411697-2.472136-5.009094-5.527864-0.803245 4-3.899037-0.944272-5.505527 4.944272 2.599357 4.944271-2.599357-0.944271 5.505527l4 3.899036-5.527864 0.803246z"/>
 </g>
 <path style="fill:#8b9cbe" d="m8.0714284 11.789892-0.8829058-1.788963-1.9742372-0.2868728 1.4285716-1.3925131-0.3372402-1.9662598 1.7658116 0.9283421 1.7658112-0.9283422-0.33724 1.96626 1.4285714 1.3925129-1.9742371 0.2868739z"/>
 <g transform="matrix(.35714286 0 0 .35714286 .57142857 .57142857)">
  <path style="fill:#8b9cbe" d="m40 26.608452-2.472136-5.009095-5.527864-0.803245 4-3.899036-0.944272-5.505528 4.944272 2.599358 4.944271-2.599358-0.944271 5.505528l4 3.899036-5.527864 0.803246z"/>
 </g>
 <path style="fill:#8b9cbe" d="m8.7857142 18.93275-0.8829057-1.788963-1.9742372-0.286873 1.4285715-1.392513-0.3372401-1.96626 1.7658115 0.928342 1.7658108-0.928342-0.33724 1.96626 1.428572 1.392513-1.9742373 0.286873z"/>
 <g transform="matrix(.35714286 0 0 .35714286 .57142857 .57142857)">
  <path style="fill:#8b9cbe" d="m45 45.411697-2.472136-5.009094-5.527864-0.803245 4-3.899037-0.944272-5.505527 4.944272 2.599357 4.944271-2.599357-0.944271 5.505527l4 3.899036-5.527864 0.803246z"/>
 </g>
 <path style="opacity:.2;fill:#8b9cbe" d="m2.0098 12.292985a10 10 0 0 1 -0.0098 -0.293 10 10 0 0 1 10 -10 10 10 0 0 1 10 10 10 10 0 0 1 -0.0098 0.20703 10 10 0 0 0 -9.99 -9.707 10 10 0 0 0 -9.9902 9.793z"/>
 <g transform="matrix(.33333333 0 0 .33333333 3.0000002 2.1837893)">
  <g transform="matrix(1.0285714,0,0,1.0285714,-1.7142865,-1.701158)">
   <g style="opacity:.3;stroke:#000000" transform="matrix(1.0590144,0,0,1.1482519,-3.5495395,-8.0126388)">
    <path style="stroke-linejoin:round;stroke:#000000;stroke-linecap:round;stroke-width:4.55467606;fill:none" d="m57.721022 39.515725-5.693342 18.218703-5.693346-18.218703"/>
    <path style="stroke:#000000;stroke-width:4.55467606;stroke-linecap:round;fill:none" d="m40.639906 39.499973-11.386675 18.218703m0-18.218703 11.386675 18.218703"/>
   </g>
   <g transform="matrix(1.0590144,0,0,1.1482519,-3.5495395,-8.9221609)">
    <path style="stroke-linejoin:round;stroke:#c2352a;stroke-linecap:round;stroke-width:4.55467606;fill:none" d="m57.721022 39.515725-5.693342 18.218703-5.693346-18.218703"/>
    <path style="stroke:#c2352a;stroke-width:4.55467606;stroke-linecap:round;fill:none" d="m40.639906 39.499973-11.386675 18.218703m0-18.218703 11.386675 18.218703"/>
   </g>
  </g>
 </g>
</svg>
