<svg xmlns="http://www.w3.org/2000/svg" width="24" height="24" version="1.1">
 <rect style="opacity:0.2" width="20" height="20" x="2" y="2.5" rx="2" ry="2"/>
 <rect style="fill:#75aa03" width="20" height="20" x="2" y="2" rx="2" ry="2"/>
 <path style="opacity:0.2" d="m 9.328125,5.5332031 -0.2675781,0.1347657 0.75,1.4921874 A 4,4 0 0 0 8.1328125,9.5 H 15.869141 A 4,4 0 0 0 14.189453,7.1621094 L 14.941406,5.6679688 14.673828,5.5332031 13.933594,7.0039062 A 4,4 0 0 0 12,6.5 4,4 0 0 0 10.066406,7.0019531 Z M 10.5,7.5 A 0.5,0.5 0 0 1 11,8 0.5,0.5 0 0 1 10.5,8.5 0.5,0.5 0 0 1 10,8 a 0.5,0.5 0 0 1 0.189453,-0.3925781 0.5,0.5 0 0 1 0.0078,-0.00586 l 0.136718,-0.068359 -0.002,-0.00391 A 0.5,0.5 0 0 1 10.5,7.5 Z m 3,0 a 0.5,0.5 0 0 1 0.169922,0.029297 l -0.002,0.00391 0.128906,0.064453 A 0.5,0.5 0 0 1 14,8 0.5,0.5 0 0 1 13.5,8.5 0.5,0.5 0 0 1 13,8 0.5,0.5 0 0 1 13.5,7.5 Z m -7.0078125,3 A 0.50005,0.49855484 0 0 0 6,11.005859 v 3.988282 a 0.50005,0.49855484 0 1 0 1,0 V 11.005859 A 0.50005,0.49855484 0 0 0 6.4921875,10.5 Z M 8,10.5 v 0.5 1 4 1.5 c 0,0.554 0.446,1 1,1 h 1 v -1 h 1.5 V 17 16.95508 C 10.057669,16.711276 9.0014445,15.46279 9,14 c 0,-1.656854 1.343146,-3 3,-3 1.656854,0 3,1.343146 3,3 -4.92e-4,1.463528 -1.056942,2.71311 -2.5,2.957031 V 17 17.5 H 14 v 1 h 1 c 0.554,0 1,-0.446 1,-1 V 16 12 11 10.5 Z m 9.492188,0 A 0.50005,0.49855484 0 0 0 17,11.005859 v 3.988282 a 0.50005,0.49855484 0 1 0 1,0 V 11.005859 A 0.50005,0.49855484 0 0 0 17.492188,10.5 Z M 12,12.5 A 1.5,1.5 0 0 0 10.5,14 1.5,1.5 0 0 0 12,15.5 1.5,1.5 0 0 0 13.5,14 1.5,1.5 0 0 0 12,12.5 Z m 0,0.5 a 1,1 0 0 1 1,1 1,1 0 0 1 -1,1 1,1 0 0 1 -1,-1 1,1 0 0 1 0.04492,-0.294922 A 0.5,0.5 0 0 0 11.5,14 0.5,0.5 0 0 0 12,13.5 0.5,0.5 0 0 0 11.707031,13.044922 1,1 0 0 1 12,13 Z"/>
 <path style="opacity:0.2;fill:#8b9cbe" d="M 4,2 C 2.892,2 2,2.892 2,4 v 0.5 c 0,-1.108 0.892,-2 2,-2 h 16 c 1.108,0 2,0.892 2,2 V 4 C 22,2.892 21.108,2 20,2 Z"/>
 <path style="fill:#8b9cbe" d="M 9.328125 5.0332031 L 9.0605469 5.1679688 L 9.8105469 6.6601562 A 4 4 0 0 0 8.1328125 9 L 15.869141 9 A 4 4 0 0 0 14.189453 6.6621094 L 14.941406 5.1679688 L 14.673828 5.0332031 L 13.933594 6.5039062 A 4 4 0 0 0 12 6 A 4 4 0 0 0 10.066406 6.5019531 L 9.328125 5.0332031 z M 10.5 7 A 0.5 0.5 0 0 1 11 7.5 A 0.5 0.5 0 0 1 10.5 8 A 0.5 0.5 0 0 1 10 7.5 A 0.5 0.5 0 0 1 10.189453 7.1074219 A 0.5 0.5 0 0 1 10.197266 7.1015625 L 10.333984 7.0332031 L 10.332031 7.0292969 A 0.5 0.5 0 0 1 10.5 7 z M 13.5 7 A 0.5 0.5 0 0 1 13.669922 7.0292969 L 13.667969 7.0332031 L 13.796875 7.0976562 A 0.5 0.5 0 0 1 14 7.5 A 0.5 0.5 0 0 1 13.5 8 A 0.5 0.5 0 0 1 13 7.5 A 0.5 0.5 0 0 1 13.5 7 z M 6.4921875 10 A 0.50005 0.49855484 0 0 0 6 10.505859 L 6 14.494141 A 0.50005 0.49855484 0 1 0 7 14.494141 L 7 10.505859 A 0.50005 0.49855484 0 0 0 6.4921875 10 z M 8 10 L 8 10.5 L 8 11.5 L 8 15.5 L 8 17 C 8 17.554 8.446 18 9 18 L 10 18 L 10 17 L 11.5 17 L 11.5 16.5 L 11.5 16.455078 C 10.057669 16.211276 9.0014445 14.96279 9 13.5 C 9 11.843146 10.343146 10.5 12 10.5 C 13.656854 10.5 15 11.843146 15 13.5 C 14.999508 14.963528 13.943058 16.21311 12.5 16.457031 L 12.5 16.5 L 12.5 17 L 14 17 L 14 18 L 15 18 C 15.554 18 16 17.554 16 17 L 16 15.5 L 16 11.5 L 16 10.5 L 16 10 L 8 10 z M 17.492188 10 A 0.50005 0.49855484 0 0 0 17 10.505859 L 17 14.494141 A 0.50005 0.49855484 0 1 0 18 14.494141 L 18 10.505859 A 0.50005 0.49855484 0 0 0 17.492188 10 z M 12 12 A 1.5 1.5 0 0 0 10.5 13.5 A 1.5 1.5 0 0 0 12 15 A 1.5 1.5 0 0 0 13.5 13.5 A 1.5 1.5 0 0 0 12 12 z M 12 12.5 A 1 1 0 0 1 13 13.5 A 1 1 0 0 1 12 14.5 A 1 1 0 0 1 11 13.5 A 1 1 0 0 1 11.044922 13.205078 A 0.5 0.5 0 0 0 11.5 13.5 A 0.5 0.5 0 0 0 12 13 A 0.5 0.5 0 0 0 11.707031 12.544922 A 1 1 0 0 1 12 12.5 z"/>
</svg>
