<svg xmlns="http://www.w3.org/2000/svg" width="24" height="24" version="1.1">
 <path style="opacity:0.2" d="m 13,14.093281 -1,0.576172 v 3.255859 1.125 l 1,0.578125 1,0.578125 1,-0.578125 v -1.125 L 14,17.925312 V 14.669453 Z M 9,16.491719 8,17.06789 v 3.25586 1.125 l 1,0.578125 1,0.578125 1,-0.578125 v -1.125 L 10,20.32375 v -3.25586 z"/>
 <path style="fill:#ba2c00" d="m 12.999996,16.848396 -1,0.577148 v 1.125684 l 1,0.578125 0.999999,0.577148 1,-0.577148 v -1.125684 l -1,-0.578125 z"/>
 <path style="fill:#ff7900" d="m 12.999996,16.848104 -1,0.577148 1,0.578125 0.999999,0.577148 1,-0.577148 -1,-0.578125 z"/>
 <path style="fill:#ff4200" d="m 12.999996,13.593353 0.999999,0.57735 v 3.254841 l -0.999999,0.57735 -1,-0.57735 v -3.254841 z"/>
 <path style="fill:#ff4200" d="m 13.999995,19.706501 1,-0.577148 v -1.125976 l -1,0.577148 z"/>
 <path style="fill:#ba2c00" d="m 12.999996,13.593353 v 4.409541 l -1,-0.57735 v -3.254841 z"/>
 <path style="fill:#ba2c00" d="M 8.9999996,19.246872 8,19.82402 v 1.125684 l 0.9999996,0.578125 0.9999994,0.577148 0.999999,-0.577148 V 20.402145 L 9.999999,19.82402 Z"/>
 <path style="fill:#ff4200" d="m 9.999999,22.104977 0.999999,-0.577148 v -1.125976 l -0.999999,0.577148 z"/>
 <path style="fill:#ff7900" d="M 8.9999996,19.24658 8,19.823728 8.9999996,20.401853 9.999999,20.979001 10.999998,20.401853 9.999999,19.823728 Z"/>
 <path style="fill:#ff4200" d="m 8.9999996,15.991828 0.9999994,0.57735 v 3.254841 L 8.9999996,20.40137 8,19.824019 v -3.254841 z"/>
 <path style="fill:#ba2c00" d="M 8.9999996,15.991828 V 20.40137 L 8,19.824019 v -3.254841 z"/>
 <path style="opacity:0.2" d="m 9.9999973,4.8626022 5.9999967,3.4641001 0,6.9281997 -5.999997,3.4641 L 4,15.254902 l 2e-7,-6.9282 z"/>
 <path style="fill:#ffce00" d="m 9.9999973,4.3626032 5.9999967,3.4641 0,6.9281998 -5.999997,3.4641 L 4,14.754903 l 2e-7,-6.9282001 z"/>
 <path style="fill:#ff6700" d="M 4,7.8263066 V 14.755014 L 9.9999971,18.21888 V 11.291148 Z"/>
 <path style="opacity:0.2" d="m 13.999997,2.5965023 4.999997,2.8867499 0,5.7734998 -4.999997,2.886749 L 8.9999998,11.256751 9,5.4832519 Z"/>
 <path style="fill:#ffc200" d="M 9.9999971,4.3624404 4,7.8263066 9.9999971,11.291148 15.999994,7.8263066 Z"/>
 <path style="opacity:0.2" d="m 5.9999991,2.5617077 1.9999989,1.1547 -10e-8,2.3093999 -1.9999989,1.1546998 -1.9999989,-1.1547 0,-2.3093998 z"/>
 <path style="fill:#ff9e02" d="M 5.9999991,2.0617464 7.999998,3.2164463 7.9999979,5.5258462 5.999999,6.680546 4.0000001,5.5258461 l 0,-2.3093999 z"/>
 <path style="fill:#ff9e02" d="m 13.999997,2.0962801 4.999997,2.8867499 0,5.773499 -4.999997,2.88675 L 8.9999998,10.756529 9,4.9830297 Z"/>
 <path style="opacity:0.2" d="m 17.999998,11.500002 -2.999999,0.499999 v 1 L 17.999998,14.5 20.999996,13.000001 v -1 z"/>
 <path style="fill:#ba2c00" d="M 18.000001,11.000002 V 14 l -2.999999,-1.499999 -4e-6,-1 z"/>
 <path style="fill:#ff7900" d="M 18.000001,11.000001 V 14 L 21,12.500001 l 4e-6,-1 z"/>
 <rect style="fill:#ff4200" width="3.354" height="3.354" x="21.24" y="1.12" transform="matrix(0.89442719,0.4472136,-0.89442719,0.4472136,0,0)"/>
 <path style="fill:#17191e" d="M 14.999999,9.2420026 15.999998,8.6420028 V 9.9920022 L 14.999999,10.592002 Z"/>
 <path style="fill:#ff6700" d="m 9.0000016,4.9826296 v 5.7734344 l 4.9999974,2.887694 V 7.8693472 Z"/>
 <path style="fill:#ffc200" d="M 13.999999,2.0959122 9.0000016,4.9826296 13.999999,7.8693472 18.999997,4.9826296 Z"/>
 <path style="fill:#17191e" d="m 16.999998,8.1185031 1,-0.5999997 v 1.3499993 l -1,0.5999997 z"/>
 <path style="fill:#ff6700" d="m 4,3.216314 v 2.3095692 l 1.999999,1.1542964 c 0,3.665e-4 0,-2.3085927 0,-2.3085927 z"/>
 <path style="fill:#ffc200" d="M 5.999999,2.0620177 4,3.216314 5.999999,4.3715869 7.9999981,3.216314 Z"/>
 <path style="opacity:0.2;fill:#8b9cbe" d="M 13.999999,2.0959122 9.0000016,4.9826296 9.4326184,5.2326295 13.999999,2.595912 18.56738,5.2326295 18.999997,4.9826296 Z"/>
 <path style="opacity:0.2;fill:#8b9cbe" d="M 5.999999,2.0620177 4,3.216314 4.432617,3.4663139 5.999999,2.5620174 7.5673813,3.4663139 7.9999981,3.216314 Z"/>
</svg>
