<svg xmlns="http://www.w3.org/2000/svg" width="24" height="24" version="1.1">
 <path style="fill:#4347dc" d="M 12,2 A 10,10 0 0 0 2,12 10,10 0 0 0 12,22 10,10 0 0 0 22,12 10,10 0 0 0 12,2 Z"/>
 <path style="opacity:0.2" d="M 2.01075,12.209 A 10,10 0 0 0 2,12.5 10,10 0 0 0 12,22.5 10,10 0 0 0 22,12.5 10,10 0 0 0 21.9895,12.291 10,10 0 0 1 12,22 10,10 0 0 1 2.011,12.209 Z"/>
 <path style="opacity:0.1;fill:#8b9cbe" d="m 12,2 a 10,10 0 0 0 -10,10 10,10 0 0 0 0.01075,0.209 10,10 0 0 1 9.989,-9.709 10,10 0 0 1 9.9895,9.791 10,10 0 0 0 0.0105,-0.291 10,10 0 0 0 -10,-10 z"/>
 <path style="opacity:0.2;fill:none;stroke:#000000" d="m 8.329194,11.884 c 5.182735,-2.0206938 10.5505,-0.51513 10.181806,3.48379 -0.131942,1.43106 -2.365006,2.303564 -3.853138,2.121419 -2.532256,-0.309941 -4.83859,-3.336953 -5.791304,-5.110957 -1.121046,-2.087446 -0.60175,-6.2290095 2.560613,-6.3812508 2.224492,0.1547208 2.869955,1.537172 3.152364,2.878625 C 15.701195,14.203546 9.8157995,20.028578 6.471837,17.315108 4.2859968,15.541401 6.108762,12.799494 8.329194,11.884 Z"/>
 <path style="fill:none;stroke:#81ff86" d="m 8.329194,11.384 c 5.182735,-2.020695 10.5505,-0.51513 10.181806,3.48379 -0.131942,1.43106 -2.365006,2.303564 -3.853138,2.121419 C 12.125606,16.679268 9.819272,13.652256 8.866558,11.878252 7.745512,9.7908055 8.264808,5.6492413 11.427171,5.497 c 2.224492,0.1547208 2.869955,1.537172 3.152364,2.878625 1.12166,5.327921 -4.7637355,11.152953 -8.107698,8.439483 C 4.2859968,15.041401 6.108762,12.299494 8.329194,11.384 Z"/>
</svg>
