<svg xmlns="http://www.w3.org/2000/svg" width="24" height="24" version="1">
 <rect style="opacity:0.2" width="1" height="3" x="21" y="11.5" rx=".2" ry=".2"/>
 <rect style="opacity:0.2" width="1" height="3" x="17" y="11.5" rx=".2" ry=".2"/>
 <path style="opacity:0.2" d="m 11.001953,2.5 c -5.5394457,0 -9.9999999,4.46 -9.9999999,10 0,5.54 4.4605542,10 9.9999999,10 3.282003,0 6.175138,-1.573724 7.996094,-4.001953 L 13,12.5 18.998047,6.5019531 C 17.177119,4.073381 14.284227,2.5 11.001953,2.5 Z"/>
 <path style="fill:#f7941e" d="M 11.001953,2 C 5.4625073,2 1.0019531,6.46 1.0019531,12 c 0,5.54 4.4605542,10 9.9999999,10 2.119221,0 4.076306,-0.65615 5.687294,-1.774819 C 17.573171,19.611385 16.354853,19.860298 17,19 L 13,12 18,5.6065541 C 17.513797,4.9581045 17.949216,4.7660236 17.323158,4.2531848 15.604505,2.8453405 13.407832,2 11.001953,2 Z"/>
 <path style="opacity:0.1;fill:#8b9cbe" d="M 11.001953,2 C 5.4625074,2 1.0019531,6.46 1.0019531,12 c 0,0.08441 0.00966,0.166105 0.011719,0.25 C 1.1467508,6.8275892 5.546907,2.5 11.001953,2.5 14.156132,2.5 16.170731,3.731402 18,6 V 5.6065541 C 16.179072,3.177982 14.284227,2 11.001953,2 Z M 13.25,12.25 13,12.5 l 5.769531,5.769531 c 0.07429,-0.09212 0.157451,-0.176719 0.228516,-0.271484 z"/>
 <path style="opacity:0.2" d="m 13.001953,2.5 c -5.5394457,0 -9.9999999,4.46 -9.9999999,10 0,5.54 4.4605542,10 9.9999999,10 2.769723,0 5.268853,-1.114375 7.076172,-2.921875 L 13,12.5 20.078125,5.421875 C 18.270806,3.614375 15.771676,2.5 13.001953,2.5 Z"/>
 <path style="fill:#4c3a91" d="M 13.001953 2 C 7.4625073 2 3.0019531 6.46 3.0019531 12 C 3.0019531 17.54 7.4625073 22 13.001953 22 C 15.771676 22 18.270806 20.885625 20.078125 19.078125 L 13 12 L 20.078125 4.921875 C 18.270806 3.114375 15.771676 2 13.001953 2 z"/>
 <path style="opacity:0.2" d="m 13,5.5 a 7,7 0 0 0 -5.734375,3 h -3.4316406 -0.00195 c -0.00139,0.0032 -0.00252,0.00656 -0.00391,0.00977 -0.1355659,0.3126302 -0.2566859,0.6328019 -0.3613281,0.9609375 -6.291e-4,0.00197 -0.00133,0.00389 -0.00195,0.00586 -0.089117,0.280058 -0.1586672,0.5689085 -0.2226563,0.8593755 -0.010704,0.04881 -0.027117,0.09546 -0.037109,0.144531 -0.00131,0.0065 -0.00261,0.01307 -0.00391,0.01953 h 3.0976562 a 7,7 0 0 0 -0.2207031,1 H 3.0507812 c -0.032375,0.328875 -0.048828,0.662335 -0.048828,1 0,0.337665 0.016453,0.671125 0.048828,1 h 3.0292969 a 7,7 0 0 0 0.2148438,1 h -3.09375 c 0.0013,0.0065 0.00259,0.01308 0.00391,0.01953 0.010006,0.0491 0.026354,0.09571 0.037109,0.144531 0.063989,0.290468 0.1335387,0.579315 0.2226563,0.859376 6.279e-4,0.002 0.00132,0.0039 0.00195,0.0059 0.1046422,0.328136 0.2257622,0.648307 0.3613281,0.960937 0.00139,0.0032 0.00251,0.0066 0.00391,0.0098 h 0.00195 3.4238281 A 7,7 0 0 0 13,19.5 7,7 0 0 0 17.947266,17.447266 L 16.533203,16.033203 A 5,5 0 0 1 13,17.5 a 5,5 0 0 1 -5,-5 5,5 0 0 1 5,-5 5,5 0 0 1 3.533203,1.4667969 L 17.947266,7.5527344 A 7,7 0 0 0 13,5.5 Z m 0,5 a 2,2 0 0 0 -2,2 2,2 0 0 0 2,2 2,2 0 0 0 2,-2 2,2 0 0 0 -2,-2 z"/>
 <path style="fill:#8b9cbe" d="M 13 5 A 7 7 0 0 0 7.265625 8 L 3.8339844 8 L 3.8320312 8 C 3.8306398 8.0032005 3.8295136 8.0065634 3.828125 8.0097656 C 3.6925591 8.3223958 3.5714391 8.6425675 3.4667969 8.9707031 C 3.4661678 8.9726758 3.4654717 8.9745893 3.4648438 8.9765625 C 3.3757263 9.2566205 3.3061766 9.5454714 3.2421875 9.8359375 C 3.2314833 9.884744 3.2150706 9.9313934 3.2050781 9.9804688 C 3.2037646 9.9869198 3.202473 9.9935444 3.2011719 10 L 6.2988281 10 A 7 7 0 0 0 6.078125 11 L 3.0507812 11 C 3.0184058 11.328875 3.0019531 11.662335 3.0019531 12 C 3.0019531 12.337665 3.0184058 12.671125 3.0507812 13 L 6.0800781 13 A 7 7 0 0 0 6.2949219 14 L 3.2011719 14 C 3.202473 14.006456 3.2037646 14.01308 3.2050781 14.019531 C 3.2150844 14.068635 3.2314318 14.11524 3.2421875 14.164062 C 3.3061766 14.45453 3.3757262 14.743377 3.4648438 15.023438 C 3.4654717 15.02541 3.4661678 15.027324 3.4667969 15.029297 C 3.5714391 15.357433 3.6925591 15.677604 3.828125 15.990234 C 3.8295136 15.993437 3.8306396 15.996799 3.8320312 16 L 3.8339844 16 L 7.2578125 16 A 7 7 0 0 0 13 19 A 7 7 0 0 0 17.947266 16.947266 L 16.533203 15.533203 A 5 5 0 0 1 13 17 A 5 5 0 0 1 8 12 A 5 5 0 0 1 13 7 A 5 5 0 0 1 16.533203 8.4667969 L 17.947266 7.0527344 A 7 7 0 0 0 13 5 z M 13 10 A 2 2 0 0 0 11 12 A 2 2 0 0 0 13 14 A 2 2 0 0 0 15 12 A 2 2 0 0 0 13 10 z"/>
 <rect style="fill:#4c3a91" width="1" height="3" x="17" y="11" rx=".2" ry=".2"/>
 <rect style="fill:#4c3a91" width="1" height="3" x="21" y="11" rx=".2" ry=".2"/>
 <rect style="opacity:0.2" width="1" height="3" x="12.5" y="-19" rx=".2" ry=".2" transform="rotate(90)"/>
 <rect style="fill:#4c3a91" width="1" height="3" x="12" y="-19" rx=".2" ry=".2" transform="rotate(90)"/>
 <rect style="opacity:0.2" width="1" height="3" x="12.5" y="-23" rx=".2" ry=".2" transform="rotate(90)"/>
 <rect style="fill:#4c3a91" width="1" height="3" x="12" y="-23" rx=".2" ry=".2" transform="rotate(90)"/>
 <path style="fill:#8b9cbe;opacity:0.1" d="M 13.001953 2 C 7.4625074 2 3.0019531 6.46 3.0019531 12 C 3.0019531 12.084408 3.0116129 12.166105 3.0136719 12.25 C 3.1467508 6.8275892 7.546907 2.5 13.001953 2.5 C 15.643786 2.5 18.032458 3.5214644 19.816406 5.1835938 L 20.078125 4.921875 C 18.270806 3.114375 15.771676 2 13.001953 2 z M 13.25 12.25 L 13 12.5 L 19.816406 19.316406 C 19.902767 19.235943 19.994673 19.161585 20.078125 19.078125 L 13.25 12.25 z"/>
</svg>
