<svg xmlns="http://www.w3.org/2000/svg" width="24" height="24" version="1">
 <path style="opacity:0.2" d="M 17.980708,16.973872 C 17.700467,20.014046 15.07958,22.5 11.500859,22.5 7.9221368,22.5 5.3270334,20.011766 5.0210099,16.973872 4.7135655,13.921876 7.823743,2.545817 11.500859,2.5002744 15.202588,2.4544272 18.272335,13.810168 17.980708,16.973872 Z"/>
 <path style="fill:#f2ad32" d="m 17.980708,16.473875 c -0.280241,3.040174 -2.901128,5.526128 -6.479849,5.526128 -3.5787222,0 -6.1738256,-2.488234 -6.4798491,-5.526128 C 4.7135655,13.421879 7.823743,2.0458199 11.500859,2.0002773 15.202588,1.9544301 18.272335,13.310171 17.980708,16.473875 Z"/>
 <path style="opacity:0.1" d="m 8.6464844,16.50537 c -0.4810936,-0.04123 -0.9844712,0.153145 -1.3203125,0.601563 -0.2134398,0.284984 -0.3841358,0.883506 -0.3085938,1.083984 0.059224,0.157176 0.1282905,0.134504 0.2851563,-0.08984 0.076076,-0.108805 0.2869111,-0.284414 0.46875,-0.390624 0.5907474,-0.345048 1.3440199,-0.235041 1.8222656,0.265624 0.114547,0.119912 0.2070312,0.242395 0.2070312,0.271485 0,0.02908 0.042843,0.05273 0.095703,0.05273 0.1632788,0 0.1251518,-0.601388 -0.0625,-0.978515 C 9.5859605,16.823321 9.1275779,16.5466 8.6464844,16.50537 Z m 5.7070316,0 c -0.481094,0.04123 -0.939476,0.317951 -1.1875,0.816407 -0.187652,0.377127 -0.225779,0.978515 -0.0625,0.978515 0.05286,0 0.0957,-0.02365 0.0957,-0.05273 0,-0.02909 0.09248,-0.151573 0.207031,-0.271485 0.478246,-0.500665 1.231519,-0.610672 1.822266,-0.265624 0.181839,0.10621 0.392673,0.281819 0.46875,0.390624 0.156865,0.224348 0.225933,0.24702 0.285156,0.08984 0.07554,-0.200478 -0.09516,-0.799 -0.308594,-1.083984 -0.335841,-0.448418 -0.839219,-0.642792 -1.320312,-0.601563 z m -1.636719,2.56836 c -0.133686,-0.01809 -0.242486,0.08036 -0.376953,0.322265 -0.198418,0.356953 -0.460954,0.519532 -0.839844,0.519532 -0.361812,0 -0.633809,-0.160692 -0.832031,-0.492188 -0.198296,-0.331615 -0.336153,-0.408158 -0.529297,-0.292969 -0.1611707,0.09612 -0.1818647,0.26146 -0.0625,0.521485 0.177779,0.387279 0.617833,0.708246 1.11914,0.818359 0.640162,0.140612 1.466671,-0.250253 1.726563,-0.816406 0.121211,-0.264066 0.102347,-0.426288 -0.06055,-0.523438 -0.05205,-0.03104 -0.09997,-0.05061 -0.144531,-0.05664 z"/>
 <path style="fill:#c67427" d="m 13.110812,3.5040809 c -0.02128,0.00277 0.01636,0.1080734 0.192411,0.6302647 0.455669,1.3515979 0.852156,2.8844216 1.071492,4.1421441 0.164024,0.9405501 0.236143,1.9314423 0.264028,3.6276403 0.01477,0.898142 0.04322,1.632986 0.06312,1.632986 0.04284,0 0.10573,-0.288768 0.200547,-0.92061 0.355233,-2.367193 0.0758,-4.7869923 -0.830174,-7.1895226 -0.218972,-0.5806883 -0.835335,-1.8509858 -0.923428,-1.9031239 -0.01723,-0.010201 -0.0309,-0.020702 -0.038,-0.019779 z"/>
 <path style="fill:#c67427" d="m 10.469569,4.0003028 c -0.02714,-0.00618 -0.08387,0.1488703 -0.169446,0.4648183 -0.186079,0.6869982 -0.262516,1.2828371 -0.291212,2.2705745 -0.03111,1.0707192 0.01239,1.6464518 0.240198,3.1819975 0.340323,2.2939909 0.530058,3.9003499 0.530058,4.4872869 0,0.163206 0.01401,0.363879 0.03118,0.445914 l 0.03128,0.149157 0.0374,-0.132583 c 0.02058,-0.07292 0.0615,-0.59994 0.09094,-1.171152 0.08109,-1.573091 0.01663,-2.493107 -0.427129,-6.0988298 -0.104482,-0.8490167 -0.139355,-2.4251371 -0.07093,-3.2040948 0.02255,-0.256667 0.02161,-0.3876341 -0.0023,-0.3930886 z"/>
 <path style="fill:#c67427" d="M 7.8118811,8.1587589 C 7.75366,8.144989 7.0788235,9.553681 6.9259251,10.008112 c -0.032445,0.09644 -0.090054,0.490992 -0.1280132,0.876772 -0.03796,0.385779 -0.1260896,1.00719 -0.1958196,1.380914 -0.097113,0.520474 -0.1184992,0.807742 -0.091094,1.227479 0.033305,0.510062 0.067595,0.67577 0.2296034,1.109664 0.045265,0.121231 0.091176,0.16318 0.1671054,0.152835 0.088494,-0.01205 0.1067648,-0.07857 0.1177567,-0.430165 0.01941,-0.620935 0.1060633,-1.020769 0.5606757,-2.585876 L 7.9999798,10.314982 7.9916549,9.4601307 C 7.9831449,8.5863551 7.9278608,8.1861938 7.8118821,8.1587589 Z"/>
 <path style="fill:#c67427" d="m 16.341049,8.3161329 c 0.03665,0.1370221 0.06748,0.2702867 0.09191,0.3987423 0.09344,0.4913262 0.163843,1.2393586 0.163889,1.7425828 4.6e-5,0.632384 0.10063,0.516202 0.161296,-0.186314 0.02336,-0.270513 0.04255,-0.4297864 0.06232,-0.5071404 C 16.672296,9.2794229 16.512341,8.7942282 16.341049,8.3161329 Z"/>
 <path style="fill:#c67427" d="m 12.827569,10.906803 c -0.02515,0 -0.03402,0.04449 -0.01976,0.09889 0.114481,0.436806 0.187388,1.27962 0.185973,2.14946 -8.5e-4,0.526522 0.0155,0.92605 0.03639,0.890299 0.12065,-0.206455 0.171728,-1.476244 0.08467,-2.105021 C 13.054612,11.505399 12.888211,10.9068 12.827567,10.9068 Z"/>
 <path style="fill:#c67427" d="m 17.423271,14.933186 c -0.0064,-8e-4 -0.01339,0.0029 -0.0211,0.01045 -0.01025,0.01004 -0.06268,0.268959 -0.116591,0.57538 -0.315306,1.79208 -1.019303,3.597457 -1.928131,4.944596 -0.282971,0.419441 -0.431678,0.619306 -0.602804,0.755016 0.709279,-0.374456 1.325252,-0.868637 1.824416,-1.450697 0.02483,-0.06007 0.05406,-0.126775 0.0887,-0.198558 0.532091,-1.10285 0.810364,-2.392705 0.812113,-3.764122 8e-4,-0.642419 -0.01207,-0.866527 -0.0566,-0.872061 z"/>
 <path style="fill:#c67427" d="m 6.813804,17.084015 c -0.02105,0.0057 -0.04584,0.06296 -0.07126,0.176467 -0.062138,0.277463 0.01336,1.407291 0.1147132,1.716553 0.03627,0.110671 0.1289751,0.283285 0.2060011,0.383588 0.077027,0.100301 0.1588609,0.182375 0.1818603,0.182375 0.0515,0 0.051911,0.0092 -0.00671,-0.175611 -0.2043751,-0.644246 -0.3631975,-1.474299 -0.364168,-1.903466 -6e-4,-0.255528 -0.025355,-0.389358 -0.060442,-0.379906 z"/>
 <path style="fill:#453f3d" d="m 11.195704,19.971211 c -0.501307,-0.110113 -0.941133,-0.43226 -1.118912,-0.819539 -0.1193646,-0.260025 -0.1000206,-0.424837 0.06115,-0.520956 0.193144,-0.115189 0.332195,-0.0383 0.530491,0.293315 0.198222,0.331496 0.469787,0.492239 0.831599,0.492239 0.37889,0 0.641985,-0.162673 0.840403,-0.519626 0.17929,-0.322538 0.312453,-0.390714 0.520642,-0.266552 0.162894,0.09715 0.181801,0.261029 0.06059,0.525095 -0.259892,0.566153 -1.085793,0.956636 -1.725955,0.816024 z"/>
 <path style="fill:#453f3d" d="M 7.0182708,17.690826 C 6.9427288,17.490348 7.1123958,16.893036 7.3258356,16.608052 7.9975182,15.711217 9.3380272,15.826098 9.834075,16.823009 10.021727,17.200136 10.060497,17.8 9.897218,17.8 c -0.05286,0 -0.09612,-0.02378 -0.09612,-0.05286 0,-0.02909 -0.09371,-0.150978 -0.208257,-0.270889 -0.4782457,-0.500665 -1.2297109,-0.610056 -1.8204583,-0.265009 -0.1818389,0.106211 -0.3928601,0.282131 -0.4689365,0.390937 -0.1568658,0.224348 -0.225954,0.245826 -0.2851776,0.08865 z"/>
 <path style="opacity:0.2;fill:#8b9cbe" d="M 11.500933,2.0001386 C 7.9304608,2.0443603 4.9043252,12.748826 5.0126955,16.165082 5.1778634,12.303841 8.0933317,2.5423397 11.500933,2.5001352 14.936391,2.4575858 17.823156,12.225371 17.988193,16.161176 18.087323,12.64911 15.097047,1.9555994 11.500933,2.0001386 Z"/>
 <path style="fill:#453f3d" d="m 15.981729,17.690826 c 0.07554,-0.200478 -0.09413,-0.79779 -0.307565,-1.082774 -0.671682,-0.896835 -2.012191,-0.781954 -2.508239,0.214957 C 12.978273,17.200136 12.939503,17.8 13.102782,17.8 c 0.05286,0 0.09612,-0.02378 0.09612,-0.05286 0,-0.02909 0.09371,-0.150978 0.208257,-0.270889 0.478246,-0.500665 1.229711,-0.610056 1.820458,-0.265009 0.181839,0.106211 0.39286,0.282131 0.468937,0.390937 0.156865,0.224348 0.225954,0.245826 0.285177,0.08865 z"/>
</svg>
