<svg xmlns="http://www.w3.org/2000/svg" width="24" height="24" version="1.1">
 <g transform="translate(1,1)">
  <path fill="#b2bfd9" d="m2 4h18c0.5345 0 1 0.46548 1 1v12c0 0.5345-0.46548 1-1 1h-18c-0.5345 0-1-0.466-1-1v-12c0-0.5345 0.4655-1 1-1z"/>
  <g opacity=".2" transform="matrix(.37757 0 0 .39488 6.8875 2.9078)">
   <path d="m27.921 10.363c4.54 0.001 4.1433 4.503 4.1433 4.503v3.939c0 1.449-1.9705 4.2199-1.9705 4.2199v2.5324l4.6342 2.1687v2.896h-15.891v-2.896l4.6355-2.1687v-2.5324s-1.9762-2.7679-1.9652-4.2199v-3.939s-0.39727-4.502 4.1427-4.503"/>
  </g>
  <path fill="#289b36" d="m3 13-1-2 1-2z"/>
  <path opacity=".2" d="m1 17v0.5c0 0.554 0.446 1 1 1h18c0.554 0 1-0.446 1-1v-0.5c0 0.554-0.446 1-1 1h-18c-0.554 0-1-0.446-1-1z"/>
  <path fill="#fff" opacity=".2" d="m2 4c-0.554 0-1 0.446-1 1v0.5c0-0.554 0.446-1 1-1h18c0.554 0 1 0.446 1 1v-0.5c0-0.554-0.446-1-1-1z"/>
  <path fill="#ecb64e" d="m4.625 9h3.75c0.3172 0 0.625 0.3283 0.625 0.6667v2.6667c0 0.339-0.3078 0.667-0.625 0.667h-3.75c-0.3172 0-0.625-0.328-0.625-0.667v-2.6663c0-0.3384 0.3078-0.6667 0.625-0.6667z"/>
  <circle fill="#484848" cx="-1.411" cy="14.139" r="4" transform="rotate(-45)"/>
  <rect fill="#484848" width="2" height="5.5" x="-2.41" y="17.14" rx="1" ry="1" transform="rotate(-45)"/>
  <path opacity=".2" d="m9 9.5c-1.1128 0-2 0.88848-2 2s0.8872 2 2 2 2-0.88848 2-2-0.8872-2-2-2z"/>
  <path fill="#5d99ff" d="m9 9c-1.1128 0-2 0.8885-2 2s0.8872 2 2 2 2-0.88848 2-2-0.887-2-2-2z"/>
 </g>
</svg>
