<svg xmlns="http://www.w3.org/2000/svg" width="24" height="24" version="1">
 <rect style="opacity:0.2" width="6.999" height="23.331" x="-3.15" y="-28.99" rx="1.75" ry="1.75" transform="rotate(135)"/>
 <rect style="fill:#cccccc" width="6.999" height="23.331" x="-3.5" y="-28.64" rx="1.75" ry="1.75" transform="rotate(135)"/>
 <rect style="opacity:0.2" width="6.999" height="23.331" x="13.82" y="-11.31" rx="1.75" ry="1.75" transform="rotate(45)"/>
 <rect style="fill:#b2bfd9" width="6.999" height="23.331" x="13.47" y="-11.66" rx="1.75" ry="1.75" transform="rotate(45)"/>
 <path style="fill:#4f4f4f" d="M 6.2255859,2 C 6.1546334,2 6.0842074,2.0119015 6.0136719,2.020508 L 12,11 17.986328,2.0195312 C 17.915803,2.0109097 17.845356,2 17.774414,2 17.327126,2 16.879839,2.170942 16.537109,2.5136718 L 12,7.0507809 7.4628904,2.5136718 C 7.1201609,2.170942 6.6728669,2 6.2255859,2 Z"/>
 <path style="fill:#4f4f4f" d="M 12,13 6.0136719,21.980469 C 6.0841969,21.98909 6.1546439,22 6.2255859,22 6.6728734,22 7.1201609,21.829058 7.4628904,21.486328 L 12,16.949219 16.537109,21.486328 C 16.879839,21.829058 17.327126,22 17.774414,22 c 0.07094,0 0.141389,-0.01091 0.211914,-0.01953 z"/>
 <path style="opacity:0.1;fill:#8b9cbe" d="M 6.2255859,2 C 5.7783049,2 5.3310109,2.170942 4.9882812,2.5136718 L 2.5136718,4.9882812 C 2.1068043,5.3951489 1.9472972,5.9489409 2.0234375,6.4755859 2.0755726,6.1149789 2.2350796,5.7668734 2.5136718,5.4882809 L 4.9882812,3.0136718 C 5.3310109,2.6709419 5.7783049,2.5 6.2255859,2.5 c 0.447281,0 0.894575,0.1709419 1.2373045,0.5136718 L 12,7.5507808 16.537109,3.0136718 c 0.68546,-0.6854597 1.78915,-0.6854597 2.47461,0 l 2.474609,2.4746091 c 0.278592,0.2785925 0.438099,0.626698 0.490234,0.987305 0.07614,-0.526645 -0.08337,-1.080437 -0.490234,-1.4873047 L 19.011719,2.5136718 c -0.68546,-0.6854597 -1.78915,-0.6854597 -2.47461,0 L 12,7.0507809 7.4628904,2.5136718 C 7.1201609,2.170942 6.6728669,2 6.2255859,2 Z m 0.575195,10.25 -4.2871091,4.287109 c -0.4068675,0.406868 -0.5663746,0.96066 -0.4902343,1.487305 0.052135,-0.360607 0.2116421,-0.708713 0.4902343,-0.987305 L 7.0507809,12.5 Z m 10.3984381,0 -0.25,0.25 4.537109,4.537109 c 0.278592,0.278592 0.438099,0.626698 0.490234,0.987305 0.07614,-0.526645 -0.08337,-1.080437 -0.490234,-1.487305 z"/>
</svg>
