<svg xmlns="http://www.w3.org/2000/svg" width="24" height="24" version="1">
 <path opacity=".2" d="m7.026 4.5v0.00195c-2.4885 0-4.3601 2.0013-4.4909 4.4807l-0.4988 9.4603c-0.315 1.85 1.4831 3.018 2.9946 0.995 0.9425-1.279 2.9691-3.938 2.9691-3.938l8 0.04044 2.9887 4.0231c1.4989 2.012 3.187 0.35648 2.9965-1.0053l-0.496-9.4746c0.000784-0.034624 0.0098-0.066882 0.0098-0.1017 0-2.4824-2.0028-4.4827-4.4909-4.4827h-9.9833z"/>
 <path fill="#717ce5" d="m7.026 4v0.00195c-2.4885 0-4.3601 2.0013-4.4909 4.4807l-0.4988 9.4603c-0.315 1.85 1.4831 3.018 2.9946 0.995 0.9425-1.279 2.9691-3.938 2.9691-3.938l8 0.04044 2.9887 4.0231c1.4989 2.012 3.187 0.35648 2.9965-1.0053l-0.496-9.4746c0.000784-0.034624 0.0098-0.066882 0.0098-0.1017 0-2.4824-2.0028-4.4827-4.4909-4.4827h-9.9833z"/>
 <path fill="#fff" opacity=".1" d="m7.0254 4v0.002c-2.4885 0-4.3595 2.001-4.4902 4.4804l-0.4981 9.4606c-0.0439 0.258-0.0395 0.497-0.0078 0.721 0.0059-0.075-0.0054-0.143 0.0078-0.221l0.4981-9.4606c0.1307-2.4794 2.0017-4.4804 4.4902-4.4804v-0.002h9.9846c2.488 0 4.49 2 4.49 4.4824 0 0.0348-0.009 0.067-0.01 0.1016l0.487 9.322c0.009-0.116 0.023-0.233 0.007-0.347l-0.494-9.475c0.001-0.0346 0.01-0.0668 0.01-0.1016 0-2.4824-2.002-4.4824-4.49-4.4824h-9.9846z"/>
 <path opacity=".2" d="m6 6.5v2h-2v2h2v2h2v-2h2v-2h-2v-2h-2z"/>
 <path fill="#8b9cbe" d="m6 6v2h-2v2h2v2h2v-2h2v-2h-2v-2h-2z"/>
 <path opacity=".2" d="m17 6.5a1 1 0 0 0 -1 1 1 1 0 0 0 1 1 1 1 0 0 0 1 -1 1 1 0 0 0 -1 -1zm-2 2a1 1 0 0 0 -1 1 1 1 0 0 0 1 1 1 1 0 0 0 1 -1 1 1 0 0 0 -1 -1zm4 0a1 1 0 0 0 -1 1 1 1 0 0 0 1 1 1 1 0 0 0 1 -1 1 1 0 0 0 -1 -1zm-2 2a1 1 0 0 0 -1 1 1 1 0 0 0 1 1 1 1 0 0 0 1 -1 1 1 0 0 0 -1 -1z"/>
 <g transform="translate(0,1)">
  <circle fill="#8b9cbe" cx="15" cy="8" r="1"/>
  <circle fill="#8b9cbe" cx="10" cy="-17" r="1" transform="rotate(90)"/>
  <circle fill="#8b9cbe" cx="17" cy="6" r="1"/>
  <circle fill="#8b9cbe" cx="8" cy="-19" r="1" transform="rotate(90)"/>
 </g>
</svg>
