<svg xmlns="http://www.w3.org/2000/svg" width="24" height="24" version="1.1">
 <path style="opacity:0.2" d="M 11.325936,2.499866 A 0.69775358,0.69775358 0 0 0 10.842644,2.7042656 L 5.8589293,7.6879808 a 0.69775358,0.69775358 0 0 0 0,0.9865686 L 6.029716,8.8453361 2.2042654,12.670787 a 0.69775358,0.69775358 0 0 0 0,0.986569 l 4.9837149,4.983715 a 0.69775358,0.69775358 0 0 0 0.986569,0 l 0.1707867,-0.170787 3.825451,3.825451 a 0.69775358,0.69775358 0 0 0 0.986568,0 l 4.983716,-4.983715 a 0.69775358,0.69775358 0 0 0 0,-0.986569 l -0.170787,-0.170787 3.825451,-3.825451 a 0.69775358,0.69775358 0 0 0 0,-0.986568 L 16.812019,6.3589294 a 0.69775358,0.69775358 0 0 0 -0.986568,0 L 15.654664,6.5297161 11.829213,2.7042656 A 0.69775358,0.69775358 0 0 0 11.325936,2.499866 Z"/>
 <path style="fill:#52b54a" d="M 11.325936,1.9998609 A 0.69775358,0.69775358 0 0 0 10.842644,2.2042604 L 5.8589293,7.1879758 a 0.69775358,0.69775358 0 0 0 0,0.9865685 L 6.029716,8.345331 2.2042654,12.170782 a 0.69775358,0.69775358 0 0 0 0,0.986569 l 4.9837149,4.983715 a 0.69775358,0.69775358 0 0 0 0.986569,0 l 0.1707867,-0.170787 3.825451,3.825451 a 0.69775358,0.69775358 0 0 0 0.986568,0 l 4.983716,-4.983715 a 0.69775358,0.69775358 0 0 0 0,-0.986569 l -0.170787,-0.170787 3.825451,-3.825451 a 0.69775358,0.69775358 0 0 0 0,-0.986568 L 16.812019,5.8589243 a 0.69775358,0.69775358 0 0 0 -0.986568,0 L 15.654664,6.029711 11.829213,2.2042604 A 0.69775358,0.69775358 0 0 0 11.325936,1.9998609 Z"/>
 <path style="opacity:0.2" transform="matrix(0.49451898,0,0,0.48944686,-39.376848,1.8200311)" d="M 114.00355,21.82028 99.848236,29.992854 V 13.647706 Z"/>
 <path style="opacity:0.2;fill:#8b9cbe" d="M 11.326165,1.9997922 A 0.69775358,0.69775358 0 0 0 10.842762,2.2038958 L 5.8593128,7.1883213 A 0.69775358,0.69775358 0 0 0 5.7020847,7.9305163 0.69775358,0.69775358 0 0 1 5.8593128,7.6883264 L 10.842762,2.7039009 A 0.69775358,0.69775358 0 0 1 11.326165,2.4997972 0.69775358,0.69775358 0 0 1 11.8291,2.7039009 l 3.825234,3.8262107 0.1709,-0.1709002 a 0.69775358,0.69775358 0 0 1 0.986338,0 l 4.984426,4.9834486 a 0.69775358,0.69775358 0 0 1 0.157228,0.244143 0.69775358,0.69775358 0 0 0 -0.157228,-0.744148 L 16.811572,5.8592063 a 0.69775358,0.69775358 0 0 0 -0.986338,0 L 15.654334,6.0301065 11.8291,2.2038958 A 0.69775358,0.69775358 0 0 0 11.326165,1.9997922 Z M 5.78607,8.588726 2.2040023,12.170794 a 0.69775358,0.69775358 0 0 0 -0.1572282,0.742195 0.69775358,0.69775358 0 0 1 0.1572282,-0.24219 L 6.0292365,8.8455646 5.8593128,8.6746644 A 0.69775358,0.69775358 0 0 1 5.78607,8.588726 Z m 12.42786,7.32234 -0.243166,0.243167 0.169923,0.1709 a 0.69775358,0.69775358 0 0 1 0.157228,0.244143 0.69775358,0.69775358 0 0 0 -0.08398,-0.65821 z"/>
 <path style="fill:#8b9cbe" transform="matrix(0.49451898,0,0,0.48944686,-39.376848,1.320026)" d="M 114.00355,21.82028 99.848236,29.992854 V 13.647706 Z"/>
</svg>
