<svg xmlns="http://www.w3.org/2000/svg" width="24" height="24" version="1">
 <rect style="fill:#124aa0" width="20" height="20" x="2" y="2" rx="10" ry="10"/>
 <path style="opacity:0.1;fill:#8b9cbe" d="M 12,2 C 6.4604924,2 2.0008889,6.4599999 2.0008889,12 c 0,0.084 -0.002,0.1665 0,0.25 C 2.1330771,6.8269999 6.5444849,2.5 12,2.5 c 5.455515,0 9.867123,4.3269999 9.999111,9.75 0.002,-0.0835 0,-0.166 0,-0.25 C 21.999111,6.4599999 17.539507,2 12,2 Z"/>
 <path style="opacity:0.2" d="M 2.00585,12.25 C 2.0038,12.3335 2,12.416 2,12.5 c 0,5.54 4.4599999,10 10,10 5.54,0 10,-4.46 10,-10 0,-0.084 -0.004,-0.1665 -0.006,-0.25 C 21.862,17.673 17.456,22 12,22 6.5439999,22 2.138,17.673 2.006,12.25 Z"/>
 <path style="opacity:0.2" d="m 8.0134978,7.4999998 c -1.1041314,0 -2.1788324,0.9079305 -1.9922744,2 L 7.2165879,16.5 c 0.186559,1.092069 0.8891199,2 1.9932509,2 h 5.5803222 c 1.104131,0 1.806692,-0.907931 1.993251,-2 l 1.195364,-7.0000002 c 0.186559,-1.0920695 -0.888142,-2 -1.992274,-2 z M 12,10.500127 c 1.104618,0 2.000087,0.895431 2.000087,2 -9.13e-4,0.713617 -0.382006,1.372684 -1.000044,1.729492 v 1.770254 c 0,0.277 -0.223009,0.5 -0.500021,0.5 h -1.000044 c -0.277012,0 -0.500022,-0.223 -0.500022,-0.5 v -1.770254 c -0.618038,-0.356808 -0.99913,-1.015875 -1.0000437,-1.729492 -10e-8,-1.10457 0.8954697,-2 2.0000877,-2 z"/>
 <path style="fill:#8b9cbe" d="m 8.0134978,6.9999999 c -1.1041314,0 -2.1788324,0.9079304 -1.9922744,1.9999999 L 7.2165879,16 c 0.186559,1.092069 0.8891199,2 1.9932509,2 h 5.5803222 c 1.104131,0 1.806692,-0.907931 1.993251,-2 L 17.978776,8.9999998 C 18.165335,7.9079303 17.090634,6.9999999 15.986502,6.9999999 Z M 12,10.000127 c 1.104618,0 2.000087,0.895431 2.000087,2 -9.13e-4,0.713617 -0.382006,1.372684 -1.000044,1.729492 v 1.770254 c 0,0.277 -0.223009,0.5 -0.500021,0.5 h -1.000044 c -0.277012,0 -0.500022,-0.223 -0.500022,-0.5 v -1.770254 c -0.618038,-0.356808 -0.99913,-1.015875 -1.0000437,-1.729492 -10e-8,-1.10457 0.8954697,-2 2.0000877,-2 z"/>
</svg>
