<svg xmlns="http://www.w3.org/2000/svg" width="24" height="24" version="1">
 <circle style="opacity:.2" cx="15" cy="15.5" r="7"/>
 <circle style="fill:#2c80a2" cx="15" cy="15" r="7"/>
 <circle style="opacity:.2" cx="15" cy="15.5" r="4"/>
 <circle style="fill:#8b9cbe" cx="15" cy="15" r="4"/>
 <circle style="opacity:.2" cx="9" cy="9.5" r="7"/>
 <circle style="fill:#37abc8" cx="9" cy="9" r="7"/>
 <circle style="opacity:.2" cx="9" cy="9.5" r="4"/>
 <circle style="fill:#8b9cbe" cx="9" cy="9" r="4"/>
 <path style="opacity:.2;stroke:#000000;stroke-linecap:round;fill:none" d="m14.499896 16.999905s-0.33059-3.857401-2.006708-5.5c-1.676117-1.642601-4.9932918-2.5000012-4.9932918-2.5000012"/>
 <path style="stroke:#ff6e4c;stroke-linecap:round;fill:none" d="m14.499896 16.5s-0.33059-3.857401-2.006708-5.5c-1.676117-1.642601-4.9932918-2.5-4.9932918-2.5"/>
 <path style="opacity:.2;fill:#8b9cbe" d="m9 2a7 7 0 0 0 -7 7 7 7 0 0 0 0.0107422 0.292969 7 7 0 0 1 6.9892578 -6.792969 7 7 0 0 1 6.989258 6.707031 7 7 0 0 0 0.010742 -0.207031 7 7 0 0 0 -7 -7z"/>
 <path style="opacity:.2;stroke:#000000;stroke-linecap:round;fill:none" d="m9.5005502 7.9980843s0.33059 3.8574017 2.0067078 5.5000007c1.676117 1.642601 4.993292 2.5 4.993292 2.5"/>
 <path style="stroke:#ff6e4c;stroke-linecap:round;fill:none" d="m9.5005502 7.4981805s0.33059 3.8574005 2.0067078 5.4999995c1.676117 1.642601 4.993292 2.5 4.993292 2.5"/>
</svg>
