<svg xmlns="http://www.w3.org/2000/svg" width="24" height="24" version="1">
 <rect style="fill:#3084e0" width="20" height="20" x="2" y="2" rx="10" ry="10"/>
 <path style="opacity:0.2;fill:#8b9cbe" d="M 12,2 C 6.46,2 2,6.46 2,12 2,12.084 2.0038,12.166 2.0058,12.25 2.1382,6.827 6.544,2.5 12,2.5 c 5.4558,0 9.862,4.327 9.994,9.75 C 21.996,12.1665 22,12.084 22,12 22,6.46 17.54,2 12,2 Z"/>
 <path style="opacity:0.2" d="M 2.0058,12.25 C 2.0038,12.334 2,12.416 2,12.5 c 0,5.54 4.46,10 10,10 5.54,0 10,-4.46 10,-10 0,-0.08394 -0.0038,-0.16657 -0.0059,-0.25 -0.132,5.423 -4.538,9.75 -9.994,9.75 -5.456,0 -9.862,-4.327 -9.994,-9.75 z"/>
 <path style="opacity:0.2" d="m 12,5.5000001 c -3.866,0 -7,3.134 -7,6.9999999 0,3.866 3.134,7 7,7 3.866,0 7,-3.134 7,-7 0,-3.8659998 -3.134,-6.9999999 -7,-6.9999999 z m -0.701172,1.3378911 c 0.08161,-0.0085 0.185238,0.0049 0.267578,0 0.0098,0.03904 -0.05926,0.177589 -0.152344,0.380859 -0.592693,1.294794 -0.626245,2.8125508 -0.07617,3.6230468 0.09954,0.146948 0.189453,0.286507 0.189453,0.304687 0,0.01817 -0.107136,0.03711 -0.228516,0.03711 -0.284942,0 -0.554529,-0.173105 -1.105469,-0.609375 -0.244747,-0.193805 -0.562277,-0.35622 -0.685547,-0.38086 -0.193573,-0.03867 -0.245674,-0.02193 -0.496093,0.228516 -0.232993,0.232951 -0.304688,0.359005 -0.304688,0.572266 0,0.808716 0.959536,1.449836 2.744141,1.828125 2.42356,0.51366 3.021041,0.975603 3.08789,2.25 0.08393,1.598058 -0.767351,2.803477 -2.630859,3.736328 -0.222422,0.111379 -0.363711,0.153463 -0.457031,0.189453 -0.04135,-0.0037 -0.07205,0.0037 -0.113281,0 -0.01586,-0.04941 -0.03906,-0.16367 -0.03906,-0.380859 0,-0.848777 -0.33377,-1.722371 -0.83789,-2.210938 C 10.325619,16.275087 9.945565,15.99773 9.621098,15.796875 9.296643,15.596032 8.969438,15.363212 8.896488,15.263672 8.775598,15.098486 8.766499,14.996563 8.859378,14.691406 9.02865,14.134074 9.229414,13.82285 9.621097,13.470703 9.826441,13.286085 10.032638,13.132606 10.078128,13.128906 10.123628,13.125206 9.817324,13.031976 9.355472,12.9375 8.893646,12.84284 8.216483,12.643995 7.867191,12.517578 7.22848,12.286469 6.367827,11.802306 6.039065,11.451172 c -0.01391,-0.01488 -0.02698,-0.02588 -0.03906,-0.03906 0.471037,-1.8763158 1.792547,-3.4132119 3.544922,-4.1542968 0.366663,-0.155085 0.745529,-0.26214 1.144531,-0.34375 0.198745,-0.04062 0.404165,-0.05531 0.609375,-0.07617 z m 5.71875,2.8593749 c 0.143276,0.08856 0.683464,1.2591689 0.837891,1.8300779 0.199379,0.737047 0.184947,2.01196 0,2.74414 -0.07039,0.278672 -0.159443,0.539816 -0.189453,0.572266 -0.03001,0.03245 -0.139563,-0.153996 -0.267578,-0.380859 -0.128029,-0.226827 -0.537105,-0.709773 -0.876954,-1.06836 -0.980964,-1.035115 -1.135518,-1.574279 -0.724609,-2.40039 0.207223,-0.41658 1.109815,-1.3653149 1.220703,-1.2968749 z"/>
 <path style="fill:#ffa923" d="m 12,5.0000001 c -3.866,0 -7,3.134 -7,6.9999999 0,3.866 3.134,7 7,7 3.866,0 7,-3.134 7,-7 0,-3.8659998 -3.134,-6.9999999 -7,-6.9999999 z m -0.701172,1.3378911 c 0.08161,-0.0085 0.185238,0.0049 0.267578,0 0.0098,0.03904 -0.05926,0.177589 -0.152344,0.380859 -0.592693,1.294794 -0.626245,2.8125509 -0.07617,3.6230468 0.09954,0.146948 0.189453,0.286507 0.189453,0.304687 0,0.01817 -0.107136,0.03711 -0.228516,0.03711 -0.284942,0 -0.554529,-0.173105 -1.105469,-0.609375 C 9.948613,9.8804142 9.631083,9.7179991 9.507813,9.6933591 9.31424,9.6546891 9.262139,9.6714292 9.01172,9.9218751 8.778727,10.154826 8.707032,10.28088 8.707032,10.494141 c 0,0.808716 0.959536,1.449836 2.744141,1.828125 2.42356,0.51366 3.021041,0.975603 3.08789,2.25 0.08393,1.598058 -0.767351,2.803477 -2.630859,3.736328 -0.222422,0.111379 -0.363711,0.153463 -0.457031,0.189453 -0.04135,-0.0037 -0.07205,0.0037 -0.113281,0 -0.01586,-0.04941 -0.03906,-0.16367 -0.03906,-0.380859 0,-0.848777 -0.33377,-1.722371 -0.83789,-2.210938 C 10.325619,15.775087 9.945565,15.49773 9.621098,15.296875 9.296643,15.096032 8.969438,14.863212 8.896488,14.763672 8.775598,14.598486 8.766499,14.496563 8.859378,14.191406 9.02865,13.634074 9.229414,13.32285 9.621097,12.970703 9.826441,12.786085 10.032638,12.632606 10.078128,12.628906 10.123628,12.625206 9.817324,12.531976 9.355472,12.4375 8.893646,12.34284 8.216483,12.143995 7.867191,12.017578 7.22848,11.786469 6.367827,11.302306 6.039065,10.951172 c -0.01391,-0.01488 -0.02698,-0.02588 -0.03906,-0.03906 0.471037,-1.8763158 1.792547,-3.4132119 3.544922,-4.1542968 0.366663,-0.155085 0.745529,-0.26214 1.144531,-0.34375 0.198745,-0.04062 0.404165,-0.05531 0.609375,-0.07617 z m 5.71875,2.8593749 c 0.143276,0.08856 0.683464,1.2591689 0.837891,1.8300779 0.199379,0.737047 0.184947,2.01196 0,2.74414 -0.07039,0.278672 -0.159443,0.539816 -0.189453,0.572266 -0.03001,0.03245 -0.139563,-0.153996 -0.267578,-0.380859 -0.128029,-0.226827 -0.537105,-0.709773 -0.876954,-1.06836 -0.980964,-1.035115 -1.135518,-1.574279 -0.724609,-2.40039 0.207223,-0.41658 1.109815,-1.3653149 1.220703,-1.2968749 z"/>
</svg>
