<svg xmlns="http://www.w3.org/2000/svg" width="24" height="24" version="1.1">
 <path style="opacity:0.2" d="m 5,2.5 c -0.554,0 -1,0.446 -1,1 v 18 c 0,0.554 0.446,1 1,1 h 14 c 0.554,0 1,-0.446 1,-1 v -13 l -6,-6 z"/>
 <path style="fill:#f14223" d="M 5,2 C 4.446,2 4,2.446 4,3 v 18 c 0,0.554 0.446,1 1,1 h 14 c 0.554,0 1,-0.446 1,-1 V 8 L 15,7 14,2 Z"/>
 <path style="fill:#8b9cbe" d="M 6,4 V 20 H 18 V 7.9531252 L 14.769231,7.2941176 14.122897,4 Z"/>
 <path style="opacity:0.1" d="m 14,7 v 0.5 c 0,0.554 0.446,1 1,1 h 5 V 8 H 15 C 14.446,8 14,7.554 14,7 Z"/>
 <path style="fill:#f46b53" d="M 20,8 14,2 v 5 c 0,0.554 0.446,1 1,1 z"/>
 <path style="opacity:0.2;fill:#8b9cbe" d="M 5,2 C 4.446,2 4,2.446 4,3 v 0.5 c 0,-0.554 0.446,-1 1,-1 h 9 V 2 Z"/>
 <g style="fill:#17191e" transform="matrix(-0.35995607,0.37795278,0.35995607,0.37795278,-86.573605,-96.75197)">
  <path style="fill:#17191e" d="m 7.9375,274.5104 v 21.16667 h 2.645833 V 274.5104 Z"/>
  <path style="fill:#17191e" d="m 2.6458333,278.47915 v -1.32292 c 2.0146377,-0.30282 3.1092047,-0.75641 4.340037,-2.70234 l 4.9203797,0.0566 h 2.645833 v 3.96875 z"/>
 </g>
 <path style="fill:#696a6a" d="m 11.252986,16.559246 0.323934,1.402296 -1.038461,1.038455 H 9.384617 L 10.538461,17.846144 10.192307,16.807697 9.1538465,16.461538 8.000003,17.615375 8,16.461538 l 1.038461,-1.038456 1.153848,0.230771 0.372671,0.08282 3.263897,-3.139472 -0.405798,-1.558738 1.038461,-1.0384635 h 1.153842 l -1.153843,1.1538525 0.346154,1.038448 1.038461,0.346159 1.153842,-1.153837 4e-6,1.153837 -1.038461,1.03847 -1.444654,-0.281574 z"/>
 <rect style="opacity:0.2" width="12" height=".5" x="6" y="20"/>
</svg>
