<svg xmlns="http://www.w3.org/2000/svg" width="24" height="24" version="1">
 <rect style="opacity:0.2" width="20" height="20" x="2" y="2.5" rx="1" ry="1"/>
 <rect style="fill:#3c4553" width="20" height="20" x="2" y="2" rx="1" ry="1"/>
 <path style="opacity:0.1;fill:#8b9cbe" d="M 3,2 C 2.446,2 2,2.446 2,3 v 0.5 c 0,-0.554 0.446,-1 1,-1 h 18 c 0.554,0 1,0.446 1,1 V 3 C 22,2.446 21.554,2 21,2 Z"/>
 <path style="opacity:0.2" d="m 10.862305,5.5009765 c -0.41602,-0.00568 -0.504457,0.01094 -0.624024,0.1132815 -0.08885,0.076051 -0.161586,0.2273955 -0.188476,0.3935545 -0.01212,0.07493 -0.01846,0.5996385 -0.01855,1.426758 -1.05e-4,1.0450055 -0.0049,1.307617 -0.02343,1.307617 -0.01273,0 -0.679371,-0.656841 -1.481446,-1.459961 C 7.7242945,6.4791065 7.0329165,5.7982845 6.9902365,5.7685545 6.8740745,5.6876435 6.66695,5.593923 6.5029315,5.548828 6.3679165,5.511708 6.308078,5.508583 5.696291,5.501953 5.3327625,5.498003 5.035158,5.5014655 5.035158,5.509768 c 1e-6,0.0083 1.3886245,1.403355 3.085938,3.100586 C 9.6975525,10.186735 10.814623,11.29797 11,11.476563 V 5.5029295 Z m 2.275391,0 L 13,5.5029295 v 5.9736335 c 0.185377,-0.178593 1.302448,-1.289828 2.878906,-2.8662115 1.697313,-1.697231 3.085937,-3.0922855 3.085938,-3.100586 0,-0.0083 -0.297605,-0.01175 -0.661133,-0.00781 -0.611787,0.00663 -0.671626,0.00975 -0.806641,0.046875 -0.164018,0.045095 -0.371143,0.1388155 -0.487305,0.2197265 -0.04268,0.02973 -0.734058,0.710552 -1.536132,1.513672 -0.802075,0.80312 -1.468716,1.459961 -1.481445,1.459961 -0.01849,0 -0.02334,-0.2626115 -0.02344,-1.307617 -9.1e-5,-0.8271195 -0.0064,-1.3518275 -0.01855,-1.426758 C 13.923308,5.841651 13.850572,5.690306 13.761721,5.6142555 13.642155,5.511915 13.553717,5.4953 13.137698,5.500974 Z m -8.118165,2.548828 c -0.0199,0 -0.022526,0.1125745 -0.0166,0.6240235 0.00699,0.6031945 0.00816,0.630542 0.053711,0.7978515 0.057411,0.2109055 0.1341775,0.383379 0.246094,0.5546875 0.062236,0.09526 0.3918935,0.437269 1.2529295,1.300782 l 1.167969,1.171875 -1.167969,1.170898 c -0.861036,0.863513 -1.1906935,1.205517 -1.2529295,1.300781 -0.1119165,0.171309 -0.1886825,0.343783 -0.246094,0.554688 -0.045545,0.167309 -0.04672,0.194657 -0.053711,0.797851 -0.00593,0.511449 -0.00328,0.624023 0.0166,0.624023 0.033705,0 4.4462895,-4.414516 4.4462895,-4.448241 0,-0.03373 -4.412584,-4.4492195 -4.4462895,-4.4492195 z m 13.960938,0 c -0.0337,0 -4.446289,4.4154945 -4.446289,4.4492195 0,0.03373 4.412586,4.448241 4.446289,4.448241 0.01989,0 0.02253,-0.112574 0.0166,-0.624023 -0.007,-0.603194 -0.0082,-0.630542 -0.05371,-0.797851 -0.05741,-0.210905 -0.134178,-0.383379 -0.246094,-0.554688 -0.06224,-0.09526 -0.391893,-0.437268 -1.25293,-1.300781 l -1.167969,-1.170898 1.167969,-1.171875 c 0.861036,-0.863513 1.190694,-1.205518 1.25293,-1.300782 0.111916,-0.1713085 0.188682,-0.343782 0.246094,-0.5546875 0.04555,-0.1673095 0.04672,-0.194657 0.05371,-0.7978515 0.0059,-0.511449 0.0033,-0.6240235 -0.0166,-0.6240235 z M 11,13.521485 c -0.426044,0.40928 -5.9648435,5.947694 -5.964844,5.965819 5e-7,0.0083 0.2976045,0.01274 0.661133,0.0088 0.611787,-0.0066 0.6716255,-0.01073 0.8066405,-0.04785 0.1640185,-0.04509 0.371143,-0.137839 0.487305,-0.21875 0.04268,-0.02973 0.734058,-0.711529 1.5361325,-1.514649 0.802075,-0.80312 1.4687155,-1.459961 1.481446,-1.459961 0.01849,0 0.02333,0.262612 0.02343,1.307617 9e-5,0.82712 0.0064,1.351827 0.01855,1.426758 0.04157,0.256899 0.166773,0.428234 0.35254,0.483399 0.06658,0.01977 0.186231,0.02734 0.449221,0.02734 0.07904,0 0.0876,-0.0035 0.148437,-0.0049 z m 2,0 v 5.973632 c 0.06084,0.0014 0.0694,0.0049 0.148438,0.0049 0.26299,0 0.382639,-0.0076 0.449218,-0.02735 0.185767,-0.05516 0.310968,-0.226499 0.35254,-0.483398 0.01212,-0.07493 0.01847,-0.599639 0.01855,-1.426758 1.09e-4,-1.045006 0.005,-1.307617 0.02344,-1.307617 0.01273,0 0.67937,0.65684 1.481445,1.459961 0.802074,0.803119 1.493453,1.48492 1.536132,1.514648 0.116162,0.08091 0.323287,0.173656 0.487305,0.21875 0.135015,0.03712 0.194854,0.04122 0.806641,0.04785 0.363528,0.0039 0.661132,-5e-4 0.661133,-0.0088 0,-0.01812 -5.5388,-5.55654 -5.964844,-5.96582 z"/>
 <path style="fill:#12a1ff" d="m 10.862305,5.0009765 c -0.41602,-0.00567 -0.504457,0.01094 -0.624024,0.1132815 -0.08885,0.076051 -0.161586,0.2273955 -0.188476,0.3935545 -0.01212,0.07493 -0.01846,0.5996385 -0.01855,1.426758 -1.05e-4,1.0450055 -0.0049,1.307617 -0.02343,1.307617 -0.01273,0 -0.679371,-0.656841 -1.481446,-1.459961 C 7.7242945,5.9791065 7.0329165,5.2982845 6.9902365,5.2685545 6.8740745,5.1876435 6.66695,5.093923 6.5029315,5.048828 6.3679165,5.011708 6.308078,5.008583 5.696291,5.001953 5.3327625,4.998013 5.035158,5.0014655 5.035158,5.009768 c 1e-6,0.0083 1.3886245,1.403355 3.085938,3.100586 C 9.6975525,9.6867345 10.814623,10.79797 11,10.976563 V 5.0029295 Z m 2.275391,0 L 13,5.0029295 v 5.9736335 c 0.185377,-0.178593 1.302448,-1.2898285 2.878906,-2.8662115 1.697313,-1.697231 3.085937,-3.0922855 3.085938,-3.100586 0,-0.0083 -0.297605,-0.011751 -0.661133,-0.00781 -0.611787,0.00663 -0.671626,0.00975 -0.806641,0.046875 -0.164018,0.045095 -0.371143,0.1388155 -0.487305,0.2197265 -0.04268,0.02973 -0.734058,0.710552 -1.536132,1.513672 -0.802075,0.80312 -1.468716,1.459961 -1.481445,1.459961 -0.01849,0 -0.02334,-0.2626115 -0.02344,-1.307617 -9.1e-5,-0.8271195 -0.0064,-1.3518275 -0.01855,-1.426758 C 13.923308,5.341651 13.850572,5.190306 13.761721,5.1142555 13.642155,5.011915 13.553717,4.9952998 13.137698,5.000974 Z m -8.118165,2.548828 c -0.0199,0 -0.022526,0.1125745 -0.0166,0.6240235 0.00699,0.6031945 0.00816,0.630542 0.053711,0.7978515 0.057411,0.2109055 0.1341775,0.383379 0.246094,0.5546875 0.062236,0.095264 0.3918935,0.437269 1.2529295,1.300782 l 1.167969,1.171875 -1.167969,1.170898 c -0.861036,0.863513 -1.1906935,1.205517 -1.2529295,1.300781 -0.1119165,0.171309 -0.1886825,0.343783 -0.246094,0.554688 -0.045545,0.167309 -0.04672,0.194657 -0.053711,0.797851 -0.00593,0.511449 -0.00328,0.624023 0.0166,0.624023 0.033705,0 4.4462895,-4.414516 4.4462895,-4.448241 0,-0.03373 -4.412584,-4.4492195 -4.4462895,-4.4492195 z m 13.960938,0 c -0.0337,0 -4.446289,4.4154945 -4.446289,4.4492195 0,0.03373 4.412586,4.448241 4.446289,4.448241 0.01989,0 0.02253,-0.112574 0.0166,-0.624023 -0.007,-0.603194 -0.0082,-0.630542 -0.05371,-0.797851 -0.05741,-0.210905 -0.134178,-0.383379 -0.246094,-0.554688 -0.06224,-0.09526 -0.391893,-0.437268 -1.25293,-1.300781 l -1.167969,-1.170898 1.167969,-1.171875 c 0.861036,-0.863513 1.190694,-1.2055175 1.25293,-1.300782 0.111916,-0.1713085 0.188682,-0.343782 0.246094,-0.5546875 0.04555,-0.1673095 0.04672,-0.194657 0.05371,-0.7978515 0.0059,-0.511449 0.0033,-0.6240235 -0.0166,-0.6240235 z M 11,13.021485 c -0.426044,0.40928 -5.9648435,5.947694 -5.964844,5.965819 5e-7,0.0083 0.2976045,0.01274 0.661133,0.0088 0.611787,-0.0066 0.6716255,-0.01073 0.8066405,-0.04785 0.1640185,-0.04509 0.371143,-0.137839 0.487305,-0.21875 0.04268,-0.02973 0.734058,-0.711529 1.5361325,-1.514649 0.802075,-0.80312 1.4687155,-1.45996 1.481446,-1.45996 0.01849,0 0.02333,0.262611 0.02343,1.307616 9e-5,0.82712 0.0064,1.351827 0.01855,1.426758 0.04157,0.256899 0.166773,0.428234 0.35254,0.483399 0.06659,0.01976 0.18624,0.02733 0.44923,0.02733 0.07904,0 0.0876,-0.0035 0.148437,-0.0049 z m 2,0 v 5.973632 c 0.06084,0.0014 0.0694,0.0049 0.148438,0.0049 0.26299,0 0.382639,-0.0076 0.449218,-0.02735 0.185767,-0.05516 0.310968,-0.226499 0.35254,-0.483398 0.01212,-0.07493 0.01847,-0.599639 0.01855,-1.426758 1.09e-4,-1.045006 0.005,-1.307617 0.02344,-1.307617 0.01273,0 0.67937,0.65684 1.481445,1.459961 0.802074,0.803119 1.493453,1.48492 1.536132,1.514648 0.116162,0.08091 0.323287,0.173656 0.487305,0.21875 0.135015,0.03712 0.194854,0.04122 0.806641,0.04785 0.363528,0.0039 0.661132,-5e-4 0.661133,-0.0088 0,-0.01812 -5.5388,-5.55654 -5.964844,-5.96582 z"/>
 <path style="opacity:0.2;fill:#8b9cbe" d="m 10.862305,5.0009765 c -0.41602,-0.00567 -0.504457,0.01094 -0.624024,0.1132815 -0.08885,0.076051 -0.161586,0.2273955 -0.188476,0.3935545 -0.01212,0.07493 -0.01846,0.5996385 -0.01855,1.426758 -1.05e-4,1.0450055 -0.0049,1.307617 -0.02343,1.307617 -0.01273,0 -0.679371,-0.656841 -1.481446,-1.459961 C 7.7242945,5.9791065 7.0329165,5.2982845 6.9902365,5.2685545 6.8740745,5.1876435 6.66695,5.093923 6.5029315,5.048828 6.3679165,5.011708 6.308078,5.008583 5.696291,5.001953 5.3327625,4.998013 5.035158,5.0014655 5.035158,5.009768 c 5e-7,0.0013 0.425971,0.4267145 0.492188,0.4941405 0.08042,8.45e-5 0.07605,-0.00295 0.168945,-0.00195 0.611787,0.00663 0.6716255,0.00976 0.8066405,0.046875 0.1640185,0.045095 0.371143,0.1388155 0.487305,0.2197265 0.04268,0.02973 0.734058,0.710552 1.5361325,1.513672 0.802075,0.80312 1.4687155,1.459961 1.481446,1.459961 0.01849,0 0.02333,-0.2626115 0.02343,-1.307617 9e-5,-0.8271195 0.0064,-1.3518275 0.01855,-1.426758 0.02689,-0.166159 0.09963,-0.317504 0.188476,-0.3935545 C 10.357848,5.511922 10.446285,5.495307 10.862305,5.500982 L 11,5.5029295 v -0.5 z m 2.275391,0 L 13,5.0029295 v 0.5 l 0.137696,-0.00195 c 0.416019,-0.00568 0.504457,0.01094 0.624023,0.1132815 0.08885,0.076051 0.161587,0.2273955 0.188477,0.3935545 0.01212,0.07493 0.01847,0.5996385 0.01855,1.426758 10e-5,1.0450055 0.0049,1.307617 0.02343,1.307617 0.01273,0 0.679371,-0.656841 1.481446,-1.459961 0.802074,-0.80312 1.493452,-1.483942 1.536132,-1.513672 0.116162,-0.080911 0.323287,-0.1746315 0.487305,-0.2197265 0.135015,-0.03712 0.194854,-0.040245 0.806641,-0.046875 0.09289,-10e-4 0.08852,0.00205 0.168945,0.00195 0.06622,-0.067426 0.492187,-0.492817 0.492188,-0.4941405 0,-0.0083 -0.297605,-0.011751 -0.661133,-0.00781 -0.611787,0.00663 -0.671626,0.00975 -0.806641,0.046875 -0.164018,0.045095 -0.371143,0.1388155 -0.487305,0.2197265 -0.04268,0.02973 -0.734058,0.710552 -1.536132,1.513672 -0.802075,0.80312 -1.468716,1.459961 -1.481446,1.459961 -0.01849,0 -0.02333,-0.2626115 -0.02343,-1.307617 C 13.968659,6.1074485 13.96232,5.5827405 13.950196,5.50781 13.923306,5.341651 13.850569,5.190306 13.761719,5.1142555 13.642153,5.011915 13.553715,4.9952998 13.137696,5.000974 Z m -8.118165,2.548828 c -0.019687,0 -0.022282,0.115664 -0.0166,0.6132815 0.0026,-0.080087 0.00722,-0.1132815 0.0166,-0.1132815 0.031825,0 3.759595,3.7310225 4.199219,4.1992195 0.02603,-0.02772 0.2470705,-0.248116 0.2470705,-0.25 0,-0.03373 -4.4125835,-4.4492195 -4.4462895,-4.4492195 z m 13.960938,0 c -0.0337,0 -4.446289,4.4154945 -4.446289,4.4492195 0,0.0019 0.221042,0.222286 0.24707,0.25 0.439625,-0.468197 4.167397,-4.1992195 4.199219,-4.1992195 0.0094,0 0.01399,0.033195 0.0166,0.1132815 0.0057,-0.4976175 0.0031,-0.6132815 -0.0166,-0.6132815 z M 7.4746095,12.249024 6.555664,13.169922 c -0.861036,0.863513 -1.1906935,1.205517 -1.2529295,1.300781 -0.1119165,0.171309 -0.1886825,0.343783 -0.246094,0.554688 -0.045545,0.167309 -0.04672,0.194657 -0.053711,0.797851 -0.00313,0.270271 -0.00293,0.420994 0,0.510742 6.15e-5,-0.0054 -6.3e-5,-0.0053 0,-0.01074 0.00699,-0.603195 0.00816,-0.630542 0.053711,-0.797852 0.057411,-0.210905 0.1341775,-0.383378 0.246094,-0.554687 0.062236,-0.09526 0.3918935,-0.437269 1.2529295,-1.300781 l 1.167969,-1.170899 z m 9.0507805,0 -0.249023,0.25 1.167969,1.170898 c 0.861036,0.863513 1.190694,1.205517 1.252929,1.300781 0.111917,0.171309 0.188683,0.343783 0.246094,0.554688 0.04555,0.167309 0.04672,0.194657 0.05371,0.797851 6.3e-5,0.0054 -6.1e-5,0.0054 0,0.01074 0.0029,-0.08975 0.0031,-0.240472 0,-0.510742 -0.007,-0.603195 -0.0082,-0.630542 -0.05371,-0.797852 -0.05741,-0.210905 -0.134177,-0.383378 -0.246094,-0.554687 -0.06224,-0.09526 -0.391893,-0.437269 -1.252929,-1.300782 z M 11,13.021485 c -0.426044,0.40928 -5.964843,5.947694 -5.964844,5.965819 5e-7,0.0062 0.258134,0.0068 0.4931645,0.0068 C 6.3016325,18.206996 10.609178,13.896929 11,13.521485 Z m 2,0 v 0.5 c 0.390822,0.375444 4.698367,4.685511 5.471679,5.472655 0.235031,-1.7e-5 0.493164,-6.5e-4 0.493165,-0.0068 0,-0.01813 -5.5388,-5.55654 -5.964844,-5.96582 z"/>
</svg>
