<svg xmlns="http://www.w3.org/2000/svg" width="24" height="24" version="1.1">
 <circle style="opacity:0.2" cx="12" cy="12.5" r="10"/>
 <circle style="fill:#3db54a" cx="12" cy="12" r="10"/>
 <path style="opacity:0.2;fill:#8b9cbe" d="M 12,2 A 10,10 0 0 0 2,12 10,10 0 0 0 2.01075,12.291 10,10 0 0 1 12,2.5 10,10 0 0 1 21.9895,12.209 10,10 0 0 0 22,12 10,10 0 0 0 12,2 Z"/>
 <path style="opacity:0.2" d="M 8.265625,7.5 C 8.1199935,7.4968 7.999837,7.6186508 8,7.7695312 v 1.6875 c 1.075e-4,0.096214 0.050303,0.1845204 0.1308594,0.2324219 L 10.736328,11.25 8.1308594,12.810547 C 8.0503029,12.858449 8.0001075,12.946755 8,13.042969 v 1.6875 C 7.999837,14.881349 8.1199935,15.0032 8.265625,15 c 0.043705,-10e-4 0.087189,-0.01244 0.125,-0.03516 l 4.478516,-2.666016 C 12.949697,12.25093 12.999893,12.164573 13,12.068359 V 11.25 10.431641 c -1.07e-4,-0.09621 -0.0503,-0.182568 -0.130859,-0.230469 L 8.390625,7.5371094 C 8.352815,7.5143844 8.30933,7.50106 8.265625,7.5 Z M 12.5,15.5 C 12.223,15.5 12,15.723 12,16 v 1 c 0,0.277 0.223,0.5 0.5,0.5 h 5 c 0.277,0 0.5,-0.223 0.5,-0.5 v -1 c 0,-0.277 -0.223,-0.5 -0.5,-0.5 z"/>
 <path style="fill:#8b9cbe" d="M 8.265625 7 C 8.1199935 6.9968 7.999837 7.1186508 8 7.2695312 L 8 8.9570312 C 8.0001075 9.0532452 8.0503029 9.1415516 8.1308594 9.1894531 L 10.736328 10.75 L 8.1308594 12.310547 C 8.0503029 12.358449 8.0001075 12.446755 8 12.542969 L 8 14.230469 C 7.999837 14.381349 8.1199935 14.5032 8.265625 14.5 C 8.30933 14.499 8.3528145 14.487564 8.390625 14.464844 L 12.869141 11.798828 C 12.949697 11.75093 12.999893 11.664573 13 11.568359 L 13 10.75 L 13 9.9316406 C 12.999893 9.8354266 12.9497 9.7490734 12.869141 9.7011719 L 8.390625 7.0371094 C 8.352815 7.0143844 8.30933 7.00106 8.265625 7 z M 12.5 15 C 12.223 15 12 15.223 12 15.5 L 12 16.5 C 12 16.777 12.223 17 12.5 17 L 17.5 17 C 17.777 17 18 16.777 18 16.5 L 18 15.5 C 18 15.223 17.777 15 17.5 15 L 12.5 15 z"/>
</svg>
