<svg xmlns="http://www.w3.org/2000/svg" width="24" height="24" version="1.1">
 <g transform="translate(0,-1034.9764)">
  <rect style="opacity:0.2" width="20" height="20" x="-1057.48" y="-22" rx="1" ry="1" transform="matrix(0,-1,-1,0,0,0)"/>
  <path style="fill:#17191e" d="m 2,1053.9264 v 1.5495 0.429 c 0,0.5936 0.446,1.0715 1,1.0715 h 18 c 0.554,0 1,-0.4779 1,-1.0715 v -0.429 -1.5495 z"/>
  <rect style="fill:#009072" width="3" height="1" x="3" y="1055.98"/>
  <rect style="fill:#009072" width="3" height="1" x="8" y="1055.98"/>
  <rect style="fill:#009072" width="3" height="1" x="13" y="1055.98"/>
  <rect style="fill:#009072" width="3" height="1" x="18" y="1055.98"/>
  <path style="fill:#4551ff" d="m 3,1036.9764 c -0.554,0 -1,0.446 -1,1 v 16 h 20 v -16 c 0,-0.554 -0.446,-1 -1,-1 z"/>
  <path style="opacity:0.2" d="m 4,1039.4764 v 2 h 6 v -2 z m 10,0 v 2 h 6 v -2 z m -10,4 v 2 h 6 v -2 z m 10,0 v 2 h 6 v -2 z m -10,4 v 2 h 6 v -2 z m 10,0 v 2 h 6 v -2 z m -10,4 v 2 h 6 v -2 z m 10,0 v 2 h 6 v -2 z"/>
  <rect style="fill:#07e9ff" width="2" height="17" x="11" y="1036.98"/>
  <rect style="fill:#ffff00" width="6" height="2" x="4" y="1038.98"/>
  <path style="opacity:0.1;fill:#8b9cbe" d="m 3,1036.9764 c -0.554,0 -1,0.446 -1,1 v 0.5 c 0,-0.554 0.446,-1 1,-1 h 18 c 0.554,0 1,0.446 1,1 v -0.5 c 0,-0.554 -0.446,-1 -1,-1 z"/>
  <rect style="fill:#07e9ff" width="2" height="6" x="1042.98" y="-10" transform="rotate(90)"/>
  <rect style="fill:#07e9ff" width="2" height="6" x="1046.98" y="-10" transform="rotate(90)"/>
  <rect style="fill:#07e9ff" width="2" height="6" x="1050.98" y="-10" transform="rotate(90)"/>
  <rect style="fill:#ffff00" width="6" height="2" x="14" y="1038.98"/>
  <rect style="fill:#07e9ff" width="2" height="6" x="1042.98" y="-20" transform="rotate(90)"/>
  <rect style="fill:#07e9ff" width="2" height="6" x="1046.98" y="-20" transform="rotate(90)"/>
  <rect style="opacity:0.2" width="20" height=".5" x="2" y="1053.98"/>
  <rect style="fill:#07e9ff" width="2" height="6" x="1050.98" y="-20" transform="rotate(90)"/>
  <path style="fill:#8b9cbe;opacity:0.2" transform="translate(0,1034.9764)" d="M 4 4 L 4 4.5 L 10 4.5 L 10 4 L 4 4 z M 14 4 L 14 4.5 L 20 4.5 L 20 4 L 14 4 z M 4 8 L 4 8.5 L 10 8.5 L 10 8 L 4 8 z M 14 8 L 14 8.5 L 20 8.5 L 20 8 L 14 8 z M 4 12 L 4 12.5 L 10 12.5 L 10 12 L 4 12 z M 14 12 L 14 12.5 L 20 12.5 L 20 12 L 14 12 z M 4 16 L 4 16.5 L 10 16.5 L 10 16 L 4 16 z M 14 16 L 14 16.5 L 20 16.5 L 20 16 L 14 16 z"/>
 </g>
</svg>
