<svg width="24" height="24" version="1.1" xmlns="http://www.w3.org/2000/svg">
 <g transform="translate(1,1)">
  <rect transform="matrix(0,-1,-1,0,0,0)" x="-21" y="-21" width="20" height="19.997999" rx="10" ry="9.9989996" style="fill:#9e75f4"/>
  <path d="m11 1c-5.5395 0-9.999 4.46-9.999 10 0 0.08386-2e-3 0.16664 0 0.25 0.1321-5.423 4.5435-9.75 9.999-9.75s9.867 4.3268 9.999 9.75c2e-3 -0.08335 0-0.16614 0-0.25 0-5.54-4.459-10-9.999-10z" style="fill:#8b9cbe;opacity:.2"/>
  <path d="m1.0058 11.25c-2e-3 0.084-0.0058 0.166-0.0058 0.25 0 5.54 4.46 10 10 10s10-4.46 10-10c0-0.084-4e-3 -0.1665-6e-3 -0.25-0.132 5.423-4.538 9.75-9.994 9.75s-9.862-4.327-9.994-9.75z" style="opacity:.2"/>
  <path d="m13.181641 8.0279965c-0.271-0.01-0.580594 0.097944-1.058594 0.2773437-0.507 0.1904-1.028203 0.3457032-1.158203 0.3457031-0.131-9.99e-5 -0.531578-0.1240437-0.892578-0.2773437-0.8984004-0.3822-1.2579004-0.4334687-1.6250004-0.2304687-0.163 0.0902-0.76665 0.6557593-1.34375 1.2558593-0.8771 0.9117998-1.1350594 1.1238748-1.5683594 1.2968748-0.68193 0.27314-1.2565156 0.338726-1.7285156 0.197266-0.64071-0.19204-0.9864075 0.168011-0.7109375 0.738281 0.26266 0.54374 1.311925 1.036731 2.703125 1.269531 1.9315 0.32321 3.2106594 0.02294 4.5683599-1.070312 0.260249-0.20957 0.549978-0.38086 0.642578-0.38086s0.408291 0.193998 0.701172 0.429688c0.69561 0.55977 1.034675 0.737669 1.859374 0.980469 0.58691 0.1728 0.813402 0.192245 1.638672 0.140625 1.7352-0.10856 2.896513-0.474812 3.507813-1.107422 0.206-0.213 0.283203-0.376656 0.283203-0.597656 0-0.444001-0.239563-0.555438-0.851562-0.398438-0.371 0.096-0.577172 0.09767-0.951172 0.01367-0.915-0.205-1.328532-0.487912-2.394532-1.6328125-0.829-0.8891-1.171093-1.2334-1.621093-1.25zm-2.681641 5.4628905a0.50005 0.50005 0 0 0-0.490234 0.597656l0.5 2.5a0.50005 0.50005 0 0 0 0.980468 0l0.5-2.5a0.50005 0.50005 0 0 0-0.490234-0.597656z" style="opacity:.2"/>
  <path d="m13.181641 7.5371094c-0.271-0.01-0.580594 0.097944-1.058594 0.2773437-0.507 0.1904-1.028203 0.3457032-1.158203 0.3457031-0.131-9.99e-5 -0.531578-0.1240437-0.892578-0.2773437-0.8984004-0.3822-1.2579004-0.4334687-1.6250004-0.2304687-0.163 0.0902-0.76665 0.6557593-1.34375 1.2558593-0.8771 0.9118-1.1350594 1.1238749-1.5683594 1.2968749-0.68193 0.27314-1.2565156 0.338726-1.7285156 0.197266-0.64071-0.19204-0.9864075 0.168011-0.7109375 0.738281 0.26266 0.54374 1.311925 1.036731 2.703125 1.269531 1.9315 0.32321 3.2106594 0.02294 4.5683599-1.070312 0.260249-0.20957 0.549978-0.38086 0.642578-0.38086s0.408291 0.193998 0.701172 0.429688c0.69561 0.55977 1.034675 0.737669 1.859374 0.980469 0.58691 0.1728 0.813402 0.192245 1.638672 0.140625 1.7352-0.10856 2.896513-0.474812 3.507813-1.107422 0.206-0.213 0.283203-0.376656 0.283203-0.597656 0-0.444001-0.239563-0.555438-0.851562-0.398438-0.371 0.096-0.577172 0.09767-0.951172 0.01367-0.915-0.205-1.328532-0.4879126-2.394532-1.6328126-0.829-0.8891-1.171093-1.2334-1.621093-1.25zm-2.681641 5.4628906a0.50005 0.50005 0 0 0-0.490234 0.597656l0.5 2.5a0.50005 0.50005 0 0 0 0.980468 0l0.5-2.5a0.50005 0.50005 0 0 0-0.490234-0.597656z" style="fill:#8b9cbe"/>
 </g>
</svg>
