<svg xmlns="http://www.w3.org/2000/svg" width="24" height="24" version="1">
 <path style="opacity:0.2" d="m 16.96875,1.5037078 c -0.354671,-0.037977 -0.750375,0.196286 -0.869141,0.5136719 -0.04591,0.1220961 -0.04492,0.143425 -0.04492,1.4628907 0,1.0388915 -0.0065,1.9982906 -0.02734,2.0253906 -0.02431,0.031605 -0.192106,0.035822 -1.738282,0.044922 -0.947878,0.00555 -1.630259,0.020303 -1.779296,0.033203 C 11.331024,5.6856414 11.066033,5.8161762 10.310552,6.005661 8.6629981,6.4188915 7.2906527,7.2014737 6.4589844,8.2009735 5.635263,9.1909228 5.2146851,9.7052493 5.0390625,11.304489 c -0.038458,0.350351 -0.052191,1.518695 -0.021484,1.800781 0.059378,0.545411 0.1941059,1.13446 0.4179688,1.814453 0.2585292,0.785285 0.593668,1.493624 1.2128906,2.570312 0.3650783,0.634788 0.5713618,0.92492 0.703125,0.982422 h 0.00195 c 0.084728,0.0368 0.2521358,0.03665 0.3398438,0 0.1003264,-0.04191 0.2030169,-0.153743 0.2324218,-0.251953 0.020971,-0.07003 0.01576,-0.173987 -0.03125,-0.605469 C 7.7900366,16.654472 7.758461,15.9405 7.7929661,15.275192 c 0.1268072,-2.446432 0.9124972,-3.332163 2.6210929,-4.06836 0.828662,-0.357052 1.196886,-0.562611 2.546876,-0.666015 0.453583,-0.03475 3.02509,-0.05298 3.05664,-0.02148 0.01891,0.0189 0.02911,0.98193 0.03711,2.00586 l 0.0098,1.382812 0.05664,0.117188 c 0.149282,0.31475 0.557957,0.521431 0.904297,0.457031 0.07203,-0.0134 0.175378,-0.04456 0.230468,-0.07031 0.07811,-0.03651 0.883554,-0.731107 2.951172,-2.796875 C 22.750986,9.0733543 22.861787,8.5603243 22.929688,8.4158172 22.993358,8.2804356 23,8.2461206 23,8.0720672 23,7.8980083 22.993288,7.8617408 22.929688,7.7263641 22.861819,7.581917 22.751312,7.0669595 20.21875,4.5349578 17.779997,2.0967463 17.366646,1.6411009 17.240234,1.5818328 17.161112,1.5447659 17.04623,1.5120078 16.96875,1.5037078 Z M 4.7480469,3.505661 C 4.4217246,3.5149105 4.2742556,3.5334891 4.2109375,3.5447235 3.3778288,3.6924018 2.7260337,4.0262621 2.1445312,4.6052704 1.4720794,5.2748343 1.1130153,6.0211173 1.0234375,6.9373016 c -0.0313818,0.322134 -0.0314828,11.7758054 0,12.1093744 0.048095,0.50992 0.1566998,0.892026 0.3769531,1.333984 0.1928047,0.386883 0.3751707,0.636957 0.7304688,0.992188 0.3553032,0.355232 0.6052316,0.537703 0.9921875,0.730469 0.4312518,0.214829 0.8292271,0.331064 1.2910156,0.375 0.2898553,0.02767 11.8394675,0.02942 12.1308595,0.002 0.597379,-0.05632 1.123027,-0.224864 1.583984,-0.509766 0.786495,-0.486106 1.395112,-1.235849 1.667969,-2.054687 0.190695,-0.572303 0.209972,-0.777547 0.201172,-3.007813 -0.006,-1.530712 -0.0082,-1.664936 -0.04297,-1.728515 -0.519924,-0.336851 -0.899525,-0.03176 -1.509766,0.279296 -0.22897,0.125114 -0.336201,0.207575 -0.388671,0.296875 -0.0431,0.07338 -0.04473,-0.13746 -0.05664,1.494141 -0.01202,1.647735 -0.01265,1.569905 -0.06055,1.738281 -0.246122,0.805786 -1.167057,1.593254 -2.166015,1.496094 -1.88806,0.01151 -3.412242,0.0625 -5.34961,0.0625 C 6.1552957,20.551476 4.8657799,20.547068 4.75,20.529098 4.4822626,20.487509 4.1647399,20.361372 3.9277344,20.200973 3.7861927,20.105178 3.4852565,19.807134 3.3789062,19.658004 3.2076437,19.417854 3.0756526,19.103819 3.0253906,18.820113 3.0099276,18.73286 3.0016278,17.10701 3.0019531,13.158004 3.0024041,7.5205212 3.0043299,7.3709349 3.0449219,7.1873016 3.232251,6.3402848 3.9799745,5.6632683 4.84375,5.5583954 4.9530232,5.5451354 5.1023186,5.5349979 5.5722656,5.5349578 H 6.4042969 L 6.6054688,5.4255828 C 7.1438814,5.133449 7.6152891,4.7357077 8.1816406,4.3748016 8.6601006,4.046119 8.7307182,3.5159134 7.7890625,3.5154266 H 6.3554688 C 5.5777178,3.4958178 5.0743691,3.4964114 4.7480469,3.505661 Z"/>
 <path style="fill:#4f4f4f" d="M 3.5001213,4.5001121 7.6814608,3.0001214 h 9.2460312 l 1.572536,2.4999845 1.499991,3.9196056 V 14.96733 l -0.999994,4.532689 -1.467985,1.49999 H 4.0186103 L 3.0001244,20.000016 2.0001306,18.985797 V 5.8991079 Z"/>
 <path style="fill:#ef3e51" d="M 4.4147621,21.978448 C 3.9529736,21.934512 3.5537594,21.818865 3.1225076,21.604036 2.7355517,21.41127 2.486859,21.227667 2.1315558,20.872435 1.7762577,20.517204 1.5926124,20.268566 1.3998077,19.881683 1.1795544,19.439725 1.0715325,19.056545 1.0234377,18.546625 0.99195487,18.213056 0.99255586,6.759784 1.0239377,6.43765 1.1135155,5.5214657 1.4724173,4.7745925 2.1448691,4.1050285 2.7263716,3.5260203 3.3769207,3.1918315 4.2100294,3.0441532 4.3366656,3.0216845 4.8008856,2.9763118 6.3563875,3.0155294 H 7.7881456 C 8.7298013,3.0160162 8.6604592,3.5461639 8.1819992,3.8748465 7.6156477,4.2357526 7.1435182,4.6338102 6.6051055,4.9259441 l -0.2001928,0.1086256 -0.8336083,6.5e-5 c -0.469947,4e-5 -0.6184085,0.01031 -0.7276817,0.02357 -0.8637755,0.1048729 -1.6115353,0.7820426 -1.7988644,1.6290594 -0.040592,0.1836333 -0.041693,0.3339784 -0.042144,5.9714619 -3.253e-4,3.949006 0.00671,5.573808 0.022173,5.661061 0.050262,0.283706 0.1832598,0.598214 0.3545223,0.838364 0.1063502,0.14913 0.4074121,0.446583 0.5489538,0.542378 0.2370055,0.160399 0.5544951,0.287455 0.8222325,0.329044 0.1157799,0.01797 1.4045677,0.02277 5.6731001,0.01797 1.937368,0 3.462279,-0.05223 5.350338,-0.06374 0.998959,0.09716 1.919077,-0.689149 2.165199,-1.494935 0.0479,-0.168376 0.04865,-0.09144 0.06067,-1.739175 0.01191,-1.631601 0.01317,-1.420702 0.05627,-1.494078 0.05247,-0.0893 0.161093,-0.172049 0.390064,-0.297163 0.61024,-0.311054 0.988048,-0.614903 1.507972,-0.278052 0.03478,0.06358 0.03819,0.196214 0.04419,1.726926 0.0088,2.230266 -0.01106,2.43587 -0.201755,3.008173 -0.272857,0.818838 -0.881293,1.568319 -1.667788,2.054425 -0.460957,0.284902 -0.985626,0.454063 -1.583005,0.51038 -0.291392,0.02747 -11.8412917,0.02567 -12.131147,-0.002 z"/>
 <path style="fill:#ef3e51" d="M 7.3525154,17.972338 C 7.2207522,17.914836 7.013253,17.625717 6.6481747,16.990929 6.0289521,15.914241 5.6946202,15.205021 5.436091,14.419736 5.2122281,13.739743 5.0760439,13.150563 5.0166661,12.605152 4.9859598,12.323066 5.0003127,11.155353 5.038771,10.805001 5.2143936,9.2057612 5.6351325,8.690683 6.4588539,7.7007337 7.2905222,6.7012339 8.6639412,5.9186248 10.31149,5.5053943 c 0.755481,-0.1894848 1.01905,-0.319526 2.197797,-0.4213814 0.149037,-0.0129 0.832044,-0.02775 1.779922,-0.0333 1.546176,-0.0091 1.713417,-0.01345 1.737727,-0.045055 0.02086,-0.0271 0.0269,-0.9861737 0.0269,-2.0250652 0,-1.3194657 5e-4,-1.3417318 0.04641,-1.4638279 0.118766,-0.3173859 0.514626,-0.5510125 0.869297,-0.5130356 0.07748,0.0083 0.191776,0.041452 0.270898,0.078519 0.126412,0.059268 0.538645,0.5155402 2.977398,2.9537518 2.532562,2.5320017 2.643521,3.0469316 2.71139,3.1913787 0.0636,0.1353767 0.07077,0.1702035 0.07077,0.3442624 0,0.1740534 -0.0071,0.2088802 -0.07077,0.3442618 -0.0679,0.1445071 -0.178193,0.6574154 -2.722148,3.1990971 -2.067618,2.065768 -2.873335,2.759815 -2.951442,2.796327 -0.05509,0.02575 -0.159099,0.05778 -0.231124,0.07118 -0.34634,0.0644 -0.754497,-0.141772 -0.903779,-0.456522 l -0.05613,-0.118342 -0.01075,-1.381359 c -0.008,-1.02393 -0.01735,-1.987808 -0.03626,-2.006709 -0.03155,-0.0315 -2.602782,-0.01315 -3.056365,0.0216 -1.349989,0.103404 -1.719235,0.308215 -2.547897,0.665267 -1.7085965,0.736197 -2.4933697,1.621884 -2.6201769,4.068316 -0.034505,0.665308 -0.0035,1.379554 0.1009919,2.340117 0.04701,0.431482 0.052476,0.536677 0.031505,0.606706 -0.029405,0.09821 -0.1324887,0.20951 -0.2328151,0.251418 -0.087708,0.03665 -0.2555494,0.0363 -0.3402778,-5.01e-4 z"/>
 <path style="fill:#8b9cbe;opacity:0.2" d="M 16.96875 1.0039062 C 16.614079 0.9659294 16.218375 1.2001922 16.099609 1.5175781 C 16.053699 1.6396742 16.054688 1.6610031 16.054688 2.9804688 C 16.054688 4.0193603 16.048204 4.9787594 16.027344 5.0058594 C 16.003034 5.0374644 15.835239 5.0416812 14.289062 5.0507812 C 13.341185 5.0563313 12.658803 5.0710844 12.509766 5.0839844 C 11.331019 5.1858398 11.066028 5.3163746 10.310547 5.5058594 C 8.662998 5.9190899 7.2906527 6.7016721 6.4589844 7.7011719 C 5.635263 8.6911212 5.2146851 9.2054472 5.0390625 10.804688 C 5.0122362 11.049072 5.0038868 11.614196 5.0078125 12.076172 C 5.0138254 11.769443 5.0230381 11.45067 5.0390625 11.304688 C 5.2146851 9.7054472 5.635263 9.1911212 6.4589844 8.2011719 C 7.2906527 7.2016721 8.662993 6.4190899 10.310547 6.0058594 C 11.066028 5.8163746 11.331019 5.6858398 12.509766 5.5839844 C 12.658803 5.5710844 13.341185 5.5563313 14.289062 5.5507812 C 15.835238 5.5416813 16.003034 5.5374644 16.027344 5.5058594 C 16.048184 5.4787594 16.054688 4.5193603 16.054688 3.4804688 C 16.054687 2.1610031 16.053699 2.1396742 16.099609 2.0175781 C 16.218375 1.7001922 16.614079 1.4659293 16.96875 1.5039062 C 17.04623 1.5122062 17.161112 1.5449643 17.240234 1.5820312 C 17.366646 1.6412993 17.779997 2.0969448 20.21875 4.5351562 C 22.751312 7.067158 22.861819 7.5821154 22.929688 7.7265625 C 22.94856 7.7667346 22.954678 7.7914046 22.964844 7.8203125 C 22.988435 7.7531185 23 7.6937251 23 7.5722656 C 23 7.3982067 22.993288 7.3619392 22.929688 7.2265625 C 22.861819 7.0821154 22.751312 6.5671579 20.21875 4.0351562 C 17.779997 1.5969447 17.366646 1.1412994 17.240234 1.0820312 C 17.161112 1.0449643 17.04623 1.0122063 16.96875 1.0039062 z M 4.7480469 3.0058594 C 4.4217246 3.0151089 4.2742556 3.0336875 4.2109375 3.0449219 C 3.3778288 3.1926002 2.7260338 3.5264605 2.1445312 4.1054688 C 1.4720795 4.7750326 1.1130153 5.5213157 1.0234375 6.4375 C 1.0221417 6.450801 1.0246266 6.8878093 1.0234375 6.9375 C 1.1130153 6.0213157 1.4720795 5.2750326 2.1445312 4.6054688 C 2.7260338 4.0264605 3.3778288 3.6926002 4.2109375 3.5449219 C 4.2742556 3.5336875 4.4217246 3.5151089 4.7480469 3.5058594 C 5.0743691 3.4966098 5.5777178 3.4960162 6.3554688 3.515625 L 7.7890625 3.515625 C 8.0936552 3.5157825 8.2832629 3.5738984 8.3964844 3.6601562 C 8.6334694 3.35509 8.5457501 3.0160162 7.7890625 3.015625 L 6.3554688 3.015625 C 5.5777178 2.9960162 5.0743691 2.9966098 4.7480469 3.0058594 z M 3.0019531 12.767578 C 3.001929 12.970207 3.0019706 12.939357 3.0019531 13.158203 C 3.0016278 17.107209 3.0099276 18.733059 3.0253906 18.820312 C 3.0756526 19.104019 3.2076438 19.418053 3.3789062 19.658203 C 3.4852566 19.807333 3.7861927 20.105377 3.9277344 20.201172 C 4.1647399 20.361571 4.4822626 20.487708 4.75 20.529297 C 4.8657799 20.547267 6.1552988 20.551628 10.423828 20.546875 C 12.361196 20.546875 13.885378 20.495885 15.773438 20.484375 C 16.772396 20.581535 17.693331 19.794067 17.939453 18.988281 C 17.987353 18.819905 17.98798 18.897735 18 17.25 C 18.01191 15.618399 18.013541 15.829239 18.056641 15.755859 C 18.109111 15.666559 18.216342 15.584098 18.445312 15.458984 C 19.055554 15.147928 19.435154 14.842837 19.955078 15.179688 C 19.986587 15.237304 19.989059 15.58574 19.994141 16.746094 C 19.993868 16.593178 19.998747 16.585517 19.998047 16.408203 C 19.992047 14.877491 19.989858 14.743266 19.955078 14.679688 C 19.435154 14.342836 19.055553 14.64793 18.445312 14.958984 C 18.216342 15.084098 18.109111 15.166559 18.056641 15.255859 C 18.013541 15.329235 18.01191 15.118399 18 16.75 C 17.98798 18.397735 17.987353 18.319905 17.939453 18.488281 C 17.693331 19.294067 16.772396 20.081535 15.773438 19.984375 C 13.885377 19.995885 12.361196 20.046875 10.423828 20.046875 C 6.1552958 20.051675 4.8657799 20.047267 4.75 20.029297 C 4.4822626 19.987708 4.1647399 19.861571 3.9277344 19.701172 C 3.7861927 19.605377 3.4852566 19.307333 3.3789062 19.158203 C 3.2076438 18.918053 3.0756526 18.604018 3.0253906 18.320312 C 3.0102263 18.234745 3.0019604 16.552572 3.0019531 12.767578 z M 7.7910156 15.845703 C 7.7921785 16.361443 7.8181867 16.913422 7.8945312 17.615234 C 7.9057544 17.718246 7.8956729 17.690094 7.9023438 17.759766 C 7.9086398 17.746465 7.9218839 17.73372 7.9257812 17.720703 C 7.9467522 17.650674 7.9415414 17.546716 7.8945312 17.115234 C 7.8427601 16.639317 7.8078196 16.224628 7.7910156 15.845703 z"/>
</svg>
