<svg xmlns="http://www.w3.org/2000/svg" width="24" height="24" version="1">
 <path style="opacity:0.2" d="M 5.6918215,8.9534474 C 3.3525854,10.762436 2,9.4537309 2,12.616823 2,18.075151 6.4771526,22.5 12,22.5 c 5.522847,0 10,-4.424849 10,-9.883177 0,-2.541223 -0.970478,-4.8584454 -2.565074,-6.6094118 0.03554,-0.00135 -0.149121,-0.1433068 -0.244324,-0.1078782 0.666619,1.1049371 1.050308,2.3997742 1.050308,3.7843164 0,4.0518086 -2.253451,8.0658266 -6.30526,8.0658266 C 11.333199,17.875997 7.8664463,16.21227 7.3328613,14.655418 6.9886071,13.65098 7.0755042,12.522871 8.0121131,11.898402 8.5208481,11.575463 9.262541,11.256605 10.435957,11.219162 11.50787,10.51421 10.986316,10.594396 10.934754,10.380964 10.601772,10.289911 10.010697,10.16408 9.1945924,9.5217741 8.471759,8.9528759 8.1360328,8.7371585 6.0295507,8.717482 5.6315969,7.951198 5.7308276,9.8633102 5.6918215,8.9534474 Z"/>
 <path style="fill:#45f1af" d="m 15.144624,1 c 0.421836,1.122979 1.947305,2.8569488 3.959378,5.433928 1.704032,2.1824538 1.899324,4.617442 2.529273,6.806775 l -4.734898,4.075311 -5.348398,-5.490531 C 11.525962,8.1753879 10.649861,4.0548818 15.144624,1 Z"/>
 <path style="opacity:0.2;fill:#8b9cbe" d="M 15.144531 1 C 11.70141 3.3401294 11.411731 6.3028351 11.474609 9.203125 C 11.462656 6.4652252 11.900032 3.7051353 15.144531 1.5 C 15.566367 2.622979 17.091443 4.3566146 19.103516 6.9335938 C 20.702998 8.9821446 20.981195 11.246583 21.529297 13.328125 L 21.632812 13.240234 C 21.002864 11.050901 20.807548 8.6160475 19.103516 6.4335938 C 17.091443 3.8566146 15.566367 2.122979 15.144531 1 z"/>
 <path style="fill:#715fff" d="M 4.978,7.6573284 C 5.6726684,6.9680315 6.8069856,5.3629789 8.1604043,4.9180435 7.796792,6.8561313 8.268184,7.4721295 8.5028149,8.463 L 6.3275007,7.8990294 Z"/>
 <circle style="fill:#5543c7" cx="12" cy="12" r="5"/>
 <path style="fill:#15bfd1" d="m 13.86942,8.6173508 c -0.07112,7e-4 -0.142211,0.0032 -0.213201,0.00757 1.448104,0.6797788 2.373588,2.1344912 2.375693,3.7342112 -0.0011,2.197927 -1.722935,4.060393 -3.917932,4.173851 0.548866,0.259708 1.148234,0.345029 1.75544,0.34672 2.281585,2.1e-5 4.131194,-1.849548 4.131224,-4.131133 2e-5,-2.28162 -1.849604,-4.1312447 -4.131224,-4.1312242 z"/>
 <path id="ellipse841" style="fill:#763ad2" d="M 5.6918215,8.4534465 C 3.3525854,10.262435 2,8.9537299 2,12.116822 c 0,5.458328 4.4771526,9.883177 10,9.883177 5.522847,0 10,-4.424849 10,-9.883177 0,-2.5412228 -0.970478,-4.8584454 -2.565074,-6.6094118 0.03554,-0.00135 -0.149121,-0.1433068 -0.244324,-0.1078782 0.666619,1.1049371 1.050308,2.3997742 1.050308,3.7843164 0,4.0518086 -2.253451,8.0658266 -6.30526,8.0658266 C 11.333199,17.375996 7.8664463,15.712269 7.3328613,14.155417 6.9886071,13.150979 7.0755042,12.02287 8.0121131,11.398401 8.5208481,11.075462 9.262541,10.756604 10.435957,10.719161 11.50787,10.014209 10.986316,10.094395 10.934754,9.8809633 10.601772,9.7899101 10.010697,9.6640788 9.1945924,9.0217731 8.471759,8.452875 8.1360328,8.2371575 6.0295507,8.217481 5.6315969,7.451197 5.7308276,9.3633093 5.6918215,8.4534465 Z"/>
 <path style="opacity:0.1" d="M 5.8427413,4.8290669 C 3.6036379,6.5606203 2.1337144,9.2157505 2.0116791,12.213847 c 0.128044,4.594643 4.3222687,8.286149 9.4882999,8.286149 5.246715,0 9.500019,-3.805587 9.500019,-8.500017 0,-1.265173 -0.311188,-2.4649924 -0.865237,-3.543952 0.06743,0.3996318 0.106446,0.8087201 0.106446,1.2275419 0,4.0518081 -3.285119,7.3369281 -7.336928,7.3369281 C 10.301827,17.146819 8.3441037,15.70918 7.8105187,14.152328 7.4662645,13.147889 7.5789892,12.724058 8.5155981,12.099589 9.0243331,11.77665 9.740624,11.55793 10.91404,11.520486 11.985953,10.815535 12.068143,10.544463 12.016581,10.331031 11.683599,10.239977 10.765299,9.8873968 9.9491949,9.245091 9.226361,8.6761929 8.3125052,7.5296472 6.206023,7.5099706 5.8080693,6.7436866 5.8817474,5.7389296 5.8427413,4.8290669 Z"/>
 <path style="fill:#8171ff" d="m 5.9423591,3.929 c -2.2391034,1.7315534 -3.8086447,4.7867495 -3.93068,7.784846 0.128044,4.594643 4.3222687,8.286149 9.4882999,8.286149 5.246715,0 9.500019,-3.805587 9.500019,-8.500017 0,-1.265173 -0.311188,-2.4649924 -0.865237,-3.543952 0.06743,0.3996318 0.106446,0.8087201 0.106446,1.2275419 0,4.0518081 -3.285119,7.3369281 -7.336928,7.3369281 C 10.301827,16.646818 8.3441037,15.209179 7.8105187,13.652327 7.4662645,12.647888 7.5789892,12.224057 8.5155981,11.599588 9.0243331,11.276649 9.740624,11.057929 10.91404,11.020486 11.985953,10.315534 12.068143,10.044462 12.016581,9.8310297 11.683599,9.7399765 10.765299,9.3873958 9.9491949,8.74509 9.226361,8.1761919 8.4121231,7.0296462 6.3056408,7.0099696 5.9076871,6.2436856 5.9813652,4.8388628 5.9423591,3.929 Z"/>
 <path style="fill:#15bfd1" d="M 6.4678191,10.002417 C 5.7872997,9.987652 5.0713563,10.221029 4.6162748,10.531587 4.5347618,10.613097 5.40862,11.989005 6.9295415,12.005 6.7887242,14.458409 8.750155,15.584191 9.9831699,15.939197 l 3.74e-4,-0.0011 c -3.27e-4,-1.68e-4 -6.5e-4,-3.79e-4 -0.001,-5.5e-4 -0.09936,-0.04926 -0.1960058,-0.101061 -0.289957,-0.155247 -0.00878,-0.0051 -0.01746,-0.01023 -0.026195,-0.01533 -0.052518,-0.03071 -0.1041317,-0.06213 -0.1548808,-0.09428 -0.00994,-0.0063 -0.019885,-0.01255 -0.029755,-0.01889 -0.050797,-0.03268 -0.1006352,-0.06607 -0.1495873,-0.100121 -0.00768,-0.0053 -0.015455,-0.0106 -0.02309,-0.01597 -0.0281,-0.01979 -0.055948,-0.03974 -0.083419,-0.05996 -0.053874,-0.03966 -0.1063862,-0.08022 -0.1578013,-0.121477 -0.0122,-0.0098 -0.024265,-0.01961 -0.036325,-0.02948 -0.036415,-0.02982 -0.072209,-0.05996 -0.1073307,-0.09054 -0.0171,-0.01487 -0.03405,-0.02985 -0.050836,-0.0449 -0.024375,-0.02187 -0.048475,-0.04386 -0.072192,-0.06608 -0.02292,-0.02146 -0.04561,-0.04303 -0.067903,-0.0648 -0.018395,-0.01799 -0.03661,-0.03603 -0.054578,-0.05421 -0.026115,-0.02642 -0.051831,-0.05302 -0.07703,-0.07986 -4.86e-4,-5e-4 -9.5e-4,-10e-4 -0.00145,-0.0015 -0.01558,-0.01662 -0.030775,-0.03342 -0.046,-0.0502 -0.021455,-0.02362 -0.042595,-0.04737 -0.063339,-0.07128 -0.016335,-0.01885 -0.03248,-0.03775 -0.04837,-0.05677 -0.02115,-0.0253 -0.0418,-0.0508 -0.062153,-0.07639 -0.01148,-0.01445 -0.023095,-0.02882 -0.034315,-0.04335 -0.025525,-0.03303 -0.050192,-0.06638 -0.074383,-0.09985 -0.00963,-0.01334 -0.019235,-0.02666 -0.02866,-0.04007 -0.025145,-0.03575 -0.049595,-0.07169 -0.073197,-0.107878 -0.00644,-0.0099 -0.012655,-0.01983 -0.018985,-0.02975 -0.02346,-0.03674 -0.046325,-0.07357 -0.068177,-0.110708 -0.00465,-0.0079 -0.00914,-0.01576 -0.01369,-0.02364 -0.02202,-0.0381 -0.043035,-0.07645 -0.06334,-0.114906 -0.00375,-0.0071 -0.0077,-0.01422 -0.01141,-0.02135 -0.02121,-0.04089 -0.041265,-0.08199 -0.060511,-0.123211 -0.00405,-0.0086 -0.00802,-0.01727 -0.011955,-0.02592 -0.01884,-0.04131 -0.036835,-0.08273 -0.053665,-0.124307 -0.00265,-0.0066 -0.00514,-0.01321 -0.00776,-0.0198 -0.017555,-0.04425 -0.034315,-0.08859 -0.04956,-0.133068 -0.3442542,-1.004438 -0.232206,-1.42832 0.7044029,-2.052789 0.508735,-0.322939 1.2252764,-0.541192 2.3986923,-0.578636 1.071913,-0.704952 1.153982,-0.976879 1.10242,-1.1903113 C 10.208411,11.263713 8.5196846,10.54169 6.929647,10.054344 6.7800207,10.022404 6.6248764,10.005818 6.4678336,10.002412 Z"/>
 <path style="opacity:0.2;fill:#8b9cbe" d="M 5.9414062 3.9296875 C 3.7023029 5.6612409 2.133754 8.7147941 2.0117188 11.712891 C 2.0142891 11.805123 2.0293339 11.894846 2.0351562 11.986328 C 2.2248232 9.0619161 3.7587911 6.1175571 5.9414062 4.4296875 C 5.9804124 5.3395503 5.9067338 6.7434816 6.3046875 7.5097656 C 8.4111698 7.5294422 9.2263849 8.6752425 9.9492188 9.2441406 C 10.69031 9.8274086 11.464564 10.14102 11.859375 10.267578 C 12.025068 10.072647 12.042427 9.9410203 12.015625 9.8300781 C 11.682643 9.7390249 10.765323 9.3864464 9.9492188 8.7441406 C 9.2263849 8.1752425 8.4111698 7.0294422 6.3046875 7.0097656 C 5.9067338 6.2434816 5.9804124 4.8395503 5.9414062 3.9296875 z M 20.134766 7.9550781 C 20.172617 8.1794076 20.198728 8.4083339 20.216797 8.6386719 C 20.68088 9.6003986 20.9514 10.653257 20.986328 11.759766 C 20.989274 11.672731 21 11.587673 21 11.5 C 21 10.234827 20.688815 9.0340377 20.134766 7.9550781 z M 20.228516 9.4199219 C 20.102626 13.361372 16.876309 16.519531 12.904297 16.519531 C 10.301845 16.645853 8.3441319 15.209196 7.8105469 13.652344 C 7.7349625 13.431809 7.6917048 13.248997 7.6640625 13.076172 C 7.5986912 13.365307 7.6547654 13.697816 7.8105469 14.152344 C 8.3441319 15.709196 10.301845 17.145853 12.904297 17.019531 C 16.956106 17.019531 20.240234 13.735402 20.240234 9.6835938 C 20.240234 9.5946913 20.23193 9.5079499 20.228516 9.4199219 z"/>
</svg>
