<svg xmlns="http://www.w3.org/2000/svg" width="24" height="24" version="1">
 <g style="opacity:0.2" transform="translate(0,0.5)">
  <rect width="17" height="2" x="4" y="5"/>
  <rect width="17" height="2" x="4" y="8"/>
  <rect width="17" height="2" x="4" y="11"/>
  <rect width="17" height="2" x="4" y="14"/>
  <rect width="17" height="2" x="4" y="17"/>
 </g>
 <g style="fill:#b7b7b7">
  <rect width="17" height="2" x="4" y="5"/>
  <rect width="17" height="2" x="4" y="8"/>
  <rect width="17" height="2" x="4" y="11"/>
  <rect width="17" height="2" x="4" y="14"/>
  <rect width="17" height="2" x="4" y="17"/>
 </g>
 <rect style="opacity:0.2" width="15" height="18" x="5" y="3.5" rx="1" ry="1"/>
 <rect style="fill:#4f4f4f" width="15" height="18" x="5" y="3" rx="1" ry="1"/>
 <path style="opacity:0.1;fill:#8b9cbe" d="M 6 3 C 5.446 3 5 3.446 5 4 L 5 4.5 C 5 3.946 5.446 3.5 6 3.5 L 19 3.5 C 19.554 3.5 20 3.946 20 4.5 L 20 4 C 20 3.446 19.554 3 19 3 L 6 3 z"/>
 <g style="opacity:0.4;fill:#8b9cbe">
  <rect width="1" height="2" x="9" y="6"/>
  <rect width="1" height="2" x="9" y="9"/>
  <rect width="1" height="4" x="9" y="12"/>
  <rect width="1" height="5" x="12" y="6"/>
  <rect width="1" height="5" x="12" y="12"/>
  <rect width="1" height="4" x="15" y="6"/>
  <rect width="1" height="2" x="15" y="11"/>
  <rect width="1" height="5" x="15" y="14"/>
 </g>
</svg>
