<svg width="24" height="24" version="1.1" xmlns="http://www.w3.org/2000/svg">
 <path d="m12.5 22.5c4.5 0 6.5-3.551366 6.5-6.5 0-4-4.231272-6.081399-5-9.5-0.292518-1.3008505 0-4 0-4s-9 6-9 13c0 3.299831 3 7 7.5 7z" style="opacity:.2"/>
 <path d="m12.5 22c4.5 0 6.5-3.551366 6.5-6.5 0-4-4.231272-6.0813985-5-9.5-0.292518-1.3008505 0-4 0-4s-9 6-9 13c0 3.299831 3 7 7.5 7z" style="fill:#4f4f4f"/>
 <path d="m13 5.5s-6 4-6 10c0 2.713137 2.5 5 5.5 5s4.5-3 4.5-4.5c0-1-0.5-3.5-3-3.5s-3 1-3 1 1.059162-0.235929 1.5 0c0.529821 0.283552 1 1.254644 1 2 0 1-1 1.5-2 1.5-0.707107 0-1.5-0.792893-1.5-1.5 0-5 3.5-5 3.5-5s1 0 1.5 0.5c-3-3.5-2-5.5-2-5.5z" style="opacity:.2"/>
 <path d="m13 5s-6 4-6 10c0 2.713137 2.5 5 5.5 5s4.5-3 4.5-4.5c0-1-0.5-3.5-3-3.5s-3 1-3 1 1.059162-0.235929 1.5 0c0.529821 0.283552 1 1.254644 1 2 0 1-1 1.5-2 1.5-0.707107 0-1.5-0.792893-1.5-1.5 0-5 3.5-5 3.5-5s1 0 1.5 0.5c-3-3.5-2-5.5-2-5.5z" style="fill:#8b9cbe"/>
 <path d="M 14 2 C 14 2 5 8 5 15 C 5 15.067887 5.0091923 15.136888 5.0117188 15.205078 C 5.2557327 8.4207497 13.74274 2.6738926 13.960938 2.5273438 C 13.974082 2.3848265 14 2 14 2 z M 13.880859 4.8984375 C 13.881245 5.4874581 13.903074 6.0689618 14 6.5 C 14.750182 9.8361244 18.787552 11.903746 18.982422 15.71875 C 18.984791 15.646447 19 15.571651 19 15.5 C 19 11.5 14.768728 9.4186015 14 6 C 13.93107 5.6934626 13.8963 5.30665 13.880859 4.8984375 z " style="fill:#8b9cbe;opacity:.1"/>
</svg>
