<svg xmlns="http://www.w3.org/2000/svg" width="24" height="24" version="1">
 <circle style="opacity:0.2" cx="12" cy="12.5" r="10"/>
 <circle style="fill:#3f3bbd" cx="12" cy="12" r="10"/>
 <path style="opacity:0.2" d="M 18.462481,12.227273 17.179268,10.851779 14.59033,8.148222 13.734854,7.2470366 c -0.945526,-0.9960474 -2.498889,-0.9960474 -3.466927,0 L 9.412452,8.148222 6.823513,10.851779 5.5403,12.203558 c -0.7204002,0.758893 -0.7204002,1.968379 0,2.727272 v 0 c 0.7204005,0.758893 1.8685385,0.758893 2.588939,0 l 1.283213,-1.351778 1.283213,1.351778 c 0.7204,0.758893 1.868538,0.758893 2.588938,0 0.720401,-0.758893 0.720401,-1.968379 0,-2.727272 l 1.283214,1.351778 1.283213,1.351779 c 0.7204,0.758893 1.868538,0.758893 2.588939,0 v 0 c 0.742912,-0.711463 0.742912,-1.944664 0.02251,-2.679842 z"/>
 <path style="fill:#8b9cbe" d="M 18.462481,11.727273 17.179268,10.351779 14.59033,7.6482211 13.734854,6.7470358 c -0.945526,-0.9960475 -2.498889,-0.9960475 -3.466927,0 L 9.412452,7.6482211 6.823513,10.351779 5.5403,11.703558 c -0.7204002,0.758893 -0.7204002,1.968379 0,2.727272 v 0 c 0.7204005,0.758893 1.8685385,0.758893 2.588939,0 l 1.283213,-1.351778 1.283213,1.351778 c 0.7204,0.758893 1.868538,0.758893 2.588938,0 0.720401,-0.758893 0.720401,-1.968379 0,-2.727272 l 1.283214,1.351778 1.283213,1.351779 c 0.7204,0.758893 1.868538,0.758893 2.588939,0 v 0 c 0.742912,-0.711463 0.742912,-1.944664 0.02251,-2.679842 z"/>
 <path style="opacity:0.1;fill:#8b9cbe" d="M 12,2 A 10,10 0 0 0 2,12 10,10 0 0 0 2.0107422,12.291016 10,10 0 0 1 12,2.5 10,10 0 0 1 21.989258,12.208985 10,10 0 0 0 22,12 10,10 0 0 0 12,2 Z"/>
</svg>
