<svg xmlns="http://www.w3.org/2000/svg" width="24" height="24" version="1">
 <path style="opacity:0.2" d="M 16.58121,3.5075091 C 12.568031,3.7301843 7.8618394,4.3242541 4.9767652,5.5700005 1.869623,6.9116345 0.81620215,8.8075987 1.0256095,10.378574 l 0.8173795,6.127905 c 0.083391,0.625597 0.2305157,1.233634 0.4394513,1.800774 -0.00172,-0.0023 -0.00317,-0.0045 -0.00488,-0.0068 0.00422,0.0115 0.010374,0.02174 0.014648,0.0332 0.080287,0.215313 0.1687404,0.424889 0.2685536,0.625974 0.00237,0.0048 0.00445,0.0099 0.00684,0.01465 0.012201,0.02442 0.021683,0.05101 0.034179,0.07519 0.069198,0.1339 0.1427847,0.251348 0.2187491,0.362304 0.7793969,1.267346 2.0167114,2.127067 3.839828,2.086905 l 4.411114,-0.07422 c 2.581116,-0.04314 8.296813,-1.48808 9.944295,-2.746082 1.52365,-1.076437 2.239119,-1.848775 1.902337,-4.517559 L 22.218882,8.61491 C 22.086592,5.928214 19.603346,3.3398226 16.58121,3.5075091 Z"/>
 <path style="fill:#b2bfd9" d="M 4.9769644,5.0706015 C 7.8620384,3.824855 12.56839,3.230425 16.581569,3.0077498 c 3.022136,-0.1676865 5.5046,2.4211232 5.63689,5.1078192 l 0.277679,5.6394 c 0.13229,2.686695 -0.972347,3.168604 -2.495997,4.245042 -1.647483,1.258001 -6.835233,2.816775 -9.397538,2.502756 L 6.5001965,20.000002 C 4.5045491,20.043965 3.3604521,20.017438 2.6017858,18.549398 2.2100534,17.791385 1.963733,16.915296 1.8427046,16.007341 L 1.0258287,9.8791343 C 0.8164213,8.3081582 1.8698222,6.4122355 4.9769644,5.0706015 Z"/>
 <path style="opacity:0.1;fill:none;stroke:#000000;stroke-width:0.49999794" d="m 9.8798026,14.612135 1.6203734,1.138096 1.26906,-1.959862"/>
 <ellipse id="ellipse916" style="opacity:0.1" cx="6.555" cy="10.599" rx="1.213" ry="3.015" transform="matrix(0.98891953,0.14845259,-0.11624302,0.9932208,0,0)"/>
 <ellipse style="fill:#17191e" cx="6.497" cy="10.104" rx="1.213" ry="3.015" transform="matrix(0.98891953,0.14845259,-0.11624302,0.9932208,0,0)"/>
 <ellipse id="ellipse918" style="opacity:0.1" cx="16.26" cy="7.135" rx="1.213" ry="3.015" transform="matrix(0.98891953,0.14845259,-0.11624302,0.9932208,0,0)"/>
 <ellipse id="ellipse844" style="fill:#8b9cbe" cx="4.058" cy="12.253" rx=".532" ry=".67" transform="matrix(0.73343411,-0.67976055,0.1988081,0.98003844,0,0)"/>
 <ellipse id="ellipse889" style="fill:#17191e" cx="16.201" cy="6.64" rx="1.213" ry="3.015" transform="matrix(0.98891953,0.14845259,-0.11624302,0.9932208,0,0)"/>
 <ellipse id="ellipse891" style="fill:#8b9cbe" cx="16" cy="18.496" rx=".532" ry=".67" transform="matrix(0.73343411,-0.67976055,0.1988081,0.98003844,0,0)"/>
 <path style="fill:none;stroke:#17191e;stroke-width:0.49999794" d="m 9.8798026,14.111926 1.6203734,1.138096 1.26906,-1.959862"/>
 <path style="fill:#eb73ff" d="m 21.604368,6.1367926 c 0.506452,3.9629954 0.839646,8.7333234 -1.372839,10.3159614 -4.98067,2.803432 -9.83891,3.058112 -15.2636941,3.148782 -0.963009,0.02122 -1.8753933,-0.710524 -2.6899223,-1.800984 0.6805041,1.854201 2.0626306,3.24913 4.3821547,3.198033 l 4.4116937,-0.07351 c 2.581116,-0.04314 8.296553,-1.488682 9.944036,-2.746684 1.523649,-1.076437 2.239113,-1.848377 1.902331,-4.517162 L 22.218416,8.1156695 C 22.132789,7.4371353 21.921286,6.7627251 21.604368,6.1367926 Z"/>
 <path style="opacity:0.2" d="m 21.604627,6.1367781 c 0.02804,0.2194506 0.05155,0.4481482 0.07812,0.6718723 0.271014,0.5772511 0.458205,1.1891186 0.536131,1.8066331 l 0.699216,5.5458755 c 0.03716,0.294485 0.05649,0.557339 0.06836,0.80859 0.0099,-0.384005 -0.0047,-0.80372 -0.06836,-1.308588 L 22.218882,8.1152855 C 22.133255,7.4367513 21.921545,6.7627101 21.604627,6.1367781 Z m 0.368162,5.0175579 c -0.02187,2.326689 -0.438457,4.366924 -1.741203,5.298806 -4.98067,2.803431 -9.838825,3.057755 -15.2636098,3.148424 -0.963009,0.02122 -1.8758897,-0.710314 -2.6904186,-1.800774 0.1599916,0.435937 0.3619158,0.843476 0.6025365,1.215816 0.652804,0.680918 1.3558206,1.101083 2.0878821,1.084956 5.4247848,-0.09067 10.2829398,-0.344993 15.2636098,-3.148424 1.395543,-0.998263 1.775926,-3.266613 1.741203,-5.798804 z"/>
 <path style="opacity:0.2;fill:#8b9cbe" d="M 16.58121,3.0078845 C 12.568031,3.2305597 7.8618394,3.8246295 4.9767652,5.070376 1.9657466,6.3705047 0.88741141,8.1904462 1.0138909,9.7314899 1.1380983,8.3093797 2.286221,6.7321252 4.9767652,5.570374 7.8618394,4.3246274 12.568031,3.7305577 16.58121,3.5078824 c 3.022136,-0.1676865 5.505382,2.4207051 5.637672,5.1074011 l 0.277343,5.6396255 c 0.0027,0.05483 0.0023,0.103228 0.0039,0.156249 0.007,-0.204649 0.0078,-0.419192 -0.0039,-0.656247 L 22.218882,8.1152855 C 22.086592,5.4285895 19.603346,2.840198 16.58121,3.0078845 Z"/>
</svg>
