<svg xmlns="http://www.w3.org/2000/svg" width="24" height="24" version="1">
 <path style="opacity:0.2" d="m 13.417616,1.5002669 c -0.181388,-0.00105 -0.252089,0.1426636 -0.620072,1.2626252 l -0.365581,1.1127428 -0.558869,0.050505 c -0.307373,0.027773 -0.661752,0.071841 -0.787521,0.097975 -0.166272,0.034545 -0.24384,0.034913 -0.284275,0.00105 C 10.770722,3.9997554 10.511789,3.5800441 10.225856,3.0924503 9.6544322,2.1180135 9.5372479,1.9621305 9.3765607,1.9621305 c -0.168869,0 -1.2999227,0.450639 -1.3823252,0.5507461 -0.040436,0.04914 -0.072962,0.1486484 -0.07228,0.2212506 5.245e-4,0.072603 0.102216,0.6051151 0.2256146,1.1832872 C 8.2709742,4.4955917 8.3646153,4.9875697 8.3556315,5.010696 8.3466615,5.033796 8.2120361,5.131929 8.0565039,5.2287443 7.9009715,5.325559 7.6194187,5.528976 7.4308508,5.6807745 7.2422887,5.832573 7.0700686,5.9568038 7.0481252,5.9568038 7.0262011,5.9568038 6.5850479,5.7177293 6.0678105,5.4255195 5.0042859,4.8246937 4.9533352,4.8018194 4.8032996,4.8589237 4.6412011,4.9206165 3.8461967,5.9303175 3.8461967,6.0744878 c 0,0.1562505 0.038021,0.2058053 0.8491335,1.1083118 0.3877971,0.4314765 0.7050707,0.8150101 0.7050707,0.8523166 0,0.037275 -0.082229,0.2330475 -0.1827094,0.4349467 C 5.1172113,8.6719622 4.9838062,8.9729238 4.9211916,9.1389077 4.8585769,9.3048865 4.7839681,9.4601763 4.7553855,9.483922 4.7234443,9.5104872 4.2554391,9.5318548 3.5407549,9.5395251 2.1069021,9.5549077 2.2329703,9.485077 2.0978027,10.338538 c -0.052343,0.330576 -0.096264,0.651004 -0.097548,0.712041 -0.00473,0.227393 0.091973,0.278286 1.2588523,0.662523 l 1.1109253,0.365794 0.049245,0.545816 c 0.027116,0.300186 0.069663,0.656267 0.094595,0.791297 0.024964,0.135035 0.034981,0.262322 0.022344,0.282848 -0.012689,0.02053 -0.4424191,0.285785 -0.9550469,0.589507 -0.5126327,0.303729 -0.9746086,0.598033 -1.0265925,0.653983 -0.051975,0.05596 -0.094512,0.151656 -0.094512,0.212708 0,0.17861 0.4580898,1.306479 0.5595246,1.377606 0.1326134,0.09298 0.2473637,0.07935 1.393317,-0.165406 0.5773404,-0.123313 1.0688013,-0.216091 1.0921443,-0.206142 0.023336,0.01 0.1216578,0.144816 0.2185612,0.299686 0.096898,0.154864 0.3019228,0.438323 0.4555777,0.629832 0.1911846,0.238292 0.2709226,0.370277 0.2525245,0.418272 -0.014789,0.03859 -0.2525927,0.471204 -0.5284346,0.961386 -0.565372,1.004703 -0.5974742,1.074617 -0.5605893,1.221722 0.037711,0.150445 1.077937,0.98205 1.2279206,0.981672 0.1546928,-3.89e-4 0.2282526,-0.05677 1.0951757,-0.840656 0.4220229,-0.381597 0.799163,-0.699321 0.8380566,-0.706046 0.038913,-0.0067 0.2401844,0.07166 0.4473751,0.174273 0.2071907,0.102607 0.5232324,0.238344 0.702281,0.30157 0.1790486,0.06322 0.3292627,0.117201 0.3338255,0.119989 0.00473,0.0026 0.018721,0.54863 0.031521,1.212934 0.02853,1.483518 -0.039963,1.354222 0.788753,1.488396 0.622731,0.100821 0.868585,0.101094 0.968505,0.0011 0.03483,-0.03486 0.226984,-0.561456 0.426947,-1.170151 l 0.363526,-1.106664 0.417921,-0.03218 c 0.229879,-0.01769 0.588123,-0.06015 0.796054,-0.09436 0.376401,-0.06193 0.378394,-0.06177 0.456317,0.03218 0.04306,0.05192 0.311787,0.491732 0.597263,0.977398 0.285477,0.485667 0.559536,0.916146 0.608996,0.956619 0.135434,0.110822 0.232438,0.09369 0.886549,-0.156124 0.623811,-0.238256 0.748474,-0.325118 0.748054,-0.521346 -1.26e-4,-0.06104 -0.102334,-0.593314 -0.227172,-1.182878 -0.124842,-0.589565 -0.217959,-1.08664 -0.206914,-1.104532 0.01107,-0.0179 0.155785,-0.12422 0.32169,-0.236361 0.165901,-0.11214 0.443436,-0.320029 0.616705,-0.461884 0.173275,-0.141855 0.332431,-0.257933 0.353687,-0.257959 0.02124,-3.2e-5 0.474915,0.243101 1.008127,0.540314 1.090079,0.607599 1.0839,0.604795 1.228088,0.568565 0.153424,-0.03853 0.980562,-1.079437 0.980562,-1.23396 0,-0.144559 -0.03499,-0.189651 -0.859879,-1.109047 -0.370349,-0.412776 -0.679179,-0.78468 -0.68628,-0.826528 -0.0071,-0.04184 0.06395,-0.229089 0.157849,-0.416058 0.0939,-0.186968 0.228747,-0.486722 0.299617,-0.666135 0.07086,-0.179414 0.147245,-0.34513 0.169745,-0.368256 0.02433,-0.02499 0.51633,-0.05056 1.213975,-0.06307 1.119247,-0.02005 1.177058,-0.02504 1.260735,-0.1089 0.06868,-0.06883 0.109742,-0.223829 0.189432,-0.71484 0.05597,-0.34482 0.10205,-0.667497 0.102386,-0.716967 0.0016,-0.199878 -0.118411,-0.260778 -1.259508,-0.639939 l -1.113143,-0.36982 -0.04735,-0.543433 c -0.02606,-0.298872 -0.06838,-0.654407 -0.09402,-0.790068 -0.02565,-0.135659 -0.03613,-0.263601 -0.02329,-0.284407 0.01285,-0.02079 0.442671,-0.285757 0.955131,-0.5887656 0.512459,-0.3030091 0.974283,-0.5970931 1.026262,-0.6534885 0.05197,-0.056396 0.09451,-0.1497616 0.09451,-0.2075378 0,-0.1656848 -0.451041,-1.2902034 -0.550498,-1.3725076 C 21.861816,7.3975296 21.774824,7.4059664 20.770264,7.620272 19.590761,7.8719045 19.527155,7.8833968 19.48393,7.853435 19.463686,7.8394174 19.356538,7.6903066 19.245767,7.5220494 19.134998,7.3537922 18.932768,7.0794219 18.796342,6.9123354 18.659915,6.7452541 18.548276,6.5914134 18.548244,6.5705236 c -2.6e-5,-0.020895 0.243635,-0.4750201 0.541562,-1.0091814 0.297921,-0.534156 0.553582,-1.0112817 0.568135,-1.0602643 0.05035,-0.1694384 -0.05564,-0.301119 -0.583968,-0.7253453 -0.563039,-0.4521038 -0.66192,-0.4927703 -0.863,-0.3547897 -0.05712,0.039218 -0.4567,0.389256 -0.887938,0.7779083 -0.431243,0.3886522 -0.814378,0.7067029 -0.851436,0.7067029 -0.03708,0 -0.232391,-0.082672 -0.43408,-0.1837184 C 15.835829,4.6207936 15.547925,4.4951192 15.397753,4.4426034 14.957793,4.2887469 14.977708,4.3532909 14.977534,3.0822495 14.977393,2.0718503 14.970814,1.9724414 14.896568,1.850505 14.847901,1.7705995 14.768634,1.7078257 14.697203,1.6926532 14.515684,1.654118 13.49561,1.5004874 13.417681,1.4999834 Z"/>
 <path style="fill:#959dbd" d="m 13.417616,1.0002809 c -0.181388,-0.00105 -0.252089,0.1426636 -0.620072,1.2626252 l -0.365581,1.1127428 -0.558869,0.050505 c -0.307373,0.027773 -0.661752,0.071841 -0.787521,0.097975 -0.166272,0.034545 -0.24384,0.034913 -0.284275,0.00105 C 10.770722,3.4997694 10.511789,3.0800581 10.225856,2.5924643 9.6544322,1.6180275 9.5372479,1.4621445 9.3765607,1.4621445 c -0.168869,0 -1.2999227,0.450639 -1.3823252,0.5507461 -0.040436,0.04914 -0.072962,0.1486484 -0.07228,0.2212506 5.245e-4,0.072603 0.102216,0.6051151 0.2256146,1.1832872 C 8.2709742,3.9956057 8.3646153,4.4875837 8.3556315,4.51071 8.3466644,4.5338101 8.2120361,4.631943 8.0565039,4.7287583 7.9009715,4.825573 7.6194187,5.02899 7.4308508,5.1807885 7.2422887,5.332587 7.0700686,5.4568178 7.0481252,5.4568178 7.0262011,5.4568178 6.5850479,5.2177433 6.0678105,4.9255335 5.0042859,4.3247077 4.9533352,4.3018334 4.8032996,4.3589377 4.6412011,4.4206305 3.8461967,5.4303315 3.8461967,5.5745018 c 0,0.1562505 0.038021,0.2058053 0.8491335,1.1083118 0.3877971,0.4314765 0.7050707,0.8150101 0.7050707,0.8523166 0,0.037275 -0.082229,0.2330475 -0.1827094,0.4349467 C 5.1172113,8.1719762 4.9838062,8.4729378 4.9211916,8.6389217 4.8585769,8.8049005 4.7839681,8.9601903 4.7553855,8.983936 4.7234443,9.0105012 4.2554391,9.0318688 3.5407549,9.0395391 2.1069021,9.0549217 2.2329703,8.985091 2.0978027,9.8385522 c -0.052343,0.3305768 -0.096264,0.6510048 -0.097548,0.7120418 -0.00473,0.227393 0.091973,0.278286 1.2588523,0.662523 l 1.1109253,0.365794 0.049245,0.545816 c 0.027116,0.300186 0.069663,0.656267 0.094595,0.791297 0.024964,0.135035 0.034981,0.262322 0.022344,0.282848 -0.012689,0.02053 -0.4424191,0.285785 -0.9550469,0.589507 -0.5126327,0.303729 -0.9746086,0.598033 -1.0265925,0.653983 -0.051975,0.05596 -0.094512,0.151656 -0.094512,0.212708 0,0.17861 0.4580898,1.306479 0.5595246,1.377606 0.1326134,0.09298 0.2473637,0.07935 1.393317,-0.165406 0.5773404,-0.123313 1.0688013,-0.216091 1.0921443,-0.206142 0.023336,0.01 0.1216578,0.144816 0.2185612,0.299686 0.096898,0.154864 0.3019228,0.438323 0.4555777,0.629832 0.1911846,0.238292 0.2709226,0.370277 0.2525245,0.418272 -0.014789,0.03859 -0.2525927,0.471204 -0.5284346,0.961386 -0.565372,1.004703 -0.5974742,1.074617 -0.5605893,1.221722 0.037711,0.150445 1.077937,0.98205 1.2279206,0.981672 0.1546928,-3.89e-4 0.2282526,-0.05677 1.0951757,-0.840656 0.4220229,-0.381597 0.799163,-0.699321 0.8380566,-0.706046 0.038913,-0.0067 0.2401844,0.07166 0.4473751,0.174273 0.2071907,0.102607 0.5232324,0.238344 0.702281,0.30157 0.1790486,0.06322 0.3292627,0.117201 0.3338255,0.119989 0.00473,0.0026 0.018721,0.54863 0.031521,1.212934 0.02853,1.483518 -0.039963,1.354222 0.788753,1.488396 0.622731,0.100821 0.868585,0.101094 0.968505,0.0011 0.03483,-0.03486 0.226984,-0.561456 0.426947,-1.170151 l 0.363526,-1.106664 0.417921,-0.03218 c 0.229879,-0.01769 0.588123,-0.06015 0.796054,-0.09436 0.376401,-0.06193 0.378394,-0.06177 0.456317,0.03218 0.04306,0.05192 0.311787,0.491732 0.597263,0.977398 0.285477,0.485667 0.559536,0.916146 0.608996,0.956619 0.135434,0.110822 0.232438,0.09369 0.886549,-0.156124 0.623811,-0.238256 0.748474,-0.325118 0.748054,-0.521346 -1.26e-4,-0.06104 -0.102334,-0.593314 -0.227172,-1.182878 -0.124842,-0.589565 -0.217959,-1.08664 -0.206914,-1.104532 0.01107,-0.0179 0.155785,-0.12422 0.32169,-0.236361 0.165901,-0.11214 0.443436,-0.320029 0.616705,-0.461884 0.173275,-0.141855 0.332431,-0.257933 0.353687,-0.257959 0.02124,-3.2e-5 0.474915,0.243101 1.008127,0.540314 1.090079,0.607599 1.0839,0.604795 1.228088,0.568565 0.153424,-0.03853 0.980562,-1.079437 0.980562,-1.23396 0,-0.144559 -0.03499,-0.189651 -0.859879,-1.109047 -0.370349,-0.412776 -0.679179,-0.78468 -0.68628,-0.826528 -0.0071,-0.04184 0.06395,-0.229089 0.157849,-0.416058 0.0939,-0.186968 0.228747,-0.486722 0.299617,-0.666135 0.07086,-0.179414 0.147245,-0.34513 0.169745,-0.368256 0.02433,-0.02499 0.51633,-0.05056 1.213975,-0.06307 1.119247,-0.02005 1.177058,-0.02504 1.260735,-0.1089 0.06868,-0.06883 0.109742,-0.223829 0.189432,-0.71484 0.05597,-0.34482 0.10205,-0.667497 0.102386,-0.716967 0.0016,-0.199878 -0.118411,-0.260778 -1.259508,-0.639939 l -1.113143,-0.36982 -0.04735,-0.543433 c -0.02606,-0.298872 -0.06838,-0.654407 -0.09402,-0.790068 -0.02565,-0.1356593 -0.03613,-0.2636015 -0.02329,-0.2844074 0.01285,-0.02079 0.442671,-0.2857571 0.955131,-0.5887662 0.512459,-0.3030091 0.974283,-0.5970931 1.026262,-0.6534885 0.05197,-0.056396 0.09451,-0.1497616 0.09451,-0.2075378 0,-0.1656848 -0.451041,-1.2902034 -0.550498,-1.3725076 C 21.861816,6.8975436 21.774824,6.9059804 20.770264,7.120286 19.590761,7.3719185 19.527155,7.3834108 19.48393,7.353449 19.463686,7.3394314 19.356538,7.1903206 19.245767,7.0220634 19.134998,6.8538062 18.932768,6.5794359 18.796342,6.4123494 18.659915,6.2452681 18.548276,6.0914274 18.548244,6.0705376 c -2.6e-5,-0.020895 0.243635,-0.4750201 0.541562,-1.0091814 0.297921,-0.534156 0.553582,-1.0112817 0.568135,-1.0602643 0.05035,-0.1694384 -0.05564,-0.301119 -0.583968,-0.7253453 -0.563039,-0.4521038 -0.66192,-0.4927703 -0.863,-0.3547897 -0.05712,0.039218 -0.4567,0.389256 -0.887938,0.7779083 -0.431243,0.3886522 -0.814378,0.7067029 -0.851436,0.7067029 -0.03708,0 -0.232391,-0.082672 -0.43408,-0.1837184 C 15.835829,4.1208076 15.547925,3.9951332 15.397753,3.9426174 14.957793,3.7887609 14.977708,3.8533049 14.977534,2.5822635 14.977393,1.5718643 14.970814,1.4724554 14.896568,1.350519 14.847901,1.2706135 14.768634,1.2078397 14.697203,1.1926672 14.515684,1.154132 13.49561,1.0005014 13.417681,0.9999974 Z"/>
 <path style="fill:#8b9cbe;opacity:0.2" d="M 13.417969 1 C 13.236581 0.99895 13.164858 1.1437103 12.796875 2.2636719 L 12.431641 3.375 L 11.873047 3.4257812 C 11.565674 3.4535542 11.211706 3.4973035 11.085938 3.5234375 C 10.919666 3.5579825 10.841216 3.5592536 10.800781 3.5253906 C 10.770205 3.4999811 10.512495 3.0793907 10.226562 2.5917969 C 9.6551387 1.6173601 9.5376403 1.4628906 9.3769531 1.4628906 C 9.2080841 1.4628906 8.0765431 1.9135648 7.9941406 2.0136719 C 7.9537046 2.0628119 7.921193 2.1617728 7.921875 2.234375 C 7.9220152 2.2537835 7.9693404 2.4735543 7.9824219 2.5507812 C 7.9886342 2.5400824 7.9873651 2.5219059 7.9941406 2.5136719 C 8.0765431 2.4135648 9.2080841 1.9628906 9.3769531 1.9628906 C 9.5376403 1.9628906 9.6551387 2.1173601 10.226562 3.0917969 C 10.512495 3.5793907 10.770205 3.9999811 10.800781 4.0253906 C 10.841216 4.0592536 10.919666 4.0579825 11.085938 4.0234375 C 11.211706 3.9973035 11.565674 3.9535542 11.873047 3.9257812 L 12.431641 3.875 L 12.796875 2.7636719 C 13.164858 1.6437103 13.236581 1.49895 13.417969 1.5 C 13.495898 1.500504 14.515747 1.6548242 14.697266 1.6933594 C 14.768697 1.7085319 14.847817 1.7697039 14.896484 1.8496094 C 14.97073 1.9715458 14.976421 2.071632 14.976562 3.0820312 C 14.976736 4.3530726 14.958478 4.2895029 15.398438 4.4433594 C 15.548609 4.4958752 15.835419 4.6216142 16.037109 4.7226562 C 16.238798 4.8237026 16.433623 4.90625 16.470703 4.90625 C 16.507761 4.90625 16.891023 4.587871 17.322266 4.1992188 C 17.753504 3.8105664 18.153817 3.461093 18.210938 3.421875 C 18.412017 3.2838944 18.51118 3.3232868 19.074219 3.7753906 C 19.321295 3.9737831 19.459279 4.1008642 19.548828 4.2050781 C 19.567992 4.1667317 19.655409 4.0113581 19.658203 4.0019531 C 19.708553 3.8325147 19.602547 3.6996169 19.074219 3.2753906 C 18.51118 2.8232868 18.412017 2.7838944 18.210938 2.921875 C 18.153817 2.961093 17.753504 3.3105664 17.322266 3.6992188 C 16.891023 4.0878709 16.507761 4.40625 16.470703 4.40625 C 16.433623 4.40625 16.238798 4.3237027 16.037109 4.2226562 C 15.835419 4.1216142 15.548609 3.9958752 15.398438 3.9433594 C 14.958478 3.7895029 14.976736 3.8530727 14.976562 2.5820312 C 14.976421 1.5716321 14.97073 1.4715458 14.896484 1.3496094 C 14.847817 1.2697039 14.768697 1.2085319 14.697266 1.1933594 C 14.515747 1.1548242 13.495898 1.000504 13.417969 1 z M 4.9140625 4.3398438 C 4.8715695 4.3363417 4.8402433 4.3450989 4.8027344 4.359375 C 4.6406359 4.4210678 3.8457031 5.4300485 3.8457031 5.5742188 C 3.8457031 5.6517943 3.856142 5.7052389 3.9648438 5.8476562 C 4.1899653 5.5029978 4.678572 4.9066297 4.8027344 4.859375 C 4.95277 4.8022707 5.0048348 4.8249555 6.0683594 5.4257812 C 6.5855968 5.717991 7.026904 5.9570312 7.0488281 5.9570312 C 7.0707715 5.9570313 7.2430785 5.8334391 7.4316406 5.6816406 C 7.6202085 5.5298421 7.9011082 5.3253303 8.0566406 5.2285156 C 8.2121728 5.1317003 8.3464988 5.0328656 8.3554688 5.0097656 C 8.3590858 5.0004547 8.2963828 4.7066503 8.2714844 4.5703125 C 8.2203046 4.61288 8.1686923 4.658766 8.0566406 4.7285156 C 7.9011082 4.8253303 7.6202085 5.0298421 7.4316406 5.1816406 C 7.2430785 5.3334391 7.0707715 5.4570312 7.0488281 5.4570312 C 7.026904 5.4570312 6.5855968 5.2179911 6.0683594 4.9257812 C 5.2707159 4.4751619 5.0415414 4.35035 4.9140625 4.3398438 z M 18.703125 6.2832031 C 18.66804 6.3511571 18.548821 6.5643673 18.548828 6.5703125 C 18.54886 6.5912023 18.660448 6.7450281 18.796875 6.9121094 C 18.933301 7.0791959 19.135325 7.3532272 19.246094 7.5214844 C 19.356865 7.6897416 19.464131 7.839498 19.484375 7.8535156 C 19.5276 7.8834774 19.590028 7.8727263 20.769531 7.6210938 C 21.774091 7.4067881 21.861919 7.3973302 21.988281 7.5019531 C 22.067458 7.5674743 22.321537 8.2050694 22.441406 8.5820312 C 22.441478 8.581954 22.443289 8.5821076 22.443359 8.5820312 C 22.495329 8.5256353 22.539062 8.4327762 22.539062 8.375 C 22.539062 8.2093152 22.087738 7.0842573 21.988281 7.0019531 C 21.861919 6.8973302 21.774091 6.9067882 20.769531 7.1210938 C 19.590028 7.3727262 19.5276 7.3834774 19.484375 7.3535156 C 19.464131 7.339498 19.356865 7.1897416 19.246094 7.0214844 C 19.135325 6.8532272 18.933301 6.5791959 18.796875 6.4121094 C 18.745384 6.3490492 18.742886 6.3360552 18.703125 6.2832031 z M 5.2597656 7.8671875 C 5.238845 7.9123416 5.2406229 7.9228286 5.2167969 7.9707031 C 5.1163167 8.1726024 4.9844896 8.472688 4.921875 8.6386719 C 4.8592603 8.8046507 4.784442 8.9606293 4.7558594 8.984375 C 4.7239182 9.0109402 4.2556998 9.0313922 3.5410156 9.0390625 C 2.1071628 9.0544451 2.2328239 8.9844294 2.0976562 9.8378906 C 2.0453132 10.168467 2.001284 10.489744 2 10.550781 C 1.9987037 10.6131 2.0129937 10.660731 2.046875 10.707031 C 2.0647123 10.575898 2.0705505 10.509079 2.0976562 10.337891 C 2.2328239 9.4844301 2.1071628 9.5544451 3.5410156 9.5390625 C 4.2556998 9.5313922 4.7239182 9.5109402 4.7558594 9.484375 C 4.784442 9.4606293 4.8592603 9.3046507 4.921875 9.1386719 C 4.9844896 8.972688 5.1163167 8.6726024 5.2167969 8.4707031 C 5.3172773 8.2688039 5.4003906 8.0724312 5.4003906 8.0351562 C 5.4003906 8.0277643 5.2827586 7.899445 5.2597656 7.8671875 z M 20.507812 10.296875 C 20.505411 10.298902 20.463493 10.323244 20.462891 10.324219 C 20.450051 10.345025 20.460678 10.473716 20.486328 10.609375 C 20.511968 10.745036 20.554018 11.099566 20.580078 11.398438 L 20.626953 11.941406 L 21.740234 12.3125 C 22.568945 12.587862 22.853068 12.69381 22.949219 12.808594 C 22.967604 12.679723 22.999833 12.475775 23 12.451172 C 23.0016 12.251294 22.881331 12.191661 21.740234 11.8125 L 20.626953 11.441406 L 20.580078 10.898438 C 20.560208 10.670549 20.531987 10.468058 20.507812 10.296875 z M 4.4921875 13.226562 C 4.4435476 13.267555 4.0706436 13.499569 3.5820312 13.789062 C 3.0693985 14.092792 2.6066714 14.385456 2.5546875 14.441406 C 2.5027125 14.497366 2.4609375 14.593245 2.4609375 14.654297 C 2.4609375 14.689374 2.5255234 14.848302 2.5546875 14.941406 C 2.6066714 14.885456 3.0693985 14.592792 3.5820312 14.289062 C 4.094659 13.985341 4.5244204 13.719749 4.5371094 13.699219 C 4.5497464 13.678693 4.5386359 13.551051 4.5136719 13.416016 C 4.5077041 13.383694 4.4997206 13.280416 4.4921875 13.226562 z M 19.736328 15.662109 C 19.666663 15.813073 19.599601 15.971283 19.605469 16.005859 C 19.61257 16.047707 19.92262 16.419255 20.292969 16.832031 C 20.705413 17.291729 20.919391 17.533467 21.03125 17.677734 C 21.101763 17.569778 21.152344 17.477319 21.152344 17.441406 C 21.152344 17.296847 21.117858 17.251427 20.292969 16.332031 C 19.992846 15.997527 19.827814 15.789032 19.736328 15.662109 z M 6.2988281 17.251953 C 6.2125113 17.413325 6.1087358 17.603936 5.9023438 17.970703 C 5.3369718 18.975406 5.304912 19.044301 5.3417969 19.191406 C 5.3470367 19.21231 5.4064405 19.269354 5.4453125 19.3125 C 5.5258628 19.14687 5.6469246 18.9246 5.9023438 18.470703 C 6.1781856 17.980521 6.4168516 17.548356 6.4316406 17.509766 C 6.4447219 17.475641 6.3897547 17.379021 6.2988281 17.251953 z M 16.726562 18.962891 C 16.708081 18.977689 16.647367 19.018853 16.644531 19.023438 C 16.633486 19.041329 16.724767 19.537388 16.849609 20.126953 C 16.939221 20.550158 16.976769 20.765507 17.013672 20.976562 C 17.05372 20.926495 17.078263 20.87496 17.078125 20.810547 C 17.077999 20.749507 16.974447 20.216517 16.849609 19.626953 C 16.774491 19.272205 16.762928 19.166423 16.726562 18.962891 z"/>
 <circle style="opacity:0.2" cx="12.5" cy="11.5" r="5.5"/>
 <path style="opacity:0.1" d="m 15.999959,1.4999999 c -0.999994,0 -1.999988,0 -1.999988,0.9999942 V 8.8427975 C 13.531589,8.61869 13.019212,8.5016039 12.499979,8.500026 10.566994,8.5000264 8.9999999,10.067021 9,12.000005 c -10e-8,1.932985 1.566994,3.49998 3.499979,3.49998 1.932986,0 3.49998,-1.566994 3.49998,-3.49998 -7.5e-4,-0.03582 -0.0021,-0.07164 -0.0039,-0.107422 7.5e-4,-0.01479 0.0033,-0.02909 0.0039,-0.04394 0.012,-1.8828384 0,-4.2906821 0,-6.1816712 0,-2.6669844 2.500044,0.8330032 3.000041,1.3330003 0,-1.3334923 0.499939,-5.4999682 -3.000041,-5.4999682 z"/>
 <path style="fill:#1d63c9" d="m 15.999959,1.0000139 c -0.999994,0 -1.999988,0 -1.999988,0.9999942 V 8.3428115 C 13.531589,8.118704 13.019212,8.0016179 12.499979,8.00004 10.566994,8.0000404 8.9999999,9.5670348 9,11.50002 8.9999999,13.433005 10.566994,15 12.499979,15 c 1.932986,0 3.49998,-1.566994 3.49998,-3.49998 -7.5e-4,-0.03582 -0.0021,-0.07164 -0.0039,-0.107422 7.5e-4,-0.01479 0.0033,-0.02909 0.0039,-0.04394 0.012,-1.8828394 0,-4.2906831 0,-6.1816722 0,-2.6669844 2.500044,0.8330032 3.000041,1.3330003 0,-1.3334923 0.499939,-5.4999682 -3.000041,-5.4999682 z"/>
</svg>
