<svg xmlns="http://www.w3.org/2000/svg" width="24" height="24" version="1">
 <path style="opacity:0.2" d="m 22,14.000196 a 10.5,7.4988429 0 1 1 -20.9999996,0 10.5,7.4988429 0 1 1 20.9999996,0 z"/>
 <path style="fill:#298464" d="m 22,13.500196 a 10.5,7.4988429 0 1 1 -20.9999996,0 10.5,7.4988429 0 1 1 20.9999996,0 z"/>
 <path style="opacity:0.1;fill:#8b9cbe" d="M 11.804687,6.003126 A 10.5,7.4988429 0 0 0 1.0000002,13.500196 10.5,7.4988429 0 0 0 1.0117189,13.836134 10.5,7.4988429 0 0 1 21.988281,13.664259 10.5,7.4988429 0 0 0 22,13.500196 10.5,7.4988429 0 0 0 11.804687,6.003126 Z"/>
 <path style="opacity:0.2;fill-rule:evenodd" d="M 16.545854,17.856182 C 15.989559,18.682279 11.42831,15.68921 10.477002,15.588789 9.362694,15.471163 4.2606488,17.069023 3.5988139,16.178407 2.8044276,15.10942 7.0637546,11.520342 6.9607991,10.540784 6.8478151,9.4658194 5.8177671,5.013429 6.4282476,4.1068678 6.9845421,3.280769 13.017591,7.5271684 14.033739,7.4273035 c 1.115123,-0.109591 4.407428,-1.498209 5.347415,-0.91024 0.856558,0.5357825 -3.201316,4.3895935 -3.09836,5.3691485 0.112985,1.074965 0.873541,5.063408 0.26306,5.96997 z"/>
 <path style="fill:#ee4075;fill-rule:evenodd" d="M 16.545854,17.356182 C 15.989559,18.182279 11.42831,15.18921 10.477002,15.088789 9.362694,14.971163 4.2606488,16.569023 3.5988139,15.678407 2.8044276,14.60942 7.0637546,11.020342 6.9607991,10.040784 6.8478151,8.9658194 5.8177671,4.513429 6.4282476,3.6068679 6.9845421,2.7807691 13.017591,7.0271685 14.033739,6.9273035 c 1.115123,-0.109591 4.407428,-1.498209 5.347415,-0.91024 0.856558,0.5357825 -3.201316,4.3895935 -3.09836,5.3691485 0.112985,1.074965 0.873541,5.063408 0.26306,5.96997 z"/>
 <path style="opacity:0.2;fill:#8b9cbe;fill-rule:evenodd" d="m 6.5937501,3.5089856 c -0.074994,0.014302 -0.1302705,0.046025 -0.165039,0.097656 -0.159053,0.2361927 -0.2039795,0.7183442 -0.185547,1.3134767 0.01754,-0.3607225 0.073881,-0.6476541 0.185547,-0.8134767 0.5562945,-0.8260987 6.5893199,3.4201776 7.6054679,3.3203127 1.115123,-0.109591 4.406693,-1.4981255 5.34668,-0.9101565 0.01847,0.011555 0.0319,0.02644 0.0459,0.041015 C 19.5226,6.302736 19.527474,6.1085055 19.380859,6.0167975 18.440872,5.4288285 15.149302,6.817363 14.034179,6.926954 13.08154,7.020578 7.7186545,3.2944588 6.5937501,3.5089856 Z m 0.3251955,6.7734374 c -0.411443,1.189082 -3.8473718,4.215178 -3.3720705,5.301758 0.3833415,-1.441668 3.502461,-4.201911 3.4140625,-5.042969 -0.00549,-0.05221 -0.03247,-0.191442 -0.04199,-0.258789 z m 9.4003904,1.364258 c -0.0285,0.09102 -0.04312,0.172777 -0.03614,0.239257 0.07862,0.748033 0.461725,2.892957 0.487305,4.442383 0.0666,-1.440044 -0.325191,-3.700118 -0.451172,-4.68164 z"/>
 <path style="opacity:0.2;fill-rule:evenodd" d="M 9.97335,17.995193 C 9.2691715,17.856775 8.9501185,14.834722 8.547407,14.22502 8.144697,13.61532 3.2451488,9.0274274 3.5103858,7.9731849 3.6899634,7.2594145 9.0460265,7.9229139 9.639176,7.5089664 10.232325,7.0950185 12.068827,2.8651006 12.773007,3.0035192 13.477185,3.141937 14.18797,7.419563 14.59068,8.0292629 c 0.40271,0.6097005 5.041106,3.1490291 4.906445,3.8728581 -0.134661,0.723829 -4.164588,2.627496 -4.757737,3.041444 -0.593149,0.413948 -4.061859,3.190046 -4.766038,3.051628 z"/>
 <path style="fill:#fc69a4;fill-rule:evenodd" d="M 9.97335,17.495193 C 9.2691715,17.356775 8.9501185,14.334722 8.547407,13.72502 8.144697,13.11532 3.2451488,8.5274274 3.5103858,7.473185 3.6899634,6.7594145 9.0460265,7.422914 9.639176,7.0089665 c 0.593149,-0.413948 2.429651,-4.6438657 3.133831,-4.5054472 0.704178,0.1384178 1.414963,4.4160437 1.817673,5.0257436 0.40271,0.6097005 5.041106,3.1490291 4.906445,3.8728581 -0.134661,0.723829 -4.164588,2.627496 -4.757737,3.041444 -0.593149,0.413948 -4.061859,3.190046 -4.766038,3.051628 z"/>
 <path style="opacity:0.2;fill-rule:evenodd" d="M 13.899958,16.457445 C 13.129444,16.772528 11.183681,15.253326 10.41668,14.92974 9.649679,14.606154 4.1148095,12.870398 4.0012677,11.695257 3.9210184,10.864672 7.6766475,10.178577 7.9993175,9.4093969 8.3219865,8.6402159 7.8456845,4.8335205 8.616199,4.518438 c 0.770513,-0.3150829 3.318223,3.5516754 4.085224,3.8752614 0.767002,0.3235865 4.96421,-1.2943104 5.278401,-0.521608 0.31419,0.7727035 -3.140315,3.7971636 -3.462984,4.5663446 -0.322671,0.76918 0.153632,3.703926 -0.616882,4.019009 z"/>
 <path style="opacity:0.2;fill:#8b9cbe;fill-rule:evenodd" d="M 12.773437,2.5031262 C 12.069258,2.3647077 10.232797,6.5950375 9.6396485,7.0089855 9.046499,7.422933 3.6903199,6.7590825 3.5107423,7.4728525 3.4853257,7.5738764 3.5191438,7.7158859 3.5800782,7.8751964 4.2265764,7.32492 9.076716,7.9018464 9.6396485,7.5089854 10.232797,7.0950375 12.069258,2.8647076 12.773437,3.0031262 c 0.704178,0.1384178 1.414673,4.4166673 1.817383,5.0263672 0.359593,0.5444205 4.086911,2.6239656 4.787109,3.5791016 0.06108,-0.07516 0.107919,-0.145736 0.119141,-0.206055 C 19.631731,10.67871 14.993531,8.1391939 14.59082,7.5294934 14.18811,6.9197935 13.477615,2.641544 12.773437,2.5031262 Z"/>
 <path style="fill:#ff96bf;fill-rule:evenodd" d="M 13.899958,15.957445 C 13.129444,16.272528 11.183681,14.753326 10.41668,14.42974 9.649679,14.106154 4.1148095,12.370398 4.0012677,11.195257 3.9210184,10.364672 7.6766475,9.6785774 7.9993175,8.9093969 8.3219865,8.1402159 7.8456845,4.3335207 8.616199,4.0184379 c 0.770513,-0.3150827 3.318223,3.5516755 4.085224,3.8752615 0.767002,0.3235865 4.96421,-1.2943104 5.278401,-0.5216079 0.31419,0.7727034 -3.140315,3.7971635 -3.462984,4.5663445 -0.322671,0.76918 0.153632,3.703926 -0.616882,4.019009 z"/>
 <path style="opacity:0.2;fill:#8b9cbe;fill-rule:evenodd" d="M 8.7802735,4.0060559 C 8.7191005,3.9949639 8.664368,3.9990584 8.616211,4.0187514 7.8456965,4.3338342 8.3216925,8.1401949 7.9990235,8.9093759 7.6763535,9.6785564 3.9207273,10.364924 4.0009767,11.195509 c 0.00768,0.07945 0.044544,0.162128 0.098633,0.246093 0.5703661,-0.719934 3.610158,-1.342698 3.899414,-2.0322261 0.322669,-0.769181 -0.153327,-4.5755424 0.6171875,-4.8906249 0.770513,-0.3150825 3.3179588,3.5514139 4.0849608,3.8749999 0.735116,0.3101345 4.619332,-1.1617484 5.217773,-0.604492 0.07454,-0.170826 0.102152,-0.3146704 0.06055,-0.4169919 C 17.665301,6.5995645 13.468173,8.2173374 12.701172,7.8937509 11.982108,7.5903894 9.697865,4.1724355 8.7802735,4.0060559 Z"/>
 <path style="opacity:0.2;fill-rule:evenodd" d="m 15.972828,12.094725 c -0.272615,0.599367 -3.015777,0.376024 -3.629756,0.60588 -0.613979,0.229856 -1.551623,2.045752 -2.147305,1.771453 C 9.600084,14.197758 8.5369005,12.848292 8.308456,12.230518 8.080012,11.612743 5.7495271,8.7884284 6.0221411,8.1890634 6.2947566,7.5896974 9.6804955,7.5779319 10.294475,7.348076 10.908454,7.1182195 13.949079,4.2443314 14.544762,4.5186315 15.140445,4.792931 13.925398,9.3163714 14.153843,9.9341454 14.382287,10.55192 16.245442,11.49536 15.972828,12.094725 Z"/>
 <path style="fill:#ffcbdb;fill-rule:evenodd" d="m 15.972828,11.594725 c -0.272615,0.599367 -3.015777,0.376024 -3.629756,0.60588 -0.613979,0.229856 -1.551623,2.045752 -2.147305,1.771453 C 9.600084,13.697758 8.5369005,12.348292 8.308456,11.730518 8.080012,11.112743 5.7495271,8.2884284 6.0221411,7.6890634 6.2947566,7.0896975 9.6804955,7.077932 10.294475,6.848076 c 0.613979,-0.2298565 3.654604,-3.1037445 4.250287,-2.8294446 0.595683,0.2742999 -0.619364,4.79774 -0.390919,5.415514 0.228444,0.6177746 2.091599,1.5612146 1.818985,2.1605796 z"/>
 <path style="fill:#ff940a;fill-rule:evenodd" d="m 13.219862,9.9023048 c -0.03647,0.2860012 0.13909,0.8346572 -0.06817,1.0516672 -0.286996,0.300497 -1.068561,0.383811 -1.460577,0.549081 -0.283102,0.119353 -0.708431,0.546711 -1.009379,0.492162 C 10.26501,11.919681 9.8127665,11.331508 9.471254,11.100749 9.224624,10.934101 8.6237315,10.812802 8.530044,10.541244 8.4003145,10.165212 8.7296355,9.4937257 8.7801385,9.0976957 8.8166085,8.8116952 8.6410475,8.2630387 8.8483085,8.0460292 9.135305,7.7455322 9.916869,7.6622177 10.308885,7.4969477 c 0.283102,-0.119353 0.708431,-0.5467104 1.009379,-0.492162 0.416727,0.075535 0.868969,0.6637065 1.210482,0.8944665 0.246631,0.1666475 0.847523,0.2879465 0.94121,0.559505 0.12973,0.376032 -0.199591,1.0475176 -0.250094,1.4435476 z"/>
 <path style="opacity:0.2;fill:#8b9cbe;fill-rule:evenodd" d="M 14.405273,4.0031262 C 13.578144,4.0936866 10.870527,6.6323625 10.294922,6.8478525 9.6809425,7.077709 6.2950766,7.089307 6.0224611,7.6886729 5.9794961,7.7831309 6.0062961,7.9375634 6.0742191,8.1251964 6.5540146,7.5898394 9.704044,7.5690599 10.294922,7.3478525 c 0.613979,-0.2298565 3.654317,-3.1034014 4.25,-2.8291015 0.09245,0.04257 0.136912,0.1962975 0.154297,0.413086 0.03024,-0.4902969 -0.0018,-0.8428698 -0.154297,-0.9130858 -0.03723,-0.017143 -0.08451,-0.021662 -0.139649,-0.015625 z m -0.258789,5.3828122 c -0.02094,0.247995 -0.02712,0.4533765 0.0078,0.547852 0.181576,0.4910296 1.392359,1.1876976 1.746094,1.7539056 0.03055,-0.02895 0.05679,-0.05876 0.07226,-0.09277 0.272614,-0.599365 -1.589915,-1.543358 -1.818359,-2.1611326 -0.0043,-0.01159 -0.0045,-0.033565 -0.0078,-0.04785 z"/>
</svg>
