<svg xmlns="http://www.w3.org/2000/svg" width="24" height="24" version="1.1">
 <rect style="opacity:0.2" width="19" height="19" x="-21.5" y="-22" rx="1.425" ry="1.425" transform="matrix(0,-1,-1,0,0,0)"/>
 <rect style="fill:#4b7abb" width="19" height="19" x="-21" y="-22" rx="1.425" ry="1.425" transform="matrix(0,-1,-1,0,0,0)"/>
 <path style="opacity:0.2" d="m 6,3.4999969 c -0.554,0 -1,0.446 -1,1 v 3 c 0,0.554 0.446,1 1,1 h 13 c 0.554,0 1,-0.446 1,-1 v -3 c 0,-0.554 -0.446,-1 -1,-1 z m -0.25,6 c -0.4155,0 -0.75,0.3345 -0.75,0.7500001 v 1.5 c 0,0.4155 0.3345,0.75 0.75,0.75 h 1.5 c 0.4155,0 0.75,-0.3345 0.75,-0.75 v -1.5 C 8,9.8344969 7.6655,9.4999969 7.25,9.4999969 Z m 4,0 c -0.4155,0 -0.75,0.3345 -0.75,0.7500001 v 1.5 c 0,0.4155 0.3345,0.75 0.75,0.75 h 1.5 c 0.4155,0 0.75,-0.3345 0.75,-0.75 v -1.5 C 12,9.8344969 11.6655,9.4999969 11.25,9.4999969 Z m 4,0 c -0.4155,0 -0.75,0.3345 -0.75,0.7500001 v 1.5 c 0,0.4155 0.3345,0.75 0.75,0.75 h 1.5 c 0.4155,0 0.75,-0.3345 0.75,-0.75 v -1.5 C 16,9.8344969 15.6655,9.4999969 15.25,9.4999969 Z m 4,0 c -0.4155,0 -0.75,0.3345 -0.75,0.7500001 v 1.5 c 0,0.4155 0.3345,0.75 0.75,0.75 h 1.5 c 0.4155,0 0.75,-0.3345 0.75,-0.75 v -1.5 C 20,9.8344969 19.6655,9.4999969 19.25,9.4999969 Z m -12,4.0000001 c -0.4155,0 -0.75,0.3345 -0.75,0.75 v 1.5 c 0,0.4155 0.3345,0.75 0.75,0.75 h 1.5 c 0.4155,0 0.75,-0.3345 0.75,-0.75 v -1.5 c 0,-0.4155 -0.3345,-0.75 -0.75,-0.75 z m 4,0 c -0.4155,0 -0.75,0.3345 -0.75,0.75 v 1.5 c 0,0.4155 0.3345,0.75 0.75,0.75 h 1.5 c 0.4155,0 0.75,-0.3345 0.75,-0.75 v -1.5 c 0,-0.4155 -0.3345,-0.75 -0.75,-0.75 z m 4,0 c -0.4155,0 -0.75,0.3345 -0.75,0.75 v 1.5 c 0,0.4155 0.3345,0.75 0.75,0.75 h 1.5 c 0.4155,0 0.75,-0.3345 0.75,-0.75 v -1.5 c 0,-0.4155 -0.3345,-0.75 -0.75,-0.75 z m 4,0 c -0.4155,0 -0.75,0.3345 -0.75,0.75 v 5.5 c 0,0.4155 0.3345,0.75 0.75,0.75 h 1.5 c 0.4155,0 0.75,-0.3345 0.75,-0.75 v -5.5 c 0,-0.4155 -0.3345,-0.75 -0.75,-0.75 z m -12,4 c -0.4155,0 -0.75,0.3345 -0.75,0.75 v 1.5 c 0,0.4155 0.3345,0.75 0.75,0.75 h 1.5 c 0.4155,0 0.75,-0.3345 0.75,-0.75 v -1.5 c 0,-0.4155 -0.3345,-0.75 -0.75,-0.75 z m 4,0 c -0.4155,0 -0.75,0.3345 -0.75,0.75 v 1.5 c 0,0.4155 0.3345,0.75 0.75,0.75 h 1.5 c 0.4155,0 0.75,-0.3345 0.75,-0.75 v -1.5 c 0,-0.4155 -0.3345,-0.75 -0.75,-0.75 z m 4,0 c -0.4155,0 -0.75,0.3345 -0.75,0.75 v 1.5 c 0,0.4155 0.3345,0.75 0.75,0.75 h 1.5 c 0.4155,0 0.75,-0.3345 0.75,-0.75 v -1.5 c 0,-0.4155 -0.3345,-0.75 -0.75,-0.75 z"/>
 <path style="fill:#8b9cbe" d="M 6,3 C 5.446,3 5,3.446 5,4 v 3 c 0,0.554 0.446,1 1,1 h 13 c 0.554,0 1,-0.446 1,-1 V 4 C 20,3.446 19.554,3 19,3 Z M 5.75,9 C 5.3345,9 5,9.3345 5,9.75 v 1.5 C 5,11.6655 5.3345,12 5.75,12 h 1.5 C 7.6655,12 8,11.6655 8,11.25 V 9.75 C 8,9.3345 7.6655,9 7.25,9 Z m 4,0 C 9.3345,9 9,9.3345 9,9.75 v 1.5 C 9,11.6655 9.3345,12 9.75,12 h 1.5 C 11.6655,12 12,11.6655 12,11.25 V 9.75 C 12,9.3345 11.6655,9 11.25,9 Z m 4,0 C 13.3345,9 13,9.3345 13,9.75 v 1.5 c 0,0.4155 0.3345,0.75 0.75,0.75 h 1.5 C 15.6655,12 16,11.6655 16,11.25 V 9.75 C 16,9.3345 15.6655,9 15.25,9 Z m 4,0 C 17.3345,9 17,9.3345 17,9.75 v 1.5 c 0,0.4155 0.3345,0.75 0.75,0.75 h 1.5 C 19.6655,12 20,11.6655 20,11.25 V 9.75 C 20,9.3345 19.6655,9 19.25,9 Z m -12,4 C 5.3345,13 5,13.3345 5,13.75 v 1.5 C 5,15.6655 5.3345,16 5.75,16 h 1.5 C 7.6655,16 8,15.6655 8,15.25 v -1.5 C 8,13.3345 7.6655,13 7.25,13 Z m 4,0 C 9.3345,13 9,13.3345 9,13.75 v 1.5 C 9,15.6655 9.3345,16 9.75,16 h 1.5 C 11.6655,16 12,15.6655 12,15.25 v -1.5 C 12,13.3345 11.6655,13 11.25,13 Z m 4,0 C 13.3345,13 13,13.3345 13,13.75 v 1.5 c 0,0.4155 0.3345,0.75 0.75,0.75 h 1.5 C 15.6655,16 16,15.6655 16,15.25 v -1.5 C 16,13.3345 15.6655,13 15.25,13 Z m 4,0 C 17.3345,13 17,13.3345 17,13.75 v 5.5 c 0,0.4155 0.3345,0.75 0.75,0.75 h 1.5 C 19.6655,20 20,19.6655 20,19.25 v -5.5 C 20,13.3345 19.6655,13 19.25,13 Z m -12,4 C 5.3345,17 5,17.3345 5,17.75 v 1.5 C 5,19.6655 5.3345,20 5.75,20 h 1.5 C 7.6655,20 8,19.6655 8,19.25 v -1.5 C 8,17.3345 7.6655,17 7.25,17 Z m 4,0 C 9.3345,17 9,17.3345 9,17.75 v 1.5 C 9,19.6655 9.3345,20 9.75,20 h 1.5 C 11.6655,20 12,19.6655 12,19.25 v -1.5 C 12,17.3345 11.6655,17 11.25,17 Z m 4,0 C 13.3345,17 13,17.3345 13,17.75 v 1.5 c 0,0.4155 0.3345,0.75 0.75,0.75 h 1.5 C 15.6655,20 16,19.6655 16,19.25 v -1.5 C 16,17.3345 15.6655,17 15.25,17 Z"/>
 <path style="fill:#8b9cbe;opacity:0.1" d="M 4.4257812 2 C 3.6363313 2 3 2.6363313 3 3.4257812 L 3 3.9257812 C 3 3.1363313 3.6363313 2.5 4.4257812 2.5 L 20.574219 2.5 C 21.363669 2.5 22 3.1363313 22 3.9257812 L 22 3.4257812 C 22 2.6363313 21.363669 2 20.574219 2 L 4.4257812 2 z"/>
</svg>
