<svg xmlns="http://www.w3.org/2000/svg" width="24" height="24" version="1.1">
 <rect style="opacity:0.2" width="22" height="19" x="1" y="2.5" rx="2" ry="2"/>
 <rect style="fill:#4f4f4f" width="22" height="19" x="1" y="2" rx="2" ry="2"/>
 <path style="opacity:0.2;fill-rule:evenodd" d="m 12,6.4999999 c -7,0 -7,0.5 -7,5.5000001 0,4.5 0.779297,4.5 0.779297,4.5 -1.27903,5 -0.02676,-0.02649 -1.279297,5 l 7.5,-4 c 7.00007,0 7,-0.5 7,-5.5 0,-5.0000001 0,-5.5000001 -7,-5.5000001 z M 9,11.5 c 0.5522847,0 1,0.447715 1,1 0,0.552285 -0.4477153,1 -1,1 -0.5522847,0 -1,-0.447715 -1,-1 0,-0.552285 0.4477153,-1 1,-1 z m 3,0 c 0.552285,0 1,0.447715 1,1 0,0.552285 -0.447715,1 -1,1 -0.552285,0 -1,-0.447715 -1,-1 0,-0.552285 0.447715,-1 1,-1 z m 3,0 c 0.552285,0 1,0.447715 1,1 0,0.552285 -0.447715,1 -1,1 -0.552285,0 -1,-0.447715 -1,-1 0,-0.552285 0.447715,-1 1,-1 z"/>
 <path style="fill:#8b9cbe;fill-rule:evenodd" d="m 12,5.9999999 c -7,0 -7,0.5 -7,5.5000001 C 5,16 5.779297,16 5.779297,16 4.500267,21 5.752537,15.97351 4.5,21 L 12,17 c 7.00007,0 7,-0.5 7,-5.5 0,-5.0000001 0,-5.5000001 -7,-5.5000001 z M 9,11 c 0.5522847,0 1,0.447715 1,1 0,0.552285 -0.4477153,1 -1,1 -0.5522847,0 -1,-0.447715 -1,-1 0,-0.552285 0.4477153,-1 1,-1 z m 3,0 c 0.552285,0 1,0.447715 1,1 0,0.552285 -0.447715,1 -1,1 -0.552285,0 -1,-0.447715 -1,-1 0,-0.552285 0.447715,-1 1,-1 z m 3,0 c 0.552285,0 1,0.447715 1,1 0,0.552285 -0.447715,1 -1,1 -0.552285,0 -1,-0.447715 -1,-1 0,-0.552285 0.447715,-1 1,-1 z"/>
 <path style="opacity:0.1;fill:#8b9cbe" d="M 3,2 C 1.892,2 1,2.892 1,4 v 0.5 c 0,-1.108 0.892,-2 2,-2 h 18 c 1.108,0 2,0.892 2,2 V 4 C 23,2.892 22.108,2 21,2 Z"/>
</svg>
