<svg xmlns="http://www.w3.org/2000/svg" width="24" height="24" version="1">
 <path style="opacity:0.2" d="M 10.176046,2.5004488 C 8.333513,2.4970693 6.3081382,2.8409291 4.3454572,3.406904 3.78606,3.5682164 2.9285463,3.8550154 2.8868115,3.8947431 c -0.021741,0.020695 0.013028,0.035004 0.1313103,0.054058 0.3052002,0.049166 0.7539601,0.1878025 1.0904989,0.3368706 1.2261527,0.5431158 2.3731726,1.8310081 3.1486508,3.3612674 0.1426433,0.2814807 0.2522649,0.5244503 0.2522649,0.5590765 0,0.01005 -0.08902,0.030674 -0.2350013,0.054469 -1.4820969,0.2415736 -2.8882073,1.1744168 -4.1766181,2.5733464 -0.5397763,0.586075 -1.1122102,1.35789 -1.5603641,2.103804 -0.3028164,0.50401 -0.5751332,1.031079 -0.5326982,1.031079 0.00286,0 0.1464963,-0.03441 0.3191809,-0.07647 1.8416306,-0.448575 3.5234647,-0.533689 4.7053433,-0.238124 0.4981409,0.124574 0.9217619,0.208822 1.2206038,0.431337 0.1282336,0.09548 0.2595537,0.216089 0.2595537,0.238371 C 6.922711,14.905171 6.2795643,15.538401 5.8690195,16.149443 4.8899373,18.009898 4.4814096,19.579961 4.5003925,21.5 5.2582996,20.918516 6.4558594,19.931538 7.3733979,19.594708 8.4545023,19.209622 9.4174853,19.08343 10.750451,19.014574 c 0.370755,-0.01916 1.749763,-0.01422 1.764346,0.0191 3.789673,-0.02816 5.531315,-1.503069 7.181326,-3.327247 1.144149,-1.127877 1.741736,-2.730521 2.122301,-4.254617 0.11921,-0.490921 0.169756,-0.831008 0.179759,-1.209638 0.01184,-0.4483732 -0.0328,-0.7015711 -0.17436,-0.9889941 -0.06736,-0.1367715 -0.09557,-0.1773971 -0.185403,-0.2668391 -0.06991,-0.069607 -0.140324,-0.1234217 -0.206969,-0.1582015 -0.109202,-0.056988 -0.284697,-0.108034 -0.37141,-0.108034 -0.05009,0 -0.0563,-0.0046 -0.08445,-0.062525 l -0.03036,-0.062525 0.05094,-0.109322 c 0.254692,-0.5464518 0.425564,-1.2304781 0.500665,-2.1005886 0.02069,-0.2397342 0.03409,-0.6467406 0.02321,-0.7047288 -0.01132,-0.060336 -0.0039,-0.058111 -0.291669,-0.087649 -0.686102,-0.070424 -1.517498,-0.052816 -2.391419,0.050633 L 18.582664,5.6734828 18.451133,5.5572009 C 17.753154,4.9401246 16.9013,4.2272769 16.027349,3.8050388 14.754909,3.1902765 13.384281,2.7610128 11.80971,2.5878515 11.286979,2.5303648 10.740085,2.5014841 10.176046,2.5004488 Z"/>
 <path style="fill:#5856c2" d="M 10.176046,2.0004599 C 8.333513,1.9970804 6.3081382,2.3409402 4.3454572,2.9069152 3.78606,3.0682276 2.9285463,3.3550266 2.8868115,3.3947543 c -0.021741,0.020695 0.013028,0.035004 0.1313103,0.054058 0.3052002,0.049166 0.7539601,0.1878026 1.0904989,0.3368706 1.2261527,0.5431159 2.3731726,1.8310081 3.1486508,3.3612675 0.1426433,0.2814807 0.2522649,0.5244503 0.2522649,0.5590765 0,0.01005 -0.08902,0.030674 -0.2350013,0.054469 C 5.7924382,8.0020698 4.3863278,8.934913 3.097917,10.333842 c -0.5397763,0.586076 -1.1122102,1.35789 -1.5603641,2.103804 -0.3028164,0.504011 -0.5751332,1.031079 -0.5326982,1.031079 0.00286,0 0.1464963,-0.03441 0.3191809,-0.07647 1.8416306,-0.448575 3.5234647,-0.533689 4.7053433,-0.238124 0.4981409,0.124575 0.9217619,0.208823 1.2206038,0.431337 0.1282336,0.09548 0.2595537,0.216089 0.2595537,0.238371 -0.5868254,0.581344 -1.2299721,1.214574 -1.6405169,1.825617 -0.9790822,1.860454 -1.3876099,3.430518 -1.368627,5.350556 0.7579071,-0.581484 1.9554669,-1.568462 2.8730054,-1.905292 1.0811044,-0.385086 2.0440874,-0.511277 3.3770531,-0.580134 0.370755,-0.01915 1.749763,-0.01422 1.764346,0.0191 3.789673,-0.02815 5.531315,-1.503069 7.181326,-3.327247 1.144149,-1.127877 1.741736,-2.730521 2.122301,-4.254617 0.11921,-0.490921 0.169756,-0.831008 0.179759,-1.2096381 0.01184,-0.448373 -0.0328,-0.7015708 -0.17436,-0.9889939 C 21.75646,8.6164176 21.728252,8.575792 21.63842,8.48635 21.568507,8.4167425 21.498096,8.3629282 21.431451,8.3281485 21.322249,8.2711603 21.146754,8.2201144 21.060041,8.2201144 c -0.05009,0 -0.0563,-0.0046 -0.08445,-0.062525 l -0.03036,-0.062525 0.05094,-0.1093221 c 0.254692,-0.5464518 0.425564,-1.230478 0.500665,-2.1005886 0.02069,-0.2397341 0.03409,-0.6467405 0.02321,-0.7047287 -0.01132,-0.060336 -0.0039,-0.058111 -0.291669,-0.08765 C 20.542275,5.022351 19.710879,5.039959 18.836958,5.143408 L 18.582664,5.1734939 18.451133,5.057212 C 17.753154,4.4401358 16.9013,3.7272881 16.027349,3.3050499 14.754909,2.6902876 13.384281,2.261024 11.80971,2.0878626 11.286979,2.030376 10.740085,2.0014952 10.176046,2.0004599 Z"/>
 <path style="opacity:0.1;fill:#8b9cbe" d="M 10.176047,2.0004352 C 8.3335145,1.9970557 6.3078037,2.34069 4.3451225,2.906665 3.7857253,3.0679774 2.9288821,3.3552077 2.8871473,3.3949354 c -0.021741,0.020694 0.012574,0.034655 0.1308564,0.05371 0.1832909,0.029527 0.4140501,0.094925 0.6454935,0.1718712 0.2317746,-0.075028 0.4750646,-0.1542969 0.6816253,-0.2138624 1.9626812,-0.565975 3.988392,-0.9096093 5.8309245,-0.9062298 0.56404,0.00103 1.111022,0.030402 1.633753,0.087889 1.574571,0.1731614 2.945238,0.6020075 4.217679,1.2167698 0.873951,0.4222381 1.725795,1.1348376 2.423774,1.7519139 l 0.131833,0.1162084 0.253901,-0.030274 c 0.87392,-0.1034492 1.705446,-0.1202273 2.391548,-0.049804 0.205106,0.021055 0.257503,0.026869 0.276361,0.049804 0.009,-0.1928412 0.02277,-0.4248095 0.01563,-0.4628801 -0.01132,-0.060336 -0.0042,-0.057374 -0.291986,-0.086912 -0.686102,-0.070424 -1.517628,-0.053646 -2.391548,0.049804 L 18.583086,5.1732164 18.451253,5.057008 C 17.753274,4.4399314 16.90143,3.7273318 16.027479,3.3050936 14.755038,2.6903313 13.384371,2.2614853 11.8098,2.0883239 11.287069,2.0308372 10.740087,2.0014705 10.176047,2.0004352 Z M 7.3050174,7.7532363 c -0.016875,0.00295 -0.01143,0.00375 -0.030274,0.00683 -1.4820969,0.2415736 -2.8882538,1.1752328 -4.1766645,2.5741617 -0.5397764,0.586076 -1.1123581,1.357554 -1.560512,2.103468 -0.3028165,0.504011 -0.57562624,1.031227 -0.5331913,1.031227 0.00243,0 0.134232,-0.03213 0.2714783,-0.06543 0.083208,-0.151862 0.1615387,-0.299079 0.261713,-0.46581 0.4481539,-0.745914 1.0207356,-1.517393 1.560512,-2.103468 1.2884107,-1.3989291 2.6945676,-2.3325883 4.1766645,-2.5741619 0.1459817,-0.023794 0.2343698,-0.043659 0.2343698,-0.05371 0,-0.028039 -0.1009958,-0.2420011 -0.204097,-0.4531149 z M 21.099632,8.2278352 c -0.03392,0.086873 -0.0659,0.1770931 -0.103514,0.2578068 l -0.05078,0.1093725 0.03027,0.062499 c 0.02815,0.057925 0.03389,0.062499 0.08398,0.062499 0.08671,0 0.26286,0.051408 0.372062,0.108396 0.06664,0.034779 0.137114,0.088592 0.207026,0.1581995 0.08983,0.089442 0.11818,0.1298241 0.185543,0.2665956 0.09529,0.1934676 0.143289,0.3759701 0.163082,0.6083849 0.002,-0.039469 0.0097,-0.079028 0.01074,-0.1191379 C 22.009893,9.2940769 21.965784,9.0406371 21.824224,8.753214 21.75686,8.6164426 21.728513,8.5760605 21.638681,8.4866185 21.568769,8.417011 21.498299,8.3631987 21.431654,8.328419 21.334771,8.2778596 21.192582,8.2375435 21.099631,8.2278352 Z M 7.2513076,14.086103 c -0.5101926,0.508295 -1.0310145,1.041336 -1.3818051,1.563442 -0.9790822,1.860454 -1.3880929,3.430428 -1.36911,5.350466 0.00295,-0.0023 0.00682,-0.0056 0.00976,-0.0078 0.053827,-1.694563 0.4684071,-3.149702 1.3593447,-4.842665 0.4105448,-0.611042 1.0527865,-1.244787 1.6396119,-1.826131 0,-0.02219 -0.1300541,-0.141999 -0.2578068,-0.2373 z"/>
 <path style="fill:#8b9cbe" d="m 14.774577,7.9934655 c -0.08647,-0.00552 -0.172406,-0.00337 -0.257807,0.00684 -1.422976,0.1701077 -2.147699,1.2044691 -2.443305,2.7294305 -0.11581,1.002519 -0.0094,2.198159 0.272455,3.030206 0.02642,0.07795 0.03745,0.130514 0.0293,0.138669 -0.0082,0.0082 -0.05742,0.0052 -0.12988,-0.0068 -0.04405,-0.0073 -0.155143,-0.0077 -0.24511,-0.01074 v 1.119115 h 7.999822 l 0.607408,-0.82713 0.07324,-0.44042 c 0.477377,-1.481578 0.44823,-3.534554 0.04492,-4.0809633 -0.02405,-0.032584 -0.06894,-0.072244 -0.09961,-0.087889 -0.09857,-0.050287 -0.212332,-0.1083922 -0.341018,-0.1176479 -0.205661,-0.014792 -0.44944,0.095184 -0.730247,0.5612442 -0.858637,1.763842 -1.073885,2.233236 -1.510708,2.92181 -0.105883,0.114869 -0.164876,0.129937 -0.266596,0.06543 C 17.508104,12.823812 17.340472,12.22519 17.267687,10.812052 17.172411,9.4838701 16.711452,8.6910748 15.676651,8.1596675 15.390146,8.012537 15.048698,8.0109792 14.774575,7.9934655 Z"/>
 <path style="fill:#17191e" d="M 19.503906 10.111328 C 18.828628 11.499581 18.54585 12.068781 18.226562 12.607422 A 0.98155624 1.5120853 9.5616123 0 0 18.816406 12.998047 A 0.98155624 1.5120853 9.5616123 0 0 19.982422 11.558594 A 0.98155624 1.5120853 9.5616123 0 0 19.503906 10.111328 z"/>
 <path style="opacity:0.2" d="m 10.221789,4.5000668 -0.02337,0.07314 c -0.04226,0.1322986 -0.117774,0.4589968 -0.142047,0.6144893 -0.04152,0.2660011 -0.0561,0.4642507 -0.0561,0.763497 0,0.5181099 0.05159,0.8642982 0.197044,1.3223145 C 10.255796,7.457641 10.274416,7.5 10.296956,7.5 c 0.0077,0 0.07611,-0.050733 0.151976,-0.1127345 0.734068,-0.5999011 1.650626,-1.1230529 2.483841,-1.4177233 0.03404,-0.01204 0.0643,-0.028549 0.06722,-0.036699 0.0085,-0.02379 -0.239031,-0.3040017 -0.401818,-0.4548028 C 12.304032,5.205558 12.031973,5.025994 11.650653,4.8526149 11.512988,4.7900213 11.336996,4.7182549 11.25956,4.693156 10.970368,4.5994206 10.620721,4.5283081 10.357416,4.5096666 Z"/>
 <path style="fill:#f3a993" d="m 10.221789,4.0000779 -0.02337,0.07314 c -0.04226,0.1322986 -0.117774,0.4589968 -0.142047,0.6144893 -0.04152,0.2660011 -0.0561,0.4642506 -0.0561,0.763497 0,0.5181099 0.05159,0.8642982 0.197044,1.3223144 0.05848,0.1841334 0.0771,0.2264925 0.09964,0.2264925 0.0077,0 0.07611,-0.050733 0.151976,-0.1127345 0.734068,-0.5999011 1.650626,-1.1230529 2.483841,-1.4177234 0.03404,-0.01204 0.0643,-0.028549 0.06722,-0.036699 0.0085,-0.02379 -0.239036,-0.304002 -0.401823,-0.4548031 C 12.304032,4.7055692 12.031973,4.5260052 11.650653,4.3526261 11.512988,4.2900325 11.336996,4.2182661 11.25956,4.1931671 10.970368,4.0994317 10.620721,4.0283193 10.357416,4.0096777 Z"/>
 <path style="fill:#fcb9a4" d="m 20.434227,14.800925 c -0.197362,0.0014 -0.428709,0.09294 -0.578488,0.231604 -0.09836,0.09107 -0.143916,0.16938 -0.145834,0.250757 -0.0041,0.174439 0.204143,0.239237 0.51012,0.158714 0.210719,-0.05546 0.413403,-0.196936 0.483429,-0.337458 0.08784,-0.176271 0.0016,-0.289578 -0.23026,-0.302685 -0.01282,-7.5e-4 -0.02581,-10e-4 -0.03897,-9.5e-4 z"/>
 <path style="fill:#fcb9a4" d="m 20.452148,14.808954 c 0.23173,0.0018 0.32903,0.118846 0.244319,0.293834 -0.05996,0.123865 -0.271918,0.272293 -0.475812,0.333211 -0.09015,0.02693 -0.269256,0.0399 -0.329704,0.02387 -0.112232,-0.02976 -0.175374,-0.09423 -0.175374,-0.179073 0,-0.118762 0.154375,-0.282782 0.354037,-0.37615 0.155822,-0.07287 0.25123,-0.09673 0.382534,-0.09569 z"/>
 <path style="fill:#fcb9a4" d="m 12.216277,15.255199 c 0.200109,0.0011 0.295346,0.06354 0.451671,0.2963 0.255954,0.381105 0.521088,0.634852 0.867444,0.830205 0.2753,0.155275 0.59061,0.247461 0.898628,0.262732 0.102698,0.0051 0.205283,0.01922 0.264788,0.03645 0.08432,0.02441 0.108711,0.03966 0.184526,0.115472 0.07397,0.07397 0.09185,0.101967 0.116789,0.182718 0.0162,0.05245 0.02946,0.119308 0.02946,0.148548 0,0.02924 -0.01325,0.09607 -0.02946,0.148519 -0.02492,0.0807 -0.04284,0.108768 -0.116542,0.182472 -0.0737,0.0737 -0.101775,0.09164 -0.182472,0.116569 -0.09066,0.028 -0.245462,0.03625 -0.380041,0.02025 -0.331548,-0.03942 -0.450581,-0.06423 -0.701497,-0.146136 -0.475747,-0.155304 -0.893243,-0.413514 -1.264392,-0.781977 -0.249239,-0.247436 -0.535504,-0.632178 -0.588627,-0.791129 -0.0758,-0.226819 0.02652,-0.468617 0.243523,-0.575447 0.08284,-0.04078 0.106675,-0.04606 0.206202,-0.04554 z"/>
 <path style="fill:#fcb9a4" d="m 12.419574,18.44394 c 0.0069,5.5e-4 0.01552,10e-4 0.02148,0.0016 0.06687,0.0063 0.148296,0.01208 0.204667,0.01477 -0.0343,-0.002 -0.07767,-0.0055 -0.130928,-0.01005 -0.02595,-0.0023 -0.05912,-0.0043 -0.09522,-0.0063 z"/>
 <path style="opacity:0.2" d="m 11.013722,14.108353 c -0.536618,0.202107 -0.873874,0.602876 -0.98264,1.167673 -0.034115,0.177151 -0.041384,0.544048 -0.01432,0.723219 0.153421,1.015888 0.851631,1.985745 1.87854,2.630357 0.512986,0.345993 0.824401,0.438916 1.397584,0.630955 0.564043,0.161338 1.163158,0.239033 1.830336,0.239485 0.654304,4.41e-4 1.170488,-0.06344 1.740651,-0.215413 1.261389,-0.336219 2.322075,-1.082403 2.938193,-2.066995 0.445517,-0.88069 0.935825,-1.632549 0.570026,-2.17278 -0.590828,-0.872567 -2.205201,-0.186644 -2.830527,0.07961 -0.564289,0.240986 -0.769091,0.3082 -1.064875,0.349427 -0.665922,0.09281 -1.027107,-0.0059 -2.276006,-0.621874 -0.972373,-0.465347 -2.148799,-1.110235 -3.186956,-0.743663 z"/>
 <path style="fill:#f3a993" d="m 11.013722,13.608364 c -0.536618,0.202107 -0.873874,0.602876 -0.98264,1.167673 -0.034115,0.177152 -0.041384,0.544048 -0.01432,0.723219 0.153421,1.015888 0.851631,1.985746 1.87854,2.630357 0.512986,0.345994 0.824401,0.438916 1.397584,0.630956 0.564043,0.161337 1.163158,0.239032 1.830336,0.239484 0.654304,4.41e-4 1.170488,-0.06344 1.740651,-0.215412 1.261389,-0.33622 2.322075,-1.082404 2.938193,-2.066996 0.445517,-0.88069 0.935825,-1.632549 0.570026,-2.17278 -0.590828,-0.872567 -2.205201,-0.186644 -2.830527,0.07961 -0.564289,0.240987 -0.769091,0.3082 -1.064875,0.349427 -0.665922,0.09281 -1.027107,-0.0059 -2.276006,-0.621874 -0.972373,-0.465347 -2.148799,-1.110235 -3.186956,-0.743663 z"/>
 <path style="opacity:0.1" d="m 21.024438,11.576393 c -0.02161,0.709236 -0.128745,1.488941 -0.343743,2.156202 l -0.07324,0.44042 -0.255854,0.347649 c -0.605606,-0.831427 -2.191693,-0.159957 -2.810484,0.103513 -0.56429,0.240987 -0.768645,0.308378 -1.064429,0.349602 -0.154842,0.02156 -0.291821,0.02957 -0.428702,0.02637 h -0.05273 c -0.434295,-0.02188 -0.872585,-0.193526 -1.794881,-0.648423 -0.584863,-0.279897 -1.24331,-0.620827 -1.901326,-0.771467 -0.155208,-0.52661 -0.240413,-1.167058 -0.258783,-1.805624 -0.02814,0.796226 0.0626,1.639969 0.258783,2.305613 0.658016,0.15064 1.316463,0.49157 1.901326,0.771467 0.922296,0.454897 1.360586,0.626539 1.794881,0.648423 h 0.05273 c 0.136881,0.0032 0.27386,-0.0048 0.428702,-0.02636 0.295784,-0.04123 0.500139,-0.108616 1.064429,-0.349602 0.618791,-0.26347 2.204878,-0.93494 2.810484,-0.103513 l 0.255854,-0.347649 0.07324,-0.44042 c 0.267462,-0.830091 0.371005,-1.832829 0.343743,-2.656191 z"/>
 <path style="opacity:0.2" d="m 19.553532,17.526724 c -0.230043,-0.07078 -0.348037,-0.160524 -0.456616,-0.347276 -0.254939,-0.438492 -0.06944,-1.14729 0.461663,-1.763999 0.197687,-0.22955 0.382184,-0.387418 0.633659,-0.542199 0.574818,-0.353801 1.150424,-0.41664 1.494891,-0.163197 0.132215,0.09728 0.197749,0.191803 0.252745,0.364552 0.04478,0.14067 0.04785,0.165583 0.04125,0.334996 -0.01301,0.334067 -0.112196,0.612661 -0.346357,0.972839 -0.287856,0.442765 -0.736472,0.835399 -1.166837,1.021228 -0.32321,0.139559 -0.697197,0.189889 -0.914398,0.123056 z"/>
 <path style="fill:#4f4f4f" d="m 19.553532,17.026736 c -0.230043,-0.07079 -0.348037,-0.160525 -0.456616,-0.347277 -0.254939,-0.438492 -0.06944,-1.14729 0.461663,-1.763998 0.197687,-0.229551 0.382184,-0.387419 0.633659,-0.5422 0.574818,-0.3538 1.150424,-0.41664 1.494891,-0.163197 0.132215,0.09728 0.197749,0.191803 0.252745,0.364552 0.04478,0.140671 0.04785,0.165584 0.04125,0.334996 -0.01301,0.334067 -0.112196,0.612661 -0.346357,0.972839 -0.287856,0.442765 -0.736472,0.835399 -1.166837,1.021228 -0.32321,0.139559 -0.697197,0.189889 -0.914398,0.123057 z"/>
 <ellipse style="fill:#17191e" cx="15.323" cy="10.657" rx=".985" ry="1.51" transform="matrix(0.99818724,0.06018496,-0.12149517,0.99259202,0,0)"/>
 <path style="opacity:0.5;fill:none;stroke:#000000;stroke-width:0.99997771;stroke-linecap:round" d="m 12.500074,15.999995 c 0.695014,0.999978 1.499967,1.499966 2.999933,1.499966"/>
 <path style="opacity:0.1;fill:#8b9cbe" d="m 10.221944,4.0000779 -0.02343,0.07324 c -0.04227,0.1322986 -0.118304,0.4587518 -0.142577,0.6142443 -0.04153,0.2660011 -0.05566,0.4644086 -0.05566,0.7636549 0,0.093373 0.0042,0.1758936 0.0078,0.2597598 0.007,-0.1762431 0.01897,-0.338411 0.04785,-0.5234259 0.02427,-0.1554925 0.10031,-0.4819457 0.142574,-0.6142443 l 0.02344,-0.07324 0.13574,0.00976 c 0.263305,0.018639 0.613132,0.089855 0.902323,0.1835899 0.07744,0.025099 0.252951,0.096582 0.390616,0.1591759 0.38132,0.1733791 0.653106,0.3525041 0.947245,0.6249861 0.02747,0.025449 0.05918,0.061804 0.08984,0.092771 0.08148,-0.032449 0.16494,-0.072231 0.245111,-0.1005838 0.03404,-0.01204 0.06446,-0.028959 0.06738,-0.037109 0.0085,-0.023784 -0.239542,-0.3042615 -0.402328,-0.4550627 C 12.303729,4.7051122 12.031943,4.5259872 11.650623,4.3526081 11.512958,4.2900145 11.337444,4.2185311 11.260007,4.1934321 10.970816,4.0996967 10.620989,4.0284838 10.357684,4.0098422 Z"/>
</svg>
