<svg xmlns="http://www.w3.org/2000/svg" width="24" height="24" version="1">
 <circle style="opacity:0.2" cx="12" cy="12.5" r="10"/>
 <circle style="fill:#623bb2" cx="12" cy="12" r="10"/>
 <path style="opacity:0.2" d="M 10.353516,3.1748047 7.6240235,13.667969 C 6.8377445,9.3092465 6.1600065,6.9937535 5.236328,5.147461 A 10,10 0 0 0 3.1962891,7.763672 c 0.6520709,1.67472 1.2799271,3.927103 2.1220704,7.481445 0.9064905,3.86915 2.374441,5.265754 5.7304685,5.927734 l 2.404297,0.572266 2.728515,-10.49414 c 0.81104,4.495996 1.508146,6.818327 2.477539,8.693359 a 10,10 0 0 0 2.045899,-2.536133 C 20.018094,15.71196 19.370408,13.402004 18.487304,9.6748045 17.580819,5.80565 16.112867,4.4090503 12.756836,3.7470703 Z m 2.294922,2.7929688 c 1.701487,0.4542385 2.350431,1.2827635 2.875,2.977539 H 14.370117 L 11.158203,18.952148 c -1.701487,-0.45424 -2.350427,-1.282764 -2.875,-2.977538 h 1.1533205 z"/>
 <path style="fill:#8b9cbe" d="M 10.353516,2.6748047 7.6240235,13.167969 C 6.8377445,8.8092465 6.1600065,6.4937535 5.236328,4.6474609 A 10,10 0 0 0 3.196289,7.263672 c 0.652071,1.67472 1.2799272,3.927103 2.1220705,7.481445 0.9064905,3.86915 2.374441,5.265754 5.7304685,5.927734 l 2.404297,0.572266 2.728515,-10.49414 c 0.81104,4.495996 1.508146,6.818327 2.477539,8.693359 a 10,10 0 0 0 2.045899,-2.536133 C 20.018094,15.21196 19.370408,12.902004 18.487304,9.1748045 17.580819,5.30565 16.112867,3.9090503 12.756836,3.2470703 Z m 2.294922,2.7929688 c 1.701487,0.4542385 2.350431,1.2827635 2.875,2.977539 H 14.370117 L 11.158203,18.452148 c -1.701487,-0.45424 -2.350427,-1.282764 -2.875,-2.977538 h 1.1533205 z"/>
 <path style="opacity:0.1;fill:#8b9cbe" d="M 12,2 A 10,10 0 0 0 2,12 10,10 0 0 0 2.0107422,12.291016 10,10 0 0 1 12,2.5 10,10 0 0 1 21.989258,12.208985 10,10 0 0 0 22,12 10,10 0 0 0 12,2 Z"/>
</svg>
