<svg xmlns="http://www.w3.org/2000/svg" width="24" height="24" version="1.1">
 <path style="opacity:.2;fill-rule:evenodd" d="m21.302791 2.5065443c-0.173835-0.027632-0.330009 0.070461-0.423897 0.1821473-0.09389 0.1117421-0.15903 0.2501763-0.215761 0.4246421-0.09811 0.3019027-0.458426 1.4225294-1.757699 2.530113-1.299273 1.1076401-3.539821 2.7566332-7.423087 2.8565492-2.3612842 0.02763-3.9897624-1.1869596-4.9313394-3.0501567-0.234985-0.4649846-0.5773226-1.3315106-0.5773226-0.7801501v0.8524896l-0.01199 4.4120452 0.023975 0.05808s0.211538 0.4699031-0.011985 1.1029981c-0.223526 0.633149-1.1050506 1.557086-3.0749647 2.148347l-0.240826 0.07157 0.045767 0.253602c0.1092655 0.614361 0.5448043 1.24403 1.1877813 1.888674 0.6429768 0.64459 1.5038659 1.29675 2.5063275 1.886353 2.0049226 1.179205 4.5728549 2.111052 7.0678439 2.1546 2.494987 0.04366 4.936105-0.828837 6.551321-3.245329 1.615216-2.416437 2.402949-7.0282291 1.757698-13.034727h-0.0011c-0.020512-0.1649083-0.056883-0.3057187-0.122035-0.4291214-0.065153-0.1233474-0.174871-0.250729-0.348707-0.27825z"/>
 <path style="fill-rule:evenodd;fill:#645b44" d="m21.302791 2.0065444c-0.173835-0.027632-0.330009 0.070461-0.423897 0.1821473-0.09389 0.1117421-0.15903 0.2501763-0.215761 0.4246421-0.09811 0.3019027-0.458426 1.4225293-1.757699 2.5301129-1.299273 1.1076401-3.539821 2.7566332-7.423087 2.8565492-2.3612842 0.02763-3.9897624-1.1869596-4.9313394-3.0501568-0.234985-0.4649845-0.5773226-1.3315106-0.5773226-0.78015v0.8524896l-0.01199 4.4120452 0.023975 0.05808s0.211538 0.469903-0.011985 1.1029981c-0.223526 0.633149-1.1050506 1.557086-3.0749647 2.148347l-0.240826 0.07157 0.045767 0.253602c0.1092655 0.614361 0.5448043 1.244029 1.1877813 1.888674 0.6429768 0.64459 1.5038659 1.29675 2.5063275 1.886353 2.0049226 1.179205 4.5728549 2.111052 7.0678439 2.1546 2.494987 0.04366 4.936105-0.828837 6.551321-3.245329 1.615216-2.416437 2.402949-7.0282291 1.757698-13.034727h-0.0011c-0.020512-0.1649082-0.056883-0.3057187-0.122035-0.4291213-0.065153-0.1233474-0.174871-0.250729-0.348707-0.27825z"/>
 <path style="opacity:.1;fill-rule:evenodd;fill:#8b9cbe" d="m21.302736 2.0068314c-0.173836-0.0276316-0.329941 0.0699538-0.423829 0.1816406-0.093886 0.1117421-0.159089 0.2503389-0.21582 0.4248047-0.098112 0.3019027-0.458539 1.4226899-1.757812 2.5302735-1.299273 1.1076401-3.539586 2.7565297-7.422853 2.8564457-2.3612837 0.02763-3.9900634-1.1866076-4.9316409-3.0498048-0.2349845-0.4649845-0.5771481-1.3316341-0.5771481-0.7802735v0.5c0-0.5513605 0.3421636 0.315289 0.5771481 0.7802736 0.9415775 1.8631971 2.5703572 3.0774347 4.9316409 3.0498047 3.883267-0.099916 6.12358-1.7488056 7.422853-2.8564457 1.299273-1.1075836 1.6597-2.2283708 1.757812-2.5302735 0.05673-0.1744658 0.121934-0.3130626 0.21582-0.4248047 0.09389-0.1116867 0.249993-0.2092722 0.423829-0.1816406v0.00391c0.173835 0.027521 0.28348 0.1549729 0.348632 0.2783203 0.06515 0.1234027 0.101558 0.2647822 0.122071 0.4296876h0.001c0.147086 1.3691928 0.216343 2.6612109 0.22168 3.8759765 0.0149-1.3564436-0.0543-2.8178527-0.22168-4.3759766h-0.001c-0.020513-0.164909-0.056919-0.3062886-0.122071-0.4296913-0.065152-0.1233474-0.174797-0.2507993-0.348632-0.2783203v-0.00391zm-15.329103 3.0156253-0.01172 4.4121102 0.001 0.0029 0.010745-3.9150397v-0.5zm0.080078 5.2392583c-0.015595 0.105052-0.03824 0.215486-0.080078 0.333984-0.223526 0.63315-1.1052816 1.557177-3.0751957 2.148438l-0.2402344 0.07129 0.045898 0.25293c0.012856 0.07229 0.031038 0.145064 0.052734 0.217773l0.1416015-0.04199c1.9699141-0.59126 2.8516697-1.515288 3.0751957-2.148437 0.12263-0.347332 0.112572-0.635538 0.080078-0.833984z"/>
 <path style="opacity:0.3;fill-rule:evenodd" d="m 7.4716033,15.103654 c 1.0106075,0 1.9319503,0.05368 2.7676447,0 1.388265,-0.09081 2.608562,-0.250739 3.225514,-0.753468 -0.260965,-0.355694 -0.333752,-0.745873 -0.333752,-0.745873 0,0 0.784995,0.339601 1.192766,0.895057 0.406603,0.553906 -0.14312,0.895156 -0.249531,1.603845 C 13.83735,15.480788 13.689275,15.247341 13.629412,15 c -0.430546,0.628124 -1.172135,1.078625 -2.169578,1.103215 -1.06171,0.02598 -2.4133059,-0.411719 -3.9882302,-0.998561 z"/>
 <path style="opacity:.2;fill-rule:evenodd" d="m7.999444 7.499997c-0.742168 0-1.488067 0.24534-2.055935 0.7501199-0.56787 0.5047794-0.943509 1.27404-0.943509 2.2504201 0 0.976379 0.375639 1.744559 0.943509 2.249339 0.567868 0.50478 1.313767 0.75012 2.055935 0.75012 0.74217 0 1.488068-0.24534 2.055937-0.75012s0.944619-1.27296 0.944619-2.249339c0-0.9763801-0.37675-1.7456407-0.944619-2.2504201-0.567869-0.5047799-1.313767-0.7501199-2.055937-0.7501199z"/>
 <path style="opacity:.2;fill-rule:evenodd" d="m12.999444 7.499997c-0.742168 0-1.488067 0.24534-2.055935 0.7501199-0.56787 0.5047794-0.943509 1.27404-0.943509 2.2504201 0 0.976379 0.375639 1.744559 0.943509 2.249339 0.567868 0.50478 1.313767 0.75012 2.055935 0.75012 0.74217 0 1.488068-0.24534 2.055937-0.75012s0.944619-1.27296 0.944619-2.249339c0-0.9763801-0.37675-1.7456407-0.944619-2.2504201-0.567869-0.5047799-1.313767-0.7501199-2.055937-0.7501199z"/>
 <path style="fill-rule:evenodd;fill:#8b9cbe" d="m7.999444 6.999997c-0.742168 0-1.488067 0.24534-2.055935 0.7501199-0.56787 0.5047794-0.943509 1.27404-0.943509 2.2504201 0 0.976379 0.375639 1.744559 0.943509 2.249339 0.567868 0.50478 1.313767 0.75012 2.055935 0.75012 0.74217 0 1.488068-0.24534 2.055937-0.75012s0.944619-1.27296 0.944619-2.249339c0-0.9763801-0.37675-1.7456407-0.944619-2.2504201-0.567869-0.5047799-1.313767-0.7501199-2.055937-0.7501199z"/>
 <path style="fill-rule:evenodd;fill:#17191e" d="m8.5 8.9999969c-0.3675555 0-0.7391325 0.1215-1.025391 0.37596-0.286257 0.254462-0.474609 0.6463801-0.474609 1.1240421 0 0.47766 0.188352 0.869579 0.474609 1.124039 0.2862585 0.254459 0.6578355 0.375959 1.025391 0.375959 0.367554 0 0.739134-0.1215 1.025391-0.375958 0.286257-0.254461 0.474609-0.64638 0.474609-1.12404 0-0.477662-0.188352-0.8695801-0.474609-1.1240421-0.286257-0.25446-0.657837-0.37596-1.025391-0.37596z"/>
 <path style="opacity:0.1;fill-rule:evenodd" d="m3.2369843 9.4999969c-0.1331171 0-0.2636583 0.0087-0.3905505 0.03033-0.338379 0.05716-0.6516766 0.194134-0.9217829 0.401918-1.080425 0.8311931-1.3649656 2.7149521-0.030447 4.6875521 1.3345198 1.97266 3.100144 2.278794 4.1805691 1.447602 1.0804251-0.831194 1.3660161-2.714952 0.031495-4.687553-0.875777-1.294534-1.9374647-1.8710421-2.869284-1.8797341z"/>
 <path style="fill-rule:evenodd;fill:#17191e" d="m3.2369843 8.9999969c-0.1331171 0-0.2636583 0.0087-0.3905505 0.03033-0.338379 0.05716-0.6516766 0.194134-0.9217829 0.401918-1.080425 0.8311931-1.3649656 2.7149521-0.030447 4.6875521 1.3345198 1.97266 3.100144 2.278794 4.1805691 1.447602 1.0804251-0.831194 1.3660161-2.714952 0.031495-4.687553-0.875777-1.2945341-1.9374647-1.8710421-2.869284-1.8797341z"/>
 <path style="fill-rule:evenodd;fill:#8b9cbe" d="m12.999444 6.999997c-0.742168 0-1.488067 0.24534-2.055935 0.7501199-0.56787 0.5047794-0.943509 1.27404-0.943509 2.2504201 0 0.976379 0.375639 1.744559 0.943509 2.249339 0.567868 0.50478 1.313767 0.75012 2.055935 0.75012 0.74217 0 1.488068-0.24534 2.055937-0.75012s0.944619-1.27296 0.944619-2.249339c0-0.9763801-0.37675-1.7456407-0.944619-2.2504201-0.567869-0.5047799-1.313767-0.7501199-2.055937-0.7501199z"/>
 <path style="fill-rule:evenodd;fill:#17191e" d="m13.5 8.9999969c-0.367555 0-0.739132 0.1215-1.025391 0.37596-0.286257 0.254462-0.474609 0.6463801-0.474609 1.1240421 0 0.47766 0.188352 0.86958 0.474609 1.12404 0.286259 0.254458 0.657836 0.375958 1.025391 0.375958 0.367554 0 0.739134-0.1215 1.025391-0.375958 0.286257-0.25446 0.474609-0.64638 0.474609-1.12404 0-0.477662-0.188352-0.8695801-0.474609-1.1240421-0.286257-0.25446-0.657837-0.37596-1.025391-0.37596z"/>
 <path style="opacity:.1;fill-rule:evenodd;fill:#8b9cbe" d="m3.2363281 8.9999969c-0.1331171 0-0.2637328 0.00962-0.390625 0.03125-0.338379 0.05716-0.6517687 0.192607-0.921875 0.400391-0.6200939 0.477051-0.96220639 1.3066341-0.9023437 2.2949211 0.066584-0.764856 0.3899584-1.400733 0.9023437-1.7949211 0.2701063-0.207784 0.583496-0.343231 0.921875-0.400391 0.1268922-0.02163 0.2575079-0.03125 0.390625-0.03125 0.9318193 0.00869 1.9933636 0.5843721 2.8691407 1.8789061 0.5688918 0.840899 0.8290451 1.660579 0.8730468 2.394532 0.0742079-0.848018-0.1713023-1.857259-0.8730468-2.894532-0.8757771-1.2945341-1.9373214-1.8702141-2.8691407-1.8789061z"/>
 <path style="opacity:0.2" d="M 13.507812,15.738281 13,16.015625 c 0,0 2.121233,1.873831 4.025391,2.796875 -0.02435,0.139789 -0.03805,0.27831 -0.02539,0.447266 l 0.349609,-0.06055 c 0,0 0.922918,0.275401 1.65625,0.492187 -0.0352,0.61119 0.321195,1.286798 1.111329,1.576172 C 21.610985,21.814668 23,22.5 23,22.5 c -0.712563,-2.315192 -0.965962,-4.153812 -2.828125,-3.990234 -0.207724,0.01825 -0.381604,0.07911 -0.535156,0.162109 L 18,17.833984 V 17.5 l -0.242188,0.158203 c -0.04234,0.02318 -0.07586,0.06284 -0.115234,0.0918 -1.761958,-1.066137 -4.134766,-2.011719 -4.134766,-2.011719 z"/>
 <path style="fill:#ff9a0c" d="m 17.983888,18.700218 0.463197,-0.922437 C 16.72392,16.517113 13.506994,15.237859 13.506994,15.237859 l -0.506879,0.278643 c 0,0 2.920753,2.590518 4.983773,3.183716 z"/>
 <path style="fill:#8a8a8a" d="m 18.000002,17.000017 -0.241537,0.158843 c -0.223717,0.122455 -0.405219,0.330586 -0.552438,0.571296 -0.168458,0.395707 -0.234981,0.643159 -0.206025,1.029775 l 0.35,-0.05993 c 0,0 1.827461,0.524269 2.692561,0.8 l 0.101194,-0.194944 0.356245,-0.689526 -2.5,-1.280719 z"/>
 <path style="fill:#17191e" d="m 23,22 c -0.712563,-2.315192 -0.965295,-4.153448 -2.827458,-3.98987 -1.500644,0.13182 -1.605703,2.189906 -0.055,2.757827 C 21.61134,21.315047 22.999998,22 22.999998,22 Z"/>
</svg>
