<svg width="24" height="24" version="1.1" xmlns="http://www.w3.org/2000/svg">
 <g transform="translate(1,1)">
  <path d="m11 18.5c-10 0-10-5-10-5s0-10 10-10 10 10 10 10 0 5-10 5z" style="opacity:.2"/>
  <path d="m11 18c-10 0-10-5-10-5s0-10 10-10 10 10 10 10 0 5-10 5z" style="fill:#4f4f4f"/>
  <path d="m4.9941406 9.5c-2 0-3 4 0 4h5s-2.5-4-5-4zm12 0c-2.5 0-5 4-5 4h5c3 0 2-4 0-4z" style="opacity:.2"/>
  <path d="m4.9933909 13h5.0066091s-2.5066091-4-5.0066091-4c-2 0-3 4 0 4z" style="fill:#f0b530"/>
  <path d="m16.993391 13h-4.993391s2.493391-4 4.993391-4c2 0 3 4 0 4z" style="fill:#f0b530"/>
  <path d="M 5,9 C 3.835856,9 3.0159905,10.35355 3.1210938,11.486328 3.2511523,10.490875 3.9986667,9.5 4.9941406,9.5 c 2,0 3.93625,2.476 4.65625,3.5 H 10 C 10,13 7.5,9 5,9 Z m 12,0 c -2.5,0 -5,4 -5,4 h 0.337891 c 0.72,-1.024 2.65625,-3.5 4.65625,-3.5 1.01309,0 1.766959,1.026145 1.876953,2.039062 C 19.007686,10.395985 18.18243,9 17,9 Z" style="fill:#8b9cbe;opacity:.2"/>
  <path d="M 11,3 C 1,3 1,13 1,13 1,13 1.00661,13.08168 1.015625,13.166016 1.1008619,11.582011 1.9716495,3.5 11,3.5 c 9.028351,0 9.899138,8.082011 9.984375,9.666016 C 20.993395,13.081683 21,13 21,13 21,13 21,3 11,3 Z" style="fill:#8b9cbe;opacity:.2"/>
 </g>
</svg>
