<svg xmlns="http://www.w3.org/2000/svg" width="24" height="24" version="1">
 <path style="fill:#8034a9" d="M 22,12 A 10,10 0 0 1 12,22 10,10 0 0 1 2,12 10,10 0 0 1 12,2 10,10 0 0 1 22,12 Z"/>
 <path style="opacity:0.1;fill:#8b9cbe" d="M 12,2 C 6.4605,2 2.001,6.46 2.001,12 c 0,0.08386 -0.002,0.16664 0,0.25 C 2.1331,6.827 6.5445,2.5 12,2.5 c 5.4555,0 9.867,4.3268 9.999,9.75 0.002,-0.08335 0,-0.16614 0,-0.25 C 21.999,6.46 17.54,2 12,2 Z"/>
 <path style="opacity:0.2" d="M 21.99,12.209 A 10,10 0 0 1 12,22 10,10 0 0 1 2.011,12.291 10,10 0 0 0 2,12.5 a 10,10 0 0 0 10,10 10,10 0 0 0 10,-10 10,10 0 0 0 -0.0105,-0.291 z"/>
 <path style="opacity:0.2" d="M 16.601562 6.5195312 C 16.306562 6.5057833 15.473672 6.9815314 14.169922 7.8789062 C 13.430202 7.6581043 12.708915 7.5370687 12 7.5429688 C 11.371291 7.5480938 10.464665 7.6528273 9.6777344 7.8789062 C 8.3743594 6.9815314 7.7082344 6.5076144 7.4121094 6.5214844 C 7.3133644 6.5259944 7.265625 6.5410156 7.265625 6.5410156 C 6.770125 7.8136395 7.0838644 9.1665157 7.1777344 9.4003906 C 6.5956094 10.046268 6 11.371608 6 12.380859 C 6 15.924109 7.4793751 17.317406 9.5 17.550781 C 9.2402251 17.781818 9.098315 18.689947 9.015625 19.287109 C 8.497187 19.523809 7.1183926 19.930478 6.3066406 18.517578 C 6.3066406 18.517578 5.8255094 17.629693 4.9121094 17.564453 C 4.9121094 17.564453 4.0252758 17.553743 4.8515625 18.126953 C 4.8515625 18.126953 5.4492936 18.211023 5.8632812 19.279297 C 5.8632812 19.279297 6.4550141 20.951178 8.9863281 20.392578 L 8.9863281 21.53125 A 10 10 0 0 0 12 22 A 10 10 0 0 0 13.996094 21.789062 L 13.996094 21.304688 C 13.998394 20.87455 14.003906 20.19765 14.003906 19.15625 C 14.003906 18.293988 14.023526 17.828469 13.697266 17.542969 C 15.723943 17.314206 18 15.933134 18 12.380859 C 18 11.371606 17.422993 10.046392 16.839844 9.4003906 C 16.933136 9.1665167 17.246649 7.8116374 16.75 6.5390625 C 16.749999 6.5390625 16.70215 6.5241312 16.603516 6.5195312 L 16.601562 6.5195312 z"/>
 <path style="fill:#8b9cbe" d="M 16.601562 6.0195312 C 16.306562 6.0057833 15.473672 6.4815314 14.169922 7.3789062 C 13.430202 7.1581043 12.708915 7.0370687 12 7.0429688 C 11.371291 7.0480938 10.464665 7.1528273 9.6777344 7.3789062 C 8.3743594 6.4815314 7.7082344 6.0076144 7.4121094 6.0214844 C 7.3133644 6.0259944 7.265625 6.0410156 7.265625 6.0410156 C 6.770125 7.3136395 7.0838644 8.6665157 7.1777344 8.9003906 C 6.5956094 9.5462677 6 10.871608 6 11.880859 C 6 15.424109 7.4793751 16.817406 9.5 17.050781 C 9.2402251 17.281818 9.098315 18.189947 9.015625 18.787109 C 8.497187 19.023809 7.1183926 19.430478 6.3066406 18.017578 C 6.3066406 18.017578 5.8255094 17.129693 4.9121094 17.064453 C 4.9121094 17.064453 4.0252757 17.053743 4.8515625 17.626953 C 4.8515625 17.626953 5.4492935 17.711023 5.8632812 18.779297 C 5.8632812 18.779297 6.4550141 20.451178 8.9863281 19.892578 L 8.9863281 21.53125 A 10 10 0 0 0 12 22 A 10 10 0 0 0 13.996094 21.789062 L 13.996094 20.804688 C 13.998394 20.37455 14.003906 19.69765 14.003906 18.65625 C 14.003906 17.793988 14.02353 17.328469 13.697266 17.042969 C 15.723931 16.814206 18 15.433134 18 11.880859 C 18 10.871606 17.422993 9.5463917 16.839844 8.9003906 C 16.933136 8.6665167 17.246649 7.3116374 16.75 6.0390625 C 16.749999 6.0390625 16.70215 6.0241312 16.603516 6.0195312 L 16.601562 6.0195312 z"/>
</svg>
