<svg xmlns="http://www.w3.org/2000/svg" width="24" height="24" version="1.1">
 <g transform="translate(0,-308.29999)">
  <path style="opacity:0.2;fill-rule:evenodd" d="m 22.460751,321.66353 -1.175068,-3.36354 -2.328817,-7.22836 c -0.119786,-0.36217 -0.641514,-0.36217 -0.761358,0 l -2.328873,7.22836 H 8.1333823 l -2.3289304,-7.22836 c -0.1197865,-0.36217 -0.6415145,-0.36217 -0.761358,0 l -2.3288161,7.22836 -1.1750109,3.36354 c -0.1072224,0.32398 0.010234,0.6789 0.2907964,0.87914 l 10.1699167,7.25732 10.169974,-7.25732 c 0.280563,-0.20024 0.397962,-0.55516 0.290797,-0.87914"/>
  <path style="fill:#fc6d26;fill-rule:evenodd" d="M 22.460751,321.16353 21.285683,317.3 19,314.29999 c -0.119787,-0.36218 -0.641515,-0.36218 -0.761358,0 L 15.866635,317.3 H 8.1333823 l -2.6333819,-3.00001 c -0.1197865,-0.36218 -0.6415145,-0.36218 -0.761358,0 L 2.7142778,317.3 1.5392669,321.16353 c -0.1072224,0.32398 0.010234,0.6789 0.2907964,0.87914 l 10.1699167,7.25732 10.169974,-7.25732 c 0.280563,-0.20024 0.397962,-0.55516 0.290797,-0.87914"/>
  <path style="fill:#d9381d;fill-rule:evenodd" d="m 12.000003,329.29999 v 0 l 3.866654,-12.00001 H 8.1333478 Z"/>
  <path style="fill:#fca326;fill-rule:evenodd" d="m 2.7143003,317.3 v 0 l -1.1750675,3.86355 c -0.1071656,0.32398 0.010234,0.6789 0.2908531,0.87908 l 10.1699171,7.25732 z"/>
  <path style="fill:#d9381d;fill-rule:evenodd" d="m 2.7143003,317.3 h 5.4190475 l -2.3288734,-6.72834 c -0.1198435,-0.36223 -0.6415715,-0.36223 -0.761358,0 z"/>
  <path style="fill:#fca326;fill-rule:evenodd" d="m 21.2857,317.3 v 0 l 1.175068,3.86355 c 0.107165,0.32398 -0.01024,0.6789 -0.290854,0.87908 l -10.169916,7.25732 z"/>
  <path style="fill:#d9381d;fill-rule:evenodd" d="m 21.2857,317.3 h -5.419048 l 2.328873,-6.72834 c 0.119843,-0.36223 0.641571,-0.36223 0.761358,0 z"/>
  <path style="fill:#8b9cbe;fill-rule:evenodd;opacity:0.2" transform="translate(0,308.29999)" d="M 5.4238281 2 C 5.2634424 2 5.102862 2.0903694 5.0429688 2.2714844 L 2.7148438 9 L 1.5390625 12.863281 C 1.4847799 13.0273 1.4880613 13.199734 1.5410156 13.355469 L 2.7148438 9.5 L 5.0429688 2.7714844 C 5.102862 2.5904044 5.2634424 2.5 5.4238281 2.5 C 5.5842139 2.5 5.7447655 2.5903744 5.8046875 2.7714844 L 8.1328125 9.5 L 11.791016 20.851562 L 12 21 L 8.1328125 9 L 5.8046875 2.2714844 C 5.7447658 2.0903694 5.5842139 2 5.4238281 2 z M 12 21 L 12.208984 20.851562 L 15.867188 9.5 L 18.195312 2.7714844 C 18.315156 2.4092544 18.837244 2.4092544 18.957031 2.7714844 L 21.285156 9.5 L 22.458984 13.355469 C 22.511931 13.199735 22.515191 13.0273 22.460938 12.863281 L 21.285156 9 L 18.957031 2.2714844 C 18.837244 1.9092544 18.315155 1.9092544 18.195312 2.2714844 L 15.867188 9 L 12 21 z"/>
  <path style="fill:#8b9cbe;fill-rule:evenodd;opacity:0.2" transform="translate(0,308.29999)" d="M 2.7148438 9 L 1.5390625 12.863281 C 1.4848086 13.0273 1.4880756 13.199727 1.5410156 13.355469 L 2.7148438 9.5 L 11.136719 20.382812 L 12 21 L 2.7148438 9 z M 12 21 L 12.863281 20.382812 L 21.285156 9.5 L 22.458984 13.355469 C 22.511925 13.199727 22.515191 13.0273 22.460938 12.863281 L 21.285156 9 L 12 21 z"/>
  <path style="opacity:0.2;fill:#8b9cbe" transform="translate(0,308.29999)" d="M 2.7148438 9 L 2.5625 9.5 L 21.4375 9.5 L 21.285156 9 L 15.867188 9 L 8.1328125 9 L 2.7148438 9 z"/>
 </g>
</svg>
