<svg xmlns="http://www.w3.org/2000/svg" width="24" height="24" version="1.1">
 <path style="opacity:0.2" d="m 2,7.21875 c -10e-7,0.00449 0.007,7.111991 0,10.917969 C 2,18.889944 2.67125,19.5 3.5,19.5 H 7 V 11.894531 L 3.0722656,9.0605469 C 2.9567936,8.9772658 2.8648613,8.8853059 2.7695312,8.7949219 2.2912182,8.3414207 2.0524487,7.8109922 2.0117188,7.2753906 2.0096988,7.2636116 2,7.2186087 2,7.21875 Z m 20,0 c 0,-1.413e-4 -0.0097,0.044862 -0.01172,0.056641 -0.04073,0.5356016 -0.279499,1.0660301 -0.757812,1.5195313 -0.09533,0.090385 -0.187263,0.1823439 -0.302735,0.265625 L 17,11.894531 V 19.5 h 3.5 c 0.82875,0 1.5,-0.610056 1.5,-1.363281 -0.007,-3.805978 1e-6,-10.9134771 0,-10.917969 z"/>
 <path style="fill:#afafaf" d="m 2,6.71875 c 0,-1.413e-4 0.0097,0.044862 0.01172,0.056641 0.04073,0.5356016 0.279499,1.0660301 0.757812,1.5195313 0.09533,0.090384 0.187263,0.1823439 0.302735,0.265625 L 7,11.394531 V 19 H 3.5 C 2.67125,19 2,18.389944 2,17.636719 2.007,13.830741 1.999999,6.7232419 2,6.71875 Z"/>
 <path style="fill:#5f5f5f" d="M 22 6.71875 C 22 6.7186087 21.99033 6.7636124 21.988281 6.7753906 C 21.947552 7.3109922 21.708782 7.8414207 21.230469 8.2949219 C 21.135139 8.3853064 21.043206 8.4772658 20.927734 8.5605469 L 17 11.394531 L 17 19 L 20.5 19 C 21.32875 19 22 18.389944 22 17.636719 C 21.993001 13.830741 22.000001 6.7232419 22 6.71875 z"/>
 <path style="opacity:0.2" d="M 4.4804688,4.5 C 2.3938351,4.5155584 0.88493523,7.4829939 3.0722656,9.0605469 L 7,11.894531 12,15.5 17,11.894531 20.927734,9.0605469 C 23.115065,7.4829939 21.60608,4.515868 19.519531,4.5 19.03802,4.4963381 18.526253,4.6496212 18.021484,5.0136719 L 17,5.7480469 12,9.3398438 7,5.7480469 5.9785156,5.0136719 C 5.4737469,4.6496212 4.9619996,4.4964096 4.4804688,4.5 Z"/>
 <path style="fill:#8f8f8f" d="M 7 5.2480469 L 7 11.394531 L 12 15 L 17 11.394531 L 17 5.2480469 L 12 8.8398438 L 7 5.2480469 z"/>
 <path style="fill:#727272" d="M 4.4804688 4 C 2.3938351 4.0155584 0.88493521 6.9829939 3.0722656 8.5605469 L 7 11.394531 L 7 5.2480469 L 5.9785156 4.5136719 C 5.4737469 4.1496212 4.9619996 3.9964096 4.4804688 4 z"/>
 <path style="fill:#7d7d7d" d="M 19.519531 4 C 19.03802 3.9963381 18.526253 4.1496212 18.021484 4.5136719 L 17 5.2480469 L 17 11.394531 L 20.927734 8.5605469 C 23.115065 6.9829939 21.60608 4.015868 19.519531 4 z"/>
 <path style="opacity:0.2;fill:#8b9cbe" d="M 4.4804688 4 C 3.0304501 4.0108117 1.8631532 5.446805 2.0175781 6.8515625 C 2.1463357 5.6254934 3.2029598 4.5095254 4.4804688 4.5 C 4.9619996 4.4964096 5.4737469 4.6496212 5.9785156 5.0136719 L 7 5.7480469 L 12 9.3398438 L 17 5.7480469 L 18.021484 5.0136719 C 18.526253 4.6496212 19.03802 4.4963381 19.519531 4.5 C 20.796988 4.5097149 21.853648 5.6255549 21.982422 6.8515625 C 22.136827 5.4468762 20.969491 4.0110268 19.519531 4 C 19.03802 3.9963381 18.526253 4.1496212 18.021484 4.5136719 L 17 5.2480469 L 12 8.8398438 L 7 5.2480469 L 5.9785156 4.5136719 C 5.4737469 4.1496212 4.9619996 3.9964096 4.4804688 4 z"/>
</svg>
