<svg xmlns="http://www.w3.org/2000/svg" width="24" height="24" version="1.1">
 <circle style="opacity:0.2" cx="12" cy="12.5" r="10"/>
 <circle style="fill:#666f7f" cx="12" cy="12" r="10"/>
 <path style="opacity:0.1;fill:#8b9cbe" d="M 12,2 A 10,10 0 0 0 2,12 10,10 0 0 0 2.01075,12.291 10,10 0 0 1 12,2.5 10,10 0 0 1 21.9895,12.209 10,10 0 0 0 22,12 10,10 0 0 0 12,2 Z"/>
 <path style="opacity:0.2" d="m 9.234375,5.5253906 c -0.00782,-8.5e-5 -0.015657,0.00124 -0.023437,0.00195 C 9.0676115,5.5387287 8.9706241,5.6780592 9.0097656,5.8164062 9.8284844,8.7102913 11.927801,14.523399 11.96875,14.636719 A 3,2.5 0 0 0 11,14.5 3,2.5 0 0 0 8,17 a 3,2.5 0 0 0 3,2.5 3,2.5 0 0 0 3,-2.5 3,2.5 0 0 0 -0.203125,-0.90625 3,2.5 0 0 0 -0.002,-0.0039 c -0.108926,-0.300633 -1.438901,-3.973071 -2.212891,-6.5664065 0.571114,0.2396365 1.678533,0.3710774 2.242188,0.6230465 0.724544,0.323894 1.291065,0.728908 1.746093,2.234375 0.07613,0.246283 0.437998,0.197128 0.445313,-0.06055 6e-4,-0.02904 -0.01005,-0.0417 -0.0098,-0.07031 0,0 0,-0.002 0,-0.002 C 16.021529,10.608187 15.6771,9.7871443 14.96875,9.1679688 14.247718,8.5376568 13.313845,8.2495123 12.398438,7.8007812 11.549055,7.3844163 10.069723,6.4883565 9.4101562,5.6171875 9.3683863,5.5616645 9.303829,5.5272666 9.234375,5.5253906 Z"/>
 <path style="fill:#48cc41" d="m 9.233634,5.02549 c -0.00782,-8.5e-5 -0.01563,2.325e-4 -0.02341,9.5e-4 -0.143326,0.011385 -0.240456,0.150984 -0.2013145,0.289331 0.826708,2.922124 2.9828845,8.885929 2.9828845,8.885929 0.0094,0.02855 0.02436,0.05497 0.04401,0.07772 l 1.436704,1.718196 c 0.163068,0.186433 0.464591,0.01568 0.388583,-0.220057 0,0 -1.472205,-4.053419 -2.278163,-6.753867 0.571114,0.2396365 1.676715,0.371637 2.24037,0.6236065 0.724544,0.3238935 1.291323,0.7287065 1.746351,2.2341735 0.07613,0.246283 0.438387,0.196815 0.445702,-0.06086 6e-4,-0.02904 -0.01058,-0.04162 -0.0103,-0.07023 h 9.5e-4 c -2.5e-4,-8e-4 -6.5e-4,-10e-4 -9.5e-4,-0.0018 0.01567,-1.63986 -0.32825,-2.4614545 -1.0366,-3.08063 C 14.247419,8.03764 13.31452,7.749562 12.399112,7.300831 11.54973,6.884466 10.069231,5.987504 9.4096645,5.116335 9.3678945,5.060812 9.303088,5.027366 9.233634,5.02549 Z"/>
 <ellipse style="fill:#48cc41" cx="11" cy="16.5" rx="3" ry="2.5"/>
 <path style="opacity:0.2;fill:#8b9cbe" d="M 9.234375 5.0253906 C 9.226555 5.0253056 9.2187175 5.0266262 9.2109375 5.0273438 C 9.0676115 5.0387287 8.9706241 5.1780592 9.0097656 5.3164062 C 9.0317293 5.3940402 9.0719607 5.5120807 9.0957031 5.59375 C 9.1301574 5.5654622 9.1623056 5.5312078 9.2109375 5.5273438 C 9.2187175 5.5266337 9.226555 5.5253056 9.234375 5.5253906 C 9.303829 5.5272666 9.3683863 5.5616645 9.4101562 5.6171875 C 10.069723 6.4883565 11.549054 7.3844163 12.398438 7.8007812 C 13.313845 8.2495123 14.247718 8.5376568 14.96875 9.1679688 C 15.618806 9.7361893 15.946356 10.505593 15.986328 11.890625 C 15.995667 11.866538 16.014779 11.850111 16.015625 11.820312 C 16.016225 11.791272 16.005579 11.77861 16.005859 11.75 L 16.005859 11.748047 C 16.021529 10.108187 15.6771 9.2871442 14.96875 8.6679688 C 14.247718 8.0376568 13.313845 7.7495123 12.398438 7.3007812 C 11.549054 6.8844163 10.069723 5.9883565 9.4101562 5.1171875 C 9.3683863 5.0616645 9.303829 5.0272666 9.234375 5.0253906 z M 11.582031 9.5234375 C 12.356021 12.116773 13.685996 15.789211 13.794922 16.089844 A 3 2.5 0 0 1 13.796875 16.09375 A 3 2.5 0 0 1 13.982422 16.742188 A 3 2.5 0 0 0 14 16.5 A 3 2.5 0 0 0 13.796875 15.59375 A 3 2.5 0 0 0 13.794922 15.589844 C 13.693267 15.309278 12.542019 12.114291 11.757812 9.578125 C 11.701643 9.5590257 11.630997 9.5439833 11.582031 9.5234375 z M 11 14 A 3 2.5 0 0 0 8 16.5 A 3 2.5 0 0 0 8.0175781 16.757812 A 3 2.5 0 0 1 11 14.5 A 3 2.5 0 0 1 11.96875 14.636719 C 11.965424 14.627514 11.80409 14.169646 11.775391 14.089844 A 3 2.5 0 0 0 11 14 z"/>
</svg>
