<svg xmlns="http://www.w3.org/2000/svg" width="24" height="24" version="1">
 <rect style="opacity:0.2" width="20" height="20" x="2" y="2.5" rx="1" ry="1"/>
 <rect style="fill:#546e7a" width="20" height="20" x="2" y="2" rx="1" ry="1"/>
 <path style="opacity:0.2" d="m 11,6.5 v 4 H 8.5 l 3.5,4 3.5,-4 H 13 v -4 z m -5,7 v 4 h 2 8 2 v -4 h -2 v 2 H 8 v -2 z"/>
 <path style="fill:#8b9cbe" d="m 11,6 v 4 H 8.5 l 3.5,4 3.5,-4 H 13 V 6 Z m -5,7 v 4 h 2 8 2 v -4 h -2 v 2 H 8 v -2 z"/>
 <path style="opacity:0.1;fill:#8b9cbe" d="M 3,2 C 2.446,2 2,2.446 2,3 v 0.5 c 0,-0.554 0.446,-1 1,-1 h 18 c 0.554,0 1,0.446 1,1 V 3 C 22,2.446 21.554,2 21,2 Z"/>
</svg>
