<svg xmlns="http://www.w3.org/2000/svg" width="24" height="24" version="1">
 <path style="fill:#4bae4f" d="m3.5 3c-0.831 0-1.5 0.669-1.5 1.5v12.5h20v-12.5c0-0.831-0.669-1.5-1.5-1.5z"/>
 <path style="fill:#8b9cbe;opacity:.2" d="m3.5 3c-0.831 0-1.5 0.669-1.5 1.5v0.5c0-0.831 0.669-1.5 1.5-1.5h17c0.831 0 1.5 0.669 1.5 1.5v-0.5c0-0.831-0.669-1.5-1.5-1.5z"/>
 <path style="fill:#cccccc" d="m2 17v2.5c0 0.831 0.669 1.5 1.5 1.5h17c0.831 0 1.5-0.669 1.5-1.5v-2.5z"/>
 <rect style="fill:#8b9cbe;opacity:.2" width="20" height=".5" x="2" y="17"/>
 <rect style="fill:#999999" width="6" height="1" x="14" y="18" rx=".462" ry=".464"/>
 <rect style="fill:#4bae4f" width="10" height="1" x="4" y="18" rx=".476" ry=".5"/>
 <circle style="opacity:.2" cx="14.5" cy="19" r="1.5"/>
 <circle style="fill:#8b9cbe" cx="14.5" cy="18.5" r="1.5"/>
 <path style="opacity:.2" d="m9.2957 6.5001c-0.2723-0.0054-0.3192 0.3448-0.2967 0.5976 2e-3 2.366-0.00351 4.7323 0.0025 7.0981 0.023945 0.28288 0.3278 0.3959 0.50056 0.22047 1.8459-1.211 4.5319-2.414 6.3759-3.6305 0.201-0.1675 0.124-0.5574-0.101-0.6385-1.846-1.2065-4.525-2.4196-6.3729-3.622-0.0345-0.0164-0.0716-0.0249-0.1087-0.025z"/>
 <path style="fill:#8b9cbe" d="m9.3016 6.0001c-0.2723-0.0054-0.3192 0.3448-0.2967 0.5976 2e-3 2.366-0.00351 4.7323 0.0025 7.0981 0.023945 0.28288 0.3278 0.3959 0.50056 0.22047 1.846-1.211 4.532-2.414 6.376-3.6305 0.201-0.1675 0.124-0.5574-0.101-0.6385-1.846-1.2065-4.525-2.4196-6.3729-3.622-0.0346-0.0164-0.0717-0.0249-0.1088-0.025z"/>
 <path style="opacity:.2" d="m2 19.5v0.5c0 0.831 0.669 1.5 1.5 1.5h17c0.831 0 1.5-0.669 1.5-1.5v-0.5c0 0.831-0.669 1.5-1.5 1.5h-17c-0.831 0-1.5-0.669-1.5-1.5z"/>
</svg>
