<svg xmlns="http://www.w3.org/2000/svg" width="24" height="24" version="1">
 <path style="opacity:0.2" d="m 6.5,2.5 h 12 c 0.828369,0 1.5,0.6758549 1.5,1.5094339 V 20.990566 C 20,21.824145 19.328369,22.5 18.5,22.5 H 6.5 C 5.671631,22.5 5.0000001,21.824145 5.0000001,20.990566 V 4.0094339 C 5.0000001,3.1758549 5.671631,2.5 6.5,2.5 Z m 0,0"/>
 <path style="fill:#b2bfd9" d="m 6.5,2 h 12 C 19.328369,2 20,2.6758549 20,3.509434 V 20.490566 C 20,21.324145 19.328369,22 18.5,22 H 6.5 C 5.671631,22 5.0000001,21.324145 5.0000001,20.490566 V 3.509434 C 5.0000001,2.6758549 5.671631,2 6.5,2 Z m 0,0"/>
 <path style="opacity:0.1" d="M 8.5,9.5 C 7.671317,9.5 7,10.171317 7,11 7,11.828683 7.671317,12.5 8.5,12.5 9.3286835,12.5 10,11.828683 10,11 10,10.171317 9.3286835,9.5 8.5,9.5 Z m 4,0 c -0.828684,0 -1.5,0.671317 -1.5,1.5 0,0.828683 0.671316,1.5 1.5,1.5 0.828683,0 1.5,-0.671317 1.5,-1.5 0,-0.828683 -0.671317,-1.5 -1.5,-1.5 z m 4,0 c -0.828683,0 -1.5,0.671317 -1.5,1.5 0,0.828683 0.671317,1.5 1.5,1.5 0.828683,0 1.5,-0.671317 1.5,-1.5 0,-0.828683 -0.671317,-1.5 -1.5,-1.5 z m -8,4 C 7.671317,13.5 7,14.171317 7,15 7,15.828683 7.671317,16.5 8.5,16.5 9.328683,16.5 10,15.828683 10,15 10,14.171317 9.328683,13.5 8.5,13.5 Z m 4,0 c -0.828683,0 -1.5,0.671317 -1.5,1.5 0,0.828683 0.671317,1.5 1.5,1.5 0.828683,0 1.5,-0.671317 1.5,-1.5 0,-0.828683 -0.671317,-1.5 -1.5,-1.5 z m 4,0 c -0.828683,0 -1.5,0.609375 -1.5,1.361328 v 4.277344 C 15,19.890625 15.671317,20.5 16.5,20.5 17.328683,20.5 18,19.890625 18,19.138672 V 14.861328 C 18,14.109375 17.328683,13.5 16.5,13.5 Z m -8,4 C 7.671317,17.5 7,18.171317 7,19 7,19.828683 7.671317,20.5 8.5,20.5 9.328683,20.5 10,19.828683 10,19 10,18.171317 9.328683,17.5 8.5,17.5 Z m 4,0 c -0.828683,0 -1.5,0.671317 -1.5,1.5 0,0.828683 0.671317,1.5 1.5,1.5 0.828683,0 1.5,-0.671317 1.5,-1.5 0,-0.828683 -0.671317,-1.5 -1.5,-1.5 z"/>
 <path style="fill:#3faf7f" d="m 7.732856,7 h 9.534288 C 17.672218,7 18,6.664551 18,6.25 V 4.75 C 18,4.3354491 17.672218,4 17.267144,4 H 7.732856 C 7.3277815,4 7,4.3354491 7,4.75 v 1.5 C 7,6.664551 7.3277815,7 7.732856,7 Z m 0,0"/>
 <circle style="fill:#4f4f4f" cx="12.5" cy="18.5" r="1.5"/>
 <path style="fill:#ff7800" d="m 16.5,13 c 0.828683,0 1.5,0.609159 1.5,1.361112 v 4.277777 C 18,19.390842 17.328683,20 16.5,20 15.671317,20 15.000001,19.390842 15.000001,18.638889 V 14.361112 C 15.000001,13.609159 15.671317,13 16.5,13 Z m 0,0"/>
 <path style="opacity:0.2;fill:#8b9cbe" d="M 6.5,2 C 5.671631,2 5,2.6761866 5,3.5097656 v 0.5 C 5,3.1761866 5.671631,2.5 6.5,2.5 h 12 c 0.828369,0 1.5,0.6761866 1.5,1.5097656 v -0.5 C 20,2.6761866 19.328369,2 18.5,2 Z"/>
 <path style="opacity:0.2" d="M 7.732422,4 C 7.3273475,4 7,4.3354491 7,4.75 v 0.5 C 7,4.8354491 7.3273475,4.5 7.732422,4.5 h 9.535156 C 17.672653,4.5 18,4.8354491 18,5.25 V 4.75 C 18,4.3354491 17.672653,4 17.267578,4 Z"/>
 <circle style="fill:#858585" cx="12.5" cy="10.5" r="1.5"/>
 <circle style="fill:#858585" cx="8.5" cy="10.5" r="1.5"/>
 <circle style="fill:#858585" cx="16.5" cy="10.5" r="1.5"/>
 <circle style="fill:#4f4f4f" cx="12.5" cy="14.5" r="1.5"/>
 <circle style="fill:#4f4f4f" cx="8.5" cy="14.5" r="1.5"/>
 <circle style="fill:#4f4f4f" cx="8.5" cy="18.5" r="1.5"/>
</svg>
