<svg xmlns="http://www.w3.org/2000/svg" width="24" height="24" version="1">
 <rect style="fill:#4f4f4f" width="20" height="14" x="2" y="5" rx="1" ry="1"/>
 <path style="opacity:.1;fill:#8b9cbe" d="m3 5c-0.554 0-1 0.446-1 1v0.5c0-0.554 0.446-1 1-1h18c0.554 0 1 0.446 1 1v-0.5c0-0.554-0.446-1-1-1z"/>
 <path style="opacity:.2" d="m2 18v0.5c0 0.554 0.446 1 1 1h18c0.554 0 1-0.446 1-1v-0.5c0 0.554-0.446 1-1 1h-18c-0.554 0-1-0.446-1-1z"/>
 <circle style="opacity:.2" cx="6" cy="9.5" r="1"/>
 <circle style="opacity:.2" cx="9" cy="9.5" r="1"/>
 <circle style="opacity:.2" cx="12" cy="9.5" r="1"/>
 <circle style="opacity:.2" cx="15" cy="9.5" r="1"/>
 <circle style="opacity:.2" cx="18" cy="9.5" r="1"/>
 <circle style="opacity:.2" cx="8" cy="13.5" r="1"/>
 <circle style="opacity:.2" cx="11" cy="13.5" r="1"/>
 <circle style="opacity:.2" cx="14" cy="13.5" r="1"/>
 <circle style="opacity:.2" cx="17" cy="13.5" r="1"/>
 <rect style="opacity:.2" width="14" height="2" x="5" y="16.5" rx=".5" ry=".5"/>
 <circle style="fill:#b2bfd9" cx="6" cy="9" r="1"/>
 <circle style="fill:#b2bfd9" cx="9" cy="9" r="1"/>
 <circle style="fill:#b2bfd9" cx="12" cy="9" r="1"/>
 <circle style="fill:#b2bfd9" cx="15" cy="9" r="1"/>
 <circle style="fill:#ff8834" cx="18" cy="9" r="1"/>
 <circle style="fill:#b2bfd9" cx="8" cy="13" r="1"/>
 <circle style="fill:#b2bfd9" cx="11" cy="13" r="1"/>
 <circle style="fill:#ff8834" cx="14" cy="13" r="1"/>
 <circle style="fill:#b2bfd9" cx="17" cy="13" r="1"/>
 <rect style="fill:#b2bfd9" width="14" height="2" x="5" y="16" rx=".5" ry=".5"/>
</svg>
