<svg xmlns="http://www.w3.org/2000/svg" width="24" height="24" version="1">
 <path style="opacity:0.2" d="M 3.5 2.5 C 2.669 2.5 2 3.169 2 4 L 2 21 C 2 21.831 2.669 22.5 3.5 22.5 L 10.5 22.5 C 11.331 22.5 12 21.831 12 21 C 12 21.831 12.669 22.5 13.5 22.5 L 20.5 22.5 C 21.331 22.5 22 21.831 22 21 L 22 4 C 22 3.169 21.331 2.5 20.5 2.5 L 13.5 2.5 C 12.669 2.5 12 3.169 12 4 C 12 3.169 11.331 2.5 10.5 2.5 L 3.5 2.5 z"/>
 <rect style="fill:#ffe658" width="10" height="20" x="12" y="2" rx="1.5" ry="1.5"/>
 <rect style="fill:#fff689" width="10" height="20" x="2" y="2" rx="1.5" ry="1.5"/>
 <path style="opacity:0.1" d="m 6.9433595,8.6084375 -0.435547,0.3896485 0.00976,1.03418 L 3.5,9.942422 3.9609375,10.565469 h 2.560547 l 0.00684,1.029296 h -1.404297 l -0.5966798,-0.285156 0.02539,2.93457 0.6533203,-0.336914 v -0.389648 h 1.33691 l 0.00781,0.998047 -2.9873046,-0.02441 0.8066407,0.818359 0.3457031,-0.298828 h 1.8388673 l 0.0049,0.688477 c 0,0.247275 0.2304685,0.493164 0.2304685,0.493164 l 0.6396485,-0.467774 c 0,0 -0.3066405,-0.192698 -0.3066405,-0.415039 L 7.115246,15.01078 h 3.285156 L 9.497082,14.094764 9.0625115,14.536171 7.101574,14.520546 7.075209,13.517616 h 0.9921875 l 0.272461,0.428711 0.474609,-0.481445 -0.1923825,-0.220704 v -1.467773 l 0.421875,-0.258789 -1.0107425,-0.545898 0.00586,0.623047 h -1.015625 l -0.02051,-1.029297 h 2.84668 L 8.9472775,9.6504285 8.511731,10.091835 6.988293,10.046915 Z M 16.693359,8.777383 c 0,0.975045 -0.0193,1.89086 -0.154297,2.745117 L 13.5,11.508828 l 0.331055,0.512695 h 2.612304 c -0.327495,1.461773 -1.081836,2.727872 -2.828124,3.772461 l 0.116211,0.711914 c 1.861276,-0.883417 3.050315,-2.261648 3.427733,-4.484375 h 3.307618 l -1.166993,-1.166992 -0.512695,0.678711 -1.558594,-0.0068 c 0.04034,-0.365246 0.06055,-0.751413 0.06055,-1.160156 l 0.580078,-0.131836 z m 1.522461,0.8447265 -0.330078,0.165039 c 0.345009,0.3182665 0.811261,0.5766105 0.827148,1.0595705 L 19.375,10.349649 C 19.108896,9.956979 18.652179,9.8018955 18.21582,9.6221095 Z M 5.2060545,11.919961 h 1.324219 l 0.0039,0.519531 h -1.328125 z m 1.826172,0 H 8.042969 l 0.0049,0.519531 H 7.045916 Z m 10.2900385,0.399414 c 0,2.258047 2.532227,4.203125 2.532227,4.203125 L 20.5,15.496133 c 0,0 -2.813477,-1.356179 -2.813477,-3.094727 z M 5.2060545,12.763711 h 1.331055 l 0.00295,0.428711 H 5.206075 Z m 1.848633,0 H 8.050781 l 0.0049,0.428711 H 7.066423 Z"/>
 <path style="fill:#c58c00" d="M 6.9433595,8.1083985 6.5078125,8.498047 6.5175775,9.5323165 3.5,9.442473 3.9609375,10.06552 h 2.560547 l 0.00684,1.029207 h -1.404006 l -0.5966798,-0.285156 0.025391,2.93457 0.6533203,-0.336914 v -0.389649 h 1.336618 l 0.00781,0.998047 -2.9873046,-0.02441 0.8066407,0.81836 0.3457031,-0.298829 h 1.8388673 l 0.0049,0.688477 c 0,0.247276 0.2304685,0.493164 0.2304685,0.493164 l 0.6396485,-0.467773 c 0,0 -0.3066405,-0.192698 -0.3066405,-0.415039 l -0.00781,-0.298829 h 3.285156 L 9.497082,13.594725 9.0625115,14.036132 7.101574,14.020507 7.075209,13.017577 h 0.9920995 l 0.272461,0.428711 0.4746095,-0.481445 -0.192383,-0.220704 v -1.467773 l 0.421875,-0.258789 -1.010742,-0.545899 0.00586,0.623047 H 7.023452 l -0.02051,-1.029207 h 2.84668 L 8.947278,9.1504795 8.5117315,9.591886 6.9882935,9.546966 Z M 5.206346,11.419922 h 1.3239275 l 0.0039,0.519531 H 5.20634 Z m 1.8258805,0 H 8.042881 l 0.0049,0.519531 H 7.045916 Z m -1.8258805,0.84375 h 1.3307635 l 0.00295,0.428711 h -1.333693 z m 1.8483415,0 h 0.996006 l 0.0049,0.428711 H 7.066423 Z"/>
 <path style="fill:#c58c00" d="m 16.693359,8.277344 c 0,0.975045 -0.0193,1.890859 -0.154297,2.745117 L 13.5,11.008789 l 0.331055,0.512696 h 2.612304 c -0.327495,1.461773 -1.081836,2.727871 -2.828124,3.772461 l 0.116211,0.711913 c 1.861276,-0.883416 3.050315,-2.261648 3.427733,-4.484374 h 3.307618 l -1.166993,-1.166993 -0.512695,0.678711 -1.558594,-0.0068 c 0.04034,-0.365246 0.06055,-0.751413 0.06055,-1.160156 L 17.86914,9.734376 Z m 1.522461,0.8447265 -0.330078,0.165039 C 18.230751,9.6053755 18.697003,9.86372 18.71289,10.34668 L 19.375,9.8496095 C 19.108896,9.45694 18.652179,9.3018565 18.21582,9.1220705 Z m -0.893555,2.6972655 c 0,2.258047 2.532227,4.203125 2.532227,4.203125 L 20.5,14.996094 c 0,0 -2.813477,-1.356179 -2.813477,-3.094727 z"/>
 <path style="opacity:0.2;fill:#8b9cbe" d="M 3.5 2 C 2.669 2 2 2.669 2 3.5 L 2 4 C 2 3.169 2.669 2.5 3.5 2.5 L 10.5 2.5 C 11.331 2.5 12 3.169 12 4 C 12 3.169 12.669 2.5 13.5 2.5 L 20.5 2.5 C 21.331 2.5 22 3.169 22 4 L 22 3.5 C 22 2.669 21.331 2 20.5 2 L 13.5 2 C 12.669 2 12 2.669 12 3.5 C 12 2.669 11.331 2 10.5 2 L 3.5 2 z"/>
</svg>
