<svg xmlns="http://www.w3.org/2000/svg" width="24" height="24" version="1.1">
 <rect style="opacity:0.2" width="20" height="20" x="-22.5" y="-22" rx="3" ry="3" transform="matrix(0,-1,-1,0,0,0)"/>
 <path style="fill:#b2bfd9" d="M 20.5,2 C 21.331,2 22,2.669 22,3.5 V 12 H 12 V 2 Z"/>
 <path style="fill:#2ec27e" d="M 3.5,22 C 2.669,22 2,21.331 2,20.5 V 12 h 10 v 10 z"/>
 <path style="fill:#3584e4" d="M 20.5,22 C 21.331,22 22,21.331 22,20.5 V 12 H 12 v 10 z"/>
 <path style="fill:#ff7800" d="M 3.5,2 C 2.669,2 2,2.669 2,3.5 V 12 H 12 V 2 Z"/>
 <path style="opacity:0.2" d="M 6.7226562,4.5 C 6.1102886,4.5 5.5187116,4.6793328 5,5.0117188 L 5.28125,5.9277344 C 5.7567351,5.6720549 6.1170834,5.5605469 6.4628906,5.5605469 c 0.5691423,0 1.2929688,0.5001778 1.2929688,1.0371093 C 7.7558594,7.2794738 6.6641983,8.036221 5,9.5703125 V 10.5 h 4 v -1 H 6.8105469 C 7.7903347,8.673295 8.9785156,7.641335 8.9785156,6.6015625 8.9785156,5.4083815 7.9329817,4.5 6.7226562,4.5 Z M 8,14.5 5,18.507812 V 19.5 h 3 v 1 h 1 v -1 h 1 V 18.507812 H 9 V 14.5 Z m 9.033203,0 c -1.138739,0 -1.896484,0.714022 -1.896484,1.78125 0,0.647058 0.282081,1.033827 0.664062,1.302734 C 15.28907,17.836085 15,18.2899 15,18.861328 15,19.844522 15.793233,20.5 16.982422,20.5 18.193233,20.5 19,19.777985 19,18.685547 c 0,-0.764705 -0.431647,-1.159419 -0.943359,-1.419922 0.504505,-0.302521 0.777343,-0.757107 0.777343,-1.294922 0,-0.882354 -0.726906,-1.470703 -1.800781,-1.470703 z m -0.0918,0.945312 c 0.42869,2e-6 0.710938,0.244102 0.710938,0.626954 0,0.382852 -0.236722,0.690529 -0.601563,0.796875 -0.474295,-0.20206 -0.830078,-0.415106 -0.830078,-0.808594 0,-0.372216 0.282897,-0.615235 0.720703,-0.615235 z M 8,16.267578 V 18.5 L 6.3554688,18.4922 Z m 8.679688,1.728516 c 0.653518,0.243833 1.238281,0.42679 1.238281,0.904297 0,0.35559 -0.331302,0.59961 -0.810547,0.599609 -0.557667,0 -0.923828,-0.315856 -0.923828,-0.783203 0,-0.335271 0.182404,-0.598787 0.496094,-0.720703 z"/>
 <path style="fill:#8b9cbe" d="M 6.7226562 4 C 6.1102886 4 5.5187116 4.1793328 5 4.5117188 L 5.28125 5.4277344 C 5.7567351 5.1720549 6.1170834 5.0605469 6.4628906 5.0605469 C 7.0320329 5.0605469 7.7558594 5.5607247 7.7558594 6.0976562 C 7.7558594 6.7794738 6.6641983 7.536221 5 9.0703125 L 5 10 L 9 10 L 9 9 L 6.8105469 9 C 7.7903347 8.173295 8.9785156 7.141335 8.9785156 6.1015625 C 8.9785156 4.9083815 7.9329817 4 6.7226562 4 z M 8 14 L 5 18.007812 L 5 19 L 8 19 L 8 20 L 9 20 L 9 19 L 10 19 L 10 18.007812 L 9 18.007812 L 9 14 L 8 14 z M 17.033203 14 C 15.894464 14 15.136719 14.714022 15.136719 15.78125 C 15.136719 16.428308 15.4188 16.815077 15.800781 17.083984 C 15.28907 17.336085 15 17.7899 15 18.361328 C 15 19.344522 15.793233 20 16.982422 20 C 18.193233 20 19 19.277985 19 18.185547 C 19 17.420842 18.568353 17.026128 18.056641 16.765625 C 18.561146 16.463104 18.833984 16.008518 18.833984 15.470703 C 18.833984 14.588349 18.107078 14 17.033203 14 z M 16.941406 14.945312 C 17.370096 14.945314 17.652344 15.189414 17.652344 15.572266 C 17.652344 15.955118 17.415622 16.262795 17.050781 16.369141 C 16.576486 16.167081 16.220703 15.954035 16.220703 15.560547 C 16.220703 15.188331 16.5036 14.945312 16.941406 14.945312 z M 8 15.767578 L 8 18 L 6.3554688 17.992188 L 8 15.767578 z M 16.679688 17.496094 C 17.333206 17.739927 17.917969 17.922884 17.917969 18.400391 C 17.917969 18.755981 17.586667 19.000001 17.107422 19 C 16.549755 19 16.183594 18.684144 16.183594 18.216797 C 16.183594 17.881526 16.365998 17.61801 16.679688 17.496094 z"/>
 <path style="opacity:0.2;fill:#8b9cbe" d="M 3.5,2 C 2.669,2 2,2.669 2,3.5 V 4 C 2,3.169 2.669,2.5 3.5,2.5 h 17 C 21.331,2.5 22,3.169 22,4 V 3.5 C 22,2.669 21.331,2 20.5,2 Z"/>
 <rect style="opacity:0.1" width="20" height=".5" x="2" y="12"/>
</svg>
