<svg xmlns="http://www.w3.org/2000/svg" width="24" height="24" version="1">
 <circle style="fill:#f44336" cx="12" cy="12" r="10"/>
 <path style="opacity:0.2;fill:#8b9cbe" d="m 12,2 a 10,10 0 0 0 -10,10 10,10 0 0 0 0.01075,0.291 10,10 0 0 1 9.989,-9.791 10,10 0 0 1 9.9895,9.709 10,10 0 0 0 0.0105,-0.209 10,10 0 0 0 -10,-10 z"/>
 <path style="opacity:0.2" d="M 21.9895,12.209 A 10,10 0 0 1 12,22 10,10 0 0 1 2.011,12.291 10,10 0 0 0 2,12.5 a 10,10 0 0 0 10,10 10,10 0 0 0 10,-10 10,10 0 0 0 -0.0105,-0.291 z"/>
 <path style="opacity:0.2" d="M 11.985352,4.4999035 A 1.0001,0.9966092 0 0 0 11,5.509669 v 5.979493 a 1.0001,0.9966092 0 1 0 2,0 V 5.509669 A 1.0001,0.9966092 0 0 0 11.985352,4.4999035 Z M 8.628906,6.50088 A 1.0001608,1.0010221 0 0 0 8.095703,6.677638 c -2.5474265,1.713274 -3.6839545,4.900139 -2.796875,7.84082 0.88708,2.940681 3.594961,4.965362 6.664063,4.981446 3.069101,0.01609 5.798997,-1.979911 6.716796,-4.911133 0.917799,-2.931223 -0.185483,-6.129262 -2.714843,-7.869141 a 1.0001608,1.0010221 0 1 0 -1.132813,1.6484375 c 1.812621,1.246854 2.597177,3.5214635 1.939453,5.6220705 -0.657724,2.100608 -2.598435,3.519339 -4.797851,3.507813 C 9.7742165,17.486426 7.849577,16.047719 7.213867,13.940333 6.5781575,11.832947 7.38537,9.566557 9.2109375,8.3387705 A 1.0001608,1.0010221 0 0 0 8.628906,6.50088 Z"/>
 <path style="fill:#8b9cbe" d="M 11.985352,4 A 1.0001,0.9966092 0 0 0 11,5.0097655 v 5.9794925 a 1.0001,0.9966092 0 1 0 2,0 V 5.0097655 A 1.0001,0.9966092 0 0 0 11.985352,4 Z M 8.628906,6.0009765 A 1.0001608,1.0010221 0 0 0 8.095703,6.1777345 C 5.5482765,7.8910085 4.4117485,11.077874 5.298828,14.018555 6.185908,16.959236 8.893789,18.983916 11.962891,19 c 3.069101,0.01609 5.798997,-1.979911 6.716796,-4.911133 0.917799,-2.931223 -0.185483,-6.1292615 -2.714843,-7.8691405 A 1.0001608,1.0010221 0 1 0 14.832031,7.868164 c 1.812621,1.246854 2.597177,3.521463 1.939453,5.622071 -0.657724,2.100607 -2.598435,3.519338 -4.797851,3.507812 C 9.7742165,16.986522 7.849577,15.547816 7.213867,13.44043 6.5781575,11.333043 7.38537,9.0666535 9.2109375,7.838867 A 1.0001608,1.0010221 0 0 0 8.628906,6.0009765 Z"/>
</svg>
