<svg xmlns="http://www.w3.org/2000/svg" width="24" height="24" version="1.1">
 <path style="opacity:0.2" d="m 7.0069043,17.50002 v 2.999985 C 7.0069043,21.5 8.0068992,21.5 8.0068992,21.5 h 0.9999949 1.9999899 1.99999 1.999989 1.99999 1.99999 0.999995 c 0,0 0.999995,0 0.999995,-0.999995 V 17.50002 h -1.99999 -1.99999 -1.99999 -1.999989 -1.99999 -1.9999899 z"/>
 <path style="fill:#38732b" d="m 21.006833,17.000023 h -1.99999 v 3.99998 h 0.999995 c 0,0 0.999995,0 0.999995,-0.999995 z"/>
 <rect style="fill:#ffff00" width="2" height="4" x="13.01" y="17"/>
 <rect style="fill:#38732b" width="2" height="4" x="11.01" y="17"/>
 <rect style="fill:#ffff00" width="2" height="4" x="9.01" y="17"/>
 <path style="fill:#38732b" d="m 7.0069043,17.000023 h 1.9999898 v 3.99998 H 8.0068992 c 0,0 -0.9999949,0 -0.9999949,-0.999995 z"/>
 <rect style="fill:#ffff00" width="2" height="4" x="17.01" y="17"/>
 <rect style="fill:#38732b" width="2" height="4" x="15.01" y="17"/>
 <rect style="opacity:0.2" width="16" height="20" x="-19.5" y="-23.01" rx="1" ry="1" transform="matrix(0,-1,-1,0,0,0)"/>
 <rect style="fill:#5bbd41" width="16" height="20" x="-19" y="-23.01" rx="1" ry="1" transform="matrix(0,-1,-1,0,0,0)"/>
 <path style="opacity:0.1;fill:none;stroke:#00090e;stroke-width:1.99998975;stroke-linecap:round;stroke-linejoin:round" d="M 8.0108842,6.4999522 H 15.010848 L 8.0108842,15.499905 h 6.9999638"/>
 <path style="fill:none;stroke:#17191e;stroke-width:1.99998975;stroke-linecap:round;stroke-linejoin:round" d="M 8.0108842,6.0000548 H 15.010848 L 8.0108842,15.000008 h 6.9999638"/>
 <path style="opacity:0.1;fill:none;stroke:#00090e;stroke-width:0.99999487;stroke-linecap:round;stroke-linejoin:round" d="m 17.510957,6.0000048 h 2.999984 l -2.999984,3.9999783 h 2.999984"/>
 <path style="fill:none;stroke:#17191e;stroke-width:0.99999487;stroke-linecap:round;stroke-linejoin:round" d="m 17.510957,5.5001074 h 2.999984 l -2.999984,3.9999789 h 2.999984"/>
 <path style="opacity:0.2;fill:#8b9cbe" d="m 4.0071622,3.0000947 c -0.5539972,0 -0.9999949,0.4459977 -0.9999949,0.9999949 V 4.500087 c 0,-0.5539971 0.4459977,-0.9999948 0.9999949,-0.9999948 H 22.00707 c 0.553997,0 0.999995,0.4459977 0.999995,0.9999948 V 4.0000896 c 0,-0.5539972 -0.445998,-0.9999949 -0.999995,-0.9999949 z"/>
 <path style="opacity:0.2;fill:none;stroke:#000000;stroke-width:1.99998975;stroke-linecap:round;stroke-linejoin:round" d="m 2.0071724,3.4998497 h 1.9999898 v 16.0000273 0 0"/>
 <path style="fill:none;stroke:#b2bfd9;stroke-width:1.99998975;stroke-linecap:round;stroke-linejoin:round" d="m 2.0071724,3.0000947 h 1.9999898 v 16.0000283 0 0"/>
</svg>
