<svg xmlns="http://www.w3.org/2000/svg" width="24" height="24" version="1">
 <rect style="fill:#b2bfd9" width="20" height="20" x="2" y="2" rx="1" ry="1"/>
 <path style="fill:#539710" d="M 3,2 C 2.656003,2 2.3536254,2.1725482 2.1738281,2.4355469 L 4,7 6,2 Z"/>
 <path style="fill:#e64040" transform="matrix(0.25921849,0,0,-0.37414965,8,27.544217)" d="M 2.3871817e-7,54.909093 7.715499,68.27273 l -15.4309982,-10e-7 z"/>
 <path style="fill:#539710" transform="matrix(0.25921849,0,0,-0.37414965,12,27.544217)" d="M 2.3871817e-7,54.909093 7.715499,68.27273 l -15.4309982,-10e-7 z"/>
 <path style="fill:#e64040" transform="matrix(0.25921849,0,0,-0.37414965,16,27.544217)" d="M 2.3871817e-7,54.909093 7.715499,68.27273 l -15.4309982,-10e-7 z"/>
 <path style="fill:#539710" d="m 18,2 2,5 1.826172,-4.5644531 C 21.646374,2.1725482 21.343997,2 21,2 Z"/>
 <path style="opacity:0.1;fill:#8b9cbe" d="M 3,2 C 2.446,2 2,2.446 2,3 v 0.5 c 0,-0.554 0.446,-1 1,-1 h 18 c 0.554,0 1,0.446 1,1 V 3 C 22,2.446 21.554,2 21,2 Z"/>
 <path style="opacity:0.2" d="m 3,22.5 c -0.554,0 -1,-0.446 -1,-1 V 21 c 0,0.554 0.446,1 1,1 h 18 c 0.554,0 1,-0.446 1,-1 v 0.5 c 0,0.554 -0.446,1 -1,1 z"/>
 <path style="fill:#17191e" d="M 9,14.411233 C 8.784431,14.604906 8.540918,14.752098 8.269461,14.852809 8.0006655,14.950936 7.709248,15 7.3952095,15 6.639388,15 6.051231,14.737896 5.6307385,14.213687 5.210246,13.686895 5,12.949645 5,12.001936 5,11.056811 5.2129075,10.320853 5.638723,9.794061 6.0645375,9.264687 6.6566865,9 7.4151695,9 7.665336,9 7.904857,9.03486 8.1337325,9.104583 8.362608,9.1717235 8.5834995,9.2750165 8.796407,9.414461 v 0.801807 C 8.580838,10.017431 8.3599465,9.87153 8.1337325,9.7785665 7.907518,9.683021 7.667997,9.6352485 7.4151695,9.6352485 c -0.5242845,0 -0.9181635,0.197547 -1.1816365,0.5926405 -0.2608115,0.392511 -0.3912175,0.98386 -0.3912175,1.774047 0,0.803099 0.126414,1.398323 0.3792415,1.785669 0.255489,0.384764 0.6467065,0.577146 1.1736525,0.577146 0.17831,0 0.3339985,-0.01937 0.467066,-0.0581 0.1357285,-0.04132 0.25815,-0.104583 0.3672655,-0.1898 V 12.663498 H 7.5 V 12.020502 H 9 Z"/>
 <path style="fill:#17191e" d="m 10,9 h 1.072252 l 2.110994,4.939049 V 9 H 14 v 6 H 12.927749 L 10.816754,10.060952 V 15 H 10 Z"/>
 <path style="fill:#17191e" d="M 15,12.626807 V 9 h 0.865672 v 3.989487 q 0,0.429698 0.02558,0.614981 0.02559,0.18134 0.08955,0.279895 0.136461,0.232588 0.392324,0.350854 0.260128,0.118265 0.626866,0.118265 0.371003,0 0.626866,-0.118265 0.255863,-0.118266 0.396588,-0.350854 0.06397,-0.09856 0.08955,-0.279895 0.02559,-0.18134 0.02559,-0.607096 V 9 h 0.861407 v 3.626807 q 0,0.90276 -0.123667,1.285151 -0.119403,0.378449 -0.417911,0.626807 -0.281449,0.232589 -0.643923,0.346912 Q 17.452026,15 17,15 16.552239,15 16.189766,14.885677 15.827292,14.771354 15.541578,14.538765 15.247335,14.294349 15.123667,13.908016 15,13.51774 15,12.626807 Z"/>
 <path style="fill:#e64040" d="M 4,17 2.1738281,21.564453 C 2.3536254,21.827452 2.656003,22 3,22 h 3 z"/>
 <path style="fill:#539710" transform="matrix(0.25921849,0,0,0.37414965,8,-3.544218)" d="M 2.3871817e-7,54.909093 7.715499,68.27273 l -15.4309982,-10e-7 z"/>
 <path style="fill:#e64040" transform="matrix(0.25921849,0,0,0.37414965,12,-3.544218)" d="M 2.3871817e-7,54.909093 7.715499,68.27273 l -15.4309982,-10e-7 z"/>
 <path style="fill:#539710" transform="matrix(0.25921849,0,0,0.37414965,16,-3.544218)" d="M 2.3871817e-7,54.909093 7.715499,68.27273 l -15.4309982,-10e-7 z"/>
 <path style="fill:#e64040" d="m 20,17 -2,5 h 3 c 0.343997,0 0.646374,-0.172548 0.826172,-0.435547 z"/>
 <path style="opacity:0.1" d="m 4,17 -1.8261719,4.564453 c 0.039574,0.05789 0.087107,0.108979 0.1376953,0.157226 L 4,17.5 5.7998045,22 H 6 Z m 2,5 H 6.2001955 L 8,17.5 9.7998045,22 H 10 L 8,17 Z m 4,0 h 0.200196 L 12,17.5 13.799805,22 H 14 l -2,-5 z m 4,0 h 0.200196 L 16,17.5 17.799804,22 H 18 l -2,-5 z m 4,0 h 0.200195 L 20,17.5 l 1.688476,4.221679 c 0.05059,-0.04825 0.09812,-0.09934 0.137696,-0.157226 L 20,17 Z"/>
</svg>
