<svg xmlns="http://www.w3.org/2000/svg" width="24" height="24" version="1">
 <path style="opacity:0.2" d="M 4.499844,2.5 A 2.5054616,2.50875 0 0 0 2.0000001,5 v 15 c 0,1.375 1.1247737,2.5 2.4998439,2.5 H 19.500156 C 20.875226,22.5 22,21.375 22,20 V 5 C 22,3.625 20.875226,2.5 19.500156,2.5 Z"/>
 <path style="fill:#e44332" d="M 4.499844,2 A 2.5054616,2.50875 0 0 0 2.0000001,4.5 v 15 c 0,1.375 1.1247737,2.5 2.4998439,2.5 H 19.500156 C 20.875226,22 22,20.875 22,19.5 V 4.5 C 22,3.125 20.875226,2 19.500156,2 Z"/>
 <path style="opacity:0.2" d="m 12.900391,5.4996721 a 0.60651788,0.6491803 0 0 0 -0.308594,0.087891 c -0.09303,0.05819 -6.3025589,3.9181899 -6.5097658,4.0449219 -0.24889,0.152597 -0.5550529,0.155182 -0.8027343,0 L 2,7.5719377 v 1.7519532 c 0.798018,0.503049 2.7828069,1.7526751 3.2636719,2.0468761 0.2869478,0.17458 0.5625612,0.170684 0.8398437,-0.002 L 13.873047,6.5328752 C 14.039176,6.4294192 14.047987,6.1102139 13.861328,5.9957659 13.675257,5.8807218 13.3231,5.6631602 13.191406,5.5797502 a 0.60651788,0.6491803 0 0 0 -0.291015,-0.080078 z m 0,4 a 0.60651788,0.6491803 0 0 0 -0.308594,0.087891 c -0.09303,0.05819 -6.3025589,3.9181899 -6.5097658,4.0449219 -0.24889,0.152598 -0.5550529,0.155183 -0.8027343,0 L 2,11.571939 v 1.751953 c 0.798018,0.503049 2.7828069,1.752674 3.2636719,2.046875 0.2869478,0.17458 0.5625612,0.170684 0.8398437,-0.002 L 13.873047,10.532876 C 14.039176,10.42942 14.047987,10.110214 13.861328,9.9957659 13.675257,9.8807219 13.3231,9.6631602 13.191406,9.5797502 a 0.60651788,0.6491803 0 0 0 -0.291015,-0.080078 z m 0,4.0000009 a 0.60651788,0.6491803 0 0 0 -0.308594,0.08789 c -0.09303,0.05819 -6.3025589,3.918189 -6.5097658,4.044921 -0.24889,0.152598 -0.5550529,0.155183 -0.8027343,0 L 2,15.571939 v 1.751953 c 0.798018,0.503049 2.7828069,1.752674 3.2636719,2.046875 0.2869478,0.17458 0.5625612,0.170684 0.8398437,-0.002 l 7.7695314,-4.835938 c 0.166129,-0.103456 0.174942,-0.422661 -0.01172,-0.537109 -0.18607,-0.114997 -0.538227,-0.332559 -0.669921,-0.415969 a 0.60651788,0.6491803 0 0 0 -0.291015,-0.08008 z"/>
 <path style="fill:#8b9cbe" d="m 12.900391,4.9998399 a 0.60651788,0.6491803 0 0 0 -0.308594,0.087891 c -0.09303,0.05819 -6.3025589,3.9181899 -6.5097658,4.0449219 -0.24889,0.152597 -0.5550529,0.155182 -0.8027343,0 L 2,7.0721055 v 1.7519532 c 0.798018,0.503049 2.7828069,1.7526743 3.2636719,2.0468753 0.2869478,0.17458 0.5625612,0.170684 0.8398437,-0.002 L 13.873047,6.033043 C 14.039176,5.929587 14.047987,5.6103817 13.861328,5.4959337 13.675257,5.3808896 13.3231,5.163328 13.191406,5.079918 a 0.60651788,0.6491803 0 0 0 -0.291015,-0.080078 z m 0,4 a 0.60651788,0.6491803 0 0 0 -0.308594,0.087891 c -0.09303,0.05819 -6.3025589,3.9181895 -6.5097658,4.0449215 -0.24889,0.152598 -0.5550529,0.155183 -0.8027343,0 L 2,11.072106 v 1.751953 c 0.798018,0.503049 2.7828069,1.752674 3.2636719,2.046875 0.2869478,0.17458 0.5625612,0.170684 0.8398437,-0.002 L 13.873047,10.033043 C 14.039176,9.929587 14.047987,9.6103816 13.861328,9.4959337 13.675257,9.3808897 13.3231,9.163328 13.191406,9.079918 a 0.60651788,0.6491803 0 0 0 -0.291015,-0.080078 z m 0,4.0000001 a 0.60651788,0.6491803 0 0 0 -0.308594,0.08789 c -0.09303,0.05819 -6.3025589,3.918189 -6.5097658,4.044921 -0.24889,0.152598 -0.5550529,0.155183 -0.8027343,0 L 2,15.072106 v 1.751953 c 0.798018,0.503049 2.7828069,1.752674 3.2636719,2.046875 0.2869478,0.17458 0.5625612,0.170684 0.8398437,-0.002 l 7.7695314,-4.835938 c 0.166129,-0.103456 0.174942,-0.422661 -0.01172,-0.537109 C 13.675257,13.38089 13.3231,13.163328 13.191406,13.079918 a 0.60651788,0.6491803 0 0 0 -0.291015,-0.08008 z"/>
 <path style="opacity:0.2;fill:#8b9cbe" d="M 4.5,2 A 2.5054616,2.50875 0 0 0 2,4.5 V 5 A 2.5054616,2.50875 0 0 1 4.5,2.5 h 15 C 20.87507,2.5 22,3.625 22,5 V 4.5 C 22,3.125 20.87507,2 19.5,2 Z"/>
</svg>
