<svg xmlns="http://www.w3.org/2000/svg" width="24" height="24" version="1">
 <rect style="opacity:0.2" width="21" height="21" x="1" y="1.5" rx="1.05" ry="1.05"/>
 <rect style="fill:#b2bfd9" width="21" height="21" x="1" y="1" rx="1.05" ry="1.05"/>
 <path style="opacity:0.1" d="M 10.517578,19.472195 C 10.143804,19.4243 9.430952,19.244943 9.096959,19.114754 7.7219121,18.578764 6.7206241,17.51161 6.2879461,16.120957 6.0457286,15.342441 6.0470356,14.370154 6.0131981,9.3037462 5.9944051,6.4918932 6.0011946,4.4999927 6.0011946,4.4999927 H 10.15025 L 8.5009231,8.4999964 H 10.00076 v 2.9999966 4 H 11.652915 13 v -5.8075603 -5.19244 h 4 c 0,0 -3.8e-4,3.1001205 -3.5e-5,6.7028973 4.93e-4,6.193495 -0.0035,7.552738 -0.07667,7.59149 -0.195028,0.103346 -2.239308,0.465272 -3.458353,0.612276 -0.699189,0.08431 -2.490114,0.124147 -2.94741,0.06555 z"/>
 <path style="fill:#e2450e" d="M 10.517578,18.972202 C 10.143804,18.924307 9.430952,18.74495 9.096959,18.614761 7.7219121,18.078771 6.7206241,17.011617 6.2879461,15.620964 6.0457286,14.842448 6.0470356,13.870161 6.0131981,8.8037535 5.9944051,5.9919005 6.0011946,4 6.0011946,4 H 10.15025 L 8.5009231,8.0000037 H 10.00076 V 11 15 H 11.652915 13 V 9.19244 4 h 4 c 0,0 -3.8e-4,3.1001205 -3.5e-5,6.702897 4.93e-4,6.193495 -0.0035,7.552738 -0.07667,7.59149 -0.195028,0.103346 -2.239308,0.465272 -3.458353,0.612276 -0.699189,0.08431 -2.490114,0.124147 -2.94741,0.06555 z"/>
 <path style="opacity:0.2;fill:#8b9cbe" d="M 2.0507812,1 C 1.4690813,1 1,1.4690813 1,2.0507812 v 0.5 C 1,1.9690813 1.4690813,1.5 2.0507812,1.5 H 20.949219 C 21.530919,1.5 22,1.9690813 22,2.5507812 v -0.5 C 22,1.4690813 21.530919,1 20.949219,1 Z"/>
</svg>
