<svg xmlns="http://www.w3.org/2000/svg" width="24" height="24" version="1">
 <path style="fill:#6655e4" d="M 12,2 3,2 C 2.446,2 2,2.446 2,3 l 0,9 10,0 z"/>
 <path style="fill:#21d789" d="m 12,2 9,0 c 0.554,0 1,0.446 1,1 l 0,9 -10,0 z"/>
 <path style="fill:#2086e7" d="M 12,22 3,22 C 2.446,22 2,21.554 2,21 l 0,-9 10,0 z"/>
 <path style="fill:#6655e4" d="m 12,22 9,0 c 0.554,0 1,-0.446 1,-1 l 0,-9 -10,0 z"/>
 <path style="opacity:0.2;fill:#8b9cbe" d="M 3,2 C 2.446,2 2,2.446 2,3 l 0,0.5 c 0,-0.554 0.446,-1 1,-1 l 18,0 c 0.554,0 1,0.446 1,1 L 22,3 C 22,2.446 21.554,2 21,2 L 3,2 Z"/>
 <path style="opacity:0.2" d="m 3,22.5 c -0.554,0 -1,-0.446 -1,-1 L 2,21 c 0,0.554 0.446,1 1,1 l 18,0 c 0.554,0 1,-0.446 1,-1 l 0,0.5 c 0,0.554 -0.446,1 -1,1 l -18,0 z"/>
 <rect style="fill:#17191e" width="14" height="14" x="5" y="5"/>
 <path style="opacity:0.2;fill:none;stroke:#000000;stroke-linecap:round" d="m 7.5071212,15.99995 3.9999998,0"/>
 <path style="fill:none;stroke:#8b9cbe;stroke-linecap:round" d="m 7.5071212,15.5 3.9999998,0"/>
 <path style="opacity:0.2;fill:none;stroke:#000000;stroke-width:0.99999994;stroke-linecap:round;stroke-linejoin:bevel" d="m 9.0074488,10 0.9999992,0 m -0.4999992,0 c 0,0 0.245452,2 -1.000001,2 -0.999999,0 -0.999999,-1 -0.999999,-2.000001 0,-0.999999 0,-1.9999995 0.999999,-1.9999995 1.000001,0 0.996189,0.4999995 0.996189,0.4999995"/>
 <path style="fill:none;stroke:#8b9cbe;stroke-width:0.99999994;stroke-linecap:round;stroke-linejoin:bevel" d="m 9.0074488,9.5 0.9999992,0 m -0.4999992,0 c 0,0 0.245452,2 -1.000001,2 -0.999999,0 -0.999999,-1 -0.999999,-2.000001 0,-0.999999 0,-1.9999995 0.999999,-1.9999995 1.000001,0 0.996189,0.4999995 0.996189,0.4999995"/>
 <path style="opacity:0.2;fill-rule:evenodd" d="M 12.5,7.5 C 11.669,7.5 11,8.169 11,9 l 0,2 c 0,0.831 0.669,1.5 1.5,1.5 0.831,0 1.5,-0.669 1.5,-1.5 L 14,9 C 14,8.169 13.331,7.5 12.5,7.5 Z m 0,1 c 0.277,0 0.5,0 0.5,0.899414 l 0,1.201172 C 13,11.500001 12.777,11.5 12.5,11.5 c -0.277,0 -0.5,10e-7 -0.5,-0.899414 L 12,9.399414 C 12,8.5 12.223,8.5 12.5,8.5 Z"/>
 <path style="fill:#8b9cbe;fill-rule:evenodd" d="M 12.5,7 C 11.669,7 11,7.669 11,8.5 l 0,2 c 0,0.831 0.669,1.5 1.5,1.5 0.831,0 1.5,-0.669 1.5,-1.5 l 0,-2 C 14,7.669 13.331,7 12.5,7 Z m 0,1 C 12.777,8 13,8 13,8.899414 l 0,1.201172 C 13,11.000001 12.777,11 12.5,11 12.223,11 12,11.000001 12,10.100586 L 12,8.899414 C 12,8 12.223,8 12.5,8 Z"/>
</svg>
