<svg xmlns="http://www.w3.org/2000/svg" width="24" height="24" version="1">
 <g transform="translate(1,1)">
  <path fill="#848484" d="m11 6a5 5 0 0 0 -5 5 5 5 0 0 0 5 5 5 5 0 0 0 5 -5 5 5 0 0 0 -5 -5zm0 3c1.1045 0 2 0.89549 2 2s-0.89549 2-2 2-2-0.89549-2-2 0.89544-2 2-2z"/>
  <path fill="#b2bfd9" d="m11 1.0001c-5.54 0-10 4.4599-10 9.9999s4.46 9.9999 9.9999 9.9999c5.54 0 9.9999-4.46 9.9999-9.9999 0-5.54-4.46-9.9999-9.9999-9.9999zm0 6a4 4 0 0 1 4 3.9999 4 4 0 0 1 -4 4 4 4 0 0 1 -4 -4 4 4 0 0 1 4 -4z"/>
  <path fill="#fff" opacity=".2" d="m11 1.0001c5.535 0 9.9909 4.46 9.9909 9.9999 0 0.08393-0.004 0.16657-0.0058 0.25-0.132-5.423-4.534-9.7499-9.9849-9.7499-5.451 0-9.8529 4.327-9.9849 9.7499-0.002-0.08343-0.00584-0.16606-0.00584-0.25 0-5.54 4.4559-9.9999 9.9909-9.9999zm1.9728 10.25c0.01044 0.08276 0.02538 0.16441 0.02538 0.25 0 1.1045-0.89459 2-1.9981 2s-1.9981-0.89544-1.9981-2c0-0.08558 0.01493-0.16724 0.02537-0.25 0.12409 0.98529 0.95474 1.75 1.9728 1.75 1.018 0 1.8487-0.76469 1.9728-1.75z"/>
  <path opacity=".2" d="m1.006 11.25c-0.002 0.084-0.0058 0.166-0.0058 0.25 0 5.54 4.4599 10 9.9998 10 5.54 0 10-4.46 10-10 0-0.084-0.004-0.1665-0.006-0.25-0.132 5.423-4.538 9.7499-9.9939 9.7499-5.456 0-9.8619-4.327-9.9939-9.7499z"/>
  <circle fill="#2eac43" cx="16" cy="16" r="6"/>
  <circle fill="#fff" cx="16" cy="18" r="2"/>
  <rect fill="#fff" width="1" height="7" x="17" y="11" rx=".497" ry=".461"/>
 </g>
</svg>
