<svg xmlns="http://www.w3.org/2000/svg" width="24" height="24" version="1">
 <path style="opacity:0.2" transform="matrix(0.5,0,0,0.49796464,6.4074325,8.737166)" d="m 21.185135,4.5441666 9.999999,5.7735024 0,11.547005 -9.999999,5.773502 -10,-5.773503 10e-7,-11.547004 z"/>
 <path style="opacity:0.2" transform="matrix(0.5,0,0,0.49796464,-3.5925674,8.737166)" d="m 21.185135,4.5441666 9.999999,5.7735024 0,11.547005 -9.999999,5.773502 -10,-5.773503 10e-7,-11.547004 z"/>
 <path style="fill:#6e7e87" transform="matrix(0.5,0,0,0.49796464,6.4074325,8.237166)" d="m 21.185135,4.5441666 9.999999,5.7735024 0,11.547005 -9.999999,5.773502 -10,-5.773503 10e-7,-11.547004 z"/>
 <path style="opacity:0.25" d="m 17,10.500001 5,2.875 V 19.125 L 17,22 Z"/>
 <path style="fill:#83929a" d="m 17,10.5 -5,2.875 5,2.875 5,-2.875 z"/>
 <path style="fill:#2f5d7c" transform="matrix(0.5,0,0,0.49796464,-3.5925674,8.237166)" d="m 21.185135,4.5441666 9.999999,5.7735024 0,11.547005 -9.999999,5.773502 -10,-5.773503 10e-7,-11.547004 z"/>
 <path style="opacity:0.2" d="m 7,10.500001 5,2.875 V 19.125 L 7,22 Z"/>
 <path style="fill:#366a90" d="M 7,10.5 2.0000001,13.375 7,16.25 12,13.375 Z"/>
 <path style="opacity:0.2" transform="matrix(0.5,0,0,0.49796464,1.4074325,0.2371658)" d="m 21.185135,4.5441666 9.999999,5.7735024 0,11.547005 -9.999999,5.773502 -10,-5.773503 10e-7,-11.547004 z"/>
 <path style="fill:#447ede" transform="matrix(0.5,0,0,0.49796464,1.4074325,-0.26283421)" d="m 21.185135,4.5441666 9.999999,5.7735024 0,11.547005 -9.999999,5.773502 -10,-5.773503 10e-7,-11.547004 z"/>
 <path style="opacity:0.2" d="m 12,2.0000001 4.999999,2.875 V 10.625 L 12,13.5 Z"/>
 <path style="fill:#649cff" d="M 12,2 7,4.875 12,7.75 17,4.875 Z"/>
 <path style="opacity:0.1" d="M 12.434571,13.625 12,13.875 17,16.75 22,13.875 21.565429,13.625 17,16.25 Z"/>
 <path style="opacity:0.1" d="M 2.4345703,13.625 2,13.875 7,16.75 12,13.875 11.56543,13.625 7,16.25 Z"/>
 <path style="opacity:0.1" d="M 7.4345705,5.125 7,5.375 12,8.25 17,5.375 16.565429,5.125 12,7.75 Z"/>
 <path style="opacity:0.2;fill:#8b9cbe" d="M 12,2 7,4.875 7.4345705,5.125 12,2.5 16.565429,5.125 17,4.875 Z"/>
 <path style="opacity:0.1;fill:#8b9cbe" d="M 17,10.5 V 11 L 21.565429,13.625 22,13.375 Z"/>
 <path style="opacity:0.1;fill:#8b9cbe" d="M 7,10.5 2,13.375 2.4345703,13.625 7,11 Z"/>
</svg>
