<svg width="24" height="24" version="1.1" xmlns="http://www.w3.org/2000/svg">
 <g transform="translate(1,1)">
  <rect x="1" y="1.5" width="20" height="20" rx="1" ry="1" style="opacity:.2"/>
  <rect x="1" y="1" width="20" height="20" rx="1" ry="1" style="fill:#08581b"/>
  <path d="m2 1c-0.554 0-1 0.446-1 1v0.5c0-0.554 0.446-1 1-1h18c0.554 0 1 0.446 1 1v-0.5c0-0.554-0.446-1-1-1z" style="fill:#8b9cbe;opacity:.1"/>
  <circle cx="8" cy="14.5" r="6" style="opacity:.2"/>
  <circle cx="8" cy="14" r="6" style="fill:#aca793"/>
  <path d="M 8,8 A 6,6 0 0 0 2,14 6,6 0 0 0 2.00977,14.285156 6,6 0 0 1 8,8.5 6,6 0 0 1 13.990234,14.214844 6,6 0 0 0 14,14 6,6 0 0 0 8,8 Z" style="fill:#8b9cbe;opacity:.2"/>
  <path d="m17 3.5-6 6-1-1-0.736328 2.210938a4 4 0 0 0-1.263672-0.210938 4 4 0 0 0-4 4 4 4 0 0 0 4 4 4 4 0 0 0 4-4 4 4 0 0 0-0.208984-1.263672l2.208984-0.736328-1-1 1-1h1v-1h1l1-1v-1l2-2v-2zm-10 11a1 1 0 0 1 1 1 1 1 0 0 1-1 1 1 1 0 0 1-1-1 1 1 0 0 1 1-1z" style="opacity:.2"/>
  <path d="m17 3-6 6-1-1-0.7363281 2.210938a4 4 0 0 0-1.2636719-0.210938 4 4 0 0 0-4 4 4 4 0 0 0 4 4 4 4 0 0 0 4-4 4 4 0 0 0-0.208984-1.263672l2.208984-0.736328-1-1 1-1h1v-1h1l1-1v-1l2-2v-2zm-10 11a1 1 0 0 1 1 1 1 1 0 0 1-1 1 1 1 0 0 1-1-1 1 1 0 0 1 1-1z" style="fill:#8b9cbe"/>
  <path d="m11 8.5-2-4 2 1 6-3z" style="opacity:.2"/>
  <path d="m11 8-2-4 2 1 6-3z" style="fill:#fff51f"/>
 </g>
</svg>
