<svg xmlns="http://www.w3.org/2000/svg" width="24" height="24" version="1.1">
 <circle style="opacity:0.2" cx="12" cy="12.5" r="10"/>
 <circle style="fill:#01a59b" cx="12" cy="12" r="10"/>
 <path style="opacity:0.2;fill:#8b9cbe" d="M 12,2 A 10,10 0 0 0 2,12 10,10 0 0 0 2.01075,12.291 10,10 0 0 1 12,2.5 10,10 0 0 1 21.9895,12.209 10,10 0 0 0 22,12 10,10 0 0 0 12,2 Z"/>
 <path style="opacity:0.2" d="M 8.326172,6 5.5,8.826172 8.006836,11.333008 11.996094,9.6689455 Z M 15,9.5 7,12.835938 10.606446,13.861328 11.602539,17.5 Z m -0.183594,2.990235 -1.68457,3.967773 L 15.672852,19 18.5,16.172851 Z"/>
 <path style="fill:#8b9cbe" d="M 8.326172,5.5 5.5,8.326172 8.006836,10.833008 11.996094,9.1689455 Z M 15,9 7,12.335938 10.606446,13.361328 11.602539,17 Z m -0.183594,2.990235 -1.68457,3.967773 L 15.672852,18.5 18.5,15.672852 Z"/>
</svg>
