<svg xmlns="http://www.w3.org/2000/svg" width="24" height="24" version="1">
 <path style="opacity:0.2" d="m 10,2.5 0,2.2597656 A 8,8 0 0 0 4.265625,10.5 L 2,10.5 l 0,4 2.2597656,0 A 8,8 0 0 0 10,20.234375 L 10,22.5 l 4,0 0,-2.259766 A 8,8 0 0 0 19.734375,14.5 L 22,14.5 l 0,-4 -2.259766,0 A 8,8 0 0 0 14,4.765625 L 14,2.5 l -4,0 z"/>
 <path style="fill:#1e80ff" d="M 10 2 L 10 4.2597656 A 8 8 0 0 0 4.265625 10 L 2 10 L 2 14 L 4.2597656 14 A 8 8 0 0 0 10 19.734375 L 10 22 L 14 22 L 14 19.740234 A 8 8 0 0 0 19.734375 14 L 22 14 L 22 10 L 19.740234 10 A 8 8 0 0 0 14 4.265625 L 14 2 L 10 2 z"/>
 <rect style="opacity:0.2" width="10" height="10" x="-17.5" y="-17" rx="5" ry="5" transform="matrix(0,-1,-1,0,0,0)"/>
 <rect style="fill:#8b9cbe" width="10" height="10" x="-17" y="-17" rx="5" ry="5" transform="matrix(0,-1,-1,0,0,0)"/>
 <path style="opacity:0.2;fill:#8b9cbe" d="M 10 2 L 10 2.5 L 14 2.5 L 14 2 L 10 2 z M 10 4.2597656 A 8 8 0 0 0 4.265625 10 L 2 10 L 2 10.5 L 4.265625 10.5 A 8 8 0 0 1 10 4.7597656 L 10 4.2597656 z M 14 4.265625 L 14 4.765625 A 8 8 0 0 1 19.740234 10.5 L 22 10.5 L 22 10 L 19.740234 10 A 8 8 0 0 0 14 4.265625 z"/>
</svg>
