<svg xmlns="http://www.w3.org/2000/svg" width="24" height="24" version="1.1">
 <rect style="opacity:0.2" width="20" height="20" x="2" y="2.5" rx="1" ry="1"/>
 <rect style="fill:#4f4f4f" width="20" height="20" x="2" y="2" rx="1" ry="1"/>
 <path style="opacity:0.2" d="M 10.986297,20.437905 C 6.2394665,17.946312 4.2310015,15.221675 5.2651215,12.67669 c 0.99345,-2.4449 4.57524,-4.8891105 10.8720945,-7.4191055 1.362775,-0.5475451 3.368201,-1.2886551 3.400276,-1.2565801 0.01025,0.01025 -0.627305,0.370075 -1.416825,0.799575 -3.507315,1.9079801 -7.249935,4.5601901 -8.2924205,5.8764406 l -0.288825,0.364665 0.7795605,-0.523155 c 1.08136,-0.7256905 2.649265,-1.5744805 4.037325,-2.1856155 1.22469,-0.53921 3.936115,-1.57946 4.11177,-1.577495 0.05588,5e-4 -0.23069,0.181415 -0.636826,0.401755 -2.437674,1.32252 -5.280619,3.5868105 -6.361074,5.0663495 -0.31307,0.428707 -0.323855,0.432597 0.714285,-0.257511 0.406135,-0.269979 1.14017,-0.715346 1.631195,-0.989703 0.93544,-0.522675 2.89041,-1.4668505 2.938215,-1.4190455 0.0153,0.0153 -0.27356,0.22927 -0.641915,0.4754855 -1.50368,1.00511 -3.518925,2.809737 -4.176655,3.740146 -0.194245,0.274775 -0.173385,0.267176 0.53616,-0.195329 0.68371,-0.445666 3.125355,-1.697733 3.31073,-1.697733 0.04485,0 -0.208795,0.215918 -0.5636,0.479818 -1.443475,1.073636 -3.07233,2.72438 -3.65806,3.707219 -0.18091,0.303557 -0.394105,0.816061 -0.473775,1.138899 -0.13244,0.536687 -0.13343,0.644946 -0.01155,1.263583 0.12798,0.649604 0.3906,1.277749 0.891705,2.13282 0.128735,0.219671 0.20103,0.398691 0.160655,0.397824 -0.04035,-8.5e-4 -0.553945,-0.253809 -1.141265,-0.562092 z"/>
 <path style="opacity:0.1;fill:#8b9cbe" d="M 3,2 C 2.446,2 2,2.446 2,3 v 0.5 c 0,-0.554 0.446,-1 1,-1 h 18 c 0.554,0 1,0.446 1,1 V 3 C 22,2.446 21.554,2 21,2 Z"/>
 <path style="fill:#e03035" d="M 10.986297,19.937906 C 6.2394665,17.446313 4.2310015,14.721676 5.2651215,12.17669 c 0.99345,-2.4448995 4.57524,-4.8891095 10.8720945,-7.4191045 1.362775,-0.547545 3.368201,-1.288655 3.400276,-1.25658 0.01025,0.01025 -0.627305,0.370075 -1.416825,0.799575 -3.507315,1.90798 -7.249935,4.56019 -8.2924205,5.8764395 l -0.288825,0.364666 0.7795605,-0.523155 c 1.08136,-0.7256905 2.649265,-1.5744805 4.037325,-2.1856155 1.22469,-0.53921 3.936115,-1.57946 4.11177,-1.577495 0.05588,5e-4 -0.23069,0.181415 -0.636826,0.401755 -2.437674,1.32252 -5.280619,3.5868105 -6.361074,5.0663495 -0.31307,0.428707 -0.323855,0.432597 0.714285,-0.257511 0.406135,-0.269979 1.14017,-0.715346 1.631195,-0.989703 0.93544,-0.5226755 2.89041,-1.4668505 2.938215,-1.4190455 0.0153,0.0153 -0.27356,0.22927 -0.641915,0.475485 -1.50368,1.0051105 -3.518925,2.8097375 -4.176655,3.7401465 -0.194245,0.274775 -0.173385,0.267176 0.53616,-0.195329 0.68371,-0.445666 3.125355,-1.697733 3.31073,-1.697733 0.04485,0 -0.208795,0.215918 -0.5636,0.479818 -1.443475,1.073636 -3.07233,2.72438 -3.65806,3.707219 -0.18091,0.303557 -0.394105,0.816061 -0.473775,1.138899 -0.13244,0.536687 -0.13343,0.644946 -0.01155,1.263583 0.12798,0.649605 0.3906,1.27775 0.891705,2.13282 0.128735,0.219671 0.20103,0.398691 0.160655,0.397824 -0.04035,-8.5e-4 -0.553945,-0.253809 -1.141265,-0.562092 z"/>
 <path style="opacity:0.2" d="m 13.447266,7.0543755 c -0.0165,-0.01655 -0.352984,0.1377079 -0.927735,0.4433594 C 7.5008009,10.166685 5.5090038,12.417546 6.1054688,14.745782 6.3719687,15.786025 7.1261413,16.815983 8.3945312,17.874688 8.8515963,18.256194 9.24301,18.57 9.265625,18.57 c 0.0226,0 -0.258015,-0.299454 -0.625,-0.664062 C 6.723175,16.000881 6.1363125,14.238206 6.8828125,12.624688 7.5862875,11.104177 9.9838726,9.0168755 12.867188,7.4137505 13.279411,7.184553 13.460096,7.067249 13.447266,7.0543755 Z m 0.582031,2.078125 c -0.07476,0.02093 -0.601499,0.3120544 -1.314453,0.7324219 C 9.2101539,11.931323 8.147845,13.40051 8.640625,15.495782 l 0.1601562,0.683594 0.056641,-0.91211 c 0.03075,-0.501695 0.1196787,-1.085382 0.1992187,-1.298828 0.47375,-1.271336 1.7971201,-2.651332 3.9628901,-4.1308594 0.419655,-0.28668 0.835238,-0.5701589 0.923828,-0.6308594 0.08547,-0.058561 0.110854,-0.081195 0.08594,-0.074219 z m -0.544922,2.5039065 c -0.0093,-0.02638 -0.278444,0.14642 -0.806641,0.519531 -1.373205,0.970013 -1.898288,1.706175 -2.064453,2.894531 l -0.04883,0.347657 0.117188,-0.304688 c 0.06407,-0.167743 0.235409,-0.539989 0.380859,-0.828125 0.34524,-0.683917 0.865617,-1.295049 1.669922,-1.957031 0.511305,-0.42083 0.761292,-0.645492 0.751953,-0.671875 z m -0.525391,2.083984 c -0.01632,-0.0032 -0.09501,0.04743 -0.226562,0.136719 -0.71698,0.486656 -1.09979,0.940688 -1.25586,1.496094 -0.044,0.156552 -0.0023,0.1255 0.148438,-0.115235 0.11506,-0.183684 0.49909,-0.6292 0.853516,-0.990234 0.361418,-0.368156 0.507669,-0.521946 0.480468,-0.527344 z"/>
 <path style="fill:#8b9cbe" d="M 13.447266 6.5546875 C 13.430766 6.5381375 13.094282 6.6923954 12.519531 6.9980469 C 7.5008009 9.6669969 5.5090038 11.917858 6.1054688 14.246094 C 6.3719687 15.286337 7.1261413 16.316295 8.3945312 17.375 C 8.8515963 17.756506 9.24301 18.070312 9.265625 18.070312 C 9.288225 18.070312 9.00761 17.770858 8.640625 17.40625 C 6.723175 15.501193 6.1363125 13.738518 6.8828125 12.125 C 7.5862875 10.604489 9.9838726 8.5171875 12.867188 6.9140625 C 13.279411 6.684865 13.460096 6.567561 13.447266 6.5546875 z M 14.029297 8.6328125 C 13.954537 8.6537425 13.427798 8.9448669 12.714844 9.3652344 C 9.2101539 11.431635 8.147845 12.900822 8.640625 14.996094 L 8.8007812 15.679688 L 8.8574219 14.767578 C 8.8881719 14.265883 8.9771006 13.682196 9.0566406 13.46875 C 9.5303906 12.197414 10.853761 10.817418 13.019531 9.3378906 C 13.439186 9.0512106 13.854769 8.7677317 13.943359 8.7070312 C 14.028829 8.6484703 14.054213 8.6258365 14.029297 8.6328125 z M 13.484375 11.136719 C 13.475075 11.110339 13.205931 11.283139 12.677734 11.65625 C 11.304529 12.626263 10.779446 13.362425 10.613281 14.550781 L 10.564453 14.898438 L 10.681641 14.59375 C 10.745711 14.426007 10.91705 14.053761 11.0625 13.765625 C 11.40774 13.081708 11.928117 12.470576 12.732422 11.808594 C 13.243727 11.387764 13.493714 11.163102 13.484375 11.136719 z M 12.958984 13.220703 C 12.942664 13.217503 12.863975 13.268129 12.732422 13.357422 C 12.015442 13.844078 11.632632 14.29811 11.476562 14.853516 C 11.432562 15.010068 11.474263 14.979016 11.625 14.738281 C 11.74006 14.554597 12.12409 14.109081 12.478516 13.748047 C 12.839934 13.379891 12.986185 13.226101 12.958984 13.220703 z"/>
</svg>
