<svg xmlns="http://www.w3.org/2000/svg" width="24" height="24" version="1.1">
 <path style="opacity:0.2;fill-rule:evenodd" d="m 22,11.5 c 0,5.52307 -4.477387,10 -10,10 -5.52307,0 -9.9999999,-4.477387 -9.9999999,-10 0,-5.52307 4.4773869,-9.9999999 9.9999999,-9.9999999 5.52307,0 10,4.4773869 10,9.9999999"/>
 <path style="fill:#616161;fill-rule:evenodd" d="M 22,11 C 22,16.52307 17.522613,21 12,21 6.47693,21 2.0000001,16.522613 2.0000001,11 2.0000001,5.47693 6.477387,1 12,1 17.52307,1 22,5.477387 22,11"/>
 <path style="opacity:0.1;fill:#8b9cbe;fill-rule:evenodd" d="M 12,1 C 6.477387,1 2,5.47693 2,11 2,11.08383 2.00381,11.166662 2.00586,11.25 2.1389488,5.842826 6.561219,1.5 12,1.5 c 5.439231,0 9.861064,4.343249 9.99414,9.75 C 21.996192,11.166655 22,11.083839 22,11 22,5.477387 17.52307,1 12,1 Z"/>
 <circle style="opacity:0.2" cx="12" cy="9.5" r="6"/>
 <circle style="fill:#8b9cbe" cx="12" cy="9" r="6"/>
 <path style="fill:none;stroke:#17191e;stroke-width:2;stroke-linecap:round" d="M 12,9 V 5"/>
 <path style="fill:none;stroke:#17191e;stroke-width:2;stroke-linecap:round" d="m 12,9 h 4"/>
 <circle style="fill:#818181" cx="12" cy="9" r="2"/>
 <path style="fill:none;stroke:#444444;stroke-width:2;stroke-linecap:round;stroke-linejoin:round" d="m 7,15 c 0,0 1.5,2 5,2 3.5,0 4.893564,-2 4.893564,-2"/>
 <path style="opacity:0.2" d="m 17,15.497071 c -0.04753,0.02531 -0.09595,0.04634 -0.143555,0.07129 C 15.955509,16.432792 14.368481,17.5 12,17.5 9.559745,17.5 7.9115335,16.376507 7,15.507813 V 20.5 c 0,1.108 0.892,2 2,2 h 6 c 1.108,0 2,-0.892 2,-2 z"/>
 <path style="fill:#ffa746" d="m 17,14.997071 c -0.04753,0.02531 -0.09595,0.04634 -0.143555,0.07129 C 15.955509,15.932792 14.368481,17 12,17 9.559745,17 7.9115335,15.876507 7,15.007813 V 20 c 0,1.108 0.892,2 2,2 h 6 c 1.108,0 2,-0.892 2,-2 z"/>
 <rect style="opacity:0.3" width="6" height="1" x="9" y="18"/>
 <rect style="opacity:0.3" width="4" height="1" x="9" y="20"/>
</svg>
