<svg xmlns="http://www.w3.org/2000/svg" width="24" height="24" version="1.1">
 <path style="opacity:0.2" d="M 19.385782,2.4999763 15.984468,5.897437 C 14.811986,4.8097864 14.183816,4.3743435 12.902485,4.5790778 11.81976,4.7518223 11.153439,5.6222865 10.78826,6.709937 10.423016,7.797588 10.481275,8.0209695 9.93671,8.4560305 9.039778,9.1726 7.2583265,8.8407085 5.791266,9.2245855 4.1255357,9.6596455 2.6387084,11.155917 2.1838998,12.934547 c -0.5894124,2.27127 0.256282,4.139891 2.2743789,6.283202 1.8835573,2.002557 3.9847528,3.288625 5.8426833,3.282227 1.729798,0 3.658681,-0.998413 4.818285,-2.81543 0.768799,-1.202813 0.396665,-4.235513 1.011703,-5.02246 0.890526,-1.138834 2.659155,-0.799837 3.126905,-1.727539 C 19.68063,12.096415 19.476256,11.201574 18.726613,10.83689 18.265398,10.612963 17.809606,10.561528 17.502022,10.43357 17.26504,10.3376 17.085713,10.068458 17.111403,9.7421635 L 22,4.8544684 C 21.944853,4.1560699 21.700701,3.6736755 21.321296,3.1938728 20.851549,2.7330287 20.185546,2.5769193 19.62992,2.4999763 Z"/>
 <path style="fill:#3194ed" d="M 19.385782,2 15.984468,5.397461 C 14.811986,4.3098101 14.183816,3.8743673 12.902485,4.0791015 11.81976,4.251846 11.153439,5.1223105 10.78826,6.209961 10.423016,7.297612 10.481275,7.5209935 9.93671,7.9560545 9.039778,8.672624 7.2583265,8.3407325 5.791266,8.7246095 4.1255357,9.1596695 2.6387084,10.655941 2.1838998,12.434571 1.5944874,14.705841 2.4401818,16.574462 4.4582787,18.717773 6.341836,20.72033 8.4430315,22.006398 10.300962,22 c 1.729798,0 3.658681,-0.998413 4.818285,-2.81543 0.768799,-1.202813 0.396665,-4.235513 1.011703,-5.02246 0.890526,-1.138834 2.659155,-0.799837 3.126905,-1.727539 0.422775,-0.838132 0.218401,-1.732973 -0.531242,-2.097657 C 18.265398,10.112987 17.809606,10.061552 17.502022,9.933594 17.26504,9.837624 17.085713,9.568482 17.111403,9.2421875 L 22,4.3544922 C 21.944853,3.6560937 21.700701,3.1736992 21.321296,2.6938965 20.851549,2.2330525 20.185546,2.0769431 19.62992,2 Z"/>
 <path style="opacity:0.2" d="M 21.146484,2.6464844 8.6464845,15.146485 9.3535155,15.853516 12,13.207031 V 18 h 1 v -5.792969 l 8.853515,-8.8535154 z"/>
 <path style="fill:#8b9cbe" d="M 20.905273,2.3876953 8.6464845,14.646485 9.3535155,15.353516 12,12.707031 V 17.5 h 1 V 11.707031 L 21.603515,3.1035156 C 21.519747,2.9642707 21.427386,2.8285086 21.321289,2.694336 21.195278,2.5707139 21.053609,2.4718149 20.905273,2.3876953 Z"/>
 <path style="opacity:0.2" d="m 12.5,10.5 c -0.828427,0 -1.5,0.671573 -1.5,1.5 0,0.828427 0.671573,1.5 1.5,1.5 0.828427,0 1.5,-0.671573 1.5,-1.5 0,-0.828427 -0.671573,-1.5 -1.5,-1.5 z m -4,4 C 7.6715729,14.5 7,15.171573 7,16 7,16.828427 7.6715729,17.5 8.5,17.5 9.3284271,17.5 10,16.828427 10,16 10,15.171573 9.3284271,14.5 8.5,14.5 Z m 4,2 c -0.828427,0 -1.5,0.671573 -1.5,1.5 0,0.828427 0.671573,1.5 1.5,1.5 0.828427,0 1.5,-0.671573 1.5,-1.5 0,-0.828427 -0.671573,-1.5 -1.5,-1.5 z"/>
 <circle style="fill:#8b9cbe" cx="8.5" cy="15.5" r="1.5"/>
 <circle style="fill:#8b9cbe" cx="12.5" cy="17.5" r="1.5"/>
 <circle style="fill:#8b9cbe" cx="12.5" cy="11.5" r="1.5"/>
 <path style="opacity:0.2;fill:#8b9cbe" d="M 19.385742,2 15.984375,5.397461 C 14.811893,4.3098101 14.183676,3.8743673 12.902344,4.0791015 11.819619,4.251846 11.153266,5.1223105 10.788086,6.209961 10.422843,7.297612 10.481089,7.5209935 9.9365235,7.9560545 9.0395915,8.672624 7.258076,8.3407325 5.7910155,8.7246095 4.1252853,9.1596695 2.6384024,10.655941 2.1835937,12.434571 2.0351448,13.00661 1.9783921,13.553182 2.0078125,14.084961 2.024934,13.71099 2.0811559,13.329309 2.1835937,12.934571 2.6384024,11.155941 4.1252853,9.6596695 5.7910155,9.2246095 7.258076,8.8407325 9.0395915,9.172624 9.9365235,8.4560545 10.481089,8.0209935 10.422843,7.797612 10.788086,6.709961 11.153266,5.6223105 11.819619,4.7518461 12.902344,4.5791016 14.183675,4.3743673 14.811893,4.8098104 15.984375,5.897461 L 19.385742,2.5 h 0.244141 c 0.555626,0.076943 1.221659,0.2334919 1.691406,0.694336 0.29504,0.3731137 0.505146,0.7509319 0.611328,1.227539 L 22,4.3544922 C 21.944853,3.6560937 21.700694,3.1741387 21.321289,2.694336 20.851542,2.2334919 20.185509,2.0769431 19.629883,2 Z m -2.185547,7.6533205 -0.08887,0.088867 c -0.02569,0.3262945 0.153643,0.5954365 0.390625,0.6914065 0.307584,0.127958 0.763394,0.179393 1.224609,0.40332 0.417603,0.203154 0.659584,0.573162 0.72461,1.003907 0.100669,-0.636118 -0.151642,-1.225172 -0.72461,-1.503907 C 18.265347,10.112987 17.809537,10.061552 17.501953,9.933594 17.377407,9.883157 17.271501,9.7825765 17.200195,9.6533205 Z"/>
</svg>
