<svg xmlns="http://www.w3.org/2000/svg" width="24" height="24" version="1.1">
 <rect style="opacity:0.2" width="20" height="20" x="2" y="2.5" rx="1" ry="1"/>
 <rect style="fill:#ffcaab" width="20" height="20" x="2" y="2" rx="1" ry="1"/>
 <path style="opacity:0.2" d="m7 16.5s5 4 10 4c3 0 3-2 3-2l-2-5-4-3-4-2-4-1v7z"/>
 <path style="fill:#8b9cbe" d="m7 16s5 4 10 4c3 0 3-2 3-2l-2-5-4-3-4-2-4-1v7z"/>
 <path style="fill:#54116e" d="M 11.117 7.8379 A 4.5 5.5 0 0 0 9.0117 12.213 L 17.467 15.078 A 4.5 5.5 0 0 0 17.979 12.984 L 14 10 L 11.117 7.8379 z"/>
 <path style="fill:#6b5ca7" d="M 11 12 A 7 5 0 0 0 9.0117 12.209 A 4.5 5.5 0 0 0 9 12.5 A 4.5 5.5 0 0 0 9.1992 14.119 L 15.867 17.162 A 4.5 5.5 0 0 0 17.461 15.09 A 7 5 0 0 0 11 12 z"/>
 <path style="fill:#86bdcd" d="m10.5 14a5.5 4 0 0 0 -1.3007812 0.119141 4.5 5.5 0 0 0 4.3007812 3.880859 4.5 5.5 0 0 0 2.371094 -0.835938 5.5 4 0 0 0 -5.371094 -3.164062z"/>
 <path style="fill:#b8d8e2" d="m13.5 13s0.5-1 1.5-1 1 1 1 1c0 2-2.5 3-2.5 3s-2.5-1-2.5-3c0 0 0-1 1-1s1.5 1 1.5 1z"/>
 <path style="opacity:0.1" d="m3 3.5 3 4-2-1 1 2v4c0 2 2 4 2 4s-1-2.625631-1-4v-4s4 0 7 2 5 4 5 4l2 5v-3l1 1-2-4s-3-3-6-5c-4.1602515-2.773501-10-5-10-5z"/>
 <path style="fill:#4f4f4f" d="m3 3 3 4-2-1 1 2v4c0 2 2 4 2 4s-1-2.625631-1-4v-4s4 0 7 2 5 4 5 4l2 5v-3l1 1-2-4s-3-3-6-5c-4.1602515-2.773501-10-5-10-5z"/>
 <ellipse style="fill:#8b9cbe" cx="9.5" cy="11.5" rx="2.5" ry="1.5"/>
 <path style="opacity:0.2;fill:#8b9cbe" d="m3 2c-0.554 0-1 0.446-1 1v0.5c0-0.554 0.446-1 1-1h18c0.554 0 1 0.446 1 1v-0.5c0-0.554-0.446-1-1-1z"/>
</svg>
