<svg width="24" height="24" version="1.1" xmlns="http://www.w3.org/2000/svg">
 <g transform="translate(1,1)">
  <path d="m11 1c-5.5115 0-10 4.489-10 10 0 5.512 4.489 10 10 10s10-4.488 10-10c0-5.511-4.488-10-10-10z" style="fill:#5aa331"/>
  <path d="m11 3.5a8 8 0 0 0-8 8 8 8 0 0 0 8 8 8 8 0 0 0 8-8 8 8 0 0 0-8-8zm-3.209 2.3554h3.0654l3.5196 8.951 1.5478-0.5039 0.5156 1.7334-3.338 0.964-2.245-5.6915-3.292 5.1875h-2.0644l4.5976-7.425-0.5156-1.4668h-1.791v-1.749z" style="opacity:.2"/>
  <path d="m11 3a8 8 0 0 0-8 8 8 8 0 0 0 8 8 8 8 0 0 0 8-8 8 8 0 0 0-8-8zm-3.209 2.3555h3.0655l3.5195 8.951 1.548-0.504 0.5155 1.7335-3.338 0.964-2.245-5.6915-3.292 5.1875h-2.0645l4.5975-7.4245-0.5155-1.467h-1.791z" style="fill:#8b9cbe"/>
  <path d="M 11,1 C 5.4885,1 1,5.489 1,11 1,11.084 1.0038,11.166 1.0058,11.25 1.1395,5.854 5.5725,1.5 11,1.5 c 5.4274,0 9.8605,4.354 9.994,9.75 C 20.996,11.1665 21,11.084 21,11 21,5.489 16.5115,1 11,1 Z" style="fill:#8b9cbe;opacity:.2"/>
  <path d="m1.0058 11.25c-2e-3 0.084-0.0058 0.166-0.0058 0.25 0 5.512 4.489 10 10 10s10-4.4885 10-10c0-0.084-4e-3 -0.1665-6e-3 -0.25-0.134 5.396-4.566 9.75-9.994 9.75-5.4275 0-9.8605-4.354-9.994-9.75z" style="opacity:.2"/>
 </g>
</svg>
