<svg xmlns="http://www.w3.org/2000/svg" width="24" height="24" version="1">
 <rect fill="#189bc1" width="20" height="19.998" x="-22" y="-22" rx="10" ry="9.999" transform="matrix(0,-1,-1,0,0,0)"/>
 <path opacity=".2" d="m11.5 6.5c-1.059 0.5539-1.5211 1.5561-2 2.5-0.3044-0.4115-0.3819-0.9885-0.5-1.5-0.9357 1.2318-1.348 3.278-1.7246 4.51-0.5334 1.751-1.2114 2.825-2.1816 3.451-0.5602 0.361-1.084 0.554-2.1368 0.797 1.5947 3.396 5.0301 5.742 9.043 5.742 0.115 0 0.227-0.014 0.342-0.018 0.19-0.755 0.196-1.575 0.064-2.136-0.118-0.469-0.426-1.313-0.406-1.346s0.524 0.018 0.951 0.018c0.505 0 0.875 0.018 1.143-0.063 0.226-0.068 0.495-0.18 0.656-0.172 0.714 0.036 1.617-0.287 1.855-0.922 0.075-0.197 0.202-0.451 0.284-0.564 0.134-0.185 0.139-0.238 0.052-0.529-0.122-0.412-0.37-0.755-0.896-1.235-0.399-0.364-0.525-0.401-0.545-0.791-0.015-0.286 0.063-0.486-0.092-0.633-0.176-0.165-0.693-0.059-0.722-0.062-0.185-0.215-0.362-0.44-0.022-0.75 0.257-0.235 0.305-0.323 0.305-0.58 0-0.253-0.047-0.342-0.27-0.537-0.147-0.129-0.304-0.235-0.351-0.235s-0.284-0.189-0.526-0.42c-0.468-0.446-0.832-0.525-1.197-0.525-0.295 0-0.625-0.073-0.625-0.5 0.393-1.4223 1.911-2.1716 2.5-2.5-1.493-0.2114-2.509 0.101-3.5 1-0.047-0.5224 0.445-1.6625 0.5-2z"/>
 <path fill="#8b9cbe" d="m11.5 6c-1.059 0.5539-1.5211 1.5561-2 2.5-0.3044-0.4115-0.3819-0.9885-0.5-1.5-0.9357 1.2318-1.348 3.278-1.7246 4.51-0.5334 1.751-1.2114 2.825-2.1816 3.451-0.5765 0.372-1.0942 0.563-2.211 0.816-0.0488 0.015-0.0837 0.021-0.1308 0.034 1.4624 3.564 4.9178 6.076 8.996 6.177 0.151-0.007 0.303-0.013 0.453-0.023 0.338-0.864 0.365-1.937 0.205-2.619-0.118-0.469-0.426-1.313-0.406-1.346s0.524 0.018 0.951 0.018c0.505 0 0.875 0.018 1.143-0.063 0.226-0.068 0.495-0.18 0.656-0.172 0.714 0.036 1.617-0.287 1.855-0.922 0.075-0.197 0.202-0.451 0.284-0.564 0.134-0.185 0.139-0.238 0.052-0.529-0.122-0.412-0.37-0.755-0.896-1.235-0.399-0.364-0.525-0.401-0.545-0.791-0.015-0.286 0.063-0.486-0.092-0.633-0.176-0.165-0.693-0.059-0.722-0.062-0.185-0.215-0.362-0.44-0.022-0.75 0.257-0.235 0.305-0.323 0.305-0.58 0-0.253-0.047-0.342-0.27-0.537-0.147-0.129-0.304-0.235-0.351-0.235s-0.284-0.189-0.526-0.42c-0.468-0.446-0.832-0.525-1.197-0.525-0.295 0-0.625-0.073-0.625-0.5 0.393-1.4223 1.911-2.1716 2.5-2.5-1.493-0.2114-2.509 0.101-3.5 1-0.047-0.5224 0.445-1.6625 0.5-2z"/>
 <path fill="#fff" opacity=".2" d="m12 2c-5.5395 0-9.999 4.46-9.999 10 0 0.08386-0.002 0.16664 0 0.25 0.1321-5.423 4.5435-9.75 9.999-9.75s9.867 4.3268 9.999 9.75c0.002-0.08335 0-0.16614 0-0.25 0-5.54-4.459-10-9.999-10z"/>
 <path opacity=".2" d="m2.0058 12.25c-0.002 0.084-0.0058 0.166-0.0058 0.25 0 5.54 4.46 10 10 10s10-4.46 10-10c0-0.084-0.004-0.1665-0.006-0.25-0.132 5.423-4.538 9.75-9.994 9.75s-9.862-4.327-9.994-9.75z"/>
</svg>
