<svg xmlns="http://www.w3.org/2000/svg" height="24" width="24" version="1.1">
 <g transform="translate(1,1)">
  <path d="m4 1.5c-0.552262 0.0000552-0.999945 0.4477381-1 1v18c0.000055 0.552262 0.447738 0.999945 1 1h3c0.552262-0.000055 0.999945-0.447738 1-1v-7h6v7c0.000055 0.552262 0.447738 0.999945 1 1h3c0.552262-0.000055 0.999945-0.447738 1-1v-18c-0.000055-0.5522619-0.447738-0.9999448-1-1h-3c-0.552262 0.0000552-0.999945 0.4477381-1 1v7h-6v-7c-0.000055-0.5522619-0.447738-0.9999448-1-1z" style="opacity:.2"/>
  <path d="m4 1c-0.5522619 0.0000552-0.9999448 0.4477381-1 1v18c0.0000552 0.552262 0.4477381 0.999945 1 1h3c0.5522619-0.000055 0.9999448-0.447738 1-1v-7h6v7c0.000055 0.552262 0.447738 0.999945 1 1h3c0.552262-0.000055 0.999945-0.447738 1-1v-18c-0.000055-0.5522619-0.447738-0.9999448-1-1h-3c-0.552262 0.0000552-0.999945 0.4477381-1 1v7h-6v-7c-0.0000552-0.5522619-0.4477381-0.9999448-1-1z" style="fill:#1a861c"/>
  <path style="fill:#8b9cbe;opacity:.1" d="m4 1c-0.5522619 0.0000552-0.9999448 0.4477381-1 1v0.5c0.000055-0.5522619 0.447738-0.9999448 1-1h3c0.552262 0.0000552 0.999945 0.4477381 1 1v-0.5c-0.0000552-0.5522619-0.4477381-0.9999448-1-1zm11 0c-0.552262 0.0000552-0.999945 0.4477381-1 1v0.5c0.000055-0.5522619 0.447738-0.9999448 1-1h3c0.552262 0.0000552 0.999945 0.4477381 1 1v-0.5c-0.000055-0.5522619-0.447738-0.9999448-1-1zm-7 8v0.5h6v-0.5z"/>
 </g>
</svg>
