<svg xmlns="http://www.w3.org/2000/svg" width="24" height="24" version="1">
 <path style="opacity:0.2" d="M 7.5038144,8.0038184 6.497013,9.1293921 14.681245,17.009788 c 0.684986,2.090278 2.051193,3.583614 3.481682,5.021577 0.51746,0.559321 0.535503,0.649457 1.086213,0.09875 l 1.190484,-1.190484 1.190484,-1.190485 c 0.55071,-0.55071 0.460574,-0.568753 -0.09875,-1.086212 -1.437963,-1.430489 -2.931989,-2.796006 -5.022267,-3.480992 L 8.6293881,6.997017 Z"/>
 <path style="fill:#69787e" d="M 7.5038144,7.5038169 6.497013,8.6293907 14.681245,16.509787 c 0.684986,2.090278 2.051193,3.583614 3.481682,5.021577 0.51746,0.55932 0.535503,0.649456 1.086213,0.09875 l 1.190484,-1.190484 1.190484,-1.190484 c 0.55071,-0.55071 0.460574,-0.568753 -0.09875,-1.086213 -1.437963,-1.430489 -2.931989,-2.796006 -5.022267,-3.480991 L 8.6293881,6.4970156 Z"/>
 <path style="fill:#394f63" d="M 7.5034939,7.5036619 8.6289816,6.4972191 16.509011,14.681486 c 2.090278,0.684986 3.584391,2.051304 5.022353,3.481793 0.559321,0.51746 0.649458,0.535055 0.09875,1.085766 l -1.19077,1.190465 z"/>
 <path style="opacity:0.1;fill:#8b9cbe" d="M 8.6290736,6.4970246 7.5030939,7.5038629 7.7667666,7.7675357 8.6290736,6.997026 16.508979,15.181619 c 2.090279,0.684986 3.584513,2.050967 5.022475,3.481456 0.145741,0.134833 0.257922,0.235083 0.336915,0.320313 0.238992,-0.301611 0.109661,-0.407161 -0.336915,-0.820315 -1.437962,-1.430489 -2.932196,-2.79647 -5.022475,-3.481455 z"/>
 <rect style="opacity:0.2" width="12.617" height="4.206" x="-6.66" y="8.86" rx="1.083" ry="1.083" transform="rotate(-45)"/>
 <rect style="fill:#f2654f" width="12.617" height="4.206" x="-6.31" y="8.5" rx="1.083" ry="1.083" transform="rotate(-45)"/>
 <path style="opacity:0.1" d="M 11.429715,3.0094754 2.5097674,11.929423 3.5703175,12.989973 12.490265,4.0700255 Z"/>
 <path style="fill:#69787e" d="m 11.429715,2.509709 -8.9199476,8.919947 1.0605501,1.06055 8.9199475,-8.919947 z"/>
 <path style="fill:#4b565a" d="M 7.0263815,4.9999498 5.0000087,7.0263226 V 9.9999641 H 7.9736502 L 10.000023,7.9735913 V 4.9999498 Z"/>
 <path style="opacity:0.2" d="m 9.5907318,5.5794514 -0.3427899,0.342791 0.3427899,0.34279 0.342791,-0.34279 z m -0.6855809,0.685581 -0.34279,0.342791 0.34279,0.34279 0.342791,-0.34279 z m -0.6855805,0.685581 -0.34279,0.3427904 0.34279,0.34279 0.3427905,-0.34279 z m -0.685581,0.6855804 -0.3427899,0.342791 0.3427899,0.34279 0.342791,-0.34279 z M 6.8484085,8.3217748 6.504671,8.6645658 6.8484085,9.0083032 7.1911995,8.6645658 Z M 6.161881,9.0083032 5.81909,9.3510932 6.161881,9.6938842 6.504671,9.3510932 Z M 5.4763006,9.6938842 5.1335091,10.036674 5.4763006,10.379465 5.81909,10.036674 Z"/>
 <path style="fill:#40c900" d="m 9.5907318,5.07945 -0.3427899,0.342791 0.3427899,0.34279 0.342791,-0.34279 z m -0.6855809,0.685581 -0.34279,0.3427909 0.34279,0.34279 0.342791,-0.34279 z m -0.6855805,0.6855809 -0.34279,0.3427905 0.34279,0.34279 0.3427905,-0.34279 z M 7.5339894,7.1361924 7.1911995,7.4789834 7.5339894,7.8217733 7.8767804,7.4789834 Z M 6.8484085,7.8217733 6.504671,8.1645643 6.8484085,8.5083018 7.1911995,8.1645643 Z M 6.161881,8.5083018 5.81909,8.8510918 6.161881,9.1938828 6.504671,8.8510918 Z M 5.4763006,9.1938828 5.1335091,9.5366722 5.4763006,9.8794637 5.81909,9.5366722 Z"/>
 <path style="opacity:0.2;fill:#8b9cbe" d="m 10.473657,1.9999412 c -0.27679,0 -0.5535362,0.1062695 -0.7656268,0.3183603 L 2.3183604,9.7079712 C 2.041873,9.9844585 1.9482776,10.370544 2.0322268,10.723599 2.0771439,10.535265 2.1708522,10.355481 2.3183604,10.207973 L 9.7080302,2.8183029 c 0.4241808,-0.4241815 1.1070728,-0.4241815 1.5312548,0 l 1.442386,1.442387 c 0.147695,0.1476941 0.24129,0.3270311 0.286134,0.5156264 0.08425,-0.3532477 -0.0095,-0.7389546 -0.286134,-1.0156279 L 11.239285,2.3183015 C 11.027193,2.1062107 10.750447,1.9999412 10.473657,1.9999412 Z"/>
</svg>
