<svg xmlns="http://www.w3.org/2000/svg" width="24" height="24" version="1">
 <rect style="opacity:0.2" width="20" height="20" x="2" y="2.5" rx="1" ry="1"/>
 <rect style="fill:#d86b18" width="20" height="20" x="2" y="2" rx="1" ry="1"/>
 <path style="opacity:0.1;fill:#8b9cbe" d="M 3,2 C 2.446,2 2,2.446 2,3 v 0.5 c 0,-0.554 0.446,-1 1,-1 h 18 c 0.554,0 1,0.446 1,1 V 3 C 22,2.446 21.554,2 21,2 Z"/>
 <rect style="fill:#8b9cbe" width="1" height="20" x="14" y="2"/>
 <path style="opacity:0.2" d="m 10.695312,3.7300158 c -0.04993,0.7243637 -0.54729,1.3134215 -0.121093,1.8261718 0.603077,-0.4143732 0.61738,-0.7984781 0.318359,-1.4179687 z m -0.28125,1.7148437 C 8.9626018,10.417677 11.698648,12.374275 13,13.606969 V 9.4702501 c 0,0 -0.002,0 -0.002,0 0.0018,-0.1815559 0.0012,-0.4623445 -0.03516,-0.8417969 -0.04871,-0.5087145 -0.652344,-2.2011718 -0.652344,-2.2011718 0,0 -0.478495,1.598269 -0.248047,2.3203125 0.02618,0.082029 0.08879,0.1613504 0.146484,0.2402343 C 11.775198,8.6977339 11.287393,8.321728 11.060547,7.9722032 10.591418,7.2493658 10.414062,5.4448595 10.414062,5.4448595 Z M 8.7949219,7.5015001 8.3261719,8.2847032 C 7.9022249,8.9912818 8.0972287,9.4129819 8.5273438,10.185094 Z M 7.5097656,10.439 c 0,0 -0.4889615,0.64268 -0.5078125,1.402344 -0.089052,3.588625 4.7755659,6.863611 5.4863279,8.890625 C 12.723261,21.402109 13,22.439 13,22.439 V 15.0015 C 12.064584,13.318541 9.9493135,13.468272 8.328125,11.843297 7.8069272,11.320882 7.5097656,10.439 7.5097656,10.439 Z"/>
 <path style="fill:#ecba9e" d="m 7.5091707,9.938576 c 0,0 0.2986206,0.882832 0.8198184,1.405247 C 9.9501776,12.968798 12.064584,12.819625 13,14.502584 v 7.435992 c 0,0 -0.275767,-1.035836 -0.510747,-1.705976 C 11.778491,18.205586 6.9121546,14.929798 7.0012069,11.341173 7.0200579,10.581509 7.5091707,9.938576 7.5091707,9.938576 Z"/>
 <path style="fill:#ecba9e" d="m 10.413271,4.9457342 c 0,0 0.177557,1.8037298 0.646686,2.5265673 C 11.506962,8.161046 13,8.9703545 13,8.9703545 V 13.10677 C 11.698648,11.874076 8.9618103,9.9185515 10.413271,4.9457342 Z"/>
 <path style="fill:#ecba9e" d="m 12.311101,5.927945 c 0,0 0.602255,1.6931875 0.650967,2.201902 0.05349,0.558629 0.03475,1.040153 0.03475,1.040153 0,0 -0.785002,-0.4550615 -0.934107,-0.9222395 C 11.832263,7.525717 12.311104,5.927945 12.311104,5.927945 Z"/>
 <path style="fill:#ecba9e" d="M 8.3253403,7.785328 8.7948788,7.0027625 8.5265708,9.685843 C 8.0964558,8.913731 7.9013933,8.4919065 8.3253403,7.785328 Z"/>
 <path style="fill:#ecba9e" d="M 10.89274,3.6394758 10.695185,3.2301931 C 10.645255,3.9545568 10.148113,4.5447787 10.57431,5.057529 11.177387,4.6431558 11.191761,4.2589664 10.89274,3.6394758 Z"/>
</svg>
