<svg xmlns="http://www.w3.org/2000/svg" width="24" height="24" version="1">
 <rect style="fill:#435ece" width="20" height="20" x="2" y="2" rx="1" ry="1"/>
 <path style="opacity:0.1;fill:#8b9cbe" d="M 3,2 C 2.446,2 2,2.446 2,3 v 0.5 c 0,-0.554 0.446,-1 1,-1 h 18 c 0.554,0 1,0.446 1,1 V 3 C 22,2.446 21.554,2 21,2 Z"/>
 <path style="opacity:0.2" d="m 3,22.5 c -0.554,0 -1,-0.446 -1,-1 V 21 c 0,0.554 0.446,1 1,1 h 18 c 0.554,0 1,-0.446 1,-1 v 0.5 c 0,0.554 -0.446,1 -1,1 z"/>
 <path style="opacity:0.2" d="m 13,19.5 h -2 v -2 h 2 z m 2.07,-7.75 -0.9,0.92 C 13.45,13.4 13,14 13,15.5 H 11 V 15 c 0,-1.1 0.45,-2.1 1.17,-2.83 l 1.24,-1.26 C 13.78,10.55 14,10.05 14,9.4999998 c 0,-1.1 -0.9,-2 -2,-2 -1.1,0 -2,0.9 -2,2 H 8 c 0,-2.21 1.7900001,-4 4,-4 2.21,0 4,1.79 4,4 C 16,10.38 15.64,11.18 15.07,11.75 Z"/>
 <path style="fill:#8b9cbe" d="m 13,19 h -2 v -2 h 2 z m 2.07,-7.75 -0.9,0.92 C 13.45,12.9 13,13.5 13,15 h -2 v -0.5 c 0,-1.1 0.45,-2.1 1.17,-2.83 l 1.24,-1.26 C 13.78,10.05 14,9.5500002 14,8.9999998 c 0,-1.1 -0.9,-2 -2,-2 -1.1,0 -2,0.9 -2,2 H 8 c 0,-2.21 1.7900001,-4 4,-4 2.21,0 4,1.79 4,4 C 16,9.8800002 15.64,10.68 15.07,11.25 Z"/>
</svg>
