<svg xmlns="http://www.w3.org/2000/svg" width="24" height="24" version="1">
 <path style="opacity:0.2;fill:#8b9cbe" d="m 106.53763,-34.516129 c -1.108,0 -2,0.892 -2,2 v 1 c 0,-1.108 0.892,-2 2,-2 h 36 c 1.108,0 2,0.892 2,2 v -1 c 0,-1.108 -0.892,-2 -2,-2 z"/>
 <path style="opacity:0.2" d="M 7.738248,2.5003451 C 7.53236,2.4970801 7.3262335,2.5169601 7.1232185,2.5619718 6.186618,2.7696306 5.3441325,3.4085122 4.937962,4.3921889 4.8692028,4.558711 4.7067927,5.049454 4.720606,5.5807055 4.4425288,5.697851 4.1706721,5.8308515 3.9515752,6.023831 3.1419817,6.7368905 2.7675583,7.766711 2.9856569,8.860619 c 0.021388,0.1073315 0.024534,0.04449 0.042887,0.1154275 -0.2997335,0.2598595 -0.5499098,0.550749 -0.6754606,0.794301 -0.6625622,1.2852965 -0.26648,2.3790025 0.1617987,3.3914275 0.4282786,1.012426 1.0893469,2.132123 2.0302803,3.561636 0.8686942,1.319772 1.5544157,2.190083 2.3957892,2.994278 2.386476,2.281034 5.3263055,3.281049 8.2068945,2.542349 2.317757,-0.594373 4.306106,-2.082014 5.459241,-4.150514 1.116218,-2.002292 1.531824,-4.572055 1.352871,-7.084143 -0.0899,-1.2620305 -0.19137,-2.1842665 -0.58579,-3.1087275 C 21.176957,7.454423 20.872092,6.9564885 20.362439,6.5696685 19.852788,6.182848 19.175261,5.9999265 18.636262,6.0003545 h -9.49e-4 c -0.829274,9e-4 -1.888471,0.49359 -2.453297,1.1904725 C 14.929444,5.225351 13.984891,3.8836689 12.666284,3.1185692 11.829629,2.6331152 10.611606,2.3772653 9.520957,3.1234602 8.974086,2.7305086 8.355911,2.5101473 7.738248,2.5003451 Z"/>
 <path style="fill:#17191e" d="M 7.738248,2.0003453 C 7.53236,1.9970803 7.3262335,2.0169603 7.1232185,2.061972 6.186618,2.2696308 5.3441325,2.9085123 4.937962,3.8921891 4.8692028,4.0587112 4.7067927,4.5494544 4.720606,5.0807055 4.4425288,5.197851 4.1706721,5.3308515 3.9515752,5.523831 3.1419816,6.2368905 2.7675583,7.266711 2.9856569,8.360619 c 0.021388,0.1073315 0.024534,0.04449 0.042887,0.1154275 -0.2997335,0.2598595 -0.5499098,0.550749 -0.6754606,0.794301 -0.6625622,1.2852965 -0.26648,2.3790025 0.1617987,3.3914275 0.4282786,1.012426 1.0893469,2.132123 2.0302803,3.561636 0.8686942,1.319772 1.5544157,2.190083 2.3957892,2.994278 2.386476,2.281034 5.3263045,3.281049 8.2068935,2.542349 2.317758,-0.594373 4.306107,-2.082014 5.459242,-4.150514 1.116218,-2.002292 1.531824,-4.572055 1.352871,-7.084143 -0.0899,-1.2620305 -0.19137,-2.1842665 -0.58579,-3.1087275 C 21.176957,6.954423 20.872092,6.4564885 20.362439,6.0696685 19.852788,5.682848 19.175261,5.4999265 18.636262,5.5003545 h -9.49e-4 c -0.829274,9e-4 -1.888471,0.49359 -2.453297,1.1904725 C 14.929444,4.7253513 13.984891,3.3836691 12.666284,2.6185693 11.829629,2.1331153 10.611606,1.8772654 9.520957,2.6234603 8.974086,2.2305087 8.355911,2.0101474 7.738248,2.0003453 Z"/>
 <path style="opacity:0.2" d="m 14.64462,20.294631 c 1.806644,-0.461638 3.346568,-1.623227 4.218884,-3.182374 0.821828,-1.468916 1.25892,-3.820421 1.106472,-5.952745 C 19.802316,8.8144245 19.434348,7.9993685 18.636088,8 c -0.738784,8e-4 -1.186708,0.523103 -1.567052,2.023065 -0.0781,0.307982 -0.18608,0.628183 -0.239964,0.711562 -0.128612,0.199011 -0.436836,0.199011 -0.667456,0 -0.09662,-0.08338 -0.56268,-0.768429 -1.035688,-1.522336 C 13.500648,6.621843 12.467296,5.325426 11.65212,4.8541318 11.210868,4.5990223 10.752892,4.5843142 10.504668,4.8172817 10.183616,5.1185955 10.281688,5.650656 10.827224,6.56723 c 2.467396,4.145536 2.45712,4.124669 2.05436,4.171256 -0.219244,0.02534 -0.0419,0.258917 -2.343592,-3.0863125 C 9.5308525,6.188431 8.6044725,4.8941162 8.4793685,4.7759217 7.9525925,4.2782385 7.0386925,4.4821593 6.7577685,5.1600685 6.549448,5.662771 6.601048,5.762788 8.6749805,8.876198 c 1.251692,1.879061 1.9253955,2.949575 1.9120995,3.038319 -0.03444,0.229705 -0.225008,0.30111 -0.394912,0.147954 C 10.111676,11.989916 9.3338245,10.968436 8.4636085,9.7925135 7.5933965,8.61659 6.7920525,7.579322 6.6828485,7.4874705 6.2462005,7.1202225 5.68714,7.1353245 5.24152,7.5264155 c -0.2652919,0.23282 -0.3936159,0.601231 -0.3264119,0.937093 0.02796,0.1398095 0.7847119,1.256171 2.0255204,2.9881015 1.688472,2.356795 1.9779,2.795099 1.960812,2.969445 -0.01744,0.177896 -0.04639,0.20454 -0.222264,0.20454 -0.180436,0 -0.273392,-0.09435 -0.862916,-0.875888 C 5.371364,10.508511 5.224648,10.347219 4.7213721,10.347219 c -0.3341,0 -0.496672,0.08726 -0.625116,0.335531 -0.357392,0.690811 0.267712,2.163217 2.0886844,4.919798 0.8315,1.258728 1.383716,1.949943 2.111756,2.643314 2.0875955,1.988196 4.0748795,2.629581 6.3479235,2.048773 z"/>
 <path style="fill:#ffca34" d="m 14.64462,19.794631 c 1.806644,-0.461638 3.346568,-1.623227 4.218884,-3.182374 0.821828,-1.468916 1.25892,-3.820421 1.106472,-5.952745 C 19.802316,8.3144245 19.434348,7.4993685 18.636088,7.5 c -0.738784,8e-4 -1.186708,0.523103 -1.567052,2.0230645 -0.0781,0.3079825 -0.18608,0.6281835 -0.239964,0.7115625 -0.128612,0.199011 -0.436836,0.199011 -0.667456,0 -0.09662,-0.08338 -0.56268,-0.768429 -1.035688,-1.522336 C 13.500648,6.121843 12.467296,4.8254259 11.65212,4.3541319 11.210868,4.0990224 10.752892,4.0843144 10.504668,4.3172819 10.183616,4.6185954 10.281688,5.150656 10.827224,6.06723 c 2.467396,4.145536 2.45712,4.124669 2.05436,4.171256 -0.219244,0.02534 -0.0419,0.258917 -2.343592,-3.0863125 C 9.5308525,5.688431 8.6044725,4.3941164 8.4793685,4.2759219 7.9525925,3.7782387 7.0386925,3.9821595 6.7577685,4.6600684 6.549448,5.162771 6.601048,5.262788 8.6749805,8.376198 c 1.251692,1.879061 1.9253955,2.949575 1.9120995,3.038319 -0.03444,0.229705 -0.225008,0.30111 -0.394912,0.147954 C 10.111676,11.489916 9.3338245,10.468436 8.4636085,9.2925135 7.5933965,8.11659 6.7920525,7.079322 6.6828485,6.9874705 6.2462005,6.6202225 5.68714,6.6353245 5.24152,7.0264155 c -0.2652919,0.23282 -0.3936159,0.601231 -0.3264119,0.937093 0.02796,0.1398095 0.7847119,1.256171 2.0255204,2.9881015 1.688472,2.356795 1.9779,2.795099 1.960812,2.969445 -0.01744,0.177896 -0.04639,0.20454 -0.222264,0.20454 -0.180436,0 -0.273392,-0.09435 -0.862916,-0.875888 C 5.371364,10.008511 5.224648,9.847219 4.7213721,9.847219 c -0.3341,0 -0.496672,0.087261 -0.625116,0.335531 -0.357392,0.690811 0.267712,2.163217 2.0886844,4.919798 0.8315,1.258728 1.383716,1.949943 2.111756,2.643314 2.0875955,1.988196 4.0748795,2.629581 6.3479235,2.048773 z"/>
 <path style="opacity:0.1;fill:#8b9cbe" d="M 7.738281,2 C 7.5323935,1.996735 7.326062,2.0165117 7.123047,2.0615235 6.1864465,2.2691823 5.3436705,2.9089013 4.9375,3.8925781 4.8687408,4.0591002 4.7068898,4.5498035 4.7207031,5.0810545 4.4426259,5.1982 4.1702688,5.330458 3.9511719,5.5234375 3.2308726,6.15785 2.8580421,7.0440105 2.9375,8.001953 3.0018094,7.2392175 3.3582711,6.545642 3.9511719,6.0234375 4.1702688,5.830458 4.4426259,5.6982 4.7207031,5.5810545 4.7068898,5.049803 4.8687408,4.5591002 4.9375,4.3925781 5.3436705,3.4089013 6.1864465,2.7691823 7.123047,2.5615235 7.326062,2.5165117 7.5323935,2.496735 7.738281,2.5 8.355944,2.5098 8.973637,2.7300953 9.520508,3.1230469 10.611157,2.3768521 11.829361,2.6327101 12.666016,3.1181669 13.984623,3.8832667 14.929069,5.2249565 16.18164,7.1904325 16.746466,6.493547 17.806469,6.0009 18.635742,6 h 0.001 c 0.538998,-4.28e-4 1.215934,0.1825155 1.725586,0.569336 0.509652,0.38682 0.814508,0.8854255 1.011719,1.347656 0.39442,0.924461 0.496034,1.846368 0.585937,3.108399 0.01869,0.26232 0.02663,0.525219 0.03223,0.788086 0.0047,-0.42925 -0.0016,-0.859087 -0.03223,-1.288086 C 21.870058,9.26336 21.768443,8.341453 21.374023,7.416992 21.176813,6.9547615 20.871957,6.456156 20.362304,6.069336 19.852653,5.6825155 19.175717,5.499572 18.636719,5.5 h -10e-4 C 17.806446,5.5009 16.746443,5.993547 16.181617,6.6904295 14.929069,4.724954 13.984623,3.3832638 12.666016,2.618164 11.829361,2.1327101 10.611157,1.876852 9.520508,2.6230469 8.973637,2.2300953 8.355944,2.0098022 7.738281,2 Z M 2.9453125,8.558594 C 2.686335,8.796669 2.4661309,9.052049 2.3535156,9.270508 2.047064,9.8649895 1.972644,10.417006 2.0175781,10.94043 2.0471586,10.566868 2.1427966,10.179279 2.3535156,9.770508 2.4790664,9.526956 2.7285869,9.2354455 3.0283203,8.975586 3.0099678,8.9046485 3.0067393,8.967681 2.9853518,8.8603515 2.9651003,8.7587775 2.9554728,8.6588605 2.9453125,8.558594 Z"/>
 <path style="opacity:0.2;fill:#8b9cbe" d="M 7.777344,4 C 7.3563015,3.99782 6.93339,4.2364631 6.7578125,4.6601562 6.679108,4.8500799 6.6379785,4.9839787 6.7285175,5.243164 6.7386325,5.215614 6.7455275,5.189805 6.7578125,5.160156 7.0387365,4.482247 7.952716,4.2786839 8.479492,4.7763672 8.604596,4.8945617 9.530946,6.188601 10.538086,7.652344 c 2.301697,3.345229 2.124506,3.111282 2.34375,3.085937 0.195324,-0.0226 0.291578,-0.03795 0.06445,-0.511718 -0.02175,0.0034 -0.03906,0.0088 -0.06445,0.01172 -0.219244,0.02535 -0.04205,0.259291 -2.34375,-3.0859375 C 9.530946,5.688601 8.604596,4.3945617 8.479492,4.2763672 8.281951,4.0897359 8.029969,4.0013082 7.777344,4 Z m 3.228516,0.1523437 c -0.200679,-0.00644 -0.376866,0.048555 -0.500977,0.1650391 -0.174776,0.1640305 -0.220793,0.399982 -0.142579,0.7255862 0.03016,-0.085557 0.07484,-0.1620157 0.142579,-0.2255862 0.248223,-0.2329675 0.706209,-0.2180001 1.147461,0.03711 0.815176,0.4712942 1.848353,1.7669737 3.473633,4.3574217 0.473008,0.753907 0.938536,1.4390825 1.035156,1.5224615 0.23062,0.19901 0.539356,0.19901 0.667968,0 0.05388,-0.08338 0.162139,-0.402955 0.240235,-0.710938 C 17.44968,8.523476 17.896958,8.0008 18.635742,8 c 0.79826,-6.5e-4 1.166325,0.8140915 1.333984,3.15918 0.01394,0.194994 0.01822,0.393003 0.02246,0.59082 0.0068,-0.366278 0.0032,-0.731712 -0.02246,-1.09082 C 19.802066,8.3140915 19.434002,7.4993685 18.635742,7.5 c -0.738784,8e-4 -1.186062,0.523476 -1.566406,2.0234375 -0.0781,0.3079825 -0.186351,0.6275585 -0.240235,0.7109375 -0.128612,0.199011 -0.437348,0.199011 -0.667968,0 C 16.064513,10.150996 15.598985,9.465821 15.125977,8.711914 13.500697,6.121466 12.46752,4.8257862 11.652344,4.3544922 11.431718,4.2269375 11.206538,4.1587885 11.00586,4.1523437 Z M 5.9658205,6.722656 C 5.7157715,6.729411 5.464021,6.8308215 5.241211,7.026367 c -0.2652919,0.23282 -0.3933759,0.601638 -0.3261719,0.9375 0.00121,0.00608 0.02339,0.03908 0.027343,0.04883 0.052741,-0.1844295 0.1512919,-0.35685 0.2988284,-0.4863285 0.44562,-0.391091 1.004758,-0.4063105 1.441406,-0.039065 0.109204,0.091851 0.911038,1.129741 1.78125,2.3056645 0.8702155,1.175922 1.6480235,2.196975 1.7285155,2.269531 0.169904,0.153155 0.360091,0.08127 0.394531,-0.148438 0.0036,-0.02364 -0.0497,-0.126423 -0.141601,-0.286133 -0.07416,0.03064 -0.165794,0.01312 -0.25293,-0.06543 C 10.111891,11.489943 9.3340825,10.46889 8.463867,9.292968 7.593655,8.1170445 6.791821,7.079155 6.682617,6.9873035 6.464293,6.8036795 6.215869,6.7158995 5.9658205,6.722655 Z m -1.2441408,3.125 c -0.3341,0 -0.496556,0.086691 -0.625,0.334961 -0.093513,0.180754 -0.1161271,0.419044 -0.071289,0.715821 0.016071,-0.07814 0.038062,-0.151595 0.071289,-0.215821 0.128444,-0.248269 0.2909,-0.334961 0.625,-0.334961 0.5032758,0 0.6498298,0.161148 3.0947263,3.402344 0.5895245,0.781534 0.681869,0.875977 0.862305,0.875977 0.175874,0 0.205216,-0.02718 0.222656,-0.205078 0.00516,-0.05264 -0.038365,-0.155483 -0.1191405,-0.301758 -0.02721,0.0048 -0.061139,0.0068 -0.1035155,0.0068 -0.180436,0 -0.2727805,-0.09444 -0.862305,-0.875977 C 5.3715095,10.008803 5.2249555,9.847655 4.7216797,9.847655 Z"/>
</svg>
