<svg xmlns="http://www.w3.org/2000/svg" width="24" height="24" version="1.1">
 <rect style="opacity:0.2" width="20" height="20" x="2" y="2.5" rx="1" ry="1"/>
 <rect style="fill:#4f4f4f" width="20" height="20" x="2" y="2" rx="1" ry="1"/>
 <path style="opacity:0.2" d="M 4,5.5 V 9.5 H 5 V 5.5 Z M 6,5.5 V 9.5 H 7 V 5.5 Z M 8,5.5 V 9.5 H 9 V 5.5 Z M 15,5.5 V 9.5 H 16 V 5.5 Z M 17,5.5 V 9.5 H 18 V 5.5 Z M 19,5.5 V 9.5 H 20 V 5.5 Z M 4,10.5 V 14.5 H 5 V 10.5 Z M 6,10.5 V 14.5 H 7 V 10.5 Z M 8,10.5 V 14.5 H 9 V 10.5 Z M 10,10.5 V 14.5 H 11 V 10.5 Z M 13,10.5 V 14.5 H 14 V 10.5 Z M 15,10.5 V 14.5 H 16 V 10.5 Z M 17,10.5 V 14.5 H 18 V 10.5 Z M 19,10.5 V 14.5 H 20 V 10.5 Z M 4,15.5 V 19.5 H 5 V 15.5 Z M 6,15.5 V 19.5 H 7 V 15.5 Z M 8,15.5 V 19.5 H 9 V 15.5 Z M 15,15.5 V 19.5 H 16 V 15.5 Z M 17,15.5 V 19.5 H 18 V 15.5 Z M 19,15.5 V 19.5 H 20 V 15.5 Z"/>
 <path style="fill:#8bc34a" d="M 6,5 V 9 H 7 V 5 Z M 8,5 V 9 H 9 V 5 Z M 6,10 V 14 H 7 V 10 Z M 8,10 V 14 H 9 V 10 Z M 6,15 V 19 H 7 V 15 Z M 8,15 V 19 H 9 V 15 Z"/>
 <path style="fill:#ff9800" d="M 10,10 V 14 H 11 V 10 Z M 13,10 V 14 H 14 V 10 Z"/>
 <path style="fill:#ff5722" d="M 15,5 V 9 H 16 V 5 Z M 17,5 V 9 H 18 V 5 Z M 15,10 V 14 H 16 V 10 Z M 17,10 V 14 H 18 V 10 Z M 15,15 V 19 H 16 V 15 Z M 17,15 V 19 H 18 V 15 Z"/>
 <path style="fill:#d4d4d4" d="M 20,9 H 19 V 5 H 20 Z M 20,14 H 19 V 10 H 20 Z M 20,19 H 19 V 15 H 20 Z M 4,15 H 5 V 19 H 4 Z M 4,10 H 5 V 14 H 4 Z M 4,5 H 5 V 9 H 4 Z"/>
 <path style="opacity:0.1;fill:#8b9cbe" d="M 2,2 C 1.446,2 1,2.446 1,3 V 3.5 C 1,2.946 1.446,2.5 2,2.5 H 21 C 21.554,2.5 22,2.946 22,3.5 V 3 C 22,2.446 21.554,2 21,2 Z"/>
</svg>
