<svg xmlns="http://www.w3.org/2000/svg" width="24" height="24" version="1">
 <rect style="fill:#66aa33" width="20" height="20" x="2" y="2" rx="1" ry="1"/>
 <path style="opacity:0.2" d="m 4,8.4998857 v 2.9999993 3 h 1 v -2.898438 c 0.030209,-0.01374 0.061998,-0.03149 0.1464844,-0.04883 0.2271073,-0.0466 0.5722656,-0.05273 0.8222656,-0.05273 0.25,0 0.6104879,0.0046 0.8574219,0.05273 0.094609,0.01846 0.1382892,0.03887 0.1738281,0.05469 v 2.892578 h 1 v -3 C 8,11.202948 7.8056776,10.928807 7.609375,10.79676 7.4130724,10.664713 7.2145171,10.610567 7.0175781,10.572151 6.6237001,10.495319 6.21875,10.499885 5.96875,10.499885 5.730929,10.499885 5.363987,10.499341 5,10.566291 V 8.4998857 Z m 10,0 v 5.9999993 h 1 V 8.4998857 Z M 9,10.499885 v 3 c 0,0.296937 0.1943224,0.571078 0.390625,0.703125 0.1963026,0.132047 0.3948579,0.186193 0.5917969,0.224609 0.3938781,0.07683 0.7988281,0.07227 1.0488281,0.07227 0.25,0 0.641357,0.0061 1.023438,-0.07227 0.191039,-0.0392 0.385267,-0.09628 0.576171,-0.232422 C 12.821763,14.059063 13,13.786281 13,13.499885 v -3 h -1 v 2.898438 c -0.03021,0.01374 -0.062,0.03149 -0.146484,0.04883 -0.227108,0.0466 -0.572266,0.05273 -0.822266,0.05273 -0.25,0 -0.610488,-0.0046 -0.857422,-0.05273 C 10.079219,13.428692 10.035539,13.408282 10,13.392463 v -2.892578 z m 7,0 v 3 c 0,0.296937 0.194322,0.571078 0.390625,0.703125 0.196303,0.132047 0.394858,0.186193 0.591797,0.224609 0.393878,0.07683 0.798828,0.07227 1.048828,0.07227 0.25,0 0.641357,0.0061 1.023438,-0.07227 0.19104,-0.0392 0.385267,-0.09628 0.576171,-0.232422 C 19.821763,14.059063 20,13.786281 20,13.499885 v -3 h -1 v 2.898438 c -0.03021,0.01374 -0.062,0.03149 -0.146484,0.04883 -0.227108,0.0466 -0.572266,0.05273 -0.822266,0.05273 -0.25,0 -0.610488,-0.0046 -0.857422,-0.05273 C 17.079219,13.428692 17.035539,13.408282 17,13.392463 v -2.892578 z"/>
 <path style="opacity:0.2;fill:#8b9cbe" d="M 3,2 C 2.446,2 2,2.446 2,3 v 0.5 c 0,-0.554 0.446,-1 1,-1 h 18 c 0.554,0 1,0.446 1,1 V 3 C 22,2.446 21.554,2 21,2 Z"/>
 <path style="opacity:0.2" d="m 3,22.5 c -0.554,0 -1,-0.446 -1,-1 V 21 c 0,0.554 0.446,1 1,1 h 18 c 0.554,0 1,-0.446 1,-1 v 0.5 c 0,0.554 -0.446,1 -1,1 z"/>
 <rect style="fill:#8b9cbe" width="1" height="6" x="14" y="8"/>
 <path style="fill:none;stroke:#8b9cbe" d="m 4.5,14 v -3 c 0,-0.5 0.968376,-0.5 1.468376,-0.5 0.5,0 1.531624,0 1.531624,0.5 v 3"/>
 <rect style="fill:#8b9cbe" width="1" height="6" x="4" y="8"/>
 <path style="fill:none;stroke:#8b9cbe" d="m 12.5,10 v 3 c 0,0.5 -0.968376,0.5 -1.468376,0.5 C 10.531624,13.5 9.5,13.5 9.5,13 v -3"/>
 <path style="fill:none;stroke:#8b9cbe" d="m 19.5,10 v 3 c 0,0.5 -0.968376,0.5 -1.468376,0.5 -0.5,0 -1.531624,0 -1.531624,-0.5 v -3"/>
</svg>
