<svg width="24" height="24" version="1.1" xmlns="http://www.w3.org/2000/svg">
 <g transform="translate(1,1)">
  <path d="m9 1.5c-0.554 0-1 0.446-1 1l-3 1-1 2h-1v4l1 1h1l1 1h10l1-1h1l1-1v-4h-1l-1-2-3-1c0-0.554-0.446-1-1-1zm-8 4 1 2v-2zm19 0v2l1-2z" style="opacity:.2"/>
  <path d="m9 1c-0.554 0-1 0.446-1 1l-3 1-1 2h-1v4l1 1h1l1 1h10l1-1h1l1-1v-4h-1l-1-2-3-1c0-0.554-0.446-1-1-1zm-8 4 1 2v-2zm19 0v2l1-2z" style="fill:#7eacf9"/>
  <path d="m5 16.5 1 2h10l1-2z" style="opacity:.2"/>
  <path d="m5 16 1 2h10l1-2z" style="fill:#8149bf"/>
  <path d="m3 14.5 1 2h14l1-2z" style="opacity:.2"/>
  <path d="m3 14 1 2h14l1-2z" style="fill:#ad509c"/>
  <path d="m1 12.5 1 2h18l1-2z" style="opacity:.2"/>
  <path d="m1 12 1 2h18l1-2z" style="fill:#de7ca2"/>
  <path d="m4 12.5 6 7h2l6-7zm5 8 2 1 2-1z" style="opacity:.2"/>
  <path d="m4 12h14l-6 7h-2z" style="fill:#f6e195"/>
  <path d="m9 20h4l-2 1z" style="fill:#f6e195"/>
  <path d="m10 1.4999999-3 3v4l3 3.0000001h2l3-3.0000001v-4l-3-3zm-4 4-1 1 1 1zm10 0v2l1-1z" style="opacity:.2"/>
  <path d="m10 1-3 3v4l3 3h2l3-3v-4l-3-3zm-4 4-1 1 1 1zm10 0v2l1-1z" style="fill:#8288f9"/>
  <path d="m8 7.5v-2l2-2h2l2 2v2l-2 2h-2z" style="opacity:.2"/>
  <path d="m8 7v-2l2-2h2l2 2v2l-2 2h-2z" style="fill:#8149bf"/>
  <path d="m10 8.5h2l1-1v-2l-1-1h-2l-1 1v2z" style="opacity:.2"/>
  <path d="m10 8h2l1-1v-2l-1-1h-2l-1 1v2z" style="fill:#de7ca2"/>
  <rect x="10" y="5.5" width="2" height="2" style="opacity:.2"/>
  <rect x="10" y="5" width="2" height="2" style="fill:#f6e195"/>
  <path d="m4 12 0.4277344 0.5h13.144532l0.427734-0.5zm5 8 1 0.5h2l1-0.5z" style="fill:#8b9cbe;opacity:.2"/>
  <path d="m9 1c-0.554 0-1 0.446-1 1l-3 1-1 2h-1v0.5h1l1-2 3-1c0-0.554 0.446-1 1-1h4c0.554 0 1 0.446 1 1l3 1 1 2h1v-0.5h-1l-1-2-3-1c0-0.554-0.446-1-1-1zm-8 4 0.25 0.5h0.75v-0.5zm19 0v0.5h0.75l0.25-0.5z" style="fill:#8b9cbe;opacity:.2"/>
 </g>
</svg>
