<svg xmlns="http://www.w3.org/2000/svg" width="24" height="24" version="1">
 <rect style="fill:#2095f2" width="20" height="20" x="2" y="2" rx="1" ry="1"/>
 <path style="opacity:0.2;fill:#8b9cbe" d="M 3,2 C 2.446,2 2,2.446 2,3 l 0,0.5 c 0,-0.554 0.446,-1 1,-1 l 18,0 c 0.554,0 1,0.446 1,1 L 22,3 C 22,2.446 21.554,2 21,2 L 3,2 Z"/>
 <path style="opacity:0.2" d="m 3,22.5 c -0.554,0 -1,-0.446 -1,-1 L 2,21 c 0,0.554 0.446,1 1,1 l 18,0 c 0.554,0 1,-0.446 1,-1 l 0,0.5 c 0,0.554 -0.446,1 -1,1 l -18,0 z"/>
 <path style="opacity:0.2" d="M 16.046485,5.8535156 C 15.692045,6.798616 15.278811,7.67301 14.806251,8.5 l -3.806641,0 0,1 1.03125,0 0,1.919922 c -1e-5,0.354421 -0.02118,0.765038 -0.06055,1.080078 l -1.949219,0 0,1 1.832032,0 c -0.2363,2.0872 -1.043575,4.089381 -2.421876,5.113281 L 10.056251,19.5 c 1.6146,-1.1814 2.560257,-3.4796 2.835937,-6 l 3.097656,0 0,5.941406 1.009766,0 0,-5.941406 2,0 0,-1 -2,0 0,-3 1,0 0,-1 -1.953125,0 c 0.4332,-0.6695 0.865628,-1.424616 1.298828,-2.2910156 L 16.046485,5.8535156 Z M 12.501563,6.03125 11.321876,6.3867188 c 0.433,0.5513 0.767906,1.1797718 1.003906,1.8886718 L 13.566016,7.8632812 C 13.329716,7.1938813 12.974123,6.5826 12.501563,6.03125 Z M 7.0210938,6.5 l 0,2 -2.0214844,0 0,1 2.0214844,0 0,2.970703 C 6.2728938,12.785763 5.76638,13.100976 4.9,13.416016 l 0.4140625,1.238281 c 0.7088,-0.27566 1.0769313,-0.550502 1.7070313,-0.826172 l 0,3.720703 c 0,0.47257 -0.098022,0.708984 -0.2949219,0.708984 -0.5513,0 -1.1833625,-0.07881 -1.6953125,-0.236328 l 0.2363281,1.240235 c 0.4726,0.11814 0.9857694,0.177734 1.5371094,0.177734 0.47255,0 0.7073869,-0.117235 0.9042969,-0.353515 0.1969,-0.236301 0.2949219,-0.649515 0.2949218,-1.240235 l 0,-4.607422 1.1132813,-0.646484 -0.1777344,-1.060547 c -0.5119,0.2363 -0.4235468,0.190797 -0.9355469,0.466797 l 0,-2.498047 1.9960941,0 0,-1 -1.9960941,0 0,-2 -0.9824218,0 z m 5.9882822,3 2.982422,0 0,3 -3.041016,0 c 0.03937,-0.27566 0.05859,-0.626664 0.05859,-0.902344 l 0,-2.097656 z"/>
 <path style="fill:#8b9cbe" d="M 16.046485,5.3535156 C 15.692045,6.298616 15.278811,7.17301 14.806251,8 l -3.806641,0 0,1 1.03125,0 0,1.919922 C 12.03085,11.274343 12.00968,11.68496 11.97031,12 l -1.949219,0 0,1 1.832032,0 c -0.2363,2.0872 -1.043575,4.089381 -2.421876,5.113281 L 10.056251,19 c 1.6146,-1.1814 2.560257,-3.4796 2.835937,-6 l 3.097656,0 0,5.941406 1.009766,0 0,-5.941406 2,0 0,-1 -2,0 0,-3 1,0 0,-1 -1.953125,0 c 0.4332,-0.6695 0.865628,-1.424616 1.298828,-2.2910156 L 16.046485,5.3535156 Z M 12.501563,5.53125 11.321876,5.8867188 c 0.433,0.5513 0.767906,1.1797718 1.003906,1.8886718 L 13.566016,7.3632812 C 13.329716,6.6938813 12.974123,6.0826 12.501563,5.53125 Z M 7.0210938,6 l 0,2 -2.0214844,0 0,1 2.0214844,0 0,2.970703 C 6.2728938,12.285763 5.76638,12.600976 4.9,12.916016 l 0.4140625,1.238281 c 0.7088,-0.27566 1.0769313,-0.550502 1.7070313,-0.826172 l 0,3.720703 c 0,0.47257 -0.098022,0.708984 -0.2949219,0.708984 -0.5513,0 -1.1833625,-0.07881 -1.6953125,-0.236328 l 0.2363281,1.240235 c 0.4726,0.11814 0.9857694,0.177734 1.5371094,0.177734 0.47255,0 0.7073869,-0.117235 0.9042969,-0.353515 0.1969,-0.236301 0.2949219,-0.649515 0.2949218,-1.240235 l 0,-4.607422 1.1132813,-0.646484 -0.1777344,-1.060547 c -0.5119,0.2363 -0.4235468,0.190797 -0.9355469,0.466797 l 0,-2.498047 1.9960941,0 0,-1 -1.9960941,0 0,-2 -0.9824218,0 z m 5.9882822,3 2.982422,0 0,3 -3.041016,0 c 0.03937,-0.27566 0.05859,-0.626664 0.05859,-0.902344 l 0,-2.097656 z"/>
</svg>
