<svg xmlns="http://www.w3.org/2000/svg" width="24" height="24" version="1.1">
 <circle style="opacity:0.2" cx="12" cy="12.5" r="10"/>
 <path style="fill:#0056a9" d="m 21.174924,12.165015 c 0,3.853458 -1.354525,7.032827 -4.548149,8.702561 C 15.243237,21.590936 13.669389,22 12,22 6.4771525,22 2,17.522847 2,12 2,11.034955 2.1367009,10.101838 2.3917949,9.2189565 3.5965758,5.049206 7.772228,2.8250758 12.33003,2.8250758 c 5.522848,0 8.844894,3.8170917 8.844894,9.3399392 z"/>
 <path style="fill:#ffe339;fill-rule:evenodd" d="M 14.602539,3.1355117 C 14.38006,3.1278503 14.159968,3.1283482 13.944336,3.1364883 11.880007,3.2144228 9.427298,4.568468 8.59,6.541992 7.644556,8.770421 7,12 12.000977,12 c 1.321676,-2.2726835 4.775092,-1.811825 6.232421,0.121094 1.290629,1.711818 1.220527,4.040621 0.25586,5.867187 -0.806125,1.52637 -2.16556,3.043376 -3.985352,3.693359 C 18.815828,20.571481 22,16.656539 22,12 22,9.290724 20.921078,6.827584 19.168945,5.026367 19.084308,4.9531531 18.991591,4.8874928 18.90332,4.8173828 17.647251,3.8545899 16.070035,3.1860469 14.602539,3.1355117 Z"/>
 <path style="opacity:0.2;fill-rule:evenodd" d="m 14.602539,3.3855892 c -0.222479,-0.00766 -0.442571,-0.00716 -0.658203,9.75e-4 C 11.880007,3.4644987 9.8275325,4.5683134 8.9902345,6.5418375 8.751986,7.103394 8.659503,7.7281195 8.694336,8.3484785 8.720296,7.8967 8.816006,7.452497 8.9902345,7.0418375 9.8275325,5.0683135 11.880007,3.9644987 13.944336,3.8865641 15.669394,3.8214438 17.662893,4.2402068 19.135742,5.4910565 18.465449,4.8075761 17.707468,4.2371384 16.892578,3.7810969 16.138016,3.539629 15.356113,3.4115394 14.602539,3.3855892 Z M 2.2890625,10.635589 c -0.072526,1.630542 0.4917839,3.233481 1.2802735,4.487305 1.0996647,1.748632 3.082033,2.974597 5.209961,2.71289 1.974469,-0.242834 3.758321,-2.149227 3.607422,-4.086914 -0.15647,1.7541 -1.803678,3.365077 -3.607422,3.586914 C 6.651369,17.597491 4.6690007,16.371526 3.569336,14.622894 2.8617492,13.497719 2.3382981,12.090639 2.2890625,10.635589 Z"/>
 <path style="opacity:0.2;fill-rule:evenodd" d="m 8.694336,8.348633 c -0.114904,1.999782 1.1619385,4.144693 3.306641,4.151367 1.321676,-2.272683 4.775092,-1.811825 6.232421,0.121094 0.625401,0.829496 0.928355,1.804001 0.967774,2.795898 0.05661,-1.160942 -0.237479,-2.327276 -0.967774,-3.295898 C 16.776069,10.188175 13.322653,9.7273165 12.000977,12 10.034311,11.99388 8.7977305,10.19005 8.694336,8.348633 Z m 13.297851,3.835938 c -0.06844,3.745329 -2.19256,6.98679 -5.296875,8.640624 -0.630164,0.57675 -1.360392,1.059628 -2.191406,1.356445 C 18.815828,21.071483 22,17.156539 22,12.5 22,12.394211 21.9955,12.289584 21.9922,12.184571 Z"/>
 <path style="fill:#ff6147;fill-rule:evenodd" d="M 11.791016,2.0019531 C 10.159882,2.0348153 8.5143465,2.4677185 7.001953,3.3408203 4.6554382,4.695455 3.0619037,6.8614345 2.3779297,9.279297 2.3588482,9.3787175 2.3487902,9.4827155 2.3330077,9.5839845 2.0850588,11.400882 2.6919369,13.227843 3.5693359,14.623047 4.6690006,16.371679 6.651369,17.597644 8.779297,17.335937 11.18207,17.040427 13.30852,14.280843 12.000977,12 9.371757,11.991819 8.0447905,8.770421 8.9902345,6.541992 9.8275325,4.5684678 11.880007,3.4646533 13.944336,3.3867188 15.669394,3.3215984 17.662893,3.7403614 19.135742,4.9912109 17.18732,3.0044514 14.509572,1.9471828 11.791016,2.0019531 Z"/>
 <path style="opacity:0.2;fill:#8b9cbe;fill-rule:evenodd" d="M 11.791016,2.0019531 C 10.159882,2.0348153 8.5143465,2.4677185 7.001953,3.3408203 4.6554384,4.695455 3.0619037,6.8614345 2.3779297,9.279297 c -0.019081,0.099421 -0.02914,0.2034185 -0.044922,0.3046875 -0.047988,0.351643 -0.055761,0.7025635 -0.043945,1.0517575 0.00818,-0.183858 0.01882,-0.367646 0.043945,-0.551757 0.015782,-0.1012695 0.025841,-0.2052675 0.044922,-0.304688 0.683974,-2.4178625 2.2775087,-4.583842 4.6240233,-5.9384767 1.5123935,-0.8731018 3.157929,-1.306005 4.789063,-1.3388672 1.784052,-0.035943 3.549203,0.4099784 5.103515,1.2802734 0.714081,0.2287741 1.398306,0.5672136 2.008789,1.0351563 0.07692,0.058957 0.158059,0.1106736 0.232422,0.1738281 C 17.18732,3.0044514 14.509572,1.9471829 11.791016,2.0019531 Z M 18.90332,4.8173828 C 18.293274,4.349775 17.60673,4.0131825 16.894531,3.7822265 17.708695,4.2380954 18.465972,4.8082623 19.135742,5.491211 19.061379,5.4280565 18.980236,5.37634 18.90332,5.317383 c 0.08827,0.07011 0.180988,0.1357705 0.265625,0.208984 1.683717,1.730885 2.742869,4.073797 2.823242,6.658204 C 21.993317,12.122688 22,12.062152 22,12 22,9.290724 20.921078,6.827584 19.168945,5.026367 19.084308,4.9531535 18.991591,4.8874928 18.90332,4.8173828 Z M 15.211914,3.428711 c 0.08676,0.00902 0.173725,0.022469 0.260742,0.03418 -0.08708,-0.011529 -0.17395,-0.0253 -0.260742,-0.03418 z m 0.601563,0.085937 C 15.930071,3.53518 16.046784,3.559289 16.163086,3.58496 16.046414,3.559595 15.930414,3.534902 15.813477,3.514648 Z m 0.563476,0.1201171 c 0.145571,0.036307 0.290583,0.074268 0.43457,0.1191407 -0.14423,-0.044378 -0.288771,-0.083303 -0.43457,-0.1191407 z M 15.211914,3.928711 c 0.08679,0.00888 0.173667,0.022651 0.260742,0.03418 -0.08702,-0.011711 -0.173982,-0.025164 -0.260742,-0.03418 z m 0.601563,0.085937 C 15.930414,4.034903 16.046414,4.059595 16.163086,4.08496 16.046784,4.059289 15.930071,4.03518 15.813477,4.014648 Z m 0.563476,0.1201172 c 0.145799,0.035838 0.29034,0.074763 0.43457,0.1191406 -0.143987,-0.044873 -0.288999,-0.082833 -0.43457,-0.1191406 z m 0.503906,0.1425781 c 0.537844,0.1733022 1.06077,0.4064019 1.547852,0.7109375 C 17.942228,4.6833925 17.419894,4.4488741 16.880859,4.2773433 Z m 2.320313,11.1396487 c -0.04343,0.890758 -0.293098,1.778274 -0.711914,2.571289 -0.806125,1.52637 -2.16556,3.043376 -3.985352,3.693359 0.770316,-0.198327 1.502846,-0.488897 2.189453,-0.854492 0.750743,-0.686608 1.357498,-1.508769 1.795899,-2.338867 0.497217,-0.941465 0.753843,-2.016226 0.711914,-3.071289 z"/>
</svg>
