<svg xmlns="http://www.w3.org/2000/svg" width="24" height="24" version="1.1">
 <circle style="opacity:0.2" cx="10.5" cy="14" r="8.5"/>
 <circle style="fill:#394e9a" cx="10.5" cy="13.5" r="8.5"/>
 <path style="opacity:0.4" d="M 5.2109374,6.8437506 C 4.0536334,7.6747026 2.9361881,8.8804695 2.3222656,11.338867 l 0.4892578,-0.697265 c 0.4360647,0.04908 0.7273927,0.298012 0.9785156,0.601562 l 0.1865234,0.264649 0.209961,-0.04883 0.3027343,0.264648 -0.023437,-0.192383 0.1630857,0.240235 0.163086,0.121093 0.116211,-0.04883 0.4658205,0.264649 0.3027345,-0.408203 -0.069336,-0.07227 0.3027339,-0.02442 0.116211,-0.457031 -0.2792964,0.241211 -0.326172,-0.02441 -0.023435,-0.167969 -0.092774,0 -0.1396485,-0.336914 -0.1171875,0.04785 -0.0459,0.216797 -0.1171875,-0.02441 0.046875,-0.432617 -0.2792965,-0.0957 -0.09375,-0.120117 0.1630855,-0.09668 0,-0.0957 -0.1630855,-0.09668 0.1630855,-0.264648 0.023435,-0.4082035 -0.2324215,0.02344 0.1865235,-0.335938 0.02246,-0.4814449 -0.1162105,-0.04785 0.023435,-0.095704 0.092773,-0.072266 0,-0.5292965 c 0.1630655,-0.4490775 0.3261915,-0.441584 0.489258,-0.600586 l 0,-0.504883 z m 4.6591793,3.7744134 -0.023435,0.240235 -0.092773,0.480468 -0.3261715,0.289063 0.070312,0.360351 0.302734,0.02441 0.02246,0.0957 -0.139648,0.09668 0,0.288086 -0.092773,0.120117 0.046875,0.216797 -0.3496095,0 -0.023435,0.167969 -0.8154295,-0.07227 C 8.5643747,12.689287 8.9043242,12.55497 8.0761758,11.892579 l -0.5820315,0.02344 -0.023435,-0.384766 -0.209961,-0.335937 -0.069336,0.648437 0.209961,0.192383 -0.046875,0.264648 c 0.4952395,0.16027 0.4196505,0.320205 0.5126955,0.480469 l 0.1396485,0.02441 0.069336,-0.288086 -0.558594,-0.361328 0.279297,0.07227 0.373047,0.240234 0.023435,0.601563 -0.209961,0.0957 0.1396485,0.3125 -0.069336,0.192383 -0.163086,0 -0.046875,0.168945 0.069336,0.240234 0.1865235,-0.02441 0.1865234,-0.21582 0.209961,0.288086 -0.163086,0.192383 0.139648,0.240234 0.116211,0 0.046875,0.360352 0.652344,0.384765 0.1396485,-0.04785 0,-0.192383 0.1865235,0.02441 0.2792965,0.240234 0,-0.384765 -0.1162105,-0.02442 0,-0.288086 0.208984,0 0.1865233,-0.552735 0.838868,0.625 c 0.01609,0.176487 0.06882,0.365104 -0.09277,0.480469 0.206757,0.221661 0.404048,0.442597 0.185547,0.601563 -0.211632,0.211248 -0.274278,0.405266 0.07031,0.552734 l 0.628907,0.07227 0.349609,-0.168946 0.489258,-0.07226 1.304687,-1.826172 0,-1.274414 c -0.126032,-0.07335 -0.256368,-0.164839 -0.443359,-0.552735 l -0.674805,-0.09668 c 0,0 0.139242,-0.120346 0.232422,-0.07227 0.09318,0.04808 0.512696,0 0.512696,0 l 0,-0.408203 -0.25586,-0.192383 0.06934,-0.432617 -0.209961,-0.216797 -3.3076173,-0.480469 z m 7.1054683,5.9375 -0.233398,0.241211 -0.04687,0.360352 -0.232422,0.384765 0.02343,0.263672 -0.150391,0.136719 -0.03614,0.0078 0.002,0.02246 -0.002,0.002 0.0039,0.01953 0.01953,0.196289 -0.116211,0 -0.234375,0.241211 -0.208984,0.167969 -0.112305,0.03321 -0.213867,0.01465 -0.0068,0.06348 -0.06836,0.160156 c -0.08618,0.01314 -0.559061,0.08263 -0.623047,0.0166 -0.01421,-0.01467 -0.0578,0.0096 -0.111328,0.04785 l -0.0059,0 -0.01758,0.01563 c -0.07527,0.05752 -0.170311,0.143404 -0.264648,0.234375 0,0 -10e-4,10e-4 -10e-4,10e-4 l -0.368164,0.326172 -0.02343,0.40918 -0.186523,0.264648 c 0.438823,0.08337 0.751655,0.03721 1.055663,-0.01855 0.983253,-0.09045 1.741093,-0.414199 2.15918,-1.087891 l -0.07031,-0.144531 0.419922,-0.263672 0.02246,-0.336914 0.140625,-0.04785 0.06934,-0.529297 0.209961,-0.432617 -0.07031,-0.672851 -0.489257,0.07226 -0.232422,-0.168945 z"/>
 <path style="opacity:0.2" d="M 9.9091792,2.5000008 C 5.4999189,2.4982908 3.4380926,5.9368522 2.6748047,10.558594 4.5915104,7.6073041 5.6962924,6.9277326 6.2548828,6.7197271 6.6785463,6.5739021 7.0491578,6.5117566 7.3740233,6.5224616 c 2.0164509,0.066433 2.2873874,3.0664769 2.7744137,5.8242184 0.299709,1.150775 1.041224,3.573958 2.396485,4.696289 0.370252,0.306617 0.8181,0.754884 1.251953,0.576172 0.388907,-0.160199 0.46927,-0.798223 0.154297,-1.457031 -0.242514,-0.799462 -0.71598,-1.499271 -0.978516,-2.355469 -0.540191,-1.761698 -0.857415,-2.560481 -0.282227,-4.2373045 0.314479,-0.9167889 0.974075,-1.7589219 1.293946,-1.3652344 l 0.612304,0.7539064 c 0.526471,1.017364 1.381957,1.8258025 2.448242,2.2880855 0.613728,0.300065 0.945402,0.371453 1.585938,0.08594 0.492636,-0.340377 0.164061,-1.270468 0.704101,-2.357421 0.408865,-0.8229334 0.800201,-1.2809804 0.769531,-2.1347654 0.144901,-0.06835 0.223986,-0.1878455 0.28418,-0.375 0.03082,-0.09582 0.302853,-0.2314504 0.460938,-0.3789064 0.451234,-0.3897425 0.73673,-0.913763 0.628906,-1.5947265 l -3.021485,0.508789 -1.039062,0 -0.420898,-0.75 C 16.77795,3.9616624 16.64394,3.5861304 16.315429,3.5146492 l -0.47168,1.0654296 C 14.292982,3.9057893 12.746301,2.5546034 9.9091792,2.5000008 Z M 4.9296874,12.515625 c -0.1259755,-6e-6 -0.260258,0.03647 -0.404297,0.120117 -0.620085,0.449546 -0.560502,1.096858 -0.5234374,1.904297 0.6008009,4.640377 4.7047682,7.906205 9.355469,7.959961 2.430083,-0.08423 4.910667,-1.430675 5.128905,-3.763672 0.02972,-0.542119 0.0022,-1.086034 -0.123047,-1.611328 -0.74872,1.663122 -2.363728,3.725457 -4.551757,3.357422 C 8.9870097,19.670922 7.8873983,17.269909 5.8974608,13.273438 5.6126864,12.850234 5.3076144,12.515645 4.9296874,12.515625 Z"/>
 <path style="fill:#2aa2f6" d="M 9.9091792,2.0000008 C 5.4999189,1.9982908 3.4380926,5.4368522 2.6748047,10.058594 4.5915104,7.1073041 5.6962924,6.4277326 6.2548828,6.2197272 6.6785463,6.0739022 7.0491578,6.0117567 7.3740233,6.0224617 c 2.0164509,0.066433 2.2873874,3.0664768 2.7744137,5.8242183 0.299709,1.150775 1.041224,3.573958 2.396485,4.696289 0.370252,0.306617 0.8181,0.754884 1.251953,0.576172 0.388907,-0.160199 0.46927,-0.798223 0.154297,-1.457031 -0.242514,-0.799462 -0.71598,-1.499271 -0.978516,-2.355469 -0.540191,-1.761698 -0.857415,-2.560481 -0.282227,-4.2373045 0.314479,-0.9167889 0.974075,-1.7589219 1.293946,-1.3652344 l 0.612304,0.7539065 c 0.526471,1.0173639 1.381957,1.8258024 2.448242,2.2880854 0.613728,0.300065 0.945402,0.371453 1.585938,0.08594 0.492636,-0.340377 0.164061,-1.2704675 0.704101,-2.3574209 0.408865,-0.8229335 0.800201,-1.2809805 0.769531,-2.1347655 0.144901,-0.06835 0.223986,-0.1878454 0.28418,-0.3749999 0.03082,-0.09582 0.302853,-0.2314505 0.460938,-0.3789065 0.451234,-0.3897425 0.73673,-0.9137628 0.628906,-1.5947265 l -3.021485,0.508789 -1.039062,0 L 16.99707,3.7500008 C 16.77795,3.4616624 16.64394,3.0861304 16.315429,3.0146492 l -0.47168,1.0654296 C 14.292982,3.4057893 12.746301,2.0546034 9.9091792,2.0000008 Z M 4.9296874,12.015625 c -0.1259755,-6e-6 -0.260258,0.03647 -0.404297,0.120117 -0.620085,0.449546 -0.560502,1.096858 -0.5234374,1.904297 0.6008009,4.640377 4.7047682,7.906205 9.355469,7.959961 2.430083,-0.08423 4.910667,-1.430675 5.128905,-3.763672 0.02972,-0.542119 0.0022,-1.086034 -0.123047,-1.611328 -0.74872,1.663122 -2.363728,3.725457 -4.551757,3.357422 C 8.9870097,19.170922 7.8873983,16.769909 5.8974608,12.773438 5.6126864,12.350234 5.3076144,12.015645 4.9296874,12.015625 Z"/>
 <path style="opacity:0.2;fill:#8b9cbe" d="M 9.9091792,2.0000008 C 5.4999189,1.9982918 3.4380926,5.4368522 2.6748047,10.058594 2.7197809,9.989341 2.7586488,9.9368925 2.8027344,9.8701175 3.6545032,5.6005297 5.7224754,2.4983771 9.9091792,2.5000008 c 2.8371218,0.054603 4.3838028,1.4057885 5.9345698,2.080078 l 0.47168,-1.0654296 c 0.328511,0.071481 0.462521,0.4470132 0.681641,0.7353515 l 0.420898,0.75 1.039062,0 3.021485,-0.508789 c 0.0013,0.00837 7.5e-4,0.016091 0.0019,0.024414 0.02497,-0.1637346 0.02764,-0.3374992 -0.0019,-0.5244141 l -3.021485,0.5087891 -1.039062,0 L 16.99707,3.7500008 C 16.77795,3.4616624 16.64394,3.0861304 16.315429,3.0146492 l -0.47168,1.0654296 C 14.292982,3.4057894 12.746301,2.0546034 9.9091792,2.0000008 Z M 12.40039,10.94043 c -0.05604,0.89764 0.201353,1.65657 0.572266,2.866211 0.262537,0.856198 0.736002,1.556007 0.978516,2.355469 0.08354,0.174743 0.137454,0.347452 0.166992,0.510742 0.05868,-0.276487 0.0109,-0.638657 -0.166992,-1.010742 -0.242514,-0.799462 -0.71598,-1.499271 -0.978516,-2.355469 -0.300862,-0.981187 -0.52539,-1.664358 -0.572266,-2.366211 z m -7.4707026,1.075195 c -0.1259755,-6e-6 -0.260258,0.03647 -0.404297,0.120117 -0.5253394,0.380858 -0.5594755,0.910869 -0.5361327,1.552735 0.029645,-0.420494 0.1525775,-0.774667 0.5361327,-1.052735 0.144039,-0.08364 0.2783215,-0.120123 0.404297,-0.120117 0.377927,2e-5 0.682999,0.334609 0.9677734,0.757813 1.9899375,3.996471 3.0895489,6.397484 7.9140622,7.208984 2.188029,0.368035 3.803037,-1.6943 4.551757,-3.357422 0.07761,0.325617 0.113788,0.659077 0.125977,0.994141 0.01972,-0.503168 -0.0098,-1.006727 -0.125977,-1.494141 -0.74872,1.663122 -2.363728,3.725457 -4.551757,3.357422 C 8.9870097,19.170922 7.8873983,16.769909 5.8974608,12.773438 5.6126864,12.350234 5.3076144,12.015645 4.9296874,12.015625 Z"/>
 <path style="fill:#001c41" d="M 16.000001,8.0000001 C 17.037779,8.8696745 16.980634,8.9976565 16.975,9 16.94884,8.8289865 16.95636,8.6918635 17,8.4166635 16.611107,8.0925771 16.329799,8.1271026 16,8.0000001 Z"/>
 <path style="fill:#001c41" d="m 17.681239,10.598354 0.333335,-0.14924 0.61111,0.04975 c -0.148147,0.142265 -0.296296,0.23882 -0.444444,0.248725 -0.09271,0.0055 -0.176626,-0.003 -0.555556,-0.08291 l 0.05556,-0.06633 z"/>
</svg>
