<svg xmlns="http://www.w3.org/2000/svg" width="24" height="24" version="1">
 <path style="opacity:0.2" d="M 2.50585,12.25 C 2.5038,12.3335 2.5,12.416 2.5,12.5 c 0,5.54 4.46,10 10,10 5.54,0 10,-4.46 10,-10 0,-0.08394 -0.0038,-0.16657 -0.0059,-0.25 -0.132,5.423 -4.538,9.75 -9.994,9.75 -5.456,0 -9.862,-4.327 -9.994,-9.75 z"/>
 <circle style="fill:#62a325" cx="12.5" cy="12" r="10"/>
 <path style="opacity:0.3" d="M 11.556,2.0537 A 10,10 0 0 0 7.9365002,3.1035 c 0.0505,0.1601 -0.0085,0.3406 -0.1925003,0.5 -0.1245,0.1079 -0.2265,0.2759 -0.2265,0.3741 0,0.2998 0.2710003,0.7602 0.4875003,0.8271 0.2875,0.089 0.191,0.3958 -0.179,0.5653 -0.1710003,0.0785 -0.3815003,0.3045 -0.4675003,0.502 -0.0865,0.198 -0.2135,0.393 -0.2825,0.4335 -0.0685,0.041 -0.125,0.1955 -0.125,0.344 0,0.2075 0.095,0.308 0.4065,0.4325 0.223,0.0895 0.4900003,0.1545 0.5935003,0.1445 0.5955,-0.056 0.637,0.291 0.1165,0.969 -0.2765,0.36 -0.4095003,0.4505 -0.5980003,0.405 -0.1755,-0.042 -0.2715,0.0075 -0.3515,0.1815 -0.084,0.1845 -0.222,0.247 -0.5925,0.2725 -0.3645,0.0255 -0.5275,0.0995 -0.664,0.299 -0.1,0.1455 -0.244,0.2635 -0.3205,0.2635 -0.0767,0 -0.2568,0.098 -0.4004,0.217 -0.2922,0.2425 -0.4063,0.267 -0.5088,0.1085 -0.1354,-0.21 -0.4275,-0.104 -0.8622,0.3125 -0.3846,0.368 -0.4311,0.4665 -0.3731,0.786 0.1032,0.5685 0.41155,1.073 0.76365,1.249 0.30725,0.1535 0.31325,0.17 0.12695,0.367 -0.10715,0.1135 -0.291,0.235 -0.4082,0.2705 -0.3385,0.103 -0.14795,0.232 0.45605,0.309 0.6182,0.0785 0.8103,0.3025 0.5215,0.608 -0.1611,0.171 -0.1521,0.203 0.1064,0.365 0.505,0.317 0.9066,0.123 0.4326,-0.209 -0.3047,-0.214 -0.0916,-0.3 0.3555,-0.146 0.3565,0.124 0.427,0.117 0.6375,-0.066 0.4325,-0.374 0.9025,0.18 0.507,0.598 -0.2515,0.266 -0.1755,0.587 0.1505,0.632 0.144,0.0195 0.443,0.1535 0.665,0.298 0.2220003,0.144 0.4640003,0.2625 0.5370003,0.2625 0.073,0 0.279,0.1465 0.458,0.3255 0.363,0.3625 0.5645,0.4085 0.667,0.153 0.123,-0.307 0.0735,-0.4655 -0.258,-0.827 -0.2635,-0.288 -0.692,-1.053 -0.692,-1.2365 0,-0.113 0.4355,-0.017 0.6795,0.1495 0.1525,0.1045 0.3995,0.239 0.549,0.3 0.159,0.065 0.324,0.267 0.3994998,0.488 0.1175,0.347 0.164,0.377 0.58,0.377 h 0.452 l 0.0685,0.8125 c 0.082,0.9775 0.1605,1.1755 0.496,1.256 0.247,0.0595 0.5105,0.442 0.5105,0.741 0,0.0795 -0.1775,0.2745 -0.3945,0.433 -0.269,0.1965 -0.385,0.3635 -0.367,0.527 0.0225,0.205 -0.024,0.237 -0.3135,0.215 -0.1865,-0.014 -0.5105,0.052 -0.7185,0.146 -0.2465,0.11 -0.5134998,0.146 -0.7639998,0.101 -0.288,-0.051 -0.3855,-0.031 -0.3855,0.081 0,0.083 -0.101,0.238 -0.224,0.345 -0.304,0.2635 -0.1785,0.403 0.2885,0.319 0.29,-0.052 0.403,-0.029 0.453,0.096 0.1065,0.2655 -0.1635,0.6455 -0.414,0.583 -0.159,-0.04 -0.235,0.0145 -0.2845,0.202 -0.017,0.0665 -0.0485,0.123 -0.086,0.171 a 10,10 0 0 0 1.5824998,0.4675 c -0.05,-0.096 -0.107,-0.183 -0.1625,-0.222 -0.2575,-0.182 -0.085,-0.655 0.2695,-0.74 0.3615,-0.087 0.3045,-0.322 -0.0885,-0.366 -0.3445,-0.04 -0.7109998,-0.388 -0.5959998,-0.567 0.0775,-0.1195 0.4069998,-0.102 1.0734998,0.056 0.301,0.071 0.5065,-0.072 1.204,-0.835 0.4035,-0.442 0.714,-0.626 1.0545,-0.626 0.13,0 0.5935,-0.1195 1.0305,-0.2655 0.825,-0.2765 1.1475,-0.2665 1.117,0.035 -0.063,0.627 0.3405,0.606 0.998,-0.051 0.274,-0.2735 0.5245,-0.4715 0.557,-0.4405 0.1255,0.1205 -0.1005,0.707 -0.3645,0.9445 -0.3345,0.301 -0.351,0.491 -0.0565,0.6415 0.161,0.083 0.2295,0.2505 0.255,0.627 l 0.034,0.514 h 0.418 c 0.1465,0 0.268,0.02 0.366,0.0575 a 10,10 0 0 0 4.845,-8.253 c -0.153,-0.327 -0.142,-0.5245 0,-0.747 a 10,10 0 0 0 -0.045,-0.56 c -0.092,-0.004 -0.184,-0.0085 -0.292,-0.004 -0.504,0.021 -0.935,-0.1775 -0.935,-0.4305 0,-0.0535 -0.179,-0.274 -0.397,-0.4895 -0.248,-0.244 -0.376,-0.46 -0.338,-0.572 0.034,-0.102 -0.04,-0.2665 -0.168,-0.378 -0.126,-0.109 -0.229,-0.284 -0.229,-0.389 0,-0.1675 -0.1065,-0.1885 -0.877,-0.17 l -0.877,0.0215 0.015,0.8645 c 0.026,1.514 0.2515,1.907 0.947,1.6535 0.3185,-0.1165 1.101,-0.0285 1.3235,0.148 0.0805,0.064 0.197,0.296 0.2585,0.516 0.062,0.2195 0.291,0.6 0.51,0.8445 0.443,0.496 0.4775,0.6895 0.2235,1.2715 -0.2215,0.508 -0.4605,0.4495 -0.413,-0.1015 l 0.035,-0.41 -0.375,0.07 c -0.2075,0.0395 -0.4675,0.1925 -0.584,0.344 -0.166,0.2155 -0.2435,0.247 -0.368,0.1485 -0.087,-0.069 -0.1575,-0.2145 -0.1575,-0.3225 0,-0.108 -0.107,-0.228 -0.237,-0.2675 -0.1305,-0.0395 -0.309,-0.236 -0.3965,-0.4375 -0.1405,-0.322 -0.137,-0.4205 0.0265,-0.8115 0.1655,-0.3965 0.167,-0.462 0.0145,-0.6085 -0.14,-0.134 -0.2125,-0.1385 -0.3965,-0.028 -0.185,0.1105 -0.2725,0.1025 -0.4925,-0.045 -0.1465,-0.0985 -0.403,-0.18 -0.569,-0.18 -0.3375,0 -0.4395,-0.164 -0.4395,-0.707 0,-0.5015 -0.299,-0.6835 -1.011,-0.618 -0.495,0.0455 -0.604,0.013 -1.002,-0.294 -0.247,-0.1895 -0.636,-0.6455 -0.866,-1.0145 -0.23,-0.369 -0.478,-0.7545 -0.55,-0.8565 -0.104,-0.1475 -0.078,-0.289 0.125,-0.6905 l 0.257,-0.505 -0.543,0.0735 c -0.966,0.1305 -1.1615,0.2555 -0.746,0.4785 0.162,0.0865 0.169,0.131 0.044,0.2755 -0.082,0.094 -0.1205,0.2435 -0.085,0.332 0.0355,0.088 -0.0095,0.296 -0.0995,0.4615 -0.0905,0.166 -0.166,0.3985 -0.169,0.518 -0.01,0.3725 -0.648,0.669 -1.359,0.6295 -1.077,-0.0595 -1.1645,-0.0425 -1.5469998,0.3125 -0.478,0.444 -0.5395,0.6505 -0.317,1.0625 0.2155,0.4 0.5985,0.5595 1.2614998,0.5265 0.593,-0.0295 0.66,0.023 0.5245,0.415 -0.1155,0.333 -0.5025,0.461 -0.765,0.253 -0.202,-0.161 -0.8984998,-0.037 -1.1119998,0.198 -0.0895,0.098 -0.2225,0.356 -0.295,0.572 -0.125,0.373 -0.1615,0.396 -0.7215,0.45 -0.5590003,0.054 -0.6130003,0.036 -1.0150003,-0.334 -0.4485,-0.413 -0.5245,-0.729 -0.3085,-1.273 0.096,-0.241 0.167,-0.281 0.423,-0.233 0.5070003,0.092 0.7070003,-0.084 0.7070003,-0.6255 0,-0.2625 -0.051,-0.508 -0.1135,-0.545 -0.062,-0.037 -0.113,-0.176 -0.113,-0.3095 0,-0.1335 -0.064,-0.3055 -0.1415003,-0.381 -0.1135,-0.11 -0.097,-0.169 0.084,-0.297 0.124,-0.0875 0.328,-0.1465 0.453,-0.1315 0.1245,0.015 0.469,-0.039 0.7655,-0.1195 0.4285,-0.1155 0.5545,-0.203 0.6125,-0.4285 0.11,-0.428 0.3785001,-0.7715 0.6035001,-0.7715 0.3555,0 0.363,-0.836 0.0175,-2.052 -0.051,-0.1795 -0.1915,-0.2935 -0.4395001,-0.355 -0.201,-0.05 -0.4195,-0.187 -0.4855,-0.3049 -0.0655,-0.1179 -0.186,-0.2139 -0.2675,-0.2139 -0.0815,0 -0.241,-0.0976 -0.3535,-0.2168 -0.1135,-0.12 -0.348,-0.2168 -0.5265,-0.2168 -0.4225,0 -0.4295042,-0.2909 -0.0105,-0.4443 0.4425,-0.1622 1.1315,0.0504 1.298,0.4003 0.2255,0.4746 0.476,0.2766 0.5565001,-0.4404 0.0995,-0.8867 0.4055,-1.1416 1.37,-1.1416 h 0.6935 l -0.304,-0.3037 c -0.095,-0.0947 -0.173,-0.2106 -0.227,-0.3242 z m 3.595,0.31445 c -0.02,0.0176 -0.039,0.032 -0.058,0.0517 -0.232,0.2368 -0.341,0.2705 -0.699,0.2159 -0.626,-0.0955 -0.546,0.1566 0.147,0.4609 0.3745,0.16455 0.6155,0.35215 0.6975,0.54195 0.395,0.9158 0.667,1.4088 0.8035,1.4588 0.276,0.1015 0.4405,-0.1022 0.502,-0.6229 0.0705,-0.5974 0.2725,-0.72405 0.6355,-0.39745 0.141,0.12675 0.338,0.23045 0.4375,0.23045 0.3105,0 0.54,0.12465 0.54,0.293 0,0.0887 0.105,0.30245 0.2335,0.4754 0.1895,0.2545 0.318,0.3155 0.672,0.3155 0.4345,0 0.701,0.0815 1.245,0.382 0.0085,0.0045 0.017,0.006 0.0255,0.0105 A 10,10 0 0 0 15.15,2.3681 Z m -12.6480001,9.589 a 10,10 0 0 0 -0.00195,0.043 10,10 0 0 0 0.1953,1.921 c 0.3623,0.1475 0.4624,0.089 0.5,-0.248 0.01945,-0.1745 0.11055,-0.372 0.20315,-0.4405 0.14305,-0.1055 0.11725,-0.1595 -0.1758,-0.3595 -0.1897,-0.1295 -0.37665,-0.3555 -0.41505,-0.502 -0.0372,-0.142 -0.163,-0.297 -0.30565,-0.414 z m 3.1476,3.3055 c -0.0935,-0.0095 -0.20615,0.0405 -0.33115,0.1605 -0.26445,0.253 -0.2245,0.7615 0.0752,0.9625 0.34345,0.2305 0.47595,0.1635 0.51945,-0.2615 0.0535,-0.524 -0.0585,-0.84 -0.2635,-0.8615 z m 1.697,1.512 c -0.102,0.0035 -0.2145,0.0765 -0.327,0.2305 -0.1195,0.163 -0.152,0.3735 -0.1065,0.693 0.0565,0.393 0.032,0.477 -0.1735,0.5825 -0.2645,0.135 -0.321,0.537 -0.1045,0.744 0.215,0.206 0.42,0.152 0.494,-0.13 0.105,-0.402 0.6935003,-0.449 1.0955003,-0.088 0.1715,0.154 0.3115,0.232 0.3115,0.173 0,-0.059 -0.1785,-0.2735 -0.3965,-0.4755 -0.3335,-0.31 -0.3955003,-0.442 -0.3955003,-0.841 0,-0.563 -0.1725,-0.8955 -0.3975,-0.8885 z m -2.787,1.291 a 10,10 0 0 0 0.23145,0.292 c -0.0691,-0.105 -0.1469,-0.206 -0.2324,-0.291 z m 3.3700003,1.535 c -0.0505,0.0175 -0.072,0.081 -0.072,0.1925 0,0.113 -0.072,0.2315 -0.1600003,0.2635 -0.117,0.043 -0.144,0.1785 -0.099,0.502 0.0085,0.0605 0.011,0.109 0.014,0.1595 a 10,10 0 0 0 0.4160003,0.2135 c -0.007,-0.173 0.0245,-0.3765 0.115,-0.6315 0.1535,-0.433 0.159,-0.5415 0.034,-0.6175 -0.117,-0.071 -0.197,-0.0995 -0.248,-0.082 z"/>
 <path style="opacity:0.2;fill:#8b9cbe" d="m 12.5,2 c -5.54,0 -10,4.46 -10,10 0,0.084 0.004,0.1665 0.00585,0.25 C 2.6382,6.827 7.044,2.5 12.49985,2.5 c 5.45585,0 9.862,4.32695 9.994,9.75 0.002,-0.08343 0.0059,-0.166065 0.0059,-0.25 0,-5.54 -4.46,-10 -10,-10 z"/>
 <path style="opacity:0.2;fill-rule:evenodd" d="M 10.847953,17.19001 C 9.907321,13.677132 5.7574015,15.85796 4.0609418,13.183744 2.364482,10.509529 3.3419661,7.732926 2.4676319,8.7097885 1.5932973,9.6866515 1.9529425,11.48647 1.9529425,11.48647 c 0,0 -0.3082142,-1.8512315 -0.6683409,-0.82286 -0.36012669,1.028372 0.565191,2.622601 0.565191,2.622601 0,0 -1.02813549,-1.748512 -0.8226333,-0.668622 0.205504,1.07989 1.2337442,2.41125 1.2337442,2.41125 0,0 -0.8740026,-0.977161 -0.7712988,-0.154396 0.1027039,0.822764 1.6966611,1.491516 1.6966611,1.491516 0,0 -1.337007,0.256881 -0.4629611,0.976933 0.8740456,0.720052 2.6739088,0.103299 2.6739088,0.103299 0,0 -1.3885775,1.13104 0.051168,1.491236 1.4397455,0.360197 2.82827,-0.462313 2.82827,-0.462313 0,0 -0.5658655,1.336867 0.8739585,1.234269 1.439825,-0.102598 2.04438,-1.223337 1.697343,-2.519373 z"/>
 <path style="fill:#b2bfd9;fill-rule:evenodd" d="M 10.847953,16.69001 C 9.907321,13.177132 5.7574015,15.35796 4.0609418,12.683744 2.364482,10.009529 3.3419661,7.232926 2.4676319,8.2097885 1.5932973,9.1866515 1.9529425,10.98647 1.9529425,10.98647 c 0,0 -0.3082142,-1.8512315 -0.6683409,-0.82286 -0.36012669,1.028372 0.565191,2.622601 0.565191,2.622601 0,0 -1.02813549,-1.748512 -0.8226333,-0.668622 0.205504,1.07989 1.2337442,2.41125 1.2337442,2.41125 0,0 -0.8740026,-0.977161 -0.7712988,-0.154396 0.1027039,0.822764 1.6966611,1.491516 1.6966611,1.491516 0,0 -1.337007,0.256881 -0.4629611,0.976933 0.8740456,0.720052 2.6739088,0.103299 2.6739088,0.103299 0,0 -1.3885775,1.13104 0.051168,1.491236 1.4397455,0.360197 2.82827,-0.462313 2.82827,-0.462313 0,0 -0.5658655,1.336867 0.8739585,1.234269 1.439825,-0.102598 2.04438,-1.223337 1.697343,-2.519373 z"/>
 <path style="opacity:0.2;fill-rule:evenodd" d="m 14.656951,2.8603545 c -0.716143,0.00893 1.45527,2.2870824 1.311523,5.703125 -0.151508,3.6004625 -5.421817,3.7651955 -4.871094,7.4453125 -0.49972,-0.242019 -0.767507,-1.68251 -0.642578,-2.998906 0.169807,-1.789285 -1.1533084,-2.515134 -2.1699224,-2.509766 -0.290936,0.0015 -0.5562185,0.05588 -0.7548825,0.170899 -2.347556,1.359176 -1.7376625,5.983737 0.1064455,9.189335 0.8461635,1.470881 2.157004,2.318431 3.5820314,2.606446 0.258096,0.01979 0.51791,0.0332 0.78125,0.0332 0.850216,0 1.673813,-0.107792 2.460938,-0.305664 2.120634,-0.788929 3.906919,-2.765938 4.14746,-5.735351 1.322292,0.170316 3.654043,-1.200097 3.869141,-2.004883 0.202492,-0.757623 -1.019744,-0.300954 -1.365235,-0.122071 0.319957,-0.178791 1.653012,-0.863511 1.172852,-1.80371 -0.329065,-0.644341 -0.989835,-0.10213 -1.472656,0.442382 -0.280818,0.421482 -0.578125,0.745118 -0.578125,0.745118 0,0 0.247773,-0.372556 0.578125,-0.745118 0.417681,-0.6269 0.792828,-1.526376 0.05762,-1.857422 -0.468867,-0.211119 -0.821368,0.138914 -1.077148,0.583008 -0.104797,0.781686 -0.54004,1.536133 -0.54004,1.536133 2e-6,0 0.125086,-0.815678 0.54004,-1.536133 0.06781,-0.505796 -0.02677,-0.739543 -0.493165,-0.614258 -0.181698,0.04881 -0.3912,0.09174 -0.607421,0.138672 0.211559,-0.294236 1.108857,-1.562272 0.770507,-2.3671875 -0.0052,-0.012425 -0.01043,-0.01973 -0.01563,-0.03125 -0.01845,-0.040905 -0.03659,-0.081239 -0.05469,-0.111328 -0.249119,-0.4514505 -0.45942,0.072905 -0.567383,0.4375 0.0873,-0.563036 0.314549,-1.8141615 -0.002,-2.725586 -0.03289,-0.094876 -0.06248,-0.1614115 -0.09077,-0.2158205 -0.279588,-0.6071935 -0.351026,0.4988835 -0.370117,1.046875 -0.03136,-0.492273 -0.0412,-1.7255485 -0.425781,-2.4277341 -0.0012,-0.00218 -0.0018,-0.00467 -0.003,-0.00684 -0.0317,-0.060304 -0.06764,-0.1172515 -0.103449,-0.1738241 C 17.729361,4.486843 17.614715,4.3422181 17.479216,4.225589 16.676069,3.5342931 17.039545,4.7585792 17.202849,5.2421905 17.080562,4.9498976 16.650316,4.565662 16.269255,4.0791045 15.976609,3.6960954 15.640219,3.2601999 15.193084,3.0234405 15.016521,2.9643095 14.837817,2.9097835 14.656951,2.8603545 Z"/>
 <path style="fill:#8b9cbe;fill-rule:evenodd" d="m 14.656951,2.3603515 c -0.716143,0.00893 1.45527,2.2870824 1.311523,5.703125 -0.151508,3.6004625 -5.421817,3.7651955 -4.871094,7.4453125 -0.49972,-0.242019 -0.767507,-1.68251 -0.642578,-2.998906 0.169807,-1.789285 -1.1533084,-2.515134 -2.1699224,-2.509766 -0.290936,0.0015 -0.5562185,0.05588 -0.7548825,0.170899 -2.347556,1.359176 -1.7376625,5.983737 0.1064455,9.189335 0.8461635,1.470881 2.157004,2.318431 3.5820314,2.606446 0.258096,0.01979 0.51791,0.0332 0.78125,0.0332 0.850216,0 1.673813,-0.107792 2.460938,-0.305664 2.120634,-0.788929 3.906919,-2.765938 4.14746,-5.735351 1.322292,0.170316 3.654043,-1.200097 3.869141,-2.004883 0.202492,-0.757623 -1.019744,-0.300954 -1.365235,-0.122071 0.319957,-0.178791 1.653012,-0.863511 1.172852,-1.80371 -0.329065,-0.644341 -0.989835,-0.10213 -1.472656,0.442382 -0.280818,0.421482 -0.578125,0.745118 -0.578125,0.745118 0,0 0.247773,-0.372556 0.578125,-0.745118 0.417681,-0.6269 0.792828,-1.526376 0.05762,-1.857422 -0.468867,-0.211119 -0.821368,0.138914 -1.077148,0.583008 -0.104797,0.781686 -0.54004,1.536133 -0.54004,1.536133 2e-6,0 0.125086,-0.815678 0.54004,-1.536133 0.06781,-0.505796 -0.02677,-0.739543 -0.493165,-0.614258 -0.181698,0.04881 -0.3912,0.09174 -0.607421,0.138672 0.211559,-0.294236 1.108857,-1.562272 0.770507,-2.3671875 -0.0052,-0.012425 -0.01043,-0.01973 -0.01563,-0.03125 -0.01845,-0.040905 -0.03659,-0.081239 -0.05469,-0.111328 -0.249119,-0.4514505 -0.45942,0.072905 -0.567383,0.4375 0.0873,-0.563036 0.314549,-1.8141615 -0.002,-2.725586 -0.03289,-0.094876 -0.06248,-0.1614115 -0.09077,-0.2158205 -0.279588,-0.6071935 -0.351026,0.4988835 -0.370117,1.046875 -0.03136,-0.492273 -0.0412,-1.7255485 -0.425781,-2.4277341 -0.0012,-0.00218 -0.0018,-0.00467 -0.003,-0.00684 -0.0317,-0.060304 -0.06764,-0.1172515 -0.103449,-0.1738241 C 17.729361,3.98684 17.614715,3.8422151 17.479216,3.725586 16.676069,3.0342901 17.039545,4.2585762 17.202849,4.7421875 17.080562,4.4498946 16.650316,4.065659 16.269255,3.5791015 15.976609,3.1960924 15.640219,2.7601969 15.193084,2.5234375 15.016521,2.4643065 14.837817,2.4097805 14.656951,2.3603515 Z"/>
 <path style="fill:#17191e" d="m 7.7712616,12.518923 a 0.37498781,0.37498781 0 1 1 -0.692398,-0.288181 0.37498781,0.37498781 0 1 1 0.692398,0.288181 z"/>
 <path style="fill:#17191e" d="m 9.3031731,12.673246 a 0.37497399,0.37466143 0 1 0 0.7436969,-0.09654 0.37497399,0.37466143 0 1 0 -0.7436969,0.09654 z"/>
 <path style="fill:#838383" transform="matrix(0.64951925,0,0,0.37500012,-1.9427883,2.4999968)" d="m 14.999999,28 1.1547,0 1.1547,0 -0.57735,0.999999 -0.57735,1 -0.57735,-1 z"/>
</svg>
