<svg xmlns="http://www.w3.org/2000/svg" width="24" height="24" version="1">
 <rect style="fill:#394e9a" width="16" height="16" x="-21" y="-19" rx="8" ry="8" transform="matrix(0,-1,-1,0,0,0)"/>
 <path style="opacity:0.2" d="M 3.0127,13.25 C 3.0101,13.334 3,13.416 3,13.5 c 0,4.432 3.568,8 8,8 4.432,0 8,-3.568 8,-8 0,-0.0845 -0.01,-0.166 -0.0125,-0.25 -0.133,4.314 -3.64,7.75 -7.988,7.75 C 6.652,21 3.1445,17.564 3.012,13.25 Z"/>
 <path style="opacity:0.2;fill:#8b9cbe" d="M 11,5 C 6.568,5 3,8.568 3,13 3,13.084 3.0101,13.166 3.0127,13.25 3.145,8.9355 6.6525,5.5 11,5.5 c 4.3475,0 7.855,3.4355 7.9875,7.75 C 18.99,13.166 19,13.0845 19,13 19,8.568 15.432,5 11,5 Z"/>
 <path style="opacity:0.2;fill-rule:evenodd" d="m 16.474,3.0002 c -0.0052,1.728e-4 -0.01114,0.00349 -0.0164,0.00387 -0.03821,0.00268 -0.07798,0.012494 -0.11864,0.028954 -0.03344,0.0135 -0.06708,0.028376 -0.09934,0.05501 -0.03384,0.027937 -0.06485,0.067615 -0.09452,0.11388 -0.0077,0.011879 -0.01492,0.02438 -0.02219,0.037639 -0.02684,0.049257 -0.05162,0.10522 -0.07137,0.17565 -0.0012,0.00417 -0.0027,0.00637 -0.0038,0.010617 -0.05477,-0.2612 -0.6279,-0.19784 -0.6279,-0.19784 0,0 9.5e-4,9.6e-4 10e-4,9.65e-4 -1.3e-5,1.3e-6 -0.002,0 -0.002,0 0,0 0.04788,0.032225 0.09452,0.07721 0.02329,0.02261 0.04663,0.047891 0.06365,0.074315 1.28e-4,1.967e-4 -1.27e-4,7.65e-4 0,9.65e-4 0.01706,0.026333 0.02721,0.052935 0.02604,0.078175 l 0,9.65e-4 c -0.09816,0.011118 -0.19467,0.026876 -0.29032,0.04729 -0.02079,-0.046305 -0.01835,-0.11551 -0.01351,-0.18916 0.0049,-0.07365 0.01215,-0.15108 -10e-4,-0.21522 -3.8e-4,5.75e-4 -6e-4,0.00136 -0.001,0.00193 -1.68e-4,-8.65e-4 1.76e-4,-0.00204 0,-0.0029 -0.04065,0.061605 -0.06942,0.1363 -0.09067,0.21329 -0.02124,0.07699 -0.03415,0.15609 -0.04244,0.2268 -0.019,0.00513 -0.0371,0.012817 -0.05594,0.018337 -0.07408,0.021512 -0.14873,0.042739 -0.2199,0.070455 -0.051,-0.0855 -0.1085,-0.15975 -0.168,-0.2297 -0.0615,-0.07185 -0.1285,-0.13335 -0.199,-0.1863 C 14.50839,3.205587 14.49587,3.195565 14.4827,3.186443 14.41116,3.137589 14.3366,3.096848 14.257,3.069663 c -0.0024,-8.3e-4 -0.0043,-0.00305 -0.0067,-0.00387 -6e-4,-2.005e-4 -0.0014,1.992e-4 -0.002,0 -0.08023,-0.026429 -0.16506,-0.038636 -0.2527,-0.040534 -0.0087,-1.89e-4 -0.01632,-0.00393 -0.02507,-0.00387 -0.01421,1.141e-4 -0.02998,0.00693 -0.04436,0.00772 -0.06789,0.00372 -0.13759,0.015207 -0.2093,0.034744 -0.02473,0.00673 -0.04911,0.012529 -0.07427,0.021232 -0.09459,0.03273 -0.19102,0.074885 -0.29128,0.13704 -0.35832,0.22216 -0.52605,0.5773 -0.5758,0.9709 -1.0384,0.21626 -2.2069,0.39946 -3.2378,0.40342 -0.011565,4.49e-5 -0.02416,9.65e-4 -0.035685,9.65e-4 -1.1106,0 -2.0112,0.322 -2.6746,0.9149 -0.18938,0.16918 -0.3591,0.36025 -0.50925,0.5723 -1.475e-4,2.075e-4 1.465e-4,7.5e-4 0,9.5e-4 -0.0743,0.1059 -0.1447,0.2168 -0.2096,0.333 -0.0331,0.0592 -0.0612,0.1234 -0.0916,0.1853 -0.0295,0.0598 -0.0618,0.1173 -0.0888,0.1795 -1.17e-4,2.69e-4 1.165e-4,7e-4 0,9.5e-4 -0.0547,0.1261 -0.1041,0.2569 -0.1485,0.3927 -0.0445,0.1359 -0.0837,0.2766 -0.1177,0.4218 -0.0261,0.1115 -0.0467,0.2276 -0.0665,0.3445 -0.0061,0.0359 -0.0148,0.0698 -0.0203,0.1062 -4.85e-5,3.205e-4 4.85e-5,6.5e-4 0,10e-4 -0.023235,0.15427 -0.0406,0.31278 -0.05305,0.4758 -4.95e-5,6.5e-4 4.95e-5,0.0013 0,0.00195 -0.01238,0.16275 -0.019745,0.32972 -0.02122,0.5009 -0.00295,0.34366 3.945e-4,0.6547 0.00964,0.93615 1.85e-5,6e-4 -1.95e-5,0.00135 0,0.00195 0.00925,0.28059 0.02421,0.53205 0.0434,0.75665 2.5e-5,2.86e-4 -2.4e-5,7e-4 0,10e-4 0.019225,0.22474 0.043435,0.42286 0.07041,0.5974 4.3e-5,2.78e-4 -4.3e-5,7e-4 0,10e-4 0.02697,0.17437 0.0572,0.32541 0.0897,0.45553 6.65e-5,2.65e-4 -6.6e-5,7e-4 0,10e-4 0.032485,0.12993 0.0674,0.2394 0.1032,0.33103 9.6e-5,2.43e-4 -9.55e-5,7.5e-4 0,10e-4 0.03578,0.09143 0.073075,0.16484 0.10996,0.2239 1.28e-4,2.05e-4 -1.285e-4,7.5e-4 0,10e-4 0.03685,0.0589 0.07421,0.10266 0.10996,0.13512 0.036075,0.03281 0.070495,0.05469 0.1032,0.06659 0.21146,0.07695 0.14751,-0.01943 0.11381,-0.0637 -0.00753,-0.0099 -0.01792,-0.02945 -0.01833,-0.02992 l 0.09356,0.05694 0.09452,0.05887 0,-0.11682 0.088735,0.01159 0.07716,0.01062 0.07234,-0.1438 0.02315,-0.04536 0.21316,0 c 0,0 0.083575,-0.05149 0.13214,-0.18916 0.00526,-0.01492 0.01313,-0.02332 0.017365,-0.04054 6.35e-5,-2.56e-4 -6.35e-5,-7e-4 0,-10e-4 C 7.062435,11.9876 7.07029,11.91561 7.06439,11.82712 7.046595,11.56 7.161265,11.45348 7.13962,11.27602 7.13263,11.21746 7.11121,11.15083 7.06439,11.06852 c -0.0934,-0.1639 -0.1925,-0.9501 -0.2238,-1.7414 -4e-4,-0.0118 -0.0015,-0.023 -0.0019,-0.0348 -0.0147,-0.401 -0.012,-0.801 0.0183,-1.1205 3.45e-5,-3.67e-4 -3.5e-5,-6e-4 0,-10e-4 C 6.887335,7.85181 6.945805,7.61422 7.04025,7.53672 7.13499,7.459695 7.27871,7.35696 7.45499,7.24429 7.63111,7.1317 7.83959,7.00861 8.06454,6.89009 c 0.33748,-0.1778 0.712,-0.34574 1.0677,-0.4536 0.1186,-0.035925 0.23472,-0.065155 0.34722,-0.085895 0.3378,-0.062265 0.63875,-0.13461 0.99345,-0.18048 0.23583,-0.03039 0.49571,-0.04895 0.80535,-0.04536 2.95e-4,3.5e-6 7e-4,-3e-6 0.001,0 0.0071,8.35e-5 0.01601,8.5e-4 0.02315,9.5e-4 0.4615,0.0069 1.032,0.06264 1.8017,0.20267 0.0016,0.13643 0.01298,0.29841 0.03472,0.49703 1.26e-4,0.00115 -1.27e-4,0.00175 0,0.0029 4.5e-5,4.095e-4 -4.5e-5,5.5e-4 0,10e-4 0.05967,0.54275 0.1821,0.85755 0.35108,1.1446 0.16898,0.28708 0.38398,0.54585 0.62885,0.9757 2.54e-4,4.46e-4 7e-4,4.945e-4 10e-4,10e-4 0.07424,0.13259 0.15228,0.25174 0.23438,0.35709 2.56e-4,3.3e-4 7e-4,6.5e-4 0.001,10e-4 0.08228,0.10544 0.16862,0.19742 0.25849,0.27602 0.08978,0.078525 0.1836,0.14368 0.28067,0.19592 3.79e-4,2.05e-4 6e-4,7.5e-4 0.001,10e-4 0.09694,0.05205 0.19701,0.09141 0.30092,0.11774 0.4175,0.10643 0.88975,0.00756 1.4082,-0.28181 0.42688,-0.24978 0.7426,-0.36712 1.032,-0.53175 0.07244,-0.04102 0.14263,-0.085315 0.21316,-0.13512 0.07068,-0.049905 0.14076,-0.10545 0.21219,-0.16986 0.07106,-0.06419 0.1435,-0.13688 0.21798,-0.22101 1.51e-4,-1.7e-4 -1.51e-4,-8e-4 0,-10e-4 0.07455,-0.08418 0.15281,-0.17875 0.23341,-0.28856 0.02119,-0.028885 0.02586,-0.04321 0.04533,-0.070455 0.101,-0.14072 0.19073,-0.2687 0.25174,-0.37446 0.15628,-0.11595 0.31322,-0.2339 0.46104,-0.33006 0.35942,-0.24134 0.75215,-0.6155 0.9944,-1.0414 1.47e-4,-2.585e-4 -1.47e-4,-7e-4 0,-9.5e-4 0.12094,-0.21277 0.20424,-0.43841 0.22762,-0.6669 3.3e-5,-3.209e-4 -3.2e-5,-6.45e-4 0,-9.65e-4 0.0058,-0.05688 0.0078,-0.11376 0.0058,-0.17082 -1.2e-5,-3.167e-4 1.2e-5,-6.5e-4 0,-9.65e-4 C 20.49269,5.44095 20.44931,5.26885 20.35913,5.10064 20.30521,5.00008 20.24582,4.91598 20.18263,4.84199 20.16271,4.818672 20.14066,4.801962 20.11993,4.78119 c -0.044,-0.0439 -0.089,-0.0854 -0.136,-0.1185 -0.027,-0.0188 -0.055,-0.0338 -0.083,-0.0492 -0.046,-0.0254 -0.093,-0.0474 -0.141,-0.0637 -0.029,-0.0096 -0.058,-0.0176 -0.087,-0.0241 -0.055,-0.0125 -0.112,-0.0194 -0.17,-0.0212 -0.02,-6e-4 -0.04,-0.0027 -0.061,-0.002 -0.07896,0.00248 -0.1592,0.013328 -0.24016,0.033779 -0.002,5.05e-4 -0.0038,4.508e-4 -0.0058,9.65e-4 -3.13e-4,8.06e-5 -6.5e-4,-8.09e-5 -10e-4,0 -0.16014,0.041379 -0.32202,0.11417 -0.48129,0.21715 -9.5e-4,-0.00131 -0.002,-0.00256 -0.0029,-0.00387 C 18.66672,4.688539 18.6188,4.629194 18.569,4.571004 18.55691,4.556877 18.54669,4.541472 18.53428,4.527574 c 1.05e-4,-2.201e-4 -1.05e-4,-7.4e-4 0,-9.65e-4 0.02276,-0.047627 0.05024,-0.1111 0.07137,-0.17951 0.02108,-0.068575 0.03569,-0.14194 0.0328,-0.20846 -0.0921,0.10874 -0.11942,0.36615 -0.2691,0.21522 -0.01874,-0.0189 -0.03063,-0.035894 -0.03665,-0.05115 -0.006,-0.015257 -0.0057,-0.028556 -0.002,-0.040534 0.0037,-0.011186 0.01826,-0.017453 0.02798,-0.026058 0.05207,-0.046167 0.1659,-0.061765 0.1659,-0.061765 0,0 -9.5e-4,-9.6e-4 -0.001,-9.65e-4 -5e-5,-5e-6 -0.17817,-0.13516 -0.31925,-0.14187 -0.02351,-0.00112 -0.04609,0.00143 -0.06655,0.00869 -0.02008,0.00708 -0.03879,0.019209 -0.05401,0.036674 0.05776,-0.2168 -0.001,-0.33235 -0.07427,-0.39376 -0.072,-0.06085 -0.16,-0.06885 -0.16,-0.06885 0,0 -3e-6,9.6e-4 0,9.65e-4 1e-6,-10e-8 0.06566,0.07 0.09356,0.15152 0.003,0.00869 0.0087,0.016188 0.01061,0.025093 6.3e-5,2.916e-4 -6.2e-5,6.75e-4 0,9.65e-4 0.0064,0.030516 0.0054,0.062245 -0.0077,0.091685 -1.34e-4,3.082e-4 1.38e-4,6.6e-4 0,9.65e-4 -0.0089,0.019595 -0.025,0.035896 -0.04436,0.048255 -0.0064,0.00411 -0.01501,0.00456 -0.02219,0.00772 -0.01424,0.00592 -0.02838,0.01257 -0.04436,0.014476 C 17.79587,3.932383 17.75574,3.909725 17.71546,3.88739 17.7008,3.87927 17.68684,3.870116 17.67206,3.862297 c -0.01234,-0.034995 -0.01491,-0.081695 0,-0.13898 2.06e-4,-7.95e-4 -2.15e-4,-0.00114 0,-0.00193 C 17.57928,3.688308 17.50819,3.714077 17.45601,3.758061 17.41547,3.740016 17.3748,3.72254 17.33352,3.705946 l 0.03279,-0.1689 0.04148,-0.2104 -10e-4,0.00193 0,-0.00193 -0.20834,0.32717 c -0.031,-0.0111 -0.062,-0.0216 -0.0935,-0.03185 -0.0075,-0.09995 -0.043,-0.2116 -0.1485,-0.27795 -0.036,-0.0222 -0.079,-0.0395 -0.131,-0.0493 -0.035,0.1325 -0.106,0.1923 -0.181,0.2085 -0.028,-0.0052 -0.055,-0.0091 -0.082,-0.0135 -0.027,-0.0046 -0.054,-0.0096 -0.081,-0.0135 -0.037,-0.0202 -0.068,-0.0474 -0.09,-0.0792 -0.021,-0.0316 -0.032,-0.0671 -0.029,-0.1023 0.0044,-0.0453 0.02654,-0.08418 0.05691,-0.11678 0.09145,-0.09709 0.25849,-0.13994 0.25849,-0.13994 0,0 -0.02883,-0.013137 -0.07523,-0.024128 -0.035,-0.0082 -0.079,-0.0151 -0.128,-0.0134 z m -9.079,11.078 0,0.26058 -0.18904,-0.11871 0,0.14284 -0.21316,-0.11871 0.047265,0.11871 -0.19001,-0.09458 0.02411,0.23645 -0.18904,-0.18916 0.07041,0.33103 -0.18904,-0.09458 0.1659,0.42658 -0.23727,-0.30787 0.1659,0.42658 -0.14178,-0.09458 0.18904,0.37929 -0.1659,-0.14284 0.19001,0.26058 -0.1659,-0.09458 c 0,0 0.8522,1.612 2.2734,2.5363 0.35528,0.23108 0.75045,0.49616 1.1931,0.7576 0.44266,0.26146 0.9328,0.5191 1.4776,0.7354 0.68095,0.27033 1.4472,0.47544 2.3138,0.5424 0.17352,0.01344 0.35062,0.02145 0.5324,0.02316 0.36287,0.0034 0.74235,-0.0172 1.1391,-0.06756 0.39673,-0.05036 0.7418,-0.1499 1.0416,-0.28567 0.29986,-0.13576 0.55415,-0.30785 0.77065,-0.5028 0.32452,-0.29225 0.56365,-0.63655 0.7388,-0.98825 l 0,-10e-4 c 0.52555,-1.056 0.48032,-2.1802 0.48032,-2.1802 -0.88525,2.0026 -1.6812,2.6396 -3.0247,2.2776 -0.12287,-0.03308 -0.25426,-0.08079 -0.38677,-0.13026 -0.20184,-0.07546 -0.41145,-0.1631 -0.6385,-0.27506 -2.5294,-1.2472 -6.1825,-3.4136 -6.1825,-3.4136 l -0.02315,0.166 -0.35494,-0.30787 0,0.09458 -0.1659,-0.166 -0.02411,0.14284 -0.1659,-0.23742 0,0.19012 -0.1663,-0.236 z"/>
 <path style="fill:#2aa2f6;fill-rule:evenodd" d="m 16.474,2.5002 c -0.0052,1.728e-4 -0.01114,0.00349 -0.0164,0.00387 -0.03821,0.00268 -0.07798,0.012494 -0.11864,0.028953 -0.03344,0.0135 -0.06708,0.028376 -0.09934,0.05501 -0.03384,0.027937 -0.06485,0.067615 -0.09452,0.11388 -0.0077,0.01188 -0.01492,0.02438 -0.02219,0.037639 -0.02684,0.049257 -0.05162,0.10522 -0.07137,0.17565 -0.0012,0.00417 -0.0027,0.00637 -0.0038,0.010617 -0.05477,-0.2612 -0.6279,-0.19784 -0.6279,-0.19784 0,0 9.5e-4,9.6e-4 10e-4,9.65e-4 -1.3e-5,1.4e-6 -0.002,0 -0.002,0 0,0 0.04788,0.032224 0.09452,0.07721 0.02329,0.022609 0.04663,0.047891 0.06365,0.074315 1.28e-4,1.967e-4 -1.27e-4,7.65e-4 0,9.65e-4 0.01706,0.026334 0.02721,0.052935 0.02604,0.078175 l 0,9.65e-4 c -0.09816,0.011118 -0.19467,0.026876 -0.29032,0.04729 -0.02079,-0.046305 -0.01835,-0.11551 -0.01351,-0.18916 0.0049,-0.07365 0.01215,-0.15108 -10e-4,-0.21522 -3.8e-4,5.75e-4 -6e-4,0.00135 -0.001,0.00193 -1.68e-4,-8.65e-4 1.76e-4,-0.00204 0,-0.00289 -0.04065,0.061605 -0.06942,0.1363 -0.09067,0.21329 -0.02124,0.07699 -0.03415,0.15609 -0.04244,0.2268 -0.019,0.00513 -0.0371,0.012817 -0.05594,0.018337 -0.07408,0.021512 -0.14873,0.042739 -0.2199,0.070455 -0.05069,-0.08549 -0.10786,-0.15972 -0.16777,-0.2297 -0.0615,-0.07184 -0.12822,-0.13334 -0.19869,-0.18626 -0.01289,-0.00981 -0.0254,-0.019832 -0.03857,-0.028953 -0.07155,-0.048854 -0.1461,-0.089595 -0.2257,-0.11678 -0.0024,-8.3e-4 -0.0043,-0.00305 -0.0068,-0.00387 -6e-4,-2.005e-4 -0.0014,1.992e-4 -0.002,0 -0.08022,-0.026429 -0.16506,-0.038636 -0.2527,-0.040534 -0.0087,-1.89e-4 -0.01632,-0.00393 -0.02507,-0.00387 -0.01421,1.141e-4 -0.02999,0.00693 -0.04437,0.00772 -0.06789,0.00371 -0.13759,0.015207 -0.2093,0.034744 -0.02473,0.00673 -0.0491,0.01253 -0.07426,0.021232 -0.09459,0.03273 -0.19102,0.074885 -0.29128,0.13704 -0.35832,0.22216 -0.52605,0.5773 -0.5758,0.9709 -1.0384,0.21626 -2.2069,0.39946 -3.2378,0.40342 -0.011565,4.49e-5 -0.02416,9.65e-4 -0.035685,9.65e-4 -1.1106,0 -2.0112,0.322 -2.6746,0.9149 -0.18938,0.16918 -0.3591,0.36025 -0.50925,0.5723 -1.475e-4,2.076e-4 1.465e-4,7.55e-4 0,9.65e-4 -0.0743,0.1059 -0.1446,0.2168 -0.2096,0.3329 -0.0331,0.0593 -0.0611,0.1235 -0.0916,0.1853 -0.0295,0.0598 -0.0617,0.1173 -0.0887,0.1795 -1.17e-4,2.69e-4 1.165e-4,7e-4 0,9.5e-4 -0.05474,0.12615 -0.10412,0.257 -0.14854,0.3928 -0.044435,0.13585 -0.083715,0.27656 -0.11767,0.42175 -0.02608,0.11153 -0.04673,0.22766 -0.06655,0.34454 -0.00609,0.035895 -0.01476,0.06977 -0.020255,0.10616 -4.85e-5,3.205e-4 4.85e-5,6.5e-4 0,0.001 -0.023235,0.15427 -0.0406,0.31278 -0.05305,0.4758 -4.95e-5,6.5e-4 4.95e-5,0.0013 0,0.00195 -0.01238,0.16275 -0.019745,0.32972 -0.02122,0.5009 -0.00295,0.34366 3.945e-4,0.6547 0.00964,0.93615 1.85e-5,6e-4 -1.95e-5,0.00135 0,0.00195 0.00925,0.28059 0.02421,0.53205 0.0434,0.75665 2.5e-5,2.86e-4 -2.4e-5,7e-4 0,0.001 0.019225,0.22474 0.043435,0.42286 0.07041,0.5974 4.3e-5,2.78e-4 -4.3e-5,7e-4 0,0.001 0.02697,0.17437 0.0572,0.32541 0.0897,0.45553 6.65e-5,2.65e-4 -6.6e-5,7e-4 0,10e-4 0.032485,0.12993 0.0674,0.2394 0.1032,0.33103 9.6e-5,2.44e-4 -9.55e-5,7.5e-4 0,10e-4 0.03578,0.09143 0.073075,0.16484 0.10996,0.2239 1.28e-4,2.05e-4 -1.285e-4,7.5e-4 0,0.001 0.03685,0.05889 0.07421,0.10266 0.10996,0.13512 0.036075,0.03282 0.070495,0.05469 0.1032,0.06659 0.21146,0.07695 0.14751,-0.01942 0.11381,-0.0637 -0.00753,-0.0099 -0.01792,-0.02945 -0.01833,-0.02992 l 0.09356,0.05694 0.09452,0.05887 0,-0.11682 0.088735,0.01159 0.07716,0.01062 0.07234,-0.1438 0.02315,-0.04536 0.21316,0 c 0,0 0.083575,-0.05149 0.13214,-0.18916 0.00526,-0.01492 0.01313,-0.02332 0.017365,-0.04053 6.35e-5,-2.56e-4 -6.35e-5,-7e-4 0,-10e-4 0.0144,-0.058 0.0222,-0.13 0.0163,-0.219 -0.0176,-0.267 0.097,-0.3734 0.0754,-0.5508 -0.007,-0.0586 -0.0284,-0.1252 -0.0753,-0.2075 -0.0933,-0.1636 -0.1924,-0.9497 -0.2237,-1.7411 -5e-4,-0.0117 -0.0015,-0.023 -0.002,-0.0347 -0.0147,-0.4011 -0.012,-0.8011 0.0184,-1.1205 3.45e-5,-3.67e-4 -3.5e-5,-6e-4 0,-0.001 0.0303,-0.319 0.0888,-0.5566 0.1832,-0.6341 0.0948,-0.077 0.2385,-0.1798 0.4148,-0.2925 0.1761,-0.1125 0.3846,-0.2356 0.6095,-0.3541 0.3375,-0.1778 0.712,-0.3458 1.0677,-0.4536 0.1186,-0.036 0.2347,-0.0652 0.3472,-0.0859 0.3378,-0.0623 0.6388,-0.1347 0.9935,-0.1805 0.23583,-0.030391 0.49571,-0.048951 0.80535,-0.04536 2.96e-4,3.3e-6 7e-4,-3.3e-6 0.001,0 0.0071,8.33e-5 0.01601,8.6e-4 0.02315,9.65e-4 0.4615,0.0069 1.032,0.062635 1.8017,0.20267 0.0016,0.13643 0.01297,0.29842 0.03472,0.49703 1.26e-4,0.00115 -1.27e-4,0.00175 0,0.0029 4.5e-5,4.095e-4 -4.5e-5,5.5e-4 0,10e-4 0.05967,0.54275 0.1821,0.85755 0.35108,1.1446 0.16898,0.28708 0.38398,0.54585 0.62885,0.9757 2.54e-4,4.46e-4 7e-4,4.945e-4 10e-4,10e-4 0.07424,0.13259 0.15228,0.25174 0.23438,0.35709 2.56e-4,3.3e-4 7e-4,6.5e-4 0.001,10e-4 0.08228,0.10544 0.16862,0.19742 0.25849,0.27602 0.08978,0.078525 0.1836,0.14368 0.28067,0.19592 3.79e-4,2.05e-4 6e-4,7.5e-4 0.001,0.001 0.09695,0.05205 0.19701,0.09141 0.30092,0.11774 0.4175,0.10643 0.88975,0.00756 1.4082,-0.28181 0.42688,-0.24978 0.7426,-0.36712 1.032,-0.53175 0.07244,-0.04102 0.14263,-0.085315 0.21316,-0.13512 0.07068,-0.049905 0.14076,-0.10545 0.21219,-0.16986 0.07105,-0.06419 0.1435,-0.13688 0.21798,-0.22101 1.51e-4,-1.7e-4 -1.51e-4,-8e-4 0,-0.001 0.07455,-0.08418 0.15281,-0.17875 0.23341,-0.28856 0.02119,-0.028885 0.02586,-0.04321 0.04533,-0.070455 0.101,-0.14072 0.19073,-0.2687 0.25174,-0.37446 0.15628,-0.11595 0.31322,-0.2339 0.46104,-0.33006 0.35942,-0.24134 0.75215,-0.6155 0.9944,-1.0414 1.47e-4,-2.587e-4 -1.47e-4,-6.9e-4 0,-9.4e-4 0.12094,-0.21277 0.20424,-0.43841 0.22762,-0.6669 3.3e-5,-3.209e-4 -3.2e-5,-6.45e-4 0,-9.65e-4 0.0058,-0.05688 0.0078,-0.11376 0.0058,-0.17082 -1.2e-5,-3.167e-4 1.2e-5,-6.5e-4 0,-9.65e-4 -0.0064,-0.17234 -0.04978,-0.34444 -0.13996,-0.51265 -0.05392,-0.10056 -0.11331,-0.18466 -0.1765,-0.25865 -0.01992,-0.023318 -0.04197,-0.040028 -0.0627,-0.0608 -0.044,-0.0438 -0.088,-0.0853 -0.136,-0.1184 -0.027,-0.0189 -0.055,-0.0338 -0.083,-0.0492 -0.046,-0.0254 -0.092,-0.0474 -0.14,-0.0637 -0.029,-0.0096 -0.058,-0.0176 -0.087,-0.0241 -0.056,-0.0125 -0.112,-0.0194 -0.17,-0.0213 -0.02063,-5.85e-4 -0.04091,-0.00266 -0.06173,-0.00193 -0.07896,0.00248 -0.1592,0.013328 -0.24016,0.033779 -0.002,5.05e-4 -0.0038,4.508e-4 -0.0058,9.65e-4 -3.13e-4,8.06e-5 -6.5e-4,-8.09e-5 -0.001,0 -0.16,0.0414 -0.322,0.1142 -0.481,0.2172 l -0.003,-0.0039 c -0.044,-0.0619 -0.092,-0.1213 -0.142,-0.1795 -0.012,-0.0141 -0.022,-0.0295 -0.034,-0.0434 1.05e-4,-2.201e-4 -1.05e-4,-7.4e-4 0,-9.65e-4 0.022,-0.0476 0.05,-0.1111 0.071,-0.1795 0.021,-0.0686 0.036,-0.1419 0.033,-0.2085 -0.092,0.1088 -0.12,0.3662 -0.269,0.2153 -0.019,-0.0189 -0.031,-0.0359 -0.037,-0.0512 -0.006,-0.0152 -0.006,-0.0285 -0.002,-0.0405 0.004,-0.0112 0.018,-0.0175 0.028,-0.0261 0.052,-0.0461 0.166,-0.0617 0.166,-0.0617 0,0 -9.5e-4,-9.6e-4 -10e-4,-9.65e-4 -5e-5,-5e-6 -0.17817,-0.13516 -0.31925,-0.14187 -0.02351,-0.00112 -0.0461,0.00144 -0.06655,0.00869 -0.02008,0.00708 -0.03879,0.019209 -0.05401,0.036674 0.05776,-0.2168 -10e-4,-0.33235 -0.07427,-0.39376 -0.07339,-0.061515 -0.16108,-0.06949 -0.16108,-0.06949 0,0 -3e-6,9.6e-4 0,9.65e-4 1e-6,-10e-8 0.06566,0.07 0.09356,0.15152 0.0029,0.00869 0.0087,0.016188 0.01061,0.025093 6.3e-5,2.916e-4 -6.2e-5,6.75e-4 0,9.65e-4 0.0064,0.030516 0.0054,0.062245 -0.0077,0.091685 -1.34e-4,3.082e-4 1.38e-4,6.6e-4 0,9.65e-4 -0.0089,0.019596 -0.02501,0.035896 -0.04436,0.048255 -0.0064,0.00411 -0.01501,0.00456 -0.02219,0.00772 -0.01424,0.00592 -0.02838,0.01257 -0.04436,0.014476 -0.03919,-0.023532 -0.07932,-0.04619 -0.1196,-0.068525 -0.01465,-0.00812 -0.02861,-0.017274 -0.0434,-0.025093 -0.01234,-0.034995 -0.01492,-0.081695 0,-0.13898 2.07e-4,-7.95e-4 -2.14e-4,-0.00113 0,-0.00193 -0.092,-0.0331 -0.163,-0.0074 -0.216,0.0366 -0.04,-0.018 -0.081,-0.0355 -0.122,-0.0521 l 0.03279,-0.1689 0.04147,-0.2104 -0.001,0.00193 0,-0.00193 -0.20834,0.32717 c -0.0305,-0.01025 -0.0615,-0.02075 -0.093,-0.031 -0.0075,-0.09995 -0.043,-0.2116 -0.1485,-0.27795 -0.03506,-0.022156 -0.07788,-0.039421 -0.13021,-0.04922 -0.03548,0.13249 -0.10591,0.19229 -0.18133,0.20846 -0.02718,-0.0052 -0.05474,-0.0091 -0.08198,-0.013511 C 16.53716,2.986318 16.5101,2.981328 16.48313,2.977406 16.44639,2.95722 16.4151,2.929979 16.39343,2.898266 16.37207,2.866621 16.36109,2.831101 16.3645,2.795966 c 0.0044,-0.0453 0.02654,-0.08418 0.0569,-0.11678 0.09145,-0.09709 0.25849,-0.13994 0.25849,-0.13994 0,0 -0.02883,-0.013137 -0.07523,-0.024128 -0.03481,-0.00824 -0.07929,-0.01515 -0.12828,-0.013511 z m -9.079,11.078 0,0.26058 -0.18904,-0.11871 0,0.14284 -0.21316,-0.11871 0.047265,0.11871 -0.19001,-0.09458 0.02411,0.23645 -0.18904,-0.18916 0.07041,0.33103 -0.18904,-0.09458 0.1659,0.42658 -0.23727,-0.30787 0.1659,0.42658 -0.14178,-0.09458 0.18904,0.37929 -0.1659,-0.14284 0.19001,0.26058 -0.1659,-0.09458 c 0,0 0.8522,1.612 2.2734,2.5363 0.35528,0.23108 0.75045,0.49616 1.1931,0.7576 0.44266,0.26146 0.9328,0.5191 1.4776,0.7354 0.68095,0.27033 1.4472,0.47544 2.3138,0.5424 0.17352,0.01344 0.35062,0.02145 0.5324,0.02316 0.36287,0.0034 0.74235,-0.0172 1.1391,-0.06756 0.39673,-0.05036 0.7418,-0.1499 1.0416,-0.28567 0.29986,-0.13576 0.55415,-0.30785 0.77065,-0.5028 0.32452,-0.29225 0.56365,-0.63655 0.7388,-0.98825 l 0,-10e-4 c 0.52555,-1.056 0.48032,-2.1802 0.48032,-2.1802 -0.88525,2.0026 -1.6812,2.6396 -3.0247,2.2776 -0.12287,-0.03308 -0.25426,-0.08079 -0.38677,-0.13026 -0.20184,-0.07546 -0.41145,-0.1631 -0.6385,-0.27506 -2.5294,-1.2472 -6.1825,-3.4136 -6.1825,-3.4136 l -0.02315,0.166 -0.35494,-0.30787 0,0.09458 -0.1659,-0.166 -0.02411,0.14284 -0.1659,-0.23742 0,0.19012 -0.1663,-0.236 z"/>
 <ellipse style="fill:#464646" cx="15.429" cy="1.56" rx=".5" ry=".5" transform="matrix(0.96592583,0.25881904,-0.25881906,0.96592582,0,0)"/>
 <path style="fill:#464646;fill-rule:evenodd" d="m 15.318,7.0404176 c -0.28538,0.01633 -0.35192,0.054865 -0.30264,0.2901 0.04929,0.23524 0.18516,0.56655 0.4998,0.65085 0.31464,0.084305 0.5983,-0.13459 0.75875,-0.31364 0.16,-0.179 0.202,-0.1859 -0.118,-0.4025 -0.32,-0.2167 -0.553,-0.2411 -0.838,-0.2248 z"/>
 <path style="opacity:0.1;fill:#8b9cbe;fill-rule:evenodd" d="m 16.474,2.5 c -0.0052,1.728e-4 -0.01134,0.00353 -0.0166,0.00391 -0.03821,0.00268 -0.07849,0.012838 -0.11914,0.029297 -0.03344,0.0135 -0.06637,0.028053 -0.09863,0.05469 -0.03384,0.027936 -0.06506,0.06799 -0.09473,0.11426 -0.0077,0.011879 -0.0152,0.02385 -0.02246,0.037109 -0.02684,0.049257 -0.05154,0.10536 -0.07129,0.17578 -0.0012,0.00417 -0.0028,0.00649 -0.0039,0.010742 -0.054,-0.2612 -0.627,-0.1983 -0.627,-0.1983 l 0.001,9.75e-4 -0.0019,0 c 0,0 0.04808,0.033141 0.09472,0.078125 0.0233,0.022609 0.04645,0.047797 0.06348,0.07422 l 0,9.75e-4 c 0.01706,0.026334 0.02754,0.052885 0.02637,0.078125 l 0,9.75e-4 c -0.09816,0.011118 -0.19439,0.026461 -0.29004,0.046875 -0.021,-0.0463 -0.0185,-0.1158 -0.0135,-0.18945 0.0048,-0.07365 0.01218,-0.15071 -0.001,-0.21484 -3.8e-4,5.75e-4 -6e-4,0.00138 -10e-4,0.00195 -1.68e-4,-8.65e-4 1.76e-4,-0.00208 0,-0.00293 -0.04065,0.061605 -0.06958,0.1359 -0.09082,0.21289 -0.02124,0.07699 -0.03468,0.15683 -0.04297,0.22754 -0.019,0.00513 -0.03682,0.012058 -0.05566,0.017578 -0.07408,0.021512 -0.14855,0.043576 -0.21972,0.07129 -0.051,-0.0855 -0.1085,-0.1605 -0.1685,-0.2305 -0.0615,-0.0718 -0.1275,-0.1326 -0.198,-0.18555 C 14.50983,2.705926 14.49682,2.695561 14.48365,2.686439 14.4121,2.637585 14.33766,2.596434 14.25807,2.569249 c -0.0024,-8.3e-4 -0.0044,-0.00309 -0.0068,-0.00391 -6e-4,-2.005e-4 -0.0014,1.992e-4 -0.0019,0 C 14.16914,2.53891 14.08407,2.527198 13.99644,2.5253 13.98774,2.5251111 13.98078,2.52133 13.97203,2.5214 c -0.01421,1.141e-4 -0.03054,0.00702 -0.04492,0.00781 -0.06789,0.00371 -0.13728,0.014643 -0.20898,0.03418 -0.02473,0.00673 -0.04906,0.012782 -0.07422,0.021484 -0.09459,0.03273 -0.19076,0.075535 -0.29102,0.1377 -0.35832,0.22216 -0.5264,0.5771 -0.57615,0.9707 -1.0384,0.21626 -2.2074,0.39936 -3.2383,0.40332 -0.011565,4.49e-5 -0.02363,9.75e-4 -0.035155,9.75e-4 -1.1106,0 -2.0114,0.32212 -2.6748,0.91505 -0.18938,0.16918 -0.35863,0.3602 -0.5088,0.57225 l 0,9.75e-4 c -0.0746,0.1059 -0.1456,0.2168 -0.2106,0.333 -0.0331,0.0592 -0.0613,0.1227 -0.0918,0.1846 -0.0294,0.0598 -0.0609,0.1175 -0.0879,0.1797 l 0,0.001 c -0.0547,0.1261 -0.104,0.2568 -0.1484,0.3925 -0.0444,0.1359 -0.0842,0.2767 -0.1182,0.4219 -0.026,0.1116 -0.0465,0.2279 -0.0664,0.3447 -0.006,0.0359 -0.015,0.0701 -0.0205,0.1065 l 0,0.001 c -0.0232,0.1543 -0.0403,0.3126 -0.0527,0.4756 -4.95e-5,6.5e-4 4.95e-5,0.0013 0,0.00195 -0.01238,0.16275 -0.02001,0.32981 -0.021485,0.501 -0.00125,0.14764 0.0029,0.2665 0.0039,0.40234 0.003,-0.13649 0.00761,-0.27229 0.01758,-0.40332 4.95e-5,-6.5e-4 -4.95e-5,-0.0013 0,-0.00195 0.01245,-0.16302 0.0295,-0.32132 0.052735,-0.47558 l 0,-10e-4 c 0.0055,-0.0364 0.0145,-0.0705 0.0205,-0.1064 0.0199,-0.1169 0.0404,-0.2332 0.0664,-0.3448 0.034,-0.1451 0.0738,-0.286 0.1182,-0.4218 0.0444,-0.1358 0.0937,-0.2665 0.1484,-0.3926 l 0,-10e-4 c 0.027,-0.062195 0.058405,-0.11989 0.08789,-0.17969 0.03048,-0.06183 0.058685,-0.12534 0.091795,-0.18457 0.064955,-0.11617 0.13596,-0.22708 0.21094,-0.33301 l 0,-10e-4 c 0.15016,-0.21206 0.3194,-0.40308 0.5088,-0.57225 0.6634,-0.5929 1.5642,-0.91505 2.6748,-0.91505 0.011525,0 0.02359,-9.3e-4 0.035155,-9.75e-4 1.031,-0.00396 2.2,-0.18706 3.2383,-0.40332 0.04976,-0.39361 0.21786,-0.74855 0.57615,-0.9707 0.10026,-0.06216 0.19643,-0.10496 0.29102,-0.1377 0.02516,-0.0087 0.04948,-0.014752 0.07422,-0.021484 0.0717,-0.019537 0.1411,-0.030464 0.20898,-0.03418 0.01438,-7.95e-4 0.03071,-0.0077 0.04492,-0.00781 0.0088,-6.5e-5 0.01573,0.00372 0.02441,0.00391 0.08764,0.0019 0.1727,0.01361 0.25293,0.040039 6e-4,1.992e-4 0.0013,-2.005e-4 0.0019,0 0.0024,8.15e-4 0.0045,0.00308 0.0068,0.00391 0.07959,0.027181 0.15404,0.068335 0.22558,0.11719 0.01317,0.00912 0.02618,0.019486 0.03907,0.029297 0.07048,0.052935 0.13674,0.1137 0.19824,0.18554 0.05991,0.06998 0.11728,0.14498 0.16797,0.23047 0.07118,-0.027713 0.14565,-0.049777 0.21972,-0.07129 0.01885,-0.00552 0.03667,-0.012449 0.05567,-0.017578 0.0083,-0.07071 0.02173,-0.15055 0.04297,-0.22754 0.02124,-0.07699 0.05017,-0.15128 0.09082,-0.21289 1.77e-4,8.55e-4 -1.68e-4,0.00206 0,0.00293 4e-4,-5.75e-4 6e-4,-0.00138 10e-4,-0.00196 0.01315,0.06413 0.0058,0.1412 0.001,0.21484 -0.0049,0.07365 -0.0071,0.14315 0.01367,0.18946 0.09564,-0.020414 0.19188,-0.035757 0.29004,-0.046875 l 0,-9.75e-4 c 0.0012,-0.025238 -0.0093,-0.05179 -0.02636,-0.078125 l 0,-9.75e-4 c -0.01703,-0.026422 -0.04018,-0.05161 -0.06348,-0.07422 -0.04664,-0.044984 -0.09473,-0.078125 -0.09473,-0.078125 l 0.002,0 -10e-4,-9.75e-4 c 0,0 0.57315,-0.062965 0.62795,0.19824 0.0012,-0.00425 0.0027,-0.00657 0.0039,-0.010742 0.01975,-0.070425 0.04444,-0.12652 0.07129,-0.17578 0.0073,-0.013259 0.0148,-0.02523 0.02246,-0.037109 0.02967,-0.046268 0.06089,-0.08632 0.09473,-0.11426 0.03227,-0.026635 0.06519,-0.041187 0.09863,-0.05469 0.04065,-0.016459 0.08093,-0.026617 0.11914,-0.029297 0.0053,-3.75e-4 0.01144,-0.00373 0.0166,-0.0039 0.04899,-0.00164 0.09312,0.00543 0.12793,0.013672 0.0464,0.010991 0.0752,0.024414 0.0752,0.024414 0,0 -0.16734,0.042561 -0.25879,0.13965 -0.03037,0.032596 -0.05224,0.071885 -0.05664,0.11719 -0.0034,0.035137 0.0079,0.070895 0.0293,0.10254 0.02168,0.031712 0.05213,0.058915 0.08887,0.0791 0.02697,0.00393 0.05406,0.0081 0.08105,0.012695 0.02724,0.00442 0.05485,0.00847 0.08203,0.013672 0.07542,-0.016176 0.14616,-0.075515 0.18164,-0.20801 0.05232,0.0098 0.09482,0.026672 0.12988,0.048828 0.10554,0.06637 0.14111,0.17838 0.14844,0.27832 0.03146,0.010289 0.06261,0.020155 0.09375,0.03125 l 0.20898,-0.32715 0,0.00196 0.001,-0.00196 -0.04199,0.21094 -0.03223,0.16894 c 0.04129,0.016595 0.08154,0.033713 0.12207,0.05176 0.05218,-0.043983 0.12304,-0.06921 0.21582,-0.036133 -2.14e-4,7.95e-4 2.07e-4,0.00116 0,0.00196 -0.01492,0.05728 -0.01234,0.10368 0,0.13867 0.01478,0.00782 0.02929,0.017268 0.04395,0.02539 0.04028,0.022332 0.07995,0.044827 0.11914,0.06836 0.01599,-0.0019 0.03068,-0.00873 0.04492,-0.014648 0.0072,-0.00316 0.01505,-0.00371 0.02148,-0.00781 0.01936,-0.01236 0.03601,-0.028256 0.04492,-0.047852 l 0,-9.75e-4 c 0.01312,-0.029438 0.0142,-0.06128 0.0078,-0.091795 l 0,-9.75e-4 c -0.002,-0.0086 -0.008,-0.0164 -0.011,-0.0251 -0.028,-0.0815 -0.094,-0.1514 -0.094,-0.1514 l 0,-9.75e-4 c 0,0 0.08774,0.00786 0.16113,0.069335 0.07327,0.061415 0.13198,0.17675 0.07422,0.39356 0.01523,-0.017464 0.03363,-0.029051 0.05371,-0.036133 0.02045,-0.00725 0.04289,-0.00991 0.0664,-0.00879 0.14108,0.00671 0.31934,0.1416 0.31934,0.1416 l 0.001,9.75e-4 c 0,0 -0.11394,0.015357 -0.16602,0.061525 -0.0097,0.00861 -0.0237,0.015181 -0.02735,0.026367 -0.0037,0.011979 -0.004,0.024783 0.002,0.040039 0.006,0.015257 0.01739,0.032857 0.03614,0.05176 0.14534,0.14656 0.17675,-0.0906 0.2627,-0.2041 -0.02104,-0.026217 -0.04055,-0.05346 -0.0625,-0.0791 -0.01209,-0.014127 -0.02275,-0.029071 -0.03515,-0.042969 l 0,-9.75e-4 c 0.02276,-0.047627 0.05015,-0.11127 0.07129,-0.17969 0.02108,-0.068575 0.0361,-0.14148 0.0332,-0.20801 -0.0921,0.10874 -0.11986,0.36578 -0.26953,0.21484 -0.01874,-0.0189 -0.0301,-0.035525 -0.03613,-0.05078 -0.006,-0.015257 -0.0057,-0.029037 -0.002,-0.041015 0.0037,-0.011186 0.01763,-0.017762 0.02735,-0.026367 0.05207,-0.046167 0.16602,-0.061525 0.16602,-0.061525 l -0.001,-9.75e-4 c 0,0 -0.17826,-0.1349 -0.31934,-0.1416 -0.02351,-0.00112 -0.04595,0.00154 -0.0664,0.00879 -0.02008,0.00708 -0.03849,0.018668 -0.05371,0.036133 0.05776,-0.2168 -9.5e-4,-0.33214 -0.07422,-0.39356 -0.073,-0.0614 -0.161,-0.0692 -0.161,-0.0692 l 0,9.75e-4 c 2e-6,-1e-7 0.06586,0.069845 0.09375,0.15136 0.003,0.00869 0.0088,0.016485 0.01074,0.025391 l 0,9.75e-4 c 0.0064,0.030516 0.0053,0.06236 -0.0078,0.091795 l 0,9.75e-4 c -0.0089,0.019596 -0.02556,0.035492 -0.04492,0.047852 -0.0064,0.00411 -0.01431,0.00466 -0.02148,0.00781 -0.01424,0.00592 -0.02894,0.012742 -0.04492,0.014648 -0.038,-0.0236 -0.078,-0.0461 -0.118,-0.0684 -0.015,-0.0081 -0.03,-0.0176 -0.044,-0.0254 -0.01234,-0.034994 -0.01491,-0.08139 0,-0.13867 2.06e-4,-7.95e-4 -2.14e-4,-0.00116 0,-0.00196 -0.093,-0.0331 -0.164,-0.0079 -0.216,0.0361 -0.041,-0.0181 -0.081,-0.0352 -0.122,-0.0518 l 0.03223,-0.16894 0.04199,-0.21094 -10e-4,0.00195 0,-0.00195 -0.20898,0.32715 c -0.03114,-0.011095 -0.06229,-0.020961 -0.09375,-0.03125 -0.008,-0.0997 -0.0435,-0.2117 -0.149,-0.27805 -0.035,-0.02215 -0.0775,-0.03905 -0.13,-0.04885 -0.03548,0.13249 -0.10622,0.19183 -0.18164,0.20801 -0.02718,-0.0052 -0.05479,-0.00926 -0.08203,-0.013672 -0.02699,-0.00459 -0.05408,-0.00877 -0.08105,-0.012695 -0.03674,-0.020186 -0.0672,-0.04739 -0.08887,-0.0791 -0.02136,-0.031645 -0.0327,-0.0674 -0.0293,-0.10254 0.0044,-0.0453 0.02628,-0.08459 0.05664,-0.11719 0.09145,-0.09709 0.25879,-0.13965 0.25879,-0.13965 0,0 -0.0288,-0.013423 -0.0752,-0.024414 -0.035,-0.0082 -0.079,-0.0153 -0.128,-0.01365 z m 2.9678,1.503 c -0.07896,0.00248 -0.15928,0.013729 -0.24024,0.03418 -0.002,5.05e-4 -0.0038,4.624e-4 -0.0059,9.75e-4 l -0.001,0 c -0.16,0.0413 -0.322,0.1137 -0.481,0.2167 l -0.003,-0.0039 c -0.024,-0.0328 -0.05,-0.0632 -0.075,-0.0947 0,0.0619 -0.011,0.1286 -0.031,0.1914 -0.021,0.0684 -0.048,0.132 -0.071,0.1797 l 0,9.75e-4 c 0.01241,0.013898 0.02307,0.028842 0.03515,0.042969 0.0498,0.058185 0.09755,0.11771 0.1416,0.17969 9e-4,0.00131 0.002,0.0026 0.003,0.00391 0.15928,-0.10298 0.3213,-0.17542 0.48144,-0.2168 l 0.001,0 c 0.002,-5.15e-4 0.0038,-4.716e-4 0.0059,-9.75e-4 0.08096,-0.020451 0.16127,-0.031705 0.24024,-0.03418 0.02082,-7.35e-4 0.0409,0.00137 0.06152,0.00196 0.05764,0.00185 0.11427,0.00897 0.16992,0.021485 0.02933,0.00648 0.05826,0.013853 0.08692,0.023437 0.04831,0.016328 0.09456,0.03902 0.14062,0.064455 0.028,0.015373 0.05596,0.029953 0.08301,0.048828 0.04724,0.033073 0.0918,0.075045 0.13574,0.11914 0.02072,0.020774 0.04258,0.037229 0.0625,0.060545 0.06319,0.073985 0.12283,0.15823 0.17676,0.25879 0.05279,0.098445 0.08571,0.19844 0.1084,0.29883 0.0071,-0.037955 0.02149,-0.07512 0.02539,-0.11328 l 0,-9.75e-4 c 0.0058,-0.05688 0.0079,-0.11383 0.0059,-0.1709 l 0,-9.75e-4 c -0.006,-0.17245 -0.049,-0.3446 -0.139,-0.5128 -0.054,-0.10055 -0.1135,-0.1848 -0.177,-0.2588 -0.01992,-0.023318 -0.04178,-0.039773 -0.0625,-0.060545 -0.04395,-0.044094 -0.08851,-0.08607 -0.13574,-0.11914 -0.027,-0.0189 -0.055,-0.0334 -0.083,-0.0488 -0.046,-0.0255 -0.093,-0.0472 -0.141,-0.0635 -0.029,-0.0096 -0.057,-0.0179 -0.087,-0.0244 -0.055,-0.0125 -0.112,-0.0196 -0.17,-0.0215 -0.02,-6e-4 -0.04,-0.0027 -0.061,-0.002 z M 6.8358,8.5975 C 6.83,8.8198 6.83,9.0527 6.8388,9.2928 c 4.5e-4,0.011765 0.0015,0.02339 0.00195,0.035155 0.0313,0.79135 0.13024,1.5767 0.22363,1.7402 0.010335,0.01816 0.00863,0.02918 0.0166,0.0459 0.0269,-0.127 0.0732,-0.2175 0.0586,-0.3378 -0.007,-0.0586 -0.0284,-0.1257 -0.0752,-0.208 -0.0934,-0.1635 -0.1924,-0.9488 -0.2236,-1.7402 -5e-4,-0.0118 -0.0016,-0.0234 -0.002,-0.0352 -0.0024,-0.0663 -0.0015,-0.1294 -0.003,-0.1953 z m 0.55955,4.9804 0,0.25976 -0.18946,-0.11816 0,0.14258 -0.2128,-0.119 0.0468,0.118 -0.1894,-0.095 0.0234,0.237 -0.1885,-0.189 0.0703,0.331 -0.1894,-0.094 0.1387,0.357 -0.0196,-0.094 0.1885,0.189 -0.0234,-0.237 0.1894,0.095 -0.0469,-0.118 0.21289,0.11816 0,-0.14258 0.18946,0.11816 0,-0.25976 0.16602,0.2373 0,-0.19043 0.16602,0.2373 0.023435,-0.14258 0.16602,0.16602 0,-0.09473 0.35547,0.30762 0.02246,-0.16602 c 0,0 3.6532,2.1669 6.1825,3.414 0.22706,0.11196 0.43684,0.19895 0.63865,0.27442 0.1325,0.04947 0.26384,0.09778 0.38672,0.13086 1.327,0.35753 2.1198,-0.26482 2.9922,-2.21 0.03421,-0.33018 0.03223,-0.5674 0.03223,-0.5674 -0.88525,2.0026 -1.681,2.6393 -3.0244,2.2774 -0.12287,-0.03308 -0.25422,-0.08139 -0.38672,-0.13086 -0.20183,-0.07546 -0.41162,-0.16246 -0.63865,-0.27442 -2.529,-1.2475 -6.182,-3.4145 -6.182,-3.4145 l -0.0221,0.166 -0.3555,-0.308 0,0.09473 -0.16602,-0.16602 -0.023435,0.14258 -0.16602,-0.2373 0,0.19043 -0.166,-0.236 z m -0.9004,0.5918 0.16602,0.42676 -0.1416,-0.09473 0.125,0.25098 -0.078125,-0.20117 0.18946,0.09473 -0.04004,-0.19043 -0.2207,-0.28613 z m 0.0615,0.58 0.176,0.2285 -0.045,-0.115 -0.131,-0.1135 z m 0.00977,0.1543 c 0,0 0.044565,0.0737 0.05957,0.10058 l -0.0342,-0.086 -0.0254,-0.015 z"/>
 <ellipse style="fill:#464646" cx="18.586" cy="1.749" rx=".5" ry=".5" transform="matrix(0.96592583,0.25881904,-0.25881906,0.96592582,0,0)"/>
</svg>
