<svg xmlns="http://www.w3.org/2000/svg" width="24" height="24" version="1">
 <rect style="fill:#4f4f4f" width="20" height="20" x="2" y="2" rx="10" ry="10"/>
 <path style="opacity:.1" d="m11.750889 5.5027605v0.0049c-0.02279-5.6e-5 -0.04558 2.77e-4 -0.06836 1e-3 -3.2379716 0.1470355-5.9710396 2.5236175-6.5654291 5.7099615-0.5943896 3.186343 1.0972665 6.387819 4.064453 7.692382 0.7417965 0.326141 1.5178681 0.513413 2.2939451 0.570313 2.328231 0.170699 4.663437-0.831372 6.123047-2.775391 1.601866-2.132854-1.597352-4.535198-3.199219-2.402344-0.843592 1.12356-2.321242 1.510798-3.607422 0.945313-1.2861791-0.565486-1.9998356-1.915698-1.7421871-3.296875s1.4099201-2.3845075 2.8134761-2.4482425c0.0049-3.155e-4 0.0098-6.5e-4 0.01465-1e-3h6.105793l1.287326-0.4976775 0.729927-0.731709v-2.7706135z"/>
 <path style="fill:#8b9cbe;opacity:.1" d="m12.000889 2c-5.5400001 0-10 4.46-10 10 0 0.084-2e-3 0.1665 0 0.25 0.1322-5.423 4.544-9.75 10-9.75 5.456 0 9.868 4.327 10 9.75 2e-3 -0.0835 0-0.166 0-0.25 0-5.54-4.46-10-10-10z"/>
 <path style="opacity:.2" d="m2.0067389 12.25c-0.00205 0.0835-0.00585 0.166-0.00585 0.25 0 5.54 4.46 10 10 10 5.54 0 10-4.46 10-10 0-0.084-4e-3 -0.1665-6e-3 -0.25-0.132 5.423-4.538 9.75-9.994 9.75-5.4560001 0-9.8620001-4.327-9.9940001-9.75z"/>
 <path style="fill:none;stroke-linecap:round;stroke-linejoin:round;stroke-width:3.9998789;stroke:#8b9cbe" transform="scale(1,-1)" d="m11.772833-7.0032938a5.0010533 5.0010533 0 0 1-4.6893837-4.0788142 5.0010533 5.0010533 0 0 1 2.9034204-5.495198 5.0010533 5.0010533 0 0 1 6.0120913 1.575373"/>
 <path style="fill:#8b9cbe" d="m 11.750889,5 h 8.25 V 7.9869281 L 19,8 18.831699,9 h -7.08081 z"/>
 <path style="opacity:.2" d="m17.18789 3.5003276a1.1608037 1.20234 0 0 0-1.18789 1.2014372v5.5962712a1.1608037 1.20234 0 0 0 1.741031 1.040985l2.339511-1.3986768 2.339511-1.3994588a1.1608037 1.20234 0 0 0 0-2.0819696l-2.339511-1.3994591-2.339511-1.3986764a1.1608037 1.20234 0 0 0-0.553141-0.1604527z"/>
 <path style="fill:#00ba57" d="m17.18789 3.0003273a1.1608037 1.20234 0 0 0-1.18789 1.2014372v5.5962714a1.1608037 1.20234 0 0 0 1.741031 1.0409851l2.339511-1.3986771 2.339511-1.3994588a1.1608037 1.20234 0 0 0 0-2.0819696l-2.339511-1.3994591-2.339511-1.3986764a1.1608037 1.20234 0 0 0-0.553141-0.1604527z"/>
 <path style="fill:#8b9cbe;opacity:.2" d="m17.1875 3a1.1608037 1.20234 0 0 0-1.1875 1.2011719v0.5a1.1608037 1.20234 0 0 1 1.1875-1.2011719 1.1608037 1.20234 0 0 1 0.552734 0.1601562l2.339844 1.3984376 2.339844 1.4003906a1.1608037 1.20234 0 0 1 0.552734 0.7910156 1.1608037 1.20234 0 0 0-0.552734-1.2910156l-2.339844-1.4003906-2.339844-1.3984376a1.1608037 1.20234 0 0 0-0.552734-0.1601562z"/>
</svg>
