<svg width="24" height="24" version="1.1" xmlns="http://www.w3.org/2000/svg">
 <rect x="2" y="2.5" width="20" height="20" rx="1" ry="1" style="opacity:.2"/>
 <rect x="2" y="2" width="20" height="20" rx="1" ry="1" style="fill:#fc9300"/>
 <path d="m9.0001893 7c2.9999997 0 3.9999997 2 3.9999997 2s2-2 5-1 3 5 3 5-1.018772 8.140175-9 7c-6.9999997-1-5.9999997-9-5.9999997-9s0-4 3-4z" style="fill:#ffff00"/>
 <path d="m9.0001893 7c-0.8611111 0-1.5620585 0.3016909-2.0664062 0.75-0.5043478 0.4483091-0.8206042 1.022913-1.0273438 1.5742188-0.411619 1.0976502-0.4043478 2.1564252-0.4042969 2.1660152-0.00998 0.0807-0.2534454 2.078911 0.3925781 4.275391 0.6591475 2.241102 2.347066 4.701646 6.0351565 5.228516 4.158474 0.594067 6.654307-1.286947 7.980468-3.291016s1.585938-4.140625 1.585938-4.140625a0.50005 0.50005 0 0 0 0.0039-0.0625s0.0027-1.073876-0.400391-2.283203c-0.403103-1.209328-1.251663-2.6281608-2.9414-3.1914064-2.780791-0.9269303-4.528638 0.391563-5.066406 0.8398438-0.147522-0.2241267-0.199844-0.3922966-0.654297-0.7558594-0.701182-0.5609459-1.826389-1.109375-3.4374997-1.109375zm0 1c1.3888887 0 2.2636817 0.4515709 2.8124997 0.890625s0.740234 0.8320313 0.740234 0.8320312a0.50005 0.50005 0 0 0 0.800782 0.1308594s1.741263-1.7945788 4.488281-0.8789062c1.310263 0.4367544 1.961703 1.5179206 2.308594 2.5585936 0.342431 1.027293 0.345585 1.918029 0.345703 1.941406-0.0078 0.05864-0.259704 1.922482-1.419922 3.675782-1.178532 1.780975-3.183106 3.399623-7.00586 2.853515-3.3119086-0.47313-4.6239905-2.510633-5.2148429-4.519531-0.5908525-2.008898-0.359375-3.921875-0.359375-3.921875a0.50005 0.50005 0 0 0 0.0039062-0.0625s0.00723-0.92683 0.34375-1.8242188c0.1682604-0.4486943 0.414504-0.8760434 0.7539062-1.1777343 0.3394023-0.3016909 0.7634549-0.4980469 1.4023438-0.4980469z" style="opacity:.2"/>
 <path d="m9.0001893 7c2.9999997 0 3.9999997 2 3.9999997 2s2-2 5-1 3 5 3 5-1.018772 8.140175-9 7c-6.9999997-1-5.9999997-9-5.9999997-9s0-4 3-4z" style="fill:none;stroke-linecap:round;stroke-linejoin:round;stroke:#93dc00"/>
 <path d="m11.000189 4.8796157 1 4.1289063 1-2.4140625zm1 4.1289063c-1-1.4139632-1.651362-2.8841994-4.0000002-2.9140625-0.861111 0-1.562058 0.303644-2.066406 0.7519531s-0.820604 1.0209599-1.027344 1.5722657c-0.411619 1.0976506-0.404348 2.1564257-0.404297 2.1660157-0.01 0.0807-0.253445 2.078911 0.392578 4.275391 0.659148 2.241102 2.347066 4.701646 6.0351572 5.228516 4.158474 0.594067 6.654307-1.286947 7.980468-3.291016s1.585938-4.140625 1.585938-4.140625c0.0026-0.02073 0.0039-0.04161 0.0039-0.0625 0 0 0.0027-1.073876-0.400391-2.283204-0.403097-1.209327-1.251663-2.6281603-2.9414-3.1914059-2.780791-0.9269303-4.158203 0.4747087-5.158203 1.8886719zm-4.0000002-1.9140625c1.388889 0 2.2636822 0.4515709 2.8125002 0.890625s0.740233 0.8320314 0.740233 0.8320312c0.152286 0.305521 0.559163 0.3720104 0.800783 0.1308594 0 0 1.741263-1.7945788 4.488281-0.8789062 1.310263 0.4367544 1.961703 1.5179211 2.308594 2.5585941 0.342431 1.027293 0.345585 1.918029 0.345703 1.941406-0.0078 0.05864-0.259704 1.924435-1.419922 3.677735-1.178532 1.780975-3.183106 3.399623-7.005859 2.853515-3.3119102-0.47313-4.6239922-2.512586-5.2148442-4.521484-0.590853-2.008898-0.359375-3.921876-0.359375-3.921876 0.0026-0.02073 0.0039-0.04161 0.0039-0.0625 0 0 0.0072-0.9268297 0.34375-1.8242183 0.168256-0.4486942 0.4145-0.8760434 0.753902-1.1777343 0.339403-0.3016909 0.763455-0.4980469 1.402344-0.4980469z" style="opacity:.2"/>
 <path d="m11.000189 4.2851562 1 4.1289063 1-2.4140625zm1 4.1289063c-1-1.4139632-1.651362-2.8841994-3.9999997-2.9140625-0.8611111 0-1.5620585 0.303644-2.0664062 0.7519531-0.5043479 0.4483091-0.8206042 1.0209599-1.0273438 1.5722657-0.411619 1.0976506-0.4043478 2.1564254-0.4042969 2.1660156-0.00998 0.080701-0.2534454 2.0789106 0.3925781 4.2753906 0.6591476 2.241102 2.3470659 4.701646 6.0351565 5.228516 4.158474 0.594067 6.654307-1.286947 7.980468-3.291016s1.585938-4.140625 1.585938-4.140625c0.0026-0.02073 0.0039-0.04161 0.0039-0.0625 0 0 0.0027-1.073876-0.400391-2.2832031-0.403097-1.2093274-1.251663-2.6281607-2.9414-3.1914063-2.780791-0.9269303-4.158203 0.4747087-5.158203 1.8886719zm-3.9999997-1.9140625c1.3888889 0 2.2636827 0.4515709 2.8124997 0.890625 0.548818 0.4390541 0.740234 0.8320314 0.740234 0.8320312 0.152286 0.305521 0.559162 0.3720104 0.800782 0.1308594 0 0 1.741263-1.7945788 4.488281-0.8789062 1.310263 0.4367544 1.961703 1.5179211 2.308594 2.5585936 0.342431 1.027293 0.345585 1.918029 0.345703 1.941406-0.0078 0.05864-0.259704 1.924435-1.419922 3.677735-1.178532 1.780975-3.183106 3.399623-7.005859 2.853515-3.3119098-0.47313-4.6239916-2.512586-5.2148439-4.521484-0.5908526-2.008898-0.3593751-3.921875-0.359375-3.921875 0.00261-0.02073 0.00391-0.04161 0.00391-0.0625 0 0 0.00723-0.9268302 0.34375-1.8242188 0.1682566-0.4486942 0.4145002-0.8760434 0.7539024-1.1777343 0.3394023-0.3016909 0.7634549-0.4980469 1.4023438-0.4980469z" style="fill:#4f4f4f"/>
 <path d="m3 2c-0.554 0-1 0.446-1 1v0.5c0-0.554 0.446-1 1-1h18c0.554 0 1 0.446 1 1v-0.5c0-0.554-0.446-1-1-1z" style="fill:#8b9cbe;opacity:.2"/>
</svg>
