<svg xmlns="http://www.w3.org/2000/svg" width="24" height="24" version="1">
 <path fill="#ffa923" d="m17 7v2.5c0 1.385-1.115 2.5-2.5 2.5h-5s-2.5 0-2.5 2.5v4.375c0 1.731 1.951 3.125 4.375 3.125h1.25c2.424 0 4.375-1.394 4.375-3.125v-0.875h-5v-1h6.875c1.731 0 3.125-1.951 3.125-4.375v-1.25c0-2.424-1.394-4.375-3.125-4.375h-1.875z"/>
 <path opacity=".2" d="m14.5 20.5a0.5 0.5 0 0 1 0.5 0.5 0.5 0.5 0 0 1 -0.5 0.5 0.5 0.5 0 0 1 -0.5 -0.5 0.5 0.5 0 0 1 0.5 -0.5z"/>
 <path fill="#fff" d="m14.5 20a0.5 0.5 0 0 1 0.5 0.5 0.5 0.5 0 0 1 -0.5 0.5 0.5 0.5 0 0 1 -0.5 -0.5 0.5 0.5 0 0 1 0.5 -0.5z"/>
 <path style="opacity:0.2" d="M 11.375,2.5 C 8.951,2.5 7,3.8938 7,5.625 V 6.5 h 5 v 1 H 5.125 C 3.3938,7.5 2,9.451 2,11.875 v 1.25 C 2,15.549 3.3938,17.5 5.125,17.5 H 7 V 15 c 0,-1.385 1.115,-2.5 2.5,-2.5 h 5 c 0,0 2.5,0 2.5,-2.5 V 5.625 C 17,3.8938 15.049,2.5 12.625,2.5 Z"/>
 <path fill="#3084e0" d="m11.375 2c-2.424 0-4.375 1.3938-4.375 3.125v0.875h5v1h-6.875c-1.7312 0-3.125 1.951-3.125 4.375v1.25c0 2.424 1.3938 4.375 3.125 4.375h1.875v-2.5c0-1.385 1.115-2.5 2.5-2.5h5s2.5 0 2.5-2.5v-4.375c0-1.7312-1.951-3.125-4.375-3.125h-1.25z"/>
 <path opacity=".2" d="m9.5 3.5a0.5 0.5 0 0 1 0.5 0.5 0.5 0.5 0 0 1 -0.5 0.5 0.5 0.5 0 0 1 -0.5 -0.5 0.5 0.5 0 0 1 0.5 -0.5z"/>
 <path fill="#fff" d="m9.5 3a0.5 0.5 0 0 1 0.5 0.5 0.5 0.5 0 0 1 -0.5 0.5 0.5 0.5 0 0 1 -0.5 -0.5 0.5 0.5 0 0 1 0.5 -0.5z"/>
 <path fill="#fff" style="opacity:0.2" d="m11.375 2c-2.424 0-4.375 1.3938-4.375 3.125v0.5c0-1.7312 1.951-3.125 4.375-3.125h1.25c2.424 0 4.375 1.3938 4.375 3.125v-0.5c0-1.7312-1.951-3.125-4.375-3.125zm-6.25 5c-1.7312 0-3.125 1.951-3.125 4.375v0.5c0-2.424 1.3938-4.375 3.125-4.375h6.875v-0.5h-5z"/>
 <path style="fill:#8b9cbe;opacity:0.2" d="m 17,7 v 0.5 h 1.875 C 20.606,7.5 22,9.451 22,11.875 v -0.5 C 22,8.951 20.606,7 18.875,7 Z m -5,11 v 0.5 h 5 V 18 Z"/>
 <path opacity=".2" d="m22 12.625c0 2.424-1.394 4.375-3.125 4.375h-6.875v0.5h6.875c1.731 0 3.125-1.951 3.125-4.375zm-15 6.25v0.5c0 1.7312 1.9512 3.125 4.375 3.125h1.25c2.424 0 4.375-1.394 4.375-3.125v-0.5c0 1.731-1.951 3.125-4.375 3.125h-1.25c-2.424 0-4.375-1.394-4.375-3.125z"/>
</svg>
