<svg xmlns="http://www.w3.org/2000/svg" width="24" height="24" version="1.1">
 <path style="opacity:0.2" d="m 12,2.5 c -5.5228195,0 -10,4.4770925 -10,10 0,1.270216 0.2458211,2.480788 0.6777344,3.598633 l -0.02539,-0.01367 c 0.2573568,0.704405 0.4646361,1.40859 0.553711,1.99414 0.088987,0.585463 -0.1405431,1.051744 -0.2460938,1.445313 -0.1054625,0.393568 -0.2372671,0.714833 -0.3486328,1.027344 -0.1112775,0.312599 -0.2021777,0.616829 0.049805,0.895507 0.2519823,0.278767 0.8468253,0.531041 1.9472656,0.72461 C 5.7088395,22.365355 7.316004,22.5 8.716797,22.5 H 12 c 5.522819,0 10,-4.477181 10,-10 0,-5.5229075 -4.477181,-10 -10,-10 z"/>
 <path style="fill:#2fab74" d="M 13.977401,21.396828 C 13.487886,21.507842 12.851747,22 12,22 11,22 10,22 8.71652,22 7.315727,22 5.7092075,21.865727 4.6087666,21.672246 3.5083263,21.478678 2.9135245,21.226079 2.6615422,20.947312 2.4095598,20.668634 2.5004849,20.363876 2.6117624,20.051277 2.7231281,19.738766 2.8548461,19.418326 2.9603087,19.024757 3.0658593,18.631189 3.2952602,18.164405 3.2062734,17.578942 3.1171986,16.993392 2.909736,16.289075 2.6523791,15.58467"/>
 <path style="fill:#2fab74" d="M 22,12 C 22,17.522819 17.522819,22 12,22 6.4771805,22 2.0000001,17.522819 2.0000001,12 2.0000001,6.4770925 6.4771805,2.0000001 12,2.0000001 c 5.522819,0 10,4.4770924 10,9.9999999 z"/>
 <path style="opacity:0.2" d="M 8.0410156,7.5 C 7.4647267,7.5 7,7.946 7,8.5 c 0,0.554 0.4647267,1 1.0410156,1 H 15.958984 C 16.535273,9.5 17,9.054 17,8.5 c 0,-0.554 -0.464727,-1 -1.041016,-1 z m -1.8945312,4 C 5.5111652,11.5 5,11.946 5,12.5 c 0,0.554 0.5111652,1 1.1464844,1 H 17.853516 C 18.488835,13.5 19,13.054 19,12.5 c 0,-0.554 -0.511165,-1 -1.146484,-1 z M 8,15.5 c -0.554,0 -1,0.446 -1,1 0,0.554 0.446,1 1,1 0.554,0 1,-0.446 1,-1 0,-0.554 -0.446,-1 -1,-1 z m 3.009766,0 C 10.45074,15.5 10,15.946 10,16.5 c 0,0.554 0.45074,1 1.009766,1 h 4.980468 C 16.54926,17.5 17,17.054 17,16.5 c 0,-0.554 -0.45074,-1 -1.009766,-1 z"/>
 <rect style="fill:#c1ede5" width="10" height="2" x="7" y="7" rx="1.04" ry="1"/>
 <rect style="fill:#c1ede5" width="14" height="2" x="5" y="11" rx="1.147" ry="1"/>
 <rect style="fill:#c1ede5" width="7" height="2" x="10" y="15" rx="1.009" ry="1"/>
 <rect style="fill:#c1ede5" width="2" height="2" x="7" y="15" rx="1" ry="1"/>
 <path style="opacity:0.2;fill:#8b9cbe" d="M 12,2 C 6.4771805,2 2,6.4770925 2,12 2,12.08384 2.00381,12.166659 2.00586,12.25 2.1389428,6.8429765 6.561016,2.5 12,2.5 c 5.438984,0 9.861057,4.3429765 9.99414,9.75 C 21.996192,12.166659 22,12.083835 22,12 22,6.4770925 17.522819,2 12,2 Z"/>
</svg>
