<svg xmlns="http://www.w3.org/2000/svg" width="24" height="24" version="1">
 <rect style="fill:#1159d4" width="20" height="20" x="2" y="2" rx="1" ry="1"/>
 <path style="fill:none;stroke:#1159d4;stroke-width:2;stroke-linecap:square" d="M 3.5,10 H 7 l 2,5.85 2.5,-7.35 1.75,4 L 15,8 l 2,6 h 3"/>
 <path style="opacity:0.2" d="M 4.7998045,4.4999999 C 4.3566045,4.4999999 4,4.8566046 4,5.2998045 V 9.5 h 3.714844 l 1.283203,3.751953 2.384766,-7.013672 1.8125,4.143555 L 15.072266,5.5546875 17.720703,13.5 H 20 V 5.2998045 C 20,4.8566046 19.643395,4.4999999 19.200195,4.4999999 Z m 10.1279305,6.9443361 -1.623047,4.174805 -1.6875,-3.858399 -2.615235,7.6875 L 6.285156,11.5 H 4 v 8.200195 C 4,20.143395 4.3566045,20.5 4.7998045,20.5 H 19.200195 C 19.643395,20.5 20,20.143395 20,19.700195 V 15.5 h -3.720703 z"/>
 <path style="opacity:0.1;fill:#8b9cbe" d="M 3,2 C 2.446,2 2,2.446 2,3 v 0.5 c 0,-0.554 0.446,-1 1,-1 h 18 c 0.554,0 1,0.446 1,1 V 3 C 22,2.446 21.554,2 21,2 Z"/>
 <path style="opacity:0.2" d="m 3,22.5 c -0.554,0 -1,-0.446 -1,-1 V 21 c 0,0.554 0.446,1 1,1 h 18 c 0.554,0 1,-0.446 1,-1 v 0.5 c 0,0.554 -0.446,1 -1,1 z"/>
 <path style="fill:#39dcff" d="M 4.7998045,3.9999999 C 4.3566045,3.9999999 4,4.3566046 4,4.7998046 V 9 h 3.714844 l 1.283203,3.751953 2.384766,-7.013672 1.8125,4.143555 L 15.072266,5.0546875 17.720703,13 H 20 V 4.7998046 c 0,-0.4432 -0.356605,-0.7998047 -0.799805,-0.7998047 z m 10.1279305,6.9443361 -1.623047,4.174805 -1.6875,-3.858399 -2.615235,7.6875 L 6.285156,11 H 4 v 8.200195 C 4,19.643395 4.3566045,20 4.7998045,20 H 19.200195 C 19.643395,20 20,19.643395 20,19.200195 V 15 h -3.720703 z"/>
 <path style="opacity:0.2;fill:#8b9cbe" d="M 4.7998047,4 C 4.3566047,4 4,4.3566047 4,4.7998047 V 5.2998045 C 4,4.8566048 4.3566047,4.5 4.7998047,4.5 H 19.200195 C 19.643395,4.5 20,4.8566048 20,5.2998045 V 4.7998047 C 20,4.3566047 19.643395,4 19.200195,4 Z m 10.1279303,6.944336 -1.623047,4.174805 -1.6875,-3.858399 -2.615235,7.6875 L 6.285156,11 H 4 v 0.5 h 2.285156 l 2.716797,7.948242 2.615235,-7.6875 1.6875,3.858399 1.623047,-4.174805 L 16.279297,15.5 H 20 V 15 h -3.720703 z"/>
</svg>
