<svg xmlns="http://www.w3.org/2000/svg" width="24" height="24" version="1">
 <rect style="opacity:0.2" width="20" height="20" x="2" y="2.5" rx="6" ry="6"/>
 <rect style="fill:#0dbc8a" width="20" height="20" x="2" y="2" rx="6" ry="6"/>
 <path style="opacity:0.2;fill:#8b9cbe" d="M 8,2 C 4.676,2 2,4.676 2,8 v 0.5 c 0,-3.324 2.676,-6 6,-6 h 8 c 3.324,0 6,2.676 6,6 V 8 C 22,4.676 19.324,2 16,2 Z"/>
 <path style="opacity:0.2" d="m 10.880046,5.5 c -0.463914,0 -0.839682,0.375762 -0.839682,0.839681 0,0.463919 0.375768,0.8408205 0.839682,0.8408205 2.164982,0 3.92041,1.7543165 3.92041,3.9192705 0,0.463925 0.375756,0.839681 0.839681,0.839681 0.463924,0 0.839681,-0.375756 0.839681,-0.839681 C 16.479818,8.0069795 13.97282,5.5 10.880046,5.5 Z m -0.280274,2.520182 c -3.0927925,6e-6 -5.5997722,2.506968 -5.5997721,5.599773 0,0.463925 0.3757616,0.839681 0.8396811,0.839681 0.463919,0 0.84082,-0.375756 0.84082,-0.839681 0,-2.164983 1.7543165,-3.920411 3.919271,-3.920411 0.463925,0 0.839681,-0.3757615 0.839681,-0.839681 0,-0.463919 -0.375756,-0.839681 -0.839681,-0.839681 z m 7.560547,2.520183 c -0.463925,0 -0.84082,0.375768 -0.84082,0.839681 0,2.164983 -1.754287,3.92041 -3.919271,3.92041 -0.463925,0 -0.839681,0.375756 -0.839681,0.83968 0,0.463925 0.375756,0.839682 0.839681,0.839682 C 16.493003,16.979818 19,14.47282 19,11.380046 19,10.916133 18.624244,10.540365 18.160319,10.540365 Z m -9.800456,2.520183 c -0.4639195,0 -0.839681,0.375755 -0.839681,0.83968 0,3.092775 2.506968,5.599772 5.599773,5.599772 0.463925,0 0.839681,-0.375756 0.839681,-0.839681 0,-0.463925 -0.375756,-0.84082 -0.839681,-0.84082 -2.164984,0 -3.920411,-1.754288 -3.920411,-3.919271 0,-0.463925 -0.375762,-0.83968 -0.839681,-0.83968 z"/>
 <path style="fill:#8b9cbe" d="m 10.880046,5 c -0.463914,0 -0.839682,0.375762 -0.839682,0.839681 0,0.463919 0.375768,0.8408205 0.839682,0.8408205 2.164982,0 3.92041,1.7543165 3.92041,3.9192705 0,0.463925 0.375756,0.839681 0.839681,0.839681 0.463924,0 0.839681,-0.375756 0.839681,-0.839681 C 16.479818,7.5069795 13.97282,5 10.880046,5 Z m -0.280274,2.520182 c -3.0927925,6e-6 -5.5997722,2.506968 -5.5997721,5.599773 0,0.463925 0.3757616,0.839681 0.8396811,0.839681 0.463919,0 0.84082,-0.375756 0.84082,-0.839681 0,-2.164983 1.7543165,-3.920411 3.919271,-3.920411 0.463925,0 0.839681,-0.3757615 0.839681,-0.839681 0,-0.463919 -0.375756,-0.839681 -0.839681,-0.839681 z m 7.560547,2.520183 c -0.463925,0 -0.84082,0.375768 -0.84082,0.839681 0,2.164983 -1.754287,3.92041 -3.919271,3.92041 -0.463925,0 -0.839681,0.375756 -0.839681,0.839681 0,0.463925 0.375756,0.839681 0.839681,0.839681 C 16.493003,16.479818 19,13.97282 19,10.880046 19,10.416133 18.624244,10.040365 18.160319,10.040365 Z m -9.800456,2.520183 c -0.4639195,0 -0.839681,0.375755 -0.839681,0.83968 0,3.092775 2.506968,5.599772 5.599773,5.599772 0.463925,0 0.839681,-0.375756 0.839681,-0.839681 0,-0.463925 -0.375756,-0.84082 -0.839681,-0.84082 -2.164984,0 -3.920411,-1.754287 -3.920411,-3.919271 0,-0.463925 -0.375762,-0.83968 -0.839681,-0.83968 z"/>
</svg>
