<svg xmlns="http://www.w3.org/2000/svg" width="24" height="24" version="1.1">
 <path style="opacity:0.2" d="M 12.000002,2.5 C 6.4823465,2.5 2,6.982344 2,12.5 c 0,5.517655 4.4823465,10.000001 10.000002,10 5.517652,0 10.000003,-4.482345 9.999998,-10 0,-5.517656 -4.482346,-10 -9.999998,-10 z"/>
 <path style="fill:#3475d5" d="M 12.000002,2 C 6.4823465,2 2,6.482344 2,12 2,17.517655 6.4823465,22.000001 12.000002,22 17.517654,22 22.000005,17.517655 22,12 22,6.482344 17.517654,2 12.000002,2 Z"/>
 <path style="opacity:0.2;fill:none;stroke:#000000;stroke-linecap:round;stroke-linejoin:round" d="M 7.5,13.000132 H 9 l 1.5,-4.0002612 1,7.0000002 1,-4.999739 1,2.999804 1.5,-0.999804 h 1.5"/>
 <path style="fill:none;stroke:#8b9cbe;stroke-linecap:round;stroke-linejoin:round" d="M 7.5,12.500261 H 9 L 10.5,8.5 l 1,7 1,-4.999739 1,2.999804 1.5,-0.999804 h 1.5"/>
 <path style="fill:none" d="M 6.391514,16.979447 A 7.5,7.5 0 0 1 5.3840485,8.4674105 7.5,7.5 0 0 1 13.017867,4.5693912"/>
 <path style="opacity:0.2;fill:#8b9cbe" d="M 12,2 C 6.482345,2 2,6.4823445 2,12 2,12.08392 2.0038,12.166575 2.00586,12.25 2.1393415,6.848058 6.566261,2.5 12,2.5 c 5.433736,0 9.860658,4.348058 9.99414,9.75 C 21.996202,12.166575 22,12.083916 22,12 22,6.4823445 17.517652,2 12,2 Z"/>
 <path style="fill:none;stroke:#2c4043;stroke-width:2;stroke-linecap:round;stroke-linejoin:round" d="m 6.9901508,16.888907 a 7,7 0 0 1 0.1063899,-9.8845137 7,7 0 0 1 9.8847813,0.077636 7,7 0 0 1 -0.04888,9.8849652"/>
 <path style="opacity:0.2;fill:none;stroke:#000000;stroke-width:2;stroke-linecap:round;stroke-linejoin:round" d="M 6.9901508,17.388778 A 7,7 0 0 1 5.7712955,9.3056201 7,7 0 0 1 13.046747,5.5785766"/>
 <path style="fill:none;stroke:#19eab8;stroke-width:2;stroke-linecap:round;stroke-linejoin:round" d="M 6.9901508,16.888907 A 7,7 0 0 1 5.7712955,8.8057488 7,7 0 0 1 13.046747,5.0787053"/>
</svg>
