<svg width="24" height="24" version="1.1" xmlns="http://www.w3.org/2000/svg">
 <g transform="translate(1,1)">
  <path d="m3 15.5h14v4h-2v2h-10v-2h-2z" style="opacity:.2"/>
  <path d="m3 15h14v4h-2v2h-10v-2h-2z" style="fill:#994c1f"/>
  <path d="m3 4.5h14v12h-2v3h-10v-3h-2z" style="opacity:.2"/>
  <path d="m3 4h14v12h-2v3h-10v-3h-2z" style="fill:#b06332"/>
  <rect x="3" y="9" width="14" height="3" style="fill:#93481e"/>
  <rect x="12" y="9.5" width="3" height="3" style="opacity:.1"/>
  <rect x="12" y="9" width="3" height="3" style="fill:#17191e"/>
  <rect x="5" y="9.5" width="3" height="3" style="opacity:.1"/>
  <path d="m3 4.5v3h9v-3.5zm9 2v3h5v-3z" style="opacity:.1"/>
  <rect x="8" y="12.5" width="4" height="1" style="opacity:.2"/>
  <rect x="5" y="9" width="3" height="3" style="fill:#17191e"/>
  <path d="m3 4v3h9v-3.5zm9 2v3h5v-3z" style="fill:#4f4f4f"/>
  <path d="m3 1.5v4h9v2h7v-6z" style="opacity:.2"/>
  <path d="m3 1v4h9v2h7v-6z" style="fill:#ae1919"/>
  <rect x="8" y="12" width="4" height="1" style="fill:#c77947"/>
  <rect x="7" y="16" width="6" height="1" style="fill:#703717"/>
  <rect x="12" y="1" width="7" height="6" style="fill:#862014"/>
  <path d="m3 1v0.5h16v-0.5z" style="fill:#8b9cbe;opacity:.1"/>
 </g>
</svg>
