<svg xmlns="http://www.w3.org/2000/svg" width="24" height="24" version="1">
 <path style="fill:#c9c9c9" d="M 11.923,2 11.922,2.00196 C 6.4185,2.043905 2,6.486005 2,11.999955 c 0,5.54 4.46,10 10,10 5.34,0 9.6755,-4.1445 9.9815,-9.4055 L 22,12.576955 v -8.577 c 0,-1.108 -0.892,-2 -2,-2 h -8.077 z"/>
 <path style="opacity:0.2;fill:#8b9cbe" d="M 11.923,2 11.922,2.00196 C 6.4185,2.043905 2,6.486005 2,11.999955 c 0,0.084 0.0038,0.1665 0.00585,0.25 0.1316,-5.397 4.49615,-9.707 9.916,-9.748 l 0.001,-0.002 h 8.077 c 1.108,0 2,0.892 2,2 v -0.5 c 0,-1.108 -0.892,-2 -2,-2 h -8.077 z"/>
 <path style="opacity:0.2" d="M 2.00585,12.25 C 2.00385,12.3335 2,12.416 2,12.5 c 0,5.54 4.46,10 10,10 5.34,0 9.6755,-4.1445 9.9815,-9.4055 L 22,13.077 v -0.5 l -0.01855,0.01758 c -0.306,5.261 -4.6415,9.4055 -9.9815,9.4055 -5.456,0 -9.862,-4.327 -9.994,-9.75 z"/>
 <path style="opacity:0.1;stroke:#8b9cbe;stroke-width:0;stroke-linecap:square;stroke-opacity:0" d="M 20,4.500246 C 13.365848,4.7290098 9.306633,4.2131432 6.274414,7.245363 c -3.0322199,3.03222 -3.0322275,7.948242 0,10.980469 3.032227,3.032228 7.948249,3.032221 10.980469,0 C 20.287103,15.193612 19.771236,11.1344 20,4.500246 Z"/>
 <path style="fill:#2669ee;stroke:#8b9cbe;stroke-width:0;stroke-linecap:square;stroke-opacity:0" d="M 20,4 C 13.365848,4.2287638 9.306633,3.7128973 6.274414,6.745117 c -3.0322199,3.0322195 -3.0322275,7.948242 0,10.980469 3.032227,3.032227 7.948249,3.03222 10.980469,0 C 20.287103,14.693366 19.771236,10.634154 20,4 Z"/>
 <path style="opacity:0.2;stroke:#8b9cbe;stroke-width:0;stroke-linecap:square;stroke-opacity:0" d="m 12,7.5004415 c -1.279718,0 -2.5587643,0.4885751 -3.5351562,1.4648438 -1.9527828,1.9525357 -1.9527823,5.1177757 0,7.0703107 1.9527832,1.952538 5.1175292,1.952538 7.0703122,0 1.952782,-1.952535 1.952782,-5.117774 0,-7.0703107 C 14.558765,7.9890166 13.279717,7.5004415 12,7.5004415 Z m 0.04492,2 a 3.0004941,3.0000294 0 0 1 2.076172,0.8789075 3.0004941,3.0000294 0 0 1 0,4.242187 3.0004941,3.0000294 0 0 1 -4.2421878,0 3.0004941,3.0000294 0 0 1 0,-4.242188 3.0004941,3.0000294 0 0 1 2.1660158,-0.8789065 z"/>
 <path style="fill:#8b9cbe;stroke:#8b9cbe;stroke-width:0;stroke-linecap:square;stroke-opacity:0" d="M 12 7 C 10.720282 7 9.4412357 7.4885751 8.4648438 8.4648438 C 6.512061 10.417381 6.5120615 13.58262 8.4648438 15.535156 C 10.417627 17.487694 13.582373 17.487694 15.535156 15.535156 C 17.487938 13.58262 17.487938 10.417381 15.535156 8.4648438 C 14.558765 7.4885751 13.279717 7 12 7 z M 12.044922 9 A 3.0004941 3.0000294 0 0 1 14.121094 9.8789062 A 3.0004941 3.0000294 0 0 1 14.121094 14.121094 A 3.0004941 3.0000294 0 0 1 9.8789062 14.121094 A 3.0004941 3.0000294 0 0 1 9.8789062 9.8789062 A 3.0004941 3.0000294 0 0 1 12.044922 9 z"/>
</svg>
