<svg xmlns="http://www.w3.org/2000/svg" width="24" height="24" version="1.0">
 <rect style="opacity:0.2" width="21" height="16" x="1" y="5.5" rx="1.5" ry="1.5"/>
 <rect style="fill:#2769bc" width="21" height="17" x="1" y="4" rx="1.5" ry="1.5"/>
 <path style="opacity:0.2" d="M 11.5,6.5 A 4.5,4.5 0 0 0 7,11 4.5,4.5 0 0 0 11.5,15.5 4.5,4.5 0 0 0 16,11 4.5,4.5 0 0 0 11.5,6.5 Z M 10,8.5 H 10.441 10.488 C 10.574,8.4992 10.656,8.5194 10.73,8.5625 L 14.146,10.563 C 14.298,10.648 14.375,10.824 14.375,11 14.375,11.176 14.298,11.352 14.146,11.438 L 10.73,13.438 C 10.656,13.481 10.574,13.501 10.488,13.5 H 10.441 10 Z"/>
 <path style="fill:#8b9cbe" d="M 11.5,6 A 4.5,4.5 0 0 0 7,10.5 4.5,4.5 0 0 0 11.5,15 4.5,4.5 0 0 0 16,10.5 4.5,4.5 0 0 0 11.5,6 Z M 10,8 H 10.441 10.488 C 10.574,7.9992 10.656,8.0194 10.73,8.0625 L 14.146,10.063 C 14.298,10.148 14.375,10.324 14.375,10.5 14.375,10.676 14.298,10.852 14.146,10.938 L 10.73,12.938 C 10.656,12.981 10.574,13.001 10.488,13 H 10.441 10 Z"/>
 <rect style="opacity:0.5;fill:#8b9cbe" width="11" height="1" x="6" y="17" rx=".5" ry=".5"/>
 <rect style="opacity:0.2" width="3" height="3" x="7" y="16.5" rx="1.5" ry="1.5"/>
 <rect style="fill:#8b9cbe" width="3" height="3" x="7" y="16" rx="1.5" ry="1.5"/>
 <path style="opacity:0.3" d="M 2,5 V 7 H 4 V 5 Z M 19,5 V 7 H 21 V 5 Z M 2,9 V 11 H 4 V 9 Z M 19,9 V 11 H 21 V 9 Z M 2,13 V 15 H 4 V 13 Z M 19,13 V 15 H 21 V 13 Z M 2,17 V 19 H 4 V 17 Z M 19,17 V 19 H 21 V 17 Z"/>
 <path style="fill:#8b9cbe;opacity:0.1" d="M 2.5 4 C 1.669 4 1 4.669 1 5.5 L 1 6 C 1 5.169 1.669 4.5 2.5 4.5 L 20.5 4.5 C 21.331 4.5 22 5.169 22 6 L 22 5.5 C 22 4.669 21.331 4 20.5 4 L 2.5 4 z"/>
</svg>
