<svg width="24" height="24" version="1.1" xmlns="http://www.w3.org/2000/svg">
 <g transform="translate(1,1)">
  <circle cx="11" cy="11.5" r="10" style="opacity:.2"/>
  <circle cx="11" cy="11" r="10" style="fill:#604d97"/>
  <path d="M 11,1 A 10,10 0 0 0 1,11 10,10 0 0 0 1.0098,11.293 10,10 0 0 1 11,1.5 10,10 0 0 1 20.99,11.207 10,10 0 0 0 21,11 10,10 0 0 0 11,1 Z" style="fill:#8b9cbe;opacity:.1"/>
  <path d="m11 7.5s-0.311328 0.6722228-0.5 1c-1.5 2.605932-1.5 4-4.5 4-1 0-3.5-2-3.5-2s-0.03172 5 4.5 5c3 0 4-2 4-2s1 2 4 2c4.53172 0 4.5-5 4.5-5s-2.5 2-3.5 2c-3 0-3-1.394068-4.5-4-0.188672-0.3277772-0.5-1-0.5-1z" style="opacity:.2"/>
  <path d="m11 7s-0.311328 0.6722228-0.5 1c-1.5 2.605932-1.5 4-4.5 4-1 0-3.5-2-3.5-2s-0.03172 5 4.5 5c3 0 4-2 4-2s1 2 4 2c4.53172 0 4.5-5 4.5-5s-2.5 2-3.5 2c-3 0-3-1.394068-4.5-4-0.188672-0.3277772-0.5-1-0.5-1z" style="fill:#e3c4fb"/>
 </g>
</svg>
