<svg xmlns="http://www.w3.org/2000/svg" width="24" height="24" version="1">
 <rect style="opacity:0.2" width="20" height="20" x="2" y="2.5" rx="1" ry="1"/>
 <rect style="fill:#3cae48" width="20" height="20" x="2" y="2" rx="1" ry="1"/>
 <path style="opacity:0.2;fill:#8b9cbe" d="M 3,2 C 2.446,2 2,2.446 2,3 v 0.5 c 0,-0.554 0.446,-1 1,-1 h 18 c 0.554,0 1,0.446 1,1 V 3 C 22,2.446 21.554,2 21,2 Z"/>
 <path style="opacity:0.2;stroke:#552200;stroke-width:0.06622513;stroke-opacity:0" d="m 10.814486,2.5331125 c 0.11513,0.1788544 0.183937,0.4396393 0.184932,0.6579703 0.0021,0.456773 -0.201803,0.6022615 -0.418531,0.2978387 -0.121439,-0.170574 -0.354778,-0.3143852 -0.510998,-0.3143852 -0.113528,0 -0.589838,0.2909147 -0.589838,0.3601316 0,0.025945 0.108657,0.034447 0.241386,0.019467 0.254018,-0.028635 0.333208,0.022157 0.334825,0.2151058 C 10.057912,3.9446018 9.731821,4.32233 9.193893,4.7688488 8.5012845,5.3437625 8.2740975,5.596223 8.2740975,5.7927915 c 0,0.112637 -0.050365,0.194739 -0.190773,0.3104915 L 7.892552,6.2609625 7.978205,6.4429745 c 0.117673,0.2480225 0.110084,0.3049415 -0.069106,0.530464 -0.210394,0.264798 -0.2336115,0.366449 -0.1236125,0.534358 0.1094395,0.1670565 0.114854,0.5752225 0.0146,1.1066745 -0.086532,0.4586805 -0.035625,1.1368465 0.126532,1.691646 0.071642,0.245128 0.2950395,0.881703 0.4963985,1.41522 0.4287475,1.136023 0.512542,1.413039 0.58497,1.931085 C 9.111676,14.39409 8.929369,14.993045 8.4687625,15.428747 8.149579,15.73067 7.9475395,15.799329 7.6900995,15.691546 7.169272,15.473483 6.830799,14.777442 6.224266,12.677146 5.608243,10.543984 5.082808,9.664337 3.8960639,8.7818835 3.4319683,8.4367825 2.6808982,7.9084685 2.0331125,7.3793165 v 6.6780095 c 0.7682097,0.736536 1.7121367,1.358899 2.6163079,1.825964 0.2609645,0.13481 0.4871046,0.265556 0.5022371,0.290053 0.015145,0.0245 -0.095422,0.06015 -0.2462515,0.07981 -1.167264,0.152151 -2.1801955,0.538227 -2.8722935,1.156314 v 4.060728 c 0,0.38446 0.2180366,0.713516 0.5353309,0.87989 0.1451672,0.0667 0.3021308,0.109343 0.4613579,0.116799 H 18.533956 c 0.29094,-0.438791 0.459392,-0.969094 0.382518,-1.254621 -0.201962,-0.750171 -1.492516,-1.03654 -2.955999,-0.656023 -0.26288,0.06835 -0.877304,0.269732 -1.365581,0.446758 -0.648282,0.235028 -0.959475,0.321214 -1.153394,0.321198 -0.310808,-3.8e-5 -0.543888,-0.07646 -0.588864,-0.193693 -0.05149,-0.134192 0.08202,-0.81279 0.218026,-1.110567 0.343189,-0.751389 0.836213,-1.006284 1.495033,-0.773797 0.265888,0.09383 0.261825,0.0937 0.261825,0.02238 0,-0.03107 -0.0695,-0.125943 -0.153786,-0.210239 -0.212418,-0.212451 -0.541999,-0.210165 -1.109595,0.0088 -0.231693,0.08937 -0.43177,0.152224 -0.444811,0.139185 -0.01303,-0.01304 -0.03872,-0.211956 -0.05645,-0.441891 -0.05417,-0.702684 0.107926,-0.990494 0.548957,-0.974302 l 0.245279,0.0097 -0.156706,-0.129452 c -0.214644,-0.175494 -0.35642,-0.161406 -0.598597,0.05743 -0.246327,0.222581 -0.371812,0.549706 -0.371812,0.973329 0,0.475133 -0.153918,0.465265 -0.402958,-0.02628 -0.221147,-0.436485 -0.162831,-0.973494 0.09831,-0.905196 0.118393,0.03095 0.118368,0.02258 -0.0039,-0.217052 -0.182699,-0.358188 -0.165728,-0.687832 0.04672,-0.916876 0.08621,-0.09295 0.309612,-0.42637 0.497371,-0.741677 0.451901,-0.758878 0.83887,-1.259919 1.442473,-1.867817 1.115491,-1.123428 2.259402,-1.867042 4.770285,-3.100053 1.51883,-0.745847 2.307798,-1.093794 2.788581,-1.349035 V 8.760469 c -0.539678,0.2572025 -1.229957,0.5328165 -1.923298,0.8380355 -1.828774,0.8050635 -3.27323,1.5270595 -4.042235,2.0216035 -1.263201,0.81236 -2.430299,1.866209 -3.189598,2.880081 -0.22677,0.302804 -0.434143,0.550904 -0.461358,0.550904 -0.02722,0 -0.12428,-0.10246 -0.215106,-0.227759 -0.15625,-0.215563 -0.165935,-0.257792 -0.182986,-0.778664 l -0.01848,-0.549929 -0.208292,-0.209266 c -0.182916,-0.18294 -0.202816,-0.225346 -0.161572,-0.348452 0.07987,-0.238426 -0.01016,-0.474702 -0.291025,-0.76309 -0.230569,-0.236754 -0.2592,-0.289058 -0.235546,-0.438971 0.03302,-0.209356 -0.06815,-0.379283 -0.322172,-0.536304 -0.13198,-0.08158 -0.186879,-0.152479 -0.186879,-0.244306 0,-0.07124 -0.04509,-0.2165 -0.100253,-0.323145 -0.505728,-0.977772 -0.4989595,-1.257363 0.0253,-1.058008 0.21504,0.081771 0.30372,0.02392 0.405879,-0.2637725 0.0533,-0.1500865 0.148764,-0.298898 0.222892,-0.347478 0.187197,-0.122676 0.486204,-0.062278 0.65213,0.1313985 0.191632,0.2236785 0.393955,0.3363525 0.527545,0.293946 0.102985,-0.03269 0.111445,-0.060951 0.08273,-0.3056255 -0.09319,-0.7939735 -0.101294,-1.030755 -0.03309,-1.030755 0.03752,0 0.259904,0.195214 0.494451,0.4331315 0.360843,0.366021 0.472859,0.5246705 0.726103,1.0317285 0.164612,0.3295945 0.298812,0.6542985 0.298812,0.7212365 0,0.06693 0.02175,0.121666 0.04769,0.121666 0.06283,0 0.09933,-0.4554475 0.05353,-0.6677035 -0.02913,-0.1349375 -0.01822,-0.1741895 0.05548,-0.1975855 0.08236,-0.026155 0.0713,-0.07218 -0.108039,-0.429238 -0.19471,-0.387647 -0.431926,-1.013458 -0.397119,-1.048276 0.0094,-0.00943 0.211435,-0.044305 0.448705,-0.077865 0.526819,-0.074517 0.911375,-0.01564 1.406461,0.216079 0.187221,0.087626 0.348695,0.1596255 0.359158,0.1596255 0.01047,0 -0.0053,-0.064747 -0.03504,-0.1440525 C 15.58742,7.9717875 15.219055,7.600199 14.565693,7.066877 14.006036,6.6100375 13.679629,6.2871265 13.67607,6.186014 13.6692,5.990314 13.488091,5.5677835 13.308152,5.326565 12.959862,4.8596661 13.018745,4.7517526 13.687751,4.6325813 c 0.220977,-0.039352 0.329706,-0.089051 0.405878,-0.1859058 0.128765,-0.1637214 0.134255,-0.2466114 0.01265,-0.1956391 -0.147564,0.061847 -0.597678,0.1391327 -0.62877,0.1080395 -0.01568,-0.015683 0.06743,-0.1333551 0.184932,-0.2608521 0.232484,-0.2522588 0.432146,-0.6016741 0.428265,-0.7504365 -0.0013,-0.051705 -0.05902,0.015606 -0.129452,0.150866 -0.157756,0.3030034 -0.304072,0.4097714 -0.560638,0.4097714 -0.108919,0 -0.19856,-0.00873 -0.19856,-0.02044 0,-0.011752 0.07104,-0.1796463 0.15768,-0.372785 0.221652,-0.4941019 0.242543,-0.7397592 0.09636,-0.9665153 l -0.0097,-0.015573 h -0.12556 l -0.02044,0.2345722 c -0.06416,0.6125797 -0.279667,1.0891563 -0.493478,1.0891563 -0.04241,0 -0.118209,-0.048418 -0.168387,-0.1070662 -0.07358,-0.086018 -0.09159,-0.2102745 -0.09246,-0.6423972 -4.01e-4,-0.2314994 -0.01133,-0.4408359 -0.03796,-0.574264 h -0.268639 c 0.02858,0.3832108 -0.06485,0.7407652 -0.278372,0.9421823 -0.100112,0.09443 -0.197479,0.1715294 -0.217052,0.1713059 -0.01957,-2.027e-4 -0.03849,-0.1521865 -0.04185,-0.3367717 -0.0056,-0.3104701 -0.07521,-0.5979611 -0.204401,-0.7767165 z m 0.952888,15.9314465 0.180066,0.10512 c 0.279351,0.163179 0.415612,0.405728 0.415612,0.738756 0,0.443978 -0.08703,0.556625 -0.642397,0.825383 -0.266165,0.1288 -0.696306,0.295849 -0.95581,0.370838 -0.490994,0.141894 -1.235676,0.215235 -1.414246,0.139186 -0.090731,-0.03864 -0.062457,-0.07451 0.235545,-0.293945 0.186551,-0.137366 0.493175,-0.340784 0.681331,-0.452598 0.188152,-0.11181 0.482145,-0.316798 0.653103,-0.454544 0.281659,-0.226951 0.398687,-0.358011 0.738757,-0.828303 z m -0.09441,2.168577 c 0.160987,-8.5e-4 0.251431,0.103945 0.423399,0.336772 0.116692,0.15799 0.236245,0.302005 0.265718,0.320225 0.09637,0.05957 0.05642,0.1314 -0.073,0.1314 -0.06969,0 -0.37501,0.1211 -0.67841,0.268638 -0.592781,0.28826 -0.936158,0.362543 -1.108622,0.241386 -0.05767,-0.04051 -0.240084,-0.128909 -0.405878,-0.196613 -0.1657945,-0.0677 -0.301732,-0.137596 -0.301732,-0.155732 0,-0.06857 0.2978,-0.307581 0.524624,-0.421451 0.129754,-0.06514 0.479855,-0.220061 0.778663,-0.343586 0.281899,-0.116539 0.450023,-0.180443 0.575237,-0.181039 z"/>
 <path style="fill:#8b9cbe;stroke:#552200;stroke-width:0.06622513;stroke-opacity:0" d="m 10.814486,2.0331125 c 0.11513,0.1788544 0.183937,0.4396393 0.184932,0.6579704 0.0021,0.4567729 -0.201803,0.6022614 -0.418531,0.2978386 -0.121439,-0.1705739 -0.354778,-0.3143852 -0.510998,-0.3143852 -0.113528,0 -0.589838,0.2909148 -0.589838,0.3601317 0,0.025945 0.108657,0.034447 0.241386,0.019467 C 9.975455,3.0255 10.054645,3.076292 10.056262,3.2692407 10.057912,3.4446018 9.731821,3.82233 9.193893,4.2688489 8.5012845,4.8437627 8.2740975,5.096223 8.2740975,5.2927915 c 0,0.112637 -0.050365,0.194739 -0.190773,0.3104915 L 7.892552,5.7609625 7.978205,5.9429745 c 0.117673,0.2480225 0.110084,0.3049415 -0.069106,0.530464 -0.210394,0.264798 -0.2336115,0.366449 -0.1236125,0.534358 0.1094395,0.1670565 0.114854,0.5752225 0.0146,1.1066745 -0.086532,0.4586805 -0.035625,1.1368465 0.126532,1.691646 0.071642,0.245128 0.2950395,0.881703 0.4963985,1.41522 0.4287475,1.136023 0.512542,1.413039 0.58497,1.931085 C 9.111676,13.89409 8.929369,14.493045 8.4687625,14.928747 8.149579,15.23067 7.9475395,15.299329 7.6900995,15.191546 7.169272,14.973483 6.830799,14.277442 6.224266,12.177146 5.608243,10.043984 5.082808,9.164337 3.8960639,8.2818835 3.4319683,7.9367825 2.6808982,7.4084685 2.0331125,6.8793165 v 6.6780095 c 0.7682097,0.736536 1.7121367,1.358899 2.6163079,1.825964 0.2609645,0.13481 0.4871046,0.265556 0.5022371,0.290054 0.015145,0.0245 -0.095422,0.06015 -0.2462515,0.07981 -1.167264,0.152151 -2.1801955,0.538227 -2.8722935,1.156314 v 4.060728 c 0,0.38446 0.2180366,0.713516 0.5353309,0.87989 0.1451672,0.0667 0.3021308,0.109343 0.4613579,0.116799 H 18.533956 c 0.29094,-0.438791 0.459392,-0.969094 0.382518,-1.254621 -0.201962,-0.750171 -1.492516,-1.03654 -2.955999,-0.656023 -0.26288,0.06835 -0.877304,0.269732 -1.365581,0.446758 -0.648282,0.235028 -0.959475,0.321214 -1.153394,0.321198 -0.310808,-3.8e-5 -0.543888,-0.07646 -0.588864,-0.193693 -0.05149,-0.134192 0.08202,-0.81279 0.218026,-1.110567 0.343189,-0.751389 0.836213,-1.006284 1.495033,-0.773797 0.265888,0.09383 0.261825,0.0937 0.261825,0.02238 0,-0.03107 -0.0695,-0.125943 -0.153786,-0.210239 -0.212418,-0.212451 -0.541999,-0.210165 -1.109595,0.0088 -0.231693,0.08937 -0.43177,0.152224 -0.444811,0.139185 -0.01303,-0.01304 -0.03872,-0.211956 -0.05645,-0.441891 -0.05417,-0.702684 0.107926,-0.990494 0.548957,-0.974302 l 0.245279,0.0097 -0.156706,-0.129452 c -0.214644,-0.175494 -0.35642,-0.161406 -0.598597,0.05743 -0.246327,0.222581 -0.371812,0.549706 -0.371812,0.973329 0,0.475133 -0.153918,0.465265 -0.402958,-0.02628 -0.221147,-0.436485 -0.162831,-0.973494 0.09831,-0.905196 0.118393,0.03095 0.118368,0.02258 -0.0039,-0.217052 -0.182699,-0.358188 -0.165728,-0.687832 0.04672,-0.916876 0.08621,-0.09295 0.309612,-0.42637 0.497371,-0.741677 0.451901,-0.758878 0.83887,-1.259919 1.442473,-1.867817 1.115491,-1.123428 2.259402,-1.867042 4.770285,-3.100053 1.51883,-0.7458465 2.307798,-1.093794 2.788581,-1.349035 V 8.260469 c -0.539678,0.2572025 -1.229957,0.5328165 -1.923298,0.8380355 -1.828774,0.8050635 -3.27323,1.5270595 -4.042235,2.0216035 -1.263201,0.81236 -2.430299,1.866209 -3.189598,2.880081 -0.22677,0.302804 -0.434143,0.550904 -0.461358,0.550904 -0.02722,0 -0.12428,-0.10246 -0.215106,-0.227759 -0.15625,-0.215563 -0.165935,-0.257792 -0.182986,-0.778664 l -0.01848,-0.549929 -0.208292,-0.209266 c -0.182916,-0.18294 -0.202816,-0.225346 -0.161572,-0.348452 0.07987,-0.238426 -0.01016,-0.474702 -0.291025,-0.76309 -0.230569,-0.236754 -0.2592,-0.289058 -0.235546,-0.438971 0.03302,-0.209356 -0.06815,-0.379283 -0.322172,-0.536304 -0.13198,-0.08158 -0.186879,-0.152479 -0.186879,-0.244306 0,-0.07124 -0.04509,-0.2165 -0.100253,-0.323145 -0.505728,-0.977772 -0.4989595,-1.257363 0.0253,-1.058008 0.21504,0.081771 0.30372,0.02392 0.405879,-0.2637725 0.0533,-0.1500865 0.148764,-0.298898 0.222892,-0.347478 0.187197,-0.122676 0.486204,-0.062278 0.65213,0.1313985 0.191632,0.2236785 0.393955,0.3363525 0.527545,0.293946 0.102985,-0.03269 0.111445,-0.060951 0.08273,-0.3056255 -0.09319,-0.7939735 -0.101294,-1.030755 -0.03309,-1.030755 0.03752,0 0.259904,0.195214 0.494451,0.4331315 0.360843,0.366021 0.472859,0.5246705 0.726103,1.0317285 0.164612,0.3295945 0.298812,0.654299 0.298812,0.7212365 0,0.066933 0.02175,0.121666 0.04769,0.121666 0.06283,0 0.09933,-0.4554475 0.05353,-0.6677035 -0.02913,-0.1349375 -0.01822,-0.1741895 0.05548,-0.1975855 0.08236,-0.026155 0.0713,-0.07218 -0.108039,-0.429238 -0.19471,-0.387647 -0.431926,-1.013458 -0.397119,-1.048276 0.0094,-0.00943 0.211435,-0.044305 0.448705,-0.077865 0.526819,-0.074517 0.911375,-0.01564 1.406461,0.216079 0.187221,0.087626 0.348695,0.1596255 0.359158,0.1596255 0.01047,0 -0.0053,-0.064747 -0.03504,-0.1440525 C 15.58742,7.4717875 15.219055,7.100199 14.565693,6.566877 14.006036,6.1100375 13.679629,5.7871265 13.67607,5.686014 13.6692,5.490314 13.488091,5.0677835 13.308152,4.8265649 12.959862,4.3596661 13.018745,4.2517526 13.687751,4.1325813 c 0.220977,-0.039352 0.329706,-0.089051 0.405878,-0.1859057 0.128765,-0.1637214 0.134255,-0.2466115 0.01265,-0.1956392 -0.147564,0.061847 -0.597678,0.1391327 -0.62877,0.1080396 -0.01568,-0.015683 0.06743,-0.1333552 0.184932,-0.2608522 0.232484,-0.2522588 0.432146,-0.6016741 0.428265,-0.7504365 -0.0013,-0.051705 -0.05902,0.015606 -0.129452,0.150866 -0.157756,0.3030034 -0.304072,0.4097714 -0.560638,0.4097714 -0.108919,0 -0.19856,-0.00873 -0.19856,-0.02044 0,-0.011752 0.07104,-0.1796463 0.15768,-0.372785 0.221652,-0.4941019 0.242543,-0.7397591 0.09636,-0.9665153 l -0.0097,-0.015573 h -0.12556 l -0.02044,0.2345723 C 13.236201,2.8802634 13.020694,3.35684 12.806883,3.35684 c -0.04241,0 -0.118209,-0.048418 -0.168387,-0.1070662 -0.07358,-0.086017 -0.09159,-0.2102746 -0.09246,-0.6423972 -4.01e-4,-0.2314995 -0.01133,-0.4408359 -0.03796,-0.574264 h -0.268639 c 0.02858,0.3832108 -0.06485,0.7407651 -0.278372,0.9421823 -0.100112,0.09443 -0.197479,0.1715293 -0.217052,0.1713059 -0.01957,-2.028e-4 -0.03849,-0.1521865 -0.04185,-0.3367718 -0.0056,-0.3104701 -0.07521,-0.597961 -0.204401,-0.7767164 z m 0.952888,15.9314465 0.180066,0.10512 c 0.279351,0.163179 0.415612,0.405728 0.415612,0.738756 0,0.443978 -0.08703,0.556625 -0.642397,0.825383 -0.266165,0.1288 -0.696306,0.295849 -0.95581,0.370838 -0.490994,0.141894 -1.235676,0.215235 -1.414246,0.139186 -0.090731,-0.03864 -0.062457,-0.07451 0.235545,-0.293945 0.186551,-0.137366 0.493175,-0.340784 0.681331,-0.452598 0.188152,-0.11181 0.482145,-0.316798 0.653103,-0.454544 0.281659,-0.226951 0.398687,-0.358011 0.738757,-0.828303 z m -0.09441,2.168577 c 0.160987,-8.5e-4 0.251431,0.103945 0.423399,0.336772 0.116692,0.15799 0.236245,0.302005 0.265718,0.320225 0.09637,0.05957 0.05642,0.1314 -0.073,0.1314 -0.06969,0 -0.37501,0.1211 -0.67841,0.268638 -0.592781,0.28826 -0.936158,0.362543 -1.108622,0.241386 -0.05767,-0.04051 -0.240084,-0.128909 -0.405878,-0.196613 -0.1657945,-0.0677 -0.301732,-0.137596 -0.301732,-0.155732 0,-0.06857 0.2978,-0.307581 0.524624,-0.421451 0.129754,-0.06514 0.479855,-0.220061 0.778663,-0.343586 0.281899,-0.116539 0.450023,-0.180443 0.575237,-0.181039 z"/>
</svg>
