<svg xmlns="http://www.w3.org/2000/svg" width="24" height="24" version="1.1">
 <path style="opacity:0.2;fill-rule:evenodd" d="M 11.5,2.5 A 9.5,10 0 0 0 3.2695312,7.5195312 2,2 0 0 0 3,7.5 2,2 0 0 0 1,9.5 2,2 0 0 0 2.0800781,11.273438 9.5,10 0 0 0 2,12.5 a 9.5,10 0 0 0 9.5,10 9.5,10 0 0 0 0.837891,-0.04687 l -0.0098,0.0078 C 16.751766,22.227925 20.674931,20.910106 22,20.5 20.009566,19.857165 19.72171,17.928798 20.21875,16.460938 a 9.5,10 0 0 0 0.07422,-0.189454 c 0.03482,-0.08763 0.06126,-0.180574 0.101562,-0.263672 l -0.01367,0.01172 A 9.5,10 0 0 0 21,12.5 9.5,10 0 0 0 20.916016,11.277344 2,2 0 0 0 22,9.5 2,2 0 0 0 20,7.5 2,2 0 0 0 19.724609,7.5214844 9.5,10 0 0 0 11.5,2.5 Z"/>
 <ellipse style="fill:#b2bfd9" cx="11.5" cy="12" rx="9.5" ry="10"/>
 <circle style="fill:#b2bfd9" cx="20" cy="9" r="2"/>
 <circle style="fill:#b2bfd9" cx="3" cy="9" r="2"/>
 <path style="fill:#b2bfd9" d="M 12.327949,21.961689 C 16.75159,21.728676 20.674931,20.410106 22,20 19.798759,19.289082 19.671592,17 20.3955,15.507465 Z"/>
 <ellipse style="opacity:0.1" cx="9.161" cy="8.183" rx="2.466" ry="3.028" transform="matrix(0.98715126,0.1597886,-0.18862892,0.98204844,0,0)"/>
 <ellipse style="fill:#17191e" cx="9.067" cy="7.689" rx="2.466" ry="3.028" transform="matrix(0.98715126,0.1597886,-0.18862892,0.98204844,0,0)"/>
 <ellipse style="opacity:0.1" cx="13.427" cy="11.851" rx="2.465" ry="3.029" transform="matrix(0.98725549,-0.15914335,0.18938562,0.98190279,0,0)"/>
 <ellipse style="fill:#17191e" cx="13.521" cy="11.357" rx="2.465" ry="3.029" transform="matrix(0.98725549,-0.15914335,0.18938562,0.98190279,0,0)"/>
 <path style="fill:#8b9cbe;fill-rule:evenodd;opacity:0.2" d="M 11.5 2 A 9.5 10 0 0 0 3.2695312 7.0195312 A 2 2 0 0 0 3 7 A 2 2 0 0 0 1 9 A 2 2 0 0 0 1.0175781 9.2539062 A 2 2 0 0 1 3 7.5 A 2 2 0 0 1 3.2695312 7.5195312 A 9.5 10 0 0 1 11.5 2.5 A 9.5 10 0 0 1 19.724609 7.5214844 A 2 2 0 0 1 20 7.5 A 2 2 0 0 1 21.982422 9.2460938 A 2 2 0 0 0 22 9 A 2 2 0 0 0 20 7 A 2 2 0 0 0 19.724609 7.0214844 A 9.5 10 0 0 0 11.5 2 z M 2.0429688 11.251953 A 9.5 10 0 0 0 2 12 A 9.5 10 0 0 0 2.0097656 12.199219 A 9.5 10 0 0 1 2.0800781 11.273438 A 2 2 0 0 1 2.0429688 11.251953 z M 20.957031 11.253906 A 2 2 0 0 1 20.916016 11.277344 A 9.5 10 0 0 1 20.990234 12.320312 A 9.5 10 0 0 0 21 12 A 9.5 10 0 0 0 20.957031 11.253906 z M 20.025391 17.455078 C 19.947825 18.50375 20.292026 19.587348 21.339844 20.205078 C 21.555535 20.13762 21.848827 20.046788 22 20 C 20.647127 19.563073 20.093317 18.531519 20.025391 17.455078 z"/>
</svg>
