<svg xmlns="http://www.w3.org/2000/svg" width="24" height="24" version="1.1">
 <path style="opacity:0.2" d="M 4,14.583334 C 4,7.0833335 12,8.3333335 12,5.4166665 12,4.1666667 10.315789,2.5 10.315789,2.5 c 0,0 3.599453,0.9365834 5.052632,3.3333335 1.263158,2.083333 0.842105,3.333333 -0.842105,5.4166665 2.947368,-0.833333 2.947368,-2.9166665 2.947368,-2.9166665 0,0 2.526316,2.0833335 2.526316,6.2500005 C 20,18.333333 17.052631,22.5 12,22.5 6.9473685,22.5 4,18.75 4,14.583334 Z"/>
 <path style="fill:#ff7711" d="m 4,14.083334 c 0,-7.5000005 8,-6.2500005 8,-9.1666673 0,-1.25 -1.684211,-2.9166666 -1.684211,-2.9166666 0,0 3.599453,0.9365833 5.052632,3.3333334 1.263158,2.083333 0.842105,3.333333 -0.842105,5.4166665 2.947368,-0.8333335 2.947368,-2.9166665 2.947368,-2.9166665 0,0 2.526316,2.083333 2.526316,6.2500005 C 20,17.833333 17.052631,22 12,22 6.9473685,22 4,18.25 4,14.083334 Z"/>
 <path style="opacity:0.2" d="M 8,16.071428 C 8,14.357143 8.5,12.642857 11.000001,10.5 11.5,13.071429 16,13.5 16,16.071428 16,17.785714 14.5,19.5 12,19.5 9.5,19.5 8,17.785714 8,16.071428 Z"/>
 <path style="fill:#ffda3b" d="M 8,15.571428 C 8,13.857143 8.5,12.142857 11.000001,10 11.5,12.571429 16,13 16,15.571428 16,17.285714 14.5,19 12,19 9.5,19 8,17.285714 8,15.571428 Z"/>
 <path style="opacity:0.2;fill:#8b9cbe" d="m 10.31543,2 c 0,0 0.280976,0.2824815 0.611328,0.6933594 1.089349,0.3812697 3.358856,1.3541816 4.441406,3.1396486 0.439267,0.724485 0.67108,1.347407 0.720703,1.9404295 C 16.158851,7.027217 15.932104,6.2631165 15.368164,5.333008 13.914985,2.9362577 10.31543,2 10.31543,2 Z m 1.663086,3.165039 C 11.532262,7.7667935 4,6.8051545 4,14.083008 c 0,0.0737 0.00793,0.146301 0.00977,0.219727 C 4.2112299,7.120767 12,8.295966 12,5.416992 12,5.334811 11.99212,5.25023 11.978516,5.165039 Z m 5.495117,2.667969 c 0,0 -6.5e-4,1.834294 -2.435547,2.749023 -0.156376,0.214811 -0.323047,0.434587 -0.511719,0.667969 2.947368,-0.833333 2.947266,-2.916992 2.947266,-2.916992 0,0 2.403288,1.993068 2.515625,5.967773 C 19.991436,14.228312 20,14.155202 20,14.083008 c 0,-4.166667 -2.526367,-6.25 -2.526367,-6.25 z"/>
 <path style="fill:#8b9cbe;opacity:0.2" d="M 11 10 C 8.499999 12.142857 8 13.857981 8 15.572266 C 8 15.618806 8.0134239 15.664432 8.015625 15.710938 C 8.0876424 14.114829 8.6751945 12.492689 11 10.5 C 11.48298 12.983903 15.686255 13.474478 15.972656 15.822266 C 15.979779 15.738593 16 15.656139 16 15.572266 C 16 13.000838 11.499999 12.571429 11 10 z"/>
</svg>
