<svg xmlns="http://www.w3.org/2000/svg" width="24" height="24" version="1">
 <path style="opacity:0.2" d="m 2,20 v 0.5 c 0,0.554 0.446,1 1,1 h 18 c 0.554,0 1,-0.446 1,-1 V 20 c 0,0.554 -0.446,1 -1,1 H 3 C 2.446,21 2,20.554 2,20 Z"/>
 <rect style="fill:#8e8e8e" width="20" height="18" x="2" y="3" rx="1" ry="1"/>
 <path style="opacity:0.1;fill:#8b9cbe" d="M 3,3 C 2.446,3 2,3.446 2,4 v 0.5 c 0,-0.554 0.446,-1 1,-1 h 18 c 0.554,0 1,0.446 1,1 V 4 C 22,3.446 21.554,3 21,3 Z"/>
 <rect style="fill:#35454e" width="20" height="14" x="2" y="5"/>
 <path style="opacity:0.2" d="m 6,7.5 v 1 9 h 1 1 v -1 H 7 v -8 h 1 v -1 z m 8,0 v 1 h 1 v 8 h -1 v 1 h 2 V 16.5 8 7.5 Z m 3.464844,2.0625 A 0.5,0.5 0 0 0 17,10.0625 a 0.5,0.5 0 0 0 0.5,0.5 0.5,0.5 0 0 0 0.5,-0.5 0.5,0.5 0 0 0 -0.5,-0.5 0.5,0.5 0 0 0 -0.03516,0 z m 0,5 A 0.5,0.5 0 0 0 17,15.0625 a 0.5,0.5 0 0 0 0.5,0.5 0.5,0.5 0 0 0 0.5,-0.5 0.5,0.5 0 0 0 -0.5,-0.5 0.5,0.5 0 0 0 -0.03516,0 z"/>
 <rect style="opacity:0.2" width="20" height=".5" x="2" y="5"/>
 <rect style="opacity:0.1;fill:#8b9cbe" width="20" height=".5" x="2" y="19"/>
 <rect style="fill:#267edb" width="1" height="9.5" x="6" y="7.5"/>
 <rect style="fill:#267edb" width="2" height="1" x="6" y="7"/>
 <rect style="fill:#267edb" width="2" height="1" x="6" y="16"/>
 <rect style="fill:#267edb" width="1" height="9.5" x="-16" y="7.5" transform="scale(-1,1)"/>
 <rect style="fill:#267edb" width="2" height="1" x="-16" y="7" transform="scale(-1,1)"/>
 <rect style="fill:#267edb" width="2" height="1" x="-16" y="16" transform="scale(-1,1)"/>
 <path style="opacity:0.2" d="m 9.4472656,9.7773438 -0.8945312,0.4453122 2.4609376,4.921875 c -0.0877,0.166911 -0.174848,0.358873 -0.261719,0.501953 -0.185676,0.30582 -0.368919,0.549827 -0.517578,0.69336 C 10.085716,16.483376 9.9930556,16.5 10,16.5 H 9.5 v 1 H 10 c 0.381944,0 0.679909,-0.202126 0.927734,-0.441406 0.247826,-0.23928 0.466926,-0.542148 0.679688,-0.892578 0.425523,-0.700862 0.820515,-1.593024 1.169922,-2.482422 0.698813,-1.778797 1.203125,-3.546875 1.203125,-3.546875 L 13.019531,9.8632812 c 0,0 -0.495688,1.7319218 -1.171875,3.4531248 -0.09156,0.233074 -0.191685,0.453808 -0.289062,0.681641 z"/>
 <path style="fill:none;stroke:#8b9cbe" d="m 9,9.5 2.5,5"/>
 <path style="fill:none;stroke:#8b9cbe" d="m 13.5,9.5 c 0,0 -2,7 -3.5,7 H 9.5"/>
 <path style="fill:#267edb" d="m 18,9.561956 a 0.5,0.5 0 0 1 -0.5,0.5 0.5,0.5 0 0 1 -0.5,-0.5 0.5,0.5 0 0 1 0.5,-0.5 0.5,0.5 0 0 1 0.5,0.5 z"/>
 <path style="fill:#267edb" d="m 18,14.561956 a 0.5,0.5 0 0 1 -0.5,0.5 0.5,0.5 0 0 1 -0.5,-0.5 0.5,0.5 0 0 1 0.5,-0.5 0.5,0.5 0 0 1 0.5,0.5 z"/>
</svg>
