<svg xmlns="http://www.w3.org/2000/svg" width="24" height="24" version="1">
 <rect style="opacity:.2" width="20" height="20" x="2" y="2.5" rx="10" ry="10"/>
 <rect style="fill:#b2bfd9" width="20" height="20" x="2" y="2" rx="10" ry="10"/>
 <path style="opacity:.2;fill:#8b9cbe" d="m11.99998 2.0001189c-5.5399346 0-9.9998816 4.4599471-9.9998816 9.9998811 0 0.08394 0.00382 0.166568 0.00586 0.249997 0.1323341-5.4230039 4.5380236-9.749884 9.9940226-9.749884 5.455998 0 9.861688 4.3268801 9.994021 9.749884 0.002-0.08343 0.0059-0.166061 0.0059-0.249997 0-5.539934-4.459947-9.9998811-9.999881-9.9998811z"/>
 <path style="opacity:.2" d="m11.032679 6.5131848c-1.4957653-0.0438968-2.9346498 0.2626759-4.2634032 0.573864-1.9575929 0.4584614-5.1791047 1.7810906-5.1791047 1.7810906-0.77731021 0.3356896-0.78963175 1.4334726-0.020052 1.7865246 1.4272856 0.371587 3.036991 0.623547 3.3738809 2.025644 0.4785411 1.991633-1.2636231 3.816453-2.8162487 5.319469-0.6278308 0.993283 0.7087065 2.04664 1.5277596 1.204064 0 0 4.8538269-4.505345 11.478248-4.682683 1.233653-0.03303 2.865006 0.537311 4.159326 1.101897 1.282711 0.559522 2.196153 0.884052 2.196153 0.884052 1.510762 0.341332 1.813188-0.41736 1.431321-1.305995-1.899636-4.416213-5.831784-8.0536166-11.234762-8.645914l-0.0086-0.0009778c-0.215845-0.0215943-0.430847-0.0347893-0.644529-0.041056z"/>
 <path style="fill:#3886dc" d="m11.032679 6.0130783c-1.4957653-0.0438968-2.9346498 0.2626759-4.2634032 0.573864-1.9575929 0.4584614-5.1791047 1.7810906-5.1791047 1.7810906-0.77731021 0.3356896-0.78963175 1.4334723-0.020052 1.7865241 1.4272856 0.371587 3.036991 0.623547 3.3738809 2.025644 0.4785411 1.991633-1.2636231 3.816453-2.8162487 5.319469-0.6278308 0.993283 0.7087065 2.04664 1.5277596 1.204064 0 0 4.8538269-4.505345 11.478248-4.682683 1.233653-0.03303 2.865006 0.537311 4.159326 1.101897 1.282711 0.559522 2.196153 0.884052 2.196153 0.884052 1.510762 0.341332 1.813188-0.41736 1.431321-1.305995-1.899636-4.416213-5.831784-8.0536161-11.234762-8.6459135l-0.0086-0.0009778c-0.215845-0.0215943-0.430847-0.0347893-0.644529-0.041056z"/>
</svg>
