<svg xmlns="http://www.w3.org/2000/svg" width="24" height="24" version="1">
 <rect style="opacity:0.2" width="21" height="21" x="2" y="1.5" rx="1.05" ry="1.05"/>
 <rect style="fill:#b2bfd9" width="21" height="21" x="2" y="1" rx="1.05" ry="1.05"/>
 <path style="opacity:0.1" transform="translate(0,0.500031)" d="m 7.3046875,4.015625 c -0.0031,0.2690607 -0.00675,0.5394565 -0.00977,0.8085938 1.3692599,0.5769083 3.5989705,1.8885101 4.6308595,3.796875 C 11.668809,5.4035348 7.3127651,3.9662041 7.3046875,4.015625 Z m 10.3906245,0 c -0.0081,-0.049421 -4.364121,1.3879098 -4.621093,4.6054688 1.031889,-1.9083649 3.261599,-3.2199667 4.630859,-3.796875 -0.003,-0.2691373 -0.0067,-0.5395331 -0.0098,-0.8085938 z M 6.0410156,5.1308594 C 6.0305978,5.6399862 6.0201834,6.1490763 6.0097656,6.6582031 7.3524526,6.9348376 10.664107,8.1953887 12,10.597656 11.702489,6.5249479 6.0539246,5.0521379 6.0410156,5.1308594 Z m 12.9179684,0 C 18.946075,5.0521379 13.297511,6.5249479 13,10.597656 14.335968,8.1953887 17.647547,6.9348376 18.990234,6.6582031 18.979817,6.1490763 18.969402,5.6399862 18.958984,5.1308594 Z M 5.3066406,7.2910156 c -0.023855,0.9496305 -0.046533,1.8980258 -0.070312,2.8476564 2.8602872,0.166853 3.0301458,1.971719 2.8574219,3.125 L 5.1425781,14.222656 5,19.542969 10.183594,17.505859 C 10.789033,17.255006 11.394485,17.014062 12,16.792969 V 13.126953 C 12,11.489332 11.177787,9.9250262 9.7304688,8.9277344 7.7775861,7.5822779 5.3160015,7.2339445 5.3066406,7.2910156 Z m 14.3867184,0 C 19.683998,7.2339445 17.222414,7.5822779 15.269531,8.9277344 13.822289,9.9250262 13.000075,11.489332 13,13.126953 v 3.666016 c 0.605515,0.221093 1.210967,0.462037 1.816406,0.71289 L 20,19.542969 19.857422,14.222656 16.90625,13.263672 c -0.172724,-1.153281 -0.0029,-2.958147 2.857422,-3.125 -0.0237,-0.9496306 -0.04646,-1.8980259 -0.07031,-2.8476564 z"/>
 <path style="fill:#43599b" d="M 7.3046875 4.015625 C 7.3015924 4.2846857 7.2979415 4.5550815 7.2949219 4.8242188 C 8.6641818 5.4011271 10.893892 6.7127289 11.925781 8.6210938 C 11.668809 5.4035348 7.3127651 3.9662041 7.3046875 4.015625 z M 17.695312 4.015625 C 17.687235 3.9662041 13.331191 5.4035348 13.074219 8.6210938 C 14.106108 6.7127289 16.335818 5.4011271 17.705078 4.8242188 C 17.702058 4.5550815 17.698408 4.2846857 17.695312 4.015625 z M 6.0410156 5.1308594 C 6.0305978 5.6399862 6.0201834 6.1490763 6.0097656 6.6582031 C 7.3524526 6.9348376 10.664107 8.1953887 12 10.597656 C 11.702489 6.5249479 6.0539246 5.0521379 6.0410156 5.1308594 z M 18.958984 5.1308594 C 18.946075 5.0521379 13.297511 6.5249479 13 10.597656 C 14.335968 8.1953887 17.647547 6.9348376 18.990234 6.6582031 C 18.979817 6.1490763 18.969402 5.6399862 18.958984 5.1308594 z M 5.3066406 7.2910156 C 5.2827854 8.2406461 5.2601079 9.1890414 5.2363281 10.138672 C 8.0966153 10.305525 8.2664739 12.110391 8.09375 13.263672 L 5.1425781 14.222656 L 5 19.542969 L 10.183594 17.505859 C 10.789033 17.255006 11.394485 17.014062 12 16.792969 L 12 13.126953 C 12 11.489332 11.177787 9.9250262 9.7304688 8.9277344 C 7.7775861 7.5822779 5.3160015 7.2339445 5.3066406 7.2910156 z M 19.693359 7.2910156 C 19.683998 7.2339445 17.222414 7.5822779 15.269531 8.9277344 C 13.822289 9.9250262 13.000075 11.489332 13 13.126953 L 13 16.792969 C 13.605515 17.014062 14.210967 17.255006 14.816406 17.505859 L 20 19.542969 L 19.857422 14.222656 L 16.90625 13.263672 C 16.733526 12.110391 16.903385 10.305525 19.763672 10.138672 C 19.739968 9.1890414 19.717215 8.2406461 19.693359 7.2910156 z"/>
 <path style="fill:#8b9cbe;opacity:0.2" d="M 3.0507812 1 C 2.4690813 1 2 1.4690813 2 2.0507812 L 2 2.5507812 C 2 1.9690813 2.4690813 1.5 3.0507812 1.5 L 21.949219 1.5 C 22.530919 1.5 23 1.9690813 23 2.5507812 L 23 2.0507812 C 23 1.4690813 22.530919 1 21.949219 1 L 3.0507812 1 z"/>
</svg>
