<svg xmlns="http://www.w3.org/2000/svg" width="24" height="24" version="1">
 <path style="opacity:0.2" d="m 19.683594,3.5195312 c -0.18956,-0.019436 -0.406222,-0.011096 -0.654297,0.033203 L 8.9140625,5.6582031 C 7.143725,5.8711886 6.99983,7.5002034 7,7.4980469 V 9.5 17.231 c 1.740342,0.449041 2.9674815,-0.596404 3,1.200641 V 8.4648438 L 18,6.7363281 V 8.5 15.231 c 1.740342,0.449041 2.967481,-0.596404 3,1.200641 V 5.1484375 c 0,0 0.01051,-1.4928511 -1.316406,-1.6289063 z"/>
 <path style="fill:#ed7408" d="m 19.683594,3.0195312 c -0.18956,-0.019436 -0.406222,-0.011096 -0.654297,0.033203 L 8.9140625,5.1582031 C 7.143725,5.3711886 6.99983,7.0002034 7,6.9980469 V 9 16.731 c 1.740342,0.449041 2.9674815,-0.596404 3,1.200641 V 7.9648438 L 18,6.2363281 V 8 14.731 c 1.740342,0.449041 2.967481,-0.596404 3,1.200641 V 4.6484375 c 0,0 0.01051,-1.4928511 -1.316406,-1.6289063 z"/>
 <path style="opacity:0.2" d="m 17,12.5 a 4,4 0 0 0 -4,4 4,4 0 0 0 4,4 4,4 0 0 0 4,-4 4,4 0 0 0 -4,-4 z m -11,2 a 4,4 0 0 0 -4,4 4,4 0 0 0 4,4 4,4 0 0 0 4,-4 4,4 0 0 0 -4,-4 z"/>
 <path style="fill:#ffac29" d="M 17 12 A 4 4 0 0 0 13 16 A 4 4 0 0 0 17 20 A 4 4 0 0 0 21 16 A 4 4 0 0 0 17 12 z M 6 14 A 4 4 0 0 0 2 18 A 4 4 0 0 0 6 22 A 4 4 0 0 0 10 18 A 4 4 0 0 0 6 14 z"/>
 <path style="fill:#8b9cbe;opacity:0.1" d="M 19.683594 3.0195312 C 19.494034 3.0000953 19.277372 3.0084354 19.029297 3.0527344 L 8.9140625 5.1582031 C 7.143725 5.3711886 6.99983 7.0002034 7 6.9980469 L 7 7.4980469 C 6.99983 7.5002034 7.143725 5.8711886 8.9140625 5.6582031 L 19.029297 3.5527344 C 19.277372 3.5084354 19.494034 3.5000953 19.683594 3.5195312 C 21.01051 3.6555864 21 5.1484375 21 5.1484375 L 21 4.6484375 C 21 4.6484375 21.01051 3.1555864 19.683594 3.0195312 z"/>
 <path style="opacity:0.2;fill:#8b9cbe" d="M 17 12 A 4 4 0 0 0 13 16 A 4 4 0 0 0 13.009766 16.210938 A 4 4 0 0 1 17 12.5 A 4 4 0 0 1 20.990234 16.283203 A 4 4 0 0 0 21 16 A 4 4 0 0 0 17 12 z M 6 14 A 4 4 0 0 0 2 18 A 4 4 0 0 0 2.0097656 18.210938 A 4 4 0 0 1 6 14.5 A 4 4 0 0 1 9.9902344 18.283203 A 4 4 0 0 0 10 18 A 4 4 0 0 0 6 14 z"/>
</svg>
