<svg xmlns="http://www.w3.org/2000/svg" width="24" height="24" version="1">
 <path style="opacity:0.2" d="M 10,8.5 C 6.1340068,8.5 3,9.619288 3,11 v 9 c 0,1.380712 3.1340068,2.5 7,2.5 3.865993,0 7,-1.119288 7,-2.5 v -1.5 h 0.5 c 1.932997,0 3.5,-1.567003 3.5,-3.5 0,-1.932997 -1.567003,-3.5 -3.5,-3.5 H 17 V 11 C 17,9.619288 13.865993,8.5 10,8.5 Z m 7,5 h 0.400391 C 18.284046,13.5 19,14.171573 19,15 c 0,0.828427 -0.715954,1.5 -1.599609,1.5 H 17 Z"/>
 <path style="fill:#ecd09e" d="M 10,8 C 6.1340068,8 3,9.119288 3,10.5 v 9 c 0,1.380712 3.1340068,2.5 7,2.5 3.865993,0 7,-1.119288 7,-2.5 V 18 h 0.5 C 19.432997,18 21,16.432997 21,14.5 21,12.567003 19.432997,11 17.5,11 H 17 V 10.5 C 17,9.119288 13.865993,8 10,8 Z m 7,5 h 0.400391 C 18.284046,13 19,13.671573 19,14.5 19,15.328427 18.284046,16 17.400391,16 H 17 Z"/>
 <path style="opacity:0.2;fill:#8b9cbe" d="M 10,8 C 6.1340068,8 3,9.119288 3,10.5 V 11 c 0,-1.380712 3.1340068,-2.5 7,-2.5 3.865993,0 7,1.119288 7,2.5 V 10.5 C 17,9.119288 13.865993,8 10,8 Z m 7,3 v 0.5 h 0.5 c 1.847308,0 3.344095,1.435957 3.474609,3.25 C 20.980663,14.665854 21,14.585689 21,14.5 21,12.567003 19.432997,11 17.5,11 Z m 1.972656,3.75 C 18.845347,15.458957 18.192833,16 17.400391,16 H 17 v 0.5 h 0.400391 C 18.284046,16.5 19,15.828427 19,15 19,14.91449 18.98731,14.831604 18.97266,14.75 Z"/>
 <ellipse style="fill:#c64e27" cx="10" cy="10.5" rx="5" ry="1.5"/>
 <path style="opacity:0.1" d="m 10.60099,2.5 c 0.976375,0.7759234 2.168788,1.580315 2.386687,2.7232915 C 13.182999,6.24784 10.652005,6.570352 10.280697,7.815889 10.117669,8.362759 11.363782,9.705274 11.206066,10.5 H 8.7521481 C 7.6106556,9.681176 6.9405881,8.1563205 7.0041521,7.048109 7.0948251,5.4672575 10.322472,5.4713685 11.338093,4.3431042 11.734024,3.9032593 10.60099,2.5 10.60099,2.5 Z"/>
 <path style="fill:#989898" d="m 10.60099,2 c 0.976375,0.7759234 2.168788,1.580315 2.386687,2.7232912 C 13.182999,5.74784 10.652005,6.070352 10.280697,7.315889 10.117669,7.862759 11.363782,9.205274 11.206066,10 H 8.7521481 C 7.6106556,9.181176 6.9405881,7.6563205 7.0041521,6.548109 7.0948251,4.9672574 10.322472,4.9713683 11.338093,3.8431042 11.734024,3.4032594 10.60099,2 10.60099,2 Z"/>
 <path style="opacity:0.1" d="M 14.926758,10.244141 A 5,1.5 0 0 1 10,11.5 5,1.5 0 0 1 5.073242,10.25586 5,1.5 0 0 0 5,10.5 5,1.5 0 0 0 10,12 5,1.5 0 0 0 15,10.5 5,1.5 0 0 0 14.92676,10.244141 Z"/>
 <path style="opacity:0.1" d="M 3.0390625,10.740235 A 7,2.5 0 0 0 3,11 7,2.5 0 0 0 10,13.5 7,2.5 0 0 0 17,11 7,2.5 0 0 0 16.960937,10.759766 7,2.5 0 0 1 10,13 7,2.5 0 0 1 3.0390625,10.740235 Z"/>
</svg>
