<svg xmlns="http://www.w3.org/2000/svg" width="24" height="24" version="1.1">
 <rect style="opacity:0.2" width="20" height="20" x="2" y="2.5" rx="6" ry="6"/>
 <rect style="fill:#31405e" width="20" height="20" x="2" y="2" rx="6" ry="6"/>
 <path style="opacity:0.2" d="m 12.000977,5.5 c -1.852691,0 -7.8165766,10.812476 -6.907227,12.638423 0.9093495,1.825949 12.91503,1.804892 13.814453,0 C 19.807626,16.333532 13.853367,5.5 12.000977,5.5 Z m 10e-4,2.773383 c 1.213769,0 5.114677,7.096704 4.52539,8.280111 -0.589287,1.183106 -8.454575,1.196342 -9.050781,0 -0.596206,-1.196342 3.311621,-8.280111 4.525391,-8.280111 z m -10e-4,2.726509 c -0.614856,0 -2.594006,3.475649 -2.2919925,4.06242 0.3020135,0.58677 4.2855795,0.58036 4.5839845,0 0.298403,-0.580361 -1.677136,-4.062129 -2.291992,-4.06242 z"/>
 <path style="opacity:0.1;fill:#8b9cbe" d="M 8,2 C 4.676,2 2,4.676 2,8 v 0.5 c 0,-3.324 2.676,-6 6,-6 h 8 c 3.324,0 6,2.676 6,6 V 8 C 22,4.676 19.324,2 16,2 Z"/>
 <path style="fill:#4287ea" d="m 12.000901,10.5 c -0.614856,0 -2.594188,3.475532 -2.2921745,4.062314 0.3020135,0.586782 4.2859455,0.580372 4.5843495,0 C 14.59148,13.981942 12.615758,10.500291 12.000901,10.5 Z"/>
 <path style="fill:#a245e9" d="M 12.000901,5 C 10.14821,5 4.1843454,15.812413 5.093695,17.638397 c 0.9093495,1.825984 12.914989,1.804927 13.814412,0 C 19.80753,15.833471 13.853291,5 12.000901,5 Z m 4.526593,11.053972 c -0.589287,1.18313 -8.4551755,1.196365 -9.0513815,0 -0.596206,-1.196365 3.3119215,-8.281003 4.5256905,-8.281003 1.21377,0 5.114979,7.097573 4.525691,8.281003 z"/>
 <path style="opacity:0.2;fill:#8b9cbe" d="M 12.000977,5 C 10.228927,5 4.7002004,14.885877 5.017578,17.344726 5.3308465,14.268071 10.332332,5.5 12.000977,5.5 c 1.66937,0 6.667879,8.795818 6.981445,11.855469 C 19.304716,14.92677 13.774633,5 12.000977,5 Z m 0,5.5 c -0.614856,0 -2.594006,3.47573 -2.2919925,4.0625 0.0038,0.0073 0.01462,0.01336 0.01953,0.02051 C 10.007552,13.451921 11.483997,11 12.000977,11 c 0.516902,2.45e-4 1.990795,2.455093 2.271484,3.583985 0.0052,-0.0074 0.01657,-0.01384 0.02051,-0.02149 0.298401,-0.580361 -1.677138,-4.062209 -2.291994,-4.0625 z m -4.558594,5.450196 c -0.03427,0.258083 -0.03163,0.471457 0.03418,0.603515 0.596206,1.196342 8.461494,1.183106 9.050781,0 0.06501,-0.130551 0.06687,-0.342596 0.03223,-0.599609 -0.0091,0.03555 -0.01791,0.07085 -0.03223,0.09961 -0.589287,1.183106 -8.454575,1.196342 -9.050781,0 -0.014945,-0.02999 -0.02478,-0.06632 -0.03418,-0.103515 z"/>
</svg>
