<svg xmlns="http://www.w3.org/2000/svg" width="24" height="24" version="1.1">
 <rect style="opacity:0.2" width="20" height="20" x="2" y="2.5" rx="6" ry="6"/>
 <rect style="fill:#31405e" width="20" height="20" x="2" y="2" rx="6" ry="6"/>
 <path style="opacity:0.1;fill:#8b9cbe" d="M 8,2 C 4.676,2 2,4.676 2,8 v 0.5 c 0,-3.324 2.676,-6 6,-6 h 8 c 3.324,0 6,2.676 6,6 V 8 C 22,4.676 19.324,2 16,2 Z"/>
 <path style="opacity:0.2" d="m 11.992188,5.4997327 c -0.102801,0.0013 -0.206719,0.020355 -0.289063,0.056641 -0.408366,0.1799495 -0.998905,0.7645998 -1.71875,1.6992188 -0.284162,0.3689455 -0.3743809,0.491958 -0.7246094,1 C 8.0343996,10.033104 6.550375,12.80139 5.765625,14.769264 5.246528,16.070971 4.9999113,16.985769 5,17.624733 c 5.9e-5,0.379803 0.055413,0.532965 0.2675781,0.732422 0.606087,0.569783 2.5663215,0.983997 5.3046879,1.117187 0.711449,0.03454 2.094887,0.03388 2.804687,0 3.28179,-0.156793 5.285592,-0.662439 5.572266,-1.40625 0.06915,-0.179401 0.06754,-0.710029 -0.0039,-1.078125 -0.648472,-3.340384 -4.935978,-10.6945867 -6.669928,-11.4414062 -0.07949,-0.034234 -0.180403,-0.05013 -0.283203,-0.048828 z m -1.851563,4.5019533 c 0.15768,0.01012 0.357877,0.04938 0.625,0.119141 1.298566,0.339147 3.771678,1.627708 5.207031,2.71289 0.332925,0.251704 0.878715,0.786662 0.951172,0.931641 0.0938,0.187674 0.100064,0.265112 0.02734,0.421875 -0.15586,0.335925 -0.668601,0.802278 -1.517578,1.378906 -1.630036,1.107129 -3.867791,2.178944 -4.998047,2.394532 C 9.9933188,18.04504 9.7465599,17.994432 9.5957031,17.786842 9.2214858,17.27192 9,15.851195 9,13.96653 c 0,-2.192439 0.292627,-3.665638 0.7753906,-3.908203 0.09287,-0.04666 0.2075516,-0.066757 0.3652344,-0.05664 z"/>
 <path style="fill:#a245e9" d="M 11.992188 5 C 11.889387 5.0013 11.785469 5.0203546 11.703125 5.0566406 C 11.294759 5.2365901 10.70422 5.8212404 9.984375 6.7558594 C 9.700213 7.1248049 9.6099941 7.2478174 9.2597656 7.7558594 C 8.0343996 9.5333714 6.550375 12.301657 5.765625 14.269531 C 5.246528 15.571238 4.9999113 16.486036 5 17.125 C 5.000059 17.504803 5.0554126 17.657965 5.2675781 17.857422 C 5.8736651 18.427205 7.8338996 18.841419 10.572266 18.974609 C 11.283715 19.009149 12.667153 19.008489 13.376953 18.974609 C 16.658743 18.817816 18.662545 18.31217 18.949219 17.568359 C 19.018369 17.388958 19.016763 16.85833 18.945312 16.490234 C 18.296847 13.14985 14.009341 5.7956476 12.275391 5.0488281 C 12.195904 5.0145941 12.094988 4.9986977 11.992188 5 z M 10.140625 9.5019531 C 10.298305 9.5120731 10.498502 9.5513302 10.765625 9.6210938 C 12.064191 9.9602415 14.537303 11.248802 15.972656 12.333984 C 16.305581 12.585688 16.851371 13.120646 16.923828 13.265625 C 17.017628 13.453299 17.023892 13.530737 16.951172 13.6875 C 16.795312 14.023425 16.282571 14.489778 15.433594 15.066406 C 13.803558 16.173535 11.565803 17.24535 10.435547 17.460938 C 9.9933188 17.545307 9.7465599 17.494699 9.5957031 17.287109 C 9.2214858 16.772187 9 15.351462 9 13.466797 C 9 11.274358 9.292627 9.8011595 9.7753906 9.5585938 C 9.8682606 9.5119338 9.9829422 9.4918381 10.140625 9.5019531 z"/>
 <path style="fill:#8b9cbe;opacity:0.2" d="M 11.992188 5 C 11.889386 5.0013 11.785469 5.0203546 11.703125 5.0566406 C 11.294759 5.2365901 10.70422 5.8212404 9.984375 6.7558594 C 9.700213 7.1248049 9.6099941 7.2478174 9.2597656 7.7558594 C 8.0343996 9.5333714 6.550375 12.301657 5.765625 14.269531 C 5.246528 15.571238 4.9999113 16.486036 5 17.125 C 5.0000139 17.214792 5.017854 17.262015 5.0253906 17.330078 C 5.0845245 16.711899 5.3182965 15.891269 5.765625 14.769531 C 6.550375 12.801657 8.0343996 10.033371 9.2597656 8.2558594 C 9.6099941 7.7478174 9.700213 7.6248049 9.984375 7.2558594 C 10.70422 6.3212404 11.294759 5.7365901 11.703125 5.5566406 C 11.785469 5.5203546 11.889387 5.5013 11.992188 5.5 C 12.094987 5.4986981 12.195901 5.5145941 12.275391 5.5488281 C 14.009341 6.2956476 18.29684 13.64985 18.945312 16.990234 C 18.965 17.091674 18.965548 17.210798 18.974609 17.326172 C 18.998841 17.083957 18.998312 16.763274 18.945312 16.490234 C 18.296847 13.14985 14.009341 5.7956476 12.275391 5.0488281 C 12.195904 5.0145941 12.094988 4.9986977 11.992188 5 z M 9.0078125 13.732422 C 9.006928 13.815728 9 13.881271 9 13.966797 C 9 15.851462 9.2214858 17.272187 9.5957031 17.787109 C 9.7465599 17.994699 9.9933227 18.045306 10.435547 17.960938 C 11.565803 17.74535 13.803558 16.673535 15.433594 15.566406 C 16.282571 14.989778 16.795312 14.523425 16.951172 14.1875 C 17.023896 14.030737 17.017628 13.953299 16.923828 13.765625 C 16.922505 13.762978 16.91179 13.752902 16.910156 13.75 C 16.725132 14.080794 16.234633 14.522337 15.433594 15.066406 C 13.803558 16.173535 11.565803 17.245349 10.435547 17.460938 C 9.9933187 17.545307 9.7465599 17.494699 9.5957031 17.287109 C 9.2403064 16.798084 9.0288054 15.47692 9.0078125 13.732422 z"/>
</svg>
