<svg xmlns="http://www.w3.org/2000/svg" width="24" height="24" version="1">
 <rect style="opacity:0.2" width="20" height="20" x="2" y="2.5" rx="6" ry="6"/>
 <path style="fill:#4f4f4f" d="m 8,2 h 8 c 3.324,0 6,2.676 6,6 v 8 c 0,0.753925 -0.137664,1.474515 -0.38933,2.138106 -0.857907,2.262131 -2.982842,3.408947 -5.5529,3.399733 L 8,21.508955 C 5.4111685,21.499674 3.2153705,20.37678 2.3707418,18.088428 2.1308936,17.438607 2,16.735152 2,16 V 8 C 2,4.676 4.676,2 8,2 Z"/>
 <path style="opacity:0.2" d="M 17.154297,4.5001555 C 16.538694,5.7188828 15.882937,7.1586994 15.244141,8.3653899 15.046752,7.1801189 14.880514,5.8442546 13.878906,5.0411711 13.400161,4.669484 12.787032,4.5302349 12.191406,4.5060149 10.120678,4.4168974 8.2695116,5.6959373 7.0019531,7.2306243 5.7654301,8.8280132 4.9893927,10.835847 5,12.867342 c 0.04542,1.292089 0.531995,2.755162 1.796875,3.324218 1.0456455,0.471556 2.2355299,0.302726 3.333984,0.152344 1.669863,-0.376168 2.978536,-1.588191 4.019532,-2.886719 0.199008,-0.32307 0.237904,-0.179539 0.220703,0.126953 0.05206,0.702361 -0.0057,1.480154 0.410156,2.083985 0.587595,0.704351 1.695804,0.432403 2.277344,-0.138672 0.673786,-0.687676 1.132066,-1.586725 1.376953,-2.511719 -0.614089,-0.114797 -0.687204,0.941615 -1.195313,1.207031 -0.475769,0.503399 -1.626076,0.693019 -1.84375,-0.154297 -0.196185,-0.716211 -0.119452,-1.4671 -0.130859,-2.201171 C 16.509631,9.5275936 17.765444,6.8464128 19,4.5001555 Z m -5.212891,0.8535156 c 1.215819,-0.053864 2.086398,1.0681154 2.3125,2.1621094 0.175411,0.719683 0.186722,1.4622261 0.242188,2.1972656 C 13.57842,11.409281 12.6785,13.157308 11.328125,14.556795 10.631426,15.209887 9.673037,15.862171 8.671875,15.621248 7.716087,15.386019 7.2165342,14.378871 7.2226562,13.457185 7.2014262,12.313889 7.5992821,11.214604 7.8847656,10.121249 8.3804631,8.4145632 9.1582184,6.6349029 10.740234,5.6700774 11.100001,5.446597 11.521795,5.3487071 11.941406,5.3536711 Z M 10.5,8.5001555 A 1.5,1.5 0 0 0 9,10.000155 1.5,1.5 0 0 0 10.5,11.500154 1.5,1.5 0 0 0 12,10.000155 1.5,1.5 0 0 0 10.5,8.5001555 Z"/>
 <path style="opacity:0.1;fill:#8b9cbe" d="M 8,2 C 4.676,2 2,4.676 2,8 v 0.5 c 0,-3.324 2.676,-6 6,-6 h 8 c 3.324,0 6,2.676 6,6 V 8 C 22,4.676 19.324,2 16,2 Z"/>
 <path style="fill:#ff4e4e" d="M 12.191707,4.0049147 C 10.120979,3.9157972 8.2703315,5.1963725 7.002773,6.7310595 5.76625,8.3284485 4.9894997,10.33495 5.000107,12.366445 c 0.04542,1.29209 0.5319435,2.755002 1.7968235,3.324058 1.0456455,0.471556 2.23606,0.302843 3.3345145,0.152461 1.669863,-0.376168 2.978326,-1.588248 4.019322,-2.886776 0.199008,-0.32307 0.237187,-0.177837 0.219986,0.128655 0.05206,0.702361 -0.0058,1.479154 0.410014,2.082985 0.587595,0.704351 1.696395,0.432547 2.277935,-0.138528 0.673786,-0.687676 1.131212,-1.586623 1.376099,-2.511617 -0.614089,-0.114797 -0.68729,0.94195 -1.195399,1.207366 -0.475769,0.503399 -1.625623,0.691725 -1.843297,-0.155591 C 15.19992,12.853246 15.277525,12.102956 15.266118,11.368885 16.510124,9.0271825 17.765444,6.3462555 19,3.9999982 H 17.154536 C 16.538933,5.2187255 15.882444,6.65893 15.243648,7.8656205 15.046259,6.6803495 14.880562,5.3450745 13.878954,4.541991 13.400209,4.1703039 12.787333,4.0291192 12.191707,4.0048992 Z m -0.250096,0.8492442 c 1.215819,-0.053864 2.086323,1.0669026 2.312425,2.1608966 0.175411,0.719683 0.186798,1.463319 0.242264,2.1983585 -0.917674,1.696236 -1.81689,3.444324 -3.167265,4.843811 -0.696699,0.653092 -1.655109,1.305449 -2.656271,1.064526 C 7.716976,14.886522 7.216852,13.878224 7.222974,12.956538 7.201744,11.813242 7.599621,10.714294 7.8851045,9.620938 8.380802,7.914252 9.157643,6.133948 10.739659,5.1691225 11.099426,4.9456421 11.522,4.8491949 11.941611,4.8541589 Z"/>
 <circle style="fill:#ff4e4e" cx="10.5" cy="9.5" r="1.5"/>
 <path style="fill:#00c97d" d="M 2.3457031,18 C 2.9464935,19.707445 4.2925551,21.053506 6,21.654297 V 18 Z"/>
 <path style="fill:#00b37a" d="m 6,18 v 3.654297 C 6.625867,21.874517 7.2969735,22 8,22 h 2 v -4 z"/>
 <rect style="fill:#009e77" width="4" height="4" x="10" y="18"/>
 <path style="fill:#008974" d="m 14,18 v 4 h 2 c 0.703026,0 1.374133,-0.125483 2,-0.345703 V 18 Z"/>
 <path style="fill:#006b6f" d="m 18,18 v 3.654297 C 19.707445,21.053506 21.053506,19.707445 21.654297,18 Z"/>
 <path style="opacity:0.1;fill:#8b9cbe" d="m 2.3457031,18 c 0.060248,0.171224 0.1331578,0.336431 0.2080079,0.5 h 18.892578 c 0.07485,-0.163569 0.14776,-0.328776 0.208008,-0.5 z"/>
 <path style="fill:#8b9cbe;opacity:0.2" d="M 17.154297 4 C 16.538694 5.2187273 15.882937 6.6585439 15.244141 7.8652344 C 15.046752 6.6799634 14.880514 5.3440991 13.878906 4.5410156 C 13.400161 4.1693285 12.787032 4.0300794 12.191406 4.0058594 C 10.120678 3.9167419 8.2695116 5.1957818 7.0019531 6.7304688 C 5.7654301 8.3278576 4.9893927 10.335693 5 12.367188 C 5.0015088 12.41011 5.0131301 12.454786 5.015625 12.498047 C 5.094274 10.593962 5.8405229 8.7308498 7.0019531 7.2304688 C 8.2695116 5.6957818 10.120678 4.4167419 12.191406 4.5058594 C 12.787032 4.5300794 13.400161 4.6693285 13.878906 5.0410156 C 14.880514 5.8440991 15.046752 7.1799634 15.244141 8.3652344 C 15.882937 7.1585439 16.538694 5.7187273 17.154297 4.5 L 18.748047 4.5 C 18.831919 4.3380857 18.916313 4.1590463 19 4 L 17.154297 4 z M 10.5 8 A 1.5 1.5 0 0 0 9 9.5 A 1.5 1.5 0 0 0 9.0214844 9.7460938 A 1.5 1.5 0 0 1 10.5 8.5 A 1.5 1.5 0 0 1 11.978516 9.7558594 A 1.5 1.5 0 0 0 12 9.5 A 1.5 1.5 0 0 0 10.5 8 z M 14.464844 9.2695312 C 13.557733 10.947952 12.663447 12.672754 11.328125 14.056641 C 10.631426 14.709733 9.673037 15.362017 8.671875 15.121094 C 7.7732985 14.899945 7.2951322 13.996293 7.2441406 13.123047 C 7.2386363 13.234591 7.2205699 13.344673 7.2226562 13.457031 C 7.2165342 14.378717 7.716087 15.385865 8.671875 15.621094 C 9.673037 15.862017 10.631426 15.209733 11.328125 14.556641 C 12.6785 13.157154 13.57842 11.409126 14.496094 9.7128906 C 14.48495 9.5652175 14.474111 9.4175639 14.464844 9.2695312 z M 15.263672 12.503906 C 15.256925 13.031455 15.256525 13.559364 15.396484 14.070312 C 15.614158 14.917629 16.764465 14.728008 17.240234 14.224609 C 17.697417 13.985795 17.80574 13.113653 18.269531 13.023438 C 18.329255 12.855704 18.390365 12.688242 18.435547 12.517578 C 17.821458 12.402781 17.748343 13.459193 17.240234 13.724609 C 16.764465 14.228008 15.614158 14.417628 15.396484 13.570312 C 15.300828 13.221102 15.271416 12.863636 15.263672 12.503906 z"/>
</svg>
