<svg xmlns="http://www.w3.org/2000/svg" width="24" height="24" version="1">
 <path style="opacity:0.2" d="m 9,2.5000002 v 2.9993903 h 2.157244 c 0.574141,0 0.616275,0.089117 0.729222,0.2021068 0.149882,0.1499435 0.119069,2.024098 0.119069,6.6910207 0,7.813698 0.641857,7.108595 -1.805727,7.103647 -2.0918655,-0.0042 -3.0080627,-1.038532 -1.9860777,-2.170194 1.0594385,-1.173141 1.0457365,-1.874875 -0.03904,-2.893563 -0.622885,-0.584934 -1.391554,-0.882233 -2.1964205,-0.934381 -1.021473,-0.06618 -1.801114,0.27469 -2.7151784,1.057402 -0.7105403,0.608436 -1.1782938,1.365127 -1.2517525,2.182201 -0.09917,1.103052 0.456358,2.815788 1.5016033,3.922739 1.7726013,1.94017 3.2307093,1.770383 6.7454218,1.835564 2.712783,0.04827 5.975044,-0.288696 7.427206,-3.445588 0.359296,-0.77856 0.269298,-1.021467 0.31622,-6.868721 0.05495,-6.8472067 0.08072,-6.6822335 1.504961,-6.6822335 0.345076,0 0.596605,0.01105 0.785663,0 H 21 V 2.5000002 h -0.164941 -5.451822 z"/>
 <path style="fill:#ffc238" d="m 9,2 v 2.9993903 h 2.157244 c 0.574141,0 0.616275,0.089117 0.729222,0.2021068 0.149882,0.1499435 0.119069,2.024098 0.119069,6.6910219 0,7.813698 0.641857,7.108595 -1.805727,7.103647 -2.0918655,-0.0042 -3.0080627,-1.038532 -1.9860777,-2.170194 1.0594385,-1.173141 1.0457365,-1.874875 -0.03904,-2.893563 -0.622885,-0.584934 -1.391554,-0.882233 -2.1964205,-0.934381 -1.021473,-0.06618 -1.801114,0.27469 -2.7151784,1.057402 -0.7105403,0.608436 -1.1782938,1.365127 -1.2517525,2.182201 -0.09917,1.103052 0.456358,2.815788 1.5016033,3.922739 1.7726013,1.94017 3.2307093,1.770383 6.7454218,1.835564 2.712783,0.04827 5.975044,-0.288696 7.427206,-3.445588 0.359296,-0.77856 0.269298,-1.021467 0.31622,-6.868721 0.05495,-6.8472079 0.08072,-6.6822347 1.504961,-6.6822347 0.345076,0 0.596605,0.01105 0.785663,0 H 21 V 2 h -0.164941 -5.451822 z"/>
 <path style="fill:#8b9cbe;opacity:0.2" d="M 9 2 L 9 2.5 L 15.382812 2.5 L 20.835938 2.5 L 21 2.5 L 21 2 L 20.835938 2 L 15.382812 2 L 9 2 z M 5.9785156 12.998047 C 4.9570426 12.931867 4.1777363 13.271976 3.2636719 14.054688 C 2.5531316 14.663123 2.0851775 15.421207 2.0117188 16.238281 C 1.9975154 16.396263 1.9995477 16.568624 2.0117188 16.748047 C 2.011984 16.744974 2.0114434 16.741344 2.0117188 16.738281 C 2.0851775 15.921207 2.5531316 15.163123 3.2636719 14.554688 C 4.1777363 13.771975 4.9570426 13.431867 5.9785156 13.498047 C 6.7833821 13.550195 7.5509431 13.846707 8.1738281 14.431641 C 8.6257762 14.856054 8.8809704 15.226263 8.9609375 15.597656 C 9.0830216 15.043373 8.8256624 14.543763 8.1738281 13.931641 C 7.5509431 13.346707 6.7833821 13.050195 5.9785156 12.998047 z M 12.076172 17.632812 C 12.04105 19.254706 11.707325 18.999143 10.199219 18.996094 C 8.8876866 18.99346 8.0411211 18.586513 7.8417969 18.003906 C 7.6399867 18.838537 8.5391629 19.492761 10.199219 19.496094 C 11.835151 19.499401 12.086449 19.756669 12.076172 17.632812 z"/>
</svg>
