<svg xmlns="http://www.w3.org/2000/svg" height="24" width="24" version="1.1">
 <g>
  <circle cx="3.5" cy="10" r="3.5" style="opacity:.2"/>
  <circle cx="20.5" cy="10" r="3.5" style="opacity:.2"/>
  <path style="opacity:.2" d="m12 2.5c-5.54 0-10 4.46-10 10s4.46 10 10 10 10-4.46 10-10-4.46-10-10-10z"/>
  <circle cx="3.5" cy="9.5" r="3.5" style="fill:#684c2a"/>
  <path style="opacity:.1;fill:#8b9cbe" d="m3.5 6a3.5 3.5 0 0 0 -3.5 3.5 3.5 3.5 0 0 0 0.01171875 0.2753906 3.5 3.5 0 0 1 3.4882812 -3.2753906 3.5 3.5 0 0 1 3.4882812 3.2246094 3.5 3.5 0 0 0 0.0117188 -0.2246094 3.5 3.5 0 0 0 -3.5 -3.5z"/>
  <circle cx="20.5" cy="9.5" r="3.5" style="fill:#684c2a"/>
  <path style="opacity:.1;fill:#8b9cbe" d="m20.5 6a3.5 3.5 0 0 0 -3.5 3.5 3.5 3.5 0 0 0 0.011719 0.2753906 3.5 3.5 0 0 1 3.488281 -3.2753906 3.5 3.5 0 0 1 3.488281 3.2246094 3.5 3.5 0 0 0 0.011719 -0.2246094 3.5 3.5 0 0 0 -3.5 -3.5z"/>
  <path style="fill:#9d672b" d="m12 2c-5.54 0-10 4.46-10 10s4.46 10 10 10 10-4.46 10-10-4.46-10-10-10z"/>
  <path style="opacity:.2" d="m8.5 5.5a3.5 3.5 0 0 0 -3.5 3.5 3.5 3.5 0 0 0 2.6425781 3.388672 8 5.5 0 0 0 -3.6425781 4.611328 8 5.5 0 0 0 0.2460938 1.326172c1.8308262 2.243725 4.6190623 3.673828 7.7539062 3.673828 3.13738 0 5.927057-1.432827 7.757812-3.679688a8 5.5 0 0 0 0.242188 -1.320312 8 5.5 0 0 0 -3.646484 -4.609375 3.5 3.5 0 0 0 2.646484 -3.390625 3.5 3.5 0 0 0 -3.5 -3.5 3.5 3.5 0 0 0 -3.5 3.5 3.5 3.5 0 0 0 0.03906 0.5h-0.08008a3.5 3.5 0 0 0 0.04102 -0.5 3.5 3.5 0 0 0 -3.5 -3.5z"/>
  <ellipse style="fill:#e2bf56" rx="8" ry="5.5" cy="16.5" cx="12"/>
  <path style="opacity:.1;fill:#8b9cbe" d="m12 2c-5.54 0-10 4.46-10 10 0 0.084-0.002 0.1665 0 0.25 0.1322-5.423 4.544-9.75 10-9.75s9.868 4.327 10 9.75c0.002-0.0835 0-0.166 0-0.25 0-5.54-4.46-10-10-10z"/>
  <circle cx="8.5" cy="8.5" r="3.5" style="fill:#e2bf56"/>
  <rect style="fill:#e2bf56" height="4" width="6" y="9" x="9"/>
  <circle cx="8.5" cy="8" r="1.5" style="opacity:.1"/>
  <circle cx="15.5" cy="8.5" r="3.5" style="fill:#e2bf56"/>
  <circle cx="15.5" cy="8" r="1.5" style="opacity:.1"/>
  <circle cx="8.5" cy="7.5" r="1.5" style="fill:#17191e"/>
  <circle cx="15.5" cy="7.5" r="1.5" style="fill:#17191e"/>
  <path style="opacity:.1;stroke-linejoin:round;stroke:#000000;stroke-linecap:round;fill:none" d="m7.5042925 17s1.5 2 4.5000005 2c3 0 4.499999-2 4.499999-2"/>
  <path style="stroke-linejoin:round;stroke:#17191e;stroke-linecap:round;fill:none" d="m7.5042925 16.5s1.5 2 4.5000005 2c3 0 4.499999-2 4.499999-2"/>
 </g>
</svg>
