<svg width="24" height="24" version="1.1" xmlns="http://www.w3.org/2000/svg">
 <g transform="translate(1,1)">
  <path d="m19 1.5 1 1-2 5h-6v2h4l1 1-1 5h-5v3h-3v3h-5l-1-1 7-19z" style="opacity:.2"/>
  <path d="m19 1 1 1-2 5h-6v2h4l1 1-1 5h-5v3h-3v3h-5l-1-1 7-19z" style="fill:#ffc238"/>
  <path d="m2 20.5h5v-3h3v-3h5l1-5h-5v-3h6l2-5h-12v3h-3z" style="opacity:.1"/>
  <path d="m2 20h5v-3h3v-3h5l1-5h-5v-3h6l2-5h-12v3h-3z" style="fill:#df3a36"/>
  <path d="m7 1v0.5h11.800781l0.199219-0.5zm-3 3-2 16h0.0625l1.9375-15.5h3v-0.5zm7 5v0.5h4.900391l0.099609-0.5z" style="fill:#8b9cbe;opacity:.2"/>
 </g>
</svg>
