<svg width="24" height="24" version="1.1" xmlns="http://www.w3.org/2000/svg">
 <g transform="translate(1,1)">
  <rect x="1" y="1.5" width="20" height="20" rx="1" ry="1" style="opacity:.2"/>
  <rect x="1" y="1" width="20" height="20" rx="1" ry="1" style="fill:#0190c5"/>
  <path d="m11 3.5s3 0 5 2 3 5 3 5v-6c0-0.554-0.446-1-1-1zm-8 1v10s2.227436 0.772564 5-2c1.933113-1.933113 4.693188-5.5974954 4.882812-5.8496094-3.4992386-2.1430331-9.882812-2.1503906-9.882812-2.1503906zm11.882812 4.1503906c-0.189624 0.252114-2.949699 3.9164964-4.882812 5.8496094-3 3-2 5-2 5h10s-0.804451-7.180956-3.117188-10.849609z" style="opacity:.2"/>
  <path d="m11 3s3 0 5 2 3 5 3 5v-6c0-0.554-0.446-1-1-1zm-8 1v10s2.227436 0.772564 5-2c1.933113-1.933113 4.693188-5.5974954 4.882812-5.8496094-3.4992386-2.1430331-9.882812-2.1503906-9.882812-2.1503906zm11.882812 4.1503906c-0.189624 0.252114-2.949699 3.9164964-4.882812 5.8496094-3 3-2 5-2 5h10s-0.804451-7.180956-3.117188-10.849609z" style="fill:#8b9cbe"/>
  <path d="m2 1c-0.554 0-1 0.446-1 1v0.5c0-0.554 0.446-1 1-1h18c0.554 0 1 0.446 1 1v-0.5c0-0.554-0.446-1-1-1z" style="fill:#8b9cbe;opacity:.2"/>
 </g>
</svg>
