<svg xmlns="http://www.w3.org/2000/svg" width="24" height="24" version="1.1">
 <path style="opacity:0.2" d="m 12.873862,2.500379 c -0.172749,-0.001 -0.240084,0.1358692 -0.590542,1.2024931 l -0.34817,1.0597488 -0.532253,0.0481 c -0.292734,0.02645 -0.630236,0.06842 -0.750015,0.09331 -0.158355,0.0329 -0.232228,0.03325 -0.270737,10e-4 C 10.353025,4.8808302 10.106423,4.4811076 9.8341083,4.0167352 9.289898,3.0887056 9.1782946,2.9402465 9.02526,2.9402465 c -0.1608266,0 -1.2380143,0.4291775 -1.3164924,0.5245169 -0.03851,0.0468 -0.069487,0.1415692 -0.068838,0.2107138 4.995e-4,0.069145 0.097348,0.5762967 0.2148698,1.1269335 0.1175273,0.550642 0.2067088,1.0191893 0.1981528,1.0412142 -0.00854,0.022 -0.1367567,0.1154593 -0.2848818,0.2076638 C 7.6199456,6.1434931 7.3518017,6.337222 7.1722142,6.4817912 6.9926323,6.6263604 6.8286142,6.7446747 6.8077158,6.7446747 6.786836,6.7446747 6.3666924,6.516986 5.8740882,6.2386926 4.8612131,5.6664809 4.8126889,5.644696 4.6697985,5.6990807 4.51542,5.7578354 3.7582775,6.7194498 3.7582775,6.856754 c 0,0.1488092 0.036212,0.1960039 0.8086936,1.0555289 0.3693284,0.4109276 0.6714923,0.7761955 0.6714923,0.8117253 0,0.0355 -0.078313,0.2219487 -0.174008,0.4142326 C 4.9687606,9.3305247 4.8417085,9.6171531 4.782076,9.7752322 4.7224434,9.9333062 4.6513877,10.0812 4.6241663,10.103815 c -0.030418,0.0253 -0.4761367,0.04565 -1.1567844,0.05295 -1.3655657,0.01465 -1.2455014,-0.05185 -1.3742317,0.760961 -0.049848,0.314833 -0.091679,0.620001 -0.092903,0.678131 -0.00449,0.216563 0.087593,0.265033 1.1989002,0.630971 l 1.0580176,0.348373 0.046901,0.519822 c 0.025823,0.285888 0.066345,0.625011 0.090091,0.753611 0.023775,0.128604 0.033315,0.249828 0.021278,0.269378 -0.012087,0.01955 -0.4213491,0.272173 -0.9095631,0.561432 -0.488219,0.289263 -0.9281935,0.569552 -0.9777017,0.622836 -0.049498,0.05329 -0.090011,0.144434 -0.090011,0.202579 0,0.170104 0.4362734,1.244258 0.5328773,1.311997 0.1262978,0.08855 0.2355834,0.07558 1.3269611,-0.157529 0.5498446,-0.117439 1.0179,-0.205798 1.0401313,-0.196324 0.022225,0.0095 0.1158639,0.13792 0.2081523,0.285414 0.092283,0.147489 0.2875439,0.417447 0.433881,0.599836 0.1820795,0.226944 0.25802,0.352643 0.2404981,0.398353 -0.014085,0.03675 -0.2405631,0.448762 -0.5032681,0.9156 -0.5384464,0.956854 -0.5690197,1.023439 -0.5338914,1.163538 0.035915,0.143279 1.0266006,0.93528 1.1694413,0.93492 0.1473256,-3.7e-4 0.2173822,-0.05407 1.0430184,-0.800621 0.4019242,-0.363423 0.7611031,-0.666016 0.7981444,-0.672421 0.03706,-0.0064 0.2287457,0.06825 0.4260691,0.165974 0.1973233,0.09773 0.4983136,0.226994 0.6688351,0.287209 0.1705215,0.06021 0.3135817,0.111619 0.3179272,0.114274 0.0045,0.0025 0.01783,0.522502 0.03002,1.155168 0.02717,1.412867 -0.03806,1.289728 0.7511887,1.417512 0.593074,0.09602 0.827219,0.09627 0.922379,0.001 0.03317,-0.0332 0.216174,-0.534717 0.406614,-1.114424 l 0.346213,-1.053958 0.398019,-0.03065 c 0.21893,-0.01685 0.560113,-0.05729 0.758141,-0.08987 0.358475,-0.05898 0.360373,-0.05883 0.434585,0.03065 0.04101,0.04945 0.29694,0.468312 0.56882,0.93085 0.27188,0.462537 0.532887,0.872515 0.579993,0.911059 0.128985,0.105545 0.221368,0.08923 0.844326,-0.148689 0.594104,-0.226908 0.712829,-0.309633 0.71243,-0.496517 -1.2e-4,-0.05813 -0.09746,-0.565057 -0.216354,-1.126543 -0.118895,-0.561487 -0.207577,-1.034889 -0.197058,-1.051929 0.01054,-0.01705 0.148364,-0.118305 0.306369,-0.225104 0.157999,-0.106799 0.422318,-0.304788 0.587335,-0.439887 0.165022,-0.1351 0.316599,-0.245649 0.336842,-0.245674 0.02023,-3e-5 0.452297,0.231524 0.960116,0.514582 1.038163,0.578662 1.032279,0.575992 1.169601,0.541487 0.146117,-0.0367 0.933862,-1.028029 0.933862,-1.175193 0,-0.137675 -0.03331,-0.180619 -0.818928,-1.056229 -0.352711,-0.393118 -0.646833,-0.747311 -0.653596,-0.787166 -0.0068,-0.03985 0.0609,-0.218178 0.150333,-0.396242 0.08943,-0.178064 0.217852,-0.463543 0.285346,-0.634412 0.06749,-0.170869 0.140233,-0.328693 0.161661,-0.350718 0.02318,-0.0238 0.49174,-0.04815 1.15616,-0.06007 1.065944,-0.0191 1.121002,-0.02385 1.200694,-0.103715 0.06541,-0.06555 0.104515,-0.213168 0.180411,-0.680796 0.0533,-0.328398 0.09719,-0.635706 0.09751,-0.682821 0.0015,-0.190359 -0.112772,-0.248358 -1.199525,-0.609461 l -1.06013,-0.352208 -0.0451,-0.517552 c -0.02482,-0.284639 -0.06512,-0.623242 -0.08954,-0.752441 -0.02442,-0.129199 -0.03441,-0.251048 -0.02218,-0.270863 0.01224,-0.0198 0.42159,-0.272149 0.909644,-0.560727 0.488054,-0.288578 0.927883,-0.5686568 0.977387,-0.6223665 0.0495,-0.05371 0.09001,-0.1426292 0.09001,-0.1976539 0,-0.1577941 -0.429561,-1.2287579 -0.524282,-1.3071424 -0.120342,-0.099578 -0.20319,-0.091544 -1.159909,0.1125553 C 18.753015,8.5685691 18.692438,8.5795141 18.651271,8.5509792 18.631991,8.5376293 18.529943,8.3956201 18.424449,8.2353761 18.318954,8.075132 18.126356,7.8138285 17.996427,7.6546994 17.866497,7.4955753 17.760174,7.3490612 17.760144,7.3291663 c -2.5e-5,-0.0199 0.232032,-0.4523974 0.51577,-0.9611195 0.283733,-0.508717 0.527218,-0.9631194 0.541079,-1.0097691 0.04795,-0.1613691 -0.05299,-0.2867784 -0.556158,-0.6908012 -0.536224,-0.4305725 -0.630395,-0.4693023 -0.8219,-0.3378931 -0.0544,0.03735 -0.43495,0.3707179 -0.84565,0.7408609 -0.410705,0.3701429 -0.775593,0.6730462 -0.810886,0.6730462 -0.03532,0 -0.221323,-0.078735 -0.413408,-0.174969 C 15.176907,5.472292 14.902715,5.3526027 14.759694,5.302588 14.340688,5.1560589 14.359653,5.2175285 14.359488,4.0070203 14.359353,3.0447409 14.353093,2.9500664 14.282374,2.8339371 14.236024,2.7578375 14.160531,2.6980529 14.092503,2.6836029 13.919629,2.6469032 12.948135,2.500589 12.873918,2.500109 Z"/>
 <path style="fill:#9d60ff" d="m 12.873862,2.0003853 c -0.172749,-0.001 -0.240084,0.1358692 -0.590542,1.202493 l -0.34817,1.0597489 -0.532253,0.0481 c -0.292734,0.02645 -0.630236,0.06842 -0.750015,0.09331 -0.158355,0.0329 -0.232228,0.03325 -0.270737,10e-4 C 10.353025,4.3808365 10.106423,3.9811138 9.8341083,3.5167415 9.289898,2.5887119 9.1782946,2.4402527 9.02526,2.4402527 c -0.1608266,0 -1.2380143,0.4291776 -1.3164924,0.524517 -0.03851,0.0468 -0.069487,0.1415692 -0.068838,0.2107138 4.995e-4,0.069145 0.097348,0.5762967 0.2148698,1.1269335 0.1175273,0.5506418 0.2067088,1.0191894 0.1981528,1.0412143 -0.00854,0.022 -0.1367567,0.1154593 -0.2848818,0.2076638 -0.1481252,0.092204 -0.4162691,0.2859333 -0.5958566,0.4305025 -0.1795819,0.1445691 -0.3436,0.2628835 -0.3644984,0.2628835 -0.02088,0 -0.4410234,-0.2276887 -0.9336276,-0.5059821 C 4.8612131,5.1664873 4.8126889,5.1447024 4.6697985,5.1990871 4.51542,5.2578418 3.7582775,6.2194562 3.7582775,6.3567604 c 0,0.1488092 0.036212,0.1960039 0.8086936,1.0555289 0.3693284,0.4109276 0.6714923,0.7761955 0.6714923,0.8117253 0,0.0355 -0.078313,0.2219487 -0.174008,0.4142326 C 4.9687606,8.8305311 4.8417085,9.1171595 4.782076,9.2752385 4.7224434,9.4333126 4.6513877,9.5812068 4.6241663,9.6038216 c -0.030418,0.0253 -0.4761367,0.04565 -1.1567844,0.052955 -1.3655657,0.01465 -1.2455014,-0.051855 -1.3742317,0.7609604 -0.049848,0.314833 -0.091679,0.620001 -0.092903,0.678131 -0.00449,0.216564 0.087593,0.265033 1.1989002,0.630971 l 1.0580176,0.348373 0.046901,0.519822 c 0.025823,0.285889 0.066345,0.625012 0.090091,0.753611 0.023775,0.128604 0.033315,0.249829 0.021278,0.269378 -0.012087,0.01955 -0.4213491,0.272174 -0.9095631,0.561432 -0.488219,0.289264 -0.9281935,0.569552 -0.9777017,0.622837 -0.049498,0.05329 -0.090011,0.144434 -0.090011,0.202578 0,0.170104 0.4362734,1.244258 0.5328773,1.311998 0.1262978,0.08855 0.2355834,0.07557 1.3269611,-0.157529 0.5498446,-0.11744 1.0179,-0.205799 1.0401313,-0.196324 0.022225,0.0095 0.1158639,0.137919 0.2081523,0.285413 0.092283,0.147489 0.2875439,0.417448 0.433881,0.599837 0.1820795,0.226943 0.25802,0.352643 0.2404981,0.398352 -0.014085,0.03675 -0.2405631,0.448763 -0.5032681,0.9156 -0.5384464,0.956855 -0.5690197,1.023439 -0.5338914,1.163538 0.035915,0.14328 1.0266006,0.93528 1.1694413,0.93492 0.1473256,-3.7e-4 0.2173822,-0.05407 1.0430184,-0.80062 0.4019242,-0.363423 0.7611031,-0.666016 0.7981444,-0.672421 0.03706,-0.0064 0.2287457,0.06825 0.4260691,0.165974 0.1973233,0.09772 0.4983136,0.226993 0.6688351,0.287208 0.1705215,0.06021 0.3135817,0.111619 0.3179272,0.114274 0.0045,0.0025 0.01783,0.522502 0.03002,1.155169 0.02717,1.412866 -0.03806,1.289727 0.7511887,1.417511 0.593074,0.09602 0.827219,0.09628 0.922379,0.001 0.03317,-0.0332 0.216174,-0.534717 0.406614,-1.114423 l 0.346213,-1.053959 0.398019,-0.03065 c 0.21893,-0.01685 0.560113,-0.05729 0.758141,-0.08987 0.358475,-0.05898 0.360373,-0.05883 0.434585,0.03065 0.04101,0.04945 0.29694,0.468313 0.56882,0.93085 0.27188,0.462537 0.532887,0.872515 0.579993,0.91106 0.128985,0.105544 0.221368,0.08923 0.844326,-0.148689 0.594104,-0.226909 0.712829,-0.309634 0.71243,-0.496517 -1.2e-4,-0.05813 -0.09746,-0.565057 -0.216354,-1.126544 -0.118895,-0.561487 -0.207577,-1.034889 -0.197058,-1.051929 0.01054,-0.01705 0.148364,-0.118304 0.306369,-0.225104 0.157999,-0.106799 0.422318,-0.304788 0.587335,-0.439887 0.165022,-0.135099 0.316599,-0.245649 0.336842,-0.245674 0.02023,-3e-5 0.452297,0.231524 0.960116,0.514582 1.038163,0.578662 1.032279,0.575992 1.169601,0.541487 0.146117,-0.0367 0.933862,-1.028029 0.933862,-1.175193 0,-0.137674 -0.03331,-0.180619 -0.818928,-1.056229 -0.352711,-0.393118 -0.646833,-0.74731 -0.653596,-0.787165 -0.0068,-0.03985 0.0609,-0.218179 0.150333,-0.396243 0.08943,-0.178064 0.217852,-0.463542 0.285346,-0.634411 0.06749,-0.170869 0.140233,-0.328693 0.161661,-0.350718 0.02318,-0.0238 0.49174,-0.04815 1.15616,-0.06007 1.065944,-0.0191 1.121002,-0.02385 1.200694,-0.103714 0.06541,-0.06555 0.104515,-0.213169 0.180411,-0.680796 0.0533,-0.328398 0.09719,-0.635707 0.09751,-0.682821 0.0015,-0.190359 -0.112772,-0.248359 -1.199525,-0.609462 l -1.06013,-0.352208 -0.0451,-0.517552 c -0.02482,-0.284638 -0.06512,-0.623241 -0.08954,-0.752441 -0.02442,-0.129199 -0.03441,-0.251048 -0.02218,-0.270863 0.01224,-0.0198 0.42159,-0.272148 0.909644,-0.5607264 0.488054,-0.2885784 0.927883,-0.5686568 0.977387,-0.6223664 0.0495,-0.05371 0.09001,-0.1426292 0.09001,-0.1976539 0,-0.1577941 -0.429561,-1.2287579 -0.524282,-1.3071424 -0.120344,-0.099585 -0.203192,-0.09155 -1.159911,0.1125493 C 18.753013,8.0685758 18.692436,8.0795208 18.651269,8.0509859 18.631989,8.0376359 18.529941,7.8956268 18.424447,7.7353827 18.318952,7.5751387 18.126354,7.3138352 17.996425,7.1547061 17.866495,6.995582 17.760172,6.8490679 17.760142,6.829173 c -2.5e-5,-0.0199 0.232032,-0.4523974 0.51577,-0.9611195 0.283733,-0.508717 0.527218,-0.9631197 0.541079,-1.0097694 0.04795,-0.1613691 -0.05299,-0.2867784 -0.556158,-0.690801 -0.536224,-0.4305725 -0.630395,-0.4693023 -0.8219,-0.3378931 -0.0544,0.03735 -0.43495,0.3707179 -0.84565,0.7408607 -0.410705,0.3701429 -0.775593,0.6730464 -0.810886,0.6730464 -0.03532,0 -0.221323,-0.078735 -0.413408,-0.1749689 -0.192084,-0.09623 -0.466276,-0.2159191 -0.609297,-0.2659338 -0.419006,-0.1465292 -0.400041,-0.08506 -0.400206,-1.2955675 -1.35e-4,-0.9622795 -0.0064,-1.0569539 -0.07711,-1.1730832 -0.04635,-0.0761 -0.121843,-0.1358843 -0.189871,-0.1503342 -0.172874,-0.0367 -1.144368,-0.1830139 -1.218585,-0.1834939 z"/>
 <path style="opacity:0.1;fill:#8b9cbe" d="m 12.874062,2.0001186 c -0.172749,-10e-4 -0.240359,0.1364942 -0.590817,1.203118 l -0.347654,1.0595642 -0.532224,0.047851 c -0.292734,0.02645 -0.631193,0.06886 -0.750972,0.093749 -0.158355,0.0329 -0.231997,0.033226 -0.270506,9.75e-4 C 10.352769,4.3811766 10.106355,3.981082 9.8340403,3.5167097 9.28983,2.5886801 9.1784856,2.4405441 9.025451,2.4405441 c -0.1608266,0 -1.2379203,0.4290716 -1.3163984,0.524411 -0.03851,0.0468 -0.069985,0.1417917 -0.069336,0.2109363 1.37e-4,0.018989 0.04549,0.2326817 0.058593,0.3095685 0.0039,-0.00598 0.00664,-0.015526 0.010745,-0.020508 0.078478,-0.095339 1.1555718,-0.524411 1.3163984,-0.524411 0.1530346,0 0.264379,0.148136 0.8085893,1.0761656 0.2723157,0.4643724 0.5187287,0.8644669 0.5478487,0.8886668 0.03851,0.03225 0.112152,0.031923 0.270507,-9.75e-4 0.119778,-0.02489 0.458238,-0.0673 0.750972,-0.093749 l 0.532221,-0.047851 0.347654,-1.0595642 c 0.350458,-1.0666238 0.418068,-1.204118 0.590817,-1.203118 0.07422,4.8e-4 1.045869,0.1468929 1.218743,0.1835927 0.06803,0.01445 0.143102,0.07429 0.189451,0.1503898 0.07072,0.1161293 0.07701,0.2105653 0.07715,1.1728447 1.66e-4,1.2105081 -0.01862,1.149362 0.400388,1.2958911 0.14302,0.050015 0.417287,0.169394 0.609371,0.2656235 0.192085,0.096234 0.377769,0.1748035 0.413084,0.1748035 0.0353,0 0.400814,-0.3027048 0.811519,-0.6728477 0.4107,-0.370143 0.790318,-0.7038568 0.844721,-0.7412066 0.191505,-0.1314093 0.286037,-0.092684 0.822261,0.3378887 0.224577,0.1803272 0.359439,0.3001668 0.446287,0.3974585 0.02034,-0.04047 0.107522,-0.1965349 0.110351,-0.2060534 0.04795,-0.161369 -0.05347,-0.2873796 -0.556638,-0.6914022 -0.536224,-0.4305725 -0.630756,-0.469298 -0.822261,-0.3378887 -0.0544,0.03735 -0.434021,0.3710638 -0.844721,0.7412066 -0.410705,0.3701429 -0.776225,0.6728476 -0.811519,0.6728476 -0.03531,0 -0.220999,-0.078569 -0.413084,-0.1748034 C 15.17708,4.9722305 14.902813,4.8528515 14.759793,4.8028368 14.340786,4.6563076 14.35957,4.7174538 14.359405,3.5069458 14.35927,2.5446664 14.352976,2.4502304 14.282257,2.3341011 14.235907,2.2580015 14.160833,2.1981612 14.092805,2.1837113 13.919931,2.1470115 12.948279,2.0005986 12.874062,2.0001186 Z M 4.7754757,5.1797877 c -0.040469,-0.00335 -0.069746,0.00594 -0.1054681,0.01953 -0.1543785,0.058754 -0.9121041,1.0199156 -0.9121041,1.1572198 0,0.07504 0.012908,0.1279963 0.121093,0.268553 0.220322,-0.3311951 0.6752921,-0.8817344 0.7910111,-0.9257757 0.1428904,-0.054385 0.1912195,-0.03315 1.2040946,0.5390589 0.4926042,0.2782939 0.9127083,0.5058566 0.9335881,0.5058566 0.0209,0 0.184674,-0.1181243 0.3642559,-0.2626935 0.1795875,-0.1445692 0.4475744,-0.3384576 0.5956996,-0.430662 0.1481251,-0.092204 0.2766149,-0.18503 0.2851548,-0.2070298 0.0036,-0.0093 -0.057976,-0.2983953 -0.083984,-0.4394505 -0.04961,0.040755 -0.096566,0.081369 -0.2011708,0.1464832 C 7.6195206,5.643082 7.3515337,5.8369704 7.1719462,5.9815396 6.9923643,6.1261087 6.8285887,6.2442331 6.8076903,6.2442331 c -0.02088,0 -0.4409839,-0.2275627 -0.9335881,-0.5058566 C 5.1144456,5.3092195 4.8968836,5.1897937 4.7754757,5.1797877 Z M 17.914072,7.0420815 c -0.03661,0.070629 -0.154304,0.2811628 -0.154296,0.2871078 3e-5,0.019895 0.106397,0.1660695 0.236327,0.3251936 0.129928,0.1591291 0.323213,0.4208071 0.428708,0.5810512 0.105494,0.160244 0.207281,0.3020777 0.226561,0.3154276 0.04117,0.028535 0.101273,0.01797 1.224602,-0.2216782 0.956719,-0.2040988 1.039806,-0.2128648 1.16015,-0.1132803 0.06837,0.05658 0.308665,0.6258243 0.438474,0.9999942 0.04769,-0.054058 0.08594,-0.1388272 0.08594,-0.1923819 0,-0.1577941 -0.42969,-1.2292249 -0.524411,-1.3076094 C 20.91578,7.6163216 20.832693,7.6250876 19.875974,7.8291864 18.752645,8.068835 18.692539,8.0794 18.651372,8.0508646 18.632092,8.0375147 18.530305,7.895681 18.424811,7.7354369 c -0.105495,-0.160244 -0.29878,-0.421922 -0.428708,-0.5810511 -0.04495,-0.05505 -0.04616,-0.064994 -0.08203,-0.1123043 z M 5.1035987,8.5440263 c -0.01916,0.04121 -0.01742,0.050262 -0.039065,0.093749 C 4.9688392,8.8300596 4.8419416,9.117388 4.7823091,9.275467 4.7226765,9.4335411 4.6513284,9.5809753 4.6241069,9.6035901 c -0.030418,0.0253 -0.4755957,0.04543 -1.1562433,0.052734 -1.3655658,0.01465 -1.2462618,-0.051101 -1.3749921,0.7617149 -0.049845,0.314833 -0.091547,0.6196 -0.09277,0.67773 -0.0013,0.06263 0.00971,0.11097 0.046875,0.157226 0.016786,-0.122224 0.021261,-0.179354 0.045898,-0.334959 0.1287302,-0.812816 0.00943,-0.747065 1.374992,-0.761715 0.6806477,-0.0073 1.125825,-0.02743 1.1562434,-0.05273 0.027221,-0.02262 0.098569,-0.170049 0.1582021,-0.328123 0.059633,-0.1580791 0.1865301,-0.4454075 0.2822248,-0.6376914 0.095695,-0.1922839 0.173827,-0.3785603 0.173827,-0.4140601 0,-0.01209 -0.074064,-0.1024464 -0.1347647,-0.1796864 z M 19.629882,10.876044 c -0.0026,0.0022 -0.04625,0.02731 -0.04687,0.02832 -0.01224,0.01982 -0.0019,0.141306 0.02246,0.270506 0.02443,0.129199 0.06502,0.468287 0.08984,0.752925 l 0.04492,0.517575 1.06054,0.351561 c 0.784935,0.260816 1.054365,0.364003 1.147455,0.472653 0.01966,-0.136106 0.05159,-0.338242 0.05176,-0.363278 0.0015,-0.190359 -0.11246,-0.248269 -1.199213,-0.609372 l -1.06054,-0.35156 -0.04492,-0.517575 c -0.01819,-0.20857 -0.04296,-0.388854 -0.06543,-0.551755 z M 4.3702046,13.645559 c -0.047928,0.03994 -0.4000649,0.259153 -0.8642528,0.534177 -0.488219,0.289263 -0.9280252,0.569758 -0.9775334,0.623043 -0.049498,0.05329 -0.089843,0.144003 -0.089843,0.202147 0,0.04642 0.034777,0.164402 0.083984,0.306639 0.00234,-0.0028 0.00347,-0.0072 0.00586,-0.0098 0.049508,-0.05328 0.4893144,-0.332803 0.9775335,-0.622067 0.4882139,-0.289258 0.8970869,-0.54197 0.9091744,-0.56152 0.012037,-0.01955 0.00326,-0.140925 -0.020508,-0.269529 -0.0064,-0.03465 -0.016196,-0.143073 -0.024414,-0.203124 z m 14.5214004,2.332994 c -0.07357,0.155195 -0.130009,0.301806 -0.124023,0.336912 0.0068,0.03985 0.301582,0.393988 0.654293,0.787105 0.387711,0.432125 0.587631,0.655946 0.695309,0.793941 0.07483,-0.112563 0.123046,-0.200882 0.123046,-0.237303 0,-0.137675 -0.03274,-0.181025 -0.818355,-1.056635 -0.242198,-0.269944 -0.417396,-0.479958 -0.53027,-0.62402 z m -12.80559,1.51464 c -0.084471,0.157438 -0.17605,0.327551 -0.3681619,0.668942 -0.5384464,0.956854 -0.5693047,1.023956 -0.5341764,1.164055 0.00537,0.02142 0.064432,0.07745 0.1064444,0.123047 0.0776,-0.158229 0.1890179,-0.362895 0.427732,-0.787105 0.262705,-0.466838 0.4888417,-0.878284 0.5029266,-0.915034 0.01277,-0.03332 -0.043335,-0.12738 -0.1347647,-0.253905 z m 9.942326,1.634756 c -0.01908,0.01517 -0.07921,0.05597 -0.08203,0.06055 -0.01052,0.01704 0.07837,0.490265 0.197264,1.051752 0.08335,0.39363 0.115273,0.585866 0.151366,0.790034 0.04081,-0.04894 0.06459,-0.09994 0.06445,-0.163085 -1.2e-4,-0.05813 -0.09692,-0.56546 -0.215819,-1.126946 -0.06923,-0.326921 -0.08011,-0.417795 -0.115233,-0.612302 z"/>
 <path style="opacity:0.2" d="m 15.156268,7.5005173 c 0.166991,0.00283 0.333339,0.016156 0.493314,0.031895 0.759441,0.047361 0.286635,0.6131794 -0.176795,0.7260256 -0.759052,0.2165361 -0.754805,1.0784595 -0.303869,1.6195339 0.412657,0.7006932 1.032649,0.034989 1.514024,-0.1942311 0.717652,-0.1189671 0.0245,0.8781463 -0.203594,1.1225563 -0.341871,0.528631 -0.923721,0.782185 -1.522028,0.690991 -0.751129,-0.107523 -1.279384,0.532462 -1.775189,1.01491 -1.396749,1.302063 -2.818546,2.726774 -4.2236427,4.155265 -0.2065611,0.176811 -0.4321327,0.378446 -0.5911566,0.60467 -0.7719134,0.725079 -1.9230129,-0.431186 -1.0607318,-1.357446 1.7859184,-1.644683 3.6210911,-3.538327 5.2712711,-5.147945 0.270079,-0.264514 0.522261,-0.544206 0.694671,-0.8885538 0.291485,-0.6037288 -0.01934,-1.4102722 0.520991,-1.893635 0.355315,-0.4051467 0.861765,-0.4923224 1.362735,-0.4840359 z"/>
 <path style="fill:#f1f1f1" d="m 15.156268,7.0005213 c 0.166991,0.00283 0.333339,0.016156 0.493314,0.031895 0.759441,0.047361 0.286635,0.6131794 -0.176795,0.7260256 -0.759052,0.2165361 -0.754805,1.0784595 -0.303869,1.6195339 0.412657,0.7006932 1.032649,0.034989 1.514024,-0.1942311 0.717652,-0.1189671 0.0245,0.8781463 -0.203594,1.1225563 -0.341871,0.528631 -0.923721,0.782185 -1.522028,0.690991 -0.751129,-0.107523 -1.279384,0.532462 -1.775189,1.01491 -1.396749,1.302063 -2.818546,2.726774 -4.2236427,4.155265 -0.2065611,0.176811 -0.4321327,0.378446 -0.5911566,0.60467 C 7.5954183,17.497216 6.4443188,16.340951 7.3065999,15.414691 9.0925183,13.770008 10.927691,11.876364 12.577871,10.266746 12.84795,10.002232 13.100132,9.72254 13.272542,9.3781922 13.564027,8.7744634 13.253197,7.96792 13.793533,7.4845572 14.148848,7.0794105 14.655298,6.9922348 15.156268,7.0005213 Z"/>
 <path style="opacity:0.2" d="m 10.713257,7.5145534 c 0.527521,-0.069985 1.091287,0.11428 1.474716,0.5111112 -0.101889,0.2145773 -0.725376,0.1080595 -0.950193,0.4072649 -0.334801,0.2883901 -0.9106,0.9205052 -0.481796,1.3569002 1.667393,1.6300733 3.680653,3.6306933 5.337414,5.2740893 0.302179,0.381592 0.826162,0.634921 0.906602,1.165728 -0.0988,0.528904 -0.561085,0.9071 -0.928209,1.225527 -0.164015,0.08825 -0.388132,0.04107 -0.517031,-0.09659 C 13.357561,15.010232 11.801689,13.037552 9.7913648,10.784343 9.545049,10.571948 9.1226417,10.593716 9.1294746,11.038718 9.4074462,11.522264 8.7039562,11.806099 8.4811839,12.161592 8.2253362,12.351263 8.048775,11.982 7.8609328,11.846989 7.5844339,11.479931 7.01292,11.250622 6.9999999,10.730709 7.3167189,10.414517 7.5792788,9.6388325 8.0583894,9.8393124 8.5339262,9.6198797 8.3351889,8.8187007 8.8408551,8.5447074 9.239924,8.2146552 9.7579629,8.1388285 10.123587,7.7159896 c 0.182346,-0.107744 0.383249,-0.17405 0.58967,-0.2014362 z"/>
 <path style="fill:#8b9cbe" d="m 10.713257,7.0145574 c 0.527521,-0.069985 1.091287,0.11428 1.474716,0.5111112 -0.101889,0.2145773 -0.725376,0.1080595 -0.950193,0.4072649 -0.334801,0.2883901 -0.9106,0.9205052 -0.481796,1.3569002 1.667393,1.6300733 3.680653,3.6306933 5.337414,5.2740893 0.302179,0.381592 0.826162,0.634921 0.906602,1.165728 -0.0988,0.528904 -0.561085,0.9071 -0.928209,1.225527 -0.164015,0.08825 -0.388132,0.04107 -0.517031,-0.09659 C 13.357561,14.510236 11.801689,12.537556 9.7913648,10.284347 9.545049,10.071952 9.1226417,10.09372 9.1294746,10.538722 9.4074462,11.022268 8.7039562,11.306103 8.4811839,11.661596 8.2253362,11.851267 8.048775,11.482004 7.8609328,11.346993 7.5844339,10.979935 7.01292,10.750626 6.9999999,10.230713 7.3167189,9.9145213 7.5792788,9.1388365 8.0583894,9.3393164 8.5339262,9.1198837 8.3351889,8.3187047 8.8408551,8.0447114 9.239924,7.7146592 9.7579629,7.6388325 10.123587,7.2159936 c 0.182346,-0.107744 0.383249,-0.17405 0.58967,-0.2014362 z"/>
</svg>
