<svg xmlns="http://www.w3.org/2000/svg" width="24" height="24" version="1.1">
 <path style="opacity:0.2" d="m 5,2.5 c -0.554,0 -1,0.446 -1,1 v 18 c 0,0.554 0.446,1 1,1 h 14 c 0.554,0 1,-0.446 1,-1 V 8.5 L 14.5,8 14,2.5 Z"/>
 <path style="fill:#4f4f4f" d="M 5,2 C 4.446,2 4,2.446 4,3 V 21 C 4,21.554 4.446,22 5,22 H 19 C 19.554,22 20,21.554 20,21 V 8 L 14.5,7.5 14,2 Z"/>
 <path style="opacity:0.5;fill:#8b9cbe" d="M 6.1992 5 C 6.0884 5 6 5.0884 6 5.1992 L 6 7.8008 C 6 7.9116 6.0884 8 6.1992 8 L 7.8008 8 C 7.9116 8 8 7.9116 8 7.8008 L 8 5.1992 C 8 5.0884 7.9116 5 7.8008 5 L 6.1992 5 z M 9.1992 5 C 9.0884 5 9 5.0884 9 5.1992 L 9 7.8008 C 9 7.9116 9.0884 8 9.1992 8 L 9.8008 8 C 9.9116 8 10 7.9116 10 7.8008 L 10 5.1992 C 10 5.0884 9.9116 5 9.8008 5 L 9.1992 5 z M 11.199 5 C 11.088 5 11 5.0884 11 5.1992 L 11 7.8008 C 11 7.9116 11.088 8 11.199 8 L 11.801 8 C 11.912 8 12 7.9116 12 7.8008 L 12 5.1992 C 12 5.0884 11.912 5 11.801 5 L 11.199 5 z M 13.199 5 C 13.088 5 13 5.0884 13 5.1992 L 13 7.8008 C 13 7.9116 13.088 8 13.199 8 L 14.801 8 C 14.912 8 15 7.9116 15 7.8008 L 15 5.1992 C 15 5.0884 14.912 5 14.801 5 L 13.199 5 z M 7.1992 9 C 7.0884 9 7 9.0884 7 9.1992 L 7 11.801 C 7 11.912 7.0884 12 7.1992 12 L 7.8008 12 C 7.9116 12 8 11.912 8 11.801 L 8 9.1992 C 8 9.0884 7.9116 9 7.8008 9 L 7.1992 9 z M 9.1992 9 C 9.0884 9 9 9.0884 9 9.1992 L 9 11.801 C 9 11.912 9.0884 12 9.1992 12 L 10.801 12 C 10.912 12 11 11.912 11 11.801 L 11 9.1992 C 11 9.0884 10.912 9 10.801 9 L 9.1992 9 z M 12.199 9 C 12.088 9 12 9.0884 12 9.1992 L 12 11.801 C 12 11.912 12.088 12 12.199 12 L 12.801 12 C 12.912 12 13 11.912 13 11.801 L 13 9.1992 C 13 9.0884 12.912 9 12.801 9 L 12.199 9 z M 14.199 9 C 14.088 9 14 9.0884 14 9.1992 L 14 11.801 C 14 11.912 14.088 12 14.199 12 L 14.801 12 C 14.912 12 15 11.912 15 11.801 L 15 9.1992 C 15 9.0884 14.912 9 14.801 9 L 14.199 9 z M 16.199 9 C 16.088 9 16 9.0884 16 9.1992 L 16 11.801 C 16 11.912 16.088 12 16.199 12 L 17.801 12 C 17.912 12 18 11.912 18 11.801 L 18 9.1992 C 18 9.0884 17.912 9 17.801 9 L 16.199 9 z M 6.1992 13 C 6.0884 13 6 13.088 6 13.199 L 6 15.801 C 6 15.912 6.0884 16 6.1992 16 L 7.8008 16 C 7.9116 16 8 15.912 8 15.801 L 8 13.199 C 8 13.088 7.9116 13 7.8008 13 L 6.1992 13 z M 9.1992 13 C 9.0884 13 9 13.088 9 13.199 L 9 15.801 C 9 15.912 9.0884 16 9.1992 16 L 10.801 16 C 10.912 16 11 15.912 11 15.801 L 11 13.199 C 11 13.088 10.912 13 10.801 13 L 9.1992 13 z M 12.199 13 C 12.088 13 12 13.088 12 13.199 L 12 15.801 C 12 15.912 12.088 16 12.199 16 L 12.801 16 C 12.912 16 13 15.912 13 15.801 L 13 13.199 C 13 13.088 12.912 13 12.801 13 L 12.199 13 z M 14.199 13 C 14.088 13 14 13.088 14 13.199 L 14 15.801 C 14 15.912 14.088 16 14.199 16 L 14.801 16 C 14.912 16 15 15.912 15 15.801 L 15 13.199 C 15 13.088 14.912 13 14.801 13 L 14.199 13 z M 16.199 13 C 16.088 13 16 13.088 16 13.199 L 16 15.801 C 16 15.912 16.088 16 16.199 16 L 17.801 16 C 17.912 16 18 15.912 18 15.801 L 18 13.199 C 18 13.088 17.912 13 17.801 13 L 16.199 13 z M 6.1992 17 C 6.0884 17 6 17.088 6 17.199 L 6 19.801 C 6 19.912 6.0884 20 6.1992 20 L 7.8008 20 C 7.9116 20 8 19.912 8 19.801 L 8 17.199 C 8 17.088 7.9116 17 7.8008 17 L 6.1992 17 z M 9.1992 17 C 9.0884 17 9 17.088 9 17.199 L 9 19.801 C 9 19.912 9.0884 20 9.1992 20 L 9.8008 20 C 9.9116 20 10 19.912 10 19.801 L 10 17.199 C 10 17.088 9.9116 17 9.8008 17 L 9.1992 17 z M 11.199 17 C 11.088 17 11 17.088 11 17.199 L 11 19.801 C 11 19.912 11.088 20 11.199 20 L 11.801 20 C 11.912 20 12 19.912 12 19.801 L 12 17.199 C 12 17.088 11.912 17 11.801 17 L 11.199 17 z M 13.199 17 C 13.088 17 13 17.088 13 17.199 L 13 19.801 C 13 19.912 13.088 20 13.199 20 L 14.801 20 C 14.912 20 15 19.912 15 19.801 L 15 17.199 C 15 17.088 14.912 17 14.801 17 L 13.199 17 z M 17.199 17 C 17.088 17 17 17.088 17 17.199 L 17 19.801 C 17 19.912 17.088 20 17.199 20 L 17.801 20 C 17.912 20 18 19.912 18 19.801 L 18 17.199 C 18 17.088 17.912 17 17.801 17 L 17.199 17 z"/>
 <path style="opacity:0.2" d="m 14,2.5 v 5 c 0,0.5525 0.448,1 1,1 h 5 z"/>
 <path style="fill:#696969" d="M 14,2 V 7 C 14,7.5525 14.448,8 15,8 H 20 Z"/>
 <path style="opacity:0.1;fill:#8b9cbe" d="M 5,2 C 4.446,2 4,2.446 4,3 V 3.5 C 4,2.946 4.446,2.5 5,2.5 H 14 V 2 Z"/>
</svg>
