<svg width="24" height="24" version="1.1" xmlns="http://www.w3.org/2000/svg">
 <g transform="translate(1.0002,1)">
  <path d="m0.9998 19v0.5c0 0.554 0.446 1 1 1h18c0.554 0 1-0.446 1-1v-0.5c0 0.554-0.446 1-1 1h-18c-0.554 0-1-0.446-1-1z" style="opacity:.2"/>
  <rect x=".99980003" y="2" width="20" height="18" rx="1" ry="1" style="fill:#3c8db9"/>
  <path d="m1.9998 2c-0.554 0-1 0.446-1 1v0.5c0-0.554 0.446-1 1-1h18c0.554 0 1 0.446 1 1v-0.5c0-0.554-0.446-1-1-1z" style="fill:#8b9cbe;opacity:.2"/>
  <path d="m3 4.5v1l3 2v1l-3 2v1h1l4-3v-1l-4-3zm7 6v1h6v-1z" style="opacity:.2"/>
  <path d="m3 4v1l3 2v1l-3 2v1h1l4-3v-1l-4-3zm7 6v1h6v-1z" style="fill:#8b9cbe"/>
 </g>
</svg>
