<svg xmlns="http://www.w3.org/2000/svg" width="24" height="24" version="1.1">
 <circle style="opacity:0.2" cx="12.5" cy="12" r="10.5"/>
 <circle style="fill:#1793d1" cx="12.5" cy="11.5" r="10.5"/>
 <path style="opacity:0.2" d="m 12.50046,3.5 c -0.623667,1.527885 -0.999855,2.528625 -1.693919,4.011075 0.42597,0.45098 0.947938,0.973575 1.795608,1.56671 C 11.690477,8.702605 11.06966,8.328635 10.604579,7.937735 9.7163775,9.79067 8.323269,12.42753 5.5,17.5 7.7188025,16.219295 9.489628,15.430675 11.092524,15.12917 11.023544,14.833345 10.98514,14.511925 10.987986,14.177705 l 0.002,-0.06898 c 0.03485,-1.421505 0.725247,-2.682685 1.601362,-2.60873 0.876116,0.07395 1.45741,1.456025 1.421854,2.877525 -0.0064,0.26738 -0.03625,0.52409 -0.08889,0.76231 1.585115,0.310755 3.388249,1.09724 5.575691,2.360165 -0.431655,-0.794305 -0.818514,-1.50897 -1.186172,-2.19092 -0.57957,-0.44942 -1.182611,-1.03395 -2.415714,-1.66684 0.846959,0.220445 1.455686,0.4736 1.928592,0.758045 C 14.086151,7.43584 13.782495,6.510545 12.500325,3.500425 Z"/>
 <path style="fill:#8b9cbe" d="m 12.50046,3 c -0.623667,1.527885 -0.999855,2.528625 -1.693919,4.011075 0.42597,0.45098 0.947938,0.973575 1.795608,1.56671 C 11.690477,8.202605 11.06966,7.828635 10.604579,7.437735 9.7163775,9.29067 8.323269,11.92753 5.5,17 7.7188025,15.719295 9.489628,14.930675 11.092524,14.62917 11.023544,14.333345 10.98514,14.011925 10.987986,13.677705 l 0.002,-0.06898 c 0.03485,-1.421505 0.725247,-2.682685 1.601362,-2.60873 0.876116,0.07395 1.45741,1.456025 1.421854,2.877525 -0.0064,0.26738 -0.03625,0.52409 -0.08889,0.76231 1.585115,0.310755 3.388249,1.09724 5.575691,2.360165 -0.431655,-0.794305 -0.818514,-1.50897 -1.186172,-2.19092 -0.57957,-0.44942 -1.182611,-1.03395 -2.415714,-1.66684 0.846959,0.220445 1.455686,0.4736 1.928592,0.758045 C 14.086151,6.93584 13.782495,6.010545 12.500325,3.000425 Z"/>
 <path style="fill:#8b9cbe;opacity:0.2" d="M 12.5 1 A 10.5 10.5 0 0 0 2 11.5 A 10.5 10.5 0 0 0 2.0097656 11.796875 A 10.5 10.5 0 0 1 12.5 1.5 A 10.5 10.5 0 0 1 22.990234 11.703125 A 10.5 10.5 0 0 0 23 11.5 A 10.5 10.5 0 0 0 12.5 1 z"/>
</svg>
