<svg xmlns="http://www.w3.org/2000/svg" width="24" height="24" version="1.1">
 <rect style="fill:#de554c" width="20" height="20" x="2" y="2" rx="1" ry="1"/>
 <path style="opacity:0.2;fill:#8b9cbe" d="M 3,2 C 2.446,2 2,2.446 2,3 v 0.5 c 0,-0.554 0.446,-1 1,-1 h 18 c 0.554,0 1,0.446 1,1 V 3 C 22,2.446 21.554,2 21,2 Z"/>
 <path style="opacity:0.2" d="m 3,22.5 c -0.554,0 -1,-0.446 -1,-1 V 21 c 0,0.554 0.446,1 1,1 h 18 c 0.554,0 1,-0.446 1,-1 v 0.5 c 0,0.554 -0.446,1 -1,1 z"/>
 <path style="fill:none;stroke:#17191e" d="M 18,8 6,16 m 0,-8 12,8"/>
 <path style="opacity:0.2" d="m 6,6.5 a 2,2 0 0 0 -2,2 2,2 0 0 0 2,2 2,2 0 0 0 2,-2 2,2 0 0 0 -2,-2 z m 12,0 a 2,2 0 0 0 -2,2 2,2 0 0 0 2,2 2,2 0 0 0 2,-2 2,2 0 0 0 -2,-2 z m -6,3 a 3,3 0 0 0 -3,3 3,3 0 0 0 3,3 3,3 0 0 0 3,-3 3,3 0 0 0 -3,-3 z m -6,5 a 2,2 0 0 0 -2,2 2,2 0 0 0 2,2 2,2 0 0 0 2,-2 2,2 0 0 0 -2,-2 z m 12,0 a 2,2 0 0 0 -2,2 2,2 0 0 0 2,2 2,2 0 0 0 2,-2 2,2 0 0 0 -2,-2 z"/>
 <path style="fill:#ffaa4f" d="M 6 6 A 2 2 0 0 0 4 8 A 2 2 0 0 0 6 10 A 2 2 0 0 0 8 8 A 2 2 0 0 0 6 6 z M 18 6 A 2 2 0 0 0 16 8 A 2 2 0 0 0 18 10 A 2 2 0 0 0 20 8 A 2 2 0 0 0 18 6 z M 12 9 A 3 3 0 0 0 9 12 A 3 3 0 0 0 12 15 A 3 3 0 0 0 15 12 A 3 3 0 0 0 12 9 z M 6 14 A 2 2 0 0 0 4 16 A 2 2 0 0 0 6 18 A 2 2 0 0 0 8 16 A 2 2 0 0 0 6 14 z M 18 14 A 2 2 0 0 0 16 16 A 2 2 0 0 0 18 18 A 2 2 0 0 0 20 16 A 2 2 0 0 0 18 14 z"/>
</svg>
