<svg xmlns="http://www.w3.org/2000/svg" width="24" height="24" version="1">
 <path style="opacity:0.2" d="M 16.806295,1.5000306 C 16.594451,1.4972572 15.849016,1.9573951 15.573908,2.369146 14.946773,3.3077765 14.361776,4.3336414 13.720447,5.6268637 13.087629,6.9029241 13.025979,6.8685041 13.099371,9.501751 12.6869,9.5415864 12.313428,9.6318781 11.972451,9.7615092 L 11.95292,9.7302601 C 10.805379,8.0242921 8.9242611,5.9625641 6.6269033,4.6542358 6.4288097,4.5414249 6.2854775,4.4935535 6.1855099,4.4999434 5.4857372,4.5446718 6.9603797,7.584622 7.394459,8.2556936 c 0.3937291,0.6086528 1.3703247,1.71707 2.1522812,2.5565664 0.1004298,0.107814 0.3093412,0.342094 0.5136568,0.570295 -0.061929,0.101387 -0.1246322,0.203237 -0.1796821,0.310538 -0.095736,0.299678 -0.1464801,0.632293 -0.1464801,0.996065 0,1.258264 0.3887362,2.229327 0.2773362,3.507711 -0.1509642,1.732583 -1.4381384,2.779549 -0.8671629,4.345576 0.011845,0.0383 0.0154,0.07231 0.029296,0.11132 0.1178859,0.331061 0.3539472,0.674037 0.6835739,1.05661 0.053374,0.06195 0.1167266,0.116834 0.181635,0.169916 0.259014,0.216256 0.6003,0.365973 0.994112,0.462878 0.26932,0.06627 0.561868,0.110714 0.863255,0.136715 0.102611,0.0089 0.206169,0.01436 0.310539,0.01953 l 0.08789,-0.01172 c 1.05769,0.04178 2.166328,-0.07802 2.81437,-0.113279 0.154795,-0.0084 0.309918,-0.02573 0.46483,-0.05077 0.478534,-0.07741 0.951329,-0.232335 1.38668,-0.449206 h 0.0039 c 0.02106,-0.01076 0.03966,-0.02409 0.06055,-0.03515 0.165877,-0.0858 0.328255,-0.178009 0.480454,-0.281242 0.487118,-0.330349 0.894126,-0.745493 1.160124,-1.218714 0.226997,-0.403827 0.349474,-0.850919 0.332021,-1.322228 -0.0058,-0.488091 -0.153651,-1.002456 -0.490221,-1.5273 C 17.410871,15.77997 16.221607,13.679926 16.159814,11.39428 16.126604,11.061288 16.009969,10.770979 15.829746,10.523212 15.666376,10.32068 15.457342,10.158966 15.226247,10.023226 15.286767,9.9103785 15.3479,9.7451333 15.403977,9.6326127 16.3452,7.7434895 16.69001,4.8677285 16.958634,2.5859366 17.053043,1.7840207 16.971061,1.50219 16.806295,1.5000306 Z"/>
 <circle style="fill:#ff4e4e" cx="16.5" cy="21.5" r="1.5"/>
 <path style="fill:#895c33" d="m 16.80629,1.0000002 c -2.155304,1.5175967 -3.814437,4.7893685 -3.819524,6.7093108 5.58e-4,0.3553722 0.01053,0.7905961 0.026,1.3404709 0.476518,0.026418 1.757918,0.2772613 2.20275,0.4999866 0.06489,-0.1118933 0.128508,-0.2958838 0.188471,-0.4162026 0.941209,-1.8891172 1.287,-4.7658659 1.555625,-7.0476578 0.09441,-0.8019158 0.01145,-1.0837486 -0.15332,-1.0859079 z M 6.1854848,4.0004053 c -0.6997727,0.044728 0.7748722,3.0841501 1.2089515,3.7552217 0.393729,0.6086528 1.3713053,1.7180512 2.1532619,2.557547 0.1675602,0.17988 0.7152798,0.802245 0.8571028,0.949708 0,0 -0.306844,0.159034 -0.2472,0.105076 0.337225,-0.305079 1.433431,-1.8892601 1.851708,-2.050384 L 11.953879,9.230246 C 10.806338,7.5242784 8.9252134,5.4620499 6.6278555,4.1537217 6.4297619,4.0409107 6.2854524,3.9940153 6.1854848,4.0004053 Z"/>
 <path style="opacity:0.1;fill:#8b9cbe" d="m 16.806295,1.0000413 c -2.155304,1.5175968 -3.815115,4.788847 -3.820202,6.7087893 1.73e-4,0.1101773 0.0059,0.2894383 0.0078,0.4160035 0.04885,-1.9294681 1.68617,-5.1276904 3.812389,-6.6248073 0.08718,0.00114 0.148553,0.087929 0.175776,0.2812418 0.03686,-0.5536051 -0.03571,-0.7793918 -0.175763,-0.7812273 z M 6.1855099,3.9999541 C 5.9944657,4.0121653 5.9733113,4.2578642 6.0409828,4.6073583 6.0705623,4.5466376 6.1144289,4.5044829 6.1855099,4.4999396 6.285477,4.4935497 6.4288097,4.5414214 6.6269033,4.654232 8.819786,5.9030624 10.614822,7.8309511 11.773239,9.4880757 11.863276,9.4071121 11.945878,9.3426891 12.00956,9.3181588 L 11.95292,9.2302708 C 10.805379,7.5243028 8.9242612,5.4625748 6.6269033,4.1542465 6.4288097,4.0414355 6.2854775,3.9935642 6.1855099,3.9999541 Z"/>
 <path style="fill:#c37e3f" d="m 13.111097,8.9997833 c -1.57384,0.1481067 -2.614642,0.9934803 -3.2301969,2.1932997 -0.095736,0.299679 -0.1475375,0.632294 -0.1475375,0.996067 0,1.258263 0.3888884,2.230311 0.2774884,3.508694 -0.1509638,1.732583 -1.4366608,2.778582 -0.8656852,4.344609 0.011845,0.0383 0.015419,0.07329 0.029315,0.112301 0.1178859,0.331061 0.3523684,0.67404 0.681995,1.056613 0.053374,0.06195 0.1168264,0.115858 0.1817352,0.16894 0.259014,0.216255 0.600847,0.365974 0.994659,0.462878 0.26932,0.06627 0.561366,0.10974 0.862753,0.135739 0.10261,0.0089 0.20634,0.01533 0.310709,0.02051 l 0.08891,-0.01172 c 1.057692,0.04178 2.165923,-0.07802 2.813966,-0.113278 0.154794,-0.0084 0.310173,-0.02573 0.465086,-0.05077 0.478533,-0.07741 0.951113,-0.232338 1.386463,-0.449207 h 0.0029 c 0.02106,-0.01076 0.03969,-0.02507 0.06058,-0.03613 0.165876,-0.0858 0.32852,-0.177032 0.48072,-0.280266 0.487118,-0.330348 0.894761,-0.745496 1.160759,-1.218717 0.226998,-0.403827 0.349658,-0.849944 0.332205,-1.321254 -0.0058,-0.48809 -0.15392,-1.003436 -0.49049,-1.528278 -1.09653,-1.709836 -2.286106,-3.808926 -2.347899,-6.094572 -0.03321,-0.332993 -0.150026,-0.623303 -0.330249,-0.87107 -0.61904,-0.7674528 -1.854821,-1.0203098 -2.718202,-1.0243938 z"/>
 <path style="opacity:0.2;fill:#8b9cbe" d="m 13.11109,8.9998087 c -1.573841,0.1481067 -2.61482,0.9934758 -3.2303751,2.1932953 -0.095736,0.299678 -0.1464801,0.632293 -0.1464801,0.996065 0,0.09165 0.013796,0.172873 0.017577,0.261711 0.017948,-0.269591 0.055043,-0.52659 0.1289025,-0.757791 C 10.49627,10.49327 11.537249,9.6479009 13.11109,9.4997942 c 0.86338,0.00408 2.09962,0.2559623 2.718671,1.0234078 0.180223,0.247767 0.29686,0.538076 0.330068,0.871068 0.0618,2.285647 1.251058,4.385691 2.347588,6.095526 0.302309,0.471417 0.446823,0.933689 0.478502,1.376914 0.01259,-0.114412 0.01608,-0.231772 0.01172,-0.3496 -0.0058,-0.488091 -0.15365,-1.002457 -0.49022,-1.5273 -1.09653,-1.709835 -2.285795,-3.809879 -2.347588,-6.095525 -0.03321,-0.332993 -0.149845,-0.623301 -0.330068,-0.871068 C 15.21071,9.2557711 13.97447,9.0038927 13.11109,8.9998087 Z M 10.011571,15.27697 c -9.03e-4,0.14021 0.01285,0.272457 0,0.41991 -0.1328179,1.524322 -1.141781,2.519489 -0.9941123,3.802623 0.1085851,-1.057481 0.8790161,-1.981706 0.9941123,-3.302638 0.02817,-0.323296 0.02144,-0.626198 0,-0.919895 z"/>
 <path style="fill:#8e8e8e" d="m 15.397275,16.001756 c 0.568988,0 1.095036,-0.01122 1.487922,0.116611 0.424037,0.137936 0.692857,0.437876 0.692857,1.088739 0,0.595233 -0.992246,1.468237 -1.287301,2.284343 0.09927,0.701113 0.340809,1.395327 0.673222,1.930601 0.188284,-0.08678 0.369424,-0.184313 0.540686,-0.291599 0.486852,-0.304935 0.894103,-0.688304 1.159957,-1.125122 0.448475,-0.736864 0.49462,-1.625807 -0.158147,-2.546737 -1.582092,-2.876625 -7.823945,-0.818398 -9.0103683,0.397945 -0.061236,0.386537 -0.7859229,1.225559 -0.317531,2.440426 0.1178215,0.305594 0.352168,0.621659 0.6816147,0.974801 0.2662826,0.285406 0.6838406,0.465427 1.1760406,0.575 0.269172,0.05992 0.560634,0.09877 0.861857,0.122276 0.102554,0.008 0.206202,0.01421 0.310513,0.0189 -6.72e-4,-0.449239 0.03401,-0.896826 0.02361,-1.324249 -8.97e-4,-0.03717 -0.0021,-0.07417 -0.0038,-0.111017 -0.10353,-0.980995 -2.036179,-1.169459 -2.036179,-2.548178 0,-0.285901 0.101383,-0.532214 0.277643,-0.744183 0.875989,-1.053375 3.601552,-1.258554 4.927422,-1.258554 v 0 z"/>
 <path style="opacity:0.2" d="m 14.634026,12.529048 c -0.242313,0.07973 -0.633873,1.309515 -0.634298,1.711732 -5.82e-4,0.525516 0.141919,0.727038 0.41414,0.965911 0.272219,0.238874 1.582277,0.531155 1.585451,-0.02851 0.0031,-0.551124 -0.01421,-1.019174 -0.07766,-1.329017 -0.06345,-0.309844 -0.192638,-0.896953 -0.453013,-1.149763 -0.163613,-0.15886 -0.592316,-0.250084 -0.834628,-0.170352 z"/>
 <path style="fill:#8b9cbe" d="m 14.634026,12.029063 c -0.242313,0.07973 -0.633873,1.309514 -0.634298,1.711732 -5.82e-4,0.525516 0.141919,0.727037 0.41414,0.965911 0.272219,0.238874 1.582277,0.531154 1.585451,-0.02851 0.0031,-0.551124 -0.01421,-1.019175 -0.07766,-1.329018 -0.06345,-0.309843 -0.192638,-0.896952 -0.453013,-1.149762 -0.163613,-0.15886 -0.592316,-0.250085 -0.834628,-0.170353 z"/>
 <circle style="fill:#17191e" cx="14.5" cy="14.499" r=".5"/>
 <path style="opacity:0.2" d="m 12.981997,14.344733 c -0.04721,-0.370591 -0.510357,-0.99751 -0.803152,-1.196357 -0.739494,-0.502229 -1.235617,0.370115 -1.173836,1.095613 0.04589,0.53918 0.320791,2.026074 0.951425,1.712678 0.630634,-0.313397 1.146777,-0.660842 1.025563,-1.611934 z"/>
 <path style="fill:#8b9cbe" d="m 12.981997,13.844748 c -0.04721,-0.370591 -0.510357,-0.997511 -0.803152,-1.196357 -0.739494,-0.502229 -1.235617,0.370114 -1.173836,1.095612 0.04589,0.539181 0.320791,2.026074 0.951425,1.712679 0.630634,-0.313397 1.146777,-0.660842 1.025563,-1.611934 z"/>
 <circle style="fill:#17191e" cx="12.5" cy="14.499" r=".5"/>
 <path style="fill:#b2bfd9" d="m 15.397275,16.001756 c -1.325869,0 -4.051432,0.20518 -4.927422,1.258554 0.589407,0.708784 0.852746,1.361794 1.271319,2.116427 0.198941,0.358703 0.268743,0.756638 0.287441,1.175934 0.0038,0.03593 0.005,0.07287 0.0038,0.111017 0.01042,0.427423 -0.02433,0.87501 -0.02361,1.32425 1.083361,0.04857 2.435091,-0.07038 3.100896,-0.103846 0.15471,-0.0077 0.310045,-0.02346 0.464873,-0.04659 0.479277,-0.07161 0.953519,-0.214609 1.389385,-0.415459 -0.332414,-0.535274 -0.573945,-1.22949 -0.673221,-1.930602 -0.03271,-0.230936 -0.04997,-0.462576 -0.04997,-0.689572 0,-0.710366 0.285372,-1.958223 0.644412,-2.683544 -0.392885,-0.127802 -0.918932,-0.116577 -1.48792,-0.116577 v 0 z"/>
 <path style="fill:#17191e" d="m 11.741077,19.376737 c -0.418573,-0.754633 -0.681817,-1.407643 -1.271224,-2.116427 -0.176259,0.21197 -0.277642,0.458282 -0.277642,0.744182 0,1.37872 1.732777,1.567183 1.836307,2.548179 -0.01869,-0.419296 -0.0885,-0.817231 -0.287441,-1.175934 z"/>
 <path style="fill:#17191e" d="m 16.885197,16.118334 c -0.35904,0.725321 -0.644413,1.973178 -0.644413,2.683543 0,0.226996 0.01726,0.458636 0.04997,0.689572 0.295054,-0.816106 1.287301,-1.68911 1.287301,-2.284343 0,-0.650863 -0.268821,-0.950803 -0.692858,-1.088772 z"/>
 <path style="opacity:0.2;fill:#8b9cbe" d="m 15.398133,16.001558 c -1.325869,0 -4.051602,0.204402 -4.927592,1.257777 0.08535,0.102633 0.151469,0.203906 0.224603,0.304678 1.038272,-0.875207 3.468256,-1.062469 4.702989,-1.062469 0.489508,0 0.928342,0.0088 1.296836,0.08789 0.06095,-0.166495 0.121863,-0.334155 0.189449,-0.470689 -0.392886,-0.127803 -0.917297,-0.117185 -1.486285,-0.117184 z m 0.861303,3.064364 c -0.005,0.07693 -0.01953,0.168318 -0.01953,0.236321 0,0.226996 0.01807,0.458498 0.05078,0.689434 0.07526,0.531503 0.23282,1.058245 0.449205,1.51558 0.07405,-0.03 0.152507,-0.05271 0.224604,-0.08594 -0.332415,-0.535274 -0.574534,-1.228518 -0.673809,-1.92963 -0.0202,-0.142616 -0.02326,-0.283877 -0.03125,-0.42577 z m -4.232299,1.964787 c -0.0061,0.315962 -0.0181,0.632327 -0.01758,0.957003 0.0031,1.39e-4 0.0067,-1.36e-4 0.0098,0 0.0091,-0.27719 0.02016,-0.558163 0.01367,-0.824195 0.0012,-0.03815 -9.6e-5,-0.0754 -0.0039,-0.111325 -3.28e-4,-0.0074 -0.0016,-0.01414 -0.002,-0.02148 z"/>
</svg>
