<svg xmlns="http://www.w3.org/2000/svg" height="24" width="24" version="1.1">
 <g transform="translate(1,1)">
  <path d="m1 12.5s0.4107443-2.7878169 1-4c1-2 2.0140703-2.9763929 4-5 0.9905593-1.0093524 3-0.9999999 6-0.9999999 4 0 5 0.9999999 5 0.9999999l3 3c1.25 1.2857143 1 3.2329548 1 5 0 2.571429-5 9-10 9-2.4855437-0.03309-3.4550544-1.476778-5-3-1.25-1.285714-2.7320171-0.732017-4-2-1-1-1-3-1-3z" style="opacity:.2"/>
  <path d="m1 12s0.4107443-2.7878169 1-4c1-2 2.0140703-2.9763929 4-5 0.9905593-1.0093524 3-0.9999999 6-0.9999999 4 0 5 0.9999999 5 0.9999999l3 3c1.25 1.2857143 1 3.2329548 1 5 0 2.571429-5 9-10 9-2.4855437-0.033087-3.4550544-1.476778-5-3-1.25-1.285714-2.7320171-0.732017-4-2-1-1-1-3-1-3z" style="fill:#929691"/>
  <circle cx="6" cy="7.5" r="1" style="opacity:.1"/>
  <path style="fill:#c56b3c" d="m10 10c-3.8599964 0-6.8729547 2.470791-8.5449219 4.242188 0.1406726 0.258113 0.309611 0.515778 0.5449219 0.757812 1.25 1.285714 2.75 0.714286 4 2 1.5449456 1.523222 2.5144563 2.96691 5 3 3.494894 0 6.984096-3.139153 8.771484-5.908203-2.286288-1.756758-6.028153-4.091797-9.771484-4.091797z"/>
  <circle cx="12" cy="5.5" r="2" style="opacity:.1"/>
  <circle cx="6" cy="7" r="1" style="fill:#6e7175"/>
  <circle cx="8" cy="14.5" r="2" style="opacity:.1"/>
  <circle cx="12" cy="5" r="2" style="fill:#6e7175"/>
  <circle cx="14.5" cy="15" r="2.5" style="opacity:.1"/>
  <circle cx="8" cy="14" r="2" style="fill:#b75019"/>
  <circle cx="17.5" cy="9" r="1.5" style="opacity:.1"/>
  <circle cx="14.5" cy="14.5" r="2.5" style="fill:#b75019"/>
  <circle cx="17.5" cy="8.5" r="1.5" style="fill:#6e7175"/>
  <path style="opacity:.2;fill:#8b9cbe" d="m12 2c-3 0-5.0094407-0.0093524-6 1-1.9859297 2.0236071-3 3-4 5-0.5892557 1.2121831-1 4-1 4s0.00282 0.151461 0.021484 0.376953c0.0310263-0.206345 0.4127008-2.7129904 0.978516-3.876953 1-2 2.0140703-2.9763929 4-5 0.9905593-1.0093524 3-1 6-1 4 0 5 1 5 1l3 3c0.905009 0.9308669 1.017071 2.2106775 1.013672 3.515625 0.026893-1.4747538 0.007738-2.9650319-1.013672-4.015625l-3-3s-1-1-5-1z"/>
 </g>
</svg>
