<svg xmlns="http://www.w3.org/2000/svg" width="24" height="24" version="1">
 <g style="opacity:0.2" transform="matrix(0.49999998,0,0,0.49999998,1.8126399e-4,0.49991099)">
  <g transform="matrix(0.090632,0,0,0.098526,4,2.2582)">
   <g>
    <path transform="matrix(11.033631,0,0,10.149605,-44.138522,-22.918024)" d="M 15.541016,4 C 9.1675921,4 4,9.879821 4,17.132812 c 0,1.948746 0.3021966,3.824426 0.8320312,5.615235 0,0 0.4806422,1.614413 0.90625,2.503906 C 10.602591,36.624809 24,44 24,44 c 0,0 13.397409,-7.375191 18.261719,-18.748047 0.425608,-0.889493 0.90625,-2.503906 0.90625,-2.503906 C 43.697803,20.957238 44,19.081558 44,17.132812 44,9.879821 38.832408,4 32.458984,4 29.116476,4 26.1081,5.4157615 24,8 21.8919,5.4157615 18.883524,4 15.541016,4 Z"/>
   </g>
  </g>
 </g>
 <path style="fill:#ffbd4a" d="m 7.7705077,1.9999999 c -3.1867118,0 -5.7705078,2.9399104 -5.7705078,6.5664058 0,0.9743729 0.1510983,1.9122133 0.4160156,2.8076173 0,0 0.2403211,0.807207 0.453125,1.251953 C 5.3012953,18.312404 12,21.999999 12,21.999999 c 0,0 6.698704,-3.687595 9.130859,-9.374023 0.212804,-0.444746 0.453125,-1.251953 0.453125,-1.251953 0.264917,-0.895404 0.416015,-1.8332444 0.416015,-2.8076173 0,-3.6264954 -2.583796,-6.5664058 -5.770508,-6.5664058 -1.671254,0 -3.175442,0.7078807 -4.229491,1.9999999 C 10.94595,2.7078806 9.4417616,1.9999999 7.7705077,1.9999999 Z"/>
 <path style="opacity:0.1" d="m 19.779467,9.5015046 c 0.162645,-0.00907 0.305582,0.02314 0.449954,0.088774 0.704396,0.3293155 0.876316,1.3460374 0.714061,1.9409244 -0.335344,1.128049 -1.300692,3.007685 -2.593122,4.336084 -0.570222,0.56411 -1.316367,1.273242 -2.124613,1.108483 -0.637624,-0.196984 -0.993613,-0.349356 -1.169687,-0.720688 -0.281657,-0.963274 0.564682,-1.355879 1.055703,-1.859648 1.076524,-1.119666 2.201564,-2.816071 2.743793,-3.951359 0.298918,-0.5789839 0.354209,-0.8032749 0.923911,-0.9425704 z"/>
 <path style="fill:#ee6d51" d="m 19.779467,9.0015046 c 0.162645,-0.00907 0.305582,0.02314 0.449954,0.088774 0.704396,0.3293155 0.876316,1.3460374 0.714061,1.9409244 -0.335344,1.12805 -1.300692,3.007685 -2.593122,4.336084 -0.570222,0.56411 -1.316367,1.273242 -2.124613,1.108483 -0.637624,-0.196984 -0.993613,-0.349356 -1.169687,-0.720688 -0.281657,-0.963274 0.564682,-1.355879 1.055703,-1.859648 1.076524,-1.119666 2.201564,-2.816071 2.743793,-3.9513599 0.298918,-0.578983 0.354209,-0.803274 0.923911,-0.9425695 z"/>
 <path style="opacity:0.1" d="m 16.20996,10.013672 c -0.280102,0.03657 -0.553224,0.195683 -0.78125,0.533203 -0.147186,0.215906 -0.274425,0.475658 -0.365234,0.762695 -0.114381,0.486406 -0.106272,0.683522 0.291992,1.119141 0.179158,0.175661 0.356588,0.347976 0.532227,0.516601 1.238434,1.188971 2.38975,2.203138 3.504882,3.145508 0.536165,-0.718335 1.02264,-1.487587 1.427735,-2.300782 -0.54304,-0.454838 -1.087143,-0.90799 -1.608399,-1.395507 -0.591621,-0.555277 -1.141781,-1.19347 -1.71289,-1.80957 -0.334722,-0.353746 -0.822225,-0.6322409 -1.289063,-0.571289 z"/>
 <path style="fill:#ff7d5f" d="m 16.20996,9.5136716 c -0.280102,0.03657 -0.553224,0.1956835 -0.78125,0.5332034 -0.147186,0.215906 -0.274425,0.475658 -0.365234,0.762695 -0.114381,0.486406 -0.106272,0.683522 0.291992,1.119141 0.179158,0.175661 0.356588,0.347977 0.532227,0.516601 1.238434,1.188971 2.38975,2.203138 3.504882,3.145508 0.536165,-0.718335 1.02264,-1.487587 1.427735,-2.300782 -0.54304,-0.454838 -1.087143,-0.90799 -1.608399,-1.395507 -0.591621,-0.555277 -1.141781,-1.19347 -1.71289,-1.80957 C 17.164301,9.7312146 16.676798,9.4527201 16.20996,9.5136716 Z"/>
 <g style="opacity:0.2;fill:#8b9cbe" transform="matrix(0.49999998,0,0,0.49999998,1.8126399e-4,-8.9367496e-5)">
  <g style="fill:#8b9cbe" transform="matrix(0.090632,0,0,0.098526,4,2.2582)">
   <g style="fill:#8b9cbe">
    <path style="fill:#8b9cbe" transform="matrix(11.033631,0,0,10.149605,-44.138522,-22.918024)" d="M 15.541016,4 C 9.1675914,4 4,9.8798216 4,17.132812 4,17.316258 4.016191,17.495593 4.021484,17.677734 4.2341949,10.63747 9.3027031,5 15.541016,5 18.883524,5 21.8919,6.4157615 24,9 26.1081,6.4157615 29.116476,5 32.458984,5 38.697297,5 43.765805,10.63747 43.978516,17.677734 43.983809,17.495593 44,17.316258 44,17.132812 44,9.8798216 38.832409,4 32.458984,4 29.116476,4 26.1081,5.4157615 24,8 21.8919,5.4157615 18.883524,4 15.541016,4 Z"/>
   </g>
  </g>
 </g>
</svg>
