<svg xmlns="http://www.w3.org/2000/svg" width="24" height="24" version="1.1">
 <circle style="opacity:0.2" cx="12" cy="12.5" r="10"/>
 <circle style="fill:#b2bfd9" cx="12" cy="12" r="10"/>
 <path style="opacity:0.1" d="m 11.297852,5.5029295 c -1.021512,0.03382 -2.1747375,0.351617 -3.2949225,1.163086 -1.1629635,0.8424605 -1.672208,1.0725105 -2.236328,1.352539 0.494609,0.03774 3.408899,-0.3713885 4.008789,1.2988285 -2.1091915,0.698776 -2.951401,1.827585 -2.7089845,3.142578 5.8e-5,3.13e-4 -5.75e-5,6.5e-4 0,10e-4 0.00988,0.06255 0.02286,0.125474 0.038085,0.189453 3.77e-4,0.0016 6e-4,0.0033 10e-4,0.0049 0.00305,0.01164 0.00557,0.02348 0.00879,0.03515 0.04662,0.183371 0.1095735,0.370798 0.202148,0.56543 0.1353805,0.284626 0.291974,0.524607 0.462891,0.737304 0.0016,0.002 0.0033,0.0038 0.0049,0.0059 0.987954,1.223881 2.526975,1.425379 4.19336,2.540039 C 13.506036,17.561487 14.013723,18.082781 15,19.5 14.794904,17.541847 13.714473,15.018192 13.271485,13.90625 l -0.002,-0.0059 c 1.385826,1.017738 3.027941,1.461121 4.963868,1.59961 -0.773471,-0.55059 -1.390426,-0.996649 -1.908203,-1.378907 -1.553332,-1.146773 -2.21479,-1.723338 -3.542969,-2.855468 -1.188086,0.05989 -1.058177,0.04967 -1.758789,0.08984 0.92235,1.301563 1.286907,3.212658 -0.399414,3.563477 C 9.0454885,15.247285 7.3230945,13.885083 7.755814,12.425737 8.225699,10.84106 10.454194,11.145938 12.581985,10.87105 14.709777,10.596162 16.653838,8.509378 17.823196,6.9648005 16.27008,7.494778 14.327316,7.984234 12.15723,8.601562 11.979357,8.652162 11.787276,8.7132155 11.606449,8.7656245 11.561849,8.6747755 11.516221,8.58322 11.474613,8.481445 11.080176,7.5166535 10.962321,6.1490285 13.803714,6.041015 13.685581,5.975761 13.555463,5.919771 13.420902,5.86914 12.85399,5.6374355 12.123543,5.4755935 11.297855,5.502929 Z"/>
 <path style="opacity:0.2;fill:#8b9cbe" d="M 12,2 A 10,10 0 0 0 2,12 10,10 0 0 0 2.01075,12.291 10,10 0 0 1 12,2.5 10,10 0 0 1 21.9895,12.209 10,10 0 0 0 22,12 10,10 0 0 0 12,2 Z"/>
 <path style="fill:#3aaaff" d="M 9.807874,8.895063 C 9.275794,7.12864 6.268928,7.557272 5.76632,7.5189235 6.33044,7.238895 6.8370365,7.3424605 8,6.5 c 2.24037,-1.6229381 3.812188,-1.6445089 5,-1 -3.2473065,0.123444 -1.825324,1.933698 -1.347026,2.865867 -0.608255,0.176679 -1.568431,0.4433885 -1.8451,0.529196 z"/>
 <path style="fill:#008bff" d="m 17.823569,6.464385 c -1.169358,1.544578 -3.113536,3.63141 -5.241328,3.906299 -2.127791,0.274888 -4.356264,-0.02964 -4.826149,1.555043 -0.4327195,1.459345 1.28917,2.821864 2.867659,2.49348 1.686322,-0.350819 1.322135,-2.262142 0.399785,-3.563705 C 11.724149,10.815326 11.311915,11.059886 12.5,11 l 0.771705,2.406242 C 13.714693,14.518183 14.794904,17.041847 15,19 14.013723,17.582781 13.506444,17.061956 11.977947,16.039531 10.020042,14.729871 8.234396,14.685534 7.316631,12.756004 6.400848,10.830642 7.812979,9.4437305 9.9820535,8.8431005 13.08182,7.9847545 15.752682,7.170965 17.823569,6.464385 Z"/>
 <path style="fill:#3aaaff" d="m 11.023536,10.855502 c 0.700613,-0.04017 0.570287,-0.02977 1.758373,-0.08966 1.770906,1.509506 2.357891,2.0318 5.451771,4.234158 -3.109765,-0.222461 -5.462698,-1.231537 -7.210144,-4.144498 z"/>
 <path style="fill:#00ccff" d="M 5.76632,7.5189235 C 6.33044,7.238895 6.8402425,7.0080705 8.003206,6.16561 10.243576,4.5426719 12.615534,4.8966121 13.803346,5.541121 10.55604,5.664565 10.974446,6.311586 10.962462,6.8188115 8.804943,6.364034 8.1749935,6.982801 5.76632,7.5189235 Z"/>
 <path style="fill:#008bff" d="M 13.803346,5.541121 C 10.556039,5.664565 11.174676,7.433698 11.652974,8.365867 11.274032,8.475937 11.113068,8.601332 10.6065,8.7353985 8.562551,5.0934275 12.135121,4.6196294 13.803346,5.541121 Z"/>
 <path style="fill:#00ccff" d="M 7.901369,13.663301 C 6.312315,11.617198 6.8056835,9.741766 9.9172815,8.767354 12.987913,7.805769 15.752682,7.170965 17.823569,6.464385 12.235007,8.5937485 5.0370665,10.01658 7.901369,13.663301 Z"/>
</svg>
