<svg xmlns="http://www.w3.org/2000/svg" width="24" height="24" version="1">
 <rect style="opacity:0.2" width="19" height="19" x="3" y="2.5" rx=".95" ry=".95"/>
 <rect style="fill:#dad6cd" width="19" height="19" x="3" y="2" rx=".95" ry=".95"/>
 <path style="fill:none;stroke:#4f4f4f;stroke-linecap:round" d="M 12.5,17.5 V 12.949885"/>
 <path style="fill:none;stroke:#896a2a;stroke-width:1.89999998;stroke-linecap:round" d="m 8.9,14.125 c 0,0 -0.95,-2.425274 -0.95,-4.3252737 0,-1.9 0.95,-2.85 0.95,-2.85"/>
 <path style="fill:none;stroke:#896a2a;stroke-width:1.89999998;stroke-linecap:round" d="m 16.109595,14.125 c 0,0 0.95,-2.425274 0.95,-4.3252737 0,-1.9 -0.95,-2.85 -0.95,-2.85"/>
 <circle style="opacity:0.1" cx="12.5" cy="10" r="4.5"/>
 <circle style="fill:#b1a17f" cx="12.5" cy="9.5" r="4.5"/>
 <path style="fill:#8b9cbe;opacity:0.2" d="M 3.9492188 2 C 3.4229188 2 3 2.4229188 3 2.9492188 L 3 3.4492188 C 3 2.9229188 3.4229188 2.5 3.9492188 2.5 L 21.050781 2.5 C 21.577081 2.5 22 2.9229188 22 3.4492188 L 22 2.9492188 C 22 2.4229188 21.577081 2 21.050781 2 L 3.9492188 2 z"/>
</svg>
