<svg xmlns="http://www.w3.org/2000/svg" width="24" height="24" version="1">
 <rect style="opacity:0.2" width="10" height="10" x="12" y="12.5" rx="1.646" ry="1.852"/>
 <rect style="opacity:0.2" width="10" height="10" x="2" y="12.5" rx="1.646" ry="1.852"/>
 <rect style="fill:#ff7826" width="10" height="10" x="2" y="12" rx="1.646" ry="1.852"/>
 <rect style="fill:#1f9b28" width="10" height="10" x="12" y="12" rx="1.646" ry="1.852"/>
 <path style="opacity:0.2;fill:#8b9cbe" d="M 3.6464844,12 C 2.7345512,12 2,12.825637 2,13.851563 v 0.5 C 2,13.325637 2.7345511,12.5 3.6464844,12.5 H 8.6464845 C 8.2111765,12.5 7.819166,12.308309 7.5253905,12 Z m 12.8281246,0 c -0.293775,0.308309 -0.685786,0.5 -1.121093,0.5 h 4.999999 C 21.265449,12.5 22,13.325637 22,14.351563 v -0.5 C 22,12.825637 21.265449,12 20.353515,12 Z"/>
 <rect style="opacity:0.2" width="10" height="10" x="7" y="2.5" rx="1.646" ry="1.852"/>
 <rect style="fill:#00a9ff" width="10" height="10" x="7" y="2" rx="1.646" ry="1.852"/>
 <path style="opacity:0.2;fill:#8b9cbe" d="M 8.6464845,2 C 7.734551,2 7,2.8256377 7,3.8515625 v 0.5 C 7,3.3256377 7.734551,2.5 8.6464845,2.5 H 15.353516 C 16.265449,2.5 17,3.3256377 17,4.3515625 v -0.5 C 17,2.8256377 16.265449,2 15.353516,2 Z"/>
</svg>
