<svg xmlns="http://www.w3.org/2000/svg" width="24" height="24" version="1">
 <g style="fill:#8e8e8e">
  <rect style="fill:#8e8e8e" width="1" height="17" x="14" y="-21" transform="rotate(90)"/>
  <rect style="fill:#8e8e8e" width="1" height="17" x="12" y="-21" transform="rotate(90)"/>
  <rect style="fill:#8e8e8e" width="1" height="17" x="10" y="-21" transform="rotate(90)"/>
  <rect style="fill:#8e8e8e" width="1" height="17" x="8" y="-21" transform="rotate(90)"/>
  <rect style="fill:#8e8e8e" width="1" height="17" x="16" y="-21" transform="rotate(90)"/>
  <rect style="fill:#8e8e8e" width="1" height="17" x="18" y="-21" transform="rotate(90)"/>
  <rect style="fill:#8e8e8e" width="1" height="17" x="20" y="-21" transform="rotate(90)"/>
  <rect style="fill:#8e8e8e" width="1" height="17" x="6" y="-21" transform="rotate(90)"/>
  <rect style="fill:#8e8e8e" width="1" height="17" x="4" y="-21" transform="rotate(90)"/>
  <rect style="fill:#8e8e8e" width="1" height="20" x="12" y="2"/>
  <rect style="fill:#8e8e8e" width="1" height="20" x="10" y="2"/>
  <rect style="fill:#8e8e8e" width="1" height="20" x="8" y="2"/>
  <rect style="fill:#8e8e8e" width="1" height="20" x="6" y="2"/>
  <rect style="fill:#8e8e8e" width="1" height="20" x="14" y="2"/>
  <rect style="fill:#8e8e8e" width="1" height="20" x="16" y="2"/>
  <rect style="fill:#8e8e8e" width="1" height="20" x="18" y="2"/>
 </g>
 <rect style="opacity:0.2" width="18" height="15" x="-21.5" y="-20" rx="1" ry="1.071" transform="matrix(0,-1,-1,0,0,0)"/>
 <rect style="fill:#4f4f4f" width="18" height="15" x="-21" y="-20" rx="1" ry="1.071" transform="matrix(0,-1,-1,0,0,0)"/>
 <path style="opacity:0.1;fill:#8b9cbe" d="M 6.0722656 3 C 5.4786942 3 5 3.446 5 4 L 5 4.5 C 5 3.946 5.4786942 3.5 6.0722656 3.5 L 18.927734 3.5 C 19.521306 3.5 20 3.946 20 4.5 L 20 4 C 20 3.446 19.521306 3 18.927734 3 L 6.0722656 3 z"/>
 <rect style="opacity:0.4;fill:#8b9cbe" width="4" height="1" x="6" y="-16" transform="rotate(90)"/>
 <rect style="opacity:0.4;fill:#8b9cbe" width="2" height="1" x="11" y="-16" transform="rotate(90)"/>
 <rect style="opacity:0.4;fill:#8b9cbe" width="5" height="1" x="14" y="-16" transform="rotate(90)"/>
 <rect style="opacity:0.4;fill:#8b9cbe" width="5" height="1" x="6" y="-13" transform="rotate(90)"/>
 <rect style="opacity:0.4;fill:#8b9cbe" width="5" height="1" x="12" y="-13" transform="rotate(90)"/>
 <rect style="opacity:0.4;fill:#8b9cbe" width="2" height="1" x="6" y="-10" transform="rotate(90)"/>
 <rect style="opacity:0.4;fill:#8b9cbe" width="2" height="1" x="9" y="-10" transform="rotate(90)"/>
 <rect style="opacity:0.4;fill:#8b9cbe" width="4" height="1" x="12" y="-10" transform="rotate(90)"/>
</svg>
