<svg xmlns="http://www.w3.org/2000/svg" width="24" height="24" version="1">
 <rect style="opacity:.2" width="6" height="8" x="9" y="14.5" rx="2.4" ry="2"/>
 <path style="opacity:.2" d="m11.5 2.5c-1.385 0-2.5 1.115-2.5 2.5v0.087891c-0.6889399 0.2781077-1.3357807 0.65083-1.921875 1.1074215l-0.0742188-0.0429687c-1.1994451-0.6925001-2.7215625-0.2853827-3.4140624 0.9140624l-0.5 0.8671876c-0.6925 1.1994451-0.2853827 2.7215622 0.9140624 3.4140622l0.082031 0.04687c-0.0541782 0.366064-0.082893 0.73544-0.0859372 1.105474 0.00304 0.370034 0.031759 0.73941 0.085937 1.105469l-0.082031 0.04687c-1.1994451 0.6925-1.6065624 2.214617-0.9140624 3.414062l0.5 0.867188c0.6924999 1.199445 2.2146173 1.606562 3.4140624 0.914062l0.080078-0.04687c0.5841679 0.456808 1.2290136 0.830174 1.916016 1.109375l0.2515271 0.089844c1.3042919 0.465885 0.8634729 1.9 2.2484729 1.9h1c1.385 0 0.774138-1.069978 1.996946-1.720338l0.503054-0.267553c0.68894-0.278108 1.335781-0.65083 1.921875-1.107421l0.07422 0.04297c1.199445 0.6925 2.721562 0.285383 3.414062-0.914062l0.5-0.867188c0.6925-1.199445 0.285383-2.721562-0.914062-3.414062l-0.08203-0.04687c0.054176-0.366066 0.082891-0.735442 0.085935-1.105476-3e-3 -0.370034-0.03176-0.73941-0.08594-1.105469l0.08203-0.04687c1.199445-0.6925 1.606562-2.2146171 0.914062-3.4140622l-0.5-0.8671876c-0.692496-1.1994501-2.214613-1.6065675-3.414058-0.9140674l-0.08008 0.046875c-0.584166-0.456808-1.229011-0.8301744-1.916014-1.109375v-0.0898438c0-1.385-1.115-2.5-2.5-2.5z"/>
 <path style="fill:#008374" d="m11.5 2c-1.385 0-2.5 1.115-2.5 2.5v0.087891c-0.6889399 0.2781077-1.3357807 0.65083-1.921875 1.1074215l-0.0742188-0.0429687c-1.1994451-0.6925001-2.7215625-0.2853827-3.4140624 0.9140624l-0.5 0.8671876c-0.6925 1.1994451-0.2853827 2.7215622 0.9140624 3.4140622l0.082031 0.04687c-0.0541782 0.366064-0.082893 0.73544-0.0859372 1.105474 0.00304 0.370034 0.031759 0.73941 0.085937 1.105469l-0.082031 0.04687c-1.1994451 0.6925-1.6065624 2.214617-0.9140624 3.414062l0.5 0.867188c0.6924999 1.199445 2.2146173 1.606562 3.4140624 0.914062l0.080078-0.04687c0.5841679 0.456808 1.2290136 0.830174 1.916016 1.109375l0.2515271 0.089844c1.3042919 0.465885 0.8634729 1.9 2.2484729 1.9h1c1.385 0 0.774138-1.069978 1.996946-1.720338l0.503054-0.267553c0.68894-0.278108 1.335781-0.65083 1.921875-1.107421l0.07422 0.04297c1.199445 0.6925 2.721562 0.285383 3.414062-0.914062l0.5-0.867188c0.6925-1.199445 0.285383-2.721562-0.914062-3.414062l-0.08203-0.04687c0.054176-0.366066 0.082891-0.735442 0.085935-1.105476-3e-3 -0.370034-0.03176-0.73941-0.08594-1.105469l0.08203-0.04687c1.199445-0.6925 1.606562-2.2146171 0.914062-3.4140622l-0.5-0.8671876c-0.692496-1.1994501-2.214613-1.6065675-3.414058-0.9140674l-0.08008 0.046875c-0.584166-0.456808-1.229011-0.8301744-1.916014-1.109375v-0.0898438c0-1.385-1.115-2.5-2.5-2.5z"/>
 <rect style="fill:#b2bfd9" width="6" height="8" x="9" y="14" rx="2.4" ry="2"/>
 <rect style="opacity:.4" width="2" height="6" x="11" y="15" rx="1" ry="1"/>
 <path style="opacity:.2" d="m14 7.9199215v3.5800785l-2 1.5-2-1.5v-3.5761725c-1.820005 0.7943135-2.997456 2.5903865-3 4.5761725 0 2.761423 2.2385765 5 5 5 2.761423 0 5-2.238577 5-5-1e-3 -1.987204-1.178697-3.785197-3-4.5800785z"/>
 <path style="fill:#8b9cbe" d="m14 7.4199215v3.5800785l-2 1.5-2-1.5v-3.5761725c-1.820005 0.7943135-2.997456 2.5903865-3 4.5761725 0 2.761423 2.2385765 5 5 5 2.761423 0 5-2.238577 5-5-1e-3 -1.987204-1.178697-3.785197-3-4.5800785z"/>
 <path style="fill:#8b9cbe;opacity:.1" d="m14 7.4199215v0.5c1.733 0.7563425 2.880929 2.4213895 2.989258 4.2929685 0.003008-0.071202 0.010742-0.140949 0.010742-0.21289-1e-3 -1.987205-1.178697-3.785197-3-4.5800785zm-4 0.0039c-1.820005 0.7943135-2.997456 2.5903855-3 4.5761715 0 0.07194 0.00774 0.141689 0.01074 0.212891 0.109636-1.870181 1.2574955-3.5332545 2.98926-4.2890565v-0.5zm0 3.5761725v0.5l2 1.5 2-1.5v-0.5l-2 1.5z"/>
 <path style="fill:#8b9cbe;opacity:.1" d="m11.5 2c-1.385 0-2.5 1.115-2.5 2.5v0.0878906c-0.6889399 0.2781077-1.3357807 0.6508304-1.921875 1.1074219l-0.0742188-0.0429687c-1.1994451-0.6925001-2.7215625-0.2853826-3.4140624 0.9140624l-0.5 0.8671876c-0.2729065 0.4726877-0.3701528 0.9937052-0.3203126 1.4960937 0.0351262-0.3406543 0.1373727-0.6792327 0.3203126-0.9960937l0.5-0.8671876c0.6924999-1.199445 2.2146173-1.6065625 3.4140624-0.9140624l0.0742188 0.0429687c0.5860943-0.4565915 1.2329351-0.8293142 1.921875-1.1074219v-0.0878906c0-1.385 1.115-2.5 2.5-2.5h1c1.385 0 2.5 1.115 2.5 2.5v0.0898438c0.687003 0.2792005 1.33185 0.652567 1.916016 1.109375l0.080078-0.046875c1.199445-0.6925002 2.721566-0.2853876 3.414062 0.9140624l0.5 0.8671876c0.18294 0.316861 0.285187 0.6554394 0.320313 0.9960937 0.04984-0.5023885-0.047406-1.023406-0.320313-1.4960937l-0.5-0.8671876c-0.692496-1.19945-2.214617-1.6065626-3.414062-0.9140624l-0.080078 0.046875c-0.584166-0.456808-1.229013-0.8301745-1.916016-1.109375v-0.0898438c0-1.385-1.115-2.5-2.5-2.5h-1zm-7.4511719 9.373047c-0.0182027 0.208955-0.0471016 0.41709-0.0488281 0.626953 6.875e-4 0.083685 0.0162195 0.166413 0.0195312 0.25 0.0113328-0.286014 0.0244808-0.572192 0.0664063-0.855469l-0.0371094-0.021484zm15.902344 0-0.03711 0.021484c0.041927 0.283273 0.055082 0.569456 0.066407 0.855469 0.003312-0.083587 0.018843-0.166315 0.019531-0.25-0.001701-0.209863-0.030617-0.417999-0.048828-0.626953zm-15.902344 1.753906-0.0449219 0.025391c-0.882584 0.50956-1.3322153 1.469111-1.234375 2.417968 0.0766295-0.772422 0.5076177-1.498375 1.234375-1.917968l0.0820313-0.046875c-0.0234513-0.158451-0.0232162-0.319038-0.0371094-0.478516zm15.902344 0c-0.013893 0.159479-0.013659 0.320062-0.03711 0.478516l0.082032 0.046875c0.726757 0.419593 1.157745 1.145546 1.234375 1.917968 0.09784-0.948857-0.351791-1.908408-1.234375-2.417968l-0.044922-0.025391z"/>
</svg>
