<svg xmlns="http://www.w3.org/2000/svg" width="24" height="24" version="1">
 <rect style="fill:#5985cb" width="20" height="20" x="2" y="2" rx="1" ry="1"/>
 <path style="opacity:.2;fill:#8b9cbe" d="m3 2c-0.554 0-1 0.446-1 1v0.5c0-0.554 0.446-1 1-1h18c0.554 0 1 0.446 1 1v-0.5c0-0.554-0.446-1-1-1z"/>
 <path style="opacity:.2" d="m2 21v0.5c0 0.554 0.446 1 1 1h18c0.554 0 1-0.446 1-1v-0.5c0 0.554-0.446 1-1 1h-18c-0.554 0-1-0.446-1-1z"/>
 <path style="stroke-linejoin:round;stroke:#4f4f4f;fill:none" d="m5.5 12.5h10"/>
 <path style="stroke-linejoin:round;stroke:#4f4f4f;fill:none" d="m10.5 12.5 2.5-5"/>
 <path style="stroke-linejoin:round;stroke:#4f4f4f;fill:none" d="m10.5 12.5 2.5 5h5"/>
 <g style="opacity:.2" transform="translate(0 .5)">
  <circle cx="5.5" cy="12.5" r="1.5"/>
  <circle cx="10.5" cy="12.5" r="1.5"/>
  <circle cx="15.5" cy="12.5" r="1.5"/>
  <circle cx="12.5" cy="17.5" r="1.5"/>
  <circle cx="17.5" cy="17.5" r="1.5"/>
  <circle cx="12.5" cy="7.5" r="1.5"/>
 </g>
 <circle style="fill:#8b9cbe" cx="5.5" cy="12.5" r="1.5"/>
 <circle style="fill:#8b9cbe" cx="10.5" cy="12.5" r="1.5"/>
 <circle style="fill:#8b9cbe" cx="15.5" cy="12.5" r="1.5"/>
 <circle style="fill:#8b9cbe" cx="12.5" cy="17.5" r="1.5"/>
 <circle style="fill:#8b9cbe" cx="17.5" cy="17.5" r="1.5"/>
 <circle style="fill:#8b9cbe" cx="12.5" cy="7.5" r="1.5"/>
</svg>
