<svg xmlns="http://www.w3.org/2000/svg" height="24" width="24" version="1.1">
 <circle cx="12" cy="12.5" r="10" style="opacity:.2"/>
 <path style="fill:#4ac73e" d="m12 2a10 10 0 0 0 -10 10 10 10 0 0 0 10 10 10 10 0 0 0 1 -0.060547v-19.888672a10 10 0 0 0 -1 -0.050781z"/>
 <path style="fill:#ff5757" d="m12 2v20a10 10 0 0 0 10 -10 10 10 0 0 0 -10 -10z"/>
 <path d="m12 2a10 10 0 0 0 -10 10 10 10 0 0 0 0.0098 0.293 10 10 0 0 1 9.9902 -9.793 10 10 0 0 1 9.99 9.707 10 10 0 0 0 0.01 -0.207 10 10 0 0 0 -10 -10z" style="opacity:.2;fill:#8b9cbe"/>
 <path style="opacity:.2" d="m13 19.5h-2v-2h2zm2.07-7.75-0.9 0.92c-0.72 0.73-1.17 1.33-1.17 2.83h-2v-0.5c0-1.1 0.45-2.1 1.17-2.83l1.24-1.26c0.37-0.36 0.59-0.86 0.59-1.4100002 0-1.1-0.9-2-2-2s-2 0.9-2 2h-2c0-2.21 1.7900001-4 4-4 2.21 0 4 1.79 4 4 0 0.8800002-0.36 1.6800002-0.93 2.2500002z"/>
 <path style="fill:#8b9cbe" d="m13 19h-2v-2h2zm2.07-7.75-0.9 0.92c-0.72 0.73-1.17 1.33-1.17 2.83h-2v-0.5c0-1.1 0.45-2.1 1.17-2.83l1.24-1.26c0.37-0.36 0.59-0.8599998 0.59-1.4100002 0-1.1-0.9-2-2-2s-2 0.9-2 2h-2c0-2.21 1.7900001-4 4-4 2.21 0 4 1.79 4 4 0 0.8800004-0.36 1.6800002-0.93 2.2500002z"/>
</svg>
