<svg xmlns="http://www.w3.org/2000/svg" width="24" height="24" version="1">
 <rect fill="#4ba357" width="20" height="20" x="2" y="2" rx="1" ry="1"/>
 <path fill="#fff" opacity=".2" d="m3 2c-0.554 0-1 0.446-1 1v0.5c0-0.554 0.446-1 1-1h18c0.554 0 1 0.446 1 1v-0.5c0-0.554-0.446-1-1-1h-18z"/>
 <path opacity=".2" d="m3 22.5c-0.554 0-1-0.446-1-1v-0.5c0 0.554 0.446 1 1 1h18c0.554 0 1-0.446 1-1v0.5c0 0.554-0.446 1-1 1h-18z"/>
 <path opacity=".1" d="m12 8.5c-1.678 0-3.1112 0.5176-3.7051 1.25-0.0498 0.0615-0.0932 0.1231-0.1308 0.1875-0.0358 0.0612-0.0678 0.1245-0.0918 0.1875a4.0001 2 0 0 0 -0.015625 0.05859c-0.013709 0.04299-0.028972 0.08505-0.037109 0.12891a4.0001 2 0 0 0 -0.0196 0.187c0.00022 0.06499 0.00673 0.12891 0.019531 0.19336a4.0001 2 0 0 0 0.054688 0.1875 4.0001 2 0 0 0 0.09375 0.1875 4.0001 2 0 0 0 0.127 0.182 4.0001 2 0 0 0 3.7051 1.25 4.0001 2 0 0 0 3.7051 -1.25 4.0001 2 0 0 0 0.002 -0.002 4.0001 2 0 0 0 0.10742 -0.1543c0.0064-0.01014 0.01351-0.02106 0.01953-0.03125a4.0001 2 0 0 0 0.06641 -0.13281c0.0094-0.02093 0.02133-0.04144 0.0293-0.0625a4.0001 2 0 0 0 0.0332 -0.11133c0.0077-0.02933 0.01443-0.05839 0.01953-0.08789a4.0001 2 0 0 0 0.018 -0.169 4.0001 2 0 0 0 -0.021 -0.199c-0.039-0.194-0.133-0.378-0.274-0.551-0.594-0.7325-2.027-1.25-3.705-1.25zm-3.7051 4.25a4 2 0 0 0 -0.2949 0.75 4 2 0 0 0 4 2 4 2 0 0 0 4 -2 4 2 0 0 0 -0.295 -0.75 4 2 0 0 1 -3.705 1.25 4 2 0 0 1 -3.7051 -1.25zm0 3a4 2 0 0 0 -0.2949 0.75 4 2 0 0 0 4 2 4 2 0 0 0 4 -2 4 2 0 0 0 -0.295 -0.75 4 2 0 0 1 -3.705 1.25 4 2 0 0 1 -3.7051 -1.25z"/>
 <path fill="#8b9cbe" d="m12 8c-1.678 0-3.1112 0.5176-3.7051 1.25-0.0498 0.0615-0.0932 0.1231-0.1308 0.1875-0.0358 0.0612-0.0678 0.1241-0.0918 0.1875a4.0001 2 0 0 0 -0.0157 0.0586c-0.0137 0.043-0.0289 0.085-0.0371 0.1289a4.0001 2 0 0 0 -0.0195 0.1875c0.00022 0.06499 0.00673 0.12891 0.019531 0.19336a4.0001 2 0 0 0 0.054688 0.1875 4.0001 2 0 0 0 0.09375 0.1875 4.0001 2 0 0 0 0.127 0.182 4.0001 2 0 0 0 3.7051 1.25 4.0001 2 0 0 0 3.7051 -1.25 4.0001 2 0 0 0 0.002 -0.002 4.0001 2 0 0 0 0.10742 -0.1543c0.0064-0.01014 0.01351-0.02106 0.01953-0.03125a4.0001 2 0 0 0 0.06641 -0.13281c0.0094-0.02093 0.02133-0.04144 0.0293-0.0625a4.0001 2 0 0 0 0.0332 -0.11133c0.0077-0.02933 0.01443-0.05839 0.01953-0.08789a4.0001 2 0 0 0 0.018 -0.169 4.0001 2 0 0 0 -0.021 -0.1992c-0.039-0.1935-0.133-0.3778-0.274-0.5508-0.594-0.7325-2.027-1.25-3.705-1.25zm-3.7051 4.25a4 2 0 0 0 -0.2949 0.75 4 2 0 0 0 4 2 4 2 0 0 0 4 -2 4 2 0 0 0 -0.295 -0.75 4 2 0 0 1 -3.705 1.25 4 2 0 0 1 -3.7051 -1.25zm0 3a4 2 0 0 0 -0.2949 0.75 4 2 0 0 0 4 2 4 2 0 0 0 4 -2 4 2 0 0 0 -0.295 -0.75 4 2 0 0 1 -3.705 1.25 4 2 0 0 1 -3.7051 -1.25z"/>
</svg>
