<svg xmlns="http://www.w3.org/2000/svg" width="24" height="24" version="1">
 <path style="fill:#3c79ff" d="M 20,21 V 3 C 20,2.446 19.554,2 19,2 H 5 C 4.446,2 4,2.446 4,3 v 18 c 0,0.554 0.446,1 1,1 h 14 c 0.554,0 1,-0.446 1,-1 z"/>
 <path style="opacity:0.2;fill:#8b9cbe" d="M 5,2 C 4.446,2 4,2.446 4,3 v 0.5 c 0,-0.554 0.446,-1 1,-1 h 14 c 0.554,0 1,0.446 1,1 V 3 C 20,2.446 19.554,2 19,2 Z"/>
 <path style="opacity:0.2" d="m 4,21 v 0.5 c 0,0.554 0.446,1 1,1 h 14 c 0.554,0 1,-0.446 1,-1 V 21 c 0,0.554 -0.446,1 -1,1 H 5 C 4.446,22 4,21.554 4,21 Z"/>
 <path style="opacity:0.1" d="m 12,8.489142 a 4,4 0 0 1 4,4 4,4 0 0 1 -0.691406,2.248047 l 2.471679,2.471679 a 0.750075,0.750075 0 1 1 -1.060547,1.060547 L 14.245117,15.794806 A 4,4 0 0 1 12,16.489142 a 4,4 0 0 1 -4,-4 4,4 0 0 1 4,-4 z m 0,1.5 a 2.5,2.5 0 0 0 -2.5,2.5 2.5,2.5 0 0 0 2.5,2.5 2.5,2.5 0 0 0 2.5,-2.5 2.5,2.5 0 0 0 -2.5,-2.5 z"/>
 <path style="fill:#8b9cbe" d="m 12,7.989142 a 4,4 0 0 1 4,4 4,4 0 0 1 -0.691406,2.248047 l 2.471679,2.471679 a 0.750075,0.750075 0 1 1 -1.060547,1.060547 L 14.245117,15.294806 A 4,4 0 0 1 12,15.989142 a 4,4 0 0 1 -4,-4 4,4 0 0 1 4,-4 z m 0,1.5 a 2.5,2.5 0 0 0 -2.5,2.5 2.5,2.5 0 0 0 2.5,2.5 2.5,2.5 0 0 0 2.5,-2.5 2.5,2.5 0 0 0 -2.5,-2.5 z"/>
</svg>
