<svg xmlns="http://www.w3.org/2000/svg" width="24" height="24" version="1">
 <path style="fill:#d2d2d2" d="M 12,2 C 8.676,2 6,4.676 6,8 v 2 H 8 V 8 c 0,-2.216 1.784,-4 4,-4 2.216,0 4,1.784 4,4 v 2 h 2 V 8 C 18,4.676 15.324,2 12,2 Z"/>
 <rect style="fill:#ffb437" width="12" height="16" x="-22" y="-20" rx="1" ry="1" transform="matrix(0,-1,-1,0,0,0)"/>
 <path style="opacity:0.2;fill:#8b9cbe" d="M 12,2 C 8.676,2 6,4.676 6,8 v 0.5 c 0,-3.324 2.676,-6 6,-6 3.324,0 6,2.676 6,6 V 8 C 18,4.676 15.324,2 12,2 Z"/>
 <path style="opacity:0.2;fill:#8b9cbe" d="m 5,10 c -0.554,0 -1,0.446 -1,1 v 0.5 c 0,-0.554 0.446,-1 1,-1 h 14 c 0.554,0 1,0.446 1,1 V 11 c 0,-0.554 -0.446,-1 -1,-1 z"/>
 <path style="opacity:0.2" d="M 12,4 C 9.784,4 8,5.784 8,8 v 0.5 c 0,-2.216 1.784,-4 4,-4 2.216,0 4,1.784 4,4 V 8 C 16,5.784 14.216,4 12,4 Z"/>
 <rect style="fill:#fed96a" width="16" height="7" x="4" y="12" rx="0" ry="0"/>
 <path style="opacity:0.2" d="m 4,21 v 0.5 c 0,0.554 0.446,1 1,1 h 14 c 0.554,0 1,-0.446 1,-1 V 21 c 0,0.554 -0.446,1 -1,1 H 5 C 4.446,22 4,21.554 4,21 Z"/>
</svg>
