<svg xmlns="http://www.w3.org/2000/svg" width="24" height="24" version="1">
 <g transform="translate(0,-1)">
  <g style="opacity:0.2" transform="matrix(0.5,0,0,0.5,1.7e-4,1.5)">
   <path d="M 38.0578,4.1033393 17.826382,8.3167176 C 14.285707,8.7426886 13.99966,11.999657 14,11.995344 V 26.266 C 13.347,26.093 12.675,26.004 12,26 c -4.4183,0 -8,3.5817 -8,8 0,4.4183 3.5817,8 8,8 4.0287,-0.0038 7.4261,-3.0029 7.9297,-7 0,0 0.07031,-0.72732 0.07031,-1 V 13.93 l 16,-3.458025 v 11.793682 c -0.653,-0.173 -1.325,-0.262 -2,-0.266 -4.4183,0 -8,3.5817 -8,8 0,4.4183 -0.41865,6 3.99965,6 4.0287,-0.0038 7.4261,-3.0029 7.9297,-7 l 0.07,-1 4.00035,-2.337099 V 7.2969475 c 0,0 0.0273,-3.9023963 -3.94191,-3.1936082 z"/>
  </g>
  <g style="fill:#3c8cf8" transform="matrix(0.5,0,0,0.5,1.7e-4,1.0001714)">
   <path style="fill:#ae66e0" d="M 38.0578,4.1033393 17.826382,8.3167176 C 14.285707,8.7426886 13.99966,11.999657 14,11.995344 V 26.266 C 13.347,26.093 12.675,26.004 12,26 c -4.4183,0 -8,3.5817 -8,8 0,4.4183 3.5817,8 8,8 4.0287,-0.0038 7.4261,-3.0029 7.9297,-7 0,0 0.07031,-0.72732 0.07031,-1 V 13.93 l 16,-3.458025 v 11.793682 c -0.653,-0.173 -1.325,-0.262 -2,-0.266 -4.4183,0 -8,3.5817 -8,8 0,4.4183 -0.41865,6 3.99965,6 4.0287,-0.0038 7.4261,-3.0029 7.9297,-7 l 0.07,-1 4.00035,-0.952234 V 7.2969475 c 0,0 0.0273,-3.9023963 -3.94191,-3.1936082 z"/>
  </g>
  <g style="opacity:0.2;fill:#8b9cbe" transform="matrix(0.5,0,0,0.5,1.7e-4,1.0001714)">
   <path style="fill:#8b9cbe" transform="matrix(2,0,0,2,-3.4e-4,-2.0003428)" d="m 19.683594,3.0195312 c -0.18956,-0.019436 -0.406221,-0.011096 -0.654297,0.033203 L 8.9140625,5.1582031 C 7.143725,5.3711886 6.99983,7.0002034 7,6.9980469 v 0.5 C 6.99983,7.5002034 7.143725,5.8711886 8.9140625,5.6582031 L 19.029297,3.5507812 C 21.013902,3.1963872 21,5.1484375 21,5.1484375 v -0.5 c 0,0 0.01051,-1.4928511 -1.316406,-1.6289063 z M 17,12 c -2.20915,0 -4,1.79085 -4,4 0,0.08558 0.02009,0.165752 0.02539,0.25 C 13.156792,14.159568 14.876433,12.5 17,12.5 c 0.3375,0.002 0.6735,0.04631 1,0.132812 v -0.5 C 17.6735,12.046313 17.3375,12.002 17,12 Z M 6,14 c -2.20915,0 -4,1.79085 -4,4 0,0.08558 0.020095,0.165752 0.025391,0.25 C 2.1567915,16.159568 3.8764334,14.5 6,14.5 c 0.3375,0.002 0.6735,0.04631 1,0.132812 v -0.5 C 6.6735,14.046313 6.3375,14.002 6,14 Z"/>
  </g>
 </g>
 <path style="fill:#f6dd79" d="m 22.04,9.7190384 c -1.25,-2.165 -6.33,-1.5189 -7.446,-0.8971 L 5.5008,14.071438 c -0.47976,0.27699 -0.64297,0.88621 -0.36601,1.366 l 3.4998,6.0617 c 0.27699,0.47976 0.88621,0.64302 1.3659,0.36601 l 9.0931,-5.2498 c 0.70682,-0.42342 4.196,-4.7318 2.946,-6.8966996 z m -1.732,0.9999496 a 0.99995,0.99995 0 0 1 -0.36601,1.3659 0.99995,0.99995 0 0 1 -1.366,-0.36601 0.99995,0.99995 0 0 1 0.36601,-1.366 0.99995,0.99995 0 0 1 1.366,0.36601 z"/>
 <path style="opacity:0.2" d="m 20.307,11.219438 a 0.99995,0.99995 0 0 0 -1.366,-0.3665 0.99995,0.99995 0 0 0 -0.36601,1.366 0.99995,0.99995 0 0 0 1.366,0.36601 0.99995,0.99995 0 0 0 0.36601,-1.3659 z m -0.43299,0.24999 c 0.14102,0.24426 0.06126,0.54198 -0.18301,0.68297 -0.24426,0.14102 -0.54197,0.06126 -0.68297,-0.183 -0.14102,-0.24426 -0.06126,-0.54198 0.183,-0.68297 0.24426,-0.14102 0.54197,-0.06126 0.68297,0.18301 z"/>
 <path style="fill:#8b9cbe" d="m 20.307,10.719038 a 0.99995,0.99995 0 0 0 -1.366,-0.3661 0.99995,0.99995 0 0 0 -0.366,1.3665 0.99995,0.99995 0 0 0 1.366,0.366 0.99995,0.99995 0 0 0 0.366,-1.3664 z m -0.433,0.2499 c 0.14102,0.24426 0.06126,0.54197 -0.18301,0.68297 -0.24426,0.14102 -0.54197,0.06126 -0.68297,-0.183 -0.14102,-0.24426 -0.06126,-0.54197 0.183,-0.68297 0.24426,-0.14102 0.54197,-0.06126 0.68297,0.18301 z"/>
 <path style="opacity:0.3" d="m 6.5008,15.803438 0.5,0.866 0.866,-0.5 1.9999,3.464 0.866,-0.5 -1.9999,-3.464 0.866,-0.5 -0.5,-0.866 -0.866,0.5 -0.866,0.5 z m 3.4639,-1.9999 0.49998,0.86596 0.49998,0.86601 0.49998,0.86601 0.99995,1.732 0.86601,-0.49998 -0.99995,-1.732 0.86601,-0.49998 0.99995,1.732 0.86601,-0.49998 -2.4999,-4.3299 -1.732,0.99995 -0.86601,0.49998 z m 3.4639,-1.9999 0.49998,0.86596 1.9999,3.4639 0.86596,-0.49998 1.732,-0.99995 -0.49998,-0.86601 -0.24999,-0.433 0.43299,-0.24999 -0.49998,-0.86596 -1.732,0.99995 0.49998,0.86596 0.43299,-0.24999 0.24999,0.43299 -0.86601,0.49998 -1.4999,-2.598 1.732,-0.99995 -0.49998,-0.86596 -2.598,1.4999 z m -2.098,2.3659 0.86601,-0.49998 0.49998,0.86601 -0.86601,0.49998 z"/>
 <g transform="matrix(0.43299,-0.24999,0.24999,0.43299,-1.7131,9.5765384)">
  <g transform="rotate(90,23.5,23.5)">
   <path style="opacity:0.2;fill:#8b9cbe" transform="matrix(0.5,-0.86603,0.86603,0.5,-18.597,35.28)" d="m 39.109,19.264 c -3.1315,-0.06277 -6.2292,0.5695 -7.3457,1.1914 l -18.188,10.5 c -0.79268,0.45765 -1.1444,1.3689 -0.93359,2.2129 0.13261,-0.49311 0.45439,-0.93622 0.93359,-1.2129 l 18.188,-10.5 c 2.234,-1.244 12.393,-2.535 14.893,1.795 0.29345,0.50827 0.45122,1.0767 0.50781,1.6836 0.076,-0.986 -0.058,-1.906 -0.508,-2.684 -1.25,-2.1651 -4.4154,-2.9236 -7.5469,-2.9863 z"/>
  </g>
 </g>
</svg>
