<svg width="24" height="24" version="1.1" xmlns="http://www.w3.org/2000/svg">
 <g transform="translate(1,1)">
  <circle cx="11" cy="11.5" r="10" style="opacity:.2"/>
  <circle cx="11" cy="11" r="10" style="fill:#b2bfd9"/>
  <path d="M 8.3378906,9.703125 A 3.5,3.5 0 0 0 6,13 3.5,3.5 0 0 0 9.5,16.5 3.5,3.5 0 0 0 13,13 3.5,3.5 0 0 0 12.957031,12.474609 Z" style="opacity:.1"/>
  <path d="M 11,1 A 10,10 0 0 0 1,11 10,10 0 0 0 1.0098,11.293 10,10 0 0 1 11,1.5 10,10 0 0 1 20.99,11.207 10,10 0 0 0 21,11 10,10 0 0 0 11,1 Z" style="fill:#8b9cbe;opacity:.2"/>
  <path d="M 8.3378906,9.203125 A 3.5,3.5 0 0 0 6,12.5 3.5,3.5 0 0 0 9.5,16 3.5,3.5 0 0 0 13,12.5 3.5,3.5 0 0 0 12.957031,11.974609 Z" style="fill:#17191e"/>
  <circle cx="9.5" cy="12.5" r="2.5" style="fill:#ffb73c"/>
  <circle cx="9.5" cy="12.5" r="1.5" style="fill:#17191e"/>
  <path d="m4 6-3-3c14 2 20 12 20 12s-8-8-17-9z" style="fill:#4f4f4f"/>
  <path d="m4 6.5-3-3c14 2 20 12 20 12s-8-8-17-9z" style="opacity:.1"/>
  <circle cx="8" cy="11" r="1" style="fill:#8b9cbe"/>
  <path d="m7 10.5-2-3c9 3 11 7 11 7s-6-4-9-4z" style="opacity:.1"/>
  <path d="m7 10-2-3c9 3 11 7 11 7s-6-4-9-4z" style="fill:#4f4f4f"/>
  <path d="m9 13.5a0.5 0.5 0 0 1-0.5 0.5 0.5 0.5 0 0 1-0.5-0.5 0.5 0.5 0 0 1 0.5-0.5 0.5 0.5 0 0 1 0.5 0.5z" style="fill:#8b9cbe"/>
 </g>
</svg>
