<svg xmlns="http://www.w3.org/2000/svg" width="24" height="24" version="1.1">
 <rect style="opacity:0.2" width="14" height="20" x="5" y="2.5" rx="1.5" ry="1.5"/>
 <rect style="fill:#335065" width="14" height="20" x="5" y="2" rx="1.5" ry="1.5"/>
 <rect style="fill:#8b9cbe" width="2" height="2" x="6" y="3"/>
 <rect style="fill:#8b9cbe" width="2" height="2" x="6" y="7"/>
 <rect style="fill:#8b9cbe" width="2" height="2" x="6" y="11"/>
 <rect style="fill:#8b9cbe" width="2" height="2" x="6" y="15"/>
 <rect style="fill:#8b9cbe" width="2" height="2" x="6" y="19"/>
 <rect style="fill:#8b9cbe" width="2" height="2" x="16" y="3"/>
 <rect style="fill:#8b9cbe" width="2" height="2" x="16" y="7"/>
 <rect style="fill:#8b9cbe" width="2" height="2" x="16" y="11"/>
 <rect style="fill:#8b9cbe" width="2" height="2" x="16" y="15"/>
 <rect style="fill:#8b9cbe" width="2" height="2" x="16" y="19"/>
 <path style="opacity:0.2" d="m 12.000038,9.500039 c -0.270457,0.004 -0.463337,0.1727365 -0.553856,0.452054 l 0.0033,-0.012595 -0.424939,1.56039 H 9.5915395 c -0.00315,-5.2e-5 -0.00608,-5.2e-5 -0.0092,0 -0.1711315,0.0057 -0.3254395,0.0885 -0.434157,0.225588 -0.235124,0.279534 -0.18529,0.719364 0.113283,0.927838 l 1.1266865,0.852838 -0.437226,1.207012 c -5e-4,0.0016 -9.5e-4,0.0031 -0.0014,0.0046 -0.066809,0.227307 -0.00395,0.461487 0.164064,0.621685 0.0012,0.0012 0.0026,0.0023 0.0038,0.0035 0.201942,0.185933 0.485682,0.209564 0.713736,0.05566 0.0044,-0.003 0.0087,-0.0059 0.01284,-0.0091 l 1.155986,-0.864557 1.155985,0.864557 c 0.0041,0.0031 0.0085,0.0062 0.01284,0.0091 0.228055,0.1539 0.511794,0.130269 0.713736,-0.05566 0.0013,-0.0012 0.0027,-0.0023 0.0038,-0.0035 0.168048,-0.160198 0.230873,-0.394378 0.164064,-0.621685 -4.71e-4,-0.0016 -9.5e-4,-0.0031 -0.0014,-0.0046 l -0.437209,-1.207012 1.126687,-0.852839 c 0.298572,-0.208474 0.348407,-0.648304 0.113283,-0.927838 -0.108718,-0.137087 -0.263026,-0.219843 -0.434157,-0.225588 -0.0031,-5.2e-5 -0.0061,-5.2e-5 -0.0092,0 h -1.433053 l -0.424967,-1.5603915 0.0034,0.012595 C 12.463292,9.6727745 12.270412,9.504042 11.999955,9.500038 Z"/>
 <path style="fill:#ff3b64" d="m 12.000038,9.00002 c -0.270457,0.004 -0.463337,0.1727365 -0.553856,0.452054 l 0.0033,-0.012595 -0.424939,1.56039 H 9.5915395 c -0.00315,-5.2e-5 -0.00608,-5.2e-5 -0.0092,0 -0.1711315,0.0057 -0.3254395,0.0885 -0.434157,0.225588 -0.235124,0.279534 -0.18529,0.719364 0.113283,0.927838 l 1.1266865,0.852838 -0.437226,1.207012 c -5e-4,0.0016 -9.5e-4,0.0031 -0.0014,0.0046 -0.066809,0.227307 -0.00395,0.461487 0.164064,0.621685 0.0012,0.0012 0.0026,0.0023 0.0038,0.0035 0.201942,0.185933 0.485682,0.209564 0.713736,0.05566 0.0044,-0.003 0.0087,-0.0059 0.01284,-0.0091 l 1.155986,-0.864557 1.155985,0.864557 c 0.0041,0.0031 0.0085,0.0062 0.01284,0.0091 0.228055,0.1539 0.511794,0.130269 0.713736,-0.05566 0.0013,-0.0012 0.0027,-0.0023 0.0038,-0.0035 0.168048,-0.160198 0.230873,-0.394378 0.164064,-0.621685 -4.71e-4,-0.0016 -9.5e-4,-0.0031 -0.0014,-0.0046 l -0.437209,-1.207012 1.126687,-0.852839 c 0.298572,-0.208474 0.348407,-0.648304 0.113283,-0.927838 -0.108718,-0.137087 -0.263026,-0.219843 -0.434157,-0.225588 -0.0031,-5.2e-5 -0.0061,-5.2e-5 -0.0092,0 h -1.433053 l -0.424967,-1.5603915 0.0034,0.012595 C 12.463292,9.1727555 12.270412,9.004023 11.999955,9.000019 Z"/>
 <path style="opacity:0.2" d="M 6 5 L 6 5.5 L 8 5.5 L 8 5 L 6 5 z M 16 5 L 16 5.5 L 18 5.5 L 18 5 L 16 5 z M 6 9 L 6 9.5 L 8 9.5 L 8 9 L 6 9 z M 16 9 L 16 9.5 L 18 9.5 L 18 9 L 16 9 z M 6 13 L 6 13.5 L 8 13.5 L 8 13 L 6 13 z M 16 13 L 16 13.5 L 18 13.5 L 18 13 L 16 13 z M 6 17 L 6 17.5 L 8 17.5 L 8 17 L 6 17 z M 16 17 L 16 17.5 L 18 17.5 L 18 17 L 16 17 z M 6 21 L 6 21.5 L 8 21.5 L 8 21 L 6 21 z M 16 21 L 16 21.5 L 18 21.5 L 18 21 L 16 21 z"/>
 <path style="opacity:0.2;fill:#8b9cbe" d="M 12,9 C 11.729543,9.004 11.536808,9.172831 11.446289,9.4521485 L 11.024414,11 H 9.591797 c -0.00315,-5.2e-5 -0.00664,-5.2e-5 -0.00976,0 -0.171131,0.0057 -0.324876,0.0885 -0.4335935,0.225586 -0.158371,0.188284 -0.184828,0.448061 -0.095703,0.66211 0.023965,-0.05738 0.05407,-0.112613 0.095703,-0.16211 C 9.257155,11.588499 9.4109,11.50574 9.582031,11.5 c 0.00315,-5.2e-5 0.00662,-5.2e-5 0.00976,0 h 1.432617 l 0.42188,-1.5478515 C 11.536808,9.672831 11.729543,9.504 12,9.5 c 0.270457,0.004 0.463218,0.1728325 0.553711,0.4521485 L 12.975586,11.5 h 1.432617 c 0.0031,-5.1e-5 0.0066,-5.1e-5 0.0098,0 0.171131,0.0057 0.324875,0.0885 0.433594,0.225586 0.04164,0.0495 0.07174,0.104735 0.0957,0.16211 0.08913,-0.214049 0.06267,-0.473826 -0.0957,-0.66211 C 14.742845,11.088499 14.5891,11.005745 14.417969,11 c -0.0031,-5.1e-5 -0.0066,-5.1e-5 -0.0098,0 H 12.975587 L 12.553712,9.4521485 C 12.463218,9.1728325 12.270457,9.004004 12,9 Z m -1.753906,4.398438 -0.294922,0.814453 c -5e-4,0.0016 -0.0015,0.0034 -0.00195,0.0049 -0.042545,0.144761 -0.027005,0.290469 0.029295,0.419921 l 0.40918,-1.131836 z m 3.507812,0 -0.141602,0.107422 0.40918,1.131836 c 0.0563,-0.129453 0.07185,-0.275161 0.0293,-0.419922 -4.71e-4,-0.0016 -0.0015,-0.0034 -0.002,-0.0049 z"/>
 <path style="opacity:0.1;fill:#8b9cbe" d="M 6.5,2 C 5.669,2 5,2.669 5,3.5 V 4 C 5,3.169 5.669,2.5 6.5,2.5 h 11 C 18.331,2.5 19,3.169 19,4 V 3.5 C 19,2.669 18.331,2 17.5,2 Z"/>
</svg>
