<svg xmlns="http://www.w3.org/2000/svg" width="24" height="24" version="1">
 <rect style="opacity:0.2" width="20" height="20" x="2" y="2.5" rx="1" ry="1"/>
 <rect style="fill:#efe1cb" width="20" height="20" x="2" y="2" rx="1" ry="1"/>
 <path style="fill:#d8b67e" d="M 4.5,2 2,4.5 4.5,7 7,4.5 Z M 7,4.5 9.5,7 12,4.5 9.5,2 Z m 5,0 L 14.5,7 17,4.5 14.5,2 Z m 5,0 L 19.5,7 22,4.5 19.5,2 Z M 19.5,7 17,9.5 19.5,12 22,9.5 Z m 0,5 -2.5,2.5 2.5,2.5 2.5,-2.5 z m 0,5 L 17,19.5 19.5,22 22,19.5 Z M 17,19.5 14.5,17 12,19.5 14.5,22 Z m -5,0 L 9.5,17 7,19.5 9.5,22 Z M 7,19.5 4.5,17 2,19.5 4.5,22 Z M 4.5,17 7,14.5 4.5,12 2,14.5 Z M 4.5,12 7,9.5 4.5,7 2,9.5 Z M 7,9.5 9.5,12 12,9.5 9.5,7 Z m 5,0 L 14.5,12 17,9.5 14.5,7 Z M 14.5,12 12,14.5 14.5,17 17,14.5 Z M 12,14.5 9.5,12 7,14.5 9.5,17 Z"/>
 <path style="opacity:0.1" d="M 4.5 2 L 2 4.5 L 2.25 4.75 L 4.5 2.5 L 6.75 4.75 L 7 4.5 L 4.5 2 z M 7 4.5 L 7.25 4.75 L 9.5 2.5 L 11.75 4.75 L 12 4.5 L 9.5 2 L 7 4.5 z M 12 4.5 L 12.25 4.75 L 14.5 2.5 L 16.75 4.75 L 17 4.5 L 14.5 2 L 12 4.5 z M 17 4.5 L 17.25 4.75 L 19.5 2.5 L 21.75 4.75 L 22 4.5 L 19.5 2 L 17 4.5 z M 4.5 7 L 2 9.5 L 2.25 9.75 L 4.5 7.5 L 6.75 9.75 L 7 9.5 L 4.5 7 z M 7 9.5 L 7.25 9.75 L 9.5 7.5 L 11.75 9.75 L 12 9.5 L 9.5 7 L 7 9.5 z M 12 9.5 L 12.25 9.75 L 14.5 7.5 L 16.75 9.75 L 17 9.5 L 14.5 7 L 12 9.5 z M 17 9.5 L 17.25 9.75 L 19.5 7.5 L 21.75 9.75 L 22 9.5 L 19.5 7 L 17 9.5 z M 4.5 12 L 2 14.5 L 2.25 14.75 L 4.5 12.5 L 6.75 14.75 L 7 14.5 L 4.5 12 z M 7 14.5 L 7.25 14.75 L 9.5 12.5 L 11.75 14.75 L 12 14.5 L 9.5 12 L 7 14.5 z M 12 14.5 L 12.25 14.75 L 14.5 12.5 L 16.75 14.75 L 17 14.5 L 14.5 12 L 12 14.5 z M 17 14.5 L 17.25 14.75 L 19.5 12.5 L 21.75 14.75 L 22 14.5 L 19.5 12 L 17 14.5 z M 4.5 17 L 2 19.5 L 2.25 19.75 L 4.5 17.5 L 6.75 19.75 L 7 19.5 L 4.5 17 z M 7 19.5 L 7.25 19.75 L 9.5 17.5 L 11.75 19.75 L 12 19.5 L 9.5 17 L 7 19.5 z M 12 19.5 L 12.25 19.75 L 14.5 17.5 L 16.75 19.75 L 17 19.5 L 14.5 17 L 12 19.5 z M 17 19.5 L 17.25 19.75 L 19.5 17.5 L 21.75 19.75 L 22 19.5 L 19.5 17 L 17 19.5 z"/>
 <path style="opacity:0.1" d="M 13.126953,5.5 9.5917969,5.50195 C 9.0002414,5.4732591 9.0996094,5.9726562 9.0996094,5.9726562 l 0.4511718,1.0996094 c 1e-7,0 -3.6831331,4.0475904 -2.1972656,5.5390624 1.5895805,1.595575 4.0018024,-2.159255 4.4726564,-1.292969 1.029063,1.893289 -2.7019472,5.209763 -3.8984376,6.210938 C 7.4048376,17.603317 7,17.998706 7,18.5 c 0,0.554 0.4862476,1 1.0898438,1 H 15.910156 C 16.513752,19.5 17,19.054 17,18.5 17,18.048338 16.671018,17.683528 16.224609,17.558594 15.917718,17.211705 15.465883,16.775017 15.482422,16.328125 15.537462,14.841014 17.0401,12.62859 17,10.529297 16.954067,8.1243854 15.587782,5.983367 13.126953,5.5 Z"/>
 <rect style="fill:#514e48" width="10" height="2" x="7" y="17" rx="1.09" ry="1.163"/>
 <path style="fill:#514e48" d="M 9.5922265,5.0012095 13.126798,5 C 15.587627,5.483367 16.954067,7.6242875 17,10.029199 c 0.0401,2.099293 -1.462181,4.312179 -1.517221,5.79929 C 15.458019,16.49751 16.509658,17.161966 16.5,17.5 L 7.4119155,17.46576 c 0,0 5.6244065,-4.420068 4.4135845,-6.64776 C 11.354646,9.951714 8.942682,13.707075 7.3531015,12.1115 5.867234,10.620028 9.5514335,6.571499 9.5514335,6.571499 L 9.0991,5.4726065 c 0,0 -0.098429,-0.500089 0.4931265,-0.471395 z"/>
 <path style="opacity:0.2;fill:#8b9cbe" d="M 3,2 C 2.446,2 2,2.446 2,3 v 0.5 c 0,-0.554 0.446,-1 1,-1 h 18 c 0.554,0 1,0.446 1,1 V 3 C 22,2.446 21.554,2 21,2 Z"/>
</svg>
