<svg xmlns="http://www.w3.org/2000/svg" width="24" height="24" version="1">
 <rect style="fill:#b2bfd9" width="20" height="19.998" x="-22" y="-22" rx="10" ry="9.999" transform="matrix(0,-1,-1,0,0,0)"/>
 <path style="fill:#8b9cbe" d="M 10.189453 2.6757812 C 9.4824384 2.8108914 8.8048543 3.0234411 8.1640625 3.3046875 A 1.4999 1.5 0 0 0 9.3105469 3.4101562 A 1.4999 1.5 0 0 0 10.189453 2.6757812 z M 13.197266 2.7753906 A 1.4999 1.5 0 0 0 12.798828 2.8417969 A 1.4999 1.5 0 0 0 11.816406 4.7226562 A 1.4999 1.5 0 0 0 13.695312 5.7050781 A 1.4999 1.5 0 0 0 14.677734 3.8261719 A 1.4999 1.5 0 0 0 13.197266 2.7753906 z M 15.103516 3.0234375 A 1.4999 1.5 0 0 0 15.15625 3.6757812 A 1.4999 1.5 0 0 0 17.035156 4.6582031 A 1.4999 1.5 0 0 0 17.605469 4.3261719 C 16.84915 3.7744169 16.008519 3.3335433 15.103516 3.0234375 z M 9.859375 3.8203125 A 1.4999 1.5 0 0 0 9.4589844 3.8886719 A 1.4999 1.5 0 0 0 8.4765625 5.7675781 A 1.4999 1.5 0 0 0 10.357422 6.7519531 A 1.4999 1.5 0 0 0 11.339844 4.8710938 A 1.4999 1.5 0 0 0 9.859375 3.8203125 z M 6.5195312 4.8671875 A 1.4999 1.5 0 0 0 6.1210938 4.9335938 A 1.4999 1.5 0 0 0 5.1367188 6.8144531 A 1.4999 1.5 0 0 0 7.0175781 7.796875 A 1.4999 1.5 0 0 0 8 5.9179688 A 1.4999 1.5 0 0 0 6.5195312 4.8671875 z M 17.583984 5.0683594 A 1.4999 1.5 0 0 0 17.185547 5.1367188 A 1.4999 1.5 0 0 0 16.201172 7.015625 A 1.4999 1.5 0 0 0 18.082031 7.9980469 A 1.4999 1.5 0 0 0 19.064453 6.1191406 A 1.4999 1.5 0 0 0 17.583984 5.0683594 z M 14.244141 6.1152344 A 1.4999 1.5 0 0 0 13.845703 6.1816406 A 1.4999 1.5 0 0 0 12.863281 8.0625 A 1.4999 1.5 0 0 0 14.742188 9.0449219 A 1.4999 1.5 0 0 0 15.724609 7.1660156 A 1.4999 1.5 0 0 0 14.244141 6.1152344 z M 4.328125 6.3964844 C 3.7765777 7.1526334 3.3355094 7.9917809 3.0253906 8.8964844 A 1.4999 1.5 0 0 0 3.6777344 8.84375 A 1.4999 1.5 0 0 0 4.6601562 6.9628906 A 1.4999 1.5 0 0 0 4.328125 6.3964844 z M 10.904297 7.1601562 A 1.4999 1.5 0 0 0 10.505859 7.2285156 A 1.4999 1.5 0 0 0 9.5234375 9.1074219 A 1.4999 1.5 0 0 0 11.402344 10.091797 A 1.4999 1.5 0 0 0 12.386719 8.2109375 A 1.4999 1.5 0 0 0 10.904297 7.1601562 z M 20.695312 8.1601562 A 1.4999 1.5 0 0 0 20.587891 9.3085938 A 1.4999 1.5 0 0 0 21.326172 10.189453 C 21.19101 9.481013 20.977119 8.8020928 20.695312 8.1601562 z M 7.5664062 8.2070312 A 1.4999 1.5 0 0 0 7.1660156 8.2734375 A 1.4999 1.5 0 0 0 6.1835938 10.154297 A 1.4999 1.5 0 0 0 8.0644531 11.136719 A 1.4999 1.5 0 0 0 9.046875 9.2578125 A 1.4999 1.5 0 0 0 7.5664062 8.2070312 z M 18.630859 8.4082031 A 1.4999 1.5 0 0 0 18.230469 8.4765625 A 1.4999 1.5 0 0 0 17.248047 10.355469 A 1.4999 1.5 0 0 0 19.126953 11.339844 A 1.4999 1.5 0 0 0 20.111328 9.4589844 A 1.4999 1.5 0 0 0 18.630859 8.4082031 z M 4.2265625 9.2519531 A 1.4999 1.5 0 0 0 3.8261719 9.3203125 A 1.4999 1.5 0 0 0 2.84375 11.199219 A 1.4999 1.5 0 0 0 4.7226562 12.183594 A 1.4999 1.5 0 0 0 5.7070312 10.302734 A 1.4999 1.5 0 0 0 4.2265625 9.2519531 z M 15.289062 9.4550781 A 1.4999 1.5 0 0 0 14.892578 9.5214844 A 1.4999 1.5 0 0 0 13.908203 11.402344 A 1.4999 1.5 0 0 0 15.789062 12.384766 A 1.4999 1.5 0 0 0 16.771484 10.505859 A 1.4999 1.5 0 0 0 15.289062 9.4550781 z M 11.951172 10.5 A 1.4999 1.5 0 0 0 11.552734 10.568359 A 1.4999 1.5 0 0 0 10.570312 12.449219 A 1.4999 1.5 0 0 0 12.449219 13.431641 A 1.4999 1.5 0 0 0 13.431641 11.550781 A 1.4999 1.5 0 0 0 11.951172 10.5 z M 8.6113281 11.546875 A 1.4999 1.5 0 0 0 8.2128906 11.615234 A 1.4999 1.5 0 0 0 7.2304688 13.494141 A 1.4999 1.5 0 0 0 9.109375 14.476562 A 1.4999 1.5 0 0 0 10.091797 12.597656 A 1.4999 1.5 0 0 0 8.6113281 11.546875 z M 19.675781 11.748047 A 1.4999 1.5 0 0 0 19.277344 11.816406 A 1.4999 1.5 0 0 0 18.294922 13.695312 A 1.4999 1.5 0 0 0 20.173828 14.679688 A 1.4999 1.5 0 0 0 21.15625 12.798828 A 1.4999 1.5 0 0 0 19.675781 11.748047 z M 5.2714844 12.591797 A 1.4999 1.5 0 0 0 4.8730469 12.660156 A 1.4999 1.5 0 0 0 3.890625 14.541016 A 1.4999 1.5 0 0 0 5.7695312 15.523438 A 1.4999 1.5 0 0 0 6.7519531 13.642578 A 1.4999 1.5 0 0 0 5.2714844 12.591797 z M 16.335938 12.794922 A 1.4999 1.5 0 0 0 15.9375 12.863281 A 1.4999 1.5 0 0 0 14.955078 14.742188 A 1.4999 1.5 0 0 0 16.833984 15.724609 A 1.4999 1.5 0 0 0 17.816406 13.845703 A 1.4999 1.5 0 0 0 16.335938 12.794922 z M 2.6757812 13.810547 C 2.8108789 14.518347 3.0251057 15.196466 3.3066406 15.837891 A 1.4999 1.5 0 0 0 3.4140625 14.689453 A 1.4999 1.5 0 0 0 2.6757812 13.810547 z M 12.998047 13.839844 A 1.4999 1.5 0 0 0 12.599609 13.908203 A 1.4999 1.5 0 0 0 11.615234 15.789062 A 1.4999 1.5 0 0 0 13.496094 16.771484 A 1.4999 1.5 0 0 0 14.478516 14.890625 A 1.4999 1.5 0 0 0 12.998047 13.839844 z M 9.6582031 14.886719 A 1.4999 1.5 0 0 0 9.2597656 14.955078 A 1.4999 1.5 0 0 0 8.2753906 16.833984 A 1.4999 1.5 0 0 0 10.15625 17.816406 A 1.4999 1.5 0 0 0 11.138672 15.9375 A 1.4999 1.5 0 0 0 9.6582031 14.886719 z M 20.728516 15.087891 A 1.4999 1.5 0 0 0 20.324219 15.15625 A 1.4999 1.5 0 0 0 19.339844 17.035156 A 1.4999 1.5 0 0 0 19.673828 17.605469 C 20.225749 16.8489 20.666344 16.008869 20.976562 15.103516 A 1.4999 1.5 0 0 0 20.728516 15.087891 z M 6.3183594 15.931641 A 1.4999 1.5 0 0 0 5.9199219 16 A 1.4999 1.5 0 0 0 4.9355469 17.880859 A 1.4999 1.5 0 0 0 6.8164062 18.863281 A 1.4999 1.5 0 0 0 7.7988281 16.982422 A 1.4999 1.5 0 0 0 6.3183594 15.931641 z M 17.382812 16.134766 A 1.4999 1.5 0 0 0 16.984375 16.203125 A 1.4999 1.5 0 0 0 16 18.082031 A 1.4999 1.5 0 0 0 17.880859 19.064453 A 1.4999 1.5 0 0 0 18.863281 17.185547 A 1.4999 1.5 0 0 0 17.382812 16.134766 z M 14.044922 17.179688 A 1.4999 1.5 0 0 0 13.644531 17.248047 A 1.4999 1.5 0 0 0 12.662109 19.128906 A 1.4999 1.5 0 0 0 14.541016 20.111328 A 1.4999 1.5 0 0 0 15.525391 18.230469 A 1.4999 1.5 0 0 0 14.044922 17.179688 z M 10.705078 18.226562 A 1.4999 1.5 0 0 0 10.306641 18.294922 A 1.4999 1.5 0 0 0 9.3222656 20.173828 A 1.4999 1.5 0 0 0 11.203125 21.158203 A 1.4999 1.5 0 0 0 12.185547 19.277344 A 1.4999 1.5 0 0 0 10.705078 18.226562 z M 7.3652344 19.273438 A 1.4999 1.5 0 0 0 6.9648438 19.339844 A 1.4999 1.5 0 0 0 6.3964844 19.673828 C 7.1529729 20.225767 7.9932655 20.666304 8.8984375 20.976562 A 1.4999 1.5 0 0 0 8.8457031 20.324219 A 1.4999 1.5 0 0 0 8.8457031 20.322266 A 1.4999 1.5 0 0 0 7.3652344 19.273438 z M 15.078125 20.521484 A 1.4999 1.5 0 0 0 14.691406 20.587891 A 1.4999 1.5 0 0 0 13.8125 21.326172 C 14.520145 21.1911 15.196625 20.976791 15.837891 20.695312 A 1.4999 1.5 0 0 0 15.078125 20.521484 z"/>
 <path style="opacity:0.2;fill:#8b9cbe" d="M 12,2 C 6.4605,2 2.0009,6.46 2.0009,12 c 0,0.084 -0.002,0.1665 0,0.25 C 2.1331,6.827 6.5445,2.5 12,2.5 c 5.4555,0 9.8671,4.327 9.9991,9.75 0.002,-0.0835 0,-0.166 0,-0.25 0,-5.54 -4.459,-10 -9.999,-10 z"/>
 <path style="opacity:0.2" d="m 2.0067,12.25 c -0.00205,0.0835 -0.00585,0.166 -0.00585,0.25 0,5.54 4.4596,10 9.9991,10 5.5395,0 9.9991,-4.46 9.9991,-10 0,-0.084 -0.004,-0.1665 -0.006,-0.25 -0.132,5.423 -4.537,9.75 -9.993,9.75 -5.4555,0 -9.8611,-4.327 -9.9931,-9.75 z"/>
</svg>
