<svg xmlns="http://www.w3.org/2000/svg" width="24" height="24" version="1">
 <path style="opacity:0.2" d="m 6.2148647,2.3611718 c -0.045395,0.00465 -0.088954,0.02528 -0.1230479,0.059571 L 4.514656,3.9979033 c -0.066337,0.066527 -0.07918,0.1694503 -0.030274,0.250002 l 1.8466938,3.0429922 c -0.327631,0.5508078 -0.58967,1.1440309 -0.7773495,1.7705217 l -3.3916279,0.70606 C 2.0677434,9.7870093 1.999988,9.8708485 1.999988,9.9676762 v 2.2304858 c 0,0.09435 0.064359,0.176267 0.1552747,0.198244 L 5.4472803,13.2011 c 0.1755278,0.72558 0.4471494,1.412747 0.8066467,2.044938 l -1.905288,2.905295 c -0.053155,0.0812 -0.042309,0.188443 0.026367,0.256838 l 1.5781372,1.578137 c 0.066338,0.06615 0.1691108,0.07896 0.2500019,0.03028 l 2.9863512,-1.813491 c 0.5864526,0.338417 1.2182837,0.604559 1.8867337,0.785162 l 0.696294,3.349636 c 0.0196,0.0949 0.103992,0.162109 0.200196,0.162109 h 2.231463 c 0.0938,0 0.175856,-0.06423 0.198245,-0.156251 l 0.820319,-3.355495 c 0.689047,-0.185957 1.340685,-0.463592 1.94142,-0.817389 l 2.942406,1.928726 c 0.0809,0.05326 0.187192,0.04329 0.255861,-0.02539 l 1.578137,-1.578138 c 0.06674,-0.06671 0.07833,-0.169655 0.0293,-0.250002 l -2.00783,-2.542993 C 19.060517,14.466491 19.172013,14.592526 18.842892,14.241147 L 10.529351,5.5047511 9.3613731,4.3699765 C 9.1701997,4.4368546 9.2465553,4.3944217 9.336958,4.3533749 L 6.3486548,2.3933987 c -0.040555,-0.026535 -0.08743,-0.036897 -0.1328136,-0.032227 z m 3.1220943,1.992203 0.02246,0.014649 c 0.00105,9.5e-4 0.0017,0.0017 0.00195,0.00195 C 9.5574811,4.263147 9.437952,4.3075148 9.336954,4.3533718 Z"/>
 <path id="path5692_2_-3" style="fill:#8e8e8e" d="m 6.2148647,1.8611679 c -0.045395,0.00465 -0.088954,0.02528 -0.1230479,0.059571 L 4.514656,3.4978994 c -0.066337,0.066527 -0.07918,0.1694503 -0.030274,0.250002 l 1.8466938,3.0429922 c -0.327631,0.5508078 -0.58967,1.1440309 -0.7773495,1.7705217 l -3.3916279,0.70606 C 2.0677434,9.2870055 1.999988,9.3708446 1.999988,9.4676724 v 2.2304856 c 0,0.09435 0.064359,0.176268 0.1552747,0.198244 l 3.2920176,0.804694 c 0.1755278,0.72558 0.4471494,1.412747 0.8066467,2.044938 l -1.905288,2.905295 c -0.053155,0.0812 -0.042309,0.188443 0.026367,0.256838 l 1.5781372,1.578138 c 0.066338,0.06615 0.1691108,0.07895 0.2500019,0.03027 l 2.9863512,-1.813491 c 0.5864526,0.338417 1.2182837,0.604559 1.8867337,0.785162 l 0.696294,3.349636 c 0.0196,0.0949 0.103992,0.162109 0.200196,0.162109 h 2.231463 c 0.0938,0 0.175856,-0.06423 0.198245,-0.156251 l 0.820319,-3.355495 c 0.689047,-0.185957 1.340685,-0.463592 1.94142,-0.817389 l 2.942406,1.928726 c 0.0809,0.05326 0.187192,0.04329 0.255861,-0.02539 l 1.578137,-1.578137 c 0.06674,-0.06671 0.07833,-0.169656 0.0293,-0.250002 l -2.007826,-2.54299 c -0.901528,-1.236576 -0.790032,-1.110541 -1.119153,-1.46192 L 10.529351,5.0047472 9.3613731,3.8699726 C 9.1701997,3.9368508 9.2465553,3.8944178 9.336958,3.853371 L 6.3486548,1.8933948 C 6.3080995,1.8668596 6.2612251,1.856498 6.2158412,1.861168 Z m 3.1220943,1.992203 0.02246,0.014649 c 0.00105,9.5e-4 0.0017,0.0017 0.00195,0.00196 0.1961121,-0.1068268 0.076583,-0.062459 -0.024415,-0.016602 z"/>
 <path style="opacity:0.1;fill:#8b9cbe" d="m 6.2148647,1.8611679 c -0.045395,0.00465 -0.088954,0.02528 -0.1230479,0.059571 L 4.514656,3.4978994 c -0.066337,0.066527 -0.07918,0.1694503 -0.030274,0.250002 l 0.1054696,0.174806 1.5019649,-1.5019648 c 0.034095,-0.034291 0.077652,-0.054921 0.1230479,-0.059571 h 0.001 c 0.045385,-0.00467 0.092258,0.00569 0.1328136,0.032227 l 2.9883042,1.9599761 c 0.1009982,-0.045857 0.2205262,-0.090225 0.024415,0.016602 l 1.1679788,1.1347748 8.313541,8.7363955 c 0.32912,0.351379 0.217624,0.225344 1.119149,1.461925 l 1.88478,2.386738 0.09375,-0.09375 c 0.06674,-0.06671 0.07833,-0.169656 0.0293,-0.250002 l -2.007855,-2.54299 C 19.060517,13.966487 19.172013,14.092522 18.842892,13.741143 L 10.529351,5.0047472 9.3613731,3.8699726 C 9.1701997,3.9368508 9.2465553,3.8944178 9.336958,3.853371 L 6.3486548,1.8933948 C 6.3080995,1.8668596 6.2612251,1.856498 6.2158412,1.861168 Z m 3.1220943,1.992203 0.02246,0.014649 c 0.00105,9.5e-4 0.0017,0.0017 0.00195,0.00196 0.1961121,-0.1068268 0.076583,-0.062459 -0.024415,-0.016602 z m 0.024415,0.5166056 c -2.5e-4,-2.55e-4 -9e-4,-0.00101 -0.00195,-0.00195 l -0.02246,-0.014649 c -0.090403,0.041047 -0.1667593,0.08348 0.024415,0.016602 z M 6.186545,7.0526146 C 5.9271835,7.5288228 5.7122598,8.0322197 5.5537276,8.5614153 l -3.3916289,0.70606 C 2.0677434,9.2870055 1.999988,9.3708446 1.999988,9.4676724 v 0.5000038 c 0,-0.096828 0.067755,-0.1806669 0.1621107,-0.200197 l 3.3916279,-0.70606 C 5.7414061,8.4349284 6.0034451,7.8417053 6.3310761,7.2908975 Z M 6.1084194,14.967715 4.34864,17.651329 c -0.053156,0.0812 -0.04231,0.188443 0.026366,0.256838 l 0.080079,0.08008 1.7988418,-2.742208 c -0.051654,-0.09084 -0.097507,-0.185265 -0.1455086,-0.278323 z"/>
 <ellipse id="ellipse929" style="opacity:0.1" cx="13.5" cy="11" rx="6.5" ry="6.5"/>
 <ellipse id="ellipse8" style="fill:#365ee6" cx="13.5" cy="10.5" rx="6.5" ry="6.5"/>
 <path style="opacity:0.1" class="ColorScheme-Text" d="m 13.434072,6.500466 a 4.5006796,4.5001058 0 0 1 3.248049,1.3183911 4.5006796,4.5001058 0 0 1 0,6.3634309 4.5006796,4.5001058 0 0 1 -6.364242,0 4.5006796,4.5001058 0 0 1 0,-6.3634309 4.5006796,4.5001058 0 0 1 3.116193,-1.3183911 z m 0.123065,0.5625138 a 3.9380947,3.9375932 0 0 0 -2.63272,0.9646219 l 0.790035,0.7899359 A 2.8127454,4.5003929 45.008322 0 1 14.765816,7.2750204 3.9380947,3.9375932 0 0 0 13.557137,7.0629798 Z M 15.260275,7.797982 A 2.2501964,3.9378439 45.007184 0 0 12.113316,9.2163501 L 13.5,10.602858 16.060201,8.0429827 A 2.2501964,3.9378439 45.007184 0 0 15.260275,7.797982 Z m -4.73692,0.624038 a 3.9380947,3.9375932 0 0 0 -0.75158,3.831023 2.8127454,4.5003929 45.008322 0 1 1.547109,-3.0355945 z m 5.93571,0.017581 -2.561299,2.560974 1.387782,1.387605 a 2.2501964,3.9378439 45.007184 0 0 1.173517,-3.948579 z m -4.744613,1.1733674 a 2.2501964,3.9378439 45.007184 0 0 -1.173517,3.9485786 l 2.5613,-2.560973 z m 5.513772,0.1351346 a 2.8127454,4.5003929 45.008322 0 1 -1.547109,3.035595 l 0.79553,0.795429 A 3.9380947,3.9375932 0 0 0 17.228224,9.748103 Z M 13.5,11.398288 10.939799,13.958163 a 2.2501964,3.9378439 45.007184 0 0 3.946885,-1.173367 z m 1.785548,1.78532 a 2.8127454,4.5003929 45.008322 0 1 -3.051364,1.542518 3.9380947,3.9375932 0 0 0 3.841401,-0.752581 z"/>
 <path style="fill:#fafafa" class="ColorScheme-Text" d="m 13.434072,6.0004675 a 4.5006796,4.5001058 0 0 1 3.248049,1.3183911 4.5006796,4.5001058 0 0 1 0,6.3634314 4.5006796,4.5001058 0 0 1 -6.364242,0 4.5006796,4.5001058 0 0 1 0,-6.3634314 4.5006796,4.5001058 0 0 1 3.116193,-1.3183911 z m 0.123065,0.5625138 a 3.9380947,3.9375932 0 0 0 -2.63272,0.9646219 l 0.790035,0.7899359 A 2.8127454,4.5003929 45.008322 0 1 14.765816,6.7750219 3.9380947,3.9375932 0 0 0 13.557137,6.5629813 Z m 1.703138,0.7350022 A 2.2501964,3.9378439 45.007184 0 0 12.113316,8.7163516 L 13.5,10.10286 16.060201,7.5429842 A 2.2501964,3.9378439 45.007184 0 0 15.260275,7.2979835 Z m -4.73692,0.624038 A 3.9380947,3.9375932 0 0 0 9.771775,11.753045 2.8127454,4.5003929 45.008322 0 1 11.318884,8.71745 Z m 5.93571,0.017581 -2.561299,2.5609745 1.387782,1.387605 a 2.2501964,3.9378439 45.007184 0 0 1.173517,-3.9485795 z m -4.744613,1.1733674 a 2.2501964,3.9378439 45.007184 0 0 -1.173517,3.9485791 l 2.5613,-2.560973 z m 5.513772,0.1351346 A 2.8127454,4.5003929 45.008322 0 1 15.681115,12.2837 l 0.79553,0.795429 A 3.9380947,3.9375932 0 0 0 17.228224,9.2481045 Z M 13.5,10.89829 10.939799,13.458165 a 2.2501964,3.9378439 45.007184 0 0 3.946885,-1.173367 z m 1.785548,1.78532 a 2.8127454,4.5003929 45.008322 0 1 -3.051364,1.542518 3.9380947,3.9375932 0 0 0 3.841401,-0.752581 z"/>
 <path id="ellipse933" style="opacity:0.1;fill:#8b9cbe" d="M 13.5 4 A 6.5 6.500001 0 0 0 7 10.5 A 6.5 6.500001 0 0 0 7.0097656 10.800781 A 6.5 6.500001 0 0 1 13.5 4.5 A 6.5 6.500001 0 0 1 19.990234 10.699219 A 6.5 6.500001 0 0 0 20 10.5 A 6.5 6.500001 0 0 0 13.5 4 z"/>
</svg>
