<svg xmlns="http://www.w3.org/2000/svg" width="24" height="24" version="1.1">
 <rect style="opacity:0.2" width="20" height="20" x="2" y="2.5" rx="1" ry="1"/>
 <rect style="fill:#2e92dd" width="20" height="20" x="2" y="2" rx="1" ry="1"/>
 <path style="opacity:0.2" d="M 5,5.5 V 9.003906 L 7.7871095,12.508789 9.345703,5.5 Z m 5.369141,0 L 9.5371095,9.213867 17.317383,5.5 Z M 19,5.8046875 12.704102,8.834961 19,11.898438 Z M 5,10.606446 V 15.5 h 3.908203 z m 10.561524,0.75 L 17.472656,19.5 H 19 V 13.048828 Z M 15.285156,14.59668 11.448242,19.5 h 4.97168 z M 5,16.5 v 3 h 5.155274 l 2.360351,-3 z"/>
 <path style="opacity:0.2;fill:#8b9cbe" d="M 3,2 C 2.446,2 2,2.446 2,3 v 0.5 c 0,-0.554 0.446,-1 1,-1 h 18 c 0.554,0 1,0.446 1,1 V 3 C 22,2.446 21.554,2 21,2 Z"/>
 <path style="fill:#8b9cbe" d="M 5 5 L 5 8.5039062 L 7.7871094 12.007812 L 9.3457031 5 L 5 5 z M 10.369141 5 L 9.5371094 8.7128906 L 17.318359 5 L 10.369141 5 z M 19 5.3046875 L 12.705078 8.3359375 L 19 11.398438 L 19 5.3046875 z M 5 10.107422 L 5 15 L 8.9082031 15 L 5 10.107422 z M 15.5625 10.857422 L 17.472656 19 L 19 19 L 19 12.548828 L 15.5625 10.857422 z M 15.285156 14.097656 L 11.447266 19 L 16.419922 19 L 15.285156 14.097656 z M 5 16 L 5 19 L 10.15625 19 L 12.515625 16 L 5 16 z"/>
</svg>
