<svg xmlns="http://www.w3.org/2000/svg" width="24" height="24" version="1.1">
 <path style="opacity:.2" d="m16 13.3h5.35l-5.35 9.2z"/>
 <path style="fill:#4479d9" d="m16 12.8h5.35l-5.35 9.2z"/>
 <path style="opacity:.2" d="m22 10.5a10 8 0 0 1-10 8 10 8 0 0 1-10-8 10 8 0 0 1 10-8 10 8 0 0 1 10 8z"/>
 <path style="fill:#47b4f4" d="m22 10a10 8 0 0 1-10 8 10 8 0 0 1-10-8 10 8 0 0 1 10-8 10 8 0 0 1 10 8z"/>
 <path style="opacity:.1" d="m13 5a5 5.5 0 0 0-0.990234 0.1132812 5 5.5 0 0 1 3.990234 5.3867188 5 5.5 0 0 1-4.009766 5.386719 5 5.5 0 0 0 1.009766 0.113281 5 5.5 0 0 0 5-5.5 5 5.5 0 0 0-5-5.5zm-5 1.5a1 1 0 0 0-1 1 1 1 0 0 0 1 1 1 1 0 0 0 1-1 1 1 0 0 0-1-1zm2 3c-0.554 0-1 0.446-1 1s0.446 1 1 1h3c0.554 0 1-0.446 1-1s-0.446-1-1-1zm-2 3c-0.5523 0-1 0.447715-1 1s0.447715 1 1 1c0.353485 0 0.5 1 0.5 1s0.5-1.8012 0.5-2c0-0.5523-0.447715-1-1-1z"/>
 <path style="fill:#2e4e8a" d="m13 4.5a5 5.5 0 0 0-0.990234 0.1132812 5 5.5 0 0 1 3.990234 5.3867188 5 5.5 0 0 1-4.009766 5.386719 5 5.5 0 0 0 1.009766 0.113281 5 5.5 0 0 0 5-5.5 5 5.5 0 0 0-5-5.5zm-5 1.5a1 1 0 0 0-1 1 1 1 0 0 0 1 1 1 1 0 0 0 1-1 1 1 0 0 0-1-1zm2 3c-0.554 0-1 0.446-1 1s0.446 1 1 1h3c0.554 0 1-0.446 1-1s-0.446-1-1-1zm-2 3c-0.5523 0-1 0.447715-1 1s0.447715 1 1 1c0.353485 0 0.5 1 0.5 1s0.5-1.8012 0.5-2c0-0.5523-0.447715-1-1-1z"/>
 <path style="fill:#8b9cbe;opacity:.2" d="M 12 2 A 10 8 0 0 0 2 10 A 10 8 0 0 0 2.0136719 10.292969 A 10 8 0 0 1 12 2.5 A 10 8 0 0 1 21.986328 10.207031 A 10 8 0 0 0 22 10 A 10 8 0 0 0 12 2 z"/>
</svg>
