<svg xmlns="http://www.w3.org/2000/svg" height="24" width="24" version="1.1">
 <g transform="translate(1,1)">
  <path style="opacity:.2" d="m1 6v10a4.5 1.5 0 0 0 4.5 1.5 4.5 1.5 0 0 0 4.5 -1.5v-10z"/>
  <path style="fill:#24bc0d" d="m1 5.5v10a4.5 1.5 0 0 0 4.5 1.5 4.5 1.5 0 0 0 4.5 -1.5v-10z"/>
  <ellipse style="opacity:.2" rx="4.5" ry="1.5" cy="6" cx="5.5"/>
  <ellipse style="fill:#61dc3f" rx="4.5" ry="1.5" cy="5.5" cx="5.5"/>
  <path d="m21 17.5-6-13-6 13s0 2 6 2 6-2 6-2z" style="opacity:.2"/>
  <path d="m21 17-6-13-6 13s0 2 6 2 6-2 6-2z" style="fill:#3251e7"/>
  <path style="opacity:.2;fill:#8b9cbe" d="m5.5 4a4.5 1.5 0 0 0 -4.5 1.5 4.5 1.5 0 0 0 0.0664062 0.2539062 4.5 1.5 0 0 1 4.4335938 -1.2539062 4.5 1.5 0 0 1 4.4335938 1.2441406 4.5 1.5 0 0 0 0.0664062 -0.2441406 4.5 1.5 0 0 0 -4.5 -1.5z"/>
  <path style="opacity:.2;fill:#8b9cbe" d="m15 4-6 13s0.00107 0.122793 0.089844 0.304688l5.910156-12.804688 5.910156 12.804688c0.088778-0.181895 0.089844-0.304688 0.089844-0.304688z"/>
 </g>
</svg>
