<svg xmlns="http://www.w3.org/2000/svg" width="24" height="24" version="1">
 <rect style="opacity:0.2" width="20" height="20" x="2" y="2.5" rx="6" ry="6"/>
 <rect style="fill:#7843b1" width="20" height="20" x="2" y="2" rx="6" ry="6"/>
 <path style="opacity:0.2" d="M 11.5,6.5 11.126953,7.6269531 10,8 11.126953,8.3730469 11.5,9.5 11.873047,8.3730469 13,8 11.873047,7.6269531 Z M 6.5507812,6.5507812 5.9296875,8.4296875 4.0507812,9.0507812 5.9296875,9.671875 6.5507812,11.550781 7.171875,9.671875 9.0507812,9.0507812 7.171875,8.4296875 Z m 7.8984378,0.75 -0.185547,0.5625 -0.564453,0.1875 0.564453,0.1855469 0.185547,0.5644531 0.1875,-0.5644531 0.5625,-0.1855469 -0.5625,-0.1875 z M 15.498047,9.5 c 0.557712,0.675792 0.896484,1.539735 0.896484,2.484375 0,2.159099 -1.750966,3.910156 -3.910156,3.910156 -0.94464,0 -1.808565,-0.338772 -2.484375,-0.896484 C 10.472725,17.013057 12.280353,18.5 14.439453,18.5 16.958463,18.5 19,16.458463 19,13.939453 19,11.780263 17.513057,9.9726795 15.498047,9.5 Z"/>
 <path style="opacity:0.1;fill:#8b9cbe" d="M 8,2 C 4.676,2 2,4.676 2,8 v 0.5 c 0,-3.324 2.676,-6 6,-6 h 8 c 3.324,0 6,2.676 6,6 V 8 C 22,4.676 19.324,2 16,2 Z"/>
 <path style="fill:#8b9cbe" d="m 15.497758,8.9999725 c 0.557712,0.6757925 0.895932,1.5395405 0.895932,2.4841805 0,2.159099 -1.75032,3.90951 -3.90951,3.90951 -0.94464,0 -1.80837,-0.338211 -2.48418,-0.895923 C 10.472725,16.51275 12.27979,18 14.43889,18 16.9579,18 19,15.9579 19,13.43889 19,11.2797 17.51275,9.4726795 15.49774,9 Z"/>
 <path style="fill:#8b9cbe" d="M 6.55,11.05 5.9290955,9.170904 4.05,8.55 5.9290955,7.9290955 6.55,6.0499995 7.1709045,7.9290955 9.05,8.55 7.1709045,9.170904 Z"/>
 <path style="fill:#8b9cbe" d="M 11.5,9 11.127458,7.872542 10,7.5 11.127458,7.1274575 11.5,5.9999995 11.872543,7.1274575 13,7.5 11.872543,7.872542 Z"/>
 <path style="fill:#8b9cbe" d="M 14.45,8.3 14.263729,7.736271 13.7,7.55 14.263729,7.363729 14.45,6.7999995 14.636271,7.363729 15.2,7.55 14.636271,7.736271 Z"/>
</svg>
