<svg xmlns="http://www.w3.org/2000/svg" width="24" height="24" version="1">
 <path style="fill:#8a5ce7" d="M 3,3 C 2.446,3 2,3.446 2,4 v 16 c 0,0.554 0.446,1 1,1 h 18 c 0.554,0 1,-0.446 1,-1 V 4 C 22,3.446 21.554,3 21,3 Z"/>
 <path style="opacity:0.1;fill:#8b9cbe" d="M 3,3 C 2.446,3 2,3.446 2,4 V 5 C 2,4.446 2.446,3.5 3,3.5 h 18 c 0.554,0 1,0.946 1,1.5 V 4 C 22,3.446 21.554,3 21,3 Z"/>
 <path style="opacity:0.2" d="m 2,20 v 0.5 c 0,0.554 0.446,1 1,1 h 18 c 0.554,0 1,-0.446 1,-1 V 20 c 0,0.554 -0.446,1 -1,1 H 3 C 2.446,21 2,20.554 2,20 Z"/>
 <circle style="opacity:0.6;fill:#8b9cbe" cx="-12" cy="7" r="1" transform="scale(-1,1)"/>
 <circle style="fill:#8b9cbe" cx="-12" cy="17" r="1" transform="scale(-1,1)"/>
 <circle style="opacity:0.8;fill:#8b9cbe" cx="12" cy="7" r="1" transform="matrix(0,1,1,0,0,0)"/>
 <circle style="opacity:0.4;fill:#8b9cbe" cx="12" cy="17" r="1" transform="matrix(0,1,1,0,0,0)"/>
 <circle style="opacity:0.9;fill:#8b9cbe" cx="16.971" cy="-5" r="1" transform="matrix(0.70710678,0.70710678,0.70710678,-0.70710678,0,0)"/>
 <circle style="opacity:0.5;fill:#8b9cbe" cx="16.971" cy="5" r="1" transform="matrix(0.70710678,0.70710678,0.70710678,-0.70710678,0,0)"/>
 <circle style="opacity:0.3;fill:#8b9cbe" cx="0" cy="-21.971" r="1" transform="rotate(135)"/>
 <circle style="opacity:0.7;fill:#8b9cbe" cx="0" cy="-11.971" r="1" transform="rotate(135)"/>
 <path style="opacity:0.2" d="M 11.032227,7.248047 A 1,1 0 0 0 11,7.5 a 1,1 0 0 0 1,1 1,1 0 0 0 1,-1 A 1,1 0 0 0 12.967774,7.251953 1,1 0 0 1 12,8 1,1 0 0 1 11.032227,7.248047 Z m -1.6005865,1.46582 a 1,1 0 0 1 -0.2597655,0.458008 1,1 0 0 1 -1.4140625,0 1,1 0 0 1 -0.2597655,-0.4560545 1,1 0 0 0 0.2597655,0.9560545 1,1 0 0 0 1.4140625,0 1,1 0 0 0 0.2597655,-0.958008 z m 7.0703125,0 a 1,1 0 0 1 -0.259766,0.458008 1,1 0 0 1 -1.414062,0 1,1 0 0 1 -0.259765,-0.4560545 1,1 0 0 0 0.259765,0.9560545 1,1 0 0 0 1.414062,0 1,1 0 0 0 0.259766,-0.958008 z M 6.0322265,12.248047 A 1,1 0 0 0 6,12.5 a 1,1 0 0 0 1,1 1,1 0 0 0 1,-1 A 1,1 0 0 0 7.9677735,12.251953 1,1 0 0 1 7,13 1,1 0 0 1 6.0322265,12.248047 Z m 9.9999995,0 A 1,1 0 0 0 16,12.5 a 1,1 0 0 0 1,1 1,1 0 0 0 1,-1 A 1,1 0 0 0 17.96777,12.251953 1,1 0 0 1 17,13 1,1 0 0 1 16.032226,12.248047 Z M 9.4316405,15.78418 a 1,1 0 0 1 -0.2597655,0.458007 1,1 0 0 1 -1.4140625,0 1,1 0 0 1 -0.2597655,-0.456054 1,1 0 0 0 0.2597655,0.956054 1,1 0 0 0 1.4140625,0 1,1 0 0 0 0.2597655,-0.958007 z m 7.0703125,0 a 1,1 0 0 1 -0.259766,0.458007 1,1 0 0 1 -1.414062,0 1,1 0 0 1 -0.259765,-0.456054 1,1 0 0 0 0.259765,0.956054 1,1 0 0 0 1.414062,0 1,1 0 0 0 0.259766,-0.958007 z m -5.469726,1.463867 A 1,1 0 0 0 11,17.5 a 1,1 0 0 0 1,1 1,1 0 0 0 1,-1 A 1,1 0 0 0 12.96777,17.251953 1,1 0 0 1 12,18 1,1 0 0 1 11.032227,17.248047 Z"/>
</svg>
