<svg xmlns="http://www.w3.org/2000/svg" width="24" height="24" version="1">
 <rect style="fill:#8e8e8e" width="20" height="20" x="2" y="2" rx="1" ry="1"/>
 <path style="opacity:0.1;fill:#8b9cbe" d="M 3,2 C 2.446,2 2,2.446 2,3 v 0.5 c 0,-0.554 0.446,-1 1,-1 h 18 c 0.554,0 1,0.446 1,1 V 3 C 22,2.446 21.554,2 21,2 Z"/>
 <path style="opacity:0.2" d="m 3,22.5 c -0.554,0 -1,-0.446 -1,-1 V 21 c 0,0.554 0.446,1 1,1 h 18 c 0.554,0 1,-0.446 1,-1 v 0.5 c 0,0.554 -0.446,1 -1,1 z"/>
 <path style="fill:#17191e" d="m 11,9 v 5 H 4.5 v 1 H 12 v -5 h 7.5 V 9 H 12 Z"/>
 <path style="opacity:0.2" d="M 11.5,8.5 A 1.5,1.5 0 0 0 10,10 1.5,1.5 0 0 0 11.5,11.5 1.5,1.5 0 0 0 13,10 1.5,1.5 0 0 0 11.5,8.5 Z m 8,0 A 1.5,1.5 0 0 0 18,10 1.5,1.5 0 0 0 19.5,11.5 1.5,1.5 0 0 0 21,10 1.5,1.5 0 0 0 19.5,8.5 Z m -15,5 A 1.5,1.5 0 0 0 3,15 1.5,1.5 0 0 0 4.5,16.5 1.5,1.5 0 0 0 6,15 1.5,1.5 0 0 0 4.5,13.5 Z m 7,0 A 1.5,1.5 0 0 0 10,15 1.5,1.5 0 0 0 11.5,16.5 1.5,1.5 0 0 0 13,15 1.5,1.5 0 0 0 11.5,13.5 Z"/>
 <path style="fill:#8b9cbe" d="M 11.5 8 A 1.5 1.5 0 0 0 10 9.5 A 1.5 1.5 0 0 0 11.5 11 A 1.5 1.5 0 0 0 13 9.5 A 1.5 1.5 0 0 0 11.5 8 z M 19.5 8 A 1.5 1.5 0 0 0 18 9.5 A 1.5 1.5 0 0 0 19.5 11 A 1.5 1.5 0 0 0 21 9.5 A 1.5 1.5 0 0 0 19.5 8 z M 4.5 13 A 1.5 1.5 0 0 0 3 14.5 A 1.5 1.5 0 0 0 4.5 16 A 1.5 1.5 0 0 0 6 14.5 A 1.5 1.5 0 0 0 4.5 13 z M 11.5 13 A 1.5 1.5 0 0 0 10 14.5 A 1.5 1.5 0 0 0 11.5 16 A 1.5 1.5 0 0 0 13 14.5 A 1.5 1.5 0 0 0 11.5 13 z"/>
</svg>
