<svg xmlns="http://www.w3.org/2000/svg" width="24" height="24" version="1">
 <path style="opacity:0.2" d="M 2.5,4.5 C 2.223,4.5 2,4.723 2,5 v 2 c 0,0.277 0.223,0.5 0.5,0.5 h 3 C 5.777,7.5 6,7.277 6,7 V 5 C 6,4.723 5.777,4.5 5.5,4.5 Z m 16,0 C 18.223,4.5 18,4.723 18,5 v 2 c 0,0.277 0.223,0.5 0.5,0.5 h 3 C 21.777,7.5 22,7.277 22,7 V 5 C 22,4.723 21.777,4.5 21.5,4.5 Z m -16,7 C 2.223,11.5 2,11.723 2,12 v 2 c 0,0.277 0.223,0.5 0.5,0.5 h 3 C 5.777,14.5 6,14.277 6,14 V 12 C 6,11.723 5.777,11.5 5.5,11.5 Z m 16,0 C 18.223,11.5 18,11.723 18,12 v 2 c 0,0.277 0.223,0.5 0.5,0.5 h 3 c 0.277,0 0.5,-0.223 0.5,-0.5 v -2 c 0,-0.277 -0.223,-0.5 -0.5,-0.5 z m 0,7 C 18.223,18.5 18,18.723 18,19 v 2 c 0,0.277 0.223,0.5 0.5,0.5 h 3 c 0.277,0 0.5,-0.223 0.5,-0.5 v -2 c 0,-0.277 -0.223,-0.5 -0.5,-0.5 z"/>
 <rect style="opacity:0.2" width="20" height="14" x="-22.5" y="-19" rx="1.111" ry="1" transform="matrix(0,-1,-1,0,0,0)"/>
 <rect style="fill:#ffcc00" width="4" height="3" x="2" y="4" rx=".5" ry=".5"/>
 <rect style="fill:#ffcc00" width="4" height="3" x="2" y="11" rx=".5" ry=".5"/>
 <rect style="fill:#ffcc00" width="4" height="3" x="18" y="4" rx=".5" ry=".5"/>
 <rect style="fill:#ffcc00" width="4" height="3" x="18" y="11" rx=".5" ry=".5"/>
 <rect style="fill:#ffcc00" width="4" height="3" x="18" y="18" rx=".5" ry=".5"/>
 <path style="opacity:0.2;fill:#8b9cbe" d="M 2.5,4 C 2.223,4 2,4.223 2,4.5 V 5 C 2,4.723 2.223,4.5 2.5,4.5 h 3 C 5.777,4.5 6,4.723 6,5 V 4.5 C 6,4.223 5.777,4 5.5,4 Z m 16,0 C 18.223,4 18,4.223 18,4.5 V 5 c 0,-0.277 0.223,-0.5 0.5,-0.5 h 3 C 21.777,4.5 22,4.723 22,5 V 4.5 C 22,4.223 21.777,4 21.5,4 Z m -16,7 C 2.223,11 2,11.223 2,11.5 V 12 c 0,-0.277 0.223,-0.5 0.5,-0.5 h 3 C 5.777,11.5 6,11.723 6,12 V 11.5 C 6,11.5 5.777,11 5.5,11 Z m 16,0 C 18.223,11 18,11.5 18,11.5 V 12 c 0,-0.277 0.223,-0.5 0.5,-0.5 h 3 c 0.277,0 0.5,0.223 0.5,0.5 V 11.5 C 22,11.223 21.777,11 21.5,11 Z m 0,7 C 18.223,18 18,18.223 18,18.5 V 19 c 0,-0.277 0.223,-0.5 0.5,-0.5 h 3 c 0.277,0 0.5,0.223 0.5,0.5 V 18.5 C 22,18.223 21.777,18 21.5,18 Z"/>
 <rect style="fill:#757d96" width="20" height="14" x="-22" y="-19" rx="1.111" ry="1" transform="matrix(0,-1,-1,0,0,0)"/>
 <rect style="fill:#57c33c" width="4" height="4" x="8" y="10"/>
 <rect style="fill:#ffd735" width="4" height="4" x="12" y="10"/>
 <rect style="fill:#ff741b" width="4" height="4" x="8" y="6"/>
 <rect style="fill:#7994ff" width="4" height="4" x="12" y="6"/>
 <rect style="fill:#dc61b8" width="4" height="4" x="12" y="14"/>
 <path style="opacity:0.1;fill:#8b9cbe" d="M 6,2 C 5.446,2 5,2.4957726 5,3.1113281 v 0.5 C 5,2.9957726 5.446,2.5 6,2.5 h 12 c 0.554,0 1,0.4957726 1,1.1113281 v -0.5 C 19,2.4957726 18.554,2 18,2 Z"/>
 <rect style="opacity:0.2" width="8" height=".5" x="8" y="10"/>
 <rect style="opacity:0.2" width="8" height=".5" x="8" y="14"/>
 <rect style="opacity:0.2" width="4" height=".5" x="12" y="18"/>
</svg>
