<svg xmlns="http://www.w3.org/2000/svg" width="24" height="24" version="1">
 <rect style="opacity:0.2" width="21" height="18" x="2" y="3.5" rx=".955" ry=".947"/>
 <rect style="fill:#4f4f4f" width="20.5" height="17.571" x="2.25" y="3.21" rx=".932" ry=".925"/>
 <path style="fill:#e53626" d="M 2.9545455,3 C 2.732842,3 2.5317623,3.076751 2.3700728,3.2016859 L 2.2032138,3.3672903 C 2.0773325,3.5277641 2,3.7273319 2,3.9473684 V 11.118319 L 10.180753,3 Z"/>
 <path style="fill:#ffae1a" d="M 10.180753,3 2,11.118319 V 18.66766 L 17.787287,3 Z"/>
 <path style="fill:#2dac43" d="M 17.787287,3 2,18.66766 v 1.384971 C 2,20.577473 2.4257273,21 2.9545455,21 h 4.30198 L 23,5.3758225 V 3.9473684 C 23,3.4225263 22.574272,3 22.045455,3 Z"/>
 <path style="fill:#2f66dd" d="M 23,5.3758225 7.2565255,21 H 14.86306 L 23,12.925164 Z"/>
 <path style="fill:#82248f" d="M 23,12.925164 14.86306,21 h 7.182394 C 22.574272,21 23,20.577473 23,20.052631 Z"/>
 <path style="opacity:0.1" d="M 9.676758,3.5 2,11.118164 v 0.5 L 10.180664,3.5 Z m 7.606445,0 L 2,18.667969 v 0.5 L 17.787109,3.5 Z M 23,5.3759765 7.256836,21 H 7.760742 L 23,5.8759765 Z M 23,12.924805 14.863281,21 h 0.503907 L 23,13.424805 Z"/>
 <path style="opacity:0.2;fill:#8b9cbe" d="M 2.9541015,3 C 2.4252834,3 2,3.4224236 2,3.9472656 v 0.5 C 2,3.9224236 2.4252834,3.5 2.9541015,3.5 H 22.045898 C 22.574716,3.5 23,3.9224236 23,4.4472656 v -0.5 C 23,3.4224236 22.574716,3 22.045898,3 Z"/>
 <path style="opacity:0.2" d="m 6.6153193,8.5 9.7e-5,0.973351 0.804965,0.063143 0.1444,0.1894085 -1.435543,6.5532515 -0.220851,0.197352 -0.908387,0.06354 v 0.959898 l 3.999938,5.6e-5 1.24e-4,-0.959848 -0.908196,-0.05537 -0.152897,-0.205218 0.586117,-2.775611 h 0.900365 l 1.2911257,2.525564 c 0.5277,1.007123 0.897888,1.43889 2.038622,1.452249 0.327999,0.0039 0.459949,0.02629 1.344811,0 3.051955,-2.367516 4.609783,-4.371769 4.855914,-5.187674 0.149068,-0.494166 -0.0876,-0.797243 -0.594732,-0.797243 -0.247381,0 -0.530596,0.0968 -0.849264,0.29217 l -0.229342,1.896436 c -0.624618,0.75847 -1.457297,1.584681 -2.471815,2.446615 l 0.886364,-3.459613 c 0.139252,-0.666613 -0.138566,-1.022284 -0.604089,-1.160218 l -1.757271,0.426268 -0.110288,0.362985 0.959703,0.142154 c 0.06672,0.229817 -0.222526,0.929496 -0.368228,1.699573 l -0.467182,2.39133 c -0.0074,0.0246 -0.01201,0.05158 -0.01702,0.07892 -0.302929,-0.151233 -0.493889,-0.42053 -0.713518,-0.828663 l -1.826251,-3.393751 3.338202,-2.7912795 0.868877,-0.102593 -1.4e-4,-0.997066 -3.000005,2.75e-5 1.5e-4,0.9971155 0.585147,0.06306 0.08495,0.2131065 -3.5222317,2.725664 h -0.424715 l 0.651201,-2.772993 0.186873,-0.1894075 0.8233317,-0.063119 -8.6e-5,-0.9734515 z"/>
 <path style="fill:#8b9cbe" d="m 6.6153193,8 9.7e-5,0.973351 0.804965,0.063143 0.1444,0.1894085 -1.435543,6.5532515 -0.220851,0.197352 -0.908387,0.06354 v 0.959898 L 8.9999383,17 l 1.24e-4,-0.959848 -0.908196,-0.05537 -0.152897,-0.205218 0.586117,-2.775611 h 0.900365 l 1.2911257,2.525564 c 0.5277,1.007123 0.897888,1.43889 2.038622,1.452249 0.327999,0.0039 0.459949,0.02629 1.344811,0 3.051955,-2.367516 4.609783,-4.371769 4.855914,-5.187674 0.149068,-0.494166 -0.0876,-0.797243 -0.594732,-0.797243 -0.247381,0 -0.530596,0.0968 -0.849264,0.29217 l -0.229342,1.896436 c -0.624618,0.75847 -1.457297,1.584681 -2.471815,2.446615 l 0.886364,-3.459613 c 0.139252,-0.666613 -0.138566,-1.022284 -0.604089,-1.160218 l -1.757271,0.426268 -0.110288,0.362985 0.959703,0.142154 c 0.06672,0.229817 -0.222526,0.929496 -0.368228,1.699573 l -0.467182,2.39133 c -0.0074,0.0246 -0.01201,0.05158 -0.01702,0.07892 -0.302929,-0.151233 -0.493889,-0.42053 -0.713518,-0.828663 l -1.826251,-3.393751 3.338202,-2.7912795 0.868877,-0.102593 -1.4e-4,-0.997066 -3.000005,2.75e-5 1.5e-4,0.9971155 0.585147,0.06306 0.08495,0.2131065 -3.5222317,2.725664 h -0.424715 l 0.651201,-2.772993 0.186873,-0.1894075 0.8233317,-0.063119 -8.6e-5,-0.9734515 z"/>
</svg>
