<svg xmlns="http://www.w3.org/2000/svg" width="24" height="24" version="1.0">
 <path style="opacity:0.2;fill-rule:evenodd" d="m 11.837391,2.5002913 c -0.348833,0.00557 -0.693772,0.029481 -1.032885,0.069948 A 0.6977442,0.697734 0 0 0 10.230377,3.0280815 L 9.6698765,4.5960093 C 9.113008,4.7606643 8.582509,4.9801818 8.081032,5.2518865 L 6.580305,4.5351453 A 0.6977442,0.697734 0 0 0 5.850836,4.6150861 C 5.212235,5.113929 4.6355496,5.6887665 4.134811,6.3256355 A 0.6977442,0.697734 0 0 0 4.0521439,7.056003 l 0.7113008,1.50343 C 4.4901676,9.059855 4.2695457,9.5899955 4.103016,10.146437 L 2.5350654,10.70148 A 0.6977442,0.697734 0 0 0 2.0744913,11.273783 C 2.0252766,11.675481 2,12.084964 2,12.500146 c 0,0.404084 0.024043,0.80327 0.070858,1.195477 a 0.6977442,0.697734 0 0 0 0.4578488,0.57412 l 1.5670421,0.560493 c 0.1649536,0.556907 0.3851124,1.086995 0.6567951,1.587912 l -0.7167515,1.501614 a 0.6977442,0.697734 0 0 0 0.079942,0.729459 c 0.4989275,0.638577 1.073343,1.215153 1.710574,1.715999 A 0.6977442,0.697734 0 0 0 6.555778,20.44789 L 8.05923,19.735687 c 0.5004405,0.273149 1.029956,0.494002 1.586119,0.660419 l 0.555051,1.568836 a 0.6977442,0.697734 0 0 0 0.573219,0.459659 C 11.175404,22.473834 11.58476,22.5 12,22.5 c 0.404044,0 0.803353,-0.02406 1.195494,-0.07086 a 0.6977442,0.697734 0 0 0 0.574129,-0.457842 l 0.559592,-1.567019 c 0.557154,-0.164805 1.087417,-0.38502 1.588845,-0.656786 l 1.501635,0.716741 a 0.6977442,0.697734 0 0 0 0.729469,-0.07994 c 0.638604,-0.498845 1.215283,-1.073673 1.716025,-1.710548 a 0.6977442,0.697734 0 0 0 0.08267,-0.729459 L 19.23565,16.440856 c 0.273482,-0.500648 0.49471,-1.030272 0.661337,-1.587004 l 1.56795,-0.555043 A 0.6977442,0.697734 0 0 0 21.925509,13.7256 C 21.974641,13.324297 22,12.915174 22,12.500146 22,12.095899 21.97603,11.696368 21.92914,11.303761 a 0.6977442,0.697734 0 0 0 -0.457848,-0.57412 L 19.904251,10.170056 C 19.739664,9.6134005 19.51985,9.083335 19.248364,8.5821435 L 19.965116,7.08053 A 0.6977442,0.697734 0 0 0 19.885175,6.351071 C 19.386212,5.7122555 18.8116,5.135886 18.1746,4.6350712 A 0.6977442,0.697734 0 0 0 17.44513,4.5533136 L 15.941679,5.2646045 C 15.440406,4.9908168 14.910203,4.7690623 14.352835,4.6023681 L 13.797784,3.0344405 A 0.6977442,0.697734 0 0 0 13.225473,2.5747815 C 12.822983,2.525505 12.413861,2.5002913 12,2.5002913 c -0.03424,0 -0.0772,-6.55e-4 -0.128997,0 0.0086,-1.094e-4 -0.0026,-4.977e-4 -0.03361,0 z"/>
 <path style="fill:#a835c6;fill-rule:evenodd" d="m 11.837391,2.0002913 c -0.348833,0.00557 -0.693772,0.029481 -1.032885,0.069948 A 0.6977442,0.697734 0 0 0 10.230377,2.5280815 L 9.6698765,4.0960093 C 9.113008,4.2606643 8.582509,4.4801818 8.081032,4.7518863 L 6.580305,4.0351453 A 0.6977442,0.697734 0 0 0 5.850836,4.1150861 C 5.212235,4.6139288 4.6355496,5.1887665 4.134811,5.8256355 A 0.6977442,0.697734 0 0 0 4.0521439,6.556003 l 0.7113008,1.50343 C 4.4901676,8.559855 4.2695457,9.0899955 4.103016,9.646437 L 2.5350654,10.20148 A 0.6977442,0.697734 0 0 0 2.0744913,10.773783 C 2.0252766,11.175481 2,11.584964 2,12.000146 c 0,0.404084 0.024043,0.80327 0.070858,1.195477 a 0.6977442,0.697734 0 0 0 0.4578488,0.57412 l 1.5670421,0.560493 c 0.1649536,0.556907 0.3851124,1.086995 0.6567951,1.587913 l -0.7167515,1.501613 a 0.6977442,0.697734 0 0 0 0.079942,0.729459 c 0.4989275,0.638577 1.073343,1.215153 1.710574,1.715999 A 0.6977442,0.697734 0 0 0 6.555778,19.94789 L 8.05923,19.235687 c 0.5004405,0.273149 1.029956,0.494002 1.586119,0.660419 l 0.555051,1.568836 a 0.6977442,0.697734 0 0 0 0.573219,0.459659 C 11.175404,21.973834 11.58476,22 12,22 c 0.404044,0 0.803353,-0.02406 1.195494,-0.07086 a 0.6977442,0.697734 0 0 0 0.574129,-0.457842 l 0.559592,-1.567019 c 0.557154,-0.164805 1.087417,-0.38502 1.588845,-0.656786 l 1.501635,0.716741 a 0.6977442,0.697734 0 0 0 0.729469,-0.07994 c 0.638604,-0.498845 1.215283,-1.073673 1.716025,-1.710548 a 0.6977442,0.697734 0 0 0 0.08267,-0.729459 L 19.23565,15.940856 c 0.273482,-0.500648 0.49471,-1.030272 0.661337,-1.587004 l 1.56795,-0.555043 A 0.6977442,0.697734 0 0 0 21.925509,13.2256 C 21.974641,12.824297 22,12.415174 22,12.000146 22,11.595899 21.97603,11.196368 21.92914,10.803761 a 0.6977442,0.697734 0 0 0 -0.457848,-0.57412 L 19.904251,9.670056 C 19.739664,9.1134005 19.51985,8.583335 19.248364,8.0821435 L 19.965116,6.58053 A 0.6977442,0.697734 0 0 0 19.885175,5.851071 C 19.386212,5.2122555 18.8116,4.6358858 18.1746,4.1350712 A 0.6977442,0.697734 0 0 0 17.44513,4.0533136 L 15.941679,4.7646043 C 15.440406,4.4908168 14.910203,4.2690623 14.352835,4.1023681 L 13.797784,2.5344405 A 0.6977442,0.697734 0 0 0 13.225473,2.0747815 C 12.822983,2.025505 12.413861,2.0002913 12,2.0002913 c -0.03424,0 -0.0772,-6.55e-4 -0.128997,0 0.0086,-1.094e-4 -0.0026,-4.977e-4 -0.03361,0 z"/>
 <path style="opacity:0.1;fill:#8b9cbe;fill-rule:evenodd" d="M 11.836914,2 C 11.488081,2.00557 11.1438,2.029846 10.804688,2.070312 A 0.6977442,0.697734 0 0 0 10.230469,2.5283203 L 9.669922,4.0957031 C 9.1130535,4.2603581 8.5825315,4.4802486 8.0810545,4.7519531 L 6.580078,4.0351562 A 0.6977442,0.697734 0 0 0 5.850586,4.1152344 C 5.211985,4.6140771 4.6355042,5.1883265 4.1347656,5.8251955 A 0.6977442,0.697734 0 0 0 4.0322265,6.5058595 0.6977442,0.697734 0 0 1 4.1347656,6.3251955 C 4.6355042,5.6883265 5.211985,5.1140775 5.850586,4.6152344 A 0.6977442,0.697734 0 0 1 6.580078,4.5351562 L 8.0810545,5.251953 C 8.5825315,4.9802484 9.1130535,4.7603581 9.669922,4.5957031 L 10.230469,3.0283203 A 0.6977442,0.697734 0 0 1 10.804688,2.5703125 C 11.1438,2.5298459 11.488081,2.5055675 11.836914,2.5 c 0.03102,-4.977e-4 0.04276,-1.094e-4 0.03418,0 0.05179,-6.55e-4 0.09467,0 0.128906,0 0.413861,0 0.823097,0.025919 1.225586,0.075195 a 0.6977442,0.697734 0 0 1 0.572266,0.4589844 l 0.554687,1.5683593 c 0.557369,0.1666942 1.087595,0.3883217 1.588867,0.6621095 l 1.503906,-0.7109376 a 0.6977442,0.697734 0 0 1 0.729492,0.081055 c 0.637,0.5008149 1.211,1.0770049 1.709961,1.7158204 A 0.6977442,0.697734 0 0 1 19.986328,6.5302735 0.6977442,0.697734 0 0 0 19.884765,5.850586 C 19.385804,5.2117705 18.811804,4.6355801 18.174804,4.1347656 A 0.6977442,0.697734 0 0 0 17.445312,4.0537109 L 15.941406,4.7646484 C 15.440134,4.4908609 14.909907,4.2692332 14.352539,4.102539 L 13.797852,2.5341797 A 0.6977442,0.697734 0 0 0 13.225586,2.0751953 C 12.823097,2.0259189 12.413861,2 12,2 c -0.03424,0 -0.07711,-6.55e-4 -0.128906,0 0.0086,-1.094e-4 -0.0031,-4.977e-4 -0.03418,0 z M 4.6445312,8.307617 C 4.4293804,8.7355965 4.2423191,9.179424 4.102539,9.6464845 L 2.5351563,10.201172 A 0.6977442,0.697734 0 0 0 2.0742188,10.773438 C 2.0250041,11.175135 2,11.584818 2,12 c 0,0.08514 0.00569,0.169218 0.00781,0.253906 0.00802,-0.330651 0.026988,-0.658734 0.066406,-0.980468 A 0.6977442,0.697734 0 0 1 2.5351563,10.701172 L 4.102539,10.146485 C 4.2690687,9.590043 4.4903947,9.0599925 4.7636719,8.5595705 Z m 14.7226558,0.024415 -0.11914,0.25 c 0.271485,0.5011915 0.491662,1.0312355 0.65625,1.587891 l 1.567382,0.55957 a 0.6977442,0.697734 0 0 1 0.457032,0.574219 c 0.03701,0.309883 0.05554,0.62496 0.06348,0.942383 C 21.994184,12.163961 22,12.082617 22,12 22,11.595754 21.97561,11.196319 21.92871,10.803711 A 0.6977442,0.697734 0 0 0 21.471679,10.229492 L 19.904297,9.669922 C 19.766315,9.20325 19.580704,8.7599805 19.367187,8.332032 Z M 4.633789,16.167969 4.0361328,17.419922 a 0.6977442,0.697734 0 0 0 -0.021484,0.549804 0.6977442,0.697734 0 0 1 0.021484,-0.04981 l 0.7167969,-1.501953 c -0.043941,-0.08102 -0.07791,-0.167466 -0.1191407,-0.249999 z m 14.720703,0.02442 c -0.04121,0.08187 -0.07523,0.167667 -0.119141,0.248047 l 0.712891,1.503906 a 0.6977442,0.697734 0 0 1 0.01953,0.04785 0.6977442,0.697734 0 0 0 -0.01953,-0.547852 z"/>
 <circle style="opacity:0.2" cx="12" cy="12.5" r="6"/>
 <circle style="fill:#ffbc2e" cx="12" cy="12" r="6"/>
 <path style="fill:#8b9cbe;opacity:0.2" d="M 12 6 A 6 6 0 0 0 6 12 A 6 6 0 0 0 6.0097656 12.285156 A 6 6 0 0 1 12 6.5 A 6 6 0 0 1 17.990234 12.214844 A 6 6 0 0 0 18 12 A 6 6 0 0 0 12 6 z"/>
 <path style="opacity:0.1" d="M 5.25,3.4999994 10.635742,16.5 h 2.728516 L 18.75,3.4999994 H 15.572266 L 12,12.999999 8.4277345,3.4999994 Z"/>
 <path style="fill:#ff4c0e" d="m 5.25,3 5.385742,13 h 2.728516 L 18.75,3 H 15.572266 L 12,12.5 8.4277345,3 Z"/>
 <path style="opacity:0.2;fill:#8b9cbe" d="M 5.25,3 5.457031,3.5 H 8.4277345 L 12,13 15.572266,3.5 h 2.970703 L 18.75,3 H 15.572266 L 12,12.5 8.4277345,3 Z"/>
</svg>
