<svg xmlns="http://www.w3.org/2000/svg" width="24" height="24" version="1">
 <path style="opacity:0.2" d="m 2,20 v 0.5 c 0,0.554 0.446,1 0.9999999,1 H 20.999998 c 0.554,0 1,-0.446 1,-1 V 20 c 0,0.554 -0.446,1 -1,1 H 2.9999999 C 2.446,21 2,20.554 2,20 Z"/>
 <rect style="fill:#3b555e" width="20" height="18" x="2" y="3" rx="1" ry="1"/>
 <path style="opacity:0.2" d="M 12.746094,7.5 C 11.913254,7.5061 11.232003,7.813897 10.644531,8.2226562 10.05706,8.6314155 9.5395146,9.1346842 8.9296875,9.6152344 7.7100334,10.576335 6.1505525,11.5 3,11.5 v 1 c 3.3544469,0 5.2351544,-1.06596 6.546875,-2.099609 0.65586,-0.5168252 1.176659,-1.0122597 1.669922,-1.3554691 C 11.71006,8.7017124 12.151997,8.504405 12.753906,8.5 c 0.600636,-0.0044 0.994674,0.1816213 1.435547,0.515625 0.440873,0.3340037 0.897142,0.8286813 1.492188,1.351563 C 16.871731,11.41295 18.645688,12.5 22,12.5 v -1 C 18.851813,11.5 17.433705,10.576675 16.341797,9.6171875 15.795843,9.1374437 15.33947,8.6308244 14.792969,8.2167969 14.246467,7.8027693 13.580208,7.4938957 12.746094,7.5 Z"/>
 <path style="opacity:0.2" d="m 3,11.499949 v 1 c 3.0481313,0 4.5798061,1.808598 5.8164062,3.759766 0.6183001,0.975583 1.1345173,1.972984 1.7089848,2.771484 0.574467,0.7985 1.271794,1.460979 2.220703,1.46875 0.475134,0.0035 0.909726,-0.17205 1.261718,-0.441406 0.351993,-0.269357 0.636254,-0.624645 0.900391,-1.025391 0.528275,-0.801492 0.982641,-1.80074 1.539063,-2.777344 0.556421,-0.976603 1.208047,-1.921333 2.078125,-2.611328 C 19.395468,12.954486 20.477169,12.499949 22,12.499949 v -1 c -1.728419,0 -3.070156,0.548042 -4.095703,1.361328 -1.025547,0.813287 -1.741594,1.872416 -2.326172,2.898438 -0.584578,1.026021 -1.044807,2.02807 -1.503906,2.724609 -0.22955,0.34827 -0.457852,0.615977 -0.673828,0.78125 -0.215977,0.165273 -0.404244,0.236148 -0.646485,0.234375 -0.485841,-0.004 -0.911701,-0.349031 -1.417968,-1.052734 C 10.82967,17.743512 10.307544,16.744084 9.6601562,15.722605 8.3653816,13.679647 6.4568681,11.499949 3,11.499949 Z"/>
 <path style="opacity:0.1;fill:#8b9cbe" d="M 2.9999999,3.0000018 C 2.446,3.0000018 2,3.4460018 2,4.0000017 v 0.5 C 2,3.9460018 2.446,3.5000018 2.9999999,3.5000018 H 20.999998 c 0.554,0 1,0.446 1,0.9999999 v -0.5 c 0,-0.5539999 -0.446,-0.9999999 -1,-0.9999999 z"/>
 <path style="fill:none;stroke:#7e7e7e;stroke-width:0.99999988" d="m 2.9999999,11.5 c 6.5049994,0 6.8804994,7.9765 9.7499991,8 2.8695,0.021 2.747498,-8 9.249997,-8"/>
 <path style="fill:none;stroke:#1588e4;stroke-width:0.99999988" d="m 2.9999999,11.5 c 6.5049994,0 6.8804994,-3.9790001 9.7499991,-4 2.8695,-0.021 2.747498,4 9.249997,4"/>
 <path style="opacity:0.2" d="M 12.746094,4.5 C 11.826224,4.50753 11.123614,5.083136 10.544922,5.7871094 9.9662298,6.4910827 9.4500701,7.3644441 8.8339844,8.2148438 7.6018129,9.915643 6.0737526,11.5 3,11.5 v 1 C 6.4312468,12.5 8.3433749,10.596059 9.6425781,8.8027344 10.29218,7.9060719 10.814364,7.0326044 11.316406,6.421875 11.818448,5.8111456 12.239027,5.5042166 12.753906,5.5 13.267426,5.49624 13.637703,5.7840049 14.091797,6.3867188 14.545891,6.9894326 15.006765,7.86399 15.59375,8.765625 16.767721,10.568895 18.568794,12.5 22,12.5 v -1 C 18.928707,11.5 17.539669,9.920729 16.431641,8.21875 15.877627,7.3677604 15.423905,6.4910202 14.890625,5.7832031 14.357345,5.0753861 13.667324,4.4932581 12.746094,4.5 Z"/>
 <path style="fill:none;stroke:#e95656;stroke-width:0.99999988" d="M 2.9999999,11.5 C 9.5049993,11.5 9.8804993,4.5235017 12.749999,4.5000017 15.619499,4.4790017 15.497497,11.5 21.999996,11.5"/>
 <path style="opacity:0.2" d="m 3,4.5 v 7 1 8 h 1 v -8 h 2 v 1 h 1 v -1 h 5 v 1 h 1 v -1 h 6 v 1 h 1 v -1 h 2 v -1 h -2 v -1 h -1 v 1 h -6 v -1 h -1 v 1 H 7 v -1 H 6 v 1 H 4 v -7 z"/>
 <rect style="fill:#8b9cbe" width="1" height="16" x="3" y="4"/>
 <rect style="fill:#8b9cbe" width="19" height="1" x="3" y="11"/>
 <rect style="fill:#8b9cbe" width="1" height="3" x="6" y="10"/>
 <rect style="fill:#8b9cbe" width="1" height="3" x="12" y="10"/>
 <rect style="fill:#8b9cbe" width="1" height="3" x="19" y="10"/>
</svg>
