<svg xmlns="http://www.w3.org/2000/svg" width="24" height="24" version="1">
 <rect style="fill:#3f51b5" width="20" height="20" x="2" y="2" rx="10" ry="10"/>
 <path style="opacity:0.1;fill-rule:evenodd" d="m 18.621514,5.502571 c -0.116693,-0.0121 -0.299857,0.01588 -0.637696,0.1015625 -0.672484,0.170557 -0.8143,0.2221625 -0.80664,0.369141 0.0043,0.082481 0.04791,0.156302 0.166015,0.2890625 L 16.851006,6.7545245 16.71624,6.6207355 c -0.07376,-0.073743 -0.192839,-0.073743 -0.266601,0 l -5.164063,5.1630855 c -0.105125,-0.03814 -0.220009,-0.03792 -0.325195,0 l -0.224609,-0.224609 c -0.07724,-0.07722 -0.200942,-0.07736 -0.278321,0 l -4.3984369,4.397461 c -0.077379,0.07736 -0.078218,0.202076 -10e-4,0.279296 l 0.19043,0.19043 -1.107422,1.107422 c -0.1880295,0.187978 -0.1880295,0.490733 0,0.678711 l 1.1464845,1.146484 c 0.1880295,0.187978 0.4906815,0.187978 0.678711,0 l 1.1083985,-1.107422 0.1904295,0.19043 c 0.077241,0.07722 0.200942,0.07736 0.2783205,0 l 4.3984369,-4.397461 c 0.07738,-0.07736 0.07822,-0.202076 10e-4,-0.279297 l -0.22461,-0.224609 c 0.03779,-0.104827 0.03781,-0.218421 0,-0.323242 l 5.165039,-5.1640625 c 0.07376,-0.073743 0.07376,-0.192859 0,-0.2666015 L 17.749443,7.652962 18.242607,7.1597975 c 0.128863,0.113718 0.201185,0.156921 0.288086,0.1669925 0.14145,0.01639 0.174259,-0.1521115 0.354492,-0.8222655 0.178013,-0.6618915 0.132901,-0.707962 -0.02246,-0.8632815 -0.0742,-0.07418 -0.124518,-0.1265695 -0.241211,-0.138672 z"/>
 <path style="opacity:0.1;fill:#8b9cbe" d="M 12,2 C 6.46,2 2,6.46 2,12 2,12.084 2.004,12.1665 2.00585,12.25 2.1382,6.827 6.544,2.5 11.99985,2.5 c 5.45585,0 9.862,4.32695 9.994,9.75 0.002,-0.08343 0.0059,-0.166065 0.0059,-0.25 0,-5.54 -4.46,-10 -10,-10 z"/>
 <path style="opacity:0.2" d="M 2.00585,12.25 C 2.0038,12.3335 2,12.416 2,12.5 c 0,5.54 4.46,10 10,10 5.54,0 10,-4.46 10,-10 0,-0.084 -0.004,-0.1665 -0.006,-0.25 C 21.862,17.673 17.456,22 12,22 6.544,22 2.138,17.673 2.006,12.25 Z"/>
 <rect style="fill:#b6b6b6" width="1.243" height="1.271" x="7.22" y="16.34" transform="matrix(0.70720361,-0.70700993,0.70720361,0.70700993,0,0)"/>
 <rect style="fill:#d5d5d5" width="9.036" height="2.026" x="-1.55" y="15.96" rx=".188" ry=".188" transform="matrix(0.70720361,-0.70700993,0.70720361,0.70700993,0,0)"/>
 <rect style="fill:#b6b6b6" width="8.937" height="2.581" x="-8.89" y="15.68" rx=".48" ry=".48" transform="matrix(0.70720361,-0.70700993,0.70720361,0.70700993,0,0)"/>
 <rect style="fill:#17191e" width="6.615" height="3.514" x="-6.85" y="15.21" rx=".197" ry=".197" transform="matrix(0.70720361,-0.70700993,0.70720361,0.70700993,0,0)"/>
 <path style="fill:#d5d5d5;fill-rule:evenodd" d="m 18.863097,5.141119 c 0.155362,0.1553195 0.200138,0.2018955 0.02212,0.863787 C 18.704989,6.67506 18.671798,6.843272 18.530349,6.82688 18.379177,6.80936 18.376898,6.811445 17.784605,6.2193155 17.187382,5.622257 17.184284,5.616006 17.176875,5.4737755 c -0.0077,-0.1469785 0.134927,-0.199002 0.807412,-0.369559 0.675678,-0.1713673 0.730411,-0.1114551 0.87881,0.036905 z"/>
 <path style="fill:#17191e" d="M 16.257395,6.3133895 15.944973,6.625812 17.390574,8.045522 17.703428,7.7331 Z"/>
</svg>
