<svg xmlns="http://www.w3.org/2000/svg" width="24" height="24" version="1">
 <path style="opacity:0.2" d="m 12.534952,3.0007516 a 0.8948652,0.90707355 0 0 0 -0.33292,0.050486 L 4.5964393,5.7721865 A 0.8948652,0.90707355 0 0 0 4.0031258,6.703084 l 0.894776,10.883793 a 0.8948652,0.90707355 0 0 0 0.4307855,0.702381 l 6.7108177,4.081422 a 0.8948652,0.90707355 0 0 0 0.92099,0 l 6.710817,-4.081422 a 0.8948652,0.90707355 0 0 0 0.430786,-0.702381 L 20.996874,6.703084 A 0.8948652,0.90707355 0 0 0 20.40356,5.7721865 L 12.797967,3.0512379 a 0.8948652,0.90707355 0 0 0 -0.263015,-0.050486 z"/>
 <path style="fill:#f44336" d="m 12.534952,2.5007516 a 0.8948652,0.90707355 0 0 0 -0.33292,0.050486 L 4.5964393,5.2721865 A 0.8948652,0.90707355 0 0 0 4.0031258,6.203084 l 0.894776,10.883793 a 0.8948652,0.90707355 0 0 0 0.4307855,0.702381 l 6.7108177,4.081422 a 0.8948652,0.90707355 0 0 0 0.92099,0 l 6.710817,-4.081422 a 0.8948652,0.90707355 0 0 0 0.430786,-0.702381 L 20.996874,6.203084 A 0.8948652,0.90707355 0 0 0 20.40356,5.2721865 L 12.797967,2.5512379 a 0.8948652,0.90707355 0 0 0 -0.263015,-0.050486 z"/>
 <path style="fill:#d32f2f" d="m 20.477539,5.303711 a 0.8948652,0.90707355 0 0 1 0.05664,0.029295 0.8948652,0.90707355 0 0 0 -0.05664,-0.029295 z m 0.08105,0.04297 a 0.8948652,0.90707355 0 0 1 0.04395,0.02832 0.8948652,0.90707355 0 0 0 -0.04395,-0.02832 z m 0.0791,0.053711 a 0.8948652,0.90707355 0 0 1 0.0332,0.02637 0.8948652,0.90707355 0 0 0 -0.0332,-0.02637 z m 0.06738,0.055664 a 0.8948652,0.90707355 0 0 1 0.03808,0.038085 0.8948652,0.90707355 0 0 0 -0.03808,-0.038085 z m 0.05957,0.05957 a 0.8948652,0.90707355 0 0 1 0.04004,0.04785 0.8948652,0.90707355 0 0 0 -0.04004,-0.04785 z m 0.05859,0.072266 a 0.8948652,0.90707355 0 0 1 0.03027,0.0459 0.8948652,0.90707355 0 0 0 -0.03027,-0.0459 z m 0.04297,0.06543 L 12.5,9 v 12.999023 a 0.8948652,0.90707355 0 0 0 0.460937,-0.127929 l 6.709961,-4.082032 a 0.8948652,0.90707355 0 0 0 0.431641,-0.702148 L 20.99707,6.203125 A 0.8948652,0.90707355 0 0 0 20.866211,5.6533205 Z"/>
 <path style="fill:#f66156" d="m 12.535156,2.5009765 a 0.8948652,0.90707355 0 0 0 -0.333008,0.049805 L 4.5966797,5.272461 A 0.8948652,0.90707355 0 0 0 4.1328125,5.6533205 L 12.5,9 20.867187,5.6533205 A 0.8948652,0.90707355 0 0 0 20.40332,5.272461 L 12.797851,2.5507813 a 0.8948652,0.90707355 0 0 0 -0.262695,-0.049805 z"/>
 <path style="opacity:0.2;fill:#8b9cbe" d="m 12.535156,2.5009765 a 0.8948652,0.90707355 0 0 0 -0.333008,0.049805 L 4.5966797,5.272461 A 0.8948652,0.90707355 0 0 0 4.1328125,5.6533205 L 4.5146484,5.805664 A 0.8948652,0.90707355 0 0 1 4.5966797,5.772459 L 12.202148,3.0507813 a 0.8948652,0.90707355 0 0 1 0.333008,-0.049805 0.8948652,0.90707355 0 0 1 0.262695,0.049805 L 20.40332,5.772461 a 0.8948652,0.90707355 0 0 1 0.08008,0.03418 l 0.383789,-0.15332 A 0.8948652,0.90707355 0 0 0 20.40332,5.272461 L 12.797851,2.5507813 a 0.8948652,0.90707355 0 0 0 -0.262695,-0.049805 z"/>
 <ellipse id="ellipse854" style="fill:#d32f2f" cx="12.5" cy="5.5" rx="3.5" ry="1"/>
 <rect style="fill:#d32f2f" width="7" height="2.5" x="9" y="3"/>
 <ellipse id="ellipse874" style="opacity:0.1" cx="12.5" cy="3.5" rx="3.5" ry="1"/>
 <ellipse style="fill:#f66156" cx="12.5" cy="3" rx="3.5" ry="1"/>
 <path style="opacity:0.1" d="M 4.5146484,5.805664 A 0.8948652,0.90707355 0 0 0 4.1328125,6.1533205 L 12.5,9.5 20.867187,6.1533205 a 0.8948652,0.90707355 0 0 0 -0.383789,-0.34668 L 12.5,9 Z"/>
 <path id="ellipse883" style="opacity:0.2;fill:#8b9cbe" d="M 12.5,2 A 3.5,1 0 0 0 9,3 3.5,1 0 0 0 9.114258,3.2509765 3.5,1 0 0 1 12.5,2.5 3.5,1 0 0 1 15.885742,3.2490235 3.5,1 0 0 0 16,3 3.5,1 0 0 0 12.5,2 Z"/>
</svg>
