<svg xmlns="http://www.w3.org/2000/svg" width="24" height="24" version="1.1">
 <path style="opacity:0.2" d="m 12,2.5 a 10,10 0 0 0 -10,10 10,10 0 0 0 10,10 10,10 0 0 0 10,-10 10,10 0 0 0 -10,-10 z"/>
 <path style="fill:#4f4f4f" d="M 12,2 A 10,10 0 0 0 2,12 10,10 0 0 0 12,22 10,10 0 0 0 22,12 10,10 0 0 0 12,2 Z"/>
 <path style="opacity:0.1;fill:#8b9cbe" d="M 12,2 A 10,10 0 0 0 2.0705,10.926 10,9.5 0 0 1 12,2.5 10,9.5 0 0 1 21.961,11.2235 10,10 0 0 0 12,2 Z m 9.961,9.2235 A 10,10 0 0 1 22,12 10,9.5 0 0 0 21.961,11.2235 Z M 2.0705,10.926 A 10,9.5 0 0 0 2.0461,11.122 10,10 0 0 1 2.0705,10.926 Z M 2.0461,11.122 A 10,10 0 0 0 2.0002,12 10,9.5 0 0 1 2.0461,11.122 Z"/>
 <path style="opacity:0.2" d="m 12,4.5 c -4.418278,0 -8,3.581722 -8,8 0,4.418278 3.581722,8 8,8 4.418278,0 8,-3.581722 8,-8 0,-4.418278 -3.581722,-8 -8,-8 z m 4.083008,4 H 18 v 2.009082 h -1.22461 c -0.262069,0 -0.444403,0.04758 -0.547851,0.143555 C 16.124091,10.745182 16,10.907841 16,11.140918 V 11.5 h 2 v 2 h -2 v 3 h -2 v -3 h -1 v -2 h 1 V 10.34082 C 14,9.713571 14.096518,9.250349 14.448242,8.9521485 14.799967,8.650521 15.345076,8.5 16.083008,8.5 Z M 7,9.5 h 2 v 5 h 3 v 2 H 7 Z"/>
 <path style="fill:#3be471" d="m 12,4 c -4.418278,0 -8,3.581722 -8,8 0,4.418278 3.581722,8 8,8 4.418278,0 8,-3.581722 8,-8 0,-4.418278 -3.581722,-8 -8,-8 z m 4.083008,4 H 18 v 2.009082 h -1.22461 c -0.262069,0 -0.444403,0.04758 -0.547851,0.143555 C 16.124091,10.245182 16,10.407841 16,10.640918 V 11 h 2 v 2 h -2 v 3 h -2 v -3 h -1 v -2 h 1 V 9.8408205 C 14,9.213571 14.096518,8.750349 14.448242,8.4521485 14.799967,8.150521 15.345076,8 16.083008,8 Z M 7,9 h 2 v 5 h 3 v 2 H 7 Z"/>
 <path style="fill:#8b9cbe;opacity:0.2" d="M 12 4 C 7.581722 4 4 7.581722 4 12 C 4 12.084345 4.0091273 12.166284 4.0117188 12.25 C 4.1448769 7.9483781 7.6660668 4.5 12 4.5 C 16.333933 4.5 19.855123 7.9483781 19.988281 12.25 C 19.990873 12.166284 20 12.084345 20 12 C 20 7.581722 16.418278 4 12 4 z M 16.775391 10.009766 C 16.513322 10.009766 16.330011 10.056369 16.226562 10.152344 C 16.123114 10.244889 16 10.407548 16 10.640625 L 16 11 L 16.035156 11 C 16.073819 10.847568 16.147615 10.72297 16.226562 10.652344 C 16.330011 10.556369 16.513322 10.509766 16.775391 10.509766 L 18 10.509766 L 18 10.009766 L 16.775391 10.009766 z M 13 13 L 13 13.5 L 14 13.5 L 14 13 L 13 13 z M 16 13 L 16 13.5 L 18 13.5 L 18 13 L 16 13 z M 7 16 L 7 16.5 L 12 16.5 L 12 16 L 7 16 z M 14 16 L 14 16.5 L 16 16.5 L 16 16 L 14 16 z"/>
</svg>
