<svg xmlns="http://www.w3.org/2000/svg" width="24" height="24" version="1">
 <path style="fill:#fec006" d="M 20,21 V 3 C 20,2.446 19.554,2 19,2 H 5 C 4.446,2 4,2.446 4,3 v 18 c 0,0.554 0.446,1 1,1 h 14 c 0.554,0 1,-0.446 1,-1 z"/>
 <path style="opacity:0.2" d="M 6.4615,4.5 C 6,4.5 6,4.9706 6,4.9706 v 15.058 c 0,0 0,0.47059 0.46154,0.47059 h 11.106 c 0,0 0.43292,0 0.43292,-0.47059 l -0.001,-9.4114 -5.646,-6.1176 z M 14.254,4.5 18,8.5588 V 4.9706 C 18,4.5 17.538,4.5 17.538,4.5 Z"/>
 <path style="opacity:0.2;fill:#8b9cbe" d="M 5,2 C 4.446,2 4,2.446 4,3 v 0.5 c 0,-0.554 0.446,-1 1,-1 h 14 c 0.554,0 1,0.446 1,1 V 3 C 20,2.446 19.554,2 19,2 Z"/>
 <path style="fill:#f5f5f5" d="M 6.4615,4 C 6,4 6,4.4706 6,4.4706 v 15.058 c 0,0 0,0.471 0.4615,0.471 h 11.106 c -10e-4,0 0.432,0 0.432,-0.471 V 10.1172 L 12.3535,3.9996 Z M 14.254,4 18,8.0588 V 4.4706 C 18,4 17.538,4 17.538,4 Z"/>
 <path style="opacity:0.2" d="m 4,21 v 0.5 c 0,0.554 0.446,1 1,1 h 14 c 0.554,0 1,-0.446 1,-1 V 21 c 0,0.554 -0.446,1 -1,1 H 5 C 4.446,22 4,21.554 4,21 Z"/>
 <path style="opacity:0.5;fill:none;stroke:#000000;stroke-linecap:square" d="m 7.5109243,14.518242 0.7693,0.017 c 1.5141,0.033 2.8522247,0.210478 3.3887747,1.043328 1.25185,1.9431 -1.127626,2.5732 -2.1238247,1.2009 -0.93095,-1.50625 -0.60925,-4.885827 0.7320487,-5.249227 2.42705,-0.55315 2.829,3.549327 4.3232,2.797277 1.15415,-0.5809 -0.7297,-3.171227 0.39941,-3.799276 0.483935,-0.2692 1.49625,0.672327 1.49625,0.672327"/>
</svg>
