<svg xmlns="http://www.w3.org/2000/svg" width="24" height="24" version="1">
 <rect style="opacity:0.2" width="18" height="20" x="-21" y="2.5" rx="1" ry="1" transform="scale(-1,1)"/>
 <rect style="fill:#b2bfd9" width="18" height="20" x="-21" y="2" rx="1" ry="1" transform="scale(-1,1)"/>
 <rect style="fill:#65424f" width="14" height="14" x="-19" y="4" rx="0" ry="0" transform="scale(-1,1)"/>
 <path style="opacity:0.2;fill:#8b9cbe" d="M 4,2 C 3.446,2 3,2.446 3,3 l 0,0.5 c 0,-0.554 0.446,-1 1,-1 l 16,0 c 0.554,0 1,0.446 1,1 L 21,3 C 21,2.446 20.554,2 20,2 L 4,2 Z"/>
 <path style="opacity:0.2;fill-rule:evenodd" d="m 13.339777,6.4898319 c -0.110592,-0.00146 -0.213872,0.00341 -0.306641,0.00977 -1.035018,0.070927 -2.031706,1.0772562 -2.033203,2.6093706 l 0,0.00195 c 9.47e-4,0.7886534 0.372406,1.4107065 0.845703,1.8535175 0.473297,0.442811 1.039356,0.754699 1.552735,1.078125 0.513377,0.323426 0.968096,0.652367 1.255859,1.052734 0.282932,0.393647 0.430422,0.86246 0.34375,1.601563 -0.114602,0.512269 -0.396711,0.663957 -0.748047,0.755859 -0.356811,0.09333 -0.703125,0.05078 -0.703125,0.05078 l -0.0332,-0.0039 -0.0332,0 c -0.656581,0 -1.480475,-0.773543 -1.480475,-1.500002 l -1,0 c 0,1.356792 1.165393,2.480653 2.462891,2.492188 0.04462,0.0061 0.490197,0.07182 1.041015,-0.07227 0.577702,-0.151114 1.295877,-0.614984 1.486328,-1.529297 l 0.0039,-0.01953 0.002,-0.01953 C 16.118952,13.883103 15.8873,13.096405 15.46677,12.511317 15.04624,11.926228 14.472663,11.537723 13.931614,11.196864 13.390564,10.856004 12.874818,10.557264 12.52927,10.233972 12.184133,9.9111425 12.001054,9.6118881 11.999933,9.1109256 l 0,-0.00195 c 0.0021,-1.1038096 0.695501,-1.5835 1.101562,-1.6113281 0.324311,-0.022225 0.487991,-0.00759 0.59961,0.097656 0.111619,0.1052422 0.298828,0.4658101 0.298828,1.404294 l 1,0 c 0,-1.0615161 -0.181998,-1.726147 -0.613281,-2.1328125 C 14.063189,6.5617859 13.671553,6.4942151 13.339777,6.4898319 Z M 8,6.4995975 8,16.499599 l 1,0 0,-10.0000015 z"/>
 <path style="fill:none;stroke:#8b9cbe;stroke-width:1.00010812" d="m 14.500054,8.4997963 c 0,-2 -0.738113,-2.047654 -1.433497,-2 -0.720688,0.04939 -1.565214,0.7915875 -1.566503,2.1104075 0.0031,2.5818082 4.438813,2.2184322 3.9997,5.6776582 C 15.198452,15.734346 13.480078,15.5 13.480078,15.5 c -0.981051,0 -1.980024,-0.954889 -1.980024,-2"/>
 <rect style="fill:#8b9cbe" width="1" height="10" x="8" y="6"/>
</svg>
