<svg xmlns="http://www.w3.org/2000/svg" width="24" height="24" version="1.1">
 <g transform="translate(0,-24)">
  <path style="opacity:0.2" d="m 4,43.5 h 18 c 0.554,0 1,-0.446 1,-1 v -14 c 0,-0.554 -0.446,-1 -1,-1 H 4 c -0.554,0 -1,0.446 -1,1 v 14 c 0,0.554 0.446,1 1,1 z"/>
  <path style="fill:#b2bfd9" d="m 4,43 h 18 c 0.554,0 1,-0.446 1,-1 V 28 c 0,-0.554 -0.446,-1 -1,-1 H 4 c -0.554,0 -1,0.446 -1,1 v 14 c 0,0.554 0.446,1 1,1 z"/>
  <rect style="opacity:0.3" width="5" height="3" x="16" y="29"/>
  <path style="opacity:0.3;fill:none;stroke:#000000;stroke-linecap:round" d="m 20.500115,34.49995 h -7"/>
  <path style="opacity:0.3;fill:none;stroke:#000000;stroke-linecap:round" d="m 20.499885,36.49995 h -7"/>
  <path style="opacity:0.3;fill:none;stroke:#000000;stroke-linecap:round" d="m 20.500115,38.49995 h -7"/>
  <path style="opacity:0.3;fill:none;stroke:#000000;stroke-linecap:round" d="m 20.500115,40.49995 h -7"/>
  <rect style="opacity:0.2" width="11" height="11" x="1" y="34.5" rx="5.5" ry="5.5"/>
  <rect style="fill:#2968b4" width="11" height="11" x="1" y="34" rx="5.5" ry="5.5"/>
  <path style="fill:#8b9cbe" d="M 6.5,36 C 4.567,36 3,37.567 3,39.5 3,41.433 4.567,43 6.5,43 8.4330001,43 10,41.433 10,39.5 10,37.567 8.4330001,36 6.5,36 Z m -0.3505858,0.668945 c 0.040806,-0.0043 0.092619,0.0025 0.1337888,0 0.0049,0.01952 -0.029632,0.08879 -0.076172,0.19043 -0.2963463,0.647397 -0.3131222,1.406276 -0.038084,1.811523 0.04977,0.07347 0.094727,0.143253 0.094727,0.152344 0,0.0091 -0.053567,0.01856 -0.1142579,0.01856 -0.142471,0 -0.2772648,-0.08656 -0.5527349,-0.304688 -0.1223736,-0.0969 -0.2811384,-0.178109 -0.3427734,-0.190429 -0.096786,-0.01934 -0.1228369,-0.01096 -0.2480464,0.114258 -0.1164965,0.116476 -0.152344,0.179503 -0.152344,0.286133 0,0.404358 0.4797682,0.724918 1.3720705,0.914062 1.21178,0.25683 1.5105203,0.487802 1.5439449,1.125001 0.041965,0.799028 -0.3836757,1.401738 -1.3154295,1.868164 -0.1112112,0.05569 -0.1818556,0.07673 -0.2285154,0.09473 -0.020676,-0.0019 -0.036024,0.0019 -0.05664,0 -0.00794,-0.02471 -0.01953,-0.08184 -0.01953,-0.19043 0,-0.424389 -0.1668853,-0.861185 -0.4189452,-1.105468 C 5.6628117,41.387545 5.4727847,41.24887 5.310551,41.148442 5.1483234,41.048021 4.9847208,40.931611 4.9482458,40.881841 c -0.060445,-0.08259 -0.064994,-0.133555 -0.018555,-0.286133 0.084636,-0.278665 0.1850184,-0.434278 0.3808601,-0.610351 0.1026716,-0.09231 0.2057702,-0.169049 0.2285154,-0.170899 0.02275,-0.0019 -0.1304026,-0.04847 -0.3613282,-0.0957 -0.23091,-0.04733 -0.5694916,-0.146752 -0.7441375,-0.209961 -0.3193555,-0.115554 -0.749682,-0.357636 -0.914063,-0.533203 -0.00696,-0.0074 -0.01349,-0.01294 -0.01953,-0.01953 0.2355185,-0.938157 0.8962734,-1.706606 1.7724615,-2.077148 0.1833313,-0.07754 0.3727644,-0.131071 0.5722653,-0.171876 0.099372,-0.02031 0.2020821,-0.02765 0.3046873,-0.03809 z m 2.8593749,1.429688 c 0.071638,0.04428 0.3417316,0.629585 0.4189452,0.915039 0.09969,0.368523 0.092474,1.00598 0,1.372069 -0.035201,0.139337 -0.079721,0.269909 -0.094727,0.286134 -0.015006,0.01622 -0.069781,-0.077 -0.1337884,-0.19043 C 9.1352051,40.368032 8.9306664,40.126559 8.7607419,39.947266 8.2702602,39.429708 8.1929832,39.160125 8.3984372,38.74707 8.502049,38.53878 8.9533451,38.064413 9.0087891,38.098633 Z"/>
  <path style="opacity:0.7" transform="translate(0,24)" d="M 14.089844 5 C 13.918182 5 13.765146 5.0299038 13.628906 5.0898438 C 13.495391 5.1470638 13.389566 5.232033 13.310547 5.34375 C 13.234257 5.452742 13.195312 5.5849214 13.195312 5.7402344 C 13.195312 5.9663924 13.256286 6.1481454 13.378906 6.2871094 C 13.504247 6.4233494 13.69386 6.5429414 13.947266 6.6464844 C 14.108029 6.7118744 14.234301 6.7740384 14.324219 6.8339844 C 14.416859 6.8939244 14.481384 6.960405 14.519531 7.03125 C 14.560401 7.09937 14.580078 7.1843393 14.580078 7.2851562 C 14.580078 7.4513692 14.529325 7.5780518 14.425781 7.6679688 C 14.322239 7.7551587 14.178656 7.7988281 13.996094 7.7988281 C 13.868029 7.7988281 13.764566 7.7689244 13.685547 7.7089844 C 13.606527 7.6463144 13.547913 7.566842 13.509766 7.46875 C 13.471616 7.37066 13.450762 7.2628785 13.445312 7.1484375 C 13.352673 7.1484375 13.280287 7.1747825 13.228516 7.2265625 C 13.176746 7.2756025 13.150391 7.3420841 13.150391 7.4238281 C 13.150391 7.5954901 13.219231 7.7335768 13.355469 7.8398438 C 13.494433 7.9461117 13.695861 8 13.962891 8 C 14.270793 8 14.515476 7.9276201 14.695312 7.7832031 C 14.877873 7.6387891 14.96875 7.4385425 14.96875 7.1796875 C 14.96875 6.9698775 14.903047 6.79994 14.769531 6.671875 C 14.636016 6.54381 14.448766 6.4301242 14.208984 6.3320312 C 14.050945 6.2666312 13.924674 6.2056585 13.832031 6.1484375 C 13.739391 6.0884875 13.673685 6.0208356 13.632812 5.9472656 C 13.594663 5.8709756 13.576172 5.7789139 13.576172 5.6699219 C 13.576172 5.5282329 13.619842 5.4145471 13.707031 5.3300781 C 13.794221 5.2456081 13.916181 5.203125 14.074219 5.203125 C 14.18866 5.203125 14.278355 5.2314231 14.34375 5.2832031 C 14.41187 5.3349731 14.459081 5.3994966 14.486328 5.4785156 C 14.516298 5.5575356 14.53125 5.6401404 14.53125 5.7246094 C 14.62934 5.7246094 14.708405 5.7018031 14.765625 5.6582031 C 14.825575 5.6118831 14.855469 5.5461774 14.855469 5.4589844 C 14.855469 5.3390934 14.787813 5.2313149 14.654297 5.1386719 C 14.520798 5.0460219 14.332351 5 14.089844 5 z M 3.5996094 5.0410156 L 3.5996094 5.2128906 L 3.6523438 5.2128906 C 3.7422617 5.2128906 3.8213237 5.2290188 3.8867188 5.2617188 C 3.9548387 5.2944187 3.9882812 5.3703434 3.9882812 5.4902344 L 3.9882812 7.4921875 C 3.9882812 7.6202535 3.95602 7.7028592 3.890625 7.7382812 C 3.82523 7.7709712 3.7449868 7.7871094 3.6523438 7.7871094 L 3.5996094 7.7871094 L 3.5996094 7.9589844 L 4.6269531 7.9589844 L 4.6269531 7.7871094 L 4.5722656 7.7871094 C 4.4796226 7.7871094 4.4013326 7.7709812 4.3359375 7.7382812 C 4.2705425 7.7028613 4.2382813 7.6202535 4.2382812 7.4921875 L 4.2382812 5.6035156 L 5.7695312 7.9589844 L 6.0605469 7.9589844 L 6.0605469 5.5058594 C 6.0605469 5.3777924 6.0928061 5.298321 6.1582031 5.265625 C 6.2235981 5.230195 6.3038414 5.2128906 6.3964844 5.2128906 L 6.4492188 5.2128906 L 6.4492188 5.0410156 L 5.4238281 5.0410156 L 5.4238281 5.2128906 L 5.4765625 5.2128906 C 5.5664805 5.2128906 5.6435894 5.2290188 5.7089844 5.2617188 C 5.7771044 5.2944187 5.8105469 5.3703434 5.8105469 5.4902344 L 5.8105469 7.3007812 L 4.3476562 5.0410156 L 3.5996094 5.0410156 z M 6.6210938 5.0410156 L 6.6210938 5.2128906 L 6.6738281 5.2128906 C 6.7664711 5.2128906 6.8447613 5.230205 6.9101562 5.265625 C 6.9755512 5.298325 7.0097656 5.3777944 7.0097656 5.5058594 L 7.0097656 7.5136719 C 7.0097656 7.6335629 6.974369 7.7094915 6.90625 7.7421875 C 6.840854 7.7721675 6.7637461 7.7871094 6.6738281 7.7871094 L 6.6210938 7.7871094 L 6.6210938 7.9589844 L 8.8105469 7.9589844 L 8.8398438 7.2441406 L 8.6269531 7.2441406 L 8.5996094 7.4199219 C 8.5859844 7.5098419 8.5482267 7.58813 8.4882812 7.65625 C 8.4310602 7.72164 8.339003 7.7539062 8.2109375 7.7539062 L 7.421875 7.7539062 L 7.421875 6.53125 L 8.40625 6.53125 L 8.40625 6.3320312 L 7.421875 6.3320312 L 7.421875 5.2441406 L 8.109375 5.2441406 C 8.231991 5.2441406 8.3173696 5.2795373 8.3691406 5.3476562 C 8.4236356 5.4130563 8.45785 5.4901601 8.46875 5.5800781 L 8.4882812 5.7558594 L 8.7011719 5.7558594 L 8.6816406 5.0410156 L 6.6210938 5.0410156 z M 8.9707031 5.0410156 L 8.9707031 5.2128906 L 9.0234375 5.2128906 C 9.1024565 5.2128906 9.1634347 5.2278425 9.2070312 5.2578125 C 9.2506312 5.2877925 9.2852535 5.3432664 9.3125 5.4277344 L 10.060547 7.9589844 L 10.4375 7.9589844 L 11.0625 5.6699219 L 11.728516 7.9589844 L 12.095703 7.9589844 L 12.787109 5.53125 C 12.825259 5.39501 12.866556 5.3076792 12.910156 5.2695312 C 12.956476 5.2313812 13.018638 5.2128906 13.097656 5.2128906 L 13.175781 5.2128906 L 13.175781 5.0410156 L 12.177734 5.0410156 L 12.177734 5.2128906 L 12.271484 5.2128906 C 12.45132 5.2128906 12.542969 5.2785934 12.542969 5.4121094 C 12.542969 5.4339094 12.536291 5.4681187 12.525391 5.5117188 C 12.514491 5.5553188 12.506227 5.592302 12.498047 5.625 L 12.136719 6.8886719 C 12.098569 7.0194619 12.067489 7.1390549 12.042969 7.2480469 C 12.018439 7.3570389 11.996409 7.4605008 11.974609 7.5585938 C 11.955529 7.4659538 11.930361 7.3577629 11.900391 7.2324219 C 11.870421 7.1070809 11.836977 6.9760838 11.798828 6.8398438 L 11.287109 5.0703125 L 10.992188 5.0703125 L 10.505859 6.8242188 C 10.470429 6.9550088 10.439359 7.0828725 10.412109 7.2109375 C 10.384859 7.3362785 10.361644 7.4523267 10.339844 7.5585938 C 10.318044 7.4605038 10.291699 7.3523129 10.261719 7.2324219 C 10.231739 7.1125309 10.199493 6.9917566 10.164062 6.8691406 L 9.7871094 5.5585938 C 9.7789094 5.5286138 9.7718419 5.5030356 9.7636719 5.4785156 C 9.7581719 5.4539956 9.7539062 5.4300131 9.7539062 5.4082031 C 9.7539062 5.2774131 9.8365115 5.2128906 10 5.2128906 L 10.09375 5.2128906 L 10.09375 5.0410156 L 8.9707031 5.0410156 z"/>
  <path style="opacity:0.2;fill:#8b9cbe" d="m 4,27 c -0.554,0 -1,0.446 -1,1 v 0.5 c 0,-0.554 0.446,-1 1,-1 h 18 c 0.554,0 1,0.446 1,1 V 28 c 0,-0.554 -0.446,-1 -1,-1 z"/>
 </g>
</svg>
