<svg xmlns="http://www.w3.org/2000/svg" width="24" height="24" version="1">
 <path style="opacity:0.2" d="M 12,2.4993985 A 8,8 0 0 0 4,10.499399 v 3 h 2 v -3 a 6,6 0 0 1 6,-6.0000005 6,6 0 0 1 6,6.0000005 v 3 h 2 v -3 A 8,8 0 0 0 12,2.4993985 Z"/>
 <path style="opacity:0.2" d="M 6.477539,9.4995 A 0.50734835,0.55772625 0 0 0 6.3466795,9.522935 L 2.3623047,10.836414 A 0.50734835,0.55772625 0 0 0 2,11.370594 v 5.256836 a 0.50734835,0.55772625 0 0 0 0.3623047,0.534179 l 3.9843748,1.314453 A 0.50734835,0.55772625 0 0 0 7,17.941883 V 10.056141 A 0.50734835,0.55772625 0 0 0 6.477539,9.4995 Z m 11.044922,0 A 0.50734835,0.55772625 0 0 0 17,10.056141 v 7.885742 a 0.50734835,0.55772625 0 0 0 0.65332,0.534179 l 3.984375,-1.314453 A 0.50734835,0.55772625 0 0 0 22,16.62743 v -5.256836 a 0.50734835,0.55772625 0 0 0 -0.362305,-0.53418 L 17.65332,9.5229375 A 0.50734835,0.55772625 0 0 0 17.522461,9.4995 Z"/>
 <path style="fill:#0d55cf" d="m 12,1.9995 a 8,8 0 0 0 -8,8 v 3 h 2 v -3 a 6,6 0 0 1 6,-6 6,6 0 0 1 6,6 v 3 h 2 v -3 a 8,8 0 0 0 -8,-8 z"/>
 <path style="fill:#1697fe" d="M 6.477539,8.9995 A 0.50734835,0.55772625 0 0 0 6.3466795,9.022935 L 2.3623047,10.336414 A 0.50734835,0.55772625 0 0 0 2,10.870594 v 5.256836 a 0.50734835,0.55772625 0 0 0 0.3623047,0.534179 l 3.9843748,1.314453 A 0.50734835,0.55772625 0 0 0 7,17.441883 V 9.5561405 A 0.50734835,0.55772625 0 0 0 6.477539,8.9995 Z m 11.044922,0 A 0.50734835,0.55772625 0 0 0 17,9.5561405 v 7.8857425 a 0.50734835,0.55772625 0 0 0 0.65332,0.534179 l 3.984375,-1.314453 A 0.50734835,0.55772625 0 0 0 22,16.12743 v -5.256836 a 0.50734835,0.55772625 0 0 0 -0.362305,-0.53418 L 17.65332,9.0229375 A 0.50734835,0.55772625 0 0 0 17.522461,8.9995 Z"/>
 <path style="opacity:0.2" d="m 13.374024,4.9827969 -3,11.8994141 L 8.3427735,11.23768 5.5,15.499399 5.48047,15.575571 7.6572275,13.762094 10.625978,22.016 l 3,-11.899414 1.977539,5.495117 2.510742,-3.255859 v 0 l -1.717774,1.030273 z"/>
 <path style="fill:#ef5350" d="m 13.374024,4.4828985 -3,11.8994135 L 8.3427735,10.737781 5.5,14.9995 5.48047,15.07567 7.6572275,13.262193 10.625978,21.5161 l 3,-11.8994145 1.977539,5.4951175 2.510742,-3.25586 v 0 l -1.717774,1.030274 z"/>
 <path style="opacity:0.1;fill:#8b9cbe" d="m 12,1.9995 a 8,8 0 0 0 -8,8 v 0.5 a 8,8 0 0 1 8,-8 8,8 0 0 1 8,8 v -0.5 a 8,8 0 0 0 -8,-8 z"/>
 <path style="opacity:0.2;fill:#8b9cbe" d="M 6.477539,8.9995 A 0.50734835,0.55772625 0 0 0 6.3466795,9.022935 L 2.3623047,10.336414 A 0.50734835,0.55772625 0 0 0 2,10.870594 v 0.5 a 0.50734835,0.55772625 0 0 1 0.3623047,-0.53418 L 6.3466795,9.5229375 A 0.50734835,0.55772625 0 0 1 6.477539,9.4995 0.50734835,0.55772625 0 0 1 7,10.056141 V 9.5561405 A 0.50734835,0.55772625 0 0 0 6.477539,8.9995 Z m 11.044922,0 A 0.50734835,0.55772625 0 0 0 17,9.5561405 V 10.056141 A 0.50734835,0.55772625 0 0 1 17.522461,9.4995 0.50734835,0.55772625 0 0 1 17.65332,9.522935 l 3.984375,1.313476 A 0.50734835,0.55772625 0 0 1 22,11.370594 v -0.5 a 0.50734835,0.55772625 0 0 0 -0.362305,-0.53418 L 17.65332,9.0229375 A 0.50734835,0.55772625 0 0 0 17.522461,8.9995 Z"/>
 <path style="opacity:0.2;fill:#8b9cbe" d="m 13.374024,4.4828985 -3,11.8994135 L 8.3427735,10.737781 5.5,14.9995 l -0.01953,0.07617 0.680664,-0.566406 2.1816405,-3.271485 2.0312505,5.644531 3,-11.8994136 3.02246,8.4033206 1,-0.59961 0.717774,-0.930664 -1.717774,1.030274 z"/>
</svg>
