<svg xmlns="http://www.w3.org/2000/svg" width="24" height="24" version="1">
 <rect style="opacity:0.2" width="20" height="20" x="2" y="2.5" rx="1" ry="1"/>
 <rect style="fill:#f2385a" width="20" height="20" x="2" y="2" rx="1" ry="1"/>
 <path style="opacity:0.2" d="m 5,4.5 v 3 H 7 V 7.1152344 H 5.3066406 V 4.5 Z m 3.5,0 c 0.055395,0.4794871 0.173335,0.8632112 0.3515625,1.1503906 0.1637765,0.264103 0.403239,0.5141025 0.71875,0.75 V 7.5 h 0.359375 V 6.4003906 c 0.3155115,-0.2358975 0.5549735,-0.485897 0.7187505,-0.75 C 10.826666,5.3632112 10.944605,4.9794871 11,4.5 H 10.634766 C 10.586596,4.8923077 10.490212,5.2055089 10.345703,5.4414062 10.210828,5.661919 10.012524,5.872877 9.75,6.0703125 9.4874765,5.872877 9.2891714,5.661919 9.1542969,5.4414062 9.0097874,5.2055089 8.9134034,4.8923077 8.8652344,4.5 Z m 4.5,0 v 3 h 0.298828 V 5.3886719 L 15,7.5 v -3 h -0.298828 v 2.1035156 z m 4,0 v 3 h 2 V 7.1152344 H 17.306641 V 6.0410156 h 1.232421 V 5.65625 H 17.306641 V 4.8847656 H 19 V 4.5 Z M 6,9 4.5,10.5 6,12 7.5,10.5 Z m 4,0 -1.5,1.5 1.5,1.5 1.5,-1.5 z m 4,0 -1.5,1.5 1.5,1.5 1.5,-1.5 z m 4,0 -1.5,1.5 1.5,1.5 1.5,-1.5 z M 6,13 4.5,14.5 6,16 7.5,14.5 Z m 4,0 -1.5,1.5 1.5,1.5 1.5,-1.5 z m 4,0 -1.5,1.5 1.5,1.5 1.5,-1.5 z m 4,0 -1.5,1.5 1.5,1.5 1.5,-1.5 z M 6,17 4.5,18.5 6,20 7.5,18.5 Z m 4,0 -1.5,1.5 1.5,1.5 1.5,-1.5 z m 4,0 -1.5,1.5 1.5,1.5 1.5,-1.5 z m 4,0 -1.5,1.5 1.5,1.5 1.5,-1.5 z"/>
 <path style="opacity:0.2;fill:#8b9cbe" d="M 3,2 C 2.446,2 2,2.446 2,3 v 0.5 c 0,-0.554 0.446,-1 1,-1 h 18 c 0.554,0 1,0.446 1,1 V 3 C 22,2.446 21.554,2 21,2 Z"/>
 <path style="fill:#8b9cbe" d="M 5 4 L 5 7 L 7 7 L 7 6.6152344 L 5.3066406 6.6152344 L 5.3066406 4 L 5 4 z M 8.5 4 C 8.555395 4.4794871 8.673335 4.8632112 8.8515625 5.1503906 C 9.015339 5.4144936 9.2548015 5.6644931 9.5703125 5.9003906 L 9.5703125 7 L 9.9296875 7 L 9.9296875 5.9003906 C 10.245199 5.6644931 10.484661 5.4144936 10.648438 5.1503906 C 10.826666 4.8632112 10.944605 4.4794871 11 4 L 10.634766 4 C 10.586596 4.3923077 10.490212 4.7055089 10.345703 4.9414062 C 10.210828 5.161919 10.012524 5.372877 9.75 5.5703125 C 9.4874765 5.372877 9.2891714 5.161919 9.1542969 4.9414062 C 9.0097874 4.7055089 8.9134034 4.3923077 8.8652344 4 L 8.5 4 z M 13 4 L 13 7 L 13.298828 7 L 13.298828 4.8886719 L 15 7 L 15 4 L 14.701172 4 L 14.701172 6.1035156 L 13 4 z M 17 4 L 17 7 L 19 7 L 19 6.6152344 L 17.306641 6.6152344 L 17.306641 5.5410156 L 18.539062 5.5410156 L 18.539062 5.15625 L 17.306641 5.15625 L 17.306641 4.3847656 L 19 4.3847656 L 19 4 L 17 4 z M 6 8.5 L 4.5 10 L 6 11.5 L 7.5 10 L 6 8.5 z M 10 8.5 L 8.5 10 L 10 11.5 L 11.5 10 L 10 8.5 z M 14 8.5 L 12.5 10 L 14 11.5 L 15.5 10 L 14 8.5 z M 18 8.5 L 16.5 10 L 18 11.5 L 19.5 10 L 18 8.5 z M 6 12.5 L 4.5 14 L 6 15.5 L 7.5 14 L 6 12.5 z M 10 12.5 L 8.5 14 L 10 15.5 L 11.5 14 L 10 12.5 z M 14 12.5 L 12.5 14 L 14 15.5 L 15.5 14 L 14 12.5 z M 18 12.5 L 16.5 14 L 18 15.5 L 19.5 14 L 18 12.5 z M 6 16.5 L 4.5 18 L 6 19.5 L 7.5 18 L 6 16.5 z M 10 16.5 L 8.5 18 L 10 19.5 L 11.5 18 L 10 16.5 z M 14 16.5 L 12.5 18 L 14 19.5 L 15.5 18 L 14 16.5 z M 18 16.5 L 16.5 18 L 18 19.5 L 19.5 18 L 18 16.5 z"/>
</svg>
