<svg width="24" height="24" version="1.1" xmlns="http://www.w3.org/2000/svg">
 <g transform="translate(1,1)">
  <path d="m10.923 1-1e-3 0.00196c-5.5035 0.0419-9.922 4.484-9.922 9.998 0 5.54 4.46 10 10 10 5.34 0 9.6755-4.1445 9.9815-9.4055l0.0185-0.0175v-8.577c0-1.1075-0.892-1.9995-2-1.9995h-8.077z" style="fill:#e2e536"/>
  <circle cx="11" cy="11.5" r="7" style="opacity:.2"/>
  <circle cx="11" cy="11" r="7" style="fill:#353535"/>
  <path d="m12.026 8.2854c-0.03581 0.41378-0.31714 0.23814-0.62174 0.46391-0.08217-0.012357-0.17589-0.012357-0.30459-0.012357-0.02326-0.27592 0.07062-0.32605 0.11699-0.37617 0.1876-0.15058 0.31714-0.075203 0.31714-0.075203 0.14042-0.025405 0.26895 0.012353 0.49219-1.988e-4zm0.70289-0.67737h-0.40986v-0.1128h-0.22242v0.062491c-0.02409 0.012357-0.04736 0.037772-0.07063 0.050134h-0.02326c-0.388-0.326-0.411 0.3388-0.669 0.1882-0.023-0.138-0.012-0.2635-0.012-0.4265 0.446-0.0127 0.282-0.138 0.153-0.301-0.046-0.0628-0.071-0.1631-0.082-0.2257-0.106-0.4138-0.54-0.6647-1.172-0.4013-0.4108 0.163-0.3045 0.7526-0.2697 1.1538-0.0233 0.0374-0.0706 0.0251-0.1054 0.0251-0.4457 0.0251-0.6449 0.5264-0.7388 0.9278 0.0233 0.3639-0.0232 0.7651-0.0821 1.1161-0.059 0.3507-0.1759 0.6267-0.1877 0.9657-0.023263 0.30099 0.082171 0.65212 0.058907 0.92801-0.24652 0.77765-0.42259 1.2917-0.55113 2.1195-0.093721 0.18801-0.42157 0.58926-0.55113 0.67718-0.034813 0.0625 0.023263 0.20072-0.034813 0.28828-0.10544 0.16294-0.26978 0.25085-0.36351 0.42651 0.023263 0.03743-0.14108 0.07521-0.12854 0.13805 0.011555 0.0625 0.093721 0.22543 0.12854 0.26321 0.011555 0.02508 0.12854-0.03777 0.12854 0 0.047357 0.15023 0.1528 0.46391 0.26978 0.53914 0.51627 0.0625 0.51627 0.0625 0.72702 0 0.11699-0.36381-0.39833-0.20071-0.35196-0.68987 0.70392-0.15023 0.92615-0.36365 1.2075-1.1536 0.12854-0.57689 0.3046-1.1411 0.57423-1.6929 0.04636-0.03743 0.03481-0.13787 0.11698-0.17565 0.31614 0.5642 0.89133 0.96577 1.1718 1.5552 0.07063 0.76491 0.2117 1.1787 0.45724 1.3167 0.0589 0.02508 0 0.26321 0.04736 0.31334 0 0.0752 0.02327 0.16294-0.01156 0.25085-0.02409 0.06284-0.01155 0.13804-0.01155 0.20072v0.0752c0.01155 0.11333 0.03481 0.11333 0.14025 0.20072 0.3046 0.21307 0.71549 0.55183 1.1253 0.30099 0.18761-0.3264-0.21071-0.73985-0.49201-0.95307-0.09372-0.0752-0.25807-0.26321-0.23497-0.38873 0.1528-0.16312 0.25807-0.87789 0.19916-1.4297-0.02326-0.12516-0.04637-0.25085-0.09372-0.35112-0.14025-0.28827-0.45639-0.68973-0.72604-0.97795 0.03481-0.03743 0.08217-0.08791 0.14025-0.11298 0-0.27574-0.10544-0.36364-0.24552-0.5642-0.11798-0.20072-0.38676-0.58926-0.58693-0.71475 0 0 0-0.01273-0.19916-0.01273-0.01155-0.13787 0.02409-0.25085 0.0589-0.40125 0-0.1128 0.08217-0.04996 0.10544-0.30099 0.0589-0.21307 0.03481-0.08773 0.08217-0.30081 0.04637-0.10027 0.07062-0.20071 0.07062-0.36381 0.17507 0.06285 0.52687 0.05014 0.67965 0l0.03481 0.02508c0.04736 0.01272 0.0589-0.0625 0.09372-0.07503 0.26978-0.15076 0.3635-0.41395 0.58595-0.43904 0 0 0.11798-0.06285 0.29288 0 0.07063 0 0.12953 0.01236 0.12953-0.06285 0.01155-0.1128 0.01155-0.20036 0.07063-0.27592 0.04636 0.30099 0.17507 0.63975 0.40986 0.96577l0.23418-0.17522c-0.22242-0.28828-0.36252-0.61432-0.38675-0.99069 0.01154 0.025074 0.0241 0.050134 0.04736 0.075208 0.08217 0 0.12854-0.18818 0.22243-0.17565 0.01155-0.025074 0.0358-0.13804 0.0589-0.22578h0.87883l0.3163-0.075287v-0.17565l-0.23398-0.025074v-0.20072h-0.0589v-0.22578h-0.14025v0.21325l-0.3635-0.025074v-0.13804h-0.14025v0.12534l-0.37504-0.037427v-0.18818h-0.14108v0.17564l-0.55113-0.037427v-0.062314h4.22e-4z" style="fill-rule:evenodd;opacity:.2"/>
  <path d="m12.026 7.8187c-0.03581 0.41378-0.31714 0.23814-0.62174 0.46391-0.08217-0.012357-0.17589-0.012357-0.30459-0.012357-0.02326-0.27592 0.07062-0.32605 0.11699-0.37617 0.1876-0.15058 0.31714-0.075203 0.31714-0.075203 0.14042-0.025405 0.26895 0.012353 0.49219-1.988e-4zm0.70289-0.67737h-0.40986v-0.1128h-0.22242v0.062491c-0.02409 0.012357-0.04736 0.037772-0.07063 0.050134h-0.02326c-0.38777-0.32605-0.41085 0.33876-0.66906 0.18818-0.02327-0.13805-0.01156-0.26356-0.01156-0.42651 0.44567-0.012726 0.28133-0.13804 0.1528-0.30098-0.04637-0.062846-0.07063-0.16312-0.08217-0.22578-0.10544-0.41378-0.53956-0.66463-1.1718-0.40125-0.41085 0.16294-0.3046 0.75255-0.26978 1.1538-0.02326 0.037427-0.07062 0.025074-0.10544 0.025074-0.44567 0.025079-0.64484 0.5264-0.73873 0.92787 0.02326 0.36381-0.02326 0.76505-0.08217 1.116-0.058908 0.35112-0.17589 0.62706-0.18761 0.96563-0.023263 0.30099 0.082171 0.65212 0.058907 0.92801-0.24652 0.77765-0.42259 1.2917-0.55113 2.1195-0.093721 0.18801-0.42157 0.58926-0.55113 0.67718-0.034813 0.0625 0.023263 0.20072-0.034813 0.28828-0.10544 0.16294-0.26978 0.25085-0.36351 0.42651 0.023263 0.03743-0.14108 0.07521-0.12854 0.13804 0.011555 0.0625 0.093721 0.22543 0.12854 0.26321 0.011555 0.02508 0.12854-0.03777 0.12854 0 0.047357 0.15023 0.1528 0.46391 0.26978 0.53914 0.51627 0.0625 0.51627 0.0625 0.72702 0 0.11699-0.36381-0.39833-0.20071-0.35196-0.68987 0.70392-0.15023 0.92615-0.36364 1.2075-1.1536 0.12854-0.57689 0.3046-1.1411 0.57423-1.6929 0.04636-0.03743 0.03481-0.13787 0.11698-0.17565 0.31614 0.5642 0.89133 0.96577 1.1718 1.5552 0.07063 0.76491 0.2117 1.1787 0.45724 1.3167 0.0589 0.02507 0 0.26321 0.04736 0.31334 0 0.0752 0.02327 0.16294-0.01156 0.25085-0.02409 0.06284-0.01155 0.13804-0.01155 0.20072v0.0752c0.01155 0.11333 0.03481 0.11333 0.14025 0.20072 0.3046 0.21307 0.71549 0.55183 1.1253 0.30099 0.18761-0.32641-0.21071-0.73985-0.49201-0.95307-0.09372-0.0752-0.25807-0.26321-0.23497-0.38873 0.1528-0.16312 0.25807-0.87789 0.19916-1.4297-0.02326-0.12516-0.04637-0.25085-0.09372-0.35112-0.14025-0.28827-0.45639-0.68973-0.72604-0.97795 0.03481-0.03743 0.08217-0.08791 0.14025-0.11298 0-0.27574-0.10544-0.36365-0.24552-0.5642-0.11798-0.20072-0.38676-0.58926-0.58693-0.71475 0 0 0-0.01273-0.19916-0.01273-0.01155-0.13787 0.02409-0.25085 0.0589-0.40125 0-0.1128 0.08217-0.04996 0.10544-0.30099 0.0589-0.21307 0.03481-0.08773 0.08217-0.30081 0.04637-0.10027 0.07062-0.20071 0.07062-0.36381 0.17507 0.06285 0.52687 0.05014 0.67965 0l0.03481 0.02508c0.04736 0.01272 0.0589-0.0625 0.09372-0.07503 0.26978-0.15076 0.3635-0.41395 0.58595-0.43904 0 0 0.11798-0.062846 0.29288 0 0.07063 0 0.12953 0.012357 0.12953-0.062846 0.01155-0.1128 0.01155-0.20036 0.07063-0.27592 0.04636 0.30099 0.17507 0.63975 0.40986 0.96577l0.23417-0.17522c-0.2224-0.28826-0.3625-0.61431-0.38674-0.99068 0.01154 0.025074 0.0241 0.050134 0.04736 0.075208 0.08217 0 0.12854-0.18818 0.22243-0.17565 0.01154-0.025074 0.0358-0.13804 0.0589-0.22578h0.87883l0.3163-0.075287v-0.17565l-0.23398-0.025074v-0.20072h-0.0589v-0.22578h-0.14025v0.21325l-0.3635-0.025074v-0.13804h-0.14025v0.12534l-0.37504-0.037427v-0.18818h-0.14108v0.17564l-0.55113-0.037427v-0.062314h4.22e-4z" style="fill-rule:evenodd;fill:#e2e536"/>
  <path d="m10.923 1-1e-3 0.00196c-5.5035 0.0419-9.922 4.484-9.922 9.998 0 0.084 0.0038 0.1665 0.00585 0.25 0.1316-5.397 4.4962-9.707 9.916-9.748l1e-3 -2e-3h8.077c1.108 0 2 0.892 2 2v-0.5c0-1.108-0.892-2-2-2h-8.077z" style="fill:#8b9cbe;opacity:.2"/>
  <path d="m1.0058 11.25c-2e-3 0.084-0.0058 0.166-0.0058 0.25 0 5.54 4.46 10 10 10 5.34 0 9.6755-4.1445 9.9815-9.4055l0.0185-0.0175v-0.5l-0.01855 0.01758c-0.306 5.261-4.6415 9.4055-9.9815 9.4055-5.456 0-9.862-4.327-9.994-9.75z" style="opacity:.2"/>
 </g>
</svg>
