<svg width="24" height="24" version="1.1" xmlns="http://www.w3.org/2000/svg">
 <path d="m5 4.5h6l2 3.3333333 3-3.3333333h6l-6.5 8 4.5 8h-7l-1.5-3.2-2.5 3.2h-7l7-8.533333z" style="opacity:.2"/>
 <path d="m5 4h6l2 3.3333333 3-3.3333333h6l-6.5 8 4.5 8h-7l-1.5-3.2-2.5 3.2h-7l7-8.533333z" style="fill:#88bfe1"/>
 <path d="M 5,4 5.2675781,4.5 H 11 L 13,7.8339844 16,4.5 h 5.59375 L 22,4 H 16 L 13,7.3339844 11,4 Z M 8.8378906,11.664062 2,20 H 2.4101562 L 9,11.966797 Z M 15.666016,12.294922 15.5,12.5 19.71875,20 H 20 Z" style="fill:#8b9cbe;opacity:.2"/>
 <circle cx="17.5" cy="17.5" r="5.5" style="fill:#d07336"/>
 <path d="m17.5 15s-0.355349-0.007016-0.724609 0.177734c-0.369255 0.1846-0.775391 0.655617-0.775391 1.322266h1c0-0.5 0.5-0.5 0.5-0.5s0.5 0 0.5 0.5c0 0.22307-0.060296 0.361384-0.15625 0.5h-0.84375v1h0.84375c0.095954 0.138616 0.15625 0.27693 0.15625 0.5 0 0.5-0.5 0.5-0.5 0.5s-0.5 0-0.5-0.5h-1c0 0.666649 0.406136 1.137666 0.775391 1.322266 0.36926 0.18475 0.724609 0.177734 0.724609 0.177734s0.355344 0.006916 0.724609-0.177734c0.369255-0.1846 0.775391-0.655617 0.775391-1.322266 0-0.385787-0.11555-0.724712-0.283203-1h-0.001953c0.168358-0.275655 0.285156-0.613228 0.285156-1 0-0.666649-0.406136-1.137666-0.775391-1.322266-0.369265-0.18465-0.724609-0.177734-0.724609-0.177734z" style="fill-rule:evenodd;fill:#8b9cbe"/>
</svg>
