<svg xmlns="http://www.w3.org/2000/svg" width="24" height="24" version="1.1">
 <path style="opacity:0.2" d="M 9.5253906,2.500216 C 9.4588486,2.498876 9.3901456,2.511085 9.3242188,2.537325 L 7.0957031,3.4240441 C 6.8319951,3.5290061 6.7055849,3.8263517 6.8105469,4.0900598 L 7.5234375,5.8791222 A 8,8 0 0 0 5.5058594,7.8400598 L 3.7363281,7.078341 C 3.4756391,6.96609 3.1747504,7.0852291 3.0625,7.3459191 l -0.9472656,2.203125 c -0.1122505,0.260689 0.00689,0.5615779 0.2675781,0.6738279 l 1.765625,0.759765 A 8,8 0 0 0 4,12.500215 8,8 0 0 0 4.109375,13.799043 l -1.7871094,0.710938 c -0.2637081,0.104962 -0.3901183,0.402308 -0.2851562,0.666015 l 0.8867187,2.228516 c 0.104962,0.263709 0.4023076,0.390117 0.6660157,0.285156 l 1.7890624,-0.712891 a 8,8 0 0 0 1.9609376,2.017579 L 6.578125,20.763887 c -0.112251,0.260689 0.00689,0.561577 0.2675781,0.673828 l 2.203125,0.947266 c 0.260689,0.11225 0.5615776,-0.0068 0.6738281,-0.267578 L 10.482422,20.351777 A 8,8 0 0 0 12,20.500215 8,8 0 0 0 13.298828,20.39084 l 0.710938,1.787109 c 0.104962,0.263708 0.402308,0.390119 0.666015,0.285157 l 2.228516,-0.886719 c 0.263708,-0.104962 0.390118,-0.402308 0.285156,-0.666016 l -0.712891,-1.789062 a 8,8 0 0 0 2.017579,-1.960938 l 1.769531,0.761719 c 0.260689,0.112251 0.561577,-0.0069 0.673828,-0.267578 l 0.947266,-2.203125 c 0.11225,-0.260689 -0.0068,-0.561577 -0.267578,-0.673828 L 19.851562,14.017793 A 8,8 0 0 0 20,12.500215 8,8 0 0 0 19.890625,11.201387 l 1.787109,-0.710937 c 0.263708,-0.104962 0.390119,-0.402308 0.285157,-0.6660152 L 21.076172,7.5959191 C 20.97121,7.3322111 20.673864,7.2058009 20.410156,7.3107629 L 18.621094,8.0236535 A 8,8 0 0 0 16.660156,6.0060754 L 17.421875,4.2365441 C 17.534126,3.975855 17.414937,3.6749665 17.154297,3.562716 L 14.951172,2.6154504 C 14.690484,2.5032 14.389595,2.6223387 14.277344,2.8830285 l -0.759766,1.765625 A 8,8 0 0 0 12,4.500216 8,8 0 0 0 10.701172,4.609591 L 9.9902344,2.8224816 C 9.9115129,2.6247006 9.7250171,2.5042313 9.5253906,2.500216 Z"/>
 <path style="fill:#b2bfd9" d="m 14.95133,2.1147476 c -0.260688,-0.1122504 -0.560925,0.00725 -0.673176,0.2679398 L 12.062414,7.528495 9.990591,2.3232144 C 9.885629,2.0595063 9.588901,1.9317377 9.3251935,2.0366998 L 7.0966125,2.9237269 C 6.8329045,3.0286889 6.7051355,3.325417 6.8100975,3.589125 L 8.881921,8.7944055 3.7361132,6.578666 C 3.4754242,6.466415 3.1751877,6.585916 3.0629373,6.846606 L 2.1147478,9.0486695 c -0.1122505,0.260689 0.00725,0.560926 0.2679397,0.673176 L 7.528495,11.937586 2.3232145,14.009409 c -0.2637081,0.104962 -0.3914767,0.40169 -0.2865146,0.665397 l 0.8870272,2.228581 c 0.104962,0.263709 0.4016901,0.391477 0.6653981,0.286516 l 5.2052803,-2.071824 -2.215739,5.145808 c -0.112251,0.260689 0.00725,0.560925 0.2679395,0.673176 l 2.202064,0.94819 c 0.260689,0.11225 0.5609255,-0.0072 0.673176,-0.26794 l 2.21574,-5.145808 2.071823,5.205281 c 0.104962,0.263708 0.401691,0.391476 0.665398,0.286514 l 2.228581,-0.887027 c 0.263708,-0.104962 0.391476,-0.40169 0.286514,-0.665398 l -2.071823,-5.20528 5.145808,2.215739 c 0.260689,0.112251 0.560925,-0.0073 0.673176,-0.26794 l 0.94819,-2.202064 c 0.11225,-0.260689 -0.0072,-0.560925 -0.26794,-0.673176 l -5.145808,-2.21574 5.205281,-2.071823 C 21.940494,9.885629 22.068262,9.5889005 21.9633,9.325193 L 21.076273,7.096612 C 20.971311,6.832904 20.674583,6.7051355 20.410875,6.8100975 l -5.20528,2.071823 2.215739,-5.1458073 c 0.112251,-0.2606891 -0.0073,-0.5609256 -0.26794,-0.6731761 z"/>
 <circle style="fill:#b2bfd9" cx="12" cy="12" r="8"/>
 <path style="opacity:0.1" d="M 10.800001,6.5000403 8,11.500024 l 3.000372,4.999982 v -1.999993 c -0.514504,-0.05305 -0.862323,-0.290664 -0.896506,-0.643478 -0.03952,-0.408094 0.282059,-0.728518 0.129579,-1.053603 0.594208,0.146218 0.809335,0.379034 0.958183,0.723125 0.07371,-0.240228 -0.147585,-0.415055 -0.168975,-0.569337 0.771543,0.341373 0.989991,0.726389 0.979539,1.548012 -0.0028,0.219605 -0.610448,0.925661 -0.598667,1.135073 0.0118,0.209411 0.244112,0.446083 0.270923,0.62169 0.02632,0.172522 -0.451544,0.397834 -0.451544,0.742827 0,0.327056 0.77708,1.495678 0.77708,1.495678 l 0.799999,-1.333329 c -0.424835,0.226799 -0.699416,0.248043 -0.898335,0.238182 -0.284996,0.01369 -0.431904,-0.249018 -0.393336,-0.409725 0.06099,-0.254101 0.491672,-0.548809 0.491672,-0.737506 0,-0.22536 -0.176329,-0.369141 -0.156697,-0.588369 0.01965,-0.219228 0.872328,-0.8428 0.789224,-1.30555 -0.129772,-0.722609 -0.300131,-1.13791 0.396568,-1.439705 -0.08759,0.248503 -0.03428,0.393054 0.0118,0.63478 0.08305,-0.464222 0.332048,-0.525531 0.74996,-0.788566 -0.120772,0.495943 0.126156,0.682538 0.109936,1.056874 -0.0162,0.374336 -0.642863,0.664663 -0.900775,0.672927 v 0.999997 c 0.172176,-0.07905 0.441871,1.16e-4 0.600003,0 L 16,11.500024 13.200003,6.5000403 v 0.6666643 c -0.245956,0.1334722 -0.265424,0.2270123 -0.258652,0.44312 0,0 0.136932,-0.119604 0.258652,-0.109788 0.12172,0.00981 0.796071,1.8363905 0.799999,1.9999937 -4e-6,0.202867 -0.799999,0.3333323 -0.799999,0.6666647 0.192219,-0.160005 0.507096,-0.105953 0.794071,0.0047 0.223136,0.08607 0.393584,0.938551 0.424995,1.131603 -0.0077,0.196323 -0.259147,0.369741 -0.573267,0.373014 -0.314115,0.0033 -0.45547,-0.0458 -0.459395,-0.163601 -0.0041,-0.117794 0.404424,-0.428639 0.404424,-0.428639 -0.468112,-0.02143 -0.677403,0.247723 -0.852043,0.438455 0.02332,-0.114522 0.0471,-0.196324 0.07068,-0.294485 -0.238103,0.0383 -0.348556,0.194275 -0.435839,0.320662 -0.118361,-0.254786 -0.820341,-0.786391 -0.808857,-1.009772 -0.043,-0.367013 1.286324,-0.343953 1.427527,-1.1975721 -0.0078,-0.3239334 -0.368792,-0.6374543 -0.701127,-0.7107633 -0.267004,-0.058897 -0.353384,-0.07853 -0.353384,-0.07853 0.179284,-0.080397 0.71738,-0.3099431 0.588968,-0.6282344 C 12.677326,8.049222 12.616244,8.208461 12.063184,8.2344079 11.497656,8.0073438 11.571112,7.6664917 11.662685,7.390217 c -0.372884,0.226774 -0.31748,0.4475819 -0.223808,0.7722049 0.0266,0.1603293 -0.17124,0.2948117 -0.228996,0.4011497 0.01143,0.1339127 0.02064,0.2795339 -0.06941,0.3416072 -0.223828,0.2035254 0.04946,0.5135306 0.176684,0.49408 -0.01744,-0.4023604 0.47164,-0.5590616 0.667499,-0.6020574 0.321972,-3.4e-6 0.90138,0.3606533 0.897451,0.5602486 -0.004,0.199595 -0.390935,0.3959183 -0.869963,0.5300728 -0.479031,0.1341552 -0.863827,0.3108452 -0.852047,0.7427562 0.015,0.422085 0.252648,0.812585 0.298412,0.92797 -0.159684,-0.127898 -0.247688,-0.312889 -0.479027,-0.340293 0.05516,0.098 0.112091,0.206993 0.160991,0.320661 -0.242132,-0.326433 -0.492663,-0.421522 -0.930575,-0.471175 0.770112,0.512363 0.238008,0.619458 -0.04711,0.615146 -0.2719037,-0.0041 -0.6096708,-0.09655 -0.5732628,-0.359927 0.02192,-0.158512 0.1445876,-1.035085 0.4245428,-1.150408 0.295136,-0.121576 0.605859,-0.114925 0.785944,-0.0056 0,-0.333332 -0.8052112,-0.5156036 -0.799999,-0.6666651 0.0052,-0.1510609 0.672063,-1.9999932 0.799999,-1.9999932 0.127936,0 0.173123,0.02232 0.25,0.1197913 0.07315,-0.3158163 -0.168249,-0.3395887 -0.25,-0.4531233 3e-6,-0.078529 0,-0.6666647 0,-0.6666647 z"/>
 <path style="fill:#4f4f4f" d="M 10.800001,6.0000363 8,11.00002 l 3.000372,4.999982 v -1.999993 c -0.514504,-0.05305 -0.862323,-0.290664 -0.896506,-0.643478 -0.03952,-0.408094 0.282059,-0.728518 0.129579,-1.053603 0.594208,0.146218 0.60896,0.379034 0.757808,0.723125 0.07371,-0.240228 0.05279,-0.415055 0.0314,-0.569337 0.771543,0.341373 0.989991,0.726389 0.979539,1.548012 -0.0028,0.219605 -0.610448,0.925661 -0.598667,1.135073 0.0118,0.209411 0.244112,0.446083 0.270923,0.62169 0.02632,0.172522 -0.451544,0.397834 -0.451544,0.742827 0,0.327056 0.77708,1.495678 0.77708,1.495678 l 0.799999,-1.333329 c -0.424835,0.226799 -0.699416,0.248043 -0.898335,0.238182 -0.284996,0.01369 -0.431904,-0.249018 -0.393336,-0.409725 0.06099,-0.254101 0.491672,-0.548809 0.491672,-0.737506 0,-0.22536 -0.176329,-0.369141 -0.156697,-0.588369 0.01965,-0.219228 0.872328,-0.8428 0.789224,-1.30555 -0.129772,-0.722609 -0.300131,-1.13791 0.396568,-1.439705 -0.08759,0.248503 -0.03428,0.393054 0.0118,0.63478 0.08305,-0.464222 0.332048,-0.525531 0.74996,-0.788566 -0.120772,0.495943 0.126156,0.682538 0.109936,1.056874 -0.0162,0.374336 -0.642863,0.664663 -0.900775,0.672927 v 0.999997 c 0.172176,-0.07905 0.441871,1.16e-4 0.600003,0 L 16,11.00002 13.200003,6.0000363 v 0.6666643 c -0.245956,0.1334722 -0.265424,0.2270123 -0.258652,0.44312 0,0 0.136932,-0.119604 0.258652,-0.109788 0.12172,0.00981 0.796071,1.8363905 0.799999,1.9999937 -4e-6,0.202867 -0.799999,0.3333323 -0.799999,0.6666645 0.192219,-0.1600053 0.507096,-0.1059525 0.794071,0.00473 0.223136,0.086072 0.393584,0.9385512 0.424995,1.1316032 -0.0077,0.196323 -0.259147,0.369741 -0.573267,0.373014 -0.314115,0.0033 -0.45547,-0.0458 -0.459395,-0.163601 -0.0041,-0.117794 0.404424,-0.428639 0.404424,-0.428639 -0.468112,-0.02143 -0.677403,0.247723 -0.852043,0.438455 0.02332,-0.114522 0.0471,-0.196324 0.07068,-0.294485 -0.238103,0.0383 -0.348556,0.194275 -0.435839,0.320662 -0.118361,-0.254786 -0.820341,-0.786391 -0.808857,-1.009772 -0.043,-0.3670125 1.286324,-0.3439527 1.427527,-1.1975721 -0.0078,-0.3239334 -0.368792,-0.6374543 -0.701127,-0.7107633 -0.267004,-0.058897 -0.353384,-0.07853 -0.353384,-0.07853 0.179284,-0.080397 0.71738,-0.3099431 0.588968,-0.6282344 C 12.677326,7.549218 12.616244,7.708457 12.063184,7.7344039 11.497656,7.5073398 11.571112,7.1664877 11.662685,6.890213 c -0.372884,0.226774 -0.31748,0.4475819 -0.223808,0.7722049 0.0266,0.1603293 -0.17124,0.2948117 -0.228996,0.4011497 0.01143,0.1339127 0.02064,0.2795339 -0.06941,0.3416072 -0.223828,0.2035254 0.04946,0.5135306 0.176684,0.49408 -0.01744,-0.4023604 0.47164,-0.5590616 0.667499,-0.6020574 0.321972,-3.4e-6 0.90138,0.3606533 0.897451,0.5602486 -0.004,0.199595 -0.390935,0.3959183 -0.869963,0.5300728 -0.479031,0.1341549 -0.863827,0.3108452 -0.852047,0.7427562 0.015,0.422085 0.252648,0.812585 0.298412,0.92797 -0.159684,-0.127898 -0.247688,-0.312889 -0.479027,-0.340293 0.05516,0.098 0.112091,0.206993 0.160991,0.320661 -0.242132,-0.326433 -0.492663,-0.421522 -0.930575,-0.471175 0.770112,0.512363 0.238008,0.619458 -0.04711,0.615146 -0.2719037,-0.0041 -0.6096708,-0.09655 -0.5732628,-0.359927 0.02192,-0.158512 0.1445876,-1.035085 0.4245428,-1.1504077 0.295136,-0.1215767 0.605859,-0.1149251 0.785944,-0.00559 0,-0.3333323 -0.8052112,-0.5156039 -0.799999,-0.6666654 0.0052,-0.1510609 0.672063,-1.9999932 0.799999,-1.9999932 0.127936,0 0.173123,0.02232 0.25,0.1197913 0.07315,-0.3158163 -0.168249,-0.3395887 -0.25,-0.4531233 3e-6,-0.078529 0,-0.6666647 0,-0.6666647 z"/>
 <path style="opacity:0.2;fill:#8b9cbe" d="M 9.5253906 2 C 9.4588485 1.9986616 9.3901455 2.0108689 9.3242188 2.0371094 L 7.0957031 2.9238281 C 6.8319951 3.0287901 6.7055849 3.3261357 6.8105469 3.5898438 L 6.8398438 3.6621094 C 6.8945313 3.5591608 6.9783832 3.4705242 7.0957031 3.4238281 L 9.3242188 2.5371094 C 9.3901455 2.5108694 9.4588486 2.49866 9.5253906 2.5 C 9.7250171 2.5040153 9.9115129 2.6244846 9.9902344 2.8222656 L 10.701172 4.609375 A 8 8 0 0 1 12 4.5 A 8 8 0 0 1 13.517578 4.6484375 L 14.277344 2.8828125 C 14.389595 2.6221244 14.690484 2.502984 14.951172 2.6152344 L 17.154297 3.5625 C 17.265411 3.610354 17.343758 3.6962307 17.396484 3.7949219 L 17.421875 3.7363281 C 17.534126 3.475639 17.414937 3.1747505 17.154297 3.0625 L 14.951172 2.1152344 C 14.690484 2.002984 14.389595 2.1221227 14.277344 2.3828125 L 13.517578 4.1484375 A 8 8 0 0 0 12 4 A 8 8 0 0 0 10.701172 4.109375 L 9.9902344 2.3222656 C 9.9115129 2.1244846 9.7250171 2.0040153 9.5253906 2 z M 7.3710938 5.4941406 A 8 8 0 0 0 5.5058594 7.3398438 L 3.7363281 6.578125 C 3.4756391 6.465874 3.1747504 6.5850131 3.0625 6.8457031 L 2.1152344 9.0488281 C 2.0508378 9.1983818 2.0696761 9.3574267 2.140625 9.4902344 L 3.0625 7.3457031 C 3.1747504 7.0850131 3.4756391 6.965874 3.7363281 7.078125 L 5.5058594 7.8398438 A 8 8 0 0 1 7.5234375 5.8789062 L 7.3710938 5.4941406 z M 16.822266 5.6289062 L 16.660156 6.0058594 A 8 8 0 0 1 18.621094 8.0234375 L 20.410156 7.3105469 C 20.673864 7.2055849 20.97121 7.3319951 21.076172 7.5957031 L 21.933594 9.7519531 C 22.001831 9.623497 22.021157 9.4706065 21.962891 9.3242188 L 21.076172 7.0957031 C 20.97121 6.8319951 20.673864 6.7055849 20.410156 6.8105469 L 18.621094 7.5234375 A 8 8 0 0 0 16.822266 5.6289062 z M 4.0800781 10.953125 A 8 8 0 0 0 4 12 A 8 8 0 0 0 4.0117188 12.242188 A 8 8 0 0 1 4.1484375 10.982422 L 4.0800781 10.953125 z M 19.955078 11.175781 L 19.890625 11.201172 A 8 8 0 0 1 19.988281 12.257812 A 8 8 0 0 0 20 12 A 8 8 0 0 0 19.955078 11.175781 z M 4.0449219 13.324219 L 2.3222656 14.009766 C 2.0585575 14.114728 1.9321473 14.412074 2.0371094 14.675781 L 2.0664062 14.748047 C 2.1210938 14.645098 2.2049457 14.556462 2.3222656 14.509766 L 4.109375 13.798828 A 8 8 0 0 1 4.0449219 13.324219 z M 19.919922 13.546875 A 8 8 0 0 1 19.851562 14.017578 L 21.617188 14.777344 C 21.728361 14.825198 21.806658 14.911074 21.859375 15.009766 L 21.884766 14.951172 C 21.997016 14.690483 21.877926 14.389595 21.617188 14.277344 L 19.919922 13.546875 z M 7.1777344 18.871094 L 6.578125 20.263672 C 6.5137282 20.413226 6.5325667 20.572271 6.6035156 20.705078 L 7.3398438 18.994141 A 8 8 0 0 1 7.1777344 18.871094 z M 16.628906 19.005859 A 8 8 0 0 1 16.476562 19.121094 L 17.160156 20.837891 C 17.228394 20.709435 17.247719 20.556544 17.189453 20.410156 L 16.628906 19.005859 z"/>
</svg>
