<svg width="24" height="24" version="1.1" xmlns="http://www.w3.org/2000/svg">
 <g transform="translate(1,1)">
  <rect x="6" y="4.5" width="15" height="14" style="opacity:.2"/>
  <rect x="6" y="4" width="15" height="14" style="fill:#d6000a"/>
  <rect x="6" y="4" width="5" height="14" style="fill:#a20109"/>
  <path d="m6 4.5v5h5v-5zm0 5h-5v5h5z" style="opacity:.2"/>
  <path d="m6 4v5h5v-5zm0 5h-5v5h5z" style="fill:#ffb221"/>
  <path d="m6 4v0.5h15v-0.5z" style="fill:#8b9cbe;opacity:.2"/>
  <path d="m1 9v0.5h5v-0.5z" style="fill:#8b9cbe;opacity:.2"/>
 </g>
</svg>
