<svg xmlns="http://www.w3.org/2000/svg" width="24" height="24" version="1">
 <circle style="opacity:0.2" class="cls-1" cx="12" cy="12.5" r="10"/>
 <circle style="fill:#314d7a" class="cls-1" cx="12" cy="12" r="10"/>
 <path style="opacity:0.1;fill:#8b9cbe" d="M 12,2 A 10,10 0 0 0 2,12 10,10 0 0 0 2.0107422,12.291016 10,10 0 0 1 12,2.5 10,10 0 0 1 21.989258,12.208985 10,10 0 0 0 22,12 10,10 0 0 0 12,2 Z"/>
 <path style="opacity:0.2" d="m 11.580078,5.4996115 c -0.02731,0.3354902 0.131925,0.9490426 -0.0012,1.0984889 -0.273955,-0.259094 -0.984498,-1.1699174 -0.548056,-0.3779161 0.127163,0.4831933 0.962847,1.4753004 0.887921,0.4518124 0.05938,-0.3715584 -0.210682,-0.7041869 -0.296616,-1.0587366 -0.01402,-0.037883 -0.02803,-0.075766 -0.04205,-0.1136486 z m 0.803711,0.052734 c -0.128648,0.4025287 -0.426585,0.8067405 -0.30274,1.2460935 0.07141,0.9348024 0.872803,-0.4456226 0.968746,-0.8190422 0.08863,-0.4041757 -0.928715,1.300275 -0.695427,0.2227831 0.0019,-0.2169594 0.04258,-0.4329064 0.02942,-0.6498344 z M 5.8583985,6.3355485 C 5.3706497,6.2466066 5.6886988,6.4862636 5.8918533,6.6790673 7.8539367,8.6098917 9.81183,10.54502 11.78125,12.468361 10.965202,13.265275 10.159018,14.072531 9.330078,14.856057 8.4216594,14.267328 9.824613,13.779421 9.4856464,12.970523 9.4139405,12.939773 9.2660511,14.249717 8.7411233,14.016037 8.1007006,12.941242 8.2506619,11.575224 7.5081004,10.542203 7.2429076,9.9721819 6.5480945,9.7457879 6.3001557,9.2001403 6.2700274,8.7085537 5.2397136,8.0861031 5.1132815,8.3628925 5.6323478,8.2540253 6.5839934,9.6395814 5.6592134,9.0972684 5.0461808,8.9142881 4.3125917,8.681418 3.7060557,8.873635 4.0106838,9.0840222 5.1932937,8.8041931 5.1074235,9.2613315 4.9827485,9.6501355 3.6602175,10.156945 4.7041028,9.8218775 5.1878104,9.2493316 5.709343,9.0761637 6.3131604,9.6407939 6.9598201,10.104659 7.662557,10.883363 7.689434,11.662699 6.7951669,11.94863 6.0646397,11.150565 5.5744049,10.515107 c 0.03791,0.38864 0.7210164,1.063795 1.2189195,1.288232 -0.00156,0.24526 -1.5598254,-0.04486 -0.5674336,0.235535 0.5908892,0.162382 1.788702,-0.661222 1.7100004,0.40954 C 8.1324033,13.290647 6.6991803,13.097636 6.2070091,12.89014 5.702111,12.783608 5.03598,12.109266 4.7798268,12.051256 c 0.7856139,0.867186 2.0505201,1.481061 3.2162482,1.04399 0.662491,0.865132 -0.8635256,1.055143 -1.4549654,0.936719 -0.3247092,0.0061 -1.4561284,-0.715595 -0.6741076,-0.131283 0.3878609,0.408301 1.825332,0.09335 1.0088486,0.882208 -0.2802833,0.201426 -0.4708968,0.573108 -0.00645,0.206735 0.369901,-0.482875 0.886082,-1.186234 1.5000635,-0.995375 0.2511,0.608608 1.0732897,1.180997 0.1680799,1.648264 -0.9770817,1.000757 -1.9998092,1.956639 -2.976041,2.957613 0.7869172,0.207019 1.1632917,-0.651769 1.6913417,-1.054702 1.6154246,-1.586044 3.2249953,-3.178035 4.8379553,-4.766583 1.960947,1.94307 3.929329,3.87862 5.894531,5.817383 0.338839,0.01976 0.901257,0.0768 0.336879,-0.302898 -1.076154,-1.048002 -2.143718,-2.104771 -3.213811,-3.15895 0.304129,-0.38609 0.532666,-0.825706 0.8125,-1.22461 0.809783,0.05128 0.978893,0.805871 1.571836,1.182514 0.173097,-0.07296 -0.934666,-0.936846 -0.218316,-0.867083 0.417005,0.01656 1.309481,-0.352533 1.286416,-0.563219 -0.746846,0.512701 -1.842388,0.544352 -2.57382,-0.0024 -0.01825,-1.059903 1.098268,-0.107787 1.714982,-0.501397 0.458329,-0.120956 1.446795,-0.661732 1.428163,-0.917081 -0.797871,0.61028 -1.909087,1.128941 -2.881313,0.605195 -0.08275,-0.522868 0.04769,-1.183428 0.697296,-0.821485 0.778488,0.0068 1.453711,-0.534552 1.912264,-1.116994 -0.275344,0.03251 -1.290006,1.317313 -1.237061,0.461526 0.01931,-0.380409 0.63537,-1.210029 0.0076,-0.480081 -0.257939,0.45287 -0.09904,1.248016 -0.876799,0.908316 -0.719687,-0.312916 0.308303,-1.311353 0.597672,-1.718701 0.266524,-0.1581756 0.652036,-0.8189065 0.92854,-0.3917725 0.284265,0.4206005 1.325261,0.5217925 1.470704,0.214844 C 19.237216,10.260484 17.686866,9.4019506 18.80048,9.1883732 19.282651,8.9104177 20.117414,9.0617785 20.479457,8.8261141 20.065912,8.677118 19.316762,8.9971477 19.097713,8.8444291 19.235083,8.4710307 20.483095,7.8855695 19.47901,8.287225 c -0.556099,0.7138431 -1.389131,0.9497837 -2.100688,1.4886998 -0.945067,0.7539832 -1.294491,1.9550732 -1.486773,3.0978472 -0.07261,0.680543 -0.616285,1.778708 -1.036957,0.633171 -0.351457,-0.783963 -0.08118,0.633982 0.30948,0.700668 0.231869,0.319026 -0.472437,0.91597 -0.688938,0.292227 C 13.774456,13.831369 13.08976,13.146452 12.39845,12.468357 14.478276,10.426483 16.555671,8.3821346 18.63086,6.335549 18.362777,6.3804283 18.007836,6.2140844 17.835441,6.4916615 15.927491,8.376931 14.027416,10.27047 12.097656,12.1334 10.09927,10.224845 8.1458623,8.2694283 6.171875,6.335549 c -0.1044922,-2e-7 -0.2089843,-3e-7 -0.3134765,-5e-7 z m 7.8369145,0.049805 C 13.226417,6.5344121 12.342995,6.9642829 12.395283,7.3853801 12.955717,7.5920892 13.477655,7.2860844 14,7.114846 13.343806,7.149893 12.478335,7.2658089 13.391733,6.6564041 c 0.08931,-0.1017743 0.221598,-0.1640729 0.30358,-0.2710506 z m -3.393555,0.010745 c 0.230762,0.2890055 1.301049,0.9587305 0.318547,0.7439329 -0.379478,-0.03301 -0.8379929,-0.029835 -0.223113,0.1356081 0.357655,0.260891 1.755346,0.311931 0.957934,-0.3227569 C 11.058649,6.6849293 10.658039,6.5637145 10.301758,6.3960985 Z m 2.766602,1.173828 c -0.223387,0.055758 -0.639504,0.032053 -0.744351,0.1366851 0.295161,0.499878 0.846909,0.7276664 1.369388,0.9175628 C 13.417836,8.3330398 12.424525,7.7027544 13.363281,7.880467 13.793844,7.940778 14.109107,7.889957 13.530274,7.7291 13.376303,7.6760422 13.222331,7.6229843 13.06836,7.5699265 Z m -2.136719,0.00195 C 10.668934,7.6749937 9.6238789,7.9596018 10.332031,7.900978 10.644671,7.9003078 11.452168,7.7388164 10.861328,8.115802 10.596326,8.3615585 9.9688305,8.8747949 10.629903,8.4952381 11.062623,8.331997 11.44428,8.0720228 11.685547,7.671466 11.434264,7.638124 11.182962,7.60493 10.931641,7.5718765 Z m 0.914062,0.2695315 c -0.512776,0.1267241 -0.99714,1.2559429 -0.863544,1.2369249 0.259307,-0.2628025 0.822933,-1.1040009 0.640652,-0.2300006 -0.0324,0.3420189 -0.07843,0.9566467 0.117584,0.2735383 0.104724,-0.3002749 0.267198,-0.5944249 0.158048,-0.9181576 -0.01627,-0.1209352 -0.02924,-0.2424548 -0.05274,-0.362305 z m 0.291993,0 c -0.06019,0.3643362 -0.156791,0.7388024 0.03635,1.0791394 0.11312,0.3723883 0.291989,0.7970894 0.204378,0.1232211 -0.04788,-0.3988481 -0.08275,-0.898516 0.288708,-0.3386797 0.259437,0.2786949 0.672325,0.7694635 0.317985,0.1649304 C 12.799477,8.4413178 12.580058,8.0524123 12.137696,7.841408 Z m -7.5449226,2.87207 c -0.2662575,0.293876 -0.2897596,0.421707 -0.6151201,0.08717 -0.3929998,0.09804 -0.2531816,0.479485 -0.1749192,0.654042 -0.618121,0.188632 -0.073554,0.748193 0.3154302,0.534623 -0.11722,0.59604 0.7400301,0.518476 0.5705088,-0.06989 0.6144573,0.253859 0.7530475,-0.649744 0.121473,-0.558204 0.2476814,-0.481525 0.044863,-0.441284 -0.2173727,-0.647741 z m 15.1601556,0.226563 c -0.630687,-0.05222 -0.632225,0.478775 -0.09277,0.482425 0.102893,-0.05047 0.246886,-0.440577 0.09277,-0.482425 z m 0.200196,0.01758 c -0.437382,0.450198 0.284365,0.737674 0.457867,0.378771 -0.142188,-0.13628 -0.273935,-0.298543 -0.457867,-0.378771 z m -15.65625,0.239257 c 0.08044,0.226718 0.3459776,0.05445 0.2350284,0.289093 0.2047337,-0.06249 0.00751,0.136682 0.1101835,0.135455 -0.3526991,-0.12853 0.2222865,0.314559 -0.1899416,0.02464 0.1543751,0.239155 -0.1188624,-0.01926 -0.089841,0.152359 -0.1071336,-0.04815 -0.2324362,-0.01252 -0.1652141,-0.160895 -0.2523784,0.07627 -0.08551,-0.262501 -0.00347,-0.253663 -0.038748,-0.261124 0.1283376,0.137625 0.1032522,-0.186991 z m 14.858398,0.06152 c -0.256349,0.256019 -0.189604,0.908576 0.306639,0.462885 0.140666,-0.220973 -0.168616,-0.358237 -0.306639,-0.462885 z m 1.308594,0.196289 c -0.58294,-0.0586 -0.525976,0.661586 -0.0732,0.587593 0.06902,-0.186532 0.09107,-0.390031 0.0732,-0.587593 z m -0.729492,0.105469 c -0.451281,0.371632 0.490283,0.226419 0,0 z M 9.2597655,11.665628 c -0.3962515,0.09325 0.031338,0.599468 -0.4841022,0.470297 -0.3180313,0.186303 0.06323,0.46651 0.2258084,0.497415 -0.3198875,0.45059 0.3374359,0.542204 0.4712194,0.150046 0.2201409,0.486395 0.7665079,-0.08695 0.285343,-0.332611 0.6118299,-0.238617 0.034827,-0.718522 -0.2453376,-0.449214 -0.016036,-0.139412 -0.101581,-0.307677 -0.252931,-0.335933 z m 5.4296875,0.06445 c -0.706034,0.01917 0.40332,0.838573 0.31739,0.03125 -0.102701,-0.03373 -0.211135,-0.03008 -0.31739,-0.03125 z m -0.399414,0.09277 c -0.62053,0.291306 -0.01724,0.866076 0.219248,0.374916 -0.05863,-0.103859 -0.09701,-0.348362 -0.219248,-0.374916 z m 5.192383,10e-4 c -0.934788,-0.07515 0.321578,1.101715 0.154682,0.207001 0.03906,-0.103482 -0.06132,-0.195955 -0.154682,-0.207001 z m -4.342773,0.0088 c -0.536691,0.304745 0.110561,0.814345 0.2957,0.497415 -0.06973,-0.167483 -0.132739,-0.400007 -0.2957,-0.497415 z m 4.749023,0.08105 c -0.500724,0.314263 -0.11314,0.731357 0.317112,0.338095 0.282378,-0.03281 -0.255007,-0.336252 -0.317112,-0.338095 z M 9.314453,12.143191 c 0.1381592,0.102251 0.3435865,0.04142 0.241212,0.27631 0.073971,0.147177 -0.1671374,0.179033 -0.2100281,0.244722 -0.1083874,-0.13787 -0.2324831,-0.125898 -0.2147649,-0.317852 0.089033,-0.136928 0.1644078,-0.106403 0.183581,-0.20318 z m 5.392578,0.160156 c -0.533101,0.312599 0.503543,0.284192 0,0 z m -0.762695,0.144532 c 0.01881,0.601469 0.671732,0.646167 0.465159,0.03274 -0.152332,-0.03087 -0.310542,-0.02133 -0.465159,-0.03274 z m 1.250977,0.03808 c -0.653158,-0.06273 0.03696,0.982227 0.174574,0.208465 0.138224,-0.19333 0.02642,-0.233889 -0.174574,-0.208465 z m -0.501953,0.206055 c -0.677539,0.267725 0.02309,0.650382 0.295141,0.365402 -0.08776,-0.119238 -0.124981,-0.34957 -0.295141,-0.365402 z m -8.4843755,1.855468 c -0.2516929,0.423844 -0.3059206,0.260108 -0.680664,0.06836 -0.1187539,0.23236 -0.3834446,0.353479 -0.037111,0.643551 -0.6038694,0.06195 -0.2781545,0.84051 0.250022,0.54971 -0.1124428,0.656968 0.7185933,0.491855 0.621295,-0.07172 0.5331742,0.251881 0.7561762,-0.616729 0.1235163,-0.539044 C 6.4560704,15.059491 6.670525,14.534196 6.265625,14.615851 l -0.025543,-0.04835 -0.031097,-0.02001 z m 12.0097655,0.20603 c -0.836394,-0.0466 0.05769,0.747427 0.08496,3e-6 l -0.04438,-2e-6 z m 0.158203,0.02929 c -0.463404,0.579421 0.78502,0.53393 0.100583,0.07227 -0.03353,-0.02409 -0.06705,-0.04818 -0.100583,-0.07227 z m -0.667969,0.141602 c -0.36618,0.360611 0.04763,0.74563 0.227179,0.256396 -0.06102,-0.09828 -0.148831,-0.173248 -0.227179,-0.256396 z M 6.0683595,15.068945 c 0.00435,0.193775 0.1893545,0.03996 0.183594,0.23637 0.1932003,0.0029 -0.2915465,0.08356 0.062761,0.151515 -0.3132876,-0.04872 0.047335,0.181846 -0.2160816,0.144335 -0.1105098,0.22499 -0.1609881,-0.138292 -0.317386,0.03614 -0.023039,-0.208831 -0.046741,-0.202906 -0.037573,-0.314044 -0.035505,-0.06994 0.1577405,-0.230634 0.193347,-0.148799 -0.062835,-0.272264 0.021852,0.109661 0.131339,-0.105521 z M 5.743164,15.17832 c 0.1812349,0.02288 -0.065872,0.112444 0,0 z m 12.392578,0.06934 c -0.297533,0.216288 0.328012,0.209412 0,0 z m 0.591797,0.02735 c -0.705603,-0.14703 -0.0734,0.925632 0.0052,0.141935 l 0.02215,-0.102885 -0.02735,-0.03907 z m -0.792969,0.172852 c -0.812296,-0.162188 0.230287,0.897929 0.06055,0.0537 l -0.0251,-0.03581 -0.03545,-0.0179 z m 0.293945,0.09473 c -0.570843,0.300443 0.124108,0.5392 0.261698,0.242214 -0.08012,-0.08645 -0.141472,-0.205513 -0.261698,-0.242214 z m -6.151366,0.952348 c -1.461469,-0.09027 -2.7924872,1.313061 -2.5571316,2.771507 0.033662,0.403993 0.1310512,0.655626 0.2603658,0.147973 0.6812668,-1.510601 2.9516528,-1.827954 4.0328808,-0.577597 0.368242,0.233002 0.599422,1.464015 0.668195,0.436843 0.207647,-1.415523 -0.977121,-2.76895 -2.40431,-2.778726 z"/>
 <path style="fill:#8b9cbe" d="m 11.580078,5 c -0.02731,0.3354902 0.131925,0.9490426 -0.0012,1.0984889 -0.273955,-0.259094 -0.984498,-1.1699174 -0.548056,-0.3779161 0.127163,0.4831933 0.962847,1.4753004 0.887921,0.4518124 C 11.978118,5.8008268 11.708061,5.4681983 11.622127,5.1136486 11.608111,5.0757658 11.594094,5.0378829 11.580078,5 Z m 0.803711,0.052734 c -0.128648,0.4025287 -0.426585,0.8067405 -0.30274,1.2460935 0.07141,0.9348024 0.872803,-0.4456226 0.968746,-0.8190422 0.08863,-0.4041757 -0.928715,1.300275 -0.695427,0.2227831 0.0019,-0.2169594 0.04258,-0.4329064 0.02942,-0.6498344 z M 5.8583985,5.835937 C 5.3706497,5.7469951 5.6886988,5.9866521 5.8918533,6.1794558 7.8539367,8.1102802 9.81183,10.045409 11.78125,11.96875 10.965202,12.765664 10.159018,13.57292 9.330078,14.356446 8.4216594,13.767717 9.824613,13.27981 9.4856464,12.470912 9.4139405,12.440162 9.2660511,13.750106 8.7411233,13.516426 8.1007006,12.441631 8.2506619,11.075613 7.5081004,10.042592 7.2429076,9.4725704 6.5480945,9.2461764 6.3001557,8.7005288 6.2700274,8.2089422 5.2397136,7.5864916 5.1132815,7.863281 5.6323478,7.7544138 6.5839934,9.1399699 5.6592134,8.5976569 5.0461808,8.4146766 4.3125917,8.1818065 3.7060557,8.3740235 4.0106838,8.5844107 5.1932937,8.3045816 5.1074235,8.76172 4.9827485,9.150524 3.6602175,9.6573334 4.7041028,9.322266 5.1878104,8.7497201 5.709343,8.5765522 6.3131604,9.1411824 6.9598201,9.6050476 7.662557,10.383752 7.689434,11.163088 6.7951669,11.449019 6.0646397,10.650954 5.5744049,10.015496 c 0.03791,0.38864 0.7210164,1.063795 1.2189195,1.288232 -0.00156,0.24526 -1.5598254,-0.04486 -0.5674336,0.235535 0.5908892,0.162382 1.788702,-0.661222 1.7100004,0.40954 0.1965121,0.842233 -1.2367109,0.649222 -1.7288821,0.441726 C 5.702111,12.283997 5.03598,11.609655 4.7798268,11.551645 c 0.7856139,0.867186 2.0505201,1.481061 3.2162482,1.04399 0.662491,0.865132 -0.8635256,1.055143 -1.4549654,0.936719 -0.3247092,0.0061 -1.4561284,-0.715595 -0.6741076,-0.131283 0.3878609,0.408301 1.825332,0.09335 1.0088486,0.882208 -0.2802833,0.201426 -0.4708968,0.573108 -0.00645,0.206735 0.369901,-0.482875 0.886082,-1.186234 1.5000635,-0.995375 0.2511,0.608608 1.0732897,1.180997 0.1680799,1.648264 C 7.5604623,16.14366 6.5377348,17.099542 5.561503,18.100516 6.3484202,18.307535 6.7247947,17.448747 7.2528447,17.045814 8.8682693,15.45977 10.47784,13.867779 12.0908,12.279231 c 1.960947,1.94307 3.929329,3.87862 5.894531,5.817383 0.338839,0.01976 0.901257,0.0768 0.336879,-0.302898 -1.076154,-1.048002 -2.143718,-2.104771 -3.213811,-3.15895 0.304129,-0.38609 0.532666,-0.825706 0.8125,-1.22461 0.809783,0.05128 0.978893,0.805871 1.571836,1.182514 0.173097,-0.07296 -0.934666,-0.936846 -0.218316,-0.867083 0.417005,0.01656 1.309481,-0.352533 1.286416,-0.563219 -0.746846,0.512701 -1.842388,0.544352 -2.57382,-0.0024 -0.01825,-1.059903 1.098268,-0.107787 1.714982,-0.501397 0.458329,-0.120956 1.446795,-0.661732 1.428163,-0.917081 -0.797871,0.61028 -1.909087,1.128941 -2.881313,0.605195 -0.08275,-0.522868 0.04769,-1.183428 0.697296,-0.821485 0.778488,0.0068 1.453711,-0.534552 1.912264,-1.116994 -0.275344,0.03251 -1.290006,1.317313 -1.237061,0.461526 0.01931,-0.380409 0.63537,-1.2100296 0.0076,-0.480081 -0.257939,0.45287 -0.09904,1.248016 -0.876799,0.908316 -0.719687,-0.312916 0.308303,-1.3113527 0.597672,-1.7187018 0.266524,-0.1581753 0.652036,-0.8189062 0.92854,-0.3917722 0.284265,0.4206011 1.325261,0.5217923 1.470704,0.214844 C 19.237216,9.760873 17.686866,8.9023391 18.80048,8.6887617 19.282651,8.4108062 20.117414,8.562167 20.479457,8.3265026 20.065912,8.1775065 19.316762,8.4975362 19.097713,8.3448174 19.235083,7.971419 20.483095,7.3859578 19.47901,7.7876133 18.922911,8.5014564 18.089879,8.737397 17.378322,9.2763131 c -0.945067,0.7539839 -1.294491,1.9550739 -1.486773,3.0978479 -0.07261,0.680543 -0.616285,1.778708 -1.036957,0.633171 -0.351457,-0.783963 -0.08118,0.633982 0.30948,0.700668 0.231869,0.319026 -0.472437,0.91597 -0.688938,0.292227 C 13.774456,13.331758 13.08976,12.646841 12.39845,11.968746 14.478276,9.9268723 16.555671,7.8825231 18.63086,5.8359375 18.362777,5.8808168 18.007836,5.7144729 17.835441,5.99205 15.927491,7.8773195 14.027416,9.7708588 12.097656,11.633789 10.09927,9.7252339 8.1458623,7.7698168 6.171875,5.8359375 c -0.1044922,-2e-7 -0.2089843,-3e-7 -0.3134765,-5e-7 z M 13.695313,5.885742 C 13.226417,6.0348006 12.342995,6.4646714 12.395283,6.8857686 12.955717,7.0924777 13.477655,6.7864729 14,6.6152345 13.343806,6.6502819 12.478335,6.7661974 13.391733,6.1567926 13.481039,6.0550183 13.613331,5.9927197 13.695313,5.885742 Z m -3.393555,0.010745 c 0.230762,0.2890055 1.301049,0.9587305 0.318547,0.7439329 -0.379478,-0.03301 -0.8379929,-0.029835 -0.223113,0.1356081 0.357655,0.260891 1.755346,0.311931 0.957934,-0.3227569 C 11.058649,6.1853178 10.658039,6.064103 10.301758,5.896487 Z m 2.766602,1.173828 c -0.223387,0.055758 -0.639504,0.032053 -0.744351,0.1366851 0.295161,0.499878 0.846909,0.7276664 1.369388,0.9175628 -0.275561,-0.2911346 -1.268872,-0.92142 -0.330116,-0.7437074 0.430563,0.060311 0.745826,0.00949 0.166993,-0.151367 C 13.376303,7.1764307 13.222331,7.1233728 13.06836,7.070315 Z m -2.136719,0.00195 c -0.262707,0.1031172 -1.3077621,0.3877253 -0.59961,0.3291015 0.31264,-6.702e-4 1.120137,-0.1621616 0.529297,0.214824 -0.265002,0.2457565 -0.8924975,0.7589929 -0.231425,0.3794361 0.43272,-0.1632411 0.814377,-0.4232153 1.055644,-0.8237721 -0.251283,-0.033342 -0.502585,-0.066536 -0.753906,-0.09959 z m 0.914062,0.2695315 c -0.512776,0.1267241 -0.99714,1.2559429 -0.863544,1.2369249 0.259307,-0.2628025 0.822933,-1.1040009 0.640652,-0.2300006 -0.0324,0.3420189 -0.07843,0.9566467 0.117584,0.2735383 0.104724,-0.3002749 0.267198,-0.5944249 0.158048,-0.9181576 -0.01627,-0.1209352 -0.02924,-0.2424548 -0.05274,-0.362305 z m 0.291993,0 c -0.06019,0.3643362 -0.156791,0.7388024 0.03635,1.0791394 0.11312,0.3723883 0.291989,0.7970894 0.204378,0.1232211 -0.04788,-0.3988481 -0.08275,-0.898516 0.288708,-0.3386797 0.259437,0.2786949 0.672325,0.7694635 0.317985,0.1649304 C 12.799477,7.9417063 12.580058,7.5528008 12.137696,7.3417965 Z M 4.5927734,10.213867 c -0.2662575,0.293876 -0.2897596,0.421707 -0.6151201,0.08717 -0.3929998,0.09804 -0.2531816,0.479485 -0.1749192,0.654042 -0.618121,0.188632 -0.073554,0.748193 0.3154302,0.534623 -0.11722,0.59604 0.7400301,0.518476 0.5705088,-0.06989 0.6144573,0.253859 0.7530475,-0.649744 0.121473,-0.558204 0.2476814,-0.481525 0.044863,-0.441284 -0.2173727,-0.647742 z M 19.752929,10.44043 c -0.630687,-0.05222 -0.632225,0.478775 -0.09277,0.482425 0.102893,-0.05047 0.246886,-0.440577 0.09277,-0.482425 z m 0.200196,0.01758 c -0.437382,0.450198 0.284365,0.737674 0.457867,0.378771 -0.142188,-0.13628 -0.273935,-0.298543 -0.457867,-0.378771 z m -15.65625,0.239257 c 0.08044,0.226718 0.3459776,0.05445 0.2350284,0.289093 0.2047337,-0.06249 0.00751,0.136682 0.1101835,0.135455 -0.3526991,-0.12853 0.2222865,0.314559 -0.1899416,0.02464 0.1543751,0.239155 -0.1188624,-0.01926 -0.089841,0.152359 -0.1071336,-0.04815 -0.2324362,-0.01252 -0.1652141,-0.160895 -0.2523784,0.07627 -0.08551,-0.262501 -0.00347,-0.253663 -0.038748,-0.261124 0.1283376,0.137625 0.1032522,-0.186991 z m 14.858398,0.06152 c -0.256349,0.256019 -0.189604,0.908576 0.306639,0.462885 0.140666,-0.220973 -0.168616,-0.358237 -0.306639,-0.462885 z m 1.308594,0.196289 c -0.58294,-0.0586 -0.525976,0.661586 -0.0732,0.587593 0.06902,-0.186532 0.09107,-0.390031 0.0732,-0.587593 z m -0.729492,0.105469 c -0.451281,0.371632 0.490283,0.226419 0,0 z M 9.2597655,11.166017 c -0.3962515,0.09325 0.031338,0.599468 -0.4841022,0.470297 -0.3180313,0.186303 0.06323,0.46651 0.2258084,0.497415 -0.3198875,0.45059 0.3374359,0.542204 0.4712194,0.150046 0.2201409,0.486395 0.7665079,-0.08695 0.285343,-0.332611 0.6118299,-0.238617 0.034827,-0.718522 -0.2453376,-0.449214 -0.016036,-0.139412 -0.101581,-0.307677 -0.252931,-0.335933 z m 5.4296875,0.06445 c -0.706034,0.01917 0.40332,0.838573 0.31739,0.03125 -0.102701,-0.03373 -0.211135,-0.03008 -0.31739,-0.03125 z m -0.399414,0.09277 c -0.62053,0.291306 -0.01724,0.866076 0.219248,0.374916 -0.05863,-0.103859 -0.09701,-0.348362 -0.219248,-0.374916 z m 5.192383,10e-4 c -0.934788,-0.07515 0.321578,1.101715 0.154682,0.207001 0.03906,-0.103482 -0.06132,-0.195955 -0.154682,-0.207001 z m -4.342773,0.0088 c -0.536691,0.304745 0.110561,0.814345 0.2957,0.497415 -0.06973,-0.167483 -0.132739,-0.400007 -0.2957,-0.497415 z m 4.749023,0.08105 c -0.500724,0.314263 -0.11314,0.731357 0.317112,0.338095 0.282378,-0.03281 -0.255007,-0.336252 -0.317112,-0.338095 z M 9.314453,11.64358 c 0.1381592,0.102251 0.3435865,0.04142 0.241212,0.27631 0.073971,0.147177 -0.1671374,0.179033 -0.2100281,0.244722 C 9.2372495,12.026742 9.1131538,12.038714 9.130872,11.84676 9.2199048,11.709832 9.2952798,11.740357 9.314453,11.64358 Z m 5.392578,0.160156 c -0.533101,0.312599 0.503543,0.284192 0,0 z m -0.762695,0.144532 c 0.01881,0.601469 0.671732,0.646167 0.465159,0.03274 -0.152332,-0.03087 -0.310542,-0.02133 -0.465159,-0.03274 z m 1.250977,0.03808 c -0.653158,-0.06273 0.03696,0.982227 0.174574,0.208465 0.138224,-0.19333 0.02642,-0.233889 -0.174574,-0.208465 z m -0.501953,0.206055 c -0.677539,0.267725 0.02309,0.650382 0.295141,0.365402 -0.08776,-0.119238 -0.124981,-0.34957 -0.295141,-0.365402 z m -8.4843755,1.855468 c -0.2516929,0.423844 -0.3059206,0.260108 -0.680664,0.06836 -0.1187539,0.23236 -0.3834446,0.353479 -0.037111,0.643551 -0.6038694,0.06195 -0.2781545,0.84051 0.250022,0.54971 -0.1124428,0.656968 0.7185933,0.491855 0.621295,-0.07172 0.5331742,0.251881 0.7561762,-0.616729 0.1235163,-0.539044 C 6.4560704,14.55988 6.670525,14.034585 6.265625,14.11624 l -0.025543,-0.04835 -0.031097,-0.02001 z m 12.0097655,0.20603 c -0.836394,-0.0466 0.05769,0.747427 0.08496,3e-6 l -0.04438,-2e-6 z m 0.158203,0.02929 c -0.463404,0.579421 0.78502,0.53393 0.100583,0.07227 -0.03353,-0.02409 -0.06705,-0.04818 -0.100583,-0.07227 z m -0.667969,0.141602 c -0.36618,0.360611 0.04763,0.74563 0.227179,0.256396 -0.06102,-0.09828 -0.148831,-0.173248 -0.227179,-0.256396 z M 6.0683595,14.569334 c 0.00435,0.193775 0.1893545,0.03996 0.183594,0.23637 0.1932003,0.0029 -0.2915465,0.08356 0.062761,0.151515 -0.3132876,-0.04872 0.047335,0.181846 -0.2160816,0.144335 -0.1105098,0.22499 -0.1609881,-0.138292 -0.317386,0.03614 -0.023039,-0.208831 -0.046741,-0.202906 -0.037573,-0.314044 -0.035505,-0.06994 0.1577405,-0.230634 0.193347,-0.148799 -0.062835,-0.272264 0.021852,0.109661 0.131339,-0.105521 z M 5.743164,14.678709 c 0.1812349,0.02288 -0.065872,0.112444 0,0 z m 12.392578,0.06934 c -0.297533,0.216288 0.328012,0.209412 0,0 z m 0.591797,0.02735 c -0.705603,-0.14703 -0.0734,0.925632 0.0052,0.141935 l 0.02215,-0.102885 -0.02735,-0.03907 z m -0.792969,0.172852 c -0.812296,-0.162188 0.230287,0.897929 0.06055,0.0537 l -0.0251,-0.03581 -0.03545,-0.0179 z m 0.293945,0.09473 c -0.570843,0.300443 0.124108,0.5392 0.261698,0.242214 -0.08012,-0.08645 -0.141472,-0.205513 -0.261698,-0.242214 z m -6.151366,0.952348 c -1.461469,-0.09027 -2.7924872,1.313061 -2.5571316,2.771507 0.033662,0.403993 0.1310512,0.655626 0.2603658,0.147973 0.6812668,-1.510601 2.9516528,-1.827954 4.0328808,-0.577597 0.368242,0.233002 0.599422,1.464015 0.668195,0.436843 0.207647,-1.415523 -0.977121,-2.76895 -2.40431,-2.778726 z"/>
</svg>
