<svg width="24" height="24" version="1.1" xmlns="http://www.w3.org/2000/svg">
 <path d="m11.923 2-1e-3 0.00196c-5.5035 0.0419-9.922 4.484-9.922 9.998 0 5.54 4.46 10 10 10 5.34 0 9.6755-4.1445 9.9815-9.4055l0.0185-0.0175v-8.577c0-1.1075-0.892-1.9995-2-1.9995h-8.077z" style="fill:#57b339"/>
 <path d="m12 5.5a7 7 0 0 0-3 0.6835938v2.3242187a5 5 0 0 1 3-1.0078125v2a3 3 0 0 0-2.8242188 2h-2.1757812v-3.8886719a7 7 0 0 0-2 4.8886719 7 7 0 0 0 0.6835938 3h2.3242187a5 5 0 0 1-1.0078125-3h2a3 3 0 0 0 2 2.824219v2.175781h-3.8886719a7 7 0 0 0 4.8886719 2 7 7 0 0 0 3-0.683594v-2.324218a5 5 0 0 1-3 1.007812v-2a3 3 0 0 0 2.824219-2h2.175781v3.888672a7 7 0 0 0 2-4.888672 7 7 0 0 0-0.683594-3h-2.324218a5 5 0 0 1 1.007812 3h-2a3 3 0 0 0-2-2.8242188v-2.1757812h3.888672a7 7 0 0 0-4.888672-2zm0 5a2 2 0 0 1 2 2 2 2 0 0 1-2 2 2 2 0 0 1-2-2 2 2 0 0 1 2-2z" style="opacity:.2"/>
 <path d="m12 5a7 7 0 0 0-3 0.6835938v2.3242187a5 5 0 0 1 3-1.0078125v2a3 3 0 0 0-2.8242188 2h-2.1757812v-3.8886719a7 7 0 0 0-2 4.8886719 7 7 0 0 0 0.6835938 3h2.3242187a5 5 0 0 1-1.0078125-3h2a3 3 0 0 0 2 2.824219v2.074219 0.101562h-3.8886719a7 7 0 0 0 4.8886719 2 7 7 0 0 0 3-0.683594v-2.324218a5 5 0 0 1-3 1.007812v-2a3 3 0 0 0 2.824219-2h2.175781v3.888672a7 7 0 0 0 2-4.888672 7 7 0 0 0-0.683594-3h-2.324218a5 5 0 0 1 1.007812 3h-2a3 3 0 0 0-2-2.8242188v-2.1757812h3.888672a7 7 0 0 0-4.888672-2zm0 5a2 2 0 0 1 2 2 2 2 0 0 1-2 2 2 2 0 0 1-2-2 2 2 0 0 1 2-2z" style="fill:#8b9cbe"/>
 <path d="m11.923 2-1e-3 0.00196c-5.5035 0.0419-9.922 4.484-9.922 9.998 0 0.084 0.0038 0.1665 0.00585 0.25 0.1316-5.397 4.4962-9.707 9.916-9.748l1e-3 -2e-3h8.077c1.108 0 2 0.892 2 2v-0.5c0-1.108-0.892-2-2-2h-8.077z" style="fill:#8b9cbe;opacity:.2"/>
 <path d="m2.0058 12.25c-2e-3 0.084-0.0058 0.166-0.0058 0.25 0 5.54 4.46 10 10 10 5.34 0 9.6755-4.1445 9.9815-9.4055l0.0185-0.0175v-0.5l-0.01855 0.01758c-0.306 5.261-4.6415 9.4055-9.9815 9.4055-5.456 0-9.862-4.327-9.994-9.75z" style="opacity:.2"/>
</svg>
