<svg xmlns="http://www.w3.org/2000/svg" width="24" height="24" version="1.1">
 <path style="opacity:0.2" d="M 2.5402077,3.581474 2.4613858,5.7928274 3.3298897,6.1125129 2.4346566,6.5132668 3.2778947,6.9345063 2.4227553,7.4964198 3.2830649,7.5946573 2.4939605,8.2308097 2.50713,8.5957607 c -0.9720581,0.864995 -1.3175815,1.9476103 -1.4693633,3.1371553 -0.46278584,3.711639 3.3812046,7.52922 8.5858285,8.526842 5.2046438,0.997592 9.7990258,-1.202567 10.2618668,-4.914207 0.02025,-0.166739 0.0318,-0.335072 0.03463,-0.504649 1.10726,-1.356518 2.249189,-2.542437 3.079908,-4.064883 -1.64532,-0.187687 -3.084268,-0.169053 -4.472946,-0.100091 0.77387,-0.6980839 1.69913,-1.6107513 2.472999,-2.5944543 -1.078109,0.54469 -2.112659,0.819722 -2.762923,1.04352 0.712812,-0.878316 1.362376,-1.6652044 1.76295,-2.5435199 L 17.061435,8.1185247 18.000133,6.0814739 C 16.536292,7.0346208 15.53848,7.4285053 14.504212,7.8661513 13.496495,7.3893643 12.411562,7.0347448 11.299634,6.8187093 9.8193987,6.5352043 8.1789563,6.5043573 6.7992239,6.7286668 4.779658,4.7161684 3.7751747,4.2976455 2.5402077,3.581474 Z"/>
 <path style="fill:#17191e" d="M 2.5402077,3.081474 2.4613858,5.2928274 3.3298897,5.6125129 2.4346566,6.0132669 3.2778947,6.4345063 2.4227553,6.9964198 3.2830649,7.0946573 2.4939605,7.7308098 2.50713,8.0957607 c -0.9720581,0.864995 -1.3175815,1.9476103 -1.4693633,3.1371553 -0.46278584,3.711639 3.3812046,7.52922 8.5858285,8.526842 5.2046438,0.997592 9.7990258,-1.202567 10.2618668,-4.914207 0.02025,-0.166739 0.0318,-0.335072 0.03463,-0.504649 C 21.027352,12.984384 22.169281,11.798465 23,10.276019 21.35468,10.088332 19.915732,10.106966 18.527054,10.175928 19.300924,9.4778442 20.226184,8.5651767 21.000053,7.5814738 19.921944,8.1261637 18.887394,8.4011957 18.23713,8.6249937 18.949942,7.7466778 19.599506,6.9597893 20.00008,6.0814739 L 17.061435,7.6185248 18.000133,5.5814739 C 16.536292,6.5346208 15.53848,6.9285053 14.504212,7.3661513 13.496495,6.8893643 12.411562,6.5347448 11.299634,6.3187094 9.8193987,6.0352044 8.1789563,6.0043574 6.7992239,6.2286669 4.779658,4.2161686 3.7751747,3.7976455 2.5402077,3.081474 Z"/>
 <path style="opacity:0.2" d="M 5.0546875,9.5035456 C 2.5603516,9.3861361 1.5,11.571906 1.5,11.571906 c 0,0 0.1405091,2.866419 3.421875,3.751953 3.2813655,0.885533 4.578125,-1.875 4.578125,-1.875 0,0 0.040247,-2.749644 -3.2871094,-3.7402352 C 5.7969709,9.5847999 5.4110212,9.5203184 5.0546875,9.5035456 Z M 14.554688,10.503546 C 12.060351,10.386136 11,12.571906 11,12.571906 c 0,0 0.140509,2.866419 3.421875,3.751953 3.281366,0.885534 4.578125,-1.875 4.578125,-1.875 0,0 0.04025,-2.749645 -3.287109,-3.740235 -0.41592,-0.123824 -0.80187,-0.188305 -1.158203,-0.205078 z"/>
 <path style="opacity:0.2" d="m 11.029297,7.7855443 a 0.25002498,0.25002498 0 0 0 -0.231446,0.2158205 l -0.185547,1.2255859 a 0.25039774,0.25039774 0 1 0 0.495118,0.075195 l 0.18457,-1.2255859 A 0.25002498,0.25002498 0 0 0 11.029297,7.7855443 Z m 1.177734,1.3183594 a 0.25002498,0.25002498 0 0 0 -0.208008,0.105469 l -0.80957,1.1103513 a 0.25021742,0.25021742 0 0 0 0.404297,0.294921 L 12.40332,9.5042942 A 0.25002498,0.25002498 0 0 0 12.207031,9.1039037 Z m -2.6591798,0.230469 a 0.25002498,0.25002498 0 0 0 -0.02539,0.001 0.25002498,0.25002498 0 0 0 -0.205078,0.363281 l 0.624023,1.2714833 A 0.2500387,0.2500387 0 1 0 10.390625,10.750411 L 9.7666017,9.4779507 A 0.25002498,0.25002498 0 0 0 9.5478517,9.3343962 Z M 5.294922,15.696676 A 0.25002498,0.25002498 0 0 0 5.250977,16.18984 l 2.2656248,0.555664 A 0.25035444,0.25035444 0 1 0 7.6357423,16.259176 L 5.369141,15.704488 a 0.25002498,0.25002498 0 0 0 -0.074218,-0.0078 z m 3.4912108,0.07031 a 0.25002498,0.25002498 0 0 0 -0.230469,0.293946 c 0.089083,0.498617 0.16899,0.703017 0.25293,1.036132 -0.349119,0.459262 -0.6883465,0.982234 -1.056641,1.327149 a 0.25011068,0.25011068 0 1 0 0.341797,0.365234 c 0.30093,-0.281827 0.573692,-0.732402 0.863281,-1.083984 0.1852959,0.592419 0.3621719,1.004784 0.5253909,1.317383 a 0.25002498,0.25002498 0 1 0 0.4423825,-0.231444 c -0.194279,-0.372085 -0.380133,-0.841787 -0.5791015,-1.574218 0.195467,-0.269417 0.409723,-0.43329 0.59668,-0.749024 A 0.25002498,0.25002498 0 0 0 9.8095702,16.104879 L 8.8847653,15.78066 a 0.25002498,0.25002498 0 0 0 -0.098632,-0.01367 z m 0.3642574,0.636719 0.1640625,0.05762 c -0.03684,0.05794 -0.07811,0.08849 -0.115234,0.144532 -0.016545,-0.07603 -0.031885,-0.118916 -0.04883,-0.202149 z m 1.5058598,0.572266 a 0.25002498,0.25002498 0 0 0 -0.02929,0.49707 l 2.958984,0.474609 a 0.25021583,0.25021583 0 1 0 0.0791,-0.49414 L 10.70606,16.979877 a 0.25002498,0.25002498 0 0 0 -0.04981,-0.0039 z m -5.3916015,0.08594 a 0.25019064,0.25019064 0 0 0 0.01953,0.5 l 2.0117189,0.02246 a 0.25002498,0.25002498 0 1 0 0.00586,-0.499023 l -2.0117189,-0.02343 a 0.25002498,0.25002498 0 0 0 -0.02539,0 z m 5.2275385,0.789063 a 0.25002498,0.25002498 0 0 0 -0.09668,0.476562 l 1.857421,0.899414 a 0.25005062,0.25005062 0 1 0 0.217774,-0.450195 L 10.61328,17.877341 a 0.25002498,0.25002498 0 0 0 -0.121094,-0.02637 z"/>
 <path style="fill:#ffd357" d="m 1.5000088,11.071996 c 0,0 1.3858803,-2.8536644 4.7132381,-1.8630732 3.3273568,0.9905902 3.2867293,3.7395432 3.2867293,3.7395432 0,0 -1.2963935,2.762003 -4.577759,1.87647 -3.2813659,-0.885534 -3.4222084,-3.75294 -3.4222084,-3.75294 z"/>
 <path style="fill:#9f3820" d="m 7.4658225,9.7489359 a 2.9999966,3.2727273 0 0 0 -1.9658182,3.0692471 2.9999966,3.2727273 0 0 0 0.7617181,2.173296 c 2.2961569,-0.05484 3.2382773,-2.043324 3.2382773,-2.043324 0,0 0.02156,-1.996317 -2.0341772,-3.1992191 z"/>
 <path style="fill:#ffd357" d="m 11,12.071995 c 0,0 1.38588,-2.8536641 4.713238,-1.863073 3.327357,0.99059 3.286729,3.739543 3.286729,3.739543 0,0 -1.296393,2.762004 -4.577759,1.87647 C 11.140842,14.939401 11,12.071995 11,12.071995 Z"/>
 <path style="fill:#9f3820" d="m 16.965814,10.748935 a 2.9999966,3.2727273 0 0 0 -1.965819,3.069247 2.9999966,3.2727273 0 0 0 0.761719,2.173296 c 2.296156,-0.05484 3.238277,-2.043324 3.238277,-2.043324 0,0 0.02156,-1.996317 -2.034177,-3.199219 z"/>
 <path style="fill:none;stroke:#a3cbcb;stroke-width:0.49999997;stroke-linecap:round" d="M 7.5762588,16.002422 5.310106,15.447446"/>
 <path style="fill:none;stroke:#a3cbcb;stroke-width:0.49999997;stroke-linecap:round" d="M 7.2987709,16.834886 5.286982,16.811762"/>
 <path style="fill:none;stroke:#a3cbcb;stroke-width:0.49999997;stroke-linecap:round" d="m 10.666137,16.726302 2.959551,0.474497"/>
 <path style="fill:none;stroke:#a3cbcb;stroke-width:0.49999997;stroke-linecap:round" d="m 10.504189,17.602573 1.857637,0.899532"/>
 <path style="fill:none;stroke:#a3cbcb;stroke-width:0.49999997;stroke-linecap:round;stroke-linejoin:round" d="M 9.7036677,18.407319 C 9.4214467,17.866808 9.1437642,17.430693 8.8018313,15.516818 l 0.9249604,0.323736 c -0.5674135,0.95825 -1.1747219,1.677128 -1.8036729,2.266153"/>
 <path style="fill:none;stroke:#356373;stroke-width:0.49999997;stroke-linecap:round" d="M 10.166148,10.360164 9.5417997,9.0883437"/>
 <path style="fill:none;stroke:#356373;stroke-width:0.49999997;stroke-linecap:round" d="M 10.859868,8.7646077 11.04486,7.5390353"/>
 <path style="fill:none;stroke:#356373;stroke-width:0.49999997;stroke-linecap:round" d="m 11.391721,9.9670562 0.80934,-1.1099525"/>
 <path style="opacity:0.1;fill:#8b9cbe" d="m 2.5400392,3.0810557 -0.079102,2.2119142 0.017578,0.00683 0.061523,-1.7187497 c 1.2349669,0.7161715 2.239223,1.1349622 4.2587888,3.1474606 1.3797324,-0.2243095 3.0207408,-0.193661 4.500976,0.089844 1.111928,0.2160355 2.196385,0.5710645 3.204101,1.0478515 0.952921,-0.4032245 1.891753,-0.7892815 3.175782,-1.5898439 l 0.320312,-0.695312 C 16.536158,6.5342023 15.538173,6.9285658 14.503905,7.3662118 13.496189,6.8894248 12.411732,6.5343958 11.299804,6.3183604 9.8195687,6.0348554 8.1785603,6.0042069 6.7988279,6.2285164 4.7792622,4.2160183 3.7750061,3.7972272 2.5400392,3.0810557 Z M 2.716797,5.8867199 2.4345704,6.0136729 2.9628907,6.2773449 3.3300782,6.1123054 Z m 17.283202,0.1943355 -2.634765,1.3779299 -0.303711,0.6591794 2.558593,-1.3378904 c 0.141857,-0.228788 0.271057,-0.4606009 0.379883,-0.6992189 z M 2.8457032,6.7187508 2.4228517,6.9960948 3.0712892,7.0703133 3.2783204,6.9345713 Z M 2.7402345,7.5322273 2.4941407,7.7304698 2.5068362,8.0957037 c -0.9720581,0.864995 -1.316968,1.9481513 -1.4687499,3.1376953 -0.036898,0.295932 -0.036873,0.5919 -0.020508,0.887696 0.0058,-0.129297 0.0044,-0.258533 0.020508,-0.387696 C 1.1898682,10.543855 1.5347781,9.4606987 2.5068362,8.5957037 L 2.4941407,8.2304697 3.2832032,7.5947273 Z m 18.2597645,0.048828 c -0.837018,0.4228844 -1.591739,0.6642359 -2.216797,0.8642579 -0.175905,0.2224375 -0.357766,0.4478745 -0.545898,0.6796875 0.509832,-0.175466 1.258103,-0.3877185 2.076172,-0.7314455 0.236285,-0.26365 0.467613,-0.5342319 0.686523,-0.8124999 z m -0.333008,2.5488287 c -0.542241,-0.0075 -1.063695,0.005 -1.579101,0.02441 -0.192217,0.183427 -0.380863,0.359397 -0.560547,0.521484 1.307971,-0.06495 2.666735,-0.07852 4.194335,0.07617 0.09558,-0.155797 0.189446,-0.312708 0.278321,-0.475587 -0.82266,-0.09384 -1.594021,-0.136302 -2.333008,-0.146484 z"/>
 <path style="opacity:0.2;fill:#8b9cbe" d="M 5.0546875 9.0039062 C 2.5603516 8.8864968 1.5 11.072266 1.5 11.072266 C 1.5 11.072266 1.5196535 11.251797 1.5625 11.46875 C 1.7137148 11.185223 2.7503212 9.3954386 5.0546875 9.5039062 C 5.4110212 9.5206793 5.7969709 9.5851601 6.2128906 9.7089844 C 8.7376656 10.460638 9.3213168 12.212064 9.4570312 13.019531 C 9.4616847 13.010213 9.5 12.949219 9.5 12.949219 C 9.5 12.949219 9.5402474 10.199575 6.2128906 9.2089844 C 5.7969709 9.0851605 5.4110212 9.0206791 5.0546875 9.0039062 z M 14.554688 10.003906 C 12.060351 9.8864969 11 12.072266 11 12.072266 C 11 12.072266 11.019653 12.251797 11.0625 12.46875 C 11.213715 12.185223 12.25032 10.395438 14.554688 10.503906 C 14.91102 10.520679 15.296971 10.58516 15.712891 10.708984 C 18.237668 11.460637 18.821317 13.212064 18.957031 14.019531 C 18.961685 14.010213 19 13.949219 19 13.949219 C 19 13.949219 19.040248 11.199574 15.712891 10.208984 C 15.296971 10.08516 14.91102 10.020679 14.554688 10.003906 z"/>
</svg>
