<svg width="24" height="24" version="1.1" xmlns="http://www.w3.org/2000/svg">
 <circle cx="12" cy="12.5" r="10" style="opacity:.2"/>
 <circle cx="12" cy="12" r="10" style="fill:#fecd38"/>
 <path d="M 12,2 A 10,10 0 0 0 2,12 10,10 0 0 0 2.01075,12.291 10,10 0 0 1 12,2.5 10,10 0 0 1 21.9895,12.209 10,10 0 0 0 22,12 10,10 0 0 0 12,2 Z" style="fill:#8b9cbe;opacity:.2"/>
 <path d="m12 3.5a9 9 0 0 0-9 9 9 9 0 0 0 9 9 9 9 0 0 0 9-9 9 9 0 0 0-9-9zm0 1a8 8 0 0 1 8 8 8 8 0 0 1-8 8 8 8 0 0 1-8-8 8 8 0 0 1 8-8zm-3.5 5c-2.5 0-3.5 1-3.5 1v1.5s0.5 0 0.5 0.5 0.5 2 2.5 2 2.5-0.5 3-2c0.223607-0.67082 0.5-1 1-1s0.776393 0.32918 1 1c0.5 1.5 1 2 3 2s2.5-1.5 2.5-2 0.5-0.5 0.5-0.5v-1.5s-0.618535-0.7993407-2.066406-0.9335938l-0.433594 0.5332028 0.5 0.400391-2 2 0.572266-1.460938-0.572266-0.539062 0.5-1c-1.5 0-2.5 1-3.5 1s-2-1-3.5-1zm6.583984 5.722656s-0.226784 0.338111-0.5625 0.673828c-0.335716 0.335716-0.771484 0.603516-1.021484 0.603516h-1.5v1h1.5c0.75 0 1.314233-0.482201 1.728516-0.896484 0.414285-0.414284 0.6875-0.826172 0.6875-0.826172z" style="opacity:.1"/>
 <path d="m12 3a9 9 0 0 0-9 9 9 9 0 0 0 9 9 9 9 0 0 0 9-9 9 9 0 0 0-9-9zm0 1a8 8 0 0 1 8 8 8 8 0 0 1-8 8 8 8 0 0 1-8-8 8 8 0 0 1 8-8zm-3.5 5c-2.5 0-3.5 1-3.5 1v1.5s0.5 0 0.5 0.5 0.5 2 2.5 2 2.5-0.5 3-2c0.223607-0.67082 0.5-1 1-1s0.776393 0.32918 1 1c0.5 1.5 1 2 3 2s2.5-1.5 2.5-2 0.5-0.5 0.5-0.5v-1.5s-0.618535-0.7993407-2.066406-0.9335938l-0.433594 0.5332032 0.5 0.4003906-2 2 0.572266-1.460938-0.572266-0.539062 0.5-1c-1.5 0-2.5 1-3.5 1s-2-1-3.5-1zm6.583984 5.722656s-0.226784 0.338111-0.5625 0.673828c-0.335716 0.335716-0.771484 0.603516-1.021484 0.603516h-1.5v1h1.5c0.75 0 1.314233-0.482201 1.728516-0.896484 0.414285-0.414284 0.6875-0.826172 0.6875-0.826172l-0.832032-0.554688z" style="fill:#4f4f4f"/>
 <circle cx="17.5" cy="17.5" r="5.5" style="fill:#c03630"/>
 <path d="m17.5 15s-0.354375-7e-3 -0.723635 0.17775c-0.369255 0.1846-0.776365 0.655601-0.776365 1.32225h1c0-0.5 0.5-0.5 0.5-0.5s0.5 0 0.5 0.5c0 0.2639-0.0698 0.41145-0.203125 0.578099-0.133325 0.166701-0.34668 0.334-0.59668 0.5215s-0.536645 0.395201-0.77832 0.6973c-0.241675 0.302051-0.421875 0.717001-0.421875 1.203101v0.5h3v-1h-1.82422c0.01565-0.022 0.0094-0.0556 0.02735-0.0781 0.133325-0.1667 0.34668-0.334 0.59668-0.5215s0.536645-0.3952 0.77832-0.6973c0.241675-0.30205 0.421875-0.717 0.421875-1.2031 0-0.666649-0.40711-1.13765-0.776365-1.32225-0.369265-0.18465-0.72364-0.17775-0.72364-0.17775z" style="fill-rule:evenodd;fill:#8b9cbe"/>
</svg>
