<svg xmlns="http://www.w3.org/2000/svg" width="24" height="24" version="1">
 <circle style="fill:#56aad4" cx="12" cy="12" r="10"/>
 <path style="opacity:0.2" d="M 12,2.5 A 10,10 0 0 0 10.8203,2.582 C 11.207,2.5341 11.599,2.5 12,2.5 Z M 10.5957,2.6094 A 10,10 0 0 0 9.5195,2.8262 C 9.8719,2.737 10.2305,2.6629 10.5957,2.6094 Z M 9.5195,2.8262 C 9.485567,2.83479 9.449761,2.838725 9.41598,2.847684 l 0.00781,0.00781 A 10,10 0 0 1 9.519493,2.826197 Z M 9.423797,2.855497 a 10,10 0 0 0 -1.0684,0.34375 l 4.3596,4.3574 a 5.0004,5 0 0 0 -0.715,-0.0566 l -8.6504,0 a 10,10 0 0 0 -0.50977,1 l 6.168,0 a 5.0004,5 0 0 0 -0.541,0.4668 l -0.002,-0.002 -6.0039,6.0022 a 10,10 0 0 0 0.38672,1.0293 l 4.209,-4.211 a 5.0004,5 0 0 0 -0.0566,0.715 l 0,8.1504 a 10,10 0 0 0 1,0.50976 l 0,-5.668 a 5.0004,5 0 0 0 0.4668,0.54102 l -0.00195,0.002 5.7129,5.7129 a 10,10 0 0 0 1.1016,-0.3125 l -3.995,-3.993 a 5.0004,5 0 0 0 0.715,0.057 l 8.3438,0 a 10,10 0 0 0 0.57422,-1 l -5.9258,0 a 5.0004,5 0 0 0 0.54102,-0.4668 l 0.002,0.002 6.1113,-6.1094 a 10,10 0 0 0 -0.345,-1.0701 l -4.358,4.3575 a 5.0004,5 0 0 0 0.057,-0.713 l 0,-8.6504 a 10,10 0 0 0 -1,-0.5098 l 0,6.168 a 5.0004,5 0 0 0 -0.467,-0.541 l 0.002,-0.00195 -6.1113,-6.1094 z m 11.877,6 0.0059,-0.00586 c -0.02129,-0.054521 -0.0481,-0.10612 -0.07031,-0.16016 a 10,10 0 0 1 0.06445,0.16602 z m 0.3457,1.0703 a 10,10 0 0 1 0.03125,0.10938 c -0.0096,-0.038403 -0.01331,-0.078964 -0.02344,-0.11719 l -0.0078,0.00781 z m 0.03125,0.10938 c 0.08714,0.3476 0.16022,0.70022 0.21289,1.0605 a 10,10 0 0 0 -0.213,-1.0608 z m -13.322,-6.836 -0.00586,-0.00586 C 8.295361,3.214614 8.243777,3.241415 8.189727,3.263629 a 10,10 0 0 1 0.1661,-0.0644 z m 5.2405,-0.5586 c 0.1411,0.022697 0.28481,0.037892 0.42383,0.066406 a 10,10 0 0 0 -0.424,-0.0664 z m 1.1289,0.24805 c 0.08295,0.02345 0.16795,0.040903 0.25,0.066406 a 10,10 0 0 0 -0.25,-0.066406 z m 0.94141,0.31641 c 0.08538,0.033589 0.17359,0.061839 0.25781,0.097656 a 10,10 0 0 0 -0.258,-0.0976 z m -8.1504,0.3595 a 10,10 0 0 0 -0.2519,0.1386 c 0.0845,-0.0454 0.1659,-0.0956 0.2519,-0.1386 z m -0.8144,0.4609 a 10,10 0 0 0 -0.2754,0.1816 c 0.091363,-0.061368 0.1819,-0.12324 0.27539,-0.18164 z m 10.764,0.10938 c 0.0703,0.045904 0.14385,0.087159 0.21289,0.13477 a 10,10 0 0 0 -0.213,-0.1348 z m -11.53,0.4238 a 10,10 0 0 0 -0.291,0.2285 c 0.09503,-0.078286 0.19306,-0.15374 0.29102,-0.22852 z m 12.48,0.2734 c 0.05438,0.045492 0.10483,0.095958 0.1582,0.14258 a 10,10 0 0 0 -0.158,-0.1426 z m -13.219,0.3496 a 10,10 0 0 0 -0.2305,0.2149 c 0.0746,-0.0739 0.1535,-0.1433 0.2305,-0.2149 z m 13.893,0.2735 c 0.08262,0.083124 0.16058,0.16987 0.24023,0.25586 a 10,10 0 0 0 -0.24,-0.2559 z m -14.633,0.4902 a 10,10 0 0 0 -0.125,0.13867 c 0.039944,-0.047749 0.084185,-0.091695 0.125,-0.13867 z m 15.256,0.1992 c 0.07828,0.095019 0.15374,0.19307 0.22852,0.29102 a 10,10 0 0 0 -0.229,-0.291 z m -15.944,0.6778 a 10,10 0 0 0 -0.1347,0.2129 c 0.0459,-0.0704 0.0871,-0.1439 0.1347,-0.2129 z m 16.524,0.1035 c 0.06137,0.091352 0.12325,0.18191 0.18164,0.27539 a 10,10 0 0 0 -0.18164,-0.27539 z m 0.50391,0.83789 c 0.04544,0.084549 0.09562,0.16594 0.13867,0.25195 a 10,10 0 0 0 -0.139,-0.2519 z m -17.994,0.8125 a 10,10 0 0 0 -0.0979,0.2578 c 0.0336,-0.0854 0.0618,-0.1736 0.0976,-0.2578 z m -0.3479,0.9492 a 10,10 0 0 0 -0.0723,0.2715 c 0.0253,-0.09 0.0446,-0.1826 0.0723,-0.2715 z m -0.2461,0.9512 a 10,10 0 0 0 -0.0703,0.4453 c 0.0236,-0.1486 0.0402,-0.299 0.0703,-0.4453 z m 19.709,0.8434 c 0.03914,0.31772 0.05687,0.64225 0.06641,0.96875 a 10,10 0 0 0 0.002,-0.01758 10,10 0 0 0 -0.06836,-0.95117 z"/>
 <path style="fill:#8b9cbe" d="M 12,2 A 10,10 0 0 0 10.8203,2.082 C 11.207,2.0341 11.599,2 12,2 Z M 10.5957,2.1094 A 10,10 0 0 0 8.1895,2.7637 C 8.243546,2.741485 8.29513,2.714685 8.34966,2.693388 l 4.3653,4.3632 a 5.0004,5 0 0 0 -0.715,-0.0566 l -8.6504,0 a 10,10 0 0 0 -0.5098,1 l 6.168,0 a 5.0004,5 0 0 0 -0.541,0.4668 l -0.00195,-0.00195 -6.1191,6.1172 c -0.1019,-0.384 -0.1779,-0.778 -0.2364,-1.178 a 10,10 0 0 0 0.6543,2.4062 c -0.022211,-0.05404 -0.04902,-0.10564 -0.070312,-0.16016 l 4.3632,-4.365 a 5.0004,5 0 0 0 -0.0566,0.715 l 0,8.6504 a 10,10 0 0 0 1,0.50976 l 0,-6.168 a 5.0004,5 0 0 0 0.4668,0.54102 l -0.00195,0.002 6.1191,6.1191 c -0.38389,0.10166 -0.77806,0.17762 -1.1777,0.23633 a 10,10 0 0 0 2.4043,-0.6543 c -0.05405,0.02222 -0.10563,0.04901 -0.16016,0.07031 l -4.365,-4.363 a 5.0004,5 0 0 0 0.715,0.057 l 8.6504,0 a 10,10 0 0 0 0.50976,-1 l -6.168,0 a 5.0004,5 0 0 0 0.54102,-0.4668 l 0.002,0.002 6.1191,-6.1172 c 0.102,0.3844 0.178,0.7778 0.237,1.178 a 10,10 0 0 0 -0.655,-2.4063 c 0.02221,0.05404 0.04902,0.10564 0.07031,0.16016 l -4.363,4.3633 a 5.0004,5 0 0 0 0.057,-0.713 l 0,-8.6504 a 10,10 0 0 0 -1,-0.5098 l 0,6.168 a 5.0004,5 0 0 0 -0.467,-0.541 l 0.002,-0.00195 -6.119,-6.1171 c 0.3845,-0.102 0.7794,-0.1796 1.1797,-0.2383 z m 3,0.03125 c 0.1411,0.022697 0.28481,0.037892 0.42383,0.066406 a 10,10 0 0 0 -0.424,-0.0664 z m 1.1289,0.24805 c 0.08295,0.02345 0.16795,0.040903 0.25,0.066406 A 10,10 0 0 0 14.7246,2.3887 Z m 0.94141,0.31641 c 0.08538,0.033589 0.17359,0.061839 0.25781,0.097656 a 10,10 0 0 0 -0.258,-0.0976 z m -8.1504,0.3595 a 10,10 0 0 0 -0.2519,0.1386 c 0.0845,-0.0454 0.1659,-0.0956 0.2519,-0.1386 z m -0.8144,0.4609 a 10,10 0 0 0 -0.2754,0.1816 C 6.517173,3.645742 6.60771,3.58387 6.7012,3.52547 Z m 10.764,0.10938 c 0.0703,0.045904 0.14385,0.087159 0.21289,0.13477 a 10,10 0 0 0 -0.213,-0.1348 z m -11.53,0.4238 a 10,10 0 0 0 -0.291,0.2285 c 0.0951,-0.0783 0.1931,-0.1537 0.291,-0.2285 z m 12.48,0.2734 c 0.05438,0.045492 0.10483,0.095958 0.1582,0.14258 a 10,10 0 0 0 -0.158,-0.1426 z m -13.219,0.3496 a 10,10 0 0 0 -0.2305,0.2149 c 0.0746,-0.0739 0.1535,-0.1433 0.2305,-0.2149 z m 13.893,0.2735 c 0.08262,0.083124 0.16058,0.16987 0.24023,0.25586 a 10,10 0 0 0 -0.24,-0.2559 z m -14.633,0.4902 a 10,10 0 0 0 -0.125,0.13867 C 4.371154,5.536311 4.415395,5.492365 4.45621,5.44539 Z m 15.256,0.1992 c 0.07828,0.095019 0.15374,0.19307 0.22852,0.29102 a 10,10 0 0 0 -0.229,-0.291 z m -15.944,0.6778 a 10,10 0 0 0 -0.1347,0.2129 c 0.0459,-0.0704 0.0871,-0.1439 0.1347,-0.2129 z m 16.524,0.1035 c 0.06137,0.091352 0.12325,0.18191 0.18164,0.27539 A 10,10 0 0 0 20.29221,6.42589 Z m 0.50391,0.83789 c 0.04544,0.084549 0.09562,0.16594 0.13867,0.25195 a 10,10 0 0 0 -0.139,-0.2519 z m -17.994,0.8125 a 10,10 0 0 0 -0.0979,0.2578 c 0.0336,-0.0854 0.0618,-0.1736 0.0976,-0.2578 z m -0.3479,0.9492 a 10,10 0 0 0 -0.0723,0.2715 c 0.0253,-0.09 0.0446,-0.1826 0.0723,-0.2715 z m -0.2461,0.9512 a 10,10 0 0 0 -0.0703,0.4453 c 0.0236,-0.1486 0.0402,-0.299 0.0703,-0.4453 z m 19.709,0.8437 c 0.048,0.3867 0.082,0.7797 0.082,1.1797 a 10,10 0 0 0 -0.082,-1.1797 z m -19.918,1.1797 a 10,10 0 0 0 0.082031,1.1797 c -0.0477,-0.387 -0.082,-0.78 -0.082,-1.18 z m 19.861,1.5781 c -0.02366,0.14862 -0.04021,0.29899 -0.07031,0.44531 a 10,10 0 0 0 0.07031,-0.44531 z m -0.24414,1.125 c -0.02524,0.08999 -0.04461,0.18254 -0.07227,0.27148 a 10,10 0 0 0 0.07227,-0.27148 z m -0.32227,0.96289 c -0.03359,0.08538 -0.06183,0.17359 -0.09766,0.25781 a 10,10 0 0 0 0.09766,-0.25781 z m -18.23,0.818 a 10,10 0 0 0 0.1386,0.252 c -0.0454,-0.084 -0.0956,-0.166 -0.1386,-0.252 z m 0.45898,0.81055 A 10,10 0 0 0 3.72386,17.5954 C 3.65637,17.49552 3.58661,17.39706 3.52269,17.29462 Z m 16.842,0.16992 c -0.04591,0.07032 -0.08715,0.14384 -0.13476,0.21289 a 10,10 0 0 0 0.13476,-0.21289 z m -16.321,0.582 a 10,10 0 0 0 0.24805,0.31445 c -0.085,-0.103 -0.1673,-0.208 -0.2481,-0.314 z m 15.623,0.36914 c -0.03994,0.04775 -0.08418,0.0917 -0.125,0.13867 a 10,10 0 0 0 0.125,-0.13867 z m -14.998,0.373 a 10,10 0 0 0 0.24023,0.25586 C 4.8263,18.96142 4.74834,18.87467 4.66869,18.78868 Z m 14.363,0.31445 c -0.07465,0.0739 -0.15352,0.14332 -0.23047,0.21484 a 10,10 0 0 0 0.23047,-0.21484 z m -13.607,0.422 a 10,10 0 0 0 0.1582,0.14258 C 5.528514,19.62222 5.47806,19.57175 5.42469,19.52513 Z m 12.936,0.18164 c -0.10294,0.08494 -0.20808,0.16723 -0.31445,0.24805 a 10,10 0 0 0 0.31445,-0.24805 z m -12.055,0.512 a 10,10 0 0 0 0.31641,0.19922 c -0.105,-0.067 -0.2141,-0.128 -0.3164,-0.199 z m 11.289,0.05664 c -0.09989,0.06749 -0.19833,0.13725 -0.30078,0.20117 a 10,10 0 0 0 0.30078,-0.20117 z m -0.85938,0.52148 c -0.08456,0.04544 -0.16593,0.09561 -0.25195,0.13867 a 10,10 0 0 0 0.25195,-0.13867 z m -8.6445,0.4082 a 10,10 0 0 0 0.13477,0.04883 C 8.181409,21.23596 8.13467,21.22366 8.09081,21.20509 Z m 0.93555,0.3418 a 10,10 0 0 0 0.19727,0.05273 C 9.158448,21.58082 9.09099,21.56696 9.02636,21.54689 Z m 0.96875,0.25 a 10,10 0 0 0 0.28125,0.04297 C 10.18299,21.82359 10.08755,21.81572 9.99511,21.79689 Z m 3.1836,0.12109 c -0.387,0.048 -0.779,0.082 -1.18,0.082 a 10,10 0 0 0 1.1797,-0.08203 z"/>
 <path style="opacity:0.2;fill:#8b9cbe" d="M 12,2 A 10,10 0 0 0 2,12 10,10 0 0 0 2.0098,12.293 10,10 0 0 1 12,2.5 10,10 0 0 1 21.99,12.207 10,10 0 0 0 22,12 10,10 0 0 0 12,2 Z"/>
 <path style="opacity:0.2" d="M 21.99,12.207 A 10,10 0 0 1 12,22 10,10 0 0 1 2.0098,12.293 10,10 0 0 0 2,12.5 a 10,10 0 0 0 10,10 10,10 0 0 0 10,-10 10,10 0 0 0 -0.0098,-0.29297 z"/>
 <circle style="fill:#ab49d8" cx="17.5" cy="17.5" r="5.5"/>
 <path style="fill:#8b9cbe;fill-rule:evenodd" d="m 17.5,15 c 0,0 -0.354375,-0.007 -0.723635,0.17775 C 16.40711,15.36235 16,15.833351 16,16.5 l 1,0 C 17,16 17.5,16 17.5,16 c 0,0 0.5,0 0.5,0.5 0,0.2639 -0.0698,0.41145 -0.203125,0.578099 -0.133325,0.166701 -0.34668,0.334 -0.59668,0.5215 -0.25,0.1875 -0.536645,0.395201 -0.77832,0.6973 C 16.1802,18.59895 16,19.0139 16,19.5 l 0,0.5 3,0 0,-1 -1.82422,0 c 0.01565,-0.022 0.0094,-0.0556 0.02735,-0.0781 0.133325,-0.1667 0.34668,-0.334 0.59668,-0.5215 0.25,-0.1875 0.536645,-0.3952 0.77832,-0.6973 0.241675,-0.30205 0.421875,-0.717 0.421875,-1.2031 0,-0.666649 -0.40711,-1.13765 -0.776365,-1.32225 C 17.854375,14.9931 17.5,15 17.5,15 Z"/>
</svg>
