<svg width="24" height="24" version="1.1" xmlns="http://www.w3.org/2000/svg">
 <rect x="2" y="1.9999999" width="20" height="20" rx="1" ry="1" style="fill:#733317"/>
 <path d="m3 2c-0.554 0-1 0.446-1 1v0.5c0-0.554 0.446-1 1-1h18c0.554 0 1 0.446 1 1v-0.5c0-0.554-0.446-1-1-1z" style="fill:#8b9cbe;opacity:.1"/>
 <path d="m3 22.5c-0.554 0-1-0.446-1-1v-0.5c0 0.554 0.446 1 1 1h18c0.554 0 1-0.446 1-1v0.5c0 0.554-0.446 1-1 1z" style="opacity:.2"/>
 <path d="m7 17.5 2.1236044-6-0.5309011 0.5 1.0618011-3.5000001 0.5309016-0.5-0.265451-0.5 0.432051-1.6728009s0.474377-1.327199 0.948755-1.327199c1.423135 0 2.371891 1.773966 2.371891 1.773966l-0.672652 1.2260345 1.14703-0.7792675 1.423135 2.2338349-0.570165 1.5454321 1-0.205131s0.937351 2.648918 0.993299 4.020903c0.04291 1.052265-0.120798 2.128368-0.474378 3.12737-0.948756 2.680602-2.617209 4.056858-2.617209 4.056858l0.719697-2.42892-0.621409-0.57108h1l-1.098288-1.5 1.194075-0.450392-1.194075-1.049608 1.061801-0.5-1.061801-0.5 0.719697-0.630995v-0.446766h-1.423135l1.765239-1.422239-1.765239 0.528704 0.474378-0.893533h-0.948756l0.948756-1.340302-1.423134 0.605897 0.590392-1.4007661-0.5309-0.5-2.30901 8.5000001-0.8763956 1v-1l-1.0618022 1.5 0.2654505-1-0.5309011 0.5 0.2654506-1-0.5309011 0.5v-1z" style="opacity:.2"/>
 <path d="m7 17 2.1236044-6.000001-0.5309011 0.5 1.0618011-3.4999996 0.5309016-0.5-0.265451-0.5 0.432051-1.6728009s0.474377-1.327199 0.948755-1.327199c1.423135 0 2.371891 1.773966 2.371891 1.773966l-0.672652 1.2260345 1.14703-0.7792675 1.423135 2.2338349-0.570165 1.5454326 1-0.2051316s0.937351 2.6489186 0.993299 4.0209036c0.04291 1.052265-0.120798 2.128368-0.474378 3.12737-0.948756 2.680602-2.617209 4.056858-2.617209 4.056858l0.719697-2.42892-0.621409-0.57108h1l-1.098288-1.5 1.194075-0.450392-1.194075-1.049608 1.061801-0.5-1.061801-0.5 0.719697-0.630995v-0.446767h-1.423135l1.765239-1.422239-1.765239 0.528705 0.474378-0.893534h-0.948756l0.948756-1.3403016-1.423134 0.6058976 0.590392-1.4007666-0.5309-0.5-2.30901 8.5000006-0.8763956 1v-1l-1.0618022 1.5 0.2654505-1-0.5309011 0.5 0.2654506-1-0.5309011 0.5v-1z" style="fill:#fe7a48"/>
</svg>
