<svg xmlns="http://www.w3.org/2000/svg" width="24" height="24" version="1.1">
 <rect style="opacity:0.2" width="19" height="20" x="-21.5" y="-22" rx="1.508" ry="1.519" transform="matrix(0,-1,-1,0,0,0)"/>
 <path style="fill:#0088b5" d="M 22,14.890327 V 3.509954 C 22,2.6734502 21.321863,1.999999 20.479511,1.999999 H 3.5205484 c -0.8423507,0 -1.5204887,0.6734512 -1.5204887,1.509955 v 11.380373 c 0,0.836542 0.678138,1.509956 1.5204887,1.509956 H 20.479511 C 21.321863,16.400283 22,15.726869 22,14.890327 Z"/>
 <path style="fill:#003c56;fill-rule:evenodd" d="m 17.518379,6.0001891 c -0.40473,1.1138894 -1.435204,2.6581255 -1.435203,2.6581255 0.588689,0.1644131 0.736177,0 0.736177,0 -0.294346,0.73041 -1.398052,1.5702394 -1.398052,1.5702394 0.551897,0.109609 1.214251,-0.109608 1.214251,-0.109608 -0.147159,0.73041 -1.839953,1.242698 -1.839953,1.242698 0.588694,0.292164 1.729478,0 1.729478,0 -0.404737,0.657351 -2.649455,1.240733 -2.649455,1.240733 0.66228,0.328827 2.391353,0.182934 2.391353,0.182934 -0.846245,1.022574 -1.775428,1.365876 -1.775428,1.365876 0,0 -0.563519,0.58943 -1.409784,-0.433144 0,0 0.965537,-0.171972 1.627802,-0.500571 0,0 -1.671815,-0.409371 -2.076548,-1.06672 0,0 1.139804,0.292164 1.728501,0 0,0 -1.691807,-0.511306 -1.838976,-1.241717 0,0 0.662336,0.219219 1.214252,0.109609 0,0 -1.104677,-1.3400232 -1.399029,-2.0704332 0,0 0.147473,0.1644131 0.736176,0 0,0 -1.029504,-0.8341603 -1.434225,-1.9480498 -0.404728,1.1138895 -1.435203,1.9480498 -1.435203,1.9480498 0.588687,0.1644131 0.736177,0 0.736177,0 -0.294346,0.73041 -1.3980524,2.0704332 -1.3980524,2.0704332 0.5518974,0.10961 1.2142534,-0.109609 1.2142534,-0.109609 -0.147161,0.730411 -1.839955,1.241717 -1.839955,1.241717 0.5886936,0.292164 1.729479,0 1.729479,0 -0.40474,0.657349 -2.6494554,1.241715 -2.6494554,1.241715 0.662281,0.328827 2.3913524,0.182555 2.3913524,0.182555 -0.8462455,1.022537 -2.0403731,1.234876 -2.0403734,1.234876 0,0 -0.7404761,0.28158 -1.58674,-0.741107 0,0 0.9655349,-0.171972 1.6278019,-0.500609 0,0 -1.6727889,-0.409333 -2.0775253,-1.06672 0,0 1.1407822,0.292164 1.7294785,0 0,0 -1.6918106,-0.511306 -1.8389764,-1.241716 0,0 0.6623371,0.219218 1.2142524,0.109609 0,0 -1.1046774,-0.6397 -1.39903,-1.3701098 0,0 0.1474771,0.1644138 0.7361776,0 3.7e-6,0 -1.0304857,-0.8851472 -1.4352032,-1.9990366 -0.4047327,1.1138894 -1.4342255,1.9990366 -1.4342255,1.9990366 0.5886861,0.1644138 0.7361772,0 0.7361772,0 C 4.32578,10.729655 3.2210959,11.369355 3.2210959,11.369355 c 0.5518978,0.109609 1.21523,-0.109609 1.21523,-0.109609 -0.1471634,0.73041 -1.839954,1.241716 -1.839954,1.241716 0.5886934,0.292164 1.7285006,0 1.7285006,0 -0.3129411,0.508282 -1.5417627,1.064867 -2.1664918,1.249464 v 0.199563 c 0.7782224,0.182556 1.9093678,0.07522 1.9093678,0.07522 C 3.6467893,14.534369 2.7224401,14.786922 2,15.021145 v 4.46924 C 2,20.326889 2.6779085,21 3.5202594,21 H 20.479708 c 0.842351,0 1.520258,-0.673111 1.520258,-1.509615 v -4.368513 c -1.073934,0.538707 -2.602528,0.740123 -2.602528,0.740123 0,0 0.40925,-1.910631 -0.437014,-2.933206 0,0 0.965536,-0.173106 1.627804,-0.501554 0,0 -1.671815,-0.408387 -2.076548,-1.065737 0,0 1.140782,0.292164 1.729479,0 0,0 -1.692789,-0.512288 -1.839954,-1.242698 0,0 0.662337,0.219217 1.214251,0.109608 0,0 -1.103698,-0.8398296 -1.398052,-1.5702396 0,0 0.146496,0.1644131 0.7352,0 0,0 -1.029504,-1.5441983 -1.434225,-2.6580877 z m 4.481587,6.8320639 c -0.349009,0.145515 -0.707824,0.240383 -0.707824,0.240383 0.173272,0.08617 0.46482,0.113767 0.707824,0.120193 v -0.360954 z m 0,0.962101 c -0.738892,0.308416 -1.626824,0.52015 -1.626824,0.52015 0.356345,0.176508 1.081282,0.210902 1.626824,0.209391 v -0.72939 z"/>
 <rect style="fill:#625323" width="1" height="4" x="15" y="17"/>
 <path style="opacity:0.2" d="M 21.999996,16.369656 V 9.6072602 c 0,-0.3061224 -0.0198,-1.1072562 -0.0198,-1.1072562 0,0 -0.746641,0.00189 -1.040284,0.00189 H 14.060076 C 13.472792,8.501894 13,8.9945621 13,9.6065047 v 6.7624343 c 0,0.611942 0.472792,1.104611 1.060076,1.104611 h 6.879834 c 0.293643,0 1.040286,0.02645 1.040286,0.02645 0,0 0.0198,-0.82449 0.0198,-1.130499 z"/>
 <path style="fill:#08c688" d="M 21.999996,15.869656 V 9.1072603 c 0,-0.3061225 -0.0198,-1.1072563 -0.0198,-1.1072563 0,0 -0.746641,0.00189 -1.040284,0.00189 H 14.060076 C 13.472792,8.001894 13,8.4945622 13,9.1065048 v 6.7624342 c 0,0.611943 0.472792,1.104611 1.060076,1.104611 h 6.879834 c 0.293643,0 1.040286,0.02645 1.040286,0.02645 0,0 0.0198,-0.82449 0.0198,-1.130499 z"/>
 <path style="opacity:0.2" d="M 15.1875,9.5 C 14.550148,9.5 14,9.9241771 14,10.493148 v 5.013665 C 14,16.075823 14.550148,16.5 15.1875,16.5 H 22 v -0.498068 h -6.811523 c -0.415678,0 -0.686523,-0.248693 -0.686523,-0.495119 v -5.015631 c 0,-0.246424 0.270844,-0.4911874 0.686523,-0.4911874 H 22 V 9.5 Z"/>
 <path style="fill:#8b9cbe" d="M 15.1875,9 C 14.550147,9 14,9.4241771 14,9.993186 v 5.013665 C 14,15.57586 14.550147,16 15.1875,16 H 22 v -0.49803 h -6.811524 c -0.415677,0 -0.686523,-0.248693 -0.686523,-0.495119 V 9.9912206 c 0,-0.2464256 0.270844,-0.4912261 0.686523,-0.4912261 H 22 V 9 Z"/>
 <path style="fill:#8b9cbe;opacity:0.2" d="M 3.5214844 2 C 2.6791337 2 2 2.6732618 2 3.5097656 L 2 4.0097656 C 2 3.1732618 2.6791337 2.5 3.5214844 2.5 L 20.480469 2.5 C 21.322821 2.5 22 3.1732618 22 4.0097656 L 22 3.5097656 C 22 2.6732618 21.322821 2 20.480469 2 L 3.5214844 2 z"/>
</svg>
