<svg width="24" height="24" version="1.1" xmlns="http://www.w3.org/2000/svg">
 <path d="m11.925785 2.5016078c-0.457703 0.02259-0.879974 0.253156-1.146455 0.625979l-1.8847197 2.638685-2.9823868-1.2087695c-1.131556-0.323239-2.177676 0.722912-1.854447 1.854501l1.2089948 2.9822155-2.638608 1.8847752c-0.837551 0.598296-0.837551 1.843122 0 2.441417l2.638608 1.884776-1.2089948 2.982315c-0.3232291 1.131589 0.7228909 2.17774 1.854447 1.854501l2.6827765-1.20887 2.18433 2.638685c0.598277 0.837576 1.843067 0.837576 2.441345 0l2.284325-2.638685 2.582778 1.30887c1.131553 0.32324 2.177674-0.722912 1.854444-1.854501l-1.208991-3.082315 2.638606-1.884776c0.837551-0.598295 0.837551-1.843121 0-2.441417l-2.638606-1.8847752 1.208991-2.9822155c0.323229-1.131589-0.722891-2.17774-1.854444-1.854501l-2.982384 1.2087695-1.884719-2.638685c-0.296949-0.415468-0.784851-0.651331-1.29489-0.625979z" style="opacity:.2"/>
 <path d="m11.925785 2.001855c-0.457703 0.02259-0.879974 0.253156-1.146455 0.625979l-1.8847197 2.638685-2.9823868-1.2087695c-1.131556-0.323239-2.177676 0.722912-1.854447 1.854501l1.2089948 2.9822155-2.638608 1.884775c-0.837551 0.598296-0.837551 1.843122 0 2.441417l2.638608 1.884776-1.2089948 2.982315c-0.323229 1.131589 0.722891 2.17774 1.854447 1.854501l2.6827765-1.20887 2.18433 2.638685c0.598277 0.837576 1.843067 0.837576 2.441345 0l2.284325-2.638685 2.582778 1.30887c1.131553 0.32324 2.177674-0.722912 1.854444-1.854501l-1.208991-3.082315 2.638606-1.884776c0.837551-0.598295 0.837551-1.843121 0-2.441417l-2.638606-1.884775 1.208991-2.9822155c0.323229-1.131589-0.722891-2.17774-1.854444-1.854501l-2.982384 1.2087695-1.884719-2.638685c-0.296949-0.415468-0.784851-0.651331-1.29489-0.625979z" style="fill:#8a97b5"/>
 <path d="m12.401012 3.4999098s-0.520843 0.308875-0.705786 0.540809c-0.20018 0.251043-0.245192 0.595922-0.401733 0.87646-0.150371 0.26948-0.463378 0.465278-0.513651 0.769986-0.02928 0.177407 0.139086 0.521332 0.139086 0.521332l-0.500712 0.425245-0.201839 0.608977-0.2697615 0.43888-0.235479 1.149785-0.909562 3.2448512 0.364214 0.664811-0.331221 0.08635s-0.131048-0.105831-0.232242-0.09544c-0.09488 0.0097-0.279467 0.05973-0.279467 0.05973s-0.429842 0.15419-0.297582 0.692727c0.136747 0.55681 0.547288 0.562234 0.547288 0.562234s0.257207-0.0785 0.417263-0.14348c0.08399-0.0341 0.130677-0.238917 0.130677-0.238917l0.179843-0.05713c3e-3 0.0071 0.0026 0.01787 0.0065 0.02402 0.131646 0.2111 0.390587 0.389896 0.619097 0.292802 0.2029515-0.08623 0.2105305-0.380393 0.2568245-0.596642 0.06946-0.324478 0.104802-0.990076 0.104802-0.990076s0.189142 0.752125 0.130675 1.125116c-0.05271 0.336266-0.4224355 0.929048-0.4224355 0.929048s0.4023705 0.274745 0.6449725 0.248654c0.08968 0.167083 0.07392 0.210171 0.07763 0.386292 0.0041 0.196755-0.214131 0.549897-0.214131 0.549897l0.333162 0.979689s0.08727 1.636563-0.0951 2.79688c-0.296188 0.223295-0.440924 0.464753-0.381032 0.669357 0.154968 0.268535 0.34111 0.475838 0.595163 0.477833 0.520861-0.319531 0.921803-0.338762 0.952904-0.740771 0.152898-1.976228 0.148452-4.801054 0.148452-4.801054s0.107208 0.05633 0.280114 0.07141v0.0046c0.02294 0.0012 0.04111-0.0022 0.06244-0.0025 0.02153 4.32e-4 0.03956 0.0038 0.06275 0.0025v-0.0046c0.172906-0.01509 0.280759-0.07141 0.280759-0.07141s-0.0041 2.824826 0.14879 4.801054c0.0311 0.402009 0.432048 0.42124 0.952909 0.740771 0.254053-2e-3 0.440192-0.209298 0.59516-0.477833 0.05989-0.204604-0.08484-0.446062-0.381033-0.669357-0.182363-1.160317-0.0951-2.79688-0.0951-2.79688l0.333163-0.979688s-0.218268-0.353143-0.21413-0.549898c0.0037-0.17612-0.01269-0.219209 0.07698-0.386291 0.242603 0.02609 0.644973-0.248655 0.644973-0.248655s-0.369725-0.592782-0.422436-0.929048c-0.05847-0.37299 0.130677-1.125115 0.130677-1.125115s0.03534 0.665597 0.104802 0.990075c0.04629 0.216249 0.05387 0.510408 0.256825 0.596642 0.228508 0.09709 0.48745-0.0817 0.619097-0.292802 0.07138-0.11447 0-0.40512 0-0.40512l0.134559-0.10193v-0.371359l0.370683-0.676498-0.909561-3.2448512-0.235479-1.149785-0.269763-0.43888-0.201839-0.608977-0.500712-0.425245s0.168355-0.343925 0.139086-0.521332c-0.05027-0.304706-0.36328-0.500504-0.51365-0.769984-0.156543-0.280538-0.200906-0.625417-0.401085-0.87646-0.184945-0.231934-0.705785-0.540809-0.705785-0.540809zm-4.0542195 9.4631732c0.135723 0.0054 0.2844809 0.169601 0.355803 0.392784 0.08271 0.259042 0.03321 0.506571-0.110622 0.553144-0.14395 0.04648-0.327834-0.125863-0.410792-0.384993-0.083-0.259348-0.03347-0.507345 0.110625-0.553794 0.01745-0.0056 0.03588-8e-3 0.05499-0.0071z" style="opacity:.1"/>
 <path d="m12.401012 3.000157s-0.520843 0.308875-0.705786 0.540809c-0.20018 0.251043-0.245192 0.595922-0.401733 0.87646-0.150371 0.26948-0.463378 0.465278-0.513651 0.769986-0.02928 0.177407 0.139086 0.521332 0.139086 0.521332l-0.500712 0.425245-0.201839 0.608977-0.2697615 0.43888-0.235479 1.149785-0.909562 3.244851 0.364214 0.664811-0.331221 0.08635s-0.131048-0.105831-0.232242-0.09544c-0.09488 0.0097-0.279467 0.05973-0.279467 0.05973s-0.429842 0.15419-0.297582 0.692727c0.136747 0.55681 0.547288 0.562234 0.547288 0.562234s0.257207-0.0785 0.417263-0.14348c0.08399-0.0341 0.130677-0.238917 0.130677-0.238917l0.179843-0.05713c3e-3 0.0071 0.0026 0.01787 0.0065 0.02402 0.131646 0.2111 0.390587 0.389896 0.619097 0.292802 0.2029515-0.08623 0.2105305-0.380393 0.2568245-0.596642 0.06946-0.324478 0.104802-0.990076 0.104802-0.990076s0.189142 0.752125 0.130675 1.125116c-0.05271 0.336266-0.4224355 0.929048-0.4224355 0.929048s0.4023705 0.274745 0.6449725 0.248654c0.08968 0.167083 0.07392 0.210171 0.07763 0.386292 0.0041 0.196755-0.214131 0.549897-0.214131 0.549897l0.333162 0.979689s0.08727 1.636563-0.0951 2.79688c-0.296188 0.223295-0.440924 0.464753-0.381032 0.669357 0.154968 0.268535 0.34111 0.475838 0.595163 0.477833 0.520861-0.319531 0.921803-0.338762 0.952904-0.740771 0.152898-1.976228 0.148452-4.801054 0.148452-4.801054s0.107208 0.05633 0.280114 0.07141v0.0046c0.02294 0.0012 0.04111-0.0022 0.06244-0.0025 0.02153 4.32e-4 0.03956 0.0038 0.06275 0.0025v-0.0046c0.172906-0.01509 0.280759-0.07141 0.280759-0.07141s-0.0041 2.824826 0.14879 4.801054c0.0311 0.402009 0.432048 0.42124 0.952909 0.740771 0.254053-2e-3 0.440192-0.209298 0.59516-0.477833 0.05989-0.204604-0.08484-0.446062-0.381033-0.669357-0.182363-1.160317-0.0951-2.79688-0.0951-2.79688l0.333163-0.979688s-0.218268-0.353143-0.21413-0.549898c0.0037-0.17612-0.01269-0.219209 0.07698-0.386291 0.242603 0.02609 0.644973-0.248655 0.644973-0.248655s-0.369725-0.592782-0.422436-0.929048c-0.05847-0.37299 0.130677-1.125115 0.130677-1.125115s0.03534 0.665597 0.104802 0.990075c0.04629 0.216249 0.05387 0.510408 0.256825 0.596642 0.228508 0.09709 0.48745-0.0817 0.619097-0.292802 0.07138-0.11447 0-0.40512 0-0.40512l0.134559-0.10193v-0.371359l0.370683-0.676498-0.909561-3.244851-0.235479-1.149785-0.269763-0.43888-0.201839-0.608977-0.500712-0.425245s0.168355-0.343925 0.139086-0.521332c-0.05027-0.304706-0.36328-0.500504-0.51365-0.769984-0.156543-0.280538-0.200906-0.625417-0.401085-0.87646-0.184945-0.231934-0.705785-0.540809-0.705785-0.540809zm-4.0542195 9.463173c0.135723 0.0054 0.284481 0.169601 0.355803 0.392784 0.08271 0.259042 0.03321 0.506571-0.110622 0.553144-0.14395 0.04648-0.327834-0.125863-0.410792-0.384993-0.083-0.259348-0.03347-0.507345 0.110625-0.553794 0.01745-0.0056 0.03588-8e-3 0.05499-0.0071z" style="fill:#17191e"/>
 <path d="m11.925781 2.0019531c-0.457703 0.02259-0.880003 0.252177-1.146484 0.625l-1.8847658 2.6386719-2.9824218-1.2070312c-1.0727209-0.3064323-2.0536252 0.6186487-1.8789063 1.6796874 0.1481282-0.8271892 0.9805085-1.4382758 1.8789063-1.1816406l2.9824218 1.2089844 1.8847658-2.6386719c0.266481-0.372823 0.688781-0.60241 1.146484-0.625 0.510039-0.025352 0.997973 0.209532 1.294922 0.625l1.884766 2.6386719 2.982422-1.2089844c0.898395-0.2566352 1.730778 0.3544514 1.878906 1.1816406 0.174719-1.0610387-0.806188-1.9861197-1.878906-1.6796874l-2.982422 1.2070312-1.884766-2.6386719c-0.296949-0.415468-0.784883-0.650352-1.294922-0.625zm-6.8144529 7.0039063-2.4824219 1.7734376c-0.4949468 0.35356-0.6896355 0.932431-0.5996093 1.470703 0.0623165-0.372594 0.2570051-0.725967 0.5996093-0.970703l2.6386719-1.8847658-0.15625-0.3886718zm13.777344 0-0.15625 0.3886718 2.638672 1.8847658c0.342604 0.244736 0.537293 0.598109 0.599609 0.970703 0.090026-0.538272-0.104662-1.117143-0.599609-1.470703l-2.482422-1.7734376zm-13.777344 6.4882816-1.0527343 2.59375c-0.0666017 0.233165-0.0638339 0.45915-0.0253907 0.673828 0.0095828-0.058195 0.0085844-0.114992 0.0253907-0.173828l1.2089843-2.982422-0.15625-0.111328zm13.773438 0.001953-0.152344 0.109375 1.208984 3.082031c0.016807 0.058837 0.015808 0.115634 0.025391 0.173828 0.038443-0.214678 0.041211-0.440663-0.025391-0.673828l-1.05664-2.691406z" style="fill:#8b9cbe;opacity:.2"/>
</svg>
