<svg xmlns="http://www.w3.org/2000/svg" width="24" height="24" version="1">
 <path style="fill:#17191e" d="M 22,12 A 10,10 0 0 1 12,22 10,10 0 0 1 2,12 10,10 0 0 1 12,2 10,10 0 0 1 22,12 Z"/>
 <path style="opacity:0.2" d="M 11.711914,2.5107422 A 10,10 0 0 0 8.786133,3.0439453 5.5,5.5 0 0 0 6.5,7.5 5.5,5.5 0 0 0 6.894531,9.540039 5.5,5.5 0 0 0 2.1132813,13.929688 10,10 0 0 0 2.5029297,15.592774 4,4 0 0 1 2.5,15.5 a 4,4 0 0 1 4,-4 4,4 0 0 1 3.410156,1.915039 L 10.59375,13.020508 A 1.5,1.5 0 0 1 10.5,12.5 1.5,1.5 0 0 1 11.75,11.020508 V 10.487305 A 4,4 0 0 1 8,6.5 4,4 0 0 1 11.711914,2.5107422 Z m 0.691407,0.00977 A 4,4 0 0 1 16,6.5 4,4 0 0 1 12.25,10.491211 v 0.532227 A 1.5,1.5 0 0 1 13.5,12.5 1.5,1.5 0 0 1 13.43457,12.9375 l 0.702148,0.405274 A 4,4 0 0 1 17.5,11.5 a 4,4 0 0 1 4,4 4,4 0 0 1 -0.0059,0.118164 10,10 0 0 0 0.394531,-1.713867 A 5.5,5.5 0 0 0 17.104492,9.536133 5.5,5.5 0 0 0 17.5,7.5 5.5,5.5 0 0 0 15.201172,3.0361328 10,10 0 0 0 12.403321,2.5205077 Z M 13.208985,13.384766 A 1.5,1.5 0 0 1 12,14 1.5,1.5 0 0 1 10.84375,13.454102 l -0.701172,0.405273 A 4,4 0 0 1 10.5,15.5 4,4 0 0 1 6.5,19.5 4,4 0 0 1 4.2441406,18.803711 10,10 0 0 0 5.548828,20.139648 5.5,5.5 0 0 0 7.5,20.5 5.5,5.5 0 0 0 12.001953,18.154297 5.5,5.5 0 0 0 16.5,20.5 5.5,5.5 0 0 0 18.43457,20.140625 10,10 0 0 0 19.759765,18.795898 4,4 0 0 1 17.5,19.5 a 4,4 0 0 1 -4,-4 4,4 0 0 1 0.393555,-1.719726 z"/>
 <path style="opacity:0.1;fill:#8b9cbe" d="M 12,2 C 6.4605,2 2.001,6.46 2.001,12 c 0,0.08386 -0.002,0.166645 0,0.25 C 2.1331,6.827 6.5445,2.5 12,2.5 c 5.4555,0 9.867,4.3268 9.999,9.75 0.002,-0.08335 0,-0.16614 0,-0.25 C 21.999,6.46 17.5395,2 12,2 Z"/>
 <path style="opacity:0.2" d="M 21.9895,12.209 A 10,10 0 0 1 12,22 10,10 0 0 1 2.011,12.291 10,10 0 0 0 2,12.5 a 10,10 0 0 0 10,10 10,10 0 0 0 10,-10 10,10 0 0 0 -0.0105,-0.291 z"/>
 <path style="opacity:0.2" d="M 12,7.500172 A 5,5 0 0 0 9.1074219,8.4298595 C 9.2946526,8.7101261 9.5063658,8.9724413 9.765625,9.187672 10.425614,8.740934 11.203032,8.501533 12,8.500172 c 0.798633,3.875e-4 1.578866,0.2398315 2.240234,0.6875 0.258551,-0.2154115 0.469646,-0.4775334 0.65625,-0.7578125 A 5,5 0 0 0 12,7.500172 Z m -4.9785156,4.5625 A 5,5 0 0 0 7,12.500172 5,5 0 0 0 9.6757812,16.924 C 9.8141258,16.614836 9.9249531,16.291543 9.96875,15.941578 8.7501585,15.223252 8.0015795,13.914723 8,12.500172 8.00165,12.449992 8.00425,12.399857 8.00781,12.349781 7.6990256,12.20164 7.364613,12.116338 7.0214844,12.062672 Z m 9.9570316,0 c -0.34164,0.05384 -0.676382,0.139495 -0.984375,0.287109 0.0025,0.0501 0.0052,0.100235 0.0059,0.150391 -0.0018,1.41475 -0.749784,2.723324 -1.96875,3.441406 0.04379,0.349831 0.154415,0.673174 0.292969,0.982422 A 5,5 0 0 0 17,12.500172 a 5,5 0 0 0 -0.02148,-0.4375 z"/>
 <path style="fill:#ffd737" d="M 12 7 A 5 5 0 0 0 9.1074219 7.9296875 C 9.2946526 8.2099541 9.5063658 8.4722693 9.765625 8.6875 C 10.425614 8.240762 11.203032 8.001361 12 8 C 12.798633 8.0003875 13.578866 8.2398315 14.240234 8.6875 C 14.498785 8.4720885 14.70988 8.2099666 14.896484 7.9296875 A 5 5 0 0 0 12 7 z M 7.0214844 11.5625 A 5 5 0 0 0 7 12 A 5 5 0 0 0 9.6757812 16.423828 C 9.8141258 16.114664 9.9249531 15.791371 9.96875 15.441406 C 8.7501585 14.72308 8.0015795 13.414551 8 12 C 8.00165 11.949825 8.0042475 11.899685 8.0078125 11.849609 C 7.6990256 11.701468 7.364613 11.616166 7.0214844 11.5625 z M 16.978516 11.5625 C 16.636876 11.616337 16.302134 11.701995 15.994141 11.849609 C 15.996641 11.899709 15.9993 11.949844 16 12 C 15.9982 13.41475 15.250216 14.723324 14.03125 15.441406 C 14.075043 15.791237 14.185665 16.11458 14.324219 16.423828 A 5 5 0 0 0 17 12 A 5 5 0 0 0 16.978516 11.5625 z"/>
 <path style="fill:#ff950a" d="M 11.711914,2.0107422 A 10,10 0 0 0 8.786133,2.5439453 5.5,5.5 0 0 0 6.5,7 5.5,5.5 0 0 0 6.894531,9.040039 5.5,5.5 0 0 0 2.1132813,13.429688 10,10 0 0 0 2.5029297,15.092774 4,4 0 0 1 2.5,15 a 4,4 0 0 1 4,-4 4,4 0 0 1 3.410156,1.915039 L 10.59375,12.520508 A 1.5,1.5 0 0 1 10.5,12 1.5,1.5 0 0 1 11.75,10.520508 V 9.9873045 A 4,4 0 0 1 8,6 4,4 0 0 1 11.711914,2.0107422 Z m 0.691407,0.00977 A 4,4 0 0 1 16,6 4,4 0 0 1 12.25,9.991211 v 0.532227 A 1.5,1.5 0 0 1 13.5,12 1.5,1.5 0 0 1 13.43457,12.4375 l 0.702148,0.405274 A 4,4 0 0 1 17.5,11 a 4,4 0 0 1 4,4 4,4 0 0 1 -0.0059,0.118164 10,10 0 0 0 0.394531,-1.713867 A 5.5,5.5 0 0 0 17.104492,9.036133 5.5,5.5 0 0 0 17.5,7 5.5,5.5 0 0 0 15.201172,2.5361328 10,10 0 0 0 12.403321,2.0205077 Z M 13.208985,12.884766 A 1.5,1.5 0 0 1 12,13.5 1.5,1.5 0 0 1 10.84375,12.954102 l -0.701172,0.405273 A 4,4 0 0 1 10.5,15 4,4 0 0 1 6.5,19 4,4 0 0 1 4.2441406,18.303711 10,10 0 0 0 5.548828,19.639648 5.5,5.5 0 0 0 7.5,20 5.5,5.5 0 0 0 12.001953,17.654297 5.5,5.5 0 0 0 16.5,20 5.5,5.5 0 0 0 18.43457,19.640625 10,10 0 0 0 19.759765,18.295898 4,4 0 0 1 17.5,19 a 4,4 0 0 1 -4,-4 4,4 0 0 1 0.393555,-1.719726 z"/>
 <path style="opacity:0.2;fill:#8b9cbe" d="M 11.711914,2.0107422 A 10,10 0 0 0 8.786133,2.5439453 5.5,5.5 0 0 0 6.5,7 5.5,5.5 0 0 0 6.510742,7.203125 5.5,5.5 0 0 1 8.786133,3.0439453 10,10 0 0 1 9.5908205,2.8125 4,4 0 0 1 11.711914,2.0107422 Z m 0.691407,0.00977 A 4,4 0 0 1 14.407227,2.8125 10,10 0 0 1 15.201172,3.0361328 5.5,5.5 0 0 1 17.488281,7.274414 5.5,5.5 0 0 0 17.5,7 5.5,5.5 0 0 0 15.201172,2.5361328 10,10 0 0 0 12.403321,2.0205077 Z M 15.989258,6.211914 A 4,4 0 0 1 12.25,9.991211 v 0.5 A 4,4 0 0 0 16,6.5 4,4 0 0 0 15.989258,6.211914 Z M 8.0126955,6.243164 A 4,4 0 0 0 8,6.5 4,4 0 0 0 11.75,10.487305 V 9.9873045 A 4,4 0 0 1 8.0126955,6.243164 Z m 9.2558585,2.8164065 a 5.5,5.5 0 0 1 -0.164062,0.4765625 5.5,5.5 0 0 1 4.731445,4.163086 10,10 0 0 0 0.05273,-0.294922 5.5,5.5 0 0 0 -4.620118,-4.3447265 z M 6.732422,9.0664055 A 5.5,5.5 0 0 0 2.1132813,13.429687 10,10 0 0 0 2.1660156,13.699219 5.5,5.5 0 0 1 6.894531,9.5400385 5.5,5.5 0 0 1 6.732422,9.0664055 Z m 3.790039,3.1845705 A 1.5,1.5 0 0 0 10.5,12.5 a 1.5,1.5 0 0 0 0.002,0.07324 l 0.0918,-0.05273 a 1.5,1.5 0 0 1 -0.07129,-0.269531 z m 2.954102,0 a 1.5,1.5 0 0 1 -0.04199,0.186524 l 0.06445,0.03711 a 1.5,1.5 0 0 0 -0.02246,-0.223633 z m -0.267578,0.633789 A 1.5,1.5 0 0 1 12,13.5 1.5,1.5 0 0 1 10.84375,12.954102 l -0.701172,0.405273 a 4,4 0 0 1 0.157227,0.40918 L 10.84375,13.454102 A 1.5,1.5 0 0 0 12,14 1.5,1.5 0 0 0 13.208985,13.384766 l 0.521484,0.301758 a 4,4 0 0 1 0.163085,-0.40625 z m -2.72168,2.371094 A 4,4 0 0 1 6.5,19 4,4 0 0 1 4.2441406,18.303711 10,10 0 0 0 5.131836,19.253906 4,4 0 0 0 6.5,19.5 a 4,4 0 0 0 4,-4 4,4 0 0 0 -0.0127,-0.24414 z m 3.023437,0.03809 A 4,4 0 0 0 13.5,15.5 a 4,4 0 0 0 4,4 4,4 0 0 0 1.345703,-0.241211 10,10 0 0 0 0.914062,-0.962891 A 4,4 0 0 1 17.5,19 4,4 0 0 1 13.510742,15.293946 Z"/>
 <path style="opacity:0.2;fill:#8b9cbe" d="M 12 7 A 5 5 0 0 0 9.1074219 7.9296875 C 9.1860035 8.0473167 9.2724161 8.1584271 9.3613281 8.2675781 A 5 5 0 0 1 12 7.5 A 5 5 0 0 1 14.644531 8.2675781 C 14.733131 8.1584952 14.818201 8.0472698 14.896484 7.9296875 A 5 5 0 0 0 12 7 z M 7.0214844 11.5625 A 5 5 0 0 0 7 12 A 5 5 0 0 0 7.0117188 12.246094 A 5 5 0 0 1 7.0214844 12.0625 C 7.364613 12.116166 7.6990281 12.201468 8.0078125 12.349609 C 8.0042525 12.399685 8.00165 12.44982 8 12.5 C 8.0015357 13.875356 8.7137521 15.145138 9.8730469 15.875 C 9.913338 15.733808 9.9499774 15.591412 9.96875 15.441406 C 8.7501585 14.72308 8.0015795 13.414551 8 12 C 8.00165 11.949825 8.0042475 11.899685 8.0078125 11.849609 C 7.6990256 11.701468 7.364613 11.616166 7.0214844 11.5625 z M 16.978516 11.5625 C 16.636876 11.616337 16.302134 11.701995 15.994141 11.849609 C 15.996641 11.899709 15.9993 11.949844 16 12 C 15.9982 13.41475 15.250216 14.723324 14.03125 15.441406 C 14.050102 15.591998 14.086437 15.735189 14.126953 15.876953 C 15.286995 15.147389 15.99825 13.875839 16 12.5 C 15.9993 12.449844 15.996641 12.399709 15.994141 12.349609 C 16.302134 12.201995 16.636876 12.11634 16.978516 12.0625 A 5 5 0 0 1 16.988281 12.261719 A 5 5 0 0 0 17 12 A 5 5 0 0 0 16.978516 11.5625 z"/>
</svg>
