<svg width="24" height="24" version="1.1" xmlns="http://www.w3.org/2000/svg">
 <g transform="translate(1,1)">
  <circle cx="11" cy="11.5" r="10" style="opacity:.2"/>
  <circle cx="11" cy="11" r="10" style="fill:#55458f"/>
  <path d="M 11,1 A 10,10 0 0 0 1,11 10,10 0 0 0 1.0098,11.293 10,10 0 0 1 11,1.5 10,10 0 0 1 20.99,11.207 10,10 0 0 0 21,11 10,10 0 0 0 11,1 Z" style="fill:#8b9cbe;opacity:.1"/>
  <path d="M 11,4.5 C 8.1666667,4.5 6.4747257,6.0642205 5.7304688,7.5527344 4.9862118,9.0412483 5,10.5 5,10.5 v 4 c 0,0 0.1651032,1.998124 1,3 0.8348966,1.001876 2.3,1 5,1 2.7,0 4.165098,0.0019 5,-1 0.834891,-1.001881 1,-3 1,-3 v -4 c 0,0 0.01379,-1.4587517 -0.730469,-2.9472656 C 15.525274,6.0642205 13.833333,4.5 11,4.5 Z" style="opacity:.2"/>
  <path d="m11 4c-2.8333333 0-4.5252743 1.5642205-5.2695312 3.0527344-0.744257 1.4885139-0.7304688 2.9472656-0.7304688 2.9472656v4s0.1651032 1.998124 1 3c0.8348966 1.001876 2.3 1 5 1s4.165098 0.0019 5-1c0.834891-1.001881 1-3 1-3v-4s0.013788-1.4587517-0.730469-2.9472656-2.436198-3.0527344-5.269531-3.0527344z" style="fill:#efefef"/>
  <path d="m5 11.5v3s1 2 6 2 6-2 6-2v-3s0-2-1-2c-3 0-3 1-5 1s-2-1-5-1c-1 0-1 2-1 2z" style="opacity:.1"/>
  <path d="m5 11v3s1 2 6 2 6-2 6-2v-3s0-2-1-2c-3 0-3 1-5 1s-2-1-5-1c-1 0-1 2-1 2z" style="fill:#4f4f4f"/>
  <path d="m15 9.0429688c-0.948058 0.089816-1.501502 0.3008489-2 0.5039062v6.316406c0.808326-0.109183 1.47685-0.272167 2-0.466797z" style="fill:#8b9cbe;opacity:.2"/>
  <path d="M 11,4 C 8.1666667,4 6.4747257,5.5642205 5.7304688,7.0527344 4.9862118,8.5412483 5,10 5,10 v 0.5 C 5,10.5 4.9862118,9.0412483 5.7304688,7.5527344 6.4747257,6.0642205 8.1666667,4.5 11,4.5 c 2.833333,0 4.525274,1.5642205 5.269531,3.0527344 C 17.01379,9.0412483 17,10.5 17,10.5 V 10 C 17,10 17.01379,8.5412483 16.269531,7.0527344 15.525274,5.5642205 13.833333,4 11,4 Z" style="fill:#8b9cbe;opacity:.2"/>
 </g>
</svg>
