<svg xmlns="http://www.w3.org/2000/svg" width="24" height="24" version="1.1">
 <path style="opacity:0.2" d="m 9,3.5 v 1 H 7 v 1 H 5 v 1 H 4 v 1 H 3 v 1 H 2 v 6 h 1 v 1 h 1 v 1 h 1 v 1.5 1.5 1 h 1 v 1 h 2 v -2 h 1 v 2 h 2 v -2 h 2 v 2 h 2 v -2 h 1 v -2 h 1 v -1 h 2 v -1 h 1 v -1 h 1 v -2 h 1 v -4 h -1 v -2 h -1 v -1 h -1 v -1 h -3 v -1 z"/>
 <path style="fill:#b2bfd9" d="M 9,3 V 4 H 7 V 5 H 5 V 6 H 4 V 7 H 3 V 8 H 2 v 6 h 1 v 1 h 1 v 1 h 1 v 1.5 1.5 1 h 1 v 1 h 2 v -2 h 1 v 2 h 2 v -2 h 2 v 2 h 2 v -2 h 1 v -2 h 1 v -1 h 2 v -1 h 1 v -1 h 1 v -2 h 1 V 8 H 21 V 6 H 20 V 5 H 19 V 4 H 16 V 3 Z"/>
 <path style="fill:#17191e" d="m 4,8 v 5 h 1 v 1 H 7 V 13 H 6 V 10 H 7 V 9 H 6 V 8 Z"/>
 <path style="fill:#17191e" d="m 12,8 v 1 h -1 v 5 h 4 v -1 h 1 V 9 H 15 V 8 Z"/>
 <rect style="fill:#ea01f5" width="1" height="3" x="6" y="10"/>
 <rect style="fill:#ea01f5" width="2" height="3" x="12" y="10"/>
 <path style="fill:#17191e" d="m 8,15 v 1 H 7 v 1 h 4 v -1 h -1 v -1 z"/>
 <rect style="opacity:0.2" width="2" height=".5" x="12" y="13"/>
 <path style="opacity:0.2" d="M 4 8 L 4 8.5 L 6 8.5 L 6 8 L 4 8 z M 12 8 L 12 8.5 L 15 8.5 L 15 8 L 12 8 z M 6 9 L 6 9.5 L 7 9.5 L 7 9 L 6 9 z M 11 9 L 11 9.5 L 12 9.5 L 12 9 L 11 9 z M 15 9 L 15 9.5 L 16 9.5 L 16 9 L 15 9 z M 6 13 L 6 13.5 L 7 13.5 L 7 13 L 6 13 z M 8 15 L 8 15.5 L 10 15.5 L 10 15 L 8 15 z M 7 16 L 7 16.5 L 8 16.5 L 8 16 L 7 16 z M 10 16 L 10 16.5 L 11 16.5 L 11 16 L 10 16 z"/>
 <path style="opacity:0.2;fill:#8b9cbe" d="M 9 3 L 9 3.5 L 16 3.5 L 16 3 L 9 3 z M 7 4 L 7 4.5 L 9 4.5 L 9 4 L 7 4 z M 16 4 L 16 4.5 L 19 4.5 L 19 4 L 16 4 z M 5 5 L 5 5.5 L 7 5.5 L 7 5 L 5 5 z M 19 5 L 19 5.5 L 20 5.5 L 20 5 L 19 5 z M 4 6 L 4 6.5 L 5 6.5 L 5 6 L 4 6 z M 20 6 L 20 6.5 L 21 6.5 L 21 6 L 20 6 z M 3 7 L 3 7.5 L 4 7.5 L 4 7 L 3 7 z M 2 8 L 2 8.5 L 3 8.5 L 3 8 L 2 8 z M 21 8 L 21 8.5 L 22 8.5 L 22 8 L 21 8 z"/>
 <rect style="opacity:0.2;fill:#8b9cbe" width="2" height=".5" x="12" y="10"/>
 <rect style="opacity:0.2;fill:#8b9cbe" width="1" height=".5" x="6" y="10"/>
</svg>
