<svg width="24" height="24" version="1.1" xmlns="http://www.w3.org/2000/svg">
 <path d="m6.5 2.4999335c-0.9999892 0 0 3 0 3h-2.0996094c-1.0671759 0 0.3272674 0.63665 2.0996094 2 3.0210426 2.3238957 5.378118 3.2351915 7.404297 4.0058585-1.913222 0.03203-3.66258 0.994141-4.154297 0.994141-0.687181 0-0.250006-1.000004-0.75-2-0.223605-0.447212-0.8990817-0.9999995-1.5-0.9999995-1.9999784 0-3 1.9999995-3 1.9999995l-2.5 1 2.5 0.5s2.4511433 5.282518 6.605469 6.3125l0.933593 0.742188-1.246093 1.445312h-2.792969c-0.6761542-0.0096-0.6761542 1.009562 0 1h3c0.132598-2.6e-5 0.259761-0.05272 0.353516-0.146484l1.800781-2c0.215356-0.215243 0.189007-0.571368-0.05469-0.753907l-0.160156-0.126953c0.933631-0.03357 1.856911-0.161079 2.740235-0.371094l0.710937 0.996094-0.699219 1.402344h-0.691404c-0.676154-0.0096-0.676154 1.009562 0 1h1c0.189394 1.3e-5 0.362546-0.107954 0.447266-0.277344l1-2c0.0962-0.192512 0.05844-0.424008-0.09375-0.576172l-0.621094-0.830078c2.285365-0.715644 4.132749-1.864155 4.767578-2.816406 0.311909-0.467867 0.445725-1.648498 0.306641-2.875 0.132824-0.514754 0.249034-1.230731 0.193359-2.125-0.112018-1.799285-2.887981-2.7007135-3-4.4999995-0.02316-0.371957 6e-6 -1 0.5-1 1.499984 0 1.472959 1.4274356 2 0.9003906 1.499984-1.499995-0.500022-2.9003906-2.5-2.9003906-1.343695 0-3 0.156295-3 1.5 0 1.1891999 0.597846 2.0960363 1.261719 2.9101562-1.55172-0.7401837-3.191508-1.2452706-5.183594-1.9648437-0.033607-0.1489041-0.069949-0.2976861-0.078125-0.4453125-0.05902-1.06555 2-1.432816 2-2.5 0-1.4039904-3.407386 0.5110111-3.933594 2.1660156-0.5045624-0.2060678-1.0145324-0.4151622-1.566406-0.6660156-0.9715211-0.441604-1.5000054-2-2-2z" style="opacity:.2"/>
 <path d="m16.999838 14.999958s2.472901-2.78296 1.999979-4.9999836c-0.36961-1.732702-2.999817-2.99999-2.999817-5.499982 0-1.343705 1.656305-1.4999924 3-1.4999924 1.999978 0 3.999984 1.400005 2.5 2.9-0.527041 0.527045-0.500205-0.9000096-2.000189-0.9000096-0.499994 0-0.523151 0.62804-0.499994 0.999997 0.112019 1.799286 2.887949 2.700699 2.999967 4.4999846 0.115786 1.859783-0.499994 2.999991-0.499994 2.999991z" style="fill:#7e664e"/>
 <path d="M 19 3 C 17.656305 3 16 3.156295 16 4.5 C 16 4.6233968 16.01121 4.7417805 16.023438 4.859375 C 16.144639 3.6554857 17.708675 3.5 19 3.5 C 20.389507 3.5 21.776407 4.1762195 21.992188 5.0917969 C 22.26263 3.9334383 20.63229 3 19 3 z M 19.013672 6.09375 C 18.99719 6.2370086 18.992549 6.3803148 19 6.5 C 19.112019 8.299286 21.887982 9.2007145 22 11 C 22.005763 11.092573 22.001602 11.174717 22.003906 11.263672 C 22.014101 11.023475 22.016958 10.77239 22 10.5 C 21.88998 8.7328012 19.215346 7.8300576 19.013672 6.09375 z M 19.046875 10.861328 C 18.885025 12.876334 17 15 17 15 L 17.527344 14.824219 C 18.171149 13.940619 19.158943 12.329983 19.046875 10.861328 z " style="fill:#8b9cbe;opacity:.1"/>
 <path d="m8.973558 15.996048c-0.473826 0.01928-0.657191 0.625698-0.273435 0.904294l3.338266 2.654288-1.245515 1.445308h-2.7929387c-0.6761542-0.0096-0.6761542 1.009559 0 0.999997h2.9999677c0.132598-2.6e-5 0.259757-0.05272 0.353512-0.146484l1.800196-1.999994c0.215356-0.215243 0.189985-0.571364-0.05371-0.753903l-3.800175-2.99999c-0.09317-0.07179-0.208655-0.108444-0.326168-0.103516z" style="fill:#b4a595"/>
 <path d="m8.9726562 15.996094c-0.4738261 0.01928-0.6571934 0.625701-0.2734374 0.904297l3.2128902 2.552734c0.194468 0.020164 0.386894 0.046875 0.587891 0.046875 0.266012 0 0.529792-0.029919 0.794922-0.046875-0.012879-0.13439-0.077062-0.26494-0.195313-0.353516l-3.8007809-3c-0.09317-0.07179-0.2086589-0.108443-0.3261719-0.103515z" style="opacity:.2"/>
 <path d="m 4.4999731,12.499966 c 0,0 2.9999676,6.499979 7.9999139,6.499979 3.999957,0 7.999914,-1.999994 8.999903,-3.499989 0.620167,-0.930257 0.539453,-4.680448 -0.999989,-5.9999796 C 16.999838,6.4999854 13.999871,6.4999854 8.49993,3.9999944 7.5284089,3.5583904 6.9999946,2 6.5,2 5.5000108,2 6.4999515,4.9999904 6.4999515,4.9999904 6.4999515,4.9999904 4.8999946,5 4.4,5 3.3328241,5 4.7276095,5.6366344 6.4999515,6.9999844 12.999881,11.999967 16.500037,10.500014 20,15 17.000032,15.499998 6.4999515,10.999971 6.4999515,10.999971 Z" style="fill:#b2bfd9"/>
 <path d="m10.269531 4.7519531c-0.144899 0.2526537-0.254029 0.5060212-0.269531 0.7480469-0.251427 3.925418 9 7 9 7s-6.81752-3.705228-7-7c-0.001558-0.0281377 0.012353-0.0509354 0.013672-0.078125-0.552439-0.2001613-1.131771-0.4230989-1.744141-0.6699219zm-3.769531 6.2480469-1.4375 1.078125 0.9375-0.078125s4.733113 5.5 7 5.5c2.499974 0 7-1.000004 7-2 0-0.132376-0.03928-0.303269-0.109375-0.494141-1.92656 0.241294-6.559788-1.334873-9.839844-2.583984-0.1008589 0.027344-0.2382816 0.078125-0.300781 0.078125-0.2501202 0-0.3507283-0.13482-0.4023438-0.351562-1.6469792-0.641167-2.8476562-1.148438-2.8476562-1.148438zm9.054688 0.666016c1.510294 0.641037 2.857649 1.429974 4.183593 3.023437-0.527797-1.056638-1.910144-2.534329-4.183593-3.023437z" style="opacity:.1"/>
 <path d="m4.4999731 10.999971s0.9999892-1.9999936 2.9999676-1.9999936c0.6009183 0 1.2763793 0.552785 1.4999843 0.999997 0.499994 0.9999966 0.06281 1.9999926 0.749991 1.9999926 0.499995 0 2.299192-0.999996 4.249955-0.999996 3.999957 0 6.000129 2.99999 6.000129 3.999987 0 0.999996-4.500145 1.999993-7.000119 1.999993-2.266887 0-6.9999241-5.499982-6.9999241-5.499982l-0.9999569 0.083155z" style="fill:#a08a73"/>
 <ellipse cx="6.4999514" cy="11.000006" rx=".49999461" ry=".49999836" style="opacity:.1"/>
 <ellipse cx="6.4999514" cy="10.499971" rx=".49999461" ry=".49999836" style="fill:#17191e"/>
 <path d="m18.999817 11.999967s-9.251244-3.0745586-8.999817-6.9999766c0.109682-1.712423 3.999871-3.999987 3.999871-2.499992 0 1.067184-2.058994 1.434442-1.999979 2.499992 0.18248 3.294772 6.999925 6.9999766 6.999925 6.9999766z" style="fill:#a08a73"/>
 <path d="m7.5 9c-1.9999784 0-3 2-3 2l0.1757812 0.205078c0.3601009-0.550581 1.2952831-1.705078 2.8242188-1.705078 0.6009183 0 1.276395 0.552788 1.5 1 0.499994 0.999996 0.062819 2 0.75 2 0.499995 0 2.299237-1 4.25-1 3.674533 0 5.640478 2.513983 5.939453 3.701172 0.03835-0.066613 0.060547-0.13426 0.060547-0.201172 0-0.999997-2.000043-4-6-4-1.950763 0-3.750005 1-4.25 1-0.687181 0-0.250006-1.000004-0.75-2-0.223605-0.447212-0.8990817-1-1.5-1z" style="fill:#8b9cbe;opacity:.1"/>
 <path d="M 4.4999731,10.999971 2,11.999967 4.4999731,12.499966 5.9999569,11.499969 Z" style="fill:#17191e"/>
 <path d="m15.495118 16.994803c-0.448704 1.18e-4 -0.670182 0.545441-0.348629 0.858395l1.244957 1.745378-0.700188 1.401362h-0.691398c-0.676154-0.0096-0.676154 1.009559 0 0.999997h0.999989c0.189394 1.3e-5 0.362541-0.106976 0.447261-0.276366l0.999989-1.999994c0.0962-0.192512 0.05844-0.424982-0.09375-0.577146l-1.499838-2.000259c-0.09413-0.09677-0.223395-0.151359-0.358394-0.151367z" style="fill:#b4a595"/>
 <path d="M 13.390625 2.0175781 C 12.291368 2.108415 10.082261 3.7156828 10 5 C 9.9907767 5.1439986 9.9982456 5.2861355 10.013672 5.4277344 C 10.208713 3.84488 13.477472 1.8353454 13.941406 2.7441406 C 13.967212 2.6646612 14 2.5882641 14 2.5 C 14 2.1250013 13.757044 1.9872992 13.390625 2.0175781 z M 12.044922 5.2558594 C 12.023219 5.3351802 11.995122 5.4119276 12 5.5 C 12.113457 7.5485276 14.790837 9.7542118 16.800781 11.130859 C 18.046313 11.669279 19 12 19 12 C 19 12 12.546851 8.4837402 12.044922 5.2558594 z " style="fill:#8b9cbe;opacity:.1"/>
 <path d="M 5.4238281 11.808594 L 4.5 12.5 C 4.5 12.5 4.6490373 12.770679 4.6972656 12.867188 L 6 12 L 5.4238281 11.808594 z " style="opacity:.1"/>
</svg>
