<svg width="24" height="24" version="1.1" xmlns="http://www.w3.org/2000/svg">
 <g transform="translate(1,1)">
  <path d="m1 21.5 2-9h4l2 9z" style="opacity:.2"/>
  <path d="m1 21 2-9h4l2 9z" style="fill:#5c5c5c"/>
  <path d="m13 21.5 2-9h4l2 9z" style="opacity:.2"/>
  <path d="m13 21 2-9h4l2 9z" style="fill:#5c5c5c"/>
  <rect x="1" y="5.5" width="8" height="9" ry="1" style="opacity:.2"/>
  <rect x="4" y="1" width="4" height="5" ry="1" style="fill:#5c5c5c"/>
  <rect x="13" y="5.5" width="8" height="9" ry="1" style="opacity:.2"/>
  <rect x="1" y="5" width="8" height="9" ry="1" style="fill:#838181"/>
  <rect x="10" y="6.5" width="2" height="7" ry="1" style="opacity:.2"/>
  <rect x="14" y="1" width="4" height="5" ry="1" style="fill:#5c5c5c"/>
  <rect x="5" y="7.5" width="12" height="5" ry="1" style="opacity:.2"/>
  <rect x="13" y="5" width="8" height="9" ry="1" style="fill:#838181"/>
  <rect x="10" y="6" width="2" height="7" ry="1" style="fill:#674f4f"/>
  <path d="m11 6c-0.554 0-1 0.446-1 1v0.5c0-0.554 0.446-1 1-1s1 0.446 1 1v-0.5c0-0.554-0.446-1-1-1z" style="fill:#8b9cbe;opacity:.1"/>
  <rect x="5" y="7" width="12" height="5" ry="1" style="fill:#6f6d6d"/>
  <circle cx="16" cy="16" r="6" style="fill:#07b3ff"/>
  <path d="m14 13v4a1 1 0 0 0-1 1 1 1 0 0 0 1 1 1 1 0 0 0 1-1v-3h3v2a1 1 0 0 0-1 1 1 1 0 0 0 1 1 1 1 0 0 0 1-1v-5h-4z" style="fill:#8b9cbe"/>
  <path d="m5 1c-0.554 0-1 0.446-1 1v0.5c0-0.554 0.446-1 1-1h2c0.554 0 1 0.446 1 1v-0.5c0-0.554-0.446-1-1-1z" style="fill:#8b9cbe;opacity:.1"/>
  <path d="m2 5c-0.554 0-1 0.446-1 1v0.5c0-0.554 0.446-1 1-1h6c0.554 0 1 0.446 1 1v-0.5c0-0.554-0.446-1-1-1z" style="fill:#8b9cbe;opacity:.2"/>
  <path d="m15 1c-0.554 0-1 0.446-1 1v0.5c0-0.554 0.446-1 1-1h2c0.554 0 1 0.446 1 1v-0.5c0-0.554-0.446-1-1-1z" style="fill:#8b9cbe;opacity:.1"/>
  <path d="m14 5c-0.554 0-1 0.446-1 1v0.5c0-0.554 0.446-1 1-1h6c0.554 0 1 0.446 1 1v-0.5c0-0.554-0.446-1-1-1z" style="fill:#8b9cbe;opacity:.2"/>
  <path d="m6 7c-0.554 0-1 0.446-1 1v0.5c0-0.554 0.446-1 1-1h10c0.554 0 1 0.446 1 1v-0.5c0-0.554-0.446-1-1-1z" style="fill:#8b9cbe;opacity:.2"/>
 </g>
</svg>
