<svg xmlns="http://www.w3.org/2000/svg" width="24" height="24" version="1">
 <rect style="fill:#ac4cc7" width="20" height="20" x="2" y="2" rx="1" ry="1"/>
 <path style="opacity:0.2;fill:#8b9cbe" d="M 3,2 C 2.446,2 2,2.446 2,3 v 0.5 c 0,-0.554 0.446,-1 1,-1 h 18 c 0.554,0 1,0.446 1,1 V 3 C 22,2.446 21.554,2 21,2 Z"/>
 <path style="opacity:0.2" d="m 3,22.5 c -0.554,0 -1,-0.446 -1,-1 V 21 c 0,0.554 0.446,1 1,1 h 18 c 0.554,0 1,-0.446 1,-1 v 0.5 c 0,0.554 -0.446,1 -1,1 z"/>
 <g style="opacity:0.2" transform="matrix(0.5,0,0,0.5,0,0.5)">
  <rect width="4" height="32" x="22" y="8" rx="2" ry="2"/>
  <rect width="4" height="20" x="14" y="14" rx="2" ry="2"/>
  <rect width="4" height="28" x="30" y="10" rx="2" ry="2"/>
  <rect width="4" height="24" x="6" y="12" rx="2" ry="2"/>
  <rect width="4" height="24" x="38" y="12" rx="2" ry="2"/>
 </g>
 <g style="fill:#a8cce3" transform="scale(0.5)">
  <rect style="fill:#a8cce3" width="4" height="32" x="22" y="8" rx="2" ry="2"/>
  <rect style="fill:#a8cce3" width="4" height="20" x="14" y="14" rx="2" ry="2"/>
  <rect style="fill:#a8cce3" width="4" height="28" x="30" y="10" rx="2" ry="2"/>
  <rect style="fill:#a8cce3" width="4" height="24" x="6" y="12" rx="2" ry="2"/>
  <rect style="fill:#a8cce3" width="4" height="24" x="38" y="12" rx="2" ry="2"/>
 </g>
</svg>
