<svg xmlns="http://www.w3.org/2000/svg" width="24" height="24" version="1">
 <path style="opacity:0.2" d="m 12.498047,4.4999984 c -1.20926,9.25e-4 -2.279823,0.513169 -3.2207032,1.2226562 C 8.8639263,5.5990962 8.4394348,5.5005373 8.0019531,5.4999984 H 8 c -2.4615921,0 -4.5,2.0384079 -4.5,4.5000012 v 0.0039 0.002 c 1.687e-4,0.05258 0.025336,0.101823 0.027344,0.154296 C 2.6477897,11.077537 1.9998044,12.190512 2,13.5 c 0,2.737734 2.2622655,5 5,5 0.8574733,3.89e-4 1.6565495,-0.275167 2.390625,-0.681641 0.81485,0.401458 1.682559,0.679806 2.605469,0.681641 H 12 12.0039 c 0.799911,-0.0016 1.563755,-0.216469 2.292969,-0.523438 0.69579,0.308731 1.430211,0.522442 2.201172,0.523438 H 16.5 C 19.513877,18.5 22,16.013877 22,13 22,10.315618 19.992396,8.1547233 17.431641,7.6914046 16.54424,5.8108223 14.668515,4.5020011 12.501953,4.4999984 H 12.5 Z"/>
 <path style="fill:#1da6e8" d="M 12.498047,4 C 11.288787,4.000925 10.218224,4.513169 9.2773438,5.2226562 8.8639263,5.0990978 8.4394348,5.0005389 8.0019531,5 H 8 C 5.5384079,5 3.5,7.0384079 3.5,9.5 V 9.50391 9.50586 C 3.5001687,9.55844 3.525336,9.6076839 3.527344,9.6601568 2.6477897,10.577537 1.9998044,11.690512 2,13 c 0,2.737734 2.2622655,5 5,5 0.8574733,3.89e-4 1.6565495,-0.275167 2.390625,-0.681641 0.81485,0.401458 1.682559,0.679806 2.605469,0.681641 H 12 12.0039 c 0.799911,-0.0016 1.563755,-0.216469 2.292969,-0.523438 0.69579,0.308731 1.430211,0.522442 2.201172,0.523438 H 16.5 C 19.513877,18 22,15.513877 22,12.5 22,9.815618 19.992396,7.6547249 17.431641,7.1914062 16.54424,5.3108239 14.668515,4.0020027 12.501953,4 H 12.5 Z"/>
 <circle style="opacity:0.2" cx="7" cy="13.5" r="3"/>
 <circle style="fill:#ffe174" cx="7" cy="13" r="3"/>
 <circle style="opacity:0.2" cx="8" cy="10" r="2.5"/>
 <circle style="fill:#ffd338" cx="8" cy="9.5" r="2.5"/>
 <circle style="opacity:0.2" cx="12.5" cy="10" r="3.5"/>
 <circle style="fill:#ffb822" cx="12.5" cy="9.5" r="3.5"/>
 <circle style="opacity:0.2" cx="16.5" cy="13" r="3.5"/>
 <circle style="fill:#ff7c2d" cx="16.5" cy="12.5" r="3.5"/>
 <circle style="opacity:0.2" cx="12" cy="12.5" r="4"/>
 <circle style="fill:#ff972d" cx="12" cy="12" r="4"/>
 <path style="opacity:0.2;fill:#8b9cbe" d="M 12.498047 4 C 11.288787 4.000925 10.218224 4.513169 9.2773438 5.2226562 C 8.8639262 5.0990978 8.4394348 5.0005389 8.0019531 5 L 8 5 C 5.5384079 5 3.5 7.0384079 3.5 9.5 L 3.5 9.5039062 L 3.5 9.5058594 C 3.5001687 9.5584394 3.5253357 9.6076833 3.5273438 9.6601562 C 2.6477895 10.577536 1.9998044 11.690512 2 13 C 2 13.092135 2.0086156 13.182447 2.0136719 13.273438 C 2.0837695 12.062535 2.699422 11.023732 3.5273438 10.160156 C 3.5253357 10.107683 3.5001687 10.058439 3.5 10.005859 L 3.5 10.003906 L 3.5 10 C 3.5 7.5384079 5.5384079 5.5 8 5.5 L 8.0019531 5.5 C 8.4394348 5.5005389 8.8639262 5.5990979 9.2773438 5.7226562 C 10.218224 5.0131691 11.288787 4.500925 12.498047 4.5 L 12.5 4.5 L 12.501953 4.5 C 14.668515 4.5020027 16.54424 5.810824 17.431641 7.6914062 C 19.93371 8.1441069 21.893259 10.221496 21.982422 12.820312 C 21.98872 12.71373 22 12.608029 22 12.5 C 22 9.815618 19.992396 7.6547249 17.431641 7.1914062 C 16.54424 5.3108239 14.668515 4.0020027 12.501953 4 L 12.5 4 L 12.498047 4 z"/>
</svg>
