<svg xmlns="http://www.w3.org/2000/svg" width="24" height="24" version="1">
 <circle style="opacity:0.2" cx="12" cy="12.5" r="10"/>
 <circle style="fill:#4f4f4f" cx="12" cy="12" r="10"/>
 <path style="opacity:0.1;fill:#8b9cbe" d="M 12,2 A 10,10 0 0 0 2,12 10,10 0 0 0 2.0107422,12.291016 10,10 0 0 1 12,2.5 10,10 0 0 1 21.989258,12.208985 10,10 0 0 0 22,12 10,10 0 0 0 12,2 Z"/>
 <path style="opacity:0.2" d="m 12,5.5 c -0.552285,0 -1,0.4477153 -1,1 0,0.5522847 0.447715,1 1,1 0.552285,0 1,-0.4477153 1,-1 0,-0.5522847 -0.447715,-1 -1,-1 z M 5,6.4996562 9,10 11,21 v -8.5 h 2 V 21 L 15,10 19,6.4996562 13,8.5543437 V 11 H 11 V 8.5543437 Z"/>
 <path style="fill:#f68220" d="m 12,5 c -0.552285,0 -1,0.4477153 -1,1 0,0.5522847 0.447715,1 1,1 0.552285,0 1,-0.4477153 1,-1 C 13,5.4477153 12.552285,5 12,5 Z M 5,5.9996562 9,9.5 l 2,11 V 12 h 2 v 8.5 l 2,-11 4,-3.5003438 -6,2.0546875 V 10.5 H 11 V 8.0543437 Z"/>
 <path style="opacity:0.2;fill:#8b9cbe" d="m 12,5 c -0.552285,0 -1,0.4477153 -1,1 0,0.088846 0.02904,0.1679949 0.05078,0.25 C 11.164204,5.8222448 11.536561,5.5 12,5.5 c 0.463439,0 0.835796,0.3222448 0.949219,0.75 C 12.970963,6.1679949 13,6.088846 13,6 13,5.4477153 12.552285,5 12,5 Z M 5,6 5.9394531,6.8222656 11,8.5546875 v -0.5 z m 14,0 -6,2.0546875 v 0.5 l 5.060547,-1.7324219 z m -8,4.5 V 11 h 2 v -0.5 z"/>
</svg>
