<svg xmlns="http://www.w3.org/2000/svg" width="24" height="24" version="1">
 <path style="opacity:0.2" d="m 3,2.5 c -0.554,0 -1,0.446 -1,1 v 18 c 0,0.554 0.446,1 1,1 h 5 v -14 h 7 v -6 z m 13,0 v 20 h 2.35512 l 1.77342,-1.143791 c 0.465567,-0.300273 0.867776,-0.46201 1,-1 L 22,16.810458 V 3.5 c 0,-0.554 -0.446,-1 -1,-1 z m -7,7 v 13 h 6 v -13 z"/>
 <path style="fill:#16a085" d="M 3,2 C 2.446,2 2,2.446 2,3 v 18 c 0,0.554 0.446,1 1,1 H 8 V 8 h 7 V 2 Z m 13,0 v 20 h 2.35512 l 1.77342,-1.143791 c 0.465567,-0.300273 0.859271,-0.464172 1,-1 L 22,16.538126 V 3 C 22,2.446 21.554,2 21,2 Z M 9,9 v 13 h 6 V 9 Z"/>
 <path style="opacity:0.2;fill:#8b9cbe" d="M 3,2 C 2.446,2 2,2.446 2,3 v 0.5 c 0,-0.554 0.446,-1 1,-1 H 15 V 2 Z m 13,0 v 0.5 h 5 c 0.554,0 1,0.446 1,1 V 3 C 22,2.446 21.554,2 21,2 Z M 9,9 v 0.5 h 6 V 9 Z"/>
 <circle style="opacity:0.2" cx="18" cy="18.5" r="5"/>
 <circle style="fill:#8255cc" cx="18" cy="18" r="5"/>
 <path style="fill:#8b9cbe" d="m 17.244,15 -0.06673,0.7902 a 2.3784,2.3572 0 0 0 -0.6951,0.39844 l -0.72465,-0.33818 -0.75675,1.2991 0.65795,0.45285 a 2.3784,2.3572 0 0 0 -0.03632,0.3976 2.3784,2.3572 0 0 0 0.03461,0.39928 l -0.657,0.4515 0.75675,1.2991 0.72295,-0.33733 a 2.3784,2.3572 0 0 0 0.6968,0.39592 l 0.06672,0.79185 h 1.5135 l 0.06672,-0.7902 a 2.3784,2.3572 0 0 0 0.6951,-0.39844 l 0.72465,0.33817 0.75675,-1.2991 -0.65795,-0.45285 a 2.3784,2.3572 0 0 0 0.03632,-0.3976 2.3784,2.3572 0 0 0 -0.03461,-0.39928 l 0.6565,-0.4505 -0.75675,-1.2991 -0.723,0.33734 a 2.3784,2.3572 0 0 0 -0.6965,-0.396 l -0.06672,-0.79185 h -1.5135 z m 0.75675,2.1428 a 0.86485,0.85715 0 0 1 0.864,0.857 0.86485,0.85715 0 0 1 -0.865,0.857 0.86485,0.85715 0 0 1 -0.865,-0.857 0.86485,0.85715 0 0 1 0.865,-0.857 z"/>
</svg>
