<svg xmlns="http://www.w3.org/2000/svg" width="24" height="24" version="1">
 <path style="opacity:0.2" d="m 3,2.5 c -0.554,0 -1,0.446 -1,1 v 18 c 0,0.554 0.446,1 1,1 h 5 v -14 h 7 v -6 z m 13,0 v 20 h 5 c 0.554,0 1,-0.446 1,-1 v -18 c 0,-0.554 -0.446,-1 -1,-1 z m -7,7 v 13 h 6 v -13 z"/>
 <path style="fill:#16a085" d="M 3,2 C 2.446,2 2,2.446 2,3 v 18 c 0,0.554 0.446,1 1,1 H 8 V 8 h 7 V 2 Z m 13,0 v 20 h 5 c 0.554,0 1,-0.446 1,-1 V 3 C 22,2.446 21.554,2 21,2 Z M 9,9 v 13 h 6 V 9 Z"/>
 <path style="opacity:0.2;fill:#8b9cbe" d="M 3,2 C 2.446,2 2,2.446 2,3 v 0.5 c 0,-0.554 0.446,-1 1,-1 H 15 V 2 Z m 13,0 v 0.5 h 5 c 0.554,0 1,0.446 1,1 V 3 C 22,2.446 21.554,2 21,2 Z M 9,9 v 0.5 h 6 V 9 Z"/>
</svg>
