<svg xmlns="http://www.w3.org/2000/svg" width="24" height="24" version="1">
 <rect style="opacity:0.2" width="18" height="18" x="4" y="2.5" rx=".9" ry=".9"/>
 <rect style="fill:#b2bfd9" width="18" height="18" x="4" y="2" rx=".9" ry=".9"/>
 <path style="opacity:0.2;fill:#8b9cbe" d="m 4.9006331,2 c -0.4986,0 -0.9003906,0.4017907 -0.9003906,0.9003906 v 0.5 C 4.0002425,2.9017907 4.4020331,2.5 4.9006331,2.5 H 21.099852 c 0.4986,0 0.90039,0.4017907 0.90039,0.9003906 v -0.5 C 22.000242,2.4017907 21.598452,2 21.099852,2 Z"/>
 <path style="fill:#2d5de1;fill-rule:evenodd" d="m 22.000242,3.7998047 -5.40039,1.7050783 -3.599609,6.821289 V 20 h 8.099609 c 0.4986,0 0.90039,-0.401791 0.90039,-0.900391 z"/>
 <path style="opacity:0.1;fill-rule:evenodd" d="m 22.000242,3.7998047 -5.40039,1.7050783 -3.599609,6.821289 v 0.5 l 3.599609,-6.821289 5.40039,-1.7050785 z"/>
 <path style="fill:#e34ae9;fill-rule:evenodd" d="M 11.200438,9.7685545 4.0002425,14.883789 v 4.21582 C 4.0002425,19.598209 4.4020331,20 4.9006331,20 h 8.0996099 8.099609 c 0.4986,0 0.90039,-0.401791 0.90039,-0.900391 V 14.03125 l -5.40039,3.411133 -3.599609,-5.116211 z"/>
 <path style="opacity:0.1;fill-rule:evenodd" d="M 11.200438,9.7685545 4.0002425,14.883789 v 0.5 l 7.2001955,-5.115234 1.799805,2.557617 3.599609,5.116211 5.400391,-3.411133 v -0.5 l -5.400391,3.411133 -3.599609,-5.116211 z"/>
 <path style="opacity:0.1" d="m 3.0002425,2.4997575 a 1.0001,1.0001 0 1 0 0,2 h 2 a 1.0001,1.0001 0 1 0 0,-2 z m 0,4 a 1.0001,1.0001 0 1 0 0,2 h 2 a 1.0001,1.0001 0 1 0 0,-2 z m 0,3.9999995 a 1.0001,1.0001 0 1 0 0,2 h 2 a 1.0001,1.0001 0 1 0 0,-2 z m 0,4 a 1.0001,1.0001 0 1 0 0,2 h 2 a 1.0001,1.0001 0 1 0 0,-1.999999 z m 5.9853515,3.986328 a 1.0001,1.0001 0 0 0 -0.9853515,1.013672 v 2 a 1.0001,1.0001 0 1 0 2.0000005,0 v -2 A 1.0001,1.0001 0 0 0 8.985594,18.486085 Z m 4,0 a 1.0001,1.0001 0 0 0 -0.985351,1.013672 v 2 a 1.0001,1.0001 0 1 0 2,0 v -2 a 1.0001,1.0001 0 0 0 -1.014649,-1.013672 z m 4,0 a 1.0001,1.0001 0 0 0 -0.985352,1.013672 v 2 a 1.0001,1.0001 0 1 0 2,0 v -2 a 1.0001,1.0001 0 0 0 -1.014648,-1.013672 z m 4,0 a 1.0001,1.0001 0 0 0 -0.985352,1.013672 v 2 a 1.0001,1.0001 0 1 0 2,0 v -2 a 1.0001,1.0001 0 0 0 -1.014648,-1.013672 z"/>
 <path style="fill:none;stroke:#4f4f4f;stroke-width:2;stroke-linecap:round" d="m 3.0002425,3 h 2"/>
 <path style="fill:none;stroke:#4f4f4f;stroke-width:2;stroke-linecap:round" d="m 3.0002425,15 h 2"/>
 <path style="fill:none;stroke:#4f4f4f;stroke-width:2;stroke-linecap:round" d="m 3.0002425,11 h 2"/>
 <path style="fill:none;stroke:#4f4f4f;stroke-width:2;stroke-linecap:round" d="m 3.0002425,7 h 2"/>
 <path style="fill:none;stroke:#4f4f4f;stroke-width:2;stroke-linecap:round" d="M 21.000242,21 V 19"/>
 <path style="fill:none;stroke:#4f4f4f;stroke-width:2;stroke-linecap:round" d="M 17.000242,21 V 19"/>
 <path style="fill:none;stroke:#4f4f4f;stroke-width:2;stroke-linecap:round" d="M 13.000243,21 V 19"/>
 <path style="fill:none;stroke:#4f4f4f;stroke-width:2;stroke-linecap:round" d="M 9.0002425,21 V 19"/>
</svg>
