<svg xmlns="http://www.w3.org/2000/svg" width="24" height="24" version="1">
 <path style="opacity:0.2" d="m 3,3.5 c 0,0 -1,0 -1,1 v 14 c 0,0.554 0.446,1 1,1 h 18 c 0.554,0 1,-0.446 1,-1 v -14 c 0,-0.554 -0.446,-1 -1,-1 z"/>
 <path style="fill:#0245c5" d="M 3,3 C 3,3 2,3 2,4 v 14 c 0,0.554 0.446,1 1,1 h 18 c 0.554,0 1,-0.446 1,-1 V 4 C 22,3.446 21.554,3 21,3 Z"/>
 <path style="opacity:0.2;fill:#8b9cbe" d="m 12,19 h 9 c 0.554,0 1,-0.446 1,-1 V 4 C 22,3.446 21.554,3 21,3 h -9 z"/>
 <path style="opacity:0.1;fill:#8b9cbe" d="M 3,3 C 3,3 2,3 2,4 v 7 H 22 V 4 C 22,3.446 21.554,3 21,3 Z"/>
 <path style="opacity:0.1;fill:#8b9cbe" d="M 3,3 C 2.446,3 2,3.446 2,4 v 0.5 c 0,-0.554 0.446,-1 1,-1 h 18 c 0.554,0 1,0.446 1,1 V 4 C 22,3.446 21.554,3 21,3 Z"/>
 <rect style="opacity:0.2" width="11" height="9" x="1" y="11.5" rx=".5" ry=".5"/>
 <rect style="fill:#ebebeb" width="11" height="9" x="1" y="11" rx=".5" ry=".5"/>
</svg>
