<svg width="24" height="24" version="1.1" xmlns="http://www.w3.org/2000/svg">
 <g transform="translate(1.1073837,1)">
  <path d="m3.5 11.499864a2.50025 2.50025 0 1 0 0 5h1.9042969l-0.765625 0.855469a2.50025 2.50025 0 1 0 3.7226562 3.335937l2.6425779-2.951172 2.638672 2.931641a2.50025 2.50025 0 1 0 3.714844-3.34375l-0.746094-0.828125h1.888672a2.50025 2.50025 0 1 0 0-5z" style="opacity:.2"/>
  <path d="m3.5 13.5h15" style="fill:none;stroke-linecap:round;stroke-linejoin:round;stroke-width:5;stroke:#c4c4c4"/>
  <path d="m6.5 18.523 4.5-5.023 4.5 5" style="fill:none;stroke-linecap:round;stroke-linejoin:round;stroke-width:5;stroke:#c4c4c4"/>
  <path d="m3.5 11a2.50025 2.50025 0 0 0-2.5214844 2.75 2.50025 2.50025 0 0 1 2.5214844-2.25h15a2.50025 2.50025 0 0 1 2.521484 2.25 2.50025 2.50025 0 0 0-2.521484-2.75zm1.4570312 5.5-0.3183593 0.355469a2.50025 2.50025 0 0 0-0.6679688 1.96875 2.50025 2.50025 0 0 1 0.6679688-1.46875l0.765625-0.855469zm11.654297 0 0.746094 0.828125a2.50025 2.50025 0 0 1 0.679687 1.484375 2.50025 2.50025 0 0 0-0.679687-1.984375l-0.294922-0.328125z" style="fill:#8b9cbe;opacity:.2"/>
  <rect x="6" y="1.5" width="9.8926163" height="10" rx="1.8926159" ry="2" style="opacity:.2"/>
  <rect x="6" y="1" width="9.8926163" height="10" rx="1.8926159" ry="2" style="fill:#b2bfd9"/>
  <path d="m6 4v1h2.5c0.277 0 0.5-0.223 0.5-0.5s-0.223-0.5-0.5-0.5zm7.5 0c-0.277 0-0.5 0.223-0.5 0.5s0.223 0.5 0.5 0.5h2.392578v-1zm-7.5 2v1h2.5c0.277 0 0.5-0.223 0.5-0.5s-0.223-0.5-0.5-0.5zm7.5 0c-0.277 0-0.5 0.223-0.5 0.5s0.223 0.5 0.5 0.5h2.392578v-1zm-7.5 2v1h2.5c0.277 0 0.5-0.223 0.5-0.5s-0.223-0.5-0.5-0.5zm7.5 0c-0.277 0-0.5 0.223-0.5 0.5s0.223 0.5 0.5 0.5h2.392578v-1z" style="fill:#4f4f4f"/>
  <path d="M 7.8925781,1 C 6.8440689,1 6,1.892 6,3 v 0.5 c 0,-1.108 0.8440689,-2 1.8925781,-2 H 14 c 1.048509,0 1.892578,0.892 1.892578,2 V 3 C 15.892578,1.892 15.048509,1 14,1 Z" style="fill:#8b9cbe;opacity:.2"/>
 </g>
</svg>
