<svg xmlns="http://www.w3.org/2000/svg" width="24" height="24" version="1">
 <path style="fill:#d3d3d3" d="m 6.0002,4.9 0,10.3001 c 0,0.4435 0.3565,0.8 0.79999,0.8 l 14.4,0 c 0.443,0 0.79949,-0.3565 0.79949,-0.8 l 0,-10.3001 -16,0 z"/>
 <path style="fill:#5a6367" d="m 6.8002,2 c -0.4435,0 -0.8,0.3639 -0.8,0.8162 l 0,2.1838 16,0 0,-2.1838 C 22.0002,2.3639 21.6442,2 21.2002,2 Z"/>
 <path style="opacity:0.1;fill:#8b9cbe" d="M 22,3.0435 22,2.7943 C 22,2.3526 21.647,2.0001 21.203,2.0001 l -14.406,0 c -0.4435,0 -0.79699,0.35252 -0.79699,0.79424 l 0,0.24917 c 0,-0.44172 0.35367,-0.79424 0.79689,-0.79424 l 14.406,0 c 0.4435,0 0.79699,0.35252 0.79699,0.79424 z"/>
 <path style="opacity:0.2" d="m 6.0002,15.204 0,0.49833 c 0,0.44202 0.3565,0.79733 0.79999,0.79733 l 14.4,0 c 0.444,0.001 0.8,-0.354 0.8,-0.796 l 0,-0.499 c 0,0.44202 -0.3565,0.79733 -0.79999,0.79733 l -14.4,0 c -0.4435,0 -0.79999,-0.35531 -0.79999,-0.79733 z"/>
 <path style="fill:#b2bfd9" d="m 2.0002,10.9 0,10.3 c 0,0.4435 0.3566,0.8 0.79979,0.8 l 14.4,0 c 0.443,0 0.79949,-0.3565 0.79949,-0.8 l 0,-10.3 -15.999,0 z"/>
 <path style="fill:#636e73" d="m 2.8,8.0467 c -0.4432,0 -0.79979,0.35531 -0.79979,0.79733 l 0,2.15597 16,0 0,-2.15587 c 0,-0.44202 -0.3565,-0.79733 -0.79999,-0.79733 l -14.4,0 z"/>
 <path style="opacity:0.2" d="m 2.0002,21.204 0,0.49833 c 0,0.443 0.3566,0.798 0.7998,0.798 l 14.4,0 c 0.4435,0 0.79999,-0.35531 0.79999,-0.79733 l 0,-0.49833 c 0,0.44202 -0.3565,0.79733 -0.79999,0.79733 l -14.4,0 C 2.3566,22.002 2,21.646 2,21.204 Z"/>
</svg>
