<svg xmlns="http://www.w3.org/2000/svg" width="24" height="24" version="1">
 <rect style="opacity:0.2" width="20" height="20" x="2" y="2.5" rx="10" ry="10"/>
 <rect style="fill:#4f4f4f" width="20" height="20" x="2" y="2" rx="10" ry="10"/>
 <path style="opacity:0.2" d="m 12,4.5 c -4.432,0 -8,3.568 -8,8 0,1.460901 0.3937605,2.823695 1.0722655,4 H 18.927734 C 19.606239,15.323695 20,13.960901 20,12.5 c 0,-4.432 -3.568,-8 -8,-8 z"/>
 <path style="opacity:0.1;fill:#8b9cbe" d="M 12,2 C 6.46,2 2,6.46 2,12 2,12.084 2.0038,12.1665 2.00585,12.25 2.1382,6.827 6.544,2.5 11.99985,2.5 c 5.45585,0 9.862,4.327 9.994,9.75 0.002,-0.0835 0.006,-0.166 0.006,-0.25 0,-5.54 -4.46,-10 -10,-10 z"/>
 <path style="fill:#ffe485" d="m 12,4 c -4.432,0 -8,3.568 -8,8 0,1.460901 0.3937605,2.823695 1.0722655,4 H 18.927734 C 19.606239,14.823695 20,13.460901 20,12 20,7.568 16.432,4 12,4 Z"/>
 <path style="fill:none;stroke:#17191e;stroke-width:2;stroke-linecap:round" d="M 12,16 9,11"/>
 <circle style="fill:#4f4f4f" cx="12" cy="16" r="2"/>
 <path style="opacity:0.3;fill:none;stroke:#000000;stroke-linecap:round" d="m 5.5,9.9999285 c 0,0 2,-2.5 6.5,-2.5 4.5,0 6.5,2.5 6.5,2.5"/>
 <path style="fill:none;stroke:#e93232;stroke-linecap:round" d="M 14.692552,7.8301585 C 17.307577,8.5094005 18.5,9.9999285 18.5,9.9999285"/>
 <path style="opacity:0.2;fill:#8b9cbe" d="M 12,4 C 7.568,4 4,7.568 4,12 4,12.09984 4.00612,12.197979 4.00977,12.296875 4.1178468,7.960423 7.636584,4.5 12,4.5 c 4.363416,0 7.882153,3.460423 7.990234,7.796875 C 19.993878,12.197979 20,12.099842 20,12 20,7.568 16.432,4 12,4 Z"/>
 <path style="opacity:0.2" d="M 12 14 A 2 2 0 0 0 10 16 A 2 2 0 0 0 10.017578 16.244141 A 2 2 0 0 1 12 14.5 A 2 2 0 0 1 13.982422 16.255859 A 2 2 0 0 0 14 16 A 2 2 0 0 0 12 14 z"/>
</svg>
