<svg xmlns="http://www.w3.org/2000/svg" width="24" height="24" version="1">
 <rect style="opacity:0.2" width="20" height="20" x="2" y="2.5" rx="1" ry="1"/>
 <path style="fill:#f3963c" d="M 3,2 C 2.446,2 2,2.446 2,3 v 9 H 22 V 3 C 22,2.446 21.554,2 21,2 Z"/>
 <path style="fill:#27cebe" d="m 22,12 v 9 c 0,0.554 -0.446,1 -1,1 H 3 C 2.446,22 2,21.554 2,21 v -9 z"/>
 <path style="opacity:0.2;fill:#8b9cbe" d="M 3,2 C 2.446,2 2,2.446 2,3 v 0.5 c 0,-0.554 0.446,-1 1,-1 h 18 c 0.554,0 1,0.446 1,1 V 3 C 22,2.446 21.554,2 21,2 Z"/>
 <path style="opacity:0.1" d="m 17.5,3.4918954 c -0.252395,0 -0.504781,0.1697319 -0.5,0.5078125 V 6.5000477 H 15 V 3.9997079 C 15.00386,3.7178232 14.774065,3.4894461 14.492188,3.4938485 14.21643,3.4981588 13.996224,3.7239418 14,3.9997079 v 2.9163554 c -0.0094,0.05527 -0.0094,0.1107452 0,0.1660156 V 10.500145 H 11 V 3.9997079 C 10.999825,3.5543902 10.461481,3.3314153 10.146484,3.6461923 L 8,5.7926767 5.8535156,3.6461923 C 5.5385183,3.3314144 5.0001748,3.5543896 5,3.9997079 V 9.8419424 L 2,7.0099111 v 1.375 L 5.15625,11.363426 C 5.4750715,11.663506 5.9992573,11.437974 6,11.000145 V 5.2067391 l 1.6464844,1.6464844 c 0.1952649,0.195184 0.5117663,0.195184 0.7070312,0 L 10,5.2067391 v 5.7934059 c 2.8e-5,0.276131 0.223869,0.499972 0.5,0.5 h 4 c 0.276131,-2.8e-5 0.499972,-0.223869 0.5,-0.5 V 7.5000477 h 2 v 3.5000973 c 3.02e-4,0.420923 0.487804,0.654146 0.814453,0.388672 L 22,8.3927236 V 7.1036611 L 18,9.9493643 V 7.0781727 c 0.0082,-0.051762 0.0082,-0.1044884 0,-0.15625 V 3.9997079 C 18.0048,3.6616272 17.752395,3.4918954 17.5,3.4918954 Z M 14.492188,13.492333 c -0.02487,4.29e-4 -0.04968,0.0037 -0.07422,0.0078 H 10.5 c -0.276131,2.8e-5 -0.499972,0.223869 -0.5,0.5 v 5.792969 L 8.3535156,18.146629 c -0.1952649,-0.195184 -0.5117663,-0.195184 -0.7070312,0 L 6,19.793114 V 14.000145 C 5.9995646,13.565323 5.4826846,13.339186 5.1621094,13.632957 L 2,16.529442 v 1.357422 l 3,-2.75 v 5.863281 c 1.754e-4,0.445318 0.5385185,0.668294 0.8535156,0.353516 L 8,19.207176 l 2.146484,2.146485 c 0.314997,0.314777 0.85334,0.0918 0.853516,-0.353516 v -6.5 h 3 v 2.421875 c -0.0082,0.05176 -0.0082,0.104488 0,0.15625 v 3.921875 c 2.8e-5,0.276131 0.223869,0.499972 0.5,0.5 h 3.048828 c 0.676161,0.0096 0.676161,-1.009563 0,-1 H 15 v -3 h 2.449219 c 0.676161,0.0096 0.676161,-1.009563 0,-1 H 15 v -2 h 3.306641 L 22,17.377098 V 16.031395 L 18.833984,13.629051 C 18.742129,13.546113 18.623758,13.500183 18.5,13.500145 h -3.916016 c -0.03033,-0.0051 -0.06106,-0.0065 -0.0918,-0.0059 z"/>
 <path style="fill:#3f51b5" d="M 14.492188,2.9927765 C 14.21643,2.9970868 13.996224,3.2238463 14,3.4996124 v 2.9153788 c -0.0094,0.05527 -0.0094,0.1117215 0,0.166992 V 10.00005 H 11 V 3.4996124 C 10.999825,3.0542947 10.461482,2.8313198 10.146485,3.1460968 L 8,5.2925814 5.8535155,3.1460968 C 5.5385182,2.8313189 5.0001748,3.0542941 5,3.4996124 V 9.341847 L 2,6.5098155 v 1.375 L 5.1572265,10.863331 C 5.476048,11.163411 5.9992573,10.937879 6,10.50005 V 4.7066434 l 1.6464845,1.6464845 c 0.1952649,0.195184 0.5117661,0.195184 0.707031,0 L 10,4.7066434 V 10.50005 c 2.8e-5,0.276131 0.223869,0.499972 0.5,0.5 h 4 c 0.276131,-2.8e-5 0.499972,-0.223869 0.5,-0.5 V 6.9999522 h 2 V 10.50005 c 3.02e-4,0.420923 0.48878,0.653169 0.815429,0.387695 L 22,7.8916515 V 6.602589 l -4,2.84668 V 6.5771007 c 0.0082,-0.051762 0.0082,-0.1044884 0,-0.15625 V 3.4996124 c 0.0096,-0.6761613 -1.009563,-0.6761613 -1,0 V 5.9999522 H 15 V 3.4996124 C 15.00386,3.2177277 14.774065,2.9883741 14.492188,2.9927765 Z"/>
 <path style="fill:#d64e44" d="m 14.492188,12.993164 c -0.02487,4.29e-4 -0.04968,0.0027 -0.07422,0.0068 H 10.5 c -0.276131,2.8e-5 -0.499972,0.223869 -0.5,0.5 v 5.792969 L 8.3535155,17.646484 c -0.1952649,-0.195184 -0.5117661,-0.195184 -0.707031,0 L 6,19.292969 V 13.5 C 5.9995646,13.065178 5.4826847,12.838064 5.1621095,13.131836 L 2,16.030273 v 1.356446 l 3,-2.75 V 20.5 c 1.754e-4,0.445318 0.5385184,0.668293 0.8535155,0.353515 L 8,18.707031 10.146485,20.853515 C 10.461482,21.168292 10.999824,20.945317 11,20.5 V 14 h 3 v 2.422851 c -0.0082,0.05176 -0.0082,0.104488 0,0.15625 V 20.5 c 2.8e-5,0.276131 0.223869,0.499972 0.5,0.5 h 3.049804 c 0.676161,0.0096 0.676161,-1.009563 0,-1 H 15 v -3 h 2.450195 c 0.676161,0.0096 0.676161,-1.009563 0,-1 H 15 v -2 h 3.307328 L 22,16.876953 V 15.53125 L 18.834672,13.128906 C 18.742817,13.045968 18.623469,13.000038 18.499711,13 h -3.915726 c -0.03033,-0.0051 -0.06106,-0.0074 -0.0918,-0.0068 z"/>
</svg>
