<svg xmlns="http://www.w3.org/2000/svg" width="24" height="24" version="1.1">
 <path style="opacity:0.2" class="cls-1" d="m 20.050794,17.382665 c -0.958269,0.942903 -2.444763,1.166718 -3.627814,1.17253 -3.696557,0 -6.9165935,-2.842615 -6.9165935,-6.105451 0.00963,-0.891127 0.5006795,-1.707299 1.2834835,-2.133303 -3.3434627,0.140605 -4.2027641,3.624506 -4.2027641,5.665633 0,5.771089 5.3190741,6.356165 6.4650701,6.356165 0.617916,0 1.549867,-0.179663 2.109194,-0.356201 l 0.102335,-0.03437 c 2.152349,-0.744046 3.987241,-2.198662 5.202678,-4.124438 0.17359,-0.273483 -0.13243,-0.597894 -0.415589,-0.440565 z"/>
 <path style="fill:#0e539b" class="cls-1" d="m 20.050794,16.882888 c -0.958269,0.942903 -2.444763,1.166719 -3.627814,1.172531 -3.696557,0 -6.9165935,-2.842616 -6.9165935,-6.105452 C 9.5160213,11.05884 10.007066,10.242668 10.78987,9.8166643 7.4464073,9.9572701 6.5871059,13.44117 6.5871059,15.482298 c 0,5.771088 5.3190741,6.356165 6.4650701,6.356165 0.617916,0 1.549867,-0.179663 2.109194,-0.356201 l 0.102335,-0.03437 c 2.152349,-0.744046 3.987241,-2.198662 5.202678,-4.124437 0.17359,-0.273484 -0.13243,-0.597894 -0.415589,-0.440565 z"/>
 <path style="opacity:0.2" class="cls-3" d="M 9.9595239,21.357123 C 9.2627582,20.924684 8.6589184,20.358048 8.183114,19.690163 5.8743676,16.527185 7.2768798,12.046858 10.78987,10.316441 c 0.243729,-0.114829 0.6601,-0.3226128 1.213959,-0.312458 0.791026,0.0058 1.533718,0.381568 2.006858,1.015487 0.31546,0.421179 0.48939,0.931456 0.496832,1.457614 0,-0.0164 1.910774,-6.2179028 -6.2494627,-6.2179028 -3.429393,0 -6.2494633,3.2542437 -6.2494633,6.1093238 -0.013527,1.510299 0.3096401,3.004638 0.9460125,4.374403 2.1527566,4.592979 7.4037985,6.846334 12.2161385,5.242254 -1.647439,0.519402 -3.739664,0.291022 -5.2041892,-0.624915 z"/>
 <path style="fill:#0b87da" class="cls-3" d="M 9.9595239,20.857347 C 9.2627582,20.424907 8.6589184,19.858272 8.183114,19.190386 5.8743676,16.027409 7.2768798,11.547082 10.78987,9.8166643 c 0.243729,-0.1148283 0.6601,-0.3226124 1.213959,-0.3124571 0.791026,0.00576 1.533718,0.381567 2.006858,1.0154858 0.31546,0.42118 0.48939,0.931457 0.496832,1.457614 0,-0.0164 1.910774,-6.2179021 -6.2494627,-6.2179021 -3.429393,0 -6.2494633,3.2542438 -6.2494633,6.1093231 -0.013527,1.510299 0.3096401,3.004638 0.9460125,4.374404 2.1527566,4.592979 7.4037985,6.846334 12.2161385,5.242254 -1.647439,0.519401 -3.739664,0.291021 -5.2041892,-0.624915 z"/>
 <path style="opacity:0.2" class="cls-5" d="m 13.899759,13.827008 c -0.06327,0.08202 -0.25779,0.195285 -0.25779,0.442127 0,0.203878 0.132801,0.399945 0.368718,0.564767 1.123341,0.781143 3.241128,0.678032 3.246597,0.678032 0.83237,-0.002 1.648964,-0.227244 2.36464,-0.652255 1.469068,-0.85774 2.373654,-2.129763 2.377139,-3.830836 C 22.019373,9.278301 21.374117,8.1143972 21.113202,7.5988423 19.457875,4.3610024 15.884745,2.4987562 11.999141,2.4987562 6.5312177,2.4982157 2.0768927,6.8896804 2,12.356787 2.0374967,9.5024892 4.8747531,6.9973359 8.2494635,6.9973359 c 0.2734136,0 1.8326555,0.026559 3.2809685,0.7866116 1.276452,0.6702208 1.945145,1.6794846 2.409949,2.4817185 0.675573,1.274667 0.704647,2.588241 -0.04062,3.561342 z"/>
 <path style="fill:#17dcbe" class="cls-5" d="m 13.899759,13.327232 c -0.06327,0.08202 -0.25779,0.195285 -0.25779,0.442127 0,0.203878 0.132801,0.399945 0.368718,0.564767 1.123341,0.781143 3.241128,0.678032 3.246597,0.678032 0.83237,-0.002 1.648964,-0.227245 2.36464,-0.652255 1.469068,-0.85774 2.373654,-2.129763 2.377139,-3.830836 C 22.019373,8.7785247 21.374117,7.6146209 21.113202,7.099066 19.457875,3.8612263 15.884745,1.9989801 11.999141,1.9989801 6.5312177,1.9984396 2.0768927,6.3899041 2,11.857011 2.0374967,9.0027129 4.8747531,6.4975596 8.2494635,6.4975596 c 0.2734136,0 1.8326555,0.026559 3.2809685,0.7866116 1.276452,0.6702208 1.945145,1.6794846 2.409949,2.4817188 0.675573,1.274667 0.704647,2.58824 -0.04062,3.561342 z"/>
 <path style="opacity:0.2;fill:#8b9cbe" d="M 11.99879,1.9989799 C 6.5308662,1.9984394 2.076893,6.3900406 2.0000003,11.857148 c 0.00509,-0.387457 0.065353,-0.767496 0.1679649,-1.136693 0.841409,-4.6791222 4.9222559,-8.221972 9.8308248,-8.2214868 3.885604,0 7.458717,1.8626268 9.114044,5.1004666 0.243798,0.4817317 0.816579,1.53601 0.874979,3.0995372 0.0022,-0.05743 0.0116,-0.111471 0.01172,-0.169918 C 22.019841,8.7785112 21.373749,7.6150014 21.112834,7.0994465 19.457507,3.8616067 15.884394,1.9989799 11.99879,1.9989799 Z m 2.43549,9.8991821 c -0.04236,0.51915 -0.210955,1.006657 -0.534168,1.428678 -0.06328,0.08202 -0.257806,0.195531 -0.257806,0.442372 0,0.0893 0.02966,0.176403 0.07812,0.260736 0.06177,-0.09091 0.142411,-0.154806 0.179683,-0.20312 0.4252,-0.555187 0.589335,-1.222282 0.534168,-1.928666 z"/>
</svg>
