<svg xmlns="http://www.w3.org/2000/svg" width="24" height="24" version="1">
 <rect style="fill:#995d27" width="16" height="20" x="-20" y="-22" rx="1" ry="1" transform="matrix(0,-1,-1,0,0,0)"/>
 <path style="opacity:0.2" d="m 17,12.5 c 0,-5.5385 -2.333,-6 -7,-6 -4.6667,0 -7,0.4615 -7,6 0,5.5385 2.3333,6 7,6 4.6667,0 7,-0.46154 7,-6 z"/>
 <path style="fill:#57c2ff" d="M 17,12 C 17,6.4615 14.667,6 10,6 5.3333,6 3,6.4615 3,12 c 0,5.5385 2.3333,6 7,6 4.6667,0 7,-0.46154 7,-6 z"/>
 <path style="opacity:0.1;fill:#8b9cbe" d="M 3,4 C 2.446,4 2,4.446 2,5 v 0.5 c 0,-0.554 0.446,-1 1,-1 h 18 c 0.554,0 1,0.446 1,1 V 5 C 22,4.446 21.554,4 21,4 Z"/>
 <path style="opacity:0.2" d="m 2,19 v 0.5 c 0,0.554 0.446,1 1,1 h 18 c 0.554,0 1,-0.446 1,-1 V 19 c 0,0.554 -0.446,1 -1,1 H 3 C 2.446,20 2,19.554 2,19 Z"/>
 <circle style="opacity:0.2" cx="19.5" cy="12" r="1.5"/>
 <circle style="fill:#8b9cbe" cx="19.5" cy="11.5" r="1.5"/>
 <circle style="opacity:0.2" cx="19.5" cy="8" r="1.5"/>
 <circle style="fill:#8b9cbe" cx="19.5" cy="7.5" r="1.5"/>
 <path style="fill:#8b9cbe" d="m 18,17 v 1 h 3 v -1 z"/>
 <path style="fill:#8b9cbe" d="m 18,15 v 1 h 3 v -1 z"/>
 <path style="fill:#8b9cbe;opacity:0.2" d="M 10 6 C 5.3333 6 3 6.4615 3 12 C 3 12.088271 3.0066271 12.164289 3.0078125 12.25 C 3.0810022 6.9578702 5.4076767 6.5 10 6.5 C 14.592619 6.5 16.919007 6.9578702 16.992188 12.25 C 16.993373 12.16429 17 12.088271 17 12 C 17 6.4615 14.667 6 10 6 z"/>
</svg>
