<svg xmlns="http://www.w3.org/2000/svg" width="24" height="24" version="1">
 <path style="opacity:0.2" d="m 9.916992,3.0012628 c -1.2212475,0.03381 -2.30612,0.81138 -2.7304685,1.9570312 l -5,13.500001 a 1.0001,1.0001 0 0 0 0,0.001 c -0.3182223,0.859781 -0.2456531,1.75511 0.1201171,2.441406 0.3657703,0.686295 0.9749441,1.162367 1.6523438,1.413086 0.6773996,0.250719 1.4493821,0.284741 2.1738281,0.002 0.7242155,-0.282695 1.362339,-0.914075 1.680664,-1.773438 v -0.001 l 2.167969,-5.851562 c 0.7118005,0.636274 1.7033915,0.902357 2.6396485,0.717773 l -0.980469,3.18555 c -0.298764,0.887636 -0.189822,1.798362 0.213867,2.478515 0.40369,0.680154 1.047479,1.131176 1.748047,1.34668 0.700568,0.215504 1.485978,0.20481 2.202149,-0.130859 0.71617,-0.33567 1.317556,-1.028575 1.569335,-1.930664 l -0.0068,0.02539 4,-13.000001 a 1.0001,1.0001 0 0 0 0,-10e-4 C 21.795697,5.9842655 21.135688,4.6168081 20.097657,3.9631529 19.059626,3.3094977 17.540386,3.3051268 16.465821,4.2951842 L 13.465822,7.063739 12.867189,5.1184263 C 12.472183,3.8348707 11.259467,2.9642862 9.916992,3.0012628 Z"/>
 <path style="fill:#2d6375" d="m 9.916992,2.5014265 c -1.2212475,0.03381 -2.30612,0.81138 -2.7304685,1.9570313 l -5,13.5000012 a 1.0001,1.0001 0 0 0 0,10e-4 c -0.3182223,0.859781 -0.2456531,1.755111 0.1201171,2.441406 0.3657703,0.686296 0.9749441,1.162367 1.6523438,1.413086 0.6773996,0.250719 1.4493821,0.284741 2.1738281,0.0019 0.7242155,-0.282695 1.362339,-0.914075 1.680664,-1.773437 v -0.001 l 2.167969,-5.851562 c 0.7118005,0.636275 1.7033915,0.902357 2.6396485,0.717774 l -0.980469,3.185546 c -0.298764,0.887636 -0.189822,1.798362 0.213867,2.478516 0.40369,0.680153 1.047479,1.131176 1.748047,1.34668 0.700568,0.215503 1.485978,0.204809 2.202149,-0.13086 0.71617,-0.335669 1.317556,-1.028575 1.569335,-1.930664 l -0.0068,0.02539 4,-13.0000015 a 1.0001,1.0001 0 0 0 0,-10e-4 C 21.795695,5.4844533 21.135687,4.1169958 20.097656,3.4633406 19.059625,2.8096855 17.540384,2.8053146 16.46582,3.7953719 L 13.465821,6.5639265 12.867188,4.618614 C 12.472183,3.3350345 11.259467,2.4644499 9.916992,2.5014265 Z"/>
 <path style="opacity:0.2" d="M 9.9716795,5.0012628 C 9.560547,5.0126453 9.2043805,5.2679232 9.0615235,5.6536065 L 4.0615234,19.152631 c -0.1446682,0.390868 -0.095533,0.607235 0.010742,0.806641 0.1062758,0.199406 0.3194896,0.383021 0.5800782,0.479492 0.2605886,0.09645 0.5424394,0.09681 0.7529299,0.01465 0.21049,-0.08216 0.388535,-0.2146 0.533203,-0.605469 a 1.0001,1.0001 0 0 0 0,-10e-4 l 2.949219,-7.96289 a 1.0001,1.0001 0 0 1 1.8935545,0.05371 l 0.263672,0.856446 c 0.228222,0.741198 1.062345,0.966208 1.632813,0.441406 l 1.051757,-0.970703 a 1.0001,1.0001 0 0 1 1.634766,1.02832 l -1.819336,5.913086 a 1.0001,1.0001 0 0 1 -0.0078,0.02539 c -0.137924,0.409777 -0.07899,0.623722 0.03711,0.819336 0.116101,0.195614 0.344043,0.371355 0.61621,0.455078 0.272168,0.08372 0.559653,0.06724 0.765625,-0.0293 0.205972,-0.09654 0.375954,-0.240778 0.492188,-0.657227 a 1.0001,1.0001 0 0 1 0.0068,-0.02539 l 4,-12.999024 C 19.625151,6.240763 19.402365,5.8886185 19.032223,5.655539 18.662084,5.4224597 18.247782,5.3729355 17.821286,5.765891 L 13.654294,9.611594 A 1.0001,1.0001 0 0 1 12.020505,9.170188 L 10.955075,5.7063205 C 10.821562,5.2724769 10.425451,4.9887643 9.9716795,5.0012628 Z"/>
 <path style="fill:#6acf96" d="M 9.9716795,4.5014265 C 9.560547,4.512809 9.2043805,4.7680869 9.0615235,5.1537703 L 4.0615234,18.652795 c -0.1446682,0.390868 -0.095533,0.607235 0.010742,0.80664 0.1062758,0.199406 0.3194896,0.383021 0.5800782,0.479492 0.2605886,0.09645 0.5424394,0.09681 0.7529299,0.01465 0.21049,-0.08216 0.388535,-0.2146 0.533203,-0.605469 a 1.0001,1.0001 0 0 0 0,-0.001 l 2.949219,-7.962868 a 1.0001,1.0001 0 0 1 1.8935545,0.05371 l 0.263672,0.856446 c 0.228222,0.741198 1.062345,0.966207 1.632813,0.441406 L 13.729492,11.7651 a 1.0001,1.0001 0 0 1 1.634766,1.02832 l -1.819336,5.913085 a 1.0001,1.0001 0 0 1 -0.0078,0.02539 c -0.137924,0.409776 -0.07899,0.623722 0.03711,0.819335 0.116101,0.195614 0.344043,0.371356 0.61621,0.455079 0.272168,0.08372 0.559653,0.06724 0.765625,-0.0293 0.205972,-0.09654 0.375954,-0.240777 0.492188,-0.657226 a 1.0001,1.0001 0 0 1 0.0068,-0.02539 l 4,-12.9990245 C 19.625154,5.740947 19.402366,5.3888029 19.032226,5.1557234 18.662087,4.9226439 18.247785,4.8731197 17.821289,5.266075 L 13.654297,9.111778 A 1.0001,1.0001 0 0 1 12.020508,8.670372 L 10.955078,5.2065047 C 10.821562,4.7726406 10.425451,4.4889281 9.9716795,4.5014265 Z"/>
 <path style="opacity:0.2;fill:#8b9cbe" d="M 9.9716795,4.5014265 C 9.560547,4.512809 9.2043805,4.7680869 9.0615235,5.1537703 L 4.0615234,18.652795 c -0.1128127,0.304799 -0.105935,0.502643 -0.047851,0.669921 0.013835,-0.05474 0.024463,-0.106729 0.047851,-0.169921 L 9.0615235,5.6537705 C 9.2043805,5.268087 9.560547,5.0128091 9.9716795,5.0014266 10.425451,4.9889281 10.821566,5.2726611 10.955078,5.7065045 l 1.06543,3.4638675 a 1.0001,1.0001 0 0 0 1.633789,0.441406 L 17.821289,5.766075 C 18.247785,5.3731195 18.662087,5.4226441 19.032226,5.6557235 19.247589,5.7913385 19.409328,5.968999 19.476562,6.201622 19.593716,5.702171 19.380492,5.375032 19.032226,5.1557234 18.662087,4.9226439 18.247785,4.8731197 17.821289,5.266075 L 13.654297,9.111778 A 1.0001,1.0001 0 0 1 12.020508,8.670372 L 10.955078,5.2065047 C 10.821562,4.7726406 10.425451,4.4889281 9.9716795,4.5014265 Z M 15.375,12.749475 a 1.0001,1.0001 0 0 1 -0.01074,0.04394 L 13.544924,18.7065 a 1.0001,1.0001 0 0 1 -0.0078,0.02539 c -0.101721,0.302217 -0.09546,0.496842 -0.03906,0.657227 0.01211,-0.05132 0.01924,-0.09834 0.03906,-0.157227 a 1.0001,1.0001 0 0 0 0.0078,-0.02539 l 1.819334,-5.913085 a 1.0001,1.0001 0 0 0 0.01074,-0.54394 z"/>
 <path style="opacity:0.1;fill:#8b9cbe" d="m 9.916992,2.5014265 c -1.2212475,0.03381 -2.30612,0.81138 -2.7304685,1.9570313 l -5,13.5000012 a 1.0001,1.0001 0 0 0 0,10e-4 c -0.1689655,0.456515 -0.2242743,0.922357 -0.1875,1.362304 0.022805,-0.285631 0.08135,-0.575505 0.1875,-0.862304 a 1.0001,1.0001 0 0 0 0,-10e-4 l 5,-13.5000012 C 7.610872,3.8128065 8.6957445,3.035237 9.916992,3.0014265 c 1.342475,-0.036977 2.55519,0.8336319 2.950196,2.1171875 L 13.465821,7.0639265 16.46582,4.2953719 C 17.540384,3.3053146 19.059625,3.3096855 20.097656,3.9633406 20.850964,4.4377037 21.398835,5.2897179 21.482422,6.254356 21.581125,5.0889974 20.979084,4.0183816 20.097656,3.4633406 19.059625,2.8096855 17.540384,2.8053146 16.46582,3.7953719 L 13.465821,6.5639265 12.867188,4.618614 C 12.472183,3.3350345 11.259467,2.4644499 9.916992,2.5014265 Z m 2.704102,12.9062515 c -0.05301,0.01045 -0.106851,0.01391 -0.160156,0.02149 l -0.820313,2.664062 c -0.146553,0.435413 -0.193546,0.876384 -0.157226,1.292968 0.01957,-0.262087 0.06813,-0.52826 0.157226,-0.792968 z"/>
 <path style="opacity:0.2" d="M 17.984375,1.4860856 A 1.0001,1.0001 0 0 0 17,2.4997575 v 2 h -2 a 1.0001,1.0001 0 1 0 0,2 h 2 v 2 a 1.0001,1.0001 0 1 0 2,0 v -2 h 2 a 1.0001,1.0001 0 1 0 0,-2 h -2 v -2 A 1.0001,1.0001 0 0 0 17.984375,1.4860856 Z"/>
 <path style="fill:none;stroke:#ffce51;stroke-width:2;stroke-linecap:round" d="M 17.99953,2 V 8 M 15,4.9999998 h 6 v 0 0"/>
 <path style="opacity:0.2;fill:#8b9cbe" d="M 17.984375 0.98632812 A 1.0001 1.0001 0 0 0 17 2 L 17 2.5 A 1.0001 1.0001 0 0 1 17.984375 1.4863281 A 1.0001 1.0001 0 0 1 19 2.5 L 19 2 A 1.0001 1.0001 0 0 0 17.984375 0.98632812 z M 15 4 A 1.0001 1.0001 0 0 0 14.019531 5.2460938 A 1.0001 1.0001 0 0 1 15 4.5 L 17 4.5 L 17 4 L 15 4 z M 19 4 L 19 4.5 L 21 4.5 A 1.0001 1.0001 0 0 1 21.980469 5.2539062 A 1.0001 1.0001 0 0 0 21 4 L 19 4 z"/>
</svg>
