<svg xmlns="http://www.w3.org/2000/svg" width="24" height="24" version="1.1">
 <circle style="opacity:0.2" cx="12" cy="12.5" r="10"/>
 <circle style="fill:#afd817" cx="12" cy="12" r="10"/>
 <path style="opacity:0.2;fill:#8b9cbe" d="M 12,2 A 10,10 0 0 0 2,12 10,10 0 0 0 2.01075,12.291 10,10 0 0 1 12,2.5 10,10 0 0 1 21.9895,12.209 10,10 0 0 0 22,12 10,10 0 0 0 12,2 Z"/>
 <path style="fill:#17191e" d="M 15.797852,5.991211 4.1425781,18.18164 A 10,10 0 0 0 5.5322265,19.625 L 17.24414,7.3740235 Z"/>
 <path style="opacity:0.1" transform="matrix(0.42454883,0.24511338,-0.24511338,0.42454883,28.536467,15.600023)" d="M -28.541582,-8.4892456 -25.808671,1.7101161 -36.008033,-1.022795 Z"/>
 <path style="fill:none;stroke:#17191e;stroke-width:2" d="M 7.666413,16.198496 C 7.5755415,15.931774 9.069293,14.406132 8.8856495,13.490713 8.383674,10.988507 7.5736845,10.411465 10.01699,8.249402"/>
 <path style="fill:none;stroke:#17191e;stroke-width:2" d="m 8.7247455,14.493898 c 0.2667235,0.09087 1.3907725,-0.867425 2.2392595,-0.817645 2.547682,0.149468 3.547773,1.111173 5.709835,-1.332137"/>
 <circle style="opacity:0.1" cx="10" cy="8.5" r="2"/>
 <circle style="fill:#4f4f4f" cx="10" cy="8" r="2"/>
 <rect style="opacity:0.1" width="3.182" height="3.182" x="19.27" y="-5.13" transform="rotate(45)"/>
 <rect style="fill:#4f4f4f" width="3.182" height="3.182" x="18.91" y="-5.48" transform="rotate(45)"/>
 <path style="fill:#4f4f4f" transform="matrix(0.42454883,0.24511338,-0.24511338,0.42454883,28.536467,15.100023)" d="M -28.541582,-8.4892456 -25.808671,1.7101161 -36.008033,-1.022795 Z"/>
</svg>
