<svg xmlns="http://www.w3.org/2000/svg" width="24" height="24" version="1">
 <circle style="opacity:0.2" cx="12" cy="12.5" r="10"/>
 <path style="opacity:0.1" d="m 11.361328,6.5011025 c -0.66563,0.014735 -1.309173,0.186129 -1.8867185,0.5341795 -1.155091,0.696102 -1.810336,1.957072 -1.9472655,3.396485 -0.13693,1.439413 0.2346,3.06812 1.1367185,4.5625 0.08884,0.147165 0.1836655,0.28767 0.279297,0.426758 -0.7985645,0.17829 -1.5365335,0.291916 -2.145508,0.307617 -0.8005155,0.02076 -1.9147985,-0.15567 -2.2333984,-0.905274 -0.2841498,-0.669075 0.7758294,-2.0281 0.7851564,-2.040039 -0.012215,0.01192 -1.4573225,1.423418 -1.3437501,2.308594 0.1574258,1.226029 1.6665541,1.421432 2.8574216,1.407226 0.592408,-0.0069 1.5052415,-0.164112 2.567383,-0.43457 0.78774,0.937682 1.730271,1.636234 2.711914,2.040039 1.325517,0.54526 2.735,0.552066 3.882812,-0.139648 1.147813,-0.691715 1.802181,-1.941787 1.944336,-3.371094 0.07264,-0.73038 0.0115,-1.50987 -0.18164,-2.296875 C 19.118628,11.268315 20.01005,10.110791 20,8.892704 19.98929,7.5574035 17.635742,7.4394585 17.635742,7.5186805 c 0,0 1.745049,0.447649 1.707031,1.3076175 -0.03937,0.889388 -0.74227,1.807067 -1.799804,2.673828 C 17.366892,11.012315 17.145054,10.527038 16.864258,10.054814 15.972096,8.554437 14.71282,7.4600325 13.38086,6.9053995 12.714879,6.628083 12.026958,6.486369 11.361328,6.5011025 Z m 0.0166,0.506836 c 0.585289,-0.01229 1.199036,0.113772 1.807618,0.3671875 1.217162,0.5068315 2.401301,1.5269535 3.24121,2.939453 0.296224,0.49817 0.525937,1.010925 0.697266,1.523438 -0.06412,0.04753 -0.137965,0.09252 -0.204102,0.139648 C 16.563984,10.276766 15.057119,9.000126 13.25,9.000126 c -2.071589,0 -3.75,1.677922 -3.75,3.75 0,0.578961 0.135152,1.124844 0.3691405,1.614258 A 1.25,1.25 0 0 0 9.5,15.250126 a 1.25,1.25 0 0 0 10e-4,0.04101 c -0.00734,0.0019 -0.01513,0.004 -0.02246,0.0059 C 9.347087,15.115866 9.219544,14.928588 9.1006105,14.731571 8.2513315,13.324721 7.908993,11.79682 8.034204,10.480595 8.1594155,9.1643685 8.74174,8.0708085 9.737329,7.470829 10.235123,7.1708395 10.792665,7.020226 11.377954,7.0079385 Z M 12.5791,10.981571 c 1.261818,0 2.315016,0.913563 2.521485,2.116211 -1.041058,0.560771 -2.174585,1.061426 -3.302735,1.473633 a 1.25,1.25 0 0 0 -1.679687,-0.398438 c -0.05359,-0.20665 -0.08496,-0.422433 -0.08496,-0.645507 0,-1.408683 1.137215,-2.545899 2.545898,-2.545899 z m 4.758789,1.641602 c 0.141888,0.663507 0.185177,1.314865 0.125,1.919922 -0.129942,1.306508 -0.71095,2.390171 -1.700195,2.986328 -0.989245,0.596156 -2.215929,0.602574 -3.426758,0.104492 -0.621072,-0.255482 -1.23306,-0.64614 -1.796875,-1.15332 a 1.25,1.25 0 0 0 1.09668,-0.34961 c 0.489414,0.233989 1.035297,0.369141 1.614258,0.369141 2.037154,0 3.689868,-1.622752 3.745116,-3.646485 0.115603,-0.07642 0.231766,-0.152343 0.342774,-0.230468 z m -2.234375,1.319336 c -0.200115,1.212648 -1.257261,2.145507 -2.524414,2.145507 -0.279488,0 -0.547487,-0.04617 -0.798828,-0.129882 a 1.25,1.25 0 0 0 0.21875,-0.686524 c 1.037167,-0.372922 2.098078,-0.821059 3.104492,-1.329101 z"/>
 <circle style="fill:#b2bfd9" cx="12" cy="12" r="10"/>
 <path style="opacity:0.1" d="m 11.361328,6.4996525 c -0.66563,0.014735 -1.309173,0.1871058 -1.8867186,0.5351562 -1.155091,0.6961016 -1.8103361,1.9570719 -1.9472656,3.3964843 -0.13693,1.439414 0.2346002,3.068121 1.1367187,4.562501 0.091485,0.151547 0.2021031,0.278898 0.3007813,0.421875 -0.8070468,0.181249 -1.5534704,0.296657 -2.1679688,0.3125 -0.8005155,0.02076 -1.913822,-0.154693 -2.2324219,-0.904297 -0.2828861,-0.666099 0.7626823,-2.013303 0.78125,-2.03711 -0.024221,0.02367 -1.4529351,1.423261 -1.3398437,2.304688 0.1574258,1.226029 1.6665544,1.422408 2.8574218,1.408203 0.5838916,-0.0069 1.5142865,-0.186054 2.5566407,-0.449219 0.7897681,0.943765 1.7368101,1.6472 2.7226561,2.052735 1.325518,0.545261 2.735002,0.553042 3.882813,-0.138672 1.147813,-0.691715 1.801204,-1.941786 1.943359,-3.371094 0.07287,-0.732651 0.01099,-1.51519 -0.183594,-2.304688 C 19.111905,11.261348 20.010033,10.108232 20,8.8922306 19.98929,7.5569301 17.634766,7.4399617 17.634766,7.5191837 c 0,0 1.747001,0.4466722 1.708984,1.3066407 C 19.30426,9.7179268 18.596214,10.638385 17.533203,11.507465 17.356749,11.017049 17.147515,10.529061 16.865234,10.05434 15.973072,8.5539635 14.712819,7.4605355 13.380859,6.9059025 12.714878,6.628586 12.026958,6.484919 11.361328,6.4996525 Z m 0.01563,0.5078125 c 0.585289,-0.01229 1.200012,0.113772 1.808594,0.3671875 1.217162,0.5068315 2.400325,1.5269536 3.240234,2.9394535 0.298678,0.502296 0.511874,1.018402 0.683594,1.535156 -0.05156,0.03811 -0.111207,0.07348 -0.164063,0.111329 C 16.680035,10.008129 15.025591,8.4996525 13,8.4996525 c -2.209695,0 -4,1.7897835 -4,4.0000005 0,1.02118 0.3943661,1.941812 1.023438,2.648438 -0.1764346,0.04984 -0.3532862,0.100592 -0.5253911,0.144531 C 9.363402,15.107824 9.2211911,14.933478 9.0996094,14.732075 8.2503304,13.325224 7.9079921,11.796347 8.0332031,10.480122 8.1584146,9.1638952 8.7407391,8.0703351 9.7363281,7.4703556 10.234123,7.1703661 10.791665,7.0197525 11.376953,7.007465 Z m 0.908203,3.605469 c 1.441774,0 2.618932,1.121251 2.712891,2.539063 -1.092181,0.580733 -2.283957,1.094414 -3.455078,1.509765 a 1,1 0 0 0 -1.396485,0.31836 C 9.7921256,14.51971 9.5683594,13.954692 9.5683594,13.329731 c 0,-1.502594 1.2142016,-2.716797 2.7167966,-2.716797 z m 5.046875,2.013672 c 0.140999,0.661741 0.190883,1.31251 0.13086,1.916016 -0.129942,1.306508 -0.711927,2.390171 -1.701172,2.986328 -0.989245,0.596156 -2.214953,0.601598 -3.425781,0.103515 -0.831065,-0.341863 -1.640254,-0.937695 -2.3437505,-1.720703 0.02794,-0.0078 0.05769,-0.01904 0.085937,-0.02734 a 1,1 0 0 0 1.576172,0.36914 c 0.420076,0.154346 0.870965,0.246094 1.345703,0.246094 2.081746,0 3.769324,-1.593648 3.960938,-3.625 0.125375,-0.0824 0.251054,-0.163649 0.371093,-0.248047 z m -2.421875,1.412109 c -0.315741,1.159298 -1.369082,2.021485 -2.625,2.021485 -0.148007,0 -0.292615,-0.01541 -0.433594,-0.03906 A 1,1 0 0 0 12,15.499653 a 1,1 0 0 0 -0.0332,-0.25 c 0.980536,-0.346655 1.976356,-0.733879 2.943359,-1.210938 z"/>
 <path style="fill:#474747" d="m 11.361328,6.0009765 c -0.66563,0.014735 -1.309173,0.186129 -1.8867185,0.5341795 -1.155091,0.6961015 -1.810336,1.957072 -1.9472655,3.3964845 -0.13693,1.4394135 0.2346,3.0681205 1.1367185,4.5625005 0.896417,1.484935 2.1529985,2.56509 3.4785155,3.110351 1.325518,0.545261 2.735001,0.552066 3.882812,-0.139648 1.147813,-0.691715 1.802181,-1.941786 1.944336,-3.371094 C 18.111881,12.664443 17.750781,11.045582 16.864258,9.5546875 15.972096,8.054311 14.71282,6.9599065 13.38086,6.4052735 12.714879,6.127957 12.026958,5.986243 11.361328,6.0009765 Z m 0.0166,0.506836 c 0.585289,-0.01229 1.199036,0.113772 1.807618,0.3671875 1.217162,0.5068315 2.401301,1.5269535 3.24121,2.939453 0.834576,1.403533 1.166075,2.922007 1.036133,4.228516 -0.129942,1.306508 -0.71095,2.390171 -1.700195,2.986328 -0.989245,0.596156 -2.215929,0.602574 -3.426758,0.104492 C 11.125108,16.635707 9.9444715,15.629364 9.1005845,14.231446 8.2513055,12.824595 7.908967,11.296694 8.034178,9.980469 8.1593895,8.664243 8.741714,7.5706825 9.737303,6.970703 10.235098,6.6707135 10.79264,6.5201 11.377928,6.5078125 Z"/>
 <path style="fill:#2a58ae" d="m 13,8 c -2.209695,0 -4,1.7897835 -4,4 0,2.210215 1.789785,4 4,4 2.210217,0 4,-1.789785 4,-4 0,-2.2102165 -1.789783,-4 -4,-4 z m -0.715424,2.113965 c 1.502595,0 2.731527,1.212804 2.731527,2.715398 0,1.502595 -1.228932,2.731528 -2.731527,2.731528 -1.502595,0 -2.715399,-1.228933 -2.715399,-2.731528 0,-1.502594 1.212804,-2.715398 2.715399,-2.715398 z"/>
 <path style="fill:#474747" d="m 5.3530345,12.279699 c 0,0 -1.4607405,1.423264 -1.3466871,2.312189 0.1574258,1.226029 1.6663576,1.421625 2.8572251,1.40742 2.887211,-0.03387 13.1704185,-3.476479 13.1363425,-7.6063045 -0.01071,-1.3353005 -2.3646,-1.4533135 -2.3646,-1.3740915 0,0 1.745606,0.446921 1.707589,1.3068895 C 19.201006,11.531287 10.611953,15.129953 6.797516,15.228297 5.9970005,15.249057 4.882704,15.073131 4.5641041,14.323527 4.2787029,13.651506 5.352304,12.2796 5.352304,12.2796 Z"/>
 <path style="opacity:0.2" d="m 16.999979,9.0078422 a 1.5,1.5 0 0 1 -2.999959,0 1.5,1.5 0 1 1 2.999959,0 z"/>
 <path style="fill:#d24646" d="m 16.999979,8.5077734 a 1.5,1.5 0 0 1 -2.999959,0 1.5,1.5 0 1 1 2.999959,0 z"/>
 <path style="fill:#606060" d="m 12,15 a 1,1 0 0 1 -2,0 1,1 0 1 1 2,0 z"/>
 <path style="opacity:0.2;fill:#8b9cbe;fill-rule:evenodd" d="M 12,2 A 10,10 0 0 0 2,12 10,10 0 0 0 2.0107422,12.291016 10,10 0 0 1 12,2.5 10,10 0 0 1 21.989258,12.208985 10,10 0 0 0 22,12 10,10 0 0 0 12,2 Z"/>
</svg>
