<svg xmlns="http://www.w3.org/2000/svg" width="24" height="24" version="1.1">
 <path style="opacity:0.2" d="m 9.5,3.4998268 0.2207031,0.011719 c 0,0 -1.4170513,-0.1932887 -3.0058593,0.2480468 C 5.9204397,3.9802602 5.0111723,4.3781163 4.2519531,5.1795143 3.492734,5.9809123 3,7.1962598 3,8.4998268 3,11.10696 4.8594319,12.85344 6.3554688,13.601388 c 1.4960368,0.747949 2.9238281,0.886719 2.9238281,0.886719 A 2.0002,2.0002 0 0 0 9.5,14.499826 l 2.5,0 a 2.0002,2.0002 0 0 0 0.355469,-0.0293 l 2.173828,0 c 0,0 0.7647,0.02715 1.4375,0.326172 0.6728,0.299024 1.0625,0.423839 1.0625,1.673828 0,0.446425 -0.07172,0.479137 -0.15625,0.568359 -0.08453,0.08922 -0.300269,0.224576 -0.630859,0.316407 C 15.581007,17.538956 14.75,17.482248 14.75,17.482248 a 2.0002,2.0002 0 0 0 -0.220703,-0.01172 l -7.529297,0 a 2.0002,2.0002 0 1 0 0,4 l 7.529297,0 -0.222656,-0.01367 c 0,0 1.419004,0.193289 3.007812,-0.248047 0.794404,-0.220667 1.703672,-0.61657 2.462891,-1.417968 0.759219,-0.801398 1.251953,-2.016746 1.251953,-3.320313 0,-2.749989 -1.862265,-4.627148 -3.439453,-5.328125 -1.577189,-0.700977 -3.060547,-0.671875 -3.060547,-0.671875 l -2.5,0 a 2.0002,2.0002 0 0 0 -0.371094,0.0293 l -1.9746092,0 C 9.6461994,10.494605 8.8807018,10.391315 8.1445312,10.023264 7.3905795,9.6463239 7,9.3926749 7,8.4998268 7,8.0534027 7.0697703,8.0187368 7.1542969,7.9295143 7.2388234,7.8402918 7.454566,7.7068918 7.7851562,7.6150612 8.4463368,7.4313999 9.2792969,7.488108 9.2792969,7.488108 A 2.0002,2.0002 0 0 0 9.5,7.4998268 l 7.5,0 a 2.0002,2.0002 0 1 0 0,-4 l -7.5,0 z"/>
 <path style="fill:none;stroke:#5e983c;stroke-width:4;stroke-linecap:round;stroke-linejoin:round" d="m 12.028439,11.970017 2.499987,0 c 0,0 4.499977,1.1e-5 4.499977,3.99999 0,3.499983 -4.499977,2.999985 -4.499977,2.999985 l -7.5284464,0 m 4.9999744,-6.97015 -2.4999871,0 c 0,0 -4.4999771,-0.499786 -4.4999771,-3.999768 0,-3.4999821 4.4999771,-2.9999847 4.4999771,-2.9999847 l 7.4999621,0"/>
 <path style="opacity:0.1;fill:#8b9cbe" d="M 8.8144531 2.9707031 C 8.2615893 2.9775479 7.5092478 3.0390979 6.7148438 3.2597656 C 5.9204397 3.4804332 5.0111723 3.8782895 4.2519531 4.6796875 C 3.492734 5.4810855 3 6.696433 3 8 C 3 8.088914 3.0172472 8.1689529 3.0214844 8.2558594 C 3.0794448 7.0471699 3.5411367 5.9299938 4.2519531 5.1796875 C 5.0111723 4.3782895 5.9204397 3.9804332 6.7148438 3.7597656 C 8.3036518 3.3184301 9.7207031 3.5117188 9.7207031 3.5117188 L 9.5 3.5 L 17 3.5 A 2.0002 2.0002 0 0 1 19.011719 5.2441406 A 2.0002 2.0002 0 0 0 17 3 L 9.5 3 L 9.7207031 3.0117188 C 9.7207031 3.0117188 9.3673169 2.9638584 8.8144531 2.9707031 z M 7.0292969 8.2265625 C 7.0164034 8.3007086 7 8.3546501 7 8.5 C 7 9.3928481 7.3905796 9.6464968 8.1445312 10.023438 C 8.8807019 10.391488 9.6461993 10.494775 9.6835938 10.5 L 11.658203 10.5 A 2.0002 2.0002 0 0 1 12.029297 10.470703 L 14.529297 10.470703 C 14.529297 10.470703 16.012655 10.441601 17.589844 11.142578 C 19.115323 11.820574 20.891939 13.606778 21.007812 16.210938 C 21.011651 16.129762 21.029297 16.052656 21.029297 15.970703 C 21.029297 13.220714 19.167032 11.343555 17.589844 10.642578 C 16.012655 9.9416008 14.529297 9.9707031 14.529297 9.9707031 L 12.029297 9.9707031 A 2.0002 2.0002 0 0 0 11.658203 10 L 9.6835938 10 C 9.6461993 9.9947785 8.8807019 9.8914882 8.1445312 9.5234375 C 7.4665063 9.1844569 7.0997933 8.920674 7.0292969 8.2265625 z M 17.003906 16.203125 C 16.978405 16.385639 16.934082 16.47464 16.873047 16.539062 C 16.788517 16.628283 16.572778 16.763638 16.242188 16.855469 C 15.581007 17.039133 14.75 16.982422 14.75 16.982422 A 2.0002 2.0002 0 0 0 14.529297 16.970703 L 7 16.970703 A 2.0002 2.0002 0 0 0 4.9882812 19.226562 A 2.0002 2.0002 0 0 1 7 17.470703 L 14.529297 17.470703 A 2.0002 2.0002 0 0 1 14.75 17.482422 C 14.75 17.482422 15.581007 17.539133 16.242188 17.355469 C 16.572778 17.263638 16.788517 17.128283 16.873047 17.039062 C 16.957577 16.949841 17.029297 16.917128 17.029297 16.470703 C 17.029297 16.358651 17.010093 16.29803 17.003906 16.203125 z"/>
 <path style="fill:#97ca79;fill-rule:evenodd" d="m 11.985306,1.0002168 c -0.551897,0.00808 -0.992897,0.4611467 -0.985347,1.0123159 l 0,7.9874673 1.99999,0 0,-7.9874673 C 13.007655,1.449906 12.548676,0.99197903 11.985306,1.0002168 Z M 10.999959,14 l 0,7.987 c -0.01912,1.350504 2.019105,1.350504 1.99999,0 l 0,-7.987 z"/>
 <rect style="opacity:0.2" width="2" height=".5" x="11" y="14"/>
 <path style="opacity:0.2;fill:#8b9cbe;fill-rule:evenodd" d="M 11.984375,1 C 11.432478,1.00808 10.99245,1.4605495 11,2.0117188 l 0,0.5 C 10.99245,1.9605496 11.432478,1.50808 11.984375,1.5 12.547745,1.4917622 13.007706,1.9490921 13,2.5117188 l 0,-0.5 C 13.007706,1.449092 12.547745,0.99176223 11.984375,1 Z"/>
</svg>
