<svg xmlns="http://www.w3.org/2000/svg" width="24" height="24" version="1.1">
 <rect style="opacity:0.2" width="20" height="20" x="2" y="2.5" rx="1" ry="1"/>
 <rect style="fill:#009e70" width="20" height="20" x="2" y="2" rx="1" ry="1"/>
 <path style="opacity:0.2;fill:#8b9cbe" d="M 3,2 C 2.446,2 2,2.446 2,3 v 0.5 c 0,-0.554 0.446,-1 1,-1 h 18 c 0.554,0 1,0.446 1,1 V 3 C 22,2.446 21.554,2 21,2 Z"/>
 <path style="opacity:0.2" d="m 10,4.5 v 1 H 9 v 2 h 1 V 8 8.5 h 1 v 4 h -1 v -1 -2 H 9 v -1 H 8 v -1 H 6 v 1 H 5 v 2 h 1 2 v 1 H 6 v 1 H 5 v 2 h 1 2 v 1 1 1 h 1 v 0.5 1 0.5 1 h 1 2 2 1 v -1 -0.5 -1 -0.5 h 1 v -1 -1 -1 h 2 1 v -2 h -1 v -1 h -2 v -1 h 2 1 v -2 h -1 v -1 h -2 v 1 h -1 v 1 h -1 v 2 1 h -1 v -4 h 1 V 8 7.5 h 1 v -2 h -1 v -1 h -1 v 1 h -1 -1 v -1 z m 4,10 v 3 h -4 v -3 z"/>
 <path style="fill:#8b9cbe" d="M 10,4 V 5 H 9 v 2 h 1 V 7.5 8 h 1 v 4 H 10 V 11 9 H 9 V 8 H 8 V 7 H 6 V 8 H 5 v 2 h 1 2 v 1 H 6 v 1 H 5 v 2 h 1 2 v 1 1 1 h 1 v 0.5 1 0.5 1 h 1 2 2 1 v -1 -0.5 -1 -0.5 h 1 v -1 -1 -1 h 2 1 v -2 h -1 v -1 h -2 v -1 h 2 1 V 8 H 18 V 7 h -2 v 1 h -1 v 1 h -1 v 2 1 H 13 V 8 h 1 V 7.5 7 h 1 V 5 H 14 V 4 H 13 V 5 H 12 11 V 4 Z m 4,10 v 3 h -4 v -3 z"/>
</svg>
