<svg xmlns="http://www.w3.org/2000/svg" width="24" height="24" version="1">
 <circle style="opacity:0.2" cx="18.25" cy="16.75" r="4.75"/>
 <circle style="fill:#fcbd1e" cx="18.25" cy="16.25" r="4.75"/>
 <rect style="opacity:0.2" width="19" height="19" x="1" y="2.5" rx="9.5" ry="9.5"/>
 <rect style="fill:#ff7000" width="19" height="19" x="1" y="2" rx="9.5" ry="9.5"/>
 <path style="opacity:0.2" d="m 8.1477981,4.5363515 c -0.03257,0.5113125 -0.070538,1.242102 -0.100586,2.0595705 -0.9929215,0.005 -1.981302,-0.02095 -2.957031,-0.088868 L 4.9505326,8.502172 c 1.011143,0.070379 2.030703,0.098415 3.0517575,0.094727 -0.00355,0.585967 0.00115,1.190153 0.018555,1.802735 -1.2388015,0.498095 -2.4388515,1.32979 -3.2402345,2.348632 -0.4409851,0.560648 -0.7930513,1.205253 -0.7802735,1.982422 0.012778,0.777168 0.5327555,1.55355 1.2841795,1.977538 1.204764,0.679783 2.5735435,0.445653 3.6982425,-0.138672 0.04673,0.107162 0.089146,0.219468 0.140625,0.321289 L 10.90854,15.9885 c -0.08224,-0.162671 -0.157302,-0.372816 -0.229492,-0.601562 0.53165,-0.462716 1.030466,-0.97814 1.496094,-1.504883 0.611264,-0.691496 1.046413,-1.33157 1.510742,-1.976563 0.262135,0.102204 0.593794,0.15547 0.766602,0.316407 0.323997,0.301742 0.557015,0.71592 0.599609,1.526367 0.01984,0.377513 -0.114463,0.638375 -0.483398,0.977539 -0.368936,0.339163 -0.968321,0.666437 -1.602539,0.913085 -1.268438,0.493298 -2.604493,0.680664 -2.604493,0.680664 L 10.62729,18.301 c 0,0 1.517367,-0.196187 3.064453,-0.797852 0.773544,-0.300832 1.571658,-0.69904 2.230469,-1.304687 0.658811,-0.605648 1.181981,-1.508644 1.126953,-2.555664 -0.0637,-1.212027 -0.516927,-2.217509 -1.233399,-2.884766 -0.274635,-0.25577 -0.594808,-0.419548 -0.914062,-0.581054 0.107948,-0.177168 0.369141,-0.582032 0.369141,-0.582032 L 13.540376,8.592992 c 0,0 -0.316882,0.511874 -0.676758,1.063477 -0.98316,-0.080366 -1.969096,0.0097 -2.849609,0.176758 -0.0074,-0.4358415 -0.01389,-0.866645 -0.01074,-1.2880865 C 12.037271,8.4510075 14.061016,8.234631 16.020848,7.92307 L 15.706394,5.947484 c -1.84783,0.293756 -3.750414,0.4987945 -5.654296,0.5927735 0.02847,-0.73903 0.06186,-1.407035 0.0918,-1.876953 z m 3.2001949,7.1416015 c -0.242716,0.307348 -0.404261,0.576168 -0.671875,0.878906 -0.148809,0.168342 -0.30377,0.329464 -0.458007,0.490235 -0.04648,-0.378917 -0.08186,-0.774184 -0.113282,-1.177735 0.392662,-0.07915 0.816194,-0.143932 1.243164,-0.191406 z m -3.2138669,0.889649 c 0.057314,0.701515 0.1401825,1.382965 0.2626955,2.02539 -0.083939,0.05294 -0.1710195,0.117929 -0.25293,0.163086 -0.805084,0.443848 -1.345848,0.510612 -1.876953,0.210938 -0.323754,-0.182677 -0.2652835,-0.188388 -0.2666015,-0.268555 -0.0013,-0.08017 0.080218,-0.367651 0.352539,-0.713867 0.37974,-0.482784 1.070573,-1.020696 1.78125,-1.416992 z"/>
 <path style="fill:none;stroke:#b2bfd9;stroke-width:2" d="m 14.40534,8.594203 c 0,0 -5.0688234,8.752747 -8.6295554,6.743618 -2.1503561,-1.213331 0.6109775,-3.831626 2.945114,-4.636618 2.2644814,-0.780968 7.1173544,-1.5502295 7.3299424,2.494716 0.149736,2.849069 -5.556181,3.614458 -5.556181,3.614458"/>
 <path style="fill:none;stroke:#b2bfd9;stroke-width:2" d="m 9.1461021,4.100203 c -0.15413,2.4196 -0.4676035,9.19408 0.8701469,11.840027"/>
 <path style="fill:none;stroke:#b2bfd9;stroke-width:2" d="M 5.0204211,7.004487 C 8.6124046,7.2545045 12.339282,6.995847 15.863794,6.435544"/>
 <circle style="opacity:0.2" cx="16.5" cy="20" r="2.5"/>
 <circle style="fill:#b2bfd9" cx="16.5" cy="19.5" r="2.5"/>
 <path style="opacity:0.2;fill:#8b9cbe" d="M 10.5,2 C 5.237,2 1,6.237 1,11.5 1,11.58446 1.010526,11.666078 1.012695,11.75 1.1456952,6.604681 5.321464,2.5 10.5,2.5 c 5.178536,0 9.354305,4.104681 9.487304,9.25 C 19.989474,11.666078 20,11.584464 20,11.5 20,6.237 15.763,2 10.5,2 Z"/>
</svg>
