<svg xmlns="http://www.w3.org/2000/svg" width="24" height="24" version="1">
 <circle style="opacity:.2" cx="12" cy="12.5" r="10"/>
 <circle style="fill:#8d348e" cx="12" cy="12" r="10"/>
 <circle style="opacity:.3" cx="13" cy="11" r="7"/>
 <circle style="opacity:.2" cx="12" cy="12.5" r="5"/>
 <circle style="fill:#8b9cbe" cx="12" cy="12" r="5"/>
 <path style="fill:#691f69" transform="matrix(.5051815 0 0 .5 .78204032 -.32912823)" d="m27.154517 24.658257-3.464101 2-3.464102 1.999999v-4-3.999999l3.464102 2z"/>
 <path style="fill:#8b9cbe;opacity:.1" d="M 12,2 A 10,10 0 0 0 2,12 10,10 0 0 0 2.0107422,12.291016 10,10 0 0 1 12,2.5 10,10 0 0 1 21.989258,12.208985 10,10 0 0 0 22,12 10,10 0 0 0 12,2 Z"/>
</svg>
