<svg xmlns="http://www.w3.org/2000/svg" width="24" height="24" version="1.1">
 <path style="opacity:0.2" d="m 1.99996,12.5 c 0,5.526525 4.481394,10 10,10 5.518605,0 10,-4.473475 10,-10 0,-5.526524 -4.473475,-10 -10,-10 -5.526524,0 -10,4.473476 -10,10 z"/>
 <path style="fill:#1e3854" d="m 1.99996,12 c 0,5.526525 4.481394,10 10,10 5.518605,0 10,-4.473475 10,-10 0,-5.526524 -4.473475,-10 -10,-10 -5.526524,0 -10,4.473476 -10,10 z"/>
 <path style="opacity:0.2" d="m 13.302694,5.612897 c -0.508683,-0.0198 -0.825958,0.137443 -1.1875,0.394532 -0.283236,0.19483 -0.321516,0.441719 -0.550781,0.5625 -0.07748,-0.03131 -0.15501,-0.04687 -0.240234,-0.04687 -0.418373,0 -0.958976,0.50867 -1.191407,1.048828 C 9.970073,7.963306 9.938434,8.127875 10.054652,8.44884 9.450335,8.581924 8.094637,8.41759 7.738245,8.41759 c 0.02325,0.01566 0.05299,0.03123 0.08398,0.04687 l 2.488281,1.439453 0.02148,0.02344 c 0.736027,0.657583 1.421252,1.404851 2.513672,2.093749 0.68179,0.438389 3.12988,1.205018 3.246094,1.236328 -0.29441,-0.735866 0.495956,-1.705666 0.712891,-2.378906 0.263435,-0.82198 0.35679,-2.023724 0.04687,-2.845703 -0.42724,-1.128665 -1.676909,-2.048695 -2.96875,-2.33789 -0.220886,-0.04863 -0.410517,-0.07543 -0.580078,-0.08203 z m -1.765625,1.136719 c 0.07678,0 0.168233,0.01621 0.257813,0.05664 0.240065,0.101537 0.387153,0.334618 0.433594,0.599609 0.05437,0.301044 0.01068,0.638055 -0.144532,0.955078 -0.228154,0.500684 -0.642648,0.888672 -1.125,0.888672 -0.07972,0 -0.15914,-0.01017 -0.240234,-0.04102 -0.224833,-0.08553 -0.33375,-0.273794 -0.384766,-0.40625 -0.143948,-0.34778 -0.09965,-0.769132 0.07422,-1.158204 l 0.002,-0.002 v -0.0039 C 10.645456,7.142207 11.053139,6.749569 11.537117,6.749569 Z M 5.160116,8.525007 c -0.0022,-0.02271 -0.0095,-0.0131 -0.02344,0.04883 L 4.906207,9.552353 C 3.973211,9.148293 3.690888,10.707757 4.540973,10.823837 l -0.533203,1.09375 0.74414,-1.048828 c 0.0023,0.366756 -0.06953,1.427745 -0.02539,1.40039 0.06293,-0.341463 0.124572,-0.683927 0.1875,-1.02539 0.772493,1.570664 1.747708,2.724206 3.226562,3.71875 0.675995,0.548632 1.715197,0.358394 2.494141,0.103515 0.708807,-0.238052 1.326045,-0.790142 1.970703,-1.080078 0.188559,0.125975 0.376226,0.254365 0.564453,0.38086 -0.286996,-0.0474 -0.630454,-0.29899 -0.791016,0.0918 -1.031227,1.018114 -2.771911,1.499258 -4.068359,0.699219 -0.981039,0.285586 0.306926,0.986666 0.0039,1.521485 -0.134959,0.626181 -0.381429,0.62539 -0.882812,1.048828 -0.70266,0.473699 0.01253,1.026 0.445312,1.371093 2.046515,1.621929 4.993045,1.770641 7.353516,0.789063 0.873505,-0.371729 1.686244,-0.926822 2.269531,-1.683594 -0.212246,-0.730575 -0.783051,-0.300252 -1.066406,-1.005859 -0.116305,-0.212452 0.51017,0.175711 0.144531,-0.212891 -0.119862,-0.280781 -0.7179,-0.899167 -0.08594,-0.724609 -0.258653,-0.30628 -0.688997,-0.726032 -0.05469,-0.673828 0.06086,-0.148204 -0.922703,-0.893097 -0.236328,-0.679688 0.396719,0.132822 0.199235,-0.07565 0.02148,-0.273437 -0.05687,-0.13765 -0.497437,-0.456835 -0.259765,-0.455078 0.376822,0.07996 -0.02808,-0.25408 -0.08594,-0.404297 -0.344182,-0.330437 -0.943092,-0.31398 -1.378906,-0.53125 -1.737994,-0.554488 -3.115221,-1.817656 -4.478516,-2.970703 L 8.558534,9.603138 C 7.527596,9.531988 6.479047,9.4423 5.456971,9.646108 L 5.984315,8.737904 5.177674,9.71642 C 5.024349,9.561791 5.169274,9.250495 5.136654,9.032826 5.132254,8.949576 5.166584,8.593137 5.160094,8.525014 Z"/>
 <path style="fill:#d0933a" d="m 4.008009,11.417429 0.743774,-1.049003 c 0.0023,0.366756 -0.07022,1.427504 -0.02608,1.400149 0.06293,-0.341463 0.125854,-0.682924 0.188781,-1.024387 0.772494,1.570664 1.747461,2.723914 3.226315,3.718458 0.675995,0.548632 1.715798,0.358557 2.494742,0.103678 0.708807,-0.238052 1.324347,-0.789483 1.969005,-1.079419 0.188559,0.125975 0.376255,0.253301 0.564482,0.379795 -0.286996,-0.0474 -0.628973,-0.298806 -0.789535,0.09198 -1.031227,1.018114 -2.771792,1.498726 -4.06824,0.698687 -0.981039,0.285586 0.30702,0.986577 0.004,1.521396 -0.134959,0.626181 -0.382085,0.62574 -0.883468,1.049178 -0.70266,0.473699 0.0133,1.026981 0.446085,1.372074 2.046515,1.621929 4.992845,1.770635 7.353316,0.789057 0.873505,-0.371729 1.685473,-0.927609 2.26876,-1.684381 -0.212246,-0.730575 -0.782615,-0.299122 -1.06597,-1.004729 -0.116305,-0.212452 0.510702,0.174757 0.145063,-0.213845 -0.119862,-0.280781 -0.718252,-0.898495 -0.08629,-0.723937 -0.258653,-0.30628 -0.690149,-0.726685 -0.05584,-0.674481 0.06086,-0.148204 -0.922956,-0.89229 -0.236581,-0.678881 0.396719,0.132822 0.200701,-0.07547 0.02295,-0.273257 -0.05687,-0.13765 -0.498661,-0.457488 -0.260989,-0.455731 0.376822,0.07996 -0.02679,-0.25334 -0.08465,-0.403557 C 15.533457,12.945836 14.933901,12.961977 14.498087,12.744707 12.760093,12.190219 11.383635,10.926521 10.02034,9.773474 L 8.559159,9.10342 C 7.528221,9.03227 6.478883,8.943333 5.456807,9.14714 L 5.983645,8.239049 5.177892,9.217596 C 5.024567,9.062967 5.169492,8.750909 5.136832,8.53324 5.130932,8.422241 5.192282,7.826947 5.136637,8.074665 L 4.906718,9.0532 C 3.973722,8.64914 3.691531,10.207732 4.541616,10.323812 l -0.533623,1.093612 z"/>
 <path style="opacity:0.2" d="m 11.535116,6.999443 c -0.320749,0 -0.693514,0.313929 -0.898437,0.746094 -0.151465,0.338955 -0.179177,0.712581 -0.07227,0.966797 0.03564,0.09321 0.108543,0.210876 0.242188,0.261719 0.04455,0.01695 0.09693,0.02539 0.15039,0.02539 0.320749,0 0.704378,-0.313927 0.900391,-0.746093 0.133649,-0.271164 0.16955,-0.558947 0.125,-0.804688 -0.03564,-0.203373 -0.142601,-0.356697 -0.285156,-0.416015 -0.05346,-0.02542 -0.108654,-0.0332 -0.16211,-0.0332 z M 4.650351,9.481865 c -0.356392,0 -0.642578,0.290286 -0.642578,0.650391 0,0.313136 0.22512,0.579951 0.519531,0.642578 h 0.01563 C 4.736625,10.712204 5.124447,10.18761 5.062465,9.858818 5.039215,9.741394 4.983685,9.632447 4.906215,9.538506 4.828735,9.507186 4.735581,9.481866 4.650356,9.481866 Z"/>
 <path style="fill:#fdd321" d="m 12.114914,5.507029 c -0.283236,0.19483 -0.321072,0.442052 -0.550337,0.562833 -0.07748,-0.03131 -0.15501,-0.04687 -0.240234,-0.04687 -0.418373,0 -0.960117,0.510022 -1.192547,1.05018 -0.1627,0.391419 -0.193363,0.555989 -0.07715,0.876954 -0.604317,0.133084 -1.960015,-0.03125 -2.316407,-0.03125 0.02325,0.01566 0.05397,0.03122 0.08496,0.04687 l 2.487305,1.439453 0.02246,0.02344 c 0.736027,0.657584 1.419649,1.403193 2.512069,2.092091 0.68179,0.438389 3.129879,1.205995 3.246093,1.237305 -0.29441,-0.735867 0.495956,-1.706643 0.712891,-2.379883 0.263435,-0.82198 0.356785,-2.02254 0.04687,-2.844519 C 16.423646,6.404968 15.175346,5.483701 13.883506,5.194506 12.99996,5 12.59697,5.164244 12.114914,5.507029 Z m -0.578821,0.742896 c 0.07678,0 0.169209,0.01621 0.258789,0.05664 0.240065,0.101537 0.387153,0.334618 0.433594,0.599609 0.05437,0.301044 0.0097,0.638055 -0.145508,0.955078 -0.228154,0.500684 -0.642648,0.888672 -1.125,0.888672 -0.07972,0 -0.15914,-0.01017 -0.240234,-0.04102 -0.224833,-0.08553 -0.33375,-0.272817 -0.384766,-0.405273 -0.143948,-0.34778 -0.09867,-0.770108 0.0752,-1.15918 l 0.0019,-0.002 10e-4,-0.003 C 10.64636,6.643417 11.052115,6.249925 11.536093,6.249925 Z"/>
 <path style="fill:#ffcc86" d="m 4.906735,9.037953 c -0.07748,-0.03132 -0.170447,-0.0548 -0.255672,-0.0548 -0.356392,0 -0.643055,0.289649 -0.643055,0.649755 0,0.313135 0.224682,0.5793 0.519093,0.641926 h 0.0155 C 4.736292,10.212204 5.123675,9.687706 5.061693,9.358914 5.038443,9.24149 4.984213,9.131892 4.90674,9.037951 Z"/>
 <path style="fill:#8b9cbe" d="m 11.535904,6.499925 c -0.320749,0 -0.694629,0.314134 -0.899552,0.7463 -0.151465,0.338954 -0.178791,0.711958 -0.07188,0.966174 0.03564,0.09321 0.107808,0.211313 0.241453,0.262156 0.04455,0.01695 0.09815,0.02537 0.15161,0.02537 0.320749,0 0.703538,-0.313077 0.899551,-0.745243 0.133649,-0.271164 0.169207,-0.559756 0.124657,-0.805497 -0.03564,-0.203373 -0.142696,-0.356116 -0.285251,-0.415433 -0.05346,-0.02542 -0.107137,-0.03383 -0.160593,-0.03383 z"/>
 <path style="opacity:0.1;fill:#8b9cbe" d="m 11.99996,2 c -5.526524,0 -10,4.473476 -10,10 0,0.08389 0.0038,0.166606 0.0059,0.25 C 2.138835,6.839629 6.557367,2.5 12,2.5 c 5.442634,0 9.861166,4.339629 9.994141,9.75 0.0021,-0.08339 0.0059,-0.166108 0.0059,-0.25 0,-5.526524 -4.473475,-10 -10,-10 z"/>
 <path style="opacity:0.2;fill:#8b9cbe" d="m 13.302694,5.113281 c -0.508683,-0.0198 -0.825958,0.137443 -1.1875,0.394532 -0.283236,0.194829 -0.321516,0.441719 -0.550781,0.5625 -0.07748,-0.03131 -0.15501,-0.04687 -0.240234,-0.04687 -0.418373,0 -0.958976,0.50867 -1.191407,1.048828 -0.150287,0.361558 -0.182303,0.534048 -0.0957,0.810547 0.02448,-0.09435 0.0414,-0.179902 0.0957,-0.310547 0.07438,-0.172856 0.185201,-0.33556 0.308594,-0.486328 C 10.680178,6.616624 11.071421,6.25 11.537069,6.25 c 0.07678,0 0.168233,0.01621 0.257813,0.05664 0.008,0.0034 0.01366,0.01 0.02148,0.01367 0.07455,-0.10241 0.155076,-0.213617 0.298828,-0.3125 0.361542,-0.257089 0.678817,-0.414331 1.1875,-0.394531 0.169561,0.0066 0.359193,0.0334 0.580078,0.08203 1.291842,0.289195 2.541511,1.209225 2.96875,2.33789 0.118245,0.313613 0.161993,0.686368 0.175782,1.06836 0.03436,-0.554491 -0.0056,-1.11711 -0.175782,-1.56836 -0.42724,-1.128665 -1.676909,-2.048695 -2.96875,-2.33789 -0.220886,-0.04863 -0.410517,-0.07543 -0.580078,-0.08203 z m -1.076172,2.289063 c -0.0249,0.153231 -0.06904,0.308775 -0.142578,0.458984 C 11.85579,8.362012 11.441296,8.75 10.958944,8.75 10.879224,8.75 10.799804,8.73983 10.71871,8.70898 10.493877,8.62345 10.38496,8.435186 10.333944,8.30273 c -0.02774,-0.06702 -0.04246,-0.139208 -0.05664,-0.210937 -0.04216,0.248026 -0.03298,0.494403 0.05664,0.710937 0.05102,0.132456 0.159933,0.32072 0.384766,0.40625 0.08109,0.03085 0.160514,0.04102 0.240234,0.04102 0.482352,0 0.896846,-0.387988 1.125,-0.888672 0.155212,-0.317023 0.198902,-0.654034 0.144532,-0.955078 -2.6e-4,-0.0015 -0.0017,-0.0024 -0.002,-0.0039 z M 7.738241,7.917969 c 0.02325,0.01566 0.05299,0.03122 0.08398,0.04687 l 0.884766,0.511719 c 0.492282,0.0294 1.01833,0.04518 1.347657,-0.02734 C 9.986064,8.259811 9.982684,8.112362 10.013624,7.953124 9.39409,8.073367 8.08817,7.917964 7.738233,7.917964 Z M 5.160116,8.025391 c -0.0022,-0.02271 -0.0095,-0.0131 -0.02344,0.04883 L 4.906207,9.052736 C 4.249149,8.768179 3.92537,9.452636 4.081988,9.925783 4.185253,9.605763 4.471169,9.364331 4.906207,9.552736 L 5.13277,8.591799 C 5.13219,8.573269 5.13927,8.550659 5.13667,8.533209 5.13227,8.449959 5.1666,8.09352 5.16011,8.025396 Z m 0.824219,0.21289 -0.806641,0.978516 c -0.02713,-0.02737 -0.03579,-0.06382 -0.04687,-0.09961 -0.0017,0.208768 -0.08882,0.462759 0.04687,0.599609 L 5.671835,9.117187 c -0.07142,0.01145 -0.143666,0.0151 -0.214844,0.0293 z m 1.019531,0.783203 c -0.413006,-0.0046 -0.8236,0.02343 -1.232422,0.08203 L 5.456991,9.646483 C 6.479067,9.442675 7.527616,9.532365 8.558554,9.603513 l 1.460937,0.669923 c 1.363295,1.153047 2.740522,2.416215 4.478516,2.970703 0.435814,0.21727 1.034724,0.200813 1.378906,0.53125 0.05786,0.150217 0.46276,0.484256 0.08594,0.404297 -0.128676,-9.52e-4 -0.06135,0.09176 0.03906,0.199218 0.0358,-0.008 0.09085,-0.0044 0.199219,0.0293 0.396719,0.132822 0.199235,-0.07565 0.02148,-0.273437 -0.05687,-0.13765 -0.497437,-0.456836 -0.259765,-0.455078 0.376822,0.07996 -0.02808,-0.25408 -0.08594,-0.404297 -0.08263,-0.07933 -0.180896,-0.136217 -0.287109,-0.183594 -0.118132,-0.03753 -0.23538,-0.0776 -0.408203,-0.134766 -0.234717,-0.05956 -0.477629,-0.110209 -0.683594,-0.21289 -0.282172,-0.09002 -0.551769,-0.204245 -0.816406,-0.328125 C 13.331787,12.274421 13.02526,12.136962 12.845663,12.021482 12.299453,11.677033 11.8549,11.318016 11.455038,10.962889 10.967724,10.572887 10.489302,10.170792 10.019491,9.773436 L 8.558554,9.103514 C 8.043085,9.067934 7.52263,9.027324 7.003866,9.021484 Z m -2.667968,1.722657 -0.328125,0.673828 0.445312,-0.628907 c -0.04133,-0.01249 -0.0824,-0.02523 -0.117187,-0.04492 z m 0.416015,0.125 -0.01758,0.02539 c -0.01438,0.354501 -0.01821,0.616741 -0.0078,0.738281 0.01167,-0.284001 0.02643,-0.59847 0.02539,-0.763671 z m 11.310547,1.757812 c -0.0079,0.03879 -0.01274,0.07691 -0.01758,0.115235 0.0032,9.23e-4 0.04494,0.0151 0.04687,0.01562 -0.01691,-0.04225 -0.01923,-0.08716 -0.0293,-0.130859 z m -3.457031,1.359375 c -0.644658,0.289936 -1.261896,0.842026 -1.970703,1.080078 -0.778944,0.254879 -1.818146,0.445117 -2.494141,-0.103515 -0.05222,-0.03512 -0.09356,-0.07385 -0.144531,-0.109375 -0.08464,0.122537 -0.04623,0.270182 0.04297,0.43164 0.0593,-0.04838 0.147094,-0.09074 0.271484,-0.126953 1.296448,0.800039 3.037132,0.318895 4.068359,-0.699219 0.160562,-0.39079 0.50402,-0.139196 0.791016,-0.0918 -0.188227,-0.126495 -0.375894,-0.254885 -0.564453,-0.38086 z m 3.412109,0.882813 c -0.13039,7.83e-4 -0.02767,0.136453 0.109375,0.291015 0.02988,-0.05593 0.115934,-0.08828 0.310547,-0.07226 0.01116,-0.02718 -0.03578,-0.08877 -0.07813,-0.146485 -0.0367,-0.0018 -0.07787,-0.0063 -0.158203,-0.0332 -0.0858,-0.02668 -0.144681,-0.0393 -0.183594,-0.03906 z m 0.326172,0.71875 c -0.368439,0.0029 -0.227704,0.230491 -0.02734,0.46875 -0.13597,-0.220401 -0.201428,-0.399113 0.175782,-0.294922 -0.04639,-0.05493 -0.09813,-0.114973 -0.148438,-0.173828 z m -0.03516,0.642578 c -0.307257,0.0053 0.164652,0.510176 0.269531,0.755859 0.365639,0.388602 -0.260836,4.39e-4 -0.144531,0.212891 0.226154,0.563166 0.632555,0.409645 0.896484,0.693359 0.0552,-0.06394 0.118209,-0.120406 0.169922,-0.1875 -0.212246,-0.730575 -0.783051,-0.300252 -1.066406,-1.005859 -0.116305,-0.212452 0.51017,0.175711 0.144531,-0.212891 -0.02635,-0.06172 -0.08817,-0.152041 -0.142578,-0.234375 -0.04663,-0.0099 -0.09661,-0.022 -0.126953,-0.02148 z m -8.013672,0.0078 C 8.156568,16.793527 7.91312,16.821854 7.431601,17.228516 7.092575,17.45707 7.08662,17.704452 7.216757,17.9375 c 0.04745,-0.071 0.113124,-0.14041 0.214844,-0.208984 0.501383,-0.423438 0.747853,-0.422647 0.882812,-1.048828 0.07882,-0.139116 0.04901,-0.290031 -0.01953,-0.441407 z"/>
</svg>
