<svg xmlns="http://www.w3.org/2000/svg" width="24" height="24" version="1">
 <rect style="opacity:0.2" width="20" height="20" x="2" y="2.5" rx="6" ry="6"/>
 <rect style="fill:#e3b36b" width="20" height="20" x="2" y="2" rx="6" ry="6"/>
 <path style="opacity:0.2;fill:#8b9cbe" d="M 8,2 C 4.676,2 2,4.676 2,8 v 0.5 c 0,-3.324 2.676,-6 6,-6 h 8 c 3.324,0 6,2.676 6,6 V 8 C 22,4.676 19.324,2 16,2 Z"/>
 <path style="opacity:0.35;fill:none;stroke:#8b9cbe;stroke-width:2;stroke-linejoin:round" d="M 6,19 V 6 l 6,9 6,-9 v 13"/>
 <path style="opacity:0.1" d="m 11,8.500122 v 4 H 8.7978515 l 2.3701175,3.554687 c 0.395883,0.593588 1.268178,0.593588 1.664062,0 l 2.370118,-3.554687 H 13 v -4 z"/>
 <path style="fill:#4f4f4f" d="m 8.7978515,12 2.3701175,3.554688 c 0.395883,0.593587 1.268178,0.593587 1.664062,0 L 15.202149,12 H 12.797852 L 12,13.197266 11.202149,12 Z"/>
 <rect style="fill:#4f4f4f" width="2" height="5.5" x="11" y="8"/>
</svg>
