<svg xmlns="http://www.w3.org/2000/svg" width="24" height="24" version="1.1">
 <path style="opacity:0.2" d="M 12.5,22.5 C 18.298995,22.5 23,17.798995 23,12 23,6.2010059 18.298995,1.5 12.5,1.5 6.7010059,1.5 2,6.2010059 2,12 2,17.798995 6.7010059,22.5 12.5,22.5 Z"/>
 <path style="fill:#1370ba" d="M 12.5,22 C 18.298995,22 23,17.298995 23,11.5 23,5.7010059 18.298995,1 12.5,1 6.7010059,1 2,5.7010059 2,11.5 2,17.298995 6.7010059,22 12.5,22 Z"/>
 <path style="opacity:0.2" d="m 16.5,5.500145 c -1.403944,0 -2.5,1.097103 -2.5,2.5371095 1.32e-4,0.6171485 1,0.6171485 1,0 0,-0.822858 0.44216,-1.5371095 1.5,-1.5371095 1.05784,0 1.5,0.7142515 1.5,1.5371095 0,0.6171485 1,0.6171485 1,0 C 19,6.597248 17.903963,5.500145 16.5,5.500145 Z m 0,2 c -0.276261,0 -0.5,0.2237215 -0.5,0.5 0,0.276261 0.223739,0.5 0.5,0.5 0.276261,0 0.5,-0.223739 0.5,-0.5 0,-0.2762785 -0.223739,-0.5 -0.5,-0.5 z m -4,1.9998125 c -0.75033,0 -1.634463,0.4623175 -2.042969,1.0390635 C 10.048546,9.962275 9.250329,9.5731995 8.5,9.5731995 7.2602065,9.5731995 6,10.350395 6,12.484332 V 16 c 0,0 0,0.5 0.5,0.5 C 7,16.5 7,16 7,16 v -3.515668 c -4.325e-4,-1.62176 0.7337615,-1.984375 1.5,-1.984375 0.766238,0 1.5,0.600727 1.5,1.698243 V 16 c 0,0 0,0.5 0.5,0.5 C 11,16.5 11,16 11,16 v -3.8018 c 0,-1.097516 0.733762,-1.698243 1.5,-1.698243 0.486455,0 1.503906,0.171004 1.503906,1.698243 l 0.02929,1.297895 C 14.033203,15.894301 15.496689,16.5 16.5,16.5 c 1.003311,0 2.469343,-0.707229 2.5,-2.829101 V 9.92495 c 0,-0.5840735 -1,-0.5840735 -1,0 v 3.695167 C 18,15.22981 17.001655,15.5 16.5,15.5 c -0.501656,0 -1.506836,-0.167681 -1.506836,-2.053711 l -0.02929,-1.177777 C 14.963867,10.449459 13.774776,9.4999575 12.5,9.4999575 Z"/>
 <path style="fill:#8b9cbe" d="M 16.5,5 C 15.096056,5 14,6.097103 14,7.5371095 c 1.32e-4,0.6171485 1,0.6171485 1,0 C 15,6.7142515 15.44216,6 16.5,6 17.55784,6 18,6.7142515 18,7.5371095 c 0,0.6171485 1,0.6171485 1,0 C 19,6.097103 17.903963,5 16.5,5 Z m 0,2 C 16.223739,7 16,7.2237215 16,7.5 16,7.776261 16.223739,8 16.5,8 16.776261,8 17,7.776261 17,7.5 17,7.2237215 16.776261,7 16.5,7 Z m -4,1.9998125 c -0.75033,0 -1.634463,0.4623175 -2.042969,1.0390635 C 10.048546,9.46213 9.250329,9.0730545 8.5,9.0730545 c -1.2397935,0 -2.5,0.777196 -2.5,2.9111325 v 3.515668 c 0,0 0,0.5 0.5,0.5 0.5,0 0.5,-0.5 0.5,-0.5 v -3.515668 c -4.325e-4,-1.62176 0.7337615,-1.9843745 1.5,-1.9843745 0.766238,0 1.5,0.6007265 1.5,1.6982425 v 3.8018 c 0,0 0,0.5 0.5,0.5 0.5,0 0.5,-0.5 0.5,-0.5 v -3.8018 c 0,-1.097516 0.733762,-1.6982425 1.5,-1.6982425 0.486455,0 1.503906,0.1710035 1.503906,1.6982425 l 0.02929,1.297895 c 7e-6,2.398206 1.463493,3.003905 2.466804,3.003905 1.003311,0 2.469343,-0.707229 2.5,-2.829101 V 9.424805 c 0,-0.5840735 -1,-0.5840735 -1,0 v 3.695167 c 0,1.609693 -0.998345,1.879883 -1.5,1.879883 -0.501656,0 -1.506836,-0.167681 -1.506836,-2.053711 l -0.02929,-1.177777 C 14.963867,9.9493145 13.774776,8.9998125 12.5,8.9998125 Z"/>
 <path style="fill:#8b9cbe;opacity:0.2" d="M 12.5 1 C 6.7010059 1 2 5.7010059 2 11.5 C 2 11.584365 2.011693 11.666111 2.0136719 11.75 C 2.1477132 6.0676054 6.7853711 1.5 12.5 1.5 C 18.21463 1.5 22.852287 6.0676054 22.986328 11.75 C 22.988307 11.666111 23 11.584365 23 11.5 C 23 5.7010059 18.298995 1 12.5 1 z"/>
</svg>
