<svg xmlns="http://www.w3.org/2000/svg" width="24" height="24" version="1.1">
 <path style="opacity:0.2" d="m 12,22.5 c 5.522852,0 10,-4.477148 10,-10 0,-5.5228515 -4.477148,-10 -10,-10 -5.5228515,0 -10,4.4771485 -10,10 0,5.522852 4.4771485,10 10,10 z"/>
 <circle style="fill:#ff395d" cx="12" cy="12" r="10"/>
 <path style="fill:#8b9cbe;fill-opacity:0.7" d="m 15.378812,7.2306863 -3.349971,2.4250801 c -0.0096,0.00696 -0.02885,0.020885 -0.02885,0.020885 L 8.5895582,7.2519483 C 8.40157,7.1151024 8.1827646,7.0536221 7.9688323,7.0536018 7.4718073,7.0535415 7.0007046,7.3852568 7.0007046,7.8742713 V 9.7130879 L 7,15.179311 C 7,15.668284 7.4711459,16 7.9681282,16 8.1821032,16 8.4008441,15.93852 8.5888537,15.801633 L 12,13.35569 c 1.697308,1.235622 3.378107,2.445943 3.378107,2.445943 C 15.566095,15.938479 15.784923,16 15.998833,16 16.495879,16 17,15.668325 17,15.179311 V 9.713087 7.8371301 c 0,-0.488974 -0.503474,-0.8047903 -1.000455,-0.8047903 -0.213976,0 -0.432717,0.061481 -0.620727,0.1983465 z"/>
 <polygon style="fill:#8b9cbe;fill-opacity:0.6" transform="matrix(0.46948818,0,0,0.45318149,6.9999927,6.9932164)" points="5.32 9.99 10.65 14.04 15.95 9.99 10.65 5.92"/>
 <polyline style="fill:#8b9cbe;fill-opacity:0.6" transform="matrix(0.46948818,0,0,0.45318149,6.9999927,6.9932164)" points="0 5.99 0 13.99 5.32 9.99 0 5.99"/>
 <polyline style="fill:#8b9cbe;fill-opacity:0.6" transform="matrix(0.46948818,0,0,0.45318149,6.9999927,6.9932164)" points="15.95 9.99 21.3 14.04 21.3 5.92 15.95 9.99"/>
 <path style="fill:#8b9cbe" d="m 15.333326,7.2622799 -3.333333,2.4143706 2.486861,1.8425855 2.513138,-1.8425855 V 7.8371301 c 0,-0.6990016 -0.95238,-1.1497004 -1.666666,-0.5748502 z"/>
 <path style="fill:#8b9cbe" d="M 8.5929759,7.2375591 C 7.9673877,6.7830817 7.0019073,7.1604642 7.0019073,7.8594659 V 9.7065584 L 9.4971346,11.519751 11.999993,9.6766505 Z"/>
 <path style="opacity:0.2;fill:#8b9cbe" d="M 12,2 C 6.4771485,2 2,6.4771485 2,12 2,12.08384 2.00381,12.166658 2.00586,12.25 2.1389419,6.843028 6.5609845,2.5 12,2.5 c 5.439015,0 9.861058,4.343028 9.99414,9.75 C 21.996192,12.166658 22,12.083836 22,12 22,6.4771485 17.522852,2 12,2 Z"/>
 <path style="opacity:0.2" d="M 12,13.355469 8.5878906,15.800781 C 8.399881,15.93767 8.182725,16 7.96875,16 7.4717677,16 7,15.668659 7,15.179688 v 0.5 C 7,16.168659 7.4717677,16.5 7.96875,16.5 c 0.213975,0 0.431131,-0.06233 0.6191406,-0.199219 L 12,13.855469 c 1.697308,1.235622 3.378906,2.445312 3.378906,2.445312 C 15.566894,16.437627 15.784137,16.5 15.998047,16.5 16.495093,16.5 17,16.1687 17,15.679688 v -0.5 C 17,15.6687 16.495093,16 15.998047,16 c -0.21391,0 -0.431153,-0.06237 -0.619141,-0.199219 0,0 -1.681598,-1.20969 -3.378906,-2.445312 z"/>
</svg>
