<svg width="24" height="24" version="1.1" xmlns="http://www.w3.org/2000/svg">
 <g transform="translate(.99997889 1)">
  <path d="m11.5 1c-3.5899 0-6.4999 2.9102-6.4999 6.5-0.0135 1.9465 1.709 3.648 2.5 5.5 0.3525 0.8255 1 2.5 1 2.5h6s0.6475-1.6745 1-2.5c0.791-1.852 2.4655-3.575 2.5-5.5 0-3.5898-2.91-6.5-6.5-6.5z" style="fill:#f5ab35"/>
  <path d="m14.5 15.5-1 4.5c-0.12018 0.5408-0.446 1-1 1h-2c-0.5539 0-0.8838-0.458-0.9999-1l-1-4.5z" style="fill:#434343"/>
  <path d="m8.5001 15.5 0.2225 1h5.555l0.2225-1zm0.4445 2 0.2225 1h4.666l0.2225-1zm0.444 2 0.1115 0.5c0.039 0.1815 0.104 0.3515 0.1915 0.5h3.615c0.0875-0.1485 0.153-0.3185 0.1935-0.5l0.1115-0.5z" style="fill:#8b9cbe;opacity:.2"/>
  <path d="m11.5 1c-3.5899 0-6.4999 2.9102-6.4999 6.5-5e-4 0.0855 7e-3 0.1695 0.0125 0.254 0.1305-3.475 2.9805-6.254 6.4875-6.254 3.491 0 6.331 2.754 6.4855 6.207 0.0055-0.069 0.0135-0.1375 0.0145-0.207 0-3.5898-2.91-6.5-6.5-6.5z" style="fill:#8b9cbe;opacity:.2"/>
  <path d="m17.986 7.707c-0.1445 1.842-1.723 3.508-2.4855 5.293-0.3525 0.8255-1 2.5-1 2.5h-6s-0.6475-1.6745-1-2.5c-0.756-1.771-2.3595-3.4045-2.4875-5.246-3e-3 0.082-0.0125 0.163-0.0125 0.246-0.0135 1.9465 1.709 3.648 2.5 5.5 0.3525 0.8255 1 2.5 1 2.5h6s0.6475-1.6745 1-2.5c0.791-1.852 2.4655-3.575 2.5-5.5 0-0.099-0.0105-0.195-0.0145-0.293z" style="opacity:.2"/>
  <path d="m8.5001 16 1 4.5c0.116 0.5415 0.446 1 1 1h2c0.554 0 0.88-0.459 1-1l1-4.5h-0.1115l-0.8885 4c-0.12 0.541-0.446 1-1 1h-2c-0.5539 0-0.8839-0.458-0.9999-1l-0.8885-4h-0.1115z" style="opacity:.2"/>
 </g>
</svg>
