<svg xmlns="http://www.w3.org/2000/svg" width="24" height="24" version="1">
 <circle style="opacity:0.2" cx="12" cy="12.5" r="10"/>
 <circle style="fill:#5e5e5e" cx="12" cy="12" r="10"/>
 <circle style="fill:#4f4f4f" cx="12" cy="12" r="8"/>
 <circle style="opacity:0.2" cx="12" cy="12.5" r="6"/>
 <circle style="fill:#fec006" cx="12" cy="12" r="6"/>
 <circle style="fill:#4f4f4f" cx="12" cy="12" r="3"/>
 <path style="opacity:0.1;fill:#8b9cbe" d="M 12,2 A 10,10 0 0 0 2,12 10,10 0 0 0 2.0098,12.293 10,10 0 0 1 12,2.5 10,10 0 0 1 21.99,12.207 10,10 0 0 0 22,12 10,10 0 0 0 12,2 Z"/>
 <path style="fill:#8b9cbe;opacity:0.2" d="M 12 6 A 6 6 0 0 0 6 12 A 6 6 0 0 0 6.0097656 12.214844 A 6 6 0 0 1 12 6.5 A 6 6 0 0 1 17.990234 12.285156 A 6 6 0 0 0 18 12 A 6 6 0 0 0 12 6 z"/>
</svg>
