<svg xmlns="http://www.w3.org/2000/svg" width="24" height="24" version="1.1">
 <path style="opacity:0.2" d="m 3.4277344,5.5 c -1.1096324,0 -2.0302487,0.7636958 -2.3222656,1.8066406 -0.00848,0.027465 -0.02427,0.049567 -0.03125,0.078125 -0.00596,0.024402 -0.0045,0.051486 -0.00977,0.076172 -0.00721,0.033743 -0.01951,0.065363 -0.025391,0.099609 0.00461,-0.010912 0.012762,-0.018555 0.017578,-0.029297 C 1.0282908,7.6845756 1,7.8379255 1,8 V 16.888672 17 c 0,1.384998 1.0823058,2.5 2.4277344,2.5 H 15.572266 C 16.917695,19.5 18,18.384998 18,17 v -2.414062 l 4.279297,1.800781 C 22.711142,16.604979 22.993492,16.500812 23,16.125 V 8.8671875 C 23.0039,8.4858085 22.60186,8.4071574 22.279297,8.6035156 L 18,10.761719 V 8.3496094 8 C 18,6.6150017 16.917695,5.5 15.572266,5.5 Z"/>
 <path style="fill:#6f7a9c" d="M 3.8472906,5.5028914 15.606322,5.4310525 c 1.345405,-0.00822 1.89511,0.7930885 1.835386,2.1767212 l -0.383826,8.8922303 c -0.05972,1.383633 -0.873842,1.830429 -2.219212,1.817526 L 3.6030377,18.209772 C 2.2576675,18.196869 0.99999983,17.885002 0.99999983,16.500004 V 7.5000154 c 0,-0.2127178 0.0255501,-0.4190665 0.0736768,-0.6159848 0.2652235,-1.0852101 1.6348456,-1.3741822 2.773614,-1.3811392 z"/>
 <path style="fill:#6f7a9c" d="m 22.279138,8.1040293 -4.293674,2.1655697 c -0.399374,0.270838 -0.720928,1.331764 -0.720928,1.748472 0.01894,0.349113 0.246965,1.740666 0.720928,2.062361 l 4.293573,1.807143 c 0.431845,0.21826 0.714399,0.112522 0.720907,-0.26329 V 8.3673226 c 0.0039,-0.381379 -0.398243,-0.4596515 -0.720806,-0.2632933 z"/>
 <path style="fill:#565f7c" d="m 3.4285713,5.0000186 c -1.1990096,0 -2.1872971,0.8865843 -2.3887277,2.0595678 0.2545113,-0.6025807 0.8277826,-0.9451453 1.3945312,-0.9414053 0.2529195,0.00175 0.5317874,0.072015 0.8243863,0.2187497 L 14.475726,11.951182 15.910101,11.111339 C 17.002556,10.563469 17.885831,9.1525952 18,7.8496244 V 7.5000154 C 18,6.1150171 16.916858,5.0000186 15.571429,5.0000186 Z"/>
 <path style="fill:#8b9cbe;opacity:0.1" d="M 22.529297 8.0078125 C 22.446296 8.0221283 22.359938 8.0544261 22.279297 8.1035156 L 17.986328 10.269531 C 17.586954 10.540369 17.263672 11.60087 17.263672 12.017578 C 17.266552 12.070667 17.284195 12.181517 17.296875 12.275391 C 17.373261 11.784721 17.645901 11.000394 17.986328 10.769531 L 22.279297 8.6035156 C 22.60186 8.4071574 23.0039 8.4858085 23 8.8671875 L 23 8.3671875 C 23.002925 8.0811532 22.778298 7.9648652 22.529297 8.0078125 z"/>
 <path style="fill:#434a61" d="m 18,7.8496244 c -0.114169,1.3029723 -0.997444,2.7138426 -2.089899,3.2617146 l -1.56624,0.785155 -11.0850999,5.559563 c -0.2159896,0.108329 -0.4244638,0.17495 -0.6204242,0.203125 0,0 -9.471e-4,0 -9.471e-4,0 -0.00767,0.0011 -0.015126,0.002 -0.022767,0.0029 -6.315e-4,7.8e-5 -0.00126,-7.8e-5 -0.0019,0 -0.022106,0.0027 -0.044626,0.0051 -0.066406,0.0068 -7.431e-4,5.3e-5 -0.00119,-9e-5 -0.0019,0 -0.00758,5e-4 -0.015205,0.0014 -0.022767,0.002 -0.1584376,0.01061 -0.3081517,-0.0048 -0.4458705,-0.04492 -0.028127,-0.0081 -0.055394,-0.01716 -0.082534,-0.02735 -0.1204502,-0.04518 -0.2306449,-0.110828 -0.3291852,-0.194336 0,0 -9.472e-4,-10e-4 -9.472e-4,-10e-4 -0.023316,-0.0198 -0.046348,-0.0406 -0.068303,-0.0625 C 1.37419,17.1211 1.1062428,16.797017 0.99999983,16.388676 v 0.111328 c 0,1.384998 1.08314287,2.499997 2.42857147,2.499997 H 15.571429 C 16.916858,19.000001 18,17.885002 18,16.500004 Z"/>
 <path style="opacity:0.2" d="M 6,8.2108595 V 16.58 l 8.34375,-4.183594 0.01172,-0.0059 z"/>
 <path style="fill:#8b9cbe" d="M 6 7.7109375 L 6 16.080078 L 14.34375 11.896484 L 14.355469 11.890625 L 6 7.7109375 z"/>
 <path style="fill:#8b9cbe;opacity:0.1" d="M 3.4277344 5 C 2.2287248 5 1.2404931 5.8875634 1.0390625 7.0605469 C 1.1521376 6.7928304 1.3345343 6.5852358 1.5449219 6.4277344 C 1.9887463 5.8626324 2.6633865 5.5 3.4277344 5.5 L 15.572266 5.5 C 16.886504 5.5 17.941609 6.5660322 17.990234 7.90625 C 17.992198 7.8874252 17.998354 7.8683922 18 7.8496094 L 18 7.5 C 18 6.1150017 16.917695 5 15.572266 5 L 3.4277344 5 z"/>
</svg>
