<svg xmlns="http://www.w3.org/2000/svg" width="24" height="24" version="1">
 <rect style="fill:#aedeec" width="20" height="20" x="2" y="2" rx="1" ry="1"/>
 <path style="opacity:0.2;fill:#8b9cbe" d="M 3,2 C 2.446,2 2,2.446 2,3 l 0,0.5 c 0,-0.554 0.446,-1 1,-1 l 18,0 c 0.554,0 1,0.446 1,1 L 22,3 C 22,2.446 21.554,2 21,2 L 3,2 Z"/>
 <path style="opacity:0.2" d="m 3,22.5 c -0.554,0 -1,-0.446 -1,-1 L 2,21 c 0,0.554 0.446,1 1,1 l 18,0 c 0.554,0 1,-0.446 1,-1 l 0,0.5 c 0,0.554 -0.446,1 -1,1 l -18,0 z"/>
 <path style="opacity:0.2" d="m 5,7.5 0,1 0.004,0 2.2959,3.9746 -2.2998,3.9824 0,1.043 8,0 0,-2 -1,0 0,1 -5.869,0 2.0205,-3.5 0.30274,-0.5244 0,-10e-4 L 8.1516,11.9502 6.1594,8.5 l 4.8408,0 0,0.5 1,0 0,-1.5 -7,0 z"/>
 <path style="fill:#e37739" d="m 5,7 0,1 0.004,0 2.2959,3.9746 -2.2998,3.9824 0,1.043 8,0 0,-2 -1,0 0,1 -5.869,0 2.0205,-3.5 0.30274,-0.5244 0,-10e-4 L 8.1516,11.4502 6.1594,8 l 4.8408,0 0,0.5 1,0 0,-1.5 -7,0 z"/>
 <rect style="fill:#8b9cbe" width="1" height="20" x="16" y="2"/>
</svg>
