<svg xmlns="http://www.w3.org/2000/svg" width="24" height="24" version="1">
 <rect style="fill:#00caff" width="14" height="12" x="5" y="2" rx=".75" ry=".75"/>
 <rect style="fill:#89e058" width="16" height="12" x="4" y="4" rx=".75" ry=".75"/>
 <rect style="fill:#ffcd54" width="18" height="12" x="3" y="6" rx=".75" ry=".75"/>
 <rect style="opacity:0.2" width="20" height="14" x="2" y="8.5" rx="1" ry="1"/>
 <rect style="fill:#8e8e8e" width="20" height="14" x="2" y="8" rx="1" ry="1"/>
 <rect style="opacity:0.2" width="6" height="2" x="9" y="13.5" rx=".5" ry=".5"/>
 <rect style="fill:#ececec" width="6" height="2" x="9" y="13" rx=".5" ry=".5"/>
 <path style="fill:#8b9cbe;opacity:0.1" d="M 5.75 2 C 5.3345 2 5 2.3345 5 2.75 L 5 3.25 C 5 2.8345 5.3345 2.5 5.75 2.5 L 18.25 2.5 C 18.6655 2.5 19 2.8345 19 3.25 L 19 2.75 C 19 2.3345 18.6655 2 18.25 2 L 5.75 2 z"/>
 <path style="fill:#8b9cbe;opacity:0.1" d="M 4.75 4 C 4.3345 4 4 4.3345 4 4.75 L 4 5.25 C 4 4.8345 4.3345 4.5 4.75 4.5 L 19.25 4.5 C 19.6655 4.5 20 4.8345 20 5.25 L 20 4.75 C 20 4.3345 19.6655 4 19.25 4 L 4.75 4 z"/>
 <path style="fill:#8b9cbe;opacity:0.1" d="M 3.75 6 C 3.3345 6 3 6.3345 3 6.75 L 3 7.25 C 3 6.8345 3.3345 6.5 3.75 6.5 L 20.25 6.5 C 20.6655 6.5 21 6.8345 21 7.25 L 21 6.75 C 21 6.3345 20.6655 6 20.25 6 L 3.75 6 z"/>
 <path style="opacity:0.1" d="M 4.75,3.5 C 4.3345,3.5 4,3.8345 4,4.25 v 0.5 C 4,4.3345 4.3345,4 4.75,4 h 14.5 C 19.6655,4 20,4.3345 20,4.75 V 4.25 C 20,3.8345 19.6655,3.5 19.25,3.5 Z"/>
 <path style="opacity:0.1" d="M 3.75,5.5 C 3.3345,5.5 3,5.8345 3,6.25 v 0.5 C 3,6.3345 3.3345,6 3.75,6 h 16.5 C 20.6655,6 21,6.3345 21,6.75 V 6.25 C 21,5.8345 20.6655,5.5 20.25,5.5 Z"/>
</svg>
