<svg width="24" height="24" version="1.1" xmlns="http://www.w3.org/2000/svg">
 <g transform="translate(1,1)">
  <rect x="1" y="1.5" width="20" height="20" rx="5" ry="5" style="opacity:.2"/>
  <rect x="1" y="1" width="20" height="20" rx="5" ry="5" style="fill:#b2bfd9"/>
  <path d="m12.870603 19.719091c-0.636936-0.08241-1.409782-0.253207-1.677069-0.37062-0.168321-0.07394-0.411788-0.248604-0.54104-0.388145-0.216744-0.233999-0.6822563-0.935936-0.780274-1.176561-0.0229731-0.056398-0.2122776-0.468401-0.4206765-0.915566-0.4186814-0.89837-0.419358-0.958453-0.0150341-1.33512 0.2369809-0.220771 0.2244502-0.283951-0.0371325-0.187224-0.1182635 0.043731-0.3696755 0.256391-0.5586934 0.472578l-0.3436686 0.393066h-0.8323734l0.4178421-0.427246c0.3511703-0.359074 0.4562704-0.527075 0.6586784-1.052893l0.2408364-0.625645-0.2935006-0.287241-0.2935007-0.287243-0.312888 0.182852c-0.3022175 0.176613-0.3144375 0.196507-0.3583237 0.583323-0.066522 0.586329-0.2620734 0.752576-0.9670889 0.822168-0.2945796 0.02908-0.5443458 0.04466-0.5550359 0.03463-0.010688-0.01 0.1313805-0.132938 0.3157125-0.273117 0.3213941-0.244413 0.4960065-0.539838 0.6678815-1.129983 0.027289-0.0937 0.1762715-0.282892 0.3310728-0.420431 0.1548011-0.137539 0.2660325-0.262584 0.2471808-0.277879-0.018852-0.0153-0.1694971-0.131864-0.3347676-0.259042l-0.3004917-0.231238-0.4516954 0.235137c-0.4455006 0.231912-0.453383 0.240938-0.5747457 0.658157-0.077864 0.267681-0.1666616 0.436501-0.2418112 0.45973-0.2134561 0.06598-1.0764453 0.235818-1.0965192 0.215801-0.01077-0.01074 0.143124-0.158283 0.3419856-0.327874 0.2574998-0.219599 0.4280266-0.445622 0.5924731-0.785286 0.2291546-0.47332 0.2340956-0.477967 0.6512403-0.612525 0.3974086-0.128192 0.4192662-0.146478 0.4007635-0.335281-0.039499-0.403047-0.017143-0.394385-0.8904094-0.345017-0.7957801 0.04499-0.8057936 0.04765-1.002312 0.26628-0.6192348 0.688918-1.0873487 1.133286-1.2319801 1.169484-0.2015895 0.05045-0.5673259-0.0687-0.6184189-0.201469-0.029111-0.07565 0.030612-0.09776 0.2640424-0.09776 0.26346 0 0.3209102-0.02813 0.4536477-0.222168 0.083591-0.122193 0.4012055-0.475952 0.7058084-0.786133l0.5538234-0.563964h0.9274127c0.510077 0 1.0274658 0.02862 1.1497528 0.06359 0.217774 0.06228 0.2222891 0.05912 0.2198572-0.153809-0.0013656-0.119572-0.0593106-0.651758-0.1287666-1.182639-0.1116875-0.8536726-0.1544609-1.0156474-0.3700656-1.4013671-0.13408-0.2398709-0.5564245-1.2820763-0.9385433-2.3160118l-0.6947613-1.8798827 0.0804197-0.8203126c0.0715035-0.7293624 0.1000549-0.8411552 0.2575161-1.0083008 0.1381359-0.1466316 0.2398133-0.1879882 0.4621785-0.1879882 0.2374064 0 0.3814309 0.067665 0.8612075 0.4046063 0.3168689 0.2225335 0.6887723 0.5167617 0.8264518 0.6538402 0.2334276 0.2324085 0.2536007 0.2861183 0.2988281 0.7956131 0.0266762 0.3005086 0.0374212 0.5570845 0.02388 0.5701686-0.013542 0.0130841-0.2105391-0.0605756-0.4377715-0.1636883-0.3946494-0.1790826-0.4231534-0.2091197-0.6365484-0.6707878-0.2434729-0.52674-0.3667727-0.6693086-0.5261157-0.6083344-0.081895 0.031337-0.1037 0.1685389-0.1037 0.6524819v0.6127997l0.5531862 1.2252735 0.5531861 1.2252734 0.9378112 0.5193314c0.8201892 0.454196 1.019321 0.6011757 1.5876975 1.1718846 0.3574376 0.3589044 0.6679986 0.6525534 0.6901346 0.6525534 0.07139 0 0.270942-0.7218723 0.270942-0.9801294v-0.2503394h0.509517c0.449312 0 0.514659-0.016155 0.553032-0.1367187 0.04807-0.1510386 0.09014-0.1642701 0.233853-0.073551 0.07617 0.048081 0.08305 0.1242013 0.03232 0.3578399l-0.06442 0.2967666-0.323669-0.016575-0.323668-0.016575v0.8499432c0 0.4674681 0.02822 0.8673354 0.06272 0.8885934 0.03449 0.02126 0.115861-0.09228 0.180818-0.252313 0.06555-0.1615037 0.26386-0.4221457 0.445694-0.5857953l0.327592-0.2948304 0.28658 0.1457926c0.157619 0.080185 0.329862 0.1292299 0.382761 0.1089875 0.122091-0.04672 0.12078-0.028815-0.01934 0.2642022-0.101854 0.2129907-0.145891 0.2415772-0.372138 0.2415772-0.141137 0-0.303254 0.046509-0.360259 0.1033562-0.141944 0.141545-0.216288 0.686475-0.121852 0.893157 0.100505 0.219965 0.181115 0.208827 0.284167-0.03927 0.06042-0.145454 0.213784-0.273004 0.52887-0.439846l0.443775-0.234984 0.288439 0.265128c0.281348 0.25861 0.295578 0.263322 0.578735 0.19165 0.159662-0.04041 0.310835-0.053 0.33594-0.02796 0.0251 0.02504-0.100938 0.190556-0.28008 0.367826l-0.325726 0.322308-0.258187-0.299397-0.258187-0.299398-0.251689 0.162679c-0.185516 0.119906-0.251914 0.210606-0.252539 0.34497-9.67e-4 0.208042 0.08379 0.256273 0.376186 0.214061 0.113112-0.01633 0.340637 0.01855 0.505617 0.07751s0.502591 0.107197 0.750249 0.107197h0.450284l-0.217986 0.160374-0.217987 0.160374 0.168466 0.07654c0.137804 0.06261 0.250205 0.04586 0.617543-0.09201 0.246992-0.09271 0.576767-0.168558 0.732833-0.168558 0.268933 0 0.322905 0.03861 1.033122 0.739025l0.749365 0.739024 0.236075 1.260487c0.132832 0.70924 0.223671 1.387352 0.207711 1.550579-0.03511 0.359136-0.272761 0.68115-0.663828 0.899487l-0.29408 0.16419 0.05224-0.16419c0.02874-0.0903 0.06752-0.365381 0.0862-0.611285 0.07346-0.96728-0.496568-1.432865-0.642221-0.524551-0.05323 0.331899-0.111638 0.26832-0.290703-0.316389-0.137941-0.450435-0.136281-0.729414 0.0054-0.909655 0.08599-0.109375-0.134629-1.362619-0.295891-1.680885l-0.129475-0.25553-0.465674 0.494788c-1.13695 1.20803-1.120218 1.186587-1.002086 1.284354 0.165441 0.136919 0.37311 0.583031 0.371041 0.797066l-0.0019 0.190711-0.186674-0.215273c-0.287223-0.331228-0.46159-0.396488-0.664991-0.248885-0.09274 0.0673-0.169582 0.156264-0.170767 0.197702-4e-3 0.14126 0.310753 0.538876 0.445842 0.563146 0.285035 0.05121 0.258573 0.147615-0.04011 0.146145-0.341955-0.0016-0.789995-0.181425-0.978033-0.392361l-0.1245-0.139735-0.800881 0.209177c-0.577589 0.150858-0.888758 0.272384-1.116062 0.435876-0.22901 0.164721-0.42046 0.239038-0.700268 0.271832l-0.385089 0.04514 0.220407 0.400214 0.220407 0.400212 0.37195 8.14e-4c0.276697 6.15e-4 0.74686 0.125369 1.835893 0.487184 0.805167 0.267506 1.532388 0.542826 1.616046 0.611824 0.149152 0.123012 0.138805 0.124737-0.533413 0.08874-0.377033-0.0202-0.808908-0.0098-0.959722 0.02319-0.232344 0.05076-0.277633 0.08939-0.296654 0.253028-0.04933 0.424369 0.61337 0.812537 1.62019 0.949012 0.581867 0.07888 0.58864 0.08189 0.287427 0.128071-0.322348 0.04942-1.667078 0.05629-2.022272 0.01037z" style="fill:#17191e"/>
  <path d="m6 1c-2.77 0-5 2.23-5 5v0.5c0-2.77 2.23-5 5-5h10c2.77 0 5 2.23 5 5v-0.5c0-2.77-2.23-5-5-5z" style="fill:#8b9cbe;opacity:.2"/>
 </g>
</svg>
