<svg xmlns="http://www.w3.org/2000/svg" width="24" height="24" version="1">
 <rect style="opacity:0.2" width="20" height="20" x="2" y="2.5" rx="1" ry="1"/>
 <rect style="fill:#17191e" width="20" height="20" x="2" y="2" rx="1" ry="1"/>
 <path style="opacity:0.2;fill:#20ee03" d="m 3.227539,1.999967 v 0.0625 0.540039 h 0.360352 v -0.540039 -0.0625 z m 2.455078,0 v 0.085937 0.5234375 0.5234375 0.5234375 0.5234375 0.524414 0.5234375 0.506836 0.5234374 0.524414 0.5234375 0.540039 H 6.042969 V 7.3056309 6.7821934 6.2577794 5.734342 5.2109045 4.687467 4.1640295 3.6396155 3.116178 2.5927405 2.069303 1.999967 Z m 1.227539,0 V 2.081998 2.6054355 H 7.269531 V 2.066373 1.999967 Z m 2.455079,0 V 2.085904 2.6093415 3.132779 3.6562165 4.179654 4.704068 5.2275055 5.750943 6.2743804 6.7978179 7.3222319 7.8456694 H 9.72461 V 7.3056309 6.7821934 6.2577794 5.734342 5.2109045 4.687467 4.1640295 3.6396155 3.116178 2.5927405 2.069303 1.999967 Z m 2.455077,0 V 2.085904 2.59274 3.1161775 3.6562165 4.164029 4.6874665 5.210904 5.750943 6.2743804 6.7978179 7.3222319 7.8456694 8.3691069 h 0.359375 V 7.8290684 7.3056309 6.7821934 6.2577794 5.734342 5.2109045 4.687467 4.1640295 3.6396155 3.116178 2.5927405 2.069303 1.999967 Z m 1.227539,0 V 2.079069 2.6025065 3.125944 h 0.359375 V 2.5859045 2.062467 1.999967 Z m 3.682618,0 v 0.085937 0.5234375 0.5234375 0.5234375 0.5234375 0.524414 0.5234375 0.506836 0.5234374 0.524414 0.5234375 0.540039 h 0.359375 V 7.3056309 6.7821934 6.2577794 5.734342 5.2109045 4.687467 4.1640295 3.6396155 3.116178 2.5927405 2.069303 1.999967 Z m 1.226562,0 v 0.082031 0.5234375 h 0.360352 V 2.066373 1.999967 Z m 1.227539,0 V 2.085904 2.59274 3.1161775 3.6562165 4.164029 4.6874665 5.210904 5.750943 6.2743804 6.7978179 7.3222319 7.8456694 8.3691069 h 0.360352 V 7.8290684 7.3056309 6.7821934 6.2577794 5.734342 5.2109045 4.687467 4.1640295 3.6396155 3.116178 2.5927405 2.069303 1.999967 Z m 1.227539,0 v 0.085937 h 0.360352 V 1.999967 Z M 2.360352,2.2353185 C 2.141516,2.418472 2,2.6909785 2,2.999967 v 0.1259765 h 0.360352 v -0.540039 z m 19.279296,0 v 0.370117 0.524414 0.5234375 0.5234375 H 22 V 2.999967 C 22,2.6909785 21.858484,2.418472 21.639648,2.2353185 Z M 4.455078,2.5898105 V 3.1298495 3.653287 4.1767245 H 4.81543 V 3.6366855 3.113248 2.5898105 Z m 11.047851,0 v 0.540039 0.5234375 0.5234375 h 0.359375 V 3.6366855 3.113248 2.5898105 Z m -7.365233,0.00586 V 3.1357095 3.660124 4.1835615 4.706999 5.2304365 5.7538735 6.2782879 H 8.497071 V 5.7382485 5.2138345 4.690397 4.1669595 3.643522 3.1200845 2.5956705 Z m 12.274413,0.524414 v 0.5400395 0.5234375 0.5234375 0.5234375 0.523437 0.5244144 0.5234375 0.5234375 0.5234375 0.5234375 0.524414 h 0.360352 V 8.3564129 7.8319984 7.3085614 6.7851234 6.2616864 5.7382485 5.2138345 4.690397 4.1669595 3.643522 3.1200845 Z M 3.227539,3.636686 v 0.540039 0.5078125 0.539063 0.524414 H 3.587891 V 5.2079755 4.6845375 4.1601235 3.636686 Z m 11.047851,0 v 0.540039 0.5078125 0.539063 0.524414 h 0.359375 V 5.2079755 4.6845375 4.1601235 3.636686 Z M 6.910156,3.639636 V 4.16405 4.704089 H 7.269531 V 4.16405 3.639636 Z m 3.682618,0 V 4.16405 4.704089 h 0.359375 V 4.16405 3.639636 Z M 2,4.1601435 v 0.540039 0.523438 h 0.360352 v -0.539063 -0.524414 z m 11.047851,0 v 0.540039 0.523438 h 0.359375 v -0.539063 -0.524414 z m 2.455078,1.0507815 v 0.5234375 0.5400389 0.5234375 0.524414 h 0.359375 V 6.7822139 6.2577999 5.7343625 5.210925 Z m 6.136719,0 v 0.540039 0.5234374 0.5234375 0.524414 H 22 V 6.7822139 6.2577999 5.7343625 5.210925 Z M 6.910156,5.7382685 V 6.2783079 6.8017454 7.3251829 7.8486204 H 7.269531 V 7.3085814 6.7851434 6.2617064 5.7382685 Z m 3.682618,0 v 0.5400394 0.5234375 0.5234375 0.5234375 h 0.359375 V 7.3085814 6.7851434 6.2617064 5.7382685 Z m 7.364257,0 v 0.5400394 0.5234375 0.5234375 0.5234375 h 0.360352 V 7.3085814 6.7851434 6.2617064 5.7382685 Z M 2,6.2577999 v 0.540039 0.524414 0.5234375 0.5234375 H 2.360352 V 7.8290889 7.3056514 6.7822139 6.2577999 Z m 11.047851,0 v 0.524414 0.5234375 0.5234375 0.540039 h 0.359375 V 7.8290889 7.3056514 6.7822139 6.2577999 Z m -9.820312,0.524414 v 0.540039 h 0.360352 v -0.540039 z m 11.047851,0 v 0.540039 h 0.359375 V 6.7822139 Z M 8.137696,7.3124874 v 0.540039 0.5234375 H 8.497071 V 7.8359249 7.3124874 Z M 3.227539,8.3564329 v 0.540039 0.5234375 H 3.587891 V 8.8798704 8.3564329 Z m 1.227539,0 v 0.5234375 0.540039 H 4.81543 V 8.8798704 8.3564329 Z m 9.820312,0 v 0.540039 0.5234375 h 0.359375 V 8.8798704 8.3564329 Z m 1.227539,0 v 0.5234375 0.540039 h 0.359375 V 8.8798704 8.3564329 Z m 6.136719,0 v 0.540039 0.5234375 0.5234375 H 22 V 9.4033079 8.8798704 8.3564329 Z M 5.682617,8.8798704 v 0.540039 0.5234375 0.5234371 0.523438 0.524414 0.523437 0.523438 H 6.042969 V 12.021472 11.498034 10.974597 10.450183 9.9267454 9.4033079 8.8798704 Z m 3.682618,0 v 0.540039 0.5234375 0.5234371 0.523438 0.524414 0.523437 0.523438 H 9.72461 V 12.021472 11.498034 10.974597 10.450183 9.9267454 9.4033079 8.8798704 Z m 7.365234,0 v 0.540039 0.506836 0.5400386 0.523438 0.524414 0.523437 0.523438 h 0.359375 V 12.021472 11.498034 10.974597 10.450183 9.9267454 9.4033079 8.8798704 Z m -6.137695,0.00295 v 0.540039 0.5234375 0.5244141 0.523437 0.523438 h 0.359375 V 10.977526 10.454089 9.9306514 9.4062374 8.8827999 Z m 7.364257,0 v 0.540039 0.5234375 0.5244141 0.523437 0.523438 h 0.360352 V 10.977526 10.454089 9.9306514 9.4062374 8.8827999 Z M 2,9.4033079 v 0.540039 h 0.360352 v -0.540039 z m 9.820312,0 v 0.540039 0.5234371 h 0.359375 V 9.9267454 9.4033079 Z m 1.227539,0 v 0.540039 h 0.359375 v -0.540039 z m -4.910155,0.00684 v 0.5400395 0.5234376 0.523437 0.523438 0.523437 0.524414 H 8.497071 V 12.028307 11.50487 10.980456 10.457018 9.9335809 9.4101429 Z m 12.274413,0.520508 v 0.5234371 0.523438 0.540039 0.506836 0.524414 0.523437 0.540039 h 0.360352 V 13.072253 12.548815 12.024401 11.500964 10.977526 10.454089 9.9306514 Z M 3.227539,10.454094 v 0.540039 0.506836 0.540039 0.523437 h 0.360352 v -0.540044 -0.523437 -0.523438 -0.523437 z m 1.227539,0 v 0.523437 0.523438 0.523437 0.540039 0.524414 H 4.81543 v -0.540044 -0.524414 -0.523437 -0.523438 -0.523437 z m 9.820312,0 v 0.540039 0.506836 0.523437 0.540039 h 0.359375 v -0.540044 -0.523437 -0.523438 -0.523437 z m 1.227539,0 v 0.523437 0.523438 0.523437 0.524414 0.540039 h 0.359375 V 12.548815 12.024401 11.500964 10.977526 10.454089 Z M 2,10.977531 v 0.540039 0.523438 h 0.360352 v -0.540039 -0.523438 z m 11.047851,0 v 0.540039 0.523438 h 0.359375 v -0.540039 -0.523438 z m 8.591797,0 v 0.523438 0.540039 H 22 v -0.540039 -0.523438 z m -9.819336,0.523438 v 0.540039 0.523437 0.524414 0.523438 0.523437 h 0.359375 V 13.59567 13.072232 12.548795 12.024381 11.500943 Z m 7.364258,0 v 0.540039 0.523437 0.524414 0.523438 0.523437 h 0.360352 V 13.59567 13.072232 12.548795 12.024381 11.500943 Z M 6.910156,12.55173 v 0.540039 0.523437 0.523438 0.523437 H 7.269531 V 14.123019 13.598605 13.075167 12.55173 Z m 3.682617,0 v 0.523437 0.540039 0.523438 0.523437 h 0.359375 V 14.123019 13.598605 13.075167 12.55173 Z m 7.364258,0 v 0.540039 0.523437 0.523438 0.523437 h 0.360352 V 14.123019 13.598605 13.075167 12.55173 Z m -4.90918,0.523437 v 0.540039 0.507813 0.539062 0.524414 h 0.359375 v -0.540039 -0.523437 -0.524414 -0.523438 z m 8.591797,0 v 0.540039 0.507813 0.539062 0.524414 0.506836 0.540039 0.523438 0.523437 0.524414 H 22 V 17.26462 16.741183 16.216769 15.693331 15.169894 14.646456 14.123019 13.598605 13.075167 Z M 5.682617,13.595675 v 0.540039 0.523437 0.523438 H 6.042969 V 14.64255 14.119112 13.595675 Z m 3.682618,0 v 0.540039 0.523437 0.523438 H 9.72461 V 14.64255 14.119112 13.595675 Z m 7.365234,0 v 0.540039 0.523437 0.523438 h 0.359375 V 14.64255 14.119112 13.595675 Z m -13.50293,0.003 v 0.524414 0.523437 0.540039 0.523438 0.523437 0.523438 0.523437 0.524414 0.523438 0.523437 0.523418 H 3.587891 V 18.834928 18.31149 17.788053 17.264615 16.741178 16.216764 15.693326 15.169889 14.646451 14.123014 13.5986 Z m 11.047851,0 v 0.524414 0.523437 0.540039 0.506836 0.540039 0.523438 0.523437 0.524414 0.523438 0.523437 0.523418 h 0.359375 V 18.834928 18.31149 17.788053 17.264615 16.741178 16.216764 15.693326 15.169889 14.646451 14.123014 13.5986 Z m -6.137694,0.0039 v 0.540039 0.523437 0.523438 0.523437 0.507813 0.523438 0.540039 H 8.497071 V 16.744177 16.220739 15.696325 15.172887 14.64945 14.126012 13.602575 Z m -3.682618,0.520508 v 0.523437 0.523438 0.523437 0.523438 0.524414 0.523437 0.523438 0.540039 H 4.81543 V 17.788067 17.264629 16.741192 16.216778 15.69334 15.169903 14.646465 14.123028 Z m 11.047851,0 v 0.523437 0.523438 0.523437 0.523438 0.524414 0.523437 0.523438 0.540039 h 0.359375 V 17.788067 17.264629 16.741192 16.216778 15.69334 15.169903 14.646465 14.123028 Z m 4.90918,0.523437 v 0.540039 h 0.360352 V 14.64652 Z m -8.591797,0.523438 v 0.540039 0.523437 0.523438 h 0.359375 V 16.216778 15.69334 15.169903 Z m -4.910156,0.526367 v 0.540039 0.524414 0.523438 0.523437 0.523438 0.507812 0.540039 h 0.359375 v -0.540039 -0.524414 -0.523437 -0.523438 -0.523437 -0.523438 -0.524414 z m 3.682618,0 v 0.540039 0.524414 0.506836 0.523438 0.540039 0.507812 0.540039 h 0.359375 v -0.540039 -0.524414 -0.523437 -0.523438 -0.523437 -0.523438 -0.524414 z m 7.364257,0 v 0.540039 0.524414 0.523438 0.523437 0.523438 0.507812 0.540039 h 0.360352 V 18.838903 18.314489 17.791052 17.267614 16.744177 16.220739 15.696325 Z M 5.682617,16.216833 v 0.524414 0.539062 h 0.360352 v -0.539062 -0.524414 z m 11.047852,0 v 0.524414 0.539062 h 0.359375 V 16.741233 16.216819 Z M 2,16.220733 v 0.540039 0.523437 0.523438 0.523437 0.523438 0.524414 0.523438 0.523437 0.523438 H 2.360352 V 20.409147 19.885709 19.362272 18.838834 18.31442 17.790983 17.267545 16.744108 16.22067 Z m 11.047851,0 v 0.523437 0.523438 0.540039 0.506836 0.524414 0.523437 0.54004 0.523437 0.523438 h 0.359375 V 20.409147 19.885709 19.362272 18.838834 18.31442 17.790983 17.267545 16.744108 16.22067 Z m 7.364258,0 v 0.523437 0.540039 h 0.360352 v -0.540036 -0.523438 z m -8.591797,1.570312 v 0.523438 0.540039 h 0.359375 V 18.31442 17.790983 Z m 7.364258,0 v 0.523438 0.540039 h 0.360352 V 18.31442 17.790983 Z m -9.819335,0.52344 v 0.540039 0.524414 0.523438 H 9.72461 v -0.540039 -0.523438 -0.524414 z m 7.365234,0 v 0.540039 0.524414 0.523438 h 0.359375 v -0.540039 -0.523438 -0.524414 z m 3.68164,0.0039 v 0.540039 0.523437 0.523438 0.507812 0.523438 0.523437 0.540046 h 0.360352 V 21.459928 20.93649 20.413053 19.888639 19.365201 18.841764 18.318326 Z m 1.227539,0.520507 v 0.540039 0.523439 0.523436 H 22 v -0.540032 -0.523437 -0.523438 z m -17.18457,0.523445 v 0.523437 0.540039 0.523438 H 4.81543 v -0.540039 -0.523438 -0.523437 z m 11.047851,0 v 0.523437 0.540039 0.523438 h 0.359375 v -0.540039 -0.523438 -0.523437 z m -3.682617,0.526367 v 0.540039 0.507812 0.523438 0.540039 h 0.359375 V 21.459928 20.93649 20.413053 19.888639 Z m 7.364258,0 v 0.540039 0.507812 0.523438 0.540039 h 0.360352 V 21.459928 20.93649 20.413053 19.888639 Z M 3.227539,20.409212 v 0.540039 h 0.360352 v -0.540039 z m 11.047851,0 v 0.540039 h 0.359375 v -0.540039 z m -7.365234,0.0039 v 0.540046 0.506836 0.540039 H 7.269531 V 21.459928 20.93649 20.413053 Z M 5.682617,20.93655 v 0.540045 0.523438 h 0.360352 v -0.540039 -0.523438 z m 3.682618,0 v 0.523444 0.540039 H 9.72461 v -0.540039 -0.523438 z m 12.274413,0.523437 v 0.304688 c 0.10044,-0.08406 0.183117,-0.187435 0.244141,-0.304688 z"/>
 <path style="opacity:0.2" d="M 8.9999996,6.4999997 V 13.499999 H 5.9999998 l 2.9999998,3 3.0000004,3 2.999999,-3 3,-3 h -3 V 6.4999997 Z"/>
 <path style="fill:#20ee03" d="M 8.9999996,5.9999998 V 12.999999 H 5.9999998 l 2.9999998,3 3.0000004,3 2.999999,-3 3,-3 h -3 V 5.9999998 Z"/>
 <path style="opacity:0.1;fill:#8b9cbe" d="m 2.9999999,1.9999999 c -0.554,0 -1,0.446 -1,1 v 0.5 c 0,-0.554 0.446,-1 1,-1 H 20.999999 c 0.554,0 1,0.446 1,1 v -0.5 c 0,-0.554 -0.446,-1 -1,-1 z"/>
 <path style="opacity:0.2;fill:#8b9cbe" d="M 8.9999996,5.9999998 V 6.4999997 H 14.999999 V 5.9999998 Z m -2.9999998,6.9999992 0.4999999,0.5 h 2.4999999 v -0.5 z m 8.9999992,0 v 0.5 h 2.5 l 0.5,-0.5 z"/>
</svg>
