<svg xmlns="http://www.w3.org/2000/svg" width="24" height="24" version="1">
 <path style="opacity:0.2" d="m 7,7.5 v 1 1 12 c 0,0.554 0.446,1 1,1 h 8 c 0.554,0 1,-0.446 1,-1 v -12 -1 -1 H 16 8 Z"/>
 <rect style="fill:#64b515" width="4" height="4" x="10" y="1" rx="1.007" ry="1.193"/>
 <path style="fill:#b2bfd9" d="m 17,7 c 0,2.7614235 -2.238577,6.5 -5,6.5 C 9.2385765,13.5 7,9.7614235 7,7 7,5 9.2385765,4 12,4 c 2.761423,0 5,1 5,3 z"/>
 <path style="opacity:0.2;fill:#8b9cbe" d="M 12 4 C 9.2385765 4 7 5 7 7 C 7 7.0685135 7.0168014 7.1432462 7.0195312 7.2128906 C 7.225753 5.4055671 9.3749598 4.5 12 4.5 C 14.62504 4.5 16.774247 5.4055671 16.980469 7.2128906 C 16.983199 7.1432462 17 7.0685135 17 7 C 17 5 14.761423 4 12 4 z"/>
 <path style="fill:#64b515" d="m 7,7 v 1 1 12 c 0,0.554 0.446,1 1,1 h 8 c 0.554,0 1,-0.446 1,-1 V 9 8 7 H 16 8 Z"/>
 <path style="fill:#17191e;fill-rule:evenodd;stroke:#17191e;stroke-width:0.47594941px" d="m 9.5,13.762026 h 5"/>
 <path style="fill:#17191e;fill-rule:evenodd;stroke:#17191e;stroke-width:0.5px" d="m 9.25,16.750001 5.5,-5.500866"/>
 <path style="fill:#17191e;fill-rule:evenodd;stroke:#17191e;stroke-width:0.50000006px" d="M 14.75,16.750002 9.25,11.250001"/>
 <ellipse style="fill:#17191e" cx="12" cy="12.5" rx="1" ry="1.5"/>
 <ellipse style="fill:#17191e" cx="12" cy="15.25" rx="1.5" ry="1.75"/>
 <rect style="opacity:0.2" width="10" height=".5" x="7" y="7"/>
 <path style="opacity:0.1;fill:#8b9cbe" d="M 11.006836,1 C 10.448897,1 10,1.5316649 10,2.1923828 v 0.5 C 10,2.0316649 10.448897,1.5 11.006836,1.5 h 1.986328 C 13.551104,1.5 14,2.0316649 14,2.6923828 v -0.5 C 14,1.5316649 13.551104,1 12.993164,1 Z"/>
 <rect style="opacity:0.4" width="1" height="1" x="10" y="2"/>
</svg>
