<svg xmlns="http://www.w3.org/2000/svg" width="24" height="24" version="1">
 <circle style="opacity:0.2" cx="12" cy="12.5" r="10"/>
 <circle style="fill:#7a7a7a" cx="12" cy="12" r="10"/>
 <path style="opacity:0.2;fill:#8b9cbe" d="M 12,2 A 10,10 0 0 0 2,12 10,10 0 0 0 2.0107422,12.291016 10,10 0 0 1 12,2.5 10,10 0 0 1 21.989258,12.208985 10,10 0 0 0 22,12 10,10 0 0 0 12,2 Z"/>
 <path style="fill:#ff6c40" d="m 10.890156,6.692383 -0.186524,0.3847655 c -0.266564,0.55065 -0.238097,0.956298 0.119141,1.729492 0.240681,0.5209205 0.23604,0.927043 0.232227,1.3133365 -0.11405,0.908467 -0.613494,1.785684 -1.347926,1.8935 -0.646401,0.09489 -1.639807,-0.708887 -1.9248045,-1.254516 -0.2840675,-0.543849 -0.383292,-0.0847 -0.152344,0.705078 0.074079,0.253331 0.3084745,0.96205 0.520508,1.451781 0.6473505,1.495182 0.5241525,2.312979 -0.2773865,2.553125 -0.4396015,0.131708 -0.9040495,0.0039 -1.322266,-0.363281 -0.164037,-0.144027 -0.32596,-0.234367 -0.359375,-0.201172 -0.033435,0.0332 -0.079218,0.445318 -0.102539,0.916016 -0.1962265,1.546348 1.0248385,2.136834 2.2228,2.804834 0.634468,0.349173 1.3252905,0.611206 2.059427,0.774072 0.429797,0.09535 0.932948,0.12404 1.823242,0.103515 1.105394,-0.02549 1.310932,-0.05567 2.035156,-0.293945 1.356441,-0.446285 2.517549,-1.226341 3.406624,-2.217096 0.378406,-0.444149 0.489779,-0.764808 0.609978,-1.231146 0.11707,-0.673706 0.162759,-1.483399 0.08398,-1.483398 -0.0435,0 -0.266395,0.190622 -0.496094,0.423828 -0.297992,0.302542 -0.483841,0.423828 -0.648437,0.423828 -0.3231,0 -0.61813,-0.228563 -0.391844,-0.728515 0.303564,-0.670691 0.265345,-1.288739 -0.129883,-2.083985 -0.177668,-0.357489 -0.396637,-0.716682 -0.486328,-0.797851 -0.159282,-0.144148 -0.162624,-0.135016 -0.163086,0.395507 -9e-4,1.042338 -0.272118,1.527685 -1.037109,1.859375 -0.626831,0.271789 -1.585301,0.291076 -2.019289,0.03613 -0.656911,-0.385899 -0.657727,-0.793578 -0.001,-2.390625 C 13.115172,11.030429 13.225922,10.750108 13.3027,10.52791 13.552556,9.843541 13.470654,9.165594 13.099587,8.808596 12.878988,8.5971765 12.528788,8.381572 12.21875,8.265625 11.571534,8.0235825 11.154324,7.744571 11.006367,7.15625 Z"/>
 <circle style="opacity:0.2;fill:none;stroke:#000000;stroke-width:2;stroke-linecap:round;stroke-linejoin:round" cx="12" cy="12.5" r="7"/>
 <circle style="fill:none;stroke:#8b9cbe;stroke-width:2;stroke-linecap:round;stroke-linejoin:round" cx="12" cy="12" r="7"/>
</svg>
