<svg xmlns="http://www.w3.org/2000/svg" width="24" height="24" version="1">
 <path style="opacity:0.2" d="m 11.499691,1.5000262 c -0.550024,0 -1.100415,0.2050103 -1.5115723,0.6161571 L 1.616148,10.489088 c -0.82231353,0.822292 -0.82114698,2.198407 0.0012,3.0207 l 8.3719707,8.372904 c 0.8223133,0.822294 2.1996543,0.82346 3.0219683,0.0012 l 8.371978,-8.372896 c 0.822313,-0.822294 0.822313,-2.199587 0,-3.021879 l -8.372,-8.3729199 C 12.600108,1.7050503 12.049716,1.5000398 11.499691,1.5000399 Z"/>
 <path style="fill:#b2bfd9" d="m 11.499691,1.000027 c -0.550024,0 -1.100415,0.2050103 -1.5115723,0.616157 L 1.616148,9.9890881 c -0.82231353,0.8222929 -0.82114698,2.1984069 0.0012,3.0207009 l 8.3719707,8.372904 c 0.8223133,0.822293 2.1996543,0.82346 3.0219683,0.0012 l 8.371978,-8.372897 c 0.822313,-0.822293 0.822313,-2.199586 0,-3.0218789 l -8.372,-8.3729193 C 12.600108,1.2050511 12.049716,1.0000406 11.499691,1.0000407 Z"/>
 <path style="opacity:0.1" d="M 11.308594,2.9344608 A 0.75007405,0.75007405 0 0 0 10.79297,3.161023 L 7.6113327,6.3426597 a 0.75007405,0.75007405 0 0 0 0,1.0605457 l 2.1210914,2.1220673 a 0.75007405,0.75007405 0 0 0 1.0605459,0 l 2.651363,-2.6523401 1.060546,1.0615221 -1.414061,1.4140607 a 0.75007405,0.75007405 0 1 0 1.060545,1.0605456 l 1.944334,-1.9443334 a 0.75007405,0.75007405 0 0 0 0,-1.0615222 L 13.974606,5.2821141 a 0.75007405,0.75007405 0 0 0 -1.060545,0 L 10.262697,7.9344547 9.2021512,6.8729326 11.853515,4.2215686 A 0.75007405,0.75007405 0 0 0 11.308594,2.9344608 Z M 6.1855535,8.0682436 A 0.75007405,0.75007405 0 0 0 5.6660227,8.2879698 L 2.4843862,11.469606 a 0.75007405,0.75007405 0 1 0 1.0605456,1.060546 L 6.1962955,9.8787878 7.2578177,10.939333 4.6054775,13.590698 a 0.75007405,0.75007405 0 0 0 0,1.060545 l 2.1210908,2.122068 A 0.75060983,0.75060983 0 1 0 7.7880905,15.711788 L 6.1962955,14.12097 8.8486362,11.469606 a 0.75007405,0.75007405 0 0 0 0,-1.060545 L 6.7265683,8.2879698 A 0.75007405,0.75007405 0 0 0 6.1855535,8.0682436 Z M 17.000969,8.7215627 c -0.26833,-0.01271 -0.531669,0.077569 -0.727538,0.2734372 l -1.768552,1.7675761 3.712886,3.711909 c 0.06146,0.06146 0.109191,0.130769 0.151367,0.202149 l 1.792966,-1.792967 c 0.391737,-0.391737 0.360598,-1.053463 -0.07031,-1.484373 L 17.757804,9.0653123 C 17.542349,8.8498571 17.2693,8.7342747 17.000969,8.7215627 Z M 12.2041,10.535037 a 0.75007405,0.75007405 0 0 0 -0.51953,0.219727 L 8.5019566,13.9364 a 0.75060952,0.75060952 0 1 0 1.0615222,1.061522 l 2.6513642,-2.65234 1.060545,1.060545 -2.651364,2.652341 a 0.75007405,0.75007405 0 0 0 -0.002,1.058592 l 2.113279,2.128904 a 0.75007405,0.75007405 0 0 0 1.062498,0.002 L 16.980465,16.0653 a 0.75026418,0.75026418 0 1 0 -1.061522,-1.060545 l -2.649411,2.650387 -1.05664,-1.064451 2.653318,-2.654294 a 0.75007405,0.75007405 0 0 0 0,-1.060546 l -2.121092,-2.12109 a 0.75007405,0.75007405 0 0 0 -0.541015,-0.219727 z m -3.3554638,5.883782 -0.7070306,0.708007 c -0.3917365,0.391737 -0.3605981,1.053462 0.070312,1.484373 L 10.5459,20.94518 c 0.43091,0.430911 1.092636,0.462049 1.484373,0.07031 l 0.732421,-0.732421 c -0.07138,-0.04218 -0.140689,-0.08991 -0.202149,-0.151367 z"/>
 <path style="fill:none;stroke:#5092ff;stroke-width:1.49999809;stroke-linecap:round;stroke-linejoin:round" d="M 3.0147257,11.500014 6.1967025,8.3180372 8.3180198,10.439355 5.1360433,13.621332 7.2573612,15.742649"/>
 <path style="fill:none;stroke:#4b70e1;stroke-width:1.49999809;stroke-linecap:round;stroke-linejoin:round" d="M 11.32322,3.1915194 8.1412436,6.3734962 10.262561,8.4948135 13.444538,5.312837 15.565855,7.4341549 13.621314,9.3786959"/>
 <path style="fill:none;stroke:#744dec;stroke-width:1.49999809;stroke-linecap:round;stroke-linejoin:round" d="m 9.0326789,13.967331 3.1819771,-3.181976 2.121317,2.121317 -3.181976,3.181977 2.113764,2.128871 3.181977,-3.181977"/>
 <path style="fill:#283d8a" d="m 8.1412436,16.626531 c -0.3917365,0.391737 -0.3604761,1.053736 0.070434,1.484647 l 2.3340024,2.334001 c 0.43091,0.430911 1.092909,0.462171 1.484646,0.07043 l 0.731965,-0.731965 c -0.07138,-0.04218 -0.140176,-0.09046 -0.201636,-0.151918 l -3.7123058,-3.7123 z m 6.3639534,-6.363953 3.712305,3.712307 c 0.06146,0.06146 0.109743,0.130255 0.151919,0.201634 l 1.792622,-1.792623 C 20.55378,11.99216 20.522519,11.33016 20.091609,10.89925 L 17.757607,8.5652484 C 17.326697,8.134338 16.664698,8.103077 16.272961,8.4948135 Z"/>
 <path style="opacity:0.2;fill:#8b9cbe" d="m 11.5,1.000027 c -0.550024,0 -1.10056,0.2050634 -1.5117173,0.6162101 L 1.6162232,9.9892736 C 1.1431504,10.462334 0.95187622,11.117353 1.0234505,11.746107 1.0769248,11.28423 1.268602,10.836885 1.6162232,10.489273 L 9.9882827,2.1162365 C 10.39944,1.7050898 10.949976,1.5000264 11.5,1.5000263 c 0.550025,-1e-7 1.10056,0.2050635 1.511717,0.6162102 L 21.3828,10.489273 c 0.348499,0.34849 0.54064,0.797376 0.593749,1.26074 C 22.048756,11.12003 21.856614,10.463076 21.3828,9.9892736 L 13.011717,1.6162371 C 12.60056,1.2050904 12.050025,1.0000268 11.5,1.000027 Z"/>
</svg>
