<svg xmlns="http://www.w3.org/2000/svg" width="24" height="24" version="1.1">
 <rect style="opacity:0.2" width="16" height="20" x="4" y="2.5" rx="1" ry="1"/>
 <rect style="fill:#3d65c2" width="16" height="20" x="4" y="2" rx="1" ry="1"/>
 <path style="opacity:0.2" d="M 5,2 H 7 V 22 H 5 C 4.446,22 4,21.554 4,21 V 3 C 4,2.446 4.446,2 5,2 Z"/>
 <path style="opacity:0.2" d="M 12,5.5 V 8.5 H 9 V 11.5 H 12 V 19.5 H 15 V 11.5 H 18 V 8.5 H 15 V 5.5 Z"/>
 <path style="fill:#ffd972" d="M 12,5 V 8 H 9 V 11 H 12 V 19 H 15 V 11 H 18 V 8 H 15 V 5 Z"/>
 <path style="opacity:0.1;fill:#8b9cbe" d="M 5 2 C 4.446 2 4 2.446 4 3 L 4 3.5 C 4 2.946 4.446 2.5 5 2.5 L 19 2.5 C 19.554 2.5 20 2.946 20 3.5 L 20 3 C 20 2.446 19.554 2 19 2 L 5 2 z"/>
</svg>
