<svg xmlns="http://www.w3.org/2000/svg" width="24" height="24" version="1">
 <circle style="opacity:0.2" cx="6" cy="7.5" r="4"/>
 <circle style="fill:#8d533f" cx="6" cy="7" r="4"/>
 <path style="opacity:0.2" d="m 5.622199,3.0214798 a 4,4 0 0 0 -1.4475998,0.41992 c 0.0202,0.06402 -0.0034,0.13624 -0.077,0.2 -0.0498,0.04316 -0.0906,0.11038 -0.0906,0.14962 0,0.11994 0.1084,0.3040999 0.195,0.33086 0.115,0.0356 0.0764,0.15832 -0.0716,0.22612 -0.0684,0.0314 -0.1526,0.1218 -0.187,0.2008 -0.0346,0.0792 -0.0854,0.1571999 -0.113,0.1734 -0.0274,0.0164 -0.05,0.0782 -0.05,0.1376 0,0.083 0.038,0.1231999 0.1626,0.1730002 0.0892,0.0358 0.196,0.0618 0.2374,0.0578 0.2382,-0.0224 0.2548,0.1164 0.0466,0.3876 -0.1106,0.144 -0.1638,0.1802 -0.2392,0.162 -0.0702,-0.0168 -0.1086,0.003 -0.1406,0.0726 -0.0336,0.0738 -0.0888,0.0988 -0.237,0.109 -0.1458,0.0102 -0.211,0.0398 -0.2656,0.1196 -0.04,0.0582 -0.0976,0.1054 -0.1282,0.1054 -0.03068,0 -0.10272,0.0392 -0.16016,0.0868 -0.11688,0.097 -0.16252,0.1068 -0.2035,0.0434 -0.05416,-0.084 -0.17102,-0.0416 -0.34492,0.125 -0.1538,0.1472 -0.17242,0.1866 -0.14922,0.3144 0.04128,0.2274 0.16462,0.4292 0.30546,0.4996 0.1229,0.0614 0.1253,0.068 0.05078,0.1468 -0.04286,0.0454 -0.1164,0.094 -0.16328,0.1081995 -0.1354,0.0412 -0.05918,0.0928 0.18242,0.1236005 0.24728,0.0314 0.32412,0.1209995 0.2086,0.2432 -0.06442,0.0682 -0.0608,0.081 0.04258,0.1458 0.202,0.1268 0.36264,0.0492 0.17304,-0.0836 -0.12186,-0.0854 -0.03664,-0.1202 0.1422,-0.0582 0.1426,0.0494 0.1708,0.0466 0.255,-0.0266 0.173,-0.1498 0.361,0.0718 0.2028,0.239 -0.1006,0.1066 -0.0702,0.2349995 0.0602,0.2528 0.0576,0.0078 0.1772,0.0614 0.266,0.1192 0.0888,0.0576 0.1856,0.105 0.2148,0.105 0.0292,0 0.1116,0.058599 0.1832,0.1302 0.1452,0.145 0.2258,0.1634 0.2668,0.0612 0.0492,-0.1228 0.0294,-0.1862 -0.1032,-0.3308 -0.1054,-0.1152 -0.2768,-0.4212 -0.2768,-0.4946 0,-0.0452 0.1742,-0.0068 0.2718,0.0598 0.061,0.0418 0.1598,0.0956 0.2196,0.12 0.0636,0.026 0.1296,0.1068 0.1597998,0.1952 0.047,0.1388 0.0656,0.1508 0.232,0.1508 h 0.1808 l 0.0274,0.3249995 c 0.0328,0.391 0.0642,0.4702 0.1984,0.5024 0.0988,0.0238 0.2042,0.1768 0.2042,0.2964 0,0.0318 -0.071,0.1098 -0.1578,0.1732 -0.1076,0.078601 -0.154,0.1454 -0.1468,0.2108 0.009,0.0818 -0.0096,0.0946 -0.1254,0.086001 -0.0746,-0.0056 -0.2042,0.0206 -0.2874,0.058199 -0.0986,0.044402 -0.2053998,0.058602 -0.3055998,0.040602 -0.1152,-0.020601 -0.1542,-0.0126 -0.1542,0.0324 0,0.0332 -0.0404,0.0952 -0.0896,0.137999 -0.1216,0.1054 -0.0714,0.1612 0.1154,0.1276 0.116,-0.0208 0.1612,-0.0116 0.1812,0.0384 0.0426,0.1062 -0.0654,0.2582 -0.1656,0.2332 -0.0636,-0.016 -0.094,0.0058 -0.1138,0.0808 -0.0068,0.0266 -0.0194,0.0492 -0.0344,0.0684 a 4,4 0 0 0 0.6329998,0.187 c -0.02,-0.0382 -0.0428,-0.073 -0.065,-0.0886 -0.103,-0.0728 -0.034,-0.262 0.1078,-0.296 0.1446,-0.0348 0.1218,-0.1286 -0.0354,-0.1466 -0.1378,-0.0156 -0.2843998,-0.1552 -0.2383998,-0.2266 0.031,-0.0478 0.1627998,-0.0408 0.4293998,0.0224 0.1204,0.0284 0.2026,-0.0288 0.4816,-0.334 0.1614,-0.1768 0.2856,-0.2504005 0.4218,-0.2504005 0.052,0 0.2374,-0.0478 0.4122,-0.1061995 0.33,-0.1106 0.459,-0.1066005 0.4468,0.014 -0.0252,0.2507995 0.1362,0.2424 0.3992,-0.0204 0.1096,-0.1094 0.2098,-0.1886 0.2228,-0.1762 0.0502,0.0482 -0.0402,0.2828 -0.1458,0.3778 -0.1338,0.1204 -0.1404,0.1964 -0.0226,0.2566 0.0644,0.0332 0.0918,0.1002 0.102,0.2508 l 0.0136,0.2056 h 0.1672 c 0.0586,0 0.1072,0.008 0.1464,0.023 a 4,4 0 0 0 1.938,-3.3012 c -0.0612,-0.1308 -0.0568,-0.2098 0,-0.2988 a 4,4 0 0 0 -0.018,-0.2242 c -0.0364,-0.0018 -0.0736,-0.0034 -0.1164,-0.0016 -0.2016,0.0084 -0.3742,-0.071 -0.3742,-0.1722 0,-0.0214 -0.0716,-0.1096 -0.159,-0.1958 -0.0992,-0.0976 -0.15,-0.184 -0.1352,-0.2288 0.0136,-0.0408 -0.0156,-0.1066 -0.0672,-0.1512 -0.0502,-0.0436 -0.0914,-0.1136 -0.0914,-0.1556 0,-0.067 -0.0426,-0.0754 -0.3508,-0.068 l -0.3508,0.0086 0.006,0.3458 c 0.0104,0.6056 0.1006,0.7628 0.3788,0.6614 0.1274,-0.0466 0.4404,-0.0114 0.5294,0.0592 0.0322,0.0256 0.0788,0.1184 0.1034,0.2064 0.0248,0.0878 0.1164,0.24 0.204,0.3378 0.1772,0.1984 0.191,0.2758 0.0894,0.5086 -0.0886,0.2032 -0.1842,0.1798 -0.1652,-0.0406 l 0.014,-0.164 -0.15,0.028 c -0.083,0.0158 -0.187,0.077 -0.2336,0.1376 -0.0664,0.0862 -0.0974,0.0988 -0.1472,0.0594 -0.0348,-0.0276 -0.063,-0.0858 -0.063,-0.129 0,-0.0432 -0.0428,-0.0912 -0.0948,-0.107 -0.0522,-0.0158 -0.1236,-0.0944 -0.1586,-0.175 -0.0562,-0.1288 -0.0548,-0.1682 0.0106,-0.3246 0.0662,-0.1586 0.0668,-0.1848 0.0058,-0.2434 -0.056,-0.0536 -0.085,-0.0554 -0.1586,-0.0112 -0.074,0.0442 -0.109,0.041 -0.197,-0.018 -0.0586,-0.0394 -0.1612,-0.072 -0.2276,-0.072 -0.135,0 -0.1758,-0.0656 -0.1758,-0.2828 0,-0.2006 -0.1196,-0.2734 -0.4044,-0.2472 -0.1976,0.0182 -0.2412,0.0052 -0.4006,-0.1176 -0.0986,-0.0758 -0.2542,-0.2582 -0.3462,-0.4058 -0.092,-0.1476 -0.191,-0.3018 -0.22,-0.3426 -0.0416,-0.059 -0.0314,-0.1156 0.05,-0.2762 l 0.1028,-0.2020002 -0.2172,0.0294 c -0.3864,0.0522 -0.4646,0.1022 -0.2984,0.1914002 0.0648,0.0346 0.0676,0.0524 0.0176,0.1101995 -0.0328,0.0376 -0.0482,0.0974 -0.034,0.1328005 0.0142,0.0352 -0.0038,0.1184 -0.0398,0.1846 -0.0362,0.0664 -0.0664,0.1594 -0.0676,0.2072 -0.0038,0.149 -0.259,0.2676 -0.5434,0.2518 -0.4308,-0.0238 -0.4658,-0.017 -0.6187998,0.125 -0.1912,0.1776 -0.2158,0.2602 -0.1268,0.425 0.0862,0.16 0.2394,0.2238 0.5045998,0.2106 0.2372,-0.0118 0.264,0.0092 0.2098,0.166 -0.0462,0.1332 -0.201,0.1844 -0.306,0.1012 -0.0808,-0.0642 -0.3593998,-0.0146 -0.4447998,0.0794 -0.0358,0.0392 -0.089,0.1424 -0.118,0.2288 -0.05,0.1492 -0.0646,0.1584 -0.2886,0.18 -0.2236,0.0218 -0.2452,0.0146 -0.406,-0.1336 -0.1794,-0.1652 -0.2098,-0.2916 -0.1234,-0.5092 0.0384,-0.0964 0.0668,-0.1122 0.1692,-0.0934 0.2028,0.037 0.2828,-0.0334 0.2828,-0.25 0,-0.105 -0.0204,-0.2032 -0.0454,-0.218 -0.0248,-0.0148 -0.0452,-0.0704 -0.0452,-0.1238 0,-0.0534 -0.0256,-0.1222 -0.0566,-0.1524 -0.0454,-0.044 -0.0388,-0.0676 0.0336,-0.1188 0.0496,-0.035 0.1312,-0.0586 0.1812,-0.0526 0.0498,0.006 0.1876,-0.0156 0.3062,-0.0478 0.1714,-0.0462 0.2218,-0.0812 0.245,-0.1714 0.044,-0.1712005 0.1513998,-0.3086005 0.2413998,-0.3086005 0.1422,0 0.1452,-0.3343997 0.007,-0.8207997 -0.0204,-0.0718 -0.0766,-0.1174 -0.1757998,-0.142 -0.0804,-0.02 -0.1678,-0.0748 -0.1942,-0.12196 -0.0262,-0.04716 -0.0744,-0.08556 -0.107,-0.08556 -0.0326,0 -0.0964,-0.03904 -0.1414,-0.08672 -0.0454,-0.048 -0.1392,-0.08672 -0.2106,-0.08672 -0.169,0 -0.1718,-0.11636 -0.0042,-0.17772 0.177,-0.06488 0.4526,0.02016 0.5192,0.16014 0.0902,0.18982 0.1904,0.11062 0.2225998,-0.17616 0.0398,-0.3547 0.1622,-0.45664 0.548,-0.45664 h 0.2774 l -0.1216,-0.12148 c -0.0378,-0.03792 -0.0692,-0.08426 -0.091,-0.1297 z m 1.438,0.12578 c -0.0078,0.00704 -0.0154,0.0128 -0.023,0.0207 -0.0928,0.09472 -0.1364,0.10822 -0.2798,0.08634 -0.2504,-0.03818 -0.2182,0.06264 0.059,0.18438 0.1498,0.06582 0.2462,0.14086 0.279,0.21678 0.158,0.36632 0.2668,0.5635399 0.3214,0.5835399 0.1104,0.0406 0.1762,-0.04088 0.2008,-0.2491599 0.0282,-0.2389601 0.109,-0.2896201 0.2542,-0.1589801 0.0564,0.0507 0.1352,0.09218 0.175,0.09218 0.1242,0 0.216,0.04986 0.216,0.1172 0,0.03548 0.042,0.12098 0.0934,0.19016 0.0758,0.1018 0.1272,0.1262 0.2688,0.1262 0.1738,0 0.2804,0.0326 0.498,0.1528 0.0034,0.0018 0.0068,0.0024 0.0102,0.0042 a 4,4 0 0 0 -2.073,-1.3663399 z M 2.0007992,6.98286 a 4,4 0 0 0 -7.8e-4,0.0172 4,4 0 0 0 0.07812,0.7684 c 0.14492,0.059 0.18496,0.0356 0.2,-0.0992 0.00778,-0.0698 0.04422,-0.1488 0.08126,-0.1762 0.05722,-0.0422 0.0469,-0.0638 -0.07032,-0.1438 -0.07588,-0.0518 -0.15066,-0.1422 -0.16602,-0.2008 -0.01488,-0.0568 -0.0652,-0.1188005 -0.12226,-0.1656 z m 1.25902,1.3222 c -0.0374,-0.0038 -0.08246,0.0162 -0.13246,0.0642 -0.10578,0.1011995 -0.0898,0.3046 0.03008,0.3849995 0.13738,0.0922 0.19038,0.0654 0.20778,-0.1046 0.0214,-0.2096 -0.0234,-0.336 -0.1054,-0.3445995 z m 0.6788,0.6048 c -0.0408,0.0014 -0.0858,0.0306 -0.1308,0.0922 -0.0478,0.0652 -0.0608,0.1494 -0.0426,0.2772 0.0226,0.1572 0.0128,0.1908 -0.0694,0.2329995 -0.1058,0.054 -0.1284,0.2148 -0.0418,0.2976005 0.086,0.0824 0.168,0.0608 0.1976,-0.052 0.042,-0.1608 0.2774,-0.1796 0.4382,-0.0352 0.0686,0.0616 0.1246,0.0928 0.1246,0.0692 0,-0.0236 -0.0714,-0.1093995 -0.1586,-0.1902 -0.1334,-0.1239995 -0.1582,-0.1768 -0.1582,-0.3364 0,-0.2252 -0.069,-0.3582 -0.159,-0.3554 z m -1.11478,0.5164 a 4,4 0 0 0 0.09258,0.1168 c -0.02726,-0.0422 -0.05838,-0.0826 -0.09258,-0.1168 z m 1.34798,0.613999 c -0.0202,0.007 -0.0288,0.0324 -0.0288,0.077 0,0.0452 -0.0288,0.0926 -0.064,0.1054 -0.0468,0.0172 -0.0576,0.0714 -0.0396,0.200801 0.0034,0.0242 0.0044,0.0436 0.0056,0.0638 a 4,4 0 0 0 0.1664,0.0854 c -0.0028,-0.0692 0.0098,-0.1506 0.046,-0.252601 0.0614,-0.173199 0.0636,-0.216599 0.0136,-0.247 -0.0468,-0.0284 -0.0788,-0.0398 -0.0992,-0.0328 z"/>
 <circle style="opacity:0.2" cx="12" cy="12.5" r="9"/>
 <path style="opacity:0.1;fill:#8b9cbe" d="M 6,3 A 4,4 0 0 0 2,7 4,4 0 0 0 2.0107422,7.288086 4,4 0 0 1 6,3.5 4,4 0 0 1 9.989258,7.211914 4,4 0 0 0 10,7 4,4 0 0 0 6,3 Z"/>
 <circle style="fill:#bb694b" cx="12" cy="12" r="9"/>
 <path style="opacity:0.2" d="m 11.149948,3.0483294 a 9,9 0 0 0 -3.2571,0.94482 c 0.04545,0.144045 -0.00765,0.30654 -0.17325,0.45 -0.11205,0.09711 -0.20385,0.248355 -0.20385,0.336645 0,0.2698651 0.2439,0.6842251 0.43875,0.7444351 0.25875,0.0801 0.1719,0.35622 -0.1611,0.50877 -0.1539,0.07065 -0.34335,0.27405 -0.42075,0.4518 -0.07785,0.1782 -0.19215,0.3537 -0.25425,0.39015 -0.06165,0.0369 -0.1125,0.17595 -0.1125,0.3096 0,0.18675 0.0855,0.2772 0.36585,0.38925 0.2007,0.08055 0.441,0.13905 0.53415,0.13005 0.53595,-0.0504 0.5733,0.2619 0.10485,0.8721 -0.24885,0.324 -0.36855,0.40545 -0.5382,0.3645 -0.15795,-0.0378 -0.24435,0.00675 -0.31635,0.16335 -0.0756,0.16605 -0.1998,0.2223 -0.53325,0.24525 -0.32805,0.02295 -0.47475,0.08955 -0.5976,0.2691 -0.09,0.13095 -0.2196,0.23715 -0.28845,0.23715 -0.06903,0 -0.23112,0.0882 -0.36036,0.1952995 -0.26298,0.21825 -0.36567,0.2403 -0.4578748,0.09765 -0.12186,-0.1889995 -0.384795,-0.0936 -0.77607,0.28125 -0.34605,0.3312 -0.387945,0.41985 -0.335745,0.7074 0.09288,0.51165 0.370395,0.9657 0.687285,1.1241 0.276525,0.13815 0.281925,0.153 0.114255,0.3303 -0.096435,0.10215 -0.2619,0.2115 -0.36738,0.24345 -0.30465,0.0927 -0.133155,0.2088 0.410445,0.2781 0.5563798,0.07065 0.7292698,0.27225 0.4693498,0.5472 -0.1449448,0.15345 -0.1367998,0.18225 0.095805,0.32805 0.4545,0.2853 0.81594,0.1107 0.38934,-0.1881 -0.274185,-0.19215 -0.08244,-0.27045 0.31995,-0.13095 0.32085,0.11115 0.3843,0.10485 0.57375,-0.05985 0.38925,-0.33705 0.81225,0.16155 0.4563,0.53775 -0.22635,0.23985 -0.15795,0.52875 0.13545,0.5688 0.1296,0.01755 0.3987,0.13815 0.5985,0.2682 0.1998,0.1296 0.4176,0.23625 0.4833,0.23625 0.0657,0 0.2511,0.13185 0.4122,0.29295 0.3267,0.32625 0.50805,0.36765 0.6003,0.1377 0.1107,-0.2763 0.06615,-0.41895 -0.2322,-0.7443 -0.23715,-0.2592 -0.6228,-0.9477 -0.6228,-1.11285 0,-0.1017 0.39195,-0.0153 0.61155,0.13455 0.13725,0.09405 0.35955,0.2151 0.4941,0.27 0.1431,0.0585 0.2916,0.2403 0.35955,0.4392 0.10575,0.3123 0.1476,0.3393 0.522,0.3393 h 0.4068 l 0.06165,0.73125 c 0.0738,0.87975 0.14445,1.05795 0.4464,1.1304 0.2223,0.05355 0.45945,0.3978 0.45945,0.6669 0,0.07155 -0.15975,0.24705 -0.35505,0.3897 -0.2421,0.17685 -0.3465,0.32715 -0.3303,0.4743 0.02025,0.18405 -0.0216,0.21285 -0.28215,0.1935 -0.16785,-0.0126 -0.45945,0.04635 -0.64665,0.13095 -0.22185,0.0999 -0.46215,0.13185 -0.6876,0.09135 -0.2592,-0.04635 -0.34695,-0.02835 -0.34695,0.0729 0,0.0747 -0.0909,0.2142 -0.2016,0.3105 -0.2736,0.23715 -0.16065,0.3627 0.25965,0.2871 0.261,-0.0468 0.3627,-0.0261 0.4077,0.0864 0.09585,0.23895 -0.14715,0.58095 -0.3726,0.5247 -0.1431,-0.036 -0.2115,0.01305 -0.25605,0.1818 -0.0153,0.05985 -0.04365,0.1107 -0.0774,0.1539 a 9,9 0 0 0 1.42425,0.42075 c -0.045,-0.08595 -0.0963,-0.16425 -0.14625,-0.19935 -0.23175,-0.1638 -0.0765,-0.5895 0.24255,-0.666 0.32535,-0.0783 0.27405,-0.28935 -0.07965,-0.32985 -0.31005,-0.0351 -0.6399,-0.3492 -0.5364,-0.50985 0.06975,-0.10755 0.3663,-0.0918 0.96615,0.0504 0.2709,0.0639 0.45585,-0.0648 1.0836,-0.7515 0.36315,-0.3978 0.6426,-0.5634 0.94905,-0.5634 0.117,0 0.53415,-0.10755 0.92745,-0.23895 0.7425,-0.24885 1.03275,-0.23985 1.0053,0.0315 -0.0567,0.5643 0.30645,0.5454 0.8982,-0.0459 0.2466,-0.24615 0.47205,-0.42435 0.5013,-0.39645 0.11295,0.10845 -0.09045,0.6363 -0.32805,0.85005 -0.30105,0.2709 -0.3159,0.4419 -0.05085,0.57735 0.1449,0.0747 0.20655,0.22545 0.2295,0.5643 l 0.0306,0.4626 h 0.3762 c 0.13185,0 0.2412,0.018 0.3294,0.05175 a 9,9 0 0 0 4.3605,-7.4277 c -0.1377,-0.2943 -0.1278,-0.47205 0,-0.6723 a 9,9 0 0 0 -0.0405,-0.50445 c -0.0819,-0.004 -0.1656,-0.0076 -0.2619,-0.0036 -0.4536,0.0189 -0.84195,-0.15975 -0.84195,-0.38745 0,-0.04815 -0.1611,-0.2466 -0.35775,-0.44055 -0.2232,-0.2196 -0.3375,-0.4139995 -0.3042,-0.5147995 0.0306,-0.0918 -0.0351,-0.23985 -0.1512,-0.3402 -0.11295,-0.0981 -0.20565,-0.2556 -0.20565,-0.3501 0,-0.15075 -0.09585,-0.16965 -0.7893,-0.153 l -0.7893,0.01935 0.0135,0.77805 c 0.0234,1.3625995 0.22635,1.7162995 0.8523,1.4881495 0.28665,-0.10485 0.9909,-0.02565 1.19115,0.1332 0.07245,0.0576 0.1773,0.2664 0.23265,0.4644 0.0558,0.19755 0.2619,0.54 0.459,0.76005 0.3987,0.4464 0.42975,0.62055 0.20115,1.14435 -0.19935,0.4572 -0.41445,0.40455 -0.3717,-0.09135 l 0.0315,-0.369 -0.3375,0.063 c -0.18675,0.03555 -0.42075,0.17325 -0.5256,0.3096 -0.1494,0.19395 -0.21915,0.2223 -0.3312,0.13365 -0.0783,-0.0621 -0.14175,-0.19305 -0.14175,-0.29025 0,-0.0972 -0.0963,-0.2052 -0.2133,-0.24075 -0.11745,-0.03555 -0.2781,-0.2124 -0.35685,-0.39375 -0.12645,-0.2898 -0.1233,-0.37845 0.02385,-0.73035 0.14895,-0.35685 0.1503,-0.4158 0.01305,-0.54765 -0.126,-0.1206 -0.19125,-0.12465 -0.35685,-0.0252 -0.1665,0.09945 -0.24525,0.09225 -0.44325,-0.0405 -0.13185,-0.08865 -0.3627,-0.162 -0.5121,-0.162 -0.30375,0 -0.39555,-0.1476 -0.39555,-0.6363 0,-0.45135 -0.2691,-0.61515 -0.9099,-0.5562 -0.4446,0.04095 -0.5427,0.0117 -0.90135,-0.2645995 -0.22185,-0.17055 -0.57195,-0.58095 -0.77895,-0.91305 -0.207,-0.3321 -0.42975,-0.67905 -0.495,-0.77085 -0.0936,-0.13275 -0.07065,-0.2601 0.1125,-0.62145 l 0.2313,-0.4545 -0.4887,0.06615 c -0.8694,0.11745 -1.04535,0.22995 -0.6714,0.43065 0.1458,0.07785 0.1521,0.1179 0.0396,0.24795 -0.0738,0.0846 -0.10845,0.21915 -0.0765,0.2988 0.03195,0.0792 -0.0085,0.2664 -0.08955,0.41535 -0.08145,0.1494 -0.1494,0.35865 -0.1521,0.4662 -0.0085,0.33525 -0.58275,0.6021 -1.22265,0.56655 -0.9693,-0.05355 -1.04805,-0.03825 -1.3923,0.28125 -0.4302,0.3995995 -0.48555,0.5854495 -0.2853,0.9562495 0.19395,0.36 0.53865,0.50355 1.13535,0.47385 0.5337,-0.02655 0.594,0.0207 0.47205,0.3735 -0.10395,0.2997 -0.45225,0.4149 -0.6885,0.2277 -0.1818,-0.14445 -0.80865,-0.03285 -1.0008,0.17865 -0.08055,0.0882 -0.20025,0.3204 -0.2655,0.5148 -0.1125,0.3357 -0.14535,0.3564 -0.64935,0.405 -0.5031,0.04905 -0.5517,0.03285 -0.9135,-0.3006 -0.40365,-0.3717 -0.47205,-0.6561 -0.27765,-1.1457 0.0864,-0.2169 0.1503,-0.25245 0.3807,-0.21015 0.4563,0.08325 0.6363,-0.07515 0.6363,-0.5625 0,-0.23625 -0.0459,-0.4572 -0.10215,-0.4905 -0.0558,-0.0333 -0.1017,-0.1584 -0.1017,-0.27855 0,-0.1201495 -0.0576,-0.2749495 -0.12735,-0.3428995 -0.10215,-0.099 -0.0873,-0.1521 0.0756,-0.2673 0.1116,-0.07875 0.2952,-0.13185 0.4077,-0.11835 0.11205,0.0135 0.4221,-0.0351 0.68895,-0.10755 0.38565,-0.10395 0.49905,-0.1827 0.55125,-0.38565 0.099,-0.3852 0.34065,-0.69435 0.54315,-0.69435 0.31995,0 0.3267,-0.7524 0.01575,-1.8468 -0.0459,-0.16155 -0.17235,-0.26415 -0.39555,-0.3195 -0.1809,-0.045 -0.37755,-0.1683 -0.43695,-0.27441 -0.05895,-0.10611 -0.1674,-0.19251 -0.24075,-0.19251 -0.07335,0 -0.2169,-0.08784 -0.31815,-0.19512 -0.10215,-0.108 -0.3132,-0.19512 -0.47385,-0.19512 -0.38025,0 -0.38655,-0.2618101 -0.00945,-0.3998701 0.39825,-0.14598 1.01835,0.04536 1.1682,0.3603151 0.20295,0.427095 0.4284,0.248895 0.50085,-0.3963601 0.08955,-0.798075 0.36495,-1.02744 1.233,-1.02744 h 0.62415 l -0.2736,-0.27333 c -0.08505,-0.08532 -0.1557,-0.189585 -0.20475,-0.291825 z m 3.2355,0.283005 c -0.01755,0.01584 -0.03465,0.0288 -0.05175,0.046575 -0.2088,0.21312 -0.3069,0.243495 -0.62955,0.194265 -0.5634,-0.085905 -0.49095,0.14094 0.13275,0.414855 0.33705,0.148095 0.55395,0.316935 0.62775,0.487755 0.3555,0.8242201 0.6003,1.2679651 0.72315,1.3129651 0.2484,0.09135 0.39645,-0.09198 0.4518,-0.56061 0.06345,-0.5376601 0.24525,-0.6516451 0.57195,-0.3577051 0.1269,0.114075 0.3042,0.2074051 0.39375,0.2074051 0.27945,0 0.486,0.112185 0.486,0.2637 0,0.07983 0.0945,0.272205 0.21015,0.42786 0.17055,0.22905 0.2862,0.28395 0.6048,0.28395 0.39105,0 0.6309,0.07335 1.1205,0.3438 0.0076,0.00405 0.0153,0.0054 0.02295,0.00945 A 9,9 0 0 0 14.385448,3.3313344 Z M 3.0017982,11.961434 a 9,9 0 0 0 -0.00176,0.0387 9,9 0 0 0 0.17577,1.728899 c 0.32607,0.13275 0.41616,0.0801 0.45,-0.2232 0.017505,-0.15705 0.099495,-0.3348 0.182835,-0.39645 0.128745,-0.09495 0.105525,-0.143549 -0.15822,-0.323549 -0.17073,-0.11655 -0.338985,-0.31995 -0.373545,-0.4518 -0.03348,-0.127801 -0.1467,-0.267301 -0.275085,-0.372601 z m 2.8327948,2.97495 c -0.08415,-0.0085 -0.185535,0.03645 -0.298035,0.144451 -0.238005,0.2277 -0.20205,0.68535 0.06768,0.866249 0.309105,0.20745 0.428355,0.14715 0.467505,-0.23535 0.04815,-0.4716 -0.05265,-0.756 -0.23715,-0.77535 z m 1.5273,1.3608 c -0.0918,0.0032 -0.19305,0.06885 -0.2943,0.207451 -0.10755,0.146699 -0.1368,0.33615 -0.09585,0.623699 0.05085,0.3537 0.0288,0.429301 -0.15615,0.52425 -0.23805,0.1215 -0.2889,0.4833 -0.09405,0.6696 0.1935,0.1854 0.378,0.1368 0.4446,-0.117 0.0945,-0.3618 0.62415,-0.4041 0.98595,-0.0792 0.15435,0.1386 0.28035,0.2088 0.28035,0.1557 0,-0.0531 -0.16065,-0.24615 -0.35685,-0.42795 -0.30015,-0.279 -0.35595,-0.3978 -0.35595,-0.7569 0,-0.5067 -0.15525,-0.80595 -0.35775,-0.79965 z m -2.5082548,1.1619 a 9,9 0 0 0 0.2083048,0.2628 c -0.061335,-0.09495 -0.1313548,-0.18585 -0.2083048,-0.2628 z m 3.0329548,1.3815 c -0.04545,0.01575 -0.0648,0.0729 -0.0648,0.17325 0,0.1017 -0.0648,0.20835 -0.144,0.23715 -0.1053,0.0387 -0.1296,0.16065 -0.0891,0.4518 0.00765,0.05445 0.0099,0.0981 0.0126,0.14355 a 9,9 0 0 0 0.3744,0.19215 c -0.0063,-0.1557 0.02205,-0.33885 0.1035,-0.56835 0.13815,-0.3897 0.1431,-0.48735 0.0306,-0.55575 -0.1053,-0.0639 -0.1773,-0.08955 -0.2232,-0.0738 z"/>
 <circle style="opacity:0.2" cx="16" cy="14.5" r="3"/>
 <circle style="fill:#eea788" cx="16" cy="14" r="3"/>
 <path style="opacity:0.2" d="m 15.71665,11.01611 a 3,3 0 0 0 -1.0857,0.31494 c 0.01515,0.04802 -0.0026,0.10218 -0.05775,0.15 -0.03735,0.03237 -0.06795,0.08278 -0.06795,0.112215 0,0.08995 0.0813,0.228075 0.14625,0.248145 0.08625,0.0267 0.0573,0.11874 -0.0537,0.16959 -0.0513,0.02355 -0.11445,0.09135 -0.14025,0.1506 -0.02595,0.0594 -0.06405,0.1179 -0.08475,0.13005 -0.02055,0.0123 -0.0375,0.05865 -0.0375,0.1032 0,0.06225 0.0285,0.0924 0.12195,0.12975 0.0669,0.02685 0.147,0.04635 0.17805,0.04335 0.17865,-0.0168 0.1911,0.0873 0.03495,0.2907 -0.08295,0.108 -0.12285,0.13515 -0.1794,0.1215 -0.05265,-0.0126 -0.08145,0.0023 -0.10545,0.05445 -0.0252,0.05535 -0.0666,0.0741 -0.17775,0.08175 -0.10935,0.0076 -0.15825,0.02985 -0.1992,0.0897 -0.03,0.04365 -0.0732,0.07905 -0.09615,0.07905 -0.02301,0 -0.07704,0.0294 -0.12012,0.0651 -0.08766,0.07275 -0.12189,0.0801 -0.152625,0.03255 -0.04062,-0.063 -0.128265,-0.0312 -0.25869,0.09375 -0.11535,0.1104 -0.129315,0.139951 -0.111915,0.2358 0.03096,0.17055 0.123465,0.3219 0.229095,0.3747 0.09218,0.04605 0.09398,0.051 0.03809,0.1101 -0.03214,0.03405 -0.0873,0.0705 -0.12246,0.08115 -0.10155,0.0309 -0.04439,0.0696 0.136815,0.0927 0.18546,0.02355 0.24309,0.09075 0.15645,0.1824 -0.04831,0.05115 -0.0456,0.06075 0.03194,0.10935 0.1515,0.0951 0.27198,0.0369 0.12978,-0.0627 -0.0914,-0.06405 -0.02748,-0.09015 0.10665,-0.04365 0.10695,0.03705 0.1281,0.03495 0.19125,-0.01995 0.12975,-0.11235 0.27075,0.05385 0.1521,0.17925 -0.07545,0.07995 -0.05265,0.17625 0.04515,0.1896 0.0432,0.0059 0.1329,0.04605 0.1995,0.0894 0.0666,0.0432 0.1392,0.07875 0.1611,0.07875 0.0219,0 0.0837,0.04395 0.1374,0.09765 0.1089,0.10875 0.16935,0.12255 0.2001,0.0459 0.0369,-0.0921 0.02205,-0.13965 -0.0774,-0.2481 -0.07905,-0.0864 -0.2076,-0.3159 -0.2076,-0.37095 0,-0.0339 0.13065,-0.0051 0.20385,0.04485 0.04575,0.03135 0.11985,0.0717 0.1647,0.09 0.0477,0.0195 0.0972,0.0801 0.11985,0.1464 0.03525,0.1041 0.0492,0.1131 0.174,0.1131 h 0.1356 l 0.02055,0.24375 c 0.0246,0.29325 0.04815,0.35265 0.1488,0.376801 0.0741,0.01785 0.15315,0.1326 0.15315,0.222299 0,0.02385 -0.05325,0.08235 -0.11835,0.1299 -0.0807,0.05895 -0.1155,0.10905 -0.1101,0.158101 0.0068,0.06135 -0.0072,0.07095 -0.09405,0.0645 -0.05595,-0.0042 -0.15315,0.01545 -0.21555,0.04365 -0.07395,0.0333 -0.15405,0.04395 -0.2292,0.03045 -0.0864,-0.01545 -0.11565,-0.0095 -0.11565,0.0243 0,0.0249 -0.0303,0.0714 -0.0672,0.1035 -0.0912,0.07905 -0.05355,0.1209 0.08655,0.0957 0.087,-0.0156 0.1209,-0.0087 0.1359,0.0288 0.03195,0.07965 -0.04905,0.19365 -0.1242,0.1749 -0.0477,-0.012 -0.0705,0.0044 -0.08535,0.0606 -0.0051,0.01995 -0.01455,0.0369 -0.0258,0.0513 a 3,3 0 0 0 0.47475,0.140251 c -0.015,-0.02865 -0.0321,-0.05475 -0.04875,-0.06645 -0.07725,-0.0546 -0.0255,-0.1965 0.08085,-0.222001 0.10845,-0.0261 0.09135,-0.09645 -0.02655,-0.10995 -0.10335,-0.0117 -0.2133,-0.1164 -0.1788,-0.16995 0.02325,-0.03585 0.1221,-0.0306 0.32205,0.0168 0.0903,0.0213 0.15195,-0.0216 0.3612,-0.2505 0.12105,-0.1326 0.2142,-0.187799 0.31635,-0.187799 0.039,0 0.17805,-0.03585 0.30915,-0.07965 0.2475,-0.08295 0.34425,-0.07995 0.3351,0.0105 -0.0189,0.188099 0.10215,0.181799 0.2994,-0.0153 0.0822,-0.08205 0.15735,-0.14145 0.1671,-0.13215 0.03765,0.03615 -0.03015,0.2121 -0.10935,0.283349 -0.10035,0.0903 -0.1053,0.147301 -0.01695,0.19245 0.0483,0.0249 0.06885,0.07515 0.0765,0.1881 l 0.0102,0.154201 h 0.1254 c 0.04395,0 0.0804,0.006 0.1098,0.01725 a 3,3 0 0 0 1.4535,-2.4759 c -0.0459,-0.0981 -0.0426,-0.157349 0,-0.2241 a 3,3 0 0 0 -0.0135,-0.168149 c -0.0273,-0.0014 -0.0552,-0.0025 -0.0873,-0.0012 -0.1512,0.0063 -0.28065,-0.05325 -0.28065,-0.12915 0,-0.01605 -0.0537,-0.0822 -0.11925,-0.146851 -0.0744,-0.0732 -0.112501,-0.138 -0.101401,-0.171599 0.0102,-0.0306 -0.0117,-0.07995 -0.0504,-0.1134 -0.03765,-0.0327 -0.06855,-0.0852 -0.06855,-0.116701 0,-0.05025 -0.03195,-0.05655 -0.263101,-0.051 l -0.2631,0.0064 0.0045,0.25935 c 0.0078,0.4542 0.07545,0.572099 0.2841,0.49605 0.09555,-0.03495 0.3303,-0.0085 0.39705,0.0444 0.02415,0.0192 0.0591,0.0888 0.07755,0.154799 0.0186,0.06585 0.0873,0.18 0.153,0.25335 0.1329,0.148801 0.14325,0.20685 0.06705,0.381451 -0.06645,0.1524 -0.13815,0.13485 -0.1239,-0.03045 l 0.0105,-0.123 -0.1125,0.021 c -0.06225,0.01185 -0.14025,0.05775 -0.1752,0.1032 -0.0498,0.06465 -0.07305,0.0741 -0.1104,0.04455 -0.0261,-0.0207 -0.04725,-0.06435 -0.04725,-0.09675 0,-0.0324 -0.0321,-0.0684 -0.0711,-0.08025 -0.03915,-0.01185 -0.0927,-0.0708 -0.11895,-0.131251 -0.04215,-0.0966 -0.0411,-0.12615 0.008,-0.24345 0.04965,-0.11895 0.0501,-0.1386 0.0043,-0.182549 -0.042,-0.0402 -0.06375,-0.04155 -0.11895,-0.0084 -0.0555,0.03315 -0.08175,0.03075 -0.14775,-0.0135 -0.04395,-0.02955 -0.1209,-0.054 -0.1707,-0.054 -0.10125,0 -0.13185,-0.0492 -0.13185,-0.2121 0,-0.15045 -0.0897,-0.20505 -0.3033,-0.1854 -0.1482,0.01365 -0.1809,0.0039 -0.30045,-0.0882 -0.07395,-0.05685 -0.19065,-0.19365 -0.25965,-0.30435 -0.069,-0.1107 -0.14325,-0.22635 -0.165,-0.25695 -0.0312,-0.04425 -0.02355,-0.0867 0.0375,-0.20715 l 0.0771,-0.1515 -0.1629,0.02205 c -0.2898,0.03915 -0.34845,0.07665 -0.2238,0.14355 0.0486,0.02595 0.0507,0.0393 0.0132,0.08265 -0.0246,0.0282 -0.03615,0.07305 -0.0255,0.0996 0.01065,0.0264 -0.0028,0.0888 -0.02985,0.13845 -0.02715,0.0498 -0.0498,0.11955 -0.0507,0.1554 -0.0028,0.11175 -0.19425,0.2007 -0.40755,0.18885 -0.3231,-0.01785 -0.34935,-0.01275 -0.4641,0.09375 -0.1434,0.1332 -0.16185,0.19515 -0.0951,0.31875 0.06465,0.12 0.17955,0.16785 0.37845,0.15795 0.1779,-0.0088 0.198,0.0069 0.15735,0.1245 -0.03465,0.0999 -0.15075,0.1383 -0.2295,0.0759 -0.0606,-0.04815 -0.26955,-0.01095 -0.3336,0.05955 -0.02685,0.0294 -0.06675,0.1068 -0.0885,0.1716 -0.0375,0.1119 -0.04845,0.1188 -0.21645,0.135 -0.1677,0.01635 -0.1839,0.01095 -0.3045,-0.1002 -0.13455,-0.1239 -0.15735,-0.2187 -0.09255,-0.3819 0.0288,-0.0723 0.0501,-0.08415 0.1269,-0.07005 0.1521,0.02775 0.2121,-0.02505 0.2121,-0.1875 0,-0.07875 -0.0153,-0.1524 -0.03405,-0.1635 -0.0186,-0.0111 -0.0339,-0.0528 -0.0339,-0.09285 0,-0.04005 -0.0192,-0.09165 -0.04245,-0.1143 -0.03405,-0.033 -0.0291,-0.0507 0.0252,-0.0891 0.0372,-0.02625 0.0984,-0.04395 0.1359,-0.03945 0.03735,0.0045 0.1407,-0.0117 0.22965,-0.03585 0.12855,-0.03465 0.16635,-0.0609 0.18375,-0.12855 0.033,-0.1284 0.11355,-0.23145 0.18105,-0.23145 0.10665,0 0.1089,-0.2508 0.0053,-0.6156 -0.0153,-0.05385 -0.05745,-0.08805 -0.13185,-0.1065 -0.0603,-0.015 -0.12585,-0.0561 -0.14565,-0.09147 -0.01965,-0.03537 -0.0558,-0.06417 -0.08025,-0.06417 -0.02445,0 -0.0723,-0.02928 -0.10605,-0.06504 -0.03405,-0.036 -0.1044,-0.06504 -0.15795,-0.06504 -0.12675,0 -0.12885,-0.08727 -0.0031,-0.13329 0.13275,-0.04866 0.33945,0.01512 0.3894,0.120105 0.06765,0.142365 0.1428,0.08296 0.16695,-0.13212 0.02985,-0.266025 0.12165,-0.34248 0.411,-0.34248 h 0.20805 l -0.0912,-0.09111 c -0.02835,-0.02844 -0.0519,-0.0632 -0.06825,-0.09727 z m 1.078499,0.09434 c -0.0058,0.0053 -0.01155,0.0096 -0.01725,0.01553 -0.0696,0.07104 -0.1023,0.08116 -0.20985,0.06475 -0.187799,-0.02864 -0.16365,0.04698 0.04425,0.138285 0.11235,0.04936 0.18465,0.105645 0.20925,0.162585 0.1185,0.274739 0.2001,0.422655 0.24105,0.437654 0.0828,0.03045 0.13215,-0.03066 0.1506,-0.18687 0.02115,-0.17922 0.08175,-0.217215 0.19065,-0.119235 0.0423,0.03802 0.1014,0.06913 0.13125,0.06913 0.09315,0 0.162,0.0374 0.162,0.0879 0,0.02661 0.0315,0.09074 0.07005,0.14262 0.05685,0.07635 0.0954,0.09465 0.2016,0.09465 0.13035,0 0.2103,0.02445 0.3735,0.1146 0.0025,0.0014 0.0051,0.0018 0.0077,0.0031 a 3,3 0 0 0 -1.5548,-1.024704 z M 13.0006,13.987144 a 3,3 0 0 0 -6e-4,0.0129 3,3 0 0 0 0.05859,0.576299 c 0.108689,0.04425 0.138719,0.0267 0.15,-0.0744 0.0058,-0.05235 0.03317,-0.1116 0.06095,-0.13215 0.04292,-0.03165 0.03518,-0.04785 -0.05274,-0.10785 -0.05691,-0.03885 -0.112995,-0.10665 -0.124515,-0.1506 -0.01116,-0.0426 -0.0489,-0.0891 -0.0917,-0.1242 z m 0.944265,0.99165 c -0.02805,-0.0029 -0.06184,0.01215 -0.09934,0.04815 -0.07934,0.0759 -0.06735,0.228451 0.02256,0.28875 0.103035,0.06915 0.142785,0.04905 0.155835,-0.07845 0.01605,-0.157199 -0.01755,-0.252 -0.07905,-0.25845 z m 0.5091,0.4536 c -0.0306,10e-4 -0.06435,0.02295 -0.0981,0.06915 -0.03585,0.0489 -0.0456,0.11205 -0.03195,0.2079 0.01695,0.1179 0.0096,0.1431 -0.05205,0.17475 -0.07935,0.0405 -0.0963,0.161099 -0.03135,0.223199 0.0645,0.0618 0.125999,0.0456 0.148199,-0.039 0.0315,-0.1206 0.20805,-0.1347 0.32865,-0.0264 0.05145,0.0462 0.09345,0.0696 0.09345,0.0519 0,-0.0177 -0.05355,-0.08205 -0.11895,-0.14265 -0.100049,-0.093 -0.11865,-0.1326 -0.11865,-0.2523 0,-0.1689 -0.05175,-0.26865 -0.119249,-0.266549 z m -0.836086,0.3873 a 3,3 0 0 0 0.06944,0.0876 c -0.02045,-0.03165 -0.04378,-0.06195 -0.06944,-0.0876 z m 1.010985,0.4605 c -0.01515,0.0052 -0.0216,0.0243 -0.0216,0.05775 0,0.0339 -0.0216,0.06945 -0.048,0.07905 -0.0351,0.0129 -0.0432,0.05355 -0.0297,0.150599 0.0025,0.01815 0.0033,0.0327 0.0042,0.04785 a 3,3 0 0 0 0.1248,0.06405 c -0.0021,-0.0519 0.0074,-0.11295 0.0345,-0.18945 0.04605,-0.1299 0.0477,-0.16245 0.0102,-0.18525 -0.0351,-0.0213 -0.0591,-0.02985 -0.0744,-0.0246 z"/>
 <path style="opacity:0.2;fill:#8b9cbe" d="M 12,3 A 9,9 0 0 0 3,12 9,9 0 0 0 3.0107422,12.292969 9,9 0 0 1 12,3.5 9,9 0 0 1 20.989258,12.207031 9,9 0 0 0 21,12 9,9 0 0 0 12,3 Z"/>
 <path style="opacity:0.2;fill:#8b9cbe" d="m 16,11 a 3,3 0 0 0 -3,3 3,3 0 0 0 0.0127,0.249024 A 3,3 0 0 1 16,11.5 3,3 0 0 1 18.987304,14.250977 3,3 0 0 0 19,14 3,3 0 0 0 16,11 Z"/>
</svg>
