<svg xmlns="http://www.w3.org/2000/svg" width="24" height="24" version="1">
 <path style="opacity:0.2" d="m 8,2.5 c -3.324,0 -6,2.676 -6,6 v 4 4 5 c 0,0.554 0.446,1 1,1 h 5 4 4 c 3.324,0 6,-2.676 6,-6 v -4 -4 -5 c 0,-0.554 -0.446,-1 -1,-1 h -5 -4 z"/>
 <path style="fill:#e23a3d" d="M 8,2 C 4.676,2 2,4.676 2,8 v 4 4 5 c 0,0.554 0.446,1 1,1 h 5 4 4 c 3.324,0 6,-2.676 6,-6 V 12 8 3 C 22,2.446 21.554,2 21,2 h -5 -4 z"/>
 <path style="opacity:0.2" d="m 10.722656,7.501953 c -0.375865,-0.0034 -0.872305,-0.0029 -1.398437,0.00295 L 7.411133,7.526388 7.6064455,7.763693 c 0.24543,0.298064 0.5067515,0.8703645 1.4755855,3.236328 1.429651,3.4913 1.623621,3.889649 1.892579,3.889649 0.04156,0 0.123768,-0.07647 0.182617,-0.169922 0.240621,-0.382125 1.841362,-4.111378 1.839844,-4.286133 -9.5e-4,-0.103837 -0.225875,-0.7065365 -0.5,-1.339844 C 11.995719,7.9355075 11.773152,7.618 11.398438,7.524435 11.354288,7.51341 11.098522,7.50539 10.722656,7.501975 Z m -3.5585935,0.46875 c -0.097077,0.00295 -0.189767,0.076033 -0.28125,0.21875 L 3.5,16.5 h 4.1708985 c 0,0 1.446208,-3.6154 1.5751955,-3.966797 C 9.289309,12.415426 8.123512,9.429477 7.689453,8.5458985 7.4980885,8.156358 7.325857,7.9657975 7.1640625,7.970703 Z m 8.8583985,1.564453 c -0.314605,-0.013725 -0.761771,0.105692 -1.552734,0.3808595 -0.612126,0.2129525 -1.066761,0.4423575 -1.131836,0.5097655 -0.122798,0.127198 -1.888672,4.329498 -1.888672,4.492188 0,0.189098 0.180801,0.285064 0.455078,0.241211 0.149162,-0.02384 1.587789,-0.552723 3.318359,-1.175781 2.261654,-0.814263 3.239141,-1.132813 3.477539,-1.132813 0.223448,0 0.332031,-0.03228 0.332031,-0.09863 0,-0.127258 -2.228118,-2.8303805 -2.541015,-3.053711 -0.138928,-0.09916 -0.279987,-0.154851 -0.46875,-0.163086 z m 2.688476,3.644532 c -0.163007,-0.01914 -0.333877,0.02199 -0.749023,0.154297 -1.317719,0.419957 -2.475586,0.889962 -2.475586,1.003906 0,0.125413 0.830078,2.162109 0.830078,2.162109 H 20.5 c 0,0 -1.157074,-2.965836 -1.263672,-3.101562 -0.04061,-0.05173 -0.200443,-0.133186 -0.355469,-0.180664 -0.06129,-0.01877 -0.115586,-0.03171 -0.169922,-0.03809 z"/>
 <path style="fill:#8b9cbe" d="m 7.670926,16 c 0,0 1.44611,-3.615597 1.575097,-3.966994 C 9.289238,11.915229 8.1239315,8.9295415 7.6898725,8.045963 7.383689,7.4226985 7.1265805,7.3092755 6.882626,7.6898525 L 3.5,16 Z"/>
 <path style="fill:#8b9cbe" d="m 20.5,16 c 0,0 -1.157211,-2.965939 -1.263809,-3.101665 -0.04062,-0.05173 -0.200714,-0.132896 -0.35574,-0.180374 -0.245155,-0.07508 -0.364748,-0.05991 -0.918276,0.116502 -1.317718,0.419958 -2.476283,0.889374 -2.476283,1.003318 0,0.125414 0.830027,2.162219 0.830027,2.162219 z"/>
 <path style="fill:#8b9cbe" d="m 15.222249,13.483315 c 2.261654,-0.814263 3.239765,-1.132832 3.478164,-1.132832 0.223448,0 0.331673,-0.03214 0.331673,-0.0985 0,-0.127258 -2.228363,-2.8301635 -2.54126,-3.053494 -0.370473,-0.2644285 -0.755934,-0.2229985 -2.021477,0.21727 -0.612125,0.212952 -1.0661,0.442338 -1.131175,0.509746 -0.122798,0.127197 -1.889412,4.329889 -1.889412,4.492579 0,0.189099 0.181617,0.285272 0.455894,0.241419 0.149162,-0.02384 1.587022,-0.553134 3.317593,-1.176191 z"/>
 <path style="fill:#8b9cbe" d="m 11.156741,14.219551 c 0.240621,-0.382125 1.841623,-4.110886 1.840106,-4.285641 -9.5e-4,-0.103837 -0.225926,-0.706956 -0.500051,-1.3402635 -0.501352,-1.1582635 -0.723698,-1.47598 -1.098413,-1.569545 -0.0883,-0.02205 -1.021479,-0.03053 -2.0737435,-0.01886 L 7.411425,7.0264665 7.6068015,7.26374 c 0.24543,0.298064 0.506387,0.870586 1.4752215,3.236549 1.42965,3.491301 1.623231,3.889172 1.892188,3.889172 0.04156,0 0.123682,-0.07646 0.18253,-0.169916 z"/>
 <path style="opacity:0.2;fill:#8b9cbe" d="M 8,2 C 4.676,2 2,4.676 2,8 v 0.5 c 0,-3.324 2.676,-6 6,-6 h 4 4 5 c 0.554,0 1,0.446 1,1 V 3 C 22,2.446 21.554,2 21,2 h -5 -4 z"/>
</svg>
