<svg xmlns="http://www.w3.org/2000/svg" width="24" height="24" version="1.1">
 <circle style="opacity:0.2" cx="12" cy="12.5" r="10"/>
 <circle style="fill:#8e8e8e" cx="12" cy="12" r="10"/>
 <circle style="fill:#17191e" cx="12" cy="12" r="8"/>
 <path style="opacity:0.1;fill:#8b9cbe" d="M 12,2 A 10,10 0 0 0 2,12 10,10 0 0 0 2.01075,12.291 10,10 0 0 1 12,2.5 10,10 0 0 1 21.9895,12.209 10,10 0 0 0 22,12 10,10 0 0 0 12,2 Z"/>
 <path style="opacity:0.2" d="m 12,5.5 a 7,7 0 0 0 -7,7 7,7 0 0 0 7,7 7,7 0 0 0 2.477539,-0.461914 L 14.09961,17.578125 A 5.5,5.5 0 0 1 12,18 5.5,5.5 0 0 1 6.5,12.5 5.5,5.5 0 0 1 12,7 5.5,5.5 0 0 1 14.102539,7.4208985 L 14.482422,5.958008 A 7,7 0 0 0 12,5.5 Z"/>
 <path style="fill:#e13535" d="m 12,5 a 7,7 0 0 0 -7,7 7,7 0 0 0 7,7 7,7 0 0 0 2.477539,-0.461914 L 14.09961,17.078125 A 5.5,5.5 0 0 1 12,17.5 5.5,5.5 0 0 1 6.5,12 5.5,5.5 0 0 1 12,6.5 5.5,5.5 0 0 1 14.102539,6.9208985 L 14.482422,5.458008 A 7,7 0 0 0 12,5 Z"/>
 <path style="opacity:0.2" d="m 12,7.5 a 5,5 0 0 0 -5,5 5,5 0 0 0 5,5 5,5 0 0 0 1.97461,-0.407227 L 13.592774,15.616211 A 3.5,3.5 0 0 1 12,16 3.5,3.5 0 0 1 8.5,12.5 3.5,3.5 0 0 1 12,9 3.5,3.5 0 0 1 13.592774,9.3876955 L 13.97461,7.913086 A 5,5 0 0 0 12,7.5 Z"/>
 <path style="fill:#e13535" d="m 12,7 a 5,5 0 0 0 -5,5 5,5 0 0 0 5,5 5,5 0 0 0 1.97461,-0.407227 L 13.592774,15.116211 A 3.5,3.5 0 0 1 12,15.5 3.5,3.5 0 0 1 8.5,12 3.5,3.5 0 0 1 12,8.5 3.5,3.5 0 0 1 13.592774,8.8876955 L 13.97461,7.413086 A 5,5 0 0 0 12,7 Z"/>
 <path style="opacity:0.2" d="m 13.470147,9.8849475 a 3,3 0 0 0 -2.938912,0.00275 L 10.93934,11.439328 9.3849475,11.029841 a 3,3 0 0 0 0.00275,2.938912 L 10.939327,13.560648 10.52984,15.11504 a 3,3 0 0 0 2.938913,-0.0028 l -0.408105,-1.55163 1.554392,0.409487 a 3,3 0 0 0 -0.0028,-2.938912 l -1.55163,0.408105 z"/>
 <path style="fill:#ffa92e" d="m 13.470147,9.3849475 a 3,3 0 0 0 -2.938912,0.00275 L 10.93934,10.939328 9.3849475,10.529841 a 3,3 0 0 0 0.00275,2.938912 L 10.939327,13.060648 10.52984,14.61504 a 3,3 0 0 0 2.938913,-0.0028 l -0.408105,-1.55163 1.554392,0.409487 a 3,3 0 0 0 -0.0028,-2.938912 l -1.55163,0.408105 z"/>
 <path style="opacity:0.2;fill:#8b9cbe" d="M 12,5 A 7,7 0 0 0 5,12 7,7 0 0 0 5.010742,12.207031 7,7 0 0 1 12,5.5 7,7 0 0 1 14.362305,5.9189455 L 14.482422,5.458008 A 7,7 0 0 0 12,5 Z M 6.510742,12.292969 A 5.5,5.5 0 0 0 6.5,12.5 5.5,5.5 0 0 0 12,18 5.5,5.5 0 0 0 14.09961,17.578125 l 0.258789,1.000976 a 7,7 0 0 0 0.11914,-0.04102 L 14.09961,17.078125 A 5.5,5.5 0 0 1 12,17.5 5.5,5.5 0 0 1 6.510742,12.292969 Z"/>
 <path style="opacity:0.2;fill:#8b9cbe" d="M 12,7 A 5,5 0 0 0 7,12 5,5 0 0 0 7.010742,12.207031 5,5 0 0 1 12,7.5 5,5 0 0 1 13.856446,7.8691405 L 13.97461,7.413086 A 5,5 0 0 0 12,7 Z M 8.511719,12.270508 A 3.5,3.5 0 0 0 8.5,12.5 3.5,3.5 0 0 0 12,16 3.5,3.5 0 0 0 13.592774,15.616211 l 0.263672,1.021484 a 5,5 0 0 0 0.118164,-0.04492 L 13.592774,15.116211 A 3.5,3.5 0 0 1 12,15.5 3.5,3.5 0 0 1 8.511719,12.270508 Z"/>
 <path style="opacity:0.2;fill:#8b9cbe" d="M 12.036133,9.001953 A 3,3 0 0 0 10.53125,9.3876955 l 0.116211,0.4404295 a 3,3 0 0 1 2.706055,-10e-4 L 13.469727,9.384742 A 3,3 0 0 0 12.036133,9.0019295 Z m -2.6513675,1.528321 a 3,3 0 0 0 -0.370117,1.737304 3,3 0 0 1 0.370117,-1.237304 l 1.5546875,0.409179 -0.141601,-0.537109 z m 5.2275395,9.99e-4 -1.410156,0.371094 -0.141602,0.537109 1.551758,-0.408203 a 3,3 0 0 1 0.373047,1.201172 3,3 0 0 0 -0.373047,-1.701172 z m -3.672852,3.029297 -0.141601,0.03711 -0.267578,1.017579 a 3,3 0 0 0 0.116211,0.05762 z m 2.121094,0 0.291992,1.111328 a 3,3 0 0 0 0.116211,-0.05959 l -0.266601,-1.014649 z"/>
</svg>
