<svg xmlns="http://www.w3.org/2000/svg" width="24" height="24" version="1.1">
 <rect style="opacity:0.2" width="20" height="20" x="2" y="2.5" rx="6" ry="6"/>
 <rect style="fill:#795548" width="20" height="20" x="2" y="2" rx="6" ry="6"/>
 <path style="fill:#6d4c41" d="M 8,2 C 7.2969735,2 6.625867,2.1254824 6,2.3457031 V 6 h 4 V 2 Z m 2,4 v 4 h 4 V 6 Z m 4,0 h 4 V 2.3457031 C 17.374133,2.1254824 16.703026,2 16,2 h -2 z m 4,0 v 4 h 4 V 8 C 22,7.2969735 21.874517,6.625867 21.654297,6 Z m 0,4 h -4 v 4 h 4 z m 0,4 v 4 h 3.654297 C 21.874517,17.374133 22,16.703026 22,16 v -2 z m 0,4 h -4 v 4 h 2 c 0.703026,0 1.374133,-0.125483 2,-0.345703 z m -4,0 v -4 h -4 v 4 z m -4,0 H 6 v 3.654297 C 6.625867,21.874517 7.2969735,22 8,22 h 2 z M 6,18 V 14 H 2 v 2 c 0,0.703026 0.1254824,1.374133 0.3457031,2 z m 0,-4 h 4 V 10 H 6 Z M 6,10 V 6 H 2.3457031 C 2.1254824,6.625867 2,7.2969735 2,8 v 2 z"/>
 <path style="opacity:0.1;fill:#8b9cbe" d="M 8,2 C 4.676,2 2,4.676 2,8 v 0.5 c 0,-3.324 2.676,-6 6,-6 h 8 c 3.324,0 6,2.676 6,6 V 8 C 22,4.676 19.324,2 16,2 Z"/>
 <rect style="fill:#bdbdbd" width="6" height="9" x="9" y="8.5"/>
 <path style="opacity:0.2" d="m 7,5.5 v 3 c 0,1.108 0.892,2 2,2 h 6 c 1.108,0 2,-0.892 2,-2 v -3 h -2 v 2 h -2 v -2 h -2 v 2 H 9 v -2 z"/>
 <path style="fill:#8b9cbe" d="m 7,5 v 3 c 0,1.108 0.892,2 2,2 h 6 c 1.108,0 2,-0.892 2,-2 V 5 H 15 V 7 H 13 V 5 H 11 V 7 H 9 V 5 Z"/>
 <path style="opacity:0.2" d="M 7.5,16.5 C 6.669,16.5 6,17.169 6,18 v 1.5 H 18 V 18 c 0,-0.831 -0.669,-1.5 -1.5,-1.5 z"/>
 <path style="fill:#8b9cbe" d="M 7.5,16 C 6.669,16 6,16.669 6,17.5 V 19 H 18 V 17.5 C 18,16.669 17.331,16 16.5,16 Z"/>
</svg>
