<svg xmlns="http://www.w3.org/2000/svg" width="24" height="24" version="1">
 <path style="opacity:0.2" d="M 21.99433,12.5027 A 9.9973002,9.9973002 0 0 1 11.99703,22.5 9.9973002,9.9973002 0 0 1 1.99973,12.5027 9.9973002,9.9973002 0 0 1 11.99703,2.5053996 9.9973002,9.9973002 0 0 1 21.99433,12.5027 Z"/>
 <path style="fill:#b2bfd9" d="m 21.99433,12.002835 a 9.9973002,9.9973002 0 0 1 -9.9973,9.9973 9.9973002,9.9973002 0 0 1 -9.9973,-9.9973 9.9973002,9.9973002 0 0 1 9.9973,-9.9973004 9.9973002,9.9973002 0 0 1 9.9973,9.9973004 z"/>
 <path style="opacity:0.2;fill:#8b9cbe" d="m 11.99703,2.0055346 a 9.9973002,9.9973002 0 0 0 -9.9973,9.9973004 9.9973002,9.9973002 0 0 0 0.010739,0.290937 9.9973002,9.9973002 0 0 1 9.986561,-9.7883724 9.9973002,9.9973002 0 0 1 9.986561,9.7063634 9.9973002,9.9973002 0 0 0 0.01074,-0.208928 9.9973002,9.9973002 0 0 0 -9.997301,-9.9973004 z"/>
 <circle style="fill:#4f4f4f" cx="5" cy="18" r="4"/>
 <path style="fill:#8b9cbe" d="m 4.3224672,19.549516 c 0,-0.08303 0.01192,-0.153181 0.035761,-0.210643 0.023841,-0.05727 0.05689,-0.103596 0.099363,-0.138957 0.042282,-0.03536 0.092251,-0.06092 0.1497173,-0.07688 0.057274,-0.01576 0.1185841,-0.02384 0.1839304,-0.02384 0.061886,0 0.1207002,0.0081 0.1762462,0.02384 0.055542,0.01596 0.1045516,0.04151 0.1470251,0.07688 0.042286,0.03536 0.075727,0.08168 0.1005195,0.138957 0.024801,0.05746 0.037081,0.127612 0.037081,0.210643 0,0.07956 -0.01228,0.147605 -0.037081,0.204111 -0.024801,0.05631 -0.058234,0.1034 -0.1005195,0.140493 -0.042473,0.03692 -0.091483,0.06381 -0.1470251,0.08072 C 4.9119391,19.99156 4.8531251,20 4.7912389,20 4.7258929,20 4.6645825,19.9916 4.6073085,19.97484 4.5498425,19.95792 4.4998727,19.93102 4.4575912,19.89412 4.4151182,19.85704 4.3820562,19.80994 4.3582282,19.753627 4.3346272,19.697227 4.3226272,19.629223 4.3226272,19.54962 m 0.087451,-0.905991 v -0.195847 c 0,-0.09014 0.00924,-0.171822 0.027841,-0.245049 0.018441,-0.07341 0.046706,-0.142989 0.084759,-0.209299 0.037881,-0.06611 0.086871,-0.130689 0.1468371,-0.193347 0.060154,-0.06266 0.1326127,-0.12762 0.2173716,-0.194695 0.074187,-0.05823 0.1368448,-0.11032 0.1879666,-0.156445 0.051314,-0.04575 0.092635,-0.09129 0.1245444,-0.136457 0.031721,-0.04498 0.054774,-0.09206 0.068802,-0.141457 0.01424,-0.04959 0.021361,-0.107056 0.021361,-0.172206 0,-0.100712 -0.034201,-0.18393 -0.1020595,-0.249085 -0.068038,-0.06535 -0.171822,-0.09802 -0.3113509,-0.09802 -0.1216643,0 -0.2529289,0.02556 -0.3934258,0.07669 -0.1401089,0.05131 -0.285602,0.113968 -0.4356952,0.188159 L 3.777,16.331151 c 0.075727,-0.04421 0.1583695,-0.0861 0.2475447,-0.125693 0.089375,-0.0398 0.1820103,-0.07515 0.2781097,-0.106092 0.096287,-0.03076 0.1939228,-0.05516 0.2927102,-0.07284 0.098984,-0.01768 0.1960389,-0.02652 0.2915622,-0.02652 0.1800864,0 0.342492,0.02172 0.4872171,0.06496 0.1449171,0.04324 0.2677294,0.10628 0.3682449,0.189311 0.1009035,0.08303 0.1779742,0.18393 0.2317881,0.30213 0.054006,0.118393 0.080915,0.253313 0.080915,0.405135 0,0.11128 -0.01252,0.210647 -0.037081,0.298094 -0.024601,0.08745 -0.061502,0.168746 -0.1097438,0.243701 -0.048818,0.07515 -0.1097438,0.147605 -0.1829704,0.217183 -0.073227,0.06977 -0.1585616,0.143569 -0.255621,0.221216 -0.074187,0.05823 -0.1347247,0.109164 -0.1816223,0.152409 -0.046706,0.04325 -0.083415,0.08437 -0.1097439,0.123005 -0.026521,0.039 -0.044586,0.07919 -0.05439,0.1207 -0.00964,0.04132 -0.0146,0.09033 -0.0146,0.146837 v 0.158946 H 4.4100943 Z"/>
 <path style="opacity:0.2" d="m 8.9895001,18.212 a 4,4 0 0 1 -3.9895,3.788 4,4 0 0 1 -3.9895,-3.712 4,4 0 0 0 -0.0105,0.212 4,4 0 0 0 4,4 4,4 0 0 0 4,-4 4,4 0 0 0 -0.01074,-0.288085 z"/>
 <path style="opacity:0.1" d="m 22.99619,17.566068 c -0.269665,0.07768 -1.763405,0.501349 -1.927538,0.40296 -1.677766,-1.005773 -3.017141,-0.503067 -4.586843,0.15093 C 15.991221,18.324332 15.499094,18.52527 14.791381,18.817 17.591127,13.324942 15.860186,7.9370601 9.4752113,6.7323375 10.697296,6.4466661 12.405177,6.4191751 13.746722,6.7714915 c 3.658659,0.9620957 5.673735,2.4095355 7.831509,6.3154335 0.633741,1.282403 1.485783,3.311676 1.417959,4.47914"/>
 <path style="fill:#dc3034" d="m 22.99619,17.066203 c -0.269665,0.07768 -1.763405,0.501349 -1.927538,0.40296 -1.677766,-1.005773 -3.017141,-0.503067 -4.586843,0.15093 -0.490588,0.204374 -0.982715,0.405312 -1.690428,0.697042 C 17.591127,12.825077 15.860186,7.4371951 9.4752113,6.2324725 10.697296,5.9468011 12.405177,5.91931 13.746722,6.2716269 c 3.658659,0.9620957 5.673735,2.4095353 7.831509,6.3154331 0.633741,1.282403 1.485783,3.311676 1.417959,4.47914"/>
 <path style="opacity:0.1" d="m 2.803513,13.299739 c 0.9251096,-1.791258 4.1918409,-2.25942 6.030123,-1.316315 1.828878,0.938313 3.042462,3.965764 1.376903,6.902693 C 10.233059,16.82673 9.7559419,14.93844 8.1847932,13.610279 6.6430341,12.347772 4.7166722,12.54039 2.803513,13.299739"/>
 <path style="fill:#48539e" d="m 2.803513,12.799874 c 0.9251096,-1.791258 4.1918409,-2.25942 6.030123,-1.316315 1.828878,0.938313 3.042462,3.965764 1.376903,6.902693 0.02252,-2.059387 -0.4545971,-3.947677 -2.0257458,-5.275838 -1.5417591,-1.262507 -3.468121,-1.069889 -5.3812802,-0.31054"/>
 <path style="opacity:0.1" d="M 4.1916381,10.608351 C 5.4829034,8.9254293 7.1106623,8.4353836 8.9106017,8.5780836 11.279714,8.7659093 13.08092,9.929124 14.044915,12.168558 c 0.899608,2.147376 0.435968,4.904528 -1.476468,7.038972 0.721731,-2.787175 0.575413,-5.138111 -1.263864,-7.078309 C 9.4049882,10.20738 6.9879469,9.835256 4.1916381,10.608351"/>
 <path style="fill:#469d3b" d="M 4.1916381,10.108486 C 5.4829034,8.4255642 7.1106623,7.9355186 8.9106017,8.0782185 11.279714,8.2660443 13.08092,9.4292587 14.044915,11.668693 c 0.899608,2.147376 0.435968,4.904528 -1.476468,7.038972 C 13.290178,15.92049 13.14386,13.569554 11.304583,11.629356 9.4049882,9.707515 6.9879469,9.335391 4.1916381,10.108486"/>
</svg>
