<svg width="24" height="24" version="1.1" xmlns="http://www.w3.org/2000/svg">
 <g transform="translate(1,1)">
  <path d="m4.4042969 19.5c0.8579377 1.19767 1.8028774 2 2.5957031 2 2 0 2.6256315-1 4-1 1.374369 0 2 1 4 1 0.791994 0 1.730605-0.801509 2.582031-2z" style="opacity:.2"/>
  <path d="m4.4042969 19c0.8579377 1.19767 1.8028774 2 2.5957031 2 2 0 2.6256315-1 4-1 1.374369 0 2 1 4 1 0.791994 0 1.730605-0.801509 2.582031-2z" style="fill:#009bda"/>
  <path d="m2.8320312 16.5c0.4255871 1.119229 0.9691641 2.158078 1.5722657 3h13.177734c0.599722-0.844185 1.156065-1.879703 1.582031-3z" style="opacity:.2"/>
  <path d="m2.8320312 16c0.4255871 1.119229 0.9691641 2.158078 1.5722657 3h13.177734c0.599722-0.844185 1.156065-1.879703 1.582031-3z" style="fill:#953c96"/>
  <path d="m2.0644531 13.5c0.1128627 1.002292 0.3963564 2.023743 0.7675781 3h16.332031c0.01056-0.02777 0.02281-0.05418 0.0332-0.08203a4 4 0 0 1-3.066403-2.91797z" style="opacity:.2"/>
  <path d="m2.0644531 13c0.1128627 1.002292 0.3963564 2.023743 0.7675781 3h16.332031c0.01056-0.02777 0.02281-0.05418 0.0332-0.08203a4 4 0 0 1-3.066403-2.91797z" style="fill:#de393d"/>
  <path d="M 2.1972656,10.5 C 2.0685805,11.099635 2,11.765488 2,12.5 c 0,0.327418 0.026446,0.662473 0.064453,1 H 16.130859 A 4,4 0 0 1 16,12.5 a 4,4 0 0 1 0.542969,-2 z" style="opacity:.2"/>
  <path d="M 2.1972656,10 C 2.0685805,10.599635 2,11.265488 2,12 c 0,0.327418 0.026446,0.662473 0.064453,1 H 16.130859 A 4,4 0 0 1 16,12 4,4 0 0 1 16.542969,10 Z" style="fill:#f4811e"/>
  <path d="m3.0019531 8.5c-0.3627247 0.5527906-0.6367712 1.2175593-0.8046875 2h14.345703a4 4 0 0 1 2.457031-1.8671875v-0.1132813c-0.004393-0.0067437-0.009252-0.0128212-0.013672-0.0195312z" style="opacity:.2"/>
  <path d="M 3.0019531,8 C 2.6392284,8.5527906 2.3651819,9.2175593 2.1972656,10 H 16.542969 A 4,4 0 0 1 19,8.1328125 V 8.0195312 C 18.995607,8.0127875 18.990748,8.00671 18.986328,8 Z" style="fill:#fbb625"/>
  <path d="m15 1.5s-3 0-4 2-1 3-1 3 3 0 4-2 1-3 1-3zm-8 5c-1.7302889 0-3.1249324 0.6693779-3.9980469 2h15.984375c-0.873196-1.3256906-2.259463-2-3.986328-2-2 0-2 1-4 1s-2-1-4-1z" style="opacity:.2"/>
  <path d="m15 1s-3 0-4 2-1 3-1 3 3 0 4-2 1-3 1-3zm-8 5c-1.7302889 0-3.1249324 0.6693779-3.9980469 2h15.984375c-0.873196-1.3256906-2.259463-2-3.986328-2-2 0-2 1-4 1s-2-1-4-1z" style="fill:#60ba45"/>
  <path d="M 15,1 C 15,1 12,1 11,3 10,5 10,6 10,6 10,6 10.06869,5.99427 10.07813,5.99414 10.171405,5.5176666 10.391543,4.7169145 11,3.5 11.95965,1.5806995 14.697357,1.5089842 14.921875,1.5058594 14.981901,1.1992479 15,1 15,1 Z M 7,6 C 4,6 2,8 2,12 2,12.0964 2.010243,12.195488 2.013672,12.292969 2.0855994,8.4388435 4.0552111,6.5 7,6.5 c 2,0 2,1 4,1 2,0 2,-1 4,-1 1.593344,0 2.896827,0.5737916 3.775391,1.703125 A 4,4 0 0 1 19.068359,8.115234 C 18.201146,6.7090732 16.778725,6 15,6 13,6 13,7 11,7 9,7 9,6 7,6 Z m 9.009766,6.28125 A 4,4 0 0 0 16,12.5 a 4,4 0 0 0 3.009766,3.869141 c 0.06209,-0.150853 0.130094,-0.2974 0.1875,-0.451172 a 4,4 0 0 1 -3.1875,-3.636719 z" style="fill:#8b9cbe;opacity:.2"/>
 </g>
</svg>
