<svg xmlns="http://www.w3.org/2000/svg" width="24" height="24" version="1.1">
 <circle style="opacity:0.2" cx="12" cy="12.5" r="10"/>
 <circle style="fill:#b2bfd9" cx="12" cy="12" r="10"/>
 <path style="opacity:0.1" d="m 12.5,6.5 c -3.3137085,0 -6.5,2.6862915 -6.5,6 0,3.313709 3.1862915,6 6.5,6 0.863396,-0.0022 1.716143,-0.19076 2.5,-0.552734 V 14.945312 C 14.342549,15.619093 13.441392,15.998644 12.5,16 c -1.932996,0 -4,-1.567003 -4,-3.5 0,-1.932996 2.067004,-3.5 4,-3.5 0.940822,3.285e-4 1.841897,0.3803899 2.5,1.052734 V 11.5 h 3 l 2,-2 H 15 V 7.0546875 C 14.216218,6.6923775 13.363468,6.50253 12.5,6.5 Z m 2.5,6 v 2 h 5 l -2,-2 z"/>
 <path style="opacity:0.2;fill:#8b9cbe" d="M 12,2 A 10,10 0 0 0 2,12 10,10 0 0 0 2.01075,12.291 10,10 0 0 1 12,2.5 10,10 0 0 1 21.9895,12.209 10,10 0 0 0 22,12 10,10 0 0 0 12,2 Z"/>
 <path style="fill:#003079" d="M 12.5,6 C 9.1862915,6 6,8.6862915 6,12 c 0,3.313709 3.1862915,6 6.5,6 0.863396,-0.0022 1.716143,-0.190761 2.5,-0.552735 v -3.002929 c -0.657451,0.67378 -1.558608,1.054308 -2.5,1.055664 -1.932996,0 -4,-1.567003 -4,-3.5 0,-1.932996 2.067004,-3.5 4,-3.5 0.940822,3.285e-4 1.841897,0.3794135 2.5,1.051758 V 6.553711 C 14.216218,6.191401 13.363468,6.00253 12.5,6 Z"/>
 <path style="fill:#003079" d="m 15,9 h 5 l -2,2 h -3 z"/>
 <path style="fill:#ff2f2f" d="m 15,14 h 5 l -2,-2 h -3 z"/>
</svg>
