<svg xmlns="http://www.w3.org/2000/svg" width="24" height="24" version="1.1">
 <path style="opacity:0.2" d="M 2.7528522,9.9380811 10.438081,2.2528524 c 1.003803,-1.0038031 2.620035,-1.0038031 3.623838,0 l 7.685228,7.6852283 c 1.003803,1.0038033 1.003803,2.6200353 0,3.6238383 l -7.685228,7.685228 c -1.003804,1.003804 -2.620035,1.003804 -3.623838,0 L 2.7528522,13.561919 c -1.0038031,-1.003803 -1.0038031,-2.620035 0,-3.6238379 z"/>
 <path style="fill:#519b31" d="M 2.7528522,9.4380802 10.438081,1.7528519 c 1.003803,-1.00380312 2.620034,-1.00380312 3.623838,0 l 7.685228,7.6852287 c 1.003803,1.0038034 1.003803,2.6200344 0,3.6238384 l -7.685228,7.685228 c -1.003803,1.003803 -2.620035,1.003803 -3.623838,0 L 2.7528522,13.061918 c -1.0038031,-1.003803 -1.0038031,-2.620035 0,-3.6238378 z"/>
 <rect style="opacity:0.2" width="13.214" height="13.214" x="-6.25" y="10.36" rx="2.646" ry="2.646" transform="rotate(-45)"/>
 <rect style="fill:#ffe8b6" width="13.214" height="13.214" x="-5.9" y="10.01" rx="2.646" ry="2.646" transform="rotate(-45)"/>
 <rect style="fill:#d0273d" width="11.312" height="11.312" x="-4.95" y="10.96" rx="1.812" ry="1.812" transform="rotate(-45)"/>
 <rect style="opacity:0.2" width="7.75" height="4.743" x="-3.52" y="17.07" rx="1.008" ry="1.008" transform="rotate(-45)"/>
 <rect style="opacity:0.2" width="7.75" height="4.743" x="-3.52" y="12.12" rx="1.008" ry="1.008" transform="rotate(-45)"/>
 <rect style="fill:#ff5b54" width="7.75" height="4.743" x="-3.17" y="11.77" rx="1.008" ry="1.008" transform="rotate(-45)"/>
 <rect style="fill:#ff5b54" width="7.75" height="4.743" x="-3.17" y="16.72" rx="1.008" ry="1.008" transform="rotate(-45)"/>
 <rect style="fill:#17191e" width="4.843" height="2.964" x="-1.72" y="12.66" rx=".63" ry=".63" transform="rotate(-45)"/>
 <rect style="fill:#17191e" width="1.515" height="1.515" x="-2.88" y="18.33" rx=".173" ry=".173" transform="rotate(-45)"/>
 <rect style="fill:#17191e" width="1.515" height="1.515" x="2.78" y="18.33" rx=".173" ry=".173" transform="rotate(-45)"/>
 <path style="opacity:0.2;fill:#8b9cbe" d="m 11.563476,5.5000001 c -0.25772,0 -0.515412,0.09842 -0.71289,0.2958985 L 6.7958984,9.850586 c -0.2621265,0.262126 -0.345577,0.629371 -0.2597655,0.96289 0.04346,-0.169112 0.1268615,-0.329986 0.2597655,-0.46289 L 10.850586,6.2958986 c 0.394957,-0.3949575 1.030824,-0.3949575 1.425781,0 l 1.927734,1.9277344 c 0.132831,0.1328305 0.216282,0.2938815 0.259766,0.4628905 0.08569,-0.333446 0.0023,-0.7008375 -0.259766,-0.9628905 L 12.276367,5.7958986 C 12.078888,5.5984201 11.821197,5.5000001 11.563476,5.5000001 Z"/>
 <path style="opacity:0.2;fill:#8b9cbe" d="m 15.063476,9 c -0.25772,0 -0.515412,0.09842 -0.71289,0.2958985 l -4.054688,4.0546875 c -0.262126,0.262126 -0.3455767,0.629371 -0.259765,0.96289 0.04346,-0.169112 0.126861,-0.329986 0.259765,-0.46289 l 4.054688,-4.0546875 c 0.394957,-0.3949575 1.030824,-0.3949575 1.425781,0 l 1.927734,1.9277345 c 0.132831,0.13283 0.216282,0.293881 0.259766,0.46289 0.08569,-0.333446 0.0023,-0.700837 -0.259766,-0.96289 L 15.776367,9.2958985 C 15.578888,9.09842 15.321197,9 15.063476,9 Z"/>
 <path style="opacity:0.2;fill:#8b9cbe" d="m 12.25,1.0000002 c -0.655009,0 -1.309622,0.2510281 -1.811524,0.7529297 L 2.7529296,9.4384765 C 2.1869016,10.004504 1.9520944,10.764121 2.024414,11.5 2.0803472,10.930859 2.3151545,10.376251 2.7529296,9.9384765 L 10.438476,2.2529298 c 1.003804,-1.0038031 2.619244,-1.0038031 3.623047,0 L 21.74707,9.9384765 C 22.184845,10.376251 22.419653,10.930859 22.475586,11.5 22.547905,10.764121 22.313098,10.004504 21.74707,9.4384765 L 14.061523,1.7529299 C 13.559622,1.2510283 12.905009,1.0000002 12.25,1.0000002 Z"/>
 <path style="opacity:0.2;fill:#8b9cbe" d="m 12.25,3.0000001 c -0.676495,0 -1.352729,0.2589787 -1.871094,0.7773438 L 4.7773437,9.378906 C 4.1948038,9.961446 3.9522942,10.742477 4.024414,11.5 4.0806438,10.90938 4.3231534,10.333096 4.7773437,9.878906 L 10.378906,4.2773439 c 1.03673,-1.0367301 2.705457,-1.0367301 3.742188,0 l 5.601562,5.6015621 c 0.45419,0.45419 0.6967,1.030474 0.75293,1.621094 0.07212,-0.757523 -0.17039,-1.538554 -0.75293,-2.121094 L 14.121094,3.7773439 C 13.602728,3.2589788 12.926494,3.0000001 12.25,3.0000001 Z"/>
</svg>
