<svg xmlns="http://www.w3.org/2000/svg" width="24" height="24" version="1">
 <path style="fill:#e14e4e;fill-rule:evenodd" d="m 21.999858,12.000082 c 0,5.522808 -4.477121,9.999929 -9.999929,9.999929 -4.1348593,0 -4.5928985,-2.567345 -6.1154212,-6.146446 -0.5110654,-1.201398 -3.8845077,-2.465534 -3.8845077,-3.853483 0,-5.5228079 4.4771205,-9.9999287 9.9999289,-9.9999287 2.615019,0 3.869089,2.0436108 5.650961,3.6868569 1.981365,1.82722 4.348968,3.4052827 4.348968,6.3130718 z"/>
 <path style="opacity:0.1;fill-rule:evenodd" d="m 12,2.49975 0,8 c 3.471401,0 7.097959,0.379684 9.972656,1.28125 A 10,10 0 0 0 20.017578,6.5407656 C 18.061022,4.1272083 15.111224,2.5035586 12,2.49975 Z"/>
 <path style="fill:#4f4f4f;fill-rule:evenodd" d="M 12 2 L 12 10 C 15.471401 10 19.097959 10.379684 21.972656 11.28125 A 10 10 0 0 0 20.017578 6.0410156 C 18.061022 3.6274583 15.111224 2.0038086 12 2 z"/>
 <path style="fill:#4f4f4f;fill-rule:evenodd" d="M 12 10 C 8.4926077 10 4.9186181 10.384898 2.0351562 11.306641 A 10 10 0 0 0 2 12 A 10 10 0 0 0 12 22 L 12 10 z"/>
 <path style="opacity:0.1;fill:#8b9cbe" d="m 11.999929,2.0001459 c -2.62933,0 -5.0216465,1.0147732 -6.8066698,2.6740389 C 3.2289081,6.5001444 2,9.1065963 2,12.000075 c 0.00217,0.09705 0.00575,0.194066 0.010742,0.291013 0.1136448,-5.4368511 4.5511501,-9.7862916 9.9891871,-9.7909456 5.406958,0.00352 9.831837,4.3042463 9.989187,9.7089156 0.0043,-0.06962 0.0079,-0.139287 0.01074,-0.208983 0,-5.5228084 -4.477121,-9.9999291 -9.999929,-9.9999291 z"/>
 <path style="opacity:0.2;fill-rule:evenodd" d="M 6.1171875,2.5253898 C 5.988147,2.5102905 5.8556665,2.5199891 5.7226562,2.558593 5.1906153,2.7130083 4.8866003,3.2648333 5.0410156,3.7968742 L 8.0703125,14.234374 c 0.079348,0.353092 0.136479,0.670161 0.1445313,0.880859 0.058184,1.522474 -0.3293009,2.4231 -1.1835938,2.384766 -0.832433,-0.03736 -1.7480346,-0.650686 -2.6699219,-0.900391 -0.9202704,-0.249268 -2.0665497,0.876587 -2.3242187,1.931641 -0.093665,0.383521 0.00273,0.738023 0.1503906,1.087891 0.5368973,1.272094 3.6658821,2.928404 10.283203,2.880859 7.778026,-0.05589 8.895365,-2.803329 9.341797,-3.806641 0.472653,-1.062237 0.03279,-2.720807 -1.089844,-3.128906 -0.682325,-0.24804 -2.424397,0.20532 -3.4375,0.599609 -1.025065,0.398945 -2.850764,1.36332 -4.291015,1.335938 -1.364639,-0.02634 -2.226316,-1.789776 -2.675782,-2.695312 L 6.9609375,3.2402336 C 6.845126,2.8412029 6.5043089,2.5706878 6.1171875,2.5253898 Z"/>
 <path style="fill:#b2bfd9;fill-rule:evenodd" d="m 12.470065,21.999264 c 7.778026,-0.05589 8.895633,-2.802346 9.342065,-3.805658 0.472653,-1.062237 0.03231,-2.721255 -1.090322,-3.129354 -0.682325,-0.24804 -2.422647,0.206308 -3.43575,0.600598 C 16.260993,16.063794 14.433582,17.027382 12.993331,17 11.574986,16.97262 10.687836,15.04882 10.255213,14.183574 9.8268812,13.326911 9.159965,10.722592 9.159965,10.722592 l -1.8028482,0.463222 c 0,0 0.8244471,2.569654 0.8573049,3.429423 0.058184,1.522474 -0.3285747,2.423136 -1.1828676,2.384802 -0.832433,-0.03736 -1.747382,-0.650249 -2.6692693,-0.899954 -0.9202704,-0.249268 -2.0677497,0.875822 -2.3254187,1.930876 -0.093665,0.383521 0.00368,0.739085 0.1513456,1.088953 0.5368973,1.272094 3.6645323,2.926895 10.2818533,2.87935 z"/>
 <rect style="fill:#b2bfd9" width="2" height="17" x="3.92" y="3.57" rx="1" ry="1" transform="matrix(0.96036951,-0.27873,0.27873,0.96036951,0,0)"/>
 <path style="opacity:0.2;fill:#8b9cbe;fill-rule:evenodd" d="M 6.1171875 2.0253906 C 5.988147 2.0102913 5.8556665 2.0199899 5.7226562 2.0585938 C 5.1906153 2.213009 4.8866003 2.7648341 5.0410156 3.296875 C 5.119826 2.9560877 5.3613226 2.6634644 5.7226562 2.5585938 C 5.8556665 2.5199898 5.988147 2.5102913 6.1171875 2.5253906 C 6.5043089 2.5706886 6.845126 2.8412037 6.9609375 3.2402344 L 10.318359 14.804688 C 10.767825 15.710223 11.629502 17.47366 12.994141 17.5 C 14.434392 17.527382 16.260091 16.563008 17.285156 16.164062 C 18.298259 15.769773 20.040331 15.316413 20.722656 15.564453 C 21.467985 15.835395 21.904272 16.657377 21.980469 17.490234 C 22.071018 16.510404 21.618577 15.390138 20.722656 15.064453 C 20.040331 14.816413 18.298259 15.269773 17.285156 15.664062 C 16.260091 16.063007 14.434392 17.027382 12.994141 17 C 11.629502 16.973657 10.767825 15.210223 10.318359 14.304688 L 6.9609375 2.7402344 C 6.845126 2.3412037 6.5043089 2.0706886 6.1171875 2.0253906 z M 8.1992188 15.017578 C 8.1722186 16.276482 7.8012639 17.034552 7.03125 17 C 6.198817 16.96264 5.2832154 16.349314 4.3613281 16.099609 C 3.4410577 15.850341 2.2947784 16.976196 2.0371094 18.03125 C 1.9887181 18.229393 1.9934143 18.419454 2.0273438 18.605469 C 2.031888 18.580582 2.0309723 18.556379 2.0371094 18.53125 C 2.2947784 17.476196 3.4410577 16.350341 4.3613281 16.599609 C 5.2832154 16.849314 6.198817 17.46264 7.03125 17.5 C 7.8855429 17.538334 8.2730278 16.637708 8.2148438 15.115234 C 8.2139516 15.091891 8.2012792 15.043438 8.1992188 15.017578 z"/>
</svg>
