<svg xmlns="http://www.w3.org/2000/svg" width="24" height="24" version="1.1">
 <circle style="opacity:0.2" cx="12" cy="12.5" r="10"/>
 <path style="fill:#3584e4" d="m 20.660265,6.9999999 a 9.9999208,9.9999998 0 0 1 0,9.9999991 L 12,12 Z"/>
 <path style="fill:#a347ba" d="M 20.660265,16.999999 A 9.9999208,9.9999998 0 0 1 12,22 V 12 Z"/>
 <path style="fill:#33d17a" d="m 12,1.9999999 a 9.9999208,9.9999998 0 0 1 8.660265,5 L 12,12 Z"/>
 <path style="fill:#f6d32d" d="M 3.3397351,6.9999999 A 9.9999208,9.9999998 0 0 1 12,1.9999999 V 12 Z"/>
 <path style="fill:#ff7800" d="m 3.3397351,16.999999 a 9.9999208,9.9999998 0 0 1 0,-9.9999991 L 12,12 Z"/>
 <path style="fill:#ed333b" d="M 12,22 A 9.9999208,9.9999998 0 0 1 3.3397351,16.999999 L 12,12 Z"/>
 <path style="opacity:0.2" d="m 17.048472,6.5065164 -6.075374,6.0745746 c -0.486549,0.729727 -0.243275,1.459454 -0.9730982,2.189181 L 10.729823,15.5 c 0.729824,-0.729728 1.716383,-0.478377 2.18947,-0.97297 l 6.075375,-6.0745742 z"/>
 <path style="fill:#8b9cbe" d="m 17.048472,6.0065164 -6.075374,6.0745746 c -0.486549,0.729727 -0.243275,1.459454 -0.9730982,2.189181 L 10.729823,15 c 0.729824,-0.729728 1.716383,-0.478377 2.18947,-0.97297 l 6.075375,-6.0745742 z"/>
 <path style="opacity:0.2;fill:#8b9cbe" d="M 12,2 A 9.9999998,9.9999998 0 0 0 2,12 9.9999998,9.9999998 0 0 0 2.0107422,12.291015 9.9999998,9.9999998 0 0 1 12,2.5 9.9999998,9.9999998 0 0 1 21.989258,12.208984 9.9999998,9.9999998 0 0 0 22,12 9.9999998,9.9999998 0 0 0 12,2 Z"/>
 <path style="opacity:0.1" d="m 20.461792,3.5000003 a 1.5383258,1.5383307 0 0 0 -1.093543,0.458122 l -7.5e-4,-7.35e-4 L 17.785368,5.5396459 16.7962,4.5505965 c -0.230652,-0.2306516 -0.461303,0 -0.461303,0 l -0.732331,0.7323344 c 0,0 -0.230774,0.230652 0,0.4613035 l 4.153063,4.1531994 c 0.230774,0.2307742 0.461424,0 0.461424,0 l 0.732333,-0.7322125 c 0.230651,-0.230774 0,-0.4614255 0,-0.4614255 l -0.989046,-0.989049 1.573199,-1.5732039 0.0091,-0.00906 -2.45e-4,-2.45e-4 a 1.5380811,1.5380859 0 0 0 0.457646,-1.093913 c 0,-0.8496793 -0.688649,-1.5383307 -1.538081,-1.5383307 z" font-weight="400" overflow="visible"/>
 <path style="fill:#17191e" d="m 20.461792,3.0000003 a 1.5383258,1.5383307 0 0 0 -1.093543,0.458122 l -7.5e-4,-7.35e-4 L 17.785368,5.0396459 16.7962,4.0505965 c -0.230652,-0.2306516 -0.461303,0 -0.461303,0 L 15.602566,4.782931 c 0,0 -0.230774,0.2306519 0,0.4613034 l 4.153063,4.1531994 c 0.230774,0.230774 0.461424,0 0.461424,0 l 0.732333,-0.7322125 c 0.230651,-0.230774 0,-0.4614255 0,-0.4614255 l -0.989046,-0.9890489 1.573199,-1.573204 0.0091,-0.00906 -2.45e-4,-2.45e-4 a 1.5380811,1.5380859 0 0 0 0.457646,-1.093913 c 0,-0.8496793 -0.688649,-1.5383307 -1.538081,-1.5383307 z" font-weight="400" overflow="visible"/>
</svg>
