<svg width="24" height="24" version="1.1" xmlns="http://www.w3.org/2000/svg">
 <rect x="3" y="4.5" width="14" height="4" ry="1.9640454" style="opacity:.2"/>
 <rect x="3" y="4" width="14" height="4" ry="1.9640454" style="fill:#4f4f4f"/>
 <path d="M 4.9648438 4 C 3.8767626 4 3 4.8767626 3 5.9648438 L 3 6.0351562 C 3 6.108509 3.0137257 6.1787787 3.0214844 6.25 C 3.1288146 5.2647568 3.9501154 4.5 4.9648438 4.5 L 15.035156 4.5 C 16.049885 4.5 16.871185 5.2647568 16.978516 6.25 C 16.986274 6.1787787 17 6.108509 17 6.0351562 L 17 5.9648438 C 17 4.8767626 16.123237 4 15.035156 4 L 4.9648438 4 z " style="fill:#8b9cbe;opacity:.1"/>
 <rect x="7.9999995" y="5" width="2" height="16" ry="1" style="fill:#999999"/>
 <path d="m7.5 2.5c-0.277 0-0.5 0.223-0.5 0.5v7c0 0.277 0.223 0.5 0.5 0.5h3c0.277 0 0.5-0.223 0.5-0.5v-7c0-0.277-0.223-0.5-0.5-0.5zm7 0c-0.831 0-1.5 0.669-1.5 1.5v5c0 0.831 0.669 1.5 1.5 1.5 1.226716-0.03766 2.307643 0 3.5 0 2.216 0 4-1.7839998 4-4 0-2.216-1.784-4-4-4-1.219091 0.03527-2.275352 0-3.5 0zm-10.5 18c-0.554 0-1 0.446-1 1s0.446 1 1 1h10c0.554 0 1-0.446 1-1s-0.446-1-1-1z" style="opacity:.2"/>
 <rect x="7" y="2" width="4" height="8" ry=".5" style="fill:#20d956"/>
 <rect x="3" y="20" width="12" height="2" ry="1" style="fill:#20d956"/>
 <path d="m14.5 1.9999997c-0.831 0-1.5 0.669-1.5 1.5v5.0000002c0 0.831 0.669 1.5 1.5 1.5 1.226716-0.03766 2.307643 0 3.5 0 2.216 0 4-1.784 4-4.0000002 0-2.216-1.784-4-4-4-1.219091 0.03527-2.275352 0-3.5 0z" style="fill:#20d956"/>
 <path d="m18 2a1 1 0 0 0-1 1 1 1 0 0 0 1 1 1 1 0 0 0 1-1 1 1 0 0 0-0.808594-0.9804688c-0.064797-0.0030906-0.125817-0.0195312-0.191406-0.0195312zm-3.771484 0.0273438c-0.61226 0.1115127-1.090419 0.5905941-1.201172 1.203125a1 1 0 0 0 0.972656 0.7695312 1 1 0 0 0 1-1 1 1 0 0 0-0.771484-0.9726562zm1.771484 1.9726562a1 1 0 0 0-1 1 1 1 0 0 0 1 1 1 1 0 0 0 1-1 1 1 0 0 0-1-1zm4 0a1 1 0 0 0-1 1 1 1 0 0 0 1 1 1 1 0 0 0 1-1 1 1 0 0 0-1-1zm-6 2a1 1 0 0 0-1 1 1 1 0 0 0 1 1 1 1 0 0 0 1-1 1 1 0 0 0-1-1zm4 0a1 1 0 0 0-1 1 1 1 0 0 0 1 1 1 1 0 0 0 1-1 1 1 0 0 0-1-1zm4 0a1 1 0 0 0-1 1 1 1 0 0 0 0.517578 0.875c0.298545-0.5607562 0.482422-1.1929944 0.482422-1.875zm-6 2a1 1 0 0 0-1 1 1 1 0 0 0 0.857422 0.9902344c0.095735 2.972e-4 0.197732-0.0045782 0.292969-0.0039063a1 1 0 0 0 0.849609-0.9863281 1 1 0 0 0-1-1zm4 0a1 1 0 0 0-1 1 1 1 0 0 0 0.345703 0.7539062c0.622222-0.2220185 1.16815-0.5885553 1.603516-1.0664062a1 1 0 0 0-0.949219-0.6875z" style="opacity:.2"/>
 <path d="m7.5 2c-0.277 0-0.5 0.223-0.5 0.5v0.5c0-0.277 0.223-0.5 0.5-0.5h3c0.277 0 0.5 0.223 0.5 0.5v-0.5c0-0.277-0.223-0.5-0.5-0.5h-3zm7 0c-0.831 0-1.5 0.669-1.5 1.5v0.5c0-0.831 0.669-1.5 1.5-1.5 1.224648 0 2.280909 0.03527 3.5 0 2.130336 0 3.843956 1.6537145 3.974609 3.75 0.005254-0.0842945 0.025391-0.1643362 0.025391-0.25 0-2.216-1.784-4-4-4-1.219091 0.03527-2.275352 0-3.5 0zm-10.5 18c-0.554 0-1 0.446-1 1 0 0.088693 0.0293055 0.16823 0.0507812 0.25 0.1126669-0.428986 0.4839121-0.75 0.9492188-0.75h10c0.465307 0 0.836552 0.321014 0.949219 0.75 0.021475-0.08177 0.050781-0.161307 0.050781-0.25 0-0.554-0.446-1-1-1h-10z" style="fill:#8b9cbe;opacity:.2"/>
</svg>
