<svg width="24" height="24" version="1" xmlns="http://www.w3.org/2000/svg">
 <rect x="2" y="2.5" width="20" height="20" rx="5" ry="5" style="opacity:.2"/>
 <rect x="2" y="2" width="20" height="20" rx="5" ry="5" style="fill:#ea8ab2"/>
 <path d="m7 2c-2.77 0-5 2.23-5 5v0.5c0-2.77 2.23-5 5-5h10c2.77 0 5 2.23 5 5v-0.5c0-2.77-2.23-5-5-5h-10z" style="fill:#8b9cbe;opacity:.2"/>
 <path d="m14 4.5001661c-4.5 0-10 3-10 7.9999999 0 2.5 2.5 4 2.5 4s-1.5-2-1.5-4c0-2.9999999 4.5-5.4999999 7.5-5.4999999 1.5 0 4.5 0.5365905 4.5-1 0-1-1.881966-1.5-3-1.5zm4.5 4.5s0.5 0.9999999 0.5 3.9999999-5 6-8 5c-1.423025-0.474341-4.5-1.036591-4.5 0.5 0 1 1.9153475 1.379227 3 1.65039 6 1.5 10.5-2.15039 10.5-7.15039 0-2.5-1.5-3.9999999-1.5-3.9999999zm-6.5 1.4999999c-1.104569 0-2 1.171573-2 2s0.895431 2 2 2 2-1.171573 2-2-0.895431-2-2-2z" style="opacity:.2"/>
 <path d="m14 4c-4.5 0-10 3-10 8 0 2.5 2.5 4 2.5 4s-1.5-2-1.5-4c0-3 4.5-5.5 7.5-5.5 1.5 0 4.5 0.5365905 4.5-1 0-1-1.881966-1.5-3-1.5zm4.5 4.5s0.5 1 0.5 4-5 6-8 5c-1.423025-0.474341-4.5-1.036591-4.5 0.5 0 1 1.9153475 1.379227 3 1.65039 6 1.5 10.5-2.15039 10.5-7.15039 0-2.5-1.5-4-1.5-4zm-6.5 1.5c-1.104569 0-2 1.171573-2 2s0.895431 2 2 2 2-1.171573 2-2-0.895431-2-2-2z" style="fill:#8b9cbe"/>
</svg>
