<svg xmlns="http://www.w3.org/2000/svg" width="24" height="24" version="1.1">
 <rect style="opacity:0.2" width="20" height="20" x="2" y="2.5" rx="1" ry="1"/>
 <rect style="fill:#b2bfd9" width="20" height="20" x="2" y="2" rx="1" ry="1"/>
 <path style="opacity:0.2;fill:#8b9cbe" d="M 3,2 C 2.446,2 2,2.446 2,3 v 0.5 c 0,-0.554 0.446,-1 1,-1 h 18 c 0.554,0 1,0.446 1,1 V 3 C 22,2.446 21.554,2 21,2 Z"/>
 <path style="opacity:0.1" d="m 4.499692,6.4999868 h 1.5 V 18.499986 c -1.5,0 -1.5,1 -1.5,1 h 1.5 2 1.5 c 0,0 0,-1 -1.5,-1 v -8.383789 l 5.934459,8.418627 c 0.439644,0.980289 0.638078,0.965162 1.640853,0.965162 h 0.424845 1 c 0,0 1,0 1,-1.5 V 6.4999868 h 1.5 c 0,0 0,-1 -1.5,-1 h -2 c -1.5,0 -1.5,1 -1.5,1 h 1.5 V 14.883775 L 10.114308,6.5486098 C 9.601518,5.3522292 9.2144765,5.4999868 7.999692,5.4999868 h -2 c -1.5,0 -1.5,1 -1.5,1 z"/>
 <path style="fill:#17191e" d="m 4.499692,6 h 1.5 v 12 c -1.5,0 -1.5,1 -1.5,1 h 1.5 2 1.5 c 0,0 0,-1 -1.5,-1 V 9.616211 l 5.934459,8.418627 C 14.373795,19.015127 14.572229,19 15.575004,19 h 0.424845 1 c 0,0 1,0 1,-1.5 V 6 h 1.5 c 0,0 0,-1 -1.5,-1 h -2 c -1.5,0 -1.5,1 -1.5,1 h 1.5 v 8.383789 L 10.114308,6.048623 C 9.601518,4.8522424 9.2144765,5 7.999692,5 h -2 c -1.5,0 -1.5,1 -1.5,1 z"/>
</svg>
