<svg xmlns="http://www.w3.org/2000/svg" width="24" height="24" version="1.1">
 <path style="opacity:0.2" d="M 22,12.499908 C 22,18.022758 17.522856,22.499941 12.000199,22.5 6.481298,22.500059 1.999252,18.017424 2.0000002,12.498523 2.0007488,6.9762725 6.4776645,2.4999979 12.00009,2.4999979 c 1.651653,0 3.209822,0.4004934 4.582819,1.1097894 0.07006,0.036196 0.09051,0.1269229 0.04286,0.1897696 L 15.578212,5.181535 c -0.0516,0.06807 -0.143568,0.090768 -0.221078,0.054876 C 14.340137,4.7654806 13.207478,4.5018468 12.013532,4.4998826 7.594836,4.4926125 3.999997,8.081311 4.0000549,12.500014 c 5.65e-5,4.405687 3.5612156,7.97942 7.9621191,7.999841 4.433502,0.02057 8.023685,-3.540524 8.037731,-7.97405 0.0021,-0.670257 -0.07822,-1.321547 -0.231501,-1.944032 -0.01702,-0.06909 0.0014,-0.142108 0.04865,-0.195378 L 21.13344,8.899782 C 21.19655,8.828518 21.313172,8.849193 21.347087,8.938132 21.768998,10.044602 22,11.245119 22,12.499908 Z"/>
 <path style="fill:#b2bfd9" d="m 12,21 c 4.970566,0 9,-4.029434 9,-9 0,-4.9705665 -4.029434,-9 -9,-9 -4.9705665,0 -9,4.0294335 -9,9 0,4.970566 4.0294335,9 9,9 z"/>
 <path style="opacity:0.1" class="st0" d="M 21.468246,6.4018994 11.699602,17.457462 c -0.04809,0.05442 -0.131985,0.05699 -0.183294,0.0056 L 7.0369203,12.977594 c -0.041145,-0.0412 -0.04878,-0.105284 -0.018465,-0.155036 l 1.2143575,-1.993094 c 0.042495,-0.06974 0.138914,-0.08124 0.1965545,-0.02344 l 2.6858387,2.693258 c 0.03857,0.03868 0.102343,0.03431 0.135306,-0.0093 l 7.519509,-9.9401902 c 0.04206,-0.055597 0.12158,-0.066229 0.176989,-0.023991 0.991025,0.7554536 1.849203,1.6771816 2.532632,2.7236506 0.031,0.04746 0.02613,0.109947 -0.01139,0.1524125 z"/>
 <path style="fill:#0bbe5b" class="st0" d="M 21.468246,5.9019004 11.699602,16.957463 c -0.04809,0.05442 -0.131985,0.05699 -0.183294,0.0056 L 7.0369203,12.477596 c -0.041145,-0.0412 -0.04878,-0.105285 -0.018465,-0.155037 l 1.2143575,-1.993093 c 0.042495,-0.06974 0.138914,-0.08124 0.1965545,-0.02344 l 2.6858387,2.693258 c 0.03857,0.03867 0.102343,0.03431 0.135306,-0.0093 l 7.519509,-9.9401902 c 0.04206,-0.055597 0.12158,-0.066229 0.176989,-0.023991 0.991025,0.7554536 1.849203,1.6771816 2.532632,2.7236506 0.031,0.04746 0.02613,0.109947 -0.01139,0.1524125 z"/>
 <path style="fill:#17191e" d="m 22,11.999909 c 0,5.52285 -4.477144,10.000033 -9.999801,10.000092 C 6.481298,22.00006 1.999252,17.517425 2.0000002,11.998523 2.0007488,6.4762735 6.4776645,1.9999989 12.00009,1.9999989 c 1.651653,0 3.209822,0.4004934 4.582819,1.1097894 0.07006,0.036196 0.09051,0.126923 0.04286,0.1897696 l -1.047562,1.3819782 c -0.0516,0.06807 -0.143568,0.090768 -0.221078,0.054876 C 14.340137,4.2654816 13.207478,4.0018478 12.013532,3.9998837 7.594836,3.9926135 3.999997,7.581312 4.0000549,12.000015 c 5.65e-5,4.405686 3.5612156,7.97942 7.9621191,7.999841 4.433502,0.02057 8.023685,-3.540524 8.037731,-7.97405 0.0021,-0.670257 -0.07822,-1.321547 -0.231501,-1.944032 -0.01702,-0.06909 0.0014,-0.142108 0.04865,-0.195378 L 21.13344,8.399783 C 21.19655,8.32852 21.313172,8.349194 21.347087,8.438133 21.768998,9.544603 22,10.74512 22,11.999909 Z"/>
 <path style="opacity:0.1;fill:#8b9cbe" d="M 12,2 C 6.4775745,2 2.0007486,6.475797 2,11.998047 c -1.14e-5,0.08378 0.00381,0.166714 0.00586,0.25 C 2.1398973,6.841896 6.561563,2.5 12,2.5 c 1.596194,0 3.10357,0.3766545 4.442383,1.0419922 l 0.183593,-0.2421875 c 0.04764,-0.062847 0.0271,-0.1542342 -0.04297,-0.1904297 C 15.21001,2.400079 13.651653,2 12,2 Z m 9.250976,6.3583985 c -0.04128,-0.00738 -0.08563,0.00539 -0.117187,0.041015 l -1.316406,1.487305 c -0.0472,0.05327 -0.06584,0.1262225 -0.04883,0.1953125 0.02356,0.09567 0.04144,0.193043 0.06152,0.290039 l 1.303711,-1.4726565 c 0.0631,-0.071263 0.178976,-0.049875 0.212891,0.039065 0.402211,1.054807 0.625027,2.1964095 0.645508,3.3876955 C 21.995673,12.217638 22,12.109381 22,12 22,10.745211 21.76859,9.5449465 21.346679,8.4384765 c -0.01696,-0.04447 -0.05442,-0.0727 -0.0957,-0.080078 z M 19.991211,12.194336 C 19.887026,16.548282 16.338421,20.020305 11.961914,20 7.6453415,19.97997 4.1456321,16.539011 4.0126953,12.25 4.0100945,12.333745 3.9999989,12.415631 4,12.5 c 5.64e-5,4.405687 3.5610105,7.979579 7.961914,8 4.433502,0.02057 8.02404,-3.541083 8.038086,-7.974609 3.48e-4,-0.111161 -0.0047,-0.220983 -0.0088,-0.331055 z"/>
</svg>
