<svg xmlns="http://www.w3.org/2000/svg" width="24" height="24" version="1.1">
 <path style="opacity:0.2" d="M 16.409776,19.625337 C 12.226585,22.340982 5.3707542,22.087509 2.8192701,18.986607 0.62782964,16.323274 3.0612199,8.8038897 7.4061067,5.4014598 11.750994,1.9990299 15.940856,3.1747666 18.906719,6.8358021 21.872583,10.496839 21.052353,16.611476 16.409776,19.625337 Z"/>
 <path style="opacity:0.2" d="m 18,6.3102177 c 0.874594,-0.6364789 1.712493,-1.4574054 2.707125,-1.7210348 0.57699,-0.1321685 1.113016,-0.1558547 1.505834,0.1996994 0.240443,0.3663483 0.624905,0.7537015 0.747897,1.2988124 0.105141,0.466 0.01319,1.125686 -0.456719,1.11817 -0.353166,-0.1189235 -1.113469,-0.388363 -1.561363,-0.293224 -1.179976,0.250643 -1.489256,1.087325 -1.489256,1.087325 z"/>
 <path style="fill:#77451f" d="m 18,5.8102173 c 0.874594,-0.6364793 1.712493,-1.4574056 2.707125,-1.7210351 0.57699,-0.1321685 1.113016,-0.1558547 1.505834,0.1996995 0.240443,0.3663482 0.624905,0.7537012 0.747897,1.2988126 0.105141,0.4659999 0.01319,1.1256859 -0.456719,1.1181699 -0.353166,-0.1189235 -1.113469,-0.388363 -1.561363,-0.293224 -1.179976,0.250643 -1.489256,1.087325 -1.489256,1.087325 z"/>
 <path style="opacity:0.1;fill:#8b9cbe" d="m 21.529297,4.0058247 c -0.255232,-0.022002 -0.53377,0.016923 -0.822266,0.083008 C 19.7124,4.352462 18.874594,5.1740329 18,5.8105123 l 0.258789,0.3007809 c 0.782932,-0.5996989 1.552343,-1.2850005 2.448242,-1.5224607 0.576991,-0.1321685 1.113042,-0.1553589 1.50586,0.2001953 0.240443,0.3663483 0.625055,0.753717 0.748047,1.2988279 0.0085,0.037615 0.0069,0.080433 0.0127,0.1201175 0.03792,-0.1993695 0.03119,-0.4256414 -0.0127,-0.6201174 C 22.837946,5.0427446 22.453334,4.6553761 22.212891,4.2890278 22.016482,4.1112507 21.78453,4.0278264 21.529297,4.0058247 Z"/>
 <path style="fill:#ebbe63" d="M 16.409776,19.125337 C 12.226585,21.840982 5.3707542,21.587509 2.8192701,18.486607 0.62782964,15.823274 3.0612199,8.3038912 7.4061067,4.9014613 11.750994,1.4990313 15.940856,2.6747681 18.906719,6.3358036 21.872583,9.9968395 21.052353,16.111476 16.409776,19.125337 Z"/>
 <path style="opacity:0.2;fill:#8b9cbe" d="M 12.929688,2.8886714 C 11.177661,2.7999123 9.3071382,3.4137801 7.40625,4.9023433 4.0845563,7.5035226 1.8885388,12.503969 2.0136719,15.908203 2.1044853,12.529586 4.2437551,7.8788559 7.40625,5.4023433 c 4.344887,-3.40243 8.534137,-2.2274418 11.5,1.4335937 1.087119,1.3419298 1.660538,3.0144895 1.728516,4.742188 C 20.668055,9.6749625 20.098069,7.8071084 18.90625,6.335937 17.237952,4.2766045 15.182293,3.0027902 12.929688,2.8886714 Z"/>
 <path style="opacity:0.2" d="M 11.793752,2.5000338 C 10.980707,2.4968788 10.19002,2.604024 9.452823,2.8205127 8.3320738,3.2593158 7.4121279,3.6642716 8.4595266,4.2118205 10.445619,5.2396244 12.316828,6.6394274 13.93628,8.4154533 c 2.57665,2.8257707 4.176076,6.2123837 4.90941,9.5522937 0.207581,1.155029 1.216474,0.132924 1.630092,-0.290324 C 22.738534,15.348117 22.625154,9.6337605 19.165676,5.8398085 17.135562,3.6134183 14.353971,2.5099838 11.793752,2.5000338 Z"/>
 <path style="fill:#a9622c" d="M 11.793752,2.0000678 C 10.980707,1.9969128 10.19002,2.104058 9.452823,2.3205467 8.3320738,2.7593498 7.4121279,3.1643056 8.4595266,3.7118545 10.445619,4.7396584 12.316828,6.1394614 13.93628,7.9154873 c 2.57665,2.8257697 4.176076,6.2123827 4.90941,9.5522927 0.207581,1.155029 1.216474,0.132924 1.630092,-0.290324 C 22.738534,14.84815 22.625154,9.1337945 19.165676,5.3398425 17.135562,3.1134523 14.353971,2.0100178 11.793752,2.0000678 Z"/>
 <path style="opacity:0.1;fill:#8b9cbe" d="M 11.792969,1.9999657 C 10.979924,1.9968107 10.190322,2.1037895 9.453125,2.3202782 8.494184,2.6957291 7.6931348,3.0479267 8.1347656,3.4843407 8.3693043,3.2560978 8.8845152,3.0429041 9.453125,2.8202782 c 0.737197,-0.2164887 1.526799,-0.3234675 2.339844,-0.3203125 2.560219,0.00995 5.342933,1.1134536 7.373047,3.3398438 1.88047,2.0622807 2.7653,4.6901355 2.824218,7.0351565 C 22.05462,10.409921 21.181716,7.5503945 19.166016,5.3398095 17.135902,3.1134193 14.353188,2.0099157 11.792969,1.9999657 Z"/>
</svg>
