<svg xmlns="http://www.w3.org/2000/svg" width="24" height="24" version="1">
 <path style="opacity:0.2" d="M 10.033203,5.5 C 9.1026042,5.4880579 8.1640302,6.1008656 8.0175781,7.2753906 4.943215,8.1376469 2.703125,10.128906 2.703125,10.128906 c -0.67129,0.572028 -0.8886928,1.516223 -0.5351562,2.324219 0,0 1.8224817,3.894386 5.8496093,5.28125 0.1188196,1.006177 0.971207,1.7646 1.9843749,1.765625 H 19 c 1.104524,-1.1e-4 1.99989,-0.895476 2,-2 v -10 c -1.1e-4,-1.1045238 -0.895476,-1.9998896 -2,-2 z m 1.939453,1.6835938 0.0098,0.00781 c -0.0025,-6.42e-4 -0.0053,-0.00131 -0.0078,-0.00195 -3.59e-4,-0.00212 -0.0016,-0.00374 -0.002,-0.00586 z"/>
 <path style="fill:#4ca341" d="M 10.033203 5 C 9.1026042 4.9880579 8.1640302 5.6008656 8.0175781 6.7753906 C 4.943215 7.6376469 2.703125 9.6289063 2.703125 9.6289062 C 2.031835 10.200934 1.8144322 11.145129 2.1679688 11.953125 C 2.1679688 11.953125 3.9904505 15.847511 8.0175781 17.234375 C 8.1363977 18.240552 8.9887851 18.998975 10.001953 19 L 19 19 C 20.104524 18.99989 20.99989 18.104524 21 17 L 21 7 C 20.99989 5.8954762 20.104524 5.0001104 19 5 L 10.033203 5 z M 11.972656 6.6835938 L 11.982422 6.6914062 C 11.979922 6.6907642 11.977109 6.6900931 11.974609 6.6894531 C 11.97425 6.6873331 11.973056 6.6857138 11.972656 6.6835938 z"/>
 <path style="fill:#262626" d="m 5.5326,11.305 c 0,0 1.76084,-2.016 4.46864,-2.2245 V 8.3491 C 7.00164,8.5916 4,11.151 4,11.151 c 0,0 1.87564,4.2844 6.00114,4.6768 V 15.0504 C 6.97364,14.6664 5.5326,11.3044 5.5326,11.3044 Z m 4.46864,2.1993 v 0.71195 c -2.2882,-0.411 -3.32794,-2.807 -3.32794,-2.807 0,0 1.50324,-1.2262 3.32784,-1.425 v 0.78125 c -0.0012,0 -0.0019,-4.05e-4 -0.0029,-4.05e-4 -0.95765,-0.11578 -2.11044,0.78555 -2.11044,0.78555 0,0 0.82395,1.5174 2.11384,1.954 m 0,-6.504 v 1.349 c 0.08805,-0.00674 -0.22855,-0.0125 -0.14002,-0.01554 3.4098,-0.11578 5.6315,2.8176 5.6315,2.8176 0,0 -2.5517,3.1262 -5.21,3.1262 -0.24364,0 -0.0671,-0.02278 -0.28136,-0.06101 v 0.8342 c 0.1832,0.0234 -0.03149,0.03722 0.16671,0.03722 2.4738,0 4.2629,-1.2729 5.995,-2.7794 0.28722,0.23176 1.463,0.79555 1.7048,1.0424 -1.6471,1.3894 -5.486,2.5094 -7.662,2.5094 -0.20977,0 -0.0066,-0.01279 -0.20461,-0.03204 v 1.1722 h 8.99836 v -10 h -8.99836 z m 0,2.9838 v -0.9034 c 0.08714,-0.00521 -0.2297,-0.01083 -0.14002,-0.013715 2.452,-0.0776 4.0606,2.123 4.0606,2.123 0,0 -1.7375,2.4312 -3.6004,2.4312 -0.26811,0 -0.10386,-0.0434 -0.32021,-0.1167 v -2.7392 c 0.95455,0.11621 0.74206,0.54105 1.31596,1.5049 l 1.2764,-1.0844 c 0,0 -0.9317,-1.2312 -2.5024,-1.2312 -0.1707,0 0.07054,0.0121 -0.08986,0.0293"/>
 <path style="opacity:0.2;fill:#8b9cbe" d="M 10.033203 5 C 9.1026043 4.9880579 8.1640302 5.6008656 8.0175781 6.7753906 C 4.943215 7.6376469 2.703125 9.6289063 2.703125 9.6289062 C 2.1620899 10.08994 1.9232881 10.792315 2.0332031 11.470703 C 2.0802098 10.963223 2.2958687 10.475943 2.703125 10.128906 C 2.703125 10.128906 4.943215 8.1376469 8.0175781 7.2753906 C 8.1640302 6.1008656 9.1026043 5.4880579 10.033203 5.5 L 19 5.5 C 20.104524 5.5001104 20.99989 6.3954762 21 7.5 L 21 7 C 20.99989 5.8954762 20.104524 5.0001104 19 5 L 10.033203 5 z M 11.972656 7.1835938 C 11.973056 7.1857138 11.97425 7.1873331 11.974609 7.1894531 C 11.977109 7.1900931 11.979922 7.1907642 11.982422 7.1914062 L 11.972656 7.1835938 z"/>
</svg>
