<svg xmlns="http://www.w3.org/2000/svg" width="24" height="24" version="1.1">
 <rect style="opacity:0.2" width="20" height="20" x="2" y="2.5" rx="2" ry="2"/>
 <rect style="fill:#3e4753" width="20" height="20" x="2" y="2" rx="2" ry="2"/>
 <path style="opacity:0.2" d="m 8,7.5 v 1 h 2 v 1 H 7.5 6 V 11 11.5 H 5 v -2 H 4.5 V 10 H 4 v 3 2.5 h 1 v -2 h 1 v 2 h 1 0.5 0.75 l 2,2 h 4 1.75 v -1 h 1 v 1 h 2.060547 L 20,16.560547 V 12.689453 L 18.810547,11.5 H 17.345703 L 17,11.714844 C 16.951775,11.759828 17,12.5 17,12.5 H 16 L 15.763672,12.398438 14.753906,13.5 H 18 v -1 h 0.689453 L 19,12.810547 v 3.628906 L 18.939453,16.5 H 18 v -1 h -3 v 1 h -0.75 -3.5 l -2,-2 H 7 v -4 h 4.90625 L 13,9.5097656 V 9.5 h -2 v -1 h 2 v -1 z m 7.539062,0 -1.693359,1.7089844 c -2.231155,2.2535846 -2.157867,2.1760766 -2.091797,2.2539066 0.04251,0.05006 0.161656,0.06223 0.572266,0.0625 0.549068,3.9e-4 0.96875,0.03689 0.96875,0.08203 0,0.03593 -0.6761,0.97148 -1.181641,1.49414 l -0.40625,0.417969 -0.345703,-0.0098 c -0.504164,-0.01475 -0.537129,0.0048 -0.753906,0.458984 -0.233265,0.488733 -0.55823,1.238525 -0.59375,1.412109 -0.026631,0.130171 -0.024907,0.130552 0.11914,0.107422 0.158257,-0.02542 2.337431,-0.798347 3.509766,-1.398437 0.544643,-0.278793 0.728516,-0.390879 0.728516,-0.449219 0,-0.0578 -0.04342,-0.08433 -0.164063,-0.103516 -0.353933,-0.05624 -0.312086,-0.286866 1.375,-1.832031 0.940744,-0.861601 1.12938,-1.008124 1.09961,-1.083984 -0.02103,-0.05358 -0.103329,-0.06711 -0.423829,-0.07031 -0.218391,-0.0023 -0.556539,-0.01626 -0.751953,-0.03125 l -0.355468,-0.02734 0.740234,-0.7656255 C 16.215454,9.4156305 16.822573,8.8441617 17.240234,8.4570312 17.674289,8.0547118 18,7.7225625 18,7.6796875 18,7.6364345 17.95981,7.5949565 17.9043,7.5820315 17.85135,7.5696955 17.297815,7.5454775 16.673831,7.5292975 Z"/>
 <path style="opacity:0.1;fill:#8b9cbe" d="M 4,2 C 2.892,2 2,2.892 2,4 v 0.5 c 0,-1.108 0.892,-2 2,-2 h 16 c 1.108,0 2,0.892 2,2 V 4 C 22,2.892 21.108,2 20,2 Z"/>
 <path style="fill:#8b9cbe" d="m 8,7 v 1 h 2 V 9 H 7.5 6 V 10.5 11 H 5 V 9 H 4.5 V 9.5 H 4 v 3 0 2.5 h 1 v -2 h 1 v 2 h 1 0.5 0.75 l 2,2 h 4 1.75 v -1 h 1 v 1 h 2.060547 L 20,16.060547 V 12.189726 L 18.810547,11.000273 H 17.34479 L 17,11.214 C 16.951775,11.258984 17,12 17,12 H 15.99959 L 15.764,11.898772 14.754,13 H 18 v -1 h 0.689727 l 0.310547,0.310547 v 3.629179 l -0.06055,0.06055 H 18 V 15 h -3 v 1 h -0.75 -3.5 l -2,-2 H 7 v -3.999801 h 4.906 L 13,9.0097655 V 9 H 11 V 8 h 2 V 7 Z"/>
 <path style="fill:#ff6600" d="m 10.013316,14.880306 c 0.03552,-0.173584 0.361015,-0.9225 0.59428,-1.411233 0.216777,-0.454202 0.250102,-0.474514 0.754266,-0.459766 l 0.346071,0.01014 0.404514,-0.418216 c 0.505541,-0.52266 1.181519,-1.458781 1.181519,-1.494709 0,-0.04514 -0.418987,-0.07987 -0.968055,-0.08026 -0.41061,-2.7e-4 -0.530045,-0.01357 -0.572555,-0.06363 -0.06607,-0.07783 -0.138884,7e-4 2.092271,-2.252885 l 1.692818,-1.709745 1.134517,0.02943 c 0.623984,0.01618 1.177833,0.039535 1.230778,0.051871 C 17.95925,7.094228 18,7.135491 18,7.178744 18,7.221619 17.674671,7.5552965 17.240616,7.957616 16.822955,8.3447465 16.215461,8.9158865 15.890632,9.2268185 l -0.740534,0.765138 0.355299,0.027226 c 0.195414,0.01499 0.533986,0.02906 0.752378,0.03135 0.3205,0.0032 0.4021,0.01694 0.423126,0.07052 0.02977,0.07586 -0.157349,0.222929 -1.098093,1.08453 -1.687086,1.545165 -1.728943,1.775016 -1.37501,1.831254 0.120639,0.01919 0.162607,0.04595 0.162607,0.103746 0,0.05834 -0.182653,0.171405 -0.727296,0.450198 -1.172335,0.60009 -3.352755,1.37238 -3.511011,1.3978 -0.1440471,0.02313 -0.1454141,0.0219 -0.118783,-0.108271 z"/>
 <path style="fill:#8b9cbe;opacity:0.2" d="M 15.539062 7 L 13.845703 8.7089844 C 11.614548 10.962569 11.687836 10.885061 11.753906 10.962891 C 11.783486 10.997724 11.892106 11.010347 12.068359 11.017578 C 12.341538 10.728224 12.807066 10.258063 13.845703 9.2089844 L 15.539062 7.5 L 16.673828 7.5292969 C 17.153217 7.5417275 17.417883 7.5576623 17.619141 7.5703125 C 17.755665 7.430367 18 7.201207 18 7.1796875 C 18 7.1364345 17.959807 7.0949563 17.904297 7.0820312 C 17.851352 7.0696952 17.297812 7.0454769 16.673828 7.0292969 L 15.539062 7 z M 15.603516 10.023438 L 15.150391 10.492188 L 15.505859 10.519531 C 15.701273 10.534521 16.039421 10.548491 16.257812 10.550781 C 16.276158 10.550964 16.278108 10.552477 16.294922 10.552734 C 16.559932 10.307504 16.699798 10.167364 16.681641 10.121094 C 16.660615 10.067514 16.578312 10.053981 16.257812 10.050781 C 16.067781 10.048789 15.802042 10.036114 15.603516 10.023438 z M 12.980469 11.546875 C 12.737375 11.875235 12.421773 12.282625 12.113281 12.601562 L 11.707031 13.019531 L 11.361328 13.009766 C 10.857164 12.995018 10.824199 13.014548 10.607422 13.46875 C 10.374157 13.957483 10.049192 14.707275 10.013672 14.880859 C 9.9870408 15.01103 9.9887654 15.011411 10.132812 14.988281 C 10.134725 14.987974 10.163519 14.977086 10.166016 14.976562 C 10.290514 14.667854 10.454315 14.289537 10.607422 13.96875 C 10.824199 13.514548 10.857164 13.495018 11.361328 13.509766 L 11.707031 13.519531 L 12.113281 13.101562 C 12.618822 12.578902 13.294922 11.64335 13.294922 11.607422 C 13.294922 11.5837 13.16996 11.561374 12.980469 11.546875 z M 14.246094 13.048828 C 14.136468 13.187456 14.051845 13.307166 14.041016 13.375 C 14.244277 13.260513 14.371094 13.178519 14.371094 13.140625 C 14.371094 13.091739 14.328355 13.067506 14.246094 13.048828 z"/>
</svg>
