<svg xmlns="http://www.w3.org/2000/svg" width="24" height="24" version="1.1">
 <path style="opacity:0.2" d="M 3.053711,2.5009765 C 1.9286565,2.4708674 1.0002592,3.3745427 1,4.5 V 7.15625 C 0.99979885,7.8694005 1.3793141,8.5287155 1.9960937,8.886719 L 2.5,9.178711 v -0.04785 c 2.26e-5,0.7044345 0.3705944,1.356923 0.975586,1.717773 L 3.5,10.863281 v 0.02832 c 7.85e-4,0.04466 0.00306,0.08928 0.00684,0.133789 C 3.296887,11.399874 3.2701656,11.5 3.2675781,12.257812 3.2908436,13 3.3849289,13.429113 3.7851563,13.861328 l 0.6552734,0.705078 c 0.099623,0.339076 0.287306,0.645703 0.5439453,0.888672 l 1.5908205,1.5 C 6.946334,17.305033 7.3964845,17.5 7.3964845,17.5 l 0.501953,0.46582 c 0.252376,0.233874 0.5608165,0.398689 0.895508,0.478516 C 8.612263,19.070824 8.7474805,19.746548 9.15625,20.254883 9.5046645,21.524797 10.632969,22.5 12,22.5 c 1.367031,0 2.495335,-0.975203 2.84375,-2.245117 0.40877,-0.508335 0.543987,-1.184059 0.362305,-1.810547 0.334691,-0.07983 0.643132,-0.244642 0.895507,-0.478516 L 16.603515,17.5 c 0,0 0.450151,-0.194967 0.821289,-0.544922 l 1.590821,-1.5 c 0.256639,-0.242968 0.444322,-0.549595 0.543945,-0.888672 l 0.655274,-0.705078 c 0.400227,-0.432215 0.494312,-0.861327 0.517578,-1.603515 -0.0026,-0.757812 -0.02931,-0.857936 -0.239258,-1.232422 0.0038,-0.04451 0.006,-0.08913 0.0068,-0.133789 v -0.02832 l 0.02442,-0.01465 C 21.129405,10.487783 21.499977,9.835294 21.5,9.1308595 v 0.04785 l 0.503906,-0.291992 C 22.620686,8.5287155 23.000201,7.8694005 23,7.15625 V 4.5 C 22.999741,3.3745427 22.071343,2.4708674 20.946289,2.5009765 20.543598,2.5117015 20.153529,2.6437667 19.827148,2.8798828 L 14.570313,6.6875 C 13.92609,5.972924 13.02047,5.5 12,5.5 10.97953,5.5 10.07391,5.972924 9.4296875,6.6875 L 4.1728515,2.8798828 C 3.8464711,2.6437668 3.4564019,2.5117014 3.053711,2.5009765 Z"/>
 <path style="fill:#17191e" d="M 3.053711,2.0009765 C 1.9286565,1.9708674 1.0002592,2.8745428 1,4 V 6.65625 C 0.99979885,7.3694005 1.3793141,8.0287155 1.9960937,8.386719 L 2.5,8.678711 v -0.04785 c 2.26e-5,0.7044345 0.3705944,1.356923 0.975586,1.717773 L 3.5,10.363281 v 0.02832 c 7.85e-4,0.04466 0.00306,0.08928 0.00684,0.133789 C 3.296887,10.899874 3.2701656,11 3.2675781,11.757812 3.2908436,12.5 3.3849289,12.929113 3.7851563,13.361328 l 0.6552734,0.705078 c 0.099623,0.339076 0.287306,0.645703 0.5439453,0.888672 l 1.5908205,1.5 C 6.946334,16.805033 7.3964845,17 7.3964845,17 l 0.501953,0.46582 c 0.252376,0.233874 0.5608165,0.398689 0.895508,0.478516 C 8.612263,18.570824 8.7474805,19.246548 9.15625,19.754883 9.5046645,21.024797 10.632969,22 12,22 c 1.367031,0 2.495335,-0.975203 2.84375,-2.245117 0.40877,-0.508335 0.543987,-1.184059 0.362305,-1.810547 0.334691,-0.07983 0.643132,-0.244642 0.895507,-0.478516 L 16.603515,17 c 0,0 0.450151,-0.194967 0.821289,-0.544922 l 1.590821,-1.5 c 0.256639,-0.242968 0.444322,-0.549595 0.543945,-0.888672 l 0.655274,-0.705078 c 0.400227,-0.432215 0.494312,-0.861327 0.517578,-1.603515 -0.0026,-0.757812 -0.02931,-0.857936 -0.239258,-1.232422 0.0038,-0.04451 0.006,-0.08913 0.0068,-0.133789 v -0.02832 l 0.02442,-0.01465 C 21.129405,9.9877825 21.499977,9.335294 21.5,8.6308595 v 0.04785 l 0.503906,-0.291992 C 22.620686,8.0287155 23.000201,7.3694005 23,6.65625 V 4 C 22.999741,2.8745428 22.071343,1.9708674 20.946289,2.0009765 20.543598,2.0117015 20.153529,2.1437667 19.827148,2.3798828 L 14.570313,6.1875 C 13.92609,5.472924 13.02047,5 12,5 10.97953,5 10.07391,5.472924 9.4296875,6.1875 L 4.1728515,2.3798828 C 3.8464711,2.1437668 3.4564019,2.0117014 3.053711,2.0009765 Z"/>
 <path style="opacity:0.2" d="m 3,4.5 v 2.65625 l 1.5,0.870117 v 1.1044925 l 1,0.5966795 v 1.164063 L 6.676758,11.5 H 5.834961 L 5.25,12 H 6 v 0.5 H 5.25 L 6.644531,14 H 6.3564455 l 1.59082,1.5 h 0.234375 l 1.0771485,1 h 1.949219 l -0.577148,1 h 0.948242 L 11.356446,17.885742 10.712891,19 h 0.421875 A 1,1 0 0 0 11,19.5 a 1,1 0 0 0 1,1 1,1 0 0 0 1,-1 A 1,1 0 0 0 12.864258,19 H 13.28711 L 12.643555,17.885742 12.420899,17.5 h 0.948242 l -0.577149,-1 h 1.949219 l 1.077149,-1 h 0.234374 L 17.643554,14 H 17.355469 L 18.75,12.5 H 18 V 12 h 0.75 L 18.165039,11.5 H 17.442383 L 18.75,10.891602 V 9.727539 L 19.65039,9.1308595 V 8.026367 L 21,7.15625 V 4.5 L 13.484375,9.9433595 14.15625,10.81836 13.604492,11.5 H 12.50293 L 12.684571,11.185547 13.369141,10 h -0.25293 A 1.5,1.5 0 0 0 13.5,9 1.5,1.5 0 0 0 12,7.5 1.5,1.5 0 0 0 10.5,9 1.5,1.5 0 0 0 10.884766,10 H 10.63086 L 11.31543,11.185547 11.497071,11.5 H 10.395508 L 9.84375,10.81836 10.515625,9.9433595 Z"/>
 <path style="fill:#8d5cfe" d="M 13.484219,9.443834 14.156057,10.318393 13.1601,11.55 h 3.1005 L 18.75,10.392011 V 9.2273735 L 19.65,8.6304 V 7.5261 L 21,6.65663 V 4 Z"/>
 <path style="fill:#8d5cfe" d="M 10.515781,9.443834 9.8439425,10.318393 10.8399,11.55 H 7.7394 L 5.5,10.392011 V 9.2273735 L 4.5,8.6304 V 7.5261 L 3,6.65663 V 4 Z"/>
 <path style="fill:#59deb1" d="M 5.8353515,11 5.25,11.5 H 6 V 12 H 5.25 l 1.394824,1.5 H 12 17.355176 L 18.75,12 H 18 v -0.5 h 0.75 L 18.164648,11 H 12 Z"/>
 <path style="fill:#48c1d6" d="M 11.999999,11.413624 10.284638,13.5 H 6.355996 L 7.9475995,15 H 11.999999 16.0524 l 1.591604,-1.5 h -3.928641 z"/>
 <path style="fill:#3ea2de" d="M 12,13.3 10.839593,15 H 8.1819485 L 9.258635,16 H 12 14.741365 l 1.076686,-1 h -2.657644 z"/>
 <path style="fill:#3d87dd" d="M 12,14.628218 12.684675,15.814109 13.36935,17 H 12 10.630651 l 0.684675,-1.185891 z"/>
 <path style="fill:#3d69df" d="m 12,16.271499 0.643313,1.11425 0.643312,1.11425 H 12 10.713375 l 0.643313,-1.11425 z"/>
 <circle style="fill:#3d48e1" cx="12" cy="19" r="1"/>
 <path style="fill:#52bae1" d="M 12,11.871783 11.315326,10.685891 10.630651,9.5 H 12 13.36935 l -0.684675,1.185891 z"/>
 <circle style="fill:#5372ec" cx="12" cy="8.5" r="1.5"/>
 <path style="opacity:0.2;fill:#8b9cbe" d="m 3,4 v 0.5 l 7.268555,5.2646485 0.24707,-0.321289 z M 21,4 13.484375,9.4433595 13.731446,9.7646485 21,4.5 Z M 12,7 A 1.5,1.5 0 0 0 10.5,8.5 1.5,1.5 0 0 0 10.521485,8.743164 1.5,1.5 0 0 1 12,7.5 1.5,1.5 0 0 1 13.476563,8.75 1.5,1.5 0 0 0 13.5,8.5 1.5,1.5 0 0 0 12,7 Z M 10.041016,10.561524 9.84375,10.81836 10.395508,11.5 h 1.101563 L 11.31543,11.185547 11.208008,11 h -0.8125 z m 3.917969,0 L 13.604492,11 h -0.8125 L 12.684571,11.185547 12.50293,11.5 h 1.101562 L 14.15625,10.81836 Z M 5.788086,11.040039 5.25,11.5 H 5.834961 6 6.676758 Z M 18.289062,11.106446 17.442383,11.5 H 18 18.165039 18.75 Z M 5.25,12 5.714844,12.5 H 6 V 12 Z M 18,12 v 0.5 h 0.285156 L 18.75,12 Z M 10.919922,16.5 10.63086,17 h 0.289062 l 0.288086,-0.5 z m 1.87207,0 0.288086,0.5 h 0.289063 l -0.289063,-0.5 z m -1.501953,1 -0.577148,1 h 0.289062 L 11.356446,17.885742 11.579102,17.5 Z m 1.13086,0 0.222656,0.385742 L 12.998047,18.5 h 0.289063 l -0.577149,-1 z M 11,19 A 1,1 0 0 0 11.03321,19.250976 1,1 0 0 1 11.134766,19 Z m 1.864258,0 A 1,1 0 0 1 12.966797,19.253906 1,1 0 0 0 13,19 Z"/>
 <path style="opacity:0.1;fill:#8b9cbe" d="M 3.053711,2.0009765 C 1.9286565,1.9708674 1.0002592,2.8745428 1,4 V 4.5 C 1.0002592,3.3745427 1.9286565,2.4708674 3.053711,2.5009765 3.4564019,2.5117014 3.8464711,2.6437668 4.1728515,2.8798828 L 9.4296875,6.6875 C 10.07391,5.972924 10.97953,5.5 12,5.5 c 1.02047,0 1.92609,0.472924 2.570313,1.1875 L 19.827148,2.8798828 C 20.153529,2.6437668 20.543598,2.5117016 20.946289,2.5009765 22.071343,2.4708674 22.999741,3.3745427 23,4.5 V 4 C 22.999741,2.8745428 22.071343,1.9708674 20.946289,2.0009765 20.543598,2.0117015 20.153529,2.1437667 19.827148,2.3798828 L 14.570313,6.1875 C 13.92609,5.472924 13.02047,5 12,5 10.97953,5 10.07391,5.472924 9.4296875,6.1875 L 4.1728515,2.3798828 C 3.8464711,2.1437668 3.4564019,2.0117014 3.053711,2.0009765 Z M 3.3769531,10.78125 c -0.091846,0.217184 -0.1074678,0.417978 -0.109375,0.976563 0.00126,0.04036 0.00609,0.07081 0.00781,0.109375 0.015759,-0.410029 0.066072,-0.546823 0.2314454,-0.841797 C 3.503065,10.980883 3.500785,10.936262 3.5,10.891602 v -0.02832 l -0.024414,-0.01465 c -0.034487,-0.02057 -0.065695,-0.04496 -0.098633,-0.06738 z m 17.2460939,0 c -0.03294,0.02242 -0.06415,0.04682 -0.09863,0.06738 L 20.5,10.863281 v 0.02832 c -8e-4,0.04466 -0.0031,0.08928 -0.0068,0.133789 0.165373,0.294976 0.215683,0.431769 0.231445,0.841797 0.0017,-0.03856 0.0065,-0.06901 0.0078,-0.109375 -0.0019,-0.558584 -0.01753,-0.759378 -0.109375,-0.976562 z m -11.90625,7.639648 c -0.00445,0.110117 0.003,0.219424 0.0166,0.328125 0.013015,-0.102102 0.031415,-0.204224 0.060547,-0.304687 -0.02622,-0.0063 -0.051267,-0.01615 -0.077148,-0.02343 z m 6.566406,0 c -0.02588,0.0073 -0.05093,0.01718 -0.07715,0.02343 0.02914,0.100463 0.04753,0.202586 0.06055,0.304688 0.01361,-0.108701 0.02103,-0.218008 0.0166,-0.328125 z"/>
</svg>
