<svg xmlns="http://www.w3.org/2000/svg" width="24" height="24" version="1">
 <circle style="opacity:0.2" cx="12" cy="12.5" r="10"/>
 <circle style="fill:#0e85cd" cx="12" cy="12" r="10"/>
 <path style="opacity:0.2;fill:#8b9cbe" d="M 12,2 A 10,10 0 0 0 2,12 10,10 0 0 0 2.010742,12.291016 10,10 0 0 1 12,2.5 10,10 0 0 1 21.989258,12.208985 10,10 0 0 0 22,12 10,10 0 0 0 12,2 Z"/>
 <path style="opacity:0.2;fill-rule:evenodd" d="M 19.942524,8.249099 C 19.902774,8.225154 19.861625,8.203734 19.822125,8.1813275 19.175314,7.837149 18.463176,7.610312 17.706474,7.530919 16.369934,7.3913165 15.091631,7.730732 14.012219,8.4223075 13.273368,7.9585495 12.435134,7.656241 11.534106,7.5618645 10.291758,7.431643 9.101443,7.716871 8.07166,8.3128085 8.061785,8.3179685 8.05153,8.3251335 8.041525,8.3314185 8.016965,8.3524235 8,8.3858875 8,8.4236925 c 0,0.065251 0.04722,0.118321 0.106346,0.118321 0.00621,0 0.012025,-0.00145 0.01747,-0.00145 0.0025,-0.00125 0.00507,-0.00125 0.00722,-0.00125 C 8.684288,8.425614 9.261974,8.393268 9.8500415,8.4550185 11.50081,8.627947 12.939011,9.1899995 13.948791,10.456509 c 0.05241,0.05993 0.09913,0.05699 0.152303,-0.003 1.270201,-1.6274865 3.216711,-2.269914 5.30894,-2.0517565 0.116221,0.012325 0.231935,0.02842 0.345878,0.048305 0.03975,0.00588 0.101155,0.016945 0.136983,0.021 0.06925,0.0091 0.107106,-0.052225 0.107106,-0.1173385 -1.28e-4,-0.04523 -0.01785,-0.082755 -0.05748,-0.1044575 z"/>
 <path style="fill:#8b9cbe;fill-rule:evenodd" d="M 19.942524,7.749099 C 19.902774,7.725154 19.861625,7.703734 19.822125,7.6813275 19.175314,7.337149 18.463176,7.110312 17.706474,7.030919 16.369934,6.8913165 15.091631,7.230732 14.012219,7.9223075 13.273368,7.4585495 12.435134,7.156241 11.534106,7.0618645 10.291758,6.931643 9.101443,7.216871 8.07166,7.8128085 8.061785,7.8179685 8.05153,7.8251335 8.041525,7.8314185 8.016965,7.8524235 8,7.8858875 8,7.9236925 c 0,0.065251 0.04722,0.118321 0.106346,0.118321 0.00621,0 0.012025,-0.00145 0.01747,-0.00145 0.0025,-0.00125 0.00507,-0.00125 0.00722,-0.00125 0.553252,-0.1136995 1.130938,-0.1460455 1.7190055,-0.084295 1.6507685,0.1729285 3.0889695,0.734981 4.0987495,2.001491 0.05241,0.05993 0.09913,0.056989 0.152303,-0.00305 1.270201,-1.627487 3.216711,-2.2699145 5.30894,-2.051757 0.116221,0.012325 0.231935,0.02842 0.345878,0.048305 0.03975,0.00588 0.101155,0.016945 0.136983,0.021 0.06925,0.0091 0.107106,-0.052224 0.107106,-0.1173385 -1.28e-4,-0.04523 -0.01785,-0.082755 -0.05748,-0.1044575 z"/>
 <path style="opacity:0.2;fill-rule:evenodd" d="m 16.435865,13.500003 c -2.240006,0 -4.314054,0.700036 -6.008986,1.891273 C 9.13274,14.81831 7.6986195,14.499812 6.1883035,14.499812 c -0.9423325,0 -1.8550835,0.124819 -2.7225954,0.357346 0.00632,0.02988 -0.00661,-0.02977 0,0 -1.0666761,0.331433 -2.0243439,0.90649 -2.89317956,1.521572 -0.005611,0.0038 -0.01068,0.0075 -0.0163835,0.0114 -0.043459,0.0352 -0.0659561,0.09344 -0.0520426,0.152062 0.019245,0.08108 0.10113865,0.131288 0.18407635,0.112146 0.003085,-7.5e-4 0.143775,-0.0444 0.2110614,-0.06463 0.23238321,-0.07129 0.47097761,-0.135573 0.71124811,-0.191028 0.7398174,-0.170757 1.4750004,-0.312945 2.2021702,-0.31838 2.3181024,-0.01733 5.2085345,0.948548 6.7963705,2.370267 0.0037,0.0044 0.0087,0.0084 0.01349,0.0114 0.02645,0.02403 0.06027,0.03802 0.09927,0.03802 0.04753,0 0.091,-0.02182 0.118541,-0.05607 7.5e-4,0 0.05953,-0.08235 0.08963,-0.122601 1.886494,-2.543019 4.996957,-3.795851 8.45884,-3.795851 0.246764,0 0.493563,0.0085 0.736305,0.02566 0.07019,0.0046 0.217531,0.01615 0.220699,0.01615 0.08518,0 0.154201,-0.06783 0.154201,-0.151112 0,-0.0602 -0.03629,-0.111391 -0.08674,-0.135905 -0.0065,-0.0025 -0.01197,-0.0052 -0.01831,-0.0076 C 19.175878,13.774685 17.838213,13.5 16.435864,13.5 Z"/>
 <path style="fill:#8b9cbe;fill-rule:evenodd" d="m 16.435865,13.000003 c -2.240006,0 -4.314054,0.700036 -6.008986,1.891273 C 9.13274,14.31831 7.6986195,13.999812 6.1883035,13.999812 c -0.9423325,0 -1.8550835,0.124819 -2.7225954,0.357346 0.00632,0.02988 -0.00661,-0.02977 0,0 -1.0666761,0.331433 -2.0243439,0.90649 -2.89317956,1.521572 -0.005611,0.0038 -0.01068,0.0075 -0.0163835,0.01141 -0.043459,0.0352 -0.0659561,0.09344 -0.0520426,0.152062 0.019245,0.08108 0.10113865,0.131288 0.18407635,0.112146 0.003085,-7.5e-4 0.143775,-0.0444 0.2110614,-0.06463 0.23238321,-0.07129 0.47097761,-0.135573 0.71124811,-0.191028 0.7398174,-0.170757 1.4750004,-0.312945 2.2021702,-0.31838 2.3181024,-0.01733 5.2085345,0.948548 6.7963705,2.370267 0.0037,0.0044 0.0087,0.0084 0.01349,0.0114 0.02645,0.02403 0.06027,0.03802 0.09927,0.03802 0.04753,0 0.091,-0.02182 0.118541,-0.05607 7.5e-4,0 0.05953,-0.08235 0.08963,-0.122601 1.886494,-2.543019 4.996957,-3.795851 8.45884,-3.795851 0.246764,0 0.493563,0.0085 0.736305,0.02566 0.07019,0.0046 0.217531,0.01615 0.220699,0.01615 0.08518,0 0.154201,-0.06783 0.154201,-0.151112 0,-0.0602 -0.03629,-0.111391 -0.08674,-0.135905 -0.0065,-0.0025 -0.01197,-0.0052 -0.01831,-0.0076 C 19.175878,13.274685 17.838213,13 16.435864,13 Z"/>
</svg>
