<svg xmlns="http://www.w3.org/2000/svg" width="24" height="24" version="1.1">
 <path style="opacity:0.2" d="m 12,2.5 a 10,10 0 0 0 -10,10 10,10 0 0 0 10,10 10,10 0 0 0 1.980469,-0.207031 A 10,10 0 0 1 6,12.5 10,10 0 0 1 14.019531,2.7070312 10,10 0 0 0 12,2.5 Z"/>
 <path style="fill:#ca994c" d="M 12 2 A 10 10 0 0 0 2 12 A 10 10 0 0 0 12 22 A 10 10 0 0 0 13.980469 21.792969 A 10 10 0 0 1 6 12 A 10 10 0 0 1 14.019531 2.2070312 A 10 10 0 0 0 12 2 z"/>
 <path style="opacity:0.25" d="M 12.990234 2.0527344 A 10 10 0 0 0 4 12 A 10 10 0 0 0 13.019531 21.941406 A 10 10 0 0 0 13.980469 21.792969 A 10 10 0 0 1 6 12 A 10 10 0 0 1 14.019531 2.2070312 A 10 10 0 0 0 12.990234 2.0527344 z"/>
 <path style="opacity:0.2;fill:#8b9cbe" d="M 12,2 C 6.4771525,2 2,6.4771525 2,12 c 0.00254,0.06904 0.0058,0.138056 0.00977,0.207031 C 2.1681626,6.8027119 6.593361,2.5029592 12,2.5 c 0.272607,0.00319 0.54497,0.017523 0.816406,0.042969 C 13.210055,2.4060266 13.61188,2.2938285 14.019531,2.2070312 13.35512,2.0696912 12.678457,2.0003235 12,2 Z"/>
 <path style="opacity:0.2" d="M 13.976,5.5 C 13.712,5.4999 13.5,5.8311 13.5,6.2432 V 7.21 C 13.09,7.3279 12.696,7.493 12.324,7.7021 L 11.637,7.0146 C 11.345,6.7233 10.961,6.6398 10.774,6.8262 L 9.3262,8.2744 C 9.1398,8.4608 9.2233,8.8454 9.5146,9.1367 L 10.199,9.8203 C 9.9921,10.194 9.8293,10.589 9.7139,11 H 8.7432 C 8.3312,11 8,11.212 8,11.476 V 13.524 C 8,13.788 8.3312,14 8.7432,14 H 9.71 C 9.8279,14.41 9.993,14.804 10.202,15.176 L 9.5147,15.864 C 9.2233,16.155 9.1398,16.539 9.3262,16.726 L 10.774,18.174 C 10.961,18.36 11.345,18.277 11.637,17.985 L 12.32,17.301 C 12.693,17.508 13.089,17.671 13.5,17.786 V 18.757 C 13.5,19.169 13.712,19.5 13.976,19.5 H 16.024 C 16.288,19.5 16.5,19.169 16.5,18.757 V 17.79 C 16.91,17.672 17.304,17.507 17.676,17.298 L 18.364,17.985 C 18.655,18.276 19.04,18.36 19.226,18.174 L 20.674,16.725 C 20.861,16.539 20.777,16.154 20.486,15.863 L 19.801,15.179 C 20.008,14.806 20.171,14.41 20.286,13.999 H 21.257 C 21.669,13.999 22,13.787 22,13.523 V 11.475 C 22,11.211 21.669,10.999 21.257,10.999 H 20.29 C 20.172,10.589 20.007,10.195 19.798,9.8236 L 20.486,9.1361 C 20.777,8.8448 20.86,8.4602 20.674,8.2738 L 19.226,6.8256 C 19.039,6.6392 18.655,6.7227 18.363,7.014 L 17.68,7.6986 C 17.307,7.4916 16.911,7.3287 16.5,7.2133 V 6.2426 C 16.5,5.8306 16.288,5.5005 16.024,5.5004 Z M 15,9.5 C 16.657,9.5 18,10.843 18,12.5 18,14.157 16.657,15.5 15,15.5 13.343,15.5 12,14.157 12,12.5 12,10.843 13.343,9.5 15,9.5 Z"/>
 <path style="fill:#ca994c" d="M 13.976,4.9996 C 13.712,4.9995 13.5,5.3307 13.5,5.7428 V 6.7096 C 13.09,6.8275 12.696,6.9926 12.324,7.2017 L 11.637,6.5142 C 11.345,6.2229 10.961,6.1394 10.774,6.3258 L 9.3262,7.774 C 9.1398,7.9604 9.2233,8.345 9.5146,8.6363 L 10.199,9.3199 C 9.9921,9.6931 9.8293,10.089 9.7139,10.5 H 8.7432 C 8.3312,10.5 8,10.712 8,10.976 V 13.024 C 8,13.288 8.3312,13.5 8.7432,13.5 H 9.71 C 9.8279,13.91 9.993,14.304 10.202,14.676 L 9.5147,15.364 C 9.2233,15.655 9.1398,16.039 9.3262,16.226 L 10.774,17.674 C 10.961,17.86 11.345,17.777 11.637,17.485 L 12.32,16.801 C 12.693,17.008 13.089,17.171 13.5,17.286 V 18.257 C 13.5,18.669 13.712,19 13.976,19 H 16.024 C 16.288,19 16.5,18.669 16.5,18.257 V 17.29 C 16.91,17.172 17.304,17.007 17.676,16.798 L 18.364,17.485 C 18.655,17.776 19.04,17.86 19.226,17.674 L 20.674,16.225 C 20.861,16.039 20.777,15.654 20.486,15.363 L 19.801,14.679 C 20.008,14.306 20.171,13.91 20.286,13.499 H 21.257 C 21.669,13.499 22,13.287 22,13.023 V 10.975 C 22,10.711 21.669,10.499 21.257,10.499 H 20.29 C 20.172,10.089 20.007,9.6947 19.798,9.3232 L 20.486,8.6357 C 20.777,8.3444 20.86,7.9598 20.674,7.7734 L 19.226,6.3252 C 19.039,6.1388 18.655,6.2223 18.363,6.5136 L 17.68,7.1982 C 17.307,6.9912 16.911,6.8283 16.5,6.7129 V 5.7422 C 16.5,5.3302 16.288,5.0001 16.024,5 Z M 15,8.9996 C 16.657,8.9996 18,10.343 18,12 18,13.657 16.657,15 15,15 13.343,15 12,13.657 12,12 12,10.343 13.343,8.9996 15,8.9996 Z"/>
 <path style="fill:#8b9cbe;opacity:0.2" d="M 13.977 5 C 13.713 4.9999 13.5 5.3301 13.5 5.7422 L 13.5 6.2441 C 13.5 5.832 13.713 5.4999 13.977 5.5 L 16.023 5.5 C 16.287 5.5001 16.5 5.8302 16.5 6.2422 L 16.5 5.7422 C 16.5 5.3302 16.287 5.0001 16.023 5 L 13.977 5 z M 19.053 6.2344 C 18.852 6.1929 18.582 6.2952 18.363 6.5137 L 17.68 7.1973 C 17.307 6.9903 16.911 6.8283 16.5 6.7129 L 16.5 7.2129 C 16.911 7.3283 17.307 7.4922 17.68 7.6992 L 18.363 7.0137 C 18.655 6.7224 19.04 6.6398 19.227 6.8262 L 20.674 8.2734 C 20.686 8.286 20.687 8.306 20.697 8.3203 C 20.792 8.1077 20.797 7.8968 20.674 7.7734 L 19.227 6.3262 C 19.18 6.2796 19.12 6.2482 19.053 6.2344 z M 10.947 6.2363 C 10.88 6.2502 10.82 6.2796 10.773 6.3262 L 9.3262 7.7734 C 9.2031 7.8965 9.2085 8.1065 9.3027 8.3184 C 9.3126 8.3047 9.3141 8.2855 9.3262 8.2734 L 10.773 6.8262 C 10.96 6.6398 11.345 6.7224 11.637 7.0137 L 12.324 7.7012 C 12.696 7.4921 13.09 7.3288 13.5 7.2109 L 13.5 6.709 C 13.09 6.8269 12.696 6.9921 12.324 7.2012 L 11.637 6.5137 C 11.418 6.2952 11.148 6.1948 10.947 6.2363 z M 10.037 9.6582 C 9.9093 9.931 9.7964 10.209 9.7148 10.5 L 8.7441 10.5 C 8.3321 10.5 8 10.713 8 10.977 L 8 11.477 C 8 11.213 8.3321 11 8.7441 11 L 9.7148 11 C 9.8302 10.589 9.9923 10.194 10.199 9.8203 L 10.037 9.6582 z M 19.963 9.6602 L 19.799 9.8242 C 20.008 10.196 20.171 10.588 20.289 10.998 L 21.258 10.998 C 21.67 10.998 22 11.211 22 11.475 L 22 10.975 C 22 10.711 21.67 10.498 21.258 10.498 L 20.289 10.498 C 20.206 10.209 20.092 9.9314 19.963 9.6602 z M 12.025 12.25 C 12.018 12.334 12 12.414 12 12.5 C 12 14.157 13.343 15.5 15 15.5 C 16.657 15.5 18 14.157 18 12.5 C 18 12.414 17.982 12.334 17.975 12.25 C 17.846 13.788 16.571 15 15 15 C 13.429 15 12.154 13.788 12.025 12.25 z M 10.037 14.84 L 9.5156 15.363 C 9.2431 15.635 9.1608 15.984 9.3027 16.182 C 9.3513 16.073 9.4166 15.962 9.5156 15.863 L 10.201 15.176 C 10.14 15.067 10.091 14.952 10.037 14.84 z M 19.963 14.842 C 19.91 14.955 19.861 15.07 19.801 15.18 L 20.486 15.863 C 20.584 15.961 20.649 16.069 20.697 16.178 C 20.838 15.98 20.758 15.635 20.486 15.363 L 19.963 14.842 z"/>
</svg>
