<svg xmlns="http://www.w3.org/2000/svg" width="24" height="24" x="0" y="0" version="1.1">
 <path style="fill:#a3a3a3" d="m 11.859287,2.5159475 c -5.5228475,0 -9.2026266,3.961205 -9.2026266,9.4840525 0,5.522847 3.7735876,9.202626 9.2964356,9.202626 2.208407,0 4.296518,0.0815 5.95113,-1.130841 C 20.387513,18.252264 22,15.31444 22,12 22,9.262215 20.899792,6.781397 19.117389,4.9755569 17.304206,3.138533 14.64435,2.5159475 11.859287,2.5159475 Z M 12.25,4.5 c 2.899495,0 5.25,3.3578645 5.25,7.5 0,4.142135 -2.350505,7.5 -5.25,7.5 C 9.350505,19.5 6.0619135,16.095231 6.0619135,11.953096 6.0619135,7.81096 9.350505,4.5 12.25,4.5 Z"/>
 <path style="opacity:0.2" d="M 14.75,3.5 A 7.5,8.5 0 0 0 10.740235,4.8193359 5.25,7.5 0 0 0 7.080078,10.703125 5.25,7.5 0 0 0 7.0146485,11.447266 5.25,7.5 0 0 0 7,12 a 5.25,7.5 0 0 0 0.00683,0.297852 5.25,7.5 0 0 1 0.001,-0.02637 5.25,7.5 0 0 1 0.00683,-0.111329 5.25,7.5 0 0 1 0.1298825,-1.371094 5.25,7.5 0 0 1 0.00782,-0.04101 A 5.25,7.5 0 0 1 10.602562,5.3886745 5.25,7.5 0 0 1 12.25,5 5.25,7.5 0 0 1 17.493164,12.202149 5.25,7.5 0 0 0 17.5,12 5.25,7.5 0 0 0 12.25,4.5 5.25,7.5 0 0 0 12.236328,4.5009765 7.5,8.5 0 0 1 14.75,4 7.5,8.5 0 0 1 19.693359,6.116211 10,10 0 0 0 17.238281,3.9960938 7.5,8.5 0 0 0 14.75,3.5 Z M 2.0107422,12.208985 A 10,10 0 0 0 2,12.5 10,10 0 0 0 12,22.5 10,10 0 0 0 19.668945,18.902344 10,10 0 0 0 22,12.5 a 10,10 0 0 0 -0.01074,-0.208984 10,10 0 0 1 -4.736329,8.208007 7.5,8.5 0 0 1 -0.06641,0.0293 10,10 0 0 1 -4.529296,1.44043 10,10 0 0 1 -0.22168,0.02051 A 10,10 0 0 1 12,22 10,10 0 0 1 2.0107422,12.208985 Z"/>
 <path style="fill:#b2bfd9" d="M 12,2 A 10,10 0 0 0 2,12 10,10 0 0 0 12,22 10,10 0 0 0 19.668945,18.402344 7.5,8.5 0 0 1 14.75,20.5 7.5,8.5 0 0 1 10.766602,19.190429 5.25,7.5 0 0 1 7,12 5.25,7.5 0 0 1 10.71875,4.8339844 7.5,8.5 0 0 1 14.75,3.5 7.5,8.5 0 0 1 19.693359,5.616211 10,10 0 0 0 12,2 Z"/>
 <path style="opacity:0.2;fill:#8b9cbe" d="M 12,2 A 10,10 0 0 0 2,12 10,10 0 0 0 2.0107422,12.208985 10,10 0 0 1 12,2.5 10,10 0 0 1 17.238281,3.9960938 7.5,8.5 0 0 1 19.693359,5.616211 10,10 0 0 0 12,2 Z M 7.0078125,12.271485 A 5.25,7.5 0 0 0 7,12.5 5.25,7.5 0 0 0 10.766602,19.690429 7.5,8.5 0 0 0 14.75,21 7.5,8.5 0 0 0 17.186523,20.52832 10,10 0 0 0 19.668945,18.402344 7.5,8.5 0 0 1 14.75,20.5 7.5,8.5 0 0 1 10.766602,19.190429 5.25,7.5 0 0 1 7.0078125,12.271485 Z"/>
</svg>
