<svg width="24" height="24" version="1" xmlns="http://www.w3.org/2000/svg">
 <rect transform="rotate(90)" x="15" y="-21" width="1" height="19" style="fill:#8e8e8e"/>
 <rect transform="rotate(90)" x="13" y="-21" width="1" height="19" style="fill:#8e8e8e"/>
 <rect transform="rotate(90)" x="11" y="-21" width="1" height="19" style="fill:#8e8e8e"/>
 <rect transform="rotate(90)" x="9" y="-21" width="1" height="19" style="fill:#8e8e8e"/>
 <rect transform="rotate(90)" x="17" y="-21" width="1" height="19" style="fill:#8e8e8e"/>
 <rect transform="rotate(90)" x="19" y="-21" width="1" height="19" style="fill:#8e8e8e"/>
 <rect transform="rotate(90)" x="7" y="-21" width="1" height="19" style="fill:#8e8e8e"/>
 <rect transform="rotate(90)" x="5" y="-21" width="1" height="19" style="fill:#8e8e8e"/>
 <rect x="11" y="3" width="1" height="19" style="fill:#8e8e8e"/>
 <rect x="9" y="3" width="1" height="19" style="fill:#8e8e8e"/>
 <rect x="7" y="3" width="1" height="19" style="fill:#8e8e8e"/>
 <rect x="5" y="3" width="1" height="19" style="fill:#8e8e8e"/>
 <rect x="13" y="3" width="1" height="19" style="fill:#8e8e8e"/>
 <rect x="15" y="3" width="1" height="19" style="fill:#8e8e8e"/>
 <rect x="17" y="3" width="1" height="19" style="fill:#8e8e8e"/>
 <rect x="3" y="3" width="1" height="19" style="fill:#8e8e8e"/>
 <rect x="19" y="3" width="1" height="19" style="fill:#8e8e8e"/>
 <rect transform="matrix(0,-1,-1,0,0,0)" x="-21.5" y="-20" width="17" height="17" rx=".85" ry="1.063" style="opacity:.2"/>
 <rect transform="matrix(0,-1,-1,0,0,0)" x="-21" y="-20" width="17" height="17" rx=".85" ry="1.063" style="fill:#4f4f4f"/>
 <rect transform="matrix(0,-1,-1,0,0,0)" x="-20.502251" y="-19" width="14" height="14" rx="7" ry="7" style="opacity:.2"/>
 <rect transform="matrix(0,-1,-1,0,0,0)" x="-20.002251" y="-19" width="14" height="14" rx="7" ry="7" style="fill:#e62f2f"/>
 <path d="M 4.0625,4 C 3.473875,4 3,4.3787094 3,4.8496094 v 0.5 C 3,4.8787094 3.473875,4.5 4.0625,4.5 h 14.875 C 19.526125,4.5 20,4.8787094 20,5.3496094 v -0.5 C 20,4.3787094 19.526125,4 18.9375,4 Z" style="fill:#8b9cbe;opacity:.1"/>
 <g transform="matrix(.5 0 0 .5 -234.5 -81.9975)" style="enable-background:new;opacity:.2">
  <path d="m489 183v8.1875c-0.32-0.12-0.64-0.19-1-0.19-1.6568 0-3 1.3432-3 3s1.3432 3 3 3 3-1.3432 3-3v-7h6v4.1875c-0.32-0.12-0.64-0.19-1-0.19-1.6568 0-3 1.3432-3 3s1.3432 3 3 3 3-1.3432 3-3v-11h-1z"/>
 </g>
 <g transform="matrix(.5 0 0 .5 -234.5 -82.4975)" style="enable-background:new;fill:#8b9cbe">
  <path d="m489 183v8.1875c-0.32-0.12-0.64-0.19-1-0.19-1.6568 0-3 1.3432-3 3s1.3432 3 3 3 3-1.3432 3-3v-7h6v4.1875c-0.32-0.12-0.64-0.19-1-0.19-1.6568 0-3 1.3432-3 3s1.3432 3 3 3 3-1.3432 3-3v-11h-1z" style="fill:#8b9cbe"/>
 </g>
 <path d="m12 6.00225c-3.878 0-7 3.122-7 7 0 0.08452 0.00878 0.166218 0.011719 0.25 0.1320284-3.7601381 3.1948061-6.75 6.988281-6.75 3.793475 0 6.856253 2.9898619 6.988281 6.75 0.0029-0.08378 0.01172-0.165475 0.01172-0.25 0-3.878-3.122-7-7-7z" style="fill:#8b9cbe;opacity:.2"/>
</svg>
