<svg width="24" height="24" version="1" xmlns="http://www.w3.org/2000/svg">
 <rect x="2" y="2" width="20" height="20" rx="1" ry="1" style="fill:#c2352a"/>
 <path d="m3 2c-0.554 0-1 0.446-1 1v0.5c0-0.554 0.446-1 1-1h18c0.554 0 1 0.446 1 1v-0.5c0-0.554-0.446-1-1-1z" style="fill:#8b9cbe;opacity:.2"/>
 <path d="m3 22.5c-0.554 0-1-0.446-1-1v-0.5c0 0.554 0.446 1 1 1h18c0.554 0 1-0.446 1-1v0.5c0 0.554-0.446 1-1 1z" style="opacity:.2"/>
 <path d="m20.492188 8.4863281a0.50005 0.50005 0 0 0-0.492188 0.5058594v5.8828125l-3.052734-6.1054688a0.50005 0.50005 0 0 0-0.947266 0.2226563v8.0000005a0.50005 0.50005 0 1 0 1 0v-5.88086l3.052734 6.105469a0.50005 0.50005 0 0 0 0.947266-0.224609v-8.0000005a0.50005 0.50005 0 0 0-0.507812-0.5058594zm-9.355469 0.00195c-0.398255-0.01177-0.660157 0.00586-0.660157 0.00586a0.50005 0.50005 0 0 0-0.46875 0.4980469v3.917969a0.50005 0.50005 0 0 0 0 0.167969v3.914062a0.50005 0.50005 0 1 0 1 0v-3.541015c0.345433 0.0089 0.788397 0.05178 1.605469-0.126954 0.543701-0.118935 1.109419-0.311132 1.576172-0.675781 0.466753-0.364652 0.818359-0.945603 0.818359-1.65625 0-0.71065-0.351606-1.289646-0.818359-1.6542969-0.466753-0.3646484-1.032471-0.5587971-1.576172-0.6777319-0.543701-0.1189346-1.078308-0.1601047-1.476562-0.171875zm-4.6250002 0.0117219c-0.6365742 0-1.1631919 0.1466676-1.5605469 0.4433594-0.397355 0.2966917-0.6320344 0.7213836-0.7617188 1.1660156-0.2593686 0.889264-0.1777344 1.911458-0.1777343 2.890625 0 0.979167-0.081634 2.001361 0.1777343 2.890625 0.1296844 0.444632 0.3643638 0.869324 0.7617188 1.166016 0.397355 0.296691 0.9239727 0.443359 1.5605469 0.443359 0.6365739 0 1.1651449-0.146668 1.5625-0.443359 0.3973548-0.296692 0.6320344-0.721384 0.7617187-1.166016 0.2593687-0.889264 0.1757813-1.911458 0.1757813-2.890625s0.083587-2.001361-0.1757813-2.890625c-0.1296843-0.444632-0.3643639-0.8693239-0.7617187-1.1660156-0.3973551-0.2966918-0.925926-0.4433594-1.5625-0.4433594zm0 1c0.4884259 0 0.7743081 0.103332 0.9628906 0.244141 0.1885825 0.140808 0.3132781 0.341116 0.4023437 0.646484 0.1781314 0.610736 0.1347657 1.588542 0.1347657 2.609375s0.043366 1.998639-0.1347657 2.609375c-0.089066 0.305368-0.2137612 0.505676-0.4023437 0.646484-0.1885825 0.140809-0.4744648 0.244141-0.9628906 0.244141-0.4884261 0-0.772355-0.103332-0.9609376-0.244141-0.1885824-0.140808-0.313278-0.341116-0.4023437-0.646484-0.1781313-0.610736-0.1367188-1.588542-0.1367187-2.609375 0-1.020833-0.041413-1.998639 0.1367187-2.609375 0.089066-0.305368 0.2137613-0.505676 0.4023437-0.646484 0.1885826-0.140809 0.4725115-0.244141 0.9609376-0.244141zm5.0527342 0.025391c0.22393 0.0089 0.494565 0.036652 0.835938 0.111328 0.456299 0.09982 0.890581 0.266994 1.173828 0.488281s0.433594 0.452835 0.433593 0.867188c0 0.41435-0.150346 0.647853-0.433593 0.86914s-0.717529 0.386513-1.173828 0.486328c-0.682765 0.149355-1.081615 0.115115-1.392579 0.109375v-2.927734c0.155489-0.00285 0.332712-0.012805 0.556641-0.00391z" style="opacity:.2"/>
 <path d="m20.492188 7.9863281a0.50005 0.50005 0 0 0-0.492188 0.5058594v5.8828125l-3.052734-6.1054688a0.50005 0.50005 0 0 0-0.947266 0.2226563v8.0000005a0.50005 0.50005 0 1 0 1 0v-5.88086l3.052734 6.105469a0.50005 0.50005 0 0 0 0.947266-0.224609v-8.0000005a0.50005 0.50005 0 0 0-0.507812-0.5058594zm-9.355469 0.0019531c-0.398255-0.0117702-0.660157 0.0058594-0.660157 0.0058594a0.50005 0.50005 0 0 0-0.46875 0.4980469v3.9179685a0.50005 0.50005 0 0 0 0 0.167969v3.914063a0.50005 0.50005 0 1 0 1 0v-3.541016c0.345433 0.0089 0.788397 0.05178 1.605469-0.126953 0.543701-0.118935 1.109419-0.311132 1.576172-0.675781 0.466753-0.364652 0.81836-0.945603 0.818359-1.65625 0-0.7106494-0.351606-1.2896464-0.818359-1.6542974-0.466753-0.3646509-1.032471-0.5587996-1.576172-0.6777344-0.543701-0.1189346-1.078308-0.1601047-1.476562-0.171875zm-4.6250002 0.0117188c-0.6365741 0-1.1631919 0.1466676-1.5605469 0.4433594-0.397355 0.2966917-0.6320344 0.7213836-0.7617188 1.1660156-0.2593686 0.889264-0.1777343 1.911458-0.1777343 2.890625s-0.081634 2.001361 0.1777343 2.890625c0.1296844 0.444632 0.3643638 0.869324 0.7617188 1.166016 0.397355 0.296691 0.9239728 0.443359 1.5605469 0.443359 0.636574 0 1.1651449-0.146668 1.5625-0.443359 0.3973548-0.296692 0.6320344-0.721384 0.7617187-1.166016 0.2593687-0.889264 0.1757813-1.911458 0.1757813-2.890625s0.083587-2.001361-0.1757813-2.890625c-0.1296843-0.444632-0.3643639-0.8693239-0.7617187-1.1660156-0.3973551-0.2966918-0.9259261-0.4433594-1.5625-0.4433594zm0 1c0.4884259 0 0.7743081 0.1033323 0.9628906 0.2441406s0.3132781 0.3411163 0.4023437 0.6464844c0.1781314 0.610736 0.1347656 1.588542 0.1347657 2.609375 0 1.020833 0.043366 1.998639-0.1347657 2.609375-0.089066 0.305368-0.2137612 0.505676-0.4023437 0.646484-0.1885825 0.140809-0.4744648 0.244141-0.9628906 0.244141-0.488426 0-0.7723549-0.103332-0.9609376-0.244141-0.1885824-0.140808-0.313278-0.341116-0.4023437-0.646484-0.1781313-0.610736-0.1367187-1.588542-0.1367187-2.609375s-0.041413-1.998639 0.1367187-2.609375c0.0890657-0.3053681 0.2137613-0.5056761 0.4023437-0.6464844 0.1885826-0.1408083 0.4725115-0.2441406 0.9609376-0.2441406zm5.0527342 0.0253906c0.22393 0.0089041 0.494565 0.0366527 0.835938 0.1113282 0.456299 0.0998149 0.890581 0.2669943 1.173828 0.4882812s0.433594 0.452835 0.433593 0.867188c0 0.41435-0.150346 0.647853-0.433593 0.86914s-0.717529 0.386513-1.173828 0.486328c-0.682765 0.149355-1.081615 0.115115-1.392579 0.109375v-2.9277341c0.155489-0.00287 0.332712-0.0128104 0.556641-0.0039063z" style="fill:#f5b0b0"/>
</svg>
