<svg xmlns="http://www.w3.org/2000/svg" width="24" height="24" version="1">
 <path style="opacity:0.2" d="m 12,2.5 c -2.209139,0 -4,1.790861 -4,4 0.00264,1.821835 1.2360135,3.4117307 3,3.867188 V 11.5 H 8 v 2 h 3 v 4.516601 C 10.664289,18.528185 9.8920895,18.810227 9.4697265,18.754883 7.0096635,18.432469 5.012915,17.902715 3.8642578,16.83789 L 5.5498045,16.921875 4.1132812,15.583008 2.6757813,14.243164 C 2.1332858,15.470653 2.069166,16.690297 2,18.001953 l 0.890625,-0.87793 c 0.4283295,1.764152 6.2677805,2.875736 7.0927735,3.601563 L 12,22.5 14.015625,20.727539 c 0.82666,-0.727494 6.666227,-1.84258 7.08789,-3.608399 L 22,18.001953 c 0,-1.334989 -0.290785,-2.504632 -0.675781,-3.758789 l -1.436524,1.339844 -1.220703,1.339843 1.472656,-0.08496 C 18.993825,17.898715 17.0055,18.431552 14.554688,18.754883 14.12564,18.811489 13.338983,18.526595 13,18.011719 V 13.5 h 3 v -2 H 13 V 10.370117 C 14.765041,9.9143859 15.998694,8.3229258 16,6.5 15.997626,4.3919353 14.359609,2.6475364 12.25586,2.5126953 12.171812,2.5041611 12.086301,2.5 12,2.5 Z"/>
 <path style="fill:#455a64" d="M 12,2 C 9.790861,2 8,3.790861 8,6 c 0.00264,1.8218348 1.2360137,3.4117302 3,3.8671875 V 11 H 8 v 2 h 3 v 4.516601 C 10.664289,18.028185 9.8920895,18.310227 9.4697265,18.254883 7.0096635,17.932469 5.012915,17.402715 3.8642578,16.33789 L 5.5498045,16.421875 4.1132812,15.083008 2.6757813,13.743164 C 2.1332858,14.970653 2.069166,16.190297 2,17.501953 l 0.890625,-0.87793 c 0.4283295,1.764152 6.2677805,2.875736 7.0927735,3.601563 L 12,22 14.015625,20.227539 c 0.82666,-0.727494 6.666227,-1.84258 7.08789,-3.608399 L 22,17.501953 c 0,-1.334989 -0.290785,-2.504632 -0.675781,-3.758789 l -1.436524,1.339844 -1.220703,1.339843 1.472656,-0.08496 C 18.993825,17.398715 17.0055,17.931552 14.554688,18.254883 14.12564,18.311489 13.338983,18.026595 13,17.511719 V 13 h 3 V 11 H 13 V 9.870117 C 14.765041,9.4143859 15.998694,7.8229258 16,6 15.997626,3.8919353 14.359609,2.1475364 12.25586,2.0126953 12.171812,2.0041611 12.086301,2 12,2 Z"/>
 <path style="opacity:0.2" d="m 12,4.5 c 1.104982,0 2,0.8949775 2,1.9999995 0,1.105022 -0.895018,2 -2,2 -1.104982,0 -2,-0.894978 -2,-2 C 10,5.3949775 10.895018,4.5 12,4.5 Z"/>
 <path style="fill:#8b9cbe" d="m 12,4 c 1.104982,0 2,0.8949773 2,1.9999995 0,1.105022 -0.895018,2 -2,2 -1.104982,0 -2,-0.894978 -2,-2 C 10,4.8949773 10.895018,4 12,4 Z"/>
 <path style="opacity:0.1;fill:#8b9cbe" d="M 12,2 C 9.790861,2 8,3.790861 8,6 c 0.00176,0.069743 0.00534,0.1394286 0.01074,0.2089845 C 8.1632449,4.1183645 9.9038249,2.5000732 12,2.5 c 0.0863,0 0.171812,0.00416 0.25586,0.012695 2.00493,0.1307063 3.601788,1.7284012 3.731445,3.733399 C 15.994063,6.1642125 15.998297,6.0821422 16,6 15.997626,3.8919353 14.359609,2.1475364 12.25586,2.0126953 12.171812,2.0041611 12.086301,2 12,2 Z m -4,9 v 0.5 h 3 V 11 Z m 5,0 v 0.5 h 3 V 11 Z M 2.6757813,13.743164 C 2.1332858,14.970653 2.069166,16.190297 2,17.501953 l 0.032227,-0.03125 C 2.098561,16.35922 2.2077362,15.302198 2.6757817,14.243164 l 1.4375,1.339844 0.8701172,0.810546 0.5664061,0.02832 -1.4365233,-1.338867 z m 18.6484377,0 -1.436524,1.339844 -1.220703,1.339843 0.480469,-0.02735 0.740234,-0.812499 1.436524,-1.339844 c 0.334624,1.090068 0.596946,2.116727 0.660156,3.243163 L 22,17.501953 c 0,-1.334989 -0.290785,-2.504632 -0.675781,-3.758789 z M 3.8642578,16.83789 C 5.012915,17.902715 7.0096635,18.432469 9.4697265,18.754883 9.8920895,18.810227 10.664289,18.528185 11,18.016601 v -0.5 C 10.664289,18.028185 9.8920895,18.310227 9.4697265,18.254883 7.4688205,17.992645 5.783398,17.58791 4.602539,16.875 Z m 16.2753902,0 -0.75,0.04297 c -1.176389,0.706562 -2.849057,1.112028 -4.83496,1.374024 C 14.12564,18.311489 13.338983,18.026595 13,17.511719 v 0.5 c 0.338983,0.514875 1.12564,0.79977 1.554688,0.743164 2.450812,-0.323331 4.439137,-0.856168 5.58496,-1.916993 z"/>
</svg>
