<svg xmlns="http://www.w3.org/2000/svg" width="24" height="24" version="1">
 <path style="opacity:0.2" d="m 17.855257,2.5 c -2.104194,0 -4.100048,1.2542407 -4.703565,3.2363281 -0.430084,-0.061712 -0.803843,-0.2226562 -1.26312,-0.2226562 l -1.214389,0 -1.2026932,0 C 9.393208,5.5044529 9.31445,5.4998877 9.2356294,5.5 l -6.2395816,0 C 1.8929481,5.50011 0.99903847,6.3966667 1.0000053,7.5019531 1,7.5 1.0039063,11.507812 1.0039063,11.507812 1.0083097,12.609283 1.900646,13.499897 2.9999458,13.5 l 0.4132432,0 -1.3079535,4.642578 c -0.00333,0.0097 -0.00658,0.01951 -0.00975,0.0293 -0.2254981,0.851611 0.086148,1.93007 0.7270741,2.533203 C 3.4634892,21.308211 4.2530791,21.5 4.9842931,21.5 l 3.7757168,0 c 4.5119501,0 7.3567061,-3.265738 8.2941011,-6.339844 0.01223,-0.03872 0.02328,-0.0778 0.03313,-0.117187 l 0.421039,-1.759766 c 0.701896,-0.09778 1.415851,-0.155047 2.058419,-0.480469 0.932951,-0.472482 1.889328,-1.23616 2.26699,-2.529296 l 0,-0.0019 c 0.2416,-0.8281625 0.01984,-1.7257334 -0.339167,-2.4550818 0.340537,-0.2206554 0.7732,-0.3293309 1.013615,-0.6445312 0.737352,-0.9667271 0.47316,-1.7359083 0.302135,-2.2265625 C 22.639252,4.4546583 22.378776,4.0742399 22.038369,3.7226562 21.357554,3.019489 20.27121,2.4894629 18.999473,2.5 c -0.233221,7.4e-6 -0.931839,2.783e-4 -1.142266,0 l -0.002,0 z m -2.797188,3.2148438 c -0.0018,0.00611 0.0037,0.013376 0.002,0.019531 -0.0025,0.00862 -0.01127,0.0148 -0.01364,0.023437 l 0.0117,-0.042969 z M 5.9550246,19.197266 c -1.482e-4,5.64e-4 1.493e-4,0.0014 0,0.002 l -0.00975,0.0293 0.00975,-0.03125 z"/>
 <path style="fill:#4f4f4f" d="M 17.855257,2 C 15.751063,2 13.755209,3.2542407 13.151692,5.2363281 12.721608,5.1746166 12.347849,5.0136719 11.888572,5.0136719 l -1.214389,0 -1.2026932,0 C 9.393208,5.0044529 9.31445,4.9998877 9.2356294,5 L 2.9960478,5 C 1.8929481,5.00011 0.99903847,5.8966667 1.0000053,7.0019531 1,7 1.0039063,11.007812 1.0039063,11.007812 1.0083097,12.109283 1.900646,12.999897 2.9999458,13 l 0.4132432,0 -1.3079535,4.642578 c -0.00333,0.0097 -0.00658,0.01951 -0.00975,0.0293 -0.2254981,0.851611 0.086148,1.93007 0.7270741,2.533203 C 3.4634892,20.808211 4.2530791,21 4.9842931,21 l 3.7757168,0 c 4.5119501,0 7.3567061,-3.265738 8.2941011,-6.339844 0.01223,-0.03872 0.02328,-0.0778 0.03313,-0.117187 l 0.421039,-1.759766 c 0.701896,-0.09778 1.415851,-0.155047 2.058419,-0.480469 0.932951,-0.472482 1.889328,-1.23616 2.26699,-2.5292965 l 0,-0.00195 c 0.2416,-0.828162 0.01984,-1.7257329 -0.339167,-2.4550813 0.340537,-0.2206554 0.7732,-0.3293309 1.013615,-0.6445312 0.737352,-0.9667271 0.47316,-1.7359083 0.302135,-2.2265625 C 22.639252,3.9546583 22.378776,3.5742399 22.038369,3.2226562 21.357554,2.519489 20.27121,1.9894629 18.999473,2 c -0.233221,7.4e-6 -0.931839,2.783e-4 -1.142266,0 l -0.002,0 z m -2.797188,3.2148438 c -0.0018,0.00611 0.0037,0.013376 0.002,0.019531 -0.0025,0.00862 -0.01127,0.0148 -0.01364,0.023437 l 0.0117,-0.042969 z M 5.9550246,18.697266 c -1.482e-4,5.64e-4 1.493e-4,0.0014 0,0.002 l -0.00975,0.0293 0.00975,-0.03125 z"/>
 <path style="opacity:0.2" d="m 17.886719,4.5 c -1.427527,0 -2.495171,0.7468432 -2.814453,1.8398438 -0.606938,2.0482149 2.782138,2.1749891 2.40625,3.4453124 -0.128429,0.4365908 -0.495965,0.6427628 -0.988282,0.6933598 0.01131,0.330414 -0.02467,0.673103 -0.08398,1.021484 0.06979,-6.8e-5 0.13906,-2.07e-4 0.208984,0 1.427343,0.0063 3.018603,-0.696012 3.337891,-1.7890625 C 20.576537,7.5839945 16.625452,7.5395695 17,6.2890625 c 0.108817,-0.394764 0.506679,-0.4826341 0.912109,-0.4882813 0.371726,-0.00633 1.16446,0.3475843 1.283203,0.4414063 0.607176,0.4797245 1.345059,0.2625857 1.763672,-0.2851563 C 21.180344,5.6673848 20.532569,4.4877307 19.048828,4.5 c -0.221874,0 -0.940904,2.92e-4 -1.162109,0 z M 2.9980469,7.5 3,9.5 l 1.8300781,0 1.5644531,0 3.5429688,0 0.302734,0 0.244141,0 c 1.575364,0.114553 2.236419,0.995948 1.769531,2.556641 l -0.697265,2.552734 c -0.470694,1.561692 -1.6486376,2.916016 -3.4570316,2.916016 l -0.2109375,0 L 9.3164062,12.5 5.7753906,12.5 4.0292969,18.685547 C 3.9200239,19.097408 4.2549572,19.5 4.9902344,19.5 l 3.7832031,0 c 3.6167945,0 5.6433425,-2.452462 6.3984375,-4.923828 l 0.580078,-2.416016 C 16.534361,9.5857357 15.524992,7.5136719 11.908203,7.5136719 l -1.216797,0 -1.3515622,0 -0.091797,0 L 9.25,7.5 2.9980469,7.5 Z m 0,3 0.00391,1 2.3398438,0 4.6621093,0 c 0.188537,-0.518089 -0.1407963,-1.039442 -0.5292968,-1 l -4.0019532,0 -2.4746093,0 z"/>
 <path style="fill:#8b9cbe" d="m 9.4743815,10 -4.001437,0 -2.4744345,0 0.00298,0.999959 2.3407475,0 4.6613815,0 C 10.192156,10.48187 9.8631645,9.960558 9.474664,10 Z"/>
 <path style="fill:#8b9cbe" d="M 17.886719 4 C 16.459192 4 15.391548 4.7468432 15.072266 5.8398438 C 14.465328 7.8880587 17.854404 8.0148328 17.478516 9.2851562 C 17.350087 9.7217466 16.982551 9.9279187 16.490234 9.9785156 C 16.501541 10.30893 16.465563 10.651619 16.40625 11 C 16.476044 10.999932 16.54531 10.999793 16.615234 11 C 18.042577 11.0063 19.633837 10.303988 19.953125 9.2109375 C 20.576537 7.0839945 16.625452 7.0395695 17 5.7890625 C 17.108817 5.3942985 17.506679 5.3064283 17.912109 5.3007812 C 18.283835 5.2944512 19.076568 5.6483655 19.195312 5.7421875 C 19.802488 6.221912 20.540371 6.0047732 20.958984 5.4570312 C 21.180344 5.1673848 20.532569 3.9877307 19.048828 4 C 18.826954 4 18.107924 4.000292 17.886719 4 z M 15.478516 10 L 15.382812 11 L 15.388672 11 C 15.461694 10.644585 15.500651 10.307351 15.488281 10 L 15.478516 10 z"/>
 <path style="fill:#f35654" d="m 2.9985742,6.9998165 6.25e-4,2 1.8307414,0 1.5655299,0 3.541437,0 0.3039855,0 0.243189,0 c 1.575364,0.114553 2.23577,0.995738 1.768882,2.5564305 l -0.69627,2.553838 C 11.086,15.671777 9.908953,17.025534 8.100559,17.025534 l -0.2127885,0 L 9.3172295,12 5.775793,12 4.0300169,18.186079 c -0.109273,0.411861 0.2241975,0.813822 0.9594747,0.813822 l 3.7846244,0 c 3.616795,0 5.643016,-2.452437 6.398111,-4.923803 l 0.579434,-2.416404 C 16.534069,9.0852735 15.524819,7.012917 11.90803,7.012917 l -1.215944,0 -1.352741,0 -0.091191,0 0.0012,-0.013 -6.2507945,0 -4.35e-5,0 3.9e-5,2.505e-4 3.4e-6,-2.505e-4 z"/>
 <path style="fill:#8b9cbe;opacity:0.2" d="M 17.886719 4 C 16.459192 4 15.391548 4.7468432 15.072266 5.8398438 C 14.990955 6.1142396 14.985831 6.351658 15.029297 6.5644531 C 15.041269 6.4904715 15.048676 6.4194504 15.072266 6.3398438 C 15.391548 5.2468432 16.459192 4.5 17.886719 4.5 C 18.107924 4.500292 18.826954 4.5 19.048828 4.5 C 20.081888 4.4914575 20.700745 5.0575785 20.912109 5.5019531 C 20.926267 5.4849795 20.945477 5.4747057 20.958984 5.4570312 C 21.180344 5.1673848 20.532569 3.9877307 19.048828 4 C 18.826954 4 18.107924 4.000292 17.886719 4 z M 17.044922 6.2070312 C 17.031681 6.2362706 17.009242 6.2555329 17 6.2890625 C 16.67227 7.3832561 19.656727 7.5534206 19.990234 9.0039062 C 20.257685 7.3337908 17.522144 7.0478249 17.044922 6.2070312 z M 2.9980469 7 L 2.9980469 7.5 L 9.25 7.5 L 9.2480469 7.5136719 L 9.3398438 7.5136719 L 10.691406 7.5136719 L 11.908203 7.5136719 C 14.562148 7.5136719 15.808237 8.6310132 15.976562 10.242188 C 16.023656 8.3701644 14.825091 7.0136719 11.908203 7.0136719 L 10.691406 7.0136719 L 9.3398438 7.0136719 L 9.2480469 7.0136719 L 9.25 7 L 2.9980469 7 z M 17.451172 9.3417969 C 17.306841 9.7351935 16.958138 9.9304277 16.490234 9.9785156 C 16.501541 10.30893 16.465563 10.651619 16.40625 11 C 16.428428 10.999978 16.450547 11.000023 16.472656 11 C 16.488774 10.823547 16.496081 10.649318 16.490234 10.478516 C 16.982551 10.427919 17.350087 10.221747 17.478516 9.7851562 C 17.527207 9.6206031 17.511961 9.4746352 17.451172 9.3417969 z M 2.9980469 10 L 3 10.5 L 5.4726562 10.5 L 9.4746094 10.5 C 9.7208393 10.475002 9.9259001 10.684862 10.007812 10.966797 C 10.170424 10.460098 9.85466 9.9614159 9.4746094 10 L 5.4726562 10 L 2.9980469 10 z M 12.380859 10.929688 C 12.359769 11.126005 12.321143 11.331886 12.253906 11.556641 L 11.556641 14.109375 C 11.085947 15.671067 9.9080034 17.025391 8.0996094 17.025391 L 8.03125 17.025391 L 7.8886719 17.525391 L 8.0996094 17.525391 C 9.9080034 17.525391 11.085947 16.171067 11.556641 14.609375 L 12.253906 12.056641 C 12.382436 11.626997 12.418834 11.254544 12.380859 10.929688 z M 5.7753906 12 L 4.0292969 18.185547 C 3.9954603 18.31308 4.0183137 18.43475 4.0683594 18.548828 L 5.7753906 12.5 L 9.1738281 12.5 L 9.3164062 12 L 5.7753906 12 z"/>
 <path style="opacity:0.1;fill:#8b9cbe" d="M 17.855469 2 C 15.751275 2 13.755861 3.2542407 13.152344 5.2363281 C 12.72226 5.1746166 12.347949 5.0136719 11.888672 5.0136719 L 10.673828 5.0136719 L 9.4707031 5.0136719 C 9.3924213 5.0044529 9.3151487 4.9998877 9.2363281 5 L 2.9960938 5 C 1.892994 5.00011 0.99903317 5.8966667 1 7.0019531 L 1 7.4980469 C 1.0011703 6.3945812 1.8943127 5.5001099 2.9960938 5.5 L 9.2363281 5.5 C 9.3151487 5.4998877 9.3924213 5.5044529 9.4707031 5.5136719 L 10.673828 5.5136719 L 11.888672 5.5136719 C 12.347949 5.5136719 12.72226 5.6746161 13.152344 5.7363281 C 13.755861 3.7542407 15.751275 2.5 17.855469 2.5 L 17.857422 2.5 C 18.067849 2.5002783 18.766779 2.5000074 19 2.5 C 20.271737 2.4894629 21.358248 3.0194891 22.039062 3.7226562 C 22.379469 4.0742399 22.639527 4.4546083 22.810547 4.9453125 C 22.877604 5.137692 22.944893 5.3850674 22.974609 5.6582031 C 23.057075 5.1601441 22.916429 4.7490769 22.810547 4.4453125 C 22.639527 3.9546583 22.379469 3.5742399 22.039062 3.2226562 C 21.358248 2.5194891 20.271737 1.9894629 19 2 C 18.766779 2.0000074 18.067849 2.0002783 17.857422 2 L 17.855469 2 z M 15.058594 5.7148438 L 15.046875 5.7578125 C 15.049245 5.7491755 15.058047 5.742995 15.060547 5.734375 C 15.062247 5.72822 15.056794 5.7209537 15.058594 5.7148438 z M 21.664062 7.7265625 C 21.607522 7.7567494 21.547276 7.7819767 21.494141 7.8164062 C 21.714356 8.2637902 21.866536 8.7757916 21.908203 9.2949219 C 21.957721 8.759738 21.853618 8.2212166 21.664062 7.7265625 z M 3.2734375 13.5 L 2.1054688 17.642578 C 2.1021387 17.652278 2.0988731 17.662085 2.0957031 17.671875 C 2.0295831 17.921583 2.0219653 18.189924 2.0429688 18.460938 C 2.0550511 18.362633 2.0708808 18.265619 2.0957031 18.171875 C 2.0988731 18.162085 2.1021387 18.152278 2.1054688 18.142578 L 3.4140625 13.5 L 3.2734375 13.5 z"/>
</svg>
