<svg xmlns="http://www.w3.org/2000/svg" width="24" height="24" version="1">
 <ellipse style="fill:#8b9cbe;stroke:#000000;stroke-width:0;stroke-linecap:round;stroke-linejoin:round" cx="11.999" cy="12.001" rx="9.749" ry="9.749"/>
 <circle style="opacity:0.2;stroke:#000000;stroke-width:0;stroke-linecap:round;stroke-linejoin:round" cx="11.999" cy="12.501" r="9.999"/>
 <path style="fill:#e040fb;stroke:#000000;stroke-width:0;stroke-linecap:round;stroke-linejoin:round" d="M 20.658693,7.0012305 A 9.999206,9.999206 0 0 0 6.9995236,3.341267 9.999206,9.999206 0 0 0 3.3278143,7.0453339 l 8.6713127,4.9554991 z"/>
 <path style="fill:#fdfd4b;stroke:#000000;stroke-width:0;stroke-linecap:round;stroke-linejoin:round" d="m 20.658693,7.0012305 -8.659566,4.9996025 -0.04443,9.988661 A 9.999206,9.999206 0 0 0 16.99873,20.6604 9.999206,9.999206 0 0 0 20.658693,7.0012305 Z"/>
 <path style="fill:#18ffff;stroke:#000000;stroke-width:0;stroke-linecap:round;stroke-linejoin:round" d="M 11.999127,12.000833 3.3278143,7.0453339 a 9.999206,9.999206 0 0 0 0.011746,9.9551021 9.999206,9.999206 0 0 0 8.6151417,4.989058 z"/>
 <path style="opacity:0.2;fill:#8b9cbe;stroke:#000000;stroke-width:0;stroke-linecap:round;stroke-linejoin:round" d="m 11.999127,2.0016275 a 9.999206,9.999207 0 0 0 -9.9992064,9.9992055 9.999206,9.999207 0 0 0 0.010741,0.290993 9.999206,9.999207 0 0 1 9.9884654,-9.7902382 9.999206,9.999207 0 0 1 9.988464,9.7082132 9.999206,9.999207 0 0 0 0.01074,-0.208968 9.999206,9.999207 0 0 0 -9.999206,-9.9992055 z"/>
 <path style="opacity:0.1" d="M 13.429748,13.556991 C 11.916272,14.950799 9.0045404,12.739937 7.775534,11.351411 6.5114619,9.9232619 1.7914516,5.1065004 1.4464543,4.794106 1.1014734,4.4817231 0.826723,4.0959442 1.1317743,3.7121196 1.4493413,3.3383192 1.8885002,3.5240355 2.2693821,3.7927326 2.6502888,4.0614393 8.3996164,7.62568 10.076335,8.5517119 c 1.630188,0.9003425 4.422901,3.2560431 3.353413,5.0052791 z"/>
 <path style="fill:#4f4f4f" d="M 13.429748,13.056922 C 11.916272,14.45073 9.0045404,12.239868 7.775534,10.851342 6.5114619,9.4231931 1.7914516,4.6064318 1.4464543,4.2940372 1.1014734,3.9816543 0.826723,3.5958755 1.1317743,3.2120508 1.4493413,2.8382504 1.8885002,3.0239667 2.2693821,3.2926637 2.6502888,3.5613704 8.3996164,7.1256111 10.076335,8.051643 c 1.630188,0.9003425 4.422901,3.256043 3.353413,5.005279 z"/>
 <path style="opacity:0.1" d="M 15.857668,14.887595 C 9.9508302,20.067974 5.1196264,15.103217 4.3710734,13.383372 c 0.4426581,2.985164 2.4887523,5.656532 5.5797568,6.684602 2.3344688,0.776431 6.0596408,0.75841 7.7296998,-2.199587 z"/>
 <path style="fill:#4883f7" d="m 15.857668,14.387634 c -5.9068378,5.18038 -10.7380416,0.215622 -11.4865946,-1.504222 0.4426581,2.985163 2.4887523,5.656532 5.5797568,6.684602 2.3344688,0.77643 6.0596408,0.758409 7.7296998,-2.199587 z"/>
 <path style="opacity:0.1" d="m 15.83324,15.375207 c -0.482505,0.217248 -0.430325,0.374272 -0.858746,0.306535 -0.295489,-0.04672 -2.855307,-1.954314 -2.855307,-1.954314 -0.129749,-0.306111 0.02589,-0.726931 0.318253,-1.059997 0.271161,-0.349966 0.657883,-0.586522 0.98933,-0.524885 0,0 2.426869,2.068736 2.534348,2.343338 0.155831,0.398142 -0.01122,0.380351 -0.127878,0.889323 z"/>
 <path style="fill:#9b9b9b" d="m 15.83324,14.875138 c -0.482505,0.217248 -0.430325,0.374272 -0.858746,0.306535 -0.295489,-0.04672 -2.855307,-1.954314 -2.855307,-1.954314 -0.129749,-0.306111 0.02589,-0.726931 0.318253,-1.059997 0.271161,-0.349965 0.657883,-0.586522 0.98933,-0.524885 0,0 2.426869,2.068737 2.534348,2.343338 0.155831,0.398142 -0.01122,0.380352 -0.127878,0.889323 z"/>
 <path style="opacity:0.1" d="m 16.107902,19.522236 c 1.814534,-1.006471 2.298879,-2.781619 1.582393,-4.064388 -0.556777,-0.996828 -1.470975,-1.185293 -2.102407,-0.703298 -0.626395,0.47815 -0.681615,1.04791 -0.494765,1.613779 0.381051,1.154118 1.957362,1.963589 1.014779,3.153907 z"/>
 <path style="fill:#17191e" d="m 16.107902,19.022167 c 1.814534,-1.006471 2.298879,-2.781619 1.582393,-4.064387 -0.556777,-0.996829 -1.470975,-1.185294 -2.102407,-0.703299 -0.626395,0.478151 -0.681615,1.04791 -0.494765,1.613779 0.381051,1.154119 1.957362,1.963589 1.014779,3.153907 z"/>
</svg>
