<svg xmlns="http://www.w3.org/2000/svg" width="24" height="24" version="1">
 <path style="opacity:0.2" d="m 12.5,2.5000517 c -0.946592,0.013345 -1.621669,0.5757858 -1.938482,1.5068397 L 10.573238,3.9648993 9.0859302,8.500067 H 4.0702926 c -0.010935,-1.73e-4 -0.021292,-1.73e-4 -0.032227,0 C 3.4391115,8.5192171 2.8990394,8.7950693 2.5185309,9.2520219 1.6956044,10.183802 1.8700232,11.649892 2.9150163,12.344803 l 3.9433693,2.842781 -1.5302773,4.689465 c -0.0017,0.0052 -0.00328,0.01041 -0.00488,0.01563 -0.2338281,0.757683 -0.013944,1.538283 0.5742204,2.072271 0.00425,0.0039 0.00932,0.0079 0.01367,0.01172 0.7067893,0.619774 1.6998703,0.698545 2.4980528,0.185547 0.015185,-0.0097 0.030285,-0.01981 0.04492,-0.03027 L 12.5,19.250094 l 4.045909,2.881843 c 0.01463,0.01047 0.02973,0.02059 0.04492,0.03027 0.798182,0.512998 1.791263,0.434227 2.498052,-0.185547 0.0043,-0.0038 0.0094,-0.0078 0.01367,-0.01172 0.588165,-0.533988 0.808049,-1.314588 0.574221,-2.072271 -0.0016,-0.0052 -0.0032,-0.01044 -0.0049,-0.01563 l -1.530277,-4.689465 3.943369,-2.842781 C 23.129957,11.649892 23.304376,10.183802 22.48145,9.2520219 22.100941,8.7950693 21.560869,8.5192171 20.961914,8.500067 c -0.01093,-1.73e-4 -0.02129,-1.73e-4 -0.03223,0 h -5.015638 l -1.487308,-4.5351679 0.01172,0.041992 C 14.121668,3.0758375 13.446592,2.5133972 12.5,2.5000517 Z"/>
 <path style="fill:#4caf50" d="m 12.5,1.9999466 c -0.946592,0.013346 -1.621669,0.5757858 -1.938482,1.5068398 l 0.01172,-0.041992 -1.4873083,4.5351677 H 4.0702911 c -0.010935,-1.73e-4 -0.021292,-1.73e-4 -0.032227,0 C 3.43911,8.0191118 2.8990379,8.294964 2.5185294,8.7519167 1.6956029,9.6836965 1.8700217,11.149787 2.9150148,11.844698 l 3.9433693,2.842781 -1.5302773,4.689464 c -0.0017,0.0052 -0.00328,0.0104 -0.00488,0.01563 -0.2338281,0.757683 -0.013944,1.538283 0.5742204,2.072272 0.00425,0.0039 0.00932,0.0079 0.01367,0.01172 0.7067893,0.619774 1.6998703,0.698544 2.4980528,0.185547 0.015185,-0.0097 0.030285,-0.0198 0.04492,-0.03027 L 12.5,18.749989 l 4.045909,2.881843 c 0.01463,0.01047 0.02973,0.02059 0.04492,0.03027 0.798182,0.512997 1.791263,0.434227 2.498052,-0.185547 0.0043,-0.0038 0.0094,-0.0078 0.01367,-0.01172 0.588165,-0.533989 0.808049,-1.314589 0.574221,-2.072272 -0.0016,-0.0052 -0.0032,-0.01044 -0.0049,-0.01563 l -1.530256,-4.689464 3.943369,-2.842781 C 23.129978,11.149787 23.304397,9.6836965 22.481471,8.7519167 22.100962,8.294964 21.56089,8.0191118 20.961935,7.9999618 c -0.01093,-1.73e-4 -0.02129,-1.73e-4 -0.03223,0 h -5.015638 l -1.487308,-4.5351677 0.01172,0.041992 C 14.121668,2.5757324 13.446592,2.0132922 12.5,1.9999466 Z"/>
 <path style="opacity:0.2;fill:#8b9cbe" d="m 12.5,1.9999466 c -0.946592,0.013346 -1.621669,0.5757858 -1.938482,1.5068398 l 0.01172,-0.041992 -1.4873083,4.5351677 H 4.0702911 c -0.010935,-1.73e-4 -0.021292,-1.73e-4 -0.032227,0 C 3.43911,8.0191118 2.8990379,8.294964 2.5185294,8.7519167 2.1051441,9.2199828 1.9446406,9.8222594 2.0185282,10.394499 2.0640328,9.9854328 2.2250028,9.5842713 2.5185294,9.2519179 2.8990379,8.7949653 3.43911,8.5191131 4.0380645,8.499963 c 0.010935,-1.73e-4 0.021292,-1.73e-4 0.032227,0 h 5.0156376 l 1.4873079,-4.5351677 -0.01172,0.041992 C 10.878331,3.0757336 11.553408,2.5132934 12.5,2.4999479 c 0.946592,0.013345 1.621686,0.5757859 1.938481,1.5068397 l -0.01172,-0.041992 1.487308,4.5351677 h 5.015638 c 0.01093,-1.73e-4 0.02129,-1.73e-4 0.03223,0 0.598954,0.01915 1.139027,0.2950023 1.519535,0.7519549 0.293526,0.3323534 0.454497,0.7335149 0.500001,1.1425808 C 23.055358,9.8222594 22.894854,9.2199828 22.481469,8.7519167 22.100962,8.294964 21.56089,8.0191118 20.961935,7.9999618 c -0.01093,-1.73e-4 -0.02129,-1.73e-4 -0.03223,0 h -5.015638 l -1.487308,-4.5351677 0.01172,0.041992 C 14.121668,2.5757324 13.446592,2.0132922 12.5,1.9999466 Z M 6.7265478,15.091777 5.3281068,19.376943 c -0.0017,0.0052 -0.00328,0.0104 -0.00488,0.01563 -0.089255,0.289223 -0.1114523,0.581398 -0.07324,0.862308 0.014579,-0.120584 0.036053,-0.241798 0.073242,-0.362306 0.0016,-0.0052 0.00319,-0.01043 0.00489,-0.01563 L 6.8583841,15.18748 Z m 11.5469042,0 -0.131836,0.0957 1.530277,4.689465 c 0.0017,0.0052 0.0033,0.01041 0.0049,0.01563 0.03719,0.120508 0.05866,0.241722 0.07324,0.362306 0.03821,-0.28091 0.01601,-0.573085 -0.07324,-0.862308 -0.0016,-0.0052 -0.0032,-0.01044 -0.0049,-0.01563 z"/>
 <g style="font-size:19.90416336px;line-height:1.25;letter-spacing:0px;word-spacing:0px;opacity:0.2" transform="matrix(0.58250141,0,0,0.5605662,-1.2142851,-1.2142854)">
  <path d="m 27.166338,31.600702 -1.035017,-3.567821 h -5.175082 l -1.035017,3.567821 h -3.244378 l 5.015849,-14.271285 h 3.68227 l 5.035753,14.271285 z m -1.922991,-7.135643 -1.699567,-4.92628 -1.660082,4.92628 z"/>
 </g>
 <g style="font-size:19.90416336px;line-height:1.25;letter-spacing:0px;word-spacing:0px;fill:#8b9cbe" transform="matrix(0.58250141,0,0,0.5605662,-1.2142851,-1.7142854)">
  <path style="fill:#8b9cbe" d="m 27.166338,31.600702 -1.035017,-3.567821 h -5.175082 l -1.035017,3.567821 h -3.244378 l 5.015849,-14.271285 h 3.68227 l 5.035753,14.271285 z m -1.922991,-7.135643 -1.699567,-4.92628 -1.660082,4.92628 z"/>
 </g>
</svg>
