<svg xmlns="http://www.w3.org/2000/svg" width="24" height="24" version="1">
 <path style="opacity:0.2" d="M 5.4562385,2.4999999 H 18.543761 c 0.806756,0 1.457177,0.6371428 1.456238,1.4285713 L 20,16.5 l -6,6 H 5.4789925 C 4.6722368,22.5 4.0238055,21.862857 4.022755,21.071429 L 4.0000013,3.9285712 C 3.9989455,3.1371427 4.6494831,2.4999999 5.4562385,2.4999999 Z"/>
 <path style="fill:#b2bfd9" d="M 5.4562385,1.9999998 H 18.543761 c 0.806756,0 1.457177,0.6371429 1.456238,1.4285714 L 20,16 14,22 H 5.4789925 C 4.6722368,22 4.0238055,21.362857 4.022755,20.571429 L 4.0000013,3.4285712 C 3.9989455,2.6371427 4.6494831,1.9999998 5.4562385,1.9999998 Z"/>
 <path style="fill:#a159b2" d="M 6,4 H 18 V 16.705882 L 14.769231,20 H 6 Z"/>
 <path style="opacity:0.1" d="m 17.5,15.5 c -3.386567,1.795132 -5.582642,2.654603 -10,1.315882 4.625952,2.183395 6.707524,1.114945 10,-1.315882 z"/>
 <path style="opacity:0.1" d="M 18.18581,7.316509 C 15.614353,6.9962875 13.934303,7.535786 12.496203,8.269 13.957453,6.464425 15.78174,5.900107 18.18581,7.316509 Z"/>
 <path style="fill:#17191e" d="M 18.18581,6.816509 C 15.614353,6.4962875 13.934303,7.035786 12.496203,7.769 13.957453,5.964425 15.78174,5.4001074 18.18581,6.816509 Z"/>
 <path style="fill:#ff8686" d="m 18,11.356999 c -4.671586,1.837261 -9.1265022,1.77513 -12,1.418707 v 1.743608 c 4.654374,2.598294 8.835952,1.391157 12,-0.671453 z"/>
 <path style="opacity:0.1" d="m 18,11.857411 c -0.412912,0.162393 -0.824586,0.309109 -1.233172,0.442931 0.175577,0.467924 0.825809,2.070697 0.901441,2.257214 C 17.779728,14.488621 17.890937,14.41976 18,14.348662 Z m -1.526441,0.537708 c -0.557449,0.174214 -1.109538,0.322127 -1.653847,0.448732 -0.04375,0.303498 0.621733,2.184064 0.829327,2.760108 0.707594,-0.296254 1.379635,-0.652085 2.014424,-1.044472 -0.121471,-0.279014 -0.801056,-1.81764 -1.189904,-2.164368 z m -1.968751,0.520299 c -0.636385,0.138849 -1.260534,0.247658 -1.870192,0.330748 -0.01247,0.655107 0.29707,2.577418 0.387019,3.121803 0.916884,-0.148198 1.793356,-0.415282 2.622596,-0.762077 -0.211028,-0.563971 -0.897799,-2.378733 -1.139423,-2.690474 z m -1.483173,3.452551 c -0.0921,-0.546475 -0.436011,-2.506383 -0.725962,-3.079249 -0.727664,0.08886 -1.431628,0.143105 -2.105768,0.168274 -0.2125078,0.489969 -0.233379,2.416363 -0.2355778,2.939986 1.0636808,0.152902 2.0879858,0.129277 3.0673078,-0.02903 z m -3.0673078,0.029 c -7.384e-4,-0.517176 -0.011095,-2.372424 -0.1105772,-2.92838 -0.670326,0.01604 -1.3070548,0.0043 -1.9062498,-0.02516 -0.2284837,0.389095 -0.4244788,1.696951 -0.5024031,2.264951 0.8596574,0.347492 1.701036,0.570961 2.5192301,0.688572 z M 6,13.275178 v 1.74465 c 0.4813518,0.268712 0.9572483,0.496065 1.4278837,0.686641 0.060708,-0.561448 0.1963818,-1.849008 0.2067309,-2.280424 C 7.0469206,13.390308 6.4993431,13.337116 6,13.275178 Z"/>
 <path style="fill:#8b9cbe" d="m 18,11.357409 c -0.412912,0.162393 -0.824586,0.309109 -1.233172,0.442931 0.175577,0.467924 0.825809,2.070697 0.901441,2.257214 C 17.779728,13.988619 17.890937,13.919758 18,13.84866 Z m -1.526441,0.537708 c -0.557449,0.174214 -1.109538,0.322127 -1.653847,0.448732 -0.04375,0.303498 0.621733,2.184064 0.829327,2.760108 0.707594,-0.296254 1.379635,-0.652085 2.014424,-1.044472 -0.121471,-0.279014 -0.801056,-1.81764 -1.189904,-2.164368 z m -1.968751,0.520299 c -0.636385,0.138849 -1.260534,0.247658 -1.870192,0.330748 -0.01247,0.655107 0.29707,2.577418 0.387019,3.121803 0.916884,-0.148198 1.793356,-0.415282 2.622596,-0.762077 -0.211028,-0.563971 -0.897799,-2.378733 -1.139423,-2.690474 z m -1.483173,3.452551 c -0.0921,-0.546475 -0.436011,-2.506383 -0.725962,-3.079249 -0.727664,0.08886 -1.431628,0.143105 -2.105768,0.168274 -0.2125078,0.489969 -0.233379,2.416363 -0.2355778,2.939986 1.0636808,0.152902 2.0879858,0.129277 3.0673078,-0.02903 z m -3.0673078,0.029 c -7.384e-4,-0.517176 -0.011095,-2.372424 -0.1105772,-2.92838 -0.670326,0.01604 -1.3070548,0.0043 -1.9062498,-0.02516 -0.2284837,0.389095 -0.4244788,1.696951 -0.5024031,2.264951 0.8596574,0.347492 1.701036,0.570961 2.5192301,0.688572 z M 6,12.775176 v 1.74465 c 0.4813518,0.268712 0.9572483,0.496065 1.4278837,0.686641 0.060708,-0.561448 0.1963818,-1.849008 0.2067309,-2.280424 C 7.0469206,12.890306 6.4993431,12.837114 6,12.775176 Z"/>
 <path style="fill:#fafafa" d="m 16,16 c -1.108,0 -2,0.892001 -2,2 v 4 l 6,-6 z"/>
 <path style="opacity:0.1" d="M 3.5,8.875 C 5.898573,8.039098 7.62453,8.225032 9.1595175,8.649566 7.3750015,7.182198 5.5054265,7.0013215 3.5,8.875 Z"/>
 <path style="fill:#17191e" d="M 3.5,8.375 C 5.898573,7.539098 7.62453,7.725032 9.1595175,8.149566 7.3750015,6.682198 5.5054265,6.5013215 3.5,8.375 Z"/>
 <path style="opacity:0.2;fill:#8b9cbe" d="M 5.4560545,2 C 4.6492993,2 3.9989442,2.6372824 4,3.428711 l 9.765e-4,0.493164 C 4.0037764,3.1337132 4.6516941,2.5 5.4560545,2.5 H 18.543945 C 19.350701,2.5 20.00094,3.1372824 20,3.928711 v -0.5 C 20.00094,2.6372824 19.350701,2 18.543945,2 Z"/>
</svg>
