<svg xmlns="http://www.w3.org/2000/svg" width="24" height="24" version="1.1">
 <g transform="translate(0,-308.3)">
  <circle style="fill:#8b9cbe" cx="12" cy="320.3" r="9"/>
  <path style="opacity:0.1" d="m 8,315.13397 v 2.42578 L 9.8613281,318.79998 8,320.04022 v 2.42578 l 5.5,-3.66602 z"/>
  <path style="fill:#20aa73" transform="translate(0,308.3)" d="M 8 6.3339844 L 8 8.7597656 L 9.8613281 10 L 8 11.240234 L 8 13.666016 L 13.5 10 L 8 6.3339844 z"/>
  <path style="opacity:0.1" d="m 16,319.13397 -5.5,3.66601 5.5,3.66602 v -2.42578 L 14.140625,322.79998 16,321.55975 Z"/>
  <path style="fill:#3989da" transform="translate(0,308.3)" d="M 16 10.333984 L 10.5 14 L 16 17.666016 L 16 15.240234 L 14.140625 14 L 16 12.759766 L 16 10.333984 z"/>
  <path style="opacity:0.2" d="m 20.749024,315.97285 -1.681641,1.11914 A 7.9999998,7.9999998 0 0 1 20,320.79999 7.9999998,7.9999998 0 0 1 12,328.8 7.9999998,7.9999998 0 0 1 5.8447265,325.88886 L 4.1689452,327.0041 C 6.0021465,329.31363 8.8291174,330.8 12,330.8 c 5.513956,0 10,-4.48578 10,-10.00001 0,-1.75071 -0.457001,-3.39445 -1.250976,-4.82714 z"/>
  <path style="fill:#20aa73" d="m 20.749024,315.47285 -1.681641,1.11914 A 7.9999998,7.9999998 0 0 1 20,320.29999 7.9999998,7.9999998 0 0 1 12,328.3 7.9999998,7.9999998 0 0 1 5.8447265,325.38886 L 4.1689452,326.5041 C 6.0021465,328.81363 8.8291174,330.3 12,330.3 c 5.513956,0 10,-4.48578 10,-10.00001 0,-1.75071 -0.457001,-3.39445 -1.250976,-4.82714 z"/>
  <path style="opacity:0.2" d="m 12,310.79999 c -5.5142169,0 -10,4.48579 -10,10 0,1.62736 0.3920263,3.16411 1.0849609,4.52345 L 4.774414,324.19941 A 7.9999998,7.9999998 0 0 1 4,320.79999 a 7.9999998,7.9999998 0 0 1 8,-8 7.9999998,7.9999998 0 0 1 5.927734,2.64747 l 1.685547,-1.1211 C 17.77782,312.17072 15.046049,310.79999 12,310.79999 Z"/>
  <path style="fill:#3989da" d="m 12,310.3 c -5.5142169,0 -10,4.48578 -10,9.99999 0,1.62736 0.3920263,3.16411 1.0849609,4.52345 L 4.774414,323.69941 A 7.9999998,7.9999998 0 0 1 4,320.29999 a 7.9999998,7.9999998 0 0 1 8,-8 7.9999998,7.9999998 0 0 1 5.927734,2.64747 l 1.685547,-1.1211 C 17.77782,311.67072 15.046049,310.3 12,310.3 Z"/>
  <path style="opacity:0.2;fill:#8b9cbe" d="m 12,310.3 c -5.5142169,0 -10,4.48578 -10,9.99999 0,0.0751 0.00517,0.1489 0.00684,0.22364 0.1473438,-5.38655 4.5716591,-9.72364 9.993164,-9.72364 2.895142,0 5.50445,1.24031 7.332031,3.21387 l 0.28125,-0.1875 C 17.77782,311.67072 15.046049,310.3 12,310.3 Z M 4.008789,320.62519 A 7.9999998,7.9999998 0 0 0 4,320.79999 a 7.9999998,7.9999998 0 0 0 0.6113281,3.00782 l 0.1630859,-0.1084 a 7.9999998,7.9999998 0 0 1 -0.765625,-3.07422 z"/>
 </g>
</svg>
