<svg xmlns="http://www.w3.org/2000/svg" width="24" height="24" version="1">
 <rect style="fill:#007777" width="20" height="19.998" x="-22" y="-22" rx="10" ry="9.999" transform="matrix(0,-1,-1,0,0,0)"/>
 <path style="opacity:0.1;fill:#8b9cbe" d="M 12,2 C 6.4605,2 2.001,6.46 2.001,12 c 0,0.08386 -0.002,0.166645 0,0.25 C 2.1331,6.827 6.5445,2.5 12,2.5 c 5.4555,0 9.867,4.3268 9.999,9.75 0.002,-0.08335 0,-0.16614 0,-0.25 C 21.999,6.46 17.5395,2 12,2 Z"/>
 <path style="opacity:0.2" d="M 2.00585,12.25 C 2.0038,12.3335 2,12.416 2,12.5 c 0,5.54 4.46,10 10,10 5.54,0 10,-4.46 10,-10 0,-0.084 -0.004,-0.1665 -0.006,-0.25 C 21.862,17.673 17.456,22 12,22 6.544,22 2.138,17.673 2.006,12.25 Z"/>
 <path style="opacity:0.3;fill:#8b9cbe" d="M 12.663172,4.0500001 C 16.27356,3.5742698 17.587564,5.7806725 19,7.05191 16.482454,6.627908 16.254502,3.565362 11.617289,5.532 7.916108,7.101668 8.5013725,10.334382 7.5,12.5 L 5.711119,11.533186 C 6.614955,8.163658 9.4904055,4.4680662 12.663172,4.0500001 Z"/>
 <path style="opacity:0.2" d="m 5.0476885,11.993597 c -0.4890331,0.02674 -0.8945835,0.05532 -0.9957994,0.314533 -0.2884249,0.909389 0.7196034,0.774852 0.7196034,0.774852 l -0.3151883,-0.34338 c -0.1669643,-0.735733 3.0226558,0.680781 3.8803293,1.728987 2.3879535,2.91844 2.5748715,6.674341 7.7086685,5.94287 0.792214,-0.112876 1.574475,-0.197615 2.321817,-0.882473 -1.022943,0.267165 -1.940578,0.284393 -2.754277,0.375508 -2.859,0.300771 -3.700825,-0.768505 -4.690898,-2.957081 C 10.317168,15.582016 9.4003795,14.149586 8.19248,13.177891 L 8.2613075,12.045178 7.758247,12.857796 C 6.964943,12.325039 6.0603225,11.993501 5.0476885,11.993597 Z"/>
 <path style="fill:#8b9cbe" d="m 5.0476885,11.493592 c -0.4890331,0.02674 -0.8945835,0.05532 -0.9957994,0.314533 -0.2884249,0.909389 0.7196034,0.774852 0.7196034,0.774852 l -0.3151883,-0.34338 c -0.1669643,-0.735733 3.0226558,0.680781 3.8803293,1.728987 2.3879535,2.91844 2.5748715,6.674341 7.7086685,5.94287 0.792214,-0.112876 1.574475,-0.197615 2.321817,-0.882473 -1.022943,0.267165 -1.940578,0.284393 -2.754277,0.375508 -2.859,0.300771 -3.700825,-0.768505 -4.690898,-2.957081 C 10.317168,15.082011 9.4003795,13.649581 8.19248,12.677887 L 8.2613075,11.545173 7.758247,12.357791 C 6.964943,11.825035 6.0603225,11.493496 5.0476885,11.493592 Z"/>
 <path style="opacity:0.2" d="m 14,8 v 0.5 c 0,0.625679 0.0045,0.9617335 0.0049,1.5 H 13 v 1 h 1.007813 c 0.0063,2.093972 0.0252,3.713368 0.120117,4.615235 0.06575,0.624629 0.148805,1.044985 0.37793,1.388671 C 14.734984,17.347593 15.166667,17.5 15.5,17.5 H 16 v -1 h -0.5 c -0.166666,0 -0.109983,0.02741 -0.162109,-0.05078 -0.05213,-0.07819 -0.156571,-0.376583 -0.21582,-0.939453 C 15.036566,14.697479 15.016454,13.090499 15.008789,11 H 16 V 10 H 15.00586 C 15.005141,9.460877 15,9.126496 15,8.5 V 8 Z"/>
 <path style="fill:none;stroke:#8b9cbe;stroke-linecap:square;stroke-linejoin:round" d="m 14.5,8.5 c 0,6.959042 0,8 1,8"/>
 <rect style="fill:#8b9cbe" width="3" height="1" x="13" y="10"/>
</svg>
