<svg xmlns="http://www.w3.org/2000/svg" width="24" height="24" version="1">
 <path style="opacity:0.2" d="M 12,2.5 A 10,10 0 0 0 6.7480469,4 H 5.5 c -1.1080001,0 -2,0.8919999 -2,2 V 7.2558594 A 10,10 0 0 0 2,12.5 10,10 0 0 0 3.5,17.751953 V 19 c 0,1.108 0.8919999,2 2,2 H 6.7558594 A 10,10 0 0 0 12,22.5 10,10 0 0 0 17.251953,21 H 18.5 c 1.108,0 2,-0.892 2,-2 V 17.744141 A 10,10 0 0 0 22,12.5 10,10 0 0 0 20.5,7.2480469 V 6 c 0,-1.1080001 -0.892,-2 -2,-2 H 17.244141 A 10,10 0 0 0 12,2.5 Z"/>
 <circle style="fill:#b2d1e9" cx="12" cy="12" r="10"/>
 <rect style="fill:#b2d1e9" width="17" height="17" x="3.5" y="3.5" rx="2" ry="2"/>
 <circle style="fill:#4f4f4f" cx="5.5" cy="5.5" r=".5"/>
 <circle style="fill:#4f4f4f" cx="12" cy="12" r="8"/>
 <circle style="opacity:0.2" cx="12" cy="12.5" r="6"/>
 <circle style="fill:#ffcf24" cx="12" cy="12" r="6"/>
 <circle style="fill:#4f4f4f" cx="12" cy="12" r="2"/>
 <circle style="fill:#4f4f4f" cx="18.5" cy="5.5" r=".5"/>
 <circle style="fill:#4f4f4f" cx="5.5" cy="18.5" r=".5"/>
 <circle style="fill:#4f4f4f" cx="18.5" cy="18.5" r=".5"/>
 <path style="opacity:0.2;fill:#8b9cbe" d="M 12 2 A 10 10 0 0 0 6.7480469 3.5 L 5.5 3.5 C 4.3919999 3.5 3.5 4.3919999 3.5 5.5 L 3.5 6 C 3.5 4.8919999 4.3919999 4 5.5 4 L 6.7480469 4 A 10 10 0 0 1 12 2.5 A 10 10 0 0 1 17.244141 4 L 18.5 4 C 19.608 4 20.5 4.8919999 20.5 6 L 20.5 5.5 C 20.5 4.3919999 19.608 3.5 18.5 3.5 L 17.244141 3.5 A 10 10 0 0 0 12 2 z M 20.5 6.7480469 L 20.5 7.2480469 A 10 10 0 0 1 21.990234 12.314453 A 10 10 0 0 0 22 12 A 10 10 0 0 0 20.5 6.7480469 z M 3.5 6.7558594 A 10 10 0 0 0 2 12 A 10 10 0 0 0 2.0097656 12.185547 A 10 10 0 0 1 3.5 7.2558594 L 3.5 6.7558594 z"/>
 <path style="opacity:0.2;fill:#8b9cbe" d="M 12 6 A 6 6 0 0 0 6 12 A 6 6 0 0 0 6.0097656 12.285156 A 6 6 0 0 1 12 6.5 A 6 6 0 0 1 17.990234 12.214844 A 6 6 0 0 0 18 12 A 6 6 0 0 0 12 6 z"/>
</svg>
