<svg xmlns="http://www.w3.org/2000/svg" width="24" height="24" version="1.1">
 <path style="opacity:.2" d="m8 2.5-4.0293 2.8203-0.9687 0.6797-0.002 13 5 3.5v-11.426l8 11.426 4.029-2.82 0.971-0.68v-13l-5-3.5v11.426z"/>
 <path style="fill:#6ba63f" d="m21 5.5002-5-3.5v20l5-3.5z"/>
 <path style="fill:#42afe6" d="m3.0016 5.5002 4.9984-3.5v20l-4.9999-3.5z"/>
 <path style="fill:#96ca6b" d="m8 2.0002 12.029 17.18-4.029 2.82-12.029-17.179z"/>
 <path style="fill:#569e41" d="m16 13.425v8.575l4.0295-2.8205z"/>
 <path style="fill:#70be63" d="m8 2.0002-4.0292 2.8213 4.0292 5.7535v-8.575z"/>
 <path style="opacity:.2;fill:#8b9cbe" d="m8 2l-4.0293 2.8203-0.9687 0.6797v0.5l0.9687-0.6797 4.0293-2.8203 8 11.426v-0.5l-8-11.426zm8 0v0.5l5 3.5v-0.5l-5-3.5z"/>
</svg>
