<svg xmlns="http://www.w3.org/2000/svg" width="24" height="24" version="1.1">
 <path style="opacity:0.2" d="m 5,2.4999 a 1.0001,1.0001 0 0 0 -1,1 v 18 a 1.0001,1.0001 0 0 0 1,1 h 2 a 1.0001,1.0001 0 1 0 0,-2 H 6 v -16 h 1 a 1.0001,1.0001 0 1 0 0,-2 z m 13,0 a 1.0001,1.0001 0 1 0 0,2 h 1 v 16 h -1 a 1.0001,1.0001 0 1 0 0,2 h 2 a 1.0001,1.0001 0 0 0 1,-1 v -18 a 1.0001,1.0001 0 0 0 -1,-1 z"/>
 <path style="opacity:0.2" d="m 2,5.5 v 2 h 1 v -2 z m 20,0 v 2 h 1 v -2 z m -20,12 v 2 h 1 v -2 z m 20,0 v 2 h 1 v -2 z"/>
 <path style="fill:#ee7cf3" d="m 5,7.5 h 15 c 0,0 0,0.1901635 0,0.4250705 V 16.074929 C 20,16.309836 20,16.5 20,16.5 H 5 c 0,0 0,-0.190164 0,-0.425071 V 7.9250705 C 5,7.6901635 5,7.5 5,7.5 Z m 0,0"/>
 <path style="opacity:0.2" d="m 5,5.5 v 3 h 3 v 8 H 5 v 3 h 15 v -3 h -3 v -8 h 3 v -3 z m 2,1 h 2 v 1 H 7 Z m 3,0 h 2 v 1 h -2 z m 3,0 h 2 v 1 h -2 z m 3,0 h 2 v 1 h -2 z m -7,2 h 7 v 8 H 9 Z m -2,9 h 2 v 1 H 7 Z m 3,0 h 2 v 1 h -2 z m 3,0 h 2 v 1 h -2 z m 3,0 h 2 v 1 h -2 z"/>
 <path style="fill:#3382e3" d="m 5,5 v 3 h 3 v 8 H 5 v 3 H 20 V 16 H 17 V 8 h 3 V 5 Z M 7,6 H 9 V 7 H 7 Z m 3,0 h 2 v 1 h -2 z m 3,0 h 2 v 1 h -2 z m 3,0 h 2 V 7 H 16 Z M 9,8 h 7 v 8 H 9 Z m -2,9 h 2 v 1 H 7 Z m 3,0 h 2 v 1 h -2 z m 3,0 h 2 v 1 h -2 z m 3,0 h 2 v 1 h -2 z"/>
 <path style="fill:#8b9cbe;opacity:0.2" d="M 5 5 L 5 5.5 L 20 5.5 L 20 5 L 5 5 z M 7 7 L 7 7.5 L 9 7.5 L 9 7 L 7 7 z M 10 7 L 10 7.5 L 12 7.5 L 12 7 L 10 7 z M 13 7 L 13 7.5 L 15 7.5 L 15 7 L 13 7 z M 16 7 L 16 7.5 L 18 7.5 L 18 7 L 16 7 z M 5 16 L 5 16.5 L 8 16.5 L 8 16 L 5 16 z M 9 16 L 9 16.5 L 16 16.5 L 16 16 L 9 16 z M 17 16 L 17 16.5 L 20 16.5 L 20 16 L 17 16 z M 7 18 L 7 18.5 L 9 18.5 L 9 18 L 7 18 z M 10 18 L 10 18.5 L 12 18.5 L 12 18 L 10 18 z M 13 18 L 13 18.5 L 15 18.5 L 15 18 L 13 18 z M 16 18 L 16 18.5 L 18 18.5 L 18 18 L 16 18 z"/>
 <path style="fill:#195eb3" d="M 2 5 L 2 7 L 3 7 L 3 5 L 2 5 z M 22 5 L 22 7 L 23 7 L 23 5 L 22 5 z M 2 17 L 2 19 L 3 19 L 3 17 L 2 17 z M 22 17 L 22 19 L 23 19 L 23 17 L 22 17 z"/>
 <path style="fill:none;stroke:#f5d12b;stroke-width:2;stroke-linecap:round;stroke-linejoin:round" d="M 7,3 H 5 v 18 h 2"/>
 <path style="fill:none;stroke:#f5d12b;stroke-width:2;stroke-linecap:round;stroke-linejoin:round" d="m 18,3 h 2 v 18 h -2"/>
 <path style="opacity:0.2;fill:#8b9cbe" d="M 5 2 A 1.0001 1.0001 0 0 0 4 3 L 4 3.5 A 1.0001 1.0001 0 0 1 5 2.5 L 7 2.5 A 1.0001 1.0001 0 0 1 7.9804688 3.2539062 A 1.0001 1.0001 0 0 0 7 2 L 5 2 z M 18 2 A 1.0001 1.0001 0 0 0 17.019531 3.2460938 A 1.0001 1.0001 0 0 1 18 2.5 L 20 2.5 A 1.0001 1.0001 0 0 1 21 3.5 L 21 3 A 1.0001 1.0001 0 0 0 20 2 L 18 2 z M 6 20 L 6 20.5 L 7 20.5 A 1.0001 1.0001 0 0 1 7.9804688 21.253906 A 1.0001 1.0001 0 0 0 7 20 L 6 20 z M 18 20 A 1.0001 1.0001 0 0 0 17.019531 21.246094 A 1.0001 1.0001 0 0 1 18 20.5 L 19 20.5 L 19 20 L 18 20 z"/>
</svg>
