<svg xmlns="http://www.w3.org/2000/svg" style="enable-background:new" width="24" height="24" version="1.0">
 <rect style="opacity:0.2" width="16" height="12" x="7" y="3.5" rx="1.231" ry=".96"/>
 <rect style="opacity:0.2" width="16" height="12" x="4" y="6.5" rx="1.231" ry=".96"/>
 <rect style="opacity:0.2" width="16" height="12" x="1" y="9.5" rx="1.231" ry=".96"/>
 <rect style="fill:#007dde" width="16" height="12" x="7" y="3" rx="1.231" ry=".96"/>
 <rect style="fill:#2fbce5" width="16" height="12" x="4" y="6" rx="1.231" ry=".96"/>
 <rect style="fill:#b2bfd9" width="16" height="12" x="1" y="9" rx="1.231" ry=".96"/>
 <path style="opacity:0.1;fill-rule:evenodd" d="M 11.954614,13.678779 10.121029,15.455019 12,17.315841 10.801815,18.440792 8.995461,16.486929 7.1981846,18.5 6,17.36659 7.9777189,15.520633 6.1510085,13.706632 7.5014913,12.5 9.147116,14.396708 10.738275,12.560233 Z"/>
 <path style="fill:#189ce1;fill-rule:evenodd" d="M 11.954614,13.178779 10.121029,14.955019 12,16.815841 10.801815,17.940792 8.995461,15.986929 7.1981846,18 6,16.86659 7.9777189,15.020633 6.1510085,13.206632 7.5014913,12 9.147116,13.896708 10.738275,12.060233 Z"/>
 <path style="opacity:0.1;fill:#8b9cbe" d="M 8.2304688,3 C 7.5486226,3 7,3.4290975 7,3.9609375 v 0.5 C 7,3.9290975 7.5486226,3.5 8.2304688,3.5 H 21.769531 C 22.451377,3.5 23,3.9290975 23,4.4609375 v -0.5 C 23,3.4290975 22.451377,3 21.769531,3 Z"/>
 <path style="opacity:0.2;fill:#8b9cbe" d="M 5.2304688,6 C 4.5486226,6 4,6.4290975 4,6.9609375 v 0.5 C 4,6.9290975 4.5486226,6.5 5.2304688,6.5 H 18.769531 C 19.451377,6.5 20,6.9290975 20,7.4609375 v -0.5 C 20,6.4290975 19.451377,6 18.769531,6 Z"/>
 <path style="opacity:0.2;fill:#8b9cbe" d="M 2.2304688,9 C 1.5486226,9 1,9.4290975 1,9.9609375 V 10.460938 C 1,9.9290975 1.5486226,9.5 2.2304688,9.5 H 15.769531 C 16.451377,9.5 17,9.9290975 17,10.460938 V 9.9609375 C 17,9.4290975 16.451377,9 15.769531,9 Z"/>
</svg>
