<svg xmlns="http://www.w3.org/2000/svg" style="enable-background:new" width="24" height="24" version="1.0">
 <path style="opacity:0.2" d="M 2.5714285,3.5 C 1.7008572,3.5 1,4.3069773 1,5.3089486 v 4.7365054 8.827415 0.990767 C 1,20.770182 1.7008572,21.5 2.5714285,21.5 H 21.428571 C 22.299143,21.5 23,20.770182 23,19.863636 V 18.872869 10.045454 5.3089486 C 23,4.3069773 22.299143,3.5 21.428571,3.5 Z"/>
 <path style="fill:#b2bfd9" d="M 2.5714285,3 C 1.7008572,3 1,3.8069773 1,4.8089486 v 4.7365058 8.8274146 0.990767 C 1,20.270182 1.7008572,21 2.5714285,21 H 21.428571 C 22.299143,21 23,20.270182 23,19.363636 V 18.372869 9.5454544 4.8089486 C 23,3.8069773 22.299143,3 21.428571,3 Z"/>
 <path style="fill:#3d3846" d="m 3.8451121,5 h 1.3097751 c 0.4837436,0 0.825049,0.3988868 0.8731834,0.8888892 L 6.2463667,8.1111108 C 6.2945033,8.6011132 5.8569268,9 5.3731832,9 H 3.6268164 C 3.1430729,9 2.7054986,8.6011132 2.753633,8.1111108 L 2.9719288,5.8888892 C 3.0200628,5.3988868 3.3613687,5 3.8451121,5 Z"/>
 <path style="fill:#625f67" d="M 6,5.666662 V 6.3333285 C 6,6.7026615 5.6177148,6.999995 5.1428568,6.999995 H 3.8571428 C 3.3822857,6.999995 3,6.7026615 3,6.3333285 V 5.666662 C 3,5.2973285 3.3822857,4.999995 3.8571428,4.999995 h 1.285714 C 5.6177148,4.999995 6,5.2973285 6,5.666662 Z"/>
 <path style="fill:#76757a" d="m 7.8466293,15 h 8.3067387 c 0.484416,0 0.826193,0.398887 0.874394,0.888889 l 0.218599,2.222222 C 17.294567,18.601113 16.856382,19 16.371968,19 H 7.628031 C 7.1436172,19 6.7054368,18.601113 6.753638,18.111111 L 6.9722362,15.888889 C 7.0204368,15.398887 7.3622155,15 7.8466293,15 Z"/>
 <path style="fill:#aeadad" d="m 17,15.666667 v 0.666667 C 17,16.702666 16.612174,17 16.130435,17 H 7.8695653 C 7.3878259,17 7,16.702666 7,16.333334 V 15.666667 C 7,15.297334 7.3878259,15 7.8695653,15 H 16.130435 C 16.612174,15 17,15.297334 17,15.666667 Z"/>
 <path style="fill:#c64600" d="m 15.845112,10 h 1.309776 c 0.483744,0 0.825049,0.398886 0.873183,0.888888 l 0.218296,2.222218 c 0.04814,0.490002 -0.38944,0.888888 -0.873183,0.888888 h -1.746367 c -0.483744,0 -0.921318,-0.398886 -0.873184,-0.888888 L 14.97193,10.888888 C 15.020063,10.398886 15.361369,10 15.845112,10 Z"/>
 <path style="fill:#ff7402" d="m 18,10.666667 v 0.666667 C 18,11.702668 17.617714,12 17.142857,12 H 15.857142 C 15.382285,12 15,11.702668 15,11.333334 V 10.666667 C 15,10.297334 15.382285,10 15.857142,10 h 1.285715 C 17.617714,10 18,10.297334 18,10.666667 Z"/>
 <path style="fill:#3d3846" d="m 8.8451121,5 h 1.3097749 c 0.483744,0 0.825049,0.3988868 0.873184,0.8888892 l 0.218296,2.2222216 C 11.294503,8.6011132 10.856927,9 10.373183,9 H 8.6268164 C 8.1430729,9 7.7054986,8.6011132 7.753633,8.1111108 L 7.9719288,5.8888892 C 8.0200628,5.3988868 8.3613687,5 8.8451121,5 Z"/>
 <path style="fill:#625f67" d="M 11,5.666662 V 6.3333285 C 11,6.7026615 10.617715,6.999995 10.142857,6.999995 H 8.8571428 C 8.3822857,6.999995 8,6.7026615 8,6.3333285 V 5.666662 C 8,5.2973285 8.3822857,4.999995 8.8571428,4.999995 H 10.142857 C 10.617715,4.999995 11,5.2973285 11,5.666662 Z"/>
 <path style="fill:#3d3846" d="m 13.845112,5 h 1.309775 c 0.483744,0 0.825049,0.3988868 0.873184,0.8888892 l 0.218296,2.2222216 C 16.294503,8.6011132 15.856927,9 15.373183,9 H 13.626816 C 13.143073,9 12.705499,8.6011132 12.753633,8.1111108 L 12.971929,5.8888892 C 13.020063,5.3988868 13.361369,5 13.845112,5 Z"/>
 <path style="fill:#625f67" d="M 16,5.666662 V 6.3333285 C 16,6.7026615 15.617715,6.999995 15.142857,6.999995 H 13.857143 C 13.382286,6.999995 13,6.7026615 13,6.3333285 V 5.666662 c 0,-0.3693335 0.382286,-0.666667 0.857143,-0.666667 h 1.285714 C 15.617715,4.999995 16,5.2973285 16,5.666662 Z"/>
 <path style="fill:#3d3846" d="m 18.845112,5 h 1.309775 c 0.483744,0 0.825049,0.3988868 0.873184,0.8888892 l 0.218296,2.2222216 C 21.294503,8.6011132 20.856927,9 20.373183,9 H 18.626816 C 18.143073,9 17.705499,8.6011132 17.753633,8.1111108 L 17.971929,5.8888892 C 18.020063,5.3988868 18.361369,5 18.845112,5 Z"/>
 <path style="fill:#625f67" d="M 21,5.666662 V 6.3333285 C 21,6.7026615 20.617715,6.999995 20.142857,6.999995 H 18.857143 C 18.382286,6.999995 18,6.7026615 18,6.3333285 V 5.666662 c 0,-0.3693335 0.382286,-0.666667 0.857143,-0.666667 h 1.285714 C 20.617715,4.999995 21,5.2973285 21,5.666662 Z"/>
 <path style="fill:#3d3846" d="m 5.8451121,10 h 1.3097751 c 0.4837436,0 0.825049,0.398887 0.8731834,0.888889 l 0.2182961,2.222222 C 8.2945033,13.601113 7.8569268,14 7.3731832,14 H 5.6268164 C 5.1430729,14 4.7054986,13.601113 4.753633,13.111111 L 4.9719288,10.888889 C 5.0200628,10.398887 5.3613687,10 5.8451121,10 Z"/>
 <path style="fill:#625f67" d="m 8,10.666662 v 0.666667 c 0,0.369333 -0.3822852,0.666666 -0.8571432,0.666666 H 5.8571428 C 5.3822857,11.999995 5,11.702662 5,11.333329 V 10.666662 C 5,10.297328 5.3822857,9.999995 5.8571428,9.999995 h 1.285714 C 7.6177148,9.999995 8,10.297328 8,10.666662 Z"/>
 <path style="fill:#3d3846" d="m 10.845112,10 h 1.309775 c 0.483744,0 0.825049,0.398887 0.873184,0.888889 l 0.218296,2.222222 C 13.294503,13.601113 12.856927,14 12.373183,14 H 10.626816 C 10.143073,14 9.7054986,13.601113 9.753633,13.111111 L 9.9719288,10.888889 C 10.020063,10.398887 10.361369,10 10.845112,10 Z"/>
 <path style="fill:#625f67" d="m 13,10.666662 v 0.666667 c 0,0.369333 -0.382285,0.666666 -0.857143,0.666666 H 10.857143 C 10.382286,11.999995 10,11.702662 10,11.333329 v -0.666667 c 0,-0.369334 0.382286,-0.666667 0.857143,-0.666667 h 1.285714 C 12.617715,9.999995 13,10.297328 13,10.666662 Z"/>
 <path style="fill:#3d3846" d="m 3.8451121,15 h 1.3097751 c 0.4837436,0 0.825049,0.398887 0.8731834,0.888889 l 0.2182961,2.222222 C 6.2945033,18.601113 5.8569268,19 5.3731832,19 H 3.6268164 C 3.1430729,19 2.7054986,18.601113 2.753633,18.111111 L 2.9719288,15.888889 C 3.0200628,15.398887 3.3613687,15 3.8451121,15 Z"/>
 <path style="fill:#625f67" d="m 6,15.666662 v 0.666666 c 0,0.369333 -0.3822852,0.666667 -0.8571432,0.666667 H 3.8571428 C 3.3822857,16.999995 3,16.702661 3,16.333328 v -0.666666 c 0,-0.369334 0.3822857,-0.666667 0.8571428,-0.666667 h 1.285714 C 5.6177148,14.999995 6,15.297328 6,15.666662 Z"/>
 <path style="fill:#3d3846" d="m 18.845112,15 h 1.309775 c 0.483744,0 0.825049,0.398887 0.873184,0.888889 l 0.218296,2.222222 C 21.294503,18.601113 20.856927,19 20.373183,19 h -1.746367 c -0.483743,0 -0.921317,-0.398887 -0.873183,-0.888889 l 0.218296,-2.222222 C 18.020063,15.398887 18.361369,15 18.845112,15 Z"/>
 <path style="fill:#625f67" d="m 21,15.666662 v 0.666666 c 0,0.369333 -0.382285,0.666667 -0.857143,0.666667 H 18.857143 C 18.382286,16.999995 18,16.702661 18,16.333328 v -0.666666 c 0,-0.369334 0.382286,-0.666667 0.857143,-0.666667 h 1.285714 C 20.617715,14.999995 21,15.297328 21,15.666662 Z"/>
 <path style="opacity:0.1" d="M 3 6.3339844 L 3 6.8339844 C 3 7.2033174 3.3825648 7.5 3.8574219 7.5 L 5.1425781 7.5 C 5.6174361 7.5 6 7.2033174 6 6.8339844 L 6 6.3339844 C 6 6.7033174 5.6174361 7 5.1425781 7 L 3.8574219 7 C 3.3825648 7 3 6.7033174 3 6.3339844 z M 8 6.3339844 L 8 6.8339844 C 8 7.2033174 8.3825648 7.5 8.8574219 7.5 L 10.142578 7.5 C 10.617436 7.5 11 7.2033174 11 6.8339844 L 11 6.3339844 C 11 6.7033174 10.617436 7 10.142578 7 L 8.8574219 7 C 8.3825648 7 8 6.7033174 8 6.3339844 z M 13 6.3339844 L 13 6.8339844 C 13 7.2033174 13.382565 7.5 13.857422 7.5 L 15.142578 7.5 C 15.617436 7.5 16 7.2033174 16 6.8339844 L 16 6.3339844 C 16 6.7033174 15.617436 7 15.142578 7 L 13.857422 7 C 13.382565 7 13 6.7033174 13 6.3339844 z M 18 6.3339844 L 18 6.8339844 C 18 7.2033174 18.382565 7.5 18.857422 7.5 L 20.142578 7.5 C 20.617436 7.5 21 7.2033174 21 6.8339844 L 21 6.3339844 C 21 6.7033174 20.617436 7 20.142578 7 L 18.857422 7 C 18.382565 7 18 6.7033174 18 6.3339844 z M 5 11.333984 L 5 11.833984 C 5 12.203317 5.3825648 12.5 5.8574219 12.5 L 7.1425781 12.5 C 7.6174361 12.5 8 12.203317 8 11.833984 L 8 11.333984 C 8 11.703317 7.6174361 12 7.1425781 12 L 5.8574219 12 C 5.3825648 12 5 11.703317 5 11.333984 z M 10 11.333984 L 10 11.833984 C 10 12.203317 10.382565 12.5 10.857422 12.5 L 12.142578 12.5 C 12.617436 12.5 13 12.203317 13 11.833984 L 13 11.333984 C 13 11.703317 12.617436 12 12.142578 12 L 10.857422 12 C 10.382565 12 10 11.703317 10 11.333984 z M 15 11.333984 L 15 11.833984 C 15 12.203318 15.382565 12.5 15.857422 12.5 L 17.142578 12.5 C 17.617435 12.5 18 12.203318 18 11.833984 L 18 11.333984 C 18 11.703318 17.617435 12 17.142578 12 L 15.857422 12 C 15.382565 12 15 11.703318 15 11.333984 z M 3 16.333984 L 3 16.833984 C 3 17.203317 3.3825648 17.5 3.8574219 17.5 L 5.1425781 17.5 C 5.6174361 17.5 6 17.203317 6 16.833984 L 6 16.333984 C 6 16.703317 5.6174361 17 5.1425781 17 L 3.8574219 17 C 3.3825648 17 3 16.703317 3 16.333984 z M 7 16.333984 L 7 16.833984 C 7 17.203316 7.3874012 17.5 7.8691406 17.5 L 16.130859 17.5 C 16.612598 17.5 17 17.203316 17 16.833984 L 17 16.333984 C 17 16.703316 16.612598 17 16.130859 17 L 7.8691406 17 C 7.3874012 17 7 16.703316 7 16.333984 z M 18 16.333984 L 18 16.833984 C 18 17.203317 18.382565 17.5 18.857422 17.5 L 20.142578 17.5 C 20.617436 17.5 21 17.203317 21 16.833984 L 21 16.333984 C 21 16.703317 20.617436 17 20.142578 17 L 18.857422 17 C 18.382565 17 18 16.703317 18 16.333984 z"/>
 <path style="opacity:0.2;fill:#8b9cbe" d="M 2.5722656 3 C 1.7016943 3 1 3.8066224 1 4.8085938 L 1 5.3085938 C 1 4.3066224 1.7016943 3.5 2.5722656 3.5 L 21.427734 3.5 C 22.298306 3.5 23 4.3066224 23 5.3085938 L 23 4.8085938 C 23 3.8066224 22.298306 3 21.427734 3 L 2.5722656 3 z"/>
 <path style="opacity:0.2" d="M 1 17.363281 L 1 18.373047 L 1 19.363281 C 1 20.269827 1.7016943 21 2.5722656 21 L 21.427734 21 C 22.298306 21 23 20.269827 23 19.363281 L 23 18.373047 L 23 17.363281 C 23 18.269827 22.298306 19 21.427734 19 L 2.5722656 19 C 1.7016943 19 1 18.269827 1 17.363281 z"/>
</svg>
