<svg xmlns="http://www.w3.org/2000/svg" width="24" height="24" version="1">
 <circle style="opacity:0.2" cx="11" cy="11.5" r="10"/>
 <circle style="fill:#37474f" cx="11" cy="11" r="10"/>
 <path style="opacity:0.1" d="M 6.6923166,2.4855884 A 9.9998816,9.9998816 0 0 0 5.9100988,2.9055053 H 6.0126371 L 6.064394,3.0724955 5.9169347,3.2101892 6.5468103,3.227767 6.6434886,3.4553034 5.934513,3.4289367 5.8993584,3.254134 5.4862773,3.1642914 A 9.9998816,9.9998816 0 0 0 5.0634308,3.4670222 h 0.2470676 v 0.165037 L 5.2020997,3.7765888 H 4.6845278 V 3.7551046 A 9.9998816,9.9998816 0 0 0 1.565424,8.2179425 l 0.054687,0.026365 V 9.0792583 L 2.0390511,9.7970233 2.380844,9.8497572 2.424789,9.6036661 2.0214735,8.9816034 1.9433494,8.3761416 h 0.2353485 l 0.099608,0.6230416 0.5820244,0.850576 -0.1494123,0.2744108 0.3701128,0.567376 0.9189344,0.228513 v -0.149412 l 0.3671832,0.05273 -0.03418,0.262693 0.2880826,0.05273 0.4462837,0.122069 0.629875,0.719718 0.8056545,0.06055 0.078124,0.658196 -0.5507745,0.385737 -0.02539,0.587884 -0.079101,0.359371 0.7968656,0.999988 0.060546,0.341793 c 0,0 0.2887156,0.0791 0.3242151,0.0791 0.035,0 0.6474534,0.464838 0.6474534,0.464839 v 1.806619 l 0.2187474,0.06152 -0.1484358,0.832997 0.3671832,0.491206 -0.067382,0.826162 0.4228465,0.745108 a 9.9998816,9.9998816 0 0 0 1.0722528,0.210935 l -0.1582011,-0.133788 0.026365,-0.193357 0.082031,-0.236325 0.01758,-0.241208 -0.3115198,-0.0098 -0.1572247,-0.197263 0.258786,-0.249997 0.035154,-0.187498 -0.289059,-0.08301 0.01758,-0.174802 0.4111281,-0.0625 0.6259696,-0.301754 0.209958,-0.385738 0.656243,-0.841787 -0.148436,-0.658195 0.201169,-0.350582 0.603509,0.01855 0.406245,-0.323238 0.131834,-1.270493 0.45019,-0.573235 0.0791,-0.369136 -0.411128,-0.131835 -0.271481,-0.445307 -0.927724,-0.0098 L 10.42274,13.199247 10.38856,12.673863 10.142469,12.24418 9.4774373,12.23438 9.0936528,11.629896 8.7518599,11.462905 8.7342799,11.646497 8.1131932,11.683607 7.8856594,11.366345 7.2382061,11.234511 6.7040329,11.852667 5.8641994,11.710091 5.8026766,10.760883 5.1894023,10.656393 5.4354934,10.190578 5.3651818,9.9230028 4.5595273,10.463035 4.0526973,10.401513 3.8720352,10.004056 3.9823855,9.5948817 4.2616793,9.0792628 4.9052262,8.7530946 6.147399,8.7520946 6.144449,9.1319731 6.5907333,9.3399787 6.5555787,8.6915484 6.8768639,8.3663572 7.5262702,7.9396043 7.5711896,7.6388268 8.218643,6.9630533 8.9071113,6.5812219 8.846565,6.5304415 9.31238,6.0909937 9.4832765,6.1359131 9.5623771,6.234545 9.739133,6.0372818 9.7821025,6.018727 9.5887453,5.9913823 9.3914821,5.9249766 V 5.7355259 l 0.1044913,-0.08496 h 0.2294892 l 0.1054673,0.045899 0.090819,0.1845683 0.1123031,-0.0166 v -0.0166 l 0.03125,0.010745 0.323239,-0.048829 0.0459,-0.1582016 0.183592,0.045899 v 0.171873 l -0.16992,0.1171861 0.02539,0.1874978 0.583977,0.1806618 c 0,0 9.5e-4,0.0028 0.002,0.00781 l 0.134764,-0.01172 0.0088,-0.2539035 L 10.739121,5.8849461 10.712756,5.763854 11.097517,5.6320196 11.114117,5.2628835 10.712754,5.0177689 10.686389,4.3957062 10.134638,4.667187 H 9.9334687 L 9.9862021,4.1935601 9.2362109,4.0158277 8.9256676,4.2511764 V 4.967965 L 8.3670807,5.1456973 8.1434504,5.6134648 7.9002892,5.6525293 V 5.0539034 L 7.3758815,4.9816388 7.1131891,4.8107423 7.0077218,4.4230514 7.9461872,3.8722767 8.4051663,3.73263 8.4520407,4.0412199 8.7078972,4.0285251 8.727427,3.8732533 8.9950018,3.8341913 8.9999062,3.780495 8.8846731,3.732644 8.8583064,3.5676068 9.187404,3.5402634 9.3856437,3.3322581 l 0.01074,-0.014648 0.00295,9.75e-4 0.060546,-0.062499 0.6913983,-0.08789 0.30566,0.2607391 -0.8017481,0.4277293 1.0204951,0.241208 0.131835,-0.3417927 h 0.446284 l 0.157207,-0.2978465 -0.31445,-0.079101 V 3.0021838 L 10.107315,2.5627359 9.4247057,2.6418365 9.0399448,2.8439826 9.0663094,3.3351877 8.6629942,3.273665 8.6014714,3.0021838 8.9872089,2.6506255 8.2870222,2.6164464 8.0858526,2.6769925 7.9989396,2.9133179 8.260655,2.9582393 8.2088981,3.2209315 7.7626144,3.2472982 7.6932792,3.4221009 7.0458259,3.4406551 c 0,0 -0.017945,-0.3681597 -0.043944,-0.3681597 -0.026,5e-5 0.50683,-0.00879 0.50683,-0.00879 L 7.8944503,2.6857814 7.6844923,2.5803138 7.4042221,2.8527715 6.9403601,2.8264047 Z m 10.8406914,1.4501782 -0.318355,0.1249986 -0.2041,0.2226534 0.04687,0.2597629 0.250974,0.035155 0.150389,0.3789015 0.432611,-0.1748025 0.07129,0.5058536 H 17.83281 l -0.355465,-0.052734 -0.39355,0.066406 -0.380855,0.5390561 -0.544916,0.085937 -0.0791,0.4677675 0.230466,0.05371 -0.06641,0.300778 -0.541009,-0.1083973 -0.496088,0.1083973 -0.105467,0.2763637 0.08594,0.5810481 0.291013,0.1367169 0.488275,-0.00295 0.330074,-0.029295 0.100585,-0.2636689 0.515619,-0.6708906 0.33984,0.069335 0.33398,-0.3027304 0.0625,0.2363252 0.822256,0.5566339 -0.100585,0.1347639 -0.371089,-0.01953 0.142576,0.2021462 0.228513,0.049804 0.266599,-0.1113267 -0.0059,-0.3222622 0.119139,-0.059569 -0.0957,-0.1015613 L 18.10523,6.8019256 17.961677,6.3947035 h 0.456049 l 0.145506,0.1445297 0.392573,0.3398395 0.0166,0.4101517 0.407222,0.4335883 0.151366,-0.5947194 0.281246,-0.1542947 0.05273,0.4863222 0.275387,0.302731 0.127928,-0.00195 A 9.9998816,9.9998816 0 0 0 18.783968,5.2287054 L 18.12089,5.2228454 18.07597,5.0724567 18.470496,4.8712876 a 9.9998816,9.9998816 0 0 0 -0.937489,-0.935536 z m -12.2313,0.1035143 c 0.0195,0 0,0.2294893 0,0.2294893 L 4.7831592,4.3019748 4.6845278,4.1838122 5.051711,4.0783445 c 0,0 0.2299973,-0.039065 0.249997,-0.039065 z m 0.6308515,1.1181508 0.2490206,0.05957 -0.085936,0.334957 -0.2695278,0.085937 -0.16992,-0.3496053 z M 6.615169,5.9523443 h 0.4130811 v 0.125975 H 7.119069 V 6.2951137 H 6.489194 L 6.2538447,6.2296845 6.3124381,6.0783193 Z m 0.6162037,0.092772 0.2167939,0.1972632 -0.2167939,0.052734 z M 7.7079295,6.3478471 7.8680836,6.4484319 7.7391792,6.5548762 7.6122272,6.4484319 Z M 6.4970064,6.3810517 H 6.8446582 L 6.3983745,7.0050678 6.2147832,6.906436 6.2538427,6.6437436 Z m 0.5585869,0 H 7.4091046 V 6.5910102 L 7.2518799,6.6925715 7.0555933,6.7296811 Z M 7.495041,6.6115175 H 7.521406 L 7.9217915,6.7296801 V 6.9337797 H 7.5868345 L 7.4950385,6.8009682 Z M 7.330004,6.8009682 V 7.0060443 L 7.1796153,7.1574095 H 6.8446582 l 0.052734,-0.2294893 0.1582012,-0.01367 0.032225,-0.079101 z M 17.740037,7.670099 16.558411,7.7618949 16.192204,7.959158 H 15.72346 L 15.492993,7.9357233 14.923664,8.2531021 V 8.849775 l -1.165025,0.8417865 0.09668,0.3593705 h 0.236325 l -0.06152,0.341793 -0.166013,0.06152 -0.0098,0.894521 1.006824,1.148424 h 0.437495 l 0.02734,-0.06933 h 0.7871 l 0.22656,-0.210935 h 0.447261 l 0.244137,0.24609 0.666008,0.06934 -0.08789,0.886709 0.738273,1.306625 -0.388667,0.745108 0.02636,0.350582 0.305661,0.306637 v 0.84374 l 0.352535,0.47558 A 9.9998816,9.9998816 0 0 0 20.987069,11.256973 9.9998816,9.9998816 0 0 0 20.574965,8.6437224 H 20.0779 L 19.566187,8.2618915 19.028108,8.3146248 V 8.6437224 H 18.857212 L 18.67362,8.5118885 17.740037,8.2745863 Z"/>
 <path style="fill:#5d9c21" d="m 6.6924336,1.9855928 a 9.9998816,9.9998816 0 0 0 -0.7824908,0.419895 h 0.1024988 l 0.051999,0.166998 -0.1474983,0.1376984 0.6299926,0.0176 0.096499,0.2275473 -0.7089916,-0.0264 -0.035,-0.1747979 -0.4129951,-0.089849 A 9.9998816,9.9998816 0 0 0 5.0634528,2.9670311 H 5.3104499 V 3.1320792 L 5.2019512,3.2765775 H 4.6844573 v -0.02145 a 9.9998816,9.9998816 0 0 0 -3.119013,4.4630472 l 0.054649,0.026 v 0.8349901 l 0.418945,0.7179915 0.341796,0.052499 0.04395,-0.2459971 L 2.0214889,8.4816658 1.9433398,7.876173 H 2.178687 l 0.099599,0.6229926 0.5820431,0.85049 -0.1493982,0.2744967 0.3700956,0.5674937 0.9189391,0.228497 v -0.149498 l 0.3669957,0.0525 -0.034,0.262997 0.2879966,0.0525 0.4464947,0.121999 0.6299925,0.719991 0.8054905,0.0605 0.077999,0.657992 -0.5504935,0.385995 -0.0255,0.587993 -0.078999,0.358996 0.7964906,0.999988 0.060499,0.341996 c 0,0 0.2889966,0.079 0.3244961,0.079 0.035,0 0.6474924,0.464995 0.6474924,0.464995 v 1.806478 l 0.2184974,0.0615 -0.1484983,0.83299 0.3674957,0.491494 -0.067499,0.82599 0.4854942,0.85549 0.6189927,0.540994 a 9.9998816,9.9998816 0 0 0 0.033,0.006 l 0.5989929,0.0105 0.060499,-0.201997 -0.4599945,-0.388496 0.0265,-0.193497 0.081999,-0.236498 0.0175,-0.240997 -0.3114963,-0.01 -0.1574982,-0.196997 0.258997,-0.249997 0.034999,-0.187498 -0.2889965,-0.083 0.0175,-0.174998 0.4109951,-0.0625 0.6259926,-0.301497 0.209998,-0.385995 0.656492,-0.84149 -0.148498,-0.658492 0.200997,-0.350496 0.603493,0.0185 0.406495,-0.322997 0.131999,-1.270485 0.449995,-0.573493 0.079,-0.368995 -0.410996,-0.131999 -0.271496,-0.445495 -0.927989,-0.0095 -0.734992,-0.281497 -0.0345,-0.524994 -0.245997,-0.429995 -0.6649927,-0.0095 -0.3834955,-0.604493 -0.3419959,-0.166998 -0.0175,0.183498 -0.6209927,0.037 L 7.8854194,10.866138 7.2384271,10.734639 6.7039334,11.352632 5.8644434,11.210134 5.8024441,10.260645 5.1894513,10.156146 5.4354484,9.6906515 5.3649493,9.4231547 4.5594588,9.9631483 4.0524648,9.901649 3.8720169,9.5041537 3.9823656,9.0946586 4.2614623,8.5791647 4.9054547,8.2531686 6.14744,8.2521686 6.14444,8.6321641 6.5909348,8.8401616 6.5554352,8.1916693 6.8769314,7.8661731 7.5264237,7.4396782 7.5714231,7.1386818 8.2189155,6.4631897 8.9069073,6.0811943 8.846408,6.0306949 9.3124025,5.5912001 l 0.170998,0.044499 0.078999,0.098999 0.1769979,-0.1974977 0.042499,-0.0185 -0.1929977,-0.0275 L 9.3914016,5.425202 V 5.2357043 l 0.1044988,-0.084999 h 0.2294972 l 0.1054988,0.045999 0.090999,0.1844979 0.1119986,-0.0165 v -0.017 l 0.0315,0.011 0.322996,-0.048999 0.046,-0.1579981 0.183498,0.045999 v 0.171498 l -0.169998,0.1174986 0.0255,0.1874978 0.583993,0.1804979 c 0,0 10e-4,0.003 0.002,0.008 l 0.134998,-0.012 0.0085,-0.253997 -0.463494,-0.2114975 -0.0265,-0.1214985 0.384495,-0.1314985 0.017,-0.3694956 -0.401495,-0.2449971 -0.0265,-0.6219927 -0.551493,0.2714968 H 9.9333952 L 9.9863945,3.6935725 9.2364034,3.5158246 8.9259071,3.7512219 v 0.7169915 l -0.5589934,0.1774979 -0.2234973,0.4679944 -0.2429972,0.039 V 4.5537124 L 7.3759255,4.4817132 7.1134286,4.3107152 7.0079298,3.9230698 7.9464187,3.3722763 8.4054133,3.232628 l 0.046499,0.3085963 0.255997,-0.0127 0.0195,-0.1552482 0.2674968,-0.039049 0.005,-0.053749 -0.1149986,-0.047849 -0.0265,-0.164998 0.3289961,-0.02735 0.1979977,-0.2079976 0.011,-0.01465 0.003,9.5e-4 0.060499,-0.062499 0.6914927,-0.087899 0.305496,0.2607469 -0.801491,0.4277449 1.020488,0.2411972 0.131499,-0.341796 H 11.25388 L 11.410878,2.9582312 11.096381,2.8791322 V 2.5021866 l -0.988988,-0.4394447 -0.6824918,0.079099 -0.3849954,0.2021476 0.0265,0.4911942 -0.4034952,-0.061499 -0.061499,-0.2714968 0.3859955,-0.3515458 -0.7004917,-0.0342 -0.2009976,0.060549 -0.086999,0.2363472 0.2614969,0.0449 -0.051499,0.2626969 -0.4464947,0.02635 -0.068999,0.174848 -0.6474923,0.01855 c 0,0 -0.018,-0.3681957 -0.043999,-0.3681957 -0.026,5e-5 0.506994,-0.00875 0.506994,-0.00875 L 7.8944193,2.1857904 7.6844218,2.0803416 7.4044251,2.3527884 6.9404306,2.3263887 Z m 10.8403714,1.4501828 -0.317996,0.1249985 -0.204498,0.2226474 0.047,0.2597969 0.250997,0.035 0.150498,0.3789955 0.432495,-0.1749979 0.0715,0.505994 h -0.129998 l -0.355496,-0.052499 -0.393495,0.066499 -0.380996,0.5389936 -0.544994,0.085999 -0.079,0.4674945 0.230498,0.053499 -0.0665,0.3009965 -0.540993,-0.1084987 -0.495994,0.1084987 -0.105499,0.2764967 0.086,0.5809931 0.290997,0.1364984 0.488494,-0.003 0.329996,-0.029 0.100499,-0.2634969 0.515494,-0.670992 0.339996,0.068999 0.333996,-0.3024964 0.0625,0.2364972 0.82199,0.5564934 -0.100499,0.1344984 -0.370995,-0.0195 0.142498,0.2024976 0.228497,0.049499 0.266497,-0.1109987 -0.0055,-0.3224962 0.118999,-0.059499 L 18.654292,6.608688 18.105298,6.3021917 17.9618,5.8946965 h 0.455995 l 0.145498,0.1444983 0.392495,0.3399959 0.0165,0.4099952 0.407495,0.4334949 0.150999,-0.594493 0.281496,-0.1544982 0.0525,0.4864943 0.275496,0.3024964 0.127999,-0.002 a 9.9998816,9.9998816 0 0 0 -1.484483,-2.53197 l -0.662992,-0.006 -0.045,-0.1499983 0.394495,-0.2014976 A 9.9998816,9.9998816 0 0 0 17.532805,3.4357756 Z M 5.30195,3.5392744 c 0.0195,0 0,0.2294973 0,0.2294973 L 4.7829562,3.8019713 4.6844573,3.6838227 5.051953,3.5783239 c 0,0 0.2299973,-0.039049 0.249997,-0.039049 z m 0.6304925,1.1179367 0.2489971,0.059999 -0.085999,0.3349961 -0.2694968,0.085499 -0.169998,-0.3494958 z m 0.682492,0.7949906 h 0.4134951 v 0.1259985 h 0.090499 V 5.7951977 H 6.489436 L 6.2539387,5.7296984 6.3124381,5.5782002 Z m 0.6164927,0.092999 0.2164974,0.1969977 -0.2164974,0.052999 z M 7.7079215,5.847697 7.8679196,5.9481958 7.7394212,6.0546946 7.6124227,5.9481958 Z m -1.2109856,0.0335 H 6.8444318 L 6.398437,6.5051893 6.2149392,6.4061904 l 0.039,-0.2624969 z m 0.5584934,0 H 7.4089251 V 6.0911942 L 7.2519269,6.192693 7.0554293,6.2296925 Z M 7.494924,6.1116939 h 0.0265 L 7.921919,6.2296925 V 6.4336901 H 7.586923 L 7.494924,6.3011917 Z M 7.329926,6.3011917 V 6.5061892 L 7.1794278,6.6571875 h -0.334996 l 0.052999,-0.2294973 0.1579982,-0.0135 0.0325,-0.078999 z m 10.409877,0.8689897 -1.181486,0.091499 -0.365996,0.1974977 h -0.468994 l -0.230498,-0.0235 -0.568993,0.3174963 v 0.5964929 l -1.164986,0.84199 0.0965,0.3594958 h 0.236497 l -0.0615,0.3414959 -0.165998,0.061499 -0.01,0.89449 1.006988,1.148486 h 0.437495 l 0.027,-0.0695 h 0.787491 l 0.226497,-0.210497 h 0.446995 l 0.243997,0.245997 0.666492,0.069 -0.088,0.886989 0.737992,1.306485 -0.388496,0.744991 0.0265,0.350996 0.305496,0.306496 v 0.84349 l 0.402495,0.541994 V 17.38306 A 9.9998816,9.9998816 0 0 0 20.999764,11.000136 9.9998816,9.9998816 0 0 0 20.574769,8.1436699 H 20.077775 L 19.566281,7.7616744 19.028287,7.8146737 V 8.1436699 H 18.85729 L 18.673792,8.0116714 17.739803,7.7746742 Z"/>
 <path style="opacity:0.1;fill:#8b9cbe" d="m 10.999883,1.0002544 c -5.5394349,0 -9.9988821,4.4599472 -9.9988821,9.9998816 0,0.08386 -0.002,0.166643 0,0.249997 0.1320985,-5.4229357 4.5434462,-9.7498845 9.9988821,-9.7498845 5.455435,0 9.866883,4.3267488 9.998881,9.7498845 0.002,-0.08335 0,-0.166138 0,-0.249997 0,-5.5399344 -4.459447,-9.9998816 -9.998881,-9.9998816 z"/>
 <path style="opacity:0.1" d="m 16.143376,2.9396846 c 0.928351,3.7621918 0.464694,7.1380634 -1.015613,9.9500774 -1.65326,3.140559 -4.634979,5.628226 -8.6200148,7.031167 a 9.9998816,9.9998816 0 0 0 4.4921348,1.079089 9.9998816,9.9998816 0 0 0 0.269527,-0.0098 c 2.820846,-1.678868 5.067687,-3.956376 6.513595,-6.703046 1.238767,-2.353179 1.864748,-5.0255784 1.811502,-7.8758831 A 9.9998816,9.9998816 0 0 0 16.143376,2.9396846 Z"/>
 <path style="fill:#eab100" d="m 16.143376,2.4396905 c 0.928351,3.7621918 0.464694,7.1380639 -1.015613,9.9500775 -1.73075,3.28776 -4.914675,5.863609 -9.1844611,7.224524 a 9.9998816,9.9998816 0 0 0 4.4901811,1.357405 c 3.218413,-1.71142 5.762462,-4.169679 7.349522,-7.184484 1.238767,-2.35318 1.864748,-5.025579 1.811502,-7.8758837 A 9.9998816,9.9998816 0 0 0 16.143376,2.4396905 Z"/>
 <path style="opacity:0.2" d="m 10.999883,1.5002484 c -0.779699,0 -1.5352863,0.097784 -2.2636456,0.2665984 2.3372876,1.7021846 4.9395836,5.9255144 6.7987476,10.6072962 0.824873,2.077211 1.531462,4.240894 2.095679,6.281176 0.548966,1.985138 0.345595,0.686012 0.160154,-0.02539 l 2.83688,-0.451166 C 20.018564,15.946561 19.241721,13.58018 18.323038,11.266734 16.921068,7.7362697 15.260467,4.328026 13.172708,1.8137212 12.517489,1.6125521 11.799355,1.5002484 10.999883,1.5002484 Z m 9.627815,16.6785136 c 0.839824,3.077575 -0.132487,-2.07644 0,0 z"/>
 <path style="fill:#ffd517" d="m 10.999883,1.0002544 c -0.779699,0 -1.5352863,0.097784 -2.2636456,0.2665984 2.3372876,1.7021847 4.9395836,5.9255143 6.7987476,10.6072962 0.824873,2.077211 1.531462,4.240893 2.095679,6.281176 0.548966,1.985138 0.345595,0.686012 0.160154,-0.02539 l 2.83688,-0.451167 C 20.018564,15.446567 19.241721,13.080186 18.323038,10.76674 16.921068,7.2362756 15.260467,3.8280321 13.172708,1.3137273 12.517489,1.1125582 11.799355,1.0002544 10.999883,1.0002544 Z m 9.627815,16.6785136 c 0.839824,3.077575 -0.132487,-2.07644 0,0 z"/>
 <path style="opacity:0.2" d="m 22.46709,16.500379 a 0.49451406,0.67380322 74.338633 0 0 -0.194132,0.0168 l -3.337167,0.659126 -3.337166,0.659127 a 0.49451406,0.67380322 74.338633 0 0 -0.453888,0.243498 0.49451406,0.67380322 74.338633 0 0 -0.02187,0.608748 l 1.948162,1.83044 1.948162,1.831279 a 0.49451406,0.67380322 74.338633 0 0 1.142237,-0.225865 l 1.389005,-2.489567 1.389689,-2.490406 a 0.49451406,0.67380322 74.338633 0 0 -0.473028,-0.643173 z"/>
 <path style="fill:#ffd517" d="m 22.46709,16.000385 a 0.49451406,0.67380322 74.338633 0 0 -0.194132,0.01679 l -3.337167,0.659126 -3.337166,0.659127 a 0.49451406,0.67380322 74.338633 0 0 -0.453888,0.243498 0.49451406,0.67380322 74.338633 0 0 -0.02187,0.608748 l 1.948162,1.83044 1.948162,1.831279 a 0.49451406,0.67380322 74.338633 0 0 1.142237,-0.225865 l 1.389005,-2.489567 1.389689,-2.490406 a 0.49451406,0.67380322 74.338633 0 0 -0.473028,-0.643173 z"/>
 <path style="opacity:0.2;fill:#8b9cbe" d="m 10.999883,1.0002544 c -0.779699,0 -1.5352863,0.097784 -2.2636456,0.2665984 0.1640455,0.1194699 0.32978,0.2548373 0.4960881,0.3984328 0.5740247,-0.1050726 1.1630975,-0.1650371 1.7675575,-0.1650371 0.799472,0 1.517606,0.1123037 2.172825,0.3134728 2.087759,2.5143052 3.74836,5.9225484 5.15033,9.4530127 0.747447,1.882236 1.394677,3.795851 1.940407,5.647395 l 2.009742,-0.39648 a 0.49451406,0.67380322 74.338633 0 1 0.194333,-0.01758 0.49451406,0.67380322 74.338633 0 1 0.446284,0.190427 l 0.02637,-0.04687 a 0.49451406,0.67380322 74.338633 0 0 -0.472649,-0.643547 0.49451406,0.67380322 74.338633 0 0 -0.194333,0.01758 L 20.26345,16.414138 C 19.717714,14.562593 19.070485,12.648976 18.323038,10.76674 16.921068,7.2362756 15.260467,3.8280321 13.172708,1.3137273 12.517489,1.1125582 11.799355,1.0002544 10.999883,1.0002544 Z m 6.151294,16.0281306 -1.552716,0.306637 a 0.49451406,0.67380322 74.338633 0 0 -0.454097,0.244138 0.49451406,0.67380322 74.338633 0 0 -0.05664,0.571282 0.49451406,0.67380322 74.338633 0 1 0.05664,-0.07129 0.49451406,0.67380322 74.338633 0 1 0.454097,-0.244138 l 1.697246,-0.334957 c -0.04629,-0.156117 -0.09677,-0.314743 -0.14453,-0.471674 z"/>
</svg>
