<svg xmlns="http://www.w3.org/2000/svg" width="24" height="24" version="1">
 <rect style="fill:#f7941e" width="20" height="19.998" x="-22" y="-21" rx="10" ry="9.999" transform="matrix(0,-1,-1,0,0,0)"/>
 <path style="opacity:0.1;fill:#8b9cbe" d="M 11.000142,2 C 5.460617,2 1.0009999,6.46 1.0009999,12 c 0,0.08386 -0.002,0.166645 0,0.25 C 1.1330886,6.827 5.54411,2.5 11.000142,2.5 c 5.455531,0 9.867152,4.3268 9.999141,9.75 0.002,-0.08335 0,-0.16614 0,-0.25 0,-5.54 -4.459617,-10 -9.999141,-10 z"/>
 <path style="opacity:0.2" d="M 1.005859,12.25 C 1.0038241,12.33343 1,12.416065 1,12.5 c 0,5.54 4.459617,10 9.999142,10 5.539524,0 9.999141,-4.46 9.999141,-10 0,-0.08394 -0.0038,-0.16657 -0.0059,-0.25 C 20.859935,17.673 16.454813,22 10.999282,22 5.54375,22 1.1381281,17.673 1.0061394,12.25 Z"/>
 <rect style="fill:#4c3a91" width="20" height="19.998" x="-22" y="-23" rx="10" ry="9.999" transform="matrix(0,-1,-1,0,0,0)"/>
 <path style="opacity:0.2" d="M 6.4628906 15 A 7 7 0 0 0 13 19.5 A 7 7 0 0 0 19.529297 15 L 6.4628906 15 z"/>
 <path style="fill:#6e5dae" d="M 6.6835938 15 A 7 7 0 0 0 13 19 A 7 7 0 0 0 19.314453 15 L 6.6835938 15 z"/>
 <path style="opacity:0.1;fill:#8b9cbe" d="M 12.99997,2 C 7.4604455,2 3.0008282,6.46 3.0008282,12 c 0,0.08386 -0.002,0.166645 0,0.25 C 3.1329169,6.827 7.543938,2.5 12.99997,2.5 c 5.455531,0 9.867152,4.3268 9.999141,9.75 0.002,-0.08335 0,-0.16614 0,-0.25 0,-5.54 -4.459617,-10 -9.999141,-10 z"/>
 <path style="opacity:0.2" d="m 12.999081,22.5 c -5.539032,0 -9.9982529,-4.46 -9.9982529,-10 0,-0.08386 -0.002,-0.166645 0,-0.25 C 3.133025,17.673 7.543884,22 12.999081,22 c 5.455196,0 9.866275,-4.3268 9.998253,-9.75 0.002,0.08335 0,0.16614 0,0.25 0,5.54 -4.459221,10 -9.998253,10 z"/>
 <path style="opacity:0.2" d="M 3.8320312,8.5 C 3.5558889,9.1350874 3.3395625,9.8035686 3.1992188,10.5 H 22.798828 c -0.140344,-0.6964314 -0.35667,-1.3649126 -0.632812,-2 z m -0.7832031,3 C 3.016459,11.828875 3,12.162335 3,12.5 c 0,0.337665 0.016459,0.671125 0.048828,1 h 19.845703 c 0.01944,0 0.03583,-0.0096 0.05469,-0.01172 0.03163,-0.32514 0.04883,-0.654564 0.04883,-0.988281 0,-0.333717 -0.0172,-0.663141 -0.04883,-0.988281 C 22.930366,11.50958 22.913975,11.5 22.894531,11.5 Z m 0.1503907,3 c 0.1403437,0.696431 0.3566701,1.364913 0.6328124,2 H 22.166016 c 0.276142,-0.635087 0.492468,-1.303569 0.632812,-2 z"/>
 <path style="fill:#8b9cbe" d="M 3.8320312 8 C 3.5558889 8.6350874 3.3395625 9.3035686 3.1992188 10 L 22.798828 10 C 22.658484 9.3035686 22.442158 8.6350874 22.166016 8 L 3.8320312 8 z M 3.0488281 11 C 3.016459 11.328875 3 11.662335 3 12 C 3 12.337665 3.016459 12.671125 3.0488281 13 L 22.894531 13 C 22.913975 13 22.930366 12.99042 22.949219 12.988281 C 22.980844 12.663141 22.998047 12.333717 22.998047 12 C 22.998047 11.666283 22.980844 11.336859 22.949219 11.011719 C 22.930366 11.00958 22.913975 11 22.894531 11 L 3.0488281 11 z M 3.1992188 14 C 3.3395625 14.696431 3.5558889 15.364913 3.8320312 16 L 22.166016 16 C 22.442158 15.364913 22.658484 14.696431 22.798828 14 L 3.1992188 14 z"/>
</svg>
