<svg xmlns="http://www.w3.org/2000/svg" width="24" height="24" version="1.1">
 <path style="opacity:0.2" d="M 5.0909094,2.5000013 C 4.4865455,2.5000013 4,2.9778584 4,3.5714298 V 21.428572 C 4,22.022143 4.4865455,22.5 5.0909094,22.5 H 18.909091 C 19.513454,22.5 20,22.022143 20,21.428572 V 3.5714298 C 20,2.9778584 19.513454,2.5000013 18.909091,2.5000013 Z"/>
 <path style="fill:#961a1a" d="M 5.0909094,2.0000013 C 4.4865455,2.0000013 4,2.4778585 4,3.0714298 V 20.928572 C 4,21.522143 4.4865455,22 5.0909094,22 H 18.909091 C 19.513454,22 20,21.522143 20,20.928572 V 3.0714298 C 20,2.4778585 19.513454,2.0000013 18.909091,2.0000013 Z"/>
 <path style="opacity:0.2" d="M 5.0909094,2.0000013 C 4.4865455,2.0000013 4,2.4778585 4,3.0714298 V 20.928572 C 4,21.522143 4.4865455,22 5.0909094,22 H 7.0000002 V 2.0000013 Z"/>
 <path style="opacity:0.2" d="m 12,5.5 v 3 H 9 v 3 h 3 v 8 h 3 v -8 h 3 v -3 h -3 v -3 z"/>
 <rect style="fill:#8b9cbe" width="3" height="14" x="12" y="5"/>
 <rect style="fill:#8b9cbe" width="3" height="9" x="8" y="-18" transform="rotate(90)"/>
 <path style="opacity:0.1;fill:#8b9cbe" d="m 5.0908209,2.0000012 c -0.6043641,0 -1.0908205,0.4777177 -1.0908205,1.071289 v 0.5 c 0,-0.5935714 0.4864564,-1.071289 1.0908205,-1.071289 H 18.909179 c 0.604363,0 1.09082,0.4777176 1.09082,1.071289 v -0.5 c 0,-0.5935713 -0.486457,-1.071289 -1.09082,-1.071289 z"/>
</svg>
