<svg xmlns="http://www.w3.org/2000/svg" width="24" height="24" version="1.1">
 <g transform="translate(0,-308.3)">
  <path style="opacity:0.2;fill-rule:evenodd" d="m 11.633456,309.8 c 0,0 1.076458,3.69836 0.768854,4.91901 -0.390173,1.5483 -1.202725,2.83701 -2.459697,3.09502 -0.4784205,0.0982 -1.2934701,-0.54495 -1.6271786,-0.92554 -0.4074131,-0.46466 -0.6877766,-1.76946 -0.6877766,-1.76946 0,0 -0.2605575,1.13802 -0.140663,2.23593 0.119894,1.09792 0.5135925,2.70659 0.4753145,3.5499 -0.04142,0.9119 -0.5564585,1.91159 -0.5564585,1.91159 0,0 -0.3823785,-1.06477 -0.7578746,-1.77541 -0.375501,-0.71063 -1.3678771,-1.66939 -1.3678771,-1.66939 0,0 0.6632626,1.17558 0.6822101,2.27444 0.018955,1.09885 -2.1097643,3.42265 -0.09451,6.44352 2.0371371,3.05368 5.0866318,2.69766 5.0866318,2.69766 l 0.741877,-0.27278 -2.8469596,-1.39485 3.6734936,-1.79981 -3.6734936,-1.7998 3.6734936,-1.79981 3.673499,1.79981 3.198527,-1.5678 -0.08897,-0.5076 -3.109555,-1.52421 2.707767,-1.32595 -0.109053,-0.89147 -0.447709,-3.69151 c 0,0 -0.515162,1.09593 -1.085779,1.48083 -0.375543,0.25333 -1.30063,0.34393 -1.30063,0.34393 0,0 -0.506457,-2.70112 -1.039558,-4.1065 C 13.96958,311.22055 11.633456,309.8 11.633456,309.8 Z m 4.562886,15.72003 -3.673499,1.7998 3.372159,1.65217 1.331643,-0.48932 1.490921,-1.72669 z"/>
  <path style="fill:#ff9231;fill-rule:evenodd" d="m 11.633456,309.3 c 0,0 1.076458,3.69836 0.768854,4.91901 -0.390173,1.5483 -1.202725,2.83701 -2.459697,3.09502 -0.4784205,0.0982 -1.2934701,-0.54495 -1.6271786,-0.92554 -0.4074131,-0.46466 -0.6877766,-1.76946 -0.6877766,-1.76946 0,0 -0.2605575,1.13802 -0.140663,2.23593 0.119894,1.09792 0.5135925,2.70659 0.4753145,3.5499 -0.04142,0.9119 -0.5564585,1.91159 -0.5564585,1.91159 0,0 -0.3823785,-1.06477 -0.7578746,-1.77541 -0.375501,-0.71063 -1.3678771,-1.66939 -1.3678771,-1.66939 0,0 0.6632626,1.17558 0.6822101,2.27444 0.018955,1.09885 -2.1097643,3.42265 -0.09451,6.44352 2.0371371,3.05368 5.0866318,2.69766 5.0866318,2.69766 l 0.741877,-0.27278 -2.8469596,-1.39485 3.6734936,-1.79981 -3.6734936,-1.7998 3.6734936,-1.79981 3.673499,1.79981 3.198527,-1.5678 -0.08897,-0.5076 -3.109555,-1.52421 2.707767,-1.32595 -0.109053,-0.89147 -0.447709,-3.69151 c 0,0 -0.515162,1.09593 -1.085779,1.48083 -0.375543,0.25333 -1.30063,0.34393 -1.30063,0.34393 0,0 -0.506457,-2.70112 -1.039558,-4.1065 C 13.96958,310.72055 11.633456,309.3 11.633456,309.3 Z m 4.562886,15.72003 -3.673499,1.7998 3.372159,1.65217 1.331643,-0.48932 1.490921,-1.72669 z"/>
  <path style="fill:#8b9cbe;fill-rule:evenodd;opacity:0.2" transform="translate(0,308.3)" d="M 11.632812 1 C 11.632812 1 11.702749 1.2414947 11.800781 1.6152344 C 12.218715 1.8902306 14.074961 3.1969966 14.921875 5.4296875 C 15.454976 6.8350675 15.960938 9.5371094 15.960938 9.5371094 C 15.960938 9.5371094 16.886176 9.4447363 17.261719 9.1914062 C 17.832336 8.8065062 18.347656 7.7109375 18.347656 7.7109375 L 18.794922 11.402344 L 18.845703 11.822266 L 18.904297 11.794922 L 18.794922 10.902344 L 18.347656 7.2109375 C 18.347656 7.2109375 17.832336 8.3065062 17.261719 8.6914062 C 16.886176 8.9447363 15.960938 9.0371094 15.960938 9.0371094 C 15.960938 9.0371094 15.454976 6.3350675 14.921875 4.9296875 C 13.970074 2.4204875 11.632813 1 11.632812 1 z M 12.4375 5.5527344 C 12.429493 5.6819523 12.42744 5.8203344 12.402344 5.9199219 C 12.012171 7.4682219 11.200331 8.7556619 9.9433594 9.0136719 C 9.4649389 9.1118719 8.6501148 8.4684806 8.3164062 8.0878906 C 7.9089931 7.6232306 7.6269531 6.3183594 7.6269531 6.3183594 C 7.6269531 6.3183594 7.450606 7.1574497 7.4707031 8.0859375 C 7.5071242 7.3813285 7.6269531 6.8183594 7.6269531 6.8183594 C 7.6269531 6.8183594 7.9089931 8.1232306 8.3164062 8.5878906 C 8.6501148 8.9684806 9.4649389 9.6118719 9.9433594 9.5136719 C 11.200331 9.2556619 12.012171 7.9682219 12.402344 6.4199219 C 12.457008 6.2030013 12.456446 5.8914886 12.4375 5.5527344 z M 5.2792969 10.572266 C 5.2792969 10.572266 5.4864012 10.960845 5.6738281 11.484375 C 5.9976878 11.826451 6.4092091 12.287498 6.6484375 12.740234 C 7.0239336 13.450874 7.40625 14.515625 7.40625 14.515625 C 7.40625 14.515625 7.9214706 13.517369 7.9628906 12.605469 C 7.9675638 12.502514 7.9502788 12.359775 7.9433594 12.236328 C 7.8629414 13.110247 7.40625 14.015625 7.40625 14.015625 C 7.40625 14.015625 7.0239336 12.950874 6.6484375 12.240234 C 6.2729365 11.529604 5.2792969 10.572266 5.2792969 10.572266 z M 5.9335938 13.009766 C 5.8290329 13.812225 4.9189272 15.137187 5.0117188 16.849609 C 5.1019299 15.269089 5.975086 14.052688 5.9628906 13.345703 C 5.9609596 13.233716 5.9475245 13.122021 5.9335938 13.009766 z M 16.707031 13.371094 L 16.197266 13.621094 L 19.306641 15.144531 L 19.314453 15.191406 L 19.394531 15.152344 L 19.306641 14.644531 L 16.707031 13.371094 z M 9.359375 16.970703 L 8.8496094 17.220703 L 12.013672 18.769531 L 12.523438 18.519531 L 9.359375 16.970703 z M 12.523438 18.519531 L 13.033203 18.769531 L 16.197266 17.220703 L 15.6875 16.970703 L 12.523438 18.519531 z M 16.197266 17.220703 L 18.414062 18.306641 L 18.716797 17.955078 L 16.707031 16.970703 L 16.197266 17.220703 z M 9.359375 20.570312 L 8.8496094 20.820312 L 11.113281 21.927734 L 11.697266 21.714844 L 9.359375 20.570312 z"/>
 </g>
</svg>
