<svg xmlns="http://www.w3.org/2000/svg" width="24" height="24" version="1.1">
 <path style="opacity:0.2" d="m 12.528345,1.4999989 c -0.368445,-0.0016 -0.736934,0.016601 -1.103508,0.053713 A 0.5000471,0.50007116 0 0 0 10.981479,1.9746284 L 10.792027,3.2061258 C 10.380881,3.285911 9.9771569,3.3941771 9.581097,3.5303584 L 8.804734,2.5615672 A 0.5000471,0.50007116 0 0 0 8.210011,2.4180064 C 7.5533217,2.7127612 6.928535,3.0736742 6.3457641,3.4961771 A 0.5000471,0.50007116 0 0 0 6.1738897,4.0831159 L 6.6240825,5.2374613 C 6.3068064,5.5116805 6.0094745,5.8065428 5.733463,6.1222649 L 4.5860087,5.6749801 A 0.5000471,0.50007116 0 0 0 3.9990982,5.8478394 C 3.5772051,6.4313757 3.2168977,7.056785 2.9229317,7.7141285 A 0.5000471,0.50007116 0 0 0 3.0664859,8.3079039 L 4.0069102,9.0618425 C 3.9363185,9.2627494 3.8599791,9.461853 3.8037867,9.6673364 a 0.5000471,0.50007116 0 0 0 -0.00194,0.00781 C 3.7495278,9.879637 3.7175789,10.088688 3.679774,10.29627 l -1.2021416,0.184577 a 0.5000471,0.50007116 0 0 0 -0.4208951,0.442402 c -0.074715,0.71545 -0.07558,1.436774 -0.00294,2.152435 a 0.5000471,0.50007116 0 0 0 0.4218721,0.443378 l 1.2304623,0.188484 c 0.079707,0.411194 0.1881101,0.814875 0.3242167,1.210989 l -0.969721,0.776401 A 0.5000471,0.50007116 0 0 0 2.9170737,16.290664 C 3.2118141,16.947385 3.57271,17.572202 3.9951922,18.155 a 0.5000471,0.50007116 0 0 0 0.5869105,0.171883 L 5.736393,17.876669 c 0.2744886,0.317362 0.5697167,0.614631 0.885737,0.890662 l -0.4462862,1.146533 a 0.5000471,0.50007116 0 0 0 0.1728503,0.586939 c 0.583509,0.421913 1.2088879,0.782238 1.8661999,1.076218 A 0.5000471,0.50007116 0 0 0 8.8086411,21.43346 l 0.7529253,-0.939493 c 0.201045,0.07043 0.3998541,0.146134 0.6054656,0.202157 a 0.5000471,0.50007116 0 0 0 0.0078,0.002 c 0.204788,0.05239 0.414177,0.08423 0.622067,0.122075 l 0.184569,1.2022 a 0.5000471,0.50007116 0 0 0 0.44238,0.420916 c 0.715077,0.07465 1.436068,0.07552 2.151354,0.0029 a 0.5000471,0.50007116 0 0 0 0.443358,-0.420916 l 0.189452,-1.23052 c 0.411146,-0.07979 0.814871,-0.188052 1.21093,-0.324234 l 0.776362,0.968792 a 0.5000471,0.50007116 0 0 0 0.594724,0.143561 c 0.656689,-0.294756 1.281477,-0.655669 1.864247,-1.078171 a 0.5000471,0.50007116 0 0 0 0.171874,-0.586939 l -0.450193,-1.154345 c 0.317276,-0.27422 0.614609,-0.569082 0.89062,-0.884804 l 1.146478,0.446308 a 0.5000471,0.50007116 0 0 0 0.586911,-0.172859 c 0.421893,-0.583537 0.782199,-1.208945 1.076165,-1.866289 A 0.5000471,0.50007116 0 0 0 21.932588,15.692006 L 20.99314,14.939044 c 0.07064,-0.201229 0.146926,-0.400658 0.203124,-0.606471 a 0.5000471,0.50007116 0 0 0 0.0019,-0.0078 c 0.05231,-0.204488 0.08426,-0.413538 0.122069,-0.621119 l 1.202142,-0.184579 a 0.5000471,0.50007116 0 0 0 0.420897,-0.442401 c 0.07472,-0.715451 0.07558,-1.436774 0.0029,-2.152435 a 0.5000471,0.50007116 0 0 0 -0.42179,-0.443392 L 21.293921,10.292364 C 21.214154,9.8808602 21.105955,9.4767972 20.969704,9.0803976 L 21.938448,8.3039979 A 0.5000471,0.50007116 0 0 0 22.082002,7.709246 C 21.787196,7.0528617 21.425328,6.42836 21.002905,5.8458858 A 0.5000471,0.50007116 0 0 0 20.416972,5.6740036 L 19.262681,6.1242179 C 18.988324,5.8067517 18.693824,5.5087316 18.377921,5.2325788 L 18.824208,4.086046 A 0.5000471,0.50007116 0 0 0 18.651357,3.4991071 c -0.583509,-0.4219132 -1.208888,-0.782238 -1.8662,-1.0762177 a 0.5000471,0.50007116 0 0 0 -0.594723,0.1435608 l -0.75195,0.939493 C 15.237646,3.4354596 15.038426,3.3598791 14.83302,3.3037861 a 0.5000471,0.50007116 0 0 0 -0.0078,-0.00195 C 14.620403,3.2494665 14.411047,3.2175708 14.20314,3.1797574 L 14.019547,1.9785347 A 0.5000471,0.50007116 0 0 0 13.577168,1.5566419 c -0.34849,-0.036283 -0.698451,-0.055351 -1.048823,-0.056643 z"/>
 <path style="fill:#bbc0c5" d="M 12.528345,1.0000475 C 12.1599,0.99845146 11.791411,1.016648 11.424837,1.0537603 A 0.5000471,0.50007116 0 0 0 10.981479,1.474677 L 10.792027,2.7061744 C 10.380881,2.7859596 9.9771569,2.8942257 9.581097,3.030407 L 8.804734,2.0616158 A 0.5000471,0.50007116 0 0 0 8.210011,1.918055 C 7.5533217,2.2128098 6.928535,2.5737228 6.3457641,2.9962257 A 0.5000471,0.50007116 0 0 0 6.1738897,3.5831645 L 6.6240825,4.7375099 C 6.3068064,5.0117291 6.0094745,5.3065914 5.733463,5.6223135 L 4.5860087,5.1750287 A 0.5000471,0.50007116 0 0 0 3.9990982,5.347888 C 3.5772051,5.9314243 3.2168977,6.5568336 2.9229317,7.2141771 A 0.5000471,0.50007116 0 0 0 3.0664859,7.8079525 L 4.0069102,8.5618911 C 3.9363185,8.762798 3.8599791,8.9619016 3.8037867,9.167385 a 0.5000471,0.50007116 0 0 0 -0.00194,0.00781 C 3.7495278,9.3796856 3.7175789,9.5887365 3.679774,9.7963179 L 2.4776324,9.9808957 A 0.5000471,0.50007116 0 0 0 2.0567373,10.423297 c -0.074715,0.71545 -0.07558,1.436774 -0.00294,2.152435 a 0.5000471,0.50007116 0 0 0 0.4218721,0.443378 l 1.2304623,0.188484 c 0.079707,0.411194 0.1881101,0.814875 0.3242167,1.210989 l -0.969721,0.776401 a 0.5000471,0.50007116 0 0 0 -0.1435537,0.595728 c 0.2947404,0.656721 0.6556363,1.281538 1.0781185,1.864336 a 0.5000471,0.50007116 0 0 0 0.5869105,0.171883 L 5.736393,17.376717 c 0.2744886,0.317362 0.5697167,0.614631 0.885737,0.890662 l -0.4462862,1.146533 a 0.5000471,0.50007116 0 0 0 0.1728503,0.586939 c 0.583509,0.421913 1.2088879,0.782238 1.8661999,1.076218 a 0.5000471,0.50007116 0 0 0 0.5937471,-0.143561 l 0.7529253,-0.939493 c 0.201045,0.07043 0.3998541,0.146134 0.6054656,0.202157 a 0.5000471,0.50007116 0 0 0 0.0078,0.002 c 0.204788,0.05239 0.414177,0.08423 0.622067,0.122075 l 0.184569,1.2022 a 0.5000471,0.50007116 0 0 0 0.44238,0.420916 c 0.715077,0.07465 1.436068,0.07552 2.151354,0.0029 a 0.5000471,0.50007116 0 0 0 0.443358,-0.420916 l 0.189452,-1.23052 c 0.411146,-0.07979 0.814871,-0.188052 1.21093,-0.324234 l 0.776362,0.968792 a 0.5000471,0.50007116 0 0 0 0.594724,0.143561 c 0.656689,-0.294756 1.281477,-0.655669 1.864247,-1.078171 a 0.5000471,0.50007116 0 0 0 0.171874,-0.586939 l -0.450193,-1.154345 c 0.317276,-0.27422 0.614609,-0.569082 0.89062,-0.884804 l 1.146478,0.446308 a 0.5000471,0.50007116 0 0 0 0.586911,-0.172859 c 0.421893,-0.583537 0.782199,-1.208945 1.076165,-1.866289 A 0.5000471,0.50007116 0 0 0 21.932588,15.192054 L 20.99314,14.439092 c 0.07064,-0.201229 0.146926,-0.400658 0.203124,-0.606471 a 0.5000471,0.50007116 0 0 0 0.0019,-0.0078 c 0.05231,-0.204488 0.08426,-0.413538 0.122069,-0.621119 l 1.202142,-0.184579 a 0.5000471,0.50007116 0 0 0 0.420897,-0.442401 c 0.07472,-0.715451 0.07558,-1.436774 0.0029,-2.152435 A 0.5000471,0.50007116 0 0 0 22.524382,9.9808957 L 21.293921,9.7924118 C 21.214154,9.3809088 21.105955,8.9768458 20.969704,8.5804462 L 21.938448,7.8040465 A 0.5000471,0.50007116 0 0 0 22.082002,7.2092946 C 21.787196,6.5529103 21.425328,5.9284086 21.002905,5.3459344 A 0.5000471,0.50007116 0 0 0 20.416972,5.1740522 L 19.262681,5.6242665 C 18.988324,5.3068003 18.693824,5.0087802 18.377921,4.7326274 L 18.824208,3.5860946 A 0.5000471,0.50007116 0 0 0 18.651357,2.9991557 C 18.067848,2.5772425 17.442469,2.2169177 16.785157,1.922938 a 0.5000471,0.50007116 0 0 0 -0.594723,0.1435608 l -0.75195,0.939493 C 15.237646,2.9355082 15.038426,2.8599277 14.83302,2.8038347 a 0.5000471,0.50007116 0 0 0 -0.0078,-0.00195 C 14.620403,2.7495151 14.411047,2.7176194 14.20314,2.679806 L 14.019547,1.4785833 A 0.5000471,0.50007116 0 0 0 13.577168,1.0566905 c -0.34849,-0.036283 -0.698451,-0.055351 -1.048823,-0.056643 z"/>
 <path style="fill:#17191e" d="m 18.517634,11.664692 c 0,1.938754 0.746746,3.540984 -0.460617,4.872208 -1.372163,1.512931 -3.353625,2.463086 -5.557009,2.463086 -4.1421368,0 -7.5000026,-3.357866 -7.5000026,-7.500003 0,-4.1421365 3.3578658,-7.5001127 7.5000026,-7.5000021 0.535709,1.42e-5 6.017626,3.5225737 6.017626,7.6647111 z"/>
 <path style="opacity:0.3;fill:#8b9cbe" d="M 8.6542969 5.0683594 C 8.4329924 5.2010089 8.2193936 5.345941 8.0136719 5.5 L 11 5.5 L 11 5.078125 C 10.897754 5.0926214 9.7661638 5.0792168 8.6542969 5.0683594 z M 7.4140625 6 C 7.2419722 6.1592019 7.0784248 6.325451 6.921875 6.5 L 8.5 6.5 L 8.5 6 L 7.4140625 6 z M 6.5097656 7 C 6.3880908 7.1617276 6.2725825 7.3284865 6.1640625 7.5 L 9.5 7.5 L 9.5 7 L 6.5097656 7 z M 10 7 L 10 7.5 L 11 7.5 L 11 7 L 10 7 z M 5.8691406 8 C 5.7826447 8.1634789 5.7033897 8.329638 5.6289062 8.5 L 7 8.5 L 7 8 L 5.8691406 8 z M 7.5 8 L 7.5 8.5 L 11.5 8.5 L 11.5 8 L 7.5 8 z M 5.4355469 9 C 5.3774514 9.1641362 5.3260624 9.3308401 5.2792969 9.5 L 8.5 9.5 L 8.5 9 L 5.4355469 9 z M 5.1503906 10 C 5.1170772 10.164121 5.0966233 10.332178 5.0742188 10.5 L 6 10.5 L 6 10 L 5.1503906 10 z M 6.5 10 L 6.5 10.5 L 9 10.5 L 9 10 L 6.5 10 z M 5.0253906 12 C 5.036508 12.168281 5.0521821 12.334934 5.0742188 12.5 L 8 12.5 L 8 12 L 5.0253906 12 z M 8.5 12 L 8.5 12.5 L 9.5 12.5 L 9.5 12 L 8.5 12 z M 5.1503906 13 C 5.1848694 13.169861 5.2335481 13.334519 5.2792969 13.5 L 7 13.5 L 7 13 L 5.1503906 13 z M 7.5 13 L 7.5 13.5 L 12.5 13.5 L 12.5 13 L 7.5 13 z M 5.4355469 14 C 5.4953831 14.169053 5.557537 14.336763 5.6289062 14.5 L 6.5 14.5 L 6.5 14 L 5.4355469 14 z M 7 14 L 7 14.5 L 9.5 14.5 L 9.5 14 L 7 14 z M 10 14 L 10 14.5 L 11 14.5 L 11 14 L 10 14 z M 12 14.5 L 12 16.5 L 12.5 16.5 L 12.5 14.5 L 12 14.5 z M 13.5 14.5 L 13.5 16.5 L 15 16.5 L 15 14.5 L 13.5 14.5 z M 16 14.5 L 16 16.5 L 16.5 16.5 L 16.5 14.5 L 16 14.5 z M 17.5 14.5 L 17.5 16.318359 C 17.681808 16.086607 17.848807 15.842635 18 15.589844 L 18 15 L 18.314453 15 C 18.392193 14.836166 18.464511 14.669374 18.529297 14.5 L 17.5 14.5 z M 14 15 L 14.5 15 L 14.5 16 L 14 16 L 14 15 z M 6.5097656 16 C 6.6399265 16.173005 6.7775487 16.339082 6.921875 16.5 L 9 16.5 L 9 16 L 6.5097656 16 z M 9.5 16 L 9.5 16.5 L 10.5 16.5 L 10.5 16 L 9.5 16 z M 7.4140625 17 C 7.6011723 17.173095 7.7959644 17.336728 8 17.490234 L 8 17 L 7.4140625 17 z M 8.5 17 L 8.5 17.5 L 11 17.5 L 11 17 L 8.5 17 z M 12 17 L 12 18.974609 C 12.165862 18.985567 12.331364 19 12.5 19 C 12.839976 19 13.172013 18.971553 13.5 18.927734 L 13.5 17 L 12 17 z M 14.5 17 L 14.5 18.71875 C 14.668709 18.672093 14.836289 18.624334 15 18.566406 L 15 17 L 14.5 17 z M 12.5 17.5 L 13 17.5 L 13 18.5 L 12.5 18.5 L 12.5 17.5 z M 8.7695312 18 C 8.8461379 18.044077 8.9217201 18.089441 9 18.130859 L 9 18 L 8.7695312 18 z"/>
 <path style="fill:#3daee9" d="m 20.000005,11.499998 c 0,2.077501 -0.844689,3.957715 -2.209361,5.315934 -0.206703,0.205726 -4.512385,-5.221546 -4.741819,-5.0409 l -0.646728,-0.215806 -0.0649,-1.403673 c 0.219094,-0.01925 -0.06128,-6.1555575 0.162809,-6.1555575 4.142136,0 7.500002,3.3578657 7.500002,7.5000025 z"/>
 <path style="fill:#8b9cbe" d="m 11.999997,3.9999999 v 7.2070311 l 1,-0.414062 V 3.9999999 Z"/>
 <path style="opacity:0.2" d="m 13.048825,11.775032 c 0,0.207031 -1,0.414062 -1,0.414062 l 5.00586,5.003906 a 7,7 0 0 0 0.779296,-0.632812 z"/>
 <path style="fill:#ff4949" d="m 12.837891,11.123047 -0.701172,0.710937 5.345703,5.28125 0.703125,-0.710937 z"/>
 <circle style="opacity:0.2" cx="12.5" cy="12" r="1.5"/>
 <circle style="fill:#fcfcfc" cx="12.5" cy="11.5" r="1.5"/>
 <circle style="fill:#17191e" cx="12.5" cy="11.5" r=".5"/>
 <path style="fill:#8b9cbe;opacity:0.2" d="M 12.529297 1 C 12.160852 0.99840396 11.792355 1.0175752 11.425781 1.0546875 A 0.5000471 0.50007116 0 0 0 10.982422 1.4746094 L 10.792969 2.7070312 C 10.381823 2.7868164 9.9780912 2.8950687 9.5820312 3.03125 L 8.8046875 2.0625 A 0.5000471 0.50007116 0 0 0 8.2109375 1.9179688 C 7.5542482 2.2127235 6.928474 2.5735909 6.3457031 2.9960938 A 0.5000471 0.50007116 0 0 0 6.1738281 3.5839844 L 6.203125 3.6582031 A 0.5000471 0.50007116 0 0 1 6.3457031 3.4960938 C 6.928474 3.0735909 7.5542482 2.7127236 8.2109375 2.4179688 A 0.5000471 0.50007116 0 0 1 8.8046875 2.5625 L 9.5820312 3.53125 C 9.9780912 3.3950687 10.381823 3.2868164 10.792969 3.2070312 L 10.982422 1.9746094 A 0.5000471 0.50007116 0 0 1 11.425781 1.5546875 C 11.792355 1.5175755 12.160852 1.4984 12.529297 1.5 C 12.879669 1.501292 13.229635 1.5203576 13.578125 1.5566406 A 0.5000471 0.50007116 0 0 1 14.019531 1.9785156 L 14.203125 3.1796875 C 14.411032 3.2175009 14.621355 3.2503648 14.826172 3.3027344 A 0.5000471 0.50007116 0 0 1 14.833984 3.3046875 C 15.03939 3.3607805 15.238615 3.4353758 15.439453 3.5058594 L 16.191406 2.5664062 A 0.5000471 0.50007116 0 0 1 16.785156 2.4238281 C 17.442468 2.7178078 18.066882 3.0780868 18.650391 3.5 A 0.5000471 0.50007116 0 0 1 18.794922 3.6601562 L 18.824219 3.5859375 A 0.5000471 0.50007116 0 0 0 18.650391 3 C 18.066882 2.5780868 17.442468 2.2178078 16.785156 1.9238281 A 0.5000471 0.50007116 0 0 0 16.191406 2.0664062 L 15.439453 3.0058594 C 15.238615 2.9353758 15.03939 2.8607805 14.833984 2.8046875 A 0.5000471 0.50007116 0 0 0 14.826172 2.8027344 C 14.621355 2.7503648 14.411032 2.7175009 14.203125 2.6796875 L 14.019531 1.4785156 A 0.5000471 0.50007116 0 0 0 13.578125 1.0566406 C 13.229635 1.0203576 12.879669 1.001292 12.529297 1 z M 18.517578 4.8730469 L 18.376953 5.2324219 C 18.692856 5.5085747 18.987362 5.8075338 19.261719 6.125 L 20.416016 5.6738281 A 0.5000471 0.50007116 0 0 1 21.001953 5.8457031 C 21.414448 6.4144877 21.767642 7.0245737 22.058594 7.6640625 A 0.5000471 0.50007116 0 0 0 22.082031 7.2089844 C 21.787225 6.5526001 21.424376 5.9281773 21.001953 5.3457031 A 0.5000471 0.50007116 0 0 0 20.416016 5.1738281 L 19.261719 5.625 C 19.030776 5.3577692 18.777818 5.111276 18.517578 4.8730469 z M 6.484375 4.8789062 C 6.2227069 5.1151941 5.9666624 5.3573396 5.734375 5.6230469 L 4.5859375 5.1757812 A 0.5000471 0.50007116 0 0 0 4 5.3476562 C 3.5781069 5.9311925 3.2177941 6.5575003 2.9238281 7.2148438 A 0.5000471 0.50007116 0 0 0 2.9472656 7.6679688 C 3.2372296 7.028126 3.5883632 6.4170067 4 5.8476562 A 0.5000471 0.50007116 0 0 1 4.5859375 5.6757812 L 5.734375 6.1230469 C 6.0103865 5.8073248 6.3077239 5.5125005 6.625 5.2382812 L 6.484375 4.8789062 z M 3.875 8.9570312 C 3.8516445 9.0273713 3.8242515 9.0964274 3.8046875 9.1679688 A 0.5000471 0.50007116 0 0 0 3.8027344 9.1757812 C 3.7504155 9.3802719 3.7174924 9.5892936 3.6796875 9.796875 L 2.4785156 9.9804688 A 0.5000471 0.50007116 0 0 0 2.0566406 10.423828 C 2.0104678 10.865966 2.0035186 11.310005 2.0136719 11.753906 C 2.0205389 11.476911 2.0278272 11.199738 2.0566406 10.923828 A 0.5000471 0.50007116 0 0 1 2.4785156 10.480469 L 3.6796875 10.296875 C 3.7174924 10.089293 3.7504155 9.8802719 3.8027344 9.6757812 A 0.5000471 0.50007116 0 0 1 3.8046875 9.6679688 C 3.8608799 9.4624853 3.9372208 9.2634069 4.0078125 9.0625 L 3.875 8.9570312 z M 21.078125 8.9921875 L 20.96875 9.0800781 C 21.105001 9.4764777 21.213202 9.881465 21.292969 10.292969 L 22.523438 10.480469 A 0.5000471 0.50007116 0 0 1 22.945312 10.923828 C 22.973077 11.197221 22.980045 11.471691 22.986328 11.746094 C 22.997264 11.304824 22.989964 10.863498 22.945312 10.423828 A 0.5000471 0.50007116 0 0 0 22.523438 9.9804688 L 21.292969 9.7929688 C 21.240292 9.5212174 21.155492 9.2573851 21.078125 8.9921875 z M 3.921875 14.505859 L 3.0605469 15.195312 A 0.5000471 0.50007116 0 0 0 2.9179688 15.791016 C 2.9249015 15.806463 2.9344003 15.820526 2.9414062 15.835938 A 0.5000471 0.50007116 0 0 1 3.0605469 15.695312 L 4.03125 14.917969 C 3.9849569 14.783241 3.9617193 14.642336 3.921875 14.505859 z M 21.125 14.544922 C 21.081383 14.676438 21.0381 14.808664 20.992188 14.939453 L 21.931641 15.691406 A 0.5000471 0.50007116 0 0 1 22.050781 15.833984 C 22.058366 15.817259 22.068673 15.801924 22.076172 15.785156 A 0.5000471 0.50007116 0 0 0 21.931641 15.191406 L 21.125 14.544922 z M 18.515625 18.623047 C 18.46637 18.667524 18.425261 18.720232 18.375 18.763672 L 18.796875 19.84375 A 0.5000471 0.50007116 0 0 0 18.826172 19.417969 L 18.515625 18.623047 z M 6.4824219 18.626953 L 6.1757812 19.414062 A 0.5000471 0.50007116 0 0 0 6.2050781 19.839844 L 6.6230469 18.767578 C 6.5730395 18.723899 6.5313882 18.671692 6.4824219 18.626953 z"/>
 <path style="opacity:0.2" d="M 12.5 4 A 7.5 7.5 0 0 0 5 11.5 A 7.5 7.5 0 0 0 5.0097656 11.787109 A 7.5 7.5 0 0 1 12.5 4.5 A 7.5 7.5 0 0 1 19.990234 11.712891 A 7.5 7.5 0 0 0 20 11.5 A 7.5 7.5 0 0 0 12.5 4 z"/>
 <path style="opacity:0.2;fill:#8b9cbe" d="M 12.5,19.5 A 7.5,7.5 0 0 1 5,12 7.5,7.5 0 0 1 5.0097656,11.712891 7.5,7.5 0 0 0 12.5,19 7.5,7.5 0 0 0 19.990234,11.787109 7.5,7.5 0 0 1 20,12 7.5,7.5 0 0 1 12.5,19.5 Z"/>
</svg>
