<svg xmlns="http://www.w3.org/2000/svg" width="24" height="24" version="1">
 <path style="opacity:0.2" d="m 12.043946,10.499871 c -0.559412,-0.01656 -1.00865,0.335297 -1.279297,0.804687 -0.183178,-0.119251 -0.361135,-0.262623 -0.563477,-0.290039 -0.6113445,-0.08283 -1.3516595,0.286891 -1.6044925,0.957031 a 1.0001,1.0001 0 0 0 -0.001,10e-4 l -0.78125,2.083985 c -0.130865,-0.03177 -0.2622845,-0.07783 -0.390625,-0.07129 -0.4067595,0.02073 -0.744409,0.198511 -0.9921875,0.446289 -0.247778,0.247778 -0.4255555,0.585428 -0.446289,0.992187 -0.020735,0.40676 0.164516,0.859273 0.46875,1.151368 l 0.9853515,0.985351 a 1.0001,1.0001 0 0 0 10e-4,0.001 c 0.4202705,0.419567 1.0201335,0.479591 1.541016,0.300781 l 0.024415,0.271485 c 0.066303,0.745156 0.7411265,1.312979 1.3779295,1.362305 0.393789,0.0305 0.782319,-0.178751 1.102539,-0.479493 l 0.02832,0.195313 c 0.106939,0.746708 0.824894,1.280462 1.467774,1.288086 0.643135,0.0076 1.372885,-0.509467 1.49707,-1.253906 l 0.06738,-0.402391 c 0.581167,0.187313 1.254328,0.08798 1.65332,-0.444336 l 0.001,-0.001 1.499024,-1.999024 a 1.0001,1.0001 0 0 0 0.001,0 c 0.249779,-0.33358 0.358619,-0.80013 0.27832,-1.193359 -0.0803,-0.393229 -0.302098,-0.699081 -0.580078,-0.907227 -0.277979,-0.208145 -0.633271,-0.3354 -1.033203,-0.301757 -0.192388,0.01619 -0.387632,0.08432 -0.567383,0.182617 l -0.334031,-1.50486 c -0.159206,-0.717148 -0.875567,-1.19171 -1.504883,-1.174804 -0.179422,0.0048 -0.344887,0.127299 -0.519531,0.206054 -0.141143,-0.668497 -0.70623,-1.185842 -1.396484,-1.206054 z m 4.055663,4.700195 h 10e-4 l -10e-4,0.0019 c 2.32e-4,-3.15e-4 -2.32e-4,-0.0016 0,-0.0019 z"/>
 <rect style="opacity:0.2" width="2" height="9" x="16" y="11.5" rx=".75" ry=".75"/>
 <rect style="opacity:0.2" width="2" height="9" x="6" y="11.5" rx=".75" ry=".75"/>
 <path style="opacity:0.2" d="M 12,2.4999998 A 8,8 0 0 0 4,10.5 v 1.092773 C 2.2877733,12.013348 1,13.826268 1,16 c 0,2.48528 1.683292,4.5 3.7597656,4.5 H 5.582031 C 5.5820315,20.5 6,20.5 6,20 V 16 12 10.5 A 6,6 0 0 1 12,4.4999998 6,6 0 0 1 18,10.5 v 1.5 4 4 c 0,0.5 0.417969,0.5 0.417969,0.5 h 0.822265 C 21.316708,20.5 23,18.48528 23,16 23,13.826268 21.712226,12.013348 20,11.592773 V 10.5 A 8,8 0 0 0 12,2.4999998 Z"/>
 <path style="fill:#ffc107" d="m 12.043946,10.000001 c -0.559412,-0.01656 -1.00865,0.335297 -1.279297,0.804687 -0.183178,-0.119251 -0.361135,-0.262623 -0.563477,-0.290039 -0.6113445,-0.08283 -1.3516595,0.286891 -1.6044925,0.957031 a 1.0001,1.0001 0 0 0 -0.001,0.001 l -0.78125,2.083985 c -0.130865,-0.03177 -0.2622845,-0.07783 -0.390625,-0.07129 -0.4067595,0.02074 -0.744409,0.198511 -0.9921875,0.446289 -0.247778,0.247778 -0.4255555,0.585428 -0.446289,0.992187 -0.020735,0.40676 0.164516,0.859273 0.46875,1.151368 l 0.9853515,0.985351 a 1.0001,1.0001 0 0 0 10e-4,0.001 c 0.4202705,0.419567 1.0201335,0.479591 1.541016,0.300781 l 0.024415,0.271485 c 0.066303,0.745156 0.7411265,1.312979 1.3779295,1.362305 0.393789,0.0305 0.782319,-0.178751 1.102539,-0.479493 l 0.02832,0.195313 c 0.106939,0.746708 0.824894,1.280462 1.467774,1.288086 0.643135,0.0076 1.372885,-0.509467 1.49707,-1.253906 l 0.06738,-0.402391 c 0.581167,0.187313 1.254328,0.08798 1.65332,-0.444336 l 0.001,-0.001 1.499024,-1.999024 a 1.0001,1.0001 0 0 0 0.001,0 c 0.249779,-0.33358 0.358619,-0.80013 0.27832,-1.193359 -0.0803,-0.393229 -0.302098,-0.699081 -0.580078,-0.907227 -0.277979,-0.208145 -0.633271,-0.3354 -1.033203,-0.301757 -0.192388,0.01619 -0.387632,0.08432 -0.567383,0.182617 l -0.334031,-1.50486 c -0.159204,-0.717147 -0.875565,-1.191709 -1.504881,-1.174803 -0.179422,0.0048 -0.344888,0.127299 -0.519531,0.206054 -0.141144,-0.668497 -0.70623,-1.185842 -1.396484,-1.206054 z m 4.055663,4.700195 h 10e-4 l -10e-4,0.0019 c 2.32e-4,-3.15e-4 -2.32e-4,-0.0016 0,-0.0019 z"/>
 <path style="fill:#3f51b5" d="M 4.7597905,11 C 2.6833169,11 1,13.01472 1,15.5 1,17.98528 2.6833168,20 4.7597905,20 H 5.582245 v 0 C 5.582245,20 6,20 6,19.5 V 11.499999 C 6,11.0625 5.5953,11 5.5953,11 Z"/>
 <path style="fill:#3f51b5" d="M 19.240209,11 C 21.316683,11 23,13.01472 23,15.5 23,17.98528 21.316683,20 19.240209,20 h -0.822454 v 0 C 18.417755,20 18,20 18,19.5 V 11.499999 C 18,11.0625 18.4047,11 18.4047,11 Z"/>
 <path style="fill:none;stroke:#f8382a;stroke-linecap:round;stroke-linejoin:round" d="m 7.5,15.000001 1,1 1.5,-4 0.5,5.5 1.5,-6 1,7 1,-6 1,4.5 1.5,-2"/>
 <path style="opacity:0.2;fill:#8b9cbe" d="m 12.043946,10.000001 c -0.559412,-0.01656 -1.00865,0.335297 -1.279297,0.804687 -0.183178,-0.119251 -0.361135,-0.262623 -0.563477,-0.290039 -0.6113445,-0.08283 -1.3516595,0.286891 -1.6044925,0.957031 a 1.0001,1.0001 0 0 0 -0.001,0.001 l -0.78125,2.083985 c -0.130865,-0.03177 -0.2622845,-0.07783 -0.390625,-0.07129 -0.4067595,0.02074 -0.744409,0.198511 -0.9921875,0.446289 -0.247778,0.247778 -0.4255555,0.585428 -0.446289,0.992187 -0.00544,0.106864 0.00495,0.216731 0.02637,0.326172 0.0558,-0.328307 0.2090265,-0.607464 0.4199215,-0.818359 0.2477785,-0.247778 0.585428,-0.425554 0.9921875,-0.446289 0.1283405,-0.0065 0.25976,0.03952 0.390625,0.07129 l 0.78125,-2.083985 a 1.0001,1.0001 0 0 0 10e-4,-0.001 c 0.252833,-0.67014 0.993148,-1.039862 1.604493,-0.957031 0.202342,0.02742 0.380299,0.170788 0.563476,0.290039 0.270648,-0.46939 0.719885,-0.821242 1.279297,-0.804687 0.690254,0.02021 1.255341,0.537557 1.396484,1.206054 0.174641,-0.07876 0.340107,-0.201254 0.519529,-0.206054 0.629316,-0.0169 1.345677,0.457656 1.504883,1.174804 l 0.333984,1.504883 c 0.179751,-0.09829 0.374994,-0.166432 0.567383,-0.182617 0.399931,-0.03364 0.755223,0.09361 1.033203,0.301758 0.277979,0.208145 0.499779,0.513997 0.580078,0.907226 0.02632,-0.169598 0.03252,-0.340749 0,-0.5 -0.0803,-0.393229 -0.302099,-0.699081 -0.580078,-0.907226 -0.27798,-0.208146 -0.633272,-0.3354 -1.033203,-0.301758 -0.192389,0.01618 -0.387632,0.08432 -0.567383,0.182617 l -0.333984,-1.504883 c -0.159206,-0.717148 -0.875567,-1.19171 -1.504883,-1.174804 -0.179422,0.0048 -0.344888,0.127299 -0.519531,0.206054 -0.141144,-0.668497 -0.70623,-1.185842 -1.396484,-1.206054 z m 4.055663,5.200195 c -2.32e-4,3e-4 2.32e-4,0.0016 0,0.0019 l 10e-4,-0.0019 z"/>
 <rect style="fill:#2196f3" width="2" height="9" x="6" y="11" rx=".75" ry=".75"/>
 <rect style="fill:#2196f3" width="2" height="9" x="16" y="11" rx=".75" ry=".75"/>
 <path style="fill:#3f51b5" d="m 12,1.9999998 a 8,8 0 0 0 -8,8 V 15.5 H 6 V 9.9999998 a 6,6 0 0 1 6,-6 6,6 0 0 1 6,6 V 15.5 h 2 V 9.9999998 a 8,8 0 0 0 -8,-8 z"/>
 <path style="opacity:0.1;fill:#8b9cbe" d="m 12,1.9999998 a 8,8 0 0 0 -8,8 V 10.5 A 8,8 0 0 1 12,2.4999998 8,8 0 0 1 20,10.5 V 9.9999998 a 8,8 0 0 0 -8,-8 z M 4,11.092773 C 2.2877733,11.513348 1,13.326268 1,15.5 1,15.57783 1.0065,15.653609 1.00977,15.730469 1.1114033,13.678134 2.3592886,11.995782 4,11.592773 Z m 16,0 v 0.5 c 1.640711,0.403009 2.888596,2.085361 2.990234,4.137696 C 22.993496,15.653609 23,15.577829 23,15.5 23,13.326268 21.712226,11.513348 20,11.092773 Z"/>
 <path style="opacity:0.2;fill:#8b9cbe" d="m 6.75,10.500001 c -0.4155,0 -0.75,0.3345 -0.75,0.75 v 0.5 c 0,-0.4155 0.3345,-0.75 0.75,-0.75 h 0.5 c 0.4155,0 0.75,0.3345 0.75,0.75 v -0.5 c 0,-0.4155 -0.3345,-0.75 -0.75,-0.75 z m 10,0 c -0.4155,0 -0.75,0.3345 -0.75,0.75 v 0.5 c 0,-0.4155 0.3345,-0.75 0.75,-0.75 h 0.5 c 0.4155,0 0.75,0.3345 0.75,0.75 v -0.5 c 0,-0.4155 -0.3345,-0.75 -0.75,-0.75 z"/>
</svg>
