<svg xmlns="http://www.w3.org/2000/svg" width="24" height="24" version="1">
 <g transform="translate(.99219 1)">
  <path fill="#b2bfd9" d="m4.0078 1.0098c-0.55424 0-1 0.44456-1 0.99805v17.984c0 0.55349 0.4458 0.99805 1 0.99805h13.986c0.55349 0 0.99805-0.44456 0.99805-0.99805v-17.984c0-0.55349-0.44456-0.99805-0.99805-0.99805h-13.986z"/>
  <path opacity=".2" d="m3.0078 20.002v0.49414c0 0.55699 0.44576 1.0039 1 1.0039h13.986c0.55349 0 0.99805-0.44679 0.99805-1.0039v-0.49414c0 0.55714-0.44456 1.0059-0.99805 1.0059h-13.986c-0.55424 0-1-0.44887-1-1.0059z"/>
  <path opacity=".5" d="m4 4.0083v0.99908h5.9945v-0.99908h-5.9945zm0 1.9982v0.99908h2.9972v-0.99908h-2.9972zm0 1.9982v0.99908h3.9963v-0.99908h-3.9963zm0 1.9982v0.99908h0.99908v-0.99908h-0.99908zm0 1.998v0.999h3.9963v-0.99908h-3.9963z"/>
  <path fill="#fff" opacity=".2" d="m4.0078 1.0098c-0.55424 0-1 0.44456-1 0.99805v0.50977c0-0.55349 0.44576-0.99805 1-0.99805h13.986c0.55349 0 0.99805 0.44456 0.99805 0.99805v-0.50977c0-0.55349-0.44456-0.99805-0.99805-0.99805h-13.986z"/>
 </g>
</svg>
