<svg xmlns="http://www.w3.org/2000/svg" width="24" height="24" version="1">
 <path style="opacity:0.2" d="m 21,4.4999998 c 0.554,0 1,0.4459642 1,0.9999197 V 17.498955 c 0,0.553955 -0.446,1.001044 -1,1.001044 h -2.499878 c 0,0 -0.5,-0.0011 -0.5,0.498835 v 2.466599 c 4.3e-4,0.795171 -0.513698,1.292429 -0.924805,0.894459 L 14.567505,19.934306 13.399971,18.806011 C 13.148681,18.485274 12.992552,18.5 12.609878,18.5 H 5 C 4.446,18.5 4,18.052911 4,17.498955 V 5.4999195 C 4,4.945964 4.446,4.4999998 5,4.4999998 Z"/>
 <path style="fill:#22759b" d="m 21,4.0000001 c 0.554,0 1,0.4459642 1,0.9999196 V 16.998955 C 22,17.552911 21.554,18 21,18 h -2.499878 c 0,0 -0.5,-0.0011 -0.5,0.498835 v 2.466598 c 4.3e-4,0.795171 -0.513698,1.29243 -0.924805,0.89446 L 14.567505,19.434307 13.399971,18.306012 C 13.148681,17.985274 12.992552,18 12.609878,18 H 5 C 4.446,18 4,17.552911 4,16.998955 V 4.9999197 C 4,4.4459643 4.446,4.0000001 5,4.0000001 Z"/>
 <path style="opacity:0.1;fill:#8b9cbe" d="M 5,4 C 4.446,4 4,4.4460445 4,5 v 0.5 c 0,-0.5539555 0.446,-1 1,-1 h 16 c 0.554,0 1,0.4460445 1,1 V 5 C 22,4.4460445 21.554,4 21,4 Z"/>
 <path style="opacity:0.2" d="m 3,2.4999999 c -0.554,0 -1,0.4459641 -1,0.9999196 V 15.498955 C 2,16.05291 2.446,16.5 3,16.5 h 2.499878 c 0,0 0.5,-0.0011 0.5,0.498834 v 2.466599 c -4.3e-4,0.795171 0.513698,1.29243 0.9248045,0.894459 L 9.432495,17.934306 10.600029,16.806011 C 10.85132,16.485274 11.007448,16.5 11.390122,16.5 H 19 c 0.554,0 1,-0.447089 1,-1.001045 V 3.4999195 C 20,2.945964 19.554,2.4999999 19,2.4999999 Z"/>
 <path style="fill:#38e0e4" d="m 3,2.0000002 c -0.554,0 -1,0.4459641 -1,0.9999196 V 14.998955 C 2,15.552911 2.446,16 3,16 h 2.499878 c 0,0 0.5,-0.0012 0.5,0.498835 v 2.466598 c -4.3e-4,0.795171 0.513698,1.29243 0.9248045,0.89446 L 9.432495,17.434306 10.600029,16.306012 C 10.85132,15.985274 11.007448,16 11.390122,16 H 19 c 0.554,0 1,-0.447089 1,-1.001044 V 2.9999198 C 20,2.4459643 19.554,2.0000002 19,2.0000002 Z"/>
 <path style="opacity:0.2" d="m 5.011719,5.4999 a 0.9980693,1.0001 0 1 0 0,2 h 11.976562 a 0.9980693,1.0001 0 1 0 0,-2 z m 0,3 a 0.99773165,1.0001 0 1 0 0,2 h 9.976562 a 0.99773165,1.0001 0 1 0 0,-2 z m 0,3 a 0.9972593,1.0001 0 1 0 0,2 h 7.976562 a 0.9972593,1.0001 0 1 0 0,-2 z"/>
 <path style="fill:#8b9cbe" d="m 5.012183,5 a 0.9980693,1.0001 0 1 0 0,2 h 11.975634 a 0.9980693,1.0001 0 1 0 0,-2 z"/>
 <path style="fill:#8b9cbe" d="m 5.0118405,8 a 0.99773165,1.0001 0 1 0 0,2 H 14.98816 a 0.99773165,1.0001 0 1 0 0,-2 z"/>
 <path style="fill:#8b9cbe" d="m 5.0113615,11 a 0.9972593,1.0001 0 1 0 0,2 h 7.9772775 a 0.9972593,1.0001 0 1 0 0,-2 z"/>
 <path style="opacity:0.2;fill:#8b9cbe" d="M 3,2 C 2.446,2 2,2.4460446 2,3 v 0.5 c 0,-0.5539554 0.446,-1 1,-1 h 16 c 0.554,0 1,0.4460446 1,1 V 3 C 20,2.4460446 19.554,2 19,2 Z"/>
</svg>
