<svg xmlns="http://www.w3.org/2000/svg" width="24" height="24" version="1">
 <path style="fill:#b2bfd9" d="M 21,20 21,4.5 c 0,-0.554 -0.446,-1 -1,-1 l -17,0 c -0.554,0 -1,0.446 -1,1 L 2,20 c 0,0.554 0.446,1 1,1 l 17,0 c 0.554,0 1,-0.446 1,-1 z"/>
 <path style="opacity:0.2" d="m 21,8.5 0,-4 c 0,-0.554 -0.446,-1 -1,-1 l -17,0 c -0.554,0 -1,0.446 -1,1 l 0,4 z"/>
 <path style="fill:#f54b3e" d="M 21,8 21,4 C 21,3.446 20.554,3 20,3 L 3,3 C 2.446,3 2,3.446 2,4 l 0,4 z"/>
 <path style="opacity:0.2;fill:#8b9cbe" d="M 3,3 C 2.446,3 2,3.446 2,4 l 0,0.5 c 0,-0.554 0.446,-1 1,-1 l 17,0 c 0.554,0 1,0.446 1,1 L 21,4 C 21,3.446 20.554,3 20,3 Z"/>
 <path style="opacity:0.2" d="m 2,20 0,0.5 c 0,0.554 0.446,1 1,1 l 17,0 c 0.554,0 1,-0.446 1,-1 L 21,20 c 0,0.554 -0.446,1 -1,1 L 3,21 C 2.446,21 2,20.554 2,20 Z"/>
 <rect style="opacity:0.2" width="3" height="3" x="16" y="13"/>
 <rect style="opacity:0.2" width="3" height="3" x="8" y="13"/>
 <rect style="opacity:0.2" width="3" height="3" x="4" y="13"/>
 <rect style="opacity:0.2" width="3" height="3" x="12" y="17"/>
 <rect style="opacity:0.2" width="3" height="3" x="16" y="17"/>
 <rect style="opacity:0.2" width="3" height="3" x="8" y="17"/>
 <rect style="opacity:0.2" width="3" height="3" x="4" y="17"/>
 <rect style="opacity:0.2" width="3" height="3" x="12" y="9"/>
 <rect style="opacity:0.2" width="3" height="3" x="16" y="9"/>
 <rect style="opacity:0.2" width="3" height="3" x="8" y="9"/>
 <rect style="opacity:0.2" width="3" height="3" x="4" y="9"/>
 <circle style="opacity:0.2" cx="13.5" cy="15" r="1.5"/>
 <circle style="fill:#f54b3e" cx="13.5" cy="14.5" r="1.5"/>
 <circle style="opacity:0.2" cx="6" cy="5.5" r="1"/>
 <circle style="fill:#8b9cbe" cx="6" cy="5" r="1"/>
 <circle style="opacity:0.2" cx="17" cy="5.5" r="1"/>
 <circle style="fill:#8b9cbe" cx="17" cy="5" r="1"/>
</svg>
