<svg xmlns="http://www.w3.org/2000/svg" width="24" height="24" version="1">
 <path style="fill:#558b2f" d="M 5.2314455,2.25 C 4.9812657,2.2502014 4.7497027,2.3859858 4.6191406,2.616211 l -2.2685546,4 c -0.1336448,0.2357245 -0.1336448,0.5318535 0,0.767578 l 2.2685546,4 c 0.1305621,0.230225 0.3621251,0.36601 0.6123049,0.366211 a 0.250025,0.250025 0 0 1 0,0.5 c -0.2501798,2.01e-4 -0.4817427,0.135986 -0.6123049,0.366211 l -2.2685546,4 c -0.1336448,0.235724 -0.1336448,0.531853 0,0.767578 l 2.2685546,4 C 4.7497027,21.614014 4.9812657,21.749798 5.2314455,21.75 h 4.537109 c 0.2501795,-2.02e-4 0.4817245,-0.135964 0.6123055,-0.366211 l 2.268554,-4 c 0.1094,-0.192962 0.124333,-0.427419 0.0498,-0.640625 a 0.250025,0.250025 0 0 1 0.236328,-0.332031 h 0.08106 a 0.250025,0.250025 0 0 1 0.189453,0.08691 c 0.137249,0.159822 0.324522,0.251791 0.525391,0.251953 h 4.537108 c 0.250179,-2.02e-4 0.481744,-0.135986 0.612305,-0.366211 l 2.268555,-4 c 0.133644,-0.235724 0.133644,-0.531853 0,-0.767578 l -2.268555,-4 C 18.750297,7.385986 18.518733,7.2502015 18.268554,7.25 h -4.537108 c -0.250179,2.015e-4 -0.481743,0.135986 -0.612305,0.366211 a 0.250025,0.250025 0 0 0 -0.001,0.001 l -0.0039,0.00683 A 0.250025,0.250025 0 0 1 12.897461,7.75 h -0.02735 a 0.250025,0.250025 0 0 1 -0.21875,-0.3720705 c 0.13104,-0.2351905 0.13063,-0.5278655 -0.0019,-0.7617185 l -2.268556,-4 C 10.250298,2.3859862 10.018734,2.2502014 9.7685545,2.25 Z m 7.5205075,5 -0.06738,0.1191405 C 12.71297,7.3191955 12.766406,7.29484 12.800781,7.25 Z"/>
 <path style="opacity:0.2" d="m 5.231623,12.5 c -0.3415801,2.75e-4 -0.6575401,0.187855 -0.8306832,0.493165 l -2.267907,4 c -0.1773771,0.31286 -0.1773771,0.70081 0,1.01367 l 2.267907,4 C 4.5740829,22.312145 4.8900429,22.499725 5.231623,22.5 h 4.536754 c 0.34158,-2.75e-4 0.65754,-0.187855 0.830683,-0.493165 l 2.267908,-4 c 0.177376,-0.31286 0.177376,-0.70081 0,-1.01367 l -2.267908,-4 C 10.425917,12.687855 10.109957,12.500275 9.768377,12.5 Z"/>
 <path style="fill:#5d9733" d="m 5.231623,12 c -0.3415801,2.75e-4 -0.6575401,0.187855 -0.8306832,0.493165 l -2.267907,4 c -0.1773771,0.31286 -0.1773771,0.70081 0,1.01367 l 2.267907,4 C 4.5740829,21.812145 4.8900429,21.999725 5.231623,22 h 4.536754 c 0.34158,-2.75e-4 0.65754,-0.187855 0.830683,-0.493165 l 2.267908,-4 c 0.177376,-0.31286 0.177376,-0.70081 0,-1.01367 l -2.267908,-4 C 10.425917,12.187855 10.109957,12.000275 9.768377,12 Z"/>
 <path style="opacity:0.2" d="m 13.731623,7.5 c -0.34158,2.75e-4 -0.65754,0.187855 -0.830683,0.493165 l -2.267907,4 c -0.177377,0.31286 -0.177377,0.70081 0,1.01367 l 2.267907,4 c 0.173143,0.30531 0.489103,0.49289 0.830683,0.493165 h 4.536754 c 0.34158,-2.75e-4 0.65754,-0.187855 0.830683,-0.493165 l 2.267907,-4 c 0.177377,-0.31286 0.177377,-0.70081 0,-1.01367 l -2.267907,-4 C 18.925917,7.687855 18.609957,7.500275 18.268377,7.5 Z"/>
 <path style="fill:#7cb342" d="m 13.731623,7 c -0.34158,2.75e-4 -0.65754,0.187855 -0.830683,0.493165 l -2.267907,4 c -0.177377,0.31286 -0.177377,0.70081 0,1.01367 l 2.267907,4 c 0.173143,0.30531 0.489103,0.49289 0.830683,0.493165 h 4.536754 c 0.34158,-2.75e-4 0.65754,-0.187855 0.830683,-0.493165 l 2.267907,-4 c 0.177377,-0.31286 0.177377,-0.70081 0,-1.01367 l -2.267907,-4 C 18.925917,7.187855 18.609957,7.000275 18.268377,7 Z"/>
 <path style="opacity:0.1;fill:#8b9cbe" d="m 4.6015625,12.25 c -0.077406,0.06988 -0.1456246,0.147683 -0.1992187,0.242188 l -2.2695313,4 C 2.0015984,16.723624 1.9683335,16.997174 2.03125,17.25 c 0.022135,-0.08895 0.0554,-0.176391 0.1015625,-0.257812 l 2.2695313,-4 C 4.5754868,12.686877 4.8908414,12.500275 5.2324219,12.5 4.9965733,12.49981 4.774405,12.405879 4.6015625,12.25 Z m 5.7968755,0 c -0.172842,0.155879 -0.395011,0.24981 -0.6308599,0.25 0.3415809,2.75e-4 0.6588879,0.186878 0.8320309,0.492188 0.0332,0.01367 0.0332,0.01367 0.0332,0.01367 -0.107681,-0.189929 -0.1422,-0.40551 -0.11914,-0.617187 -0.03783,-0.04714 -0.07091,-0.09865 -0.115234,-0.138672 z"/>
 <path style="opacity:0.2;fill:#8b9cbe" d="m 13.731446,7 c -0.29532,2.38e-4 -0.564936,0.1465485 -0.746094,0.381836 0.02463,0.213704 -0.0094,0.433139 -0.118164,0.625 l 0.03418,-0.01367 C 13.07451,7.687854 13.389866,7.500275 13.731446,7.5 h 4.537108 c 0.34158,2.75e-4 0.656936,0.187854 0.830079,0.493164 l 2.268554,4 c 0.04616,0.08142 0.07845,0.167889 0.100586,0.256836 0.06292,-0.252825 0.03063,-0.525398 -0.100586,-0.756836 l -2.268554,-4 C 18.92549,7.187854 18.610134,7.000275 18.268554,7 Z"/>
 <path style="opacity:0.2" d="M 5.231623,2.5 C 4.8900429,2.500275 4.5740829,2.687855 4.4009398,2.993165 l -2.267907,4 c -0.1773771,0.31286 -0.1773771,0.70081 0,1.01367 l 2.267907,4 C 4.5740829,12.312145 4.8900429,12.499725 5.231623,12.5 h 4.536754 c 0.34158,-2.75e-4 0.65754,-0.187855 0.830683,-0.493165 l 2.267908,-4 c 0.177376,-0.31286 0.177376,-0.70081 0,-1.01367 l -2.267908,-4 C 10.425917,2.687855 10.109957,2.500275 9.768377,2.5 Z"/>
 <path style="fill:#9ccc65" d="M 5.231623,2 C 4.8900429,2.000275 4.5740829,2.187855 4.4009398,2.493165 l -2.267907,4 c -0.1773771,0.31286 -0.1773771,0.70081 0,1.01367 l 2.267907,4 C 4.5740829,11.812145 4.8900429,11.999725 5.231623,12 h 4.536754 c 0.34158,-2.75e-4 0.65754,-0.187855 0.830683,-0.493165 l 2.267908,-4 c 0.177376,-0.31286 0.177376,-0.70081 0,-1.01367 l -2.267908,-4 C 10.425917,2.187855 10.109957,2.000275 9.768377,2 Z"/>
 <path style="opacity:0.2;fill:#8b9cbe" d="M 5.2314455,2 C 4.8898652,2.000275 4.5745103,2.1878541 4.4013672,2.493164 l -2.2685547,4 C 2.0015984,6.7246015 1.96931,6.9971745 2.0322265,7.25 2.0543614,7.1610525 2.0866497,7.0745865 2.1328125,6.993164 l 2.2685547,-4 C 4.5745103,2.6878541 4.8898652,2.500275 5.2314455,2.5 h 4.537109 c 0.3415805,2.75e-4 0.6569355,0.1878541 0.8300785,0.493164 l 2.268555,4 c 0.04616,0.081422 0.07845,0.1678885 0.100586,0.256836 0.06292,-0.2528255 0.03063,-0.5253985 -0.100586,-0.756836 l -2.268555,-4 C 10.42549,2.1878541 10.110134,2.000275 9.7685545,2 Z"/>
</svg>
