<svg xmlns="http://www.w3.org/2000/svg" width="24" height="24" version="1.1">
 <rect style="opacity:0.2" width="16" height="12" x="-21.5" y="-18" rx="1" ry="1" transform="matrix(0,-1,-1,0,0,0)"/>
 <rect style="fill:#a5a5a5" width="16" height="12" x="-21" y="-18" rx="1" ry="1" transform="matrix(0,-1,-1,0,0,0)"/>
 <rect style="opacity:0.2" width="16" height="20" x="-19.5" y="-22" rx="1" ry="1" transform="matrix(0,-1,-1,0,0,0)"/>
 <rect style="fill:#b2bfd9" width="16" height="20" x="-19" y="-22" rx="1" ry="1" transform="matrix(0,-1,-1,0,0,0)"/>
 <rect style="fill:#8c5edc" width="12" height="16" x="-17" y="-20" rx="0" ry="0" transform="matrix(0,-1,-1,0,0,0)"/>
 <path style="opacity:0.2;fill:#8b9cbe" d="M 3,3 C 2.446,3 2,3.446 2,4 l 0,0.5 c 0,-0.554 0.446,-1 1,-1 l 18,0 c 0.554,0 1,0.446 1,1 L 22,4 C 22,3.446 21.554,3 21,3 L 3,3 Z"/>
 <rect style="opacity:0.1" width="16" height=".5" x="4" y="5"/>
 <path style="opacity:0.2" d="M 12.006836,7.5009765 C 10.478234,7.4996265 8.948736,7.964251 7.644531,8.894531 a 0.50005,0.50005 0 1 0 0.581055,0.813477 c 2.263443,-1.6144985 5.297972,-1.61161 7.558594,0.0068 A 0.50012636,0.50012636 0 0 0 16.366211,8.901366 C 15.063632,7.968811 13.535439,7.5023095 12.006836,7.5009755 Z m 0.01758,2.0000005 c -1.130275,-0.005 -2.262956,0.337469 -3.2265625,1.027344 a 0.50005,0.50005 0 1 0 0.583008,0.8125 c 1.5796705,-1.130934 3.7007665,-1.121236 5.2705075,0.02343 a 0.5001473,0.5001473 0 1 0 0.588867,-0.808594 C 14.282685,9.857405 13.154689,9.505905 12.024414,9.500973 Z m -0.0059,2 c -0.734056,-0.0038 -1.469768,0.222503 -2.09082,0.678711 a 0.50005,0.50005 0 1 0 0.591796,0.805664 c 0.890179,-0.653901 2.098164,-0.647562 2.981446,0.01563 a 0.50009789,0.50009789 0 1 0 0.600586,-0.799805 C 13.485322,11.738485 12.75261,11.50482 12.018555,11.500977 Z M 12,13.5 a 0.99999985,0.99999985 0 0 0 -1,1 0.99999985,0.99999985 0 0 0 1,1 0.99999985,0.99999985 0 0 0 1,-1 0.99999985,0.99999985 0 0 0 -1,-1 z"/>
 <path style="fill:none;stroke:#8b9cbe;stroke-linecap:round;stroke-linejoin:round" d="m 7.9350793,8.8011904 a 7,7 0 0 1 8.1397817,0.0071"/>
 <path style="fill:#8b9cbe" d="m 12,13 a 0.99999985,0.99999985 0 0 0 -1,1 0.99999985,0.99999985 0 0 0 1,1 0.99999985,0.99999985 0 0 0 1,-1 0.99999985,0.99999985 0 0 0 -1,-1 z"/>
 <path style="fill:none;stroke:#8b9cbe;stroke-linecap:round;stroke-linejoin:round" d="m 9.0893853,10.434495 a 5,5 0 0 1 5.8565967,0.02556"/>
 <path style="fill:none;stroke:#8b9cbe;stroke-linecap:round;stroke-linejoin:round" d="m 10.223961,12.082214 a 3,3 0 0 1 3.5773,0.01873"/>
</svg>
