<svg xmlns="http://www.w3.org/2000/svg" width="24" height="24" version="1.1">
 <path style="fill:#3476cc" d="M 9.9453094,1.9820624 A 2.000203,2.000203 0 0 0 8.0341736,3.6412446 L 5.0341691,19.641269 a 2.000203,2.000203 0 1 0 3.9316468,0.736329 L 11.96582,4.3775738 A 2.000203,2.000203 0 0 0 9.9453094,1.9820624 Z"/>
 <path style="opacity:0.2" d="M 22.010757,9.2539553 C 21.88624,10.266312 21.019914,11.022822 20.000012,11.009817 H 5.0003726 C 3.9844201,11.02352 3.1196062,10.273371 2.9896274,9.2656743 2.8417473,10.468359 3.7887286,11.525262 5.0003726,11.509818 H 20.000012 c 1.216988,0.01641 2.166421,-1.048761 2.010745,-2.2558627 z"/>
 <path style="fill:#7cce44" d="M 16.94532,1.9820624 A 2.000203,2.000203 0 0 0 15.034184,3.6412446 L 12.03418,19.641269 a 2.000203,2.000203 0 1 0 3.931646,0.736329 L 18.965831,4.3775738 A 2.000203,2.000203 0 0 0 16.94532,1.9820624 Z"/>
 <path style="opacity:0.2" d="M 6.0898351,13.509423 5.4335842,17.009429 H 3.999988 c -1.0159526,0.0137 -1.8807666,-0.736446 -2.0107452,-1.744143 -0.1478796,1.202685 0.7991015,2.259587 2.0107452,2.244143 h 1.4335962 l 0.7500011,-4.000006 z m 14.9205369,1.744144 c -0.124517,1.012357 -0.990843,1.768867 -2.010745,1.755862 H 9.5976524 l -0.09375,0.5 h 9.4957246 c 1.216988,0.01641 2.166421,-1.048761 2.010745,-2.255862 z"/>
 <path style="fill:#b2bfd9" d="m 5.0003726,7.0098114 c -2.7046682,-0.03827 -2.7046682,4.0382756 0,4.0000056 H 20.000012 c 2.704668,0.03827 2.704668,-4.0382754 0,-4.0000056 z"/>
 <path style="fill:#f56666" d="m 3.999988,13.009423 c -2.7046494,-0.03825 -2.7046494,4.038256 0,4.000006 h 14.999639 c 2.704649,0.03825 2.704649,-4.038256 0,-4.000006 z"/>
 <path style="fill:#3476cc" d="M 6.2773354,13.009423 5.5273343,17.009429 H 9.5976524 L 10.347654,13.009423 Z"/>
 <path style="opacity:0.2;fill:#8b9cbe" d="M 5.0003726,7.0098114 C 3.7833842,6.9933994 2.8339508,8.0585724 2.9896274,9.2656743 3.1141439,8.2533176 3.98047,7.4968075 5.0003726,7.5098122 h 9.4019754 l 0.09375,-0.5000008 z m 13.5660434,0 -0.09375,0.5000008 h 1.527346 c 1.015953,-0.013703 1.880766,0.7364463 2.010745,1.7441431 0.14788,-1.202685 -0.799101,-2.2595878 -2.010745,-2.2441439 z"/>
 <path style="opacity:0.2;fill:#8b9cbe" d="M 3.999988,13.009423 C 2.7829995,12.993011 1.8335662,14.058184 1.9892428,15.265286 2.1137589,14.252929 2.9800851,13.496418 3.999988,13.509423 h 2.1835973 l 0.09375,-0.5 z m 6.347666,0 -0.09375,0.5 h 8.745724 c 1.015953,-0.0137 1.880767,0.736447 2.010745,1.744144 0.14788,-1.202685 -0.799101,-2.259588 -2.010745,-2.244144 z"/>
 <path style="fill:#7cce44" d="M 14.404297 7.0097656 L 13.654297 11.009766 L 17.722656 11.009766 L 18.472656 7.0097656 L 14.404297 7.0097656 z"/>
 <path style="opacity:0.2;fill:#8b9cbe" d="M 9.9453125 1.9824219 A 2.000203 2.000203 0 0 0 8.0332031 3.640625 L 7.4023438 7.0097656 L 7.4960938 7.0097656 L 8.0332031 4.1425781 A 2.000203 2.000203 0 0 1 9.9453125 2.4824219 A 2.000203 2.000203 0 0 1 11.988281 4.2304688 A 2.000203 2.000203 0 0 0 9.9453125 1.9824219 z M 6.6523438 11.009766 L 5.0332031 19.640625 A 2.000203 2.000203 0 0 0 5.0117188 20.287109 A 2.000203 2.000203 0 0 1 5.0332031 20.142578 L 6.7460938 11.009766 L 6.6523438 11.009766 z"/>
 <path style="opacity:0.2;fill:#8b9cbe" d="M 16.945312 1.9824219 A 2.000203 2.000203 0 0 0 15.035156 3.640625 L 13.279297 13.009766 L 13.373047 13.009766 L 15.035156 4.1425781 A 2.000203 2.000203 0 0 1 16.945312 2.4824219 A 2.000203 2.000203 0 0 1 18.988281 4.2324219 A 2.000203 2.000203 0 0 0 16.945312 1.9824219 z M 12.529297 17.009766 L 12.035156 19.640625 A 2.000203 2.000203 0 0 0 12.011719 20.289062 A 2.000203 2.000203 0 0 1 12.035156 20.142578 L 12.623047 17.009766 L 12.529297 17.009766 z"/>
 <path style="opacity:0.2" d="M 11.988281 4.2304688 A 2.000203 2.000203 0 0 1 11.964844 4.3789062 L 11.470703 7.0097656 L 11.564453 7.0097656 L 11.964844 4.8789062 A 2.000203 2.000203 0 0 0 11.988281 4.2304688 z M 10.720703 11.009766 L 8.9648438 20.378906 A 2.000203 2.000203 0 0 1 5.0117188 20.287109 A 2.000203 2.000203 0 0 0 8.9648438 20.878906 L 10.814453 11.009766 L 10.720703 11.009766 z"/>
 <path style="opacity:0.2" d="M 18.988281 4.2324219 A 2.000203 2.000203 0 0 1 18.966797 4.3789062 L 17.347656 13.009766 L 17.441406 13.009766 L 18.966797 4.8789062 A 2.000203 2.000203 0 0 0 18.988281 4.2324219 z M 16.597656 17.009766 L 15.966797 20.378906 A 2.000203 2.000203 0 0 1 12.011719 20.289062 A 2.000203 2.000203 0 0 0 15.966797 20.878906 L 16.691406 17.009766 L 16.597656 17.009766 z"/>
</svg>
