<svg xmlns="http://www.w3.org/2000/svg" width="24" height="24" version="1.1">
 <path style="opacity:0.2" d="m 11.900391,5.5 c 0.813621,1.3926165 0.955288,2.7938532 0.90039,4.1953125 C 12.464841,9.5589624 12.111426,9.4383103 11.720703,9.3515625 8.3257741,8.597826 8.4077194,10.367131 7.0058594,11.021484 c 1.6123924,-0.0083 2.8960613,0.570401 4.0820316,1.31836 -0.28565,0.222542 -0.565814,0.469065 -0.835938,0.763672 -2.3502193,2.563227 -0.7798191,3.376744 -0.9140624,4.917968 0.7991894,-1.400854 1.9425184,-2.225735 3.1835934,-2.878906 0.04987,0.359615 0.121773,0.725104 0.242188,1.107422 1.044709,3.316964 2.535117,2.363129 3.802734,3.25 -0.813319,-1.3921 -0.955118,-2.794373 -0.90039,-4.195312 0.336,0.136387 0.691227,0.256984 1.082031,0.34375 3.394929,0.753735 3.312985,-1.01557 4.714844,-1.669922 -1.611874,0.0083 -2.896378,-0.5688 -4.082032,-1.316407 0.285966,-0.222711 0.565529,-0.470708 0.835938,-0.765625 2.350219,-2.5632269 0.777866,-3.3767452 0.912109,-4.9179684 -0.799189,1.4008541 -1.942518,2.225735 -3.183594,2.8789063 C 15.895441,9.4978143 15.823537,9.1323098 15.703125,8.75 14.658414,5.4330367 13.168008,6.3868696 11.900391,5.5 Z"/>
 <path style="opacity:0.2" d="m 12,2.5 a 10,10 0 0 0 -10,10 10,10 0 0 0 10,10 10,10 0 0 0 1.980469,-0.207031 A 10,10 0 0 1 6,12.5 10,10 0 0 1 14.019531,2.7070312 10,10 0 0 0 12,2.5 Z"/>
 <path style="fill:#ca994c" d="m 19.129329,6.4792709 c -1.33292,2.3364 -3.615886,3.0789179 -5.729938,4.0754251 v 0 c -1.117565,0.47254 -2.186244,0.998886 -3.148348,2.048188 -2.3502194,2.563227 -0.7784712,3.376592 -0.9127145,4.917816 1.3329205,-2.3364 3.6158875,-3.078918 5.7299395,-4.075424 v 0 c 1.117565,-0.472541 2.186243,-0.998887 3.148347,-2.048188 2.350219,-2.5632273 0.778471,-3.3765939 0.912714,-4.9178171 z"/>
 <path style="fill:#ca994c" d="m 21.462658,13.479257 c -2.689842,0.01385 -4.474364,-1.591993 -6.39439,-2.924561 v 0 C 14.100253,9.8231257 13.110085,9.1607959 11.720311,8.8522403 8.325382,8.0985038 8.40686,9.8663608 7.005,10.520714 c 2.6898423,-0.01385 4.474365,1.591992 6.394391,2.924562 v 0 c 0.968015,0.731569 1.958183,1.393899 3.347956,1.702455 3.394929,0.753735 3.313452,-1.014122 4.715311,-1.668474 z"/>
 <path style="fill:#ca994c" d="m 11.900501,5 c 1.356922,2.3225433 0.858477,4.6709096 0.664452,6.999985 v 0 c -0.149551,1.20411 -0.228061,2.392787 0.199609,3.750643 1.044709,3.316964 2.534979,2.362472 3.802596,3.249343 -1.356922,-2.322544 -0.858477,-4.67091 -0.664452,-6.999986 v 0 C 16.052257,10.795876 16.130767,9.6071994 15.703098,8.2493423 14.658387,4.932379 13.168118,5.8868696 11.900501,5 Z"/>
 <path style="opacity:0.25" d="m 11.900501,5 c 0.813878,1.3930568 0.960275,2.7954035 0.905234,4.1973059 l 1.463641,2.8026791 v 0 C 14.372063,10.790977 14.497437,9.6071994 14.069767,8.2493423 13.614997,6.8054404 12.804265,5.6255234 12.166646,5.1576819 12.076997,5.1119131 11.98824,5.0613847 11.900501,5 Z"/>
 <path style="opacity:0.25" d="m 14.269376,11.999985 c -0.14728,1.734035 -0.496593,5.30856 2.050776,6.850507 l 9.63e-4,9.62e-4 c 0.0829,0.04331 0.164807,0.09169 0.246072,0.148546 -0.812014,-1.389865 -0.959602,-2.788974 -0.905609,-4.187665 z"/>
 <path style="opacity:0.25" d="m 19.129329,6.4792709 c -0.799483,1.4013682 -1.940752,2.229325 -3.182356,2.882608 L 14.251602,12.03077 v 0 c 1.098377,-0.515575 2.186244,-0.998886 3.148349,-2.048188 1.02307,-1.1157938 1.639542,-2.4078666 1.725894,-3.1939817 -0.0053,-0.1005236 -0.0058,-0.2026533 0.0036,-0.3093294 z"/>
 <path style="opacity:0.25" d="m 14.251602,12.03077 c -1.575358,0.739468 -4.8456425,2.224217 -4.9073235,5.201278 l -3.416e-4,0.0013 c 0.00392,0.09345 0.00298,0.188572 -0.00561,0.287377 0.7976511,-1.398155 1.9355231,-2.225526 3.1738201,-2.878112 z"/>
 <path style="opacity:0.25" d="m 21.462658,13.479257 c -1.613362,0.0083 -2.901028,-0.56608 -4.08759,-1.314698 L 14.216056,12.03077 v 0 c 0.995688,0.693434 1.958183,1.393899 3.347957,1.702455 1.47784,0.328109 2.905045,0.215953 3.629017,-0.102321 0.08446,-0.05475 0.172599,-0.106356 0.269628,-0.151647 z"/>
 <path style="opacity:0.25" d="M 14.216056,12.03077 C 12.787977,11.036204 9.8670052,8.9464284 7.2579547,10.381541 l -0.00126,3.42e-4 c -0.078955,0.05014 -0.1618083,0.09688 -0.2516797,0.138832 1.6096633,-0.0083 2.8951228,0.563448 4.079428,1.309553 z"/>
 <path style="fill:#ca994c" d="M 12 2 A 10 10 0 0 0 2 12 A 10 10 0 0 0 12 22 A 10 10 0 0 0 13.980469 21.792969 A 10 10 0 0 1 6 12 A 10 10 0 0 1 14.019531 2.2070312 A 10 10 0 0 0 12 2 z"/>
 <path style="opacity:0.25" d="M 12.990234 2.0527344 A 10 10 0 0 0 4 12 A 10 10 0 0 0 13.019531 21.941406 A 10 10 0 0 0 13.980469 21.792969 A 10 10 0 0 1 6 12 A 10 10 0 0 1 14.019531 2.2070312 A 10 10 0 0 0 12.990234 2.0527344 z"/>
 <path style="opacity:0.2;fill:#8b9cbe" d="M 12,2 C 6.4771525,2 2,6.4771525 2,12 c 0.00254,0.06904 0.0058,0.138056 0.00977,0.207031 C 2.1681626,6.8027119 6.593361,2.5029592 12,2.5 c 0.272607,0.00319 0.54497,0.017523 0.816406,0.042969 C 13.210055,2.4060266 13.61188,2.2938285 14.019531,2.2070312 13.35512,2.0696912 12.678457,2.0003235 12,2 Z"/>
 <path style="opacity:0.2;fill:#8b9cbe" d="m 11.900391,5 c 0.132367,0.226564 0.240999,0.4546565 0.339843,0.6816406 1.187324,0.5571828 2.509887,0.042568 3.462891,3.0683594 0.06993,0.2220159 0.121669,0.4375732 0.164063,0.6503906 0.0264,-0.013694 0.05181,-0.029122 0.07812,-0.042969 C 15.895442,8.9978143 15.823537,8.6323098 15.703125,8.25 14.658414,4.9330367 13.168008,5.8868696 11.900391,5 Z M 10.601562,8.6796875 C 8.3237447,8.5223452 8.2324869,9.9489261 7.0058594,10.521484 c 0.2268518,-0.0012 0.4456748,0.0123 0.6601562,0.0332 0.8282817,-0.7674156 1.2968949,-1.8154061 4.0546874,-1.2031255 0.390723,0.086748 0.744138,0.2073999 1.080078,0.34375 0.0065,-0.1667165 -0.0021,-0.333304 -0.002,-0.5 C 12.463433,9.059244 12.110779,8.9381667 11.720703,8.8515625 11.296337,8.7573454 10.926966,8.702165 10.601562,8.6796875 Z m 5.355469,0.671875 c -10.6380207,9.7656245 -5.31901,4.8828125 0,0 z m -5.222656,2.7851565 c -0.163327,0.143789 -0.325013,0.29512 -0.482422,0.466797 -1.1406666,1.244049 -1.3503986,2.072426 -1.2871092,2.77539 0.075303,-0.599749 0.4057772,-1.31418 1.2871092,-2.27539 0.270124,-0.294607 0.550288,-0.54113 0.835938,-0.763672 -0.11495,-0.0725 -0.23652,-0.13419 -0.353516,-0.203125 z"/>
</svg>
