<svg xmlns="http://www.w3.org/2000/svg" width="24" height="24" version="1">
 <rect style="opacity:0.2" width="20" height="20" x="2" y="2.5" rx="1" ry="1"/>
 <rect style="fill:#0083a4" width="20" height="20" x="2" y="2" rx="1" ry="1"/>
 <path style="opacity:0.1;fill:#8b9cbe" d="M 3,2 C 2.446,2 2,2.446 2,3 v 0.5 c 0,-0.554 0.446,-1 1,-1 h 18 c 0.554,0 1,0.446 1,1 V 3 C 22,2.446 21.554,2 21,2 Z"/>
 <path style="opacity:0.2" d="M 4.7998047,4.5 C 4.3566047,4.5 4,4.8566047 4,5.2998045 V 14.5 h 7 2 7 V 5.2998045 C 20,4.8566047 19.643395,4.5 19.200195,4.5 Z m 7.6767583,2 h 2.040039 C 14.783666,6.5 15,6.716333 15,6.9833985 v 2.040039 C 15,9.290502 14.783713,9.506836 14.516602,9.506836 14.249489,9.506836 14,9.290502 14,9.0234375 V 8.151367 L 10.651367,11.5 h 0.872071 c 0.267112,0 0.483398,0.249488 0.483398,0.516602 0,0.267065 -0.216334,0.483398 -0.483398,0.483398 H 9.4833985 C 9.2163345,12.5 9,12.283667 9,12.016602 V 9.9765625 C 9,9.709498 9.2162865,9.493164 9.4833985,9.493164 9.750511,9.493164 10,9.709498 10,9.9765625 V 10.848633 L 13.348633,7.5 h -0.87207 C 12.209451,7.5 11.993164,7.250512 11.993164,6.9833985 11.993164,6.716333 12.209498,6.5 12.476563,6.5 Z M 4,16.5 v 3.200195 C 4,20.143395 4.3566047,20.5 4.7998047,20.5 H 11 v -4 z m 9,0 v 4 h 6.200195 C 19.643395,20.5 20,20.143395 20,19.700195 V 16.5 Z"/>
 <path style="fill:#8b9cbe" d="M 4.7998047,4 C 4.3566047,4 4,4.3566047 4,4.7998047 V 14 h 7 2 7 V 4.7998047 C 20,4.3566047 19.643395,4 19.200195,4 Z m 7.6767583,2 h 2.040039 C 14.783666,6 15,6.216333 15,6.4833985 v 2.040039 C 15,8.790502 14.783713,9.006836 14.516602,9.006836 14.249489,9.006836 14,8.790502 14,8.5234375 V 7.651367 L 10.651367,11 h 0.872071 c 0.267112,0 0.483398,0.249488 0.483398,0.516602 C 12.006836,11.783667 11.790502,12 11.523438,12 H 9.4833985 C 9.2163345,12 9,11.783667 9,11.516602 V 9.4765625 C 9,9.209498 9.2162865,8.993164 9.4833985,8.993164 9.750511,8.993164 10,9.209498 10,9.4765625 V 10.348633 L 13.348633,7 h -0.87207 C 12.209451,7 11.993164,6.750512 11.993164,6.4833985 11.993164,6.216333 12.209498,6 12.476563,6 Z M 4,16 v 3.200195 C 4,19.643395 4.3566047,20 4.7998047,20 H 11 v -4 z m 9,0 v 4 h 6.200195 C 19.643395,20 20,19.643395 20,19.200195 V 16 Z"/>
</svg>
