<svg xmlns="http://www.w3.org/2000/svg" width="24" height="24" version="1">
 <circle style="opacity:.2" cx="12" cy="12.5" r="10"/>
 <circle style="fill:#37a0f2" cx="12" cy="12" r="10"/>
 <path style="opacity:.2;fill:#8b9cbe" d="m12 2c-5.5395 0-9.999 4.46-9.999 10 0 0.08386-0.002 0.16664 0 0.25 0.1321-5.423 4.5435-9.75 9.999-9.75s9.867 4.3268 9.999 9.75c0.002-0.08335 0-0.16614 0-0.25 0-5.54-4.459-10-9.999-10z"/>
</svg>
