<svg xmlns="http://www.w3.org/2000/svg" width="24" height="24" version="1">
 <rect style="opacity:0.2" width="20" height="20" x="2" y="2.5" rx="10" ry="10"/>
 <rect style="fill:#2869b6" width="20" height="20" x="2" y="2" rx="10" ry="10"/>
 <path style="opacity:0.2" d="m 12,2.500031 c -1.469303,0 -2.8589682,0.3203869 -4.1132812,0.8847656 L 9,4.500031 v 1.3339844 l 1.367188,1.6328125 h 0.666015 V 6.7988591 L 12,5.500031 V 4.8340154 L 13,4.1660466 V 2.5488591 C 12.671125,2.5164872 12.337665,2.500031 12,2.500031 Z m -7.1484375,3 C 3.2264055,7.1596497 2.1862195,9.3866361 2.03125,11.863312 l 3.3027344,2.970703 v -1 l -0.6679688,-0.667968 1,-1 H 6.3339844 L 7,12.834015 7.0214844,11.433625 8,10.500031 H 8.6660156 V 9.8340154 L 9.3339844,9.1660466 v -1 L 8.6210938,7.5215154 7,7.500031 V 8.8340154 H 6.3339844 L 5.6660156,8.1660466 V 7.500031 l 1,-1 h 1 V 6.1328435 L 7,5.500031 Z m 12.1484375,0 -1,1 v 0.6660156 h 1 V 6.8086248 h 0.666016 v 0.7128906 l -0.332032,0.3125 H 16 V 8.500031 h -1 v 1 h -1 v 1.033203 h 1.333984 V 9.9668279 h 1.332032 v 0.5332031 l 0.667968,0.666016 h 0.332032 V 10.834015 L 17.333984,10.500031 V 9.9668279 H 18 l 1,1.1992191 h 1 v 0.333984 l -0.333984,0.333984 H 19 l 2.857422,2.285157 C 21.942966,13.590974 22,13.053121 22,12.500031 c 0,-2.7320754 -1.08759,-5.1986223 -2.851562,-7 h -1.814454 z m 2,6.333984 H 17 L 16.666016,11.500031 H 14.333984 L 13,12.834015 v 1.332032 l 1.333984,1.333984 h 0.699219 l 0.666016,0.666016 v 0.333984 l 0.333984,0.333984 v 2 l 1.917969,1.699219 C 18.729099,19.956901 19.419422,19.270684 20,18.496125 v -2.330078 l 1,-0.666016 V 14.166047 L 19,12.500031 Z M 6.3339844,14.500031 5.6660156,15.166047 v 1.667968 l 1.3554688,1.357422 -0.015625,2.972656 C 7.3272417,21.349168 7.6571381,21.518907 8,21.668 v -0.501953 l 1,-1 v -0.666016 l 1,-1 v -0.666016 l 1,-0.667968 V 16.132843 L 10.333984,15.500031 H 9 l -0.6660156,-1 z"/>
 <path style="fill:#659cdb" d="M 12 2 C 10.530697 2 9.1410318 2.3203869 7.8867188 2.8847656 L 9 4 L 9 5.3339844 L 10.367188 6.9667969 L 11.033203 6.9667969 L 11.033203 6.2988281 L 12 5 L 12 4.3339844 L 13 3.6660156 L 13 2.0488281 C 12.671125 2.0164562 12.337665 2 12 2 z M 4.8515625 5 C 3.2264055 6.6596187 2.1862195 8.8866051 2.03125 11.363281 L 5.3339844 14.333984 L 5.3339844 13.333984 L 4.6660156 12.666016 L 5.6660156 11.666016 L 6.3339844 11.666016 L 7 12.333984 L 7.0214844 10.933594 L 8 10 L 8.6660156 10 L 8.6660156 9.3339844 L 9.3339844 8.6660156 L 9.3339844 7.6660156 L 8.6210938 7.0214844 L 7 7 L 7 8.3339844 L 6.3339844 8.3339844 L 5.6660156 7.6660156 L 5.6660156 7 L 6.6660156 6 L 7.6660156 6 L 7.6660156 5.6328125 L 7 5 L 4.8515625 5 z M 17 5 L 16 6 L 16 6.6660156 L 17 6.6660156 L 17 6.3085938 L 17.666016 6.3085938 L 17.666016 7.0214844 L 17.333984 7.3339844 L 16 7.3339844 L 16 8 L 15 8 L 15 9 L 14 9 L 14 10.033203 L 15.333984 10.033203 L 15.333984 9.4667969 L 16.666016 9.4667969 L 16.666016 10 L 17.333984 10.666016 L 17.666016 10.666016 L 17.666016 10.333984 L 17.333984 10 L 17.333984 9.4667969 L 18 9.4667969 L 19 10.666016 L 20 10.666016 L 20 11 L 19.666016 11.333984 L 19 11.333984 L 21.857422 13.619141 C 21.942966 13.090943 22 12.55309 22 12 C 22 9.2679246 20.91241 6.8013777 19.148438 5 L 17.333984 5 L 17 5 z M 19 11.333984 L 17 11.333984 L 16.666016 11 L 14.333984 11 L 13 12.333984 L 13 13.666016 L 14.333984 15 L 15.033203 15 L 15.699219 15.666016 L 15.699219 16 L 16.033203 16.333984 L 16.033203 18.333984 L 17.951172 20.033203 C 18.729099 19.45687 19.419422 18.770653 20 17.996094 L 20 15.666016 L 21 15 L 21 13.666016 L 19 12 L 19 11.333984 z M 6.3339844 14 L 5.6660156 14.666016 L 5.6660156 16.333984 L 7.0214844 17.691406 L 7.0058594 20.664062 C 7.3272417 20.849137 7.6571381 21.018876 8 21.167969 L 8 20.666016 L 9 19.666016 L 9 19 L 10 18 L 10 17.333984 L 11 16.666016 L 11 15.632812 L 10.333984 15 L 9 15 L 8.3339844 14 L 6.3339844 14 z"/>
 <path style="opacity:0.1;fill:#8b9cbe" d="M 12,2 C 6.46,2 2,6.46 2,12 2,12.08394 2.00382,12.166571 2.00586,12.25 2.1381952,6.8269315 6.543937,2.5 12,2.5 c 5.456063,0 9.861805,4.3269315 9.99414,9.75 C 21.996176,12.166571 22,12.083937 22,12 22,6.46 17.54,2 12,2 Z"/>
 <path style="opacity:0.2" d="m 8.5316014,11.500141 c -0.1010663,0.0024 -0.1979758,0.03991 -0.2733952,0.105875 L 1.7429707,16.78692 c -0.2704348,0.236199 -0.1355718,0.674394 0.2230331,0.724675 l 2.5263367,0.356684 -1.1840277,2.050679 c -0.2645959,0.458342 -0.107813,1.040821 0.3504804,1.305444 l 0.2538671,0.146991 c 0.4582933,0.264624 1.0407123,0.107825 1.305308,-0.350516 L 6.4472194,18.89105 8.2489556,20.351707 C 8.526333,20.577353 8.9464861,20.384277 8.946833,20.031 L 8.968417,11.9185 C 8.9691014,11.683354 8.7714756,11.494093 8.5315993,11.500141 Z"/>
 <path style="fill:#8b9cbe" d="m 8.5316014,11.000253 c -0.1010663,0.0024 -0.1979758,0.03991 -0.2733952,0.105875 l -6.5152355,5.180904 c -0.2704348,0.236199 -0.1355718,0.674394 0.2230331,0.724675 l 2.5263367,0.356684 -1.1840277,2.050679 c -0.2645959,0.458342 -0.107813,1.040821 0.3504804,1.305444 l 0.2538671,0.146991 c 0.4582933,0.264624 1.0407123,0.107825 1.305308,-0.350516 l 1.2292511,-2.129827 1.8017362,1.460657 c 0.2773774,0.225646 0.6975305,0.03257 0.6978774,-0.320707 l 0.021584,-8.1125 C 8.9691014,11.183466 8.7714756,10.994205 8.5315993,11.000253 Z"/>
 <path style="opacity:0.2;fill:#8b9cbe" d="M 12 2 C 10.530697 2 9.1410317 2.3203869 7.8867188 2.8847656 L 8.2460938 3.2441406 C 9.40601 2.7741436 10.667543 2.5 12 2.5 C 12.337665 2.5 12.671125 2.5164562 13 2.5488281 L 13 2.0488281 C 12.671125 2.0164562 12.337665 2 12 2 z M 4.8515625 5 C 3.2264055 6.6596187 2.1862195 8.8866053 2.03125 11.363281 L 2.0800781 11.408203 C 2.3274416 9.1155356 3.3273124 7.056572 4.8515625 5.5 L 7 5.5 L 7.5253906 6 L 7.6660156 6 L 7.6660156 5.6328125 L 7 5 L 4.8515625 5 z M 17 5 L 16 6 L 16 6.5 L 17 5.5 L 17.333984 5.5 L 19.148438 5.5 C 20.859207 7.2470467 21.925018 9.6220721 21.988281 12.255859 C 21.990959 12.170129 22 12.086454 22 12 C 22 9.2679246 20.91241 6.8013777 19.148438 5 L 17.333984 5 L 17 5 z M 7 7 L 7 7.5 L 8.6210938 7.5214844 L 9.3339844 8.1660156 L 9.3339844 7.6660156 L 8.6210938 7.0214844 L 7 7 z M 17.666016 7.0214844 L 17.333984 7.3339844 L 16 7.3339844 L 16 7.8339844 L 17.333984 7.8339844 L 17.666016 7.5214844 L 17.666016 7.0214844 z M 5.6660156 7.6660156 L 5.6660156 8.1660156 L 6.3339844 8.8339844 L 7 8.8339844 L 7 8.3339844 L 6.3339844 8.3339844 L 5.6660156 7.6660156 z M 15 8 L 15 8.5 L 16 8.5 L 16 8 L 15 8 z M 14 9 L 14 9.5 L 15 9.5 L 15 9 L 14 9 z M 17.333984 10 L 17.333984 10.5 L 17.5 10.666016 L 17.666016 10.666016 L 17.666016 10.333984 L 17.333984 10 z M 14.333984 11 L 13 12.333984 L 13 12.833984 L 14.333984 11.5 L 16.666016 11.5 L 17 11.833984 L 19 11.833984 L 19 11.333984 L 17 11.333984 L 16.666016 11 L 14.333984 11 z M 19 11.333984 L 19.625 11.833984 L 19.666016 11.833984 L 20 11.5 L 20 11.166016 L 19.833984 11.166016 L 19.666016 11.333984 L 19 11.333984 z M 19 12 L 19 12.5 L 21 14.166016 L 21 13.666016 L 19 12 z M 4.9160156 12.916016 L 4.6660156 13.166016 L 5.3339844 13.833984 L 5.3339844 13.333984 L 4.9160156 12.916016 z M 6.3339844 14 L 5.6660156 14.666016 L 5.6660156 15.166016 L 6.3339844 14.5 L 8.3339844 14.5 L 9 15.5 L 10.333984 15.5 L 11 16.132812 L 11 15.632812 L 10.333984 15 L 9 15 L 8.3339844 14 L 6.3339844 14 z M 7.0195312 18.189453 L 7.0058594 20.664062 C 7.0066163 20.664498 7.0070554 20.66558 7.0078125 20.666016 L 7.0214844 18.191406 L 7.0195312 18.189453 z"/>
</svg>
