<svg xmlns="http://www.w3.org/2000/svg" width="24" height="24" version="1">
 <path style="opacity:0.2" d="m 13.192866,3.5001357 c -1.173179,0.077279 -2.378716,0.3957394 -3.4467974,0.9006017 -2.270598,1.2314945 -3.16133,3.5285325 -3.8881492,5.6013416 -0.4336746,1.103478 -0.9995126,1.63176 -2.3059774,2.235097 -0.7251505,0.334537 -1.5171172,0.702343 -2.1710102,1.249036 -0.63225407,0.372657 -0.40107665,0.995141 0.1375809,1.014015 l 4.5602224,0 c 0.068398,0.290105 0.1387924,0.666189 0.2149898,0.97781 0.3509202,1.486491 0.3529007,2.145234 -0.5157219,3.26444 -0.382068,0.492572 -0.3286164,1.6082 0.2698139,1.734181 0,0 2.3423724,0.08259 3.4760259,-0.06294 C 13.824458,19.812705 21.473429,16.768887 21.473429,16.768887 21.94029,16.585413 22.139637,16.015288 21.894166,15.565588 20.515954,13.518689 18.788196,11.312515 17.255147,9.5574283 16.462151,8.642729 15.559909,6.9808806 16.666719,6.5862374 l 0.690552,-0.073652 C 18.124807,6.2157053 18.209245,5.7105042 17.908488,5.1379427 17.448875,4.4412228 16.578541,4.2407891 15.899511,4.0351369 14.956022,3.7507061 14.187774,3.5089442 13.192866,3.5001357 Z"/>
 <path style="fill:#4f4f4f" d="M 13.173635,3.2691319 C 12.000456,3.3464113 10.833381,3.7610251 9.7652994,4.2658874 7.4947014,5.4973819 6.5847386,7.4290353 5.8579194,9.5018453 5.4242448,10.605323 4.8584068,11.133605 3.551942,11.736942 2.8267915,12.071479 2.0348248,12.439285 1.3809318,12.985978 0.74867773,13.358635 0.97985515,13.981119 1.5185127,13.999993 l 4.5602224,0 c 0.068398,0.290105 0.4080232,0.589266 0.4842206,0.900887 0.3509202,1.486491 0.5067468,2.202926 -0.3618758,3.322132 -0.382068,0.492572 -0.4824625,1.454354 0.1159678,1.580335 0,0 1.9385262,0.06336 3.0721797,-0.08217 4.3006156,-0.601013 11.9495866,-3.644831 11.9495866,-3.644831 0.466861,-0.183474 0.589285,-0.54206 0.343814,-0.99176 -1.378212,-2.0469 -3.125201,-4.099228 -4.65825,-5.8543147 C 16.767226,8.9336538 16.729356,8.3853923 16.521463,8.0003295 16.088261,7.1979466 15.918823,6.3526718 16.666719,6.0860028 l 0.690552,-0.073652 C 18.124807,5.7154707 18.209245,5.2102696 17.908488,4.6377081 17.562586,4.1133612 16.984053,3.8701093 16.429512,3.6941777 16.247213,3.6363422 16.009815,3.8550127 15.841819,3.8041331 14.89833,3.5197023 14.168543,3.2779404 13.173635,3.2691319 Z"/>
 <path style="opacity:0.1" d="m 13.193359,3.5000006 c -1.173179,0.07728 -2.379184,0.3955284 -3.4472652,0.9003906 -1.397058,0.7577163 -2.2707191,1.7312428 -2.90625,2.8496094 0,0 1.9468472,0.75 3.0195312,0.75 1.399451,0 3.029481,-0.366144 3.501953,-0.4785156 0.171654,-0.2664403 0.37092,-0.513786 0.611328,-0.7382813 1.116948,-0.8869019 0.962357,-0.8471975 2.253906,-1.4707031 0.19531,-0.094288 0.479322,-0.7432648 0.386719,-1.0507812 C 16.368684,4.1767283 16.12492,4.1031581 15.900391,4.0351568 14.956902,3.7507262 14.188266,3.5088092 13.193359,3.5000006 Z m 3.207032,4.75 c -1.093547,1.9250664 -1.685555,3.7363004 -2.949219,5.2187494 -0.06891,0.783438 -0.164769,1.526337 -0.306641,2.117188 -0.319653,1.331239 -1.326814,3.231853 -1.720703,3.958984 4.328938,-1.003632 10.048828,-3.275391 10.048828,-3.275391 0.235352,-0.09249 0.401847,-0.283761 0.478516,-0.507812 -0.01741,-0.06593 -0.02245,-0.134628 -0.05664,-0.197266 C 20.51632,13.517554 18.788908,11.311728 17.255859,9.5566413 16.942937,9.1956943 16.617174,8.7198575 16.400391,8.2500006 Z"/>
 <path style="fill:#3f83d0" d="M 13.193263,2.9999011 C 12.020084,3.0771811 10.814106,3.3954225 9.7460246,3.9002847 8.3489666,4.658001 7.476305,5.6315048 6.8407741,6.7498714 c 0,0 1.9458466,0.7499941 3.0185306,0.7499941 1.3994513,0 3.0304293,-0.3651636 3.5029013,-0.4775352 C 13.53386,6.75589 13.733122,6.5075734 13.97353,6.2830781 15.090478,5.3961762 14.935477,5.4368688 16.227026,4.8133632 16.422335,4.7190756 16.705368,4.070107 16.612765,3.7625905 16.368168,3.6775994 16.124409,3.6030544 15.89988,3.5350532 14.956391,3.2506225 14.18817,3.0087097 13.193263,2.9999011 Z m 3.443916,0.7714783 c -0.02441,-0.00879 0,0 0,0 z m -0.237303,3.9784841 c -1.093547,1.9250668 -1.685139,3.7372355 -2.948803,5.2196845 -0.06891,0.783438 -0.163789,1.526321 -0.305661,2.117171 -0.38585,1.606927 -2.018539,4.528284 -2.018539,4.528284 4.358944,-0.964815 10.346598,-3.346653 10.346598,-3.346653 0.466861,-0.183474 0.666365,-0.753416 0.420894,-1.203116 C 20.516154,13.018335 18.788387,10.812557 17.255338,9.0574703 16.942416,8.6965235 16.616659,8.2197204 16.399876,7.7498635 Z"/>
 <path style="opacity:0.1" d="M 6.8300781,7.2656256 C 6.4373442,7.960236 6.1348117,9.2108683 5.8574219,10.001953 5.7926599,10.166738 5.723073,10.313781 5.6503906,10.455078 5.5692454,11.432228 5.6268427,12.831839 5.9238281,14 l 0.1542969,0 c 0.068398,0.290105 0.1386464,0.666895 0.2148438,0.978516 0.1754601,0.743245 0.2653895,1.279133 0.2011718,1.769531 -5.05e-5,9.5e-4 4.87e-5,0.0029 0,0.0039 -0.00307,0.06131 -0.01485,0.04065 -0.00195,0.246094 -0.032095,0.307721 -0.102278,0.603314 -0.21875,0.892578 -0.1164716,0.289263 -0.2789384,0.571761 -0.4960937,0.851563 -0.055373,0.07139 -0.097994,0.157371 -0.1347657,0.25 -0.010285,0.02595 -0.018554,0.05491 -0.027344,0.08203 -0.0218,0.06727 -0.038323,0.136808 -0.050781,0.208984 -0.00188,0.01094 -0.00222,0.0222 -0.00391,0.0332 0.053396,0.324948 0.2077054,0.601501 0.4863281,0.660156 0,0 2.342909,0.08303 3.4765625,-0.0625 0.5799402,-0.08105 1.2256402,-0.212704 1.9003902,-0.36914 0.393889,-0.727131 1.40105,-2.627744 1.720703,-3.958984 0.141873,-0.59085 0.237729,-1.333751 0.306641,-2.117188 -0.864362,1.014013 -1.400188,2.27669 -2.800781,2.908203 -0.04834,0.0152 -0.09968,0.02325 -0.150391,0.02344 -0.276141,0 -0.4999997,-0.223858 -0.4999997,-0.5 -0.027705,-0.230852 0.3281267,-0.452543 0.6503907,-0.765625 2.260115,-2.29433 1.45268,-5.6602157 2.710937,-7.613281 -0.472471,0.1123796 -2.102501,0.4785236 -3.501952,0.4785236 -0.8245965,0 -2.3552669,-0.4999629 -3.0292969,-0.734375 z"/>
 <path style="fill:#8b9cbe" d="M 6.8310082,6.7664729 C 6.4382743,7.4610833 6.1357497,8.7108966 5.8583599,9.5019823 5.4776322,10.269213 5.6347027,11.230729 5.6594635,11.961063 c 0.1032415,1.123187 0.4102047,1.985672 0.6344409,3.016462 0.043865,0.185811 0.082356,0.365935 0.1142566,0.541987 5.5e-5,3.04e-4 -5.5e-5,6.5e-4 0,10e-4 0.1452247,0.911922 0.1437641,0.841791 -0.1337882,1.870015 -0.1164716,0.289263 -0.2789343,0.571754 -0.4960896,0.851555 -0.055373,0.07139 -0.09897,0.158346 -0.1357414,0.250975 -0.010285,0.02595 -0.017575,0.05393 -0.026365,0.08105 -0.0218,0.06727 -0.0393,0.136807 -0.051758,0.208983 -0.00643,0.03742 -0.011755,0.07522 -0.015625,0.11328 -0.00717,0.07081 -0.00965,0.142133 -0.00781,0.212889 8.5e-4,0.03234 1.615e-4,0.06479 0.00295,0.09668 0.00896,0.103088 0.025285,0.203861 0.054687,0.295896 l 0,0.001 c 0.022985,0.07189 0.054044,0.136338 0.089843,0.196288 0.01005,0.01681 0.022125,0.03123 0.033205,0.04687 0.03031,0.04283 0.064458,0.08062 0.1025387,0.11328 0.01397,0.01197 0.02794,0.02377 0.04297,0.03418 0.054045,0.03745 0.1127341,0.06871 0.1806626,0.08301 0,0 2.3419049,0.08303 3.4755584,-0.0625 0.256025,-0.03578 0.5262665,-0.08185 0.8037045,-0.133788 0.0013,-2.42e-4 0.0027,-7.5e-4 0.0039,-0.001 0.258245,-0.04892 0.524147,-0.103913 0.795892,-0.164061 0,0 1.632689,-2.921357 2.018539,-4.528285 0.141873,-0.590849 0.23675,-1.333733 0.305662,-2.11717 -0.864362,1.014013 -1.400788,2.275266 -2.801381,2.906779 -0.04834,0.0152 -0.09872,0.02318 -0.149427,0.02337 -0.276141,0 -0.499997,-0.223856 -0.499997,-0.499998 -0.027705,-0.230852 0.327145,-0.452536 0.649409,-0.765618 2.260115,-2.29433 1.454257,-5.6587536 2.712514,-7.6118186 -0.472472,0.1123716 -2.10345,0.4775352 -3.5029011,0.4775352 -0.8245965,0 -2.3542719,-0.4989776 -3.0283019,-0.7333897 z"/>
 <circle style="fill:#17191e" cx="10" cy="10" r="1"/>
 <path style="opacity:0.2;fill:#8b9cbe" d="m 13.193359,3.0000006 c -1.173179,0.07728 -2.379184,0.3955284 -3.4472652,0.9003906 -1.397058,0.7577163 -2.2707191,1.7312428 -2.90625,2.8496094 0,0 0.2145246,0.070861 0.265625,0.089844 C 7.7170622,5.8957319 8.525531,5.0623826 9.7460938,4.4003912 10.814175,3.895529 12.02018,3.5772806 13.193359,3.5000006 c 0.994907,0.00881 1.763543,0.2507256 2.707032,0.5351562 0.208581,0.063171 0.435081,0.1333431 0.662109,0.2109376 0.05536,-0.1776353 0.08842,-0.3593848 0.05078,-0.484375 C 16.368684,3.6767283 16.12492,3.603158 15.900391,3.5351568 14.956902,3.2507261 14.188266,3.0088092 13.193359,3.0000006 Z m 3.207032,4.75 C 15.306844,9.6750673 14.714836,11.486301 13.451172,12.96875 l 0,0.5 c 1.263664,-1.482449 1.855672,-3.293683 2.949219,-5.2187494 0.216783,0.4698569 0.542546,0.9456937 0.855468,1.3066407 1.533049,1.7550867 3.260461,3.9609127 4.638672,6.0078117 0.03419,0.06264 0.03924,0.131331 0.05664,0.197266 0.07546,-0.220347 0.06508,-0.474267 -0.05664,-0.697266 C 20.51632,13.017554 18.788908,10.811728 17.255859,9.0566413 16.942937,8.6956946 16.617174,8.2198575 16.400391,7.7500006 Z"/>
</svg>
