<svg xmlns="http://www.w3.org/2000/svg" width="24" height="24" version="1.1">
 <path style="opacity:0.2" d="m 12.000001,2.5 c -0.595675,0 -1.148736,0.177248 -1.61526,0.4794922 L 4.6298906,6.330078 C 4.13813,6.586446 3.7099464,6.9806625 3.4125936,7.5 3.139658,7.9768435 3.0131314,8.497121 3.0136557,9.010742 h -0.013656 v 6.978516 h 0.013656 C 3.01319,16.502815 3.1396512,17.023296 3.4125936,17.5 c 0.2972929,0.519397 0.7255488,0.913557 1.217297,1.169922 l 5.7860634,3.36914 C 10.875978,22.329127 11.417479,22.5 12.000001,22.5 c 0.602304,0 1.162124,-0.18078 1.631841,-0.489258 l 5.708031,-3.324219 c 0.504656,-0.255717 0.944019,-0.656424 1.247534,-1.186523 0.27306,-0.477061 0.399581,-0.997864 0.398938,-1.511719 H 21 V 9.010742 H 20.98635 C 20.986856,8.4971155 20.860397,7.976788 20.587407,7.5 20.290114,6.9806025 19.861858,6.586443 19.37011,6.330078 L 13.631842,2.9882813 C 13.162211,2.6799935 12.602123,2.5 12.000001,2.5 Z"/>
 <path style="fill:#33d17a" d="m 3,8.510742 v 6.978516 H 9.0143055 V 8.510742 Z"/>
 <path style="fill:#3584e4" d="m 7.51902,12.886719 -3.0237344,5.205078 5.9928474,3.489257 3.023734,-5.205078 z"/>
 <path style="fill:#a347ba" d="m 16.480979,12.885742 -5.992847,3.490234 3.023735,5.205078 5.992847,-3.490234 z"/>
 <path style="fill:#e83c44" d="m 14.985694,8.510742 v 6.977539 H 21 V 8.510742 Z"/>
 <path style="fill:#ff912f" d="m 13.511867,2.4189453 -3.023735,5.2050782 5.992847,3.4892575 3.023735,-5.205078 z"/>
 <path style="fill:#f6d32d" d="M 10.488133,2.4189453 4.4952856,5.908203 7.51902,11.113281 13.511867,7.6240235 Z"/>
 <path style="fill:#a347ba" d="m 12.000052,22 c 1.654783,0 2.996288,-1.353053 2.996288,-3.021706 -0.0015,-0.989254 -0.482939,-1.915152 -1.28907,-2.478806 l -1.54109,-0.913562 -0.166128,-0.0967 C 11.523306,15.217311 11.049749,14.939742 10.579479,14.656583 9.610146,14.130191 9.005133,13.110103 9.0037645,11.999832 v 6.978126 c 0,1.668821 1.3415045,3.021706 2.9962875,3.021706 z M 9.014751,18.734543 c 0.004,-0.04751 0.01082,-0.09434 0.01698,-0.141349 -0.00666,0.047 -0.01232,0.09401 -0.01698,0.141349 z"/>
 <path style="fill:#f6d32d" d="m 12.000052,2.0000001 c -1.654783,0 -2.9962875,1.3528849 -2.9962875,3.0217059 0.0015,0.9891945 0.482987,1.9150175 1.2890695,2.478638 l 1.54109,0.9135625 0.166128,0.096694 c 0.476746,0.2719205 0.950303,0.549489 1.420573,0.832648 0.969281,0.526363 1.574285,1.5463715 1.575714,2.6565825 V 5.021706 c 0,-1.668821 -1.341504,-3.0217059 -2.996287,-3.0217059 z m 2.985301,3.2651209 c -0.004,0.047675 -0.01082,0.094513 -0.01698,0.1415165 0.0067,-0.047005 0.01232,-0.094009 0.01698,-0.1413485 z"/>
 <path style="fill:#3584e4" d="M 3.4126922,16.999916 C 4.2400005,18.445298 6.0727295,18.940355 7.5056205,18.10586 8.354454,17.609971 8.908831,16.726455 8.989782,15.740536 l 0.01382,-1.802448 v -0.193557 c -0.005,-0.534674 -0.00285,-1.152277 0.005,-1.656902 -0.032675,-1.109641 0.540616,-2.148 1.493149,-2.7044265 L 9.0035985,10.255301 6.0073105,12 5.33015,12.394333 4.5094999,12.872098 c -1.4332242,0.834326 -1.9242824,2.682604 -1.0968077,4.127818 z m 1.3113752,-4.239957 c 0.042781,-0.02014 0.086559,-0.03761 0.1298391,-0.0559 -0.043686,0.01766 -0.086977,0.0363 -0.1298391,0.0559 z"/>
 <path style="fill:#ff912f" d="M 20.587412,6.999916 C 19.760103,5.5545335 17.927374,5.0594775 16.494483,5.893972 15.645696,6.3898275 15.091326,7.2732705 15.010323,8.259128 l -0.01382,1.802616 v 0.193557 c 0.005,0.534674 0.0028,1.152277 -0.005,1.656902 0.03267,1.109642 -0.540616,2.148 -1.49315,2.704427 l 1.498144,-0.872266 2.996121,-1.744532 0.677161,-0.394332 0.82065,-0.477765 C 20.923652,10.29324 21.41471,8.445131 20.587235,6.999916 Z m -1.311375,4.239957 c -0.04278,0.02015 -0.08656,0.03761 -0.129839,0.0559 0.04362,-0.01762 0.08689,-0.03626 0.129839,-0.0559 z"/>
 <path style="fill:#33d17a" d="m 3.4126922,6.999916 c -0.8273083,1.445383 -0.33625,3.293324 1.0966412,4.127651 0.8502291,0.493413 1.8861066,0.535864 2.7732306,0.113649 l 1.5547405,-0.889221 0.166127,-0.0967 C 9.4753425,9.9749205 9.950509,9.70015 10.428832,9.4310465 11.365507,8.847572 12.544028,8.829137 13.498196,9.3830365 L 12.000052,8.5106025 9.0035985,6.766071 8.326437,6.3717385 7.505787,5.8939735 C 6.072563,5.0594775 4.2400006,5.5547015 3.4125258,6.999916 Z m 4.2966763,-0.9745 c 0.038785,0.027195 0.075573,0.056573 0.11286,0.085447 -0.036945,-0.02943 -0.074578,-0.057975 -0.11286,-0.085615 z"/>
 <path style="fill:#e83c44" d="m 20.587412,16.999916 c 0.827308,-1.445383 0.33625,-3.293324 -1.096642,-4.127818 -0.850256,-0.493359 -1.886133,-0.535748 -2.77323,-0.113482 l -1.55474,0.889221 -0.166128,0.09669 c -0.471911,0.280381 -0.947077,0.555151 -1.4254,0.824255 -0.936644,0.583526 -2.115166,0.602025 -3.069364,0.04818 l 1.498144,0.872266 2.996454,1.744699 0.677161,0.394333 0.82065,0.477766 c 1.433224,0.834326 3.265786,0.339269 4.093261,-1.105945 z m -4.296677,0.9745 c -0.03879,-0.0272 -0.07557,-0.05657 -0.112859,-0.08545 0.03695,0.02938 0.07457,0.05792 0.112859,0.08562 z"/>
 <path style="fill:#3e384f" d="m 9.0037125,10.255469 v 3.489063 L 12,15.489231 14.996288,13.744532 V 10.255469 L 12,8.510769 Z"/>
 <path style="opacity:0.2;fill:#8b9cbe" d="M 12,2 C 11.404325,2 10.85129,2.177248 10.384766,2.4794922 L 4.6298828,5.830078 C 4.1381221,6.086446 3.7094621,6.4806625 3.4121094,7 3.1391738,7.4768435 3.0131476,7.997121 3.0136719,8.510742 H 3 v 0.5 H 3.013672 C 3.0131476,8.497121 3.1391738,7.9768435 3.4121094,7.5 3.7094621,6.9806625 4.1381221,6.586446 4.6298828,6.330078 L 10.384766,2.9794922 C 10.85129,2.677248 11.404325,2.5 12,2.5 c 0.602123,0 1.162206,0.1799935 1.631836,0.4882813 l 5.738281,3.3417967 c 0.491748,0.256365 0.92048,0.6505245 1.217773,1.169922 0.272991,0.476788 0.39895,0.9971155 0.398438,1.510742 H 21 v -0.5 H 20.98633 C 20.986839,7.9971155 20.860881,7.476788 20.58789,7 20.290597,6.4806025 19.861865,6.086443 19.370117,5.830078 L 13.631836,2.4882813 C 13.162206,2.1799935 12.602123,2 12,2 Z"/>
</svg>
