<svg xmlns="http://www.w3.org/2000/svg" width="24" height="24" version="1">
 <path style="opacity:0.2" d="m 21,21.5 v -18 c 0,-0.554 -0.473876,-1 -1.0625,-1 H 5.0625 C 4.473875,2.5 4,2.946 4,3.5 v 18 c 0,0.554 0.473875,1 1.0625,1 h 14.875 C 20.526124,22.5 21,22.054 21,21.5 Z"/>
 <path style="fill:#b2bfd9" d="M 21,21 V 3 C 21,2.446 20.526124,2 19.9375,2 H 5.0625 C 4.473875,2 4,2.446 4,3 v 18 c 0,0.554 0.473875,1 1.0625,1 h 14.875 C 20.526124,22 21,21.554 21,21 Z"/>
 <path style="opacity:0.1" d="M 7,4 C 6.446,4 6,4.446 6,5 v 4 c 0,0.554 0.446,1 1,1 h 4 c 0.554,0 1,-0.446 1,-1 V 5 C 12,4.446 11.554,4 11,4 Z m 6,0 v 1 h 6 V 4 Z m 0,3 v 1 h 6 V 7 Z m 0,3 v 1 h 6 v -1 z m -7,3 v 1 h 13 v -1 z m 0,3 v 1 h 13 v -1 z m 0,3 v 1 h 13 v -1 z"/>
 <path style="opacity:0.1" d="m 14.644385,2.5034542 c -1.372623,0.010463 -1.584948,-0.011552 -3.101007,-2e-7 C 10.278389,3.6587629 9.2064231,5.1937737 8.3293859,6.9384917 6.9751562,9.6325012 6.6531656,11.907992 7.3744875,13.773557 c 0.7213131,1.865566 2.3765402,3.035199 4.9586655,3.512965 2.714098,0.502184 5.230161,0.119339 7.54982,-1.158816 0.354832,-0.195521 0.780262,-0.412655 1.113304,-0.642895 -0.0077,-0.933166 0.01138,-1.600955 0,-2.983976 -0.838589,1.117229 -1.849489,2.022929 -2.833316,2.712721 -1.740567,1.220343 -3.539152,1.655922 -5.403543,1.310957 C 10.985751,16.196335 9.944544,15.225325 9.6385465,13.609815 9.3445787,11.988286 9.8245702,9.9320307 11.080175,7.4342227 12.109769,5.3860109 13.296163,3.6988854 14.644386,2.5034537 Z"/>
 <path style="fill:#218ed4" d="m 14.644385,2.0034544 c -1.372623,0.010463 -1.584948,-0.011552 -3.101007,-2e-7 C 10.278389,3.1587631 9.2064231,4.6937739 8.3293859,6.4384919 6.9751562,9.1325014 6.6531656,11.407992 7.3744875,13.273557 c 0.7213131,1.865566 2.3765402,3.035199 4.9586655,3.512965 2.714098,0.502184 5.230161,0.119339 7.54982,-1.158816 0.354832,-0.195521 0.780262,-0.412655 1.113304,-0.642895 -0.0077,-0.933166 0.01138,-1.600955 0,-2.983976 -0.838589,1.117229 -1.849489,2.022929 -2.833316,2.712721 -1.740567,1.220343 -3.539152,1.655922 -5.403543,1.310957 C 10.985751,15.696335 9.944544,14.725325 9.6385465,13.109815 9.3445787,11.488286 9.8245702,9.4320309 11.080175,6.9342229 12.109769,4.8860111 13.296163,3.1988856 14.644386,2.0034539 Z"/>
 <path style="opacity:0.2;fill:#8b9cbe" d="M 5.0625,2 C 4.473875,2 4,2.446 4,3 v 0.5 c 0,-0.554 0.473875,-1 1.0625,-1 h 14.875 C 20.526124,2.5 21,2.946 21,3.5 V 3 C 21,2.446 20.526124,2 19.9375,2 Z"/>
</svg>
