<svg xmlns="http://www.w3.org/2000/svg" width="24" height="24" version="1">
 <path style="fill:#b2bfd9" d="M 22,21 V 3 C 22,2.446 21.554,2 21,2 H 3 C 2.446,2 2,2.446 2,3 v 17.076459 l 0.5030181,0.948692 c 0.2595198,0.489454 0.068962,0.481177 0.6227365,0.496982 L 18.000392,21.5 18.869607,22 H 21 c 0.554,0 1,-0.446 1,-1 z"/>
 <path style="opacity:0.2" d="m 2,21 v 0.5 c 0,0.554 0.446,1 1,1 h 18 c 0.554,0 1,-0.446 1,-1 V 21 c 0,0.554 -0.446,1 -1,1 H 3 C 2.446,22 2,21.554 2,21 Z"/>
 <path style="fill:#239623" d="M 5,2 V 13 H 2 v 2 h 7 v 5 H 2 v 1 c 0,0.554 0.446,1 1,1 h 14 2 V 10 h 3 V 8 h -5 v 2 10 H 11 V 15 13 H 7 V 2 Z m 4,0 v 9 h 2 2 v 7 h 2 V 6 h 7 V 4 H 13 V 6 9 H 11 V 2 Z"/>
 <path style="opacity:0.2" d="M 5 2 L 5 2.5 L 7 2.5 L 7 2 L 5 2 z M 9 2 L 9 2.5 L 11 2.5 L 11 2 L 9 2 z M 13 4 L 13 4.5 L 22 4.5 L 22 4 L 13 4 z M 17 8 L 17 8.5 L 22 8.5 L 22 8 L 17 8 z M 11 9 L 11 9.5 L 13 9.5 L 13 9 L 11 9 z M 2 13 L 2 13.5 L 5 13.5 L 5 13 L 2 13 z M 7 13 L 7 13.5 L 11 13.5 L 11 13 L 7 13 z M 2 20 L 2 20.5 L 9 20.5 L 9 20 L 2 20 z M 11 20 L 11 20.5 L 17 20.5 L 17 20 L 11 20 z"/>
 <path style="fill:#8b9cbe;opacity:0.2" d="M 3 2 C 2.446 2 2 2.446 2 3 L 2 3.5 C 2 2.946 2.446 2.5 3 2.5 L 5 2.5 L 5 2 L 3 2 z M 7 2 L 7 2.5 L 9 2.5 L 9 2 L 7 2 z M 11 2 L 11 2.5 L 21 2.5 C 21.554 2.5 22 2.946 22 3.5 L 22 3 C 22 2.446 21.554 2 21 2 L 11 2 z"/>
</svg>
