<svg xmlns="http://www.w3.org/2000/svg" width="24" height="24" version="1.1">
 <rect style="opacity:0.2" width="16" height="20" x="-20" y="-22.5" rx="1.454" ry="1.482" transform="scale(-1)"/>
 <rect style="fill:#b2bfd9" width="16" height="20" x="-20" y="-22" rx="1.454" ry="1.482" transform="scale(-1)"/>
 <path style="opacity:0.2;fill:#8b9cbe" d="M 5.4541015,2 C 4.6482833,2 4,2.6607046 4,3.4814453 v 0.5 C 4,3.1607046 4.6482833,2.5 5.4541015,2.5 H 18.545898 C 19.351716,2.5 20,3.1607046 20,3.9814453 v -0.5 C 20,2.6607046 19.351716,2 18.545898,2 Z"/>
 <path style="opacity:0.1" d="M 18.363282,4.5 6.0000005,16.863281 V 19.045898 20.5 H 7.454102 9.63672 L 22,8.136719 20.919922,7.0751955 19.424805,5.580078 Z m -12.3320315,2 v 0.294922 l 1.855469,2.296875 -1.886719,2.131836 V 11.5 H 9.924806 l 0.07519,-1.394531 H 9.738282 L 9.5126965,10.80664 c -0.087216,0.0174 -0.3253645,0.03249 -0.713868,0.04492 -0.3858605,0.01 -0.7163515,0.01465 -0.991211,0.01465 H 6.773438 L 8.5205085,8.9013665 V 8.710937 l -1.5332035,-1.875 h 1.0546875 c 0.512719,0 0.716693,0.01696 1.0126955,0.051758 L 9.22168,7.697265 H 9.483399 V 6.5 Z"/>
 <path style="opacity:0.2" d="M 5.5,4 C 5.2238576,4 5,4.2238576 5,4.5 5,4.7761424 5.2238576,5 5.5,5 5.7761424,5 6,4.7761424 6,4.5 6,4.2238576 5.7761424,4 5.5,4 Z m 2,0 C 7.2238576,4 7,4.2238576 7,4.5 7,4.7761424 7.2238576,5 7.5,5 7.7761424,5 8,4.7761424 8,4.5 8,4.2238576 7.7761424,4 7.5,4 Z m 2,0 C 9.2238576,4 9,4.2238576 9,4.5 9,4.7761424 9.2238576,5 9.5,5 9.7761424,5 10,4.7761424 10,4.5 10,4.2238576 9.7761424,4 9.5,4 Z m 2,0 C 11.223858,4 11,4.2238576 11,4.5 11,4.7761424 11.223858,5 11.5,5 11.776142,5 12,4.7761424 12,4.5 12,4.2238576 11.776142,4 11.5,4 Z m 2,0 C 13.223858,4 13,4.2238576 13,4.5 13,4.7761424 13.223858,5 13.5,5 13.776142,5 14,4.7761424 14,4.5 14,4.2238576 13.776142,4 13.5,4 Z m 2,0 C 15.223858,4 15,4.2238576 15,4.5 15,4.7761424 15.223858,5 15.5,5 15.776142,5 16,4.7761424 16,4.5 16,4.2238576 15.776142,4 15.5,4 Z m 2,0 C 17.223858,4 17,4.2238576 17,4.5 17,4.7761424 17.223858,5 17.5,5 17.776142,5 18,4.7761424 18,4.5 18,4.2238576 17.776142,4 17.5,4 Z"/>
 <path style="opacity:0.2" d="M 17.599609,18.5 C 16.71321,18.5 16,19.21321 16,20.099609 v 1.94336 c 0,0.160058 0.02989,0.311426 0.07324,0.457031 L 20,18.573242 C 19.854395,18.529891 19.703027,18.5 19.542969,18.5 Z" clip-path="url(#clipPath1609-7)"/>
 <path style="fill:#8b9cbe" d="M 17.599609,18 C 16.71321,18 16,18.71321 16,19.599609 v 1.94336 C 16,21.703027 16.02989,21.854395 16.07324,22 L 20,18.073242 C 19.854395,18.029891 19.703027,18 19.542969,18 Z" clip-path="url(#clipPath1609-7)"/>
 <path style="fill:#e8ddc7" d="M 6.000001,20 V 16.363637 L 9.636365,20 Z"/>
 <path style="fill:#535353" d="m 6.0000005,20 5e-7,-1.454546 L 7.4545465,20 Z"/>
 <path style="fill:#2bbd6d" d="M 9.2727285,19.636364 6.3636375,16.727273 18.717629,4.3732822 21.62672,7.282373 Z"/>
 <path style="fill:#71ec8c" d="M 7.070505,17.434138 6.000001,16.363637 18.363639,4.0000022 19.424497,5.0801476 Z"/>
 <path style="fill:#26a269" d="M 8.565864,18.929496 9.636365,20 22,7.636364 20.919855,6.575506 Z"/>
 <path style="fill:#4f4f4f" d="M 8.520646,8.2110365 V 8.401193 l -1.747603,1.964952 h 1.034688 c 0.2748595,0 0.6052195,-0.0049 0.99108,-0.01492 0.3885035,-0.01242 0.6263625,-0.02734 0.7135785,-0.04473 L 9.738355,9.6055205 h 0.261646 L 9.92468,11.000002 H 6 V 10.724089 L 7.8863545,8.591352 6.0317145,6.294559 V 6.0000025 h 3.451359 V 7.196871 H 9.2214285 L 9.054927,6.38777 C 8.7589245,6.35297 8.5543445,6.3355705 8.0416255,6.3355705 H 6.987116 Z"/>
</svg>
