<svg xmlns="http://www.w3.org/2000/svg" width="24" height="24" version="1">
 <path style="opacity:.2" d="m3.9000003 3.4996297h16.200001c0.4986 0 0.899999 0.3990526 0.899999 0.8947367v16.210897c0 0.495684-0.401399 0.894737-0.899999 0.894737h-16.200001c-0.4986001 0-0.9-0.399053-0.9-0.894737v-16.210897c0-0.4956841 0.4013999-0.8947367 0.9-0.8947367z"/>
 <path style="fill:#4f4f4f" d="m3.9000003 2.9998147h16.200001c0.4986 0 0.899999 0.3990526 0.899999 0.8947367v16.210897c0 0.495684-0.401399 0.894737-0.899999 0.894737h-16.200001c-0.4986001 0-0.9-0.399053-0.9-0.894737v-16.210897c0-0.4956841 0.4013999-0.8947367 0.9-0.8947367z"/>
 <path style="opacity:.2;stroke-linejoin:round;stroke:#000000;stroke-linecap:round;stroke-width:2;fill:none" d="m1.9999932 12.500199h6.5000063l2.0000015-5.0000029 2.999998 10.000007 2.000001-5.000004h6.500007"/>
 <path style="stroke-linejoin:round;stroke:#00c0c9;stroke-linecap:round;stroke-width:2;fill:none" d="m1.9999932 12.000245h6.5000063l2.0000015-5.0000026 2.999998 10.000007 2.000001-5.000004h6.500007"/>
 <path style="opacity:.1;fill:#8b9cbe" d="m3.9003906 3c-0.4986001 0-0.9003906 0.3988471-0.9003906 0.8945312v0.5c0-0.4956841 0.4017905-0.8945312 0.9003906-0.8945312h16.199218c0.4986 0 0.900391 0.3988471 0.900391 0.8945312v-0.5c0-0.495684-0.401791-0.8945312-0.900391-0.8945312h-16.199218z"/>
</svg>
