<svg xmlns="http://www.w3.org/2000/svg" width="24" height="24" version="1">
 <rect style="opacity:0.2" width="20" height="20" x="2" y="2.5" rx="10" ry="10"/>
 <rect style="fill:#168616" width="20" height="20" x="2" y="2" rx="10" ry="10"/>
 <path style="opacity:0.2;fill:#8b9cbe" d="M 12,2 C 6.46,2 2,6.46 2,12 2,12.084 2.0038,12.1665 2.00585,12.25 2.1382,6.827 6.544,2.5 11.99985,2.5 c 5.45585,0 9.862,4.327 9.994,9.75 0.002,-0.0835 0.006,-0.166 0.006,-0.25 0,-5.54 -4.46,-10 -10,-10 z"/>
 <path style="opacity:0.2" d="m 11.391236,20.237024 c -0.278134,-0.238743 -0.295437,-0.295671 -0.295437,-0.971955 v -0.718357 l -0.477215,0.241235 c -0.26247,0.132678 -0.8145445,0.327355 -1.2268357,0.432612 -0.8333137,0.212747 -1.5496599,0.152156 -2.1160362,-0.178973 -0.5447782,-0.318506 -0.7063617,-0.644995 -0.7082384,-1.43104 -7.529e-4,-0.389262 0.033191,-0.884695 0.075821,-1.100962 0.043106,-0.218688 0.040409,-0.338477 -0.00607,-0.269894 -0.1915661,0.282591 -0.7672285,0.613956 -1.0665936,0.613956 -0.515743,0 -0.8266909,-0.453324 -0.8266909,-1.205211 0,-0.355419 0.082504,-0.832272 0.2022474,-1.168936 L 5.1484258,13.91087 4.9215615,13.604255 c -0.177374,-0.239728 -0.2261362,-0.432139 -0.2235147,-0.88197 0.00282,-0.483806 0.072745,-0.710083 0.4394935,-1.422176 0.4381393,-0.850702 0.6908207,-1.189068 0.6884724,-0.921936 -7.529e-4,0.0742 -0.1050098,0.316133 -0.2319063,0.537624 -0.4205116,0.73398 -0.69085,1.627187 -0.6148636,2.03152 0.059564,0.316933 0.1056475,0.367362 0.3354046,0.367045 0.3963832,-7.53e-4 0.7604509,-0.261901 1.9668873,-1.411983 L 8.3741354,10.860811 7.6426146,10.327537 C 7.2402782,10.034241 6.7142897,9.6699825 6.4737537,9.5180785 5.8672348,9.1350504 5.6928711,8.7031121 5.9326847,8.1777151 6.0505355,7.9195293 6.2136677,7.8038512 7.0335616,7.397088 7.3450001,7.2425765 7.5998142,7.0984316 7.5998142,7.0767648 c 0,-0.021666 -0.072598,-0.1118663 -0.1613337,-0.2004423 C 7.1796166,6.6179193 7.4064241,6.0036554 7.8218183,5.8381147 7.9976136,5.7680577 8.4208346,5.5852286 8.762307,5.4318258 9.4353845,5.1294531 11.453167,4.4473392 11.509172,4.5032436 11.628868,4.622729 11.360197,4.8494801 10.919906,5.0005618 9.4374593,5.5092479 7.5998142,6.2784135 7.5998142,6.3902148 c 0,0.029181 0.067141,0.1826612 0.1492004,0.3410649 L 7.8982164,7.0192905 8.4137467,6.8129559 C 10.058325,6.1547297 12.488329,5.4504756 13.114942,5.4504756 c 0.113071,0 0.316368,0.1105863 0.451772,0.2457472 0.20811,0.2077383 0.236023,0.3027597 0.180496,0.6143939 C 13.65151,6.8476971 13.399353,7.20936 12.668411,7.8579001 12.310856,8.1751462 11.878351,8.6292538 11.70729,8.8670293 11.329338,9.3923797 11.241999,9.2599591 11.554495,8.635362 11.760957,8.2226967 12.378167,7.5552884 13.162934,6.8961041 13.45409,6.6515423 13.455319,6.6463724 13.270772,6.4428111 13.134621,6.2926332 12.965617,6.2369015 12.646385,6.2369015 c -0.45058,0 -1.886518,0.3450832 -2.9292815,0.7039598 -1.1696736,0.4025538 -3.4959902,1.4396109 -3.4959902,1.5584895 0,0.033228 0.1440249,0.1345435 0.3200564,0.2251458 0.3354555,0.1726593 1.1360581,0.6526154 2.1174418,1.2693917 L 9.2402189,10.359415 9.6957096,10.186823 C 9.9462328,10.091898 10.174642,9.9908342 10.203282,9.9622412 10.231927,9.9336483 10.161513,9.3759449 10.046816,8.7228985 9.8477985,7.5898127 9.8534131,7.0233272 10.063649,7.0233272 c 0.05313,0 0.0966,0.041299 0.0966,0.091771 0,0.050473 0.139864,0.3163609 0.310807,0.5908596 0.307892,0.4944169 0.325641,0.7387246 0.03625,0.4989773 -0.187124,-0.1550216 -0.195534,-0.026513 -0.04431,0.6773241 0.127089,0.5915448 0.403375,0.9678115 0.846299,1.1525458 0.294065,0.122649 0.328141,0.177557 0.328141,0.528755 0,0.433894 -0.04617,0.458677 -0.456517,0.245045 -0.328811,-0.171183 -0.852613,-0.192146 -1.127799,-0.04513 -0.1712704,0.09149 -0.074873,0.187098 0.868163,0.860965 0.583454,0.416923 1.227009,0.884574 1.430121,1.039228 l 0.369296,0.281186 v -0.265856 c 0,-0.146222 -0.04766,-1.12099 -0.105917,-2.166157 -0.09129,-1.6379491 -0.0856,-1.9387514 0.04126,-2.1788139 l 0.147173,-0.2785139 0.21297,0.4915147 c 0.496912,1.1468242 0.586943,1.7393981 0.184997,1.2175884 l -0.180678,-0.2345552 0.0066,0.5406679 c 0.0036,0.297364 0.05801,1.15573 0.120907,1.907479 l 0.114356,1.366814 0.383109,0.198255 c 0.351902,0.182105 0.416075,0.18688 0.787829,0.05858 l 0.404723,-0.139675 0.01809,-0.589818 c 0.01,-0.3244 -0.02282,-0.943711 -0.07282,-1.376244 -0.05,-0.432536 -0.133612,-1.383619 -0.185792,-2.1135186 -0.05218,-0.7299015 -0.1439,-1.9365026 -0.203816,-2.6813358 -0.101849,-1.2660836 -0.07938,-1.7449261 0.08168,-1.7404351 0.09341,0.00261 0.707332,1.4131222 0.707332,1.6251462 0,0.1633369 -0.0109,0.1630611 -0.196957,-0.00502 -0.240879,-0.2176032 -0.237658,-0.3085185 -0.05571,1.5728495 0.398734,4.1228768 0.423027,4.7252628 0.217941,5.4044648 -0.199427,0.660461 -0.912399,0.996716 -1.57786,0.74416 l -0.246703,-0.09363 0.01872,1.641908 c 0.01807,1.585353 -0.11017,2.575782 -0.33351,2.575782 -0.04424,0 -0.07172,-0.431305 -0.06106,-0.958456 0.01068,-0.52715 -0.01811,-1.561258 -0.06392,-2.298015 l -0.08329,-1.339563 -0.655294,-0.497615 c -0.360408,-0.273689 -0.743942,-0.577732 -0.852292,-0.675657 -0.108352,-0.09792 -0.456655,-0.371139 -0.77401,-0.607151 l -0.5770146,-0.429106 0.2496596,0.429111 c 0.32656,0.561287 0.412136,1.060665 0.261957,1.528617 -0.186591,0.581396 -0.449545,0.792919 -1.3186827,1.060746 -0.9276981,0.285875 -1.7608781,0.739215 -1.9843877,1.079726 -0.086469,0.13173 -0.202831,0.518301 -0.2585807,0.859042 -0.1302686,0.79617 0.021821,1.270531 0.541358,1.688449 0.3205712,0.257874 0.4739359,0.30712 1.0592247,0.340131 0.9862176,0.05562 2.2941974,-0.420077 3.2772614,-1.191916 0.449399,-0.352841 0.447691,-0.447567 -0.03205,-1.776916 -0.239688,-0.664156 -0.298745,-0.955894 -0.248081,-1.225473 l 0.06649,-0.35381 0.430912,0.4882 c 0.478207,0.541781 0.534657,0.683691 0.241522,0.60717 -0.243116,-0.06346 -0.243114,-0.04385 3.5e-5,0.594783 0.218662,0.574283 0.256366,1.298939 0.08468,1.627411 -0.06173,0.118094 -0.29852,0.415534 -0.526198,0.660975 -0.339042,0.365491 -0.426523,0.540777 -0.483365,0.968508 -0.053,0.398804 -0.03283,0.577969 0.08532,0.757958 0.316318,0.481903 0.626197,0.275267 2.099692,-1.400148 0.52012,-0.591394 0.735152,-0.733546 1.829252,-1.209279 l 0.578215,-0.251418 0.02063,-0.688122 c 0.02751,-0.918024 0.308315,-1.425398 0.788858,-1.425398 0.174818,0 0.265667,0.09281 0.38688,0.395204 0.08712,0.217364 0.15841,0.477219 0.15841,0.577459 0,0.306828 -0.290396,1.024531 -0.50818,1.255938 -0.298766,0.317455 -0.175587,0.523891 0.312609,0.523891 0.29496,0 0.465616,-0.06402 0.643204,-0.241291 0.293288,-0.292766 0.297463,-0.428473 0.09697,-3.150171 -0.455418,-6.1821503 -0.493993,-7.2298823 -0.265955,-7.2234089 0.07551,0.00216 0.706141,1.3960058 0.706141,1.5607592 0,0.1672658 -0.175511,0.1285016 -0.287545,-0.06351 -0.142119,-0.2435698 -0.13598,0.1374866 0.03672,2.2799377 0.459618,5.70174 0.433226,6.536401 -0.226637,7.167467 -0.565332,0.540656 -1.258442,0.527679 -1.504928,-0.02819 -0.07355,-0.16588 -0.183862,-0.301599 -0.245124,-0.301599 -0.246264,0 -1.663111,0.715486 -2.01898,1.019556 -0.208949,0.178535 -0.597249,0.611195 -0.862885,0.961469 -0.767002,1.011379 -1.187191,1.184366 -1.734884,0.71423 z m 5.246695,-3.733012 c 0.254256,-0.177771 0.290738,-0.597511 0.07692,-0.884945 -0.297766,-0.400276 -0.661055,0.17935 -0.503976,0.804092 0.06906,0.274683 0.132619,0.286717 0.427057,0.08086 z M 5.9380687,16.091148 C 6.0802997,15.996888 6.4361688,15.672464 6.7288925,15.370204 7.4728231,14.602043 7.9290837,14.32813 9.1484001,13.917677 10.027173,13.62186 10.214729,13.52378 10.23997,13.346853 10.285184,13.029917 9.9319227,12.412006 9.3568739,11.802188 8.748611,11.157146 8.9121625,11.090237 7.3323832,12.630407 6.6565979,13.289249 6.0428818,13.797698 5.7870814,13.910646 5.4446199,14.061863 5.3322002,14.17891 5.204349,14.51737 4.8230678,15.526717 4.9083624,16.26436 5.4062226,16.263177 5.5565111,16.26287 5.7958414,16.185407 5.9380687,16.091148 Z M 6.286759,15.018651 c -0.1229793,-0.122758 -0.066125,-0.837636 0.093287,-1.172969 0.160335,-0.337278 0.414575,-0.482237 0.2846795,-0.162315 -0.210599,0.518688 -0.2607651,0.730825 -0.20632,0.872455 0.048947,0.127321 0.088396,0.13416 0.2070216,0.03589 0.1718941,-0.142405 0.1805666,-0.101141 0.050511,0.240324 -0.091749,0.240887 -0.2889214,0.326627 -0.4291778,0.18662 z M 7.7778075,13.384923 C 7.5194448,13.172851 7.5168744,13.16035 7.67752,12.896941 c 0.1854546,-0.304095 0.3330983,-0.339447 0.513158,-0.122877 0.1703077,0.204839 0.3570305,0.184104 0.5272987,-0.05855 L 8.8625291,12.509507 9.1667145,12.734 c 0.3542046,0.261408 0.3675189,0.34951 0.1010757,0.668901 L 9.0712335,13.638515 8.8195484,13.402897 8.5678633,13.167276 8.3881052,13.388458 c -0.2204808,0.27129 -0.2758747,0.27097 -0.6102977,-0.0036 z m 5.7338515,7.032214 c 0.0017,-0.04055 0.0682,-0.159596 0.147716,-0.264546 0.188046,-0.248179 0.186341,-0.457976 -0.0031,-0.385398 -0.213433,0.08176 -0.181421,-0.100137 0.05526,-0.313943 0.173704,-0.15692 0.216082,-0.162662 0.293926,-0.03981 0.130106,0.205326 0.119037,0.268867 -0.121117,0.695405 -0.194245,0.344998 -0.380762,0.499303 -0.372648,0.308293 z m 1.627849,-0.664171 c -0.08374,-0.200055 -0.24958,-0.384652 -0.395234,-0.439932 -0.28752,-0.109119 -0.368068,-0.591628 -0.09877,-0.591628 0.158943,0 0.513899,0.326309 0.687633,0.632133 0.0943,0.16599 0.10231,0.164035 0.11684,-0.02851 0.02111,-0.279699 0.247419,-0.727828 0.391137,-0.7745 0.150764,-0.04896 0.46285,0.423123 0.374285,0.566169 -0.04631,0.07478 -0.125658,0.0565 -0.252634,-0.05821 -0.206434,-0.186489 -0.184621,-0.218549 -0.389366,0.572222 -0.06649,0.256815 -0.158861,0.466938 -0.205259,0.466938 -0.0464,0 -0.149283,-0.155109 -0.228635,-0.344685 z M 5.7322033,18.156162 c 0.00193,-0.04056 0.066822,-0.184318 0.1442273,-0.319485 0.1813091,-0.316598 0.1813091,-0.393213 0,-0.393213 -0.1780677,0 -0.1903788,-0.1147 -0.029543,-0.275249 0.1620432,-0.161756 0.3416187,-0.14795 0.4106314,0.03158 0.061571,0.160171 -0.3184136,1.030103 -0.4499495,1.030103 -0.043369,0 -0.077287,-0.03318 -0.075367,-0.07372 z M 8.0930404,17.840215 C 7.9317816,17.737414 7.8901237,16.998339 8.0195656,16.536754 l 0.075082,-0.267738 -0.3501039,0.206198 c -0.3670818,0.216197 -0.5512093,0.188069 -0.3503491,-0.05353 0.1269539,-0.152694 1.3168496,-0.889082 1.6223699,-1.004027 0.3026179,-0.113856 0.1410019,0.175782 -0.2426051,0.434778 -0.4845401,0.327139 -0.6284393,0.660495 -0.5941805,1.376466 0.00867,0.181301 0.051109,0.215067 0.2078588,0.165406 0.2428394,-0.07694 0.2528667,0.05854 0.024616,0.332605 -0.1247515,0.149797 -0.2128936,0.181079 -0.3192154,0.113298 z M 9.5367972,16.947463 C 9.2295629,16.706224 9.2095577,16.55835 9.4462829,16.278425 l 0.1723364,-0.203789 0.2914098,0.237559 c 0.2546869,0.207622 0.2795069,0.271178 0.1969569,0.504351 -0.1243541,0.351252 -0.2521974,0.380606 -0.5701888,0.130917 z m 1.2728188,-0.08361 c -0.197753,-0.218123 -0.197746,-0.445544 3e-5,-1.024953 0.181244,-0.53097 0.367608,-0.535365 0.220964,-0.0052 -0.113142,0.409038 -0.02611,0.952046 0.115841,0.722769 0.118157,-0.190841 0.199955,-0.08494 0.132695,0.171803 -0.07484,0.285695 -0.27979,0.344881 -0.46953,0.135594 z m 3.191304,-0.288796 c 0,-0.05666 0.04286,-0.129463 0.09525,-0.161783 0.05239,-0.03232 0.07063,-0.181706 0.04052,-0.331971 -0.0411,-0.205135 0.01203,-0.352416 0.213257,-0.591134 0.303713,-0.360297 0.685001,-0.394764 0.685001,-0.06192 0,0.151538 -0.06566,0.196605 -0.286412,0.196605 -0.157527,0 -0.303992,0.05154 -0.325475,0.114538 -0.05576,0.163474 0.323612,0.259284 0.727311,0.183686 0.289124,-0.05415 0.339192,-0.03802 0.311495,0.10029 -0.02038,0.10174 -0.240263,0.230946 -0.574637,0.337653 -0.297897,0.09507 -0.619184,0.205297 -0.71397,0.244953 -0.100447,0.04201 -0.172337,0.02912 -0.172337,-0.03092 z m 4.874693,-1.367934 c 0,-0.797515 -0.07827,-2.562232 -0.173933,-3.921595 -0.130648,-1.8565165 -0.146861,-2.5414768 -0.06515,-2.7524904 0.107291,-0.2770649 0.113346,-0.2701298 0.441288,0.5055072 0.182876,0.4325316 0.334062,0.8417207 0.335965,0.9093042 0.0051,0.179851 -0.167933,0.149922 -0.28409,-0.049152 -0.142093,-0.243526 -0.132302,0.265001 0.04211,2.187246 0.188118,2.073243 0.1866,3.419122 -0.0045,4.061737 -0.08334,0.280147 -0.183055,0.509386 -0.221577,0.509414 -0.03853,2.9e-5 -0.07004,-0.652458 -0.07004,-1.449972 z M 9.3747492,15.52376 c 0.068705,-0.08264 0.4698888,-0.440846 0.8915178,-0.796019 0.421629,-0.35517 0.790648,-0.708327 0.820042,-0.784793 0.02939,-0.07646 0.004,-0.247282 -0.05636,-0.379594 -0.08808,-0.192967 -0.07651,-0.29129 0.05847,-0.496928 0.135697,-0.206733 0.195598,-0.23373 0.309405,-0.139446 0.07762,0.0643 0.14113,0.235364 0.14113,0.380131 0,0.144767 0.04932,0.31244 0.109596,0.372609 0.128647,0.128421 0.02703,0.340502 -0.144324,0.30122 -0.06509,-0.01491 -0.29257,0.165366 -0.505502,0.400633 -0.444003,0.490582 -1.4558321,1.292439 -1.6308791,1.292439 -0.088693,0 -0.086976,-0.03734 0.0069,-0.150252 z m 5.6109558,-0.625515 c 0,-0.05993 0.08863,-0.108962 0.196957,-0.108962 0.108327,0 0.196958,-0.04776 0.196958,-0.106116 0,-0.06784 -0.115448,-0.0821 -0.320057,-0.03954 l -0.320054,0.06657 0.212378,-0.218873 c 0.173815,-0.179134 0.276633,-0.206841 0.566252,-0.152606 0.395954,0.07415 0.433309,0.152038 0.181536,0.378528 -0.225473,0.20283 -0.71397,0.326675 -0.71397,0.181008 z M 4.0201349,14.714877 C 3.9897059,14.665727 4.0737099,14.465537 4.2068127,14.27001 4.43177,13.939544 4.4366655,13.907618 4.2763177,13.816789 4.115812,13.725869 4.1151427,13.707626 4.2666877,13.55442 4.4933529,13.325303 4.678435,13.4695 4.6081232,13.820436 4.5385822,14.167519 4.0970588,14.839144 4.0201205,14.714877 Z M 15.923537,14.103674 c -0.164773,-0.181749 -0.165601,-0.209869 -0.01299,-0.442363 0.187417,-0.285523 0.235888,-0.295073 0.496996,-0.09792 0.171573,0.129545 0.214123,0.122276 0.421224,-0.07194 l 0.230373,-0.216035 0.26589,0.265414 0.26589,0.265416 -0.264843,0.264369 c -0.258889,0.258429 -0.269353,0.260296 -0.465537,0.08307 -0.187142,-0.169064 -0.212854,-0.170319 -0.380785,-0.01862 -0.233817,0.211224 -0.341777,0.205129 -0.556214,-0.0314 z m 0.34239,-1.098923 c 0,-0.192115 -0.02854,-0.621823 -0.06342,-0.954907 l -0.06341,-0.605603 -0.342916,0.201966 c -0.375086,0.220912 -0.585249,0.168672 -0.268697,-0.0668 0.673263,-0.500798 0.628757,-0.375204 0.534645,-1.508689 -0.290506,-3.498848 -0.309947,-4.4236465 -0.09299,-4.4236465 0.0926,0 0.690695,1.4157838 0.690695,1.6349955 0,0.1500452 -0.01779,0.1488701 -0.196965,-0.013016 -0.194799,-0.1759703 -0.196497,-0.1726278 -0.154505,0.3042554 0.02335,0.2651981 0.076,0.9466652 0.117004,1.5143672 0.04101,0.5677 0.08282,1.0653574 0.09296,1.1059084 0.01014,0.04055 0.02394,0.189733 0.03072,0.331523 0.01053,0.220707 0.03416,0.239691 0.164203,0.131959 0.105377,-0.0873 0.120456,-0.157213 0.04924,-0.228304 -0.14421,-0.14395 -0.127643,-0.4829709 0.0344,-0.7041934 0.11278,-0.1539586 0.163532,-0.1651802 0.286467,-0.063334 0.187981,0.1557318 0.197413,0.9992904 0.01119,0.9992904 -0.24816,0 -0.539955,0.502876 -0.479453,0.826276 0.06603,0.352951 -0.119338,1.636345 -0.256206,1.773842 -0.05841,0.05867 -0.09296,-0.03645 -0.09296,-0.255913 z m 3.191595,-0.133032 c -0.07544,-0.300029 0.0251,-0.879084 0.216889,-1.249323 0.23461,-0.452874 0.315275,-0.308631 0.131104,0.23443 -0.182163,0.537138 -0.1564,0.815166 0.0676,0.729366 0.160853,-0.06162 0.163034,-0.04596 0.03897,0.279774 -0.122654,0.322034 -0.374229,0.325221 -0.454553,0.0057 z m -5.614029,-0.396182 c -0.0981,-0.390172 0.176473,-1.42178 0.378423,-1.42178 0.107535,0 0.09372,0.09049 -0.08524,0.558249 -0.18489,0.483273 -0.124964,0.816413 0.111607,0.620423 0.178219,-0.147641 0.20145,0.0098 0.04461,0.302338 -0.143191,0.267079 -0.375039,0.23652 -0.449398,-0.05923 z M 6.4108366,11.8267 c -0.1303854,-0.243189 -0.07818,-0.673516 0.1469538,-1.211379 0.1970691,-0.470811 0.3048042,-0.398476 0.1634372,0.109733 -0.05781,0.207821 -0.1053544,0.480367 -0.1056565,0.605662 -3.092e-4,0.18581 0.037073,0.215887 0.2035397,0.163144 0.1982357,-0.06281 0.1995736,-0.05594 0.046711,0.239135 -0.1852291,0.357551 -0.3007712,0.381348 -0.4549858,0.0937 z m 5.4385574,0.08068 c -0.119595,-0.143845 -0.0043,-0.690329 0.249318,-1.182244 0.220909,-0.428388 0.268067,-0.235526 0.08036,0.32862 -0.178678,0.536988 -0.147802,0.695544 0.0961,0.493488 0.181031,-0.149976 0.205965,0.005 0.04815,0.2994 -0.11814,0.220351 -0.319739,0.246186 -0.473925,0.06073 z m -7.83043,-0.706169 c 0.031176,-0.0811 0.088514,-0.147454 0.1274147,-0.147454 0.1015429,0 1.2310736,-0.883722 1.2715899,-0.994867 0.018659,-0.05119 -0.019967,-0.1579038 -0.085845,-0.2371377 -0.1683048,-0.2024366 0.056245,-0.7340567 0.310061,-0.7340567 0.1509872,0 0.1850084,0.074223 0.1850084,0.4036408 0,0.4995683 -0.3902517,1.0291226 -1.1198627,1.5195926 -0.5380459,0.361695 -0.7799687,0.428569 -0.6883663,0.190282 z M 4.5507153,9.9794111 C 4.4633809,9.8165114 4.4799885,9.6839425 4.6301967,9.3449708 4.7346374,9.1092899 4.869424,8.8860227 4.9297255,8.8488213 5.0721788,8.7609385 5.0684079,8.7976881 4.8916451,9.2199882 4.8104002,9.414087 4.7439273,9.6239684 4.7439273,9.6863928 c 0,0.081848 0.041193,0.079371 0.1477178,-0.00888 0.2311874,-0.191518 0.1921782,0.125976 -0.0414,0.3369882 -0.180409,0.162972 -0.1942105,0.161354 -0.2995307,-0.035087 z M 8.5957946,9.3062155 C 8.4619104,9.044249 8.3134441,8.8942128 8.1676597,8.8735596 7.8862738,8.8336914 7.8006795,8.4296242 8.0531364,8.3329198 8.1742846,8.2865151 8.3029584,8.3605574 8.4901702,8.5844077 L 8.7555009,8.9016641 8.8649588,8.4677418 C 9.0042463,7.9155693 9.2161366,7.7148564 9.3655563,7.993549 9.5623633,8.3606318 9.4189855,8.7133634 9.2101022,8.375987 9.1173305,8.2261438 9.0032016,8.5899225 8.9868176,9.0876956 8.9672646,9.6818276 8.8276378,9.7598582 8.5957946,9.3062155 Z M 13.705709,8.8422081 c -0.135523,-0.1630075 -0.09398,-0.6964977 0.09104,-1.1689682 0.167832,-0.4285843 0.248572,-0.2254484 0.108659,0.2733821 -0.121472,0.4330817 -0.07473,0.7054337 0.102314,0.5962074 0.145116,-0.089526 0.106511,0.2135919 -0.04297,0.3374347 -0.102453,0.084879 -0.164392,0.07578 -0.259036,-0.038056 z m 1.473863,-0.1534908 c -0.120991,-0.2256762 -0.04836,-0.6976892 0.165504,-1.0755701 0.129393,-0.2286253 0.134795,-0.2097458 0.07751,0.2708136 -0.05329,0.4470583 -0.04045,0.5084766 0.09545,0.4564211 0.18073,-0.069228 0.203966,0.082869 0.05508,0.3605627 -0.131332,0.2449529 -0.257761,0.2410272 -0.393541,-0.012226 z M 11.366617,7.99163 c -0.06771,-0.067591 -0.123099,-0.2052612 -0.123099,-0.3059289 0,-0.2432677 0.481842,-1.2521921 0.598022,-1.2521921 0.142252,0 0.108803,0.1632409 -0.105263,0.5137146 -0.243054,0.3979397 -0.27414,0.7536342 -0.04961,0.5676201 0.216596,-0.179439 0.198013,0.1128273 -0.02462,0.3872541 -0.137881,0.1699514 -0.196953,0.1878559 -0.295436,0.089532 z M 5.9845365,7.7374427 C 5.8700772,7.6231858 5.9277219,7.0096057 6.0806503,6.7144011 6.2762074,6.3369099 6.3782841,6.4189052 6.2324917,6.8363724 6.0895835,7.245592 6.0939007,7.3182367 6.2611267,7.3182367 c 0.088359,0 0.1204973,0.068712 0.088774,0.1898075 C 6.2980559,7.7059463 6.0862244,7.8389495 5.9845365,7.7374427 Z M 12.720699,5.1745412 c 0,-0.043628 0.121865,-0.1312941 0.270815,-0.1948099 0.26365,-0.1124301 0.261043,-0.1143969 -0.09848,-0.07431 -0.38294,0.042698 -0.453549,-0.019641 -0.25112,-0.2217114 0.122492,-0.1222762 0.885013,-0.1651297 0.994451,-0.055884 0.119072,0.1188569 -0.125771,0.4094847 -0.435892,0.5174005 -0.3715,0.1292743 -0.479776,0.1358893 -0.479776,0.029313 z"/>
 <path style="fill:#ffff13" d="M 11.391236,19.737023 C 11.113102,19.49828 11.095799,19.441352 11.095799,18.765068 v -0.718357 l -0.477215,0.241235 c -0.26247,0.132678 -0.8145445,0.327355 -1.2268357,0.432612 -0.8333137,0.212747 -1.5496599,0.152156 -2.1160362,-0.178973 -0.5447782,-0.318506 -0.7063617,-0.644995 -0.7082384,-1.43104 -7.529e-4,-0.389262 0.033191,-0.884695 0.075821,-1.100962 0.043106,-0.218688 0.040409,-0.338477 -0.00607,-0.269894 -0.1915661,0.282591 -0.7672285,0.613956 -1.0665936,0.613956 -0.515743,0 -0.8266909,-0.453324 -0.8266909,-1.205211 0,-0.355419 0.082504,-0.832272 0.2022474,-1.168936 L 5.1484258,13.410869 4.9215615,13.104254 c -0.177374,-0.239728 -0.2261362,-0.432139 -0.2235147,-0.88197 0.00282,-0.483806 0.072745,-0.710083 0.4394935,-1.422176 0.4381393,-0.8507021 0.6908207,-1.1890691 0.6884724,-0.9219361 -7.529e-4,0.0742 -0.1050098,0.3161331 -0.2319063,0.5376241 -0.4205116,0.73398 -0.69085,1.627187 -0.6148636,2.03152 0.059564,0.316933 0.1056475,0.367362 0.3354046,0.367045 0.3963832,-7.53e-4 0.7604509,-0.261901 1.9668873,-1.411983 L 8.3741354,10.36081 7.6426146,9.8275359 C 7.2402782,9.5342379 6.7142897,9.1699799 6.4737537,9.0180759 5.8672348,8.6350478 5.6928711,8.2031095 5.9326847,7.6777125 6.0505355,7.4195267 6.2136677,7.3038486 7.0335616,6.8970854 7.3450001,6.7425739 7.5998142,6.598429 7.5998142,6.5767622 c 0,-0.021666 -0.072598,-0.1118663 -0.1613337,-0.2004423 C 7.1796166,6.1179167 7.4064241,5.5036528 7.8218183,5.3381121 7.9976136,5.2680551 8.4208346,5.085226 8.762307,4.9318232 9.4353845,4.6294505 11.453167,3.9473366 11.509172,4.003241 11.628868,4.1227264 11.360197,4.3494775 10.919906,4.5005592 9.4374593,5.0092453 7.5998142,5.7784109 7.5998142,5.8902122 c 0,0.029181 0.067141,0.1826612 0.1492004,0.3410649 L 7.8982164,6.5192879 8.4137467,6.3129533 C 10.058325,5.6547271 12.488329,4.950473 13.114942,4.950473 c 0.113071,0 0.316368,0.1105863 0.451772,0.2457472 0.20811,0.2077383 0.236023,0.3027597 0.180496,0.6143939 -0.0957,0.5370804 -0.347857,0.8987433 -1.078799,1.5472834 -0.357555,0.3172461 -0.79006,0.7713537 -0.961121,1.0091292 -0.377952,0.5253504 -0.465291,0.3929298 -0.152795,-0.2316673 0.206462,-0.4126653 0.823672,-1.0800736 1.608439,-1.7392579 0.291156,-0.2445618 0.292385,-0.2497317 0.107838,-0.453293 -0.136151,-0.1501779 -0.305155,-0.2059096 -0.624387,-0.2059096 -0.45058,0 -1.886518,0.3450832 -2.9292815,0.7039598 -1.1696736,0.4025538 -3.4959902,1.4396109 -3.4959902,1.5584895 0,0.033228 0.1440249,0.1345435 0.3200564,0.2251458 0.3354555,0.1726593 1.1360581,0.6526154 2.1174418,1.2693917 L 9.2402189,9.8594139 9.6957096,9.6868209 C 9.9462328,9.5918949 10.174642,9.4908316 10.203282,9.4622386 10.231927,9.4336457 10.161513,8.8759423 10.046816,8.2228959 9.8477985,7.0898101 9.8534131,6.5233246 10.063649,6.5233246 c 0.05313,0 0.0966,0.041299 0.0966,0.091771 0,0.050473 0.139864,0.3163609 0.310807,0.5908596 0.307892,0.4944169 0.325641,0.7387246 0.03625,0.4989773 -0.187124,-0.1550216 -0.195534,-0.026513 -0.04431,0.6773241 0.127089,0.5915448 0.403375,0.9678115 0.846299,1.1525453 0.294065,0.12265 0.328141,0.177558 0.328141,0.5287571 0,0.433894 -0.04617,0.458677 -0.456517,0.245045 -0.328811,-0.171183 -0.852613,-0.192146 -1.127799,-0.04513 -0.1712704,0.09149 -0.074873,0.187098 0.868163,0.860965 0.583454,0.416923 1.227009,0.884574 1.430121,1.039228 l 0.369296,0.281186 v -0.265856 c 0,-0.146222 -0.04766,-1.12099 -0.105917,-2.166157 -0.09129,-1.6379507 -0.0856,-1.938753 0.04126,-2.1788155 l 0.147173,-0.2785139 0.21297,0.4915147 c 0.496912,1.1468242 0.586943,1.7393986 0.184997,1.2175884 l -0.180678,-0.2345552 0.0066,0.5406674 c 0.0036,0.297366 0.05801,1.1557321 0.120907,1.9074811 l 0.114356,1.366814 0.383109,0.198255 c 0.351902,0.182105 0.416075,0.18688 0.787829,0.05858 l 0.404723,-0.139675 0.01809,-0.589818 c 0.01,-0.3244 -0.02282,-0.943711 -0.07282,-1.376244 -0.05,-0.432536 -0.133612,-1.3836201 -0.185792,-2.1135202 -0.05218,-0.7299015 -0.1439,-1.9365026 -0.203816,-2.6813358 -0.101849,-1.2660836 -0.07938,-1.7449261 0.08168,-1.7404351 0.09341,0.00261 0.707332,1.4131222 0.707332,1.6251462 0,0.1633369 -0.0109,0.1630611 -0.196957,-0.00502 -0.240879,-0.2176032 -0.237658,-0.3085185 -0.05571,1.5728495 0.398734,4.1228784 0.423027,4.7252644 0.217941,5.4044664 -0.199427,0.660461 -0.912399,0.996716 -1.57786,0.74416 l -0.246703,-0.09363 0.01872,1.641908 c 0.01807,1.585353 -0.11017,2.575782 -0.33351,2.575782 -0.04424,0 -0.07172,-0.431305 -0.06106,-0.958456 0.01068,-0.52715 -0.01811,-1.561258 -0.06392,-2.298015 l -0.08329,-1.339563 -0.655294,-0.497615 c -0.360408,-0.273689 -0.743942,-0.577732 -0.852292,-0.675657 -0.108352,-0.09792 -0.456655,-0.371139 -0.77401,-0.607151 l -0.5770146,-0.429106 0.2496596,0.429111 c 0.32656,0.561287 0.412136,1.060665 0.261957,1.528617 -0.186591,0.581396 -0.449545,0.792919 -1.3186827,1.060746 -0.9276981,0.285875 -1.7608781,0.739215 -1.9843877,1.079726 -0.086469,0.13173 -0.202831,0.518301 -0.2585807,0.859042 -0.1302686,0.79617 0.021821,1.270531 0.541358,1.688449 0.3205712,0.257874 0.4739359,0.30712 1.0592247,0.340131 0.9862176,0.05562 2.2941974,-0.420077 3.2772614,-1.191916 0.449399,-0.352841 0.447691,-0.447567 -0.03205,-1.776916 -0.239688,-0.664156 -0.298745,-0.955894 -0.248081,-1.225473 l 0.06649,-0.35381 0.430912,0.4882 c 0.478207,0.541781 0.534657,0.683691 0.241522,0.60717 -0.243116,-0.06346 -0.243114,-0.04385 3.5e-5,0.594783 0.218662,0.574283 0.256366,1.298939 0.08468,1.627411 -0.06173,0.118094 -0.29852,0.415534 -0.526198,0.660975 -0.339042,0.365491 -0.426523,0.540777 -0.483365,0.968508 -0.053,0.398804 -0.03283,0.577969 0.08532,0.757958 0.316318,0.481903 0.626197,0.275267 2.099692,-1.400148 0.52012,-0.591394 0.735152,-0.733546 1.829252,-1.209279 l 0.578215,-0.251418 0.02063,-0.688122 c 0.02751,-0.918024 0.308315,-1.425398 0.788858,-1.425398 0.174818,0 0.265667,0.09281 0.38688,0.395204 0.08712,0.217364 0.15841,0.477219 0.15841,0.577459 0,0.306828 -0.290396,1.024531 -0.50818,1.255938 -0.298766,0.317455 -0.175587,0.523891 0.312609,0.523891 0.29496,0 0.465616,-0.06402 0.643204,-0.241291 0.293288,-0.292766 0.297463,-0.428473 0.09697,-3.150171 -0.455418,-6.1821519 -0.493993,-7.2298839 -0.265955,-7.2234105 0.07551,0.00216 0.706141,1.3960058 0.706141,1.5607592 0,0.1672658 -0.175511,0.1285016 -0.287545,-0.06351 -0.142119,-0.2435698 -0.13598,0.1374866 0.03672,2.2799393 0.459618,5.70174 0.433226,6.536401 -0.226637,7.167467 -0.565332,0.540656 -1.258442,0.527679 -1.504928,-0.02819 -0.07355,-0.16588 -0.183862,-0.301599 -0.245124,-0.301599 -0.246264,0 -1.663111,0.715486 -2.01898,1.019556 -0.208949,0.178535 -0.597249,0.611195 -0.862885,0.961469 -0.767002,1.011379 -1.187191,1.184366 -1.734884,0.71423 z m 5.246695,-3.733012 c 0.254256,-0.177771 0.290738,-0.597511 0.07692,-0.884945 -0.297766,-0.400276 -0.661055,0.17935 -0.503976,0.804092 0.06906,0.274683 0.132619,0.286717 0.427057,0.08086 z M 5.9380687,15.591147 C 6.0802997,15.496887 6.4361688,15.172463 6.7288925,14.870203 7.4728231,14.102042 7.9290837,13.828129 9.1484001,13.417676 10.027173,13.121859 10.214729,13.023779 10.23997,12.846852 10.285184,12.529916 9.9319227,11.912005 9.3568739,11.302187 8.748611,10.657145 8.9121625,10.590236 7.3323832,12.130406 6.6565979,12.789248 6.0428818,13.297697 5.7870814,13.410645 5.4446199,13.561862 5.3322002,13.678909 5.204349,14.017369 c -0.3812812,1.009347 -0.2959866,1.74699 0.2018736,1.745807 0.1502885,-3.07e-4 0.3896188,-0.07777 0.5318461,-0.172029 z M 6.286759,14.51865 c -0.1229793,-0.122758 -0.066125,-0.837636 0.093287,-1.172969 0.160335,-0.337278 0.414575,-0.482237 0.2846795,-0.162315 -0.210599,0.518688 -0.2607651,0.730825 -0.20632,0.872455 0.048947,0.127321 0.088396,0.13416 0.2070216,0.03589 0.1718941,-0.142405 0.1805666,-0.101141 0.050511,0.240324 -0.091749,0.240887 -0.2889214,0.326627 -0.4291778,0.18662 z M 7.7778075,12.884922 C 7.5194448,12.67285 7.5168744,12.660349 7.67752,12.39694 c 0.1854546,-0.304095 0.3330983,-0.339447 0.513158,-0.122877 0.1703077,0.204839 0.3570305,0.184104 0.5272987,-0.05855 l 0.1445524,-0.206007 0.3041854,0.224493 c 0.3542046,0.261408 0.3675189,0.34951 0.1010757,0.668901 L 9.0712335,13.138514 8.8195484,12.902896 8.5678633,12.667275 8.3881052,12.888457 c -0.2204808,0.27129 -0.2758747,0.27097 -0.6102977,-0.0036 z m 5.7338515,7.032214 c 0.0017,-0.04055 0.0682,-0.159596 0.147716,-0.264546 0.188046,-0.248179 0.186341,-0.457976 -0.0031,-0.385398 -0.213433,0.08176 -0.181421,-0.100137 0.05526,-0.313943 0.173704,-0.15692 0.216082,-0.162662 0.293926,-0.03981 0.130106,0.205326 0.119037,0.268867 -0.121117,0.695405 -0.194245,0.344998 -0.380762,0.499303 -0.372648,0.308293 z m 1.627849,-0.664171 c -0.08374,-0.200055 -0.24958,-0.384652 -0.395234,-0.439932 -0.28752,-0.109119 -0.368068,-0.591628 -0.09877,-0.591628 0.158943,0 0.513899,0.326309 0.687633,0.632133 0.0943,0.16599 0.10231,0.164035 0.11684,-0.02851 0.02111,-0.279699 0.247419,-0.727828 0.391137,-0.7745 0.150764,-0.04896 0.46285,0.423123 0.374285,0.566169 -0.04631,0.07478 -0.125658,0.0565 -0.252634,-0.05821 -0.206434,-0.186489 -0.184621,-0.218549 -0.389366,0.572222 -0.06649,0.256815 -0.158861,0.466938 -0.205259,0.466938 -0.0464,0 -0.149283,-0.155109 -0.228635,-0.344685 z M 5.7322033,17.656161 c 0.00193,-0.04056 0.066822,-0.184318 0.1442273,-0.319485 0.1813091,-0.316598 0.1813091,-0.393213 0,-0.393213 -0.1780677,0 -0.1903788,-0.1147 -0.029543,-0.275249 0.1620432,-0.161756 0.3416187,-0.14795 0.4106314,0.03158 0.061571,0.160171 -0.3184136,1.030103 -0.4499495,1.030103 -0.043369,0 -0.077287,-0.03318 -0.075367,-0.07372 z M 8.0930404,17.340214 C 7.9317816,17.237413 7.8901237,16.498338 8.0195656,16.036753 l 0.075082,-0.267738 -0.3501039,0.206198 C 7.3774619,16.19141 7.1933344,16.163282 7.3941946,15.921683 7.5211485,15.768989 8.7110442,15.032601 9.0165645,14.917656 9.3191824,14.8038 9.1575664,15.093438 8.7739594,15.352434 8.2894193,15.679573 8.1455201,16.012929 8.1797789,16.7289 c 0.00867,0.181301 0.051109,0.215067 0.2078588,0.165406 0.2428394,-0.07694 0.2528667,0.05854 0.024616,0.332605 -0.1247515,0.149797 -0.2128936,0.181079 -0.3192154,0.113298 z M 9.5367972,16.447462 C 9.2295629,16.206223 9.2095577,16.058349 9.4462829,15.778424 l 0.1723364,-0.203789 0.2914098,0.237559 c 0.2546869,0.207622 0.2795069,0.271178 0.1969569,0.504351 -0.1243541,0.351252 -0.2521974,0.380606 -0.5701888,0.130917 z m 1.2728188,-0.08361 c -0.197753,-0.218123 -0.197746,-0.445544 3e-5,-1.024953 0.181244,-0.53097 0.367608,-0.535365 0.220964,-0.0052 -0.113142,0.409038 -0.02611,0.952046 0.115841,0.722769 0.118157,-0.190841 0.199955,-0.08494 0.132695,0.171803 -0.07484,0.285695 -0.27979,0.344881 -0.46953,0.135594 z m 3.191304,-0.288796 c 0,-0.05666 0.04286,-0.129463 0.09525,-0.161783 0.05239,-0.03232 0.07063,-0.181706 0.04052,-0.331971 -0.0411,-0.205135 0.01203,-0.352416 0.213257,-0.591134 0.303713,-0.360297 0.685001,-0.394764 0.685001,-0.06192 0,0.151538 -0.06566,0.196605 -0.286412,0.196605 -0.157527,0 -0.303992,0.05154 -0.325475,0.114538 -0.05576,0.163474 0.323612,0.259284 0.727311,0.183686 0.289124,-0.05415 0.339192,-0.03802 0.311495,0.10029 -0.02038,0.10174 -0.240263,0.230946 -0.574637,0.337653 -0.297897,0.09507 -0.619184,0.205297 -0.71397,0.244953 -0.100447,0.04201 -0.172337,0.02912 -0.172337,-0.03092 z m 4.874693,-1.367934 c 0,-0.797515 -0.07827,-2.562232 -0.173933,-3.921595 -0.130648,-1.8565181 -0.146861,-2.5414784 -0.06515,-2.752492 0.107291,-0.2770649 0.113346,-0.2701298 0.441288,0.5055072 0.182876,0.4325316 0.334062,0.8417207 0.335965,0.9093042 0.0051,0.1798515 -0.167933,0.1499215 -0.28409,-0.049152 -0.142093,-0.243526 -0.132302,0.2650015 0.04211,2.1872476 0.188118,2.073243 0.1866,3.419122 -0.0045,4.061737 -0.08334,0.280147 -0.183055,0.509386 -0.221577,0.509414 -0.03853,2.9e-5 -0.07004,-0.652458 -0.07004,-1.449972 z m -9.5008638,0.316637 c 0.068705,-0.08264 0.4698888,-0.440846 0.8915178,-0.796019 0.421629,-0.35517 0.790648,-0.708327 0.820042,-0.784793 0.02939,-0.07646 0.004,-0.247282 -0.05636,-0.379594 -0.08808,-0.192967 -0.07651,-0.29129 0.05847,-0.496928 0.135697,-0.206733 0.195598,-0.23373 0.309405,-0.139446 0.07762,0.0643 0.14113,0.235364 0.14113,0.380131 0,0.144767 0.04932,0.31244 0.109596,0.372609 0.128647,0.128421 0.02703,0.340502 -0.144324,0.30122 -0.06509,-0.01491 -0.29257,0.165366 -0.505502,0.400633 -0.444003,0.490582 -1.4558321,1.292439 -1.6308791,1.292439 -0.088693,0 -0.086976,-0.03734 0.0069,-0.150252 z m 5.6109558,-0.625515 c 0,-0.05993 0.08863,-0.108962 0.196957,-0.108962 0.108327,0 0.196958,-0.04776 0.196958,-0.106116 0,-0.06784 -0.115448,-0.0821 -0.320057,-0.03954 l -0.320054,0.06657 0.212378,-0.218873 c 0.173815,-0.179134 0.276633,-0.206841 0.566252,-0.152606 0.395954,0.07415 0.433309,0.152038 0.181536,0.378528 -0.225473,0.20283 -0.71397,0.326675 -0.71397,0.181008 z M 4.0201349,14.214876 c -0.030429,-0.04915 0.053575,-0.24934 0.1866778,-0.444867 0.2249573,-0.330466 0.2298528,-0.362392 0.069505,-0.453221 -0.1605057,-0.09092 -0.161175,-0.109163 -0.00963,-0.262369 0.2266652,-0.229117 0.4117473,-0.08492 0.3414355,0.266016 -0.069541,0.347083 -0.5110644,1.018708 -0.5880027,0.894441 z M 15.923537,13.603673 c -0.164773,-0.181749 -0.165601,-0.209869 -0.01299,-0.442363 0.187417,-0.285523 0.235888,-0.295073 0.496996,-0.09792 0.171573,0.129545 0.214123,0.122276 0.421224,-0.07194 l 0.230373,-0.216035 0.26589,0.265414 0.26589,0.265416 -0.264843,0.264369 c -0.258889,0.258429 -0.269353,0.260296 -0.465537,0.08307 -0.187142,-0.169064 -0.212854,-0.170319 -0.380785,-0.01862 -0.233817,0.211224 -0.341777,0.205129 -0.556214,-0.0314 z m 0.34239,-1.098923 c 0,-0.192115 -0.02854,-0.621823 -0.06342,-0.954907 l -0.06341,-0.605603 -0.342916,0.201966 c -0.375086,0.220912 -0.585249,0.168672 -0.268697,-0.0668 0.673263,-0.500798 0.628757,-0.375204 0.534645,-1.5086911 -0.290506,-3.4988475 -0.309947,-4.423646 -0.09299,-4.423646 0.0926,0 0.690695,1.4157838 0.690695,1.6349955 0,0.1500452 -0.01779,0.1488701 -0.196965,-0.013016 -0.194799,-0.1759703 -0.196497,-0.1726278 -0.154505,0.3042554 0.02335,0.2651981 0.076,0.9466652 0.117004,1.5143672 0.04101,0.5677 0.08282,1.0653579 0.09296,1.1059089 0.01014,0.04055 0.02394,0.189734 0.03072,0.3315241 0.01053,0.220707 0.03416,0.239691 0.164203,0.131959 0.105377,-0.0873 0.120456,-0.1572131 0.04924,-0.2283041 -0.14421,-0.143951 -0.127643,-0.4829724 0.0344,-0.7041949 0.11278,-0.1539586 0.163532,-0.1651802 0.286467,-0.063334 0.187981,0.1557318 0.197413,0.999292 0.01119,0.999292 -0.24816,0 -0.539955,0.502876 -0.479453,0.826276 0.06603,0.352951 -0.119338,1.636345 -0.256206,1.773842 -0.05841,0.05867 -0.09296,-0.03645 -0.09296,-0.255913 z m 3.191595,-0.133032 c -0.07544,-0.300029 0.0251,-0.879084 0.216889,-1.249323 0.23461,-0.452874 0.315275,-0.308631 0.131104,0.23443 -0.182163,0.537138 -0.1564,0.815166 0.0676,0.729366 0.160853,-0.06162 0.163034,-0.04596 0.03897,0.279774 -0.122654,0.322034 -0.374229,0.325221 -0.454553,0.0057 z m -5.614029,-0.396182 c -0.0981,-0.390172 0.176473,-1.42178 0.378423,-1.42178 0.107535,0 0.09372,0.09049 -0.08524,0.558249 -0.18489,0.483273 -0.124964,0.816413 0.111607,0.620423 0.178219,-0.147641 0.20145,0.0098 0.04461,0.302338 -0.143191,0.267079 -0.375039,0.23652 -0.449398,-0.05923 z M 6.4108366,11.326699 C 6.2804512,11.08351 6.3326566,10.653183 6.5577904,10.11532 6.7548595,9.6445079 6.8625946,9.7168429 6.7212276,10.225053 c -0.05781,0.207821 -0.1053544,0.480367 -0.1056565,0.605662 -3.092e-4,0.18581 0.037073,0.215887 0.2035397,0.163144 0.1982357,-0.06281 0.1995736,-0.05594 0.046711,0.239135 -0.1852291,0.357551 -0.3007712,0.381348 -0.4549858,0.0937 z m 5.4385574,0.08068 c -0.119595,-0.143845 -0.0043,-0.690329 0.249318,-1.182244 0.220909,-0.4283891 0.268067,-0.2355261 0.08036,0.32862 -0.178678,0.536988 -0.147802,0.695544 0.0961,0.493488 0.181031,-0.149976 0.205965,0.005 0.04815,0.2994 -0.11814,0.220351 -0.319739,0.246186 -0.473925,0.06073 z M 4.018964,10.70121 c 0.031176,-0.0811 0.088514,-0.147454 0.1274147,-0.147454 0.1015429,0 1.2310736,-0.8837231 1.2715899,-0.9948691 0.018659,-0.05119 -0.019967,-0.1579033 -0.085845,-0.2371372 -0.1683048,-0.2024366 0.056245,-0.7340567 0.310061,-0.7340567 0.1509872,0 0.1850084,0.074223 0.1850084,0.4036408 0,0.4995683 -0.3902517,1.0291242 -1.1198627,1.5195942 C 4.1692844,10.872623 3.9273616,10.939497 4.018964,10.70121 Z M 4.5507153,9.4794085 C 4.4633809,9.3165088 4.4799885,9.1839399 4.6301967,8.8449682 4.7346374,8.6092873 4.869424,8.3860201 4.9297255,8.3488187 5.0721788,8.2609359 5.0684079,8.2976855 4.8916451,8.7199856 4.8104002,8.9140844 4.7439273,9.1239658 4.7439273,9.1863902 c 0,0.081848 0.041193,0.079371 0.1477178,-0.00888 0.2311874,-0.191518 0.1921782,0.125976 -0.0414,0.3369877 -0.180409,0.162973 -0.1942105,0.161355 -0.2995307,-0.035087 z M 8.5957946,8.8062129 C 8.4619104,8.5442464 8.3134441,8.3942102 8.1676597,8.373557 7.8862738,8.3336888 7.8006795,7.9296216 8.0531364,7.8329172 8.1742846,7.7865125 8.3029584,7.8605548 8.4901702,8.0844051 L 8.7555009,8.4016615 8.8649588,7.9677392 C 9.0042463,7.4155667 9.2161366,7.2148538 9.3655563,7.4935464 9.5623633,7.8606292 9.4189855,8.2133608 9.2101022,7.8759844 9.1173305,7.7261412 9.0032016,8.0899199 8.9868176,8.587693 8.9672646,9.181825 8.8276378,9.2598556 8.5957946,8.8062129 Z M 13.705709,8.3422055 c -0.135523,-0.1630075 -0.09398,-0.6964977 0.09104,-1.1689682 0.167832,-0.4285843 0.248572,-0.2254484 0.108659,0.2733821 -0.121472,0.4330817 -0.07473,0.7054337 0.102314,0.5962074 0.145116,-0.089526 0.106511,0.2135919 -0.04297,0.3374347 -0.102453,0.084879 -0.164392,0.07578 -0.259036,-0.038056 z m 1.473863,-0.1534908 c -0.120991,-0.2256762 -0.04836,-0.6976892 0.165504,-1.0755701 0.129393,-0.2286253 0.134795,-0.2097458 0.07751,0.2708136 -0.05329,0.4470583 -0.04045,0.5084766 0.09545,0.4564211 0.18073,-0.069228 0.203966,0.082869 0.05508,0.3605627 -0.131332,0.2449529 -0.257761,0.2410272 -0.393541,-0.012226 z M 11.366617,7.4916274 c -0.06771,-0.067591 -0.123099,-0.2052612 -0.123099,-0.3059289 0,-0.2432677 0.481842,-1.2521921 0.598022,-1.2521921 0.142252,0 0.108803,0.1632409 -0.105263,0.5137146 -0.243054,0.3979397 -0.27414,0.7536342 -0.04961,0.5676201 0.216596,-0.179439 0.198013,0.1128273 -0.02462,0.3872541 -0.137881,0.1699514 -0.196953,0.1878559 -0.295436,0.089532 z M 5.9845365,7.2374401 C 5.8700772,7.1231832 5.9277219,6.5096031 6.0806503,6.2143985 6.2762074,5.8369073 6.3782841,5.9189026 6.2324917,6.3363698 c -0.1429082,0.4092196 -0.138591,0.4818643 0.028635,0.4818643 0.088359,0 0.1204973,0.068712 0.088774,0.1898075 C 6.2980559,7.2059437 6.0862244,7.3389469 5.9845365,7.2374401 Z M 12.720699,4.6745386 c 0,-0.043628 0.121865,-0.1312941 0.270815,-0.1948099 0.26365,-0.1124301 0.261043,-0.1143969 -0.09848,-0.07431 -0.38294,0.042698 -0.453549,-0.019641 -0.25112,-0.2217114 0.122492,-0.1222762 0.885013,-0.1651297 0.994451,-0.055884 0.119072,0.1188569 -0.125771,0.4094847 -0.435892,0.5174005 -0.3715,0.1292743 -0.479776,0.1358893 -0.479776,0.029313 z"/>
</svg>
