<svg xmlns="http://www.w3.org/2000/svg" width="24" height="24" version="1">
 <rect style="opacity:0.2" width="20" height="20" x="2" y="2.5" rx="1" ry="1"/>
 <rect style="fill:#ffc83b" width="20" height="20" x="2" y="2" rx="1" ry="1"/>
 <rect style="opacity:0.2;fill:#8b9cbe" width="20" height=".5" x="2" y="15"/>
 <path style="opacity:0.2;fill:#8b9cbe" d="M 3,2 C 2.446,2 2,2.446 2,3 v 0.5 c 0,-0.554 0.446,-1 1,-1 h 18 c 0.554,0 1,0.446 1,1 V 3 C 22,2.446 21.554,2 21,2 Z"/>
 <rect style="fill:#be8a06" width="20" height="6" x="2" y="9"/>
 <rect style="opacity:0.2" width="20" height=".5" x="2" y="9"/>
 <circle style="fill:#1ac52f" cx="12" cy="12" r="3.5"/>
 <g style="opacity:0.2" transform="matrix(0.5,0,0,0.5,0.99500015,1.4997717)">
  <path d="M 22,12 A 10,10 0 0 0 12,22 10,10 0 0 0 22,32 10,10 0 0 0 32,22 10,10 0 0 0 22,12 Z m 0,4 a 6,6 0 0 1 6,6 6,6 0 0 1 -6,6 6,6 0 0 1 -6,-6 6,6 0 0 1 6,-6 z"/>
  <path style="stroke:#8b9cbe;stroke-width:4;stroke-linecap:round" d="M 28.310137,28.760862 34,33.999099"/>
  <path transform="matrix(2,0,0,2,-1.9900003,-1.9989006)" d="m 11.994141,7 a 5,5 0 0 0 -5.0000004,5 5,5 0 0 0 5.0000004,5 5,5 0 0 0 2.623047,-0.75 l 2.699218,2.484375 a 1.000392,1.000392 0 0 0 1.355469,-1.470703 l -2.59375,-2.386719 A 5,5 0 0 0 16.994141,12 a 5,5 0 0 0 -5,-5 z m 0,2 a 3,3 0 0 1 3,3 3,3 0 0 1 -3,3 3,3 0 0 1 -3.0000004,-3 3,3 0 0 1 3.0000004,-3 z"/>
 </g>
 <path style="opacity:0.3" d="m 9,9 v 2 h 2 V 9 Z m 2,2 v 2 h 2 v -2 z m 2,0 h 2 V 9 h -2 z m 0,2 v 2 h 2 v -2 z m -2,0 H 9 v 2 h 2 z"/>
 <g transform="matrix(0.5,0,0,0.5,0.99500015,0.9994503)">
  <path style="fill:#8b9cbe" d="M 22,12 A 10,10 0 0 0 12,22 10,10 0 0 0 22,32 10,10 0 0 0 32,22 10,10 0 0 0 22,12 Z m 0,4 a 6,6 0 0 1 6,6 6,6 0 0 1 -6,6 6,6 0 0 1 -6,-6 6,6 0 0 1 6,-6 z"/>
  <path style="fill:none;stroke:#8b9cbe;stroke-width:4;stroke-linecap:round" d="M 28.310137,28.760862 34,33.999099"/>
  <path style="fill:#8b9cbe" transform="matrix(2,0,0,2,-1.9900003,-1.9989006)" d="M 11.994141 7 A 5 5 0 0 0 6.9941406 12 A 5 5 0 0 0 11.994141 17 A 5 5 0 0 0 14.617188 16.25 L 17.316406 18.734375 A 1.000392 1.000392 0 0 0 18.671875 17.263672 L 16.078125 14.876953 A 5 5 0 0 0 16.994141 12 A 5 5 0 0 0 11.994141 7 z M 11.994141 9 A 3 3 0 0 1 14.994141 12 A 3 3 0 0 1 11.994141 15 A 3 3 0 0 1 8.9941406 12 A 3 3 0 0 1 11.994141 9 z"/>
 </g>
</svg>
