<svg xmlns="http://www.w3.org/2000/svg" width="24" height="24" version="1.1">
 <circle style="opacity:0.2" cx="12" cy="12.5" r="10"/>
 <circle style="fill:#455a64" cx="12" cy="12" r="10"/>
 <path style="opacity:0.2" d="m 13.286743,7.5145534 c -0.527521,-0.069985 -1.091287,0.11428 -1.474716,0.5111112 0.101889,0.2145773 0.725376,0.1080595 0.950193,0.4072649 0.334801,0.2883901 0.9106,0.9205052 0.481796,1.3569002 C 11.576623,11.419903 9.563363,13.420523 7.906602,15.063919 7.604423,15.445511 7.08044,15.69884 7,16.229647 c 0.0988,0.528904 0.561085,0.9071 0.928209,1.225527 0.164015,0.08825 0.388132,0.04107 0.517031,-0.09659 2.197199,-2.348352 3.753071,-4.321032 5.763395,-6.574241 0.246316,-0.212395 0.668723,-0.190627 0.66189,0.254375 -0.277971,0.483546 0.425519,0.767381 0.648291,1.122874 0.255848,0.189671 0.432409,-0.179592 0.620251,-0.314603 C 16.415566,11.479931 16.98708,11.250622 17,10.730709 16.683281,10.414517 16.420721,9.6388325 15.941611,9.8393124 15.466074,9.6198797 15.664811,8.8187007 15.159145,8.5447074 14.760076,8.2146552 14.242037,8.1388285 13.876413,7.7159896 13.694067,7.6082456 13.493164,7.5419396 13.286743,7.5145534 Z"/>
 <path style="opacity:0.1;fill:#8b9cbe" d="M 12,2 A 10,10 0 0 0 2,12 10,10 0 0 0 2.01074,12.291016 10,10 0 0 1 11.999998,2.5 10,10 0 0 1 21.989256,12.208985 10,10 0 0 0 21.999998,12 a 10,10 0 0 0 -10,-10 z"/>
 <path style="fill:#00ad9a" d="m 13.286743,7.0145574 c -0.527521,-0.069985 -1.091287,0.11428 -1.474716,0.5111112 0.101889,0.2145773 0.725376,0.1080595 0.950193,0.4072649 0.334801,0.2883901 0.9106,0.9205052 0.481796,1.3569002 C 11.576623,10.919907 9.563363,12.920527 7.906602,14.563923 7.604423,14.945515 7.08044,15.198844 7,15.729651 c 0.0988,0.528904 0.561085,0.9071 0.928209,1.225527 0.164015,0.08825 0.388132,0.04107 0.517031,-0.09659 2.197199,-2.348352 3.753071,-4.321032 5.763395,-6.574241 0.246316,-0.212395 0.668723,-0.190627 0.66189,0.254375 -0.277971,0.483546 0.425519,0.767381 0.648291,1.122874 0.255848,0.189671 0.432409,-0.179592 0.620251,-0.314603 C 16.415566,10.979935 16.98708,10.750626 17,10.230713 16.683281,9.9145213 16.420721,9.1388365 15.941611,9.3393164 15.466074,9.1198837 15.664811,8.3187047 15.159145,8.0447114 14.760076,7.7146592 14.242037,7.6388325 13.876413,7.2159936 13.694067,7.1082496 13.493164,7.0419436 13.286743,7.0145574 Z"/>
 <path style="opacity:0.2" d="M 8.843732,7.5005173 C 8.676741,7.5033473 8.510393,7.5166733 8.350418,7.5324123 7.590977,7.5797733 8.063783,8.1455917 8.527213,8.2584379 9.286265,8.474974 9.282018,9.3368974 8.831082,9.8779718 8.418425,10.578665 7.798433,9.9129608 7.317058,9.6837407 6.599406,9.5647736 7.292558,10.561887 7.520652,10.806297 c 0.341871,0.528631 0.923721,0.782185 1.522028,0.690991 0.751129,-0.107523 1.279384,0.532462 1.775189,1.01491 1.396749,1.302063 2.818546,2.726774 4.223643,4.155265 0.206561,0.176811 0.432132,0.378446 0.591156,0.60467 0.771914,0.725079 1.923013,-0.431186 1.060732,-1.357446 C 14.907482,14.270004 13.072309,12.37636 11.422129,10.766742 11.15205,10.502228 10.899868,10.222536 10.727458,9.8781882 10.435973,9.2744594 10.746798,8.467916 10.206467,7.9845532 9.851152,7.5794065 9.344702,7.4922308 8.843732,7.5005173 Z"/>
 <path style="fill:#1092ff" d="M 8.843732,7.0005213 C 8.676741,7.0033513 8.510393,7.0166773 8.350418,7.0324163 7.590977,7.0797773 8.063783,7.6455957 8.527213,7.7584419 9.286265,7.974978 9.282018,8.8369014 8.831082,9.3779758 8.418425,10.078669 7.798433,9.4129648 7.317058,9.1837447 6.599406,9.0647776 7.292558,10.061891 7.520652,10.306301 c 0.341871,0.528631 0.923721,0.782185 1.522028,0.690991 0.751129,-0.107523 1.279384,0.532462 1.775189,1.01491 1.396749,1.302063 2.818546,2.726774 4.223643,4.155265 0.206561,0.176811 0.432132,0.378446 0.591156,0.60467 0.771914,0.725079 1.923013,-0.431186 1.060732,-1.357446 C 14.907482,13.770008 13.072309,11.876364 11.422129,10.266746 11.15205,10.002232 10.899868,9.72254 10.727458,9.3781922 10.435973,8.7744634 10.746803,7.96792 10.206467,7.4845572 9.851152,7.0794105 9.344702,6.9922348 8.843732,7.0005213 Z"/>
</svg>
