<svg xmlns="http://www.w3.org/2000/svg" width="24" height="24" version="1.1">
 <path style="opacity:0.2" d="M 5.2714844,5.5000003 A 0.77763233,0.86615308 0 0 0 4.5205077,6.1386723 L 1.5273438,18.40625 A 0.77763233,0.86615308 0 0 0 2.2773437,19.5 h 3.4521482 a 0.77763233,0.86615308 0 0 0 0.75,-0.639648 L 9.4726559,6.5927738 a 0.77763233,0.86615308 0 0 0 -0.75,-1.0927735 z m 6.4999996,0 a 0.77763233,0.86615308 0 0 0 -0.750976,0.638672 L 8.0273439,18.40625 a 0.77763233,0.86615308 0 0 0 0.75,1.09375 h 3.4521481 a 0.77763233,0.86615308 0 0 0 0.75,-0.639648 L 15.972656,6.5927738 a 0.77763233,0.86615308 0 0 0 -0.75,-1.0927735 z m 6.5,0 a 0.77763233,0.86615308 0 0 0 -0.750976,0.638672 L 14.527344,18.40625 a 0.77763233,0.86615308 0 0 0 0.75,1.09375 h 3.452148 a 0.77763233,0.86615308 0 0 0 0.75,-0.639648 L 22.472656,6.5927738 a 0.77763233,0.86615308 0 0 0 -0.75,-1.0927735 z"/>
 <path style="fill:#dd2f38" d="M 5.2715444,5.0000013 A 0.77763233,0.86615308 0 0 0 4.520566,5.6385558 L 1.5272846,17.906422 A 0.77763233,0.86615308 0 0 0 2.2775036,19 H 5.7294209 A 0.77763233,0.86615308 0 0 0 6.4796394,18.3606 L 9.4729219,6.0927333 A 0.77763233,0.86615308 0 0 0 8.7227034,5.0000013 Z"/>
 <path style="fill:#0766b5" d="M 18.271544,5.0000013 A 0.77763233,0.86615308 0 0 0 17.520566,5.6385558 L 14.527284,17.906422 A 0.77763233,0.86615308 0 0 0 15.277503,19 h 3.451918 a 0.77763233,0.86615308 0 0 0 0.750218,-0.6394 L 22.472922,6.0927333 a 0.77763233,0.86615308 0 0 0 -0.750219,-1.092732 z"/>
 <path style="fill:#27a74e" d="M 11.771544,5.0000008 A 0.77763233,0.86615308 0 0 0 11.020566,5.6385553 L 8.0272844,17.906422 A 0.77763233,0.86615308 0 0 0 8.7775034,19 h 3.4519176 a 0.77763233,0.86615308 0 0 0 0.750218,-0.639401 L 15.972922,6.0927328 a 0.77763233,0.86615308 0 0 0 -0.750219,-1.092732 z"/>
 <path style="opacity:0.2;fill:#8b9cbe" d="M 5.2714844,5.0000003 A 0.77763233,0.86615308 0 0 0 4.5205077,5.6386723 L 1.5273438,17.90625 a 0.77763233,0.86615308 0 0 0 0.00586,0.47461 L 4.5205077,6.1386723 a 0.77763233,0.86615308 0 0 1 0.7509767,-0.638672 h 3.4511715 a 0.77763233,0.86615308 0 0 1 0.7431645,0.6191405 l 0.00684,-0.026365 A 0.77763233,0.86615308 0 0 0 8.7226559,5.0000003 Z m 6.4999996,0 a 0.77763233,0.86615308 0 0 0 -0.750976,0.638672 L 8.0273439,17.90625 a 0.77763233,0.86615308 0 0 0 0.00586,0.47461 L 11.020509,6.1386723 a 0.77763233,0.86615308 0 0 1 0.750975,-0.638672 h 3.451172 a 0.77763233,0.86615308 0 0 1 0.743164,0.6191405 l 0.0068,-0.026365 A 0.77763233,0.86615308 0 0 0 15.222656,5.0000003 Z m 6.5,0 a 0.77763233,0.86615308 0 0 0 -0.750976,0.638672 L 14.527344,17.90625 a 0.77763233,0.86615308 0 0 0 0.0059,0.47461 L 17.520509,6.1386723 a 0.77763233,0.86615308 0 0 1 0.750975,-0.638672 h 3.451172 a 0.77763233,0.86615308 0 0 1 0.743164,0.6191405 l 0.0068,-0.026365 A 0.77763233,0.86615308 0 0 0 21.722656,5.0000003 Z"/>
</svg>
