<svg xmlns="http://www.w3.org/2000/svg" width="24" height="24" version="1">
 <path style="opacity:0.2" d="M 18.75 13 C 17.245514 13.0019 15.938985 14.036121 15.591797 15.5 L 11.898438 15.5 A 5 5 0 0 1 7 19.5 L 18.75 19.5 C 20.544925 19.5 22 18.044925 22 16.25 C 22 14.455075 20.544925 13 18.75 13 z M 7 19.5 A 5 5 0 0 1 6.8007812 19.490234 A 5 5 0 0 1 6.5 19.5 L 7 19.5 z"/>
 <path style="fill:#138985" d="m 18.75,12.499999 c -1.504486,0.0019 -2.811015,1.036121 -3.158203,2.5 H 7 v 4 h 11.75 c 1.794925,0 3.25,-1.455075 3.25,-3.25 0,-1.794925 -1.455075,-3.25 -3.25,-3.25 z"/>
 <path style="opacity:0.1;fill:#8b9cbe" d="m 18.75,12.499999 a 3.25,3.25 0 0 0 -3.158203,2.5 H 6 v 0.5 h 9.591797 a 3.25,3.25 0 0 1 3.158203,-2.5 3.25,3.25 0 0 1 3.238281,3.014649 3.25,3.25 0 0 0 0.01172,-0.264649 3.25,3.25 0 0 0 -3.25,-3.25 z"/>
 <circle style="opacity:0.2" cx="18" cy="11.5" r="3"/>
 <circle style="opacity:0.2" cx="7" cy="14.5" r="5"/>
 <circle style="fill:#16aca8" cx="7" cy="14" r="5"/>
 <path style="opacity:0.1;fill:#8b9cbe" d="M 7,8.9999993 A 5,5 0 0 0 2,13.999999 5,5 0 0 0 2.010742,14.292968 5,5 0 0 1 7,9.4999993 5,5 0 0 1 11.989258,14.20703 5,5 0 0 0 12,13.999999 5,5 0 0 0 7,8.9999993 Z"/>
 <circle style="fill:#16aca8" cx="18" cy="11" r="3"/>
 <path style="opacity:0.1;fill:#8b9cbe" d="M 18,8.0000008 A 3,3 0 0 0 15,11.000001 3,3 0 0 0 15.0127,11.249025 3,3 0 0 1 18,8.5000008 3,3 0 0 1 20.987304,11.250978 3,3 0 0 0 21,11.000001 3,3 0 0 0 18,8.0000008 Z"/>
 <circle style="opacity:0.2" cx="12.5" cy="12" r="6.5"/>
 <circle style="fill:#1bd0cb" cx="12.5" cy="11.5" r="6.5"/>
 <path style="opacity:0.2" d="M 12.5,7.5 A 4.5,4.5 0 0 0 8,12 4.5,4.5 0 0 0 12.5,16.5 4.5,4.5 0 0 0 17,12 4.5,4.5 0 0 0 12.5,7.5 Z m 0,1 A 3.5,3.5 0 0 1 16,12 3.5,3.5 0 0 1 12.5,15.5 3.5,3.5 0 0 1 9,12 3.5,3.5 0 0 1 12.5,8.5 Z m -1.5,1 v 3 2 h 1 v -2 h 1.5 A 1.5,1.5 0 0 0 15,11 1.5,1.5 0 0 0 13.5,9.5 H 12 Z m 1,1 h 1.5 A 0.5,0.5 0 0 1 14,11 0.5,0.5 0 0 1 13.5,11.5 H 12 Z"/>
 <path style="fill:#8b9cbe" d="M 12.5 7 A 4.5 4.5 0 0 0 8 11.5 A 4.5 4.5 0 0 0 12.5 16 A 4.5 4.5 0 0 0 17 11.5 A 4.5 4.5 0 0 0 12.5 7 z M 12.5 8 A 3.5 3.5 0 0 1 16 11.5 A 3.5 3.5 0 0 1 12.5 15 A 3.5 3.5 0 0 1 9 11.5 A 3.5 3.5 0 0 1 12.5 8 z M 11 9 L 11 12 L 11 14 L 12 14 L 12 12 L 13.5 12 A 1.5 1.5 0 0 0 15 10.5 A 1.5 1.5 0 0 0 13.5 9 L 12 9 L 11 9 z M 12 10 L 13.5 10 A 0.5 0.5 0 0 1 14 10.5 A 0.5 0.5 0 0 1 13.5 11 L 12 11 L 12 10 z"/>
 <path style="opacity:0.2;fill:#8b9cbe" d="M 12.5 5 A 6.5 6.5 0 0 0 6 11.5 A 6.5 6.5 0 0 0 6.0097656 11.800781 A 6.5 6.5 0 0 1 12.5 5.5 A 6.5 6.5 0 0 1 18.990234 11.699219 A 6.5 6.5 0 0 0 19 11.5 A 6.5 6.5 0 0 0 12.5 5 z"/>
</svg>
