<svg xmlns="http://www.w3.org/2000/svg" width="24" height="24" version="1">
 <rect style="opacity:.2" width="14" height="14" x="-16.5" y="-16" rx="2" ry="2" transform="matrix(0,-1,-1,0,0,0)"/>
 <rect style="fill:#db7da0" width="14" height="14" x="-16" y="-16" rx="2" ry="2" transform="matrix(0,-1,-1,0,0,0)"/>
 <rect style="opacity:.2" width="14" height="14" x="-19.5" y="-19" rx="2" ry="2" transform="matrix(0,-1,-1,0,0,0)"/>
 <rect style="fill:#a6eb7d" width="14" height="14" x="-19" y="-19" rx="2" ry="2" transform="matrix(0,-1,-1,0,0,0)"/>
 <rect style="opacity:.2" width="14" height="14" x="-22.5" y="-22" rx="2" ry="2" transform="matrix(0,-1,-1,0,0,0)"/>
 <rect style="fill:#5fa6fa" width="14" height="14" x="-22" y="-22" rx="2" ry="2" transform="matrix(0,-1,-1,0,0,0)"/>
 <path style="opacity:.1;fill:#8b9cbe" d="m4 2c-1.108 0-2 0.892-2 2v0.5c0-1.108 0.892-2 2-2h10c1.108 0 2 0.892 2 2v-0.5c0-1.108-0.892-2-2-2h-10z"/>
 <path style="opacity:.1;fill:#8b9cbe" d="m7 5c-1.108 0-2 0.892-2 2v0.5c0-1.108 0.892-2 2-2h10c1.108 0 2 0.892 2 2v-0.5c0-1.108-0.892-2-2-2h-10z"/>
 <path style="opacity:.1;fill:#8b9cbe" d="m10 8c-1.108 0-2 0.892-2 2v0.5c0-1.108 0.892-2 2-2h10c1.108 0 2 0.892 2 2v-0.5c0-1.108-0.892-2-2-2h-10z"/>
 <path style="opacity:.2;stroke-linejoin:bevel;stroke:#000000;stroke-linecap:round;stroke-width:.99999994;fill:none" d="m14.514014 17.992879s2.084121-0.771768 2.018293-3.493c-0.0472-1.951193-2.018293-2.507233-2.018293-2.507233m-0.0141 5.993233v-5.999647"/>
 <path style="stroke-linejoin:bevel;stroke:#8b9cbe;stroke-linecap:round;stroke-width:.99999994;fill:none" d="m14.514014 17.493s2.084121-0.771768 2.018293-3.493c-0.0472-1.951193-2.018293-2.507233-2.018293-2.507233m-0.0141 5.993233v-5.999647"/>
 <path style="opacity:.2;stroke-linejoin:bevel;stroke:#000000;stroke-linecap:round;stroke-width:.99999994;fill:none" d="m18.506985 14.992879h1.999879m-1.999879-3.00022h1.999879m-1.99978 6.00022v-6.000122"/>
 <path style="stroke-linejoin:bevel;stroke:#8b9cbe;stroke-linecap:round;stroke-width:.99999994;fill:none" d="m18.506985 14.493h1.999879m-1.999879-3.00022h1.999879m-1.99978 6.00022v-6.000122"/>
 <path style="opacity:.2;stroke-linejoin:bevel;stroke:#000000;stroke-linecap:round;stroke-width:.99999994;fill:none" d="m10.506938 15.992658s1.999926 0.4645 1.999926-2.000002c0-2.464497-1.999926-1.999997-1.999926-1.999997m0.000098 6.00022v-6.000122"/>
 <path style="stroke-linejoin:bevel;stroke:#8b9cbe;stroke-linecap:round;stroke-width:.99999994;fill:none" d="m10.506938 15.492779s1.999926 0.4645 1.999926-2.000002c0-2.464497-1.999926-1.999997-1.999926-1.999997m0.000098 6.00022v-6.000122"/>
</svg>
