<svg xmlns="http://www.w3.org/2000/svg" width="24" height="24" version="1">
 <path style="fill:#ff766a" d="M 3,3 C 2.446,3 2,3.446 2,4 V 16 H 22 V 4 C 22,3.446 21.554,3 21,3 Z"/>
 <path style="opacity:0.2;fill-rule:evenodd" d="m 16,7.5001 c 1.6568,0 2.9999,1.3431 2.9999,2.9999 0,1.6568 -1.3431,2.9999 -2.9999,2.9999 -1.6568,0 -2.9999,-1.3431 -2.9999,-2.9999 0,-1.6568 1.3431,-2.9999 2.9999,-2.9999 z"/>
 <path style="fill:#fffee4;fill-rule:evenodd" d="m 16,7.0001 c 1.6568,0 2.9999,1.3431 2.9999,2.9999 0,1.6568 -1.3431,2.9999 -2.9999,2.9999 -1.6568,0 -2.9999,-1.3431 -2.9999,-2.9999 0,-1.6568 1.3431,-2.9999 2.9999,-2.9999 z"/>
 <path style="opacity:0.2;fill:#8b9cbe" d="m 3.0005,3.0002 c -0.554,0 -1,0.446 -1,1 v 0.49999 c 0,-0.55399 0.44599,-0.99998 0.99998,-0.99998 h 18 c 0.554,0 1,0.446 1,1 v -0.5 c 0,-0.554 -0.446,-1 -1,-1 z"/>
 <path style="fill:#d22f7a" d="m 2.0005,16 v 3.9999 c 0,0.55399 0.44599,0.99998 0.99998,0.99998 h 18 c 0.554,0 1,-0.446 1,-1 v -3.9999 z"/>
 <path style="fill:#17191e" d="m 2,16 v -0.695046 c 0,0 1.4422,-1.158224 1.8477,-1.259254 0.40547,-0.101054 0.88433,-0.01879 1.3764,0.09416 0.49212,0.112583 1.2268,0.305762 1.4561,0.315285 0.2293,0.0097 0.64423,-0.02432 1.1264,-0.05978 0.48213,-0.03472 1.2804,-0.06672 1.5294,-0.06324 0.24899,0 0.87058,0.04171 1.5332,0.0909 0.66258,0.04932 1.5727,0.131764 1.7792,0.154835 0.20649,0.02292 0.44921,0.06532 0.72468,0.111538 0.27544,0.04585 0.75228,0.115149 0.92103,0.134195 0.16869,0.01873 0.55979,0.08416 1.0136,0.134962 0.45378,0.05072 1.18,0.06811 1.3897,0.04932 0.20971,-0.01879 0.64928,-0.486804 1.1392,-0.660891 0.48986,-0.174014 1.03,-0.333373 1.4409,-0.293968 0.411,0.03892 2.722,1.250118 2.722,1.250118 v 0.694985 h -17.571 z"/>
 <path style="opacity:0.2" d="m 2.0005,20 v 0.49999 c 0,0.554 0.446,1 1,1 h 18 c 0.554,0 1,-0.446 1,-1 V 20 c 0,0.55399 -0.44599,0.99998 -0.99998,0.99998 h -18 C 2.44653,20.99998 2.00054,20.55399 2.00054,20 Z"/>
 <rect style="opacity:0.1;fill:#8b9cbe" width="20" height=".5" x="2" y="16"/>
</svg>
