<svg xmlns="http://www.w3.org/2000/svg" width="24" height="24" version="1">
 <rect style="opacity:0.2" width="20" height="20" x="2" y="2.5" rx="1" ry="1"/>
 <rect style="fill:#6946e7" width="20" height="20" x="2" y="2" rx="1" ry="1"/>
 <path style="opacity:0.1;fill:#8b9cbe" d="M 3,2 C 2.446,2 2,2.446 2,3 v 0.5 c 0,-0.554 0.446,-1 1,-1 h 18 c 0.554,0 1,0.446 1,1 V 3 C 22,2.446 21.554,2 21,2 Z"/>
 <path style="opacity:0.2" d="m 16.660156,6.934284 c -0.06648,-0.00944 -0.129908,0.096589 -0.236328,0.356445 -0.06612,0.161464 -0.171946,0.3816695 -0.235352,0.4902345 -0.389341,0.666646 -1.1018,1.2832045 -1.948241,1.685547 -0.379705,0.1804865 -1.096322,0.428753 -1.398438,0.484375 L 12.652344,9.9860405 12.411133,9.824908 C 12.25511,9.7204505 12.07937,9.633637 11.91211,9.578814 11.682057,9.5034095 11.613079,9.493941 11.286133,9.4948295 c -0.324196,0.00105 -0.395057,0.010855 -0.602539,0.083008 -0.276782,0.096251 -0.598875,0.289366 -0.761719,0.4570315 -0.063871,0.06576 -0.140399,0.120117 -0.169922,0.120117 -0.029525,0 -0.1384015,-0.07196 -0.241211,-0.1591795 C 9.4079305,9.9085905 9.2367045,9.79581 9.129883,9.7448295 8.947222,9.6576545 8.618369,9.569211 8.4746095,9.568072 8.3153615,9.566772 7.713642,8.97665 7.417969,8.531939 7.345455,8.4228745 7.2737085,8.333697 7.258789,8.333697 c -0.01491,0 -0.02858,0.056328 -0.030275,0.125 -0.0017,0.068669 -0.01106,0.441319 -0.021485,0.8291015 l -0.01953,0.705078 -0.1552735,0.1914065 c -0.1413655,0.173714 -0.24666,0.375306 -0.3154295,0.564453 0.099558,0.08531 0.1908265,0.179815 0.2802735,0.277343 0.1034605,-0.500344 0.512314,-0.930682 1.0146485,-1.0615225 0.622944,-0.162256 1.3132835,0.1419475 1.6054685,0.7070305 0.053477,0.103428 0.106017,0.188418 0.1171875,0.188477 0.01117,6e-5 0.064704,-0.08261 0.118164,-0.183594 0.192991,-0.364544 0.614068,-0.6893625 1.038086,-0.7998045 0.09481,-0.024695 0.279606,-0.04492 0.410156,-0.04492 1.229789,0 2.025038,1.2876575 1.475586,2.3896485 -0.371409,0.744913 -1.241221,1.10044 -2.026367,0.828125 C 10.338061,12.906644 9.9884815,12.589234 9.7958975,12.182332 9.7351025,12.053883 9.676597,11.948397 9.6660145,11.947957 9.6554395,11.947464 9.6136175,12.003087 9.5732415,12.07198 9.40659,12.356348 9.024255,12.628243 8.674804,12.710652 c -0.1956885,0.04615 -0.5808775,0.02387 -0.776367,-0.04492 -0.03508,-0.01235 -0.042665,-0.0098 -0.069336,-0.0166 0.025705,0.143602 0.043565,0.288755 0.0459,0.435547 0.0034,0.214234 -0.02532,0.418964 -0.078125,0.611328 -0.00646,0.05282 -0.01164,0.107869 -0.021485,0.146485 -0.02055,0.08048 -0.062937,0.148692 -0.1142575,0.210937 -0.151687,0.294488 -0.380881,0.533297 -0.6826175,0.679688 -0.060221,0.02922 -0.1248375,0.04668 -0.1884765,0.06641 l -0.0049,0.0039 0.2783205,0.171875 c 1.099325,0.682467 2.8340005,1.331797 4.016602,1.464843 0.153497,0.01726 0.326262,0.03638 0.382813,0.04297 0.251404,0.02926 1.087311,-0.01146 1.420898,-0.06934 0.192073,-0.03333 0.509365,-0.11428 0.705078,-0.179688 0.379823,-0.126943 0.826172,-0.343378 0.826172,-0.40039 0,-0.01902 -0.141872,-0.120347 -0.315429,-0.225586 -0.173554,-0.105242 -0.508803,-0.320981 -0.744141,-0.479492 -0.553079,-0.372516 -0.534512,-0.362774 -0.626953,-0.327148 -0.302334,0.116518 -1.088495,0.148063 -1.644531,0.06641 -0.509099,-0.07476 -1.4260045,-0.300718 -1.5791025,-0.389649 -0.048825,-0.02836 -0.044735,-0.03256 0.033205,-0.0332 0.04847,-4.92e-4 0.1639475,0.01214 0.256836,0.02734 0.092889,0.0152 0.3863285,0.04284 0.6513675,0.0625 1.017622,0.07552 1.94439,-0.09761 2.588867,-0.484375 0.221426,-0.132881 0.278321,-0.177838 0.278321,-0.219726 0,-0.01843 -0.07981,-0.112039 -0.176758,-0.208984 -0.278683,-0.278686 -0.230892,-0.290017 0.255859,-0.05664 0.209088,0.100251 0.356645,0.195633 0.485351,0.314453 0.172045,0.15883 0.216452,0.182485 0.654297,0.341797 0.258523,0.09407 0.620891,0.235691 0.804688,0.314453 0.183797,0.07876 0.338299,0.143555 0.34375,0.143555 0.02477,0 0.25704,-0.369599 0.389648,-0.620117 0.403063,-0.761464 0.672035,-1.733369 0.817383,-2.950196 0.07935,-0.664255 0.0719,-2.552518 -0.01367,-3.40625 -0.04881,-0.4869955 -0.07302,-0.630626 -0.116211,-0.6884765 -0.03605,-0.04829 -0.06744,-0.075781 -0.09766,-0.080078 z m -11.4697265,3.56543 c -0.5924271,0.0028 -1.0270008,0.391687 -1.1660154,1.060547 -0.077052,0.370738 0.030666,0.988725 0.25,1.438476 0.2196335,0.450362 0.6035466,0.899073 0.9892579,1.15625 0.4047715,0.269885 0.68729,0.358087 1.0927735,0.342774 0.225884,-0.0085 0.30089,-0.02533 0.4580075,-0.101563 C 7.265488,14.177373 7.509907,13.713046 7.5,13.090534 7.48088,11.88858 6.4601705,10.646797 5.379883,10.511433 5.315368,10.503358 5.2517145,10.499403 5.1904295,10.499712 Z m 3.4072265,0.25 0.066406,0.132812 c 0.1846625,0.370155 -0.054917,0.776367 -0.4570315,0.776367 -0.123271,0 -0.197529,-0.02168 -0.293945,-0.08691 C 7.754422,11.464606 7.75,11.464441 7.75,11.56905 c 0,0.219083 0.2053695,0.508586 0.4404295,0.620117 0.160578,0.07619 0.433875,0.08158 0.5976565,0.01172 C 9.2504475,12.003672 9.3988375,11.394936 9.0810545,11.000691 8.977377,10.872065 8.7742865,10.749715 8.665039,10.749715 Z m -3.4716795,0.25 c 0.1136335,5e-4 0.2280475,0.02732 0.3046875,0.08008 0.2210445,0.15213 0.3408715,0.432673 0.3164065,0.742187 -0.02265,0.286652 -0.203875,0.564538 -0.4228515,0.647461 -0.1222535,0.04629 -0.3223095,0.03881 -0.4267581,-0.01563 -0.4960664,-0.258611 -0.5360993,-1.043273 -0.070312,-1.376953 0.072821,-0.05217 0.1851941,-0.07759 0.2988281,-0.07715 z m 6.7568365,0 c -0.01084,-2.36e-4 -0.01904,0.0013 -0.02344,0.0059 -0.0072,0.0074 0.01117,0.05626 0.04101,0.108398 0.203367,0.355112 -0.04282,0.80957 -0.438477,0.80957 -0.109564,0 -0.297908,-0.07886 -0.354492,-0.148437 -0.02082,-0.02561 -0.05686,-0.04687 -0.0791,-0.04687 -0.06042,0 -0.0195,0.206209 0.07422,0.37793 0.201641,0.369484 0.619314,0.49776 0.993164,0.30371 0.183102,-0.09504 0.314903,-0.262792 0.375977,-0.476562 0.0745,-0.260758 -0.0015,-0.530477 -0.208008,-0.734375 -0.09051,-0.08938 -0.305038,-0.197532 -0.380859,-0.199219 z m 1.49414,3.159179 c -0.03743,-0.0011 -0.05762,0.0098 -0.08691,0.02832 -0.100558,0.0636 -0.180793,0.161999 -0.18164,0.22168 -0.0011,0.07195 0.127998,0.176109 0.586914,0.475586 0.615306,0.401533 1.140172,0.699434 1.729492,0.981445 0.284548,0.136165 0.550804,0.264473 0.59082,0.284179 0.05447,0.02682 0.07826,0.06858 0.09473,0.166993 0.0269,0.160844 0.131321,0.263671 0.268555,0.263671 0.05249,0 0.33309,0.08602 0.623047,0.191407 0.734601,0.267009 0.684118,0.241632 0.71582,0.356445 0.04418,0.160006 0.16594,0.347204 0.309571,0.473633 0.09554,0.0841 0.258283,0.167418 0.581054,0.298828 0.246422,0.100327 0.652876,0.279194 0.903321,0.396484 0.250441,0.117292 0.465151,0.208215 0.476562,0.202149 0.01141,-0.0061 0.01526,-0.02719 0.0088,-0.04687 -0.0065,-0.01967 -0.08646,-0.299572 -0.177734,-0.622071 -0.250379,-0.884688 -0.371772,-1.16169 -0.62793,-1.435546 -0.23593,-0.252228 -0.524037,-0.342064 -0.904297,-0.28125 l -0.211914,0.03321 -0.521484,-0.333985 c -0.287082,-0.183843 -0.564588,-0.377174 -0.617188,-0.429687 -0.110243,-0.110063 -0.190881,-0.118615 -0.326172,-0.03613 -0.0529,0.03225 -0.116218,0.05859 -0.140625,0.05859 -0.0244,0 -0.150812,-0.06033 -0.280273,-0.133789 -0.502792,-0.285296 -1.471712,-0.688987 -2.355469,-0.981446 -0.283496,-0.09382 -0.394645,-0.13005 -0.457031,-0.131836 z m 3.344726,1.345704 0.04785,0.06641 c 0.02591,0.03636 0.06312,0.06543 0.08301,0.06543 0.03282,0 0.936748,0.559747 0.995117,0.61621 0.0136,0.01316 -0.0033,0.07536 -0.03711,0.137696 -0.03376,0.06234 -0.08006,0.162064 -0.103516,0.222656 -0.02344,0.06059 -0.05346,0.110131 -0.06641,0.109375 -0.01294,-7.5e-4 -0.252798,-0.08575 -0.533203,-0.188477 -0.280409,-0.102726 -0.524292,-0.201049 -0.541993,-0.21875 -0.01771,-0.01771 -0.07834,-0.03223 -0.133789,-0.03223 h -0.100586 l 0.0166,-0.11914 c 0.02116,-0.157647 0.141548,-0.400364 0.270508,-0.543946 z"/>
 <path style="fill:#8b9cbe" d="m 16.660156,6.4345705 c -0.06648,-0.00945 -0.129908,0.096589 -0.236328,0.356445 -0.06612,0.161464 -0.171946,0.3816695 -0.235352,0.4902345 -0.389341,0.666646 -1.1018,1.2832045 -1.948241,1.685547 C 13.86053,9.1472835 13.143913,9.39555 12.841797,9.451172 L 12.652344,9.486327 12.411133,9.3251945 C 12.25511,9.220737 12.07937,9.1339235 11.91211,9.0791005 11.682057,9.003696 11.613079,8.9942275 11.286133,8.995116 10.961937,8.996166 10.891076,9.005971 10.683594,9.078124 10.406812,9.174375 10.084719,9.36749 9.921875,9.535155 9.8580045,9.600917 9.781476,9.6552725 9.751953,9.6552725 9.722428,9.6552725 9.6135515,9.5833115 9.510742,9.496093 9.4079305,9.408877 9.2367045,9.2960965 9.129883,9.245116 8.947222,9.157941 8.618369,9.0694975 8.4746095,9.0683585 8.3153615,9.0670585 7.713642,8.4769365 7.417969,8.0322255 7.345455,7.923161 7.2737085,7.8339835 7.258789,7.8339835 c -0.01491,0 -0.02858,0.056328 -0.030275,0.125 -0.0017,0.068669 -0.01106,0.441319 -0.021485,0.8291015 L 7.187499,9.493163 7.0322255,9.6845695 C 6.89086,9.8582835 6.7855655,10.059875 6.716796,10.249022 c 0.099558,0.08531 0.1908265,0.179815 0.2802735,0.277344 0.1034605,-0.500345 0.512314,-0.930682 1.0146485,-1.061523 0.622944,-0.162256 1.3132835,0.1419475 1.6054685,0.707031 0.053477,0.103427 0.106017,0.188417 0.1171875,0.188476 0.01117,6e-5 0.064704,-0.08261 0.118164,-0.183593 0.192991,-0.364544 0.614068,-0.689363 1.038086,-0.799805 0.09481,-0.024695 0.279606,-0.04492 0.410156,-0.04492 1.229789,0 2.025038,1.287657 1.475586,2.389649 -0.371409,0.744913 -1.241221,1.10044 -2.026367,0.828125 C 10.338061,12.40693 9.9884815,12.08952 9.7958975,11.682618 9.7351025,11.554169 9.676597,11.448684 9.6660145,11.448243 9.6554395,11.44775 9.6136175,11.503373 9.5732415,11.572267 9.40659,11.856634 9.024255,12.128529 8.674804,12.210938 c -0.1956885,0.04615 -0.5808775,0.02387 -0.776367,-0.04492 -0.03508,-0.01235 -0.042665,-0.0098 -0.069336,-0.0166 0.025705,0.143602 0.043565,0.288756 0.0459,0.435547 0.0034,0.214234 -0.02532,0.418964 -0.078125,0.611328 -0.00646,0.05282 -0.01164,0.107869 -0.021485,0.146485 -0.02055,0.08049 -0.062937,0.148693 -0.1142575,0.210937 -0.151687,0.294488 -0.380881,0.533297 -0.6826175,0.679688 -0.060221,0.02922 -0.1248375,0.04668 -0.1884765,0.06641 l -0.0049,0.0039 0.2783205,0.171875 c 1.099325,0.682467 2.8340005,1.331798 4.016601,1.464844 0.153497,0.01727 0.326262,0.03638 0.382814,0.04297 0.251404,0.02926 1.087311,-0.01145 1.420897,-0.06934 0.192074,-0.03333 0.509366,-0.11428 0.705079,-0.179688 0.379823,-0.126943 0.826171,-0.343379 0.826171,-0.40039 0,-0.01901 -0.141871,-0.120347 -0.315429,-0.225586 -0.173553,-0.105242 -0.508803,-0.320982 -0.744141,-0.479493 -0.553079,-0.372516 -0.534512,-0.362774 -0.626953,-0.327148 -0.302334,0.116518 -1.088495,0.148063 -1.644531,0.06641 -0.509099,-0.07476 -1.4260035,-0.300718 -1.5791015,-0.389648 -0.048825,-0.02836 -0.044735,-0.03256 0.033205,-0.03321 0.04847,-4.93e-4 0.1639475,0.01215 0.256836,0.02735 0.092889,0.0152 0.3863275,0.04284 0.6513665,0.0625 1.017622,0.07552 1.94439,-0.09761 2.588867,-0.484375 0.221426,-0.132881 0.278321,-0.177838 0.278321,-0.219727 0,-0.01843 -0.07981,-0.112039 -0.176758,-0.208984 -0.278682,-0.278685 -0.230892,-0.290017 0.255859,-0.05664 0.209088,0.100251 0.356645,0.195634 0.485351,0.314454 0.172045,0.15883 0.216452,0.182485 0.654297,0.341796 0.258523,0.09406 0.620891,0.235692 0.804688,0.314454 0.183797,0.07876 0.338299,0.143554 0.34375,0.143554 0.02477,0 0.25704,-0.369599 0.389648,-0.620117 0.403063,-0.761463 0.672036,-1.733369 0.817383,-2.950195 C 16.96703,9.9451235 16.95958,8.0568605 16.87401,7.2031285 16.8252,6.716133 16.80099,6.5725025 16.757799,6.514652 16.721749,6.466362 16.690359,6.438871 16.660139,6.434574 Z M 5.1904295,10 c -0.5924271,0.0029 -1.0270008,0.391687 -1.1660155,1.060547 -0.077052,0.370739 0.030666,0.988725 0.25,1.438477 0.2196336,0.450362 0.6035467,0.899072 0.989258,1.15625 0.4047715,0.269884 0.68729,0.358086 1.0927735,0.342773 0.225884,-0.0085 0.30089,-0.02533 0.4580075,-0.101562 C 7.265488,13.67766 7.509907,13.213332 7.5,12.590821 7.48088,11.388867 6.4601705,10.147083 5.379883,10.011719 5.315368,10.003644 5.2517145,9.99969 5.1904295,10 Z m 3.4072265,0.25 0.066406,0.132813 c 0.1846625,0.370154 -0.054917,0.776367 -0.4570315,0.776367 -0.123271,0 -0.197529,-0.02167 -0.293945,-0.08691 C 7.754422,10.964893 7.75,10.964727 7.75,11.069336 c 0,0.219083 0.2053695,0.508586 0.4404295,0.620117 0.160578,0.07619 0.433875,0.08158 0.5976565,0.01172 C 9.2504475,11.503959 9.3988375,10.895222 9.0810545,10.500978 8.977377,10.372351 8.7742865,10.25 8.665039,10.25 Z M 5.1259765,10.5 c 0.1136335,5e-4 0.2280475,0.02732 0.3046875,0.08008 0.2210445,0.15213 0.3408715,0.432673 0.3164065,0.742188 -0.02265,0.286652 -0.203875,0.564537 -0.4228515,0.647461 -0.1222535,0.04629 -0.3223095,0.03881 -0.4267581,-0.01563 -0.4960664,-0.258608 -0.5360993,-1.043271 -0.070312,-1.37695 0.072821,-0.05217 0.1851941,-0.07759 0.2988281,-0.07715 z m 6.7568365,0 c -0.01084,-2.35e-4 -0.01904,0.0013 -0.02344,0.0059 -0.0072,0.0074 0.01117,0.05626 0.04101,0.108399 0.203367,0.355112 -0.04282,0.80957 -0.438477,0.80957 -0.109564,0 -0.297908,-0.07886 -0.354492,-0.148438 -0.02082,-0.02561 -0.05686,-0.04687 -0.0791,-0.04687 -0.06042,0 -0.0195,0.206209 0.07422,0.37793 0.201641,0.369484 0.619314,0.49776 0.993164,0.30371 0.183102,-0.09504 0.314903,-0.262792 0.375977,-0.476561 0.0745,-0.260759 -0.0015,-0.530478 -0.208008,-0.734375 -0.09051,-0.08938 -0.305041,-0.197533 -0.380861,-0.19922 z m 1.49414,3.15918 c -0.03743,-10e-4 -0.05762,0.0098 -0.08691,0.02832 -0.100558,0.0636 -0.180793,0.161998 -0.18164,0.221679 -0.0011,0.07195 0.127998,0.17611 0.586914,0.475586 0.615306,0.401533 1.140172,0.699434 1.729492,0.981446 0.284548,0.136164 0.550804,0.264473 0.59082,0.284179 0.05447,0.02683 0.07826,0.06858 0.09473,0.166993 0.0269,0.160844 0.131321,0.263671 0.268555,0.263671 0.05249,0 0.33309,0.08602 0.623047,0.191406 0.734601,0.26701 0.684118,0.241632 0.71582,0.356446 0.04418,0.160005 0.16594,0.347204 0.309571,0.473633 0.09554,0.0841 0.258283,0.167418 0.581054,0.298828 0.246422,0.100327 0.652876,0.279193 0.903321,0.396484 0.250441,0.117292 0.465151,0.208214 0.476562,0.202149 0.01141,-0.0061 0.01526,-0.02719 0.0088,-0.04687 -0.0065,-0.01967 -0.08646,-0.299572 -0.177734,-0.622071 -0.250379,-0.884688 -0.371772,-1.16169 -0.62793,-1.435546 -0.23593,-0.252228 -0.524037,-0.342064 -0.904297,-0.28125 l -0.211914,0.03321 -0.521484,-0.333985 c -0.287082,-0.183843 -0.564588,-0.377174 -0.617188,-0.429687 -0.110243,-0.110063 -0.190881,-0.118615 -0.326172,-0.03613 -0.0529,0.03225 -0.116218,0.05859 -0.140625,0.05859 -0.0244,0 -0.150812,-0.06033 -0.280273,-0.133789 -0.502792,-0.285296 -1.471712,-0.688987 -2.355469,-0.981446 -0.283496,-0.09382 -0.394645,-0.13005 -0.457031,-0.131836 z m 3.344726,1.345703 0.04785,0.06641 c 0.02591,0.03636 0.06312,0.06543 0.08301,0.06543 0.03282,0 0.936748,0.559747 0.995117,0.61621 0.0136,0.01316 -0.0033,0.07536 -0.03711,0.137696 -0.03376,0.06234 -0.08006,0.162064 -0.103516,0.222656 -0.02344,0.06059 -0.05346,0.110131 -0.06641,0.109375 -0.01294,-7.5e-4 -0.252798,-0.08575 -0.533203,-0.188477 -0.280409,-0.102726 -0.524292,-0.201049 -0.541993,-0.21875 -0.01771,-0.01771 -0.07834,-0.03223 -0.133789,-0.03223 h -0.100586 l 0.0166,-0.11914 C 16.368807,15.506417 16.4892,15.2637 16.61816,15.120118 Z"/>
</svg>
