<svg xmlns="http://www.w3.org/2000/svg" width="24" height="24" version="1">
 <rect style="opacity:0.2" width="20" height="20" x="2" y="2.5" rx="1" ry="1"/>
 <rect style="fill:#b2bfd9" width="20" height="20" x="2" y="2" rx="1" ry="1"/>
 <path style="opacity:0.2;fill:#8b9cbe" d="M 3,2 C 2.446,2 2,2.446 2,3 v 0.5 c 0,-0.554 0.446,-1 1,-1 h 18 c 0.554,0 1,0.446 1,1 V 3 C 22,2.446 21.554,2 21,2 Z"/>
 <path style="opacity:0.1" d="m 11.224609,5.4995675 c -0.118093,-0.00237 -0.242619,0.011151 -0.367187,0.041016 -0.2879,0.098239 -0.439335,0.351887 -1.0273439,1.7265625 -0.3793692,0.8869005 -0.9277148,2.2591931 -1.21875,3.048827 -0.5111123,1.38672 -0.5316444,1.494729 -0.5859375,3.16211 -0.051543,1.58294 -0.036634,1.738837 0.1738282,1.888672 0.1262363,0.08989 0.4222631,0.148271 0.6582031,0.128906 0.4097849,-0.03365 0.4571594,-0.09067 1.0800781,-1.25586 l 0.652344,-1.638672 1.080078,-0.002 c 2.522774,-0.0039 5.152795,-1.014665 6.064453,-2.8808581 0.82684,-1.70869 -0.356397,-3.3902616 -2.435547,-3.9707031 -0.996209,-0.256171 -2.454799,-0.2529744 -2.964844,0.00586 -0.218706,0.110938 -0.322572,0.1587975 -0.435546,0.1328126 -0.02773,-0.2340416 -0.319552,-0.3795469 -0.673829,-0.3866729 z m 3.50586,1.5 c 1.452535,0.00245 1.396904,0.9206962 0.90039,2.2773438 -0.39287,0.7452467 -1.406742,1.7060037 -2.113281,2.0039057 -0.415708,0.175255 -0.760451,0.21875 -1.761719,0.21875 -0.685043,0 -1.278489,-0.04533 -1.318359,-0.101562 -0.173194,-0.244083 1.697673,-3.2403552 2.353516,-3.7695313 0.581455,-0.4691562 1.072128,-0.6289062 1.939453,-0.6289062 z M 7.6855469,15.476129 7.3085938,15.833551 c -0.59967,0.56392 -0.7272682,0.978026 -0.5644532,1.853516 0.1266,0.68075 0.1188213,0.771694 -0.1054687,1.074219 -0.134795,0.181815 -0.4189894,0.388484 -0.6308594,0.458984 -0.211865,0.0705 -0.3426206,0.171845 -0.2910156,0.224609 0.128705,0.131616 1.0568325,0.01127 1.7890625,-0.232421 1.34733,-0.448405 1.9064875,-1.115329 1.9765625,-2.355469 l 0.03125,-0.990234 c -0.54765,0.1758 -1.303905,0.216084 -1.828125,-0.390626 z"/>
 <path style="fill:#296694" d="M 11.224609 5 C 11.106516 4.997625 10.98199 5.0111506 10.857422 5.0410156 C 10.569522 5.1392546 10.418087 5.3929026 9.8300781 6.7675781 C 9.4507089 7.6544786 8.9023633 9.0267712 8.6113281 9.8164062 C 8.1002158 11.203126 8.0796837 11.311135 8.0253906 12.978516 C 7.9738476 14.561456 7.988757 14.717353 8.1992188 14.867188 C 8.3254551 14.957077 8.6214819 15.015459 8.8574219 14.996094 C 9.2672068 14.962444 9.3145813 14.905427 9.9375 13.740234 L 10.589844 12.101562 L 11.669922 12.099609 C 14.192696 12.095709 16.822717 11.084944 17.734375 9.21875 C 18.561215 7.51006 17.377978 5.8284884 15.298828 5.2480469 C 14.302619 4.9918759 12.844029 4.9950725 12.333984 5.2539062 C 12.115278 5.3648442 12.011412 5.4127037 11.898438 5.3867188 C 11.870707 5.1526313 11.578886 5.007126 11.224609 5 z M 14.730469 6.5 C 16.183004 6.50245 16.127373 7.4206962 15.630859 8.7773438 C 15.237989 9.5225902 14.224117 10.483348 13.517578 10.78125 C 13.10187 10.956505 12.757127 11 11.755859 11 C 11.070816 11 10.47737 10.954667 10.4375 10.898438 C 10.264306 10.654355 12.135173 7.6580823 12.791016 7.1289062 C 13.372471 6.65975 13.863144 6.5 14.730469 6.5 z M 7.6855469 14.976562 L 7.3085938 15.333984 C 6.7089238 15.897904 6.5813256 16.31201 6.7441406 17.1875 C 6.8707406 17.86825 6.8629619 17.959194 6.6386719 18.261719 C 6.5038769 18.443534 6.2196825 18.650203 6.0078125 18.720703 C 5.7959475 18.791203 5.6651919 18.892548 5.7167969 18.945312 C 5.8455019 19.076928 6.7736294 18.95658 7.5058594 18.712891 C 8.8531894 18.264486 9.4123469 17.597562 9.4824219 16.357422 L 9.5136719 15.367188 C 8.9660219 15.542988 8.2097669 15.583272 7.6855469 14.976562 z"/>
</svg>
