<svg xmlns="http://www.w3.org/2000/svg" width="24" height="24" version="1.1">
 <rect style="opacity:0.2" width="18" height="18" x="3" y="4.5" rx="1.588" ry="1.5"/>
 <rect style="fill:#b2bfd9" width="18" height="18" x="3" y="4" rx="1.588" ry="1.5"/>
 <rect style="opacity:0.1" width="20" height="4" x="2" y="2.5" rx="1.667" ry="1.5"/>
 <rect style="fill:#2ea881" width="20" height="4" x="2" y="2" rx="1.667" ry="1.5"/>
 <circle style="fill:#ff4f4f" cx="6" cy="12" r="2"/>
 <rect style="fill:#ff4f4f" width="9.5" height="1" x="9" y="11"/>
 <rect style="opacity:0.3" width="11" height="1" x="8" y="8"/>
 <path style="opacity:0.2;fill:#8b9cbe" d="M 3.6669922,2 C 2.7436589,2 2,2.669 2,3.5 V 4 C 2,3.169 2.7436589,2.5 3.6669922,2.5 H 20.333008 C 21.256341,2.5 22,3.169 22,4 V 3.5 C 22,2.669 21.256341,2 20.333008,2 Z"/>
 <circle style="opacity:0.2" cx="6" cy="12.5" r="1"/>
 <circle style="fill:#8b9cbe" cx="6" cy="12" r="1"/>
 <rect style="opacity:0.3" width="1" height="1" x="5" y="8"/>
 <rect style="opacity:0.3" width="11" height="1" x="8" y="15"/>
 <rect style="opacity:0.3" width="1" height="1" x="5" y="15"/>
 <rect style="opacity:0.3" width="11" height="1" x="8" y="17"/>
 <rect style="opacity:0.3" width="1" height="1" x="5" y="17"/>
 <rect style="opacity:0.3" width="11" height="1" x="8" y="19"/>
 <rect style="opacity:0.3" width="1" height="1" x="5" y="19"/>
</svg>
