<svg xmlns="http://www.w3.org/2000/svg" width="24" height="24" version="1">
 <path style="fill:#1ab5bc" d="M 12,2 C 6.46,2 2,6.46 2,12 2,13.837134 2.4904527,15.555504 3.3481014,17.031853 13.672975,17.390202 19,6 19.348425,5.204219 17.524142,3.2315569 14.911184,2 12,2 Z"/>
 <path style="fill:#df5b6f" d="M 21.354492,8.479492 7.6972655,13.654297 17.083984,20.609375 C 20.027526,18.872726 22,15.678757 22,12 22,10.757718 21.764905,9.5750525 21.354492,8.479492 Z"/>
 <path style="fill:#445c5c" d="M 7.713867,13.610352 3.2783203,16.897461 C 4.987783,19.945534 8.243044,22 12,22 c 1.884705,0 3.638014,-0.525525 5.139648,-1.424805 z"/>
 <path style="fill:#9f327b" d="M 19.241211,5.102539 7.698242,13.655274 21.354492,8.479492 C 20.878828,7.209751 20.15764,6.0646715 19.241211,5.102539 Z"/>
 <path style="opacity:0.2;fill:#8b9cbe" d="M 12,2 C 6.46,2 2,6.46 2,12 2,12.084 2.004,12.1665 2.00585,12.25 2.1382,6.827 6.544,2.5 11.99985,2.5 c 5.45585,0 9.862,4.32695 9.994,9.75 0.002,-0.08343 0.0059,-0.166065 0.0059,-0.25 0,-5.54 -4.46,-10 -10,-10 z"/>
 <path style="opacity:0.2" d="M 2.00585,12.25 C 2.0038,12.3335 2,12.416 2,12.5 c 0,5.54 4.46,10 10,10 5.54,0 10,-4.46 10,-10 0,-0.084 -0.004,-0.1665 -0.006,-0.25 C 21.862,17.673 17.456,22 12,22 6.544,22 2.138,17.673 2.006,12.25 Z"/>
 <path style="opacity:0.2" d="m 8,5.5 c -0.554,0 -1,0.446 -1,1 0,0.554 0.446,1 1,1 0.554,0 1,-0.446 1,-1 0,-0.554 -0.446,-1 -1,-1 z m 6,0 -2,2 3,3 -3,3 2,2 3,-3 2,-2 -2,-2 z m -7.5,5 C 5.669006,10.5 5,11.168994 5,12 5,12.830994 5.669006,13.5 6.5,13.5 7.331006,13.5 8,12.830994 8,12 8,11.168994 7.331006,10.5 6.5,10.5 Z m 3.5,5 c -1.108,0 -2,0.892 -2,2 0,1.108 0.892,2 2,2 1.108,0 2,-0.892 2,-2 0,-1.108 -0.892,-2 -2,-2 z"/>
 <path style="fill:#8b9cbe" d="M 8 5 C 7.446 5 7 5.446 7 6 C 7 6.554 7.446 7 8 7 C 8.554 7 9 6.554 9 6 C 9 5.446 8.554 5 8 5 z M 14 5 L 12 7 L 15 10 L 12 13 L 14 15 L 17 12 L 19 10 L 17 8 L 14 5 z M 6.5 10 C 5.669006 10 5 10.668994 5 11.5 C 5 12.330994 5.669006 13 6.5 13 C 7.331006 13 8 12.330994 8 11.5 C 8 10.668994 7.331006 10 6.5 10 z M 10 15 C 8.892 15 8 15.892 8 17 C 8 18.108 8.892 19 10 19 C 11.108 19 12 18.108 12 17 C 12 15.892 11.108 15 10 15 z"/>
</svg>
