<svg xmlns="http://www.w3.org/2000/svg" width="24" height="24" version="1">
 <rect style="opacity:0.2" width="20" height="20" x="2" y="2.5" rx="1" ry="1"/>
 <rect style="fill:#34344b" width="20" height="20" x="2" y="2" rx="1" ry="1"/>
 <path style="opacity:0.2" d="m 15.660156,4.5 c -1.008,0 -2.328062,0.7190239 -3.664062,1.9648438 C 10.660094,5.2270099 9.3400312,4.515625 8.3320312,4.515625 v 0.8183594 c 0.76,0 1.8840778,0.6030071 3.0800778,1.7050781 -0.512,0.5390565 -1.027625,1.1512661 -1.5156246,1.8300781 -0.828,0.087847 -1.6160313,0.2226583 -2.3320313,0.4023438 -0.084,-0.3673575 -0.1493593,-0.723094 -0.1933593,-1.0625 -0.172,-1.397554 0.041109,-2.4878938 0.5371093,-2.7753906 0.112,-0.067881 0.2519219,-0.095703 0.4199219,-0.095703 V 4.5195312 C 8.020125,4.5195312 7.74,4.5868938 7.5,4.7226562 6.468,5.317615 6.2355781,7.1663881 6.7675781,9.4863281 4.4835781,10.189098 3,11.316028 3,12.501953 c 0,1.189917 1.4912031,2.320754 3.7832031,3.019531 -0.528,2.327925 -0.2917656,4.180432 0.7402344,4.775391 0.24,0.139756 0.5162187,0.203125 0.8242187,0.203125 1.0080001,0 2.3280628,-0.719023 3.6640628,-1.964844 1.336,1.237834 2.656062,1.949219 3.664062,1.949219 0.308,0 0.588125,-0.06736 0.828125,-0.203125 1.032,-0.594959 1.264422,-2.443733 0.732422,-4.763672 C 19.516328,14.818801 21,13.69187 21,12.501953 21,11.312035 19.508797,10.181199 17.216797,9.4824219 17.744797,7.1544959 17.508563,5.30199 16.476562,4.7070312 16.23763,4.5678975 15.962556,4.5044723 15.660156,4.5039062 Z m -0.0039,0.8183594 v 0.00391 c 0.168,0 0.303922,0.031815 0.419922,0.095703 0.5,0.2874967 0.714875,1.3739303 0.546875,2.7714843 -0.04,0.343399 -0.1075,0.7067745 -0.1875,1.078125 -0.72,-0.1756923 -1.504125,-0.310591 -2.328125,-0.3984375 -0.496,-0.678812 -1.007344,-1.2949278 -1.527344,-1.8339844 1.194211,-1.108406 2.316216,-1.7149935 3.076166,-1.7168004 z m -3.667969,2.296875 c 0.34,0.351385 0.683531,0.7425826 1.019531,1.1738281 C 12.675812,8.7730925 12.34,8.7636719 12,8.7636719 c -0.344,0 -0.687531,0.00942 -1.019531,0.025391 0.332,-0.4312455 0.671812,-0.8224431 1.007812,-1.1738281 z M 12,9.5839844 c 0.556,0 1.108344,0.022484 1.652344,0.066406 0.304,0.4352386 0.598718,0.9033916 0.886718,1.3945316 0.28,0.479162 0.533626,0.96589 0.765626,1.457031 -0.232,0.487147 -0.487766,0.977784 -0.759766,1.460938 -0.288,0.495134 -0.580766,0.963199 -0.884766,1.398437 -0.548,0.04791 -1.100156,0.07227 -1.660156,0.07227 -0.556,0 -1.108344,-0.02444 -1.652344,-0.06836 -0.304,-0.435235 -0.5987185,-0.90339 -0.8867185,-1.394531 -0.28,-0.479161 -0.533625,-0.965891 -0.765625,-1.457031 0.228,-0.491141 0.4837656,-0.981776 0.7597656,-1.460938 0.288,-0.495133 0.5807659,-0.963199 0.8847659,-1.3984373 C 10.887844,9.6063819 11.44,9.5839844 12,9.5839844 Z m -2.7285156,0.1875 c -0.18,0.2835036 -0.3593438,0.5697516 -0.5273438,0.8652346 -0.168,0.29149 -0.3285625,0.587416 -0.4765625,0.878906 -0.2,-0.49114 -0.3678125,-0.981863 -0.5078125,-1.457031 0.484,-0.1118042 0.9877188,-0.2112426 1.5117188,-0.2871096 z m 5.4492186,0 c 0.52,0.075867 1.023906,0.1712256 1.503906,0.2910156 -0.136,0.471176 -0.304093,0.958164 -0.496093,1.445312 -0.152,-0.291489 -0.308469,-0.587416 -0.480469,-0.878906 -0.168,-0.29149 -0.347344,-0.577911 -0.527344,-0.8574216 z m 2.298828,0.5058596 c 0.364,0.111804 0.709203,0.239238 1.033203,0.375 1.3,0.555029 2.138672,1.278521 2.138672,1.853515 -0.012,0.571 -0.850484,1.302481 -2.146484,1.853516 -0.316,0.135763 -0.661578,0.255297 -1.017578,0.371094 -0.208,-0.718742 -0.484219,-1.465764 -0.824219,-2.232422 0.336,-0.762666 0.608406,-1.505954 0.816406,-2.220703 z M 6.96875,10.28125 c 0.208,0.718742 0.4842188,1.465763 0.8242188,2.232422 -0.336,0.762665 -0.6084063,1.505954 -0.8164063,2.220703 -0.36,-0.115797 -0.7053906,-0.239237 -1.0253906,-0.375 -1.3,-0.555028 -2.1386719,-1.278522 -2.1386719,-1.853516 0,-0.574994 0.8386719,-1.306472 2.1386719,-1.853515 0.316,-0.135762 0.6615781,-0.255297 1.0175781,-0.371094 z M 12,11.5 a 1,1 0 0 0 -1,1 1,1 0 0 0 1,1 1,1 0 0 0 1,-1 1,1 0 0 0 -1,-1 z m 3.728516,1.984375 c 0.2,0.49114 0.367812,0.981863 0.507812,1.457031 -0.48,0.115797 -0.987719,0.215149 -1.511719,0.291016 0.18,-0.283504 0.359344,-0.569752 0.527344,-0.865234 0.168,-0.29149 0.324563,-0.58733 0.476563,-0.882813 z m -7.4609379,0.01953 c 0.152,0.29149 0.3084688,0.587418 0.4804688,0.878906 0.172,0.287498 0.3473437,0.574005 0.5273437,0.853516 -0.52,-0.07587 -1.0239062,-0.171312 -1.5039062,-0.287109 0.136,-0.471175 0.3040937,-0.958166 0.4960937,-1.445313 z m 8.1757809,2.228516 c 0.08,0.371351 0.145453,0.727001 0.189453,1.066406 0.172001,1.397554 -0.04111,2.487894 -0.537109,2.775391 -0.112,0.06788 -0.251922,0.0957 -0.419922,0.0957 -0.76,0 -1.884078,-0.603007 -3.080078,-1.705078 0.512,-0.539057 1.027625,-1.151266 1.515625,-1.830078 0.828,-0.08785 1.616031,-0.222658 2.332031,-0.402344 z m -8.8749996,0.0078 c 0.72,0.175693 1.504125,0.310592 2.328125,0.398438 0.4959996,0.678812 1.0073436,1.294927 1.5273436,1.833984 -1.196,1.110057 -2.320078,1.716797 -3.080078,1.716797 -0.168,-0.004 -0.3080156,-0.03572 -0.4160156,-0.09961 -0.5,-0.287497 -0.714875,-1.373931 -0.546875,-2.771485 0.04,-0.343398 0.1075,-0.706775 0.1875,-1.078124 z m 3.4199216,0.478516 c 0.332,0.01597 0.667813,0.02539 1.007813,0.02539 0.344,0 0.687531,-0.0094 1.019531,-0.02539 -0.328,0.431245 -0.671813,0.822443 -1.007813,1.173828 -0.339999,-0.351385 -0.683531,-0.742583 -1.019531,-1.173828 z"/>
 <path style="opacity:0.1;fill:#8b9cbe" d="M 3,2 C 2.446,2 2,2.446 2,3 v 0.5 c 0,-0.554 0.446,-1 1,-1 h 18 c 0.554,0 1,0.446 1,1 V 3 C 22,2.446 21.554,2 21,2 Z"/>
 <path style="fill:#e1145e" class="st1" d="M 21,12.001997 C 21,10.812079 19.508,9.6820565 17.216,8.9832795 17.744,6.6553535 17.508,4.8025959 16.476,4.2076371 16.236,4.0678817 15.96,4.0039934 15.656,4.0039934 V 4.822561 c 0.168,0 0.304,0.031944 0.42,0.095832 0.5,0.2874968 0.716,1.3735963 0.548,2.7711503 -0.04,0.343399 -0.108,0.706763 -0.188,1.0781135 C 15.716,8.5919645 14.932,8.456202 14.108,8.3683555 13.612,7.6895435 13.1,7.0746195 12.58,6.535563 13.776,5.4255055 14.9,4.8185679 15.66,4.8185679 v -0.8185675 0 c -1.008,0 -2.328,0.7187422 -3.664,1.9645621 C 10.66,4.7267286 9.34,4.0159725 8.332,4.0159725 v 0.8185674 c 0.76,0 1.884,0.6029451 3.08,1.7050161 C 10.9,7.0786125 10.384,7.6895435 9.896,8.3683555 9.068,8.456202 8.28,8.5919645 7.564,8.77165 7.48,8.4042925 7.416,8.0489145 7.372,7.7095085 7.2,6.3119545 7.412,5.221862 7.908,4.9343652 8.02,4.8664841 8.16,4.838533 8.328,4.838533 v -0.8185675 0 C 8.02,4.0199655 7.74,4.0878467 7.5,4.2236091 6.468,4.8185679 6.236,6.6673325 6.768,8.9872725 4.484,9.6900425 3,10.816072 3,12.001997 c 0,1.189917 1.492,2.31994 3.784,3.018717 -0.528,2.327925 -0.292,4.180683 0.74,4.775642 C 7.764,19.936112 8.04,20 8.348,20 c 1.008,0 2.328,-0.718742 3.664,-1.964563 1.336,1.237834 2.656,1.94859 3.664,1.94859 0.308,0 0.588,-0.06788 0.828,-0.203643 1.032,-0.594959 1.264,-2.443724 0.732,-4.763663 C 19.516,14.317944 21,13.191914 21,12.001997 Z M 16.224,9.562266 c -0.136,0.471176 -0.304,0.958323 -0.496,1.445471 -0.152,-0.29149 -0.308,-0.586973 -0.48,-0.878463 C 15.08,9.837784 14.9,9.550287 14.72,9.2707765 c 0.52,0.075867 1.024,0.1716995 1.504,0.2914895 z m -1.68,3.901173 c -0.288,0.495134 -0.58,0.962316 -0.884,1.397554 -0.548,0.04791 -1.1,0.07187 -1.66,0.07187 -0.556,0 -1.108,-0.02396 -1.652,-0.06788 C 10.044,14.429748 9.748,13.962566 9.46,13.471425 9.18,12.992264 8.928,12.505116 8.696,12.013976 8.924,11.522835 9.18,11.031695 9.456,10.552533 9.744,10.0574 10.036,9.5902175 10.34,9.154979 10.888,9.107064 11.44,9.083104 12,9.083104 c 0.556,0 1.108,0.02396 1.652,0.067882 0.304,0.4352385 0.6,0.902421 0.888,1.393561 0.28,0.479162 0.532,0.966309 0.764,1.45745 -0.232,0.487147 -0.488,0.978288 -0.76,1.461442 z m 1.184,-0.479161 c 0.2,0.49114 0.368,0.982281 0.508,1.457449 -0.48,0.115797 -0.988,0.215623 -1.512,0.29149 0.18,-0.283504 0.36,-0.571001 0.528,-0.866484 0.168,-0.29149 0.324,-0.586972 0.476,-0.882455 z m -3.72,3.909158 c -0.34,-0.351385 -0.684,-0.7427 -1.02,-1.173945 0.332,0.01597 0.668,0.02396 1.008,0.02396 0.344,0 0.688,-0.008 1.02,-0.02396 -0.328,0.431245 -0.672,0.82256 -1.008,1.173945 z M 9.276,14.73721 c -0.52,-0.07587 -1.024,-0.1717 -1.504,-0.287497 0.136,-0.471175 0.304,-0.958323 0.496,-1.44547 0.152,0.29149 0.308,0.586973 0.48,0.878462 0.172,0.287497 0.348,0.574994 0.528,0.854505 z m 2.712,-7.62266 c 0.34,0.351385 0.684,0.7427 1.02,1.1739455 -0.332,-0.01597 -0.668,-0.02396 -1.008,-0.02396 -0.344,0 -0.688,0.00799 -1.02,0.02396 C 11.312,7.85725 11.652,7.465935 11.988,7.11455 Z M 9.272,9.2707765 C 9.092,9.55428 8.912,9.841777 8.744,10.13726 8.576,10.42875 8.416,10.724232 8.268,11.015722 8.068,10.524582 7.9,10.033441 7.76,9.558273 8.244,9.446469 8.748,9.3466435 9.272,9.2707765 Z m -3.32,4.5879705 c -1.3,-0.555028 -2.14,-1.277763 -2.14,-1.852757 0,-0.574994 0.84,-1.305715 2.14,-1.852758 0.316,-0.135762 0.66,-0.255553 1.016,-0.37135 0.208,0.718742 0.484,1.465435 0.824,2.232094 C 7.456,12.776641 7.184,13.519341 6.976,14.23409 6.616,14.118293 6.272,13.99451 5.952,13.858747 Z m 1.976,5.230846 c -0.5,-0.287497 -0.716,-1.373597 -0.548,-2.771151 0.04,-0.343398 0.108,-0.706763 0.188,-1.078113 0.72,0.175693 1.504,0.311455 2.328,0.399301 0.496,0.678812 1.008,1.293736 1.528,1.832793 -1.196,1.110057 -2.32,1.716995 -3.08,1.716995 -0.168,-0.004 -0.308,-0.03593 -0.416,-0.09982 z m 8.704,-2.791116 c 0.172,1.397554 -0.04,2.487647 -0.536,2.775144 -0.112,0.06788 -0.252,0.09583 -0.42,0.09583 -0.76,0 -1.884,-0.602945 -3.08,-1.705016 0.512,-0.539057 1.028,-1.149987 1.516,-1.828799 0.828,-0.08785 1.616,-0.223609 2.332,-0.403295 0.08,0.371351 0.144,0.726729 0.188,1.066134 z m 1.412,-2.43973 c -0.316,0.135763 -0.66,0.255553 -1.016,0.37135 -0.208,-0.718742 -0.484,-1.465435 -0.824,-2.232093 0.336,-0.762666 0.608,-1.505366 0.816,-2.220115 0.364,0.111804 0.708,0.239581 1.032,0.375343 1.3,0.555029 2.14,1.277764 2.14,1.852758 -0.012,0.571 -0.852,1.301722 -2.148,1.852757 z"/>
 <circle style="fill:#8b9cbe" class="st2" cx="12" cy="12" r="1"/>
 <path style="opacity:0.2;fill:#8b9cbe" d="M 15.660156,4 C 14.652157,4 13.332094,4.7190238 11.996094,5.964844 10.660094,4.7270099 9.340031,4.015625 8.332031,4.015625 v 0.5 c 1.008,0 2.328063,0.7113845 3.664063,1.949219 C 13.332093,5.219024 14.652157,4.5 15.660156,4.5 v 0.0039 c 0.302428,5.55e-4 0.576479,0.064957 0.81543,0.2041015 0.622514,0.358886 0.95071,1.1807585 1.000976,2.283203 C 17.512668,5.638148 17.188354,4.618926 16.475586,4.2080078 16.236635,4.0688633 15.962583,4.0044626 15.660156,4.0039062 Z M 8.328125,4.0195312 C 8.020125,4.0195312 7.74,4.0878704 7.5,4.2236328 6.78774,4.634258 6.4658565,5.650241 6.503906,6.998047 6.5528585,5.900826 6.878351,5.08202 7.5,4.7236328 7.74,4.5878704 8.020125,4.5195312 8.328125,4.5195312 Z m 4.501953,2.7949218 c -0.08336,0.073107 -0.165823,0.1425755 -0.25,0.220703 0.52,0.539057 1.032321,1.154196 1.528321,1.833008 0.824,0.087846 1.607148,0.2237215 2.327148,0.399414 0.08,-0.3713505 0.148476,-0.734726 0.188476,-1.078125 0.04915,-0.4089305 0.06194,-0.786488 0.04785,-1.1298825 -0.0078,0.2021295 -0.02148,0.4105225 -0.04785,0.6298825 -0.04,0.343399 -0.108476,0.7067745 -0.188476,1.078125 -0.72,-0.1756925 -1.503148,-0.3115675 -2.327148,-0.399414 C 13.692595,7.7991075 13.263657,7.286655 12.830078,6.814453 Z M 11.16211,6.820313 C 10.733065,7.29113 10.305055,7.7998395 9.8964845,8.3681645 9.0684845,8.456011 8.280453,8.5917995 7.564453,8.771485 7.480453,8.4041275 7.4160705,8.0493675 7.3720705,7.7099615 7.3442005,7.483502 7.3294205,7.268754 7.321289,7.0605475 c -0.01426,0.3486295 -4.495e-4,0.733146 0.050782,1.149414 0.044,0.339406 0.1083825,0.694166 0.1923825,1.0615235 0.716,-0.1796855 1.5040315,-0.315474 2.3320315,-0.4033205 0.488,-0.678812 1.003624,-1.2890685 1.515626,-1.828125 -0.08411,-0.0775 -0.166709,-0.147199 -0.250001,-0.2197265 z M 12,8.2646485 c -0.20396,0 -0.403033,0.00806 -0.604492,0.01367 C 11.256323,8.443001 11.117767,8.6097435 10.980469,8.788084 11.312469,8.772109 11.656,8.764649 12,8.764649 c 0.34,0 0.675812,0.00747 1.007813,0.023435 C 12.868833,8.6097105 12.727782,8.4430325 12.586914,8.2783205 12.391623,8.2729025 12.198004,8.2646485 12,8.2646485 Z m 5.305664,0.7490235 c -0.02919,0.1560965 -0.05335,0.3088315 -0.08984,0.4697265 2.130989,0.6496885 3.56902,1.6717555 3.760742,2.7685545 C 20.990971,12.169119 21,12.085544 21,12.001953 21,10.82828 19.544705,9.714455 17.305664,9.013672 Z M 6.6777345,9.018572 C 4.4469657,9.7230735 3,10.832335 3,12.001953 c 0,0.08366 0.0099,0.167059 0.024414,0.25 C 3.2159279,11.159263 4.6447684,10.140477 6.767578,9.4873045 6.730768,9.3267835 6.707217,9.174305 6.6777345,9.0185545 Z M 9.272461,9.7705255 c -0.115411,0.01671 -0.226373,0.03871 -0.339844,0.057617 -0.062474,0.10361 -0.128514,0.2041075 -0.1884765,0.3095705 -0.168,0.29149 -0.3285625,0.586439 -0.4765625,0.87793 -0.135247,-0.332127 -0.2502045,-0.662071 -0.357422,-0.989258 -0.049535,0.01109 -0.1012675,0.02088 -0.1503905,0.03223 0.14,0.475168 0.3078125,0.96589 0.5078125,1.457031 0.148,-0.29149 0.3085625,-0.58644 0.4765625,-0.87793 0.168,-0.295483 0.3483205,-0.583684 0.5283205,-0.8671875 z m 5.447266,0 c 0.18,0.2795105 0.36032,0.5669085 0.52832,0.8583975 0.172,0.291491 0.327492,0.587417 0.479492,0.878907 0.192,-0.487148 0.360094,-0.974137 0.496094,-1.445313 -0.04804,-0.01199 -0.09894,-0.02071 -0.147461,-0.03223 -0.105128,0.323347 -0.219266,0.649307 -0.348633,0.977539 -0.152,-0.29149 -0.307492,-0.587416 -0.479492,-0.878906 -0.05868,-0.101813 -0.123473,-0.1991355 -0.18457,-0.2998045 -0.114767,-0.01904 -0.227289,-0.0416 -0.34375,-0.058594 z m 1.585937,2.4765625 c -0.0358,0.08436 -0.06418,0.166116 -0.101563,0.250977 0.34,0.766658 0.616219,1.513679 0.824219,2.232422 0.356,-0.115798 0.699625,-0.236308 1.015625,-0.372071 1.296,-0.551035 2.136438,-1.281538 2.148438,-1.852539 0,-0.08219 -0.02245,-0.167573 -0.05566,-0.254883 -0.201489,0.524533 -0.975927,1.132559 -2.092774,1.607422 -0.316,0.135763 -0.659625,0.256273 -1.015625,0.372071 -0.185147,-0.639776 -0.432573,-1.304964 -0.722656,-1.983399 z m -1.125976,0.0039 c -0.199131,0.405149 -0.409995,0.811896 -0.635742,1.212891 -0.288001,0.495133 -0.579789,0.962223 -0.88379,1.397461 C 13.112156,14.90925 12.56,14.93263 12,14.93263 c -0.556,0 -1.108344,-0.02346 -1.652344,-0.06738 -0.304,-0.435238 -0.599695,-0.902415 -0.887695,-1.393555 -0.2324865,-0.397852 -0.4421665,-0.802406 -0.640625,-1.208984 -0.04048,0.08372 -0.084155,0.167199 -0.123047,0.250976 0.232,0.491141 0.483672,0.978847 0.763672,1.458008 0.288,0.491141 0.583695,0.958317 0.887695,1.393555 0.544,0.04392 1.096344,0.06738 1.652344,0.06738 0.56,0 1.112156,-0.02337 1.660156,-0.07129 0.304001,-0.435238 0.595789,-0.902328 0.88379,-1.397461 0.272,-0.483155 0.527765,-0.974767 0.759765,-1.461914 -0.03968,-0.084 -0.08314,-0.167233 -0.124023,-0.250977 z m -11.3154302,0.0049 c -0.031953,0.08577 -0.052734,0.169413 -0.052734,0.25 0,0.574994 0.840625,1.29751 2.140625,1.852539 0.32,0.135762 0.6634375,0.260179 1.0234375,0.375976 0.208,-0.714748 0.480406,-1.458037 0.816406,-2.220703 C 7.754647,12.429494 7.7262245,12.348391 7.6904295,12.264677 7.4044735,12.938445 7.160442,13.599183 6.975586,14.234403 6.615586,14.118606 6.2721485,13.994189 5.9521485,13.858427 4.8344127,13.381187 4.0603533,12.780525 3.8642578,12.25586 Z m 12.2226562,2.217773 c -0.32974,0.0764 -0.672744,0.143728 -1.023437,0.202148 -0.112651,0.186839 -0.223994,0.375152 -0.339844,0.557618 0.524,-0.07587 1.032695,-0.176195 1.512695,-0.291993 -0.0453,-0.153749 -0.09812,-0.31122 -0.149414,-0.467773 z m -8.1660155,0.0088 c -0.050933,0.156645 -0.1040455,0.313976 -0.1484375,0.467774 0.48,0.115797 0.983906,0.211242 1.503906,0.287109 C 9.158908,15.054939 9.045693,14.866694 8.9316405,14.679717 8.585951,14.622486 8.2479325,14.557855 7.9208985,14.482451 Z m 9.4052735,1.00293 c -0.03109,0.0098 -0.05845,0.02163 -0.08984,0.03125 0.165095,0.719945 0.247782,1.386384 0.264648,1.992187 0.02699,-0.598917 -0.03464,-1.282973 -0.174804,-2.023437 z m -10.631836,0.0049 c -0.1383565,0.740051 -0.1982035,1.423597 -0.1708985,2.022461 0.01617,-0.606005 0.097414,-1.272083 0.260742,-1.992188 -0.03129,-0.0095 -0.058855,-0.02058 -0.089843,-0.03028 z m 4.293945,0.729492 c 0.336001,0.431245 0.679532,0.822443 1.019532,1.173828 0.336,-0.351385 0.679812,-0.742583 1.007812,-1.173828 -0.134837,0.0065 -0.27607,0.0059 -0.414062,0.0098 -0.197733,0.233566 -0.39668,0.457968 -0.59375,0.664062 -0.199389,-0.206065 -0.399889,-0.430532 -0.59961,-0.664062 -0.139722,-0.0039 -0.281588,-0.0031 -0.419922,-0.0098 z m -3.65625,1.228515 c -0.042085,1.085651 0.1741835,1.89923 0.5957035,2.141602 0.108,0.06389 0.2480155,0.09561 0.4160155,0.09961 0.76,0 1.884078,-0.606739 3.080078,-1.716797 -0.08408,-0.08716 -0.166374,-0.188221 -0.25,-0.279296 C 10.072667,18.659184 9.050318,19.18951 8.34375,19.18951 8.17575,19.18551 8.0357345,19.15379 7.9277345,19.0899 7.5740365,18.886526 7.3660985,18.278483 7.332031,17.448298 Z m 9.350586,0 c -0.03374,0.821332 -0.238789,1.423216 -0.586914,1.625 -0.112,0.06788 -0.251922,0.09668 -0.419922,0.09668 -0.706666,0 -1.728741,-0.527207 -2.830078,-1.486328 -0.08352,0.09166 -0.166555,0.193395 -0.25,0.28125 1.196,1.102071 2.320079,1.705078 3.080078,1.705078 0.168,0 0.307922,-0.0288 0.419922,-0.09668 0.41559,-0.240889 0.628912,-1.048443 0.586914,-2.125 z"/>
</svg>
