<svg xmlns="http://www.w3.org/2000/svg" width="24" height="24" version="1.1">
 <circle style="opacity:0.2" cx="12" cy="12.5" r="10"/>
 <circle style="fill:#ff6c37" cx="12" cy="12" r="10"/>
 <path style="opacity:0.2;fill:#8b9cbe" d="M 12,2 A 10,10 0 0 0 2,12 10,10 0 0 0 2.01075,12.291 10,10 0 0 1 12,2.5 10,10 0 0 1 21.9895,12.209 10,10 0 0 0 22,12 10,10 0 0 0 12,2 Z"/>
 <path style="opacity:0.2" d="m 16.454831,6.5013445 c -0.352768,0.01504 -0.700691,0.1560595 -0.973993,0.420694 -0.600075,0.5834005 -0.623305,1.546387 -0.047,2.1538445 l -0.0064,-0.01213 c 0.451543,0.469126 1.152874,0.589056 1.735126,0.3003635 L 16.128631,8.32404 c -0.03565,-0.0421 -0.03565,-0.1024845 0,-0.1445845 l 1.330602,-1.341372 C 17.165136,6.5975085 16.807599,6.486308 16.454831,6.5013445 Z m 1.147228,0.474797 -1.265176,1.281672 0.992422,1.0036975 c 0.08318,-0.05413 0.154464,-0.1194695 0.22576,-0.185628 0.576311,-0.577386 0.593599,-1.5043125 0.047,-2.0997415 z M 17.533871,7.74757 c 0.03162,-1.2e-4 0.0616,0.01473 0.08017,0.041045 0.106944,0.2044905 0.07758,0.4505595 -0.07095,0.624978 -0.01783,0.024055 -0.05415,0.041975 -0.08385,0.041975 -0.02377,0.00601 -0.05364,0.00601 -0.0774,0 l -0.0055,-0.0056 c -0.04159,-0.0421 -0.03606,-0.11461 0.0055,-0.1567115 0.08912,-0.1022445 0.101801,-0.2519 0.04239,-0.3721885 0,-0.00601 -0.0065,-0.00612 -0.0065,-0.01213 -0.02376,-0.05413 0.0064,-0.1205275 0.0599,-0.144585 0.01782,-0.011275 0.03724,-0.01672 0.05621,-0.01679 z M 14.564899,8.7997725 C 13.926854,8.7476165 12.878747,9.452444 10.169493,12.190514 l 0.78417,0.794749 3.672053,-3.7172225 C 14.756425,9.135723 14.928991,9.063239 15.113172,9.057227 14.94533,8.9188945 14.77758,8.8171585 14.564899,8.7997725 Z M 15.12423,9.287629 c -0.130709,0 -0.261134,0.049075 -0.362137,0.1483155 l -3.660074,3.6808445 0.492986,0.523303 3.868326,-3.452307 C 15.570275,10.091554 15.629705,9.9599425 15.635645,9.815596 15.641585,9.6772645 15.58829,9.53819 15.487289,9.4359445 15.386286,9.336707 15.25494,9.287629 15.12423,9.287629 Z m 0.570389,0.930938 c -0.0297,0.0421 -0.06479,0.07813 -0.10044,0.108205 l -3.868325,3.445777 0.689258,0.697738 c 1.598222,-1.545709 3.154739,-3.133036 3.279507,-4.25172 z m -5.667954,2.092279 -0.968463,0.980377 -0.01751,0.02426 c -0.017825,0.01804 -0.02345,0.03657 -0.01751,0.06063 0.00594,0.03609 0.040835,0.06012 0.076482,0.0541 l 1.657721,-0.360995 z m 0.938977,0.980377 -0.552881,0.559682 c -0.01188,0.01805 -0.01188,0.04259 0,0.06063 0.01783,0.01203 0.03562,0.01203 0.05344,0 l 0.909489,-0.235068 z m 0.582368,0.571809 -1.502915,0.324615 -3.1016635,3.145414 1.0099295,1.053136 c 0.029705,0.03008 0.083221,0.03008 0.1188695,0 0.035645,-0.02406 0.059801,-0.07222 0.047915,-0.120332 l -0.166786,-0.72199 c -0.017825,-0.0842 0.024125,-0.168714 0.101362,-0.210814 h 0.00553 v -0.01213 c 1.509102,-0.727746 2.9231735,-1.647718 4.2065045,-2.730316 z m -4.764914,3.620211 -0.778641,0.794748 c -0.00594,0.01805 -0.00594,0.04124 0,0.0653 0.00594,0.01804 0.02968,0.0369 0.053445,0.04291 L 7.7930255,18.5 Z"/>
 <path style="fill:#8b9cbe" d="m 16.454831,6.0013435 c -0.352768,0.01504 -0.700691,0.1560595 -0.973993,0.420694 -0.600075,0.5834005 -0.623305,1.546387 -0.047,2.1538445 l -0.0064,-0.01213 c 0.451543,0.469126 1.152874,0.589056 1.735126,0.3003635 L 16.128631,7.824039 c -0.03565,-0.0421 -0.03565,-0.1024845 0,-0.1445845 l 1.330602,-1.341372 C 17.165136,6.0975075 16.807599,5.986307 16.454831,6.0013435 Z m 1.147228,0.474797 -1.265176,1.281672 0.992422,1.0036975 c 0.08318,-0.05413 0.154464,-0.1194695 0.22576,-0.185628 0.576311,-0.577386 0.593599,-1.5043125 0.047,-2.0997415 z m -0.06819,0.7714285 c 0.03162,-1.2e-4 0.0616,0.01473 0.08017,0.041045 0.106944,0.2044905 0.07758,0.4505595 -0.07095,0.624978 -0.01783,0.024055 -0.05415,0.041975 -0.08385,0.041975 -0.02377,0.00601 -0.05364,0.00601 -0.0774,0 l -0.0055,-0.0056 c -0.04159,-0.0421 -0.03606,-0.11461 0.0055,-0.1567115 0.08912,-0.1022445 0.101801,-0.2519 0.04239,-0.3721885 0,-0.00601 -0.0065,-0.00611 -0.0065,-0.01213 -0.02376,-0.05413 0.0064,-0.1205275 0.0599,-0.144585 0.01782,-0.011275 0.03724,-0.01672 0.05621,-0.01679 z m -2.96897,1.0522025 C 13.926854,8.2476155 12.878747,8.952443 10.169493,11.690513 l 0.78417,0.794749 3.672053,-3.7172225 C 14.756425,8.635722 14.928991,8.563238 15.113172,8.557226 14.94533,8.4188935 14.77758,8.3171575 14.564899,8.2997715 Z M 15.12423,8.787628 c -0.130709,0 -0.261134,0.049075 -0.362137,0.1483155 l -3.660074,3.6808445 0.492986,0.523303 3.868326,-3.4523075 C 15.570275,9.591553 15.629705,9.4599415 15.635645,9.315595 15.641585,9.1772635 15.58829,9.038189 15.487289,8.9359435 15.386286,8.836706 15.25494,8.787628 15.12423,8.787628 Z m 0.570389,0.9309385 c -0.0297,0.0421 -0.06479,0.078131 -0.10044,0.108205 l -3.868325,3.4457765 0.689258,0.697738 c 1.598222,-1.545709 3.154739,-3.133036 3.279507,-4.2517195 z m -5.667954,2.0922785 -0.968463,0.980377 -0.01751,0.02426 c -0.017825,0.01805 -0.02345,0.03658 -0.01751,0.06063 0.00594,0.03609 0.040835,0.06012 0.076482,0.0541 l 1.657721,-0.360995 z m 0.938977,0.980377 -0.552881,0.559682 c -0.01188,0.01805 -0.01188,0.04259 0,0.06063 0.01783,0.01203 0.03562,0.01203 0.05344,0 l 0.909489,-0.235067 z m 0.582368,0.571809 -1.502915,0.324615 -3.1016635,3.145414 1.0099295,1.053136 c 0.029705,0.03007 0.083221,0.03007 0.1188695,0 0.035645,-0.02406 0.059801,-0.07222 0.047915,-0.120332 l -0.166786,-0.72199 c -0.017825,-0.0842 0.024125,-0.168714 0.101362,-0.210814 h 0.00553 v -0.01213 c 1.509102,-0.727746 2.9231725,-1.647719 4.2065035,-2.730316 z M 6.783096,16.983242 6.004455,17.77799 c -0.00594,0.01805 -0.00594,0.04124 0,0.0653 0.00594,0.01805 0.02968,0.0369 0.053445,0.04291 l 1.7351255,0.113802 z"/>
</svg>
