<svg xmlns="http://www.w3.org/2000/svg" width="24" height="24" version="1.1">
 <circle style="opacity:0.2" cx="12" cy="12.5" r="10"/>
 <circle style="fill:#127bca" cx="12" cy="12" r="10"/>
 <path style="opacity:0.2;fill:#8b9cbe" d="M 12,2 A 10,10 0 0 0 2,12 10,10 0 0 0 2.01075,12.291 10,10 0 0 1 12,2.5 10,10 0 0 1 21.9895,12.209 10,10 0 0 0 22,12 10,10 0 0 0 12,2 Z"/>
 <path style="opacity:0.2" d="m 11.923918,1.5 -4.592165,11 h 4.549159 L 9.245735,17.64659 7.9386265,16.087015 7.311747,23.5 13.085129,18.681227 10.922493,18.456388 16.533915,9.5 H 12.457 l 4.231253,-8 z"/>
 <path style="fill:#8b9cbe" d="M 11.923918,1 7.331753,12 h 4.549159 L 9.245735,17.14659 7.9386265,15.587015 7.311747,23 13.085129,18.181227 10.922493,17.956388 16.533915,9 H 12.457 l 4.231253,-8 z"/>
</svg>
