<svg xmlns="http://www.w3.org/2000/svg" width="24" height="24" version="1">
 <path style="opacity:0.2" d="m 12.5625,2.5003317 c -0.430144,-0.0095 -0.898198,0.07018 -1.496094,0.2324219 -0.433448,0.1176179 -1.4067466,0.3465863 -2.2402341,0.53125 A 4.5000852,4.5000852 0 0 1 9,4.5003317 4.5000852,4.5000852 0 0 1 8.9902344,4.7171286 4.5,4.5 0 0 1 9,5.0003317 a 4.5,4.5 0 0 1 -4.5,4.5 A 4.5,4.5 0 0 1 2.9042969,9.2015036 C 2.8260659,9.5403016 2.6830185,10.046738 2.4785156,10.63705 1.9086561,12.281983 1.8681027,12.8582 2.2460938,14.00619 c 0.147583,0.448215 0.3169661,1.111864 0.375,1.476563 0.1498295,0.941526 0.423534,1.426658 1.4140624,2.503906 0.4788376,0.520763 1.1602774,1.395043 1.5136719,1.941406 0.568996,0.879689 0.7645662,1.056079 1.7128907,1.544922 1.1466879,0.591093 2.0237235,0.751624 5.1406252,0.939453 1.017966,0.202477 1.572051,0.05025 2.427734,-0.419921 0.510124,-0.280368 1.183921,-0.594349 1.498047,-0.697266 0.963596,-0.315698 2.224079,-1.0779 2.574219,-1.558594 0.182957,-0.251176 0.64241,-1.096716 1.021484,-1.878906 0.453114,-0.934955 0.921303,-1.653673 1.367188,-2.09961 0.932882,-0.681725 0.677734,-1.503192 0.677734,-2.580078 0,-1.847591 -0.01544,-1.945151 -0.552734,-3.4199208 C 21.111854,8.9232317 20.75154,7.9152384 20.615234,7.5198629 20.411599,6.9292024 20.146628,6.6102801 19.130859,5.7268942 17.574585,4.3734539 17.108984,4.0770885 16.042969,3.7581442 15.571779,3.6171663 14.754693,3.2749495 14.226562,2.9983786 13.605913,2.6733578 13.115541,2.5125476 12.5625,2.5003317 Z"/>
 <path style="fill:#ffaa46" d="M 12.5625 2 C 12.132356 1.9905 11.664302 2.0701796 11.066406 2.2324219 C 10.632958 2.3500398 9.6596594 2.5790082 8.8261719 2.7636719 A 4.5000852 4.5000852 0 0 1 9 4 A 4.5000852 4.5000852 0 0 1 8.9902344 4.2167969 A 4.5 4.5 0 0 1 9 4.5 A 4.5 4.5 0 0 1 4.5 9 A 4.5 4.5 0 0 1 2.9042969 8.7011719 C 2.8260659 9.0399699 2.6830185 9.5464066 2.4785156 10.136719 C 1.9086561 11.781652 1.8681027 12.357869 2.2460938 13.505859 C 2.3936768 13.954074 2.5630599 14.617723 2.6210938 14.982422 C 2.7709233 15.923948 3.0446278 16.40908 4.0351562 17.486328 C 4.5139938 18.007091 5.1954336 18.881371 5.5488281 19.427734 C 6.1178241 20.307423 6.3133943 20.483813 7.2617188 20.972656 C 8.4084067 21.563749 9.2854423 21.72428 12.402344 21.912109 C 13.42031 22.114586 13.974395 21.96236 14.830078 21.492188 C 15.340202 21.21182 16.013999 20.897839 16.328125 20.794922 C 17.291721 20.479224 18.552204 19.717022 18.902344 19.236328 C 19.085301 18.985152 19.544754 18.139612 19.923828 17.357422 C 20.376942 16.422467 20.845131 15.703749 21.291016 15.257812 C 22.223898 14.576087 21.96875 13.75462 21.96875 12.677734 C 21.96875 10.830143 21.953311 10.732583 21.416016 9.2578125 C 21.111854 8.4229 20.75154 7.4149067 20.615234 7.0195312 C 20.411599 6.4288707 20.146628 6.1099484 19.130859 5.2265625 C 17.574585 3.8731222 17.108984 3.5767568 16.042969 3.2578125 C 15.571779 3.1168346 14.754693 2.7746178 14.226562 2.4980469 C 13.605913 2.1730261 13.115541 2.0122159 12.5625 2 z"/>
 <path style="opacity:0.1" d="m 13.362256,5.5070815 c -0.155955,0.019115 -0.309236,0.076172 -0.466797,0.1259765 -0.763874,0.2697429 -1.603817,0.7208464 -1.798828,1.4062499 -0.115498,0.3411965 -0.123483,0.461099 -0.04687,0.6992185 0.02991,0.092971 0.06441,0.2309945 0.07617,0.306641 0.03037,0.195294 0.08538,0.2960855 0.286133,0.519531 0.09705,0.108018 0.235016,0.2890155 0.30664,0.402344 0.115323,0.182468 0.155453,0.218915 0.347656,0.3203125 0.223396,0.099545 0.248499,-0.258513 1.041993,0.194336 0.206319,0.042 0.31876,0.01061 0.492187,-0.086915 0.103391,-0.058154 0.240045,-0.1231835 0.303711,-0.144531 0.195299,-0.065482 0.450519,-0.223535 0.521484,-0.323242 0.515383,-0.738714 0.680514,-1.3268955 0.509766,-2.0703125 -0.06165,-0.17318 -0.135459,-0.381858 -0.163086,-0.4638675 -0.04127,-0.122517 -0.09491,-0.188836 -0.300781,-0.37207 C 14.156209,5.740019 14.062688,5.6787065 13.846631,5.61255 13.677526,5.5072665 13.518211,5.4879655 13.362256,5.5070815 Z M 6.7450686,9.5031749 c -0.1282945,-0.014 -0.2519105,0.025025 -0.361328,0.131836 -0.2676615,-0.014355 -0.3539665,0.00345 -0.5078125,0.107422 -0.060066,0.040595 -0.151615,0.093277 -0.203125,0.1171875 -0.132981,0.06173 -0.1931945,0.1224895 -0.310547,0.3134766 -0.4460162,0.635876 -0.3909509,0.895818 -0.2998045,1.416992 0.013275,0.158122 0.060078,0.232963 0.1660155,0.338867 0.063167,0.06313 0.1374395,0.148613 0.1660155,0.19043 0.435115,0.543971 1.394754,0.380712 1.9238284,0.260742 C 7.428957,12.300218 7.563438,12.20492 7.6161625,12.168214 7.6949305,12.113379 7.730722,12.060786 7.818311,11.874269 7.952506,11.588501 7.9765505,11.50823 7.978467,11.338136 8.0578195,11.050114 7.9017245,10.860798 7.7646,10.652589 7.5570425,10.062859 7.1299535,9.5451714 6.7450686,9.5031749 Z M 17.548779,12.501222 c -0.332706,-0.0122 -0.675735,0.05916 -0.919922,0.11914 -0.102133,0.07991 -0.225745,0.175209 -0.274414,0.211914 -0.07271,0.05484 -0.105672,0.107428 -0.186523,0.293946 -0.123872,0.285768 -0.146669,0.366038 -0.148438,0.536133 -0.07325,0.288021 0.07167,0.477338 0.198243,0.685546 0.255453,0.786307 0.869436,1.444819 1.273437,1.017579 0.24707,0.01436 0.327716,-0.0034 0.469727,-0.107422 0.05544,-0.04059 0.139952,-0.09328 0.1875,-0.117188 0.122751,-0.06173 0.177808,-0.12249 0.286133,-0.313476 0.888573,-0.738459 0.524975,-0.9312 0.276367,-1.416993 -0.01226,-0.158122 -0.05456,-0.232963 -0.152344,-0.338867 -0.05831,-0.06313 -0.127918,-0.148612 -0.154297,-0.190429 -0.200821,-0.271986 -0.522762,-0.367681 -0.855469,-0.379883 z m -8.71289,1.999023 c -0.121242,-0.0043 -0.2124795,0.03233 -0.336914,0.105469 -0.098911,0.05815 -0.2291315,0.123184 -0.290039,0.144531 -0.186836,0.06548 -0.4311335,0.223535 -0.4990235,0.323242 -1.0029619,0.504933 -0.7186229,1.295734 -0.487305,2.070313 0.058976,0.17318 0.1288445,0.381858 0.1552735,0.463867 0.03948,0.122517 0.090157,0.188836 0.2871095,0.37207 0.301754,0.280735 0.391938,0.342048 0.598633,0.408204 0.323555,0.210567 0.608689,0.0791 0.910156,-0.02051 1.3382855,-0.269744 2.1237175,-0.720847 1.7207025,-1.40625 0.110493,-0.341197 0.11821,-0.461099 0.04492,-0.699219 -0.02862,-0.09297 -0.06199,-0.230995 -0.07324,-0.306641 -0.02906,-0.195294 -0.08138,-0.296085 -0.273437,-0.519531 -0.418606,-0.788014 -0.8084365,-0.440804 -1.623047,-0.916992 -0.049345,-0.0105 -0.093375,-0.01712 -0.133789,-0.01856 z m 6.211914,3 c -0.119309,-0.0054 -0.246111,0.04064 -0.402344,0.09961 -0.665279,0.300286 -1.140872,0.274668 -1.574219,0.764648 -0.161446,0.33634 -0.01634,0.735782 0.109375,1.129883 0.04794,0.131784 0.104494,0.291109 0.125977,0.353515 0.03209,0.09323 0.07428,0.143769 0.234375,0.283204 0.245276,0.213629 0.31832,0.260204 0.486328,0.310546 0.574464,0.225568 0.659129,-0.256429 1.081055,-0.534179 0.556369,-0.294272 1.038196,-0.259825 0.816406,-0.611328 0.08981,-0.25964 0.0957,-0.351026 0.03613,-0.532227 -0.02326,-0.07075 -0.04945,-0.175834 -0.05859,-0.233398 -0.02362,-0.148613 -0.06655,-0.225473 -0.222656,-0.395508 -0.255025,-0.473796 -0.432989,-0.625767 -0.631836,-0.634766 z"/>
 <path style="fill:#835145" d="m 11.096896,6.5393124 c -0.115497,0.3411965 -0.123467,0.460662 -0.04686,0.6987815 0.02991,0.09297 0.06398,0.23092 0.07574,0.3065665 0.03037,0.195294 0.08592,0.2958805 0.286682,0.519326 0.09705,0.108018 0.23501,0.289101 0.306635,0.4024295 0.115323,0.182468 0.155071,0.2191925 0.347274,0.32059 0.223395,0.099545 0.2485,-0.258042 1.041994,0.194807 0.206319,0.042 0.318545,0.010545 0.491972,-0.086977 0.103391,-0.058155 0.24003,-0.123232 0.303696,-0.1445795 0.195299,-0.065483 0.450455,-0.223723 0.521421,-0.32343 0.515382,-0.738714 0.680355,-1.3265135 0.509607,-2.0699305 -0.06165,-0.17318 -0.13465,-0.3819505 -0.162276,-0.46396 C 14.731511,5.7704185 14.677841,5.704022 14.471968,5.520788 14.156546,5.2400535 14.062207,5.1784705 13.84615,5.112314 13.507939,4.9017466 13.210784,5.0336895 12.895662,5.133299 12.131788,5.403042 11.291906,5.8539084 11.096895,6.5393119 Z"/>
 <path style="fill:#835145" d="m 10.894129,16.460689 c 0.110493,-0.341196 0.118118,-0.460662 0.04483,-0.698781 -0.02862,-0.09297 -0.06121,-0.23092 -0.07246,-0.306566 -0.02905,-0.195295 -0.0822,-0.295881 -0.274259,-0.519327 -0.418606,-0.788014 -0.8078035,-0.441638 -1.622414,-0.917826 -0.1973785,-0.042 -0.3047415,-0.01055 -0.470654,0.08698 -0.098911,0.05815 -0.229628,0.123232 -0.2905355,0.14458 -0.186836,0.06548 -0.430936,0.223723 -0.498826,0.32343 -1.0029619,0.504933 -0.7188434,1.295351 -0.487525,2.06993 0.058976,0.17318 0.1288155,0.381951 0.1552445,0.46396 0.03948,0.122517 0.090825,0.188914 0.2877775,0.372148 0.301754,0.280734 0.392005,0.342318 0.5987,0.408474 0.323555,0.210567 0.607833,0.07862 0.9093,-0.02098 1.3382855,-0.269744 2.1238365,-0.72061 1.7208215,-1.406014 z"/>
 <path style="fill:#835145" d="m 17.491558,14.865532 c 0.24707,0.01436 0.327296,-0.0041 0.469307,-0.108123 0.05544,-0.0406 0.139712,-0.09334 0.18726,-0.117251 0.122751,-0.06173 0.178251,-0.122463 0.286576,-0.313449 0.888573,-0.738459 0.524988,-0.930375 0.276379,-1.416168 -0.01225,-0.158122 -0.05469,-0.23309 -0.152475,-0.338993 -0.05831,-0.06313 -0.127607,-0.148963 -0.153985,-0.19078 -0.401642,-0.543971 -1.287461,-0.38078 -1.775834,-0.26081 -0.102134,0.07991 -0.225513,0.175291 -0.274181,0.211996 -0.07271,0.05484 -0.106056,0.107247 -0.186906,0.293765 -0.123872,0.285768 -0.14618,0.366686 -0.147948,0.536781 -0.07325,0.288021 0.07115,0.476627 0.197724,0.684836 0.255454,0.786307 0.87008,1.445437 1.274081,1.018197 z"/>
 <path style="fill:#835145" d="m 6.3840346,9.1344679 c -0.2676615,-0.014355 -0.3545735,0.00415 -0.5084195,0.1081235 -0.060066,0.040595 -0.1513565,0.093341 -0.2028665,0.117251 -0.132981,0.06173 -0.193107,0.1224625 -0.3104595,0.3134495 -0.4460164,0.6358761 -0.3905589,0.8949931 -0.2994125,1.4161671 0.013275,0.158122 0.059244,0.23309 0.165182,0.338994 0.063167,0.06313 0.138242,0.148962 0.1668185,0.190779 0.4351145,0.543971 1.394758,0.38078 1.9238324,0.26081 0.110646,-0.07991 0.244307,-0.175291 0.2970315,-0.211996 0.078768,-0.05484 0.114894,-0.107247 0.202483,-0.293764 C 7.952419,11.088514 7.9765855,11.007595 7.978502,10.837501 8.0578545,10.549479 7.9014235,10.360873 7.764299,10.152664 7.487556,9.3663574 6.8217066,8.7072269 6.3840361,9.1344674 Z"/>
 <path style="fill:#835145" d="m 15.924564,18.795475 c 0.08981,-0.259639 0.09601,-0.350548 0.03644,-0.531749 -0.02326,-0.07075 -0.04975,-0.175723 -0.0589,-0.233287 -0.02361,-0.148613 -0.06682,-0.225155 -0.222928,-0.39519 -0.408039,-0.758074 -0.617175,-0.692412 -1.033797,-0.535158 -0.665279,0.300286 -1.140533,0.274555 -1.57388,0.764535 -0.161447,0.33634 -0.01655,0.735829 0.10917,1.12993 0.04793,0.131784 0.104706,0.290652 0.126188,0.353058 0.03209,0.09323 0.07383,0.143758 0.233916,0.283192 0.245276,0.21363 0.318635,0.260493 0.486644,0.310835 0.574463,0.225567 0.659381,-0.256311 1.081307,-0.534061 0.556369,-0.294272 1.037628,-0.260599 0.815838,-0.612103 z"/>
 <path style="fill:#8b9cbe;opacity:0.2" d="M 12.5625 2 C 12.132356 1.9905 11.664302 2.0701796 11.066406 2.2324219 C 10.632958 2.3500398 9.6596594 2.5790082 8.8261719 2.7636719 A 4.5000852 4.5000852 0 0 1 8.9316406 3.2382812 C 9.7369729 3.0586694 10.653381 2.8444979 11.066406 2.7324219 C 11.664302 2.57018 12.132356 2.4905 12.5625 2.5 C 13.115541 2.5122159 13.605913 2.6730261 14.226562 2.9980469 C 14.754694 3.2746178 15.571779 3.6168346 16.042969 3.7578125 C 17.108984 4.0767568 17.574585 4.3731222 19.130859 5.7265625 C 20.146628 6.6099484 20.411599 6.9288708 20.615234 7.5195312 C 20.75154 7.9149067 21.111854 8.9229 21.416016 9.7578125 C 21.95331 11.232582 21.96875 11.330143 21.96875 13.177734 C 21.96875 13.380001 21.979842 13.564988 21.988281 13.75 C 21.99045 13.419457 21.96875 13.07067 21.96875 12.677734 C 21.96875 10.830143 21.953311 10.732583 21.416016 9.2578125 C 21.111854 8.4229 20.75154 7.4149067 20.615234 7.0195312 C 20.411599 6.4288707 20.146628 6.1099484 19.130859 5.2265625 C 17.574585 3.8731222 17.108984 3.5767568 16.042969 3.2578125 C 15.571779 3.1168346 14.754694 2.7746178 14.226562 2.4980469 C 13.605913 2.1730261 13.115541 2.0122159 12.5625 2 z M 9 4.5 A 4.5 4.5 0 0 1 4.5 9 A 4.5 4.5 0 0 1 2.9042969 8.7011719 C 2.8260659 9.0399699 2.6830185 9.5464064 2.4785156 10.136719 C 2.1161552 11.182693 1.9901436 11.794924 2.0273438 12.398438 C 2.0741141 11.929819 2.2127815 11.403776 2.4785156 10.636719 C 2.6830185 10.046407 2.8260659 9.5399699 2.9042969 9.2011719 A 4.5 4.5 0 0 0 4.5 9.5 A 4.5 4.5 0 0 0 9 5 A 4.5 4.5 0 0 0 8.9902344 4.7167969 A 4.5000852 4.5000852 0 0 0 9 4.5 z"/>
</svg>
