<svg xmlns="http://www.w3.org/2000/svg" width="24" height="24" version="1">
 <rect style="opacity:0.2" width="20" height="20" x="2" y="2.5" rx="1" ry="1"/>
 <rect style="fill:#68303e" width="20" height="20" x="2" y="2" rx="1" ry="1"/>
 <path style="opacity:0.1;fill:#8b9cbe" d="M 3,2 C 2.446,2 2,2.446 2,3 v 0.5 c 0,-0.554 0.446,-1 1,-1 h 18 c 0.554,0 1,0.446 1,1 V 3 C 22,2.446 21.554,2 21,2 Z"/>
 <path style="opacity:0.2" d="m 10.942846,5.5000015 -0.179225,0.05509 c -0.255008,0.03976 -0.284156,0.2721975 -0.383947,0.4788285 -0.194914,0.2914385 -0.205941,0.487266 -0.09116,0.772535 0.127308,0.314006 0.308271,0.583282 0.537682,0.864015 l 0.376166,0.4599425 V 8.242338 8.3542635 l -0.223349,0.098285 -0.22317,0.098458 -0.420866,0.058236 C 10.060959,8.631316 10.016121,8.662525 9.90998,8.8876545 9.789939,9.066402 9.8059375,9.2341035 9.8052665,9.4392365 l -10e-4,0.331576 -0.139257,0.4924695 c -0.2224755,0.589774 -0.132327,1.21878 -0.126594,1.835569 -0.00936,0.620593 -0.088252,1.172259 0.227509,1.708781 0.115051,0.185309 0.129012,0.36568 0.3580845,0.36568 0.239154,0.03673 0.112921,-0.179951 0.08591,-0.343294 -0.01936,-0.21743 -0.155173,-0.343295 0.100192,-0.343295 0.205975,0.02012 0.144613,-0.03924 0.0935,-0.201465 -0.02413,-0.156744 -0.100736,-0.242494 -0.20418,-0.356412 -0.128153,-0.128291 -0.15818,-0.133453 -0.05028,-0.268618 0.178578,-0.210724 0.158797,-0.52382 0.202375,-0.785223 l 0.111943,-0.671553 0.06493,-0.306567 c 0.03712,-0.157109 0.10401,-0.287318 0.26606,-0.338577 l 0.101277,-0.03201 0.292254,0.530242 c 0.208576,0.289902 0.292253,0.520198 0.292253,0.857104 0.03861,0.258491 -0.03001,0.368279 -0.175784,0.569413 -0.195943,0.197824 -0.195822,0.400839 -0.228778,0.661234 l -0.05299,0.418671 -0.411073,0.655807 c -0.283499,0.349347 -0.41225,0.66535 -0.472387,1.088123 l -0.06149,0.432311 -0.318477,0.340844 C 9.439521,16.332163 9.411738,16.572856 9.340406,16.945714 L 9.240031,17.47036 9.1380355,17.649966 9.035851,17.829395 9.029001,18.187552 c -0.090638,0.257928 0.053683,0.327987 0.125352,0.514855 0.219923,0.377781 0.823985,0.936303 1.314425,0.766165 l -0.05804,-0.18415 -0.06348,-0.201465 -0.132024,-0.145502 -0.131839,-0.145679 -0.05444,-0.324409 -0.054436,-0.324581 h 0.095674 0.09567 L 10.3677,17.49362 c 0.07017,-0.420976 0.221467,-0.669098 0.51054,-0.962552 0.275494,-0.206827 0.334052,-0.406649 0.417589,-0.71632 l 0.108689,-0.402929 0.198394,-0.313391 0.198211,-0.31339 0.312692,-0.335076 c 0.28723,-0.264801 0.477627,-0.550994 0.477627,0.0196 -0.03668,0.25564 0.0875,0.453423 0.188994,0.682571 0.236538,0.378387 0.146795,0.527492 -0.01482,0.912534 -0.245553,0.397451 -0.172445,0.683382 -0.102725,1.119077 l 0.101456,0.632898 -0.132743,0.24816 c -0.185388,0.297575 -0.174177,0.518103 0.01429,0.778578 l 0.147216,0.203215 -0.05136,0.129238 c -8.5e-4,0.358789 0.370279,0.291153 0.623439,0.292755 h 1.621464 c -0.01539,-0.337531 -0.751769,-0.461399 -1.064128,-0.505765 l -0.122433,-0.142702 -0.122256,-0.142529 -0.02876,-0.603172 -0.02857,-0.603172 0.13962,-0.598099 0.139613,-0.598272 c 0.27117,-0.173288 0.226617,-0.262818 0.164575,-0.572918 l -0.07594,-0.379666 -0.01047,-0.940171 -0.01066,-0.940171 -0.06528,-0.693934 c 0.04899,-0.214797 -0.254775,-0.693934 0.0586,-0.693934 l 0.05625,0.141653 0.05624,0.141656 v 0.258478 c 0.0085,0.199985 -0.06651,0.283136 0.148118,0.203565 l 0.148296,-0.05509 0.08193,0.125043 0.08174,0.124866 0.0015,0.20671 c 0.01516,0.135418 -0.05825,0.242625 0.09404,0.151448 l 0.0926,-0.05526 0.0029,-0.240987 0.0029,-0.240991 0.136,0.173833 c 0.08017,0.06742 0.136004,0.264932 0.136004,0.08062 0.01018,-0.132692 -0.05802,-0.254259 -0.102363,-0.377221 -0.04802,-0.203187 -0.09169,-0.278307 -0.269108,-0.370226 l -0.166924,-0.08639 0.04829,-0.34784 C 14.626746,11.479216 14.386,11.159563 14.219535,10.789682 L 13.882061,10.139247 13.704282,9.781084 13.526326,9.4229265 13.463391,9.077705 C 13.441481,8.7513975 13.382596,8.7252685 13.091558,8.607622 12.910373,8.504969 12.754534,8.4827555 12.553345,8.4827555 H 12.324209 L 12.180068,8.18393 12.035932,7.9849105 V 7.8766575 7.768232 l 0.18519,-0.056835 C 12.511229,7.668042 12.406312,7.4234215 12.406312,7.1853465 12.431792,6.915417 12.431647,6.748378 12.270313,6.54213 l -0.136,-0.1738335 -0.0029,-0.201465 C 12.157523,5.972199 12.085183,5.923441 11.950026,5.7927555 11.792865,5.584482 11.60711,5.596345 11.357199,5.560164 Z"/>
 <path style="fill:#8b9cbe" d="m 10.942846,5.0000005 -0.179225,0.05509 c -0.255008,0.03976 -0.284156,0.2721975 -0.383947,0.4788285 -0.194914,0.2914385 -0.205941,0.487266 -0.09116,0.772535 0.127308,0.314006 0.308271,0.583282 0.537682,0.864015 l 0.376166,0.4599425 V 7.742337 7.8542625 L 10.979016,7.952547 10.755846,8.0510045 10.33498,8.10924 C 10.060959,8.131315 10.016121,8.162524 9.90998,8.3876535 9.789939,8.566401 9.8059375,8.7341025 9.8052665,8.9392355 l -10e-4,0.331576 -0.139257,0.492469 C 9.442534,10.353054 9.5326825,10.982061 9.5384155,11.59885 c -0.00936,0.620593 -0.088252,1.172258 0.227509,1.708781 0.115051,0.185308 0.129012,0.36568 0.3580845,0.36568 0.239154,0.03673 0.112921,-0.179952 0.08591,-0.343294 -0.01936,-0.21743 -0.155173,-0.343295 0.100192,-0.343295 0.205975,0.02012 0.144613,-0.03925 0.0935,-0.201465 -0.02413,-0.156744 -0.100736,-0.242494 -0.20418,-0.356412 -0.128153,-0.128291 -0.15818,-0.133453 -0.05028,-0.268618 0.178578,-0.210724 0.158797,-0.52382 0.202375,-0.785223 l 0.111943,-0.671553 0.06493,-0.306567 c 0.03712,-0.157109 0.10401,-0.287318 0.26606,-0.338577 l 0.101277,-0.03201 0.292254,0.530242 c 0.208576,0.289902 0.292253,0.520198 0.292253,0.857104 0.03861,0.258491 -0.03001,0.368279 -0.175784,0.569413 -0.195943,0.197824 -0.195822,0.400839 -0.228778,0.661234 l -0.05299,0.418671 -0.411073,0.655807 c -0.283499,0.349347 -0.41225,0.66535 -0.472387,1.088123 l -0.06149,0.432311 -0.318477,0.340844 C 9.439526,15.832167 9.411743,16.07286 9.340411,16.445718 L 9.240036,16.970364 9.1380405,17.14997 9.035856,17.329399 9.029006,17.687556 c -0.090638,0.257928 0.053683,0.327987 0.125352,0.514855 0.219923,0.377781 0.823985,0.936303 1.314425,0.766165 l -0.05804,-0.18415 -0.06348,-0.201465 L 10.215239,18.437459 10.0834,18.29178 10.02896,17.967371 9.974524,17.64279 h 0.095675 0.09567 l 0.20183,-0.649166 c 0.07017,-0.420976 0.221467,-0.669098 0.51054,-0.962552 0.275493,-0.206827 0.334051,-0.406649 0.417588,-0.71632 l 0.10869,-0.402929 0.198394,-0.313391 0.19821,-0.31339 0.312692,-0.335076 c 0.28723,-0.264801 0.477628,-0.550994 0.477628,0.0196 -0.03668,0.25564 0.0875,0.453423 0.188993,0.68257 0.236539,0.378388 0.146795,0.527493 -0.01482,0.912535 -0.245553,0.397451 -0.172445,0.683382 -0.102725,1.119077 l 0.101456,0.632898 -0.132742,0.24816 c -0.185388,0.297575 -0.174178,0.518103 0.01428,0.778578 l 0.147215,0.203215 -0.05136,0.129238 c -8.5e-4,0.358789 0.370279,0.291153 0.62344,0.292755 h 1.621464 c -0.01539,-0.337531 -0.75177,-0.461399 -1.064129,-0.505765 l -0.122433,-0.142702 -0.122255,-0.142529 -0.02876,-0.603172 -0.02857,-0.603172 0.139619,-0.598099 0.139614,-0.598272 c 0.27117,-0.173288 0.226616,-0.262818 0.164574,-0.572918 l -0.07594,-0.379666 -0.01047,-0.940171 -0.01066,-0.940171 -0.06528,-0.693934 c 0.04899,-0.214797 -0.254775,-0.693934 0.0586,-0.693934 l 0.05625,0.141653 0.05624,0.141656 v 0.258478 c 0.0085,0.199985 -0.06651,0.283136 0.148118,0.203565 l 0.148296,-0.05509 0.08193,0.125043 0.08174,0.124866 0.0015,0.20671 c 0.01516,0.135418 -0.05825,0.242625 0.09404,0.151448 l 0.0926,-0.05526 0.0029,-0.240987 0.0029,-0.240991 0.136,0.173833 c 0.08017,0.06742 0.136005,0.264932 0.136005,0.08062 0.01018,-0.132692 -0.05802,-0.254259 -0.102363,-0.377221 -0.04802,-0.203187 -0.09169,-0.278307 -0.269109,-0.370226 l -0.166924,-0.08639 0.04829,-0.34784 C 14.626746,10.979214 14.386,10.659562 14.219535,10.289681 L 13.882061,9.6392455 13.704282,9.281083 13.526326,8.9229255 13.463391,8.577704 C 13.441481,8.2513965 13.382595,8.2252675 13.091558,8.107621 12.910373,8.004968 12.754534,7.9827545 12.553345,7.9827545 H 12.324209 L 12.180068,7.683929 12.035932,7.4849095 V 7.3766565 7.268231 l 0.18519,-0.056835 c 0.290107,-0.043355 0.18519,-0.2879755 0.18519,-0.5260505 0.02548,-0.2699295 0.02534,-0.4369685 -0.135999,-0.6432165 l -0.136,-0.1738335 -0.0029,-0.201465 C 12.157523,5.472198 12.085183,5.42344 11.950026,5.2927545 11.792865,5.084481 11.60711,5.096344 11.357199,5.060163 Z"/>
</svg>
