<svg xmlns="http://www.w3.org/2000/svg" width="24" height="24" version="1.1">
 <rect style="opacity:0.2" width="21" height="21" x="2" y="1.5" rx="1.05" ry="1.05"/>
 <rect style="fill:#b2bfd9" width="21" height="21" x="2" y="1" rx="1.05" ry="1.05"/>
 <path style="opacity:0.1" d="M 17,12.5 C 17,12.5 16,12.5 16,13.5 V 14.5 C 16,15.5 17,15.5 17,15.5 H 19.5 C 19.5,15.5 20,15.5 20,16 20,16.5 19.5,16.5 19.5,16.5 H 16 V 17.5 H 20 C 20,17.5 21,17.5 21,16.5 V 15.5 C 21,14.5 20,14.5 20,14.5 H 17.5 C 17.5,14.5 17,14.5 17,14 17,13.5 17.5,13.5 17.5,13.5 H 21 V 12.5 Z M 10,12.5 V 16.5 C 10,17.5 11,17.5 11,17.5 H 15 V 16.5 H 11.5 C 11.5,16.5 11,16.5 11,16 11,15.5 11.5,15.5 11.5,15.5 H 15 V 14.5 H 11.5 C 11.5,14.5 11,14.5 11,14 11,13.5 11.5,13.5 11.5,13.5 H 15 V 12.5 Z M 4,12.5 V 17.5 H 5 V 13.5 H 7.5 C 7.5,13.5 8,13.5 8,14 V 17.5 H 9 V 13.5 C 9,12.5 8,12.5 8,12.5 Z M 13,5.5 V 9.5 C 13,10.5 14,10.5 14,10.5 H 17 C 17,10.5 18,10.5 18,9.5 V 5.5 H 17 V 9 C 17,9.5 16.5,9.5 16.5,9.5 H 14.5 C 14.5,9.5 14,9.5 14,9 V 5.5 Z M 7,5.5 V 10.5 H 8 V 9 C 8,9 8,8.5 8.5,8.5 H 11 C 11,8.5 12,8.5 12,7.5 V 6.5 C 12,5.5 11,5.5 11,5.5 Z M 8.5,6.5 H 10.5 C 10.5,6.5 11,6.5 11,7 11,7.5 10.5,7.5 10.5,7.5 H 8.5 C 8.5,7.5 8,7.5 8,7 8,6.5 8.5,6.5 8.5,6.5 Z"/>
 <path style="fill:#007f0e" d="M 17,12 C 17,12 16,12 16,13 V 14 C 16,15 17,15 17,15 H 19.5 C 19.5,15 20,15 20,15.5 20,16 19.5,16 19.5,16 H 16 V 17 H 20 C 20,17 21,17 21,16 V 15 C 21,14 20,14 20,14 H 17.5 C 17.5,14 17,14 17,13.5 17,13 17.5,13 17.5,13 H 21 V 12 Z M 10,12 V 16 C 10,17 11,17 11,17 H 15 V 16 H 11.5 C 11.5,16 11,16 11,15.5 11,15 11.5,15 11.5,15 H 15 V 14 H 11.5 C 11.5,14 11,14 11,13.5 11,13 11.5,13 11.5,13 H 15 V 12 Z M 4,12 V 17 H 5 V 13 H 7.5 C 7.5,13 8,13 8,13.5 V 17 H 9 V 13 C 9,12 8,12 8,12 Z M 13,5 V 9 C 13,10 14,10 14,10 H 17 C 17,10 18,10 18,9 V 5 H 17 V 8.5 C 17,9 16.5,9 16.5,9 H 14.5 C 14.5,9 14,9 14,8.5 V 5 Z M 7,5 V 10 H 8 V 8.5 C 8,8.5 8,8 8.5,8 H 11 C 11,8 12,8 12,7 V 6 C 12,5 11,5 11,5 Z M 8.5,6 H 10.5 C 10.5,6 11,6 11,6.5 11,7 10.5,7 10.5,7 H 8.5 C 8.5,7 8,7 8,6.5 8,6 8.5,6 8.5,6 Z"/>
 <path style="fill:#8b9cbe;opacity:0.2" d="M 3.0508 1 C 2.4691 1 2 1.4691 2 2.0508 L 2 2.5508 C 2 1.9691 2.4691 1.5 3.0508 1.5 L 21.949 1.5 C 22.531 1.5 23 1.9691 23 2.5508 L 23 2.0508 C 23 1.4691 22.531 1 21.949 1 L 3.0508 1 z"/>
</svg>
