<svg xmlns="http://www.w3.org/2000/svg" width="24" height="24" version="1">
 <rect style="fill:#b2bfd9" width="20" height="20" x="2" y="2" rx="1" ry="1"/>
 <path style="opacity:0.2;fill:#8b9cbe" d="M 3,2 C 2.446,2 2,2.446 2,3 v 0.5 c 0,-0.554 0.446,-1 1,-1 h 18 c 0.554,0 1,0.446 1,1 V 3 C 22,2.446 21.554,2 21,2 Z"/>
 <path style="opacity:0.2" d="m 3,22.5 c -0.554,0 -1,-0.446 -1,-1 V 21 c 0,0.554 0.446,1 1,1 h 18 c 0.554,0 1,-0.446 1,-1 v 0.5 c 0,0.554 -0.446,1 -1,1 z"/>
 <path style="opacity:0.2" d="M 7,6 C 6.446,6 6,6.446 6,7 v 10 c 0,0.554 0.446,1 1,1 0.554,0 1,-0.446 1,-1 V 7 C 8,6.446 7.554,6 7,6 Z"/>
 <path style="opacity:0.2" d="m 12,6 c -0.554,0 -1,0.446 -1,1 v 10 c 0,0.554 0.446,1 1,1 0.554,0 1,-0.446 1,-1 V 7 C 13,6.446 12.554,6 12,6 Z"/>
 <path style="opacity:0.2" d="m 17,6 c -0.554,0 -1,0.446 -1,1 v 10 c 0,0.554 0.446,1 1,1 0.554,0 1,-0.446 1,-1 V 7 C 18,6.446 17.554,6 17,6 Z"/>
 <path style="fill:#4f4f4f" d="M 6,10.5 V 18 c 0,0.554 0.446,1 1,1 0.554,0 1,-0.446 1,-1 v -7.5 z"/>
 <path style="fill:#4f4f4f" d="M 16,10.5 V 18 c 0,0.554 0.446,1 1,1 0.554,0 1,-0.446 1,-1 v -7.5 z"/>
 <path style="fill:#4f4f4f" d="M 11,14.5 V 18 c 0,0.554 0.446,1 1,1 0.554,0 1,-0.446 1,-1 v -3.5 z"/>
 <rect style="opacity:0.1" width="4" height="3" x="5" y="9.5" rx="1" ry="1"/>
 <rect style="fill:#818181" width="4" height="3" x="5" y="9" rx="1" ry="1"/>
 <rect style="opacity:0.1" width="4" height="3" x="10" y="13.5" rx="1" ry="1"/>
 <rect style="fill:#818181" width="4" height="3" x="10" y="13" rx="1" ry="1"/>
 <rect style="opacity:0.1" width="4" height="3" x="15" y="9.5" rx="1" ry="1"/>
 <rect style="fill:#818181" width="4" height="3" x="15" y="9" rx="1" ry="1"/>
</svg>
