<svg xmlns="http://www.w3.org/2000/svg" width="24" height="24" version="1">
 <rect fill="#b2bfd9" width="20" height="20" x="2" y="2" rx="1" ry="1"/>
 <path fill="#fff" opacity=".2" d="m3 2c-0.554 0-1 0.446-1 1v0.5c0-0.554 0.446-1 1-1h18c0.554 0 1 0.446 1 1v-0.5c0-0.554-0.446-1-1-1h-18z"/>
 <path opacity=".2" d="m3 22.5c-0.554 0-1-0.446-1-1v-0.5c0 0.554 0.446 1 1 1h18c0.554 0 1-0.446 1-1v0.5c0 0.554-0.446 1-1 1h-18z"/>
 <path fill="#474747" d="m12 7c-0.704 0-1.4 0.2755-1.938 0.8125-0.4735 0.474-0.7405 1.0685-0.7965 1.6875h-3.2655v6.5h5.5v0.75h0.5v-2h-0.5v0.75h-5v-5.5h2.7655c0.056 0.619 0.323 1.2135 0.797 1.6875 1.074 1.074 2.801 1.074 3.875 0 0.474-0.474 0.741-1.0685 0.797-1.6875h2.7655v5.5h-4.5v-1.5h-0.5v3.5h0.5v-1.5h5v-6.5h-3.2655c-0.056-0.619-0.322-1.2135-0.796-1.6875-0.538-0.537-1.234-0.8125-1.938-0.8125zm0 0.5155c0.4915 0 0.9815 0.158 1.3905 0.4845l-1.39 1.3905-1.39-1.3905c0.408-0.3265 0.898-0.4845 1.39-0.4845zm-1.75 0.844 1.39 1.3905-1.39 1.39c-0.6525-0.818-0.6525-1.963 0-2.781zm3.5 0c0.6525 0.818 0.6525 1.9635 0 2.7815l-1.39-1.3905 1.39-1.3905zm-1.75 1.7505 1.39 1.39c-0.818 0.6525-1.9635 0.6525-2.7815 0l1.3905-1.3905z"/>
</svg>
