<svg xmlns="http://www.w3.org/2000/svg" width="24" height="24" version="1">
 <rect style="opacity:0.2" width="20" height="20" x="2" y="2.5" rx="6" ry="6"/>
 <rect style="fill:#ff811f" width="20" height="20" x="2" y="2" rx="6" ry="6"/>
 <path style="opacity:0.1" d="m 12,5.500125 c -3.8659932,0 -7,3.1340068 -7,7 0,3.865993 3.1340068,7 7,7 1.274663,-0.0028 2.524357,-0.353671 3.614258,-1.014649 0.488378,0.54529 0.92648,1.12172 1.274414,1.686524 L 18.59082,19.122195 C 18.1876,18.467644 17.702531,17.823817 17.164062,17.214969 18.342494,15.927235 18.997285,14.245677 19,12.500125 c 0,-3.8659932 -3.134007,-7 -7,-7 z m 0,2.5 c 2.209139,0 4,2.014719 4,4.5 -0.0013,1.020472 -0.310877,2.010144 -0.877929,2.806641 -0.02956,-0.02254 -0.0582,-0.04709 -0.08789,-0.06934 -1.407428,-1.054219 -2.463934,-1.815635 -4.060818,-1.691406 l 0.155273,1.993164 c 0.731682,-0.05692 1.331814,0.34619 2.426053,1.102538 -0.491751,0.235083 -1.020383,0.356949 -1.554689,0.358403 -2.209139,0 -4,-2.014719 -4,-4.5 0,-2.485281 1.790861,-4.5 4,-4.5 z"/>
 <path style="fill:#5a3608" d="m 12,5 a 7,7 0 0 0 -7,7 7,7 0 0 0 7,7 7,7 0 0 0 7,-7 7,7 0 0 0 -7,-7 z m 0,2.5 A 4,4.5 0 0 1 16,12 4,4.5 0 0 1 12,16.5 4,4.5 0 0 1 8,12 4,4.5 0 0 1 12,7.5 Z"/>
 <path style="opacity:0.2;fill:#8b9cbe" d="M 8,2 C 4.676,2 2,4.676 2,8 v 0.5 c 0,-3.324 2.676,-6 6,-6 h 8 c 3.324,0 6,2.676 6,6 V 8 C 22,4.676 19.324,2 16,2 Z"/>
 <path style="fill:none;stroke:#5a3608;stroke-width:2" d="m 11.052,14.042414 c 2.391,-0.186006 5.066251,2.472259 6.687834,5.104593"/>
</svg>
