<svg xmlns="http://www.w3.org/2000/svg" width="24" height="24" version="1">
 <path style="opacity:0.2" d="M 21,2.5 C 21.554,2.5 22,2.946 22,3.5 V 21.5 C 22,22.054 21.554,22.5 21,22.5 H 10 L 2,14.5 V 3.5 C 2,2.946 2.446,2.5 3,2.5 Z"/>
 <path style="fill:#303d75" d="M 21,2 C 21.554,2 22,2.446 22,3 V 21 C 22,21.554 21.554,22 21,22 H 10 L 2,14 V 3 C 2,2.446 2.446,2 3,2 Z"/>
 <path style="opacity:0.2" d="M 12,5.5 A 3.5,3.5 0 0 0 8.5,9 3.5,3.5 0 0 0 8.54,9.501 2.5,2.5 0 0 0 8.5,9.5 2.5,2.5 0 0 0 6,12 2.5,2.5 0 0 0 8.5,14.5 H 15 A 3,3 0 0 0 18,11.5 3,3 0 0 0 15.466,8.5391 3.5,3.5 0 0 0 12,5.5 Z M 11.999,6.5 H 12 C 13.26,6.5018 14.309,7.4221 14.475,8.6709 A 1.0001,1.0001 0 0 0 15.311,9.5273 C 16.29,9.6812 16.999,10.51 17,11.501 16.999,12.617 16.116,13.5 15,13.5 H 8.5 C 7.6597,13.5 7,12.84 7,12 7,11.16 7.6597,10.5 8.5,10.5 8.501,10.5 8.502,10.5 8.503,10.5 A 1.0001,1.0001 0 0 0 9.5283,9.3496 C 9.5105,9.2331 9.5012,9.1159 9.5,8.998 9.5011,7.6068 10.608,6.5005 11.999,6.5 Z"/>
 <path style="fill:#44559e" d="M 2,14 H 9 C 9.5523,14 10,14.448 10,15 V 22 Z"/>
 <path style="opacity:0.1;fill:#8b9cbe" d="M 21,2 C 21.554,2 22,2.446 22,3 V 3.5 C 22,2.946 21.554,2.5 21,2.5 H 3 C 2.446,2.5 2,2.946 2,3.5 V 3 C 2,2.446 2.446,2 3,2 Z"/>
 <path style="fill:#5d8cb9" d="M 12,5 A 3.5,3.5 0 0 0 8.5,8.5 3.5,3.5 0 0 0 8.54,9.001 2.5,2.5 0 0 0 8.5,9 2.5,2.5 0 0 0 6,11.5 2.5,2.5 0 0 0 8.5,14 H 15 A 3,3 0 0 0 18,11 3,3 0 0 0 15.466,8.0391 3.5,3.5 0 0 0 12,5 Z M 11.999,6 H 12 C 13.26,6.0018 14.309,6.9221 14.475,8.1709 A 1.0001,1.0001 0 0 0 15.311,9.0273 C 16.29,9.1812 16.999,10.01 17,11.001 16.999,12.117 16.116,13 15,13 H 8.5 C 7.6597,13 7,12.34 7,11.5 7,10.66 7.6597,10 8.5,10 8.501,10 8.502,10 8.503,10 A 1.0001,1.0001 0 0 0 9.5283,8.8496 C 9.5105,8.7331 9.5012,8.6159 9.5,8.498 9.5011,7.1068 10.608,6.0005 11.999,6 Z"/>
 <path style="opacity:0.1;fill:#8b9cbe" d="M 9,14 C 9.5523,14 10,14.448 10,15 V 15.5 C 10,14.948 9.5523,14.5 9,14.5 H 2.5 L 2,14 Z"/>
</svg>
