<svg xmlns="http://www.w3.org/2000/svg" width="24" height="24" version="1.1">
 <path style="opacity:0.2" d="M 5.3720706,4.4998983 C 5.1809057,4.5001102 4.9981409,4.5798416 4.8662113,4.7196248 L 2.1933596,7.5487265 c -0.077764,0.082466 -0.1309954,0.182553 -0.1621094,0.2900385 -0.01853,0.064011 -0.031265,0.129431 -0.03125,0.1972665 -5e-7,3.24e-4 0,6.5e-4 0,10e-4 V 18.849531 c 0,0.707289 0.4532227,1.255777 0.8535157,1.458008 0.4002929,0.20223 0.7792969,0.192383 0.7792969,0.192383 H 19.626954 c 0.191165,-2.12e-4 0.374906,-0.07994 0.506836,-0.219727 l 2.672851,-2.829101 c 0.03477,-0.03687 0.06401,-0.07726 0.08984,-0.120118 0.026,-0.04313 0.04619,-0.08914 0.0625,-0.136718 C 22.9843,17.120407 23.000015,17.043346 23,16.963789 V 6.150289 C 23,5.443 22.545801,4.8945114 22.145508,4.6922811 21.745216,4.4900504 21.366212,4.4998983 21.366212,4.4998983 Z"/>
 <path style="fill:#4cdb5d" d="M 5.3723964,4.0000515 C 5.1812315,4.0002634 4.9984666,4.0794542 4.8665369,4.2192374 L 2.1932293,7.0483925 C 2.0691537,7.17997 1.9999611,7.3547535 2.0000002,7.5364945 l 2.0577934,5.3839095 c 0.2525178,0.660675 -1.0786557,5.283652 -0.6783628,5.485883 0.400293,0.20223 2.1205694,-0.906311 2.1205694,-0.906311 l 12.9999998,0.5 c 0.191165,-2.13e-4 0.868071,-0.360217 1,-0.5 l 3.306771,-0.5485 C 22.930847,16.819898 23.00004,16.645113 23,16.463372 V 5.650392 C 23,4.9431028 22.546257,4.3947601 22.145964,4.1925298 21.745671,3.9902991 21.366667,4.0000515 21.366667,4.0000515 Z"/>
 <path style="fill:#31ae3e" d="m 2.0307622,7.339113 c -0.018411,0.06382 -0.030776,0.129996 -0.030761,0.197609 v 10.812443 c 0,0.707289 0.4535778,1.256401 0.8538707,1.458632 0.4002929,0.20223 0.7792969,0.192095 0.7792969,0.192095 H 19.627397 c 0.191166,-2.13e-4 0.374241,-0.07989 0.506171,-0.219668 l 2.673472,-2.82903 c 0.06964,-0.07385 0.119421,-0.161772 0.151944,-0.256432 z"/>
 <path style="opacity:0.1" d="m 2.0312502,7.338843 c -0.018411,0.063821 -0.031265,0.130629 -0.03125,0.1982425 v 0.5 C 1.9999856,7.969472 2.0128392,7.902664 2.0312502,7.838843 l 20.6591798,9.235352 0.116211,-0.123047 c 0.06964,-0.07385 0.11982,-0.162176 0.152344,-0.256836 z"/>
 <path style="opacity:0.2;fill:#8b9cbe" d="M 5.3720705,3.999976 C 5.1809056,4.0001879 4.9981408,4.0799193 4.8662111,4.2197025 L 2.1933596,7.048804 C 2.0692839,7.1803815 1.999961,7.354368 2.0000002,7.536109 l 0.073242,0.191406 C 2.1044957,7.662719 2.1432834,7.601908 2.1933596,7.548804 L 4.8662111,4.7197025 C 4.9981408,4.5799193 5.1809056,4.5001879 5.3720705,4.499976 H 21.366211 c 0,0 0.379004,-0.00985 0.779297,0.1923828 C 22.545802,4.894589 23,5.4430775 23,6.1503665 v -0.5 C 23,4.9430774 22.545802,4.394589 22.145508,4.1923588 21.745215,3.9901281 21.366211,3.999976 21.366211,3.999976 Z"/>
 <path style="opacity:0.2" d="m 9,7.5 v 9 h 1 0.5 1.75 0.25 0.25 c 1.8005,0 3.25,-1.4495 3.25,-3.25 v -2.5 C 16,8.9495 14.5505,7.5 12.75,7.5 h -0.25 -2 z m 1,1 H 12.1875 12.5 12.8125 C 14.056807,8.5 15,9.3796616 15,10.541016 v 2.917968 C 15,14.620338 14.056807,15.5 12.8125,15.5 H 12.5 12.1875 10 Z"/>
 <path style="fill:#8b9cbe" d="M 9 7 L 9 16 L 10 16 L 10.5 16 L 12.25 16 L 12.5 16 L 12.75 16 C 14.5505 16 16 14.5505 16 12.75 L 16 10.25 C 16 8.4495 14.5505 7 12.75 7 L 12.5 7 L 10.5 7 L 9 7 z M 10 8 L 12.1875 8 L 12.5 8 L 12.8125 8 C 14.056807 8 15 8.8796616 15 10.041016 L 15 12.958984 C 15 14.120338 14.056807 15 12.8125 15 L 12.5 15 L 12.1875 15 L 10 15 L 10 8 z"/>
</svg>
