<svg xmlns="http://www.w3.org/2000/svg" width="24" height="24" version="1">
 <g>
  <g style="opacity:0.2" transform="matrix(0.5,0,0,0.5,1.7e-4,1.5)">
   <path d="M 38.0578,4.1033393 17.826382,8.3167176 C 14.285707,8.7426886 13.99966,11.999657 14,11.995344 V 26.266 C 13.347,26.093 12.675,26.004 12,26 c -4.4183,0 -8,3.5817 -8,8 0,4.4183 3.5817,8 8,8 4.0287,-0.0038 7.4261,-3.0029 7.9297,-7 0,0 0.07031,-0.72732 0.07031,-1 V 13.93 l 16,-3.458025 v 11.793682 c -0.653,-0.173 -1.325,-0.262 -2,-0.266 -4.4183,0 -8,3.5817 -8,8 0,4.4183 3.5817,8 8,8 4.0287,-0.0038 7.4261,-3.0029 7.9297,-7 l 0.07,-1 V 7.2969475 c 0,0 0.0273,-3.9023963 -3.94191,-3.1936082 z"/>
  </g>
  <g style="fill:#3c8cf8" transform="matrix(0.5,0,0,0.5,1.7e-4,1.0001714)">
   <path style="fill:#4f4f4f" d="M 38.0578,4.1033393 17.826382,8.3167176 C 14.285707,8.7426886 13.99966,11.999657 14,11.995344 V 26.266 C 13.347,26.093 12.675,26.004 12,26 c -4.4183,0 -8,3.5817 -8,8 0,4.4183 3.5817,8 8,8 4.0287,-0.0038 7.4261,-3.0029 7.9297,-7 0,0 0.07031,-0.72732 0.07031,-1 V 13.93 l 16,-3.458025 v 11.793682 c -0.653,-0.173 -1.325,-0.262 -2,-0.266 -4.4183,0 -8,3.5817 -8,8 0,4.4183 3.5817,8 8,8 4.0287,-0.0038 7.4261,-3.0029 7.9297,-7 l 0.07,-1 V 7.2969475 c 0,0 0.0273,-3.9023963 -3.94191,-3.1936082 z"/>
  </g>
  <g style="opacity:0.1;fill:#8b9cbe" transform="matrix(0.5,0,0,0.5,1.7e-4,1.0001714)">
   <path style="fill:#8b9cbe" transform="matrix(2,0,0,2,-3.4e-4,-2.0003428)" d="m 19.683594,3.0195312 c -0.18956,-0.019436 -0.406221,-0.011096 -0.654297,0.033203 L 8.9140625,5.1582031 C 7.143725,5.3711886 6.99983,7.0002034 7,6.9980469 v 0.5 C 6.99983,7.5002034 7.143725,5.8711886 8.9140625,5.6582031 L 19.029297,3.5507812 C 21.013902,3.1963872 21,5.1484375 21,5.1484375 v -0.5 c 0,0 0.01051,-1.4928511 -1.316406,-1.6289063 z M 17,12 c -2.20915,0 -4,1.79085 -4,4 0,0.08558 0.02009,0.165752 0.02539,0.25 C 13.156792,14.159568 14.876433,12.5 17,12.5 c 0.3375,0.002 0.6735,0.04631 1,0.132812 v -0.5 C 17.6735,12.046313 17.3375,12.002 17,12 Z M 6,14 c -2.20915,0 -4,1.79085 -4,4 0,0.08558 0.020095,0.165752 0.025391,0.25 C 2.1567915,16.159568 3.8764334,14.5 6,14.5 c 0.3375,0.002 0.6735,0.04631 1,0.132812 v -0.5 C 6.6735,14.046313 6.3375,14.002 6,14 Z"/>
  </g>
 </g>
 <circle style="fill:#69c561" cx="17" cy="17" r="6"/>
 <g style="fill:#8b9cbe" transform="matrix(0.5,0,0,0.5,-1.5,0)">
  <rect width="2" height="6" x="33" y="34"/>
  <rect width="2" height="4" x="29" y="36"/>
  <rect width="2" height="8" x="37" y="32"/>
  <rect width="2" height="12" x="41" y="28"/>
 </g>
</svg>
