<svg xmlns="http://www.w3.org/2000/svg" width="24" height="24" version="1.1">
 <path style="opacity:0.2" d="M 12,22.5 5.2557,15.7859 A 4.287191,4.2679802 0 1 1 12,10.634 a 4.287191,4.2679802 0 1 1 6.7443,5.1519 z"/>
 <path style="opacity:0.2" d="M 12,2.5 C 10.4834,2.5 9.1772,3.1373 8.3118,4.1207 7.4463,5.1041 7,6.4028 7,7.75 V 16 H 9 V 7.75 C 9,6.8472 9.3037,6.0209 9.8133,5.4418 10.3229,4.8627 11.0167,4.5 12,4.5 c 0.9834,0 1.6772,0.3627 2.1868,0.9418 C 14.6963,6.0209 15,6.8472 15,7.75 V 16 h 2 V 7.75 C 17,6.4028 16.5537,5.1041 15.6883,4.1207 14.8229,3.1373 13.5167,2.5 12,2.5 Z"/>
 <path style="fill:none;stroke:#8e8e8e;stroke-width:1.99999774" d="M 8,15.5 V 7.25 C 8,5 9.5,3 12,3 c 2.5,0 4,2 4,4.25 v 8.25"/>
 <path style="fill:#1b61a4" d="M 12,22 5.2557,15.2859 A 4.287191,4.2679802 0 1 1 12,10.134 a 4.287191,4.2679802 0 1 1 6.7443,5.1519 z"/>
 <circle style="fill:#272727" cx="12" cy="-13" r="2" transform="scale(1,-1)"/>
 <path style="fill:#272727" d="M 11.9334,13.75 10,18 h 4 l -2,-4.25 z"/>
 <path style="opacity:0.1;fill:#8b9cbe" d="M 12,2 C 10.4834,2 9.177,2.6377 8.3116,3.6211 7.4461,4.6045 7,5.9028 7,7.25 v 0.5 C 7,6.4028 7.4461,5.1045 8.3116,4.1211 9.177,3.1377 10.4834,2.5 12,2.5 c 1.5167,0 2.8231,0.6377 3.6885,1.6211 C 16.5539,5.1045 17,6.4028 17,7.75 V 7.25 C 17,5.9028 16.5539,4.6045 15.6885,3.6211 14.8231,2.6377 13.5167,2 12,2 Z"/>
 <path style="opacity:0.1;fill:#8b9cbe" d="M 8.4747,8.0039 A 4.2871908,4.2679802 0 0 0 4.0118,12.5283 4.2871908,4.2679802 0 0 1 12,10.6338 4.2871908,4.2679802 0 0 1 19.9883,12.5322 4.2871908,4.2679802 0 0 0 12,10.1338 4.2871908,4.2679802 0 0 0 8.4747,8.0039 Z"/>
</svg>
