<svg xmlns="http://www.w3.org/2000/svg" xmlns:xlink="http://www.w3.org/1999/xlink" width="24" height="24" version="1.1">
 <path style="opacity:0.2" d="m 12.5,6.5 c 1.295455,0 9.5,0 9.5,5.644489 V 16.85551 C 22,22.5 21.568182,22.5 12.5,22.5 10.772728,22.5 3.0000001,22.5 3,16.85551 V 12.144489 C 3.0000001,6.5 11.204546,6.5 12.5,6.5 Z"/>
 <path style="fill:none;stroke:#37474f;stroke-width:0.75" d="m 10,3 2.25,3"/>
 <path style="fill:none;stroke:#37474f;stroke-width:0.75" d="M 14.5,3 12.75,6"/>
 <ellipse style="fill:#37474f" cx="12.5" cy="6.25" rx="3.5" ry="1.25"/>
 <circle style="opacity:0.2" cx="10" cy="3.5" r="1"/>
 <circle style="fill:#455a64" cx="10" cy="3" r="1"/>
 <path style="fill:#455a64" d="M 12.5,6 C 13.795455,6 22,6 22,11.644489 V 16.35551 C 22,22 21.568182,22 12.5,22 10.772728,22 3.0000001,22 3,16.35551 V 11.644489 C 3.0000001,6 11.204546,6 12.5,6 Z"/>
 <circle style="opacity:0.2" cx="20" cy="19.5" r="1"/>
 <circle style="fill:#8b9cbe" cx="20" cy="19" r="1"/>
 <path style="opacity:0.3" d="m 12,8 c 0.954546,0 7,0 7,4.233367 v 3.533266 C 19,20 13.272728,20 12,20 10.727273,20 5,20 5,15.766633 V 12.233367 C 5,8 11.045454,8 12,8 Z"/>
 <path style="opacity:0.5;fill:none;stroke:#26a69a;stroke-width:1.5;stroke-linecap:round" d="M 11.999941,10.75 9.7498826,17.250032"/>
 <path style="opacity:0.5;fill:none;stroke:#26a69a;stroke-width:1.5;stroke-linecap:round" d="m 16.749883,10.75 -2,6.500032"/>
 <path style="opacity:0.2;fill:none;stroke:#000000;stroke-width:1.5;stroke-linecap:round" d="m 7.2498826,11.249936 2.5,6.500032"/>
 <path style="fill:none;stroke:#26a69a;stroke-width:1.5;stroke-linecap:round" d="m 7.2498826,10.75 2.5,6.500032"/>
 <path style="opacity:0.2;fill:none;stroke:#000000;stroke-width:1.5;stroke-linecap:round" d="m 11.999941,11.249936 2.749942,6.500032"/>
 <path style="fill:none;stroke:#26a69a;stroke-width:1.5;stroke-linecap:round" d="m 11.999941,10.75 2.749942,6.500032"/>
 <circle style="opacity:0.2" cx="15" cy="3.5" r="1"/>
 <circle style="fill:#455a64" cx="15" cy="3" r="1"/>
 <path style="opacity:0.1;fill:#8b9cbe" d="M 10,2 A 1,1 0 0 0 9,3 1,1 0 0 0 9.0322265,3.2519531 1,1 0 0 1 10,2.5 1,1 0 0 1 10.967774,3.2480469 1,1 0 0 0 11,3 1,1 0 0 0 10,2 Z"/>
 <path style="opacity:0.1;fill:#8b9cbe" d="M 12.5,6 C 11.204546,6 3.0000001,6.000042 3,11.644531 v 0.5 C 3.0000001,6.500042 11.204546,6.5 12.5,6.5 c 1.295455,0 9.5,4.2e-5 9.5,5.644531 v -0.5 C 22,6.000042 13.795455,6 12.5,6 Z"/>
 <path style="opacity:0.1;fill:#8b9cbe" d="M 15,2 A 1,1 0 0 0 14,3 1,1 0 0 0 14.03223,3.2519531 1,1 0 0 1 15,2.5 1,1 0 0 1 15.967774,3.2480469 1,1 0 0 0 16,3 1,1 0 0 0 15,2 Z"/>
</svg>
