<svg xmlns="http://www.w3.org/2000/svg" width="24" height="24" version="1.1">
 <circle style="opacity:0.2" cx="12" cy="12.5" r="10"/>
 <circle style="fill:#4f4f4f" cx="12" cy="12" r="10"/>
 <path style="opacity:0.1" d="M 9.5,7.0546875 A 6,6 0 0 0 6,12.5 a 6,6 0 0 0 6,6 6,6 0 0 0 6,-6 6,6 0 0 0 -3.5,-5.441406 V 7.175781 A 5,5 0 0 1 17,11.5 a 5,5 0 0 1 -5,5 5,5 0 0 1 -5,-5 5,5 0 0 1 2.5,-4.3222655 z"/>
 <path style="fill:#ffb16a" d="M 9.5,6.5546875 A 6,6 0 0 0 6,12 6,6 0 0 0 12,18 6,6 0 0 0 18,12 6,6 0 0 0 14.5,6.558594 V 6.675781 A 5,5 0 0 1 17,11 5,5 0 0 1 12,16 5,5 0 0 1 7,11 5,5 0 0 1 9.5,6.6777345 Z"/>
 <path style="opacity:0.2" d="m 10,12.5 1,1 v 7 l 1,3 1,-3 v -7 l 1,-1 h -1 -2 z"/>
 <path style="opacity:0.2;fill:#8b9cbe" d="M 9.5,6.5546875 A 6,6 0 0 0 6,12 6,6 0 0 0 6.010742,12.204102 6,6 0 0 1 7.9404295,8.0966795 5,5 0 0 1 9.5,6.6777345 Z m 5,0.0039 v 0.117187 a 5,5 0 0 1 1.572265,1.438477 6,6 0 0 1 1.916993,4.1865225 A 6,6 0 0 0 18,12 6,6 0 0 0 14.5,6.558594 Z m 2.489258,4.6572265 A 5,5 0 0 1 12,16 5,5 0 0 1 7.010742,11.292969 5,5 0 0 0 7,11.5 a 5,5 0 0 0 5,5 5,5 0 0 0 5,-5 5,5 0 0 0 -0.01074,-0.284179 z"/>
 <path style="fill:#ffb16a" d="m 10,12 1,1 v 7 l 1,3 1,-3 v -7 l 1,-1 h -1 -2 z"/>
 <path style="opacity:0.1;fill:#8b9cbe" d="M 12,2 A 10,10 0 0 0 2,12 10,10 0 0 0 2.0107422,12.291016 10,10 0 0 1 12,2.5 10,10 0 0 1 21.989258,12.208985 10,10 0 0 0 22,12 10,10 0 0 0 12,2 Z"/>
 <path style="opacity:0.2;fill:#8b9cbe" d="m 10,12 0.5,0.5 h 0.5 2 0.5 L 14,12 h -1 -2 z"/>
</svg>
