<svg xmlns="http://www.w3.org/2000/svg" width="24" height="24" version="1">
 <rect style="fill:#696969" width="16" height="12" x="-21" y="-18" rx="1" ry="1" transform="matrix(0,-1,-1,0,0,0)"/>
 <rect style="fill:#8e8e8e" width="16" height="20" x="-19" y="-22" rx="1" ry="1" transform="matrix(0,-1,-1,0,0,0)"/>
 <rect style="fill:#8b9cbe" width="12" height="16" x="-17" y="-20" rx="0" ry="0" transform="matrix(0,-1,-1,0,0,0)"/>
 <path style="opacity:0.1;fill:#8b9cbe" d="M 3,3 C 2.446,3 2,3.446 2,4 v 0.5 c 0,-0.554 0.446,-1 1,-1 h 18 c 0.554,0 1,0.446 1,1 V 4 C 22,3.446 21.554,3 21,3 Z"/>
 <path style="opacity:0.2" d="m 6,20 v 0.5 c 0,0.554 0.446,1 1,1 h 10 c 0.554,0 1,-0.446 1,-1 V 20 c 0,0.554 -0.446,1 -1,1 H 7 C 6.446,21 6,20.554 6,20 Z"/>
 <path style="opacity:0.2" d="m 2,18 v 0.5 c 0,0.554 0.446,1 1,1 h 18 c 0.554,0 1,-0.446 1,-1 V 18 c 0,0.554 -0.446,1 -1,1 H 3 C 2.446,19 2,18.554 2,18 Z"/>
 <rect style="opacity:0.1" width="16" height=".5" x="4" y="17"/>
 <path style="fill:#3e5ba9" d="m 12,6 a 5,5 0 0 0 -1.691406,0.2998047 c 2.86168,1.8610451 4.371323,4.6770813 5.587891,7.8261723 A 5,5 0 0 0 17,11 5,5 0 0 0 12,6 Z"/>
 <path style="fill:#d82b2f" d="M 8.7851563,7.1772461 A 5,5 0 0 0 7,11 5,5 0 0 0 8.2407227,14.291016 l 0.180664,-0.354004 1.1225586,0.57373 c 0.092914,0.337426 0.1118245,0.626947 0.072266,0.878907 A 5,5 0 0 0 12,16 5,5 0 0 0 14.459473,15.346192 C 14.027825,12.396591 11.91866,8.886248 8.7851563,7.1772461 Z"/>
 <path style="opacity:0.2" d="M 10.367188 6.78125 A 5 5 0 0 0 8.7207031 7.734375 C 9.6315273 8.1775598 10.514539 8.8613699 11.283203 9.6894531 C 10.261509 10.716024 9.066133 12.52437 8.359375 14.421875 A 5 5 0 0 0 9.75 15.458984 C 10.212783 13.712804 11.214067 11.890308 12.205078 10.822266 C 13.131277 12.121746 13.865056 13.718568 14.300781 15.435547 A 5 5 0 0 0 15.818359 14.226562 C 14.800572 11.121056 12.305822 7.8322479 10.367188 6.78125 z"/>
 <path style="fill:#8b9cbe" d="M 10.366211,6.2807617 A 5,5 0 0 0 8.7202148,7.234375 c 0.9108242,0.4431848 1.7948132,1.1269948 2.5634772,1.955078 -1.084589,1.089766 -2.3734678,3.059172 -3.0561529,5.08252 a 5,5 0 0 0 1.4096679,1.132324 c 0.396988,-1.874165 1.492464,-3.922056 2.567871,-5.081055 1.004771,1.40972 1.801441,3.160544 2.215332,5.04541 a 5,5 0 0 0 1.518067,-1.297851 C 15.000042,10.868511 12.37625,7.3704706 10.366211,6.2807617 Z"/>
</svg>
