<svg xmlns="http://www.w3.org/2000/svg" width="24" height="24" version="1">
 <path style="opacity:0.2" d="M 19.5,2.5 22,5 v 10.875 c 0,0.3465 -0.2785,0.625 -0.625,0.625 h -9.75 C 11.279,16.5 11,16.2215 11,15.875 V 3.125 C 11,2.77875 11.279,2.5 11.625,2.5 Z"/>
 <path style="fill:#c2352a" d="M 19.5,2 22,4.5 V 15.375 C 22,15.7215 21.7215,16 21.375,16 h -9.75 C 11.279,16 11,15.7215 11,15.375 V 2.625 C 11,2.27875 11.279,2 11.625,2 Z"/>
 <rect style="opacity:0.4" width="7" height="5" x="-20" y="-14" rx=".547" ry=".625" transform="scale(-1)"/>
 <path style="opacity:0.2" d="m 12,3.5 v 2 h 1 v -2 z m 2,0 v 2 h 1 v -2 z m 2,0 v 2 h 1 v -2 z m 2,0 v 2 h 1 v -2 z m 2,1 v 1 h 1 v -1 z"/>
 <path style="fill:#f8c44e" d="M 12 3 L 12 5 L 13 5 L 13 3 L 12 3 z M 14 3 L 14 5 L 15 5 L 15 3 L 14 3 z M 16 3 L 16 5 L 17 5 L 17 3 L 16 3 z M 18 3 L 18 5 L 19 5 L 19 3 L 18 3 z M 20 4 L 20 5 L 21 5 L 21 4 L 20 4 z"/>
 <path style="opacity:0.1;fill:#8b9cbe" d="M 19.5,2 22,4.5 V 5 L 19.5,2.5 H 11.625 C 11.279,2.5 11,2.77875 11,3.125 v -0.5 C 11,2.27875 11.279,2 11.625,2 Z"/>
 <path style="opacity:0.2" d="M 10.5,8.5 13,11 V 21.875 C 13,22.2215 12.7215,22.5 12.375,22.5 H 2.625 C 2.279,22.5 2,22.2215 2,21.875 V 9.125 C 2,8.77875 2.279,8.5 2.625,8.5 Z"/>
 <path style="fill:#1778ba" d="M 10.5,8 13,10.5 V 21.375 C 13,21.7215 12.7215,22 12.375,22 H 2.625 C 2.279,22 2,21.7215 2,21.375 V 8.625 C 2,8.27875 2.279,8 2.625,8 Z"/>
 <rect style="opacity:0.4" width="7" height="5" x="-11" y="-20" rx=".547" ry=".625" transform="scale(-1)"/>
 <path style="opacity:0.2" d="m 3,9.5 v 2 h 1 v -2 z m 2,0 v 2 h 1 v -2 z m 2,0 v 2 h 1 v -2 z m 2,0 v 2 h 1 v -2 z m 2,1 v 1 h 1 v -1 z"/>
 <path style="fill:#f8c44e" d="M 3 9 L 3 11 L 4 11 L 4 9 L 3 9 z M 5 9 L 5 11 L 6 11 L 6 9 L 5 9 z M 7 9 L 7 11 L 8 11 L 8 9 L 7 9 z M 9 9 L 9 11 L 10 11 L 10 9 L 9 9 z M 11 10 L 11 11 L 12 11 L 12 10 L 11 10 z"/>
 <path style="opacity:0.1;fill:#8b9cbe" d="M 10.5,8 13,10.5 V 11 L 10.5,8.5 H 2.625 C 2.279,8.5 2,8.77875 2,9.125 v -0.5 C 2,8.27875 2.279,8 2.625,8 Z"/>
</svg>
