<svg xmlns="http://www.w3.org/2000/svg" width="24" height="24" version="1">
 <path style="opacity:0.2;fill-rule:evenodd" d="m 2.7672918,13.5 c -0.081743,-2.16e-4 -1.6342759,-4.71e-4 -0.076813,1.391602 l 8.2816431,7.200195 C 11.279665,22.359195 11.596922,22.494912 12,22.5 c 0.403078,-0.0051 0.720336,-0.140805 1.027878,-0.408203 l 8.281643,-7.200195 C 22.866984,13.499529 21.314451,13.499784 21.232708,13.5 L 12,13.5 l -9.2327082,0 z"/>
 <path style="fill:#58992d" d="M 7,2 C 6.5845,2 6.005276,2.4460251 6,3 l 0,10.5 6,0 6,0 L 18,3 C 18,2.446 17.4155,2 17,2 Z"/>
 <path style="fill:#81d547;fill-rule:evenodd" d="m 2.7672918,13 c -0.081743,-2.16e-4 -1.6342759,-4.71e-4 -0.076813,1.391602 l 8.2816431,7.200195 C 11.279665,21.859195 11.596922,21.994912 12,22 c 0.403078,-0.0051 0.720336,-0.140805 1.027878,-0.408203 l 8.281643,-7.200195 C 22.866984,12.999529 21.314451,12.999784 21.232708,13 L 12,13 2.7672918,13 Z"/>
 <path style="opacity:0.2;fill:#8b9cbe;fill-rule:evenodd" d="M 2.7675781,13 C 2.7026088,12.999828 1.713114,13.002318 2.0898438,13.701172 2.2816981,13.501746 2.7247996,13.499887 2.7675781,13.5 L 12,13.5 l 9.232422,0 c 0.04278,-1.13e-4 0.48588,0.0017 0.677734,0.201172 C 22.286886,13.002318 21.297391,12.999828 21.232422,13 L 12,13 2.7675781,13 Z"/>
 <path style="fill:#8b9cbe;opacity:0.1" d="M 7 2 C 6.5845 2 6.005276 2.4460251 6 3 L 6 3.5 C 6.005276 2.9460251 6.5845 2.5 7 2.5 L 17 2.5 C 17.4155 2.5 18 2.946 18 3.5 L 18 3 C 18 2.446 17.4155 2 17 2 L 7 2 z"/>
</svg>
