<svg xmlns="http://www.w3.org/2000/svg" width="24" height="24" version="1">
 <path style="opacity:0.2" d="m 6.5,2.5003936 -2.5,2.5 V 20.000395 c -0.047813,3.380807 5.047813,3.380807 5,0 v -4.5 h 3.5 c 3.589851,0 6.5,-2.910149 6.5,-6.5000013 0,-3.589851 -2.91021,-6.4790955 -6.5,-6.5000001 z m 2.5,5 h 3.5 c 0.88765,0 1.5,0.6123497 1.5,1.5000001 0,0.8876503 -0.61235,1.5000013 -1.5,1.5000013 H 9 Z"/>
 <path style="fill:#a2ddef" d="M 6.5 2 L 4 4.5 L 4 19.5 C 3.952187 22.880807 9.047813 22.880807 9 19.5 L 9 15 L 12.5 15 C 16.089851 15 19 12.089851 19 8.5 C 19 4.9101491 16.08979 2.0209046 12.5 2 L 6.5 2 z M 9 7 L 12.5 7 C 13.38765 7 14 7.6123497 14 8.5 C 14 9.3876503 13.38765 10 12.5 10 L 9 10 L 9 7 z"/>
 <path style="opacity:0.3;fill:#001851" d="M 6.3144531 4 L 6.3144531 4.5292969 A 0.50005 0.50005 0 0 0 6 5 L 6 19.5 A 0.50005 0.50005 0 1 0 7 19.5 L 7 13 L 12.369141 13 C 14.926444 13 17 10.985281 17 8.5 C 17 6.0147186 14.926444 4 12.369141 4 L 6.3144531 4 z M 7 5 L 7.3144531 5 L 9 5 L 12.369141 5 C 14.401224 5 16 6.5708198 16 8.5 C 16 10.42918 14.401224 12 12.369141 12 L 9 12 L 7.3144531 12 L 7 12 L 7 5 z"/>
 <path style="opacity:0.2;fill:#8b9cbe" d="M 6.5 2 L 4 4.5 L 4 5 L 6.5 2.5 L 12.5 2.5 C 16.005338 2.5204128 18.855778 5.2779635 18.988281 8.75 C 18.991474 8.6663275 19 8.5844539 19 8.5 C 19 4.9101491 16.08979 2.0209046 12.5 2 L 6.5 2 z M 13.978516 8.75 C 13.873028 9.4988481 13.300518 10 12.5 10 L 9 10 L 9 10.5 L 12.5 10.5 C 13.38765 10.5 14 9.8876503 14 9 C 14 8.9128683 13.989997 8.8315077 13.978516 8.75 z"/>
 <path style="opacity:0.1;fill-rule:evenodd" d="M 6.4550781,2.499587 C 5.9735512,2.5074764 5.4897443,2.6541219 5.0664062,2.9507589 4.5194672,3.3337694 4.1549231,3.9081565 4.0390625,4.5659932 3.9230542,5.2238298 4.0702236,5.8860436 4.453125,6.4331808 5.2436076,7.562825 6.8046921,7.8394468 7.9335938,7.0484151 8.4803842,6.6652563 8.8449291,6.0911656 8.9609375,5.4331808 9.0767975,4.7756405 8.9297762,4.1131299 8.546875,3.5659932 8.0528234,2.8599657 7.257623,2.486438 6.4550781,2.499587 Z m 5.3085939,7.970703 a 2.50025,2.50025 0 0 0 -2.0390626,3.923828 l 4.6992186,7 a 2.5010412,2.5010412 0 1 0 4.152344,-2.789062 l -4.701172,-7 A 2.50025,2.50025 0 0 0 11.763672,10.47029 Z"/>
 <path style="fill:#368bd6;fill-rule:evenodd" d="M 8.547328,3.0655608 C 8.9302292,3.6126975 9.0772714,4.276602 8.9614114,4.9341423 8.845403,5.5921272 8.4803826,6.1653109 7.9335922,6.5484697 6.8046905,7.3395014 5.2430855,7.0640835 4.4526029,5.9344393 4.0697015,5.3873022 3.9226591,4.723546 4.0386674,4.0657095 4.154528,3.4078727 4.5195478,2.834541 5.0664868,2.4515305 6.1953884,1.6604986 7.7568455,1.9359168 8.547328,3.0655608 Z"/>
 <path style="fill:none;stroke:#368bd6;stroke-width:5;stroke-linecap:round" d="m 16.5,19.5 -4.7,-7"/>
</svg>
