<svg xmlns="http://www.w3.org/2000/svg" width="24" height="24" version="1">
 <path style="opacity:0.2" d="m 9.1472709,2.4996772 c -0.6095301,0 -1.1002348,0.4905799 -1.1002348,1.099955 l 0,8.9748738 -3.3941242,-3.6933489 c -0.4123813,-0.4487366 -1.12484,-0.4308923 -1.555732,0 L 2.3192139,9.658525 c -0.431002,0.430883 -0.4202009,1.11392 0,1.555337 l 5.9137619,6.212346 C 8.939402,20.397987 11.593323,22.496824 14.648645,22.5 18.294502,22.5 21,19.5452 21,15.90027 L 21,3.6005322 c 0,-0.6093751 -0.240651,-1.099955 -0.850181,-1.099955 l -1.100235,0 c -0.60953,0 -1.050224,0.4905799 -1.050224,1.099955 l 0,5.8973228 c 0,-0.391234 -0.540715,-0.9975433 -1.150246,-0.9975433 l -1.100234,0 C 15.13935,8.5003117 14.5,9.106631 14.5,9.497855 l 0,0.0043 c 0,-0.393574 -0.34206,-1.0018332 -0.95159,-1.0018332 l -1.50041,0 c -0.60953,0 -1.050134,0.6082692 -1.050134,1.0018332 l 0,-5.9017227 c 0,-0.6093751 -0.299101,-0.6899887 -0.75016,-1.099955 l -1.1002351,0 z"/>
 <path style="fill:#fabd7f" d="m 9.1472709,1.9996772 c -0.6095301,0 -1.1002348,0.4905799 -1.1002348,1.099955 l 0,8.9748738 -3.3941242,-3.6933489 c -0.4123813,-0.4487366 -1.12484,-0.4308923 -1.555732,0 L 2.3192139,9.158525 c -0.431002,0.430883 -0.4202009,1.11392 0,1.555337 l 5.9137619,6.212346 C 8.939402,19.897987 11.593323,21.996824 14.648645,22 18.294502,22 21,19.0452 21,15.40027 L 21,3.1005322 c 0,-0.6093751 -0.240651,-1.099955 -0.850181,-1.099955 l -1.100235,0 c -0.60953,0 -1.050224,0.4905799 -1.050224,1.099955 l 0,5.8973228 c 0,-0.3912339 -0.540715,-0.9975433 -1.150246,-0.9975433 l -1.100234,0 C 15.13935,8.0003117 14.5,8.6066311 14.5,8.997855 l 0,0.00429 c 0,-0.3935739 -0.34206,-1.0018332 -0.95159,-1.0018332 l -1.50041,0 c -0.60953,0 -1.050134,0.6082693 -1.050134,1.0018332 l 0,-5.9017227 c 0,-0.6093751 -0.299101,-0.6899887 -0.75016,-1.099955 l -1.1002351,0 z"/>
 <path style="opacity:0.2;fill:#8b9cbe" d="M 9.1464844,2 C 8.5369543,2 8.046875,2.4902343 8.046875,3.0996094 l 0,0.5 C 8.046875,2.9902343 8.5369543,2.5 9.1464844,2.5 l 0.00195,0 1.0996096,0 c 0.451059,0.4099663 0.75,0.4902343 0.75,1.0996094 l 0,-0.5 c 0,-0.6093751 -0.298941,-0.6896431 -0.75,-1.0996094 L 9.1484375,2 9.1464844,2 Z M 19.048828,2 C 18.439298,2 18,2.4902343 18,3.0996094 l 0,0.5 C 18,2.9902343 18.439298,2.5 19.048828,2.5 l 1.101563,0 C 20.759921,2.5 21,2.9902343 21,3.5996094 l 0,-0.5 C 21,2.4902343 20.759921,2 20.150391,2 l -1.101563,0 z m -7,6 c -0.60953,0 -1.050781,0.6083892 -1.050781,1.001953 l 0,0.5 C 10.998047,9.108389 11.439298,8.5 12.048828,8.5 l 1.5,0 C 14.156578,8.5 14.498009,9.104379 14.5,9.498047 14.5,9.106823 15.138517,8.5 15.748047,8.5 l 1.101562,0 C 17.45914,8.5 18,9.106813 18,9.498047 L 18,8.9980469 C 18,8.606813 17.45914,8 16.849609,8 L 15.748047,8 C 15.138517,8 14.5,8.606823 14.5,8.9980469 14.498009,8.6043791 14.156578,8 13.548828,8 l -1.5,0 z M 3.8828125,8.0507812 C 3.5992887,8.0530118 3.3131023,8.1654132 3.0976562,8.3808594 L 2.3183594,9.158203 C 2.0393034,9.437182 1.9662688,9.819413 2.0488281,10.175781 2.0938433,9.987958 2.1700787,9.806443 2.3183594,9.658203 L 3.0976562,8.8808594 c 0.4308921,-0.4308923 1.1423063,-0.4487366 1.5546876,0 l 3.3945312,3.6933596 0,-0.5 L 4.6523438,8.3808594 C 4.4461531,8.1564911 4.1663363,8.0485507 3.8828125,8.0507812 Z"/>
</svg>
