<svg xmlns="http://www.w3.org/2000/svg" width="24" height="24" version="1">
 <path style="opacity:0.2" d="M 2.00585,12.25 C 2.0038,12.3335 2,12.416 2,12.5 c 0,5.54 4.46,10 10,10 5.54,0 10,-4.46 10,-10 0,-0.08394 -0.0038,-0.16657 -0.0059,-0.25 -0.132,5.423 -4.538,9.75 -9.994,9.75 -5.456,0 -9.862,-4.327 -9.994,-9.75 z"/>
 <rect style="fill:#4f4f4f" width="20" height="20" x="2" y="2" rx="10" ry="10"/>
 <path style="opacity:0.2" d="M 13.153321,2.5683594 C 10.33965,4.3524944 8.5035685,7.48286 8.5,11 c 0.3039665,5.353521 4.115905,7.113615 5.497071,10.801758 0.603544,-0.121389 1.183875,-0.302183 1.742187,-0.526368 C 14.145941,17.470825 10.57068,14.685677 10.5,10.5 10.502672,7.4328695 11.909194,4.6107898 14.202149,2.7490235 13.858311,2.6722248 13.509757,2.6089595 13.153321,2.5683594 Z m -0.572267,0.042969 C 7.6605125,3.3166606 4.0050435,7.5291645 4,12.5 c 0.2457055,4.32742 2.781772,6.30714 4.4765625,8.853515 0.756295,0.283589 1.5518965,0.486476 2.3837895,0.580079 C 9.138449,18.54282 6.0653975,15.872904 6,12 6.0036605,7.7987195 8.632948,4.0477223 12.581054,2.6113284 Z m 2.766602,0.4707032 C 13.880874,4.8279686 13.002464,7.071596 13,9.5 c 0.289464,5.098103 3.761955,6.93504 5.286133,10.283203 0.483195,-0.390196 0.926633,-0.825236 1.329101,-1.297852 C 17.863237,15.304545 15.062466,12.699315 15,9 15.001705,7.0428975 15.579731,5.187477 16.588867,3.6142578 16.190469,3.4088823 15.775347,3.2332588 15.347656,3.0820316 Z M 18.262695,4.699219 C 17.776522,5.8761875 17.501361,7.158556 17.5,8.5 c 0.205796,3.624529 2.020118,5.598207 3.601562,7.639648 0.319583,-0.704531 0.565854,-1.448866 0.715821,-2.230468 C 20.601947,12.093825 19.538009,10.250913 19.5,8 19.50055,7.3525605 19.570916,6.7178625 19.691406,6.098633 19.263804,5.5848015 18.784192,5.117828 18.262695,4.699219 Z"/>
 <path style="fill:#2cc0cb" d="M 13.153321,2.0683594 C 10.33965,3.8524945 8.5035685,6.98286 8.5,10.5 c 0.3164885,5.574062 4.443706,7.245942 5.66211,11.261719 0.607684,-0.13307 1.195667,-0.316186 1.755859,-0.553711 C 14.428688,17.175606 10.573353,14.344002 10.5,10 10.502672,6.9328695 11.909194,4.1107898 14.202149,2.2490235 13.858311,2.1722248 13.509757,2.1089595 13.153321,2.0683594 Z m -0.572267,0.042969 C 7.6605125,2.8166604 4.0050435,7.0291645 4,12 c 0.2661351,4.687231 3.221464,6.618763 4.881836,9.500976 0.7132595,0.232587 1.460498,0.390776 2.235352,0.458008 C 9.4650285,18.311311 6.0687485,15.571343 6,11.5 6.0036605,7.2987195 8.632948,3.5477221 12.581054,2.1113284 Z m 2.766602,0.4707032 C 13.880874,4.3279684 13.002464,6.571596 13,9 c 0.299912,5.282118 4.023137,7.058625 5.449219,10.647461 0.486403,-0.410161 0.933001,-0.86425 1.333007,-1.359375 C 18.047481,14.966751 15.06445,12.316736 15,8.5 15.001705,6.5428975 15.579731,4.6874769 16.588867,3.1142578 16.190469,2.9088823 15.775346,2.7332586 15.347656,2.5820316 Z M 18.262695,4.199219 C 17.776522,5.3761875 17.501361,6.658556 17.5,8 c 0.21192,3.732384 2.131718,5.715405 3.74414,7.823242 0.3009,-0.730285 0.521086,-1.502154 0.642579,-2.308593 C 20.642123,11.665181 19.538743,9.7943905 19.5,7.5 19.50055,6.8525605 19.570916,6.2178625 19.691406,5.598633 19.263804,5.0848015 18.784191,4.6178281 18.262695,4.199219 Z"/>
 <path style="opacity:0.1;fill:#8b9cbe" d="M 12,2 C 6.46,2 2,6.46 2,12 2,12.084 2.004,12.1665 2.00585,12.25 2.1382,6.827 6.544,2.5 11.99985,2.5 c 5.45585,0 9.862,4.32695 9.994,9.75 0.002,-0.08343 0.0059,-0.166065 0.0059,-0.25 0,-5.54 -4.46,-10 -10,-10 z"/>
 <path style="opacity:0.2;fill:#8b9cbe" d="M 13.153321,2.0683594 C 12.86553,2.250846 12.59064,2.4505283 12.324219,2.6601563 c 0.08625,-0.01466 0.16978,-0.036349 0.256836,-0.048828 -0.139329,0.050691 -0.273193,0.1106184 -0.40918,0.1669922 C 9.920493,4.6206365 8.5031345,7.4107035 8.5,10.5 c 0.0024,0.04215 0.00987,0.07938 0.012695,0.121094 0.1302135,-3.3616415 1.928795,-6.333176 4.640625,-8.0527346 0.196002,0.022326 0.389295,0.053376 0.581055,0.087891 0.15198,-0.1398407 0.306886,-0.2765945 0.467774,-0.4072265 -0.343838,-0.076799 -0.692392,-0.140064 -1.048828,-0.1806645 z m -0.572267,0.042969 C 7.6605125,2.8166604 4.0050435,7.0291645 4,12 c 0.00324,0.05704 0.011597,0.10881 0.015625,0.165039 0.1408951,-4.1036855 2.7630465,-7.6333006 6.50586,-9.0214843 0.635304,-0.4159717 1.32436,-0.7647439 2.059569,-1.0322263 z m 2.766602,0.4707032 C 13.880874,4.3279684 13.002464,6.571596 13,9 c 0.0031,0.054289 0.01182,0.1026965 0.01563,0.15625 0.08126,-2.2951865 0.935171,-4.4115111 2.332031,-6.0742187 0.346095,0.1223761 0.681356,0.2656865 1.008789,0.4228515 C 16.43249,3.373772 16.507088,3.2417576 16.588872,3.1142578 16.190474,2.9088823 15.775352,2.7332586 15.347661,2.5820311 Z M 18.262695,4.199219 C 17.776522,5.3761875 17.501361,6.658556 17.5,8 c 0.0023,0.0409 0.008,0.07866 0.01074,0.1191405 0.04789,-1.2031565 0.312072,-2.3550205 0.751953,-3.4199218 0.496277,0.3983658 0.953547,0.8415048 1.365234,1.3261718 0.02194,-0.142044 0.03614,-0.286274 0.06348,-0.4267575 C 19.263802,5.0848015 18.784189,4.6178281 18.262693,4.1992187 Z m 1.24707,3.438477 C 19.50489,7.7580915 19.500103,7.8786915 19.5,8 c 0.03799,2.2497 1.100813,4.091843 2.315429,5.90625 0.02507,-0.12999 0.05142,-0.259732 0.07129,-0.391601 C 20.667564,11.702987 19.589974,9.8683855 19.509765,7.637696 Z M 15.011719,8.684571 C 15.008274,8.789867 15.000092,8.894079 15,9 c 0.06243,3.697092 2.860098,6.30129 4.612304,9.479492 0.05537,-0.06499 0.116217,-0.124929 0.169922,-0.191406 -1.706245,-3.266771 -4.613902,-5.886701 -4.770507,-9.603515 z m -4.500977,1.460937 C 10.50646,10.263483 10.500104,10.381249 10.5,10.5 c 0.07067,4.185066 3.645593,6.969726 5.239258,10.773437 0.05874,-0.02349 0.12056,-0.04078 0.178711,-0.06543 -1.472303,-3.98643 -5.250249,-6.801766 -5.407227,-11.062499 z M 6.0126955,11.685547 C 6.009309,11.790507 6.000092,11.894441 6,12 c 0.065367,3.871124 3.136044,6.54016 4.858399,9.928711 0.0863,0.0098 0.171782,0.02273 0.258789,0.03027 C 9.490642,18.367863 6.180753,15.653661 6.0126955,11.685548 Z"/>
</svg>
