<svg xmlns="http://www.w3.org/2000/svg" width="24" height="24" version="1">
 <path style="opacity:0.2" d="m 14.776033,2.5000173 c -0.195425,-0.00281 -0.382992,0.076093 -0.5176,0.2167966 l -2.457137,2.7832002 h -1.172903 c -0.8708702,0 -2.072587,-0.00835 -3.196427,0.3300777 L 4.1300659,3.5997034 C 3.6678828,3.2612022 2.9992497,3.5880362 2.9991577,4.1582966 V 9.030284 c -1.208239,1.757138 -2.07841068,4.038109 -1.9932501,5.954095 -1.6e-5,0.0027 -1.6e-5,0.0051 0,0.0078 0.1080757,1.919257 1.4652022,3.560812 3.4142098,4.696284 C 6.3691251,20.823952 8.9561673,21.5 11.793483,21.5 c 0.316612,0 0.628859,-0.0065 0.936564,-0.01953 0.04326,-0.0019 0.08046,-0.0093 0.123051,-0.01172 -0.07847,0.0042 -0.158134,0.009 -0.233408,0.01172 -0.0058,2.5e-4 -0.01177,7.5e-4 -0.01758,0.001 -10e-4,-7.6e-5 -0.002,7.7e-5 -0.003,0 -4.1644067,-0.326743 -7.599915,-2.905463 -7.599915,-5.090842 -5e-7,-1.880123 1.7628996,-2.743142 5.0002158,-3.390622 0.7872512,-0.157453 3.5189332,2.132271 4.3888612,1.94824 0.760599,-0.160901 0.641473,-2.245344 1.353574,-2.310544 0.974455,-0.08922 0.268383,-0.821108 1.179739,-0.818358 0.318189,-0.0907 0.678564,-0.127729 1.069382,-0.118164 0.535193,0.0131 1.129961,0.119291 1.750075,0.289062 -0.0043,-0.0026 -0.0075,-0.0053 -0.01172,-0.0078 C 19.411834,10.03744 18.228076,8.4128681 16.557359,7.2587988 L 15.442078,3.019548 C 15.362665,2.7174441 15.090434,2.5049677 14.776033,2.5000173 Z"/>
 <path style="fill:#ff7f00" d="m 14.776147,2.0000908 c -0.195424,-0.00281 -0.383137,0.075616 -0.517746,0.2163195 l -2.457469,2.7836044 h -1.172221 c -0.8708696,0 -2.072876,-0.00875 -3.196716,0.3296841 L 4.1300353,3.1993235 C 3.6678522,2.8608222 2.9992497,3.1884162 2.9991577,3.7586766 V 8.530404 c -1.208239,1.757138 -2.07856979,4.037776 -1.9934092,5.953762 -1.6e-5,0.0027 -1.6e-5,0.0054 0,0.0081 0.1080757,1.919257 1.4655627,3.561104 3.4145703,4.696576 1.9490078,1.135474 4.536005,1.811112 7.3733202,1.811111 0.316613,0 0.628987,-0.0066 0.936691,-0.01963 2.425505,-0.103007 3.778409,-1.179116 5.411769,-2.060879 1.840573,-0.993625 2.364216,-2.022252 2.364215,-3.926917 0,-1.553802 0.560424,-2.710884 -0.776943,-3.510628 C 19.411834,9.5369574 18.227983,7.9131891 16.557266,6.7591198 L 15.442472,2.5196195 C 15.363059,2.2175157 15.090549,2.0050412 14.776147,2.0000908 Z"/>
 <path style="opacity:0.2;fill:#8b9cbe" d="M 14.775391 2 C 14.579967 1.99719 14.392422 2.0760934 14.257812 2.2167969 L 11.800781 5 L 10.628906 5 C 9.7580366 5 8.5554806 4.991644 7.4316406 5.3300781 L 4.1308594 3.1992188 C 3.6686763 2.8607174 3.000092 3.1875521 3 3.7578125 L 3 4.2578125 C 3.000092 3.6875521 3.6686763 3.3607174 4.1308594 3.6992188 L 7.4316406 5.8300781 C 8.5554806 5.491644 9.7580366 5.5 10.628906 5.5 L 11.800781 5.5 L 14.257812 2.7167969 C 14.392422 2.5760934 14.579967 2.49719 14.775391 2.5 C 15.089793 2.5049504 15.363946 2.7174275 15.443359 3.0195312 L 16.556641 7.2597656 C 18.227358 8.4138349 19.410979 10.03748 19.728516 11.982422 C 20.343581 12.35023 20.550191 12.797509 20.601562 13.320312 C 20.632649 12.580474 20.526367 11.959536 19.728516 11.482422 C 19.410979 9.5374803 18.227358 7.9138349 16.556641 6.7597656 L 15.443359 2.5195312 C 15.363946 2.2174274 15.089793 2.0049504 14.775391 2 z M 3 8.53125 C 1.791761 10.288388 0.92069879 12.568389 1.0058594 14.484375 C 1.0058434 14.487075 1.0058434 14.489488 1.0058594 14.492188 C 1.0068317 14.509455 1.0124977 14.525746 1.0136719 14.542969 C 1.0644791 12.724898 1.8825421 10.656365 3 9.03125 L 3 8.53125 z"/>
 <path style="fill:#5f4a44" d="m 14.252696,13.00022 c -0.233157,-0.0021 -0.489597,0.01034 -0.771187,0.03925 -0.905794,0.09301 -1.182264,0.0213 -1.231952,0.518545 0.830805,0.47437 1.728141,1.027341 2.22106,0.930932 0.447455,-0.08752 0.592439,-0.786782 0.779069,-1.364424 -0.271329,-0.07548 -0.600157,-0.120847 -0.99699,-0.124308 z"/>
 <path style="opacity:0.2" d="m 17.991016,11.701212 c -0.390818,-0.0096 -0.751193,0.02746 -1.069382,0.118164 -0.911356,-0.0028 -0.205284,0.729138 -1.179739,0.818359 -0.712101,0.0652 -0.592975,2.149642 -1.353574,2.310544 -0.869928,0.18403 -3.60161,-2.105694 -4.3888612,-1.94824 -3.2373162,0.64748 -5.0002163,1.510498 -5.0002158,3.390621 0,2.18538 3.4355083,4.7641 7.599937,5.090816 10e-4,7.6e-5 0.002,-7.7e-5 0.003,0 0.0058,-2.13e-4 0.01177,-7.5e-4 0.01758,-0.001 0.150863,-0.0054 0.312201,-0.01586 0.467794,-0.02344 2.276463,-0.136114 4.285305,-0.630983 5.837166,-1.468749 1.84055,-0.993599 3.075306,-2.555265 3.075306,-4.45993 0,-1.549059 -0.928067,-2.738389 -2.258887,-3.538083 -0.620114,-0.16977 -1.214882,-0.27596 -1.750075,-0.289062 z"/>
 <path style="fill:#ffce9d" d="m 17.991016,11.20118 c -0.390818,-0.0096 -0.751193,0.02746 -1.069382,0.118164 -0.911356,-0.0027 -0.205284,0.729138 -1.179739,0.818359 -0.712101,0.0652 -0.592975,2.149643 -1.353574,2.310544 -0.869928,0.18403 -3.60161,-2.105694 -4.3888612,-1.94824 -3.2373162,0.64748 -5.0002163,1.510498 -5.0002158,3.390621 0,2.18538 3.4355083,4.7641 7.599937,5.090816 10e-4,7.6e-5 0.002,-7.7e-5 0.003,0 0.0058,-2.13e-4 0.01177,-7.5e-4 0.01758,-0.001 0.150863,-0.0054 0.312201,-0.01586 0.467794,-0.02344 2.276463,-0.136114 4.285305,-0.630983 5.837166,-1.468749 C 20.765244,18.494631 22.000001,16.932964 22,15.028299 22,13.479241 21.071934,12.28991 19.741114,11.490217 19.121,11.320446 18.526231,11.214256 17.991038,11.201155 Z"/>
 <path style="opacity:0.2;fill:#8b9cbe" d="m 17.991016,11.20118 c -0.390818,-0.0096 -0.751193,0.02746 -1.069382,0.118164 -0.911356,-0.0027 -0.205284,0.729138 -1.179739,0.818359 -0.712101,0.0652 -0.592975,2.149643 -1.353574,2.310544 -0.869928,0.18403 -3.60161,-2.105694 -4.3888612,-1.94824 -3.2373162,0.64748 -5.0002163,1.510498 -5.0002158,3.390621 0,0.06314 0.012886,0.127673 0.018556,0.191406 0.1873621,-1.667546 1.9275437,-2.471189 4.98166,-3.082028 0.787251,-0.157453 3.518933,2.132271 4.388861,1.94824 0.760599,-0.160901 0.641473,-2.245344 1.353574,-2.310544 0.974455,-0.08922 0.268383,-0.821108 1.179739,-0.818358 0.318189,-0.0907 0.678564,-0.127729 1.069382,-0.118164 0.535193,0.0131 1.129961,0.119291 1.750075,0.289062 1.278143,0.768039 2.175443,1.899023 2.245214,3.359371 0.0079,-0.105939 0.01367,-0.213094 0.01367,-0.321288 0,-1.549059 -0.928067,-2.738389 -2.258887,-3.538083 -0.620114,-0.16977 -1.214882,-0.27596 -1.750075,-0.289062 z"/>
 <path style="opacity:0.2" d="m 16.999761,18.013393 c -0.01535,1.358534 -3.000059,2.5886 -4.254938,2.479905 -2.422291,-0.209815 -4.5355405,-1.849376 -3.4556679,-4.493293 z"/>
 <path style="fill:#8b9cbe" d="m 16.999761,17.513394 c -0.01535,1.358533 -3.000059,2.588599 -4.254938,2.479905 -2.422291,-0.209815 -4.5355405,-1.849376 -3.4556679,-4.493294 z"/>
 <ellipse style="opacity:0.2" cx="2.505" cy="13.537" rx="2.401" ry="3.08" transform="matrix(0.91735059,-0.39808027,0.38427361,0.92321926,0,0)"/>
 <ellipse style="fill:#8b9cbe" cx="2.698" cy="13.078" rx="2.401" ry="3.08" transform="matrix(0.91735059,-0.39808027,0.38427361,0.92321926,0,0)"/>
 <ellipse style="opacity:0.2" cx="10.276" cy="15.804" rx="2.401" ry="3.08" transform="matrix(0.91735059,-0.39808027,0.38427361,0.92321926,0,0)"/>
 <ellipse style="fill:#17191e" cx="8.25" cy="12.25" rx=".75" ry=".75"/>
 <ellipse style="fill:#8b9cbe" cx="10.468" cy="15.346" rx="2.401" ry="3.08" transform="matrix(0.91735059,-0.39808027,0.38427361,0.92321926,0,0)"/>
 <ellipse style="fill:#17191e" cx="16.25" cy="11.25" rx=".75" ry=".75"/>
</svg>
