<svg xmlns="http://www.w3.org/2000/svg" width="24" height="24" version="1">
 <rect style="fill:#e2d144" width="16" height="20" x="-20" y="-22" rx="1" ry="1" transform="matrix(0,-1,-1,0,0,0)"/>
 <path style="opacity:0.2" d="m 2,19 0,0.5 c 0,0.554 0.446,1 1,1 l 18,0 c 0.554,0 1,-0.446 1,-1 L 22,19 c 0,0.554 -0.446,1 -1,1 L 3,20 C 2.446,20 2,19.554 2,19 Z"/>
 <rect style="opacity:0.5" width="1" height="8" x="6" y="4"/>
 <rect style="opacity:0.5" width="1" height="4" x="8" y="4"/>
 <rect style="opacity:0.5" width="1" height="4" x="10" y="4"/>
 <rect style="opacity:0.5" width="1" height="4" x="12" y="4"/>
 <rect style="opacity:0.5" width="1" height="4" x="14" y="4"/>
 <rect style="opacity:0.5" width="1" height="6" x="16" y="4"/>
 <rect style="opacity:0.5" width="1" height="4" x="18" y="4"/>
 <rect style="opacity:0.5" width="1" height="4" x="20" y="4"/>
 <path style="opacity:0.5" d="m 4,13 0,6 5,0 0,-6 z m 1,1 3,0 0,4 -3,0 z"/>
 <path style="opacity:0.2;fill:#8b9cbe" d="M 3,4 C 2.446,4 2,4.446 2,5 l 0,0.5 c 0,-0.554 0.446,-1 1,-1 l 18,0 c 0.554,0 1,0.446 1,1 L 22,5 C 22,4.446 21.554,4 21,4 L 3,4 Z"/>
</svg>
