<svg xmlns="http://www.w3.org/2000/svg" width="24" height="24" version="1">
 <rect style="opacity:0.2" width="20" height="20" x="2" y="2.5" rx="6" ry="6"/>
 <rect style="fill:#b2bfd9" width="20" height="20" x="2" y="2" rx="6" ry="6"/>
 <path style="opacity:0.1" d="M 16.261719,4.499994 A 0.26473916,0.26473916 0 0 0 16,4.7636659 V 5.499994 H 8 c 0,0 -0.7087517,-0.013788 -1.4472656,0.3554688 C 5.8142205,6.2247196 5,7.1666607 5,8.499994 v 8.000001 H 7 V 8.499994 C 7,7.8333273 7.1857795,7.7752683 7.4472656,7.6445252 7.7087517,7.5137822 8,7.499994 8,7.499994 h 8.5 2.236328 A 0.26473916,0.26473916 0 0 0 18.921875,7.0488221 L 16.451172,4.578119 A 0.26473916,0.26473916 0 0 0 16.261719,4.499994 Z m 0.738281,4 v 8.000001 c 0,0.666666 -0.185779,0.724726 -0.447266,0.855469 C 16.291248,17.486207 16,17.499995 16,17.499995 H 7.7539062 7.734375 7.5 5.2636719 A 0.26473916,0.26473916 0 0 0 5.078125,17.951167 L 7.5488281,20.42187 A 0.26473916,0.26473916 0 0 0 7.7382812,20.499995 0.26473916,0.26473916 0 0 0 8,20.23437 v -0.734375 h 8 c 0,0 0.708752,0.01379 1.447266,-0.355469 C 18.185779,18.775269 19,17.833328 19,16.499995 V 8.499994 Z m -7,2.000001 c -0.554,0 -1,0.446 -1,1 v 1 c 0,0.554 0.446,1 1,1 0.554,0 1,-0.446 1,-1 v -1 c 0,-0.554 -0.446,-1 -1,-1 z m 4,0 c -0.554,0 -1,0.446 -1,1 v 1 c 0,0.554 0.446,1 1,1 0.554,0 1,-0.446 1,-1 v -1 c 0,-0.554 -0.446,-1 -1,-1 z"/>
 <path style="opacity:0.2;fill:#8b9cbe" d="M 8,2 C 4.676,2 2,4.676 2,8 v 0.5 c 0,-3.324 2.676,-6 6,-6 h 8 c 3.324,0 6,2.676 6,6 V 8 C 22,4.676 19.324,2 16,2 Z"/>
 <path style="fill:none;stroke:#ff2d55;stroke-width:2" d="M 6,16 V 8 C 6,6 8,6 8,6 h 8.5"/>
 <path style="fill:#ff2d55" d="M 16.260921,3.9999226 A 0.26473916,0.26473916 0 0 0 16,4.2646357 V 6.7352875 A 0.26473916,0.26473916 0 0 0 16.264713,7 h 2.470652 a 0.26473916,0.26473916 0 0 0 0.18716,-0.451873 L 16.451873,4.0774754 a 0.26473916,0.26473916 0 0 0 -0.190952,-0.077553 z"/>
 <path style="fill:none;stroke:#ff2d55;stroke-width:2" d="m 18,8 v 7.9999 c 0,1.999999 -2,1.999999 -2,1.999999 H 7.5"/>
 <path style="fill:#ff2d55" d="M 7.739079,19.999977 A 0.26473916,0.26473916 0 0 0 8,19.735264 V 17.264612 A 0.26473916,0.26473916 0 0 0 7.7352875,16.999899 h -2.470652 a 0.26473916,0.26473916 0 0 0 -0.18716,0.451873 l 2.4706515,2.470652 a 0.26473916,0.26473916 0 0 0 0.190952,0.07755 z"/>
 <rect style="fill:#ff2d55" width="2" height="3" x="9" y="10" ry="1"/>
 <rect style="fill:#ff2d55" width="2" height="3" x="13" y="10" ry="1"/>
</svg>
