<svg xmlns="http://www.w3.org/2000/svg" width="24" height="24" version="1">
 <rect style="opacity:0.2" width="20" height="20" x="2" y="2.5" rx="6" ry="6"/>
 <rect style="fill:#f4b400" width="20" height="20" x="2" y="2" rx="6" ry="6"/>
 <path style="opacity:0.1" d="M 12,5.4999993 A 7,7 0 0 0 5.3047,10.499999 H 3 l 1.75,2 1.75,2 1.75,-2 1.75,-2 H 8.5469 A 4,4 0 0 1 12,8.4999993 4,4 0 0 1 15.842,11.394499 L 17.5,9.4999993 18.842,11.033199 A 7,7 0 0 0 12,5.4999993 Z m 5.5,4.9999997 -1.75,2 -1.75,2 h 1.4531 a 4,4 0 0 1 -3.453,2 4,4 0 0 1 -3.8418,-2.895 l -1.6582,1.895 -1.3418,-1.533 a 7,7 0 0 0 6.8418,5.533 7,7 0 0 0 6.695,-5 h 2.305 l -1.75,-2 -1.75,-2 z"/>
 <path style="fill:#17191e" d="M 12,5 A 7,7 0 0 0 5.3047,10 H 3 L 4.75,12 6.5,14 8.25,12 10,10 H 8.5469 A 4,4 0 0 1 12,8 4,4 0 0 1 15.842,10.8945 L 17.5,9 18.842,10.5332 A 7,7 0 0 0 12,5 Z m 5.5,5 -1.75,2 -1.75,2 h 1.4531 a 4,4 0 0 1 -3.453,2 4,4 0 0 1 -3.8418,-2.895 L 6.5001,15 5.1583,13.467 a 7,7 0 0 0 6.8418,5.533 7,7 0 0 0 6.695,-5 h 2.305 l -1.75,-2 -1.75,-2 z"/>
 <path style="fill:#8b9cbe;opacity:0.2" d="M 8 2 C 4.676 2 2 4.676 2 8 L 2 8.5 C 2 5.176 4.676 2.5 8 2.5 L 16 2.5 C 19.324 2.5 22 5.176 22 8.5 L 22 8 C 22 4.676 19.324 2 16 2 L 8 2 z"/>
</svg>
