<svg xmlns="http://www.w3.org/2000/svg" width="24" height="24" version="1">
 <rect style="fill:#115c77" width="20" height="20" x="2" y="2" rx="1" ry="1"/>
 <path style="opacity:0.3" d="M 3,2 C 2.446,2 2,2.446 2,3 v 18 c 0,0.554 0.446,1 1,1 H 9 V 2 Z"/>
 <path style="opacity:0.1;fill:#8b9cbe" d="M 3,2 C 2.446,2 2,2.446 2,3 v 0.5 c 0,-0.554 0.446,-1 1,-1 h 18 c 0.554,0 1,0.446 1,1 V 3 C 22,2.446 21.554,2 21,2 Z"/>
 <path style="opacity:0.2" d="m 3,22.5 c -0.554,0 -1,-0.446 -1,-1 V 21 c 0,0.554 0.446,1 1,1 h 18 c 0.554,0 1,-0.446 1,-1 v 0.5 c 0,0.554 -0.446,1 -1,1 z"/>
 <rect style="opacity:0.2" width="2" height="22" x="8" y="1.5" rx=".5" ry=".5"/>
 <rect style="fill:#b2bfd9" width="2" height="22" x="8" y="1" rx=".5" ry=".5"/>
 <path style="opacity:0.2;fill:#8b9cbe" d="M 8.5,1 C 8.223,1 8,1.223 8,1.5 V 2 C 8,1.723 8.223,1.5 8.5,1.5 h 1 C 9.777,1.5 10,1.723 10,2 V 1.5 C 10,1.223 9.777,1 9.5,1 Z"/>
</svg>
