<svg xmlns="http://www.w3.org/2000/svg" width="24" height="24" version="1">
 <path style="opacity:0.2" d="m 12,17.5 c 0,-1.301085 0,-5 0,-5 0,0 -3.539661,0 -5,0 -2.7614235,0 -5,2.238577 -5,5 0,2.761423 2.2385765,5 5,5 2.7614235,0 5,-2.238577 5,-5 z"/>
 <path style="opacity:0.2" d="m 12,7.5 c 0,1.3010845 0,5 0,5 0,0 -3.539661,0 -5,0 -2.7614237,0 -5,-2.238577 -5,-5 0,-2.7614237 2.2385763,-5 5,-5 2.7614235,0 5,2.2385763 5,5 z"/>
 <path style="opacity:0.2" d="m 12,7.5 c 0,1.3010845 0,5 0,5 0,0 3.539661,0 5,0 2.761423,0 5,-2.238577 5,-5 0,-2.7614237 -2.238577,-5 -5,-5 -2.761423,0 -5,2.2385763 -5,5 z"/>
 <path style="opacity:0.2" d="m 12,17.5 c 0,-1.301085 0,-5 0,-5 0,0 3.539661,0 5,0 2.761423,0 5,2.238577 5,5 0,2.761423 -2.238577,5 -5,5 -2.761423,0 -5,-2.238577 -5,-5 z"/>
 <path style="fill:#d32f2f" d="m 12,7 c 0,1.3010845 0,5 0,5 0,0 -3.539661,0 -5,0 C 4.2385763,12 2,9.7614235 2,7 2,4.2385763 4.2385763,2 7,2 c 2.7614235,0 5,2.2385763 5,5 z"/>
 <path style="fill:#92dc39" d="m 12,7 c 0,1.3010845 0,5 0,5 0,0 3.539661,0 5,0 2.761423,0 5,-2.2385765 5,-5 0,-2.7614237 -2.238577,-5 -5,-5 -2.761423,0 -5,2.2385763 -5,5 z"/>
 <path style="fill:#fdd835" d="m 12,17 c 0,-1.301084 0,-5 0,-5 0,0 3.539661,0 5,0 2.761423,0 5,2.238577 5,5 0,2.761423 -2.238577,5 -5,5 -2.761423,0 -5,-2.238577 -5,-5 z"/>
 <path style="fill:#2f58d3" d="m 12,17 c 0,-1.301084 0,-5 0,-5 0,0 -3.539661,0 -5,0 -2.7614235,0 -5,2.238577 -5,5 0,2.761423 2.2385765,5 5,5 2.7614235,0 5,-2.238577 5,-5 z"/>
 <circle style="opacity:0.2" cx="12" cy="12.5" r="4"/>
 <circle style="fill:#8b9cbe" cx="12" cy="12" r="4"/>
 <path style="opacity:0.1;fill:#8b9cbe" d="M 7,2 C 4.2385763,2 2,4.2385763 2,7 2,7.084484 2.0085535,7.166544 2.0126955,7.25 2.1439234,4.6056306 4.3230602,2.5 7,2.5 c 2.7614235,0 5,2.2385763 5,5 V 7 C 12,4.2385763 9.7614235,2 7,2 Z"/>
 <path style="opacity:0.2;fill:#8b9cbe" d="m 17,2 c -2.761423,0 -5,2.2385763 -5,5 v 0.5 c 0,-2.7614237 2.238577,-5 5,-5 2.676939,0 4.856076,2.1056306 4.987304,4.75 C 21.991446,7.166544 22,7.084484 22,7 22,4.2385763 19.761423,2 17,2 Z"/>
 <path style="opacity:0.2;fill:#8b9cbe" d="m 12,12 v 0.5 h 5 c 2.676939,0 4.856076,2.105631 4.987304,4.75 C 21.991446,17.166544 22,17.084484 22,17 22,14.238577 19.761423,12 17,12 Z"/>
 <path style="opacity:0.1;fill:#8b9cbe" d="m 7,12 c -2.7614235,0 -5,2.238577 -5,5 0,0.08448 0.00855,0.166544 0.012695,0.25 C 2.1439234,14.605631 4.3230604,12.5 7,12.5 h 5 V 12 Z"/>
</svg>
