<svg xmlns="http://www.w3.org/2000/svg" width="24" height="24" version="1">
 <rect style="opacity:0.2" width="21" height="21" x="2" y="1.5" rx="1.05" ry="1.05"/>
 <rect style="fill:#4cc74c" width="21" height="21" x="2" y="1" rx="1.05" ry="1.05"/>
 <path style="opacity:0.2" d="M 7.546875 2.7382812 L 6.0234375 7.6894531 L 10.595703 6.9277344 L 8.9921875 5.8574219 C 11.639168 4.2036224 15.155622 4.60043 17.363281 6.9726562 L 18.367188 6.0390625 C 16.863143 4.4229018 14.84107 3.5668323 12.791016 3.4921875 C 11.175078 3.4333494 9.5444201 3.8664362 8.1328125 4.7851562 L 7.546875 2.7382812 z M 12.5 7.5 A 2.25 2.25 0 0 0 10.25 9.75 A 2.25 2.25 0 0 0 10.267578 10 A 2.25 2.25 0 0 0 10.25 10 A 2.25 2.25 0 0 0 8 12.25 A 2.25 2.25 0 0 0 10.25 14.5 A 2.25 2.25 0 0 0 12 13.660156 L 12 16.5 L 13 16.5 L 13 13.662109 A 2.25 2.25 0 0 0 14.75 14.5 A 2.25 2.25 0 0 0 17 12.25 A 2.25 2.25 0 0 0 14.75 10 A 2.25 2.25 0 0 0 14.734375 10 A 2.25 2.25 0 0 0 14.75 9.75 A 2.25 2.25 0 0 0 12.5 7.5 z M 4 7.9277344 L 4 17.072266 L 7.046875 12.5 L 4 7.9277344 z M 21 7.9277344 L 17.951172 12.5 L 21 17.072266 L 21 7.9277344 z M 18.976562 16.310547 L 14.404297 17.072266 L 16.005859 18.138672 C 13.353779 19.795632 9.8324926 19.395883 7.6269531 17.015625 L 6.6210938 17.947266 C 9.3084051 20.84746 13.658234 21.300011 16.867188 19.210938 L 17.453125 21.261719 L 18.976562 16.310547 z"/>
 <path style="fill:#2bffbf" d="M 4,7.4285715 V 16.571428 L 7.047619,12 Z"/>
 <path style="fill:#2bffbf" d="M 20.999619,7.4285715 V 16.571428 L 17.952,12 Z"/>
 <path style="fill:none;stroke:#bfecbf;stroke-width:1.37142861" d="M 7.5122565,5.6283901 A 7.3293886,7.3298526 0 0 1 17.865458,6.0053626"/>
 <path style="fill:none;stroke:#bfecbf;stroke-width:1.37142861" d="M 17.469707,17.387256 A 7.3293886,7.3298526 0 0 1 7.1241309,16.981608"/>
 <path style="fill:#bfecbf" d="M 6.024,7.19 7.5478095,2.2376193 8.3097145,4.904286 10.595429,6.4280955 Z"/>
 <path style="fill:#bfecbf" d="m 18.976381,15.809524 -1.52381,4.952381 -0.761905,-2.666667 -2.285713,-1.52381 z"/>
 <circle style="fill:#8b9cbe" cx="12.5" cy="9.25" r="2.25"/>
 <circle style="fill:#8b9cbe" cx="14.75" cy="11.75" r="2.25"/>
 <circle style="fill:#8b9cbe" cx="10.25" cy="11.75" r="2.25"/>
 <rect style="fill:#8b9cbe" width="1" height="5.066" x="12" y="10.93"/>
 <path style="fill:#8b9cbe;opacity:0.2" d="M 3.0507812 1 C 2.4690813 1 2 1.4690813 2 2.0507812 L 2 2.5507812 C 2 1.9690813 2.4690813 1.5 3.0507812 1.5 L 21.949219 1.5 C 22.530919 1.5 23 1.9690813 23 2.5507812 L 23 2.0507812 C 23 1.4690813 22.530919 1 21.949219 1 L 3.0507812 1 z"/>
</svg>
