<svg xmlns="http://www.w3.org/2000/svg" width="24" height="24" version="1">
 <circle style="opacity:0.2" cx="7.8" cy="8.3" r="5.8"/>
 <circle style="opacity:0.2" cx="16.2" cy="16.7" r="5.8"/>
 <circle style="fill:#1587d7" cx="7.8" cy="7.8" r="5.8"/>
 <path style="opacity:0.1;fill:#8b9cbe" d="M 7.7998039,1.9999998 A 5.7999995,5.7999995 0 0 0 1.9999998,7.7998039 5.7999995,5.7999995 0 0 0 2.010742,8.0927729 5.7999995,5.7999995 0 0 1 7.7998039,2.4999998 5.7999995,5.7999995 0 0 1 13.589843,8.0029289 5.7999995,5.7999995 0 0 0 13.599608,7.7998039 5.7999995,5.7999995 0 0 0 7.7998039,1.9999998 Z"/>
 <circle style="fill:#1587d7" cx="16.2" cy="16.2" r="5.8"/>
 <circle style="opacity:0.2" cx="12" cy="12.5" r="9"/>
 <circle style="fill:#28a8ea" cx="12" cy="12" r="9"/>
 <path style="opacity:0.2;fill-rule:evenodd" d="M 9.6569182,12.329815 A 2.7454742,2.6973005 0 0 1 8.7959703,11.436723 2.5114005,2.467334 0 0 1 8.5010528,10.20322 2.2564997,2.2169058 0 0 1 9.0326488,8.7102395 3.1999052,3.1437578 0 0 1 10.41841,7.8002581 a 5.3519271,5.2580191 0 0 1 1.814543,-0.299946 7.0466194,6.9229754 0 0 1 1.207412,0.090992 4.3586089,4.2821302 0 0 1 0.836963,0.2123305 1.623008,1.5945298 0 0 1 0.655191,0.411144 0.84696798,0.83210658 0 0 1 0.202365,0.5527369 0.81505168,0.80075034 0 0 1 -0.212674,0.576316 0.70810464,0.69567984 0 0 1 -0.535108,0.219076 0.96324637,0.94634467 0 0 1 -0.397872,-0.087671 7.2023954,7.0760179 0 0 0 -0.946778,-0.340355 3.4366703,3.3763685 0 0 0 -0.912369,-0.111202 2.0823926,2.0458537 0 0 0 -1.14227,0.2864405 0.95050097,0.93382293 0 0 0 -0.456189,0.839177 0.85877988,0.84371123 0 0 0 0.236649,0.589767 2.1582929,2.1204223 0 0 0 0.63805,0.448236 q 0.401356,0.195578 1.197086,0.519025 a 1.2405213,1.2187544 0 0 1 0.171536,0.06742 8.5027778,8.3535833 0 0 1 1.481796,0.748174 2.9877312,2.9353068 0 0 1 0.912431,0.920051 2.4692081,2.425882 0 0 1 0.329291,1.27728 2.6151593,2.5692722 0 0 1 -0.456248,1.540194 2.7115517,2.6639732 0 0 1 -1.275943,0.930188 5.3782686,5.2838986 0 0 1 -1.91748,0.306698 6.0413955,5.9353895 0 0 1 -2.6137072,-0.485317 1.4224954,1.3975355 0 0 1 -0.538533,-0.411147 0.94083837,0.92432988 0 0 1 -0.174958,-0.559483 0.74430449,0.73124449 0 0 1 0.229775,-0.569563 0.84756648,0.83269458 0 0 1 0.5934075,-0.205574 1.516411,1.4898032 0 0 1 0.6928677,0.175238 q 0.397776,0.195589 0.627751,0.29326 a 3.1550816,3.0997208 0 0 0 0.541985,0.168485 3.0988942,3.0445192 0 0 0 0.696229,0.07074 1.8583917,1.8257833 0 0 0 1.169736,-0.306643 1.0301015,1.0120267 0 0 0 0.39443,-0.839184 0.90778538,0.89185683 0 0 0 -0.246928,-0.613401 2.6253187,2.5792534 0 0 0 -0.727151,-0.51897 Q 12.01339,13.445414 11.142159,13.088125 a 8.3730838,8.2261648 0 0 1 -1.4852518,-0.75831"/>
 <path style="fill:#8b9cbe;fill-rule:evenodd" d="M 9.6569182,11.829812 A 2.7454742,2.6973005 0 0 1 8.7959703,10.93672 2.5114005,2.467334 0 0 1 8.5010528,9.7032172 2.2564997,2.2169058 0 0 1 9.0326488,8.2102373 3.1999052,3.1437578 0 0 1 10.41841,7.3002559 a 5.3519271,5.2580191 0 0 1 1.814543,-0.299946 7.0466194,6.9229754 0 0 1 1.207412,0.090992 4.3586089,4.2821302 0 0 1 0.836963,0.2123305 1.623008,1.5945298 0 0 1 0.655191,0.411144 0.84696798,0.83210658 0 0 1 0.202365,0.5527369 0.81505168,0.80075034 0 0 1 -0.212674,0.576316 0.70810464,0.69567984 0 0 1 -0.535108,0.219076 0.96324637,0.94634467 0 0 1 -0.397872,-0.087671 7.2023954,7.0760179 0 0 0 -0.946778,-0.340355 3.4366703,3.3763685 0 0 0 -0.912369,-0.111202 2.0823926,2.0458537 0 0 0 -1.14227,0.2864405 0.95050097,0.93382293 0 0 0 -0.456189,0.8391769 0.85877988,0.84371123 0 0 0 0.236649,0.5897663 2.1582929,2.1204223 0 0 0 0.63805,0.448236 q 0.401356,0.195578 1.197086,0.519025 a 1.2405213,1.2187544 0 0 1 0.171536,0.06742 8.5027778,8.3535833 0 0 1 1.481796,0.748174 2.9877312,2.9353068 0 0 1 0.912431,0.920051 2.4692081,2.425882 0 0 1 0.329291,1.27728 2.6151593,2.5692722 0 0 1 -0.456248,1.540194 2.7115517,2.6639732 0 0 1 -1.275943,0.930188 5.3782686,5.2838986 0 0 1 -1.91748,0.306698 6.0413955,5.9353895 0 0 1 -2.6137072,-0.485317 1.4224954,1.3975355 0 0 1 -0.538533,-0.411147 0.94083837,0.92432988 0 0 1 -0.174958,-0.559483 0.74430449,0.73124449 0 0 1 0.229775,-0.569563 0.84756648,0.83269458 0 0 1 0.5934075,-0.205574 1.516411,1.4898032 0 0 1 0.6928677,0.175238 q 0.397776,0.195589 0.627751,0.29326 a 3.1550816,3.0997208 0 0 0 0.541985,0.168485 3.0988942,3.0445192 0 0 0 0.696229,0.07074 1.8583917,1.8257833 0 0 0 1.169736,-0.306643 1.0301015,1.0120267 0 0 0 0.39443,-0.839184 0.90778538,0.89185683 0 0 0 -0.246928,-0.613401 2.6253187,2.5792534 0 0 0 -0.727151,-0.51897 Q 12.01339,12.945411 11.142159,12.588122 a 8.3730838,8.2261648 0 0 1 -1.4852518,-0.75831"/>
 <path style="fill:#8b9cbe;opacity:0.2" d="M 12 3 A 9 9 0 0 0 3 12 A 9 9 0 0 0 3.0097656 12.287109 A 9 9 0 0 1 12 3.5 A 9 9 0 0 1 20.990234 12.212891 A 9 9 0 0 0 21 12 A 9 9 0 0 0 12 3 z"/>
</svg>
