<svg xmlns="http://www.w3.org/2000/svg" width="24" height="24" version="1">
 <circle style="opacity:0.2" cx="-17.324" cy="-3.889" r="8.5" transform="rotate(-135)"/>
 <circle style="fill:#33b67a" cx="-16.971" cy="-3.536" r="8.5" transform="rotate(-135)"/>
 <path style="opacity:0.2" d="m 4.0895551,21.045812 a 8.5000085,8.5000085 0 0 0 2.806142,1.544196 c 0.065844,-0.126549 0.2098232,-0.199606 0.4162209,-0.18482 0.1396822,0.01 0.3019933,-0.02972 0.3609554,-0.08868 0.1802222,-0.180223 0.2940598,-0.619824 0.2041437,-0.790159 -0.1193066,-0.226292 0.1230936,-0.352691 0.4473554,-0.232182 0.1499597,0.0556 0.4123139,0.04628 0.5827096,-0.02074 0.1709962,-0.06702 0.3645314,-0.107887 0.4303454,-0.09076 0.065814,0.01653 0.1926337,-0.04238 0.2818883,-0.131629 C 9.744032,20.926326 9.747338,20.808823 9.6349408,20.546769 9.5547018,20.358943 9.4332916,20.159397 9.3650736,20.1032 8.9734952,19.778939 9.1571129,19.545434 9.8774611,19.45077 c 0.3825629,-0.05019 0.5168959,-0.02464 0.6028449,0.116001 0.08024,0.130726 0.16769,0.158675 0.320355,0.102177 0.161379,-0.0604 0.281888,-0.01503 0.519901,0.192333 0.234406,0.203753 0.376852,0.257246 0.578802,0.21938 0.147556,-0.02735 0.305029,-0.01172 0.351008,0.03426 0.0461,0.0461 0.21325,0.09545 0.371083,0.110231 0.321377,0.02987 0.404682,0.08372 0.370993,0.240567 -0.04483,0.2076 0.194467,0.319483 0.706103,0.330452 0.452284,0.0099 0.539465,-0.02131 0.696638,-0.2482 0.279664,-0.403719 0.397559,-0.892276 0.291715,-1.209686 -0.09241,-0.27693 -0.0861,-0.290453 0.14428,-0.296884 0.13262,-0.0038 0.316148,0.03366 0.407927,0.08276 0.26536,0.141546 0.228365,-0.05052 -0.08838,-0.459827 -0.324382,-0.418745 -0.305209,-0.668838 0.05199,-0.678876 0.199275,-0.0057 0.213069,-0.03035 0.155099,-0.28306 -0.112997,-0.494056 -0.470976,-0.618832 -0.385629,-0.134393 0.05479,0.31143 -0.125557,0.235669 -0.301122,-0.126218 -0.140042,-0.288501 -0.186623,-0.326667 -0.423133,-0.343195 -0.48504,-0.03486 -0.434552,-0.650327 0.05439,-0.66385 0.311339,-0.009 0.458594,-0.247629 0.289401,-0.470315 -0.07483,-0.09827 -0.174001,-0.358521 -0.220582,-0.578803 -0.04688,-0.219981 -0.12111,-0.436657 -0.164986,-0.480533 -0.04387,-0.04387 -0.07964,-0.255743 -0.07964,-0.470915 -3.01e-4,-0.436056 -0.09376,-0.584814 -0.308935,-0.492854 -0.258448,0.110591 -0.323961,0.235608 -0.341993,0.652129 -0.01473,0.331475 -0.216976,1.048817 -0.327267,1.159109 -0.06792,0.06792 -0.271971,-0.251536 -0.318551,-0.498263 -0.02885,-0.154468 -0.09647,-0.383765 -0.14966,-0.510284 -0.0565,-0.134634 -0.03426,-0.355216 0.05319,-0.533425 0.137939,-0.279184 0.128022,-0.325163 -0.122011,-0.575197 l -0.271671,-0.27167 0.447175,-0.529517 c 0.538233,-0.636804 0.610057,-0.802992 0.456791,-1.053025 -0.112695,-0.184219 -0.04117,-0.572492 0.138541,-0.752203 0.04778,-0.04778 0.27167,-0.0583 0.497361,-0.02314 0.279785,0.04358 0.44988,0.01292 0.537331,-0.09617 0.10939,-0.136436 0.156571,-0.127721 0.31765,0.0592 0.10368,0.120508 0.337786,0.275878 0.5193,0.344396 0.214873,0.08144 0.396687,0.220582 0.520201,0.39819 0.142147,0.204054 0.212769,0.250634 0.280386,0.183017 0.04988,-0.04988 0.203753,-0.08234 0.341993,-0.07273 0.341091,0.02434 0.349505,-0.134933 0.01833,-0.365132 -0.205557,-0.143048 -0.25965,-0.22479 -0.214572,-0.329972 0.09557,-0.223587 0.486242,-0.289702 0.599238,-0.101576 0.07152,0.119607 0.14996,0.132529 0.292407,0.04959 0.05019,-0.02975 0.103078,-0.04478 0.154467,-0.05109 A 8.5000085,8.5000085 0 0 0 16.576065,9.7914336 c -0.02735,0.087452 -0.04538,0.1740012 -0.03546,0.2307994 0.04538,0.264158 -0.342594,0.444771 -0.606751,0.282791 -0.269567,-0.164987 -0.376252,0.01022 -0.16709,0.273473 0.183619,0.2305 0.194137,0.660545 0.01773,0.698711 -0.118405,0.02524 -0.305929,-0.183318 -0.611559,-0.678877 -0.138239,-0.223587 -0.347702,-0.261152 -1.225523,-0.221784 -0.508181,0.02314 -0.805396,-0.05289 -1.01005,-0.257546 -0.07813,-0.07814 -0.428543,-0.2848933 -0.77895,-0.4597965 C 11.496365,9.3295332 11.30854,9.129687 11.508085,8.9668048 11.922804,8.6278175 11.667662,8.3979192 10.877593,8.3976187 c -0.32907,-3.005e-4 -0.598637,-0.031855 -0.599539,-0.070022 -0.003,-0.1478562 0.485341,-0.3645314 0.786763,-0.3486039 0.381962,0.020135 0.506077,-0.084146 0.419527,-0.3516093 -0.04688,-0.1466542 0.01262,-0.2884998 0.223587,-0.5301186 L 11.996432,6.7678951 11.745196,6.5166599 C 11.657144,6.4286073 11.596138,6.3435597 11.559775,6.2621186 A 8.5000085,8.5000085 0 0 0 3.6873382,8.3104671 C 3.582757,8.5989669 3.4574399,8.711061 3.2383603,8.7594451 A 8.5000085,8.5000085 0 0 0 2.9285235,9.1233755 c 0.05199,0.0574 0.1054827,0.1157006 0.1724989,0.1773071 0.3155467,0.2903033 0.4555893,0.6689592 0.3035259,0.8210224 -0.032156,0.03215 -0.057099,0.272272 -0.055296,0.533124 0.0024,0.295712 -0.051089,0.501869 -0.1406437,0.546948 -0.081742,0.04087 -0.136737,0.183618 -0.1262187,0.328168 0.00992,0.140945 -0.033358,0.308034 -0.096467,0.371143 -0.1006744,0.100675 -0.049285,0.177307 0.4249363,0.62929 l 0.5400357,0.514191 0.5105846,-0.528616 C 5.3558291,11.59035 5.4565037,11.218606 4.8861152,10.952945 4.6246622,10.831535 4.207239,10.308329 4.1795911,10.068513 4.1696741,9.9816628 4.2390942,9.7721996 4.3343592,9.6030064 4.4290232,9.4338133 4.520081,9.0674789 4.5354075,8.7888961 4.5672626,8.2245181 4.6628283,8.0874809 5.1652989,7.8903392 5.6037588,7.7181411 5.7122464,7.8969492 5.3525231,8.199575 L 5.0850598,8.4249658 5.3525231,8.6082829 c 0.1484576,0.1009751 0.3966874,0.1652867 0.5577665,0.1442502 0.2292973,-0.02975 0.2948108,-0.0021 0.3104378,0.1319286 0.01082,0.093763 -0.03426,0.2235872 -0.099172,0.2884998 -0.064913,0.064913 -0.072726,0.2013487 -0.01833,0.3032253 0.054695,0.1021771 0.043875,0.3275678 -0.02464,0.5012685 -0.1090891,0.2779817 -0.1703952,0.3350807 -0.5036725,0.4718177 -0.3377854,0.13884 -0.3780554,0.177307 -0.3744489,0.357019 0.0036,0.164685 0.044475,0.210965 0.2214837,0.255141 0.1776077,0.04478 0.2253903,0.102177 0.2689658,0.32306 0.02885,0.147255 0.1340326,0.350407 0.2338052,0.45018 0.2028517,0.202852 0.1655872,0.362729 -0.1607786,0.689094 -0.3014223,0.301422 -0.2311003,0.590523 0.2362092,0.979096 0.3242618,0.269568 0.3702419,0.354615 0.4252369,0.77865 0.03426,0.262053 -0.00601,0.769933 -0.089555,1.129957 -0.083545,0.360024 -0.1664886,0.740483 -0.1842191,0.845365 -0.026145,0.151162 -0.1265192,0.220883 -0.4901495,0.339889 l -0.4579935,0.149058 0.3705424,0.282189 c 0.6590416,0.50217 0.8516753,0.544543 0.7359747,0.160779 -0.04538,-0.149359 -0.02284,-0.180313 0.1391412,-0.192033 0.1057836,-0.0072 0.2187792,-0.07393 0.2506342,-0.148457 0.031555,-0.07423 0.1836182,-0.172198 0.3371843,-0.217577 0.1541672,-0.04538 0.3392879,-0.139742 0.4129155,-0.209764 0.2295977,-0.218178 0.7912708,-0.01293 1.1948702,0.438159 0.6115596,0.683084 0.6743681,0.725457 1.1176366,0.741986 0.5541608,0.02043 0.7152398,-0.06672 0.8291368,-0.448077 0.110892,-0.36994 -0.02344,-0.696005 -0.441766,-1.074661 -0.3741483,-0.338687 -0.3828633,-0.410511 -0.06581,-0.564679 0.269568,-0.130726 0.579104,0.02494 0.61186,0.307734 0.02494,0.217877 0.518098,0.561973 0.787665,0.549051 0.112695,-0.0051 0.347703,-0.08024 0.521103,-0.166488 0.299319,-0.149059 0.335081,-0.140945 0.70412,0.163182 0.368739,0.303226 0.390376,0.346501 0.409309,0.810805 0.02134,0.517797 -0.122913,0.753405 -0.579704,0.950547 -0.202551,0.08715 -0.268966,0.06822 -0.394584,-0.113898 -0.249131,-0.360324 -0.475123,-0.374749 -0.800587,-0.04928 -0.157773,0.157773 -0.274676,0.335982 -0.259349,0.395786 0.01502,0.0595 -0.03787,0.173701 -0.118105,0.25394 -0.08024,0.08024 -0.145151,0.222085 -0.143949,0.314044 0.0021,0.134332 -0.04328,0.159877 -0.228997,0.128022 -0.12712,-0.02194 -0.285194,-0.109089 -0.351309,-0.193235 C 10.175592,18.780007 9.9360728,18.605409 9.7094801,18.475584 9.3825138,18.287458 9.2541917,18.264318 9.0837965,18.364993 8.7604362,18.556124 8.3925988,18.601202 8.2573642,18.465967 8.043694,18.252297 7.5367159,18.75026 7.0135094,19.688786 c -0.077234,0.13854 -0.061306,0.291505 0.050788,0.477528 0.090757,0.150861 0.1397421,0.364531 0.1085481,0.475062 -0.031495,0.110232 -0.01677,0.240357 0.032215,0.289342 0.048985,0.04898 0.08619,0.203512 0.082163,0.342774 -0.0039,0.140343 0.078857,0.339468 0.1861422,0.446754 0.2539402,0.25394 0.083305,0.43299 -0.2607318,0.273353 C 6.8491806,21.825123 6.5628443,21.283224 6.6731054,20.972816 6.8227945,20.552057 6.5532278,20.520502 6.0739273,20.903035 5.4811502,21.376205 5.1440559,21.345462 4.5643517,20.765757 l -0.4168262,-0.416822 1.804e-4,0.365253 c -1.804e-4,0.113777 -0.022629,0.230589 -0.058151,0.331624 z M 2.1178088,18.696071 c 0.022299,0.0011 0.042374,0.0039 0.065664,0.0035 0.2817682,-0.0029 0.3675669,0.04235 0.5501632,0.290694 0.3188823,0.433571 0.421991,0.233695 0.1883962,-0.365754 C 2.7958436,18.300526 2.763748,18.042919 2.8285402,17.879557 3.1415626,17.091711 3.2744228,16.631885 3.2224327,16.51979 3.117551,16.292898 2.8962476,16.316458 2.5463213,16.592456 2.1448858,16.909145 1.9473535,16.863857 1.9254756,16.449379 1.9169108,16.28845 1.8608336,16.107716 1.80103,16.047913 1.6144067,15.86129 1.5513875,15.648431 1.6525728,15.547245 c 0.053312,-0.05331 0.1186756,-0.244894 0.1453919,-0.426078 0.039068,-0.266862 -0.0015,-0.380759 -0.2142713,-0.593528 -0.2611524,-0.261152 -0.3723451,-0.470315 -0.5186987,-0.977894 -0.0024,-0.0078 -0.00661,-0.01382 -0.00902,-0.02163 a 8.5000085,8.5000085 0 0 0 1.0618296,5.167961 z m 13.3656572,1.838886 a 8.5000085,8.5000085 0 0 0 0.02702,-0.02467 8.5000085,8.5000085 0 0 0 1.037217,-1.271983 c -0.129103,-0.306411 -0.224428,-0.331415 -0.449578,-0.151463 -0.116572,0.09319 -0.290033,0.157143 -0.386861,0.142658 -0.149389,-0.02257 -0.166338,0.02539 -0.110411,0.321737 0.03619,0.191852 0.01271,0.440052 -0.05226,0.551185 -0.06299,0.107707 -0.08054,0.276479 -0.06512,0.432539 z m 0.09493,-3.87855 c 0.05049,0.06191 0.148246,0.09956 0.295502,0.102568 0.311008,0.0069 0.592626,-0.322759 0.533304,-0.623701 -0.06789,-0.344967 -0.187796,-0.384335 -0.469384,-0.155038 -0.347101,0.28279 -0.469713,0.540035 -0.359422,0.676171 z m -0.111193,-1.928741 c 0.06341,0.0592 0.174903,0.08294 0.335081,0.058 0.169794,-0.02615 0.315847,-0.133131 0.480532,-0.352511 0.202251,-0.270168 0.267463,-0.30593 0.454387,-0.245825 0.240116,0.07783 0.515694,-0.129826 0.509984,-0.384366 -0.0054,-0.253039 -0.161079,-0.343796 -0.37505,-0.21878 -0.304728,0.17851 -0.68669,-0.146954 -0.711332,-0.605549 -0.01052,-0.195639 -0.04779,-0.326666 -0.08325,-0.291204 -0.03546,0.03546 -0.0571,0.27167 -0.04748,0.524108 0.01412,0.38677 -0.02795,0.503372 -0.267764,0.743187 -0.338386,0.338387 -0.434552,0.641912 -0.295111,0.77294 z m 2.451017,0.899127 a 8.5000085,8.5000085 0 0 0 0.03639,-0.314615 c -0.02245,0.104371 -0.03639,0.211837 -0.03639,0.314615 z m -1.102881,-2.948077 c 0.04087,0.01984 0.09196,-0.0054 0.158975,-0.07243 0.06792,-0.06792 0.182416,-0.09587 0.254541,-0.06221 0.09617,0.04448 0.193836,-0.02074 0.361226,-0.242219 0.03126,-0.04147 0.0589,-0.07213 0.08745,-0.104281 a 8.5000085,8.5000085 0 0 0 -0.12171,-0.378355 c -0.09977,0.108187 -0.241018,0.211566 -0.448678,0.310437 -0.352511,0.167991 -0.421029,0.229899 -0.391578,0.350708 0.02765,0.112996 0.0586,0.178208 0.09977,0.198344 z"/>
 <path style="opacity:0.1;fill:#8b9cbe" d="M 9.6240328,6.0009588 A 8.5000085,8.5000085 0 0 0 3.489261,8.4892428 8.5000085,8.5000085 0 0 0 1.012696,14.698233 8.5000085,8.5000085 0 0 1 3.489261,8.9892433 a 8.5000085,8.5000085 0 0 1 12.021496,0 8.5000085,8.5000085 0 0 1 2.476565,5.8125057 8.5000085,8.5000085 0 0 0 -2.476565,-6.3125062 8.5000085,8.5000085 0 0 0 -5.8867242,-2.488284 z"/>
 <path style="opacity:0.2" d="m 20.71877,1.5126731 c -0.127155,-0.00304 -0.258409,-1.882e-4 -0.394531,0.00879 -2.340561,0.1554999 -5.660259,2.0652731 -8.527352,4.8027395 0.191917,0.053911 0.380987,0.1154626 0.56836,0.1826171 1.39603,-1.1000466 2.912934,-1.9418162 4.183597,-2.4941433 0.587298,-0.2552844 1.792578,-0.7235839 2.678714,-0.778321 1.132138,-0.069933 1.879315,0.3993389 1.61426,1.3886733 -0.339639,1.2297654 -1.423101,3.1658638 -3.180668,5.1123098 -1.757567,1.9464465 -4.151975,4.0018415 -5.937506,4.9462945 l 1.063478,1.937501 c 2.089321,-1.325952 4.385684,-3.359118 6.358405,-5.54395 3.820509,-4.2313919 4.97952,-8.4280506 2.588869,-9.3740332 C 21.440929,1.5847872 21.100237,1.5217972 20.71877,1.5126731 Z m -9.340829,5.2050835 c 0.185651,0.04191 0.371645,0.083199 0.554688,0.1376956 3.51e-4,-2.965e-4 6.5e-4,-7e-4 10e-4,-0.001 -0.183521,-0.054663 -0.369523,-0.094708 -0.555665,-0.1367186 z"/>
 <path style="fill:#a91f1f" d="m 20.71877,1.0126726 c -0.127155,-0.00304 -0.258409,-1.883e-4 -0.394531,0.00879 -2.45399,0.1630358 -5.990364,2.2432427 -8.946298,5.1962944 0.185651,0.04191 0.371645,0.0832 0.554688,0.1376956 1.508612,-1.2740298 3.213464,-2.2330341 4.616215,-2.8427767 0.587298,-0.2552844 1.792737,-0.7239394 2.678873,-0.7786765 1.132138,-0.069933 1.879156,0.3996944 1.614101,1.3890288 -0.339639,1.2297654 -1.423101,3.1658638 -3.180668,5.1123098 -1.757567,1.946446 -4.151901,4.001452 -5.937432,4.945904 l 1.063164,1.938201 c 2.089322,-1.325952 4.385924,-3.359428 6.358645,-5.54426 3.820509,-4.2313914 4.97952,-8.4280501 2.588869,-9.3740327 C 21.440929,1.0847867 21.100237,1.0217967 20.71877,1.0126726 Z"/>
 <circle style="opacity:0.2" cx="12" cy="15.5" r="5"/>
 <path style="opacity:0.1;fill:#8b9cbe" d="m 20.71877,1.0126726 c -0.127155,-0.00304 -0.258409,-1.882e-4 -0.394531,0.00879 -2.45399,0.1630358 -5.990364,2.2432425 -8.946298,5.1962944 0.140873,0.0318 0.28107,0.067364 0.420899,0.1044921 2.866639,-2.7364388 6.185383,-4.6453223 8.525399,-4.800786 0.136122,-0.00898 0.267376,-0.011829 0.394531,-0.00879 0.381467,0.00912 0.722159,0.072114 1.015626,0.1884768 0.775737,0.3069596 1.171893,0.9601732 1.230471,1.8417987 C 23.041555,2.4062571 22.650747,1.5637503 21.734396,1.2011494 21.440929,1.0847867 21.100237,1.0217967 20.71877,1.0126726 Z m 0.143555,2.9785187 c -0.0081,0.044699 -0.0079,0.084784 -0.02051,0.1318361 -0.339638,1.2297653 -1.4231,3.1658637 -3.180667,5.1123097 -1.757567,1.9464459 -4.151976,4.0018419 -5.937506,4.9462939 l 0.208008,0.378907 c 1.760905,-0.987458 4.037674,-2.951563 5.729498,-4.8252004 1.757567,-1.946446 2.841029,-3.8825444 3.180667,-5.1123097 0.06485,-0.2420393 0.06763,-0.4523001 0.02051,-0.6318366 z"/>
 <circle style="fill:#e13c3c" cx="12" cy="15" r="5"/>
 <circle style="opacity:0.2" cx="12" cy="15.5" r="3"/>
 <circle style="fill:#ffa833" cx="12" cy="15" r="3"/>
 <circle style="opacity:0.2" cx="12" cy="15.5" r="1"/>
 <circle style="fill:#8b9cbe" cx="12" cy="15" r="1"/>
 <path style="opacity:0.2;fill:#8b9cbe" d="M 12 12 A 3 3 0 0 0 9 15 A 3 3 0 0 0 9.0136719 15.255859 A 3 3 0 0 1 12 12.5 A 3 3 0 0 1 14.986328 15.244141 A 3 3 0 0 0 15 15 A 3 3 0 0 0 12 12 z"/>
</svg>
