<svg xmlns="http://www.w3.org/2000/svg" width="24" height="24" version="1.1">
 <rect style="opacity:0.2" width="20" height="20" x="2" y="2.5" rx="1" ry="1"/>
 <rect style="fill:#834e2f" width="20" height="20" x="2" y="2" rx="1" ry="1"/>
 <path style="opacity:0.1" d="m 15.535643,20.303077 c 0.581669,0.627584 1.257241,-0.40845 1.592696,-0.830411 0.788138,-1.415721 1.161206,-3.0933 0.586321,-4.540859 -0.220678,-0.295885 -0.218358,-0.846303 0.127902,-0.893589 C 18.203831,13.997484 18.746219,14.073239 19,13.945241 18.659264,13.716096 18.12715,13.659145 17.845473,13.321047 17.616827,12.953649 17.47317,12.388895 17.18763,12.172194 14.706274,9.930056 12.151244,7.470733 9.911191,5.1761695 9.808747,4.854942 9.6846585,4.5148105 9.3269595,4.577838 8.9894555,4.272949 8.190016,4.9345815 8.6279915,5.339837 c 1.9488695,1.9610325 3.8987225,3.922158 5.8090115,5.922052 -0.183392,0.307465 -0.517271,0.77074 -0.738151,0.678918 -0.535649,0.161759 0.07519,1.093158 -0.07763,1.508942 -0.198373,0.503967 -0.865371,1.095726 -0.459986,1.783637 0.324689,0.569991 1.114513,1.36865 1.649938,1.005864 0.539023,-0.503933 1.399043,-0.173174 1.261838,0.544859 0.01272,0.659379 -0.689906,1.060168 -1.142004,1.272008 -0.69638,0.243208 -0.655917,0.919017 -0.240667,1.386947 0.260171,0.307648 0.546962,0.591061 0.845311,0.860013 z m -1.385214,-6.17194 c 0.49114,0.349458 0.694653,1.233151 -0.0049,1.381786 0.521234,0.232983 0.777378,-1.162596 1.03119,-0.343553 0.281746,0.716379 -0.817028,1.156271 -1.355721,0.613411 -0.7272,-0.908047 -0.578572,-1.902404 0.329371,-1.651644 z"/>
 <path style="opacity:0.1;fill:#8b9cbe" d="M 3,2 C 2.446,2 2,2.446 2,3 v 0.5 c 0,-0.554 0.446,-1 1,-1 h 18 c 0.554,0 1,0.446 1,1 V 3 C 22,2.446 21.554,2 21,2 Z"/>
 <path style="fill:#2e2e2e" d="m 15.535643,19.803077 c 0.581669,0.627584 1.257241,-0.40845 1.592696,-0.830411 0.788138,-1.415721 1.161206,-3.093299 0.586321,-4.540859 -0.220678,-0.295885 -0.218358,-0.846303 0.127902,-0.893589 C 18.203831,13.497484 18.746219,13.573239 19,13.445241 18.659264,13.216096 18.12715,13.159145 17.845473,12.821047 17.616827,12.453649 17.47317,11.888895 17.18763,11.672194 14.706274,9.430056 12.151244,6.970733 9.911191,4.6761695 9.808747,4.354942 9.6846585,4.0148105 9.3269595,4.077838 8.9894555,3.772949 8.190016,4.4345815 8.6279915,4.839837 c 1.9488695,1.9610325 3.8987225,3.922158 5.8090115,5.922052 -0.183392,0.307465 -0.517271,0.77074 -0.738151,0.678918 -0.535649,0.161759 0.07519,1.093158 -0.07763,1.508942 -0.198373,0.503967 -0.865371,1.095726 -0.459986,1.783637 0.324689,0.569991 1.114513,1.36865 1.649938,1.005865 0.539023,-0.503934 1.399043,-0.173175 1.261838,0.544858 0.01272,0.659379 -0.689906,1.060168 -1.142004,1.272008 -0.69638,0.243208 -0.655917,0.919017 -0.240667,1.386947 0.260171,0.307648 0.546962,0.591061 0.845311,0.860013 z m -1.385214,-6.17194 c 0.49114,0.349458 0.694653,1.233151 -0.0049,1.381786 0.521234,0.232983 0.777378,-1.162596 1.03119,-0.343553 0.281746,0.716379 -0.817028,1.156272 -1.355721,0.613411 -0.7272,-0.908047 -0.578572,-1.902404 0.329371,-1.651644 z"/>
 <path style="opacity:0.1" d="M 8.464357,20.303077 C 7.8826875,20.930661 7.2071155,19.894627 6.871661,19.472666 6.0835235,18.056945 5.710455,16.379366 6.2853395,14.931807 6.506018,14.635922 6.5036975,14.085504 6.1574375,14.038218 5.7961685,13.997484 5.253781,14.073239 5,13.945241 5.340736,13.716096 5.8728495,13.659145 6.1545265,13.321047 6.383173,12.953649 6.5268295,12.388895 6.81237,12.172194 9.2937255,9.930056 11.848757,7.470733 14.088809,5.1761695 14.191253,4.854942 14.315341,4.5148105 14.67304,4.577838 c 0.337504,-0.304889 1.136944,0.3567435 0.698969,0.761999 -1.94887,1.9610325 -3.898722,3.922158 -5.809012,5.922052 0.183392,0.307465 0.517271,0.77074 0.738152,0.678918 0.535648,0.161759 -0.07519,1.093158 0.07763,1.508942 0.198374,0.503967 0.865371,1.095726 0.459986,1.783637 -0.324689,0.569991 -1.1145125,1.36865 -1.649938,1.005864 -0.539023,-0.503933 -1.399043,-0.173174 -1.261838,0.544859 -0.01272,0.659379 0.6899065,1.060168 1.1420045,1.272008 0.6963795,0.243208 0.6559165,0.919017 0.240667,1.386947 -0.260171,0.307648 -0.5469625,0.591061 -0.8453115,0.860013 z m 1.385214,-6.17194 c -0.4911395,0.349458 -0.694653,1.233151 0.00485,1.381786 -0.521234,0.232983 -0.7773775,-1.162596 -1.0311895,-0.343553 -0.2817465,0.716379 0.817028,1.156271 1.3557205,0.613411 0.7272,-0.908047 0.578572,-1.902404 -0.329371,-1.651644 z"/>
 <path style="fill:#b6b6b6" d="M 8.464357,19.803077 C 7.8826875,20.430661 7.2071155,19.394627 6.871661,18.972666 6.0835235,17.556945 5.710455,15.879367 6.2853395,14.431807 6.506018,14.135922 6.5036975,13.585504 6.1574375,13.538218 5.7961685,13.497484 5.253781,13.573239 5,13.445241 5.340736,13.216096 5.8728495,13.159145 6.1545265,12.821047 6.383173,12.453649 6.5268295,11.888895 6.81237,11.672194 9.2937255,9.430056 11.848757,6.970733 14.088809,4.6761695 14.191253,4.354942 14.315342,4.0148105 14.673041,4.077838 c 0.337504,-0.304889 1.136943,0.3567435 0.698968,0.761999 -1.94887,1.9610325 -3.898722,3.922158 -5.809012,5.922052 0.183392,0.307465 0.517272,0.77074 0.738152,0.678918 0.535648,0.161759 -0.07519,1.093158 0.07763,1.508942 0.198374,0.503967 0.865371,1.095726 0.459987,1.783637 -0.324689,0.569991 -1.1145135,1.36865 -1.649939,1.005865 -0.539023,-0.503934 -1.399043,-0.173175 -1.261838,0.544858 -0.01272,0.659379 0.6899065,1.060168 1.1420045,1.272008 0.6963795,0.243208 0.6559165,0.919017 0.240667,1.386947 -0.260171,0.307648 -0.5469625,0.591061 -0.8453115,0.860013 z m 1.385214,-6.17194 c -0.4911395,0.349458 -0.694653,1.233151 0.00485,1.381786 -0.521234,0.232983 -0.7773775,-1.162596 -1.0311895,-0.343553 -0.2817465,0.716379 0.817028,1.156272 1.3557205,0.613411 0.7272,-0.908047 0.578572,-1.902404 -0.329371,-1.651644 z"/>
</svg>
