<svg xmlns="http://www.w3.org/2000/svg" width="24" height="24" version="1.1" viewBox="0 0 48 48">
 <g transform="translate(2.0002 2)">
  <path fill="#4f4f4f" d="m36 22a14 14 0 0 1 -14 14 14 14 0 0 1 -14 -14 14 14 0 0 1 14 -14 14 14 0 0 1 14 14z"/>
  <path fill="#b2bfd9" d="m22 2c-11.08 0-20 8.92-20 20s8.92 20 20 20 20-8.92 20-20-8.92-20-20-20zm0 3a6 6 0 0 1 6 6 6 6 0 0 1 -6 6 6 6 0 0 1 -6 -6 6 6 0 0 1 6 -6zm-11 11a6 6 0 0 1 6 6 6 6 0 0 1 -6 6 6 6 0 0 1 -6 -6 6 6 0 0 1 6 -6zm22 0a6 6 0 0 1 6 6 6 6 0 0 1 -6 6 6 6 0 0 1 -6 -6 6 6 0 0 1 6 -6zm-11 11a6 6 0 0 1 6 6 6 6 0 0 1 -6 6 6 6 0 0 1 -6 -6 6 6 0 0 1 6 -6z"/>
  <path fill="#4f4f4f" d="m21.366 18.9a1 1 0 0 1 -0.366 1.366 1 1 0 0 1 -1.366 -0.366 1 1 0 0 1 0.366 -1.366 1 1 0 0 1 1.366 0.366z"/>
  <path fill="#4f4f4f" d="m24.366 24.1a1 1 0 0 1 -0.366 1.366 1 1 0 0 1 -1.366 -0.366 1 1 0 0 1 0.366 -1.366 1 1 0 0 1 1.366 0.366z"/>
  <path fill="#4f4f4f" d="m25.098 21.3a1 1 0 0 1 -1.366 -0.366 1 1 0 0 1 0.366 -1.366 1 1 0 0 1 1.366 0.366 1 1 0 0 1 -0.366 1.366z"/>
  <path fill="#4f4f4f" d="m19.902 24.3a1 1 0 0 1 -1.366 -0.366 1 1 0 0 1 0.366 -1.366 1 1 0 0 1 1.366 0.366 1 1 0 0 1 -0.366 1.366z"/>
  <path fill="#fff" opacity=".2" d="m22 2c-11.08 0-20 8.92-20 20 0 0.168 0.0076 0.333 0.0117 0.5 0.2647-10.846 9.0763-19.5 19.988-19.5s19.724 8.654 19.988 19.5c0.004-0.167 0.012-0.332 0.012-0.5 0-11.08-8.92-20-20-20zm-5.9746 9.498a6 6 0 0 0 -0.025 0.502 6 6 0 0 0 6 6 6 6 0 0 0 6 -6 6 6 0 0 0 -0.025 -0.498 6 6 0 0 1 -5.975 5.498 6 6 0 0 1 -5.975 -5.502zm-11 11a6 6 0 0 0 -0.025 0.502 6 6 0 0 0 6 6 6 6 0 0 0 6 -6 6 6 0 0 0 -0.025 -0.498 6 6 0 0 1 -5.975 5.498 6 6 0 0 1 -5.9746 -5.502zm22 0a6 6 0 0 0 -0.025 0.502 6 6 0 0 0 6 6 6 6 0 0 0 6 -6 6 6 0 0 0 -0.025 -0.498 6 6 0 0 1 -5.975 5.498 6 6 0 0 1 -5.975 -5.502zm-11 11a6 6 0 0 0 -0.025 0.502 6 6 0 0 0 6 6 6 6 0 0 0 6 -6 6 6 0 0 0 -0.025 -0.498 6 6 0 0 1 -5.975 5.498 6 6 0 0 1 -5.975 -5.502z"/>
  <path opacity=".2" d="m22 5a6 6 0 0 0 -6 6 6 6 0 0 0 0.02539 0.4981 6 6 0 0 1 5.975 -5.498 6 6 0 0 1 5.975 5.502 6 6 0 0 0 0.025 -0.502 6 6 0 0 0 -6 -6zm-11 11a6 6 0 0 0 -6 6 6 6 0 0 0 0.0254 0.498 6 6 0 0 1 5.9746 -5.498 6 6 0 0 1 5.975 5.502 6 6 0 0 0 0.025 -0.502 6 6 0 0 0 -6 -6zm22 0a6 6 0 0 0 -6 6 6 6 0 0 0 0.02539 0.4981 6 6 0 0 1 5.975 -5.498 6 6 0 0 1 5.975 5.502 6 6 0 0 0 0.025 -0.502 6 6 0 0 0 -6 -6zm-30.988 6.5c-0.0041 0.167-0.0117 0.332-0.0117 0.5 0 11.08 8.92 20 20 20s20-8.92 20-20c0-0.1679-0.0076-0.3331-0.01172-0.5-0.264 10.846-9.076 19.5-19.988 19.5s-19.724-8.654-19.988-19.5zm19.988 4.5a6 6 0 0 0 -6 6 6 6 0 0 0 0.02539 0.4981 6 6 0 0 1 5.975 -5.498 6 6 0 0 1 5.975 5.502 6 6 0 0 0 0.025 -0.502 6 6 0 0 0 -6 -6z"/>
 </g>
</svg>
