<svg xmlns="http://www.w3.org/2000/svg" width="24" height="24" version="1">
 <path style="fill:#fefdfd" d="M -2402.1486,45.744886 V -954.25511 h 1000 1000 V 45.744886 1045.7449 h -1000 -1000 z"/>
 <rect style="opacity:0.2" width="20" height="20" x="2" y="2.5" rx="6" ry="6"/>
 <rect style="fill:#e78451" width="20" height="20" x="2" y="2" rx="6" ry="6"/>
 <circle style="opacity:0.2" cx="12" cy="12.5" r="7"/>
 <circle style="fill:#8b9cbe" cx="12" cy="12" r="7"/>
 <path style="opacity:0.2;fill:#8b9cbe" d="M 8,2 C 4.676,2 2,4.676 2,8 v 0.5 c 0,-3.324 2.676,-6 6,-6 h 8 c 3.324,0 6,2.676 6,6 V 8 C 22,4.676 19.324,2 16,2 Z"/>
 <path style="opacity:0.1" d="M 6.0000345,14.284337 9.3162485,7.5 12.009078,10.629281 14.701907,7.5 17.999945,14.270207 15.870269,15.998582 14.084929,11.018873 12.009078,13.55872 9.9332915,11.018852 8.129427,16 Z"/>
 <path style="fill:#f80000" d="M 6.0000345,13.784337 9.3162485,7 12.009078,10.129281 14.701907,7 17.999945,13.770207 15.870269,15.498582 14.084929,10.518873 12.009078,13.05872 9.9332915,10.518852 8.129427,15.5 Z"/>
</svg>
