<svg xmlns="http://www.w3.org/2000/svg" width="24" height="24" version="1.1">
 <ellipse style="opacity:0.2" cx="-23.837" cy="3.134" rx="1.84" ry="2.928" transform="matrix(-0.85217299,-0.52326016,-0.42093334,0.90709157,0,0)"/>
 <ellipse style="opacity:0.2" cx="-1.93" cy="15.772" rx="1.84" ry="2.928" transform="matrix(0.85217299,-0.52326016,0.42093334,0.90709157,0,0)"/>
 <path style="opacity:0.2" d="m 6.0057375,10.1235 v 4.57851 c -0.370881,0.697219 -1,1.64644 -1,2.942789 0,2.681514 3.133935,4.855201 6.9998675,4.855201 3.865933,0 7.000133,-2.173687 7.000133,-4.855201 0,-1.189222 -0.629152,-2.086363 -1,-2.765129 V 10.1235 l -6,-2.245 z"/>
 <path style="fill:#ea2028" d="m 20.005738,10 c 0,4.418278 -3.581722,8 -8,8 -4.418278,0 -8.0000004,-3.581722 -8.0000004,-8 0,-4.418278 4.8440499,-8 8.0000004,-8 3.155951,0 8,3.581722 8,8 z"/>
 <ellipse style="fill:#e5b493" cx="-23.625" cy="2.705" rx="1.84" ry="2.928" transform="matrix(-0.85217299,-0.52326016,-0.42093334,0.90709157,0,0)"/>
 <path style="opacity:0.1" d="m 19.781722,12.488573 c 0.342589,6e-4 0.642846,0.265486 0.734328,0.647764 -0.235401,-0.181941 -0.406667,-0.345922 -0.754719,-0.346292 -0.161971,1.63e-4 -0.483025,0.083 -0.63281,0.126747 0.137882,-0.265416 0.385704,-0.427881 0.653201,-0.428219 z"/>
 <path style="opacity:0.1" d="m 19.882824,14.491224 c 0.133011,0.315714 0.0061,0.695483 -0.310218,0.928762 0.07577,-0.287705 0.160004,-0.509351 0.02465,-0.830006 -0.0633,-0.149091 -0.264751,-0.412444 -0.363429,-0.533322 0.298169,0.02349 0.544396,0.188367 0.648995,0.434565 z"/>
 <path style="fill:#a84e37" d="m 18.893559,10.3655 h -1.587821 v 6.090919 c 1.031894,-0.35299 1.637792,-0.884037 1.738325,-1.903459 0.04724,-0.575553 -0.278554,-1.249757 -0.309624,-1.911768 -0.04926,-1.049594 0.0923,-1.316381 0.15912,-2.275692 z"/>
 <ellipse style="fill:#e5b493" cx="-1.718" cy="15.343" rx="1.84" ry="2.928" transform="matrix(0.85217299,-0.52326016,0.42093334,0.90709157,0,0)"/>
 <path style="opacity:0.1" d="m 4.2068051,12.488573 c -0.3425892,6e-4 -0.6428465,0.265485 -0.7343279,0.647764 0.2354003,-0.181941 0.4066672,-0.345922 0.7547184,-0.346292 0.161971,1.63e-4 0.483025,0.083 0.63281,0.126747 -0.137882,-0.265416 -0.385704,-0.427881 -0.6532005,-0.428219 z"/>
 <path style="opacity:0.1" d="m 4.1057031,14.491224 c -0.1330115,0.315714 -0.00615,0.695483 0.3102177,0.928762 -0.07577,-0.287705 -0.1600039,-0.509351 -0.024652,-0.830006 0.063297,-0.149091 0.2647513,-0.412444 0.3634288,-0.533322 -0.2981687,0.02349 -0.5443956,0.188367 -0.6489945,0.434566 z"/>
 <path style="fill:#a84e37" d="m 5.160914,10.3655 h 1.5878215 v 6.090919 C 5.7168415,16.103429 5.1109435,15.572382 5.01041,14.55296 4.96317,13.977407 5.288964,13.303203 5.3200345,12.641192 5.3692945,11.591598 5.227732,11.324811 5.160914,10.3655 Z"/>
 <path style="fill:#f0c3a5" d="m 6.0057375,9.6235 v 4.57851 c -0.370881,0.697219 -1,1.646441 -1,2.942789 0,2.681514 3.133935,4.855201 6.9998675,4.855201 3.865933,0 7.000133,-2.173687 7.000133,-4.855201 0,-1.189222 -0.629152,-2.086363 -1,-2.765129 V 9.6235 l -6,-2.245 z"/>
 <path style="opacity:0.1" d="m 9.8377685,19.601562 a 2.6202463,1.2159312 0 0 0 2.2685555,0.610352 2.6202463,1.2159312 0 0 0 2.067383,-0.47168 4.0416872,1.2159312 0 0 1 -1.810547,0.129883 4.0416872,1.2159312 0 0 1 -2.5253915,-0.268555 z m 1.0078135,0.810547 a 1.318686,0.49664801 0 0 0 -0.02344,0.0918 A 1.318686,0.49664801 0 0 0 12.140501,21 a 1.318686,0.49664801 0 0 0 1.31836,-0.496094 1.318686,0.49664801 0 0 0 -0.0166,-0.07715 1.9009629,0.49664801 0 0 1 -1.267578,0.127929 1.9009629,0.49664801 0 0 1 -1.329102,-0.142578 z"/>
 <path style="fill:#5b4b53" d="m 16.516796,14.909085 c -1.037873,0.939162 -2.758678,1.500822 -4.598104,1.500793 -1.805216,-0.0017 -3.4971268,-0.544385 -4.5391819,-1.455986 -0.2250808,0.510752 -0.2913722,0.982158 -0.3795146,1.470183 -3.05e-5,0.526631 0.4185692,0.953569 0.9349535,0.953577 0.150888,-1.25e-4 0.2995045,-0.03749 0.4331579,-0.10891 -0.00832,0.05014 -0.012705,0.100872 -0.013096,0.15172 8.96e-5,0.526546 0.4186538,0.953349 0.9349531,0.953357 0.3543851,-4.54e-4 0.6780541,-0.205219 0.835904,-0.528804 -0.0059,0.04324 -0.009,0.0868 -0.0093,0.130426 6.8e-5,0.565852 0.461089,1.024536 1.02978,1.024559 0.34238,-1.21e-4 0.662312,-0.169545 0.853644,-0.452057 0.191333,0.282512 0.511264,0.451935 0.853644,0.452057 0.568772,9.4e-5 1.029922,-0.458624 1.02999,-1.024559 -3.64e-4,-0.0437 -0.0035,-0.08734 -0.0095,-0.130648 0.157789,0.323671 0.481471,0.528523 0.835904,0.529026 0.516299,-8e-6 0.934864,-0.426811 0.934953,-0.953357 -3.91e-4,-0.05084 -0.0047,-0.101583 -0.0131,-0.15172 0.133654,0.07142 0.282271,0.108785 0.433158,0.10891 0.516384,-7e-6 0.934984,-0.426945 0.934954,-0.953577 -0.114431,-0.524336 -0.297331,-1.053688 -0.483202,-1.51499 z"/>
 <path style="fill:#5d4e55" d="M 9.129444,8.6679705 A 1.6237448,2.025726 0 0 0 7.5057375,10.693895 1.6237448,2.025726 0 0 0 7.5211125,10.953493 1.8665477,2.025726 0 0 1 9.220505,9.7612425 1.8665477,2.025726 0 0 1 10.751496,10.632252 1.6237448,2.025726 0 0 0 9.129445,8.6679705 Z"/>
 <ellipse style="fill:#8b9cbe" cx="12.006" cy="5.25" rx="3" ry="2.25"/>
 <path style="fill:#ed475f" d="m 13.053589,3.5146485 -1.078125,1.1826171 -1.020507,-1.1269531 -1.205079,2.567383 1.051517,0.322103 0.328366,-1.7215173 0.844727,0.9316408 0.916015,-1.004883 0.543375,1.6385095 0.827719,-0.331869 z"/>
 <ellipse style="opacity:0.2" cx="9.256" cy="13.5" rx="1.75" ry="2"/>
 <ellipse style="fill:#8b9cbe" cx="9.256" cy="13" rx="1.75" ry="2"/>
 <path style="fill:#2784cf" d="M 10.162964,11.38086 A 1.1575577,1.5594876 0 0 0 9.0057375,12.94043 1.1575577,1.5594876 0 0 0 10.162964,14.5 1.1575577,1.5594876 0 0 0 10.462769,14.446289 1.75,2 0 0 0 11.005738,13 1.75,2 0 0 0 10.291871,11.391602 1.1575577,1.5594876 0 0 0 10.162964,11.38086 Z"/>
 <ellipse style="fill:#17191e" cx="10.131" cy="12.933" rx=".625" ry=".875"/>
 <path style="fill:#5d4e55" d="m 14.882031,8.6679705 a 1.6237448,2.025726 0 0 1 1.623707,2.0259245 1.6237448,2.025726 0 0 1 -0.01538,0.259598 1.8665477,2.025726 0 0 0 -1.699393,-1.1922505 1.8665477,2.025726 0 0 0 -1.53099,0.8710095 1.6237448,2.025726 0 0 1 1.62205,-1.9642815 z"/>
 <ellipse style="opacity:0.2" cx="-14.756" cy="13.5" rx="1.75" ry="2" transform="scale(-1,1)"/>
 <ellipse style="fill:#8b9cbe" cx="-14.756" cy="13" rx="1.75" ry="2" transform="scale(-1,1)"/>
 <path style="fill:#2784cf" d="M 13.848511,11.38086 A 1.1575577,1.5594876 0 0 1 15.005738,12.94043 1.1575577,1.5594876 0 0 1 13.848511,14.5 1.1575577,1.5594876 0 0 1 13.548707,14.446289 1.75,2 0 0 1 13.005738,13 a 1.75,2 0 0 1 0.713867,-1.608398 1.1575577,1.5594876 0 0 1 0.128906,-0.01074 z"/>
 <ellipse style="fill:#17191e" cx="-13.881" cy="12.933" rx=".625" ry=".875" transform="scale(-1,1)"/>
 <ellipse style="opacity:0.1" cx="12.006" cy="16" rx="3" ry="2.5"/>
 <ellipse style="fill:#ffd0ae" cx="12.006" cy="15.5" rx="3" ry="2.5"/>
 <path style="opacity:0.1" d="m 12.005738,7.479041 c -2.7548825,0.045605 -5.6357265,0.644427 -6.7997345,3.013672 -0.2313099,0.470814 -0.339834,1.044008 0.1113125,1.27832 0.4146765,0.198435 0.597532,-0.04935 0.8866275,-0.308593 1.724611,-1.4964915 3.50474,-2.28711 5.8017945,-2.28711 2.297054,0 4.077183,0.7906185 5.801794,2.28711 0.289095,0.259243 0.47195,0.507028 0.886627,0.308593 0.451147,-0.234312 0.342622,-0.807506 0.111312,-1.27832 C 17.641464,8.123468 14.76062,7.524646 12.005738,7.479041 Z"/>
 <path style="fill:#ff3137" d="M 12.005738,6.978541 C 9.2508555,7.024146 6.3700115,7.622968 5.2060035,9.992213 c -0.2313099,0.470814 -0.339834,1.044008 0.1113125,1.27832 0.4146765,0.198435 0.597532,-0.04935 0.8866275,-0.308593 1.724611,-1.4964915 3.50474,-2.28711 5.8017945,-2.28711 2.297054,0 4.077183,0.7906185 5.801794,2.28711 0.289095,0.259243 0.47195,0.507028 0.886627,0.308593 0.451147,-0.234312 0.342622,-0.807506 0.111312,-1.27832 C 17.641464,7.622968 14.76062,7.024146 12.005738,6.978541 Z"/>
 <path style="opacity:0.2;fill:#8b9cbe" d="M 12.005738,6.9785155 C 9.2508555,7.0241205 6.369941,7.6229425 5.205933,9.9921875 5.05085,10.307847 4.9558766,10.667668 5.042847,10.942383 c 0.0352,-0.15134 0.091942,-0.305388 0.163086,-0.450195 1.164008,-2.3692455 4.0449225,-2.9680675 6.799805,-3.0136725 2.754882,0.045605 5.635797,0.644427 6.799804,3.0136725 0.07114,0.144807 0.127885,0.298856 0.163086,0.450195 0.08697,-0.274715 -0.008,-0.634536 -0.163086,-0.9501955 -1.164007,-2.369245 -4.044922,-2.968067 -6.799804,-3.013672 z"/>
 <path style="opacity:0.2;fill:#8b9cbe" d="m 12.005738,2 c -3.155951,0 -8.0000005,3.581722 -8.0000005,8 0,0.06722 0.00812,0.132396 0.00977,0.199219 C 4.2281047,5.9203955 8.9217665,2.5 12.005738,2.5 c 3.083971,0 7.777633,3.4203955 7.990234,7.699219 0.0016,-0.06682 0.0098,-0.131999 0.0098,-0.199219 0,-4.418278 -4.84405,-8 -8,-8 z"/>
 <path style="opacity:0.2;fill:#8b9cbe" d="m 12.005738,13 a 3,2.5 0 0 0 -3.0000005,2.5 3,2.5 0 0 0 0.0166,0.238281 A 3,2.5 0 0 1 12.005738,13.5 a 3,2.5 0 0 1 2.983398,2.261719 3,2.5 0 0 0 0.0166,-0.261719 3,2.5 0 0 0 -3,-2.5 z"/>
</svg>
