<svg xmlns="http://www.w3.org/2000/svg" width="24" height="24" version="1.1">
 <path style="opacity:0.2" d="M 11.5,2.5 A 3.5,3.5 0 0 0 8,6 3.5,3.5 0 0 0 11.5,9.5 3.5,3.5 0 0 0 15,6 3.5,3.5 0 0 0 11.5,2.5 Z m -6,6 A 3.5,3.5 0 0 0 2,12 3.5,3.5 0 0 0 5.5,15.5 3.5,3.5 0 0 0 9,12 3.5,3.5 0 0 0 5.5,8.5 Z m 12,0 A 3.5,3.5 0 0 0 14,12 3.5,3.5 0 0 0 17.5,15.5 3.5,3.5 0 0 0 21,12 3.5,3.5 0 0 0 17.5,8.5 Z m -6,6 A 3.5,3.5 0 0 0 8,18 3.5,3.5 0 0 0 11.5,21.5 3.5,3.5 0 0 0 15,18 3.5,3.5 0 0 0 11.5,14.5 Z"/>
 <path style="fill:#8685b9" d="M 15,5.5 A 3.5,3.5 0 0 1 11.5,9 3.5,3.5 0 0 1 8,5.5 3.5,3.5 0 0 1 11.5,2 3.5,3.5 0 0 1 15,5.5 Z"/>
 <path style="fill:#6560e0" d="M 15,17.5 A 3.5,3.5 0 0 1 11.5,21 3.5,3.5 0 0 1 8,17.5 3.5,3.5 0 0 1 11.5,14 3.5,3.5 0 0 1 15,17.5 Z"/>
 <path style="fill:#6560e0" d="M 17.5,15 A 3.5,3.5 0 0 1 14,11.5 3.5,3.5 0 0 1 17.5,8 3.5,3.5 0 0 1 21,11.5 3.5,3.5 0 0 1 17.5,15 Z"/>
 <path style="fill:#8685b9" d="M 5.5,15 A 3.5,3.5 0 0 1 2,11.5 3.5,3.5 0 0 1 5.5,8 3.5,3.5 0 0 1 9,11.5 3.5,3.5 0 0 1 5.5,15 Z"/>
 <path style="fill:#8b9cbe;opacity:0.2" d="M 11.5 2 A 3.5 3.5 0 0 0 8 5.5 A 3.5 3.5 0 0 0 8.0117188 5.7246094 A 3.5 3.5 0 0 1 11.5 2.5 A 3.5 3.5 0 0 1 14.988281 5.7753906 A 3.5 3.5 0 0 0 15 5.5 A 3.5 3.5 0 0 0 11.5 2 z M 5.5 8 A 3.5 3.5 0 0 0 2 11.5 A 3.5 3.5 0 0 0 2.0117188 11.724609 A 3.5 3.5 0 0 1 5.5 8.5 A 3.5 3.5 0 0 1 8.9882812 11.775391 A 3.5 3.5 0 0 0 9 11.5 A 3.5 3.5 0 0 0 5.5 8 z"/>
 <path style="fill:#8b9cbe;opacity:0.1" d="M 17.5 8 A 3.5 3.5 0 0 0 14 11.5 A 3.5 3.5 0 0 0 14.011719 11.724609 A 3.5 3.5 0 0 1 17.5 8.5 A 3.5 3.5 0 0 1 20.988281 11.775391 A 3.5 3.5 0 0 0 21 11.5 A 3.5 3.5 0 0 0 17.5 8 z M 11.5 14 A 3.5 3.5 0 0 0 8 17.5 A 3.5 3.5 0 0 0 8.0117188 17.724609 A 3.5 3.5 0 0 1 11.5 14.5 A 3.5 3.5 0 0 1 14.988281 17.775391 A 3.5 3.5 0 0 0 15 17.5 A 3.5 3.5 0 0 0 11.5 14 z"/>
</svg>
