<svg xmlns="http://www.w3.org/2000/svg" width="24" height="24" version="1">
 <g transform="translate(1 1)">
  <path fill="#858585" d="m10 6a5 5 0 0 0 -5 5 5 5 0 0 0 5 5 5 5 0 0 0 5 -5 5 5 0 0 0 -5 -5zm0 3c1.1045 0 2 0.8955 2 2s-0.8955 2-2 2-2-0.896-2-2c0-1.1046 0.8954-2 2-2z"/>
  <path fill="#b2bfd9" d="m10 1c-5.54 0-10 4.46-10 10s4.46 10 10 10 10-4.46 10-10-4.46-10-10-10zm0 6a4 4 0 0 1 4 4 4 4 0 0 1 -4 4 4 4 0 0 1 -4 -4 4 4 0 0 1 4 -4z"/>
  <path fill="#fff" opacity=".2" d="m10 1c5.535 0 9.991 4.46 9.991 10 0 0.08394-0.004 0.16657-0.0058 0.25-0.132-5.423-4.534-9.75-9.985-9.75s-9.853 4.327-9.985 9.75c-0.002-0.083-0.00584-0.166-0.00584-0.25 0-5.54 4.4559-10 9.9906-10zm1.973 10.25c0.01044 0.08276 0.02538 0.16442 0.02538 0.25 0 1.1046-0.8946 2-1.9982 2s-1.9982-0.89545-1.9982-2c0-0.08559 0.014935-0.16724 0.025375-0.25 0.12409 0.9853 0.95475 1.75 1.9728 1.75s1.8487-0.7647 1.9728-1.75z"/>
  <path opacity=".2" d="m0.006 11.25c-0.00205 0.084-0.00585 0.166-0.00585 0.25 0 5.54 4.46 10 10 10s10-4.46 10-10c0-0.084-0.004-0.1665-0.006-0.25-0.132 5.423-4.538 9.75-9.994 9.75s-9.862-4.327-9.994-9.75z"/>
  <path fill="#ff9f26" d="m17.426 10c-1.339 1.875-5.891 7.164-3.952 10.221 1.5002 2.3654 6.5995 2.3775 8.0823 0 1.9293-3.093-2.9889-8.3461-4.1293-10.221z"/>
 </g>
</svg>
