<svg width="24" height="24" version="1.1" xmlns="http://www.w3.org/2000/svg">
 <g transform="translate(.99975866 .99986288)">
  <circle cx="11.501" cy="11.499" r="7.5" style="fill:#00c923"/>
  <path d="m18.991 11.713a7.5 7.5 0 0 1-7.49 7.287 7.5 7.5 0 0 1-7.49-7.213 7.5 7.5 0 0 0-0.0098 0.213 7.5 7.5 0 0 0 7.5 7.5 7.5 7.5 0 0 0 7.5-7.5 7.5 7.5 0 0 0-0.0098-0.28711z" style="opacity:.2"/>
  <path d="m11.501 3.9992a7.5 7.5 0 0 0-7.5 7.5 7.5 7.5 0 0 0 0.00977 0.28711 7.5 7.5 0 0 1 7.4902-7.2871 7.5 7.5 0 0 1 7.4902 7.2129 7.5 7.5 0 0 0 0.0098-0.21289 7.5 7.5 0 0 0-7.5-7.5z" style="fill:#8b9cbe;opacity:.2"/>
  <path d="m3.7903 5.9992a11.261 3.9368 29.364 0 0-2.5879 0.9532 11.261 3.9368 29.364 0 0 7.8027 8.9396 11.261 3.9368 29.364 0 0 11.799 2.152 11.261 3.9368 29.364 0 0-2.053-4.648c-0.04149 0.15894-0.09111 0.3141-0.14258 0.46875a9.0084 3.3743 29.307 0 1 0.52 2.578 9.0084 3.3743 29.307 0 1-9.5545-1.522 9.0084 3.3743 29.307 0 1-6.1309-7.3417 9.0084 3.3743 29.307 0 1 2.2911-0.8613c0.1156-0.1393 0.238-0.2718 0.3632-0.4023a11.261 3.9368 29.364 0 0-2.3066-0.3165z" style="fill:#005ea1"/>
  <path d="m5.6262 6.7219a9.0084 3.3743 29.307 0 0-2.1836 0.8574 9.0084 3.3743 29.307 0 0-0.1621 0.9903 9.0084 3.3743 29.307 0 1 0.1621-0.4903 9.0084 3.3743 29.307 0 1 2.2911-0.8613c0.1156-0.1393 0.238-0.2718 0.3632-0.4023a11.261 3.9368 29.364 0 0-0.4707-0.0938zm-4.5976 1.2891a11.261 3.9368 29.364 0 0 7.9765 8.381 11.261 3.9368 29.364 0 0 11.799 2.152 11.261 3.9368 29.364 0 0 0.168-1.041 11.261 3.9368 29.364 0 1-0.168 0.541 11.261 3.9368 29.364 0 1-11.799-2.152 11.261 3.9368 29.364 0 1-7.9764-7.881zm17.681 6.021c-0.03238 0.11127-0.06509 0.22244-0.10156 0.33203a9.0084 3.3743 29.307 0 1 0.67383 1.6309 9.0084 3.3743 29.307 0 0-0.57227-1.9629z" style="opacity:.2"/>
  <path d="m3.7903 5.9992a11.261 3.9368 29.364 0 0-2.5879 0.9532 11.261 3.9368 29.364 0 0-0.1738 1.0566 11.261 3.9368 29.364 0 1 0.1738-0.5566 11.261 3.9368 29.364 0 1 2.5879-0.9532 11.261 3.9368 29.364 0 1 1.8359 0.2227 9.0084 3.3743 29.307 0 1 0.1075-0.0039c0.1156-0.1393 0.238-0.2718 0.3632-0.4023a11.261 3.9368 29.364 0 0-2.3066-0.3165zm-0.5098 2.5684a9.0084 3.3743 29.307 0 0 6.293 6.8535 9.0084 3.3743 29.307 0 0 9.5547 1.5215 9.0084 3.3743 29.307 0 0 0.1543-0.94726 9.0084 3.3743 29.307 0 1-0.1543 0.44726 9.0084 3.3743 29.307 0 1-9.5545-1.522 9.0084 3.3743 29.307 0 1-6.293-6.3534zm15.471 4.8281c-0.04149 0.15894-0.09111 0.3141-0.14258 0.46875a9.0084 3.3743 29.307 0 1 0.10156 0.16797c0.01331-0.04574 0.02893-0.09042 0.04102-0.13672a11.261 3.9368 29.364 0 1 2.2207 3.6074 11.261 3.9368 29.364 0 0-2.2207-4.1074z" style="fill:#8b9cbe;opacity:.2"/>
 </g>
</svg>
