<svg xmlns="http://www.w3.org/2000/svg" width="24" height="24" version="1">
 <path opacity=".2" d="M2,12.2c0,0.1,0,0.2,0,0.3c0,5.5,4.5,10,10,10s10-4.5,10-10c0-0.1,0-0.2,0-0.3c-0.1,5.4-4.5,9.7-10,9.7 S2.1,17.7,2,12.2L2,12.2z"/>
 <path fill="#1ed760" d="M22,12L22,12c0-5.5-4.5-10-10-10l0,0C6.5,2,2,6.5,2,12l0,0c0,5.5,4.5,10,10,10l0,0C17.5,22,22,17.5,22,12z"/>
 <path fill="#8b9cbe" opacity=".2" d="M12,2C6.5,2,2,6.5,2,12c0,0.1,0,0.2,0,0.3c0.1-5.4,4.5-9.8,10-9.8s9.9,4.3,10,9.8c0-0.1,0-0.2,0-0.3 C22,6.5,17.5,2,12,2z"/>
 <path style="fill:none;stroke:#000000;stroke-width:2;stroke-linecap:round;opacity:0.2" d="M 6,9.5 C 9,8 15,8 18,10.5"/>
 <path style="fill:none;stroke:#8b9cbe;stroke-width:2;stroke-linecap:round" d="M 6,9 C 9,7.5 15,7.5 18,10"/>
 <path style="fill:none;stroke:#000000;stroke-width:1.5;stroke-linecap:round;opacity:0.2" d="M 6.725,12.75 C 10,11.944 14.449,12.045 17.25,13.75"/>
 <path style="fill:none;stroke:#8b9cbe;stroke-width:1.5;stroke-linecap:round" d="M 6.725,12.25 C 10,11.444 14.449,11.545 17.25,13.25"/>
 <path style="fill:none;stroke:#000000;stroke-width:1.5;stroke-linecap:round;opacity:0.2" d="M 7.75,16.25 C 10,15.5 14,15.211 16.25,16.75"/>
 <path style="fill:none;stroke:#8b9cbe;stroke-width:1.5;stroke-linecap:round" d="M 7.75,15.75 C 10,15 14,14.711 16.25,16.25"/>
</svg>
