<svg xmlns="http://www.w3.org/2000/svg" width="24" height="24" version="1.1">
 <path style="opacity:0.2" d="m 18.37221,7.8267231 1.171796,-1.5699056 c 0.07384,-0.084267 0.05964,-0.214256 -0.03062,-0.2803403 L 18.43066,4.8831501 C 18.35671,4.808049 18.240714,4.7951977 18.152324,4.8523127 L 16.607556,6.0717926 16.050883,5.7073503 16.565806,3.8122502 C 16.591437,3.7115273 16.539077,3.6072518 16.443338,3.5683541 L 15.009904,2.9572123 c -0.102877,-0.035639 -0.216724,0.0022 -0.278336,0.092512 l -0.91016,1.7100758 C 13.612096,4.703604 13.399101,4.6623847 13.184017,4.6364507 L 12.941865,2.6740686 C 12.926473,2.5721501 12.838217,2.4976733 12.735896,2.5002576 h -1.541985 c -0.0997,0.014138 -0.182207,0.085216 -0.211535,0.1822212 l -0.242153,1.9623821 c -0.214319,0.030838 -0.425855,0.092512 -0.637391,0.1233497 L 9.1592714,3.0609382 C 9.0976596,2.9706272 8.9838129,2.9327872 8.8809351,2.9684259 L 7.4335852,3.5683541 C 7.3378458,3.6072517 7.2854854,3.7115273 7.3111171,3.8122502 L 7.8260397,5.7073503 7.269367,6.0717926 5.7357326,4.8831501 C 5.65226,4.8099899 5.524832,4.8228244 5.4573958,4.9111843 l -1.085512,1.101737 c -0.072607,0.075423 -0.08521,0.1908248 -0.030617,0.2803403 L 5.5548142,7.8491503 5.1901928,8.4098309 3.3114217,7.874381 C 3.2122917,7.849461 3.1098213,7.900476 3.0692689,7.9949271 L 2.4624954,9.4611069 c -0.035384,0.1036188 0.00219,0.218285 0.091851,0.2803403 L 4.252199,10.719835 C 4.196404,10.930653 4.15548,11.145181 4.1297311,11.361814 L 2.1813756,11.60571 c -0.1067189,0.01173 -0.185964,0.105053 -0.1809187,0.213059 v 1.555889 c 0.017275,0.09953 0.086395,0.182006 0.1809187,0.215862 l 1.9483555,0.243896 c 0.030617,0.213058 0.091851,0.426117 0.122468,0.639176 L 2.56548,15.446372 c -0.089666,0.06206 -0.1272349,0.176722 -0.091851,0.280341 l 0.6067736,1.466179 c 0.040552,0.09445 0.1430225,0.145464 0.2421527,0.120547 l 1.8676376,-0.515827 0.3646214,0.560681 -1.1829304,1.539068 c -0.07201,0.08484 -0.057982,0.213293 0.030617,0.280341 l 0.8100471,0.832291 0.4411759,0.208351 c 0.086091,0.07121 0.1630987,0.127945 0.2742694,0.13512 l 3.5040479,-0.138503 c 0.8073598,0.271505 1.6538928,0.406031 2.5050288,0.398083 4.37445,0.0016 7.921457,-3.569739 7.921457,-7.975681 0.04035,-1.724129 -0.481764,-3.4140154 -1.486317,-4.8106399 z"/>
 <path style="fill:#297b3b" d="m 18.37221,7.3267473 1.171796,-1.5699056 c 0.07384,-0.084267 0.05964,-0.214256 -0.03062,-0.2803403 L 18.43066,4.3831742 C 18.35671,4.3080731 18.240714,4.2952217 18.152324,4.3523367 L 16.607556,5.5718169 16.050883,5.2073745 16.565806,3.3122742 C 16.591437,3.2115514 16.539077,3.1072758 16.443338,3.0683781 L 15.009904,2.4572363 c -0.102877,-0.035639 -0.216724,0.0022 -0.278336,0.092512 l -0.91016,1.7100758 C 13.612096,4.2036281 13.399101,4.1624087 13.184017,4.1364747 L 12.941865,2.1740926 C 12.926473,2.0721741 12.838217,1.9976973 12.735896,2.0002816 h -1.541985 c -0.0997,0.014138 -0.182207,0.085216 -0.211535,0.1822212 l -0.242153,1.9623821 c -0.214319,0.030837 -0.425855,0.092512 -0.637391,0.1233497 L 9.1592714,2.5609622 C 9.0976596,2.4706512 8.9838129,2.4328113 8.8809351,2.4684499 L 7.4335852,3.0683781 C 7.3378458,3.1072758 7.2854854,3.2115514 7.3111171,3.3122742 L 7.8260397,5.2073745 7.269367,5.5718169 5.7357326,4.3831742 C 5.65226,4.3100139 5.524832,4.3228484 5.4573958,4.4112083 l -1.085512,1.1017372 c -0.072607,0.075423 -0.08521,0.1908248 -0.030617,0.2803403 L 5.5548142,7.3491745 5.1901928,7.9098551 3.3114217,7.3744052 c -0.09913,-0.02492 -0.2016004,0.026095 -0.2421528,0.1205462 L 2.4624954,8.9611311 c -0.035384,0.1036188 0.00219,0.218285 0.091851,0.2803403 L 4.252199,10.219859 C 4.196404,10.430677 4.15548,10.645205 4.1297311,10.861838 l -1.9483555,0.243897 c -0.1067189,0.01173 -0.185964,0.105052 -0.1809187,0.213058 v 1.555889 c 0.017275,0.09953 0.086395,0.182006 0.1809187,0.215862 l 1.9483555,0.243896 c 0.030617,0.213059 0.091851,0.426117 0.122468,0.639176 L 2.56548,14.946397 c -0.089666,0.06206 -0.1272349,0.176721 -0.091851,0.28034 l 0.6067736,1.46618 c 0.040552,0.09445 0.1430225,0.145463 0.2421527,0.120546 l 1.8676376,-0.515826 0.3646214,0.56068 -1.1829304,1.539069 c -0.07201,0.08484 -0.057982,0.213292 0.030617,0.28034 l 0.8100471,0.832291 0.4411759,0.208352 c 0.086091,0.07121 0.1630987,0.127945 0.2742694,0.135119 l 3.5040479,-0.138503 c 0.8073598,0.271505 1.6538928,0.406031 2.5050288,0.398083 4.37445,0.0016 7.921457,-3.569739 7.921457,-7.975681 0.04035,-1.724129 -0.481764,-3.4140152 -1.486317,-4.8106397 z"/>
 <path style="opacity:0.1;fill:#8b9cbe" d="m 11.193483,2.0002347 c -0.0997,0.014138 -0.181607,0.08561 -0.210935,0.1826151 l -0.242185,1.9618916 c -0.214319,0.030838 -0.426152,0.092208 -0.637688,0.1230455 L 9.1593264,2.5607752 C 9.0977146,2.4704642 8.9838874,2.4323642 8.8810096,2.4680028 L 7.4337607,3.0685819 C 7.3380213,3.1074795 7.2850834,3.2119968 7.3107151,3.3127197 l 0.077148,0.2841764 c 0.0142,-0.010808 0.0287,-0.021332 0.045899,-0.02832 l 1.447249,-0.6005792 c 0.1028778,-0.035639 0.216705,0.00246 0.2783168,0.092772 L 10.102677,4.767781 c 0.211536,-0.030837 0.423369,-0.092208 0.637688,-0.1230455 l 0.242183,-1.9618914 c 0.02933,-0.097005 0.11124,-0.1684768 0.210935,-0.1826151 h 1.541975 c 0.102321,-0.00258 0.190661,0.071908 0.206052,0.1738261 l 0.242185,1.9628682 c 0.215084,0.025934 0.428376,0.066849 0.637688,0.1230454 l 0.910146,-1.7099413 c 0.06161,-0.090312 0.175439,-0.128411 0.278316,-0.092772 l 1.433578,0.6113212 c 0.01694,0.00688 0.03089,0.017729 0.04492,0.02832 L 16.565493,3.31272 c 0.02563,-0.1007232 -0.02633,-0.2052405 -0.12207,-0.2441381 L 15.009845,2.4572607 c -0.102877,-0.035639 -0.216705,0.00246 -0.278316,0.092772 L 13.821383,4.2599745 C 13.612071,4.2037781 13.398779,4.162863 13.183695,4.136929 L 12.94151,2.1740608 C 12.926119,2.0721423 12.837779,1.9976504 12.735458,2.0002347 Z m 7.103434,2.3183329 c -0.04929,-0.00546 -0.100334,0.00562 -0.144529,0.034179 L 16.607484,5.5714829 16.166082,5.2824237 16.050849,5.7072233 16.607484,6.0714771 18.152388,4.852741 c 0.08839,-0.057115 0.204366,-0.044828 0.278317,0.030273 l 1.006824,1.01659 0.106445,-0.1425764 c 0.07384,-0.084267 0.05999,-0.214186 -0.03027,-0.2802703 L 18.430703,4.3830199 c -0.03697,-0.037551 -0.08449,-0.058991 -0.133786,-0.064452 z M 5.5910082,4.3361455 c -0.050721,0.00511 -0.1000698,0.031015 -0.1337879,0.075194 L 4.372272,5.51289 C 4.299665,5.588313 4.286429,5.7036443 4.341022,5.7931603 L 4.4503961,5.9337837 5.4572203,4.9113342 C 5.5246565,4.8229743 5.652065,4.809854 5.7355376,4.883014 L 7.2696995,6.0714771 7.8263342,5.7072233 7.711101,5.2824237 7.2696995,5.5714829 5.7355376,4.3830198 C 5.6938016,4.3464399 5.6417287,4.3310369 5.5910082,4.3361455 Z M 3.2375194,7.3693138 c -0.072541,0.00826 -0.1375526,0.055137 -0.1679669,0.125975 L 2.4621376,8.9610926 c -0.03523,0.1031683 0.002,0.217054 0.090819,0.2792938 L 3.0695525,7.9952831 C 3.1101051,7.9008317 3.212607,7.8492713 3.3117373,7.874191 L 5.1906218,8.4103174 5.5548757,7.8488008 5.3781197,7.6222409 5.1906218,7.9103231 3.3117373,7.3741967 c -0.024783,-0.00623 -0.050038,-0.00763 -0.074218,-0.0049 z M 18.546915,7.5919677 18.372112,7.8263401 c 0.931306,1.2947891 1.44221,2.8429899 1.480452,4.4354959 6.5e-4,-0.04172 0.0059,-0.08215 0.0059,-0.124022 0.03786,-1.617639 -0.425201,-3.2024211 -1.311509,-4.5458463 z M 4.1662196,10.670058 c -0.010371,0.06419 -0.028453,0.126794 -0.036132,0.191403 L 2.1808908,11.1056 c -0.1067189,0.01173 -0.1857073,0.104882 -0.180662,0.212888 v 0.499994 c -0.00505,-0.108006 0.073943,-0.201158 0.180662,-0.212888 l 1.9491965,-0.244138 c 0.025749,-0.216633 0.066274,-0.430776 0.1220689,-0.641595 z m 0,3.353477 -1.6005675,0.922841 c -0.089665,0.06205 -0.1271797,0.176651 -0.091796,0.28027 l 0.090819,0.2207 c 3.844e-4,-2.69e-4 5.9e-4,-7e-4 9.75e-4,-10e-4 l 1.6865057,-0.972621 c -0.021549,-0.149956 -0.055403,-0.300235 -0.085936,-0.45019 z m 1.2128766,3.064418 -1.0068242,1.309555 c -0.07201,0.08484 -0.058326,0.213223 0.030273,0.28027 l 0.077148,0.0791 1.075183,-1.398421 z"/>
 <path style="opacity:0.2" d="M 19.585757,6.0409565 C 19.24892,6.6817372 18.819288,7.2684665 18.310975,7.7818696 17.340652,8.791527 16.139357,9.5461779 14.812285,9.9797374 12.88898,10.630126 11.399807,10.470332 9.732571,11.171183 6.7348868,12.485979 6.4621174,16.119189 7.672881,17.89935 l 0.6373908,-0.120546 c 1.5386984,-0.268935 3.2569352,-0.643597 4.7448472,-1.121361 2.535645,-0.967174 4.832785,-3.319229 5.773562,-6.027317 -0.487089,2.839848 -2.783365,5.587182 -5.33571,6.901978 -1.302615,0.66721 -4.1610426,1.950849 -8.2804229,2.477889 1.8278266,1.699456 4.3288689,2.506838 6.8163729,2.489741 8.488109,0.05378 13.094811,-9.979607 7.556836,-16.4587775 z"/>
 <path style="fill:#77bd43" d="M 19.585757,5.5409797 C 19.24892,6.1817604 18.819288,6.7684897 18.310975,7.2818928 17.340652,8.2915502 16.139357,9.0462011 14.812285,9.4797606 12.88898,10.13015 11.399807,9.970356 9.732571,10.671207 6.7348868,11.986003 6.4621174,15.619213 7.672881,17.399374 l 0.6373908,-0.120546 c 1.5386984,-0.268935 3.2569352,-0.643597 4.7448472,-1.121361 2.535645,-0.967174 4.832785,-3.319229 5.773562,-6.027317 -0.487089,2.839848 -2.783365,5.587182 -5.33571,6.901978 -1.302615,0.66721 -4.1610426,1.950849 -8.2804229,2.477889 1.8278266,1.699456 4.3288689,2.506838 6.8163729,2.489741 8.488109,0.05378 13.094811,-9.979607 7.556836,-16.4587783 z"/>
 <path style="fill:#8b9cbe;opacity:0.2" d="M 19.585938 5.5410156 C 19.2491 6.1817963 18.81886 6.7678469 18.310547 7.28125 C 17.340224 8.2909074 16.139572 9.0469092 14.8125 9.4804688 C 12.889195 10.130858 11.399658 9.971024 9.7324219 10.671875 C 7.7275208 11.551232 6.9619312 13.460518 7.0234375 15.166016 C 7.1207039 13.600855 7.9235896 11.965236 9.7324219 11.171875 C 11.399658 10.471024 12.889195 10.630858 14.8125 9.9804688 C 16.139572 9.5469093 17.340224 8.7909074 18.310547 7.78125 C 18.81886 7.2678469 19.2491 6.6817963 19.585938 6.0410156 C 21.231235 7.9659364 21.961763 10.20381 21.980469 12.398438 C 22.079194 10.046081 21.356566 7.6125683 19.585938 5.5410156 z M 18.828125 10.630859 C 18.689257 11.030601 18.512739 11.417911 18.318359 11.798828 C 17.400905 14.002086 15.53703 15.977885 13.492188 17.03125 C 12.189573 17.69846 9.3322709 18.982726 5.2128906 19.509766 C 5.3746245 19.660141 5.54695 19.795188 5.71875 19.931641 C 9.5593186 19.367727 12.245055 18.170041 13.492188 17.53125 C 16.044532 16.216454 18.341036 13.470707 18.828125 10.630859 z"/>
</svg>
