<svg xmlns="http://www.w3.org/2000/svg" width="24" height="24" version="1.1">
 <circle style="opacity:0.2" cx="12" cy="12.5" r="10"/>
 <circle style="fill:#4f4f4f" cx="12" cy="12" r="10"/>
 <path style="opacity:0.1" d="M 8.8671875 3.015625 A 10 10 0 0 0 8.15625 3.2773438 C 8.3406184 4.5150599 8.3791935 4.7247996 8.5371094 5.7480469 L 4.9355469 10.585938 C 3.3973043 10.621498 2.3778258 10.563948 2.1953125 10.548828 A 10 10 0 0 0 2.0820312 11.285156 C 2.2011179 11.295716 3.1737439 11.361771 4.6914062 11.337891 L 5.9003906 16.777344 C 5.1871869 17.378643 4.5841286 17.828767 4.1230469 18.15625 A 10 10 0 0 0 4.609375 18.720703 C 5.0329307 18.415748 5.5591205 18.016435 6.1699219 17.511719 C 6.1982369 17.535549 6.2220014 17.565331 6.2558594 17.582031 L 11.777344 20.302734 C 11.779844 20.303934 11.782656 20.303463 11.785156 20.304688 C 11.783537 21.027639 11.794492 21.537314 11.804688 21.990234 A 10 10 0 0 0 12 22 A 10 10 0 0 0 12.546875 21.980469 C 12.534713 21.51175 12.520563 20.975489 12.525391 20.140625 L 17.732422 17.646484 C 17.814142 17.607384 17.873675 17.542273 17.919922 17.466797 C 17.980662 17.527727 18.051024 17.605281 18.109375 17.662109 C 18.728949 18.265507 19.114731 18.561231 19.367188 18.742188 A 10 10 0 0 0 19.849609 18.177734 C 19.623421 18.01887 19.252887 17.740451 18.626953 17.130859 C 18.479183 16.986947 18.312952 16.804698 18.148438 16.628906 L 19.341797 11.464844 C 20.669881 10.948755 21.631453 10.588337 21.792969 10.529297 A 10 10 0 0 0 21.625 9.796875 C 21.52526 9.83223 20.583442 10.171115 19.154297 10.722656 L 15.761719 6.078125 C 16.526835 4.8155496 17.062088 3.9532921 17.091797 3.90625 A 10 10 0 0 0 16.4375 3.5527344 C 16.38968 3.6284984 15.919604 4.381063 15.216797 5.5390625 C 15.183847 5.5314725 15.153611 5.515829 15.119141 5.515625 L 9.2480469 5.484375 C 9.0778322 4.3827745 9.0594679 4.3085174 8.8671875 3.015625 z M 9.3925781 6.4121094 L 14.683594 6.4414062 C 14.135434 7.3538971 13.560844 8.3137287 12.859375 9.5332031 L 9.953125 10.044922 C 9.9179759 9.8260371 9.6155763 7.8406117 9.3925781 6.4121094 z M 15.25 6.9414062 L 18.253906 11.076172 C 17.279289 11.459713 16.186165 11.898748 14.917969 12.433594 L 13.544922 9.8300781 C 14.197858 8.6963976 14.727398 7.8124081 15.25 6.9414062 z M 8.734375 7.0273438 C 8.9074181 8.1333268 9.1975036 10.041924 9.234375 10.269531 C 8.0626039 10.415611 7.0492474 10.491761 6.1308594 10.541016 L 8.734375 7.0273438 z M 12.939453 10.271484 L 14.345703 12.941406 L 12.269531 15.111328 L 9.5742188 13.789062 L 9.9941406 10.791016 L 12.939453 10.271484 z M 9.2109375 11.019531 L 8.8066406 13.925781 C 8.0867024 14.74694 7.3729257 15.449123 6.6914062 16.068359 L 5.6347656 11.302734 C 6.6681508 11.262784 7.8245995 11.188898 9.2109375 11.019531 z M 18.291016 11.886719 L 17.394531 15.767578 C 16.783105 15.030319 16.114235 14.136167 15.417969 13.039062 C 16.551254 12.565962 17.38793 12.243695 18.291016 11.886719 z M 14.826172 13.513672 C 15.665774 14.831516 16.472716 15.880031 17.183594 16.679688 L 17.130859 16.90625 L 12.544922 19.103516 C 12.566102 18.123915 12.608492 17.013824 12.695312 15.740234 L 14.826172 13.513672 z M 9.3027344 14.480469 L 11.949219 15.78125 C 11.860729 17.105106 11.815919 18.271965 11.796875 19.279297 L 6.9140625 16.871094 C 7.6718936 16.199806 8.4859268 15.405464 9.3027344 14.480469 z"/>
 <path style="opacity:0.1;fill:#8b9cbe" d="M 12,2 A 10,10 0 0 0 2,12 10,10 0 0 0 2.01075,12.291 10,10 0 0 1 12,2.5 10,10 0 0 1 21.9895,12.209 10,10 0 0 0 22,12 10,10 0 0 0 12,2 Z"/>
 <path id="polygon154" style="fill:#afafaf" d="M 8.970997,4.9815725 C 8.8291195,4.9808225 8.69469,5.045 8.606086,5.155811 l -3.8511417,5.170762 c -0.087637,0.109621 -0.1209529,0.253015 -0.090623,0.390044 l 1.3431616,6.049308 c 0.03047,0.137306 0.1215735,0.253383 0.2477055,0.315612 l 5.5215166,2.720883 c 0.127688,0.06286 0.277162,0.06366 0.40551,0.0021 l 5.54979,-2.657326 c 0.127306,-0.06091 0.219977,-0.176433 0.251812,-0.31392 l 1.39488,-6.032126 c 0.03164,-0.136674 -2.56e-4,-0.280323 -0.08676,-0.390768 L 15.480915,5.193752 C 15.393559,5.082089 15.25995,5.0164865 15.118179,5.015647 Z m 0.2196715,0.929195 5.6979305,0.03166 3.536012,4.8655405 -1.294589,5.598607 -5.145246,2.463754 -5.1198725,-2.52272 -1.246498,-5.615282 z"/>
 <path id="polygon156" style="fill:#afafaf" d="m 13.135575,8.9880015 a 0.37123149,0.37123149 0 0 0 -0.05896,0.00556 L 9.598595,9.607625 A 0.37123149,0.37123149 0 0 0 9.2953085,9.9217865 L 8.802074,13.451759 a 0.37123149,0.37123149 0 0 0 0.203964,0.384485 l 3.179559,1.561143 a 0.37123149,0.37123149 0 0 0 0.431611,-0.07637 l 2.450705,-2.560179 a 0.37123149,0.37123149 0 0 0 0.06017,-0.429676 L 13.469554,9.1859235 a 0.37123149,0.37123149 0 0 0 -0.333979,-0.197922 z m -0.196472,0.7837125 1.407445,2.669168 -2.077818,2.170375 -2.694301,-1.322863 0.4188015,-2.996621 z"/>
 <path style="fill:#afafaf" d="M 8.8671875,2.5166015 A 10,10 0 0 0 8.1552735,2.7783203 C 8.6770465,6.281127 9.155834,9.27867 9.2353515,9.769531 5.192698,10.273514 2.513664,10.074303 2.194336,10.047852 a 10,10 0 0 0 -0.1113282,0.737304 c 0.2209196,0.01958 3.2054337,0.267435 7.6289062,-0.323242 l -0.04883,-0.368164 0.366211,-0.05957 c 0,0 -0.576421,-3.579413 -1.1621095,-7.5175784 z M 16.438476,3.0527344 C 16.345748,3.1996583 14.72322,5.7724145 12.727539,9.254883 l 0.643555,0.3691405 c 2.011284,-3.509698 3.665615,-6.129569 3.720703,-6.216797 A 10,10 0 0 0 16.438476,3.0527344 Z m 5.1875,6.2441406 c -0.182298,0.064622 -3.018557,1.072415 -6.924804,2.727539 l -0.396484,0.167969 0.224609,0.368164 c 1.339365,2.193568 2.624862,3.670334 3.581054,4.601562 0.883575,0.860507 1.447933,1.225535 1.53711,1.282227 a 10,10 0 0 0 0.448242,-0.590821 c -0.0087,-0.0053 -0.561498,-0.341018 -1.467774,-1.223632 -0.851291,-0.829066 -2.001266,-2.18531 -3.20996,-4.089844 3.448587,-1.439646 6.081959,-2.404601 6.375,-2.511718 A 10,10 0 0 0 21.625976,9.296875 Z M 8.991211,13.227539 c -1.9974635,2.331233 -4.1004727,3.909158 -5.1025391,4.600586 a 10,10 0 0 0 0.4541015,0.58789 C 5.3938515,17.687598 7.526144,16.077467 9.5546875,13.709961 Z m 2.981445,1.631836 c -0.257186,3.531213 -0.198798,6.168637 -0.163085,7.130859 A 10,10 0 0 0 12,22 10,10 0 0 0 12.552735,21.98047 c -0.03468,-0.911015 -0.09706,-3.522426 0.161132,-7.067383 z"/>
 <path style="opacity:0.1" d="m 9.4824219,9.499803 c -1.2865193,0.030043 -2.2314375,0.96957 -2.9492188,1.779298 -0.7177813,0.809727 -1.1972656,1.607422 -1.1972656,1.607422 l 1.2832031,0.77539 c 0,0 0.4232678,-0.694246 1.0371094,-1.386718 0.6138416,-0.692473 1.4309429,-1.26534 1.8613281,-1.275391 0.304931,-0.0071 0.5579769,0.103401 0.8789059,0.363281 0.32093,0.259881 0.665992,0.663844 1.03125,1.105469 0.365259,0.441625 0.751355,0.920336 1.236328,1.318359 0.484974,0.398024 1.112268,0.722221 1.845704,0.712891 0.66767,-0.0085 1.243982,-0.276849 1.753906,-0.595703 0.336535,0.134194 0.698816,0.103655 0.976562,0.01758 0.38996,-0.120854 0.733757,-0.347475 1.042969,-0.65625 0.312667,-0.309178 0.542388,-0.654979 0.664063,-1.048828 0.121944,-0.394718 0.141841,-0.957979 -0.271485,-1.371094 -0.208777,-0.208557 -0.452746,-0.306222 -0.693359,-0.335937 -0.240613,-0.02972 -0.478441,0.0079 -0.673828,0.06836 -0.390509,0.120963 -0.735276,0.348632 -1.044922,0.658203 -0.311618,0.308816 -0.540712,0.653802 -0.66211,1.046875 -0.02419,0.07833 -0.03918,0.166698 -0.05273,0.255859 -0.437199,0.25381 -0.873227,0.45858 -1.058594,0.460938 -0.2997,0.0038 -0.554108,-0.109688 -0.875,-0.373047 -0.320891,-0.263359 -0.66507,-0.670543 -1.03125,-1.113281 -0.366183,-0.442741 -0.753267,-0.920491 -1.242191,-1.31641 C 10.852873,9.8011503 10.218604,9.4826131 9.4824219,9.499803 Z"/>
 <path style="fill:none;stroke:#e53a3f;stroke-width:1.5;stroke-linejoin:round" d="m 5.978302,12.774311 c 0,0 1.8047935,-2.9843524 3.521698,-3.0244464 2.082226,-0.04862 2.933728,3.5262844 5,3.4999994 1.211482,-0.01541 3,-1.749864 3,-1.749864"/>
 <path style="fill:#e53a3f" d="m 17.982002,10.01038 c -0.240613,-0.029716 -0.477515,0.0079 -0.672902,0.06838 -0.390509,0.120963 -0.734887,0.347474 -1.044533,0.657045 -1.34e-4,1.33e-4 -8.5e-4,-1.32e-4 -0.001,0 -0.311618,0.308816 -0.540602,0.653443 -0.662,1.046516 -0.121883,0.394641 -0.141538,0.958493 0.271539,1.37157 0.417242,0.417023 0.97678,0.388696 1.367605,0.267575 0.38996,-0.120854 0.73334,-0.34728 1.042552,-0.656055 0.312667,-0.309178 0.542307,-0.654648 0.663982,-1.048497 0.121944,-0.394718 0.141787,-0.958455 -0.271539,-1.37157 -0.208777,-0.208557 -0.4531,-0.305249 -0.693713,-0.334964 z"/>
</svg>
