<svg xmlns="http://www.w3.org/2000/svg" width="24" height="24" version="1.1">
 <rect style="fill:#4f4f4f" width="20" height="20" x="2" y="2" rx="1" ry="1"/>
 <path style="opacity:0.1;fill:#8b9cbe" d="m 3,1.9999998 c -0.554,0 -1,0.446 -1,1 v 0.5 c 0,-0.554 0.446,-1 1,-1 h 18 c 0.554,0 1,0.446 1,1 v -0.5 c 0,-0.554 -0.446,-1 -1,-1 z"/>
 <path style="opacity:0.2" d="m 3,22.5 c -0.554,0 -1,-0.446 -1,-1 V 21 c 0,0.554 0.446,1 1,1 h 18 c 0.554,0 1,-0.446 1,-1 v 0.5 c 0,0.554 -0.446,1 -1,1 z"/>
 <path style="opacity:0.2" d="m 12.268555,6.5009765 c -0.05213,0.0017 -0.106005,0.00692 -0.164063,0.01465 -0.652974,0.086972 -0.832206,0.2449585 -1.231445,1.083008 C 10.603762,8.1638915 10.469046,8.303329 10.122071,8.377931 8.5,7.1962755 8.5,9 8.180664,9.5 7.7429415,9.1159445 6.7748184,8.497096 6.2126889,8.0328215 5.7101114,7.617732 5.2125984,7.366243 4.8181159,7.6282225 4.5055153,7.84742 4.2399216,8.3177205 4.1433111,9.396777 c -0.131985,1.474153 0.00138,2.022032 0.9375003,3.242873 1.05856,1.380517 3.0353651,2.76153 5.5324696,4.495117 1.0816,0.750887 1.988004,1.365233 2.014649,1.365233 0.149771,0 -1.4476,-2.074965 -2.415039,-3.136719 C 8.7670445,13.776483 8.500245,13.282928 8.469,12.570313 8.4407835,11.926486 8.7164135,11.5 9.0859375,11.5 c 0.1342735,0 0.7419925,0.385419 1.4121095,1.145508 0.558445,0.603445 1.068722,1.240176 1.514649,1.861328 0.944309,1.179113 2.039417,1.329499 2.446289,0.335938 0.394138,-0.966783 -0.0062,-2.664578 -0.907227,-3.847657 -0.10137,-0.432673 0.09025,-0.498501 0.533203,-0.498046 0.560278,5.5e-4 2.124015,0.59275 2.763356,1.146484 0.790081,0.68429 0.923221,0.822049 1.802734,2.566406 0.519168,1.029676 1.034099,1.990021 1.144531,2.133789 0.196669,0.256047 0.200802,0.254631 0.204102,-0.06543 C 19.833722,13.613163 18.908713,10.935608 16.908863,9.1152345 16.570578,8.819537 15.078245,8.0982435 14.203125,7.5126955 12.928098,6.6595635 12.633445,6.488929 12.268555,6.5009765 Z"/>
 <path style="fill:#8e8e8e" d="m 12.268555,6.0009765 c -0.05213,0.0017 -0.106005,0.00692 -0.164063,0.01465 -0.652974,0.086972 -0.832206,0.2449585 -1.231445,1.083008 C 10.603762,7.6638915 10.469046,7.803329 10.122071,7.877931 8.5,6.6962755 8.5,8.5 8.180664,9 7.7429415,8.6159445 6.7748184,7.997096 6.2126889,7.5328215 5.7101114,7.117732 5.2125984,6.866243 4.8181159,7.1282225 4.5055153,7.34742 4.2399216,7.8177205 4.1433111,8.896777 c -0.131985,1.474153 0.00138,2.022032 0.9375003,3.242873 1.05856,1.380517 3.0353651,2.76153 5.5324696,4.495117 C 11.694881,17.385654 12.601285,18 12.62793,18 12.777701,18 11.18033,15.925035 10.212891,14.863281 8.7670445,13.276483 8.500245,12.782928 8.469,12.070313 8.4407835,11.426486 8.7164135,11 9.0859375,11 c 0.1342735,0 0.7419925,0.385419 1.4121095,1.145508 0.558445,0.603445 1.068722,1.240176 1.514649,1.861328 0.944309,1.179113 2.039417,1.329499 2.446289,0.335938 0.394138,-0.966783 -0.0062,-2.664578 -0.907227,-3.847657 -0.10137,-0.432673 0.09025,-0.4985015 0.533203,-0.4980465 0.560278,5.5e-4 2.124015,0.5927505 2.763356,1.1464845 0.790081,0.68429 0.923221,0.822049 1.802734,2.566406 0.519168,1.029676 1.034099,1.990021 1.144531,2.133789 0.196669,0.256047 0.200802,0.254631 0.204102,-0.06543 C 19.833722,13.113163 18.908713,10.435608 16.908863,8.6152345 16.570578,8.319537 15.078245,7.5982435 14.203125,7.0126955 12.928098,6.1595635 12.633445,5.988929 12.268555,6.0009765 Z"/>
 <ellipse style="opacity:0.2" cx="2.312" cy="19.396" rx="1.045" ry="1.469" transform="matrix(0.37859229,-0.92556354,0.62510084,0.780544,0,0)"/>
 <ellipse style="fill:#00ffff" cx="2.669" cy="19.18" rx="1.045" ry="1.469" transform="matrix(0.37859229,-0.92556354,0.62510084,0.780544,0,0)"/>
 <path style="fill:#8b9cbe;opacity:0.1" d="M 12.269531 6 C 12.217401 6.0017 12.161574 6.007895 12.103516 6.015625 C 11.450542 6.102597 11.272286 6.2615599 10.873047 7.0996094 C 10.603762 7.6648664 10.470022 7.8043042 10.123047 7.8789062 C 8.5009759 6.6972507 8.4990235 8.5 8.1796875 9 C 7.741965 8.6159445 6.7750201 7.9974776 6.2128906 7.5332031 C 5.7103131 7.1181136 5.2128419 6.8669268 4.8183594 7.1289062 C 4.5057588 7.3481037 4.2391886 7.8174279 4.1425781 8.8964844 C 4.1045832 9.3208532 4.0983824 9.6597516 4.1171875 9.96875 C 4.1232623 9.784426 4.1228464 9.6168695 4.1425781 9.3964844 C 4.2391886 8.3174279 4.5057588 7.8481037 4.8183594 7.6289062 C 5.2128419 7.3669268 5.7103131 7.6181136 6.2128906 8.0332031 C 6.7750201 8.4974776 7.741965 9.1159445 8.1796875 9.5 C 8.4990235 9 8.5009759 7.1972507 10.123047 8.3789062 C 10.470022 8.3043042 10.603762 8.1648664 10.873047 7.5996094 C 11.272286 6.7615599 11.450542 6.602597 12.103516 6.515625 C 12.161574 6.507895 12.217401 6.5017 12.269531 6.5 C 12.634421 6.4879525 12.928098 6.6605399 14.203125 7.5136719 C 15.078245 8.0992199 16.569918 8.8195369 16.908203 9.1152344 C 18.840533 10.874147 19.762425 13.432788 19.972656 16.007812 C 19.993315 15.989711 19.998479 15.924897 20 15.777344 C 19.834038 13.112187 18.908053 10.435608 16.908203 8.6152344 C 16.569918 8.3195369 15.078245 7.5992199 14.203125 7.0136719 C 12.928098 6.1605399 12.634421 5.9879525 12.269531 6 z M 13.613281 10.583984 C 13.522678 10.654469 13.502049 10.777804 13.552734 10.994141 C 14.158218 11.789161 14.527661 12.813449 14.591797 13.695312 C 14.665549 12.755004 14.297342 11.525886 13.613281 10.583984 z M 8.4941406 12.230469 C 8.478401 12.337178 8.4632952 12.445847 8.46875 12.570312 C 8.499995 13.282927 8.7670441 13.776483 10.212891 15.363281 C 10.77506 15.980256 11.515943 16.904325 12.037109 17.599609 C 12.178686 17.693372 12.621086 18 12.628906 18 C 12.778677 18 11.18033 15.925035 10.212891 14.863281 C 8.8797228 13.400147 8.5620879 12.863414 8.4941406 12.230469 z"/>
</svg>
