<svg xmlns="http://www.w3.org/2000/svg" width="24" height="24" version="1.1">
 <rect style="opacity:0.2" width="20" height="20" x="2" y="2.5" rx="1" ry="1"/>
 <rect style="fill:#7ec242" width="20" height="20" x="2" y="2" rx="1" ry="1"/>
 <path style="opacity:0.2" d="M 8.6452,7.579 V 14.839 C 8.6452,15.979 9.566,16.913 10.71,16.913 H 15.355 C 16.499,16.913 17.419,15.979 17.419,14.839 V 10.95 C 17.419,9.9642 16.611,9.1345 15.613,9.1345 15.106,9.1345 14.651,9.342 14.323,9.7049 13.994,9.342 13.539,9.1345 13.032,9.1345 12.035,9.1345 11.226,9.9642 11.226,10.95 V 14.061 H 12.258 V 10.95 C 12.258,10.535 12.605,10.172 13.032,10.172 13.46,10.172 13.807,10.535 13.807,10.95 V 14.061 H 14.839 V 10.95 C 14.839,10.535 15.186,10.172 15.613,10.172 16.04,10.172 16.387,10.535 16.387,10.95 V 14.839 C 16.387,15.409 15.927,15.876 15.355,15.876 H 10.71 C 10.138,15.876 9.6775,15.409 9.6775,14.839 V 7.579 Z"/>
 <path style="fill:#8b9cbe" d="M 8.6452,7.079 V 14.339 C 8.6452,15.479 9.566,16.413 10.71,16.413 H 15.355 C 16.499,16.413 17.419,15.479 17.419,14.339 V 10.45 C 17.419,9.4642 16.611,8.6345 15.613,8.6345 15.106,8.6345 14.651,8.842 14.323,9.2049 13.994,8.842 13.539,8.6345 13.032,8.6345 12.035,8.6345 11.226,9.4642 11.226,10.45 V 13.561 H 12.258 V 10.45 C 12.258,10.035 12.605,9.6716 13.032,9.6716 13.46,9.6716 13.807,10.035 13.807,10.45 V 13.561 H 14.839 V 10.45 C 14.839,10.035 15.186,9.6716 15.613,9.6716 16.04,9.6716 16.387,10.035 16.387,10.45 V 14.339 C 16.387,14.909 15.927,15.376 15.355,15.376 H 10.71 C 10.138,15.376 9.6775,14.909 9.6775,14.339 V 7.079 Z"/>
 <path style="opacity:0.2" d="M 4,5.5 V 9.5 H 6 V 14.369 C 6,17.212 8.3469,19.5 11.177,19.5 H 20 V 10.642 C 20,7.7979 17.718,5.5 14.887,5.5 Z M 5,6.5 H 14.887 C 17.163,6.5 19,8.3548 19,10.642 V 18.5 H 11.177 C 8.9012,18.5 7,16.655 7,14.369 V 9.5 C 7,8.9571 6.5404,8.5 6,8.5 H 5 Z"/>
 <path style="fill:#8b9cbe" d="M 4,5 V 9 H 6 V 13.869 C 6,16.712 8.3469,19 11.177,19 H 20 V 10.142 C 20,7.2979 17.718,5 14.887,5 Z M 5,6 H 14.887 C 17.163,6 19,7.8548 19,10.142 V 18 H 11.177 C 8.9012,18 7,16.155 7,13.869 V 9 C 7,8.4571 6.5404,8 6,8 H 5 Z"/>
 <path style="fill:#8b9cbe;opacity:0.2" d="M 3 2 C 2.446 2 2 2.446 2 3 L 2 3.5 C 2 2.946 2.446 2.5 3 2.5 L 21 2.5 C 21.554 2.5 22 2.946 22 3.5 L 22 3 C 22 2.446 21.554 2 21 2 L 3 2 z"/>
</svg>
