<svg xmlns="http://www.w3.org/2000/svg" width="24" height="24" version="1.1">
 <rect style="opacity:0.2" width="19" height="19" x="3" y="2.5" rx=".95" ry=".95"/>
 <rect style="fill:#17191e" width="19" height="19" x="3" y="2" rx=".95" ry=".95"/>
 <path style="opacity:0.2" d="M 8.5,4.5 A 1.5,1.5 0 0 0 7,6 1.5,1.5 0 0 0 8,7.4121094 V 8.5 11.355469 11.5 17.582031 L 12.5,20.5 17,17.582031 V 11.5 8.5 7.4121094 A 1.5,1.5 0 0 0 18,6 1.5,1.5 0 0 0 16.5,4.5 1.5,1.5 0 0 0 15,6 1.5,1.5 0 0 0 16,7.4121094 V 8.5 H 13 V 7.4121094 A 1.5,1.5 0 0 0 14,6 1.5,1.5 0 0 0 12.5,4.5 1.5,1.5 0 0 0 11,6 1.5,1.5 0 0 0 12,7.4121094 V 8.5 H 9 V 7.4121094 A 1.5,1.5 0 0 0 10,6 1.5,1.5 0 0 0 8.5,4.5 Z"/>
 <rect style="fill:#fae71d" width="1" height="4.5" x="8" y="6.36"/>
 <rect style="fill:#fae71d" width="1" height="4.5" x="12" y="6.36"/>
 <rect style="fill:#fae71d" width="1" height="4.5" x="16" y="6.36"/>
 <circle style="fill:#fae71d" cx="12.5" cy="5.5" r="1.5"/>
 <circle style="fill:#fae71d" cx="8.5" cy="5.5" r="1.5"/>
 <circle style="fill:#fae71d" cx="16.5" cy="5.5" r="1.5"/>
 <path style="fill:#8b9cbe" d="m 8,9.856264 h 9 v 7.225211 L 12.5,20 8,17.081475 Z"/>
 <rect style="opacity:0.675" width="1" height="3" x="10" y="13"/>
 <rect style="opacity:0.675" width="1" height="3" x="14" y="13"/>
 <rect style="fill:#fae71d" width="9" height="3" x="8" y="8"/>
 <path style="fill:#8b9cbe;opacity:0.1" d="M 3.9492188 2 C 3.4229188 2 3 2.4229188 3 2.9492188 L 3 3.4492188 C 3 2.9229188 3.4229188 2.5 3.9492188 2.5 L 21.050781 2.5 C 21.577081 2.5 22 2.9229188 22 3.4492188 L 22 2.9492188 C 22 2.4229188 21.577081 2 21.050781 2 L 3.9492188 2 z"/>
 <path style="opacity:0.2" d="M 12.5,20 17,17.082031 V 11 8 6.9121094 C 17.598592,6.7004758 17.999109,6.1349021 18,5.5 18,4.6715729 17.328427,4 16.5,4 15.671573,4 15,4.6715729 15,5.5 c 8.91e-4,0.6349021 0.401408,1.2004758 1,1.4121094 V 8 H 13 V 6.9121094 C 13.598592,6.7004758 13.999109,6.1349021 14,5.5 14,4.6715729 13.328427,4 12.5,4 Z"/>
</svg>
