<svg xmlns="http://www.w3.org/2000/svg" width="24" height="24" version="1.1">
 <circle style="opacity:0.2" cx="12" cy="12.5" r="10"/>
 <circle style="fill:#17191e" cx="12" cy="12" r="10"/>
 <path style="opacity:0.1;fill:#8b9cbe" d="M 12,2 A 10,10 0 0 0 2,12 10,10 0 0 0 2.01075,12.291 10,10 0 0 1 12,2.5 10,10 0 0 1 21.9895,12.209 10,10 0 0 0 22,12 10,10 0 0 0 12,2 Z"/>
 <path style="opacity:0.2" d="M 6.5878905,4.0908203 A 10,10 0 0 0 5.7910155,4.6621094 L 7.941406,11.124024 2.2832031,14.814453 a 10,10 0 0 0 0.1826172,0.666993 l 6.9375002,0.03321 1.9511715,6.953125 A 10,10 0 0 0 12,22.5 10,10 0 0 0 12.484375,22.482422 L 14.552735,15.5 H 16 21.537109 a 10,10 0 0 0 0.208008,-0.796875 l -5.617188,-3.65039 2.220704,-6.2724616 A 10,10 0 0 0 17.501953,4.1582031 L 12.086914,8.1035155 Z M 7.2216795,5.7910155 11.238281,8.722656 8.7910155,10.50586 Z M 16.918945,5.8203105 15.28418,10.437498 12.935547,8.722654 Z M 12.085938,9.341795 14.935547,11.420897 13.845703,14.5 h -0.02149 -3.704102 L 9.1220705,11.500977 Z M 15.779297,12.03711 19.754883,14.5 H 16 14.907227 Z M 8.2734375,12.120117 9.0654295,14.5 H 8 v 0.0068 L 4.46875,14.491211 Z M 10.453125,15.5 h 3.016602 l -1.555664,5.485351 -0.04395,-0.126953 z"/>
 <path style="fill:#f14c21" d="M 6.5878905,3.5908203 A 10,10 0 0 0 5.7910155,4.1621094 L 7.941406,10.624024 2.2832031,14.314453 a 10,10 0 0 0 0.1826172,0.666993 l 6.9375002,0.03321 1.9511715,6.953125 A 10,10 0 0 0 12,22 10,10 0 0 0 12.484375,21.982422 L 14.552735,15 H 16 21.537109 a 10,10 0 0 0 0.208008,-0.796875 l -5.617188,-3.65039 2.220704,-6.2724616 A 10,10 0 0 0 17.501953,3.6582031 L 12.086914,7.6035155 Z M 7.2216795,5.2910155 11.238281,8.222656 8.7910155,10.00586 Z M 16.918945,5.3203105 15.28418,9.937498 12.935547,8.222654 Z M 12.085938,8.841795 14.935547,10.920897 13.845703,14 h -0.02149 -3.704102 L 9.1220705,11.000977 Z M 15.779297,11.53711 19.754883,14 H 16 14.907227 Z M 8.2734375,11.620117 9.0654295,14 H 8 v 0.0068 L 4.46875,13.991211 Z M 10.453125,15 h 3.016602 l -1.555664,5.485351 -0.04395,-0.126953 z"/>
 <path style="opacity:0.2;fill:#8b9cbe" d="M 6.5878905,3.5908203 A 10,10 0 0 0 5.7910155,4.1621094 L 5.925781,4.5654297 A 10,10 0 0 1 6.5878905,4.0908203 l 5.4990235,4.0126952 5.415039,-3.9453124 a 10,10 0 0 1 0.706055,0.5185547 l 0.140625,-0.3964844 a 10,10 0 0 0 -0.84668,-0.6220703 l -5.415039,3.9453124 z m 0.633789,2.2001952 1.569336,4.7148445 2.4472655,-1.783204 -0.342773,-0.25 L 8.7910155,10.00586 7.441406,5.951172 Z m 9.6972655,0.029295 -0.238281,0.173828 -1.396484,3.9433595 -2.005859,-1.464844 -0.342774,0.25 2.348633,1.714844 z m -0.647461,4.8261725 -0.143555,0.40625 5.50586,3.578125 a 10,10 0 0 0 0.111328,-0.427733 z m -8.4667965,0.06641 -5.5214844,3.601562 a 10,10 0 0 0 0.116211,0.423828 L 7.941406,11.124024 Z M 14.794922,11.31836 13.845703,14 h -0.02149 -3.704102 L 9.2558595,11.403321 9.1220705,11.500977 10.120117,14.5 h 3.704102 0.02149 l 1.089844,-3.079101 z M 5.265625,13.995117 4.46875,14.491211 8,14.506836 V 14.5 H 9.0654295 L 8.899414,14 H 8 v 0.0068 z M 15.083985,14 14.907227,14.5 H 16 19.754883 L 18.948242,14 H 16 Z m -4.63086,1.5 1.416992,5.358398 0.04394,0.126953 L 13.469727,15.5 H 13.328125 L 11.914063,20.485351 11.870117,20.358398 10.584961,15.5 Z"/>
</svg>
