<svg width="24" height="24" version="1.1" xmlns="http://www.w3.org/2000/svg">
 <g transform="translate(1,1)">
  <path d="m11 1c-5.5115 0-10 4.489-10 10 0 5.512 4.489 10 10 10s10-4.488 10-10c0-5.511-4.488-10-10-10z" style="fill:#172f52"/>
  <path d="m11 3.5a8 8 0 0 0-8 8 8 8 0 0 0 8 8 8 8 0 0 0 8-8 8 8 0 0 0-8-8zm-3.209 2.3554h3.0654l3.5196 8.951 1.5478-0.5039 0.5156 1.7334-3.338 0.964-2.245-5.6915-3.292 5.1875h-2.0644l4.5976-7.425-0.5156-1.4668h-1.791v-1.749z" style="opacity:.2"/>
  <path d="m11 3a8 8 0 0 0-8 8 8 8 0 0 0 8 8 8 8 0 0 0 8-8 8 8 0 0 0-8-8zm-3.209 2.3554h3.0654l3.5196 8.951 1.5478-0.5039 0.5156 1.7334-3.338 0.964-2.245-5.6915-3.292 5.1875h-2.0644l4.5976-7.425-0.5156-1.4668h-1.791v-1.749z" style="fill:#6fa2cd"/>
  <path d="M 11,1 C 5.4885,1 1,5.489 1,11 1,11.084 1.0038,11.166 1.0058,11.25 1.1395,5.854 5.5725,1.5 11,1.5 c 5.4274,0 9.8605,4.354 9.994,9.75 C 20.996,11.1665 21,11.084 21,11 21,5.489 16.5115,1 11,1 Z" style="fill:#8b9cbe;opacity:.1"/>
  <path d="m1.0058 11.25c-2e-3 0.084-0.0058 0.166-0.0058 0.25 0 5.512 4.489 10 10 10s10-4.4885 10-10c0-0.084-4e-3 -0.1665-6e-3 -0.25-0.134 5.396-4.566 9.75-9.994 9.75-5.4275 0-9.8605-4.354-9.994-9.75z" style="opacity:.2"/>
  <circle cx="16.5" cy="16.5" r="5.5" style="fill:#4253cd"/>
  <path d="m16.5 14s-0.354375-7e-3 -0.723635 0.17775c-0.369255 0.1846-0.776365 0.655601-0.776365 1.32225h1c0-0.5 0.5-0.5 0.5-0.5s0.5 0 0.5 0.5c0 0.2639-0.0698 0.41145-0.203125 0.578099-0.133325 0.166701-0.34668 0.334-0.59668 0.5215s-0.536645 0.395201-0.77832 0.6973c-0.241675 0.302051-0.421875 0.717001-0.421875 1.203101v0.5h3v-1h-1.82422c0.01565-0.022 0.0094-0.0556 0.02735-0.0781 0.133325-0.1667 0.34668-0.334 0.59668-0.5215s0.536645-0.3952 0.77832-0.6973c0.241675-0.30205 0.421875-0.717 0.421875-1.2031 0-0.666649-0.40711-1.13765-0.776365-1.32225-0.369265-0.18465-0.72364-0.17775-0.72364-0.17775z" style="fill-rule:evenodd;fill:#8b9cbe"/>
 </g>
</svg>
