<svg xmlns="http://www.w3.org/2000/svg" width="24" height="24" version="1.1">
 <circle style="opacity:0.2" cx="12" cy="12.5" r="10"/>
 <circle style="fill:#4f4f4f" cx="12" cy="12" r="10"/>
 <circle style="opacity:0.2" cx="12" cy="12.5" r="7"/>
 <path style="opacity:0.1;fill:#8b9cbe" d="M 12,2 A 10,10 0 0 0 2,12 10,10 0 0 0 2.01075,12.291 10,10 0 0 1 12,2.5 10,10 0 0 1 21.9895,12.209 10,10 0 0 0 22,12 10,10 0 0 0 12,2 Z"/>
 <path style="fill:#afafb1" d="m 12,5 a 7,7 0 0 0 -7,7 7,7 0 0 0 7,7 7,7 0 0 0 7,-7 7,7 0 0 0 -7,-7 z m 0,1 a 6,6 0 0 1 1.851563,0.2958985 L 13,8 12,10 11,8 10.150391,6.2998045 A 6,6 0 0 1 12,6 Z M 9.2753905,6.654297 9.878906,8.464844 10.585938,10.585938 8.464844,9.878906 6.660156,9.277344 A 6,6 0 0 1 7.819336,7.696289 6,6 0 0 1 9.2753905,6.654297 Z m 5.4472655,0.00586 a 6,6 0 0 1 1.581055,1.15918 6,6 0 0 1 1.041992,1.4560545 L 15.535156,9.878907 13.414063,10.585938 14.121094,8.464845 14.722656,6.660157 Z M 6.2958985,10.148438 8,11 10,12 8,13 6.2998045,13.84961 A 6,6 0 0 1 6,12 6,6 0 0 1 6.2958985,10.148438 Z m 11.4042965,0.0019 A 6,6 0 0 1 18,12 6,6 0 0 1 17.704101,13.851563 L 16,13 14,12 16,11 17.700195,10.150391 Z M 12,10.5 A 0.5,0.5 0 0 1 12.5,11 0.5,0.5 0 0 1 12,11.5 0.5,0.5 0 0 1 11.5,11 0.5,0.5 0 0 1 12,10.5 Z m -1,1 A 0.5,0.5 0 0 1 11.5,12 0.5,0.5 0 0 1 11,12.5 0.5,0.5 0 0 1 10.5,12 0.5,0.5 0 0 1 11,11.5 Z m 2,0 A 0.5,0.5 0 0 1 13.5,12 0.5,0.5 0 0 1 13,12.5 0.5,0.5 0 0 1 12.5,12 0.5,0.5 0 0 1 13,11.5 Z m -1,1 A 0.5,0.5 0 0 1 12.5,13 0.5,0.5 0 0 1 12,13.5 0.5,0.5 0 0 1 11.5,13 0.5,0.5 0 0 1 12,12.5 Z m -1.414062,0.914063 -0.707032,2.121093 -0.601562,1.804688 A 6,6 0 0 1 7.696289,16.180664 6,6 0 0 1 6.654297,14.72461 l 1.810547,-0.603516 2.121094,-0.707031 z m 2.828125,0 2.121093,0.707031 1.804688,0.601562 a 6,6 0 0 1 -1.15918,1.581055 6,6 0 0 1 -1.456054,1.041992 L 14.121094,15.535156 13.414063,13.414063 Z M 12,14 l 1,2 0.84961,1.700195 A 6,6 0 0 1 12,18 6,6 0 0 1 10.148438,17.704101 L 11,16 12,14 Z"/>
 <path style="opacity:0.2;fill-rule:evenodd" d="M 13.631836,6.236328 13,7.5 l -1,2 -1,-2 -0.630859,-1.261719 a 6,6 0 0 0 -0.21875,0.061523 L 11,8 l 1,2 1,-2 0.851563,-1.7041015 a 6,6 0 0 0 -0.219727,-0.05957 z m 3.472656,2.619141 -1.569336,0.523437 -1.933593,0.644531 -0.1875,0.5625 2.121093,-0.707031 1.810547,-0.6035155 A 6,6 0 0 0 17.104492,8.855469 Z M 6.902344,8.858419 A 6,6 0 0 0 6.660156,9.2773645 l 1.804688,0.601562 2.121094,0.7070315 -0.1875,-0.5625 L 8.464844,9.3789265 6.902344,8.858419 Z M 11.567383,10.75 A 0.5,0.5 0 0 0 11.5,11 0.5,0.5 0 0 0 12,11.5 0.5,0.5 0 0 0 12.5,11 0.5,0.5 0 0 0 12.432617,10.75 0.5,0.5 0 0 1 12,11 0.5,0.5 0 0 1 11.567383,10.75 Z M 6.0126955,11.736328 A 6,6 0 0 0 6,12 6,6 0 0 0 6.2998045,13.84961 L 8,13 10,12 9.5,11.75 8,12.5 6.2998045,13.34961 A 6,6 0 0 1 6.0126955,11.736328 Z M 10.567383,11.75 A 0.5,0.5 0 0 0 10.5,12 0.5,0.5 0 0 0 11,12.5 0.5,0.5 0 0 0 11.5,12 0.5,0.5 0 0 0 11.432617,11.75 0.5,0.5 0 0 1 11,12 0.5,0.5 0 0 1 10.567383,11.75 Z m 2,0 A 0.5,0.5 0 0 0 12.5,12 0.5,0.5 0 0 0 13,12.5 0.5,0.5 0 0 0 13.5,12 0.5,0.5 0 0 0 13.432617,11.75 0.5,0.5 0 0 1 13,12 0.5,0.5 0 0 1 12.567383,11.75 Z M 14.5,11.75 14,12 l 2,1 1.704101,0.851563 A 6,6 0 0 0 18,12 a 6,6 0 0 0 -0.0127,-0.236328 6,6 0 0 1 -0.283203,1.587891 L 16,12.5 14.5,11.75 Z m -2.932617,1 A 0.5,0.5 0 0 0 11.5,13 0.5,0.5 0 0 0 12,13.5 0.5,0.5 0 0 0 12.5,13 0.5,0.5 0 0 0 12.432617,12.75 0.5,0.5 0 0 1 12,13 0.5,0.5 0 0 1 11.567383,12.75 Z m -0.981445,0.664063 -0.1875,0.0625 -0.519532,1.558593 -0.601562,1.804688 A 6,6 0 0 1 7.696289,15.680664 6,6 0 0 1 6.895508,14.644531 l -0.241211,0.08008 a 6,6 0 0 0 1.041992,1.456054 6,6 0 0 0 1.581055,1.15918 l 0.601562,-1.804688 0.707032,-2.121094 z m 2.828125,0 0.707031,2.121093 0.603516,1.810547 a 6,6 0 0 0 1.456054,-1.041992 6,6 0 0 0 1.15918,-1.581055 l -0.242188,-0.08105 a 6,6 0 0 1 -0.916992,1.162109 6,6 0 0 1 -1.456054,1.041992 l -0.603516,-1.810547 -0.519531,-1.558593 -0.1875,-0.0625 z m 0.216797,3.847656 A 6,6 0 0 1 12,17.5 6,6 0 0 1 10.368164,17.263672 l -0.219726,0.440429 A 6,6 0 0 0 12,18 6,6 0 0 0 13.84961,17.700195 l -0.21875,-0.438476 z"/>
 <path style="opacity:0.2;fill:#8b9cbe" d="M 12,5 A 7,7 0 0 0 5,12 7,7 0 0 0 5.010742,12.207031 7,7 0 0 1 12,5.5 7,7 0 0 1 18.989258,12.292969 7,7 0 0 0 19,12 7,7 0 0 0 12,5 Z M 13.632813,6.734375 13,8 12,10 11,8 10.370117,6.739258 a 6,6 0 0 0 -0.219726,0.060546 L 11,8.5 l 1,2 1,-2 0.851563,-1.7041015 a 6,6 0 0 0 -0.21875,-0.061523 z m 3.471679,2.621094 -1.569336,0.523437 -1.933593,0.644531 -0.1875,0.5625 2.121093,-0.707031 1.810547,-0.6035155 A 6,6 0 0 0 17.104492,9.355469 Z M 6.899414,9.357419 A 6,6 0 0 0 6.660156,9.777341 l 1.804688,0.601562 2.121094,0.707031 -0.1875,-0.5625 L 8.464844,9.878903 6.899414,9.357419 Z M 11.567383,11.25 A 0.5,0.5 0 0 0 11.5,11.5 0.5,0.5 0 0 0 12,12 0.5,0.5 0 0 0 12.5,11.5 0.5,0.5 0 0 0 12.432617,11.25 0.5,0.5 0 0 1 12,11.5 0.5,0.5 0 0 1 11.567383,11.25 Z m 6.419921,0.993164 a 6,6 0 0 1 -0.283203,1.608399 L 16,13 14.5,12.25 14,12.5 l 2,1 1.704101,0.851563 A 6,6 0 0 0 18,12.5 6,6 0 0 0 17.987304,12.243164 Z M 9.5,12.25 8,13 6.2998045,13.84961 A 6,6 0 0 1 6.0126955,12.256836 6,6 0 0 0 6,12.5 6,6 0 0 0 6.2998045,14.34961 L 8,13.5 l 2,-1 -0.5,-0.25 z m 1.067383,0 A 0.5,0.5 0 0 0 10.5,12.5 0.5,0.5 0 0 0 11,13 0.5,0.5 0 0 0 11.5,12.5 0.5,0.5 0 0 0 11.432617,12.25 0.5,0.5 0 0 1 11,12.5 0.5,0.5 0 0 1 10.567383,12.25 Z m 2,0 A 0.5,0.5 0 0 0 12.5,12.5 0.5,0.5 0 0 0 13,13 0.5,0.5 0 0 0 13.5,12.5 0.5,0.5 0 0 0 13.432617,12.25 0.5,0.5 0 0 1 13,12.5 0.5,0.5 0 0 1 12.567383,12.25 Z m -1,1 A 0.5,0.5 0 0 0 11.5,13.5 0.5,0.5 0 0 0 12,14 0.5,0.5 0 0 0 12.5,13.5 0.5,0.5 0 0 0 12.432617,13.25 0.5,0.5 0 0 1 12,13.5 0.5,0.5 0 0 1 11.567383,13.25 Z m -0.981445,0.664063 -0.1875,0.0625 -0.519532,1.558593 -0.601562,1.804688 A 6,6 0 0 1 7.696289,16.180664 6,6 0 0 1 6.895508,15.144531 l -0.241211,0.08008 a 6,6 0 0 0 1.041992,1.456054 6,6 0 0 0 1.581055,1.15918 l 0.601562,-1.804688 0.707032,-2.121093 z m 2.828125,0 0.707031,2.121093 0.603516,1.810547 a 6,6 0 0 0 1.456054,-1.041992 6,6 0 0 0 1.15918,-1.581055 l -0.239258,-0.08008 a 6,6 0 0 1 -0.919922,1.161133 6,6 0 0 1 -1.456054,1.041992 l -0.603516,-1.810547 -0.519531,-1.558593 -0.1875,-0.0625 z m 0.21582,3.846679 A 6,6 0 0 1 12,18 6,6 0 0 1 10.367188,17.765625 l -0.21875,0.438476 A 6,6 0 0 0 12,18.5 6,6 0 0 0 13.84961,18.200195 l -0.219727,-0.439453 z"/>
 <circle style="fill:#cc8e31" cx="17.5" cy="17.5" r="5.5"/>
 <path style="fill:#8b9cbe;fill-rule:evenodd" d="m 17.5,15 c 0,0 -0.354375,-0.007 -0.723635,0.17775 C 16.40711,15.36235 16,15.833351 16,16.5 l 1,0 C 17,16 17.5,16 17.5,16 c 0,0 0.5,0 0.5,0.5 0,0.2639 -0.0698,0.41145 -0.203125,0.578099 -0.133325,0.166701 -0.34668,0.334 -0.59668,0.5215 -0.25,0.1875 -0.536645,0.395201 -0.77832,0.6973 C 16.1802,18.59895 16,19.0139 16,19.5 l 0,0.5 3,0 0,-1 -1.82422,0 c 0.01565,-0.022 0.0094,-0.0556 0.02735,-0.0781 0.133325,-0.1667 0.34668,-0.334 0.59668,-0.5215 0.25,-0.1875 0.536645,-0.3952 0.77832,-0.6973 0.241675,-0.30205 0.421875,-0.717 0.421875,-1.2031 0,-0.666649 -0.40711,-1.13765 -0.776365,-1.32225 C 17.854375,14.9931 17.5,15 17.5,15 Z"/>
</svg>
