<svg width="24" height="24" version="1.1" xmlns="http://www.w3.org/2000/svg">
 <path d="m11 2.5006097-1.0000001 4.5054878-2 2.5030488h1.5l-1 2.5030487-1.5 1.00122h-1.5l-1.4999999 2.002439 1.9999999 1.001219-0.5 1.00122-2.4999999 1.480488v2.002438l5.4999999-1.480487 3.5000001-1.00122 3.5 1.00122 5.5 1.480487v-2.002438l-2.5-1.480488-0.5-1.00122 2-1.001219-1.5-2.002439h-1.5l-1.5-1.00122-1-2.5030487h1.5l-2-2.5030488-1-4.5054878z" style="opacity:.2"/>
 <path d="m11 2-1.0000001 4.5054878-2 2.5030488h1.5l-1 2.5030484-1.5 0.501415h-1.5l-1.4999999 2.502 1.9999999 1.001463-0.5 1.00122-2.4999999 1.481098v2.002438l5.4999999-1.481097 3.5000001-1.00122 3.5 1.00122 5.5 1.481097v-2.002438l-2.5-1.481098-0.5-1.00122 2-1.001219-1.5-2.502244h-1.5l-1.5-0.501415-1-2.5030484h1.5l-2-2.5030488-1-4.5054878z" style="fill:#54d032"/>
 <path d="m11.5 5.002805-1.5 5.496951 4 0.0098-1.5-5.506707 0.5 4.4969512-2 9e-3zm-2.0000001 5.506707-0.5 2.503049-1.5 2.002439 2.5000001-1.515244-1e-7 -2.990244zm4.5000001 0v2.990244l2.5 1.515244-1.5-2.002439-0.5-2.503049z" style="opacity:.1"/>
 <path d="M 11.5,4.5030488 10,10 14,10.009756 12.5,4.5030488 13,9 11,9.009 Z m -2.0000001,5.5067072 -0.5,2.503049 -1.5,2.002439 L 10,13 l -10e-8,-2.990244 z m 4.5000001,0 V 13 l 2.5,1.515244 -1.5,-2.002439 -0.5,-2.503049 z" style="fill:#b2bfd9"/>
 <path d="m12 16.017073c-4.0000001 0-7.0000001 1.501829-7.0000001 3.504268 0 1.025692 0.761198 1.626548 1.8251956 1.983863a2.5 2.002439 0 0 0 2.1748044 1.019796 2.5 2.002439 0 0 0 1.6689461-0.515276c0.474376 0.01017 0.932121 0.01467 1.331054 0.01467s0.856678-0.0045 1.331054-0.01467a2.5 2.002439 0 0 0 1.668946 0.515276 2.5 2.002439 0 0 0 2.177734-1.020775c1.062451-0.357441 1.822266-0.958136 1.822266-1.982884 0-2.002439-3-3.504268-7-3.504268z" style="opacity:.2"/>
 <path d="m4.9999999 19.020732c0-2.002439 3-4.004732 7.0000001-4.004732 4 0 7 2.002293 7 4.004732 0 2.503048-4.5 2.503048-7 2.503048-2.5000001 0-7.0000001 0-7.0000001-2.503048z" style="fill:#b2bfd9"/>
 <path d="m12 16.517683a2.5 2.002439 0 0 0-2.5000001 2.002439 2.5 2.002439 0 0 0 0.00195 0.04107 2.5 2.002439 0 0 0-0.5019524-0.04107 2.5 2.002439 0 0 0-2.5 2.002439 2.5 2.002439 0 0 0 0.047851 0.386212c1.28596 0.513765 3.1283165 0.597304 4.6162115 0.611097a2.5 2.002439 0 0 0 0.33594-0.997309 2.5 2.002439 0 0 0-2e-3 -0.04106 2.5 2.002439 0 0 0 0.501953 0.04106 2.5 2.002439 0 0 0 0.502929-0.04302 2.5 2.002439 0 0 0-3e-3 0.04302 2.5 2.002439 0 0 0 0.333985 0.997309c1.487761-0.01373 3.330687-0.09656 4.617187-0.610118a2.5 2.002439 0 0 0 0.048946-0.387191 2.5 2.002439 0 0 0-2.5-2.002439 2.5 2.002439 0 0 0-0.50293 0.043021 2.5 2.002439 0 0 0 0.00293-0.043021 2.5 2.002439 0 0 0-2.5-2.002439z" style="opacity:.1"/>
 <path d="m12 16.017073a2.5 2.002439 0 0 0-2.5000001 2.002439 2.5 2.002439 0 0 0 0.00195 0.04107 2.5 2.002439 0 0 0-0.5019524-0.04107 2.5 2.002439 0 0 0-2.5 2.002439 2.5 2.002439 0 0 0 2.5 2.002439 2.5 2.002439 0 0 0 2.5000025-2.002439 2.5 2.002439 0 0 0-0.001905-0.041069 2.5 2.002439 0 0 0 0.501905 0.041069 2.5 2.002439 0 0 0 0.502929-0.043021 2.5 2.002439 0 0 0-0.002929 0.043021 2.5 2.002439 0 0 0 2.5 2.002439 2.5 2.002439 0 0 0 2.5-2.002439 2.5 2.002439 0 0 0-2.5-2.002439 2.5 2.002439 0 0 0-0.50293 0.043023 2.5 2.002439 0 0 0 0.00293-0.043023 2.5 2.002439 0 0 0-2.5-2.002439z" style="fill:#54d032"/>
 <path d="m12 18.019512a1 0.75091463 0 0 0-1 0.750915 1 0.75091463 0 0 0 1 0.750914 1 0.75091463 0 0 0 1-0.750914 1 0.75091463 0 0 0-1-0.750915zm-3.0000001 2.002439a1 0.75091463 0 0 0-1 0.750915 1 0.75091463 0 0 0 1 0.750914 1 0.75091463 0 0 0 1-0.750914 1 0.75091463 0 0 0-1-0.750915zm6.0000001 0a1 0.75091463 0 0 0-1 0.750915 1 0.75091463 0 0 0 1 0.750914 1 0.75091463 0 0 0 1-0.750914 1 0.75091463 0 0 0-1-0.750915z" style="opacity:.2"/>
 <path d="m12 17.518902c-0.552285 0-1 0.336196-1 0.750915s0.447715 0.750915 1 0.750915 1-0.336196 1-0.750915-0.447715-0.750915-1-0.750915zm-3.0000001 2.002439c-0.5522849 0-1.0000003 0.336196-1 0.750915-3e-7 0.414719 0.4477151 0.750915 1 0.750915s1.0000001-0.336196 1-0.750915c1e-7 -0.414719-0.4477151-0.750915-1-0.750915zm6.0000001 0c-0.552285 0-1 0.336196-1 0.750915s0.447715 0.750915 1 0.750915 1-0.336196 1-0.750915-0.447715-0.750915-1-0.750915z" style="fill:#b2bfd9"/>
 <path d="m12 15.016695c-4.0000001 0-7.0000001 2.001598-7.0000001 4.004037 0 0.09616 0.00857 0.187786 0.021485 0.276703 0.215837-1.888754 3.1299821-3.78013 6.9785151-3.78013s6.762678 1.891376 6.978515 3.78013c0.012916-0.088917 0.021485-0.18054 0.021485-0.276703 0-2.002439-3-4.004037-7-4.004037z" style="fill:#8b9cbe;opacity:.2"/>
 <path d="m12 16.017073a2.5 2.002439 0 0 0-2.5000001 2.002439 2.5 2.002439 0 0 0 0.00195 0.04107 2.5 2.002439 0 0 0-0.5019524-0.04107 2.5 2.002439 0 0 0-2.5 2.002439 2.5 2.002439 0 0 0 0.022461 0.251282 2.5 2.002439 0 0 1 2.477539-1.753111 2.5 2.002439 0 0 1 0.5019531 0.04106 2.5 2.002439 0 0 1-0.00195-0.04106 2.5 2.002439 0 0 1 2.4999994-2.002439 2.5 2.002439 0 0 1 2.5 2.002439 2.5 2.002439 0 0 1-3e-3 0.04302 2.5 2.002439 0 0 1 0.503-0.04302 2.5 2.002439 0 0 1 2.477539 1.751157 2.5 2.002439 0 0 0 0.022461-0.249328 2.5 2.002439 0 0 0-2.5-2.002439 2.5 2.002439 0 0 0-0.50293 0.043021 2.5 2.002439 0 0 0 0.00293-0.043021 2.5 2.002439 0 0 0-2.5-2.002439z" style="fill:#8b9cbe;opacity:.2"/>
 <path d="m11 2-1.0000001 4.5054878-2 2.5030488h0.4003905l1.5996095-2.0024391 1.0000001-4.5054878h2l1 4.5054878 1.599609 2.0024391h0.400391l-2-2.5030488-1-4.5054878zm-1.7001956 7.5091463-0.7998045 2.0024387-1.5 0.50111h-1.5l-1.4997109 2.502549 0.357422 0.142752 1.1422889-2.144691h1.5l1.5-0.50111 1-2.5030487zm5.2001956 0 1 2.5030487 1.5 0.50111h1.5l1.142289 2.144691 0.357422-0.142752-1.499711-2.502549h-1.5l-1.5-0.50111-0.799805-2.0024387zm-8.7080081 6.4248177-0.291992 0.583719-2.4999999 1.501829v0.50061l2.4999999-1.501829 0.5-1.00122zm12.416016 0-0.208008 0.083109 0.5 1.00122 2.5 1.501829v-0.50061l-2.5-1.501829z" style="fill:#8b9cbe;opacity:.2"/>
</svg>
