<svg xmlns="http://www.w3.org/2000/svg" width="24" height="24" x="0" y="0" version="1.1" xml:space="preserve">
 <path style="opacity:0.2" d="M 15.937899,19.725131 C 11.351926,22.529862 5.8749795,21.903461 2.4277413,18.600644 2.3252997,18.502512 2.255322,18.374119 2.2263367,18.231112 1.2508176,13.422537 3.4714272,8.0824728 8.0620986,5.2748684 12.648071,2.4701367 18.125018,3.0965388 21.572257,6.3993564 c 0.102444,0.09813 0.172419,0.2265237 0.201404,0.3695305 0.975519,4.8085781 -1.245052,10.1486161 -5.835762,12.9562441 z"/>
 <path style="fill:#ff5555" d="M 15.937899,19.225131 C 11.351926,22.029862 5.8749795,21.403461 2.4277413,18.100644 2.3252997,18.002512 2.255322,17.874119 2.2263367,17.731112 1.9876318,16.554477 1.9402976,15.346018 2.072231,14.150627 2.4794721,10.460794 5.7069284,10.425448 9.1742843,8.3048506 13.760257,5.5001197 16.552761,2.6971824 20,6 c 0.102444,0.09813 0.971015,0.8569932 1,1 0.04106,0.2023873 0.850116,-0.3253956 0.879913,-0.1213538 0.678146,4.6438448 -1.544522,9.6570268 -5.942014,12.3464848 z"/>
 <path style="opacity:0.2" d="M 14.347656,3.499952 C 12.244796,3.4767415 10.068863,4.0482725 8.0625,5.2753426 4.4979986,7.4553527 2.3707551,11.161573 2.0507812,14.960892 c 0.036996,0.425803 0.090628,0.849789 0.1757813,1.269531 0.028985,0.143007 0.09873,0.272962 0.2011719,0.371093 3.4472382,3.302818 8.9237926,3.927778 13.5097656,1.123047 3.564531,-2.180028 5.691754,-5.886232 6.011719,-9.6855485 -0.037,-0.4258028 -0.09063,-0.8497897 -0.175781,-1.2695313 C 21.744453,6.6264764 21.67471,6.4965195 21.572266,6.3983895 19.633194,4.5405546 17.051334,3.5297941 14.347656,3.499952 Z"/>
 <path style="fill:#b2bfd9" d="M 14.347656 3 C 12.244796 2.9767895 10.068863 3.5483205 8.0625 4.7753906 C 4.4979986 6.9554007 2.3707551 10.661619 2.0507812 14.460938 C 2.0877776 14.886741 2.1414093 15.310727 2.2265625 15.730469 C 2.2555478 15.873476 2.3252928 16.003431 2.4277344 16.101562 C 5.8749726 19.40438 11.351527 20.02934 15.9375 17.224609 C 19.502031 15.044581 21.629254 11.338377 21.949219 7.5390625 C 21.912222 7.1132597 21.858591 6.6892728 21.773438 6.2695312 C 21.744453 6.1265244 21.67471 5.9965675 21.572266 5.8984375 C 19.633194 4.0406026 17.051334 3.0298421 14.347656 3 z"/>
 <circle style="opacity:0.1" cx="4.142" cy="16.825" r="6" transform="rotate(-30)"/>
 <circle style="fill:#1c93e1" cx="4.392" cy="16.392" r="6" transform="rotate(-30)"/>
 <circle style="opacity:0.95700001;fill:#17191e" cx="4.392" cy="16.392" r="3" transform="rotate(-30)"/>
 <path style="fill:#8b9cbe;opacity:0.2" d="M 14.347656 3 C 12.244796 2.9767895 10.068863 3.5483205 8.0625 4.7753906 C 4.0413587 7.2346766 1.8387877 11.635657 2.0097656 15.921875 C 2.0219909 11.796583 4.1976681 7.6390795 8.0625 5.2753906 C 12.648472 2.4706589 18.125027 3.0956199 21.572266 6.3984375 C 21.67471 6.4965675 21.744453 6.6265244 21.773438 6.7695312 C 21.894463 7.3660954 21.966017 7.9710514 21.990234 8.578125 C 21.992529 7.8033703 21.927679 7.0298241 21.773438 6.2695312 C 21.744453 6.1265244 21.67471 5.9965675 21.572266 5.8984375 C 19.633194 4.0406026 17.051334 3.0298421 14.347656 3 z"/>
</svg>
