<svg xmlns="http://www.w3.org/2000/svg" width="24" height="24" version="1">
 <rect style="fill:#4e8b94" width="20" height="20" x="2" y="2" rx="1" ry="1"/>
 <path style="opacity:0.1;fill:#8b9cbe" d="M 2,3.5 V 3 C 2,2.446 2.446,2 3,2 h 18 c 0.554,0 1,0.446 1,1 v 0.5 c 0,-0.554 -0.446,-1 -1,-1 H 3 c -0.554,0 -1,0.446 -1,1 z"/>
 <path style="opacity:0.2" d="m 2,21 v 0.5 c 0,0.554 0.446,1 1,1 h 18 c 0.554,0 1,-0.446 1,-1 V 21 c 0,0.554 -0.446,1 -1,1 H 3 C 2.446,22 2,21.554 2,21 Z"/>
 <path style="opacity:0.2" d="m 8,5.5 v 13.994141 l 2,0.0039 V 19.5 H 10.507812 11 v -4 h 3.630859 C 16.074143,14.701735 16.997995,12.479816 17,10.581 16.999993,7.8855725 15.170126,5.500011 12.912109,5.5 12.309889,5.5014182 11.597464,5.6644321 11,5.96875 V 5.5 h -0.5 z m 2.396484,1.5019531 c 0.259486,0.00687 0.497094,0.1573941 0.773438,0.3769531 0.473512,0.3783241 0.994318,0.9183956 1.511719,1.4453126 0.306944,-0.050413 0.70131,-0.065063 1.234375,-0.035156 0.570054,-0.476755 1.079489,-0.361211 1.568359,-0.054687 0.151736,0.619252 -0.08362,0.7929661 -0.05664,0.9941406 l 0.07031,0.5253906 c -0.371884,0.179226 -0.703075,-0.05809 -1.035154,-0.2832039 l 0.01563,0.033203 -0.207032,0.919922 c -0.05099,0.902678 0.08676,1.581888 0.486328,2.332031 l -0.328124,0.150391 c -0.220137,-0.563932 -0.494519,-1.099725 -0.525391,-1.759766 -0.477618,0.549595 -0.109981,1.282507 0.07617,1.976563 l -0.46875,0.316406 c -0.271837,-0.326202 -0.358965,-1.35043 -0.433594,-2.427734 -0.16133,0.363478 -0.319313,0.728999 -0.578125,1.042969 0.113031,0.505865 0.112899,1.011715 -0.173828,1.517578 L 11.880859,14.375 11.71875,12.462891 c -0.152017,0.425863 -0.258057,1.270935 -0.457031,1.267578 -0.203177,-1.061546 0.394587,-1.836611 0.93164,-2.632813 l -0.128906,0.0625 L 11,11.998047 c -0.723285,0.384032 -3.683967,1.942349 -0.984375,-1.806641 0.265621,-0.3688702 0.799991,0.04709 1.277344,-0.4316404 0.03549,-0.04015 0.06647,-0.075076 0.09961,-0.1132812 C 10.626267,9.3798569 9.5415325,8.8643425 9.453125,8.265625 c 0,0 -0.027073,-0.6602347 0.1621094,-0.8945312 C 9.9214639,7.1024532 10.167525,6.9958786 10.396484,7.0019531 Z"/>
 <path style="fill:#8b9cbe" d="m 8,5 v 13.994141 l 2,0.0039 V 19 H 10.507812 11 v -4 h 3.630859 C 16.074143,14.201735 16.997995,11.979816 17,10.081 16.999993,7.3855725 15.170126,5.000011 12.912109,5 12.309889,5.0014182 11.597464,5.1644321 11,5.46875 V 5 h -0.5 z m 2.396484,1.5019531 c 0.259486,0.00687 0.497094,0.1573941 0.773438,0.3769531 0.473512,0.3783241 0.994318,0.9183956 1.511719,1.4453126 0.306944,-0.050413 0.70131,-0.065063 1.234375,-0.035156 0.570054,-0.476755 1.079489,-0.361211 1.568359,-0.054687 0.151736,0.619252 -0.08362,0.7929661 -0.05664,0.9941406 l 0.07031,0.5253906 C 15.126161,9.9331328 14.79497,9.6958161 14.462891,9.4707031 l 0.01563,0.033203 -0.207032,0.9199218 c -0.05099,0.902678 0.08676,1.581888 0.486328,2.332031 l -0.328124,0.150391 c -0.220137,-0.563932 -0.494519,-1.099725 -0.525391,-1.759766 -0.477618,0.549595 -0.109981,1.282507 0.07617,1.976563 l -0.46875,0.316406 c -0.271837,-0.326202 -0.358965,-1.35043 -0.433594,-2.427734 -0.16133,0.363478 -0.319313,0.728999 -0.578125,1.042969 0.113031,0.505865 0.112899,1.011715 -0.173828,1.517578 L 11.880859,13.875 11.71875,11.962891 c -0.152017,0.425863 -0.258057,1.270935 -0.457031,1.267578 -0.203177,-1.061546 0.394587,-1.836611 0.93164,-2.632813 l -0.128906,0.0625 L 11,11.498047 c -0.723285,0.384032 -3.683967,1.942349 -0.984375,-1.8066408 0.265621,-0.3688704 0.799991,0.047088 1.277344,-0.4316406 0.03549,-0.04015 0.06647,-0.075076 0.09961,-0.1132812 C 10.626267,8.8798569 9.5415325,8.3643425 9.453125,7.765625 c 0,0 -0.027073,-0.6602347 0.1621094,-0.8945312 C 9.9214639,6.6024532 10.167525,6.4958786 10.396484,6.5019531 Z"/>
</svg>
