<svg xmlns="http://www.w3.org/2000/svg" width="24" height="24" version="1">
 <ellipse id="ellipse928" style="opacity:0.2" cx="-20.289" cy="13.264" rx="1.312" ry="1.773" transform="matrix(-0.98343787,-0.18124556,-0.17051154,0.98535568,0,0)"/>
 <ellipse id="ellipse930" style="opacity:0.2" cx=".891" cy="17.165" rx="1.311" ry="1.76" transform="matrix(0.98368354,-0.17990746,0.17178412,0.98513462,0,0)"/>
 <path style="opacity:0.2" d="M 5.2749613,8.4952143 C 9.7046763,10.04015 11.727555,3.6666804 18,13.001337 c -0.454843,3.480084 0.09106,3.108012 -0.634665,5.775454 -0.836101,2.490603 -3.912852,3.924506 -7.044345,3.700278 C 7.7853473,22.295505 5.3671018,21.643785 4.5133627,18.745058 4.1090443,17.406159 3.9692795,15.81064 4.0054971,14.143043 4.047513,12.208509 4.897559,10.335641 5.2749613,8.4952143 Z"/>
 <ellipse id="ellipse839" style="fill:#e59c62" cx="-20.204" cy="12.772" rx="1.312" ry="1.773" transform="matrix(-0.98343787,-0.18124556,-0.17051154,0.98535568,0,0)"/>
 <ellipse style="fill:#e59c62" cx=".977" cy="16.674" rx="1.311" ry="1.76" transform="matrix(0.98368354,-0.17990746,0.17178412,0.98513462,0,0)"/>
 <path style="fill:#f4ac6f" d="M 5.2749613,7.9952138 C 8.1340798,6.0063078 11.327003,2.265437 18,12.501337 c -0.454843,3.480083 0.09106,3.108012 -0.634665,5.775454 -0.836101,2.490603 -3.912852,3.924506 -7.044345,3.700277 C 7.7853473,21.795505 5.3671018,21.143785 4.5133627,18.245058 4.1090443,16.906159 3.9692795,15.310639 4.0054971,13.643042 4.047513,11.708508 4.897559,9.8356403 5.2749613,7.9952138 Z"/>
 <g transform="matrix(-0.5,0,0,0.5,21.5,-0.50000017)">
  <circle style="fill:#17191e" cx="15" cy="29" r="2"/>
  <path style="fill:#17191e" d="m 12.508677,26.039209 c 0.408595,0.627898 1.136592,1.284016 1.95396,1.185189 l -1.121124,0.640643 C 12.654239,27.358846 12.519087,26.71462 12.508677,26.039209 Z"/>
  <path style="fill:#17191e" d="m 11.547712,27.480655 c 0.408596,0.627899 1.8413,0.387116 2.658668,0.28829 l -0.544546,1.409414 C 12.97456,28.672164 11.558122,28.156066 11.547712,27.480655 Z"/>
  <path style="fill:#17191e" d="m 11.675841,28.60178 c 0.408595,0.627899 1.841299,0.387117 2.658668,0.28829 l -0.544546,1.409414 C 13.102689,29.793289 11.686251,29.277192 11.675841,28.60178 Z"/>
 </g>
 <g transform="matrix(0.5,0,0,0.5,-0.499856,-0.5)">
  <circle style="fill:#17191e" cx="15" cy="29" r="2"/>
  <path style="fill:#17191e" d="m 12.508677,26.039209 c 0.408595,0.627898 1.136592,1.284016 1.95396,1.185189 l -1.121124,0.640643 C 12.654239,27.358846 12.519087,26.71462 12.508677,26.039209 Z"/>
  <path style="fill:#17191e" d="m 11.547712,27.480655 c 0.408596,0.627899 1.8413,0.387116 2.658668,0.28829 l -0.544546,1.409414 C 12.97456,28.672164 11.558122,28.156066 11.547712,27.480655 Z"/>
  <path style="fill:#17191e" d="m 11.675841,28.60178 c 0.408595,0.627899 1.841299,0.387117 2.658668,0.28829 l -0.544546,1.409414 C 13.102689,29.793289 11.686251,29.277192 11.675841,28.60178 Z"/>
 </g>
 <path style="opacity:0.2" d="M 14.495108,17.156957 C 14.109546,18.552349 12.482307,19.6 10.533421,19.6 8.4153735,19.6 6.677233,18.362584 6.5,16.786199 6.50612,16.723639 6.53105,16.63063 6.6095005,16.63237 c 0.5363685,0.01189 2.257821,-0.07002 3.8821335,-0.01039 1.612676,0.0592 3.36772,-0.122606 3.921613,0.11109 0.119808,0.05055 0.07999,0.252866 0.08186,0.423892 z"/>
 <path style="fill:#8b9cbe" d="M 14.495108,16.656957 C 14.109546,18.052348 12.482307,19.1 10.533421,19.1 8.4153735,19.1 6.677233,17.862584 6.5,16.286198 6.50612,16.223638 6.53105,16.13063 6.6095005,16.13237 c 0.5363685,0.01189 2.257821,-0.07002 3.8821335,-0.01039 1.612676,0.0592 3.36772,-0.122606 3.921613,0.111089 0.119808,0.05055 0.07999,0.252866 0.08186,0.423893 z"/>
 <path style="opacity:0.2" d="M 5.3865108,4.6874989 C 7.8342253,2.8760537 9.5656723,2.2225434 11.349282,2.6052581 c 2.376808,0.5099983 4.790053,2.2529011 5.124532,2.8281832 0.55105,0.947771 0.957344,4.134636 1.302413,4.7711877 0.351949,0.649245 1.314115,1.351865 1.742713,1.380742 1.003418,0.06761 1.170286,-0.427898 1.48106,-0.312886 -0.921682,1.59207 -1.377204,3.605922 -4.544519,3.166145 C 15.442588,14.278259 15.338068,13.663068 14.742343,12.910824 12.77956,10.439247 11.43023,7.9426508 9.4423558,7.9999998 7.8415078,8.0461833 6.9996573,10.693932 5.2859473,10.45 3.5938243,10.203156 4.0270659,7.4478388 4.1121996,6.2745903 4.2749664,5.3948083 4.7240863,5.1784828 5.3865108,4.6874989 Z"/>
 <path style="fill:#ffe678" d="M 5.3865108,4.1874991 C 7.8342253,2.3760539 9.5656723,1.7225436 11.349282,2.1052583 c 2.376808,0.5099983 4.790053,2.2529011 5.124532,2.8281831 0.55105,0.9477709 0.957344,4.1346359 1.302413,4.7711879 0.351949,0.6492447 1.314115,1.3518647 1.742713,1.3807417 1.003418,0.06761 1.170286,-0.427898 1.48106,-0.312886 -0.921682,1.59207 -1.377204,3.605922 -4.544519,3.166145 C 15.442588,13.778259 15.338068,13.163068 14.742343,12.410824 12.77956,9.9392473 11.43023,7.4426508 9.4423558,7.4999998 7.8415078,7.5461833 6.9996573,10.193932 5.2859473,9.9499998 3.5938243,9.7031558 4.0270659,6.9478388 4.1121996,5.7745903 4.2749664,4.8948083 4.7240863,4.6784832 5.3865108,4.1874991 Z"/>
 <circle style="fill:#8b9cbe" cx="7.125" cy="13.875" r=".375"/>
 <circle style="fill:#8b9cbe" cx="13.875" cy="13.875" r=".375"/>
 <path style="opacity:0.2;fill:#8b9cbe" d="M 10.681641,2.010742 C 9.1218868,1.9042049 7.5284688,2.6024853 5.3867188,4.1874998 4.7242941,4.6784839 4.2750713,4.8946319 4.1123045,5.7744138 4.0771555,6.2588103 3.9895148,7.0111973 4.0097654,7.7470703 4.027646,7.1850638 4.0852108,6.6477993 4.1123045,6.2744138 4.2750713,5.3946318 4.7242941,5.1784838 5.3867188,4.6874998 7.8344333,2.8760546 9.5659998,2.2227539 11.34961,2.6054686 c 2.376807,0.5099982 4.789544,2.2528428 5.124023,2.8281252 0.551051,0.947771 0.957666,4.134932 1.302734,4.7714842 0.351949,0.649244 1.31359,1.351006 1.742188,1.379883 0.687386,0.04631 0.97496,-0.164625 1.192383,-0.269532 0.09477,-0.182376 0.187199,-0.367014 0.289062,-0.542968 -0.310774,-0.115013 -0.478027,0.380106 -1.481445,0.3125 C 19.089957,11.056086 18.128316,10.354322 17.776367,9.7050778 17.431299,9.0685258 17.024684,5.8813643 16.473633,4.9335936 16.139154,4.3583116 13.726417,2.6154668 11.34961,2.1054686 11.126658,2.0576292 10.904463,2.0259616 10.681641,2.010742 Z"/>
</svg>
