<svg xmlns="http://www.w3.org/2000/svg" width="24" height="24" version="1.1">
 <path style="opacity:0.2" d="M 2.0163754,8.939421 C 2.6492845,7.5097583 4.1492703,8.2878073 4.6910724,7.4122896 5.2038885,6.5836116 3.4998333,5.2951752 2.4477373,5.3525713 2.8207706,4.9967158 5.2244045,5.4318909 5.9714389,5.453839 6.8781751,5.480479 5.4665605,3.6917243 5.4665605,3.6917243 5.7982746,3.0387414 7.5340063,3.4579348 8.2221136,4.3677499 9.0044486,5.4021534 10.187001,2.6377507 9.478091,2.1651445 c 1.472665,0.069442 1.688623,2.2423837 2.446465,2.3143216 1.243072,0.1179982 1.493515,-0.4908503 1.719113,-1.2543178 0.876804,0.8671511 0.180898,1.9969417 0.629981,2.0604763 1.469969,0.8212251 2.547988,-1.4189751 3.356893,-0.6795275 -1.203171,0.8173368 -2.290798,3.1808327 -0.531205,3.1882268 0.858468,0.051942 1.071642,0.1832748 2.075988,1.0166549 -2.285764,-0.7885065 -2.325945,1.1277421 -1.277128,0.9092452 2.187272,-0.4556684 2.725963,1.352402 2.484279,1.400738 -0.646847,-0.323424 -4.197493,-0.460751 -3.875591,0.09653 1.65412,2.863636 -1.552271,4.067141 -4.238005,4.743587 l -5.5897468,0.03891 C 5.6566258,15.383962 2.1665418,13.584598 2.0163754,10.964393 1.9956059,10.601991 3.2470223,11.045877 3.5100358,10.634064 4.2243032,9.5156991 3.4156155,8.9240155 2.0163754,8.939421 Z"/>
 <path style="fill:#ff3c3c" d="M 2.0163754,8.4394201 C 2.6492845,7.0097574 4.1492703,7.7878063 4.6910724,6.9122887 5.2038885,6.0836106 3.4998333,4.7951744 2.4477373,4.8525705 2.8207706,4.4967149 5.2244045,4.9318898 5.9714389,4.9538381 6.8781751,4.9804786 5.4665605,3.1917234 5.4665605,3.1917234 5.7982746,2.5387404 7.5340063,2.9579338 8.2221136,3.8677489 9.0044486,4.9021522 10.187001,2.1377497 9.478091,1.6651436 c 1.472665,0.069442 1.688623,2.2423837 2.446465,2.3143216 1.243072,0.1179982 1.493515,-0.4908503 1.719113,-1.2543179 0.876804,0.8671512 0.180898,1.9969419 0.629981,2.0604763 1.469969,0.8212251 2.547988,-1.4189751 3.356893,-0.6795275 -1.203171,0.8173371 -2.290798,3.1808328 -0.531205,3.1882268 0.858468,0.051942 1.071642,0.1832749 2.075988,1.0166549 -2.285764,-0.7885065 -2.325945,1.1277421 -1.277128,0.9092452 2.187272,-0.4556683 2.725963,1.352402 2.484279,1.400738 -0.646847,-0.323423 -4.197493,-0.460751 -3.875591,0.09653 1.65412,2.863636 -1.552271,4.067141 -4.238005,4.743587 l -5.5897468,0.03891 C 5.6566258,14.883961 2.1665418,13.084597 2.0163754,10.464392 1.9956059,10.10199 3.2470223,10.545877 3.5100358,10.134063 4.2243032,9.0156981 3.4156155,8.4240145 2.0163754,8.4394201 Z"/>
 <path style="opacity:0.2;fill:#8b9cbe" d="m 9.4781835,1.6649999 c 0.1454123,0.096941 0.2078424,0.2930446 0.2138679,0.5302744 1.2800986,0.259372 1.5132886,2.2159201 2.2324256,2.284184 1.243072,0.1179982 1.493156,-0.4904411 1.718754,-1.2539086 0.366804,0.362766 0.454429,0.7676009 0.469727,1.1250021 0.01348,-0.4210874 0.09704,-1.0644747 -0.469727,-1.625003 C 13.417633,3.4890163 13.167549,4.0974556 11.924477,3.9794574 11.166636,3.9075195 10.950848,1.7344415 9.4781835,1.6649999 Z M 9.6705669,2.5048452 C 9.5329206,3.4208621 8.7783317,4.6032853 8.2223216,3.868129 7.5342148,2.9583139 5.7981716,2.538387 5.4664575,3.1913699 c 0,0 0.092057,0.1180273 0.2138674,0.2910162 C 6.2605025,3.1658612 7.6294415,3.5842239 8.2223216,4.36813 8.8900109,5.2509486 9.8444682,3.3698283 9.6705669,2.5048452 Z m 7.6435691,1.4521512 c -0.76834,-0.077812 -1.753821,1.5476751 -3.040045,0.8291031 -0.101062,-0.014298 -0.140187,-0.089139 -0.15625,-0.1962894 -0.01103,0.3789896 -0.06086,0.665574 0.15625,0.6962905 1.22747,0.6857483 2.180227,-0.7580485 2.932623,-0.8242205 0.13652,-0.1361204 0.279229,-0.2572399 0.423829,-0.3554694 C 17.52943,4.0139798 17.423899,3.9681123 17.314136,3.9569964 Z M 3.0504372,4.7148103 C 2.7609663,4.7237118 2.5411553,4.7635419 2.447897,4.8525059 2.8278584,4.8317773 3.2917922,4.9900306 3.7066884,5.235319 4.5385508,5.2901401 5.5350621,5.4412514 5.9713409,5.4540695 6.3178546,5.4642495 6.3242786,5.208533 6.2018103,4.8896153 6.1533252,4.9324529 6.0801216,4.9572646 5.9713409,4.9540686 5.4110654,4.9376074 3.9188498,4.6881055 3.0504372,4.7148103 Z m 13.1533448,2.008793 c -0.105783,0.5946492 0.110532,1.0670155 0.89551,1.0703146 0.528987,0.032005 0.813437,0.096005 1.188479,0.3339846 0.248351,0.011545 0.538846,0.062277 0.887696,0.1826178 -1.004345,-0.83338 -1.217707,-0.9646618 -2.076175,-1.0166034 -0.545393,-0.0023 -0.815847,-0.2315139 -0.89551,-0.5703136 z m -11.4707245,0.09375 c -0.013038,0.031775 -0.023048,0.064114 -0.041992,0.094727 -0.5418021,0.8755176 -2.0419006,0.097684 -2.6748097,1.5273464 0.1134997,-0.00125 0.2160589,0.00795 0.3212897,0.01465 C 3.0604987,7.7025942 4.2267836,8.1623325 4.6910654,7.4120826 4.8038809,7.2297798 4.8042759,7.0249349 4.7330575,6.817355 Z M 17.308277,9.0155996 c -0.200799,0.3596177 0.04708,0.8181506 0.589845,0.7050794 1.426853,-0.2972521 2.14345,0.364471 2.408207,0.876955 0.02071,0.0082 0.0593,0.015 0.07617,0.02344 C 20.624185,10.572739 20.085394,8.7650117 17.898122,9.22068 17.610224,9.2806571 17.408143,9.17723 17.308277,9.0156016 Z M 3.7340322,9.6474368 C 3.6934142,9.7969756 3.6227501,9.9578519 3.510399,10.133766 3.2473855,10.54558 1.995486,10.102416 2.0162555,10.464821 c 0.00773,0.134864 0.030054,0.26602 0.054688,0.396485 0.2379463,-0.156089 1.210908,0.13031 1.4394559,-0.227539 C 3.763875,10.236887 3.8224768,9.9080663 3.7340322,9.6474368 Z M 16.643236,10.996072 c -0.129401,0.05659 -0.190232,0.129037 -0.136719,0.22168 0.25664,0.4443 0.385004,0.844288 0.427736,1.212893 0.0559,-0.42192 -0.03099,-0.897719 -0.291017,-1.434573 z"/>
 <circle style="opacity:0.2" cx="10.5" cy="11" r="6.5"/>
 <circle style="fill:#8b9cbe" cx="10.5" cy="10.5" r="6.5"/>
 <circle style="opacity:0.2" cx="14" cy="14.5" r="8"/>
 <circle style="fill:#4f4f4f" cx="14" cy="14" r="8"/>
 <path style="opacity:0.1" d="m 13.999677,5.999969 a 8.000015,8.000015 0 0 0 -8.0000155,8.000015 8.000015,8.000015 0 0 0 0.010742,0.29004 8.000015,8.000015 0 0 1 7.9892735,-7.7900541 8.000015,8.000015 0 0 1 1.898441,0.2392585 6.5000122,6.5000122 0 0 0 -0.627931,-0.6337902 8.000015,8.000015 0 0 0 -1.27051,-0.1054692 z"/>
</svg>
