<svg xmlns="http://www.w3.org/2000/svg" width="24" height="24" version="1">
 <circle style="opacity:0.2" cx="12" cy="12.5" r="10"/>
 <circle style="fill:#4f4f4f" cx="12" cy="12" r="10"/>
 <path style="opacity:0.2" d="m 10.253286,4.6677795 c 0.01592,-0.00195 0.02585,-0.00195 0.02836,4.085e-4 C 10.321426,4.701973 9.6955722,5.3533055 9.4889687,5.493139 9.3678402,5.575123 9.1576477,5.6751865 9.0218697,5.715544 8.8875737,5.755454 8.6984562,5.788966 8.5979837,5.790901 8.3965032,5.908078 8.1145628,6.068652 7.7857268,6.2544875 8.0379688,6.1974635 8.3301467,6.1709945 8.5773232,6.1924825 8.9227382,6.2225575 9.7281707,6.420853 9.8222441,6.49902 9.8467141,6.51933 9.6586787,6.552085 9.4044347,6.571669 9.1501912,6.591274 8.7917962,6.624734 8.6079762,6.645941 8.2482657,6.687511 7.4442443,6.671291 7.2850033,6.619311 c -0.03201,-0.01041 -0.054763,-0.021325 -0.06995,-0.03308 -0.261995,0.1635624 -0.512521,0.3402729 -0.7502745,0.5290839 0.342569,-0.12892 0.74803,-0.1865765 1.2628815,-0.185816 0.5796284,6.5e-4 0.7203599,0.04732 0.4202399,0.13869 C 8.0333228,7.1030544 7.7013663,7.2281564 7.4103193,7.3460929 7.1192728,7.4640364 6.7307028,7.5865904 6.5468828,7.6184674 6.3630644,7.6503274 6.0762159,7.6784284 5.9093644,7.6809829 l -0.083184,0.00125 c -0.064584,0.064662 -0.1280605,0.1301075 -0.1897285,0.196889 -0.1630335,0.172483 -0.3149695,0.352278 -0.456836,0.5377234 0.188108,-0.1274449 0.410315,-0.2395964 0.653317,-0.3259879 0.407341,-0.1448135 1.1097079,-0.29784 1.1622769,-0.2531975 0.01042,0.00887 -0.161354,0.1380835 -0.381754,0.287227 C 6.3930569,8.2740364 6.0748954,8.4921833 5.9063944,8.6096798 5.5990699,8.8239633 5.0130119,9.1222883 4.8147414,9.1653598 4.753037,9.1787698 4.7062995,9.1867548 4.6689,9.1898198 4.4986125,9.4911783 4.3530445,9.8030288 4.233671,10.122529 4.2989399,10.044675 4.3782755,9.9654858 4.484032,9.8702823 4.763592,9.6185978 4.9617489,9.4955208 5.4013494,9.3002793 c 0.3083895,-0.13696 0.56068,-0.2310205 0.56068,-0.2090415 0,0.02197 -0.08285,0.113876 -0.184192,0.204182 -0.202593,0.1805285 -0.4837895,0.525399 -0.648051,0.7948362 -0.1201405,0.197067 -0.5911524,0.59695 -0.9213683,0.782281 -0.1110313,0.06232 -0.1842707,0.09958 -0.2302408,0.111404 -0.098481,0.44466 -0.1480265,0.89746 -0.148137,1.350389 0.031807,-0.175906 0.084038,-0.36171 0.153404,-0.518146 0.1284094,-0.289596 0.2125856,-0.391134 0.5695922,-0.685992 0.2304515,-0.190337 0.4812659,-0.399218 0.5573044,-0.464263 l 0.1382795,-0.118294 -0.040645,0.118294 c -0.4024595,1.171494 -0.6456369,1.634384 -1.097458,2.089452 -0.1722538,0.173486 -0.2177905,0.215688 -0.2511722,0.178792 0.013449,0.136117 0.030966,0.27201 0.053748,0.407271 0.0433,0.274238 0.1073912,0.545202 0.1894588,0.81172 -0.00793,-0.243096 0.033691,-0.503957 0.1261264,-0.719754 0.1036376,-0.241939 0.775171,-1.185913 0.8168485,-1.148237 0.03747,0.03384 -0.090267,1.570827 -0.147192,1.771031 -0.072437,0.254768 -0.2908594,0.657595 -0.4253714,0.78444 -0.035225,0.03321 -0.063531,0.05651 -0.081968,0.06968 0.1795915,0.393268 0.4004359,0.77218 0.6577734,1.131629 -0.09056,-0.321997 -0.1110195,-0.72165 -0.03457,-1.08855 0.144791,-0.694882 0.389289,-1.162146 0.391612,-0.748521 4.15e-4,0.07002 0.076269,0.382692 0.1686635,0.694913 0.262909,0.888437 0.27152,1.204948 0.045915,1.689064 l -0.0478,0.10249 c 0.2362335,0.261091 0.492733,0.508286 0.7681005,0.738527 -0.0038,-0.0064 -0.00838,-0.01296 -0.011615,-0.01877 C 6.1885684,17.157162 6.1102649,16.5438 6.1571714,16.065577 l 0.03889,-0.397685 0.2445555,0.388503 c 0.1344504,0.213709 0.3010184,0.456077 0.3702754,0.538535 0.2948165,0.351019 0.3896805,0.602806 0.41916,1.112989 l 0.02201,0.379186 c 0.090725,0.05626 0.1823385,0.111455 0.275749,0.164348 0.235215,0.136174 0.47888,0.260427 0.7293439,0.372839 C 7.9319243,18.299678 7.6813603,17.820191 7.5834468,17.294154 l -0.045235,-0.242937 0.3398915,0.269814 c 1.0595019,0.840895 1.3451854,1.160134 1.4110189,1.576977 0.00806,0.05102 0.01257,0.08715 0.012565,0.114373 0.3695985,0.111156 0.7484558,0.199118 1.1328388,0.263326 -0.04601,-0.01666 -0.09109,-0.03646 -0.13882,-0.06022 -0.3380284,-0.16824 -0.8811528,-0.755535 -0.9668763,-1.045604 l -0.03552,-0.12005 0.2745345,0.112355 c 0.150947,0.06181 0.4350348,0.157292 0.6313058,0.212011 0.196271,0.05472 0.45059,0.152087 0.565136,0.216467 0.259559,0.145874 0.656693,0.566376 0.656693,0.695315 0,0.07461 -0.03063,0.08956 -0.266296,0.0817 0.574583,0.05134 1.155338,0.05083 1.729845,-0.0025 -0.0099,2.04e-4 -0.02028,6.5e-4 -0.02998,6.5e-4 l -0.376758,0.0045 0.08602,-0.174738 c 0.203063,-0.412743 0.527,-0.632819 1.231417,-0.836298 0.2118,-0.06117 0.493453,-0.158051 0.625769,-0.215381 l 0.240504,-0.104253 -0.03849,0.109521 c -0.123508,0.351613 -0.759411,0.979662 -1.132164,1.139585 0.195528,-0.03129 0.389876,-0.06832 0.582287,-0.112215 0.199223,-0.04349 0.395842,-0.09452 0.589849,-0.151782 -0.0083,-0.03302 -0.007,-0.07917 0.0012,-0.141116 0.04818,-0.363038 0.206078,-0.557609 0.980246,-1.207516 l 0.75014,-0.629683 -0.03443,0.204041 c -0.01897,0.112228 -0.09751,0.376026 -0.17447,0.586338 -0.126434,0.345489 -0.314288,0.626343 -0.559465,0.839133 0.380481,-0.164303 0.746042,-0.354717 1.092463,-0.568784 l -0.02849,-0.09872 c -0.106795,-0.369117 0.110476,-1.024554 0.500046,-1.508248 0.0802,-0.09958 0.237527,-0.330068 0.349481,-0.5122 l 0.203504,-0.33125 0.01769,0.615105 c 0.0099,0.344494 -0.01028,0.723962 -0.04578,0.862894 -0.03544,0.138741 -0.126627,0.298192 -0.249277,0.451435 0.356761,-0.279328 0.685565,-0.585437 0.981732,-0.913808 -0.03071,0.01814 -0.05626,0.02912 -0.06698,0.0235 -0.09585,-0.05032 -0.21961,-0.51552 -0.218901,-0.822926 4.85e-4,-0.194674 0.07319,-0.558171 0.194724,-0.973092 0.106705,-0.364257 0.1962,-0.726094 0.198914,-0.804152 0.0051,-0.139993 0.0065,-0.139207 0.112215,0.05607 0.125683,0.23201 0.328957,1.033034 0.328957,1.296104 0,0.100465 -0.04144,0.342916 -0.0921,0.538802 -0.0219,0.08463 -0.04406,0.154731 -0.06819,0.217004 0.230484,-0.303146 0.434767,-0.621158 0.607946,-0.952018 0.727582,-1.354648 0.902333,-2.913017 0.55501,-4.37458 -6.4e-5,0.150708 -0.01322,0.149776 -0.296275,-0.01769 -0.356218,-0.210752 -0.720488,-0.552283 -1.089362,-1.0212967 -0.184162,-0.234169 -0.41397,-0.5055145 -0.510578,-0.603081 -0.09661,-0.097573 -0.162145,-0.177445 -0.145708,-0.177445 0.109609,0 1.086284,0.472539 1.287457,0.622934 0.267949,0.2003055 0.472533,0.4261347 0.600654,0.6564267 -0.130784,-0.3929222 -0.300553,-0.7756407 -0.508828,-1.1421582 -0.01156,0.00255 -0.02541,0.0045 -0.04375,0.0045 -0.259787,-0.0013 -1.169807,-0.467143 -1.636139,-0.8376895 -0.108889,-0.086526 -0.330771,-0.2420229 -0.49303,-0.3455669 -0.32899,-0.2099345 -0.289935,-0.227144 0.263868,-0.1162695 0.599172,0.1199605 1.137152,0.362443 1.499334,0.6550724 C 18.706114,8.2479959 18.456895,7.9574354 18.182746,7.6854639 l -0.141251,-4.09e-4 c -0.461651,-0.00125 -0.97972,-0.1139265 -1.468004,-0.3190975 -0.245092,-0.1029815 -0.566062,-0.2254775 -0.713274,-0.27224 -0.358743,-0.1139455 -0.250158,-0.1631535 0.362308,-0.164067 0.604807,-6.5e-4 1.019479,0.065185 1.376719,0.234967 -0.264705,-0.213581 -0.545419,-0.4124305 -0.840073,-0.5947159 -0.0025,0.0045 -0.0057,0.00875 -0.01015,0.01271 -0.01935,0.01641 -0.129332,0.045465 -0.244558,0.064419 -0.337362,0.055555 -0.725361,0.048275 -1.379284,-0.02605 -0.337001,-0.038315 -0.706824,-0.069879 -0.82171,-0.070083 -0.114887,-2.175e-4 -0.20877,-0.017305 -0.20877,-0.037935 0,-0.020625 0.219284,-0.099802 0.487354,-0.175816 0.615291,-0.1744825 1.274426,-0.191238 1.719988,-0.04725 -0.337647,-0.210835 -0.60118,-0.378114 -0.797539,-0.506121 -0.02175,0.00862 -0.05781,0.00983 -0.114107,0.00983 -0.414261,0 -0.740714,-0.1390165 -1.157552,-0.4930235 -0.433919,-0.3685165 -0.68752,-0.6882595 -0.491945,-0.620233 0.05671,0.019735 0.27857,0.074304 0.493026,0.121264 0.875163,0.191653 1.162639,0.3800295 1.278816,0.838187 7.5e-4,0.0032 7.5e-4,0.0038 0.0015,0.00702 0.338496,0.1751455 0.75585,0.402686 1.01738,0.550284 -0.01157,-0.0095 -0.0244,-0.019145 -0.03525,-0.02847 C 16.17354,5.8901045 16.016582,5.6389245 15.876812,5.177453 l -0.09939,-0.3280125 0.119509,0.05364 c 0.06571,0.02944 0.2675,0.1383965 0.448462,0.242253 0.705372,0.404844 1.070607,0.916654 0.948647,1.329321 -0.02005,0.067783 -0.04725,0.123154 -0.06047,0.123154 -0.01986,0 -0.05147,-0.00958 -0.08737,-0.023115 0.957734,0.6453219 1.750527,1.4659554 2.313212,2.4065248 -0.09209,-0.2054265 -0.147438,-0.4491925 -0.147867,-0.6878884 -4.85e-4,-0.2855545 0.03934,-0.4653675 0.187701,-0.847639 L 19.687495,6.9606364 19.8463,7.3587309 c 0.426447,1.0698979 0.440381,1.4072524 0.07967,1.9264579 l -0.114112,0.164341 -0.124099,-0.122611 c -0.0334,-0.032955 -0.06493,-0.070651 -0.0948,-0.1114105 0.221946,0.406192 0.401709,0.8328947 0.53448,1.2761177 0.0038,-0.08906 0.0166,-0.174674 0.03998,-0.258466 0.08027,-0.2880452 0.300145,-0.7348562 0.414704,-0.8426402 0.0424,-0.03991 0.162706,-0.1932935 0.267239,-0.3408405 0.184769,-0.2607905 0.190012,-0.264111 0.191346,-0.1182885 6.5e-4,0.082496 0.02088,0.3857195 0.0447,0.673841 0.06998,0.8460752 -0.107579,1.3563212 -0.552174,1.5865682 -0.125759,0.06513 -0.186314,0.09345 -0.226186,0.07265 0.05817,0.345572 0.08939,0.69875 0.08939,1.058301 0,0.04055 -0.0013,0.08098 -0.002,0.121398 0.13869,-0.316735 0.700021,-1.021138 0.925824,-1.153908 0.07489,-0.04406 0.226519,-0.143812 0.337061,-0.22187 0.154207,-0.108882 0.191729,-0.121046 0.161097,-0.05211 -0.02197,0.04943 -0.0776,0.283504 -0.123696,0.520304 -0.163869,0.841994 -0.451454,1.32344 -0.9608,1.608311 -0.167699,0.09379 -0.338982,0.170548 -0.380674,0.170548 -0.01239,0 -0.02292,-0.007 -0.03225,-0.01807 -0.06207,0.401646 -0.161755,0.79301 -0.296275,1.171188 0.177157,-0.238588 0.397558,-0.449314 0.603891,-0.55568 0.107445,-0.05536 0.341786,-0.187247 0.520846,-0.292904 0.179067,-0.105651 0.443753,-0.249692 0.588094,-0.320177 l 0.26238,-0.128148 -0.33206,0.56932 c -0.182611,0.313096 -0.420024,0.681816 -0.527596,0.819415 -0.238498,0.305055 -0.638444,0.571778 -1.037772,0.692211 -0.334851,0.100983 -0.424857,0.122145 -0.43077,0.03014 -0.225114,0.437527 -0.498375,0.852364 -0.814287,1.239253 0.124968,-0.111194 0.25346,-0.212343 0.358932,-0.277234 0.350458,-0.215606 0.973366,-0.45745 1.332968,-0.517469 0.17217,-0.02873 0.4075,-0.08287 0.523004,-0.120318 0.295605,-0.09585 0.306704,-0.08782 0.118027,0.08561 -0.092,0.08456 -0.278217,0.279238 -0.413759,0.432526 -0.251716,0.284679 -0.824542,0.705973 -1.160657,0.853584 -0.102995,0.04521 -0.340969,0.111098 -0.528809,0.146378 -0.187848,0.03531 -0.391652,0.05492 -0.452923,0.04374 -0.0613,-0.01118 -0.155989,-0.02056 -0.210388,-0.02095 -0.08131,-5.5e-4 -0.08732,-0.01405 -0.03417,-0.105056 -1.319948,1.341397 -3.191259,2.262676 -5.309314,2.498619 0.210872,0.03448 0.426588,0.08178 0.596331,0.136385 0.291911,0.09392 1.921652,0.767767 1.921735,0.794569 7.6e-5,0.02758 -1.081206,-0.02069 -1.426008,-0.0636 -0.489462,-0.06098 -1.128767,-0.241346 -1.390088,-0.392151 -0.108298,-0.06252 -0.282895,-0.198913 -0.387967,-0.303166 L 12.27681,19.596777 c -0.0915,0.0025 -0.183262,0.0045 -0.275478,0.0045 -0.102274,0 -0.20393,-0.002 -0.305323,-0.0051 l -0.289523,0.230101 c -0.315093,0.25033 -0.419487,0.30178 -0.827652,0.408363 -0.6822319,0.17814 -0.7379534,0.186583 -1.4697603,0.223217 -0.3676385,0.01839 -0.69969,0.03691 -0.737986,0.04106 -0.038295,0.0038 -0.069681,-0.0025 -0.069681,-0.01539 0,-0.03072 0.493874,-0.24005 0.6684415,-0.283313 0.076591,-0.01897 0.2287385,-0.08579 0.3381375,-0.148543 C 9.6792552,19.8387 10.35704,19.633331 10.901982,19.539328 7.8479808,19.192522 5.3087329,17.42107 4.2020406,15.020394 c 0.051979,0.127075 0.08872,0.230484 0.08872,0.257112 0,0.09441 -0.07975,0.09134 -0.4257767,-0.01609 C 3.4677355,15.138013 3.09385,14.908129 2.8677459,14.648118 2.6745248,14.425922 1.9445768,13.220891 2.0033639,13.221166 c 0.036827,2.1e-4 0.7454644,0.372967 1.1799671,0.620776 0.4640814,0.264672 0.7228795,0.532525 0.9181277,0.948646 C 3.8943733,14.292877 3.7480339,13.77009 3.670415,13.228861 3.651904,13.365188 3.5489745,13.323271 3.2300542,13.161611 2.7234849,12.904837 2.4048673,12.397082 2.2535904,11.605291 2.2105634,11.380076 2.1506574,11.14046 2.1204424,11.07297 c -0.030217,-0.06749 -0.034476,-0.122617 -0.00945,-0.122617 0.080816,0 0.9207011,0.727033 1.1166341,0.96661 0.202292,0.247355 0.3243356,0.490176 0.3887765,0.778629 -0.00719,-0.123422 -0.010806,-0.247604 -0.010806,-0.372571 0,-2.3739012 1.3144869,-4.4822096 3.3450428,-5.811117 C 6.8465968,6.556666 6.7427273,6.5872315 6.7139163,6.580373 6.6329738,6.561088 6.6119768,6.2231145 6.6797513,6.030223 6.7688538,5.7766295 7.2532628,5.326384 7.7026683,5.079284 7.9247903,4.957152 8.1146883,4.863832 8.1247992,4.8719995 8.1563542,4.8974745 7.9706003,5.466421 7.8640388,5.67048 7.7711953,5.84827 7.4850333,6.139507 7.2340838,6.3333885 7.3836113,6.2437275 7.5366133,6.157962 7.6929458,6.076679 7.8436758,6.016462 8.1344417,5.880626 8.4216142,5.746642 c -0.00613,-0.01284 -0.00878,-0.028735 -0.00878,-0.04885 0,-0.333701 0.4122285,-0.6863745 0.9547235,-0.8168465 C 9.5623882,4.8340755 9.8437501,4.7636025 9.9926516,4.724433 10.104328,4.695058 10.205373,4.67354 10.253141,4.6682395 Z m -4.1698571,0.960121 -0.01971,0.6149715 c -0.017725,0.5502649 -0.035855,0.6440639 -0.1716345,0.8916549 -0.089443,0.163103 -0.260589,0.361984 -0.4168635,0.4843845 -0.1458245,0.1142205 -0.282987,0.2079555 -0.304783,0.20823 -0.085812,0.00125 -0.1665365,-0.4144805 -0.135714,-0.698419 0.04632,-0.4266895 0.2148095,-0.6877099 0.834809,-1.2923169 z M 17.89175,5.6484655 18.249193,6.016714 c 0.19664,0.202489 0.421895,0.4777685 0.500592,0.611861 0.159194,0.2712569 0.208651,0.6682149 0.124367,0.9980724 -0.02822,0.110574 -0.07652,0.2010715 -0.107356,0.2010715 -0.03084,0 -0.188677,-0.111736 -0.350828,-0.248338 C 17.962962,7.1977674 17.767318,6.6345395 17.85272,5.957295 Z M 4.2234069,7.0623189 c 0.030076,-0.00255 0.1035341,0.1159445 0.1945901,0.315988 0.153739,0.337763 0.1726335,0.4343975 0.17582,0.89882 0.0033,0.4839309 -0.00764,0.5385534 -0.1562385,0.7805194 C 4.349694,9.2007488 4.2504258,9.3466803 4.2170593,9.3818778 4.1674038,9.4342403 4.1388848,9.4273428 4.0597397,9.3443328 3.9155671,9.1931198 3.7338864,8.7472223 3.7349721,8.5473318 3.7361921,8.3234954 3.9692403,7.6040999 4.2132787,7.0708204 c 0.00244,-0.00511 0.00581,-0.00817 0.010128,-0.00849 z m -1.30866,1.7598244 0.2433402,0.318823 c 0.1338282,0.1753375 0.3243744,0.4571875 0.4234809,0.626312 0.1688181,0.2880827 0.1802865,0.3387907 0.1798715,0.8041527 -2.765e-4,0.315483 -0.026358,0.535616 -0.071571,0.603215 -0.03915,0.05856 -0.086238,0.10641 -0.1045197,0.10641 -0.1112146,0 -0.4022717,-0.211652 -0.501128,-0.364333 C 2.8431056,10.544336 2.7831078,10.092921 2.8670786,9.2828933 Z M 18.718048,10.600466 c 0,-0.01328 0.225918,0.159597 0.502072,0.384047 0.542015,0.44054 0.712685,0.675015 0.866547,1.190638 0.06143,0.205772 0.07837,0.383842 0.05307,0.555821 -0.0205,0.139182 -0.05549,0.253057 -0.07791,0.253057 -0.05019,0 -0.56013,-0.576383 -0.713948,-0.806988 -0.100134,-0.150114 -0.269673,-0.559882 -0.540834,-1.307042 -0.04898,-0.13498 -0.08899,-0.256263 -0.08899,-0.269533 z m 0.177981,1.726606 c 0.07681,-0.02861 0.712403,0.856151 0.824274,1.163761 0.146742,0.403472 0.14491,0.833756 -0.0051,1.174023 -0.114961,0.26095 -0.118601,0.263804 -0.22876,0.1792 -0.136161,-0.104584 -0.304685,-0.377877 -0.414027,-0.671682 -0.06408,-0.172195 -0.175408,-1.276326 -0.184194,-1.826943 -1.34e-4,-0.01047 0.0025,-0.01647 0.0077,-0.01839 z M 2.6214433,15.556114 c 0.042644,0.0019 0.1193097,0.01724 0.2278104,0.04751 0.1342885,0.03749 0.3807239,0.09214 0.5477159,0.121404 0.4506546,0.07898 1.2026714,0.415662 1.5691498,0.702602 0.2654165,0.207815 0.6060535,0.595246 0.6060535,0.689242 0,0.01315 -0.069019,0.03294 -0.15327,0.044 C 5.1312944,17.198612 4.485172,17.069736 4.2271879,16.923204 3.5427797,16.534461 3.364821,16.393676 3.0389825,15.982925 2.933545,15.850007 2.7813371,15.704568 2.7008458,15.659779 2.5736269,15.588981 2.550369,15.55324 2.6214433,15.556069 Z m 17.3080347,2.081617 c 0.06335,-3.45e-4 0.103996,0.0026 0.114514,0.0088 0.0093,0.0057 -0.261148,0.173652 -0.601057,0.373242 -0.613898,0.360489 -0.780059,0.430451 -1.421282,0.599441 -0.383376,0.101034 -0.96085,0.08739 -1.293129,-0.03053 l -0.199857,-0.0709 0.217277,-0.162043 c 0.119547,-0.08915 0.380312,-0.229564 0.579449,-0.311939 0.199137,-0.08238 0.401568,-0.16664 0.449818,-0.187298 0.153959,-0.06593 1.711019,-0.216493 2.154267,-0.218766 z m -15.8789208,0.01795 c 0.1553407,-0.002 0.4859838,0.01762 1.0928672,0.06079 0.754192,0.05358 1.270047,0.186142 1.7270094,0.44374 0.4129915,0.232802 0.510489,0.328657 0.407952,0.40093 -0.043465,0.03065 -0.18819,0.07386 -0.3216625,0.09614 -0.4912435,0.08202 -0.9148294,0.03256 -1.5393054,-0.179872 C 5.1496504,18.386323 4.002426,17.7683 3.938475,17.680682 c -0.011233,-0.01539 0.018877,-0.02401 0.1120822,-0.02497 z m 4.090185,1.431001 c 0.3725265,0 1.098799,0.127317 1.316492,0.230784 0.104195,0.04955 -0.2597235,0.261269 -0.6581785,0.382967 -0.2165945,0.06616 -0.45123,0.0929 -0.8263019,0.09413 -0.456898,0.0012 -0.626213,-0.02407 -1.3249985,-0.199456 -0.7120679,-0.178703 -0.7807539,-0.204744 -0.6180719,-0.23429 0.8629709,-0.15673 1.7676029,-0.27413 2.1110588,-0.27413 z m 7.7003078,0.0092 c 0.295375,0.0025 0.606133,0.0297 0.916645,0.08237 0.296939,0.05038 0.72405,0.117994 0.949183,0.150299 l 0.409436,0.05875 -0.242259,0.05753 c -0.133224,0.03161 -0.492929,0.122004 -0.799293,0.200937 -0.964944,0.248601 -2.006281,0.176474 -2.475393,-0.171365 l -0.17906,-0.132745 0.14341,-0.05549 c 0.335319,-0.129756 0.785038,-0.194367 1.277331,-0.190273 z"/>
 <path style="opacity:0.1;fill:#8b9cbe" d="M 12,2.0000012 A 9.9999994,9.9999994 0 0 0 2.0000006,12.000001 9.9999994,9.9999994 0 0 0 2.0107428,12.291016 9.9999994,9.9999994 0 0 1 12,2.5000012 9.9999994,9.9999994 0 0 1 21.989257,12.208985 9.9999994,9.9999994 0 0 0 21.999999,12.000001 9.9999994,9.9999994 0 0 0 12,2.0000012 Z"/>
 <path style="fill:#d47f00" d="m 10.253286,4.1677793 c 0.01592,-0.00195 0.02585,-0.00195 0.02836,4.085e-4 0.03978,0.033785 -0.5860738,0.6851175 -0.7926773,0.824951 C 9.3678402,5.0751238 9.1576477,5.1751865 9.0218697,5.215544 8.8875737,5.255454 8.6984562,5.288966 8.5979837,5.290901 8.3965032,5.408078 8.1145628,5.568652 7.7857268,5.7544875 8.0379688,5.6974635 8.3301467,5.6709945 8.5773232,5.6924825 8.9227382,5.7225575 9.7281707,5.920853 9.8222441,5.99902 9.8467141,6.01933 9.6586787,6.052085 9.4044347,6.071669 9.1501912,6.091274 8.7917962,6.124734 8.6079762,6.145941 8.2482657,6.187511 7.4442443,6.171291 7.2850033,6.119311 c -0.03201,-0.01041 -0.054763,-0.021325 -0.06995,-0.03308 -0.261995,0.1635625 -0.512521,0.340273 -0.7502745,0.529084 0.342569,-0.12892 0.74803,-0.1865765 1.2628815,-0.185816 0.5796284,6.5e-4 0.7203599,0.04732 0.4202399,0.13869 C 8.0333228,6.6030545 7.7013663,6.7281564 7.4103193,6.8460929 7.1192728,6.9640364 6.7307028,7.0865904 6.5468828,7.1184674 6.3630644,7.1503274 6.0762159,7.1784284 5.9093644,7.1809829 l -0.083184,0.00125 c -0.064584,0.064662 -0.1280605,0.1301075 -0.1897285,0.196889 -0.1630335,0.172483 -0.3149695,0.352278 -0.456836,0.5377235 0.188108,-0.127445 0.410315,-0.2395965 0.653317,-0.325988 0.407341,-0.1448135 1.1097079,-0.29784 1.1622769,-0.2531975 0.01042,0.00887 -0.161354,0.1380835 -0.381754,0.287227 C 6.3930569,7.7740364 6.0748954,7.9921834 5.9063944,8.1096799 5.5990699,8.3239634 5.0130119,8.6222883 4.8147414,8.6653598 4.753037,8.6787698 4.7062995,8.6867548 4.6689,8.6898198 4.4986125,8.9911783 4.3530445,9.3030288 4.233671,9.6225288 4.2989399,9.5446748 4.3782755,9.4654858 4.484032,9.3702823 4.763592,9.1185978 4.9617489,8.9955208 5.4013494,8.8002793 c 0.3083895,-0.13696 0.56068,-0.2310205 0.56068,-0.2090415 0,0.02197 -0.08285,0.113876 -0.184192,0.204182 -0.202593,0.1805285 -0.4837895,0.525399 -0.648051,0.794836 -0.1201405,0.1970675 -0.5911524,0.5969502 -0.9213683,0.7822812 -0.1110313,0.06232 -0.1842707,0.09958 -0.2302408,0.111404 -0.098481,0.44466 -0.1480265,0.89746 -0.148137,1.350389 0.031807,-0.175906 0.084038,-0.36171 0.153404,-0.518146 0.1284094,-0.289596 0.2125856,-0.391134 0.5695922,-0.685992 0.2304515,-0.190337 0.4812659,-0.399218 0.5573044,-0.464263 l 0.1382795,-0.118294 -0.040645,0.118294 c -0.4024595,1.171494 -0.6456369,1.634384 -1.097458,2.089452 -0.1722538,0.173486 -0.2177905,0.215688 -0.2511722,0.178792 0.013449,0.136117 0.030966,0.27201 0.053748,0.407271 0.0433,0.274238 0.1073912,0.545202 0.1894588,0.81172 -0.00793,-0.243096 0.033691,-0.503957 0.1261264,-0.719754 0.1036376,-0.241939 0.775171,-1.185913 0.8168485,-1.148237 0.03747,0.03384 -0.090267,1.570827 -0.147192,1.771031 -0.072437,0.254768 -0.2908594,0.657595 -0.4253714,0.78444 -0.035225,0.03321 -0.063531,0.05651 -0.081968,0.06968 0.1795915,0.393268 0.4004359,0.77218 0.6577734,1.131629 -0.09056,-0.321997 -0.1110195,-0.72165 -0.03457,-1.08855 0.144791,-0.694881 0.389289,-1.162146 0.391612,-0.748521 4.15e-4,0.07002 0.076269,0.382693 0.1686635,0.694913 0.262909,0.888437 0.27152,1.204948 0.045915,1.689064 l -0.0478,0.10249 c 0.2362335,0.261091 0.492733,0.508286 0.7681005,0.738527 -0.0038,-0.0064 -0.00838,-0.01296 -0.011615,-0.01877 C 6.1885684,16.657162 6.1102649,16.0438 6.1571714,15.565577 l 0.03889,-0.397685 0.2445555,0.388503 c 0.1344504,0.213709 0.3010184,0.456077 0.3702754,0.538535 0.2948165,0.351019 0.3896805,0.602806 0.41916,1.112989 l 0.02201,0.379186 c 0.090725,0.05626 0.1823385,0.111455 0.275749,0.164348 0.235215,0.136174 0.47888,0.260427 0.7293439,0.372839 C 7.9319243,17.799678 7.6813603,17.320191 7.5834468,16.794154 l -0.045235,-0.242937 0.3398915,0.269814 c 1.0595019,0.840895 1.3451854,1.160134 1.4110189,1.576977 0.00806,0.05102 0.01257,0.08715 0.012565,0.114373 0.3695985,0.111156 0.7484558,0.199118 1.1328388,0.263326 -0.04601,-0.01666 -0.09109,-0.03646 -0.13882,-0.06022 -0.3380284,-0.16824 -0.8811528,-0.755535 -0.9668763,-1.045604 l -0.03552,-0.12005 0.2745345,0.112355 c 0.150947,0.06181 0.4350348,0.157292 0.6313058,0.212011 0.196271,0.05472 0.45059,0.152087 0.565136,0.216467 0.259559,0.145874 0.656693,0.566376 0.656693,0.695315 0,0.07461 -0.03063,0.08956 -0.266296,0.0817 0.574583,0.05134 1.155338,0.05083 1.729845,-0.0025 -0.0099,2.04e-4 -0.02028,6.5e-4 -0.02998,6.5e-4 l -0.376758,0.0045 0.08602,-0.174738 c 0.203063,-0.412743 0.527,-0.632819 1.231417,-0.836298 0.2118,-0.06117 0.493453,-0.158051 0.625769,-0.215381 l 0.240504,-0.104253 -0.03849,0.109521 c -0.123508,0.351613 -0.759411,0.979662 -1.132164,1.139585 0.195528,-0.03129 0.389876,-0.06832 0.582287,-0.112215 0.199223,-0.04349 0.395842,-0.09452 0.589849,-0.151782 -0.0083,-0.03302 -0.007,-0.07917 0.0012,-0.141116 0.04818,-0.363038 0.206078,-0.557609 0.980246,-1.207516 l 0.75014,-0.629683 -0.03443,0.204041 c -0.01897,0.112228 -0.09751,0.376026 -0.17447,0.586338 -0.126434,0.345489 -0.314288,0.626343 -0.559465,0.839133 0.380481,-0.164303 0.746042,-0.354717 1.092463,-0.568784 l -0.02849,-0.09872 c -0.106795,-0.369117 0.110476,-1.024554 0.500046,-1.508248 0.0802,-0.09958 0.237527,-0.330068 0.349481,-0.5122 l 0.203504,-0.33125 0.01769,0.615105 c 0.0099,0.344494 -0.01028,0.723962 -0.04578,0.862894 -0.03544,0.138741 -0.126627,0.298192 -0.249277,0.451435 0.356761,-0.279328 0.685565,-0.585437 0.981732,-0.913808 -0.03071,0.01814 -0.05626,0.02912 -0.06698,0.0235 -0.09585,-0.05032 -0.21961,-0.51552 -0.218901,-0.822926 4.85e-4,-0.194674 0.07319,-0.558171 0.194724,-0.973092 0.106705,-0.364257 0.1962,-0.726094 0.198914,-0.804152 0.0051,-0.139993 0.0065,-0.139207 0.112215,0.05607 0.125683,0.232011 0.328957,1.033034 0.328957,1.296104 0,0.100465 -0.04144,0.342916 -0.0921,0.538802 -0.0219,0.08463 -0.04406,0.154731 -0.06819,0.217004 0.230484,-0.303146 0.434767,-0.621158 0.607946,-0.952018 0.727582,-1.354648 0.902333,-2.913017 0.55501,-4.37458 -6.4e-5,0.150708 -0.01322,0.149776 -0.296275,-0.01769 -0.356218,-0.210752 -0.720488,-0.5522827 -1.089362,-1.0212967 -0.184162,-0.234169 -0.41397,-0.5055145 -0.510578,-0.603081 -0.09661,-0.097573 -0.162145,-0.177445 -0.145708,-0.177445 0.109609,0 1.086284,0.472539 1.287457,0.622934 0.267949,0.2003055 0.472533,0.4261345 0.600654,0.656427 -0.130784,-0.3929225 -0.300553,-0.775641 -0.508828,-1.1421585 -0.01156,0.00255 -0.02541,0.0045 -0.04375,0.0045 C 19.033002,8.6980428 18.122982,8.2322009 17.65665,7.8616544 17.547761,7.7751284 17.325879,7.6196314 17.16362,7.5160874 16.83463,7.3061529 16.873685,7.2889434 17.427488,7.3998179 18.02666,7.5197784 18.56464,7.7622609 18.926822,8.0548904 18.706126,7.7480469 18.456907,7.4574864 18.182758,7.1855149 l -0.141251,-4.09e-4 C 17.579844,7.1838049 17.061775,7.0711284 16.573491,6.8659574 16.328399,6.7629759 16.007429,6.64048 15.860217,6.5937175 15.501474,6.479772 15.610059,6.430564 16.222525,6.4296505 c 0.604807,-6.5e-4 1.019479,0.065185 1.376719,0.234967 -0.264705,-0.213581 -0.545419,-0.4124305 -0.840073,-0.594716 -0.0025,0.0045 -0.0057,0.00875 -0.01015,0.01271 -0.01935,0.01641 -0.129332,0.045465 -0.244558,0.064419 -0.337362,0.055555 -0.725361,0.048275 -1.379284,-0.02605 -0.337001,-0.038315 -0.706824,-0.069879 -0.82171,-0.070083 -0.114887,-2.175e-4 -0.20877,-0.017305 -0.20877,-0.037935 0,-0.020625 0.219284,-0.099802 0.487354,-0.175816 0.615291,-0.1744825 1.274426,-0.191238 1.719988,-0.04725 -0.337647,-0.210835 -0.60118,-0.378114 -0.797539,-0.506121 -0.02175,0.00862 -0.05781,0.00983 -0.114107,0.00983 -0.414261,0 -0.740714,-0.1390165 -1.157552,-0.4930237 -0.433919,-0.3685165 -0.68752,-0.6882595 -0.491945,-0.620233 0.05671,0.019735 0.27857,0.074304 0.493026,0.121264 0.875163,0.191653 1.162639,0.3800295 1.278816,0.8381872 7.5e-4,0.0032 7.5e-4,0.0038 0.0015,0.00702 0.338496,0.1751455 0.75585,0.402686 1.01738,0.550284 -0.01157,-0.0095 -0.0244,-0.019145 -0.03525,-0.02847 C 16.17354,5.3901045 16.016582,5.1389245 15.876812,4.6774528 l -0.09939,-0.3280125 0.119509,0.05364 c 0.06571,0.02944 0.2675,0.1383965 0.448462,0.242253 0.705372,0.4048442 1.070607,0.9166542 0.948647,1.3293212 -0.02005,0.067783 -0.04725,0.123154 -0.06047,0.123154 -0.01986,0 -0.05147,-0.00958 -0.08737,-0.023115 0.957734,0.6453219 1.750527,1.4659554 2.313212,2.4065248 -0.09209,-0.2054264 -0.147438,-0.4491924 -0.147867,-0.6878884 -4.85e-4,-0.2855545 0.03934,-0.4653675 0.187701,-0.847639 L 19.687495,6.4606365 19.8463,6.8587309 c 0.426447,1.069898 0.440381,1.4072525 0.07967,1.9264579 l -0.114112,0.164341 -0.124099,-0.122611 c -0.0334,-0.032955 -0.06493,-0.070651 -0.0948,-0.1114105 0.221946,0.406192 0.401709,0.8328945 0.53448,1.276117 0.0038,-0.089054 0.0166,-0.1746735 0.03998,-0.258466 0.08027,-0.2880445 0.300145,-0.7348555 0.414704,-0.8426395 0.0424,-0.03991 0.162706,-0.1932935 0.267239,-0.3408405 0.184769,-0.2607904 0.190012,-0.2641109 0.191346,-0.1182885 6.5e-4,0.082496 0.02088,0.3857195 0.0447,0.673841 0.06998,0.8460745 -0.107579,1.3563202 -0.552174,1.5865672 -0.125759,0.06513 -0.186314,0.09345 -0.226186,0.07265 0.05817,0.345573 0.08939,0.698751 0.08939,1.058302 0,0.04055 -0.0013,0.08098 -0.002,0.121398 0.13869,-0.316735 0.700021,-1.021138 0.925824,-1.153908 0.07489,-0.04406 0.226519,-0.143812 0.337061,-0.22187 0.154207,-0.108882 0.191729,-0.121046 0.161097,-0.05211 -0.02197,0.04943 -0.0776,0.283504 -0.123696,0.520304 -0.163869,0.841994 -0.451454,1.32344 -0.9608,1.608311 -0.167699,0.09379 -0.338982,0.170548 -0.380674,0.170548 -0.01239,0 -0.02292,-0.007 -0.03225,-0.01807 -0.06207,0.401646 -0.161755,0.79301 -0.296275,1.171188 0.177157,-0.238588 0.397558,-0.449314 0.603891,-0.55568 0.107445,-0.05536 0.341786,-0.187247 0.520846,-0.292904 0.179067,-0.105651 0.443753,-0.249692 0.588094,-0.320177 l 0.26238,-0.128148 -0.33206,0.56932 c -0.182611,0.313096 -0.420024,0.681817 -0.527596,0.819415 -0.238498,0.305055 -0.638444,0.571778 -1.037772,0.692211 -0.334851,0.100983 -0.424857,0.122145 -0.43077,0.03014 -0.225114,0.437527 -0.498375,0.852364 -0.814287,1.239253 0.124968,-0.111194 0.25346,-0.212343 0.358932,-0.277234 0.350458,-0.215606 0.973366,-0.45745 1.332968,-0.517469 0.17217,-0.02873 0.4075,-0.08287 0.523004,-0.120318 0.295605,-0.09585 0.306704,-0.08782 0.118027,0.08561 -0.092,0.08456 -0.278217,0.279238 -0.413759,0.432526 -0.251716,0.284679 -0.824542,0.705973 -1.160657,0.853584 -0.102995,0.04521 -0.340969,0.111097 -0.528809,0.146378 -0.187848,0.03531 -0.391652,0.05492 -0.452923,0.04374 -0.0613,-0.01118 -0.155989,-0.02056 -0.210388,-0.02095 -0.08131,-5.5e-4 -0.08732,-0.01405 -0.03417,-0.105056 -1.319948,1.341397 -3.191259,2.262676 -5.309314,2.498619 0.210872,0.03448 0.426588,0.08178 0.596331,0.136385 0.291911,0.09392 1.921652,0.767767 1.921735,0.794568 7.6e-5,0.02758 -1.081206,-0.02069 -1.426008,-0.0636 -0.489462,-0.06098 -1.128767,-0.241346 -1.390088,-0.39215 -0.108298,-0.06252 -0.282895,-0.198914 -0.387967,-0.303166 L 12.27681,19.096777 c -0.0915,0.0025 -0.183262,0.0045 -0.275478,0.0045 -0.102274,0 -0.20393,-0.002 -0.305323,-0.0051 l -0.289523,0.230101 c -0.315093,0.25033 -0.419487,0.30178 -0.827652,0.408363 -0.6822319,0.17814 -0.7379534,0.186583 -1.4697603,0.223217 -0.3676385,0.01839 -0.69969,0.03691 -0.737986,0.04106 -0.038295,0.0038 -0.069681,-0.0025 -0.069681,-0.01539 0,-0.03072 0.493874,-0.24005 0.6684415,-0.283313 0.076591,-0.01897 0.2287385,-0.08579 0.3381375,-0.148543 C 9.6792552,19.3387 10.35704,19.133331 10.901982,19.039328 7.8479808,18.692522 5.3087329,16.92107 4.2020406,14.520394 c 0.051979,0.127075 0.08872,0.230484 0.08872,0.257112 0,0.09441 -0.07975,0.09134 -0.4257767,-0.01609 C 3.4677355,14.638013 3.09385,14.408129 2.8677459,14.148118 2.6745248,13.925923 1.9445768,12.720891 2.0033639,12.721166 c 0.036827,2.1e-4 0.7454644,0.372967 1.1799671,0.620776 0.4640814,0.264672 0.7228795,0.532525 0.9181277,0.948646 C 3.8943733,13.792877 3.7480339,13.27009 3.670415,12.728861 3.651904,12.865188 3.5489745,12.823271 3.2300542,12.661611 2.7234849,12.404837 2.4048673,11.897082 2.2535904,11.105291 2.2105634,10.880076 2.1506574,10.64046 2.1204424,10.57297 c -0.030217,-0.06749 -0.034476,-0.122617 -0.00945,-0.122617 0.080816,0 0.9207011,0.727033 1.1166341,0.96661 0.202292,0.247355 0.3243356,0.490176 0.3887765,0.778629 -0.00719,-0.123422 -0.010806,-0.247604 -0.010806,-0.372571 0,-2.3739012 1.3144869,-4.4822096 3.3450428,-5.811117 C 6.8465968,6.056666 6.7427273,6.0872315 6.7139163,6.080373 6.6329738,6.061088 6.6119768,5.7231145 6.6797513,5.530223 6.7688538,5.2766295 7.2532628,4.8263838 7.7026683,4.5792838 7.9247903,4.4571518 8.1146883,4.3638318 8.1247992,4.3719993 8.1563542,4.3974743 7.9706003,4.9664208 7.8640388,5.17048 7.7711953,5.34827 7.4850333,5.639507 7.2340838,5.8333885 7.3836113,5.7437275 7.5366133,5.657962 7.6929458,5.576679 7.8436758,5.516462 8.1344417,5.380626 8.4216142,5.246642 c -0.00613,-0.01284 -0.00878,-0.028735 -0.00878,-0.04885 0,-0.3337012 0.4122285,-0.6863747 0.9547235,-0.8168467 0.1948305,-0.04687 0.4761924,-0.117343 0.6250939,-0.1565125 0.1116764,-0.029375 0.2127214,-0.050893 0.2604894,-0.056194 z M 6.0834289,5.1279005 6.0637189,5.742872 C 6.0459939,6.293137 6.0278639,6.386936 5.8920844,6.634527 5.8026409,6.7976299 5.6314954,6.9965109 5.4752209,7.1189114 5.3293964,7.2331319 5.1922339,7.3268669 5.1704379,7.3271414 5.0846254,7.3283914 5.0039014,6.9126609 5.0347239,6.6287225 5.0810439,6.202033 5.2495334,5.9410125 5.8695329,5.3364055 Z M 17.89175,5.1484655 18.249193,5.516714 c 0.19664,0.202489 0.421895,0.4777685 0.500592,0.611861 0.159194,0.271257 0.208651,0.6682149 0.124367,0.9980724 -0.02822,0.110574 -0.07652,0.2010715 -0.107356,0.2010715 -0.03084,0 -0.188677,-0.111736 -0.350828,-0.248338 C 17.962962,6.6977674 17.767318,6.1345395 17.85272,5.457295 Z M 4.2234069,6.562319 c 0.030076,-0.00255 0.1035341,0.1159444 0.1945901,0.3159879 0.153739,0.337763 0.1726335,0.4343975 0.17582,0.89882 0.0033,0.483931 -0.00764,0.5385535 -0.1562385,0.7805194 C 4.349694,8.7007488 4.2504258,8.8466803 4.2170593,8.8818778 4.1674038,8.9342403 4.1388848,8.9273428 4.0597397,8.8443328 3.9155671,8.6931198 3.7338864,8.2472224 3.7349721,8.0473319 c 0.00122,-0.2238365 0.2342682,-0.943232 0.4783066,-1.4765114 0.00244,-0.00511 0.00581,-0.00817 0.010128,-0.00849 z m -1.30866,1.7598244 0.2433402,0.3188229 c 0.1338282,0.1753375 0.3243744,0.4571875 0.4234809,0.626312 0.1688181,0.2880825 0.1802865,0.338791 0.1798715,0.8041527 -2.765e-4,0.315483 -0.026358,0.535616 -0.071571,0.603215 -0.03915,0.05856 -0.086238,0.10641 -0.1045197,0.10641 -0.1112146,0 -0.4022717,-0.211652 -0.501128,-0.364333 C 2.8431056,10.044336 2.7831078,9.5929208 2.8670786,8.7828933 Z M 18.718048,10.100466 c 0,-0.01328 0.225918,0.159597 0.502072,0.384047 0.542015,0.44054 0.712685,0.675015 0.866547,1.190638 0.06143,0.205772 0.07837,0.383842 0.05307,0.555821 -0.0205,0.139182 -0.05549,0.253057 -0.07791,0.253057 -0.05019,0 -0.56013,-0.576383 -0.713948,-0.806988 -0.100134,-0.150114 -0.269673,-0.559882 -0.540834,-1.307042 -0.04898,-0.13498 -0.08899,-0.256263 -0.08899,-0.269533 z m 0.177981,1.726606 c 0.07681,-0.02861 0.712403,0.856151 0.824274,1.163761 0.146742,0.403472 0.14491,0.833757 -0.0051,1.174023 -0.114961,0.26095 -0.118601,0.263804 -0.22876,0.1792 -0.136161,-0.104584 -0.304685,-0.377877 -0.414027,-0.671681 -0.06408,-0.172196 -0.175408,-1.276327 -0.184194,-1.826944 -1.34e-4,-0.01047 0.0025,-0.01647 0.0077,-0.01839 z M 2.6214433,15.056114 c 0.042644,0.0019 0.1193097,0.01724 0.2278104,0.04751 0.1342885,0.03749 0.3807239,0.09214 0.5477159,0.121404 0.4506546,0.07898 1.2026714,0.415662 1.5691498,0.702602 0.2654165,0.207815 0.6060535,0.595246 0.6060535,0.689242 0,0.01315 -0.069019,0.03294 -0.15327,0.044 C 5.1312944,16.698612 4.485172,16.569736 4.2271879,16.423204 3.5427797,16.034461 3.364821,15.893676 3.0389825,15.482925 2.933545,15.350007 2.7813371,15.204568 2.7008458,15.159779 2.5736269,15.088981 2.550369,15.05324 2.6214433,15.056069 Z m 17.3080347,2.081617 c 0.06335,-3.45e-4 0.103996,0.0026 0.114514,0.0088 0.0093,0.0057 -0.261148,0.173652 -0.601057,0.373242 -0.613898,0.360489 -0.780059,0.430451 -1.421282,0.599441 -0.383376,0.101034 -0.96085,0.08739 -1.293129,-0.03053 l -0.199857,-0.0709 0.217277,-0.162043 c 0.119547,-0.08915 0.380312,-0.229564 0.579449,-0.311939 0.199137,-0.08238 0.401568,-0.16664 0.449818,-0.187298 0.153959,-0.06593 1.711019,-0.216493 2.154267,-0.218766 z m -15.8789208,0.01795 c 0.1553407,-0.002 0.4859838,0.01762 1.0928672,0.06079 0.754192,0.05358 1.270047,0.186142 1.7270094,0.44374 0.4129915,0.232802 0.510489,0.328657 0.407952,0.40093 -0.043465,0.03065 -0.18819,0.07386 -0.3216625,0.09614 -0.4912435,0.08202 -0.9148294,0.03256 -1.5393054,-0.179872 C 5.1496504,17.886323 4.002426,17.2683 3.938475,17.180682 c -0.011233,-0.01539 0.018877,-0.02401 0.1120822,-0.02497 z m 4.090185,1.431001 c 0.3725265,0 1.098799,0.127317 1.316492,0.230784 0.104195,0.04955 -0.2597235,0.261269 -0.6581785,0.382967 -0.2165945,0.06616 -0.45123,0.0929 -0.8263019,0.09413 -0.456898,0.0012 -0.626213,-0.02407 -1.3249985,-0.199456 -0.7120679,-0.178703 -0.7807539,-0.204744 -0.6180719,-0.23429 0.8629709,-0.15673 1.7676029,-0.27413 2.1110588,-0.27413 z m 7.7003078,0.0092 c 0.295375,0.0025 0.606133,0.0297 0.916645,0.08237 0.296939,0.05038 0.72405,0.117994 0.949183,0.150299 l 0.409436,0.05875 -0.242259,0.05753 c -0.133224,0.03161 -0.492929,0.122004 -0.799293,0.200937 -0.964944,0.248601 -2.006281,0.176474 -2.475393,-0.171365 l -0.17906,-0.132745 0.14341,-0.05549 c 0.335319,-0.129756 0.785038,-0.194367 1.277331,-0.190273 z"/>
 <path style="opacity:0.2" d="M 7.941801,8.5024946 C 7.4497545,8.4898375 6.8677279,8.6541712 6.4404213,8.9324736 6.0131117,9.2107751 5.4821145,9.6405026 5.2749665,9.6974247 c -0.20719,0.056925 -0.07835,0.1518146 -0.07835,0.1518146 0,0 -0.2843573,0.2346417 -0.5562843,0.4623007 -0.271927,0.227731 -0.6865943,0.593695 -0.7707672,0.688554 -0.08414,0.09486 0,0.221356 0,0.221356 0,0 -0.1639241,0.181445 -0.2614928,0.288938 h -0.010773 c -0.3029049,0.383052 -0.6794364,0.749945 -0.9539101,1.164567 -0.5311032,0.653378 -1.0148872,1.348263 -1.6433892,1.914826 0.2716073,0.351382 0.8012311,-0.708748 1.2447841,-0.237027 0.4606204,-0.129243 0.9811926,0.07568 1.3721027,-0.475034 0.3559004,0.585828 1.1170678,0.393534 1.4915862,0.03134 0.7801492,0.493263 1.2708335,-0.81171 2.0096745,-0.219397 0.588581,-0.06092 1.1323103,-0.173775 1.7560179,-0.127328 0.2719683,-0.329846 1.4782267,-0.886252 1.1272587,-0.105781 -0.4098933,0.283715 -0.1627653,1.337193 -0.909838,0.827635 -0.4523589,-0.151916 -0.8279218,0.449465 -0.2056684,0.204706 -0.048564,-0.01184 -0.553458,0.832891 -0.2605134,0.62391 0.1844727,-0.398205 0.7165506,-0.344043 0.3604093,0.102842 0.045475,1.094383 0.2856102,-0.751194 0.849117,-0.101863 0.097269,0.351974 0.020315,0.610517 0.2908745,0.140062 -0.3311379,-0.598251 0.05253,-0.893309 0.679685,-0.964759 0.705769,-0.06954 -0.255202,1.016927 -0.447573,1.312464 -0.6376,0.628247 0.771589,0.812369 1.176228,0.882485 0.617734,0.01915 1.226729,0.06731 1.780501,-0.202746 1.224523,-0.244367 -0.215784,-1.137018 -0.335925,-1.774765 -0.216643,-0.586226 1.563438,-0.01783 0.923549,0.489726 -0.0749,0.354468 0.346311,0.831952 0.237988,0.202746 0.325101,-0.677472 0.830859,0.365947 0.81484,0.411369 0.197547,-0.331219 -0.267288,-1.189389 0.376079,-0.574937 0.288064,0.554922 0.116874,-0.50709 -0.25072,-0.506377 0.325612,-0.07945 0.628016,0.137258 0.183143,-0.265431 -0.483943,0.114531 -1.10263,0.287632 -0.998961,-0.466218 -0.559978,-0.345758 -0.267597,-1.056336 0.314379,-0.625869 0.491864,0.636296 1.151495,0.259768 1.748182,0.502458 0.329749,-0.07226 0.858449,0.04979 1.238908,-0.152794 0.400583,0.335109 0.907361,0.717285 1.410298,0.33791 0.384746,0.689366 1.114881,0.321133 1.508236,0.05975 0.538113,0.582998 1.135871,0.277203 1.742306,0.382965 0.263296,0.105615 1.205688,0.6854 0.526903,0.03036 -0.825086,-0.899591 -1.535674,-1.896958 -2.331889,-2.821799 h -0.001 c -0.134768,-0.154289 -0.256596,-0.301671 -0.256596,-0.301671 0,0 0.04103,-0.03894 0.02644,-0.111658 -0.01458,-0.07275 -0.03592,-0.0875 -0.192937,-0.228211 -0.156979,-0.14075 -0.284711,-0.275117 -0.56314,-0.512253 -0.278393,-0.237205 -0.599376,-0.5200888 -0.599376,-0.5200888 0,0 0.03438,-0.044215 -0.03036,-0.097945 -0.06474,-0.053765 -0.14914,-0.094963 -0.48577,-0.2957939 -0.336701,-0.2008283 -0.517721,-0.387413 -0.823652,-0.5455512 -0.30593,-0.1581351 -0.639986,-0.3287394 -1.00092,-0.368273 -0.36097,-0.039571 -0.706742,-0.04236 -1.012673,0.1821777 -0.305933,0.2245021 -0.47278,0.4661414 -0.592521,0.8060878 -0.119779,0.3399469 -0.259263,0.8094194 -0.574892,0.9627994 -0.315632,0.153346 -0.468988,0.17437 -0.553347,0.177281 -0.23287,0.0081 -0.522693,-0.156344 -0.642469,-0.306568 -0.119743,-0.150223 -0.214042,-0.4634283 -0.239946,-0.5994235 -0.02591,-0.1359931 -0.0333,-0.280123 -0.0333,-0.280123 0,0 0.03545,-0.081096 0.171391,-0.1048012 0.135982,-0.023735 0.210178,-0.033057 0.320255,-0.015671 0.110042,0.017361 0.226236,0.073459 0.226236,0.073459 0,0 0.02773,-0.015996 0.02448,-0.1155753 -0.0032,-0.099653 -0.0047,-0.3256647 -0.255617,-0.4505474 C 13.081362,8.7331133 12.782269,8.6963632 12.719166,8.683692 12.655987,8.6710649 12.511229,8.576011 12.360715,8.5475484 c -0.150551,-0.028453 -0.468783,-0.054744 -0.663035,0.047989 -0.194219,0.1028107 -0.354556,0.1953582 -0.433864,0.3692528 -0.07931,0.1739286 -0.09137,0.3311794 -0.09108,0.4054926 9e-4,0.2285132 -0.03227,0.7635072 -0.297729,0.9912042 -0.26546,0.227694 -0.427296,0.297753 -0.615048,0.297753 -0.18775,0 -0.5306198,-0.146213 -0.6600974,-0.26641 C 9.4703829,10.272665 9.3016412,10.045806 9.1268233,9.4829199 8.952005,8.92 8.4338624,8.5151233 7.9417805,8.5024896 Z"/>
 <path style="fill:#ffc107" d="M 7.941801,8.0026084 C 7.4497545,7.9899513 6.8677279,8.1542851 6.4404213,8.4325875 6.0131117,8.7108889 5.4821145,9.1406165 5.2749665,9.1975386 c -0.20719,0.056925 -0.07835,0.1518145 -0.07835,0.1518145 0,0 -0.2843573,0.2346413 -0.5562843,0.4623007 -0.271927,0.2277312 -0.6865943,0.5936952 -0.7707672,0.6885542 -0.08414,0.09486 0,0.221356 0,0.221356 0,0 -0.1639241,0.181445 -0.2614928,0.288938 h -0.010773 c -0.3029049,0.383052 -0.6794364,0.749945 -0.9539101,1.164567 -0.5311032,0.653378 -1.0148872,1.348262 -1.6433892,1.914826 0.2716073,0.351382 0.8012311,-0.708748 1.2447841,-0.237027 0.4606204,-0.129243 0.9811926,0.07568 1.3721027,-0.475034 0.3559004,0.585828 1.1170678,0.393534 1.4915862,0.03134 0.7801492,0.493263 1.2708335,-0.81171 2.0096745,-0.219397 0.588581,-0.06092 1.1323103,-0.173776 1.7560179,-0.127329 C 9.1461339,12.732606 10.352392,12.1762 10.001424,12.95667 9.591531,13.240386 9.838659,14.293864 9.0915863,13.784306 8.6392274,13.63239 8.2636645,14.23377 8.8859179,13.989012 c -0.048564,-0.01184 -0.553458,0.832891 -0.2605134,0.62391 0.1844727,-0.398205 0.7165506,-0.344043 0.3604093,0.102842 0.045475,1.094383 0.2856102,-0.751195 0.849117,-0.101863 0.097269,0.351973 0.020315,0.610517 0.2908742,0.140062 -0.3311376,-0.598251 0.05253,-0.893309 0.679685,-0.964759 0.705769,-0.06954 -0.255202,1.016927 -0.447573,1.312464 -0.6375997,0.628247 0.771589,0.812368 1.176228,0.882485 0.617734,0.01915 1.226729,0.06731 1.780501,-0.202746 1.224523,-0.244368 -0.215784,-1.137018 -0.335925,-1.774765 -0.216643,-0.586226 1.563438,-0.01783 0.923549,0.489725 -0.0749,0.354469 0.346311,0.831953 0.237988,0.202746 0.325101,-0.677471 0.830859,0.365948 0.81484,0.41137 0.197547,-0.331219 -0.267288,-1.189389 0.376079,-0.574938 0.288064,0.554923 0.116874,-0.507089 -0.25072,-0.506376 0.325612,-0.07945 0.628016,0.137258 0.183143,-0.265431 -0.483943,0.11453 -1.10263,0.287632 -0.998961,-0.466218 -0.559978,-0.345758 -0.267597,-1.056336 0.314379,-0.625869 0.491864,0.636296 1.151495,0.259768 1.748182,0.502458 0.329749,-0.07226 0.858449,0.04979 1.238908,-0.152794 0.400583,0.335109 0.907361,0.717285 1.410298,0.33791 0.384746,0.689365 1.114881,0.321133 1.508236,0.05975 0.538113,0.582998 1.135871,0.277203 1.742306,0.382965 0.263296,0.105614 1.205688,0.685399 0.526903,0.03036 -0.825086,-0.89959 -1.535674,-1.896957 -2.331889,-2.821798 h -0.001 c -0.134768,-0.154289 -0.256596,-0.301671 -0.256596,-0.301671 0,0 0.04103,-0.03894 0.02644,-0.111658 -0.01458,-0.07275 -0.03592,-0.0875 -0.192937,-0.228211 C 19.84089,10.228212 19.713158,10.093845 19.434729,9.8567086 19.15634,9.6195029 18.835357,9.336619 18.835357,9.336619 c 0,0 0.03438,-0.044215 -0.03036,-0.097945 -0.06474,-0.053765 -0.14914,-0.094962 -0.48577,-0.2957939 -0.336705,-0.2008313 -0.517725,-0.387416 -0.823656,-0.5455541 -0.30593,-0.1581352 -0.639986,-0.3287395 -1.00092,-0.3682731 -0.36097,-0.039571 -0.706742,-0.04236 -1.012673,0.1821777 -0.305933,0.2245021 -0.47278,0.4661414 -0.592521,0.8060878 -0.119779,0.3399469 -0.259263,0.8094195 -0.574892,0.9627998 -0.315632,0.1533458 -0.468988,0.1743698 -0.553347,0.1772808 -0.23287,0.0081 -0.522693,-0.156344 -0.642469,-0.306568 -0.119743,-0.1502235 -0.214042,-0.4634285 -0.239946,-0.5994237 -0.02591,-0.1359931 -0.0333,-0.280123 -0.0333,-0.280123 0,0 0.03545,-0.081096 0.171391,-0.1048012 0.135982,-0.023735 0.210178,-0.033057 0.320255,-0.015671 0.110042,0.017361 0.226236,0.073459 0.226236,0.073459 0,0 0.02773,-0.015996 0.02448,-0.1155753 -0.0032,-0.099653 -0.0047,-0.3256647 -0.255617,-0.4505474 C 13.081362,8.2332272 12.782269,8.196477 12.719166,8.1838059 12.655987,8.1711787 12.511229,8.0761248 12.360715,8.0476622 12.210164,8.0192087 11.891932,7.9929181 11.69768,8.0956513 11.503461,8.198462 11.343124,8.2910096 11.263816,8.4649041 c -0.07931,0.1739286 -0.09137,0.3311795 -0.09108,0.4054926 9e-4,0.2285132 -0.03227,0.7635069 -0.297729,0.9912038 -0.26546,0.2276935 -0.427296,0.2977535 -0.615048,0.2977535 -0.18775,0 -0.5306198,-0.146213 -0.6600974,-0.2664106 C 9.4703829,9.7727787 9.3016412,9.5459201 9.1268233,8.9830337 8.952005,8.4201138 8.4338624,8.0152371 7.9417805,8.0026034 Z"/>
 <path style="opacity:0.2;fill:#8b9cbe" d="M 7.941786,8.0029029 C 7.4497395,7.9902457 6.8674795,8.1541906 6.4401729,8.432493 6.0128632,8.7107944 5.4825459,9.1410224 5.2753979,9.1979445 c -0.20719,0.056925 -0.079084,0.1513327 -0.079084,0.1513327 0,0 -0.283611,0.2351267 -0.555538,0.462786 -0.2719269,0.2277318 -0.6871367,0.5934618 -0.7713095,0.6883208 -0.08414,0.09486 0,0.221629 0,0.221629 0,0 -0.1640907,0.180528 -0.2616594,0.288021 H 3.597067 C 3.2941622,11.393086 2.9176555,11.760187 2.6431817,12.174809 2.1120785,12.828187 1.6285016,13.522851 0.9999995,14.089414 1.1707005,14.310252 1.4431437,13.974712 1.7322554,13.811157 2.0438153,13.439398 2.336968,13.051408 2.6431817,12.674695 2.9176555,12.260074 3.2941622,11.892973 3.597067,11.50992 h 0.01074 c 0.097569,-0.107492 0.2616594,-0.28802 0.2616594,-0.28802 0,0 -0.08414,-0.126768 0,-0.22163 0.084173,-0.09486 0.4993826,-0.460589 0.7713095,-0.68832 0.271927,-0.227659 0.5555382,-0.4627862 0.5555382,-0.4627862 0,0 -0.1281064,-0.094408 0.079084,-0.1513327 0.207148,-0.056922 0.7374653,-0.48715 1.164775,-0.7654514 0.4273066,-0.2783024 1.0095666,-0.4422473 1.5016131,-0.4295902 0.4920819,0.012632 1.0104594,0.4173269 1.1852778,0.9802468 0.1748178,0.5628867 0.3430717,0.7897847 0.4725493,0.9099497 0.1294777,0.120198 0.4722557,0.266541 0.6600067,0.266541 0.187751,0 0.349635,-0.07009 0.615095,-0.297784 0.265456,-0.227697 0.298683,-0.762473 0.297784,-0.9909862 -2.93e-4,-0.074313 0.01247,-0.2322294 0.09178,-0.4061579 0.07931,-0.1738946 0.239277,-0.2662462 0.433496,-0.3690569 0.194252,-0.1027332 0.512383,-0.076294 0.662935,-0.047839 0.150513,0.028463 0.295138,0.1230841 0.358317,0.1357112 0.06127,0.012302 0.344595,0.049604 0.590687,0.1659779 0.0095,0.00115 0.01734,-5.999e-4 0.02734,9.998e-4 0.110042,0.017361 0.226511,0.074202 0.226511,0.074202 0,0 0.02766,-0.016606 0.02441,-0.1161846 -0.0032,-0.099653 -0.0049,-0.3252103 -0.255802,-0.450093 C 13.081281,8.2333951 12.782133,8.196222 12.719031,8.1835509 12.655851,8.1709239 12.511227,8.0763022 12.360713,8.0478397 12.210162,8.0193857 11.892031,7.9929467 11.697778,8.0956787 11.50356,8.1984894 11.34359,8.290841 11.264282,8.4647356 c -0.07931,0.1739285 -0.09207,0.3318447 -0.09178,0.4061579 9e-4,0.2285132 -0.03233,0.7632895 -0.297784,0.9909864 -0.26546,0.2276931 -0.427343,0.2977831 -0.615094,0.2977831 -0.187751,0 -0.5305295,-0.146343 -0.6600072,-0.2665402 C 9.470137,9.7729576 9.3018831,9.546059 9.1270653,8.9831726 8.9522469,8.4202528 8.4338694,8.0155595 7.9417875,8.0029259 Z m 8.285231,0.00586 c -0.263873,-0.00695 -0.5155,0.033697 -0.744948,0.2021027 -0.305934,0.2245021 -0.472899,0.4665113 -0.59264,0.8064577 -0.119778,0.3399469 -0.259435,0.809292 -0.575064,0.9626723 -0.315632,0.1533454 -0.469227,0.1747824 -0.553586,0.1776934 -0.23287,0.0081 -0.522657,-0.156347 -0.642432,-0.3065702 -0.08948,-0.1122556 -0.153103,-0.2987478 -0.196245,-0.4510698 -0.05692,0.031958 -0.07615,0.071273 -0.07615,0.071273 0,0 0.0073,0.1442168 0.0332,0.28021 0.0259,0.1359951 0.11946,0.44925 0.239204,0.599473 0.119775,0.150224 0.409562,0.314674 0.642432,0.306571 0.08436,-0.0029 0.237954,-0.02435 0.553586,-0.177694 0.315629,-0.15338 0.455286,-0.622725 0.575064,-0.9626719 0.119741,-0.3399464 0.286706,-0.5819556 0.59264,-0.8064577 0.30593,-0.2245381 0.651496,-0.2211709 1.012466,-0.1815993 0.360934,0.039531 0.694819,0.2099454 1.000749,0.3680805 0.305931,0.1581382 0.48733,0.3449428 0.824032,0.5457743 0.33663,0.2008315 0.420501,0.2420661 0.485242,0.2958314 0.06474,0.05373 0.03124,0.097634 0.03124,0.097634 -10e-7,0 0.320104,0.2831857 0.598497,0.5203897 0.278429,0.237136 0.406369,0.370853 0.563348,0.511603 0.157015,0.140711 0.178734,0.155713 0.193316,0.228463 0.01458,0.07272 -0.02636,0.111303 -0.02636,0.111303 0,0 0.12201,0.147401 0.256777,0.30169 h 10e-4 c 0.659349,0.765865 1.262953,1.579476 1.91851,2.348101 0.335147,0.162227 1.028912,0.568985 0.412993,-0.02538 -0.825086,-0.89959 -1.535288,-1.89776 -2.331503,-2.822602 h -10e-4 c -0.134767,-0.154289 -0.256777,-0.301689 -0.256777,-0.301689 0,0 0.04094,-0.03859 0.02636,-0.111303 -0.01458,-0.07275 -0.0363,-0.08775 -0.193316,-0.228464 C 19.840669,10.227829 19.712729,10.094113 19.4343,9.8569766 19.155907,9.6197718 18.835802,9.3365865 18.835803,9.3365865 c 0,0 0.0335,-0.043905 -0.03124,-0.097634 -0.06474,-0.053765 -0.148612,-0.095 -0.485242,-0.2958315 C 17.982616,8.7422893 17.801217,8.5554846 17.495286,8.3973465 17.189356,8.2392113 16.855471,8.0687989 16.494537,8.0292659 16.404294,8.0193731 16.314977,8.01108 16.227019,8.0087605 Z M 9.8993497,13.068161 c -0.2643031,0.373463 -0.1358282,1.173742 -0.807434,0.715658 -0.4523589,-0.151917 -0.8282612,0.44979 -0.2060078,0.205031 -0.024909,-0.0061 -0.1678349,0.210514 -0.2636122,0.397371 0.090597,-0.08886 0.2700683,-0.169531 0.46962,-0.102515 0.7470727,0.509558 0.5000572,-0.543246 0.9099493,-0.826961 0.122753,-0.272972 0.04911,-0.375794 -0.1025153,-0.388584 z m 4.1640953,0.0371 c -0.161477,0.142342 -0.13824,0.482685 0.201126,0.692226 -0.103669,0.75385 0.514854,0.580245 0.998797,0.465715 0.08951,0.08102 0.130098,0.122766 0.165002,0.161096 -0.06236,-0.185012 -0.183289,-0.395737 -0.347577,-0.395418 0.325611,-0.07945 0.627448,0.137124 0.182575,-0.265565 -0.483943,0.114531 -1.102466,0.288136 -0.998797,-0.465715 -0.09134,-0.0564 -0.152699,-0.123064 -0.201126,-0.192339 z m -0.973412,1.16868 c -0.104487,0.02843 -0.160374,0.09959 -0.111303,0.23237 0.06546,0.347499 0.512912,0.768092 0.717611,1.120839 0.362484,-0.300516 -0.319406,-0.860233 -0.606308,-1.353209 z m -2.163572,0.01758 c -0.174931,0.303773 -0.470186,0.659738 -0.568231,0.810364 -0.23402,0.230588 -0.190977,0.400949 -0.02441,0.5282 0.009,-0.0097 0.01435,-0.01841 0.02441,-0.02831 0.179162,-0.275244 1.023059,-1.235712 0.568231,-1.310251 z m 4.382795,0.218701 c -0.0023,-9.8e-5 -0.0055,10e-4 -0.0078,9.99e-4 0.01133,0.01053 0.01719,0.01285 0.02929,0.02441 0.136135,0.262247 0.167207,0.159592 0.125948,-0.01758 -0.03077,0.0024 -0.08197,-0.005 -0.147427,-0.0078 z m -6.7367535,9.99e-4 c -0.039156,0.103094 -0.049799,0.174676 0.052722,0.10154 0.012617,-0.02723 0.029438,-0.04727 0.04491,-0.0703 -0.054586,0.003 -0.085329,-0.009 -0.097634,-0.03124 z m 5.3278935,0.01758 c -0.01761,0.137055 0.02923,0.282299 0.08982,0.376867 0.09758,-0.135158 0.03319,-0.265836 -0.08982,-0.376867 z m -3.828233,0.102515 c -0.05063,0.08246 -0.0714,0.18059 -0.05761,0.294855 0.02991,-0.04111 0.05981,-0.08229 0.111303,-0.171836 -0.02416,-0.04364 -0.03697,-0.08257 -0.0537,-0.123019 z m 4.933451,0.207961 c -0.02927,0.02533 -0.03247,0.09469 -0.02343,0.187457 0.0161,-0.05752 0.0244,-0.119951 0.02343,-0.187457 z m -5.9976637,0.0078 c -0.0029,-5e-4 -0.00676,0.0014 -0.00976,10e-4 0.016741,0.188126 0.046134,0.235942 0.088847,0.190386 0.037007,-0.110545 -0.00255,-0.177895 -0.079083,-0.191363 z"/>
</svg>
