<svg xmlns="http://www.w3.org/2000/svg" height="24" width="24" version="1.1">
 <g transform="translate(1,1)">
  <g>
   <circle cy="11.5" cx="11" r="10" style="opacity:.2"/>
   <circle cy="11" cx="11" r="10" style="fill:#4f8598"/>
   <path style="opacity:.2" d="m11 1.499766a10 10 0 0 0 -10 10 10 10 0 0 0 1.3007812 4.90625c1.4157463 0.966343 3.7261601 2.440384 5.6992188 3.105469 2.414364 0.813841 6.009109 0.953165 7.359375 0.978515a10 10 0 0 0 5.640625 -8.990234 10 10 0 0 0 -10 -10z"/>
   <path style="fill:#c34d58" d="m11 1a10 10 0 0 0 -10 10 10 10 0 0 0 1.3007812 4.90625c1.4157463 0.966343 3.7261601 2.440384 5.6992188 3.105469 2.414364 0.813841 6.009109 0.953165 7.359375 0.978515a10 10 0 0 0 5.640625 -8.990234 10 10 0 0 0 -10 -10z"/>
   <path style="opacity:.2" d="m11 1.5c-0.285794 0-0.565985 0.019466-0.845703 0.042969a10 10 0 0 0 -0.5488282 0.0644529c-0.1482441 0.0207477-0.2972734 0.0411856-0.4433594 0.0683593a10 10 0 0 0 -0.5996094 0.1347657c-0.1121672 0.0281412-0.2253098 0.0540431-0.3359375 0.0859375a10 10 0 0 0 -0.6484375 0.2167968c-0.09512 0.0346938-0.1914109 0.0660409-0.2851562 0.1035157a10 10 0 0 0 -0.609375 0.2734375c-0.1016956 0.0488259-0.2049343 0.0943556-0.3046876 0.1464844a10 10 0 0 0 -0.5722656 0.3300781c-0.0894326 0.054556-0.181975 0.1048526-0.2695312 0.1621093a10 10 0 0 0 -0.5078125 0.3613282c-0.1050912 0.0784686-0.2126084 0.1538818-0.3144531 0.2363281a10 10 0 0 0 -0.3925782 0.3457031c-0.1158647 0.1042363-0.234833 0.2049759-0.3457031 0.3144532a10 10 0 0 0 -0.3945313 0.4238281c-0.0843324 0.0934552-0.1731029 0.1826932-0.2539062 0.2792969a10 10 0 0 0 -0.4707031 0.6171874c-0.038655 0.054232-0.081549 0.1051272-0.1191407 0.1601563a10 10 0 0 0 -0.5 0.8164063 10 10 0 0 0 -0.013672 0.023437 10 10 0 0 0 -1.0253904 2.8066411 10 10 0 0 0 -0.1992188 1.9863281c0.00209 0.128331 0.00665 0.25661 0.013672 0.384766 1.2663701 1.556813 3.6746659 3.952902 6.986328 4.615234 4.986415 0.997283 9.965444 0.999993 10.984375 1a10 10 0 0 0 2.015625 -6c0-0.285794-0.01947-0.565985-0.04297-0.845703a10 10 0 0 0 -0.06445 -0.548828c-0.02075-0.1482443-0.041187-0.2972736-0.068361-0.4433596a10 10 0 0 0 -0.134766 -0.5996094c-0.028141-0.1121672-0.054043-0.2253098-0.085937-0.3359375a10 10 0 0 0 -0.216797 -0.6484375c-0.034694-0.09512-0.066041-0.1914109-0.103516-0.2851562a10 10 0 0 0 -0.273437 -0.609375c-0.048826-0.1016956-0.094356-0.2049343-0.146485-0.3046876a10 10 0 0 0 -0.330078 -0.5722656c-0.054556-0.0894326-0.104853-0.181975-0.162109-0.2695312a10 10 0 0 0 -0.361328 -0.5078125c-0.078469-0.1050912-0.153882-0.2126084-0.236328-0.3144531a10 10 0 0 0 -0.345704 -0.3925782c-0.104236-0.1158647-0.204975-0.234833-0.314453-0.3457031a10 10 0 0 0 -0.423828 -0.3945313c-0.093455-0.0843324-0.182693-0.1731029-0.279297-0.2539062a10 10 0 0 0 -0.617187 -0.4707031c-0.05423-0.038655-0.105127-0.081549-0.160157-0.1191407a10 10 0 0 0 -0.816406 -0.5c-0.0074-0.0041-0.01403-0.00959-0.02148-0.013672a10 10 0 0 0 -0.002 0 10 10 0 0 0 -2.806598 -1.0253904 10 10 0 0 0 -1.986328 -0.1992188z"/>
   <path style="fill:#ebcf78" d="m11 1c-0.285794 0-0.565985 0.019466-0.845703 0.042969a10 10 0 0 0 -0.5488282 0.0644529c-0.1482441 0.0207477-0.2972734 0.0411856-0.4433594 0.0683593a10 10 0 0 0 -0.5996094 0.1347657c-0.1121672 0.0281412-0.2253098 0.0540431-0.3359375 0.0859375a10 10 0 0 0 -0.6484375 0.2167968c-0.09512 0.0346938-0.1914109 0.0660409-0.2851562 0.1035157a10 10 0 0 0 -0.609375 0.2734375c-0.1016956 0.0488259-0.2049343 0.0943556-0.3046876 0.1464844a10 10 0 0 0 -0.5722656 0.3300781c-0.0894326 0.054556-0.181975 0.1048526-0.2695312 0.1621093a10 10 0 0 0 -0.5078125 0.3613282c-0.1050912 0.0784686-0.2126084 0.1538818-0.3144531 0.2363281a10 10 0 0 0 -0.3925782 0.3457031c-0.1158647 0.1042363-0.234833 0.2049759-0.3457031 0.3144532a10 10 0 0 0 -0.3945313 0.4238281c-0.0843324 0.0934552-0.1731029 0.1826932-0.2539062 0.2792969a10 10 0 0 0 -0.4707031 0.6171874c-0.038655 0.054232-0.081549 0.1051272-0.1191407 0.1601563a10 10 0 0 0 -0.5 0.8164063 10 10 0 0 0 -0.013672 0.023437 10 10 0 0 0 -1.0253904 2.8066411 10 10 0 0 0 -0.1992188 1.9863281c0.00209 0.128331 0.00665 0.25661 0.013672 0.384766 1.2663701 1.556813 3.6746659 3.952902 6.986328 4.615234 4.986415 0.997283 9.965444 0.999993 10.984375 1a10 10 0 0 0 2.015625 -6c0-0.285794-0.01947-0.565985-0.04297-0.845703a10 10 0 0 0 -0.064452 -0.5488282c-0.020748-0.1482441-0.041185-0.2972734-0.068359-0.4433594a10 10 0 0 0 -0.134766 -0.5996094c-0.028141-0.1121672-0.054043-0.2253098-0.085937-0.3359375a10 10 0 0 0 -0.216797 -0.6484375c-0.034694-0.09512-0.066041-0.1914109-0.103516-0.2851562a10 10 0 0 0 -0.273437 -0.609375c-0.048826-0.1016956-0.094356-0.2049343-0.146485-0.3046876a10 10 0 0 0 -0.330078 -0.5722656c-0.054556-0.0894326-0.104853-0.181975-0.162109-0.2695312a10 10 0 0 0 -0.361328 -0.5078125c-0.078469-0.1050912-0.153882-0.2126084-0.236328-0.3144531a10 10 0 0 0 -0.345704 -0.3925782c-0.104236-0.1158647-0.204975-0.234833-0.314453-0.3457031a10 10 0 0 0 -0.423828 -0.3945313c-0.093455-0.0843324-0.182693-0.1731029-0.279297-0.2539062a10 10 0 0 0 -0.617187 -0.4707031c-0.05423-0.038655-0.105127-0.081549-0.160157-0.1191407a10 10 0 0 0 -0.816406 -0.5c-0.0074-0.0041-0.01403-0.00959-0.02148-0.013672a10 10 0 0 0 -0.002 0 10 10 0 0 0 -2.806598 -1.0253904 10 10 0 0 0 -1.986328 -0.1992188z"/>
   <path style="opacity:.2" d="m11 1.3998947a10 10 0 0 0 -9.1152344 5.9082031c1.0604579 1.63089 3.3306474 3.8956502 8.1152344 5.0917972 5.470887 1.367722 9.024345 1.328921 10.753906 1.169922a10 10 0 0 0 0.246094 -2.169922 10 10 0 0 0 -10 -10z"/>
   <path style="fill:#2398ba" d="m11 1a10 10 0 0 0 -9.1152344 5.9082031c1.0604579 1.63089 3.3306474 3.8956499 8.1152344 5.0917969 5.470887 1.367722 9.024345 1.328921 10.753906 1.169922a10 10 0 0 0 0.246094 -2.169922 10 10 0 0 0 -10 -10z"/>
   <path style="opacity:.2" d="m11 1.5005a10 10 0 0 0 -6.7109375 2.6113281c1.7118412 1.1700858 3.989801 2.4816264 6.7109375 3.3886719 4.282918 1.4276395 7.972284 1.8205776 9.78125 1.9375a10 10 0 0 0 -9.78125 -7.9375z"/>
   <path style="fill:#4e9588" d="m11 1a10 10 0 0 0 -6.7109375 2.6113281c1.7118412 1.1700858 3.989801 2.4816264 6.7109375 3.3886719 4.282918 1.4276395 7.972284 1.8205776 9.78125 1.9375a10 10 0 0 0 -9.78125 -7.9375z"/>
   <path style="opacity:.2" d="m11 1.4996875a10 10 0 0 0 -1.5957031 0.1445312c0.8736501 0.6211543 2.1108331 1.3605122 3.5957031 1.8554688 1.327313 0.4424376 3.230774 0.6827694 4.953125 0.8203125a10 10 0 0 0 -6.953125 -2.8203125z"/>
   <path style="fill:#8de0a2" d="m11 1a10 10 0 0 0 -1.5957031 0.1445312c0.8736501 0.6211543 2.1108331 1.3605122 3.5957031 1.8554688 1.327313 0.4424376 3.230774 0.6827694 4.953125 0.8203125a10 10 0 0 0 -6.953125 -2.8203125z"/>
   <path style="opacity:.2;fill:#8b9cbe" d="m11 1a10 10 0 0 0 -10 10 10 10 0 0 0 0.0098 0.293 10 10 0 0 1 9.9902 -9.793 10 10 0 0 1 9.99 9.707 10 10 0 0 0 0.01 -0.207 10 10 0 0 0 -10 -10z"/>
  </g>
  <circle cx="16.5" cy="16.5" r="5.5" style="fill:#ff5757"/>
  <path d="m16.5 20s3.5-2 3.5-4c0-1 0-2-2-2-1 0-1.5 2-1.5 2s-0.5-2-1.5-2c-2 0-2 1-2 2 0 2 3.5 4 3.5 4z" style="fill:#8b9cbe"/>
 </g>
</svg>
