<svg width="24" height="24" version="1.1" xmlns="http://www.w3.org/2000/svg">
 <rect x="1.9999998" y="2.5" width="20" height="20" rx="0" ry="1" style="opacity:.2"/>
 <rect x="1.9999998" y="2" width="20" height="20" rx="0" ry="1" style="fill:#4f4f4f"/>
 <path d="m11.482422 3.6621094c-0.190768-0.013745-0.371117-0.00604-0.578125 0.021484-0.203704 0.027088-0.42624 0.062574-0.494141 0.078125-0.0679 0.015551-0.367651 0.077715-0.666015 0.1386718-0.8709 0.1779268-1.259398 0.3275138-2.013672 0.78125-0.149978 0.09022-0.391973 0.2296524-0.539063 0.3066406-0.426862 0.2234231-0.604324 0.3414272-0.787109 0.5292969-1.004033 1.0319596-1.150243 1.1986466-1.486328 1.6894531-0.222687 0.3252038-0.683648 1.1752289-0.878907 1.6210938-0.04089 0.093364-0.119122 0.2659383-0.173828 0.3847656-0.242235 0.5261596-0.31459 0.7449393-0.447265 1.3437508-0.101394 0.457623-0.293266 1.157483-0.41211 1.501953-0.13931 0.403791-0.172492 0.613124-0.171875 1.105468 5.61e-4 0.44662 0.02688 0.601088 0.121094 0.728516 0.05803 0.07849 0.0625 0.128968 0.0625 0.558594 0 0.519282 0.02698 0.609375 0.173828 0.609375 0.187348 0 0.414045 0.184698 0.416016 0.339844 0.0013 0.1038 0.05695 0.136227 0.27539 0.15625 0.1971 0.01806 0.232026 0.03268 0.333985 0.130859 0.06259 0.06026 0.180569 0.138169 0.261719 0.175781 0.16731 0.07755 0.225694 0.149353 0.273437 0.326172 0.01833 0.0679 0.08541 0.18142 0.150391 0.251953 0.06683 0.07254 0.138318 0.192766 0.164062 0.277344 0.02503 0.08225 0.08649 0.223041 0.138672 0.316406 0.0692 0.123801 0.0953 0.210837 0.0957 0.320313l2e-3 0.152343 0.09961-0.02344c0.05517-0.01187 0.185001-0.02681 0.289062-0.03516l0.189457-0.01562 0.08789 0.128906c0.123174 0.181508 0.262854 0.253741 0.46875 0.238281 0.15925-0.012 0.167036-0.01147 0.248047 0.101563 0.109274 0.152466 0.206417 0.208019 0.414062 0.232422 0.152173 0.01789 0.174773 0.0156 0.205078-0.04102 0.01872-0.03496 0.03516-0.106288 0.03516-0.15625 0-0.10965 0.07139-0.184121 0.13086-0.134766 0.02202 0.01827 0.06691 0.116111 0.09766 0.21875 0.03074 0.102637 0.07394 0.189454 0.0957 0.189454 0.06925 0 0.187474-0.297823 0.261718-0.658204 0.02011-0.09761 0.05226-0.177785 0.07227-0.177734 0.03358 9.3e-5 0.168778 0.10005 0.837891 0.607422 0.461403 0.349879 1.169928 0.817753 1.443359 0.955078 0.688524 0.345798 1.105716 0.401616 1.714845 0.226562 0.414524-0.119125 1.004144-0.399995 1.580078-0.757812 0.246142-0.152924 0.557556-0.341143 0.693359-0.414062 0.135802-0.07292 0.316268-0.173395 0.398438-0.22461 0.154895-0.09654 0.203862-0.08574 0.205078 0.04492 8.8e-4 0.09434 0.122636 0.451493 0.177734 0.519531l0.05469 0.06836 0.15039-0.125c0.148581-0.122774 0.249063-0.15657 0.476563-0.15625 0.07455 9.3e-5 0.130717-0.0255 0.199219-0.0918 0.05284-0.05114 0.150068-0.113599 0.214843-0.140625 0.106825-0.04456 0.134348-0.04692 0.302735-0.0039 0.223834 0.05734 0.197706 0.06005 0.253906 0.0039 0.03181-0.03181 0.04312-0.08108 0.03125-0.154297-0.01551-0.09563-0.0077-0.109724 0.06836-0.138672 0.1052-0.04 0.218172 0.02317 0.265625 0.148438 0.03293 0.08691 0.14439 0.222656 0.183594 0.222656 0.0125 0 0.09143-0.05637 0.175781-0.123047 0.134759-0.106525 0.165122-0.153216 0.246094-0.378906 0.05069-0.141271 0.09983-0.307644 0.111328-0.371094 0.03639-0.200612 0.178564-0.230939 0.359375-0.07617 0.06556 0.05612 0.154887 0.1208 0.199219 0.144531 0.06954 0.03721 0.08684 0.03684 0.111328-2e-3 0.01561-0.02468 0.02904-0.07573 0.0293-0.113281 2.48e-4 -0.03756 0.02696-0.145277 0.0625-0.240234 0.06134-0.163931 0.07155-0.173042 0.164062-0.164063 0.08324 0.0081 0.1084 0.03558 0.1875 0.183594 0.118475 0.221721 0.166188 0.27539 0.238282 0.27539 0.06962 0 0.179523-0.16903 0.179687-0.27539 1.22e-4 -0.08039-0.04255-0.234783-0.111328-0.398438-0.05531-0.131632-0.05496-0.205059 0.0039-0.253906 0.0394-0.0327 0.06433-0.02863 0.134766 0.02344 0.0468 0.0346 0.160757 0.100275 0.251953 0.146485 0.151385 0.07671 0.17391 0.08167 0.279297 0.04687 0.06349-0.02095 0.154591-0.02926 0.201172-0.01758 0.108238 0.02716 0.134377-0.01601 0.136719-0.214844 0.0025-0.215193 0.04798-0.421337 0.09766-0.451172 0.02304-0.01383 0.09724-0.05762 0.166015-0.09961l0.124944-0.07813 0.142579 0.0957c0.07896 0.05136 0.159973 0.08249 0.179687 0.07031 0.04436-0.02736 0.02094-0.281008-0.06641-0.693359-0.03418-0.161192-0.09033-0.423634-0.123047-0.582031-0.06275-0.303787-0.1302-1.503679-0.09961-1.763672 0.04845-0.411773-0.26206-2.258956-0.505859-3.0175782-0.04223-0.1313313-0.108512-0.3627762-0.148437-0.515554-0.14836-0.5677354-0.465969-1.3021576-0.783204-1.8066407-0.069383-0.1103395-0.148367-0.2418278-0.175781-0.2910156-0.234077-0.420007-1.221436-1.5387755-1.695312-1.921875-0.135803-0.1097879-0.351201-0.2551758-0.478516-0.3222656-0.127315-0.06709-0.307186-0.1679252-0.400391-0.2265625-0.093199-0.0586372-0.282005-0.1513062-0.417968-0.2050782-0.135964-0.0537719-0.303192-0.1211974-0.371094-0.1503906-0.412711-0.1774403-0.998345-0.3287325-1.433594-0.3710937-0.606389-0.0590176-1.144798-0.0699852-1.498047-0.0292969-0.316844 0.036495-0.359854 0.033727-0.603515-0.025391-0.248831-0.060372-0.447904-0.09563-0.638672-0.1093746zm-2.851563 8.7617186c0.18597 0.0016 0.369918 0.05066 0.556641 0.142578 0.47815 0.235393 0.767407 0.785815 0.683594 1.300782-0.02935 0.180357-0.11252 0.392578-0.154297 0.392578-0.01286 0-0.0945 0.06792-0.181641 0.152343-0.206721 0.200298-0.595466 0.389835-0.884765 0.431641-0.242332 0.03502-0.270031 0.03758-0.400391 0.0059-0.12321-0.03-0.286545-0.115974-0.408203-0.214843-0.05455-0.04433-0.138214-0.11278-0.1875-0.150391-0.11155-0.08512-0.236654-0.343312-0.285156-0.589844-0.100577-0.511219 0.214554-1.109689 0.701171-1.33789 0.189126-0.08869 0.374577-0.134412 0.560547-0.132813zm6.19336 0.28711c0.138543 0.0215 0.274728 0.06412 0.388672 0.125 0.196672 0.105086 0.429156 0.334541 0.535156 0.529296 0.107012 0.196628 0.18415 0.593892 0.140625 0.71875-0.01738 0.04985-0.03125 0.124661-0.03125 0.164063 0 0.107199-0.135069 0.380313-0.259766 0.525391-0.06056 0.07046-0.17511 0.16854-0.255859 0.216796-0.139887 0.0836-0.167453 0.08542-0.564453 0.0918-0.229166 0.0036-0.449749-0.0051-0.492188-0.01953-0.256158-0.08673-0.494187-0.224211-0.640625-0.375-0.19767-0.203542-0.256692-0.343235-0.277343-0.644531-0.04506-0.657445 0.387302-1.208187 1.048828-1.330078 0.127273-0.02345 0.26966-0.02349 0.408203-2e-3zm-3.240235 4.005859h2e-3c0.184115-0.01415 0.279634-0.01038 0.308593 0.01367 0.05469 0.04539 0.05566 0.07521-0.0039 0.134765-0.0672 0.0672-0.515008 0.0685-0.570313 2e-3 -0.07744-0.09331-0.01442-0.129016 0.263672-0.150391zm-0.09961 0.876953c0.117351-0.0044 0.242715 0.0064 0.332031 0.03125 0.141355 0.03926 0.253692 0.156893 0.240235 0.251953-0.01248 0.08812-0.02648 0.08592-0.574219 0.04492l-0.41211-0.0293 0.0098-0.09375c0.0073-0.07454 0.03336-0.110465 0.117188-0.152344 0.06086-0.03041 0.16976-0.04836 0.287109-0.05273zm-1.173828 2.287109c-0.041 0.0023-0.109029 0.02185-0.238281 0.06055-0.35035 0.104875-0.661462 0.172071-0.990235 0.212891-0.376192 0.04671-0.526572 0.0877-0.855469 0.234375-0.441217 0.196772-0.774045 0.445118-0.925781 0.691406-0.0366 0.05941-0.09829 0.139878-0.134765 0.179688-0.124402 0.135761-0.29013 0.454261-0.416015 0.740231h8.671875c-0.02612-0.06868-0.05597-0.161241-0.07227-0.193359-0.07493-0.147646-0.657019-0.938019-0.814453-1.105469-0.145536-0.154792-0.18528-0.174478-0.71289-0.330078-0.246142-0.07259-0.540051-0.17735-0.650391-0.232422-0.248173-0.123875-0.386567-0.157793-0.447266-0.107422-0.07344 0.06095-0.05385 0.116464 0.0957 0.259766l0.142579 0.136718-0.271485 0.08203c-0.404846 0.123487-0.578695 0.14264-1.33789 0.146484-0.679001 0.0035-0.701938 0.0019-0.94336-0.08008-0.253515-0.08612-0.478515-0.219523-0.478515-0.28125 0-0.01915 0.06933-0.06707 0.154296-0.107422 0.195778-0.09295 0.315277-0.200448 0.291016-0.263672-0.0119-0.03101-0.02541-0.04519-0.06641-0.04297z" style="opacity:.2"/>
 <path d="m11.482422 3.1621094c-0.190768-0.013745-0.371605-0.00556-0.578613 0.021973-0.203704 0.027088-0.425263 0.062574-0.493165 0.078125-0.0679 0.015551-0.368139 0.078204-0.666503 0.1391602-0.8709 0.1779268-1.259886 0.3275138-2.014161 0.78125-0.149978 0.09022-0.392461 0.2281876-0.53955 0.3051758-0.426862 0.2234231-0.603348 0.3419154-0.786133 0.5297851-1.004033 1.0319596-1.150731 1.1986466-1.486817 1.6894531-0.222687 0.3252038-0.683647 1.1752289-0.878906 1.6210938-0.04089 0.093364-0.118634 0.2669149-0.17334 0.3857422-0.242235 0.5261596-0.314101 0.7439627-0.446777 1.3427734-0.101394 0.457624-0.293754 1.156995-0.412598 1.501465-0.13931 0.403791-0.171516 0.613613-0.170898 1.105957 5.6e-4 0.446619 0.02542 0.600111 0.119629 0.727539 0.05803 0.07849 0.06348 0.129456 0.06348 0.559082 0 0.519282 0.02649 0.610351 0.17334 0.610351 0.187348 0 0.413068 0.184209 0.415039 0.339355 0.0013 0.1038 0.05743 0.136227 0.275879 0.15625 0.197099 0.01806 0.232513 0.03366 0.334472 0.131836 0.06259 0.06026 0.180081 0.138169 0.261231 0.175781 0.167311 0.07755 0.225694 0.147889 0.273437 0.324708 0.01833 0.0679 0.08638 0.180932 0.151367 0.251465 0.06683 0.07254 0.137831 0.193742 0.163575 0.27832 0.02503 0.08225 0.08697 0.224017 0.13916 0.317382 0.0692 0.123801 0.09481 0.210349 0.09521 0.319825l0.0024 0.151367 0.100097-0.02198c0.05517-0.01187 0.184025-0.02827 0.288086-0.03662l0.19043-0.01465 0.08789 0.129393c0.123174 0.181508 0.262854 0.252277 0.46875 0.236817 0.15925-0.012 0.165571-0.0105 0.246582 0.102537 0.109274 0.152466 0.207394 0.20753 0.415039 0.231933 0.152173 0.01789 0.174772 0.01512 0.205078-0.0415 0.01872-0.03496 0.03418-0.106288 0.03418-0.15625 0-0.10965 0.07237-0.183632 0.131836-0.134277 0.02202 0.01827 0.06691 0.117088 0.09766 0.219727 0.03074 0.102637 0.07346 0.187987 0.09522 0.187987 0.06925 0 0.186986-0.296356 0.261231-0.656737 0.02011-0.09761 0.05324-0.178274 0.07324-0.178223 0.03358 9.3e-5 0.168289 0.100538 0.837402 0.60791 0.461403 0.349879 1.16944 0.817265 1.442871 0.95459 0.688524 0.345798 1.10718 0.402103 1.716309 0.22705 0.414524-0.119125 1.003655-0.40146 1.579589-0.759277 0.246142-0.152924 0.557557-0.339678 0.69336-0.412598 0.135802-0.07292 0.315778-0.173394 0.397948-0.224609 0.154895-0.09654 0.203863-0.08671 0.205079 0.04395 8.8e-4 0.09434 0.123125 0.451982 0.178223 0.52002l0.05371 0.06836 0.151368-0.124513c0.148581-0.122774 0.248573-0.15657 0.476073-0.15625 0.07455 9.3e-5 0.131694-0.02647 0.200195-0.09277 0.05284-0.05114 0.150069-0.114575 0.214844-0.141601 0.106825-0.04456 0.134348-0.04551 0.302735-0.0025 0.223834 0.05734 0.197706 0.05864 0.253906 0.0025 0.03181-0.03181 0.04117-0.08059 0.0293-0.153809-0.01551-0.09563-0.0077-0.110212 0.06836-0.13916 0.1052-0.04 0.218659 0.02366 0.266112 0.148925 0.03293 0.08691 0.143903 0.222169 0.183107 0.222169 0.0125 0 0.09143-0.0554 0.175781-0.122075 0.134759-0.106525 0.165609-0.152729 0.246581-0.378419 0.05069-0.141271 0.1008-0.307643 0.1123-0.371093 0.03639-0.200612 0.178075-0.230457 0.358886-0.07569 0.06556 0.05612 0.155865 0.120313 0.200197 0.144044 0.06954 0.03721 0.08537 0.03629 0.109862-0.0025 0.01561-0.02468 0.02904-0.07475 0.0293-0.1123 2.48e-4 -0.03756 0.02794-0.146743 0.06348-0.2417 0.06134-0.163931 0.07106-0.172553 0.163575-0.163574 0.08324 0.0081 0.108888 0.03509 0.187988 0.183105 0.118475 0.221721 0.164722 0.27588 0.236816 0.27588 0.06962 0 0.1805-0.16952 0.180664-0.27588 1.22e-4 -0.08039-0.04352-0.234294-0.1123-0.397949-0.05531-0.131632-0.05397-0.205059 0.0049-0.253906 0.0394-0.0327 0.06384-0.02766 0.134277 0.02441 0.0468 0.0346 0.160269 0.100275 0.251465 0.146485 0.151385 0.07671 0.175374 0.08118 0.280761 0.04639 0.06349-0.02095 0.153614-0.02877 0.200195-0.01709 0.108238 0.02716 0.134378-0.01601 0.136719-0.214844 0.0025-0.215193 0.04798-0.421825 0.09766-0.45166 0.02304-0.01383 0.09724-0.05811 0.166016-0.1001l0.124512-0.07813 0.144044 0.09521c0.07896 0.05136 0.158509 0.08298 0.178223 0.0708 0.04436-0.02736 0.0214-0.280931-0.06595-0.693282-0.03418-0.161192-0.08935-0.422658-0.12207-0.581055-0.06275-0.303787-0.130688-1.505143-0.100098-1.765136 0.048486-0.411773-0.261534-2.258956-0.505333-3.0175785-0.04223-0.1314023-0.109001-0.362359-0.148926-0.5151368-0.14836-0.5677354-0.466456-1.3021575-0.783691-1.8066406-0.069384-0.1103395-0.148368-0.2413396-0.175782-0.2905274-0.234077-0.420007-1.220458-1.5382872-1.694334-1.9213867-0.135803-0.1097879-0.351202-0.2551757-0.478517-0.3222655-0.127315-0.0670897-0.307186-0.1684136-0.40039-0.2270509-0.093203-0.0586372-0.281518-0.1513062-0.417481-0.2050781-0.135964-0.0537719-0.303192-0.1221739-0.371094-0.1513671-0.412711-0.1774403-1.000297-0.3287326-1.435546-0.3710938-0.606389-0.0590176-1.143333-0.0699851-1.496582-0.0292968-0.316844 0.036495-0.359367 0.034703-0.603028-0.024414-0.248831-0.060372-0.44888-0.096118-0.639648-0.1098634zm-2.851563 8.7622066c0.18597 0.0016 0.369918 0.04968 0.556641 0.141602 0.47815 0.235393 0.767407 0.786303 0.683594 1.30127-0.02935 0.180357-0.112032 0.393066-0.153809 0.393066-0.01286 0-0.09597 0.06694-0.183105 0.151367-0.206721 0.200298-0.59449 0.390323-0.883789 0.432129-0.242332 0.03502-0.270031 0.03662-0.400391 0.0049-0.12321-0.03-0.286057-0.115975-0.407715-0.214844-0.05455-0.04433-0.138702-0.111315-0.187988-0.148926-0.11155-0.08512-0.237142-0.344288-0.285645-0.59082-0.100576-0.511219 0.214066-1.10969 0.700684-1.337891 0.189126-0.08869 0.375553-0.133435 0.561523-0.131836zm6.193848 0.285645c0.138543 0.0215 0.274239 0.06607 0.388183 0.126953 0.196672 0.105086 0.428669 0.332589 0.534669 0.527344 0.107012 0.196628 0.185126 0.595357 0.141601 0.720215-0.01738 0.04985-0.03174 0.124172-0.03174 0.163574 0 0.107199-0.134093 0.379825-0.25879 0.524902-0.06056 0.07046-0.175599 0.169029-0.256348 0.217285-0.139887 0.0836-0.166965 0.08639-0.563965 0.09277-0.229166 0.0036-0.450725-0.0051-0.493164-0.01954-0.256158-0.08673-0.49321-0.225182-0.639648-0.375971-0.19767-0.203542-0.257669-0.343235-0.27832-0.644531-0.04506-0.657445 0.388278-1.208676 1.049804-1.330567 0.127273-0.02345 0.269172-0.02394 0.407715-0.0024zm-3.239746 4.006348c0.184115-0.01415 0.2811-0.0094 0.310059 0.01465 0.05469 0.04539 0.05467 0.07472-0.0049 0.134277-0.0672 0.0672-0.513544 0.06905-0.568848 0.0025-0.07744-0.09331-0.01442-0.129992 0.263672-0.151367zm-0.100098 0.876465c0.117351-0.0044 0.242716 0.0069 0.332032 0.03174 0.141355 0.03926 0.252715 0.156405 0.239258 0.251465-0.01248 0.08812-0.02599 0.08739-0.573731 0.04639l-0.412598-0.0293 0.0098-0.09521c0.0073-0.07454 0.03336-0.109487 0.117187-0.151366 0.06086-0.03041 0.170737-0.04934 0.288086-0.05371zm-1.174316 2.287597c-0.041 0.0023-0.110005 0.02234-0.239258 0.06104-0.35035 0.104875-0.659996 0.171582-0.988769 0.212402-0.376192 0.04671-0.528038 0.0877-0.856934 0.234375-0.441218 0.196772-0.773557 0.44463-0.925293 0.690918-0.0366 0.05941-0.0978 0.140853-0.134277 0.180663-0.193821 0.211522-0.565736 0.961672-0.566406 1.140136v0.100095h8.996581l-0.09277-0.285645c-0.05044-0.156729-0.119353-0.339814-0.153806-0.407715-0.07493-0.147646-0.657996-0.938506-0.81543-1.105956-0.145536-0.154792-0.185281-0.17399-0.712891-0.32959-0.246142-0.07259-0.539074-0.176862-0.649414-0.231934-0.248173-0.123875-0.386078-0.157796-0.446777-0.107425-0.07344 0.06095-0.05433 0.115487 0.09522 0.258789l0.141601 0.136718-0.270996 0.08301c-0.404846 0.123487-0.578695 0.142641-1.33789 0.146485-0.679 0.0035-0.700961 0.0014-0.942383-0.08056-0.253516-0.08612-0.478526-0.219035-0.478526-0.280762 0-0.01915 0.06884-0.06707 0.153809-0.107425 0.195777-0.09295 0.314788-0.200449 0.290527-0.263673-0.0119-0.03101-0.02492-0.04617-0.06592-0.04395z" style="fill:#8b9cbe"/>
 <path d="m8.665039 11.880371c-0.263731-0.0093-0.318263-2.71e-4 -0.522461 0.07813-0.299253 0.11489-0.535105 0.329452-0.698242 0.634766-0.119194 0.223083-0.119629 0.225418-0.119629 0.578613 0 0.345469 0.0014 0.361086 0.112305 0.593262 0.08925 0.186891 0.111484 0.26391 0.09766 0.349121-0.01379 0.08498 2.1e-5 0.136046 0.06348 0.231933 0.04467 0.0675 0.08057 0.144606 0.08057 0.17334 0 0.07176 0.08949 0.166017 0.158691 0.166017 0.03138 0 0.109995-0.02709 0.17334-0.06104 0.172515-0.09246 0.264438-0.08064 0.361328 0.04639 0.141902 0.186042 0.179697 0.312579 0.141602 0.463866-0.01832 0.07275-0.03174 0.227335-0.03174 0.341797 0 0.171193 0.01071 0.219558 0.06592 0.27832 0.07745 0.08244 0.169414 0.09288 0.263672 0.02686 0.06427-0.04501 0.112175-0.168374 0.256347-0.661621 0.07089-0.242533 0.08279-0.259884 0.451662-0.578619 0.349289-0.301817 0.518382-0.646402 0.402832-0.822754-0.03877-0.05917-0.04252-0.100384-0.01709-0.209961 0.01732-0.07464 0.02509-0.258151 0.01709-0.407715-0.01248-0.233289-0.02925-0.302852-0.124511-0.495607-0.13642-0.276027-0.344636-0.480108-0.629882-0.615235-0.179362-0.08497-0.248295-0.100863-0.50293-0.109863zm-0.03418 0.04394c0.18597 0.0016 0.369918 0.04968 0.556641 0.141602 0.47815 0.235393 0.767407 0.786303 0.683594 1.30127-0.02935 0.180357-0.112032 0.393066-0.153809 0.393066-0.01286 0-0.09597 0.06694-0.183105 0.151367-0.206721 0.200298-0.59449 0.390323-0.883789 0.432129-0.242332 0.03502-0.270031 0.03662-0.400391 0.0049-0.12321-0.03-0.286057-0.115975-0.407715-0.214844-0.05455-0.04433-0.138702-0.111315-0.187988-0.148926-0.11155-0.08512-0.237142-0.344288-0.285645-0.59082-0.100576-0.511219 0.214066-1.10969 0.700684-1.337891 0.189126-0.08869 0.375553-0.133435 0.561523-0.131836zm5.998536 0.209961c-0.333088-4.43e-4 -0.667424 0.128745-0.935059 0.390625-0.373141 0.365119-0.485262 0.884213-0.305176 1.403809 0.05031 0.145169 0.05658 0.202173 0.03174 0.273438-0.06317 0.181198-0.04143 0.254925 0.141601 0.458984 0.255307 0.284642 0.490669 0.781685 0.551758 1.166992 0.02557 0.161266 0.04633 0.369655 0.04639 0.463867 6.9e-5 0.09421 0.01625 0.187144 0.03662 0.207519 0.05129 0.05129 0.103918 0.04745 0.166016-0.01465 0.04651-0.04651 0.05146-0.103662 0.03662-0.478516-0.01456-0.36785-0.01-0.434853 0.03418-0.48584 0.08464-0.09773 0.239525-0.0527 0.3125 0.09034 0.06385 0.125152 0.129202 0.165457 0.219727 0.136719 0.111787-0.03547 0.105512-0.177501-0.02441-0.573731-0.02085-0.06359 0.0765-0.152964 0.354004-0.322265 0.196154-0.119675 0.209171-0.131315 0.224609-0.26123 0.01771-0.148959 0.02466-0.166797 0.170898-0.358887 0.380867-0.500303 0.322684-1.239009-0.136719-1.704104-0.259368-0.262583-0.592207-0.392624-0.925293-0.393067zm0.195312 0.07568c0.138543 0.0215 0.274239 0.06607 0.388183 0.126953 0.196672 0.105086 0.428669 0.332589 0.534669 0.527344 0.107012 0.196628 0.185126 0.595357 0.141601 0.720215-0.01738 0.04985-0.03174 0.124172-0.03174 0.163574 0 0.107199-0.134093 0.379826-0.25879 0.524902-0.06056 0.07046-0.175599 0.169029-0.256348 0.217286-0.139887 0.0836-0.166965 0.08639-0.563965 0.09277-0.229166 0.0036-0.450725-0.0051-0.493164-0.01954-0.256158-0.08673-0.49321-0.225182-0.639648-0.375971-0.19767-0.203542-0.257669-0.343235-0.27832-0.644531-0.04506-0.657445 0.388278-1.208676 1.049804-1.330567 0.127273-0.02345 0.269172-0.02394 0.407715-0.0024zm-6.987305 2.670908c-0.02393-0.0035-0.04978 0.0083-0.07813 0.03662-0.03778 0.03778-0.04127 0.06468-0.01709 0.109862 0.03869 0.07235 0.09914 0.07562 0.153809 0.0097 0.02868-0.03457 0.03188-0.06259 0.0098-0.09766-0.02262-0.03586-0.04443-0.05506-0.06836-0.05859zm0.810547 1.491699c-0.04073 0.0045-0.0825 0.02952-0.12207 0.07324-0.06824 0.0754-0.03312 0.238879 0.05859 0.275879 0.09019 0.03634 0.09472 0.0367 0.153809-0.0074 0.08581-0.06394 0.100015-0.222247 0.02685-0.29541-0.03541-0.03541-0.07646-0.0509-0.117188-0.04639z" style="fill:#af2828"/>
 <path d="m3 2c-0.554 0-1 0.446-1 1v0.5c0-0.554 0.446-1 1-1h18c0.554 0 1 0.446 1 1v-0.5c0-0.554-0.446-1-1-1z" style="fill:#8b9cbe;opacity:.1"/>
</svg>
