<svg width="24" height="24" version="1.1" xmlns="http://www.w3.org/2000/svg">
 <g transform="translate(1,1)">
  <rect x="1" y="1.5" width="20" height="20" rx="2" ry="2" style="opacity:.2"/>
  <rect x="1" y="1" width="20" height="20" rx="2" ry="2" style="fill:#b2bfd9"/>
  <path d="m3 1c-1.108 0-2 0.892-2 2v0.5c0-1.108 0.892-2 2-2h16c1.108 0 2 0.892 2 2v-0.5c0-1.108-0.892-2-2-2z" style="fill:#8b9cbe;opacity:.2"/>
  <rect x="3" y="13" width="3" height="8" style="fill:#3ca2e4"/>
  <rect x="16" y="13" width="3" height="8" style="fill:#3ca2e4"/>
  <path d="m4.5 12.5a1.5 1.5 0 0 0-1.5 1.5 1.5 1.5 0 0 0 1.5 1.5 1.5 1.5 0 0 0 1.5-1.5 1.5 1.5 0 0 0-1.5-1.5zm13 0a1.5 1.5 0 0 0-1.5 1.5 1.5 1.5 0 0 0 1.5 1.5 1.5 1.5 0 0 0 1.5-1.5 1.5 1.5 0 0 0-1.5-1.5zm-16.5 4v1h20v-1z" style="opacity:.2"/>
  <circle cx="4.5" cy="13.5" r="1.5" style="fill:#4f4f4f"/>
  <path d="m1 16v1h20v-1z" style="fill:#4f4f4f"/>
  <circle cx="17.5" cy="13.5" r="1.5" style="fill:#4f4f4f"/>
 </g>
</svg>
