<svg width="24" height="24" version="1.1" xmlns="http://www.w3.org/2000/svg">
 <g transform="translate(1,1)">
  <path d="m16.990234 6.4899919a1.0001 1.0001 0 0 0-0.697265 1.7167968l1 1c0.382149 0.3821488 0.549976 0.7358658 0.632812 0.9843753 0.082837 0.248509 0.074219 0.308594 0.074219 0.308594a1.0001 1.0001 0 1 0 2 0s-0.0086-0.439915-0.175781-0.9414065c-0.167164-0.5014914-0.499337-1.1477741-1.117188-1.7656252l-1-1a1.0001 1.0001 0 0 0-0.716797-0.3027344z" style="opacity:.2"/>
  <path d="m14.5 13.5c-1.932997 0-3.5 1.567003-3.5 3.5s1.567003 3.5 3.5 3.5c1.141237-5.19e-4 2.5 0 2.5 0s1.348752-2e-3 2 0c1.104569 0 2-1.567003 2-3.5s0-3.5-1-3.5c-0.652143 0.0013-2 1-3 2-0.653855-0.934955-1.359095-1.998398-2.5-2z" style="opacity:.2"/>
  <path d="m16.990234 5.9902344a1.0001 1.0001 0 0 0-0.697265 1.7167968l1 1c0.382149 0.3821489 0.549976 0.7358662 0.632812 0.984375 0.082837 0.2485089 0.074219 0.3085938 0.074219 0.3085938a1.0001 1.0001 0 1 0 2 0s-0.0086-0.4399151-0.175781-0.9414062c-0.167164-0.5014912-0.499337-1.1477739-1.117188-1.765625l-1-1a1.0001 1.0001 0 0 0-0.716797-0.3027344z" style="fill:#fcbbb8"/>
  <path d="m14.5 13c-1.932997 0-3.5 1.567003-3.5 3.5s1.567003 3.5 3.5 3.5c1.141237-5.19e-4 2.5 0 2.5 0s1.348752-2e-3 2 0c1.104569 0 2-1.567003 2-3.5s0-3.5-1-3.5c-0.652143 0.0013-2 1-3 2-0.653855-0.934955-1.359095-1.998398-2.5-2z" style="fill:#3b655d"/>
  <path d="m14.5 13c-1.932997 0-3.5 1.567003-3.5 3.5 0 0.08569 0.01934 0.165854 0.02539 0.25 0.130514-1.814043 1.627301-3.25 3.474609-3.25 1.140905 0.0016 1.846145 1.065045 2.5 2 1-1 2.347857-1.9987 3-2 0.923354 0 0.990669 1.355508 0.996094 3.082031 3.77e-4 -0.027936 0.003907-0.053937 0.003907-0.082031 0-1.932997 0-3.5-1-3.5-0.652143 0.0013-2 1-3 2-0.653855-0.934955-1.359095-1.998398-2.5-2z" style="fill:#8b9cbe;opacity:.1"/>
  <circle cx="14.5" cy="3.5" r="1.5" style="fill:#d3c76a"/>
  <path d="M 14.5,2 A 1.5,1.5 0 0 0 13,3.5 1.5,1.5 0 0 0 13.021484,3.7558594 1.5,1.5 0 0 1 14.5,2.5 1.5,1.5 0 0 1 15.978516,3.7441406 1.5,1.5 0 0 0 16,3.5 1.5,1.5 0 0 0 14.5,2 Z" style="fill:#8b9cbe;opacity:.1"/>
  <path d="m11 20.499778c7 0 7-3 7-3s0-4-2-8.0000002c2 0 4-0.509288 4-2 0-1-3-4-7-4-10 0-9.1723941 6.179267-10 8.0000002-5 11 7 9 8 9z" style="opacity:.2"/>
  <path d="m11 20c7 0 7-3 7-3s0-4-2-8c2 0 4-0.509288 4-2 0-1-3-4-7-4-10 0-9.1723941 6.179267-10 8-5 11 7 9 8 9z" style="fill:#4f877c"/>
  <path d="M 13,3 C 3,3 3.8276059,9.179267 3,11 2.1026116,12.974255 1.7609259,14.52459 1.796875,15.748047 1.8569903,14.609227 2.2217427,13.212166 3,11.5 c 0.8276059,-1.820733 3e-7,-8 10,-8 3.722443,0 6.574641,2.5971676 6.953125,3.7636719 C 19.96908,7.1759399 20,7.0956959 20,7 20,6 17,3 13,3 Z m 3.21875,6.4921875 C 16.145546,9.493579 16.073303,9.5 16,9.5 c 1.737242,3.474485 1.954389,6.785695 1.984375,7.638672 C 17.999233,17.05231 18,17 18,17 18,17 17.98126,13.320613 16.21875,9.4921875 Z" style="fill:#8b9cbe;opacity:.1"/>
  <circle cx="14.5" cy="6" r="1.5" style="opacity:.2"/>
  <circle cx="14.5" cy="5.5" r="1.5" style="fill:#8b9cbe"/>
  <circle cx="14.5" cy="5.5" r=".5" style="fill:#17191e"/>
  <path d="m12 11c-1 0-2 2-2 2s0-1-1-1-2 1-2 1 0-1-1-1c-2 0-3 2-3 2s0.6373068-1.918456-0.1328125-2.685547c-4.620537 10.638267 7.1426965 8.685547 8.1328125 8.685547 7 0 7-3 7-3s-0.01757-2.765007-1.162109-5.990234c-1.821479 0.057662-1.837891 0.990234-1.837891 0.990234h-1s-1-1-2-1z" style="fill:#e6dfa4"/>
  <path d="m7.5 14.5c-1.9329966 0-3.5 1.567003-3.5 3.5s1.5670034 3.5 3.5 3.5c1.1412368-5.19e-4 2.5 0 2.5 0s1.348752-2e-3 2 0c1.104569 0 2-1.567003 2-3.5s0-3.5-1-3.5c-0.652143 0.0013-2 1-3 2-0.6538554-0.934955-1.3590944-1.998398-2.5-2z" style="opacity:.2"/>
  <path d="m7.5 14c-1.9329966 0-3.5 1.567003-3.5 3.5s1.5670034 3.5 3.5 3.5c1.1412368-5.19e-4 2.5 0 2.5 0s1.348752-2e-3 2 0c1.104569 0 2-1.567003 2-3.5s0-3.5-1-3.5c-0.652143 0.0013-2 1-3 2-0.6538554-0.934955-1.3590944-1.998398-2.5-2z" style="fill:#4f877c"/>
  <path d="m7.5 14c-1.9329966 0-3.5 1.567003-3.5 3.5 0 0.08569 0.019337 0.165854 0.025391 0.25 0.1305141-1.814043 1.6273009-3.25 3.474609-3.25 1.1409056 0.0016 1.8461446 1.065045 2.5 2 1-1 2.347857-1.9987 3-2 0.923354 0 0.990669 1.355508 0.996094 3.082031 3.76e-4 -0.027936 0.003906-0.053937 0.003906-0.082031 0-1.932997 0-3.5-1-3.5-0.652143 0.0013-2 1-3 2-0.6538554-0.934955-1.3590944-1.998398-2.5-2z" style="fill:#8b9cbe;opacity:.2"/>
  <path d="m5 9.5s-1 2-1 4c0 1 0.254644 2 1 2 3 0 3-1 3-1v-5z" style="opacity:.2"/>
  <path d="m5 9s-1 2-1 4c0 1 0.254644 2 1 2 3 0 3-1 3-1v-5z" style="fill:#4f877c"/>
  <path d="m2 13.5s2-7.9999996 4-8.9999996 2 0 2 0 4 5.9999996 6 5.9999996 2-1 2-1 1 0 1 1-1 1-3 1c-7 0-12 2-12 2z" style="opacity:.2"/>
  <path d="m2 13s2-8 4-9 2 0 2 0 4 6 6 6 2-1 2-1 1 0 1 1-1 1-3 1c-7 0-12 2-12 2z" style="fill:#af2323"/>
  <path d="M 7.5117188,3.5605469 C 7.21875,3.53125 6.75,3.625 6,4 4,5 2,13 2,13 2,13 2.1327978,12.954092 2.1503906,12.947266 2.5182343,11.550242 4.2183907,5.3908046 6,4.5 c 2,-1 2,0 2,0 0,0 4,6 6,6 2,0 2,-1 2,-1 0,0 0.805971,0.00702 0.966797,0.738281 C 16.98307,10.163617 17,10.090203 17,10 17,9.0000004 16,9 16,9 16,9 16,10 14,10 12,10 8,4 8,4 8,4 8,3.609375 7.5117188,3.5605469 Z" style="fill:#8b9cbe;opacity:.1"/>
  <path d="m10 2.5001724a1.0001 1.0001 0 0 0-0.1992188 0.0214843 1.0001 1.0001 0 0 0-0.3652343 0.1582031 1.0001 1.0001 0 0 0-0.1523438 0.1289063 1.0001 1.0001 0 0 0-0.1230469 0.1582031 1.0001 1.0001 0 0 0-0.048828 0.085937 1.0001 1.0001 0 0 0-0.070312 0.1875 1.0001 1.0001 0 0 0-0.033203 0.1972657 1.0001 1.0001 0 0 0 0 0.099609 1.0001 1.0001 0 0 0 0.054687 0.2929688 1.0001 1.0001 0 0 0 0.042969 0.1054687l0.9999998 2a1.0001 1.0001 0 0 0 0.175781 0.2421875 1.0001 1.0001 0 0 0 0.07422 0.066406 1.0001 1.0001 0 0 0 1.287109-0.00781 1.0001 1.0001 0 0 0 0.07422-0.068359 1.0001 1.0001 0 0 0 0.06445-0.076172 1.0001 1.0001 0 0 0 0.113281-1.0507812l-1-2a1.0001 1.0001 0 0 0-0.05078-0.085937 1.0001 1.0001 0 0 0-0.125-0.15625 1.0001 1.0001 0 0 0-0.07422-0.066406 1.0001 1.0001 0 0 0-0.08008-0.060547 1.0001 1.0001 0 0 0-0.175781-0.095703 1.0001 1.0001 0 0 0-0.09375-0.033203 1.0001 1.0001 0 0 0-0.09765-0.02344 1.0001 1.0001 0 0 0-0.09766-0.013672 1.0001 1.0001 0 0 0-0.099609-0.0058593z" style="opacity:.2"/>
  <path d="m10 3 1 2z" style="fill:none;stroke-linecap:round;stroke-linejoin:round;stroke-width:2;stroke:#e6dfa4"/>
  <path d="m14 10.5005h1s2 0 2 2-2-1-2-1h-1s-2 3-2 1 2-2 2-2z" style="opacity:.2"/>
  <path d="m14 10h1s2 0 2 2-2-1-2-1h-1s-2 3-2 1 2-2 2-2z" style="fill:#d63030"/>
  <path d="m10 2.0117188a1.0001 1.0001 0 0 0-0.1992188 0.0214843 1.0001 1.0001 0 0 0-0.3652343 0.1582031 1.0001 1.0001 0 0 0-0.1523438 0.1289063 1.0001 1.0001 0 0 0-0.1230469 0.1582031 1.0001 1.0001 0 0 0-0.048828 0.085937 1.0001 1.0001 0 0 0-0.070312 0.1875 1.0001 1.0001 0 0 0-0.033203 0.1972657 1.0001 1.0001 0 0 0 0 0.099609 1.0001 1.0001 0 0 0 0.029297 0.2070313 1.0001 1.0001 0 0 1 0.00391-0.015625 1.0001 1.0001 0 0 1 0.070312-0.1875 1.0001 1.0001 0 0 1 0.048828-0.085937 1.0001 1.0001 0 0 1 0.1230429-0.1582028 1.0001 1.0001 0 0 1 0.1523438-0.1289063 1.0001 1.0001 0 0 1 0.3652343-0.1582031 1.0001 1.0001 0 0 1 0.1992188-0.0214844 1.0001 1.0001 0 0 1 0.09961 0.00586 1.0001 1.0001 0 0 1 0.09766 0.013672 1.0001 1.0001 0 0 1 0.09766 0.023438 1.0001 1.0001 0 0 1 0.09375 0.033203 1.0001 1.0001 0 0 1 0.175781 0.095703 1.0001 1.0001 0 0 1 0.08008 0.060547 1.0001 1.0001 0 0 1 0.07422 0.066406 1.0001 1.0001 0 0 1 0.125 0.15625 1.0001 1.0001 0 0 1 0.05078 0.085937l1 2a1.0001 1.0001 0 0 1 0.06836 0.1894532 1.0001 1.0001 0 0 0-0.06836-0.6777344l-1-2a1.0001 1.0001 0 0 0-0.05078-0.085937 1.0001 1.0001 0 0 0-0.125-0.15625 1.0001 1.0001 0 0 0-0.07422-0.066406 1.0001 1.0001 0 0 0-0.08008-0.060547 1.0001 1.0001 0 0 0-0.175781-0.095703 1.0001 1.0001 0 0 0-0.09375-0.033203 1.0001 1.0001 0 0 0-0.097664-0.0234388 1.0001 1.0001 0 0 0-0.097657-0.0136719 1.0001 1.0001 0 0 0-0.099609-0.0058593z" style="fill:#8b9cbe;opacity:.2"/>
  <path d="m 14,10 c 0,0 -2,0 -2,2 0,0.125 0.0088,0.230469 0.02344,0.318359 C 12.151693,10.517676 14,10.5 14,10.5 h 1 c 0,0 1.848307,0.01768 1.976562,1.818359 C 16.991211,12.230469 17,12.125 17,12 17,10 15,10 15,10 Z" style="fill:#8b9cbe;opacity:.2"/>
 </g>
</svg>
