<svg xmlns="http://www.w3.org/2000/svg" width="24" height="24" version="1.1">
 <path style="opacity:.2" d="m11.5 2.5c-0.05635 0-0.298383 0.1627069-0.55664 0.3613281-2.281563 1.7149073-5.4906235 3.1441164-8.5468756 3.5849609l-0.3964844 0.0625 0.0273435 0.4052735c0.046141 0.6853995 0.4376542 2.5048995 0.8144532 3.7832035 0.4822766 1.636139 1.0166268 3.010505 1.7187503 4.423828 1.590119 3.20079 3.6000275 5.539556 6.069336 7.061523 0.321703 0.198284 0.620297 0.305099 0.870117 0.317384 0.24982-0.01228 0.548414-0.1191 0.870117-0.317383 2.469308-1.521967 4.479217-3.860733 6.069336-7.061523 0.702123-1.413324 1.236473-2.787689 1.71875-4.423828 0.376799-1.278304 0.768312-3.097804 0.814453-3.7832035l0.027344-0.405273-0.396485-0.0625c-3.056252-0.4408445-6.265312-1.8700536-8.546874-3.5849609-0.258257-0.1986212-0.500288-0.3613281-0.556641-0.3613281z"/>
 <path style="fill:#fe6d40" d="m11.5 2c-0.056353 0-0.298383 0.1627069-0.55664 0.3613281-2.281563 1.7149073-5.4906235 3.1441164-8.5468756 3.5849609l-0.3964844 0.0625 0.0273435 0.4052735c0.046141 0.6853995 0.4376542 2.5048995 0.8144532 3.7832035 0.4822766 1.636139 1.0166268 3.010505 1.7187503 4.423828 1.590119 3.20079 3.6000275 5.539556 6.069336 7.061523 0.321703 0.198284 0.620297 0.305099 0.870117 0.317384 0.24982-0.01228 0.548414-0.1191 0.870117-0.317383 2.469308-1.521967 4.479217-3.860733 6.069336-7.061523 0.702123-1.413324 1.236473-2.787689 1.71875-4.423828 0.376799-1.278304 0.768312-3.097804 0.814453-3.7832035l0.027344-0.405273-0.396485-0.0625c-3.056252-0.4408445-6.265312-1.8700536-8.546874-3.5849609-0.258257-0.1986212-0.500288-0.3613281-0.556641-0.3613281z"/>
 <path style="opacity:.2" d="m11.5 4.8846326c-2.0661075 1.4290314-4.5681105 2.5697009-7.1923828 3.1884764 0.1465871 0.737231 0.2449183 1.355558 0.4521483 2.058594 0.45488 1.543195 0.9396385 2.786861 1.591797 4.099609 1.4205945 2.85955 3.1276545 4.818467 5.1484375 6.117188 2.020783-1.298721 3.727843-3.257638 5.148437-6.117188 0.652159-1.312748 1.136917-2.556415 1.591797-4.099609 0.20723-0.703036 0.305561-1.321363 0.452149-2.058594-2.624273-0.6187755-5.126276-1.759445-7.192383-3.1884764z"/>
 <path style="fill:#8b9cbe" d="m11.5 4.3847656c-2.0661075 1.4290314-4.5681105 2.5697009-7.1923828 3.1884764 0.1465871 0.737231 0.2449183 1.355558 0.4521483 2.058594 0.45488 1.543195 0.9396385 2.786862 1.591797 4.09961 1.4205945 2.859549 3.1276545 4.818466 5.1484375 6.117187 2.020783-1.298721 3.727843-3.257638 5.148437-6.117187 0.652159-1.312749 1.136917-2.556415 1.591797-4.09961 0.20723-0.703036 0.305561-1.321363 0.452149-2.058594-2.624273-0.6187755-5.126276-1.759445-7.192383-3.1884764z"/>
 <rect style="fill:#fe6d40" width="1" height="4" x="11" y="13"/>
 <path style="opacity:.2" transform="matrix(1.3334326,0,0,1.5397153,-15.230816,-20.285795)" d="m20.046619 18.04606 1.312403 2.273148 1.312402 2.273147h-2.624805-2.624804l1.312402-2.273147z"/>
 <path style="fill:#fe6d40" transform="matrix(1.3334326,0,0,1.5397153,-15.230816,-20.785795)" d="m20.046619 18.04606 1.312403 2.273148 1.312402 2.273147h-2.624805-2.624804l1.312402-2.273147z"/>
 <path style="opacity:.2" transform="matrix(1.3334326,0,0,1.0997966,-15.230816,-13.346995)" d="m20.046619 18.04606 1.312403 2.273148 1.312402 2.273147h-2.624805-2.624804l1.312402-2.273147z"/>
 <path style="fill:#fe6d40" transform="matrix(1.3334326,0,0,1.0997966,-15.230816,-13.846995)" d="m20.046619 18.04606 1.312403 2.273148 1.312402 2.273147h-2.624805-2.624804l1.312402-2.273147z"/>
 <path style="opacity:.2;fill:#8b9cbe" d="m11.5 2c-0.056353 0-0.298383 0.162707-0.55664 0.3613281-2.281563 1.7149073-5.4906235 3.1441164-8.5468756 3.5849609l-0.3964844 0.0625 0.0273435 0.4052735c0.00146 0.02174 0.00957 0.064897 0.011718 0.088867l0.3574229-0.0566405c3.0562521-0.4408445 6.2653126-1.8700536 8.5468756-3.5849609 0.258257-0.1986211 0.500287-0.3613281 0.55664-0.3613281 0.05635 0 0.298384 0.1627069 0.556641 0.3613281 2.281562 1.7149074 5.490622 3.1441164 8.546874 3.5849609l0.357422 0.05664c0.0022-0.02397 0.01025-0.067125 0.01172-0.088867l0.027343-0.405273-0.396485-0.0625c-3.056252-0.4408445-6.265312-1.8700535-8.546874-3.5849609-0.258257-0.1986212-0.500288-0.3613281-0.556641-0.3613281z"/>
</svg>
