<svg width="24" height="24" version="1.1" xmlns="http://www.w3.org/2000/svg">
 <g transform="translate(1,1)">
  <rect x="1" y="1.5" width="20" height="20" rx="1" ry="1" style="opacity:.2"/>
  <rect x="1" y="1" width="20" height="20" rx="1" ry="1" style="fill:#522f17"/>
  <path d="m5.5 16.496h2.0645l3.292-5.1875 2.245 5.6915 3.338-0.964-0.5155-1.7335-1.548 0.504-3.5195-8.951h-3.0655v1.749h1.791l0.5155 1.467z" style="opacity:.2"/>
  <path d="m5.5 15.996h2.0645l3.292-5.1875 2.245 5.6915 3.338-0.964-0.5155-1.7335-1.548 0.504-3.5195-8.951h-3.0655v1.749h1.791l0.5155 1.467z" style="fill:#a38976"/>
  <path d="m2 1c-0.554 0-1 0.446-1 1v0.5c0-0.554 0.446-1 1-1h18c0.554 0 1 0.446 1 1v-0.5c0-0.554-0.446-1-1-1z" style="fill:#8b9cbe;opacity:.1"/>
  <path d="m7.7910156 5.3554688v0.5h3.0664064l3.519531 8.9511722 1.546875-0.503907 0.378906 1.271485 0.136719-0.03906-0.515625-1.732422-1.546875 0.503907-3.519531-8.9511722zm2.1953125 3.3984374-4.4863281 7.2421878h0.3105469l4.2871091-6.9238284z" style="fill:#8b9cbe;opacity:.2"/>
 </g>
</svg>
