<svg width="24" height="24" version="1.1" xmlns="http://www.w3.org/2000/svg">
 <g transform="translate(1,1)">
  <path d="M 6.769531,1.5 C 3.58282,1.5 1,4.4399109 1,8.0664062 1,9.0407791 1.151098,9.979596 1.416016,10.875 c 0,0 0.240321,0.807207 0.453125,1.251953 C 2.182634,12.859907 2.568219,13.557783 3,14.220703 V 17.5 a 1.0001,1.0001 0 1 0 2,0 V 16.748047 C 7.784538,19.727428 11,21.5 11,21.5 c 0,0 3.215462,-1.772572 6,-4.751953 V 19.5 a 1.0001,1.0001 0 1 0 2,0 v -5.279297 c 0.431781,-0.66292 0.817366,-1.360796 1.130859,-2.09375 C 20.343663,11.682207 20.583984,10.875 20.583984,10.875 20.848901,9.979596 21,9.0407792 21,8.0664062 21,4.4399108 18.415228,1.5 15.228516,1.5 13.557262,1.5 12.054049,2.2078808 11,3.5 9.94595,2.2078808 8.440785,1.5 6.769531,1.5 Z" style="opacity:.2"/>
  <path d="M 6.7695312,1 C 3.5828195,1 1,3.9399109 1,7.5664062 1,8.5407791 1.1510983,9.4795959 1.4160156,10.375 c 0,0 0.2403211,0.807207 0.453125,1.251953 C 2.182634,12.359907 2.5682193,13.057783 3,13.720703 V 17 a 1.0001,1.0001 0 1 0 2,0 V 16.248047 C 7.7845383,19.227428 11,21 11,21 c 0,0 3.215462,-1.772572 6,-4.751953 V 19 a 1.0001,1.0001 0 1 0 2,0 v -5.279297 c 0.431781,-0.66292 0.817366,-1.360796 1.130859,-2.09375 C 20.343663,11.182207 20.583984,10.375 20.583984,10.375 20.848901,9.4795959 21,8.5407792 21,7.5664062 21,3.9399108 18.415228,1 15.228516,1 13.557262,1 12.054049,1.7078808 11,3 9.9459501,1.7078808 8.4407852,1 6.7695312,1 Z" style="fill:#ed1b24"/>
  <g transform="matrix(.49999998 0 0 .49999998 -.99981864 -1.0000885)" style="fill:#8b9cbe;opacity:.2">
   <g transform="matrix(.090632 0 0 .098526 4 2.2582)" style="fill:#8b9cbe">
    <g style="fill:#8b9cbe">
     <path transform="matrix(11.033631,0,0,10.149605,-44.138522,-22.918024)" d="M 15.541016,4 C 9.1675914,4 4,9.8798216 4,17.132812 4,17.316258 4.016191,17.495593 4.021484,17.677734 4.2341949,10.63747 9.3027031,5 15.541016,5 18.883524,5 21.8919,6.4157615 24,9 26.1081,6.4157615 29.116476,5 32.458984,5 38.697297,5 43.765805,10.63747 43.978516,17.677734 43.983809,17.495593 44,17.316258 44,17.132812 44,9.8798216 38.832409,4 32.458984,4 29.116476,4 26.1081,5.4157615 24,8 21.8919,5.4157615 18.883524,4 15.541016,4 Z" style="fill:#8b9cbe"/>
    </g>
   </g>
  </g>
  <path d="m 11,5.5 a 6,5 0 0 0 -6,5 6,5 0 0 0 2.3476562,3.958984 L 7,15.5 h 1.0625 a 3,2.5 0 0 0 2.9375,2 3,2.5 0 0 0 2.9375,-2 H 15 L 14.654297,14.460938 A 6,5 0 0 0 17,10.5 6,5 0 0 0 11,5.5 Z" style="opacity:.2"/>
  <path d="m11.0625 5a6 5 0 0 0-6 5 6 5 0 0 0 2.3476562 3.958984l-0.3476562 1.041016h1.0625a3 2.5 0 0 0 2.9375 2 3 2.5 0 0 0 2.9375-2h1.0625l-0.345703-1.039062a6 5 0 0 0 2.345703-3.960938 6 5 0 0 0-6-5z" style="fill:#8b9cbe"/>
  <path d="M 7.4492188,8.5996094 A 2,2.5 0 0 0 6.1289062,10.128906 L 5,9 6,11 a 2,2.5 0 0 0 2,2.5 2,2.5 0 0 0 1.8808594,-1.658203 z m 7.1015622,0 -2.43164,3.2402346 A 2,2.5 0 0 0 14,13.5 2,2.5 0 0 0 16,11 l 1,-2 -1.126953,1.126953 A 2,2.5 0 0 0 14.550781,8.5996094 Z" style="fill:#17191e"/>
  <path d="m9 14v1h-0.875a3 2.5 0 0 0 0.5449219 1h4.7871091a3 2.5 0 0 0 0.542969-1v-1h-1v1h-1v-1h-1v1h-1v-1z" style="fill:#17191e"/>
 </g>
</svg>
