<svg xmlns="http://www.w3.org/2000/svg" width="24" height="24" x="0" y="0" version="1.1" xml:space="preserve">
 <path style="opacity:0.2" d="m 6.9995766,2.5 c -0.551789,0 -1,0.4482109 -1,1 0,0.061043 0.024652,0.1138334 0.035156,0.171875 C 5.7359724,3.4796268 5.3495892,3.4392124 5.0171547,3.6230469 4.5342183,3.8878831 4.3575149,4.4975321 4.6245766,4.9804688 4.8916383,5.4656307 5.4968365,5.6420617 5.9819985,5.375 6.3659819,5.1644284 6.3880248,5.2375357 6.3160316,4.8279688 c 0.1554366,0.099564 0.3292754,0.171875 0.5273438,0.171875 0.010396,0 0.018977,-0.00554 0.029297,-0.00586 -0.1179143,0.560344 0.3162871,0.6459001 0.8593261,0.892735 C 8.360475,6.1723897 9.1026644,5.896058 9.3862954,5.2675781 9.671967,4.6411419 9.3956292,3.8989524 8.7671547,3.6132812 8.5126917,3.4976163 8.2434179,3.4939292 7.989811,3.5488281 7.9906842,3.5317164 7.9995766,3.5173267 7.9995766,3.5 c 0,-0.5517891 -0.4482105,-1 -1,-1 z"/>
 <path style="opacity:0.2" d="m 4.0509912,6.8400195 c 5.75e-5,0.014535 -9.75e-4,0.02961 -9.75e-4,0.043945 C 4.0500147,7.1329445 2.997963,7.5840205 3.000003,8.833 3.5836765,8.500347 4.466228,8.499992 4.5499015,8.499992 4.56025,8.514502 4.572561,8.526697 4.5831045,8.541007 4.2468203,8.112076 4.0600381,7.384985 4.0509912,6.8400195 Z"/>
 <path style="opacity:0.2" d="m 11.473697,19.167969 c -0.0041,0.0031 0.005,0.03034 0.0323,0.0625 -0.01457,-0.03556 -0.02918,-0.06487 -0.0323,-0.0625 z m 0.0323,0.0625 c 0.0039,0.0095 0.0044,0.0036 0.0088,0.0166 0.29545,0.806949 -0.166201,1.392294 -0.285841,1.527343 -0.965,0.101024 -1.880693,0.486013 -1.953448,0.558594 -0.3334415,0.25102 -0.333262,0.666949 -0.1634675,0.917969 C 9.279793,22.416283 9.529682,22.5 9.6974305,22.5 9.865179,22.5 10.030881,22.41668 10.19863,22.333008 10.364332,22.249334 11.099088,21.5 11.684162,21.5 c 0.585074,0 0.968001,0.665661 1.13575,0.833008 0.333451,0.248979 0.752822,0.164995 1.002399,-0.08398 0.249577,-0.248979 0.249266,-0.664995 -0.08419,-0.916015 -0.03273,-0.03265 -0.23424,-0.132288 -0.502178,-0.237305 -9.5e-4,-0.0051 9e-5,-0.0084 -0.001,-0.01367 0,0 -0.550365,-0.249334 -0.550365,-1.333008 0,-0.167346 -0.335453,-0.499689 -0.752778,-0.416015 -0.248221,0.04144 -0.372775,-0.04001 -0.425826,-0.102539 z"/>
 <path style="fill:#ff9d20" d="m 4.0509912,6.3400195 c 5.75e-5,0.014535 -9.75e-4,0.02961 -9.75e-4,0.043945 C 4.0500147,6.6329445 2.997963,7.0840205 3.000003,8.333 3.5836765,8.000347 4.466228,7.999992 4.5499015,7.999992 4.56025,8.014502 4.572561,8.026697 4.5831045,8.041007 4.2468203,7.612076 4.0600381,6.884985 4.0509912,6.3400195 Z"/>
 <path style="fill:#ff9d20" d="m 11.473697,18.667969 c -0.0041,0.0031 0.005,0.03034 0.0323,0.0625 -0.01457,-0.03556 -0.02918,-0.06487 -0.0323,-0.0625 z m 0.0323,0.0625 c 0.0039,0.0095 0.0044,0.0036 0.0088,0.0166 0.29545,0.806949 -0.166201,1.392294 -0.285841,1.527343 -0.965,0.101024 -1.880693,0.486013 -1.953448,0.558594 -0.3334415,0.25102 -0.333262,0.666949 -0.1634675,0.917969 C 9.279793,21.916283 9.529682,22 9.6974305,22 9.865179,22 10.030881,21.916681 10.19863,21.833008 10.364332,21.749334 11.099088,21 11.684162,21 c 0.585074,0 0.968001,0.665661 1.13575,0.833008 0.333451,0.248979 0.752822,0.164995 1.002399,-0.08398 0.249577,-0.248979 0.249266,-0.664995 -0.08419,-0.916015 -0.03273,-0.03265 -0.23424,-0.132288 -0.502178,-0.237305 -9.5e-4,-0.0051 9e-5,-0.0084 -0.001,-0.01367 0,0 -0.550365,-0.249334 -0.550365,-1.333008 0,-0.167346 -0.335453,-0.499689 -0.752778,-0.416015 -0.248221,0.04144 -0.372775,-0.04001 -0.425826,-0.102539 z"/>
 <path style="fill:#e53d3d" d="m 6.9995766,2 c -0.551789,0 -1,0.4482109 -1,1 0,0.061043 0.024652,0.1138334 0.035156,0.171875 C 5.7359724,2.9796268 5.3495892,2.9392124 5.0171547,3.1230469 4.5342183,3.3878831 4.3575149,3.9975321 4.6245766,4.4804688 4.8916383,4.9656307 5.4968365,5.1420617 5.9819985,4.875 6.3659819,4.6644284 6.3880248,4.7375357 6.3160316,4.3279688 c 0.1554366,0.099564 0.3292754,0.171875 0.5273438,0.171875 0.010396,0 0.018977,-0.00554 0.029297,-0.00586 -0.1179143,0.560344 0.3162871,0.6459001 0.8593261,0.892735 C 8.360475,5.6723897 9.1026644,5.396058 9.3862954,4.7675781 9.671967,4.1411419 9.3956292,3.3989524 8.7671547,3.1132812 8.5126917,2.9976163 8.2434179,2.9939292 7.989811,3.0488281 7.9906842,3.0317164 7.9995766,3.0173267 7.9995766,3 c 0,-0.5517891 -0.4482105,-1 -1,-1 z"/>
 <path style="opacity:0.2" d="m 6.500003,4.499504 c -1.3256819,0.00158 -2.419631,1.0376862 -2.4931641,2.361328 -0.0071,0.05974 -0.00609,0.119592 -0.00586,0.178711 1.63e-5,0.001 -1.73e-5,0.00195 0,0.00295 0.00967,0.5439235 0.1965457,1.069885 0.5322266,1.4980465 C 4.9468438,9.101873 6,9.518128 6,10.250481 6,11.666807 5,12.666496 5,14.666496 5,18.833843 9.9007475,20.5 12.233401,20.5 c 1.169988,0 2.103817,-0.227777 2.697265,-0.458008 2.475296,-1.069924 3.44806,-3.661547 6.069336,-5.041992 -0.25102,-0.332653 -0.332653,-0.833118 -1,-1.000465 0.334694,-0.416326 0.416327,-0.416326 1,-0.5 -0.416326,-0.5 -0.765936,-0.99707 -1.349609,-0.99707 C 20.650393,12.251444 22,9.7505245 22,8.499504 c -0.332653,0.832653 -3.184922,3 -8.017576,3 C 10.610645,11.209381 9.769317,8.02171 8.6347685,5.702629 8.1888875,4.9675317 7.385277,4.5004594 6.500003,4.499504 Z"/>
 <path style="fill:#d8bfa2" d="m 6.500003,3.999504 c -1.3256819,0.00158 -2.419631,1.0376862 -2.4931641,2.361328 -0.0071,0.05974 -0.00609,0.119592 -0.00586,0.178711 1.63e-5,0.001 -1.73e-5,0.00195 0,0.00295 0.00967,0.5439235 0.1965457,1.069885 0.5322266,1.4980465 C 4.9468438,8.601873 6,9.018128 6,9.7504805 6,11.166807 5,12.166496 5,14.166496 5,18.333843 9.9007475,20 12.233401,20 c 1.169988,0 2.103817,-0.227777 2.697265,-0.458008 2.475296,-1.069924 3.44806,-3.661547 6.069336,-5.041992 -0.25102,-0.332653 -0.332653,-0.833118 -1,-1.000465 0.334694,-0.416326 0.416327,-0.416326 1,-0.5 -0.416326,-0.5 -0.765936,-0.99707 -1.349609,-0.99707 C 20.650393,11.751444 22,9.2505245 22,7.999504 c -0.332653,0.832653 -3.184922,3 -8.017576,3 C 10.610645,10.709381 9.769317,7.52171 8.6347685,5.202629 8.1888875,4.4675317 7.385277,4.0004594 6.500003,3.999504 Z"/>
 <path style="opacity:0.2" d="m 6.5,8 c 0.497959,0 1,-0.502041 1,-1 0,-0.497959 -0.497959,-1 -1,-1 -0.502041,0 -1,0.502041 -1,1 0,0.497959 0.497959,1 1,1 z"/>
 <path style="fill:#8b9cbe" d="m 6.5,7.5 c 0.497959,0 1,-0.502041 1,-1 0,-0.497959 -0.497959,-1 -1,-1 -0.502041,0 -1,0.502041 -1,1 0,0.497959 0.497959,1 1,1 z"/>
 <circle style="fill:#17191e" cx="6.5" cy="6.5" r=".5"/>
 <path style="fill:#8b9cbe;opacity:0.1" d="M 7 2 C 6.448211 2 6 2.4482109 6 3 C 6 3.061043 6.0246522 3.1138334 6.0351562 3.171875 C 5.736396 2.9796268 5.3500126 2.9392124 5.0175781 3.1230469 C 4.6193223 3.3414453 4.445631 3.7918981 4.5410156 4.2148438 C 4.6130867 3.9713456 4.7780273 3.7544135 5.0175781 3.6230469 C 5.3500126 3.4392124 5.736396 3.4796268 6.0351562 3.671875 C 6.0246522 3.6138334 6 3.561043 6 3.5 C 6 2.9482109 6.448211 2.5 7 2.5 C 7.5517895 2.5 8 2.9482109 8 3.5 C 8 3.517327 7.9911076 3.5317161 7.9902344 3.5488281 C 8.2438413 3.4939292 8.5131151 3.4976164 8.7675781 3.6132812 C 9.1610067 3.792113 9.3930348 4.1545362 9.4589844 4.5507812 C 9.6013815 3.9787626 9.3246355 3.36649 8.7675781 3.1132812 C 8.5131151 2.9976163 8.2438413 2.9939292 7.9902344 3.0488281 C 7.9911076 3.0317164 8 3.0173267 8 3 C 8 2.4482109 7.5517895 2 7 2 z"/>
 <path style="fill:#8b9cbe;opacity:0.2" d="M 6.5 4 C 5.1743181 4.00158 4.0813456 5.0376863 4.0078125 6.3613281 C 4.0007125 6.4210681 4.0017231 6.4799435 4.0019531 6.5390625 C 4.0019694 6.5400625 4.0019358 6.5419687 4.0019531 6.5429688 C 4.003256 6.6162542 4.0157703 6.6873276 4.0234375 6.7597656 C 4.1468249 5.4862252 5.2092252 4.5015384 6.5 4.5 C 7.385274 4.5009554 8.1888846 4.9680277 8.6347656 5.703125 C 9.7693141 8.022206 10.610643 11.209877 13.982422 11.5 C 18.577016 11.5 21.353267 9.553106 21.904297 8.6445312 C 21.960108 8.4103835 22 8.1891133 22 8 C 21.667347 8.832653 18.815076 11 13.982422 11 C 10.610643 10.709877 9.7693141 7.522206 8.6347656 5.203125 C 8.1888846 4.4680277 7.385274 4.0009554 6.5 4 z M 5.9707031 10.091797 C 5.8312862 11.336334 5 12.331768 5 14.166016 C 5 14.245143 5.0121424 14.317201 5.015625 14.394531 C 5.1028262 12.579287 6 11.598172 6 10.25 C 6 10.194201 5.9821817 10.144129 5.9707031 10.091797 z M 20.185547 12.177734 C 20.002906 12.334318 19.821108 12.4591 19.650391 12.501953 C 20.062154 12.501953 20.356237 12.754895 20.640625 13.076172 C 20.746248 13.052307 20.823311 13.02533 21 13 C 20.729443 12.675066 20.482302 12.364573 20.185547 12.177734 z M 20.357422 13.660156 C 20.245303 13.724845 20.145741 13.818713 20 14 C 20.453037 14.113606 20.629879 14.374748 20.779297 14.638672 C 20.855823 14.594671 20.920531 14.541851 21 14.5 C 20.804759 14.241266 20.703016 13.886226 20.357422 13.660156 z"/>
</svg>
