<svg width="24" height="24" version="1.1" xmlns="http://www.w3.org/2000/svg">
 <path d="m12.000001 2.500001c-3.692308 0-8.000001 6.1111105-8.000001 11.111111 0 3.67582 3.0769239 8.888888 8.000001 8.888888 4.923077 0 8-5.213068 8-8.888888 0-4.444445-4.307693-11.111111-8-11.111111z" style="opacity:.2"/>
 <path d="M 12.000001,2.000001 C 8.307693,2.000001 4,8.1111115 4,13.111112 4,16.786932 7.0769239,22 12.000001,22 c 4.923077,0 8,-5.213068 8,-8.888888 0,-4.444445 -4.307693,-11.111111 -8,-11.111111 z" style="fill:#7a9a76"/>
 <path d="m7 13.5 2 3 1 4s0.110863 0.751973 0.568359 1.333984c0.459281 0.099854 0.933241 0.166016 1.431641 0.166016 0.278983 0 0.549504-0.020481 0.816406-0.052734 0.457567-0.592156 0.683594-1.447266 0.683594-1.447266l2.5-3v-2l-1 2-2.5 2.5-2.5-4.5-3-2z" style="opacity:.2"/>
 <path d="m12.810547 2.1113281a5.5 10 7.2986217 0 0-5.7656251 9.1894529 5.5 10 7.2986217 0 0 4.1855471 10.619141 5.5 10 7.2986217 0 0 6.724609-9.220703 5.5 10 7.2986217 0 0-0.542969-6.7675784c-1.320355-1.9202993-2.9839-3.4246644-4.601562-3.8203125z" style="opacity:.2"/>
 <path d="m7 13 2 3 1 4s0.283378 2 1.905 2c1.081081 0 1.595-2 1.595-2l2.5-3v-2l-1 2-2.5 2.5-2.5-4.5z" style="fill:#ecff50"/>
 <path d="M 12 2 C 8.307692 2 4 8.1113276 4 13.111328 C 4 13.194044 4.0086166 13.281038 4.0117188 13.365234 C 4.1477602 8.4126834 8.3675093 2.5 12 2.5 C 15.629222 2.5 19.843056 8.9363561 19.986328 13.376953 C 19.989724 13.28878 20 13.197885 20 13.111328 C 20 8.6668831 15.692307 2 12 2 z " style="fill:#8b9cbe;opacity:.2"/>
</svg>
