<svg xmlns="http://www.w3.org/2000/svg" width="24" height="24" version="1">
 <rect style="opacity:0.2" width="20" height="20" x="2" y="2.5" rx="6" ry="6"/>
 <rect style="fill:#17191e" width="20" height="20" x="2" y="2" rx="6" ry="6"/>
 <path style="opacity:0.1;fill:#8b9cbe" d="M 8,2 C 4.676,2 2,4.676 2,8 v 0.5 c 0,-3.324 2.676,-6 6,-6 h 8 c 3.324,0 6,2.676 6,6 V 8 C 22,4.676 19.324,2 16,2 Z"/>
 <path style="opacity:0.2" d="m 7,5.5 v 1 H 6 v 1 H 5 v 1 4 1 h 2 v 1 1 h 2 v 2 h 2 v 2 h 0.5 0.5 0.5 0.5 v -2 h 2 v -2 h 2 v -1 -1 h 2 v -1 -4 -1 h -1 v -1 h -1 v -1 h -1 -1 v 1 h -1 v 1 H 13.5 13 v 1 H 12.5 12 11.5 11 v -1 H 10.5 10 v -1 H 9 v -1 H 8 Z"/>
 <path style="fill:#ff433d" d="M 7 5 L 7 6 L 6 6 L 6 7 L 5 7 L 5 8 L 5 12 L 5 13 L 7 13 L 7 14 L 7 15 L 9 15 L 9 17 L 11 17 L 11 19 L 11.5 19 L 12 19 L 12.5 19 L 13 19 L 13 17 L 15 17 L 15 15 L 17 15 L 17 14 L 17 13 L 19 13 L 19 12 L 19 8 L 19 7 L 18 7 L 18 6 L 17 6 L 17 5 L 16 5 L 15 5 L 15 6 L 14 6 L 14 7 L 13.5 7 L 13 7 L 13 8 L 12.5 8 L 12 8 L 11.5 8 L 11 8 L 11 7 L 10.5 7 L 10 7 L 10 6 L 9 6 L 9 5 L 8 5 L 7 5 z"/>
 <path style="fill:#8b9cbe;opacity:0.2" d="M 7 5 L 7 5.5 L 8 5.5 L 9 5.5 L 9 5 L 8 5 L 7 5 z M 15 5 L 15 5.5 L 16 5.5 L 17 5.5 L 17 5 L 16 5 L 15 5 z M 6 6 L 6 6.5 L 7 6.5 L 7 6 L 6 6 z M 9 6 L 9 6.5 L 10 6.5 L 10 6 L 9 6 z M 14 6 L 14 6.5 L 15 6.5 L 15 6 L 14 6 z M 17 6 L 17 6.5 L 18 6.5 L 18 6 L 17 6 z M 5 7 L 5 7.5 L 6 7.5 L 6 7 L 5 7 z M 10 7 L 10 7.5 L 10.5 7.5 L 11 7.5 L 11 7 L 10.5 7 L 10 7 z M 13 7 L 13 7.5 L 13.5 7.5 L 14 7.5 L 14 7 L 13.5 7 L 13 7 z M 18 7 L 18 7.5 L 19 7.5 L 19 7 L 18 7 z M 11 8 L 11 8.5 L 11.5 8.5 L 12 8.5 L 12.5 8.5 L 13 8.5 L 13 8 L 12.5 8 L 12 8 L 11.5 8 L 11 8 z"/>
</svg>
