<svg width="24" height="24" version="1.1" xmlns="http://www.w3.org/2000/svg">
 <g transform="translate(1,1)">
  <path d="m11.054074 1.0002c-0.418899-0.010095-0.832508 0.094856-1.1955092 0.3033525l-6.7170554 3.8630317c-0.7064077 0.4062158-1.1415611 1.157013-1.1415094 1.9695162v7.6267296c0 0.812411 0.4351023 1.56311 1.1414094 1.969316l6.7170554 3.863232c0.3773412 0.217013 0.8014622 0.318088 1.2223802 0.303225 0.366954-0.01296 0.590422-0.209885 0.919387-0.399076l6.500054-4.000033c0.706407-0.406216 1.000059-0.687509 1.000008-1.500012v-7.5000622c1.7e-5 -0.2754837 0.449558-0.9073939 0.355905-1.1576645-0.182565-0.48787-0.530964-0.9068849-0.997861-1.1753711l-6.717055-3.8630317c-0.331275-0.1902514-0.705221-0.2945608-1.087509-0.3033525z" style="fill:#00e600"/>
  <path d="m11.053574 1.00055a2.2828187 2.2739686 0 0 0-1.1950092 0.3027025l-6.7170554 3.8633317a2.2828187 2.2739686 0 0 0-1.1415094 1.9695162v0.5000041a2.2828187 2.2739686 0 0 1 1.1416094-1.9695162l6.7170554-3.8633317a2.2828187 2.2739686 0 0 1 1.1953092-0.3027375 2.2828187 2.2739686 0 0 1 1.087909 0.3027375l6.717055 3.8633317a2.2828187 2.2739686 0 0 1 1.14151 1.9695162v-0.5000041a2.2828187 2.2739686 0 0 0-1.14151-1.9695162l-6.717055-3.8633317a2.2828187 2.2739686 0 0 0-1.088009-0.3027025z" style="fill:#8b9cbe;opacity:.2"/>
  <path d="m2 14.862664v0.500004a2.2828187 2.2739686 0 0 0 1.1416094 1.968766l6.7170554 3.863332a2.2828187 2.2739686 0 0 0 2.2832182 0l6.717055-3.863532a2.2828187 2.2739686 0 0 0 1.14151-1.969016v-0.500004a2.2828187 2.2739686 0 0 1-1.14161 1.968766l-6.717055 3.863332a2.2828187 2.2739686 0 0 1-2.2832182 0l-6.7170554-3.863532a2.2828187 2.2739686 0 0 1-1.1415094-1.969016z" style="opacity:.2"/>
  <path d="m2.2306206 6.1419867a2.2828187 2.2739686 0 0 0-0.2304706 0.9941492v7.7266261a2.2828187 2.2739686 0 0 0 1.1416109 1.968766l6.7168519 3.863313a2.2828187 2.2739686 0 0 0 1.1416112 0.303713v-9.981527z" style="fill:#00bc00"/>
  <path d="m19.775686 6.1605419-8.776439 4.8779701 9.77e-4 9.960042a2.2828187 2.2739686 0 0 0 1.140634-0.303713l6.717829-3.863313a2.2828187 2.2739686 0 0 0 1.141611-1.968766v-7.7266261a2.2828187 2.2739686 0 0 0-0.224612-0.975594z" style="fill:#009200"/>
  <path d="m19.775615 6.1596909-8.775391 4.8769531v0.499999l8.775391-4.8769521a2.2828187 2.2739686 0 0 1 0.224609 0.9765626v-0.5a2.2828187 2.2739686 0 0 0-0.224609-0.9765626z" style="fill:#8b9cbe;opacity:.1"/>
  <path d="m2.2306926 6.1421128a2.2828187 2.2739686 0 0 0-0.2304688 0.9941407v0.5a2.2828187 2.2739686 0 0 1 0.2304688-0.9941407l8.7695314 4.8750002v-0.499999z" style="fill:#8b9cbe;opacity:.2"/>
  <path d="m3 5.5 1 10h3l1 2 2-1-1-2 1-1v-8zm8 0 1 12h6l1-4-1-2 1-3-2-3zm-5 2h1.9921875l0.0078125 5h-2zm8 0h2v2h-2zm0 5h2v3h-2z" style="opacity:.2"/>
  <path d="m3 5 1 10h3l1 2 2-1-1-2 1-1v-8zm8 0 1 12h6l1-4-1-2 1-3-2-3zm-5 2h1.9921875l0.0078125 5h-2zm8 0h2v2h-2zm0 5h2v3h-2z" style="fill:#ffbb32"/>
  <path d="M 10,12 3.8828125,13.833984 4,15 h 3 l 1,2 2,-1 -1,-2 1,-1 z M 18.572266,12.142578 16,13 v 2 H 14 V 13.666016 L 11.783203,14.40625 12,17 h 6 l 1,-4 z" style="fill:#fd6447"/>
  <path d="M 3,5 3.050781,5.5 H 10 V 5 Z m 8,0 0.04102,0.5 H 17 L 18.888672,8.3339844 19,8 17,5 Z m 3,4 v 0.5 h 2 V 9 Z M 18.099609,11.199219 18,11.5 18.916016,13.333984 19,13 Z M 6,12 v 0.5 H 8 V 12 Z M 9.1660156,14.333984 9,14.5 9.8007812,16.099609 10,16 Z M 14,15 v 0.5 h 2 V 15 Z" style="fill:#8b9cbe;opacity:.2"/>
  <path d="M 10,12 3.8828125,13.833984 3.9316406,14.320312 10,12.5 Z M 18.572266,12.142578 16,13 v 0.5 l 2.572266,-0.857422 0.34375,0.691406 L 19,13 Z M 14,13.666016 11.783203,14.40625 11.824219,14.892578 14,14.166016 Z M 9.1660156,14.333984 9,14.5 9.8007812,16.099609 10,16 Z M 14,15 v 0.5 h 2 V 15 Z" style="fill:#8b9cbe;opacity:.1"/>
 </g>
</svg>
