<svg width="24" height="24" version="1" xmlns="http://www.w3.org/2000/svg">
 <rect transform="matrix(0,-1,-1,0,0,0)" x="-21.99995" y="-20" width="20" height="16" rx="1" ry="1" style="fill:#3bbd53"/>
 <path d="m16.476562 4.4941406c-0.21787 0.0115995-0.40442 0.16195-0.458984 0.3730469-0.878176-0.2206819-2.721647-0.581115-3.517578 0.0332031-0.71051 0.548389-0.710822 2.0725035-1.5 2.5-0.747245 0.404781-2-0.5-2-0.5s1.207082 3.4485894 2.5 3.5996094c0.827706 0.09668 1.247552-1.4426383 2-1.8007812 0.491025-0.2337139 1.297814-0.2178507 1.679688-0.203125l-1.623047 7.0351562c-0.18457-0.012808-0.365825-0.03125-0.556641-0.03125-2.485281 0-4.5 1.119288-4.5 2.5s2.014719 2.5 4.5 2.5 4.5-1.119288 4.5-2.5c0-1.076212-1.230404-1.985599-2.947266-2.337891l2.429688-10.533203c0.09341-0.3295776-0.163754-0.652396-0.50586-0.6347656zm-9.476562 5.0058594 1.5 5h-3.5l3 2.5-1-1.5h2.5l-1-3.5 2.5 2 1.5-1.5 0.5 1.5v-3.5l-2 2.5-4-3.5zm6 7c0.113215 0 0.219978 0.009995 0.330078 0.015625l-0.3125 1.353516c-0.209158 0.663435 0.812639 0.940487 0.964844 0.261718l0.341797-1.486328c1.061615 0.239667 1.800781 0.755055 1.800781 1.355469 0 0.828427-1.39911 1.5-3.125 1.5s-3.125-0.671573-3.125-1.5 1.39911-1.5 3.125-1.5z" style="opacity:.2"/>
 <path d="m4 20.99995v0.5c0 0.554 0.446 1 1 1h14c0.554 0 1-0.446 1-1v-0.5c0 0.554-0.446 1-1 1h-14c-0.554 0-1-0.446-1-1z" style="opacity:.2"/>
 <path d="m5 1.99995c-0.554 0-1 0.446-1 1v0.5c0-0.554 0.446-1 1-1h14c0.554 0 1 0.446 1 1v-0.5c0-0.554-0.446-1-1-1z" style="fill:#8b9cbe;opacity:.2"/>
 <path d="m19.991 2.9111 9e-3 4.77835v-4.6895c0-0.030435-0.0062-0.05914-0.0088-0.088865z" style="fill:#8b9cbe"/>
 <path d="m13 14.99995c-2.485281 0-4.5 1.119288-4.5 2.5s2.014719 2.5 4.5 2.5 4.5-1.119288 4.5-2.5-2.014719-2.5-4.5-2.5zm0 1c1.72589 0 3.125 0.671573 3.125 1.5s-1.39911 1.5-3.125 1.5-3.125-0.671573-3.125-1.5 1.39911-1.5 3.125-1.5z" style="fill:#8b9cbe"/>
 <path d="m16.5 4.49995s-2.936278-0.920956-4-0.09995c-0.71051 0.548389-0.710822 2.0725035-1.5 2.5-0.747245 0.404781-2-0.5-2-0.5s1.207082 3.44893 2.5 3.59995c0.827706 0.09668 1.247552-1.441807 2-1.79995 0.620484-0.2953325 2-0.20005 2-0.20005z" style="fill:#e33f32"/>
 <path d="m16.475586 3.9940905c-0.218481 0.011632-0.404031 0.1639488-0.458008 0.3759765l-3 13.00005c-0.209158 0.663435 0.812639 0.938535 0.964844 0.259766l3-13.00005c0.09341-0.3295776-0.164731-0.6533729-0.506836-0.6357425z" style="fill:#8b9cbe"/>
 <path d="M 8,16.49995 5,14 8.5,13.99995 7,9 11,12.49995 13,10 v 3.49995 l -0.5,-1.5 -1.5,1.5 L 8.5,11.5 9.5,14.99995 7,15 Z" style="fill:#8b9cbe"/>
</svg>
