<svg xmlns="http://www.w3.org/2000/svg" width="24" height="24" version="1">
 <path style="fill:#17191e" d="M 9.5527346,2 10.001953,4.7011719 7.496094,2.5 8.2597659,4.9121094 6.3906252,3 6.8027346,5.5 4.996094,4 5.7500002,6.6914062 2.996094,5 4.3164065,7.7851562 1.996094,7 c 0.047362,0.1705541 2,7 2,7 l 8,0 C 12,14 12,14 12,14 l 8,0 c 0,0 1.95264,-6.8294459 2,-7 L 19.679688,7.7851562 21,5 18.246094,6.6914062 19,4 17.19336,5.5 17.605469,3 15.736328,4.9121094 16.5,2.5 13.992188,4.7011719 14.44336,2 13.152344,3.1855469 12.955078,3.953125 l 0,-0.4414062 L 12,2 12,2.017578 11.998,2.019528 11.996,2.017578 11.996,2 l -0.956937,1.5117188 0,0.4414062 -0.195313,-0.7675781 z"/>
 <path style="opacity:0.1;fill:#8b9cbe" d="M 9.5527344 2 L 9.6503906 2.5898438 L 10.84375 3.6855469 L 11.039062 4.453125 L 11.039062 4.0117188 L 11.996094 2.5 L 11.996094 2.5175781 L 11.998047 2.5195312 L 12 2.5175781 L 12 2.5 L 12.955078 4.0117188 L 12.955078 4.453125 L 13.152344 3.6855469 L 14.34375 2.5898438 L 14.443359 2 L 13.152344 3.1855469 L 12.955078 3.953125 L 12.955078 3.5117188 L 12 2 L 12 2.0175781 L 11.998047 2.0195312 L 11.996094 2.0175781 L 11.996094 2 L 11.039062 3.5117188 L 11.039062 3.953125 L 10.84375 3.1855469 L 9.5527344 2 z M 7.4960938 2.5 L 7.7148438 3.1933594 L 10.001953 5.2011719 L 9.9042969 4.6152344 L 7.4960938 2.5 z M 16.5 2.5 L 14.089844 4.6152344 L 13.992188 5.2011719 L 16.28125 3.1933594 L 16.5 2.5 z M 6.390625 3 L 6.4902344 3.6015625 L 8.2597656 5.4121094 L 8.0253906 4.671875 L 6.390625 3 z M 17.605469 3 L 15.970703 4.671875 L 15.736328 5.4121094 L 17.505859 3.6015625 L 17.605469 3 z M 4.9960938 4 L 5.1777344 4.6523438 L 6.8027344 6 L 6.7070312 5.4199219 L 4.9960938 4 z M 19 4 L 17.289062 5.4199219 L 17.193359 6 L 18.818359 4.6523438 L 19 4 z M 2.9960938 5 L 3.3300781 5.7050781 L 5.75 7.1914062 L 5.5800781 6.5878906 L 2.9960938 5 z M 21 5 L 18.416016 6.5878906 L 18.246094 7.1914062 L 20.666016 5.7050781 L 21 5 z M 1.9960938 7 C 1.999834 7.0134691 2.1286915 7.46285 2.1542969 7.5527344 L 4.3164062 8.2851562 L 4.0332031 7.6894531 L 1.9960938 7 z M 22 7 L 19.962891 7.6894531 L 19.679688 8.2851562 L 21.841797 7.5527344 C 21.867402 7.46285 21.99626 7.0134691 22 7 z"/>
 <rect style="opacity:0.2" width="20" height="8" x="2" y="14.5" rx="2" ry="2"/>
 <rect style="fill:#4f4f4f" width="20" height="8" x="2" y="14" rx="2" ry="2"/>
 <path style="fill:#8b9cbe;opacity:0.1" d="M 4 14 C 2.892 14 2 14.892 2 16 L 2 16.5 C 2 15.392 2.892 14.5 4 14.5 L 20 14.5 C 21.108 14.5 22 15.392 22 16.5 L 22 16 C 22 14.892 21.108 14 20 14 L 4 14 z"/>
 <path style="fill:none;stroke:#ffb73c;stroke-width:2;stroke-linecap:round;stroke-linejoin:round" d="M 6.000485,10.999758 H 11 c -2.283929,2.388121 -3,3.90013 -3,7"/>
 <path style="fill:none;stroke:#ffb73c;stroke-width:2;stroke-linecap:round;stroke-linejoin:round" d="m 14.000243,10.999758 v 7"/>
 <path style="fill:none;stroke:#ffb73c;stroke-width:2;stroke-linecap:round;stroke-linejoin:round" d="m 18,10.999758 -3.999758,4.499999"/>
 <path style="fill:none;stroke:#ffb73c;stroke-width:2;stroke-linecap:round;stroke-linejoin:round" d="M 18,17.999758 14.000242,14.499757"/>
 <path style="opacity:0.2" transform="matrix(0.38357062,0,0,0.38754554,2.1914579,0.94981792)" d="M 25.571673,22.062393 15.143345,4.0000003 36,3.9999997 Z"/>
 <path style="fill:#f43e3e" transform="matrix(0.38357062,0,0,0.38754554,2.1914579,0.44981792)" d="M 25.571673,22.062393 15.143345,4.0000003 36,3.9999997 Z"/>
 <path style="opacity:0.2" d="M 13.984375,10.486419 A 1.0001,1.0001 0 0 0 13,11.500091 V 14.8497 a 1.0001,1.0001 0 0 0 0,0.279297 v 0.740235 a 1.0001,1.0001 0 0 0 0,0.265625 v 2.365234 a 1.0001,1.0001 0 1 0 2,0 v -1.296875 l 2.341797,2.048828 a 1.0001,1.0001 0 1 0 1.316406,-1.503906 L 15.916016,15.3497 18.748047,12.164153 A 1.0002763,1.0002763 0 1 0 17.251953,10.836029 L 15,13.369232 V 11.500091 A 1.0001,1.0001 0 0 0 13.984375,10.486419 Z M 6,10.500091 a 1.0001,1.0001 0 1 0 0,2 H 9.0742188 C 7.7781568,14.275487 7,16.021727 7,18.500091 a 1.0001,1.0001 0 1 0 2,0 c 0,-2.94587 0.5122891,-3.99739 2.722656,-6.308594 A 1.0001,1.0001 0 0 0 11,10.500091 Z"/>
 <path style="fill:none;stroke:#ffb73c;stroke-width:2;stroke-linecap:round;stroke-linejoin:round" d="M 18,17.999758 14.000242,14.499757 M 18,10.999758 14.000242,15.499757 m 10e-7,-4.499999 v 7 m -7.999758,-7 H 11 c -2.283929,2.388121 -3,3.90013 -3,7"/>
 <path style="opacity:0.1;fill:#8b9cbe" d="M 8 2 L 8.2851562 2.5 L 15.714844 2.5 L 16 2 L 8 2 z"/>
</svg>
