<svg xmlns="http://www.w3.org/2000/svg" width="24" height="24" version="1">
 <path style="fill:#858585" d="m 12,7 a 5,5 0 0 0 -5,5 5,5 0 0 0 5,5 5,5 0 0 0 5,-5 5,5 0 0 0 -5,-5 z m 0,3 c 1.1045,0 2,0.8955 2,2 0,1.1045 -0.8955,2 -2,2 -1.1045,0 -2,-0.896 -2,-2 0,-1.1046 0.8954,-2 2,-2 z"/>
 <path style="fill:#b2bfd9" d="M 12,2 C 6.46,2 2,6.46 2,12 2,17.54 6.46,22 12,22 17.54,22 22,17.54 22,12 22,6.46 17.54,2 12,2 Z m 0,6 a 4,4 0 0 1 4,4 4,4 0 0 1 -4,4 4,4 0 0 1 -4,-4 4,4 0 0 1 4,-4 z"/>
 <path style="opacity:0.2;fill:#8b9cbe" d="m 12,2 c 5.535,0 9.991,4.46 9.991,10 0,0.08394 -0.004,0.16657 -0.0058,0.25 -0.132,-5.423 -4.534,-9.75 -9.985,-9.75 -5.451,0 -9.853,4.327 -9.985,9.75 C 2.0132,12.167 2.0094,12.084 2.0094,12 c 0,-5.54 4.456,-10 9.991,-10 z m 1.9728,10.25 c 0.01044,0.08276 0.02538,0.16442 0.02538,0.25 0,1.1046 -0.8946,2 -1.9982,2 -1.1036,0 -1.9982,-0.89545 -1.9982,-2 0,-0.08559 0.01493,-0.16724 0.02538,-0.25 0.12409,0.9853 0.95475,1.75 1.9728,1.75 1.01805,0 1.8487,-0.7647 1.9728,-1.75 z"/>
 <path style="opacity:0.2" d="m 2.006,12.25 c -0.00205,0.0835 -0.00585,0.166 -0.00585,0.25 0,5.54 4.46,10 10,10 5.54,0 10,-4.46 10,-10 0,-0.084 -0.004,-0.1665 -0.006,-0.25 -0.132,5.423 -4.538,9.75 -9.994,9.75 -5.456,0 -9.862,-4.327 -9.994,-9.75 z"/>
 <circle style="fill:#ffb522" cx="17.5" cy="17.5" r="5.5"/>
 <path style="fill:#8b9cbe" d="M 20,18.582 20,20 18.582,20 15,16.418 16.418,15 Z"/>
</svg>
