<svg xmlns="http://www.w3.org/2000/svg" width="24" height="24" version="1">
 <path style="opacity:0.2" d="m 13.514393,4.5002309 c -0.208183,-0.00265 -0.476822,0.01759 -0.843419,0.0569 -2.59532,0.2783067 -4.7603727,1.8911516 -7.2370403,5.3904267 -0.7478169,1.0565894 -1.7089655,2.4136564 -2.1358104,3.0158094 -1.7981525,2.536664 -1.7206882,5.139916 0.1855379,6.234591 1.2320088,0.707494 2.4224898,0.988047 4.3070286,1.015562 0.947235,0.01381 2.3340952,0.0818 3.0819122,0.150927 2.086438,0.192895 2.34769,0.188401 3.816274,-0.06834 1.643681,-0.287361 2.911649,-0.88582 3.929934,-1.854172 0.799514,-0.760308 1.941239,-2.864891 2.120231,-3.785026 1.499395,-4.474541 -3.802974,-9.930138 -7.224648,-10.1566781 z"/>
 <path style="fill:#dc3a2d" d="m 13.514393,4.0002331 c -0.208183,-0.00265 -0.476822,0.01759 -0.843419,0.0569 -2.59532,0.2783067 -4.7603727,1.8911516 -7.2370403,5.3904267 -0.7478169,1.0565892 -1.7089655,2.4136562 -2.1358104,3.0158092 -1.7981525,2.536664 -1.7206882,5.139916 0.1855379,6.234591 1.2320088,0.707494 2.4224898,0.988047 4.3070286,1.015562 0.947235,0.01381 2.3340952,0.0818 3.0819122,0.150927 2.086438,0.192895 2.34769,0.188401 3.816274,-0.06834 1.643681,-0.287361 2.911649,-0.88582 3.929934,-1.854172 0.799514,-0.760308 1.941239,-2.864891 2.120231,-3.785026 C 22.238436,9.68237 16.936067,4.2267732 13.514393,4.0002331 Z"/>
 <path style="fill:#8b9cbe;opacity:0.2" d="M 13.513672 4 C 13.305489 3.99735 13.038472 4.0173306 12.671875 4.0566406 C 10.076555 4.3349473 7.9102613 5.9479905 5.4335938 9.4472656 C 4.6857768 10.503855 3.725673 11.860738 3.2988281 12.462891 C 2.3514869 13.79931 1.938384 15.147969 2.0253906 16.291016 C 2.0760988 15.262703 2.4860729 14.109449 3.2988281 12.962891 C 3.725673 12.360738 4.6857768 11.003855 5.4335938 9.9472656 C 7.9102613 6.4479905 10.076555 4.8349473 12.671875 4.5566406 C 13.038472 4.5173306 13.305489 4.49735 13.513672 4.5 C 16.455606 4.6947778 20.776504 8.7556235 20.980469 12.734375 C 21.139689 8.6028116 16.579253 4.2029641 13.513672 4 z"/>
 <path style="opacity:0.2" d="m 14.09948,3.5000014 c -0.09988,0 -0.128822,0.1884511 -0.06726,0.4373124 0,0 0.176983,0.7940656 1.36448,1.3756905 0.82593,0.3780735 0.824443,0.5965675 -0.0054,0.8232775 -0.361653,0.098798 -0.801173,0.2861754 -0.976569,0.4162904 -0.289275,0.2145975 -0.183697,0.3030955 1.135878,0.9542305 0.800095,0.3948014 1.602981,0.8329749 1.783981,0.9738734 0.314249,0.2446245 0.29992,0.278891 -0.313182,0.7533214 -0.684447,0.529639 -1.494237,1.7678955 -1.494237,2.2847755 0,0.279438 0.133602,0.302138 1.260879,0.214005 0.693484,-0.05422 1.456533,-0.12246 1.695665,-0.15163 l 0.434786,-0.05307 -0.06216,1.405672 c -0.03414,0.773053 -0.134045,1.597897 -0.222148,1.83299 -0.0881,0.235093 -0.124816,0.463345 -0.08152,0.507269 0.182269,0.184917 0.925788,-0.22322 1.435813,-0.788128 0.521414,-0.577522 0.554562,-0.589405 0.665426,-0.235025 0.373355,0.635289 0.538616,1.191786 1.117939,1.748514 0.129368,0.01177 0.228078,-0.14143 0.311079,-0.457253 0.255532,-0.972305 0.118654,-1.91346 -0.419499,-2.885435 C 21.373439,12.132926 21.089393,11.307527 21.031972,10.822313 20.974552,10.3371 20.879976,9.772671 20.82205,9.567926 20.73403,9.2568035 20.90472,9.0752105 21.861121,8.4624116 c 1.088993,-0.697754 1.370071,-1.0947144 0.958228,-1.3529464 -0.102326,-0.064159 -0.641318,0.1297255 -1.198039,0.4307655 -0.556719,0.3010389 -1.121695,0.5472429 -1.255444,0.5472429 -0.133747,0 -0.553458,-0.3768705 -0.932412,-0.8374064 -0.658598,-0.800383 -0.688865,-0.8918829 -0.688865,-2.0731849 0,-1.122457 -0.0336,-1.2406296 -0.36651,-1.288848 -0.269082,-0.038973 -0.424939,0.090039 -0.586281,0.4852135 -0.120879,0.2960666 -0.280778,0.5382831 -0.355302,0.5382831 -0.07452,0 -0.816354,-0.3175935 -1.648451,-0.7057645 C 14.955923,3.8175957 14.19599,3.5000014 14.09949,3.5000014 Z"/>
 <path style="fill:#75ac4c" d="m 14.09948,3.0000014 c -0.09988,0 -0.128822,0.1884511 -0.06726,0.4373124 0,0 0.176983,0.7940654 1.36448,1.3756906 0.82593,0.3780734 0.824443,0.5965674 -0.0054,0.8232774 -0.361653,0.098798 -0.801173,0.2861755 -0.976569,0.4162905 -0.289275,0.2145975 -0.183697,0.3030955 1.135878,0.9542304 0.800095,0.3948015 1.602981,0.8329749 1.783981,0.9738734 0.314249,0.2446245 0.29992,0.278891 -0.313182,0.7533215 -0.684447,0.5296389 -1.494237,1.7678954 -1.494237,2.2847754 0,0.279438 0.133602,0.302138 1.260879,0.214005 0.693484,-0.05422 1.456533,-0.12246 1.695665,-0.15163 l 0.434786,-0.05307 -0.06216,1.405672 c -0.03414,0.773053 -0.134045,1.597897 -0.222148,1.83299 -0.0881,0.235093 -0.124816,0.463345 -0.08152,0.507269 0.182269,0.184917 0.925788,-0.22322 1.435813,-0.788128 0.521414,-0.577522 0.554562,-0.589405 0.665426,-0.235025 0.373355,0.635289 0.538616,1.191786 1.117939,1.748514 0.129368,0.01178 0.228078,-0.14143 0.311079,-0.457253 0.255532,-0.972305 0.118654,-1.91346 -0.419499,-2.885435 C 21.373439,11.632926 21.089393,10.807527 21.031972,10.322313 20.974552,9.8371 20.879976,9.272671 20.82205,9.067926 20.73403,8.7568036 20.90472,8.5752106 21.861121,7.9624116 22.950114,7.2646577 23.231192,6.8676972 22.819349,6.6094652 22.717023,6.5453062 22.178031,6.7391907 21.62131,7.0402307 c -0.556719,0.301039 -1.121695,0.547243 -1.255444,0.547243 -0.133747,0 -0.553458,-0.3768705 -0.932412,-0.8374065 -0.658598,-0.8003829 -0.688865,-0.8918829 -0.688865,-2.0731848 0,-1.1224571 -0.0336,-1.2406297 -0.36651,-1.2888481 -0.269082,-0.038973 -0.424939,0.090039 -0.586281,0.4852135 -0.120879,0.2960664 -0.280778,0.5382832 -0.355302,0.5382832 -0.07452,0 -0.816354,-0.3175939 -1.648451,-0.7057646 C 14.955923,3.3175956 14.19599,3.0000014 14.09949,3.0000014 Z"/>
 <path style="opacity:0.2;fill:#8b9cbe" d="m 14.099608,3.0000015 c -0.09988,0 -0.128948,0.1886387 -0.06738,0.4375 0,0 0.01653,0.048164 0.02832,0.083008 0.01215,-0.00888 0.02331,-0.020508 0.03906,-0.020508 0.0965,0 0.856378,0.3178839 1.688477,0.7060546 0.832097,0.3881708 1.573913,0.7050783 1.648437,0.7050783 0.07452,0 0.23459,-0.2420195 0.355469,-0.5380861 0.161342,-0.3951745 0.316855,-0.5243245 0.585937,-0.4853516 0.332915,0.048219 0.366211,0.1666054 0.366211,1.2890626 0,1.181302 0.03085,1.2728589 0.689453,2.0732419 0.378954,0.4605359 0.79887,0.8378904 0.932617,0.8378904 0.133749,0 0.698164,-0.2468125 1.254883,-0.5478514 0.556721,-0.30104 1.095916,-0.4948235 1.198242,-0.430664 0.02272,0.01425 0.03522,0.03078 0.05371,0.0459 0.181955,-0.235233 0.162348,-0.4104265 -0.05371,-0.5458985 -0.102326,-0.064159 -0.641521,0.129624 -1.198242,0.430664 -0.556719,0.301039 -1.121134,0.5478515 -1.254883,0.5478515 -0.133747,0 -0.553663,-0.3773545 -0.932617,-0.8378905 -0.658598,-0.8003829 -0.689453,-0.8919399 -0.689453,-2.0732418 0,-1.1224573 -0.03329,-1.2408442 -0.366211,-1.2890626 -0.269082,-0.038973 -0.424595,0.090177 -0.585937,0.4853516 -0.120879,0.2960664 -0.280945,0.5380858 -0.355469,0.5380858 -0.07452,0 -0.81634,-0.3169073 -1.648437,-0.705078 C 14.955986,3.3178854 14.196108,3.0000015 14.099608,3.0000015 Z m 1.664063,2.5078123 c -0.09766,0.043375 -0.215287,0.086075 -0.372071,0.1289065 -0.361652,0.098798 -0.801166,0.2859005 -0.976562,0.4160155 -0.175597,0.130266 -0.164826,0.2275555 0.133789,0.4189449 0.213386,-0.1187239 0.549944,-0.2549639 0.842773,-0.3349604 0.674761,-0.184337 0.792113,-0.3652345 0.372071,-0.6289065 z m 1.571289,2.9726563 c -0.08018,0.069251 -0.176697,0.148063 -0.313477,0.253906 -0.684447,0.5296389 -1.49414,1.7672989 -1.49414,2.2841789 0,0.08643 0.01734,0.145875 0.06836,0.1875 0.201804,-0.597854 0.854208,-1.5293835 1.425781,-1.971679 0.613102,-0.4744304 0.627726,-0.5092814 0.313477,-0.7539059 z m 3.523437,0.7675779 c -0.06466,0.107848 -0.06865,0.2053795 -0.03614,0.3203125 0.05793,0.204745 0.152541,0.7686925 0.209961,1.2539055 0.05742,0.485214 0.340868,1.310229 0.630859,1.833985 0.319112,0.576356 0.493459,1.142357 0.532227,1.709961 0.0553,-0.73711 -0.119515,-1.464549 -0.532227,-2.209961 C 21.373091,11.632495 21.089644,10.80748 21.032223,10.322266 20.984698,9.9206595 20.91498,9.509323 20.858395,9.248048 Z m -1.939453,2.280273 -0.02246,0.003 -0.04004,0.902344 c -0.03414,0.773053 -0.134554,1.597915 -0.222657,1.833008 -0.0881,0.235092 -0.124348,0.463889 -0.08105,0.507812 0.01731,0.01755 0.04357,0.02499 0.07031,0.03223 0.005,-0.01435 0.0053,-0.0256 0.01074,-0.04004 0.0881,-0.235093 0.188517,-1.059954 0.222657,-1.833007 z"/>
 <path style="fill:#b4291e" d="m 12.563835,8.6898102 c -0.38465,0.38465 -0.977108,0.415832 -1.323293,0.069647 -0.346185,-0.3461855 -0.315003,-0.9386444 0.06965,-1.3232939 0.38465,-0.3846499 1.172931,-0.6116549 1.519116,-0.26547 0.346185,0.346185 0.11918,1.1344665 -0.26547,1.5191164 z"/>
 <path style="fill:#b4291e" d="m 10.563835,12.689811 c -0.384649,0.38465 -0.9771083,0.415832 -1.3232928,0.06965 -0.346185,-0.346185 -0.3150035,-0.938644 0.069646,-1.323294 0.3846505,-0.38465 1.1729328,-0.611655 1.5191178,-0.26547 0.346185,0.346185 0.11918,1.134467 -0.265471,1.519117 z"/>
 <path style="fill:#b4291e" d="m 15.563835,14.68981 c -0.38465,0.38465 -0.977109,0.415832 -1.323293,0.06965 -0.346185,-0.346185 -0.315004,-0.938644 0.06965,-1.323294 0.384651,-0.38465 1.172932,-0.611655 1.519117,-0.26547 0.346185,0.346185 0.11918,1.134467 -0.26547,1.519117 z"/>
 <path style="fill:#b4291e" d="m 13.563836,18.68981 c -0.38465,0.38465 -0.977109,0.415832 -1.323293,0.06965 -0.346185,-0.346186 -0.315004,-0.938645 0.06965,-1.323294 0.384651,-0.38465 1.172932,-0.611655 1.519117,-0.26547 0.346185,0.346185 0.11918,1.134466 -0.26547,1.519116 z"/>
 <path style="fill:#b4291e" d="M 9.5638357,17.68981 C 9.1791864,18.07446 8.5867274,18.105642 8.240543,17.75946 7.894358,17.413274 7.9255395,16.820815 8.31019,16.436166 c 0.3846504,-0.38465 1.1729319,-0.611655 1.519118,-0.26547 0.346185,0.346185 0.11918,1.134466 -0.2654713,1.519116 z"/>
 <path style="fill:#b4291e" d="m 5.5638355,15.689811 c -0.3846493,0.384649 -0.9771084,0.415831 -1.3232929,0.06965 -0.346185,-0.346185 -0.3150035,-0.938644 0.069646,-1.323294 0.3846505,-0.38465 1.1729321,-0.611655 1.5191169,-0.26547 0.346185,0.346185 0.11918,1.134467 -0.2654705,1.519117 z"/>
 <path style="fill:#b4291e" d="m 7.5638359,11.689811 c -0.3846495,0.38465 -0.9771084,0.415832 -1.3232929,0.06965 -0.346185,-0.346185 -0.3150035,-0.938644 0.069647,-1.323294 0.3846505,-0.38465 1.1729319,-0.6116545 1.5191169,-0.26547 0.3461849,0.346185 0.11918,1.134467 -0.2654705,1.519117 z"/>
 <path style="opacity:0.2" d="M 12.966797 7.4277344 C 12.903578 7.712408 12.754135 7.9997714 12.564453 8.1894531 C 12.179803 8.5741026 11.586419 8.6059506 11.240234 8.2597656 C 11.145493 8.1650246 11.085507 8.0501586 11.046875 7.9277344 C 10.971655 8.2277144 11.022412 8.5419433 11.240234 8.7597656 C 11.586419 9.1059506 12.179803 9.0741031 12.564453 8.6894531 C 12.87205 8.3818566 13.073288 7.8191793 12.966797 7.4277344 z M 7.9667969 10.427734 C 7.9035785 10.712408 7.7541351 10.999771 7.5644531 11.189453 C 7.1798036 11.5741 6.5864189 11.605948 6.2402344 11.259766 C 6.1454933 11.165025 6.0855069 11.050159 6.046875 10.927734 C 5.9716547 11.227715 6.0224123 11.541944 6.2402344 11.759766 C 6.5864189 12.105948 7.1798036 12.074103 7.5644531 11.689453 C 7.8720502 11.381856 8.0732877 10.819179 7.9667969 10.427734 z M 10.966797 11.427734 C 10.903579 11.712408 10.754135 11.999771 10.564453 12.189453 C 10.179804 12.5741 9.5864189 12.605948 9.2402344 12.259766 C 9.1454933 12.165025 9.0855068 12.050159 9.046875 11.927734 C 8.9716546 12.227715 9.0224123 12.541944 9.2402344 12.759766 C 9.5864189 13.105948 10.179804 13.074103 10.564453 12.689453 C 10.872051 12.381856 11.073288 11.819179 10.966797 11.427734 z M 15.966797 13.427734 C 15.903578 13.712408 15.754135 13.999771 15.564453 14.189453 C 15.179803 14.5741 14.586418 14.605948 14.240234 14.259766 C 14.145493 14.165025 14.085508 14.050159 14.046875 13.927734 C 13.971655 14.227715 14.022412 14.541944 14.240234 14.759766 C 14.586418 15.105948 15.179803 15.074103 15.564453 14.689453 C 15.87205 14.381856 16.073288 13.819179 15.966797 13.427734 z M 5.9667969 14.427734 C 5.9035785 14.712408 5.7541351 14.999771 5.5644531 15.189453 C 5.1798038 15.574099 4.5864189 15.605947 4.2402344 15.259766 C 4.1454933 15.165025 4.0855068 15.050159 4.046875 14.927734 C 3.9716546 15.227715 4.0224123 15.541944 4.2402344 15.759766 C 4.5864189 16.105947 5.1798038 16.074102 5.5644531 15.689453 C 5.8720502 15.381856 6.0732878 14.819179 5.9667969 14.427734 z M 9.9667969 16.427734 C 9.9035785 16.712408 9.7541355 16.999771 9.5644531 17.189453 C 9.1798038 17.5741 8.5864188 17.605948 8.2402344 17.259766 C 8.1454933 17.165024 8.0855069 17.050159 8.046875 16.927734 C 7.9716547 17.227714 8.0224123 17.541943 8.2402344 17.759766 C 8.5864188 18.105948 9.1798038 18.074103 9.5644531 17.689453 C 9.8720508 17.381856 10.073288 16.819179 9.9667969 16.427734 z M 13.966797 17.427734 C 13.903578 17.712408 13.754135 17.999771 13.564453 18.189453 C 13.179803 18.5741 12.586418 18.605948 12.240234 18.259766 C 12.145493 18.165024 12.085508 18.050159 12.046875 17.927734 C 11.971655 18.227714 12.022412 18.541943 12.240234 18.759766 C 12.586418 19.105948 13.179803 19.074103 13.564453 18.689453 C 13.87205 18.381856 14.073288 17.819179 13.966797 17.427734 z"/>
</svg>
