<svg xmlns="http://www.w3.org/2000/svg" width="24" height="24" version="1">
 <path style="fill:#2c5a98" d="m 22,3.4109688 c -1.277459,0.660141 -2.81011,1.5272845 -4.482422,1.5390625 -4.226597,0.029768 -9.249776,-1.4225979 -12.7216795,-1.5 C 3.6742981,3.4250264 2.7186476,3.813246 2,4.3015938 L 2,21 c 0,0.554 0.446,1 1,1 l 18,0 c 0.554,0 1,-0.446 1,-1 z"/>
 <path style="opacity:0.2" d="m 3,2.5001316 c -0.554,0 -1,0.446 -1,1 L 2,5.3519129 C 2.7186476,4.8635651 3.6742981,4.4753456 4.7958984,4.5003504 8.267802,4.5777524 13.290981,6.5294303 17.517578,6.4996629 19.18989,6.4878849 20.722541,5.6207415 22,4.9606004 l 0,-1.4604688 c 0,-0.554 -0.446,-1 -1,-1 z"/>
 <path style="fill:#28bae4" d="M 3,2 C 2.446,2 2,2.446 2,3 L 2,4.8517813 C 2.7186476,4.3634335 3.6742981,3.975214 4.7958984,4.0002188 8.267802,4.0776208 13.290981,6.0292987 17.517578,5.9995313 19.18989,5.9877533 20.722541,5.1206099 22,4.4604688 L 22,3 C 22,2.446 21.554,2 21,2 Z"/>
 <path style="opacity:0.2;fill:#8b9cbe" d="M 2,3.5 2,3 C 2,2.446 2.446,2 3,2 l 18,0 c 0.554,0 1,0.446 1,1 l 0,0.5 c 0,-0.554 -0.446,-1 -1,-1 l -18,0 c -0.554,0 -1,0.446 -1,1 z"/>
 <path style="opacity:0.2" d="m 2,21 0,0.5 c 0,0.554 0.446,1 1,1 l 18,0 c 0.554,0 1,-0.446 1,-1 L 22,21 c 0,0.554 -0.446,1 -1,1 L 3,22 C 2.446,22 2,21.554 2,21 Z"/>
 <path style="opacity:0.2" d="m 10.988281,6.9996965 -0.15039,0.00586 0.37207,0.2685545 0.392578,0.3535155 -0.0459,0.1962895 c -0.0255,0.2183455 -0.05455,0.381161 -0.06348,0.4492185 l -0.01563,0.123047 -0.121094,-0.085937 -0.220704,-0.085937 0.08691,0.1435545 0.08691,0.142578 -0.22168,0 -0.221679,0 0,-0.140625 0,-0.139648 -0.211914,0.083007 -0.212892,0.083008 0.07324,0.1191405 0.07226,0.1191405 -0.286133,0.2753905 -0.285156,0.204102 0.105469,0.118164 0.105469,0.118164 -0.186524,-0.109375 -0.1874995,-0.109375 0.2451165,-0.274414 0.244142,-0.274414 -0.128907,-0.012695 c -0.07076,-0.00662 -0.259511,-0.027245 -0.4199215,-0.0459 L 9.500975,8.48993 9.481445,8.7516485 9.46289,9.0133675 9.117187,9.3395395 8.7724605,9.6647345 8.4511715,10.964539 C 8.2746395,11.679263 8.101324,12.298198 8.065429,12.461609 L 8,12.758485 c 0.321426,0.135029 0.6786985,0.198015 0.9840115,0.215819 0.080249,-0.05036 0.1903595,-0.269713 0.2441405,-0.487305 0.053781,-0.217592 0.1545381,-0.25795 0.1884765,-0.294921 l 0.091797,0 0.012695,0.46875 c 0.00705,0.258094 0.119199,0.34644 0.2490235,0.806943 0.129829,0.460504 0.235352,0.992644 0.235352,1.182617 l 0,0.345704 -0.144532,0.09082 -0.144531,0.09082 0.230832,0.132813 0.081055,0.132812 -0.2041015,-0.08008 -0.203125,-0.0791 -0.322266,0.674805 -0.321289,0.673828 -0.6972655,0.454102 -0.4482425,0.455078 0.112305,0.503906 0.111328,0.504883 -0.023435,0.804688 -0.02246,0.805664 0.102539,0.168945 0.103513,0.169924 0.258789,0 0.508789,0 L 9.301758,20.333008 9.5,20.070312 9.2333985,19.816406 C 9.1779005,19.67642 9.10093,19.154349 9.0625,18.657226 l -0.069336,-0.90332 0.388672,-0.674805 0.3896485,-0.674804 0.5947265,-0.586914 0.594727,-0.587891 0.08887,-0.762695 0.08887,-0.762696 -0.171875,0.09863 -0.170898,0.09766 0.162109,-0.178711 0.162109,-0.17871 0.335937,0.175781 c 0.184359,0.09674 0.542723,0.332775 0.796875,0.525391 l 0.461915,0.350586 0,0.363281 0,0.362305 0.352539,0.78125 c 0.193514,0.429573 0.393408,0.961138 0.445313,1.18164 0.05188,0.220502 0.153127,0.476796 0.224608,0.569336 l 0.129883,0.167969 0.399414,-0.116211 c 0.219641,-0.06396 0.540251,-0.191866 0.711914,-0.285157 0.171664,-0.09329 0.894683,-0.344387 1.607422,-0.557617 l 1.295899,-0.387695 0.05957,-0.180664 L 18,16.3125 l -0.492188,0 c -0.270466,0 -0.690476,0.04047 -0.933593,0.08984 l -0.441407,0.08984 0.07617,0.124999 0.07617,0.125 -0.22168,-0.08594 -0.220702,-0.08594 -0.571289,0.232422 c -0.314243,0.12768 -0.691554,0.231445 -0.837891,0.231445 l -0.265625,0 -0.22754,-0.577148 -0.227539,-0.577148 -0.09082,-0.787109 -0.0918,-0.788086 -0.561523,-0.764649 C 12.659845,13.119366 12.20482,13.093007 11.957031,12.87079 L 11.5,12.499696 c 0.167094,0.0013 0.184186,0.01911 0.351201,-0.0049 l -0.103516,-0.122071 -0.03515,-0.180664 0.177734,0.03613 0.177734,0.03613 -0.03809,-0.236328 -0.03809,-0.236329 0.215821,-0.08398 c 0.07699,-0.02999 0.14147,-0.147219 0.179684,-0.207995 l -0.177734,0 -0.212891,0 0,-0.290668 c 0,-0.11912 0.04077,-0.216797 0.09082,-0.216797 0.05002,0 0.324331,0.113956 0.426143,0.25293 l 0.18457,0.152973 c 0.201006,-0.151151 0.433468,-0.229266 0.664883,-0.320313 l 0.09375,-0.663086 c 0.0516,-0.364617 -0.01839,-0.72573 0.02848,-0.802734 l 0.08594,-0.1396425 -0.212891,-0.21582 C 13.241761,9.1381 13.065955,9.0130735 12.966796,8.9791885 l -0.180664,-0.061523 0.183593,-0.2246095 0.03808,-0.1972655 0.01758,-0.445313 C 12.987285,7.8369795 12.933985,7.792551 12.835932,7.672548 12.578803,7.523226 12.49053,7.4903895 12.210932,7.5172745 l -0.440429,-0.00586 -0.34961,-0.248047 C 11.271081,7.152133 11.071098,6.9964965 10.988281,6.9996965 Z M 12.5,9.304384 l 0.133789,0 c 0.07354,0 0.133789,0.068244 0.133789,0.1523435 l 0,0.1533205 0.131836,-0.083008 0.132813,-0.083008 0.102539,0.168945 0.103515,0.1689455 -0.164062,-0.102539 -0.04883,0.00295 -0.01953,0.301758 0,0.5244145 -0.238281,0.0088 0,0.001 -0.274414,-0.01172 c -0.0089,-0.05956 0.03041,-0.5677445 0.0049,-0.7861325 z"/>
 <path style="fill:#8b9cbe" d="m 10.988281,6.4996965 -0.15039,0.00586 0.37207,0.2685545 0.392578,0.3535155 -0.0459,0.1962895 c -0.0255,0.2183455 -0.05455,0.381161 -0.06348,0.4492185 l -0.01563,0.123047 -0.121094,-0.085937 -0.220704,-0.085937 0.08691,0.1435545 0.08691,0.142578 -0.22168,0 -0.221679,0 0,-0.140625 0,-0.139648 -0.211914,0.083007 -0.212892,0.083008 0.07324,0.1191405 0.07226,0.1191405 -0.286133,0.2753905 -0.285156,0.204102 0.105469,0.118164 0.105469,0.118164 -0.186524,-0.109375 -0.1874995,-0.109375 0.2451165,-0.274414 0.244142,-0.274414 -0.128907,-0.012695 c -0.07076,-0.00662 -0.259511,-0.027245 -0.4199215,-0.0459 L 9.500975,7.98993 9.481445,8.2516485 9.46289,8.5133675 9.117187,8.8395395 8.7724605,9.1647345 8.4511715,10.464539 C 8.2746395,11.179263 8.101324,11.798198 8.065429,11.961609 L 8,12.258485 c 0.321426,0.135029 0.6786985,0.198015 0.9840115,0.215819 0.080249,-0.05036 0.1903595,-0.269713 0.2441405,-0.487305 0.053781,-0.217592 0.1545381,-0.25795 0.1884765,-0.294921 l 0.091797,0 0.012695,0.46875 c 0.00705,0.258094 0.119199,0.34644 0.2490235,0.806943 0.129829,0.460504 0.235352,0.992644 0.235352,1.182617 l 0,0.345704 -0.144532,0.09082 -0.144531,0.09082 0.230832,0.132813 0.081055,0.132812 -0.2041015,-0.08008 -0.203125,-0.0791 -0.322266,0.674805 -0.321289,0.673828 -0.6972655,0.454102 -0.4482425,0.455078 0.112305,0.503906 0.111328,0.504883 -0.023435,0.804688 -0.02246,0.805664 0.102539,0.168945 L 8.2158205,20 8.4746095,20 8.9833985,20 9.301758,19.833008 9.5,19.570312 9.2333985,19.316406 C 9.1779005,19.17642 9.10093,18.654349 9.0625,18.157226 l -0.069336,-0.90332 0.388672,-0.674805 0.3896485,-0.674804 0.5947265,-0.586914 0.594727,-0.587891 0.08887,-0.762695 0.08887,-0.762696 -0.171875,0.09863 -0.170898,0.09766 0.162109,-0.178711 0.162109,-0.17871 0.335937,0.175781 c 0.184359,0.09674 0.542723,0.332775 0.796875,0.525391 l 0.461915,0.350586 0,0.363281 0,0.362305 0.352539,0.78125 c 0.193514,0.429573 0.393408,0.961138 0.445313,1.18164 0.05188,0.220502 0.153127,0.476796 0.224608,0.569336 l 0.129883,0.167969 0.399414,-0.116211 c 0.219641,-0.06396 0.540251,-0.191866 0.711914,-0.285157 0.171664,-0.09329 0.894683,-0.344387 1.607422,-0.557617 l 1.295899,-0.387695 0.05957,-0.180664 L 18,15.8125 l -0.492188,0 c -0.270466,0 -0.690476,0.04047 -0.933593,0.08984 l -0.441407,0.08984 0.07617,0.124999 0.07617,0.125 -0.22168,-0.08594 -0.220702,-0.08594 -0.571289,0.232422 c -0.314243,0.12768 -0.691554,0.231445 -0.837891,0.231445 l -0.265625,0 -0.22754,-0.577148 -0.227539,-0.577148 -0.09082,-0.787109 -0.0918,-0.788086 -0.561523,-0.764649 C 12.659845,12.619366 12.20482,12.593007 11.957031,12.37079 L 11.5,11.999696 c 0.167094,0.0013 0.184186,0.01911 0.351201,-0.0049 l -0.103516,-0.122071 -0.03515,-0.180664 0.177734,0.03613 0.177734,0.03613 -0.03809,-0.236328 -0.03809,-0.236329 0.215821,-0.08398 c 0.07699,-0.02999 0.14147,-0.147219 0.179684,-0.207995 l -0.177734,0 -0.212891,0 0,-0.290668 c 0,-0.11912 0.04077,-0.216797 0.09082,-0.216797 0.05002,0 0.324331,0.113956 0.426143,0.25293 l 0.18457,0.152973 c 0.201006,-0.151151 0.433468,-0.229266 0.664883,-0.320313 l 0.09375,-0.6630855 c 0.0516,-0.364617 -0.01839,-0.7257305 0.02848,-0.8027345 l 0.08594,-0.1396425 -0.212891,-0.21582 C 13.241761,8.6381 13.065955,8.5130735 12.966796,8.4791885 l -0.180664,-0.061523 0.183593,-0.2246095 0.03808,-0.1972655 0.01758,-0.445313 c -0.0381,-0.213498 -0.0914,-0.2579265 -0.189453,-0.3779295 -0.257129,-0.149322 -0.345402,-0.1821585 -0.625,-0.1552735 l -0.440429,-0.00586 -0.34961,-0.248047 C 11.271081,6.652133 11.071098,6.4964965 10.988281,6.4996965 Z M 12.5,8.804384 l 0.133789,0 c 0.07354,0 0.133789,0.068244 0.133789,0.1523435 l 0,0.1533205 0.131836,-0.083008 0.132813,-0.083008 0.102539,0.168945 0.103515,0.1689455 -0.164062,-0.102539 -0.04883,0.00295 -0.01953,0.301758 0,0.5244145 -0.238281,0.0088 0,10e-4 -0.274414,-0.01172 c -0.0089,-0.05956 0.03041,-0.5677445 0.0049,-0.7861325 z"/>
</svg>
