<svg xmlns="http://www.w3.org/2000/svg" width="24" height="24" version="1">
 <path style="opacity:0.2" d="M 12.058594,3.499885 C 10.889907,3.493895 9.6990646,3.7172491 8.5488281,4.1951975 3.9478818,6.1070807 1.7832017,11.350225 3.6953125,15.951057 5.6071979,20.55189 10.850224,22.716636 15.451172,20.804573 20.052117,18.89296 22.216799,13.649546 20.304688,9.0487131 18.870942,5.5980435 15.563755,3.5178851 12.058594,3.499885 Z m -0.05859,4 a 4.9999996,4.9998763 0 0 1 5,5 4.9999996,4.9998763 0 0 1 -5,5 4.9999996,4.9998763 0 0 1 -5,-5 4.9999996,4.9998763 0 0 1 5,-5 z"/>
 <path style="fill:#b2bfd9" d="M 12.058594 3 C 10.889907 2.99401 9.6990646 3.2173641 8.5488281 3.6953125 C 3.9478818 5.6071957 1.7832017 10.85034 3.6953125 15.451172 C 5.6071979 20.052005 10.850224 22.216751 15.451172 20.304688 C 20.052117 18.393075 22.216799 13.149661 20.304688 8.5488281 C 18.870942 5.0981585 15.563755 3.0180001 12.058594 3 z M 12 7 A 4.9999996 4.9998763 0 0 1 17 12 A 4.9999996 4.9998763 0 0 1 12 17 A 4.9999996 4.9998763 0 0 1 7 12 A 4.9999996 4.9998763 0 0 1 12 7 z"/>
 <path style="fill:#8b9cbe;opacity:0.2" d="M 12.058594 3 C 10.889907 2.99401 9.6990646 3.2173641 8.5488281 3.6953125 C 5.0088598 5.1663155 2.9200583 8.6096149 3.0117188 12.214844 C 3.1162869 8.7947227 5.1729012 5.5981496 8.5488281 4.1953125 C 9.6990646 3.7173641 10.889907 3.49401 12.058594 3.5 C 15.563755 3.5180001 18.870942 5.5981585 20.304688 9.0488281 C 20.74562 10.10978 20.960809 11.2046 20.988281 12.285156 C 21.026226 11.044077 20.813794 9.7738173 20.304688 8.5488281 C 18.870942 5.0981585 15.563755 3.0180001 12.058594 3 z M 16.990234 12.197266 A 4.9999996 4.9998763 0 0 1 12 17 A 4.9999996 4.9998763 0 0 1 7.0097656 12.302734 A 4.9999996 4.9998763 0 0 0 7 12.5 A 4.9999996 4.9998763 0 0 0 12 17.5 A 4.9999996 4.9998763 0 0 0 17 12.5 A 4.9999996 4.9998763 0 0 0 16.990234 12.197266 z"/>
 <path style="opacity:0.2" d="M 12.060547,2.499885 C 10.894844,2.4943381 9.7107021,2.6896872 8.5644531,3.0975412 A 0.87803765,0.81823541 0 0 0 8.0566406,4.1522288 L 9.6171875,7.968635 A 0.87803765,0.81823541 0 0 0 10.75,8.4432444 c 0.398571,-0.1418395 0.821413,-0.2143136 1.248047,-0.2148438 0.426336,0.00147 0.848144,0.074222 1.246094,0.2167969 A 0.87803765,0.81823541 0 0 0 14.378906,7.9725412 L 15.943359,4.1522288 A 0.87803765,0.81823541 0 0 0 15.433594,3.0955881 C 14.368848,2.7176913 13.229372,2.5054465 12.060547,2.499885 Z m -8.7031251,6 A 0.81823541,0.87803765 0 0 0 2.5976562,9.0643381 C 2.1898022,10.210587 1.9945,11.394729 2,12.560432 c 0.00556,1.168825 0.2178061,2.308301 0.5957031,3.373047 a 0.81823541,0.87803765 0 0 0 1.0566407,0.509765 l 3.8203124,-1.5625 a 0.81823541,0.87803765 0 0 0 0.4726563,-1.136718 c -0.142578,-0.39795 -0.21725,-0.819758 -0.21875,-1.246094 5.3e-4,-0.426634 0.074958,-0.849476 0.2167969,-1.248047 A 0.81823541,0.87803765 0 0 0 7.46875,10.117073 L 3.6523438,8.5565256 A 0.81823541,0.87803765 0 0 0 3.3574219,8.499885 Z m 17.2851561,0 a 0.81823541,0.87803765 0 0 0 -0.294922,0.056641 l -3.816406,1.560547 a 0.81823541,0.87803765 0 0 0 -0.474609,1.132812 c 0.14184,0.398571 0.214313,0.821413 0.214843,1.248047 -0.0015,0.426336 -0.07422,0.848144 -0.216796,1.246094 a 0.81823541,0.87803765 0 0 0 0.472656,1.136718 l 3.820312,1.5625 a 0.81823541,0.87803765 0 0 0 1.056641,-0.509765 C 21.782194,14.868733 21.994439,13.729257 22,12.560432 22.0055,11.394729 21.810198,10.210587 21.402344,9.0643381 A 0.81823541,0.87803765 0 0 0 20.642578,8.499885 Z m -7.052734,8 a 0.87803765,0.81823541 0 0 0 -0.345703,0.05469 c -0.39795,0.142578 -0.819758,0.217249 -1.246094,0.21875 -0.426634,-5.31e-4 -0.849476,-0.07496 -1.248047,-0.216797 a 0.87803765,0.81823541 0 0 0 -1.1328125,0.474609 l -1.5605469,3.816406 a 0.87803765,0.81823541 0 0 0 0.5078125,1.054688 c 1.146249,0.407854 2.3303909,0.603156 3.4960939,0.597656 1.168825,-0.0056 2.308301,-0.217806 3.373047,-0.595703 a 0.87803765,0.81823541 0 0 0 0.509765,-1.056641 l -1.564453,-3.820312 a 0.87803765,0.81823541 0 0 0 -0.789062,-0.527344 z"/>
 <path style="fill:#e74c3c" d="M 12.060547 2 C 10.894844 1.9944531 9.7107021 2.1898022 8.5644531 2.5976562 A 0.87803765 0.81823541 0 0 0 8.0566406 3.6523438 L 9.6171875 7.46875 A 0.87803765 0.81823541 0 0 0 10.75 7.9433594 C 11.148571 7.8015199 11.571413 7.7290458 11.998047 7.7285156 C 12.424383 7.7299856 12.846191 7.8027373 13.244141 7.9453125 A 0.87803765 0.81823541 0 0 0 14.378906 7.4726562 L 15.943359 3.6523438 A 0.87803765 0.81823541 0 0 0 15.433594 2.5957031 C 14.368848 2.2178063 13.229372 2.0055615 12.060547 2 z M 3.3574219 8 A 0.81823541 0.87803765 0 0 0 2.5976562 8.5644531 C 2.1898022 9.7107021 1.9945 10.894844 2 12.060547 C 2.005562 13.229372 2.2178061 14.368848 2.5957031 15.433594 A 0.81823541 0.87803765 0 0 0 3.6523438 15.943359 L 7.4726562 14.380859 A 0.81823541 0.87803765 0 0 0 7.9453125 13.244141 C 7.8027345 12.846191 7.7280625 12.424383 7.7265625 11.998047 C 7.7270925 11.571413 7.8015204 11.148571 7.9433594 10.75 A 0.81823541 0.87803765 0 0 0 7.46875 9.6171875 L 3.6523438 8.0566406 A 0.81823541 0.87803765 0 0 0 3.3574219 8 z M 20.642578 8 A 0.81823541 0.87803765 0 0 0 20.347656 8.0566406 L 16.53125 9.6171875 A 0.81823541 0.87803765 0 0 0 16.056641 10.75 C 16.198481 11.148571 16.270954 11.571413 16.271484 11.998047 C 16.269984 12.424383 16.197265 12.846191 16.054688 13.244141 A 0.81823541 0.87803765 0 0 0 16.527344 14.380859 L 20.347656 15.943359 A 0.81823541 0.87803765 0 0 0 21.404297 15.433594 C 21.782194 14.368848 21.994439 13.229372 22 12.060547 C 22.0055 10.894844 21.810198 9.7107021 21.402344 8.5644531 A 0.81823541 0.87803765 0 0 0 20.642578 8 z M 13.589844 16 A 0.87803765 0.81823541 0 0 0 13.244141 16.054688 C 12.846191 16.197266 12.424383 16.271937 11.998047 16.273438 C 11.571413 16.272907 11.148571 16.19848 10.75 16.056641 A 0.87803765 0.81823541 0 0 0 9.6171875 16.53125 L 8.0566406 20.347656 A 0.87803765 0.81823541 0 0 0 8.5644531 21.402344 C 9.7107021 21.810198 10.894844 22.0055 12.060547 22 C 13.229372 21.994438 14.368848 21.782194 15.433594 21.404297 A 0.87803765 0.81823541 0 0 0 15.943359 20.347656 L 14.378906 16.527344 A 0.87803765 0.81823541 0 0 0 13.589844 16 z"/>
</svg>
