<svg xmlns="http://www.w3.org/2000/svg" width="24" height="24" version="1">
 <rect style="fill:#905212" width="20" height="20" x="2" y="2" rx="1" ry="1"/>
 <path style="opacity:0.1;fill:#8b9cbe" d="M 3,2 C 2.446,2 2,2.446 2,3 v 0.5 c 0,-0.554 0.446,-1 1,-1 h 18 c 0.554,0 1,0.446 1,1 V 3 C 22,2.446 21.554,2 21,2 Z"/>
 <path style="opacity:0.2" d="m 3,22.5 c -0.554,0 -1,-0.446 -1,-1 V 21 c 0,0.554 0.446,1 1,1 h 18 c 0.554,0 1,-0.446 1,-1 v 0.5 c 0,0.554 -0.446,1 -1,1 z"/>
 <rect style="fill:#a67541" width="16" height="16" x="-20" y="-20" rx=".8" ry=".8" transform="matrix(0,-1,-1,0,0,0)"/>
 <rect style="fill:#d0a563" width="12" height="12" x="-18" y="-18" rx=".6" ry=".6" transform="matrix(0,-1,-1,0,0,0)"/>
 <rect style="fill:#e7cca1" width="8" height="8" x="-16" y="-16" rx=".4" ry=".4" transform="matrix(0,-1,-1,0,0,0)"/>
 <rect style="fill:#f6eddf" width="4" height="4" x="-14" y="-14" rx=".2" ry=".2" transform="matrix(0,-1,-1,0,0,0)"/>
 <path style="opacity:0.2" d="m 4,19.200195 v 0.5 C 4,20.143395 4.3566047,20.5 4.7998047,20.5 H 19.200195 C 19.643395,20.5 20,20.143395 20,19.700195 v -0.5 C 20,19.643395 19.643395,20 19.200195,20 H 4.7998047 C 4.3566047,20 4,19.643395 4,19.200195 Z"/>
 <path style="opacity:0.2" d="m 6,17.40039 v 0.5 C 6,18.23279 6.2672095,18.5 6.5996095,18.5 H 17.40039 C 17.73279,18.5 18,18.23279 18,17.90039 v -0.5 C 18,17.73279 17.73279,18 17.40039,18 H 6.5996095 C 6.2672095,18 6,17.73279 6,17.40039 Z"/>
 <path style="opacity:0.2" d="m 8,15.59961 v 0.499999 C 8,16.321209 8.1787905,16.5 8.4003905,16.5 H 15.59961 C 15.82121,16.5 16,16.321209 16,16.099609 V 15.59961 C 16,15.82121 15.82121,16 15.59961,16 H 8.4003905 C 8.1787905,16 8,15.82121 8,15.59961 Z"/>
 <path style="opacity:0.2" d="m 10,13.799805 v 0.5 C 10,14.410605 10.0894,14.5 10.200196,14.5 h 3.599609 C 13.910605,14.5 14,14.410605 14,14.299805 v -0.5 C 14,13.910605 13.910605,14 13.799805,14 H 10.200196 C 10.089396,14 10,13.910605 10,13.799805 Z"/>
 <path style="opacity:0.2;fill:#8b9cbe" d="M 4.7998047,4 C 4.3566047,4 4,4.3566047 4,4.7998047 V 5.2998045 C 4,4.8566047 4.3566047,4.5 4.7998047,4.5 H 19.200195 C 19.643395,4.5 20,4.8566047 20,5.2998045 V 4.7998047 C 20,4.3566047 19.643395,4 19.200195,4 Z"/>
 <path style="opacity:0.2;fill:#8b9cbe" d="M 6.5996095,6 C 6.2672095,6 6,6.2672095 6,6.5996095 v 0.5 C 6,6.7672095 6.2672095,6.5 6.5996095,6.5 H 17.40039 C 17.73279,6.5 18,6.7672095 18,7.0996095 v -0.5 C 18,6.2672095 17.73279,6 17.40039,6 Z"/>
 <path style="opacity:0.2;fill:#8b9cbe" d="M 8.4003905,8 C 8.1787905,8 8,8.1787905 8,8.4003905 v 0.5 C 8,8.6787905 8.1787905,8.5 8.4003905,8.5 H 15.59961 C 15.82121,8.5 16,8.6787905 16,8.9003905 v -0.5 C 16,8.1787905 15.82121,8 15.59961,8 Z"/>
</svg>
