<svg xmlns="http://www.w3.org/2000/svg" width="24" height="24" version="1">
 <rect style="opacity:0.2" width="20" height="20" x="2" y="2.5" rx="6" ry="6"/>
 <rect style="fill:#3f51b5" width="20" height="20" x="2" y="2" rx="6" ry="6"/>
 <path style="opacity:0.1;fill:#8b9cbe" d="M 8,2 C 4.676,2 2,4.676 2,8 v 0.5 c 0,-3.324 2.676,-6 6,-6 h 8 c 3.324,0 6,2.676 6,6 V 8 C 22,4.676 19.324,2 16,2 Z"/>
 <path style="opacity:0.2" d="m 16,5.5001764 c -0.504781,0 -1.00956,0.3373573 -1,1.0117188 v 7.9882818 h -2.5 l 3.5,4.5 3.5,-4.5 H 17 V 6.5118952 C 17.0096,5.8375337 16.504781,5.5001764 16,5.5001764 Z m -8,0.5 -3.5,4.5000006 H 7 v 7.988281 c -0.019125,1.348723 2.019125,1.348723 2,0 v -7.988281 h 2.5 z"/>
 <path style="fill:#8b9cbe" d="M 16 5 C 15.495219 5 14.99044 5.3373573 15 6.0117188 L 15 14 L 12.5 14 L 16 18.5 L 19.5 14 L 17 14 L 17 6.0117188 C 17.009563 5.3373573 16.504781 5 16 5 z M 8 5.5 L 4.5 10 L 7 10 L 7 17.988281 C 6.980875 19.337004 9.019125 19.337004 9 17.988281 L 9 10 L 11.5 10 L 8 5.5 z"/>
</svg>
