<svg xmlns="http://www.w3.org/2000/svg" width="24" height="24" version="1.1">
 <rect style="opacity:0.2" width="20" height="20" x="2" y="2.5" rx="1" ry="1"/>
 <rect style="fill:#373548" width="20" height="20" x="2" y="2" rx="1" ry="1"/>
 <path style="fill:#306082" d="M 22,7.522461 A 12.864078,9.7528685 0 0 0 11.032227,17.160156 12.864078,9.7528685 0 0 0 12.747071,22 H 21 c 0.554,0 1,-0.446 1,-1 z"/>
 <path style="fill:#6abe30" d="m 14.011719,12.481446 c -2.04164,0.07661 -1.892285,0.682123 -3.124023,1.300781 -0.434809,0.218389 -1.1799265,0.328216 -1.608399,0.588867 C 6.849664,15.849104 4.679306,17.923493 4.5458984,19.65332 4.4753572,20.567993 4.9862222,21.349428 5.830078,22 H 21 c 0.554,0 1,-0.446 1,-1 v -4.729492 c -2.35033,-2.096629 -5.697625,-3.875016 -7.988281,-3.789062 z"/>
 <path style="fill:#37946e" d="M 10.501953,14.497071 C 8.948896,14.458175 7.5485065,14.789557 6.6953125,15.694336 5.08498,17.402031 3.0388019,18.376469 3.7353515,20.15332 3.8722937,20.502651 4.5713351,21.170109 5.602539,22 h 14.78125 c -0.65266,-1.838955 -1.302645,-3.424814 -1.585938,-4.021485 -0.72013,-1.516736 -4.879172,-3.39587 -8.295898,-3.481444 z"/>
 <path style="fill:#306082" d="M 3.7753906,14.083985 C 3.0663544,14.048155 2.4985382,14.561825 2,15.256836 V 21 c 0,0.554 0.446,1 1,1 H 14.366211 C 13.743387,19.886236 12.809697,18.020208 11.766602,17.047851 10.548167,15.912046 6.6731645,15.367798 4.4589844,14.274414 4.2174007,14.155118 3.9900754,14.094833 3.7753906,14.083985 Z"/>
 <path style="fill:#d95763" d="M 2.8720703,13.916016 A 5.524452,8.218677 5.9096559 0 0 2,14.019531 V 21 c 0,0.554 0.446,1 1,1 H 7.9160155 A 5.524452,8.218677 5.9096559 0 0 6.207031,15.72461 5.524452,8.218677 5.9096559 0 0 2.8720703,13.916016 Z"/>
 <path style="fill:#ac3232" d="M 2.1123047,13.578125 C 2.0750802,13.579703 2.0373933,13.585434 2,13.587891 V 21 c 0,0.554 0.446,1 1,1 H 3.7802735 C 3.6943024,21.61315 3.719067,21.28559 3.9228515,21.069336 5.0891865,19.831634 6.387956,17.371577 5.691406,15.594727 5.168994,14.262089 3.7239328,13.509809 2.1123047,13.578125 Z"/>
 <path style="fill:#76428a" d="m 2,12.930664 v 6.426758 A 3.4556487,4.25 68.594142 0 0 4.2353515,14.800781 3.4556487,4.25 68.594142 0 0 2,12.930664 Z"/>
 <path style="fill:#99e550" d="m 14.011719,12.481446 c -2.04164,0.07661 -1.892285,0.682123 -3.124023,1.300781 -0.434809,0.218389 -1.1799265,0.328216 -1.608399,0.588867 -0.04942,0.03007 -0.096317,0.06418 -0.145508,0.09473 0.7926245,0.191238 1.819807,0.310546 2.958008,0.310546 2.486013,0 8.352301,3.584824 8.472656,2.913086 0.294562,-1.644049 -0.453142,-2.808748 -1.636719,-3.624023 -0.617453,-0.354368 -1.243493,-0.662499 -1.858398,-0.912109 -0.912013,-0.325506 -1.877791,-0.539144 -2.764648,-0.668946 -0.09851,-0.0028 -0.197948,-0.0065 -0.292969,-0.003 z"/>
 <path style="fill:#fbf236" d="m 14.011719,12.481446 c -2.04164,0.07661 -1.892285,0.682123 -3.124023,1.300781 -0.434809,0.218389 -1.1799265,0.328216 -1.608399,0.588867 -0.051659,0.03143 -0.100937,0.06668 -0.152344,0.09863 a 4.5013237,1.2356575 0 0 0 2.964844,0.30664 4.5013237,1.2356575 0 0 0 4.500976,-1.235351 4.5013237,1.2356575 0 0 0 -2.169921,-1.054688 c -0.140105,-0.0073 -0.277785,-0.0099 -0.411133,-0.0049 z"/>
 <path style="opacity:0.1;fill:#8b9cbe" d="M 3,2 C 2.446,2 2,2.446 2,3 v 0.5 c 0,-0.554 0.446,-1 1,-1 h 18 c 0.554,0 1,0.446 1,1 V 3 C 22,2.446 21.554,2 21,2 Z"/>
 <path style="opacity:0.2" d="m 14,2.5 v 2 h 1 v -2 z m -7,4 v 4 H 5 v 2 h 3 v -2 -2 h 2 v -2 H 8 Z m 5,0 v 2 h 1 v -2 z m 0,2 h -1 v 2 h 1 z m 0,2 v 2 h 6 v -2 h -1 v -4 h -1 v 4 h -1 v -4 h -1 v 4 z m 6,0 h 1 v -4 h -1 z m -7,0 h -1 v 2 h 1 z"/>
 <rect style="fill:#8b9cbe" width="3" height="2" x="5" y="10"/>
 <rect style="fill:#8b9cbe" width="1" height="2" x="14" y="2"/>
 <rect style="fill:#8b9cbe" width="1" height="4" x="7" y="6"/>
 <rect style="fill:#8b9cbe" width="2.5" height="2" x="7.5" y="6"/>
 <rect style="fill:#8b9cbe" width="1" height="2" x="10" y="10"/>
 <path style="opacity:0.1" d="m 22,7.522461 a 12.864078,9.7528685 0 0 0 -9.570312,5.25293 c -0.545948,0.250561 -0.783004,0.625623 -1.541992,1.006836 -0.434809,0.218389 -1.1799265,0.328216 -1.608399,0.588867 C 9.1544685,14.44703 9.0343515,14.530417 8.911133,14.609375 8.2690945,14.725743 7.693348,14.940169 7.214844,15.264649 6.3730165,15.013799 5.556902,14.749809 4.852539,14.44336 4.4742791,14.121911 4.0143573,13.88712 3.5029297,13.743164 A 3.4556487,4.25 68.594142 0 0 2,12.930664 v 0.5 a 3.4556487,4.25 68.594142 0 1 1.5029297,0.8125 c 0.5114276,0.143956 0.9713494,0.378747 1.3496093,0.700196 0.704363,0.306449 1.5204775,0.570439 2.362305,0.821289 0.478504,-0.32448 1.0542505,-0.538907 1.696289,-0.655274 0.1232185,-0.07896 0.2433355,-0.162345 0.368164,-0.238281 0.4284725,-0.260651 1.17359,-0.370479 1.608399,-0.588867 0.758988,-0.381214 0.996044,-0.756275 1.541992,-1.006836 A 12.864078,9.7528685 0 0 1 22,8.022461 Z"/>
 <rect style="fill:#8b9cbe" width="1" height="2" x="11" y="8"/>
 <rect style="fill:#8b9cbe" width="1" height="2" x="12" y="6"/>
 <rect style="fill:#8b9cbe" width="6" height="2" x="12" y="10"/>
 <rect style="fill:#8b9cbe" width="1" height="4" x="14" y="6"/>
 <rect style="fill:#8b9cbe" width="1" height="4" x="16" y="6"/>
 <rect style="fill:#8b9cbe" width="1" height="4" x="18" y="6"/>
</svg>
