<svg xmlns="http://www.w3.org/2000/svg" width="24" height="24" version="1.1">
 <path style="opacity:.2" d="m14 4.5a5 5 0 0 0 -4.7226562 3.3730469 3.5 3.5 0 0 0 -2.7773438 -1.3730469 3.5 3.5 0 0 0 -3.5 3.5 3.5 3.5 0 0 0 0.1953125 1.140625 4.5 4.5 0 0 0 -2.1953125 3.859375 4.5 4.5 0 0 0 4.25 4.486328v0.01367h0.25 10.75v-0.01172a5.5 5.5 0 0 0 0.25 0.011722 5.5 5.5 0 0 0 5.5 -5.5 5.5 5.5 0 0 0 -3.017578 -4.9003906 5 5 0 0 0 -4.982422 -4.5996094z"/>
 <circle style="fill:#46b4ff" cx="14" cy="9" r="5"/>
 <circle style="fill:#46b4ff" cx="5.5" cy="14.5" r="4.5"/>
 <circle style="fill:#46b4ff" cx="6.5" cy="9.5" r="3.5"/>
 <circle style="fill:#46b4ff" cx="16.5" cy="13.5" r="5.5"/>
 <rect style="fill:#46b4ff" width="11" height="10" x="5.25" y="9"/>
 <path style="opacity:.2" d="m11.5 9.5a3.5 3.5 0 0 0 -3.4609375 3h1.0117185a2.5 2.5 0 0 1 2.449219 -2 2.5 2.5 0 0 1 1.997071 1.00293l-0.997071 0.99707h2.5v-2.5l-0.792969 0.792969a3.5 3.5 0 0 0 -2.707031 -1.292969zm-3.5 4v2.5l0.792969-0.792969a3.5 3.5 0 0 0 2.707031 1.292969 3.5 3.5 0 0 0 3.460938 -3h-1.011719a2.5 2.5 0 0 1 -2.449219 2 2.5 2.5 0 0 1 -1.99707 -1.002929l0.99707-0.997071h-1.447265-1.012696-0.040039z"/>
 <path style="fill:#8b9cbe" d="m11.5 9a3.5 3.5 0 0 0 -3.4609375 3h1.0117185a2.5 2.5 0 0 1 2.449219 -2 2.5 2.5 0 0 1 2.447266 2h1.012695a3.5 3.5 0 0 0 -3.459961 -3zm-3.459961 4a3.5 3.5 0 0 0 3.459961 3 3.5 3.5 0 0 0 3.460938 -3h-1.011719a2.5 2.5 0 0 1 -2.449219 2 2.5 2.5 0 0 1 -2.447265 -2h-1.012696z"/>
 <path style="fill:#8b9cbe" d="m15 12h-2.5l2.5-2.5z"/>
 <path style="fill:#8b9cbe" d="m8 13h2.5l-2.5 2.5z"/>
 <path style="opacity:.2;fill:#8b9cbe" d="m14 4a5 5 0 0 0 -4.7226562 3.3730469 3.5 3.5 0 0 0 -2.7773438 -1.3730469 3.5 3.5 0 0 0 -3.5 3.5 3.5 3.5 0 0 0 0.0117188 0.2167969 3.5 3.5 0 0 1 3.4882812 -3.2167969 3.5 3.5 0 0 1 2.7773438 1.3730469 5 5 0 0 1 4.7226562 -3.3730469 5 5 0 0 1 4.982422 4.5996094 5.5 5.5 0 0 1 3.007812 4.6933596 5.5 5.5 0 0 0 0.009766 -0.292969 5.5 5.5 0 0 0 -3.017578 -4.9003906 5 5 0 0 0 -4.982422 -4.5996094zm-10.921875 6.71875a4.5 4.5 0 0 0 -2.078125 3.78125 4.5 4.5 0 0 0 0.0117188 0.234375 4.5 4.5 0 0 1 2.1835937 -3.59375 3.5 3.5 0 0 1 -0.1171875 -0.421875z"/>
</svg>
