<svg xmlns="http://www.w3.org/2000/svg" width="24" height="24" version="1">
 <g>
  <rect style="opacity:0.2" width="20" height="20" x="2" y="2.5" rx="1" ry="1"/>
  <rect style="fill:#b2bfd9" width="20" height="20" x="2" y="2" rx="1" ry="1"/>
  <path style="opacity:0.2" d="M 11.955078,7.5328751 5,12.499672 10.230469,16.236 10.585938,14.439125 8,12.499672 11.488281,9.8824845 Z"/>
  <path style="opacity:0.2;fill:#8b9cbe" d="M 3,2 C 2.446,2 2,2.446 2,3 v 0.5 c 0,-0.554 0.446,-1 1,-1 h 18 c 0.554,0 1,0.446 1,1 V 3 C 22,2.446 21.554,2 21,2 Z"/>
  <path style="fill:#483c8f" d="M 11.955078,7.0332031 5,12 10.230469,15.736328 10.585938,13.939453 8,12 11.488281,9.3828125 Z"/>
  <path style="opacity:0.2" d="M 13.751953,8.7516251 13.396484,10.546547 16,12.499672 12.486328,15.134438 12.019531,17.486 19,12.499672 Z"/>
  <path style="fill:#4b8adf" d="M 13.751953,8.2519531 13.396484,10.046875 16,12 12.486328,14.634766 12.019531,16.986328 19,12 Z"/>
 </g>
</svg>
