<svg xmlns="http://www.w3.org/2000/svg" width="24" height="24" version="1">
 <rect style="fill:#0090ef" width="20" height="19.998" x="-22" y="-22" rx="10" ry="9.999" transform="matrix(0,-1,-1,0,0,0)"/>
 <path style="opacity:0.2" d="m 13,7.4995095 a 4,4 0 0 0 -4,4.0000025 4,4 0 0 0 0.5585938,2.027344 l -2.265625,2.265625 a 1.0001,1.0001 0 1 0 1.4140624,1.414062 L 10.972656,14.940918 A 4,4 0 0 0 13,15.499512 a 4,4 0 0 0 4,-4 4,4 0 0 0 -4,-4.0000025 z m 0,2 c 1.112821,0 2,0.8885165 2,2.0000025 0,1.111485 -0.887179,2 -2,2 -1.112821,0 -2,-0.888515 -2,-2 0,-1.111486 0.887179,-2.0000025 2,-2.0000025 z"/>
 <path style="fill:#8b9cbe" d="M 13 7 A 4 4 0 0 0 9 11 A 4 4 0 0 0 9.5585938 13.027344 L 7.2929688 15.292969 A 1.0001 1.0001 0 1 0 8.7070312 16.707031 L 10.972656 14.441406 A 4 4 0 0 0 13 15 A 4 4 0 0 0 17 11 A 4 4 0 0 0 13 7 z M 13 9 C 14.112821 9 15 9.888515 15 11 C 15 12.111485 14.112821 13 13 13 C 11.887179 13 11 12.111485 11 11 C 11 9.888515 11.887179 9 13 9 z"/>
 <path style="opacity:0.2;fill:#8b9cbe" d="M 12,2 C 6.4605,2 2.001,6.46 2.001,12 c 0,0.08386 -0.002,0.16664 0,0.25 C 2.1331,6.827 6.5445,2.5 12,2.5 c 5.4555,0 9.867,4.3268 9.999,9.75 0.002,-0.08335 0,-0.16614 0,-0.25 C 21.999,6.46 17.54,2 12,2 Z"/>
 <path style="opacity:0.2" d="M 2.0058,12.25 C 2.0038,12.334 2,12.416 2,12.5 c 0,5.54 4.46,10 10,10 5.54,0 10,-4.46 10,-10 0,-0.084 -0.004,-0.1665 -0.006,-0.25 C 21.862,17.673 17.456,22 12,22 6.544,22 2.138,17.673 2.006,12.25 Z"/>
</svg>
