<svg xmlns="http://www.w3.org/2000/svg" width="24" height="24" version="1.1">
 <path style="fill:#48aeff" d="M 12,2 A 10,10 0 0 0 2,12 10,10 0 0 0 12,22 10,10 0 0 0 22,12 10,10 0 0 0 12,2 Z"/>
 <path style="opacity:0.2" d="M 2.01075,12.209 A 10,10 0 0 0 2,12.5 10,10 0 0 0 12,22.5 10,10 0 0 0 22,12.5 10,10 0 0 0 21.9895,12.291 10,10 0 0 1 12,22 10,10 0 0 1 2.011,12.209 Z"/>
 <path style="opacity:0.2;fill:#8b9cbe" d="m 12,2 a 10,10 0 0 0 -10,10 10,10 0 0 0 0.01075,0.209 10,10 0 0 1 9.989,-9.709 10,10 0 0 1 9.9895,9.791 10,10 0 0 0 0.0105,-0.291 10,10 0 0 0 -10,-10 z"/>
 <path style="opacity:0.2" d="m 15,7.5 c -0.554,0 -1,0.446 -1,1 v 5 h -1.334961 a 0.66531265,0.49515172 0 0 0 -0.576172,0.743164 l 2.334961,3.008789 a 0.66531265,0.49515172 0 0 0 0.540039,0.24707 0.66531265,0.49515172 0 0 0 0.612305,-0.24707 l 2.334961,-3.008789 A 0.66531265,0.49515172 0 0 0 17.334961,13.5 H 16 v -5 c 0,-0.554 -0.446,-1 -1,-1 z M 8.963867,7.501 A 0.66531265,0.49515172 0 0 0 8.423828,7.7480705 L 6.088867,10.75686 A 0.66531265,0.49515172 0 0 0 6.665039,11.5 H 8 v 5 c 0,0.554 0.446,1 1,1 0.554,0 1,-0.446 1,-1 v -5 h 1.334961 a 0.66531265,0.49515172 0 0 0 0.576172,-0.743164 L 9.576172,7.748047 A 0.66531265,0.49515172 0 0 0 8.963867,7.5009765 Z"/>
 <g transform="matrix(0.5,0,0,0.5,-2.5e-7,-1)">
  <rect style="fill:#8b9cbe" width="4" height="18" x="16" y="18" ry="2"/>
  <path style="fill:#8b9cbe" d="m 17.928561,16.001419 a 1.3306253,0.99030344 0 0 0 -1.080712,0.493758 l -4.669403,6.019141 A 1.3306253,0.99030344 0 0 0 13.330597,24 h 9.338807 a 1.3306253,0.99030344 0 0 0 1.152151,-1.485682 l -4.669403,-6.019141 a 1.3306253,0.99030344 0 0 0 -1.223591,-0.493758 z"/>
 </g>
 <g transform="matrix(0.5,0,0,-0.5,6,25)">
  <rect style="fill:#8b9cbe" width="4" height="18" x="16" y="18" ry="2"/>
  <path style="fill:#8b9cbe" d="m 17.928561,16.001419 a 1.3306253,0.99030344 0 0 0 -1.080712,0.493758 l -4.669403,6.019141 A 1.3306253,0.99030344 0 0 0 13.330597,24 h 9.338807 a 1.3306253,0.99030344 0 0 0 1.152151,-1.485682 l -4.669403,-6.019141 a 1.3306253,0.99030344 0 0 0 -1.223591,-0.493758 z"/>
 </g>
</svg>
