<svg xmlns="http://www.w3.org/2000/svg" width="24" height="24" version="1">
 <rect style="opacity:0.2" width="20" height="20" x="2" y="2.5" rx="1" ry="1"/>
 <rect style="fill:#b2bfd9" width="20" height="20" x="2" y="2" rx="1" ry="1"/>
 <path style="opacity:0.1;fill:none;stroke:#000000;stroke-width:2;stroke-linecap:round;stroke-linejoin:round" d="m 12,5.4786365 0,4.4997575 m -5,-1.4997575 10,0 m -7,6.9999005 4,0 m -2,4.007221 0,-11.5 c 1.700339,2.754794 3.616861,6.850416 7,7.500001 m -6.989899,3.985756 0,-11.4999995 C 10.309762,10.726309 8.383139,14.821931 5,15.471516"/>
 <path style="opacity:0.2;fill:#8b9cbe" d="M 3,2 C 2.446,2 2,2.446 2,3 l 0,0.5 c 0,-0.554 0.446,-1 1,-1 l 18,0 c 0.554,0 1,0.446 1,1 L 22,3 C 22,2.446 21.554,2 21,2 L 3,2 Z"/>
 <path style="fill:none;stroke:#17191e;stroke-width:2;stroke-linecap:round;stroke-linejoin:round" d="M 12,19.007121 12,7.5071215 c 1.700339,2.7547935 3.616861,6.8504155 7,7.5000005 m -6.989899,3.985756 0,-11.499999 C 10.309762,10.247672 8.383139,14.343294 5,14.992879"/>
 <path style="fill:none;stroke:#17191e;stroke-width:2;stroke-linecap:round;stroke-linejoin:round" d="m 10,14.9999 4,0"/>
 <path style="fill:none;stroke:#17191e;stroke-width:2;stroke-linecap:round;stroke-linejoin:round" d="M 7,8 17,8"/>
 <path style="fill:none;stroke:#17191e;stroke-width:2;stroke-linecap:round;stroke-linejoin:round" d="m 12,5 0,4.4997575"/>
</svg>
