<svg xmlns="http://www.w3.org/2000/svg" width="24" height="24" version="1.1">
 <path style="fill:#28a390" d="m 12.0542,2.0009267 a 2.2828,2.274 0 0 0 -1.1954,0.3033 l -6.7172001,3.8631 a 2.2828,2.274 0 0 0 -1.1414,1.9694 l 0,7.7263003 a 2.2828,2.274 0 0 0 1.1414,1.9693 l 6.7172001,3.8632 a 2.2828,2.274 0 0 0 2.2828,0 l 6.7172,-3.8632 a 2.2828,2.274 0 0 0 1.1414,-1.9693 l 0,-7.7263003 a 2.2828,2.274 0 0 0 -1.14,-1.9696 l -6.718,-3.8631 a 2.2828,2.274 0 0 0 -1.0875,-0.30332 z"/>
 <path style="opacity:0.2;fill:#8b9cbe" d="m 12.0542,2.0012267 a 2.2828,2.274 0 0 0 -1.1956,0.3027 l -6.7168001,3.8633 a 2.2828,2.274 0 0 0 -1.1416,1.9697 l 0,0.5 a 2.2828,2.274 0 0 1 1.1416,-1.9697 l 6.7168001,-3.8633 a 2.2828,2.274 0 0 1 1.1953,-0.30273 2.2828,2.274 0 0 1 1.0879,0.30273 l 6.7168,3.8633 a 2.2828,2.274 0 0 1 1.1416,1.9697 l 0,-0.5 a 2.2828,2.274 0 0 0 -1.143,-1.9697 l -6.716,-3.8633 a 2.2828,2.274 0 0 0 -1.088,-0.3027 z"/>
 <path style="opacity:0.2" d="m 3.0001999,15.863227 0,0.5 a 2.2828,2.274 0 0 0 1.1416,1.9687 l 6.7168001,3.8633 a 2.2828,2.274 0 0 0 2.2832,0 l 6.7168,-3.8633 a 2.2828,2.274 0 0 0 1.1416,-1.9687 l 0,-0.5 a 2.2828,2.274 0 0 1 -1.1416,1.9687 l -6.7168,3.8633 a 2.2828,2.274 0 0 1 -2.2832,0 l -6.7172001,-3.863 a 2.2828,2.274 0 0 1 -1.1416,-1.969 z"/>
 <circle style="opacity:0.2" cx="10" cy="10.5" r="3"/>
 <circle style="fill:#ffd16d" cx="10" cy="10" r="3"/>
 <path style="opacity:0.2" d="M 13 9.5 A 3 3 0 0 0 10.171875 11.509766 A 3 3 0 0 0 10 11.5 A 3 3 0 0 0 7 14.5 A 3 3 0 0 0 10 17.5 L 16 17.5 A 2 2 0 0 0 18 15.5 A 2 2 0 0 0 16 13.5 A 2 2 0 0 0 15.820312 13.509766 A 3 3 0 0 0 16 12.5 A 3 3 0 0 0 13 9.5 z"/>
 <path style="fill:#e8f3f2" d="M 13 9 A 3 3 0 0 0 10.171875 11.009766 A 3 3 0 0 0 10 11 A 3 3 0 0 0 7 14 A 3 3 0 0 0 10 17 L 16 17 A 2 2 0 0 0 18 15 A 2 2 0 0 0 16 13 A 2 2 0 0 0 15.820312 13.009766 A 3 3 0 0 0 16 12 A 3 3 0 0 0 13 9 z"/>
</svg>
