<svg xmlns="http://www.w3.org/2000/svg" width="24" height="24" version="1.1">
 <path style="opacity:0.2" d="M 10.031694,2.5 A 1.0947417,1.1485632 0 0 0 9.0718799,3.0964214 l -3.937295,7.5235546 a 1.0947417,1.1485632 0 0 0 0.0041,1.111591 L 10.551558,21.910493 A 1.0947417,1.1485632 0 0 0 11.508076,22.5 h 0.983706 A 1.0947417,1.1485632 0 0 0 13.4483,21.910493 l 5.412854,-10.178926 a 1.0947417,1.1485632 0 0 0 0.0041,-1.111591 L 14.927978,3.0964214 A 1.0947417,1.1485632 0 0 0 13.968165,2.5 Z"/>
 <path style="fill:#4f4f4f" d="M 10.031694,2 A 1.0947417,1.1485632 0 0 0 9.0718799,2.5964214 l -3.937295,7.5235546 a 1.0947417,1.1485632 0 0 0 0.0041,1.111591 L 10.551558,21.410493 A 1.0947417,1.1485632 0 0 0 11.508076,22 h 0.983706 A 1.0947417,1.1485632 0 0 0 13.4483,21.410493 l 5.412854,-10.178926 a 1.0947417,1.1485632 0 0 0 0.0041,-1.111591 L 14.927978,2.5964214 A 1.0947417,1.1485632 0 0 0 13.968165,2 Z"/>
 <path style="opacity:0.2" d="m 10.499929,4.4999998 -3.5000046,6.6666662 3.4999996,6.666666 v -2.666666 c -0.6431281,-0.07073 -0.8274351,-0.387552 -0.8701631,-0.857974 -0.049425,-0.544127 0.352573,-0.97136 0.161973,-1.404807 0.7427581,0.194958 0.7612021,0.50538 0.9472621,0.964169 0.09213,-0.320305 0.06599,-0.553408 0.03927,-0.759119 0.964429,0.455166 1.237486,0.968522 1.224424,2.064024 -0.0035,0.292808 -0.763063,1.234218 -0.748337,1.513434 0.01473,0.279217 0.305143,0.594779 0.338658,0.828924 0.03292,0.23003 -0.564431,0.530447 -0.564431,0.990439 0,0.436076 0.971349,1.994244 0.971349,1.994244 l 1,-1.777778 c -0.531046,0.302401 -0.874268,0.330726 -1.122918,0.317577 -0.356248,0.01827 -0.539884,-0.332025 -0.491672,-0.546302 0.07623,-0.338802 0.61459,-0.731748 0.61459,-0.983343 0,-0.300483 -0.22041,-0.492191 -0.19587,-0.784496 0.02454,-0.292304 1.090409,-1.123737 0.986529,-1.740739 -0.162215,-0.963482 -0.375162,-1.517218 0.495713,-1.919612 -0.109485,0.331337 -0.04285,0.524072 0.01473,0.846374 0.103811,-0.618965 0.41506,-0.700708 0.937446,-1.051424 -0.150964,0.661261 0.157698,0.910054 0.137422,1.40917 -0.02028,0.499116 -0.553576,0.88622 -0.875965,0.897239 V 16.5 c 0.215219,-0.105407 0.302334,1.55e-4 0.5,0 l 3,-5.333334 -3.5,-6.6666662 V 5.388889 c -0.307444,0.1779635 -0.331779,0.302684 -0.323313,0.5908285 0,0 0.171162,-0.1594725 0.323313,-0.1463845 0.152151,0.013085 0.995091,2.448529 1,2.666667 -7e-6,0.2704905 -1,0.444444 -1,0.888889 0.240277,-0.213341 0.63387,-0.14127 0.99259,0.00632 0.278918,0.1147575 0.491979,1.365905 0.531243,1.623308 -0.0097,0.261765 -0.323935,0.492991 -0.716582,0.497354 -0.392648,0.0044 -0.56934,-0.06108 -0.574247,-0.218135 -0.0049,-0.15706 0.505533,-0.571521 0.505533,-0.571521 -0.585144,-0.02857 -0.846755,0.330298 -1.065057,0.584609 0.02913,-0.152696 0.05888,-0.261766 0.08835,-0.392648 -0.297629,0.05106 -0.435696,0.259035 -0.544799,0.42755 C 12.56901,11.00601 11.691533,10.182702 11.705888,9.8848595 11.652136,9.395508 13.313794,9.426254 13.490297,8.2880915 13.480497,7.856179 13.029311,7.5525515 12.613887,7.454805 12.280136,7.376276 12.172158,7.350099 12.172158,7.350099 12.396263,7.2429025 13.068886,6.9368395 12.908371,6.51245 12.846577,6.679997 12.770228,6.8923165 12.078902,6.926912 11.371994,6.6241585 11.463816,6.1696885 11.578281,5.801321 c -0.466109,0.3023665 -0.396852,0.596777 -0.279762,1.02961 0.03327,0.213773 -0.214049,0.3930825 -0.286243,0.5348675 0.01428,0.1785515 0.02581,0.3727135 -0.08677,0.4554775 -0.279787,0.2713685 0.06182,0.6847105 0.220855,0.658776 -0.02179,-0.536482 0.589549,-0.745418 0.834376,-0.8027465 0.402465,-4.5e-6 1.126724,0.3664715 1.121816,0.6325995 -0.0049,0.266128 -0.48867,0.527893 -1.087459,0.706766 -0.598787,0.178873 -1.079782,0.4144615 -1.065057,0.990345 0.01875,0.562782 0.315811,1.19795 0.373015,1.351798 -0.199608,-0.170531 -0.309611,-0.417188 -0.598787,-0.453726 0.06895,0.130667 0.140118,0.275991 0.201243,0.427549 -0.302667,-0.435245 -0.61583,-0.562031 -1.1632201,-0.628236 0.9626371,0.683154 0.2975071,0.825948 -0.058891,0.820198 -0.3398805,-0.0055 -0.7620905,-0.128735 -0.7165815,-0.479903 0.02739,-0.211352 0.1807345,-1.49462 0.5306815,-1.648384 0.3689205,-0.1621015 0.7573241,-0.1532335 0.9824291,-0.00742 0,-0.444444 -1.0065166,-0.687473 -0.9999996,-0.888889 0.00651,-0.2014155 0.8400776,-2.6666665 0.9999996,-2.6666665 0.159922,0 0.216404,0.02976 0.3125,0.159722 0.09145,-0.42109 -0.21031,-0.4527865 -0.3125,-0.604167 5e-6,-0.104706 0,-0.8888888 0,-0.8888888 z"/>
 <path style="fill:#8b9cbe" d="m 10.499929,3.9999998 -3.5000046,6.6666662 3.4999996,6.666666 v -2.666666 c -0.6431281,-0.07073 -0.8274351,-0.387552 -0.8701631,-0.857974 -0.049425,-0.544127 0.352573,-0.97136 0.161973,-1.404807 0.7427581,0.194958 0.7612021,0.50538 0.9472621,0.964169 0.09213,-0.320305 0.06599,-0.553408 0.03927,-0.759119 0.964429,0.455166 1.237486,0.968522 1.224424,2.064024 -0.0035,0.292808 -0.763063,1.234218 -0.748337,1.513434 0.01473,0.279217 0.305143,0.594779 0.338658,0.828924 0.03292,0.23003 -0.564431,0.530447 -0.564431,0.990439 0,0.436076 0.971349,1.994244 0.971349,1.994244 l 1,-1.777778 c -0.531046,0.302401 -0.874268,0.330726 -1.122918,0.317577 -0.356248,0.01827 -0.539884,-0.332025 -0.491672,-0.546302 0.07623,-0.338802 0.61459,-0.731748 0.61459,-0.983343 0,-0.300483 -0.22041,-0.492191 -0.19587,-0.784496 0.02454,-0.292304 1.090409,-1.123737 0.986529,-1.740739 -0.162215,-0.963482 -0.375162,-1.517218 0.495713,-1.919612 -0.109485,0.331337 -0.04285,0.524072 0.01473,0.846374 0.103811,-0.618965 0.41506,-0.700708 0.937446,-1.051424 -0.150964,0.661261 0.157698,0.910054 0.137422,1.40917 -0.02028,0.499116 -0.553576,0.88622 -0.875965,0.897239 V 16 c 0.215219,-0.105407 0.302334,1.55e-4 0.5,0 l 3,-5.333334 -3.5,-6.6666662 v 0.888889 c -0.307444,0.1779637 -0.331779,0.3026842 -0.323313,0.5908287 0,0 0.171162,-0.1594725 0.323313,-0.1463845 0.152151,0.013085 0.995091,2.448529 1,2.666667 -7e-6,0.2704905 -1,0.444444 -1,0.888889 0.240277,-0.213341 0.63387,-0.14127 0.99259,0.00632 0.278918,0.1147575 0.491979,1.365905 0.531243,1.623308 -0.0097,0.261765 -0.323935,0.492991 -0.716582,0.497354 -0.392648,0.0044 -0.56934,-0.06108 -0.574247,-0.218135 -0.0049,-0.15706 0.505533,-0.571521 0.505533,-0.571521 -0.585144,-0.02857 -0.846755,0.330298 -1.065057,0.584609 0.02913,-0.152696 0.05888,-0.261766 0.08835,-0.392648 -0.297629,0.05106 -0.435696,0.259035 -0.544799,0.42755 C 12.56901,10.50601 11.691533,9.682702 11.705888,9.3848595 11.652136,8.895508 13.313794,8.926254 13.490297,7.7880915 13.480497,7.356179 13.029311,7.0525515 12.613887,6.954805 12.280136,6.876276 12.172158,6.850099 12.172158,6.850099 12.396263,6.7429025 13.068886,6.4368395 12.908371,6.01245 12.846577,6.179997 12.770228,6.3923165 12.078902,6.426912 11.371994,6.1241585 11.463816,5.6696885 11.578281,5.301321 c -0.466109,0.3023665 -0.396852,0.596777 -0.279762,1.02961 0.03327,0.213773 -0.214049,0.3930825 -0.286243,0.5348675 0.01428,0.1785515 0.02581,0.3727135 -0.08677,0.4554775 -0.279787,0.2713685 0.06182,0.6847105 0.220855,0.658776 -0.02179,-0.536482 0.589549,-0.745418 0.834376,-0.8027465 0.402465,-4.5e-6 1.126724,0.3664715 1.121816,0.6325995 -0.0049,0.266128 -0.48867,0.527893 -1.087459,0.706766 -0.598787,0.178873 -1.079782,0.4144615 -1.065057,0.9903455 0.01875,0.5627815 0.315811,1.1979495 0.373015,1.3517975 -0.199608,-0.170531 -0.309611,-0.417188 -0.598787,-0.453726 0.06895,0.130667 0.140118,0.275991 0.201243,0.427549 -0.302667,-0.435245 -0.61583,-0.562031 -1.1632201,-0.628236 0.9626371,0.683154 0.2975071,0.825948 -0.058891,0.820198 -0.3398805,-0.0055 -0.7620905,-0.128735 -0.7165815,-0.479903 0.02739,-0.211352 0.1807345,-1.49462 0.5306815,-1.648384 0.3689205,-0.1621015 0.7573241,-0.1532335 0.9824291,-0.00742 0,-0.444444 -1.0065166,-0.687473 -0.9999996,-0.888889 0.00651,-0.2014155 0.8400776,-2.6666665 0.9999996,-2.6666665 0.159922,0 0.216404,0.02976 0.3125,0.159722 0.09145,-0.42109 -0.21031,-0.4527865 -0.3125,-0.6041669 5e-6,-0.1047061 0,-0.8888889 0,-0.8888889 z"/>
 <path style="opacity:0.1;fill:#8b9cbe" d="M 10.032151,2 A 1.0947417,1.1485632 0 0 0 9.0721899,2.5966797 l -3.9375,7.5234373 a 1.0947417,1.1485632 0 0 0 -0.1074215,0.801758 1.0947417,1.1485632 0 0 1 0.1074215,-0.301758 l 3.9375,-7.5234373 A 1.0947417,1.1485632 0 0 1 10.032151,2.5 h 3.935547 a 1.0947417,1.1485632 0 0 1 0.959961,0.5966797 l 3.9375,7.5234373 a 1.0947417,1.1485632 0 0 1 0.108398,0.303711 1.0947417,1.1485632 0 0 0 -0.108398,-0.803711 l -3.9375,-7.5234373 A 1.0947417,1.1485632 0 0 0 13.967698,2 Z"/>
</svg>
