<svg xmlns="http://www.w3.org/2000/svg" width="24" height="24" version="1">
 <circle style="opacity:0.2" cx="12" cy="12.5" r="10"/>
 <circle style="fill:#4eabab" cx="12" cy="12" r="10"/>
 <path style="opacity:0.2;fill:#8b9cbe" d="M 12,2 A 10,10 0 0 0 2,12 10,10 0 0 0 2.0107422,12.291016 10,10 0 0 1 12,2.5 10,10 0 0 1 21.989258,12.208985 10,10 0 0 0 22,12 10,10 0 0 0 12,2 Z"/>
 <path style="opacity:0.2" d="m 14.306727,17.49293 c -0.08299,-0.826377 -0.533724,-1.572671 -0.87019,-2.321801 -0.527443,-1.292274 -1.021688,-2.601575 -1.458745,-3.926663 -0.150168,-0.459313 -0.124336,-1.2750379 0.38375,-0.595385 0.844272,0.0079 1.708609,0.229614 1.831765,1.214203 0.258805,0.366303 0.380503,1.907475 0.831803,0.909058 0.481028,-0.76166 0.609996,-1.689765 1.073751,-2.451653 0.379621,-0.823737 1.284203,-0.7887895 2.038603,-0.6367136 -0.294417,0.9840386 -0.741768,1.9364936 -0.951815,2.9536996 -0.246,0.926218 -0.744857,1.763644 -1.062248,2.668498 -0.377044,0.764559 -0.813351,1.574764 -1.509208,2.091564 -0.09897,0.02819 -0.197291,0.129701 -0.307466,0.09519 z m -2.383846,-0.730023 c -0.380749,-0.572606 -0.545585,-1.35025 -0.941097,-1.861804 -0.641932,-0.09108 -1.2691795,-0.0026 -1.251365,0.800301 -0.086103,0.811919 -0.912623,1.038592 -1.5888035,0.790801 -0.7873055,-0.133156 0.4971575,-1.44028 -0.260448,-1.600551 -0.1667,-0.331792 0.112566,-1.084118 0.650875,-1.003148 0.5364995,-1.322568 0.780825,-2.786751 1.6086675,-3.9810529 0.213975,-0.0369 1.236071,-0.5171501 0.626595,0.07763 -0.374159,0.6119019 0.160331,1.2529339 0.388149,1.8091629 0.452818,0.743447 0.665125,1.650578 1.263211,2.295253 0.549548,0.295323 -0.110612,0.8901 0.423824,1.320826 0.209937,0.405629 0.538429,0.788245 -0.135879,0.785346 -0.289389,0.136714 -0.44435,0.575455 -0.783729,0.567239 z m -1.312138,-2.865833 c -0.05975,-0.461998 -0.429077,-0.732495 -0.425556,-0.07623 -0.04291,0.184264 0.328646,0.06686 0.425556,0.07623 z m 7.768062,2.747479 c -0.348747,-0.284903 -0.786526,-0.279615 -1.093083,-0.245119 0.02352,-0.825463 0.662775,-1.467837 0.640485,-2.319787 0.03672,-0.798064 0.408268,-1.649325 0.14522,-2.424849 -0.41927,-0.452659 0.525892,-1.154957 0.529358,-1.7597908 1.174838,0.5737508 2.522172,-0.2441208 3.710682,0.2932898 0.42098,0.202436 1.124702,0.888419 0.320995,0.679785 -0.34894,0.565939 -0.70323,1.108115 -1.434149,0.75574 -0.686766,0.05616 -1.489965,0.0131 -1.34621,0.950821 0.280923,0.556155 1.766441,-0.15444 1.704787,0.950658 0.60841,0.611609 -1.282057,0.307638 -1.662822,0.503775 -0.597217,0.110055 -0.427024,1.100715 0.263526,0.794979 0.710874,0.112313 1.842706,-0.05918 2.320304,0.195914 -0.63359,0.442681 -0.334911,1.746732 -1.454678,1.526272 -0.879926,0.06406 -1.762868,0.08307 -2.644415,0.09831 z M 3.8853024,16.539557 C 2.840269,16.445944 1.8865278,15.810343 1.3887996,14.894429 0.9907306,13.874622 1.0382458,12.740592 1,11.660548 1.1293939,10.549336 1.2631967,9.414196 1.8313379,8.4248075 2.6673269,6.7540615 4.9152595,6.067755 6.6035565,6.778246 7.60166,7.3838065 8.346467,8.5545665 8.266055,9.7401783 8.168778,10.683865 7.0826095,11.016601 6.3221445,11.311119 5.8623875,11.134033 6.934669,10.861543 6.5067045,10.347816 6.403485,9.5865715 5.4948595,8.428487 4.6853249,9.005687 3.6779915,9.8704822 3.5040367,11.292214 3.6871891,12.5298 c 0.3134787,0.875212 1.1197219,1.646823 2.1094139,1.567195 0.532195,0.175084 1.584899,-0.40922 1.7978205,-0.0267 -0.5768955,0.632362 -0.1785075,1.489524 -0.931081,1.996819 -0.686421,0.592726 -1.7377004,0.494864 -2.5995271,0.497121 L 3.885344,16.539518 Z M 14.942401,10.041919 c -0.666692,-0.1442538 -2.200377,0.108103 -1.554747,-1.018414 0.229928,-0.573924 -0.06743,-1.6550025 0.883645,-1.2014155 0.403206,0.069012 1.683593,-0.039855 1.253337,0.529922 -0.376186,0.1498265 -1.585896,-0.4459775 -1.258055,0.271665 0.614756,-0.12483 0.80477,0.697244 0.07324,0.427653 -0.812707,0.3400345 0.575415,0.528512 0.960253,0.50093 0.584264,-0.12741 0.249377,0.7550555 -0.357675,0.4896595 z M 12.586483,9.6152244 c -0.997067,0.2615168 0.05274,-1.0879839 -0.753977,-1.2144279 -0.387757,0.03237 -0.157943,0.961775 -0.853222,0.880492 -0.369691,0.064615 0.530362,-1.2304415 -0.313261,-1.245063 0.530057,-0.170046 0.544368,-0.663151 0.645388,-1.1197765 0.490732,0.180372 0.449529,0.5777385 0.551966,0.899138 0.329593,0.349503 0.550668,0.205678 0.535332,-0.2286435 1.06157,0.023035 0.344767,1.36721 0.322649,2.0459549 -0.0055,0.09058 -0.118834,-0.0099 -0.134875,-0.01768 z M 9.5723705,9.450062 C 9.0032345,9.157133 9.7689265,7.995377 9.4301185,7.4019785 8.833532,7.4010285 8.383704,7.5036195 8.2824885,6.843304 8.5325675,6.6724595 9.71289,6.836754 10.106248,6.776068 10.260951,7.1211315 11.536679,6.742678 10.708515,7.3620495 9.6223325,7.2723365 10.318493,8.7153205 10.066604,9.3440825 9.956324,9.4898295 9.7313415,9.444639 9.5723705,9.450062 Z"/>
 <path style="fill:#8b9cbe" d="m 14.306727,16.99293 c -0.08299,-0.826377 -0.533724,-1.572671 -0.87019,-2.321801 -0.527443,-1.292274 -1.021688,-2.601575 -1.458745,-3.926663 -0.150168,-0.459313 -0.124336,-1.275038 0.38375,-0.595385 0.844272,0.0079 1.708609,0.229614 1.831765,1.214203 0.258805,0.366303 0.380503,1.907475 0.831803,0.909058 0.481028,-0.76166 0.609996,-1.689765 1.073751,-2.4516528 0.379621,-0.8237372 1.284203,-0.7887902 2.038603,-0.6367142 -0.294417,0.984039 -0.741768,1.936494 -0.951815,2.9537 -0.246,0.926218 -0.744857,1.763644 -1.062248,2.668498 -0.377044,0.764559 -0.813351,1.574764 -1.509208,2.091564 -0.09897,0.02819 -0.197291,0.129701 -0.307466,0.09519 z m -2.383846,-0.730023 c -0.380749,-0.572606 -0.545585,-1.35025 -0.941097,-1.861804 -0.641932,-0.09108 -1.2691795,-0.0026 -1.251365,0.800301 -0.086103,0.811918 -0.912623,1.038592 -1.5888035,0.790801 -0.7873055,-0.133156 0.4971575,-1.44028 -0.260448,-1.600551 -0.1667,-0.331792 0.112566,-1.084118 0.650875,-1.003148 0.5364995,-1.322568 0.780825,-2.786751 1.6086675,-3.981053 0.213975,-0.036905 1.236071,-0.51715 0.626595,0.077628 -0.374159,0.611902 0.160331,1.252934 0.388149,1.809163 0.452818,0.743447 0.665125,1.650578 1.263211,2.295253 0.549548,0.295323 -0.110612,0.8901 0.423824,1.320826 0.209937,0.40563 0.538429,0.788245 -0.135879,0.785346 -0.289389,0.136714 -0.44435,0.575455 -0.783729,0.567238 z m -1.312138,-2.865833 c -0.05975,-0.461998 -0.429077,-0.732495 -0.425556,-0.07623 -0.04291,0.184264 0.328646,0.06686 0.425556,0.07623 z m 7.768062,2.747479 c -0.348747,-0.284903 -0.786526,-0.279615 -1.093083,-0.245119 0.02352,-0.825463 0.662775,-1.467837 0.640485,-2.319787 0.03672,-0.798064 0.408268,-1.649325 0.14522,-2.424849 -0.41927,-0.452659 0.525892,-1.1549569 0.529358,-1.759791 1.174838,0.5737511 2.522172,-0.2441205 3.710682,0.2932904 0.42098,0.2024358 1.124702,0.8884186 0.320995,0.6797846 -0.34894,0.565939 -0.70323,1.108115 -1.434149,0.75574 -0.686766,0.05616 -1.489965,0.0131 -1.34621,0.950821 0.280923,0.556155 1.766441,-0.15444 1.704787,0.950658 0.60841,0.611609 -1.282057,0.307638 -1.662822,0.503775 -0.597217,0.110055 -0.427024,1.100715 0.263526,0.794979 0.710874,0.112313 1.842706,-0.05918 2.320304,0.195914 -0.63359,0.442681 -0.334911,1.746732 -1.454678,1.526272 -0.879926,0.06406 -1.762868,0.08307 -2.644415,0.09831 z M 3.8853024,16.039557 C 2.840269,15.945944 1.8865278,15.310344 1.3887996,14.394429 0.9907306,13.374622 1.0382458,12.240592 1,11.160548 1.1293939,10.049336 1.2631967,8.914196 1.8313379,7.9248075 2.6673269,6.2540615 4.9152595,5.567755 6.6035565,6.278246 7.60166,6.8838065 8.346467,8.0545665 8.266055,9.240178 8.168778,10.183865 7.0826095,10.516601 6.3221445,10.811119 5.8623875,10.634033 6.934669,10.361543 6.5067045,9.8478162 6.403485,9.0865715 5.4948595,7.928487 4.6853249,8.505687 3.6779915,9.3704825 3.5040367,10.792214 3.6871891,12.0298 c 0.3134787,0.875212 1.1197219,1.646823 2.1094139,1.567195 0.532195,0.175084 1.584899,-0.40922 1.7978205,-0.0267 -0.5768955,0.632362 -0.1785075,1.489524 -0.931081,1.996819 -0.686421,0.592726 -1.7377004,0.494864 -2.5995271,0.497121 L 3.885344,16.039518 Z M 14.942401,9.5419195 c -0.666692,-0.144254 -2.200377,0.1081029 -1.554747,-1.0184145 0.229928,-0.573924 -0.06743,-1.6550025 0.883645,-1.2014155 0.403206,0.069013 1.683593,-0.039855 1.253337,0.529922 -0.376186,0.1498265 -1.585896,-0.4459775 -1.258055,0.271665 0.614756,-0.12483 0.80477,0.697244 0.07324,0.427653 -0.812707,0.3400345 0.575415,0.5285115 0.960253,0.50093 0.584264,-0.12741 0.249377,0.7550557 -0.357675,0.48966 z M 12.586483,9.115224 c -0.997067,0.2615175 0.05274,-1.0879835 -0.753977,-1.2144275 -0.387757,0.03237 -0.157943,0.961775 -0.853222,0.880492 -0.369691,0.064616 0.530362,-1.2304415 -0.313261,-1.245063 0.530057,-0.170046 0.544368,-0.663151 0.645388,-1.1197765 0.490732,0.180372 0.449529,0.5777385 0.551966,0.899138 0.329593,0.349503 0.550668,0.205678 0.535332,-0.2286435 1.06157,0.023035 0.344767,1.36721 0.322649,2.045955 -0.0055,0.090583 -0.118834,-0.00995 -0.134875,-0.01768 z M 9.5723705,8.950062 C 9.0032345,8.657133 9.7689265,7.495377 9.4301185,6.9019785 8.833532,6.9010285 8.383704,7.0036195 8.2824885,6.343304 8.5325675,6.1724595 9.71289,6.336754 10.106248,6.276068 10.260951,6.6211315 11.536679,6.242678 10.708515,6.8620495 9.6223325,6.7723365 10.318493,8.2153205 10.066604,8.8440825 9.956324,8.9898295 9.7313415,8.944639 9.5723705,8.950062 Z"/>
</svg>
