<svg width="24" height="24" version="1.1" xmlns="http://www.w3.org/2000/svg">
 <rect transform="matrix(0,-1,-1,0,0,0)" x="-21.997786" y="-22" width="20" height="20" rx="1" ry="1" style="fill:#90decd"/>
 <path d="m2 3.5v-0.5c0-0.554 0.446-1 1-1h18c0.554 0 1 0.446 1 1v0.5c0-0.554-0.446-1-1-1h-18c-0.554 0-1 0.446-1 1z" style="fill:#8b9cbe;opacity:.2"/>
 <path d="m2 21v0.5c0 0.554 0.446 1 1 1h18c0.554 0 1-0.446 1-1v-0.5c0 0.554-0.446 1-1 1h-18c-0.554 0-1-0.446-1-1z" style="opacity:.2"/>
 <path d="m12 4.5-4 8 4 8 4-8z" style="opacity:.1"/>
 <path d="m12 4-4 8 4 8 4-8z" style="fill:#72be45"/>
 <path d="m10 12h4l-2-8z" style="fill:#a7e077"/>
 <path d="m8 12 4 8-2-8zm4 8 4-8h-2z" style="fill:#008000;opacity:.4"/>
 <path d="M 12,4 8,12 8.125,12.25 12,4.5 15.875,12.25 16,12 Z" style="fill:#8b9cbe;opacity:.2"/>
</svg>
