<svg xmlns="http://www.w3.org/2000/svg" width="24" height="24" version="1">
 <rect style="opacity:0.2" width="20" height="18" x="2" y="3.5" rx="1.5" ry="1.5"/>
 <path style="fill:#4f4f4f" d="M 12,3 V 21 H 3.5 C 2.669,21 2,20.331 2,19.5 V 4.5 C 2,3.669 2.669,3 3.5,3 Z"/>
 <path style="fill:#17191e" d="m 12,3 v 18 h 8.5 C 21.331,21 22,20.331 22,19.5 V 4.5 C 22,3.669 21.331,3 20.5,3 Z"/>
 <path style="opacity:0.2;fill:none;stroke:#000000;stroke-linecap:round;stroke-linejoin:round" d="m 4.5,5.9997073 2,1.5 -2,1.5"/>
 <path style="fill:none;stroke:#8b9cbe;stroke-linecap:round;stroke-linejoin:round" d="m 4.5,5.5 2,1.5 -2,1.5"/>
 <path style="opacity:0.2;fill:none;stroke:#000000;stroke-linecap:round;stroke-linejoin:round" d="m 7.5,8.9997073 h 2"/>
 <path style="fill:none;stroke:#8b9cbe;stroke-linecap:round;stroke-linejoin:round" d="m 7.5,8.5 h 2"/>
 <path style="opacity:0.1;fill:#8b9cbe" d="M 3.5,3 C 2.669,3 2,3.669 2,4.5 V 5 C 2,4.169 2.669,3.5 3.5,3.5 h 17 C 21.331,3.5 22,4.169 22,5 V 4.5 C 22,3.669 21.331,3 20.5,3 Z"/>
 <path style="opacity:0.2;fill:none;stroke:#000000;stroke-linecap:round;stroke-linejoin:round" d="m 14.499707,5.9997073 2,1.5 -2,1.5"/>
 <path style="fill:none;stroke:#8b9cbe;stroke-linecap:round;stroke-linejoin:round" d="m 14.499707,5.5 2,1.5 -2,1.5"/>
 <path style="opacity:0.2;fill:none;stroke:#000000;stroke-linecap:round;stroke-linejoin:round" d="m 17.499707,8.9997073 h 2"/>
 <path style="fill:none;stroke:#8b9cbe;stroke-linecap:round;stroke-linejoin:round" d="m 17.499707,8.5 h 2"/>
</svg>
