<svg xmlns="http://www.w3.org/2000/svg" width="24" height="24" version="1">
 <circle style="opacity:0.2" cx="12" cy="12.5" r="10"/>
 <circle style="fill:#d44e41" cx="12" cy="12" r="10"/>
 <path style="opacity:0.2;fill:#8b9cbe" d="M 12,2 A 10,10 0 0 0 2,12 10,10 0 0 0 2.0107422,12.291016 10,10 0 0 1 12,2.5 10,10 0 0 1 21.989258,12.208985 10,10 0 0 0 22,12 10,10 0 0 0 12,2 Z"/>
 <path style="opacity:0.2" d="M 12.529429,17.652534 C 11.0602,17.134067 10.290242,16.981206 9.686363,16.999967 c -0.641587,0.05421 -1.1877615,0.247634 -1.81689,0.44984 -0.3447605,0.09831 -0.3452165,0.0932 -0.023095,-0.259076 0.180727,-0.197648 0.819295,-0.668002 1.4190375,-1.04523 0.8161975,-0.513376 1.2684635,-0.645534 1.7982805,-0.645534 0.834506,0 1.386668,-0.497105 1.208237,-1.039834 C 11.601824,13.392993 10,11.999967 10,11.62034 c 0,-0.317753 0.619641,-1.124552 1.361228,-1.8905496 0.328144,-0.338944 0.47011,-0.610031 0.367756,-0.7022285 -0.213281,-0.192112 -2.2586745,-0.527595 -3.2144855,-0.527595 -0.763415,0 -1.4363365,0.2341975 -1.4363365,0.7273195 0,0.136806 0.093605,0.5167405 0.391513,0.8442996 l 0.54165,0.595562 C 7.6530525,11.066781 7.5,11.499967 6.883791,11.499967 6,11.499967 6,10.800126 6.0046745,10.119398 6.1294675,8.4524529 8.7309315,7.2814124 11.191497,7.5206589 c 1.556331,0.1515995 2.920539,0.3701165 4.410442,0.4792125 0.828911,0.04 1.348562,-0.1634005 2.125988,-0.4514035 0.563372,-0.208706 0.204094,0.4627625 -0.639298,1.194807 -1.014414,0.88049 -1.614605,0.8976685 -3.239411,0.751192 -1.215293,-0.1095595 -1.547797,-0.1726495 -1.826215,0.5527221 -0.220944,0.575639 0.02024,1.124266 1.167895,2.295756 0.565925,0.577677 0.813027,0.950803 0.809102,1.315913 -0.0035,0.326738 -0.202661,0.647057 -0.641911,1.101812 -0.387282,0.400953 -0.609013,0.799796 -0.553622,0.886318 0.173786,0.271463 1.32441,0.852979 1.951536,0.852979 0.330549,0 0.95446,-0.09094 1.325494,-0.273677 0.627608,-0.309104 0.894005,-0.306316 0.894005,0.0094 0,0.249976 -1.975505,1.767196 -3.105289,1.764306 -0.205519,-5.5e-4 -0.808844,-0.159704 -1.340784,-0.347417 z"/>
 <path style="fill:#17191e" d="M 12.529429,17.152567 C 11.0602,16.6341 10.290242,16.481239 9.686363,16.5 9.044776,16.55421 8.4986015,16.747634 7.869473,16.94984 7.5247125,17.04815 7.5242565,17.04304 7.846378,16.690764 8.027105,16.493116 8.665673,16.022762 9.2654155,15.645534 10.081613,15.132158 10.533879,15 11.063696,15 11.898202,15 12.450364,14.502895 12.271933,13.960166 11.601824,12.893026 10,11.5 10,11.120373 10,10.80262 10.619641,9.9958215 11.361228,9.2298235 11.689372,8.8908795 11.831338,8.6197925 11.728984,8.527595 11.515703,8.335483 9.4703095,8 8.5144985,8 7.7510835,8 7.078162,8.2341975 7.078162,8.7273195 c 0,0.136806 0.093605,0.5167405 0.391513,0.8442995 l 0.54165,0.595562 C 7.6530525,10.566814 7.5,11 6.883791,11 6,11 6,10.300159 6.0046745,9.619431 6.1294675,7.952486 8.7309315,6.7814455 11.191497,7.020692 c 1.556331,0.1515995 2.920539,0.3701165 4.410442,0.4792125 0.828911,0.04 1.348562,-0.1634005 2.125988,-0.4514035 0.563372,-0.208706 0.204094,0.4627625 -0.639298,1.194807 -1.014414,0.88049 -1.614605,0.8976685 -3.239411,0.751192 -1.215293,-0.1095595 -1.547797,-0.1726495 -1.826215,0.552722 -0.220944,0.575639 0.02024,1.124266 1.167895,2.295756 0.565925,0.577677 0.813027,0.950803 0.809102,1.315913 -0.0035,0.326738 -0.202661,0.647057 -0.641911,1.101812 -0.387282,0.400953 -0.609013,0.799796 -0.553622,0.886318 C 12.978253,15.418484 14.128877,16 14.756003,16 c 0.330549,0 0.95446,-0.09094 1.325494,-0.273677 0.627608,-0.309104 0.894005,-0.306316 0.894005,0.0094 0,0.249976 -1.975505,1.767196 -3.105289,1.764306 -0.205519,-5.5e-4 -0.808844,-0.159704 -1.340784,-0.347417 z"/>
</svg>
