<svg xmlns="http://www.w3.org/2000/svg" width="24" height="24" version="1.1">
 <rect style="opacity:0.2" width="20" height="20" x="2" y="2.5" rx="1" ry="1"/>
 <path style="fill:#00a1f1" d="m 3,2 15.654784,2.3452157 c 0.554,0 1,0.446 1,1.0000003 L 22,21 c 0,0.554 -0.446,1 -1,1 H 3 C 2.446,22 2,21.554 2,21 V 3 C 2,2.446 2.446,2 3,2 Z"/>
 <path style="fill:#008aee" d="M 3,2 C 2.723,2 2.4727422,2.1112422 2.2919922,2.2919922 L 21.708008,21.708008 C 21.888758,21.527258 22,21.277 22,21 V 3 C 22,2.446 21.554,2 21,2 Z"/>
 <path style="opacity:0.2" d="m 12,4.500453 a 8,8 0 0 0 -8,8 8,8 0 0 0 8,8 8,8 0 0 0 4.496094,-1.382812 L 18.939453,21.561 21.060547,19.439906 18.611328,16.990687 A 8,8 0 0 0 20,12.500453 a 8,8 0 0 0 -8,-8 z m 0,2 a 6,6 0 0 1 6,6 H 14.525391 L 12.863281,10.090297 11.5,12.814906 8.8984375,7.6117811 7.3222656,11.551234 H 6.0820312 A 6,6 0 0 1 12,6.500453 Z M 9.1015625,12.490687 11.5,17.287562 l 1.638672,-3.27539 0.335937,0.488281 h 4.173829 a 6,6 0 0 1 -5.648438,4 6,6 0 0 1 -5.9042969,-4.949219 h 2.5820313 z"/>
 <path style="opacity:0.1;fill:#8b9cbe" d="M 3,2 C 2.446,2 2,2.446 2,3 v 0.5 c 0,-0.554 0.446,-1 1,-1 h 18 c 0.554,0 1,0.446 1,1 V 3 C 22,2.446 21.554,2 21,2 Z"/>
 <path style="fill:#8b9cbe" d="M 12 4 A 8 8 0 0 0 4 12 A 8 8 0 0 0 12 20 A 8 8 0 0 0 20 12 A 8 8 0 0 0 12 4 z M 12 6 A 6 6 0 0 1 18 12 A 6 6 0 0 1 12 18 A 6 6 0 0 1 6 12 A 6 6 0 0 1 12 6 z"/>
 <path style="fill:none;stroke:#8b9cbe;stroke-width:2" d="M 5,12.050432 H 8 L 9,9.5504326 11.5,14.550432 13,11.55 14,13 h 5"/>
 <path style="fill:none;stroke:#8b9cbe;stroke-width:3" d="M 20,20 17.347092,17.347092"/>
</svg>
