<svg xmlns="http://www.w3.org/2000/svg" width="24" height="24" version="1.1">
 <path style="opacity:0.2" d="m 5.6278315,9.5002536 a 0.5031907,0.47803277 0 0 0 -0.384234,0.183912 C 2.6052246,12.896762 3.0578603,15.955173 3.000102,19.012342 a 0.5031907,0.47803277 0 0 0 0.957146,0.215653 c 0,0 0.7644975,-1.509253 1.5251445,-3.399108 0.760647,-1.889855 1.535794,-4.134576 1.5172825,-5.793701 A 0.5031907,0.47803277 0 0 0 6.53486,9.5637361 L 5.6789315,9.5011871 a 0.5031907,0.47803277 0 0 0 -0.0511,-9.5e-4 z"/>
 <path style="opacity:0.2" d="m 18.372168,9.5002536 a 0.5031907,0.47803277 0 0 1 0.384234,0.183912 c 2.638374,3.2125964 2.185738,6.2710074 2.243496,9.3281754 a 0.5031907,0.47803277 0 0 1 -0.957146,0.215654 c 0,0 -0.764498,-1.509253 -1.525145,-3.399108 -0.760646,-1.889856 -1.535794,-4.134576 -1.517282,-5.793701 A 0.5031907,0.47803277 0 0 1 17.46514,9.5637361 l 0.855929,-0.062549 a 0.5031907,0.47803277 0 0 1 0.0511,-9.5e-4 z"/>
 <path style="fill:#e88332" d="m 5.6278315,9.0002536 a 0.5031907,0.47803277 0 0 0 -0.384234,0.183912 C 2.6052246,12.396762 3.0578603,15.455173 3.000102,18.512342 a 0.5031907,0.47803277 0 0 0 0.957146,0.215653 c 0,0 0.7644975,-1.509253 1.5251445,-3.399108 0.760647,-1.889855 1.535794,-4.134576 1.5172825,-5.7937009 A 0.5031907,0.47803277 0 0 0 6.53486,9.0637361 L 5.6789315,9.0011871 a 0.5031907,0.47803277 0 0 0 -0.0511,-9.5e-4 z"/>
 <path style="fill:#e88332" d="m 18.372168,9.0002536 a 0.5031907,0.47803277 0 0 1 0.384234,0.183912 c 2.638374,3.2125964 2.185738,6.2710074 2.243496,9.3281754 a 0.5031907,0.47803277 0 0 1 -0.957146,0.215654 c 0,0 -0.764498,-1.509253 -1.525145,-3.399108 -0.760646,-1.889856 -1.535794,-4.134576 -1.517282,-5.7937009 a 0.5031907,0.47803277 0 0 1 0.464815,-0.47145 l 0.855929,-0.062549 a 0.5031907,0.47803277 0 0 1 0.0511,-9.5e-4 z"/>
 <path style="opacity:0.2" d="M 12,2.5 C 8.680699,2.4999373 6.387493,5.0373845 5.7109375,8.194336 5.3093595,9.562165 4.0496856,12.983777 4,15.573242 c 7.85e-5,3.825626 3.5818225,6.926696 8,6.926758 4.418177,-6.2e-5 7.999921,-3.101132 8,-6.926758 C 19.950314,12.983777 18.69064,9.562165 18.289062,8.194336 17.612507,5.0373845 15.319301,2.4999373 12,2.5 Z"/>
 <path style="fill:#ffb20c" d="M 12,2 C 8.680699,1.9999373 6.387493,4.5373846 5.7109375,7.694336 5.3093595,9.062165 4.0496856,12.483777 4,15.073242 4.0000785,18.898868 7.5818225,21.999938 12,22 c 4.418177,-6.2e-5 7.999921,-3.101132 8,-6.926758 C 19.950314,12.483777 18.69064,9.062165 18.289062,7.694336 17.612507,4.5373846 15.319301,1.9999373 12,2 Z"/>
 <path style="fill:#eb5b0a" d="m 10.000427,12.552284 c 0.716702,0.05608 1.754865,-0.211483 2.526129,-1.052567 0.898639,0.876742 1.810277,0.924724 2.463755,1.042 C 15.136972,13.900722 14,15 12.620117,14.999816 11.240234,14.999632 9.9692395,14.177842 10.000427,12.552284 Z"/>
 <ellipse style="opacity:0.2" cx="13.178" cy="7.895" rx="1.694" ry="2.293" transform="matrix(0.97145609,0.23721946,-0.25985796,0.96564685,0,0)"/>
 <ellipse style="fill:#8b9cbe" cx="13.048" cy="7.409" rx="1.694" ry="2.293" transform="matrix(0.97145609,0.23721946,-0.25985796,0.96564685,0,0)"/>
 <path style="opacity:0.7" d="M 12,5.5 11.91892,5.964286 C 11.132515,6.078211 10.577879,6.294225 10,6.5 c 0,0 0.783943,-1 2,-1 z"/>
 <path style="opacity:0.7" d="m 13,5.5 0.07912,0.45757 C 13.866818,6.0759215 14.421738,6.2929065 15,6.5 c 0,0 -0.781132,-0.9903635 -2,-1 z"/>
 <ellipse style="opacity:0.2" cx="-10.97" cy="13.827" rx="1.694" ry="2.293" transform="matrix(-0.97145609,0.23721946,0.25985796,0.96564685,0,0)"/>
 <ellipse style="fill:#8b9cbe" cx="-11.1" cy="13.341" rx="1.694" ry="2.293" transform="matrix(-0.97145609,0.23721946,0.25985796,0.96564685,0,0)"/>
 <ellipse style="fill:#17191e" cx="13.612" cy="8.411" rx=".966" ry="1.276" transform="matrix(0.97295699,0.23098634,-0.26676096,0.96376272,0,0)"/>
 <ellipse style="fill:#17191e" cx="-10.499" cy="14.189" rx=".966" ry="1.276" transform="matrix(-0.97295699,0.23098634,0.26676096,0.96376272,0,0)"/>
 <path style="opacity:0.4;fill:none;stroke:#000000;stroke-width:0.5px;stroke-linecap:round;stroke-linejoin:bevel" d="m 11.25,13.500476 c 0,0 0.25,-0.249838 1.25,-0.249838 1,0 1.25,0.249838 1.25,0.249838"/>
 <path style="opacity:0.2;fill:#8b9cbe" d="M 12,2 C 8.680699,1.9999373 6.387493,4.5373846 5.7109375,7.694336 5.3093595,9.062165 4.0496856,12.483777 4,15.073242 c 1.6e-6,0.07585 0.0099,0.149351 0.012696,0.22461 C 4.139581,12.746008 5.323347,9.5145235 5.710938,8.194336 6.387493,5.0373845 8.680699,2.4999373 12,2.5 c 3.319301,-6.27e-5 5.612507,2.5373845 6.289062,5.694336 0.387591,1.3201875 1.571357,4.551672 1.698242,7.103516 0.0028,-0.07526 0.01269,-0.148763 0.0127,-0.22461 C 19.950314,12.483777 18.69064,9.062165 18.289062,7.694336 17.612507,4.5373846 15.319301,1.9999373 12,2 Z"/>
</svg>
