<svg xmlns="http://www.w3.org/2000/svg" width="24" height="24" version="1">
 <rect style="opacity:0.2" width="14" height="20" x="5" y="2.5" rx="1" ry="1"/>
 <rect style="fill:#5d6c7b" width="14" height="20" x="5" y="2" rx="1" ry="1"/>
 <rect style="fill:#b0ee80" width="10" height="6" x="7" y="3.5"/>
 <circle style="opacity:0.2" cx="9" cy="20.5" r="1"/>
 <circle style="fill:#ef5c51" cx="9" cy="20" r="1"/>
 <circle style="opacity:0.2" cx="12" cy="20.5" r="1"/>
 <circle style="fill:#c5e7fb" cx="12" cy="20" r="1"/>
 <circle style="opacity:0.2" cx="15" cy="20.5" r="1"/>
 <circle style="fill:#c5e7fb" cx="15" cy="20" r="1"/>
 <rect style="fill:#44525e" width="1" height="5" x="11" y="4"/>
 <rect style="fill:#44525e" width="1" height="3" x="9" y="4"/>
 <circle style="opacity:0.2" cx="18.738" cy="1.768" r="4" transform="rotate(45)"/>
 <circle style="fill:#8b9cbe" cx="18.385" cy="1.414" r="4" transform="rotate(45)"/>
 <path style="fill:#129eee" d="m 14.828427,11.171576 a 4,4 0 0 0 -0.379105,-0.328002 l -1.742215,1.742216 a 0.50005,0.50005 0 1 0 0.707106,0.707106 l 1.742908,-1.742907 a 4,4 0 0 0 -0.328694,-0.378413 z"/>
 <rect style="opacity:0.2" width="10" height=".5" x="7" y="3.5"/>
 <path style="opacity:0.1;fill:#8b9cbe" d="M 6,2 C 5.446,2 5,2.446 5,3 v 0.5 c 0,-0.554 0.446,-1 1,-1 h 12 c 0.554,0 1,0.446 1,1 V 3 C 19,2.446 18.554,2 18,2 Z"/>
 <rect style="fill:#44525e" width="1" height="2.5" x="6" y="-11.5" transform="rotate(90)"/>
 <rect style="fill:#44525e" width="1" height="3" x="15" y="4"/>
 <rect style="fill:#44525e" width="1" height="3" x="13" y="6"/>
 <rect style="fill:#44525e" width="1" height="2.5" x="6" y="-15.5" transform="rotate(90)"/>
 <rect style="fill:#44525e" width="1" height="2.5" x="4" y="-15.5" transform="rotate(90)"/>
 <rect style="fill:#44525e" width="1" height="2.5" x="8" y="-16" transform="rotate(90)"/>
 <rect style="opacity:0.1;fill:#8b9cbe" width="10" height=".5" x="7" y="9.5"/>
</svg>
