<svg xmlns="http://www.w3.org/2000/svg" width="24" height="24" version="1">
 <circle style="opacity:0.2" cx="12" cy="12.5" r="10"/>
 <circle style="fill:#06f1ba" cx="12" cy="12" r="10"/>
 <path style="opacity:0.1" d="m 12,4.5 c -4.409917,0 -8,3.590083 -8,8 0,4.409917 3.590083,8 8,8 4.409917,0 8,-3.590083 8,-8 0,-4.409917 -3.590083,-8 -8,-8 z m 0,1.4121094 c 3.646943,0 6.587891,2.9409479 6.587891,6.5878906 0,3.646943 -2.940948,6.587891 -6.587891,6.587891 C 8.3530573,19.087891 5.4121094,16.146943 5.4121094,12.5 5.4121094,8.8530573 8.3530573,5.9121094 12,5.9121094 Z M 12,7.5 c -2.753348,0 -5,2.246652 -5,5 0,2.753348 2.246652,5 5,5 2.753348,0 5,-2.246652 5,-5 0,-2.753348 -2.246652,-5 -5,-5 z m 0,1.3632812 c 2.016384,0 3.636719,1.6203348 3.636719,3.6367188 0,2.016384 -1.620335,3.636719 -3.636719,3.636719 -2.0163842,0 -3.6367186,-1.620335 -3.6367188,-3.636719 0,-2.016384 1.6203346,-3.6367188 3.6367188,-3.6367188 z M 12,10.5 a 2,2 0 0 0 -2,2 2,2 0 0 0 2,2 2,2 0 0 0 2,-2 2,2 0 0 0 -2,-2 z"/>
 <circle style="fill:none;stroke:#17191e;stroke-width:1.41176474;stroke-linecap:round;stroke-linejoin:round" cx="12" cy="12" r="7.294"/>
 <circle style="fill:none;stroke:#17191e;stroke-width:1.36363637;stroke-linecap:round;stroke-linejoin:round" cx="12" cy="12" r="4.318"/>
 <circle style="fill:#17191e" cx="12" cy="12" r="2"/>
 <path style="fill:#06f1ba" d="M 12,21.5 C 6.4771525,21.5 2.5,17.522847 2.5,12 2.5,6.4771525 6.4771525,2.5 12,2.5 Z"/>
 <path style="opacity:0.2;fill:#8b9cbe" d="M 12,2 A 10,10 0 0 0 2,12 10,10 0 0 0 2.0107422,12.291016 10,10 0 0 1 12,2.5 10,10 0 0 1 21.989258,12.208985 10,10 0 0 0 22,12 10,10 0 0 0 12,2 Z"/>
</svg>
