<svg xmlns="http://www.w3.org/2000/svg" width="24" height="24" version="1">
 <rect style="opacity:0.2" width="14" height="17.5" x="5" y="5" rx=".933" ry="1.03"/>
 <rect style="fill:#518140" width="14" height="17.5" x="5" y="4.5" rx=".933" ry="1.03"/>
 <rect style="fill:#629c4d" width="6" height="2" x="9" y="2"/>
 <path style="opacity:0.3;fill:none;stroke:#000000;stroke-width:2;stroke-linecap:round" d="m 8.0001,11 c 0,0 -10e-5,1.5 -10e-5,3.5 0,2 10e-5,3.5 10e-5,3.5"/>
 <rect style="fill:#629c4d" width="18" height="4" x="3" y="3" rx="1" ry="1"/>
 <path style="opacity:0.3;fill:none;stroke:#000000;stroke-width:2;stroke-linecap:round" d="m 12,11 v 7"/>
 <path style="opacity:0.2;fill:#8b9cbe" d="M 4,3 C 3.446,3 3,3.446 3,4 v 0.5 c 0,-0.554 0.446,-1 1,-1 h 16 c 0.554,0 1,0.446 1,1 V 4 C 21,3.446 20.554,3 20,3 Z"/>
 <path style="opacity:0.2" d="m 3,6 v 0.5 c 0,0.554 0.446,1 1,1 h 16 c 0.554,0 1,-0.446 1,-1 V 6 c 0,0.554 -0.446,1 -1,1 H 4 C 3.446,7 3,6.554 3,6 Z"/>
 <path style="opacity:0.3;fill:none;stroke:#000000;stroke-width:2;stroke-linecap:round" d="m 16.0001,11 c 0,0 -10e-5,1.5 -10e-5,3.5 0,2 10e-5,3.5 10e-5,3.5"/>
</svg>
