<svg xmlns="http://www.w3.org/2000/svg" width="24" height="24" version="1.1">
 <rect style="opacity:0.2" width="20" height="20" x="2" y="2.5" rx="1" ry="1"/>
 <rect style="fill:#3f5979" width="20" height="20" x="2" y="2" rx="1" ry="1"/>
 <path style="opacity:0.1;fill:#8b9cbe" d="M 3 2 C 2.446 2 2 2.446 2 3 L 2 3.5 C 2 2.946 2.446 2.5 3 2.5 L 21 2.5 C 21.554 2.5 22 2.946 22 3.5 L 22 3 C 22 2.446 21.554 2 21 2 L 3 2 z"/>
 <path style="opacity:0.2" d="M 10,11.5 V 15.151 C 9.989,15.615 10.296,18.5 13,18.5 15,18.5 15.826,17.357 15.826,17.357 L 15,15.3 C 15,15.3 13,16.039 13,14.7 V 11.5 H 15 V 9.5 H 13 V 6.5 H 11 C 11,6.5 10.746,7.8462 10.179,8.6017 9.6124,9.3572 9,9.5 9,9.5 V 11.5 Z"/>
 <path style="fill:#8b9cbe" d="M 10,11 V 14.651 C 9.989,15.115 10.296,18 13,18 15,18 15.826,16.857 15.826,16.857 L 15,14.8 C 15,14.8 13,15.539 13,14.2 V 11 H 15 V 9 H 13 V 6 H 11 C 11,6 10.746,7.3462 10.179,8.1017 9.6124,8.8572 9,9 9,9 V 11 Z"/>
</svg>
