<svg xmlns="http://www.w3.org/2000/svg" width="24" height="24" version="1">
 <path style="opacity:0.2" d="m 18.580374,3.5001507 c -0.07361,-0.00195 -0.146446,0.015333 -0.211283,0.050128 C 15.024856,5.3476573 11.51508,7.6874458 9.3344386,10.322863 9.5082696,8.3685073 9.9584125,7.107287 10.026521,4.9511239 10.038893,4.5536222 9.5424075,4.3623602 9.283479,4.6648809 5.9980905,8.506178 3.1930466,13.013652 1.0271347,18.742193 c -0.0572391,0.151413 -0.022342,0.322135 0.089766,0.439139 0.3796783,0.396154 0.7593848,0.79239 1.1390736,1.188555 0.2091997,0.218134 0.5739007,0.152312 0.6931224,-0.125097 0.6188639,-1.44104 1.324609,-2.137408 2.09151,-2.441496 0.7669,-0.304088 1.6647225,-0.227958 2.701072,0.073 2.072699,0.601907 4.1228153,2.151424 6.7903723,2.575375 0.426738,0.0677 0.667785,-0.471757 0.331899,-0.74278 -1.633592,-1.317424 -2.81773,-2.684682 -4.451331,-4.002106 3.757061,-0.113628 5.798083,-0.0016 10.005585,1.727129 0.436597,0.179428 0.794242,-0.382273 0.445592,-0.699824 -1.600112,-1.457316 -2.850593,-2.165103 -4.450712,-3.622415 2.242313,-1.013128 4.067105,-1.852149 6.331375,-2.825301 0.42892,-0.184562 0.283984,-0.8241807 -0.18286,-0.8069847 -5.002673,0.1866113 -8.055041,0.6669487 -10.73683,1.7112647 2.496483,-2.3979302 5.354749,-4.7799557 7.07905,-7.0131809 0.210404,-0.2727097 0.02153,-0.6682275 -0.323445,-0.6773164 z"/>
 <path style="fill:#23a0ff" d="m 18.580374,3.0001483 c -0.07361,-0.00195 -0.146446,0.015333 -0.211283,0.050128 C 15.024856,4.8476549 11.51508,7.1874434 9.3344386,9.8228624 9.5082696,7.8685049 9.9584125,6.6072846 10.026521,4.4511215 10.038893,4.0536198 9.5424075,3.8623578 9.283479,4.1648785 5.9980905,8.0061756 3.1930466,12.513652 1.0271347,18.242193 c -0.0572391,0.151413 -0.022342,0.322135 0.089766,0.439139 0.3796783,0.396154 0.7593848,0.79239 1.1390736,1.188555 0.2091997,0.218134 0.5739007,0.152312 0.6931224,-0.125097 0.6188639,-1.44104 1.324609,-2.137408 2.09151,-2.441496 0.7669,-0.304088 1.6647225,-0.227958 2.701072,0.073 2.072699,0.601907 4.1228153,2.151424 6.7903723,2.575375 0.426738,0.0677 0.667785,-0.471757 0.331899,-0.74278 -1.633592,-1.317424 -2.81773,-2.684682 -4.451331,-4.002106 3.757061,-0.113628 5.798083,-0.0016 10.005585,1.727129 0.436597,0.179428 0.794242,-0.382273 0.445592,-0.699824 -1.600112,-1.457316 -2.850593,-2.165103 -4.450712,-3.622415 2.242313,-1.013128 4.067105,-1.852149 6.331375,-2.8253016 0.42892,-0.1845615 0.283984,-0.8241825 -0.18286,-0.8069865 -5.002673,0.186612 -8.055041,0.6669505 -10.73683,1.7112671 2.496483,-2.3979326 5.354749,-4.7799581 7.07905,-7.0131833 0.210404,-0.2727097 0.02153,-0.6682275 -0.323445,-0.6773164 z"/>
 <path style="fill:#0064be" d="M 11.826172 10.738281 C 7.4484228 12.396335 4.3026393 13.84298 1.40625 18.982422 C 1.6128344 19.197982 1.8188038 19.413346 2.0253906 19.628906 C 5.0833619 14.583885 7.3244338 13.593638 11.826172 10.738281 z"/>
 <path style="opacity:0.3;fill:#8b9cbe" d="M 2.0402401,17.991327 C 3.5252012,13.99255 6.7921026,7.7026959 8.9771106,5.3267649 7.6194311,7.3844909 6.6955776,9.4399304 6.0615341,11.267816 4.524764,13.411462 3.2812381,15.572968 2.0402401,17.991327 Z"/>
 <path style="opacity:0.3;fill:#8b9cbe" d="m 20.5,9.8999999 c -2.131972,0.7955121 -4.870558,1.6120101 -5.720749,2.3160411 -0.710092,0.588018 1.855989,1.551975 2.757574,2.538411 -1.612243,-1.060684 -5.35645,-1.366492 -8.4006194,-0.19974 2.9380994,-0.63641 7.0217284,0.0086 9.8007234,1.026837 -1.156141,-1.071291 -2.68563,-1.998683 -3.49401,-2.667226 -0.430052,-0.319535 -0.166565,-0.727264 0.2168,-0.833468 0.960175,-0.39424 4.043993,-1.778168 4.840281,-2.1808551 z"/>
 <path style="opacity:0.2;fill:#8b9cbe" d="M 18.580078 3 C 18.506468 2.99805 18.433978 3.0159863 18.369141 3.0507812 C 15.060216 4.8291818 11.593426 7.1388463 9.4082031 9.7402344 C 9.384068 9.9355181 9.3525938 10.113043 9.3339844 10.322266 C 11.514626 7.6868472 15.024906 5.3481599 18.369141 3.5507812 C 18.433978 3.5159863 18.506468 3.49805 18.580078 3.5 C 18.722388 3.5037494 18.828281 3.5821189 18.900391 3.6816406 C 18.901474 3.680238 18.903214 3.6791369 18.904297 3.6777344 C 19.114701 3.4050247 18.925053 3.0090889 18.580078 3 z M 9.5097656 4.0253906 C 9.4270016 4.0437908 9.3479352 4.0884323 9.2832031 4.1640625 C 5.9978146 8.0053596 3.1932557 12.513647 1.0273438 18.242188 C 0.97982239 18.367894 1.0091263 18.500793 1.0800781 18.611328 C 3.2389596 12.946509 6.0235106 8.4753156 9.2832031 4.6640625 C 9.5159124 4.3921752 9.9214724 4.5305941 9.9960938 4.8476562 C 10.003926 4.7103072 10.022765 4.5961281 10.027344 4.4511719 C 10.036623 4.1530456 9.7580577 3.97019 9.5097656 4.0253906 z M 22.5625 8.9785156 C 18.0899 9.1453546 15.179012 9.551336 12.695312 10.380859 C 12.404435 10.65278 12.107946 10.918879 11.824219 11.191406 C 14.506008 10.14709 17.559827 9.6651276 22.5625 9.4785156 C 22.724837 9.472536 22.828449 9.5579513 22.902344 9.6640625 C 23.113531 9.4105821 22.954539 8.964075 22.5625 8.9785156 z M 16.794922 12.9375 C 16.661802 12.997736 16.54811 13.04988 16.412109 13.111328 C 18.012228 14.56864 19.263169 15.277059 20.863281 16.734375 C 20.883033 16.752365 20.892871 16.773591 20.908203 16.792969 C 21.028325 16.634183 21.048911 16.403447 20.863281 16.234375 C 19.396756 14.898724 18.212415 14.168022 16.794922 12.9375 z M 10.986328 15.703125 C 10.785506 15.707836 10.623065 15.700651 10.412109 15.707031 C 12.04571 17.024455 13.229689 18.39156 14.863281 19.708984 C 14.888339 19.729203 14.903077 19.754501 14.921875 19.777344 C 15.044979 19.610384 15.061437 19.368874 14.863281 19.208984 C 13.432755 18.055325 12.331174 16.866285 10.986328 15.703125 z"/>
</svg>
