<svg xmlns="http://www.w3.org/2000/svg" width="24" height="24" version="1.1">
 <path style="opacity:0.2" d="M 9.8779296,1.5031946 C 9.5586791,1.4901156 9.2322476,1.5239306 8.9082031,1.6106164 7.1802901,2.0728573 6.1473826,3.8602091 6.6103516,5.5852258 c 0.1795355,0.668949 0.559667,1.235958 1.0546875,1.6484376 l 0.321289,0.2666015 0.3271485,-0.2597655 c 0.553799,-0.4395251 1.181549,-0.7723636 1.8828124,-0.9599611 0.684581,-0.183135 1.377379,-0.2101255 2.061524,-0.114258 l 0.414062,0.05664 0.140625,-0.392578 C 13.024877,5.2333633 13.066344,4.5639038 12.88965,3.9055379 12.542423,2.611775 11.448454,1.7075459 10.194337,1.5315144 10.089827,1.5168454 9.9843471,1.5075534 9.8779306,1.5031944 Z m 5.8691414,2.0400391 c -0.233625,-0.00967 -0.473044,0.014643 -0.709961,0.078125 -1.119096,0.2998613 -1.840496,1.3591411 -1.754883,2.4785156 l 0.02539,0.332031 0.310547,0.118164 c 0.828215,0.316033 1.607085,0.8187051 2.277344,1.4843751 L 16.12793,8.2658899 16.4375,8.1565149 C 17.595955,7.7507224 18.275177,6.5095348 17.952149,5.3039758 17.677032,4.277221 16.759446,3.58515 15.747071,3.5432337 Z M 5.1904295,6.5149133 C 5.048612,6.5260933 4.9058657,6.5500583 4.7636719,6.5881553 3.5001123,6.9267253 2.7426004,8.2390894 3.0810547,9.5022179 3.4111962,10.734323 4.6673245,11.478633 5.9003905,11.201437 l 0.3085941,-0.06836 0.082031,-0.305664 C 6.5317941,9.9372704 6.9386331,9.1292379 7.4765626,8.4514369 l 0.198242,-0.25 -0.130859,-0.2919925 C 7.1325231,6.9966908 6.1831546,6.4366393 5.1904295,6.5149133 Z M 18.766515,14.752218 c -0.143521,-0.0068 -0.28866,-4.81e-4 -0.434571,0.01953 l -0.353515,0.04785 -0.08398,0.345703 c -0.236541,0.967409 -0.661154,1.84449 -1.240234,2.56836 l -0.225586,0.283203 0.183594,0.311523 c 0.527537,0.895127 1.606035,1.372487 2.657226,1.090821 1.263129,-0.338454 2.022238,-1.650227 1.683594,-2.914063 -0.273568,-1.020972 -1.181882,-1.705063 -2.186523,-1.75293 z m -10.8329209,3.024414 -0.322266,0.119141 c -1.137205,0.418957 -1.7993916,1.647916 -1.479492,2.841797 0.3384545,1.263128 1.6514795,2.02021 2.915039,1.681641 1.0682649,-0.286241 1.7694599,-1.265808 1.7568359,-2.326172 l -0.0049,-0.348633 -0.324218,-0.129883 C 9.6324996,19.275272 8.8452241,18.73328 8.1708816,18.026632 Z m 7.0742189,2.40625 -0.381836,0.136719 c -0.148459,0.05293 -0.288721,0.10383 -0.429688,0.141602 -0.215451,0.05773 -0.432289,0.101868 -0.649414,0.132812 L 13.125977,20.653586 14.5,22.000265 Z"/>
 <path style="fill:#134f13" d="m 15.007813,19.683117 -0.381836,0.136719 c -0.148459,0.05293 -0.288721,0.10383 -0.429688,0.141602 -0.215451,0.05773 -0.432289,0.101868 -0.649414,0.132812 L 13.125977,20.15382 14.5,21.5005 Z"/>
 <path style="fill:#134f13" d="m 15.746846,3.0434482 c -0.233625,-0.00967 -0.472366,0.015146 -0.709284,0.078627 -1.119096,0.2998614 -1.840803,1.3590233 -1.75519,2.4783978 l 0.02539,0.331709 0.310413,0.117941 c 0.828216,0.316033 1.606657,0.819239 2.276916,1.4849091 l 0.232605,0.2309675 0.309596,-0.1089315 C 17.595746,7.2512759 18.275532,6.0099313 17.952504,4.8043723 17.677387,3.7776174 16.759221,3.0853646 15.746846,3.0434482 Z"/>
 <path style="fill:#134f13" d="m 18.766756,14.252202 c -0.14352,-0.0068 -0.288997,-3.58e-4 -0.434907,0.01966 l -0.353004,0.04833 -0.08436,0.345633 c -0.236542,0.967409 -0.660939,1.844622 -1.240019,2.568491 l -0.226053,0.282567 0.184283,0.312052 c 0.52915,0.894174 1.605755,1.37262 2.656947,1.090954 1.263128,-0.338454 2.021759,-1.650288 1.683115,-2.914124 -0.273568,-1.020972 -1.18136,-1.705686 -2.186002,-1.753553 z"/>
 <path style="fill:#134f13" d="M 7.9334536,17.276651 7.6115731,17.39623 c -1.137205,0.418957 -1.7998946,1.647349 -1.479995,2.84123 0.3384545,1.263129 1.6513835,2.020866 2.914943,1.682297 1.0682649,-0.286241 1.7694519,-1.265694 1.7568289,-2.326058 l -0.0049,-0.348908 -0.323519,-0.130227 C 9.6328381,18.775313 8.8453301,18.233104 8.1709876,17.526457 Z"/>
 <path style="fill:#134f13" d="M 5.1905075,6.0151763 C 5.04869,6.0263563 4.9059846,6.0499713 4.7637908,6.0880703 3.5002312,6.4266403 2.7422212,7.7390659 3.0806755,9.0021944 3.410817,10.234299 4.6675444,10.978886 5.9006105,10.70169 l 0.3087761,-0.0688 0.081903,-0.3055 C 6.5320681,9.4372489 6.9385031,8.6291744 7.4764326,7.9513734 L 7.6746391,7.7015679 7.5435936,7.4099919 C 7.1321711,6.4972383 6.1832326,5.9369023 5.1905075,6.0151763 Z"/>
 <path style="fill:#134f13" d="M 9.8780596,1.0031931 C 9.5588091,0.9901141 9.2322926,1.0244441 8.9082481,1.1111302 7.1803351,1.573371 6.1476841,3.360598 6.6106531,5.0856148 c 0.1795355,0.668949 0.559679,1.2353605 1.0546995,1.64784 l 0.3211345,0.2670451 0.326741,-0.2598491 c 0.553799,-0.439525 1.1814995,-0.7718435 1.8827629,-0.959441 0.684581,-0.183135 1.378005,-0.2110005 2.06215,-0.115133 l 0.414032,0.057567 0.140146,-0.393371 C 13.024695,4.7332933 13.065895,4.0641595 12.889199,3.4057934 12.541973,2.1120306 11.448507,1.2080078 10.19439,1.0319763 10.08988,1.0173073 9.9844761,1.0075523 9.8780596,1.0031931 Z"/>
 <path style="opacity:0.1;fill:#8b9cbe" d="M 9.8779296,1.0034294 C 9.5586791,0.99035043 9.2322476,1.0241654 8.9082031,1.1108513 7.3737566,1.5213372 6.3901146,2.9765579 6.5126956,4.5053828 6.6147696,3.1696376 7.5426161,1.9761649 8.9082031,1.6108513 9.2322476,1.5241654 9.5586791,1.4903504 9.8779296,1.5034294 c 0.1064165,0.00436 0.2118964,0.013652 0.3164064,0.028321 1.254117,0.1760315 2.348086,1.0802607 2.695313,2.3740235 0.05234,0.1950251 0.08042,0.3901613 0.0957,0.584961 0.02745,-0.3560728 0.0018,-0.721596 -0.0957,-1.084961 C 12.542422,2.1120109 11.448453,1.2077817 10.194336,1.0317502 10.089826,1.0170812 9.9843461,1.0077892 9.8779296,1.0034294 Z m 5.8691414,2.0400391 c -0.233625,-0.00967 -0.473044,0.014643 -0.709961,0.078125 -1.119096,0.2998614 -1.840496,1.3591411 -1.754883,2.4785158 l 0.0059,0.078125 c 0.09822,-0.954289 0.771848,-1.794807 1.749023,-2.0566408 0.236918,-0.063482 0.476336,-0.087798 0.709961,-0.078125 1.012376,0.041917 1.929961,0.7339875 2.205078,1.7607423 0.03385,0.126309 0.05104,0.2528165 0.06348,0.378906 0.03336,-0.2866 0.01559,-0.5837995 -0.06348,-0.878906 C 17.677032,3.7774558 16.759446,3.0853849 15.747071,3.0434685 Z M 5.1904295,6.0151483 C 5.048612,6.0263283 4.9058657,6.0502933 4.7636719,6.0883903 3.6238683,6.3938003 2.9037543,7.4920969 3.0205078,8.6313594 3.1259293,7.6850994 3.7924923,6.8486173 4.7636719,6.5883903 4.9058657,6.5502953 5.048612,6.5263283 5.1904295,6.5151483 6.1735116,6.4376348 7.1125441,6.9872143 7.5302736,7.8842889 L 7.6748046,7.7016719 7.5439456,7.4096794 C 7.1325231,6.4969258 6.1831546,5.9368743 5.1904295,6.0151483 Z M 18.766515,14.252453 c -0.143521,-0.0068 -0.28866,-4.81e-4 -0.434571,0.01953 l -0.353515,0.04785 -0.08398,0.345703 c -0.236541,0.967409 -0.661154,1.84449 -1.240234,2.56836 l -0.225586,0.283203 0.168945,0.287109 0.05664,-0.07031 c 0.57908,-0.72387 1.003693,-1.600951 1.240234,-2.56836 l 0.08398,-0.345703 0.353515,-0.04785 c 0.145911,-0.02001 0.29105,-0.02637 0.434571,-0.01953 1.004641,0.04787 1.912955,0.731958 2.186523,1.75293 0.03317,0.123783 0.04789,0.247351 0.06055,0.371094 0.03184,-0.284925 0.01781,-0.57865 -0.06055,-0.871094 -0.273568,-1.020972 -1.181882,-1.705064 -2.186523,-1.75293 z m -10.8329209,3.024414 -0.322266,0.119141 c -1.016792,0.374595 -1.6481241,1.397253 -1.5429685,2.462891 0.1014055,-0.872891 0.686915,-1.647513 1.5429685,-1.962891 l 0.322266,-0.119141 0.2373045,0.25 c 0.6743425,0.706648 1.461618,1.24864 2.3037114,1.587891 l 0.318359,0.12793 c 0.0026,-0.05001 0.01135,-0.09897 0.01074,-0.149414 l -0.0049,-0.348633 -0.324218,-0.129883 C 9.6324976,18.775507 8.8452221,18.233515 8.1708796,17.526867 Z m 7.0742189,2.40625 -0.381836,0.136719 c -0.148459,0.05293 -0.288721,0.10383 -0.429688,0.141602 -0.215451,0.05773 -0.432289,0.101868 -0.649414,0.132812 l -0.420898,0.05957 0.444336,0.435546 c 0.209261,-0.03074 0.418307,-0.07229 0.625976,-0.127929 0.140967,-0.03777 0.281229,-0.08867 0.429688,-0.141602 l 0.226562,-0.08105 z"/>
 <g style="opacity:0.2" transform="matrix(0.39745156,-0.10917634,0.10649682,0.40745164,-2.1706305,4.1070368)">
  <path transform="rotate(15,26.653467,29.784442)" d="m 26.080078,11.222656 c -1.129182,0.03488 -2.266168,0.199609 -3.394531,0.501953 -9.026904,2.418752 -14.0226678,12.778721 -11.332031,22.820313 1.300302,4.852795 4.228443,9.067138 8.193359,11.726562 3.96493,2.659518 8.668809,3.5361 13.03125,2.367188 4.362441,-1.168913 7.999545,-4.278779 10.103516,-8.564453 2.104005,-4.285587 2.532725,-9.401112 1.232421,-14.253907 C 41.559756,17.033919 33.984355,10.978519 26.080078,11.222656 Z"/>
 </g>
 <g style="fill:#00a000" transform="matrix(0.39745156,-0.10917634,0.10649682,0.40745164,-2.1706305,3.6070368)">
  <path style="fill:#35a535" transform="rotate(15,26.653467,29.784442)" d="m 26.080078,11.222656 c -1.129182,0.03488 -2.266168,0.199609 -3.394531,0.501953 -9.026904,2.418752 -14.0226678,12.778721 -11.332031,22.820313 1.300302,4.852795 4.228443,9.067138 8.193359,11.726562 3.96493,2.659518 8.668809,3.5361 13.03125,2.367188 4.362441,-1.168913 7.999545,-4.278779 10.103516,-8.564453 2.104005,-4.285587 2.532725,-9.401112 1.232421,-14.253907 C 41.559756,17.033919 33.984355,10.978519 26.080078,11.222656 Z"/>
 </g>
 <g style="fill:#00a000;stroke:#155715;stroke-width:1.5" transform="matrix(0.40426907,-0.11081107,0.10832357,0.41355256,-2.2366598,3.4192043)">
  <path style="fill:none;stroke:#155715;stroke-width:1.5" d="m 25.875,33.75 -1.542,-4.625 3.164,-2.587 3.615,2.626 -1.487,4.669 z"/>
  <path style="fill:none;stroke:#155715;stroke-width:1.5" d="m 27.501,41.551 c -3.968,-0.16 -5.543,-2.009 -5.543,-2.009 l 3.57,-4.163 4.465,0.168 3.132,4.12 c 0,0 -2.89,1.994 -5.624,1.884 z"/>
  <path style="fill:none;stroke:#155715;stroke-width:1.5" d="m 18.453,33.843 c -0.849,-2.968 0.172,-6.884 0.172,-6.884 l 4,2.167 1.493,4.629 -3.582,4.233 c 0,-10e-4 -1.465,-1.99 -2.083,-4.145 z"/>
  <path style="fill:none;stroke:#155715;stroke-width:1.5" d="m 19.458,25.125 c 0,0 0.5,-1.958 3.039,-3.822 2.237,-1.643 4.465,-1.72 4.465,-1.72 l -0.037,4.981 -3.521,2.75 z"/>
  <path style="fill:none;stroke:#155715;stroke-width:1.5" d="M 32.084,27.834 28.625,24.959 29,19.75 c 0,0 1.834,-0.042 3.959,1.667 2.228,1.791 3.362,4.983 3.362,4.983 z"/>
  <path style="fill:none;stroke:#155715;stroke-width:1.5" d="m 31.292,34.042 1.313,-4.464 4.187,-1.536 c 0,0 0.677,2.663 -0.042,5.667 -0.54,2.256 -2.084,4.361 -2.084,4.361 z"/>
 </g>
 <g style="fill:#8b9cbe;opacity:0.2" transform="matrix(0.39745156,-0.10917634,0.10649682,0.40745164,-2.1706305,3.6070368)">
  <path style="fill:#8b9cbe" transform="matrix(2.3474878,0.62900748,-0.61356972,2.2898735,7.3086973,-6.8943151)" d="M 11.359375 5.0039062 C 10.894748 5.0186195 10.427181 5.0873075 9.9628906 5.2148438 C 6.860338 6.067087 4.921153 9.2577637 5.0097656 12.753906 C 5.1089214 9.4575548 7.0088897 6.5262812 9.9628906 5.7148438 C 10.427181 5.5873075 10.894748 5.5186195 11.359375 5.5039062 C 14.611765 5.4009231 17.728534 7.9538362 18.697266 11.660156 C 18.877576 12.350014 18.970678 13.05261 18.990234 13.75 C 19.013473 12.889627 18.920818 12.015454 18.697266 11.160156 C 17.728534 7.4538362 14.611765 4.9009231 11.359375 5.0039062 z"/>
 </g>
</svg>
