<svg xmlns="http://www.w3.org/2000/svg" width="24" height="24" version="1">
 <path style="opacity:0.2" d="m 11.500013,2.5000769 c -0.94659,0.013346 -1.6216662,0.575785 -1.9384786,1.5068378 l 0.01172,-0.041992 -1.4873064,4.535162 -5.0156313,0 c -0.010935,-1.73e-4 -0.021291,-1.73e-4 -0.032227,0 C 2.4391364,8.5192347 1.899065,8.7950865 1.518557,9.2520386 0.69563145,10.183817 0.87005002,11.649906 1.9150418,12.344816 l 3.9433644,2.842777 -1.5302754,4.689459 c -0.0017,0.0052 -0.00328,0.01041 -0.00489,0.01563 -0.2338278,0.757682 -0.013944,1.538281 0.5742197,2.072269 0.00425,0.0039 0.00932,0.0079 0.01367,0.01172 0.7067884,0.619773 1.6998681,0.698544 2.4980497,0.185547 0.015185,-0.0097 0.030285,-0.01981 0.04492,-0.03027 l 4.0459078,-2.88184 4.045904,2.88184 c 0.01464,0.01047 0.02974,0.02058 0.04492,0.03027 0.798181,0.512997 1.791261,0.434226 2.49805,-0.185547 0.0043,-0.0038 0.0094,-0.0078 0.01367,-0.01172 0.588163,-0.533988 0.808047,-1.314587 0.574219,-2.072269 -0.0016,-0.0052 -0.0032,-0.01043 -0.0049,-0.01563 l -1.530275,-4.689459 3.943364,-2.842777 c 1.044992,-0.69491 1.219411,-2.160999 0.396485,-3.0927774 -0.380508,-0.4569521 -0.920579,-0.7328039 -1.519533,-0.7519539 -0.01093,-1.73e-4 -0.02129,-1.73e-4 -0.03223,0 l -5.015631,0 -1.487307,-4.5351622 0.01172,0.041992 C 13.12168,3.0758619 12.446604,2.5134224 11.500013,2.5000769 Z"/>
 <path style="fill:#ffd52c" d="M 11.457031 1.9960938 C 11.311226 1.9983446 11.159399 2.0170524 11 2.0507812 L 11 2.0703125 C 10.3161 2.2433025 9.8179569 2.749379 9.5605469 3.5058594 L 9.5722656 3.4648438 L 8.0859375 8 L 3.0703125 8 C 3.0593775 7.999827 3.0480444 7.999827 3.0371094 8 C 2.4381557 8.01915 1.8980861 8.295001 1.5175781 8.7519531 C 0.69465262 9.6837317 0.86907072 11.14884 1.9140625 11.84375 L 5.8574219 14.6875 L 4.328125 19.376953 C 4.326425 19.382143 4.3238656 19.387378 4.3222656 19.392578 C 4.0884378 20.15026 4.3083206 20.930856 4.8964844 21.464844 C 4.8964844 21.464844 4.8984375 21.464844 4.8984375 21.464844 C 4.9024709 21.468451 4.9061645 21.473075 4.9101562 21.476562 C 4.9101562 21.476562 4.9121094 21.476562 4.9121094 21.476562 C 5.6188978 22.096335 6.6119747 22.175106 7.4101562 21.662109 C 7.4253412 21.652409 7.4404431 21.643272 7.4550781 21.632812 L 11.5 18.75 L 15.546875 21.632812 C 15.561515 21.643283 15.576617 21.652429 15.591797 21.662109 C 16.389978 22.175106 17.383055 22.096335 18.089844 21.476562 C 18.094144 21.472763 18.099246 21.468764 18.103516 21.464844 C 18.691679 20.930856 18.911562 20.15026 18.677734 19.392578 C 18.676134 19.387378 18.673575 19.382143 18.671875 19.376953 L 17.142578 14.6875 L 21.085938 11.84375 C 22.13093 11.14884 22.305348 9.6837317 21.482422 8.7519531 C 21.101914 8.295001 20.561845 8.01915 19.962891 8 C 19.951951 7.999827 19.940617 7.999827 19.929688 8 L 14.914062 8 L 13.427734 3.4648438 L 13.439453 3.5058594 C 13.162243 2.6911882 12.477667 1.9803381 11.457031 1.9960938 z"/>
 <path style="opacity:0.2;fill:#8b9cbe" d="m 11.500013,1.9999725 c -0.94659,0.013346 -1.6216662,0.575785 -1.9384786,1.5068378 l 0.011719,-0.041992 -1.4873064,4.5351619 -5.0156313,0 c -0.010935,-1.73e-4 -0.021292,-1.73e-4 -0.032227,0 C 2.4391349,8.0191301 1.8990635,8.2949819 1.5185555,8.751934 1.1051707,9.2199996 0.94466731,9.8222753 1.0185549,10.394514 1.0640594,9.9854485 1.2250292,9.5842875 1.5185555,9.2519346 1.8990634,8.7949825 2.4391348,8.5191307 3.0380886,8.4999807 c 0.010935,-1.73e-4 0.021291,-1.73e-4 0.032227,0 l 5.0156314,0 1.4873064,-4.535162 -0.01172,0.041992 C 9.8783468,3.0757581 10.553423,2.5133186 11.500013,2.4999731 c 0.946591,0.013345 1.621685,0.5757852 1.938479,1.5068378 l -0.01172,-0.041992 1.487306,4.535162 5.015631,0 c 0.01093,-1.73e-4 0.02129,-1.73e-4 0.03223,0 0.598954,0.01915 1.139026,0.2950018 1.519534,0.7519539 0.293526,0.3323529 0.454496,0.7335139 0.500001,1.1425794 0.07389,-0.5722387 -0.08662,-1.1745144 -0.500001,-1.64258 -0.380507,-0.4569521 -0.920578,-0.7328039 -1.519532,-0.751954 -0.01093,-1.73e-4 -0.02129,-1.73e-4 -0.03223,0 l -5.015631,0 -1.487307,-4.5351619 0.01172,0.041992 C 13.12168,2.5757575 12.446604,2.013318 11.500013,1.9999725 Z M 5.7265685,15.091786 4.3281293,19.376947 c -0.0017,0.0052 -0.00328,0.0104 -0.00488,0.01563 -0.089255,0.289222 -0.1114522,0.581397 -0.07324,0.862306 0.014579,-0.120583 0.036052,-0.241797 0.073242,-0.362305 0.0016,-0.0052 0.00319,-0.01043 0.00488,-0.01563 l 1.5302732,-4.689459 -0.1318362,-0.0957 z m 11.5468895,0 -0.131836,0.0957 1.530275,4.689459 c 0.0017,0.0052 0.0033,0.01041 0.0049,0.01563 0.03719,0.120508 0.05866,0.241722 0.07324,0.362305 0.03821,-0.280909 0.01601,-0.573084 -0.07324,-0.862306 -0.0016,-0.0052 -0.0032,-0.01044 -0.0049,-0.01563 l -1.398439,-4.285161 z"/>
 <circle style="opacity:0.1" cx="11.5" cy="13" r="3.5"/>
 <circle style="fill:#6d63f4" cx="11.5" cy="12.5" r="3.5"/>
</svg>
