<svg xmlns="http://www.w3.org/2000/svg" width="24" height="24" version="1">
 <rect style="opacity:0.2" width="20" height="20" x="2" y="2.5" rx="1" ry="1"/>
 <rect style="fill:#72a637" width="20" height="20" x="2" y="2" rx="1" ry="1"/>
 <path style="opacity:0.2" d="m 20,11.5 h -4 v 2 h 2 l -4,5 -4,-5 h 2 v -6 h 4 v 2 h 4 v -2 c 0,0 0,-3 -3,-3 h -6 c 0,0 -3,0 -3,3 v 1 6 H 6 v -6 H 4 v 6 c 0,2 2,2 2,2 h 2 v 1 c 0,3 3,3 3,3 h 6 c 3,0 3,-3 3,-3"/>
 <path style="fill:#8b9cbe" d="M 20,11 H 16 V 13 H 18 L 14,18 10,13 H 12 V 7 H 16 V 9 H 20 V 7 C 20,7 20,4 17,4 H 11 C 11,4 8,4 8,7 V 8 14 H 6 V 8 H 4 V 14 C 4,16 6,16 6,16 H 8 V 17 C 8,20 11,20 11,20 H 17 C 20,20 20,17 20,17"/>
 <path style="opacity:0.2;fill:#8b9cbe" d="M 3,2 C 2.446,2 2,2.446 2,3 V 3.5 C 2,2.946 2.446,2.5 3,2.5 H 21 C 21.554,2.5 22,2.946 22,3.5 V 3 C 22,2.446 21.554,2 21,2 Z"/>
</svg>
