<svg width="24" height="24" version="1.1" xmlns="http://www.w3.org/2000/svg">
 <g transform="translate(.999683 .99979)">
  <path d="m11.557159 0.50069666a2.4096624 2.3876277 0 0 0-1.261937 0.3185148l-7.0902852 4.0561163a2.4096624 2.3876277 0 0 0-1.2049368 2.0679577v8.1127595a2.4096624 2.3876277 0 0 0 1.2048312 2.067748l7.0902848 4.056326a2.4096624 2.3876277 0 0 0 2.409662 0l7.090286-4.056326a2.4096624 2.3876277 0 0 0 1.204936-2.067958v-8.1127595a2.4096624 2.3876277 0 0 0-1.204936-2.0679577l-7.090286-4.0561163a2.4096624 2.3876277 0 0 0-1.147936-0.3185148z" style="opacity:.2"/>
  <path d="m11.557159 0.00102886a2.4096624 2.3876277 0 0 0-1.261937 0.3185148l-7.0902852 4.0561163a2.4096624 2.3876277 0 0 0-1.2049368 2.0679577v8.1127583a2.4096624 2.3876277 0 0 0 1.2048312 2.067748l7.0902848 4.056326a2.4096624 2.3876277 0 0 0 2.409662 0l7.090286-4.056326a2.4096624 2.3876277 0 0 0 1.204936-2.067958v-8.1127583a2.4096624 2.3876277 0 0 0-1.204936-2.0679577l-7.090286-4.0561163a2.4096624 2.3876277 0 0 0-1.147936-0.3185148z" style="fill:#37384b"/>
  <path d="m9 2.5-3 2v3l-3 2v3l3 2v3l3 2 3-2 3 2 3-2v-3l3-2v-3l-3-2v-3l-3-2-3 2z" style="opacity:.2"/>
  <path d="m6 14 3-2 3 2v3l-3 2-3-2z" style="fill:#fdd600"/>
  <path d="m11.556865-3.4260644e-7v0.0019500026a2.4096624 2.3876277 0 0 0-1.261719 0.3183625l-7.0898439 4.0546875a2.4096624 2.3876277 0 0 0-1.2050781 2.0683594v0.5a2.4096624 2.3876277 0 0 1 1.2050781-2.0683594l7.0898439-4.0566406a2.4096624 2.3876277 0 0 1 1.261719-0.3183594 2.4096624 2.3876277 0 0 1 1.148437 0.3183594l7.089844 4.0566406a2.4096624 2.3876277 0 0 1 1.205078 2.0683594v-0.5a2.4096624 2.3876277 0 0 0-1.205078-2.0683594l-7.089844-4.0566406a2.4096624 2.3876277 0 0 0-1.148437-0.3183594z" style="fill:#8b9cbe;opacity:.1"/>
  <path d="m18 14-3-2-3 2v3l3 2 3-2z" style="fill:#8a5ffd"/>
  <path d="m3 9 3-2 3 2v3l-3 2-3-2z" style="fill:#37fb6e"/>
  <path d="m21 9-3-2-3 2v3l3 2 3-2z" style="fill:#fdfd67"/>
  <path d="m9 9 3-2 3 2v3l-3 2-3-2z" style="fill:#8b9cbe"/>
  <path d="m6 4 3-2 3 2v3l-3 2-3-2z" style="fill:#be4c01"/>
  <path d="m18 4-3-2-3 2v3l3 2 3-2z" style="fill:#8b9cfd"/>
 </g>
</svg>
