<svg xmlns="http://www.w3.org/2000/svg" width="24" height="24" version="1">
 <path style="fill:#b7b7b7" d="m4.999985 3h13.99995v7h-13.99995z"/>
 <path style="opacity:.2;fill:#8b9cbe" d="m4.999985 3v0.5h13.99995v-0.5z"/>
 <rect style="fill:#4f4f4f" width="20" height="12" x="2" y="9" rx="1" ry="1"/>
 <g style="opacity:.4" transform="matrix(.5 0 0 .5 0 -2)">
  <rect width="24" height="4" x="12" y="26"/>
  <rect width="20" height="4" x="14" y="32"/>
  <rect width="16" height="4" x="16" y="38"/>
 </g>
 <path style="opacity:.2" d="m2 20v0.5c0 0.554 0.446 1 1 1h18c0.554 0 1-0.446 1-1v-0.5c0 0.554-0.446 1-1 1h-18c-0.554 0-1-0.446-1-1z"/>
 <circle style="fill:#3cd240" cx="17" cy="17" r="6"/>
 <path style="fill:#8b9cbe" d="m14 17 3 4 3-4h-2v-4h-2v4z"/>
 <rect style="opacity:.5" width="4" height="2" x="6" y="5"/>
 <rect style="opacity:.5" width="4" height="2" x="14" y="5"/>
</svg>
