<svg xmlns="http://www.w3.org/2000/svg" width="24" height="24" version="1.1">
 <circle style="opacity:0.2" cx="12" cy="12.5" r="10"/>
 <circle style="fill:#17191e" cx="12" cy="12" r="10"/>
 <path style="opacity:0.1;fill:#8b9cbe" d="M 12,2 A 10,10 0 0 0 2,12 10,10 0 0 0 2.01075,12.291 10,10 0 0 1 12,2.5 10,10 0 0 1 21.9895,12.209 10,10 0 0 0 22,12 10,10 0 0 0 12,2 Z"/>
 <path style="fill:none;stroke:#8b9cbe;stroke-width:3.00049019;stroke-linecap:round;stroke-linejoin:round" d="M 14.751135,16.766228 A 5.5037947,5.5035563 0 0 1 7.7851455,15.540078 5.5037947,5.5035563 0 0 1 7.7789732,8.4672987 5.5037947,5.5035563 0 0 1 14.742812,7.2289935"/>
 <circle style="opacity:0.2" cx="12" cy="12.5" r="2"/>
 <circle style="fill:#8b9cbe" cx="12" cy="12" r="2"/>
 <path style="opacity:0.2;fill:none;stroke:#000000;stroke-width:3.00049019;stroke-linecap:round;stroke-linejoin:round" d="M 14.751135,17.266229 A 5.5037947,5.5035563 0 0 1 7.7851455,16.040079 5.5037947,5.5035563 0 0 1 7.7789732,8.9672997 5.5037947,5.5035563 0 0 1 14.742812,7.7289944"/>
 <path style="fill:none;stroke:#8b9cbe;stroke-width:3.00049019;stroke-linecap:round;stroke-linejoin:round" d="M 14.751135,16.766228 A 5.5037947,5.5035563 0 0 1 7.7851455,15.540078 5.5037947,5.5035563 0 0 1 7.7789732,8.4672987 5.5037947,5.5035563 0 0 1 14.742812,7.2289935"/>
</svg>
