<svg xmlns="http://www.w3.org/2000/svg" width="24" height="24" version="1">
 <rect style="opacity:0.2" width="20" height="20" x="2" y="2.5" rx="1" ry="1"/>
 <rect style="fill:#b2bfd9" width="20" height="20" x="2" y="2" rx="1" ry="1"/>
 <path style="opacity:0.1" d="M 8.84584,5.25 V 18.992546 H 8.8 V 19.25 H 19.218095 V 18.992546 H 9.379084 L 9.270751,18.752118 9.0118005,18.989926 V 5.25 Z m 2.256652,2.2250315 -0.152676,0.2922555 -0.327244,0.04004 0.230886,0.235376 -0.06324,0.3235015 0.295249,-0.146689 0.288326,0.1599735 -0.04827,-0.326121 0.241176,-0.224711 -0.325186,-0.054822 z m 1.677381,0.9809825 -0.09561,0.157354 -0.183922,0.01029 0.12012,0.139579 -0.04697,0.1781225 0.16989,-0.0711 0.154734,0.099726 -0.01497,-0.183548 0.142573,-0.1163785 -0.179245,-0.04247 z m -2.274989,0.539793 -0.222091,0.1882255 -0.28103,-0.076525 0.110391,0.2696155 -0.1594115,0.2436085 0.2901975,-0.021705 0.182425,0.226956 0.06923,-0.2829 0.272235,-0.103281 -0.247725,-0.1532375 z m 6.105366,0.3560575 -0.113946,0.083635 -0.133404,-0.0464 0.04434,0.134153 -0.08532,0.112449 0.141263,-7.5e-4 0.08064,0.116004 0.04303,-0.134527 0.135088,-0.040975 -0.114694,-0.082325 z m -4.598624,1.4073905 -0.08513,0.147063 -0.169515,0.01328 0.113572,0.126481 -0.03985,0.1654 0.155482,-0.06904 0.145005,0.08906 -0.01759,-0.169142 0.129288,-0.110391 -0.166334,-0.03555 z m 3.989602,0.266622 -0.166334,0.158663 -0.225085,-0.04697 0.09973,0.207124 -0.114321,0.199639 0.227893,-0.03069 0.154547,0.170264 0.04116,-0.226208 0.209555,-0.0943 -0.202258,-0.109081 z m -5.615342,1.182118 -0.177934,0.353439 -0.392169,0.0537 0.281216,0.278597 -0.07016,0.389362 0.351754,-0.181303 0.348761,0.186916 -0.06362,-0.390485 0.285519,-0.273919 -0.391046,-0.06006 z m 4.84242,0.851507 0.09748,0.332857 -0.09748,0.332856 0.332856,-0.09748 0.332856,0.09748 -0.09748,-0.332856 0.09748,-0.332857 -0.332856,0.09748 z m -0.855998,0.04753 -0.240615,0.147998 -0.282526,-0.0052 0.147999,0.240615 -0.0052,0.282339 0.240615,-0.147812 0.282525,0.0052 -0.147998,-0.240614 z m -4.35988,0.997821 -0.051827,0.242112 -0.2288275,0.09467 0.2144205,0.124237 0.01927,0.246976 0.1842965,-0.165586 0.240802,0.058 -0.100474,-0.226395 0.129475,-0.211239 -0.246415,0.02564 z m 5.236833,1.052456 -0.312462,0.19964 -0.366162,-0.110766 0.121618,0.320133 -0.234254,0.268681 0.387678,-0.0017 0.22153,0.276726 0.117875,-0.321069 0.371026,-0.09767 -0.314708,-0.196833 z m -2.443194,0.101411 -0.162967,0.162218 -0.226208,-0.04228 0.104029,0.205253 -0.110203,0.201884 0.22733,-0.03537 0.158102,0.167083 0.03649,-0.227143 0.207685,-0.0986 -0.204691,-0.104964 z m 3.136037,0.470564 0.05538,0.309281 -0.247164,0.216853 0.338657,0.04753 0.149121,0.281965 0.153986,-0.279907 0.339219,-0.04266 -0.243422,-0.220408 0.06043,-0.308346 -0.304229,0.143696 z m -3.398543,0.735128 -0.145566,0.196085 -0.26288,0.0035 0.162966,0.184857 -0.07727,0.225085 0.246415,-0.08195 0.215169,0.135462 -0.01085,-0.235375 0.210304,-0.141263 -0.253151,-0.06362 z m 1.876458,0.531747 -0.132282,0.317327 -0.357554,0.07915 0.28552,0.21442 -0.02919,0.339218 0.308533,-0.184858 0.339405,0.130411 -0.09449,-0.328741 0.238931,-0.258577 -0.367097,-0.01815 z m -2.498763,0.07316 -0.21124,0.295436 -0.381316,0.0054 0.236498,0.278409 -0.112262,0.339219 0.357555,-0.123489 0.311901,0.204317 -0.01553,-0.354748 0.304979,-0.212923 -0.367097,-0.0958 z m 4.42892,0.05108 0.05538,0.309095 -0.247163,0.21704 0.338657,0.04733 0.149121,0.281965 0.153986,-0.279719 0.339217,-0.04284 -0.24342,-0.220221 0.06044,-0.308346 -0.304231,0.143508 z"/>
 <path style="opacity:0.1" d="M 5,5.5 5.9785155,12.862305 6.861328,19.5 H 9.34375 L 14.008789,11.660156 17.673828,5.5 H 15.69043 L 11.886719,11.978516 8.4697265,17.797851 7.8203125,12.586914 6.9365235,5.5 Z"/>
 <path style="opacity:0.2;fill:#8b9cbe" d="M 3,2 C 2.446,2 2,2.446 2,3 v 0.5 c 0,-0.554 0.446,-1 1,-1 h 18 c 0.554,0 1,0.446 1,1 V 3 C 22,2.446 21.554,2 21,2 Z"/>
 <path style="fill:#a2adc7" d="M 8.84584,5 V 18.742546 H 8.8 V 19 H 19.218095 V 18.742546 H 9.379084 L 9.270751,18.502118 9.0118005,18.739926 V 5 Z m 2.256652,2.2250315 -0.152676,0.2922555 -0.327244,0.04004 0.230886,0.235376 -0.06324,0.3235015 0.295249,-0.146689 0.288326,0.1599735 -0.04827,-0.326121 0.241176,-0.224711 -0.325186,-0.054822 z m 1.677381,0.9809825 -0.09561,0.157354 -0.183922,0.01029 0.12012,0.139579 -0.04697,0.1781225 0.16989,-0.0711 0.154734,0.099726 -0.01497,-0.183548 0.142573,-0.1163785 -0.179245,-0.04247 z m -2.274989,0.539793 -0.222091,0.1882255 -0.28103,-0.076525 0.110391,0.2696155 -0.1594115,0.2436085 0.2901975,-0.021705 0.182425,0.226956 0.06923,-0.2829 0.272235,-0.103281 -0.247725,-0.1532375 z m 6.105366,0.3560575 -0.113946,0.083635 -0.133404,-0.0464 0.04434,0.134153 -0.08532,0.112449 0.141263,-7.5e-4 0.08064,0.116004 0.04303,-0.134527 0.135088,-0.040975 -0.114694,-0.082325 z m -4.598624,1.4073905 -0.08513,0.147063 -0.169515,0.01328 0.113572,0.126481 -0.03985,0.1654 0.155482,-0.06904 0.145005,0.08906 -0.01759,-0.169142 0.129288,-0.110391 -0.166334,-0.03555 z m 3.989602,0.266622 -0.166334,0.158663 -0.225085,-0.04697 0.09973,0.207124 -0.114321,0.199639 0.227893,-0.03069 0.154547,0.170264 0.04116,-0.226208 0.209555,-0.0943 -0.202258,-0.109081 z m -5.615342,1.182118 -0.177934,0.353439 -0.392169,0.0537 0.281216,0.278597 -0.07016,0.389362 0.351754,-0.181303 0.348761,0.186916 -0.06362,-0.390485 0.285519,-0.273919 -0.391046,-0.06006 z m 4.84242,0.851507 0.09748,0.332857 -0.09748,0.332856 0.332856,-0.09748 0.332856,0.09748 -0.09748,-0.332856 0.09748,-0.332857 -0.332856,0.09748 z m -0.855998,0.04753 -0.240615,0.147998 -0.282526,-0.0052 0.147999,0.240615 -0.0052,0.282339 0.240615,-0.147812 0.282525,0.0052 -0.147998,-0.240614 z m -4.35988,0.997821 -0.051827,0.242112 -0.2288275,0.09467 0.2144205,0.124237 0.01927,0.246976 0.1842965,-0.165586 0.240802,0.058 -0.100474,-0.226395 0.129475,-0.211239 -0.246415,0.02564 z m 5.236833,1.052456 -0.312462,0.19964 -0.366162,-0.110766 0.121618,0.320133 -0.234254,0.268681 0.387678,-0.0017 0.22153,0.276726 0.117875,-0.321069 0.371026,-0.09767 -0.314708,-0.196833 z m -2.443194,0.101411 -0.162967,0.162218 -0.226208,-0.04228 0.104029,0.205253 -0.110203,0.201884 0.22733,-0.03537 0.158102,0.167083 0.03649,-0.227143 0.207685,-0.0986 -0.204691,-0.104964 z m 3.136037,0.470564 0.05538,0.309281 -0.247164,0.216853 0.338657,0.04753 0.149121,0.281965 0.153986,-0.279907 0.339219,-0.04266 -0.243422,-0.220408 0.06043,-0.308346 -0.304229,0.143696 z m -3.398543,0.735128 -0.145566,0.196085 -0.26288,0.0035 0.162966,0.184857 -0.07727,0.225085 0.246415,-0.08195 0.215169,0.135462 -0.01085,-0.235375 0.210304,-0.141263 -0.253151,-0.06362 z m 1.876458,0.531747 -0.132282,0.317327 -0.357554,0.07915 0.28552,0.21442 -0.02919,0.339218 0.308533,-0.184858 0.339405,0.130411 -0.09449,-0.328741 0.238931,-0.258577 -0.367097,-0.01815 z m -2.498763,0.07316 -0.21124,0.295436 -0.381316,0.0054 0.236498,0.278409 -0.112262,0.339219 0.357555,-0.123489 0.311901,0.204317 -0.01553,-0.354748 0.304979,-0.212923 -0.367097,-0.0958 z m 4.42892,0.05108 0.05538,0.309095 -0.247163,0.21704 0.338657,0.04733 0.149121,0.281965 0.153986,-0.279719 0.339217,-0.04284 -0.24342,-0.220221 0.06044,-0.308346 -0.304231,0.143508 z"/>
 <path style="fill:#0ba10b" d="m 14.008789,11.160156 -2.12207,0.31836 -3.4169925,5.819335 -0.649414,-5.210937 -1.841797,0.275391 L 6.861328,19 H 9.34375 Z"/>
 <path style="fill:#244bb6" d="M 5,5.0000405 5.978966,12.362593 7.8201215,12.087106 6.9368705,5.0000405 Z m 10.690397,0 -3.803788,6.4781745 2.121907,-0.317609 3.665762,-6.1605655 z"/>
</svg>
