<svg xmlns="http://www.w3.org/2000/svg" width="24" height="24" version="1">
 <path style="fill:#bc3219" d="M 7.547141,4.2724367 5.8862945,4.7089874 c 0,0 0.9487065,1.7299211 1.3090285,3.2746306 0.5591605,2.397133 0.5454615,4.355401 0.5454615,4.355401 L 9.5,11.5 C 9.5,11.5 8.44897,10.27463 7.856477,7.811165 7.512087,6.3792615 7.547141,4.2724367 7.547141,4.2724367 Z"/>
 <path style="fill:#bc3219" d="m 15.446416,8.968391 c 0,0 -0.687938,1.793688 -1.504982,2.544151 -0.796411,0.731511 -2.594089,1.514672 -2.594089,1.514672 L 12.730053,14.302 c 0,0 0.4871,-1.231825 1.48663,-2.073428 0.950327,-0.800175 2.922039,-1.520999 2.922039,-1.520999 z"/>
 <path style="fill:#bc3219" d="m 10.548667,9.3865105 c 0,0 0.225834,0.5199995 0.04979,1.1171385 -0.1644,0.557634 -0.8423575,1.296174 -0.8423575,1.296174 l 1.4382685,0.239364 c 0,0 -0.135464,-0.73316 0.03778,-1.283784 0.190275,-0.604746 0.723827,-0.9747305 0.723827,-0.9747305 z"/>
 <path style="fill:#bc3219" d="M 10.268492,18.488396 8.505,18.663306 c 0,0 0.8131545,0.506411 0.8970185,1.004325 0.065999,0.391842 0.102982,0.878028 0.102982,0.878028 l 0.8346975,-0.20587 c 0,0 -0.247455,-0.446697 -0.387076,-0.777536 -0.210372,-0.49849 0.315869,-1.073857 0.31587,-1.073857 z"/>
 <path style="opacity:0.2" d="M 6.5 2.5 A 1.5 1.5 0 0 0 5 4 A 1.5 1.5 0 0 0 6.5 5.5 A 1.5 1.5 0 0 0 8 4 A 1.5 1.5 0 0 0 6.5 2.5 z M 17.5 6.5 A 2.5 2.5 0 0 0 15 9 A 2.5 2.5 0 0 0 17.5 11.5 A 2.5 2.5 0 0 0 20 9 A 2.5 2.5 0 0 0 17.5 6.5 z M 11.5 7.5 A 1.5 1.5 0 0 0 10 9 A 1.5 1.5 0 0 0 11.5 10.5 A 1.5 1.5 0 0 0 13 9 A 1.5 1.5 0 0 0 11.5 7.5 z M 9 11.5 A 4 4 0 0 0 5 15.5 A 4 4 0 0 0 9 19.5 A 4 4 0 0 0 13 15.5 A 4 4 0 0 0 9 11.5 z M 14.75 15.5 A 0.75 0.75 0 0 0 14 16.25 A 0.75 0.75 0 0 0 14.75 17 A 0.75 0.75 0 0 0 15.5 16.25 A 0.75 0.75 0 0 0 14.75 15.5 z M 16 17.5 A 1 1 0 0 0 15 18.5 A 1 1 0 0 0 16 19.5 A 1 1 0 0 0 17 18.5 A 1 1 0 0 0 16 17.5 z M 10 20.5 A 1 1 0 0 0 9 21.5 A 1 1 0 0 0 10 22.5 A 1 1 0 0 0 11 21.5 A 1 1 0 0 0 10 20.5 z"/>
 <circle style="fill:#fa572c" cx="9" cy="15" r="4"/>
 <circle style="fill:#fa572c" cx="17.5" cy="8.5" r="2.5"/>
 <circle style="fill:#fa572c" cx="6.5" cy="3.5" r="1.5"/>
 <circle style="fill:#fa572c" cx="11.5" cy="8.5" r="1.5"/>
 <circle style="fill:#fa572c" cx="10" cy="21" r="1"/>
 <circle style="fill:#fa572c" cx="16" cy="18" r="1"/>
 <circle style="fill:#fa572c" cx="14.75" cy="15.75" r=".75"/>
 <path style="opacity:0.2;fill:#8b9cbe" d="M 6.5 2 A 1.5 1.5 0 0 0 5 3.5 A 1.5 1.5 0 0 0 5.0214844 3.7421875 A 1.5 1.5 0 0 1 6.5 2.5 A 1.5 1.5 0 0 1 7.9785156 3.7578125 A 1.5 1.5 0 0 0 8 3.5 A 1.5 1.5 0 0 0 6.5 2 z M 17.5 6 A 2.5 2.5 0 0 0 15 8.5 A 2.5 2.5 0 0 0 15.013672 8.7578125 A 2.5 2.5 0 0 1 17.5 6.5 A 2.5 2.5 0 0 1 19.986328 8.7421875 A 2.5 2.5 0 0 0 20 8.5 A 2.5 2.5 0 0 0 17.5 6 z M 11.5 7 A 1.5 1.5 0 0 0 10 8.5 A 1.5 1.5 0 0 0 10.021484 8.7421875 A 1.5 1.5 0 0 1 11.5 7.5 A 1.5 1.5 0 0 1 12.978516 8.7578125 A 1.5 1.5 0 0 0 13 8.5 A 1.5 1.5 0 0 0 11.5 7 z M 9 11 A 4 4 0 0 0 5 15 A 4 4 0 0 0 5.0097656 15.210938 A 4 4 0 0 1 9 11.5 A 4 4 0 0 1 12.990234 15.289062 A 4 4 0 0 0 13 15 A 4 4 0 0 0 9 11 z M 14.75 15 A 0.75 0.75 0 0 0 14 15.75 A 0.75 0.75 0 0 0 14.044922 16 A 0.75 0.75 0 0 1 14.75 15.5 A 0.75 0.75 0 0 1 15.457031 16 A 0.75 0.75 0 0 0 15.5 15.75 A 0.75 0.75 0 0 0 14.75 15 z M 16 17 A 1 1 0 0 0 15 18 A 1 1 0 0 0 15.033203 18.248047 A 1 1 0 0 1 16 17.5 A 1 1 0 0 1 16.966797 18.251953 A 1 1 0 0 0 17 18 A 1 1 0 0 0 16 17 z M 10 20 A 1 1 0 0 0 9 21 A 1 1 0 0 0 9.03125 21.248047 A 1 1 0 0 1 10 20.5 A 1 1 0 0 1 10.966797 21.251953 A 1 1 0 0 0 11 21 A 1 1 0 0 0 10 20 z"/>
</svg>
