<svg xmlns="http://www.w3.org/2000/svg" xmlns:xlink="http://www.w3.org/1999/xlink" width="24" height="24" version="1.1">
 <defs>
  <linearGradient id="linearGradient862">
   <stop style="stop-color:#000000" offset="0"/>
   <stop style="stop-color:#000000;stop-opacity:0" offset="1"/>
  </linearGradient>
  <linearGradient id="linearGradient864" x1="22.856" x2="16.436" y1="38.187" y2="30.314" gradientTransform="matrix(0.5,0,0,0.5,1.3653838e-4,0)" gradientUnits="userSpaceOnUse" xlink:href="#linearGradient862"/>
 </defs>
 <path style="opacity:0.2" d="M 12,2.5 C 10.33661,2.4931459 8.6761795,3.0065914 7.331118,4.0107422 4.1017856,6.354628 2.5252719,10.365478 2.1202521,14.228516 c -0.030963,1.092786 -0.349487,2.296984 0.1972629,3.310546 0.8610453,1.359887 2.6278742,1.413288 4.0272885,1.807617 2.1658135,0.365786 3.580393,2.248861 5.5028545,3.135743 L 12,22.5 12.152342,22.48242 c 1.92246,-0.886882 3.337041,-2.769957 5.502854,-3.135743 1.399414,-0.394329 3.166243,-0.44773 4.027288,-1.807617 0.54675,-1.013562 0.228228,-2.21776 0.197264,-3.310546 C 21.474728,10.365478 19.898214,6.354628 16.668881,4.0107422 15.32382,3.0065914 13.66339,2.493146 12,2.5 Z m 0,5 c 1.700152,-0.0091 3.3977,0.9475513 4.393494,2.3663243 0.912463,1.2534737 1.45068,3.1829527 1.550761,4.7284027 -2.252875,0.664695 -4.002579,2.271551 -5.851483,3.631835 0,0 -0.06217,0.0459 -0.09277,0.05469 -0.0306,-0.0088 -0.09277,-0.05469 -0.09277,-0.05469 C 10.058323,16.866278 8.308619,15.259422 6.055745,14.594727 6.1558255,13.049277 6.6940425,11.119798 7.6065055,9.8663243 8.602299,8.4475513 10.299848,7.4909025 12,7.5 Z"/>
 <path style="fill:#80d955" d="M 12,2 C 10.33661,1.9931459 8.6761795,2.5065914 7.331118,3.5107422 4.1017856,5.854628 2.5252719,9.865478 2.1202521,13.728516 c -0.030963,1.092786 -0.349487,2.296984 0.1972629,3.310546 0.8610453,1.359887 2.6278742,1.413288 4.0272885,1.807617 2.1658135,0.365786 3.580393,2.248861 5.5028545,3.135743 L 12,22 12.152342,21.98242 c 1.92246,-0.886882 3.337041,-2.769957 5.502854,-3.135743 1.399414,-0.394329 3.166243,-0.44773 4.027288,-1.807617 0.54675,-1.013562 0.228228,-2.21776 0.197264,-3.310546 C 21.474728,9.865478 19.898214,5.854628 16.668881,3.5107422 15.32382,2.5065914 13.66339,1.993146 12,2 Z m 0,5 c 1.700152,-0.0091 3.3977,0.9475513 4.393494,2.3663243 0.912463,1.2534737 1.45068,3.1829527 1.550761,4.7284027 -2.252875,0.664695 -4.002579,2.271551 -5.851483,3.631835 0,0 -0.06217,0.0459 -0.09277,0.05469 -0.0306,-0.0088 -0.09277,-0.05469 -0.09277,-0.05469 C 10.058323,16.366278 8.308619,14.759422 6.055745,14.094727 6.1558255,12.549277 6.6940425,10.619798 7.6065055,9.3663243 8.602299,7.9475513 10.299848,6.9909025 12,7 Z"/>
 <path style="opacity:0.4;fill:url(#linearGradient864)" d="M 8.1095115,15.006836 C 6.551183,15.700939 4.9961797,16.558271 3.4356834,17.24414 3.025467,17.30956 2.8808717,17.48501 2.8878318,17.675781 c 0.9392341,0.754684 2.3195747,0.850384 3.4570312,1.170898 0.5426565,0.09165 1.03772,0.278866 1.5058595,0.521485 1.4469555,0.08197 3.0821655,-0.683199 4.1494145,-1.586914 -0.0306,-0.0088 -0.09277,-0.05469 -0.09277,-0.05469 -0.119845,-0.08817 -0.238246,-0.181563 -0.357422,-0.271484 -0.01439,-0.01099 -0.02861,-0.02215 -0.04297,-0.0332 C 10.400002,16.584665 9.307916,15.700469 8.10951,15.006834 Z"/>
 <path style="opacity:0.2;fill:#8b9cbe" d="M 12.000137,2 C 10.960518,1.995715 9.9221275,2.1948687 8.961074,2.5898438 8.768867,2.6688388 8.5790935,2.7559674 8.393691,2.850586 8.0231525,3.0397366 7.6672275,3.2598754 7.331191,3.5107422 6.7256915,3.9502208 6.178146,4.4484397 5.6856835,4.993164 5.357375,5.3563135 5.0539935,5.7405375 4.773574,6.1416015 3.231267,8.347455 2.3987049,11.072678 2.1202537,13.728516 c -0.014956,0.527846 -0.095039,1.081159 -0.1142578,1.626953 -0.00563,0.160077 -0.00748,0.31968 9.75e-4,0.477539 0.020616,-0.53854 0.09853,-1.083863 0.1132813,-1.604492 C 2.5252736,10.365478 4.1018594,6.354628 7.331191,4.0107422 8.6762525,3.0065914 10.336747,2.4931459 12.000137,2.5 c 1.66339,-0.00685 3.323884,0.5065914 4.668945,1.5107422 3.229333,2.3438858 4.805918,6.3547358 5.210938,10.2177738 0.01475,0.520632 0.09267,1.06595 0.113281,1.604492 0.0084,-0.157609 0.0066,-0.31674 0.001,-0.476562 -0.01916,-0.546111 -0.09929,-1.09977 -0.114258,-1.62793 -0.101255,-0.96576 -0.276031,-1.940604 -0.53125,-2.896485 C 21.221187,10.354091 21.073373,9.8808525 20.904457,9.4160155 20.566625,8.486342 20.144394,7.5896095 19.630043,6.754883 19.244273,6.128838 18.807076,5.5378885 18.314613,4.9931641 18.150437,4.8115892 17.979349,4.6346341 17.802871,4.4638672 17.626393,4.2931002 17.444058,4.1287995 17.25502,3.9697265 17.065981,3.8106536 16.870915,3.6572351 16.669082,3.5107422 15.324021,2.5065914 13.663527,1.993146 12.000137,2 Z m 5.895508,12.112305 c -1.392953,0.420998 -2.594697,1.199889 -3.748047,2.054687 -0.691931,0.513444 -1.366342,1.053137 -2.054688,1.55957 0,0 -0.06217,0.0459 -0.09277,0.05469 -0.105187,0.08907 -0.220441,0.175043 -0.335938,0.260742 -0.119848,0.08893 -0.245638,0.174002 -0.375,0.257812 -0.01905,0.01236 -0.03741,0.02488 -0.05664,0.03711 -0.119843,0.07608 -0.242796,0.148384 -0.369141,0.21875 -0.03227,0.01803 -0.06403,0.0361 -0.09668,0.05371 -0.116638,0.06272 -0.234676,0.121939 -0.355468,0.178711 -0.05282,0.02492 -0.105699,0.0486 -0.15918,0.07227 -0.105648,0.04656 -0.211558,0.09062 -0.3193365,0.131836 -0.072263,0.02775 -0.144778,0.053 -0.217773,0.07813 -0.097827,0.03353 -0.195199,0.06626 -0.2939455,0.09473 -0.088447,0.02562 -0.176763,0.04616 -0.265625,0.06738 -0.083502,0.01985 -0.1664175,0.04189 -0.25,0.05762 -0.1155145,0.02183 -0.2306015,0.0345 -0.345703,0.04785 -0.061597,0.0071 -0.123256,0.01791 -0.1845705,0.02246 -0.176487,0.01317 -0.3518605,0.01759 -0.524414,0.0078 0.2654,0.137547 0.521037,0.29478 0.772461,0.460938 1.22923,-0.158912 2.4962895,-0.802132 3.3769535,-1.547852 0.0306,-0.0088 0.09277,-0.05469 0.09277,-0.05469 1.848904,-1.360284 3.598688,-2.96714 5.851563,-3.631835 -0.01044,-0.1612 -0.02893,-0.32187 -0.04883,-0.482422 z"/>
</svg>
