<svg xmlns="http://www.w3.org/2000/svg" width="24" height="24" version="1">
 <rect style="opacity:0.2" width="20" height="20" x="2" y="2.5" rx="6" ry="6"/>
 <rect style="fill:#4c459c" width="20" height="20" x="2" y="2" rx="6" ry="6"/>
 <path style="opacity:0.1;fill:#8b9cbe" d="M 8,2 C 4.676,2 2,4.676 2,8 v 0.5 c 0,-3.324 2.676,-6 6,-6 h 8 c 3.324,0 6,2.676 6,6 V 8 C 22,4.676 19.324,2 16,2 Z"/>
 <path style="opacity:0.2" d="M 17.5,5.5 A 1.5,1.5 0 0 0 16,7 1.5,1.5 0 0 0 16.142578,7.6308594 l -2.71289,3.0488286 C 13.134062,10.561113 12.818513,10.500126 12.5,10.5 c -1.321747,0.0018 -2.413708,1.032148 -2.492188,2.351562 l -3.7207026,0.53125 C 6.0974804,13.141065 5.8072468,12.99991 5.5,13 c -0.5522847,0 -1,0.447715 -1,1 0,0.552285 0.4477153,1 1,1 0.4082254,-3.2e-5 0.7754471,-0.248196 0.9277344,-0.626953 l 3.7207036,-0.53125 C 10.503762,14.835438 11.444738,15.498965 12.5,15.5 13.880712,15.5 15,14.380712 15,13 14.999431,12.51343 14.856886,12.037601 14.589844,11.630859 L 17.376953,8.4941406 A 1.5,1.5 0 0 0 17.5,8.5 1.5,1.5 0 0 0 19,7 1.5,1.5 0 0 0 17.5,5.5 Z M 9,6.5 a 1,1 0 0 0 -1,1 1,1 0 0 0 1,1 1,1 0 0 0 1,-1 1,1 0 0 0 -1,-1 z m 8.5,0 A 0.5,0.5 0 0 1 18,7 0.5,0.5 0 0 1 17.5,7.5 0.5,0.5 0 0 1 17,7 0.5,0.5 0 0 1 17.5,6.5 Z M 10.048828,8.5429688 9.4453125,8.9882812 9.8496094,9.5664062 10.453125,9.1191406 Z m 0.703125,1.0644531 -0.603515,0.4453121 0.533203,0.761719 0.603515,-0.447266 z M 12.5,11.5 c 0.828427,0 1.5,0.671573 1.5,1.5 0,0.828427 -0.671573,1.5 -1.5,1.5 -0.828427,0 -1.5,-0.671573 -1.5,-1.5 0,-0.828427 0.671573,-1.5 1.5,-1.5 z m -7,2 A 0.5,0.5 0 0 1 6,14 0.5,0.5 0 0 1 5.5,14.5 0.5,0.5 0 0 1 5,14 0.5,0.5 0 0 1 5.5,13.5 Z m 9.236328,1.205078 -0.53125,0.53125 0.685547,0.685547 0.53125,-0.53125 z m -4.076172,0.896484 -0.49414,1.236329 0.708984,0.248047 0.494141,-1.234376 z m 5.007813,0.03711 -0.529297,0.53125 0.791016,0.791016 0.53125,-0.53125 z M 17.25,16.5 A 1.25,1.25 0 0 0 16,17.75 1.25,1.25 0 0 0 17.25,19 1.25,1.25 0 0 0 18.5,17.75 1.25,1.25 0 0 0 17.25,16.5 Z m -7.25,1 a 1,1 0 0 0 -1,1 1,1 0 0 0 1,1 1,1 0 0 0 1,-1 1,1 0 0 0 -1,-1 z"/>
 <path style="fill:#8b9cbe" d="M 17.5 5 A 1.5 1.5 0 0 0 16 6.5 A 1.5 1.5 0 0 0 16.142578 7.1308594 L 13.429688 10.179688 C 13.134062 10.061113 12.818513 10.000126 12.5 10 C 11.178253 10.0018 10.086292 11.032148 10.007812 12.351562 L 6.2871094 12.882812 C 6.0974804 12.641065 5.8072468 12.49991 5.5 12.5 C 4.9477153 12.5 4.5 12.947715 4.5 13.5 C 4.5 14.052285 4.9477153 14.5 5.5 14.5 C 5.9082254 14.499968 6.2754471 14.251804 6.4277344 13.873047 L 10.148438 13.341797 C 10.503762 14.335438 11.444738 14.998965 12.5 15 C 13.880712 15 15 13.880712 15 12.5 C 14.999431 12.01343 14.856886 11.537601 14.589844 11.130859 L 17.376953 7.9941406 A 1.5 1.5 0 0 0 17.5 8 A 1.5 1.5 0 0 0 19 6.5 A 1.5 1.5 0 0 0 17.5 5 z M 9 6 A 1 1 0 0 0 8 7 A 1 1 0 0 0 9 8 A 1 1 0 0 0 10 7 A 1 1 0 0 0 9 6 z M 17.5 6 A 0.5 0.5 0 0 1 18 6.5 A 0.5 0.5 0 0 1 17.5 7 A 0.5 0.5 0 0 1 17 6.5 A 0.5 0.5 0 0 1 17.5 6 z M 10.048828 8.0429688 L 9.4453125 8.4882812 L 9.8496094 9.0664062 L 10.453125 8.6191406 L 10.048828 8.0429688 z M 10.751953 9.1074219 L 10.148438 9.5527344 L 10.681641 10.314453 L 11.285156 9.8671875 L 10.751953 9.1074219 z M 12.5 11 C 13.328427 11 14 11.671573 14 12.5 C 14 13.328427 13.328427 14 12.5 14 C 11.671573 14 11 13.328427 11 12.5 C 11 11.671573 11.671573 11 12.5 11 z M 5.5 13 A 0.5 0.5 0 0 1 6 13.5 A 0.5 0.5 0 0 1 5.5 14 A 0.5 0.5 0 0 1 5 13.5 A 0.5 0.5 0 0 1 5.5 13 z M 14.736328 14.205078 L 14.205078 14.736328 L 14.890625 15.421875 L 15.421875 14.890625 L 14.736328 14.205078 z M 10.660156 15.101562 L 10.166016 16.337891 L 10.875 16.585938 L 11.369141 15.351562 L 10.660156 15.101562 z M 15.667969 15.138672 L 15.138672 15.669922 L 15.929688 16.460938 L 16.460938 15.929688 L 15.667969 15.138672 z M 17.25 16 A 1.25 1.25 0 0 0 16 17.25 A 1.25 1.25 0 0 0 17.25 18.5 A 1.25 1.25 0 0 0 18.5 17.25 A 1.25 1.25 0 0 0 17.25 16 z M 10 17 A 1 1 0 0 0 9 18 A 1 1 0 0 0 10 19 A 1 1 0 0 0 11 18 A 1 1 0 0 0 10 17 z"/>
</svg>
