<svg xmlns="http://www.w3.org/2000/svg" width="24" height="24" version="1">
 <path style="opacity:0.2" d="m 20.537109,7.4675357 a 2.50025,2.50025 0 0 0 -2.30664,1.517578 L 16.254883,13.42945 c -0.401271,-0.715502 -0.83182,-1.546817 -1.305664,-2.373047 -0.250182,0.363633 -0.491657,0.732773 -0.723633,1.103515 l -0.08203,0.12793 -2.133789,3.792969 2.106445,3.744141 a 2.50025,2.50025 0 0 0 4.508789,0.52539 2.50025,2.50025 0 0 0 0.0029,-0.0039 c 0.0022,-0.0034 0.0038,-0.0073 0.0059,-0.01074 a 2.50025,2.50025 0 0 0 0.12207,-0.228515 c 0.01553,-0.03146 0.03435,-0.05928 0.04883,-0.0918 l 1.422852,-3.201172 c -0.0025,0.0015 -0.0053,0.0024 -0.0078,0.0039 l 2.579081,-5.802737 A 2.50025,2.50025 0 0 0 20.537109,7.4675357 Z M 3.4169922,7.4685122 A 2.50025,2.50025 0 0 0 1.2304687,11.015387 L 3.8125,16.824958 c 0.7030814,0.405434 1.442702,0.623431 2.104492,-0.08301 l 1.853516,-3.294922 -0.00782,-0.01269 c 0.00235,-0.0042 0.00546,-0.0095 0.00782,-0.01367 L 5.798828,8.9851157 A 2.50025,2.50025 0 0 0 3.4169922,7.4685122 Z M 9.923828,19.789801 9.678711,20.225348 c -0.8823515,1.567187 -2.9973275,1.669204 -4.0722655,0.41211 A 2.50025,2.50025 0 0 0 9.923828,19.789801 Z M 5.6064455,20.637458 C 5.5498885,20.571317 5.499685,20.497238 5.449219,20.42359 a 2.50025,2.50025 0 0 0 0.1572265,0.213868 z"/>
 <path style="opacity:0.2" d="m 16.980263,2.4997643 c -0.551566,0 -0.998698,0.4465814 -0.998698,0.9974675 0,0.550886 0.447132,0.9974674 0.998698,0.9974674 0.551566,0 0.998698,-0.4465814 0.998698,-0.9974674 0,-0.5508861 -0.447132,-0.9974675 -0.998698,-0.9974675 z m -4.078112,-0.00143 c -0.328411,3.83e-4 -0.677252,0.093381 -1.028932,0.2805378 -1.312593,0.69854 -1.9591668,1.9083374 -1.8774363,3.5115919 0.020635,0.40517 0.085002,0.840139 0.1423923,0.9662965 0.05739,0.1261575 0.153012,0.228911 0.212614,0.228911 0.0596,0 0.312659,-0.219624 0.562742,-0.488019 0.340099,-0.3650055 0.634732,-0.5769845 1.169375,-0.842587 1.428817,-0.709811 1.55975,-0.790568 1.902794,-1.175726 0.64693,-0.726351 0.663064,-1.4414049 0.04681,-2.0261054 C 13.713118,2.6501941 13.324401,2.4978322 12.902151,2.4983314 Z M 8.1056682,6.4896342 c -0.069955,-0.00205 -0.139915,0.00415 -0.209688,0.01851 -0.554266,0.11484 -0.988085,0.9837775 -0.8884905,1.7796615 0.061749,0.493482 0.483064,1.2488715 0.842652,1.5108125 0.156113,0.1137185 0.3585565,0.194484 0.4505845,0.1802065 0.144133,-0.022375 0.175479,-0.114388 0.2262675,-0.6662775 0.03242,-0.3523755 0.1520575,-0.881649 0.2662545,-1.175726 0.2492095,-0.641745 0.257583,-0.850535 0.04779,-1.223456 -0.142565,-0.253415 -0.4322395,-0.413932 -0.73537,-0.423729 z"/>
 <path style="fill:none;stroke:#00a5f5;stroke-width:5;stroke-linecap:round;stroke-linejoin:round" d="m 3.5146095,9.5000687 4,9.0000003"/>
 <path style="fill:none;stroke:#7369e8;stroke-width:5;stroke-linecap:round;stroke-linejoin:round" d="m 16.514609,18.500069 4,-9.0000003 v 0 0"/>
 <path style="opacity:0.1;fill:#8b9cbe" d="m 20.537109,6.9675357 a 2.50025,2.50025 0 0 0 -2.30664,1.517578 l -4,9.0000003 a 2.50025,2.50025 0 0 0 -0.223633,1.317383 2.50025,2.50025 0 0 1 0.223633,-0.817383 l 4,-9.0000003 a 2.50025,2.50025 0 0 1 2.30664,-1.517578 2.50025,2.50025 0 0 1 2.476563,2.248047 2.50025,2.50025 0 0 0 -2.476563,-2.748047 z M 3.4169922,6.9685122 A 2.50025,2.50025 0 0 0 1.015625,9.7165592 2.50025,2.50025 0 0 1 3.4169922,7.4685122 2.50025,2.50025 0 0 1 5.798828,8.9851137 l 4,9.0000003 a 2.50025,2.50025 0 0 1 0.223633,0.818359 2.50025,2.50025 0 0 0 -0.223633,-1.318359 l -4,-9.0000003 A 2.50025,2.50025 0 0 0 3.4169922,6.9685122 Z"/>
 <path style="fill:#00aeda" d="m 11.795626,8.7516382 c 3.580847,3.4629138 0.38503,-0.4902715 1.05916,-0.262071 1.635287,0.540837 0.15278,-0.628679 0.891024,0.2055075 1.008894,1.3192003 1.797269,2.9659003 2.511718,4.2392583 l -0.0078,0.01269 1.853516,3.294922 c 0.66791,0.712971 1.415134,0.484894 2.124024,0.07227 l -1.422852,3.201172 c -0.835795,1.877833 -3.454489,2.001032 -4.462891,0.209961 l -4.464843,-7.9375 -0.082031,-0.12793 c -0.892528,-1.426408 1.604532,-0.308848 0.405568,-1.393749 -0.134123,-0.118661 0.280655,-0.26462 0.363604,-0.4677438 0.336392,-0.82376 0.289012,0.4146778 0.997278,0.2665348 0.147598,-0.02032 -0.161721,0.0027 0,0 z"/>
 <path style="opacity:0.2;fill:#8b9cbe" d="m 13.525391,8.3874577 c -0.0072,0.012085 0.03862,0.082167 0.128906,0.1943355 0.03412,-0.081449 -0.113827,-0.2196025 -0.128906,-0.1943355 z m 0.128906,0.1943355 c -0.03117,0.074402 -0.214299,0.101847 -0.799805,-0.091796 -0.186609,-0.06317 -0.07225,0.197653 0.108399,0.5292965 0.48175,0.147156 0.662472,0.131833 0.691406,0.063477 -0.27917,-0.3468475 0.05094,-0.120334 0,0 0.0301,0.03739 0.04565,0.061144 0.0918,0.113281 1.008893,1.3192003 1.797269,2.9659003 2.511718,4.2392573 l -0.0078,0.01269 1.853516,3.294922 c 0.576854,0.615773 1.212645,0.528312 1.832031,0.227539 l 0.291992,-0.65625 c -0.70889,0.412629 -1.456114,0.640706 -2.124023,-0.07227 L 16.25,12.947028 l 0.0078,-0.01269 c -0.714434,-1.273363 -1.50281,-2.920063 -2.511703,-4.2392633 -0.04614,-0.052136 -0.0617,-0.075892 -0.0918,-0.1132815 z M 11.795899,8.7517152 11.5625,10.058356 c 0.03536,-0.0023 0.06722,-0.0025 -10e-4,0.0068 -0.708266,0.148144 -0.661654,-1.0903613 -0.998047,-0.2666013 -0.08295,0.2031243 -0.497404,0.3491123 -0.363281,0.4677733 0.09258,0.08377 0.157216,0.150267 0.208984,0.209961 0.06608,-0.05453 0.1276,-0.111383 0.154297,-0.176758 0.336393,-0.8237598 0.28978,0.414746 0.998047,0.266602 -0.087,0.0015 -0.0402,-0.0041 10e-4,-0.0068 l 0.233398,-1.3066413 c 2.058337,1.9905473 1.865573,1.5161433 1.467774,0.8085943 C 13.015687,9.8891507 12.571305,9.5015842 11.795899,8.7517152 Z m -0.233399,1.8076178 -10e-4,0.0068 c 0.06819,-0.0094 0.03633,-0.0091 10e-4,-0.0068 z m -10e-4,-0.494141 10e-4,-0.0068 c -0.04117,0.0026 -0.08798,0.0083 -10e-4,0.0068 z m -1.307617,0.753906 c -0.3470825,0.03559 -0.8579485,0.0329 -0.5664065,0.643555 0.312338,-0.267258 1.3175695,0.06502 0.5664065,-0.643555 z"/>
 <path style="opacity:0.2" d="m 15.367188,6.5314092 c -0.485163,-0.008 -1.041691,0.07258 -1.715821,0.300781 -1.635287,0.540837 -2.638709,1.5289195 -3.376953,2.363106 C 9.26552,10.514497 8.477145,12.161196 7.7626955,13.434554 l 0.00781,0.01269 -1.853516,3.294922 C 5.24908,17.455137 4.5018561,17.22706 3.7929663,16.814436 l 1.4228517,3.201172 c 0.8357945,1.877832 3.454489,2.001031 4.4628905,0.209961 l 4.4648435,-7.9375 0.08203,-0.12793 c 0.892512,-1.426408 1.913275,-2.8416818 3.112239,-3.9265823 0.134123,-0.1186615 0.235293,-0.3115245 0.152344,-0.5146485 -0.336392,-0.82376 -0.951825,-1.0042005 -1.660091,-1.152344 -0.147598,-0.020325 -0.30117,-0.032485 -0.462891,-0.035155 z"/>
 <path style="fill:#20ebff" d="m 15.367188,6.0311877 c -0.485163,-0.00801 -1.041691,0.07258 -1.715821,0.300781 -1.635287,0.540837 -2.638709,1.5289195 -3.376953,2.363106 C 9.26552,10.014275 8.477145,11.660975 7.7626955,12.934333 l 0.00781,0.01269 -1.853516,3.294922 C 5.24908,16.954916 4.5018561,16.726839 3.7929662,16.314215 l 1.4228518,3.201172 c 0.8357945,1.877833 3.454489,2.001032 4.4628905,0.209961 l 4.4648435,-7.9375 0.08203,-0.12793 C 15.118101,10.23351 16.138864,8.8182367 17.337828,7.7333362 17.471951,7.6146747 17.573121,7.4218117 17.490172,7.2186877 17.15378,6.3949277 16.538347,6.2144872 15.830081,6.0663437 15.682483,6.0460187 15.528911,6.0338587 15.36719,6.0311887 Z"/>
 <circle style="fill:#20ebff" cx="17" cy="3" r="1"/>
 <path style="fill:#20ebff" d="m 12.917082,2.0000012 c -0.328839,3.839e-4 -0.677876,0.093609 -1.030015,0.2812413 -1.314303,0.7003136 -1.9620078,1.9129685 -1.880171,3.5202935 0.02066,0.4061985 0.08465,0.842067 0.142117,0.968545 C 10.206483,6.8965585 10.302397,7 10.362076,7 10.421756,7 10.675372,6.7798445 10.925781,6.510768 11.266323,6.1448355 11.561528,5.9318485 12.096868,5.6655715 13.527547,4.9539585 13.658127,4.873092 14.001618,4.486956 14.649392,3.7587606 14.666202,3.0425886 14.049148,2.4564035 13.729337,2.152597 13.33988,1.9995006 12.917082,2.0000012 Z"/>
 <path style="fill:#20ebff" d="m 8.1147383,6.0001727 c -0.070046,-0.00205 -0.140812,0.00365 -0.210676,0.01803 -0.5549885,0.115132 -0.989468,0.98632 -0.889744,1.7842245 0.061829,0.494735 0.4836065,1.2518685 0.843663,1.5144745 0.1563165,0.1140075 0.3595215,0.195544 0.4516695,0.18123 0.1443205,-0.02243 0.175703,-0.1150955 0.226558,-0.668386 0.03246,-0.35327 0.1526365,-0.883559 0.2669825,-1.1783825 C 9.0527253,7.0079887 9.0609033,6.7985297 8.8508363,6.4246617 8.7080858,6.1706037 8.4182613,6.0100072 8.1147358,6.0001852 Z"/>
 <path style="opacity:0.2;fill:#8b9cbe" d="m 17.000436,1.9997622 c -0.552285,0 -1,0.4477153 -1,1 2.37e-4,0.084032 0.01107,0.1676995 0.03223,0.2490234 0.114703,-0.4405717 0.512511,-0.7480608 0.96777,-0.7480469 0.456103,3.305e-4 0.854192,0.3092409 0.967773,0.7509766 0.02141,-0.082273 0.03224,-0.1669403 0.03223,-0.2519531 0,-0.5522847 -0.447716,-1 -1,-1 z m -4.083142,1.513e-4 c -0.328839,3.839e-4 -0.678134,0.093618 -1.030273,0.28125 -1.314303,0.7003136 -1.9617198,1.913183 -1.879883,3.520508 4.28e-4,0.00841 0.0015,0.015985 0.002,0.024415 0.05953,-1.3699995 0.697694,-2.4150682 1.87793,-3.0439455 0.352139,-0.1876319 0.701434,-0.280866 1.030273,-0.28125 0.4228,-5e-4 0.812025,0.1522482 1.131836,0.4560547 0.224976,0.2137207 0.363215,0.4448204 0.419922,0.6875 C 14.562233,3.2177855 14.424672,2.8127232 14.04913,2.4559682 13.729319,2.1521617 13.340094,1.9994129 12.917294,1.9999135 Z M 8.1145602,5.9997622 c -0.070046,-0.00205 -0.140097,0.00415 -0.209961,0.018555 -0.5549885,0.115132 -0.9893725,0.9862755 -0.8896485,1.78418 8.5e-4,0.0068 0.00485,0.01556 0.00586,0.02246 0.07739,-0.635996 0.4393435,-1.2134645 0.883789,-1.3056645 0.069864,-0.014405 0.139915,-0.020605 0.209961,-0.018555 0.3035255,0.00982 0.5935775,0.170747 0.736328,0.4248045 0.04879,0.086836 0.083461,0.163652 0.1083985,0.2402345 0.069693,-0.2964255 0.03614,-0.483971 -0.1083985,-0.741211 C 8.7081377,6.1705087 8.4180857,6.0095842 8.1145602,5.9997622 Z m 7.2526278,0.03125 c -0.485163,-0.008 -1.041691,0.07258 -1.715821,0.300781 C 12.01608,6.8726307 11.012658,7.8608882 10.274414,8.6950747 9.26552,10.014275 8.477145,11.660975 7.7626955,12.934333 l 0.00781,0.01269 -1.853516,3.294922 C 5.24908,16.954916 4.5018561,16.726839 3.7929662,16.314215 l 0.2919922,0.65625 c 0.6193863,0.300773 1.2551771,0.388234 1.8320311,-0.227539 l 1.853516,-3.294922 -0.00781,-0.01269 C 8.477145,12.161951 9.26552,10.515252 10.274414,9.1960512 c 0.738244,-0.8341865 1.741666,-1.822444 3.376953,-2.363281 0.67413,-0.2282005 1.230658,-0.3087865 1.715821,-0.3007815 0.161721,0.00265 0.315293,0.01483 0.46289,0.035155 0.675252,0.141238 1.263265,0.318402 1.608398,1.0478515 0.07401,-0.1114845 0.111192,-0.250944 0.05176,-0.3964845 -0.336392,-0.82376 -0.95189,-1.0042005 -1.660156,-1.152344 -0.147597,-0.020325 -0.301169,-0.032485 -0.46289,-0.035155 z"/>
</svg>
