<svg xmlns="http://www.w3.org/2000/svg" width="24" height="24" version="1.1">
 <path style="opacity:0.2" d="M 6.520547,2.5 C 4.01541,2.5 2,4.5154092 2,7.020548 V 17.979453 C 2,20.48459 4.01541,22.5 6.520547,22.5 H 17.479453 C 19.98459,22.5 22,20.48459 22,17.979453 V 7.020548 C 22,4.5154092 19.98459,2.5 17.479453,2.5 Z"/>
 <path style="fill:#515e6f" d="M 6.520508,2 C 4.0153708,2 2,4.0153691 2,6.520508 v 10.958984 c 0,1.189636 0.4584971,2.264938 1.2041015,3.070312 H 20.795898 C 21.541503,19.74443 22,18.669128 22,17.479492 V 6.520508 C 22,4.0153691 19.984629,2 17.479492,2 Z"/>
 <path style="opacity:0.2" d="M 12.75,8.5 A 3.25,3.25 0 0 0 10.163086,9.7890625 2.5,2.5 0 0 0 9,9.5 2.5,2.5 0 0 0 6.5,12 2.5,2.5 0 0 0 6.555664,12.512696 1.75,1.75 0 0 0 5,14.25 1.75,1.75 0 0 0 6.75,16 1.75,1.75 0 0 0 7.7216795,15.704102 C 7.5834845,15.413047 7.5,15.091895 7.5,14.75 7.5,13.568245 8.43344,12.615823 9.5947265,12.53125 9.829265,11.110494 11.015105,10 12.5,10 a 0.50005,0.50005 0 0 0 10e-4,0 c 0.909555,10e-4 1.711172,0.471171 2.275391,1.166992 C 15.014096,11.093041 15.248649,11.00065 15.499024,11 A 0.50005,0.50005 0 0 0 15.5,11 c 0.143446,0 0.28305,0.01517 0.418946,0.03907 A 3.25,3.25 0 0 0 12.75,8.5 Z m -0.25,2 A 2.5,2.5 0 0 0 10,13 2.5,2.5 0 0 0 10.001,13.02051 1.75,1.75 0 0 0 9.75,13 1.75,1.75 0 0 0 8,14.75 1.75,1.75 0 0 0 9.75,16.5 H 17.5 A 1.5,1.5 0 0 0 19,15 a 1.5,1.5 0 0 0 -1.5,-1.5 2,2 0 0 0 -2,-2 2,2 0 0 0 -0.867187,0.200196 A 2.5,2.5 0 0 0 12.5,10.5 Z"/>
 <path style="fill:#8b9cbe" d="M 12.75,8 A 3.25,3.25 0 0 0 10.163086,9.2890625 2.5,2.5 0 0 0 9,9 2.5,2.5 0 0 0 6.5,11.5 2.5,2.5 0 0 0 6.555664,12.012696 1.75,1.75 0 0 0 5,13.75 1.75,1.75 0 0 0 6.75,15.5 1.75,1.75 0 0 0 7.7216795,15.204102 C 7.5834845,14.913047 7.5,14.591895 7.5,14.25 7.5,13.068245 8.43344,12.115823 9.5947265,12.03125 9.829265,10.610494 11.015105,9.5 12.5,9.5 a 0.50005,0.50005 0 0 0 10e-4,0 c 0.909555,10e-4 1.711172,0.471171 2.275391,1.166992 0.237728,-0.07395 0.472258,-0.166342 0.722633,-0.166992 a 0.50005,0.50005 0 0 0 9.76e-4,0 c 0.143446,0 0.28305,0.01517 0.418946,0.03907 A 3.25,3.25 0 0 0 12.75,8 Z"/>
 <path style="fill:#8b9cbe" d="M 12.5,10 A 2.5,2.5 0 0 0 10,12.5 2.5,2.5 0 0 0 10.001,12.52051 1.75,1.75 0 0 0 9.75,12.5 1.75,1.75 0 0 0 8,14.25 1.75,1.75 0 0 0 9.75,16 H 17.5 A 1.5,1.5 0 0 0 19,14.5 1.5,1.5 0 0 0 17.5,13 2,2 0 0 0 15.5,11 2,2 0 0 0 14.632813,11.200196 2.5,2.5 0 0 0 12.5,10 Z"/>
 <path style="fill:#2bb563" d="m 7,20 h 5 v 2 H 7 Z"/>
 <path style="fill:#5057eb" d="M 2.7636719 20 C 3.5734544 21.207345 4.9516928 22 6.5214844 22 L 7 22 L 7 20 L 2.7636719 20 z"/>
 <path style="fill:#ffb73f" d="M 17 20 L 17 22 L 17.478516 22 C 19.048307 22 20.426546 21.207345 21.236328 20 L 17 20 z"/>
 <path style="fill:#e8475b" d="m 12,20 h 5 v 2 h -5 z"/>
 <path style="opacity:0.1;fill:#8b9cbe" d="M 6.520508,2 C 4.0153708,2 2,4.0153691 2,6.520508 v 0.5 C 2,4.5153691 4.0153708,2.5 6.520508,2.5 H 17.479492 C 19.984629,2.5 22,4.5153691 22,7.020508 v -0.5 C 22,4.0153691 19.984629,2 17.479492,2 Z"/>
 <path style="opacity:0.2;fill:#8b9cbe" d="M 2.7792969 20 C 2.8979382 20.17549 3.0246735 20.343161 3.1660156 20.5 L 20.832031 20.5 C 20.973438 20.343095 21.102017 20.175572 21.220703 20 L 2.7792969 20 z"/>
</svg>
