<svg xmlns="http://www.w3.org/2000/svg" width="24" height="24" version="1.1">
 <path style="fill:#50bcff" d="m 11.997,0.99983 a 10,9.5 0 0 0 -0.853,0.041 c -0.2061,0.0163 -0.4079,0.0426 -0.6098,0.0703 a 10,9.5 0 0 0 -0.3203,0.0459 C 9.9262,1.20553 9.6437,1.26683 9.3652,1.33773 A 10,9.5 0 0 0 9.3105,1.35143 C 5.0893,2.45063 2,6.06253 2,10.34983 c 5.05e-5,0.03108 0.00255,0.06173 0.00293,0.09277 a 10,9.5 0 0 0 -0.0029,0.057 10,9.5 0 0 0 3.9014,7.514 l 0,2.9863 2.751,-1.5605 a 10,9.5 0 0 0 3.3476,0.56 10,9.5 0 0 0 9.975,-9.015 c 0.008,-0.11057 0.01377,-0.22143 0.01758,-0.33301 a 10,9.5 0 0 0 0.007,-0.152 10,9.5 0 0 0 -0.002,-0.062 c 0,-0.029 0.002,-0.059 0.002,-0.088 0,-4.8425 -3.938,-8.8334 -9.002,-9.3021 a 10,9.5 0 0 0 -0.832,-0.0401 c -0.056,-9e-4 -0.111,-0.0078 -0.167,-0.0078 -6.5e-4,0 -0.0013,-10e-8 -0.002,0 z"/>
 <path style="opacity:0.2;fill:#8b9cbe" d="m 11.997,0.99983 a 10,9.5 0 0 0 -0.853,0.041 c -0.2061,0.0163 -0.4079,0.0426 -0.6098,0.0703 a 10,9.5 0 0 0 -0.3203,0.0459 C 9.9262,1.20553 9.6437,1.26683 9.3652,1.33773 A 10,9.5 0 0 0 9.3105,1.35143 C 5.0893,2.45063 2,6.06253 2,10.34983 c 5.05e-5,0.03108 0.00255,0.06173 0.00293,0.09277 a 10,9.5 0 0 0 -0.0029,0.057 10,9.5 0 0 0 0.0088,0.159 C 2.09943,6.4563 5.15243,2.934 9.31053,1.8512 a 10,9.5 0 0 1 0.0547,-0.0137 c 0.2785,-0.0709 0.561,-0.1322 0.8487,-0.1807 a 10,9.5 0 0 1 0.3203,-0.0459 c 0.2019,-0.0277 0.4037,-0.054 0.6098,-0.0703 a 10,9.5 0 0 1 0.853,-0.041 l 0.002,0 c 0.05639,0 0.11083,0.00695 0.16699,0.00781 a 10,9.5 0 0 1 0.83203,0.040039 c 5.0015,0.46297 8.8983,4.3642 8.9932,9.126 2.62e-4,-0.0072 7.5e-4,-0.01429 10e-4,-0.02149 a 10,9.5 0 0 0 0.008,-0.152 10,9.5 0 0 0 -0.002,-0.062 c 0,-0.029 0.002,-0.059 0.002,-0.088 0,-4.8425 -3.938,-8.8334 -9.002,-9.3021 a 10,9.5 0 0 0 -0.832,-0.0401 c -0.056,-9e-4 -0.111,-0.0078 -0.167,-0.0078 l -0.002,0 z"/>
 <path style="opacity:0.2" d="M 2.0088,10.65883 C 2.0074,10.72283 2,10.78583 2,10.84983 c 5.05e-5,0.03108 0.00255,0.06173 0.00293,0.09277 a 10,9.5 0 0 0 -0.0029,0.057 10,9.5 0 0 0 3.9014,7.514 l 0,-0.5 a 10,9.5 0 0 1 -3.8926,-7.355 z m 19.982,0.01465 c -0.0038,0.1043 -0.0092,0.20809 -0.0166,0.31152 a 10,9.5 0 0 1 -9.974,9.014 10,9.5 0 0 1 -3.3477,-0.561 l -2.7509,1.561 0,0.5 2.751,-1.5605 a 10,9.5 0 0 0 3.3476,0.56 10,9.5 0 0 0 9.975,-9.015 c 0.008,-0.11057 0.01377,-0.22143 0.01758,-0.33301 a 10,9.5 0 0 0 0.007,-0.152 10,9.5 0 0 0 -0.002,-0.062 c 0,-0.029 0.002,-0.059 0.002,-0.088 0,-0.06 -0.008,-0.117 -0.009,-0.176 z"/>
 <circle style="fill:#17191e" cx="17" cy="8" r="2"/>
 <circle style="opacity:0.1" cx="7" cy="8.5" r="2"/>
 <circle style="fill:#17191e" cx="7" cy="8" r="2"/>
 <path style="opacity:0.2" d="m 15.96289,7.5000002 c 3.9018,0 7.1471,2.5953998 7.8535,6.0272998 A 8,7.5 0 0 1 24,15.1035 8,7.5 0 0 1 20.9629,20.977 l 0,2.523 -1.7773,-1.52 A 8,7.5 0 0 1 16,22.604 8,7.5 0 0 1 8.1449004,16.4961 c -0.117,-0.5057 -0.182,-1.0302 -0.182,-1.5684 0,-4.1027 3.5819996,-7.4276998 7.9999996,-7.4276998 z"/>
 <path style="fill:#8b9cbe" d="m 15.96289,7.0000002 c 3.9018,0 7.1471,2.5953998 7.8535,6.0272998 A 8,7.5 0 0 1 24,14.6035 8,7.5 0 0 1 20.9629,20.477 l 0,2.523 -1.7773,-1.52 A 8,7.5 0 0 1 16,22.104 8,7.5 0 0 1 8.1449004,15.9961 c -0.117,-0.5057 -0.182,-1.0302 -0.182,-1.5684 0,-4.1027 3.5819996,-7.4276998 7.9999996,-7.4276998 z"/>
 <path style="opacity:0.2;fill:#8b9cbe" d="m 15.962891,7 c -4.418,0 -8.0000004,3.325034 -8.0000004,7.427734 0,0.08112 0.010763,0.159758 0.013672,0.240235 C 8.1251403,10.686595 11.639292,7.5 15.962891,7.5 c 3.9018,0 7.147115,2.595444 7.853515,6.027344 A 8,7.5 0 0 1 23.986328,14.835938 8,7.5 0 0 0 24,14.603516 8,7.5 0 0 0 23.816406,13.027344 C 23.110006,9.595444 19.864691,7 15.962891,7 Z"/>
 <circle style="opacity:0.1" cx="12" cy="13.5" r="2"/>
 <circle style="fill:#17191e" cx="12" cy="13" r="2"/>
 <circle style="opacity:0.1" cx="20" cy="13.5" r="2"/>
 <circle style="fill:#17191e" cx="20" cy="13" r="2"/>
</svg>
