<svg xmlns="http://www.w3.org/2000/svg" width="24" height="24" version="1">
 <path style="opacity:0.2" d="M 12,2.5 A 10,10 0 0 0 2,12.5 10,10 0 0 0 3.2012,17.234 L 3.1836,17.219 C 3.6876,18.403 3.6496,18.726 3.5703,19.715 3.5151,20.404 3.3292,21.108 3.0957,21.504 2.884,21.863 2.7109,22.234 2.7109,22.328 2.7109,22.62 4.3985,22.517 5.8906,22.135 7.6385,21.687 7.7913,21.657 9.2246,22.107 L 9.209,22.094 A 10,10 0 0 0 12,22.5 10,10 0 0 0 22,12.5 10,10 0 0 0 12,2.5 Z"/>
 <path style="fill:#47ad5d" d="M 12 2 A 10 10 0 0 0 2 12 A 10 10 0 0 0 3.2012 16.734 L 3.1836 16.719 C 3.6876 17.903 3.6496 18.226 3.5703 19.215 C 3.5151 19.904 3.3292 20.608 3.0957 21.004 C 2.884 21.363 2.7109 21.734 2.7109 21.828 C 2.7109 22.12 4.3985 22.017 5.8906 21.635 C 7.6385 21.187 7.7913 21.157 9.2246 21.607 L 9.209 21.594 A 10 10 0 0 0 12 22 A 10 10 0 0 0 22 12 A 10 10 0 0 0 12 2 z"/>
 <path style="opacity:0.2" d="m 16.500547,17.242936 c 0.899586,-0.385544 1.31782,-0.869274 1.462036,-1.690976 0.109908,-0.626223 0.05922,-0.88677 -1.309246,-1.478057 -1.74,-0.751844 -1.632738,-0.755433 -2.382324,0.07977 -0.466506,0.519781 -0.666966,0.688426 -0.818358,0.688426 -1.773235,-0.430259 -3.7779175,-1.57276 -4.3517765,-3.204843 0,-0.06989 0.188736,-0.32557 0.419423,-0.568189 0.6782995,-0.713375 0.6790435,-0.730856 0.08682,-2.0402507 C 8.9253425,7.521386 8.8951293,7.5316216 8.1523893,7.5040499 7.3922974,7.4758388 7.1520994,7.5842622 6.6711814,8.1726513 c -0.497562,0.6087628 -0.67521,1.098486 -0.671112,1.8500777 0.0054,0.953935 0.353748,1.719874 1.362642,2.994476 1.7319599,2.188086 3.4217626,3.375689 5.8561906,4.115748 1.488887,0.452626 2.410157,0.483498 3.281645,0.109983 z"/>
 <path style="fill:#8b9cbe" d="m 16.500547,16.742935 c 0.899586,-0.385544 1.31782,-0.869274 1.462036,-1.690976 0.109908,-0.626223 0.05922,-0.88677 -1.309246,-1.478057 -1.74,-0.751844 -1.632738,-0.755433 -2.382324,0.07977 -0.466506,0.519781 -0.666966,0.688426 -0.818358,0.688426 -1.773235,-0.430259 -3.7779175,-1.57276 -4.3517765,-3.204843 0,-0.06989 0.188736,-0.32557 0.419423,-0.568189 C 10.198601,9.8556909 10.199345,9.8382099 9.6071215,8.5288159 8.9253425,7.0213856 8.8951293,7.0316212 8.1523893,7.0040495 7.3922974,6.9758384 7.1520994,7.0842618 6.6711814,7.6726509 c -0.497562,0.6087628 -0.67521,1.098486 -0.671112,1.8500775 0.0054,0.9539346 0.353748,1.7198736 1.362642,2.9944756 1.7319599,2.188086 3.4217626,3.375689 5.8561906,4.115748 1.488887,0.452626 2.410157,0.483498 3.281645,0.109983 z"/>
 <path style="fill:#8b9cbe;opacity:0.2" d="M 12 2 A 10 10 0 0 0 2 12 A 10 10 0 0 0 2.0098 12.207 A 10 10 0 0 1 12 2.5 A 10 10 0 0 1 21.99 12.293 A 10 10 0 0 0 22 12 A 10 10 0 0 0 12 2 z M 3.6016 18.738 C 3.5929 18.886 3.5851 19.031 3.5703 19.215 C 3.5151 19.904 3.3292 20.608 3.0957 21.004 C 2.884 21.363 2.7109 21.734 2.7109 21.828 C 2.7109 21.878 2.7758 21.912 2.8652 21.939 C 2.931 21.805 3.0057 21.657 3.0957 21.504 C 3.3292 21.108 3.5151 20.404 3.5703 19.715 C 3.6026 19.312 3.6168 19.023 3.6016 18.738 z"/>
</svg>
