<svg xmlns="http://www.w3.org/2000/svg" width="24" height="24" version="1">
 <path style="opacity:0.2" d="M 11.5,2.5 C 10.115,2.5 9,3.615 9,5 V 5.087891 C 8.3110601,5.3659983 7.6642193,5.738721 7.078125,6.1953125 L 7.0039062,6.1523438 C 5.8044611,5.4598436 4.2823436,5.8669612 3.5898438,7.0664062 l -0.5,0.8671876 c -0.6925,1.1994451 -0.2853826,2.7215622 0.9140624,3.4140622 l 0.082031,0.04687 C 4.0317595,11.760595 4.003044,12.129966 4,12.5 c 0.00304,0.370034 0.03176,0.73941 0.085937,1.105469 l -0.082031,0.04687 c -1.199445,0.6925 -1.6065625,2.214617 -0.9140624,3.414062 l 0.5,0.867188 c 0.6924999,1.199445 2.2146173,1.606562 3.4140624,0.914062 l 0.080078,-0.04687 C 7.6681523,19.257589 8.3129976,19.630955 9,19.910156 V 20.5 c 0,1.108 1.070791,2 2.400391,2 h 1.199218 C 13.929209,22.5 15,21.608 15,20.5 v -0.587891 c 0.68894,-0.278108 1.335781,-0.65083 1.921875,-1.107421 l 0.07422,0.04297 c 1.199445,0.6925 2.721561,0.285383 3.414062,-0.914062 l 0.5,-0.867188 c 0.6925,-1.199445 0.285383,-2.721562 -0.914062,-3.414062 l -0.08203,-0.04687 C 19.968242,13.239403 19.99696,12.870034 20,12.5 19.997,12.129966 19.96824,11.76059 19.91406,11.394531 l 0.08203,-0.04687 c 1.199445,-0.6925 1.606561,-2.2146171 0.914062,-3.4140622 l -0.5,-0.8671876 C 19.717664,5.8669601 18.19554,5.4598436 16.996094,6.1523438 l -0.08008,0.046875 C 16.331851,5.7424108 15.687003,5.3690443 15,5.0898438 V 5 C 15,3.615 13.884999,2.5 12.5,2.5 Z"/>
 <path style="fill:#4f4f4f" d="M 11.5,2 C 10.115,2 9,3.115 9,4.5 V 4.587891 C 8.3110601,4.8659983 7.6642193,5.238721 7.078125,5.6953125 L 7.0039062,5.6523438 C 5.8044611,4.9598436 4.2823436,5.3669612 3.5898438,6.5664062 l -0.5,0.8671876 c -0.6925,1.1994451 -0.2853826,2.7215622 0.9140624,3.4140622 l 0.082031,0.04687 C 4.0317595,11.260595 4.003044,11.629966 4,12 c 0.00304,0.370034 0.03176,0.73941 0.085937,1.105469 l -0.082031,0.04687 c -1.199445,0.6925 -1.6065625,2.214617 -0.9140624,3.414062 l 0.5,0.867188 c 0.6924999,1.199445 2.2146173,1.606562 3.4140624,0.914062 l 0.080078,-0.04687 C 7.6681523,18.757589 8.3129976,19.130955 9,19.410156 V 20 c 0,1.108 1.070791,2 2.400391,2 h 1.199218 C 13.929209,22 15,21.108 15,20 v -0.587891 c 0.68894,-0.278108 1.335781,-0.65083 1.921875,-1.107421 l 0.07422,0.04297 c 1.199445,0.6925 2.721561,0.285383 3.414062,-0.914062 l 0.5,-0.867188 c 0.6925,-1.199445 0.285383,-2.721562 -0.914062,-3.414062 l -0.08203,-0.04687 C 19.968242,12.739403 19.99696,12.370034 20,12 c -0.003,-0.370034 -0.03176,-0.73941 -0.08594,-1.105469 l 0.08203,-0.04687 c 1.199445,-0.6925 1.606561,-2.2146172 0.914062,-3.4140622 l -0.5,-0.8671876 C 19.717664,5.3669601 18.19554,4.9598436 16.996094,5.6523438 l -0.08008,0.046875 C 16.331851,5.2424108 15.687003,4.8690443 15,4.5898438 V 4.5 C 15,3.115 13.884999,2 12.5,2 Z"/>
 <path style="opacity:0.1;fill:#8b9cbe" d="m 11.49953,1.9999981 c -1.385,0 -2.5000005,1.115 -2.5000005,2.5 v 0.087891 C 8.3105896,4.8659964 7.6637488,5.2387191 7.0776545,5.6953106 L 7.0034357,5.6523419 C 5.8039906,4.9598418 4.2818732,5.3669593 3.5893733,6.5664043 l -0.5,0.8671876 C 2.8164668,7.9062796 2.7192205,8.4272971 2.7690607,8.9296856 2.8041869,8.5890313 2.9064334,8.2504529 3.0893733,7.9335919 l 0.5,-0.8671876 C 4.2818732,5.8669593 5.8039906,5.4598418 7.0034357,6.1523419 l 0.074219,0.042969 C 7.6637488,5.7387191 8.3105896,5.3659964 8.9995295,5.0878887 v -0.087891 c 0,-1.385 1.1150005,-2.5 2.5000005,-2.5 h 1 c 1.384999,0 2.5,1.115 2.5,2.5 v 0.089844 c 0.687003,0.2792005 1.331849,0.652567 1.916015,1.109375 l 0.08008,-0.046875 c 1.199445,-0.6925002 2.721566,-0.2853876 3.414062,0.9140624 l 0.5,0.8671876 c 0.18294,0.316861 0.285187,0.6554394 0.320313,0.9960937 0.04984,-0.5023885 -0.04741,-1.023406 -0.320313,-1.4960937 l -0.5,-0.8671876 C 19.717189,5.3669543 18.195069,4.9598417 16.995623,5.6523419 l -0.08008,0.046875 C 16.331379,5.2424089 15.686533,4.8690424 14.99953,4.5898419 v -0.089844 c 0,-1.385 -1.115001,-2.5 -2.5,-2.5 z M 4.0483576,11.373045 c -0.018203,0.208955 -0.047102,0.41709 -0.048828,0.626953 6.875e-4,0.08368 0.01622,0.166413 0.019531,0.25 0.011333,-0.286014 0.024481,-0.572192 0.066406,-0.855469 z m 15.9023434,0 -0.03711,0.02148 c 0.04193,0.283273 0.05508,0.569456 0.06641,0.855469 0.0033,-0.08359 0.01884,-0.166315 0.01953,-0.25 -0.0017,-0.209863 -0.03062,-0.417999 -0.04883,-0.626953 z m -15.9023434,1.753906 -0.044922,0.02539 c -0.882584,0.50956 -1.3322153,1.469111 -1.234375,2.417968 0.07663,-0.772422 0.5076177,-1.498375 1.234375,-1.917968 l 0.082031,-0.04687 C 4.0620156,13.44702 4.0622506,13.286433 4.0483576,13.126955 Z m 15.9023434,0 c -0.01389,0.159479 -0.01366,0.320062 -0.03711,0.478516 l 0.08203,0.04687 c 0.726757,0.419593 1.157744,1.145546 1.234375,1.917968 0.09784,-0.948857 -0.351791,-1.908408 -1.234375,-2.417968 z"/>
 <circle style="opacity:0.2" cx="17.5" cy="17" r="6.5"/>
 <circle style="fill:#48aeff" cx="17.5" cy="16.5" r="6.5"/>
 <path style="fill:#8b9cbe" d="m 14.214285,13 h 2.571429 C 16.90443,13 17,13.095568 17,13.214285 v 2.571429 C 17,15.904429 16.90442,16 16.785714,16 H 14.214285 C 14.095571,16 14,15.904429 14,15.785715 v -2.57143 C 14,13.095571 14.095571,13 14.214285,13 Z"/>
 <path style="fill:#8b9cbe" d="m 18.214285,13 h 2.571429 C 20.90443,13 21,13.09557 21,13.214285 v 2.571429 C 21,15.904429 20.90442,16 20.785714,16 H 18.214285 C 18.095571,16 18,15.90443 18,15.785715 v -2.57143 C 18,13.095571 18.095571,13 18.214285,13 Z"/>
 <path style="fill:#8b9cbe" d="m 14.214285,17 h 2.571429 C 16.90443,17 17,17.095568 17,17.214285 v 2.571429 C 17,19.904429 16.90442,20 16.785714,20 H 14.214285 C 14.095571,20 14,19.904429 14,19.785715 v -2.57143 C 14,17.095571 14.095571,17 14.214285,17 Z"/>
 <path style="fill:#8b9cbe" d="m 18.214285,17 h 2.571429 C 20.90443,17 21,17.09557 21,17.214285 v 2.571429 C 21,19.904429 20.90442,20 20.785714,20 H 18.214285 C 18.095571,20 18,19.90443 18,19.785715 v -2.57143 C 18,17.095571 18.095571,17 18.214285,17 Z"/>
</svg>
