<svg xmlns="http://www.w3.org/2000/svg" width="24" height="24" version="1.1">
 <g transform="matrix(0.49927889,0,0,0.49927889,0.00308515,0.03244995)">
  <path style="opacity:0.2;fill-rule:evenodd" d="M 21.939453,10.942959 A 4.0004,4.0004 0 0 0 18,14.9996 l 0,26 a 4.0004,4.0004 0 0 0 4,4 l 18,0 a 4.0004,4.0004 0 1 0 0,-8 l -14,0 0,-22 a 4.0004,4.0004 0 0 0 -4.060547,-4.056641 z"/>
  <path style="opacity:0.2" d="M 7.9394531,4.9440683 A 4.0004,4.0004 0 0 0 4,9.0007089 L 4,33.000709 a 4.0004,4.0004 0 0 0 5.984375,3.472656 L 22,29.608131 34.015625,36.473365 A 4.0004,4.0004 0 0 0 40,33.000709 L 40,9.0007089 a 4.0004,4.0004 0 1 0 -8,0 l 0,17.1074221 -8.015625,-4.580078 a 4.0004,4.0004 0 0 0 -3.96875,0 L 12,26.108131 12,9.0007089 A 4.0004,4.0004 0 0 0 7.9394531,4.9440683 Z"/>
  <path style="fill:none;stroke:#508d4c;stroke-width:8;stroke-linecap:round;stroke-linejoin:round" d="M 8,8 8,32 22,24 36,32 36,8"/>
  <path style="opacity:0.2;fill:#8b9cbe" d="M 7.9394531,3.9433594 A 4.0004,4.0004 0 0 0 4,8 L 4,9 A 4.0004,4.0004 0 0 1 7.9394531,4.9433594 4.0004,4.0004 0 0 1 12,9 L 12,8 A 4.0004,4.0004 0 0 0 7.9394531,3.9433594 Z m 27.9999999,0 A 4.0004,4.0004 0 0 0 32,8 l 0,1 a 4.0004,4.0004 0 1 1 8,0 L 40,8 A 4.0004,4.0004 0 0 0 35.939453,3.9433594 Z M 22.076172,20.001953 a 4.0004,4.0004 0 0 0 -2.060547,0.525391 L 12,25.107422 l 0,1 8.015625,-4.580078 a 4.0004,4.0004 0 0 1 3.96875,0 L 32,26.107422 l 0,-1 -8.015625,-4.580078 a 4.0004,4.0004 0 0 0 -1.908203,-0.525391 z"/>
  <path style="fill:none;stroke:#ff6f57;stroke-width:8;stroke-linecap:round;stroke-linejoin:round" d="m 22.0004,14 0,25.9996 18,0"/>
  <path style="opacity:0.2;fill:#8b9cbe;fill-rule:evenodd" d="M 21.939453,9.9433594 A 4.0004,4.0004 0 0 0 18,14 l 0,1 A 4.0004,4.0004 0 0 1 21.939453,10.943359 4.0004,4.0004 0 0 1 26,15 l 0,-1 A 4.0004,4.0004 0 0 0 21.939453,9.9433594 Z M 26,36 l 0,1 14,0 A 4.0004,4.0004 0 0 1 44.021484,40.488281 4.0004,4.0004 0 0 0 40,36 l -14,0 z"/>
 </g>
</svg>
