<svg xmlns="http://www.w3.org/2000/svg" width="24" height="24" version="1.1">
 <g transform="translate(0,-1028.3622)">
  <path style="opacity:0.2" d="m 19.606625,1050.3254 c -0.122497,-0.018 -0.258028,-0.051 -0.30118,-0.073 -0.04315,-0.023 -0.913328,-0.4999 -1.933726,-1.0612 -1.020398,-0.5614 -1.889628,-1.0385 -1.931622,-1.0602 -0.07339,-0.038 -0.125258,-0.032 -1.337239,0.1565 l -1.260888,0.1959 -1.705504,-0.1013 c -0.938028,-0.056 -1.7971147,-0.1052 -1.9090835,-0.11 -0.1947854,-0.01 -0.2798324,-0.035 -1.9688939,-0.6296 -0.9709228,-0.3415 -1.790109,-0.6366 -1.8204133,-0.6558 -0.049845,-0.032 -3.1315011,-2.5382 -3.2042932,-2.6064 -0.016907,-0.015 -0.2914391,-0.7519 -0.61007,-1.6355 -0.318631,-0.8838 -0.5943683,-1.6374 -0.6127497,-1.6749 -0.0299619,-0.061 -0.0087,-0.2593 0.205379,-1.9144 0.2231929,-1.7255 0.2424153,-1.8499 0.2941218,-1.903 0.030427,-0.031 0.6448118,-0.7603 1.3652991,-1.6201 l 1.3099773,-1.5633 1.3885974,-0.6799 1.3885963,-0.6798 1.867317,-0.4234 1.8673167,-0.4236 1.714751,0.037 1.714751,0.038 1.683701,0.528 1.683702,0.528 1.336099,0.8599 c 0.734855,0.473 1.359338,0.8852 1.38774,0.9161 0.04181,0.045 2.015318,2.4057 2.123683,2.5398 0.01701,0.021 0.172015,0.6539 0.344463,1.4062 L 23,1040.084 l -0.24395,1.4097 c -0.223785,1.2932 -0.249243,1.4167 -0.307996,1.4944 -0.550612,0.7276 -1.856026,2.3682 -1.90957,2.3998 -0.05206,0.031 -1.732325,1.3789 -1.85943,1.4919 -0.0098,0.01 0.263951,0.7934 0.608384,1.7437 0.344432,0.9502 0.626241,1.7306 0.626241,1.7341 0,0.01 -0.06582,0.01 -0.307054,-0.032 z"/>
  <path style="fill:#fc6500" d="m 19.606625,1049.8254 c -0.122497,-0.018 -0.258028,-0.051 -0.30118,-0.073 -0.04315,-0.023 -0.913328,-0.4999 -1.933726,-1.0612 -1.020398,-0.5614 -1.889628,-1.0385 -1.931622,-1.0602 -0.07339,-0.038 -0.125258,-0.032 -1.337239,0.1565 l -1.260888,0.1959 -1.705504,-0.1013 c -0.938028,-0.056 -1.7971147,-0.1052 -1.9090835,-0.11 -0.1947854,-0.01 -0.2798324,-0.035 -1.9688939,-0.6296 -0.9709228,-0.3415 -1.790109,-0.6366 -1.8204133,-0.6558 -0.049845,-0.032 -3.1315011,-2.5382 -3.2042932,-2.6064 -0.016907,-0.015 -0.2914391,-0.7519 -0.61007,-1.6355 -0.318631,-0.8838 -0.5943683,-1.6374 -0.6127497,-1.6749 -0.0299619,-0.061 -0.0087,-0.2593 0.205379,-1.9144 0.2231929,-1.7255 0.2424153,-1.8499 0.2941218,-1.903 0.030427,-0.031 0.6448118,-0.7603 1.3652991,-1.6201 l 1.3099773,-1.5633 1.3885974,-0.6799 1.3885963,-0.6798 1.867317,-0.4234 1.8673167,-0.4236 1.714751,0.037 1.714751,0.038 1.683701,0.528 1.683702,0.528 1.336099,0.8599 c 0.734855,0.473 1.359338,0.8852 1.38774,0.9161 0.04181,0.045 2.015318,2.4057 2.123683,2.5398 0.01701,0.021 0.172015,0.6539 0.344463,1.4062 L 23,1039.584 l -0.24395,1.4097 c -0.223785,1.2932 -0.249243,1.4167 -0.307996,1.4944 -0.550612,0.7277 -1.856026,2.3682 -1.90957,2.3998 -0.05206,0.031 -1.732325,1.3789 -1.85943,1.4919 -0.0098,0.01 0.263951,0.7934 0.608384,1.7437 0.344432,0.9502 0.626241,1.7306 0.626241,1.7341 0,0.01 -0.06582,0.01 -0.307054,-0.032 z"/>
  <path style="opacity:0.2" d="m 10.84375,1033.368 -1.6816406,0.3789 -1.6972656,0.3848 -1.2304688,0.6035 -1.1035156,0.539 -1.1054688,1.3203 c -0.3610013,0.4308 -0.694654,0.8279 -0.9433594,1.1231 -0.078501,0.093 -0.1312921,0.1566 -0.1894531,0.2246 -0.034499,0.2346 -0.087987,0.6199 -0.1894531,1.4043 -0.1769975,0.5673 -0.1165692,1.2133 -0.089844,1.7266 0.112138,0.3064 0.2618025,0.718 0.421875,1.1621 0.1578588,0.4377 0.3044944,0.8384 0.4121094,1.1269 0.017095,0.045 0.026135,0.073 0.039063,0.1074 0.067539,0.055 0.1310332,0.1067 0.2207031,0.1797 0.2983069,0.2438 0.691631,0.5636 1.0839844,0.8828 0.3922232,0.319 0.7845243,0.6357 1.0800782,0.875 0.1301185,0.1054 0.2296069,0.187 0.3125,0.254 0.083905,0.031 0.1837907,0.066 0.3203124,0.1152 0.30407,0.1095 0.7249494,0.2607 1.171875,0.418 l 0.050781,0.018 c 0.011168,0 0.018088,0.01 0.029297,0.01 h 0.00195 c 0.8436135,0.2969 1.2930904,0.4545 1.5019531,0.5215 0.037977,0.012 0.058717,0.017 0.083984,0.027 0.2168254,0.011 0.9636764,0.054 1.8808594,0.1093 l 1.544922,0.092 1.103516,-0.1718 c 0.606447,-0.094 0.916704,-0.142 1.152344,-0.17 h 0.002 c 0.100991,-0.01 0.239472,-0.027 0.423828,-0.017 h 0.0039 0.002 c 0.203753,0.014 0.325409,0.071 0.464844,0.125 h 0.09961 l 0.109375,0.055 c 0.09273,0.048 0.104835,0.058 0.203125,0.1114 h 0.002 c 0.102693,0.056 0.249625,0.1354 0.425781,0.2324 0.135908,0.075 0.348314,0.1912 0.515625,0.2832 -0.0082,-0.025 -0.01709,-0.05 -0.02539,-0.078 -0.0038,-0.013 -0.01632,-0.053 -0.0293,-0.1075 6.1e-4,0 -0.01991,-0.071 -0.03125,-0.1542 -0.0026,-0.02 -0.01552,-0.1255 -0.01172,-0.2481 0.0031,-0.1065 0.01338,-0.1345 0.02148,-0.1875 0.0081,-0.053 0.01951,-0.1132 0.01953,-0.1133 l 0.02148,-0.076 c -10e-7,0 0.0046,-0.012 0.01172,-0.031 0.0071,-0.019 0.01589,-0.043 0.02539,-0.068 0.01904,-0.051 0.02733,-0.068 0.02734,-0.068 l 0.02734,-0.088 0.05469,-0.07 c 0,0 0.05327,-0.072 0.107422,-0.1445 0.02709,-0.036 0.05391,-0.071 0.07422,-0.098 0.0059,-0.01 -0.0062,0.013 -0.0098,0.023 l 0.162109,-0.2773 h 0.113282 c 0.07062,-0.058 0.130336,-0.1074 0.236328,-0.1934 0.17805,-0.1443 0.401477,-0.3284 0.625,-0.5078 0.222848,-0.1788 0.443467,-0.3514 0.613281,-0.4863 h 0.002 c 0.07098,-0.057 0.125751,-0.1 0.175781,-0.1387 0.01138,-0.014 0.0074,-0.01 0.01758,-0.016 h 0.002 c 0.03166,-0.038 0.06539,-0.078 0.113282,-0.1367 0.131804,-0.1614 0.313545,-0.3877 0.511718,-0.6368 0.337543,-0.4242 0.690157,-0.8768 0.955079,-1.2226 0.03362,-0.1707 0.08729,-0.4683 0.189453,-1.0586 l 0.193359,-1.1133 -0.246094,-1.0742 c -0.08473,-0.3697 -0.166612,-0.7103 -0.226562,-0.9551 -0.0084,-0.035 -0.01313,-0.052 -0.01953,-0.078 -0.13811,-0.1658 -0.457771,-0.5502 -0.873047,-1.0469 -0.255479,-0.3056 -0.51088,-0.6087 -0.703125,-0.8379 -0.08181,-0.098 -0.143126,-0.1743 -0.197266,-0.2383 -0.06075,-0.041 -0.137216,-0.091 -0.242187,-0.1601 -0.24494,-0.1617 -0.580411,-0.3816 -0.94336,-0.6152 l -1.166015,-0.75 -1.490413,-0.4669 -1.482422,-0.4648 -1.501953,-0.029 z"/>
  <path style="fill:#fdcb00" transform="translate(0,1028.3622)" d="M 10.84375,4.5058594 9.1621094,4.8847656 7.4648438,5.2695312 6.234375,5.8730469 5.1308594,6.4121094 4.0253906,7.7324219 c -0.3610013,0.4308 -0.694654,0.8278468 -0.9433594,1.1230469 -0.078501,0.0932 -0.1312921,0.1566093 -0.1894531,0.2246093 -0.034499,0.2346 -0.087987,0.6198969 -0.1894531,1.4042969 -0.1769975,0.567319 -0.1165692,1.213286 -0.089844,1.726563 0.112138,0.306399 0.2618025,0.718009 0.421875,1.162109 0.1578588,0.4377 0.3044944,0.838453 0.4121094,1.126953 0.017095,0.0455 0.026135,0.07342 0.039063,0.107422 0.067539,0.0553 0.1310332,0.106687 0.2207031,0.179687 0.2983069,0.2438 0.691631,0.563613 1.0839844,0.882813 0.3922232,0.319 0.7845243,0.6357 1.0800782,0.875 0.1301185,0.1054 0.2296069,0.186906 0.3125,0.253906 0.083905,0.0313 0.1837907,0.06623 0.3203124,0.115234 0.30407,0.109501 0.7249494,0.260669 1.171875,0.417969 l 0.050781,0.01758 c 0.011168,0 0.018088,0.0098 0.029297,0.0098 h 0.00195 c 0.8436135,0.2969 1.2930904,0.454484 1.5019531,0.521484 0.037977,0.012 0.058717,0.01734 0.083984,0.02734 0.2168254,0.0114 0.9636764,0.05438 1.8808594,0.109375 l 1.544922,0.0918 1.103516,-0.171875 c 0.606447,-0.0939 0.916704,-0.141922 1.152344,-0.169922 h 0.002 c 0.100991,-0.008 0.239472,-0.02758 0.423828,-0.01758 h 0.0039 0.002 c 0.203753,0.0139 0.325409,0.071 0.464844,0.125 h 0.09961 l 0.109375,0.05469 c 0.09273,0.0483 0.104835,0.05833 0.203125,0.111328 h 0.002 c 0.102693,0.0563 0.249625,0.135422 0.425781,0.232422 0.135908,0.0746 0.348314,0.191203 0.515625,0.283203 -0.0082,-0.025 -0.01709,-0.05012 -0.02539,-0.07813 -0.0038,-0.0125 -0.01632,-0.05342 -0.0293,-0.107422 6.1e-4,0.0025 -0.01991,-0.0713 -0.03125,-0.154297 -0.0026,-0.0196 -0.01552,-0.125447 -0.01172,-0.248047 0.0031,-0.1065 0.01338,-0.1345 0.02148,-0.1875 0.0081,-0.0533 0.01951,-0.113181 0.01953,-0.113281 l 0.02148,-0.07617 c -10e-7,0 0.0046,-0.01225 0.01172,-0.03125 0.0071,-0.019 0.01589,-0.04336 0.02539,-0.06836 0.01904,-0.051 0.02733,-0.06836 0.02734,-0.06836 l 0.02734,-0.08789 0.05469,-0.07031 c 0,0 0.05327,-0.07253 0.107422,-0.144531 0.02709,-0.036 0.05391,-0.07066 0.07422,-0.09766 0.0059,-0.008 -0.0062,0.01344 -0.0098,0.02344 l 0.162109,-0.277344 h 0.113282 c 0.07062,-0.058 0.130336,-0.107359 0.236328,-0.193359 0.17805,-0.1443 0.401477,-0.328413 0.625,-0.507813 0.222848,-0.1788 0.443467,-0.351428 0.613281,-0.486328 h 0.002 c 0.07098,-0.0567 0.125751,-0.09967 0.175781,-0.138672 0.01138,-0.014 0.0074,-0.0056 0.01758,-0.01563 h 0.002 c 0.03166,-0.0378 0.06539,-0.07772 0.113282,-0.136718 0.131804,-0.1614 0.313545,-0.387619 0.511718,-0.636719 0.337543,-0.4242 0.690157,-0.876856 0.955079,-1.222656 0.03362,-0.1707 0.08729,-0.468294 0.189453,-1.058594 l 0.193359,-1.113281 -0.246094,-1.074219 c -0.08473,-0.3697001 -0.166612,-0.7102783 -0.226562,-0.9550782 -0.0084,-0.035 -0.01313,-0.052125 -0.01953,-0.078125 -0.13811,-0.1658 -0.457771,-0.5501751 -0.873047,-1.046875 -0.255479,-0.3056 -0.51088,-0.6086907 -0.703125,-0.8378907 -0.08181,-0.0976 -0.143126,-0.1742812 -0.197266,-0.2382812 -0.06075,-0.041 -0.137216,-0.091156 -0.242187,-0.1601563 -0.24494,-0.1617 -0.580411,-0.3816343 -0.94336,-0.6152344 l -1.166015,-0.75 -1.490413,-0.4668248 -1.482422,-0.4648438 -1.501953,-0.029297 z"/>
  <path style="fill:#17191e" d="m 5.492551,1044.1195 -0.5040786,-0.7429 -0.4583233,-0.2586 c -0.2562936,-0.1447 -0.4536035,-0.2706 -0.4476161,-0.2858 0.00589,-0.015 0.2524477,-0.3912 0.5479085,-0.8364 0.2954609,-0.4451 0.5327604,-0.8223 0.5273319,-0.8381 -0.00543,-0.016 -0.02038,-0.029 -0.03322,-0.029 -0.012845,0 -0.1854448,0.1001 -0.3835585,0.2224 -0.467829,0.2889 -1.1369474,0.6952 -1.2832022,0.7791 -0.1020171,0.059 -0.1165072,0.062 -0.1277235,0.025 -0.00696,-0.022 -0.084044,-0.4182 -0.1713012,-0.8801 l -0.1586506,-0.8398 0.1811638,-1.0035 c 0.09964,-0.552 0.1966671,-1.0892 0.2156158,-1.1938 0.032724,-0.1807 0.064481,-0.2422 0.633441,-1.2249 l 0.5989893,-1.0347 0.9162352,-0.4573 c 0.5039295,-0.2514 0.9244985,-0.4575 0.9345975,-0.4577 0.067843,0 -0.027365,0.1427 -0.342755,0.5216 -0.1986139,0.2386 -0.4011727,0.4836 -0.4501314,0.5444 -0.069986,0.087 -0.1436926,0.2609 -0.344792,0.8135 l -0.2557775,0.7028 0.1019349,0.6291 0.101935,0.6292 0.16941,0.1573 c 0.093175,0.087 0.2102702,0.1916 0.2602099,0.2335 l 0.090801,0.076 0.2059028,-0.094 0.2059028,-0.094 0.014905,-0.1279 c 0.01193,-0.1023 0.046225,-0.6714 0.048185,-0.7994 4.615e-4,-0.03 1.1507552,-1.297 1.1890915,-1.3096 0.011765,-0.01 0.2314801,0.2094 0.4882526,0.4738 l 0.4668593,0.4809 0.088817,0.3587 c 0.04885,0.1971 0.099406,0.3986 0.1123503,0.4476 0.019685,0.074 0.053317,0.1086 0.2055358,0.2084 l 0.1819994,0.1193 0.1419322,-0.2356 0.1419327,-0.2355 0.00767,-0.4965 0.00767,-0.4964 -0.4472239,-0.7258 c -0.3687563,-0.5985 -0.4637348,-0.7361 -0.5413268,-0.7846 -0.051756,-0.032 -0.423397,-0.2727 -0.8258667,-0.5344 -0.7116208,-0.4626 -0.7322217,-0.4781 -0.7484361,-0.5664 -0.00917,-0.05 -0.01283,-0.094 -0.00812,-0.098 0.011705,-0.01 2.2215334,0.4775 2.2760051,0.5021 0.023965,0.011 0.4115556,0.2654 0.8613029,0.5658 l 0.8177222,0.5461 0.100091,0.2983 c 0.05505,0.164 0.234599,0.6985 0.399,1.1875 l 0.298915,0.8894 -0.01647,0.5258 c -0.0091,0.2893 -0.02235,0.6597 -0.02953,0.8232 l -0.01306,0.2973 -0.30823,0.9039 -0.30823,0.9038 -0.437686,0.4437 -0.437687,0.4438 -0.2777719,0.562 c -0.1527751,0.3092 -0.2829093,0.5672 -0.2891873,0.5733 -0.00628,0.01 -0.3023777,-0.4759 -0.6579981,-1.0711 l -0.6465822,-1.0821 -0.3655974,-0.1188 -0.3655973,-0.1188 -0.3699909,0.2698 -0.3699918,0.2698 -0.0295,0.1283 c -0.1242183,0.5399 -0.5550672,2.2569 -0.5662857,2.2566 -0.00772,-10e-5 -0.2408806,-0.3346 -0.5181239,-0.7432 z"/>
  <path style="fill:#17191e" d="m 15.754408,1035.3635 c -0.139545,0 -0.254363,0.01 -0.254363,0.014 0,0.01 0.08323,0.28 0.183967,0.6045 0.187926,0.6052 0.198848,0.6535 0.221512,0.9612 0.0073,0.099 0.01755,0.2277 0.02346,0.287 0.0059,0.059 0.06769,0.803 0.137037,1.6523 l 0.125773,1.5431 -0.08917,1.5205 -0.08917,1.5206 -0.257179,0.6811 c -0.14096,0.3747 -0.25624,0.6873 -0.25624,0.6959 v 0 c 0,0.01 0.232286,-0.04 0.515297,-0.1071 0.456491,-0.1091 0.530173,-0.1204 0.653272,-0.1032 0.07632,0.01 0.469664,0.067 0.874784,0.1258 0.847685,0.1229 0.761995,0.1137 0.743378,0.082 -0.0081,-0.014 -0.137933,-0.4209 -0.288153,-0.9052 l -0.273135,-0.8806 -0.02722,-0.6655 c -0.01511,-0.3657 -0.02385,-0.6662 -0.01972,-0.6713 0.0041,0 0.225657,0.022 0.49277,0.058 l 0.4862,0.066 0.639192,-0.4571 0.639193,-0.458 0.281583,-0.6015 0.282521,-0.6016 -0.03755,-0.8531 -0.03754,-0.8532 -0.247793,-0.6516 -0.248731,-0.6517 -0.538762,-0.342 -0.539701,-0.3411 -0.733053,-0.047 -0.733993,-0.047 -0.687062,-0.288 -0.688,-0.288 z m 2.701317,3.1089 0.262811,0.2447 c 0.144394,0.1349 0.310946,0.2908 0.369812,0.347 l 0.107001,0.1022 -0.06664,0.4344 c -0.03641,0.2389 -0.07092,0.4426 -0.07697,0.4531 -0.0061,0.01 -0.191812,0.1329 -0.412988,0.2733 -0.445926,0.2829 -0.399353,0.2706 -0.786555,0.2103 l -0.250608,-0.039 0.0019,-0.5258 c 0.0018,-0.442 0.05258,-1.3231 0.08166,-1.4154 0.005,-0.016 0.109757,-0.033 0.259056,-0.043 0.137829,-0.01 0.309237,-0.023 0.381075,-0.029 z"/>
  <path style="fill:#17191e" d="m 13.340879,1037.3623 c -0.01929,3e-4 -0.259544,0.1403 -0.533541,0.3115 l -0.498415,0.3115 -0.331327,0.6595 -0.331327,0.6586 -0.0731,1.2066 -0.0731,1.2056 0.361707,1.0066 0.362655,1.0065 0.488922,0.4942 0.48987,0.4932 0.519301,0.072 c 0.28547,0.04 0.520448,0.074 0.522149,0.074 0.0017,0 0.138226,-0.062 0.303795,-0.1403 0.16557,-0.079 0.364262,-0.1722 0.441454,-0.2077 l 0.140505,-0.064 0.254429,-0.424 0.255378,-0.4239 0.17943,-0.873 0.180378,-0.8729 -0.01994,-0.7932 -0.01898,-0.7941 -0.256327,-0.8038 c -0.140943,-0.4425 -0.264986,-0.8196 -0.275315,-0.8383 -0.01033,-0.019 -0.220275,-0.2428 -0.466136,-0.498 l -0.446201,-0.4644 -0.570566,-0.1509 c -0.313764,-0.083 -0.58639,-0.1512 -0.605693,-0.151 z m 0.797464,3.6668 c 0.0097,0 0.163968,0.1249 0.34367,0.2865 l 0.327529,0.2942 0.03513,0.1587 c 0.01949,0.087 0.05965,0.2751 0.08924,0.4182 l 0.05411,0.2596 -0.10443,0.4547 -0.10443,0.4538 -0.327529,0.1663 -0.32753,0.1663 -0.290505,-0.097 -0.291454,-0.098 -0.168036,-0.5067 -0.168987,-0.5057 0.161392,-0.523 c 0.08865,-0.2874 0.161277,-0.5333 0.161391,-0.547 1.77e-4,-0.019 0.522835,-0.3453 0.610439,-0.3808 z"/>
  <path style="opacity:0.2;fill:#8b9cbe" d="m 10.697338,1031.3623 -1.8671767,0.4238 -1.8671765,0.4229 -1.3886633,0.6796 -1.388664,0.6807 -1.3095626,1.5625 c -0.7204874,0.8598 -1.334799,1.5891 -1.3652263,1.6201 -0.051707,0.053 -0.071727,0.1778 -0.2949202,1.9033 -0.2140835,1.6551 -0.23503871,1.853 -0.2050769,1.9141 6.5e-4,0 0.020193,0.056 0.021484,0.059 0.029912,-0.2704 0.082129,-0.6892 0.1835927,-1.4736 0.2231928,-1.7255 0.2432136,-1.8502 0.2949201,-1.9033 0.030427,-0.031 0.644739,-0.7603 1.3652263,-1.6201 l 1.3095627,-1.5625 1.3886638,-0.6807 1.3886633,-0.6796 1.8671765,-0.4229 1.8671771,-0.4238 1.714834,0.037 1.714833,0.038 1.683584,0.5273 1.683584,0.5283 1.33593,0.8604 c 0.734854,0.473 1.360261,0.8851 1.388663,0.916 0.04181,0.045 2.01467,2.4059 2.123035,2.54 0.01701,0.021 0.172276,0.6539 0.344724,1.4063 l 0.264647,1.1533 0.04883,-0.2852 -0.313475,-1.3681 c -0.172448,-0.7524 -0.327714,-1.3853 -0.344724,-1.4063 -0.108365,-0.1341 -2.081225,-2.495 -2.123035,-2.54 -0.0284,-0.031 -0.653809,-0.443 -1.388663,-0.916 l -1.33593,-0.8604 -1.683584,-0.5283 -1.683584,-0.5273 -1.714833,-0.038 z m 8.118116,15.4081 c -0.02483,0.021 -0.127383,0.1011 -0.136718,0.1094 -0.0098,0.01 0.263962,0.7939 0.608395,1.7441 0.241226,0.6655 0.334954,0.9235 0.439451,1.2139 0.07377,0.01 0.187499,0.026 0.187499,0.019 0,0 -0.282517,-0.7832 -0.62695,-1.7334 -0.267264,-0.7373 -0.388986,-1.1007 -0.471677,-1.3535 z"/>
  <path style="opacity:0.2" d="m 6.7471661,1034.8623 c -0.0047,0 -0.00135,0.048 0.00781,0.099 0.016215,0.088 0.0374,0.1038 0.7490186,0.5664 0.4024707,0.2616 0.773435,0.5022 0.8251907,0.5342 0.077592,0.048 0.1732325,0.1857 0.5419893,0.7842 l 0.4394504,0.7138 0.00782,-0.4873 -0.4472629,-0.7265 c -0.3687568,-0.5985 -0.4643973,-0.7357 -0.5419893,-0.7842 -0.051499,-0.032 -0.421126,-0.2711 -0.8212842,-0.5313 -0.3325005,-0.072 -0.7568305,-0.1713 -0.7607425,-0.1679 z m -0.2665999,0.2011 c -0.00589,2e-4 -0.3246436,0.1592 -0.5449188,0.2676 -0.093666,0.1131 -0.2211167,0.2654 -0.2480456,0.2988 -0.069986,0.087 -0.1436251,0.261 -0.3447245,0.8135 l -0.255858,0.7031 0.055664,0.3467 0.2001943,-0.5498 c 0.2010994,-0.5525 0.2747389,-0.7265 0.3447245,-0.8135 0.04896,-0.061 0.251579,-0.3053 0.4501929,-0.5439 0.3153901,-0.3789 0.4106136,-0.5225 0.3427712,-0.5225 z m 9.1688908,0.3057 c -0.06104,0 -0.149413,0 -0.149413,0.01 0,0.01 0.08286,0.28 0.183593,0.6045 0.187926,0.6052 0.199015,0.6532 0.221678,0.9609 0.0073,0.099 0.01753,0.2278 0.02344,0.2871 0.0059,0.059 0.06835,0.8031 0.137694,1.6523 l 0.108398,1.333 0.0166,-0.2919 -0.124999,-1.543 c -0.06935,-0.8492 -0.131774,-1.5921 -0.137694,-1.6514 -0.0059,-0.059 -0.01616,-0.1892 -0.02343,-0.288 -0.02266,-0.3077 -0.03375,-0.3558 -0.221678,-0.961 -0.01857,-0.06 -0.01723,-0.056 -0.03418,-0.1113 z m 2.806624,2.6035 -0.130858,0.011 c -0.07184,0.01 -0.243028,0.021 -0.380857,0.03 -0.149299,0.01 -0.253838,0.027 -0.258788,0.043 -0.02907,0.092 -0.08023,0.9731 -0.08203,1.415 l -0.0019,0.5264 h 0.0019 v -0.026 c 0.0018,-0.4419 0.05296,-1.3227 0.08203,-1.415 0.005,-0.016 0.109489,-0.033 0.258788,-0.043 0.137829,-0.01 0.309019,-0.022 0.380857,-0.029 l 0.130858,-0.012 0.262694,0.2441 c 0.144395,0.1349 0.310272,0.2915 0.369139,0.3477 l 0.04101,0.038 c 1.53e-4,-10e-4 -1.52e-4,-10e-4 0,0 l 0.06641,-0.4345 -0.107421,-0.1016 c -0.05887,-0.056 -0.224744,-0.2128 -0.369138,-0.3477 z m -6.970662,0.8359 -0.002,0.069 c -0.0091,0.2892 -0.02211,0.6598 -0.02929,0.8232 l -0.0127,0.2969 -0.308591,0.9043 -0.308592,0.9033 -0.437497,0.4433 -0.4374977,0.4444 -0.2783189,0.5615 c -0.1527751,0.3092 -0.2827808,0.5672 -0.2890608,0.5732 -0.00628,0.01 -0.3016022,-0.4751 -0.6572226,-1.0703 l -0.6474572,-1.082 -0.3652324,-0.1191 -0.3652323,-0.1192 -0.3701149,0.2696 -0.3701148,0.2705 -0.029295,0.1279 c -0.1242258,0.5399 -0.5551908,2.2571 -0.5664107,2.2568 -0.00772,-10e-5 -0.2413081,-0.3345 -0.5185514,-0.7432 l -0.5039033,-0.7421 -0.4580051,-0.2588 c -0.1240319,-0.07 -0.1365979,-0.088 -0.2167957,-0.1387 -0.073764,0.1129 -0.2289591,0.3462 -0.2314439,0.3525 -0.00599,0.015 0.191946,0.1415 0.4482396,0.2862 l 0.4580051,0.2588 0.5039033,0.7421 c 0.2772433,0.4087 0.5108315,0.7431 0.5185514,0.7432 0.01122,3e-4 0.4421849,-1.7169 0.5664032,-2.2568 l 0.029295,-0.1279 0.3701148,-0.2706 0.3701149,-0.2695 0.3652323,0.1192 0.3652324,0.1191 0.6474572,1.082 c 0.3556204,0.5952 0.6509426,1.0768 0.6572226,1.0703 0.00628,-0.01 0.1362857,-0.264 0.2890608,-0.5732 l 0.2783189,-0.5615 0.4374972,-0.4444 0.437498,-0.4433 0.308591,-0.9033 0.308592,-0.9043 0.0127,-0.2969 c 0.0072,-0.1634 0.02023,-0.534 0.02929,-0.8232 l 0.01661,-0.5264 z m 8.995065,0.459 -0.262694,0.5596 -0.282225,0.6015 -0.638668,0.458 -0.639645,0.4571 -0.486325,-0.066 c -0.267113,-0.036 -0.488035,-0.063 -0.492185,-0.058 -0.0031,0 0.0061,0.264 0.01465,0.502 0.01642,0 0.218388,0.021 0.477536,0.056 l 0.486326,0.066 0.639644,-0.4571 0.638669,-0.458 0.282224,-0.6015 0.282224,-0.6016 z m -17.4344682,0.9131 -0.045898,0.2549 0.1582022,0.8398 c 0.087257,0.462 0.1649156,0.8579 0.171874,0.8799 0.011216,0.036 0.025912,0.033 0.1279289,-0.025 0.1424518,-0.082 0.7846098,-0.4708 1.2499927,-0.7578 0.2336512,-0.3568 0.453843,-0.7012 0.449216,-0.7148 -0.00543,-0.016 -0.020365,-0.028 -0.033205,-0.028 -0.012845,0 -0.1846965,0.1004 -0.3828103,0.2227 -0.4678289,0.2889 -1.1369408,0.6944 -1.2831956,0.7783 -0.1020171,0.059 -0.1167124,0.061 -0.1279289,0.025 -0.00696,-0.022 -0.084617,-0.4179 -0.171874,-0.8799 z m 11.0927082,0.3486 c -0.0876,0.035 -0.610171,0.3619 -0.610348,0.3809 -1.14e-4,0.014 -0.07346,0.2594 -0.162108,0.5469 l -0.161132,0.5224 0.08008,0.2402 0.08105,-0.2627 c 0.08865,-0.2874 0.161994,-0.5331 0.162108,-0.5468 1.77e-4,-0.019 0.522744,-0.3454 0.610348,-0.3809 0.0097,0 0.164046,0.1245 0.343748,0.2862 l 0.327147,0.2939 0.03515,0.1592 c 0.01944,0.087 0.0593,0.274 0.08887,0.417 l 0.05469,-0.2393 -0.05469,-0.2598 c -0.02959,-0.1431 -0.06938,-0.3309 -0.08887,-0.4179 l -0.03515,-0.1592 -0.327147,-0.2939 c -0.179702,-0.1617 -0.334028,-0.2912 -0.343748,-0.2862 z m -2.61229,0.7588 -0.02637,0.4277 0.361326,1.0069 0.363279,1.0058 0.488278,0.4942 0.490232,0.4931 0.519528,0.072 c 0.28547,0.04 0.51978,0.074 0.521481,0.074 0.0017,0 0.139117,-0.062 0.304686,-0.1406 0.165569,-0.079 0.364212,-0.1716 0.441404,-0.207 l 0.140624,-0.064 0.253904,-0.4238 0.255858,-0.4248 0.17871,-0.8731 0.180663,-0.872 -0.01074,-0.4473 -0.169921,0.8193 -0.17871,0.8731 -0.255858,0.4248 -0.253904,0.4238 -0.140624,0.064 c -0.07719,0.035 -0.275835,0.1284 -0.441404,0.207 -0.165571,0.078 -0.302988,0.1406 -0.304688,0.1406 -0.0017,0 -0.23601,-0.035 -0.521481,-0.074 l -0.519528,-0.072 -0.490232,-0.4931 -0.488278,-0.4942 -0.363279,-1.0058 z m 5.142549,2.8457 c -0.123099,-0.017 -0.196825,-0.01 -0.653317,0.1035 -0.173719,0.041 -0.222806,0.048 -0.316404,0.066 -0.0971,0.2605 -0.199218,0.5344 -0.199218,0.541 0,0.01 0.232611,-0.04 0.515622,-0.1074 0.456492,-0.109 0.530218,-0.1207 0.653317,-0.1035 0.07632,0.01 0.468899,0.067 0.874018,0.126 0.847685,0.1229 0.762754,0.1142 0.744136,0.083 -0.0045,-0.01 -0.09752,-0.3056 -0.159179,-0.5 -0.101105,-0.013 -0.229358,-0.031 -0.584957,-0.083 -0.405119,-0.059 -0.797701,-0.1155 -0.874018,-0.126 z"/>
  <path style="fill:#8b9cbe;opacity:0.2" transform="translate(0,1028.3622)" d="M 10.84375 4.5058594 L 9.1621094 4.8847656 L 7.4648438 5.2695312 L 6.234375 5.8730469 L 5.1308594 6.4121094 L 4.0253906 7.7324219 C 3.6643893 8.1632219 3.3307367 8.5602687 3.0820312 8.8554688 C 3.0035302 8.9486687 2.9507391 9.0120781 2.8925781 9.0800781 C 2.8580791 9.3146781 2.8045911 9.699975 2.703125 10.484375 C 2.5810301 10.875718 2.5788869 11.290679 2.59375 11.6875 C 2.6059884 11.449443 2.6324806 11.2108 2.703125 10.984375 C 2.8045911 10.199975 2.8580791 9.8146781 2.8925781 9.5800781 C 2.9507391 9.5120781 3.0035302 9.4484688 3.0820312 9.3554688 C 3.3307367 9.0602687 3.6643893 8.6632219 4.0253906 8.2324219 L 5.1308594 6.9121094 L 6.234375 6.3730469 L 7.4648438 5.7695312 L 9.1621094 5.3847656 L 10.84375 5.0058594 L 12.378906 5.0449219 L 13.880859 5.0742188 L 15.363281 5.5390625 L 16.853516 6.0058594 L 18.019531 6.7558594 C 18.38248 6.9894594 18.717951 7.2093937 18.962891 7.3710938 C 19.067862 7.4401938 19.144328 7.49025 19.205078 7.53125 C 19.259218 7.59525 19.320534 7.6715313 19.402344 7.7695312 C 19.594589 7.9987312 19.84999 8.3018219 20.105469 8.6074219 C 20.520745 9.1041219 20.840406 9.4884969 20.978516 9.6542969 C 20.984916 9.6802969 20.989647 9.6974219 20.998047 9.7324219 C 21.057997 9.9772219 21.139879 10.3178 21.224609 10.6875 L 21.421875 11.544922 L 21.470703 11.259766 L 21.224609 10.185547 C 21.139879 9.8158468 21.057997 9.4752686 20.998047 9.2304688 C 20.989647 9.1954687 20.984916 9.1783437 20.978516 9.1523438 C 20.840406 8.9865437 20.520745 8.6021686 20.105469 8.1054688 C 19.84999 7.7998687 19.594589 7.4967781 19.402344 7.2675781 C 19.320534 7.1699781 19.259218 7.0932969 19.205078 7.0292969 C 19.144328 6.9882969 19.067862 6.9381409 18.962891 6.8691406 C 18.717951 6.7074406 18.38248 6.4875063 18.019531 6.2539062 L 16.853516 5.5039062 L 15.363281 5.0371094 L 13.880859 4.5722656 L 12.378906 4.5429688 L 10.84375 4.5058594 z M 17.203125 18.273438 C 17.202383 18.278092 17.201873 18.278613 17.201172 18.283203 C 17.193072 18.336203 17.182787 18.364203 17.179688 18.470703 C 17.179179 18.487123 17.181615 18.488264 17.181641 18.503906 C 17.21505 18.522266 17.246267 18.539552 17.277344 18.556641 C 17.269144 18.531641 17.260253 18.506526 17.251953 18.478516 C 17.248153 18.466016 17.235636 18.425096 17.222656 18.371094 C 17.223042 18.372675 17.211978 18.315936 17.203125 18.273438 z"/>
 </g>
</svg>
