<svg width="24" height="24" version="1.1" xmlns="http://www.w3.org/2000/svg">
 <g transform="translate(1)">
  <path d="m11 20.5c9 0 9-8 9-8s1-9-9-9c-9 0-9 8-9 8s0 9 9 9z" style="opacity:.2"/>
  <path d="m11 20c9 0 9-8 9-8s1-9-9-9c-9 0-9 8-9 8s0 9 9 9z" style="fill:#4f4f4f"/>
  <path d="m6 4.5c-4 0-5 4-5 4s0 6 4 6c5 0 5-3 5-5 0-1-1-5-4-5zm11 1c-2 0-2 4-2 4s0 4 3 4c4 0 3-4 3-4s0-4-4-4z" style="opacity:.2"/>
  <path d="M 11,3 C 2,3 2,11 2,11 2,11 2.00602,11.144341 2.011719,11.265625 2.0715138,10.124575 2.767001,3.5 11,3.5 c 8.304613,0 9.010773,6.1453486 9.015625,8.25 C 20.092154,10.520919 20.191827,3 11,3 Z" style="fill:#8b9cbe;opacity:.1"/>
  <path d="m5 14c5 0 5-3 5-5 0-1-1-5-4-5-4 0-5 4-5 4s0 6 4 6z" style="fill:#efefef"/>
  <path d="m18 13c-3 0-3-4-3-4s0-4 2-4c4 0 4 4 4 4s1 4-3 4z" style="fill:#efefef"/>
  <circle cx="19" cy="9" r="1" style="fill:#4f4f4f"/>
  <circle cx="5" cy="9" r="1" style="fill:#4f4f4f"/>
  <path d="M 6,4 C 2,4 1,8 1,8 1,8 1.0217289,8.2863254 1.0273438,8.4199219 1.0911705,8.1804219 2.127784,4.5 6,4.5 8.9576597,4.5 9.9661157,8.3753619 9.9941406,9.4433594 9.995873,9.2944074 10,9.1404718 10,9 10,8 9,4 6,4 Z m 11,1 c -2,0 -2,4 -2,4 0,0 0.01411,0.1524433 0.01563,0.1992188 C 15.041097,8.4543355 15.240648,5.5 17,5.5 c 4,0 4,4 4,4 0,0 0.07526,0.3485288 0.09766,0.822266 C 21.143193,9.5939533 21,9 21,9 21,9 21,5 17,5 Z" style="fill:#8b9cbe;opacity:.2"/>
 </g>
</svg>
