<svg xmlns="http://www.w3.org/2000/svg" width="24" height="24" version="1.1">
 <path style="opacity:.2" d="m2.01075 12.209a10 10 0 0 0 -0.01075 0.291 10 10 0 0 0 10 10 10 10 0 0 0 10 -10 10 10 0 0 0 -0.0105 -0.209 10 10 0 0 1 -9.9895 9.709 10 10 0 0 1 -9.989 -9.791z"/>
 <path style="fill:#248afd" d="m12 2a10 10 0 0 0 -10 10 10 10 0 0 0 10 10 10 10 0 0 0 10 -10 10 10 0 0 0 -10 -10z"/>
 <path style="opacity:.2;fill:#8b9cbe" d="m12 2a10 10 0 0 0 -10 10 10 10 0 0 0 0.01075 0.209 10 10 0 0 1 9.989 -9.709 10 10 0 0 1 9.9895 9.791 10 10 0 0 0 0.0105 -0.291 10 10 0 0 0 -10 -10z"/>
 <path style="opacity:.2" d="m12 4.5a8 8 0 0 0 -8 8 8 8 0 0 0 8 8 8 8 0 0 0 8 -8 8 8 0 0 0 -8 -8zm0 1a7 7 0 0 1 4.958984 2.0664062c-0.579046 0.1804668-0.964843 0.7413208-0.964843 1.3535157 0 0.665306 0.383529 1.030007 0.792968 1.6953121 0.469032 1.476675-0.01271 2.948544-0.447265 4.337891l-0.806641 2.693359-2.419922-8.1328121c0.485979-0.02551 1.625-0.027344 1.625-0.027344 0.435106-0.051484 0.384939-1.0412905-0.05078-1.015625 0 0-2.008817 0.1015625-2.853516 0.1015625-0.793673 0-2.4785153-0.1015625-2.4785152-0.1015625-0.43526-0.025669-0.4860418 0.990117-0.050781 1.015625 0 0 1.2623122 0.00185 1.6972652 0.027344l1.259765 2.8964841-2.2695315 5.300782-2.9394531-8.148438c0.486901-0.02551 0.6738281-0.0761719 0.6738281-0.0761719 0.4349525-0.051485 0.3846328-0.9905092-0.0507813-0.9648437 0 0-0.7530759 0.062514-1.4902343 0.085937a7 7 0 0 1 5.8144531 -3.1074214zm-6.6914062 4.947266 3.0898437 8.044922a7 7 0 0 1 -3.3984375 -5.992188 7 7 0 0 1 0.3085938 -2.052734zm13.394531 0.05859a7 7 0 0 1 0.296875 1.994144 7 7 0 0 1 -2.896484 5.660156l1.925781-5.5625c0.338683-0.846213 0.571907-1.486182 0.673828-2.091797zm-6.060547 2.949219 2.013672 5.515625a7 7 0 0 1 -2.65625 0.5293 7 7 0 0 1 -1.787109 -0.240234l2.429687-5.804688z"/>
 <path style="fill:#8b9cbe" d="m17.668591 7.3111879c-0.03489-0.002-0.282557-0.3108954-0.318368-0.3108954-0.793211 0-1.356445 0.677466-1.356445 1.419923 0 0.665306 0.384506 1.02903 0.793945 1.6943355 0.469032 1.476675-0.01405 2.949232-0.44861 4.338579l-0.806641 2.692383-2.419191-8.132524c0.485979-0.02551 1.624109-0.027345 1.624109-0.027345 0.435106-0.051484 0.38494-1.0412905-0.05078-1.015625 0 0-2.008902 0.102539-2.853601 0.102539-0.793673 0-2.477539-0.102539-2.477539-0.102539-0.43526-0.025669-0.4860415 0.990113-0.050781 1.015621 0 0 1.262469 0.00185 1.697422 0.027345l1.258787 2.897171-2.2687105 5.301758-2.9404295-8.1491255c0.486901-0.02551 0.675121-0.076172 0.675121-0.076172 0.4349525-0.051485 0.383656-0.9914855-0.051758-0.96582 0 0-1.0587835 0.102539-1.9036365 0.102539-0.132878 5e-7 -0.291719-0.0042-0.4550785-0.00879-0.4374112 0.5714495-0.1932031 1.3486325-0.1932031 1.3486325l3.6982421 9.632524c0.479614 0.248472 0.2404164 0.07037 0.7601864 0.217368l0.4482406-0.114088 2.612862-6.243905 2.173038 5.953878-0.136333 0.417792c0.57919-0.194133 0.511687-0.211376 1.031744-0.531826l2.317383-6.696289c0.461081-1.15203 0.733565-1.924063 0.733565-2.7436708-0.02844-0.4063885-0.272142-0.4636692-0.277342-0.8710167z"/>
 <path style="fill:#8b9cbe" d="m12 4a8 8 0 0 0 -8 8 8 8 0 0 0 8 8 8 8 0 0 0 8 -8 8 8 0 0 0 -8 -8zm0 1a7 7 0 0 1 7 7 7 7 0 0 1 -7 7 7 7 0 0 1 -7 -7 7 7 0 0 1 7 -7z"/>
</svg>
