<svg xmlns="http://www.w3.org/2000/svg" width="24" height="24" version="1">
 <rect style="opacity:0.2" width="20" height="20" x="2" y="2.5" rx="1" ry="1"/>
 <rect style="fill:#00a9f0" width="20" height="20" x="2" y="2" rx="1" ry="1"/>
 <path style="opacity:0.2;fill:#8b9cbe" d="M 3,2 C 2.446,2 2,2.446 2,3 v 0.5 c 0,-0.554 0.446,-1 1,-1 h 18 c 0.554,0 1,0.446 1,1 V 3 C 22,2.446 21.554,2 21,2 Z"/>
 <path style="opacity:0.1" d="M 10.107358,5.5 3.8456388,5.6740885 10.107358,5.8481771 Z m 0.676302,0 v 0.3417968 c 0.41419,0 0.735607,0.1028009 0.963412,0.3098957 0.217449,0.2070946 0.445104,0.5904472 0.693619,1.1703128 l 2.370703,5.3949217 -2.661458,5.260937 c -0.207095,0.445254 -0.424547,0.744542 -0.631641,0.920574 -0.207095,0.17603 -0.455057,0.269791 -0.734635,0.269791 V 19.5 h 2.868359 v -0.331771 c -0.621285,0 -0.931511,-0.207096 -0.931511,-0.631641 0,-0.217449 0.10313,-0.507444 0.29987,-0.859505 l 2.132813,-4.172656 1.863932,4.172656 c 0.186386,0.455609 0.289844,0.766417 0.289844,0.942448 0,0.186385 -0.07196,0.331875 -0.216927,0.414713 -0.144966,0.09319 -0.382903,0.133985 -0.724609,0.133985 V 19.5 h 3.788932 v -0.331771 c -0.279578,0 -0.527541,-0.113738 -0.734635,-0.320833 -0.207095,-0.21745 -0.445361,-0.611157 -0.714584,-1.170313 l -2.650521,-5.974609 2.101823,-4.0897135 c 0.414191,-0.8076698 0.714062,-1.3047603 0.931511,-1.491146 0.21745,-0.1863852 0.528512,-0.2798177 0.963412,-0.2798177 V 5.5 h -3.179167 v 0.3417968 c 0.352061,0 0.601516,0.052312 0.746484,0.1558593 0.134611,0.093192 0.205989,0.2583318 0.205989,0.4757816 0,0.1346114 -0.06135,0.3931826 -0.195964,0.7555987 L 15.712826,10.935938 14.086785,7.2290364 C 13.962528,6.9598127 13.900847,6.7109393 13.900847,6.4934895 c 0,-0.4348993 0.320835,-0.6516927 0.952475,-0.6516927 V 5.5 Z M 10.107358,6.3613281 3.8456388,6.5244789 11.265822,6.7295575 v -0.010029 l -0.02096,-0.010024 -0.01002,-0.010029 -0.02096,-0.010939 -0.02006,-0.010024 -0.02096,-0.010029 -0.02006,-0.010024 -0.031,-0.010939 -0.031,-0.010024 -0.03007,-0.010024 -0.04102,-0.010029 h -0.04102 l -0.04101,-0.010939 h -0.04102 -0.05104 L 10.10736,6.5964781 Z m 1.465625,0.809375 -7.7273442,0.2151044 7.9424482,0.2151039 -0.02006,-0.030991 -0.04101,-0.092058 -0.04102,-0.092056 -0.04101,-0.082032 -0.04102,-0.082032 z M 11.952149,8.0110675 3.8456388,8.2361978 12.157228,8.4622395 Z M 12.32129,8.8614583 3.8456388,9.0875 12.526369,9.3226561 Z m 0.369141,0.8403645 -8.8447922,0.2460939 9.0598962,0.2460943 z m 0.368229,0.8403652 -9.2130212,0.256119 9.4390632,0.257032 z m 0.369141,0.851301 -9.5821622,0.25612 9.8182302,0.266147 z m 0.36914,0.840365 L 3.8456388,12.5 l 10.1354162,0.277083 0.03099,-0.07201 z m 0.03099,0.840365 -9.982292,0.276172 9.705209,0.267057 z m -0.441147,0.870443 -9.5411469,0.257031 9.2850269,0.256119 z m -0.440235,0.861327 -9.1009119,0.246094 8.8548179,0.246094 z m -0.43112,0.871355 -8.6697919,0.235156 8.4246099,0.226042 z m -0.440235,0.860417 -8.2295569,0.226041 8.0144529,0.215104 z m -0.430207,0.871353 -7.7993499,0.205079 7.5842449,0.215104 0.03008,-0.05104 0.031,-0.07201 0.04101,-0.07201 z m -0.523178,0.861329 -7.2761719,0.205078 6.2617189,0.16315 v -0.204166 l 0.707292,-0.01094 h 0.02006 0.02096 l 0.02005,-0.01002 h 0.01094 0.02006 l 0.02096,-0.01002 h 0.01002 l 0.02006,-0.01002 0.01094,-0.01094 0.02006,-0.01002 h 0.02096 l 0.01002,-0.01002 0.02006,-0.01002 0.01002,-0.02096 0.02096,-0.01002 0.02006,-0.02096 0.02096,-0.01002 z M 10.107358,19.151823 3.8456388,19.325911 10.107358,19.5 Z"/>
 <path style="fill:#8b9cbe" d="M 10.107358,5 3.8456388,5.1740885 10.107358,5.3481771 Z m 0.676302,0 v 0.3417968 c 0.41419,0 0.735607,0.1028009 0.963412,0.3098957 0.217449,0.2070946 0.445104,0.5904472 0.693619,1.1703128 l 2.370703,5.3949217 -2.661458,5.260937 c -0.207095,0.445254 -0.424547,0.744542 -0.631641,0.920574 -0.207095,0.17603 -0.455057,0.269791 -0.734635,0.269791 V 19 h 2.868359 v -0.331771 c -0.621285,0 -0.931511,-0.207096 -0.931511,-0.631641 0,-0.217449 0.10313,-0.507444 0.29987,-0.859505 l 2.132813,-4.172656 1.863932,4.172656 c 0.186386,0.455609 0.289844,0.766417 0.289844,0.942448 0,0.186385 -0.07196,0.331875 -0.216927,0.414713 -0.144966,0.09319 -0.382903,0.133985 -0.724609,0.133985 V 19 h 3.788932 v -0.331771 c -0.279578,0 -0.527541,-0.113738 -0.734635,-0.320833 -0.207095,-0.21745 -0.445361,-0.611157 -0.714584,-1.170313 l -2.650521,-5.974609 2.101823,-4.0897135 c 0.414191,-0.8076698 0.714062,-1.3047603 0.931511,-1.491146 0.21745,-0.1863852 0.528512,-0.2798177 0.963412,-0.2798177 V 5 h -3.179167 v 0.3417968 c 0.352061,0 0.601516,0.052312 0.746484,0.1558593 0.134611,0.093192 0.205989,0.2583318 0.205989,0.4757816 0,0.1346114 -0.06135,0.3931826 -0.195964,0.7555987 L 15.712826,10.435938 14.086785,6.7290364 C 13.962528,6.4598127 13.900847,6.2109393 13.900847,5.9934895 c 0,-0.4348993 0.320835,-0.6516927 0.952475,-0.6516927 V 5 Z M 10.107358,5.8613281 3.8456388,6.0244789 11.265822,6.2295575 v -0.010029 l -0.02096,-0.010024 -0.01002,-0.010029 -0.02096,-0.010939 -0.02006,-0.010024 -0.02096,-0.010029 -0.02006,-0.010024 -0.031,-0.010939 -0.031,-0.010024 -0.03007,-0.010024 -0.04102,-0.010029 h -0.04102 l -0.04101,-0.010939 h -0.04102 -0.05104 L 10.10736,6.0964781 Z m 1.465625,0.809375 -7.7273442,0.2151044 7.9424482,0.2151039 -0.02006,-0.030991 -0.04101,-0.092058 -0.04102,-0.092056 -0.04101,-0.082032 -0.04102,-0.082032 z M 11.952149,7.5110675 3.8456388,7.7361978 12.157228,7.9622395 Z M 12.32129,8.3614583 3.8456388,8.5875 12.526369,8.8226561 Z M 12.690431,9.2018228 3.8456388,9.4479167 12.905535,9.694011 Z m 0.368229,0.8403652 -9.2130212,0.256119 9.4390632,0.257032 z m 0.369141,0.851301 -9.5821622,0.25612 9.8182302,0.266147 z m 0.36914,0.840365 L 3.8456388,12 l 10.1354162,0.277083 0.03099,-0.07201 z m 0.03099,0.840365 -9.982292,0.276172 9.705209,0.267057 z m -0.441147,0.870443 -9.5411469,0.257031 9.2850269,0.256119 z m -0.440235,0.861327 -9.1009119,0.246094 8.8548179,0.246094 z m -0.43112,0.871355 -8.6697919,0.235156 8.4246099,0.226042 z m -0.440235,0.860417 -8.2295569,0.226041 8.0144529,0.215104 z m -0.430207,0.871353 -7.7993499,0.205079 7.5842449,0.215104 0.03008,-0.05104 0.031,-0.07201 0.04101,-0.07201 z m -0.523178,0.861329 -7.2761719,0.205078 6.2617189,0.16315 v -0.204166 l 0.707292,-0.01094 h 0.02006 0.02096 l 0.02005,-0.01002 h 0.01094 0.02006 l 0.02096,-0.01002 h 0.01002 l 0.02006,-0.01002 0.01094,-0.01094 0.02006,-0.01002 h 0.02096 l 0.01002,-0.01002 0.02006,-0.01002 0.01002,-0.02096 0.02096,-0.01002 0.02006,-0.02096 0.02096,-0.01002 z M 10.107358,18.651823 3.8456388,18.825911 10.107358,19 Z"/>
 <path style="opacity:0.7" d="M 3.8457031 12 L 13.980469 12.277344 L 14.011719 12.205078 L 13.917969 12 L 3.8457031 12 z M 14.714844 12 L 14.810547 12.216797 L 12.150391 17.478516 C 11.943296 17.92377 11.724672 18.222405 11.517578 18.398438 C 11.310483 18.574468 11.062781 18.667969 10.783203 18.667969 L 10.783203 19 L 13.652344 19 L 13.652344 18.667969 C 13.031059 18.667969 12.720703 18.461654 12.720703 18.037109 C 12.720703 17.81966 12.822791 17.529795 13.019531 17.177734 L 15.152344 13.003906 L 17.017578 17.177734 C 17.203964 17.633343 17.306641 17.94311 17.306641 18.119141 C 17.306641 18.305526 17.234811 18.452318 17.089844 18.535156 C 16.944878 18.628346 16.70694 18.667969 16.365234 18.667969 L 16.365234 19 L 20.154297 19 L 20.154297 18.667969 C 19.874719 18.667969 19.627016 18.554751 19.419922 18.347656 C 19.212827 18.130206 18.974301 17.73689 18.705078 17.177734 L 16.408203 12 L 14.714844 12 z M 13.828125 12.574219 L 3.8457031 12.849609 L 13.550781 13.117188 L 13.828125 12.574219 z M 13.386719 13.445312 L 3.8457031 13.701172 L 13.130859 13.957031 L 13.386719 13.445312 z M 12.947266 14.306641 L 3.8457031 14.552734 L 12.701172 14.798828 L 12.947266 14.306641 z M 12.515625 15.177734 L 3.8457031 15.412109 L 12.269531 15.638672 L 12.515625 15.177734 z M 12.074219 16.037109 L 3.8457031 16.263672 L 11.859375 16.478516 L 12.074219 16.037109 z M 11.644531 16.908203 L 3.8457031 17.113281 L 11.429688 17.330078 L 11.460938 17.277344 L 11.490234 17.207031 L 11.53125 17.134766 L 11.644531 16.908203 z M 11.121094 17.769531 L 3.8457031 17.974609 L 10.107422 18.138672 L 10.107422 17.933594 L 10.814453 17.923828 L 10.833984 17.923828 L 10.855469 17.923828 L 10.875 17.914062 L 10.886719 17.914062 L 10.90625 17.914062 L 10.927734 17.904297 L 10.9375 17.904297 L 10.957031 17.892578 L 10.96875 17.882812 L 10.988281 17.873047 L 11.009766 17.873047 L 11.019531 17.863281 L 11.039062 17.851562 L 11.050781 17.832031 L 11.070312 17.822266 L 11.091797 17.800781 L 11.111328 17.791016 L 11.121094 17.769531 z M 10.107422 18.652344 L 3.8457031 18.826172 L 10.107422 19 L 10.107422 18.652344 z"/>
</svg>
