<svg xmlns="http://www.w3.org/2000/svg" width="24" height="24" version="1">
 <rect style="fill:#8e8e8e" width="1" height="19" x="15" y="-21" transform="rotate(90)"/>
 <rect style="fill:#8e8e8e" width="1" height="19" x="13" y="-21" transform="rotate(90)"/>
 <rect style="fill:#8e8e8e" width="1" height="19" x="11" y="-21" transform="rotate(90)"/>
 <rect style="fill:#8e8e8e" width="1" height="19" x="9" y="-21" transform="rotate(90)"/>
 <rect style="fill:#8e8e8e" width="1" height="19" x="17" y="-21" transform="rotate(90)"/>
 <rect style="fill:#8e8e8e" width="1" height="19" x="19" y="-21" transform="rotate(90)"/>
 <rect style="fill:#8e8e8e" width="1" height="19" x="7" y="-21" transform="rotate(90)"/>
 <rect style="fill:#8e8e8e" width="1" height="19" x="5" y="-21" transform="rotate(90)"/>
 <rect style="fill:#8e8e8e" width="1" height="19" x="11" y="3"/>
 <rect style="fill:#8e8e8e" width="1" height="19" x="9" y="3"/>
 <rect style="fill:#8e8e8e" width="1" height="19" x="7" y="3"/>
 <rect style="fill:#8e8e8e" width="1" height="19" x="5" y="3"/>
 <rect style="fill:#8e8e8e" width="1" height="19" x="13" y="3"/>
 <rect style="fill:#8e8e8e" width="1" height="19" x="15" y="3"/>
 <rect style="fill:#8e8e8e" width="1" height="19" x="17" y="3"/>
 <rect style="fill:#8e8e8e" width="1" height="19" x="3" y="3"/>
 <rect style="fill:#8e8e8e" width="1" height="19" x="19" y="3"/>
 <rect style="opacity:0.2" width="17" height="17" x="-21.5" y="-20" rx=".85" ry="1.063" transform="matrix(0,-1,-1,0,0,0)"/>
 <rect style="fill:#b7b7b7" width="17" height="17" x="-21" y="-20" rx=".85" ry="1.063" transform="matrix(0,-1,-1,0,0,0)"/>
 <path style="opacity:0.2;fill:#8b9cbe" d="M 4.0625,4 C 3.473875,4 3,4.3787094 3,4.8496094 v 0.5 C 3,4.8787094 3.473875,4.5 4.0625,4.5 h 14.875 C 19.526125,4.5 20,4.8787094 20,5.3496094 v -0.5 C 20,4.3787094 19.526125,4 18.9375,4 Z"/>
 <path style="fill-rule:evenodd;opacity:0.5" d="M 11.000001,5.5000004 C 9.892001,5.5000004 9,6.3920004 9,7.5000001 V 12.5 c 0,0.0135 0.0035,0.0255 0.004,0.039 A 4,4 0 0 0 7,16 a 4,4 0 0 0 4.000001,4 4,4 0 0 0 4,-4 4,4 0 0 0 -2.004,-3.463 c 0,-0.013 0.004,-0.025 0.004,-0.037 V 7.5000001 c 0,-1.1079997 -0.892,-1.9999997 -2,-1.9999997 z m 0,1 c 0.554,0 1,0.446 1,0.9999997 V 13.176 a 3,3 0 0 1 2,2.824 3,3 0 0 1 -3,3 A 3,3 0 0 1 8,16 3,3 0 0 1 10.000001,13.175 V 7.5000001 c 0,-0.5539997 0.446,-0.9999997 1,-0.9999997 z"/>
 <path style="opacity:0.2" d="M 10.000001,11.0002 V 13.675 C 8.8025003,14.098 8.0015,15.23 8,16.5 c 0,1.6568 1.343201,3 3.000001,3 1.6568,0 3,-1.3432 3,-3 -0.0018,-1.2698 -0.8028,-2.401 -2,-2.8242 v -2.676 z"/>
 <path style="fill:#f75f5f" d="m 10.000001,10.5 v 2.6748 C 8.8025003,13.5978 8.0015,14.7298 8,15.9998 c 0,1.6568 1.343201,3 3.000001,3 1.6568,0 3,-1.3432 3,-3 -0.0018,-1.2698 -0.8028,-2.401 -2,-2.8242 v -2.676 z"/>
</svg>
