<svg xmlns="http://www.w3.org/2000/svg" width="24" height="24" version="1.1">
 <circle style="opacity:0.2" cx="12" cy="12.5" r="10"/>
 <circle style="fill:#285da4" cx="12" cy="12" r="10"/>
 <path style="opacity:0.1;fill:#8b9cbe" d="M 12,2 A 10,10 0 0 0 2,12 10,10 0 0 0 2.01075,12.291 10,10 0 0 1 12,2.5 10,10 0 0 1 21.9895,12.209 10,10 0 0 0 22,12 10,10 0 0 0 12,2 Z"/>
 <path style="opacity:0.2" d="m 11.191406,5.5709397 c -0.190038,0.00407 -0.339933,0.060872 -0.392578,0.060547 -1.2165016,0.169027 -0.439329,1.4441443 0.07617,3.0253905 0.04401,0.4047652 -1.1037517,0.2364042 -1.3808594,-0.1875 C 8.5595514,6.2075089 8.3094086,6.4589789 8.0488281,6.3932053 7.7992267,6.3423029 6.9319116,6.7789873 6.9511719,7.6939866 6.9544619,7.9568368 7.122526,9.8427114 7.125,10.227189 6.0293293,12.088183 5.4821571,13.930247 6.8554688,15.83461 c 0.9840729,1.289484 3.3488132,1.691801 4.9003902,1.664063 3.302,0.0013 4.908938,-1.791539 6.800782,-3.255859 C 20.00162,13.061081 18.518961,11.57153 18.169922,11.363907 15.176127,9.4276028 12.659512,9.8311464 12.619141,9.524065 12.597961,9.1691267 12.610141,7.782808 12.558591,7.4322678 12.3554,5.8010236 11.609486,5.5611747 11.191406,5.5709397 Z m 6.550782,0.4003906 c -0.613268,0.09526 -0.914682,3.5686767 -0.640626,4.0937487 0.940759,-0.5913083 0.760915,-3.2141163 0.640626,-4.0937487 z m 2.125,0.8046875 c -1.941963,2.5528505 -1.481201,2.076392 -1.966797,4.1249992 0.185268,0.253498 2.697407,-3.8223869 1.966797,-4.1249992 z M 13,10.500626 c 0.552285,0 1,0.447715 1,1 0,0.552285 -0.447715,1 -1,1 -0.552285,0 -1,-0.447715 -1,-1 0,-0.552285 0.447715,-1 1,-1 z"/>
 <path style="fill:#8b9cbe" d="M 11.191406 5.0703125 C 11.001368 5.0743825 10.851473 5.1311844 10.798828 5.1308594 C 9.5823264 5.2998865 10.359499 6.5750038 10.875 8.15625 C 10.919013 8.5610152 9.7712483 8.3926542 9.4941406 7.96875 C 8.5595514 5.7068817 8.3094086 5.9583517 8.0488281 5.8925781 C 7.7992267 5.8416757 6.9319116 6.2783601 6.9511719 7.1933594 C 6.9544619 7.4562096 7.122526 9.3420844 7.125 9.7265625 C 6.0293293 11.587557 5.4821571 13.429621 6.8554688 15.333984 C 7.8395417 16.623468 10.204282 17.025785 11.755859 16.998047 C 15.057859 16.999347 16.664797 15.206508 18.556641 13.742188 C 20.00162 12.560455 18.518961 11.070904 18.169922 10.863281 C 15.176127 8.9269756 12.659512 9.3305199 12.619141 9.0234375 C 12.597961 8.6684995 12.610144 7.2821808 12.558594 6.9316406 C 12.3554 5.3003964 11.609486 5.0605475 11.191406 5.0703125 z M 17.742188 5.4707031 C 17.12892 5.5659631 16.827506 9.03938 17.101562 9.5644531 C 18.042321 8.9731435 17.862477 6.3503355 17.742188 5.4707031 z M 19.867188 6.2753906 C 17.925225 8.8282411 18.385987 8.3517826 17.900391 10.400391 C 18.085659 10.653889 20.597798 6.5780029 19.867188 6.2753906 z M 13 10 C 13.552285 10 14 10.447715 14 11 C 14 11.552285 13.552285 12 13 12 C 12.447715 12 12 11.552285 12 11 C 12 10.447715 12.447715 10 13 10 z"/>
</svg>
