<svg xmlns="http://www.w3.org/2000/svg" width="24" height="24" version="1">
 <rect opacity=".2" width="6" height="6" x="-3.35" y="5.59" rx="1" ry="1" transform="rotate(-45)"/>
 <rect fill="#597123" width="6" height="6" x="-2.99" y="5.24" rx="1" ry="1" transform="rotate(-45)"/>
 <path fill="#fff" opacity=".1" d="m5.8291 1.9912c-0.25562 0-0.51116 0.098077-0.70703 0.29395l-2.8282 2.8281c-0.2604 0.2604-0.3436 0.6258-0.2578 0.957 0.0434-0.1668 0.1267-0.3258 0.2578-0.457l2.8282-2.8281c0.39174-0.39174 1.0223-0.39174 1.4141 0l2.8291 2.8281c0.1312 0.1312 0.2145 0.29017 0.25781 0.45703 0.085749-0.33119 0.00255-0.69666-0.25781-0.95703l-2.8292-2.8281c-0.1958-0.1959-0.4514-0.294-0.707-0.294z"/>
 <rect opacity=".2" width="20" height="20" x="2" y="2.5" rx="10" ry="10"/>
 <rect fill="#96ba42" width="20" height="20" x="2" y="2" rx="10" ry="10"/>
 <circle opacity=".2" cx="12" cy="12.5" r="8"/>
 <path fill="#fff" opacity=".2" d="m12 2c-5.54 0-10 4.46-10 10 0 0.08394 0.00382 0.16657 0.00586 0.25 0.1323-5.4231 4.538-9.75 9.9941-9.75s9.8618 4.3269 9.9941 9.75c0.002-0.083 0.006-0.166 0.006-0.25 0-5.54-4.46-10-10-10z"/>
 <circle fill="#8b9cbe" cx="12" cy="12" r="8"/>
 <rect fill="#f45246" width="2" height="7" x="15.39" y="-1.61" rx="1" ry="1" transform="rotate(30)"/>
 <g opacity=".1" transform="matrix(.5 0 0 .5 0 .5)">
  <circle cx="24" cy="36" r="2"/>
  <circle cx="24" cy="12" r="2"/>
  <circle cx="24" cy="-12" r="2" transform="rotate(90)"/>
  <circle cx="24" cy="-36" r="2" transform="rotate(90)"/>
 </g>
 <ellipse opacity=".1" cx="12" cy="12.5" rx="2" ry="2"/>
 <ellipse fill="#4d4d4d" cx="12" cy="12" rx="2" ry="2"/>
 <g fill="#4d4d4d" transform="scale(.5)">
  <circle cx="24" cy="36" r="2"/>
  <circle cx="24" cy="12" r="2"/>
  <circle cx="24" cy="-12" r="2" transform="rotate(90)"/>
  <circle cx="24" cy="-36" r="2" transform="rotate(90)"/>
 </g>
</svg>
