<svg xmlns="http://www.w3.org/2000/svg" width="24" height="24" version="1">
 <rect style="opacity:0.2" width="20" height="20" x="2" y="2.5" rx="1" ry="1"/>
 <rect style="fill:#ff7515" width="20" height="20" x="2" y="2" rx="1" ry="1"/>
 <path style="opacity:0.2" d="M 5.1464845,8.5 C 5.0651925,8.5 5,8.565391 5,8.645508 v 8.709961 C 5,17.434888 5.0651925,17.5 5.1464845,17.5 H 6.895508 c 0.080829,0 0.147461,-0.06511 0.147461,-0.144531 v -6.686523 c 0,-0.07896 0.066168,-0.143555 0.1474605,-0.143555 H 11.53125 c 1.15033,0 1.476563,0.885533 1.476563,1.457031 v 5.373047 c 0,0.07942 0.06617,0.144531 0.147461,0.144531 h 1.697265 C 14.93337,17.5 15,17.434888 15,17.355469 V 11.176758 C 15,10.667031 14.939187,9.9341755 14.285156,9.2890625 13.600871,8.6156185 12.976232,8.5 12.278321,8.5 Z m 11.9873045,0 C 17.059652,8.5 17,8.565391 17,8.645508 v 8.709961 C 17,17.434888 17.059652,17.5 17.133789,17.5 h 1.731445 C 18.938738,17.5 19,17.434888 19,17.355469 V 8.645508 C 19,8.565391 18.938738,8.5 18.865234,8.5 Z m -8.004883,4 C 9.05786,12.5 9,12.558855 9,12.63086 v 4.739257 C 9,17.441702 9.0578595,17.5 9.128906,17.5 h 1.743165 C 10.942511,17.5 11,17.441702 11,17.370117 V 12.63086 C 11,12.558855 10.942511,12.5 10.872071,12.5 Z"/>
 <path style="fill:#8b9cbe" d="M 5.1464845,8 C 5.0651925,8 5,8.065391 5,8.145508 v 8.709961 C 5,16.934888 5.0651925,17 5.1464845,17 H 6.895508 c 0.080829,0 0.147461,-0.06511 0.147461,-0.144531 v -6.686523 c 0,-0.07896 0.066168,-0.143555 0.1474605,-0.143555 H 11.53125 c 1.15033,0 1.476563,0.885533 1.476563,1.457031 v 5.373047 c 0,0.07942 0.06617,0.144531 0.147461,0.144531 h 1.697265 C 14.93337,17 15,16.934888 15,16.855469 V 10.676758 C 15,10.167031 14.939187,9.4341755 14.285156,8.7890625 13.600871,8.1156185 12.976232,8 12.278321,8 Z M 17.133789,8 C 17.059652,8 17,8.065391 17,8.145508 v 8.709961 C 17,16.934888 17.059652,17 17.133789,17 h 1.731445 C 18.938738,17 19,16.934888 19,16.855469 V 8.145508 C 19,8.065391 18.938738,8 18.865234,8 Z M 9.128906,12 C 9.05786,12 9,12.058855 9,12.13086 v 4.739257 C 9,16.941702 9.0578595,17 9.128906,17 h 1.743165 C 10.942511,17 11,16.941702 11,16.870117 V 12.13086 C 11,12.058855 10.942511,12 10.872071,12 Z"/>
 <path style="opacity:0.2;fill:#8b9cbe" d="M 3,2 C 2.446,2 2,2.446 2,3 v 0.5 c 0,-0.554 0.446,-1 1,-1 h 18 c 0.554,0 1,0.446 1,1 V 3 C 22,2.446 21.554,2 21,2 Z"/>
</svg>
