<svg xmlns="http://www.w3.org/2000/svg" width="24" height="24" version="1">
 <path style="opacity:0.2" d="m 20,21.5 v -18 c 0,-0.554 -0.473876,-1 -1.0625,-1 H 4.0625 C 3.473875,2.5 3,2.946 3,3.5 v 18 c 0,0.554 0.473875,1 1.0625,1 h 14.875 C 19.526124,22.5 20,22.054 20,21.5 Z"/>
 <path style="fill:#ce3f39" d="M 20,21 V 3 C 20,2.446 19.526124,2 18.9375,2 H 4.0625 C 3.473875,2 3,2.446 3,3 v 18 c 0,0.554 0.473875,1 1.0625,1 h 14.875 C 19.526124,22 20,21.554 20,21 Z"/>
 <path style="opacity:0.3" d="M 6,4 C 5.446,4 5,4.446 5,5 v 4 c 0,0.554 0.446,1 1,1 h 4 c 0.554,0 1,-0.446 1,-1 V 5 C 11,4.446 10.554,4 10,4 Z m 6,0 v 1 h 6 V 4 Z m 0,3 v 1 h 6 V 7 Z m 0,3 v 1 h 6 v -1 z m -7,3 v 1 h 13 v -1 z m 0,3 v 1 h 13 v -1 z m 0,3 v 1 h 13 v -1 z"/>
 <circle style="fill:#5b5b5b" cx="17.5" cy="17.5" r="5.5"/>
 <path style="fill:#8b9cbe;fill-rule:evenodd" d="m 17.5,15 c -0.7754,0.0076 -1.55605,0.18472 -2.23145,0.5675 -0.269205,0.17535 -0.5924,0.40183 -0.83595,0.63 -0.383245,0.37529 -0.71125,0.81315 -0.9326,1.303 0.60745,1.34005 1.94295,2.32225 3.4121,2.4673 0.9637,0.109085 1.9722,-0.05744 2.81935,-0.5343 0.269195,-0.17535 0.5924,-0.40183 0.83595,-0.63 0.38325,-0.375295 0.71125,-0.8132 0.9326,-1.303 -0.6075,-1.34 -1.9429,-2.3224 -3.4121,-2.46735 C 17.89296,15.0104 17.696255,14.9999 17.5,14.9999 Z m 0,1.0002 c 0.8035,-0.0178 1.51515,0.70105 1.5,1.50035 0.02575,0.8834 -0.8545,1.6458 -1.7246,1.4808 -0.8788,-0.103185 -1.49605,-1.0891 -1.20705,-1.92425 0.184585,-0.6148 0.7879,-1.0645 1.43165,-1.0569 z m 0,1.0002 a 0.5,0.5001 0 0 0 -0.5,0.5001 0.5,0.5001 0 0 0 0.5,0.5001 0.5,0.5001 0 0 0 0.499995,-0.5001 0.5,0.5001 0 0 0 -0.5,-0.4995 z"/>
 <path style="fill:#8b9cbe;opacity:0.2" d="M 4.0625 2 C 3.473875 2 3 2.446 3 3 L 3 3.5 C 3 2.946 3.473875 2.5 4.0625 2.5 L 18.9375 2.5 C 19.526124 2.5 20 2.946 20 3.5 L 20 3 C 20 2.446 19.526124 2 18.9375 2 L 4.0625 2 z"/>
</svg>
