<svg xmlns="http://www.w3.org/2000/svg" width="24" height="24" version="1.1">
 <path style="opacity:0.2" d="m 12,2.5 a 9,8.5 0 0 0 -9,8.5 9,8.5 0 0 0 8.882813,8.49414 c 0.08949,0.0043 0.119782,0.02915 0.11914,0.125 -0.0048,0.873551 -0.0022,1.897785 -0.002,2.771485 1.14e-4,0.03391 0.0029,0.06721 0.0049,0.109375 0.02965,-0.01152 0.0485,-0.01833 0.06641,-0.02636 1.72155,-0.77085 3.301687,-1.74482 4.710937,-2.96582 0.28041,-0.242895 0.548591,-0.497616 0.806641,-0.762696 0.1105,-0.11335 0.22033,-0.228556 0.331055,-0.341796 0.17105,-0.174321 0.319223,-0.369155 0.480468,-0.552735 0.186215,-0.211705 0.353645,-0.436611 0.518555,-0.663086 0.364565,-0.50055 0.690217,-1.022569 0.963867,-1.574219 0.138435,-0.278869 0.270064,-0.559956 0.386719,-0.847656 0.0039,-0.0054 0.0092,-0.0098 0.01172,-0.01563 0.317925,-0.7877 0.521433,-1.603203 0.629883,-2.439453 0.01825,-0.14045 0.02555,-0.281774 0.03808,-0.422851 a 9,8.5 0 0 0 0.0098,-0.116211 c 0.0089,-0.112801 0.02429,-0.225031 0.03027,-0.337891 0.0071,-0.134857 0.0087,-0.269794 0.0088,-0.404297 A 9,8.5 0 0 0 21,11 9,8.5 0 0 0 20.999,10.98535 c -7.5e-4,-0.165322 -0.0063,-0.330438 -0.01758,-0.495117 -1.8e-4,-0.0026 -8e-4,-0.0052 -0.001,-0.0078 A 9,8.5 0 0 0 20.95601,10.233409 C 20.94195,10.095774 20.92473,9.9583435 20.903271,9.821285 A 9,8.5 0 0 0 12,2.5 Z"/>
 <path style="fill:#16a05d" d="m 12,2 a 9,8.5 0 0 0 -9,8.5 9,8.5 0 0 0 8.882813,8.49414 c 0.08949,0.0043 0.119782,0.02915 0.11914,0.125 -0.0048,0.873551 -0.0022,1.897785 -0.002,2.771485 1.14e-4,0.03391 0.0029,0.06721 0.0049,0.109375 0.02965,-0.01152 0.0485,-0.01833 0.06641,-0.02636 1.72155,-0.77085 3.301687,-1.74482 4.710937,-2.96582 0.28041,-0.242895 0.548591,-0.497616 0.806641,-0.762696 0.1105,-0.11335 0.22033,-0.228556 0.331055,-0.341796 0.17105,-0.174321 0.319223,-0.369155 0.480468,-0.552735 0.186215,-0.211705 0.353645,-0.436611 0.518555,-0.663086 0.364565,-0.50055 0.690217,-1.022569 0.963867,-1.574219 0.138435,-0.278869 0.270064,-0.559956 0.386719,-0.847656 0.0039,-0.0054 0.0092,-0.0098 0.01172,-0.01563 0.317925,-0.7877 0.521433,-1.603203 0.629883,-2.439453 0.01825,-0.14045 0.02555,-0.281774 0.03808,-0.422851 a 9,8.5 0 0 0 0.0098,-0.116211 c 0.0089,-0.112801 0.02429,-0.225031 0.03027,-0.337891 0.0071,-0.134857 0.0087,-0.269794 0.0088,-0.404297 A 9,8.5 0 0 0 21,10.5 9,8.5 0 0 0 20.999,10.48535 c -7.5e-4,-0.165322 -0.0063,-0.330438 -0.01758,-0.495117 -1.8e-4,-0.0026 -8e-4,-0.0052 -0.001,-0.00782 A 9,8.5 0 0 0 20.956005,9.7333945 C 20.94195,9.595774 20.92473,9.4583435 20.903271,9.321285 A 9,8.5 0 0 0 12,2 Z"/>
 <path style="opacity:0.2;fill:#8b9cbe" d="M 12,2 A 9,8.5 0 0 0 3,10.5 9,8.5 0 0 0 3.0107422,10.704102 9,8.5 0 0 1 12,2.5 9,8.5 0 0 1 20.90332,9.821289 c 0.02146,0.1370585 0.03868,0.274489 0.05273,0.41211 a 9,8.5 0 0 1 0.02442,0.249023 c 1.99e-4,0.0026 8e-4,0.0052 0.001,0.0078 0.0069,0.10134 0.0079,0.20307 0.01074,0.304688 0.0025,-0.0886 0.0058,-0.177256 0.0059,-0.265625 A 9,8.5 0 0 0 21,10.5 9,8.5 0 0 0 20.999,10.48535 c -7.5e-4,-0.165322 -0.0063,-0.330438 -0.01758,-0.495117 -1.8e-4,-0.0026 -8e-4,-0.00519 -0.001,-0.00782 A 9,8.5 0 0 0 20.956005,9.7333945 C 20.94195,9.595774 20.92473,9.4583435 20.903271,9.321285 A 9,8.5 0 0 0 12,2 Z"/>
 <path style="opacity:0.2" d="M 7.8339844,6.5 11,12.257812 V 16.5 h 2 V 12.255859 L 16.158203,6.5 h -2.28125 L 12,9.921875 10.117188,6.5 Z"/>
 <path style="fill:#8b9cbe" d="M 7.8339844 6 L 11 11.757812 L 11 16 L 13 16 L 13 11.755859 L 16.158203 6 L 13.876953 6 L 12 9.421875 L 10.117188 6 L 7.8339844 6 z"/>
</svg>
