<svg xmlns="http://www.w3.org/2000/svg" width="24" height="24" version="1">
 <ellipse style="opacity:0.2" cx="7.932" cy="16.068" rx="10.251" ry="4.462" transform="matrix(0.96845416,-0.24919178,0.26876305,0.96320632,0,0)"/>
 <path style="fill:#4f4f4f" d="m 11.333334,4.9999988 c -4.6666665,0 -4.0439953,4.9158593 -6.4333327,6.2000012 -1,2 -0.6257584,1.821123 -0.2333338,3.150007 0.6620546,2.215822 2.5166365,0.650282 7.9999985,-0.666666 5.483097,-1.316646 6.662138,-1.117677 6,-3.333333 C 18.269643,9.0359411 19.000001,8.4710481 17.000001,8 14.696956,8.1261415 14.666666,4.9999988 11.333334,4.9999988 Z"/>
 <path style="opacity:0.1;fill:#8b9cbe" d="M 11.333984 5 C 6.6673179 5 7.289728 9.9150769 4.9003906 11.199219 C 4.3198012 12.360398 4.2085728 12.78742 4.2890625 13.201172 C 4.3527906 12.87181 4.5331509 12.433698 4.9003906 11.699219 C 7.289728 10.415077 6.6673179 5.5 11.333984 5.5 C 14.667316 5.5 14.696955 8.6261415 17 8.5 C 19 8.9710481 18.268993 9.5355426 18.666016 10.849609 C 18.738761 11.093032 18.779655 11.297937 18.804688 11.488281 C 18.859973 11.194516 18.809908 10.831104 18.666016 10.349609 C 18.268993 9.0355425 19 8.4710481 17 8 C 14.696955 8.1261415 14.667316 5 11.333984 5 z"/>
 <ellipse style="fill:#2e72de" cx="8.066" cy="15.583" rx="10.251" ry="4.462" transform="matrix(0.96845416,-0.24919178,0.26876305,0.96320632,0,0)"/>
 <ellipse style="opacity:0.2" cx="8.975" cy="19.678" rx="4.634" ry="2.242" transform="matrix(0.96652659,-0.25656647,0.19441229,0.98091991,0,0)"/>
 <ellipse style="fill:#fbfbfb" cx="9.072" cy="19.194" rx="4.634" ry="2.242" transform="matrix(0.96652659,-0.25656647,0.19441229,0.98091991,0,0)"/>
 <path style="opacity:0.1;fill:#8b9cbe" d="M 15.707031 8.0039062 A 4.4612484 10.251695 75.8416 0 0 10.800781 8.7011719 A 4.4612484 10.251695 75.8416 0 0 2.0253906 15.255859 A 4.4612484 10.251695 75.8416 0 1 10.800781 9.2011719 A 4.4612484 10.251695 75.8416 0 1 21.927734 10.945312 A 4.4612484 10.251695 75.8416 0 1 21.974609 11.244141 A 4.4612484 10.251695 75.8416 0 0 21.927734 10.445312 A 4.4612484 10.251695 75.8416 0 0 15.707031 8.0039062 z"/>
</svg>
