<svg xmlns="http://www.w3.org/2000/svg" width="24" height="24" version="1">
 <path style="opacity:0.2" d="M 10.355479,19.487417 C 7.0497944,19.424588 5.7080645,19.369111 4.8876044,19.261337 4.2859295,19.182299 3.9904495,19.105245 3.6571945,18.940477 3.1067846,18.668348 2.7644746,18.288877 2.5174396,17.676993 2.2915796,17.117575 2.1996146,16.673255 2.1152147,15.73365 c -0.095245,-1.060349 -0.10269,-1.25231 -0.11258,-2.904415 -0.01165,-1.94288 0.0118,-2.579544 0.1422749,-3.8691229 0.06842,-0.6760624 0.16814,-1.1253629 0.355515,-1.6018169 0.170645,-0.4338974 0.32644,-0.6733604 0.609775,-0.9372464 0.3560999,-0.3316555 0.7471849,-0.5332689 1.2408949,-0.6396999 0.73692,-0.1588625 4.0676847,-0.2813475 7.6506245,-0.2813475 3.58294,0 6.913705,0.122485 7.650625,0.2813475 0.532935,0.1148885 0.924075,0.3270989 1.305705,0.7084004 0.29869,0.298432 0.45253,0.5696065 0.635605,1.1204174 0.18864,0.5675465 0.260985,1.0698209 0.368175,2.5561623 0.0509,0.705842 0.05089,3.955067 0,4.660562 -0.05956,0.825318 -0.13264,1.560285 -0.181305,1.823269 -0.12511,0.676123 -0.37083,1.309161 -0.647865,1.669085 -0.19007,0.246935 -0.56528,0.541164 -0.879035,0.68931 -0.317705,0.150013 -0.6204,0.224384 -1.108375,0.272339 -1.512105,0.148594 -6.129585,0.25709 -8.78975,0.206523 z"/>
 <path style="fill:#e53935" d="M 10.355479,18.987417 C 7.0497944,18.924587 5.7080645,18.869111 4.8876044,18.761336 4.2859295,18.682298 3.9904495,18.605245 3.6571945,18.440477 3.1067846,18.168347 2.7644746,17.788876 2.5174396,17.176992 2.2915796,16.617574 2.1996146,16.173255 2.1152147,15.23365 c -0.095245,-1.060349 -0.10269,-1.252311 -0.11258,-2.904415 -0.01165,-1.94288 0.0118,-2.579545 0.1422749,-3.8691234 0.06842,-0.6760624 0.16814,-1.1253629 0.355515,-1.6018168 0.170645,-0.4338975 0.32644,-0.6733605 0.609775,-0.9372465 0.3560999,-0.3316554 0.7471849,-0.5332689 1.2408949,-0.6396999 0.73692,-0.1588625 4.0676847,-0.2813475 7.6506245,-0.2813475 3.58294,0 6.913705,0.122485 7.650625,0.2813475 0.532935,0.1148885 0.924075,0.327099 1.305705,0.7084004 0.29869,0.298432 0.45253,0.5696065 0.635605,1.1204175 0.18864,0.5675464 0.260985,1.0698209 0.368175,2.5561623 0.0509,0.7058424 0.05089,3.9550664 0,4.6605614 -0.05956,0.825318 -0.13264,1.560285 -0.181305,1.82327 -0.12511,0.676122 -0.37083,1.30916 -0.647865,1.669084 -0.19007,0.246936 -0.56528,0.541164 -0.879035,0.689311 -0.317705,0.150012 -0.6204,0.224384 -1.108375,0.272338 -1.512105,0.148595 -6.129585,0.25709 -8.78975,0.206524 z"/>
 <path style="opacity:0.2" d="m 12.226131,14.198843 c 2.83472,-1.693461 2.77377,-1.656318 2.77377,-1.690317 0,-0.03181 -4.961785,-3.0256824 -4.985978,-3.0084539 -0.01634,0.011645 -0.01938,5.9757159 -0.0033,5.9945359 0.006,0.007 0.02322,0.0072 0.03815,5.5e-4 0.01493,-0.0066 0.99466,-0.589985 2.177113,-1.29638 z"/>
 <path style="fill:#8b9cbe" d="m 12.226131,13.698844 c 2.83472,-1.693461 2.77377,-1.656318 2.77377,-1.690317 0,-0.03182 -4.961785,-3.0256824 -4.985978,-3.0084539 -0.01634,0.011645 -0.01938,5.9757159 -0.0033,5.9945359 0.006,0.007 0.02322,0.0072 0.03815,5.5e-4 0.01493,-0.0066 0.99466,-0.589985 2.177113,-1.29638 z"/>
 <path style="opacity:0.2;fill:#8b9cbe" d="m 12.001953,5.0000009 c -3.5829398,0 -6.91347,0.1223875 -7.6503899,0.28125 -0.49371,0.106431 -0.8851109,0.307993 -1.2412109,0.6396484 -0.283335,0.263886 -0.4397065,0.5036025 -0.6103515,0.9375 C 2.3126257,7.3348532 2.212952,7.7838992 2.144532,8.4599616 2.014057,9.74954 1.9912805,10.386222 2.0029305,12.329102 c 5.25e-4,0.08772 0.0024,0.0979 0.00293,0.177734 -0.00562,-1.630319 0.017842,-2.352628 0.1386718,-3.5468744 0.06842,-0.6760624 0.1680934,-1.1251084 0.3554684,-1.6015624 0.170645,-0.4338974 0.3270165,-0.6736139 0.6103515,-0.9374999 0.3561,-0.3316555 0.7475009,-0.5332174 1.2412109,-0.6396484 0.7369199,-0.1588625 4.0674501,-0.28125 7.6503899,-0.28125 3.58294,0 6.91347,0.1223875 7.65039,0.28125 0.532935,0.1148885 0.924034,0.3276829 1.305664,0.7089844 0.29869,0.298432 0.452667,0.569306 0.635742,1.1201169 0.18864,0.5675465 0.260974,1.0693224 0.368164,2.5556638 0.02319,0.321507 0.03407,1.184923 0.03614,2.081055 0.0024,-1.071291 -0.0084,-2.196697 -0.03614,-2.5810549 -0.10719,-1.4863414 -0.179524,-1.9881174 -0.368164,-2.5556638 -0.183075,-0.550811 -0.337052,-0.821685 -0.635742,-1.120117 -0.38163,-0.3813014 -0.772729,-0.5940959 -1.305664,-0.7089844 -0.73692,-0.1588625 -4.06745,-0.28125 -7.65039,-0.28125 z"/>
 <g transform="translate(0,1)">
  <circle style="fill:#03a9f4" cx="17" cy="17" r="6"/>
  <path style="fill:#8b9cbe" d="m 16,13 v 3 h -2 l 3,4 3,-3.984375 H 18 V 13 Z m 1,7 h -3 v 1 h 6 v -1 z"/>
 </g>
</svg>
