<svg xmlns="http://www.w3.org/2000/svg" width="24" height="24" version="1">
 <g transform="translate(1,1)">
  <path fill="#b2bfd9" d="m8 1-1 1v2h-6v15c0 0.554 0.446 1 1 1h18c0.554 0 1-0.446 1-1v-15h-6v-2l-1-1zm0 1h6v2h-6z"/>
  <path fill="#fff" opacity=".1" d="m8 1-1 1v0.5l1-1h6l1 1v-0.5l-1-1h-6zm-7 3v0.5h6v-0.5h-6zm7 0v0.5h6v-0.5h-6zm7 0v0.5h6v-0.5h-6z"/>
  <path opacity=".2" d="m8 2v0.5h6v-0.5h-6zm-7 17v0.5c0 0.554 0.446 1 1 1h18c0.554 0 1-0.446 1-1v-0.5c0 0.554-0.446 1-1 1h-18c-0.554 0-1-0.446-1-1z"/>
  <circle fill="#4ab3e4" cx="16" cy="16" r="6"/>
  <path fill="#fff" d="m17 12v3.0155h2l-3 3.984-3-4.0158h2v-2.984h2.2973z"/>
  <path fill="#fff" d="m13 19h6v1h-6z"/>
 </g>
</svg>
