<svg xmlns="http://www.w3.org/2000/svg" width="24" height="24" version="1">
 <circle style="opacity:0.2" cx="12" cy="8.5" r="6"/>
 <path style="opacity:0.2" d="M 5.555664,12.5 C 4.6969372,12.499921 4.0004457,13.175558 4,14.008789 c 4.263e-4,0.619177 0.4407519,1.073009 0.984375,1.402344 1.0154775,0.615192 2.8939915,2.616607 4.178711,3.266734 0.482752,0.232879 1.019189,0.311726 1.494141,0.321289 l 2.439453,-10e-4 c 0.529478,0.01462 1.171824,-0.04612 1.740234,-0.320313 1.28472,-0.650127 3.163233,-2.651541 4.178711,-3.266734 C 19.559248,15.081798 19.999573,14.627966 20,14.008789 19.999554,13.175558 19.303063,12.499921 18.444336,12.5 c -0.471953,1.08e-4 -0.917793,0.20805 -1.212891,0.56543 -0.568186,0.75762 -1.103687,1.677809 -1.722426,2.53478 -0.950692,1.441515 -2.525321,2.389329 -3.423081,2.389567 C 10.439743,17.93789 9.569318,17.06911 8.53485,15.660667 7.8974535,14.786684 7.3501265,13.840898 6.7685545,13.06543 6.4734565,12.70805 6.0276165,12.500108 5.555664,12.5 Z"/>
 <circle style="fill:#3949ab" cx="12" cy="8" r="6"/>
 <path style="fill:#9b9b9b" d="M 5.555664,12 C 4.6969372,11.999921 4.0004457,12.675558 4,13.508789 c 4.263e-4,0.619177 0.4407519,1.073009 0.984375,1.402344 1.0154775,0.615192 2.8939915,2.616607 4.178711,3.266734 0.482752,0.232879 1.019189,0.311726 1.494141,0.321289 l 2.439453,-10e-4 c 0.529478,0.01462 1.171824,-0.04612 1.740234,-0.320313 1.28472,-0.650127 3.163233,-2.651541 4.178711,-3.266734 C 19.559248,14.581798 19.999573,14.127966 20,13.508789 19.999554,12.675558 19.303063,11.999921 18.444336,12 c -0.471953,1.08e-4 -0.917793,0.20805 -1.212891,0.56543 -0.568186,0.75762 -1.103687,1.677809 -1.722426,2.53478 -0.950692,1.441515 -2.525321,2.389329 -3.423081,2.389567 C 10.439743,17.43789 9.569318,16.56911 8.53485,15.160667 7.8974535,14.286684 7.3501265,13.340898 6.7685545,12.56543 6.4734565,12.20805 6.0276165,12.000108 5.555664,12 Z"/>
 <ellipse style="opacity:0.2" cx="12" cy="20.5" rx="5" ry="2"/>
 <ellipse style="fill:#f0e83c" cx="12" cy="20" rx="5" ry="2"/>
 <path style="opacity:0.1;fill:#8b9cbe" d="M 12,2 A 6,6 0 0 0 6,8 6,6 0 0 0 6.00977,8.296875 6,6 0 0 1 12,2.5 6,6 0 0 1 17.990234,8.203125 6,6 0 0 0 18,8 6,6 0 0 0 12,2 Z"/>
 <path style="opacity:0.1;fill:#8b9cbe" d="M 5.555664,12 C 4.6969373,11.999921 4.0004457,12.675558 4,13.508789 c 5.92e-5,0.08603 0.010226,0.168291 0.026367,0.248047 C 4.150993,13.044279 4.7859716,12.499928 5.555664,12.5 c 0.4719525,1.08e-4 0.9177925,0.20805 1.2128905,0.56543 0.581572,0.775468 1.129205,1.72172 1.7666015,2.595703 1.0344685,1.408444 1.904587,2.277214 3.550782,2.329101 0.89776,-2.38e-4 2.47216,-0.948133 3.422851,-2.389648 0.61874,-0.856971 1.15447,-1.777536 1.722656,-2.535156 0.295098,-0.35738 0.740938,-0.565322 1.212891,-0.56543 0.769693,-7.2e-5 1.404671,0.544279 1.529297,1.256836 C 19.989774,13.67708 19.99994,13.59482 20,13.508789 19.999554,12.675558 19.303063,11.999921 18.444336,12 c -0.471953,1.08e-4 -0.917793,0.20805 -1.212891,0.56543 -0.568186,0.75762 -1.103916,1.678185 -1.722656,2.535156 -0.950691,1.441515 -2.525091,2.38941 -3.422851,2.389648 C 10.439743,17.438347 9.5696245,16.569577 8.535156,15.161133 7.8977595,14.28715 7.3501265,13.340898 6.7685545,12.56543 6.4734565,12.20805 6.0276165,12.000108 5.555664,12 Z"/>
 <path style="opacity:0.2;fill:#8b9cbe" d="M 12,18 A 5,2 0 0 0 7,20 5,2 0 0 0 7.04492,20.249023 5,2 0 0 1 12,18.5 5,2 0 0 1 16.955078,20.250976 5,2 0 0 0 17,20 5,2 0 0 0 12,18 Z"/>
</svg>
