<svg xmlns="http://www.w3.org/2000/svg" width="24" height="24" version="1">
 <rect style="opacity:0.2" width="20" height="20" x="2" y="2.5" rx="1" ry="1"/>
 <rect style="fill:#00c8c8" width="20" height="20" x="2" y="2" rx="1" ry="1"/>
 <path style="opacity:0.2;fill:#8b9cbe" d="M 3,2 C 2.446,2 2,2.446 2,3 v 0.5 c 0,-0.554 0.446,-1 1,-1 h 18 c 0.554,0 1,0.446 1,1 V 3 C 22,2.446 21.554,2 21,2 Z"/>
 <path style="opacity:0.1" d="M 7.4716795,19.415283 C 6.713446,19.189169 6.5282435,18.228578 6.832191,17.57049 7.2919565,16.383362 8.2876505,15.543025 9.2807845,14.817496 8.6700025,14.608296 8.8128395,13.873874 8.963641,13.71545 9.059896,13.61433 8.6018825,13.469373 8.415237,13.388377 6.631255,12.308345 4.9709117,10.786224 4.2095123,8.781809 3.8641586,7.814548 3.8720475,6.502246 4.8018137,5.8694535 5.8848315,5.140521 7.277701,5.6469305 8.2774945,6.2917695 c 1.290238,0.833204 2.2752365,2.05927 3.0809955,3.3603295 0.35963,-0.4800065 1.135709,-0.345607 1.317059,0.01356 1.085402,-1.767671 2.612228,-3.544906 4.671567,-4.083819 0.972608,-0.26714 2.199419,0.1189435 2.525438,1.169572 0.435376,1.394348 -0.319102,2.8177905 -1.139919,3.899395 -0.985889,1.267642 -2.272115,2.27347 -3.674155,3.027051 0.383272,0.428452 0.110318,0.971914 -0.308056,1.119058 1.065535,0.798459 2.296718,1.855841 2.542728,3.251877 0.211185,0.959573 -0.842032,1.732178 -1.7012,1.352575 -1.537935,-0.538428 -2.603698,-1.933259 -3.39863,-3.307929 -0.124185,-0.358778 -0.249117,-0.365917 -0.374829,-0.0038 -0.795461,1.373512 -1.8461315,2.763092 -3.3757855,3.31199 -0.313594,0.09067 -0.657436,0.120773 -0.971028,0.01356 z M 8.767662,18.087197 c 0.98761,-0.579472 1.632255,-1.625972 2.02511,-2.687667 -1.006678,0.25552 -1.9346305,0.893534 -2.5796005,1.718974 -0.526769,0.586606 -0.353861,1.514396 0.5544905,0.968693 z m 7.253637,0.03433 c 0.326195,-0.698517 -0.545841,-1.460043 -1.029933,-1.882276 -0.448266,-0.39098 -1.734018,-0.853999 -1.734018,-0.853999 0.444955,1.080529 1.099113,2.3006 2.183369,2.808181 0.185925,0.07097 0.485985,0.130665 0.580582,-0.07191 z M 8.936327,10.568494 c -1.4423275,0.928414 2.116149,2.717075 2.20645,2.381414 0.180681,0.06106 -1.027051,-3.1405835 -2.20645,-2.381414 z m 4.790662,2.191212 c 0.73176,-0.293411 1.630504,-0.860191 1.62909,-1.755825 -0.303308,-0.912901 -1.428996,-0.203184 -1.754108,0.34597 -0.249466,0.396312 -0.735777,1.367174 -0.620062,1.608879 0.23779,-0.04084 0.518143,-0.117924 0.74508,-0.199024 z M 9.164797,9.498607 C 8.621359,9.04988 7.9080025,8.3738165 7.215741,8.6612465 6.5345095,8.944095 7.3407465,10.182034 7.642152,10.683892 7.876909,9.4409145 8.844882,9.5554005 9.164797,9.498607 Z m 7.128837,-0.8271655 c -0.474496,0.084392 -1.407439,0.636537 -1.458335,0.8932515 0.616526,-0.07734 1.412955,0.095421 1.589362,1.1278 0,0 1.488674,-2.3556445 -0.131027,-2.0210515 z M 5.868504,8.434338 C 6.1076675,7.714856 6.8617665,7.3706095 7.57052,7.414509 8.1036555,7.441079 7.112449,7.06852 7.0233845,6.9799435 6.4727445,6.697057 5.377161,6.4633725 5.2314675,7.3301555 5.1317655,7.882475 5.4223345,8.868692 5.7422715,9.0617225 5.7610315,8.848772 5.7970445,8.6361105 5.868504,8.434338 Z M 18.149268,6.7346505 c -0.710358,-0.069171 -1.35273,0.308379 -1.937798,0.6681 1.472529,-0.2157625 2.124708,0.848053 2.113804,1.707831 0.763089,-1.4096125 0.541456,-2.240646 -0.176006,-2.375931 z"/>
 <path style="fill:#17191e" d="M 7.4716795,18.915283 C 6.713446,18.689169 6.5282435,17.728578 6.832191,17.07049 7.2919565,15.883362 8.2876505,15.043025 9.2807845,14.317496 8.6700025,14.108296 8.8128395,13.373874 8.963641,13.21545 9.059896,13.11433 8.6018825,12.969373 8.415237,12.888377 6.631255,11.808345 4.9709117,10.286224 4.2095123,8.281809 3.8641586,7.314548 3.8720475,6.002246 4.8018137,5.3694535 5.8848315,4.6405212 7.277701,5.1469305 8.2774945,5.7917695 c 1.290238,0.833204 2.2752365,2.05927 3.0809955,3.3603295 0.35963,-0.4800065 1.135709,-0.345607 1.317059,0.01356 1.085402,-1.767671 2.612228,-3.544906 4.671567,-4.083819 0.972608,-0.2671399 2.199419,0.1189435 2.525438,1.169572 0.435376,1.394348 -0.319102,2.8177905 -1.139919,3.899395 -0.985889,1.267642 -2.272115,2.27347 -3.674155,3.027051 0.383272,0.428452 0.110318,0.971914 -0.308056,1.119058 1.065535,0.798459 2.296718,1.855841 2.542728,3.251877 0.211185,0.959573 -0.842032,1.732178 -1.7012,1.352575 -1.537935,-0.538428 -2.603698,-1.933259 -3.39863,-3.307929 -0.124185,-0.358778 -0.249117,-0.365917 -0.374829,-0.0038 -0.795461,1.373512 -1.8461315,2.763092 -3.3757855,3.31199 -0.313594,0.09067 -0.657436,0.120773 -0.971028,0.01356 z M 8.767662,17.587197 c 0.98761,-0.579472 1.632255,-1.625972 2.02511,-2.687667 -1.006678,0.25552 -1.9346305,0.893534 -2.5796005,1.718974 -0.526769,0.586606 -0.353861,1.514396 0.5544905,0.968693 z m 7.253637,0.03433 c 0.326195,-0.698517 -0.545841,-1.460043 -1.029933,-1.882276 -0.448266,-0.390981 -1.734018,-0.854 -1.734018,-0.854 0.444955,1.08053 1.099113,2.300601 2.183369,2.808181 0.185925,0.07097 0.485985,0.130666 0.580582,-0.07191 z M 8.936327,10.068494 c -1.4423275,0.928414 2.116149,2.717075 2.20645,2.381414 0.180681,0.06106 -1.027051,-3.1405835 -2.20645,-2.381414 z m 4.790662,2.191212 c 0.73176,-0.293411 1.630504,-0.860191 1.62909,-1.755825 -0.303308,-0.9129015 -1.428996,-0.203184 -1.754108,0.34597 -0.249466,0.396312 -0.735777,1.367174 -0.620062,1.608879 0.23779,-0.04084 0.518143,-0.117924 0.74508,-0.199024 z M 9.164797,8.998607 C 8.621359,8.54988 7.9080025,7.8738165 7.215741,8.1612465 6.5345095,8.444095 7.3407465,9.6820335 7.642152,10.183892 7.876909,8.9409145 8.844882,9.0554005 9.164797,8.998607 Z m 7.128837,-0.8271655 c -0.474496,0.084392 -1.407439,0.636537 -1.458335,0.8932515 0.616526,-0.07734 1.412955,0.095421 1.589362,1.1278 0,0 1.488674,-2.3556445 -0.131027,-2.0210515 z M 5.868504,7.934338 C 6.1076675,7.214856 6.8617665,6.8706095 7.57052,6.914509 8.1036555,6.941079 7.112449,6.56852 7.0233845,6.4799435 6.4727445,6.197057 5.377161,5.9633725 5.2314675,6.8301555 5.1317655,7.382475 5.4223345,8.368692 5.7422715,8.5617225 5.7610315,8.348772 5.7970445,8.1361105 5.868504,7.934338 Z M 18.149268,6.2346505 c -0.710358,-0.069171 -1.35273,0.308379 -1.937798,0.6681 1.472529,-0.2157625 2.124708,0.848053 2.113804,1.707831 0.763089,-1.4096125 0.541456,-2.240646 -0.176006,-2.375931 z"/>
</svg>
