<svg width="24" height="24" version="1.1" xmlns="http://www.w3.org/2000/svg">
 <g transform="translate(1,1)">
  <path d="m7.2499995 2.7500005 1.7500005 3.7499995 7-2s-14 8.249999-14 17c11.250001-7.5 17-9 17-9l-1-3-8 3s5-6 10-8c0-3-2-3-2-3z" style="opacity:.2"/>
  <path d="m7.2499995 2.2500005 1.7500005 3.7499995 7-2s-14 8.249999-14 17c11.250001-7.5 17-9 17-9l-1-3-8 3s5-6 10-8c0-3-2-3-2-3z" style="fill:#ea9f57"/>
  <path d="M 18,1 7.25,2.25 7.4707031,2.7246094 18,1.5 c 0,0 1.744939,0.032893 1.958984,2.5195312 C 19.972825,4.013934 19.98616,4.0055361 20,4 20,1 18,1 18,1 Z M 16,4.5 14.605469,4.8984375 C 11.139648,7.1907346 2,13.890624 2,21 2.00891,20.9941 2.016488,20.9903 2.025391,20.98437 2.5551843,12.428898 16,4.5 16,4.5 Z M 18,9 10.664062,11.75 C 10.326239,12.126458 10,12.5 10,12.5 l 8,-3 0.849609,2.548828 C 18.863665,12.044966 19,12 19,12 Z" style="fill:#8b9cbe;opacity:.2"/>
 </g>
</svg>
