<svg xmlns="http://www.w3.org/2000/svg" width="24" height="24" version="1.1">
 <rect style="opacity:0.2" width="21" height="21" x="2" y="1.5" rx="6.3" ry="6.3"/>
 <rect style="fill:#4992fd" width="21" height="21" x="2" y="1" rx="6.3" ry="6.3"/>
 <path style="opacity:0.2" d="m 6.75,8.4999999 c -0.415516,0 -0.75,0.3345 -0.75,0.75 V 10.5 12 13.5 c 0,1.108 0.891958,2 2,2 h 2.5 2.5 1.25 C 14.665516,15.5 15,15.1655 15,14.75 V 13.5 12 10.5 C 15,9.392 14.108042,8.4999999 13,8.4999999 H 10.5 8 Z m 11.773438,0 c -0.159317,-0.011 -0.340922,0.061972 -0.513672,0.2226562 -0.607499,0.5650681 -1.318412,1.041433 -1.816407,1.7167969 -0.205077,0.278118 -0.191745,0.647856 -0.193359,0.994141 -9e-4,0.189998 0.001,0.378909 0,0.566406 0.001,0.187497 -9e-4,0.376409 0,0.566406 0.0016,0.346285 -0.01171,0.714069 0.193359,0.992188 0.497995,0.675364 1.208908,1.151729 1.816407,1.716797 0.17275,0.160685 0.354356,0.233656 0.513672,0.222656 0.265525,-0.01834 0.470703,-0.26995 0.470703,-0.736328 0,-0.913033 0.01432,-1.836176 0,-2.761719 0.01432,-0.925543 0,-1.85064 0,-2.763672 0,-0.466378 -0.205177,-0.7179931 -0.470703,-0.7363281 z"/>
 <path style="fill:#8b9cbe" d="M 6.75 8 C 6.334484 8 6 8.3345 6 8.75 L 6 10 L 6 11.5 L 6 13 C 6 14.108 6.891958 15 8 15 L 10.5 15 L 13 15 L 14.25 15 C 14.665516 15 15 14.6655 15 14.25 L 15 13 L 15 11.5 L 15 10 C 15 8.8920001 14.108042 8 13 8 L 10.5 8 L 8 8 L 6.75 8 z M 18.523438 8 C 18.364121 7.989 18.182516 8.0619717 18.009766 8.2226562 C 17.402267 8.7877243 16.691354 9.2640892 16.193359 9.9394531 C 15.988282 10.217571 16.001614 10.587309 16 10.933594 C 15.9991 11.123592 16.001 11.312503 16 11.5 C 16.001 11.687497 15.9991 11.876409 16 12.066406 C 16.0016 12.412691 15.988289 12.780475 16.193359 13.058594 C 16.691354 13.733958 17.402267 14.210323 18.009766 14.775391 C 18.182516 14.936076 18.364122 15.009047 18.523438 14.998047 C 18.788963 14.979707 18.994141 14.728097 18.994141 14.261719 C 18.994141 13.348686 19.008461 12.425543 18.994141 11.5 C 19.008461 10.574457 18.994141 9.64936 18.994141 8.7363281 C 18.994141 8.2699501 18.788964 8.018335 18.523438 8 z"/>
 <path style="fill:#8b9cbe;opacity:0.2" d="M 8.3007812 1 C 4.8105811 1 2 3.8105811 2 7.3007812 L 2 7.8007812 C 2 4.3105811 4.8105811 1.5 8.3007812 1.5 L 16.699219 1.5 C 20.189419 1.5 23 4.3105811 23 7.8007812 L 23 7.3007812 C 23 3.8105811 20.189419 1 16.699219 1 L 8.3007812 1 z"/>
</svg>
