<svg width="24" height="24" version="1.1" xmlns="http://www.w3.org/2000/svg">
 <g transform="translate(1,1)">
  <rect x="1" y="1.5" width="20" height="20" ry="3" style="opacity:.2"/>
  <rect x="1" y="1" width="20" height="20" ry="3" style="fill:#f14729"/>
  <path d="m5 5.5v12h12v-12zm2 2h8v2.5l-3 2.5 1 1.486328 2-1.496094v3.009766h-8v-2.5l3-2.5-1-1.4863281-2 1.4960941z" style="opacity:.2"/>
  <path d="m5 5v12h12v-12zm2 2h8v2.5l-3 2.5 1 1.486328 2-1.496094v3.009766h-8v-2.5l3-2.5-1-1.4863281-2 1.4960941z" style="fill:#8b9cbe"/>
  <path d="m4 1c-1.662 0-3 1.338-3 3v0.5c0-1.662 1.338-3 3-3h14c1.662 0 3 1.338 3 3v-0.5c0-1.662-1.338-3-3-3z" style="fill:#8b9cbe;opacity:.2"/>
 </g>
</svg>
