<svg xmlns="http://www.w3.org/2000/svg" width="24" height="24" version="1.1">
 <defs>
  <style id="current-color-scheme" type="text/css">
   .ColorScheme-Text { color:#323a41; } .ColorScheme-Highlight { color:#4285f4; } .ColorScheme-NeutralText { color:#ff9800; } .ColorScheme-PositiveText { color:#4caf50; } .ColorScheme-NegativeText { color:#f44336; }
  </style>
 </defs>
 <g transform="matrix(1,0,0,1,4,4)">
  <path class="ColorScheme-Text" d="M 7,0 V 7 L 3.5,3.5 2,5 8,11 14,5 12.5,3.5 9,7 V 0 Z" style="fill:currentColor"/>
  <circle class="ColorScheme-Text" cx="8" cy="14" r="2" style="fill:currentColor"/>
 </g>
</svg>
