<svg xmlns="http://www.w3.org/2000/svg" width="24" height="24" version="1.1">
 <defs>
  <style id="current-color-scheme" type="text/css">
   .ColorScheme-Text { color:#323a41; } .ColorScheme-Highlight { color:#4285f4; } .ColorScheme-NeutralText { color:#ff9800; } .ColorScheme-PositiveText { color:#4caf50; } .ColorScheme-NegativeText { color:#f44336; }
  </style>
 </defs>
 <g transform="translate(4,4)">
  <path style="fill:currentColor" class="ColorScheme-Text" d="M 3,14.5 A 1.5,1.5 0 0 1 1.5,16 1.5,1.5 0 0 1 0,14.5 1.5,1.5 0 0 1 1.5,13 1.5,1.5 0 0 1 3,14.5 Z M 10,14.5 A 1.5,1.5 0 0 1 8.5,16 1.5,1.5 0 0 1 7,14.5 1.5,1.5 0 0 1 8.5,13 1.5,1.5 0 0 1 10,14.5 Z M 15,8.5 A 1.5,1.5 0 0 1 13.5,10 1.5,1.5 0 0 1 12,8.5 1.5,1.5 0 0 1 13.5,7 1.5,1.5 0 0 1 15,8.5 Z M 3,6.5 A 1.5,1.5 0 0 1 1.5,8 1.5,1.5 0 0 1 0,6.5 1.5,1.5 0 0 1 1.5,5 1.5,1.5 0 0 1 3,6.5 Z M 9,1.5 A 1.5,1.5 0 0 1 7.5,3 1.5,1.5 0 0 1 6,1.5 1.5,1.5 0 0 1 7.5,0 1.5,1.5 0 0 1 9,1.5 Z"/>
  <path style="fill:currentColor" class="ColorScheme-Text" d="M 7.5586,0.801 1,6.2658 V 15 H 8.7344 L 14.154,8.4963 Z M 7.4414,2.2014 12.846,8.5041 8.2656,14 H 2 V 6.7346 Z"/>
 </g>
</svg>
