<svg xmlns="http://www.w3.org/2000/svg" width="24" height="24" viewBox="0 0 24 24">
 <defs>
  <style id="current-color-scheme" type="text/css">
   .ColorScheme-Text { color:#323a41; } .ColorScheme-Highlight { color:#4285f4; } .ColorScheme-NeutralText { color:#ff9800; } .ColorScheme-PositiveText { color:#4caf50; } .ColorScheme-NegativeText { color:#f44336; }
  </style>
 </defs>
 <path style="fill:currentColor" class="ColorScheme-Text" d="M 1 1 L 1 5 L 5 5 L 5 1 L 1 1 z M 6 1 L 6 15 L 10 15 L 10 1 L 6 1 z M 11 1 L 11 15 L 15 15 L 15 1 L 11 1 z M 1 6 L 1 15 L 5 15 L 5 6 L 1 6 z" transform="translate(4 4)"/>
</svg>
