<svg xmlns="http://www.w3.org/2000/svg" width="24" height="24" version="1.1">
 <defs>
  <style id="current-color-scheme" type="text/css">
   .ColorScheme-Text { color:#323a41; } .ColorScheme-Highlight { color:#4285f4; } .ColorScheme-NeutralText { color:#ff9800; } .ColorScheme-PositiveText { color:#4caf50; } .ColorScheme-NegativeText { color:#f44336; }
  </style>
 </defs>
 <g transform="translate(4,4)">
  <path style="fill:currentColor" class="ColorScheme-Text" d="M 3,12.292 V 13 H 3.708 L 1.708,15 H 1 V 14.292 Z M 14.292,1 H 15 V 1.708 L 13,3.708 V 3 H 12.292 Z M 9,6.292 V 7 H 9.708 L 7,9.708 V 9 H 6.292 Z M 3,9 H 7 V 13 H 3 Z M 9,3 H 13 V 7 H 9 Z"/>
 </g>
</svg>
