<svg xmlns="http://www.w3.org/2000/svg" width="24" height="24" version="1.1">
 <defs>
  <style id="current-color-scheme" type="text/css">
   .ColorScheme-Text { color:#323a41; } .ColorScheme-Highlight { color:#4285f4; } .ColorScheme-NeutralText { color:#ff9800; } .ColorScheme-PositiveText { color:#4caf50; } .ColorScheme-NegativeText { color:#f44336; }
  </style>
 </defs>
 <g transform="translate(4,4)">
  <path style="fill:currentColor" class="ColorScheme-Text" d="M 5,4 C 4.4477,4 4,4.4477 4,5 4,5.2652 4.1055,5.5195 4.293,5.707 L 10.293,11.707 C 10.48,11.895 10.735,12 11,12 11.552,12 12,11.552 12,11 12,10.735 11.895,10.48 11.707,10.293 L 5.707,4.293 C 5.5195,4.1055 5.2652,4 5,4 Z"/>
  <path style="fill:currentColor" class="ColorScheme-Text" d="M 5,12 C 4.4477,12 4,11.552 4,11 4,10.735 4.1055,10.48 4.293,10.293 L 10.293,4.293 C 10.48,4.105 10.735,4 11,4 11.552,4 12,4.448 12,5 12,5.265 11.895,5.52 11.707,5.707 L 5.707,11.707 C 5.5195,11.895 5.2652,12 5,12 Z"/>
 </g>
</svg>
