<svg xmlns="http://www.w3.org/2000/svg" width="24" height="24" viewBox="0 0 24 24">
 <defs>
  <style id="current-color-scheme" type="text/css">
   .ColorScheme-Text { color:#323a41; } .ColorScheme-Highlight { color:#4285f4; } .ColorScheme-NeutralText { color:#ff9800; } .ColorScheme-PositiveText { color:#4caf50; } .ColorScheme-NegativeText { color:#f44336; }
  </style>
 </defs>
 <path style="fill:currentColor" class="ColorScheme-Text" d="M 4 1 L 1 5 L 12 5 L 15 1 L 4 1 z M 5.75 6 L 5 6.8007812 L 6.0078125 7.875 L 8 10 L 9.9921875 7.875 L 11 6.8007812 L 10.25 6 L 9.2421875 7.0742188 L 8 8.4003906 L 6.7578125 7.0742188 L 5.75 6 z M 4 11 L 1 15 L 12 15 L 15 11 L 4 11 z" transform="translate(4 4)"/>
</svg>
