<svg xmlns="http://www.w3.org/2000/svg" width="24" height="24" version="1.1">
 <defs>
  <style id="current-color-scheme" type="text/css">
   .ColorScheme-Text { color:#323a41; } .ColorScheme-Highlight { color:#4285f4; } .ColorScheme-NeutralText { color:#ff9800; } .ColorScheme-PositiveText { color:#4caf50; } .ColorScheme-NegativeText { color:#f44336; }
  </style>
 </defs>
 <g transform="translate(4,4)">
  <path style="fill:currentColor" class="ColorScheme-Text" d="M 10,10 V 11.414 L 11.586,13 10,14.586 V 16 H 11.414 L 13,14.414 14.586,16 H 16 V 14.586 L 14.414,13 16,11.414 V 10 H 14.586 L 13,11.586 11.414,10 Z M 2,2 V 5 L 3,4 H 5 V 10 L 4,11 H 8 L 7,10 V 4 H 9 L 10,5 V 2 Z M 0,0 V 3 H 1 V 1 H 3 V 0 Z M 6,0 V 1 H 9 V 0 Z M 12,0 V 1 H 14 V 3 H 15 V 0 Z M 0,6 V 9 H 1 V 6 Z M 14,6 V 9 H 15 V 6 Z M 0,12 V 15 H 3 V 14 H 1 V 12 Z M 6,14 V 15 H 9 V 14 Z"/>
 </g>
</svg>
