<svg xmlns="http://www.w3.org/2000/svg" width="24" height="24" version="1.1">
 <defs>
  <style id="current-color-scheme" type="text/css">
   .ColorScheme-Text { color:#323a41; } .ColorScheme-Highlight { color:#4285f4; } .ColorScheme-NeutralText { color:#ff9800; } .ColorScheme-PositiveText { color:#4caf50; } .ColorScheme-NegativeText { color:#f44336; }
  </style>
 </defs>
 <g transform="translate(4,4)">
  <path style="fill:currentColor" class="ColorScheme-Text" d="M 9,1 C 7.304,1.0026 5.6883,1.7228 4.5527,2.9824 5.3089,2.6737 6.1341,2.5 7,2.5 10.584,2.5 13.5,5.4161 13.5,9 13.5,9.8659 13.326,10.691 13.018,11.447 14.277,10.311 14.997,8.6958 15,7 15,3.6863 12.314,1 9,1 Z M 7,3 A 6,6 0 0 0 1,9 6,6 0 0 0 7,15 6,6 0 0 0 13,9 6,6 0 0 0 7,3 Z M 7,7 A 2,2 0 0 1 9,9 2,2 0 0 1 7,11 2,2 0 0 1 5,9 2,2 0 0 1 7,7 Z"/>
 </g>
</svg>
