<svg xmlns="http://www.w3.org/2000/svg" width="48" height="48" version="1">
 <path style="opacity:0.2" d="M 2,12.451897 C 32.106593,3.8717601 36.76404,5.9142264 45.999999,34.53427 22.298537,43.919618 12.182081,43.021179 6.4552345,32.271262 4.5786461,28.7487 4.2597876,23.982174 3.3253706,18.068514 2.9824141,15.89804 2.2436623,14.98541 2,12.451897 Z"/>
 <path style="fill:#fa8900" d="M 2,11.451897 C 32.106593,2.87176 36.76404,4.9142263 45.999999,33.53427 22.298537,42.919618 12.182081,42.021179 6.4552345,31.271262 4.5786461,27.7487 4.2597876,22.982174 3.3253706,17.068514 2.9824141,14.89804 2.2436623,13.98541 2,11.451897 Z"/>
 <path style="opacity:0.2" d="m 7.0078125,13 c -0.5562823,0.01286 -1.0084677,0.225058 -1.34375,0.544922 -0.00104,9.96e-4 -9.122e-4,0.0029 -0.00195,0.0039 -0.2960688,0.283662 -0.4974576,0.651521 -0.59375,1.048828 -8.312e-4,0.0034 -0.00309,0.0063 -0.00391,0.0098 -0.2114255,0.890121 0.1069518,1.912207 1.0996094,2.404297 l 8.0019535,4.146484 0.111328,-0.230469 17.005859,8.572266 5.4375,2.230469 0.01367,-0.03125 L 38.962891,33 43,32.746094 c -1.556637,-1.117769 -2.934711,-2.360193 -5.480469,-2.783203 l 0.01563,-0.0332 -4.75,-3.310547 -16.923828,-8.988282 0.134766,-0.28125 -7.9980471,-4.113281 C 7.6927589,13.073751 7.3515028,12.992139 7.0078125,13 Z"/>
 <path style="fill:#ffeb0e" d="M 9.5823808,13.294216 32.785811,25.619691 31.283151,28.499593 8.1711086,16.850039 C 7.1921072,16.425779 7.1944873,16.436488 7.6191939,15.47678 L 8.3665095,13.788074 C 8.7341693,12.803177 8.7348127,12.84278 9.5823808,13.294216 Z"/>
 <path style="fill:#ffeb0e" d="m 36.641108,28.845456 c 3.135362,0.25337 4.630132,1.659089 6.358893,2.900455 L 38.962412,32 35.815237,30.163044 Z"/>
 <path style="fill:#ffc30e" d="m 7.0086034,12.000522 c -2.1561061,0.04983 -2.7876116,3.048784 -0.844807,4.011889 L 14.166401,20.1575 15.9969,16.350445 7.9976843,12.236321 C 7.6923963,12.073744 7.3522937,11.992661 7.0086034,12.000522 Z"/>
 <path style="opacity:0.1" d="M 5.6640625,13.545591 C 5.3637264,13.832225 5.1599453,14.20468 5.0644531,14.607423 l 8.4179689,4.439844 c 0.696124,0.37794 1.492455,-0.509178 0.507812,-1.109465 z"/>
 <path style="fill:#ffeb0e" d="M 5.6640625,12.545658 C 5.3637264,12.832292 5.1599453,13.204747 5.0644531,13.60749 l 8.4179689,4.439844 c 0.696124,0.37794 1.492455,-0.509178 0.507812,-1.109465 z"/>
 <path style="opacity:0.2;fill:#8b9cbe" d="M 23.685547 7.0078125 C 18.331401 7.1274709 11.40831 8.7698791 2 11.451172 C 2.0338104 11.80272 2.078411 12.119194 2.1289062 12.416016 C 31.785071 3.9743083 36.6796 5.9577077 45.705078 33.648438 C 45.806545 33.60844 45.898031 33.575534 46 33.535156 C 39.650278 13.858876 35.464667 6.7445639 23.685547 7.0078125 z"/>
 <path style="fill:#8b9cbe;opacity:0.2" d="M 7.0078125 12 C 5.5389784 12.033946 4.7801245 13.435679 5.0585938 14.630859 C 5.2535102 13.768849 5.9436554 13.024594 7.0078125 13 C 7.3515028 12.992139 7.6927589 13.073751 7.9980469 13.236328 L 15.996094 17.349609 L 15.861328 17.630859 L 32.376953 26.402344 L 32.785156 25.619141 L 15.861328 16.630859 L 15.996094 16.349609 L 7.9980469 12.236328 C 7.6927589 12.073751 7.3515028 11.992139 7.0078125 12 z M 36.640625 28.845703 L 35.814453 30.162109 L 36.273438 30.429688 L 36.640625 29.845703 C 39.008711 30.037069 40.441963 30.885455 41.746094 31.824219 L 43 31.746094 C 41.271239 30.504728 39.775987 29.099073 36.640625 28.845703 z"/>
 <path style="fill:#17191e" d="m 32.785811,25.619691 4.750017,3.309492 -0.8146,1.800819 -5.438077,-2.230409 z"/>
</svg>
