<svg width="48" height="48" version="1.1" xmlns="http://www.w3.org/2000/svg">
 <g transform="matrix(2,0,0,2,2,2)">
  <rect x="1" y="1.5" width="20" height="20" rx="8" ry="8" style="opacity:.2"/>
  <rect x="1" y="1" width="20" height="20" rx="8" ry="8" style="fill:#b2bfd9"/>
  <path d="m13.455078 2.5a1.50015 1.50015 0 0 0-1.015625 0.4394531l-9.9999999 9.9999999a1.50015 1.50015 0 0 0 1.0605469 2.560547h8.5v3.5a1.50015 1.50015 0 1 0 3 0v-3.5h3.5a1.50015 1.50015 0 1 0 0-3h-3.5v-8.5a1.50015 1.50015 0 0 0-1.544922-1.5zm-1.455078 5.1210938v4.8789062h-4.8789062z" style="opacity:.1"/>
  <path d="m13.5 18.5v-15l-10 10h15" style="fill:none;stroke-linecap:round;stroke-linejoin:round;stroke-width:3;stroke:#db3c30"/>
  <path d="m9 1c-4.432 0-8 3.568-8 8v0.5c0-4.432 3.568-8 8-8h4c4.432 0 8 3.568 8 8v-0.5c0-4.432-3.568-8-8-8z" style="fill:#8b9cbe;opacity:.2"/>
 </g>
</svg>
