<svg width="48" height="48" version="1.1" xmlns="http://www.w3.org/2000/svg">
 <rect x="4" y="5" width="40" height="40" rx="2" ry="2" style="opacity:.2"/>
 <rect x="4" y="4" width="40" height="40" rx="2" ry="2" style="fill:#595552"/>
 <path d="m9 9 3 6h15l-3 4 1.5-1v0.846924l1.5-0.846924-4 4v-1l-1 1 1 2-7 7v2l1 2-2 1 1.5 0.448367-1.5 2.551633 4-5h1l-5 7 6-6 1-1.551633v-1.448367l2-2v0.915253l3-0.915253 2-2.552292-0.360547-0.447708-1.639453 0.978875v-0.978875l2-2v-2l10-14z" style="opacity:.2"/>
 <path d="m9 8 3 6h15l-3 4 1.5-1v0.846924l1.5-0.846924-4 4v-1l-1 1 1 2-7 7v2l1 2-2 1 1.5 0.448367-1.5 2.551633 4-5h1l-5 7 6-6 1-1.551633v-1.448367l2-2v0.915253l3-0.915253 2-2.552292-0.360547-0.447708-1.639453 0.978875v-0.978875l2-2v-2l10-14z" style="fill:#c6241d"/>
 <path d="m6 4c-1.108 0-2 0.892-2 2v1c0-1.108 0.892-2 2-2h36c1.108 0 2 0.892 2 2v-1c0-1.108-0.892-2-2-2h-36z" style="fill:#8b9cbe;opacity:.1"/>
 <path d="m9 8 0.5 1h28.785156l0.714844-1h-30zm17.25 7-2.25 3 1.5-1 1.5-2h-0.75zm0.75 3-1.5 0.847656v-0.347656l-2.5 2.5v1l4-4zm-4 3v-1l-1 1 0.333984 0.666016 0.666016-0.666016zm-0.333984 2.333984-6.666016 6.666016v1l7-7-0.333984-0.666016zm5.972656 2.666016-1.585938 0.947266-0.052734 0.052734v0.978516l1.503906-0.898438 0.496094-0.632812-0.361328-0.447266zm-9.353516 8-4.285156 6 2.5-2.5 2.5-3.5h-0.714844zm-2.685547 0.199219-1.599609 0.800781 1.25 0.375 0.75-0.375-0.400391-0.800781zm-0.599609 2.099609-1 1.701172 1.291016-1.613281-0.291016-0.087891z" style="fill:#8b9cbe;opacity:.2"/>
</svg>
