<svg width="48" height="48" version="1.1" xmlns="http://www.w3.org/2000/svg">
 <path d="m5.9222957 21.000674c-1.3630289 0.05392-2.2733949 1.426424-1.7929482 2.703124l5.9999335 16c0.336007 0.893918 1.257062 1.425618 2.199194 1.269532l11.999866-2c1.717507-0.287806 2.272371-2.48075 0.898428-3.55078l-17.9998-14.000002c-0.3716019-0.289956-0.8336608-0.439366-1.3046736-0.421874z" style="opacity:.2"/>
 <path d="m5.9222957 20c-1.3630289 0.05392-2.2733949 1.426424-1.7929482 2.703124l5.9999335 16c0.336007 0.893918 1.257062 1.425618 2.199194 1.269532l11.999866-2c1.717507-0.287806 2.272371-2.48075 0.898428-3.55078l-17.9998-14.000002c-0.3716019-0.289956-0.8336608-0.439366-1.3046736-0.421874z" style="fill:#2d77b5"/>
 <path d="m5.9222957 20c-1.2882818 0.05096-2.1563202 1.279588-1.8437296 2.492188 0.2152576-0.808474 0.9192178-1.455616 1.8437296-1.492188 0.4710128-0.0174 0.9330717 0.13192 1.3046736 0.421874l17.9998 14.000002c0.383482 0.298656 0.603495 0.685976 0.703118 1.093748 0.192398-0.723726-0.0084-1.55276-0.703118-2.093748l-17.9998-14.000002c-0.3716019-0.289956-0.8336608-0.439366-1.3046736-0.421874z" style="fill:#8b9cbe;opacity:.2"/>
 <path d="m42.058615 21.000674c-0.464372-0.0128-0.918749 0.13628-1.285141 0.421874l-17.999802 14.000002c-1.373943 1.07003-0.819077 3.262974 0.898428 3.55078l11.999868 2c0.942129 0.15608 1.863187-0.375614 2.199194-1.269532l5.999933-16c0.482741-1.284192-0.441177-2.66212-1.81248-2.703124z" style="opacity:.2"/>
 <path d="m42.058615 20c-0.464372-0.0128-0.918749 0.13628-1.285141 0.421874l-17.999802 14.000002c-1.373943 1.07003-0.819077 3.262974 0.898428 3.55078l11.999868 2c0.942129 0.15608 1.863187-0.375614 2.199194-1.269532l5.999933-16c0.482741-1.284192-0.441177-2.66212-1.81248-2.703124z" style="fill:#2d77b5"/>
 <path d="m23.929909 9.000673c-0.774639 0.0267-1.464123 0.498526-1.769512 1.210936l-11.999866 28.000003c-0.6240852 1.454032 0.607325 3.022712 2.167944 2.761718l11.671746-1.945312 11.671747 1.945312c1.560619 0.260994 2.792029-1.307686 2.167944-2.761718l-11.999868-28.000003c-0.325494-0.759426-1.084432-1.240558-1.910135-1.210936z" style="opacity:.2"/>
 <path d="m23.929909 7.999999c-0.774639 0.0267-1.464123 0.498528-1.769512 1.210938l-11.999866 28.000001c-0.6240852 1.454032 0.607325 3.022712 2.167944 2.761718l11.671746-1.945312 11.671747 1.945312c1.560619 0.260994 2.792029-1.307686 2.167944-2.761718l-11.999868-28.000001c-0.325494-0.759428-1.084432-1.24056-1.910135-1.210938z" style="fill:#40d435"/>
 <path d="m42.058615 20c-0.464372-0.0128-0.918749 0.13628-1.285141 0.421874l-17.999802 14.000002c-0.694644 0.540988-0.895522 1.370022-0.703118 2.093748 0.09962-0.407772 0.319636-0.795092 0.703118-1.093748l17.999802-14.000002c0.366392-0.2856 0.820769-0.434754 1.285141-0.421874 0.933132 0.0279 1.646696 0.680872 1.863262 1.496094 0.317144-1.221146-0.56528-2.457282-1.863262-2.496094z" style="fill:#8b9cbe;opacity:.2"/>
 <path d="m14.824541 26.332032-4.66401 10.878906c-0.2230956 0.51978-0.2009358 1.051456-0.0196 1.511718 0.07922 0.203536 0.190798 0.385606 0.324215 0.546876 0.02756 0.03332 0.06022 0.06224 0.08984 0.09374 0.116978 0.12366 0.247609 0.230752 0.390619 0.320312 0.04114 0.026 0.08188 0.0512 0.124999 0.07422 0.150978 0.07974 0.312686 0.13664 0.480465 0.17578 0.04074 0.0094 0.07936 0.02444 0.121098 0.03126 0.212546 0.03548 0.433939 0.04464 0.656243 0.0078l11.671754-1.9453 11.671747 1.945312c0.222301 0.03682 0.443695 0.02766 0.656241-0.0078 0.04172-0.0068 0.08034-0.02186 0.121098-0.03126 0.167778-0.03914 0.329489-0.09604 0.480465-0.17578 0.04312-0.02302 0.08386-0.0482 0.124999-0.07422 0.143018-0.08956 0.273639-0.19666 0.390619-0.320312 0.02962-0.03152 0.06228-0.06044 0.08984-0.09374 0.133419-0.16126 0.245002-0.34334 0.324217-0.546876 0.181398-0.460262 0.203562-0.991938-0.0196-1.511718l-4.663945-10.878918-9.17568 7.136718z" style="fill:#257859"/>
 <path d="m23.929909 7.999999c-0.774639 0.0267-1.464123 0.498528-1.769512 1.210938l-11.999866 28.000001c-0.190118 0.442954-0.1931579 0.891516-0.08204 1.30078 0.02586-0.10044 0.03912-0.200782 0.08204-0.30078l11.999866-28.000001c0.305389-0.71241 0.994873-1.184248 1.769512-1.210938 0.825703-0.02962 1.584641 0.45151 1.910135 1.210938l11.999868 28.000001c0.04292 0.1 0.05616 0.200332 0.08204 0.30078 0.111119-0.409264 0.108099-0.857826-0.08204-1.30078l-11.999868-28.000001c-0.325494-0.759428-1.084432-1.24056-1.910135-1.210938z" style="fill:#8b9cbe;opacity:.2"/>
</svg>
