<svg xmlns="http://www.w3.org/2000/svg" width="48" height="48" version="1">
 <path style="opacity:0.1" d="m 11.457031,4.9823187 a 1.50015,1.50015 0 0 0 -1.191406,2.3710937 l 4.261719,6.1601566 a 1.5007233,1.5007233 0 1 0 2.46875,-1.707031 L 12.734375,5.6463812 A 1.50015,1.50015 0 0 0 11.457031,4.9823187 Z m 25.041016,0 a 1.50015,1.50015 0 0 0 -1.232422,0.6640625 l -4.261719,6.1601568 a 1.5007233,1.5007233 0 1 0 2.46875,1.707031 L 37.734375,7.3534124 A 1.50015,1.50015 0 0 0 36.498047,4.9823187 Z"/>
 <path style="opacity:0.2" d="m 42,25 v 17 c 0,1.662 -1.338,3 -3,3 H 9 C 7.338,45 6,43.662 6,42 V 25 Z"/>
 <path style="fill:none;stroke:#1ebb68;stroke-width:3;stroke-linecap:round" d="m 11.5,5.5 4.261821,6.160245"/>
 <path style="fill:none;stroke:#1ebb68;stroke-width:3;stroke-linecap:round" d="m 36.5,5.5 -4.261821,6.160245"/>
 <path style="fill:#1ebb68" d="m 42,24 v 17 c 0,1.662 -1.338,3 -3,3 H 9 C 7.338,44 6,42.662 6,41 V 24 Z"/>
 <path style="fill:#30dd81" d="M 24 6 A 18 18 0 0 0 6 24 L 42 24 A 18 18 0 0 0 24 6 z"/>
 <path style="opacity:0.2" d="M 16.5,16 A 2.5,2.5 0 0 0 14,18.5 2.5,2.5 0 0 0 16.5,21 2.5,2.5 0 0 0 19,18.5 2.5,2.5 0 0 0 16.5,16 Z m 16,0 A 2.5,2.5 0 0 0 30,18.5 2.5,2.5 0 0 0 32.5,21 2.5,2.5 0 0 0 35,18.5 2.5,2.5 0 0 0 32.5,16 Z"/>
 <circle style="fill:#8b9cbe" cx="16.5" cy="17.5" r="2.5"/>
 <circle style="fill:#8b9cbe" cx="32.5" cy="17.5" r="2.5"/>
 <path style="opacity:0.2" d="m 17,29 v 11 c 0,0 0,1 1,1 h 12 c 0,0 1,0 1,-1 v -9 c 0,-1 -1,-1 -1,-1 h -5 l -2,-2 h -5 c 0,0 -1,0 -1,1 z"/>
 <path style="fill:#ffe963" d="m 17,28 v 11 c 0,0 0,1 1,1 h 12 c 0,0 1,0 1,-1 v -9 c 0,-1 -1,-1 -1,-1 h -5 l -2,-2 h -5 c 0,0 -1,0 -1,1 z"/>
 <path style="opacity:0.2;fill:#8b9cbe" d="M 24 6 A 18 18 0 0 0 6 24 L 6.0351562 24 A 18 18 0 0 1 24 7 A 18 18 0 0 1 41.949219 24 L 42 24 A 18 18 0 0 0 24 6 z"/>
 <rect style="opacity:0.2" width="36" height="1" x="6" y="24"/>
 <path style="fill:#8b9cbe;opacity:0.2" d="M 18 27 C 18 27 17 27 17 28 L 17 29 C 17 28 18 28 18 28 L 23 28 L 25 30 L 30 30 C 30 30 31 30 31 31 L 31 30 C 31 29 30 29 30 29 L 25 29 L 23 27 L 18 27 z"/>
</svg>
