<svg xmlns="http://www.w3.org/2000/svg" width="48" height="48" version="1">
 <rect style="fill:#4f4f4f" width="28" height="28" x="4" y="-44" rx="1.6" ry="1.6" transform="rotate(90)"/>
 <path style="opacity:0.2" d="m 38,22.62075 0,0.91081 -8.1503,0 c 0.07711,1.2819 0.44315,2.2602 1.0983,2.9348 0.66152,0.66794 1.58,1.0019 2.7553,1.0019 0.68079,0 1.3391,-0.0877 1.975,-0.26312 0.64224,-0.17542 1.2781,-0.43854 1.9075,-0.78938 l 0,1.7609 c -0.63585,0.28337 -1.2877,0.49926 -1.9557,0.64769 -0.66796,0.14843 -1.3455,0.22265 -2.0328,0.22265 -1.7213,0 -3.0861,-0.52625 -4.0944,-1.5788 -1.002,-1.053 -1.503,-2.477 -1.503,-4.271 -10e-6,-1.8554 0.47527,-3.3262 1.4258,-4.4124 0.95697,-1.093 2.2447,-1.6395 3.8632,-1.6395 1.4515,10e-6 2.5979,0.49253 3.4393,1.4776 0.84777,0.97829 1.2717,2.3108 1.2717,3.9975 m -1.7726,-0.54649 c -0.01285,-1.0188 -0.28582,-1.8318 -0.81889,-2.439 -0.52666,-0.6072 -1.2267,-0.9108 -2.1002,-0.91081 -0.98909,10e-6 -1.7823,0.29349 -2.3796,0.88045 -0.59088,0.58698 -0.93128,1.4135 -1.0212,2.4794 l 6.3199,-0.0101 m -2.23916,-9.0272 1.9557,0 0,2.0443 -1.9557,0 0,-2.0443 m -3.966,0 1.9557,0 0,2.0443 -1.9557,0 0,-2.0443"/>
 <path fill="#fff" style="opacity:0.1" d="m44 6v-0.4776c0-0.8467-0.707-1.5224-1.594-1.5224h-24.812c-0.887 0-1.594 0.6757-1.594 1.5224v0.4776c0-0.84671 0.70735-1.5224 1.5938-1.5224h24.812c0.887 0 1.594 0.6757 1.594 1.5224z"/>
 <path style="fill:#8b9cbe" d="m 38,21.621 0,0.91081 -8.1503,0 c 0.07711,1.2819 0.44315,2.2602 1.0983,2.9348 0.66152,0.66794 1.58,1.0019 2.7553,1.0019 0.68079,0 1.3391,-0.0877 1.975,-0.26312 0.64224,-0.17542 1.2781,-0.43854 1.9075,-0.78938 l 0,1.7609 c -0.63585,0.28337 -1.2877,0.49926 -1.9557,0.64769 -0.66796,0.14843 -1.3455,0.22265 -2.0328,0.22265 -1.7213,0 -3.0861,-0.52625 -4.0944,-1.5788 -1.002,-1.053 -1.503,-2.477 -1.503,-4.271 -10e-6,-1.8554 0.47527,-3.3262 1.4258,-4.4124 0.95697,-1.093 2.2447,-1.6395 3.8632,-1.6395 1.4515,10e-6 2.5979,0.49253 3.4393,1.4776 0.84777,0.97829 1.2717,2.3108 1.2717,3.9975 m -1.7726,-0.54649 c -0.01285,-1.0188 -0.28582,-1.8318 -0.81889,-2.439 -0.52666,-0.6072 -1.2267,-0.9108 -2.1002,-0.91081 -0.98909,10e-6 -1.7823,0.29349 -2.3796,0.88045 -0.59088,0.58698 -0.93128,1.4135 -1.0212,2.4794 l 6.3199,-0.0101 m -2.23916,-9.0272 1.9557,0 0,2.0443 -1.9557,0 0,-2.0443 m -3.966,0 1.9557,0 0,2.0443 -1.9557,0 0,-2.0443"/>
 <path opacity=".2" d="m16 30.4v1c0 0.887 0.713 1.6 1.6 1.6h24.801c0.886 0 1.599-0.713 1.599-1.6v-1c0 0.887-0.713 1.6-1.6 1.6h-24.8c-0.887 0-1.6-0.713-1.6-1.6z"/>
 <rect fill="#b2bfd9" width="28" height="28" x="16" y="-32" rx="1.6" ry="1.6" transform="rotate(90)"/>
 <path style="opacity:0.2" d="m 23.508,35.36543 c -1.4144,10e-6 -2.3943,0.16317 -2.9397,0.4895 -0.54546,0.32634 -0.81819,0.88303 -0.81819,1.6701 0,0.62708 0.20296,1.1262 0.60888,1.4973 0.41226,0.36473 0.9704,0.54709 1.6744,0.54709 0.9704,0 1.7473,-0.34553 2.3309,-1.0366 0.58984,-0.69746 0.88477,-1.6221 0.88478,-2.7738 l 0,-0.39352 -1.741,0 m 3.492,-0.73 0,6.1332 -1.7505,0 0,-1.6317 c -0.39959,0.65267 -0.89746,1.1358 -1.4937,1.4493 -0.5962,0.30714 -1.3256,0.4607 -2.1882,0.4607 -1.0909,0 -1.9598,-0.30713 -2.6068,-0.92141 -0.641,-0.62 -0.961,-1.449 -0.961,-2.485 0,-1.2094 0.39958,-2.1212 1.1987,-2.7355 0.8055,-0.61427 2.0042,-0.92141 3.5962,-0.92141 l 2.4545,0 0,-0.17277 c -9e-6,-0.81263 -0.26639,-1.4397 -0.79916,-1.8812 -0.52643,-0.4479 -1.2685,-0.67186 -2.2262,-0.67187 -0.60888,10e-6 -1.2019,0.0736 -1.7791,0.22076 -0.57717,0.14718 -1.1321,0.36793 -1.6649,0.66227 l 0,-1.6317 c 0.64059,-0.24954 1.2622,-0.4351 1.8647,-0.55669 0.60254,-0.12796 1.1892,-0.19195 1.76,-0.19196 1.5412,10e-6 2.6924,0.40313 3.4535,1.2094 0.76109,0.80625 1.1416,2.0284 1.1416,3.6665 m -5.8985,-9.5885 2.6829,3.5897 -1.4556,0 -3.1015,-3.5897 1.8742,0"/>
 <path style="fill:#17191e" d="m23.508 34.365c-1.4144 0.00001-2.3943 0.16317-2.9397 0.4895-0.54546 0.32634-0.81819 0.88303-0.81819 1.6701 0 0.62708 0.20296 1.1262 0.60888 1.4973 0.41226 0.36473 0.9704 0.54709 1.6744 0.54709 0.9704 0 1.7473-0.34553 2.3309-1.0366 0.58984-0.69746 0.88477-1.6221 0.88478-2.7738v-0.39352h-1.741m3.492-0.73v6.1332h-1.7505v-1.6317c-0.39959 0.65267-0.89746 1.1358-1.4937 1.4493-0.5962 0.30714-1.3256 0.4607-2.1882 0.4607-1.0909 0-1.9598-0.30713-2.6068-0.92141-0.641-0.62-0.961-1.449-0.961-2.485 0-1.2094 0.39958-2.1212 1.1987-2.7355 0.8055-0.61427 2.0042-0.92141 3.5962-0.92141h2.4545v-0.17277c-0.000009-0.81263-0.26639-1.4397-0.79916-1.8812-0.52643-0.4479-1.2685-0.67186-2.2262-0.67187-0.60888 0.00001-1.2019 0.0736-1.7791 0.22076-0.57717 0.14718-1.1321 0.36793-1.6649 0.66227v-1.6317c0.64059-0.24954 1.2622-0.4351 1.8647-0.55669 0.60254-0.12796 1.1892-0.19195 1.76-0.19196 1.5412 0.00001 2.6924 0.40313 3.4535 1.2094 0.76109 0.80625 1.1416 2.0284 1.1416 3.6665m-5.8985-9.5885 2.6829 3.5897h-1.4556l-3.1015-3.5897h1.8742"/>
 <path fill="#fff" opacity=".2" d="m32 18v-0.47761c0-0.846-0.707-1.522-1.594-1.522h-24.812c-0.8866 0-1.594 0.676-1.594 1.522v0.478c0-0.84671 0.70735-1.5224 1.5938-1.5224h24.812c0.887 0 1.594 0.675 1.594 1.522z"/>
 <path opacity=".2" d="m4 42.4v1c0 0.887 0.7132 1.6 1.5996 1.6h24.8c0.887 0 1.6-0.713 1.6-1.6v-1c0 0.887-0.713 1.6-1.6 1.6h-24.8c-0.8868 0-1.6-0.713-1.6-1.6z"/>
</svg>
