<svg width="48" height="48" version="1.1" xmlns="http://www.w3.org/2000/svg">
 <path d="m4 42v1c0 1.108 0.892 2 2 2h36c1.108 0 2-0.892 2-2v-1c0 1.108-0.892 2-2 2h-36c-1.108 0-2-0.892-2-2z" style="opacity:.2"/>
 <rect x="4" y="4" width="40" height="40" rx="2" ry="2" style="fill:#502e8e"/>
 <path d="m6 4c-1.108 0-2 0.892-2 2v1c0-1.108 0.892-2 2-2h36c1.108 0 2 0.892 2 2v-1c0-1.108-0.892-2-2-2z" style="fill:#8b9cbe;opacity:.1"/>
 <path d="m15 15-4 20h4l0.800781-6h3l1.199219 6h4l-5-20zm2 5 1.199219 6h-2z" style="opacity:.2"/>
 <path d="m15 14-4 20h4l0.800781-6h3l1.199219 6h4l-5-20zm2 5 1.199219 6h-2z" style="fill:#cdb5d7"/>
 <path d="m31.5 19c-3.037566 0-5.5 3.581722-5.5 8s2.462434 8 5.5 8c0.507455-0.0024 3.012244-0.101015 3.5-0.304688v-3.695312c-0.432373 0.651202-2.95874 0.99831-3.5 1-0.993247-0.0018-1.891763-1.179346-2.289062-3h7.609374c0.117666-0.65297 0.178042-1.324976 0.179688-2 0-4.418278-2.462434-8-5.5-8zm0 3c1.18641 4e-3 2.208031 1.675117 2.445312 4h-4.894531c0.237576-2.327756 1.261341-3.999743 2.449219-4z" style="opacity:.2"/>
 <path d="m31.5 18c-3.037566 0-5.5 3.581722-5.5 8s2.462434 8 5.5 8c0.507455-0.0024 3.012244-0.101015 3.5-0.304688v-3.695312c-0.432373 0.651202-2.95874 0.99831-3.5 1-0.993247-0.0018-1.891763-1.179346-2.289062-3h7.609374c0.117666-0.65297 0.178042-1.324976 0.179688-2 0-4.418278-2.462434-8-5.5-8zm0 3c1.18641 4e-3 2.208031 1.675117 2.445312 4h-4.894531c0.237576-2.327756 1.261341-3.999743 2.449219-4z" style="fill:#cdb5d7"/>
</svg>
