<svg width="48" height="48" version="1.1" xmlns="http://www.w3.org/2000/svg">
 <rect x="4" y="4" width="40" height="40" rx="2" ry="2" style="fill:#6c4782"/>
 <path d="m6 4c-1.108 0-2 0.892-2 2v1c0-1.108 0.892-2 2-2h36c1.108 0 2 0.892 2 2v-1c0-1.108-0.892-2-2-2z" style="fill:#8b9cbe;opacity:.1"/>
 <path d="m4 42v1c0 1.108 0.892 2 2 2h36c1.108 0 2-0.892 2-2v-1c0 1.108-0.892 2-2 2h-36c-1.108 0-2-0.892-2-2z" style="opacity:.2"/>
 <rect x="16" y="15" width="4" height="20" style="opacity:.2"/>
 <rect x="16" y="14" width="4" height="20" style="fill:#d2b7e7"/>
 <path d="m30.5 21a6.5 7 0 0 0-6.5 7 6.5 7 0 0 0 6.5 7 6.5 7 0 0 0 2.5-0.541016v-3.484375a3 4 0 0 1-2 1.025391 3 4 0 0 1-3-4 3 4 0 0 1 3-4 3 4 0 0 1 2 1.023438v-3.476563a6.5 7 0 0 0-2.5-0.546875z" style="opacity:.2"/>
 <path d="m30.5 20a6.5 7 0 0 0-6.5 7 6.5 7 0 0 0 6.5 7 6.5 7 0 0 0 2.5-0.541016v-3.484375a3 4 0 0 1-2 1.025391 3 4 0 0 1-3-4 3 4 0 0 1 3-4 3 4 0 0 1 2 1.023438v-3.476563a6.5 7 0 0 0-2.5-0.546875z" style="fill:#d2b7e7"/>
</svg>
