<svg xmlns="http://www.w3.org/2000/svg" height="48" width="48" version="1.1">
 <rect style="fill:#a03569" rx="2" ry="2" height="40" width="40" y="4" x="4"/>
 <path style="opacity:.1;fill:#8b9cbe" d="m6 4c-1.108 0-2 0.892-2 2v1c0-1.108 0.892-2 2-2h36c1.108 0 2 0.892 2 2v-1c0-1.108-0.892-2-2-2z"/>
 <path style="opacity:.2" d="m4 42v1c0 1.108 0.892 2 2 2h36c1.108 0 2-0.892 2-2v-1c0 1.108-0.892 2-2 2h-36c-1.108 0-2-0.892-2-2z"/>
 <path style="opacity:.2" d="m15 15v20h4v-20h-4zm15 0v7s-7 0-7 7c0 6 6 6 6 6s5 0 5-1v-5-7-7h-4zm-1 10h1v7h-1s-2 0-2-3c0-4 2-4 2-4z"/>
 <path style="fill:#f09ec3" d="m30 14v7s-7 0-7 7c0 6 6 6 6 6s5 0 5-1v-19zm-1 10h1v7h-1s-2 0-2-3c0-4 2-4 2-4z"/>
 <rect style="fill:#f09ec3" height="20" width="4" y="14" x="15"/>
</svg>
