<svg width="48" height="48" version="1.1" xmlns="http://www.w3.org/2000/svg">
 <rect x="3.9998" y="3.917619" width="40" height="40" rx="2" ry="2" style="fill:#21847c"/>
 <path d="m5.9998 3.917619c-1.108 0-2 0.892-2 2v1c0-1.108 0.892-2 2-2h36c1.108 0 2 0.892 2 2v-1c0-1.108-0.892-2-2-2z" style="fill:#8b9cbe;opacity:.1"/>
 <path d="m3.9998 41.917619v1c0 1.108 0.892 2 2 2h36c1.108 0 2-0.892 2-2v-1c0 1.108-0.892 2-2 2h-36c-1.108 0-2-0.892-2-2z" style="opacity:.2"/>
 <path d="m26 18.917969v16h4v-10c2-2 7-2 7-2v-4s-5 0-7 2v-2z" style="opacity:.2"/>
 <path d="m26 17.917969v16h4v-10c2-2 7-2 7-2v-4s-5 0-7 2v-2z" style="fill:#d8fbfd"/>
 <path d="m11 15v20h13v-3h-9v-17z" style="opacity:.2"/>
 <path d="m11 14v20h4 9v-3h-9v-17h-4z" style="fill:#d8fbfd"/>
</svg>
