<svg width="48" height="48" version="1.1" xmlns="http://www.w3.org/2000/svg">
 <path d="m4 42v1c0 1.108 0.892 2 2 2h36c1.108 0 2-0.892 2-2v-1c0 1.108-0.892 2-2 2h-36c-1.108 0-2-0.892-2-2z" style="opacity:.2"/>
 <rect x="4" y="4" width="40" height="40" rx="2" ry="2" style="fill:#5f3271"/>
 <path d="m6 4c-1.108 0-2 0.892-2 2v1c0-1.108 0.892-2 2-2h36c1.108 0 2 0.892 2 2v-1c0-1.108-0.892-2-2-2z" style="fill:#8b9cbe;opacity:.1"/>
 <path d="m26 16v19h3v-9h3s2 0 2 2v7h3v-8s0-4-4-4c-1.51339 0-2.881222 0.14429-4 0.322266v-7.322266z" style="opacity:.2"/>
 <path d="m26 15v8 4 7h3v-7-2h3s2 0 2 2v7h3v-8s0-4-4-4c-1.51339 0-2.881222 0.14429-4 0.322266v-7.322266h-3z" style="fill:#da97fb"/>
 <path d="m19 15c-6 0-8 4.477153-8 10s2 10 8 10c0.852164-0.0039 4.197601-0.201365 5-0.583984v-5.226563c-0.657369 1.15536-4.058536 1.808002-5 1.810547-1.932997 0-4-2.686292-4-6s2-6 4-6c0.940633-2.5e-5 4.34168 0.649011 5 1.800781v-5.216797c-0.802399-0.382619-4.147836-0.580107-5-0.583984z" style="opacity:.2"/>
 <path d="m19 14c-6 0-8 4.477153-8 10s2 10 8 10c0.852164-0.0039 4.197601-0.201365 5-0.583984v-5.226563c-0.657369 1.15536-4.058536 1.808002-5 1.810547-1.932997 0-4-2.686292-4-6s2-6 4-6c0.940633-2.5e-5 4.34168 0.649011 5 1.800781v-5.216797c-0.802399-0.382619-4.147836-0.580107-5-0.583984z" style="fill:#da97fb"/>
</svg>
