<svg width="48" height="48" version="1.1" xmlns="http://www.w3.org/2000/svg">
 <path d="m4 42v1c0 1.108 0.892 2 2 2h36c1.108 0 2-0.892 2-2v-1c0 1.108-0.892 2-2 2h-36c-1.108 0-2-0.892-2-2z" style="opacity:.2"/>
 <rect x="4" y="4" width="40" height="40" rx="2" ry="2" style="fill:#5052c1"/>
 <path d="m6 4c-1.108 0-2 0.892-2 2v1c0-1.108 0.892-2 2-2h36c1.108 0 2 0.892 2 2v-1c0-1.108-0.892-2-2-2z" style="fill:#8b9cbe;opacity:.1"/>
 <path d="m37 35v-12s0-4-4-4-7 1-7 1v15h3v-13h3s2 0 2 2v11z" style="opacity:.2"/>
 <path d="m37 34v-12s0-4-4-4-7 1-7 1v15h3v-13h3s2 0 2 2v11z" style="fill:#aabbfd"/>
 <path d="m11 15v20h12l1-3h-9v-6h8v-3h-8v-5h9l-1-3z" style="opacity:.2"/>
 <path d="m11 14v20h12l1-3h-9v-6h8v-3h-8v-5h9l-1-3z" style="fill:#aabbfd"/>
</svg>
