<svg width="48" height="48" version="1.1" xmlns="http://www.w3.org/2000/svg">
 <path d="m24.023032 8.0033365c-1.336281-0.052663-2.595993 0.521394-3.264816 1.4877903l-16.632693 24.029921c-0.6467939 2.325047 1.2762215 4.054455 4.1523898 5.322623 5.3950068 2.378783 14.143665 3.134706 15.576309 3.154797 2.362198 0.04601 9.520352-0.945092 14.631174-2.80397 3.887461-1.413924 6.590411-3.329912 5.097293-5.67345l-16.632693-24.029921c-0.608447-0.8791703-1.711306-1.4397593-2.926964-1.4877903z" style="opacity:.2"/>
 <path d="m24.023032 4.0036318c-1.336281-0.0573098-2.595993 0.5673993-3.264816 1.6190658l-16.632693 26.150208c-0.6467939 2.530197 1.2762215 4.412201 4.1523898 5.792265 5.3950068 2.588676 14.143665 3.411298 15.576309 3.433162 2.362198 0.05006 9.520352-1.028483 14.631174-3.051379 3.887461-1.538682 6.590411-3.623728 5.097293-6.174048l-16.632693-26.150208c-0.608447-0.956744-1.711306-1.5667968-2.926964-1.6190658z" style="fill:#2fa28e"/>
 <path d="m24.023438 5.0039062c-0.0434-0.00186-0.08569 0.00238-0.128907 0.00195-0.821241 0.020438-1.59279 0.2735177-2.269531 0.7109375-0.341807 0.2482374-0.640818 0.5503028-0.867188 0.90625l-1.412109 2.2207063c-0.214749 0.6704455-0.345703 1.392892-0.345703 2.15625v28c0 3 2.865625 4 5 4s5-1 5-4v-28c0-0.477393-0.05754-0.936207-0.144531-1.3808594l-1.90625-2.9960937c-0.608447-0.956744-1.710124-1.5668717-2.925781-1.6191407z" style="opacity:.2"/>
 <path d="m24.023438 4.0039062c-0.0434-0.00186-0.08569 0.00238-0.128907 0.00195-0.821241 0.020438-1.59279 0.2735177-2.269531 0.7109375-0.341807 0.2482374-0.640818 0.5503028-0.867188 0.90625l-1.412109 2.2207063c-0.214749 0.6704455-0.345703 1.392892-0.345703 2.15625v28c0 3 2.865625 4 5 4s5-1 5-4v-28c0-0.4773927-0.057543-0.9362066-0.144531-1.3808594l-1.90625-2.9960937c-0.608447-0.956744-1.710124-1.5668717-2.925781-1.6191407z" style="fill:#ebebeb"/>
 <rect x="10" y="18" width="4" height="24" rx="3" ry="3" style="opacity:.2"/>
 <path d="m24.023438 4.0039062c-1.336281-0.05731-2.596802 0.5674742-3.265626 1.6191407l-16.632812 26.150391c-0.1298728 0.50805-0.1521516 0.988346-0.0878906 1.445312 0.020636-0.146301 0.0493213-0.294433 0.0878906-0.445312l16.632812-26.150391c0.668824-1.0516665 1.929345-1.6764507 3.265626-1.6191407 1.215657 0.052269 2.317334 0.6623967 2.925781 1.6191407l16.632812 26.150391c0.180286 0.307936 0.296139 0.608116 0.359375 0.902343 0.129385-0.601659 0.03095-1.235643-0.359375-1.902343l-16.632812-26.150391c-0.608447-0.956744-1.710124-1.5668717-2.925781-1.6191407z" style="fill:#8b9cbe;opacity:.2"/>
 <rect x="10" y="17" width="4" height="24" rx="3" ry="3" style="fill:#37bdbd"/>
 <rect x="34" y="18" width="4" height="24" rx="3" ry="3" style="opacity:.2"/>
 <rect x="34" y="17" width="4" height="24" rx="3" ry="3" style="fill:#37bdbd"/>
 <ellipse cx="24" cy="30" rx="4" ry="5" style="opacity:.1"/>
 <ellipse cx="24" cy="29" rx="4" ry="5" style="fill:#4f4f4f"/>
 <path d="m12 17c-1.108 0-2 1.338-2 3v1c0-1.662 0.892-3 2-3s2 1.338 2 3v-1c0-1.662-0.892-3-2-3z" style="fill:#8b9cbe;opacity:.2"/>
 <path d="m36 17c-1.108 0-2 1.338-2 3v1c0-1.662 0.892-3 2-3s2 1.338 2 3v-1c0-1.662-0.892-3-2-3z" style="fill:#8b9cbe;opacity:.2"/>
</svg>
