<svg xmlns="http://www.w3.org/2000/svg" width="48" height="48" version="1.1">
 <path style="opacity:0.2" d="M 24,7.0036 A 3.0296,2.9913 0 0 0 21.376,8.5154 L 4.4057,37.542 A 3.0296,2.9913 0 0 0 5.5143,41.624 3.0296,2.9913 0 0 0 7.0272,42.002 H 7.0291 40.955 40.958 A 3.0296,2.9913 0 0 0 42.485,41.624 3.0296,2.9913 0 0 0 43.593,37.542 L 26.623,8.5154 A 3.0296,2.9913 0 0 0 24,7.0036 Z"/>
 <path style="fill:#ff8a18" d="M 24,6.004 A 3.0296,2.9913 0 0 0 21.376,7.5158 L 4.4057,36.542 A 3.0296,2.9913 0 0 0 5.5143,40.624 3.0296,2.9913 0 0 0 7.0272,41.002 H 7.0291 40.955 40.958 A 3.0296,2.9913 0 0 0 42.485,40.624 3.0296,2.9913 0 0 0 43.593,36.542 L 26.623,7.5158 A 3.0296,2.9913 0 0 0 24,6.004 Z"/>
 <path style="fill:#8b9cbe;opacity:0.2" d="M 24 6.0039 A 3.0296 2.9913 0 0 0 21.377 7.5156 L 4.4062 36.543 A 3.0296 2.9913 0 0 0 4.0469 38.543 A 3.0296 2.9913 0 0 1 4.4062 37.543 L 21.377 8.5156 A 3.0296 2.9913 0 0 1 24 7.0039 A 3.0296 2.9913 0 0 1 26.623 8.5156 L 43.594 37.543 A 3.0296 2.9913 0 0 1 43.953 38.533 A 3.0296 2.9913 0 0 0 43.594 36.543 L 26.623 7.5156 A 3.0296 2.9913 0 0 0 24 6.0039 z"/>
 <path style="opacity:0.2" d="M 24,17 12,23 V 29 L 29.455,34.818 24,37.5 17,34 V 32.667 L 12,31 V 37 L 24,43 36,37 V 31 L 18.545,25.182 24,22.5 31,26 V 27.333 L 36,29 V 23 Z"/>
 <path style="fill:#8b9cbe" d="M 24,16 12,22 V 28 L 29.455,33.818 24,36.5 17,33 V 31.667 L 12,30 V 36 L 24,42 36,36 V 30 L 18.545,24.182 24,21.5 31,25 V 26.333 L 36,28 V 22 Z"/>
</svg>
