<svg xmlns="http://www.w3.org/2000/svg" width="48" height="48" version="1.1">
 <circle style="fill:#ff4e4e" cx="33" cy="43" r="3"/>
 <path style="opacity:0.2" d="m 32.613273,3.9998413 c -0.4237,-0.00555 -1.115788,0.9147588 -1.666018,1.7382846 -1.254309,1.8773153 -2.424347,3.9310704 -3.70704,6.5175911 -1.275587,2.572185 -1.331863,2.35885 -1.179689,7.751968 -0.275225,-0.01122 -0.555002,-0.0091 -0.833987,0.0058 -0.583409,0.03142 -1.169007,0.119771 -1.740238,0.267579 -0.195691,0.05066 -0.386874,0.115139 -0.578125,0.179688 -2.295157,-3.412034 -6.057516,-6.537582 -10.652365,-9.154315 -3.1695956,-1.805022 0.540994,4.870389 1.533206,6.40431 0.787481,1.217342 2.74269,3.436203 4.306649,5.115244 0.33513,0.35977 0.634317,0.671865 0.917971,0.966799 -0.03512,0.07784 -0.07745,0.150145 -0.109373,0.230469 -0.04857,0.122281 -0.09385,0.246957 -0.134767,0.375001 -0.191372,0.599059 -0.294922,1.263055 -0.294922,1.990238 0,2.515273 0.777374,4.458194 0.554689,7.013686 -0.301959,3.465613 -2.875273,5.557631 -1.728519,8.691423 0.02298,0.07399 0.02983,0.141465 0.05664,0.216797 0.235649,0.662142 0.70437,1.348121 1.363283,2.113286 0.106695,0.123889 0.233532,0.231723 0.363282,0.337891 0.517759,0.432467 1.201071,0.732073 1.988285,0.925783 0.53836,0.132479 1.122151,0.219522 1.724613,0.271484 0.205114,0.01766 0.412467,0.03066 0.621096,0.04102 l 0.177733,-0.02343 c 2.114287,0.08354 4.3296,-0.15603 5.625012,-0.226563 0.309428,-0.01685 0.620025,-0.05147 0.929689,-0.101562 0.95657,-0.154829 1.901241,-0.464689 2.77149,-0.89844 h 0.0058 c 0.04683,-0.02386 0.08837,-0.05544 0.134766,-0.08008 0.326559,-0.169682 0.647334,-0.349186 0.947268,-0.552735 0.973732,-0.660715 1.788595,-1.491036 2.320317,-2.437505 0.45376,-0.807678 0.698953,-1.699938 0.664064,-2.642584 -0.01233,-0.974288 -0.308588,-2.003042 -0.980471,-3.050786 -2.191928,-3.417952 -4.569848,-7.614605 -4.693369,-12.183619 -0.06638,-0.665653 -0.299897,-1.246901 -0.660158,-1.742191 -0.281554,-0.387164 -0.640087,-0.722065 -1.056642,-1.001954 -0.0533,-0.0358 -0.11673,-0.06168 -0.171875,-0.0957 0.129795,-0.223794 0.257023,-0.45467 0.376954,-0.695314 1.882466,-3.778355 2.57407,-9.532015 3.111334,-14.0957315 0.18883,-1.6038784 0.02291,-2.1675604 -0.306641,-2.1718792 z"/>
 <path style="fill:#895c33" d="m 32.613274,2.9998392 c -0.4237,-0.00555 -1.115789,0.914759 -1.666019,1.7382846 -1.254308,1.8773154 -2.424345,3.9310709 -3.707039,6.5175912 -1.275587,2.572186 -1.392411,2.45104 -1.240237,7.844156 0.953063,0.05284 2.541954,0.554539 3.431645,1.000002 0.129796,-0.223793 0.257024,-0.591784 0.376954,-0.832428 C 31.691048,15.4891 32.382651,9.7354349 32.919915,5.1717185 33.108746,3.56784 32.942818,3.004158 32.613274,2.9998392 Z m -21.24223,7.000014 c -1.3995863,0.08946 1.549789,5.3687698 2.417973,6.7109518 0.787481,1.217341 2.742691,3.436202 4.30665,5.115244 0.335129,0.35977 0.634317,0.671864 0.917971,0.966799 0,0 0.182579,0.25172 0.301869,0.143801 0.674469,-0.610176 2.866946,-2.97892 3.703526,-3.301178 l -0.11086,-0.17466 C 20.613019,16.048775 16.85066,12.923227 12.255811,10.306495 11.859612,10.080866 11.570985,9.9870727 11.371044,9.9998532 Z"/>
 <path style="opacity:0.1;fill:#8b9cbe" d="m 32.613274,2.9998392 c -0.4237,-0.00555 -1.115789,0.9147591 -1.666019,1.7382846 -1.254308,1.8773154 -2.424345,3.9310713 -3.707039,6.5175912 -1.027535,2.071997 -1.28855,2.535543 -1.277346,5.402354 0.05355,-2.073798 0.367292,-2.567253 1.277346,-4.402352 1.282694,-2.5865198 2.45273,-4.6402758 3.707039,-6.5175912 0.550229,-0.8235255 1.242319,-1.7438317 1.666019,-1.7382846 0.175589,0.0023 0.299742,0.1815829 0.353516,0.5742199 0.07554,-1.1157167 -0.07246,-1.5705385 -0.353516,-1.5742219 z m -21.24223,7.000014 c -0.398649,0.02548 -0.422095,0.4956708 -0.263672,1.1523458 0.0602,-0.08291 0.139787,-0.144425 0.263672,-0.152344 0.199941,-0.01278 0.488569,0.08101 0.884767,0.306642 4.357498,2.481561 7.950817,5.423724 10.269553,8.630876 0.187741,-0.137365 0.362414,-0.251992 0.494141,-0.302735 L 22.908176,19.46081 C 20.613022,16.048774 16.85066,12.923227 12.255811,10.306495 11.859612,10.080866 11.570985,9.9870727 11.371044,9.9998532 Z"/>
 <path style="fill:#c37e3f" d="m 25.222672,18.999871 c -3.147773,0.296222 -5.229437,1.987018 -6.460583,4.386728 -0.191477,0.599374 -0.295083,1.264623 -0.295083,1.99219 0,2.5166 0.777799,4.460752 0.554992,7.017592 -0.301936,3.465267 -2.873405,5.557327 -1.73142,8.689471 0.02369,0.07661 0.03084,0.146571 0.05863,0.224609 0.235778,0.662142 0.704757,1.348122 1.36403,2.113286 0.10675,0.123889 0.233659,0.231723 0.36348,0.337892 0.518044,0.432522 1.20173,0.731969 1.989377,0.925783 0.538655,0.132546 1.122764,0.219493 1.725557,0.271484 0.205225,0.01767 0.412691,0.03065 0.621436,0.04102 l 0.177831,-0.02344 c 2.115444,0.08354 4.331972,-0.15603 5.628094,-0.226562 0.309597,-0.01685 0.620364,-0.05147 0.930198,-0.101563 0.957094,-0.154829 1.902282,-0.464689 2.773008,-0.89844 h 0.0058 c 0.04212,-0.02146 0.07939,-0.05014 0.12116,-0.07227 0.331763,-0.171602 0.657059,-0.354075 0.961467,-0.560547 0.974265,-0.660715 1.789576,-1.491036 2.321587,-2.437505 0.45401,-0.807678 0.699337,-1.699938 0.664429,-2.642584 -0.01158,-0.976211 -0.307849,-2.006932 -0.981008,-3.056646 -2.19313,-3.41975 -4.572353,-7.618052 -4.695941,-12.189477 -0.06642,-0.666004 -0.30006,-1.246641 -0.66052,-1.742191 -1.238137,-1.534935 -3.709769,-2.040664 -5.436581,-2.048832 z"/>
 <path style="opacity:0.2;fill:#8b9cbe" d="m 25.222634,18.999871 c -3.147772,0.296222 -5.229805,1.987018 -6.46095,4.386728 -0.191477,0.599373 -0.294923,1.264624 -0.294923,1.992191 0,0.228409 0.01195,0.448106 0.02344,0.66797 0.02735,-0.595262 0.110426,-1.155997 0.271486,-1.660159 1.231142,-2.39971 3.313175,-4.090506 6.460947,-4.386728 1.726811,0.0082 4.199373,0.513897 5.437511,2.048832 0.36046,0.49555 0.593738,1.076187 0.660157,1.742192 0.123589,4.571425 2.502193,8.769727 4.695323,12.189477 0.604516,0.942674 0.891682,1.867594 0.955079,2.753912 0.02518,-0.228829 0.03412,-0.461606 0.02539,-0.697268 -0.01158,-0.976211 -0.30731,-2.006932 -0.980469,-3.056646 -2.19313,-3.41975 -4.571734,-7.618052 -4.695323,-12.189477 -0.06642,-0.666005 -0.299697,-1.246642 -0.660157,-1.742192 -1.238138,-1.534935 -3.7107,-2.040664 -5.437511,-2.048832 z m -6.179699,12.923854 c -0.0065,0.157531 -0.0074,0.3105 -0.02148,0.472657 -0.26526,3.044348 -2.278509,5.028872 -1.990238,7.589859 0.221815,-2.109971 1.760478,-3.952943 1.990238,-6.589857 0.04481,-0.514168 0.04314,-0.998406 0.02148,-1.472659 z"/>
 <path style="fill:#8e8e8e" d="m 29.795161,32.004555 c 1.13801,0 2.190133,-0.02432 2.975928,0.252666 0.8481,0.29887 1.385756,0.948758 1.385756,2.359008 0,1.289711 -1.984549,3.181279 -2.574676,4.949562 0.198557,1.519125 0.681636,3.023305 1.346482,4.1831 0.37658,-0.188013 0.738868,-0.399356 1.081404,-0.631817 0.973732,-0.660714 1.788258,-1.491373 2.31998,-2.437843 0.896977,-1.596586 0.989271,-3.522691 -0.316302,-5.5181 -3.164275,-6.232882 -15.648346,-1.77325 -18.021261,0.862242 -0.122475,0.837522 -1.571892,2.655459 -0.63508,5.287754 0.235649,0.662141 0.704356,1.34697 1.363269,2.112135 0.532581,0.618399 1.367721,1.008455 2.352148,1.245872 0.53836,0.12984 1.121303,0.214012 1.723765,0.264941 0.205114,0.0173 0.412416,0.03079 0.621044,0.04095 -0.0013,-0.973382 0.06801,-1.943183 0.04724,-2.869296 -0.0018,-0.08052 -0.0044,-0.160718 -0.0076,-0.240543 -0.207067,-2.125555 -4.072476,-2.533908 -4.072476,-5.521226 0,-0.619469 0.202773,-1.153164 0.555302,-1.612447 1.75203,-2.282382 7.203313,-2.72695 9.855131,-2.72695 v 0 z"/>
 <path style="opacity:0.2" d="m 28.585779,26.058608 c -0.605799,0.159467 -1.584732,2.619106 -1.585794,3.423564 -0.0015,1.051061 0.354807,1.454117 1.03538,1.931878 0.680571,0.477762 3.955814,1.06234 3.963747,-0.05703 0.0078,-1.10228 -0.03551,-2.038409 -0.194134,-2.658112 -0.158627,-0.619705 -0.48161,-1.793959 -1.132567,-2.299593 -0.409048,-0.317718 -1.480834,-0.500173 -2.086632,-0.340703 z"/>
 <path style="fill:#8b9cbe" d="m 28.585779,25.058606 c -0.605799,0.159467 -1.584732,2.619105 -1.585794,3.423564 -0.0015,1.051061 0.354807,1.454117 1.03538,1.931878 0.680571,0.477762 3.955814,1.062339 3.963747,-0.05703 0.0078,-1.102279 -0.03551,-2.038408 -0.194134,-2.658111 -0.158627,-0.619705 -0.48161,-1.793959 -1.132567,-2.299594 -0.409048,-0.317717 -1.480834,-0.500172 -2.086632,-0.340703 z"/>
 <circle style="fill:#17191e" cx="28.999" cy="29" r="1"/>
 <path style="opacity:0.2" d="m 24.955556,29.13841 c -0.118016,-0.86474 -1.275932,-2.327595 -2.007942,-2.791585 -1.848793,-1.171906 -3.089138,0.863626 -2.934682,2.556505 0.114722,1.25813 0.802003,4.727657 2.378637,3.996376 1.576634,-0.73128 2.867034,-1.542012 2.563987,-3.761296 z"/>
 <path style="fill:#8b9cbe" d="m 24.955556,28.138408 c -0.118016,-0.864741 -1.275932,-2.327595 -2.007942,-2.791585 -1.848793,-1.171906 -3.089138,0.863625 -2.934682,2.556505 0.114722,1.25813 0.802003,4.727656 2.378637,3.996376 1.576634,-0.73128 2.867034,-1.542012 2.563987,-3.761296 z"/>
 <circle style="fill:#17191e" cx="23" cy="29" r="1"/>
 <path style="fill:#b2bfd9" d="m 29.795161,32.004555 c -2.651818,0 -8.103101,0.444569 -9.855131,2.726951 1.178847,1.535747 2.105105,2.950648 2.942275,4.585736 0.397893,0.777213 0.537501,1.639434 0.574899,2.547936 0.0076,0.07784 0.01009,0.157898 0.0076,0.240543 0.02076,0.926113 -0.04866,1.895914 -0.04722,2.869297 2.166786,0.105227 4.470758,-0.152485 5.802408,-0.22499 0.309428,-0.01685 0.620108,-0.05085 0.929772,-0.100946 0.958583,-0.155154 1.907095,-0.465002 2.778852,-0.900192 -0.664847,-1.159796 -1.147925,-2.663976 -1.346481,-4.183101 -0.06543,-0.500376 -0.09995,-1.002278 -0.09995,-1.494116 0,-1.539175 0.570761,-4.24295 1.28886,-5.814528 -0.785792,-0.276913 -1.837916,-0.252592 -2.975926,-0.252592 v 0 z"/>
 <path style="fill:#17191e" d="m 22.882305,39.317242 c -0.83717,-1.635088 -1.763428,-3.049989 -2.942275,-4.585736 -0.352529,0.459283 -0.555301,0.992978 -0.555301,1.612446 0,2.987319 3.865408,3.395671 4.072475,5.521226 -0.0374,-0.908502 -0.177006,-1.770723 -0.574899,-2.547936 z"/>
 <path style="fill:#17191e" d="m 32.771089,32.257147 c -0.7181,1.571579 -1.288862,4.275353 -1.288862,5.814527 0,0.491839 0.03452,0.993741 0.09995,1.494117 0.590125,-1.768283 2.574675,-3.659851 2.574675,-4.949562 0,-1.41025 -0.537656,-2.060138 -1.385755,-2.359082 z"/>
 <path style="opacity:0.2;fill:#8b9cbe" d="m 29.794909,32.003803 c -2.651818,0 -8.103458,0.446139 -9.855489,2.728522 0.144988,0.188882 0.276414,0.37078 0.414064,0.556641 2.075727,-1.897547 6.97128,-2.285161 9.441425,-2.285161 0.986099,0 1.897,-0.0054 2.636724,0.169923 0.110845,-0.318984 0.218553,-0.650568 0.339844,-0.916018 -0.785792,-0.276912 -1.838558,-0.253907 -2.976568,-0.253907 z m 1.72266,6.595716 c -0.0086,0.152529 -0.03516,0.336717 -0.03516,0.472658 0,0.491838 0.03418,0.993767 0.09961,1.494143 0.154981,1.185737 0.486652,2.356328 0.939455,3.367195 0.136385,-0.06047 0.273205,-0.119129 0.40625,-0.185547 -0.664847,-1.159798 -1.147149,-2.662525 -1.345705,-4.18165 -0.04234,-0.323772 -0.04898,-0.644888 -0.06445,-0.966799 z m -8.060564,4.265634 c -0.01171,0.693033 -0.04011,1.39677 -0.03906,2.109379 0.0071,3.46e-4 0.01436,-3.38e-4 0.02148,0 0.01853,-0.633266 0.039,-1.262122 0.02539,-1.869144 0.0025,-0.08264 -1.93e-4,-0.162396 -0.0078,-0.240235 z"/>
</svg>
