<svg xmlns="http://www.w3.org/2000/svg" width="48" height="48" version="1">
 <rect style="opacity:0.2" width="40" height="40" x="4" y="5" rx="2" ry="2"/>
 <rect style="fill:#4f4f4f" width="40" height="40" x="4" y="4" rx="2" ry="2"/>
 <path style="opacity:0.1;fill:#8b9cbe" d="M 6,4 C 4.892,4 4,4.892 4,6 V 7 C 4,5.892 4.892,5 6,5 h 36 c 1.108,0 2,0.892 2,2 V 6 C 44,4.892 43.108,4 42,4 Z"/>
 <path style="fill:none;stroke:#000000;stroke-width:4;stroke-linecap:round;stroke-linejoin:round;opacity:0.2" d="M 12,16 20,25 12,34"/>
 <path style="fill:none;stroke:#f2f2f2;stroke-width:4;stroke-linecap:round;stroke-linejoin:round" d="M 12,15 20,24 12,33"/>
 <path style="fill:none;stroke:#000000;stroke-width:4;stroke-linecap:round;stroke-linejoin:round;opacity:0.2" d="M 36,34 H 24"/>
 <path style="fill:none;stroke:#f2f2f2;stroke-width:4;stroke-linecap:round;stroke-linejoin:round" d="M 36,33 H 24"/>
</svg>
