<svg xmlns="http://www.w3.org/2000/svg" width="48" height="48" version="1.1">
 <circle style="opacity:0.2" cx="24" cy="25" r="20"/>
 <circle style="fill:#8390a6" cx="24" cy="24" r="20"/>
 <path style="opacity:0.2;fill:#8b9cbe" d="M 24,4 A 20,20 0 0 0 4,24 20,20 0 0 0 4.0215,24.582 20,20 0 0 1 24,5 20,20 0 0 1 43.979,24.418 20,20 0 0 0 44,24 20,20 0 0 0 24,4 Z"/>
 <path style="opacity:0.2" d="m 14.521484,15 c -2.028484,-0.02869 -2.028484,3.028688 0,3 h 0.888672 2.072266 c 2.024574,-0.02869 2.024574,3.028688 0,3 h -1.658203 -3.302735 c -2.028484,-0.02869 -2.028484,3.028688 0,3 H 15.482422 15.5 c 1.424056,-0.0176 1.924761,1.615488 1.169834,2.487046 C 16.237688,26.983841 16,27 15.5,27 h -0.978516 c -2.028484,-0.02869 -2.028484,3.028688 0,3 h 2.28125 c 0.133994,0.05772 0.228516,0.190216 0.228516,0.345703 v 3.882813 c 0.0065,0.423723 0.349715,0.765001 0.773438,0.771484 h 9.644531 c 2.858854,0 5.164237,-0.667278 6.916015,-2 1.751776,-1.332721 2.627899,-3.296642 2.628907,-5.892578 v -4.25 c 0.002,-2.475054 -0.898081,-4.403074 -2.699219,-5.785156 C 32.494792,15.691192 30.206061,15 27.425781,15 H 25.521484 Z M 25,21 h 1.857422 c 1.426989,0 2.14157,0.688491 2.142578,2.064453 v 3.841797 c 0,0.689344 -0.195201,1.210552 -0.585938,1.5625 -0.41599,0.362103 -0.979487,0.55355 -1.55664,0.529297 H 25 Z"/>
 <path id="Shape" style="fill:#8b9cbe" d="m 14.521484,14 c -2.028484,-0.02869 -2.028484,3.028688 0,3 h 0.888672 2.072266 c 2.024574,-0.02869 2.024574,3.028688 0,3 h -1.658203 -3.302735 c -2.028484,-0.02869 -2.028484,3.028688 0,3 H 15.482422 15.5 c 1.424056,-0.0176 1.924761,1.615488 1.169834,2.487046 C 16.237688,25.983841 16,26 15.5,26 h -0.978516 c -2.028484,-0.02869 -2.028484,3.028688 0,3 h 2.28125 c 0.133994,0.05772 0.228516,0.190216 0.228516,0.345703 v 3.882813 c 0.0065,0.423723 0.349715,0.765001 0.773438,0.771484 h 9.644531 c 2.858854,0 5.164237,-0.667278 6.916015,-2 1.751776,-1.332721 2.627899,-3.296642 2.628907,-5.892578 v -4.25 c 0.002,-2.475054 -0.898081,-4.403074 -2.699219,-5.785156 C 32.494792,14.691192 30.206061,14 27.425781,14 H 25.521484 Z M 25,20 h 1.857422 c 1.426989,0 2.14157,0.688491 2.142578,2.064453 v 3.841797 c 0,0.689344 -0.195201,1.210552 -0.585938,1.5625 -0.41599,0.362103 -0.979487,0.55355 -1.55664,0.529297 H 25 Z"/>
</svg>
