<svg xmlns="http://www.w3.org/2000/svg" width="48" height="48" version="1.1">
 <circle style="opacity:0.2" cx="24" cy="25" r="20"/>
 <circle style="fill:#ffa521" cx="24" cy="24" r="20"/>
 <path style="opacity:0.1" d="m 24,9.9999 a 6,6 0 0 0 -6,6 v 8 a 6,6 0 0 0 6,6 6,6 0 0 0 6,-6 v -8 a 6,6 0 0 0 -6,-6 z m -9.978516,12.0625 a 1.0001,1.0001 0 0 0 -0.974609,0.921875 c -0.384656,4.146466 1.609858,8.15892 5.146484,10.357422 1.482216,0.921401 3.131124,1.452436 4.806641,1.605469 V 37.9999 h -4 a 1.0001,1.0001 0 1 0 0,2 h 10 a 1.0001,1.0001 0 1 0 0,-2 h -4 v -3.050781 c 1.656871,-0.15079 3.287503,-0.67281 4.757812,-1.576172 3.548089,-2.179955 5.564113,-6.183609 5.201172,-10.332031 a 1.000851,1.000851 0 1 0 -1.99414,0.173828 c 0.297285,3.397989 -1.347653,6.667515 -4.253906,8.453125 -2.906255,1.785609 -6.566027,1.77541 -9.462891,-0.02539 -2.896864,-1.800802 -4.524057,-5.078223 -4.208985,-8.474609 A 1.0001,1.0001 0 0 0 14.021484,22.0624 Z"/>
 <path style="fill:#8b9cbe;opacity:0.2" d="M 24 4 A 20 20 0 0 0 4 24 A 20 20 0 0 0 4.0214844 24.582031 A 20 20 0 0 1 24 5 A 20 20 0 0 1 43.978516 24.417969 A 20 20 0 0 0 44 24 A 20 20 0 0 0 24 4 z"/>
 <path style="fill:#8b9cbe" d="m 23.270073,12.715992 c -3.313709,0 -2.416722,0.03201 -2.416722,3.34572 L 18,23 c 0,3.313708 2.686292,6 6,6 3.313708,0 6,-2.686292 6,-6 v -8 c 0,-3.313708 -3.416219,-2.284008 -6.729927,-2.284008 z"/>
 <path style="fill:none;stroke:#17191e;stroke-width:2;stroke-linecap:round;stroke-linejoin:round" d="M 33.961947,22.128442 A 10,10 0 0 1 29.234903,31.520316 10,10 0 0 1 18.720557,31.49279 10,10 0 0 1 14.042753,22.076294"/>
 <rect style="fill:#17191e" width="2" height="5" x="23" y="33"/>
 <path style="fill:none;stroke:#17191e;stroke-width:2;stroke-linecap:round;stroke-linejoin:round" d="M 19,37.9999 H 29"/>
 <path style="fill:#ff5f06" d="m 30,15 a 6,6 0 0 1 -6,6 6,6 0 0 1 -6,-6 6,6 0 0 1 6,-6 6,6 0 0 1 6,6 z"/>
 <rect style="fill:#ff5f06" width="6" height="11" x="18" y="14" rx="2" ry="2"/>
</svg>
