<svg xmlns="http://www.w3.org/2000/svg" width="48" height="48" version="1.1">
 <path style="opacity:0.2" d="m 8.0000001,29.166667 c 0,-15 15.9999999,-12.5 15.9999999,-18.333334 0,-2.4999996 -3.368421,-5.8333329 -3.368421,-5.8333329 0,0 7.198905,1.8731667 10.105263,6.6666669 2.526316,4.166666 1.684211,6.666666 -1.68421,10.833333 5.894736,-1.666667 5.894736,-5.833333 5.894736,-5.833333 0,0 5.052632,4.166666 5.052632,12.5 C 40,36.666667 34.105263,45 24,45 13.894737,45 8.0000001,37.5 8.0000001,29.166667 Z"/>
 <path style="fill:#ff7711" d="m 8.0000001,28.166667 c 0,-15 15.9999999,-12.5 15.9999999,-18.3333336 0,-2.5 -3.368421,-5.8333333 -3.368421,-5.8333333 0,0 7.198905,1.8731667 10.105263,6.6666669 2.526316,4.166666 1.684211,6.666666 -1.68421,10.833333 5.894736,-1.666667 5.894736,-5.833333 5.894736,-5.833333 0,0 5.052632,4.166666 5.052632,12.5 C 40,35.666667 34.105263,44 24,44 13.894737,44 8.0000001,36.5 8.0000001,28.166667 Z"/>
 <path style="opacity:0.2" d="M 17,33.142857 C 17,29.714286 17.875,26.285714 22.250001,22 23.125,27.142858 31,28 31,33.142857 31,36.571429 28.375,40 24,40 19.625,40 17,36.571429 17,33.142857 Z"/>
 <path style="fill:#ffda3b" d="M 17,32.142857 C 17,28.714286 17.875,25.285714 22.250001,21 23.125,26.142858 31,27 31,32.142857 31,35.571429 28.375,39 24,39 19.625,39 17,35.571429 17,32.142857 Z"/>
 <path style="fill:#8b9cbe;opacity:0.2" d="M 20.630859 4 C 20.630859 4 21.192812 4.564963 21.853516 5.3867188 C 24.032213 6.1492582 28.571227 8.095082 30.736328 11.666016 C 31.614862 13.114986 32.078487 14.36083 32.177734 15.546875 C 32.317703 14.054434 31.864208 12.526233 30.736328 10.666016 C 27.82997 5.8725154 20.630859 4 20.630859 4 z M 23.957031 10.330078 C 23.064523 15.533587 8 13.610309 8 28.166016 C 8 28.313424 8.0158516 28.458619 8.0195312 28.605469 C 8.4224598 14.241534 24 16.591932 24 10.833984 C 24 10.669622 23.984236 10.50046 23.957031 10.330078 z M 34.947266 15.666016 C 34.947266 15.666016 34.945943 19.334604 30.076172 21.164062 C 29.76342 21.593683 29.430077 22.033235 29.052734 22.5 C 34.94747 20.833333 34.947266 16.666016 34.947266 16.666016 C 34.947266 16.666016 39.753843 20.652152 39.978516 28.601562 C 39.982873 28.456623 40 28.310403 40 28.166016 C 40 19.832682 34.947266 15.666016 34.947266 15.666016 z"/>
 <path style="fill:#8b9cbe;opacity:0.2" d="M 22.25 21 C 17.874999 25.285714 17 28.714007 17 32.142578 C 17 32.285229 17.012459 32.427908 17.021484 32.570312 C 17.121 29.329797 18.118157 26.047519 22.25 22 C 23.104475 27.022229 30.614028 27.968327 30.966797 32.798828 C 30.987967 32.580832 31 32.361466 31 32.142578 C 31 26.999721 23.124999 26.142858 22.25 21 z"/>
</svg>
