<svg xmlns="http://www.w3.org/2000/svg" width="48" height="48" version="1">
 <path style="opacity:0.2" d="M 17.636719,5 4,18.634766 V 43 c 0,1.108 0.892,2 2,2 h 18 6.363281 L 44,31.365234 V 7 C 44,5.892 43.108,5 42,5 H 24 Z"/>
 <path style="fill:#0ca9e3" d="M 17.636719 4 L 4 17.634766 L 4 42 C 4 43.108 4.892 44 6 44 L 24 44 L 30.363281 44 L 44 30.365234 L 44 6 C 44 4.892 43.108 4 42 4 L 24 4 L 17.636719 4 z"/>
 <path style="opacity:0.2" d="m 23,13 c -5.54,0 -10,4.46 -10,10 v 2 c 0,5.54 4.46,10 10,10 H 33 V 29 H 23 c -2.319783,0 -4,-1.680217 -4,-4 v -2 c 0,-2.319783 1.680217,-4 4,-4 h 10 v -6 z"/>
 <path style="fill:#8b9cbe" d="m 23,12 c -5.54,0 -10,4.46 -10,10 v 2 c 0,5.54 4.46,10 10,10 H 33 V 28 H 23 c -2.319783,0 -4,-1.680217 -4,-4 v -2 c 0,-2.319783 1.680217,-4 4,-4 h 10 v -6 z"/>
 <path style="fill:#8b9cbe;opacity:0.2" d="M 17.636719 4 L 4 17.634766 L 4 18.634766 L 17.636719 5 L 24 5 L 42 5 C 43.108 5 44 5.892 44 7 L 44 6 C 44 4.892 43.108 4 42 4 L 24 4 L 17.636719 4 z"/>
</svg>
