<svg xmlns="http://www.w3.org/2000/svg" width="48" height="48" version="1.1">
 <circle style="opacity:0.2" cx="24" cy="25" r="20"/>
 <circle stroke-miterlimit="10" style="fill:#b2bfd9" cx="24" cy="24" r="20"/>
 <path style="opacity:0.1" d="m 32.761719,11 c -0.26885,0.0027 -0.545985,0.01811 -0.833985,0.04102 -0.57651,0.04616 -1.128161,0.205203 -1.716796,0.380859 -0.579223,0.188576 -1.126523,0.45495 -1.681641,0.757813 -0.53193,0.319701 -1.049723,0.689631 -1.537109,1.09375 -0.463247,0.422264 -0.92811,0.859375 -1.316407,1.347656 -0.396173,0.482982 -0.756188,0.988963 -1.050781,1.521484 -0.611714,1.049037 -0.999628,2.177882 -1.226562,3.207031 -0.105462,0.523193 -0.17631,1.015545 -0.208985,1.47461 -0.03916,0.453185 -0.02367,0.882538 -0.01367,1.228515 -3.67e-4,0.16241 0.01451,0.320813 0.03125,0.460938 0.112239,-0.16132 0.233262,-0.332413 0.367188,-0.517578 0.667101,-0.91606 1.606265,-2.094514 2.642578,-3.166016 0.517351,-0.537421 1.066728,-1.037112 1.59375,-1.482422 0.273163,-0.209807 0.537573,-0.410663 0.787109,-0.601562 0.260928,-0.172317 0.507588,-0.334595 0.734375,-0.484375 0.237594,-0.128366 0.455242,-0.245161 0.648438,-0.34961 0.188763,-0.113379 0.37353,-0.164393 0.515625,-0.226562 0.287962,-0.115266 0.451172,-0.179688 0.451172,-0.179688 0,0 -0.160539,0.0786 -0.439454,0.216797 -0.137882,0.07516 -0.314278,0.139575 -0.49414,0.267578 -0.183342,0.11835 -0.389363,0.251097 -0.615234,0.396485 -0.21382,0.166872 -0.446157,0.346719 -0.691407,0.537109 -0.23111,0.207667 -0.47484,0.428768 -0.728515,0.65625 -0.487569,0.480259 -0.988731,1.010909 -1.457032,1.578125 -0.891523,1.069756 -1.716258,2.148033 -2.363281,3.037109 l -0.376953,0.351563 c -1.095839,0.845279 -1.737402,2.752331 -1.738281,4.136719 v 0.748047 l -0.603516,-0.570313 c -3.66e-4,-0.01582 -0.02303,-0.02129 -0.02344,-0.03711 -0.02403,0.005 -0.04622,-0.0595 -0.07422,-0.07227 l 0.01953,-0.0078 c -0.09191,-0.09768 -0.188763,-0.200967 -0.294922,-0.310547 -0.688641,-0.70797 -1.650793,-1.615996 -2.695312,-2.431641 -0.520977,-0.410571 -1.06646,-0.789182 -1.591797,-1.125 -0.269866,-0.156085 -0.531398,-0.306647 -0.777344,-0.449219 -0.256349,-0.126363 -0.497066,-0.244595 -0.720703,-0.355468 -0.23144,-0.09147 -0.442975,-0.175462 -0.630859,-0.25 -0.1862,-0.08302 -0.358883,-0.113674 -0.498047,-0.158204 -0.27939,-0.0786 -0.441406,-0.123046 -0.441406,-0.123046 0,0 0.163075,0.03148 0.447265,0.08984 0.141069,0.03317 0.317632,0.05141 0.509766,0.121094 0.194844,0.06171 0.414688,0.131234 0.654297,0.207031 0.232941,0.09502 0.487824,0.197314 0.755859,0.306641 0.260342,0.12622 0.535172,0.259568 0.820313,0.398437 0.5564,0.301604 1.141412,0.645944 1.703124,1.025391 1.124412,0.755913 1.959851,1.641716 2.71875,2.316406 0.152571,0.136498 0.254052,0.26335 0.382813,0.382813 -0.0062,-0.118637 0.0055,-0.250617 -0.0059,-0.386719 0.0055,-0.233643 -0.05512,-0.640622 -0.126954,-1.019531 -0.07594,-0.379772 -0.182784,-0.805473 -0.318359,-1.228516 -0.369248,-0.82596 -0.865546,-1.713396 -1.59375,-2.505859 -0.354925,-0.404318 -0.767791,-0.778964 -1.208984,-1.128906 -0.434746,-0.355333 -0.931949,-0.658469 -1.425781,-0.949219 -0.513395,-0.272528 -1.048353,-0.510442 -1.589844,-0.707031 -0.560357,-0.179554 -1.106939,-0.332661 -1.671875,-0.414063 -0.571639,-0.06947 -1.106093,-0.05611 -1.646485,-0.01953 -0.539879,0.03684 -1.03579,0.09451 -1.498046,0.207031 -0.468228,0.130532 -0.8837955,0.279535 -1.2382818,0.441406 -0.3537164,0.15267 -0.6604907,0.325297 -0.8945312,0.488282 -0.2363482,0.159075 -0.4089015,0.350051 -0.5253906,0.453125 -0.1165989,0.11285 -0.1738282,0.1875 -0.1738282,0.1875 0,0 0.062661,0.07642 0.1816407,0.222656 0.1167088,0.126111 0.283085,0.351809 0.4785156,0.554687 0.185137,0.207514 0.4076767,0.459826 0.6640625,0.75 0.2430519,0.284317 0.5034124,0.572686 0.7714844,0.853516 0.2692796,0.28694 0.5524906,0.601465 0.8437496,0.875 0.290417,0.276265 0.598199,0.5872 0.916016,0.835938 0.637503,0.5406 1.342015,1.018086 2.103516,1.43164 0.379432,0.221602 0.78151,0.388807 1.1875,0.574219 0.405368,0.177756 0.828391,0.318988 1.253906,0.457031 0.43046,0.125249 0.85937,0.243475 1.294922,0.326172 0.437493,0.08345 0.861974,0.159184 1.283203,0.205078 0.417016,0.04931 0.823218,0.08053 1.197266,0.0957 0.04754,0.003 0.08813,2.06e-4 0.134765,0.002 0.194683,0.215681 0.451764,0.584551 0.548828,0.681641 C 20.782304,27.809684 22,29.070313 22,29.070312 V 41.205078 45 h 2 v -8.962891 c 0,0 2.332624,-1.852564 2.648438,-2.052734 0.236706,-0.0077 0.473676,-0.01497 0.726562,-0.03906 0.350347,-0.0298 0.701505,-0.08699 1.064453,-0.15039 0.361336,-0.06276 0.716242,-0.158207 1.072266,-0.259766 0.351556,-0.113312 0.703394,-0.229016 1.037109,-0.378906 0.334045,-0.156858 0.663642,-0.297859 0.97461,-0.488281 0.624864,-0.353911 1.20063,-0.767512 1.71875,-1.240235 0.258839,-0.21679 0.506937,-0.489864 0.742187,-0.732422 0.236055,-0.240071 0.464305,-0.518643 0.681641,-0.771484 0.21653,-0.247343 0.427506,-0.50077 0.623046,-0.751953 0.206494,-0.256158 0.385992,-0.478994 0.535157,-0.662109 0.157883,-0.178631 0.290585,-0.37907 0.384765,-0.490235 0.09554,-0.129359 0.146485,-0.197265 0.146485,-0.197265 0,0 -0.0502,-0.07008 -0.150391,-0.175782 -0.09986,-0.09681 -0.249844,-0.274762 -0.451172,-0.425781 -0.199497,-0.154485 -0.462619,-0.384707 -0.761718,-0.533203 -0.299977,-0.156858 -0.648884,-0.303927 -1.042969,-0.435547 -0.388627,-0.115157 -0.802421,-0.181837 -1.253907,-0.230469 -0.451889,-0.04844 -0.897786,-0.008 -1.373046,0.03906 -0.469327,0.05801 -0.921741,0.178958 -1.384766,0.326172 -0.446835,0.163149 -0.887182,0.364779 -1.308594,0.597656 -0.404635,0.249978 -0.812335,0.512016 -1.166015,0.822266 -0.359211,0.305204 -0.692715,0.633272 -0.978516,0.990234 -0.587354,0.698705 -1.011891,1.489314 -1.298828,2.228516 -0.138175,0.37719 -0.245511,0.736539 -0.320313,1.076171 -0.07924,0.334248 -0.113016,0.658982 -0.142578,0.919922 -0.01777,0.12175 -0.02323,0.240147 -0.02539,0.347657 0.104401,-0.104836 0.218018,-0.214382 0.341796,-0.333985 0.615964,-0.590968 1.469727,-1.339772 2.388672,-1.99414 0.459032,-0.328558 0.937953,-0.622821 1.394532,-0.88086 0.23437,-0.118021 0.461741,-0.230681 0.675781,-0.33789 0.220853,-0.09166 0.429144,-0.178103 0.621094,-0.257813 0.198032,-0.06204 0.379982,-0.119407 0.541015,-0.169922 0.107809,-0.03932 0.207325,-0.02906 0.298828,-0.02344 -0.08961,0.0232 -0.176659,0.04005 -0.28125,0.08789 -0.15488,0.06238 -0.328753,0.132477 -0.519531,0.208985 -0.183782,0.09436 -0.38308,0.195261 -0.59375,0.302734 -0.201548,0.122465 -0.415499,0.25265 -0.636719,0.386719 -0.429764,0.289984 -0.874632,0.61663 -1.298828,0.974609 -0.8507,0.710873 -1.629037,1.507721 -2.185547,2.13086 -0.04045,0.04547 -0.07567,0.08606 -0.113281,0.128906 -0.0017,-5.79e-4 -0.0041,-0.0014 -0.0059,-0.002 L 25.244141,33.65625 24,34.587891 v -8.50586 c -0.0012,-1.112287 0.544834,-2.460648 1.470703,-3.076172 l 0.0098,-0.0078 c 0.03194,-0.02205 0.04312,-0.03066 0.07422,-0.05469 0.02441,-0.02254 0.06946,-0.04963 0.103515,-0.07813 0.328139,-0.07186 0.664365,-0.148491 1.015625,-0.251953 0.434782,-0.123213 0.867974,-0.283204 1.3125,-0.453125 0.442622,-0.168689 0.87186,-0.377875 1.300781,-0.595703 0.421229,-0.231982 0.840242,-0.46698 1.232422,-0.742187 0.391374,-0.284316 0.780475,-0.544837 1.136719,-0.867188 0.721134,-0.610369 1.369988,-1.2885 1.935547,-2.027344 0.28602,-0.343981 0.549048,-0.757125 0.800781,-1.128906 0.253199,-0.368696 0.489423,-0.785269 0.716797,-1.166016 0.227337,-0.37345 0.446182,-0.753611 0.646484,-1.126953 0.213161,-0.382487 0.398405,-0.716443 0.552735,-0.990234 0.166052,-0.270053 0.296321,-0.561426 0.394531,-0.728516 0.09667,-0.191045 0.148438,-0.291015 0.148437,-0.291015 0,0 -0.0738,-0.07832 -0.21875,-0.191406 -0.142937,-0.10165 -0.364298,-0.297749 -0.644531,-0.445313 C 35.709696,11.706873 35.338167,11.472236 34.935547,11.351562 34.53029,11.220256 34.063848,11.111007 33.544922,11.035156 33.290367,11.007284 33.030569,10.997332 32.761719,11 Z"/>
 <path style="fill:#444444" d="M 22.00002,40.20502 21.99998,44 H 24 v -8.962206 c 0,0 2.498707,-1.988116 2.716153,-2.106181 -0.167774,-0.04971 -0.715968,-0.123778 -0.715968,-0.123778 -0.164294,-0.132131 -0.470206,-0.148323 -0.67527,-0.21763 l -0.0807,0.06674 L 24,33.588491 v -8.505559 c -0.0012,-1.112287 0.544401,-2.460972 1.47027,-3.076496 l 0.0095,-0.0076 c 0.03194,-0.02205 0.04447,-0.03183 0.07557,-0.05586 0.159605,-0.147369 0.567243,-0.45347 0.676882,-0.509737 -0.03726,-0.187151 -0.205944,-0.33979 -0.391667,-0.46617 -0.15356,-0.10451 -1.128125,0.09573 -1.298976,0.02254 -0.165759,-0.07103 -0.184404,-0.0444 -0.286717,0.118431 l -0.47277,0.439471 c -1.095839,0.845279 -1.738251,2.751659 -1.73913,4.136047 v 0.748157 l -0.603069,-0.570027 c -3.66e-4,-0.01582 -0.02443,-0.02147 -0.02484,-0.03729 -0.02531,0.0053 -0.04777,-0.06982 -0.07803,-0.07674 l -1.43798,0.08034 c 0.143999,0.0063 0.607098,0.7053 0.744833,0.843072 0.137773,0.137809 1.356144,1.399371 1.356144,1.399371 V 40.20502"/>
 <path style="fill:#ff6d00" d="m 24.679128,21.997315 c 0.20272,0.01154 0.486287,-0.01423 0.753186,-0.07524 0.391117,-0.07945 0.81231,-0.181971 1.241964,-0.308523 0.434782,-0.123213 0.866928,-0.283264 1.311454,-0.453185 0.442622,-0.168689 0.872313,-0.377843 1.301234,-0.595671 0.421229,-0.231982 0.840077,-0.466468 1.232257,-0.741675 0.391374,-0.284316 0.780879,-0.546275 1.137123,-0.868626 0.721134,-0.610369 1.369186,-1.287479 1.934745,-2.026323 0.28602,-0.343981 0.549916,-0.757826 0.801649,-1.129607 0.253199,-0.368696 0.489474,-0.785806 0.716848,-1.166552 0.227337,-0.37345 0.445772,-0.753252 0.646074,-1.126594 0.213161,-0.382487 0.398224,-0.71598 0.552554,-0.989771 0.166052,-0.270053 0.296791,-0.560539 0.395001,-0.727629 0.09667,-0.191045 0.148029,-0.29183 0.148029,-0.29183 0,0 -0.07422,-0.07868 -0.219168,-0.191769 -0.142937,-0.101649 -0.363461,-0.297086 -0.643694,-0.44465 -0.278585,-0.152502 -0.650434,-0.388186 -1.053054,-0.508859 -0.405257,-0.131306 -0.871616,-0.239313 -1.390542,-0.315164 -0.509109,-0.055745 -1.041954,-0.040103 -1.617953,0.0057 -0.57651,0.04616 -1.127599,0.204109 -1.716235,0.379765 -0.579222,0.188576 -1.126391,0.45656 -1.681509,0.759422 -0.53193,0.319701 -1.048877,0.688034 -1.536263,1.092152 -0.463246,0.422264 -0.927956,0.859843 -1.316253,1.348124 -0.396173,0.482982 -0.756373,0.989517 -1.050966,1.522038 -0.611714,1.049037 -1.000744,2.178099 -1.227678,3.207248 -0.105462,0.523193 -0.176748,1.014667 -0.209423,1.473732 -0.03916,0.453185 -0.02205,0.883688 -0.01205,1.229665 -3.67e-4,0.16241 0.01341,0.319157 0.03015,0.459282 0.112239,-0.16132 0.23415,-0.332367 0.368076,-0.517532 0.667101,-0.91606 1.606743,-2.093718 2.643056,-3.16522 0.517351,-0.537421 1.065252,-1.036081 1.592274,-1.481391 0.273163,-0.209807 0.537644,-0.411703 0.78718,-0.602602 0.260928,-0.172317 0.50779,-0.334871 0.734577,-0.484651 0.237594,-0.128366 0.456066,-0.244721 0.649262,-0.34917 0.188763,-0.113379 0.372215,-0.164224 0.51431,-0.226393 0.287962,-0.115266 0.451889,-0.180374 0.451889,-0.180374 0,0 -0.159971,0.07945 -0.438885,0.217646 -0.137882,0.07516 -0.314374,0.139582 -0.494236,0.267585 -0.183342,0.11835 -0.389835,0.251363 -0.615707,0.396751 -0.21382,0.166872 -0.445259,0.346485 -0.690509,0.536875 -0.23111,0.207667 -0.475737,0.427346 -0.729412,0.654828 -0.487569,0.480259 -0.988179,1.012091 -1.45648,1.579307 -0.940374,1.128373 -1.821588,2.280444 -2.48151,3.194182 -0.103777,0.169378 -0.330272,0.442117 -0.345584,0.454601 0,3.7e-5 0.744211,0.192786 0.984223,0.1901 z"/>
 <path style="fill:#444444" d="m 25.771445,32.986179 c 0.190046,0.0084 0.393279,0.01861 0.606732,0.01134 0.311737,-0.0032 0.649335,-0.01948 0.996018,-0.05251 0.350347,-0.0298 0.702561,-0.08758 1.065509,-0.150982 0.361336,-0.06276 0.716957,-0.157762 1.072981,-0.259321 0.351556,-0.113312 0.701536,-0.228883 1.035251,-0.378773 0.334045,-0.156858 0.664244,-0.297255 0.975211,-0.487677 0.624865,-0.353911 1.200277,-0.768395 1.718397,-1.241118 0.25884,-0.21679 0.508046,-0.489183 0.743296,-0.731741 0.236055,-0.240071 0.464198,-0.518868 0.681534,-0.771709 0.21653,-0.247343 0.426833,-0.50075 0.622374,-0.751933 0.206493,-0.256158 0.385952,-0.479654 0.535117,-0.662769 0.157883,-0.178631 0.290527,-0.37768 0.384707,-0.488845 0.09554,-0.129359 0.146234,-0.197542 0.146234,-0.197542 0,0 -0.04905,-0.06969 -0.149238,-0.175392 -0.09986,-0.09681 -0.249682,-0.27518 -0.45101,-0.426199 -0.199497,-0.154485 -0.46233,-0.384838 -0.761429,-0.533334 -0.299977,-0.156858 -0.649847,-0.305052 -1.043932,-0.436672 -0.388627,-0.115157 -0.803372,-0.180138 -1.254858,-0.22877 -0.45189,-0.04844 -0.896124,-0.0094 -1.371384,0.03763 -0.469327,0.05801 -0.922389,0.180177 -1.385414,0.327391 -0.446835,0.163149 -0.887295,0.364986 -1.308707,0.597863 -0.404635,0.249978 -0.81209,0.511258 -1.16577,0.821508 -0.359211,0.305204 -0.69311,0.633198 -0.978911,0.99016 -0.587354,0.698705 -1.010744,1.489475 -1.297681,2.228677 -0.138175,0.37719 -0.246495,0.735546 -0.321297,1.075179 -0.07924,0.334248 -0.112423,0.659605 -0.141985,0.920545 -0.01777,0.12175 -0.02403,0.241315 -0.02619,0.348825 0.104401,-0.104836 0.217373,-0.215548 0.341152,-0.335151 0.615963,-0.590968 1.471389,-1.338908 2.390334,-1.993276 0.459032,-0.328558 0.937553,-0.623667 1.394132,-0.881706 0.23437,-0.118021 0.461194,-0.231371 0.675234,-0.33858 0.220853,-0.09166 0.429764,-0.177991 0.621714,-0.257701 0.198032,-0.06204 0.379945,-0.117832 0.540978,-0.168347 0.158543,-0.05782 0.306279,0.0026 0.423134,-0.02358 0.235652,-0.04498 0.369761,-0.142317 0.369761,-0.142317 0,0 -0.13257,0.03654 -0.363717,0.100017 -0.114987,0.03651 -0.25873,0.05941 -0.411997,0.12951 -0.15488,0.06238 -0.32932,0.132372 -0.520098,0.20888 -0.183782,0.09436 -0.382546,0.195734 -0.593216,0.303207 -0.201548,0.122465 -0.414854,0.252013 -0.636074,0.386082 -0.429764,0.289984 -0.875206,0.616734 -1.299402,0.974713 -0.8507,0.710873 -1.630041,1.508877 -2.186551,2.132016 -0.08579,0.09644 -0.16466,0.186353 -0.238876,0.27243"/>
 <path style="fill:#444444" d="m 21.361197,25.74326 c -0.09191,-0.09768 -0.189606,-0.19975 -0.295765,-0.30933 -0.688641,-0.70797 -1.650445,-1.617092 -2.694964,-2.432737 -0.520977,-0.410571 -1.066314,-0.787539 -1.591651,-1.123357 -0.269866,-0.156085 -0.530098,-0.306886 -0.776044,-0.449458 -0.256349,-0.126363 -0.498192,-0.245573 -0.721829,-0.356446 -0.23144,-0.09147 -0.443025,-0.17517 -0.630909,-0.249708 -0.1862,-0.08302 -0.359395,-0.113604 -0.498559,-0.158133 -0.27939,-0.0786 -0.439654,-0.123847 -0.439654,-0.123847 0,0 0.161692,0.03282 0.445882,0.09118 0.141069,0.03317 0.318623,0.05161 0.510757,0.121295 0.194844,0.06171 0.414964,0.129993 0.654573,0.20579 0.232941,0.09502 0.486433,0.198026 0.754468,0.307353 0.260342,0.12622 0.536253,0.259662 0.821394,0.398532 0.5564,0.301603 1.140421,0.644861 1.702133,1.024308 1.124412,0.755913 1.959837,1.642466 2.718737,2.317156 0.152571,0.136498 0.254664,0.262825 0.383425,0.382288 -0.0062,-0.118637 0.0053,-0.249528 -0.0061,-0.38563 0.0055,-0.233643 -0.05535,-0.64159 -0.127185,-1.020499 -0.07594,-0.379772 -0.181767,-0.804682 -0.317342,-1.227725 -0.369248,-0.82596 -0.866707,-1.713806 -1.594911,-2.506269 -0.354925,-0.404318 -0.76652,-0.778519 -1.207713,-1.128461 -0.434746,-0.355333 -0.932315,-0.658661 -1.426148,-0.949411 -0.513395,-0.272528 -1.048548,-0.511488 -1.590039,-0.708077 -0.560357,-0.179554 -1.107928,-0.331182 -1.672864,-0.412584 -0.571639,-0.06947 -1.10584,-0.05596 -1.646232,-0.01938 -0.539879,0.03684 -1.035177,0.09312 -1.497434,0.205645 -0.468227,0.130532 -0.882899,0.280939 -1.2373852,0.44281 -0.3537165,0.15267 -0.6612036,0.323777 -0.8952441,0.486762 -0.2363482,0.159075 -0.4100561,0.350236 -0.5265452,0.45331 C 7.8414496,18.731487 7.785,18.806528 7.785,18.806528 c 0,0 0.063117,0.07709 0.1820966,0.223328 0.1167088,0.126111 0.2825775,0.350588 0.4780081,0.553466 0.185137,0.207514 0.4079315,0.460672 0.6643173,0.750846 0.2430519,0.284317 0.503907,0.571616 0.771979,0.852446 0.26928,0.28694 0.55237,0.602919 0.843629,0.876454 0.290417,0.276265 0.598564,0.585955 0.916381,0.834692 0.637503,0.5406 1.341749,1.019169 2.10325,1.432723 0.379432,0.221602 0.780257,0.38872 1.186247,0.574132 0.405368,0.177756 0.829087,0.318207 1.254602,0.45625 0.43046,0.125249 0.860261,0.243238 1.295813,0.325935 0.437493,0.08345 0.861945,0.160254 1.283174,0.206148 0.417016,0.04931 0.822457,0.07978 1.196504,0.09495 0.256313,0.01599 0.499731,0.01232 0.727397,0.01007"/>
 <path style="opacity:0.2;fill:#8b9cbe" d="M 24,4 A 20,20 0 0 0 4,24 20,20 0 0 0 4.0215,24.582 20,20 0 0 1 24,5 20,20 0 0 1 43.979,24.418 20,20 0 0 0 44,24 20,20 0 0 0 24,4 Z"/>
</svg>
