<svg xmlns="http://www.w3.org/2000/svg" width="48" height="48" version="1">
 <path style="opacity:0.2" d="M 44,25 A 20,20 0 0 1 24,45 20,20 0 0 1 4,25 20,20 0 0 1 24,5 20,20 0 0 1 44,25 Z"/>
 <path style="fill:#b2bfd9" d="m44 24a20 20 0 0 1 -20 20 20 20 0 0 1 -20 -20 20 20 0 0 1 20 -20 20 20 0 0 1 20 20z"/>
 <path style="fill:#8b9cbe;opacity:0.2" d="M 24 4 A 20 20 0 0 0 4 24 A 20 20 0 0 0 4.0214844 24.582031 A 20 20 0 0 1 24 5 A 20 20 0 0 1 43.978516 24.417969 A 20 20 0 0 0 44 24 A 20 20 0 0 0 24 4 z"/>
 <circle style="fill:#4f4f4f" cx="10" cy="37" r="8"/>
 <path style="fill:#8b9cbe" d="m 8.517,40.874 c 0,-0.20757 0.0298,-0.38294 0.0894,-0.52659 0.0596,-0.14318 0.14222,-0.25898 0.2484,-0.34738 0.1057,-0.0884 0.23062,-0.15231 0.37428,-0.19219 0.14318,-0.0394 0.29645,-0.0596 0.45981,-0.0596 0.15471,0 0.30174,0.0202 0.4406,0.0596 0.13885,0.0399 0.26137,0.10378 0.36755,0.19219 0.10571,0.0884 0.18931,0.2042 0.25129,0.34738 0.062,0.14365 0.0927,0.31902 0.0927,0.52659 0,0.19891 -0.0307,0.369 -0.0927,0.51026 -0.062,0.14078 -0.14558,0.25849 -0.25129,0.35122 -0.10618,0.0923 -0.2287,0.15952 -0.36755,0.2018 -0.13886,0.0418 -0.28589,0.0629 -0.4406,0.0629 -0.16336,0 -0.31663,-0.0211 -0.45981,-0.0629 C 9.08542,41.89498 8.9605,41.82773 8.8548,41.73548 8.74862,41.64278 8.66597,41.52504 8.6064,41.38426 c -0.059,-0.141 -0.089,-0.311 -0.089,-0.51 m 0.21862,-2.2649 v -0.4896 c 0,-0.22534 0.0231,-0.42954 0.0696,-0.6126 0.0461,-0.18353 0.11676,-0.35746 0.21189,-0.52323 0.0947,-0.16528 0.21717,-0.32671 0.36708,-0.48335 0.15038,-0.15664 0.33152,-0.31904 0.54341,-0.48672 0.18546,-0.14558 0.3421,-0.27579 0.4699,-0.3911 0.12828,-0.11435 0.23158,-0.22823 0.31135,-0.34113 0.0793,-0.11243 0.13693,-0.23015 0.172,-0.35363 0.0356,-0.12396 0.0534,-0.26763 0.0534,-0.4305 0,-0.25177 -0.0855,-0.45981 -0.25514,-0.62269 -0.17009,-0.16336 -0.42954,-0.24504 -0.77835,-0.24504 -0.30415,0 -0.6323,0.0639 -0.98353,0.19171 -0.35026,0.12828 -0.71398,0.28491 -1.0892,0.47038 l -0.67505,-1.4635 c 0.18931,-0.11051 0.39591,-0.21525 0.61884,-0.31422 0.22343,-0.0995 0.45501,-0.18787 0.69525,-0.26522 0.24071,-0.0769 0.48479,-0.1379 0.73175,-0.1821 0.24745,-0.0442 0.49008,-0.0663 0.72888,-0.0663 0.4502,0 0.8562,0.0543 1.218,0.1624 0.36228,0.1081 0.6693,0.26569 0.92058,0.47326 0.25225,0.20756 0.44492,0.45981 0.57945,0.7553 0.13501,0.29597 0.20228,0.63326 0.20228,1.0128 0,0.27819 -0.0313,0.5266 -0.0927,0.74521 -0.0615,0.21862 -0.15375,0.42185 -0.27435,0.60923 -0.12204,0.18787 -0.27435,0.369 -0.45741,0.54294 -0.18306,0.17441 -0.39639,0.35891 -0.63903,0.55302 -0.18546,0.14558 -0.3368,0.2729 -0.45404,0.38101 -0.11676,0.10811 -0.20853,0.21093 -0.27435,0.3075 -0.0663,0.0975 -0.11146,0.19796 -0.13597,0.30174 -0.0241,0.1033 -0.0365,0.22582 -0.0365,0.36708 v 0.39735 h -1.748 z"/>
 <path style="opacity:0.2" d="M 17.979,37.424 A 8,8 0 0 1 10,45 8,8 0 0 1 2.021,37.576 8,8 0 0 0 2,38 a 8,8 0 0 0 8,8 8,8 0 0 0 8,-8 8,8 0 0 0 -0.02148,-0.57617 z"/>
 <path style="opacity:0.1" d="m 46.004261,37.130459 c -0.539476,0.155402 -3.527763,1.00297 -3.856117,0.806139 -3.35644,-2.012091 -6.035912,-1.006407 -9.176164,0.301941 C 31.990538,38.647397 31.00602,39.049381 29.590211,39.633 35.191214,28.645917 31.728398,17.867243 18.955,15.457147 c 2.44483,-0.571497 5.861514,-0.626494 8.545328,0.07833 7.319295,1.924711 11.350534,4.820372 15.667249,12.634277 1.267824,2.565498 2.972367,6.62514 2.836684,8.9607"/>
 <path style="fill:#dc3034" d="m 46.004261,36.130459 c -0.539476,0.155402 -3.527763,1.00297 -3.856117,0.806139 -3.35644,-2.012091 -6.035912,-1.006407 -9.176164,0.301941 C 31.990538,37.647397 31.00602,38.049381 29.590211,38.633 35.191214,27.645917 31.728398,16.867243 18.955,14.457147 c 2.44483,-0.571497 5.861514,-0.626494 8.545328,0.07833 7.319295,1.924711 11.350534,4.820372 15.667249,12.634277 1.267824,2.565498 2.972367,6.62514 2.836684,8.9607"/>
 <path style="opacity:0.1" d="m 5.608,27.595227 c 1.8507189,-3.583484 8.385946,-4.52006 12.063503,-2.63334 3.658743,1.877132 6.086567,7.933669 2.75455,13.809113 0.04505,-4.119885 -0.90944,-7.897486 -4.052586,-10.554525 C 13.289116,25.690778 9.4353518,26.076118 5.608,27.595227"/>
 <path style="fill:#48539e" d="m 5.608,26.595227 c 1.8507189,-3.583484 8.385946,-4.52006 12.063503,-2.63334 3.658743,1.877132 6.086567,7.933669 2.75455,13.809113 0.04505,-4.119885 -0.90944,-7.897486 -4.052586,-10.554525 C 13.289116,24.690778 9.4353518,25.076118 5.608,26.595227"/>
 <path style="opacity:0.1" d="m 8.385,22.210998 c 2.583228,-3.366753 5.839625,-4.347109 9.440476,-4.061632 4.739505,0.375753 8.342889,2.70281 10.2714,7.182888 1.799702,4.295912 0.872171,9.811705 -2.953733,14.081746 1.44385,-5.575856 1.151136,-10.278998 -2.528412,-14.160442 C 18.814516,21.408839 13.979128,20.66439 8.385,22.210998"/>
 <path style="fill:#469d3b" d="m 8.385,21.210998 c 2.583228,-3.366753 5.839625,-4.347109 9.440476,-4.061632 4.739505,0.375753 8.342889,2.70281 10.2714,7.182888 1.799702,4.295912 0.872171,9.811705 -2.953733,14.081746 1.44385,-5.575856 1.151136,-10.278998 -2.528412,-14.160442 C 18.814516,20.408839 13.979128,19.66439 8.385,21.210998"/>
</svg>
