<svg xmlns="http://www.w3.org/2000/svg" width="48" height="48" version="1.1">
 <path style="opacity:0.2" d="M 38.771565,4.9999525 31.968936,11.794874 C 29.623972,9.6195728 28.367632,8.7486871 25.804969,9.1581556 c -2.16545,0.345489 -3.498091,2.0864174 -4.22845,4.2617184 -0.730487,2.175302 -0.613969,2.622065 -1.703099,3.492187 -1.793864,1.433139 -5.356767,0.769356 -8.290888,1.53711 -3.3314607,0.87012 -6.3051152,3.862664 -7.2147325,7.419922 -1.1788248,4.542541 0.512564,8.279783 4.5487579,12.566406 3.7671146,4.005113 7.9695056,6.577249 11.6853666,6.564453 3.459595,0 7.317362,-1.996826 9.63657,-5.630859 1.537598,-2.405627 0.79333,-8.471027 2.023407,-10.044922 1.781051,-2.277668 5.318308,-1.599674 6.253809,-3.455078 0.84555,-1.676262 0.436802,-3.465946 -1.062484,-4.195313 -0.92243,-0.447855 -1.834013,-0.550724 -2.449181,-0.80664 -0.473964,-0.19194 -0.832619,-0.730224 -0.781238,-1.382813 L 44,9.7089369 C 43.889707,8.3121398 43.401403,7.3473509 42.642593,6.3877455 41.703099,5.4660574 40.371092,5.1538387 39.25984,4.9999525 Z"/>
 <path style="fill:#3194ed" d="m 38.771565,4 -6.802629,6.794922 C 29.623972,8.6196203 28.367632,7.7487346 25.804969,8.1582031 c -2.16545,0.345489 -3.498091,2.0864179 -4.22845,4.2617189 -0.730487,2.175302 -0.613969,2.622065 -1.703099,3.492187 -1.793864,1.433139 -5.356767,0.769356 -8.290888,1.53711 -3.3314607,0.87012 -6.3051152,3.862664 -7.2147325,7.419922 -1.1788248,4.542541 0.512564,8.279783 4.5487579,12.566406 C 12.683672,41.44066 16.886063,44.012796 20.601924,44 c 3.459595,0 7.317362,-1.996826 9.63657,-5.630859 1.537598,-2.405627 0.79333,-8.471027 2.023407,-10.044922 1.781051,-2.277668 5.318308,-1.599674 6.253809,-3.455078 0.84555,-1.676262 0.436802,-3.465946 -1.062484,-4.195313 -0.92243,-0.447855 -1.834013,-0.550724 -2.449181,-0.80664 -0.473964,-0.19194 -0.832619,-0.730224 -0.781238,-1.382813 L 44,8.7089844 C 43.889707,7.3121873 43.401403,6.3473984 42.642593,5.387793 41.703099,4.4661049 40.371092,4.1538862 39.25984,4 Z"/>
 <path style="opacity:0.2" d="m 42.292969,5.2929688 -25,25.0000002 1.414062,1.414062 L 24,26.414062 V 36 h 2 V 24.414062 L 43.707031,6.7070312 Z"/>
 <path style="fill:#8b9cbe" d="M 41.810547 4.7753906 L 17.292969 29.292969 L 18.707031 30.707031 L 24 25.414062 L 24 35 L 26 35 L 26 23.414062 L 43.207031 6.2070312 C 43.039494 5.9285415 42.854773 5.6570172 42.642578 5.3886719 C 42.390557 5.1414277 42.107219 4.9436297 41.810547 4.7753906 z"/>
 <path style="opacity:0.2" d="m 25,21 c -1.656854,0 -3,1.343146 -3,3 0,1.656854 1.343146,3 3,3 1.656854,0 3,-1.343146 3,-3 0,-1.656854 -1.343146,-3 -3,-3 z m -8,8 c -1.656854,0 -3,1.343146 -3,3 0,1.656854 1.343146,3 3,3 1.656854,0 3,-1.343146 3,-3 0,-1.656854 -1.343146,-3 -3,-3 z m 8,4 c -1.656854,0 -3,1.343146 -3,3 0,1.656854 1.343146,3 3,3 1.656854,0 3,-1.343146 3,-3 0,-1.656854 -1.343146,-3 -3,-3 z"/>
 <circle style="fill:#8b9cbe" cx="17" cy="31" r="3"/>
 <circle style="fill:#8b9cbe" cx="25" cy="35" r="3"/>
 <circle style="fill:#8b9cbe" cx="25" cy="23" r="3"/>
 <path style="fill:#8b9cbe;opacity:0.2" d="M 38.771484 4 L 31.96875 10.794922 C 29.623786 8.6196202 28.367351 7.7487346 25.804688 8.1582031 C 23.639238 8.5036921 22.306531 10.244621 21.576172 12.419922 C 20.845685 14.595224 20.962177 15.041987 19.873047 15.912109 C 18.079183 17.345248 14.516152 16.681465 11.582031 17.449219 C 8.2505706 18.319339 5.2768048 21.311883 4.3671875 24.869141 C 4.0702897 26.013221 3.9567842 27.106364 4.015625 28.169922 C 4.0498678 27.421981 4.1623118 26.658619 4.3671875 25.869141 C 5.2768048 22.311883 8.2505706 19.319339 11.582031 18.449219 C 14.516152 17.681465 18.079183 18.345248 19.873047 16.912109 C 20.962177 16.041987 20.845685 15.595224 21.576172 13.419922 C 22.306531 11.244621 23.639238 9.5036921 25.804688 9.1582031 C 28.36735 8.7487346 29.623786 9.6196207 31.96875 11.794922 L 38.771484 5 L 39.259766 5 C 40.371018 5.1538862 41.703084 5.4669838 42.642578 6.3886719 C 43.232659 7.1348994 43.652871 7.8905357 43.865234 8.84375 L 44 8.7089844 C 43.889707 7.3121873 43.401388 6.3482773 42.642578 5.3886719 C 41.703084 4.4669838 40.371018 4.1538862 39.259766 4 L 38.771484 4 z M 34.400391 19.306641 L 34.222656 19.484375 C 34.171275 20.136964 34.529942 20.675248 35.003906 20.867188 C 35.619074 21.123104 36.530695 21.225973 37.453125 21.673828 C 38.288331 22.080136 38.772292 22.820152 38.902344 23.681641 C 39.103683 22.409406 38.59906 21.231298 37.453125 20.673828 C 36.530695 20.225973 35.619074 20.123104 35.003906 19.867188 C 34.754815 19.766314 34.543003 19.565153 34.400391 19.306641 z"/>
</svg>
