<svg xmlns="http://www.w3.org/2000/svg" width="48" height="48" version="1">
 <circle style="opacity:0.2" cx="24" cy="25" r="20"/>
 <circle style="fill:#009688" cx="24" cy="24" r="20"/>
 <path style="opacity:0.2" d="m 24,13 c -2.791856,0.0033 -5.495202,0.979906 -7.644531,2.761719 L 20.535156,23 26.1875,13.208984 C 25.46626,13.072566 24.734024,13.002611 24,13 Z M 28.177734,13.765625 24,21 H 35.298828 C 34.112189,17.65385 31.50474,15.004923 28.177734,13.765625 Z M 14.880859,17.207031 C 13.023253,19.378773 12.001694,22.142175 12,25 c 6.88e-4,0.670242 0.05753,1.339249 0.169922,2 h 8.365234 z M 27.464844,23 33.119141,32.792969 C 34.976747,30.621227 35.998306,27.857825 36,25 35.999312,24.329758 35.94247,23.660751 35.830078,23 Z m 0,4 -5.652344,9.791016 C 22.53374,36.927434 23.265976,36.997389 24,37 c 2.791856,-0.0033 5.495202,-0.979906 7.644531,-2.761719 z m -14.763672,2 c 1.186639,3.34615 3.794088,5.995077 7.121094,7.234375 L 24,29 Z"/>
 <path style="fill:#8b9cbe" d="m 24,12 c -2.791856,0.0033 -5.495202,0.979906 -7.644531,2.761719 L 20.535156,22 26.1875,12.208984 C 25.46626,12.072566 24.734024,12.002611 24,12 Z M 28.177734,12.765625 24,20 H 35.298828 C 34.112189,16.65385 31.50474,14.004923 28.177734,12.765625 Z M 14.880859,16.207031 C 13.023253,18.378773 12.001694,21.142175 12,24 c 6.88e-4,0.670242 0.05753,1.339249 0.169922,2 h 8.365234 z M 27.464844,22 33.119141,31.792969 C 34.976747,29.621227 35.998306,26.857825 36,24 c -6.88e-4,-0.670242 -0.05753,-1.339249 -0.169922,-2 z m 0,4 -5.652344,9.791016 C 22.53374,35.927434 23.265976,35.997389 24,36 c 2.791856,-0.0033 5.495202,-0.979906 7.644531,-2.761719 z m -14.763672,2 c 1.186639,3.34615 3.794088,5.995077 7.121094,7.234375 L 24,28 Z"/>
 <path style="opacity:0.2;fill:#8b9cbe" d="M 24 4 A 20 20 0 0 0 4 24 A 20 20 0 0 0 4.0214844 24.582031 A 20 20 0 0 1 24 5 A 20 20 0 0 1 43.978516 24.417969 A 20 20 0 0 0 44 24 A 20 20 0 0 0 24 4 z"/>
</svg>
