<svg xmlns="http://www.w3.org/2000/svg" width="48" height="48" version="1">
 <rect style="opacity:0.2" width="40" height="40" x="4" y="5" rx="2" ry="2"/>
 <rect style="fill:#a7a7a7" width="40" height="40" x="4" y="4" rx="2" ry="2"/>
 <path style="fill:#8b9cbe;opacity:0.2" d="M 6 4 C 4.892 4 4 4.892 4 6 L 4 7 C 4 5.892 4.892 5 6 5 L 42 5 C 43.108 5 44 5.892 44 7 L 44 6 C 44 4.892 43.108 4 42 4 L 6 4 z"/>
 <path style="opacity:0.1" d="M 36,13 C 33.807,14.199 29.292,14.051 25.021,14 21.669,14.02 15.125,13.723 14,17 14.425,16.415 22.218,13.758 21.435,17.058 20.512,19.745 18.864,22.586 17.452,25.018 16.079,25.121 14.178,25.181 13,26 13.306,25.81 15.92,25.291 16.968,25.862 15.364,28.515 13.71,30.66 12.534,33.547 12.21,34.539 11.48,36.134 12.601,36.852 13.551,37.296 12.886,36.658 13.27,36.038 14.883,32.572 17.103,29.653 19.129,26.435 20.312,26.927 21.46,27.839 22.75,27.981 24.507,28.189 27.535,25.707 28,24 25.999,25.502 22.548,25.033 20.267,24.985 L 25.192,16.795 C 25.677,16.944 26.532,16.984 27.948,17 31.246,17.094 35.463,16.478 36,13 Z"/>
 <path style="fill:#4f4f4f" d="M 36,12 C 33.807,13.199 29.292,13.051 25.021,13 21.669,13.02 15.125,12.723 14,16 14.425,15.415 22.218,12.758 21.435,16.058 20.512,18.745 18.864,21.586 17.452,24.018 16.079,24.121 14.178,24.181 13,25 13.306,24.81 15.92,24.291 16.968,24.862 15.364,27.515 13.71,29.66 12.534,32.547 12.21,33.539 11.48,35.134 12.601,35.852 13.551,36.296 12.886,35.658 13.27,35.038 14.883,31.572 17.103,28.653 19.129,25.435 20.312,25.927 21.46,26.839 22.75,26.981 24.507,27.189 27.535,24.707 28,23 25.999,24.502 22.548,24.033 20.267,23.985 L 25.192,15.795 C 25.677,15.944 26.532,15.984 27.948,16 31.246,16.094 35.463,15.478 36,12 Z"/>
</svg>
