<svg xmlns="http://www.w3.org/2000/svg" width="48" height="48" version="1">
 <path style="opacity:0.2" d="M 6.2222222,7 C 4.9911111,7 4,8.0135554 4,9.2446665 L 4,35.911333 C 4,37.142444 4.9911385,37.991779 6.2222222,38 L 26,38 l 4.5,5 4.5,-5 6.777778,0 C 43.008889,38 44,37.142444 44,35.911333 L 44,9.2446665 C 44,8.0135554 43.008889,7 41.777778,7 Z"/>
 <path style="fill:#02a8f3" d="M 6.2222222,6 C 4.9911111,6 4,7.0135554 4,8.2446665 L 4,34.911333 C 4,36.142444 4.9911385,36.991779 6.2222222,37 L 26,37 l 4.5,5 4.5,-5 6.777778,0 C 43.008889,37 44,36.142444 44,34.911333 L 44,8.2446665 C 44,7.0135554 43.008889,6 41.777778,6 Z"/>
 <path style="opacity:0.4" d="m 24,11 c -5.522856,0 -10,4.477143 -10,10 0,5.522857 4.477144,10 10,10 5.522857,0 10,-4.477143 10,-10 0,-5.522857 -4.477143,-10 -10,-10 z m -0.935546,1.994141 c 0.108806,-0.01139 0.245686,0.0065 0.355469,0 0.01301,0.05204 -0.07708,0.238754 -0.201172,0.509765 -0.790216,1.726288 -0.8369,3.747528 -0.103516,4.828125 0.132716,0.195919 0.253907,0.38202 0.253907,0.40625 0,0.02424 -0.142858,0.05078 -0.304688,0.05078 -0.3799,1e-6 -0.740065,-0.230841 -1.474609,-0.8125 -0.326312,-0.25839 -0.749712,-0.474962 -0.914063,-0.507812 -0.258081,-0.05156 -0.326284,-0.02922 -0.660156,0.304688 -0.310635,0.310584 -0.40625,0.47934 -0.40625,0.763671 0,1.078223 1.280827,1.933145 3.660156,2.4375 3.231223,0.684838 4.026104,1.298953 4.115234,2.998047 0.111903,2.130617 -1.02133,3.736741 -3.505859,4.980469 -0.296546,0.148492 -0.484954,0.207879 -0.609375,0.255859 -0.05514,-0.0049 -0.09933,0.0049 -0.154297,0 -0.02114,-0.06587 -0.05078,-0.218244 -0.05078,-0.507812 0,-1.131635 -0.445068,-2.297836 -1.117187,-2.949219 -0.180417,-0.174873 -0.684591,-0.544709 -1.117188,-0.8125 -0.432581,-0.267775 -0.869537,-0.578221 -0.966797,-0.710937 -0.161141,-0.220234 -0.172666,-0.354868 -0.04883,-0.761719 0.22568,-0.743064 0.493412,-1.159404 1.015625,-1.628906 0.273776,-0.246141 0.548725,-0.450179 0.609375,-0.455079 0.06067,-0.0049 -0.34908,-0.129893 -0.964844,-0.255859 -0.615733,-0.12621 -1.518682,-0.390047 -1.984375,-0.558594 -0.851565,-0.308125 -2.001132,-0.955677 -2.439453,-1.423827 -0.01853,-0.01985 -0.03468,-0.03321 -0.05078,-0.05078 0.628012,-2.501606 2.390202,-4.551008 4.726563,-5.539062 0.488855,-0.206768 0.99342,-0.348223 1.525391,-0.457032 0.264977,-0.05416 0.538902,-0.0757 0.8125,-0.103516 z m 7.624999,3.8125 c 0.191025,0.118078 0.913249,1.680238 1.119141,2.441406 0.265819,0.982671 0.246579,2.682022 0,3.658203 -0.09385,0.37154 -0.21585,0.718459 -0.25586,0.761719 -0.04001,0.04326 -0.186741,-0.203394 -0.357422,-0.50586 -0.170692,-0.302419 -0.712909,-0.94574 -1.166015,-1.423828 -1.307875,-1.380072 -1.514642,-2.099756 -0.966797,-3.201172 0.276282,-0.555408 1.479111,-1.821708 1.626953,-1.730468 z"/>
 <path style="fill:#8b9cbe;opacity:0.2" d="M 6.2226562 6 C 4.9915452 6 4 7.0130295 4 8.2441406 L 4 9.2441406 C 4 8.0130295 4.9915452 7 6.2226562 7 L 41.777344 7 C 43.008455 7 44 8.0130295 44 9.2441406 L 44 8.2441406 C 44 7.0130295 43.008455 6 41.777344 6 L 6.2226562 6 z"/>
</svg>
