<svg width="48" height="48" version="1.1" xmlns="http://www.w3.org/2000/svg">
 <rect x="4" y="5" width="40" height="40" ry="9" style="opacity:.2"/>
 <rect x="4" y="4" width="40" height="40" ry="9" style="fill:#e0b833"/>
 <path d="m13 4c-4.986 0-9 4.014-9 9v1c0-4.986 4.014-9 9-9h22c4.986 0 9 4.014 9 9v-1c0-4.986-4.014-9-9-9h-22z" style="fill:#8b9cbe;opacity:.2"/>
 <path d="m20.201172 4c-0.626153 1.3912881-1.31718 3.3406039-1.361328 5.3066406-0.04824 2.1482784 0.935547 4.8886734 0.935547 4.8886714l3.523437-0.646484s-1.163664-1.62426-1.222656-4.4589842c-0.0376-1.8068441 0.608276-3.6986195 1.207031-5.0898438h-3.082031zm23.753906 8.134766c-1.773399 0.107469-4.431544 0.323075-6.058594 0.765625-4.720975 1.284081-10.714843 3.021484-10.714843 3.021484l2.445312 2.15625s4.675537-1.720495 8.556641-2.476563c1.723887-0.335825 4.162246-0.481201 5.816406-0.560546v-2.041016c0-0.292494-0.017909-0.580044-0.044922-0.865234zm-39.955078 2.332031v2.650391c1.1713692 0.248508 2.7981861 0.573319 4.7734375 0.902343 1.8799545 0.31315 5.6796875 0.646485 5.6796875 0.646485l0.648437-2.587891s-3.519729 0.053573-5.2499995-0.216797c-2.3045217-0.360102-4.4623083-0.966228-5.8515625-1.394531zm23.613281 7.064453-2.613281 2.46875s3.162415 0.344297 10.595703 8.388672c3.186275 3.448216 5.121118 6.239003 6.302735 8.398437 1.111173-1.324549 1.844578-2.97542 2.042968-4.792968-1.641979-2.312906-3.941735-4.987919-7.195312-7.919922-4.777967-4.305726-9.132813-6.542969-9.132813-6.542969zm-11.544922 0.824219c-4.730902 0.0056-7.7792965 3.152343-7.7792965 3.152343l2.7109375 2.492188s1.358207-2.09975 5-2c4.833007 0.132384 4 4 4 4s-13-1-13 6c0 3.073181 2 6 7 6 4 0 6-3 6-3v3h4v-12s1.027971-7.655101-7.931641-7.644531zm3.931641 10.644531v2c0 1-1 4-4 4s-4-1.333333-4-3c0-3 8-3 8-3z" style="opacity:.2"/>
 <path d="m19.789062 4c-0.483528 1.2604455-0.914846 2.7759279-0.949218 4.3066406-0.04824 2.1482784 0.935547 4.8886714 0.935547 4.8886714l3.523437-0.646484s-1.163664-1.62426-1.222656-4.4589842c-0.028893-1.3883975 0.356551-2.8496418 0.80664-4.0898438h-3.09375zm24.019532 7.144531c-1.776105 0.111622-4.329246 0.327282-5.91211 0.757813-4.720975 1.284081-10.714843 3.019531-10.714843 3.019531l2.445312 2.15625s4.675537-1.718543 8.556641-2.474609c1.723887-0.335825 4.162246-0.482579 5.816406-0.5625v-1.041016c0-0.63667-0.066842-1.25683-0.191406-1.855469zm-39.808594 2.322266v2.650391c1.1713692 0.248508 2.7981861 0.573319 4.7734375 0.902343 1.8799545 0.31315 5.6796875 0.648438 5.6796875 0.648438l0.648437-2.589844s-3.519729 0.055526-5.2499995-0.214844c-2.3045217-0.360102-4.4623083-0.967611-5.8515625-1.396484zm23.613281 7.064453-2.613281 2.46875s3.162415 0.344297 10.595703 8.388672c3.491591 3.778632 5.473203 6.761632 6.613281 8.99414 1.107408-1.483344 1.772195-3.316425 1.78711-5.314453-1.645029-2.32932-3.96235-5.031432-7.25-7.99414-4.777967-4.305726-9.132813-6.542969-9.132813-6.542969zm-11.544922 0.824219c-4.730902 0.0056-7.7792965 3.152343-7.7792965 3.152343l2.7109375 2.492188s1.358207-2.09975 5-2c4.833007 0.132384 4 4 4 4s-13-1-13 6c0 3.073181 2 6 7 6 4 0 6-3 6-3v3h4v-12s1.027971-7.655101-7.931641-7.644531zm3.931641 10.644531v2c0 1-1 4-4 4s-4-1.333333-4-3c0-3 8-3 8-3z" style="fill:#8b9cbe"/>
</svg>
