<svg xmlns="http://www.w3.org/2000/svg" width="48" height="48" version="1">
 <path fill="#b2bfd9" d="m24 4c-11.08 0-20 8.92-20 20s8.92 20 20 20 20-8.92 20-20-8.92-20-20-20z"/>
 <path fill="#fff" opacity=".2" d="m24 4c11.07 0 19.982 8.92 19.982 20 0 0.16787-0.008 0.33314-0.01169 0.5-0.264-10.846-9.068-19.5-19.97-19.5s-19.706 8.654-19.97 19.5c-0.004-0.16686-0.011689-0.33213-0.011689-0.5 0-11.08 8.9119-20 19.982-20z"/>
 <path opacity=".2" d="m4.0118 24.5c-0.0041 0.167-0.0117 0.332-0.0117 0.5 0 11.08 8.92 20 20 20s20-8.92 20-20c0-0.168-0.008-0.333-0.012-0.5-0.264 10.846-9.076 19.5-19.988 19.5s-19.724-8.654-19.988-19.5z"/>
 <path opacity=".1" d="m26 13c7 0 7 8.333 7 11-1-1-7-8-7-2.666 0 3.782 0.024 7.5973 0 11.363-0.106 2.957-2.542 5.3-5.5 5.303-3.038 0-5.5-2.462-5.5-5.5s2.462-5.5 5.5-5.5c0.508 0.002 1.012 0.07384 1.5 0.21484v-12.215c0-2 2-2 4-2z"/>
 <path fill="#3c8cf8" d="m26 12c7 0 7 8.333 7 11-1-1-7-8-7-2.666 0 3.782 0.024 7.5973 0 11.363-0.106 2.957-2.542 5.3-5.5 5.303-3.038 0-5.5-2.462-5.5-5.5s2.462-5.5 5.5-5.5c0.508 0.002 1.012 0.07384 1.5 0.21484v-12.215c0-2 2-2 4-2z"/>
</svg>
