<svg xmlns="http://www.w3.org/2000/svg" width="48" height="48" version="1">
 <rect style="opacity:0.2" width="39" height="39" x="5" y="5" rx="19.5" ry="19.5"/>
 <rect style="fill:#532e85" width="39" height="39" x="5" y="4" rx="19.5" ry="19.5"/>
 <path style="opacity:0.2;fill-rule:evenodd" d="m 24.516307,10.000054 c -0.173528,-6.365e-4 -0.33563,0.08653 -0.429132,0.233001 a 0.19707417,0.19720406 0 0 0 0,0.0019 L 11.573062,30.084358 a 0.19707417,0.19720406 0 0 0 -0.0019,0.0019 c -0.143657,0.234541 -0.0624,0.546734 0.177041,0.681671 l 12.514114,7.163339 a 0.19707417,0.19720406 0 0 0 0,0.0019 c 0.157387,0.08911 0.350643,0.08911 0.508031,0 l 12.487147,-7.084336 c 0.11549,-0.06541 0.201683,-0.174161 0.236697,-0.302324 0.02023,-0.076 -0.01751,-0.14819 -0.03464,-0.223373 a 0.19707417,0.19720406 0 0 0 -0.02501,-0.157901 v -0.0019 a 0.19707417,0.19720406 0 0 0 -0.01348,-0.01928 L 24.949288,10.23498 a 0.19707417,0.19720406 0 0 0 -0.0019,-0.0019 C 24.853928,10.086652 24.691785,9.9994415 24.518257,10.000079 Z M 25.02049,12.23956 35.8123,29.464306 31.322769,27.494388 a 0.19707417,0.19720406 0 0 0 -0.0019,0 l -0.0039,-0.0019 C 30.769276,27.251446 30.43592,27.038747 30.222009,26.7646 30.007403,26.48956 29.893164,26.130615 29.819817,25.551455 a 0.19707417,0.19720406 0 0 0 -0.0019,-0.0058 c 1.72e-4,0.0011 -0.0018,-0.01523 -0.0039,-0.03081 -0.0015,-0.01085 -0.0029,-0.02587 -0.0058,-0.04044 l -0.0019,-0.0039 c -0.303516,-1.978967 -1.790274,-3.563526 -3.73514,-4.116946 h -0.0019 l -0.01925,-0.0058 -0.596551,0.870384 0.173193,0.03851 c 1.61664,0.392605 2.861785,1.654026 3.15595,3.242757 a 0.19707417,0.19720406 0 0 0 0.0039,0.01926 l 0.03848,0.234927 0.0154,0.09821 c 0.09598,0.741327 0.297437,1.257783 0.667753,1.654116 0.370316,0.396331 0.885039,0.66346 1.587597,0.972442 a 0.19707417,0.19720406 0 0 0 0.0039,0.0019 c 6.7e-5,2.7e-5 0.0034,-1.54e-4 0.0039,0 7.64e-4,2.53e-4 0.0041,0.0013 0.0058,0.0019 l 4.683892,2.05657 -10.76487,6.108094 V 33.28083 c 0,-0.675002 0.02797,-1.040025 0.169343,-1.297874 0.141371,-0.257847 0.424611,-0.468165 1.02376,-0.79721 0.239444,-0.131453 0.482585,-0.268312 0.746651,-0.417862 l 0.159722,-0.0905 0.0039,-0.0019 c 0.785227,-0.418005 1.423792,-1.033998 1.893571,-1.761949 0.0059,-0.009 0.03883,-0.05893 0.0712,-0.107836 l -0.787063,-0.668192 c -0.379853,0.691562 -0.930325,1.277346 -1.631857,1.661815 a 0.19707417,0.19720406 0 0 0 -0.0019,0 l -0.188587,0.107836 v -0.0019 c -0.258364,0.145948 -0.521988,0.291709 -0.760123,0.421713 -0.756736,0.415528 -1.19915,0.767236 -1.441345,1.228551 -0.242196,0.461317 -0.267487,0.989688 -0.267487,1.72729 v 3.364072 l -10.868785,-6.21978 4.560734,-1.983397 0.319442,-0.136719 a 0.19707417,0.19720406 0 0 0 0.0096,-0.0039 c 0.102363,-0.04945 0.503165,-0.202929 0.742803,-0.209893 a 0.19707417,0.19720406 0 0 0 0.0058,0 c 0.289842,-0.01768 0.685228,0.01545 0.867886,0.246481 l 0.704316,0.883863 c 0.556229,0.717162 1.284464,1.305219 2.155283,1.663743 0.0069,0.0047 0.01364,0.0098 0.02117,0.01348 a 0.19707417,0.19720406 0 0 0 0.01347,0.0058 c 0.170569,0.06933 0.340543,0.103669 0.509955,0.144422 l 0.588854,-0.85883 c -0.32112,-0.0691 -0.670154,-0.167569 -0.937162,-0.294621 a 0.19707417,0.19720406 0 0 0 -0.0039,0 c -0.619719,-0.293057 -1.151355,-0.702279 -1.558731,-1.2247 a 0.19707417,0.19720406 0 0 0 -0.0077,-0.0096 c -0.01401,-0.0158 -0.02527,-0.03226 -0.03657,-0.05007 a 0.19707417,0.19720406 0 0 0 -0.01154,-0.01348 c -0.04454,-0.05789 -0.0851,-0.110366 -0.119309,-0.161754 a 0.19707417,0.19720406 0 0 0 -0.0058,-0.0096 C 20.853087,28.274421 20.678033,28.045776 20.434925,27.74088 20.24283,27.498079 19.981613,27.344257 19.715213,27.247918 a 0.19707417,0.19720406 0 0 0 -0.08467,-0.01155 c -0.269472,-0.08465 -0.561024,-0.133381 -0.8777,-0.130957 a 0.19707417,0.19720406 0 0 0 -0.0039,0 c -0.282366,0.0093 -0.560386,0.08537 -0.773593,0.1579 -0.106603,0.03626 -0.19689,0.07289 -0.261712,0.100132 -0.03242,0.01362 -0.05842,0.02439 -0.07697,0.03274 -0.01856,0.0084 -0.04683,0.02228 -0.02694,0.01348 l -0.167419,0.07125 -0.0096,0.0039 a 0.19707417,0.19720406 0 0 0 -0.0077,0.0019 l -0.448376,0.192563 0.03849,-0.01155 c -6.16e-4,1.23e-4 -0.04558,0.02136 -0.06927,0.03274 0.0051,-0.004 0.01308,-0.01121 0.01347,-0.01155 l -3.706295,1.613634 10.755248,-17.061065 v 7.013137 c 0,0.659943 -0.03134,1.029321 -0.178965,1.297873 -0.147623,0.268553 -0.437861,0.489152 -1.04108,0.82032 -0.09282,0.04981 -0.187103,0.09666 -0.28288,0.14057 a 0.19707417,0.19720406 0 0 0 -0.0039,0.0019 l -0.159722,0.07895 c -0.04259,0.01932 -0.07795,0.03712 -0.107765,0.05199 a 0.19707417,0.19720406 0 0 0 -0.0077,0.0039 c -1.614605,0.770807 -2.75318,2.315911 -2.915404,4.128547 l 0.977574,0.350464 c 0.03424,-1.576223 0.995528,-2.934477 2.388131,-3.595149 a 0.19707417,0.19720406 0 0 0 0.0058,-0.0039 c 0.0036,-0.0015 0.004,-5.5e-5 0.0077,-0.0019 a 0.19707417,0.19720406 0 0 0 0.0019,0 c 0.08301,-0.04221 0.167762,-0.08368 0.252091,-0.123241 0.320518,-0.148454 0.628189,-0.322862 0.919844,-0.521844 l 0.0039,-0.0019 c 0.05431,-0.03545 0.09277,-0.06771 0.125082,-0.0905 a 0.19707417,0.19720406 0 0 0 0.0019,-0.0019 c 0.09409,-0.06799 0.182553,-0.138608 0.261712,-0.207967 0.04025,-0.03487 0.08252,-0.07313 0.123159,-0.121315 0.263901,-0.267489 0.433192,-0.565305 0.525351,-0.920449 0.09268,-0.357146 0.115461,-0.766681 0.115462,-1.284394 z m -2.742214,9.391289 h 0.01347 a 0.19707417,0.19720406 0 0 0 -0.01925,0.0039 z"/>
 <path style="fill:#8b9cbe;fill-rule:evenodd" d="m 24.516307,9.0000275 c -0.173528,-6.355e-4 -0.33563,0.08653 -0.429132,0.233001 a 0.19707417,0.19720406 0 0 0 0,0.0019 L 11.573062,29.084331 a 0.19707417,0.19720406 0 0 0 -0.0019,0.0019 c -0.143657,0.234541 -0.0624,0.546736 0.177041,0.681672 l 12.514114,7.163338 a 0.19707417,0.19720406 0 0 0 0,0.0019 c 0.157387,0.08911 0.350643,0.08911 0.508031,0 l 12.487147,-7.084336 c 0.11549,-0.06541 0.201683,-0.174161 0.236697,-0.302324 0.02023,-0.076 -0.01751,-0.14819 -0.03464,-0.223373 a 0.19707417,0.19720406 0 0 0 -0.02501,-0.157901 v -0.0019 a 0.19707417,0.19720406 0 0 0 -0.01348,-0.01928 L 24.949288,9.2349535 a 0.19707417,0.19720406 0 0 0 -0.0019,-0.0019 C 24.853931,9.0866255 24.691785,8.999416 24.518257,9.0000525 Z M 25.02049,11.239534 35.8123,28.464279 31.322769,26.494361 a 0.19707417,0.19720406 0 0 0 -0.0019,0 l -0.0039,-0.0019 C 30.769276,26.251421 30.43592,26.03872 30.222009,25.764575 30.007403,25.489533 29.893164,25.13059 29.819817,24.551428 a 0.19707417,0.19720406 0 0 0 -0.0019,-0.0058 c 1.72e-4,0.0011 -0.0018,-0.01523 -0.0039,-0.03081 -0.0015,-0.01085 -0.0029,-0.02587 -0.0058,-0.04044 l -0.0019,-0.0039 c -0.303516,-1.978967 -1.790274,-3.563526 -3.73514,-4.116946 h -0.0019 l -0.01925,-0.0058 -0.596551,0.870384 0.173193,0.03851 c 1.61664,0.392605 2.861785,1.654026 3.15595,3.242757 a 0.19707417,0.19720406 0 0 0 0.0039,0.01926 l 0.03848,0.234927 0.0154,0.09821 c 0.09598,0.741327 0.297437,1.257783 0.667753,1.654116 0.370316,0.396331 0.885039,0.66346 1.587597,0.972442 a 0.19707417,0.19720406 0 0 0 0.0039,0.0019 c 6.7e-5,2.7e-5 0.0034,-1.54e-4 0.0039,0 7.64e-4,2.53e-4 0.0041,0.0013 0.0058,0.0019 l 4.683892,2.05657 -10.76487,6.108094 v -3.365999 c 0,-0.675001 0.02797,-1.040025 0.169343,-1.297873 0.141371,-0.257848 0.424611,-0.468164 1.02376,-0.79721 0.239444,-0.131453 0.482585,-0.268313 0.746651,-0.417862 l 0.159722,-0.0905 0.0039,-0.0019 c 0.785227,-0.418006 1.423792,-1.033999 1.893571,-1.76195 0.0059,-0.009 0.03883,-0.05893 0.0712,-0.107836 l -0.787063,-0.668192 c -0.379853,0.691563 -0.930325,1.277347 -1.631857,1.661817 a 0.19707417,0.19720406 0 0 0 -0.0019,0 l -0.188587,0.107835 v -0.0019 c -0.258364,0.145948 -0.521988,0.291709 -0.760123,0.421713 -0.756736,0.415527 -1.19915,0.767234 -1.441345,1.228549 -0.242196,0.461317 -0.267487,0.989688 -0.267487,1.72729 v 3.364072 l -10.868785,-6.21978 4.560734,-1.983397 0.319442,-0.136719 a 0.19707417,0.19720406 0 0 0 0.0096,-0.0039 c 0.102363,-0.04945 0.503165,-0.202929 0.742803,-0.209893 a 0.19707417,0.19720406 0 0 0 0.0058,0 c 0.289842,-0.01768 0.685228,0.01545 0.867886,0.246481 l 0.704316,0.883863 c 0.556229,0.717162 1.284464,1.305219 2.155283,1.663743 0.0069,0.0047 0.01364,0.0098 0.02117,0.01348 a 0.19707417,0.19720406 0 0 0 0.01347,0.0058 c 0.170569,0.06933 0.340543,0.103669 0.509955,0.144421 l 0.588854,-0.85883 c -0.32112,-0.0691 -0.670154,-0.167569 -0.937162,-0.294621 a 0.19707417,0.19720406 0 0 0 -0.0039,0 c -0.619719,-0.293057 -1.151355,-0.702279 -1.558731,-1.2247 a 0.19707417,0.19720406 0 0 0 -0.0077,-0.0096 c -0.01401,-0.0158 -0.02527,-0.03226 -0.03657,-0.05007 a 0.19707417,0.19720406 0 0 0 -0.01154,-0.01348 c -0.04454,-0.05789 -0.0851,-0.110366 -0.119309,-0.161754 a 0.19707417,0.19720406 0 0 0 -0.0058,-0.0096 c -0.114885,-0.15391 -0.289939,-0.382554 -0.533047,-0.687451 -0.192095,-0.242801 -0.453312,-0.396621 -0.719712,-0.49296 a 0.19707417,0.19720406 0 0 0 -0.08467,-0.01155 c -0.269472,-0.08465 -0.561024,-0.133381 -0.8777,-0.130958 a 0.19707417,0.19720406 0 0 0 -0.0039,0 c -0.282366,0.0093 -0.560386,0.08537 -0.773593,0.157901 -0.106603,0.03626 -0.19689,0.07289 -0.261712,0.100131 -0.03242,0.01362 -0.05842,0.02439 -0.07697,0.03274 -0.01856,0.0084 -0.04683,0.02228 -0.02694,0.01348 l -0.167419,0.07125 -0.0096,0.0039 a 0.19707417,0.19720406 0 0 0 -0.0077,0.0019 l -0.448376,0.192563 0.03849,-0.01155 c -6.16e-4,1.22e-4 -0.04558,0.02136 -0.06927,0.03274 0.0051,-0.004 0.01308,-0.01121 0.01347,-0.01155 L 13.253028,28.302526 24.008276,11.24146 v 7.013138 c 0,0.659942 -0.03134,1.029321 -0.178965,1.297873 -0.147623,0.268553 -0.437861,0.489152 -1.04108,0.820319 -0.09282,0.04981 -0.187103,0.09666 -0.28288,0.14057 a 0.19707417,0.19720406 0 0 0 -0.0039,0.0019 l -0.159722,0.07895 c -0.04259,0.01932 -0.07795,0.03712 -0.107765,0.05199 a 0.19707417,0.19720406 0 0 0 -0.0077,0.0039 c -1.614605,0.770807 -2.75318,2.315911 -2.915404,4.128547 l 0.977574,0.350464 c 0.03424,-1.576223 0.995528,-2.934476 2.388131,-3.595149 a 0.19707417,0.19720406 0 0 0 0.0058,-0.0039 c 0.0036,-0.0015 0.004,-5.5e-5 0.0077,-0.0019 a 0.19707417,0.19720406 0 0 0 0.0019,0 c 0.08301,-0.04221 0.167762,-0.08368 0.252091,-0.123241 0.320518,-0.148454 0.628189,-0.322862 0.919844,-0.521844 l 0.0039,-0.0019 c 0.05431,-0.03545 0.09277,-0.06771 0.125082,-0.0905 a 0.19707417,0.19720406 0 0 0 0.0019,-0.0019 c 0.09409,-0.06799 0.182553,-0.138609 0.261712,-0.207967 0.04025,-0.03487 0.08252,-0.07313 0.123159,-0.121315 0.263901,-0.267489 0.433192,-0.565306 0.525351,-0.92045 0.09268,-0.357146 0.115461,-0.766681 0.115462,-1.284394 z m -2.742214,9.391288 h 0.01347 a 0.19707417,0.19720406 0 0 0 -0.01925,0.0039 z"/>
 <path style="fill:#8b9cbe;opacity:0.1" d="M 24.5 4 C 13.697 4 5 12.697 5 23.5 C 5 23.667806 5.0075466 23.833235 5.0117188 24 C 5.276142 13.430781 13.864806 5 24.5 5 C 35.135194 5 43.723858 13.430781 43.988281 24 C 43.992453 23.833235 44 23.667806 44 23.5 C 44 12.697 35.303 4 24.5 4 z"/>
</svg>
