<svg width="48" height="48" version="1.1" xmlns="http://www.w3.org/2000/svg">
 <g transform="matrix(2,0,0,1.9999812,2.0000001,2.000404)">
  <rect x="4" y="1.5" width="14" height="18" rx="1" ry="1" style="opacity:.2"/>
  <rect x="4" y="1" width="14" height="18" rx="1" ry="1" style="fill:#4f4f4f"/>
  <path d="m5.0195312 1.5001926c-0.5598733-0.0108795-1.0195809 0.4400008-1.0195312 0.9999541v15.999265c-1.243e-4 0.468844 0.3254964 0.874837 0.7832031 0.976517l8.9999999 1.999908c0.624596 0.138622 1.216938-0.336751 1.216797-0.976517v-15.999265c1.24e-4 -0.4688446-0.325496-0.8748368-0.783203-0.9765177l-9.0000001-1.9999081c-0.0648144-0.0143392-0.1308956-0.0221901-0.1972657-0.0234364z" style="opacity:.2"/>
  <path d="m5.0195312 1.0001929c-0.5598733-0.01087946-1.0195809 0.4400008-1.0195312 0.9999541v15.999265c-1.243e-4 0.468844 0.3254964 0.874837 0.7832031 0.976517l8.9999999 1.999908c0.624596 0.138622 1.216938-0.336751 1.216797-0.976517v-15.999265c1.24e-4 -0.4688446-0.325496-0.8748368-0.783203-0.9765177l-9.0000001-1.9999081c-0.0648144-0.0143392-0.1308956-0.0221901-0.1972657-0.0234364z" style="fill:#1f8ac9"/>
  <circle cx="12" cy="12.5" r="1" style="opacity:.2"/>
  <circle cx="12" cy="12" r="1" style="fill:#8b9cbe"/>
  <path d="M 5.0195312,1 C 4.4596579,0.98912054 3.9999503,1.4400468 4,2 v 0.5 c -4.97e-5,-0.5599812 0.4596579,-1.01088 1.0195312,-1 0.06637,0.00125 0.1324513,0.0091 0.1972657,0.023437 l 9.0000001,2 C 14.674504,3.6251234 15.000124,4.031132 15,4.5 V 4 C 15.000124,3.5311555 14.674504,3.1251183 14.216797,3.0234375 l -9.0000001,-2 C 5.1519825,1.0090983 5.0859014,1.0012463 5.0195312,1 Z" style="fill:#8b9cbe;opacity:.2"/>
 </g>
</svg>
