<svg xmlns="http://www.w3.org/2000/svg" width="48" height="48" version="1">
 <path fill="#b2bfd9" d="m24 14c-8.31 0-15 6.69-15 15s6.69 15 15 15 15-6.69 15-15-6.69-15-15-15z"/>
 <path fill="#fff" opacity=".2" d="m24 14c-8.31 0-15 6.69-15 15 0 0.169 0.0199 0.332 0.0254 0.5 0.2644-8.074 6.8336-14.5 14.975-14.5 8.141 0 14.71 6.426 14.975 14.5 0.005-0.168 0.025-0.331 0.025-0.5 0-8.31-6.69-15-15-15z"/>
 <path fill="#3c8cf8" d="m18 4c-7 0-7 8.333-7 11 1-1 7-8 7-2.666 0 3.782-0.024 7.597 0 11.363 0.106 2.957 2.542 5.3 5.5 5.303 3.038 0 5.5-2.462 5.5-5.5s-2.462-5.5-5.5-5.5c-0.508 0.002-1.012 0.074-1.5 0.215v-12.215c0-2-2-2-4-2zm5.5 17a2.5 2.5 0 0 1 2.5 2.5 2.5 2.5 0 0 1 -2.5 2.5 2.5 2.5 0 0 1 -2.5 -2.5 2.5 2.5 0 0 1 2.5 -2.5z"/>
 <path opacity=".2" d="m9.0254 29.5c-0.0055 0.168-0.0254 0.331-0.0254 0.5 0 8.31 6.69 15 15 15s15-6.69 15-15c0-0.169-0.02-0.332-0.025-0.5-0.265 8.074-6.834 14.5-14.975 14.5s-14.71-6.426-14.975-14.5z"/>
 <path opacity=".2" d="m17.047 10.359c-1.73-0.2341-5.273 3.8636-6.035 4.6286-0.008 0.376-0.012 0.74-0.012 1.012 1-1 7-8 7-2.666v-1c0-1.334-0.375-1.8964-0.953-1.9746zm6.453 10.641a2.5 2.5 0 0 0 -2.5 2.5 2.5 2.5 0 0 0 0.053 0.496 2.5 2.5 0 0 1 2.447 -1.996 2.5 2.5 0 0 1 2.447 2.004 2.5 2.5 0 0 0 0.053 -0.504 2.5 2.5 0 0 0 -2.5 -2.5zm-5.5 2.697c0.001 0.332-0.002 0.669 0 1 0.106 2.957 2.542 5.3 5.5 5.303 3.038 0 5.5-2.462 5.5-5.5 0-0.169-0.011-0.335-0.025-0.5-0.253 2.803-2.606 5-5.475 5-2.958-0.003-5.394-2.346-5.5-5.303z"/>
 <path fill="#fff" opacity=".2" d="m18 4c-7 0-7 8.333-7 11l0.012-0.012c0.065-3.302 0.703-9.988 6.988-9.988 2 0 4 0 4 2v-1c0-2-2-2-4-2zm5.5 14c-0.508 0.002-1.012 0.074-1.5 0.215v1c0.488-0.141 0.992-0.213 1.5-0.215 2.869 0 5.222 2.197 5.475 5 0.014-0.165 0.025-0.331 0.025-0.5 0-3.038-2.462-5.5-5.5-5.5zm-2.447 5.996a2.5 2.5 0 0 0 -0.053 0.504 2.5 2.5 0 0 0 2.5 2.5 2.5 2.5 0 0 0 2.5 -2.5 2.5 2.5 0 0 0 -0.053 -0.496 2.5 2.5 0 0 1 -2.447 1.996 2.5 2.5 0 0 1 -2.447 -2.004z"/>
</svg>
