<svg xmlns="http://www.w3.org/2000/svg" width="48" height="48" version="1">
 <rect style="opacity:0.2" width="40" height="40" x="4" y="5" rx="2" ry="2"/>
 <rect style="fill:#38bdec" width="40" height="40" x="4" y="4" rx="2" ry="2"/>
 <path style="opacity:0.2;fill:#8b9cbe" d="M 6,4 C 4.892,4 4,4.892 4,6 V 7 C 4,5.892 4.892,5 6,5 h 36 c 1.108,0 2,0.892 2,2 V 6 C 44,4.892 43.108,4 42,4 Z"/>
 <path style="opacity:0.2" d="m 15,10 v 9.300781 l 3.130859,3.142578 a 9.5167286,9.5167286 0 0 0 -0.0078,0.0059 l 3.404297,3.404297 0.501953,0.501953 v 0.002 a 4,4 0 0 1 0.673828,-0.427734 4,4 0 0 1 0.002,-0.002 4,4 0 0 1 0.746094,-0.283203 A 4,4 0 0 1 24,25.537109 a 4,4 0 0 1 0.02344,-0.0039 V 20.007812 A 9.5167286,9.5167286 0 0 0 24,20.009766 V 18 Z m 9.976562,10 v 5.53125 a 4,4 0 0 1 1.990235,0.828125 l 3.910156,-3.910156 A 9.5167286,9.5167286 0 0 0 24.976562,20 Z M 15,20.578125 V 29 h 0.002 A 9.5167286,9.5167286 0 0 0 15,29.023438 h 5.53125 a 4,4 0 0 1 0.828125,-1.990235 l -0.05078,-0.05078 0.01758,-0.01367 z m 16.550781,2.544922 -3.90625,3.90625 a 4,4 0 0 1 0.822266,1.994141 h 5.525391 a 9.5167286,9.5167286 0 0 0 -2.441407,-5.900391 z m -16.542969,6.853515 a 9.5167286,9.5167286 0 0 0 2.441407,5.900391 l 3.90625,-3.90625 a 4,4 0 0 1 -0.822266,-1.994141 z m 13.460938,0 a 4,4 0 0 1 -0.828125,1.990235 l 3.910156,3.910156 A 9.5167286,9.5167286 0 0 0 34,29.976562 Z m -6.435547,2.664063 -3.910156,3.910156 A 9.5167286,9.5167286 0 0 0 24.023438,39 v -5.53125 a 4,4 0 0 1 -1.990235,-0.828125 z m 4.9375,0.0039 a 4,4 0 0 1 -1.994141,0.822266 v 5.525391 a 9.5167286,9.5167286 0 0 0 5.900391,-2.441407 z"/>
 <g>
  <path style="fill:#8b9cbe" d="m 24.976562,19 v 5.53125 a 4,4 0 0 1 1.990235,0.828125 l 3.910156,-3.910156 A 9.5167286,9.5167286 0 0 0 24.976562,19 Z m -0.953124,0.0078 a 9.5167286,9.5167286 0 0 0 -5.900391,2.441407 l 3.90625,3.90625 a 4,4 0 0 1 1.994141,-0.822266 z m -6.574219,3.115235 A 9.5167286,9.5167286 0 0 0 15,28.023438 h 5.53125 a 4,4 0 0 1 0.828125,-1.990235 z m 14.101562,0 -3.90625,3.90625 a 4,4 0 0 1 0.822266,1.994141 h 5.525391 A 9.5167286,9.5167286 0 0 0 31.550781,22.123035 Z M 15.007812,28.97655 a 9.5167286,9.5167286 0 0 0 2.441407,5.900391 l 3.90625,-3.90625 A 4,4 0 0 1 20.533203,28.97655 Z m 13.460938,0 a 4,4 0 0 1 -0.828125,1.990235 l 3.910156,3.910156 A 9.5167286,9.5167286 0 0 0 34,28.976562 Z m -6.435547,2.664063 -3.910156,3.910156 A 9.5167286,9.5167286 0 0 0 24.023438,38 v -5.53125 a 4,4 0 0 1 -1.990235,-0.828125 z m 4.9375,0.0039 a 4,4 0 0 1 -1.994141,0.822266 v 5.525391 a 9.5167286,9.5167286 0 0 0 5.900391,-2.441407 z"/>
  <path style="fill:#8b9cbe" d="m 15,9 v 9.300781 l 7.029297,7.056641 A 4,4 0 0 1 24,24.537109 V 17 Z"/>
  <path style="fill:#8b9cbe" d="M 15,19.577327 21.326172,25.968673 20,27 18,28 h -3 z"/>
 </g>
</svg>
