<svg width="48" xmlns="http://www.w3.org/2000/svg" version="1.1" height="48">
 <g transform="matrix(2,0,0,2,2,2)">
  <circle style="opacity:.2" cx="11" r="9" cy="11.5"/>
  <circle style="fill:#3fafff" cx="11" r="9" cy="11"/>
  <path style="opacity:.1;fill:#8b9cbe" d="m11 2a9 9 0 0 0 -9 9 9 9 0 0 0 0.00977 0.287109 9 9 0 0 1 8.99023 -8.787109 9 9 0 0 1 8.990234 8.712891 9 9 0 0 0 0.009766 -0.212891 9 9 0 0 0 -9 -9z"/>
  <path style="fill:#f0f0f0" d="m8 10h6l-1-5s0-1-2-1-2 1-2 1v3z"/>
  <circle style="opacity:.1" cx="10.5" cy="6"/>
  <path style="opacity:.2;fill:#8b9cbe" d="m11 4c-2 0-2 1-2 1v0.5s0-1 2-1 2 1 2 1l0.900391 4.5h0.099609l-1-5s0-1-2-1zm-2 4-1 2h0.25l0.75-1.5z"/>
  <path style="opacity:.2" d="m2 10.5h18c1 0 1 1 1 1l-6 3h3c1 0 1 1 1 1l-7 4h-2l-7-4s0-1 1-1h3l-6-3s0-1 1-1z"/>
  <path style="fill:#6fbfff" d="m2 10h18c1 0 1 1 1 1l-6 3h3c1 0 1 1 1 1l-7 4h-2l-7-4s0-1 1-1h3l-6-3s0-1 1-1z"/>
  <path style="opacity:.2;fill:#8b9cbe" d="m2 10c-1 0-1 1-1 1l0.1074219 0.05469c0.1143181-0.268196 0.3527681-0.55469 0.8925781-0.55469h18c0.53981 0 0.77826 0.286494 0.892578 0.554688l0.107422-0.054688s0-1-1-1zm2 4c-1 0-1 1-1 1l0.1054688 0.06055c0.1130912-0.269933 0.3504411-0.56055 0.8945312-0.56055h3l-1-0.5zm12 0-1 0.5h3c0.54409 0 0.78144 0.290617 0.894531 0.560547l0.105469-0.060547s0-1-1-1z"/>
  <path style="opacity:.1" d="m9 5.5-3 1 1 2 1-1 2 1z"/>
  <path style="fill:#f2d12d" d="m9 5-3 1 1 2 1-1 2 1z"/>
  <circle style="fill:#4f4f4f" cx="10.5" cy="5.5"/>
  <path style="opacity:.1" d="m7 10.5h8l-1 1h2l-4 8h-2l-4-8h2z"/>
  <path style="fill:#4f4f4f" d="m7 10h8l-1 1h2l-4 8h-2l-4-8h2z"/>
  <path style="fill:#8b9cbe" d="m9 10 1 9h2l1-9z"/>
  <path style="fill:#4f4f4f" d="m11 10-1 4 1 1 1-1z"/>
  <path style="opacity:.2;fill:#8b9cbe" d="m9 5-3 1 0.2148438 0.4277344 2.7851562-0.9277344 0.8007812 2.4003906 0.1992188 0.0996094z"/>
 </g>
 <circle cx="23" style="opacity:.1" r="1" cy="14"/>
 <circle cx="23" style="fill:#4f4f4f" r="1" cy="13"/>
</svg>
