<svg xmlns="http://www.w3.org/2000/svg" width="48" height="48" version="1">
 <path fill="#848484" d="m24 14a10 10 0 0 0 -10 10 10 10 0 0 0 10 10 10 10 0 0 0 10 -10 10 10 0 0 0 -10 -10zm0 6c2.209 0 4 1.791 4 4s-1.791 4-4 4-4-1.791-4-4c0-2.2091 1.7909-4 4-4z"/>
 <path fill="#b2bfd9" d="m24 4c-11.08 0-20 8.92-20 20s8.92 20 20 20 20-8.92 20-20-8.92-20-20-20zm0 12a8 8 0 0 1 8 8 8 8 0 0 1 -8 8 8 8 0 0 1 -8 -8 8 8 0 0 1 8 -8z"/>
 <path fill="#fff" opacity=".2" d="m23.981 4c11.07 0 19.982 8.92 19.982 20 0 0.16787-0.008 0.33314-0.01169 0.5-0.264-10.846-9.068-19.5-19.97-19.5s-19.706 8.654-19.97 19.5c-0.0033-0.167-0.011-0.332-0.011-0.5 0-11.08 8.912-20 19.982-20zm3.9456 20.5c0.02088 0.16551 0.05075 0.32883 0.05075 0.5 0 2.2091-1.7892 4-3.9963 4s-3.9963-1.7909-3.9963-4c0-0.17117 0.02987-0.33449 0.05075-0.5 0.24818 1.9706 1.9095 3.5 3.9456 3.5s3.6974-1.5294 3.9456-3.5z"/>
 <path opacity=".2" d="m4.0117 24.5c-0.0041 0.167-0.0117 0.332-0.0117 0.5 0 11.08 8.92 20 20 20s20-8.92 20-20c0-0.168-0.008-0.333-0.012-0.5-0.264 10.846-9.076 19.5-19.988 19.5s-19.724-8.654-19.988-19.5z"/>
 <circle opacity=".2" cx="36" cy="37" r="11"/>
 <circle fill="#ff5722" cx="36" cy="36" r="11"/>
 <path fill="#fff" d="m37.545 29.911c-4.091 1.636-6.545 5.47-6.545 8.181 0 2.6792 2.1474 4.8531 4.8145 4.9039-1.3328-0.02618-2.4064-1.1105-2.4064-2.4495 0-1.3555 1.2272-3.2725 3.2725-4.0906 0 2.8635 2.196 3.2773 1.6362 4.9087-0.31738 0.92502-1.0916 1.6271-2.4336 1.6346 0.0081 0.00004 0.01692 0.000936 0.02548 0.000936 2.711 0 4.2705-1.4124 4.9087-3.2725 1.1195-3.2628-3.2725-4.0906-3.2725-9.8174z"/>
</svg>
