<svg xmlns="http://www.w3.org/2000/svg" width="48" height="48" version="1.1">
 <rect style="opacity:0.2" width="40" height="40" x="4" y="5" rx="2" ry="2"/>
 <path style="fill:#f9dc9d" d="M 6,4 C 4.892,4 4,4.892 4,6 v 36 c 0,1.108 0.892,2 2,2 H 24.1 V 4 Z"/>
 <path style="opacity:0.2;fill:#8b9cbe" d="M 6,4 C 4.892,4 4,4.892 4,6 V 7 C 4,5.892 4.892,5 6,5 h 36 c 1.108,0 2,0.892 2,2 V 6 C 44,4.892 43.108,4 42,4 Z"/>
 <path style="fill:#424242" d="m 24,4 v 40 h 18 c 1.108,0 2,-0.892 2,-2 V 6 C 44,4.892 43.108,4 42,4 Z"/>
 <path style="opacity:0.2" d="m 28.555664,9.1022662 c -0.220332,0.026848 -0.453626,0.088722 -0.717774,0.180664 l -0.61035,0.2099602 0.493164,0.112306 c 0.795346,0.174688 0.629642,0.4846676 -0.512696,0.9472656 -0.739682,0.299539 -1.378336,1.018003 -1.015626,1.142578 0.0834,0.02864 0.15136,0.163802 0.15136,0.302734 0,0.19647 0.03972,0.20931 0.18554,0.06348 0.370826,-0.370813 0.595718,-0.204591 0.595718,0.439452 0,0.34375 -0.07032,0.625 -0.15626,0.625 -0.28161,0 -0.16352,0.615725 0.15626,0.815429 0.17188,0.107338 0.3125,0.309338 0.3125,0.444336 0,0.397885 0.582562,0.906902 1.16211,1.015625 0.43563,0.08173 0.55729,0.186552 0.639648,0.561524 0.0676,0.30773 0.025,0.552977 -0.12696,0.727539 -0.12578,0.14462 -0.19516,0.351562 -0.15626,0.458984 0.04232,0.116798 -0.06212,0.195312 -0.258792,0.195312 -0.19462,0 -0.389224,0.14351 -0.473634,0.351562 -0.15328,0.377806 -0.620336,5.467253 -0.620116,6.757815 7.4e-5,0.429686 -0.08092,1.575334 -0.18066,2.548828 -0.201672,1.968246 -0.1095,2.312392 0.512696,1.923828 l 0.33203,-0.209962 -0.10254,3.413086 c -0.05662,1.878586 -0.17254,3.664628 -0.25879,3.964844 -0.08624,0.300212 -0.15626,1.785304 -0.15626,3.30078 0,2.680638 -0.0096,2.759464 -0.351562,2.998048 -0.334676,0.23345 -0.299914,0.2461 0.71289,0.253906 0.601166,0.0046 1.026468,0.07062 0.976562,0.15138 -0.04858,0.0786 -5.42e-4,0.18562 0.10742,0.234374 0.242802,0.10968 2.28012,0.0098 2.407228,-0.11718 0.0928,-0.0928 -0.10886,-5.984502 -0.43457,-12.65625 -0.12692,-2.599856 -0.1254,-3.660452 0,-3.90625 0.09468,-0.18558 0.19802,-0.723634 0.2295,-1.19629 0.03148,-0.472656 0.04442,-0.05078 0.03418,0.9375 -0.0102,0.988282 -0.07908,1.93024 -0.15626,2.094726 -0.10102,0.215318 -0.08766,0.266886 0.04396,0.18554 0.12076,-0.07466 0.18066,0.0178 0.18066,0.273418 0,0.439738 0.26283,0.596986 0.664062,0.390624 0.372758,-0.1917 0.360904,-1.926858 -0.03904,-6.694326 -0.334058,-3.982088 -0.491982,-4.781408 -0.996094,-4.941407 -0.526992,-0.167262 -1.191406,-0.98264 -1.191406,-1.464843 0,-0.344674 0.10028,-0.47213 0.46875,-0.600586 0.296662,-0.103418 0.564172,-0.36495 0.732422,-0.717774 0.16228,-0.340301 0.375064,-0.55664 0.551758,-0.55664 0.372276,0 0.53431,-0.42997 0.302734,-0.800782 -0.1364,-0.218415 -0.13452,-0.550251 0,-1.347656 0.2439,-1.445777 -0.0205,-2.8190484 -0.537108,-2.7929686 -0.29658,0.01498 -0.339164,0.09636 -0.292972,0.5566406 l 0.05372,0.532227 -0.444338,-0.2929692 C 29.772598,9.2535168 29.216662,9.021723 28.555664,9.1022662 Z m 0.585938,17.4609378 h 0.473634 c 0.39037,0 0.477592,0.06398 0.478514,0.351562 6.26e-4,0.19336 0.0182,2.302696 0.03908,4.6875 0.02074,2.384806 -0.0188,4.335976 -0.0879,4.335938 -0.06912,-4e-5 -0.1124,1.36453 -0.09766,3.032228 0.0148,1.6677 -0.02,3.109104 -0.07812,3.203124 -0.301348,0.487592 -0.393664,-0.1054 -0.46875,-2.993164 -0.04526,-1.740236 -0.12212,-5.291016 -0.1709,-7.890626 z"/>
 <path style="fill:#45b3c9" d="m 28.555664,8.1015626 c -0.220332,0.026848 -0.453626,0.088722 -0.717774,0.180664 l -0.61035,0.2099602 0.493164,0.112306 c 0.795346,0.174688 0.629642,0.4846672 -0.512696,0.9472654 -0.739682,0.2995388 -1.378336,1.0180038 -1.015626,1.1425778 0.0834,0.02864 0.15136,0.163802 0.15136,0.302735 0,0.19647 0.03972,0.20931 0.18554,0.06348 C 26.900108,10.689735 27.125,10.855957 27.125,11.5 c 0,0.34375 -0.07032,0.625 -0.15626,0.625 -0.28161,0 -0.16352,0.615725 0.15626,0.81543 0.17188,0.107338 0.3125,0.309337 0.3125,0.444335 0,0.397886 0.582562,0.906902 1.16211,1.015625 0.43563,0.08173 0.55729,0.186552 0.639648,0.561524 0.0676,0.30773 0.025,0.552978 -0.12696,0.727539 -0.12578,0.14462 -0.19516,0.351562 -0.15626,0.458984 0.04232,0.116798 -0.06212,0.195312 -0.258792,0.195312 -0.19462,0 -0.389224,0.14351 -0.473634,0.351563 -0.15328,0.377806 -0.620336,5.467252 -0.620116,6.757814 7.4e-5,0.429686 -0.08092,1.575334 -0.18066,2.548828 -0.201672,1.968246 -0.1095,2.312392 0.512696,1.923828 l 0.33203,-0.209962 -0.10254,3.413086 c -0.05662,1.878586 -0.17254,3.664628 -0.25879,3.964844 -0.08624,0.300212 -0.15626,1.785304 -0.15626,3.30078 0,2.680638 -0.0096,2.759464 -0.351562,2.998048 -0.334676,0.23345 -0.299914,0.2461 0.71289,0.253906 0.601166,0.0046 1.026468,0.07062 0.976562,0.15138 -0.04858,0.0786 -5.42e-4,0.18562 0.10742,0.234374 0.242802,0.10968 2.28012,0.0098 2.407228,-0.11718 0.0928,-0.0928 -0.10886,-5.984502 -0.43457,-12.65625 -0.12692,-2.599856 -0.1254,-3.660452 0,-3.90625 0.09468,-0.18558 0.19802,-0.723634 0.2295,-1.19629 0.03148,-0.472656 0.04442,-0.05078 0.03418,0.9375 -0.0102,0.988282 -0.07908,1.93024 -0.15626,2.094726 -0.10102,0.215318 -0.08766,0.266886 0.04396,0.18554 0.12076,-0.07466 0.18066,0.0178 0.18066,0.273418 0,0.439738 0.26283,0.596986 0.664062,0.390624 C 32.5368,27.846384 32.524946,26.111218 32.125,21.34375 31.790942,17.361662 31.633018,16.562342 31.128906,16.402344 30.601914,16.235082 29.9375,15.419704 29.9375,14.9375 c 0,-0.344674 0.10028,-0.472129 0.46875,-0.600586 0.296662,-0.103418 0.564172,-0.36495 0.732422,-0.717774 0.16228,-0.340301 0.375064,-0.55664 0.551758,-0.55664 0.372276,0 0.53431,-0.42997 0.302734,-0.800781 -0.1364,-0.218415 -0.13452,-0.550251 0,-1.347657 0.2439,-1.4457768 -0.0205,-2.819048 -0.537108,-2.7929682 -0.29658,0.01498 -0.339164,0.09636 -0.292972,0.5566406 L 31.216804,9.209961 30.772466,8.9169922 C 29.772598,8.2528132 29.216662,8.0210194 28.555664,8.1015626 Z M 29.141602,25.5625 h 0.473634 c 0.39037,0 0.477592,0.06398 0.478514,0.351562 6.26e-4,0.19336 0.0182,2.302696 0.03908,4.6875 0.02074,2.384806 -0.0188,4.335976 -0.0879,4.335938 -0.06912,-4e-5 -0.1124,1.36453 -0.09766,3.032228 0.0148,1.6677 -0.02,3.109104 -0.07812,3.203124 -0.301348,0.487592 -0.393664,-0.1054 -0.46875,-2.993164 -0.04526,-1.740236 -0.12212,-5.291016 -0.1709,-7.890626 z"/>
 <path style="opacity:0.1" d="m 15.661544,39.570494 c 0.0115,-1.868856 0.07158,-4.10104 0.133486,-4.960414 0.06191,-0.859376 0.08765,-1.728548 0.0572,-1.931496 -0.05385,-0.35894 -0.08216,-0.349226 -1.038971,0.356428 -0.959979,0.707994 -1.368459,0.810272 -1.169938,0.292936 0.07346,-0.19144 0.03337,-0.231524 -0.15807,-0.15808 -0.141072,0.05412 -0.299907,0.0282 -0.352962,-0.05766 -0.05306,-0.08584 -0.303451,0.15642 -0.556435,0.538348 -0.612458,0.924644 -0.919608,1.181928 -0.919608,0.770304 0,-0.498322 -0.164748,-0.51954 -0.576678,-0.07428 -0.310775,0.335932 -0.366483,0.357334 -0.279071,0.10722 0.17846,-0.510634 0.16486,-0.783646 -0.03707,-0.744062 -0.10962,0.0215 -0.15203,-0.06096 -0.10047,-0.19532 0.05922,-0.15432 -0.0083,-0.23265 -0.200935,-0.232926 -0.21358,-3.12e-4 -0.11037,-0.15544 0.391073,-0.587876 l 0.681228,-0.587412 -0.56404,-0.268972 C 10.660068,31.689296 10.40625,31.51229 10.40625,31.44388 c 0,-0.0684 0.357439,-0.262906 0.794308,-0.432216 1.136715,-0.440534 1.194558,-0.58158 0.442581,-1.079214 -0.352309,-0.233148 -0.616245,-0.448222 -0.586523,-0.477944 0.02972,-0.02972 0.644914,-0.269684 1.367094,-0.533246 1.354235,-0.494236 1.703905,-0.72323 2.228793,-1.459618 0.304982,-0.427872 0.304911,-0.431606 -0.01686,-0.883496 -0.177727,-0.249594 -0.32314,-0.67013 -0.32314,-0.934524 0,-0.397274 0.07458,-0.497164 0.429687,-0.575484 0.236328,-0.05212 0.49703,-0.11106 0.579337,-0.13098 0.08231,-0.02 -0.146208,-0.202496 -0.507813,-0.40573 -0.361603,-0.203232 -0.657461,-0.466 -0.657461,-0.583924 0,-0.319768 0.958404,-1.134296 1.334655,-1.134296 0.295383,0 0.354113,-0.16476 0.598719,-1.679688 0.293134,-1.815485 0.521192,-2.332044 1.064226,-2.410507 0.265946,-0.03843 0.379262,-0.196578 0.475953,-0.664268 0.07479,-0.361746 0.06614,-0.674601 -0.02107,-0.761803 -0.08138,-0.08138 -0.662985,-0.198396 -1.292449,-0.260028 C 13.902827,16.800608 12.125,15.377455 12.125,13.68178 c 0,-0.450159 0.06804,-0.567201 0.374472,-0.644109 0.346135,-0.08687 0.362935,-0.135773 0.222006,-0.646179 -0.08386,-0.303706 -0.111948,-0.713637 -0.06242,-0.910958 0.08024,-0.31968 0.01775,-0.372613 -0.573568,-0.485884 -0.364986,-0.06992 -1.400478,-0.128796 -2.3010928,-0.130845 -1.4851344,-0.0034 -1.6429184,-0.03147 -1.695915,-0.301936 -0.055643,-0.28397 0.026274,-0.293447 1.7156068,-0.19849 0.975722,0.05485 2.045281,0.176858 2.376798,0.271136 0.59848,0.1702 1.506617,-0.02407 1.506617,-0.322298 0,-0.359131 -1.366817,-0.8884176 -2.827347,-1.0948622 C 9.9097886,9.0830218 9.3125,8.7409328 9.3125,8.3309582 c 0,-0.3634418 0.4197968,-0.4027014 1.283252,-0.12001 1.119938,0.3666614 2.119965,0.88134 2.963434,1.5251744 0.618072,0.4717854 1.847064,0.8548284 1.847064,0.5756794 0,-0.09987 -0.798142,-0.7026778 -1.717669,-1.2972806 -0.300186,-0.194114 -0.570818,-0.4828762 -0.601404,-0.6416958 -0.0472,-0.2450982 0.0117,-0.2723704 0.389544,-0.180356 0.659052,0.160496 1.463443,0.8629996 2.12682,1.8574264 l 0.587916,0.881308 0.505834,-0.308416 c 0.624568,-0.38081 1.025378,-0.390306 1.525755,-0.03615 0.21248,0.15039 0.648987,0.277806 0.970013,0.283146 0.734571,0.01222 1.307986,0.522601 1.558506,1.387184 0.101096,0.348897 0.275941,0.780595 0.388546,0.95933 0.112604,0.178734 0.159192,0.370514 0.103532,0.426175 -0.05566,0.05566 -0.108642,0.580508 -0.117734,1.166327 -0.0242,1.559338 -0.619283,2.311845 -1.971632,2.493233 l -0.63888,0.08569 0.04699,0.642426 c 0.0414,0.566002 0.09669,0.64817 0.464753,0.690716 0.764331,0.08835 0.964956,0.653212 1.065027,2.998585 0.0495,1.160156 0.166494,2.25 0.259982,2.421876 0.09349,0.17188 0.218947,1.310238 0.2788,2.529696 0.104778,2.134828 0.02949,2.728062 -0.382923,3.017178 -0.06129,0.04298 -0.192522,1.44922 -0.291624,3.125 -0.0991,1.675782 -0.282289,3.75 -0.407087,4.609374 -0.124798,0.859376 -0.229135,2.172616 -0.23186,2.918314 l -0.005,1.35581 0.582475,0.480126 0.582477,0.480126 h -1.965345 l 0.106968,-0.713308 c 0.05883,-0.39232 0.0191,-1.726126 -0.08829,-2.964016 -0.156372,-1.802464 -0.156268,-2.399464 5.32e-4,-2.99763 0.17826,-0.680052 0.238185,-5.482638 0.0705,-5.650324 -0.03413,-0.03412 -0.29473,0.11542 -0.579114,0.332332 -0.492311,0.375506 -0.530247,0.47939 -0.792504,2.170228 -0.389592,2.511796 -0.875812,7.084822 -0.882408,8.29928 -0.0042,0.766832 0.14254,1.01022 0.93686,1.554306 0.382826,0.262222 0.375673,0.26533 -0.628392,0.272914 l -1.015625,0.0078 0.02093,-3.397912 z m 1.251335,-17.616665 c -0.15889,-0.459507 -0.165968,-0.450263 -0.35879,0.468749 -0.293595,1.399294 -0.237636,1.664486 0.164859,0.781252 0.292253,-0.641324 0.326988,-0.86521 0.193931,-1.250001 z"/>
 <path style="fill:#424242" d="m 15.661544,38.56979 c 0.0115,-1.868856 0.07158,-4.10104 0.133486,-4.960414 0.06191,-0.859376 0.08765,-1.728548 0.0572,-1.931496 -0.05385,-0.35894 -0.08216,-0.349226 -1.038971,0.356428 -0.959979,0.707994 -1.368459,0.810272 -1.169938,0.292936 0.07346,-0.19144 0.03337,-0.231524 -0.15807,-0.15808 -0.141072,0.05412 -0.299907,0.0282 -0.352962,-0.05766 -0.05306,-0.08584 -0.303451,0.15642 -0.556435,0.538348 -0.612458,0.924644 -0.919608,1.181928 -0.919608,0.770304 0,-0.498322 -0.164748,-0.51954 -0.576678,-0.07428 -0.310775,0.335932 -0.366483,0.357334 -0.279071,0.10722 0.17846,-0.510634 0.16486,-0.783646 -0.03707,-0.744062 -0.10962,0.0215 -0.15203,-0.06096 -0.10047,-0.19532 0.05922,-0.15432 -0.0083,-0.23265 -0.200935,-0.232926 -0.21358,-3.12e-4 -0.11037,-0.15544 0.391073,-0.587876 l 0.681228,-0.587412 -0.56404,-0.268972 c -0.310223,-0.147936 -0.564041,-0.324942 -0.564041,-0.393352 0,-0.0684 0.357439,-0.262906 0.794308,-0.432216 1.136715,-0.440534 1.194558,-0.58158 0.442581,-1.079214 -0.352309,-0.233148 -0.616245,-0.448222 -0.586523,-0.477944 0.02972,-0.02972 0.644914,-0.269684 1.367094,-0.533246 1.354235,-0.494236 1.703905,-0.72323 2.228793,-1.459618 0.304982,-0.427872 0.304911,-0.431606 -0.01686,-0.883496 -0.177727,-0.249594 -0.32314,-0.67013 -0.32314,-0.934524 0,-0.397274 0.07458,-0.497164 0.429687,-0.575484 0.236328,-0.05212 0.49703,-0.11106 0.579337,-0.13098 0.08231,-0.02 -0.146208,-0.202496 -0.507813,-0.40573 -0.361603,-0.203232 -0.657461,-0.466 -0.657461,-0.583924 0,-0.319768 0.958404,-1.134296 1.334655,-1.134296 0.295383,0 0.354113,-0.164766 0.598719,-1.679687 0.293134,-1.815486 0.521192,-2.332044 1.064226,-2.410508 0.265946,-0.03843 0.379262,-0.196578 0.475953,-0.664267 0.07479,-0.361746 0.06614,-0.674601 -0.02107,-0.761803 -0.08138,-0.08138 -0.662985,-0.198397 -1.292449,-0.260029 C 13.902827,15.799905 12.125,14.376752 12.125,12.681076 c 0,-0.450159 0.06804,-0.567201 0.374472,-0.644109 0.346135,-0.08688 0.362935,-0.135772 0.222006,-0.646179 -0.08386,-0.303706 -0.111948,-0.713637 -0.06242,-0.910958 0.08024,-0.31968 0.01775,-0.372613 -0.573568,-0.4858838 C 11.7205,9.9240306 10.685008,9.8651502 9.7843932,9.863101 8.2992588,9.859726 8.1414748,9.831631 8.0884782,9.5611658 8.032835,9.2771956 8.1147522,9.267718 9.804085,9.3626758 c 0.975722,0.054845 2.045281,0.1768574 2.376798,0.2711358 0.59848,0.1702 1.506617,-0.024075 1.506617,-0.3222978 0,-0.3591314 -1.366817,-0.888418 -2.827347,-1.0948626 C 9.9097886,8.0823182 9.3125,7.7402292 9.3125,7.3302546 c 0,-0.3634418 0.4197968,-0.4027014 1.283252,-0.12001 1.119938,0.3666614 2.119965,0.88134 2.963434,1.5251744 0.618072,0.4717852 1.847064,0.8548288 1.847064,0.5756798 0,-0.099874 -0.798142,-0.7026782 -1.717669,-1.297281 -0.300186,-0.1941132 -0.570818,-0.4828762 -0.601404,-0.6416958 -0.0472,-0.2450982 0.0117,-0.2723704 0.389544,-0.1803568 0.659052,0.1604966 1.463443,0.8629996 2.12682,1.8574264 L 16.191457,9.9305 16.697291,9.622084 c 0.624568,-0.3808098 1.025378,-0.3903054 1.525755,-0.036147 0.21248,0.15039 0.648987,0.2778062 0.970013,0.283146 0.734571,0.01222 1.307986,0.5226 1.558506,1.387184 0.101096,0.348896 0.275941,0.780595 0.388546,0.95933 0.112604,0.178734 0.159192,0.370513 0.103532,0.426174 -0.05566,0.05566 -0.108642,0.580509 -0.117734,1.166327 -0.0242,1.559338 -0.619283,2.311845 -1.971632,2.493233 l -0.63888,0.08569 0.04699,0.642426 c 0.0414,0.566003 0.09669,0.648171 0.464753,0.690716 0.764331,0.08835 0.964956,0.653212 1.065027,2.998585 0.0495,1.160156 0.166494,2.25 0.259982,2.421876 0.09349,0.17188 0.218947,1.310238 0.2788,2.529696 0.104778,2.134828 0.02949,2.728062 -0.382923,3.017178 -0.06129,0.04298 -0.192522,1.44922 -0.291624,3.125 -0.0991,1.675782 -0.282289,3.75 -0.407087,4.609374 -0.124798,0.859376 -0.229135,2.172616 -0.23186,2.918314 l -0.005,1.35581 0.582475,0.480126 0.582477,0.480126 H 18.512062 L 18.61903,40.94294 c 0.05883,-0.39232 0.0191,-1.726126 -0.08829,-2.964016 -0.156372,-1.802464 -0.156268,-2.399464 5.32e-4,-2.99763 0.17826,-0.680052 0.238185,-5.482638 0.0705,-5.650324 -0.03413,-0.03412 -0.29473,0.11542 -0.579114,0.332332 -0.492311,0.375506 -0.530247,0.47939 -0.792504,2.170228 -0.389592,2.511796 -0.875812,7.084822 -0.882408,8.29928 -0.0042,0.766832 0.14254,1.01022 0.93686,1.554306 0.382826,0.262222 0.375673,0.26533 -0.628392,0.272914 l -1.015625,0.0078 0.02093,-3.397912 z m 1.251335,-17.616665 c -0.15889,-0.459506 -0.165968,-0.450262 -0.35879,0.46875 -0.293595,1.399293 -0.237636,1.664485 0.164859,0.781251 0.292253,-0.641323 0.326988,-0.865209 0.193931,-1.250001 z"/>
 <path style="opacity:0.1;fill:#8b9cbe" d="m 24,4 v 1 h 18 c 1.108,0 2,0.892 2,2 V 6 C 44,4.892 43.108,4 42,4 Z"/>
</svg>
