<svg xmlns="http://www.w3.org/2000/svg" width="48" height="48" version="1.1">
 <rect style="opacity:.2" width="40" height="40" x="4" y="5" rx="3" ry="3"/>
 <rect style="fill:#5c666b" width="40" height="40" x="4" y="4" rx="3" ry="3"/>
 <path style="fill:#8b9cbe;opacity:.1" d="m7 4c-1.662 0-3 1.3379999-3 3v1c0-1.6620001 1.338-3 3-3h34c1.662 0 3 1.3379999 3 3v-1c0-1.6620001-1.338-3-3-3h-34z"/>
 <path style="opacity:0.2" d="m 24.005859,13.9999 a 0.99960563,1.0001636 0 0 0 -0.849609,0.476562 l -7.132812,11.59961 -2.154297,-3.589844 A 0.99960563,1.0001636 0 0 0 13.011719,21.9999 h -2.998047 a 0.99960563,1.0001636 0 1 0 0,2 h 2.43164 l 2.708985,4.513672 a 0.99960563,1.0001636 0 0 0 1.707031,0.0098 L 24.564453,15.9999 H 36 v 1 a 1,1.0005582 0 1 0 2,0 v -2 a 0.99960563,1.0001636 0 0 0 -1,-1 z m 4.994141,5 a 5,5 0 0 0 -5,5 5,5 0 0 0 5,5 5,5 0 0 0 3,-1.007812 1.0001,0.99730391 0 1 0 2,-0.0039 V 20.011619 A 1.0001,0.99730391 0 0 0 32.984375,18.9999 1.0001,0.99730391 0 0 0 32,20.007712 5,5 0 0 0 29,18.9999 Z m 0,2 a 3,3 0 0 1 3,3 3,3 0 0 1 -3,3 3,3 0 0 1 -3,-3 3,3 0 0 1 3,-3 z m -17.986328,10 a 0.99908361,1.0001 0 1 0 0,2 h 25.972656 a 0.99908361,1.0001 0 1 0 0,-2 z m 11.99414,4 a 0.9930284,1.0001 0 1 0 0,2 h 1.984376 a 0.9930284,1.0001 0 1 0 0,-2 z"/>
 <path style="fill:#8b9cbe" d="M 24.005859 13 A 0.99960563 1.0001636 0 0 0 23.15625 13.476562 L 16.023438 25.076172 L 13.869141 21.486328 A 0.99960563 1.0001636 0 0 0 13.011719 21 L 10.013672 21 A 0.99960563 1.0001636 0 1 0 10.013672 23 L 12.445312 23 L 15.154297 27.513672 A 0.99960563 1.0001636 0 0 0 16.861328 27.523438 L 24.564453 15 L 36 15 L 36 16 A 0.99960563 1.0001636 0 1 0 38 16 L 38 14 A 0.99960563 1.0001636 0 0 0 37 13 L 24.005859 13 z M 29 18 A 5 5 0 0 0 24 23 A 5 5 0 0 0 29 28 A 5 5 0 0 0 32 26.992188 A 1.0001 0.99730391 0 1 0 34 26.988281 L 34 19.011719 A 1.0001 0.99730391 0 0 0 32.984375 18 A 1.0001 0.99730391 0 0 0 32 19.007812 A 5 5 0 0 0 29 18 z M 29 20 A 3 3 0 0 1 32 23 A 3 3 0 0 1 29 26 A 3 3 0 0 1 26 23 A 3 3 0 0 1 29 20 z M 11.013672 30 A 0.99908361 1.0001 0 1 0 11.013672 32 L 36.986328 32 A 0.99908361 1.0001 0 1 0 36.986328 30 L 11.013672 30 z M 23.007812 34 A 0.9930284 1.0001 0 1 0 23.007812 36 L 24.992188 36 A 0.9930284 1.0001 0 1 0 24.992188 34 L 23.007812 34 z"/>
</svg>
