<svg xmlns="http://www.w3.org/2000/svg" width="48" height="48" version="1">
 <circle style="fill:#108beb" cx="24" cy="24" r="20"/>
 <path style="fill:#206420" d="M 22.111,4.1074 A 20,20 0 0 0 14.873,6.207 c 0.101,0.3201 -0.017,0.6812 -0.385,1 -0.249,0.2158 -0.453,0.5519 -0.453,0.7481 0,0.5997 0.542,1.5205 0.975,1.6543 0.575,0.178 0.382,0.7916 -0.358,1.1306 -0.342,0.157 -0.763,0.609 -0.935,1.004 -0.173,0.396 -0.427,0.786 -0.565,0.867 -0.137,0.082 -0.25,0.391 -0.25,0.688 0,0.415 0.19,0.616 0.813,0.865 0.446,0.179 0.98,0.309 1.187,0.289 1.191,-0.112 1.274,0.582 0.233,1.938 -0.553,0.72 -0.819,0.901 -1.196,0.81 -0.351,-0.084 -0.543,0.015 -0.703,0.363 -0.168,0.369 -0.444,0.494 -1.185,0.545 -0.729,0.051 -1.055,0.199 -1.328,0.598 -0.2,0.291 -0.488,0.527 -0.641,0.527 -0.1534,0 -0.5136,0.196 -0.8008,0.434 -0.5844,0.485 -0.8126,0.534 -1.0175,0.217 -0.2708,-0.42 -0.8551,-0.208 -1.7246,0.625 -0.769,0.736 -0.8621,0.933 -0.7461,1.572 0.2064,1.137 0.8231,2.146 1.5273,2.498 0.6145,0.307 0.6265,0.34 0.2539,0.734 -0.2143,0.227 -0.582,0.47 -0.8164,0.541 -0.677,0.206 -0.2959,0.464 0.9121,0.618 1.2364,0.157 1.6206,0.605 1.043,1.216 -0.3221,0.341 -0.304,0.405 0.2129,0.729 1.01,0.634 1.8132,0.246 0.8652,-0.418 -0.6093,-0.427 -0.1832,-0.601 0.711,-0.291 0.713,0.247 0.854,0.233 1.275,-0.133 0.865,-0.749 1.805,0.359 1.014,1.195 -0.503,0.533 -0.351,1.175 0.301,1.264 0.288,0.039 0.886,0.307 1.33,0.596 0.444,0.288 0.928,0.525 1.074,0.525 0.146,0 0.558,0.293 0.916,0.651 0.726,0.725 1.129,0.817 1.334,0.306 0.246,-0.614 0.147,-0.931 -0.516,-1.654 -0.527,-0.576 -1.384,-2.106 -1.384,-2.473 0,-0.226 0.871,-0.034 1.359,0.299 0.305,0.209 0.799,0.478 1.098,0.6 0.318,0.13 0.648,0.534 0.799,0.976 0.235,0.694 0.328,0.754 1.16,0.754 h 0.904 l 0.137,1.625 c 0.164,1.955 0.321,2.351 0.992,2.512 0.494,0.119 1.021,0.884 1.021,1.482 0,0.159 -0.355,0.549 -0.789,0.866 -0.538,0.393 -0.77,0.727 -0.734,1.054 0.045,0.409 -0.048,0.473 -0.627,0.43 -0.373,-0.028 -1.021,0.103 -1.437,0.291 -0.493,0.222 -1.027,0.293 -1.528,0.203 -0.576,-0.103 -0.771,-0.063 -0.771,0.162 0,0.166 -0.202,0.476 -0.448,0.69 -0.608,0.527 -0.357,0.806 0.577,0.638 0.58,-0.104 0.806,-0.058 0.906,0.192 0.213,0.531 -0.327,1.291 -0.828,1.166 -0.318,-0.08 -0.47,0.029 -0.569,0.404 -0.034,0.133 -0.097,0.246 -0.172,0.342 a 20,20 0 0 0 3.165,0.935 c -0.1,-0.191 -0.214,-0.365 -0.325,-0.443 -0.515,-0.364 -0.17,-1.31 0.539,-1.48 0.723,-0.174 0.609,-0.643 -0.177,-0.733 -0.689,-0.078 -1.422,-0.776 -1.192,-1.133 0.155,-0.239 0.814,-0.204 2.147,0.112 0.602,0.142 1.013,-0.144 2.408,-1.67 0.807,-0.884 1.428,-1.252 2.109,-1.252 0.26,0 1.187,-0.239 2.061,-0.531 1.65,-0.553 2.295,-0.533 2.234,0.07 -0.126,1.254 0.681,1.212 1.996,-0.102 0.548,-0.547 1.049,-0.943 1.114,-0.881 0.251,0.241 -0.201,1.414 -0.729,1.889 -0.669,0.602 -0.702,0.982 -0.113,1.283 0.322,0.166 0.459,0.501 0.51,1.254 l 0.068,1.028 h 0.836 c 0.293,0 0.536,0.04 0.732,0.115 a 20,20 0 0 0 9.69,-16.506 c -0.306,-0.654 -0.284,-1.049 0,-1.494 a 20,20 0 0 0 -0.09,-1.121 c -0.182,-0.009 -0.368,-0.017 -0.582,-0.008 -1.008,0.042 -1.871,-0.355 -1.871,-0.861 0,-0.107 -0.358,-0.548 -0.795,-0.979 -0.496,-0.488 -0.75,-0.92 -0.676,-1.144 0.068,-0.204 -0.078,-0.533 -0.336,-0.756 -0.251,-0.218 -0.457,-0.568 -0.457,-0.778 0,-0.335 -0.213,-0.377 -1.754,-0.34 l -1.754,0.043 0.03,1.729 c 0.052,3.028 0.503,3.814 1.894,3.307 0.637,-0.233 2.202,-0.057 2.647,0.296 0.161,0.128 0.394,0.592 0.517,1.032 0.124,0.439 0.582,1.2 1.02,1.689 0.886,0.992 0.955,1.379 0.447,2.543 -0.443,1.016 -0.921,0.899 -0.826,-0.203 l 0.07,-0.82 -0.75,0.14 c -0.415,0.079 -0.935,0.385 -1.168,0.688 -0.332,0.431 -0.487,0.494 -0.736,0.297 -0.174,-0.138 -0.315,-0.429 -0.315,-0.645 0,-0.216 -0.214,-0.456 -0.474,-0.535 -0.261,-0.079 -0.618,-0.472 -0.793,-0.875 -0.281,-0.644 -0.274,-0.841 0.053,-1.623 0.331,-0.793 0.334,-0.924 0.029,-1.217 -0.28,-0.268 -0.425,-0.277 -0.793,-0.056 -0.37,0.221 -0.545,0.205 -0.985,-0.09 -0.293,-0.197 -0.806,-0.36 -1.138,-0.36 -0.675,0 -0.879,-0.328 -0.879,-1.414 0,-1.003 -0.598,-1.367 -2.022,-1.236 -0.988,0.091 -1.206,0.026 -2.003,-0.588 -0.493,-0.379 -1.271,-1.291 -1.731,-2.029 -0.46,-0.738 -0.955,-1.509 -1.1,-1.713 -0.208,-0.295 -0.157,-0.578 0.25,-1.381 l 0.514,-1.01 -1.086,0.147 c -1.932,0.261 -2.323,0.511 -1.492,0.957 0.324,0.173 0.338,0.262 0.088,0.551 -0.164,0.188 -0.241,0.487 -0.17,0.664 0.071,0.176 -0.019,0.592 -0.199,0.923 -0.181,0.332 -0.332,0.797 -0.338,1.036 -0.019,0.745 -1.295,1.338 -2.717,1.259 -2.154,-0.119 -2.329,-0.085 -3.094,0.625 -0.956,0.888 -1.079,1.301 -0.634,2.125 0.431,0.8 1.197,1.119 2.523,1.053 1.186,-0.059 1.32,0.046 1.049,0.83 -0.231,0.666 -1.005,0.922 -1.53,0.506 -0.404,-0.321 -1.797,-0.073 -2.224,0.397 -0.179,0.196 -0.445,0.712 -0.59,1.144 -0.25,0.746 -0.323,0.792 -1.443,0.9 -1.118,0.109 -1.226,0.073 -2.03,-0.668 -0.897,-0.826 -1.049,-1.458 -0.617,-2.546 0.192,-0.482 0.334,-0.561 0.846,-0.467 1.014,0.185 1.414,-0.167 1.414,-1.25 0,-0.525 -0.102,-1.016 -0.227,-1.09 -0.124,-0.074 -0.226,-0.352 -0.226,-0.619 0,-0.267 -0.128,-0.611 -0.283,-0.762 -0.227,-0.22 -0.194,-0.338 0.168,-0.594 0.248,-0.175 0.656,-0.293 0.906,-0.263 0.249,0.03 0.938,-0.078 1.531,-0.239 0.857,-0.231 1.109,-0.406 1.225,-0.857 0.22,-0.856 0.757,-1.543 1.207,-1.543 0.711,0 0.726,-1.672 0.035,-4.104 -0.102,-0.359 -0.383,-0.587 -0.879,-0.71 -0.402,-0.1 -0.839,-0.374 -0.971,-0.6098 -0.131,-0.2358 -0.372,-0.4278 -0.535,-0.4278 -0.163,0 -0.482,-0.1952 -0.707,-0.4336 -0.227,-0.24 -0.696,-0.4336 -1.053,-0.4336 -0.845,0 -0.859,-0.5818 -0.021,-0.8886 0.885,-0.3244 2.263,0.1008 2.596,0.8007 0.451,0.9491 0.952,0.5531 1.113,-0.8808 0.199,-1.7735 0.811,-2.2832 2.74,-2.2832 h 1.387 L 22.566,4.7559 C 22.377,4.5663 22.22,4.3346 22.111,4.1074 Z m 7.19,0.6289 c -0.039,0.0352 -0.077,0.064 -0.115,0.1035 -0.464,0.4736 -0.682,0.5411 -1.399,0.4317 -1.252,-0.1909 -1.091,0.3132 0.295,0.9219 0.749,0.3291 1.231,0.7043 1.395,1.0839 0.79,1.8316 1.334,2.8177 1.607,2.9177 0.552,0.203 0.881,-0.2044 1.004,-1.2458 0.141,-1.1948 0.545,-1.4481 1.271,-0.7949 0.282,0.2535 0.676,0.4609 0.875,0.4609 0.621,0 1.08,0.2493 1.08,0.586 0,0.1774 0.21,0.6049 0.467,0.9508 0.379,0.509 0.636,0.631 1.344,0.631 0.869,0 1.402,0.163 2.49,0.764 0.017,0.009 0.034,0.012 0.051,0.021 A 20,20 0 0 0 29.301,4.7363 Z M 4.004,23.9143 a 20,20 0 0 0 -0.0039,0.086 20,20 0 0 0 0.3906,3.842 c 0.7246,0.295 0.9248,0.178 1,-0.496 0.0389,-0.349 0.2211,-0.744 0.4063,-0.881 0.2861,-0.211 0.2345,-0.319 -0.3516,-0.719 -0.3794,-0.259 -0.7533,-0.711 -0.8301,-1.004 -0.0744,-0.284 -0.326,-0.594 -0.6113,-0.828 z m 6.2951,6.611 c -0.187,-0.019 -0.4123,0.081 -0.6623,0.321 -0.5289,0.506 -0.449,1.523 0.1504,1.925 0.6869,0.461 0.9519,0.327 1.0389,-0.523 0.107,-1.048 -0.117,-1.68 -0.527,-1.723 z m 3.394,3.024 c -0.204,0.007 -0.429,0.153 -0.654,0.461 -0.239,0.326 -0.304,0.747 -0.213,1.386 0.113,0.786 0.064,0.954 -0.347,1.165 -0.529,0.27 -0.642,1.074 -0.209,1.488 0.43,0.412 0.84,0.304 0.988,-0.26 0.21,-0.804 1.387,-0.898 2.191,-0.176 0.343,0.308 0.623,0.464 0.623,0.346 0,-0.118 -0.357,-0.547 -0.793,-0.951 -0.667,-0.62 -0.791,-0.884 -0.791,-1.682 0,-1.126 -0.345,-1.791 -0.795,-1.777 z m -5.5739,2.582 a 20,20 0 0 0 0.4629,0.584 c -0.1363,-0.211 -0.2919,-0.413 -0.4629,-0.584 z m 6.7399,3.07 c -0.101,0.035 -0.144,0.162 -0.144,0.385 0,0.226 -0.144,0.463 -0.32,0.527 -0.234,0.086 -0.288,0.357 -0.198,1.004 0.017,0.121 0.022,0.218 0.028,0.319 a 20,20 0 0 0 0.832,0.427 c -0.014,-0.346 0.049,-0.753 0.23,-1.263 0.307,-0.866 0.318,-1.083 0.068,-1.235 -0.234,-0.142 -0.394,-0.199 -0.496,-0.164 z"/>
 <path style="opacity:0.2;fill:#8b9cbe" d="M 24,4 C 12.921,4 4.002,12.92 4.002,24 c 0,0.16772 -0.004,0.33329 0,0.5 C 4.2662,13.654 13.089,5 24,5 c 10.911,0 19.734,8.6536 19.998,19.5 0.004,-0.16671 0,-0.33228 0,-0.5 C 43.998,12.92 35.079,4 24,4 Z"/>
 <path style="opacity:0.2" d="M 43.979,24.418 A 20,20 0 0 1 24,44 20,20 0 0 1 4.022,24.582 20,20 0 0 0 4,25 20,20 0 0 0 24,45 20,20 0 0 0 44,25 20,20 0 0 0 43.979,24.418 Z"/>
 <path style="opacity:0.2;fill:none;stroke:#000000;stroke-width:3;stroke-linecap:round;stroke-linejoin:bevel" d="m 21.522007,21.497369 c 0,0 -0.01531,1.000181 -2.999811,1.000181 -2.984511,0 -2.999811,-3.015355 -2.999811,-5.999868 0,-2.984509 0.01531,-5.999622 2.999811,-5.999622 2.984511,0 2.999811,0.999936 2.999811,0.999936"/>
 <path style="fill:none;stroke:#8b9cbe;stroke-width:3;stroke-linecap:round;stroke-linejoin:bevel" d="m 21.522007,20.499564 c 0,0 -0.01531,1.000181 -2.999811,1.000181 -2.984511,0 -2.999811,-3.015355 -2.999811,-5.999868 0,-2.984509 0.01531,-5.999622 2.999811,-5.999622 2.984511,0 2.999811,0.999936 2.999811,0.999936"/>
 <path style="opacity:0.2;fill:none;stroke:#000000;stroke-width:2.99981093;stroke-linecap:round;stroke-linejoin:bevel" d="m 26.542579,39.485851 c 0,0 6.054373,0.487276 5.98904,-6.004406 -0.06534,-6.491704 -5.98904,-5.994837 -5.98904,-5.994837 m -0.02116,11.989674 v -11.99924"/>
 <path style="fill:none;stroke:#8b9cbe;stroke-width:2.99981093;stroke-linecap:round;stroke-linejoin:bevel" d="m 26.542579,38.488046 c 0,0 6.054373,0.487276 5.98904,-6.004406 -0.06534,-6.491704 -5.98904,-5.994837 -5.98904,-5.994837 m -0.02116,11.989674 v -11.99924"/>
 <path style="opacity:0.2;fill:none;stroke:#000000;stroke-width:3;stroke-linecap:round;stroke-linejoin:bevel" d="m 32.521913,21.497464 c 0,0 -0.01531,1.000181 -2.999811,1.000181 -2.984511,0 -2.999811,-3.015355 -2.999811,-5.999868 0,-2.984509 0.01531,-5.999622 2.999811,-5.999622 2.984511,0 2.999811,0.999936 2.999811,0.999936"/>
 <path style="fill:none;stroke:#8b9cbe;stroke-width:3;stroke-linecap:round;stroke-linejoin:bevel" d="m 32.521913,20.499659 c 0,0 -0.01531,1.000181 -2.999811,1.000181 -2.984511,0 -2.999811,-3.015355 -2.999811,-5.999868 0,-2.984509 0.01531,-5.999622 2.999811,-5.999622 2.984511,0 2.999811,0.999936 2.999811,0.999936"/>
 <path style="opacity:0.2;fill:none;stroke:#000000;stroke-width:3;stroke-linecap:round;stroke-linejoin:round" d="M 15.521364,27.4974 H 19 c 0,0 2.521364,-0.209677 2.521364,2.500405 v 3.499098 h -4 4 v 3.500902 C 21.521364,39.642827 19,39.4974 19,39.4974 h -3.478636"/>
 <path style="fill:none;stroke:#f8f8f8;stroke-width:3;stroke-linecap:round;stroke-linejoin:round" d="M 15.521364,26.499595 H 19 c 0,0 2.521364,-0.209677 2.521364,2.500405 v 3.499098 h -4 4 V 36 C 21.521364,38.645022 19,38.499595 19,38.499595 h -3.478636"/>
</svg>
