<svg xmlns="http://www.w3.org/2000/svg" width="48" height="48" version="1">
 <path style="fill:#7774d7" d="m44 24a20 20 0 0 1 -20 20 20 20 0 0 1 -20 -20 20 20 0 0 1 20 -20 20 20 0 0 1 20 20z"/>
 <path style="opacity:0.2;fill:#8b9cbe" d="m24 4a20 20 0 0 0 -20 20 20 20 0 0 0 0.0215 0.582 20 20 0 0 1 19.978 -19.582 20 20 0 0 1 19.978 19.418 20 20 0 0 0 0.022 -0.418 20 20 0 0 0 -20 -20z"/>
 <path style="opacity:0.2" d="m43.979 24.418a20 20 0 0 1 -19.979 19.582 20 20 0 0 1 -19.978 -19.418 20 20 0 0 0 -0.022 0.418 20 20 0 0 0 20 20 20 20 0 0 0 20 -20 20 20 0 0 0 -0.021 -0.582z"/>
 <path style="opacity:0.2" d="m 24.000259,12.999887 c -0.564611,0 -1.13068,0.02586 -1.490234,0.07813 -4.33992,0.6307 -6.904444,2.766385 -7.417969,6.175781 -0.05673,0.376693 -0.07292,1.044712 -0.08203,3.607422 l -0.0098,3.044922 0.125,0.201172 c 0.310832,0.501446 0.741837,0.854709 2.785156,2.285156 3.4161,2.391483 4.818848,3.263512 5.683594,3.529297 0.136472,0.04194 0.324117,0.07691 0.417969,0.07813 0.573911,0.0078 2.252258,-0.941516 4.792969,-2.712891 3.168449,-2.209041 3.755677,-2.667206 4.064453,-3.167968 l 0.130859,-0.212891 0,-2.511719 c 0,-3.274564 -0.02201,-3.854867 -0.173828,-4.55664 -0.27068,-1.251492 -0.763621,-2.240348 -1.548795,-3.101573 -1.260283,-1.382352 -3.231302,-2.286496 -5.789063,-2.658203 -0.359567,-0.05225 -0.923671,-0.07813 -1.488281,-0.07813 z m 0,4 c 2.268634,0 4.240439,1.64998 4.884766,3.671875 0.113436,0.35597 0.115234,0.370427 0.115234,1.818359 0,0.802811 -0.01298,1.474048 -0.0293,1.490235 -0.01633,0.01618 -2.243436,0.02368 -4.970703,0.01758 -2.727267,0.0061 -4.954372,-0.0014 -4.970703,-0.01758 -0.01631,-0.01619 -0.0293,-0.687424 -0.0293,-1.490235 0,-1.447932 0.0018,-1.462389 0.115234,-1.818359 0.644334,-2.021895 2.616139,-3.671875 4.884772,-3.671875 z m -8.998047,11 c 0,0 -0.0076,0.880467 0.0039,4.162109 l 0.01563,4.03125 0.134766,0.253907 c 0.103972,0.193342 0.188272,0.281379 0.357422,0.380859 l 0.220703,0.130859 3.585937,0.02148 c 1.972236,0.01186 5.66481,0.02074 8.20508,0.01954 l 4.61914,-0.002 0.222657,-0.0957 c 0.286996,-0.123286 0.370865,-0.197731 0.503906,-0.447266 l 0.107422,-0.203125 0.0059,-3.675781 0.01558,-4.576128 -0.05859,0 -0.07227,0.119141 c -0.308776,0.500762 -0.896005,0.958927 -4.064453,3.167968 -2.54071,1.771375 -4.219057,2.720691 -4.792968,2.712891 -0.09385,-0.0012 -0.281497,-0.03619 -0.417969,-0.07813 -0.864746,-0.265785 -2.267494,-1.137814 -5.683594,-3.529297 -2.043319,-1.430447 -2.474324,-1.78371 -2.785156,-2.285156 l -0.06641,-0.107417 -0.05664,0 z"/>
 <path style="fill:#8b9cbe" d="m 24.000259,11.999946 c -0.564611,0 -1.13068,0.02586 -1.490234,0.07813 -4.33992,0.6307 -6.904444,2.766385 -7.417969,6.175781 -0.05673,0.376693 -0.07292,1.044712 -0.08203,3.607422 l -0.0098,3.044922 0.125,0.201172 c 0.310832,0.501446 0.741837,0.854709 2.785156,2.285156 3.4161,2.391483 4.818848,3.263512 5.683594,3.529297 0.136472,0.04194 0.324117,0.07691 0.417969,0.07813 0.573911,0.0078 2.252258,-0.941516 4.792969,-2.712891 3.168449,-2.209041 3.755677,-2.667206 4.064453,-3.167968 l 0.130859,-0.212891 0,-2.511719 c 0,-3.274564 -0.02201,-3.854867 -0.173828,-4.55664 -0.27068,-1.251492 -0.763621,-2.240348 -1.548795,-3.101573 -1.260283,-1.382352 -3.231302,-2.286496 -5.789063,-2.658203 -0.359567,-0.05225 -0.923671,-0.07813 -1.488281,-0.07813 z m 0,4 c 2.268634,0 4.240439,1.64998 4.884766,3.671875 0.113436,0.35597 0.115234,0.370427 0.115234,1.818359 0,0.802811 -0.01298,1.474048 -0.0293,1.490235 -0.01633,0.01618 -2.243436,0.02368 -4.970703,0.01758 -2.727267,0.0061 -4.954372,-0.0014 -4.970703,-0.01758 -0.01631,-0.01619 -0.0293,-0.687424 -0.0293,-1.490235 0,-1.447932 0.0018,-1.462389 0.115234,-1.818359 0.644334,-2.021895 2.616139,-3.671875 4.884772,-3.671875 z m -8.998047,11 c 0,0 -0.0076,0.880467 0.0039,4.162109 l 0.01563,4.03125 0.134766,0.253907 c 0.103972,0.193342 0.188272,0.281379 0.357422,0.380859 l 0.220703,0.130859 3.585937,0.02148 c 1.972236,0.01186 5.66481,0.02074 8.20508,0.01954 l 4.61914,-0.002 0.222657,-0.0957 c 0.286996,-0.123286 0.370865,-0.197731 0.503906,-0.447266 l 0.107422,-0.203125 0.0059,-3.675781 0.01558,-4.576128 -0.05859,0 -0.07227,0.119141 c -0.308776,0.500762 -0.896005,0.958927 -4.064453,3.167968 -2.54071,1.771375 -4.219057,2.720691 -4.792968,2.712891 -0.09385,-0.0012 -0.281497,-0.03619 -0.417969,-0.07813 -0.864746,-0.265785 -2.267494,-1.137814 -5.683594,-3.529297 -2.043319,-1.430447 -2.474324,-1.78371 -2.785156,-2.285156 l -0.06641,-0.107417 -0.05664,0 z"/>
 <g style="opacity:0.2" transform="matrix(0.06321839,0,0,0.06321839,-18.735631,-17.735631)">
  <circle cx="850" cy="850" r="174"/>
 </g>
 <g style="fill:#4f4f4f" transform="matrix(0.06321839,0,0,0.06321839,-18.735631,-18.73563)">
  <circle style="fill:#4f4f4f" cx="850" cy="850" r="174"/>
 </g>
 <rect style="fill:#8b9cbe" width="2" height="8" x="36" y="32"/>
 <polygon style="fill:#8b9cbe" transform="matrix(0.06410256,0,0,0.06896552,-19.538458,-24.793106)" points="882 983 944.4 925 819.6 925"/>
 <rect style="fill:#8b9cbe" width="2" height="8" x="32" y="-37" transform="scale(1,-1)"/>
 <polygon style="fill:#8b9cbe" transform="matrix(0.06410256,0,0,-0.06896552,-23.538458,93.793106)" points="944.4 925 819.6 925 882 983"/>
</svg>
