<svg xmlns="http://www.w3.org/2000/svg" width="48" height="48" version="1">
 <circle style="opacity:0.2" class="cls-1" cx="24" cy="25" r="20"/>
 <circle style="fill:#314d7a" class="cls-1" cx="24" cy="24" r="20"/>
 <path style="opacity:0.1;fill:#8b9cbe" d="M 24,4 A 20,20 0 0 0 4,24 20,20 0 0 0 4.0214844,24.582031 20,20 0 0 1 24,5 20,20 0 0 1 43.978516,24.417969 20,20 0 0 0 44,24 20,20 0 0 0 24,4 Z"/>
 <path style="opacity:0.2" d="m 23.160156,11.000248 c -0.0546,0.67098 0.263834,1.898036 -0.0023,2.196978 -0.54789,-0.518193 -1.969028,-2.339824 -1.096116,-0.755832 0.254327,0.966383 1.925703,2.950603 1.775841,0.903624 0.118641,-0.743117 -0.421464,-1.408373 -0.593334,-2.117472 -0.02803,-0.07577 -0.05607,-0.151532 -0.0841,-0.227298 z m 1.607422,0.105469 c -0.25729,0.805059 -0.853181,1.613482 -0.60547,2.492187 0.142811,1.869604 1.745602,-0.891245 1.937488,-1.638084 0.177255,-0.808358 -1.857425,2.600554 -1.390861,0.445566 0.0039,-0.433935 0.08513,-0.865641 0.05884,-1.299669 z m -13.050781,1.566406 c -0.975496,-0.177883 -0.339401,0.301429 0.06691,0.687037 3.924166,3.861649 7.839954,7.731905 11.778794,11.578588 -1.632095,1.593827 -3.244463,3.20834 -4.902344,4.775391 -1.816837,-1.177457 0.98907,-2.153273 0.311137,-3.771068 -0.143411,-0.06149 -0.439194,2.558382 -1.489046,2.09103 -1.280845,-2.149591 -0.980923,-4.881627 -2.466046,-6.947669 -0.530386,-1.140043 -1.920012,-1.592831 -2.41589,-2.684126 -0.06025,-0.983174 -2.120887,-2.228075 -2.373747,-1.674496 1.038134,-0.217737 2.941423,2.553378 1.091863,1.468752 -1.226065,-0.365961 -2.6932435,-0.831701 -3.9063156,-0.447267 0.6092559,0.420772 2.9744786,-0.138884 2.8027346,0.775392 -0.2493481,0.777609 -2.8944112,1.791228 -0.8066405,1.121093 0.9674155,-1.145091 2.0104805,-1.491429 3.2181155,-0.362168 1.293319,0.927729 2.698793,2.485138 2.752547,4.043809 -1.78853,0.571872 -3.24959,-1.024269 -4.230058,-2.295182 0.07582,0.777283 1.442035,2.127585 2.437836,2.576468 -0.0031,0.490502 -3.119651,-0.08971 -1.134863,0.471059 1.181782,0.324776 3.577399,-1.322436 3.42,0.819069 0.393026,1.684464 -2.473419,1.298469 -3.457765,0.883471 -1.009797,-0.213068 -2.342054,-1.561743 -2.8543643,-1.677771 1.5712263,1.73439 4.1010153,2.962055 6.4324963,2.088091 1.324994,1.73025 -1.727055,2.110292 -2.909931,1.873436 -0.649419,0.01222 -2.912257,-1.431187 -1.348215,-0.262566 0.775721,0.816598 3.650663,0.186707 2.017697,1.764417 -0.560567,0.40285 -0.941793,1.146215 -0.0129,0.413468 0.739791,-0.965736 1.772198,-2.372523 3.000127,-1.990722 0.502225,1.217201 2.146566,2.36198 0.33616,3.296506 -1.954165,2.001514 -3.99962,3.913279 -5.952083,5.915227 1.573836,0.414016 2.326584,-1.303538 3.382683,-2.109411 3.230848,-3.172089 6.449991,-6.356071 9.675911,-9.533167 3.921894,3.88614 7.858658,7.757238 11.789062,11.634765 0.677676,0.03951 1.802515,0.153625 0.67376,-0.605775 -2.152223,-2.096134 -4.287434,-4.20963 -6.427625,-6.318025 0.60826,-0.772179 1.065331,-1.65141 1.625,-2.449219 1.619569,0.10256 1.957785,1.611742 3.143674,2.365028 0.346181,-0.145929 -1.869332,-1.873692 -0.436643,-1.734166 0.834009,0.03314 2.618965,-0.70508 2.572832,-1.126431 -1.493699,1.025388 -3.684775,1.088698 -5.147641,-0.0048 -0.0365,-2.119805 2.196526,-0.215587 3.429958,-1.002807 0.916659,-0.241877 2.893596,-1.323503 2.856327,-1.834129 -1.595766,1.220518 -3.818177,2.257864 -5.762627,1.210363 -0.165404,-1.045723 0.09534,-2.366865 1.394591,-1.642968 1.556976,0.01354 2.907423,-1.069106 3.824529,-2.23399 -0.550682,0.06502 -2.580011,2.634631 -2.474125,0.923052 0.03862,-0.760822 1.270728,-2.420059 0.01514,-0.960161 -0.515871,0.905739 -0.198091,2.496034 -1.753606,1.816643 -1.439372,-0.625823 0.616614,-2.622704 1.19535,-3.437401 0.533048,-0.316351 1.304072,-1.637812 1.857081,-0.783544 0.568525,0.841206 2.650535,1.043581 2.941406,0.429688 -1.023641,0.71707 -4.124343,-0.999998 -1.897115,-1.427153 0.96431,-0.555911 2.633932,-0.253191 3.357926,-0.724518 -0.827077,-0.29799 -2.32537,0.342071 -2.763457,0.03663 0.274733,-0.746796 2.770765,-1.917719 0.762598,-1.114408 -1.112197,1.427686 -2.77826,1.899567 -4.201375,2.977399 -1.890133,1.507969 -2.588982,3.910147 -2.973546,6.195697 -0.145214,1.361086 -1.232572,3.557414 -2.073913,1.266341 -0.702916,-1.567928 -0.162359,1.267965 0.61896,1.401336 0.46374,0.638026 -0.944876,1.831956 -1.377876,0.58447 -1.401347,-1.336955 -2.770746,-2.706786 -4.153369,-4.06298 4.159659,-4.083751 8.314446,-8.172462 12.464844,-12.265625 -0.536166,0.08976 -1.246046,-0.242929 -1.590837,0.312225 -3.815899,3.770539 -7.616051,7.557617 -11.47557,11.283478 -3.996796,-3.817083 -7.903574,-7.727958 -11.851562,-11.595703 -0.208984,0 -0.417969,0 -0.626953,0 z m 15.673828,0.09961 C 26.452823,13.069858 24.686029,13.92957 24.790552,14.771786 25.911424,15.185202 26.955306,14.5732 28,14.230717 c -1.312387,0.0701 -3.043331,0.301926 -1.216535,-0.916884 0.178615,-0.203551 0.443185,-0.328135 0.60716,-0.5421 z m -6.787109,0.02149 c 0.461524,0.578016 2.602098,1.91746 0.637087,1.487866 -0.758955,-0.06602 -1.675986,-0.05967 -0.446224,0.271216 0.715307,0.521777 3.510686,0.623862 1.915871,-0.645515 -0.592953,-0.535907 -1.394173,-0.778337 -2.106734,-1.113567 z m 5.533203,2.347656 c -0.446774,0.111516 -1.279007,0.06411 -1.4887,0.273371 0.590322,0.999756 1.693817,1.455333 2.738775,1.835126 -0.551123,-0.582266 -2.537744,-1.842849 -0.660232,-1.487405 0.861128,0.120624 1.491649,0.01897 0.333985,-0.302734 -0.307943,-0.106119 -0.615885,-0.212239 -0.923828,-0.318358 z m -4.273438,0.0039 c -0.525413,0.206235 -2.615523,0.775449 -1.199219,0.658202 0.62528,-0.0013 2.240273,-0.324324 1.058594,0.429648 -0.530004,0.491511 -1.784995,1.517986 -0.462852,0.758872 0.865441,-0.326482 1.628755,-0.84643 2.11129,-1.647544 -0.502566,-0.06668 -1.005171,-0.133073 -1.507813,-0.199178 z m 1.828125,0.539063 c -1.02555,0.253447 -1.994286,2.51189 -1.727084,2.47385 0.518614,-0.525609 1.645857,-2.208 1.281295,-0.460001 -0.06481,0.684037 -0.156823,1.913297 0.235178,0.547075 0.209438,-0.600553 0.534397,-1.188851 0.316081,-1.836315 -0.03253,-0.241871 -0.05848,-0.484908 -0.10547,-0.724609 z m 0.583985,0 c -0.120374,0.728673 -0.31357,1.477605 0.07272,2.158278 0.22627,0.744771 0.583926,1.594185 0.408758,0.246443 -0.09576,-0.797695 -0.165471,-1.797038 0.577424,-0.677359 0.518874,0.557388 1.34465,1.538927 0.635971,0.329861 -0.371291,-0.857401 -0.810144,-1.635213 -1.694868,-2.057223 z m -15.0898441,5.74414 c -0.5325155,0.587745 -0.5795163,0.843421 -1.2302404,0.174342 -0.7859978,0.196077 -0.5063601,0.958989 -0.3498379,1.30808 -1.2362437,0.377268 -0.1471052,1.4964 0.6308593,1.06924 -0.2344418,1.192096 1.4800714,1.036911 1.1410167,-0.139804 1.2289084,0.507766 1.5061054,-1.299499 0.2429474,-1.116416 0.495353,-0.96305 0.089742,-0.882585 -0.4347451,-1.295442 z m 30.3203121,0.453125 c -1.261371,-0.104434 -1.264466,0.957538 -0.185547,0.964844 0.205788,-0.100939 0.493766,-0.881141 0.185547,-0.964844 z m 0.400391,0.03516 c -0.87476,0.900396 0.568738,1.475341 0.915743,0.757549 -0.284383,-0.272565 -0.54784,-0.597058 -0.915743,-0.757549 z m -31.3125,0.478515 c 0.1608961,0.453417 0.6919487,0.108918 0.4700582,0.578197 0.4094685,-0.124932 0.015014,0.273371 0.2203662,0.270918 -0.7053949,-0.25705 0.4445725,0.629123 -0.379882,0.04929 0.3087473,0.478316 -0.2377278,-0.03851 -0.1796834,0.304721 -0.2142651,-0.0963 -0.464875,-0.02501 -0.330428,-0.321781 -0.5047642,0.152526 -0.1710081,-0.525187 -0.00694,-0.507453 -0.07749,-0.522359 0.2566281,0.275352 0.2065046,-0.373892 z m 29.716797,0.123047 c -0.512708,0.512106 -0.379187,1.817139 0.613281,0.925781 0.279778,-0.444162 -0.33586,-0.715186 -0.613281,-0.925781 z m 2.617187,0.392578 c -1.16588,-0.117191 -1.051952,1.323173 -0.14639,1.175185 0.138034,-0.373066 0.182139,-0.779926 0.14639,-1.175185 z m -1.458984,0.210938 c -0.902569,0.743304 0.980538,0.452819 0,0 z m -20.949219,0.210937 c -0.792504,0.186513 0.06268,1.19888 -0.968203,0.940632 -0.636071,0.372573 0.126481,0.93298 0.451618,0.994793 -0.639787,0.901186 0.674875,1.084393 0.942437,0.300076 0.440278,0.972789 1.53301,-0.173904 0.570685,-0.665222 1.223664,-0.477235 0.06965,-1.437034 -0.490675,-0.898422 -0.03207,-0.278822 -0.203173,-0.61537 -0.505862,-0.671857 z m 10.859375,0.128907 c -1.412066,0.03838 0.806649,1.67711 0.634766,0.0625 -0.205398,-0.06744 -0.42226,-0.06017 -0.634766,-0.0625 z m -0.798828,0.185546 c -1.241054,0.58263 -0.03447,1.732173 0.438503,0.749827 -0.11727,-0.207718 -0.193959,-0.696708 -0.438503,-0.749827 z m 10.384766,0.002 c -1.869581,-0.150301 0.643179,2.203423 0.309365,0.413993 0.07811,-0.206952 -0.122638,-0.391916 -0.309365,-0.413993 z m -8.685547,0.01758 c -1.073387,0.609488 0.221126,1.628678 0.591389,0.994808 -0.139493,-0.334952 -0.265509,-0.799979 -0.591389,-0.994808 z m 9.498047,0.162109 c -1.001456,0.628512 -0.226285,1.462701 0.634222,0.676171 0.564757,-0.06563 -0.51002,-0.6725 -0.634222,-0.676171 z m -21.148438,0.458984 c 0.276289,0.204599 0.687165,0.08292 0.482424,0.552693 0.147945,0.294297 -0.334278,0.358127 -0.420055,0.489454 -0.216762,-0.275709 -0.464958,-0.251984 -0.42953,-0.635942 0.178103,-0.274018 0.328829,-0.212721 0.367161,-0.406205 z m 10.785156,0.320313 c -1.066183,0.624806 1.006939,0.568834 0,0 z m -1.52539,0.289062 c 0.0376,1.20295 1.343476,1.292325 0.930299,0.06548 -0.304659,-0.06173 -0.621071,-0.04266 -0.930299,-0.06548 z m 2.501953,0.07617 c -1.306319,-0.125456 0.07394,1.964457 0.34916,0.416935 0.276438,-0.38667 0.05287,-0.467746 -0.34916,-0.416935 z m -1.003906,0.41211 c -1.355084,0.535453 0.0462,1.300797 0.590279,0.730714 -0.175538,-0.238404 -0.24985,-0.699175 -0.590279,-0.730714 z M 12.417969,29.096 c -0.503388,0.847689 -0.611838,0.520214 -1.361328,0.136721 -0.237505,0.464725 -0.76689,0.70697 -0.07422,1.287109 -1.2077233,0.12393 -0.556334,1.680957 0.500044,1.099514 -0.224906,1.314 1.437206,0.983563 1.242589,-0.143522 1.066341,0.503759 1.512371,-1.233445 0.247043,-1.07808 -0.05995,-0.277693 0.368963,-1.328327 -0.440845,-1.165014 l -0.05109,-0.09671 -0.0622,-0.04001 z M 36.4375,29.50806 c -1.672789,-0.09319 0.11538,1.494853 0.169922,0 h -0.08877 z m 0.316406,0.05859 c -0.926805,1.158853 1.570033,1.067861 0.201167,0.144531 -0.06706,-0.04818 -0.134111,-0.09635 -0.201167,-0.144531 z m -1.335937,0.283203 c -0.732382,0.721211 0.09526,1.491222 0.454347,0.512775 -0.122022,-0.196559 -0.297653,-0.346486 -0.454347,-0.512775 z m -23.28125,0.289063 c 0.0087,0.387634 0.378704,0.07981 0.367188,0.472654 0.386407,0.0061 -0.583102,0.167173 0.12552,0.303142 -0.626575,-0.09742 0.09467,0.363687 -0.432163,0.288661 -0.221022,0.449985 -0.321981,-0.276612 -0.634771,0.07227 -0.04608,-0.417642 -0.09348,-0.40584 -0.07514,-0.628011 -0.07104,-0.139807 0.315474,-0.461351 0.386689,-0.297721 -0.125652,-0.544488 0.04366,0.219257 0.262679,-0.210993 z m -0.650391,0.21875 c 0.362477,0.04577 -0.131758,0.224904 0,0 z m 24.785156,0.138672 c -0.59507,0.432444 0.656219,0.41896 0,0 z m 1.183594,0.05469 c -1.411204,-0.294 -0.146804,1.851278 0.01039,0.283901 l 0.0443,-0.205771 z m -1.585937,0.345703 c -1.62459,-0.324323 0.460572,1.795865 0.121097,0.107427 l -0.0502,-0.07162 -0.07089,-0.03581 z m 0.58789,0.189454 c -1.14169,0.600879 0.248212,1.078412 0.523394,0.484424 -0.160241,-0.172891 -0.282941,-0.411025 -0.523394,-0.484424 z m -12.302734,1.904696 c -2.922937,-0.180551 -5.584973,2.626124 -5.114262,5.543015 0.06732,0.807985 0.262104,1.31125 0.520733,0.295945 1.362534,-3.021203 5.903306,-3.655907 8.065761,-1.155193 0.736487,0.466003 1.198838,2.928029 1.336386,0.873685 0.422462,-2.82007 -1.964718,-5.547154 -4.808618,-5.557452 z"/>
 <path style="fill:#8b9cbe" d="m 23.160156,10 c -0.0546,0.67098 0.263834,1.898036 -0.0023,2.196978 -0.54789,-0.518193 -1.969028,-2.339824 -1.096116,-0.755832 0.254327,0.966383 1.925703,2.950603 1.775841,0.903624 0.118641,-0.743117 -0.421464,-1.408373 -0.593334,-2.117472 -0.02803,-0.07577 -0.05607,-0.151532 -0.0841,-0.227298 z m 1.607422,0.105469 c -0.25729,0.805059 -0.853181,1.613482 -0.60547,2.492187 0.142811,1.869604 1.745602,-0.891245 1.937488,-1.638084 0.177255,-0.808358 -1.857425,2.600554 -1.390861,0.445566 0.0039,-0.433935 0.08513,-0.865641 0.05884,-1.299669 z m -13.050781,1.566406 c -0.975496,-0.177883 -0.339401,0.301429 0.06691,0.687037 3.924166,3.861649 7.839954,7.731905 11.778794,11.578588 -1.632095,1.593827 -3.244463,3.20834 -4.902344,4.775391 -1.816837,-1.177457 0.98907,-2.153273 0.311137,-3.771068 -0.143411,-0.06149 -0.439194,2.558382 -1.489046,2.09103 -1.280845,-2.149591 -0.980923,-4.881627 -2.466046,-6.947669 -0.530386,-1.140043 -1.920012,-1.592831 -2.41589,-2.684126 -0.06025,-0.983174 -2.120887,-2.228075 -2.373747,-1.674496 1.038134,-0.217737 2.941423,2.553378 1.091863,1.468752 -1.226065,-0.365961 -2.6932435,-0.831701 -3.9063156,-0.447267 0.6092559,0.420772 2.9744786,-0.138884 2.8027346,0.775392 -0.2493481,0.777609 -2.8944112,1.791228 -0.8066405,1.121093 0.9674155,-1.145091 2.0104805,-1.491429 3.2181155,-0.362168 1.293319,0.927729 2.698793,2.485138 2.752547,4.043809 -1.78853,0.571872 -3.24959,-1.024269 -4.230058,-2.295182 0.07582,0.777283 1.442035,2.127585 2.437836,2.576468 -0.0031,0.490502 -3.119651,-0.08971 -1.134863,0.471059 1.181782,0.324776 3.577399,-1.322436 3.42,0.819069 0.393026,1.684464 -2.473419,1.298469 -3.457765,0.883471 -1.009797,-0.213068 -2.342054,-1.561743 -2.8543643,-1.677771 1.5712263,1.73439 4.1010153,2.962055 6.4324963,2.088091 1.324994,1.73025 -1.727055,2.110292 -2.909931,1.873436 -0.649419,0.01222 -2.912257,-1.431187 -1.348215,-0.262566 0.775721,0.816598 3.650663,0.186707 2.017697,1.764417 -0.560567,0.40285 -0.941793,1.146215 -0.0129,0.413468 0.739791,-0.965736 1.772198,-2.372523 3.000127,-1.990722 0.502225,1.217201 2.146566,2.36198 0.33616,3.296506 -1.954165,2.001514 -3.99962,3.913279 -5.952083,5.915227 1.573836,0.414016 2.326584,-1.303538 3.382683,-2.109411 3.230848,-3.172089 6.449991,-6.356071 9.675911,-9.533167 3.921894,3.88614 7.858658,7.757238 11.789062,11.634765 0.677676,0.03951 1.802515,0.153625 0.67376,-0.605775 -2.152223,-2.096134 -4.287434,-4.20963 -6.427625,-6.318025 0.60826,-0.772179 1.065331,-1.65141 1.625,-2.449219 1.619569,0.10256 1.957785,1.611742 3.143674,2.365028 0.346181,-0.145929 -1.869332,-1.873692 -0.436643,-1.734166 0.834009,0.03314 2.618965,-0.70508 2.572832,-1.126431 -1.493699,1.025388 -3.684775,1.088698 -5.147641,-0.0048 -0.0365,-2.119805 2.196526,-0.215587 3.429958,-1.002807 0.916659,-0.241877 2.893596,-1.323503 2.856327,-1.834129 -1.595766,1.220518 -3.818177,2.257864 -5.762627,1.210363 -0.165404,-1.045723 0.09534,-2.366865 1.394591,-1.642968 1.556976,0.01354 2.907423,-1.069106 3.824529,-2.23399 -0.550682,0.06502 -2.580011,2.634631 -2.474125,0.923052 0.03862,-0.760822 1.270728,-2.420059 0.01514,-0.960161 -0.515871,0.905739 -0.198091,2.496034 -1.753606,1.816643 -1.439372,-0.625823 0.616614,-2.622704 1.19535,-3.437401 0.533048,-0.316351 1.304072,-1.637812 1.857081,-0.783544 0.568525,0.841206 2.650535,1.043581 2.941406,0.429688 -1.023641,0.71707 -4.124343,-0.999998 -1.897115,-1.427153 0.96431,-0.555911 2.633932,-0.253191 3.357926,-0.724518 -0.827077,-0.29799 -2.32537,0.342071 -2.763457,0.03663 0.274733,-0.746796 2.770765,-1.917719 0.762598,-1.114408 -1.112197,1.427686 -2.77826,1.899567 -4.201375,2.977399 -1.890133,1.507969 -2.588982,3.910147 -2.973546,6.195697 -0.145214,1.361086 -1.232572,3.557414 -2.073913,1.266341 -0.702916,-1.567928 -0.162359,1.267965 0.61896,1.401336 0.46374,0.638026 -0.944876,1.831956 -1.377876,0.58447 -1.401347,-1.336955 -2.770746,-2.706786 -4.153369,-4.06298 4.159659,-4.083751 8.314446,-8.172462 12.464844,-12.265625 -0.536166,0.08976 -1.246046,-0.242929 -1.590837,0.312225 -3.815899,3.770539 -7.616051,7.557617 -11.47557,11.283478 -3.996796,-3.817083 -7.903574,-7.727958 -11.851562,-11.595703 -0.208984,0 -0.417969,0 -0.626953,0 z m 15.673828,0.09961 c -0.937802,0.298125 -2.704596,1.157837 -2.600073,2.000053 1.120872,0.413416 2.164754,-0.198586 3.209448,-0.541069 -1.312387,0.0701 -3.043331,0.301926 -1.216535,-0.916884 0.178615,-0.203551 0.443185,-0.328135 0.60716,-0.5421 z m -6.787109,0.02149 c 0.461524,0.578016 2.602098,1.91746 0.637087,1.487866 -0.758955,-0.06602 -1.675986,-0.05967 -0.446224,0.271216 0.715307,0.521777 3.510686,0.623862 1.915871,-0.645515 -0.592953,-0.535907 -1.394173,-0.778337 -2.106734,-1.113567 z m 5.533203,2.347656 c -0.446774,0.111516 -1.279007,0.06411 -1.4887,0.273371 0.590322,0.999756 1.693817,1.455333 2.738775,1.835126 -0.551123,-0.582266 -2.537744,-1.842849 -0.660232,-1.487405 0.861128,0.120624 1.491649,0.01897 0.333985,-0.302734 -0.307943,-0.106119 -0.615885,-0.212239 -0.923828,-0.318358 z m -4.273438,0.0039 c -0.525413,0.206235 -2.615523,0.775449 -1.199219,0.658202 0.62528,-0.0013 2.240273,-0.324324 1.058594,0.429648 -0.530004,0.491511 -1.784995,1.517986 -0.462852,0.758872 0.865441,-0.326482 1.628755,-0.84643 2.11129,-1.647544 -0.502566,-0.06668 -1.005171,-0.133073 -1.507813,-0.199178 z m 1.828125,0.539063 c -1.02555,0.253447 -1.994286,2.51189 -1.727084,2.47385 0.518614,-0.525609 1.645857,-2.208 1.281295,-0.460001 -0.06481,0.684037 -0.156823,1.913297 0.235178,0.547075 0.209438,-0.600553 0.534397,-1.188851 0.316081,-1.836315 -0.03253,-0.241871 -0.05848,-0.484908 -0.10547,-0.724609 z m 0.583985,0 c -0.120374,0.728673 -0.31357,1.477605 0.07272,2.158278 0.22627,0.744771 0.583926,1.594185 0.408758,0.246443 -0.09576,-0.797695 -0.165471,-1.797038 0.577424,-0.677359 0.518874,0.557388 1.34465,1.538927 0.635971,0.329861 -0.371291,-0.857401 -0.810144,-1.635213 -1.694868,-2.057223 z m -15.0898441,5.74414 c -0.5325155,0.587745 -0.5795163,0.843421 -1.2302404,0.174342 -0.7859978,0.196077 -0.5063601,0.958989 -0.3498379,1.30808 -1.2362437,0.377268 -0.1471052,1.4964 0.6308593,1.06924 -0.2344418,1.192096 1.4800714,1.036911 1.1410167,-0.139804 1.2289084,0.507766 1.5061054,-1.299499 0.2429474,-1.116416 0.495353,-0.96305 0.089742,-0.882585 -0.4347451,-1.295442 z m 30.3203121,0.453125 c -1.261371,-0.104434 -1.264466,0.957538 -0.185547,0.964844 0.205788,-0.100939 0.493766,-0.881141 0.185547,-0.964844 z m 0.400391,0.03516 c -0.87476,0.900396 0.568738,1.475341 0.915743,0.757549 -0.284383,-0.272565 -0.54784,-0.597058 -0.915743,-0.757549 z m -31.3125,0.478515 c 0.1608961,0.453417 0.6919487,0.108918 0.4700582,0.578197 0.4094685,-0.124932 0.015014,0.273371 0.2203662,0.270918 -0.7053949,-0.25705 0.4445725,0.629123 -0.379882,0.04929 0.3087473,0.478316 -0.2377278,-0.03851 -0.1796834,0.304721 -0.2142651,-0.0963 -0.464875,-0.02501 -0.330428,-0.321781 -0.5047642,0.152526 -0.1710081,-0.525187 -0.00694,-0.507453 -0.07749,-0.522359 0.2566281,0.275352 0.2065046,-0.373892 z m 29.716797,0.123047 c -0.512708,0.512106 -0.379187,1.817139 0.613281,0.925781 0.279778,-0.444162 -0.33586,-0.715186 -0.613281,-0.925781 z m 2.617187,0.392578 c -1.16588,-0.117191 -1.051952,1.323173 -0.14639,1.175185 0.138034,-0.373066 0.182139,-0.779926 0.14639,-1.175185 z m -1.458984,0.210938 c -0.902569,0.743304 0.980538,0.452819 0,0 z m -20.949219,0.210937 c -0.792504,0.186513 0.06268,1.19888 -0.968203,0.940632 -0.636071,0.372573 0.126481,0.93298 0.451618,0.994793 -0.639787,0.901186 0.674875,1.084393 0.942437,0.300076 0.440278,0.972789 1.53301,-0.173904 0.570685,-0.665222 1.223664,-0.477235 0.06965,-1.437034 -0.490675,-0.898422 -0.03207,-0.278822 -0.203173,-0.61537 -0.505862,-0.671857 z m 10.859375,0.128907 c -1.412066,0.03838 0.806649,1.67711 0.634766,0.0625 -0.205398,-0.06744 -0.42226,-0.06017 -0.634766,-0.0625 z m -0.798828,0.185546 c -1.241054,0.58263 -0.03447,1.732173 0.438503,0.749827 -0.11727,-0.207718 -0.193959,-0.696708 -0.438503,-0.749827 z m 10.384766,0.002 c -1.869581,-0.150301 0.643179,2.203423 0.309365,0.413993 0.07811,-0.206952 -0.122638,-0.391916 -0.309365,-0.413993 z m -8.685547,0.01758 c -1.073387,0.609488 0.221126,1.628678 0.591389,0.994808 -0.139493,-0.334952 -0.265509,-0.799979 -0.591389,-0.994808 z m 9.498047,0.162109 c -1.001456,0.628512 -0.226285,1.462701 0.634222,0.676171 0.564757,-0.06563 -0.51002,-0.6725 -0.634222,-0.676171 z M 18.628906,23.28716 c 0.276289,0.204599 0.687165,0.08292 0.482424,0.552693 0.147945,0.294297 -0.334278,0.358127 -0.420055,0.489454 -0.216762,-0.275709 -0.464958,-0.251984 -0.42953,-0.635942 0.178103,-0.274018 0.328829,-0.212721 0.367161,-0.406205 z m 10.785156,0.320313 c -1.066183,0.624806 1.006939,0.568834 0,0 z m -1.52539,0.289062 c 0.0376,1.20295 1.343476,1.292325 0.930299,0.06548 -0.304659,-0.06173 -0.621071,-0.04266 -0.930299,-0.06548 z m 2.501953,0.07617 c -1.306319,-0.125456 0.07394,1.964457 0.34916,0.416935 0.276438,-0.38667 0.05287,-0.467746 -0.34916,-0.416935 z m -1.003906,0.41211 c -1.355084,0.535453 0.0462,1.300797 0.590279,0.730714 -0.175538,-0.238404 -0.24985,-0.699175 -0.590279,-0.730714 z m -16.96875,3.710937 c -0.503388,0.847689 -0.611838,0.520214 -1.361328,0.136721 -0.237505,0.464725 -0.76689,0.70697 -0.07422,1.287109 -1.2077233,0.12393 -0.556334,1.680957 0.500044,1.099514 -0.224906,1.314 1.437206,0.983563 1.242589,-0.143522 1.066341,0.503759 1.512371,-1.233445 0.247043,-1.07808 -0.05995,-0.277693 0.368963,-1.328327 -0.440845,-1.165014 l -0.05109,-0.09671 -0.0622,-0.04001 z m 24.019531,0.41206 c -1.672789,-0.09319 0.11538,1.494853 0.169922,0 h -0.08877 z m 0.316406,0.05859 c -0.926805,1.158853 1.570033,1.067861 0.201167,0.144531 -0.06706,-0.04818 -0.134111,-0.09635 -0.201167,-0.144531 z m -1.335937,0.283203 c -0.732382,0.721211 0.09526,1.491222 0.454347,0.512775 -0.122022,-0.196559 -0.297653,-0.346486 -0.454347,-0.512775 z m -23.28125,0.289063 c 0.0087,0.387634 0.378704,0.07981 0.367188,0.472654 0.386407,0.0061 -0.583102,0.167173 0.12552,0.303142 -0.626575,-0.09742 0.09467,0.363687 -0.432163,0.288661 -0.221022,0.449985 -0.321981,-0.276612 -0.634771,0.07227 -0.04608,-0.417642 -0.09348,-0.40584 -0.07514,-0.628011 -0.07104,-0.139807 0.315474,-0.461351 0.386689,-0.297721 -0.125652,-0.544488 0.04366,0.219257 0.262679,-0.210993 z m -0.650391,0.21875 c 0.362477,0.04577 -0.131758,0.224904 0,0 z m 24.785156,0.138672 c -0.59507,0.432444 0.656219,0.41896 0,0 z m 1.183594,0.05469 c -1.411204,-0.294 -0.146804,1.851278 0.01039,0.283901 l 0.0443,-0.205771 -0.05469,-0.07813 z m -1.585937,0.345703 c -1.62459,-0.324323 0.460572,1.795865 0.121097,0.107427 l -0.0502,-0.07162 -0.07089,-0.03581 z m 0.58789,0.189454 c -1.14169,0.600879 0.248212,1.078412 0.523394,0.484424 -0.160241,-0.172891 -0.282941,-0.411025 -0.523394,-0.484424 z m -12.302734,1.904696 c -2.922937,-0.180551 -5.584973,2.626124 -5.114262,5.543015 0.06732,0.807985 0.262104,1.31125 0.520733,0.295945 1.362534,-3.021203 5.903306,-3.655907 8.065761,-1.155193 0.736487,0.466003 1.198838,2.928029 1.336386,0.873685 0.422462,-2.82007 -1.964718,-5.547154 -4.808618,-5.557452 z"/>
</svg>
