<svg xmlns="http://www.w3.org/2000/svg" width="48" height="48" version="1.1">
 <path style="opacity:0.2" d="M 24,5 A 18,17 0 0 0 6,22 18,17 0 0 0 23.765625,38.988281 c 0.17898,0.0086 0.239564,0.0583 0.238281,0.25 -0.0096,1.7471 -0.0044,3.795569 -0.0039,5.542969 2.28e-4,0.06782 0.0057,0.13441 0.0098,0.21875 0.0593,-0.02304 0.097,-0.03665 0.132812,-0.05273 3.4431,-1.5417 6.603375,-3.489641 9.421875,-5.931641 0.56082,-0.48579 1.097181,-0.995231 1.613281,-1.525391 0.221,-0.2267 0.44066,-0.457113 0.66211,-0.683593 0.3421,-0.34864 0.638447,-0.738309 0.960937,-1.105469 0.37243,-0.42341 0.70729,-0.873222 1.03711,-1.326172 0.72913,-1.0011 1.380434,-2.045138 1.927734,-3.148438 0.27687,-0.557739 0.540128,-1.119912 0.773437,-1.695312 0.0078,-0.01087 0.01843,-0.01951 0.02344,-0.03125 0.63585,-1.5754 1.042866,-3.206406 1.259766,-4.878906 0.03651,-0.280901 0.0511,-0.563548 0.07617,-0.845703 a 18,17 0 0 0 0.01953,-0.232422 c 0.0178,-0.225602 0.04859,-0.450062 0.06055,-0.675781 0.01414,-0.269715 0.01732,-0.539588 0.01758,-0.808594 A 18,17 0 0 0 42,22 18,17 0 0 0 41.998,21.9707 c -0.0015,-0.330645 -0.01258,-0.660877 -0.03516,-0.990234 -3.59e-4,-0.0052 -0.0016,-0.01039 -0.002,-0.01563 A 18,17 0 0 0 41.91201,20.466789 C 41.8839,20.191548 41.84946,19.916687 41.806542,19.64257 A 18,17 0 0 0 24,5 Z"/>
 <path style="fill:#16a05d" d="M 24,4 A 18,17 0 0 0 6,21 18,17 0 0 0 23.765625,37.988281 c 0.17898,0.0086 0.239564,0.0583 0.238281,0.25 -0.0096,1.7471 -0.0044,3.795569 -0.0039,5.542969 2.28e-4,0.06782 0.0057,0.13441 0.0098,0.21875 0.0593,-0.02304 0.097,-0.03665 0.132812,-0.05273 3.4431,-1.5417 6.603375,-3.489641 9.421875,-5.931641 0.56082,-0.48579 1.097181,-0.995231 1.613281,-1.525391 0.221,-0.2267 0.44066,-0.457113 0.66211,-0.683593 0.3421,-0.34864 0.638447,-0.738309 0.960937,-1.105469 0.37243,-0.42341 0.70729,-0.873222 1.03711,-1.326172 0.72913,-1.0011 1.380434,-2.045138 1.927734,-3.148438 0.27687,-0.557739 0.540128,-1.119912 0.773437,-1.695312 0.0078,-0.01087 0.01843,-0.01951 0.02344,-0.03125 0.63585,-1.5754 1.042866,-3.206406 1.259766,-4.878906 0.03651,-0.280901 0.0511,-0.563548 0.07617,-0.845703 a 18,17 0 0 0 0.01953,-0.232422 c 0.0178,-0.225602 0.04859,-0.450062 0.06055,-0.675781 0.01414,-0.269715 0.01732,-0.539588 0.01758,-0.808594 A 18,17 0 0 0 42,21 18,17 0 0 0 41.998,20.9707 c -0.0015,-0.330645 -0.01258,-0.660877 -0.03516,-0.990234 -3.59e-4,-0.0052 -0.0016,-0.01039 -0.002,-0.01563 A 18,17 0 0 0 41.91201,19.466789 C 41.8839,19.191548 41.84946,18.916687 41.806542,18.64257 A 18,17 0 0 0 24,4 Z"/>
 <path style="opacity:0.2" d="m 21.125,16.000341 c -2.0819,0.0025 -4.162441,7.53e-4 -6.244141,0.002 -0.15819,0 -0.307842,0.03503 -0.445312,0.123047 -0.35393,0.22515 -0.469165,0.557521 -0.427735,0.962891 0.0013,0.02086 0.0039,0.04165 0.0039,0.0625 -0.0014,2.1662 -0.0052,3.683609 -0.0059,5.849609 0,0.55014 0.36864,0.986994 0.90625,0.996094 0.14339,0.0025 0.286528,-2.32e-4 0.429688,0 1.3169,0.0026 2.632719,0.005 3.949219,0.0078 -0.1047,0.6079 -0.335116,1.737119 -0.791016,2.167969 -0.37988,0.3588 -0.51201,0.519082 -1,0.632813 -0.38489,0.08941 -0.499545,0.222079 -0.5,0.537109 -2e-4,0.0901 0.0041,0.180914 0.0059,0.271484 -0.0038,0.41004 -0.0078,0.820239 -0.01172,1.230469 0.0018,0.22909 0.0027,0.456687 0.0059,0.685547 0.0039,0.32661 -0.08473,0.510611 0.234375,0.462891 0.41837,-0.06208 0.826822,-0.158651 1.232422,-0.275391 0.01503,-0.0086 0.0299,-0.01659 0.04492,-0.02539 0.02709,-0.0079 0.0539,-0.01634 0.08008,-0.02344 0.04779,-0.02456 0.0956,-0.05291 0.144531,-0.07422 1.941,-0.8216 3.257966,-2.822237 3.259766,-4.960938 0.0021,-2.3942 0,-4.78764 0,-7.18164 L 22,16.859716 c -0.01008,-0.458514 -0.409044,-0.859959 -0.875,-0.859375 z m 12,0 c -2.0819,0.0025 -4.162441,7.53e-4 -6.244141,0.002 -0.15819,0 -0.307842,0.03503 -0.445312,0.123047 -0.35393,0.22515 -0.469164,0.557521 -0.427735,0.962891 0.0013,0.02086 0.0039,0.04165 0.0039,0.0625 -0.0014,2.1662 -0.0052,3.683609 -0.0059,5.849609 0,0.55014 0.36864,0.986994 0.90625,0.996094 0.14339,0.0025 0.286528,-2.32e-4 0.429688,0 1.3169,0.0026 2.632719,0.005 3.949219,0.0078 -0.1047,0.6079 -0.335116,1.737119 -0.791016,2.167969 -0.37988,0.3588 -0.51201,0.519082 -1,0.632813 -0.38489,0.08941 -0.499545,0.222079 -0.5,0.537109 -2e-4,0.0901 0.0041,0.180914 0.0059,0.271484 -0.0038,0.41004 -0.0078,0.820239 -0.01172,1.230469 0.0018,0.22909 0.0027,0.456687 0.0059,0.685547 0.0039,0.32661 -0.08473,0.510611 0.234375,0.462891 0.41837,-0.06208 0.826822,-0.158651 1.232422,-0.275391 0.01503,-0.0086 0.0299,-0.01659 0.04492,-0.02539 0.02709,-0.0079 0.0539,-0.01634 0.08008,-0.02344 0.04779,-0.02456 0.0956,-0.05291 0.144531,-0.07422 1.941,-0.8216 3.257966,-2.822237 3.259766,-4.960938 0.0021,-2.3942 0,-4.78764 0,-7.18164 L 34,16.877294 c -3.2e-5,-0.465838 -0.403046,-0.877545 -0.875,-0.876953 z"/>
 <path style="fill:#8b9cbe" d="M 21.125 15 C 19.0431 15.002495 16.962559 15.000753 14.880859 15.001953 C 14.722669 15.001953 14.573017 15.03698 14.435547 15.125 C 14.081617 15.35015 13.966382 15.682521 14.007812 16.087891 C 14.009113 16.108751 14.011719 16.129541 14.011719 16.150391 C 14.010319 18.316591 14.006543 19.834 14.005859 22 C 14.005859 22.55014 14.374499 22.986994 14.912109 22.996094 C 15.055499 22.998589 15.198637 22.995862 15.341797 22.996094 C 16.658697 22.998694 17.974516 23.001106 19.291016 23.003906 C 19.186316 23.611806 18.9559 24.741025 18.5 25.171875 C 18.12012 25.530675 17.98799 25.690957 17.5 25.804688 C 17.11511 25.894097 17.000455 26.026767 17 26.341797 C 16.9998 26.431897 17.004059 26.522711 17.005859 26.613281 C 17.002049 27.023321 16.998041 27.43352 16.994141 27.84375 C 16.995941 28.07284 16.9968 28.300437 17 28.529297 C 17.00387 28.855907 16.915265 29.039908 17.234375 28.992188 C 17.652745 28.930108 18.061197 28.833537 18.466797 28.716797 C 18.481827 28.708237 18.496699 28.700206 18.511719 28.691406 C 18.538809 28.683526 18.565617 28.675069 18.591797 28.667969 C 18.639587 28.643409 18.687398 28.61506 18.736328 28.59375 C 20.677328 27.77215 21.994294 25.771513 21.996094 23.632812 C 21.998178 21.238612 21.996094 18.845172 21.996094 16.451172 L 22 15.859375 C 21.989917 15.400861 21.590956 14.999416 21.125 15 z M 33.125 15 C 31.0431 15.002495 28.962559 15.000753 26.880859 15.001953 C 26.722669 15.001953 26.573017 15.03698 26.435547 15.125 C 26.081617 15.35015 25.966383 15.682521 26.007812 16.087891 C 26.009113 16.108751 26.011719 16.129541 26.011719 16.150391 C 26.010319 18.316591 26.006543 19.834 26.005859 22 C 26.005859 22.55014 26.374499 22.986994 26.912109 22.996094 C 27.055499 22.998589 27.198637 22.995862 27.341797 22.996094 C 28.658697 22.998694 29.974516 23.001106 31.291016 23.003906 C 31.186316 23.611806 30.9559 24.741025 30.5 25.171875 C 30.12012 25.530675 29.98799 25.690957 29.5 25.804688 C 29.11511 25.894097 29.000455 26.026767 29 26.341797 C 28.9998 26.431897 29.004059 26.522711 29.005859 26.613281 C 29.002049 27.023321 28.998041 27.43352 28.994141 27.84375 C 28.995941 28.07284 28.9968 28.300437 29 28.529297 C 29.00387 28.855907 28.915265 29.039908 29.234375 28.992188 C 29.652745 28.930108 30.061197 28.833537 30.466797 28.716797 C 30.481827 28.708237 30.496699 28.700206 30.511719 28.691406 C 30.538809 28.683526 30.565617 28.675069 30.591797 28.667969 C 30.639587 28.643409 30.687398 28.61506 30.736328 28.59375 C 32.677328 27.77215 33.994294 25.771513 33.996094 23.632812 C 33.998178 21.238612 33.996094 18.845172 33.996094 16.451172 L 34 15.876953 C 33.999968 15.411115 33.596954 14.999408 33.125 15 z"/>
 <path style="fill:#8b9cbe;opacity:0.2" d="M 24 4 A 18 17 0 0 0 6 21 A 18 17 0 0 0 6.0214844 21.408203 A 18 17 0 0 1 24 5 A 18 17 0 0 1 41.806641 19.642578 C 41.849559 19.916695 41.883999 20.191556 41.912109 20.466797 A 18 17 0 0 1 41.960938 20.964844 C 41.961337 20.970084 41.962532 20.975269 41.962891 20.980469 C 41.976786 21.183148 41.978742 21.386609 41.984375 21.589844 C 41.989347 21.412646 41.995923 21.235333 41.996094 21.058594 A 18 17 0 0 0 42 21 A 18 17 0 0 0 41.998047 20.970703 C 41.996547 20.640058 41.985471 20.309826 41.962891 19.980469 C 41.962532 19.975269 41.961337 19.970084 41.960938 19.964844 A 18 17 0 0 0 41.912109 19.466797 C 41.883999 19.191556 41.849559 18.916695 41.806641 18.642578 A 18 17 0 0 0 24 4 z"/>
</svg>
