<svg xmlns="http://www.w3.org/2000/svg" width="48" height="48" version="1">
 <rect style="opacity:0.2" width="40" height="40" x="4" y="5" rx="12" ry="12"/>
 <rect style="fill:#b2bfd9" width="40" height="40" x="4" y="4" rx="12" ry="12"/>
 <path style="fill:#8b9cbe;opacity:0.2" d="M 16 4 C 9.352 4 4 9.352 4 16 L 4 17 C 4 10.352 9.352 5 16 5 L 32 5 C 38.648 5 44 10.352 44 17 L 44 16 C 44 9.352 38.648 4 32 4 L 16 4 z"/>
 <path style="opacity:0.1;fill-rule:evenodd" d="M 32.521484,8.9999218 A 0.52947832,0.52947832 0 0 0 32,9.5292184 V 10.999921 H 16 c 0,0 -1.417503,-0.02758 -2.894531,0.710938 C 11.628441,12.449371 10,14.333254 10,16.999921 v 15 h 4 v -15 c 0,-1.333333 0.371559,-1.44945 0.894531,-1.710938 C 15.417503,15.027498 16,14.999921 16,14.999921 h 17 4.470703 a 0.52947832,0.52947832 0 0 0 0.375,-0.904297 L 32.904297,9.1542184 A 0.52947832,0.52947832 0 0 0 32.521484,8.9999218 Z M 34,16.999921 v 15 c 0,1.333333 -0.371559,1.449451 -0.894531,1.710938 C 32.582497,33.972344 32,33.999921 32,33.999921 H 15.470703 10.529297 a 0.52947832,0.52947832 0 0 0 -0.375,0.904297 l 4.941406,4.941406 A 0.52947832,0.52947832 0 0 0 15.478516,39.999921 0.52947832,0.52947832 0 0 0 16,39.470624 v -1.470703 h 16 c 0,0 1.417503,0.02758 2.894531,-0.710938 C 36.371559,36.55047 38,34.666588 38,31.999921 v -15 z m -14,4 c -1.108,0 -2,0.892 -2,2 v 2 c 0,1.108 0.892,2 2,2 1.108,0 2,-0.892 2,-2 v -2 c 0,-1.108 -0.892,-2 -2,-2 z m 8,0 c -1.108,0 -2,0.892 -2,2 v 2 c 0,1.108 0.892,2 2,2 1.108,0 2,-0.892 2,-2 v -2 c 0,-1.108 -0.892,-2 -2,-2 z"/>
 <path style="fill:none;stroke:#ff2d55;stroke-width:4" d="M 12,31 V 16 c 0,-4 4,-4 4,-4 h 17"/>
 <path style="fill:#ff2d55" d="M 32.521842,7.9998453 A 0.52947832,0.52947832 0 0 0 32,8.5292714 V 13.470575 A 0.52947832,0.52947832 0 0 0 32.529425,14 h 4.941304 a 0.52947832,0.52947832 0 0 0 0.37432,-0.903746 L 32.903746,8.1549508 A 0.52947832,0.52947832 0 0 0 32.521842,7.9998453 Z"/>
 <path style="fill:none;stroke:#ff2d55;stroke-width:4" d="m 36,15.999793 v 15 c 0,4 -4,4 -4,4 H 15"/>
 <path style="fill:#ff2d55" d="M 15.478158,38.999948 A 0.52947832,0.52947832 0 0 0 16,38.470522 v -4.941304 a 0.52947832,0.52947832 0 0 0 -0.529425,-0.529425 h -4.941304 a 0.52947832,0.52947832 0 0 0 -0.37432,0.903746 l 4.941303,4.941304 a 0.52947832,0.52947832 0 0 0 0.381904,0.155105 z"/>
 <rect style="fill:#ff2d55" width="4" height="6" x="18" y="20" ry="2"/>
 <rect style="fill:#ff2d55" width="4" height="6" x="26" y="20" ry="2"/>
</svg>
