<svg xmlns="http://www.w3.org/2000/svg" width="48" height="48" version="1">
 <path style="opacity:0.2" d="m 3,39 v 2 c 0,1.108 0.892,2 2,2 h 12 14 12 c 1.108,0 2,-0.892 2,-2 V 39 H 31 17 Z"/>
 <rect style="fill:#17191e" width="41" height="35.143" x="3.5" y="6.43" rx="1.952" ry="1.952"/>
 <path style="opacity:0.2" d="m 12.062827,36.830988 c 0.948587,-1.287606 1.240675,-1.743288 1.660106,-2.589909 0.885901,-1.788176 1.183526,-3.072208 1.184632,-5.110784 7.6e-4,-1.649776 -0.124893,-2.451314 -0.596216,-3.799167 -0.147876,-0.422882 -0.292861,-0.840114 -0.322185,-0.927176 -0.03197,-0.0949 -0.0078,-0.158298 0.06057,-0.158298 0.142736,0 4.558385,2.313185 4.822379,2.526254 0.178592,0.144141 0.19752,0.264379 0.237163,1.506272 0.03808,1.192798 -0.04027,2.46561 -0.221136,3.59302 -0.10448,0.651254 0.132521,0.287286 0.418295,-0.642388 0.516479,-1.68021 0.595249,-2.249479 0.590733,-4.26947 -0.0047,-2.091645 -0.135263,-2.920965 -0.726584,-4.614239 -0.177476,-0.508214 -0.300189,-0.946447 -0.272696,-0.973848 0.02749,-0.0274 1.249711,0.747255 2.716037,1.721461 l 2.666046,1.771288 0.06235,0.414392 c 0.109616,0.728611 0.06036,3.495562 -0.07822,4.39464 -0.07285,0.472631 -0.157053,1.042508 -0.187108,1.266389 l -0.05464,0.40705 0.219334,-0.40705 c 0.296423,-0.550123 0.672271,-1.663964 0.88121,-2.611519 0.671424,-3.044917 0.315077,-6.211638 -1.021694,-9.07937 -0.203758,-0.43712 -0.349525,-0.81564 -0.323927,-0.841155 0.10751,-0.107154 3.956369,2.790675 6.560589,4.939508 1.810622,1.494004 4.401149,4.063539 4.972643,4.932349 0.6745,1.025405 0.836257,1.95621 0.563202,3.240928 -0.145349,0.683862 -0.70277,1.952606 -0.959697,2.184363 -0.150515,0.135774 -0.170994,0.127549 -0.299592,-0.120328 -0.619558,-1.194176 -2.879687,-1.8158 -5.683218,-1.563109 -3.925935,0.353856 -8.690611,1.709179 -15.141298,4.306975 C 12.872221,36.697631 12.080202,37 12.029857,37 c -0.05034,0 -0.03549,-0.07605 0.03299,-0.169012 z M 17.54174,24.843161 c -0.598967,-0.154501 -1.14008,-0.313843 -1.20247,-0.354093 -0.06458,-0.04166 -0.113443,-0.258618 -0.113443,-0.503707 0,-0.61341 -0.219808,-1.286756 -0.737913,-2.260476 -0.247965,-0.466027 -0.432605,-0.865507 -0.410306,-0.887731 0.02231,-0.02222 0.683601,0.318364 1.469562,0.756865 l 1.429019,0.797277 0.202768,0.566293 c 0.382804,1.069103 0.624919,2.011297 0.537081,2.090047 -0.04753,0.0426 -0.56736,-0.04791 -1.174298,-0.204475 z M 31.880214,23.0155 C 31.304412,21.84244 29.589953,20.578968 27.343022,19.671812 L 26.617,19.378696 26.55951,18.714045 c -0.08779,-1.015105 -0.46476,-2.298682 -1.125244,-3.83143 -0.181678,-0.421613 -0.315909,-0.809664 -0.298293,-0.862343 0.08947,-0.267551 3.352206,2.177801 4.706904,3.527726 1.804126,1.79777 2.623757,3.288874 2.626582,4.778364 7.59e-4,0.487701 -0.177461,1.195639 -0.301276,1.195639 -0.02166,0 -0.151237,-0.227923 -0.287978,-0.506501 z m -9.3918,-0.618013 -1.224503,-0.475206 -0.109759,-0.765743 c -0.121874,-0.85027 -0.435616,-1.795536 -0.906238,-2.730356 -0.171181,-0.340026 -0.298744,-0.655591 -0.283472,-0.701258 0.01529,-0.04567 0.725741,0.381237 1.578821,0.948673 l 1.551055,1.031702 0.195687,0.528891 c 0.265578,0.717789 0.735268,2.539269 0.67124,2.603091 -0.08736,0.08707 -0.208166,0.051 -1.472831,-0.439794 z"/>
 <path style="fill:#8b9cbe" d="m 12.062827,35.830988 c 0.948587,-1.287606 1.240675,-1.743288 1.660106,-2.589909 0.885901,-1.788176 1.183526,-3.072208 1.184632,-5.110784 7.6e-4,-1.649776 -0.124893,-2.451314 -0.596216,-3.799167 -0.147876,-0.422882 -0.292861,-0.840114 -0.322185,-0.927176 -0.03197,-0.0949 -0.0078,-0.158298 0.06057,-0.158298 0.142736,0 4.558385,2.313185 4.822379,2.526254 0.178592,0.144141 0.19752,0.264379 0.237163,1.506272 0.03808,1.192798 -0.04027,2.46561 -0.221136,3.59302 -0.10448,0.651254 0.132521,0.287286 0.418295,-0.642388 0.516479,-1.68021 0.595249,-2.249479 0.590733,-4.26947 -0.0047,-2.091645 -0.135263,-2.920965 -0.726584,-4.614239 -0.177476,-0.508214 -0.300189,-0.946447 -0.272696,-0.973848 0.02749,-0.0274 1.249711,0.747255 2.716037,1.721461 l 2.666046,1.771288 0.06235,0.414392 c 0.109616,0.728611 0.06036,3.495562 -0.07822,4.39464 -0.07285,0.472631 -0.157053,1.042508 -0.187108,1.266389 l -0.05464,0.40705 0.219334,-0.40705 c 0.296423,-0.550123 0.672271,-1.663964 0.88121,-2.611519 0.671424,-3.044917 0.315077,-6.211638 -1.021694,-9.07937 -0.203758,-0.43712 -0.349525,-0.81564 -0.323927,-0.841155 0.10751,-0.107154 3.956369,2.790675 6.560589,4.939508 1.810622,1.494004 4.401149,4.063539 4.972643,4.932349 0.6745,1.025405 0.836257,1.95621 0.563202,3.240928 -0.145349,0.683862 -0.70277,1.952606 -0.959697,2.184363 -0.150515,0.135774 -0.170994,0.127549 -0.299592,-0.120328 -0.619558,-1.194176 -2.879687,-1.8158 -5.683218,-1.563109 -3.925935,0.353856 -8.690611,1.709179 -15.141298,4.306975 C 12.872221,35.697631 12.080202,36 12.029857,36 c -0.05034,0 -0.03549,-0.07605 0.03299,-0.169012 z M 17.54174,23.843161 c -0.598967,-0.154501 -1.14008,-0.313843 -1.20247,-0.354093 -0.06458,-0.04166 -0.113443,-0.258618 -0.113443,-0.503707 0,-0.61341 -0.219808,-1.286756 -0.737913,-2.260476 -0.247965,-0.466027 -0.432605,-0.865507 -0.410306,-0.887731 0.02231,-0.02222 0.683601,0.318364 1.469562,0.756865 l 1.429019,0.797277 0.202768,0.566293 c 0.382804,1.069103 0.624919,2.011297 0.537081,2.090047 -0.04753,0.0426 -0.56736,-0.04791 -1.174298,-0.204475 z M 31.880214,22.0155 C 31.304412,20.84244 29.589953,19.578968 27.343022,18.671812 L 26.617,18.378696 26.55951,17.714045 c -0.08779,-1.015105 -0.46476,-2.298682 -1.125244,-3.83143 -0.181678,-0.421613 -0.315909,-0.809664 -0.298293,-0.862343 0.08947,-0.267551 3.352206,2.177801 4.706904,3.527726 1.804126,1.79777 2.623757,3.288874 2.626582,4.778364 7.59e-4,0.487701 -0.177461,1.195639 -0.301276,1.195639 -0.02166,0 -0.151237,-0.227923 -0.287978,-0.506501 z m -9.3918,-0.618013 -1.224503,-0.475206 -0.109759,-0.765743 c -0.121874,-0.85027 -0.435616,-1.795536 -0.906238,-2.730356 -0.171181,-0.340026 -0.298744,-0.655591 -0.283472,-0.701258 0.01529,-0.04567 0.725741,0.381237 1.578821,0.948673 l 1.551055,1.031702 0.195687,0.528891 c 0.265578,0.717789 0.735268,2.539269 0.67124,2.603091 -0.08736,0.08707 -0.208166,0.051 -1.472831,-0.439794 z"/>
 <path style="fill:#f44336" d="M 5 6 C 3.892 6 3 6.892 3 8 L 3 10 L 17 10 L 17 6 L 5 6 z"/>
 <rect style="fill:#9c27b0" width="14" height="4" x="17" y="6"/>
 <path style="fill:#3f51b5" d="M 31 6 L 31 10 L 45 10 L 45 8 C 45 6.892 44.108 6 43 6 L 31 6 z"/>
 <path style="fill:#ffeb3b" d="M 3 38 L 3 40 C 3 41.108 3.892 42 5 42 L 17 42 L 17 38 L 3 38 z"/>
 <rect style="fill:#8bc34a" width="14" height="4" x="17" y="38"/>
 <path style="fill:#009688" d="M 31 38 L 31 42 L 43 42 C 44.108 42 45 41.108 45 40 L 45 38 L 31 38 z"/>
 <rect style="fill:#00bcd4" width="14" height="4" x="24" y="-45" transform="rotate(90)"/>
 <rect style="fill:#2196f3" width="14" height="4" x="10" y="-45" transform="rotate(90)"/>
 <rect style="fill:#ffc107" width="14" height="4" x="24" y="-7" transform="rotate(90)"/>
 <rect style="fill:#ff5722" width="14" height="4" x="10" y="-7" transform="rotate(90)"/>
 <path style="opacity:0.2;fill:#8b9cbe" d="M 5 6 C 3.892 6 3 6.892 3 8 L 3 9 C 3 7.892 3.892 7 5 7 L 17 7 L 31 7 L 43 7 C 44.108 7 45 7.892 45 9 L 45 8 C 45 6.892 44.108 6 43 6 L 31 6 L 17 6 L 5 6 z"/>
 <rect style="opacity:0.2;fill:#8b9cbe" width="4" height="1" x="3" y="10"/>
 <rect style="opacity:0.2;fill:#8b9cbe" width="4" height="1" x="3" y="24"/>
 <rect style="opacity:0.2;fill:#8b9cbe" width="4" height="1" x="41" y="10"/>
 <rect style="opacity:0.2;fill:#8b9cbe" width="4" height="1" x="41" y="24"/>
 <rect style="opacity:0.2;fill:#8b9cbe" width="42" height="1" x="3" y="38"/>
 <rect style="opacity:0.2" width="34" height="1" x="7" y="10"/>
</svg>
