<svg xmlns="http://www.w3.org/2000/svg" width="48" height="48" version="1">
 <rect style="fill:#334468" width="40" height="40" x="4" y="4" rx="20" ry="20"/>
 <path style="opacity:0.2" d="m 24.464844,10.189871 c -1.616592,-0.02708 -3.298653,0.234422 -5.048828,0.787109 -2.333568,0.761481 -4.300359,2.137053 -5.970704,4.003907 -0.196502,0.245638 -0.342995,0.566561 -0.146484,0.861328 0.196519,0.270202 0.09855,0.367942 -0.04883,0.564453 -1.179066,1.621215 -1.990089,3.439188 -2.333984,5.404297 -0.04913,0.270203 -0.147239,0.368537 -0.34375,0.466797 -0.8106082,0.393022 -1.3272265,1.104809 -1.4746098,2.013672 -0.098256,0.564968 2.999e-4,1.105551 -0.048828,1.572265 0,0.491276 2.999e-4,0.85953 -0.048828,1.154297 0,1.866853 1.204585,3.022088 3.046875,2.923828 0.466714,0 0.710937,-0.271041 0.710937,-0.664062 0.04912,-1.20363 0.04883,-2.382308 0.04883,-3.585938 0,-1.252757 -0.04837,-2.579273 0.197265,-3.832031 1.400141,-7.320034 9.751765,-11.324307 16.1875,-7.787109 3.905656,2.161622 5.870195,5.551687 6.017578,10.046875 0.04912,1.670344 0,3.341375 0,5.011718 0,0.417586 0.173385,0.712287 0.566407,0.810547 1.424704,0.31933 2.896939,-0.688276 3.142578,-2.162109 0.14738,-1.007118 0.05078,-2.014366 0.05078,-3.021485 0,-1.154501 -0.51632,-2.013456 -1.523438,-2.529296 -0.147384,-0.09826 -0.294629,-0.198021 -0.34375,-0.394532 -0.368456,-2.014237 -1.179183,-3.880439 -2.382812,-5.550781 -0.09826,-0.09826 -0.246698,-0.196662 -0.148438,-0.294922 0.515842,-0.663225 4.43e-4,-1.030805 -0.392578,-1.423828 -2.921565,-2.854014 -6.156388,-4.315431 -9.71289,-4.375 z m -7.658203,14.814453 c -0.839405,-0.05986 -1.521803,0.53286 -1.699219,1.541016 -0.283868,1.478632 1.79e-4,2.867415 0.828125,4.099609 0.59139,0.873737 1.418355,1.254137 2.435547,1.34375 0.567734,-0.0224 2.862607,0.09031 3.359375,-0.111328 0.638701,-0.224036 1.111972,-0.64924 1.253906,-1.34375 0.141933,-0.694509 -0.687014,-1.657857 -1.798828,-2.666015 -1.159125,-1.052967 -2.672054,-2.172909 -3.5,-2.576172 -0.301609,-0.173627 -0.599105,-0.267157 -0.878906,-0.28711 z m 13.685547,1.996094 c -0.122529,-4.7e-5 -0.248994,0.01108 -0.38086,0.03516 -0.965145,0.144441 -1.79651,0.602424 -2.671875,0.939453 -0.785584,0.33703 -1.481838,0.745773 -2.042969,1.275391 -0.785583,0.794426 -0.359488,1.877859 0.875,2.287109 0.157117,0.07222 0.382009,0.119822 0.628907,0.167969 0.695802,0.0963 1.347165,0.240917 2.042968,0.289063 0.920254,0.04814 1.616573,-0.239959 2.132813,-0.841797 0.650913,-0.74628 0.964812,-1.68486 0.919922,-2.671875 -0.03928,-0.905766 -0.646208,-1.48014 -1.503906,-1.480469 z m 4.722656,4.003906 c -0.136361,-0.02436 -0.297001,0.06336 -0.388672,0.205078 -0.464467,1.417169 -2.615526,6.166101 -9.949219,6.66211 -8.653758,0.590486 4.619128,2.384207 8.408203,-0.332032 1.29562,-0.968398 2.761783,-1.935559 2.712891,-4.722656 0,-0.543248 -0.269025,-1.464614 -0.660156,-1.748047 -0.03667,-0.03543 -0.07759,-0.05633 -0.123047,-0.06445 z"/>
 <path fill="#fff" opacity=".1" d="m24 4c-11.08 0-20 8.92-20 20 0 0.168-0.004 0.333 0 0.5 0.2644-10.846 9.088-19.5 20-19.5s19.736 8.654 20 19.5c0.004-0.167 0-0.332 0-0.5 0-11.08-8.92-20-20-20z"/>
 <path opacity=".2" d="m4.0117 24.5c-0.0041 0.167-0.0117 0.332-0.0117 0.5 0 11.08 8.92 20 20 20s20-8.92 20-20c0-0.168-0.008-0.333-0.012-0.5-0.264 10.846-9.076 19.5-19.988 19.5s-19.724-8.654-19.988-19.5z"/>
 <style id="style828" type="text/css">
  .st0{fill:#1C2437;}
 </style>
 <path style="fill:#8b9cbe" class="st0" d="m 9.0491223,24.863147 c 0.049128,-0.466714 -0.049128,-1.00712 0.049128,-1.572088 0.1473833,-0.908863 0.6632239,-1.621216 1.4738317,-2.014238 0.196511,-0.09826 0.294766,-0.196511 0.343894,-0.466714 0.343895,-1.965109 1.154502,-3.782836 2.333568,-5.404051 0.147383,-0.196511 0.245639,-0.294767 0.04912,-0.564969 -0.196511,-0.294767 -0.04912,-0.614098 0.147383,-0.859736 1.670344,-1.866854 3.635453,-3.242431 5.969021,-4.0039115 5.600562,-1.7685987 10.513337,-0.5649685 14.762887,3.5863255 0.393021,0.393023 0.908863,0.76148 0.393021,1.424705 -0.09826,0.09826 0.04912,0.196511 0.147384,0.294767 1.203629,1.670342 2.014238,3.537197 2.382695,5.551434 0.04912,0.196511 0.196511,0.294767 0.343895,0.393023 1.007118,0.51584 1.52296,1.375577 1.52296,2.530078 0,1.007119 0.09826,2.014238 -0.04912,3.021356 -0.245639,1.473833 -1.719471,2.480951 -3.144175,2.161621 -0.393022,-0.09826 -0.56497,-0.393022 -0.56497,-0.810608 0,-1.670343 0.04912,-3.340686 0,-5.01103 -0.147383,-4.495188 -2.112492,-7.885002 -6.018148,-10.046624 -6.435735,-3.5371971 -14.787451,0.466714 -16.187592,7.786748 -0.245638,1.252758 -0.19651,2.579207 -0.19651,3.831964 0,1.20363 0,2.382696 -0.04912,3.586326 0,0.393021 -0.245639,0.663224 -0.712353,0.663224 -1.84229,0.09826 -3.0459189,-1.056247 -3.0459189,-2.9231 0.049128,-0.294767 0.049128,-0.663226 0.049128,-1.154502"/>
 <path style="fill:#8b9cbe" class="st0" d="m 21.730394,30.876778 c 0.638701,-0.224036 1.111814,-0.649703 1.253748,-1.344213 0.141933,-0.694509 -0.686013,-1.657861 -1.797827,-2.66602 -1.159125,-1.052966 -2.673085,-2.173143 -3.501031,-2.576406 -1.206437,-0.694508 -2.341906,-0.08961 -2.578461,1.254598 -0.283868,1.478632 0,2.867652 0.827946,4.099846 0.59139,0.873737 1.419336,1.254598 2.436528,1.344211 0.567734,-0.0224 2.862329,0.08962 3.359097,-0.112016"/>
 <path style="fill:#8b9cbe" class="st0" d="m 26.900715,30.705952 c 0.695802,0.0963 1.346715,0.240736 2.042518,0.288882 0.920254,0.04814 1.616057,-0.240735 2.132297,-0.842573 0.650913,-0.74628 0.965146,-1.685147 0.920256,-2.672162 -0.04489,-1.035161 -0.830474,-1.637 -1.885401,-1.444411 -0.965145,0.144441 -1.795619,0.601838 -2.670984,0.938867 -0.785584,0.33703 -1.481387,0.74628 -2.042518,1.275898 -0.785583,0.794426 -0.359123,1.877734 0.875365,2.286984 0.157117,0.07222 0.381569,0.120368 0.628467,0.168515"/>
 <path style="fill:#8b9cbe" class="st0" d="m 35.338778,30.068233 c -0.146674,-0.141717 -0.39113,-0.04724 -0.513358,0.141717 -0.464467,1.417169 -2.615685,6.164682 -9.949378,6.660691 -8.653758,0.590486 4.620227,2.385566 8.409302,-0.330673 1.29562,-0.968399 2.762358,-1.936797 2.713466,-4.723894 0,-0.543248 -0.268901,-1.464408 -0.660032,-1.747841"/>
</svg>
