<svg xmlns="http://www.w3.org/2000/svg" width="48" height="48" version="1.1">
 <rect style="opacity:0.2" width="40" height="40" x="4" y="5" rx="8" ry="8"/>
 <rect style="fill:#b2bfd9" width="40" height="40" x="4" y="4" rx="8" ry="8"/>
 <circle style="opacity:0.1" cx="24" cy="25" r="8"/>
 <circle style="fill:#666666" cx="24" cy="24" r="8"/>
 <circle style="fill:#e33838;stroke:#f9f9f9" cx="24" cy="24" r="6.5"/>
 <path style="opacity:0.1" d="M 11.5,8 C 9.0329,8 7,10.033 7,12.5 V 15 H 10 V 12.5 C 10,11.643 10.643,11 11.5,11 H 15 V 8 Z M 21,8 V 11 H 27 V 8 Z M 33,8 V 11 H 36.5 C 37.357,11 38,11.643 38,12.5 V 15 H 41 V 12.5 C 41,10.033 38.967,8 36.5,8 Z M 7,21 V 29 H 10 V 21 Z M 38,21 V 29 H 41 V 21 Z M 7,35 V 37.5 C 7,39.967 9.0329,42 11.5,42 H 15 V 39 H 11.5 C 10.643,39 10,38.357 10,37.5 V 35 Z M 38,35 V 37.5 C 38,38.357 37.357,39 36.5,39 H 33 V 42 H 36.5 C 38.967,42 41,39.967 41,37.5 V 35 Z M 21,39 V 42 H 27 V 39 Z"/>
 <path style="fill:#e33838" d="M 11.5,7 C 9.0329,7 7,9.0329 7,11.5 V 14 H 10 V 11.5 C 10,10.643 10.643,10 11.5,10 H 15 V 7 Z M 21,7 V 10 H 27 V 7 Z M 33,7 V 10 H 36.5 C 37.357,10 38,10.643 38,11.5 V 14 H 41 V 11.5 C 41,9.0329 38.967,7 36.5,7 Z M 7,20 V 28 H 10 V 20 Z M 38,20 V 28 H 41 V 20 Z M 7,34 V 36.5 C 7,38.967 9.0329,41 11.5,41 H 15 V 38 H 11.5 C 10.643,38 10,37.357 10,36.5 V 34 Z M 38,34 V 36.5 C 38,37.357 37.357,38 36.5,38 H 33 V 41 H 36.5 C 38.967,41 41,38.967 41,36.5 V 34 Z M 21,38 V 41 H 27 V 38 Z"/>
 <path style="opacity:0.2;fill:#8b9cbe" d="M 12 4 C 7.568 4 4 7.568 4 12 L 4 13 C 4 8.568 7.568 5 12 5 L 36 5 C 40.432 5 44 8.568 44 13 L 44 12 C 44 7.568 40.432 4 36 4 L 12 4 z"/>
 <path style="opacity:0.1;fill:#8b9cbe" d="M 24 16 A 8 8 0 0 0 16 24 A 8 8 0 0 0 16.021 24.576 A 8 8 0 0 1 24 17 A 8 8 0 0 1 31.979 24.424 A 8 8 0 0 0 32 24 A 8 8 0 0 0 24 16 z"/>
</svg>
