<svg xmlns="http://www.w3.org/2000/svg" width="48" height="48" version="1">
 <rect fill="#8e8e8e" width="32" height="24" x="-42" y="-36" rx="2" ry="2" transform="matrix(0,-1,-1,0,0,0)"/>
 <rect style="fill:#4f4f4f" width="32" height="40" x="-38" y="-44" rx="2" ry="2" transform="matrix(0,-1,-1,0,0,0)"/>
 <rect style="fill:#dc4f47" width="26" height="34" x="-35" y="-41" rx="0" ry="0" transform="matrix(0,-1,-1,0,0,0)"/>
 <path fill="#fff" style="opacity:0.1" d="m6 6c-1.108 0-2 0.892-2 2v1c0-1.108 0.892-2 2-2h36c1.108 0 2 0.892 2 2v-1c0-1.108-0.892-2-2-2h-36z"/>
 <path opacity=".2" d="m12 40v1c0 1.108 0.892 2 2 2h20c1.108 0 2-0.892 2-2v-1c0 1.108-0.892 2-2 2h-20c-1.108 0-2-0.892-2-2z"/>
 <path opacity=".2" d="m4 36v1c0 1.108 0.892 2 2 2h36c1.108 0 2-0.892 2-2v-1c0 1.108-0.892 2-2 2h-36c-1.108 0-2-0.892-2-2z"/>
 <circle style="opacity:0.2" cx="24" cy="23" r="5"/>
 <circle style="fill:#8b9cbe" cx="24" cy="22" r="5"/>
 <path style="opacity:0.2" d="m 14,13 c -2.216,0 -4,1.784 -4,4 v 1 h 2 v -1 c 0,-1.142594 0.857406,-2 2,-2 h 1 v -2 z m 5,0 v 2 h 3 v -2 z m 7,0 v 2 h 3 v -2 z m 7,0 v 2 h 1 c 1.142594,0 2,0.857406 2,2 v 1 h 2 v -1 c 0,-2.216 -1.784,-4 -4,-4 z m -23,9 v 3 h 2 v -3 z m 26,0 v 3 h 2 v -3 z m -26,7 c 0,2.216 1.784,4 4,4 h 1 v -2 h -1 c -1.142594,0 -2,-0.857406 -2,-2 z m 26,0 c 0,1.142594 -0.857406,2 -2,2 h -1 v 2 h 1 c 2.216,0 4,-1.784 4,-4 z m -17,2 v 2 h 3 v -2 z m 7,0 v 2 h 3 v -2 z"/>
 <path style="fill:#8b9cbe" d="M 14 12 C 11.784 12 10 13.784 10 16 L 10 17 L 12 17 L 12 16 C 12 14.857406 12.857406 14 14 14 L 15 14 L 15 12 L 14 12 z M 19 12 L 19 14 L 22 14 L 22 12 L 19 12 z M 26 12 L 26 14 L 29 14 L 29 12 L 26 12 z M 33 12 L 33 14 L 34 14 C 35.142594 14 36 14.857406 36 16 L 36 17 L 38 17 L 38 16 C 38 13.784 36.216 12 34 12 L 33 12 z M 10 21 L 10 24 L 12 24 L 12 21 L 10 21 z M 36 21 L 36 24 L 38 24 L 38 21 L 36 21 z M 10 28 C 10 30.216 11.784 32 14 32 L 15 32 L 15 30 L 14 30 C 12.857406 30 12 29.142594 12 28 L 10 28 z M 36 28 C 36 29.142594 35.142594 30 34 30 L 33 30 L 33 32 L 34 32 C 36.216 32 38 30.216 38 28 L 36 28 z M 19 30 L 19 32 L 22 32 L 22 30 L 19 30 z M 26 30 L 26 32 L 29 32 L 29 30 L 26 30 z"/>
</svg>
