<svg width="48" height="48" version="1.1" xmlns="http://www.w3.org/2000/svg">
 <g>
  <rect x="8" y="5" width="32" height="40" rx="2" ry="2" style="opacity:.2"/>
  <rect x="8" y="4" width="32" height="40" rx="2" ry="2" style="fill:#e46409"/>
  <path d="m31 5v16.5l2.5-1.5 2.5 1.5v-16.5z" style="opacity:.1"/>
  <path d="m31 4v16.5l2.5-1.5 2.5 1.5v-16.5z" style="fill:#1b9878"/>
  <path d="m10 4c-1.108 0-2 0.892-2 2v36c0 1.108 0.892 2 2 2h4v-40z" style="opacity:.2"/>
  <path d="m10 4c-1.108 0-2 0.892-2 2v1c0-1.108 0.892-2 2-2h28c1.108 0 2 0.892 2 2v-1c0-1.108-0.892-2-2-2z" style="fill:#8b9cbe;opacity:.2"/>
 </g>
</svg>
