<svg xmlns="http://www.w3.org/2000/svg" width="48" height="48" version="1.1">
 <path style="fill:#23a5dc" d="M 13.879,4 V 44 H 38 c 1.108,0 2,-0.892 2,-2 V 6 C 40,4.892 39.108,4 38,4 Z"/>
 <path style="fill:#6b3f3f" d="M 10,4 C 8.892,4 8,4.892 8,6 v 36 c 0,1.108 0.892,2 2,2 h 4 V 4 h -3.9995 z"/>
 <path fill="#fff" opacity=".2" d="m10 4c-1.108 0-2 0.892-2 2v1c0-1.108 0.892-2 2-2h28c1.108 0 2 0.892 2 2v-1c0-1.108-0.892-2-2-2h-28z"/>
 <path opacity=".2" d="m8 42v1c0 1.108 0.892 2 2 2h28c1.108 0 2-0.892 2-2v-1c0 1.108-0.892 2-2 2h-28c-1.108 0-2-0.892-2-2z"/>
 <path style="opacity:0.2" transform="matrix(1.010363,0,0,1,-0.50383039,-1.043682)" d="m 34.149935,26.043682 -6.928204,4 -6.928202,4 0,-8 0,-8 6.928203,4 z"/>
 <path style="fill:#8b9cbe" transform="matrix(1.010363,0,0,1,-0.50383039,-2.0436821)" d="m 34.149935,26.043682 -6.928204,4 -6.928202,4 0,-8 0,-8 6.928203,4 z"/>
</svg>
