<svg xmlns="http://www.w3.org/2000/svg" width="48" height="48" version="1">
 <circle style="fill:#4f4f4f" cx="24" cy="24" r="20"/>
 <path style="opacity:0.2;fill-rule:evenodd" d="m 24,12 c -7.1797,0 -13,5.8203 -13,13 0,7.1797 5.8203,13 13,13 7.1797,0 13,-5.8203 13,-13 0,-7.1797 -5.8203,-13 -13,-13 z m 0,3 c 5.5228,0 10,4.4772 10,10 0,5.5228 -4.4772,10 -10,10 -5.5228,0 -10,-4.4772 -10,-10 0,-5.5228 4.4772,-10 10,-10 z m 0,4 c -1.108,0 -2,0.93613 -2,2.0938 l 0,7.8125 c 0,1.158 0.892,2.094 2,2.094 1.108,0 2,-0.93613 2,-2.0938 L 26,21.094 C 26,19.936 25.108,19 24,19 Z"/>
 <path style="fill:#8b9cbe;fill-rule:evenodd" d="m 24,11 c -7.18,0 -13,5.82 -13,13 0,7.18 5.82,13 13,13 7.18,0 13,-5.82 13,-13 0,-7.18 -5.82,-13 -13,-13 z m 0,3 c 5.523,0 10,4.477 10,10 0,5.523 -4.477,10 -10,10 -5.523,0 -10,-4.477 -10,-10 0,-5.523 4.477,-10 10,-10 z m 0,4 c -1.108,0 -2,0.936 -2,2.094 l 0,7.812 c 0,1.158 0.892,2.094 2,2.094 1.108,0 2,-0.936 2,-2.094 l 0,-7.812 C 26,18.936 25.108,18 24,18 Z"/>
 <path style="opacity:0.1;fill:#8b9cbe" d="M 24,4 A 20,20 0 0 0 4,24 20,20 0 0 0 4.0215,24.582 20,20 0 0 1 23.9995,5 20,20 0 0 1 43.9785,24.418 20,20 0 0 0 43.9995,24 a 20,20 0 0 0 -20,-20 z"/>
 <path style="opacity:0.2" d="M 43.979,24.418 A 20,20 0 0 1 24,44 20,20 0 0 1 4.022,24.582 20,20 0 0 0 4,25 20,20 0 0 0 24,45 20,20 0 0 0 44,25 20,20 0 0 0 43.979,24.418 Z"/>
 <circle style="opacity:0.2" cx="37" cy="36" r="11"/>
 <circle style="fill:#cd4242" cx="37" cy="35" r="11"/>
 <path style="fill:#8b9cbe" d="m 37,28 a 1,1 0 0 0 -1,1 l 0,5 0,1 0,1 7,0 a 1,1 0 0 0 1,-1 1,1 0 0 0 -1,-1 l -5,0 0,-5 a 1,1 0 0 0 -1,-1 z"/>
</svg>
