<svg xmlns="http://www.w3.org/2000/svg" width="48" height="48" version="1">
 <path style="fill:#ff766a" d="M 44,40 V 8 C 44,6.892 43.108,6 42,6 H 6 C 4.892,6 4,6.892 4,8 v 32 c 0,1.108 0.892,2 2,2 h 36 c 1.108,0 2,-0.892 2,-2 z"/>
 <path style="opacity:0.2;fill-rule:evenodd" d="m 32,15 c 3.3137,0 6,2.6863 6,6 0,3.3137 -2.6863,6 -6,6 -3.3137,0 -6,-2.6863 -6,-6 0,-3.3137 2.6863,-6 6,-6 z"/>
 <path style="fill:#fffee4;fill-rule:evenodd" d="m 32,14 c 3.3137,0 6,2.6863 6,6 0,3.3137 -2.6863,6 -6,6 -3.3137,0 -6,-2.6863 -6,-6 0,-3.3137 2.6863,-6 6,-6 z"/>
 <path style="opacity:0.2;fill:#8b9cbe" d="M 6,6 C 4.892,6 4,6.892 4,8 V 9 C 4,7.892 4.892,7 6,7 h 36 c 1.108,0 2,0.892 2,2 V 8 C 44,6.892 43.108,6 42,6 Z"/>
 <path style="fill:#d22f7a" d="m 4,32 v 8 c 0,1.108 0.892,2 2,2 h 36 c 1.108,0 2,-0.892 2,-2 v -8 z"/>
 <path style="fill:#17191e" d="m 4,32 v -1.390108 c 0,0 2.8845,-2.316482 3.6955,-2.518491 0.81097,-0.202107 1.7687,-0.03759 2.7529,0.188328 0.98427,0.225177 2.4537,1.029502 2.9123,1.048535 0.45862,0.01945 1.2885,-0.04865 2.2528,-0.119546 0.96428,-0.06944 2.5609,-0.13344 3.0589,-0.12648 0.498,0 1.7412,0.08343 3.0665,0.181796 1.3252,0.09864 3.1455,0.263536 3.5584,0.309679 0.41299,0.04585 0.89844,0.130654 1.4494,0.223087 0.5509,0.09171 1.5046,0.230308 1.8421,0.268401 0.33739,0.03745 1.1196,0.168322 2.0272,0.269922 0.90758,0.101426 2.36,0.136213 2.7794,0.09864 0.41944,-0.03759 1.2986,-0.414608 2.2784,-0.762792 0.97975,-0.348037 2.0601,-0.666753 2.8818,-0.587943 C 39.37735,29.162187 44,30.609795 44,30.609795 v 1.389986 H 8.858 Z"/>
 <path style="opacity:0.2" d="m 4,40 v 1 c 0,1.108 0.892,2 2,2 h 36 c 1.108,0 2,-0.892 2,-2 v -1 c 0,1.108 -0.892,2 -2,2 H 6 C 4.892,42 4,41.108 4,40 Z"/>
 <rect style="opacity:0.1;fill:#8b9cbe" width="40" height="1" x="4" y="32"/>
 <circle style="opacity:0.2" cx="36" cy="37" r="11"/>
 <path style="fill:#8b9cbe" d="m 36,29 c -3.866,0 -7,3.134 -7,7 0,3.866 3.134,7 7,7 3.1748,0 5.8615,-2.1032 6.7188,-5 h -2.1562 c -0.77427,1.7595 -2.5168,3 -4.5625,3 -2.7614,0 -5,-2.2386 -5,-5 0,-2.7614 2.2386,-5 5,-5 1.3816,0 2.6155,0.57505 3.5156,1.4844 l -2.516,2.516 h 6 v -6 L 40.947,31.0531 C 39.679,29.7881 37.934,29.0001 36,29.0001 Z"/>
 <circle style="fill:#4254cd" cx="36" cy="36" r="11"/>
 <path style="fill:#8b9cbe" d="m 34.488281,29.998047 -0.002,0.0039 h 0.002 z m 0,0.0039 -0.132812,1.578125 a 4.7567,4.7143 0 0 0 -1.390625,0.796875 l -1.449219,-0.677734 -1.513672,2.599609 1.316406,0.904297 A 4.7567,4.7143 0 0 0 31.244139,36 a 4.7567,4.7143 0 0 0 0.07031,0.796875 L 30,37.701172 31.513672,40.298828 32.958984,39.625 a 4.7567,4.7143 0 0 0 1.392578,0.791016 L 34.486328,42 h 3.025391 l 0.134765,-1.580078 a 4.7567,4.7143 0 0 0 1.388672,-0.796875 l 1.451172,0.675781 1.511719,-2.597656 -1.314453,-0.90625 A 4.7567,4.7143 0 0 0 40.755854,36 4.7567,4.7143 0 0 0 40.685544,35.201172 L 42,34.300781 40.486328,31.703125 39.039062,32.376953 A 4.7567,4.7143 0 0 0 37.646484,31.585938 L 37.513672,30.001953 H 34.488281 Z M 36,34 a 2,2 0 0 1 2,2 2,2 0 0 1 -2,2 2,2 0 0 1 -2,-2 2,2 0 0 1 2,-2 z"/>
</svg>
