<svg xmlns="http://www.w3.org/2000/svg" width="48" height="48" version="1">
 <rect style="opacity:0.2" width="40" height="26" x="4" y="17" rx="2" ry="2"/>
 <path style="fill:#0badff" d="M 4,34 C 4,35.108 4.892,36 6,36 H 42 C 43.108,36 44,35.108 44,34 V 12 C 44,10.892 43.108,10 42,10 H 24 C 21,10 20,6 17,6 H 6 C 4.892,6 4,6.892 4,8"/>
 <rect style="opacity:0.2" width="40" height="26" x="4" y="15" rx="2" ry="2"/>
 <rect style="fill:#b2bfd9" width="36" height="16" x="6" y="13" rx="2" ry="2"/>
 <rect style="fill:#00caff" width="40" height="26" x="4" y="16" rx="2" ry="2"/>
 <path style="opacity:0.1;fill:#8b9cbe" d="M 6,6 C 4.892,6 4,6.892 4,8 V 9 C 4,7.892 4.892,7 6,7 H 17 C 20,7 21,11 24,11 H 42 C 43.108,11 44,11.892 44,13 V 12 C 44,10.892 43.108,10 42,10 H 24 C 21,10 20,6 17,6 Z"/>
 <circle style="opacity:0.2" cx="36" cy="36" r="11"/>
 <circle style="fill:#28ccb2" cx="36" cy="35" r="11"/>
 <path style="fill:#8b9cbe;fill-rule:evenodd" d="M 36,30 C 34.4492,30.0151 32.8879,30.36944 31.5371,31.135 30.99869,31.4857 30.3523,31.93866 29.8652,32.395 29.09871,33.14558 28.4427,34.0213 28,35.001 29.2149,37.6811 31.8859,39.6455 34.8242,39.9356 36.7516,40.15377 38.7686,39.82073 40.4629,38.867 41.00129,38.5163 41.6477,38.06334 42.1348,37.607 42.9008,36.856 43.5568,35.981 43.9998,35.001 42.7848,32.321 40.1138,30.356 37.1758,30.066 36.7858,30.021 36.3928,30 35.9998,30 Z M 36,32.0004 C 37.607,31.9648 39.0303,33.4025 39,35.0011 39.05149,36.7679 37.291,38.2927 35.5508,37.9627 33.7932,37.75633 32.5587,35.7845 33.1367,34.1142 33.50587,32.8846 34.7125,31.9852 36,32.0004 Z M 36,34.0008 A 1,1.0002 0 0 0 35,35.001 1,1.0002 0 0 0 36,36.0012 1,1.0002 0 0 0 36.99999,35.001 1,1.0002 0 0 0 35.99999,34.002 Z"/>
</svg>
