<svg xmlns="http://www.w3.org/2000/svg" width="48" height="48" version="1.1">
 <circle style="opacity:0.2" cx="24" cy="25" r="20"/>
 <circle style="fill:#acacac" cx="24" cy="24" r="20"/>
 <path style="opacity:0.2;fill:#8b9cbe" d="M 24 4 A 20 20 0 0 0 4 24 A 20 20 0 0 0 4.0214844 24.582031 A 20 20 0 0 1 24 5 A 20 20 0 0 1 43.978516 24.417969 A 20 20 0 0 0 44 24 A 20 20 0 0 0 24 4 z"/>
 <path style="opacity:0.1" d="m 17,8.9956558 v 7.0039062 l -2,-0.002 v -1.998047 -1 -1 H 2 l 2,2 h 9 v 2 H 5 l 1.8964844,2 H 20 v -3.839844 -1.925781 l 1,-0.699219 z m 13,0 -4,2.5390622 1,0.699219 v 1.925781 3.839844 h 13.103516 l 1.896484,-2 h -8 v -2 h 9 l 2,-2 H 32 v 1 1 1.998047 l -2,0.002 z m -6.5,6.0039062 c -0.828427,0 -1.5,0.671573 -1.5,1.5 0,0.828427 0.671573,1.5 1.5,1.5 0.828427,0 1.5,-0.671573 1.5,-1.5 0,-0.828427 -0.671573,-1.5 -1.5,-1.5 z m -15.5,5 2,2 h 7 v 18.875 l 5,-2.996094 V 40.898 l 8,-5.703126 V 21.999562 h 7 l 2,-2 H 27 V 33.907765 L 25.058594,35.362843 25,19.999562 H 22 V 33.939015 L 20.066406,35.36089 20,19.999562 Z"/>
 <path style="fill:#be3539" d="M 17 7.9960938 L 17 15 L 15 14.998047 L 15 13 L 15 12 L 15 11 L 2 11 L 4 13 L 13 13 L 13 15 L 5 15 L 6.8964844 17 L 20 17 L 20 13.160156 L 20 11.234375 L 21 10.535156 L 17 7.9960938 z M 30 7.9960938 L 26 10.535156 L 27 11.234375 L 27 13.160156 L 27 17 L 40.103516 17 L 42 15 L 34 15 L 34 13 L 43 13 L 45 11 L 32 11 L 32 12 L 32 13 L 32 14.998047 L 30 15 L 30 7.9960938 z M 23.5 14 C 22.671573 14 22 14.671573 22 15.5 C 22 16.328427 22.671573 17 23.5 17 C 24.328427 17 25 16.328427 25 15.5 C 25 14.671573 24.328427 14 23.5 14 z M 8 19 L 10 21 L 17 21 L 17 39.875 L 22 36.878906 L 22 39.898438 L 30 34.195312 L 30 21 L 37 21 L 39 19 L 27 19 L 27 32.908203 L 25.058594 34.363281 L 25 19 L 22 19 L 22 32.939453 L 20.066406 34.361328 L 20 19 L 8 19 z"/>
</svg>
