<svg xmlns="http://www.w3.org/2000/svg" width="48" height="48" version="1">
 <rect style="opacity:0.2" width="40" height="40" x="4" y="5" rx="2" ry="2"/>
 <rect style="fill:#4f4f4f" width="40" height="40" x="4" y="4" rx="2" ry="2"/>
 <path style="opacity:0.2" d="m 24,10 c -5.522847,0 -10,4.477153 -10,10 v 3 h -1 c -0.530005,0 -1.019949,0.147468 -1.451172,0.386719 l 9.359375,9.357422 c 1.532065,1.532064 2.765048,1.443551 3.837891,1.085937 1.072843,-0.357614 1.818359,-1.085937 1.818359,-1.085937 l 9.533203,-9.53125 C 35.757169,23.079307 35.388982,23 35,23 H 34 V 20 C 34,14.477153 29.522847,10 24,10 Z m 0,3 c 3.901527,0 7,3.098473 7,7 v 3 H 17 v -3 c 0,-3.901527 3.098473,-7 7,-7 z m 13.605469,11.533203 -7.779297,7.779297 6.414062,6.414062 C 37.27793,38.255527 38,37.217707 38,36 V 26 c 0,-0.536255 -0.150001,-1.032064 -0.394531,-1.466797 z M 10.216797,24.884766 C 10.07906,25.229761 10,25.604704 10,26 v 10 c 0,1.164527 0.663938,2.158672 1.628906,2.65625 l 6.179688,-6.179688 z m 18.195312,8.841796 -0.433593,0.433594 c 0,0 -1.020802,1.040138 -2.59961,1.566406 -1.578807,0.52627 -3.881296,0.437064 -5.884765,-1.566406 L 19.222656,33.890625 14.113281,39 h 19.572266 z"/>
 <path style="opacity:0.1;fill:#8b9cbe" d="M 6,4 C 4.892,4 4,4.892 4,6 L 4,7 C 4,5.892 4.892,5 6,5 l 36,0 c 1.108,0 2,0.892 2,2 L 44,6 C 44,4.892 43.108,4 42,4 L 6,4 Z"/>
 <path style="fill:#11a88b" d="M 24,9 C 18.477153,9 14,13.477153 14,19 v 4.489501 L 34,23.326098 V 19 C 34,13.477153 29.522847,9 24,9 Z m 0,3 c 3.901527,0 7,3.098473 7,7 v 3 H 17 v -3 c 0,-3.901527 3.098473,-7 7,-7 z"/>
 <path style="fill:#11a88b" d="M 13 22 C 12.469995 22 11.980051 22.147468 11.548828 22.386719 L 20.908203 31.744141 C 22.440268 33.276205 23.673251 33.187692 24.746094 32.830078 C 25.818937 32.472464 26.564453 31.744141 26.564453 31.744141 L 36.097656 22.212891 C 35.757169 22.079307 35.388982 22 35 22 L 13 22 z M 37.605469 23.533203 L 29.826172 31.3125 L 36.240234 37.726562 C 37.27793 37.255527 38 36.217707 38 35 L 38 25 C 38 24.463745 37.849999 23.967936 37.605469 23.533203 z M 10.216797 23.884766 C 10.07906 24.229761 10 24.604704 10 25 L 10 35 C 10 36.164527 10.663938 37.158672 11.628906 37.65625 L 17.808594 31.476562 L 10.216797 23.884766 z M 28.412109 32.726562 L 27.978516 33.160156 C 27.978516 33.160156 26.957714 34.200294 25.378906 34.726562 C 23.800099 35.252832 21.49761 35.163626 19.494141 33.160156 L 19.222656 32.890625 L 14.113281 38 L 33.685547 38 L 28.412109 32.726562 z"/>
 <path style="opacity:0.2;fill:#8b9cbe" d="M 24 9 C 18.477153 9 14 13.477153 14 19 L 14 20 C 14 14.477153 18.477153 10 24 10 C 29.522847 10 34 14.477153 34 20 L 34 19 C 34 13.477153 29.522847 9 24 9 z M 13 22 C 12.469995 22 11.980051 22.147468 11.548828 22.386719 L 12.261719 23.099609 C 12.497502 23.036751 12.743302 23 13 23 L 14 23 L 14 22 L 13 22 z M 17 22 L 17 23 L 31 23 L 31 22 L 17 22 z M 34 22 L 34 23 L 35 23 C 35.096548 23 35.18737 23.017955 35.28125 23.027344 L 36.097656 22.212891 C 35.757169 22.079307 35.388982 22 35 22 L 34 22 z M 37.605469 23.533203 L 29.826172 31.3125 L 30.326172 31.8125 L 37.605469 24.533203 C 37.849999 24.967936 38 25.463745 38 26 L 38 25 C 38 24.463745 37.849999 23.967936 37.605469 23.533203 z M 10.216797 23.884766 C 10.07906 24.229761 10 24.604704 10 25 L 10 26 C 10 25.604704 10.07906 25.229761 10.216797 24.884766 L 17.308594 31.976562 L 17.808594 31.476562 L 10.216797 23.884766 z M 28.412109 32.726562 L 27.978516 33.160156 C 27.978516 33.160156 26.957714 34.200294 25.378906 34.726562 C 23.800099 35.252832 21.49761 35.163626 19.494141 33.160156 L 19.222656 32.890625 L 14.113281 38 L 15.113281 38 L 19.222656 33.890625 L 19.494141 34.160156 C 21.49761 36.163626 23.800099 36.252832 25.378906 35.726562 C 26.957714 35.200294 27.978516 34.160156 27.978516 34.160156 L 28.412109 33.726562 L 32.685547 38 L 33.685547 38 L 28.412109 32.726562 z"/>
</svg>
