<svg width="48" height="48" version="1.1" xmlns="http://www.w3.org/2000/svg">
 <path d="m31.999813 8.9997161a3.999974 4 0 0 0-3.503883 2.0742199c-2.486106 0.16008-4.509531 0.69966-6.23824 1.6875-2.070568 1.183188-3.671851 2.824218-5.671838 4.824218-1.84766 1.847672-4.773145 3.339726-7.4608897 5.480468-2.6877443 2.140742-5.1249667 5.295772-5.1249667 9.933594 0 1.5 0.6120908 2.895408 1.5273339 3.941406 0.9152429 1.045998 2.0967278 1.80298 3.4101341 2.386718 2.6268124 1.16748 5.8402404 1.671876 9.0624414 1.671876 6.444403 0 10.942588-2.114532 13.413976-4.585938 1.235692-1.235702 1.907241-2.586498 2.441388-3.921874 0.534149-1.335378 0.993218-2.716914 1.933581-4.597656 0.821113-1.64223 2.776454-4.151778 4.539033-6.41797 0.881296-1.133094 1.715587-2.216198 2.374985-3.222656 0.659399-1.006458 1.296867-1.753906 1.296867-3.253906 0-0.75-0.347228-1.522106-0.796871-2.011718-0.449637-0.489614-0.948141-0.771306-1.445302-0.984376-0.99432-0.42614-2.063179-0.606412-3.285135-0.742186-0.898384-0.09982-1.934959-0.13364-2.960919-0.17188a3.999974 4 0 0 0-3.511695-2.0898399z" style="opacity:.2"/>
 <path d="m31.999813 8.0000001a3.999974 4 0 0 0-3.503883 2.0742179c-2.486106 0.16008-4.509531 0.699662-6.23824 1.6875-2.070568 1.18319-3.671851 2.82422-5.671838 4.82422-1.84766 1.847672-4.773145 3.339726-7.4608897 5.480468-2.6877443 2.140742-5.1249667 5.295772-5.1249667 9.933594 0 1.5 0.6120908 2.895408 1.5273339 3.941406 0.9152429 1.045998 2.0967278 1.80298 3.4101341 2.386718 2.6268124 1.16748 5.8402404 1.671876 9.0624414 1.671876 6.444403 0 10.942588-2.114532 13.413976-4.585938 1.235692-1.235702 1.907241-2.586498 2.441388-3.921874 0.534149-1.335378 0.993218-2.716914 1.933581-4.597656 0.821113-1.64223 2.776454-4.151778 4.539033-6.41797 0.881296-1.133094 1.715587-2.216198 2.374985-3.222656 0.659399-1.006458 1.296867-1.753906 1.296867-3.253906 0-0.75-0.347228-1.522106-0.796871-2.011718-0.449637-0.489614-0.948141-0.771306-1.445302-0.984376-0.99432-0.42614-2.063179-0.606414-3.285135-0.742188-0.898384-0.09982-1.934959-0.13364-2.960919-0.17188a3.999974 4 0 0 0-3.511695-2.0898379z" style="fill:#38ac52"/>
 <path d="m43.323958 12.183594c-1.61807 0.43099-8.306857 2.307752-15.324117 5.816406-9.542634 4.771348-16.466177 13.611568-20.359244 19.648438 0.4157573 0.247026 0.8442849 0.478538 1.2968666 0.679686 2.6268124 1.16748 5.8402404 1.671876 9.0624414 1.671876 6.444403 0 10.942588-2.114532 13.413976-4.585938 1.235692-1.235702 1.907241-2.586498 2.441388-3.921874 0.534149-1.335378 0.993218-2.716914 1.933581-4.597656 0.821113-1.64223 2.776454-4.151778 4.539033-6.41797 0.881296-1.133094 1.715587-2.216198 2.374985-3.222656 0.659399-1.006458 1.296867-1.753906 1.296867-3.253906 0-0.669612-0.296442-1.32833-0.675777-1.816406z" style="fill:#d5bd80"/>
 <path d="m31.999813 8.0000001a3.999974 4 0 0 0-3.503883 2.0742179c-2.486106 0.16008-4.509531 0.699662-6.23824 1.6875-2.070568 1.18319-3.671851 2.82422-5.671838 4.82422-1.84766 1.847672-4.773145 3.339726-7.4608897 5.480468-2.6877443 2.140742-5.1249667 5.295772-5.1249667 9.933594 0 0.13562 0.029284 0.264706 0.039062 0.398438 0.2051452-4.302762 2.5190422-7.28757 5.0859047-9.332032 2.6877447-2.140742 5.6132297-3.632796 7.4608897-5.480468 1.999987-2 3.60127-3.64103 5.671838-4.82422 1.728709-0.987838 3.752136-1.52741 6.23824-1.6875a3.999974 4 0 0 1 3.503883-2.0742179 3.999974 4 0 0 1 3.511695 2.0898439c1.02596 0.03824 2.062535 0.07206 2.960919 0.17188 1.221956 0.13578 2.290815 0.316048 3.285135 0.742188 0.497161 0.21307 0.995663 0.494762 1.445302 0.984374 0.350514 0.38167 0.632112 0.934916 0.742184 1.515626 0.019-0.16708 0.05468-0.314958 0.05468-0.503906 0-0.75-0.347228-1.522106-0.796871-2.011718-0.449631-0.489614-0.948133-0.771306-1.445294-0.984376-0.99432-0.42614-2.063179-0.606414-3.285135-0.742188-0.898384-0.09982-1.934959-0.13364-2.960919-0.17188a3.999974 4 0 0 0-3.511696-2.0898439z" style="fill:#8b9cbe;opacity:.2"/>
 <path d="m30.05842 24.999716c-0.330252-0.0094-0.657708 0.06298-0.95312 0.210938l-3.999974 2c-1.075941 0.538138-1.436837 1.897466-0.769525 2.898438l7.999948 12c0.370941 0.556368 0.995369 0.89057 1.664051 0.890624h5.999961s0.917498 0.02758 1.89452-0.460938c0.977022-0.488514 2.105454-1.872396 2.105454-3.539062s-1.128432-3.050548-2.105454-3.539062-1.89452-0.460938-1.89452-0.460938h-2.867169l-5.417933-9.027344c-0.350112-0.585424-0.974426-0.952064-1.656239-0.972656z" style="opacity:.2"/>
 <path d="m30.05842 24c-0.330252-0.0094-0.657708 0.06298-0.95312 0.210938l-3.999974 2c-1.075941 0.538138-1.436837 1.897466-0.769525 2.898438l7.999948 12c0.370941 0.556368 0.995369 0.89057 1.664051 0.890624h5.999961s0.917498 0.02758 1.89452-0.460938c0.977022-0.488514 2.105454-1.872396 2.105454-3.539062s-1.128432-3.050548-2.105454-3.539062-1.89452-0.460938-1.89452-0.460938h-2.867169l-5.417933-9.027344c-0.35011-0.585424-0.974426-0.952064-1.656239-0.972656z" style="fill:#3fbf5b"/>
 <path d="m30.05842 24c-0.330252-0.0094-0.657708 0.06298-0.95312 0.210938l-3.999974 2c-0.856893 0.42858-1.231796 1.371636-1.02343 2.246094 0.14676-0.519828 0.495741-0.982168 1.02343-1.246094l3.999974-2c0.295412-0.14796 0.622868-0.220338 0.95312-0.210938 0.681813 0.0206 1.306127 0.387232 1.656239 0.972656l5.417933 9.027344h2.867169s0.917498-0.02758 1.89452 0.460938c0.87413 0.437068 1.82348 1.60728 2.023423 3.039062 0.02354-0.16852 0.08204-0.324482 0.08204-0.5 0-1.666666-1.128432-3.050548-2.105454-3.539062-0.97703-0.488514-1.894528-0.460938-1.894528-0.460938h-2.86717l-5.417933-9.027344c-0.35011-0.585424-0.974426-0.952064-1.656239-0.972656z" style="fill:#8b9cbe;opacity:.2"/>
 <ellipse cx="31.999813" cy="12.999718" rx="1.999987" ry="2" style="opacity:.1"/>
 <ellipse cx="31.999813" cy="12" rx="1.999987" ry="2" style="fill:#17191e"/>
 <path d="m11.999944 24.999716c-1.944432 0-3.646193 0.71814-4.828094 1.8125-1.1819009 1.09436-1.8750274 2.468868-2.3202975 3.804688-0.8905398 2.671636-0.8515569 5.382812-0.8515569 6.382812 0 2.333334 0.614529 3.942658 1.5859273 4.914062 0.4856991 0.485702 1.0282609 0.775048 1.4687405 0.921876 0.4404793 0.14682 0.9453062 0.16406 0.9453062 0.16406h17.999884s0.917498 0.02758 1.89452-0.460938c0.977019-0.488514 2.105454-1.872396 2.105454-3.539062s-1.128435-3.050548-2.105454-3.539062c-0.977022-0.488514-1.89452-0.460938-1.89452-0.460938h-3.999974c0-1 0.06396-3.422264-1.261712-5.742188-1.325662-2.319922-4.238253-4.25781-8.738224-4.25781z" style="opacity:.2"/>
 <path d="m11.999944 24c-1.944432 0-3.646193 0.71814-4.828094 1.8125-1.1819009 1.09436-1.8750274 2.468868-2.3202975 3.804688-0.8905398 2.671636-0.8515569 5.382812-0.8515569 6.382812 0 2.333334 0.614529 3.942658 1.5859273 4.914062 0.4856991 0.485702 1.0282609 0.775048 1.4687405 0.921876 0.4404793 0.14682 0.9453062 0.16406 0.9453062 0.16406h17.999884s0.917498 0.02758 1.89452-0.460938c0.977019-0.488514 2.105454-1.872396 2.105454-3.539062s-1.128435-3.050548-2.105454-3.539062c-0.977022-0.488514-1.89452-0.460938-1.89452-0.460938h-3.999974c0-1 0.06396-3.422264-1.261712-5.742188-1.325662-2.319922-4.238253-4.25781-8.738224-4.25781z" style="fill:#5dca75"/>
 <path d="m11.999944 24c-1.944432 0-3.646193 0.71814-4.828094 1.8125-1.1819009 1.09436-1.8750272 2.468868-2.3202975 3.804688-0.8905396 2.671636-0.8515569 5.382812-0.8515569 6.382812 0 0.1268 0.01984 0.229022 0.023438 0.351562 0.0049-1.226986 0.050082-3.400246 0.8281194-5.734374 0.4452699-1.33582 1.1383962-2.710328 2.3202971-3.804688 1.181901-1.09436 2.8836619-1.8125 4.8280939-1.8125 4.499971 0 7.412562 1.937888 8.738224 4.257812 1.325672 2.319924 1.261712 4.742188 1.261712 5.742188h3.999974s0.917498-0.02758 1.89452 0.460938c0.87413 0.437068 1.82348 1.60728 2.023423 3.039062 0.02354-0.16852 0.08204-0.324482 0.08204-0.5 0-1.666666-1.128433-3.050548-2.105456-3.539062-0.977028-0.488514-1.894526-0.460938-1.894526-0.460938h-3.999974c0-1 0.06396-3.422264-1.261712-5.742188-1.325662-2.319924-4.238253-4.257812-8.738224-4.257812z" style="fill:#8b9cbe;opacity:.2"/>
</svg>
