<svg xmlns="http://www.w3.org/2000/svg" width="48" height="48" version="1.1">
 <path style="opacity:0.2" d="m 22,7.9647824 c 0,1.6584312 1.343146,3.0028556 3,3.0028556 l 0,14.013325 -15,0 c 0,-1.658431 -1.3431458,-3.002855 -3,-3.002855 -1.6568542,0 -3,1.344424 -3,3.002855 3.175e-4,0.08484 0.00423,0.169636 0.011719,0.254148 C 4.1506386,36.187374 13.057271,44.994465 24,45 35.045695,45 44,36.037172 44,24.980963 43.976533,14.673828 36.13816,6.0691298 25.886719,5.0968207 l -0.0059,-0.00195 C 23.916631,4.6515555 22.045228,5.7876183 22,7.9647824 Z"/>
 <path style="fill:#4c91d9" d="m 22,6.9647824 c 0,1.6584312 1.343146,3.0028554 3,3.0028554 l 0,14.0133252 -15,0 c 0,-1.658431 -1.3431458,-3.002855 -3,-3.002855 -1.6568542,0 -3,1.344424 -3,3.002855 3.175e-4,0.08484 0.00423,0.169636 0.011719,0.254148 C 4.1506386,35.187374 13.057271,43.994465 24,44 35.045695,44 44,35.037172 44,23.980963 43.976533,13.673828 36.13816,5.0691298 25.886719,4.0968207 l -0.0059,-0.00195 C 23.916631,3.6515555 22.045228,4.7876183 22,6.9647824 Z"/>
 <circle style="opacity:0.2" cx="24" cy="25" r="14"/>
 <circle style="fill:#8b9cbe" cx="24" cy="24" r="14"/>
 <path style="fill:#8b9cbe;opacity:0.2" d="M 25.152344 4.0019531 C 23.477675 3.952182 22.039575 5.0598252 22 6.9648438 C 22 7.1581111 22.021788 7.3461892 22.056641 7.5292969 C 22.331248 5.6462949 24.055994 4.6838328 25.880859 5.0957031 L 25.886719 5.0976562 C 36.026145 6.0593412 43.792886 14.48947 43.984375 24.646484 C 43.991613 24.425113 44 24.203602 44 23.980469 C 43.976533 13.673334 36.13816 5.0699653 25.886719 4.0976562 L 25.880859 4.0957031 C 25.635336 4.0402887 25.391582 4.0090633 25.152344 4.0019531 z M 7 20.978516 C 5.3431458 20.978516 4 22.322038 4 23.980469 C 4.0003175 24.065309 4.0042298 24.149863 4.0117188 24.234375 C 4.0136528 24.386856 4.0239821 24.537822 4.0292969 24.689453 C 4.1775106 23.169632 5.4426973 21.978516 7 21.978516 C 8.6568542 21.978516 10 23.322038 10 24.980469 L 25 24.980469 L 25 23.980469 L 10 23.980469 C 10 22.322038 8.6568542 20.978516 7 20.978516 z"/>
</svg>
