<svg xmlns="http://www.w3.org/2000/svg" width="48" height="48" version="1">
 <path style="opacity:0.2" d="M 24,5 A 20,20 0 0 0 4,25 20,20 0 0 0 24,45 h 18 c 1.108,0 2,-0.892 2,-2 V 25 7 C 44,5.892 43.108,5 42,5 Z"/>
 <path style="fill:#b2bfd9" d="M 24 4 A 20 20 0 0 0 4 24 A 20 20 0 0 0 24 44 L 42 44 C 43.108 44 44 43.108 44 42 L 44 24 L 44 6 C 44 4.892 43.108 4 42 4 L 24 4 z"/>
 <path style="fill:#305483" d="m 23,24 -8,2 v -4 z"/>
 <path style="fill:#adadad;fill-rule:evenodd" d="M 24.142857,11 C 23.516304,11 23,11.508237 23,12.125 v 3.75 C 23,16.491763 23.516304,17 24.142857,17 H 37.857142 C 38.483696,17 39,16.491763 39,15.875 v -3.75 C 39,11.508237 38.483696,11 37.857142,11 Z"/>
 <path style="fill:#adadad;fill-rule:evenodd" d="M 27.227273,22 C 26.55444,22 26,22.451766 26,23 v 2 c 0,0.548234 0.55444,1 1.227273,1 H 42.772727 C 43.44556,26 44,25.548234 44,25 v -2 c 0,-0.548234 -0.55444,-1 -1.227273,-1 z"/>
 <g style="fill:#2f5d97" transform="matrix(0.8158175,0,0,0.81056086,4.2492311,4.2313278)">
  <path style="fill:#305483;fill-rule:evenodd" d="M 4.9763661,19.632289 C 6.6130595,17.531008 10.222513,7.6141185 22.117392,11.866741 c 0,0 -10.85914,-1.452094 -12.12183,7.891816"/>
  <path style="fill:#305483;fill-rule:evenodd" d="m 4.5975588,28.796049 c 1.6366934,2.101281 5.6249542,12.396978 17.5198332,8.144355 0,0 -11.174812,0.410374 -12.184965,-7.670846"/>
 </g>
 <path style="opacity:0.2;fill-rule:evenodd" d="M 10.999999,20 C 8.2439602,20 6,22.24396 6,25.000001 6,27.756041 8.2439602,30 10.999999,30 13.756039,30 16,27.756041 16,25.000001 16,22.24396 13.756039,20 10.999999,20 Z"/>
 <path style="fill:#3594f3;fill-rule:evenodd" d="M 10.999999,19 C 8.2439602,19 6,21.24396 6,24.000001 6,26.756041 8.2439602,29 10.999999,29 13.756039,29 16,26.756041 16,24.000001 16,21.24396 13.756039,19 10.999999,19 Z"/>
 <path style="fill:#adadad;fill-rule:evenodd" d="M 24.142857,31 C 23.516304,31 23,31.508237 23,32.125 v 3.75 C 23,36.491763 23.516304,37 24.142857,37 H 37.857142 C 38.483696,37 39,36.491763 39,35.875 v -3.75 C 39,31.508237 38.483696,31 37.857142,31 Z"/>
 <path style="fill:#8b9cbe;opacity:0.2" d="M 24 4 A 20 20 0 0 0 4 24 A 20 20 0 0 0 4.0214844 24.417969 A 20 20 0 0 1 24 5 L 42 5 C 43.108 5 44 5.892 44 7 L 44 6 C 44 4.892 43.108 4 42 4 L 24 4 z"/>
 <path style="opacity:0.2;fill-rule:evenodd" d="M 24.142578 11 C 23.516025 11 23 11.508237 23 12.125 L 23 13.125 C 23 12.508237 23.516025 12 24.142578 12 L 37.857422 12 C 38.483976 12 39 12.508237 39 13.125 L 39 12.125 C 39 11.508237 38.483976 11 37.857422 11 L 24.142578 11 z M 27.226562 22 C 26.553729 22 26 22.451766 26 23 L 26 24 C 26 23.451766 26.553729 23 27.226562 23 L 42.773438 23 C 43.446269 23 44 23.451766 44 24 L 44 23 C 44 22.451766 43.446269 22 42.773438 22 L 27.226562 22 z M 24.142578 31 C 23.516025 31 23 31.508237 23 32.125 L 23 33.125 C 23 32.508237 23.516025 32 24.142578 32 L 37.857422 32 C 38.483976 32 39 32.508237 39 33.125 L 39 32.125 C 39 31.508237 38.483976 31 37.857422 31 L 24.142578 31 z"/>
 <path style="opacity:0.2;fill:#8b9cbe;fill-rule:evenodd" d="M 23 15.875 L 23 16.875 C 23 17.491763 23.516025 18 24.142578 18 L 37.857422 18 C 38.483976 18 39 17.491763 39 16.875 L 39 15.875 C 39 16.491763 38.483976 17 37.857422 17 L 24.142578 17 C 23.516025 17 23 16.491763 23 15.875 z M 26 25 L 26 26 C 26 26.548234 26.553731 27 27.226562 27 L 42.773438 27 C 43.446269 27 44 26.548234 44 26 L 44 25 C 44 25.548234 43.446269 26 42.773438 26 L 27.226562 26 C 26.553731 26 26 25.548234 26 25 z M 23 35.875 L 23 36.875 C 23 37.491763 23.516025 38 24.142578 38 L 37.857422 38 C 38.483976 38 39 37.491763 39 36.875 L 39 35.875 C 39 36.491763 38.483976 37 37.857422 37 L 24.142578 37 C 23.516025 37 23 36.491763 23 35.875 z"/>
</svg>
