<svg xmlns="http://www.w3.org/2000/svg" width="48" height="48" version="1">
 <path style="fill:#4f4f4f" transform="matrix(0,-1,-1,0,0,0)" d="m -42,-44 36,0 c 1.108,0 2,0.892 2,2 l 0,36 c 0,1.108 -0.892,2 -2,2 l -36,0 c -1.108,0 -2,-0.892 -2,-2 l 0,-36 c 0,-1.108 0.892,-2 2,-2 z"/>
 <path style="fill:#8e8e8e" transform="matrix(0,-1,-1,0,0,0)" d="m -42,-44 36,0 c 1.108,0 2,0.892 2,2 l 0,18 -40,0 0,-18 c 0,-1.108 0.892,-2 2,-2 z"/>
 <path style="opacity:0.2;fill-rule:evenodd" d="m 9,14.999515 a 2.0002,2.0002 0 0 0 -2,2 l 0,16 a 2.0002,2.0002 0 0 0 2,2 l 2.375,0 c 3.303906,0 5.915083,-0.611524 7.601562,-2.5 C 20.663043,30.611039 21,28.063513 21,24.999515 21,21.95114 20.661517,19.404067 18.978516,17.513187 17.295515,15.622307 14.682574,14.999515 11.375,14.999515 l -2.375,0 z m 21,0 a 2.0002,2.0002 0 0 0 -2,2 l 0,12 a 2.0002,2.0002 0 0 0 -2,2 l 0,4 a 2.0002,2.0002 0 1 0 4,0 l 0,-2 8,0 0,2 a 2.0002,2.0002 0 0 0 2,2 2.0002,2.0002 0 0 0 2,-2.324219 l 0,-3.675781 a 2.0002,2.0002 0 0 0 -2,-2 l 0,-12 a 2.0002,2.0002 0 0 0 -2,-2 l -8,0 z m -19,4 0.375,0 c 2.817426,0 4.016985,0.501685 4.615234,1.173828 C 16.588483,20.845486 17,22.299035 17,24.999515 c 0,2.718104 -0.413044,4.16993 -1.007812,4.835938 -0.594771,0.666007 -1.796094,1.164062 -4.617188,1.164062 l -0.375,0 0,-12 z m 21,0 4,0 0,10 -4,0 0,-10 z"/>
 <path fill="#fff" style="opacity:0.1" d="m6 4c-1.108 0-2 0.892-2 2v1c0-1.108 0.892-2 2-2h36c1.108 0 2 0.892 2 2v-1c0-1.108-0.892-2-2-2h-36z"/>
 <path opacity=".2" d="m6 45c-1.108 0-2-0.892-2-2v-1c0 1.108 0.892 2 2 2h36c1.108 0 2-0.892 2-2v1c0 1.108-0.892 2-2 2h-36z"/>
 <path style="fill:none;stroke:#8b9cbe;stroke-width:4;stroke-linecap:round;stroke-linejoin:round" d="m 9,15.999761 0,16.000491 c 0,0 1.5,3.6e-5 2.375,3.6e-5 6.125,0 7.625,-2.217916 7.625,-8.000018 0,-5.748855 -1.5,-8.000473 -7.625,-8.000473 -0.875,0 -2.375,-3.6e-5 -2.375,-3.6e-5 z"/>
 <path style="fill:none;stroke:#17191e;stroke-width:4;stroke-linecap:round;stroke-linejoin:round" d="m 30,30 0,-14 8,0 0,14 z"/>
 <path style="fill:none;stroke:#17191e;stroke-width:4;stroke-linecap:round;stroke-linejoin:round" d="m 28,33.999515 0,-4.000485 12,0 0,4.000485 0,0"/>
</svg>
