<svg xmlns="http://www.w3.org/2000/svg" width="48" height="48" version="1">
 <rect style="fill:#bc5ae7" width="40" height="40" x="4" y="4" rx="2" ry="2"/>
 <path style="opacity:0.2;fill:#8b9cbe" d="M 4,7 4,6 C 4,4.892 4.892,4 6,4 l 36,0 c 1.108,0 2,0.892 2,2 l 0,1 C 44,5.892 43.108,5 42,5 L 6,5 C 4.892,5 4,5.892 4,7 Z"/>
 <path style="opacity:0.2" d="m 4,42 0,1 c 0,1.108 0.892,2 2,2 l 36,0 c 1.108,0 2,-0.892 2,-2 l 0,-1 c 0,1.108 -0.892,2 -2,2 L 6,44 C 4.892,44 4,43.108 4,42 Z"/>
 <path style="opacity:0.2;fill:none;stroke:#000000;stroke-width:2.99981117;stroke-linecap:round;stroke-linejoin:bevel" d="m 15.499678,18.49929 -4e-6,8.999434 c 0,2.260291 -1.573137,3.037063 -2.999807,3.000056 -1.337003,0.0053 -2.9998154,-0.711322 -2.9998154,-3.000056 l 4e-6,-8.999434"/>
 <path style="fill:none;stroke:#8b9cbe;stroke-width:2.99981117;stroke-linecap:round;stroke-linejoin:bevel" d="m 15.499678,17.49929 -4e-6,8.999434 c 0,2.260291 -1.573137,3.037063 -2.999807,3.000056 -1.337003,0.0053 -2.9998154,-0.711322 -2.9998154,-3.000056 l 4e-6,-8.999434"/>
 <path style="opacity:0.2;fill:none;stroke:#000000;stroke-width:2.99981117;stroke-linecap:round" d="m 25.520832,30.478585 -2.999811,-4.499963 m -2.999887,-1.499905 c 0,0 5.999698,0.677849 5.999698,-2.999812 0,-3.677664 -5.999698,-2.999883 -5.999698,-2.999883 m 1.47e-4,11.99971 0,-11.999562"/>
 <path style="fill:none;stroke:#8b9cbe;stroke-width:2.99981117;stroke-linecap:round" d="m 25.520832,29.478585 -2.999811,-4.499963 m -2.999887,-1.499905 c 0,0 5.999698,0.677849 5.999698,-2.999812 0,-3.677664 -5.999698,-2.999883 -5.999698,-2.999883 m 1.47e-4,11.99971 0,-11.999562"/>
 <path style="opacity:0.2;fill:none;stroke:#000000;stroke-width:2.99981117;stroke-linecap:round;stroke-linejoin:round" d="m 38.512217,30.478732 0,-11.99949 m -8.999434,0 4.499717,5.999622 4.499717,-5.999622 m -8.999434,11.99949 0,-11.99949"/>
 <path style="fill:none;stroke:#8b9cbe;stroke-width:2.99981117;stroke-linecap:round;stroke-linejoin:round" d="m 38.512217,29.478732 0,-11.99949 m -8.999434,0 4.499717,5.999622 4.499717,-5.999622 m -8.999434,11.99949 0,-11.99949"/>
</svg>
