<svg xmlns="http://www.w3.org/2000/svg" width="48" height="48" version="1">
 <rect opacity=".2" width="40" height="40" x="4" y="5" rx="20" ry="20"/>
 <rect style="fill:#17191e" width="40" height="40" x="4" y="4" rx="20" ry="20"/>
 <path style="opacity:0.2" d="m 11,20.000422 h 3 v 6.540241 l 1,0.528169 v 5.93159 l -4,-2.313883 z"/>
 <path style="fill:#137fb0" d="m 11,19 h 3 v 6.540241 l 1,0.528169 V 32 l -4,-2.313883 z"/>
 <path fill="#fff" opacity=".1" d="m24 4c-11.08 0-20 8.92-20 20 0 0.168 0.0076 0.333 0.0117 0.5 0.2647-10.846 9.0763-19.5 19.988-19.5s19.724 8.654 19.988 19.5c0.004-0.167 0.012-0.332 0.012-0.5 0-11.08-8.92-20-20-20z"/>
 <path style="opacity:0.2" d="M 11,15.25425 28.400391,25.301125 23.986328,27.848 11,20.349953 Z"/>
 <path style="fill:#0ea3e7" d="M 11,14.253906 28.400391,24.300781 23.986328,26.847656 11,19.349609 Z"/>
 <path style="opacity:0.2" d="m 17,28.000422 v 4.599609 l 7,4.041016 3.984375,-2.298828 z"/>
 <path style="opacity:0.2" d="M 31,28.000422 20.015625,34.342219 24,36.643 31,32.600031 Z"/>
 <path style="fill:#0ea3e7" d="M 31,27 20.015625,33.341797 24,35.642578 31,31.599609 Z"/>
 <path style="fill:#35cfee" d="m 17,27 v 4.599609 l 7,4.041016 3.984375,-2.298828 z"/>
 <path style="opacity:0.2" d="m 37,20.000422 h -3 v 6.540241 l -1,0.528169 v 5.93159 l 4,-2.313883 z"/>
 <path style="fill:#229eb5" d="m 37,19 h -3 v 6.540241 L 33,26.06841 V 32 l 4,-2.313883 z"/>
 <path style="opacity:0.2" d="M 37,15.25425 19.599609,25.301125 24.013672,27.848 37,20.349953 Z"/>
 <path style="fill:#35cfee" d="M 37 14.253906 L 19.599609 24.300781 L 24.013672 26.847656 L 37 19.349609 L 37 14.253906 z"/>
</svg>
