<svg xmlns="http://www.w3.org/2000/svg" width="48" height="48" version="1">
 <rect style="opacity:0.2" width="40" height="40" x="4" y="5" rx="2" ry="2"/>
 <rect style="fill:#b2bfd9" width="40" height="40" x="4" y="4" rx="2" ry="2"/>
 <path style="opacity:0.2;fill:#8b9cbe" d="M 6 4 C 4.892 4 4 4.892 4 6 L 4 7 C 4 5.892 4.892 5 6 5 L 42 5 C 43.108 5 44 5.892 44 7 L 44 6 C 44 4.892 43.108 4 42 4 L 6 4 z"/>
 <path style="opacity:0.1" d="M 27.65,17.532 26.789,21.823 32,25.079 25.297,29.268 24.147,35 39.001,25.098 Z"/>
 <path style="fill:#4b8adf" d="M 27.65,16.532 26.789,20.823 32,24.079 25.297,28.268 24.147,34 39.001,24.098 Z"/>
 <path style="opacity:0.1" d="m 24,15.102 -15,10 11.514,7.676 0.869,-4.332 -5.383,-3.363 6.926,-4.328 1.125,-5.617 z"/>
 <path style="fill:#483c8f" d="m 24,14.102 -15,10 11.514,7.676 0.869,-4.332 -5.383,-3.363 6.926,-4.328 1.125,-5.617 z"/>
</svg>
