<svg xmlns="http://www.w3.org/2000/svg" width="48" height="48" version="1">
 <path style="opacity:0.2" d="m 4,33 v 0 8 c 0,1.108 0.892,2 2,2 h 36 c 1.108,0 2,-0.892 2,-2 v -8 0 z"/>
 <path style="fill:#17191e" d="m 4,31.9 v 0 8.1 c 0,1.108 0.892,2 2,2 h 36 c 1.108,0 2,-0.892 2,-2 v -8.1 0 z"/>
 <path style="fill:#ffaa3b" d="M 6,6 C 4.892,6 4,6.892 4,8 V 31.9 H 44 V 8 C 44,6.892 43.108,6 42,6 Z"/>
 <path style="fill:#603e3f" d="m 33,10 -5,9 -6,-3 -8,6 -4,-1 -3,3 -3,0.976562 V 32 H 44 V 14.826172 L 42,12 39,15 Z"/>
 <rect style="opacity:0.2" width="40" height="1" x="4" y="32"/>
 <path style="opacity:0.2;fill:#8b9cbe" d="M 6 6 C 4.892 6 4 6.892 4 8 L 4 9 C 4 7.892 4.892 7 6 7 L 42 7 C 43.108 7 44 7.892 44 9 L 44 8 C 44 6.892 43.108 6 42 6 L 6 6 z"/>
 <path style="opacity:0.2" d="M 33 10 L 28 19 L 22 16 L 14 22 L 10 21 L 7 24 L 4 24.976562 L 4 25.976562 L 7 25 L 10 22 L 14 23 L 22 17 L 28 20 L 33 11 L 39 16 L 42 13 L 44 15.826172 L 44 14.826172 L 42 12 L 39 15 L 33 10 z"/>
 <rect style="opacity:0.3" width="28" height="2" x="10" y="36" rx="1" ry="1"/>
 <circle style="opacity:0.2" cx="29" cy="38" r="3"/>
 <circle style="fill:#8b9cbe" cx="29" cy="37" r="3"/>
</svg>
