<svg xmlns="http://www.w3.org/2000/svg" width="48" height="48" version="1">
 <rect style="opacity:0.2" width="36" height="40" x="-42" y="5" rx="2" ry="2" transform="scale(-1,1)"/>
 <rect style="fill:#b2bfd9" width="36" height="40" x="-42" y="4" rx="2" ry="2" transform="scale(-1,1)"/>
 <path style="fill:#2b629b" d="m 38,8.0000004 -28,0 L 10,22 38,22 Z"/>
 <circle style="fill:#ff9600" cx="24" cy="22" r="5"/>
 <path style="fill:#0c939f" d="M 10 22 L 10 36 L 38 36 L 38 22 L 10 22 z"/>
 <path style="opacity:0.2" d="M 19 23 C 19 23 19.932433 24.327658 20 25.289062 C 20.06053 26.14959 18.98063 26.745094 19 27.609375 C 19.02472 28.712023 20.913875 29.110416 21 30.207031 C 21.06669 31.053938 19.967671 32.002732 20 32.853516 C 20.04378 34.006249 21.341414 34.377401 21.898438 35.228516 C 22.007192 35.394681 22.153477 35.710082 22.291016 36 L 26.841797 36 C 26.943066 35.832548 27.007629 35.662613 27 35.505859 C 26.93803 34.234519 26.027257 34.258101 26 32.984375 C 25.98374 32.218225 26.870445 32.414662 27 31.669922 C 27.144056 30.841723 25.843248 30.018984 26 29.195312 C 26.222185 28.027957 28.89068 28.151492 29 26.953125 C 29.07613 26.119275 27.95444 25.740547 28 24.902344 C 28.04789 24.017883 29 23 29 23 L 19 23 z"/>
 <path style="fill:#fded63" d="m 19,22 c 0,0 0.932433,1.328398 1,2.289803 0.06053,0.860527 -1.01937,1.455934 -1,2.320215 0.02472,1.102648 1.913875,1.500894 2,2.597509 0.06669,0.846907 -1.032329,1.794776 -1,2.64556 0.04378,1.152733 1.341623,1.52379 1.898647,2.374905 C 22.196486,34.683059 22.750003,36 22.750003,36 l 3.124996,0 c 0,0 1.155995,-0.857891 1.125001,-1.494699 -0.06197,-1.27134 -0.972743,-1.246458 -1,-2.520184 -0.01626,-0.76615 0.870445,-0.570037 1,-1.314777 0.144056,-0.828199 -1.156752,-1.651203 -1,-2.474875 0.222185,-1.167355 2.89068,-1.044479 3,-2.242846 0.07613,-0.83385 -1.04556,-1.211307 -1,-2.04951 C 28.04789,23.018648 29,22 29,22 Z"/>
 <path style="fill:#8b9cbe;opacity:0.2" d="M 8 4 C 6.892 4 6 4.892 6 6 L 6 7 C 6 5.892 6.892 5 8 5 L 40 5 C 41.108 5 42 5.892 42 7 L 42 6 C 42 4.892 41.108 4 40 4 L 8 4 z"/>
 <path style="opacity:0.2" d="m 12.530737,12.339499 c 0,0 0.774044,-1.82237 1.721385,-2.016288 0.794139,-0.162555 2.309171,0.890905 2.309171,0.890905 0,0 1.417843,-1.4789515 2.435138,-1.172246 0.713948,0.215233 1.427511,1.734921 1.427511,1.734921 0,0 2.181677,0.06102 2.519091,1.078482 0.325672,0.982158 -0.811549,2.231404 -1.721383,2.485197 -0.893349,0.249197 -2.141244,-0.468926 -2.141244,-0.468926 0,0 -0.99581,1.060909 -1.721379,1.125386 -0.819317,0.07277 -2.39315,-1.172273 -2.39315,-1.172273 0,0 -1.154434,1.230834 -2.183232,0.984723 -0.927829,-0.222001 -2.059802,-1.542041 -1.721388,-2.532083 0.183051,-0.535542 1.46948,-0.937798 1.46948,-0.937798 z"/>
 <path style="fill:#8b9cbe" d="m 12.530737,11.339499 c 0,0 0.774044,-1.8223702 1.721385,-2.0162882 0.794139,-0.162555 2.309171,0.8909052 2.309171,0.8909052 0,0 1.417843,-1.4789515 2.435138,-1.1722462 0.713948,0.215233 1.427511,1.7349212 1.427511,1.7349212 0,0 2.181677,0.06102 2.519091,1.078482 0.325672,0.982158 -0.811549,2.231404 -1.721383,2.485197 -0.893349,0.249197 -2.141244,-0.468926 -2.141244,-0.468926 0,0 -0.99581,1.060909 -1.721379,1.125386 -0.819317,0.07277 -2.39315,-1.172273 -2.39315,-1.172273 0,0 -1.154434,1.230834 -2.183232,0.984723 -0.927829,-0.222001 -2.059802,-1.542041 -1.721388,-2.532083 0.183051,-0.535542 1.46948,-0.937798 1.46948,-0.937798 z"/>
 <path style="opacity:0.2" d="m 29.796054,11.051907 c -0.691785,0.210924 -1.368101,1.761988 -1.368101,1.761988 0,0 -1.808674,-0.265537 -2.204156,0.400458 -0.531654,0.895291 -0.06152,2.573696 0.836059,3.043422 0.632108,0.33077 1.976147,-0.800894 1.976147,-0.800894 0,0 1.462066,1.755274 2.356163,1.52172 0.771778,-0.201623 1.292084,-1.541744 1.292084,-1.541744 0,0 1.336307,1.324963 2.204159,0.880995 1.266717,-0.648048 1.477786,-3.283299 0.494052,-4.344905 -0.588381,-0.634947 -2.166165,0.280315 -2.166165,0.280315 0,0 -2.265851,-1.553334 -3.420242,-1.201355 z"/>
 <path style="fill:#8b9cbe" d="m 29.796054,10.051907 c -0.691785,0.210924 -1.368101,1.761988 -1.368101,1.761988 0,0 -1.808674,-0.265537 -2.204156,0.400458 -0.531654,0.895291 -0.06152,2.573696 0.836059,3.043422 0.632108,0.33077 1.976147,-0.800894 1.976147,-0.800894 0,0 1.462066,1.755274 2.356163,1.52172 0.771778,-0.201623 1.292084,-1.541744 1.292084,-1.541744 0,0 1.336307,1.324963 2.204159,0.880995 1.266717,-0.648048 1.477786,-3.283299 0.494052,-4.344905 -0.588381,-0.634947 -2.166165,0.280315 -2.166165,0.280315 0,0 -2.265851,-1.5533343 -3.420242,-1.201355 z"/>
 <path style="opacity:0.2;fill:#8b9cbe" d="M 24 17 A 5 5 0 0 0 19 22 A 5 5 0 0 0 19.027344 22.484375 A 5 5 0 0 1 24 18 A 5 5 0 0 1 28.972656 22.515625 A 5 5 0 0 0 29 22 A 5 5 0 0 0 24 17 z"/>
 <path style="fill:#8b9cbe;opacity:0.1" d="M 10 22 L 10 23 L 38 23 L 38 22 L 10 22 z"/>
</svg>
