<svg xmlns="http://www.w3.org/2000/svg" width="48" height="48" version="1.1">
 <path style="opacity:0.2" d="m 24,5 a 7,7 0 0 0 -7,7 7,7 0 0 0 7,7 7,7 0 0 0 7,-7 7,7 0 0 0 -7,-7 z M 11,18 a 7,7 0 0 0 -7,7 7,7 0 0 0 7,7 7,7 0 0 0 7,-7 7,7 0 0 0 -7,-7 z m 26,0 a 7,7 0 0 0 -7,7 7,7 0 0 0 7,7 7,7 0 0 0 7,-7 7,7 0 0 0 -7,-7 z M 24,31 a 7,7 0 0 0 -7,7 7,7 0 0 0 7,7 7,7 0 0 0 7,-7 7,7 0 0 0 -7,-7 z"/>
 <path style="fill:#8685b9" d="m 31,11 a 7,7 0 0 1 -7,7 7,7 0 0 1 -7,-7 7,7 0 0 1 7,-7 7,7 0 0 1 7,7 z"/>
 <path style="fill:#6560e0" d="m 31,37 a 7,7 0 0 1 -7,7 7,7 0 0 1 -7,-7 7,7 0 0 1 7,-7 7,7 0 0 1 7,7 z"/>
 <path style="fill:#6560e0" d="m 37,31 a 7,7 0 0 1 -7,-7 7,7 0 0 1 7,-7 7,7 0 0 1 7,7 7,7 0 0 1 -7,7 z"/>
 <path style="fill:#8685b9" d="m 11,31 a 7,7 0 0 1 -7,-7 7,7 0 0 1 7,-7 7,7 0 0 1 7,7 7,7 0 0 1 -7,7 z"/>
 <path style="fill:#8b9cbe;opacity:0.1" d="M 37 17 A 7 7 0 0 0 30 24 A 7 7 0 0 0 30.023438 24.458984 A 7 7 0 0 1 37 18 A 7 7 0 0 1 43.976562 24.541016 A 7 7 0 0 0 44 24 A 7 7 0 0 0 37 17 z M 24 30 A 7 7 0 0 0 17 37 A 7 7 0 0 0 17.023438 37.458984 A 7 7 0 0 1 24 31 A 7 7 0 0 1 30.976562 37.541016 A 7 7 0 0 0 31 37 A 7 7 0 0 0 24 30 z"/>
 <path style="fill:#8b9cbe;opacity:0.2" d="M 24 4 A 7 7 0 0 0 17 11 A 7 7 0 0 0 17.023438 11.458984 A 7 7 0 0 1 24 5 A 7 7 0 0 1 30.976562 11.541016 A 7 7 0 0 0 31 11 A 7 7 0 0 0 24 4 z M 11 17 A 7 7 0 0 0 4 24 A 7 7 0 0 0 4.0234375 24.458984 A 7 7 0 0 1 11 18 A 7 7 0 0 1 17.976562 24.541016 A 7 7 0 0 0 18 24 A 7 7 0 0 0 11 17 z"/>
</svg>
