<svg xmlns="http://www.w3.org/2000/svg" width="48" height="48" version="1">
 <path style="fill:#23c2c2" d="m 13.9,8 0,32 28.1,0 c 1.108,0 2,-0.892 2,-2 L 44,10 C 44,8.892 43.108,8 42,8 Z"/>
 <path style="fill:#b2bfd9" d="M 6,8 C 4.892,8 4,8.892 4,10 l 0,28 c 0,1.108 0.892,2 2,2 l 8,0 0,-32 z"/>
 <path style="opacity:0.2;fill:#8b9cbe" d="M 6,8 C 4.892,8 4,8.892 4,10 l 0,1 C 4,9.892 4.892,9 6,9 l 36,0 c 1.108,0 2,0.892 2,2 l 0,-1 C 44,8.892 43.108,8 42,8 L 6,8 Z"/>
 <path style="opacity:0.2" d="m 4,38 0,1 c 0,1.108 0.892,2 2,2 l 36,0 c 1.108,0 2,-0.892 2,-2 l 0,-1 c 0,1.108 -0.892,2 -2,2 L 6,40 C 4.892,40 4,39.108 4,38 Z"/>
 <circle style="fill:#17191e" cx="29" cy="24" r="10"/>
 <g style="opacity:0.2" transform="matrix(0.8988764,0,0,0.8707483,21.359903,17.571429)">
  <g transform="translate(-293.0004,-128)">
   <path d="M 304.9375,131.9375 300,136.875 l -1.9375,-1.9375 -2.125,2.125 3,3 1.0625,1.0625 1.0625,-1.0625 6,-6 -2.125,-2.125 z"/>
  </g>
 </g>
 <g style="fill:#8b9cbe" transform="matrix(0.8988764,0,0,0.8707483,21.359903,16.571429)">
  <g style="fill:#8b9cbe" transform="translate(-293.0004,-128)">
   <path style="fill:#8b9cbe" d="M 304.9375,131.9375 300,136.875 l -1.9375,-1.9375 -2.125,2.125 3,3 1.0625,1.0625 1.0625,-1.0625 6,-6 -2.125,-2.125 z"/>
  </g>
 </g>
 <rect style="opacity:0.1" width="1" height="32" x="14" y="8"/>
</svg>
