<svg xmlns="http://www.w3.org/2000/svg" width="48" height="48" version="1.1">
 <circle style="opacity:0.2" cx="24" cy="25" r="20"/>
 <path style="fill:#a9ca4b" d="M 24 4 A 20 20 0 0 0 4 24 A 20 20 0 0 0 5.6953125 32 L 42.320312 32 A 20 20 0 0 0 44 24 A 20 20 0 0 0 24 4 z"/>
 <path style="opacity:0.2;fill:#8b9cbe" d="M 24,4 A 20,20 0 0 0 4,24 20,20 0 0 0 4.0215,24.582 20,20 0 0 1 24,5 20,20 0 0 1 43.979,24.418 20,20 0 0 0 44,24 20,20 0 0 0 24,4 Z"/>
 <path style="fill:#5a8730" d="M 5.6953125 32 A 20 20 0 0 0 24 44 A 20 20 0 0 0 42.320312 32 L 5.6953125 32 z"/>
 <g style="opacity:0.2" transform="matrix(-6.7524794,5.6163017,5.8341969,6.5002883,1106.0734,-2939.1023)">
  <g transform="matrix(-0.820668,0.571405,0.571405,0.820668,471.332,-148.098)">
   <path transform="matrix(0.11574468,0.0121224,-0.0121224,0.11574468,312.34126,179.67933)" d="m 11.072266,32 c 0.581474,0.780169 3.27267,4.270739 4.849609,3.984375 C 17.144083,35.762586 16.845865,32.833951 16.738281,32 Z"/>
  </g>
 </g>
 <g transform="matrix(-6.7524794,5.6163017,5.8341969,6.5002883,1106.0734,-2940.1023)">
  <g transform="matrix(-0.820668,0.571405,0.571405,0.820668,471.332,-148.098)">
   <path style="fill:#8b9cbe" transform="matrix(0.11574468,0.0121224,-0.0121224,0.11574468,312.34126,179.67933)" d="m 11.072266,32 c 0.581474,0.780169 3.27267,4.270739 4.849609,3.984375 C 17.144083,35.762586 16.845865,32.833951 16.738281,32 Z"/>
  </g>
 </g>
 <g style="opacity:0.1" transform="matrix(1.2,0,0,1.2,6.8122763,11.993564)">
  <g transform="matrix(0.300126,0,0,0.1287939,-28.672113,-2.6773104)">
   <ellipse cx="172.5" cy="115" rx="8.5" ry="17" transform="matrix(0.9799806,0,0,1.1418151,4.7533844,-19.895539)"/>
  </g>
 </g>
 <g style="fill:#17191e" transform="matrix(1.2,0,0,1.2,6.8122763,10.993564)">
  <g style="fill:#17191e" transform="matrix(0.300126,0,0,0.1287939,-28.672113,-2.6773104)">
   <ellipse style="fill:#17191e" cx="172.5" cy="115" rx="8.5" ry="17" transform="matrix(0.9799806,0,0,1.1418151,4.7533844,-19.895539)"/>
  </g>
 </g>
 <g style="opacity:0.1" transform="matrix(1.2,0,0,1.2,-16.397807,11.993564)">
  <g transform="matrix(0.300126,0,0,0.1287939,-28.672113,-2.6773104)">
   <ellipse cx="172.5" cy="115" rx="8.5" ry="17" transform="matrix(0.9799806,0,0,1.1418151,8.1132233,-19.895539)"/>
  </g>
 </g>
 <g style="fill:#17191e" transform="matrix(1.2,0,0,1.2,-16.397807,10.993564)">
  <g style="fill:#17191e" transform="matrix(0.300126,0,0,0.1287939,-28.672113,-2.6773104)">
   <ellipse style="fill:#17191e" cx="172.5" cy="115" rx="8.5" ry="17" transform="matrix(0.9799806,0,0,1.1418151,8.1132233,-19.895539)"/>
  </g>
 </g>
 <g style="opacity:0.1" transform="matrix(-3.2412482,1.6398686,1.6398686,3.2412482,761.5187,-1063.5896)">
  <path d="m 317.56868,170.64923 c -0.50716,0.60775 0.94601,1.4143 1.34518,0.64672 0.44663,-0.85884 -0.0474,-2.02942 -0.56597,-2.54579 -0.11396,-0.11371 -0.36282,0.013 -0.33031,0.15591 0.1368,0.60141 -0.11676,1.34518 -0.4489,1.74316 z"/>
 </g>
 <g style="fill:#4f4f4f" transform="matrix(-3.2412482,1.6398686,1.6398686,3.2412482,761.5187,-1064.5896)">
  <path style="fill:#4f4f4f" d="m 317.56868,170.64923 c -0.50716,0.60775 0.94601,1.4143 1.34518,0.64672 0.44663,-0.85884 -0.0474,-2.02942 -0.56597,-2.54579 -0.11396,-0.11371 -0.36282,0.013 -0.33031,0.15591 0.1368,0.60141 -0.11676,1.34518 -0.4489,1.74316 z"/>
 </g>
 <g style="opacity:0.1" transform="matrix(3.2412482,1.6398686,-1.6398686,3.2412482,-713.5187,-1063.5896)">
  <path d="m 317.56868,170.64923 c -0.50716,0.60775 0.94601,1.4143 1.34518,0.64672 0.44663,-0.85884 -0.0474,-2.02942 -0.56597,-2.54579 -0.11396,-0.11371 -0.36282,0.013 -0.33031,0.15591 0.1368,0.60141 -0.11676,1.34518 -0.4489,1.74316 z"/>
 </g>
 <g style="fill:#4f4f4f" transform="matrix(3.2412482,1.6398686,-1.6398686,3.2412482,-713.5187,-1064.5896)">
  <path style="fill:#4f4f4f" d="m 317.56868,170.64923 c -0.50716,0.60775 0.94601,1.4143 1.34518,0.64672 0.44663,-0.85884 -0.0474,-2.02942 -0.56597,-2.54579 -0.11396,-0.11371 -0.36282,0.013 -0.33031,0.15591 0.1368,0.60141 -0.11676,1.34518 -0.4489,1.74316 z"/>
 </g>
 <g style="opacity:0.2" transform="matrix(6.7524794,5.6163017,-5.8341969,6.5002883,-1058.0734,-2939.1023)">
  <g transform="matrix(-0.820668,0.571405,0.571405,0.820668,471.332,-148.098)">
   <path transform="matrix(0.11574468,0.0121224,-0.0121224,0.11574468,312.34126,179.67933)" d="m 11.072266,32 c 0.581474,0.780169 3.27267,4.270739 4.849609,3.984375 C 17.144083,35.762586 16.845865,32.833951 16.738281,32 Z"/>
  </g>
 </g>
 <g transform="matrix(6.7524794,5.6163017,-5.8341969,6.5002883,-1058.0734,-2940.1023)">
  <g transform="matrix(-0.820668,0.571405,0.571405,0.820668,471.332,-148.098)">
   <path style="fill:#8b9cbe" transform="matrix(0.11574468,0.0121224,-0.0121224,0.11574468,312.34126,179.67933)" d="m 11.072266,32 c 0.581474,0.780169 3.27267,4.270739 4.849609,3.984375 C 17.144083,35.762586 16.845865,32.833951 16.738281,32 Z"/>
  </g>
 </g>
 <path style="opacity:0.2" d="M 5.6953125 32 A 20 20 0 0 0 6.1933594 33 L 41.847656 33 A 20 20 0 0 0 42.320312 32 L 5.6953125 32 z"/>
 <g style="fill:#8b9cbe;opacity:0.1" transform="matrix(-3.2412482,1.6398686,1.6398686,3.2412482,761.5187,-1064.5896)">
  <path style="fill:#8b9cbe" transform="matrix(-0.24564478,0.12428087,0.12428087,0.24564478,319.37122,166.86867)" d="M 7.0859375 4 C 6.7933508 4.0042151 6.4937953 4.142201 6.4023438 4.4199219 C 6.1165314 5.2848858 5.9808947 6.3993208 6.0214844 7.5664062 C 6.0681102 6.7733422 6.1995552 6.0336281 6.4023438 5.4199219 C 6.5852469 4.8644801 7.599535 4.8682467 7.7285156 5.3847656 C 8.2713462 7.5584187 10.313786 9.551589 12.042969 10.296875 C 12.534687 10.508834 12.815644 10.856994 12.933594 11.267578 C 13.114574 10.448188 12.902273 9.6672851 12.042969 9.296875 C 10.313786 8.551589 8.2713462 6.5584187 7.7285156 4.3847656 C 7.6640253 4.1265062 7.3785242 3.9957849 7.0859375 4 z"/>
 </g>
 <g style="fill:#8b9cbe;opacity:0.1" transform="matrix(3.2412482,1.6398686,-1.6398686,3.2412482,-713.5187,-1064.5896)">
  <path style="fill:#8b9cbe" transform="matrix(0.24564478,-0.12428087,0.12428087,0.24564478,307.58027,172.83415)" d="M 40.914062 4 C 40.621476 3.9957849 40.335975 4.1265062 40.271484 4.3847656 C 39.728654 6.5584187 37.686214 8.551589 35.957031 9.296875 C 35.097727 9.6672851 34.885426 10.448188 35.066406 11.267578 C 35.184356 10.856994 35.465313 10.508834 35.957031 10.296875 C 37.686214 9.551589 39.728654 7.5584187 40.271484 5.3847656 C 40.400465 4.8682467 41.414753 4.8644801 41.597656 5.4199219 C 41.800445 6.0336281 41.93189 6.7733422 41.978516 7.5664062 C 42.019105 6.3993208 41.883469 5.2848858 41.597656 4.4199219 C 41.506205 4.142201 41.206649 4.0042151 40.914062 4 z"/>
 </g>
</svg>
