<svg xmlns="http://www.w3.org/2000/svg" width="48" height="48" version="1.1">
 <circle style="opacity:0.2" cx="24" cy="25" r="20"/>
 <circle style="fill:#455a64" cx="24" cy="24" r="20"/>
 <path style="opacity:0.2" d="m 26.316138,16.026205 c -0.949538,-0.125972 -1.964318,0.205704 -2.65449,0.92 0.1834,0.386239 1.305679,0.194507 1.710349,0.733077 0.602642,0.519102 1.639079,1.656909 0.867232,2.44242 -3.001306,2.934133 -6.625175,6.535247 -9.607344,9.49336 -0.543923,0.686866 -1.487092,1.142858 -1.631885,2.09831 0.177842,0.952028 1.009955,1.632779 1.670776,2.205948 0.295228,0.158835 0.698638,0.07392 0.930657,-0.173853 3.954957,-4.227042 6.755527,-7.777866 10.37411,-11.833642 0.443369,-0.38231 1.203702,-0.343128 1.191403,0.457875 -0.500349,0.870383 0.765933,1.381286 1.166923,2.021174 0.460526,0.341408 0.778336,-0.323266 1.116452,-0.566286 C 31.948019,23.163884 32.976744,22.751129 33,21.815286 32.429906,21.24614 31.957298,19.849907 31.094899,20.210771 30.238933,19.815792 30.59666,18.37367 29.686461,17.880482 28.968137,17.286388 28.035667,17.1499 27.377545,16.38879 27.04932,16.194852 26.687697,16.0755 26.316138,16.026205 Z"/>
 <path style="fill:#00ad9a" d="m 26.316138,15.026206 c -0.949538,-0.125972 -1.964318,0.205704 -2.65449,0.92 0.1834,0.386239 1.305679,0.194507 1.710349,0.733077 0.602642,0.519102 1.639079,1.656909 0.867232,2.44242 -3.001306,2.934133 -6.625175,6.535247 -9.607344,9.49336 -0.543923,0.686866 -1.487092,1.142858 -1.631885,2.09831 0.177842,0.952028 1.009955,1.632779 1.670776,2.205948 0.295228,0.158835 0.698638,0.07392 0.930657,-0.173853 3.954957,-4.227042 6.755527,-7.777866 10.37411,-11.833642 0.443369,-0.38231 1.203702,-0.343128 1.191403,0.457875 -0.500349,0.870383 0.765933,1.381286 1.166923,2.021174 0.460526,0.341408 0.778336,-0.323266 1.116452,-0.566286 C 31.948019,22.163885 32.976744,21.75113 33,20.815287 32.429906,20.246141 31.957298,18.849908 31.094899,19.210772 30.238933,18.815793 30.59666,17.373671 29.686461,16.880483 28.968137,16.286389 28.035667,16.149901 27.377545,15.388791 27.04932,15.194853 26.687697,15.075501 26.316138,15.026206 Z"/>
 <path style="opacity:0.2" d="m 18.318717,16.00094 c -0.300582,0.0051 -0.600008,0.02908 -0.887965,0.05741 -1.366994,0.08525 -0.515943,1.103723 0.318233,1.306846 1.366293,0.389765 1.358647,1.941227 0.546962,2.915161 -0.742782,1.261249 -1.858766,0.06298 -2.725242,-0.349616 -1.291773,-0.214141 -0.0441,1.580664 0.36647,2.020602 0.615366,0.951536 1.662696,1.407933 2.739648,1.243784 1.352034,-0.193545 2.302892,0.958432 3.195342,1.826838 2.514148,2.343712 5.073382,4.908193 7.602556,7.479475 0.37181,0.318261 0.777839,0.681204 1.064082,1.088407 1.389444,1.305141 3.461423,-0.776134 1.909317,-2.443402 -3.214653,-2.96043 -6.517965,-6.368988 -9.488287,-9.266302 -0.486143,-0.476125 -0.94007,-0.97957 -1.250408,-1.599396 -0.524672,-1.086712 0.03483,-2.53849 -0.937783,-3.408543 -0.639567,-0.729264 -1.551176,-0.88618 -2.452925,-0.871264 z"/>
 <path style="fill:#1092ff" d="m 18.318717,15.000941 c -0.300582,0.0051 -0.600008,0.02908 -0.887965,0.05741 -1.366994,0.08525 -0.515943,1.103723 0.318233,1.306846 1.366293,0.389765 1.358647,1.941227 0.546962,2.915161 -0.742782,1.261249 -1.858766,0.06298 -2.725242,-0.349616 -1.291773,-0.214141 -0.0441,1.580664 0.36647,2.020602 0.615366,0.951536 1.662696,1.407933 2.739648,1.243784 1.352034,-0.193545 2.302892,0.958432 3.195342,1.826838 2.514148,2.343712 5.073382,4.908193 7.602556,7.479475 0.37181,0.318261 0.777839,0.681204 1.064082,1.088407 1.389444,1.305141 3.461423,-0.776134 1.909317,-2.443402 -3.214653,-2.96043 -6.517965,-6.368988 -9.488287,-9.266302 -0.486143,-0.476125 -0.94007,-0.97957 -1.250408,-1.599396 -0.524672,-1.086712 0.03483,-2.53849 -0.937783,-3.408543 -0.639567,-0.729264 -1.551176,-0.88618 -2.452925,-0.871264 z"/>
 <path style="opacity:0.1;fill:#8b9cbe" d="M 24 4 A 20 20 0 0 0 4 24 A 20 20 0 0 0 4.0214844 24.582031 A 20 20 0 0 1 24 5 A 20 20 0 0 1 43.978516 24.417969 A 20 20 0 0 0 44 24 A 20 20 0 0 0 24 4 z"/>
</svg>
