<svg xmlns="http://www.w3.org/2000/svg" width="48" height="48" version="1.1">
 <g transform="translate(0,-1004.3622)">
  <path style="opacity:0.2" d="m 7.3144531,1018.3622 a 20,20 0 0 0 -3.3144531,11 20,20 0 0 0 20,20 20,20 0 0 0 20,-20 20,20 0 0 0 -3.308594,-11 l -33.3769529,0 z"/>
  <circle style="fill:#e96ca2" cx="24" cy="1025.362" r="17"/>
  <path style="opacity:0.2;fill:#8b9cbe" transform="translate(0,1004.3622)" d="M 24 4 A 17 17 0 0 0 7 21 A 17 17 0 0 0 7.0214844 21.580078 A 17 17 0 0 1 24 5 A 17 17 0 0 1 40.978516 21.419922 A 17 17 0 0 0 41 21 A 17 17 0 0 0 24 4 z"/>
  <path style="fill:#4f84be" transform="translate(0,1004.3622)" d="M 7.3144531 13 A 20 20 0 0 0 4 24 A 20 20 0 0 0 24 44 A 20 20 0 0 0 44 24 A 20 20 0 0 0 40.691406 13 L 7.3144531 13 z"/>
  <circle style="opacity:0.2" cx="30" cy="1031.362" r="7"/>
  <circle style="fill:#8b9cbe" cx="30" cy="1030.362" r="7"/>
  <circle style="opacity:0.2" cx="18" cy="1031.362" r="7"/>
  <circle style="fill:#8b9cbe" cx="18" cy="1030.362" r="7"/>
  <path style="opacity:0.2;fill-rule:evenodd" d="m 23.991825,1031.3621 0,0 c -0.343691,0 -0.693651,0.1257 -0.978655,0.4419 l -5.611871,4.6775 c -0.03259,0.036 -0.05875,0.074 -0.08725,0.1118 -0.0079,0.011 -0.01659,0.02 -0.02395,0.031 -0.07612,0.1068 -0.129878,0.2195 -0.176226,0.3356 -0.01786,0.045 -0.02867,0.092 -0.04277,0.1385 -0.02742,0.092 -0.05416,0.1827 -0.06501,0.277 -0.0091,0.068 -0.0052,0.1385 -0.0052,0.2086 5.78e-4,0.069 -0.0036,0.1395 0.0052,0.2086 0.01086,0.094 0.0376,0.1847 0.06501,0.2769 0.01402,0.047 0.02491,0.094 0.04277,0.1386 0.04634,0.1162 0.100119,0.2291 0.176226,0.3356 0.007,0.011 0.01632,0.02 0.02395,0.03 0.02848,0.037 0.05472,0.077 0.08725,0.1139 l 5.611871,6.2327 c 0.285002,0.3162 0.634964,0.4414 0.978655,0.4419 l 0,0 c 0.0023,0 0.0045,0 0.0068,0 0.0023,0 0.0045,0 0.0068,0 l 0,0 c 0.343854,-4e-4 0.693509,-0.1256 0.978654,-0.4419 l 5.615316,-6.2327 c 0.03255,-0.036 0.05877,-0.076 0.08725,-0.1138 0.0076,-0.011 0.01694,-0.019 0.02395,-0.03 0.07615,-0.1068 0.129781,-0.2196 0.176226,-0.3357 0.01779,-0.045 0.02875,-0.092 0.04277,-0.1385 0.02742,-0.092 0.05244,-0.1828 0.06331,-0.2769 0.0088,-0.069 0.0063,-0.1387 0.0068,-0.2087 0,-0.071 0.0022,-0.1396 -0.0068,-0.2086 -0.01086,-0.094 -0.03589,-0.1846 -0.06331,-0.2769 -0.01411,-0.047 -0.0249,-0.094 -0.04277,-0.1385 -0.04638,-0.1162 -0.100064,-0.2292 -0.176224,-0.3357 -0.0073,-0.011 -0.01606,-0.019 -0.02395,-0.03 -0.02852,-0.037 -0.05466,-0.076 -0.08725,-0.112 l -5.615293,-4.6773 c -0.285146,-0.3163 -0.634798,-0.4387 -0.978655,-0.4419 l 0,0 c -0.0023,0 -0.0045,0 -0.0068,0 -0.0023,0 -0.0045,0 -0.0068,0 z"/>
  <path style="fill:#fcb700;fill-rule:evenodd" d="m 23.991825,1030.3621 0,0 c -0.343691,0 -0.693651,0.1257 -0.978655,0.4419 l -5.611871,4.6775 c -0.03259,0.036 -0.05875,0.074 -0.08725,0.1118 -0.0079,0.011 -0.01659,0.02 -0.02395,0.031 -0.07612,0.1068 -0.129878,0.2195 -0.176226,0.3356 -0.01786,0.045 -0.02867,0.092 -0.04277,0.1385 -0.02742,0.092 -0.05416,0.1827 -0.06501,0.277 -0.0091,0.068 -0.0052,0.1385 -0.0052,0.2086 5.78e-4,0.069 -0.0036,0.1395 0.0052,0.2086 0.01086,0.094 0.0376,0.1847 0.06501,0.2769 0.01402,0.047 0.02491,0.094 0.04277,0.1386 0.04634,0.1162 0.100119,0.2291 0.176226,0.3356 0.007,0.011 0.01632,0.02 0.02395,0.03 0.02848,0.037 0.05472,0.077 0.08725,0.1139 l 5.611871,6.2327 c 0.285002,0.3162 0.634964,0.4414 0.978655,0.4419 l 0,0 c 0.0023,0 0.0045,0 0.0068,0 0.0023,0 0.0045,0 0.0068,0 l 0,0 c 0.343854,-4e-4 0.693509,-0.1256 0.978654,-0.4419 l 5.615316,-6.2327 c 0.03255,-0.036 0.05877,-0.076 0.08725,-0.1138 0.0076,-0.011 0.01694,-0.019 0.02395,-0.03 0.07615,-0.1068 0.129781,-0.2196 0.176226,-0.3357 0.01779,-0.045 0.02875,-0.092 0.04277,-0.1385 0.02742,-0.092 0.05244,-0.1828 0.06331,-0.2769 0.0088,-0.069 0.0063,-0.1387 0.0068,-0.2087 0,-0.071 0.0022,-0.1396 -0.0068,-0.2086 -0.01086,-0.094 -0.03589,-0.1846 -0.06331,-0.2769 -0.01411,-0.047 -0.0249,-0.094 -0.04277,-0.1385 -0.04638,-0.1162 -0.100064,-0.2292 -0.176224,-0.3357 -0.0073,-0.011 -0.01606,-0.019 -0.02395,-0.03 -0.02852,-0.037 -0.05466,-0.076 -0.08725,-0.112 l -5.615293,-4.6773 c -0.285146,-0.3163 -0.634798,-0.4387 -0.978655,-0.4419 l 0,0 c -0.0023,0 -0.0045,0 -0.0068,0 -0.0023,0 -0.0045,0 -0.0068,0 z"/>
  <circle style="opacity:0.6" cx="30" cy="1031.362" r="2"/>
  <circle style="opacity:0.6" cx="18" cy="1031.362" r="2"/>
 </g>
</svg>
