<svg xmlns="http://www.w3.org/2000/svg" width="48" height="48" version="1.1">
 <rect style="fill:#17191e" width="38" height="38" x="5" y="5" rx="1.226" ry="1.152"/>
 <path style="opacity:0.2;stroke:#808080;stroke-width:0;stroke-linecap:round;stroke-linejoin:round" d="M 5.0000019,5.00002 C 4.4460022,5.00002 4.0000017,5.446 4.0000017,6 l 0,9.99999 c 0,0.554 0.4460005,1.00003 1.0000002,1.00003 l 9.9999991,0 C 15.554,17.00002 16,16.55399 16,15.99999 L 16,6 C 16,5.446 15.554,5.00002 15.000001,5.00002 Z M 19,5.00002 C 18.446,5.00002 18,5.446 18,6 l 0,9.99999 c 0,0.554 0.446,1.00003 1,1.00003 l 9.999999,0 c 0.553999,0 0.999999,-0.44603 0.999999,-1.00003 l 0,-9.99999 c 0,-0.554 -0.446,-0.99998 -0.999999,-0.99998 z m 13.999998,0 c -0.554,0 -1,0.44598 -1,0.99998 l 0,9.99999 c 0,0.554 0.446,1.00003 1,1.00003 l 9.999998,0 c 0.553999,0 1.000002,-0.44603 1.000002,-1.00003 l 0,-9.99999 c 0,-0.554 -0.446003,-0.99998 -1.000002,-0.99998 z M 5.0000019,18.99999 c -0.5539997,0 -1.0000002,0.44602 -1.0000002,1.00002 l 0,9.99999 c 0,0.554 0.4460005,0.99999 1.0000002,0.99999 l 9.9999991,0 C 15.554,30.99999 16,30.554 16,30 l 0,-9.99999 c 0,-0.554 -0.446,-1.00002 -0.999999,-1.00002 z M 19,18.99999 c -0.554,0 -1,0.44602 -1,1.00002 L 18,30 c 0,0.554 0.446,0.99999 1,0.99999 l 9.999999,0 c 0.553999,0 0.999999,-0.44599 0.999999,-0.99999 l 0,-9.99999 c 0,-0.554 -0.446,-1.00002 -0.999999,-1.00002 z m 13.999998,0 c -0.554,0 -1,0.44602 -1,1.00002 l 0,9.99999 c 0,0.554 0.446,0.99999 1,0.99999 l 9.999998,0 c 0.553999,0 1.000002,-0.44599 1.000002,-0.99999 l 0,-9.99999 c 0,-0.554 -0.446003,-1.00002 -1.000002,-1.00002 z M 5.0000019,33 c -0.5539997,0 -1.0000002,0.44598 -1.0000002,0.99999 l 0,10.00002 c 0,0.554 0.4460005,0.99999 1.0000002,0.99999 l 9.9999991,0 C 15.554,45 16,44.55401 16,44.00001 L 16,33.99999 C 16,33.44598 15.554,33 15.000001,33 Z M 19,33 c -0.554,0 -1,0.44598 -1,0.99999 l 0,10.00002 C 18,44.55401 18.446,45 19,45 l 9.999999,0 c 0.553999,0 0.999999,-0.44599 0.999999,-0.99999 l 0,-10.00002 C 29.999998,33.44598 29.553998,33 28.999999,33 Z m 13.999998,0 c -0.554,0 -1,0.44598 -1,0.99999 l 0,10.00002 c 0,0.554 0.446,0.99999 1,0.99999 l 9.999998,0 c 0.553999,0 1.000002,-0.44599 1.000002,-0.99999 l 0,-10.00002 C 43.999998,33.44598 43.553995,33 42.999996,33 Z"/>
 <path style="fill:#b2bfd9;stroke:#808080;stroke-width:0;stroke-linecap:round;stroke-linejoin:round" d="m 5.0000019,3.99999 c -0.5539997,0 -0.9999998,0.44602 -0.9999998,1.00003 l 0,9.99998 c 0,0.55401 0.4460001,0.99999 0.9999998,0.99999 l 9.9999991,0 c 0.554,0 1,-0.44598 1,-0.99999 l 0,-9.99998 c 0,-0.55401 -0.446,-1.00003 -1,-1.00003 z"/>
 <path style="fill:#f57e26;stroke:#808080;stroke-width:0;stroke-linecap:round;stroke-linejoin:round" d="m 19,3.99999 c -0.554,0 -1,0.44602 -1,1.00003 L 18,15 c 0,0.55401 0.446,0.99999 1,0.99999 l 9.999999,0 c 0.554,0 1,-0.44598 1,-0.99999 l 0,-9.99998 c 0,-0.55401 -0.446,-1.00003 -1,-1.00003 z"/>
 <path style="fill:#b130ae;stroke:#808080;stroke-width:0;stroke-linecap:round;stroke-linejoin:round" d="m 32.999998,3.99999 c -0.554,0 -1,0.44602 -1,1.00003 l 0,9.99998 c 0,0.55401 0.446,0.99999 1,0.99999 l 9.999998,0 c 0.553999,0 1.000002,-0.44598 1.000002,-0.99999 l 0,-9.99998 c 0,-0.55401 -0.446003,-1.00003 -1.000002,-1.00003 z"/>
 <path style="fill:#b130ae;stroke:#808080;stroke-width:0;stroke-linecap:round;stroke-linejoin:round" d="m 5.0000019,18 c -0.5539997,0 -0.9999998,0.44599 -0.9999998,0.99999 l 0,10.00002 C 4.0000021,29.55402 4.4460022,30 5.0000019,30 l 9.9999991,0 c 0.554,0 1,-0.44598 1,-0.99999 l 0,-10.00002 c 0,-0.554 -0.446,-0.99999 -1,-0.99999 z"/>
 <path style="fill:#b2bfd9;stroke:#808080;stroke-width:0;stroke-linecap:round;stroke-linejoin:round" d="m 19,18 c -0.554,0 -1,0.44599 -1,0.99999 l 0,10.00002 C 18,29.55402 18.446,30 19,30 l 9.999999,0 c 0.554,0 1,-0.44598 1,-0.99999 l 0,-10.00002 c 0,-0.554 -0.446,-0.99999 -1,-0.99999 z"/>
 <path style="fill:#b2bfd9;stroke:#808080;stroke-width:0;stroke-linecap:round;stroke-linejoin:round" d="m 32.999998,18 c -0.554,0 -1,0.44599 -1,0.99999 l 0,10.00002 c 0,0.55401 0.446,0.99999 1,0.99999 l 9.999998,0 c 0.553999,0 1.000002,-0.44598 1.000002,-0.99999 l 0,-10.00002 C 43.999998,18.44599 43.553995,18 42.999996,18 Z"/>
 <path style="fill:#23992b;stroke:#808080;stroke-width:0;stroke-linecap:round;stroke-linejoin:round" d="M 5.0000019,32.00001 C 4.4460022,32.00001 4.0000021,32.446 4.0000021,33 l 0,9.99999 c 0,0.554 0.4460001,1.00002 0.9999998,1.00002 l 9.9999991,0 c 0.554,0 1,-0.44602 1,-1.00002 l 0,-9.99999 c 0,-0.554 -0.446,-0.99999 -1,-0.99999 z"/>
 <path style="fill:#f57e26;stroke:#808080;stroke-width:0;stroke-linecap:round;stroke-linejoin:round" d="m 19,32.00001 c -0.554,0 -1,0.44599 -1,0.99999 l 0,9.99999 c 0,0.554 0.446,1.00002 1,1.00002 l 9.999999,0 c 0.554,0 1,-0.44602 1,-1.00002 l 0,-9.99999 c 0,-0.554 -0.446,-0.99999 -1,-0.99999 z"/>
 <path style="fill:#23992b;stroke:#808080;stroke-width:0;stroke-linecap:round;stroke-linejoin:round" d="m 32.999998,32.00001 c -0.554,0 -1,0.44599 -1,0.99999 l 0,9.99999 c 0,0.554 0.446,1.00002 1,1.00002 l 9.999998,0 c 0.553999,0 1.000002,-0.44602 1.000002,-1.00002 l 0,-9.99999 c 0,-0.554 -0.446003,-0.99999 -1.000002,-0.99999 z"/>
 <path style="opacity:0.2;fill:#8b9cbe;stroke:#808080;stroke-width:0;stroke-linecap:round;stroke-linejoin:round" d="m 5.0000023,4 c -0.5539997,0 -1,0.446 -1,1 l 0,1 c 0,-0.554 0.4460003,-1 1,-1 l 9.9999997,0 c 0.554,0 1,0.446 1,1 l 0,-1 c 0,-0.554 -0.446,-1 -1,-1 z M 19.000002,4 c -0.554,0 -1,0.446 -1,1 l 0,1 c 0,-0.554 0.446,-1 1,-1 l 10,0 c 0.554,0 1,0.446 1,1 l 0,-1 c 0,-0.554 -0.446,-1 -1,-1 z m 14,0 c -0.554,0 -1,0.446 -1,1 l 0,1 c 0,-0.554 0.446,-1 1,-1 l 10,0 c 0.553999,0 1,0.446 1,1 l 0,-1 c 0,-0.554 -0.446001,-1 -1,-1 z M 5.0000023,18 c -0.5539997,0 -1,0.446 -1,1 l 0,1 c 0,-0.554 0.4460003,-1 1,-1 l 9.9999997,0 c 0.554,0 1,0.446 1,1 l 0,-1 c 0,-0.554 -0.446,-1 -1,-1 z m 13.9999997,0 c -0.554,0 -1,0.446 -1,1 l 0,1 c 0,-0.554 0.446,-1 1,-1 l 10,0 c 0.554,0 1,0.446 1,1 l 0,-1 c 0,-0.554 -0.446,-1 -1,-1 z m 14,0 c -0.554,0 -1,0.446 -1,1 l 0,1 c 0,-0.554 0.446,-1 1,-1 l 10,0 c 0.553999,0 1,0.446 1,1 l 0,-1 c 0,-0.554 -0.446001,-1 -1,-1 z M 5.0000023,32 c -0.5539997,0 -1,0.446 -1,1 l 0,1 c 0,-0.554 0.4460003,-1 1,-1 l 9.9999997,0 c 0.554,0 1,0.446 1,1 l 0,-1 c 0,-0.554 -0.446,-1 -1,-1 z m 13.9999997,0 c -0.554,0 -1,0.446 -1,1 l 0,1 c 0,-0.554 0.446,-1 1,-1 l 10,0 c 0.554,0 1,0.446 1,1 l 0,-1 c 0,-0.554 -0.446,-1 -1,-1 z m 14,0 c -0.554,0 -1,0.446 -1,1 l 0,1 c 0,-0.554 0.446,-1 1,-1 l 10,0 c 0.553999,0 1,0.446 1,1 l 0,-1 c 0,-0.554 -0.446001,-1 -1,-1 z"/>
</svg>
