<svg xmlns="http://www.w3.org/2000/svg" width="48" height="48" version="1">
 <rect style="opacity:0.2" width="40" height="40" x="4" y="5" rx="12" ry="12"/>
 <rect style="fill:#797979" width="40" height="40" x="4" y="4" rx="12" ry="12"/>
 <path style="opacity:0.1" d="m 28.490234,11.018952 c -1.134815,0.175218 -2.224533,1.546306 -3.746093,4.351563 l -1.650391,3.042968 5.337891,6.3125 0.27539,0.273438 h 8.884766 c -0.996742,-2.225016 -5.16384,-10.682753 -5.96875,-11.953125 -0.43046,-0.679385 -1.314229,-1.494532 -1.964844,-1.8125 -0.405824,-0.198333 -0.789697,-0.273249 -1.167969,-0.214844 z m -9.867187,6.595703 c -0.54635,0.07403 -1.151367,0.511806 -2.193359,1.205078 -2.052307,1.596945 -4.453866,4.352454 -5.683594,6.179688 h 15.271484 c -1.252645,-1.734309 -3.894576,-4.812898 -5.560547,-6.40625 -0.801362,-0.762773 -1.287634,-1.052548 -1.833984,-0.978516 z m -8.265625,9.384766 c 0.133555,0.241817 0.27655,0.496484 0.453125,0.771484 0.446099,0.69476 1.576705,2.763509 2.511719,4.595704 2.044121,4.005527 3.10292,5.534919 4.324218,6.242187 2.059724,1.192811 3.237965,-0.08046 6.931641,-7.492187 0.948484,-1.903231 1.609811,-3.320165 1.953125,-4.117188 z m 18.439453,0 -2.503906,4.964844 c 1.459753,1.249003 3.092466,2.282413 4.078125,2.220703 2.249304,-0.140825 2.890441,-1.691188 5.333984,-5.150391 l 1.4375,-2.035156 z"/>
 <path style="fill:#4a4a4a" d="m 28.796875,26 -2.503906,4.964844 c 1.459753,1.249003 3.092466,2.282413 4.078125,2.220703 2.249304,-0.140825 2.890441,-1.691188 5.333984,-5.150391 L 37.142578,26 Z"/>
 <path style="fill:#8b9cbe;opacity:0.1" d="M 16 4 C 9.352 4 4 9.352 4 16 L 4 17 C 4 10.352 9.352 5 16 5 L 32 5 C 38.648 5 44 10.352 44 17 L 44 16 C 44 9.352 38.648 4 32 4 L 16 4 z"/>
 <path style="fill:#0eb5fd" d="M 10.357422 26 C 10.490977 26.241817 10.633972 26.496484 10.810547 26.771484 C 11.256646 27.466244 12.387252 29.534994 13.322266 31.367188 C 15.366387 35.372715 16.425186 36.902107 17.646484 37.609375 C 19.706208 38.802186 20.884449 37.528916 24.578125 30.117188 C 25.526609 28.213957 26.187936 26.797023 26.53125 26 L 10.357422 26 z"/>
 <path style="fill:#f05abe" d="m 28.490234,10.019531 c -1.134815,0.175218 -2.224533,1.546306 -3.746093,4.351563 l -1.650391,3.042968 5.337891,6.3125 L 28.707,24 h 8.884797 c -0.996742,-2.225016 -5.16384,-10.682753 -5.96875,-11.953125 -0.43046,-0.679385 -1.314229,-1.494532 -1.964844,-1.8125 -0.405824,-0.198333 -0.789697,-0.2732494 -1.167969,-0.214844 z"/>
 <path style="fill:#00d49f" d="m 18.322687,16.0121 c -0.54635,0.08008 -1.151367,0.553606 -2.193359,1.3035 C 14.077021,19.042972 11.975822,22.023531 10.746094,24 H 26.017578 C 24.764933,22.124045 21.822642,18.794019 20.156671,17.070534 19.355309,16.245463 18.869037,15.932021 18.322687,16.0121 Z"/>
</svg>
