<svg xmlns="http://www.w3.org/2000/svg" width="48" height="48" version="1">
 <path fill="#b2bfd9" d="m40 42v-36c0-1.108-0.892-2-2-2h-28c-1.108 0-2 0.892-2 2v36c0 1.108 0.892 2 2 2h28c1.108 0 2-0.892 2-2z"/>
 <path fill="#fff" opacity=".2" d="m10 4c-1.108 0-2 0.892-2 2v1c0-1.108 0.892-2 2-2h28c1.108 0 2 0.892 2 2v-1c0-1.108-0.892-2-2-2z"/>
 <path opacity=".2" d="m8 42v1c0 1.108 0.892 2 2 2h28c1.108 0 2-0.892 2-2v-1c0 1.108-0.892 2-2 2h-28c-1.108 0-2-0.892-2-2z"/>
 <circle opacity=".2" cx="36" cy="37" r="11"/>
 <path style="opacity:0.5" d="M 14.5,17 C 13.686297,17 13,17.686297 13,18.5 l 0,10 c 0,0.813703 0.686297,1.5 1.5,1.5 l 19,0 c 0.813703,0 1.5,-0.686297 1.5,-1.5 l 0,-10 C 35,17.686297 34.313703,17 33.5,17 l -19,0 z m 0.5,2 18,0 0,9 -18,0 0,-9 z m 2,1 0,7 2,0 0,-4.199219 2,2 2,-2 L 23,27 l 2,0 0,-7 -2,0 -2,2 -2,-2 -2,0 z m 11,0 0,4 -2,0 2.5,3 1,0 2.5,-3 -2,0 0,-4 -2,0 z"/>
 <circle fill="#ff8c50" cx="36" cy="36" r="11"/>
 <path fill="#fff" d="m30 39.327v2.673h2.6728l6.7507-6.7507-2.6728-2.6728zm11.788-6.4337c0.28271-0.28271 0.28271-0.72818 0-1.0109l-1.6705-1.6705c-0.28271-0.28271-0.72818-0.28271-1.0109 0l-1.3964 1.405 2.6728 2.6728z"/>
</svg>
