<svg xmlns="http://www.w3.org/2000/svg" width="48" height="48" version="1">
 <path style="opacity:0.2" d="m 36.942621,12.823739 c 0.232168,3.565739 -0.217095,7.277142 -1.772115,10.054787 -0.748329,1.322303 -1.604893,2.613142 -2.314133,3.93087 -2.047573,3.804273 0.582085,2.338972 -3.770621,2.338972 H 18.645513 c -4.352705,0 -0.727203,8.082316 -3.325418,-0.706673 -0.762041,-2.577759 -4.312976,-8.093384 -4.320093,-15.897069 -0.0026,-2.8507341 2.616568,-4.7021133 5.311477,-5.8524312 3.007209,-1.4652471 6.090589,-1.6693551 9.262074,-1.6736679 5.695796,-0.2791542 11.210631,2.6090394 11.369068,7.8052121 z"/>
 <path style="opacity:0.2" d="m 11.994981,25 h 23.963216 c 4.42922,0 7.994981,3.506767 7.994981,7.862706 C 45.038125,44.751899 26.928517,45.026415 24.856472,44.99862 22.784427,44.970825 4,44.394866 4,32.862706 4,28.506767 7.5657615,25 11.994981,25 Z"/>
 <path style="fill:#848484" d="m 36.942621,11.823739 c 0.232168,3.565739 -0.217095,7.277142 -1.772115,10.054787 -0.748329,1.322303 -1.604893,2.613142 -2.314133,3.93087 -2.047573,3.804273 0.582085,2.338972 -3.770621,2.338972 H 18.645513 c -4.352705,0 -0.727203,8.082316 -3.325418,-0.706673 -0.762041,-2.577759 -4.312976,-8.093384 -4.320093,-15.897069 -0.0026,-2.8507339 2.616568,-4.7021131 5.311477,-5.852431 3.007209,-1.4652471 6.090589,-1.6693551 9.262074,-1.6736679 5.695796,-0.2791542 11.210631,2.6090394 11.369068,7.8052119 z"/>
 <ellipse style="fill:#8b9cbe" cx="20" cy="21" rx="4" ry="6"/>
 <ellipse id="ellipse857" style="fill:#8b9cbe" cx="28" cy="21" rx="4" ry="6"/>
 <ellipse id="ellipse861" style="fill:#17191e" cx="27" cy="22" rx="2" ry="3"/>
 <ellipse id="ellipse859" style="fill:#17191e" cx="21" cy="22" rx="2" ry="3"/>
 <path style="fill:#b7b7b7" d="m 11.994981,24 h 23.963216 c 4.42922,0 7.994981,3.506767 7.994981,7.862706 C 45.038125,43.751899 26.928517,44.026415 24.856472,43.99862 22.784427,43.970825 4,43.394866 4,31.862706 4,27.506767 7.5657615,24 11.994981,24 Z"/>
 <path style="opacity:0.1;fill:#8b9cbe" d="M 26.638672 4.0039062 C 26.285362 3.9968183 25.930206 4.000131 25.574219 4.0175781 C 22.402734 4.0218909 19.317756 4.2261591 16.310547 5.6914062 C 13.615638 6.8417242 10.9974 8.694188 11 11.544922 C 11.000205 11.769881 11.013588 11.985891 11.019531 12.207031 C 11.216094 9.5482486 13.724376 7.7953097 16.310547 6.6914062 C 19.317756 5.2261591 22.402734 5.0218909 25.574219 5.0175781 C 31.270015 4.7384239 36.784922 7.6280461 36.943359 12.824219 C 36.967945 13.201817 36.979483 13.581355 36.988281 13.960938 C 36.999414 13.248135 36.989573 12.533992 36.943359 11.824219 C 36.794825 6.952807 31.938321 4.1102257 26.638672 4.0039062 z M 16.357422 31.419922 C 16.356331 31.431281 16.356465 31.439897 16.355469 31.451172 C 16.35609 31.465127 16.365004 31.472649 16.357422 31.419922 z"/>
 <path style="opacity:0.2;fill:#8b9cbe" d="M 11.994141 24 C 7.5649211 24 4 27.507342 4 31.863281 C 4 32.033063 4.0173609 32.192357 4.0253906 32.357422 C 4.2899574 28.240086 7.7385182 25 11.994141 25 L 35.958984 25 C 40.388204 25 43.953125 28.507342 43.953125 32.863281 C 43.968881 33.035944 43.966842 33.197436 43.974609 33.365234 C 43.998677 32.883828 44.001114 32.389155 43.953125 31.863281 C 43.953125 27.507342 40.388204 24 35.958984 24 L 11.994141 24 z"/>
</svg>
