<svg xmlns="http://www.w3.org/2000/svg" width="48" height="48" version="1">
 <rect style="fill:#2ba798" width="40" height="40" x="4" y="4" rx="20" ry="20"/>
 <path style="opacity:0.2;fill:#8b9cbe" d="M 24,4 C 12.92,4 4,12.92 4,24 4,24.168 4.008,24.333 4.0117,24.5 4.2764,13.654 13.088,5 23.9997,5 c 10.9117,0 19.724,8.6539 19.988,19.5 0.004,-0.16686 0.0117,-0.33213 0.0117,-0.5 0,-11.08 -8.92,-20 -20,-20 z"/>
 <path style="opacity:0.2" d="M 4.0117,24.5 C 4.0076,24.667 4,24.832 4,25 4,36.08 12.92,45 24,45 35.08,45 44,36.08 44,25 44,24.832 43.992,24.667 43.988,24.5 43.724,35.346 34.912,44 24,44 13.088,44 4.276,35.346 4.012,24.5 Z"/>
 <path style="opacity:0.1" d="m 27.564551,36.799832 c -4.382348,-0.943944 -8.681986,-4.663256 -10.107816,-8.98924 -0.367542,-1.115113 -0.49632,-2.94096 -0.277046,-3.927958 0.792069,-3.565278 4.81195,-4.847798 9.912693,-3.162597 1.893164,0.625474 4.667929,2.118616 4.667929,2.51188 0,0.199783 -0.35002,0.38677 -1.388275,0.741653 l -0.751986,0.257029 -1.041209,-0.515021 c -4.028423,-1.992609 -7.638015,-1.4717 -8.446507,1.218915 -0.352591,1.173406 -0.152446,2.439581 0.637884,4.035467 1.600933,3.232707 5.428528,5.545723 8.657671,5.39314 0.913518,-0.04316 1.115342,-0.09728 2.033827,-0.545356 1.29924,-0.633833 2.58783,-1.854969 3.1417,-2.977249 1.44837,-2.934753 0.61642,-6.157397 -2.39768,-9.287637 -3.50523,-3.640282 -8.793741,-6.050233 -13.260086,-6.042564 -2.147298,0.0035 -3.387308,0.425986 -4.509339,1.535703 -1.100808,1.088728 -1.526694,2.427749 -1.405477,4.418952 0.264847,4.350652 2.789775,8.913479 6.96804,12.592036 0.788763,0.694426 1.434109,1.335277 1.434109,1.424109 0,0.301701 -0.425074,0.162986 -1.457393,-0.475593 -3.561279,-2.202948 -6.386484,-5.266944 -8.253672,-8.951277 -1.476087,-2.912615 -2.0269469,-5.735524 -1.560253,-7.99559 0.356208,-1.725026 1.211337,-3.037117 2.551303,-3.921525 2.931514,-1.834069 7.765453,-1.07487 10.378638,-0.314403 5.579708,1.668472 10.56042,5.094645 13.17879,9.000075 2.70739,3.827388 2.01309,8.857666 -0.53911,11.508837 -1.27542,1.260278 -2.11551,1.817561 -3.41834,2.267553 -1.29547,0.447458 -3.224218,0.528961 -4.748395,0.200661 z"/>
 <path style="fill:#17191e" d="m 27.564551,35.799832 c -4.382348,-0.943944 -8.681986,-4.663256 -10.107816,-8.98924 -0.367542,-1.115113 -0.49632,-2.94096 -0.277046,-3.927958 0.792069,-3.565278 4.81195,-4.847798 9.912693,-3.162597 1.893164,0.625474 4.667929,2.118616 4.667929,2.51188 0,0.199783 -0.35002,0.38677 -1.388275,0.741653 l -0.751986,0.257029 -1.041209,-0.515021 c -4.028423,-1.992609 -7.638015,-1.4717 -8.446507,1.218915 -0.352591,1.173406 -0.152446,2.439581 0.637884,4.035467 1.600933,3.232707 5.428528,5.545723 8.657671,5.39314 0.913518,-0.04316 1.115342,-0.09728 2.033827,-0.545356 1.29924,-0.633833 2.58783,-1.854969 3.1417,-2.977249 1.44837,-2.934753 0.61642,-6.157397 -2.39768,-9.287637 -3.50523,-3.640282 -8.793741,-6.050233 -13.260086,-6.042564 -2.147298,0.0035 -3.387308,0.425986 -4.509339,1.535703 -1.100808,1.088728 -1.526694,2.427749 -1.405477,4.418952 0.264847,4.350652 2.789775,8.913479 6.96804,12.592036 0.788763,0.694426 1.434109,1.335277 1.434109,1.424109 0,0.301701 -0.425074,0.162986 -1.457393,-0.475593 -3.561279,-2.202948 -6.386484,-5.266944 -8.253672,-8.951277 -1.476087,-2.912615 -2.0269469,-5.735524 -1.560253,-7.99559 0.356208,-1.725026 1.211337,-3.037117 2.551303,-3.921525 2.931514,-1.834069 7.765453,-1.07487 10.378638,-0.314403 5.579708,1.668472 10.56042,5.094645 13.17879,9.000075 2.70739,3.827388 2.01309,8.857666 -0.53911,11.508837 -1.27542,1.260278 -2.11551,1.817561 -3.41834,2.267553 -1.29547,0.447458 -3.224218,0.528961 -4.748395,0.200661 z"/>
</svg>
