<svg width="48" height="48" version="1.1" xmlns="http://www.w3.org/2000/svg">
 <path d="m22 5a6.0006 6.0006 0 0 0-5.914062 5h-4.085938a6.0006 6.0006 0 0 0-6 6v4a6.0006 6.0006 0 0 0 5.099609 5.925781 6.0006 6.0006 0 0 0-0.099609 1.074219v13a6.0006 6.0006 0 0 0 6 6h5a6.0006 6.0006 0 0 0 2-0.351562 6.0006 6.0006 0 0 0 2 0.351562h5a6.0006 6.0006 0 0 0 6-6v-13a6.0006 6.0006 0 0 0-0.101562-1.074219 6.0006 6.0006 0 0 0 5.101562-5.925781v-4a6.0006 6.0006 0 0 0-6-6h-4.089844a6.0006 6.0006 0 0 0-5.910156-5z" style="opacity:.2"/>
 <path d="m22 4a6.0006 6.0006 0 0 0-5.914062 5h-4.085938a6.0006 6.0006 0 0 0-6 6v4a6.0006 6.0006 0 0 0 5.099609 5.925781 6.0006 6.0006 0 0 0-0.099609 1.074219v13a6.0006 6.0006 0 0 0 6 6h5a6.0006 6.0006 0 0 0 2-0.351562 6.0006 6.0006 0 0 0 2 0.351562h5a6.0006 6.0006 0 0 0 6-6v-13a6.0006 6.0006 0 0 0-0.101562-1.074219 6.0006 6.0006 0 0 0 5.101562-5.925781v-4a6.0006 6.0006 0 0 0-6-6h-4.089844a6.0006 6.0006 0 0 0-5.910156-5z" style="fill:#617573"/>
 <path d="m22 11v5h-10v4h10v7h-5v13h5v-9h4v9h5v-13h-5v-7h10v-4h-10v-5z" style="opacity:.2"/>
 <path d="m22 10v5h-10v4h10v7h-5v13h5v-9h4v9h5v-13h-5v-7h10v-4h-10v-5z" style="fill:#4bdb1a"/>
 <path d="m22 4a6.0006 6.0006 0 0 0-5.914062 5h-4.085938a6.0006 6.0006 0 0 0-6 6v1a6.0006 6.0006 0 0 1 6-6h4.085938a6.0006 6.0006 0 0 1 5.914062-5h4a6.0006 6.0006 0 0 1 5.910156 5h4.089844a6.0006 6.0006 0 0 1 6 6v-1a6.0006 6.0006 0 0 0-6-6h-4.089844a6.0006 6.0006 0 0 0-5.910156-5h-4zm14.994141 21.90625a6.0006 6.0006 0 0 1-0.095703 0.019531 6.0006 6.0006 0 0 1 0.101562 1.074219v-1a6.0006 6.0006 0 0 0-0.005859-0.09375zm-25.990235 0.003906a6.0006 6.0006 0 0 0-0.003906 0.089844v1a6.0006 6.0006 0 0 1 0.099609-1.074219 6.0006 6.0006 0 0 1-0.095703-0.015625z" style="fill:#8b9cbe;opacity:.2"/>
 <path d="m22 10v1h4v-1h-4zm-10 5v1h10v-1h-10zm14 0v1h10v-1h-10zm-9 11v1h5v-1h-5zm9 0v1h5v-1h-5z" style="fill:#8b9cbe;opacity:.2"/>
</svg>
