<svg xmlns="http://www.w3.org/2000/svg" width="48" height="48" version="1">
 <path style="opacity:0.2" d="M 44,43 C 44,43 44,5 24,5 4,5 4,43 4,43 c 0,1.108 0.892,2 2,2 l 36,0 c 1.108,0 2,-0.892 2,-2 z"/>
 <path style="fill:#bb4499" transform="matrix(0,-1,-1,0,0,0)" d="m -42,-44 c 0,0 38,0 38,20 0,20 -38,20 -38,20 -1.108,0 -2,-0.892 -2,-2 l 0,-36 c 0,-1.108 0.892,-2 2,-2 z"/>
 <path style="fill:#8b9cbe;opacity:0.2" d="M 24 4 C 4 4 4 42 4 42 C 4 42.065574 4.0134228 42.127486 4.0195312 42.191406 C 4.091425 38.051255 5.2380451 5 24 5 C 42.761955 5 43.908575 38.051255 43.980469 42.191406 C 43.986577 42.127486 44 42.065574 44 42 C 44 42 44 4 24 4 z"/>
 <path style="opacity:0.2" d="m 36,25 c 0,6.627417 -5.372583,12 -12,12 -6.627417,0 -12,-5.372583 -12,-12 0,-4.689922 2.690456,-8.751455 6.612136,-10.725368 1.62012,-0.81546 3.383435,1.201941 5.32093,1.201941 1.999101,0 3.950963,-1.987736 5.608703,-1.123075 C 33.379764,16.355358 36,20.371685 36,25 Z"/>
 <path style="fill:#69e27d" d="m 36,24 c 0,6.627417 -5.372583,12 -12,12 -6.627417,0 -12,-5.372583 -12,-12 0,-4.445079 2.416871,-8.325667 6.008201,-10.399354 1.763186,-1.018089 3.675592,1.746074 5.85793,1.746074 2.262078,0 4.511836,-2.720813 6.317799,-1.632738 C 33.669063,15.813741 36,19.634661 36,24 Z"/>
 <circle style="fill:#00a200" cx="24" cy="24" r="8"/>
 <path style="opacity:0.2;fill:none;stroke:#000000;stroke-width:4;stroke-linecap:round;stroke-linejoin:round" d="m 8,16 c 0,0 4.461465,-3.016923 7,-3 3.28288,0.02188 5.717047,4 9,4 3.282953,0 5.71712,-3.978115 9,-4 2.538535,-0.01692 7,3 7,3 l 0,0"/>
 <path style="fill:none;stroke:#17191e;stroke-width:4;stroke-linecap:round;stroke-linejoin:round" d="m 8,15 c 0,0 4.461465,-3.016923 7,-3 3.28288,0.02188 5.717047,4 9,4 3.282953,0 5.71712,-3.978115 9,-4 2.538535,-0.01692 7,3 7,3 l 0,0"/>
</svg>
