<svg xmlns="http://www.w3.org/2000/svg" width="48" height="48" version="1.1">
 <path style="opacity:0.2" d="M 44,21.9 V 41.8 C 44,43.567188 42.622296,45 40.923077,45 H 7.0769231 C 5.3777042,45 4,43.567188 4,41.8 V 21.9 Z"/>
 <path style="fill:#b2bfd9" d="M 44,20.9 V 40.8 C 44,42.567188 42.622296,44 40.923077,44 H 7.0769231 C 5.3777042,44 4,42.567188 4,40.8 V 20.9 Z"/>
 <path style="fill:#cdcdcd" d="M 7.0769231,4 C 5.3716946,4 4,5.4435452 4,7.2380952 V 21 H 44 V 7.2380952 C 44,5.4435452 42.628304,4 40.923077,4 Z m 0,0"/>
 <path style="fill:#3584e4" d="M 34.429242,28 H 27.570757 C 25.046584,28 23,30.015181 23,32.500777 23,34.986372 25.046584,37 27.570757,37 h 6.858485 C 36.953414,37 38.10039,34.986372 38.10039,32.500777 38.10039,30.015181 36.953414,28 34.429242,28 Z"/>
 <path style="opacity:0.1" d="M 27.570312,28 C 25.046139,28 23,30.014404 23,32.5 c 0,0.171023 0.03191,0.333948 0.05078,0.5 0.255827,-2.246971 2.169406,-4 4.519531,-4 h 6.859376 c 2.350124,0 3.364093,1.753029 3.619921,4 0.01887,-0.166052 0.05078,-0.328977 0.05078,-0.5 0,-2.485596 -1.14653,-4.5 -3.670702,-4.5 z"/>
 <path style="opacity:0.2" d="M 30,33.5 C 30,35.985075 32.015017,38 34.500001,38 36.986519,38 39,35.985075 39,33.5 39,31.014925 36.986519,29 34.500001,29 32.015017,29 30,31.014925 30,33.5 Z m 0,0"/>
 <path style="fill:#8b9cbe" d="M 30,32.5 C 30,34.985075 32.015017,37 34.500001,37 36.986519,37 39,34.985075 39,32.5 39,30.014925 36.986519,28 34.500001,28 32.015017,28 30,30.014925 30,32.5 Z m 0,0"/>
 <path style="opacity:0.1" d="m 10.3125,28 h 9.375 C 19.860026,28 20,28.125977 20,28.28125 v 2.4375 C 20,30.874023 19.860026,31 19.6875,31 h -9.375 C 10.139974,31 10,30.874023 10,30.71875 v -2.4375 C 10,28.125977 10.139974,28 10.3125,28 Z m 0,0"/>
 <path style="fill:#797979" d="m 16,10 h 3 v 3 h -3 z m 0,0"/>
 <path style="opacity:0.1" d="m 10.28125,35 h 5.4375 C 15.874023,35 16,35.125977 16,35.28125 v 2.4375 C 16,37.874023 15.874023,38 15.71875,38 h -5.4375 C 10.125977,38 10,37.874023 10,37.71875 v -2.4375 C 10,35.125977 10.125977,35 10.28125,35 Z m 0,0"/>
 <path style="fill:#797979" d="m 27,10 h 11 v 3 H 27 Z m 0,0"/>
 <path style="opacity:0.2" d="m 24.333333,7 h 1.617839 L 22.617839,17 H 21 Z m 0,0"/>
 <path style="fill:#3584e4" d="m 27,15 h 11 v 2 H 27 Z m 0,0"/>
 <path style="opacity:0.2" d="m 12.333333,7 h 1.575521 L 10.575521,17 H 9 Z m 0,0"/>
 <rect style="opacity:0.2" width="40" height="1" x="4" y="21"/>
 <path style="fill:#8b9cbe;opacity:0.2" d="M 7.0761719 4 C 5.3709434 4 4 5.4437312 4 7.2382812 L 4 8.2382812 C 4 6.4437312 5.3709434 5 7.0761719 5 L 40.923828 5 C 42.629055 5 44 6.4437312 44 8.2382812 L 44 7.2382812 C 44 5.4437312 42.629055 4 40.923828 4 L 7.0761719 4 z"/>
</svg>
