<svg xmlns="http://www.w3.org/2000/svg" width="48" height="48" version="1.1">
 <circle style="opacity:0.2" cx="24" cy="25" r="20"/>
 <circle style="fill:#b2bfd9" cx="8.785" cy="32.785" r="20" transform="rotate(-30)"/>
 <g style="font-size:13.17357063px;line-height:1.25;letter-spacing:0px;word-spacing:0px;opacity:0.1" transform="matrix(0.84489091,-0.46958453,0.487798,0.81334426,1.1597012,1.9092684)">
  <path d="m 8.1454244,34.322117 h 1.7520849 v -9.735269 h -2.977227 v 1.646696 h 1.2251421 z"/>
  <path d="m 15.160968,29.632326 h 0.289819 c 1.159274,0 1.910167,0.645505 1.910167,1.633522 0,0.935324 -0.645505,1.62035 -1.528134,1.62035 -0.843108,0 -1.462266,-0.592811 -1.580828,-1.514961 h -1.765259 c 0.105389,1.831126 1.488614,3.122136 3.359261,3.122136 1.88382,0 3.267045,-1.383225 3.267045,-3.267045 0,-1.225142 -0.513769,-2.068251 -1.51496,-2.516152 0.566463,-0.408381 0.816761,-0.92215 0.816761,-1.673044 0,-1.501787 -1.119753,-2.62154 -2.62154,-2.62154 -0.764068,0 -1.462267,0.302992 -1.949689,0.829935 -0.408381,0.447901 -0.566463,0.869455 -0.632331,1.65987 h 1.778432 c 0.07904,-0.605985 0.342513,-0.88263 0.816761,-0.88263 0.500596,0 0.856282,0.382034 0.856282,0.92215 0,0.408381 -0.197603,0.711373 -0.566463,0.869456 -0.223951,0.09221 -0.461075,0.118562 -0.935324,0.131736 z"/>
 </g>
 <path style="opacity:0.2;fill:#8b9cbe" d="M 24,4 A 20,20 0 0 0 4,24 20,20 0 0 0 4.0215,24.582 20,20 0 0 1 24,5 20,20 0 0 1 43.979,24.418 20,20 0 0 0 44,24 20,20 0 0 0 24,4 Z"/>
 <path style="fill:#ffa81f" d="M 31.775391 5.59375 C 26.186888 7.5058227 20.657014 9.6432268 16.769531 11.746094 C 16.202185 12.052991 15.606188 12.390934 14.986328 12.751953 C 11.84737 14.580146 8.1126576 17.037967 4.5390625 19.494141 A 20 20 0 0 0 6.6796875 34 A 20 20 0 0 0 12.574219 40.388672 C 15.487752 37.334838 19.737455 33.593384 25.261719 30.611328 C 30.469405 27.800165 37.429259 25.5085 43.988281 23.75 A 20 20 0 0 0 41.320312 14 A 20 20 0 0 0 31.775391 5.59375 z M 25.787109 10.001953 A 9 9 0 0 1 33.794922 14.5 A 9 9 0 0 1 30.5 26.794922 A 9 9 0 0 1 18.205078 23.5 A 9 9 0 0 1 21.5 11.205078 A 9 9 0 0 1 25.787109 10.001953 z"/>
 <g style="font-size:13.17357063px;line-height:1.25;letter-spacing:0px;word-spacing:0px;fill:#17191e" transform="matrix(0.84489091,-0.46958453,0.487798,0.81334426,1.1597012,0.90926844)">
  <path style="fill:#17191e" d="m 8.1454244,34.322117 h 1.7520849 v -9.735269 h -2.977227 v 1.646696 h 1.2251421 z"/>
  <path style="fill:#17191e" d="m 15.160968,29.632326 h 0.289819 c 1.159274,0 1.910167,0.645505 1.910167,1.633522 0,0.935324 -0.645505,1.62035 -1.528134,1.62035 -0.843108,0 -1.462266,-0.592811 -1.580828,-1.514961 h -1.765259 c 0.105389,1.831126 1.488614,3.122136 3.359261,3.122136 1.88382,0 3.267045,-1.383225 3.267045,-3.267045 0,-1.225142 -0.513769,-2.068251 -1.51496,-2.516152 0.566463,-0.408381 0.816761,-0.92215 0.816761,-1.673044 0,-1.501787 -1.119753,-2.62154 -2.62154,-2.62154 -0.764068,0 -1.462267,0.302992 -1.949689,0.829935 -0.408381,0.447901 -0.566463,0.869455 -0.632331,1.65987 h 1.778432 c 0.07904,-0.605985 0.342513,-0.88263 0.816761,-0.88263 0.500596,0 0.856282,0.382034 0.856282,0.92215 0,0.408381 -0.197603,0.711373 -0.566463,0.869456 -0.223951,0.09221 -0.461075,0.118562 -0.935324,0.131736 z"/>
 </g>
 <path style="opacity:0.1" d="M 31.775391 5.59375 C 26.186888 7.5058227 20.657014 9.6432266 16.769531 11.746094 C 16.202185 12.052991 15.606188 12.390934 14.986328 12.751953 C 11.84737 14.580146 8.1126576 17.037967 4.5390625 19.494141 A 20 20 0 0 0 4.0429688 24.242188 A 20 20 0 0 1 4.5390625 20.494141 C 8.1126576 18.037967 11.84737 15.580146 14.986328 13.751953 C 15.606188 13.390934 16.202185 13.052991 16.769531 12.746094 C 20.657014 10.643227 26.186888 8.5058227 31.775391 6.59375 A 20 20 0 0 1 41.320312 15 A 20 20 0 0 1 43.927734 23.767578 C 43.947778 23.762196 43.968245 23.755372 43.988281 23.75 A 20 20 0 0 0 41.320312 14 A 20 20 0 0 0 31.775391 5.59375 z M 17.021484 19.472656 A 9 9 0 0 0 18.205078 24.5 A 9 9 0 0 0 30.5 27.794922 A 9 9 0 0 0 34.978516 19.527344 A 9 9 0 0 1 30.5 26.794922 A 9 9 0 0 1 18.205078 23.5 A 9 9 0 0 1 17.021484 19.472656 z"/>
</svg>
