<svg xmlns="http://www.w3.org/2000/svg" width="48" height="48" version="1.1">
 <path style="opacity:0.2" d="M 20.296621,44.680258 C 11.22447,43.045338 4.606557,35.634715 4.0386045,26.474818 3.2931035,14.451436 13.449404,4.2898523 25.463332,5.0389445 c 4.706702,0.2934713 9.027729,2.1372471 12.359214,5.2736545 4.038489,3.802014 6.166142,8.642763 6.177392,14.054548 0.0054,2.594796 -0.339985,4.204021 -1.541083,7.18038 -0.49354,1.223006 -1.029283,2.705439 -1.190544,3.294298 -0.619784,2.263221 -0.239467,4.59703 1.217852,7.473351 0.471451,0.930505 0.809673,1.739119 0.751602,1.796915 -0.05806,0.05779 -1.003532,-0.235423 -2.101027,-0.651601 -4.100544,-1.55495 -5.684379,-1.565961 -9.366151,-0.0651 -3.791595,1.545621 -7.637375,1.976278 -11.473966,1.284875 z"/>
 <path style="fill:#465c66" d="M 20.296621,43.680259 C 11.22447,42.045339 4.606557,34.634716 4.0386045,25.474819 3.2931035,13.451437 13.449404,3.2898532 25.463332,4.0389454 c 4.706702,0.2934713 9.027729,2.1372471 12.359214,5.2736542 4.038489,3.8020144 6.166142,8.6427634 6.177392,14.0545484 0.0054,2.594796 -0.339985,4.204021 -1.541083,7.18038 -0.49354,1.223006 -1.029283,2.705439 -1.190544,3.294298 -0.619784,2.263221 -0.239467,4.59703 1.217852,7.473351 0.471451,0.930505 0.809673,1.739119 0.751602,1.796915 -0.05806,0.05779 -1.003532,-0.235423 -2.101027,-0.651601 -4.100544,-1.55495 -5.684379,-1.565961 -9.366151,-0.0651 -3.791595,1.545621 -7.637375,1.976278 -11.473966,1.284875 z"/>
 <path style="opacity:0.2" d="m 23.554509,10.999999 c -1.213952,0.01012 -2.135489,0.103606 -2.878181,0.289062 -2.486083,0.620794 -3.759657,1.788144 -3.722656,3.408204 0.03215,1.407498 0.725318,2.323074 3.962344,4.6875 1.603578,1.171303 2.88072,2.227793 2.839843,2.347656 -0.04087,0.119863 -0.77392,0.391289 -1.628906,0.603516 -3.378221,0.838542 -6.184026,2.811237 -7.378906,5.183593 -1.006293,2.349469 -0.984008,4.836004 -0.0078,6.78711 1.593281,3.163354 5.104303,4.935381 9.238282,4.666015 0.860761,-0.05609 2.172741,-0.284008 2.914062,-0.507812 1.649704,-0.498039 3.323843,-1.549943 4.626953,-2.828125 2.440971,-2.351805 3.121218,-6.523942 1.857422,-9.228516 -1.026724,-2.066405 -3.095056,-3.861967 -7.105469,-6.167969 -5.657151,-3.252884 -6.373032,-3.767788 -7.065859,-4.539062 -0.364873,-0.406186 -0.66211,-0.959647 -0.66211,-1.228516 0,-1.849775 3.60657,-2.886667 6.130135,-1.724609 0.590209,0.271781 1.701476,0.990068 2.46875,1.597656 2.254196,1.785058 3.328471,2.023948 4.455078,0.996094 1.282295,-1.169893 0.120458,-2.92559 -2.478516,-3.748047 -1.254322,-0.396929 -3.541211,-0.610619 -5.564466,-0.59375 z m 1.533382,12 c 0.482444,0.0012 0.739729,0.233476 1.734375,1.148438 2.296489,2.112501 3.401154,4.666116 3.140625,7.265624 -0.356145,2.950323 -2.392771,5.509469 -5.839844,5.585938 C 20.538606,37.030179 18.020526,33.445094 18,30.410155 c -0.01298,-2.599148 0.412726,-3.805642 1.830078,-5.185547 1.086412,-1.057712 2.958652,-1.927034 4.666016,-2.166015 0.246217,-0.03446 0.430981,-0.05901 0.591797,-0.05859 z"/>
 <path style="fill:#8b9cbe" d="m 23.554509,10 c -1.213952,0.01012 -2.135489,0.103606 -2.878181,0.289062 -2.486083,0.620794 -3.759657,1.788144 -3.722656,3.408204 0.03215,1.407498 0.725318,2.323074 3.962344,4.6875 1.603578,1.171303 2.88072,2.227793 2.839843,2.347656 -0.04087,0.119863 -0.77392,0.391289 -1.628906,0.603516 -3.378221,0.838542 -6.184026,2.811237 -7.378906,5.183593 -1.006293,2.349469 -0.984008,4.836004 -0.0078,6.78711 1.593281,3.163354 5.104303,4.935381 9.238282,4.666015 0.860761,-0.05609 2.172741,-0.284008 2.914062,-0.507812 1.649704,-0.498039 3.323843,-1.549943 4.626953,-2.828125 2.440971,-2.351805 3.121218,-6.523942 1.857422,-9.228516 -1.026724,-2.066405 -3.095056,-3.861967 -7.105469,-6.167969 -5.657151,-3.252884 -6.373032,-3.767788 -7.065859,-4.539062 -0.364873,-0.406186 -0.66211,-0.959647 -0.66211,-1.228516 0,-1.849775 3.60657,-2.886667 6.130135,-1.724609 0.590209,0.271781 1.701476,0.990068 2.46875,1.597656 2.254196,1.785058 3.328471,2.023948 4.455078,0.996094 1.282295,-1.169893 0.120458,-2.92559 -2.478516,-3.748047 C 27.864653,10.196821 25.577764,9.9831305 23.554509,10 Z m 1.533382,12 c 0.482444,0.0012 0.739729,0.233476 1.734375,1.148438 2.296489,2.112501 3.401154,4.666116 3.140625,7.265624 C 29.606746,33.364385 27.57012,35.923531 24.123047,36 20.538606,36.03018 18.020526,32.445095 18,29.410156 c -0.01298,-2.599148 0.412726,-3.805642 1.830078,-5.185547 1.086412,-1.057712 2.958652,-1.927034 4.666016,-2.166015 0.246217,-0.03446 0.430981,-0.05901 0.591797,-0.05859 z"/>
 <path style="fill:#8b9cbe;opacity:0.1" d="M 24.341797 4 C 13.070936 3.9279403 3.7319807 13.409118 4.0136719 24.730469 C 4.2961741 13.487184 14.035253 4.3265267 25.462891 5.0390625 C 30.169593 5.3325338 34.490781 7.1760926 37.822266 10.3125 C 41.713031 13.975441 43.824634 18.604366 43.984375 23.777344 C 43.98644 23.635406 44.000308 23.515094 44 23.367188 C 43.98875 17.955402 41.860755 13.114514 37.822266 9.3125 C 34.490781 6.1760929 30.169593 4.3325338 25.462891 4.0390625 C 25.087455 4.0156534 24.713328 4.0023754 24.341797 4 z M 41 36.482422 C 40.895006 38.251501 41.376897 40.124761 42.486328 42.314453 C 42.62442 42.587005 42.713645 42.797371 42.822266 43.033203 C 43.046392 43.095316 43.216967 43.132544 43.238281 43.111328 C 43.296352 43.053532 42.957779 42.244958 42.486328 41.314453 C 41.583362 39.532262 41.094307 37.960316 41 36.482422 z"/>
</svg>
