<svg xmlns="http://www.w3.org/2000/svg" width="48" height="48" version="1.1">
 <circle style="opacity:0.2" cx="24" cy="25" r="20"/>
 <circle style="fill:#b2bfd9" cx="24" cy="24" r="20"/>
 <path style="opacity:0.1" d="m 26.990234,12.002344 c -0.979784,-0.02051 -1.964874,0.260762 -2.785156,0.800781 -0.818002,0.53774 -1.47039,1.325555 -1.841797,2.232422 -0.371406,0.909146 -0.461252,1.929397 -0.253906,2.888672 0.207349,0.956995 0.708689,1.84931 1.421875,2.521484 -0.362289,-0.596983 -0.550134,-1.302435 -0.527344,-2.001953 0.02051,-0.699518 0.251642,-1.390321 0.650391,-1.966797 0.398745,-0.574196 0.968125,-1.030608 1.615234,-1.294921 0.647112,-0.264311 1.370467,-0.337235 2.058594,-0.205079 1.000289,0.189121 1.908875,1.121778 2.4375,1.992188 h 9.472656 L 31.365234,14.91836 c -0.373682,-0.847625 -0.993843,-1.583027 -1.761718,-2.095703 -0.770151,-0.512676 -1.688188,-0.802083 -2.613282,-0.820313 z m -14.240234,1.75 c -1.121052,1.157509 -1.763671,2.762104 -1.75,4.373047 0.01311,1.566417 0.653712,3.114693 1.736328,4.246094 L 12.175781,22.19961 c -0.303049,1.157509 -0.209617,2.413127 0.259766,3.513672 0.471663,1.098266 1.315143,2.032573 2.363281,2.611328 0.799775,0.44204 1.711295,0.675781 2.625,0.675781 0.913702,0 1.825223,-0.233741 2.625,-0.675781 -0.735979,0.06608 -1.485379,-0.05535 -2.162109,-0.351563 C 17.209984,27.679113 16.609358,27.208702 16.158203,26.625391 15.638691,25.950937 15.316078,25.12536 15.25,24.277735 l 8.298828,1.421875 -8.628906,-2.65625 c -0.61034,-0.656051 -0.992626,-1.523422 -1.0625,-2.416016 -0.06608,-0.874967 0.16408,-1.768257 0.642578,-2.501953 l 9.625,5.25 z m 15.826172,6.414063 c -0.476117,0.562886 -0.786602,1.262436 -0.886719,1.992187 -0.09344,0.689704 -7.96e-4,1.396455 0.181641,2.068359 0.182436,0.669683 0.453722,1.31405 0.720703,1.957032 0.266983,0.642982 0.531539,1.28876 0.705078,1.96289 0.171312,0.67413 0.250457,1.383105 0.134766,2.06836 -0.193564,1.148023 -0.926401,2.168753 -1.88086,2.833984 -0.954463,0.66523 -2.117928,0.994668 -3.279297,1.070313 C 22.805304,34.215202 21.317111,33.917897 20,33.266016 l 0.0332,6.833984 1.708985,-3.398437 c 2.258224,0.66078 4.78284,0.335048 6.800781,-0.873047 1.018979,-0.609609 1.914151,-1.439136 2.537109,-2.449219 0.625186,-1.010083 0.969685,-2.201143 0.914063,-3.384765 -0.0801,-1.688663 -0.940479,-3.228049 -1.763672,-4.703125 -0.825419,-1.475077 -1.656846,-3.039581 -1.667969,-4.730469 0,-0.131266 0.0048,-0.263265 0.01367,-0.394531 z"/>
 <path style="fill:#8b9cbe;opacity:0.2" d="M 24 4 A 20 20 0 0 0 4 24 A 20 20 0 0 0 4.0214844 24.582031 A 20 20 0 0 1 24 5 A 20 20 0 0 1 43.978516 24.417969 A 20 20 0 0 0 44 24 A 20 20 0 0 0 24 4 z"/>
 <path style="fill:#17191e" d="m 23.530624,19.445389 c -0.713186,-0.672175 -1.214473,-1.565371 -1.421822,-2.522366 -0.207346,-0.959275 -0.116205,-1.977791 0.255201,-2.886937 0.371407,-0.906867 1.023074,-1.69525 1.841076,-2.23299 0.820282,-0.540019 1.804621,-0.82256 2.784405,-0.802053 0.925094,0.01823 1.843355,0.307606 2.613506,0.820282 0.767875,0.512676 1.387645,1.248651 1.761327,2.096276 L 39.239024,15.968 h -9.474257 c -0.528625,-0.87041 -1.435489,-1.802036 -2.435778,-1.991157 -0.688127,-0.132156 -1.41271,-0.05924 -2.059822,0.205071 -0.647109,0.264313 -1.216752,0.720025 -1.615497,1.294222 -0.398749,0.576476 -0.628882,1.266881 -0.649392,1.966399 -0.02279,0.699518 0.164057,1.405871 0.526346,2.002854"/>
 <path style="fill:#0192d3" d="M 24.124727,22.375619 12.750149,12.750977 c -1.121052,1.157509 -1.763606,2.763895 -1.749935,4.374838 0.01367,1.633728 0.704075,3.251506 1.872978,4.393065 1.168901,1.141559 2.802629,1.793228 4.436357,1.770442 -0.897752,-0.123042 -1.749935,-0.562805 -2.371981,-1.223587 -0.622048,-0.658504 -1.009403,-1.53575 -1.080038,-2.438061 -0.06608,-0.874967 0.164056,-1.768163 0.642554,-2.501859 l 9.624643,5.249804"/>
 <path style="fill:#0192d3" d="M 23.549471,24.698365 12.174893,21.198496 c -0.303049,1.157509 -0.209628,2.412996 0.259755,3.513541 0.471663,1.098266 1.317009,2.032476 2.365147,2.611231 C 15.59957,27.765308 16.510994,28 17.424699,28 c 0.913702,0 1.825125,-0.234692 2.624902,-0.676732 -0.735979,0.06608 -1.485625,-0.05469 -2.162355,-0.350899 -0.676735,-0.293934 -1.278274,-0.763318 -1.729429,-1.346629 -0.519512,-0.674454 -0.840789,-1.501572 -0.906867,-2.349197 l 8.298521,1.421822"/>
 <path style="fill:#0192d3" d="m 28.576801,19.16533 c -0.476117,0.562886 -0.787597,1.263715 -0.887714,1.993466 -0.09344,0.689704 0,1.394983 0.182437,2.066887 0.182436,0.669682 0.45387,1.314888 0.720851,1.95787 0.266983,0.642982 0.53174,1.288189 0.705279,1.962319 0.171312,0.67413 0.249181,1.383858 0.13349,2.069113 -0.193564,1.148023 -0.92554,2.16923 -1.879999,2.834461 -0.954463,0.66523 -2.118061,0.994508 -3.27943,1.070153 C 22.805535,33.215269 21.317111,32.917137 20,32.265256 L 20.033363,39.1 21.742049,35.700427 c 2.258225,0.66078 4.783432,0.335953 6.801373,-0.872142 1.018979,-0.609609 1.913369,-1.439479 2.536327,-2.449562 0.625186,-1.010083 0.970038,-2.200377 0.914416,-3.383999 -0.0801,-1.688663 -0.941115,-3.22826 -1.764308,-4.703336 -0.825419,-1.475077 -1.65529,-3.039147 -1.666413,-4.730035 0,-0.131266 0.0045,-0.264757 0.01333,-0.396023"/>
</svg>
