<svg xmlns="http://www.w3.org/2000/svg" width="48" height="48" version="1.1">
 <path style="opacity:0.2" d="M 6.0000002,4.9999747 C 4.8920003,4.9999747 4,5.8919811 4,6.9999874 V 42.999988 C 4,44.107994 4.8920003,45 6.0000002,45 H 28 L 44,28.999975 V 6.9999874 C 44,5.8919811 43.108001,4.9999747 41.999999,4.9999747 Z"/>
 <path style="fill:#ffa234" d="M 6.0000002,3.9999873 C 4.8920003,3.9999873 4,4.8919936 4,5.9999999 V 42 c 0,1.107969 0.8920003,1.999975 2.0000002,1.999975 H 28 L 44,27.999988 V 5.9999999 C 44,4.8919936 43.108001,3.9999873 41.999999,3.9999873 Z"/>
 <path style="opacity:0.2;fill:#8b9cbe" d="M 6.0000002,3.9999873 C 4.8920003,3.9999873 4,4.8919936 4,5.9999999 V 6.9999874 C 4,5.8919811 4.8920003,4.9999747 6.0000002,4.9999747 H 41.999999 C 43.108001,4.9999747 44,5.8919811 44,6.9999874 V 5.9999999 C 44,4.8919936 43.108001,3.9999873 41.999999,3.9999873 Z"/>
 <path style="fill:#ffcd82" d="M 44,27.999988 H 30 c -1.10457,0 -2,0.895445 -2,2.000012 v 13.999975 z"/>
 <path style="opacity:0.2;fill:#8b9cbe" d="m 30,27.999988 c -1.10457,0 -2,0.895445 -2,2.000012 v 0.999988 c 0,-1.104567 0.89543,-2.000013 2,-2.000013 H 43.000001 L 44,27.999988 Z"/>
 <path style="fill:#4b4b4b" d="M 17,10.999975 A 6.9999999,6.9999999 0 0 1 23.31641,15 H 38 v 6 H 23.31445 A 6.9999999,6.9999999 0 0 1 17,24.999988 6.9999999,6.9999999 0 0 1 10.68555,21 H 17 V 15 H 10.68359 A 6.9999999,6.9999999 0 0 1 17,10.999975 Z"/>
</svg>
