<svg width="48" height="48" version="1.1" xmlns="http://www.w3.org/2000/svg">
 <path d="m24.1077 3.9254909c-0.837793-0.020189-1.665003 0.1897102-2.391 0.6067l-13.434 7.7260001c-1.4128037 0.812425-2.2831033 2.314007-2.283 3.939v15.253333c0 1.624809 0.8701975 3.126195 2.2828 3.9386l13.434 7.7264c0.754677 0.434024 1.602912 0.636172 2.44474 0.606445 0.733903-0.02592 1.180835-0.419765 1.83876-0.798145l13-8c1.412804-0.812425 2.000103-1.375007 2-3v-15c3.5e-5 -0.550963 0.899109-1.814773 0.711804-2.31531-0.365127-0.975732-1.061919-1.813755-1.995704-2.350723l-13.434-7.7260001c-0.662546-0.3804996-1.410432-0.5891167-2.175-0.6067z" style="fill:#53d953"/>
 <path d="m24.1067 3.9261909a4.5656 4.5479 0 0 0-2.39 0.6054l-13.434 7.7266001a4.5656 4.5479 0 0 0-2.283 3.939v1a4.5656 4.5479 0 0 1 2.2832-3.939l13.434-7.7266001a4.5656 4.5479 0 0 1 2.3906-0.60547 4.5656 4.5479 0 0 1 2.1758 0.60547l13.434 7.7266001a4.5656 4.5479 0 0 1 2.283 3.939v-1a4.5656 4.5479 0 0 0-2.283-3.939l-13.434-7.7266001a4.5656 4.5479 0 0 0-2.176-0.6054z" style="fill:#8b9cbe;opacity:.2"/>
 <path d="m5.9997 31.650191v1a4.5656 4.5479 0 0 0 2.2832 3.9375l13.434 7.7266a4.5656 4.5479 0 0 0 4.5664 0l13.434-7.727a4.5656 4.5479 0 0 0 2.283-3.938v-1a4.5656 4.5479 0 0 1-2.2832 3.9375l-13.434 7.7266a4.5656 4.5479 0 0 1-4.5664 0l-13.434-7.727a4.5656 4.5479 0 0 1-2.283-3.938z" style="opacity:.2"/>
 <path d="m6.4609375 14.20898a4.5656 4.5479 0 0 0-0.4609375 1.988282v15.453124a4.5656 4.5479 0 0 0 2.2832031 3.9375l13.433594 7.726563a4.5656 4.5479 0 0 0 2.283203 0.607422v-19.962891z" style="fill:#ef2b2f"/>
 <path d="m41.550781 14.24609-17.552734 9.755859 0.001953 19.919922a4.5656 4.5479 0 0 0 2.28125-0.607422l13.435547-7.726563a4.5656 4.5479 0 0 0 2.283203-3.9375v-15.453124a4.5656 4.5479 0 0 0-0.449219-1.951172z" style="fill:#ffbb1f"/>
 <path d="m41.550781 14.24609-17.550781 9.753906v1.000004l17.550781-9.75391a4.5656 4.5479 0 0 1 0.449219 1.951172v-1a4.5656 4.5479 0 0 0-0.449219-1.951172z" style="fill:#8b9cbe;opacity:.2"/>
 <path d="m6.4609375 14.20898a4.5656 4.5479 0 0 0-0.4609375 1.988282v1a4.5656 4.5479 0 0 1 0.4609375-1.988282l17.539062 9.75v-1.000004z" style="fill:#8b9cbe;opacity:.2"/>
</svg>
