<svg xmlns="http://www.w3.org/2000/svg" width="48" height="48" version="1.1">
 <path style="opacity:0.2" d="M 43.136229,5.685396 C 43.061788,5.4633438 43.06826,5.1835739 42.928278,5 41.014633,5.2757616 39.120408,5.7479234 37.349175,6.5279121 35.472751,7.333553 33.433818,8.6860528 32,10.133 c 2.3364,2.431904 4.146127,5.398565 6.264982,7.7049 0.987165,1.429311 1.981581,3.647014 2.824717,5.1621 0.186914,-0.338289 1.315866,-1.785373 1.472032,-2.140496 1.233958,-2.540375 1.494505,-5.416633 1.428964,-8.199101 -0.02832,-2.347181 -0.377065,-4.678329 -0.854466,-6.975007 z"/>
 <path style="opacity:0.2" d="M 4.8637701,5.685396 C 4.938212,5.4633438 4.9317388,5.1835739 5.0717221,5 6.9853669,5.2757616 8.879592,5.7479234 10.650825,6.5279121 12.527249,7.333553 14.566182,8.6860528 16,10.133 13.6636,12.564904 11.853873,15.531565 9.7350181,17.8379 8.7478526,19.267211 7.753437,21.484914 6.9103004,23 6.7233863,22.661711 5.5944344,21.214627 5.4382681,20.859504 4.2043111,18.319129 3.943764,15.442871 4.0093053,12.660403 4.0376257,10.313222 4.3863703,7.982074 4.8637701,5.685396 Z"/>
 <path style="opacity:0.2" d="m 17.047432,9.2936183 c -0.386193,0.2569123 -0.761518,0.5285781 -1.12791,0.8116477 -0.863919,0.648588 -1.653453,1.395362 -2.422742,2.15214 -0.292543,0.30153 -0.578691,0.608622 -0.859406,0.920391 -0.128593,0.141691 -0.256288,0.284132 -0.382369,0.427835 -0.09624,0.111698 -0.19184,0.223924 -0.286747,0.336699 -6.1e-4,7.07e-4 -0.0012,0.0014 -0.0018,0.0021 -0.0018,0.0022 -0.0037,0.0044 -0.0055,0.0065 -2.6476442,3.120066 -4.749065,6.688177 -6.4309974,10.409841 -0.1752836,0.400051 -0.344871,0.80254 -0.5095866,1.207003 -0.036354,0.08738 -0.072982,0.174668 -0.1088565,0.26222 -0.01237,0.03407 -0.025363,0.06795 -0.037915,0.101962 -0.1864752,0.468868 -0.3655752,0.940688 -0.5364132,1.415446 -0.020245,0.05579 -0.039949,0.111776 -0.059615,0.167755 -0.082149,0.231206 -0.1630248,0.462806 -0.2412078,0.695407 -0.030102,0.06695 -0.039274,0.134115 -0.03565,0.201068 -2.43e-4,9.5e-4 -4.725e-4,0.0019 -7.154e-4,0.0029 4.517e-4,0.0014 9.788e-4,0.0028 0.00143,0.0043 0.00975,0.144251 0.077156,0.287354 0.1211371,0.424503 0.2894019,0.818364 0.6275448,1.620059 1.0113041,2.399251 9.554e-4,0.0019 0.00191,0.0039 0.00286,0.0058 0.061245,0.124259 0.1236881,0.247908 0.1873094,0.370964 0.00524,0.01012 0.010486,0.02023 0.015738,0.03034 0.6810209,1.312118 1.4960039,2.554384 2.4431303,3.691202 0.6229948,0.765849 1.3069841,1.478622 2.0354852,2.143335 0.065186,0.05983 0.1313991,0.118501 0.1973248,0.177511 0.02217,0.01975 0.04405,0.03982 0.06629,0.05949 0.263069,0.2335 0.531778,0.460545 0.806111,0.680656 1.681875,1.368057 3.653352,2.484885 5.672345,3.238979 0.06833,0.02538 0.136537,0.05095 0.205194,0.07543 0.565341,0.208571 1.139447,0.392462 1.720839,0.550378 0.142841,0.0388 0.286061,0.07646 0.429702,0.112194 1.407038,0.35282 2.851064,0.554568 4.300964,0.607486 0.0059,2.44e-4 0.01184,6.16e-4 0.01777,8.35e-4 0.126504,0.0045 0.253058,0.0073 0.379627,0.0095 0.04284,7.98e-4 0.08568,0.0021 0.128529,0.0026 0.08564,9.93e-4 0.171291,6.4e-4 0.256939,6.09e-4 0.08561,4.2e-5 0.171215,4.27e-4 0.25682,-6.09e-4 0.04289,-5.48e-4 0.08577,-0.0018 0.128649,-0.0026 0.12647,-0.0022 0.252865,-0.005 0.379269,-0.0095 0.0063,-2.44e-4 0.01264,-6.09e-4 0.01896,-8.35e-4 1.449585,-0.05298 2.893396,-0.254734 4.300129,-0.607486 0.141763,-0.03527 0.282997,-0.07251 0.42398,-0.110766 0.002,-5.49e-4 0.004,-10e-4 0.006,-0.0015 0.581841,-0.158052 1.156507,-0.342067 1.722269,-0.550854 0.06724,-0.02398 0.134095,-0.04903 0.201021,-0.07388 9.71e-4,-3.65e-4 0.0019,-8.28e-4 0.0029,-0.0012 2.042439,-0.754298 3.995607,-1.887225 5.674373,-3.240883 0.274386,-0.220226 0.543235,-0.447391 0.806349,-0.681013 0.08748,-0.07767 0.174802,-0.155511 0.260993,-0.234619 0.728453,-0.66468 1.412407,-1.377411 2.035366,-2.143216 0.946267,-1.135787 1.760574,-2.376833 2.441222,-3.687632 0.0067,-0.0128 0.01329,-0.02561 0.01991,-0.03843 0.0628,-0.121533 0.124445,-0.243618 0.184925,-0.366325 9.95e-4,-0.002 0.002,-0.004 0.003,-0.0061 0.38373,-0.779147 0.721801,-1.580818 1.011185,-2.399132 0.04398,-0.137148 0.11151,-0.280252 0.121256,-0.424503 4.28e-4,-0.0014 9.77e-4,-0.0028 0.0014,-0.0043 -2.44e-4,-9.5e-4 -4.88e-4,-0.0019 -7.14e-4,-0.0029 0.0036,-0.06695 -0.0055,-0.134118 -0.03565,-0.201068 -0.07789,-0.231721 -0.15855,-0.462453 -0.240367,-0.692792 -0.02032,-0.05786 -0.04082,-0.115678 -0.06176,-0.173346 -0.170933,-0.474913 -0.349955,-0.946904 -0.536533,-1.415922 -0.01212,-0.03285 -0.02466,-0.06561 -0.0366,-0.09851 -0.03501,-0.08544 -0.07065,-0.170642 -0.106114,-0.255915 -0.165517,-0.406595 -0.336012,-0.811171 -0.512209,-1.213308 -1.681897,-3.721585 -3.783314,-7.289585 -6.430878,-10.409604 -0.0013,-0.0015 -0.0024,-0.003 -0.0037,-0.0045 -8.73e-4,-10e-4 -0.0018,-0.0021 -0.0026,-0.0031 -3.66e-4,-4.26e-4 -7.08e-4,-8.77e-4 -0.0011,-0.0013 C 35.936839,13.829558 35.841243,13.717331 35.745,13.605633 35.624614,13.468421 35.502711,13.332336 35.380038,13.196954 35.093792,12.87856 34.801787,12.565143 34.503225,12.257407 33.734317,11.501014 32.945184,10.754575 32.081782,10.106218 31.714985,9.8227897 31.339203,9.5508302 30.952561,9.2936182 28.584005,7.738035 26.605371,7.0726737 23.918974,7.0000929 21.479381,7.0145614 18.766997,8.1676943 17.047432,9.2936183 Z"/>
 <path style="fill:#db3d7f" d="M 43.136229,4.685396 C 43.061788,4.4633438 43.06826,4.1835739 42.928278,4 41.014633,4.2757616 39.120408,4.7479234 37.349175,5.5279121 35.472751,6.333553 33.433818,7.6860528 32,9.133 c 2.3364,2.431904 4.146127,5.398565 6.264982,7.7049 0.987165,1.429311 1.981581,3.647014 2.824717,5.1621 0.186914,-0.338289 1.315866,-1.785373 1.472032,-2.140496 1.233958,-2.540375 1.494505,-5.416633 1.428964,-8.199101 C 43.962372,9.3132222 43.61363,6.982074 43.136229,4.685396 Z"/>
 <path style="opacity:0.1;fill:#8b9cbe" d="M 42.927734 4 C 41.014089 4.2757616 39.120842 4.7473551 37.349609 5.5273438 C 35.473185 6.3329847 33.433818 7.6858653 32 9.1328125 C 32.171218 9.3110295 32.33411 9.4981502 32.5 9.6816406 C 33.888665 8.4109061 35.672524 7.2473987 37.349609 6.5273438 C 39.120842 5.7473551 41.014089 5.2757616 42.927734 5 C 43.067716 5.1835739 43.062278 5.4634947 43.136719 5.6855469 C 43.601391 7.9209877 43.938358 10.188904 43.982422 12.472656 C 43.982778 12.201851 43.996581 11.929593 43.990234 11.660156 C 43.961911 9.3129755 43.61412 6.9822249 43.136719 4.6855469 C 43.062278 4.4634947 43.067716 4.1835739 42.927734 4 z"/>
 <path style="fill:#db3d7f" d="M 4.8637701,4.685396 C 4.938212,4.4633438 4.9317388,4.1835739 5.0717221,4 6.9853669,4.2757616 8.879592,4.7479234 10.650825,5.5279121 12.527249,6.333553 14.566182,7.6860528 16,9.133 13.6636,11.564904 11.853873,14.531565 9.7350181,16.8379 8.7478526,18.267211 7.753437,20.484914 6.9103004,22 6.7233863,21.661711 5.5944344,20.214627 5.4382681,19.859504 4.2043111,17.319129 3.943764,14.442871 4.0093053,11.660403 4.0376257,9.3132222 4.3863703,6.982074 4.8637701,4.685396 Z"/>
 <path style="opacity:0.1;fill:#8b9cbe" d="M 5.0722656 4 C 4.9322823 4.1835739 4.9377232 4.4634947 4.8632812 4.6855469 C 4.3858815 6.9822249 4.038086 9.3129754 4.0097656 11.660156 C 4.003419 11.929593 4.0172217 12.201851 4.0175781 12.472656 C 4.0616423 10.188904 4.3986105 7.9209877 4.8632812 5.6855469 C 4.9377232 5.4634947 4.9322823 5.1835739 5.0722656 5 C 6.9859104 5.2757616 8.8791576 5.7473551 10.650391 6.5273438 C 12.327476 7.2473987 14.111335 8.4109061 15.5 9.6816406 C 15.66589 9.4981502 15.828782 9.3110295 16 9.1328125 C 14.566182 7.6858653 12.526815 6.3329847 10.650391 5.5273438 C 8.8791576 4.7473551 6.9859104 4.2757616 5.0722656 4 z"/>
 <path style="fill:#b2bfd9" d="m 17.047432,8.2935267 c -0.386193,0.2569123 -0.761518,0.5285781 -1.12791,0.8116478 -0.863919,0.6485879 -1.653453,1.3953615 -2.422742,2.1521395 -0.292543,0.30153 -0.578691,0.608622 -0.859406,0.920391 -0.128593,0.141691 -0.256288,0.284132 -0.382369,0.427835 -0.09624,0.111698 -0.19184,0.223924 -0.286747,0.336699 -6.1e-4,7.07e-4 -0.0012,0.0014 -0.0018,0.0021 -0.0018,0.0022 -0.0037,0.0044 -0.0055,0.0065 -2.6476442,3.120066 -4.749065,6.688177 -6.4309974,10.409841 -0.1752836,0.400051 -0.344871,0.80254 -0.5095866,1.207003 -0.036354,0.08738 -0.072982,0.174668 -0.1088565,0.26222 -0.01237,0.03407 -0.025363,0.06795 -0.037915,0.101962 -0.1864752,0.468868 -0.3655752,0.940688 -0.5364132,1.415446 -0.020245,0.05579 -0.039949,0.111776 -0.059615,0.167755 -0.082149,0.231206 -0.1630248,0.462806 -0.2412078,0.695407 -0.030102,0.06695 -0.039274,0.134115 -0.03565,0.201068 -2.43e-4,9.5e-4 -4.725e-4,0.0019 -7.154e-4,0.0029 4.517e-4,0.0014 9.788e-4,0.0028 0.00143,0.0043 0.00975,0.144251 0.077156,0.287354 0.1211371,0.424503 0.2894019,0.818364 0.6275448,1.620059 1.0113041,2.399251 9.554e-4,0.0019 0.00191,0.0039 0.00286,0.0058 0.061245,0.124259 0.1236881,0.247908 0.1873094,0.370964 0.00524,0.01012 0.010486,0.02023 0.015738,0.03034 0.6810209,1.312118 1.4960039,2.554384 2.4431303,3.691202 0.6229948,0.765849 1.3069841,1.478622 2.0354852,2.143335 0.065186,0.05983 0.1313991,0.118501 0.1973248,0.177511 0.02217,0.01975 0.04405,0.03982 0.06629,0.05949 0.263069,0.2335 0.531778,0.460545 0.806111,0.680656 1.681875,1.368057 3.653352,2.484885 5.672345,3.238979 0.06833,0.02538 0.136537,0.05095 0.205194,0.07543 0.565341,0.208571 1.139447,0.392462 1.720839,0.550378 0.142841,0.0388 0.286061,0.07646 0.429702,0.112194 1.407038,0.35282 2.851064,0.554568 4.300964,0.607486 0.0059,2.44e-4 0.01184,6.16e-4 0.01777,8.35e-4 0.126504,0.0045 0.253058,0.0073 0.379627,0.0095 0.04284,7.98e-4 0.08568,0.0021 0.128529,0.0026 0.08564,9.93e-4 0.171291,6.4e-4 0.256939,6.09e-4 0.08561,4.2e-5 0.171215,4.27e-4 0.25682,-6.09e-4 0.04289,-5.48e-4 0.08577,-0.0018 0.128649,-0.0026 0.12647,-0.0022 0.252865,-0.005 0.379269,-0.0095 0.0063,-2.44e-4 0.01264,-6.09e-4 0.01896,-8.35e-4 1.449585,-0.05298 2.893396,-0.254734 4.300129,-0.607486 0.141763,-0.03527 0.282997,-0.07251 0.42398,-0.110766 0.002,-5.49e-4 0.004,-0.001 0.006,-0.0015 0.581841,-0.158052 1.156507,-0.342067 1.722269,-0.550854 0.06724,-0.02398 0.134095,-0.04903 0.201021,-0.07388 9.71e-4,-3.65e-4 0.0019,-8.28e-4 0.0029,-0.0012 2.042439,-0.754298 3.995607,-1.887225 5.674373,-3.240883 0.274386,-0.220226 0.543235,-0.447391 0.806349,-0.681013 0.08748,-0.07767 0.174802,-0.155511 0.260993,-0.234619 0.728453,-0.66468 1.412407,-1.377411 2.035366,-2.143216 0.946267,-1.135787 1.760574,-2.376833 2.441222,-3.687632 0.0067,-0.0128 0.01329,-0.02561 0.01991,-0.03843 0.0628,-0.121533 0.124445,-0.243618 0.184925,-0.366325 9.95e-4,-0.002 0.002,-0.004 0.003,-0.0061 0.38373,-0.779147 0.721801,-1.580818 1.011185,-2.399132 0.04398,-0.137148 0.11151,-0.280252 0.121256,-0.424503 4.28e-4,-0.0014 9.77e-4,-0.0028 0.0014,-0.0043 -2.44e-4,-9.5e-4 -4.88e-4,-0.0019 -7.14e-4,-0.0029 0.0036,-0.06695 -0.0055,-0.134118 -0.03565,-0.201068 -0.07789,-0.231721 -0.15855,-0.462453 -0.240367,-0.692792 -0.02032,-0.05786 -0.04082,-0.115678 -0.06176,-0.173346 -0.170933,-0.474913 -0.349955,-0.946904 -0.536533,-1.415922 -0.01212,-0.03285 -0.02466,-0.06561 -0.0366,-0.09851 -0.03501,-0.08544 -0.07065,-0.170642 -0.106114,-0.255915 -0.165517,-0.406595 -0.336012,-0.811171 -0.512209,-1.213308 -1.681897,-3.721585 -3.783314,-7.289585 -6.430878,-10.409604 -0.0013,-0.0015 -0.0024,-0.003 -0.0037,-0.0045 -8.73e-4,-10e-4 -0.0018,-0.0021 -0.0026,-0.0031 -3.66e-4,-4.26e-4 -7.08e-4,-8.77e-4 -0.0011,-0.0013 C 35.936839,12.829466 35.841243,12.717239 35.745,12.605541 35.624614,12.468329 35.502711,12.332244 35.380038,12.196862 35.093792,11.878468 34.801787,11.565051 34.503225,11.257315 33.734317,10.500922 32.945184,9.7544836 32.081782,9.1061262 31.714985,8.8226981 31.339203,8.5507386 30.952561,8.2935266 28.584005,6.7379434 26.605371,6.0725821 23.918974,6.0000013 21.479381,6.0144698 18.766997,7.1676027 17.047432,8.2935267 Z"/>
 <path style="fill:#17191e" d="m 14.729387,23.000001 c -0.853776,6.24e-4 -1.708097,0.120614 -2.523272,0.36842 -0.237096,1.434813 -0.356107,2.942921 0.130831,4.342781 0.381563,1.235903 1.348682,2.285326 2.570701,2.773029 1.488857,0.616704 3.185882,0.63921 4.744422,0.284667 0.200554,-0.898007 0.367991,-1.811776 0.344196,-2.734749 0.03909,-1.132705 -0.22611,-2.312111 -0.914452,-3.24008 -0.792868,-1.095252 -2.166997,-1.655308 -3.50034,-1.755179 -0.282985,-0.02601 -0.567495,-0.0391 -0.852086,-0.03889 z m -0.01755,1.180969 c 0.457392,-0.0086 0.915573,0.02772 1.36172,0.118743 0.195455,0.08073 0.490349,0.03665 0.628017,0.198109 -0.624606,0.241355 -1.159232,0.74568 -1.332592,1.391513 -0.211601,0.676626 -0.0025,1.450704 0.503161,1.952557 0.728283,0.808955 2.172058,0.846386 2.930083,0.06156 -0.01954,0.621698 -0.03997,1.255822 -0.192077,1.855881 -0.630555,0.06325 -1.279719,0.08914 -1.908575,-0.01073 -1.148936,-0.123173 -2.335286,-0.680032 -2.913153,-1.702878 -0.656899,-1.121053 -0.66288,-2.460075 -0.501418,-3.703469 0.185258,-0.101537 0.402009,-0.07914 0.605113,-0.09912 0.271194,-0.03558 0.545285,-0.05698 0.819721,-0.06218 z"/>
 <path style="fill:#17191e" d="m 33.270613,23.000001 c 0.853776,6.24e-4 1.708097,0.120614 2.523272,0.36842 0.237096,1.434813 0.356107,2.942921 -0.130831,4.342781 -0.381563,1.235903 -1.348682,2.285326 -2.570701,2.773029 -1.488857,0.616704 -3.185882,0.63921 -4.744422,0.284667 -0.200554,-0.898007 -0.367991,-1.811776 -0.344196,-2.734749 -0.03909,-1.132705 0.22611,-2.312111 0.914452,-3.24008 0.792868,-1.095252 2.166997,-1.655308 3.50034,-1.755179 0.282985,-0.02601 0.567495,-0.0391 0.852086,-0.03889 z m 0.01755,1.180969 c -0.457392,-0.0086 -0.915573,0.02772 -1.36172,0.118743 -0.195455,0.08073 -0.490349,0.03665 -0.628017,0.198109 0.624606,0.241355 1.159232,0.74568 1.332592,1.391513 0.211601,0.676626 0.0025,1.450704 -0.503161,1.952557 -0.728283,0.808955 -2.172058,0.846386 -2.930083,0.06156 0.01954,0.621698 0.03997,1.255822 0.192077,1.855881 0.630555,0.06325 1.279719,0.08914 1.908575,-0.01073 1.148936,-0.123173 2.335286,-0.680032 2.913153,-1.702878 0.656899,-1.121053 0.66288,-2.460075 0.501418,-3.703469 -0.185258,-0.101537 -0.402009,-0.07914 -0.605113,-0.09912 -0.271194,-0.03558 -0.545285,-0.05698 -0.819721,-0.06218 z"/>
 <path style="fill:#17191e" d="m 20.011607,33.486941 c -0.05699,0.13006 0.11127,0.218373 0.175499,0.31953 0.936295,0.993116 1.860831,1.995063 2.81341,2.976136 0.192686,0.206331 0.48036,0.296248 0.758987,0.371715 0.0018,0.585272 0.0063,1.171348 -0.0018,1.757422 0.108553,0.119623 0.307576,0.101961 0.448698,0.03934 -0.01,-0.591695 0.01089,-1.184192 -0.01176,-1.775083 0.286769,-0.101961 0.594345,-0.191076 0.806029,-0.407041 0.955293,-1.023624 1.925964,-2.038416 2.878543,-3.064448 0.03528,-0.06743 0.158311,-0.127653 0.109464,-0.211148 -1.071991,-0.299459 -2.189213,-0.425506 -3.304625,-0.480902 -1.574967,-0.05459 -3.161693,0.06423 -4.672432,0.47448 z"/>
 <path style="fill:#17191e" d="m 23.918977,6.0000444 c -1.034593,0.00614 -2.118027,0.2174052 -3.154214,0.544192 0.926483,3.3586006 1.806408,6.7298366 2.720696,10.0914646 0.126975,-0.01381 0.253964,-0.02603 0.380939,-0.03902 0.249398,-3.519804 0.615471,-7.0347542 0.85237,-10.5553482 -0.260136,-0.020012 -0.526126,-0.033891 -0.799791,-0.041284 z m -3.592741,0.6902933 c -1.241157,0.4352025 -2.392103,1.0225984 -3.278809,1.603189 -0.515476,0.3739655 -1.546988,1.0775054 -0.612362,0.4427061 1.828922,2.9239312 3.679902,5.8347912 5.51615,8.7546602 0.115579,-0.04548 0.23114,-0.09176 0.346719,-0.139676 C 22.032589,16.026514 21.827411,14.692061 21.557997,13.36817 21.334163,12.264385 21.16899,11.150905 20.945157,10.047933 20.716385,8.9319687 20.542046,7.807419 20.326236,6.6903377 Z"/>
 <g transform="translate(0,1.0002174)">
  <path style="opacity:0.2;fill:none;stroke:#000000;stroke-width:2;stroke-linecap:round;stroke-linejoin:round" d="M 14.000263,36 5.0002634,43"/>
  <path style="opacity:0.2;fill:none;stroke:#000000;stroke-width:2;stroke-linecap:round;stroke-linejoin:round" d="m 19.000263,36 -9,7"/>
  <path style="opacity:0.2;fill:none;stroke:#000000;stroke-width:2;stroke-linecap:round;stroke-linejoin:round" d="m 29,36 9,7"/>
  <path style="opacity:0.2;fill:none;stroke:#000000;stroke-width:2;stroke-linecap:round;stroke-linejoin:round" d="m 34,36 9,7"/>
 </g>
 <g>
  <path style="fill:none;stroke:#db3d7f;stroke-width:2;stroke-linecap:round;stroke-linejoin:round" d="M 14.000263,36 5.0002634,43"/>
  <path style="fill:none;stroke:#db3d7f;stroke-width:2;stroke-linecap:round;stroke-linejoin:round" d="m 19.000263,36 -9,7"/>
  <path style="fill:none;stroke:#db3d7f;stroke-width:2;stroke-linecap:round;stroke-linejoin:round" d="m 29,36 9,7"/>
  <path style="fill:none;stroke:#db3d7f;stroke-width:2;stroke-linecap:round;stroke-linejoin:round" d="m 34,36 9,7"/>
 </g>
</svg>
