<svg xmlns="http://www.w3.org/2000/svg" width="48" height="48" version="1.1">
 <circle style="opacity:0.2" cx="24" cy="25" r="20"/>
 <circle style="fill:#2d4a5e" cx="24" cy="24" r="19.5"/>
 <path style="fill:#bcdced" d="m 28.683418,21.919668 c 0,11.045695 5.029776,2.337658 -6.015919,2.337658 -11.045695,0 -17.340359,10.456584 -17.340359,-0.589111 0,-0.706734 -1.2904829,-1.073122 -1.2189663,-1.760935 C 5.0080236,13.252943 11.42671,6.2386621 19.783368,4.4453028 21.142767,4.1535724 22.553449,5.061712 24,5.061712 c 11.045695,0 4.683418,5.812261 4.683418,16.857956 z"/>
 <path style="fill:#65a3cf" d="m 24,4 c -1.204761,0.00882 -2.406261,0.1264887 -3.589844,0.3515625 L 26.21875,14.431641 35.904297,7.9824219 C 32.466406,5.4118126 28.292655,4.0155406 24,4 Z"/>
 <path style="fill:#6d8da4" d="m 27.863281,33.082031 -4.009765,10.910157 -0.119141,-0.0059 v 0.002 A 20,20 0 0 0 24,44 20,20 0 0 0 38.425781,37.818359 Z"/>
 <path style="fill:#426f8e" d="m 20.730469,37.490234 -4.236328,5.03125 a 20,20 0 0 0 6.207031,1.419922 v -0.0059 l -0.154297,-0.0078 z"/>
 <path style="opacity:0.7;fill:#ff0000" d="m 38.425781,37.818359 h 0.002 a 20,20 0 0 0 0.373047,-0.40039 20,20 0 0 1 -0.375,0.40039 z"/>
 <path style="opacity:0.7;fill:#ff0000" d="m 15.386719,42.021484 a 20,20 0 0 0 1.072265,0.486328 20,20 0 0 1 -1.072265,-0.486328 z"/>
 <path style="opacity:0.7;fill:#1b5e99" d="M 35.919922 7.9707031 L 4.6113281 28.824219 A 20 20 0 0 0 4.953125 30.027344 L 42.546875 31.447266 A 20 20 0 0 0 44 24 A 20 20 0 0 0 35.919922 7.9707031 z"/>
 <path style="fill:#81bde3" d="m 13.476562,7.0078125 c -0.367925,0.2329676 -0.728143,0.4778898 -1.080078,0.734375 L 17.158203,24.71875 18.599609,11.109375 Z"/>
 <path style="fill:#316f9f;fill-opacity:0" d="m 35.841797,7.9121094 -9.609375,6.5429686 5.175781,8.980469 5.427735,-14.7695314 C 36.512479,8.4044358 36.180937,8.1530114 35.841797,7.9121094 Z"/>
 <path style="fill:#4f96cb" d="m 20.400391,4.3359375 a 20,20 0 0 0 -1.111329,0.25 l -0.689453,6.5234375 5.763672,4.617187 1.869141,-1.271484 z"/>
 <path style="fill:#5687a5" d="m 31.408203,23.435547 -3.544922,9.646484 10.564453,4.736328 a 20,20 0 0 0 0.783204,-0.841797 z"/>
 <path style="opacity:0.7;fill:#3885c0" d="m 17.158203,24.71875 -1.828125,17.277344 a 20,20 0 0 0 1.16211,0.527344 l 4.246093,-5.042969 z"/>
 <path style="fill:#224c6d" d="m 40.994141,13.478516 -6.435547,1.380859 v 0.002 l -4.728516,12.867188 11.78125,-13.171875 c -0.194516,-0.365679 -0.400344,-0.725228 -0.617187,-1.078125 z"/>
 <path style="fill:#29628f" d="m 16.746094,28.039062 -1.578125,13.876954 c 0.459099,0.230165 0.926894,0.442562 1.402343,0.636718 l 4.248047,-4.75 -2.570312,-9.113281 z"/>
 <path style="fill:#438ec5" d="M 18.599609 11.109375 L 17.822266 18.453125 L 21.304688 17.705078 L 24.324219 15.695312 L 18.599609 11.109375 z"/>
 <path style="fill:#2f6c9f" d="M 26.232422 14.455078 L 24.363281 15.726562 L 24.324219 15.695312 L 21.304688 17.705078 L 27.357422 16.40625 L 26.232422 14.455078 z"/>
 <path style="fill:#316e9e" d="M 27.357422,16.40625 34.65625,14.839844 36.898438,8.7363281 C 36.574979,8.4747483 36.243437,8.2233239 35.904297,7.9824219 l -9.625,6.5527341 z"/>
 <path style="fill:#4c7da1" d="m 36.810547,8.6972656 -2.265625,6.1660154 6.419922,-1.378906 C 39.843342,11.677993 38.44097,10.062001 36.810547,8.6972656 Z"/>
 <path style="opacity:0.7;fill:#ff00ff" d="m 41.59375,14.533203 c 0,0 0.01389,0.02756 0,0 z"/>
 <path style="fill:#4c7798" d="m 4.1464844,22.578125 c -0.041752,0.483987 -0.065856,0.969335 -0.072266,1.455078 0.00895,1.601631 0.2102639,3.196388 0.5996093,4.75 L 10.109375,25.162109 4.4101562,22.691406 Z"/>
 <path style="fill:#71848e" d="m 35.878906,31.195312 3.332032,5.78125 a 20,20 0 0 0 3.335937,-5.529296 z"/>
 <path style="fill:#35576f" d="m 41.605469,14.558594 -11.794922,13.185547 -1.167969,3.177734 13.904297,0.525391 C 43.502024,29.080311 43.995274,26.552404 44,24 c -0.0079,-3.296378 -0.830487,-6.539693 -2.394531,-9.441406 z"/>
 <path style="fill:#285477" d="m 10.128906,25.148438 -5.5175779,3.675781 c 0.1013615,0.404507 0.2153495,0.805745 0.3417969,1.203125 l 11.513672,0.435547 0.28125,-2.46875 z"/>
 <path style="fill:#265679" d="M 32.292969 24.970703 L 29.833984 27.716797 L 28.65625 30.921875 L 35.878906 31.195312 L 32.292969 24.970703 z"/>
 <path style="fill:#4f82a6" d="M 4.7363281 29.265625 C 4.7276481 29.271825 4.7215826 29.277003 4.7128906 29.283203 C 6.2327528 34.796458 10.041538 39.388432 15.167969 41.910156 L 16.474609 30.431641 L 16.470703 30.431641 L 16.466797 30.462891 L 4.953125 30.027344 C 4.873058 29.775721 4.8063616 29.520192 4.7363281 29.265625 z M 15.255859 41.955078 C 15.281067 41.967324 15.304807 41.981995 15.330078 41.994141 C 15.330172 41.992774 15.329985 41.991601 15.330078 41.990234 C 15.305494 41.978183 15.280394 41.967231 15.255859 41.955078 z"/>
 <path style="fill:#20476a" d="M 16.746094 28.039062 L 16.474609 30.419922 L 18.759766 30.505859 L 18.248047 28.689453 L 16.746094 28.039062 z"/>
 <path style="fill:#1d4568" d="M 31.408203 23.435547 L 29.830078 27.728516 L 32.292969 24.974609 L 31.408203 23.435547 z"/>
 <path style="fill:#204a6c" d="M 31.988281 21.857422 L 29.830078 27.728516 L 33.789062 23.302734 L 31.988281 21.857422 z"/>
 <path style="fill:#2c5774" d="m 33.785156,23.300781 -1.492187,1.669922 3.585937,6.224609 1.726563,0.06445 4.908203,0.185546 c 0.06495,-0.147668 0.1281,-0.296116 0.189453,-0.445312 0.05322,-0.141475 0.09848,-0.285216 0.148437,-0.427734 z"/>
 <path style="fill:#2e639c" d="M 24.314453 15.701172 L 21.304688 17.705078 L 25.648438 16.773438 L 24.314453 15.701172 z"/>
 <path style="fill:#1d4568" d="M 31.408203 23.435547 L 29.830078 27.726562 L 32.294922 24.972656 L 31.408203 23.435547 z"/>
 <path style="opacity:0.2;fill:#8b9cbe" d="M 24,4 A 20,20 0 0 0 4,24 20,20 0 0 0 4.0215,24.582 20,20 0 0 1 24,5 20,20 0 0 1 43.979,24.418 20,20 0 0 0 44,24 20,20 0 0 0 24,4 Z"/>
 <path style="fill:#343f4b" d="M 34.558594 14.859375 L 4.3359375 21.349609 L 4.1933594 21.380859 C 4.1416484 21.767616 4.1012664 22.155803 4.0722656 22.544922 L 18.248047 28.689453 L 22.546875 43.927734 L 23.853516 43.992188 L 34.558594 14.859375 z"/>
 <path style="opacity:0.2" d="M 20.570671,27.699511 11.238822,23.213245 30.577174,19.24369 23.54223,37.894 Z"/>
 <path style="fill:#8b9cbe" d="M 20.570671,26.699403 11.238822,22.213137 30.577174,18.243582 23.54223,36.893892 Z"/>
</svg>
