<svg width="48" height="48" version="1.1" xmlns="http://www.w3.org/2000/svg">
 <circle cx="24" cy="30" r="15" style="opacity:.2"/>
 <circle cx="24" cy="29" r="15" style="fill:#b2bfd9"/>
 <path d="M 24 14 A 15 15 0 0 0 9 29 A 15 15 0 0 0 9.0195312 29.585938 A 15 15 0 0 1 24 15 A 15 15 0 0 1 38.980469 29.414062 A 15 15 0 0 0 39 29 A 15 15 0 0 0 24 14 z " style="fill:#8b9cbe;opacity:.1"/>
 <path d="m26 5s1 2 1 4c0 3.073181-2.961072 4.700606-5 7-3 3.38324-3 7-4 7-2 0-3-3-3-3s0.141439 2.926798 1 4c4 5 1 6 1 6s-4 0.536305-4-3c0-2 1-2.625632 1-4 0-1-1.466797-2-1.466797-2s0.466797 1 0.466797 2-2 1-2 6c0 3 4 4 5 5 0.745356 0.745356 1 3-1 3-0.745356 0-1-1-1-2v-1s-1.014903 0.998737-1 2c0.05954 4 7 7 7 7s-1-3-1-5c0-4 2-3.200604 2-6 0-4-1-5-1-5s2.418082 2 2.470703 5c0.03047 1.737089-1.899823 3.316474-1.470703 5 0.23287 0.913598 1 2 2 2 2 0 2.296357-0.950697 2.527344-2 0.401497-1.823877-2.523207-3.132459-2.527344-5-0.0017-0.745354 1.466797-2 1.466797-2s-0.466797 1-0.466797 2c0 2.134375 4 2.547977 4 5 0 2.311884-3.531305 4-3.478516 6 0.0098 0.369468 0.117573 0.92049 0.478516 1 4.53962 1 11-5 11-10s-4-7.400391-4-7.400391 3-1.599609 3-4.599609c0-2-1.392755-3.178266-3-8-1-3 1-5 1-5s-3 2-3 4c0 4 1.496094 4 1.496094 7 0 1.20185-0.496094 3-1.496094 3-0.698471 0-0.984546-1-1.09241-2-0.074905-0.694443 1.09241-2 1.09241-2s-2 1-2.000613 3c-2.04e-4 0.666667 1.000613 2-0.999387 2s-3-1-3-3c0-2.236068 3-6 3-6s2-2.891815 2-5c0-2-3-5-3-5zm3 21s3 2 3 5c0 0.942809-1 2-2 2-1.447683 0-3-0.79815-3-2 0-2 1.580995-3 2.482422-3 0.517243-1-0.482422-2-0.482422-2z" style="opacity:.1"/>
 <path d="m26 4s1 2 1 4c0 3.073181-2.961072 4.700606-5 7-3 3.38324-3 7-4 7-2 0-3-3-3-3s0.141439 2.926798 1 4c4 5 1 6 1 6s-4 0.536305-4-3c0-2 1-2.625632 1-4 0-1-1.466797-2-1.466797-2s0.466797 1 0.466797 2-2 1-2 6c0 3 4 4 5 5 0.745356 0.745356 1 3-1 3-0.745356 0-1-1-1-2v-1s-1.014903 0.998737-1 2c0.05954 4 7 7 7 7s-1-3-1-5c0-4 2-3.200604 2-6 0-4-1-5-1-5s2.418082 2 2.470703 5c0.03047 1.737089-1.899823 3.316474-1.470703 5 0.23287 0.913598 1 2 2 2 2 0 2.296357-0.950697 2.527344-2 0.401497-1.823877-2.523207-3.132459-2.527344-5-0.0017-0.745354 1.466797-2 1.466797-2s-0.466797 1-0.466797 2c0 2.134375 4 2.547977 4 5 0 2.311884-3.531305 4-3.478516 6 0.0098 0.369468 0.117573 0.92049 0.478516 1 4.53962 1 11-5 11-10s-4-7.400391-4-7.400391 3-1.599609 3-4.599609c0-2-1.392755-3.178266-3-8-1-3 1-5 1-5s-3 2-3 4c0 4 1.496094 4 1.496094 7 0 1.20185-0.496094 3-1.496094 3-0.698471 0-0.984546-1-1.09241-2-0.074905-0.694443 1.09241-2 1.09241-2s-2 1-2.000613 3c-2.04e-4 0.666667 1.000613 2-0.999387 2s-3-1-3-3c0-2.236068 3-6 3-6s2-2.891815 2-5c0-2-3-5-3-5zm3 21s3 2 3 5c0 0.942809-1 2-2 2-1.447683 0-3-0.79815-3-2 0-2 1.580995-3 2.482422-3 0.517243-1-0.482422-2-0.482422-2z" style="fill:#f34235"/>
</svg>
