<svg xmlns="http://www.w3.org/2000/svg" width="48" height="48" version="1.1">
 <path style="opacity:0.2" d="m 14.883609,44 c -1.214106,0 -2.703528,-0.876135 -3.309786,-1.946966 L 2.4546938,25.946966 c -0.6062584,-1.070831 -0.6062584,-2.823101 0,-3.893932 L 11.573823,5.9469664 c 0.606258,-1.0708315 2.09568,-1.9469663 3.309786,-1.9469663 h 18.232784 c 1.214106,0 2.703527,0.8761348 3.309698,1.9469663 l 9.119217,16.1060676 c 0.606259,1.070831 0.606259,2.823101 0,3.893932 L 36.426179,42.053034 C 35.820009,43.123865 34.330587,44 33.116481,44 Z"/>
 <path style="fill:#17b5f9" d="m 14.883609,43 c -1.214106,0 -2.703528,-0.876135 -3.309786,-1.946966 L 2.4546938,24.946966 c -0.6062584,-1.070831 -0.6062584,-2.823101 0,-3.893932 L 11.573823,4.9469664 c 0.606258,-1.0708315 2.09568,-1.9469663 3.309786,-1.9469663 h 18.232784 c 1.214106,0 2.703527,0.8761348 3.309698,1.9469663 l 9.119217,16.1060676 c 0.606259,1.070831 0.606259,2.823101 0,3.893932 L 36.426179,41.053034 C 35.820009,42.123865 34.330587,43 33.116481,43 Z"/>
 <path style="opacity:0.2;fill:#8b9cbe" d="M 14.882813,3 C 13.668707,3 12.180478,3.8764341 11.57422,4.9472656 L 2.4550791,21.052734 C 2.0801005,21.715057 1.9384652,22.638778 2.0273448,23.5 2.082164,22.968814 2.2237993,22.461243 2.4550791,22.052734 L 11.57422,5.9472656 C 12.180478,4.8764341 13.668707,4 14.882813,4 h 18.234376 c 1.214106,0 2.702422,0.8764341 3.308593,1.9472656 l 9.119141,16.1054684 c 0.23128,0.408509 0.372915,0.91608 0.427734,1.447266 0.08888,-0.861222 -0.05275,-1.784943 -0.427734,-2.447266 L 36.425782,4.9472656 C 35.819611,3.8764341 34.331295,3 33.117189,3 Z"/>
 <path style="opacity:0.2" d="M 8.7128916,11 5.3164072,17 H 31.291017 L 4.8691416,30.210938 8.7128916,37 H 39.28711 l 3.396485,-6 H 16.708985 L 43.13086,17.789062 39.28711,11 Z"/>
 <path style="fill:#8b9cbe" d="M 8.7128916,10 5.3164072,16 H 31.291017 L 4.8691416,29.210938 8.7128916,36 H 39.28711 l 3.396485,-6 H 16.708985 L 43.13086,16.789062 39.28711,10 Z"/>
</svg>
