<svg xmlns="http://www.w3.org/2000/svg" height="48" width="48" version="1.1">
 <path style="opacity:.2" d="m24 5c-7 16-7 17-20 40 0 0 12-7 20-7s20 7 20 7c-13-23-13-24-20-40z"/>
 <path style="fill:#606060" d="m24 4c-7 16-7 17-20 40 0 0 12-7 20-7s20 7 20 7c-13-23-13-24-20-40z"/>
 <path style="opacity:.1;fill:#8b9cbe" d="m24 4c-7 16-7 17-20 40 0 0 0.5808-0.314 0.8105-0.443 12.1075-21.468 12.3545-22.934 19.1895-38.557 6.835 15.623 7.082 17.089 19.189 38.557 0.23 0.129 0.811 0.443 0.811 0.443-13-23-13-24-20-40z"/>
 <path style="opacity:.2" d="m25 18s-6 4-6 9c0 2.281014 0.534169 4.663731 1.25 6.845703-0.152699-0.624071-0.25-1.24635-0.25-1.845703 0-3 3-5 3-5s3 2 3 5c0 2.349551-0.443901 4.458058-0.912109 6.054688 0.468225 0.03318 0.945402 0.0871 1.43164 0.158203 1.243529-2.246078 2.480469-5.228343 2.480469-8.212891 0-5-4-9-4-9z"/>
 <path style="fill:#8b9cbe" d="m25 17s-6 4-6 9c0 2.281014 0.534169 4.663731 1.25 6.845703-0.152699-0.624071-0.25-1.24635-0.25-1.845703 0-3 3-5 3-5s3 2 3 5c0 2.349551-0.443901 4.458058-0.912109 6.054688 0.468225 0.03318 0.945402 0.0871 1.43164 0.158203 1.243529-2.246078 2.480469-5.228343 2.480469-8.212891 0-5-4-9-4-9z"/>
</svg>
