<svg xmlns="http://www.w3.org/2000/svg" width="48" height="48" version="1">
 <path style="opacity:0.2" d="M 44,25 A 20,20 0 0 1 24,45 20,20 0 0 1 4,25 20,20 0 0 1 24,5 20,20 0 0 1 44,25 Z"/>
 <path style="fill:#33c5ff" d="m44 24a20 20 0 0 1 -20 20 20 20 0 0 1 -20 -20 20 20 0 0 1 20 -20 20 20 0 0 1 20 20z"/>
 <path fill="#fff" style="opacity:0.2" d="m24 4c-11.079 0-19.998 8.92-19.998 20 0 0.16772-0.004 0.33329 0 0.5 0.2642-10.846 9.087-19.5 19.998-19.5s19.734 8.6536 19.998 19.5c0.004-0.16671 0-0.33228 0-0.5 0-11.08-8.919-20-19.998-20z"/>
 <path style="opacity:0.2;fill-rule:evenodd" d="m 18.50312,40.027344 c -0.985085,-0.360175 -1.905258,-0.818348 -2.771988,-1.34143 4.306885,0.330903 9.927208,-0.661805 13.717367,-4.208826 0,0 7.225227,-5.772977 1.998169,-15.246973 0,0 0.842542,3.818106 -0.231631,6.959136 0,0 -1.024542,4.170903 -5.578328,5.411789 C 18.929482,33.428639 11.286802,28.833926 8.0922742,26.559607 7.8517339,24.221654 8.0655472,21.806064 8.922094,19.44902 c 1.270169,-3.492295 3.457923,-6.217151 6.375001,-8.047297 -0.729274,5.102264 -0.152735,9.799808 0.675811,11.767406 1.112356,2.638312 3.245483,5.615418 7.01655,6.009956 3.771067,0.395812 5.850681,-3.033106 5.850681,-3.033106 1.934533,-2.939942 2.237444,-7.161496 2.208169,-7.263311 -0.02931,-0.10309 -0.515451,-0.381811 -0.515451,-0.381811 -1.301991,5.268987 -3.449064,6.829572 -3.449064,6.829572 -3.385436,3.268301 -5.78324,1.001617 -5.78324,1.001617 C 18.723294,23.563919 20.728,19.264478 20.728,19.264478 c 1.009263,-3.064667 3.750534,-7.54967 7.083782,-9.8303535 0.554909,0.137452 1.113631,0.222724 1.66217,0.422538 2.017261,0.7356215 3.783798,1.8441465 5.277963,3.2059375 -2.437253,0.889619 -6.372493,2.770672 -6.372493,2.770672 -6.237604,2.626858 -6.65887,6.600236 -6.65887,6.600236 -0.645272,4.095554 2.603983,2.162572 2.603983,2.162572 3.344705,-1.629057 4.987783,-6.506306 4.987783,-6.506306 -1.043625,-0.198542 -1.865801,0.118361 -1.865801,0.118361 -1.335088,3.295027 -4.0587,4.650454 -4.0587,4.650454 -1.071634,0.567625 -1.321083,-0.435264 -1.321083,-0.435264 -0.180726,-0.750895 0.775083,-0.879436 0.775083,-0.879436 1.483992,-0.576535 2.43344,-2.135595 2.648528,-2.77322 0.213814,-0.638896 0.612175,-0.688531 0.612175,-0.688531 2.033805,-0.649079 3.888157,-0.993968 3.888157,-0.993968 2.525077,-0.310538 6.39032,0.893438 6.39032,0.893438 0.866721,0.34872 1.697806,0.609623 2.435988,0.818347 1.416534,3.539385 1.64053,7.769832 0.236719,11.633757 C 36.02718,38.76355 26.825424,43.06019 18.50312,40.027344 Z"/>
 <path style="fill:#8b9cbe;fill-rule:evenodd" d="m 18.50312,39.027281 c -0.985085,-0.360175 -1.905258,-0.818348 -2.771988,-1.34143 4.306885,0.330903 9.927208,-0.661805 13.717367,-4.208826 0,0 7.225227,-5.772977 1.998169,-15.246973 0,0 0.842542,3.818106 -0.231631,6.959136 0,0 -1.024542,4.170903 -5.578328,5.411789 -6.707227,1.827599 -14.349907,-2.767114 -17.5444348,-5.041433 -0.2405403,-2.337953 -0.026727,-4.753543 0.8298198,-7.110587 1.270169,-3.492295 3.457923,-6.217151 6.375001,-8.047297 -0.729274,5.102264 -0.152735,9.799808 0.675811,11.767406 1.112356,2.638312 3.245483,5.615418 7.01655,6.009956 3.771067,0.395812 5.850681,-3.033106 5.850681,-3.033106 1.934533,-2.939942 2.237444,-7.161496 2.208169,-7.263311 -0.02931,-0.10309 -0.515451,-0.381811 -0.515451,-0.381811 -1.301991,5.268987 -3.449064,6.829572 -3.449064,6.829572 -3.385436,3.268301 -5.78324,1.001617 -5.78324,1.001617 C 18.723294,22.563856 20.728,18.264415 20.728,18.264415 c 1.009263,-3.064667 3.750534,-7.54967 7.083782,-9.8303531 0.554909,0.137452 1.113631,0.222724 1.66217,0.422538 2.017261,0.735622 3.783798,1.8441461 5.277963,3.2059371 -2.437253,0.889619 -6.372493,2.770672 -6.372493,2.770672 -6.237604,2.626858 -6.65887,6.600236 -6.65887,6.600236 -0.645272,4.095554 2.603983,2.162572 2.603983,2.162572 3.344705,-1.629057 4.987783,-6.506306 4.987783,-6.506306 -1.043625,-0.198542 -1.865801,0.118361 -1.865801,0.118361 -1.335088,3.295027 -4.0587,4.650454 -4.0587,4.650454 -1.071634,0.567625 -1.321083,-0.435264 -1.321083,-0.435264 -0.180726,-0.750895 0.775083,-0.879436 0.775083,-0.879436 1.483992,-0.576535 2.43344,-2.135595 2.648528,-2.77322 0.213814,-0.638896 0.612175,-0.688531 0.612175,-0.688531 2.033805,-0.649079 3.888157,-0.993968 3.888157,-0.993968 2.525077,-0.310538 6.39032,0.893438 6.39032,0.893438 0.866721,0.34872 1.697806,0.609623 2.435988,0.818347 1.416534,3.539385 1.64053,7.769832 0.236719,11.633757 -3.026524,8.329838 -12.22828,12.626478 -20.550584,9.593632 z"/>
</svg>
