<svg xmlns="http://www.w3.org/2000/svg" width="48" height="48" x="0" y="0" version="1.1" xml:space="preserve">
 <path style="opacity:0.2" d="M 43.94088,38.079106 C 43.785496,36.766233 43.10173,35.65394 42.55248,34.760139 42.359088,34.445571 42.135822,34.268339 42,34.002823 41.98545,25.887986 38.606253,16.214454 31,12.010662 c 0.607752,-0.261287 2.288165,-0.426713 2.894239,-0.537653 0.452554,-0.08217 0.830984,-0.361921 1.011522,-0.747504 0.180536,-0.385592 0.139734,-0.8271649 -0.10918,-1.1801191 C 34.560524,9.2106953 33.296574,8.4012938 30.937299,8.117335 28.075726,7.7726778 26.522625,8.1975115 23.395185,9.2577235 21.560007,9.8799117 20.668688,9.966171 19.636704,10.065945 c -0.877532,0.08487 -1.872254,0.181126 -3.452556,0.583123 -4.551427,1.157957 -6.69253,2.994757 -7.9071009,4.200407 C 7.3289032,15.79062 6.9474599,16.748519 7,17.526811 c -0.2256242,0.11297 -0.345548,0.238965 -0.5950203,0.369518 -1.6680553,0.872649 -2.2456239,1.280404 -2.3788372,1.975486 -0.098187,0.512937 0.082164,0.848973 0.5084466,1.308809 0.687932,0.639313 1.0791259,0.819349 2.159361,0.819349 0.7881765,0 1.0027336,-0.240121 1.973794,-0.453205 0.8594595,-0.188573 1.9290789,-0.423139 2.7414019,-0.501441 1.031425,-0.09957 2.063224,-0.0045 3.620051,0.299678 0.461123,0.09017 0.98373,0.192291 1.556454,0.295614 0.736121,0.132773 1.503542,0.400323 2.281396,0.400323 0.661782,0 1.64758,0.02705 2.125285,-0.03384 0.346355,0.648229 0.921687,2.01979 1.849336,3.123637 2.420013,2.879753 4.529906,2.872191 4.819435,2.87422 0.52335,0.007 1.016707,-0.149032 1.257794,-0.57538 0.241089,-0.426518 0.2001,-0.935746 -0.111228,-1.322858 -0.0063,-0.008 -0.526068,-0.817519 -0.774236,-2.119914 -0.0708,-0.371048 -0.0392,-0.683942 -0.03343,-0.980066 3.221026,0.936735 8.325004,3.790181 8.97867,6.898326 L 37,31.003892 c -0.0091,-3.89e-4 0.0093,2e-4 0,0 -0.148118,-0.006 -0.596207,-0.0075 -0.821646,-0.0075 -0.585952,0 -1.220159,0.05886 -1.938766,0.172524 -2.333751,0.369178 -3.690622,1.875531 -3.848987,2.04618 -0.365918,0.39387 -0.453485,1.350584 -0.190227,1.807041 0.261211,0.453229 0.776551,0.720783 1.337351,0.677159 l 0.0259,-1.7e-4 c 3.567906,0.493164 8.094969,2.71972 9.561513,5.560978 C 41.354116,41.713342 41.851943,42 42.394857,42 c 0.03484,0 0.06987,-9.8e-4 0.104893,-0.004 0.582786,-0.03959 1.076886,-0.404186 1.238419,-0.913914 0.04117,-0.131743 0.400758,-1.332155 0.202707,-3.003219 z"/>
 <path style="fill:#489cf2" d="M 43.94088,37.079133 C 43.785496,35.76626 43.10173,34.653967 42.55248,33.760166 42.359088,33.445598 42.135822,33.268366 42,33.00285 41.98545,24.888013 38.606253,15.214481 31,11.010689 c 0.607752,-0.261287 2.288165,-0.426713 2.894239,-0.537653 0.452554,-0.08217 0.830984,-0.361921 1.011522,-0.7475038 C 35.086297,9.3399397 35.045495,8.8983671 34.796581,8.5454129 34.560524,8.2107223 33.296574,7.4013208 30.937299,7.117362 28.075726,6.7727048 26.522625,7.1975385 23.395185,8.2577505 21.560007,8.8799387 20.668688,8.966198 19.636704,9.0659724 18.759172,9.1508422 17.76445,9.2470979 16.184148,9.6490946 11.632721,10.807052 9.491618,12.643852 8.2770471,13.849502 7.3289032,14.790647 6.9474599,15.748546 7,16.526838 6.7743758,16.639808 6.654452,16.765803 6.4049797,16.896356 4.7369244,17.769005 4.1593558,18.17676 4.0261425,18.871842 3.9279555,19.384779 4.1083065,19.720815 4.5345891,20.180651 5.2225211,20.819964 5.613715,21 6.6939501,21 c 0.7881765,0 1.0027336,-0.240121 1.973794,-0.453205 0.8594595,-0.188573 1.9290789,-0.423139 2.7414019,-0.501441 1.031425,-0.09957 2.063224,-0.0045 3.620051,0.299678 0.461123,0.09017 0.98373,0.192291 1.556454,0.295614 0.736121,0.132773 1.503542,0.400323 2.281396,0.400323 0.661782,0 1.64758,0.02705 2.125285,-0.03384 0.346355,0.648229 0.921687,2.01979 1.849336,3.123637 2.420013,2.879753 4.529906,2.872191 4.819435,2.87422 0.52335,0.007 1.016707,-0.149032 1.257794,-0.57538 0.241089,-0.426518 0.2001,-0.935746 -0.111228,-1.322858 -0.0063,-0.008 -0.526068,-0.817519 -0.774236,-2.119914 -0.0708,-0.371048 -0.0392,-0.683942 -0.03343,-0.980066 3.221026,0.936735 8.325004,3.790181 8.97867,6.898326 L 37,30.003919 c -0.0091,-3.89e-4 0.0093,2e-4 0,0 -0.148118,-0.006 -0.596207,-0.0075 -0.821646,-0.0075 -0.585952,0 -1.220159,0.05886 -1.938766,0.172524 -2.333751,0.369178 -3.690622,1.875531 -3.848987,2.04618 -0.365918,0.39387 -0.453485,1.350584 -0.190227,1.807041 0.261211,0.453229 0.776551,0.720783 1.337351,0.677159 l 0.0259,-1.7e-4 c 3.567906,0.493164 8.094969,2.71972 9.561513,5.560978 0.228978,0.453238 0.726805,0.739896 1.269719,0.739896 0.03484,0 0.06987,-9.8e-4 0.104893,-0.004 0.582786,-0.03959 1.076886,-0.404186 1.238419,-0.913914 0.04117,-0.131743 0.400758,-1.332155 0.202707,-3.003219 z"/>
 <circle style="opacity:0.2" cx="10.5" cy="16.5" r="1.5"/>
 <circle style="fill:#8b9cbe" cx="10.5" cy="15.5" r="1.5"/>
 <path style="fill:#8b9cbe;opacity:0.2" d="M 28.992188 7.0019531 C 27.201553 7.0257328 25.740111 7.4626535 23.394531 8.2578125 C 21.559353 8.8800007 20.668703 8.9666319 19.636719 9.0664062 C 18.759187 9.151276 17.763896 9.2464408 16.183594 9.6484375 C 11.632167 10.806395 9.4919147 12.643959 8.2773438 13.849609 C 7.3291998 14.790754 6.9474599 15.749052 7 16.527344 C 6.7743758 16.640314 6.6537692 16.765931 6.4042969 16.896484 C 4.7362416 17.769133 4.1586039 18.176012 4.0253906 18.871094 C 3.9724217 19.147808 4.0072916 19.374745 4.1113281 19.595703 C 4.3435725 19.054135 4.9692276 18.647246 6.4042969 17.896484 C 6.6537692 17.765931 6.7743758 17.640314 7 17.527344 C 6.9474599 16.749052 7.3291998 15.790754 8.2773438 14.849609 C 9.4919147 13.643959 11.632167 11.806394 16.183594 10.648438 C 17.763896 10.246441 18.759187 10.151276 19.636719 10.066406 C 20.668703 9.9666322 21.559353 9.8800007 23.394531 9.2578125 C 26.521971 8.1976005 28.075927 7.7725303 30.9375 8.1171875 C 33.296775 8.4011463 34.560818 9.2102313 34.796875 9.5449219 C 34.83997 9.6060296 34.867887 9.6726113 34.898438 9.7382812 C 34.900718 9.7335707 34.904029 9.7293522 34.90625 9.7246094 C 35.086786 9.3390169 35.045789 8.8978761 34.796875 8.5449219 C 34.560818 8.2102313 33.296775 7.4011463 30.9375 7.1171875 C 30.222107 7.0310232 29.589066 6.9940266 28.992188 7.0019531 z M 32.171875 11.734375 C 31.701747 11.812929 31.253114 11.900946 31 12.009766 C 38.606253 16.213558 41.98545 25.887116 42 34.001953 C 42.135822 34.267469 42.359342 34.445198 42.552734 34.759766 C 43.101714 35.653127 43.785579 36.766096 43.941406 38.078125 C 43.941406 38.078125 43.941406 38.080078 43.941406 38.080078 C 43.96502 38.279745 43.95956 38.447619 43.96875 38.632812 C 44.000505 38.18332 44.012021 37.67717 43.941406 37.080078 C 43.941406 37.080078 43.941406 37.078125 43.941406 37.078125 C 43.785579 35.766096 43.101714 34.653127 42.552734 33.759766 C 42.359342 33.445198 42.135822 33.267469 42 33.001953 C 41.986224 25.318736 38.950121 16.246656 32.171875 11.734375 z M 28 23.005859 C 27.99423 23.301983 27.962403 23.61528 28.033203 23.986328 C 28.281371 25.288723 28.802294 26.099422 28.808594 26.107422 C 28.869099 26.182655 28.909221 26.264702 28.949219 26.347656 C 29.142878 25.938583 29.10074 25.470683 28.808594 25.107422 C 28.802353 25.099497 28.291835 24.300525 28.041016 23.019531 C 28.028123 23.015738 28.012833 23.009592 28 23.005859 z M 36.177734 29.996094 C 35.591782 29.996094 34.958841 30.054305 34.240234 30.167969 C 31.906483 30.537147 30.54899 32.044195 30.390625 32.214844 C 30.0756 32.553934 29.983117 33.293995 30.126953 33.789062 C 30.183934 33.562435 30.264193 33.350934 30.390625 33.214844 C 30.54899 33.044195 31.906483 31.537147 34.240234 31.167969 C 34.958841 31.054305 35.591782 30.996094 36.177734 30.996094 C 36.403173 30.996094 36.851882 30.997906 37 31.003906 L 36.980469 30.003906 C 36.822246 29.998256 36.397819 29.996094 36.177734 29.996094 z"/>
</svg>
