<svg xmlns="http://www.w3.org/2000/svg" width="48" height="48" version="1">
 <path style="opacity:0.2" d="m 24.000001,4.9995634 c -2.77,0 -5,2.676 -5,5.9999996 l 0,7.458984 -3.308594,-3.308593 c -0.767218,-0.767219 -1.770224,-1.150391 -2.771484,-1.150391 -1.001262,0 -2.002313,0.383172 -2.769531,1.150391 -1.534438,1.534436 -1.534438,4.006579 0,5.541015 l 8.308593,8.308594 -8.308593,8.308594 c -1.534438,1.534436 -1.534438,4.00658 0,5.541015 1.534435,1.534437 4.00658,1.534437 5.541015,0 l 6.333985,-6.333984 c 0.60539,0.311054 1.272224,0.484375 1.974609,0.484375 0.702385,0 1.369219,-0.173321 1.974609,-0.484375 l 6.333985,6.333984 c 1.534436,1.534437 4.006579,1.534437 5.541015,0 1.534436,-1.534435 1.534436,-4.006579 0,-5.541015 l -8.308593,-8.308594 8.308593,-8.308594 c 1.534436,-1.534436 1.534436,-4.006579 0,-5.541015 -1.534436,-1.534436 -4.006579,-1.534436 -5.541015,0 l -3.308594,3.308593 0,-7.458984 c 0,-3.3239995 -2.23,-5.9999995 -5,-5.9999995 z"/>
 <path style="fill:#478f30" d="m 24.000001,3.9995632 c -2.77,0 -5,2.676 -5,6 l 0,7.4589838 -3.308594,-3.308593 c -0.767218,-0.767219 -1.770224,-1.150391 -2.771484,-1.150391 -1.001262,0 -2.002313,0.383172 -2.769531,1.150391 -1.534438,1.534436 -1.534438,4.006579 0,5.541015 l 8.308593,8.308594 -8.308593,8.308594 c -1.534438,1.534436 -1.534438,4.00658 0,5.541015 1.534435,1.534437 4.00658,1.534437 5.541015,0 l 6.333985,-6.333984 c 0.60539,0.311054 1.272224,0.484375 1.974609,0.484375 0.702385,0 1.369219,-0.173321 1.974609,-0.484375 l 6.333985,6.333984 c 1.534436,1.534437 4.006579,1.534437 5.541015,0 1.534436,-1.534435 1.534436,-4.006579 0,-5.541015 l -8.308593,-8.308594 8.308593,-8.308594 c 1.534436,-1.534436 1.534436,-4.006579 0,-5.541015 -1.534436,-1.534436 -4.006579,-1.534436 -5.541015,0 l -3.308594,3.308593 0,-7.4589838 c 0,-3.324 -2.23,-6 -5,-6 z"/>
 <path style="opacity:0.1;fill:#8b9cbe" d="M 24 4 C 21.23 4 19 6.676 19 10 L 19 11 C 19 7.6760004 21.23 5 24 5 C 26.77 5 29 7.6760005 29 11 L 29 10 C 29 6.676 26.77 4 24 4 z M 12.919922 13 C 11.91866 13 10.917609 13.383172 10.150391 14.150391 C 9.254955 15.045825 8.8991842 16.258525 9.0488281 17.419922 C 9.1558386 16.591583 9.5117208 15.78906 10.150391 15.150391 C 10.917609 14.383172 11.91866 14 12.919922 14 C 13.921182 14 14.924188 14.383172 15.691406 15.150391 L 19 18.458984 L 19 17.458984 L 15.691406 14.150391 C 14.924188 13.383172 13.921182 13 12.919922 13 z M 35.080078 13 C 34.078433 13 33.075812 13.383173 32.308594 14.150391 L 29 17.458984 L 29 18.458984 L 32.308594 15.150391 C 33.84303 13.615955 36.315173 13.615955 37.849609 15.150391 C 38.488278 15.78906 38.844162 16.591583 38.951172 17.419922 C 39.100816 16.258525 38.745044 15.045825 37.849609 14.150391 C 37.082391 13.383173 36.081723 13 35.080078 13 z M 17.958984 28.5 L 10.150391 36.308594 C 9.254955 37.204028 8.8991842 38.416728 9.0488281 39.578125 C 9.1558386 38.749786 9.5117208 37.947263 10.150391 37.308594 L 18.458984 29 L 17.958984 28.5 z M 30.041016 28.5 L 29.541016 29 L 37.849609 37.308594 C 38.488278 37.947263 38.844162 38.749786 38.951172 39.578125 C 39.100816 38.416728 38.745044 37.204028 37.849609 36.308594 L 30.041016 28.5 z"/>
 <rect style="opacity:0.2" width="30" height="24" x="-43" y="-36" rx="15" ry="12" transform="matrix(0,-1,-1,0,0,0)"/>
 <rect style="fill:#b08e57" width="30" height="24" x="-42" y="-36" rx="15" ry="12" transform="matrix(0,-1,-1,0,0,0)"/>
</svg>
