<svg xmlns="http://www.w3.org/2000/svg" width="48" height="48" version="1">
 <path style="opacity:0.2" d="m 20,22 c -2.718108,0 -5,2.281892 -5,5 v 10 c 0,2.718108 2.281892,5 5,5 h 14 c 2.718108,0 5,-2.281892 5,-5 V 27 c 0,-2.718108 -2.281892,-5 -5,-5 z"/>
 <rect style="fill:none;stroke:#b2bfd9;stroke-width:6;stroke-linejoin:round" width="18" height="14" x="18" y="24" rx="2" ry="2"/>
 <rect style="fill:#1fa8f3" width="18" height="14" x="18" y="24" rx="2" ry="2"/>
 <path style="opacity:0.2" d="m 8,24 c -2.7181083,0 -5,2.281892 -5,5 v 10 c 0,2.718108 2.2818917,5 5,5 h 14 c 2.718108,0 5,-2.281892 5,-5 V 29 c 0,-2.718108 -2.281892,-5 -5,-5 z"/>
 <rect style="fill:none;stroke:#b2bfd9;stroke-width:6;stroke-linejoin:round" width="18" height="14" x="6" y="26" rx="2" ry="2"/>
 <path style="opacity:0.2;fill:#8b9cbe" d="m 8,23 c -2.7181083,0 -5,2.281892 -5,5 v 1 c 0,-2.718108 2.2818917,-5 5,-5 h 14 c 2.718108,0 5,2.281892 5,5 v -1 c 0,-2.718108 -2.281892,-5 -5,-5 z"/>
 <rect style="fill:#2475c2" width="18" height="14" x="6" y="26" rx="2" ry="2"/>
 <path style="opacity:0.2" d="m 19,5 c -3.272108,0 -6,2.7278917 -6,6 v 16 c 0,3.272108 2.727892,6 6,6 h 20 c 3.272108,0 6,-2.727892 6,-6 V 11 C 45,7.7278917 42.272108,5 39,5 Z"/>
 <rect style="fill:none;stroke:#b2bfd9;stroke-width:6;stroke-linejoin:round" width="26" height="22" x="16" y="7" rx="3" ry="3"/>
 <rect style="fill:#15477d" width="26" height="22" x="16" y="7" rx="3" ry="3"/>
 <path style="opacity:0.2;fill:#8b9cbe" d="m 19,4 c -3.272108,0 -6,2.7278917 -6,6 v 1 c 0,-3.2721083 2.727892,-6 6,-6 h 20 c 3.272108,0 6,2.7278917 6,6 V 10 C 45,6.7278917 42.272108,4 39,4 Z"/>
</svg>
