<svg xmlns="http://www.w3.org/2000/svg" width="48" height="48" version="1">
 <rect style="opacity:0.2" width="32" height="40" x="8" y="5" rx="2" ry="2"/>
 <rect style="fill:#b2bfd9" width="32" height="40" x="8" y="4" rx="2" ry="2"/>
 <path style="fill:#4c4c4c" d="M 13,36 H 35 V 38 H 13 Z M 13,31 H 35 V 33 H 13 Z M 13,26 H 35 V 28 H 13 Z M 13,21 H 35 V 23 H 13 Z M 13,16 H 35 V 18 H 13 Z M 13,11 H 35 V 13 H 13 Z"/>
 <path style="opacity:0.2;fill:#8b9cbe" d="M 10 4 C 8.892 4 8 4.892 8 6 L 8 7 C 8 5.892 8.892 5 10 5 L 38 5 C 39.108 5 40 5.892 40 7 L 40 6 C 40 4.892 39.108 4 38 4 L 10 4 z"/>
 <path style="fill:#8b9cbe;opacity:0.5" d="M 13,26 H 25 V 28 H 13 Z M 13,21 H 35 V 23 H 13 Z M 13,16 H 35 V 18 H 13 Z M 13,11 H 35 V 13 H 13 Z"/>
 <path style="opacity:0.2" d="M 4,3 C 2.892,3 2,3.892 2,5 V 19 C 2,20.108 2.892,21 4,21 H 20 L 25,26 V 5 C 25,3.892 24.108,3 23,3 Z"/>
 <path style="fill:#ab47bc" d="M 4,2 C 2.892,2 2,2.892 2,4 V 18 C 2,19.108 2.892,20 4,20 H 20 L 25,25 V 4 C 25,2.892 24.108,2 23,2 Z"/>
 <path style="fill:#8b9cbe" d="M 8,9 V 13 H 10 L 13,16 V 6 L 10,9 Z"/>
 <rect style="fill:#8b9cbe" width="1" height="4" x="14" y="9" rx=".5" ry=".5"/>
 <rect style="fill:#8b9cbe" width="1" height="8" x="16" y="7" rx=".478" ry=".5"/>
 <path style="opacity:0.1;fill:#8b9cbe" d="M 4 2 C 2.892 2 2 2.892 2 4 L 2 5 C 2 3.892 2.892 3 4 3 L 23 3 C 24.108 3 25 3.892 25 5 L 25 4 C 25 2.892 24.108 2 23 2 L 4 2 z"/>
</svg>
