<svg xmlns="http://www.w3.org/2000/svg" width="48" height="48" version="1.1">
 <circle style="fill:#003d82" cx="24" cy="24" r="12"/>
 <path style="opacity:0.2" d="M 24,7 A 18,18 0 0 0 6,25 18,18 0 0 0 24,43 18,18 0 0 0 42,25 18,18 0 0 0 24,7 Z m 0,8 A 10,10 0 0 1 34,25 10,10 0 0 1 24,35 10,10 0 0 1 14,25 10,10 0 0 1 24,15 Z"/>
 <path style="fill:#0075f8" d="M 24,6 A 18,18 0 0 0 6,24 18,18 0 0 0 24,42 18,18 0 0 0 42,24 18,18 0 0 0 24,6 Z m 0,8 A 10,10 0 0 1 34,24 10,10 0 0 1 24,34 10,10 0 0 1 14,24 10,10 0 0 1 24,14 Z"/>
 <path style="opacity:0.2" d="M 24,5 A 20,20 0 0 0 4,25 20,20 0 0 0 24,45 20,20 0 0 0 44,25 20,20 0 0 0 24,5 Z m 0,4 A 16,16 0 0 1 40,25 16,16 0 0 1 24,41 16,16 0 0 1 8,25 16,16 0 0 1 24,9 Z"/>
 <path style="fill:#a1ccfe" d="M 24,4 A 20,20 0 0 0 4,24 20,20 0 0 0 24,44 20,20 0 0 0 44,24 20,20 0 0 0 24,4 Z m 0,4 A 16,16 0 0 1 40,24 16,16 0 0 1 24,40 16,16 0 0 1 8,24 16,16 0 0 1 24,8 Z"/>
 <path style="opacity:0.2" d="m 29.746094,14.464844 -3.828126,7.023438 a 4,4 0 0 0 -0.004,0 A 4,4 0 0 0 24,21 4,4 0 0 0 22.085938,21.492188 L 18.257812,14.476563 A 12,12 0 0 0 12,25 h 8 a 4,4 0 0 0 1.675781,3.25 L 17.03125,34.757812 A 12,12 0 0 0 24,37 12,12 0 0 0 30.964844,34.753906 L 26.320312,28.25 A 4,4 0 0 0 28,25 h 8 A 12,12 0 0 0 29.746094,14.464844 Z M 24,23 a 2,2 0 0 1 2,2 2,2 0 0 1 -2,2 2,2 0 0 1 -2,-2 2,2 0 0 1 2,-2 z"/>
 <path style="fill:#8b9cbe" d="m 29.746094,13.464844 -3.828126,7.023437 a 4,4 0 0 0 -0.004,0 A 4,4 0 0 0 24,20 4,4 0 0 0 22.085938,20.492188 L 18.257812,13.476562 A 12,12 0 0 0 12,24 h 8 a 4,4 0 0 0 1.675781,3.25 L 17.03125,33.757812 A 12,12 0 0 0 24,36 12,12 0 0 0 30.964844,33.753906 L 26.320312,27.25 A 4,4 0 0 0 28,24 h 8 A 12,12 0 0 0 29.746094,13.464844 Z M 24,22 a 2,2 0 0 1 2,2 2,2 0 0 1 -2,2 2,2 0 0 1 -2,-2 2,2 0 0 1 2,-2 z"/>
 <path style="opacity:0.2;fill:#8b9cbe" d="M 24,4 A 20,20 0 0 0 4,24 20,20 0 0 0 4.0195312,24.414062 20,20 0 0 1 24,5 20,20 0 0 1 43.980468,24.585938 20,20 0 0 0 44,24 20,20 0 0 0 24,4 Z M 39.980468,24.414062 A 16,16 0 0 1 24,40 16,16 0 0 1 8.0195312,24.585938 16,16 0 0 0 8,25 16,16 0 0 0 24,41 16,16 0 0 0 40,25 16,16 0 0 0 39.9804,24.414062 Z"/>
</svg>
