<svg xmlns="http://www.w3.org/2000/svg" width="48" height="48" version="1.1">
 <circle style="fill:#3399cc" cx="24" cy="24" r="20"/>
 <path style="opacity:0.2;fill:#8b9cbe" d="M 24,4 A 20,20 0 0 0 4,24 20,20 0 0 0 4.0215,24.582 20,20 0 0 1 23.9995,5 a 20,20 0 0 1 19.979,19.418 20,20 0 0 0 0.02148,-0.4179 20,20 0 0 0 -20,-20 z"/>
 <path style="opacity:0.2" d="M 43.979,24.4 A 20,20 0 0 1 24,44 20,20 0 0 1 4.022,24.5 20,20 0 0 0 4,25 20,20 0 0 0 24,45 20,20 0 0 0 44,25 20,20 0 0 0 43.9785,24.4179 Z"/>
 <path style="opacity:0.2" d="m 17.941406,7.7130717 c -1.207067,0.019074 -2.355487,0.307183 -3.396484,0.9082032 -2.713548,1.5666671 -3.945517,4.8363331 -3.939453,8.6464841 -3.3019461,1.899784 -5.5175784,4.599528 -5.5175784,7.732422 0,3.132894 2.2156323,5.832638 5.5175784,7.732422 -0.0061,3.81015 1.225905,7.079817 3.939453,8.646484 2.713356,1.566557 6.158635,0.997892 9.455078,-0.912109 3.296526,1.910127 6.743601,2.478709 9.457031,0.912109 2.713549,-1.566668 3.945517,-4.836333 3.939453,-8.646484 3.301136,-1.899741 5.515625,-4.599991 5.515625,-7.732422 0,-3.132894 -2.215632,-5.832638 -5.517578,-7.732422 0.0061,-3.810151 -1.223951,-7.077863 -3.9375,-8.644531 C 30.743677,7.0566717 27.296443,7.623383 24,9.5333842 21.968646,8.3566131 19.880163,7.6824354 17.941406,7.7130717 Z m 0.07813,1.8242188 c 1.290263,-0.013104 2.733657,0.3711901 4.251953,1.1308595 -1.469057,1.073397 -2.902021,2.41249 -4.248046,3.976562 -2.027544,0.383374 -3.904083,0.954215 -5.56836,1.689453 0.175965,-2.935752 1.223294,-5.105903 3.001953,-6.132812 0.752601,-0.4345138 1.61661,-0.654456 2.5625,-0.6640625 z m 11.962891,0 c 0.94589,0.00961 1.8099,0.2315018 2.5625,0.6660155 1.779042,1.027131 2.826328,3.196097 3.001953,6.132813 -1.663812,-0.735269 -3.539376,-1.307856 -5.566406,-1.691407 -1.345804,-1.564068 -2.781141,-2.903024 -4.25,-3.976562 1.518245,-0.7596237 2.961729,-1.143963 4.251953,-1.1308595 z M 24,11.689634 c 1.040532,0.695952 2.083761,1.551594 3.101562,2.552735 C 26.090268,14.147956 25.058432,14.088072 24,14.088072 c -1.057758,0 -2.088925,0.06 -3.099609,0.154297 C 21.918192,13.241228 22.959468,12.385586 24,11.689634 Z m 0,4.222656 c 1.745482,0 3.426382,0.148014 5.011719,0.41211 1.020445,1.240108 1.987357,2.622433 2.859375,4.132812 0.87215,1.510609 1.584656,3.038962 2.148437,4.542969 -0.563866,1.504485 -1.275999,3.033815 -2.148437,4.544922 -0.871963,1.510283 -1.839002,2.890812 -2.859375,4.130859 -1.585337,0.264096 -3.266237,0.41211 -5.011719,0.41211 -1.74479,0 -3.424979,-0.148214 -5.009766,-0.41211 -1.020405,-1.240074 -1.987388,-2.620534 -2.859375,-4.130859 -0.872762,-1.511668 -1.584476,-3.04185 -2.148437,-4.546875 0.563637,-1.503189 1.274824,-3.031256 2.146484,-4.541016 0.872018,-1.510379 1.840883,-2.892704 2.861328,-4.132812 C 20.575021,16.060504 22.25521,15.91229 24,15.91229 Z m -7.763672,1.021485 c -0.588107,0.829402 -1.155754,1.6937 -1.685547,2.611328 -0.529021,0.916291 -0.992249,1.839046 -1.416015,2.761719 -0.358343,-1.382679 -0.579691,-2.713246 -0.66211,-3.962891 1.123564,-0.55332 2.387003,-1.029284 3.763672,-1.410156 z m 15.529297,0 c 1.37597,0.380789 2.638648,0.857079 3.761719,1.410156 -0.08242,1.24958 -0.301845,2.58029 -0.660156,3.962891 -0.423766,-0.922673 -0.886995,-1.845428 -1.416016,-2.761719 -0.529633,-0.91735 -1.097633,-1.782149 -1.685547,-2.611328 z M 22.5,17.000181 20.761719,23.953306 18.5,24.500181 l -0.5,2 2.261719,-0.546875 L 19,31.000181 h 10.5 l 1,-3 H 23.75 L 24.519531,25.221573 27.5,24.498608 l 0.5,-2 -2.980469,0.722965 L 26.5,17.000181 Z m -11.777344,2.332031 c 0.195203,1.808549 0.638915,3.720741 1.320313,5.667969 -0.681781,1.947892 -1.125046,3.858824 -1.320313,5.667969 -2.4551685,-1.620401 -3.8105466,-3.613835 -3.8105466,-5.667969 0,-2.054134 1.3553781,-4.047568 3.8105466,-5.667969 z m 26.556641,0 c 2.454311,1.620241 3.808594,3.614213 3.808594,5.667969 0,2.053756 -1.354283,4.047728 -3.808594,5.667969 -0.195301,-1.809504 -0.638304,-3.721628 -1.320313,-5.669922 0.681209,-1.947174 1.125292,-3.857568 1.320313,-5.666016 z M 13.134766,27.69354 c 0.423766,0.922673 0.886994,1.847381 1.416015,2.763672 0.52945,0.917034 1.097855,1.78045 1.685547,2.609375 -1.376669,-0.380872 -2.640108,-0.856836 -3.763672,-1.410156 0.08254,-1.249268 0.303857,-2.580715 0.66211,-3.962891 z m 21.732422,0.002 c 0.358021,1.381754 0.579654,2.712046 0.662109,3.960938 -1.122839,0.5531 -2.385993,1.027341 -3.761719,1.408203 0.587124,-0.828271 1.154615,-1.691203 1.683594,-2.607422 0.529021,-0.916291 0.992249,-1.839046 1.416016,-2.761719 z m -22.414063,5.96875 c 1.664331,0.735498 3.540604,1.307856 5.568359,1.691407 1.346019,1.564318 2.778943,2.90489 4.248047,3.978515 -2.630485,1.315563 -5.033801,1.491775 -6.8125,0.464844 C 13.677606,38.771704 12.62841,36.60197 12.453125,33.66429 Z m 23.09375,0 c -0.175625,2.936717 -1.222911,5.107635 -3.001953,6.134766 -1.7792,1.027222 -4.183095,0.849786 -6.814453,-0.466797 1.46918,-1.073772 2.903943,-2.412054 4.25,-3.976562 2.02703,-0.383551 3.902594,-0.956138 5.566406,-1.691407 z m -14.648437,2.09375 c 1.011294,0.09441 2.04313,0.154297 3.101562,0.154297 1.059106,0 2.091612,-0.05977 3.103516,-0.154297 -1.017793,1.001391 -2.060989,1.856525 -3.101563,2.552735 -1.041078,-0.696317 -2.08521,-1.550918 -3.103515,-2.552735 z"/>
 <path style="fill:#8b9cbe" d="M 17.941406,6.7128906 C 16.734339,6.7319647 15.585919,7.0200736 14.544922,7.6210938 11.831374,9.1877612 10.599405,12.457427 10.605469,16.267578 7.3035229,18.167362 5.0878906,20.867106 5.0878906,24 c 0,3.132894 2.2156323,5.832638 5.5175784,7.732422 -0.0061,3.81015 1.225905,7.079817 3.939453,8.646484 2.713356,1.566557 6.158635,0.997892 9.455078,-0.912109 3.296526,1.910127 6.743601,2.478709 9.457031,0.912109 2.713549,-1.566668 3.945517,-4.836333 3.939453,-8.646484 C 40.69762,29.832681 42.912109,27.132431 42.912109,24 c 0,-3.132894 -2.215632,-5.832638 -5.517578,-7.732422 0.0061,-3.810151 -1.223951,-7.0778635 -3.9375,-8.6445311 C 30.743677,6.0564906 27.296443,6.6232019 24,8.5332031 21.968646,7.356432 19.880163,6.6822543 17.941406,6.7128906 Z m 0.07813,1.8242188 c 1.290263,-0.013104 2.733657,0.3711901 4.251953,1.1308594 -1.469057,1.0733972 -2.902021,2.4124902 -4.248046,3.9765622 -2.027544,0.383374 -3.904083,0.954215 -5.56836,1.689453 0.175965,-2.935752 1.223294,-5.105903 3.001953,-6.1328121 0.752601,-0.4345138 1.61661,-0.654456 2.5625,-0.6640625 z m 11.962891,0 c 0.94589,0.00961 1.8099,0.2315018 2.5625,0.6660156 1.779042,1.027131 2.826328,3.196097 3.001953,6.132813 -1.663812,-0.735269 -3.539376,-1.307856 -5.566406,-1.691407 -1.345804,-1.564068 -2.781141,-2.903024 -4.25,-3.9765622 1.518245,-0.7596236 2.961729,-1.1439629 4.251953,-1.1308594 z M 24,10.689453 c 1.040532,0.695952 2.083761,1.551594 3.101562,2.552735 C 26.090268,13.147775 25.058432,13.087891 24,13.087891 c -1.057758,0 -2.088925,0.06 -3.099609,0.154297 C 21.918192,12.241047 22.959468,11.385405 24,10.689453 Z m 0,4.222656 c 1.745482,0 3.426382,0.148014 5.011719,0.41211 1.020445,1.240108 1.987357,2.622433 2.859375,4.132812 0.87215,1.510609 1.584656,3.038962 2.148437,4.542969 -0.563866,1.504485 -1.275999,3.033815 -2.148437,4.544922 -0.871963,1.510283 -1.839002,2.890812 -2.859375,4.130859 -1.585337,0.264096 -3.266237,0.41211 -5.011719,0.41211 -1.74479,0 -3.424979,-0.148214 -5.009766,-0.41211 -1.020405,-1.240074 -1.987388,-2.620534 -2.859375,-4.130859 -0.872762,-1.511668 -1.584476,-3.04185 -2.148437,-4.546875 0.563637,-1.503189 1.274824,-3.031256 2.146484,-4.541016 0.872018,-1.510379 1.840883,-2.892704 2.861328,-4.132812 C 20.575021,15.060323 22.25521,14.912109 24,14.912109 Z m -7.763672,1.021485 c -0.588107,0.829402 -1.155754,1.6937 -1.685547,2.611328 -0.529021,0.916291 -0.992249,1.839046 -1.416015,2.761719 -0.358343,-1.382679 -0.579691,-2.713246 -0.66211,-3.962891 1.123564,-0.55332 2.387003,-1.029284 3.763672,-1.410156 z m 15.529297,0 c 1.37597,0.380789 2.638648,0.857079 3.761719,1.410156 -0.08242,1.24958 -0.301845,2.58029 -0.660156,3.962891 -0.423766,-0.922673 -0.886995,-1.845428 -1.416016,-2.761719 -0.529633,-0.91735 -1.097633,-1.782149 -1.685547,-2.611328 z M 22.5,16 20.761719,22.953125 18.5,23.5 18,25.5 20.261719,24.953125 19,30 h 10.5 l 1,-3 H 23.75 L 24.519531,24.221392 27.5,23.498427 l 0.5,-2 -2.980469,0.722965 L 26.5,16 Z M 10.722656,18.332031 C 10.917859,20.14058 11.361571,22.052772 12.042969,24 11.361188,25.947892 10.917923,27.858824 10.722656,29.667969 8.2674875,28.047568 6.9121094,26.054134 6.9121094,24 c 0,-2.054134 1.3553781,-4.047568 3.8105466,-5.667969 z m 26.556641,0 c 2.454311,1.620241 3.808594,3.614213 3.808594,5.667969 0,2.053756 -1.354283,4.047728 -3.808594,5.667969 -0.195301,-1.809504 -0.638304,-3.721628 -1.320313,-5.669922 0.681209,-1.947174 1.125292,-3.857568 1.320313,-5.666016 z m -24.144531,8.361328 c 0.423766,0.922673 0.886994,1.847381 1.416015,2.763672 0.52945,0.917034 1.097855,1.78045 1.685547,2.609375 -1.376669,-0.380872 -2.640108,-0.856836 -3.763672,-1.410156 0.08254,-1.249268 0.303857,-2.580715 0.66211,-3.962891 z m 21.732422,0.002 c 0.358021,1.381754 0.579654,2.712046 0.662109,3.960938 -1.122839,0.5531 -2.385993,1.027341 -3.761719,1.408203 0.587124,-0.828271 1.154615,-1.691203 1.683594,-2.607422 0.529021,-0.916291 0.992249,-1.839046 1.416016,-2.761719 z m -22.414063,5.96875 c 1.664331,0.735498 3.540604,1.307856 5.568359,1.691407 1.346019,1.564318 2.778943,2.90489 4.248047,3.978515 -2.630485,1.315563 -5.033801,1.491775 -6.8125,0.464844 -1.779425,-1.027352 -2.828621,-3.197086 -3.003906,-6.134766 z m 23.09375,0 c -0.175625,2.936717 -1.222911,5.107635 -3.001953,6.134766 -1.7792,1.027222 -4.183095,0.849786 -6.814453,-0.466797 1.46918,-1.073772 2.903943,-2.412054 4.25,-3.976562 2.02703,-0.383551 3.902594,-0.956138 5.566406,-1.691407 z m -14.648437,2.09375 c 1.011294,0.09441 2.04313,0.154297 3.101562,0.154297 1.059106,0 2.091612,-0.05977 3.103516,-0.154297 -1.017793,1.001391 -2.060989,1.856525 -3.101563,2.552735 -1.041078,-0.696317 -2.08521,-1.550918 -3.103515,-2.552735 z"/>
</svg>
