<svg xmlns="http://www.w3.org/2000/svg" width="48" height="48" version="1.1">
 <path style="opacity:0.2" d="M 24,5 A 20,20 0 0 0 4,25 20,20 0 0 0 24,45 20,20 0 0 0 44,25 20,20 0 0 0 24,5 Z"/>
 <path style="fill:#494c60" d="m24 4a20 20 0 0 0 -20 20 20 20 0 0 0 20 20 20 20 0 0 0 20 -20 20 20 0 0 0 -20 -20z"/>
 <path fill="#8b9cbe" style="opacity:0.1" d="m24 4a20 20 0 0 0 -19.859 17.852 20 19 0 0 1 19.859 -16.852 20 19 0 0 1 19.922 17.447 20 20 0 0 0 -19.922 -18.447zm19.922 18.447a20 20 0 0 1 0.078 1.553 20 19 0 0 0 -0.078 -1.553zm-39.781-0.595a20 19 0 0 0 -0.0488 0.392 20 20 0 0 1 0.0488 -0.392zm-0.0488 0.392a20 20 0 0 0 -0.0918 1.756 20 19 0 0 1 0.0918 -1.756z"/>
 <path style="opacity:0.2" d="m 24.070312,9.0016697 a 3,3 0 0 0 -0.210937,0.00195 3,3 0 0 0 -2.457031,1.4960942 3,3 0 0 0 1.097656,4.097656 3,3 0 0 0 3.011719,-0.01172 c 0.395799,0.465419 0.776029,0.975607 1.123047,1.55664 -2.517787,0.8483 -5.110264,2.121762 -7.382813,3.708984 -1.766383,1.233699 -3.240838,2.684052 -4.388672,4.228516 -0.773365,-1.004783 -1.347081,-2.004403 -1.642578,-2.925781 -0.367123,-1.144712 -0.347368,-2.127233 0.107422,-3.039063 0.498751,-0.99997 1.079338,-1.494229 1.691406,-1.77539 0.612069,-0.281162 1.295359,-0.33847 1.96875,-0.267578 C 18.335063,16.213766 19.5,16.866902 19.5,16.866905 a 1.001007,1.001007 0 1 0 1,-1.734376 c 0,0 -1.450377,-0.855772 -3.302734,-1.050781 -0.926179,-0.0975 -1.987793,-0.02984 -3.013672,0.441407 -1.025879,0.471249 -1.976515,1.355965 -2.646485,2.699218 -0.713931,1.431394 -0.706834,3.031319 -0.222656,4.541016 0.452556,1.411094 1.309801,2.77731 2.404297,4.083984 -0.598172,1.063228 -1.043091,2.147394 -1.332031,3.216797 A 3,3 0 0 0 10,31.999717 a 3,3 0 0 0 3,3 3,3 0 0 0 3,-3 3,3 0 0 0 -1.568359,-2.632812 c 0.196162,-0.630502 0.441198,-1.275075 0.767578,-1.927735 2.301873,2.242249 5.25401,4.228828 8.230469,5.621094 1.596621,0.746836 3.199129,1.020726 4.748046,0.998047 -0.398246,1.318872 -0.931594,2.379024 -1.529296,3.042968 -0.617057,0.685443 -1.225566,0.982271 -2.058594,0.949219 -1.910347,-0.0758 -2.972041,-1.07627 -3.679688,-2.144531 -0.707646,-1.068261 -0.93164,-2.111328 -0.93164,-2.111328 a 1.0002185,1.0002185 0 1 0 -1.957032,0.410156 c 0,0 0.285483,1.392882 1.220704,2.804688 0.935219,1.411805 2.649977,2.935127 5.269531,3.039062 1.431921,0.05681 2.708613,-0.59143 3.625,-1.609375 0.916387,-1.017945 1.545887,-2.37813 2.001953,-3.943359 0.06094,-0.209131 0.109425,-0.431907 0.164062,-0.648438 1.718225,-0.314619 3.296501,-0.942244 4.689454,-1.621094 A 3,3 0 0 0 38.5,32.597373 a 3,3 0 0 0 1.097656,-4.097656 3,3 0 0 0 -2.667968,-1.5 A 3,3 0 0 0 35.5,27.402061 3,3 0 0 0 34.039062,30.472373 c -1.022689,0.489323 -2.135342,0.93179 -3.30664,1.222656 0.381968,-2.549462 0.426153,-5.399089 0.185547,-8.1875 -0.191138,-2.215124 -0.668485,-4.284621 -1.388672,-6.105468 0.194722,-0.0441 0.393986,-0.09612 0.583984,-0.132813 1.522403,-0.29404 2.882239,-0.341123 3.859375,-0.15039 0.977136,0.190732 1.493793,0.549899 1.742188,1.068359 0.626786,1.308254 0.146203,2.717354 -0.623047,3.945312 -0.76925,1.227959 -1.736328,2.085938 -1.736328,2.085938 a 1.0006194,1.0006194 0 1 0 1.320312,1.503906 c 0,0 1.16411,-1.015293 2.111328,-2.527344 0.947219,-1.512049 1.766299,-3.709067 0.730469,-5.871093 -0.582913,-1.216681 -1.804157,-1.902902 -3.162109,-2.167969 -1.357952,-0.265066 -2.928731,-0.178431 -4.621094,0.148438 -0.352553,0.06809 -0.712373,0.153111 -1.074219,0.242187 -0.529837,-0.964643 -1.141674,-1.827099 -1.828125,-2.564453 A 3,3 0 0 0 25.5,9.4020604 3,3 0 0 0 24.070312,9.0016697 Z m 3.47461,8.9453133 c 0.696919,1.661062 1.196607,3.597083 1.380859,5.732422 0.249403,2.890352 0.160903,5.865408 -0.277343,8.349609 -1.445596,0.09494 -2.927388,-0.103989 -4.371094,-0.779297 -2.925133,-1.368258 -5.884574,-3.406011 -8.029297,-5.583984 1.041613,-1.509996 2.418797,-2.967745 4.148437,-4.175782 2.178562,-1.521578 4.737978,-2.756945 7.148438,-3.542968 z M 24,21.999717 c -1.646771,0 -3,1.353229 -3,3 0,1.646771 1.353229,3 3,3 1.646771,0 3,-1.353229 3,-3 0,-1.646771 -1.353229,-3 -3,-3 z"/>
 <path style="fill:none;stroke:#cff7ff;stroke-width:2.00023699;stroke-linecap:round" d="m 34.014872,23.970903 c 0,0 4.264245,-3.744878 2.601629,-7.215158 -1.662615,-3.470281 -10.588558,-1.417917 -16.792181,2.914897 -4.46604,3.119226 -6.901094,7.746448 -6.822612,11.314999"/>
 <path style="fill:#cff7ff" d="M 23.859375 8.0039062 A 3 3 0 0 0 21.402344 9.5 A 3 3 0 0 0 22.5 13.597656 A 3 3 0 0 0 26.597656 12.5 A 3 3 0 0 0 25.5 8.4023438 A 3 3 0 0 0 23.859375 8.0039062 z M 36.929688 26 A 3 3 0 0 0 35.5 26.402344 A 3 3 0 0 0 34.402344 30.5 A 3 3 0 0 0 38.5 31.597656 A 3 3 0 0 0 39.597656 27.5 A 3 3 0 0 0 36.929688 26 z M 13 28 A 3 3 0 0 0 10 31 A 3 3 0 0 0 13 34 A 3 3 0 0 0 16 31 A 3 3 0 0 0 13 28 z"/>
 <path style="fill:none;stroke:#cff7ff;stroke-width:2.00023699;stroke-linecap:round" d="m 19,33 c 0,0 1.020783,4.870268 5.550683,5.05 4.5299,0.179732 6.021833,-7.918111 5.371317,-15.457013 -0.468309,-5.427318 -2.757675,-9.849747 -5.887372,-11.566055"/>
 <path style="fill:none;stroke:#cff7ff;stroke-width:2.00023699;stroke-linecap:round" d="m 20,15 c 0,0 -5.229558,-3.016807 -7.567,1.669639 C 10.095558,21.356085 16.999641,27.948912 23.85378,31.155 28.788129,33.463091 33.948786,30.852243 37,29"/>
 <path style="fill:#494c60" d="M 24 10 A 1 1 0 0 0 23 11 A 1 1 0 0 0 24 12 A 1 1 0 0 0 25 11 A 1 1 0 0 0 24 10 z M 37 28 A 1 1 0 0 0 36 29 A 1 1 0 0 0 37 30 A 1 1 0 0 0 38 29 A 1 1 0 0 0 37 28 z M 13 30 A 1 1 0 0 0 12 31 A 1 1 0 0 0 13 32 A 1 1 0 0 0 14 31 A 1 1 0 0 0 13 30 z"/>
 <path style="fill:#cff7ff" d="M 24 21 C 22.353229 21 21 22.353229 21 24 C 21 25.646771 22.353229 27 24 27 C 25.646771 27 27 25.646771 27 24 C 27 22.353229 25.646771 21 24 21 z"/>
</svg>
