<svg xmlns="http://www.w3.org/2000/svg" width="48" height="48" version="1.1">
 <path style="opacity:0.2" d="M 27.550017,7.0007844 C 26.279093,7.1755768 3.0000007,35.845078 3.0000007,35.845078 c 0,0 1.6730223,0.476762 5.485235,1.031203 C 9.7230201,35.910383 27.067025,6.5526295 27.593528,7.0141882 c -0.0089,-0.011797 -0.02334,-0.016148 -0.04352,-0.013387 z"/>
 <path style="opacity:0.2" d="M 27.593528,7.0141882 C 27.550017,7.0007844 8.4852357,36.876281 8.4852357,36.876281 c -1.6637351,2.7442 -2.9937927,4.949777 -2.9937927,4.949777 0,0 17.88448,0.808916 31.791443,-1.062109 C 57.072417,38.101484 33.215505,12.73058 27.593528,7.0141882 Z"/>
 <path style="fill:#7f7fff" d="M 27.593528,6.014189 C 27.550017,6.0007852 8.4852357,35.876282 8.4852357,35.876282 c -1.6637351,2.7442 -2.9937927,4.949777 -2.9937927,4.949777 0,0 17.88448,0.808916 31.791443,-1.062109 C 57.072417,37.101485 33.215505,11.730581 27.593528,6.014189 Z"/>
 <path style="opacity:0.1" d="M 27.572844,7.0038132 C 26.772823,6.873223 8.4852357,36.876281 8.4852357,36.876281 c 0,0 16.3028253,1.239063 23.1097643,1.123718 19.274375,-0.326609 0.446306,-25.083976 -4.001472,-30.9858108 -0.0058,-0.00586 -0.01259,-0.00904 -0.02068,-0.010375 z"/>
 <path style="fill:#ff7f7f" d="M 27.550017,6.0007852 C 26.279093,6.1755776 3.0000007,34.845079 3.0000007,34.845079 c 0,0 1.6730223,0.476762 5.485235,1.031203 C 9.7230201,34.910384 27.067025,5.5526303 27.593528,6.014189 27.584628,6.002392 27.570188,5.998041 27.550008,6.000802 Z"/>
 <path style="opacity:0.2;fill:#8b9cbe" d="M 27.550781 6 C 26.279857 6.1747924 3 34.845703 3 34.845703 C 3 34.845703 3.4492741 34.947965 3.6855469 35.005859 C 5.6697183 32.56511 26.339393 7.1666043 27.550781 7 C 27.570961 6.997239 27.58485 7.0018749 27.59375 7.0136719 C 31.542712 11.028952 44.469815 24.734389 44.966797 33.462891 C 45.497146 24.821559 31.697275 10.186111 27.59375 6.0136719 C 27.58485 6.0018749 27.570961 5.997239 27.550781 6 z M 7.9335938 36.789062 C 6.7046568 38.819491 5.4921875 40.826172 5.4921875 40.826172 C 5.4921875 40.826172 6.0016654 40.842193 6.0859375 40.845703 C 6.4768734 40.197358 7.1503813 39.077271 8.484375 36.876953 C 8.2714269 36.845982 8.1332683 36.819479 7.9335938 36.789062 z"/>
 <path style="fill:#7f3fbf" d="M 27.572844,6.003814 C 26.772823,5.8732238 8.4852357,35.876282 8.4852357,35.876282 c 0,0 16.3028253,1.239063 23.1097643,1.123718 19.274375,-0.326609 0.446306,-25.083976 -4.001472,-30.985811 -0.0058,-0.00586 -0.01259,-0.00904 -0.02068,-0.010375 z"/>
</svg>
