<svg xmlns="http://www.w3.org/2000/svg" width="48" height="48" version="1.1">
 <path style="opacity:0.2" d="M 9.0769232,5 H 42.923077 C 44.622296,5 46,6.3771352 46,8.0756523 V 41.924348 C 46,43.622865 44.622296,45 42.923077,45 H 9.0769232 C 7.3777044,45 6.0000001,43.622865 6.0000001,41.924348 V 8.0756523 C 6.0000001,6.3771352 7.3777044,5 9.0769232,5 Z m 0,0"/>
 <path style="fill:#b2bfd9" d="M 9.0769232,4 H 42.923077 C 44.622296,4 46,5.3771352 46,7.0756523 V 40.924348 C 46,42.622865 44.622296,44 42.923077,44 H 9.0769232 C 7.3777044,44 6.0000001,42.622865 6.0000001,40.924348 V 7.0756523 C 6.0000001,5.3771352 7.3777044,4 9.0769232,4 Z m 0,0"/>
 <rect style="opacity:0.1" width="34" height="1" x="9" y="32"/>
 <rect style="fill:#7e2c5c" width="33" height="24" x="9.5" y="7.5"/>
 <path style="fill:#3068c1" d="M 43,7 V 32 H 9 Z"/>
 <path style="fill:#d63a60" d="M 9,32 V 7 h 34 z"/>
 <circle style="fill:#9a46ab" cx="12" cy="28" r="8"/>
 <path style="opacity:0.1" d="M 12,19 C 6.4852122,19 2,23.486607 2,29 2,34.514788 6.4852122,39 12,39 17.514788,39 22,34.514788 22,29 V 21.142578 C 22,19.959542 21.040458,19 19.857422,19 Z m 0,3 c 3.872559,0 7,3.127441 7,7 0,3.873697 -3.127441,7 -7,7 -3.8725584,0 -7,-3.126303 -7,-7 0,-3.872559 3.1274416,-7 7,-7 z"/>
 <path style="fill:#b0b0b0" d="M 12,18 C 6.4852122,18 2,22.486607 2,28 2,33.514788 6.4852122,38 12,38 17.514788,38 22,33.514788 22,28 V 20.142578 C 22,18.959542 21.040458,18 19.857422,18 Z m 0,3 c 3.872559,0 7,3.127441 7,7 0,3.873697 -3.127441,7 -7,7 -3.8725584,0 -7,-3.126303 -7,-7 0,-3.872559 3.1274416,-7 7,-7 z"/>
 <path style="fill:#535353" d="M 20,21.000001 C 20,21.552735 19.552734,22 19,22 c -0.552734,0 -1,-0.447265 -1,-0.999999 0,-0.55078 0.447266,-1 1,-1 0.552734,0 1,0.44922 1,1 z m 0,0"/>
 <path style="fill:#8b9cbe;opacity:0.2" d="M 9.0761719 4 C 7.3769531 4 6 5.3776548 6 7.0761719 L 6 8.0761719 C 6 6.3776548 7.3769531 5 9.0761719 5 L 42.923828 5 C 44.623047 5 46 6.3776548 46 8.0761719 L 46 7.0761719 C 46 5.3776548 44.623047 4 42.923828 4 L 9.0761719 4 z"/>
</svg>
