<svg xmlns="http://www.w3.org/2000/svg" width="48" height="48" version="1">
 <path style="opacity:0.2" d="m 39.953125,6.0527344 c -0.293001,-0.00432 -0.62883,0.025377 -1.011719,0.09375 L 17.138672,10.439453 C 13.909968,10.76111 14,13 14,14 v 20.76 c 3.530082,0.911462 5.997387,-2.405852 6,1.24 V 15.929688 L 36,12.671875 V 29.76 c 3.530082,0.911462 5.997387,-2.405852 6,1.24 V 8.5996094 c 2.54e-4,-0.875 0.0041,-2.5166422 -2.046875,-2.546875 z"/>
 <path style="fill:#ed7408" d="m 39.953125,5.0527344 c -0.293001,-0.00432 -0.62883,0.025377 -1.011719,0.09375 L 17.138672,9.4394531 C 13.909968,9.7611104 14,12 14,13 v 20.76 c 3.530082,0.911462 5.997387,-2.405852 6,1.24 V 14.929688 L 36,11.671875 V 28.76 c 3.530082,0.911462 5.997387,-2.405852 6,1.24 V 7.5996094 c 2.54e-4,-0.875 0.0041,-2.5166422 -2.046875,-2.546875 z"/>
 <circle style="opacity:0.2" cx="12" cy="36" r="8"/>
 <circle style="fill:#ffac29" cx="12" cy="35" r="8"/>
 <circle style="opacity:0.2" cx="34" cy="31" r="8"/>
 <circle style="fill:#ffac29" cx="34" cy="30" r="8"/>
 <path style="opacity:0.1;fill:#8b9cbe" d="m 39.953125,5.0527344 c -0.293001,-0.00432 -0.62883,0.025377 -1.011719,0.09375 L 17.138672,9.4394531 C 13.909968,9.7611104 14,12 14,13 v 1 c 0,-1 -0.09003,-3.23889 3.138672,-3.560547 L 38.941406,6.1464844 c 0.382889,-0.068373 0.718718,-0.09807 1.011719,-0.09375 C 42.0041,6.0829672 42.000254,7.7246094 42,8.5996094 v -1 c 2.54e-4,-0.875 0.0041,-2.5166422 -2.046875,-2.546875 z"/>
 <path style="opacity:0.2;fill:#8b9cbe" d="M 12,27 A 8,8 0 0 0 4,35 8,8 0 0 0 4.0214844,35.576172 8,8 0 0 1 12,28 8,8 0 0 1 19.978516,35.423828 8,8 0 0 0 20,35 8,8 0 0 0 12,27 Z"/>
 <path style="opacity:0.2;fill:#8b9cbe" d="m 34,22 a 8,8 0 0 0 -8,8 8,8 0 0 0 0.02148,0.576172 A 8,8 0 0 1 34,23 8,8 0 0 1 41.978516,30.423828 8,8 0 0 0 42,30 8,8 0 0 0 34,22 Z"/>
</svg>
