<svg xmlns="http://www.w3.org/2000/svg" width="48" height="48" version="1">
 <path style="opacity:0.2;fill-rule:evenodd" d="m 37.958516,9.0002771 c -0.67706,0.010067 -1.323611,0.2854592 -1.802576,0.767791 L 20.230816,25.815822 11.843551,17.764181 c -1.017007,-1.024415 -2.6654553,-1.024415 -3.6824624,0 L 4.7624396,21.189 c -1.0165868,1.024838 -1.0165868,2.685981 0,3.710819 l 10.2284974,9.907051 3.398648,3.424819 c 1.017007,1.024415 2.665456,1.024415 3.682463,0 L 25.470696,34.80687 43.237051,16.904732 c 1.017265,-1.024956 1.017265,-2.686889 0,-3.711845 L 39.838403,9.7690931 C 39.340658,9.2672998 38.66251,8.9899582 37.958516,9.0002771 Z"/>
 <path style="fill:#5cbb6a;fill-rule:evenodd" d="m 37.958516,8.0002774 c -0.67706,0.010067 -1.323611,0.2854592 -1.802576,0.767791 L 20.230816,24.815822 11.843551,16.764181 c -1.017007,-1.024415 -2.6654553,-1.024415 -3.6824624,0 L 4.7624396,20.189 c -1.0165868,1.024838 -1.0165868,2.685981 0,3.710819 l 10.2284974,9.907051 2.382177,2.400521 1.088246,0.19889 c 1.017007,1.024415 2.324526,0.75526 3.341533,-0.269155 L 25.470696,33.80687 43.237051,15.904732 c 1.017265,-1.024956 1.017265,-2.686889 0,-3.711845 L 39.838403,8.7690934 C 39.340658,8.2673001 38.66251,7.9899585 37.958516,8.0002774 Z"/>
 <path style="fill:#3e8749;fill-rule:evenodd" d="M 26.001953 19 L 20.230469 24.816406 L 15.298828 20.080078 L 8.0039062 27.041016 L 9.9824219 28.957031 L 31.21875 28.013672 L 40.158203 19.005859 L 40.164062 19 L 26.001953 19 z"/>
 <path style="fill:#2d6235;fill-rule:evenodd" d="M 24.189453 20.826172 L 22.208984 22.822266 L 31.164062 28.070312 L 34.658203 24.548828 L 24.189453 20.826172 z"/>
 <path style="fill:#2d6235;fill-rule:evenodd" d="m 25.798827,33.476562 -8.498047,2.658204 1.087891,1.097656 a 2.6044327,2.6244878 0 0 0 3.683594,0 l 3.398437,-3.425781 0.328125,-0.330079 z"/>
 <path style="opacity:0.2;fill:#8b9cbe;fill-rule:evenodd" d="M 37.958984 8 C 37.281924 8.010067 36.635215 8.2852463 36.15625 8.7675781 L 20.230469 24.816406 L 11.84375 16.763672 C 10.826743 15.739257 9.1771634 15.739257 8.1601562 16.763672 L 4.7617188 20.189453 C 4.1268441 20.829481 3.8887709 21.716572 4.046875 22.542969 C 4.14218 22.046804 4.3804987 21.573767 4.7617188 21.189453 L 8.1601562 17.763672 C 9.1771634 16.739257 10.826743 16.739257 11.84375 17.763672 L 20.230469 25.816406 L 36.15625 9.7675781 C 36.635215 9.2852463 37.281924 9.010067 37.958984 9 C 38.662978 8.9896811 39.340146 9.267738 39.837891 9.7695312 L 43.236328 13.193359 C 43.617803 13.577718 43.857756 14.050548 43.953125 14.546875 C 44.110603 13.720749 43.871138 12.832968 43.236328 12.193359 L 39.837891 8.7695312 C 39.340146 8.267738 38.662978 7.9896811 37.958984 8 z"/>
</svg>
