<svg xmlns="http://www.w3.org/2000/svg" width="48" height="48" version="1">
 <rect style="opacity:0.2" width="40" height="40" x="4" y="5" rx="2" ry="2"/>
 <rect style="fill:#3c4553" width="40" height="40" x="4" y="4" rx="2" ry="2"/>
 <path style="opacity:0.1;fill:#8b9cbe" d="M 6,4 C 4.892,4 4,4.892 4,6 V 7 C 4,5.892 4.892,5 6,5 h 36 c 1.108,0 2,0.892 2,2 V 6 C 44,4.892 43.108,4 42,4 Z"/>
 <path style="opacity:0.2" d="m 21.724609,11.001953 c -0.832039,-0.01135 -1.008914,0.02188 -1.248047,0.226563 -0.1777,0.152101 -0.323173,0.454791 -0.376953,0.787109 -0.02425,0.149861 -0.03693,1.199277 -0.03711,2.853516 -2.1e-4,2.090011 -0.0099,2.615234 -0.04687,2.615234 -0.02546,0 -1.358741,-1.313682 -2.962891,-2.919922 -1.604149,-1.60624 -2.986905,-2.967884 -3.072265,-3.027344 -0.232324,-0.161822 -0.646573,-0.349263 -0.97461,-0.439453 -0.27003,-0.07424 -0.389707,-0.08049 -1.613281,-0.09375 -0.727057,-0.0079 -1.322266,-9.75e-4 -1.322266,0.01563 2e-6,0.0166 2.777249,2.80671 6.171876,6.201172 C 19.395105,20.373469 21.629246,22.59594 22,22.953125 V 11.005859 Z m 4.550782,0 L 26,11.005859 v 11.947266 c 0.370754,-0.357185 2.604895,-2.579656 5.757812,-5.732422 3.394627,-3.394462 6.171875,-6.184571 6.171876,-6.201172 0,-0.0166 -0.595209,-0.0235 -1.322266,-0.01563 -1.223574,0.01326 -1.343251,0.01951 -1.613281,0.09375 -0.328037,0.09019 -0.742286,0.277631 -0.97461,0.439453 -0.08536,0.05946 -1.468116,1.421104 -3.072265,3.027344 -1.60415,1.60624 -2.937431,2.919922 -2.962891,2.919922 -0.03698,0 -0.04667,-0.525223 -0.04687,-2.615234 -1.82e-4,-1.654239 -0.01286,-2.703655 -0.03711,-2.853516 -0.05378,-0.332318 -0.199252,-0.635008 -0.376953,-0.787109 -0.239133,-0.204681 -0.416008,-0.237911 -1.248047,-0.226563 z m -16.236329,5.097656 c -0.039799,0 -0.045053,0.225149 -0.0332,1.248047 0.01398,1.206389 0.01633,1.261084 0.107422,1.595703 0.114823,0.421811 0.268355,0.766758 0.492188,1.109375 0.124472,0.190529 0.783787,0.874538 2.505859,2.601563 l 2.335938,2.34375 -2.335938,2.341797 c -1.722072,1.727025 -2.381387,2.411033 -2.505859,2.601562 -0.223833,0.342618 -0.377365,0.687565 -0.492188,1.109375 -0.09109,0.334619 -0.09344,0.389314 -0.107422,1.595703 -0.01185,1.022898 -0.00657,1.248047 0.0332,1.248047 0.06741,0 8.892579,-8.829034 8.892579,-8.896484 0,-0.06745 -8.825168,-8.898438 -8.892579,-8.898438 z m 27.921876,0 c -0.06741,0 -8.892579,8.830989 -8.892579,8.898438 0,0.06745 8.825173,8.896484 8.892579,8.896484 0.03977,0 0.04505,-0.225149 0.0332,-1.248047 -0.01398,-1.206389 -0.01633,-1.261084 -0.107422,-1.595703 -0.114823,-0.42181 -0.268355,-0.766757 -0.492188,-1.109375 -0.124472,-0.190529 -0.783787,-0.874537 -2.505859,-2.601562 l -2.335938,-2.341797 2.335938,-2.34375 c 1.722072,-1.727025 2.381387,-2.411034 2.505859,-2.601563 0.223833,-0.342617 0.377365,-0.687564 0.492188,-1.109375 0.09109,-0.334619 0.09344,-0.389314 0.107422,-1.595703 0.01185,-1.022898 0.0066,-1.248047 -0.0332,-1.248047 z M 22,27.042969 c -0.852088,0.81856 -11.929687,11.89539 -11.929688,11.93164 1e-6,0.01658 0.595209,0.02548 1.322266,0.01758 1.223574,-0.01326 1.343251,-0.02146 1.613281,-0.0957 0.328037,-0.09019 0.742286,-0.275677 0.97461,-0.4375 0.08536,-0.05946 1.468116,-1.423057 3.072265,-3.029296 1.60415,-1.606241 2.937431,-2.919922 2.962891,-2.919922 0.03697,0 0.04666,0.525223 0.04687,2.615234 1.8e-4,1.654239 0.01286,2.703654 0.03711,2.853516 0.08314,0.513798 0.333546,0.856467 0.705079,0.966796 C 20.937847,38.984862 21.177145,39 21.703125,39 c 0.158083,0 0.175197,-0.007 0.296875,-0.0098 z m 4,0 v 11.947265 c 0.121678,0.0028 0.138792,0.0098 0.296875,0.0098 0.52598,0 0.765279,-0.01514 0.898437,-0.05469 0.371533,-0.110329 0.621936,-0.452998 0.705079,-0.966796 0.02425,-0.149862 0.03693,-1.199277 0.03711,-2.853516 2.19e-4,-2.090011 0.0099,-2.615234 0.04687,-2.615234 0.02546,0 1.358741,1.313681 2.962891,2.919922 1.604149,1.606239 2.986907,2.96984 3.072265,3.029296 0.232324,0.161823 0.646573,0.347312 0.97461,0.4375 0.27003,0.07424 0.389707,0.08244 1.613281,0.0957 0.727057,0.0079 1.322265,-9.99e-4 1.322266,-0.01758 0,-0.03625 -11.0776,-11.11308 -11.929688,-11.93164 z"/>
 <path style="fill:#12a1ff" d="M 21.724609 10.001953 C 20.89257 9.9906045 20.715695 10.023835 20.476562 10.228516 C 20.298862 10.380617 20.153389 10.683307 20.099609 11.015625 C 20.075359 11.165486 20.062682 12.214902 20.0625 13.869141 C 20.06229 15.959152 20.052605 16.484375 20.015625 16.484375 C 19.990165 16.484375 18.656884 15.170693 17.052734 13.564453 C 15.448585 11.958213 14.065829 10.596569 13.980469 10.537109 C 13.748145 10.375287 13.333896 10.187846 13.005859 10.097656 C 12.735829 10.023416 12.616152 10.017166 11.392578 10.003906 C 10.665521 9.9960302 10.070312 10.002931 10.070312 10.019531 C 10.070314 10.036132 12.847561 12.826241 16.242188 16.220703 C 19.395105 19.373469 21.629246 21.59594 22 21.953125 L 22 10.005859 L 21.724609 10.001953 z M 26.275391 10.001953 L 26 10.005859 L 26 21.953125 C 26.370754 21.59594 28.604895 19.373469 31.757812 16.220703 C 35.152439 12.826241 37.929687 10.036132 37.929688 10.019531 C 37.929688 10.002931 37.334479 9.9960302 36.607422 10.003906 C 35.383848 10.017166 35.264171 10.023416 34.994141 10.097656 C 34.666104 10.187846 34.251855 10.375287 34.019531 10.537109 C 33.934171 10.596569 32.551415 11.958213 30.947266 13.564453 C 29.343116 15.170693 28.009835 16.484375 27.984375 16.484375 C 27.947395 16.484375 27.93771 15.959152 27.9375 13.869141 C 27.937318 12.214902 27.924641 11.165486 27.900391 11.015625 C 27.846611 10.683307 27.701139 10.380617 27.523438 10.228516 C 27.284305 10.023835 27.10743 9.9906045 26.275391 10.001953 z M 10.039062 15.099609 C 9.9992625 15.099609 9.9940094 15.324758 10.005859 16.347656 C 10.019841 17.554045 10.022191 17.60874 10.113281 17.943359 C 10.228104 18.36517 10.381636 18.710117 10.605469 19.052734 C 10.729941 19.243263 11.389256 19.927272 13.111328 21.654297 L 15.447266 23.998047 L 13.111328 26.339844 C 11.389256 28.066869 10.729941 28.750877 10.605469 28.941406 C 10.381636 29.284024 10.228104 29.628971 10.113281 30.050781 C 10.022189 30.3854 10.019839 30.440095 10.005859 31.646484 C 9.9940094 32.669382 9.9992925 32.894531 10.039062 32.894531 C 10.106468 32.894531 18.931641 24.065497 18.931641 23.998047 C 18.931641 23.930598 10.106473 15.099609 10.039062 15.099609 z M 37.960938 15.099609 C 37.893527 15.099609 29.068359 23.930598 29.068359 23.998047 C 29.068359 24.065497 37.893532 32.894531 37.960938 32.894531 C 38.000707 32.894531 38.005991 32.669382 37.994141 31.646484 C 37.980161 30.440095 37.977811 30.3854 37.886719 30.050781 C 37.771896 29.628971 37.618364 29.284024 37.394531 28.941406 C 37.270059 28.750877 36.610744 28.066869 34.888672 26.339844 L 32.552734 23.998047 L 34.888672 21.654297 C 36.610744 19.927272 37.270059 19.243263 37.394531 19.052734 C 37.618364 18.710117 37.771896 18.36517 37.886719 17.943359 C 37.977809 17.60874 37.980159 17.554045 37.994141 16.347656 C 38.005991 15.324758 38.000738 15.099609 37.960938 15.099609 z M 22 26.042969 C 21.147912 26.861529 10.070313 37.938359 10.070312 37.974609 C 10.070313 37.991189 10.665521 38.000087 11.392578 37.992188 C 12.616152 37.978928 12.735829 37.970724 13.005859 37.896484 C 13.333896 37.806296 13.748145 37.620807 13.980469 37.458984 C 14.065827 37.399528 15.448585 36.035927 17.052734 34.429688 C 18.656884 32.823447 19.990165 31.509766 20.015625 31.509766 C 20.052595 31.509766 20.062281 32.034989 20.0625 34.125 C 20.06268 35.779239 20.075359 36.828654 20.099609 36.978516 C 20.182752 37.492314 20.433155 37.834983 20.804688 37.945312 C 20.937847 37.984862 21.177145 38 21.703125 38 C 21.861208 38 21.878322 37.993034 22 37.990234 L 22 26.042969 z M 26 26.042969 L 26 37.990234 C 26.121678 37.993034 26.138792 38 26.296875 38 C 26.822855 38 27.062154 37.984862 27.195312 37.945312 C 27.566845 37.834983 27.817248 37.492314 27.900391 36.978516 C 27.924641 36.828654 27.93732 35.779239 27.9375 34.125 C 27.937719 32.034989 27.947405 31.509766 27.984375 31.509766 C 28.009835 31.509766 29.343116 32.823447 30.947266 34.429688 C 32.551415 36.035927 33.934173 37.399528 34.019531 37.458984 C 34.251855 37.620807 34.666104 37.806296 34.994141 37.896484 C 35.264171 37.970724 35.383848 37.978928 36.607422 37.992188 C 37.334479 38.000087 37.929687 37.991189 37.929688 37.974609 C 37.929688 37.938359 26.852088 26.861529 26 26.042969 z"/>
 <path style="fill:#8b9cbe;opacity:0.2" d="M 21.724609 10.001953 C 20.89257 9.9906046 20.715695 10.023835 20.476562 10.228516 C 20.298862 10.380617 20.153389 10.683307 20.099609 11.015625 C 20.075359 11.165486 20.062682 12.214902 20.0625 13.869141 C 20.06229 15.959152 20.052605 16.484375 20.015625 16.484375 C 19.990165 16.484375 18.656884 15.170693 17.052734 13.564453 C 15.448585 11.958213 14.065829 10.596569 13.980469 10.537109 C 13.748145 10.375287 13.333896 10.187846 13.005859 10.097656 C 12.735829 10.023416 12.616152 10.017166 11.392578 10.003906 C 10.665521 9.9960304 10.070312 10.002931 10.070312 10.019531 C 10.070313 10.022178 10.922254 10.87296 11.054688 11.007812 C 11.215527 11.007981 11.206787 11.001887 11.392578 11.003906 C 12.616152 11.017166 12.735829 11.023416 13.005859 11.097656 C 13.333896 11.187846 13.748145 11.375287 13.980469 11.537109 C 14.065829 11.596569 15.448585 12.958213 17.052734 14.564453 C 18.656884 16.170693 19.990165 17.484375 20.015625 17.484375 C 20.052595 17.484375 20.06229 16.959152 20.0625 14.869141 C 20.06268 13.214902 20.075359 12.165486 20.099609 12.015625 C 20.153389 11.683307 20.298862 11.380617 20.476562 11.228516 C 20.715695 11.023833 20.89257 10.990603 21.724609 11.001953 L 22 11.005859 L 22 10.005859 L 21.724609 10.001953 z M 26.275391 10.001953 L 26 10.005859 L 26 11.005859 L 26.275391 11.001953 C 27.10743 10.990605 27.284305 11.023835 27.523438 11.228516 C 27.701139 11.380617 27.846611 11.683307 27.900391 12.015625 C 27.924641 12.165486 27.937318 13.214902 27.9375 14.869141 C 27.9377 16.959152 27.947395 17.484375 27.984375 17.484375 C 28.009835 17.484375 29.343116 16.170693 30.947266 14.564453 C 32.551415 12.958213 33.934171 11.596569 34.019531 11.537109 C 34.251855 11.375287 34.666104 11.187846 34.994141 11.097656 C 35.264171 11.023416 35.383848 11.017166 36.607422 11.003906 C 36.793213 11.001895 36.784473 11.007979 36.945312 11.007812 C 37.077746 10.87296 37.929687 10.022178 37.929688 10.019531 C 37.929688 10.002931 37.334479 9.9960304 36.607422 10.003906 C 35.383848 10.017166 35.264171 10.023416 34.994141 10.097656 C 34.666104 10.187846 34.251855 10.375287 34.019531 10.537109 C 33.934171 10.596569 32.551415 11.958213 30.947266 13.564453 C 29.343116 15.170693 28.009835 16.484375 27.984375 16.484375 C 27.947395 16.484375 27.93771 15.959152 27.9375 13.869141 C 27.937318 12.214902 27.924641 11.165486 27.900391 11.015625 C 27.846611 10.683307 27.701139 10.380617 27.523438 10.228516 C 27.284305 10.023835 27.10743 9.9906046 26.275391 10.001953 z M 10.039062 15.099609 C 9.9996872 15.099609 9.9944987 15.330937 10.005859 16.326172 C 10.011092 16.165998 10.020295 16.099609 10.039062 16.099609 C 10.102707 16.099609 17.558252 23.561653 18.4375 24.498047 C 18.489556 24.44262 18.931641 24.001816 18.931641 23.998047 C 18.931641 23.930598 10.106474 15.099609 10.039062 15.099609 z M 37.960938 15.099609 C 37.893527 15.099609 29.068359 23.930598 29.068359 23.998047 C 29.068359 24.001816 29.510444 24.44262 29.5625 24.498047 C 30.441749 23.561654 37.897294 16.099609 37.960938 16.099609 C 37.979706 16.099609 37.988908 16.165998 37.994141 16.326172 C 38.005502 15.330937 38.000313 15.099609 37.960938 15.099609 z M 14.949219 24.498047 L 13.111328 26.339844 C 11.389256 28.066869 10.729941 28.750877 10.605469 28.941406 C 10.381636 29.284024 10.228104 29.628971 10.113281 30.050781 C 10.022189 30.3854 10.019839 30.440095 10.005859 31.646484 C 9.9995976 32.187026 9.9999917 32.488473 10.005859 32.667969 C 10.005982 32.657246 10.005733 32.657387 10.005859 32.646484 C 10.019841 31.440095 10.022191 31.3854 10.113281 31.050781 C 10.228104 30.628971 10.381636 30.284024 10.605469 29.941406 C 10.729941 29.750877 11.389256 29.066869 13.111328 27.339844 L 15.447266 24.998047 L 14.949219 24.498047 z M 33.050781 24.498047 L 32.552734 24.998047 L 34.888672 27.339844 C 36.610744 29.066869 37.270059 29.750877 37.394531 29.941406 C 37.618364 30.284024 37.771896 30.628971 37.886719 31.050781 C 37.977811 31.3854 37.980161 31.440095 37.994141 32.646484 C 37.994267 32.657387 37.994018 32.657246 37.994141 32.667969 C 38.000008 32.488473 38.000403 32.187026 37.994141 31.646484 C 37.980161 30.440095 37.977811 30.3854 37.886719 30.050781 C 37.771896 29.628971 37.618364 29.284024 37.394531 28.941406 C 37.270059 28.750877 36.610744 28.066869 34.888672 26.339844 L 33.050781 24.498047 z M 22 26.042969 C 21.147912 26.861529 10.070314 37.938359 10.070312 37.974609 C 10.070313 37.986977 10.58658 37.988246 11.056641 37.988281 C 12.603265 36.413992 21.218356 27.793857 22 27.042969 L 22 26.042969 z M 26 26.042969 L 26 27.042969 C 26.781644 27.793857 35.396735 36.413992 36.943359 37.988281 C 37.41342 37.988246 37.929687 37.986977 37.929688 37.974609 C 37.929688 37.938359 26.852088 26.861529 26 26.042969 z"/>
</svg>
