<svg xmlns="http://www.w3.org/2000/svg" width="48" height="48" version="1">
 <path style="fill:#43556b" d="m24 4c-11.08 0-20 8.92-20 20s8.92 20 20 20 20-8.92 20-20-8.92-20-20-20z"/>
 <path fill="#fff" style="opacity:0.1" d="m24 4c11.07 0 19.982 8.92 19.982 20 0 0.16787-0.008 0.33314-0.01169 0.5-0.264-10.846-9.068-19.5-19.97-19.5s-19.706 8.654-19.97 19.5c-0.004-0.16686-0.011689-0.33213-0.011689-0.5 0-11.08 8.9119-20 19.982-20z"/>
 <path opacity=".2" d="m4.0118 24.5c-0.0041 0.167-0.0117 0.332-0.0117 0.5 0 11.08 8.92 20 20 20s20-8.92 20-20c0-0.168-0.008-0.333-0.012-0.5-0.264 10.846-9.076 19.5-19.988 19.5s-19.724-8.654-19.988-19.5z"/>
 <path style="opacity:0.2" d="M 24,9 A 16,16 0 0 0 8,25 16,16 0 0 0 24,41 16,16 0 0 0 40,25 16,16 0 0 0 24,9 Z m 0,2 A 14,14 0 0 1 38,25 14,14 0 0 1 24,39 14,14 0 0 1 10,25 14,14 0 0 1 24,11 Z"/>
 <path style="fill:#00caff" d="M 24 8 A 16 16 0 0 0 8 24 A 16 16 0 0 0 24 40 A 16 16 0 0 0 40 24 A 16 16 0 0 0 24 8 z M 24 10 A 14 14 0 0 1 38 24 A 14 14 0 0 1 24 38 A 14 14 0 0 1 10 24 A 14 14 0 0 1 24 10 z"/>
 <path style="opacity:0.2" d="m 14.923828,22 c -0.384181,0 -0.732233,0.06891 -1.042969,0.207031 -0.305084,0.132597 -0.575212,0.294911 -0.8125,0.488281 l 0.398438,0.490235 c 0.231639,-0.176795 0.457396,-0.314615 0.677734,-0.414063 0.220339,-0.09945 0.479862,-0.15039 0.779297,-0.15039 0.316385,0 0.573745,0.08654 0.771484,0.257812 0.197741,0.165746 0.296876,0.410362 0.296876,0.736328 -1e-6,0.270718 -0.05477,0.517287 -0.16211,0.738282 -0.107345,0.220994 -0.267732,0.447643 -0.482422,0.679687 -0.209039,0.232044 -0.464237,0.496579 -0.763672,0.794922 L 13,27.394531 V 28 h 4 v -0.662109 h -3.058594 v -0.0332 l 1.261719,-1.21875 c 0.310734,-0.292819 0.582815,-0.572698 0.814453,-0.837891 0.231639,-0.265193 0.411072,-0.532016 0.541016,-0.802735 0.129943,-0.270718 0.195312,-0.561701 0.195312,-0.871093 0,-0.486188 -0.16255,-0.870576 -0.490234,-1.152344 C 15.935989,22.140107 15.488799,22 14.923828,22 Z m 3.464844,0 -0.238281,2.792969 0.388671,0.232422 c 0.129795,-0.02763 0.301283,-0.05636 0.513672,-0.08398 0.21239,-0.02763 0.401215,-0.04102 0.566407,-0.04102 0.548673,0 0.949438,0.104507 1.203125,0.314453 0.253687,0.204419 0.380859,0.499978 0.380859,0.886718 0,0.436465 -0.144508,0.760759 -0.433594,0.970704 -0.283184,0.20442 -0.656969,0.30664 -1.123047,0.30664 -0.277286,0 -0.570167,-0.03331 -0.876953,-0.09961 C 18.468647,27.207474 18.212389,27.109828 18,26.988281 v 0.689453 c 0.19469,0.104974 0.433611,0.184988 0.716797,0.240235 C 18.999983,27.973215 19.306336,28 19.636719,28 20.380082,28 20.958114,27.826582 21.371094,27.478516 21.789973,27.124924 22,26.640604 22,26.027344 c 0,-0.552486 -0.194603,-0.981289 -0.583984,-1.285156 -0.383481,-0.303868 -0.895995,-0.455079 -1.539063,-0.455079 -0.206489,0 -0.395314,0.0111 -0.566406,0.0332 -0.171091,0.0221 -0.307909,0.04202 -0.408203,0.05859 l 0.15039,-1.716797 h 2.503907 V 22 Z m 8.603516,0 c -0.4782,0 -0.863705,0.11992 -1.15625,0.359375 -0.292546,0.234014 -0.507557,0.573273 -0.642579,1.019531 C 25.063964,23.825166 25,24.364802 25,24.996094 c 0,0.941497 0.159794,1.679557 0.480469,2.21289 C 25.80677,27.736875 26.311456,28 26.992188,28 c 0.478199,0 0.863703,-0.11992 1.15625,-0.359375 0.298171,-0.239456 0.513416,-0.583038 0.648437,-1.029297 C 28.931896,26.165069 29,25.627386 29,24.996094 29,24.049155 28.83388,23.313465 28.501953,22.791016 28.170026,22.263125 27.667293,22 26.992188,22 Z m 5,0 c -0.478201,0 -0.863705,0.11992 -1.15625,0.359375 -0.292546,0.234014 -0.507557,0.573273 -0.642579,1.019531 C 30.063964,23.825166 30,24.364802 30,24.996094 c 0,0.941497 0.159794,1.679557 0.480469,2.21289 C 30.80677,27.736875 31.311456,28 31.992188,28 c 0.478199,0 0.863703,-0.11992 1.15625,-0.359375 0.298171,-0.239456 0.513416,-0.583038 0.648437,-1.029297 C 33.931896,26.165069 34,25.627386 34,24.996094 34,24.049155 33.83388,23.313465 33.501953,22.791016 33.170026,22.263125 32.667293,22 31.992188,22 Z m -5,0.611328 c 0.45007,0 0.769657,0.200377 0.960937,0.597656 0.196906,0.397278 0.294922,0.992552 0.294922,1.78711 0,0.805442 -0.09802,1.407408 -0.294922,1.804687 -0.19128,0.391836 -0.510867,0.587891 -0.960937,0.587891 -0.455697,0 -0.779424,-0.200377 -0.970704,-0.597656 -0.185654,-0.397278 -0.279296,-0.994922 -0.279296,-1.794922 0,-0.794558 0.09364,-1.389832 0.279296,-1.78711 0.19128,-0.397279 0.515007,-0.597656 0.970704,-0.597656 z m 5,0 c 0.450069,0 0.769657,0.200377 0.960937,0.597656 0.196906,0.397278 0.294922,0.992552 0.294922,1.78711 0,0.805442 -0.09802,1.407408 -0.294922,1.804687 -0.19128,0.391836 -0.510868,0.587891 -0.960937,0.587891 -0.455697,0 -0.779424,-0.200377 -0.970704,-0.597656 -0.185654,-0.397278 -0.279296,-0.994922 -0.279296,-1.794922 0,-0.794558 0.09364,-1.389832 0.279296,-1.78711 0.19128,-0.397279 0.515007,-0.597656 0.970704,-0.597656 z M 23.492188,23 c -0.134409,0 -0.250883,0.03585 -0.347657,0.109375 C 23.047757,23.182904 23,23.313725 23,23.5 c 0,0.176471 0.04776,0.304382 0.144531,0.382812 C 23.241305,23.961245 23.357779,24 23.492188,24 23.626596,24 23.745505,23.96124 23.847656,23.882812 23.949806,23.804382 24,23.676471 24,23.5 24,23.313725 23.949806,23.182904 23.847656,23.109375 23.745505,23.035846 23.626596,23 23.492188,23 Z m 0,2.503906 c -0.134409,0 -0.250883,0.03725 -0.347657,0.111328 C 23.047757,25.689308 23,25.817284 23,26 c 0,0.177778 0.04776,0.305754 0.144531,0.384766 0.09677,0.07901 0.213248,0.11914 0.347657,0.11914 0.134408,0 0.253317,-0.04013 0.355468,-0.11914 C 23.949806,26.305754 24,26.177778 24,26 c 0,-0.182716 -0.05019,-0.310692 -0.152344,-0.384766 -0.102151,-0.07407 -0.22106,-0.111328 -0.355468,-0.111328 z"/>
 <path style="fill:#8b9cbe" d="m 14.923828,21 c -0.384181,0 -0.732233,0.06891 -1.042969,0.207031 -0.305084,0.132597 -0.575212,0.294911 -0.8125,0.488281 l 0.398438,0.490235 c 0.231639,-0.176795 0.457396,-0.314615 0.677734,-0.414063 0.220339,-0.09945 0.479862,-0.15039 0.779297,-0.15039 0.316385,0 0.573745,0.08654 0.771484,0.257812 0.197741,0.165746 0.296876,0.410362 0.296876,0.736328 -1e-6,0.270718 -0.05477,0.517287 -0.16211,0.738282 -0.107345,0.220994 -0.267732,0.447643 -0.482422,0.679687 -0.209039,0.232044 -0.464237,0.496579 -0.763672,0.794922 L 13,26.394531 V 27 h 4 v -0.662109 h -3.058594 v -0.0332 l 1.261719,-1.21875 c 0.310734,-0.292819 0.582815,-0.572698 0.814453,-0.837891 0.231639,-0.265193 0.411072,-0.532016 0.541016,-0.802735 0.129943,-0.270718 0.195312,-0.561701 0.195312,-0.871093 0,-0.486188 -0.16255,-0.870576 -0.490234,-1.152344 C 15.935989,21.140107 15.488799,21 14.923828,21 Z m 3.464844,0 -0.238281,2.792969 0.388671,0.232422 c 0.129795,-0.02763 0.301283,-0.05636 0.513672,-0.08398 0.21239,-0.02763 0.401215,-0.04102 0.566407,-0.04102 0.548673,0 0.949438,0.104507 1.203125,0.314453 0.253687,0.204419 0.380859,0.499978 0.380859,0.886718 0,0.436465 -0.144508,0.760759 -0.433594,0.970704 -0.283184,0.20442 -0.656969,0.30664 -1.123047,0.30664 -0.277286,0 -0.570167,-0.03331 -0.876953,-0.09961 C 18.468647,26.207474 18.212389,26.109828 18,25.988281 v 0.689453 c 0.19469,0.104974 0.433611,0.184988 0.716797,0.240235 C 18.999983,26.973215 19.306336,27 19.636719,27 20.380082,27 20.958114,26.826582 21.371094,26.478516 21.789973,26.124924 22,25.640604 22,25.027344 c 0,-0.552486 -0.194603,-0.981289 -0.583984,-1.285156 -0.383481,-0.303868 -0.895995,-0.455079 -1.539063,-0.455079 -0.206489,0 -0.395314,0.0111 -0.566406,0.0332 -0.171091,0.0221 -0.307909,0.04202 -0.408203,0.05859 l 0.15039,-1.716797 h 2.503907 V 21 Z m 8.603516,0 c -0.4782,0 -0.863705,0.11992 -1.15625,0.359375 -0.292546,0.234014 -0.507557,0.573273 -0.642579,1.019531 C 25.063964,22.825166 25,23.364802 25,23.996094 c 0,0.941497 0.159794,1.679557 0.480469,2.21289 C 25.80677,26.736875 26.311456,27 26.992188,27 c 0.478199,0 0.863703,-0.11992 1.15625,-0.359375 0.298171,-0.239456 0.513416,-0.583038 0.648437,-1.029297 C 28.931896,25.165069 29,24.627386 29,23.996094 29,23.049155 28.83388,22.313465 28.501953,21.791016 28.170026,21.263125 27.667293,21 26.992188,21 Z m 5,0 c -0.478201,0 -0.863705,0.11992 -1.15625,0.359375 -0.292546,0.234014 -0.507557,0.573273 -0.642579,1.019531 C 30.063964,22.825166 30,23.364802 30,23.996094 c 0,0.941497 0.159794,1.679557 0.480469,2.21289 C 30.80677,26.736875 31.311456,27 31.992188,27 c 0.478199,0 0.863703,-0.11992 1.15625,-0.359375 0.298171,-0.239456 0.513416,-0.583038 0.648437,-1.029297 C 33.931896,25.165069 34,24.627386 34,23.996094 34,23.049155 33.83388,22.313465 33.501953,21.791016 33.170026,21.263125 32.667293,21 31.992188,21 Z m -5,0.611328 c 0.45007,0 0.769657,0.200377 0.960937,0.597656 0.196906,0.397278 0.294922,0.992552 0.294922,1.78711 0,0.805442 -0.09802,1.407408 -0.294922,1.804687 -0.19128,0.391836 -0.510867,0.587891 -0.960937,0.587891 -0.455697,0 -0.779424,-0.200377 -0.970704,-0.597656 -0.185654,-0.397278 -0.279296,-0.994922 -0.279296,-1.794922 0,-0.794558 0.09364,-1.389832 0.279296,-1.78711 0.19128,-0.397279 0.515007,-0.597656 0.970704,-0.597656 z m 5,0 c 0.450069,0 0.769657,0.200377 0.960937,0.597656 0.196906,0.397278 0.294922,0.992552 0.294922,1.78711 0,0.805442 -0.09802,1.407408 -0.294922,1.804687 -0.19128,0.391836 -0.510868,0.587891 -0.960937,0.587891 -0.455697,0 -0.779424,-0.200377 -0.970704,-0.597656 -0.185654,-0.397278 -0.279296,-0.994922 -0.279296,-1.794922 0,-0.794558 0.09364,-1.389832 0.279296,-1.78711 0.19128,-0.397279 0.515007,-0.597656 0.970704,-0.597656 z M 23.492188,22 c -0.134409,0 -0.250883,0.03585 -0.347657,0.109375 C 23.047757,22.182904 23,22.313725 23,22.5 c 0,0.176471 0.04776,0.304382 0.144531,0.382812 C 23.241305,22.961245 23.357779,23 23.492188,23 c 0.134408,0 0.253317,-0.03876 0.355468,-0.117188 C 23.949806,22.804382 24,22.676471 24,22.5 24,22.313725 23.949806,22.182904 23.847656,22.109375 23.745505,22.035846 23.626596,22 23.492188,22 Z m 0,2.503906 c -0.134409,0 -0.250883,0.03725 -0.347657,0.111328 C 23.047757,24.689308 23,24.817284 23,25 c 0,0.177778 0.04776,0.305754 0.144531,0.384766 0.09677,0.07901 0.213248,0.11914 0.347657,0.11914 0.134408,0 0.253317,-0.04013 0.355468,-0.11914 C 23.949806,25.305754 24,25.177778 24,25 c 0,-0.182716 -0.05019,-0.310692 -0.152344,-0.384766 -0.102151,-0.07407 -0.22106,-0.111328 -0.355468,-0.111328 z"/>
</svg>
