<svg xmlns="http://www.w3.org/2000/svg" width="48" height="48" version="1">
 <path style="opacity:0.2" d="M 14.883608,45 C 13.669502,45 12.18008,44.123865 11.573822,43.053034 L 2.4546928,26.946966 c -0.6062584,-1.070831 -0.6062584,-2.823101 0,-3.893932 L 11.573822,6.9469664 c 0.606258,-1.0708315 2.09568,-1.9469663 3.309786,-1.9469663 h 18.232784 c 1.214106,0 2.703527,0.8761348 3.309698,1.9469663 l 9.119217,16.1060676 c 0.606259,1.070831 0.606259,2.823101 0,3.893932 L 36.426178,43.053034 C 35.820008,44.123865 34.330586,45 33.11648,45 Z"/>
 <path style="fill:#4f4f4f" d="M 14.883608,44 C 13.669502,44 12.18008,43.123865 11.573822,42.053034 L 2.4546928,25.946966 c -0.6062584,-1.070831 -0.6062584,-2.823101 0,-3.893932 L 11.573822,5.9469664 c 0.606258,-1.0708315 2.09568,-1.9469663 3.309786,-1.9469663 h 18.232784 c 1.214106,0 2.703527,0.8761348 3.309698,1.9469663 l 9.119217,16.1060676 c 0.606259,1.070831 0.606259,2.823101 0,3.893932 L 36.426178,42.053034 C 35.820008,43.123865 34.330586,44 33.11648,44 Z"/>
 <path style="opacity:0.2" d="M 31.727771,13.157177 C 31.375879,12.520801 31.007108,12 31.00335,12 c -0.0037,0 -0.0067,0.601027 -0.0067,1.335615 v 10.239727 c 0,0.734589 -0.211165,0.815528 -0.564422,0.179952 L 24.642317,13.155664 C 24.28906,12.520088 23.423511,12 22.718877,12 h -4.625652 c -0.704635,0 -1.569073,0.520712 -1.920963,1.157177 l -5.908344,10.685644 c -0.3518907,0.636377 -0.3518907,1.67789 0,2.314356 l 6.008636,10.685645 C 16.624444,37.479288 16.992927,38 16.9966,38 c 0.0037,0 0.0068,-0.601028 0.0068,-1.335617 V 26.246575 c 0,-0.734589 0.208463,-0.813925 0.558047,-0.176035 l 5.802927,10.769788 C 23.714044,37.478308 24.576603,38 25.281238,38 h 4.625566 c 0.704635,0 1.569073,-0.520712 1.920964,-1.157089 l 5.908314,-10.685823 c 0.351891,-0.636377 0.351891,-1.677801 0,-2.314267 z"/>
 <path style="fill:#8b9cbe" d="M 31.727771,12.157177 C 31.375879,11.520801 31.007108,11 31.00335,11 c -0.0037,0 -0.0067,0.601027 -0.0067,1.335615 v 10.239727 c 0,0.734589 -0.211165,0.815528 -0.564422,0.179952 L 24.642317,12.155664 C 24.28906,11.520088 23.423511,11 22.718877,11 h -4.625652 c -0.704635,0 -1.569073,0.520712 -1.920963,1.157177 l -5.908344,10.685644 c -0.3518907,0.636377 -0.3518907,1.67789 0,2.314356 l 6.008636,10.685645 C 16.624444,36.479288 16.992927,37 16.9966,37 c 0.0037,0 0.0068,-0.601028 0.0068,-1.335617 V 25.246575 c 0,-0.734589 0.208463,-0.813925 0.558047,-0.176035 l 5.802927,10.769788 C 23.714044,36.478308 24.576603,37 25.281238,37 h 4.625566 c 0.704635,0 1.569073,-0.520712 1.920964,-1.157089 l 5.908314,-10.685823 c 0.351891,-0.636377 0.351891,-1.677801 0,-2.314267 z"/>
 <path style="fill:#8b9cbe;opacity:0.1" d="M 14.882812 4 C 13.668706 4 12.180477 4.8764341 11.574219 5.9472656 L 2.4550781 22.052734 C 2.0800995 22.715057 1.9384642 23.638778 2.0273438 24.5 C 2.082163 23.968814 2.2237983 23.461243 2.4550781 23.052734 L 11.574219 6.9472656 C 12.180477 5.8764341 13.668706 5 14.882812 5 L 33.117188 5 C 34.331294 5 35.81961 5.8764341 36.425781 6.9472656 L 45.544922 23.052734 C 45.776202 23.461243 45.917837 23.968814 45.972656 24.5 C 46.061536 23.638778 45.919901 22.715057 45.544922 22.052734 L 36.425781 5.9472656 C 35.81961 4.8764341 34.331294 4 33.117188 4 L 14.882812 4 z"/>
</svg>
