<svg xmlns="http://www.w3.org/2000/svg" width="48" height="48" version="1.1">
 <path style="opacity:0.2" d="m 24,5 c -3.286619,0.00517 -6.521316,0.8202141 -9.417969,2.3730469 -0.05431,0.09718 -0.117137,0.1901065 -0.1875,0.2773437 C 14.024709,8.1043415 13.483755,8.3621863 12.972656,8.328125 7.3741883,12.02817 4.0044899,18.289325 4,25 c 0.00799,2.081197 0.3407675,4.148394 0.9863281,6.126953 0.4413305,0.200952 0.7895625,0.638437 0.9296875,1.167969 0.097703,0.374932 0.083185,0.76623 -0.041016,1.105469 C 9.1445122,40.464677 16.215801,44.99015 24,45 c 7.807083,0 14.569382,-4.473252 17.86366,-10.99652 1.366565,-2.706047 1.922665,-5.795393 1.922665,-9.034005 0,-3.200047 -0.537876,-6.194034 -1.8741,-8.876135 C 38.636165,9.5175553 31.845648,5 24,5 Z"/>
 <path style="fill:#dee000" d="m 24,4 c -3.286619,0.00517 -6.521316,0.8202141 -9.417969,2.3730469 -0.05431,0.09718 -0.117137,0.1901065 -0.1875,0.2773437 C 14.024709,7.1043415 13.483755,7.3621863 12.972656,7.328125 7.3741883,11.02817 4.0044899,17.289325 4,24 c 0.00799,2.081197 0.3407675,4.148394 0.9863281,6.126953 0.4413305,0.200952 0.7895625,0.638437 0.9296875,1.167969 0.097703,0.374932 0.083185,0.76623 -0.041016,1.105469 C 9.1445122,39.464677 16.215801,43.99015 24,44 c 7.807083,0 14.569382,-4.473252 17.86366,-10.99652 1.366565,-2.706047 1.922665,-5.795393 1.922665,-9.034005 0,-3.200047 -0.537876,-6.194034 -1.8741,-8.876135 C 38.636165,8.5175553 31.845648,4 24,4 Z"/>
 <path style="fill:#8b9cbe" d="M 21.527344 5.65625 C 20.006882 5.6160005 17.322337 5.9476154 14.691406 6.3105469 A 20 20 0 0 0 14.582031 6.375 A 1.3671137 1.651845 39.073308 0 1 14.394531 6.6503906 A 1.3671137 1.651845 39.073308 0 1 12.982422 7.328125 A 20 20 0 0 0 12.861328 7.4082031 C 20.259452 7.0074962 28.276419 7.664668 33.599609 10.126953 C 37.205819 11.795035 40.001419 14.141662 41.576172 17.232422 C 43.150925 20.323182 44.372021 24.258234 42.677734 28.929688 C 41.279861 32.783878 39.183198 34.49833 36.921875 35.835938 C 34.660553 37.173544 31.547429 37.414102 30.046875 36.863281 C 24.297629 34.752856 18.194782 30.535374 13.255859 28.78125 C 8.555963 27.11202 6.1661776 27.684671 4.9003906 29.869141 A 20 20 0 0 0 4.9960938 30.132812 A 1.651845 1.3671137 75.246572 0 1 5.9160156 31.294922 A 1.651845 1.3671137 75.246572 0 1 5.875 32.400391 A 20 20 0 0 0 5.9726562 32.617188 C 6.7585532 30.063825 9.9188663 30.255447 11.988281 31.009766 C 16.615245 32.696333 22.786364 36.605503 28.919922 38.476562 C 32.152374 39.462632 35.155407 38.629154 37.671875 37.140625 C 39.212077 36.229572 40.64718 34.891746 41.771484 33.132812 A 20 20 0 0 0 44 24 A 20 20 0 0 0 41.662109 14.646484 C 39.833944 11.914947 36.912718 9.718293 33.658203 8.2128906 C 30.093318 6.5639241 25.966604 5.7737656 21.527344 5.65625 z"/>
 <path style="fill:#8b9cbe;opacity:0.2" d="M 24 4 C 20.713381 4.00517 17.478684 4.8202141 14.582031 6.3730469 C 14.527721 6.4702269 14.464894 6.5631534 14.394531 6.6503906 C 14.024709 7.1043415 13.483755 7.3621863 12.972656 7.328125 C 7.3741885 11.02817 4.0044899 17.289325 4 24 C 4.0005413 24.141004 4.0140588 24.281023 4.0175781 24.421875 C 4.209656 17.931779 7.5357628 11.921385 12.972656 8.328125 C 13.483755 8.3621863 14.024709 8.1043415 14.394531 7.6503906 C 14.464894 7.5631534 14.527721 7.4702269 14.582031 7.3730469 C 17.478684 5.8202141 20.713381 5.00517 24 5 C 31.845648 5 38.636049 9.5179653 41.912109 16.09375 C 43.178669 18.636019 43.721559 21.460084 43.775391 24.472656 C 43.778456 24.304495 43.787109 24.137758 43.787109 23.96875 C 43.787109 20.768703 43.248333 17.775851 41.912109 15.09375 C 38.636049 8.5179653 31.845648 4 24 4 z M 5.9023438 32.257812 C 5.8897614 32.304336 5.8914244 32.35553 5.875 32.400391 C 5.8959011 32.445551 5.9201953 32.488251 5.9414062 32.533203 C 5.930762 32.45356 5.9365585 32.373754 5.9160156 32.294922 C 5.9125782 32.281932 5.90603 32.27069 5.9023438 32.257812 z"/>
 <path style="opacity:0.1" d="M 21.527344 4.65625 C 20.705909 4.6345053 19.525748 4.7294634 18.216797 4.8710938 C 17.010088 5.2379059 15.83638 5.7168417 14.712891 6.3085938 C 17.33677 5.9468518 20.011124 5.6161133 21.527344 5.65625 C 25.966604 5.7737656 30.093318 6.5639241 33.658203 8.2128906 C 36.912718 9.718293 39.833944 11.914947 41.662109 14.646484 A 20 20 0 0 1 42.5 16.443359 C 42.322389 15.986266 42.131677 15.534471 41.912109 15.09375 C 41.006499 13.275987 39.824369 11.623128 38.433594 10.171875 C 37.008836 9.0086205 35.38347 8.0109266 33.658203 7.2128906 C 30.093318 5.5639241 25.966604 4.7737656 21.527344 4.65625 z M 42.529297 16.519531 A 20 20 0 0 1 42.863281 17.476562 C 42.761446 17.153857 42.650038 16.834874 42.529297 16.519531 z M 43.480469 23.914062 C 43.42908 25.184392 43.187986 26.522832 42.677734 27.929688 C 41.279861 31.783877 39.183198 33.498329 36.921875 34.835938 C 34.660553 36.173544 31.547429 36.414102 30.046875 35.863281 C 24.297629 33.752856 18.194782 29.535374 13.255859 27.78125 C 8.5559638 26.11202 6.1661776 26.684671 4.9003906 28.869141 A 20 20 0 0 0 4.9960938 29.132812 A 1.651845 1.3671137 75.246572 0 1 5.2929688 29.318359 C 6.6397714 27.612657 8.9918602 27.266834 13.255859 28.78125 C 18.194782 30.535374 24.297629 34.752856 30.046875 36.863281 C 31.547429 37.414102 34.660553 37.173544 36.921875 35.835938 C 39.183198 34.498328 41.279861 32.783878 42.677734 28.929688 C 43.323845 27.148243 43.540232 25.47534 43.480469 23.914062 z M 5.9160156 31.294922 C 5.9384259 31.380921 5.9346798 31.467793 5.9453125 31.554688 A 20 20 0 0 0 5.9726562 31.617188 A 1.651845 1.3671137 75.246572 0 0 5.9160156 31.294922 z"/>
</svg>
