<svg xmlns="http://www.w3.org/2000/svg" width="48" height="48" version="1.1">
 <path style="opacity:0.2" d="M 5.4863281,5 C 4.6623951,5 4,5.6644364 4,6.4902344 V 13 v 6 6 c 0,1.669613 0.506848,3.216274 1.375,4.496094 2.0658778,3.071948 5.017126,6.905612 8.345703,9.996094 1.263992,1.281786 2.733782,2.408216 4.251953,3.308593 0.639794,0.400189 1.283603,0.767493 1.931641,1.070313 C 21.101854,44.584212 22.499385,45 24,45 H 29.486328 30 30.472656 36 42.513672 c 0.375474,0 0.713629,-0.142736 0.974609,-0.371094 0.0011,-9.33e-4 0.0028,-0.001 0.0039,-0.002 0.0021,-0.0018 0.0038,-0.004 0.0059,-0.0059 0.06608,-0.05881 0.125001,-0.12365 0.179687,-0.19336 0.011,-0.01387 0.0227,-0.02675 0.0332,-0.04102 0.04964,-0.06815 0.09123,-0.140484 0.128906,-0.216797 0.0078,-0.01549 0.01816,-0.02913 0.02539,-0.04492 0.03497,-0.07759 0.06253,-0.16005 0.08398,-0.244141 0.0048,-0.01846 0.01153,-0.03594 0.01563,-0.05469 C 43.986797,43.723898 44,43.618827 44,43.509766 V 43.253906 37 31 25 c 0,-0.368703 -0.0342,-0.728797 -0.08203,-1.083984 -0.01273,-0.09439 -0.02505,-0.187951 -0.04102,-0.28125 -0.05861,-0.343097 -0.131857,-0.681351 -0.232422,-1.007813 -0.0012,-0.0039 -0.0027,-0.0078 -0.0039,-0.01172 -0.0066,-0.02144 -0.01662,-0.04114 -0.02344,-0.0625 -0.100233,-0.314184 -0.22283,-0.616346 -0.359376,-0.912109 -0.03715,-0.08042 -0.07553,-0.159343 -0.115234,-0.238281 -0.154732,-0.307841 -0.321951,-0.607335 -0.513672,-0.890625 -0.0016,-0.0024 -0.0023,-0.0054 -0.0039,-0.0078 -0.842005,-1.326953 -1.776435,-2.618347 -2.791016,-3.814453 -1.75274,-2.25029 -3.767187,-4.568941 -5.96875,-6.552734 C 31.849703,8.3681481 29.742672,6.8792675 27.71875,5.96875 26.479447,5.4302703 25.234046,5.0774152 24,5 h -6 -6 z"/>
 <path style="fill:#125072" d="M 5.4863281 4 C 4.6623951 4 4 4.6644364 4 5.4902344 L 4 12 L 4 18 L 4 24 C 4 25.669613 4.506848 27.216274 5.375 28.496094 C 9.441795 34.543394 16.931846 43.556595 24 44 L 30 44 L 30.472656 44 L 31.400391 43.798828 L 37.400391 43.798828 L 42.914062 43.798828 C 43.118572 43.798828 43.311879 43.736001 43.488281 43.628906 C 43.489347 43.627973 43.491124 43.627889 43.492188 43.626953 C 43.802044 43.354261 44 42.957703 44 42.509766 L 44 36 L 44 30 L 44 24 C 44 22.330387 43.493152 20.783726 42.625 19.503906 C 40.474323 16.305863 37.361975 12.287577 33.865234 9.1367188 C 31.849703 7.3681482 29.742672 5.8792675 27.71875 4.96875 C 26.479447 4.4302703 25.234046 4.0774152 24 4 L 18 4 L 12 4 L 5.4863281 4 z"/>
 <path style="fill:#8b9cbe" d="M 11.486328,10 C 10.662395,10 10,10.664436 10,11.490234 V 18 24 31.900391 C 10.922221,37.925362 18.855172,43.535939 24,44 h 5.486328 l 0.314453,-0.09961 h 6 6.712891 c 0.823933,0 1.472852,-0.820796 1.486328,-1.646485 V 36 30 24 C 44,22.330387 43.493152,20.783726 42.625,19.503906 39.589429,14.720013 35.468882,10.240942 30,10 h -6 -6 z"/>
 <path style="fill:#00cae5" d="M 17.486328 16 C 16.662395 16 16 16.664436 16 17.490234 L 16 24 L 16 25 L 26 25 L 26 20 L 40 28.5 L 26 37 L 26 32 L 16 32 L 16 36 C 16 40.432 19.568 44 24 44 L 30 44 L 36 44 L 42.513672 44 C 43.337605 44 44 43.335564 44 42.509766 L 44 36 L 44 30 L 44 24 C 44 19.568 40.432 16 36 16 L 30 16 L 24 16 L 17.486328 16 z"/>
 <path style="opacity:0.1;fill:#8b9cbe" d="M 5.4863281 4 C 4.6623951 4 4 4.6644364 4 5.4902344 L 4 6.4902344 C 4 5.6644364 4.6623951 5 5.4863281 5 L 12 5 L 18 5 L 24 5 C 25.234046 5.0774152 26.479447 5.4302703 27.71875 5.96875 C 29.742672 6.8792675 31.849703 8.368148 33.865234 10.136719 C 37.361975 13.287577 40.474323 17.305863 42.625 20.503906 C 43.493152 21.783726 44 23.330387 44 25 L 44 24 C 44 22.330387 43.493152 20.783726 42.625 19.503906 C 40.474323 16.305863 37.361975 12.287577 33.865234 9.1367188 C 31.849703 7.3681481 29.742672 5.8792675 27.71875 4.96875 C 26.479447 4.4302703 25.234046 4.0774152 24 4 L 18 4 L 12 4 L 5.4863281 4 z"/>
 <path style="opacity:0.2" d="M 39.175781,29 26,37 v 1 L 40,29.5 Z M 16,32 v 1 h 10 v -1 z"/>
</svg>
