<svg xmlns="http://www.w3.org/2000/svg" width="48" height="48" version="1.1">
 <rect style="opacity:0.2" width="36" height="12" x="6" y="32" rx="2" ry="2"/>
 <path style="opacity:0.2" d="m 28.271484,4 c 0.245018,1.2315121 0.462419,2.3285195 0.375,3.4492188 C 27.598931,6.9195582 27.005558,5.0468279 23.498047,5.0625 22.7914,5.06566 22.157677,5.2506129 21.582031,5.5429688 c 0.0024,-0.00349 0.0034,-0.00627 0.0059,-0.00977 -0.229579,0.1159949 -0.445593,0.2543956 -0.65625,0.4023438 -0.0792,0.055654 -0.153843,0.1163807 -0.230469,0.1757812 -0.145874,0.1129819 -0.28698,0.2311546 -0.423828,0.3554688 -0.07697,0.069969 -0.154312,0.1381034 -0.228516,0.2109375 -0.164265,0.1610737 -0.321371,0.3270331 -0.472656,0.4980468 -0.02559,0.028938 -0.05485,0.054856 -0.08008,0.083984 -0.01889,0.021794 -0.03405,0.044519 -0.05273,0.066406 -0.235548,0.2760352 -0.442927,0.547695 -0.648437,0.8261719 -0.297632,0.402587 -0.573905,0.7967866 -0.816406,1.1464842 -0.579839,0.820572 -1.06828,1.399273 -1.585938,1.28711 -0.551189,-0.11943 -0.811204,-0.711784 -1.140625,-2.0507818 -0.43521,2.0002178 -2.992405,3.3836128 0.3125,6.9199218 -1.095255,1.11667 -1.371295,1.508152 -1.591797,1.867188 -0.286277,0.466134 -0.236531,2.412823 0.494141,2.527343 -2.691669,0.745289 -1.122227,3.754679 -2.238281,4.763672 -0.710305,0.498474 -1.334251,1.064708 -3.1171879,0.705078 1.0941659,1.891792 2.8303779,2.778638 4.4785159,2.34375 l 0.517578,1.236329 c -1.076223,1.711911 -0.464844,2.363281 -0.464844,2.363281 l 0.05859,0.05078 c -0.164824,0.216941 -0.293949,0.463162 -0.384766,0.740234 l 1.400391,0.13086 L 18,35 l -0.177734,-2.587891 0.04883,-0.0039 2.46875,-4.568359 c 0.0094,0.06039 0.029,0.121324 0.03516,0.18164 l 6.357422,1.238282 c -0.213397,1.289107 0.168666,2.310671 1.523437,2.521484 0.0649,0.0101 0.545333,0.120576 0.708985,0.15625 -0.01952,0.09118 -0.06055,0.322266 -0.06055,0.322266 0.317664,0.02287 0.895906,0.32221 1.03125,0.115234 0.02324,-0.03554 -0.02585,-0.136916 -0.08008,-0.242188 0.152326,0.03453 0.253261,0.05529 0.423828,0.09375 0.225903,0.204037 0.449625,0.407123 0.509765,0.398438 0.16757,-0.0242 0.301391,-0.111158 0.439454,-0.189453 C 32.830522,32.781554 34.490034,33.099628 35,33 l -0.06445,-0.947266 c 0.451933,-0.09242 0.60534,-0.469604 0.710937,-0.5625 -0.242641,-0.399805 -0.515575,-0.622387 -0.802734,-0.77539 l -0.0059,-0.07617 c 0.100757,-1.253254 0.02022,-2.324757 -0.431641,-3.025391 4.039429,-0.887574 3.813293,-4.637064 4.236328,-5.189453 -0.822292,-0.331342 -1.369911,-0.801072 -1.308594,-1.574219 0.964854,-1.8593 2.084794,-3.539395 1.660157,-7.001953 -0.04239,-0.254526 -0.09755,-0.550439 -0.164063,-0.861328 -0.0012,-0.0057 -0.0027,-0.0099 -0.0039,-0.01563 -0.01589,-0.0739 -0.0371,-0.150199 -0.05469,-0.226562 -0.05737,-0.249181 -0.124872,-0.508109 -0.203125,-0.777344 -0.02857,-0.09843 -0.05614,-0.192657 -0.08789,-0.292969 -0.110817,-0.349958 -0.237043,-0.705516 -0.392578,-1.066406 -0.108391,-0.251707 -0.231403,-0.502827 -0.365235,-0.751953 -0.01008,-0.01876 -0.01711,-0.03791 -0.02734,-0.05664 -0.0011,5.77e-4 -0.0028,0.0014 -0.0039,0.002 C 36.747032,8.071787 35.152749,6.4921803 32.376953,6.1445312 31.771162,6.1418612 31.280197,6.23591 30.851562,6.3808594 30.62002,6.4591594 30.95264,4.9465279 30.867188,5.1582031 30.764935,5.4114865 30.234115,5.9501342 29.857422,6.1953125 30.18309,5.2736228 29.361789,4.4254292 28.271484,4 Z"/>
 <ellipse style="fill:#ffd5d5" cx="33.597" cy="20.386" rx="2.004" ry="3.243"/>
 <path style="fill:#52120e" d="m 33.034463,21.864247 c 3.140963,1.059383 4.142853,0.06202 5.60906,-0.440826 -0.423035,0.552389 -0.19824,4.302473 -4.237669,5.190047 0.451864,0.700634 0.532879,1.772115 0.432122,3.025369 L 35,32 c -0.941688,0.183971 -6.150093,-1.126089 -6.743632,-1.218448 -3.760098,-0.585101 -0.112016,-7.382021 3.348991,-8.963077 0.537195,0.197737 1.127699,0.555401 1.429104,0.04577 z"/>
 <path style="fill:#52120e" d="M 17.97855,8.2989345 C 17.398711,9.119506 16.911081,9.698118 16.393423,9.585954 15.842234,9.466525 15.581055,8.8743262 15.251634,7.5353286 14.816424,9.535546 12.258965,10.91849 15.56387,14.454799 c -1.095255,1.11667 -1.371185,1.508918 -1.591687,1.867954 -0.286277,0.466134 -0.236895,2.412368 0.493777,2.526888 -2.691669,0.745289 -1.120821,3.754016 -2.236875,4.763009 -0.710305,0.498474 -1.334148,1.066022 -3.117085,0.706392 1.094166,1.891792 2.829754,2.777598 4.477892,2.34271 l 0.517505,1.237456 c -1.076223,1.711911 -0.465341,2.363049 -0.465341,2.363049 L 18,34 17.604672,28.266998 c 2.48163,-1.468033 4.640384,-3.57087 3.392038,-9.834585 L 21,16 C 19.624742,14.229177 19.56312,14.334538 20.147221,13.771383 20.732122,10.885326 18.298854,10.120075 17.97852,8.2989345 Z"/>
 <rect style="fill:#403650" width="36" height="12" x="6" y="31" rx="2" ry="2"/>
 <path style="opacity:0.2" d="m 20.859375,21.533561 -1.158203,4.837891 c 0,0 -0.957286,0.543611 -1.28711,0.966797 -0.428533,0.549835 -0.808593,1.929687 -0.808593,1.929687 l -1.453125,1.027344 c -1.611459,0.0443 -2.485571,0.688878 -2.835938,1.757812 l 1.591797,0.148438 c 0.173108,-1.171305 0.452494,-1.556892 1.835938,-1.205078 -0.854686,0.103614 -1.813604,0.198191 -1.558594,1.574218 l 2.685547,-0.162109 5.501953,-10.177734 z m 9.523437,0.443359 -3.017578,0.619141 c 0,0 -0.383606,1.57197 -0.208984,2.138672 0.342725,1.112252 0.44762,0.821673 1.175781,2.453125 0.219064,0.490876 -0.125455,0.794731 -0.0039,1.318359 0.117091,0.504427 0.661445,0.977148 0.783203,1.480469 0.166558,0.688519 -0.207031,2.273438 -0.207031,2.273438 0.317664,0.02287 0.895906,0.32221 1.03125,0.115234 0.0574,-0.08778 -0.307743,-0.563747 -0.175781,-0.560547 0.131457,0.0032 0.909016,0.827917 1.029296,0.810547 0.340086,-0.04912 0.539868,-0.354231 0.921876,-0.332031 0.438734,0.0255 0.484074,0.511944 1.515624,0.357422 0.253351,-0.145092 0.574801,-0.855525 0.167969,-1.175782 -0.35203,-0.277119 -1.604598,-0.201951 -1.580078,-0.263671 0.109193,-0.274858 1.0018,-0.372305 1.439453,-0.199219 0.714659,0.282636 0.483052,1.068225 1.488282,1.078125 0.625761,0.0061 0.783713,-0.493531 0.904296,-0.59961 -1.102659,-1.816871 -2.768458,-0.326491 -4.05664,-2.421875 -0.421375,-0.685418 -0.617953,-1.913162 -0.984375,-3.55664 C 30.436706,24.755141 30.454773,23.0923 30.382812,21.97692 Z"/>
 <path style="opacity:0.2" d="m 21.207031,27.182039 c -1.120641,0.04147 -1.955283,0.243543 -2.123047,0.552734 -0.168223,2.090157 -0.75777,3.593304 -1.417968,5.042969 -0.145329,0.31895 -0.253049,0.492153 -0.648438,0.558594 -0.66002,0.210453 -1.345595,0.462857 -1.83789,0.779296 -1.639496,0.38553 -3.513019,1.346553 -3.294922,2.121094 0.215617,0.521648 0.979451,0.894489 1.839843,1.09375 3.723916,0.557888 4.389217,-0.414408 5.330079,-1.248047 -0.02871,0.572425 -0.572352,1.146325 -1.144532,1.71875 l 0.511719,0.236328 c 1.584796,-1.490399 1.929476,-2.267113 1.84375,-3.40039 l 0.07617,-0.101563 c 0.103141,0.270538 0.235791,0.556796 0.398437,0.859375 0.432834,0.763209 0.865995,1.204138 1.298828,1.589844 -0.949408,3.577105 3.024812,6.603824 4.445313,6.039063 1.58375,-0.629668 1.540241,-6.594006 -1.421875,-7.472657 0.07091,-0.535132 0.03817,-1.035086 0.0039,-1.535156 1.386921,0.216417 2.859167,-0.06947 3.660156,-1.400391 1.778365,-4.233714 -4.157606,-5.558003 -7.519531,-5.433593 z"/>
 <path style="fill:#ffd5d5" d="m 20.858622,20.534 2.514023,0.695774 -5.501277,10.17755 -2.685077,0.163179 c -0.25501,-1.376027 0.702907,-1.470851 1.557593,-1.574465 -1.383444,-0.351814 -1.662796,0.03459 -1.835904,1.205895 l -1.591432,-0.14953 c 0.350367,-1.068934 1.223572,-1.713062 2.835031,-1.757359 l 1.453179,-1.028062 c 0,0 0.381315,-1.378322 0.809849,-1.928157 0.329824,-0.423186 1.286869,-0.96685 1.286869,-0.96685 z"/>
 <path style="fill:#ee1536" d="m 24.115381,21.160506 4.239165,0.374044 0.332484,7.106837 -8.31209,-1.620858 c -0.194178,-1.903189 -2.138437,-3.839994 3.740441,-5.860023 z"/>
 <path style="fill:#9a1652" d="m 24.837916,23.906431 c -1.087233,0.0184 -1.180736,1.023896 -1.16385,1.940237 -0.161578,-0.219031 -0.566899,-0.961002 -0.844592,-1.238931 -0.673273,-0.673846 -1.602606,-0.924633 -2.246666,-0.406961 -0.644061,0.517672 -0.682446,1.539237 -0.08569,2.281695 0.59676,0.742457 1.421065,0.441281 2.246668,0.406961 0.567346,-0.02358 0.995172,-0.163038 1.10337,-0.486056 0.01867,0.02683 0.03802,0.0532 0.058,0.07909 0.596769,0.742421 3.389723,1.880512 4.033765,1.362851 0.593501,-0.420853 3.274186,-3.666184 -0.870924,-2.529217 -0.431858,-0.968877 -1.333977,-1.400665 -2.230088,-1.409674 z"/>
 <path style="fill:#ffd5d5" d="m 27.36551,21.595 3.016829,-0.618 c 0.07196,1.11538 0.05533,2.777684 0.224093,3.53462 0.366422,1.643478 0.562502,2.870987 0.983877,3.556405 1.288182,2.095384 2.954034,0.605548 4.056693,2.422419 -0.120583,0.106079 -0.278235,0.605039 -0.903996,0.598905 -1.00523,-0.0099 -0.775219,-0.794157 -1.489878,-1.076793 -0.437653,-0.173086 -1.329375,-0.0767 -1.438568,0.198157 -0.02452,0.06172 1.228532,-0.01383 1.580562,0.263289 0.406832,0.320257 0.0855,1.031922 -0.16785,1.177014 -1.03155,0.154522 -1.077241,-0.331722 -1.515976,-0.357219 -0.382008,-0.0222 -0.581937,0.281167 -0.922022,0.330286 -0.120281,0.01737 -0.898024,-0.805844 -1.029481,-0.809074 -0.131962,-0.0032 0.232995,0.472807 0.175598,0.560582 -0.135344,0.206976 -0.714226,-0.09328 -1.03189,-0.116151 0,0 0.374395,-1.584095 0.207837,-2.272614 -0.121758,-0.503321 -0.666359,-0.975582 -0.78345,-1.480009 -0.121549,-0.523628 0.222664,-0.827557 0.0036,-1.318433 -0.728161,-1.631452 -0.832169,-1.34087 -1.174894,-2.453122 C 26.981972,23.16856 27.365536,21.595 27.365536,21.595 Z"/>
 <path style="opacity:0.2" d="m 19.009001,17.344396 0.427211,-4.398716 c 1.066067,-0.883898 2.207334,-1.097539 3.588652,-1.272122 l 2.307807,1.413982 7.636561,0.29357 -0.802192,6.697814 -1.563949,2.323098 c -1.286187,0.02983 -5.953393,1.387252 -8.961826,-0.08947 -1.536025,-0.753973 -2.758734,-3.22934 -2.632264,-4.968159 z"/>
 <path style="fill:#ffbebe" d="m 19.009001,16.344396 0.427211,-4.398716 c 1.066067,-0.883898 2.207334,-1.097539 3.588652,-1.272122 l 2.307807,1.413982 7.636561,0.29357 -0.802192,6.697814 -1.563949,2.323098 c -1.286187,0.02983 -5.953393,1.387252 -8.961826,-0.08947 -1.536025,-0.753973 -2.758734,-3.22934 -2.632264,-4.968159 z"/>
 <path style="fill:#2e2e2e" d="m 20.147221,13.771383 c 0.04917,0.495019 -0.0571,1.012142 0.511668,1.432933 l -0.362141,0.08361 c -0.356011,-0.194951 -0.719977,-0.444423 -1.153653,-1.183031 -0.04238,0.45139 0.172747,1.154499 0.530123,1.420504 0.111609,0.08307 -0.49325,0.103427 -0.352537,0.206211 l 0.830684,-0.149338 0.815051,-0.07702 c -0.139261,1.217983 -0.166813,2.916572 1.193578,2.976975 1.210633,-0.189233 1.266458,-1.24831 1.478883,-2.957578 -0.728349,-0.324645 -1.465262,-0.611087 -2.303163,-0.442742 -0.617556,-0.348274 -1.04669,-0.771949 -1.188493,-1.310524 z m 6.470891,2.263616 c -0.128731,0.0033 -0.261018,0.01765 -0.396604,0.04237 -0.503855,-0.03424 -1.025932,-0.01236 -1.5173,0.106213 0.542537,0.06709 0.963096,0.08496 1.326154,0.129 -0.260995,1.203951 -0.505086,3.008366 0.892452,3.198251 0.896034,-0.05777 1.216563,-0.638586 1.468149,-1.606187 0.219906,0.02254 0.406825,0.03927 0.450652,0.03032 0.436499,-0.08913 1.373271,-0.634501 1.526528,-1.061188 -0.706216,0.48464 -1.141389,0.55616 -1.54649,0.581535 l -0.275136,-0.215816 c 0.0013,-0.006 0.0028,-0.01279 0.0041,-0.01883 0.673907,-0.145996 0.798173,-0.652438 1.050076,-1.075123 -0.146352,0.131497 -0.502984,0.749611 -0.99584,0.512609 -0.02952,-0.0142 -0.06356,-0.02898 -0.0968,-0.04369 -0.5889,-0.321803 -1.192575,-0.597184 -1.889987,-0.579463 z"/>
 <path style="fill:#ef3d61" d="m 22.603651,19.57662 c 0.699006,0.06851 1.434062,-0.04324 2.111396,0.133624 0.642339,0.16907 0.513793,0.310178 0.35081,0.564491 0,0 -0.483358,0.450955 -0.710565,0.597149 -0.362862,0.257671 -0.586218,0.193106 -0.842305,-0.101751 -0.347423,-0.400081 -0.610779,-0.778104 -0.909336,-1.193513 z"/>
 <path style="fill:#6d0f0a" d="m 28.272322,2.9999992 c 0.245018,1.2315121 0.461423,2.3289605 0.374004,3.4496597 0.02412,-0.014442 0.04575,-0.029021 0.06911,-0.043502 -0.02257,0.018349 -0.04555,0.033783 -0.06911,0.043502 -1.047553,-0.5296605 -1.640425,-2.4028261 -5.147936,-2.387154 -2.703522,0.01208 -4.386936,2.6027314 -5.51984,4.2364296 -0.759563,1.7998875 -2.215673,5.6041105 -1.978387,7.3992635 1.937565,-1.755668 4.525833,-2.833142 6.335704,-3.646781 -0.5258,2.519216 0.316056,2.303119 0.578373,3.246099 0.600918,-1.209119 1.225491,-2.11074 1.936382,-1.890208 -0.661058,0.795631 -0.946565,1.767409 -0.618062,3.002845 1.003048,-0.95666 1.716104,-2.219193 3.245309,-2.228772 0.811151,1.579474 1.44245,3.126246 3.423379,4.918406 -0.496149,0.194973 -1.041302,0.120427 -1.32692,1.473322 -0.877323,0.274442 -0.747513,0.800667 -0.777869,1.28685 -0.17546,0.299132 -0.160689,0.542211 1.242355,1.503983 0.749894,0.514045 2.801017,-1.397981 2.0914,-1.385055 -1.207751,-1.174136 1.191293,-2.437092 0.952339,-2.438522 -0.207576,-0.08367 -0.762279,-0.125142 -0.717685,-0.202168 0.457868,-0.790852 1.125579,-1.261105 1.896149,-0.408507 1.197131,1.324569 -1.226554,2.934557 -1.226554,2.934557 0,0 0.761058,0.748365 1.845098,0.79183 1.584329,0.06352 3.763962,-1.232656 3.763962,-1.232656 -0.822292,-0.331342 -1.370899,-0.799708 -1.309582,-1.572855 0.964854,-1.8593 2.084684,-3.539585 1.660047,-7.002143 -0.373779,-2.244353 -1.502207,-7.062737 -6.617969,-7.7034505 -0.605791,-0.00267 -1.095069,0.09177 -1.523703,0.2367194 -0.231543,0.0783 0.100143,-1.436137 0.01469,-1.2244618 -0.102252,0.2532834 -0.63233,0.7924693 -1.009023,1.0376476 C 30.183651,4.273188 29.362627,3.4254284 28.272322,2.9999992 Z"/>
 <path style="fill:#c42d06" d="m 21.588817,4.5338717 c -1.631519,0.8243284 -2.771962,2.5561796 -3.610298,3.7650975 -0.03698,0.087635 -0.08184,0.1997432 -0.121843,0.2964171 2.037878,0.2993559 4.411553,0.6994677 6.099145,1.6351887 l 1.596583,-0.939532 0.235212,2.138195 1.858539,-1.041603 0.957046,1.592817 1.498657,-1.642722 c 0.643681,0.311986 0.755716,1.288521 0.980397,2.124258 3.335895,-1.725698 5.262854,-1.604511 7.747706,-0.475321 C 38.627986,11.044227 38.293771,9.892489 37.695705,8.7980192 36.365369,9.517476 32.480961,11.209809 30.154022,7.9432316 L 29.257051,9.781807 29.055736,8.0952063 27.272527,9.915515 27.923363,8.0586717 c -2.994366,-0.057727 -9.292672,0.7412151 -6.334546,-3.5248 z"/>
 <path style="fill:#ee1536" d="m 20.250258,33.420839 c 0.146844,1.259005 -0.143064,2.030564 -1.82866,3.615759 l -0.511026,-0.236359 c 0.57218,-0.572425 1.116192,-1.144851 1.1449,-1.717276 -0.940861,0.833639 -1.606289,1.804995 -5.330205,1.247107 -0.860392,-0.199261 -1.624238,-0.571475 -1.839855,-1.093123 -0.260603,-0.925497 2.468568,-2.128054 4.21171,-2.281882 2.125385,-0.187559 3.390543,0.342528 4.153136,0.465774 z"/>
 <path style="fill:#ee1536" d="m 22.452962,34.917015 c 5.461779,-2.61455 5.989917,6.328156 4.031364,7.106837 -1.560282,0.620336 -6.222113,-3.090781 -4.031364,-7.106837 z"/>
 <path style="fill:#ffbebe" d="m 19.084018,26.734196 c 0.671053,-1.236765 12.013177,-0.764788 9.642024,4.880165 -1.593444,2.647663 -5.846023,1.169881 -6.790787,-0.201396 l -1.727321,2.301345 c -0.951036,1.201573 -5.396764,1.244828 -5.708314,0.295767 0.03183,-0.786584 1.331198,-1.296303 2.518783,-1.674975 0.395389,-0.06644 0.502113,-0.239748 0.647442,-0.558698 0.660198,-1.449665 1.24995,-2.952051 1.418173,-5.042208 z"/>
 <path style="fill:#ffd5d5" d="m 21.864234,29.839756 c 1.368261,-0.519733 2.602445,0.286743 3.164712,2.425294 0.0048,1.024406 0.25173,1.968132 -0.172135,3.135441 0.575043,0.408606 0.985328,0.926367 1.060866,1.792641 0.09602,1.101166 -0.273185,1.910226 -0.84156,2.057644 -0.616414,-0.09443 -1.154046,0.229245 -1.919958,-1.210675 l -0.237877,-1.269889 c -0.725988,-0.70826 -1.451977,-1.095511 -2.177965,-2.375635 -1.301172,-2.420633 -0.645493,-3.787578 1.123917,-4.554821 z"/>
 <path style="opacity:0.1;fill:#8b9cbe" d="m 28.271484,3 c 0.07644,0.3841871 0.132668,0.7387528 0.195313,1.1015625 0.983689,0.4477156 1.695207,1.2317375 1.390625,2.09375 C 30.179859,5.9854478 30.598398,5.569856 30.78125,5.2929688 30.721934,4.9936655 30.938437,3.9817099 30.867188,4.1582031 30.764935,4.4114865 30.234115,4.9501342 29.857422,5.1953125 30.18309,4.2736228 29.361789,3.4254292 28.271484,3 Z M 23.498047,4.0625 C 20.794525,4.07458 19.11142,6.6651299 17.978516,8.2988281 17.398677,9.1194 16.910236,9.6981 16.392578,9.585938 15.841389,9.466507 15.581374,8.8741539 15.251953,7.5351562 c -0.300642,1.381748 -1.612726,2.4696858 -1.306641,4.1757818 0.203925,-1.174148 1.06916,-2.084325 1.306641,-3.1757818 0.329421,1.3389978 0.589436,1.9313518 1.140625,2.0507818 0.517658,0.112163 1.006099,-0.466538 1.585938,-1.28711 C 19.11142,7.66513 20.794525,5.07458 23.498047,5.0625 c 3.507511,-0.015672 4.100884,1.8570581 5.148437,2.3867188 0.02604,-0.3338529 0.02073,-0.66617 0,-1 -4.63e-4,-2.344e-4 -0.0015,2.349e-4 -0.002,0 C 27.597843,5.918605 27.004006,4.0468348 23.498047,4.0625 Z m 8.878906,1.0820312 c -0.605791,-0.00267 -1.096755,0.091379 -1.525391,0.2363282 -0.0038,0.00129 -0.0043,-0.0063 -0.0078,-0.00586 -0.03185,0.2670835 -0.178971,1.0690234 0.0078,1.0058594 0.428636,-0.1449494 0.9196,-0.2389982 1.525391,-0.2363282 5.115762,0.6407136 6.243409,5.4587714 6.617188,7.7031244 0.03972,0.3239 0.05232,0.617799 0.06641,0.91211 0.02856,-0.578447 0.02094,-1.199915 -0.06641,-1.91211 C 38.620362,10.603303 37.492715,5.7852448 32.376953,5.1445312 Z M 22.335938,13.050781 c -0.04536,0.02039 -0.102116,0.04565 -0.148438,0.06641 -0.01851,0.288219 -0.01243,0.525642 0.01953,0.71289 0.02716,-0.227741 0.06677,-0.48158 0.128907,-0.779297 z m 2.251953,1.326172 c -0.108615,0.0074 -0.213352,0.04691 -0.31836,0.101563 -0.14901,0.446979 -0.216568,0.931128 -0.132812,1.480468 0.08884,-0.584128 0.337937,-1.097146 0.714843,-1.550781 -0.08886,-0.02757 -0.177355,-0.03712 -0.263671,-0.03125 z m -9.470703,0.5625 c -0.64021,0.685095 -0.967927,1.095253 -1.144532,1.382813 -0.147469,0.240119 -0.203009,0.872268 -0.125,1.445312 0.02757,-0.187141 0.06729,-0.351353 0.125,-0.445312 0.220502,-0.359036 0.496542,-0.750518 1.591797,-1.867188 -0.166925,-0.178612 -0.309221,-0.34764 -0.447265,-0.515625 z m -1.212891,4.136719 c -1.885383,0.995111 -0.649593,3.609361 -1.675781,4.537109 -0.710305,0.498474 -1.334251,1.064708 -3.1171879,0.705078 0.2436008,0.421182 0.5230736,0.783502 0.8222657,1.101563 1.1702102,0.05555 1.7083272,-0.394983 2.2949222,-0.806641 1.116054,-1.008993 -0.453388,-4.018383 2.238281,-4.763672 -0.28463,-0.04461 -0.464137,-0.3686 -0.5625,-0.773437 z m 16.273437,0.316406 c -0.241515,0.17155 -0.456876,0.485096 -0.603515,1.179688 -0.877323,0.274442 -0.746988,0.800926 -0.777344,1.287109 -0.08205,0.139876 -0.100567,0.2786 0.03711,0.480469 0.04154,-0.307063 0.176269,-0.59116 0.740235,-0.767578 0.285618,-1.352895 0.830023,-1.277684 1.326172,-1.472657 -0.265513,-0.24021 -0.502001,-0.474981 -0.722658,-0.707031 z m 7.306641,1.167969 c -0.05069,0.09584 -0.100296,0.192529 -0.150391,0.289062 -0.05421,0.683523 0.382128,1.122055 1.048828,1.445313 0.09427,-0.415448 0.158513,-0.738879 0.259766,-0.871094 -0.53196,-0.214353 -0.946649,-0.488414 -1.158203,-0.863281 z m -2.740234,6.957031 c -0.112943,0.03138 -0.2175,0.06925 -0.337891,0.0957 0.279576,0.433498 0.405024,1.020707 0.445312,1.69336 0.03609,-0.668138 0.0074,-1.271933 -0.107421,-1.789063 z m -20.875,0.8125 c -0.502017,0.969313 -0.415943,1.520255 -0.3125,1.765625 0.08656,-0.323428 0.246987,-0.71403 0.550781,-1.197265 z"/>
</svg>
