<svg xmlns="http://www.w3.org/2000/svg" width="48" height="48" version="1">
 <rect style="opacity:0.2" width="40" height="40" x="4" y="5" rx="12" ry="12"/>
 <path style="fill:#b2bfd9" d="M 4.1777344,13.9 C 4.0690269,14.551604 4,15.3166 4,16 v 16 c 0,6.648 5.352,12 12,12 h 16 c 6.648,0 12,-5.352 12,-12 V 16 c 0,-0.6834 -0.06903,-1.448396 -0.177734,-2.1 z"/>
 <path style="opacity:0.1" d="m 14.6776,19.000004 0.329657,8.291362 c 0.02205,0.606332 0.122619,1.101683 0.299035,1.485694 0.176415,0.384009 0.495257,0.668357 0.958349,0.850257 0.463091,0.181899 1.140686,0.272588 2.03379,0.272588 0.352832,-2e-6 0.668288,-0.03143 0.943938,-0.09207 0.286676,-0.06063 0.557035,-0.195762 0.810633,-0.40798 0.264625,-0.222321 0.540172,-0.565923 0.826847,-1.030778 0.396936,0.525488 0.882188,0.9493 1.455539,1.272678 0.57335,0.31327 1.134819,0.469356 1.686118,0.469356 0.292482,0 0.56278,-0.06521 0.819641,-0.169691 l 0.257601,6.450041 c 0.02205,0.606332 0.120818,1.101684 0.297232,1.485694 0.176416,0.384011 0.49706,0.668358 0.960151,0.850257 C 26.819222,38.909311 27.496816,39 28.389921,39 h 1.504176 c 0.970286,0 1.743261,-0.07154 2.316611,-0.213016 0.573351,-0.151582 1.003133,-0.343437 1.289809,-0.575864 0.286676,-0.232428 0.473832,-0.479201 0.56204,-0.741944 0.0882,-0.262744 0.133304,-0.505181 0.133304,-0.727503 0,-0.778126 -0.348378,-1.547346 -1.043015,-2.305262 -0.683612,-0.768021 -1.669676,-1.632267 -2.959715,-2.592292 0.352832,-0.222321 0.73233,-0.439467 1.140292,-0.651683 0.418987,-0.222322 0.942348,-0.475236 1.570828,-0.758192 0.610096,-0.279582 1.409584,-0.638508 2.350838,-1.056052 0.128343,0.125395 0.280388,0.228525 0.461161,0.308693 0.352832,0.141477 0.832896,0.213016 1.439325,0.213016 0.882079,-1e-6 1.577035,-0.227623 2.08423,-0.682373 C 39.747001,28.752676 40,28.050656 40,27.110841 c 0,-0.303167 -0.0433,-0.657246 -0.131503,-1.061467 -0.08821,-0.404221 -0.199148,-0.808885 -0.33146,-1.213106 -0.132311,-0.414327 -0.263998,-0.787558 -0.39631,-1.12104 l -1.340248,0.454915 c 0.242571,0.576015 0.457462,1.155913 0.644905,1.742034 0.198467,0.586121 0.297231,1.066658 0.297231,1.440563 0,0.525488 -0.14206,0.873427 -0.428734,1.045221 -0.286676,0.171794 -0.667976,0.258146 -1.142094,0.258146 -0.430013,0 -0.754042,-0.03577 -0.974561,-0.106508 -0.209494,-0.07074 -0.353354,-0.165763 -0.430537,-0.28703 -0.06616,-0.131372 -0.09908,-0.268306 -0.09908,-0.409784 0,-0.171794 0.01556,-0.384603 0.04864,-0.637241 0.03308,-0.262744 0.07299,-0.524332 0.117092,-0.787075 0.05512,-0.262744 0.09842,-0.486031 0.131502,-0.66793 l -1.257384,-0.211211 c -0.117812,0.726392 -0.231255,1.286463 -0.338664,1.707735 l -0.389107,-0.778048 c -1.035941,0.493131 -1.937091,0.948688 -2.77417,1.388212 -9.6e-5,-0.0054 -0.0036,-0.009 -0.0036,-0.01444 0,-0.282955 0.0433,-0.601267 0.131503,-0.954959 0.0882,-0.353695 0.166224,-0.661528 0.232382,-0.924271 l -1.241171,-0.317719 c -0.176416,0.727598 -0.33065,1.292682 -0.462963,1.696904 -0.13231,0.404222 -0.276172,0.701577 -0.430536,0.893583 -0.143338,0.1819 -0.323506,0.299685 -0.544024,0.350211 -0.22052,0.04043 -0.508243,0.05957 -0.861074,0.05957 -6.85e-4,-1e-6 -0.0011,0 -0.0018,0 -0.286675,0 -0.546663,-0.04011 -0.778208,-0.12095 -0.220519,-0.09095 -0.435411,-0.272325 -0.644904,-0.545175 -0.198468,-0.272849 -0.423732,-0.692327 -0.67733,-1.258237 -0.275649,-0.606331 -0.540824,-1.082533 -0.79442,-1.426121 -0.242574,-0.353693 -0.505945,-0.600467 -0.792621,-0.741944 -0.286676,-0.151583 -0.612507,-0.227458 -0.976363,-0.227458 -0.264624,0 -0.56272,0.0654 -0.893499,0.196769 -0.319753,0.131372 -0.661144,0.369473 -1.025001,0.713061 -0.352831,0.343588 -0.706398,0.83894 -1.059229,1.485693 -0.264623,0.485066 -0.484701,0.868775 -0.661116,1.151729 -0.16539,0.27285 -0.342173,0.46904 -0.529614,0.590306 -0.176416,0.121266 -0.419042,0.182327 -0.72777,0.182327 -0.628481,0 -1.091184,-0.05058 -1.388885,-0.151638 -0.286676,-0.101055 -0.473832,-0.282433 -0.56204,-0.545176 -0.07718,-0.27285 -0.127461,-0.656558 -0.149517,-1.151729 L 16.03226,19 Z m 20.31088,1.061467 c -0.231545,0 -0.429075,0.07587 -0.594464,0.227458 -0.154364,0.151582 -0.232382,0.328623 -0.232382,0.530734 0,0.20211 0.07802,0.379151 0.232382,0.530734 0.165389,0.141476 0.362919,0.21121 0.594464,0.21121 0.22052,0 0.409478,-0.06973 0.563841,-0.21121 0.165389,-0.151583 0.246793,-0.328625 0.246793,-0.530734 0,-0.202111 -0.08141,-0.379152 -0.246793,-0.530734 C 35.397958,20.137346 35.209,20.061471 34.98848,20.061471 Z m -1.124078,1.668021 c -0.231547,0 -0.429076,0.07587 -0.594464,0.227458 -0.154365,0.151582 -0.232382,0.328623 -0.232382,0.530733 0,0.20211 0.07802,0.377346 0.232382,0.528929 0.165388,0.141476 0.362917,0.213016 0.594464,0.213016 0.22052,0 0.407675,-0.07154 0.56204,-0.213016 0.165389,-0.151583 0.248593,-0.326819 0.248593,-0.528929 0,-0.20211 -0.0832,-0.379151 -0.248593,-0.530733 -0.154365,-0.151583 -0.34152,-0.227458 -0.56204,-0.227458 z m 2.249959,0 c -0.231547,0 -0.430877,0.07587 -0.596266,0.227458 -0.154364,0.151582 -0.23058,0.328623 -0.23058,0.530733 0,0.20211 0.07622,0.377346 0.23058,0.528929 0.165389,0.141476 0.364719,0.213016 0.596266,0.213016 0.22052,0 0.407675,-0.07154 0.56204,-0.213016 0.165389,-0.151583 0.248593,-0.326819 0.248593,-0.528929 0,-0.20211 -0.0832,-0.379151 -0.248593,-0.530733 -0.154365,-0.151583 -0.34152,-0.227458 -0.56204,-0.227458 z m -24.897267,2.95514 -1.206944,0.561423 c 0.297702,0.49517 0.528152,0.908506 0.693543,1.241989 0.165389,0.333483 0.281515,0.632644 0.347672,0.895388 0.06616,0.262744 0.09908,0.534809 0.09908,0.817763 0,0.444644 -0.114325,0.914704 -0.345871,1.409875 -0.220518,0.485065 -0.634741,0.950789 -1.2411699,1.395432 C 8.9680014,31.451145 8.113624,31.834854 7,32.158231 l 0.4791746,1.151729 c 0.3418055,-0.08084 0.7282926,-0.211638 1.1583057,-0.393538 0.4410393,-0.181899 0.8760078,-0.415663 1.3060207,-0.698619 0.441039,-0.282955 0.843086,-0.626558 1.206944,-1.030778 0.374883,-0.394117 0.672979,-0.847557 0.893499,-1.36294 0.231544,-0.515382 0.347672,-1.092749 0.347672,-1.729398 0,-0.444643 -0.09358,-0.959145 -0.281021,-1.545265 -0.176415,-0.586121 -0.474511,-1.20793 -0.893498,-1.86479 z m 12.044217,0.864699 c 0.253598,0 0.473676,0.09502 0.661117,0.28703 0.187442,0.181899 0.352049,0.42 0.495387,0.713061 0.143338,0.29306 0.282013,0.590416 0.414324,0.893582 0.10939,0.250644 0.153761,0.467854 0.145914,0.657099 h -0.210764 l 0.01801,0.472967 c -0.177593,0.20297 -0.434109,0.310497 -0.78001,0.310497 -0.363858,0 -0.778079,-0.130794 -1.24117,-0.393537 -0.463092,-0.272849 -0.8807,-0.698468 -1.255582,-1.274483 0.352832,-0.636649 0.671674,-1.070939 0.958349,-1.303367 0.286676,-0.232427 0.55185,-0.352743 0.794421,-0.362849 z m 11.044437,1.924362 c -0.09757,0.321422 -0.204826,0.581358 -0.326056,0.743749 -0.132311,0.192005 -0.302106,0.312321 -0.5116,0.362849 -0.209494,0.05053 -0.479856,0.07582 -0.810634,0.07582 -0.232996,0 -0.418919,-0.01806 -0.590862,-0.04333 0.700731,-0.362778 1.359738,-0.710028 2.239152,-1.139091 z m -3.561386,1.814243 c 0.07805,0.09459 0.161973,0.180342 0.259403,0.247314 0.146963,0.09428 0.303109,0.160929 0.464764,0.214821 -0.05561,0.02552 -0.147656,0.06908 -0.201758,0.09387 -0.937209,0.434538 -1.625177,0.868829 -2.066216,1.303367 -0.121291,0.111161 -0.209683,0.267245 -0.264807,0.469356 -0.05513,0.20211 -0.08286,0.419255 -0.08286,0.651684 0,0.09095 0.131687,0.238361 0.39631,0.440472 0.264624,0.202111 0.600828,0.448884 1.00879,0.741944 0.40796,0.293061 0.816996,0.632327 1.224957,1.016338 0.595403,0.545699 0.987077,0.990467 1.174518,1.334055 0.198468,0.343588 0.297232,0.632272 0.297232,0.864699 0,0.131372 -0.03292,0.262166 -0.09908,0.393537 -0.05513,0.121266 -0.176442,0.237247 -0.363884,0.348407 -0.176416,0.101056 -0.457151,0.187408 -0.84306,0.258146 -0.385909,0.06063 -0.898895,0.09026 -1.538403,0.09026 h -1.55462 c -0.628481,0 -1.092987,-0.05058 -1.390687,-0.151639 -0.286676,-0.101055 -0.473832,-0.282432 -0.56204,-0.545176 -0.07718,-0.272848 -0.12566,-0.656558 -0.147716,-1.151728 l -0.273811,-6.448232 c 0.143727,0.102546 0.304611,0.190467 0.486381,0.258147 0.363857,0.121266 0.760718,0.182326 1.190731,0.182327 6.38e-4,0 0.0012,0 0.0018,0 0.0066,0 0.0115,-0.0018 0.01801,-0.0018 l 0.495386,0.687788 c 0.647101,-0.36946 1.447984,-0.806886 2.370654,-1.297951 z m -10.860692,2.496615 -0.859271,0.938713 0.479174,0.395342 c -0.782844,0.666965 -1.333939,1.303587 -1.653693,1.90992 -0.308727,0.596227 -0.462961,1.095915 -0.462961,1.500135 -10e-7,0.818549 0.268558,1.425543 0.808832,1.819659 0.540271,0.38401 1.219668,0.575864 2.035591,0.575864 0.562325,0 1.030216,-0.08635 1.405098,-0.258146 0.374884,-0.181899 0.667794,-0.409522 0.877287,-0.682372 0.209494,-0.282954 0.358541,-0.571638 0.446749,-0.864699 0.0882,-0.29306 0.131502,-0.554647 0.131502,-0.787074 0,-0.596226 -0.149047,-1.163117 -0.446748,-1.69871 -0.297702,-0.535593 -0.689376,-1.039617 -1.174518,-1.514577 -0.485145,-0.47496 -1.013691,-0.919728 -1.587042,-1.334055 z m 0.412523,1.940608 c 0.463092,0.3638 0.811469,0.696925 1.043016,1.000091 0.231544,0.293059 0.38578,0.565123 0.462962,0.817763 0.07718,0.252637 0.115289,0.495075 0.115289,0.727503 0,0.424432 -0.142059,0.768034 -0.428734,1.030777 -0.286676,0.252638 -0.706085,0.379096 -1.257384,0.379096 -0.441038,0 -0.810165,-0.105502 -1.107866,-0.317718 -0.286675,-0.212217 -0.430536,-0.530527 -0.430536,-0.95496 0,-0.363799 0.136872,-0.789417 0.412522,-1.274482 0.286675,-0.485067 0.683535,-0.95332 1.190731,-1.40807 z"/>
 <path style="fill:#df711b" d="M 16 4 C 10.0354 4 5.126514 8.312917 4.1777344 14 L 43.822266 14 C 42.873486 8.312917 37.9646 4 32 4 L 16 4 z"/>
 <path style="fill:#8b9cbe;opacity:0.2" d="M 16 4 C 9.352 4 4 9.352 4 16 L 4 17 C 4 10.352 9.352 5 16 5 L 32 5 C 38.648 5 44 10.352 44 17 L 44 16 C 44 9.352 38.648 4 32 4 L 16 4 z"/>
 <path style="fill:#4f4f4f" d="m 14.6776,18.000004 0.329657,8.291362 c 0.02205,0.606332 0.122619,1.101683 0.299035,1.485694 0.176415,0.384009 0.495257,0.668357 0.958349,0.850257 0.463091,0.181899 1.140686,0.272588 2.03379,0.272588 0.352832,-2e-6 0.668288,-0.03143 0.943938,-0.09207 0.286676,-0.06063 0.557035,-0.195762 0.810633,-0.40798 0.264625,-0.222321 0.540172,-0.565923 0.826847,-1.030778 0.396936,0.525488 0.882188,0.9493 1.455539,1.272678 0.57335,0.31327 1.134819,0.469356 1.686118,0.469356 0.292482,0 0.56278,-0.06521 0.819641,-0.169691 l 0.257601,6.450041 c 0.02205,0.606332 0.120818,1.101684 0.297232,1.485694 0.176416,0.384011 0.49706,0.668358 0.960151,0.850257 C 26.819222,37.909311 27.496816,38 28.389921,38 h 1.504176 c 0.970286,0 1.743261,-0.07154 2.316611,-0.213016 0.573351,-0.151582 1.003133,-0.343437 1.289809,-0.575864 0.286676,-0.232428 0.473832,-0.479201 0.56204,-0.741944 0.0882,-0.262744 0.133304,-0.505181 0.133304,-0.727503 0,-0.778126 -0.348378,-1.547346 -1.043015,-2.305262 -0.683612,-0.768021 -1.669676,-1.632267 -2.959715,-2.592292 0.352832,-0.222321 0.73233,-0.439467 1.140292,-0.651683 0.418987,-0.222322 0.942348,-0.475236 1.570828,-0.758192 0.610096,-0.279582 1.409584,-0.638508 2.350838,-1.056052 0.128343,0.125395 0.280388,0.228525 0.461161,0.308693 0.352832,0.141477 0.832896,0.213016 1.439325,0.213016 0.882079,-1e-6 1.577035,-0.227623 2.08423,-0.682373 C 39.747001,27.752676 40,27.050656 40,26.110841 c 0,-0.303167 -0.0433,-0.657246 -0.131503,-1.061467 -0.08821,-0.404221 -0.199148,-0.808885 -0.33146,-1.213106 -0.132311,-0.414327 -0.263998,-0.787558 -0.39631,-1.12104 l -1.340248,0.454915 c 0.242571,0.576015 0.457462,1.155913 0.644905,1.742034 0.198467,0.586121 0.297231,1.066658 0.297231,1.440563 0,0.525488 -0.14206,0.873427 -0.428734,1.045221 -0.286676,0.171794 -0.667976,0.258146 -1.142094,0.258146 -0.430013,0 -0.754042,-0.03577 -0.974561,-0.106508 -0.209494,-0.07074 -0.353354,-0.165763 -0.430537,-0.28703 -0.06616,-0.131372 -0.09908,-0.268306 -0.09908,-0.409784 0,-0.171794 0.01556,-0.384603 0.04864,-0.637241 0.03308,-0.262744 0.07299,-0.524332 0.117092,-0.787075 0.05512,-0.262744 0.09842,-0.486031 0.131502,-0.66793 l -1.257384,-0.211211 c -0.117812,0.726392 -0.231255,1.286463 -0.338664,1.707735 l -0.389107,-0.778048 c -1.035941,0.493131 -1.937091,0.948688 -2.77417,1.388212 -9.6e-5,-0.0054 -0.0036,-0.009 -0.0036,-0.01444 0,-0.282955 0.0433,-0.601267 0.131503,-0.954959 0.0882,-0.353695 0.166224,-0.661528 0.232382,-0.924271 l -1.241171,-0.317719 c -0.176416,0.727598 -0.33065,1.292682 -0.462963,1.696904 -0.13231,0.404222 -0.276172,0.701577 -0.430536,0.893583 -0.143338,0.1819 -0.323506,0.299685 -0.544024,0.350211 -0.22052,0.04043 -0.508243,0.05957 -0.861074,0.05957 -6.85e-4,-1e-6 -0.0011,0 -0.0018,0 -0.286675,0 -0.546663,-0.04011 -0.778208,-0.12095 -0.220519,-0.09095 -0.435411,-0.272325 -0.644904,-0.545175 -0.198468,-0.272849 -0.423732,-0.692327 -0.67733,-1.258237 -0.275649,-0.606331 -0.540824,-1.082533 -0.79442,-1.426121 -0.242574,-0.353693 -0.505945,-0.600467 -0.792621,-0.741944 -0.286676,-0.151583 -0.612507,-0.227458 -0.976363,-0.227458 -0.264624,0 -0.56272,0.0654 -0.893499,0.196769 -0.319753,0.131372 -0.661144,0.369473 -1.025001,0.713061 -0.352831,0.343588 -0.706398,0.83894 -1.059229,1.485693 -0.264623,0.485066 -0.484701,0.868775 -0.661116,1.151729 -0.16539,0.27285 -0.342173,0.46904 -0.529614,0.590306 -0.176416,0.121266 -0.419042,0.182327 -0.72777,0.182327 -0.628481,0 -1.091184,-0.05058 -1.388885,-0.151638 -0.286676,-0.101055 -0.473832,-0.282433 -0.56204,-0.545176 -0.07718,-0.27285 -0.127461,-0.656558 -0.149517,-1.151729 L 16.03226,18 Z m 20.31088,1.061467 c -0.231545,0 -0.429075,0.07587 -0.594464,0.227458 -0.154364,0.151582 -0.232382,0.328623 -0.232382,0.530734 0,0.20211 0.07802,0.379151 0.232382,0.530734 0.165389,0.141476 0.362919,0.21121 0.594464,0.21121 0.22052,0 0.409478,-0.06973 0.563841,-0.21121 0.165389,-0.151583 0.246793,-0.328625 0.246793,-0.530734 0,-0.202111 -0.08141,-0.379152 -0.246793,-0.530734 C 35.397958,19.137346 35.209,19.061471 34.98848,19.061471 Z m -1.124078,1.668021 c -0.231547,0 -0.429076,0.07587 -0.594464,0.227458 -0.154365,0.151582 -0.232382,0.328623 -0.232382,0.530733 0,0.20211 0.07802,0.377346 0.232382,0.528929 0.165388,0.141476 0.362917,0.213016 0.594464,0.213016 0.22052,0 0.407675,-0.07154 0.56204,-0.213016 0.165389,-0.151583 0.248593,-0.326819 0.248593,-0.528929 0,-0.20211 -0.0832,-0.379151 -0.248593,-0.530733 -0.154365,-0.151583 -0.34152,-0.227458 -0.56204,-0.227458 z m 2.249959,0 c -0.231547,0 -0.430877,0.07587 -0.596266,0.227458 -0.154364,0.151582 -0.23058,0.328623 -0.23058,0.530733 0,0.20211 0.07622,0.377346 0.23058,0.528929 0.165389,0.141476 0.364719,0.213016 0.596266,0.213016 0.22052,0 0.407675,-0.07154 0.56204,-0.213016 0.165389,-0.151583 0.248593,-0.326819 0.248593,-0.528929 0,-0.20211 -0.0832,-0.379151 -0.248593,-0.530733 -0.154365,-0.151583 -0.34152,-0.227458 -0.56204,-0.227458 z m -24.897267,2.95514 -1.206944,0.561423 c 0.297702,0.49517 0.528152,0.908506 0.693543,1.241989 0.165389,0.333483 0.281515,0.632644 0.347672,0.895388 0.06616,0.262744 0.09908,0.534809 0.09908,0.817763 0,0.444644 -0.114325,0.914704 -0.345871,1.409875 -0.220518,0.485065 -0.634741,0.950789 -1.2411699,1.395432 C 8.9680014,30.451145 8.113624,30.834854 7,31.158231 l 0.4791746,1.151729 c 0.3418055,-0.08084 0.7282926,-0.211638 1.1583057,-0.393538 0.4410393,-0.181899 0.8760078,-0.415663 1.3060207,-0.698619 0.441039,-0.282955 0.843086,-0.626558 1.206944,-1.030778 0.374883,-0.394117 0.672979,-0.847557 0.893499,-1.36294 0.231544,-0.515382 0.347672,-1.092749 0.347672,-1.729398 0,-0.444643 -0.09358,-0.959145 -0.281021,-1.545265 -0.176415,-0.586121 -0.474511,-1.20793 -0.893498,-1.86479 z m 12.044217,0.864699 c 0.253598,0 0.473676,0.09502 0.661117,0.28703 0.187442,0.181899 0.352049,0.42 0.495387,0.713061 0.143338,0.29306 0.282013,0.590416 0.414324,0.893582 0.10939,0.250644 0.153761,0.467854 0.145914,0.657099 h -0.210764 l 0.01801,0.472967 c -0.177593,0.20297 -0.434109,0.310497 -0.78001,0.310497 -0.363858,0 -0.778079,-0.130794 -1.24117,-0.393537 -0.463092,-0.272849 -0.8807,-0.698468 -1.255582,-1.274483 0.352832,-0.636649 0.671674,-1.070939 0.958349,-1.303367 0.286676,-0.232427 0.55185,-0.352743 0.794421,-0.362849 z m 11.044437,1.924362 c -0.09757,0.321422 -0.204826,0.581358 -0.326056,0.743749 -0.132311,0.192005 -0.302106,0.312321 -0.5116,0.362849 -0.209494,0.05053 -0.479856,0.07582 -0.810634,0.07582 -0.232996,0 -0.418919,-0.01806 -0.590862,-0.04333 0.700731,-0.362778 1.359738,-0.710028 2.239152,-1.139091 z m -3.561386,1.814243 c 0.07805,0.09459 0.161973,0.180342 0.259403,0.247314 0.146963,0.09428 0.303109,0.160929 0.464764,0.214821 -0.05561,0.02552 -0.147656,0.06908 -0.201758,0.09387 -0.937209,0.434538 -1.625177,0.868829 -2.066216,1.303367 -0.121291,0.111161 -0.209683,0.267245 -0.264807,0.469356 -0.05513,0.20211 -0.08286,0.419255 -0.08286,0.651684 0,0.09095 0.131687,0.238361 0.39631,0.440472 0.264624,0.202111 0.600828,0.448884 1.00879,0.741944 0.40796,0.293061 0.816996,0.632327 1.224957,1.016338 0.595403,0.545699 0.987077,0.990467 1.174518,1.334055 0.198468,0.343588 0.297232,0.632272 0.297232,0.864699 0,0.131372 -0.03292,0.262166 -0.09908,0.393537 -0.05513,0.121266 -0.176442,0.237247 -0.363884,0.348407 -0.176416,0.101056 -0.457151,0.187408 -0.84306,0.258146 -0.385909,0.06063 -0.898895,0.09026 -1.538403,0.09026 h -1.55462 c -0.628481,0 -1.092987,-0.05058 -1.390687,-0.151639 -0.286676,-0.101055 -0.473832,-0.282432 -0.56204,-0.545176 -0.07718,-0.272848 -0.12566,-0.656558 -0.147716,-1.151728 l -0.273811,-6.448232 c 0.143727,0.102546 0.304611,0.190467 0.486381,0.258147 0.363857,0.121266 0.760718,0.182326 1.190731,0.182327 6.38e-4,0 0.0012,0 0.0018,0 0.0066,0 0.0115,-0.0018 0.01801,-0.0018 l 0.495386,0.687788 c 0.647101,-0.36946 1.447984,-0.806886 2.370654,-1.297951 z m -10.860692,2.496615 -0.859271,0.938713 0.479174,0.395342 c -0.782844,0.666965 -1.333939,1.303587 -1.653693,1.90992 -0.308727,0.596227 -0.462961,1.095915 -0.462961,1.500135 -10e-7,0.818549 0.268558,1.425543 0.808832,1.819659 0.540271,0.38401 1.219668,0.575864 2.035591,0.575864 0.562325,0 1.030216,-0.08635 1.405098,-0.258146 0.374884,-0.181899 0.667794,-0.409522 0.877287,-0.682372 0.209494,-0.282954 0.358541,-0.571638 0.446749,-0.864699 0.0882,-0.29306 0.131502,-0.554647 0.131502,-0.787074 0,-0.596226 -0.149047,-1.163117 -0.446748,-1.69871 -0.297702,-0.535593 -0.689376,-1.039617 -1.174518,-1.514577 -0.485145,-0.47496 -1.013691,-0.919728 -1.587042,-1.334055 z m 0.412523,1.940608 c 0.463092,0.3638 0.811469,0.696925 1.043016,1.000091 0.231544,0.293059 0.38578,0.565123 0.462962,0.817763 0.07718,0.252637 0.115289,0.495075 0.115289,0.727503 0,0.424432 -0.142059,0.768034 -0.428734,1.030777 -0.286676,0.252638 -0.706085,0.379096 -1.257384,0.379096 -0.441038,0 -0.810165,-0.105502 -1.107866,-0.317718 -0.286675,-0.212217 -0.430536,-0.530527 -0.430536,-0.95496 0,-0.363799 0.136872,-0.789417 0.412522,-1.274482 0.286675,-0.485067 0.683535,-0.95332 1.190731,-1.40807 z"/>
 <path style="opacity:0.1" d="M 4.390625 14 C 4.3065633 14.328553 4.2342793 14.661064 4.1777344 15 L 43.822266 15 C 43.765721 14.661064 43.693437 14.328553 43.609375 14 L 4.390625 14 z"/>
</svg>
