<svg xmlns="http://www.w3.org/2000/svg" width="48" height="48" version="1.1">
 <rect style="opacity:0.2" width="44" height="38" x="2" y="6" rx="4" ry="4"/>
 <rect style="fill:#4f4f4f" width="44" height="38" x="2" y="5" rx="4" ry="4"/>
 <path style="opacity:0.2;fill-rule:evenodd" d="m 24,14 c -14,0 -14,1 -14,11 0,9 1.558594,9 1.558594,9 C 9.0005358,44 11.505076,33.947018 9,44 L 24,36 C 38.000142,36 38,35 38,25 38,15 38,14 24,14 Z m -7,9 c 1.104569,0 2,0.895431 2,2 0,1.104569 -0.895431,2 -2,2 -1.104569,0 -2,-0.895431 -2,-2 0,-1.104569 0.895431,-2 2,-2 z m 7,0 c 1.104569,0 2,0.895431 2,2 0,1.104569 -0.895431,2 -2,2 -1.104569,0 -2,-0.895431 -2,-2 0,-1.104569 0.895431,-2 2,-2 z m 7,0 c 1.104569,0 2,0.895431 2,2 0,1.104569 -0.895431,2 -2,2 -1.104569,0 -2,-0.895431 -2,-2 0,-1.104569 0.895431,-2 2,-2 z"/>
 <path style="fill:#8b9cbe;fill-rule:evenodd" d="m 24,13 c -14,0 -14,1 -14,11 0,9 1.558594,9 1.558594,9 C 9.0005358,43 11.505076,32.947018 9,43 L 24,35 C 38.000142,35 38,34 38,24 38,14 38,13 24,13 Z m -7,9 c 1.104569,0 2,0.895431 2,2 0,1.104569 -0.895431,2 -2,2 -1.104569,0 -2,-0.895431 -2,-2 0,-1.104569 0.895431,-2 2,-2 z m 7,0 c 1.104569,0 2,0.895431 2,2 0,1.104569 -0.895431,2 -2,2 -1.104569,0 -2,-0.895431 -2,-2 0,-1.104569 0.895431,-2 2,-2 z m 7,0 c 1.104569,0 2,0.895431 2,2 0,1.104569 -0.895431,2 -2,2 -1.104569,0 -2,-0.895431 -2,-2 0,-1.104569 0.895431,-2 2,-2 z"/>
 <path style="opacity:0.1;fill:#8b9cbe" d="M 6,5 C 3.784,5 2,6.784 2,9 v 1 C 2,7.784 3.784,6 6,6 h 36 c 2.216,0 4,1.784 4,4 V 9 C 46,6.784 44.216,5 42,5 Z"/>
</svg>
