<svg xmlns="http://www.w3.org/2000/svg" width="48" height="48" version="1">
 <path style="opacity:0.2" d="m 24.107422,5.0000003 v 0.00195 A 4.565676,4.5478844 0 0 0 21.716797,5.6074201 L 8.2832031,13.333955 A 4.565676,4.5478844 0 0 0 6,17.273396 v 15.45307 a 4.565676,4.5478844 0 0 0 2.2832031,3.937487 l 13.4335939,7.726536 a 4.565676,4.5478844 0 0 0 4.566405,0 L 39.716797,36.663953 A 4.565676,4.5478844 0 0 0 42,32.726466 V 17.273396 A 4.565676,4.5478844 0 0 0 39.716797,13.333955 L 26.283202,5.6074201 a 4.565676,4.5478844 0 0 0 -2.17578,-0.6074198 z"/>
 <path style="fill:#1c5b6c" d="m 24.107422,3.9999999 v 0.00195 A 4.565676,4.5478844 0 0 0 21.716797,4.6074197 L 8.2832031,12.333955 A 4.565676,4.5478844 0 0 0 6,16.273396 v 15.45307 a 4.565676,4.5478844 0 0 0 2.2832031,3.937487 l 13.4335939,7.726536 a 4.565676,4.5478844 0 0 0 4.566405,0 L 39.716797,35.663953 A 4.565676,4.5478844 0 0 0 42,31.726466 V 16.273396 A 4.565676,4.5478844 0 0 0 39.716797,12.333955 L 26.283202,4.6074197 a 4.565676,4.5478844 0 0 0 -2.17578,-0.6074198 z"/>
 <path style="opacity:0.2" d="m 17.486328,17.001953 c -0.274306,0.006 -0.539875,0.02332 -0.699219,0.04687 -0.764087,0.113089 -1.408746,0.346421 -1.951171,0.707031 -1.012128,0.672871 -1.602239,1.724384 -1.796876,3.199219 -0.05141,0.38965 -0.05153,1.18408 0,1.556641 0.233744,1.690975 1.141957,3.163621 2.710938,4.394531 0.652935,0.512236 1.443888,0.992885 2.177734,1.322266 0.04699,0.02109 0.04584,0.02191 0.08398,0.03906 C 18.008751,28.346733 18,28.415241 18,28.5 c 0,3.406211 2.419873,6.195686 5.498047,6.472656 9.39e-4,8.27e-4 0.0071,0.01943 0.0078,0.01953 0.0021,-0.0084 0.0038,-0.01125 0.0059,-0.01953 C 23.673268,34.986796 23.83509,35 24,35 c 0.272949,0 0.53945,-0.02621 0.802734,-0.06445 0.0076,0.0029 0.01866,0.01864 0.02539,0.01758 0.914179,-0.146027 1.744858,-0.497964 2.455078,-1.015625 0.037,-0.02627 0.07491,-0.051 0.111328,-0.07813 0.05401,-0.04146 0.105738,-0.08543 0.158203,-0.128906 C 29.034863,32.546959 30,30.647715 30,28.5 c 0,-0.08405 -0.0088,-0.151932 -0.01172,-0.230469 0.03953,-0.01778 0.03869,-0.01893 0.08789,-0.04102 0.544731,-0.244501 1.219199,-0.63028 1.726562,-0.986328 1.517604,-1.065015 2.515557,-2.347329 2.957032,-3.796876 0.17576,-0.577106 0.240776,-1.038569 0.240234,-1.707031 -0.002,-2.658005 -1.35176,-4.329299 -3.785156,-4.689453 -0.318689,-0.04713 -1.065773,-0.06513 -1.445313,-0.0332 -1.93615,0.162927 -3.913333,1.016952 -5.443359,2.349609 -0.205326,0.17884 -0.27192,0.22461 -0.324219,0.22461 -0.05233,0 -0.120847,-0.04573 -0.326172,-0.22461 -1.530026,-1.332657 -3.507209,-2.186683 -5.443359,-2.349609 -0.18977,-0.01597 -0.471788,-0.01965 -0.746094,-0.01367 z m 1.820313,4.976563 c 0.144453,-0.0061 0.281124,0.0049 0.367187,0.0293 0.156579,0.0444 0.519342,0.228109 0.748047,0.38086 0.647814,0.432669 1.026474,1.112423 1.167969,2.097656 0.04793,0.333902 0.04169,0.421873 -0.02344,0.486328 -0.0385,0.03811 -0.0768,0.05469 -0.136718,0.05469 -0.0765,0 -0.101701,-0.01678 -0.271485,-0.1875 -0.473873,-0.476408 -1.009699,-0.840305 -1.611328,-1.095703 -0.137193,-0.05828 -0.4403,-0.168174 -0.673828,-0.242188 -0.463441,-0.146881 -0.674753,-0.243031 -0.804688,-0.367187 -0.112636,-0.107625 -0.152343,-0.188894 -0.152343,-0.310547 0,-0.300746 0.398722,-0.621125 0.976562,-0.785157 0.116098,-0.03294 0.269612,-0.05444 0.414063,-0.06055 z m 9.521484,0.0098 c 0.191196,0.02397 0.396251,0.07855 0.578125,0.154297 0.277839,0.115754 0.545335,0.324826 0.634766,0.496094 0.05356,0.102628 0.05726,0.261797 0.0098,0.351562 -0.104353,0.196995 -0.337133,0.326341 -0.921875,0.511719 -0.664332,0.210617 -1.012509,0.368364 -1.474609,0.669922 -0.274184,0.178921 -0.558105,0.414183 -0.810547,0.667969 -0.169831,0.170732 -0.195007,0.185547 -0.271484,0.185547 -0.05991,0 -0.100164,-0.01462 -0.138672,-0.05273 -0.06513,-0.06446 -0.06746,-0.152426 -0.01953,-0.486328 0.141495,-0.985233 0.520155,-1.664988 1.167969,-2.097656 0.228705,-0.152751 0.591477,-0.336461 0.748047,-0.38086 0.129564,-0.03674 0.306851,-0.04349 0.498047,-0.01953 z m -6.207031,5.125 c 0.130262,0 0.16995,0.04551 0.242187,0.279297 0.282212,0.91339 0.192338,1.774647 -0.251953,2.435547 -0.20295,0.301892 -0.324968,0.374304 -0.457031,0.271484 -0.175884,-0.136938 -0.266526,-0.817596 -0.181641,-1.376953 0.06123,-0.40381 0.245974,-1.015784 0.419922,-1.390625 0.08756,-0.188682 0.119125,-0.21875 0.228516,-0.21875 z m 2.755859,0.002 c 0.04715,-0.0012 0.09579,0.0064 0.121094,0.02539 0.08161,0.06082 0.331549,0.708365 0.445312,1.152344 0.157716,0.615492 0.160331,1.242128 0.0078,1.646484 -0.07864,0.208205 -0.216611,0.260795 -0.359375,0.136719 h -0.002 c -0.04301,-0.0373 -0.134126,-0.148318 -0.201172,-0.248047 -0.444292,-0.6609 -0.532212,-1.522157 -0.25,-2.435547 0.04465,-0.144469 0.08204,-0.223065 0.115234,-0.246094 0.02929,-0.02032 0.0759,-0.03004 0.123047,-0.03125 z"/>
 <path style="fill:#8b9cbe" d="M 17.486328 16.001953 C 17.212022 16.007953 16.946453 16.025278 16.787109 16.048828 C 16.023022 16.161917 15.378363 16.395249 14.835938 16.755859 C 13.82381 17.42873 13.233699 18.480243 13.039062 19.955078 C 12.987653 20.344728 12.987534 21.139158 13.039062 21.511719 C 13.272806 23.202694 14.181019 24.67534 15.75 25.90625 C 16.402935 26.418486 17.193888 26.899135 17.927734 27.228516 C 17.974724 27.249607 17.973576 27.250429 18.011719 27.267578 C 18.008751 27.346733 18 27.415241 18 27.5 C 18 30.906211 20.419873 33.695686 23.498047 33.972656 C 23.498986 33.973483 23.505146 33.992089 23.505859 33.992188 C 23.507948 33.983767 23.509626 33.980935 23.511719 33.972656 C 23.673268 33.986796 23.83509 34 24 34 C 24.272949 34 24.53945 33.97379 24.802734 33.935547 C 24.810289 33.938443 24.821393 33.954185 24.828125 33.953125 C 25.742304 33.807098 26.572983 33.455161 27.283203 32.9375 C 27.320198 32.911232 27.358111 32.886498 27.394531 32.859375 C 27.448538 32.817919 27.500269 32.773947 27.552734 32.730469 C 29.034863 31.546959 30 29.647715 30 27.5 C 30 27.415952 29.9912 27.348068 29.988281 27.269531 C 30.027811 27.251753 30.026967 27.250603 30.076172 27.228516 C 30.620903 26.984015 31.295371 26.598236 31.802734 26.242188 C 33.320338 25.177173 34.318291 23.894859 34.759766 22.445312 C 34.935526 21.868206 35.000542 21.406743 35 20.738281 C 34.998 18.080276 33.64824 16.408982 31.214844 16.048828 C 30.896155 16.001698 30.149071 15.983695 29.769531 16.015625 C 27.833381 16.178552 25.856198 17.032577 24.326172 18.365234 C 24.120846 18.544074 24.054252 18.589844 24.001953 18.589844 C 23.949623 18.589844 23.881106 18.544114 23.675781 18.365234 C 22.145755 17.032577 20.168572 16.178551 18.232422 16.015625 C 18.042652 15.999655 17.760634 15.995973 17.486328 16.001953 z M 19.306641 20.978516 C 19.451094 20.972416 19.587765 20.983413 19.673828 21.007812 C 19.830407 21.052213 20.19317 21.235921 20.421875 21.388672 C 21.069689 21.821341 21.448349 22.501095 21.589844 23.486328 C 21.637774 23.82023 21.631536 23.908201 21.566406 23.972656 C 21.527906 24.010766 21.489605 24.027344 21.429688 24.027344 C 21.353188 24.027344 21.327987 24.010564 21.158203 23.839844 C 20.68433 23.363436 20.148504 22.999539 19.546875 22.744141 C 19.409682 22.685861 19.106575 22.575967 18.873047 22.501953 C 18.409606 22.355072 18.198294 22.258922 18.068359 22.134766 C 17.955723 22.027141 17.916016 21.945872 17.916016 21.824219 C 17.916016 21.523473 18.314738 21.203094 18.892578 21.039062 C 19.008676 21.006123 19.16219 20.984626 19.306641 20.978516 z M 28.828125 20.988281 C 29.019321 21.012251 29.224376 21.066831 29.40625 21.142578 C 29.684089 21.258332 29.951585 21.467404 30.041016 21.638672 C 30.094576 21.7413 30.098271 21.900469 30.050781 21.990234 C 29.946428 22.187229 29.713648 22.316575 29.128906 22.501953 C 28.464574 22.71257 28.116397 22.870317 27.654297 23.171875 C 27.380113 23.350796 27.096192 23.586058 26.84375 23.839844 C 26.673919 24.010576 26.648743 24.025391 26.572266 24.025391 C 26.512356 24.025391 26.472102 24.010766 26.433594 23.972656 C 26.368464 23.908196 26.366132 23.82023 26.414062 23.486328 C 26.555557 22.501095 26.934217 21.82134 27.582031 21.388672 C 27.810736 21.235921 28.173508 21.052211 28.330078 21.007812 C 28.459642 20.971072 28.636929 20.964321 28.828125 20.988281 z M 22.621094 26.113281 C 22.751356 26.113281 22.791044 26.158791 22.863281 26.392578 C 23.145493 27.305968 23.055619 28.167225 22.611328 28.828125 C 22.408378 29.130017 22.28636 29.202429 22.154297 29.099609 C 21.978413 28.962671 21.887771 28.282013 21.972656 27.722656 C 22.033886 27.318846 22.21863 26.706872 22.392578 26.332031 C 22.480138 26.143349 22.511703 26.113281 22.621094 26.113281 z M 25.376953 26.115234 C 25.424103 26.114034 25.472743 26.121635 25.498047 26.140625 C 25.579657 26.201445 25.829596 26.84899 25.943359 27.292969 C 26.101075 27.908461 26.10369 28.535097 25.951172 28.939453 C 25.872532 29.147658 25.734561 29.200248 25.591797 29.076172 L 25.589844 29.076172 C 25.546834 29.038872 25.455718 28.927854 25.388672 28.828125 C 24.94438 28.167225 24.85646 27.305968 25.138672 26.392578 C 25.183322 26.248109 25.220712 26.169513 25.253906 26.146484 C 25.283196 26.126164 25.329806 26.116444 25.376953 26.115234 z"/>
 <path style="fill:#8b9cbe;opacity:0.1" d="M 24.107422 4 L 24.107422 4.0019531 A 4.565676 4.5478844 0 0 0 21.716797 4.6074219 L 8.2832031 12.333984 A 4.565676 4.5478844 0 0 0 6 16.273438 L 6 17.273438 A 4.565676 4.5478844 0 0 1 8.2832031 13.333984 L 21.716797 5.6074219 A 4.565676 4.5478844 0 0 1 24.107422 5.0019531 L 24.107422 5 A 4.565676 4.5478844 0 0 1 26.283203 5.6074219 L 39.716797 13.333984 A 4.565676 4.5478844 0 0 1 42 17.273438 L 42 16.273438 A 4.565676 4.5478844 0 0 0 39.716797 12.333984 L 26.283203 4.6074219 A 4.565676 4.5478844 0 0 0 24.107422 4 z"/>
</svg>
