<svg xmlns="http://www.w3.org/2000/svg" width="48" height="48" version="1">
 <path style="fill:#558b2f" d="M 10.462891 4.5 C 9.9625314 4.5004028 9.4994055 4.7719716 9.2382812 5.2324219 L 4.7011719 13.232422 C 4.4338824 13.703871 4.4338824 14.296129 4.7011719 14.767578 L 9.2382812 22.767578 C 9.4994055 23.228028 9.9625314 23.499597 10.462891 23.5 A 0.50005 0.50005 0 0 1 10.462891 24.5 C 9.9625314 24.500403 9.4994055 24.771972 9.2382812 25.232422 L 4.7011719 33.232422 C 4.4338824 33.703871 4.4338824 34.296129 4.7011719 34.767578 L 9.2382812 42.767578 C 9.4994055 43.228028 9.9625314 43.499597 10.462891 43.5 L 19.537109 43.5 C 20.037467 43.499597 20.500558 43.228073 20.761719 42.767578 L 25.298828 34.767578 C 25.517628 34.381655 25.547493 33.912741 25.398438 33.486328 A 0.50005 0.50005 0 0 1 25.871094 32.822266 L 26.033203 32.822266 A 0.50005 0.50005 0 0 1 26.412109 32.996094 C 26.686608 33.315738 27.061153 33.499677 27.462891 33.5 L 36.537109 33.5 C 37.037467 33.499597 37.500595 33.228028 37.761719 32.767578 L 42.298828 24.767578 C 42.566117 24.296129 42.566117 23.703871 42.298828 23.232422 L 37.761719 15.232422 C 37.500595 14.771972 37.037467 14.500403 36.537109 14.5 L 27.462891 14.5 C 26.962533 14.500403 26.499405 14.771972 26.238281 15.232422 A 0.50005 0.50005 0 0 0 26.236328 15.234375 L 26.228516 15.248047 A 0.50005 0.50005 0 0 1 25.794922 15.5 L 25.740234 15.5 A 0.50005 0.50005 0 0 1 25.302734 14.755859 C 25.564815 14.285478 25.563994 13.700128 25.298828 13.232422 L 20.761719 5.2324219 C 20.500595 4.7719724 20.037467 4.5004028 19.537109 4.5 L 10.462891 4.5 z M 25.503906 14.5 L 25.369141 14.738281 C 25.425941 14.638389 25.532812 14.58968 25.601562 14.5 L 25.503906 14.5 z"/>
 <path style="opacity:0.2" d="m 10.463246,25 c -0.6831602,5.5e-4 -1.3150801,0.37571 -1.6613664,0.98633 l -4.5358141,8 c -0.354754,0.62572 -0.354754,1.40162 0,2.02734 l 4.5358141,8 C 9.1481659,44.62429 9.7800858,44.99945 10.463246,45 h 9.073508 c 0.68316,-5.5e-4 1.31508,-0.37571 1.661366,-0.98633 l 4.535815,-8 c 0.354753,-0.62572 0.354753,-1.40162 0,-2.02734 l -4.535815,-8 C 20.851834,25.37571 20.219914,25.00055 19.536754,25 Z"/>
 <path style="fill:#5d9733" d="m 10.463246,24 c -0.6831602,5.5e-4 -1.3150801,0.37571 -1.6613664,0.98633 l -4.5358141,8 c -0.354754,0.62572 -0.354754,1.40162 0,2.02734 l 4.5358141,8 C 9.1481659,43.62429 9.7800858,43.99945 10.463246,44 h 9.073508 c 0.68316,-5.5e-4 1.31508,-0.37571 1.661366,-0.98633 l 4.535815,-8 c 0.354753,-0.62572 0.354753,-1.40162 0,-2.02734 l -4.535815,-8 C 20.851834,24.37571 20.219914,24.00055 19.536754,24 Z"/>
 <path style="opacity:0.2" d="m 27.463246,15 c -0.68316,5.5e-4 -1.31508,0.37571 -1.661366,0.98633 l -4.535815,8 c -0.354754,0.62572 -0.354754,1.40162 0,2.02734 l 4.535815,8 c 0.346286,0.61062 0.978206,0.98578 1.661366,0.98633 h 9.073508 c 0.68316,-5.5e-4 1.31508,-0.37571 1.661366,-0.98633 l 4.535815,-8 c 0.354753,-0.62572 0.354753,-1.40162 0,-2.02734 l -4.535815,-8 C 37.851834,15.37571 37.219914,15.00055 36.536754,15 Z"/>
 <path style="fill:#7cb342" d="m 27.463246,14 c -0.68316,5.5e-4 -1.31508,0.37571 -1.661366,0.98633 l -4.535815,8 c -0.354754,0.62572 -0.354754,1.40162 0,2.02734 l 4.535815,8 c 0.346286,0.61062 0.978206,0.98578 1.661366,0.98633 h 9.073508 c 0.68316,-5.5e-4 1.31508,-0.37571 1.661366,-0.98633 l 4.535815,-8 c 0.354753,-0.62572 0.354753,-1.40162 0,-2.02734 l -4.535815,-8 C 37.851834,14.37571 37.219914,14.00055 36.536754,14 Z"/>
 <path style="opacity:0.1;fill:#8b9cbe" d="m 9.2050781,24.5 c -0.1548116,0.139762 -0.2951553,0.297319 -0.4023437,0.486328 l -4.5371094,8 C 4.0031967,33.449203 3.9386201,33.994349 4.0644531,34.5 4.1087228,34.322105 4.1732993,34.149173 4.265625,33.986328 l 4.5371094,-8 C 9.1490207,25.375708 9.7797296,25.00055 10.462891,25 9.9911934,24.99962 9.550763,24.811758 9.2050781,24.5 Z m 11.5898439,0 c -0.345685,0.311758 -0.786116,0.49962 -1.257813,0.5 0.68316,5.5e-4 1.313871,0.375708 1.660157,0.986328 0.06836,0.02734 0.06836,0.02734 0.06836,0.02734 C 21.045743,25.625841 20.97856,25.1817 21.03125,24.75 c -0.0731,-0.08958 -0.151445,-0.173369 -0.236328,-0.25 z"/>
 <path style="opacity:0.2;fill:#8b9cbe" d="m 27.462891,14 c -0.590639,4.76e-4 -1.129872,0.293097 -1.492188,0.763672 0.04927,0.427408 -0.01878,0.866278 -0.236328,1.25 l 0.06836,-0.02734 C 26.14902,15.375708 26.779731,15.00055 27.462891,15 h 9.074218 c 0.68316,5.5e-4 1.313871,0.375708 1.660157,0.986328 l 4.537109,8 c 0.09233,0.162845 0.156902,0.335777 0.201172,0.513672 0.125833,-0.505651 0.06126,-1.050797 -0.201172,-1.513672 l -4.537109,-8 C 37.85098,14.375708 37.220269,14.00055 36.537109,14 Z"/>
 <path style="opacity:0.2" d="M 10.463246,5 C 9.7800858,5.00055 9.1481659,5.37571 8.8018796,5.98633 l -4.5358141,8 c -0.354754,0.62572 -0.354754,1.40162 0,2.02734 l 4.5358141,8 C 9.1481659,24.62429 9.7800858,24.99945 10.463246,25 h 9.073508 c 0.68316,-5.5e-4 1.31508,-0.37571 1.661366,-0.98633 l 4.535815,-8 c 0.354753,-0.62572 0.354753,-1.40162 0,-2.02734 l -4.535815,-8 C 20.851834,5.37571 20.219914,5.00055 19.536754,5 Z"/>
 <path style="fill:#9ccc65" d="M 10.463246,4 C 9.7800858,4.00055 9.1481659,4.37571 8.8018796,4.98633 l -4.5358141,8 c -0.354754,0.62572 -0.354754,1.40162 0,2.02734 l 4.5358141,8 C 9.1481659,23.62429 9.7800858,23.99945 10.463246,24 h 9.073508 c 0.68316,-5.5e-4 1.31508,-0.37571 1.661366,-0.98633 l 4.535815,-8 c 0.354753,-0.62572 0.354753,-1.40162 0,-2.02734 l -4.535815,-8 C 20.851834,4.37571 20.219914,4.00055 19.536754,4 Z"/>
 <path style="opacity:0.2;fill:#8b9cbe" d="M 10.462891 4 C 9.7797304 4.00055 9.1490207 4.3757081 8.8027344 4.9863281 L 4.265625 12.986328 C 4.0031967 13.449203 3.9386201 13.994349 4.0644531 14.5 C 4.1087228 14.322105 4.1732993 14.149173 4.265625 13.986328 L 8.8027344 5.9863281 C 9.1490207 5.3757081 9.7797304 5.00055 10.462891 5 L 19.537109 5 C 20.220269 5.00055 20.85098 5.3757081 21.197266 5.9863281 L 25.734375 13.986328 C 25.8267 14.149173 25.891277 14.322105 25.935547 14.5 C 26.06138 13.994349 25.996803 13.449203 25.734375 12.986328 L 21.197266 4.9863281 C 20.85098 4.3757081 20.220269 4.00055 19.537109 4 L 10.462891 4 z"/>
</svg>
