<svg xmlns="http://www.w3.org/2000/svg" width="48" height="48" version="1">
 <circle style="opacity:0.2" cx="24" cy="25" r="20"/>
 <circle style="fill:#388ebb" cx="24" cy="24" r="20"/>
 <path style="opacity:0.1;fill:#8b9cbe" d="M 24,4 C 12.921,4 4.002,12.92 4.002,24 c 0,0.16772 -0.004,0.33329 0,0.5 C 4.2662,13.654 13.089,5 24,5 c 10.911,0 19.734,8.6536 19.998,19.5 0.004,-0.16671 0,-0.33228 0,-0.5 C 43.998,12.92 35.079,4 24,4 Z"/>
 <path style="opacity:0.2" d="m 13.193359,18 c -0.711382,0 -1.254843,0.20021 -1.630859,0.599609 -0.376016,0.388889 -0.564453,0.939582 -0.564453,1.654297 v 2.744141 c 0,0.430931 -0.08154,0.760956 -0.244141,0.992187 -0.162602,0.231231 -0.581079,0.400755 -0.8554685,0.50586 C 9.6342098,24.590691 9.3353658,24.641834 9,24.652344 v 0.662109 c 0.3353658,0.02102 0.6342098,0.07923 0.8984375,0.173828 0.2743895,0.09459 0.6928665,0.264119 0.8554685,0.50586 0.162603,0.231231 0.244141,0.561256 0.244141,0.992187 v 2.744141 c 0,0.693694 0.188437,1.244388 0.564453,1.654297 C 11.938516,31.794676 12.481977,32 13.193359,32 H 14 v -0.677734 h -0.457031 c -0.447155,0 -0.767849,-0.141999 -0.960938,-0.425782 -0.193094,-0.283784 -0.289062,-0.694432 -0.289062,-1.230468 v -2.726563 c 0,-0.515015 -0.13772,-0.941007 -0.41211,-1.277344 -0.274391,-0.346847 -0.700026,-0.572629 -1.279297,-0.677734 v -0.01563 c 0.558944,-0.0946 0.97912,-0.310147 1.263672,-0.646484 0.284553,-0.346847 0.427735,-0.777954 0.427735,-1.292969 v -2.695313 c 0,-0.546546 0.09597,-0.957195 0.289062,-1.230468 0.193089,-0.283784 0.513783,-0.425782 0.960938,-0.425782 H 14 V 18 Z M 34,18 v 0.677734 h 0.457031 c 0.447155,0 0.767849,0.141998 0.960938,0.425782 0.193089,0.273273 0.289062,0.683922 0.289062,1.230468 v 2.695313 c 0,0.515015 0.143182,0.946122 0.427735,1.292969 0.284552,0.336337 0.704729,0.551889 1.263672,0.646484 v 0.01563 c -0.579268,0.105105 -1.004906,0.330887 -1.279297,0.677734 -0.27439,0.336337 -0.41211,0.762329 -0.41211,1.277344 v 2.726563 c 0,0.536036 -0.09597,0.946684 -0.289062,1.230468 -0.193089,0.283783 -0.513783,0.425782 -0.960938,0.425782 H 34 V 32 h 0.806641 c 0.711382,0 1.254843,-0.205324 1.630859,-0.615234 0.376016,-0.409909 0.564453,-0.960603 0.564453,-1.654297 v -2.744141 c 0,-0.430931 0.08154,-0.760956 0.244141,-0.992187 0.162602,-0.241741 0.58108,-0.411265 0.855468,-0.50586 0.26423,-0.09459 0.563072,-0.152807 0.898438,-0.173828 v -0.662109 c -0.335366,-0.01051 -0.63421,-0.06165 -0.898438,-0.15625 -0.274388,-0.105105 -0.692866,-0.274629 -0.855468,-0.50586 -0.162602,-0.231231 -0.244141,-0.561256 -0.244141,-0.992187 v -2.744141 c 0,-0.714715 -0.188437,-1.265408 -0.564453,-1.654297 C 36.061484,18.20021 35.518023,18 34.806641,18 Z m -9.416016,1 c -1.442005,0 -2.652801,0.255317 -3.630859,0.767578 -0.978055,0.501363 -1.717182,1.204744 -2.21875,2.109375 C 18.245348,22.770686 18,23.807263 18,24.984375 c 0,1.209809 0.231364,2.267242 0.695312,3.171875 0.476491,0.893732 1.191555,1.590434 2.144532,2.091797 C 21.80536,30.749409 23.016158,31 24.470703,31 25.28575,31 26.024876,30.9402 26.689453,30.820312 27.35403,30.689522 28.373037,30.498728 29,30.248047 v -3.34375 c 0.04248,-0.873148 0.528721,-1.183889 1,-1.175781 v -0.6875 h -4 c 0,0 0.03473,0.643373 0.03711,0.6875 C 26.761516,25.759076 27,26.593958 27,26.839844 v 3.03125 c -0.263323,0.06539 -0.837224,0.115737 -1.175781,0.148437 -0.338558,0.0327 -0.689099,0.04883 -1.052735,0.04883 -1.717868,0 -2.928665,-0.436658 -3.630859,-1.308593 C 20.438431,27.876932 20,26.619252 20,24.984375 c 0,-1.634877 0.426401,-2.89451 1.103516,-3.777344 0.677117,-0.893733 1.811822,-1.339843 3.404296,-1.339843 0.61442,0 1.10316,0.108186 1.466797,0.326171 0.363636,0.207084 0.621015,0.473807 0.771485,0.800782 0.163014,0.316076 0.24414,0.642593 0.24414,0.980468 0.0035,0 0.0062,-0.0019 0.0098,-0.002 V 22 h 1 V 21.759766 19.703125 19 h -1 v 0.267578 C 26.36728,19.093145 25.568071,19 24.583984,19 Z"/>
 <path style="fill:#8b9cbe" d="m 13.193359,17 c -0.711382,0 -1.254843,0.20021 -1.630859,0.599609 -0.376016,0.388889 -0.564453,0.939582 -0.564453,1.654297 v 2.744141 c 0,0.430931 -0.08154,0.760956 -0.244141,0.992187 -0.162602,0.231231 -0.581079,0.400755 -0.8554685,0.50586 C 9.6342098,23.590691 9.3353658,23.641834 9,23.652344 v 0.662109 c 0.3353658,0.02102 0.6342098,0.07923 0.8984375,0.173828 0.2743895,0.09459 0.6928665,0.264119 0.8554685,0.50586 0.162603,0.231231 0.244141,0.561256 0.244141,0.992187 v 2.744141 c 0,0.693694 0.188437,1.244388 0.564453,1.654297 C 11.938516,30.794676 12.481977,31 13.193359,31 H 14 v -0.677734 h -0.457031 c -0.447155,0 -0.767849,-0.141999 -0.960938,-0.425782 -0.193094,-0.283784 -0.289062,-0.694432 -0.289062,-1.230468 v -2.726563 c 0,-0.515015 -0.13772,-0.941007 -0.41211,-1.277344 -0.274391,-0.346847 -0.700026,-0.572629 -1.279297,-0.677734 v -0.01563 c 0.558944,-0.0946 0.97912,-0.310147 1.263672,-0.646484 0.284553,-0.346847 0.427735,-0.777954 0.427735,-1.292969 v -2.695313 c 0,-0.546546 0.09597,-0.957195 0.289062,-1.230468 0.193089,-0.283784 0.513783,-0.425782 0.960938,-0.425782 H 14 V 17 Z M 34,17 v 0.677734 h 0.457031 c 0.447155,0 0.767849,0.141998 0.960938,0.425782 0.193089,0.273273 0.289062,0.683922 0.289062,1.230468 v 2.695313 c 0,0.515015 0.143182,0.946122 0.427735,1.292969 0.284552,0.336337 0.704729,0.551889 1.263672,0.646484 v 0.01563 c -0.579268,0.105105 -1.004906,0.330887 -1.279297,0.677734 -0.27439,0.336337 -0.41211,0.762329 -0.41211,1.277344 v 2.726563 c 0,0.536036 -0.09597,0.946684 -0.289062,1.230468 -0.193089,0.283783 -0.513783,0.425782 -0.960938,0.425782 H 34 V 31 h 0.806641 c 0.711382,0 1.254843,-0.205324 1.630859,-0.615234 0.376016,-0.409909 0.564453,-0.960603 0.564453,-1.654297 v -2.744141 c 0,-0.430931 0.08154,-0.760956 0.244141,-0.992187 0.162602,-0.241741 0.58108,-0.411265 0.855468,-0.50586 0.26423,-0.09459 0.563072,-0.152807 0.898438,-0.173828 v -0.662109 c -0.335366,-0.01051 -0.63421,-0.06165 -0.898438,-0.15625 -0.274388,-0.105105 -0.692866,-0.274629 -0.855468,-0.50586 -0.162602,-0.231231 -0.244141,-0.561256 -0.244141,-0.992187 v -2.744141 c 0,-0.714715 -0.188437,-1.265408 -0.564453,-1.654297 C 36.061484,17.20021 35.518023,17 34.806641,17 Z m -9.416016,1 c -1.442005,0 -2.652801,0.255317 -3.630859,0.767578 -0.978055,0.501363 -1.717182,1.204744 -2.21875,2.109375 C 18.245348,21.770686 18,22.807263 18,23.984375 c 0,1.209809 0.231364,2.267242 0.695312,3.171875 0.476491,0.893732 1.191555,1.590434 2.144532,2.091797 C 21.80536,29.749409 23.016158,30 24.470703,30 25.28575,30 26.024876,29.9402 26.689453,29.820312 27.35403,29.689522 28.373037,29.498728 29,29.248047 v -3.34375 c 0.04248,-0.873148 0.528721,-1.183889 1,-1.175781 v -0.6875 h -4 c 0,0 0.03473,0.643373 0.03711,0.6875 C 26.761516,24.759076 27,25.593958 27,25.839844 v 3.03125 c -0.263323,0.06539 -0.837224,0.115737 -1.175781,0.148437 -0.338558,0.0327 -0.689099,0.04883 -1.052735,0.04883 -1.717868,0 -2.928665,-0.436658 -3.630859,-1.308593 C 20.438431,26.876932 20,25.619252 20,23.984375 c 0,-1.634877 0.426401,-2.89451 1.103516,-3.777344 0.677117,-0.893733 1.811822,-1.339843 3.404296,-1.339843 0.61442,0 1.10316,0.108186 1.466797,0.326171 0.363636,0.207084 0.621015,0.473807 0.771485,0.800782 0.163014,0.316076 0.24414,0.642593 0.24414,0.980468 0.0035,0 0.0062,-0.0019 0.0098,-0.002 V 21 h 1 V 20.759766 18.703125 18 h -1 v 0.267578 C 26.36728,18.093145 25.568071,18 24.583984,18 Z"/>
</svg>
