<svg xmlns="http://www.w3.org/2000/svg" width="48" height="48" version="1.1">
 <path style="opacity:0.2" d="M 6.2307693,5 H 41.769231 C 43.553411,5 45,6.4328124 45,8.2 V 41.8 C 45,43.567188 43.553411,45 41.769231,45 H 6.2307693 C 4.4465894,45 3,43.567188 3,41.8 V 8.2 C 3,6.4328124 4.4465894,5 6.2307693,5 Z m 0,0"/>
 <path style="fill:#b2bfd9" d="M 6.2307693,4 H 41.769231 C 43.553411,4 45,5.4328124 45,7.2 V 40.8 C 45,42.567188 43.553411,44 41.769231,44 H 6.2307693 C 4.4465894,44 3,42.567188 3,40.8 V 7.2 C 3,5.4328124 4.4465894,4 6.2307693,4 Z m 0,0"/>
 <path style="fill:none;stroke:#e9a119;stroke-width:3;stroke-linejoin:round" d="M 23.5,8.8 V 44"/>
 <path style="fill:none;stroke:#e22e28;stroke-width:3" d="m 23.5,44 v -7.9 c 0,-1.9875 1.7125,-3.6 3.7,-3.6 H 31 c 1.9875,0 3.5,-1.7125 3.5,-3.7 v -9.6"/>
 <path style="fill:none;stroke:#1a5fb4;stroke-width:3;stroke-linejoin:round" d="m 23.5,44 c 0,-1.9875 -1.5125,-3.5 -3.5,-3.5 h -3.2 c -1.9875,0 -3.3,-1.7125 -3.3,-3.7 v -16 c 0,-1.9875 1.3125,-3.3 3.3,-3.3 H 20 c 1.9875,0 3.5,-1.9125 3.5,-3.9 v -2.4"/>
 <path style="opacity:0.1" d="M 23.5,7 C 21.577393,7 20,8.5773927 20,10.5 20,12.422607 21.577393,14 23.5,14 25.422607,14 27,12.422607 27,10.5 27,8.5773927 25.422607,7 23.5,7 Z m 11,9 C 32.577393,16 31,17.577393 31,19.5 31,21.422607 32.577393,23 34.5,23 36.422607,23 38,21.422607 38,19.5 38,17.577393 36.422607,16 34.5,16 Z m -21,10 C 11.577393,26 10,27.577393 10,29.5 10,31.422607 11.577393,33 13.5,33 15.422607,33 17,31.422607 17,29.5 17,27.577393 15.422607,26 13.5,26 Z"/>
 <path style="fill:#f65d5a" d="M 31,18.5 C 31,16.577393 32.577393,15 34.5,15 36.422607,15 38,16.577393 38,18.5 38,20.422607 36.422607,22 34.5,22 32.577393,22 31,20.422607 31,18.5 Z m 0,0"/>
 <path style="fill:#8b9cbe" d="M 36,18.5 C 36,19.329102 35.329102,20 34.5,20 33.670898,20 33,19.329102 33,18.5 33,17.670898 33.670898,17 34.5,17 c 0.829102,0 1.5,0.670898 1.5,1.5 z m 0,0"/>
 <path style="fill:#5292de" d="M 10,28.5 C 10,30.422607 11.577393,32 13.5,32 15.422607,32 17,30.422607 17,28.5 17,26.577393 15.422607,25 13.5,25 11.577393,25 10,26.577393 10,28.5 Z m 0,0"/>
 <path style="fill:#8b9cbe" d="M 15,28.5 C 15,29.329102 14.329102,30 13.5,30 12.670898,30 12,29.329102 12,28.5 12,27.670898 12.670898,27 13.5,27 c 0.829102,0 1.5,0.670898 1.5,1.5 z m 0,0"/>
 <path style="fill:#ffc425" d="M 20,9.5 C 20,11.422607 21.577393,13 23.5,13 25.422607,13 27,11.422607 27,9.5 27,7.5773927 25.422607,6 23.5,6 21.577393,6 20,7.5773927 20,9.5 Z m 0,0"/>
 <path style="fill:#8b9cbe" d="M 25,9.5 C 25,10.329102 24.329102,11 23.5,11 22.670898,11 22,10.329102 22,9.5 22,8.6708982 22.670898,8 23.5,8 24.329102,8 25,8.6708982 25,9.5 Z m 0,0"/>
 <path style="fill:#8b9cbe;opacity:0.2" d="M 6.2304688 4 C 4.4462888 4 3 5.4320312 3 7.1992188 L 3 8.1992188 C 3 6.4320312 4.4462888 5 6.2304688 5 L 41.769531 5 C 43.553711 5 45 6.4320312 45 8.1992188 L 45 7.1992188 C 45 5.4320311 43.553711 4 41.769531 4 L 6.2304688 4 z"/>
</svg>
