<svg xmlns="http://www.w3.org/2000/svg" height="48" width="48" version="1.1">
 <g transform="matrix(1.9999664 0 0 2 -.99988242 -1)">
  <path style="opacity:.2" d="m4.9753089 17 3 3s1.098999-2.204612 2-3c1.1175541-0.986557 4.0000001-2 4.0000001-2 1 0 0 4 0 4l4-1-2-4v-5l-4-2s-1.333333-0.6666667-2.0000001-1c-0.666667-0.3333333-2-1-2-1l-1 3 2 1 2.0000001 1s-1.0000001 4-2.0000001 5-4 2-4 2z"/>
  <path style="fill:#0037d1" d="m4.9753089 16.5 3 3s1.098999-2.204612 2-3c1.1175541-0.986557 4.0000001-2 4.0000001-2 1 0 0 4 0 4l4-1-2-4v-5l-4-2s-1.333333-0.6666667-2.0000001-1c-0.666667-0.3333333-2-1-2-1l-1 3 2 1 2.0000001 1s-1.0000001 4-2.0000001 5-4 2-4 2z"/>
  <path style="opacity:.1;fill:#8b9cbe" d="m7.9753089 4.5-1 3 0.142578 0.072266l0.857422-2.572266 2 1 2.0000001 1 4 2v-0.5l-4-2-2.0000001-1zm2.8808591 5.4414062c-0.26068 0.9689868-1.0531851 3.7309198-1.8808591 4.5585938-1 1-4 2-4 2l0.369141 0.369141c0.778382-0.279046 2.821363-1.059645 3.630859-1.869141 1-1 2.0000001-5 2.0000001-5zm5.119141 3.5585938v0.5l1.777344 3.554688 0.222656-0.05469zm-1.570312 2.384766c-0.06795 1.156397-0.429688 2.615234-0.429688 2.615234l0.119141-0.0293c0.140896-0.651012 0.343939-1.765716 0.310547-2.585937z"/>
  <path style="opacity:.2" d="m14.975309 16c3 0 3-6 3-6s-1-4-5-4c-3.0000001 0-3.0000001 5-3.0000001 5s0 5 5.0000001 5z"/>
  <path style="fill:#0849ff" d="m14.975309 15.5c3 0 3-6 3-6s-1-4-5-4c-3.0000001 0-3.0000001 5-3.0000001 5s0 5 5.0000001 5z"/>
  <path style="opacity:.2;fill:#8b9cbe" d="m12.975309 5.5c-3.0000001 0-3.0000001 5-3.0000001 5s0.01845 0.153633 0.01953 0.1875c0.0270101-0.8100942 0.2805151-4.6875 2.9804701-4.6875 3.900195 0 4.928644 3.7477265 4.978516 3.9375 0.0048-0.1442658 0.02148-0.4375 0.02148-0.4375s-1-4-5-4z"/>
  <path style="opacity:.2" d="m6.9753089 3c-3 0-3 3-3 3s0 3 2 3c3 0 3-2 3-2s1-4-2-4zm11.5 2a3.5 3.5 0 0 0 -3.5 3.5 3.5 3.5 0 0 0 3.5 3.5 3.5 3.5 0 0 0 3.5 -3.5 3.5 3.5 0 0 0 -3.5 -3.5zm-12.685547 11.113281c-0.563965 0.02686-1.189453 0.261719-1.814453 0.886719-1 1 0 3 0 3s1 2 3 1 1-4 1-4-0.944824-0.945801-2.185547-0.886719zm11.185547 0.886719c-4 0-4 3-4 3s0 3 4 3c3 0 3-3 3-3s0-3-3-3z"/>
  <path style="fill:#225cff" d="m6.9197529 20.5c2-1 1-4 1-4s-2-2-4 0c-0.944444 1 0 3 0 3s1 2 3 1z"/>
  <circle r="3.5" style="fill:#225cff" cx="18.475309" cy="8"/>
  <path style="fill:#225cff" d="m5.9753089 8.5c3 0 3-2 3-2s1-4-2-4-3 3-3 3 0 3 2 3z"/>
  <path style="fill:#225cff" d="m16.975309 16.5c-4 0-4 3-4 3s0 3 4 3c3 0 3-3 3-3s0-3-3-3z"/>
  <path style="opacity:.2;fill:#8b9cbe" d="m18.475309 4.5a3.5 3.5 0 0 0 -3.5 3.5 3.5 3.5 0 0 0 0.01172 0.2753906 3.5 3.5 0 0 1 3.48828 -3.2753906 3.5 3.5 0 0 1 3.488281 3.2246094 3.5 3.5 0 0 0 0.01172 -0.2246094 3.5 3.5 0 0 0 -3.5 -3.5z"/>
  <path style="opacity:.2;fill:#8b9cbe" d="m6.9753089 2.5c-3 0-3 3-3 3s0.01128 0.1711757 0.01953 0.3007812c0.030259-0.5091526 0.299158-2.8007812 2.98047-2.8007812 1.714441 0 2.10961 1.3003209 2.144531 2.4199219 0.068546-1.1849472-0.160939-2.9199219-2.144531-2.9199219z"/>
  <path style="opacity:.2;fill:#8b9cbe" d="m16.975309 16.5c-4 0-4 3-4 3s0.02372 0.157567 0.0332 0.25c0.06162-0.600861 0.500097-2.75 3.9668-2.75 2.599938 0 2.928374 2.149047 2.974609 2.75 0.0071-0.09247 0.02539-0.25 0.02539-0.25s0-3-2.999999-3z"/>
  <path style="opacity:.2;fill:#8b9cbe" d="m5.7331209 15.613281c-0.563964 0.02686-1.1875 0.261719-1.8125 0.886719-0.464169 0.491473-0.471358 1.223372-0.359375 1.841797-0.019594-0.483336 0.07101-0.978564 0.414063-1.341797 2-2 4 0 4 0s0.100085 0.324133 0.173828 0.775391c-0.05184-0.711542-0.228516-1.275391-0.228516-1.275391s-0.946777-0.945801-2.1875-0.886719z"/>
 </g>
</svg>
