<svg xmlns="http://www.w3.org/2000/svg" width="48" height="48" version="1">
 <path style="opacity:0.2" d="m 20,11 a 7.0007,7.0007 0 0 0 -7,7 v 5 h -2 a 7.0007,7.0007 0 0 0 -7,7 v 2 a 7.0007,7.0007 0 0 0 7,7 h 26 a 7.0007,7.0007 0 0 0 7,-7 V 23 A 7.0007,7.0007 0 0 0 37,16 H 35.705078 A 7.0007,7.0007 0 0 0 29,11 Z"/>
 <path style="fill:#b2bfd9" d="m 20,10 a 7.0007,7.0007 0 0 0 -7,7 v 5 h -2 a 7.0007,7.0007 0 0 0 -7,7 v 2 a 7.0007,7.0007 0 0 0 7,7 h 26 a 7.0007,7.0007 0 0 0 7,-7 V 22 A 7.0007,7.0007 0 0 0 37,15 H 35.705078 A 7.0007,7.0007 0 0 0 29,10 Z"/>
 <path style="fill:#ee8827" d="m 20,17 v 7 h 15 v 5 H 11 v 2 H 37 V 22 H 22 v -3 h 7 v -2 z"/>
 <path style="opacity:0.2;fill:#8b9cbe" d="M 20 10 A 7.0007 7.0007 0 0 0 13 17 L 13 18 A 7.0007 7.0007 0 0 1 20 11 L 29 11 A 7.0007 7.0007 0 0 1 35.705078 16 L 37 16 A 7.0007 7.0007 0 0 1 44 23 L 44 22 A 7.0007 7.0007 0 0 0 37 15 L 35.705078 15 A 7.0007 7.0007 0 0 0 29 10 L 20 10 z M 11 22 A 7.0007 7.0007 0 0 0 4 29 L 4 30 A 7.0007 7.0007 0 0 1 11 23 L 13 23 L 13 22 L 11 22 z"/>
</svg>
