<svg xmlns="http://www.w3.org/2000/svg" width="48" height="48" version="1">
 <path fill="#4987d7" d="m6 4c-0.554 0-1.0545 0.2225-1.416 0.584l19.416 19.416 19.416-19.416c-0.361-0.3615-0.862-0.584-1.416-0.584h-36z"/>
 <path fill="#a45390" d="m6 44c-0.554 0-1.0545-0.222-1.416-0.584l19.416-19.416 19.416 19.416c-0.361 0.362-0.862 0.584-1.416 0.584h-36z"/>
 <path fill="#6db832" d="m44 6c0-0.554-0.22248-1.0545-0.58398-1.416l-19.416 19.416 19.416 19.416c0.362-0.361 0.584-0.862 0.584-1.416v-36z"/>
 <path fill="#c2352a" d="m4 6c0-0.554 0.22248-1.0545 0.58398-1.416l19.416 19.416-19.416 19.416c-0.3615-0.361-0.584-0.862-0.584-1.416v-36z"/>
 <path fill="#fff" opacity=".2" d="m6 4c-1.108 0-2 0.892-2 2v1c0-1.108 0.892-2 2-2h36c1.108 0 2 0.892 2 2v-1c0-1.108-0.892-2-2-2h-36z"/>
 <path opacity=".2" d="m6 45c-1.108 0-2-0.892-2-2v-1c0 1.108 0.892 2 2 2h36c1.108 0 2-0.892 2-2v1c0 1.108-0.892 2-2 2h-36z"/>
 <g opacity=".2" transform="translate(0,1)">
  <path d="m14.214 30h-7.1851v-1.5747l2.5195-2.7173q0.47607-0.5127 0.86426-0.94482 0.38818-0.43213 0.6665-0.84228 0.27832-0.41016 0.43213-0.83496t0.15381-0.91553q0-0.54199-0.32959-0.84228-0.32227-0.30029-0.00fae9-0.30029-0.57861 0-1.1133 0.28564-0.53467 0.28564-1.1206 0.81299l-1.23-1.457q0.32959-0.30029 0.68848-0.57129 0.35889-0.27832 0.79102-0.49072t0.95215-0.33691q0.52002-0.13184 1.1646-0.13184 0.76904 0 1.377 0.2124 0.61523 0.2124 1.0474 0.60791 0.43213 0.38818 0.65918 0.94482 0.23438 0.55664 0.23438 1.2524 0 0.62988-0.21973 1.2085-0.21973 0.57129-0.60059 1.1279-0.38086 0.54932-0.88623 1.0986-0.49805 0.54199-1.0693 1.106l-1.2891 1.2964v0.10254h4.3652v1.9043z"/>
  <path d="m20 13.305q0-0.76904 0.08057-1.5308 0.08789-0.76172 0.30029-1.4575 0.21973-0.70312 0.58594-1.3037 0.37354-0.60058 0.9375-1.04 0.57129-0.44678 1.3623-0.6958 0.79834-0.25635 1.8604-0.25635 0.15381 0 0.33691 0.0073t0.36621 0.02197q0.19043 0.0073 0.36621 0.0293 0.17578 0.02197 0.31494 0.05127v1.8091q-0.27832-0.06592-0.59326-0.10254-0.30762-0.04395-0.62256-0.04395-0.98877 0-1.626 0.24902-0.63721 0.2417-1.0107 0.68115-0.37354 0.43945-0.53467 1.0547-0.15381 0.61523-0.19043 1.3623h0.08789q0.14648-0.26367 0.35156-0.49072 0.2124-0.23438 0.49072-0.39551 0.27832-0.16846 0.62256-0.26367 0.35156-0.09519 0.78369-0.09519 0.6958 0 1.2524 0.22705 0.55664 0.22705 0.9375 0.65918 0.38818 0.43213 0.59326 1.062 0.20508 0.62988 0.20508 1.4429 0 0.00fae9-0.24902 1.5601-0.2417 0.68848-0.6958 1.1719-0.4541 0.47608-1.0986 0.73242-0.644 0.25-1.449 0.25-0.791 0-1.48-0.278-0.688-0.286-1.201-0.865-0.505-0.578-0.798-1.457-0.286-0.886-0.286-2.095zm3.7207 2.8857q0.30029 0 0.54199-0.10986 0.24902-0.11719 0.4248-0.34424 0.18311-0.23438 0.27832-0.58594 0.10254-0.35156 0.10254-0.83496 0-0.78369-0.32959-1.2305-0.322-0.455-0.989-0.455-0.33691 0-0.61523 0.13184t-0.47607 0.34424-0.30762 0.47607q-0.10254 0.26367-0.10254 0.53467 0 0.37354 0.08789 0.74707 0.09521 0.36621 0.27832 0.6665 0.19043 0.29297 0.46142 0.47607 0.27832 0.18311 0.64453 0.18311z"/>
  <path d="m36.75 23.013q0.68848 0 1.2817 0.2124 0.59326 0.2124 1.0327 0.62256 0.43945 0.41016 0.68848 1.0254 0.24902 0.60791 0.24902 1.3989 0 0.00fae9-0.271 1.5674-0.271 0.68848-0.79834 1.1719-0.52734 0.47608-1.311 0.73242-0.777 0.256-1.788 0.256-0.402 0-0.798-0.037-0.395-0.036-0.762-0.109-0.358-0.066-0.688-0.176-0.322-0.11-0.586-0.257v-1.9556q0.25635 0.14648 0.59326 0.27832 0.33691 0.12451 0.6958 0.21973 0.36621 0.08789 0.73242 0.14648 0.36621 0.05127 0.6958 0.05127 0.98144 0 1.4941-0.40283 0.5127-0.41016 0.5127-1.2964 0-0.79102-0.50537-1.2012-0.49805-0.41748-1.5454-0.41748-0.19043 0-0.41016 0.02197-0.2124 0.02197-0.4248 0.05859-0.20508 0.03662-0.39551 0.08057-0.19043 0.03662-0.32959 0.08057l-0.90088-0.4834 0.40283-5.4565h5.6543v1.9189h-3.6914l-0.17578 2.1021q0.23438-0.05127 0.54199-0.10254 0.31494-0.05127 0.80566-0.05127z"/>
  <path d="m21.113 42 3.8086-8.7891h-4.9219v-1.9043h7.3828v1.4209l-3.904 9.272h-2.366z"/>
 </g>
 <g fill="#fff">
  <path d="m14.214 30h-7.1851v-1.5747l2.5195-2.7173q0.47607-0.5127 0.86426-0.94482 0.38818-0.43213 0.6665-0.84228 0.27832-0.41016 0.43213-0.83496t0.15381-0.91553q0-0.54199-0.32959-0.84228-0.32227-0.30029-0.00fae9-0.30029-0.57861 0-1.1133 0.28564-0.53467 0.28564-1.1206 0.81299l-1.23-1.457q0.32959-0.30029 0.68848-0.57129 0.35889-0.27832 0.79102-0.49072t0.95215-0.33691q0.52002-0.13184 1.1646-0.13184 0.76904 0 1.377 0.2124 0.61523 0.2124 1.0474 0.60791 0.43213 0.38818 0.65918 0.94482 0.23438 0.55664 0.23438 1.2524 0 0.62988-0.21973 1.2085-0.21973 0.57129-0.60059 1.1279-0.38086 0.54932-0.88623 1.0986-0.49805 0.54199-1.0693 1.106l-1.2891 1.2964v0.10254h4.3652v1.9043z"/>
  <path d="m20 13.305q0-0.76904 0.08057-1.5308 0.08789-0.76172 0.30029-1.4575 0.21973-0.70312 0.58594-1.3037 0.37354-0.60058 0.9375-1.04 0.57129-0.44678 1.3623-0.6958 0.79834-0.25635 1.8604-0.25635 0.15381 0 0.33691 0.0073t0.36621 0.02197q0.19043 0.0073 0.36621 0.0293 0.17578 0.02197 0.31494 0.05127v1.8091q-0.27832-0.06592-0.59326-0.10254-0.30762-0.04395-0.62256-0.04395-0.98877 0-1.626 0.24902-0.63721 0.2417-1.0107 0.68115-0.37354 0.43945-0.53467 1.0547-0.15381 0.61523-0.19043 1.3623h0.08789q0.14648-0.26367 0.35156-0.49072 0.2124-0.23438 0.49072-0.39551 0.27832-0.16846 0.62256-0.26367 0.35156-0.09519 0.78369-0.09519 0.6958 0 1.2524 0.22705 0.55664 0.22705 0.9375 0.65918 0.38818 0.43213 0.59326 1.062 0.20508 0.62988 0.20508 1.4429 0 0.00fae9-0.24902 1.5601-0.2417 0.68848-0.6958 1.1719-0.4541 0.47608-1.0986 0.73242-0.644 0.25-1.449 0.25-0.791 0-1.48-0.278-0.688-0.286-1.201-0.865-0.505-0.578-0.798-1.457-0.286-0.886-0.286-2.095zm3.7207 2.8857q0.30029 0 0.54199-0.10986 0.24902-0.11719 0.4248-0.34424 0.18311-0.23438 0.27832-0.58594 0.10254-0.35156 0.10254-0.83496 0-0.78369-0.32959-1.2305-0.322-0.455-0.989-0.455-0.33691 0-0.61523 0.13184t-0.47607 0.34424-0.30762 0.47607q-0.10254 0.26367-0.10254 0.53467 0 0.37354 0.08789 0.74707 0.09521 0.36621 0.27832 0.6665 0.19043 0.29297 0.46142 0.47607 0.27832 0.18311 0.64453 0.18311z"/>
  <path d="m36.75 23.013q0.68848 0 1.2817 0.2124 0.59326 0.2124 1.0327 0.62256 0.43945 0.41016 0.68848 1.0254 0.24902 0.60791 0.24902 1.3989 0 0.00fae9-0.271 1.5674-0.271 0.68848-0.79834 1.1719-0.52734 0.47608-1.311 0.73242-0.777 0.256-1.788 0.256-0.402 0-0.798-0.037-0.395-0.036-0.762-0.109-0.358-0.066-0.688-0.176-0.322-0.11-0.586-0.257v-1.9556q0.25635 0.14648 0.59326 0.27832 0.33691 0.12451 0.6958 0.21973 0.36621 0.08789 0.73242 0.14648 0.36621 0.05127 0.6958 0.05127 0.98144 0 1.4941-0.40283 0.5127-0.41016 0.5127-1.2964 0-0.79102-0.50537-1.2012-0.49805-0.41748-1.5454-0.41748-0.19043 0-0.41016 0.02197-0.2124 0.02197-0.4248 0.05859-0.20508 0.03662-0.39551 0.08057-0.19043 0.03662-0.32959 0.08057l-0.90088-0.4834 0.40283-5.4565h5.6543v1.9189h-3.6914l-0.17578 2.1021q0.23438-0.05127 0.54199-0.10254 0.31494-0.05127 0.80566-0.05127z"/>
  <path d="m21.113 42 3.8086-8.7891h-4.9219v-1.9043h7.3828v1.4209l-3.904 9.272h-2.366z"/>
 </g>
</svg>
