<svg xmlns="http://www.w3.org/2000/svg" width="48" height="48" version="1.1">
 <circle style="opacity:0.2" cx="24" cy="25" r="20"/>
 <circle style="fill:#666f7f" cx="24" cy="24" r="20"/>
 <path style="opacity:0.1;fill:#8b9cbe" d="M 24,4 A 20,20 0 0 0 4,24 20,20 0 0 0 4.0215,24.582 20,20 0 0 1 24,5 20,20 0 0 1 43.979,24.418 20,20 0 0 0 44,24 20,20 0 0 0 24,4 Z"/>
 <path style="opacity:0.2" d="m 19.466797,11.050781 c -0.01563,-1.7e-4 -0.03131,5.18e-4 -0.04687,0.002 -0.286652,0.02277 -0.480627,0.301431 -0.402344,0.578125 1.637015,5.786279 5.833947,17.408104 5.917969,17.640625 A 6,5 0 0 0 23,29 a 6,5 0 0 0 -6,5 6,5 0 0 0 6,5 6,5 0 0 0 6,-5 6,5 0 0 0 -0.408203,-1.8125 6,5 0 0 0 -0.002,-0.0059 c -0.216562,-0.597695 -2.875442,-7.946729 -4.423828,-13.134766 1.142227,0.479273 2.353158,0.744108 3.480468,1.248047 1.449089,0.647787 2.582133,1.457816 3.492188,4.46875 0.152265,0.492565 0.877948,0.392308 0.892578,-0.123047 0.0012,-0.05807 -0.02205,-0.0834 -0.02148,-0.140625 h 0.002 c -5e-4,-0.0016 -0.0014,-0.0023 -0.002,-0.0039 0.03134,-3.27972 -0.655566,-4.921805 -2.072266,-6.160156 -1.442063,-1.26052 -3.307857,-1.836914 -5.138672,-2.734376 -1.698765,-0.832729 -3.661337,-2.626802 -4.980469,-4.36914 -0.08354,-0.111046 -0.212654,-0.177889 -0.351562,-0.181641 z"/>
 <path style="fill:#48cc41" d="m 19.466671,10.05098 c -0.01563,-1.7e-4 -0.03126,4.65e-4 -0.04682,0.0019 -0.286652,0.02277 -0.480912,0.301968 -0.402629,0.578662 1.653415,5.844248 5.965768,17.771859 5.965768,17.771859 0.01881,0.05711 0.04872,0.109933 0.08802,0.155434 l 2.873407,3.436392 c 0.326136,0.372865 0.929182,0.03136 0.777167,-0.440114 0,0 -2.944411,-8.106838 -4.556326,-13.507735 1.142227,0.479273 2.354027,0.743274 3.481337,1.247213 1.449089,0.647787 2.582647,1.457414 3.492702,4.468348 0.152265,0.492565 0.876775,0.39363 0.891405,-0.121725 0.0012,-0.05807 -0.02117,-0.08323 -0.0206,-0.140453 h 0.0019 c -5e-4,-0.0016 -0.0013,-0.0021 -0.0019,-0.0037 0.03134,-3.27972 -0.656501,-4.92291 -2.073201,-6.161261 -1.442063,-1.26052 -3.307862,-1.836676 -5.138677,-2.734138 -1.698765,-0.83273 -3.66036,-2.626654 -4.979492,-4.368992 -0.08354,-0.111046 -0.213153,-0.177938 -0.352061,-0.18169 z"/>
 <ellipse style="fill:#48cc41" cx="23" cy="33" rx="6" ry="5"/>
 <path style="opacity:0.2;fill:#8b9cbe" d="m 19.466797,10.050781 c -0.01563,-1.7e-4 -0.03131,5.18e-4 -0.04687,0.002 -0.286652,0.02277 -0.480627,0.301431 -0.402344,0.578125 0.04479,0.158298 0.109724,0.360664 0.158203,0.527344 0.06849,-0.0554 0.148077,-0.09784 0.244141,-0.105469 0.01556,-0.0015 0.03125,-0.0021 0.04687,-0.002 0.138908,0.0038 0.268022,0.07059 0.351562,0.181641 1.319132,1.742338 3.281704,3.536411 4.980469,4.36914 1.830815,0.897463 3.696609,1.473856 5.138672,2.734376 1.310206,1.145263 1.987653,2.652909 2.058594,5.464843 0.01863,-0.04811 0.03347,-0.10073 0.03516,-0.160156 0.0012,-0.05807 -0.02205,-0.0834 -0.02148,-0.140625 h 0.002 c -5e-4,-0.0016 -0.0014,-0.0023 -0.002,-0.0039 0.03134,-3.27972 -0.655566,-4.921805 -2.072266,-6.160156 -1.442063,-1.26052 -3.307857,-1.836914 -5.138672,-2.734376 -1.698765,-0.832728 -3.661337,-2.626802 -4.980469,-4.36914 -0.08354,-0.111046 -0.212654,-0.177889 -0.351562,-0.181641 z m 4.699219,8.996094 c 1.548386,5.188037 4.207266,12.537071 4.423828,13.134766 a 6,5 0 0 1 0.002,0.0059 6,5 0 0 1 0.375,1.289062 A 6,5 0 0 0 29,33 a 6,5 0 0 0 -0.408203,-1.8125 6,5 0 0 0 -0.002,-0.0059 c -0.201779,-0.556894 -2.495929,-6.929922 -4.064453,-12 -0.1196,-0.04554 -0.24108,-0.08513 -0.359375,-0.134766 z M 23,28 a 6,5 0 0 0 -6,5 6,5 0 0 0 0.0332,0.523438 A 6,5 0 0 1 23,29 a 6,5 0 0 1 1.935547,0.271484 c -0.0068,-0.01887 -0.327363,-0.934136 -0.384766,-1.09375 A 6,5 0 0 0 23,28 Z"/>
</svg>
