<svg xmlns="http://www.w3.org/2000/svg" width="48" height="48" version="1">
 <rect fill="#4f4f4f" width="32" height="12" x="8" y="18"/>
 <path fill="#b2bfd9" d="m24 4c-9.349 0-17.137 6.36-19.35 15h38.7c-2.213-8.64-10.001-15-19.35-15zm-19.35 25c2.2124 8.64 10.001 15 19.35 15s17.137-6.36 19.35-15h-38.7z"/>
 <path opacity=".2" d="m4.9512 19c-0.1038 0.332-0.2139 0.661-0.3008 1h38.7c-0.087-0.339-0.197-0.668-0.301-1h-38.098zm-0.3008 11c2.2124 8.64 10.001 15 19.35 15s17.137-6.36 19.35-15h-0.301c-2.54 8.123-10.067 14-19.049 14s-16.509-5.877-19.049-14h-0.3006z"/>
 <path fill="#fff" opacity=".2" d="m24 4c-9.349 0-17.137 6.36-19.35 15h0.3012c2.5402-8.123 10.067-14 19.049-14s16.509 5.877 19.049 14h0.301c-2.213-8.64-10.001-15-19.35-15zm-19.35 25c0.0869 0.339 0.197 0.668 0.3008 1h38.098c0.104-0.332 0.214-0.661 0.301-1h-38.7z"/>
 <circle opacity=".2" cx="24" cy="25" r="4"/>
 <circle fill="#ff6363" cx="24" cy="24" r="4"/>
 <circle opacity=".2" cx="34" cy="25" r="4"/>
 <circle fill="#ff6363" cx="34" cy="24" r="4"/>
 <circle opacity=".2" cx="14" cy="25" r="4"/>
 <circle fill="#ff6363" cx="14" cy="24" r="4"/>
</svg>
