<svg xmlns="http://www.w3.org/2000/svg" width="48" height="48" version="1">
 <path style="opacity:0.2" d="M 6,5 C 4.892,5 4,5.892 4,7 V 43 C 4,44.108 4.892,45 6,45 H 28 L 44,29 V 7 C 44,5.892 43.108,5 42,5 Z"/>
 <path style="fill:#4384f1" d="M 6,4 C 4.892,4 4,4.892 4,6 V 42 C 4,43.108 4.892,44 6,44 H 28 L 44,28 V 6 C 44,4.892 43.108,4 42,4 Z"/>
 <path style="opacity:0.2" d="M 13,17 V 19 C 14.167,19 16.033,18.852 17.541,19.172 18.295,19.332 18.908,19.61 19.314,20.023 19.721,20.437 20,20.999 20,22.039 20,23.145 19.778,23.804 19.512,24.199 19.246,24.595 18.924,24.793 18.463,24.93 17.731,25.147 16.686,25.134 15.715,25.094 15.602,25.091 15.471,25.075 15.334,25.059 15.227,25.02 15.114,25 15,25 14.448,25 14,25.448 14,26 14,26.552 14.448,27 15,27 15.033,27 15.065,26.998 15.098,26.994 15.53,27.001 16.127,27.062 16.83,27.074 16.914,27.089 16.956,27.076 17.041,27.094 17.814,27.258 18.602,27.562 19.135,28.01 19.668,28.457 20,28.987 20,29.961 20,30.968 19.7,31.5 19.211,31.93 18.721,32.359 17.96,32.66 17.066,32.826 15.279,33.158 13.167,33 12,33 V 35 C 12,35 16,35 17.434,34.771 18.545,34.594 19.654,34.187 20.539,33.41 21.425,32.633 22,31.43 22,29.961 21.811,28.263 21.238,26.894 20.072,26.037 20.487,25.776 20.873,25.547 21.176,25.098 21.722,24.286 22,23.409 22,22.039 22,20.603 21.529,19.436 20.748,18.643 19.967,17.849 18.955,17.446 17.959,17.234 16.963,17.023 15.045,17 15.045,17 Z M 30.961,17 27,18 V 20 L 30.986,19 V 33 H 26 V 35 H 37 V 33 H 33 V 17 Z"/>
 <path style="fill:#8b9cbe" d="M 13,16 V 18 C 14.167,18 16.033,17.852 17.541,18.172 18.295,18.332 18.908,18.61 19.314,19.023 19.721,19.437 20,19.999 20,21.039 20,22.145 19.778,22.804 19.512,23.199 19.246,23.595 18.924,23.793 18.463,23.93 17.731,24.147 16.686,24.134 15.715,24.094 15.602,24.091 15.471,24.075 15.334,24.059 15.227,24.02 15.114,24 15,24 14.448,24 14,24.448 14,25 14,25.552 14.448,26 15,26 15.033,26 15.065,25.998 15.098,25.994 15.53,26.001 16.127,26.062 16.83,26.074 16.914,26.089 16.956,26.076 17.041,26.094 17.814,26.258 18.602,26.562 19.135,27.01 19.668,27.457 20,27.987 20,28.961 20,29.968 19.7,30.5 19.211,30.93 18.721,31.359 17.96,31.66 17.066,31.826 15.279,32.158 13.167,32 12,32 V 34 C 12,34 16,34 17.434,33.771 18.545,33.594 19.654,33.187 20.539,32.41 21.425,31.633 22,30.43 22,28.961 21.811,27.263 21.238,25.894 20.072,25.037 20.487,24.776 20.873,24.547 21.176,24.098 21.722,23.286 22,22.409 22,21.039 22,19.603 21.529,18.436 20.748,17.643 19.967,16.849 18.955,16.446 17.959,16.234 16.963,16.023 15.045,16 15.045,16 Z M 30.961,16 27,17 V 19 L 30.986,18 V 32 H 26 V 34 H 37 V 32 H 33 V 16 Z"/>
 <path style="fill:#9bcdff" d="M 44,28 H 30 C 28.895,28 28,28.895 28,30 V 44 Z"/>
 <path style="opacity:0.2;fill:#8b9cbe" d="M 6,4 C 4.892,4 4,4.892 4,6 V 7 C 4,5.892 4.892,5 6,5 H 42 C 43.108,5 44,5.892 44,7 V 6 C 44,4.892 43.108,4 42,4 Z"/>
 <path style="opacity:0.2;fill:#8b9cbe" d="M 30,28 C 28.895,28 28,28.895 28,30 V 31 C 28,29.895 28.895,29 30,29 H 43 L 44,28 Z"/>
 <circle style="opacity:0.4" cx="12" cy="9" r="2"/>
 <circle style="opacity:0.4" cx="36" cy="9" r="2"/>
</svg>
