<svg xmlns="http://www.w3.org/2000/svg" width="48" height="48" version="1">
 <circle style="opacity:0.2" cx="24" cy="25" r="20"/>
 <path style="fill:#e64646" d="m 23.968988,4.0002 c -7.005883,0 -13.131287,3.5921141 -16.6939389,9.026461 -0.125881,8.142625 5.0483219,10.980235 8.7992899,15.241998 -0.689964,-1.274331 -1.09236,-2.721571 -1.09236,-4.278754 0,-4.983383 4.038837,-6.442217 8.986509,-6.996327 l 17.848206,-1.99895 C 38.540612,8.4586593 31.798733,4.0003999 23.968488,4.0003999 Z"/>
 <path style="fill:#f66f6f" d="m 6.6946205,34.042228 c 3.5029415,6.073211 9.6735775,9.587367 16.1567445,9.957972 6.912823,-3.814198 10.577122,-8.663052 8.787408,-15.248994 -0.757862,1.235651 -1.808684,2.307588 -3.156062,3.086179 -2.140985,1.237351 -4.12331,-0.06317 -6.329997,-0.642692 -2.237141,-0.587462 -4.692655,-0.47717 -5.945774,-2.649809 L 7.2818389,13.072007 C 3.2653687,19.1808 2.7789988,27.253562 6.6939216,34.041998 Z"/>
 <path style="fill:#e58989" d="m 41.318941,33.987257 c 3.502941,-6.073212 3.458009,-13.179081 0.537283,-18.984034 l -17.586598,0.007 c 1.448026,0.03918 2.900845,0.414132 4.248223,1.192774 2.304141,1.3316 2.087566,3.962819 2.597201,6.367657 0.444023,2.0951 1.851021,3.910746 0.692061,5.920091 L 22.883008,43.96262 c 7.293051,0.427775 14.5212,-3.187327 18.436322,-9.975763 z"/>
 <rect opacity=".2" width="18" height="18" x="-33.98" y="-33" rx="9" ry="9" transform="matrix(0,-1,-1,0,0,0)"/>
 <rect style="fill:#8b9cbe" width="18" height="18" x="-33" y="-33" rx="9" ry="9" transform="matrix(0,-1,-1,0,0,0)"/>
 <rect style="fill:#e64646" width="14" height="14" x="-31" y="-31" rx="7" ry="7" transform="matrix(0,-1,-1,0,0,0)"/>
 <path style="opacity:0.2;fill:#8b9cbe" d="M 24 4 A 20 20 0 0 0 4 24 A 20 20 0 0 0 4.0214844 24.582031 A 20 20 0 0 1 24 5 A 20 20 0 0 1 43.978516 24.417969 A 20 20 0 0 0 44 24 A 20 20 0 0 0 24 4 z"/>
</svg>
