<svg xmlns="http://www.w3.org/2000/svg" width="48" height="48" version="1">
 <path style="opacity:0.2" d="m 40.346578,5.0003832 c -0.155324,0.00245 -0.311219,0.017394 -0.469089,0.043866 -0.631482,0.1059081 -1.277827,0.3963786 -1.894921,0.8099401 l -0.01182,0.00666 -0.01349,0.00841 c 0,0 -8.991234,5.5033727 -13.123949,11.1758377 v 0 0 l 9.343667,7.392978 v 0 C 39.058693,18.343088 42.850643,8.8221627 42.850643,8.8221627 l 0.02531,-0.072556 0.01182,-0.075932 C 43.120035,7.361904 42.797887,5.98447 41.682992,5.3394212 41.264909,5.0975275 40.812567,4.9929325 40.346591,5.0002594 Z"/>
 <path style="opacity:0.2" d="m 25.77139,16.044471 c -0.277603,-0.0033 -0.557177,0.01706 -0.838625,0.06412 l -1.135602,0.19236 0.339162,2.573247 -0.80319,0.678325 -5.769135,12.866232 0.750882,0.57202 4.91026,3.739222 9.469547,-9.975759 0.266606,-1.005676 2.451755,-0.455592 -0.418468,-1.290841 c -0.586371,-1.80826 -2.063071,-3.75411 -3.865776,-5.350663 -1.577368,-1.396983 -3.414189,-2.584217 -5.357416,-2.606995 z"/>
 <ellipse style="opacity:0.2;stroke:#000000;stroke-width:0;stroke-linecap:round" cx="39.5" cy="40" rx="3.5" ry="1"/>
 <ellipse style="opacity:0.2" cx="22.5" cy="43" rx="16.5" ry="2"/>
 <ellipse style="fill:#6155db" cx="22.5" cy="42" rx="16.5" ry="2"/>
 <path style="opacity:0.1;fill:#8b9cbe" d="M 22.5 40 A 16.499998 2 0 0 0 6 42 A 16.499998 2 0 0 0 6.5410156 42.501953 A 16.499998 2 0 0 1 22.5 41 A 16.499998 2 0 0 1 38.458984 42.498047 A 16.499998 2 0 0 0 39 42 A 16.499998 2 0 0 0 22.5 40 z"/>
 <path style="fill:#8d4e0a" d="m 40.346578,4.0004328 c -0.155324,0.00245 -0.311219,0.017394 -0.469089,0.043866 -0.631482,0.1059081 -1.277827,0.3963786 -1.894921,0.8099401 l -0.01182,0.00666 -0.01349,0.00841 c 0,0 -8.991234,5.5033731 -13.123949,11.1758381 v 0 0 l 9.343667,7.392978 v 0 C 39.058693,17.343138 42.850643,7.8222123 42.850643,7.8222123 l 0.02531,-0.072556 0.01182,-0.075932 C 43.120035,6.3619536 42.797887,4.9845196 41.682992,4.3394708 41.264909,4.0975771 40.812567,3.9929821 40.346591,4.000309 Z"/>
 <path style="opacity:0.1;fill:#8b9cbe" d="M 40.345703 4 C 40.190379 4.00245 40.034823 4.0184499 39.876953 4.0449219 C 39.245471 4.15083 38.599516 4.4399541 37.982422 4.8535156 L 37.970703 4.8613281 L 37.957031 4.8691406 C 37.957031 4.8691406 28.966699 10.372457 24.833984 16.044922 L 25.316406 16.427734 C 29.621779 10.980331 37.957031 5.8691406 37.957031 5.8691406 L 37.970703 5.8613281 L 37.982422 5.8535156 C 38.599516 5.4399541 39.245471 5.15083 39.876953 5.0449219 C 40.034823 5.0184499 40.190379 5.00245 40.345703 5 C 40.811679 4.9926731 41.265511 5.09795 41.683594 5.3398438 C 42.434067 5.7740475 42.817109 6.5419875 42.921875 7.3964844 C 43.064445 6.1717994 42.720296 4.9396525 41.683594 4.3398438 C 41.265511 4.09795 40.811679 3.9926731 40.345703 4 z"/>
 <path style="fill:#a9a9a9" d="m 25.77139,15.044521 c -0.277603,-0.0033 -0.557177,0.01706 -0.838625,0.06412 l -1.135602,0.19236 0.339162,2.573247 -0.80319,0.678325 -5.769135,12.866232 0.750882,0.57202 4.91026,3.739222 9.469547,-9.975759 0.266606,-1.005676 2.451755,-0.455592 -0.418468,-1.290841 c -0.586371,-1.80826 -2.063071,-3.75411 -3.865776,-5.350663 -1.577368,-1.396983 -3.414189,-2.584217 -5.357416,-2.606995 z"/>
 <path style="opacity:0.2;fill:#8b9cbe" d="M 25.771484 15.044922 C 25.493881 15.041622 25.215042 15.062315 24.933594 15.109375 L 23.796875 15.300781 L 23.925781 16.279297 L 24.933594 16.109375 C 25.215042 16.062315 25.493881 16.041622 25.771484 16.044922 C 27.714711 16.0677 29.551538 17.255361 31.128906 18.652344 C 32.931611 20.248897 34.40777 22.193693 34.994141 24.001953 L 35.107422 24.349609 L 35.412109 24.292969 L 34.994141 23.001953 C 34.40777 21.193693 32.931611 19.248897 31.128906 17.652344 C 29.551538 16.255361 27.714711 15.0677 25.771484 15.044922 z M 24.017578 17.974609 L 23.333984 18.552734 L 17.564453 31.417969 L 17.898438 31.673828 L 23.333984 19.552734 L 24.136719 18.875 L 24.017578 17.974609 z"/>
 <path style="opacity:0.1" d="m 6,42.999999 c 9.91146,-1.749277 17.054059,3.35409 17.95474,-5.528473 0.725826,-7.158124 -7.466759,-9.080718 -11.049838,-2.17239 C 9.4532727,41.95404 6,42.999999 6,42.999999 Z"/>
 <path style="fill:#17191e" d="m 6,42.000049 c 9.91146,-1.749277 17.054059,3.35409 17.95474,-5.528473 0.725826,-7.158124 -7.466759,-9.080718 -11.049838,-2.17239 C 9.4532727,40.95409 6,42.000049 6,42.000049 Z"/>
 <ellipse style="fill:#6155db;stroke:#000000;stroke-width:0;stroke-linecap:round" cx="39.5" cy="39" rx="3.5" ry="1"/>
 <path style="opacity:0.1;fill:#8b9cbe;stroke:#000000;stroke-width:0;stroke-linecap:round" d="M 39.5 38 A 3.4999995 0.9999994 0 0 0 36 39 A 3.4999995 0.9999994 0 0 0 36.472656 39.5 A 3.4999995 0.9999994 0 0 1 39.5 39 A 3.4999995 0.9999994 0 0 1 42.527344 39.5 A 3.4999995 0.9999994 0 0 0 43 39 A 3.4999995 0.9999994 0 0 0 39.5 38 z"/>
</svg>
