<svg xmlns="http://www.w3.org/2000/svg" width="48" height="48" version="1">
 <rect style="opacity:0.2" width="40" height="40" x="4" y="5" rx="20" ry="20"/>
 <rect style="fill:#2869b6" width="40" height="40" x="4" y="4" rx="20" ry="20"/>
 <g style="opacity:0.2;enable-background:new" transform="matrix(1.0631088,0,0,1.0627904,-39.935991,-21.353771)">
  <g>
   <path transform="matrix(0.9406375,0,0,0.9409193,37.565291,20.092175)" d="M 24.103516 6 L 21.787109 6.2636719 L 18.927734 7.0488281 L 18.386719 7.5742188 L 20.162109 8.7988281 L 20.162109 9.4980469 L 19 10.197266 L 20.396484 12.035156 L 21.013672 11.685547 L 21.787109 10.460938 C 22.980979 10.091937 24.050793 9.6731371 25.185547 9.1484375 L 26 6.7871094 L 24.103516 6 z M 18.619141 6.1757812 L 17.621094 6.3183594 L 17.148438 6.7871094 L 16.373047 6.9003906 L 15.681641 7.2246094 L 15.345703 7.3867188 L 15.140625 7.6621094 L 16.144531 7.8359375 L 16.53125 7.4863281 L 17.304688 7.3125 C 17.834109 7.0550922 18.365986 6.8808495 18.927734 6.6992188 L 18.619141 6.1757812 z M 14.058594 8.2734375 L 13.904297 8.6230469 L 13.980469 9.4980469 L 13.363281 10.023438 L 12.976562 10.984375 L 13.75 10.984375 L 14.136719 10.111328 C 14.469996 9.8757086 14.801181 9.6369557 15.140625 9.4101562 L 15.914062 9.6738281 C 16.429033 10.023594 16.943588 10.373423 17.458984 10.722656 L 18.232422 10.023438 L 17.380859 9.6738281 L 16.994141 8.8867188 L 15.525391 8.7109375 L 15.449219 8.2734375 L 14.753906 8.4492188 L 14.445312 9.0605469 L 14.058594 8.2734375 z M 33.851562 8.9726562 L 32.386719 9.3242188 L 31.455078 9.9355469 L 31.455078 10.460938 L 29.990234 11.421875 L 30.296875 12.822266 L 31.150391 12.208984 L 31.689453 12.822266 L 32.306641 13.171875 L 32.693359 12.123047 L 32.462891 11.509766 L 32.693359 11.072266 L 33.542969 10 L 33.929688 10 L 33.542969 11.160156 L 33.542969 11.947266 C 33.898048 11.850656 34.263578 11.818605 34.626953 11.773438 L 33.621094 12.472656 L 33.544922 12.910156 L 32.386719 13.871094 L 31.224609 13.609375 L 31.224609 12.910156 L 30.683594 13.259766 L 30.917969 14.070312 L 30.066406 14.070312 L 29.603516 14.658203 L 29.021484 15.3125 L 27.980469 15.533203 L 28.597656 16.142578 L 28.753906 16.753906 L 27.980469 16.753906 L 27 17.279297 L 27 18.855469 L 27.439453 18.855469 L 27.863281 19.335938 L 28.830078 18.855469 L 29.214844 17.892578 L 29.912109 17.455078 L 30.066406 17.105469 L 31.224609 16.845703 L 31.84375 17.542969 L 32.539062 17.892578 L 32.152344 18.679688 L 32.771484 18.503906 L 33.080078 17.720703 L 32.306641 16.845703 L 32.617188 16.845703 L 33.390625 17.455078 L 33.544922 18.330078 L 34.238281 19.117188 L 34.392578 17.978516 L 34.78125 17.804688 C 35.163332 18.201214 35.463349 18.670922 35.785156 19.117188 L 36.943359 19.205078 L 37.640625 19.640625 L 37.330078 20.078125 L 36.634766 20.691406 L 35.630859 20.691406 L 34.316406 20.253906 L 33.621094 20.339844 L 33.121094 20.910156 L 31.689453 19.466797 L 30.683594 19.205078 L 29.214844 19.378906 L 27.900391 19.728516 C 27.16323 20.563975 26.5356 21.39601 25.837891 22.263672 L 24.988281 24.277344 L 25.375 24.712891 L 24.679688 25.761719 L 25.453125 27.599609 C 26.110233 28.342711 26.666113 29.084491 27.322266 29.828125 L 28.291016 28.998047 L 28.714844 29.480469 L 29.755859 28.824219 L 30.105469 29.216797 L 31.150391 29.216797 L 31.748047 29.894531 L 31.378906 31.097656 L 32.115234 31.927734 L 32.076172 33.371094 L 32.617188 34.421875 L 32.039062 35.294922 C 32.000572 35.938334 32 36.577179 32 37.220703 C 32.316696 38.092507 32.48025 38.961771 32.779297 39.839844 L 33.009766 41.240234 L 33.009766 41.851562 C 34.461645 41.120194 35.810584 40.222087 37.03125 39.173828 L 37.021484 39.142578 L 38.027344 38.265625 L 37.291016 37.4375 L 38.181641 36.695312 L 38.931641 36.167969 L 39.318359 35.734375 L 39.085938 34.767578 L 39.085938 32.322266 L 39.880859 30.833984 L 40.730469 29.873047 L 41.658203 27.599609 L 41.658203 26.986328 C 41.201235 27.043868 40.75559 27.090601 40.308594 27.123047 L 41.232422 26.199219 L 42.507812 25.324219 L 43.205078 24.539062 L 43.205078 23.664062 C 43.050399 23.372434 42.895971 23.080692 42.740234 22.789062 L 42.121094 23.488281 L 41.658203 22.964844 L 40.962891 22.439453 L 40.962891 21.302734 L 41.775391 22.220703 L 42.664062 22.089844 C 43.068894 22.45725 43.467187 22.808249 43.822266 23.226562 L 43.910156 23.126953 C 43.482722 18.486206 41.47517 14.324306 38.4375 11.15625 C 38.269725 10.984369 38.092667 10.799349 37.955078 10.664062 C 37.724135 10.439261 37.481856 10.227136 37.240234 10.013672 L 37.021484 10.373047 L 36.248047 11.248047 L 35.244141 10 L 36.248047 10 L 36.712891 9.6738281 L 34.857422 9.3242188 L 33.851562 8.9726562 z M 12.005859 9.0019531 C 11.892733 9.0867531 11.777253 9.1687293 11.666016 9.2558594 L 11.818359 9.9355469 C 11.818359 9.9355469 11.111592 10.013138 10.703125 10.066406 C 6.7048633 13.626375 4.1480527 18.760237 4.0136719 24.525391 C 4.0179327 24.691545 4.0171387 24.858339 4.0253906 25.023438 C 4.1724512 25.264248 4.3203125 25.5 4.3203125 25.5 L 5.9433594 26.460938 L 7.5683594 26.900391 L 8.2617188 27.775391 L 9.34375 28.560547 L 9.9628906 28.474609 L 10.425781 28.683594 L 10.425781 28.824219 L 9.8085938 30.484375 L 9.34375 31.185547 L 9.4980469 31.535156 L 9 32.845703 L 10.501953 35.382812 L 11.494141 36.605469 L 12.111328 37.478516 L 12.035156 39.316406 L 12.898438 40.365234 L 12.839844 40.617188 C 13.827616 41.280267 14.883207 41.849314 15.986328 42.330078 L 16.066406 42.115234 L 17.072266 41.763672 L 18 39.839844 L 17.613281 39.316406 L 18.152344 38.228516 L 19.3125 37.964844 L 20 36.867188 L 19.777344 35.121094 L 20.902344 33.808594 L 21.058594 32.496094 C 19.789883 31.867134 18.331521 31.219823 17.072266 30.572266 L 16.453125 29.347656 L 15.294922 29.085938 L 14.677734 27.925781 L 13.132812 28.099609 L 11.818359 27 L 10.425781 27.861328 L 10.425781 28.054688 C 10.004786 27.933213 9.4881261 27.917913 9.1132812 27.6875 L 8.8027344 26.8125 L 8.8027344 25.849609 L 7.875 25.9375 C 7.952394 25.32512 8.0314513 24.713836 8.109375 24.101562 L 7.5683594 24.101562 L 7.0273438 24.800781 L 6.4863281 25.0625 L 5.7128906 24.626953 L 5.6347656 23.664062 L 5.7890625 22.615234 L 6.9492188 21.740234 L 7.875 21.740234 L 8.0292969 21.214844 L 9.1894531 21.476562 L 9.9394531 22.527344 L 10.095703 20.777344 L 11.664062 19.554688 L 12.205078 18.242188 L 13.285156 18.205078 L 13.904297 17.333984 L 15.294922 17.068359 L 15.990234 16.021484 L 13.904297 16.021484 L 15.21875 15.408203 L 16.144531 15.408203 L 17.458984 14.570312 L 17.613281 14.046875 L 17.148438 13.609375 L 16.607422 13.433594 L 16.763672 12.910156 L 16.376953 12.123047 L 15.449219 12.470703 L 15.603516 11.771484 L 14.521484 11.160156 L 13.673828 12.646484 L 13.75 13.171875 L 12.898438 13.521484 L 12.357422 14.658203 L 12.126953 13.609375 L 10.658203 12.996094 L 10.425781 12.208984 L 12.357422 11.072266 L 13.208984 10.285156 L 13.285156 9.3242188 L 12.822266 9.0605469 L 12.005859 9.0019531 z M 26.691406 9.9121094 L 25.572266 10.261719 L 25.066406 10.173828 L 25.064453 10.173828 L 24.986328 10.699219 L 25.728516 11.048828 L 27.154297 10.435547 L 26.691406 9.9121094 z M 15.990234 10.285156 L 15.373047 10.722656 L 16.144531 11.248047 L 16.763672 11.248047 L 16.763672 10.634766 L 15.990234 10.285156 z M 28.199219 12.296875 L 28.199219 12.822266 L 28.509766 13.171875 L 28.509766 13.958984 L 28.353516 15.007812 L 29.205078 14.833984 L 29.822266 14.220703 L 29.28125 13.697266 C 29.099568 13.21359 28.891456 12.760782 28.664062 12.296875 L 28.199219 12.296875 z M 27.892578 13.345703 L 27.349609 13.521484 L 27.505859 14.482422 L 28.199219 14.134766 L 27.892578 13.345703 z M 17.228516 14.921875 L 17.458984 16.142578 L 17.921875 15.445312 L 17.228516 14.921875 z M 37.40625 21.740234 L 38.296875 22.746094 L 39.339844 24.974609 L 39.957031 25.675781 L 39.646484 26.460938 L 40.234375 27.126953 C 39.964447 27.145183 39.695518 27.164062 39.417969 27.164062 C 38.92586 26.130288 38.556395 25.095167 38.181641 24.013672 L 37.324219 23.271484 L 36.976562 22.001953 L 37.40625 21.740234 z"/>
  </g>
 </g>
 <g style="enable-background:new" transform="matrix(1.0631088,0,0,1.0627904,-39.935991,-22.353835)">
  <g>
   <path style="fill:#64dd17" transform="matrix(0.9406375,0,0,0.9409193,37.565291,21.033155)" d="m 24.103516,5 -2.316407,0.2636719 -2.859375,0.7851562 -0.541015,0.5253907 1.77539,1.2246093 0,0.6992188 -1.16211,0.6992187 1.396485,1.8378904 0.617188,-0.349609 0.773437,-1.2246095 c 1.19387,-0.3690008 2.263684,-0.7878004 3.398438,-1.3125 l 0.814452,-2.3613281 z m -5.484375,0.1757812 -0.998047,0.1425782 -0.472656,0.46875 -0.775391,0.1132812 -0.691406,0.3242188 -0.335938,0.1621094 -0.205078,0.2753906 1.003906,0.1738281 L 16.53125,6.4863281 17.304688,6.3125 c 0.529421,-0.2574078 1.061298,-0.4316504 1.623046,-0.6132812 z m -4.560547,2.0976563 -0.154297,0.3496094 0.07617,0.875 -0.617188,0.5253906 -0.386719,0.9609375 0.773438,0 0.386719,-0.8730469 c 0.333277,-0.2356195 0.664462,-0.4743724 1.003906,-0.7011719 l 0.773437,0.2636719 c 0.51497,0.3497654 1.029526,0.6995952 1.544922,1.0488281 L 18.23242,9.0234375 17.380857,8.6738281 16.994139,7.8867188 l -1.46875,-0.1757813 -0.07617,-0.4375 -0.695313,0.1757813 -0.308594,0.6113281 z m 19.792968,0.6992187 -1.464843,0.3515626 -0.931641,0.6113281 0,0.5253906 -1.464844,0.9609375 0.306641,1.400391 0.853516,-0.613282 0.539062,0.613282 0.617188,0.349609 0.386718,-1.048828 -0.230468,-0.613281 0.230468,-0.4375 0.84961,-1.0722662 0.386719,0 -0.386719,1.1601562 0,0.78711 c 0.355079,-0.09661 0.720609,-0.12866 1.083984,-0.173828 l -1.005859,0.699218 -0.07617,0.4375 -1.158203,0.960938 -1.16211,-0.261719 0,-0.699219 -0.541015,0.34961 0.234375,0.811234 -0.851563,0 -0.46289,0.587203 -0.582032,0.654297 -1.041015,0.220703 0.617187,0.609375 0.15625,0.611328 -0.773437,0 -0.980472,0.525391 0,1.576172 0.439456,0 0.423828,0.480469 0.966797,-0.480469 0.384766,-0.962891 0.697265,-0.4375 0.154297,-0.349609 1.158203,-0.259766 0.619141,0.697266 0.695312,0.349609 -0.386718,0.78711 0.61914,-0.175782 0.308594,-0.783203 -0.773437,-0.875 0.310547,0 0.773437,0.609375 0.154297,0.875 0.693359,0.78711 0.154297,-1.138672 0.388672,-0.173828 c 0.382082,0.396527 0.682099,0.866234 1.003906,1.3125 l 1.158203,0.08789 0.697266,0.435547 -0.310547,0.4375 -0.695312,0.613281 -1.003907,0 -1.314453,-0.4375 -0.695312,0.08594 -0.5,0.570312 -1.431641,-1.443359 -1.005859,-0.261719 -1.46875,0.173828 -1.314453,0.34961 c -0.737161,0.835459 -1.364583,1.667494 -2.062292,2.535156 l -0.849609,2.013672 0.386719,0.435547 -0.695313,1.048828 0.773438,1.83789 c 0.657108,0.743102 1.212779,1.484882 1.868932,2.228516 l 0.96875,-0.830078 0.423828,0.482422 1.041015,-0.65625 0.34961,0.392578 1.044922,0 0.597656,0.677734 -0.369141,1.203125 0.736328,0.830078 -0.03906,1.44336 0.541016,1.050781 -0.578128,0.873047 c -0.03849,0.643412 -0.03907,1.282257 -0.03907,1.925781 0.316696,0.871804 0.480719,1.741068 0.779766,2.619141 l 0.230469,1.40039 0,0.701172 0.841327,0 0.851563,-0.52539 0.732422,0 c 0.273168,-0.190233 0.535917,-0.394345 0.798828,-0.597657 l 0.978516,-1.107421 -0.191407,-0.56836 1.00586,-0.876953 -0.736328,-0.828125 0.890625,-0.742188 0.750005,-0.527343 0.386719,-0.433594 -0.232422,-0.966797 0,-2.445312 0.794916,-1.488282 0.84961,-0.960937 0.927734,-2.273438 0,-0.613281 c -0.456968,0.05754 -0.902613,0.104273 -1.349609,0.136719 l 0.923828,-0.923828 1.27539,-0.875 0.697266,-0.785157 0,-0.875 c -0.154679,-0.291629 -0.309107,-0.58337 -0.464844,-0.875 l -0.61914,0.699219 -0.462891,-0.523437 -0.695312,-0.525391 0,-1.136719 0.8125,0.917969 0.888671,-0.130859 c 0.404831,0.367406 0.803125,0.718404 1.158204,1.136718 l 0.08789,-0.09961 C 43.482716,17.486207 41.47517,13.324306 38.4375,10.15625 38.269725,9.9843689 38.092667,9.7993495 37.955078,9.6640625 37.724135,9.4392605 37.481856,9.227136 37.240234,9.0136719 l -0.21875,0.359375 -0.773437,0.8750001 -1.003906,-1.2480472 1.003906,0 0.464844,-0.3261717 -1.855469,-0.3496093 z m -21.845703,0.029297 c -0.113126,0.0848 -0.228606,0.1667762 -0.339843,0.2539063 l 0.152343,0.6796875 c 0,0 -0.706767,0.077591 -1.115234,0.1308593 C 6.5989978,12.720635 4.0051013,18.030857 4,23.982422 4.1609659,24.247444 4.3203125,24.5 4.3203125,24.5 l 1.6230469,0.960938 1.625,0.439453 0.6933594,0.875 1.0820312,0.785156 0.6191406,-0.08594 0.4628904,0.208985 0,0.140625 -0.6171872,1.660156 -0.4648438,0.701172 0.1542969,0.349609 -0.4980474,1.310547 1.5019535,2.537109 0.992453,1.222657 0.617188,0.873047 -0.07617,1.83789 0.863016,1.048828 -0.25586,1.109375 c 0.89177,0.614561 1.842605,1.146031 2.832031,1.611329 l 0.361329,-0.359376 0.230468,-0.611328 1.00586,-0.351562 0.927731,-1.923828 -0.386716,-0.523438 0.539063,-1.087568 1.160156,-0.263672 0.687497,-1.097978 -0.222653,-1.746094 1.125528,-1.3125 0.15625,-1.3125 c -1.268711,-0.62896 -2.727601,-1.276271 -3.986856,-1.923828 l -0.619141,-1.22461 -1.158203,-0.261718 -0.617188,-1.15985 -1.544922,0.173828 L 11.818361,26 l -1.392578,0.861326 0,0.19336 C 10.004788,26.933211 9.488126,26.917913 9.1132812,26.6875 l -0.3105468,-0.875 0,-0.962891 L 7.875,24.9375 c 0.077394,-0.61238 0.1564513,-1.223664 0.234375,-1.835938 l -0.5410156,0 -0.5410156,0.699219 -0.5410157,0.261719 -0.7734375,-0.435547 -0.078125,-0.962891 0.1542969,-1.048828 1.1601563,-0.875 0.9257812,0 0.1542969,-0.52539 1.1601562,0.261718 0.7494214,1.050782 0.1562505,-1.75 1.568937,-1.222656 0.541016,-1.3125 1.080078,-0.03775 0.619141,-0.871094 1.390625,-0.265625 0.695312,-1.046875 -2.085937,0 1.314453,-0.613282 0.925781,0 1.314453,-0.83725 0.154297,-0.523437 -0.464843,-0.4375 -0.541016,-0.175781 0.15625,-0.523438 -0.386719,-0.787109 -0.927734,0.347656 0.154297,-0.699219 -1.082032,-0.611328 -0.847656,1.486328 0.07617,0.525391 -0.851562,0.349609 -0.541016,1.136719 -0.230469,-1.048828 -1.46875,-0.613281 -0.232422,-0.78711 1.931641,-1.136718 0.851562,-0.7871098 0.07617,-0.9609374 -0.46289,-0.2636719 z m 14.685747,0.9096874 -1.11934,0.3496094 -0.506202,-0.087891 -0.002,0 -0.07813,0.5253906 0.74253,0.3496094 1.425981,-0.6132813 -0.462891,-0.5234375 z m -10.701372,0.3735157 -0.617187,0.4375 0.771484,0.5253907 0.619141,0 0,-0.6132813 z m 12.208985,2.0117187 0,0.525391 0.310547,0.349609 0,0.787109 -0.15625,1.048828 0.851562,-0.173828 0.617188,-0.613281 -0.541016,-0.523437 C 29.099568,12.21359 28.891455,11.760782 28.664062,11.296875 Z m -0.306641,1.048828 -0.542969,0.175781 0.15625,0.960938 0.69336,-0.347656 z m -10.664062,1.576172 0.230468,1.220703 0.462891,-0.697266 z m 20.177734,6.818359 0.890625,1.00586 1.042969,2.228515 0.617187,0.701172 -0.310547,0.785157 0.587891,0.666015 c -0.269928,0.01823 -0.538857,0.03711 -0.816406,0.03711 -0.492109,-1.033775 -0.861574,-2.068895 -1.236328,-3.15039 l -0.857813,-0.742188 -0.347657,-1.269531 z"/>
  </g>
 </g>
 <path style="fill:#8b9cbe;opacity:0.2" d="M 24 4 C 12.92 4 4 12.92 4 24 C 4 24.167874 4.007647 24.333141 4.0117188 24.5 C 4.2763904 13.653863 13.087874 5 24 5 C 34.912126 5 43.72361 13.653863 43.988281 24.5 C 43.992353 24.333141 44 24.167874 44 24 C 44 12.92 35.08 4 24 4 z"/>
</svg>
