<svg xmlns="http://www.w3.org/2000/svg" width="48" height="48" version="1.1">
 <circle style="opacity:0.2;fill:#546e7a" cx="24" cy="25" r="20"/>
 <circle style="fill:#3f9142" cx="24" cy="24" r="20"/>
 <circle style="opacity:0.1" cx="24" cy="25" r="16"/>
 <circle style="fill:#79de7d" cx="24" cy="24" r="16"/>
 <path style="opacity:0.2;fill:#8b9cbe" d="m34 26.788c0 3.0314-0.78733 5.3271-2.362 6.887-1.574 1.55-3.931 2.325-7.07 2.325-2.2086 0-4.1156-0.466-5.7209-1.398-1.5951-0.9418-2.8016-2.2466-3.6196-3.9144-0.818-1.6776-1.227-3.625-1.227-5.8421 0-2.0995 0.42943-3.9684 1.2883-5.6067s2.0961-2.9186 3.7117-3.8408c1.6155-0.932 3.4867-1.398 5.6135-1.398 2.3415 0 4.2586 0.5739 5.7515 1.7217 1.5031 1.1478 2.552 2.3357 3.1348 4.2782h-3.95c-0.55-1-1.025-1.2908-1.9146-1.8795-0.88953-0.58861-1.9171-0.88292-3.0828-0.88292-1.8814 0-3.497 0.72107-4.8467 2.1632-1.3497 1.4323-2.0246 3.2424-2.0246 5.4301l-0.00032 0.00013c0 1.4716 0.27096 2.8058 0.81287 4.0027 0.55215 1.1871 1.3497 2.1387 2.3926 2.8548 1.0531 0.71613 2.2648 1.0742 3.635 1.0742 1.0737 0 2.0246-0.12754 2.8528-0.38261 0.83847-0.26489 1.5235-0.68675 2.0552-1.2656 0.54191-0.58861 0.8282-1.2806 0.85887-2.1145h-4.288v-3h8"/>
 <path style="fill:#3f9142" d="m34 25.788c0 3.0314-0.78733 5.3271-2.362 6.887-1.5747 1.5501-3.9315 2.3251-7.0706 2.3251-2.2086 0-4.1156-0.466-5.7209-1.398-1.5951-0.9418-2.8016-2.2466-3.6196-3.9144-0.818-1.6776-1.227-3.625-1.227-5.8421 0-2.0995 0.42943-3.9684 1.2883-5.6067s2.0961-2.9186 3.7117-3.8408c1.6155-0.932 3.4867-1.398 5.6135-1.398 2.3415 0 4.2586 0.5739 5.7515 1.7217 1.504 1.148 2.553 2.335 3.136 4.278h-3.95c-0.55-1-1.025-1.291-1.915-1.88-0.88953-0.58861-1.9171-0.88292-3.0828-0.88292-1.8814 0-3.497 0.72107-4.8467 2.1632-1.3497 1.4323-2.0246 3.2424-2.0246 5.4301v0.001c0 1.4716 0.27096 2.8058 0.81287 4.0027 0.55215 1.1871 1.3497 2.1387 2.3926 2.8548 1.0531 0.71613 2.2648 1.0742 3.635 1.0742 1.0737 0 2.0246-0.12754 2.8528-0.38261 0.83847-0.26489 1.5235-0.68675 2.0552-1.2656 0.542-0.588 0.829-1.28 0.859-2.114h-4.288v-3h8"/>
 <path style="opacity:0.1;fill:#8b9cbe" d="m24 4a20 20 0 0 0 -20 20 20 20 0 0 0 0.0215 0.582 20 20 0 0 1 19.978 -19.582 20 20 0 0 1 19.979 19.418 20 20 0 0 0 0.021 -0.418 20 20 0 0 0 -20 -20z"/>
 <path style="fill:#8b9cbe;opacity:0.2" d="M 24 8 A 16 16 0 0 0 8 24 A 16 16 0 0 0 8.0215 24.58 A 16 16 0 0 1 24 9 A 16 16 0 0 1 39.979 24.42 A 16 16 0 0 0 40 24 A 16 16 0 0 0 24 8 z"/>
</svg>
