<svg xmlns="http://www.w3.org/2000/svg" width="48" height="48" version="1.1">
 <path d="m 8,9 a 4.0004,4.0004 0 0 0 -4,4 v 7 a 4.0004,4.0004 0 0 0 3,3.869141 v 2.263671 A 4.0004,4.0004 0 0 0 4,30 v 7 a 4.0004,4.0004 0 0 0 4,4 h 32 a 4.0004,4.0004 0 0 0 4,-4 V 30 A 4.0004,4.0004 0 0 0 41,26.130859 V 23.867188 A 4.0004,4.0004 0 0 0 44,20 V 13 A 4.0004,4.0004 0 0 0 40,9 h -3.3125 -7.28125 -1.8125 -7.277344 -1.808594 -7.28125 z" style="opacity:0.2"/>
 <path style="fill:#17191e" d="M 8 8 A 4.0004 4.0004 0 0 0 4 12 L 4 19 A 4.0004 4.0004 0 0 0 7 22.869141 L 7 25.132812 A 4.0004 4.0004 0 0 0 4 29 L 4 36 A 4.0004 4.0004 0 0 0 8 40 L 40 40 A 4.0004 4.0004 0 0 0 44 36 L 44 29 A 4.0004 4.0004 0 0 0 41 25.130859 L 41 22.867188 A 4.0004 4.0004 0 0 0 44 19 L 44 12 A 4.0004 4.0004 0 0 0 40 8 L 36.6875 8 L 29.40625 8 L 27.59375 8 L 20.316406 8 L 18.507812 8 L 11.226562 8 L 8 8 z"/>
 <path d="m 8,13 v 7 h 3 V 30 H 8 v 7 H 40 V 30 H 37 V 20 h 3 v -7 h -3.3125 -7.28125 -1.8125 -7.277344 -1.808594 -7.28125 z m 10,7 h 2 v 10 h -2 z m 10,0 h 2 v 10 h -2 z" style="opacity:0.2"/>
 <path style="fill:#8b9cbe" d="M 8 12 L 8 19 L 11 19 L 11 29 L 8 29 L 8 36 L 40 36 L 40 29 L 37 29 L 37 19 L 40 19 L 40 12 L 36.6875 12 L 29.40625 12 L 27.59375 12 L 20.316406 12 L 18.507812 12 L 11.226562 12 L 8 12 z M 18 19 L 20 19 L 20 29 L 18 29 L 18 19 z M 28 19 L 30 19 L 30 29 L 28 29 L 28 19 z"/>
 <path style="opacity:0.1;fill:#8b9cbe" d="M 8 8 A 4.0004 4.0004 0 0 0 4 12 L 4 13 A 4.0004 4.0004 0 0 1 8 9 L 11.226562 9 L 18.507812 9 L 20.316406 9 L 27.59375 9 L 29.40625 9 L 36.6875 9 L 40 9 A 4.0004 4.0004 0 0 1 44 13 L 44 12 A 4.0004 4.0004 0 0 0 40 8 L 36.6875 8 L 29.40625 8 L 27.59375 8 L 20.316406 8 L 18.507812 8 L 11.226562 8 L 8 8 z M 41 25.130859 L 41 26.130859 A 4.0004 4.0004 0 0 1 44 30 L 44 29 A 4.0004 4.0004 0 0 0 41 25.130859 z M 7 25.132812 A 4.0004 4.0004 0 0 0 4 29 L 4 29.933594 A 4.0004 4.0004 0 0 1 7 26.132812 L 7 25.132812 z"/>
</svg>
