<svg xmlns="http://www.w3.org/2000/svg" width="48" height="48" version="1">
 <rect style="opacity:0.2" width="39" height="39" x="4" y="5" rx="1.95" ry="1.95"/>
 <rect style="fill:#17191e" width="39" height="39" x="4" y="4" rx="1.95" ry="1.95"/>
 <path style="opacity:0.2;fill:#57c400" d="M 10 4 L 10 10 L 4 10 L 4 13 L 10 13 L 10 18 L 4 18 L 4 21 L 10 21 L 10 26 L 4 26 L 4 29 L 10 29 L 10 34 L 4 34 L 4 37 L 10 37 L 10 43 L 13 43 L 13 37 L 18 37 L 18 43 L 21 43 L 21 37 L 26 37 L 26 43 L 29 43 L 29 37 L 34 37 L 34 43 L 37 43 L 37 37 L 43 37 L 43 34 L 37 34 L 37 29 L 43 29 L 43 26 L 37 26 L 37 21 L 43 21 L 43 18 L 37 18 L 37 13 L 43 13 L 43 10 L 37 10 L 37 4 L 34 4 L 34 10 L 29 10 L 29 4 L 26 4 L 26 10 L 21 10 L 21 4 L 18 4 L 18 10 L 13 10 L 13 4 L 10 4 z M 13 13 L 18 13 L 18 18 L 13 18 L 13 13 z M 21 13 L 26 13 L 26 18 L 21 18 L 21 13 z M 29 13 L 34 13 L 34 18 L 29 18 L 29 13 z M 13 21 L 18 21 L 18 26 L 13 26 L 13 21 z M 21 21 L 26 21 L 26 26 L 21 26 L 21 21 z M 29 21 L 34 21 L 34 26 L 29 26 L 29 21 z M 13 29 L 18 29 L 18 34 L 13 34 L 13 29 z M 21 29 L 26 29 L 26 34 L 21 34 L 21 29 z M 29 29 L 34 29 L 34 34 L 29 34 L 29 29 z"/>
 <path style="fill:#8b9cbe;opacity:0.1" d="M 5.9492188 4 C 4.8689187 4 4 4.8689187 4 5.9492188 L 4 6.9492188 C 4 5.8689187 4.8689187 5 5.9492188 5 L 41.050781 5 C 42.131081 5 43 5.8689187 43 6.9492188 L 43 5.9492188 C 43 4.8689187 42.131081 4 41.050781 4 L 5.9492188 4 z"/>
 <path style="opacity:0.2;fill:none;stroke:#000000;stroke-width:3;stroke-linecap:round;stroke-linejoin:round" d="M 39.5,38.49985 H 34.429644 L 28,9.49985 h -5 m -15.5,29 h 5.070356 L 19,9.49985 h 5"/>
 <path style="fill:none;stroke:#85fc0e;stroke-width:3;stroke-linecap:round;stroke-linejoin:round" d="M 39.5,37.5 H 34.429644 L 28,8.5 h -5 m -15.5,29 h 5.070356 L 19,8.5 h 5"/>
 <path style="opacity:0.2;fill:#8b9cbe" d="M 19 7 A 1.50015 1.50015 0 0 0 17.535156 8.1757812 L 11.367188 36 L 7.5 36 A 1.50015 1.50015 0 0 0 6.0664062 38 A 1.50015 1.50015 0 0 1 7.5 37 L 11.367188 37 L 17.535156 9.1757812 A 1.50015 1.50015 0 0 1 19 8 L 23 8 L 24 8 L 28 8 A 1.50015 1.50015 0 0 1 29.464844 9.1757812 L 35.632812 37 L 39.5 37 A 1.50015 1.50015 0 0 1 40.933594 38 A 1.50015 1.50015 0 0 0 39.5 36 L 35.632812 36 L 29.464844 8.1757812 A 1.50015 1.50015 0 0 0 28 7 L 24 7 L 23 7 L 19 7 z"/>
</svg>
