<svg xmlns="http://www.w3.org/2000/svg" width="48" height="48" version="1">
 <path style="opacity:.2" d="m4 40v1c0 1.108 0.892 2 2 2h36c1.108 0 2-0.892 2-2v-1c0 1.108-0.892 2-2 2h-36c-1.108 0-2-0.892-2-2z"/>
 <rect style="fill:#74d159" width="40" height="36" x="4" y="6" rx="2" ry="2"/>
 <path style="opacity:.2;fill:#8b9cbe" d="m6 6c-1.108 0-2 0.892-2 2v1c0-1.108 0.892-2 2-2h36c1.108 0 2 0.892 2 2v-1c0-1.108-0.892-2-2-2z"/>
 <path style="opacity:.2" d="m10 11v1h-0.5c-0.831 0-1.5 0.669-1.5 1.5s0.669 1.5 1.5 1.5h0.5v1h-1.9082c0.206 0.582 0.754 1 1.4082 1h0.5v1h1v-1h0.5c0.831 0 1.5-0.669 1.5-1.5s-0.669-1.5-1.5-1.5h-0.5v-1h1.9082c-0.206-0.582-0.754-1-1.408-1h-0.5v-1h-1zm-0.5 2h0.5v1h-0.5c-0.277 0-0.5-0.223-0.5-0.5s0.223-0.5 0.5-0.5zm1.5 2h0.5c0.277 0 0.5 0.223 0.5 0.5s-0.2233 0.51287-0.5 0.5h-0.5zm4 2v1h6v-1z"/>
 <path style="fill:#8b9cbe" d="m10 10v1h-0.5c-0.831 0-1.5 0.669-1.5 1.5s0.669 1.5 1.5 1.5h0.5v1h-1.9082c0.206 0.582 0.754 1 1.4082 1h0.5v1h1v-1h0.5c0.831 0 1.5-0.669 1.5-1.5s-0.669-1.5-1.5-1.5h-0.5v-1h1.9082c-0.206-0.582-0.754-1-1.408-1h-0.5v-1h-1zm-0.5 2h0.5v1h-0.5c-0.277 0-0.5-0.223-0.5-0.5s0.223-0.5 0.5-0.5zm1.5 2h0.5c0.277 0 0.5 0.223 0.5 0.5s-0.2233 0.51287-0.5 0.5h-0.5zm4 2v1h6v-1z"/>
 <circle opacity=".2" cx="36" cy="37" r="11"/>
 <circle style="fill:#8561c5" cx="36" cy="36" r="11"/>
 <path style="fill:#8b9cbe" d="m34.446 30-0.13226 1.5804a4.7143 4.7143 0 0 0 -1.3778 0.79689l-1.4364-0.67635-1.5 2.5982 1.3041 0.9057a4.7143 4.7143 0 0 0 -0.072 0.7952 4.7143 4.7143 0 0 0 0.0686 0.79855l-1.301 0.903 1.5 2.5982 1.433-0.67466a4.7143 4.7143 0 0 0 1.3811 0.79185l0.13226 1.5837h3l0.13225-1.5804a4.7143 4.7143 0 0 0 1.3778 -0.79688l1.4364 0.67634 1.5-2.5982-1.3041-0.9057a4.7143 4.7143 0 0 0 0.072 -0.79519 4.7143 4.7143 0 0 0 -0.0686 -0.79855l1.3008-0.90235-1.5-2.5982-1.433 0.67467a4.7143 4.7143 0 0 0 -1.381 -0.79l-0.13225-1.5837h-3zm1.5 4.2857a1.7143 1.7143 0 0 1 1.714 1.714 1.7143 1.7143 0 0 1 -1.714 1.714 1.7143 1.7143 0 0 1 -1.714 -1.714 1.7143 1.7143 0 0 1 1.714 -1.714z"/>
</svg>
