<svg xmlns="http://www.w3.org/2000/svg" width="48" height="48" version="1">
 <path style="opacity:0.2" d="M 14.85709,6.0000009 C 14,6.0000002 13.042991,6.9052901 12.050115,7.6157304 L 4.618193,12.933551 c -0.7988243,0.944485 -0.8267389,2.404508 -0.064731,3.385651 l 17.714385,26.800519 c 0.911986,1.173705 2.552318,1.173705 3.464304,0 L 43.446535,16.319203 c 0.762009,-0.981142 0.734098,-2.441165 -0.06472,-3.385652 L 36.051268,7.6882726 C 35.139971,6.9427689 34,6.0000002 33.142905,6.0000009 h -9.142907 z"/>
 <path style="fill:#00aff2" d="M 14.85709,5.0000007 C 14,5 13.042991,5.9052899 12.050115,6.6157302 L 4.618193,11.933551 c -0.7988243,0.944485 -0.8267389,2.404508 -0.064731,3.385651 l 17.714385,26.800519 c 0.911986,1.173705 2.552318,1.173705 3.464304,0 L 43.446535,15.319203 c 0.762009,-0.981142 0.734098,-2.441165 -0.06472,-3.385652 L 36.051268,6.6882724 C 35.139971,5.9427687 34,5 33.142905,5.0000007 h -9.142907 z"/>
 <path style="opacity:0.1" d="m 43.996277,13.532961 c 0.0065,0.14208 0.0021,0.28451 -0.01302,0.425781 0.01511,-0.14127 0.01948,-0.283701 0.01302,-0.425781 z m -0.01674,0.466797 c -0.05838,0.48826 -0.243897,0.947075 -0.533854,1.320312 L 25.73177,42.119141 C 25.29737,42.677396 24.665133,42.998268 24,42.998047 L 35,14 Z"/>
 <path style="fill:#156fc5" d="M 35,14 24,43 V 13.999758 Z"/>
 <path style="opacity:0.4;fill:#8b9cbe" d="M 14,14 9.0117188,22.064453 22.267578,42.119141 c 0.455071,0.585665 1.091728,0.879674 1.728516,0.880859 9.18e-4,-1.7e-5 0.001,-0.002 0.002,-0.002 z"/>
 <path style="opacity:0.5;fill:#8b9cbe" d="m 14.857422,5 c -0.85709,-7e-7 -1.813765,0.9047941 -2.806641,1.6152344 L 4.6191406,11.933594 C 4.1345036,12.506601 3.9382842,13.269541 4.0253906,14 H 43.974609 c 0.08711,-0.730459 -0.109116,-1.493397 -0.59375,-2.066406 L 36.050781,6.6875 C 35.139484,5.9419963 33.999673,4.9999993 33.142578,5 H 24 Z"/>
 <path style="opacity:0.2;fill:#8b9cbe" d="m 14.857422,5 c -0.85709,-7e-7 -1.813765,0.9047941 -2.806641,1.6152344 L 4.6191406,11.933594 c -0.518212,0.612705 -0.7061434,1.441658 -0.5703125,2.216797 0.082958,-0.442341 0.273458,-0.865813 0.5703125,-1.216797 L 12.050781,7.6152344 C 13.043657,6.9047941 14.000332,5.9999993 14.857422,6 H 24 33.142578 c 0.857095,-7e-7 1.996906,0.9419963 2.908203,1.6875 l 7.330078,5.246094 c 0.296853,0.350985 0.487357,0.774456 0.570313,1.216797 0.135833,-0.775139 -0.0521,-1.604091 -0.570313,-2.216797 L 36.050781,6.6875 C 35.139484,5.9419963 33.999673,4.9999993 33.142578,5 H 24 Z"/>
 <path style="opacity:0.1" d="m 4.0917969,14 c -0.079285,0.326551 -0.1062664,0.66574 -0.066406,1 H 43.974609 c 0.03986,-0.33426 0.01288,-0.673449 -0.06641,-1 z"/>
 <path style="opacity:0.2;fill:#8b9cbe" d="m 43.996094,13.533203 c 0.0065,0.14208 0.0014,0.28451 -0.01367,0.425781 0.01511,-0.14127 0.02013,-0.283701 0.01367,-0.425781 z M 35,14 24,42.998047 c 0.134464,4.5e-5 0.266072,-0.02137 0.396484,-0.04687 L 35,15 h 8.628906 c 0.173429,-0.306461 0.308335,-0.638461 0.351563,-1 z m 8.996094,0.533203 c 0.0065,0.14208 0.0014,0.284511 -0.01367,0.425781 0.01512,-0.141271 0.02017,-0.283701 0.01367,-0.425781 z"/>
 <path style="opacity:0.2;fill:#8b9cbe" d="M 14,14 9.0117188,22.064453 9.3320312,22.548828 14,15 23.638672,42.957031 c 0.118681,0.02098 0.23752,0.04275 0.357422,0.04297 0,0 0.002,-0.002 0.002,-0.002 z"/>
</svg>
