<svg xmlns="http://www.w3.org/2000/svg" width="48" height="48" version="1">
 <path style="opacity:0.2" d="M 15.007597,16.00772 12.994,18.258861 29.362418,34.019608 c 1.369967,4.180544 4.102374,7.167208 6.963343,10.043126 1.034917,1.118637 1.071003,1.298909 2.17242,0.197492 l 2.380961,-2.380961 2.380962,-2.380962 C 44.361521,38.396886 44.181249,38.3608 43.062611,37.325884 40.186693,34.464914 37.198649,31.733888 33.018105,30.363921 L 17.258738,13.994123 Z"/>
 <path style="fill:#69787e" d="M 15.007597,15.00772 12.994,17.258861 29.362418,33.019608 c 1.369967,4.180544 4.102374,7.167208 6.963343,10.043126 1.034917,1.118637 1.071003,1.298909 2.17242,0.197492 l 2.380961,-2.380961 2.380962,-2.380962 C 44.361521,37.396886 44.181249,37.3608 43.062611,36.325884 40.186693,33.464914 37.198649,30.733888 33.018105,29.363921 L 17.258738,12.994123 Z"/>
 <path style="fill:#394f63" d="m 15.006956,15.00741 2.250969,-2.01288 15.760013,16.368488 c 4.180545,1.369967 7.168762,4.102595 10.044679,6.963565 1.118638,1.034917 1.298912,1.070108 0.197495,2.171525 l -2.381533,2.380925 z"/>
 <path style="opacity:0.1;fill:#8b9cbe" d="m 17.258109,12.994141 -2.251953,2.013671 0.527344,0.527344 1.724609,-1.541015 15.759766,16.36914 c 4.180545,1.369967 7.169005,4.101921 10.044922,6.962891 0.29148,0.269665 0.515842,0.470164 0.673828,0.640625 0.477981,-0.603221 0.219321,-0.814321 -0.673828,-1.640625 -2.875917,-2.86097 -5.864377,-5.592924 -10.044922,-6.962891 z"/>
 <rect style="opacity:0.2" width="25.233" height="8.411" x="-13.32" y="17.71" rx="2.166" ry="2.166" transform="rotate(-45)"/>
 <rect style="fill:#f2654f" width="25.233" height="8.411" x="-12.62" y="17.01" rx="2.166" ry="2.166" transform="rotate(-45)"/>
 <path style="opacity:0.1" d="M 22.859375,6.0190626 5.0195316,23.858906 7.1406257,25.98 24.980469,8.1401567 Z"/>
 <path style="fill:#69787e" d="M 22.859375,5.0195326 5.0195316,22.859376 7.1406257,24.98047 24.980469,7.1406267 Z"/>
 <path style="fill:#4b565a" d="M 14.052734 10 L 10 14.052734 L 10 20 L 15.947266 20 L 20 15.947266 L 20 10 L 14.052734 10 z"/>
 <path style="opacity:0.2" d="m 19.18142,11.159 -0.685578,0.68558 0.685578,0.685578 0.68558,-0.685578 z m -1.371158,1.371158 -0.685578,0.68558 0.685578,0.685578 0.68558,-0.685578 z m -1.371157,1.371158 -0.685578,0.685579 0.685578,0.685578 0.685579,-0.685578 z m -1.371158,1.371157 -0.685578,0.68558 0.685578,0.685578 0.68558,-0.685578 z m -1.371158,1.371158 -0.687473,0.68558 0.687473,0.687473 0.68558,-0.687473 z m -1.373051,1.373053 -0.68558,0.685578 0.68558,0.68558 0.685578,-0.68558 z M 10.952581,19.387842 10.267,20.073419 10.952581,20.759 11.638158,20.073419 Z"/>
 <path style="fill:#40c900" d="m 19.18142,10.159 -0.685578,0.68558 0.685578,0.685578 0.68558,-0.685578 z m -1.371158,1.371158 -0.685578,0.68558 0.685578,0.685578 0.68558,-0.685578 z m -1.371157,1.371158 -0.685578,0.685579 0.685578,0.685578 0.685579,-0.685578 z m -1.371158,1.371157 -0.685578,0.68558 0.685578,0.685578 0.68558,-0.685578 z m -1.371158,1.371158 -0.687473,0.68558 0.687473,0.687473 0.68558,-0.687473 z m -1.373051,1.373053 -0.68558,0.685578 0.68558,0.68558 0.685578,-0.68558 z M 10.952581,18.387842 10.267,19.073419 10.952581,19.759 11.638158,19.073419 Z"/>
 <path style="opacity:0.2;fill:#8b9cbe" d="m 20.947266,4 c -0.553579,0 -1.10707,0.2125385 -1.53125,0.6367188 L 4.6367188,19.416016 c -0.5529732,0.552973 -0.7401636,1.325141 -0.5722657,2.03125 0.089834,-0.376667 0.27725,-0.736235 0.5722657,-1.03125 L 19.416016,5.6367188 c 0.84836,-0.8483606 2.214139,-0.8483606 3.0625,0 l 2.884765,2.8847656 c 0.295388,0.2953874 0.482578,0.6540605 0.572266,1.03125 0.168496,-0.7064935 -0.01892,-1.4779051 -0.572266,-2.03125 L 22.478516,4.6367188 C 22.054335,4.2125385 21.500844,4 20.947266,4 Z"/>
</svg>
