<svg xmlns="http://www.w3.org/2000/svg" width="48" height="48" version="1">
 <path opacity=".2" d="m41 5.6v28.8c0 0.8864-0.7136 1.6-1.6 1.6h-24.8c-0.8864 0-1.6-0.7136-1.6-1.6v-28.8c0-0.8864 0.714-1.6 1.6-1.6h24.8c0.886 0 1.6 0.7136 1.6 1.6z"/>
 <path style="fill:#7767c0" d="m41 4.6v28.8c0 0.8864-0.7136 1.6-1.6 1.6h-24.8c-0.8864 0-1.6-0.7136-1.6-1.6v-28.8c0-0.8864 0.714-1.6 1.6-1.6h24.8c0.886 0 1.6 0.7136 1.6 1.6z"/>
 <path style="fill:#9182d7" d="m33 12.6v28.8c0 0.886-0.714 1.6-1.6 1.6h-24.8c-0.8864 0-1.6-0.714-1.6-1.6v-28.8c0-0.8864 0.7136-1.6 1.6-1.6h24.8c0.8864 0 1.6 0.7136 1.6 1.6z"/>
 <path opacity=".2" d="m5 41.4v1c0 0.887 0.7132 1.6 1.5996 1.6h24.8c0.887 0 1.6-0.713 1.6-1.6v-1c0 0.887-0.713 1.6-1.6 1.6h-24.8c-0.8868 0-1.6-0.713-1.6-1.6z"/>
 <path fill="#fff" opacity=".2" d="m6.5996 11c-0.8864 0-1.5996 0.713-1.5996 1.6v1c0-0.887 0.7132-1.6 1.5996-1.6h24.801c0.886 0 1.599 0.713 1.599 1.6v-1c0-0.887-0.713-1.6-1.6-1.6h-24.8z"/>
 <path fill="#fff" style="opacity:.1" d="m14.6 3.0004c-0.887 0-1.6 0.7132-1.6 1.5996v1c0-0.8864 0.71321-1.5996 1.5996-1.5996h24.801c0.886 0 1.599 0.7132 1.599 1.5996v-1c0-0.8864-0.713-1.5996-1.6-1.5996h-24.801z"/>
 <circle opacity=".2" cx="36" cy="37" r="11"/>
 <path style="opacity:.2" d="m19 18c-5.522872 0-9.999987 4.477153-9.999987 9.999988 0 5.522872 4.477115 10.000025 9.999987 10.000025 5.522873 0 9.999988-4.477153 9.999988-10.000025 0-5.522834-4.477115-9.999987-9.999988-9.999988zm-0.935546 1.994154c0.10885-0.01134 0.245669 0.0076 0.355276 0 0.01134 0.05216-0.0771 0.238867-0.201071 0.509745-0.790186 1.726299-0.836901 3.747553-0.103559 4.82812 0.132661 0.19578 0.253984 0.382035 0.253984 0.406262 0 0.02268-0.142866 0.05065-0.30463 0.05065-0.379918 0-0.740069-0.230929-1.47462-0.812523-0.326174-0.25852-0.749708-0.474973-0.914041-0.507817-0.258142-0.0514-0.326174-0.03024-0.660171 0.30463-0.310677 0.310677-0.406261 0.479319-0.406261 0.763653 0 1.078224 1.280844 1.933153 3.66017 2.437493 3.231232 0.68485 4.026104 1.298986 4.115225 2.998072 0.111874 2.130595-1.021303 3.736744-3.505852 4.980473-0.296693 0.148535-0.484951 0.207874-0.609373 0.255874-0.05518-0.0038-0.0994 0.0038-0.154205 0-0.02268-0.06576-0.05065-0.218079-0.05065-0.507818 0-1.131628-0.445077-2.297801-1.11719-2.949203-0.180283-0.174992-0.684586-0.544706-1.11719-0.812485-0.432567-0.267968-0.869518-0.57823-0.966804-0.710967-0.161007-0.220346-0.172724-0.354897-0.04875-0.761688 0.225637-0.743093 0.493417-1.159408 1.015634-1.628939 0.273638-0.246047 0.548712-0.450141 0.609373-0.455055 0.06085-0.0038-0.349228-0.130015-0.964837-0.255874-0.615723-0.126236-1.51869-0.390047-1.984366-0.558576-0.851565-0.308032-2.001146-0.955691-2.439458-1.423823l-0.05065-0.05065c0.628007-2.501594 2.390211-4.551005 4.726564-5.539049 0.488882-0.20674 0.993449-0.348094 1.525417-0.457058 0.264945-0.05405 0.538886-0.07559 0.812486-0.103559zm7.625008 3.812485c0.190866 0.117921 0.913247 1.680227 1.119118 2.441424 0.265701 0.982639 0.246425 2.68199 0 3.658205-0.09373 0.371528-0.215811 0.71845-0.255874 0.761688-0.04006 0.04309-0.186709-0.203338-0.357543-0.505853-0.170835-0.302362-0.712895-0.945751-1.166022-1.423823-1.307868-1.380057-1.514646-2.099754-0.966803-3.201184 0.276283-0.555402 1.479118-1.821695 1.626973-1.730457z"/>
 <path style="fill:#8b9cbe" d="m19 17.000012c-5.522872 0-9.999987 4.477116-9.999987 9.999988s4.477115 9.999988 9.999987 9.999988c5.522873 0 9.999988-4.477115 9.999988-9.999987 0-5.522873-4.477115-9.999988-9.999988-9.999989zm-0.935546 1.994117c0.10885-0.01134 0.245669 0.0076 0.355276 0 0.01134 0.05216-0.0771 0.238866-0.201071 0.509783-0.790186 1.726299-0.836901 3.747515-0.103559 4.828119 0.132661 0.19578 0.253984 0.382035 0.253984 0.406262 0 0.02268-0.142866 0.05065-0.30463 0.05065-0.379918 0-0.740069-0.230929-1.47462-0.812485-0.326174-0.25852-0.749708-0.474974-0.914041-0.507818-0.258142-0.0514-0.326174-0.03024-0.660171 0.30463-0.310677 0.310676-0.406261 0.47932-0.406261 0.763654 0 1.078223 1.280844 1.933151 3.66017 2.437491 3.231232 0.684851 4.026104 1.298948 4.115225 2.998035 0.111874 2.130633-1.021303 3.736743-3.505852 4.980472-0.296693 0.148536-0.484951 0.207874-0.609373 0.255874-0.05518-0.0038-0.0994 0.0038-0.154205 0-0.02268-0.06576-0.05065-0.218078-0.05065-0.507817 0-1.131628-0.445077-2.297839-1.11719-2.949203-0.180283-0.174992-0.684586-0.544706-1.11719-0.812523-0.432567-0.267969-0.869518-0.578192-0.966804-0.710929-0.161007-0.220347-0.172724-0.354898-0.04875-0.761726 0.225637-0.743055 0.493417-1.159408 1.015634-1.628901 0.273638-0.246047 0.548712-0.45018 0.609373-0.455055 0.06085-0.0038-0.349228-0.130016-0.964837-0.255874-0.615723-0.126236-1.51869-0.390047-1.984366-0.558614-0.851565-0.308031-2.001146-0.955654-2.439458-1.423824-0.0189-0.0189-0.03402-0.03402-0.05065-0.05064 0.628007-2.501632 2.390211-4.551005 4.726564-5.539087 0.488882-0.20674 0.993449-0.348094 1.525417-0.45702 0.264945-0.05405 0.538886-0.07559 0.812486-0.103559zm7.625008 3.812523c0.190866 0.117921 0.913247 1.680227 1.119118 2.441386 0.265701 0.982677 0.246425 2.682028 0 3.658204-0.09373 0.371529-0.215811 0.718451-0.255874 0.761726-0.04006 0.04309-0.186709-0.203339-0.357543-0.505852-0.170835-0.302362-0.712895-0.945751-1.166022-1.423824-1.307868-1.380094-1.514646-2.099754-0.966803-3.201184 0.276283-0.555401 1.479118-1.821694 1.626973-1.730456z"/>
 <circle style="fill:#4f4f4f" cx="36" cy="36" r="11"/>
 <path style="fill:#8b9cbe" d="m38 29v6h2.0625l-4.125 5-4.125-5h2.1875v-6zm-7 11.000274h10v1.999726h-10z"/>
</svg>
