<svg xmlns="http://www.w3.org/2000/svg" width="48" height="48" version="1.1">
 <path style="opacity:0.2" d="M 13.289943,42.55663 C 8.0149583,39.534205 7.7922745,39.347793 8.0805896,38.195407 8.3663422,37.053244 12.677812,32.988951 14.789194,31.871419 L 16.435583,31 l 1.499735,1.191617 c 1.888681,1.500657 3.624372,2.127604 5.945722,2.147644 2.329885,0.02012 3.819623,-0.495132 5.991675,-2.072298 l 1.74234,-1.265143 1.650212,0.86438 c 0.907619,0.475409 2.829219,2.014834 4.270229,3.420944 3.618249,3.530612 3.610348,3.553392 -2.439404,7.03902 -1.683696,0.97008 -3.247846,1.828113 -4.223045,2.324978 -1.075881,0.674956 -1.204566,0.199343 -1.81573,-0.510952 C 28.157989,43.255548 26.494099,42.080647 24,42.080647 c -2.719071,0 -4.359158,1.396417 -5.130738,2.290772 -0.55218,0.961474 -0.886163,0.617357 -1.640693,0.290491 -0.960806,-0.459276 -2.416017,-1.232866 -3.938626,-2.10528 z"/>
 <path style="opacity:0.2" d="M 4.2656125,31.751787 C 4.1195353,31.605051 4.0000186,28.943928 4.0000186,25.838182 l 0,-5.646812 1.8714121,-0.807378 c 3.1957,-1.378705 4.5977613,-3.606376 4.1344093,-6.904267 -0.1120331,-0.797347 -0.08763,-1.632949 0.05432,-1.856895 0.331959,-0.523988 9.421193,-5.6228299 10.033622,-5.6228299 0.2548,0 0.616911,0.1943188 0.804694,0.4318201 1.204623,1.5235383 2.434953,7.2752558 2.018961,9.4384538 -0.187194,0.973384 -0.477237,1.234074 -2.078383,1.868032 -2.256033,0.89325 -4.149153,2.712917 -5.169923,4.969332 -0.611869,1.352524 -0.736158,2.191894 -0.637189,4.303098 l 0.122948,2.622815 -1.183742,0.779555 c -2.552249,1.680773 -8.8497928,3.19826 -9.7054875,2.338681 z"/>
 <path style="opacity:0.2" d="M 43.734406,31.751787 C 43.880484,31.605051 44,28.943928 44,25.838182 l 0,-5.646812 -1.871412,-0.807378 c -3.195701,-1.378705 -4.497004,-3.606376 -4.033652,-6.904267 0.112034,-0.797347 0.08763,-1.632949 -0.05432,-1.856895 -0.331965,-0.523988 -9.521957,-5.6228299 -10.134386,-5.6228299 -0.2548,0 -0.616911,0.1943188 -0.804694,0.4318201 -1.204622,1.5235383 -2.434953,7.2752558 -2.01896,9.4384538 0.187193,0.973384 0.477236,1.234074 2.078383,1.868032 2.256032,0.89325 4.149152,2.712917 5.169922,4.969332 0.611869,1.352524 0.736158,2.191894 0.637189,4.303098 l -0.122948,2.622815 1.183743,0.779555 c 2.552249,1.680773 8.849793,3.19826 9.705487,2.338681 z"/>
 <path style="fill:#666666" d="M 13.289943,41.55663 C 8.0149583,38.534205 7.7922745,38.347793 8.0805896,37.195407 8.3663422,36.053244 12.677812,31.988951 14.789194,30.871419 L 16.435583,30 l 1.499735,1.191617 c 1.888681,1.500657 3.624372,2.127604 5.945722,2.147644 2.329885,0.02012 3.819623,-0.495132 5.991675,-2.072298 l 1.74234,-1.265143 1.650212,0.86438 c 0.907619,0.475409 2.829219,2.014834 4.270229,3.420944 3.618249,3.530612 3.610348,3.553392 -2.439404,7.03902 -1.683696,0.97008 -3.247846,1.828113 -4.223045,2.324978 -1.075881,0.674956 -1.204566,0.199343 -1.81573,-0.510952 C 28.157989,42.255548 26.494099,41.080647 24,41.080647 c -2.719071,0 -4.359158,1.396417 -5.130738,2.290772 -0.55218,0.961474 -0.886163,0.617357 -1.640693,0.290491 -0.960806,-0.459276 -2.416017,-1.232866 -3.938626,-2.10528 z"/>
 <circle style="opacity:0.2" cx="24" cy="25" r="10"/>
 <path style="fill:#7f7f7f" d="M 4.2656125,30.751787 C 4.1195353,30.605051 4.0000186,27.943928 4.0000186,24.838182 l 0,-5.646812 1.8714121,-0.807378 c 3.1957,-1.378705 4.5977613,-3.606376 4.1344093,-6.904267 -0.1120331,-0.797347 -0.08763,-1.6329495 0.05432,-1.8568955 0.331959,-0.5239882 9.421193,-5.6228296 10.033622,-5.6228296 0.2548,0 0.616911,0.1943188 0.804694,0.4318201 1.204623,1.5235383 2.434953,7.275256 2.018961,9.438454 -0.187194,0.973384 -0.477237,1.234074 -2.078383,1.868032 -2.256033,0.89325 -4.149153,2.712917 -5.169923,4.969332 -0.611869,1.352524 -0.736158,2.191894 -0.637189,4.303098 l 0.122948,2.622815 -1.183742,0.779555 c -2.552249,1.680773 -8.8497928,3.19826 -9.7054875,2.338681 z"/>
 <path style="fill:#999999" d="M 43.734406,30.751787 C 43.880484,30.605051 44,27.943928 44,24.838182 L 44,19.19137 42.128588,18.383992 C 38.932887,17.005287 37.631584,14.777616 38.094936,11.479725 38.20697,10.682378 38.182567,9.8467755 38.04062,9.6228295 37.708655,9.0988413 28.518663,3.9999999 27.906234,3.9999999 c -0.2548,0 -0.616911,0.1943188 -0.804694,0.4318201 -1.204622,1.5235383 -2.434953,7.275256 -2.01896,9.438454 0.187193,0.973384 0.477236,1.234074 2.078383,1.868032 2.256032,0.89325 4.149152,2.712917 5.169922,4.969332 0.611869,1.352524 0.736158,2.191894 0.637189,4.303098 l -0.122948,2.622815 1.183743,0.779555 c 2.552249,1.680773 8.849793,3.19826 9.705487,2.338681 z"/>
 <circle style="fill:#8b9cbe" cx="24" cy="24" r="10"/>
 <path style="fill:#8b9cbe;opacity:0.2" d="M 20.09375 4 C 19.481321 4 10.392506 9.0990587 10.060547 9.6230469 C 9.9525118 9.7934873 9.9361883 10.341073 9.9726562 10.933594 C 9.9934948 10.795145 10.021916 10.683993 10.060547 10.623047 C 10.392506 10.099059 19.481321 5 20.09375 5 C 20.34855 5 20.710655 5.1941393 20.898438 5.4316406 C 21.870258 6.6607437 22.843328 10.617507 22.970703 13.246094 C 23.118076 10.771084 22.005525 5.8318222 20.898438 4.4316406 C 20.710655 4.1941393 20.34855 4 20.09375 4 z M 10.052734 13.138672 C 9.8861309 15.536488 8.4940599 17.253152 5.8710938 18.384766 L 4 19.191406 L 4 20.191406 L 5.8710938 19.384766 C 8.8450367 18.101732 10.243329 16.070483 10.052734 13.138672 z M 15.019531 24.429688 C 15.002119 24.881332 15.00165 25.378345 15.03125 26.009766 L 15.109375 27.662109 L 15.154297 27.632812 L 15.03125 25.009766 C 15.020782 24.786464 15.024691 24.626645 15.019531 24.429688 z"/>
 <path style="fill:#8b9cbe;opacity:0.2" d="M 27.90625 4 C 27.65145 4 27.289346 4.1941393 27.101562 4.4316406 C 25.994475 5.8318222 24.881923 10.771084 25.029297 13.246094 C 25.156672 10.617507 26.129743 6.6607437 27.101562 5.4316406 C 27.289345 5.1941393 27.65145 5 27.90625 5 C 28.518679 5 37.709051 10.099059 38.041016 10.623047 C 38.079167 10.683236 38.10615 10.791797 38.126953 10.927734 C 38.162795 10.337631 38.14869 9.7929218 38.041016 9.6230469 C 37.709051 9.0990587 28.518679 4 27.90625 4 z M 38.041016 13.191406 C 37.857782 16.094838 39.172742 18.109403 42.128906 19.384766 L 44 20.191406 L 44 19.191406 L 42.128906 18.384766 C 39.52525 17.261484 38.19985 15.561428 38.041016 13.191406 z M 32.980469 24.429688 C 32.975309 24.626645 32.979218 24.786464 32.96875 25.009766 L 32.845703 27.632812 L 32.890625 27.662109 L 32.96875 26.009766 C 32.99835 25.378345 32.997881 24.881332 32.980469 24.429688 z"/>
</svg>
