<svg xmlns="http://www.w3.org/2000/svg" width="48" height="48" version="1">
 <rect style="opacity:0.2" width="40" height="40" x="4" y="5" rx="12" ry="12"/>
 <path style="fill:#f746b3" d="m 16,4 h 16 c 6.648,0 12,5.352 12,12 v 8 H 4 V 16 C 4,9.352 9.352,4 16,4 Z"/>
 <path style="opacity:0.2;fill:#8b9cbe" d="M 16,4 C 9.352,4 4,9.352 4,16 v 1 C 4,10.352 9.352,5 16,5 h 16 c 6.648,0 12,5.352 12,12 V 16 C 44,9.352 38.648,4 32,4 Z"/>
 <path style="fill:#fbb54c" d="m 16,44 h 16 c 6.648,0 12,-5.352 12,-12 V 24 H 4 v 8 c 0,6.648 5.352,12 12,12 z"/>
 <path style="opacity:0.1" d="m 16,9 h 16 c 4.501189,0 8,3.498811 8,8 v 16 c 0,4.501189 -3.498811,8 -8,8 H 16 C 11.498811,41 8,37.501189 8,33 V 17 c 0,-4.501189 3.498811,-8 8,-8 z"/>
 <path style="fill:#17191e" d="m 16,8 h 16 c 4.501189,0 8,3.498811 8,8 v 16 c 0,4.501189 -3.498811,8 -8,8 H 16 C 11.498811,40 8,36.501189 8,32 V 16 c 0,-4.501189 3.498811,-8 8,-8 z"/>
 <path style="opacity:0.2" d="M 18.125,13 12,18.443359 14.625,19.857422 12.875,25 19,19.556641 16.375,18.142578 Z M 21,23 v 2 h 7 v -2 z"/>
 <path style="fill:#8b9cbe" d="M 18.125 12 L 12 17.443359 L 14.625 18.857422 L 12.875 24 L 19 18.556641 L 16.375 17.142578 L 18.125 12 z M 21 22 L 21 24 L 28 24 L 28 22 L 21 22 z"/>
</svg>
