<svg xmlns="http://www.w3.org/2000/svg" width="48" height="48" version="1">
 <rect style="fill:#b2bfd9" width="40" height="40" x="4" y="4" rx="3" ry="3"/>
 <path style="opacity:0.2;fill:#8b9cbe" d="M 7,4 C 5.338,4 4,5.338 4,7 V 8 C 4,6.338 5.338,5 7,5 h 34 c 1.662,0 3,1.338 3,3 V 7 C 44,5.338 42.662,4 41,4 Z"/>
 <path style="opacity:0.2" d="m 4,41 v 1 c 0,1.662 1.338,3 3,3 h 34 c 1.662,0 3,-1.338 3,-3 v -1 c 0,1.662 -1.338,3 -3,3 H 7 C 5.338,44 4,42.662 4,41 Z"/>
 <g style="fill:#17191e">
  <path style="fill:#17191e" d="M 24,18 A 5,5 0 0 0 19,23 5,5 0 0 0 24,28 5,5 0 0 0 29,23 5,5 0 0 0 24,18 Z M 24,20 A 3,3 0 0 1 27,23 3,3 0 0 1 24,26 3,3 0 0 1 21,23 3,3 0 0 1 24,20 Z"/>
  <rect style="fill:#17191e" width="6" height="2" x="-3.75" y="-26.25" transform="rotate(135)"/>
  <rect style="fill:#17191e" width="6" height="2" x="-3.75" y="-22.25" transform="rotate(135)"/>
  <rect style="fill:#17191e" width="6" height="2" x="21" y="30"/>
  <rect style="fill:#17191e" width="6" height="2" x="21" y="34"/>
  <rect style="fill:#17191e" width="6" height="6" x="-36.25" y="7.75" transform="rotate(-135)"/>
 </g>
</svg>
