<svg xmlns="http://www.w3.org/2000/svg" width="48" height="48" version="1.0">
 <circle style="opacity:0.2" cx="24" cy="-25" r="20" transform="scale(1,-1)"/>
 <circle style="fill:#b2bfd9" cx="24" cy="-24" r="20" transform="scale(1,-1)"/>
 <path style="fill:#8b9cbe;opacity:0.2" d="M 24 4 A 20 20 0 0 0 4 24 A 20 20 0 0 0 4.0214844 24.417969 A 20 20 0 0 1 24 5 A 20 20 0 0 1 43.978516 24.582031 A 20 20 0 0 0 44 24 A 20 20 0 0 0 24 4 z"/>
 <circle style="fill:#077272" cx="24" cy="24" r="16"/>
 <path style="opacity:0.1" d="M 24,13 A 12,12 0 0 0 12,25 12,12 0 0 0 24,37 12,12 0 0 0 36,25 12,12 0 0 0 24,13 Z m 0,5 a 7,7 0 0 1 7,7 7,7 0 0 1 -7,7 7,7 0 0 1 -7,-7 7,7 0 0 1 7,-7 z"/>
 <path style="fill:#248989" d="M 24 12 A 12 12 0 0 0 12 24 A 12 12 0 0 0 24 36 A 12 12 0 0 0 36 24 A 12 12 0 0 0 24 12 z M 24 17 A 7 7 0 0 1 31 24 A 7 7 0 0 1 24 31 A 7 7 0 0 1 17 24 A 7 7 0 0 1 24 17 z"/>
 <path style="opacity:0.2" transform="matrix(0.92376046,0,0,1,2.3848536,0.28767395)" d="m 35.306931,24.712326 -8.660254,5 -8.660254,4.999999 0,-9.999999 0,-9.999999 8.660254,4.999999 z"/>
 <path style="fill:#8b9cbe" transform="matrix(0.92376046,0,0,1,2.3848536,-0.71232605)" d="m 35.306931,24.712326 -8.660254,5 -8.660254,4.999999 0,-9.999999 0,-9.999999 8.660254,4.999999 z"/>
 <path style="opacity:0.1;fill:#8b9cbe" d="M 24 12 A 12 12 0 0 0 12 24 A 12 12 0 0 0 12.019531 24.40625 A 12 12 0 0 1 24 13 A 12 12 0 0 1 35.980469 24.59375 A 12 12 0 0 0 36 24 A 12 12 0 0 0 24 12 z M 30.976562 24.458984 A 7 7 0 0 1 24 31 A 7 7 0 0 1 17.023438 24.541016 A 7 7 0 0 0 17 25 A 7 7 0 0 0 24 32 A 7 7 0 0 0 31 25 A 7 7 0 0 0 30.976562 24.458984 z"/>
 <path style="opacity:0.1" d="M 39.978516 23.419922 A 16 16 0 0 1 24 39 A 16 16 0 0 1 8.0214844 23.580078 A 16 16 0 0 0 8 24 A 16 16 0 0 0 24 40 A 16 16 0 0 0 40 24 A 16 16 0 0 0 39.978516 23.419922 z"/>
</svg>
