<svg width="48" height="48" version="1.1" xmlns="http://www.w3.org/2000/svg">
 <path d="m32.044922 14.992188a2.0002 2.0002 0 0 0-0.677734 3.904296s0.680222 0.227629 1.470703 0.566407c0.790481 0.338777 1.719451 0.922576 1.748047 0.951171 0.882148 0.882149 1.244256 1.468983 1.375 1.730469 0.05442 0.108848 0.05701 0.128075 0.05664 0.126953a2.0002 2.0002 0 0 0 3.982422-0.271484s-0.0225-0.394696-0.0918-0.671875c-0.06929-0.277179-0.184512-0.603399-0.369141-0.972656-0.369256-0.738514-1.007148-1.65168-2.125-2.769531-0.971404-0.971405-2.042434-1.387606-3.001953-1.798829-0.959519-0.411222-1.779297-0.683593-1.779297-0.683593a2.0002 2.0002 0 0 0-0.58789-0.111328z" style="opacity:.2"/>
 <path d="m26 34s1-6 6-6c3 0 6 4 6 4s2-5 4-5c3 0 2 10 2 10s-2 6-5 6c-15 0-13-9-13-9z" style="opacity:.2"/>
 <path d="m26 33s1-6 6-6c3 0 6 4 6 4s2-5 4-5c3 0 2 10 2 10s-2 6-5 6c-15 0-13-9-13-9z" style="fill:#3b655d"/>
 <path d="m42 26c-2 0-4 5-4 5s-3-4-6-4c-5 0-6 6-6 6s-0.133648 0.641914-0.060547 1.572266c0.026038-0.33488 0.060547-0.572266 0.060547-0.572266s1-6 6-6c3 0 6 4 6 4s2-5 4-5c1.74694 0 2.124975 3.376327 2.146484 6.208984 0.061219-2.959852-0.184134-7.208984-2.146484-7.208984z" style="fill:#8b9cbe;opacity:.1"/>
 <path d="m29 11 2-3" style="fill:none;stroke-linecap:round;stroke-linejoin:round;stroke-width:4;stroke:#d3c76a"/>
 <path d="m30.960938 5.9765625a2.0002 2.0002 0 0 0-1.625 0.9140625l-2 3a2.0002 2.0002 0 0 0-0.28711 1.632813 2.0002 2.0002 0 0 1 0.28711-0.632813l2-3a2.0002 2.0002 0 0 1 1.625-0.9140625 2.0002 2.0002 0 0 1 1.988281 1.5 2.0002 2.0002 0 0 0-1.988281-2.5z" style="fill:#8b9cbe;opacity:.1"/>
 <path d="m32 16s3 1 4 2c2 2 2 3 2 3" style="fill:none;stroke-linecap:round;stroke-linejoin:round;stroke-width:4;stroke:#fcbbb8"/>
 <path d="m19 43c20 0 17-8 17-8l-4-15s7 0 7-3c0-1-1-8-14-8-17 0-19 14-19 14s-9 20 13 20z" style="opacity:.2"/>
 <path d="m19 42c20 0 17-8 17-8l-4-15s7 0 7-3c0-1-1-8-14-8-17 0-19 14-19 14s-9 20 13 20z" style="fill:#4f877c"/>
 <path d="M 25 8 C 8 8 6 22 6 22 C 6 22 4.0258167 26.389154 4.1875 31.054688 C 4.3029381 26.781474 6 23 6 23 C 6 23 8 9 25 9 C 36.510876 9 38.606846 14.470339 38.9375 16.421875 C 38.97075 16.2865 39 16.15 39 16 C 39 15 38 8 25 8 z M 32.263672 19.988281 C 32.215879 19.988938 32 20 32 20 L 36 35 C 36 35 36.072009 35.219869 36.119141 35.5625 C 36.225822 34.647534 36 34 36 34 L 32.263672 19.988281 z " style="fill:#8b9cbe;opacity:.2"/>
 <path d="m5.3769531 23.662109c-1.5893173 4.778253-4.50741 18.337891 13.623047 18.337891 20 0 17-8 17-8l-2.529297-9.488281c-1.37681 0.85541-2.470703 2.488281-2.470703 2.488281h-3s-1-3-4-3-4 3-4 3-1-1-2-1c-3 0-5 2-5 2s-1-1-2-1c-3 0-5 2-5 2s0.6250834-3.78304-0.6230469-5.337891z" style="fill:#e6dfa4"/>
 <path d="m5.9999997 35s1-6 6.0000003-6c3 0 6 4 6 4s2-5 4-5c3 0 2 10 2 10s-2 6-5 6c-15 0-13-9-13-9z" style="opacity:.2"/>
 <path d="m6 34s1-6 6-6c3 0 6 4 6 4s2-5 4-5c3 0 2 10 2 10s-2 6-5 6c-15 0-13-9-13-9z" style="fill:#4f877c"/>
 <path d="m22 27c-2 0-4 5-4 5s-3-4-6-4c-5 0-6 6-6 6s-0.133648 0.641914-0.0605469 1.572266c0.0260379-0.33488 0.0605469-0.572266 0.0605469-0.572266s0.9999997-6 6-6c3 0 6 4 6 4s2-5 4-5c1.74694 0 2.124975 3.376327 2.146484 6.208984 0.061219-2.959852-0.184134-7.208984-2.146484-7.208984z" style="fill:#8b9cbe;opacity:.2"/>
 <path d="m10 25-2 4s0 3 5 3 5-3 5-3l-3-5z" style="opacity:.2"/>
 <path d="m10 24-2 4s0 3 5 3 5-3 5-3l-3-5z" style="fill:#4f877c"/>
 <path d="m23 11-2-3" style="fill:none;stroke-linecap:round;stroke-linejoin:round;stroke-width:4;stroke:#e6dfa4"/>
 <circle cx="29" cy="14" r="3" style="opacity:.2"/>
 <circle cx="29" cy="13" r="3" style="fill:#8b9cbe"/>
 <circle cx="29" cy="13" r="1" style="fill:#17191e"/>
 <path d="m4 30c0-12 3-20 14-20 2 7 8 15 12 15 3 0 1-3 3-3s1 2 1 2-1 3-4 3c-4 0-12-4-26 3z" style="opacity:.2"/>
 <path d="m4 29c0-12 3-20 14-20 2 7 8 15 12 15 3 0 1-3 3-3s1 2 1 2-1 3-4 3c-4 0-12-4-26 3z" style="fill:#af2323"/>
 <path d="m18 9c-11 0-14 8-14 20 0.0059737-0.002987 0.0116066-0.00483 0.0175781-0.007812 0.17061-11.431549 3.2969197-18.992188 13.982422-18.992188 2 7 8 15 12 15 3 0 1-3 3-3 0.700889 0 1.020075 0.251221 1.15625 0.570312 0.170185-0.586718 0.252324-1.570312-1.15625-1.570312-2 0 0 3-3 3-4 0-10-8-12-15z" style="fill:#8b9cbe;opacity:.1"/>
 <path d="m29 25s-3 0-3 2c0 3 0.996876 5.015765 1 5 0 0 3-2 2-5h2c-1 3 1 5 1 5s1-2 1-5c0-2-2-2-2-2z" style="opacity:.2"/>
 <path d="m29 24s-3 0-3 2c0 3 0.996876 5.015765 1 5 0 0 3-2 2-5h2c-1 3 1 5 1 5s1-2 1-5c0-2-2-2-2-2z" style="fill:#d63030"/>
 <path d="m29 24s-3 0-3 2c0 0.244999 0.015131 0.471825 0.027344 0.703125 0.284067-1.699814 2.972656-1.703125 2.972656-1.703125h2s1.806582 0.020353 1.96875 1.765625c0.014411-0.250276 0.03125-0.498828 0.03125-0.765625 0-2-2-2-2-2h-2zm0 3c0.083639 0.250918 0.130339 0.492174 0.162109 0.728516 0.033022-0.233256 0.046535-0.475685 0.03125-0.728516h-0.193359zm1.769531 0c-0.055239 0.409455-0.05482 0.789623-0.019531 1.146484 0.038363-0.363192 0.116203-0.745093 0.25-1.146484h-0.230469z" style="fill:#8b9cbe;opacity:.2"/>
 <path d="m20.978516 5.9765625a2.0002 2.0002 0 0 0-1.914063 2.5507813 2.0002 2.0002 0 0 1 1.935547-1.5273438 2.0002 2.0002 0 0 1 1.685547 0.9140625l2 2.9999995a2.0002 2.0002 0 0 1 0.273437 0.582032 2.0002 2.0002 0 0 0-0.294922-1.605469l-2-3a2.0002 2.0002 0 0 0-1.685546-0.9140625z" style="fill:#8b9cbe;opacity:.2"/>
</svg>
