<svg xmlns="http://www.w3.org/2000/svg" width="48" height="48" version="1">
 <rect style="fill:#40a459" width="40" height="40" x="4" y="4" rx="20" ry="20"/>
 <path style="opacity:0.2" d="m 19.343939,13.292512 c -0.296375,-0.0084 -0.576219,0.01758 -0.761718,0.08008 -0.91,0.312 -1.480876,0.984469 -1.796876,2.105469 -0.272999,0.977 -0.265468,2.734625 0.01953,4.265625 0.05,0.266 0.101281,0.507875 0.113281,0.546875 0.015,0.055 -0.08172,0.0895 -0.511719,0.1875 -2.102,0.48 -3.636593,1.195 -4.558594,2.125 -0.414,0.414 -0.644343,0.777375 -0.777343,1.234375 -0.094,0.317 -0.094,0.944812 0,1.257812 0.258,0.86 0.984812,1.667813 2.132812,2.382813 0.797,0.492 1.034969,0.547062 1.292969,0.289062 0.121,-0.121 0.148438,-0.179219 0.148438,-0.324219 0,-0.281 -0.08594,-0.394375 -0.460938,-0.609375 -2.351,-1.324 -2.765313,-2.652031 -1.195312,-3.832031 0.797,-0.598 1.910156,-1.0705 3.410156,-1.4375 0.657,-0.16 0.804687,-0.17975 0.804687,-0.09375 0,0.117 0.484375,1.664031 0.734375,2.332031 l 0.257813,0.699219 -0.339844,0.65625 c -1.359,2.625 -2.230937,5.300813 -2.335937,7.257813 -0.086,1.508 0.187562,2.585906 0.851562,3.253905 0.726,0.727 1.750406,0.882937 3.066406,0.460937 0.496,-0.16 1.480688,-0.65978 2.054688,-1.05078 0.414,-0.277 0.503594,-0.358906 0.558594,-0.503906 0.055,-0.145 0.055,-0.19175 0,-0.34375 -0.082,-0.227 -0.252329,-0.353516 -0.486329,-0.353516 -0.152,0 -0.257437,0.04845 -0.648437,0.314453 -0.887,0.602 -1.719156,0.97675 -2.410156,1.09375 -0.957,0.164 -1.570563,-0.257812 -1.851563,-1.257812 -0.121,-0.434 -0.113469,-1.823969 0.01953,-2.542969 0.203,-1.144 0.558407,-2.332031 1.066407,-3.582031 0.301,-0.742 0.875125,-1.984406 0.953125,-2.066406 0.039,-0.043 0.08975,0.02722 0.21875,0.324218 0.657,1.476 1.660625,3.277375 2.640625,4.734375 2.34,3.474 4.902,5.734593 6.875,6.058593 l -0.02148,0.0039 c 0.867,0.14 1.598063,-0.07462 2.164063,-0.640625 0.461,-0.469 0.7655,-1.128874 0.9375,-2.046874 0.105,-0.574 0.105,-2.181796 0,-2.966796 -0.32,-2.340001 -1.170266,-5.02136 -2.447266,-7.69336 -0.199,-0.418 -0.312312,-0.521484 -0.570312,-0.521484 -0.289,-0.004 -0.523438,0.219 -0.523438,0.5 0,0.098 0.09772,0.362937 0.261719,0.710937 1.574,3.355 2.418031,6.601219 2.332031,8.949219 -0.053,1.399 -0.4025,2.240453 -1.0625,2.564452 -0.347,0.171 -0.785281,0.166516 -1.363281,-0.02148 -2.653,-0.897999 -6.2465,-5.390124 -8.5625,-10.703124 l -0.230469,-0.53125 0.335938,-0.572266 c 0.379,-0.652 1.336343,-2.109031 1.777343,-2.707031 l 0.296875,-0.398438 0.78125,0 c 4.747,0 9.4455,1.07375 11.9375,2.71875 0.508,0.336 1.120688,0.949594 1.304688,1.308594 0.133,0.25 0.144531,0.316438 0.144531,0.648438 0,0.325 -0.01209,0.402562 -0.121094,0.601562 -0.305,0.586 -1.109531,1.194906 -2.144531,1.628906 -0.48,0.203 -0.609375,0.336282 -0.609375,0.613282 0,0.234 0.152813,0.43 0.382813,0.5 0.149,0.043 0.200797,0.03469 0.466797,-0.07031 1.672,-0.661 2.816781,-1.687562 3.050781,-2.726562 0.066,-0.281 0.06209,-0.809032 -0.0039,-1.082032 -0.125,-0.536 -0.570031,-1.222593 -1.082031,-1.683593 -2.281009,-2.047003 -7.12129,-3.36691 -12.86329,-3.50391 l -0.410156,-0.01172 0.480468,-0.539063 c 0.258,-0.301 0.717204,-0.801094 1.033204,-1.121094 1.633,-1.66 3.150609,-2.746218 4.474609,-3.199218 0.422,-0.148 0.507313,-0.164063 0.945313,-0.164063 0.407,0 0.503687,0.01156 0.679687,0.101563 0.239,0.113 0.507531,0.390343 0.644531,0.652343 0.269,0.535 0.359469,1.472657 0.230469,2.472657 -0.043,0.344 -0.07813,0.741906 -0.07813,0.878906 0,0.231 0.0076,0.265906 0.140625,0.378906 0.109,0.102 0.183219,0.128906 0.324219,0.128906 0.227,0 0.437,-0.121156 0.5,-0.285156 0.187,-0.484 0.285062,-2.198875 0.164062,-2.921875 -0.188,-1.11 -0.663875,-1.859656 -1.421875,-2.222656 -1.34,-0.648 -3.284687,-0.01531 -5.554687,1.804687 -1.187,0.953 -2.750125,2.570125 -3.828125,3.953125 l -0.105469,0.125 -0.636719,0.03516 c -0.535,0.031 -1.405968,0.117281 -2.417969,0.238281 l -0.21875,0.02734 -0.0957,-0.535157 c -0.183,-1.066 -0.197265,-1.226093 -0.197265,-2.246093 0,-0.895 0.01166,-1.066782 0.09766,-1.425782 0.211,-0.906 0.628688,-1.468937 1.179688,-1.585937 0.758,-0.16 1.699531,0.219219 3.019531,1.199219 0.422,0.317 0.934093,0.04687 0.871093,-0.453125 -0.027,-0.218 -0.226437,-0.406469 -0.898437,-0.855469 -0.563,-0.379 -1.194937,-0.69175 -1.710937,-0.84375 -0.254,-0.076 -0.566907,-0.118578 -0.863282,-0.126953 z m 1.007813,7.689453 c 0,0.02 -0.179344,0.297 -0.402344,0.625 -0.223,0.324 -0.539125,0.800312 -0.703125,1.070312 -0.16,0.262 -0.316656,0.500157 -0.347656,0.535157 -0.043,0.046 -0.105875,-0.0785 -0.296875,-0.6875 -0.273,-0.84 -0.390469,-1.293032 -0.355469,-1.332032 0.058,-0.059 2.105469,-0.269937 2.105469,-0.210937 z m 4.158203,3.011719 c -0.828,0 -1.5,0.675906 -1.5,1.503906 0,0.828 0.672,1.5 1.5,1.5 0.828,0 1.5,-0.672 1.5,-1.5 0,-0.828 -0.672,-1.503906 -1.5,-1.503906 z"/>
 <path style="opacity:0.2;fill:#8b9cbe" d="M 24,4 C 12.92,4 4,12.92 4,24 4,24.168 4.008,24.333 4.0117,24.5 4.2764,13.654 13.088,5 23.9997,5 c 10.9117,0 19.724,8.6539 19.988,19.5 0.004,-0.16686 0.0117,-0.33213 0.0117,-0.5 0,-11.08 -8.92,-20 -20,-20 z"/>
 <path style="opacity:0.2" d="M 4.0117,24.5 C 4.0076,24.667 4,24.832 4,25 4,36.08 12.92,45 24,45 35.08,45 44,36.08 44,25 44,24.832 43.992,24.667 43.988,24.5 43.724,35.346 34.912,44 24,44 13.088,44 4.276,35.346 4.012,24.5 Z"/>
 <path style="fill:#8b9cbe" d="m 19.343939,12.292512 c -0.296375,-0.0084 -0.576219,0.01758 -0.761718,0.08008 -0.91,0.312 -1.480876,0.984469 -1.796876,2.105469 -0.272999,0.977 -0.265468,2.734625 0.01953,4.265625 0.05,0.266 0.101281,0.507875 0.113281,0.546875 0.015,0.055 -0.08172,0.0895 -0.511719,0.1875 -2.102,0.48 -3.636593,1.195 -4.558594,2.125 -0.414,0.414 -0.644343,0.777375 -0.777343,1.234375 -0.094,0.317 -0.094,0.944812 0,1.257812 0.258,0.86 0.984812,1.667813 2.132812,2.382813 0.797,0.492 1.034969,0.547062 1.292969,0.289062 0.121,-0.121 0.148438,-0.179219 0.148438,-0.324219 0,-0.281 -0.08594,-0.394375 -0.460938,-0.609375 -2.351,-1.324 -2.765313,-2.652031 -1.195312,-3.832031 0.797,-0.598 1.910156,-1.0705 3.410156,-1.4375 0.657,-0.16 0.804687,-0.17975 0.804687,-0.09375 0,0.117 0.484375,1.664031 0.734375,2.332031 l 0.257813,0.699219 -0.339844,0.65625 c -1.359,2.625 -2.230937,5.300813 -2.335937,7.257813 -0.086,1.508 0.187562,2.585906 0.851562,3.253905 0.726,0.727 1.750406,0.882937 3.066406,0.460937 0.496,-0.16 1.480688,-0.65978 2.054688,-1.05078 0.414,-0.277 0.503594,-0.358906 0.558594,-0.503906 0.055,-0.145 0.055,-0.19175 0,-0.34375 -0.082,-0.227 -0.252329,-0.353516 -0.486329,-0.353516 -0.152,0 -0.257437,0.04845 -0.648437,0.314453 -0.887,0.602 -1.719156,0.97675 -2.410156,1.09375 -0.957,0.164 -1.570563,-0.257812 -1.851563,-1.257812 -0.121,-0.434 -0.113469,-1.823969 0.01953,-2.542969 0.203,-1.144 0.558407,-2.332031 1.066407,-3.582031 0.301,-0.742 0.875125,-1.984406 0.953125,-2.066406 0.039,-0.043 0.08975,0.02722 0.21875,0.324218 0.657,1.476 1.660625,3.277375 2.640625,4.734375 2.34,3.474 4.902,5.734593 6.875,6.058593 l -0.02148,0.0039 c 0.867,0.14 1.598063,-0.07462 2.164063,-0.640625 0.461,-0.469 0.7655,-1.128874 0.9375,-2.046874 0.105,-0.574 0.105,-2.181796 0,-2.966796 -0.32,-2.340001 -1.170266,-5.02136 -2.447266,-7.69336 -0.199,-0.418 -0.312312,-0.521484 -0.570312,-0.521484 -0.289,-0.004 -0.523438,0.219 -0.523438,0.5 0,0.098 0.09772,0.362937 0.261719,0.710937 1.574,3.355 2.418031,6.601219 2.332031,8.949219 -0.053,1.399 -0.4025,2.240453 -1.0625,2.564452 -0.347,0.171 -0.785281,0.166516 -1.363281,-0.02148 -2.653,-0.897999 -6.2465,-5.390124 -8.5625,-10.703124 l -0.230469,-0.53125 0.335938,-0.572266 c 0.379,-0.652 1.336343,-2.109031 1.777343,-2.707031 l 0.296875,-0.398438 0.78125,0 c 4.747,0 9.4455,1.07375 11.9375,2.71875 0.508,0.336 1.120688,0.949594 1.304688,1.308594 0.133,0.25 0.144531,0.316438 0.144531,0.648438 0,0.325 -0.01209,0.402562 -0.121094,0.601562 -0.305,0.586 -1.109531,1.194906 -2.144531,1.628906 -0.48,0.203 -0.609375,0.336282 -0.609375,0.613282 0,0.234 0.152813,0.43 0.382813,0.5 0.149,0.043 0.200797,0.03469 0.466797,-0.07031 1.672,-0.661 2.816781,-1.687562 3.050781,-2.726562 0.066,-0.281 0.06209,-0.809032 -0.0039,-1.082032 -0.125,-0.536 -0.570031,-1.222593 -1.082031,-1.683593 -2.281009,-2.047003 -7.12129,-3.36691 -12.86329,-3.50391 l -0.410156,-0.01172 0.480468,-0.539063 c 0.258,-0.301 0.717204,-0.801094 1.033204,-1.121094 1.633,-1.66 3.150609,-2.746218 4.474609,-3.199218 0.422,-0.148 0.507313,-0.164063 0.945313,-0.164063 0.407,0 0.503687,0.01156 0.679687,0.101563 0.239,0.113 0.507531,0.390343 0.644531,0.652343 0.269,0.535 0.359469,1.472657 0.230469,2.472657 -0.043,0.344 -0.07813,0.741906 -0.07813,0.878906 0,0.231 0.0076,0.265906 0.140625,0.378906 0.109,0.102 0.183219,0.128906 0.324219,0.128906 0.227,0 0.437,-0.121156 0.5,-0.285156 0.187,-0.484 0.285062,-2.198875 0.164062,-2.921875 -0.188,-1.11 -0.663875,-1.859656 -1.421875,-2.222656 -1.34,-0.648 -3.284687,-0.01531 -5.554687,1.804687 -1.187,0.953 -2.750125,2.570125 -3.828125,3.953125 l -0.105469,0.125 -0.636719,0.03516 c -0.535,0.031 -1.405968,0.117281 -2.417969,0.238281 l -0.21875,0.02734 -0.0957,-0.535157 c -0.183,-1.066 -0.197265,-1.226093 -0.197265,-2.246093 0,-0.895 0.01166,-1.066782 0.09766,-1.425782 0.211,-0.906 0.628688,-1.468937 1.179688,-1.585937 0.758,-0.16 1.699531,0.219219 3.019531,1.199219 0.422,0.317 0.934093,0.04687 0.871093,-0.453125 -0.027,-0.218 -0.226437,-0.406469 -0.898437,-0.855469 -0.563,-0.379 -1.194937,-0.69175 -1.710937,-0.84375 -0.254,-0.076 -0.566907,-0.118578 -0.863282,-0.126953 z m 1.007813,7.689453 c 0,0.02 -0.179344,0.297 -0.402344,0.625 -0.223,0.324 -0.539125,0.800312 -0.703125,1.070312 -0.16,0.262 -0.316656,0.500157 -0.347656,0.535157 -0.043,0.046 -0.105875,-0.0785 -0.296875,-0.6875 -0.273,-0.84 -0.390469,-1.293032 -0.355469,-1.332032 0.058,-0.059 2.105469,-0.269937 2.105469,-0.210937 z m 4.158203,3.011719 c -0.828,0 -1.5,0.675906 -1.5,1.503906 0,0.828 0.672,1.5 1.5,1.5 0.828,0 1.5,-0.672 1.5,-1.5 0,-0.828 -0.672,-1.503906 -1.5,-1.503906 z"/>
</svg>
