<svg xmlns="http://www.w3.org/2000/svg" width="48" height="48" version="1.1">
 <path style="opacity:0.2" d="M 30.963568,38.149762 28.455604,38.285411 24.998678,40.184486 35.166105,45 c -0.126881,-3.133239 -2.610374,-4.694449 -4.202537,-6.850238 z"/>
 <path style="opacity:0.2" d="m 16.202443,38.149762 2.507965,0.135649 3.456925,1.899075 L 11.999906,45 c 0.126882,-3.133239 2.610373,-4.694449 4.202537,-6.850238 z"/>
 <path style="fill:#23d160" d="m 30.963568,37.149247 -2.507964,0.135649 -3.456926,1.899076 10.167427,4.815513 c -0.126881,-3.133239 -2.610374,-4.694449 -4.202537,-6.850238 z"/>
 <path style="opacity:0.2" d="m 34.730181,11.925876 c -0.494399,0 -12.298793,3.255016 -12.688255,3.724573 -0.19807,0.238806 0.05016,0.808666 0.798753,1.874009 -0.68628,1.737579 -1.005523,4.188019 -1.595552,4.089995 -0.74699,-0.124102 -2.156404,-5.030916 -1.603365,-0.760156 0.437894,3.381562 -2.11156,-0.561131 -3.507481,5.106141 -1.333734,5.414801 -1.424063,8.827396 -0.300753,11.404303 1.18555,2.71969 1.51122,4.940248 4.649576,5.50283 1.872427,0.335652 7.680458,0.0045 9.60689,-0.723029 3.242372,-1.224501 6.845006,-4.956308 6.907551,-8.907372 0.130984,-8.27443 -5.064264,-9.801432 -2.267364,-21.311294 z"/>
 <path style="fill:#23d160" d="m 16.202443,37.149247 2.507965,0.135649 3.456925,1.899076 -10.167427,4.815513 c 0.126882,-3.133239 2.610373,-4.694449 4.202537,-6.850238 z"/>
 <path style="fill:#c31e3e" d="M 21.398684,16.28543 C 21.048767,16.069038 19.107734,9.8431431 19.04474,8.2567156 18.955199,6.0016332 19.65735,3.831886 21.699854,5.7206434 c 0.977728,0.9041316 6.532789,7.9884116 6.46254,8.1992956 -0.226567,0.680112 -6.268096,2.671984 -6.76371,2.365491 z"/>
 <path style="opacity:0.1;fill:#8b9cbe" d="m 20.41122,5.0028671 c -1.054963,-0.080871 -1.434214,1.5623146 -1.367058,3.2536264 9.73e-4,0.024503 0.01181,0.071029 0.01367,0.097707 0.117421,-1.8649324 0.877549,-3.2655911 2.642329,-1.6336527 0.816962,0.7554673 4.791705,5.7807532 6.048256,7.5507572 0.223198,-0.134462 0.382732,-0.257812 0.414023,-0.351743 0.07025,-0.210883 -5.484552,-7.2953972 -6.46228,-8.1995288 -0.510624,-0.4721897 -0.937285,-0.690209 -1.28894,-0.7171661 z"/>
 <path style="fill:#da163c" d="m 21.728685,13.660891 -1.729535,-1.377914 0.789359,-0.639573 c 1.160845,-0.940568 6.117658,-4.056903 8.740909,-4.9498625 1.269352,-0.4320906 2.356632,-0.7856191 2.416176,-0.7856191 0.253126,0 0.07344,1.3285792 -0.386447,2.8573259 -0.451979,1.5024697 -1.962922,7.3747067 -3.870682,8.4410447 -1.581349,0.883892 -4.620893,2.299675 -5.465452,1.400486 -0.86395,-0.919834 0.474583,-4.173959 -0.494328,-4.945888 z"/>
 <path style="opacity:0.1;fill:#8b9cbe" d="m 31.945288,5.9076293 c -0.05954,0 -1.146436,0.3534696 -2.415788,0.7855602 -2.623251,0.8929595 -7.580516,4.0092435 -8.741362,4.9498115 l -0.788988,0.639 0.622988,0.49635 0.166,-0.134836 c 1.160846,-0.940568 6.118111,-4.0568515 8.741362,-4.9498109 1.269352,-0.4320906 2.356244,-0.7855602 2.415788,-0.7855602 0.01716,0 0.02779,0.021362 0.04102,0.03322 0.09658,-0.6138129 0.09791,-1.0337348 -0.04102,-1.0337346 z m -9.877974,9.5791447 c -0.06254,0.789551 -0.184904,1.645641 -0.121082,2.305874 0.06433,-0.796907 0.190758,-1.657767 0.121082,-2.305874 z"/>
 <path style="fill:#f71f49" d="m 34.730181,10.925835 c -0.494399,0 -12.298793,3.255016 -12.688255,3.724572 -0.19807,0.238807 0.05016,0.808666 0.798753,1.87401 -0.68628,1.737579 -1.005523,4.188019 -1.595552,4.089995 -0.74699,-0.124102 -2.156404,-5.030917 -1.603365,-0.760156 0.437894,3.381562 -2.11156,-0.561131 -3.507481,5.106141 -1.333734,5.414801 -1.424063,8.827396 -0.300753,11.404303 1.18555,2.71969 1.51122,4.940248 4.649576,5.50283 1.872427,0.335652 7.680458,0.0045 9.60689,-0.723029 3.242372,-1.224502 6.845006,-4.956308 6.907551,-8.907372 0.130984,-8.27443 -5.064264,-9.801433 -2.267364,-21.311294 z"/>
 <path style="opacity:0.1;fill:#8b9cbe" d="m 34.730181,10.925835 c -0.494399,0 -12.298793,3.255016 -12.688255,3.724572 -0.125146,0.150884 -0.04952,0.453952 0.195294,0.910625 1.151237,-0.630656 11.270327,-3.424978 12.270326,-3.579967 0.07398,-0.350772 0.132494,-0.684279 0.222635,-1.05523 z M 22.62195,17.19273 c -0.533875,1.637583 -0.857923,3.507889 -1.376823,3.421682 -0.691693,-0.114916 -1.932002,-4.236762 -1.675624,-1.469506 0.222621,-0.28383 1.126641,2.378814 1.675624,2.47002 0.590029,0.09802 0.909272,-2.352415 1.595552,-4.089994 C 22.753127,17.400336 22.6959,17.304035 22.62195,17.19273 Z m 11.297761,0.166101 c -0.242997,6.595042 2.908244,8.960216 3.060258,15.128875 0.0045,-0.08362 0.01625,-0.166295 0.01758,-0.250129 0.101471,-6.410102 -2.978335,-8.78918 -3.077834,-14.878746 z m -14.27209,3.558471 c -0.30398,1.347459 -2.324378,-0.783948 -3.51334,4.043095 -0.767193,3.114715 -1.108472,5.552681 -1.058494,7.564437 0.06767,-1.811984 0.414651,-3.949996 1.058494,-6.563923 1.386016,-5.62706 3.906241,-1.788394 3.51334,-5.043609 z"/>
 <path style="opacity:0.2" d="m 19.026389,42.867063 c -3.138357,-0.562582 -6.063763,-2.783253 -7.249313,-5.502943 -1.12331,-2.576907 -1.033488,-5.988248 0.300246,-11.403049 1.395921,-5.667271 1.816579,-9.640498 1.378685,-13.02206 -0.553039,-4.2707585 -0.564274,-4.0305314 0.182716,-3.9064298 1.029793,0.1710854 5.762444,2.9552128 8.586594,5.0513278 8.689425,6.449387 12.327095,13.921724 10.161565,20.873435 -1.175185,3.772542 -3.111094,5.962399 -6.353466,7.1869 -1.926432,0.727526 -5.134601,1.058471 -7.007027,0.722819 z"/>
 <path style="fill:#fe496d" d="m 19.026389,41.867022 c -3.138357,-0.562583 -6.063763,-2.783254 -7.249313,-5.502943 -1.12331,-2.576908 -1.033488,-5.988248 0.300246,-11.403049 1.395921,-5.667272 1.816579,-9.640498 1.378685,-13.02206 -0.553039,-4.2707593 -0.564274,-4.0305322 0.182716,-3.9064307 1.029793,0.1710854 5.762444,2.9552137 8.586594,5.0513287 8.689425,6.449387 12.327095,13.921724 10.161565,20.873435 -1.175185,3.772542 -3.111094,5.962398 -6.353466,7.1869 -1.926432,0.727526 -5.134601,1.05847 -7.007027,0.722819 z"/>
 <path style="opacity:0.2;fill:#8b9cbe" d="m 13.394305,7.9887777 c -0.299251,-0.043133 -0.363511,0.1692474 -0.279271,1.0923587 0.08096,-0.149816 0.250234,-0.094234 0.523389,-0.048853 1.029793,0.1710854 5.762929,2.9553106 8.587079,5.0514256 6.843551,5.079359 10.537474,10.793014 10.747032,16.387335 C 33.194791,24.5607 29.477633,18.465806 22.225502,13.083194 19.401352,10.987079 14.668216,8.2028542 13.638423,8.0317689 13.545052,8.0162559 13.464407,7.9988819 13.394305,7.9887777 Z m 0.212871,7.1286653 c -0.0548,2.699351 -0.54414,5.84392 -1.529153,9.842954 -0.767341,3.115316 -1.108781,5.552816 -1.058494,7.564437 0.06755,-1.811682 0.414651,-3.949996 1.058494,-6.563923 1.109006,-4.50243 1.592736,-7.926717 1.529153,-10.843468 z"/>
</svg>
