<svg xmlns="http://www.w3.org/2000/svg" width="48" height="48" version="1">
 <circle fill="#b2bfd9" cx="24" cy="24" r="20"/>
 <circle fill="#6d4c41" cx="13.5" cy="20.5" r="6.5"/>
 <circle fill="#6d4c41" cx="34.5" cy="20.5" r="6.5"/>
 <path fill="#a1887f" d="m24 14.133c-9.72 0-17 8.147-17 17.867v2.5098a20 20 0 0 0 17 9.49 20 20 0 0 0 17 -9.514v-2.486c0-9.72-7.28-17.867-17-17.867z"/>
 <path opacity=".2" d="m43.979 24.418a20 20 0 0 1 -19.979 19.582 20 20 0 0 1 -19.978 -19.418 20 20 0 0 0 -0.022 0.418 20 20 0 0 0 20 20 20 20 0 0 0 20 -20 20 20 0 0 0 -0.022 -0.582z"/>
 <path fill="#fff" d="m19 36h5v6h-5z"/>
 <path fill="#f2f2f2" d="m24 35.4h5v6.6h-5z"/>
 <path fill="#6d4c41" d="m19.75 31.515c-2.0241-0.0613-3.0833 3.3269-3.0833 5.3519s1.6416 3.6667 3.6667 3.6667c1.8666 0 3.642-1.6296 3.642-1.6296h0.0518s1.7739 1.6274 3.6396 1.6296c2.025 0 3.6667-1.6416 3.6667-3.6667 0-2.025-0.99437-5.0314-3.0185-5.0927z"/>
 <path fill="#3e2723" d="m28.217 31.367c0.432 1.896-2.394 4.033-4.217 4.033-1.8225 0-4.741-2.1143-4.3083-4.0333 0.33155-1.4706 2.4858-1.375 4.3083-1.375s3.8883-0.0664 4.2167 1.375z"/>
 <circle fill="#fefefe" cx="15.5" cy="26.5" r="3.5"/>
 <circle fill="#333" cx="-14.5" cy="25.5" r="1.5" transform="scale(-1,1)"/>
 <circle fill="#fefefe" cx="32.5" cy="26.5" r="3.5"/>
 <circle fill="#333" cx="-31.5" cy="25.5" r="1.5" transform="scale(-1,1)"/>
 <path fill="#fff" opacity=".2" d="m24 4a20 20 0 0 0 -20 20 20 20 0 0 0 0.0215 0.582 20 20 0 0 1 19.978 -19.582 20 20 0 0 1 19.979 19.418 20 20 0 0 0 0.021 -0.418 20 20 0 0 0 -20 -20z"/>
</svg>
