<svg xmlns="http://www.w3.org/2000/svg" width="48" height="48" version="1">
 <rect style="opacity:0.2" width="40" height="40" x="4" y="5" rx="2" ry="2"/>
 <rect style="fill:#b2bfd9" width="40" height="40" x="4" y="4" rx="2" ry="2"/>
 <path style="opacity:0.2;fill:#8b9cbe" d="M 6 4 C 4.892 4 4 4.892 4 6 L 4 7 C 4 5.892 4.892 5 6 5 L 42 5 C 43.108 5 44 5.892 44 7 L 44 6 C 44 4.892 43.108 4 42 4 L 6 4 z"/>
 <rect style="fill:#4f4f4f" width="4" height="24" x="8" y="12"/>
 <rect style="fill:#4f4f4f" width="4" height="32" x="32" y="-40" transform="rotate(90)"/>
 <path style="fill:none;stroke:#4f4f4f;stroke-width:4;stroke-linecap:round" d="m 16.027592,26.992748 c 0,0 3.532718,-0.909519 5.300531,-1.358595 1.77166,-0.450052 3.634457,-1.026783 5.317862,-1.739153 1.919613,-0.812326 3.818026,-1.441993 5.317863,-2.889495 1.72849,-1.668178 4.006624,-5.990103 4.006624,-5.990103"/>
 <circle style="opacity:0.1" cx="10" cy="13" r="4"/>
 <circle style="fill:#f45b5b" cx="10" cy="12" r="4"/>
 <circle style="opacity:0.1" cx="10" cy="35" r="4"/>
 <circle style="fill:#f45b5b" cx="10" cy="34" r="4"/>
 <circle style="opacity:0.1" cx="38" cy="35" r="4"/>
 <circle style="fill:#f45b5b" cx="38" cy="34" r="4"/>
 <circle style="opacity:0.1" cx="36" cy="16" r="4"/>
 <circle style="fill:#14b141" cx="36" cy="15" r="4"/>
 <circle style="opacity:0.1" cx="17" cy="27" r="4"/>
 <circle style="fill:#14b141" cx="17" cy="26" r="4"/>
 <circle style="opacity:0.1" cx="28" cy="24" r="4"/>
 <circle style="fill:#14b141" cx="28" cy="23" r="4"/>
</svg>
