<svg xmlns="http://www.w3.org/2000/svg" width="48" height="48" version="1">
 <rect style="fill:#4f4f4f" width="40" height="40" x="4" y="4" rx="2" ry="2"/>
 <path style="opacity:0.1;fill:#8b9cbe" d="M 6,4 C 4.892,4 4,4.892 4,6 L 4,7 C 4,5.892 4.892,5 6,5 l 36,0 c 1.108,0 2,0.892 2,2 L 44,6 C 44,4.892 43.108,4 42,4 L 6,4 Z"/>
 <path style="opacity:0.2" d="M 6,45 C 4.892,45 4,44.108 4,43 l 0,-1 c 0,1.108 0.892,2 2,2 l 36,0 c 1.108,0 2,-0.892 2,-2 l 0,1 c 0,1.108 -0.892,2 -2,2 L 6,45 Z"/>
 <path style="opacity:0.2" d="m 24.666667,10.999998 9.333333,0 c 0,0 -6.268198,1.339635 -7,3.666667 -0.551755,1.754504 3.383473,3.201205 3,5.000001 -0.459842,2.157022 -4.543627,2.175574 -5,4.333333 -0.431976,2.042406 3.358897,3.61016 3,5.666667 -0.378204,2.167134 -4.959283,2.467155 -5,4.666667 C 22.96071,36.455744 28,39 28,39 l -14,0 z"/>
 <path style="fill:#b2bfd9" d="m 24.666667,9.9999993 9.333333,0 c 0,0 -6.268198,1.3396347 -7,3.6666667 -0.551755,1.754504 3.383473,3.201205 3,5.000001 -0.459842,2.157022 -4.543627,2.175574 -5,4.333333 -0.431976,2.042406 3.358897,3.61016 3,5.666667 -0.378204,2.167134 -4.959283,2.467155 -5,4.666667 -0.03929,2.122411 5,4.666667 5,4.666667 l -14,0 z"/>
 <path style="opacity:0.2" d="m 6,7 0,4 4,0 0,-4 -4,0 z m 32,0 0,4 4,0 0,-4 -4,0 z m -32,8 0,4 4,0 0,-4 -4,0 z m 32,0 0,4 4,0 0,-4 -4,0 z m -32,8 0,4 4,0 0,-4 -4,0 z m 32,0 0,4 4,0 0,-4 -4,0 z m -32,8 0,4 4,0 0,-4 -4,0 z m 32,0 0,4 4,0 0,-4 -4,0 z m -32,8 0,4 4,0 0,-4 -4,0 z m 32,0 0,4 4,0 0,-4 -4,0 z"/>
 <path style="fill:#989898" d="m 6,6 0,4 4,0 0,-4 -4,0 z m 32,0 0,4 4,0 0,-4 -4,0 z m -32,8 0,4 4,0 0,-4 -4,0 z m 32,0 0,4 4,0 0,-4 -4,0 z m -32,8 0,4 4,0 0,-4 -4,0 z m 32,0 0,4 4,0 0,-4 -4,0 z m -32,8 0,4 4,0 0,-4 -4,0 z m 32,0 0,4 4,0 0,-4 -4,0 z m -32,8 0,4 4,0 0,-4 -4,0 z m 32,0 0,4 4,0 0,-4 -4,0 z"/>
</svg>
