<svg width="48" height="48" version="1.1" xmlns="http://www.w3.org/2000/svg">
 <path d="m10.181818 5.0000002c-1.2087278 0-2.1818188 0.9557143-2.1818188 2.1428571v35.714286c0 1.187142 0.973091 2.142857 2.1818188 2.142857h27.636365c1.208727 0 2.181818-0.955715 2.181818-2.142857v-35.714286c0-1.1871428-0.973091-2.1428571-2.181818-2.1428571z" style="opacity:.2"/>
 <path d="m10.181818 4.0000002c-1.2087278 0-2.1818188 0.9557143-2.1818188 2.1428571v35.714286c0 1.187142 0.973091 2.142857 2.1818188 2.142857h27.636365c1.208727 0 2.181818-0.955715 2.181818-2.142857v-35.714286c0-1.1871428-0.973091-2.1428571-2.181818-2.1428571z" style="fill:#d81921"/>
 <path d="m10.181818 4.0000002c-1.2087278 0-2.1818188 0.9557143-2.1818188 2.1428571v35.714286c0 1.187142 0.973091 2.142857 2.1818188 2.142857h3.818182v-40z" style="opacity:.2"/>
 <path d="M 10.181641,4 C 8.9729128,4 8,4.9554353 8,6.1425781 v 1 C 8,5.9554353 8.9729128,5 10.181641,5 H 37.818359 C 39.027086,5 40,5.9554353 40,7.1425781 v -1 C 40,4.9554353 39.027086,4 37.818359,4 Z" style="fill:#8b9cbe;opacity:.2"/>
</svg>
