<svg width="48" height="48" version="1.1" xmlns="http://www.w3.org/2000/svg">
 <circle cx="24" cy="25" r="20" style="opacity:.2"/>
 <circle cx="24" cy="24" r="20" style="fill:#31aae4"/>
 <path d="M 24,4 A 20,20 0 0 0 4,24 20,20 0 0 0 4.0215,24.582 20,20 0 0 1 24,5 20,20 0 0 1 43.979,24.418 20,20 0 0 0 44,24 20,20 0 0 0 24,4 Z" style="fill:#8b9cbe;opacity:.2"/>
 <path d="m24 9c-8.836556 0-16 7.163444-16 16s7.163444 16 16 16 16-7.163444 16-16-7.163444-16-16-16zm0 2c7.731986 0 14 6.268014 14 14-0.0061 6.427788-4.388511 12.025562-10.626953 13.574219-0.08869-0.223963-0.125232-0.462974-0.101563-0.541016 0.119916-0.395421 0.205231-0.92882 0.234375-1.476562 0.04618-0.86778 0.394472-2.244364 0.94475-2.871094 0.484021-0.551273 0.576412-0.990877 0.585937-2.78125 0.0079-1.482112 0.02436-1.655764 0.214844-2.320313 0.324251-1.131247 0.860216-1.929284 1.252516-2.501953 0.19937-0.291036 0.517175-0.81055 0.707032-1.154297 0.189851-0.343754 0.466288-0.807225 0.613281-1.029296 0.384-0.580135 1.603989-1.381741 2.009305-1.572266 0.452969-0.212917 0.952045-0.78601 1.117187-1.283203 0.169752-0.511079 0.118281-1.317346-0.103515-1.613281-0.130704-0.174391-0.213944-0.205079-0.548828-0.205079-0.306711 0-0.439295-0.04057-0.591797-0.183593-0.209764-0.196729-0.363282-0.170387-0.363282 0.0625 0 0.182651-0.677963 0.530276-0.759305 0.449218-0.03388-0.03376 4.7e-4 -0.227123 0.07813-0.429687 0.284519-0.742389 0.377463-1.215637 0.332032-1.695313-0.07491-0.7909-0.567462-2.001003-0.835938-2.052734-0.06456-0.01244-0.415328 0.226943-0.779297 0.533203-1.898028 1.597109-3.341369 2.293956-4.345703 2.901054-0.479263 0.289683-0.480783 0.289024-1.289062 0.271485-0.956985-0.02075-0.790832 0.130561-2.38706 1.098258-0.552859 0.335167-1.176288 0.974207-1.384766 1.053422-0.209533 0.07962-0.873555 0.19483-1.486328 0.257812-1.258507 0.129348-1.595528 0.206527-2.066406 0.478516-0.46567 0.268978-0.583446 0.469319-0.484375 0.828125 0.09701 0.351325 0.612551 1.043084 1.232422 1.652344l0.466796 0.458984-0.359375 0.556641c-0.198402 0.306314-0.497731 0.872484-0.664062 1.257812-0.330567 0.765809-0.421128 0.909598-1.080078 1.720703-0.570847 0.702648-1.502489 1.7134-2.093409 2.871094-0.505329 0.990011-0.748158 1.246616-1.675781 1.777344-0.232037 0.132759-0.518058 0.355851-0.8125 0.494141-1.909476-2.454944-2.94713-5.475821-2.949224-8.585938 0-7.731986 6.268014-14 14-14zm2.425406 9.105031-0.720703 0.923828-1.16211 0.162109 0.722656-0.923828z" style="opacity:.2"/>
 <path d="m24 8c-8.836556 0-16 7.163444-16 16s7.163444 16 16 16 16-7.163444 16-16-7.163444-16-16-16zm0 2c7.731986 0 14 6.268014 14 14-0.0061 6.427788-4.388511 12.025562-10.626953 13.574219-0.08869-0.223963-0.125232-0.462974-0.101563-0.541016 0.119916-0.395421 0.205231-0.92882 0.234375-1.476562 0.04618-0.86778 0.394472-2.244364 0.94475-2.871094 0.484021-0.551273 0.576412-0.990877 0.585937-2.78125 0.0079-1.482112 0.02436-1.655764 0.214844-2.320313 0.324251-1.131247 0.860216-1.929284 1.252516-2.501953 0.19937-0.291036 0.517175-0.81055 0.707032-1.154297 0.189851-0.343754 0.466288-0.807225 0.613281-1.029296 0.384-0.580135 1.603989-1.381741 2.009305-1.572266 0.452969-0.212917 0.952045-0.78601 1.117187-1.283203 0.169752-0.511079 0.118281-1.317346-0.103515-1.613281-0.130704-0.174391-0.213944-0.205079-0.548828-0.205079-0.306711 0-0.439295-0.04057-0.591797-0.183593-0.209764-0.196729-0.363282-0.170387-0.363282 0.0625 0 0.182651-0.677963 0.530276-0.759305 0.449218-0.03388-0.03376 4.7e-4 -0.227123 0.07813-0.429687 0.284519-0.742389 0.377463-1.215637 0.332032-1.695313-0.07491-0.7909-0.567462-2.001003-0.835938-2.052734-0.06456-0.01244-0.415328 0.226943-0.779297 0.533203-1.898028 1.597109-3.341369 2.293956-4.345703 2.901054-0.479263 0.289683-0.480783 0.289024-1.289062 0.271485-0.956985-0.02075-0.790832 0.130561-2.38706 1.098258-0.552859 0.335167-1.176288 0.974207-1.384766 1.053422-0.209533 0.07962-0.873555 0.19483-1.486328 0.257812-1.258507 0.129348-1.595528 0.206527-2.066406 0.478516-0.46567 0.268978-0.583446 0.469319-0.484375 0.828125 0.09701 0.351325 0.612551 1.043084 1.232422 1.652344l0.466796 0.458984-0.359375 0.556641c-0.198402 0.306314-0.497731 0.872484-0.664062 1.257812-0.330567 0.765809-0.421128 0.909598-1.080078 1.720703-0.570847 0.702648-1.502489 1.7134-2.093409 2.871094-0.505329 0.990011-0.748158 1.246616-1.675781 1.777344-0.232037 0.132759-0.518058 0.355851-0.8125 0.494141-1.909476-2.454944-2.94713-5.475821-2.949224-8.585938 0-7.731986 6.268014-14 14-14zm2.425406 9.105031-0.720703 0.923828-1.16211 0.162109 0.722656-0.923828z" style="fill:#8b9cbe"/>
</svg>
