<svg xmlns="http://www.w3.org/2000/svg" width="48" height="48" version="1">
 <path style="fill:#424b6d" transform="matrix(0,-1,-1,0,0,0)" d="m -42,-44 h 36 c 1.108,0 2,0.892 2,2 v 36 c 0,1.108 -0.892,2 -2,2 h -36 c -1.108,0 -2,-0.892 -2,-2 v -36 c 0,-1.108 0.892,-2 2,-2 z"/>
 <path style="opacity:0.1" d="m 16.382871,39 18.277807,-2.454688 -3.222065,-4.31764 z"/>
 <path style="opacity:0.1;fill:#8b9cbe" d="M 4,7 V 6 C 4,4.892 4.892,4 6,4 h 36 c 1.108,0 2,0.892 2,2 V 7 C 44,5.892 43.108,5 42,5 H 6 C 4.892,5 4,5.892 4,7 Z"/>
 <path style="opacity:0.2" d="m 4,42 v 1 c 0,1.108 0.892,2 2,2 h 36 c 1.108,0 2,-0.892 2,-2 v -1 c 0,1.108 -0.892,2 -2,2 H 6 C 4.892,44 4,43.108 4,42 Z"/>
 <path style="fill:#d62f19" d="M 21.078892,10.5 17.92613,12.897531 10.786272,29.73863 10.5,35.533762 16.654854,37.5 34.279436,35.132603 36.6619,31.793387 37.5,26.736538 34.763462,21.600586 26.998326,12.142299 Z"/>
 <path style="fill:#d62f19" d="m 17.701305,12.485975 7.405099,10.181686 -14.810199,7.282734 z"/>
 <path style="fill:#e84d34" d="m 10.296205,29.950395 -0.2962052,6.010024 6.3828712,2.03958 15.055742,-6.772328 1.032851,-6.474297 -7.36506,-2.085713 z"/>
 <path style="fill:#962111" d="m 16.382871,37.999999 18.277807,-2.454688 -3.222065,-4.31764 z"/>
 <path style="opacity:0.1" d="M 31.438613,32.227672 32.471464,25.753375 35.161547,22.511894 38,27.837199 l -0.869055,5.244267 -2.470267,3.463846 z"/>
 <path style="fill:#a92513" d="M 31.438613,31.227671 32.471464,24.753374 35.161547,21.511893 38,26.837198 l -0.869055,5.244267 -2.470267,3.463846 z"/>
 <path style="fill:#c22a16" d="m 32.471464,24.753374 -7.36506,-2.085713 -7.405099,-10.181686 3.270133,-2.4859752 6.137518,1.7026142 8.052591,9.809279 z"/>
 <path style="opacity:0.1" d="M 32.318359,25.710938 31.439453,31.228516 16.382812,38 10.048828,35.976562 10,36.960938 16.382812,39 l 15.056641,-6.771484 1.03125,-6.47461 z"/>
 <path style="opacity:0.1;fill:#8b9cbe" d="M 25.105469,22.667969 10.296875,29.951172 10,35.960938 l 0.04883,0.01562 0.248047,-5.02539 14.808594,-7.283203 7.21289,2.042969 0.152344,-0.957032 z"/>
 <path style="opacity:0.1" d="m 34.75,22.009766 -2.279297,2.74414 -0.152344,0.957032 0.152344,0.04297 2.691406,-3.242187 z"/>
 <path style="opacity:0.1;fill:#8b9cbe" d="m 17.701172,12.486328 -7.404297,17.464844 0.535156,-0.263672 6.869141,-16.201172 6.86914,9.445313 0.535157,-0.263672 z"/>
 <path style="opacity:0.1;fill:#8b9cbe" d="m 20.970703,10 -3.269531,2.486328 0.46875,0.644531 L 20.970703,11 27.109375,12.703125 34.75,22.009766 35.162109,21.511719 27.109375,11.703125 Z"/>
</svg>
