<svg xmlns="http://www.w3.org/2000/svg" width="48" height="48" version="1.1" xml:space="preserve">
 <g transform="matrix(1.25,0,0,-1.25,0,48.00033)">
  <path style="opacity:0.2" d="m 21.6,33.600269 a 15.2,15.197723 0 0 1 -1.08125,-0.03906 c -0.0456,-9.07e-4 -0.09029,0.0044 -0.135937,0.0031 -0.89582,-0.02558 -1.803439,-0.127444 -2.709375,-0.310891 l -0.0016,0 c -0.906248,-0.184366 -1.78903,-0.443821 -2.635937,-0.776446 -0.09356,-0.03679 -0.185324,-0.07799 -0.275,-0.123419 -0.75714,0.24694 -1.543992,0.425581 -2.375,0.432748 -0.43282,0.0037 -0.874365,-0.02918 -1.317188,-0.101548 C 7.1700553,32.050042 4.7229506,28.670454 4.20625,24.940629 3.8845853,24.776069 3.5473548,24.649631 3.23125,24.471949 2.1048412,23.838563 1.469972,22.589969 1.621875,21.306798 1.7669324,20.085316 2.0464668,18.615185 2.58125,17.012129 2.8549918,16.191341 3.1958491,15.342331 3.615625,14.475009 l 0.00156,-0.0031 0.00156,-0.0016 c 0,0 0,-0.0016 0,-0.0016 0.072782,-0.147913 0.1568862,-0.289982 0.2515625,-0.424937 0.4412746,-0.862474 0.9230314,-1.731038 1.5375,-2.593361 0,0 0.00156,-0.0016 0.00156,-0.0016 7.104e-4,-9.97e-4 8.544e-4,-0.0021 0.00156,-0.0031 C 5.6424623,11.120141 5.883677,10.799575 6.1375,10.483419 8.8036864,7.1508264 11.946643,5.2823191 14.321875,4.2640388 14.626598,4.1337016 14.949722,4.0514835 15.279687,4.020325 15.48599,3.9346106 15.700702,3.8707298 15.920313,3.8297287 L 17.23125,3.5875778 17.085938,3.6172605 C 17.638249,3.4885214 18.047313,3.4423523 18.292187,3.4001059 L 18.1375,3.4297886 c 0.72164,-0.1612862 1.237466,-0.161315 1.521875,-0.1796603 0.01822,-0.0012 0.03645,-0.00223 0.05469,-0.00313 0.180395,-0.00854 0.671696,-0.086493 1.446876,-0.020309 l -0.117188,-0.00781 0.146875,0.00625 A 15.2,15.197723 0 0 1 21.6,3.2048223 15.2,15.197723 0 0 1 36.8,18.402546 15.2,15.197723 0 0 1 21.6,33.600269 Z"/>
  <path style="fill:#b2bfd9" d="m 21.6,34.400269 a 15.2,15.197723 0 0 1 -1.08125,-0.03906 c -0.0456,-9.07e-4 -0.09029,0.0044 -0.135937,0.0031 -0.89582,-0.02558 -1.803439,-0.127444 -2.709375,-0.310891 l -0.0016,0 c -0.906248,-0.184366 -1.78903,-0.443821 -2.635937,-0.776446 -0.09356,-0.03679 -0.185324,-0.07799 -0.275,-0.123419 -0.75714,0.24694 -1.543992,0.425581 -2.375,0.432748 -0.43282,0.0037 -0.874365,-0.02918 -1.317188,-0.101548 C 7.1700553,32.850042 4.7229506,29.470454 4.20625,25.740629 3.8845853,25.576069 3.5473548,25.449631 3.23125,25.271949 2.1048412,24.638563 1.469972,23.389969 1.621875,22.106798 1.7669324,20.885316 2.0464668,19.415185 2.58125,17.812129 2.8549918,16.991341 3.1958491,16.142331 3.615625,15.275009 l 0.00156,-0.0031 0.00156,-0.0016 c 0,0 0,-0.0016 0,-0.0016 0.072782,-0.147913 0.1568862,-0.289982 0.2515625,-0.424937 0.4412746,-0.862474 0.9230314,-1.731038 1.5375,-2.593361 0,0 0.00156,-0.0016 0.00156,-0.0016 7.104e-4,-9.97e-4 8.544e-4,-0.0021 0.00156,-0.0031 C 5.6424623,11.920141 5.883677,11.599575 6.1375,11.283419 8.8036864,7.9508264 11.946643,6.0823191 14.321875,5.0640388 14.626598,4.9337016 14.949722,4.8514835 15.279687,4.820325 15.48599,4.7346106 15.700702,4.6707298 15.920313,4.6297287 L 17.23125,4.3875778 17.085938,4.4172605 C 17.638249,4.2885214 18.047313,4.2423523 18.292187,4.2001059 L 18.1375,4.2297886 c 0.72164,-0.1612862 1.237466,-0.161315 1.521875,-0.1796603 0.01822,-0.0012 0.03645,-0.00223 0.05469,-0.00313 0.180395,-0.00854 0.671696,-0.086493 1.446876,-0.020309 l -0.117188,-0.00781 0.146875,0.00625 A 15.2,15.197723 0 0 1 21.6,4.0048223 15.2,15.197723 0 0 1 36.8,19.202546 15.2,15.197723 0 0 1 21.6,34.400269 Z"/>
  <path style="fill:#4282de" d="m 21.561927,22.606679 c -0.004,0.0907 -0.01323,0.184287 -0.01885,0.272988 -0.05155,0.665265 -0.137149,1.282051 -0.234006,1.838884 -0.01885,0.08549 -0.03284,0.170828 -0.04851,0.251884 -0.0064,0.03685 -0.01399,0.07111 -0.02052,0.108277 -0.0094,0.03379 -0.01582,0.07066 -0.02311,0.103077 -1.021173,0.192239 -2.048124,0.318104 -3.078572,0.377749 -0.571422,0.03441 -1.146372,0.04542 -1.718402,0.0387 -1.171673,-0.01407 -2.345855,-0.114241 -3.516342,-0.301586 -0.12158,-0.01713 -0.245836,-0.03915 -0.367963,-0.05995 -0.04631,-0.0091 -0.0927,-0.01498 -0.136952,-0.02569 C 11.591395,25.066218 10.795439,24.881168 10.012256,24.653907 9.8427494,24.607416 9.6749614,24.55863 9.506337,24.503879 9.4100585,24.475891 9.3128828,24.445611 9.21963,24.415636 8.6685675,24.237314 8.1333031,24.041711 7.5991639,23.82852 6.6423235,23.440985 5.7083363,22.992887 4.8,22.482238 4.9236629,21.440755 5.1629149,20.185852 5.617638,18.822578 5.8496979,18.126665 6.1368002,17.40662 6.494895,16.666631 l 0.00517,-0.0073 C 6.9078682,15.814032 7.407203,14.954662 8.0164249,14.10008 8.2175273,13.816983 8.4211385,13.5469 8.6322914,13.283853 10.896768,10.451049 13.568286,8.8637573 15.582137,8.000274 c 0.01509,0.014514 0.03207,0.026947 0.04656,0.041461 0.03427,0.03285 0.07181,0.066847 0.106269,0.098934 0.556643,0.508507 1.148516,1.1185625 1.74311,1.8353815 0.04418,0.055805 0.09046,0.1099293 0.13423,0.1665603 0.03648,0.04218 0.06932,0.08687 0.105615,0.129032 0.07821,0.103123 0.161646,0.207546 0.243144,0.314478 0.659141,0.876269 1.295169,1.884917 1.853196,3.038915 0.0409,0.08305 0.07967,0.163334 0.117079,0.246072 0.294826,0.634372 0.56426,1.313263 0.797811,2.038508 0.02584,0.08011 0.05261,0.161469 0.08028,0.246775 0.0038,0.01548 0.0074,0.03048 0.01445,0.04577 l -4.56e-4,0.002 c 0.215304,0.706833 0.376173,1.403051 0.494469,2.072858 0.0078,0.03889 0.01399,0.07993 0.02204,0.11571 0.01612,0.09289 0.03041,0.182451 0.04288,0.273371 0.108259,0.682775 0.171361,1.338054 0.200099,1.969183 0.0033,0.09512 0.0068,0.186886 0.0064,0.2814 0.0222,0.592162 0.0082,1.155879 -0.02736,1.690078"/>
  <path style="opacity:0.2" d="m 13.6,19.999889 a 1.6,1.6 0 0 1 -1.6,-1.6 1.6,1.6 0 0 1 0.810938,-1.390625 C 12.806974,16.940685 12.8,16.899889 12.8,16.799889 l 0,-1.6 -0.02969,-0.01563 2.2375,0.0078 L 14.4,16.799889 c 0,0 0.02773,0.125082 0.0625,0.253125 5.5e-5,2.03e-4 0.0015,-2.03e-4 0.0016,0 A 1.6,1.6 0 0 1 15.2,18.399889 a 1.6,1.6 0 0 1 -1.6,1.6 z"/>
  <path style="fill:#8b9cbe" transform="matrix(0.8,0,0,-0.8,0,38.400264)" d="M 17 22 A 2 2 0 0 0 15 24 A 2 2 0 0 0 16.013672 25.738281 C 16.008717 25.824005 16 25.875 16 26 L 16 28 L 15.962891 28.019531 L 18.759766 28.009766 L 18 26 C 18 26 18.034669 25.843647 18.078125 25.683594 C 18.078194 25.68334 18.080009 25.683847 18.080078 25.683594 A 2 2 0 0 0 19 24 A 2 2 0 0 0 17 22 z"/>
  <path style="fill:#17191e" transform="matrix(0.8,0,0,-0.8,0,38.400264)" d="M 25.591797 9.0429688 C 24.69733 9.0685157 23.792779 9.1700169 22.886719 9.3535156 C 21.974601 9.5391044 21.093929 9.7985171 20.257812 10.126953 C 21.052158 10.660163 21.785296 11.316723 22.429688 12.076172 C 22.745397 11.988032 23.064414 11.912297 23.388672 11.849609 C 27.022743 11.112764 30.613663 11.9407 33.474609 13.855469 L 35.978516 12.648438 L 36.052734 12.611328 C 33.162249 10.256405 29.467819 8.9322645 25.591797 9.0429688 z M 37.134766 13.582031 L 37.099609 13.599609 C 36.859883 13.716813 36.628968 13.833156 36.388672 13.949219 C 36.143057 14.057305 35.899994 14.168853 35.650391 14.283203 C 35.339621 14.424532 35.024942 14.556946 34.697266 14.685547 C 34.501609 14.763999 34.297301 14.846728 34.097656 14.931641 C 33.830956 15.039726 33.552699 15.132991 33.28125 15.236328 C 33.004861 15.327128 32.729489 15.438256 32.445312 15.527344 C 31.316396 15.906499 30.136865 16.22765 28.929688 16.515625 C 28.489126 16.614727 28.040912 16.699455 27.59375 16.783203 C 27.599859 16.815973 27.607649 16.861185 27.613281 16.886719 L 27.617188 16.908203 L 27.623047 16.931641 C 27.743646 17.624965 27.848145 18.397512 27.916016 19.228516 C 28.47553 19.046875 29.033191 18.860322 29.578125 18.660156 C 30.809808 18.191532 31.995656 17.689061 33.109375 17.134766 C 33.389183 17.006354 33.664288 16.84982 33.935547 16.71875 C 34.205476 16.568494 34.472994 16.440186 34.734375 16.292969 C 35.084466 16.090475 35.428778 15.897208 35.763672 15.701172 C 35.928746 15.605243 36.085717 15.508234 36.244141 15.412109 C 36.483487 15.261853 36.721241 15.112791 36.955078 14.970703 C 37.185686 14.824816 37.408419 14.666041 37.630859 14.521484 C 37.708932 14.469249 37.7851 14.417097 37.859375 14.365234 C 37.763256 14.244611 37.660541 14.132609 37.556641 14.021484 C 37.420821 13.876167 37.280462 13.726399 37.134766 13.582031 z M 41.986328 21.865234 L 41.716797 22.007812 C 41.484478 22.12995 41.251196 22.261158 41.023438 22.386719 C 40.797958 22.509494 40.573842 22.625765 40.345703 22.730469 L 38.939453 23.396484 L 36.121094 24.726562 L 35.419922 25.058594 C 35.191783 25.166869 34.940436 25.254764 34.705078 25.349609 C 32.264991 26.397527 29.714431 27.060373 27.074219 27.671875 C 27.067267 27.696131 27.061705 27.719871 27.054688 27.744141 L 27.080078 27.855469 L 26.962891 28.113281 C 26.927478 28.222469 26.894369 28.323566 26.863281 28.419922 C 26.570386 29.329448 26.230857 30.1816 25.863281 30.982422 C 27.371117 30.992555 33.306108 30.965988 38.632812 26.388672 C 38.799405 27.470478 36.944343 30.081879 36.265625 30.914062 C 33.402536 34.436752 28.087044 35.328698 23.529297 34.980469 C 23.436154 35.109525 23.343923 35.244279 23.25 35.369141 L 23.25 35.371094 L 23.246094 35.373047 C 23.135065 35.518643 23.032559 35.648633 22.945312 35.763672 L 22.925781 35.791016 L 22.90625 35.8125 C 22.8975 35.822675 22.850316 35.878671 22.806641 35.931641 L 22.771484 35.976562 C 22.716722 36.045361 22.662394 36.112503 22.630859 36.152344 L 22.625 36.160156 L 22.617188 36.169922 C 21.941263 36.98491 21.272797 37.674728 20.626953 38.285156 L 22.265625 38.587891 C 22.688356 38.686441 23.119987 38.74113 23.544922 38.814453 C 23.965487 38.908463 24.396269 38.923059 24.832031 38.951172 C 25.264754 38.971649 25.691192 39.025137 26.126953 38.986328 L 27.439453 38.927734 L 28.691406 38.740234 L 29.003906 38.695312 C 29.066406 38.682395 29.090215 38.686249 29.179688 38.664062 L 29.335938 38.626953 L 29.964844 38.466797 C 30.171328 38.412108 30.383603 38.368748 30.591797 38.300781 L 31.203125 38.089844 L 31.810547 37.876953 L 32.402344 37.611328 L 32.992188 37.347656 C 33.184424 37.248385 33.368691 37.143539 33.560547 37.039062 L 34.128906 36.730469 C 34.313925 36.625251 34.489326 36.490719 34.671875 36.376953 C 35.031275 36.143515 35.392837 35.909245 35.720703 35.628906 C 36.061487 35.363327 36.404725 35.103829 36.710938 34.794922 C 37.030825 34.502046 37.353361 34.210984 37.625 33.892578 L 38.054688 33.427734 L 38.160156 33.306641 L 38.275391 33.175781 C 38.340741 33.091856 38.409073 33.006726 38.474609 32.923828 C 38.727442 32.581164 39.00784 32.249936 39.230469 31.886719 L 39.585938 31.349609 C 39.6982 31.164913 39.802207 30.972664 39.908203 30.785156 C 40.135392 30.41096 40.315445 30.029356 40.496094 29.650391 C 40.684911 29.282424 40.852189 28.843287 40.992188 28.458984 L 41.210938 27.855469 C 41.274763 27.653942 41.328321 27.443571 41.390625 27.236328 L 41.5625 26.615234 L 41.691406 25.992188 C 41.784869 25.58623 41.838304 25.140756 41.894531 24.720703 C 41.954931 24.291152 41.961572 23.884084 41.998047 23.441406 C 42.013247 23.023938 41.995156 22.584757 41.988281 22.166016 L 41.986328 21.865234 z"/>
  <path style="fill:#4282de" transform="matrix(0.8,0,0,-0.8,0,38.400264)" d="M 34.798828 19.080078 C 32.712818 20.141026 30.219862 20.958207 27.988281 21.605469 C 27.986418 21.688047 27.989272 21.766139 27.986328 21.849609 L 27.986328 21.869141 C 27.986381 22.005816 27.982391 22.129381 27.978516 22.240234 L 27.978516 22.246094 L 27.978516 22.25 C 27.942061 23.050474 27.862667 23.885429 27.728516 24.75 C 28.441585 24.572095 29.243887 24.361052 29.625 24.273438 L 30.542969 24.074219 L 31.451172 23.828125 C 32.051437 23.672151 32.666909 23.515669 33.259766 23.306641 C 33.850723 23.105704 34.456381 22.940166 35.042969 22.707031 C 35.530589 22.51261 36.028902 22.34382 36.513672 22.152344 C 35.530833 21.372189 34.941677 20.258193 34.798828 19.080078 z"/>
  <path style="fill:#4282de" d="m 33.200895,21.872062 c -0.607548,-0.908295 -1.726388,-1.275037 -2.717719,-0.961853 -0.209792,0.06298 -0.417386,0.160047 -0.609433,0.290252 -0.794416,0.526789 -1.171759,1.439011 -1.051945,2.322175 0.04617,0.347109 0.16865,0.693747 0.377186,1.005517 0.732702,1.102739 2.224488,1.404613 3.328724,0.671758 1.102822,-0.732541 1.404162,-2.22244 0.673187,-3.327849"/>
  <path style="fill:#17191e" transform="matrix(0.8,0,0,-0.8,0,38.400264)" d="M 15.447266 10.017578 C 15.126279 10.014828 14.802541 10.038697 14.478516 10.091797 C 11.309924 10.607742 9.0918239 13.693499 9.0039062 17.339844 C 9.0440333 17.3234 9.082858 17.303386 9.1230469 17.287109 L 9.125 17.287109 L 9.1289062 17.285156 C 9.7787318 17.025792 10.432772 16.787002 11.105469 16.566406 C 11.421579 14.254816 12.836065 12.406696 14.804688 12.083984 C 15.251315 12.011034 15.697534 12.024784 16.126953 12.107422 C 16.300802 12.139897 16.468629 12.183772 16.634766 12.238281 C 17.344504 12.471359 18.004952 12.892907 18.576172 13.472656 C 18.684734 13.581506 18.788154 13.693067 18.884766 13.814453 C 19.189666 14.171819 19.443296 14.596064 19.671875 15.042969 C 19.952456 15.031852 20.233227 15.005321 20.513672 15.001953 C 20.969619 14.996608 21.429532 15.018895 21.888672 15.033203 C 21.587314 14.253637 21.207443 13.525677 20.732422 12.898438 C 20.620309 12.74989 20.507078 12.609859 20.392578 12.474609 C 19.894017 11.897899 19.328078 11.405578 18.716797 11.021484 C 18.554078 10.915109 18.383036 10.8166 18.212891 10.726562 C 17.350248 10.279066 16.410224 10.025884 15.447266 10.017578 z"/>
  <path style="opacity:0.2;fill:#8b9cbe" transform="matrix(0.8,0,0,-0.8,0,38.400264)" d="M 27 5 A 19 18.997154 0 0 0 25.648438 5.0488281 C 25.591438 5.0499619 25.535574 5.0432969 25.478516 5.0449219 C 24.358741 5.0768969 23.224217 5.204285 22.091797 5.4335938 L 22.089844 5.4335938 C 20.957034 5.6640512 19.853556 5.9885156 18.794922 6.4042969 C 18.677972 6.4502844 18.563267 6.5018075 18.451172 6.5585938 C 17.504747 6.2499187 16.521182 6.0265369 15.482422 6.0175781 C 14.941397 6.0129531 14.389466 6.0540712 13.835938 6.1445312 C 8.9626154 6.93792 5.9036883 11.161938 5.2578125 15.824219 C 4.8557316 16.029919 4.4341935 16.188054 4.0390625 16.410156 C 2.6310515 17.201889 1.837465 18.763224 2.0273438 20.367188 C 2.0299963 20.389524 2.0343844 20.415031 2.0371094 20.4375 C 2.1827837 19.183632 2.9067787 18.046846 4.0390625 17.410156 C 4.4341935 17.188054 4.8557316 17.029919 5.2578125 16.824219 C 5.9036883 12.161938 8.9626154 7.93792 13.835938 7.1445312 C 14.389466 7.0540712 14.941397 7.0129531 15.482422 7.0175781 C 16.521182 7.0265369 17.504747 7.2499187 18.451172 7.5585938 C 18.563267 7.5018075 18.677972 7.4502844 18.794922 7.4042969 C 19.853556 6.9885156 20.957034 6.6640512 22.089844 6.4335938 L 22.091797 6.4335938 C 23.224217 6.204285 24.358741 6.0768969 25.478516 6.0449219 C 25.535574 6.0432969 25.591438 6.0499619 25.648438 6.0488281 A 19 18.997154 0 0 1 27 6 A 19 18.997154 0 0 1 45.978516 24.589844 A 19 18.997154 0 0 0 46 23.998047 A 19 18.997154 0 0 0 27 5 z"/>
 </g>
</svg>
