<svg xmlns="http://www.w3.org/2000/svg" width="48" height="48" version="1">
 <path style="opacity:0.2;fill-rule:evenodd" d="m 12.215184,7 a 5.0007069,5.0005 0 0 0 -3.7579683,8.298828 c 4.6361063,5.279677 5.0667063,10.269949 4.8322303,13.691406 -0.05342,0.779914 -0.216297,0.945656 -0.330091,1.09961 -0.224324,-0.0595 -0.489788,-0.139961 -1.257864,-0.632813 A 5.0007069,5.0005 0 0 0 4,33.666016 C 4,38.862324 9.0930986,43 14.492622,43 c 5.371573,0 9.445224,-3.516207 11.115694,-8.046875 0.567045,0.621187 1.147014,1.233568 1.771558,1.806641 3.113182,2.856612 7.07627,5.14926 11.557119,6.125 a 5.0007069,5.0005 0 0 0 4.879108,-8.117188 c -1.684522,-1.988777 -4.219039,-4.701936 -5.912354,-6.96875 -0.381781,-0.511083 -0.433437,-0.682463 -0.689481,-1.095703 1.526559,-1.46698 2.803436,-3.07651 3.322402,-5.171875 C 41.31823,18.375634 39.920393,15.033787 38.06391,13.103516 34.350944,9.2429727 29.208855,7.8564368 23.725425,7.0527344 a 5.0007069,5.0005 0 0 0 -4.009931,1.1875 C 18.097689,7.689192 15.645211,7 12.215184,7 Z m 22.893525,21.560547 c -0.03222,0.02852 -0.04898,0.08119 -0.08203,0.107422 l -0.259777,0.193359 c 0.131576,-0.09114 0.213063,-0.208314 0.34181,-0.300781 z m -21.737227,1.53125 a 5.0007069,5.0005 0 0 0 0,0.002 c -0.01031,0.0041 -0.0048,0.1199 -0.222665,0.0918 -7.27e-4,-0.01435 -0.351229,0.13677 0.222665,-0.09375 z"/>
 <path style="fill:#55648f;fill-rule:evenodd" d="m 12.215184,6 a 5.0007069,5.0005 0 0 0 -3.7579683,8.298828 c 4.6361063,5.279677 5.0667063,10.269949 4.8322303,13.691406 -0.05342,0.779914 -0.216297,0.945656 -0.330091,1.09961 -0.224324,-0.0595 -0.489788,-0.139961 -1.257864,-0.632813 A 5.0007069,5.0005 0 0 0 4,32.666016 C 4,37.862324 9.0930986,42 14.492622,42 c 5.371573,0 9.445224,-3.516207 11.115694,-8.046875 0.567045,0.621187 1.147014,1.233568 1.771558,1.806641 3.113182,2.856612 7.07627,5.14926 11.557119,6.125 a 5.0007069,5.0005 0 0 0 4.879108,-8.117188 c -1.684522,-1.988777 -4.219039,-4.701936 -5.912354,-6.96875 -0.381781,-0.511083 -0.433437,-0.682463 -0.689481,-1.095703 1.526559,-1.46698 2.803436,-3.07651 3.322402,-5.171875 C 41.31823,17.375634 39.920393,14.033787 38.06391,12.103516 34.350944,8.2429727 29.208855,6.8564368 23.725425,6.0527344 a 5.0007069,5.0005 0 0 0 -4.009931,1.1875 C 18.097689,6.689192 15.645211,6 12.215184,6 Z m 22.893525,21.560547 c -0.03222,0.02852 -0.04898,0.08119 -0.08203,0.107422 l -0.259777,0.193359 c 0.131576,-0.09114 0.213063,-0.208314 0.34181,-0.300781 z m -21.737227,1.53125 a 5.0007069,5.0005 0 0 0 0,0.002 c -0.01031,0.0041 -0.0048,0.1199 -0.222665,0.0918 -7.27e-4,-0.01435 -0.351229,0.13677 0.222665,-0.09375 z"/>
 <path style="opacity:0.2;fill-rule:evenodd" d="m 12.214844,12 c 5.617,6.397 6.3595,12.998031 6.0625,17.332031 -0.2602,3.7987 -2.596559,5.221071 -3.042969,5.400391 C 14.303675,35.106322 12.1172,35.666316 9,33.666016 9,36.000016 11.004188,38 14.492188,38 c 3.488,0 6.342828,-2.800078 6.923828,-5.955078 2.0132,-16.2861 -1.816407,-18.574219 -1.816407,-18.574219 0,0 -3.506865,-1.470703 -7.384765,-1.470703 z M 23,12 c 1,4.322 8.917969,6.022172 8.917969,8.076172 0,2.055 -5.418938,2.408281 -5.335938,5.738281 C 26.666031,30.419453 33.167,36.512 40,38 37,34.458 29.417969,26.735953 31.917969,24.751953 40.918269,18.517653 32.6667,13.4169 23,12 Z"/>
 <path style="fill:#8b9cbe;fill-rule:evenodd" d="M 12.214844 11 C 17.831844 17.397 18.574344 23.998031 18.277344 28.332031 C 18.017144 32.130731 15.680785 33.553102 15.234375 33.732422 C 14.303675 34.106322 12.1172 34.666316 9 32.666016 C 9 35.000016 11.004188 37 14.492188 37 C 17.980188 37 20.835016 34.199922 21.416016 31.044922 C 23.429216 14.758822 19.599609 12.470703 19.599609 12.470703 C 19.599609 12.470703 16.092744 11 12.214844 11 z M 23 11 C 24 15.322 31.917969 17.022172 31.917969 19.076172 C 31.917969 21.131172 26.499031 21.484453 26.582031 24.814453 C 26.666031 29.419453 33.167 35.512 40 37 C 37 33.458 29.417969 25.735953 31.917969 23.751953 C 40.918269 17.517653 32.6667 12.4169 23 11 z"/>
 <path style="opacity:0.1;fill:#8b9cbe;fill-rule:evenodd" d="M 12.214844 6 A 5.0007069 5.0005 0 0 0 7.2460938 11.5 A 5.0007069 5.0005 0 0 1 12.214844 7 C 15.644871 7 18.097039 7.689192 19.714844 8.2402344 A 5.0007069 5.0005 0 0 1 23.724609 7.0527344 C 29.208039 7.8564368 34.351487 9.2429723 38.064453 13.103516 C 39.445169 14.53911 40.566966 16.755842 40.732422 19.095703 C 40.870812 16.399454 39.640784 13.7425 38.064453 12.103516 C 34.351487 8.2429723 29.208039 6.8564368 23.724609 6.0527344 A 5.0007069 5.0005 0 0 0 19.714844 7.2402344 C 18.097039 6.689192 15.644871 6 12.214844 6 z M 37.582031 26.320312 C 37.457108 26.446303 37.343626 26.579369 37.214844 26.703125 C 37.470888 27.116365 37.522516 27.287745 37.904297 27.798828 C 39.597612 30.065642 42.131884 32.778801 43.816406 34.767578 A 5.0007069 5.0005 0 0 1 44.972656 37.498047 A 5.0007069 5.0005 0 0 0 43.816406 33.767578 C 42.131884 31.778801 39.597612 29.065642 37.904297 26.798828 C 37.747793 26.589319 37.664405 26.455713 37.582031 26.320312 z M 13.320312 27.132812 C 13.311844 27.422766 13.307629 27.719318 13.289062 27.990234 C 13.235643 28.770148 13.072778 28.93589 12.958984 29.089844 C 12.73466 29.030344 12.469248 28.949883 11.701172 28.457031 A 5.0007069 5.0005 0 0 0 4 32.666016 C 4 32.83699 4.0203928 33.003303 4.03125 33.171875 A 5.0007069 5.0005 0 0 1 11.701172 29.457031 C 12.469248 29.949883 12.73466 30.030344 12.958984 30.089844 C 13.062443 29.949873 13.202122 29.776221 13.267578 29.164062 C 13.235805 29.175756 13.217001 29.19439 13.148438 29.185547 C 13.148035 29.177595 13.269894 29.132235 13.271484 29.132812 C 13.276613 29.081279 13.285083 29.048336 13.289062 28.990234 C 13.328309 28.417546 13.334935 27.787407 13.320312 27.132812 z M 35.109375 28.560547 C 34.980628 28.653014 34.899154 28.770188 34.767578 28.861328 L 35.027344 28.667969 C 35.060394 28.641737 35.077155 28.589067 35.109375 28.560547 z M 13.371094 30.091797 C 12.7972 30.322317 13.147711 30.171197 13.148438 30.185547 C 13.366303 30.213647 13.360784 30.09785 13.371094 30.09375 A 5.0007069 5.0005 0 0 0 13.371094 30.091797 z"/>
</svg>
