<svg xmlns="http://www.w3.org/2000/svg" width="48" height="48" version="1.1">
 <rect style="opacity:0.2" width="40" height="40" x="4" y="5" rx="12" ry="12"/>
 <rect style="fill:#31405e" width="40" height="40" x="4" y="4" rx="12" ry="12"/>
 <path style="opacity:0.2" d="M 24.001953,11 C 20.296572,11 8.3688008,32.624951 10.1875,36.276847 c 1.818699,3.651897 25.830061,3.609783 27.628906,0 C 39.615252,32.667065 27.706733,11 24.001953,11 Z m 0.002,5.546766 c 2.427539,0 10.229356,14.193408 9.050782,16.560222 -1.178575,2.366212 -16.909151,2.392684 -18.101563,0 -1.192412,-2.392684 6.623242,-16.560222 9.050781,-16.560222 z m -0.002,5.453018 c -1.229712,0 -5.188011,6.951299 -4.583984,8.12484 0.604027,1.17354 8.57116,1.160721 9.167969,0 0.596807,-1.160722 -3.354272,-8.124258 -4.583985,-8.12484 z"/>
 <path style="opacity:0.1;fill:#8b9cbe" d="M 16,4 C 9.352,4 4,9.352 4,16 v 1 C 4,10.352 9.352,5 16,5 h 16 c 6.648,0 12,5.352 12,12 V 16 C 44,9.352 38.648,4 32,4 Z"/>
 <path style="fill:#4287ea" d="m 24.001802,21 c -1.229712,0 -5.188376,6.951064 -4.584349,8.124628 0.604027,1.173563 8.57189,1.160744 9.168698,0 C 29.182959,27.963883 25.231515,21.000582 24.001802,21 Z"/>
 <path style="fill:#a245e9" d="M 24.001802,10 C 20.296421,10 8.3686908,31.624826 10.18739,35.276794 c 1.818699,3.651968 25.829979,3.609853 27.628824,0 C 39.61506,31.666941 27.706582,10 24.001802,10 Z m 9.053187,22.107944 c -1.178575,2.366259 -16.910352,2.392731 -18.102764,0 -1.192412,-2.392731 6.623843,-16.562006 9.051382,-16.562006 2.427539,0 10.229957,14.195146 9.051382,16.562006 z"/>
 <path style="fill:#8b9cbe;opacity:0.2" d="M 24.001953 10 C 20.457855 10 9.4004008 29.771753 10.035156 34.689453 C 10.661693 28.536141 20.664663 11 24.001953 11 C 27.340694 11 37.337712 28.591635 37.964844 34.710938 C 38.609432 29.853539 27.549266 10 24.001953 10 z M 24.001953 21 C 22.772241 21 18.813942 27.951459 19.417969 29.125 C 19.425519 29.139669 19.447209 29.151717 19.457031 29.166016 C 20.015105 26.903842 22.967993 22 24.001953 22 C 25.035759 22.000489 27.983544 26.910186 28.544922 29.167969 C 28.55531 29.153075 28.578075 29.140292 28.585938 29.125 C 29.182744 27.964278 25.231666 21.000582 24.001953 21 z M 14.884766 31.900391 C 14.816231 32.416558 14.821502 32.843307 14.953125 33.107422 C 16.145537 35.500106 31.876113 35.473634 33.054688 33.107422 C 33.184705 32.84632 33.188434 32.42223 33.119141 31.908203 C 33.100902 31.979304 33.083325 32.049913 33.054688 32.107422 C 31.876113 34.473634 16.145537 34.500106 14.953125 32.107422 C 14.92323 32.047435 14.903563 31.974771 14.884766 31.900391 z"/>
</svg>
