<svg xmlns="http://www.w3.org/2000/svg" width="48" height="48" version="1.1">
 <circle style="opacity:0.2" cx="24" cy="25" r="20"/>
 <circle style="fill:#8c2330" cx="24" cy="24" r="20"/>
 <path style="opacity:0.1;fill:#8b9cbe" d="M 24,4 A 20,20 0 0 0 4,24 20,20 0 0 0 4.0215,24.582 20,20 0 0 1 24,5 20,20 0 0 1 43.979,24.418 20,20 0 0 0 44,24 20,20 0 0 0 24,4 Z"/>
 <path style="opacity:0.2" d="M 31.525391,6.4827809 C 28.136082,10.016506 26.047437,13.77983 25.048828,18.080437 23.77858,23.550882 23.979943,29.621311 24.099609,38.049187 l 7,-0.09766 c -0.06945,-4.891502 -0.05008,-8.672997 0.103516,-11.951172 H 37 v -7 h -4.927734 c 0.86551,-3.270562 2.306382,-5.75416 5.480468,-8.675781 A 20,20 0 0 0 31.525391,6.4827809 Z M 22,10.961297 l -7,0.07812 c 0.125554,11.347103 0.0089,17.002585 -0.8125,20.017579 -0.744134,2.731411 -2.022792,4.050433 -5.2421875,7.072265 A 20,20 0 0 0 14.423828,42.557 c 3.139086,-3.02477 5.424686,-5.648597 6.517578,-9.660157 C 22.22368,28.190144 22.125887,22.338431 22,10.961297 Z"/>
 <path style="fill:#8b9cbe" d="m 31.525391,5.4824219 c -3.389309,3.5337248 -5.477954,7.2970491 -6.476563,11.5976561 -1.270248,5.470445 -1.068885,11.540874 -0.949219,19.96875 l 7,-0.09766 C 31.030156,32.05967 31.049529,28.278175 31.203125,25 H 37 v -7 h -4.927734 c 0.86551,-3.270562 2.306382,-5.75416 5.480468,-8.6757812 A 20,20 0 0 0 31.525391,5.4824219 Z M 22,9.9609375 15,10.039062 c 0.125554,11.347103 0.0089,17.002585 -0.8125,20.017579 -0.744134,2.731411 -2.022792,4.050433 -5.2421875,7.072265 a 20,20 0 0 0 5.4785155,4.427735 c 3.139086,-3.02477 5.424686,-5.648597 6.517578,-9.660157 C 22.22368,27.189785 22.125887,21.338072 22,9.9609375 Z"/>
</svg>
