<svg xmlns="http://www.w3.org/2000/svg" width="48" height="48" version="1">
 <path style="fill:#858585" d="M 24,14 A 10,10 0 0 0 14,24 10,10 0 0 0 24,34 10,10 0 0 0 34,24 10,10 0 0 0 24,14 Z m 0,6 c 2.209,0 4,1.791 4,4 0,2.209 -1.791,4 -4,4 -2.209,0 -4,-1.791 -4,-4 0,-2.2091 1.7909,-4 4,-4 z"/>
 <path style="fill:#b2bfd9" d="M 24,4 C 12.92,4 4,12.92 4,24 4,35.08 12.92,44 24,44 35.08,44 44,35.08 44,24 44,12.92 35.08,4 24,4 Z m 0,12 a 8,8 0 0 1 8,8 8,8 0 0 1 -8,8 8,8 0 0 1 -8,-8 8,8 0 0 1 8,-8 z"/>
 <path style="opacity:0.2;fill:#8b9cbe" d="m 24,4 c 11.07,0 19.982,8.92 19.982,20 0,0.16787 -0.008,0.33314 -0.01169,0.5 -0.264,-10.846 -9.068,-19.5 -19.97,-19.5 -10.902,0 -19.706,8.654 -19.97,19.5 -0.004,-0.16686 -0.011689,-0.33213 -0.011689,-0.5 0,-11.08 8.9119,-20 19.982,-20 z m 3.9456,20.5 c 0.02088,0.16551 0.05075,0.32883 0.05075,0.5 0,2.2091 -1.7892,4 -3.9963,4 -2.2071,0 -3.9963,-1.7909 -3.9963,-4 0,-0.17117 0.02987,-0.33449 0.05075,-0.5 0.24818,1.9706 1.9095,3.5 3.9456,3.5 2.0361,0 3.6974,-1.5294 3.9456,-3.5 z"/>
 <path style="opacity:0.2" d="m 4.0118,24.5 c -0.0041,0.167 -0.0117,0.332 -0.0117,0.5 0,11.08 8.92,20 20,20 11.08,0 20,-8.92 20,-20 0,-0.168 -0.008,-0.333 -0.012,-0.5 C 43.7241,35.346 34.9121,44 24.0001,44 13.0881,44 4.2761,35.346 4.0121,24.5 Z"/>
 <circle style="opacity:0.2" cx="36" cy="37" r="11"/>
 <circle style="fill:#ff4d4d" cx="36" cy="36" r="11"/>
 <path style="fill:#8b9cbe" d="M 36 28 A 8 8 0 0 0 28 36 A 8 8 0 0 0 36 44 A 8 8 0 0 0 44 36 A 8 8 0 0 0 36 28 z M 36 33 A 2.9999997 2.9999997 0 0 1 39 36 A 2.9999997 2.9999997 0 0 1 36 39 A 2.9999997 2.9999997 0 0 1 33 36 A 2.9999997 2.9999997 0 0 1 36 33 z"/>
</svg>
