<svg xmlns="http://www.w3.org/2000/svg" width="48" height="48" version="1.1">
 <circle style="opacity:0.2" cx="24" cy="25" r="20"/>
 <circle style="fill:#447490" cx="24" cy="24" r="20"/>
 <path style="opacity:0.2" d="M 3.2441406,8.4612495 C 2.8281429,8.4645027 2.4133546,8.4797148 2,8.531562 c 4.577195,0.082549 9.16599,0.45772 13.648438,1.421875 0.865746,0.113047 1.70268,0.371229 2.546874,0.585938 0.408678,0.09637 0.791028,0.278304 1.197266,0.382812 0.67869,0.172011 1.340755,0.399621 2.011719,0.597656 0.410305,0.178518 0.854261,0.259883 1.261719,0.445313 0.609154,0.259033 1.203253,0.549258 1.794922,0.845703 0.07645,0.05124 0.197196,0.07632 0.21875,0.181641 0.153711,0.643718 0.234818,1.30346 0.421874,1.939453 0.351749,1.190656 0.798503,2.362486 1.431641,3.433593 -0.673811,0.321249 -1.256099,0.805679 -1.765625,1.345704 -0.725455,0.79865 -1.289703,1.762628 -1.53125,2.820312 -0.294813,1.082082 -0.233481,2.129995 0.02148,3.212891 0.276927,0.969034 0.771583,1.674421 1.44336,2.426715 1.347621,1.535085 3.445624,2.425307 5.490234,2.189453 2.463862,-0.198036 5.030743,0.195767 7.195313,1.433594 1.136573,0.657138 2.210228,1.465175 3.021484,2.507812 1.102415,1.253687 1.931713,2.82763 2.564453,4.367188 0.09271,0.232194 0.176188,0.469619 0.304688,0.685547 0,-0.288312 -0.106755,-0.558273 -0.203125,-0.824219 -0.294818,-0.786451 -0.628517,-1.660291 -1.044922,-2.390625 -0.491633,-0.876728 -1.031028,-1.735903 -1.710938,-2.480469 -0.99262,-1.194724 -2.203264,-2.216512 -3.58789,-2.927734 1.05565,0.135818 2.083557,0.442847 3.085937,0.792967 1.072729,0.383873 2.103366,0.893649 3.029297,1.560548 0.914544,0.740908 1.719612,1.627352 2.3125,2.648438 0.307424,0.493259 0.503098,1.144204 0.771485,1.658203 -0.236261,-1.190657 -0.833072,-2.385362 -1.580079,-3.332031 -0.441616,-0.573775 -1.003683,-1.032193 -1.554687,-1.494141 -1.271579,-1.0036 -2.751045,-1.711424 -4.28125,-2.224609 -2.808697,-0.922272 -5.780341,-1.276992 -8.728516,-1.275391 -0.712442,0.0041 -1.431411,-0.08976 -2.101562,-0.339844 -1.547284,-0.555884 -2.767085,-1.721911 -3.146485,-3.321246 -0.490414,-1.737187 0.05354,-3.610254 1.332032,-4.876953 1.037758,-1.060123 2.550415,-1.664298 4.037109,-1.519532 1.535897,0.109794 2.995857,0.646897 4.429688,1.171876 1.173171,0.458695 2.353415,0.910993 3.486328,1.464843 0.02969,0.32735 0.05582,0.662792 0.175781,0.972657 0.161031,0.316774 0.507029,0.468596 0.814453,0.611328 0.585568,0.262693 1.140532,0.496511 1.638672,0.902343 0.368827,0.297664 0.674456,0.661333 1.02539,0.978516 0.117011,-0.187684 0.136025,-0.233115 0.169922,-0.298828 0.01846,-0.01922 0.0051,0.0015 0.03125,-0.02734 0.265132,-0.278145 0.661264,-0.332789 1,-0.501953 -0.87998,-0.219589 -1.745236,-0.539191 -2.322265,-1.259766 -0.09101,-0.112075 0.29152,-0.0105 0.21289,-0.185546 -0.05573,-0.148865 -0.107533,-0.235593 -0.183593,-0.365235 -0.319217,-0.472114 -0.645363,-0.94074 -0.931641,-1.433594 -0.333448,-0.0056 -0.665818,-0.01032 -0.998047,-0.01563 -0.417624,-0.492447 -0.880477,-0.941873 -1.30664,-1.425781 0.03579,0.265946 0.08317,0.531176 0.08398,0.800781 -0.285465,-0.163471 -0.567706,-0.334359 -0.822266,-0.542968 -0.278145,-0.251713 -0.535328,-0.526611 -0.808594,-0.783204 0.03578,0.194784 0.07375,0.388389 0.105469,0.583985 -0.561983,-0.225281 -1.089523,-0.564176 -1.484375,-1.027344 -0.0057,0.114674 -0.01112,0.22867 -0.01563,0.34375 -0.351342,-0.134599 -0.694394,-0.285649 -1.044922,-0.421875 -0.882826,-0.331822 -1.758563,-0.714055 -2.691406,-0.882812 -1.027592,-0.05164 -2.113242,0.08722 -3.085937,-0.332032 C 26.713802,17.072823 26.164592,16.546294 25.84375,15.904609 25.257774,14.810327 25.338242,13.509981 25.507812,12.322578 24.761214,11.827284 23.95187,11.434103 23.121094,11.101875 22.732748,10.963615 22.370269,10.760022 21.964844,10.672187 20.501736,10.1895 19.004173,9.8175998 17.490234,9.5374214 16.832283,9.3918425 16.159497,9.3240319 15.501953,9.1780464 14.872873,9.0568662 14.235602,8.9927766 13.599609,8.9163276 10.578238,8.5678329 7.5326715,8.4363636 4.4921875,8.4632026 4.0767998,8.4662526 3.6601383,8.4579963 3.2441406,8.4612495 Z M 24.451172,13.222968 c -5.543384,-0.04676 -11.105664,0.208078 -16.5839845,1.09375 -1.4350499,0.240327 -2.8794649,0.460857 -4.2832031,0.84961 4.6943087,-0.659985 9.4233966,-1.106024 14.1640626,-1.210938 2.309336,-0.01545 4.623112,0.0585 6.921875,0.289063 -0.07685,-0.339141 -0.15572,-0.679496 -0.21875,-1.021485 z m 0.361328,1.501953 c -3.11856,0.293191 -6.179522,1.034717 -9.148438,2.017579 -2.052335,0.703901 -4.066895,1.526978 -6.007812,2.498046 -0.6892631,0.346462 -1.3851775,0.682226 -2.0390625,1.09375 0.7376538,-0.31637 1.456525,-0.675073 2.203125,-0.970703 C 14.67484,17.366966 19.819393,15.96873 25.078125,15.699531 24.977277,15.377875 24.88163,15.05471 24.8125,14.724921 Z m 6.183594,1.025391 c 0.550597,0.247648 1.130797,0.421873 1.677734,0.679688 1.670498,0.730332 3.274489,1.640216 4.685547,2.800781 0.510339,0.423317 0.987646,0.889325 1.400391,1.408203 0.108574,0.11874 0.288255,0.02923 0.427734,0.05078 -0.156965,-0.289531 -0.443175,-0.475569 -0.666016,-0.708984 -1.12722,-1.106074 -2.421453,-2.037977 -3.820312,-2.769531 -1.178863,-0.612003 -2.411541,-1.147415 -3.705078,-1.460938 z"/>
 <path style="opacity:0.2;fill:#8b9cbe" d="M 24,4 A 20,20 0 0 0 4,24 20,20 0 0 0 4.0215,24.582 20,20 0 0 1 24,5 20,20 0 0 1 43.979,24.418 20,20 0 0 0 44,24 20,20 0 0 0 24,4 Z"/>
 <path style="fill:#8b9cbe" d="M 3.2441406 7.4609375 C 2.8281429 7.4641907 2.4133546 7.4794028 2 7.53125 C 6.577195 7.6137989 11.16599 7.98897 15.648438 8.953125 C 16.514184 9.0661723 17.351118 9.324354 18.195312 9.5390625 C 18.60399 9.6354374 18.98634 9.8173673 19.392578 9.921875 C 20.071268 10.093886 20.733333 10.321495 21.404297 10.519531 C 21.814602 10.698049 22.258558 10.779414 22.666016 10.964844 C 23.27517 11.223877 23.86927 11.514102 24.460938 11.810547 C 24.537387 11.861784 24.658135 11.886867 24.679688 11.992188 C 24.833399 12.635907 24.914506 13.295648 25.101562 13.931641 C 25.453311 15.122297 25.900065 16.294127 26.533203 17.365234 C 25.859392 17.686483 25.277104 18.170913 24.767578 18.710938 C 24.042123 19.509588 23.477875 20.473566 23.236328 21.53125 C 22.941515 22.613332 23.002847 23.661245 23.257812 24.744141 C 23.534739 25.713175 24.029395 26.419582 24.701172 27.171875 C 26.048793 28.70696 28.146796 29.595229 30.191406 29.359375 C 32.655268 29.161339 35.222149 29.557095 37.386719 30.794922 C 38.523292 31.45206 39.596947 32.260097 40.408203 33.302734 C 41.510618 34.556421 42.339916 36.128411 42.972656 37.667969 C 43.065371 37.900163 43.148844 38.137588 43.277344 38.353516 C 43.277344 38.065205 43.170589 37.795243 43.074219 37.529297 C 42.779401 36.742846 42.445702 35.869006 42.029297 35.138672 C 41.537664 34.261945 40.998269 33.404723 40.318359 32.660156 C 39.325739 31.465433 38.115095 30.443644 36.730469 29.732422 C 37.786119 29.868241 38.814026 30.17527 39.816406 30.525391 C 40.889135 30.909264 41.919772 31.417086 42.845703 32.083984 C 43.760247 32.824892 44.565315 33.711336 45.158203 34.732422 C 45.465627 35.225681 45.661302 35.878579 45.929688 36.392578 C 45.693427 35.201921 45.096616 34.007216 44.349609 33.060547 C 43.907993 32.486772 43.345926 32.028354 42.794922 31.566406 C 41.523343 30.562806 40.043877 29.85303 38.513672 29.339844 C 35.704975 28.417573 32.733331 28.064806 29.785156 28.066406 C 29.072714 28.070473 28.353745 27.97665 27.683594 27.726562 C 26.13631 27.170679 24.916509 26.003632 24.537109 24.404297 C 24.046695 22.66711 24.590649 20.794043 25.869141 19.527344 C 26.906899 18.467221 28.419556 17.863046 29.90625 18.007812 C 31.442147 18.117606 32.902107 18.654709 34.335938 19.179688 C 35.509109 19.638383 36.689353 20.090681 37.822266 20.644531 C 37.851951 20.971881 37.878087 21.307323 37.998047 21.617188 C 38.159078 21.933963 38.505076 22.085784 38.8125 22.228516 C 39.398068 22.491209 39.953032 22.725027 40.451172 23.130859 C 40.819999 23.428523 41.125628 23.792192 41.476562 24.109375 C 41.593572 23.921691 41.612587 23.87626 41.646484 23.810547 C 41.664945 23.791327 41.651581 23.812086 41.677734 23.783203 C 41.942866 23.505058 42.338998 23.450414 42.677734 23.28125 C 41.797754 23.061661 40.932498 22.742059 40.355469 22.021484 C 40.264454 21.909409 40.646989 22.010984 40.568359 21.835938 C 40.512632 21.687074 40.460826 21.600345 40.384766 21.470703 C 40.065549 20.998589 39.739403 20.529963 39.453125 20.037109 C 39.119677 20.031459 38.787307 20.026784 38.455078 20.021484 C 38.037454 19.529037 37.574601 19.079611 37.148438 18.595703 C 37.184228 18.861649 37.231608 19.126879 37.232422 19.396484 C 36.946957 19.233013 36.664716 19.062125 36.410156 18.853516 C 36.132011 18.601803 35.874828 18.326905 35.601562 18.070312 C 35.637347 18.265096 35.675311 18.458701 35.707031 18.654297 C 35.145048 18.429016 34.617508 18.090121 34.222656 17.626953 C 34.217006 17.741627 34.211531 17.855623 34.207031 17.970703 C 33.855689 17.836104 33.512637 17.685054 33.162109 17.548828 C 32.279283 17.217006 31.403546 16.834773 30.470703 16.666016 C 29.443111 16.614372 28.357461 16.753235 27.384766 16.333984 C 26.713802 16.072511 26.164592 15.545982 25.84375 14.904297 C 25.257774 13.810015 25.338241 12.509669 25.507812 11.322266 C 24.761213 10.826972 23.95187 10.433791 23.121094 10.101562 C 22.732748 9.9633029 22.370269 9.75971 21.964844 9.671875 C 20.501736 9.1891875 19.004173 8.8172878 17.490234 8.5371094 C 16.832283 8.3915305 16.159497 8.3237199 15.501953 8.1777344 C 14.872873 8.0565542 14.235602 7.9924646 13.599609 7.9160156 C 10.578238 7.5675209 7.5326715 7.4360516 4.4921875 7.4628906 C 4.0767998 7.4659406 3.6601383 7.4576843 3.2441406 7.4609375 z M 24.451172 12.222656 C 18.907788 12.175892 13.345508 12.430734 7.8671875 13.316406 C 6.4321376 13.556733 4.9877226 13.777263 3.5839844 14.166016 C 8.2782931 13.506031 13.007381 13.059992 17.748047 12.955078 C 20.057383 12.939625 22.371159 13.013574 24.669922 13.244141 C 24.593067 12.905 24.514202 12.564645 24.451172 12.222656 z M 24.8125 13.724609 C 21.69394 14.0178 18.632977 14.759327 15.664062 15.742188 C 13.611726 16.446089 11.597167 17.269166 9.65625 18.240234 C 8.9669869 18.586696 8.2710725 18.92246 7.6171875 19.333984 C 8.3548413 19.017614 9.0737125 18.658911 9.8203125 18.363281 C 14.67484 16.366654 19.819393 14.968418 25.078125 14.699219 C 24.977277 14.377563 24.88163 14.054398 24.8125 13.724609 z M 30.996094 14.75 C 31.546691 14.997648 32.126891 15.171874 32.673828 15.429688 C 34.344326 16.160021 35.948317 17.069904 37.359375 18.230469 C 37.869714 18.653786 38.347021 19.119794 38.759766 19.638672 C 38.86834 19.757412 39.048021 19.667903 39.1875 19.689453 C 39.030535 19.399922 38.744325 19.213884 38.521484 18.980469 C 37.394264 17.874395 36.100031 16.942491 34.701172 16.210938 C 33.522309 15.598936 32.289631 15.063523 30.996094 14.75 z"/>
 <path style="fill:#447490" d="m 39.533734,21.078057 c 0.752727,0.784261 -0.02219,-0.02877 0.688359,0.716645 0.01976,0.02073 0.01337,0.0067 -0.01374,0.07347 -0.228534,-0.09109 -0.449749,-0.199256 -0.67259,-0.300917 -0.0016,-0.163471 -0.0024,-0.326536 -0.002,-0.489194 z"/>
</svg>
