<svg xmlns="http://www.w3.org/2000/svg" width="48" height="48" version="1.1">
 <g transform="translate(0,-1074.5197)">
  <path style="opacity:0.2" d="m 39.271572,1105.0839 -0.775819,1.8159 -22.013065,-6.5527 q -0.04849,0.2011 -0.171722,0.5953 -0.115157,0.3607 -0.163641,0.5617 -0.880798,3.6518 0.390301,5.9693 1.297366,2.3251 4.738549,3.3495 2.96835,0.8836 6.526664,0.7219 3.584585,-0.1538 7.751058,-1.3195 l -3.691213,8.8837 q -3.829056,0.5838 -7.429826,0.3378 -3.582584,-0.2046 -7.102572,-1.2524 -6.882366,-2.0486 -9.6610051,-7.2206 -2.75237,-5.1642 -0.966534,-12.5682 1.034332,-4.2884 3.186104,-7.9568 2.1861201,-3.6942 5.2795571,-6.3642 3.675349,-3.2149 7.932759,-4.1739 4.283678,-0.9512 8.880679,0.4172 5.962965,1.775 8.478919,6.8687 2.542221,5.1017 0.885676,11.9698 -0.323229,1.34 -0.844471,2.8007 -0.486896,1.4351 -1.230398,3.1168 z m -7.553537,-8.1373 q 0.183855,-0.4121 0.315172,-0.8398 0.165668,-0.4534 0.270718,-0.889 0.646457,-2.6801 -0.234641,-4.6301 -0.881098,-1.9499 -3.035121,-2.5911 -2.7582,-0.8211 -5.170755,0.5435 -2.378207,1.3388 -4.30772,4.7862 z"/>
  <path style="fill:#275ac4" d="m 39.271572,1104.0839 -0.775819,1.8159 -22.013065,-6.5526 q -0.04849,0.2011 -0.171722,0.5952 -0.115157,0.3607 -0.163641,0.5617 -0.880798,3.6518 0.390301,5.9693 1.297366,2.3251 4.738549,3.3495 2.96835,0.8836 6.526664,0.7219 3.584585,-0.1538 7.751058,-1.3195 l -3.691213,8.8837 q -3.829056,0.5838 -7.429826,0.3378 -3.582584,-0.2046 -7.102572,-1.2523 -6.882366,-2.0487 -9.6610051,-7.2207 -2.75237,-5.1642 -0.966534,-12.5682 1.034332,-4.2884 3.186104,-7.9568 2.1861201,-3.6941 5.2795571,-6.3642 3.675349,-3.2149 7.932759,-4.1739 4.283678,-0.9512 8.880679,0.4172 5.962965,1.7751 8.478919,6.8688 2.542221,5.1016 0.885676,11.9697 -0.323229,1.3401 -0.844471,2.8007 -0.486896,1.4351 -1.230398,3.1168 z m -7.553537,-8.1373 q 0.183855,-0.4121 0.315172,-0.8397 0.165668,-0.4534 0.270718,-0.889 0.646457,-2.6802 -0.234641,-4.6302 -0.881098,-1.9499 -3.035121,-2.5911 -2.7582,-0.821 -5.170755,0.5435 -2.378207,1.3388 -4.30772,4.7862 z"/>
  <path style="fill:#453a53" d="m 28.089844,1078.589 -21.9375002,21.937 c -0.3289178,2.8621 -0.073644,5.436 0.7636718,7.7225 l 15.1699224,-15.1696 -2.529297,-0.7519 c 1.286342,-2.2983 2.721169,-3.8945 4.30664,-4.787 1.404959,-0.7947 2.897727,-1.034 4.478516,-0.7168 l 6.402344,-6.4022 c -0.849145,-0.4333 -1.769378,-0.7984 -2.761719,-1.0938 -1.316991,-0.392 -2.614162,-0.6318 -3.892578,-0.7382 z m 11.230468,5.7401 -6.808593,6.8084 c 0.131509,0.9309 0.06389,1.9568 -0.207031,3.08 -0.07003,0.2904 -0.16104,0.5864 -0.271485,0.8887 -0.08754,0.2851 -0.191883,0.5651 -0.314453,0.8398 l -3.09375,-0.9218 -6.115234,6.1151 6.537109,1.9472 12.740234,-12.738 c -0.239105,-1.4696 -0.67934,-2.8542 -1.326171,-4.1523 -0.330885,-0.6699 -0.720311,-1.2833 -1.140626,-1.8671 z m 1.59961,15.3707 -5.333984,5.3339 2.910156,0.8652 0.77539,-1.8144 c 0.495668,-1.1212 0.905872,-2.1604 1.230469,-3.1171 0.153818,-0.4311 0.290017,-0.8523 0.417969,-1.2676 z m -24.134766,7.1639 -6.501953,6.5018 c 1.419425,1.3286 3.177409,2.3983 5.269531,3.2148 l 6.552735,-6.5526 c -0.277179,-0.067 -0.560214,-0.1247 -0.830078,-0.205 -2.094524,-0.6235 -3.587046,-1.6126 -4.490235,-2.959 z m 18.769532,2.3613 c -1.835126,0.5134 -3.578342,0.865 -5.244141,1.084 l -7.941406,7.9412 c 0.686073,0.086 1.374901,0.1579 2.064453,0.1973 2.086598,0.1425 4.233959,0.062 6.435547,-0.2129 l 1.611328,-1.6094 z"/>
  <path style="opacity:0.1;fill:#8b9cbe" d="m 26.357422,1078.5226 c -1.100294,0.02 -2.18494,0.1508 -3.25586,0.3886 -2.838273,0.6394 -5.483361,2.0305 -7.933593,4.1738 -2.062292,1.78 -3.821884,3.9004 -5.2792971,6.3631 -1.4345147,2.4456 -2.4959922,5.0979 -3.1855469,7.9569 -0.5059507,2.0976 -0.7220875,4.0527 -0.6816406,5.8807 0.047606,-1.5382 0.2669226,-3.1613 0.6816406,-4.8808 0.6895547,-2.8589 1.7510322,-5.5112 3.1855469,-7.9568 1.4574131,-2.4628 3.2170051,-4.5831 5.2792971,-6.3631 2.450232,-2.1433 5.09532,-3.5345 7.933593,-4.1738 2.855786,-0.6341 5.816193,-0.4962 8.88086,0.416 3.97531,1.1834 6.801213,3.4732 8.478516,6.869 0.969199,1.945 1.463782,4.0897 1.517578,6.4198 0.08658,-2.7223 -0.411122,-5.1993 -1.517578,-7.4198 -1.677303,-3.3958 -4.503206,-5.6856 -8.478516,-6.869 -1.915417,-0.5701 -3.791178,-0.8385 -5.625,-0.8046 z m 6.1875,13.9489 c -0.02781,0.5567 -0.09209,1.1318 -0.240234,1.746 -0.07003,0.2904 -0.16104,0.5864 -0.271485,0.8887 -0.08754,0.2851 -0.191883,0.5651 -0.314453,0.8398 l -11.636719,-3.4628 c -0.175662,0.2798 -0.354978,0.5393 -0.52539,0.8437 l 12.162109,3.6191 c 0.12257,-0.2747 0.226908,-0.5547 0.314453,-0.8398 0.110445,-0.3023 0.201451,-0.5983 0.271485,-0.8887 0.23908,-0.9912 0.314552,-1.9046 0.240234,-2.746 z m -16.740234,11.3513 c -0.06661,1.4097 0.172346,2.6292 0.732421,3.6503 0.864911,1.5501 2.44416,2.6666 4.738282,3.3495 1.9789,0.5891 4.155134,0.8305 6.527343,0.7227 2.254103,-0.097 4.687863,-0.5062 7.28711,-1.2031 l 0.464844,-1.1172 c -2.777649,0.7771 -5.36223,1.2178 -7.751954,1.3203 -2.372209,0.1078 -4.548443,-0.1336 -6.527343,-0.7226 -2.294122,-0.683 -3.873371,-1.7995 -4.738282,-3.3496 -0.423699,-0.7725 -0.667371,-1.6554 -0.732421,-2.6503 z"/>
 </g>
</svg>
