<svg xmlns="http://www.w3.org/2000/svg" width="48" height="48" version="1">
 <path style="opacity:0.2" d="m 23.970703,5.9999577 a 1.8183636,1.8097409 0 0 0 -0.332031,0.033203 L 5.4707031,9.5565983 A 1.8183636,1.8097409 0 0 0 4,11.333942 V 38.69527 a 1.8183636,1.8097409 0 0 0 1.4746094,1.777344 L 23.640625,43.966755 A 1.8183636,1.8097409 0 0 0 24,43.999958 c 0.110813,-10e-4 0.221298,-0.01215 0.330078,-0.0332 L 42.525391,40.472614 C 43.381468,40.308586 44.000114,39.562934 44,38.69527 V 11.333942 C 44.000475,10.467486 43.383821,9.7222595 42.529297,9.5565983 L 24.333984,6.0331608 C 24.223861,6.0125242 24.112058,6.002063 24,6.0019108 a 1.8183636,1.8097409 0 0 0 -0.0293,-0.00195 z"/>
 <path style="fill:#ff6633" d="M 24,5.0019531 V 43 c 0.110813,-0.001 0.221298,-0.01215 0.330078,-0.0332 L 42.525391,39.472656 C 43.381468,39.308628 44.000114,38.562975 44,37.695312 V 10.333984 C 44.000475,9.4675283 43.383821,8.7223018 42.529297,8.5566406 L 24.333984,5.0332031 C 24.223861,5.0125665 24.112058,5.0021053 24,5.0019531 Z"/>
 <path style="opacity:0.2;fill:none;stroke:#000000;stroke-width:2" d="m 34,11 v 5 l -5.7,6 H 34 v 5 h 6 l -6,7 v 4"/>
 <path style="fill:none;stroke:#fdfdfd;stroke-width:2" d="m 34,10 v 5 l -5.7,6 H 34 v 5 h 6 l -6,7 v 4"/>
 <path style="fill:#404041" d="M 23.970703 5 A 1.8183636 1.8097409 0 0 0 23.638672 5.0332031 L 5.4707031 8.5566406 A 1.8183636 1.8097409 0 0 0 4 10.333984 L 4 37.695312 A 1.8183636 1.8097409 0 0 0 5.4746094 39.472656 L 23.640625 42.966797 A 1.8183636 1.8097409 0 0 0 24 43 L 24 5.0019531 A 1.8183636 1.8097409 0 0 0 23.970703 5 z"/>
 <path style="opacity:0.2;fill:#8b9cbe" d="M 24 5.0019531 L 24 6.0019531 C 24.112058 6.0021053 24.223861 6.0125665 24.333984 6.0332031 L 42.529297 9.5566406 C 43.383821 9.7223018 44.000475 10.467528 44 11.333984 L 44 10.333984 C 44.000475 9.4675287 43.383821 8.7223018 42.529297 8.5566406 L 24.333984 5.0332031 C 24.223861 5.0125665 24.112058 5.0021053 24 5.0019531 z"/>
 <path style="opacity:0.1;fill:#8b9cbe" d="M 23.970703 5 A 1.8183636 1.8097409 0 0 0 23.638672 5.0332031 L 5.4707031 8.5566406 A 1.8183636 1.8097409 0 0 0 4 10.333984 L 4 11.333984 A 1.8183636 1.8097409 0 0 1 5.4707031 9.5566406 L 23.638672 6.0332031 A 1.8183636 1.8097409 0 0 1 23.970703 6 A 1.8183636 1.8097409 0 0 1 24 6.0019531 L 24 5.0019531 A 1.8183636 1.8097409 0 0 0 23.970703 5 z"/>
</svg>
