<svg xmlns="http://www.w3.org/2000/svg" width="48" height="48" version="1">
 <path style="opacity:0.2" d="m 10.912477,4.9999997 h 26.175046 c 1.613511,0 2.914354,1.2742856 2.912475,2.8571427 L 40,33 28,45 H 10.957985 C 9.3444736,45 8.047611,43.725715 8.04551,42.142858 L 8.0000026,7.8571424 C 7.997891,6.2742853 9.2989663,4.9999997 10.912477,4.9999997 Z"/>
 <path style="fill:#b2bfd9" d="m 10.912477,3.9999997 h 26.175046 c 1.613511,0 2.914354,1.2742856 2.912475,2.8571427 L 40,32 28,44 H 10.957985 C 9.3444736,44 8.047611,42.725715 8.04551,41.142858 L 8.0000026,6.8571424 C 7.997891,5.2742853 9.2989663,3.9999997 10.912477,3.9999997 Z"/>
 <path style="fill:#a159b2" d="m 11,7 h 26 v 27 l -7,7 H 11 Z"/>
 <path style="opacity:0.1" d="m 37,22.313945 c -0.894642,0.373784 -1.786603,0.711488 -2.671873,1.019515 0.380418,1.077042 1.789253,4.766213 1.953123,5.195526 C 36.522745,28.370297 36.763697,28.211812 37,28.048165 Z m -3.307289,1.237666 c -1.207808,0.400994 -2.403999,0.741454 -3.583335,1.032869 -0.09478,0.698572 1.347088,5.027154 1.796875,6.353056 1.533121,-0.681894 2.989209,-1.500929 4.364584,-2.4041 -0.263186,-0.642226 -1.735619,-4.183744 -2.578124,-4.981825 z m -4.265627,1.197595 c -1.378834,0.319595 -2.731157,0.570043 -4.052083,0.761299 -0.02703,1.507884 0.643651,5.932554 0.83854,7.185584 1.986583,-0.341115 3.885606,-0.95587 5.682293,-1.7541 -0.457228,-1.298121 -1.945233,-5.475237 -2.46875,-6.192783 z m -3.213543,7.946883 c -0.199546,-1.257845 -0.944689,-5.769048 -1.572918,-7.087638 -1.576602,0.204502 -3.101859,0.329388 -4.562495,0.387324 -0.460434,1.127781 -0.505655,5.561845 -0.510419,6.767093 2.304641,0.35194 4.523968,0.297567 6.645832,-0.06677 z m -6.645832,0.06677 c -0.0016,-1.190405 -0.02404,-5.46071 -0.239584,-6.740378 -1.452373,0.0369 -2.831952,0.01008 -4.130208,-0.05787 -0.495048,0.895599 -0.919704,3.905946 -1.08854,5.213332 1.862591,0.799843 3.685578,1.314212 5.458332,1.584924 z M 11,25.57728 v 4.015737 c 1.042929,0.61851 2.074038,1.141819 3.093748,1.580473 0.131534,-1.292306 0.425494,-4.255941 0.447917,-5.24895 C 13.268328,25.84228 12.08191,25.719846 11,25.57728 Z"/>
 <path style="opacity:0.1" d="M 35,31 C 28.226865,34.590265 23.834715,36.309206 15,33.631764 24.251904,37.998554 28.415048,35.861654 35,31 Z"/>
 <path style="opacity:0.1" d="m 36.371619,13.633531 c -5.142913,-0.640443 -8.503013,0.438554 -11.379213,1.904982 2.9225,-3.60915 6.571074,-4.737786 11.379213,-1.904982 z"/>
 <path style="fill:#17191e" d="m 36.371619,12.633531 c -5.142913,-0.640443 -8.503013,0.438554 -11.379213,1.904982 2.9225,-3.60915 6.571074,-4.7377851 11.379213,-1.904982 z"/>
 <path style="fill:#ff8686" d="m 37,21.313 c -10.12177,4.228911 -19.774088,4.085896 -26,3.265503 v 4.013333 c 10.084475,5.980615 19.144562,3.202094 26,-1.545505 z"/>
 <path style="fill:#8b9cbe" d="m 37,21.313945 c -0.894642,0.373784 -1.786603,0.711488 -2.671873,1.019515 0.380418,1.077042 1.789253,4.766213 1.953123,5.195526 C 36.522745,27.370297 36.763697,27.211812 37,27.048165 Z m -3.307289,1.237666 c -1.207808,0.400994 -2.403999,0.741454 -3.583335,1.032869 -0.09478,0.698572 1.347088,5.027154 1.796875,6.353056 1.533121,-0.681894 2.989209,-1.500929 4.364584,-2.4041 -0.263186,-0.642226 -1.735619,-4.183744 -2.578124,-4.981825 z m -4.265627,1.197595 c -1.378834,0.319595 -2.731157,0.570043 -4.052083,0.761299 -0.02703,1.507884 0.643651,5.932554 0.83854,7.185584 1.986583,-0.341115 3.885606,-0.95587 5.682293,-1.7541 -0.457228,-1.298121 -1.945233,-5.475237 -2.46875,-6.192783 z m -3.213543,7.946883 c -0.199546,-1.257845 -0.944689,-5.769048 -1.572918,-7.087638 -1.576602,0.204502 -3.101859,0.329388 -4.562495,0.387324 -0.460434,1.127781 -0.505655,5.561845 -0.510419,6.767093 2.304641,0.35194 4.523968,0.297567 6.645832,-0.06677 z m -6.645832,0.06677 c -0.0016,-1.190405 -0.02404,-5.46071 -0.239584,-6.740378 -1.452373,0.0369 -2.831952,0.01008 -4.130208,-0.05787 -0.495048,0.895599 -0.919704,3.905946 -1.08854,5.213332 1.862591,0.799843 3.685578,1.314212 5.458332,1.584924 z M 11,24.57728 v 4.015737 c 1.042929,0.61851 2.074038,1.141819 3.093748,1.580473 0.131534,-1.292306 0.425494,-4.255941 0.447917,-5.24895 C 13.268328,24.84228 12.08191,24.719846 11,24.57728 Z"/>
 <path style="fill:#fafafa" d="m 32,32 c -2.216,0 -4,1.784001 -4,4 v 8 L 40,32 Z"/>
 <path style="opacity:0.1" d="M 7,15.75 C 11.797146,14.078196 15.24906,14.450064 18.319035,15.299132 14.750003,12.364396 11.010853,12.002643 7,15.75 Z"/>
 <path style="fill:#17191e" d="M 7,14.75 C 11.797146,13.078196 15.24906,13.450064 18.319035,14.299132 14.750003,11.364396 11.010853,11.002643 7,14.75 Z"/>
 <path style="opacity:0.2;fill:#8b9cbe" d="M 10.912109 4 C 9.2985987 4 7.9978884 5.2745648 8 6.8574219 L 8.0019531 7.84375 C 8.0075529 6.2674264 9.3033882 5 10.912109 5 L 37.087891 5 C 38.701402 5 40.001879 6.2745648 40 7.8574219 L 40 6.8574219 C 40.001879 5.2745648 38.701402 4 37.087891 4 L 10.912109 4 z"/>
</svg>
