<svg xmlns="http://www.w3.org/2000/svg" width="48" height="48" version="1">
 <g style="opacity:0.2" transform="translate(3.62528e-4,0.99982201)">
  <g transform="matrix(0.090632,0,0,0.098526,4,2.2582)">
   <g>
    <path transform="matrix(11.033631,0,0,10.149605,-44.138522,-22.918024)" d="M 15.541016,4 C 9.1675921,4 4,9.879821 4,17.132812 c 0,1.948746 0.3021966,3.824426 0.8320312,5.615235 0,0 0.4806422,1.614413 0.90625,2.503906 C 10.602591,36.624809 24,44 24,44 c 0,0 13.397409,-7.375191 18.261719,-18.748047 0.425608,-0.889493 0.90625,-2.503906 0.90625,-2.503906 C 43.697803,20.957238 44,19.081558 44,17.132812 44,9.879821 38.832408,4 32.458984,4 29.116476,4 26.1081,5.4157615 24,8 21.8919,5.4157615 18.883524,4 15.541016,4 Z"/>
   </g>
  </g>
 </g>
 <path style="fill:#ffbd4a" d="M 15.541016,4 C 9.1675921,4 4,9.879821 4,17.132812 c 0,1.948746 0.3021966,3.824426 0.8320312,5.615235 0,0 0.4806422,1.614413 0.90625,2.503906 C 10.602591,36.624809 24,44 24,44 c 0,0 13.397409,-7.375191 18.261719,-18.748047 0.425608,-0.889493 0.90625,-2.503906 0.90625,-2.503906 C 43.697803,20.957238 44,19.081558 44,17.132812 44,9.879821 38.832408,4 32.458984,4 29.116476,4 26.1081,5.4157615 24,8 21.8919,5.4157615 18.883524,4 15.541016,4 Z"/>
 <path style="opacity:0.1" d="m 39.558936,19.00301 c 0.325289,-0.01814 0.611163,0.04628 0.899908,0.177547 1.408791,0.658631 1.752632,2.692073 1.428121,3.881848 -0.670687,2.256099 -2.601384,6.015371 -5.186244,8.672168 -1.140444,1.128221 -2.632734,2.546487 -4.249226,2.216966 -1.275247,-0.393968 -1.987225,-0.698712 -2.339373,-1.441376 -0.563314,-1.926548 1.129364,-2.711757 2.111405,-3.719296 2.153049,-2.239331 4.403128,-5.632142 5.487586,-7.902719 0.597836,-1.157966 0.708418,-1.606548 1.847823,-1.885138 z"/>
 <path style="fill:#ee6d51" d="m 39.558936,18.00301 c 0.325289,-0.01814 0.611163,0.04628 0.899908,0.177547 1.408791,0.658631 1.752632,2.692073 1.428121,3.881848 -0.670687,2.256099 -2.601384,6.015371 -5.186244,8.672168 -1.140444,1.128221 -2.632734,2.546487 -4.249226,2.216966 -1.275247,-0.393968 -1.987225,-0.698712 -2.339373,-1.441376 -0.563314,-1.926548 1.129364,-2.711757 2.111405,-3.719296 2.153049,-2.239331 4.403128,-5.632142 5.487586,-7.902719 0.597836,-1.157966 0.708418,-1.606548 1.847823,-1.885138 z"/>
 <path style="opacity:0.1" d="m 32.419922,20.027344 c -0.560205,0.07314 -1.106448,0.391367 -1.5625,1.066406 -0.294372,0.431812 -0.548851,0.951316 -0.730469,1.525391 -0.228761,0.972811 -0.212543,1.367044 0.583985,2.238281 0.358315,0.351323 0.713175,0.695954 1.064453,1.033203 2.476869,2.377943 4.7795,4.406276 7.009765,6.291016 1.07233,-1.436669 2.045279,-2.975174 2.855469,-4.601563 -1.08608,-0.909677 -2.174286,-1.815981 -3.216797,-2.791016 -1.183243,-1.110554 -2.283563,-2.386939 -3.425781,-3.61914 -0.669444,-0.707492 -1.64445,-1.264481 -2.578125,-1.142578 z"/>
 <path style="fill:#ff7d5f" d="M 32.419922 19.027344 C 31.859717 19.100485 31.313474 19.418711 30.857422 20.09375 C 30.56305 20.525562 30.308571 21.045066 30.126953 21.619141 C 29.898192 22.591952 29.91441 22.986185 30.710938 23.857422 C 31.069253 24.208745 31.424113 24.553376 31.775391 24.890625 C 34.25226 27.268568 36.554891 29.296901 38.785156 31.181641 C 39.857486 29.744972 40.830435 28.206467 41.640625 26.580078 C 40.554545 25.670401 39.466339 24.764097 38.423828 23.789062 C 37.240585 22.678508 36.140265 21.402123 34.998047 20.169922 C 34.328603 19.46243 33.353597 18.905441 32.419922 19.027344 z"/>
 <g style="fill:#8b9cbe;opacity:0.2" transform="translate(3.62528e-4,-1.78735e-4)">
  <g style="fill:#8b9cbe" transform="matrix(0.090632,0,0,0.098526,4,2.2582)">
   <g style="fill:#8b9cbe">
    <path style="fill:#8b9cbe" transform="matrix(11.033631,0,0,10.149605,-44.138522,-22.918024)" d="M 15.541016 4 C 9.1675914 4 4 9.8798216 4 17.132812 C 4 17.316258 4.0161908 17.495593 4.0214844 17.677734 C 4.2341949 10.63747 9.3027031 5 15.541016 5 C 18.883524 5 21.8919 6.4157615 24 9 C 26.1081 6.4157615 29.116476 5 32.458984 5 C 38.697297 5 43.765805 10.63747 43.978516 17.677734 C 43.983809 17.495593 44 17.316258 44 17.132812 C 44 9.8798216 38.832409 4 32.458984 4 C 29.116476 4 26.1081 5.4157615 24 8 C 21.8919 5.4157615 18.883524 4 15.541016 4 z"/>
   </g>
  </g>
 </g>
</svg>
