<svg xmlns="http://www.w3.org/2000/svg" width="48" height="48" version="1">
 <g style="fill:#8e8e8e">
  <rect style="fill:#8e8e8e" width="2" height="32" x="27" y="-40" transform="rotate(90)"/>
  <rect style="fill:#8e8e8e" width="2" height="32" x="23" y="-40" transform="rotate(90)"/>
  <rect style="fill:#8e8e8e" width="2" height="32" x="19" y="-40" transform="rotate(90)"/>
  <rect style="fill:#8e8e8e" width="2" height="32" x="15" y="-40" transform="rotate(90)"/>
  <rect style="fill:#8e8e8e" width="2" height="32" x="31" y="-40" transform="rotate(90)"/>
  <rect style="fill:#8e8e8e" width="2" height="32" x="35" y="-40" transform="rotate(90)"/>
  <rect style="fill:#8e8e8e" width="2" height="32" x="39" y="-40" transform="rotate(90)"/>
  <rect style="fill:#8e8e8e" width="2" height="32" x="11" y="-40" transform="rotate(90)"/>
  <rect style="fill:#8e8e8e" width="2" height="32" x="7" y="-40" transform="rotate(90)"/>
  <rect style="fill:#8e8e8e" width="2" height="40" x="23" y="4"/>
  <rect style="fill:#8e8e8e" width="2" height="40" x="19" y="4"/>
  <rect style="fill:#8e8e8e" width="2" height="40" x="15" y="4"/>
  <rect style="fill:#8e8e8e" width="2" height="40" x="11" y="4"/>
  <rect style="fill:#8e8e8e" width="2" height="40" x="27" y="4"/>
  <rect style="fill:#8e8e8e" width="2" height="40" x="31" y="4"/>
  <rect style="fill:#8e8e8e" width="2" height="40" x="35" y="4"/>
 </g>
 <rect style="opacity:0.2" width="36" height="28" x="-43" y="-38" rx="2" ry="2" transform="matrix(0,-1,-1,0,0,0)"/>
 <rect style="fill:#4f4f4f" width="36" height="28" x="-42" y="-38" rx="2" ry="2" transform="matrix(0,-1,-1,0,0,0)"/>
 <path style="fill:#8b9cbe;opacity:0.1" d="M 12 6 C 10.892 6 10 6.892 10 8 L 10 9 C 10 7.892 10.892 7 12 7 L 36 7 C 37.108 7 38 7.892 38 9 L 38 8 C 38 6.892 37.108 6 36 6 L 12 6 z"/>
 <rect style="opacity:0.4;fill:#8b9cbe" width="9" height="2" x="11" y="-31" transform="rotate(90)"/>
 <rect style="opacity:0.4;fill:#8b9cbe" width="4" height="2" x="22" y="-31" transform="rotate(90)"/>
 <rect style="opacity:0.4;fill:#8b9cbe" width="9" height="2" x="28" y="-31" transform="rotate(90)"/>
 <rect style="opacity:0.4;fill:#8b9cbe" width="11" height="2" x="11" y="-25" transform="rotate(90)"/>
 <rect style="opacity:0.4;fill:#8b9cbe" width="11" height="2" x="24" y="-25" transform="rotate(90)"/>
 <rect style="opacity:0.4;fill:#8b9cbe" width="4" height="2" x="11" y="-19" transform="rotate(90)"/>
 <rect style="opacity:0.4;fill:#8b9cbe" width="4" height="2" x="17" y="-19" transform="rotate(90)"/>
 <rect style="opacity:0.4;fill:#8b9cbe" width="8" height="2" x="23" y="-19" transform="rotate(90)"/>
</svg>
