<svg xmlns="http://www.w3.org/2000/svg" width="48" height="48" version="1">
 <rect style="fill:#3b82ad" width="40" height="40" x="4" y="4" rx="20" ry="20"/>
 <path fill="#fff" opacity=".2" d="m24 4c-11.079 0-19.998 8.92-19.998 20 0 0.16772-0.004 0.33329 0 0.5 0.2642-10.846 9.087-19.5 19.998-19.5s19.734 8.6536 19.998 19.5c0.004-0.16671 0-0.33228 0-0.5 0-11.08-8.919-20-19.998-20z"/>
 <path opacity=".2" d="m4.0117 24.5c-0.0041 0.167-0.0117 0.332-0.0117 0.5 0 11.08 8.92 20 20 20s20-8.92 20-20c0-0.168-0.008-0.333-0.012-0.5-0.264 10.846-9.076 19.5-19.988 19.5s-19.724-8.654-19.988-19.5z"/>
 <path style="opacity:0.2" d="m 40.800356,30.153111 c -2.857113,1.698 -7.1364,2.664493 -11.910935,2.664493 -8.602134,0 -15.575556,-3.500004 -15.575556,-7.817604 0,-4.3176 6.973422,-7.817688 15.575556,-7.817688 4.792088,0 9.088711,0.9844 11.945911,2.693021 C 37.716666,17.012531 32.124931,15.000933 25.731466,15 15.939556,14.9984 8.0008487,19.474443 8.0000001,24.997244 c -9.834e-4,5.522711 7.9363529,10.001419 17.7283079,10.002755 6.368046,0.0012 11.945292,-2.004097 15.072048,-4.846888"/>
 <path style="fill:#8b9cbe" d="m 40.800356,29.153111 c -2.857113,1.698 -7.1364,2.664493 -11.910935,2.664493 -8.602134,0 -15.575556,-3.500004 -15.575556,-7.817604 0,-4.3176 6.973422,-7.817688 15.575556,-7.817688 4.792088,0 9.088711,0.9844 11.945911,2.693021 C 37.716666,16.012531 32.124931,14.000933 25.731466,14 15.939556,13.9984 8.0008487,18.474443 8.0000001,23.997244 c -9.834e-4,5.522711 7.9363529,10.001419 17.7283079,10.002755 6.368046,0.0012 11.945292,-2.004097 15.072048,-4.846888"/>
</svg>
