<svg xmlns="http://www.w3.org/2000/svg" width="48" height="48" version="1">
 <rect style="opacity:0.2" width="40" height="40" x="4" y="5" rx="2" ry="2"/>
 <rect style="fill:#38a334" width="40" height="40" x="4" y="4" rx="2" ry="2"/>
 <path style="opacity:0.2" d="m 30,12 a 7,7 0 0 0 -7,7 7,7 0 0 0 0.648438,2.923828 L 11,34.572266 V 34.769531 38 h 3.230469 0.197265 L 15.947266,36.480469 16.490234,36 H 20 V 32.427734 L 21.427734,31 h 3.53711 l -0.378906,-3.158203 2.490234,-2.490235 A 7,7 0 0 0 30,26 7,7 0 0 0 37,19 7,7 0 0 0 35,14.103516 V 14 H 34.888672 A 7,7 0 0 0 30,12 Z m 2,2 a 3,3 0 0 1 3,3 3,3 0 0 1 -3,3 3,3 0 0 1 -3,-3 3,3 0 0 1 3,-3 z"/>
 <path style="fill:#8b9cbe" d="M 30 11 A 7 7 0 0 0 23 18 A 7 7 0 0 0 23.648438 20.923828 L 11 33.572266 L 11 33.769531 L 11 37 L 14.230469 37 L 14.427734 37 L 15.947266 35.480469 L 16.490234 35 L 20 35 L 20 31.427734 L 21.427734 30 L 24.964844 30 L 24.585938 26.841797 L 27.076172 24.351562 A 7 7 0 0 0 30 25 A 7 7 0 0 0 37 18 A 7 7 0 0 0 35 13.103516 L 35 13 L 34.888672 13 A 7 7 0 0 0 30 11 z M 32 13 A 3 3 0 0 1 35 16 A 3 3 0 0 1 32 19 A 3 3 0 0 1 29 16 A 3 3 0 0 1 32 13 z"/>
 <path style="opacity:0.2" d="M 11,17.428572 V 14 h 3.428572 L 35,34.571428 V 38 h -3.428572 z"/>
 <path style="fill:#454545" d="M 11,16.428572 V 13 h 3.428572 L 35,33.571428 V 37 h -3.428572 z"/>
 <path style="fill:#8b9cbe;opacity:0.1" d="M 6 4 C 4.892 4 4 4.892 4 6 L 4 7 C 4 5.892 4.892 5 6 5 L 42 5 C 43.108 5 44 5.892 44 7 L 44 6 C 44 4.892 43.108 4 42 4 L 6 4 z"/>
</svg>
