<svg xmlns="http://www.w3.org/2000/svg" width="48" height="48" version="1">
 <rect style="fill:#4f4f4f" width="40" height="28" x="4" y="10" rx="2" ry="2"/>
 <path fill="#fff" opacity=".1" d="m6 10c-1.108 0-2 0.892-2 2v1c0-1.108 0.892-2 2-2h36c1.108 0 2 0.892 2 2v-1c0-1.108-0.892-2-2-2h-36z"/>
 <path opacity=".2" d="m4 36v1c0 1.108 0.892 2 2 2h36c1.108 0 2-0.892 2-2v-1c0 1.108-0.892 2-2 2h-36c-1.108 0-2-0.892-2-2z"/>
 <circle style="opacity:.2" cx="9" cy="19" r="2"/>
 <circle style="opacity:.2" cx="15" cy="19" r="2"/>
 <circle style="opacity:.2" cx="21" cy="19" r="2"/>
 <circle style="opacity:.2" cx="27" cy="19" r="2"/>
 <circle style="opacity:.2" cx="33" cy="19" r="2"/>
 <circle style="opacity:.2" cx="39" cy="19" r="2"/>
 <circle style="opacity:.2" cx="12" cy="27" r="2"/>
 <circle style="opacity:.2" cx="18" cy="27" r="2"/>
 <circle style="opacity:.2" cx="24" cy="27" r="2"/>
 <circle style="opacity:.2" cx="30" cy="27" r="2"/>
 <circle style="opacity:.2" cx="36" cy="27" r="2"/>
 <rect style="opacity:.2" width="30" height="4" x="9" y="32" rx="1" ry="1"/>
 <circle style="fill:#b2bfd9" cx="9" cy="18" r="2"/>
 <circle style="fill:#b2bfd9" cx="15" cy="18" r="2"/>
 <circle style="fill:#b2bfd9" cx="21" cy="18" r="2"/>
 <circle style="fill:#b2bfd9" cx="27" cy="18" r="2"/>
 <circle style="fill:#b2bfd9" cx="33" cy="18" r="2"/>
 <circle style="fill:#ff8834" cx="39" cy="18" r="2"/>
 <circle style="fill:#b2bfd9" cx="12" cy="26" r="2"/>
 <circle style="fill:#b2bfd9" cx="18" cy="26" r="2"/>
 <circle style="fill:#b2bfd9" cx="24" cy="26" r="2"/>
 <circle style="fill:#ff8834" cx="30" cy="26" r="2"/>
 <circle style="fill:#b2bfd9" cx="36" cy="26" r="2"/>
 <rect style="fill:#b2bfd9" width="30" height="4" x="9" y="31" rx="1" ry="1"/>
</svg>
