<svg xmlns="http://www.w3.org/2000/svg" width="48" height="48" version="1">
 <rect style="opacity:0.2" width="40" height="40" x="4" y="5" rx="12" ry="12"/>
 <rect style="fill:#ff6363" width="40" height="40" x="4" y="4" rx="12" ry="12"/>
 <path style="opacity:0.3" d="M 15,33 7.5078125,40.492188 C 9.6768125,42.661187 12.676,44 16,44 h 8 8 c 3.324,0 6.323188,-1.338813 8.492188,-3.507812 L 33,33 h -9 z"/>
 <path style="opacity:0.15" d="M 40.492188 7.5078125 L 33 15 L 33 24 L 33 33 L 40.492188 40.492188 C 42.661187 38.323188 44 35.324 44 32 L 44 16 C 44 12.676 42.661187 9.6768125 40.492188 7.5078125 z"/>
 <path style="opacity:0.15" d="M 7.5078125 7.5078125 C 5.3388125 9.6768125 4 12.676 4 16 L 4 24 L 4 32 C 4 35.324 5.3388125 38.323188 7.5078125 40.492188 L 15 33 L 15 24 L 15 15 L 7.5078125 7.5078125 z"/>
 <rect style="opacity:0.2" width="28" height="28" x="10" y="11" rx="6" ry="6"/>
 <rect style="fill:#eceeeb" width="28" height="28" x="10" y="10" rx="6" ry="6"/>
 <path style="opacity:0.2;fill:#8b9cbe" d="M 16 4 C 9.352 4 4 9.352 4 16 L 4 17 C 4 10.352 9.352 5 16 5 L 32 5 C 38.648 5 44 10.352 44 17 L 44 16 C 44 9.352 38.648 4 32 4 L 16 4 z"/>
 <path style="fill:#4f4f4f" d="M 15 15 L 15 22 L 15 26 L 15 33 L 19 33 L 19 26 L 29 26 L 29 33 L 33 33 L 33 26 L 33 22 L 33 15 L 29 15 L 29 22 L 19 22 L 19 15 L 15 15 z"/>
</svg>
