<svg xmlns="http://www.w3.org/2000/svg" width="48" height="48" version="1">
 <path style="fill:#44579d" d="M 6 4 C 4.892 4 4 4.892 4 6 L 4 42 C 4 43.108 4.892 44 6 44 L 42 44 C 43.108 44 44 43.108 44 42 L 44 14 A 10 10 0 0 0 34 4 L 6 4 z"/>
 <path opacity=".2" d="m6 45c-1.108 0-2-0.892-2-2v-1c0 1.108 0.892 2 2 2h36c1.108 0 2-0.892 2-2v1c0 1.108-0.892 2-2 2h-36z"/>
 <path opacity=".2" d="m8 10v30h6v-7l5 7h7l-10-15 10-15h-7l-5 7v-7z"/>
 <path opacity=".2" d="m32 20h6v20h-6z"/>
 <circle opacity=".2" cx="35" cy="14" r="4"/>
 <path fill="#ffd676" d="m8 9v30h6v-7l5 7h7l-10-15 10-15h-7l-5 7v-7z"/>
 <path fill="#ffd676" d="m32 19h6v20h-6z"/>
 <circle fill="#f70" cx="35" cy="13" r="4"/>
 <path style="fill:#8b9cbe;opacity:0.1" d="M 6 4 C 4.892 4 4 4.892 4 6 L 4 7 C 4 5.892 4.892 5 6 5 L 34 5 A 10 10 0 0 1 44 15 L 44 14 A 10 10 0 0 0 34 4 L 6 4 z"/>
</svg>
