<svg xmlns="http://www.w3.org/2000/svg" width="48" height="48" version="1">
 <path style="fill:#17191e" d="m44 24a20 20 0 0 1 -20 20 20 20 0 0 1 -20 -20 20 20 0 0 1 20 -20 20 20 0 0 1 20 20z"/>
 <path style="opacity:0.2" d="M 23.423828,5.0214844 A 20,20 0 0 0 17.572266,6.0878906 11,11 0 0 0 13,15 11,11 0 0 0 13.789062,19.080078 11,11 0 0 0 4.2265625,27.859375 20,20 0 0 0 5.0058594,31.185547 8,8 0 0 1 5,31 a 8,8 0 0 1 8,-8 8,8 0 0 1 6.820312,3.830078 L 21.1875,26.041016 A 3,3 0 0 1 21,25 3,3 0 0 1 23.5,22.041016 V 20.974609 A 8,8 0 0 1 16,13 8,8 0 0 1 23.423828,5.0214844 Z m 1.382813,0.019531 A 8,8 0 0 1 32,13 8,8 0 0 1 24.5,20.982422 v 1.064453 A 3,3 0 0 1 27,25 3,3 0 0 1 26.869141,25.875 l 1.404297,0.810547 A 8,8 0 0 1 35,23 a 8,8 0 0 1 8,8 8,8 0 0 1 -0.01172,0.236328 20,20 0 0 0 0.789063,-3.427734 11,11 0 0 0 -9.56836,-8.736328 A 11,11 0 0 0 35,15 11,11 0 0 0 30.402344,6.0722656 20,20 0 0 0 24.806641,5.0410156 Z M 26.417969,26.769531 A 3,3 0 0 1 24,28 3,3 0 0 1 21.6875,26.908203 L 20.285156,27.71875 A 8,8 0 0 1 21,31 8,8 0 0 1 13,39 8,8 0 0 1 8.4882812,37.607422 20,20 0 0 0 11.097656,40.279297 11,11 0 0 0 15,41 11,11 0 0 0 24.003906,36.308594 11,11 0 0 0 33,41 11,11 0 0 0 36.869141,40.28125 20,20 0 0 0 39.519531,37.591797 8,8 0 0 1 35,39 8,8 0 0 1 27,31 8,8 0 0 1 27.787109,27.560547 Z"/>
 <path fill="#fff" opacity=".1" d="m24 4c-11.079 0-19.998 8.92-19.998 20 0 0.16772-0.004 0.33329 0 0.5 0.2642-10.846 9.087-19.5 19.998-19.5s19.734 8.6536 19.998 19.5c0.004-0.16671 0-0.33228 0-0.5 0-11.08-8.919-20-19.998-20z"/>
 <path opacity=".2" d="m43.979 24.418a20 20 0 0 1 -19.979 19.582 20 20 0 0 1 -19.978 -19.418 20 20 0 0 0 -0.022 0.418 20 20 0 0 0 20 20 20 20 0 0 0 20 -20 20 20 0 0 0 -0.021 -0.582z"/>
 <path style="opacity:0.2" d="m 24,14 c -2.261187,0.0022 -4.466745,0.701288 -6.316406,2.001953 0.437946,0.919872 1.068776,1.728061 1.845703,2.373047 C 20.849275,17.481524 22.406063,17.002722 24,17 c 1.597266,7.75e-4 3.157733,0.479663 4.480469,1.375 0.772469,-0.643583 1.39988,-1.44931 1.835937,-2.365234 C 28.467663,14.706328 26.26203,14.004535 24,14 Z M 13.054688,24.003906 C 13.021404,24.334939 13.003156,24.667312 13,25 c 0.0024,4.096057 2.280541,7.851522 5.912109,9.746094 0.537011,-0.84783 0.894566,-1.81791 1.025391,-2.863282 C 17.500317,30.446159 16.003159,27.829102 16,25 c 0.0033,-0.10035 0.0085,-0.200628 0.01563,-0.300781 -0.911827,-0.437451 -1.916916,-0.686213 -2.960937,-0.695313 z m 21.896484,0 c -1.043463,0.009 -2.048068,0.257794 -2.960938,0.695313 0.0051,0.10019 0.0084,0.200468 0.0098,0.300781 -0.0036,2.8295 -1.50152,5.446648 -3.939453,6.882812 0.130692,1.044055 0.489468,2.014275 1.025391,2.861329 C 32.717641,32.850425 34.996467,29.09578 35,25 34.9988,24.667401 34.9825,24.335028 34.95117,24.003906 Z"/>
 <path style="fill:#ffd737" d="m 24,13 c -2.261187,0.0022 -4.466745,0.701288 -6.316406,2.001953 0.437946,0.919872 1.068776,1.728061 1.845703,2.373047 C 20.849275,16.481524 22.406063,16.002722 24,16 c 1.597266,7.75e-4 3.157733,0.479663 4.480469,1.375 0.772469,-0.643583 1.39988,-1.44931 1.835937,-2.365234 C 28.467663,13.706328 26.26203,13.004535 24,13 Z M 13.054688,23.003906 C 13.021404,23.334939 13.003156,23.667312 13,24 c 0.0024,4.096057 2.280541,7.851522 5.912109,9.746094 0.537011,-0.84783 0.894566,-1.81791 1.025391,-2.863282 C 17.500317,29.446159 16.003159,26.829102 16,24 c 0.0033,-0.10035 0.0085,-0.200628 0.01563,-0.300781 -0.911827,-0.437451 -1.916916,-0.686213 -2.960937,-0.695313 z m 21.896484,0 c -1.043463,0.009 -2.048068,0.257794 -2.960938,0.695313 0.0051,0.10019 0.0084,0.200468 0.0098,0.300781 -0.0036,2.8295 -1.50152,5.446648 -3.939453,6.882812 0.130692,1.044055 0.489468,2.014275 1.025391,2.861329 C 32.717641,31.850425 34.996467,28.09578 35,24 c -0.0012,-0.332599 -0.0175,-0.664972 -0.04883,-0.996094 z"/>
 <path style="fill:#ff950a" d="M 23.423828 4.0214844 A 20 20 0 0 0 17.572266 5.0878906 A 11 11 0 0 0 13 14 A 11 11 0 0 0 13.789062 18.080078 A 11 11 0 0 0 4.2265625 26.859375 A 20 20 0 0 0 5.0058594 30.185547 A 8 8 0 0 1 5 30 A 8 8 0 0 1 13 22 A 8 8 0 0 1 19.820312 25.830078 L 21.1875 25.041016 A 3 3 0 0 1 21 24 A 3 3 0 0 1 23.5 21.041016 L 23.5 19.974609 A 8 8 0 0 1 16 12 A 8 8 0 0 1 23.423828 4.0214844 z M 24.806641 4.0410156 A 8 8 0 0 1 32 12 A 8 8 0 0 1 24.5 19.982422 L 24.5 21.046875 A 3 3 0 0 1 27 24 A 3 3 0 0 1 26.869141 24.875 L 28.273438 25.685547 A 8 8 0 0 1 35 22 A 8 8 0 0 1 43 30 A 8 8 0 0 1 42.988281 30.236328 A 20 20 0 0 0 43.777344 26.808594 A 11 11 0 0 0 34.208984 18.072266 A 11 11 0 0 0 35 14 A 11 11 0 0 0 30.402344 5.0722656 A 20 20 0 0 0 24.806641 4.0410156 z M 26.417969 25.769531 A 3 3 0 0 1 24 27 A 3 3 0 0 1 21.6875 25.908203 L 20.285156 26.71875 A 8 8 0 0 1 21 30 A 8 8 0 0 1 13 38 A 8 8 0 0 1 8.4882812 36.607422 A 20 20 0 0 0 11.097656 39.279297 A 11 11 0 0 0 15 40 A 11 11 0 0 0 24.003906 35.308594 A 11 11 0 0 0 33 40 A 11 11 0 0 0 36.869141 39.28125 A 20 20 0 0 0 39.519531 36.591797 A 8 8 0 0 1 35 38 A 8 8 0 0 1 27 30 A 8 8 0 0 1 27.787109 26.560547 L 26.417969 25.769531 z"/>
 <path style="opacity:0.2;fill:#8b9cbe" d="M 24 13 C 21.738813 13.0022 19.533255 13.701288 17.683594 15.001953 C 17.804846 15.256635 17.943919 15.499862 18.09375 15.736328 C 19.855938 14.610913 21.902346 14.002041 24 14 C 26.099189 14.004209 28.146309 14.615383 29.908203 15.744141 C 30.057688 15.508057 30.195402 15.26393 30.316406 15.009766 C 28.467663 13.706328 26.26203 13.004535 24 13 z M 13.054688 23.003906 C 13.021403 23.334939 13.003156 23.667312 13 24 C 13.000119 24.202967 13.010302 24.404359 13.021484 24.605469 C 13.030605 24.404796 13.034586 24.203827 13.054688 24.003906 C 14.098709 24.013006 15.103798 24.261768 16.015625 24.699219 C 16.008495 24.799372 16.0033 24.89965 16 25 C 16.00308 27.758227 17.433804 30.305941 19.763672 31.763672 C 19.837749 31.476422 19.899851 31.183653 19.9375 30.882812 C 17.500317 29.44616 16.003159 26.829102 16 24 C 16.0033 23.89965 16.008495 23.799372 16.015625 23.699219 C 15.103798 23.261768 14.098709 23.013006 13.054688 23.003906 z M 34.951172 23.003906 C 33.907709 23.012906 32.903104 23.2617 31.990234 23.699219 C 31.995334 23.799409 31.9986 23.899687 32 24 C 31.9964 26.8295 30.49848 29.446649 28.060547 30.882812 C 28.098237 31.183909 28.159967 31.47604 28.234375 31.763672 C 30.564974 30.306389 31.99649 27.758615 32 25 C 31.9986 24.899687 31.995334 24.799409 31.990234 24.699219 C 32.903104 24.2617 33.907709 24.012906 34.951172 24.003906 C 34.969231 24.194775 34.970458 24.386621 34.978516 24.578125 C 34.988773 24.386014 34.999833 24.1938 35 24 C 34.9988 23.667401 34.982502 23.335028 34.951172 23.003906 z"/>
 <path style="opacity:0.2;fill:#8b9cbe" d="M 23.423828 4.0214844 A 20 20 0 0 0 17.572266 5.0878906 A 11 11 0 0 0 13 14 A 11 11 0 0 0 13.021484 14.40625 A 11 11 0 0 1 17.572266 6.0878906 A 20 20 0 0 1 19.181641 5.625 A 8 8 0 0 1 23.423828 4.0214844 z M 24.806641 4.0410156 A 8 8 0 0 1 28.814453 5.625 A 20 20 0 0 1 30.402344 6.0722656 A 11 11 0 0 1 34.976562 14.548828 A 11 11 0 0 0 35 14 A 11 11 0 0 0 30.402344 5.0722656 A 20 20 0 0 0 24.806641 4.0410156 z M 31.978516 12.423828 A 8 8 0 0 1 24.5 19.982422 L 24.5 20.982422 A 8 8 0 0 0 32 13 A 8 8 0 0 0 31.978516 12.423828 z M 16.025391 12.486328 A 8 8 0 0 0 16 13 A 8 8 0 0 0 23.5 20.974609 L 23.5 19.974609 A 8 8 0 0 1 16.025391 12.486328 z M 34.537109 18.119141 A 11 11 0 0 1 34.208984 19.072266 A 11 11 0 0 1 43.671875 27.398438 A 20 20 0 0 0 43.777344 26.808594 A 11 11 0 0 0 34.537109 18.119141 z M 13.464844 18.132812 A 11 11 0 0 0 4.2265625 26.859375 A 20 20 0 0 0 4.3320312 27.398438 A 11 11 0 0 1 13.789062 19.080078 A 11 11 0 0 1 13.464844 18.132812 z M 21.044922 24.501953 A 3 3 0 0 0 21 25 A 3 3 0 0 0 21.003906 25.146484 L 21.1875 25.041016 A 3 3 0 0 1 21.044922 24.501953 z M 26.953125 24.501953 A 3 3 0 0 1 26.869141 24.875 L 26.998047 24.949219 A 3 3 0 0 0 26.953125 24.501953 z M 26.417969 25.769531 A 3 3 0 0 1 24 27 A 3 3 0 0 1 21.6875 25.908203 L 20.285156 26.71875 A 8 8 0 0 1 20.599609 27.537109 L 21.6875 26.908203 A 3 3 0 0 0 24 28 A 3 3 0 0 0 26.417969 26.769531 L 27.460938 27.373047 A 8 8 0 0 1 27.787109 26.560547 L 26.417969 25.769531 z M 20.974609 30.511719 A 8 8 0 0 1 13 38 A 8 8 0 0 1 8.4882812 36.607422 A 20 20 0 0 0 10.263672 38.507812 A 8 8 0 0 0 13 39 A 8 8 0 0 0 21 31 A 8 8 0 0 0 20.974609 30.511719 z M 27.021484 30.587891 A 8 8 0 0 0 27 31 A 8 8 0 0 0 35 39 A 8 8 0 0 0 37.691406 38.517578 A 20 20 0 0 0 39.519531 36.591797 A 8 8 0 0 1 35 38 A 8 8 0 0 1 27.021484 30.587891 z"/>
</svg>
