<svg xmlns="http://www.w3.org/2000/svg" width="48" height="48" version="1.1">
 <rect style="opacity:0.2" width="40" height="40" x="4" y="5" rx="4" ry="4"/>
 <rect style="fill:#b2bfd9" width="40" height="40" x="4" y="4" rx="4" ry="4"/>
 <path style="opacity:0.1" d="m 17.815005,13.000203 c -7.12,0.1 -12.5448444,7.698255 -5.589844,14.544922 l 1.853516,4.701172 C 14.38701,33.319631 13.341906,35.682 13.80524,36.342 c 0.533333,-1.013333 0.667759,-2.460573 1.371093,-2.628906 1.238333,0.843333 3.068516,1.12789 4.103516,2.21289 0.386667,-1.051666 -1.18276,-1.58974 -2.496094,-2.191406 1.228334,0.196666 2.076328,-0.444062 2.986328,0.585937 0.133333,-0.521666 -0.03367,-0.920807 -0.388672,-1.24414 l -0.55664,-0.728516 c 1.026667,0.525 3.583256,0.521406 4.169922,1.441406 0.226667,-1.741666 -1.922213,-1.147968 -2.935547,-1.667968 0.656667,0.07833 1.310937,-0.235105 1.960937,-0.148438 -0.175,-0.488334 -0.472681,-0.700728 -0.916015,-0.664062 -3.488333,0.8 -3.73388,-4.872422 -3.685547,-6.482422 1.133522,-0.462687 2.251862,-0.818378 3.349609,-0.826172 3.437777,-0.02441 6.672335,1.548282 9.527344,-0.949219 1.233333,-1.773333 6.623073,2.85987 8.191406,6.783203 2.343333,-0.955 -4.640364,-7.18638 -6.582031,-8.873046 0.833049,-2.129812 -1.679721,-4.901832 -4.580078,-4.960938 -0.633488,-0.01291 -1.28611,0.0567 -1.925781,0.355469 -2.511666,-2.296666 -5.008985,-3.392136 -7.583985,-3.355469 z m 13.185547,13 a 5,5 0 0 0 -5,5 5,5 0 0 0 5,5 5,5 0 0 0 5,-5 5,5 0 0 0 -5,-5 z m -15.074219,1.080078 c 0.341667,-0.0067 0.614922,0.172683 0.669922,0.541016 l 0.757813,3.482422 c -0.408333,0.113334 -0.58586,0.506796 -0.50586,1.216796 0.173334,-0.196667 0.244245,-0.534114 0.642578,-0.425781 l 0.9375,1.16211 c -3.19,0.24 -3.434948,-1.495235 -3.988281,-4.365235 0.166666,-1.065 0.917994,-1.599661 1.486328,-1.611328 z"/>
 <circle style="fill:#343434" cx="31" cy="30" r="5"/>
 <path style="fill:#343434" d="m 17.815,12 c -7.12,0.1 -12.5450004,7.698666 -5.59,14.545333 l 1.853333,4.7 C 14.386666,32.318667 13.341666,34.682 13.805,35.342 c 0.533333,-1.013333 0.666666,-2.461667 1.37,-2.63 1.238333,0.843333 3.068333,1.128333 4.103333,2.213333 0.386667,-1.051666 -1.181666,-1.59 -2.495,-2.191666 1.228334,0.196666 2.076667,-0.443334 2.986667,0.586666 0.133333,-0.521666 -0.035,-0.92 -0.39,-1.243333 l -0.555,-0.73 c 1.026667,0.525 3.581667,0.521666 4.168333,1.441667 C 23.22,31.047 21.071667,31.642 20.058333,31.122 20.715,31.200333 21.37,30.885333 22.02,30.972 c -0.175,-0.488334 -0.473333,-0.7 -0.916667,-0.663334 -3.488333,0.8 -3.733333,-4.873333 -3.685,-6.483333 1.133522,-0.462687 2.252018,-0.817539 3.349765,-0.825333 3.437777,-0.02441 6.67206,1.547834 9.527069,-0.949667 1.233333,-1.773333 6.623167,2.86 8.1915,6.783333 C 40.83,27.878666 33.845167,21.647 31.9035,19.960333 32.736549,17.830521 30.224006,15.059106 27.323649,15 26.690161,14.98709 26.038171,15.056084 25.3985,15.354855 22.886834,13.058189 20.39,11.963333 17.815,12 Z m -1.89,14.080333 c 0.341667,-0.0067 0.616667,0.171667 0.671667,0.54 l 0.756666,3.483333 c -0.408333,0.113334 -0.585,0.506667 -0.505,1.216667 0.173334,-0.196667 0.243334,-0.533333 0.641667,-0.425 L 18.428333,32.057 c -3.19,0.24 -3.435,-1.495 -3.988333,-4.365 0.166666,-1.065 0.916666,-1.6 1.485,-1.611667 z"/>
 <path style="opacity:0.2" d="M 29.999919,19.500001 A 1.5164392,1.4846764 0 0 1 28.49913,21 1.5164392,1.4846764 0 0 1 27.000082,19.500001 C 27.000082,18.670829 27.67135,18 28.49913,18 c 0.829521,0 1.500789,0.670829 1.500789,1.498298 z"/>
 <path style="fill:#8b9cbe" d="M 29.999919,18.500001 A 1.5164392,1.4846764 0 0 1 28.49913,20 1.5164392,1.4846764 0 0 1 27.000082,18.500001 C 27.000082,17.670829 27.67135,17 28.49913,17 c 0.829521,0 1.500789,0.670829 1.500789,1.498298 z"/>
 <path style="fill:#343434" d="M 29.999942,19.000887 A 1.0108296,0.98846539 0 0 1 28.998187,20 1.0108296,0.98846539 0 0 1 28.00006,19.000887 C 28.00006,18.448978 28.446495,18 28.998187,18 c 0.553505,0 1.001755,0.448978 1.001755,1.000887 z"/>
 <path style="fill:#8b9cbe;opacity:0.2" d="M 8 4 C 5.784 4 4 5.784 4 8 L 4 9 C 4 6.784 5.784 5 8 5 L 40 5 C 42.216 5 44 6.784 44 9 L 44 8 C 44 5.784 42.216 4 40 4 L 8 4 z"/>
</svg>
