<svg xmlns="http://www.w3.org/2000/svg" width="48" height="48" version="1">
 <rect style="opacity:0.2" width="40" height="40" x="4" y="5" rx="12" ry="12"/>
 <rect style="fill:#d5a43a" width="40" height="40" x="4" y="4" rx="12" ry="12"/>
 <path style="opacity:0.1" d="m 21.214844,13.999434 c -2.644203,0 -5.428778,0.713852 -8.291016,2.123047 -2.329784,1.147045 -3.3262868,2.092528 -2.77539,2.636719 0.194331,0.19197 0.06087,0.2327 3.324218,-1.023438 2.230188,-0.858449 4.9723,-1.583215 6.455078,-1.707031 2.289537,-0.191182 5.016432,0.403419 9.84375,2.144531 1.733503,0.625237 3.727052,1.281768 4.429688,1.458984 1.502724,0.379011 1.661191,0.320016 2.914062,0.324219 L 38,19.958418 v -0.74414 c 0,-0.847969 -0.102733,-0.927735 -1.185547,-0.927735 -2.414002,0 -3.015188,-0.38475 -6.648437,-1.974609 -3.891534,-1.702886 -6.249738,-2.3125 -8.951172,-2.3125 z m -1.578125,6.011719 c -0.402845,0.01459 -0.763562,0.05253 -1.052735,0.111328 -1.333722,0.271145 -3.119274,1.255973 -4.214843,2.255859 -1.698177,1.549866 -3.617643,4.447106 -3.429688,5.177735 0.08464,0.32901 0.173596,0.350418 1.669922,0.412109 0.868634,0.03582 2.570803,0.2311 3.904297,0.431641 l 2.523437,0.363281 v 1.019531 c -0.418256,1.869758 -0.11934,2.879591 -0.04492,3.560547 0.278734,2.464527 0.282436,2.731828 0.927734,2.642578 0.996846,-1.599391 1.111918,-4.665856 1.11914,-6.433594 l 1.015626,0.972657 c 2.786688,2.425922 3.608094,2.391149 5.998046,3.52539 1.976748,0.795215 3.67055,1.146654 5.580078,1.009766 1.173823,0 2.657149,-1.283153 2.65625,-2.767578 -4.83e-4,-1.144618 -0.32681,-1.765083 -1.121093,-2.132813 -1.460199,-0.676029 -3.080078,0.126603 -3.080078,1.626953 0,1.472554 1.43844,2.290269 2.392578,1.359375 0.398009,-0.388317 0.495529,-1.041689 0.21289,-1.435546 -0.125441,-0.174805 -0.13888,-0.145616 -0.06055,0.125 0.270323,0.933886 -0.46681,1.579999 -1.314453,1.152343 -0.88586,-0.446935 -0.717798,-1.882634 0.248047,-2.11914 0.477083,-0.116827 1.312194,0.291087 1.625,0.914062 0.168571,0.335703 0.175764,0.539286 0.03125,1.009766 -0.473979,1.543461 -2.604871,1.55091 -5.810547,0.02539 -0.777038,-0.369779 -1.818458,-0.927465 -2.314453,-1.240234 -0.854865,-0.539067 -1.896634,-0.990415 -3.388672,-2.269531 -0.790402,-0.677613 -0.907149,-0.585966 1.154297,-0.914063 0.592666,-0.09432 2.325622,-0.584521 3.84961,-1.089843 2.707442,-0.897723 2.810297,-1.318466 4.464843,-1.330079 0.931332,-0.0066 -0.615476,-0.06358 0.929688,0.002 L 37,26.093184 v -1.488281 -1.486328 l -3.353516,-0.08203 c -4.676963,-0.119844 -2.397168,0.12223 -7.224609,-1.697265 -0.921797,-0.34743 -1.904292,-0.767192 -2.548828,-0.931641 -1.143006,-0.291635 -3.027796,-0.440249 -4.236328,-0.396484 z m 5.476562,2.36914 c 0.05604,0 0.854228,0.440975 2.140625,0.978516 1.286398,0.53754 2.504302,1.016761 2.707032,1.066406 0.202736,0.04965 0.36914,0.14338 0.36914,0.207031 0,0.06365 -0.779924,0.493646 -1.732422,0.955079 -1.942459,0.941012 -3.095763,1.334867 -4.972656,1.425781 l -0.460938,0.01953 0.5,-0.382812 c 0.275218,-0.211619 0.691047,-0.701546 0.923829,-1.087891 0.369317,-0.612942 0.423828,-0.86022 0.423828,-1.941406 0,-0.681483 0.04552,-1.240236 0.101562,-1.240235 z m -8.382812,0.326172 c 0.230709,-0.04265 0.230259,0.306552 0.232422,1.003907 0.0043,1.372343 0.341524,2.119353 1.3125,2.90625 l 0.634765,0.515624 -2.982422,-0.271484 c -1.585664,-0.147574 -2.818331,-0.299846 -2.861328,-0.341797 -0.154115,-0.150356 0.696847,-1.299247 1.94336,-2.466797 0.928121,-0.869327 1.489995,-1.303054 1.720703,-1.345703 z"/>
 <path style="fill:#8b9cbe;opacity:0.2" d="M 16 4 C 9.352 4 4 9.352 4 16 L 4 17 C 4 10.352 9.352 5 16 5 L 32 5 C 38.648 5 44 10.352 44 17 L 44 16 C 44 9.352 38.648 4 32 4 L 16 4 z"/>
 <path style="fill:#482f00" d="M 21.214844 13 C 18.570641 13 15.786066 13.713852 12.923828 15.123047 C 10.594044 16.270092 9.5975412 17.215575 10.148438 17.759766 C 10.342769 17.951736 10.209311 17.992466 13.472656 16.736328 C 15.702844 15.877879 18.444956 15.153113 19.927734 15.029297 C 22.217271 14.838115 24.944166 15.432716 29.771484 17.173828 C 31.504987 17.799065 33.498536 18.455596 34.201172 18.632812 C 35.703896 19.011823 35.862363 18.952828 37.115234 18.957031 L 38 18.958984 L 38 18.214844 C 38 17.366875 37.897267 17.287109 36.814453 17.287109 C 34.400451 17.287109 33.799265 16.902359 30.166016 15.3125 C 26.274482 13.609614 23.916278 13 21.214844 13 z M 19.636719 19.011719 C 19.233874 19.026309 18.873157 19.064254 18.583984 19.123047 C 17.250262 19.394192 15.46471 20.37902 14.369141 21.378906 C 12.670964 22.928772 10.751498 25.826012 10.939453 26.556641 C 11.024093 26.885651 11.113049 26.907059 12.609375 26.96875 C 13.478009 27.00457 15.180178 27.19985 16.513672 27.400391 L 19.037109 27.763672 L 19.037109 28.783203 C 18.618853 30.652961 18.917769 31.662794 18.992188 32.34375 C 19.270922 34.808277 19.274624 35.075578 19.919922 34.986328 C 20.916768 33.386937 21.03184 30.320472 21.039062 28.552734 L 22.054688 29.525391 C 24.841376 31.951313 25.662782 31.91654 28.052734 33.050781 C 30.029482 33.845996 31.723284 34.197435 33.632812 34.060547 C 34.806635 34.060547 36.289961 32.777394 36.289062 31.292969 C 36.288579 30.148351 35.962252 29.527886 35.167969 29.160156 C 33.70777 28.484127 32.087891 29.286759 32.087891 30.787109 C 32.087891 32.259663 33.526331 33.077378 34.480469 32.146484 C 34.878478 31.758167 34.975998 31.104795 34.693359 30.710938 C 34.567918 30.536133 34.554479 30.565322 34.632812 30.835938 C 34.903135 31.769824 34.166002 32.415937 33.318359 31.988281 C 32.432499 31.541346 32.600561 30.105647 33.566406 29.869141 C 34.043489 29.752314 34.8786 30.160228 35.191406 30.783203 C 35.359977 31.118906 35.36717 31.322489 35.222656 31.792969 C 34.748677 33.33643 32.617785 33.343879 29.412109 31.818359 C 28.635071 31.44858 27.593651 30.890894 27.097656 30.578125 C 26.242791 30.039058 25.201022 29.58771 23.708984 28.308594 C 22.918582 27.630981 22.801835 27.722628 24.863281 27.394531 C 25.455947 27.300211 27.188903 26.81001 28.712891 26.304688 C 31.420333 25.406965 31.523188 24.986222 33.177734 24.974609 C 34.109066 24.968009 32.562258 24.911032 34.107422 24.976562 L 37 25.09375 L 37 23.605469 L 37 22.119141 L 33.646484 22.037109 C 28.969521 21.917265 31.249316 22.159339 26.421875 20.339844 C 25.500078 19.992414 24.517583 19.572652 23.873047 19.408203 C 22.730041 19.116568 20.845251 18.967954 19.636719 19.011719 z M 25.113281 21.380859 C 25.169321 21.380859 25.967509 21.821834 27.253906 22.359375 C 28.540304 22.896915 29.758208 23.376136 29.960938 23.425781 C 30.163674 23.475431 30.330078 23.569161 30.330078 23.632812 C 30.330078 23.696462 29.550154 24.126458 28.597656 24.587891 C 26.655197 25.528903 25.501893 25.922758 23.625 26.013672 L 23.164062 26.033203 L 23.664062 25.650391 C 23.93928 25.438772 24.355109 24.948845 24.587891 24.5625 C 24.957208 23.949558 25.011719 23.70228 25.011719 22.621094 C 25.011719 21.939611 25.057239 21.380858 25.113281 21.380859 z M 16.730469 21.707031 C 16.961178 21.664381 16.960728 22.013583 16.962891 22.710938 C 16.967191 24.083281 17.304415 24.830291 18.275391 25.617188 L 18.910156 26.132812 L 15.927734 25.861328 C 14.34207 25.713754 13.109403 25.561482 13.066406 25.519531 C 12.912291 25.369175 13.763253 24.220284 15.009766 23.052734 C 15.937887 22.183407 16.499761 21.74968 16.730469 21.707031 z"/>
</svg>
