<svg xmlns="http://www.w3.org/2000/svg" width="48" height="48" version="1">
 <path style="opacity:.2" d="m12.0625 33c-3.062937 0-8.0625 2.000829-8.0625 6.152344v0.847656c0 2.216 1.784 4 4 4h30c2.216 0 4-1.784 4-4v-2s0 4-7 4c-8.213193 0-15.000437-9-22.9375-9z"/>
 <path style="fill:#737373" d="m41.468954 39.408497 0.531046-1.580066v-28.828431c0-2.216-1.784-4-4-4h-30c-2.216 0-4 1.784-4 4v28.787582l0.4816112 1.212418c0.8180849 2.059464 1.8334346 3.264706 4.0494346 3.264706h28.73366c2.216 0 3.498276-0.755671 4.204248-2.856209z"/>
 <path style="opacity:.2" d="m35 22.994605h-26c0-7.179702 5.820298-13 13-13s13 5.8202984 13 13z"/>
 <path style="fill:#ffc832" d="m35 22h-26c0-7.179702 5.820298-13 13-13s13 5.820298 13 13z"/>
 <path style="fill:#f3597e" d="m17.5 15h0.5l6 7h-5z"/>
 <path style="opacity:.2" d="m36.569879 26c-2.414221 0-5.483918 0.838188-5.569879 4.702964 0.03027 3.213649 1.467927 4.695656 3.105641 4.231753 1.932021-1.072478 1.886043 0.761161 1.959304 1.393904 0.379236 1.277631 1.11571 1.752952 2.253685 1.66013h0.06824v0.0059h0.998172v-0.0039l0.296333-2e-3c1.137975 0.09282 1.876398-0.382499 2.255635-1.66013 0.07326-0.632743 0.02533-2.466382 1.957354-1.393904 1.637714 0.463903 3.075366-1.018104 3.105641-4.231753-0.08596-3.864695-3.155658-4.702923-5.569879-4.702923h-3.043256z"/>
 <path style="fill:#f3597e" d="m36.569879 25c-2.414221 0-5.483918 0.838188-5.569879 4.702964 0.03027 3.213649 1.467927 4.695656 3.105641 4.231753 1.932021-1.072478 1.886043 0.761161 1.959304 1.393904 0.379236 1.277631 1.11571 1.752952 2.253685 1.66013h0.06824v0.0059h0.998172v-0.0039l0.296333-2e-3c1.137975 0.09282 1.876398-0.382499 2.255635-1.66013 0.07326-0.632743 0.02533-2.466382 1.957354-1.393904 1.637714 0.463903 3.075366-1.018104 3.105641-4.231753-0.08596-3.864695-3.155658-4.702923-5.569879-4.702923h-3.043256z"/>
 <path style="fill:#b2bfd9" d="m12.0625 32c-3.062937 0-8.0625 2.000829-8.0625 6.152344v0.847656c0 2.216 1.784 4 4 4h30c2.216 0 4-1.784 4-4v-2s0 4-7 4c-8.213193 0-15.000437-9-22.9375-9z"/>
 <path style="fill:#17191e" d="m14 32.193359v10.806641h2v-10.300781c-0.660534-0.219158-1.32706-0.387891-2-0.50586zm-6 0.736329c-0.7205562 0.325094-1.4040735 0.739033-2 1.238281v8.28125c0.5895523 0.341479 1.2669714 0.550781 2 0.550781zm14 2.722656v7.347656h2v-6.162109c-0.666984-0.402368-1.334437-0.788754-2-1.185547zm18 4.255859c-0.519383 0.309722-1.17348 0.580481-2 0.775391v2.316406c0.733029 0 1.410448-0.209302 2-0.550781zm-10 0.05664v3.035157h2v-2.382812c-0.674784-0.167339-1.339752-0.397505-2-0.652345z"/>
 <path style="opacity:.2" d="m12.0625 32c-3.062937 0-8.0625 2.000829-8.0625 6.152344v0.847656c0 0.02273 0.00549 0.04377 0.00586 0.06641 0.0703435-4.091554 5.0155131-6.06641 8.05664-6.06641 7.937063 0 14.724307 9 22.9375 9 7 0 7-4 7-4v-1s0 4-7 4c-8.213193 0-15.000437-9-22.9375-9z"/>
 <path style="fill:#8b9cbe;opacity:.1" d="m8 5c-2.216 0-4 1.784-4 4v1c0-2.216 1.784-4 4-4h30c2.216 0 4 1.784 4 4v-1c0-2.216-1.784-4-4-4z"/>
 <path style="fill:#8b9cbe;opacity:.2" d="m22 9c-7.179702 0-13 5.820298-13 13h0.050781c0.5126192-6.710478 6.107398-12 12.949219-12s12.4366 5.289522 12.949219 12h0.050781c0-7.179702-5.820298-13-13-13z"/>
 <path style="fill:#8b9cbe;opacity:.2" d="m36.570312 25c-2.41422 0-5.484351 0.838349-5.570312 4.703125 0.001777 0.188634 0.023925 0.350685 0.035156 0.527344 0.320628-3.454759 3.224383-4.230469 5.535156-4.230469h1.816407 0.599609 0.398438 2.044922c2.310773 0 5.214529 0.775778 5.535156 4.230469 0.011231-0.176659 0.033379-0.33871 0.035156-0.527344-0.08596-3.864695-3.156091-4.703125-5.570312-4.703125h-2.044922-0.398438-0.599609-1.816407z"/>
</svg>
