<svg xmlns="http://www.w3.org/2000/svg" width="48" height="48" version="1">
 <rect style="opacity:0.2" width="40" height="40" x="4" y="5" rx="2" ry="2"/>
 <rect style="fill:#efe1cb" width="40" height="40" x="4" y="4" rx="2" ry="2"/>
 <path style="fill:#d8b67e" d="M 9 4 L 4 9 L 9 14 L 14 9 L 9 4 z M 14 9 L 19 14 L 24 9 L 19 4 L 14 9 z M 24 9 L 29 14 L 34 9 L 29 4 L 24 9 z M 34 9 L 39 14 L 44 9 L 39 4 L 34 9 z M 39 14 L 34 19 L 39 24 L 44 19 L 39 14 z M 39 24 L 34 29 L 39 34 L 44 29 L 39 24 z M 39 34 L 34 39 L 39 44 L 44 39 L 39 34 z M 34 39 L 29 34 L 24 39 L 29 44 L 34 39 z M 24 39 L 19 34 L 14 39 L 19 44 L 24 39 z M 14 39 L 9 34 L 4 39 L 9 44 L 14 39 z M 9 34 L 14 29 L 9 24 L 4 29 L 9 34 z M 9 24 L 14 19 L 9 14 L 4 19 L 9 24 z M 14 19 L 19 24 L 24 19 L 19 14 L 14 19 z M 24 19 L 29 24 L 34 19 L 29 14 L 24 19 z M 29 24 L 24 29 L 29 34 L 34 29 L 29 24 z M 24 29 L 19 24 L 14 29 L 19 34 L 24 29 z"/>
 <path style="opacity:0.1" d="M 9 4 L 4 9 L 4.5 9.5 L 9 5 L 13.5 9.5 L 14 9 L 9 4 z M 14 9 L 14.5 9.5 L 19 5 L 23.5 9.5 L 24 9 L 19 4 L 14 9 z M 24 9 L 24.5 9.5 L 29 5 L 33.5 9.5 L 34 9 L 29 4 L 24 9 z M 34 9 L 34.5 9.5 L 39 5 L 43.5 9.5 L 44 9 L 39 4 L 34 9 z M 9 14 L 4 19 L 4.5 19.5 L 9 15 L 13.5 19.5 L 14 19 L 9 14 z M 14 19 L 14.5 19.5 L 19 15 L 23.5 19.5 L 24 19 L 19 14 L 14 19 z M 24 19 L 24.5 19.5 L 29 15 L 33.5 19.5 L 34 19 L 29 14 L 24 19 z M 34 19 L 34.5 19.5 L 39 15 L 43.5 19.5 L 44 19 L 39 14 L 34 19 z M 9 24 L 4 29 L 4.5 29.5 L 9 25 L 13.5 29.5 L 14 29 L 9 24 z M 14 29 L 14.5 29.5 L 19 25 L 23.5 29.5 L 24 29 L 19 24 L 14 29 z M 24 29 L 24.5 29.5 L 29 25 L 33.5 29.5 L 34 29 L 29 24 L 24 29 z M 34 29 L 34.5 29.5 L 39 25 L 43.5 29.5 L 44 29 L 39 24 L 34 29 z M 9 34 L 4 39 L 4.5 39.5 L 9 35 L 13.5 39.5 L 14 39 L 9 34 z M 14 39 L 14.5 39.5 L 19 35 L 23.5 39.5 L 24 39 L 19 34 L 14 39 z M 24 39 L 24.5 39.5 L 29 35 L 33.5 39.5 L 34 39 L 29 34 L 24 39 z M 34 39 L 34.5 39.5 L 39 35 L 43.5 39.5 L 44 39 L 39 34 L 34 39 z"/>
 <path style="opacity:0.1" d="m 26.253906,11 -7.070312,0.002 c -1.18311,-0.05739 -0.986328,0.943359 -0.986328,0.943359 l 0.90625,2.197266 c 0,0 -7.36822,8.097134 -4.396485,11.080078 3.179161,3.19115 8.001652,-4.318509 8.94336,-2.585937 2.04379,3.760203 -5.30331,10.332165 -7.753907,12.388672 C 14.825144,35.152958 14,35.980834 14,37 c 0,1.108 0.972495,2 2.179688,2 H 31.820312 C 33.027505,39 34,38.108 34,37 34,36.084814 33.332916,35.325455 32.421875,35.085938 31.80829,34.396654 30.932243,33.537091 30.964844,32.65625 31.074923,29.682028 34.080191,25.25718 34,21.058594 33.908135,16.248771 31.175564,11.966734 26.253906,11 Z"/>
 <rect style="fill:#514e48" width="20" height="4" x="14" y="34" rx="2.179" ry="2.327"/>
 <path style="fill:#514e48" d="M 19.184453,10.002419 26.253596,10 C 31.175254,10.966734 33.908135,15.248575 34,20.058398 34.080191,24.256984 31.075638,28.682755 30.965559,31.656977 30.916037,32.99502 33.019317,34.323932 33,35 L 14.823831,34.93152 c 0,0 11.248812,-8.840136 8.827169,-13.29552 -0.941708,-1.732572 -5.765636,5.77815 -8.944797,2.587 -2.971735,-2.982944 4.396664,-11.080002 4.396664,-11.080002 L 18.1982,10.945213 c 0,0 -0.196857,-1.0001781 0.986253,-0.94279 z"/>
 <path style="opacity:0.2;fill:#8b9cbe" d="M 6,4 C 4.892,4 4,4.892 4,6 V 7 C 4,5.892 4.892,5 6,5 h 36 c 1.108,0 2,0.892 2,2 V 6 C 44,4.892 43.108,4 42,4 Z"/>
</svg>
