<svg xmlns="http://www.w3.org/2000/svg" width="48" height="48" version="1">
 <rect opacity=".2" width="12" height="12" x="-6.7" y="11.18" rx="2" ry="2" transform="rotate(-45)"/>
 <rect fill="#597123" width="12" height="12" x="-5.99" y="10.48" rx="2" ry="2" transform="rotate(-45)"/>
 <path fill="#fff" opacity=".1" d="m11.658 3.9824c-0.51124 0-1.0223 0.19615-1.4141 0.58789l-5.6561 5.6567c-0.52079 0.52079-0.6872 1.2516-0.51562 1.9141 0.086649-0.33366 0.25327-0.6517 0.51562-0.91406l5.6561-5.6567c0.78347-0.78347 2.0446-0.78347 2.8281 0l5.6582 5.6562c0.2624 0.2624 0.42899 0.58034 0.51562 0.91406 0.1715-0.66238 0.0051-1.3933-0.51562-1.9141l-5.658-5.6557c-0.391-0.3917-0.903-0.5879-1.414-0.5879z"/>
 <rect opacity=".2" width="40" height="40" x="4" y="5" rx="20" ry="20"/>
 <rect fill="#96ba42" width="40" height="40" x="4" y="4" rx="20" ry="20"/>
 <path fill="#fff" opacity=".2" d="m24 4c-11.08 0-20 8.92-20 20 0 0.168 0.0076 0.333 0.0117 0.5 0.2647-10.846 9.0763-19.5 19.988-19.5s19.724 8.654 19.988 19.5c0.004-0.167 0.012-0.332 0.012-0.5 0-11.08-8.92-20-20-20z"/>
 <circle opacity=".2" cx="24" cy="25" r="15"/>
 <circle fill="#8b9cbe" cx="24" cy="24" r="15"/>
 <rect fill="#f45246" width="4" height="14" x="30.79" y="-3.22" rx="2" ry="2" transform="rotate(30)"/>
 <g opacity=".1" transform="translate(0,1)">
  <circle cx="24" cy="36" r="2"/>
  <circle cx="24" cy="12" r="2"/>
  <circle cx="24" cy="-12" r="2" transform="rotate(90)"/>
  <circle cx="24" cy="-36" r="2" transform="rotate(90)"/>
 </g>
 <ellipse opacity=".1" cx="24" cy="25" rx="3.999" ry="4"/>
 <ellipse fill="#4d4d4d" cx="24" cy="24" rx="4" ry="4"/>
 <g fill="#4d4d4d">
  <circle cx="24" cy="36" r="2"/>
  <circle cx="24" cy="12" r="2"/>
  <circle cx="24" cy="-12" r="2" transform="rotate(90)"/>
  <circle cx="24" cy="-36" r="2" transform="rotate(90)"/>
 </g>
</svg>
