<svg xmlns="http://www.w3.org/2000/svg" width="48" height="48" version="1">
 <path fill="#fecd38" d="m24 4c-11.08 0-20 8.92-20 20s8.92 20 20 20 20-8.92 20-20-8.92-20-20-20z"/>
 <path fill="#fff" opacity=".2" d="m17 16a3 3.0001 0 0 0 -3 3 3 3.0001 0 0 0 3 3 3 3.0001 0 0 0 3 -3 3 3.0001 0 0 0 -3 -3zm14 0a3 3 0 0 0 -3 3 3 3 0 0 0 3 3 3 3 0 0 0 3 -3 3 3 0 0 0 -3 -3zm-15 15a9.2503 10 0 0 0 8.004 5 9.2503 10 0 0 0 7.996 -5h-1.123a9.2503 10 0 0 1 -6.873 3.334 9.2503 10 0 0 1 -6.877 -3.334h-1.127z"/>
 <path fill="#fff" opacity=".2" d="m24 4c-11.08 0-20 8.92-20 20 0 0.168-0.004 0.333 0 0.5 0.2644-10.846 9.088-19.5 20-19.5s19.736 8.654 20 19.5c0.004-0.167 0-0.332 0-0.5 0-11.08-8.92-20-20-20z"/>
 <ellipse fill="#17191e" cx="17" cy="18" rx="3" ry="3"/>
 <circle fill="#17191e" cx="31" cy="18" r="3"/>
 <path fill="#17191e" d="m16 30a9.2503 10 0 0 0 8.0036 5 9.2503 10 0 0 0 7.9964 -5h-1.1237a9.2503 10 0 0 1 -6.872 3.333 9.2503 10 0 0 1 -6.877 -3.333h-1.127z"/>
 <path opacity=".2" d="m4.0117 24.5c-0.0041 0.167-0.0117 0.332-0.0117 0.5 0 11.08 8.92 20 20 20s20-8.92 20-20c0-0.16787-0.0076-0.33314-0.01172-0.5-0.264 10.846-9.076 19.5-19.988 19.5s-19.724-8.654-19.988-19.5z"/>
</svg>
