<svg xmlns="http://www.w3.org/2000/svg" width="48" height="48" version="1">
 <rect fill="#b2bfd9" width="40" height="40" x="4" y="4" rx="20" ry="20"/>
 <circle opacity=".2" cx="21" cy="-30" r="7" transform="scale(1,-1)"/>
 <circle fill="#ee9736" cx="21" cy="-29" r="7" transform="scale(1,-1)"/>
 <circle opacity=".2" cx="29" cy="-25" r="7" transform="scale(1,-1)"/>
 <circle opacity=".2" cx="19" cy="-20" r="7" transform="scale(1,-1)"/>
 <circle fill="#ffb271" cx="19" cy="-19" r="7" transform="scale(1,-1)"/>
 <circle fill="#535353" cx="29" cy="-24" r="7" transform="scale(1,-1)"/>
 <path fill="#fff" opacity=".2" d="m24 4c-11.08 0-20 8.92-20 20 0 0.168 0.0076 0.333 0.0117 0.5 0.2647-10.846 9.0763-19.5 19.988-19.5s19.724 8.654 19.988 19.5c0.004-0.167 0.012-0.332 0.012-0.5 0-11.08-8.92-20-20-20z"/>
 <path opacity=".2" d="m4.0117 24.5c-0.0041 0.167-0.0117 0.332-0.0117 0.5 0 11.08 8.92 20 20 20s20-8.92 20-20c0-0.16787-0.0076-0.33314-0.01172-0.5-0.264 10.846-9.076 19.5-19.988 19.5s-19.724-8.654-19.988-19.5z"/>
</svg>
