<svg xmlns="http://www.w3.org/2000/svg" width="48" height="48" version="1.1">
 <path style="opacity:0.2" d="m 24,5 a 4,4 0 0 0 -4,4 v 34 c 0,1.108 0.892,2 2,2 h 4 c 1.108,0 2,-0.892 2,-2 V 9 A 4,4 0 0 0 24,5 Z"/>
 <path style="fill:#a3a3a3" d="m 20,8 v 34 c 0,1.108 0.892,2 2,2 h 4 c 1.108,0 2,-0.892 2,-2 V 8 Z"/>
 <circle style="fill:#a3a3a3" cx="24" cy="8" r="4"/>
 <rect style="opacity:0.2" width="44" height="22" x="2" y="11" rx="4" ry="4"/>
 <rect style="fill:#0479e8" width="44" height="22" x="2" y="10" rx="4" ry="4"/>
 <g style="opacity:0.2">
  <path d="M 10.608,24.921 H 9.9579 L 8.8175,21.018 Q 8.7362,20.759 8.6356,20.364 8.5351,19.969 8.5312,19.89 8.4461,20.416 8.2605,21.042 L 7.1544,24.921 H 6.5046 L 5.0001,19.093 H 5.6962 L 6.5896,22.692 Q 6.7752,23.449 6.8603,24.064 6.9648,23.335 7.1698,22.636 L 8.1831,19.093 H 8.8793 L 9.9432,22.669 Q 10.128,23.286 10.256,24.064 10.329,23.498 10.535,22.685 L 11.425,19.093 H 12.12 Z"/>
  <path d="M 16.158,24.921 H 13.006 V 19.093 H 16.158 V 19.694 H 13.663 V 21.572 H 16.008 V 22.17 H 13.663 V 24.315 H 16.158 Z"/>
  <path d="M 17.415,24.921 V 19.093 H 18.073 V 24.307 H 20.568 V 24.921 Z"/>
  <path d="M 23.951,19.615 Q 23.02,19.615 22.478,20.256 21.941,20.894 21.941,22.007 21.941,23.151 22.459,23.776 22.981,24.399 23.944,24.399 24.535,24.399 25.294,24.179 V 24.773 Q 24.706,25.001 23.843,25.001 22.594,25.001 21.913,24.219 21.237,23.438 21.237,21.999 21.237,21.098 21.562,20.42 21.89,19.743 22.505,19.375 23.124,19.008 23.959,19.008 24.849,19.008 25.514,19.343 L 25.236,19.925 Q 24.593,19.615 23.951,19.615 Z"/>
  <path d="M 31.436,21.999 Q 31.436,23.398 30.747,24.2 30.063,25.001 28.841,25.001 27.591,25.001 26.91,24.215 26.233,23.426 26.233,21.99 26.233,20.567 26.914,19.786 27.595,19 28.848,19 30.067,19 30.751,19.798 31.436,20.595 31.436,21.999 Z M 26.93,21.999 Q 26.93,23.182 27.417,23.797 27.908,24.407 28.841,24.407 29.78,24.407 30.26,23.797 30.74,23.186 30.74,21.999 30.74,20.823 30.26,20.217 29.784,19.606 28.848,19.606 27.908,19.606 27.417,20.221 26.93,20.831 26.93,21.999 Z"/>
  <path d="M 35.202,24.921 33.285,19.754 H 33.253 Q 33.307,20.368 33.307,21.214 V 24.921 H 32.701 V 19.093 H 33.691 L 35.481,23.9 H 35.512 L 37.318,19.093 H 38.301 V 24.921 H 37.643 V 21.165 Q 37.643,20.519 37.697,19.762 H 37.667 L 35.732,24.921 Z"/>
  <path d="M 43,24.921 H 39.848 V 19.093 H 43 V 19.694 H 40.505 V 21.572 H 42.849 V 22.17 H 40.505 V 24.315 H 43 Z"/>
 </g>
 <g>
  <path style="fill:#8b9cbe" d="M 10.608,23.92 H 9.9579 L 8.8175,20.018 Q 8.7362,19.759 8.6356,19.364 8.5351,18.969 8.5312,18.89 8.4461,19.416 8.2605,20.042 L 7.1544,23.92 H 6.5046 L 5.0001,18.093 H 5.6962 L 6.5896,21.692 Q 6.7752,22.45 6.8603,23.064 6.9648,22.335 7.1698,21.636 L 8.1831,18.093 H 8.8793 L 9.9432,21.669 Q 10.128,22.287 10.256,23.064 10.329,22.498 10.535,21.685 L 11.425,18.093 H 12.12 Z"/>
  <path style="fill:#8b9cbe" d="M 16.158,23.92 H 13.006 V 18.093 H 16.158 V 18.695 H 13.663 V 20.572 H 16.008 V 21.17 H 13.663 V 23.315 H 16.158 Z"/>
  <path style="fill:#8b9cbe" d="M 17.415,23.92 V 18.093 H 18.073 V 23.307 H 20.568 V 23.92 Z"/>
  <path style="fill:#8b9cbe" d="M 23.951,18.615 Q 23.02,18.615 22.478,19.256 21.941,19.894 21.941,21.007 21.941,22.151 22.459,22.777 22.981,23.399 23.944,23.399 24.535,23.399 25.294,23.179 V 23.773 Q 24.706,24.001 23.843,24.001 22.594,24.001 21.913,23.219 21.237,22.438 21.237,20.998 21.237,20.098 21.562,19.42 21.89,18.742 22.505,18.375 23.124,18.008 23.959,18.008 24.849,18.008 25.514,18.343 L 25.236,18.925 Q 24.593,18.615 23.951,18.615 Z"/>
  <path style="fill:#8b9cbe" d="M 31.436,20.998 Q 31.436,22.398 30.747,23.2 30.063,24.001 28.841,24.001 27.591,24.001 26.91,23.215 26.233,22.426 26.233,20.99 26.233,19.567 26.914,18.786 27.595,18 28.848,18 30.067,18 30.751,18.798 31.436,19.595 31.436,20.998 Z M 26.93,20.998 Q 26.93,22.182 27.417,22.797 27.908,23.407 28.841,23.407 29.78,23.407 30.26,22.797 30.74,22.186 30.74,20.998 30.74,19.823 30.26,19.217 29.784,18.606 28.848,18.606 27.908,18.606 27.417,19.221 26.93,19.831 26.93,20.998 Z"/>
  <path style="fill:#8b9cbe" d="M 35.202,23.92 33.285,18.754 H 33.253 Q 33.307,19.368 33.307,20.214 V 23.92 H 32.701 V 18.093 H 33.691 L 35.481,22.9 H 35.512 L 37.318,18.093 H 38.301 V 23.92 H 37.643 V 20.165 Q 37.643,19.519 37.697,18.762 H 37.667 L 35.732,23.92 Z"/>
  <path style="fill:#8b9cbe" d="M 43,23.92 H 39.848 V 18.093 H 43 V 18.695 H 40.505 V 20.572 H 42.849 V 21.17 H 40.505 V 23.315 H 43 Z"/>
 </g>
 <path style="opacity:0.1;fill:#8b9cbe" d="M 6 10 C 3.784 10 2 11.784 2 14 L 2 15 C 2 12.784 3.784 11 6 11 L 42 11 C 44.216 11 46 12.784 46 15 L 46 14 C 46 11.784 44.216 10 42 10 L 6 10 z"/>
 <path style="opacity:0.1;fill:#8b9cbe" d="M 24 4 A 4 4 0 0 0 20 8 L 20 9 A 4 4 0 0 1 24 5 A 4 4 0 0 1 28 9 L 28 8 A 4 4 0 0 0 24 4 z"/>
</svg>
