<svg width="48" height="48" version="1" xmlns="http://www.w3.org/2000/svg">
 <rect x="4" y="4" width="40" height="40" rx="2" ry="2" style="fill:#4f4f4f"/>
 <path d="m27.031485 8.0000005c-2.462526 1.4887869-4.992033 2.8742665-7.400085 4.4485535-0.883485 4.221279-1.739524 8.44875-2.56696 12.681358 0.928617 1.178945 1.947119 2.284122 2.908899 3.435914-0.939471-0.299761-2.119636-0.97566-3.156435-1.394041 0.816181 3.01447 1.669915 6.02002 2.560187 9.013447 1.190359-0.102383 2.371665-0.292642 3.561639-0.398928-0.85424 0.88006-1.776572 1.691639-2.635883 2.566712 1.502229-0.625082 2.979723-1.308064 4.476893-1.94517 0.287647 0.471236-0.565291 2.158687-0.68021 3.07415 0.656286-1.062862 1.281422-2.145282 1.905084-3.227656l0.574683-0.270281s-0.168288-0.168636 0 0c1.305201 0.20588 2.607518 0.45441 3.911656 0.651062-1.173614-0.576114-2.366753-1.111672-3.540384-1.687753 1.173657-0.48654 2.424177-0.855745 3.623041-1.309209-1.17906-0.01094-2.358187 0.02124-3.537277 0.0079 0.190478-0.420606 1.613856-1.162615 2.230429-1.737347-0.861208-1.00031-1.831565-1.901647-2.699025-2.896531 1.50029-4.913111 3.074637-9.803462 4.615358-14.70409-1.381708-2.104032-2.731524-4.229909-4.15161-6.3080825z" style="opacity:.2"/>
 <path d="m6 4c-1.108 0-2 0.892-2 2v1c0-1.108 0.892-2 2-2h36c1.108 0 2 0.892 2 2v-1c0-1.108-0.892-2-2-2h-36z" fill="#fff" style="opacity:.1"/>
 <path d="m6 45c-1.108 0-2-0.892-2-2v-1c0 1.108 0.892 2 2 2h36c1.108 0 2-0.892 2-2v1c0 1.108-0.892 2-2 2h-36z" opacity=".2"/>
 <path d="m27.031485 7.0000005c-2.462526 1.4887869-4.992033 2.8742665-7.400085 4.4485535-0.883485 4.221279-1.739524 8.44875-2.56696 12.681358 0.928617 1.178945 1.947119 2.284122 2.908899 3.435914-0.939471-0.299761-2.119636-0.97566-3.156435-1.394041 0.816181 3.01447 1.669915 6.02002 2.560187 9.013447 1.190359-0.102383 2.371665-0.292642 3.561639-0.398928-0.85424 0.88006-1.776572 1.691639-2.635883 2.566712 1.502229-0.625082 2.979723-1.308064 4.476893-1.94517 0.287647 0.471236-0.565291 2.158687-0.68021 3.07415 0.656286-1.062862 1.281422-2.145282 1.905084-3.227656l0.574683-0.270281s-0.168288-0.168636 0 0c1.305201 0.20588 2.607518 0.45441 3.911656 0.651062-1.173614-0.576114-2.366753-1.111672-3.540384-1.687753 1.173657-0.48654 2.424177-0.855745 3.623041-1.309209-1.17906-0.01094-2.358187 0.02124-3.537277 0.0079 0.190478-0.420606 1.613856-1.162615 2.230429-1.737347-0.861208-1.00031-1.831565-1.901647-2.699025-2.896531 1.50029-4.913111 3.074637-9.803462 4.615358-14.70409-1.381708-2.104032-2.731524-4.2299088-4.15161-6.3080825z" style="fill:#ffc107"/>
 <path d="m25.835601 12.239164c-2.074761 5.577562-3.385224 12.3183-3.703708 18.549495-0.07504 0.868256-0.05387 0.692326 0.512571 1.37406 2.811423 3.384152 5.616872 6.964603 8.443857 9.837281l-9.23e-4 -0.198413c-2.702425-3.705431-5.404849-6.829442-8.107274-10.12433-0.236418-0.283799-0.300857-0.287808-0.281139-0.631663 0.358705-6.24569 1.763711-13.161152 3.136616-18.80643z" style="opacity:.2"/>
 <path d="m25.835601 11.239164c-2.074761 5.577562-3.385224 12.3183-3.703708 18.549495-0.07504 0.868256-0.05387 0.692326 0.512571 1.37406 2.811423 3.384152 5.616872 6.964603 8.443857 9.837281l-9.23e-4 -0.198413c-2.702425-3.705431-5.404849-6.829442-8.107274-10.12433-0.236418-0.283799-0.300857-0.287808-0.281139-0.631663 0.358705-6.24569 1.763711-13.161152 3.136616-18.80643z" style="fill:#8b9cbe"/>
 <path d="m27.03125 7c-2.462526 1.4887869-4.992339 2.8749318-7.400391 4.449219-0.883485 4.221279-1.73897 8.449032-2.566406 12.68164 0.052399 0.066524 0.109165 0.129237 0.162109 0.195313 0.778337-3.96347 1.576862-7.923479 2.404297-11.876953 2.408052-1.574287 4.937865-2.9604321 7.400391-4.449219 1.346862 1.9710165 2.631852 3.984919 3.939453 5.982422 0.070771-0.224645 0.142251-0.449143 0.212891-0.673828-1.381708-2.104032-2.732258-4.2304203-4.152344-6.308594zm-10.214844 19.171875c0.103665 0.382873 0.213486 0.763906 0.31836 1.146484 0.956713 0.417354 1.991025 0.977834 2.83789 1.248047-0.438595-0.525246-0.889607-1.041319-1.33789-1.558594-0.606678-0.285963-1.234004-0.600131-1.81836-0.835937zm9.986328 2.089844c-0.076881 0.250441-0.157864 0.499444-0.234375 0.75 0.694219 0.796195 1.44282 1.543314 2.160157 2.318359 0.204038-0.144999 0.396248-0.288752 0.539062-0.421875-0.786691-0.913757-1.657626-1.751155-2.464844-2.646484zm3.771485 4.376953c-0.766943-0.007116-1.53381 8.82e-4 -2.300781 0.005859-0.562679 0.379119-1.121784 0.74902-1.236329 1.001953 0.244152 0.002763 0.488268-0.001598 0.732422-0.001953 0.928834-0.34282 1.878241-0.655435 2.804688-1.005859zm-2.441407 1.871094c-0.397127 0.141505-0.796524 0.277849-1.18164 0.4375 0.105645 0.051856 0.212427 0.101085 0.318359 0.152343 1.074316 0.179543 2.146546 0.373184 3.220703 0.535157-0.781881-0.383817-1.56975-0.75321-2.357422-1.125zm-5.193359 1.277343c-0.386204 0.034495-0.771266 0.082596-1.15625 0.128907-0.498427 0.474089-0.998558 0.946749-1.480469 1.4375 0.624036-0.259663 1.240693-0.536387 1.859375-0.808594 0.260529-0.251126 0.525303-0.498153 0.777344-0.757813zm1.839844 0.621094c-0.034064 0.014495-0.067519 0.03038-0.101563 0.044922-0.194629 0.675293-0.50924 1.480555-0.578125 2.029297 0.190847-0.309078 0.366427-0.62755 0.552735-0.939453 0.14751-0.491477 0.250083-0.933049 0.126953-1.134766z" style="fill:#8b9cbe;opacity:.2"/>
</svg>
