<svg xmlns="http://www.w3.org/2000/svg" width="48" height="48" version="1.1">
 <rect style="fill:#4f4f4f" width="40" height="40" x="4" y="4" ry="20"/>
 <path style="opacity:0.1;fill:#8b9cbe" d="M 12.89,7.35 C 7.5226,10.929 3.9974,17.036 3.9974,23.998 l 16,0 c 0,-1.621 0.96933,-3.0084 2.3555,-3.6367 l -9.462,-13.012 z"/>
 <path style="opacity:0.1;fill:#8b9cbe" d="m 35.06,40.6 c 5.3674,-3.5793 8.8926,-9.6857 8.8926,-16.648 l -16,0 c 0,1.621 -0.96933,3.0084 -2.3555,3.6367 l 9.4629,13.012 z"/>
 <path style="opacity:0.2" d="m 24,18 c -3.878,0 -7,3.122 -7,7 0,3.878 3.122,7 7,7 3.878,0 7,-3.122 7,-7 0,-3.878 -3.122,-7 -7,-7 z"/>
 <path style="fill:#8b9cbe" d="M 24 17 L 24 31 C 27.878 31 31 27.878 31 24 C 31 20.122 27.878 17 24 17 z"/>
 <path style="fill:#fe4b4b" d="m 24,17 v 14 c -3.878,0 -7,-3.122 -7,-7 0,-3.878 3.122,-7 7,-7 z"/>
 <rect style="fill:#17191e" width="4" height="4" x="22" y="-26" ry="2" transform="scale(1,-1)"/>
 <path style="opacity:0.1;fill:#8b9cbe" d="m 24,4 c 11.07,0 19.982,8.92 19.982,20 0,0.16787 -0.008,0.33314 -0.0117,0.5 C 43.7063,13.654 34.9023,5 24.0003,5 13.0983,5 4.2943,13.654 4.0303,24.5 4.0269,24.333 4.0192,24.168 4.0192,24 4.0192,12.92 12.931,4 24.0012,4 Z"/>
 <path style="opacity:0.2" d="M 4.0117,24.5 C 4.0077,24.667 4,24.832 4,25 4,36.08 12.92,45 24,45 35.08,45 44,36.08 44,25 44,24.832 43.992,24.667 43.988,24.5 43.724,35.347 34.912,44 24,44 13.088,44 4.276,35.347 4.012,24.5 Z"/>
</svg>
