<svg width="48" height="48" version="1.1" xmlns="http://www.w3.org/2000/svg">
 <path d="M 24 5 C 24 5 19.681957 5.0788585 16.134766 6.890625 C 10.726377 9.6530188 4 17 4 25 C 4 32 6.8135593 35.351694 11 37 C 11.364887 37.127711 11.771496 37.231531 12.164062 37.34375 C 13.177254 44.974514 19.241943 45 24 45 C 28.758057 45 34.822746 44.974514 35.835938 37.34375 C 36.228504 37.231531 36.635113 37.127711 37 37 C 41.186441 35.351695 44 32 44 25 C 44 17 37.273623 9.6530188 31.865234 6.890625 C 28.318043 5.0788585 24 5 24 5 z " style="opacity:.2"/>
 <path d="m24 4s-4.318043 0.0788585-7.865234 1.890625c-2.919964 1.4914031-6.2163173 4.325717-8.6386722 7.871094l-0.0019532 0.003906-3.4355468 9.078125c-0.0112303 0.140727-0.0142929 0.282592-0.0214844 0.423828l0.9628906 6.871094c1.17008 3.011727 3.2951169 4.796348 6 5.861328 5 1.75 13 2 13 2s8-0.25 13-2c2.704883-1.064979 4.82992-2.8496 6-5.861328l0.962891-6.871094c-0.007192-0.141236-0.010255-0.283101-0.021485-0.423828l-3.435547-9.078125c-8.13e-4 -0.001191-0.001139-0.002716-0.001953-0.003906-2.422355-3.545377-5.718708-6.3796909-8.638672-7.871094-3.547191-1.8117665-7.865234-1.890625-7.865234-1.890625z" style="fill:#26a1db"/>
 <path d="m36 34c0 10-6.793167 10-12 10s-12 0-12-10c0 0 2-4 12-4s12 4 12 4z" style="fill:#b2bfd9"/>
 <ellipse cx="24" cy="17" rx="12" ry="10" style="opacity:.2"/>
 <ellipse cx="24" cy="16" rx="12" ry="10" style="fill:#8b9cbe"/>
 <path d="m7.4960938 13.761719c-2.0643585 3.02141-3.4960938 6.557443-3.4960938 10.238281 0 2.47726 0.3591069 4.489045 1 6.138672 0 0 0.058392-5.317835 0.2539062-7.019531 0.4576271-3.983051 1.1595204-5.566674 2.2421876-9.357422zm33.007812 0c1.082667 3.790748 1.784561 5.374371 2.242188 9.357422 0.195516 1.701696 0.253906 7.019531 0.253906 7.019531 0.640893-1.649627 1-3.661412 1-6.138672 0-3.680838-1.431735-7.216871-3.496094-10.238281z" style="fill:#b2bfd9"/>
 <path d="m19.5 33c-0.831 0-1.5 0.669-1.5 1.5v4c0 0.831 0.669 1.5 1.5 1.5s1.5-0.669 1.5-1.5v-4c0-0.831-0.669-1.5-1.5-1.5zm9 0c-0.831 0-1.5 0.669-1.5 1.5v4c0 0.831 0.669 1.5 1.5 1.5s1.5-0.669 1.5-1.5v-4c0-0.831-0.669-1.5-1.5-1.5z" style="opacity:.1"/>
 <path d="m19.5 32c-0.831 0-1.5 0.669-1.5 1.5v4c0 0.831 0.669 1.5 1.5 1.5s1.5-0.669 1.5-1.5v-4c0-0.831-0.669-1.5-1.5-1.5zm9 0c-0.831 0-1.5 0.669-1.5 1.5v4c0 0.831 0.669 1.5 1.5 1.5s1.5-0.669 1.5-1.5v-4c0-0.831-0.669-1.5-1.5-1.5z" style="fill:#17191e"/>
 <path d="m24 30c-10 0-12 4-12 4 0 0.330877 0.026445 0.622297 0.041016 0.931641 0.201814-0.357208 2.453121-3.931641 11.958984-3.931641s11.75717 3.574433 11.958984 3.931641c0.014571-0.309344 0.041016-0.600764 0.041016-0.931641 0 0-2-4-12-4z" style="opacity:.1"/>
 <path d="M 24 4 C 24 4 19.681957 4.0788585 16.134766 5.890625 C 10.726377 8.6530188 4 16 4 24 C 4 24.228175 4.011649 24.441619 4.0175781 24.662109 C 4.2036942 16.794334 10.802923 9.6139221 16.134766 6.890625 C 19.681957 5.0788585 24 5 24 5 C 24 5 28.318043 5.0788585 31.865234 6.890625 C 37.197077 9.6139221 43.796306 16.794334 43.982422 24.662109 C 43.988351 24.441619 44 24.228175 44 24 C 44 16 37.273623 8.6530188 31.865234 5.890625 C 28.318043 4.0788585 24 4 24 4 z " style="fill:#8b9cbe;opacity:.2"/>
</svg>
