<svg xmlns="http://www.w3.org/2000/svg" width="48" height="48" version="1.1">
 <path style="opacity:0.2" d="m 25.747647,5.0005266 c -0.3455,-0.002 -0.48017,0.27174 -1.18109,2.405 l -0.696345,2.11951 -1.064512,0.0962 c -0.585471,0.0529 -1.260479,0.13684 -1.500039,0.18662 -0.316711,0.0658 -0.464457,0.0665 -0.541477,0.002 -0.05824,-0.0484 -0.551446,-0.84785 -1.096079,-1.7766 -1.088427,-1.85607 -1.311635,-2.15299 -1.617706,-2.15299 -0.321655,0 -2.476043,0.85836 -2.633,1.04904 -0.07702,0.0936 -0.138975,0.28314 -0.137676,0.42143 9.99e-4,0.13829 0.194697,1.1526 0.429742,2.25388 0.235056,1.1012904 0.41342,2.0383904 0.396308,2.0824404 -0.01708,0.044 -0.273515,0.23092 -0.569767,0.41533 -0.296252,0.18441 -0.832543,0.57187 -1.19172,0.86101 -0.359166,0.28914 -0.687204,0.52577 -0.729001,0.52577 -0.04176,0 -0.882052,-0.45538 -1.867266,-1.01197 -2.0257619,-1.14443 -2.1228109,-1.188 -2.4085934,-1.07923 -0.3087587,0.11751 -1.8230525,2.04075 -1.8230525,2.31536 0,0.29762 0.072425,0.39201 1.6173965,2.11107 0.7386612,0.82186 1.3429924,1.5524 1.3429924,1.62346 0,0.071 -0.156627,0.4439 -0.348018,0.82847 -0.1913908,0.38457 -0.4454963,0.95783 -0.5647621,1.27399 -0.1192659,0.31615 -0.261378,0.61194 -0.3158213,0.65717 -0.060837,0.0506 -0.9522789,0.0913 -2.313582,0.10591 -2.7311473,0.0293 -2.4910173,-0.10371 -2.7484793,1.52193 -0.099696,0.62967 -0.1833592,1.24001 -0.1858066,1.35627 -0.00899,0.43313 0.1751877,0.53007 2.3978143,1.26195 l 2.1160475,0.69675 0.093802,1.03965 c 0.051646,0.57178 0.1326919,1.25003 0.1801825,1.50723 0.04755,0.25721 0.066631,0.49966 0.042556,0.53876 -0.024175,0.0391 -0.8427029,0.54435 -1.8191366,1.12287 -0.9764437,0.57853 -1.8563978,1.13911 -1.9554148,1.24568 -0.098997,0.10658 -0.1800226,0.28887 -0.1800226,0.40516 0,0.34021 0.8725518,2.48853 1.0657607,2.62401 0.2525971,0.1771 0.4711696,0.15115 2.6539377,-0.31506 1.0996955,-0.23488 2.0358116,-0.4116 2.0802746,-0.39265 0.04445,0.019 0.231729,0.27584 0.416307,0.57083 0.184568,0.29498 0.575091,0.8349 0.867767,1.19968 0.364161,0.45389 0.516043,0.70529 0.480999,0.79671 -0.02817,0.0735 -0.481129,0.89753 -1.006542,1.83121 -1.076899,1.91372 -1.138046,2.04689 -1.067789,2.32709 0.07183,0.28656 2.053213,1.87057 2.338896,1.86985 0.294653,-7.4e-4 0.434767,-0.10814 2.086049,-1.60125 0.803853,-0.72685 1.522215,-1.33204 1.596298,-1.34485 0.07412,-0.0128 0.457494,0.1365 0.852143,0.33195 0.394649,0.19545 0.996633,0.45399 1.337678,0.57442 0.341045,0.12042 0.627167,0.22324 0.635858,0.22855 0.009,0.005 0.03566,1.04501 0.06004,2.31035 0.05434,2.82575 -0.07612,2.57947 1.502386,2.83504 1.186155,0.19204 1.654448,0.19255 1.84477,0.002 0.06633,-0.0664 0.43235,-1.06944 0.813233,-2.22886 l 0.69243,-2.10793 0.796041,-0.0613 c 0.437864,-0.0337 1.120234,-0.11458 1.516292,-0.17974 0.716954,-0.11796 0.72075,-0.11766 0.869175,0.0613 0.08202,0.0989 0.593882,0.93663 1.137646,1.86171 0.543764,0.92508 1.065781,1.74504 1.159993,1.82213 0.257971,0.21109 0.442739,0.17847 1.688662,-0.29738 1.188214,-0.45382 1.425666,-0.61927 1.424867,-0.99304 -2.4e-4,-0.11626 -0.194917,-1.13012 -0.432709,-2.2531 -0.237793,-1.12298 -0.415158,-2.06979 -0.39412,-2.10387 0.02108,-0.0341 0.296731,-0.23661 0.612742,-0.45021 0.316001,-0.2136 0.844641,-0.60958 1.174677,-0.87978 0.330047,-0.2702 0.633201,-0.4913 0.673689,-0.49135 0.04046,-6e-5 0.904599,0.46305 1.920242,1.02917 2.076338,1.15733 2.064571,1.15199 2.339215,1.08298 0.292236,-0.0734 1.867736,-2.05607 1.867736,-2.3504 0,-0.27535 -0.06663,-0.36124 -1.637865,-2.11247 -0.705426,-0.78624 -1.293674,-1.49463 -1.3072,-1.57434 -0.01359,-0.0797 0.121793,-0.43636 0.300667,-0.79249 0.178864,-0.35613 0.435707,-0.92709 0.570696,-1.26883 0.13498,-0.34174 0.280468,-0.65739 0.323324,-0.70144 0.04635,-0.0476 0.983486,-0.0963 2.312333,-0.12014 2.131901,-0.0382 2.242016,-0.0477 2.401401,-0.20743 0.130823,-0.1311 0.209032,-0.42634 0.360824,-1.3616 0.106599,-0.6568 0.194388,-1.27142 0.195027,-1.36565 0.003,-0.38072 -0.225545,-0.49672 -2.399063,-1.21893 l -2.120273,-0.70442 -0.09021,-1.03511 c -0.04965,-0.56928 -0.130235,-1.24649 -0.179084,-1.50489 -0.04885,-0.2584 -0.06883,-0.5021 -0.04435,-0.54173 0.02448,-0.0396 0.843183,-0.5443 1.819297,-1.12146 0.976114,-0.57716 1.855778,-1.13732 1.954785,-1.24474 0.099,-0.10742 0.180023,-0.28526 0.180023,-0.39531 0,-0.31559 -0.859126,-2.45753 -1.048569,-2.6143 -0.240689,-0.19917 -0.406387,-0.1831 -2.319835,0.2251 -2.246672,0.4793 -2.367826,0.50119 -2.45016,0.44412 -0.03856,-0.0267 -0.242658,-0.31072 -0.453648,-0.63121 -0.21099,-0.32049 -0.596189,-0.8431 -0.856049,-1.16136 -0.25986,-0.31825 -0.472508,-0.61128 -0.472568,-0.65107 -5e-5,-0.0398 0.464067,-0.9048 1.031546,-1.92225 0.56747,-1.01744 1.054443,-1.92625 1.082164,-2.01955 0.0959,-0.32274 -0.10599,-0.57356 -1.112322,-1.3816104 -1.072454,-0.86115 -1.260798,-0.93861 -1.643809,-0.67579 -0.108807,0.0747 -0.869905,0.74144 -1.69131,1.4817304 -0.821415,0.74029 -1.551196,1.3461 -1.621782,1.3461 -0.07063,0 -0.442649,-0.15747 -0.82682,-0.34994 -0.38417,-0.19246 -0.932559,-0.43184 -1.218601,-0.53187 -0.838018,-0.29306 -0.800087,-0.17012 -0.800417,-2.5911504 -2.7e-4,-1.92457 -0.01279,-2.11392 -0.15423,-2.34618 -0.0927,-0.1522 -0.243686,-0.27177 -0.379744,-0.30067 -0.34575,-0.0734 -2.288748,-0.36603 -2.437184,-0.36699 z"/>
 <path style="fill:#60a0ff" d="m 25.747647,4.0005334 c -0.3455,-0.002 -0.48017,0.27174 -1.18109,2.405 l -0.696345,2.11951 -1.064512,0.0962 c -0.585471,0.0529 -1.260479,0.13684 -1.500039,0.18662 -0.316711,0.0658 -0.464457,0.0665 -0.541477,0.002 -0.05824,-0.0484 -0.551446,-0.84785 -1.096079,-1.7766 -1.088427,-1.85607 -1.311635,-2.15299 -1.617706,-2.15299 -0.321655,0 -2.476043,0.85836 -2.633,1.04904 -0.07702,0.0936 -0.138975,0.28314 -0.137676,0.42143 9.99e-4,0.13829 0.194697,1.1526 0.429742,2.25388 0.235056,1.10129 0.41342,2.0383906 0.396308,2.0824406 -0.01708,0.044 -0.273515,0.23092 -0.569767,0.41533 -0.296252,0.18441 -0.832543,0.57187 -1.19172,0.86101 -0.359166,0.28914 -0.687204,0.52577 -0.729001,0.52577 -0.04176,0 -0.882052,-0.45538 -1.867266,-1.01197 -2.0257619,-1.14443 -2.1228109,-1.188 -2.4085934,-1.07923 -0.3087587,0.11751 -1.8230525,2.04075 -1.8230525,2.31536 0,0.29762 0.072425,0.39201 1.6173965,2.11107 0.7386612,0.82186 1.3429924,1.5524 1.3429924,1.62346 0,0.071 -0.156627,0.4439 -0.348018,0.82847 -0.1913908,0.38457 -0.4454963,0.95783 -0.5647621,1.27399 -0.1192659,0.31615 -0.261378,0.61194 -0.3158213,0.65717 -0.060837,0.0506 -0.9522789,0.0913 -2.313582,0.10591 -2.7311473,0.0293 -2.4910173,-0.10371 -2.7484793,1.52193 -0.099696,0.62967 -0.1833592,1.24001 -0.1858066,1.35627 -0.00899,0.43313 0.1751877,0.53007 2.3978143,1.26195 l 2.1160475,0.69675 0.093802,1.03965 c 0.051646,0.57178 0.1326919,1.25003 0.1801825,1.50723 0.04755,0.25721 0.066631,0.49966 0.042556,0.53876 -0.024175,0.0391 -0.8427029,0.54435 -1.8191366,1.12287 -0.9764437,0.57853 -1.8563978,1.13911 -1.9554148,1.24568 -0.098997,0.10658 -0.1800226,0.28887 -0.1800226,0.40516 0,0.34021 0.8725518,2.48853 1.0657607,2.62401 0.2525971,0.1771 0.4711696,0.15115 2.6539377,-0.31506 1.0996955,-0.23488 2.0358116,-0.4116 2.0802746,-0.39265 0.04445,0.019 0.231729,0.27584 0.416307,0.57083 0.184568,0.29498 0.575091,0.8349 0.867767,1.19968 0.364161,0.45389 0.516043,0.70529 0.480999,0.79671 -0.02817,0.0735 -0.481129,0.89753 -1.006542,1.83121 -1.076899,1.91372 -1.138046,2.04689 -1.067789,2.32709 0.07183,0.28656 2.053213,1.87057 2.338896,1.86985 0.294653,-7.4e-4 0.434767,-0.10814 2.086049,-1.60125 0.803853,-0.72685 1.522215,-1.33204 1.596298,-1.34485 0.07412,-0.0128 0.457494,0.1365 0.852143,0.33195 0.394649,0.19545 0.996633,0.45399 1.337678,0.57442 0.341045,0.12042 0.627167,0.22324 0.635858,0.22855 0.009,0.005 0.03566,1.04501 0.06004,2.31035 0.05434,2.82575 -0.07612,2.57947 1.502386,2.83504 1.186155,0.19204 1.654448,0.19255 1.84477,0.002 0.06633,-0.0664 0.43235,-1.06944 0.813233,-2.22886 l 0.69243,-2.10793 0.796041,-0.0613 c 0.437864,-0.0337 1.120234,-0.11458 1.516292,-0.17974 0.716954,-0.11796 0.72075,-0.11766 0.869175,0.0613 0.08202,0.0989 0.593882,0.93663 1.137646,1.86171 0.543764,0.92508 1.065781,1.74504 1.159993,1.82213 0.257971,0.21109 0.442739,0.17847 1.688662,-0.29738 1.188214,-0.45382 1.425666,-0.61927 1.424867,-0.99304 -2.4e-4,-0.11626 -0.194917,-1.13012 -0.432709,-2.2531 -0.237793,-1.12298 -0.415158,-2.06979 -0.39412,-2.10387 0.02108,-0.0341 0.296731,-0.23661 0.612742,-0.45021 0.316001,-0.2136 0.844641,-0.60958 1.174677,-0.87978 0.330047,-0.2702 0.633201,-0.4913 0.673689,-0.49135 0.04046,-6e-5 0.904599,0.46305 1.920242,1.02917 2.076338,1.15733 2.064571,1.15199 2.339215,1.08298 0.292236,-0.0734 1.867736,-2.05607 1.867736,-2.3504 0,-0.27535 -0.06663,-0.36124 -1.637865,-2.11247 -0.705426,-0.78624 -1.293674,-1.49463 -1.3072,-1.57434 -0.01359,-0.0797 0.121793,-0.43636 0.300667,-0.79249 0.178864,-0.35613 0.435707,-0.92709 0.570696,-1.26883 0.13498,-0.34174 0.280468,-0.65739 0.323324,-0.70144 0.04635,-0.0476 0.983486,-0.0963 2.312333,-0.12014 2.131901,-0.0382 2.242016,-0.0477 2.401401,-0.20743 0.130823,-0.1311 0.209032,-0.42634 0.360824,-1.3616 0.106599,-0.6568 0.194388,-1.27142 0.195027,-1.36565 0.003,-0.38072 -0.225545,-0.49672 -2.399063,-1.21893 l -2.120273,-0.70442 -0.09021,-1.03511 c -0.04965,-0.56928 -0.130235,-1.24649 -0.179084,-1.50489 -0.04885,-0.2584 -0.06883,-0.5021 -0.04435,-0.54173 0.02448,-0.0396 0.843183,-0.5443 1.819297,-1.12146 0.976114,-0.57716 1.855778,-1.13732 1.954785,-1.24474 0.099,-0.10742 0.180023,-0.28526 0.180023,-0.39531 0,-0.31559 -0.859126,-2.45753 -1.048569,-2.6143 -0.240689,-0.19917 -0.406387,-0.1831 -2.319835,0.2251 -2.246672,0.4793 -2.367826,0.50119 -2.45016,0.44412 -0.03856,-0.0267 -0.242658,-0.31072 -0.453648,-0.63121 -0.21099,-0.32049 -0.596189,-0.8431 -0.856049,-1.16136 -0.25986,-0.31825 -0.472508,-0.61128 -0.472568,-0.65107 -5e-5,-0.0398 0.464067,-0.9048 1.031546,-1.92225 0.56747,-1.01744 1.054443,-1.9262506 1.082164,-2.0195506 0.0959,-0.32274 -0.10599,-0.57356 -1.112322,-1.38161 -1.072454,-0.86115 -1.260798,-0.93861 -1.643809,-0.67579 -0.108807,0.0747 -0.869905,0.74144 -1.69131,1.48173 -0.821415,0.74029 -1.551196,1.3461006 -1.621782,1.3461006 -0.07063,0 -0.442649,-0.15747 -0.82682,-0.34994 -0.38417,-0.1924606 -0.932559,-0.4318406 -1.218601,-0.5318706 -0.838018,-0.29306 -0.800087,-0.17012 -0.800417,-2.59115 -2.7e-4,-1.92457 -0.01279,-2.11392 -0.15423,-2.34618 -0.0927,-0.1522 -0.243686,-0.27177 -0.379744,-0.30067 -0.34575,-0.0734 -2.288748,-0.36603 -2.437184,-0.36699 z"/>
 <path style="fill:#17191e" d="M 23.958984 23.162109 L 17.673828 38.091797 C 17.998298 38.237331 18.347499 38.400983 18.578125 38.482422 C 18.839204 38.574607 18.967569 38.620543 19.064453 38.65625 L 24.041016 26.835938 L 31.523438 42.634766 C 32.483653 42.255864 32.719486 42.078635 32.71875 41.734375 C 32.718736 41.727525 32.694693 41.614484 32.693359 41.601562 L 23.958984 23.162109 z"/>
 <path style="opacity:0.1" d="m 24,14 c 3,-0.01411 10,0 10,4 v 14 c 0,1.662 -1.338,3 -3,3 H 17 c -1.662,0 -3,-1.338 -3,-3 V 18 c 0,-4 7,-3.985895 10,-4 z"/>
 <path style="fill:#606040" d="m 24,13 c 3,-0.01411 10,0 10,4 v 14 c 0,1.662 -1.338,3 -3,3 H 17 c -1.662,0 -3,-1.338 -3,-3 V 17 c 0,-4 7,-3.985895 10,-4 z"/>
 <circle style="opacity:0.2" cx="18" cy="30" r="2"/>
 <circle style="fill:#8b9cbe" cx="18" cy="29" r="2"/>
 <circle style="opacity:0.2" cx="30" cy="30" r="2"/>
 <circle style="fill:#8b9cbe" cx="30" cy="29" r="2"/>
 <rect style="fill:#8deaff" width="20" height="6" x="14" y="18"/>
 <rect style="fill:#606040" width="4" height="8" x="22" y="17"/>
 <rect style="opacity:0.1" width="8" height="1" x="14" y="18"/>
 <rect style="opacity:0.1" width="8" height="1" x="26" y="18"/>
 <path style="fill:#8b9cbe;opacity:0.2" d="M 25.748047 4 C 25.402547 3.998 25.267326 4.27299 24.566406 6.40625 L 23.871094 8.5253906 L 22.806641 8.6210938 C 22.22117 8.6739937 21.544247 8.7588137 21.304688 8.8085938 C 20.987976 8.8743937 20.840692 8.8750469 20.763672 8.8105469 C 20.705432 8.7621469 20.212602 7.9619531 19.667969 7.0332031 C 18.579542 5.1771331 18.356852 4.8808594 18.050781 4.8808594 C 17.729126 4.8808594 15.574926 5.7390075 15.417969 5.9296875 C 15.340949 6.0232875 15.277998 6.2132725 15.279297 6.3515625 C 15.279571 6.3895408 15.370278 6.8169286 15.396484 6.9707031 C 15.404283 6.9587447 15.409771 6.9396498 15.417969 6.9296875 C 15.574926 6.7390075 17.729126 5.8808594 18.050781 5.8808594 C 18.356852 5.8808594 18.579542 6.1771331 19.667969 8.0332031 C 20.212602 8.9619531 20.705432 9.7621469 20.763672 9.8105469 C 20.840692 9.8750469 20.987976 9.8743937 21.304688 9.8085938 C 21.544247 9.7588138 22.22117 9.6739937 22.806641 9.6210938 L 23.871094 9.5253906 L 24.566406 7.40625 C 25.267326 5.27299 25.402547 4.998 25.748047 5 C 25.896483 5.00096 27.839797 5.2937875 28.185547 5.3671875 C 28.321605 5.3960875 28.471753 5.5157688 28.564453 5.6679688 C 28.705893 5.9002287 28.71848 6.0891019 28.71875 8.0136719 C 28.71908 10.434702 28.681513 10.312409 29.519531 10.605469 C 29.805573 10.705499 30.354111 10.944259 30.738281 11.136719 C 31.122452 11.329189 31.493823 11.486328 31.564453 11.486328 C 31.635039 11.486328 32.366085 10.880915 33.1875 10.140625 C 34.008905 9.4003346 34.768146 8.7329031 34.876953 8.6582031 C 35.259964 8.3953831 35.44903 8.4728344 36.521484 9.3339844 C 36.97064 9.694641 37.240365 9.9343215 37.414062 10.128906 C 37.454741 10.04797 37.629109 9.735834 37.634766 9.7167969 C 37.730666 9.3940569 37.527816 9.1420344 36.521484 8.3339844 C 35.44903 7.4728344 35.259964 7.3953831 34.876953 7.6582031 C 34.768146 7.7329031 34.008905 8.400335 33.1875 9.140625 C 32.366085 9.880915 31.635039 10.486328 31.564453 10.486328 C 31.493823 10.486328 31.122452 10.329189 30.738281 10.136719 C 30.354111 9.9442581 29.805573 9.7054988 29.519531 9.6054688 C 28.681513 9.3124087 28.71908 9.4347019 28.71875 7.0136719 C 28.71848 5.0891019 28.705893 4.9002288 28.564453 4.6679688 C 28.471753 4.5157688 28.321605 4.3960875 28.185547 4.3671875 C 27.839797 4.2937875 25.896483 4.00096 25.748047 4 z M 9.5507812 10.359375 C 9.4698422 10.352704 9.4112894 10.371245 9.3398438 10.398438 C 9.031085 10.515947 7.515625 12.438281 7.515625 12.712891 C 7.515625 12.862972 7.5414407 12.968885 7.7578125 13.25 C 8.198459 12.587606 9.1084044 11.486521 9.3398438 11.398438 C 9.6256262 11.289667 9.722285 11.332133 11.748047 12.476562 C 12.733261 13.033153 13.573474 13.488281 13.615234 13.488281 C 13.657031 13.488281 13.984584 13.252031 14.34375 12.962891 C 14.702927 12.673751 15.238904 12.285972 15.535156 12.101562 C 15.831408 11.917153 16.088389 11.7315 16.105469 11.6875 C 16.112693 11.668902 15.989517 11.090706 15.9375 10.808594 C 15.838277 10.890108 15.744367 10.971333 15.535156 11.101562 C 15.238904 11.285972 14.702927 11.673751 14.34375 11.962891 C 13.984584 12.252031 13.657031 12.488281 13.615234 12.488281 C 13.573474 12.488281 12.733261 12.033153 11.748047 11.476562 C 10.228725 10.61824 9.7935984 10.379387 9.5507812 10.359375 z M 35.828125 14.083984 C 35.754902 14.225243 35.519516 14.646313 35.519531 14.658203 C 35.519591 14.697993 35.732327 14.990344 35.992188 15.308594 C 36.252047 15.626854 36.638619 16.150213 36.849609 16.470703 C 37.060599 16.791193 37.264174 17.074862 37.302734 17.101562 C 37.385068 17.158632 37.505281 17.137503 39.751953 16.658203 C 41.665401 16.250003 41.831577 16.232471 42.072266 16.431641 C 42.209011 16.544802 42.689599 17.683297 42.949219 18.431641 C 43.044596 18.323524 43.121094 18.153985 43.121094 18.046875 C 43.121094 17.731285 42.261709 15.588411 42.072266 15.431641 C 41.831577 15.232471 41.665401 15.250003 39.751953 15.658203 C 37.505281 16.137503 37.385068 16.158633 37.302734 16.101562 C 37.264174 16.074862 37.060599 15.791193 36.849609 15.470703 C 36.638619 15.150213 36.252047 14.626854 35.992188 14.308594 C 35.902288 14.198494 35.899876 14.178606 35.828125 14.083984 z M 10.207031 17.087891 C 10.168712 17.170314 10.172191 17.188416 10.128906 17.275391 C 9.9375154 17.659961 9.6837189 18.234621 9.5644531 18.550781 C 9.4451872 18.866931 9.3024902 19.161801 9.2480469 19.207031 C 9.1872099 19.257631 8.29685 19.29789 6.9355469 19.3125 C 4.2043996 19.3418 4.4430089 19.210297 4.1855469 20.835938 C 4.0858509 21.465608 4.0024474 22.075146 4 22.191406 C 3.9974002 22.316661 4.0194146 22.413348 4.09375 22.505859 C 4.1273216 22.26141 4.1362726 22.147149 4.1855469 21.835938 C 4.4430089 20.210297 4.2043996 20.3418 6.9355469 20.3125 C 8.29685 20.29789 9.1872099 20.257631 9.2480469 20.207031 C 9.3024902 20.161801 9.4451872 19.866931 9.5644531 19.550781 C 9.6837189 19.234621 9.9375154 18.659961 10.128906 18.275391 C 10.320297 17.890821 10.476562 17.518266 10.476562 17.447266 C 10.476562 17.423089 10.328434 17.242372 10.207031 17.087891 z M 39.259766 21.751953 C 39.254428 21.756371 39.16727 21.806565 39.166016 21.808594 C 39.141536 21.848224 39.162087 22.091209 39.210938 22.349609 C 39.259787 22.608009 39.340975 23.286189 39.390625 23.855469 L 39.480469 24.890625 L 41.601562 25.59375 C 43.171441 26.115385 43.710304 26.321761 43.896484 26.539062 C 43.935789 26.266847 43.99966 25.862574 44 25.8125 C 44.003 25.43178 43.77508 25.31596 41.601562 24.59375 L 39.480469 23.890625 L 39.390625 22.855469 C 39.354244 22.438328 39.304709 22.077758 39.259766 21.751953 z M 8.7402344 27.291016 C 8.6443785 27.370909 7.9401 27.809325 7.0117188 28.359375 C 6.0352751 28.937905 5.1556576 29.498899 5.0566406 29.605469 C 4.9576436 29.712049 4.8769531 29.893476 4.8769531 30.009766 C 4.8769531 30.102603 4.9465085 30.338572 5.0449219 30.623047 C 5.0496022 30.617575 5.0518698 30.608652 5.0566406 30.603516 C 5.1556576 30.496946 6.0352751 29.937905 7.0117188 29.359375 C 7.9881524 28.780855 8.8059031 28.275428 8.8300781 28.236328 C 8.8541531 28.197228 8.8366125 27.954476 8.7890625 27.697266 C 8.7762675 27.62797 8.7566696 27.41112 8.7402344 27.291016 z M 37.783203 31.957031 C 37.636056 32.267422 37.523184 32.560645 37.535156 32.630859 C 37.548682 32.710569 38.138324 33.418838 38.84375 34.205078 C 39.619175 35.069333 40.019017 35.516976 40.234375 35.792969 C 40.384036 35.567842 40.480469 35.391202 40.480469 35.318359 C 40.480469 35.043009 40.414985 34.956308 38.84375 33.205078 C 38.359351 32.665186 38.008952 32.245157 37.783203 31.957031 z M 12.171875 34.986328 C 12.002931 35.301206 11.819773 35.641433 11.435547 36.324219 C 10.358648 38.237939 10.296931 38.372144 10.367188 38.652344 C 10.377924 38.695177 10.496052 38.807252 10.580078 38.898438 C 10.735279 38.581978 10.958116 38.172645 11.435547 37.324219 C 11.96096 36.390539 12.413236 35.567641 12.441406 35.494141 C 12.466948 35.42751 12.35474 35.23938 12.171875 34.986328 z M 32.056641 38.255859 C 32.018488 38.286204 31.898232 38.367806 31.892578 38.376953 C 31.87154 38.411033 32.049316 39.357489 32.287109 40.480469 C 32.453814 41.267735 32.517657 41.652208 32.589844 42.060547 C 32.671467 41.962658 32.71902 41.860671 32.71875 41.734375 C 32.71851 41.618115 32.524901 40.603449 32.287109 39.480469 C 32.148657 38.826625 32.126889 38.644876 32.056641 38.255859 z"/>
</svg>
