<svg width="48" height="48" version="1.1" xmlns="http://www.w3.org/2000/svg">
 <rect x="4" y="5" width="40" height="40" rx="2" ry="1.9999995" style="opacity:.2"/>
 <rect x="4" y="4.0000005" width="40" height="40" rx="2" ry="1.9999995" style="fill:#284b45"/>
 <path d="m4 34v8c0 1.108 0.892 2 2 2h36c1.108 0 2-0.892 2-2v-8h-40z" style="fill:#4f4f4f"/>
 <rect x="20" y="19" width="8" height="16" style="opacity:.2"/>
 <rect x="20" y="18" width="8" height="16" style="fill:#db5637"/>
 <path d="m24 16 4-4h-8z" style="opacity:.2"/>
 <path d="m24 15 4-4h-8z" style="fill:#8b9cbe"/>
 <path d="m4 34v1h40v-1h-40z" style="fill:#8b9cbe;opacity:.1"/>
 <path d="m20 18v1h8v-1h-8z" style="fill:#8b9cbe;opacity:.2"/>
 <path d="m6 4c-1.108 0-2 0.8920003-2 2v1c0-1.1079997 0.892-2 2-2h36c1.108 0 2 0.8920003 2 2v-1c0-1.1079997-0.892-2-2-2h-36z" style="fill:#8b9cbe;opacity:.1"/>
</svg>
