<svg xmlns="http://www.w3.org/2000/svg" width="48" height="48" version="1.1">
 <rect style="opacity:0.2" width="40" height="40" x="4" y="5" rx="3" ry="3"/>
 <rect style="fill:#ffc107" width="40" height="40" x="4" y="4" rx="3" ry="3"/>
 <path style="opacity:0.2;fill:#8b9cbe" d="M 7,4 C 5.338,4 4,5.3379999 4,7 V 8 C 4,6.3379999 5.338,5 7,5 h 34 c 1.662,0 3,1.3379999 3,3 V 7 C 44,5.3379999 42.662,4 41,4 Z"/>
 <path style="opacity:0.1" d="m 13.6,13 h 8.8 l 3.2,5 4,-5 H 40 L 29.6,25 36,37 H 26.4 L 23.199999,32.2 19.2,37 H 7.9999998 L 19.2,24.2 Z"/>
 <path style="fill:#3e3e3e" d="m 13.6,12 h 8.8 l 3.2,5 4,-5 H 40 L 29.6,24 36,36 H 26.4 L 23.199999,31.2 19.2,36 H 7.9999998 L 19.2,23.2 Z"/>
</svg>
