<svg width="48" height="48" version="1.1" xmlns="http://www.w3.org/2000/svg">
 <path d="M 15.541016,5 C 9.167592,5 4,10.879822 4,18.132812 c 0,1.948746 0.302197,3.824426 0.832031,5.615235 0,0 0.480643,1.614413 0.90625,2.503906 C 6.10839,27.117274 6.540753,27.950031 7,28.767578 V 36 a 2.0002,2.0002 0 1 0 4,0 V 34.376953 C 16.767479,41.004775 24,45 24,45 c 0,0 6.430943,-3.545198 12,-9.503906 V 42 a 2.0002,2.0002 0 1 0 4,0 V 30.4375 c 0.862972,-1.325181 1.635083,-2.72046 2.261719,-4.185547 0.425608,-0.889493 0.90625,-2.503906 0.90625,-2.503906 C 43.697803,21.957238 44,20.081558 44,18.132812 44,10.879822 38.832408,5 32.458984,5 29.116476,5 26.1081,6.4157615 24,9 21.8919,6.4157615 18.883524,5 15.541016,5 Z" style="opacity:.2"/>
 <path d="m15.541016 4c-6.3734243 0-11.541016 5.8798215-11.541016 13.132812 0 1.948746 0.3021966 3.824426 0.8320312 5.615235 0 0 0.4806423 1.614413 0.90625 2.503906 0.3701084 0.865321 0.8024714 1.698078 1.2617188 2.515625v7.232422a2.0002 2.0002 0 1 0 4 0v-1.623047c5.767479 6.627822 13 10.623047 13 10.623047s6.430943-3.545198 12-9.503906v6.503906a2.0002 2.0002 0 1 0 4 0v-11.5625c0.862972-1.325181 1.635083-2.72046 2.261719-4.185547 0.425608-0.889493 0.90625-2.503906 0.90625-2.503906 0.529834-1.790809 0.832031-3.666489 0.832031-5.615235 0-7.2529905-5.167592-13.132812-11.541016-13.132812-3.342508 0-6.350884 1.4157615-8.458984 4-2.1081-2.5842385-5.116476-4-8.458984-4z" style="fill:#ed1b24"/>
 <g transform="translate(3.62528e-4,-1.78735e-4)" style="fill:#8b9cbe;opacity:.2">
  <g transform="matrix(.090632 0 0 .098526 4 2.2582)" style="fill:#8b9cbe">
   <g style="fill:#8b9cbe">
    <path transform="matrix(11.033631,0,0,10.149605,-44.138522,-22.918024)" d="M 15.541016,4 C 9.1675914,4 4,9.8798216 4,17.132812 4,17.316258 4.016191,17.495593 4.021484,17.677734 4.2341949,10.63747 9.3027031,5 15.541016,5 18.883524,5 21.8919,6.4157615 24,9 26.1081,6.4157615 29.116476,5 32.458984,5 38.697297,5 43.765805,10.63747 43.978516,17.677734 43.983809,17.495593 44,17.316258 44,17.132812 44,9.8798216 38.832409,4 32.458984,4 29.116476,4 26.1081,5.4157615 24,8 21.8919,5.4157615 18.883524,4 15.541016,4 Z" style="fill:#8b9cbe"/>
   </g>
  </g>
 </g>
 <path d="m24 13c-7.179702 0-13 4.477153-13 10 0.0066 3.102457 1.884732 6.026856 5.083984 7.916016l-1.083984 1.083984 2 1c0 2 3.67629 3.997623 7 4 3.488594-0.0032 7-2 7-4l2-1-1.078125-1.078125c3.199169-1.891339 5.075321-4.818138 5.078125-7.921875 0-5.522847-5.820298-10-13-10z" style="opacity:.2"/>
 <path d="m24 12c-7.179702 0-13 4.477153-13 10 0.0066 3.102457 1.884732 6.026856 5.083984 7.916016l-1.083984 1.083984 2 1c0 2 3.67629 3.997623 7 4 3.488594-0.0032 7-2 7-4l2-1-1.078125-1.078125c3.199169-1.891339 5.075321-4.818138 5.078125-7.921875 0-5.522847-5.820298-10-13-10z" style="fill:#8b9cbe"/>
 <rect x="17" y="32" width="13.999999" height="1" style="fill:#17191e"/>
 <rect x="19" y="30" width="1" height="4" style="fill:#17191e"/>
 <rect x="28" y="30" width="1" height="4" style="fill:#17191e"/>
 <rect x="23" y="30" width="1" height="4" style="fill:#17191e"/>
 <path d="m 16.246094,17.746094 a 4.5,5.5 0 0 0 -1.890625,2.609375 L 13,19 v 2 l 1.019531,1.019531 A 4.5,5.5 0 0 0 14,22.5 4.5,5.5 0 0 0 18.5,28 4.5,5.5 0 0 0 22.978516,22.984375 Z M 31.75,17.75 25.021484,22.984375 A 4.5,5.5 0 0 0 29.5,28 4.5,5.5 0 0 0 34,22.5 4.5,5.5 0 0 0 33.978516,22.021484 L 35,21 v -2 l -1.361328,1.361328 A 4.5,5.5 0 0 0 31.75,17.75 Z" style="fill:#17191e"/>
</svg>
