<svg width="48" height="48" version="1.1" xmlns="http://www.w3.org/2000/svg">
 <path d="m17 45h12s2 0 2-2 4-14 4-14l-21-1s0.154683 16.980097 3 17z" style="opacity:.2"/>
 <path d="m17 44h12s2 0 2-2 4-14 4-14l-21-1s0.154683 16.980097 3 17z" style="fill:#df8028"/>
 <path d="m10.536155 20.714286c0 20 14.14423 21.428571 18.886538 21.428571 14.226926 0 14.577307-13.142857 14.577307-13.142857s-3.268079-2.857142-3.463845-6.285714c0.195766-3.571428 1-8 1-8s-1.536155-8.714286-10.536155-8.714286c-5.69077 0-12 3-12 3l-4 3s-4.463845 4.428572-4.463845 8.714286z" style="opacity:.2"/>
 <path d="m10.536155 19.714286c0 20 14.14423 21.428571 18.886538 21.428571 14.226926 0 14.577307-13.142857 14.577307-13.142857s-3.268079-2.857142-3.463845-6.285714c0.195766-3.571428 1-8 1-8s-1.536155-8.714286-10.536155-8.714286c-5.69077 0-12 3-12 3l-4 3s-4.463845 4.428572-4.463845 8.714286z" style="fill:#f8bb07"/>
 <path d="m31 5c-5.69077 0-12 3-12 3l-4 3s-4.462891 4.42913-4.462891 8.714844c0 0.253485 0.011129 0.490727 0.015625 0.738281 0.174167-4.20244 4.447266-8.453125 4.447266-8.453125l4-3s6.30923-3 12-3c7.834543 0 10.008547 6.594444 10.441406 8.304688 0.017853-0.101709 0.095703-0.589844 0.095703-0.589844s-1.537109-8.714844-10.537109-8.714844zm9.585938 17.152344c-0.01296 0.185875-0.038846 0.380381-0.048829 0.5625 0.186524 3.266707 3.084692 5.939222 3.365235 6.191406 0.065689-0.525638 0.097656-0.90625 0.097656-0.90625s-2.984679-2.617964-3.414062-5.847656z" style="fill:#8b9cbe;opacity:.2"/>
 <path d="m15 12c-3.036559 0-5 7-5 7s0 9 4 9 5-7 5-7 1-9-4-9zm13 3c-5.69077 0-6 7-6 7s-0.69077 8 5 8 6-6 6-6 0.690771-9-5-9z" style="opacity:.2"/>
 <path d="m15 11c5 0 4 9 4 9s-1 7-5 7-4-9-4-9 1.963441-7 5-7z" style="fill:#8b9cbe"/>
 <path d="m28 14c5.690771 0 5 9 5 9s-0.30923 6-6 6-5-8-5-8 0.30923-7 6-7z" style="fill:#8b9cbe"/>
 <ellipse cx="27.154617" cy="21" rx="2" ry="3" style="fill:#4f4f4f"/>
 <path d="m6.9999999 24s-1 3 3 5l7.0000001-1 4-9v10l3 5c1 2 13-2 13-2s0 11-13 11c-2.553811 0-6.154615-4.142858-9-7-2 2-5.0000001 4-10-1-3-4 2-11 2-11z" style="opacity:.2"/>
 <path d="m7 23s-1 3 3 5l7-1 4-9v10l3 5c1 2 13-2 13-2s0 11-13 11c-2.553811 0-6.154615-4.142858-9-7-2 2-5 4-10-1-3-4 2-11 2-11z" style="fill:#facd48"/>
 <ellipse cx="15" cy="18" rx="2" ry="3" style="fill:#4f4f4f"/>
 <path d="m21 18-4 9-7 1c-2.2977201-1.14886-2.9272109-2.613441-3.0625-3.664062-0.1386713 0.744501-0.2658019 2.999911 3.0625 4.664062l7-1 4-9v-1zm-14 5s-3.2283496 4.527341-2.9335938 8.380859c0.2270664-3.441997 2.6306562-6.935091 2.8417969-7.236328-0.0530785-0.678617 0.0917969-1.144531 0.0917969-1.144531zm14 5v1l3 5c0.986051 1.972101 12.56883-1.858678 12.894531-1.966797 0.077384-0.591635 0.105469-1.033203 0.105469-1.033203s-12 4-13 2l-3-5z" style="fill:#8b9cbe;opacity:.2"/>
</svg>
