<svg xmlns="http://www.w3.org/2000/svg" width="48" height="48" version="1">
 <circle style="opacity:0.2" cx="24" cy="25" r="20"/>
 <circle style="fill:#5f89c9" cx="24" cy="24" r="20"/>
 <path style="opacity:0.2" d="M 20.68,9.3519 C 22.37,8.9899 24.134,8.9053 25.858,9.1069 28.36,9.3993 30.783,10.292 32.885,11.697 34.964,13.086 36.67,14.916 37.9,17.074 38.371,17.901 38.773,18.783 39.094,19.697 39.318,20.337 39.523,21.077 39.664,21.75 40.393,25.257 39.929,28.874 38.337,32.089 L 38.209,32.322 C 38.209,32.322 24.707,13.09 24.639,12.989 24.22,12.362 23.791,11.901 23.309,11.56 23.193,11.479 22.909,11.316 22.783,11.26 22.202,11 21.588,10.923 20.898,11.028 20.527,11.083 20.172,11.183 19.854,11.307 19.205,11.561 18.709,11.935 18.336,12.451 18.255,12.563 18.091,12.845 18.031,12.974 17.784,13.51 17.643,14.123 17.594,14.877 L 15.402,38.466 15.265,38.396 C 14.495,37.901 13.724,37.3 13.042,36.664 11.282,35.023 9.9283,33.006 9.0664,30.741 8.8544,30.184 8.4111,28.575 8.3412,28.263 7.7013,25.218 7.9647,22.071 9.1038,19.164 9.5679,17.98 10.188,16.828 10.922,15.785 12.912,12.962 15.73,10.875 19,9.8039 19.523,9.6329 20.138,9.4679 20.68,9.3519 Z M 21.117,13.612 C 22.327,13.486 23.102,14.341 23.764,15.24 L 35.556,36.045 C 35.556,36.045 35.517,36.102 35.351,36.27 33.441,38.194 31.079,39.595 28.469,40.351 27.753,40.558 26.511,40.809 25.831,40.89 23.809,41.13 21.78,40.977 19.81,40.435 L 19.663,40.388 19.479,18.188 C 19.585,16.214 19.49,14.158 21.117,13.612 Z"/>
 <path style="fill:#f7b400" d="M 20.68,8.3519 C 22.37,7.9899 24.134,7.9053 25.858,8.1069 28.36,8.3993 30.783,9.2924 32.885,10.697 34.964,12.086 36.67,13.916 37.9,16.074 38.371,16.901 38.773,17.783 39.094,18.697 39.318,19.337 39.523,20.077 39.664,20.75 40.393,24.257 39.929,27.874 38.337,31.089 L 38.209,31.322 C 38.209,31.322 24.707,12.09 24.639,11.989 24.22,11.362 23.791,10.901 23.309,10.56 23.193,10.479 22.909,10.316 22.783,10.26 22.202,9.9997 21.588,9.9231 20.898,10.028 20.527,10.083 20.172,10.183 19.854,10.307 19.205,10.561 18.709,10.935 18.336,11.451 18.255,11.563 18.091,11.845 18.031,11.974 17.784,12.51 17.643,13.123 17.594,13.877 L 15.402,37.466 15.265,37.396 C 14.495,36.901 13.724,36.3 13.042,35.664 11.282,34.023 9.9283,32.006 9.0664,29.741 8.8544,29.184 8.4111,27.575 8.3412,27.263 7.7013,24.218 7.9647,21.071 9.1038,18.164 9.5679,16.98 10.188,15.828 10.922,14.785 12.912,11.962 15.73,9.8749 19,8.8039 19.523,8.6329 20.138,8.4679 20.68,8.3519 Z M 21.117,12.612 C 22.327,12.486 23.102,13.341 23.764,14.24 L 35.556,35.045 C 35.556,35.045 35.517,35.102 35.351,35.27 33.441,37.194 31.079,38.595 28.469,39.351 27.753,39.558 26.511,39.809 25.831,39.89 23.809,40.13 21.78,39.977 19.81,39.435 L 19.663,39.388 19.479,17.188 C 19.585,15.214 19.49,13.158 21.117,12.612 Z"/>
 <path style="opacity:0.2;fill:#8b9cbe" d="M 24 4 A 20 20 0 0 0 4 24 A 20 20 0 0 0 4.0215 24.582 A 20 20 0 0 1 24 5 A 20 20 0 0 1 43.979 24.418 A 20 20 0 0 0 44 24 A 20 20 0 0 0 24 4 z"/>
 <path style="fill:#8b9cbe;opacity:0.2" d="M 24.559 8.0098 C 23.256 7.9655 21.947 8.0801 20.68 8.3516 C 20.138 8.4676 19.523 8.6337 19 8.8047 C 15.73 9.8757 12.912 11.962 10.922 14.785 C 10.188 15.828 9.5676 16.98 9.1035 18.164 C 8.311 20.187 7.951 22.325 8.0156 24.465 C 8.075 22.662 8.4346 20.871 9.1035 19.164 C 9.5676 17.98 10.188 16.828 10.922 15.785 C 12.912 12.962 15.73 10.876 19 9.8047 C 19.523 9.6337 20.138 9.4676 20.68 9.3516 C 22.37 8.9896 24.133 8.9058 25.857 9.1074 C 28.359 9.3998 30.783 10.292 32.885 11.697 C 34.964 13.086 36.67 14.916 37.9 17.074 C 38.371 17.901 38.773 18.783 39.094 19.697 C 39.318 20.337 39.523 21.077 39.664 21.75 C 39.844 22.615 39.951 23.487 39.986 24.357 C 40.013 23.156 39.913 21.947 39.664 20.75 C 39.523 20.077 39.318 19.337 39.094 18.697 C 38.773 17.783 38.371 16.901 37.9 16.074 C 36.67 13.916 34.964 12.086 32.885 10.697 C 30.783 9.2927 28.359 8.3998 25.857 8.1074 C 25.426 8.057 24.993 8.0245 24.559 8.0098 z M 21.551 12.609 C 21.412 12.596 21.268 12.596 21.117 12.611 C 19.49 13.157 19.585 15.214 19.479 17.188 L 19.486 18.043 C 19.581 16.114 19.53 14.144 21.117 13.611 C 22.327 13.485 23.102 14.341 23.764 15.24 L 35.199 35.414 C 35.249 35.365 35.302 35.319 35.352 35.27 C 35.518 35.102 35.557 35.045 35.557 35.045 L 23.764 14.24 C 23.184 13.454 22.519 12.701 21.551 12.609 z"/>
</svg>
