<svg xmlns="http://www.w3.org/2000/svg" width="48" height="48" version="1">
 <path style="opacity:0.2" d="m 3,42 v 1 h 3 v -1 z m 39,0 v 1 H 42 45 V 42 H 42 Z M 6,45 v 1 h 3 30 3 V 45 H 39 9 Z"/>
 <rect style="fill:#8b9cbe" width="36" height="36" x="6" y="6"/>
 <path style="fill:#5c3e52" d="m9 3v3h30v-3zm30 3v3h3v-3zm3 3v30h3v-30zm0 30h-3v3h3zm-3 3h-30v3h30zm-30 0v-3h-3v3zm-3-3v-30h-3v30zm0-30h3v-3h-3zm9 6v12h3v-12zm15 0v12h3v-12z"/>
 <path style="fill:#6d8292" d="m6 33v6h3v3h30v-3h3v-6h-3v3h-30v-3z"/>
 <rect style="opacity:.2" width="3" height="1" x="3" y="9"/>
 <rect style="opacity:.2" width="3" height="1" x="6" y="6"/>
 <rect style="opacity:.2" width="3" height="1" x="39" y="6"/>
 <rect style="opacity:.2" width="3" height="1" x="42" y="9"/>
 <rect style="opacity:.2" width="3" height="1" x="6" y="32.99"/>
 <rect style="opacity:.2" width="3" height="1" x="6" y="39"/>
 <rect style="opacity:.2" width="3" height="1" x="39" y="32.99"/>
 <rect style="opacity:.2" width="3" height="1" x="39" y="39"/>
 <rect style="opacity:.2" width="30" height="1" x="9" y="36"/>
 <rect style="opacity:.2" width="30" height="1" x="9" y="42"/>
 <path style="opacity:0.1" d="m15 28v-1h3v1zm15 0v-1h3v1z"/>
 <path style="fill:#825873" d="m6 3v3h3v-3zm0 3h-3v3h3zm33-3v3h3v-3zm3 3v3h3v-3zm-39 33v3h3v-3zm3 3v3h3v-3zm36-3v3h3v-3zm0 3h-3v3h3z"/>
 <path style="opacity:0.1;fill:#8b9cbe" d="m 6,3 v 1 h 3 30 3 V 3 H 39 9 Z M 3,6 V 7 H 6 V 6 Z M 42,6 V 7 H 42 45 V 6 h -3 z"/>
 <path style="opacity:0.1;fill:#8b9cbe" d="M 3 39 L 3 40 L 6 40 L 6 39 L 3 39 z M 42 39 L 42 40 L 45 40 L 45 39 L 42 39 z M 6 42 L 6 43 L 9 43 L 9 42 L 6 42 z M 39 42 L 39 43 L 42 43 L 42 42 L 39 42 z"/>
</svg>
