<svg xmlns="http://www.w3.org/2000/svg" width="48" height="48" version="1">
 <rect style="opacity:0.2" width="40" height="40" x="4" y="5" rx="2" ry="2"/>
 <path style="fill:#4f4f4f" d="M 6,4 C 4.892,4 4,4.892 4,6 V 34.1 H 44 V 6 C 44,4.892 43.108,4 42,4 Z"/>
 <path style="opacity:0.1;fill:#8b9cbe" d="M 6,4 C 4.892,4 4,4.892 4,6 V 7 C 4,5.892 4.892,5 6,5 h 36 c 1.108,0 2,0.892 2,2 V 6 C 44,4.892 43.108,4 42,4 Z"/>
 <path style="opacity:0.2" d="m 30.968994,9.000004 c -1.636488,3.62e-4 -1.55568,0.08471 -2.390143,1.409741 -2.40484,3.818584 -4.369895,6.774175 -4.503647,6.774175 -0.08814,0 -0.541616,-0.602117 -1.007712,-1.338226 -0.466095,-0.73611 -0.921039,-1.385001 -1.011175,-1.441968 -0.09013,-0.05701 -0.23048,-0.284839 -0.311824,-0.506161 -0.08135,-0.221321 -0.388376,-0.75698 -0.682288,-1.190463 C 20.768285,12.273611 20.466421,11.81829 20.391374,11.695314 19.400726,10.072037 19.040102,9.53111 18.81651,9.332201 18.58295,9.124427 18.170806,9.089457 15.411455,9.042965 c -2.626847,-0.04427 -3.139327,-0.02233 -3.139327,0.134921 0,0.316664 1.413088,2.296979 1.739567,2.437783 0.193897,0.08361 0.338096,0.294684 0.391256,0.573224 0.0688,0.360443 1.570728,2.764427 2.911191,4.659679 0.494033,0.698519 1.968216,2.899897 2.409064,3.597332 0.232952,0.368534 0.509279,0.737856 0.614063,0.820537 0.104784,0.08268 0.338784,0.420091 0.519977,0.750069 0.181191,0.329978 0.551687,0.901754 0.823279,1.270627 0.271592,0.368881 0.706728,1.025196 0.966936,1.458214 0.260208,0.433019 0.604968,0.873595 0.766239,0.979042 0.16128,0.105447 0.368264,0.369644 0.460016,0.587372 0.09174,0.217728 0.20792,0.395862 0.257992,0.395862 0.05008,0 1.289496,-1.761652 2.754479,-3.914855 1.464976,-2.153203 2.936492,-3.938722 3.025948,-3.968038 0.124288,-0.04074 0.16284,1.367496 0.16284,5.971442 0,3.313736 0.04088,6.065305 0.09089,6.114494 0.05,0.04915 1.225258,0.08933 2.855866,0.08933 2.162791,0 2.789359,-0.01966 2.978086,-0.134921 V 9.637414 C 35.964857,9.293864 35.896482,9.216616 35.76261,9.146186 35.359969,8.934365 35.094738,8.968022 34.787682,9.269848 c -0.341448,0.335639 -0.437328,0.335639 -0.650568,0 -0.158904,-0.250121 -0.318448,-0.26827 -2.354167,-0.26827 -0.311551,0 -0.580168,-0.0016 -0.813951,-0.0016 z M 12.33476,11.818449 c -0.205704,0 -0.333656,1.612062 -0.334752,4.214823 -6.88e-4,1.692401 0.0348,2.040277 0.230008,2.252296 0.216816,0.235501 0.216816,0.273995 0,0.634792 -0.330608,0.550151 -0.298024,1.153085 0.07624,1.411313 l 0.307032,0.211948 -0.263856,0.432807 c -0.245408,0.402875 -0.265928,0.75845 -0.29584,5.126534 -0.02368,3.462255 0.0098,4.720269 0.1274,4.794866 0.08766,0.0556 1.479608,0.08624 3.093224,0.0681 l 2.733859,-0.03303 0.03544,-5.734086 0.03568,-5.734344 -0.498391,-0.737754 c -0.225396,-0.443966 -0.493295,-0.82565 -0.718173,-1.183125 -0.168504,-0.396421 -0.921752,-1.557244 -2.257151,-3.478911 -0.623728,-0.897549 -1.238032,-1.158205 -1.243848,-0.527904 -0.0016,0.195473 -0.02032,0.198815 -0.134328,0.0254 -0.07272,-0.110661 -0.133231,-0.425195 -0.13432,-0.698976 -0.0024,-0.495875 -0.40052,-1.0448 -0.758248,-1.0448 z m 19.061193,2.192294 c 0.171352,0.0071 0.2532,0.171615 0.2532,0.498556 0,0.413312 -0.167856,0.485353 -0.579952,0.249412 -0.31896,-0.182616 -0.302344,-0.482844 0.0368,-0.661253 0.115696,-0.06087 0.212088,-0.09005 0.289968,-0.08672 z m -0.345407,1.983492 c 0.06488,-0.0055 0.118199,0.0024 0.144991,0.02855 0.03936,0.03869 0.03112,0.134568 -0.0184,0.213253 -0.110616,0.175932 -0.619656,0.190803 -0.619656,0.01809 0,-0.108151 0.298552,-0.243412 0.493056,-0.259894 z m 3.676902,1.323819 c 0.03312,0 0.06024,0.06039 0.06024,0.134135 0,0.07376 -0.06496,0.134135 -0.144448,0.134135 -0.07944,0 -0.106624,-0.0604 -0.06024,-0.134135 0.0464,-0.07376 0.11136,-0.134135 0.144456,-0.134135 z m 1.154296,0.39193 c 0.0236,0.0031 0.04984,0.0173 0.07784,0.04482 0.04416,0.04341 0.0536,0.18919 0.02104,0.324072 -0.05656,0.234329 -0.06376,0.234541 -0.16524,0.0047 -0.08696,-0.196936 -0.03584,-0.387573 0.0664,-0.373591 z m -15.825386,1.647892 c 0.08782,0.0055 0.130327,0.146434 0.130327,0.430707 0,0.535171 -0.03008,0.567138 -0.267583,0.285823 -0.196344,-0.232561 -0.141696,-0.632638 0.09701,-0.710766 0.0144,-0.0047 0.02768,-0.0063 0.04024,-0.0055 z m -5.341846,4.019909 c 0.133783,-0.0088 0.259591,0.153527 0.309423,0.432019 0.06464,0.361316 -0.195807,0.402901 -0.410168,0.06551 -0.129615,-0.204013 -0.13896,-0.325283 -0.03304,-0.429393 0.04392,-0.04317 0.08919,-0.06519 0.133792,-0.0681 z m -0.624192,0.998427 c 0.03992,-3.46e-4 0.08634,0.0047 0.13912,0.01439 0.254048,0.04773 0.307176,0.126806 0.257192,0.383806 -0.0492,0.253015 -0.148985,0.323554 -0.456544,0.323554 -0.216408,0 -0.393384,0.06039 -0.393384,0.134134 0,0.07376 -0.161112,0.134143 -0.357936,0.134143 -0.312944,0 -0.335048,-0.02689 -0.176168,-0.215094 0.09992,-0.118343 0.32244,-0.267672 0.494392,-0.331936 0.171952,-0.06425 0.312631,-0.200592 0.312631,-0.302855 0,-0.09203 0.06104,-0.13912 0.180697,-0.140166 z m 10.371339,0.238937 c 0.05848,-0.0088 0.11976,0.01675 0.152712,0.06912 0.04392,0.06991 0.02152,0.162209 -0.0496,0.205397 -0.07112,0.04317 -0.165017,0.02139 -0.208944,-0.04844 -0.04392,-0.06991 -0.02176,-0.162208 0.04928,-0.205405 0.01776,-0.01077 0.03696,-0.01777 0.05648,-0.02068 z m -7.713604,0.956771 c 0.08651,-0.01038 0.165488,0.03012 0.17084,0.129683 0.004,0.07376 -0.09523,0.155014 -0.220416,0.180509 -0.142289,0.02894 -0.204832,-0.02131 -0.166577,-0.134143 0.03544,-0.104425 0.129641,-0.165685 0.216153,-0.176049 z"/>
 <path style="fill:#8b9cbe" d="m 30.968994,8.000004 c -1.636488,3.62e-4 -1.55568,0.08471 -2.390143,1.409741 -2.40484,3.818584 -4.369895,6.774175 -4.503647,6.774175 -0.08814,0 -0.541616,-0.602117 -1.007712,-1.338226 -0.466095,-0.73611 -0.921039,-1.385001 -1.011175,-1.441968 -0.09013,-0.05701 -0.23048,-0.284839 -0.311824,-0.506161 -0.08135,-0.221321 -0.388376,-0.75698 -0.682288,-1.190463 C 20.768285,11.273611 20.466421,10.81829 20.391374,10.695314 19.400726,9.072037 19.040102,8.53111 18.81651,8.332201 18.58295,8.124427 18.170806,8.089457 15.411455,8.042965 c -2.626847,-0.04427 -3.139327,-0.02233 -3.139327,0.134921 0,0.316664 1.413088,2.296979 1.739567,2.437783 0.193897,0.08361 0.338096,0.294684 0.391256,0.573224 0.0688,0.360443 1.570728,2.764427 2.911191,4.659679 0.494033,0.698519 1.968216,2.899897 2.409064,3.597332 0.232952,0.368534 0.509279,0.737856 0.614063,0.820537 0.104784,0.08268 0.338784,0.420091 0.519977,0.750069 0.181191,0.329978 0.551687,0.901754 0.823279,1.270627 0.271592,0.368881 0.706728,1.025196 0.966936,1.458214 0.260208,0.433019 0.604968,0.873595 0.766239,0.979042 0.16128,0.105447 0.368264,0.369644 0.460016,0.587372 0.09174,0.217728 0.20792,0.395862 0.257992,0.395862 0.05008,0 1.289496,-1.761652 2.754479,-3.914855 1.464976,-2.153203 2.936492,-3.938722 3.025948,-3.968038 0.124288,-0.04074 0.16284,1.367496 0.16284,5.971442 0,3.313736 0.04088,6.065305 0.09089,6.114494 0.05,0.04915 1.225258,0.08933 2.855866,0.08933 2.162791,0 2.789359,-0.01966 2.978086,-0.134921 V 8.637414 C 35.964857,8.293864 35.896482,8.216616 35.76261,8.146186 35.359969,7.934365 35.094738,7.968022 34.787682,8.269848 c -0.341448,0.335639 -0.437328,0.335639 -0.650568,0 -0.158904,-0.250121 -0.318448,-0.26827 -2.354167,-0.26827 -0.311551,0 -0.580168,-0.0016 -0.813951,-0.0016 z M 12.33476,10.818449 c -0.205704,0 -0.333656,1.612062 -0.334752,4.214823 -6.88e-4,1.692401 0.0348,2.040277 0.230008,2.252296 0.216816,0.235501 0.216816,0.273995 0,0.634792 -0.330608,0.550151 -0.298024,1.153085 0.07624,1.411313 l 0.307032,0.211948 -0.263856,0.432807 c -0.245408,0.402875 -0.265928,0.75845 -0.29584,5.126534 -0.02368,3.462255 0.0098,4.720269 0.1274,4.794866 0.08766,0.0556 1.479608,0.08624 3.093224,0.0681 l 2.733859,-0.03303 0.03544,-5.734086 0.03568,-5.734344 -0.498391,-0.737754 c -0.225396,-0.443966 -0.493295,-0.82565 -0.718173,-1.183125 -0.168504,-0.396421 -0.921752,-1.557244 -2.257151,-3.478911 -0.623728,-0.897549 -1.238032,-1.158205 -1.243848,-0.527904 -0.0016,0.195473 -0.02032,0.198815 -0.134328,0.0254 -0.07272,-0.110661 -0.133231,-0.425195 -0.13432,-0.698976 -0.0024,-0.495875 -0.40052,-1.0448 -0.758248,-1.0448 z m 19.061193,2.192294 c 0.171352,0.0071 0.2532,0.171615 0.2532,0.498556 0,0.413312 -0.167856,0.485353 -0.579952,0.249412 -0.31896,-0.182616 -0.302344,-0.482844 0.0368,-0.661253 0.115696,-0.06087 0.212088,-0.09005 0.289968,-0.08672 z m -0.345407,1.983492 c 0.06488,-0.0055 0.118199,0.0024 0.144991,0.02855 0.03936,0.03869 0.03112,0.134568 -0.0184,0.213253 -0.110616,0.175932 -0.619656,0.190803 -0.619656,0.01809 0,-0.108151 0.298552,-0.243412 0.493056,-0.259894 z m 3.676902,1.323819 c 0.03312,0 0.06024,0.06039 0.06024,0.134135 0,0.07376 -0.06496,0.134135 -0.144448,0.134135 -0.07944,0 -0.106624,-0.0604 -0.06024,-0.134135 0.0464,-0.07376 0.11136,-0.134135 0.144456,-0.134135 z m 1.154296,0.39193 c 0.0236,0.0031 0.04984,0.0173 0.07784,0.04482 0.04416,0.04341 0.0536,0.18919 0.02104,0.324072 -0.05656,0.234329 -0.06376,0.234541 -0.16524,0.0047 -0.08696,-0.196936 -0.03584,-0.387573 0.0664,-0.373591 z m -15.825386,1.647892 c 0.08782,0.0055 0.130327,0.146434 0.130327,0.430707 0,0.535171 -0.03008,0.567138 -0.267583,0.285823 -0.196344,-0.232561 -0.141696,-0.632638 0.09701,-0.710766 0.0144,-0.0047 0.02768,-0.0063 0.04024,-0.0055 z m -5.341846,4.019909 c 0.133783,-0.0088 0.259591,0.153527 0.309423,0.432019 0.06464,0.361316 -0.195807,0.402901 -0.410168,0.06551 -0.129615,-0.204013 -0.13896,-0.325283 -0.03304,-0.429393 0.04392,-0.04317 0.08919,-0.06519 0.133792,-0.0681 z m -0.624192,0.998427 c 0.03992,-3.46e-4 0.08634,0.0047 0.13912,0.01439 0.254048,0.04773 0.307176,0.126806 0.257192,0.383806 -0.0492,0.253015 -0.148985,0.323554 -0.456544,0.323554 -0.216408,0 -0.393384,0.06039 -0.393384,0.134134 0,0.07376 -0.161112,0.134143 -0.357936,0.134143 -0.312944,0 -0.335048,-0.02689 -0.176168,-0.215094 0.09992,-0.118343 0.32244,-0.267672 0.494392,-0.331936 0.171952,-0.06425 0.312631,-0.200592 0.312631,-0.302855 0,-0.09203 0.06104,-0.13912 0.180697,-0.140166 z m 10.371339,0.238937 c 0.05848,-0.0088 0.11976,0.01675 0.152712,0.06912 0.04392,0.06991 0.02152,0.162209 -0.0496,0.205397 -0.07112,0.04317 -0.165017,0.02139 -0.208944,-0.04844 -0.04392,-0.06991 -0.02176,-0.162208 0.04928,-0.205405 0.01776,-0.01077 0.03696,-0.01777 0.05648,-0.02068 z m -7.713604,0.956771 c 0.08651,-0.01038 0.165488,0.03012 0.17084,0.129683 0.004,0.07376 -0.09523,0.155014 -0.220416,0.180509 -0.142289,0.02894 -0.204832,-0.02131 -0.166577,-0.134143 0.03544,-0.104425 0.129641,-0.165685 0.216153,-0.176049 z"/>
 <path style="fill:#ef3a3a" d="M 4 34 L 4 42 C 4 43.108 4.892 44 6 44 L 42 44 C 43.108 44 44 43.108 44 42 L 44 34 L 4 34 z"/>
 <path style="fill:#17191e" d="m 11.655463,36 q 1.117647,0 1.647058,0.428572 0.537815,0.420167 0.537815,1.27731 0,0.478992 -0.17647,0.798319 -0.176471,0.319328 -0.453782,0.512606 -0.268907,0.193277 -0.571428,0.294117 L 14.285714,42 H 13.403362 L 11.94958,39.521008 H 10.756303 V 42 H 10 v -6 z m -0.04202,0.655462 h -0.857142 v 2.226891 h 0.899159 q 0.731092,0 1.067227,-0.285715 0.336135,-0.294117 0.336135,-0.857143 0,-0.588235 -0.352942,-0.831933 -0.352941,-0.2521 -1.092437,-0.2521 z"/>
 <path style="fill:#17191e" d="M 19.35294,42 H 16 v -6 h 3.35294 v 0.663865 h -2.596638 v 1.87395 h 2.445378 v 0.655462 h -2.445378 v 2.142858 h 2.596638 z"/>
 <path style="fill:#17191e" d="m 25.806723,38.941176 q 0,1.521008 -0.831933,2.294118 Q 24.151261,42 22.672269,42 H 21 v -6 h 1.84874 q 0.899159,0 1.563025,0.336135 0.672268,0.336133 1.033613,0.991596 0.361345,0.655462 0.361345,1.613445 z m -0.798319,0.02521 q 0,-1.201681 -0.596639,-1.756302 -0.588235,-0.563026 -1.672269,-0.563026 h -0.983193 v 4.705883 h 0.815126 q 2.436975,0 2.436975,-2.386555 z"/>
 <path style="fill:#17191e" d="m 31.558011,35.999999 v 3.828729 q 0,0.61326 -0.248619,1.110497 -0.248618,0.48895 -0.762431,0.779006 -0.513812,0.281768 -1.292817,0.281768 -1.110497,0 -1.682321,-0.596685 Q 27,40.798341 27,39.812153 v -3.812154 h 0.745857 v 3.837016 q 0,0.720995 0.381215,1.118785 0.389503,0.39779 1.168508,0.39779 0.803868,0 1.160221,-0.422652 0.364641,-0.430939 0.364641,-1.10221 v -3.828729 z"/>
 <path style="fill:#17191e" d="M 37.890055,42 H 37.044751 L 35.478453,39.430939 33.887293,42 H 33.1 l 1.964088,-3.082873 -1.839779,-2.834254 h 0.82873 l 1.450276,2.320442 1.458563,-2.320442 h 0.787293 l -1.831492,2.817679 z"/>
 <rect style="opacity:0.2;fill:#8b9cbe" width="40" height="1" x="4" y="34"/>
</svg>
