<svg xmlns="http://www.w3.org/2000/svg" width="48" height="48" version="1">
 <circle style="opacity:0.2" cx="24" cy="25" r="20"/>
 <circle style="fill:#595f93" cx="24" cy="24" r="20"/>
 <path style="opacity:0.1;fill:#8b9cbe" d="M 24 4 A 20 20 0 0 0 4 24 A 20 20 0 0 0 4.0214844 24.582031 A 20 20 0 0 1 24 5 A 20 20 0 0 1 43.978516 24.417969 A 20 20 0 0 0 44 24 A 20 20 0 0 0 24 4 z"/>
 <path style="opacity:0.2" d="m 15.185684,10.001953 c -0.155137,0.01094 -0.347605,0.08073 -0.623064,0.214844 -1.545594,0.752478 -3.264953,2.936033 -4.011824,5.09375 -0.6660201,1.924131 -0.7305087,4.033386 -0.177739,5.748047 0.634493,1.909073 2.059527,3.525423 3.576154,4.871094 0.439558,0.959686 -0.177335,1.703603 0.105472,4.263671 0.196042,1.774638 0.290351,2.38208 0.496107,3.203125 0.549103,4.461109 3.449421,6.603001 9.449579,6.603516 6.000158,-5.15e-4 8.899739,-2.142407 9.448842,-6.603516 0.205756,-0.821045 0.300064,-1.428487 0.496107,-3.203125 0.282806,-2.560068 -0.334087,-3.303985 0.105471,-4.263671 1.516626,-1.345671 2.942399,-2.962021 3.576892,-4.871094 0.55277,-1.714661 0.488281,-3.823916 -0.177739,-5.748047 -0.746871,-2.157717 -2.466231,-4.341272 -4.011824,-5.09375 -0.27546,-0.134113 -0.467927,-0.203905 -0.623064,-0.214844 -0.155137,-0.010944 -0.271395,0.03868 -0.396494,0.144531 0,0 1.059612,1.087688 1.177765,2.15625 -0.221787,0.779753 -1.716842,0.654297 -1.716842,0.654297 0,-1e-6 2.304642,2.12328 2.711009,3.775391 0.327281,1.388023 0.150034,3.952641 -1.388709,4.595703 0,0 -3.829728,-1.328125 -9.201414,-1.328125 -5.371687,0 -9.201415,1.328125 -9.201415,1.328125 -1.538742,-0.643062 -1.715989,-3.20768 -1.388708,-4.595703 0.406367,-1.652111 2.711009,-3.775392 2.711009,-3.775391 0,0 -1.495055,0.125456 -1.716842,-0.654297 0.118153,-1.068562 1.177765,-2.15625 1.177765,-2.15625 -0.125099,-0.105848 -0.241357,-0.1554745 -0.396494,-0.144531 z"/>
 <path style="fill:#8b9cbe" d="m 15.185684,9.0019531 c -0.155137,0.010939 -0.347605,0.080731 -0.623064,0.2148438 -1.545594,0.7524781 -3.264953,2.9360331 -4.011824,5.0937501 -0.6660201,1.924131 -0.7305087,4.033386 -0.177739,5.748047 0.634493,1.909073 2.059527,3.525423 3.576154,4.871094 0.439558,0.959686 -0.177335,1.703603 0.105472,4.263671 0.196042,1.774638 0.290351,2.38208 0.496107,3.203125 0.549103,4.461109 3.449421,6.603001 9.449579,6.603516 6.000158,-5.15e-4 8.899739,-2.142407 9.448842,-6.603516 0.205756,-0.821045 0.300064,-1.428487 0.496107,-3.203125 0.282806,-2.560068 -0.334087,-3.303985 0.105471,-4.263671 1.516626,-1.345671 2.942399,-2.962021 3.576892,-4.871094 0.55277,-1.714661 0.488281,-3.823916 -0.177739,-5.748047 C 36.703071,12.15283 34.983711,9.969275 33.438118,9.2167969 33.162658,9.0826837 32.970191,9.0128921 32.815054,9.0019531 c -0.155137,-0.010944 -0.271395,0.038683 -0.396494,0.1445313 0,0 1.059612,1.0876876 1.177765,2.1562496 -0.221787,0.779753 -1.716842,0.654297 -1.716842,0.654297 0,-1e-6 2.304642,2.12328 2.711009,3.775391 0.327281,1.388023 0.150034,3.952641 -1.388709,4.595703 0,0 -3.829728,-1.328125 -9.201414,-1.328125 -5.371687,0 -9.201415,1.328125 -9.201415,1.328125 -1.538742,-0.643062 -1.715989,-3.20768 -1.388708,-4.595703 0.406367,-1.652111 2.711009,-3.775392 2.711009,-3.775391 0,0 -1.495055,0.125456 -1.716842,-0.654297 0.118153,-1.068562 1.177765,-2.1562496 1.177765,-2.1562496 C 15.457079,9.0406361 15.340821,8.9910095 15.185684,9.0019531 Z"/>
 <ellipse style="fill:#17191e" cx="40.362" cy="15.042" rx="2.891" ry="3.591" transform="matrix(0.88238941,0.47051985,-0.43981123,0.89809024,0,0)"/>
 <ellipse id="ellipse898" style="fill:#17191e" cx="-2.771" cy="37.64" rx="2.891" ry="3.591" transform="matrix(-0.88238941,0.47051985,0.43981123,0.89809024,0,0)"/>
</svg>
