<svg width="48" height="48" version="1.1" xmlns="http://www.w3.org/2000/svg">
 <path d="m18 33s-3 1-3 5c0 2 1 2 1 2h2s0 2 1 3c0.745356 0.745356 1 1 3 1s2-2 2-2 0 2 2 2 2.254644-0.254644 3-1c1-1 1-3 1-3h2s1 0 1-2c0-4-3-5-3-5h-6z" style="opacity:.2"/>
 <path d="m18 32s-3 1-3 5c0 2 1 2 1 2h2s0 2 1 3c0.745356 0.745356 1 1 3 1s2-2 2-2 0 2 2 2 2.254644-0.254644 3-1c1-1 1-3 1-3h2s1 0 1-2c0-4-3-5-3-5h-6-6z" style="fill:#faa7b0"/>
 <path d="m18 32s-3 1-3 5c0 0.157551 0.01591 0.282309 0.027344 0.416016 0.275871-3.509995 2.972656-4.416016 2.972656-4.416016h6 6s2.696785 0.906021 2.972656 4.416016c0.011434-0.133707 0.027344-0.258465 0.027344-0.416016 0-4-3-5-3-5h-6-6z" style="fill:#8b9cbe;opacity:.1"/>
 <ellipse cx="24" cy="21" rx="15" ry="14" style="opacity:.2"/>
 <ellipse cx="24" cy="20" rx="15" ry="14" style="fill:#fcd0d5"/>
 <path d="m13 23v6.498047a15 14 0 0 0 4 2.875v-9.373047h-4zm18 0v9.373047a15 14 0 0 0 4-2.880859v-6.492188h-4z" style="fill:#b2e8fa"/>
 <path d="m15 18a4 4 0 0 0-4 4 4 4 0 0 0 4 4 4 4 0 0 0 4-4 4 4 0 0 0-4-4zm18 0a4 4 0 0 0-4 4 4 4 0 0 0 4 4 4 4 0 0 0 4-4 4 4 0 0 0-4-4z" style="opacity:.2"/>
 <circle cx="15" cy="21" r="4" style="fill:#2f2f2f"/>
 <circle cx="33" cy="21" r="4" style="fill:#2f2f2f"/>
 <path d="m20 27h8s0-5-4-5-4 5-4 5z" style="opacity:.2"/>
 <path d="m20 26h8s0-5-4-5-4 5-4 5z" style="fill:#2f2f2f"/>
 <circle cx="13.5" cy="19.5" r="1.5" style="fill:#8b9cbe"/>
 <circle cx="31.5" cy="19.5" r="1.5" style="fill:#8b9cbe"/>
 <rect x="21" y="24" width="6" height="1" style="fill:#8b9cbe"/>
 <path d="M 24 6 A 15 14 0 0 0 9 20 A 15 14 0 0 0 9.0214844 20.585938 A 15 14 0 0 1 24 7 A 15 14 0 0 1 38.978516 20.414062 A 15 14 0 0 0 39 20 A 15 14 0 0 0 24 6 z " style="fill:#8b9cbe;opacity:.2"/>
</svg>
