<svg width="48" height="48" version="1.1" xmlns="http://www.w3.org/2000/svg">
 <g transform="matrix(2,0,0,2,2,2)">
  <rect x="1" y="12.5" width="20" height="9" rx="0" ry="1" style="opacity:.2"/>
  <path d="m2 3.5v3h1l2 6h5v-2h-1l-1-4v-3zm12 0v3l-1 4h-1v2h5l2-6h1v-3z" style="opacity:.2"/>
  <path d="m2 3v3h1l2 6h5v-2h-1l-1-4v-3zm12 0v3l-1 4h-1v2h5l2-6h1v-3z" style="fill:#32476b"/>
  <path d="m1 1.5v3h8v-3h-2v1h-1v-1h-2v1h-1v-1zm12 0v3h8v-3h-2v1h-1v-1h-2v1h-1v-1z" style="opacity:.2"/>
  <path d="m1 1v3h8v-3h-2v1h-1v-1h-2v1h-1v-1zm12 0v3h8v-3h-2v1h-1v-1h-2v1h-1v-1z" style="fill:#456294"/>
  <path d="m1 1v0.5h2v-0.5zm3 0v0.5h2v-0.5zm3 0v0.5h2v-0.5zm6 0v0.5h2v-0.5zm3 0v0.5h2v-0.5zm3 0v0.5h2v-0.5zm-16 1v0.5h1v-0.5zm3 0v0.5h1v-0.5zm9 0v0.5h1v-0.5zm3 0v0.5h1v-0.5z" style="fill:#8b9cbe;opacity:.1"/>
  <path d="m8 12.5-1-6v-1h8v1l-1 6z" style="opacity:.2"/>
  <path d="m8 12-1-6v-1h8v1l-1 6z" style="fill:#43668f"/>
  <path d="m11 8c1 0 1 1 1 1v4h-2v-4s0-1 1-1z" style="fill:#8b9cbe"/>
  <rect x="1" y="12" width="20" height="9" rx="0" ry="1" style="fill:#856fbb"/>
  <path d="m2 12.5c-0.554 0-1 0.446-1 1v3h3v-1h2v3h3v-3h2v2h3v-2h2v3h3v-3h2v-2c0-0.554-0.446-1-1-1z" style="opacity:.2"/>
  <path d="m2 12c-0.554 0-1 0.446-1 1v3h3v-1h2v3h3v-3h2v2h3v-2h2v3h3v-3h2v-2c0-0.554-0.446-1-1-1z" style="fill:#8dff2b"/>
  <path d="m6 6.5h10v-3h-2v1h-2v-1h-2v1h-2v-1h-2z" style="opacity:.2"/>
  <path d="m6 6h10v-3h-2v1h-2v-1h-2v1h-2v-1h-2z" style="fill:#5491ba"/>
  <path d="m2 12c-0.554 0-1 0.446-1 1v0.5c0-0.554 0.446-1 1-1h18c0.554 0 1 0.446 1 1v-0.5c0-0.554-0.446-1-1-1z" style="fill:#8b9cbe;opacity:.2"/>
  <path d="m6 3v0.5h2v-0.5zm4 0v0.5h2v-0.5zm4 0v0.5h2v-0.5zm-6 1v0.5h2v-0.5zm4 0v0.5h2v-0.5z" style="fill:#8b9cbe;opacity:.2"/>
 </g>
</svg>
