<svg width="48" height="48" version="1" xmlns="http://www.w3.org/2000/svg">
 <rect x="4" y="4" width="40" height="40" rx="2" ry="2" style="fill:#4f4f4f"/>
 <path d="m4 7v-1c0-1.108 0.892-2 2-2h36c1.108 0 2 0.892 2 2v1c0-1.108-0.892-2-2-2h-36c-1.108 0-2 0.892-2 2z" style="fill:#8b9cbe;opacity:.1"/>
 <path d="m4 42v1c0 1.108 0.892 2 2 2h36c1.108 0 2-0.892 2-2v-1c0 1.108-0.892 2-2 2h-36c-1.108 0-2-0.892-2-2z" style="opacity:.2"/>
 <path d="m7 16v5h5v13h6v-13h5v13h6v-5h3l3 5h6l-4-6s3-1 3-5c0-6-4-7-8-7h-8zm22 5h3s3 0 3 2-3 2-3 2h-3z" style="opacity:.2"/>
 <path d="m7 15v5h5v13h6v-13h5v13h6v-5h3l3 5h6l-4-6s3-1 3-5c0-6-4-7-8-7h-8zm22 5h3s3 0 3 2-3 2-3 2h-3z" style="fill:#8b9cbe"/>
</svg>
