<svg xmlns="http://www.w3.org/2000/svg" width="48" height="48" version="1.1">
 <path style="opacity:0.2" d="m 11.255663,18.000508 a 1.0063814,0.95606553 0 0 0 -0.768468,0.367824 C 5.2104491,24.793525 6.1157205,30.910346 6.000204,37.024683 a 1.0063814,0.95606553 0 0 0 1.9142919,0.431307 c 0,0 1.5289951,-3.018506 3.0502891,-6.798216 1.521294,-3.779711 3.071588,-8.269152 3.034565,-11.587401 a 1.0063814,0.95606553 0 0 0 -0.92963,-0.9429 l -1.711857,-0.125098 a 1.0063814,0.95606553 0 0 0 -0.1022,-0.0019 z"/>
 <path style="opacity:0.2" d="m 36.744337,18.000508 a 1.0063814,0.95606553 0 0 1 0.768468,0.367824 c 5.276746,6.425193 4.371475,12.542014 4.486991,18.656351 a 1.0063814,0.95606553 0 0 1 -1.914292,0.431307 c 0,0 -1.528995,-3.018506 -3.050289,-6.798216 -1.521294,-3.779711 -3.071588,-8.269152 -3.034565,-11.587401 a 1.0063814,0.95606553 0 0 1 0.92963,-0.9429 l 1.711857,-0.125098 a 1.0063814,0.95606553 0 0 1 0.1022,-0.0019 z"/>
 <path style="fill:#e88332" d="m 11.255663,17.000508 a 1.0063814,0.95606553 0 0 0 -0.768468,0.367824 C 5.2104491,23.793525 6.1157205,29.910346 6.000204,36.024683 a 1.0063814,0.95606553 0 0 0 1.9142919,0.431307 c 0,0 1.5289951,-3.018506 3.0502891,-6.798216 1.521294,-3.779711 3.071588,-8.269152 3.034565,-11.587401 a 1.0063814,0.95606553 0 0 0 -0.92963,-0.9429 l -1.711857,-0.125098 a 1.0063814,0.95606553 0 0 0 -0.1022,-0.0019 z"/>
 <path style="fill:#e88332" d="m 36.744337,17.000508 a 1.0063814,0.95606553 0 0 1 0.768468,0.367824 c 5.276746,6.425193 4.371475,12.542014 4.486991,18.656351 a 1.0063814,0.95606553 0 0 1 -1.914292,0.431307 c 0,0 -1.528995,-3.018506 -3.050289,-6.798216 -1.521294,-3.779711 -3.071588,-8.269152 -3.034565,-11.587401 a 1.0063814,0.95606553 0 0 1 0.92963,-0.9429 l 1.711857,-0.125098 a 1.0063814,0.95606553 0 0 1 0.1022,-0.0019 z"/>
 <path style="opacity:0.2" d="M 24,5 C 17.361398,4.9998746 12.774986,10.074769 11.421875,16.388672 10.618719,19.12433 8.0993711,25.967554 8,31.146484 8.0001571,38.797737 15.163645,44.999876 24,45 32.836355,44.999876 39.999843,38.797737 40,31.146484 39.900629,25.967554 37.381281,19.12433 36.578125,16.388672 35.225014,10.074769 30.638602,4.9998746 24,5 Z"/>
 <path style="fill:#ffb20c" d="M 24 4 C 17.361398 3.9998746 12.774986 9.0747693 11.421875 15.388672 C 10.618719 18.12433 8.0993711 24.967554 8 30.146484 C 8.0001571 37.797737 15.163645 43.999876 24 44 C 32.836355 43.999876 39.999843 37.797737 40 30.146484 C 39.900629 24.967554 37.381281 18.12433 36.578125 15.388672 C 35.225014 9.0747693 30.638602 3.9998746 24 4 z"/>
 <path style="fill:#eb5b0a" d="M 20.000853,24.105134 C 21.434258,24.217299 23.510585,23.682168 25.053112,22 c 1.797278,1.753483 3.620554,1.849447 4.927511,2.084 0.293322,2.71801 -2.811118,3.897187 -4.740389,3.91563 -1.929273,0.01844 -5.301755,-0.64338 -5.239381,-3.894496 z"/>
 <ellipse style="opacity:0.2" cx="27.062" cy="14.581" rx="3.388" ry="4.585" transform="matrix(0.97145609,0.23721946,-0.25985796,0.96564685,0,0)"/>
 <ellipse style="fill:#8b9cbe" cx="26.802" cy="13.61" rx="3.388" ry="4.585" transform="matrix(0.97145609,0.23721946,-0.25985796,0.96564685,0,0)"/>
 <path style="opacity:0.7" d="m 24,11 -0.162162,0.928572 C 22.26503,12.156422 21.155757,12.58845 20,13 c 0,0 1.567886,-2 4,-2 z"/>
 <path style="opacity:0.7" d="m 26,11 0.158245,0.91514 C 27.733635,12.151843 28.843475,12.585813 30,13 c 0,0 -1.562264,-1.980727 -4,-2 z"/>
 <ellipse style="opacity:0.2" cx="-21.234" cy="26.446" rx="3.388" ry="4.585" transform="matrix(-0.97145609,0.23721946,0.25985796,0.96564685,0,0)"/>
 <ellipse style="fill:#8b9cbe" cx="-21.494" cy="25.474" rx="3.388" ry="4.585" transform="matrix(-0.97145609,0.23721946,0.25985796,0.96564685,0,0)"/>
 <ellipse style="fill:#17191e" cx="27.921" cy="15.617" rx="1.933" ry="2.552" transform="matrix(0.97295699,0.23098635,-0.26676097,0.96376272,0,0)"/>
 <ellipse style="fill:#17191e" cx="-20.3" cy="27.174" rx="1.933" ry="2.552" transform="matrix(-0.97295699,0.23098635,0.26676097,0.96376272,0,0)"/>
 <path style="opacity:0.4;fill:none;stroke:#000000;stroke-width:1px;stroke-linecap:round;stroke-linejoin:bevel" d="m 22.5,26 c 0,0 0.5,-0.499676 2.5,-0.499676 2,0 2.5,0.499676 2.5,0.499676"/>
 <path style="opacity:0.2;fill:#8b9cbe" d="M 24 4 C 17.361398 3.9998746 12.774986 9.0747692 11.421875 15.388672 C 10.618719 18.12433 8.0993711 24.967554 8 30.146484 C 8.0000031 30.298178 8.0197989 30.445186 8.0253906 30.595703 C 8.279161 25.492016 10.646693 19.029047 11.421875 16.388672 C 12.774986 10.074769 17.361398 4.9998746 24 5 C 30.638602 4.9998746 35.225014 10.074769 36.578125 16.388672 C 37.353307 19.029047 39.720839 25.492016 39.974609 30.595703 C 39.980201 30.445186 39.999997 30.298178 40 30.146484 C 39.900629 24.967554 37.381281 18.12433 36.578125 15.388672 C 35.225014 9.0747692 30.638602 3.9998746 24 4 z"/>
</svg>
