<svg xmlns="http://www.w3.org/2000/svg" width="48" height="48" version="1.1">
 <circle style="opacity:0.2" cx="24" cy="25" r="20"/>
 <circle style="fill:#595552" cx="24" cy="24" r="20"/>
 <path style="opacity:0.1;fill:#8b9cbe" d="M 24,4 A 20,20 0 0 0 4,24 20,20 0 0 0 4.0215,24.582 20,20 0 0 1 24,5 20,20 0 0 1 43.979,24.418 20,20 0 0 0 44,24 20,20 0 0 0 24,4 Z"/>
 <path style="opacity:0.2" d="m 8,19 v 5 H 4.0507812 C 4.0255114,24.332857 4.008579,24.666295 4,25 c 0.00338,0.333574 0.015099,0.667012 0.035156,1 H 8 v 5 h 2 V 19 Z m 9,0 c -3.313708,0 -6,2.686292 -6,6 0,3.313708 2.686292,6 6,6 3.313708,0 6,-2.686292 6,-6 0,-3.313708 -2.686292,-6 -6,-6 z m 13,0 c -3.313708,0 -6,2.686292 -6,6 0,3.313708 2.686292,6 6,6 3.313708,0 6,-2.686292 6,-6 0,-3.313708 -2.686292,-6 -6,-6 z m 7,0 v 12 h 2 v -4.169922 l 4.144531,3.935547 a 20,20 0 0 0 0.527344,-2.257813 l -3.669922,-3.486328 3.708985,-3.40039 A 20,20 0 0 0 43.185547,19.390625 L 39,23.226562 V 19 Z m -20,2 c 2.209139,0 4,1.790861 4,4 0,2.209139 -1.790861,4 -4,4 -2.209139,0 -4,-1.790861 -4,-4 0,-2.209139 1.790861,-4 4,-4 z m 13,0 c 2.209139,0 4,1.790861 4,4 0,2.209139 -1.790861,4 -4,4 -2.209139,0 -4,-1.790861 -4,-4 0,-2.209139 1.790861,-4 4,-4 z"/>
 <path style="fill:#8b9cbe" d="M 8 18 L 8 23 L 4.0507812 23 C 4.0255114 23.332857 4.008579 23.666295 4 24 C 4.00338 24.333574 4.0150993 24.667012 4.0351562 25 L 8 25 L 8 30 L 10 30 L 10 18 L 8 18 z M 17 18 C 13.686292 18 11 20.686292 11 24 C 11 27.313708 13.686292 30 17 30 C 20.313708 30 23 27.313708 23 24 C 23 20.686292 20.313708 18 17 18 z M 30 18 C 26.686292 18 24 20.686292 24 24 C 24 27.313708 26.686292 30 30 30 C 33.313708 30 36 27.313708 36 24 C 36 20.686292 33.313708 18 30 18 z M 37 18 L 37 30 L 39 30 L 39 25.830078 L 43.144531 29.765625 A 20 20 0 0 0 43.671875 27.507812 L 40.001953 24.021484 L 43.710938 20.621094 A 20 20 0 0 0 43.185547 18.390625 L 39 22.226562 L 39 18 L 37 18 z M 17 20 C 19.209139 20 21 21.790861 21 24 C 21 26.209139 19.209139 28 17 28 C 14.790861 28 13 26.209139 13 24 C 13 21.790861 14.790861 20 17 20 z M 30 20 C 32.209139 20 34 21.790861 34 24 C 34 26.209139 32.209139 28 30 28 C 27.790861 28 26 26.209139 26 24 C 26 21.790861 27.790861 20 30 20 z"/>
</svg>
