<svg xmlns="http://www.w3.org/2000/svg" height="48" width="48" version="1.1">
 <path d="m13.787298 42.571928s15.835898-2.428071 20.212702 0.428072l1-3 2 2 2.044412-17.863586-7.749898-12.495625h-14.589347l-5.835739 17.493875v10.621806z" style="opacity:.2"/>
 <path d="m13.787298 41.571928s15.835898-2.428071 20.212702 0.428072l1-3 2 2 2.044412-17.863586-7.749898-12.495625h-14.589347l-5.835739 17.493875v10.621806z" style="fill:#4a2803"/>
 <path d="m34.212383 28.136632s0 2.499125 2.91787 2.499125c2.917869 0 1.582573-2.499125 1.582573-2.499125s1.335296-2.499125-1.582573-2.499125c-2.91787 0-2.91787 2.499125-2.91787 2.499125z" style="fill:#d3aa7b"/>
 <path d="m25 37c-8.753607 0-13.078938-12.865757-13.078938-12.865757s1.809867-12.495626 13.481343-12.495626c11.671479 0 11.671479 14.994751 11.671479 14.994751s-3.320275 10.366632-12.073884 10.366632z" style="opacity:.2"/>
 <path d="m25.128278 36.004139c-8.753607 0-13.150847-12.865757-13.150847-12.865757s1.809867-12.495626 13.481343-12.495626c11.671479 0 11.671479 14.994751 11.671479 14.994751s-3.248366 10.366632-12.001975 10.366632z" style="fill:#debf9c"/>
 <path style="opacity:.1;fill:#8b9cbe" d="m25.410334 3.000052c-7.24521-0.0170444-10.351097 4.1165312-11.264002 4.8615793-0.470121-1.1022894-1.817969-3.4195618-4.7358385-3.4195618l1.3933965 1.6456293c1.959077 0.5849814 2.955805 2.2954597 3.342442 3.202004 0.912905-0.7450481 4.018792-4.8786237 11.264002-4.8615793 5.885195 0.013845 8.802049 2.870089 8.802049 2.870089s5.522359 4.0728695 5.764502 10.992246c0.0054-0.281345 0.02101-0.613161 0.0228-0.875811 0.04945-7.259636-5.787306-11.544507-5.787306-11.544507s-2.916854-2.856244-8.802049-2.870089zm-12.888206 6.5490467c-0.150747 0.183629-0.254751 0.2813212-0.461616 0.5578403l-2.6500185 0.04742s0.6808395 0.743085 1.8635615 1.118471c-0.0546 0.08546-0.107636 0.191769-0.162421 0.27892l0.948878-0.01673c0.474862-0.634754 0.752224-0.957782 1.060007-1.280244zm-1.917702 2.8672993c-1.3536282 2.327758-2.604426 5.338198-2.604426 10.526449 0 0.400767 0.00966 0.693169 0.011394 1.076632 0.06734-5.804545 1.7126799-8.892683 3.262661-11.318582-0.250924-0.07964-0.465594-0.182393-0.669629-0.284499zm4.758635 9.031437c-0.02234 0.02298-0.116829 0.131092-0.116829 0.131092s0.01669 3.424112 2.100068 7.210088c0.267429-0.02658 0.508093-0.06973 0.817802-0.06973-1.946482-2.857955-2.585314-5.68531-2.801041-7.27145zm22.342787 9.575331c-0.104898 2.249511-0.575595 4.610551-0.575595 4.610551s-0.723231 4.488562-0.512906 5.631399c0.120721-1.746343 0.512906-4.203327 0.512906-4.203327s0.700623-3.500505 0.575595-6.038623z"/>
 <path d="m25.409319 4.0001531c-7.24521-0.0170445-10.409319 3.999847-11.262989 4.8603739-0.14633-0.8605269-1.22846-2.8605269-4.14633-2.8605269l3.120518 3.8269855c-0.307783 0.3224624-0.645655 0.5382604-1.120518 1.1730144h-3s1.09133 0.897032 2.274052 1.272418c-1.5825151 2.476819-3.2730377 5.626017-3.2730377 11.670511 0 15.947807 0.9989857 18.057071 0.9989857 18.057071l2 1v-2l3 3v-12s0-4 5-1c-2.91787-4.284214-4-10-4-10s3-2 3-6c4 14 17.599409 11.61146 19.008889 13.051889 1.445501 1.47724-0.0089 8.948111-0.0089 8.948111s-1.136756 6.907004 0.02995 4.968175c1.508393-2.506627 2.920487-16.474184 2.968719-23.554182 0.04946-7.259638-5.786284-11.543852-5.786284-11.543852s-2.917869-2.856143-8.803064-2.869988z" style="opacity:.2"/>
 <path d="m25.409319 3.000153c-7.24521-0.0170445-10.409319 3.999847-11.262989 4.8603739-0.14633-0.8605269-1.22846-2.8605269-4.14633-2.8605269l3.120518 3.8269855c-0.307783 0.3224622-0.645655 0.5382606-1.120518 1.1730145h-3s1.09133 0.897032 2.274052 1.272418c-1.5825151 2.476819-3.2730377 5.626017-3.2730377 11.670511 0 15.947807 0.9989857 18.057071 0.9989857 18.057071l2 1v-2l3 3v-12s0-4 5-1c-2.91787-4.284214-4-10-4-10s3-2 3-6c4 14 17.599409 11.61146 19.008889 13.051889 1.445501 1.47724-0.008889 8.948111-0.008889 8.948111s-1.136756 6.907004 0.02995 4.968175c1.508393-2.506627 2.920487-16.474184 2.968719-23.554182 0.04946-7.259638-5.786284-11.543852-5.786284-11.543852s-2.917869-2.856143-8.803064-2.869988z" style="fill:#723f05"/>
 <path d="m18.116249 20.631616c1.883751-0.631616 2.883751 0.368384 2.883751 0.368384s-1.392518-0.261019-2.685931 0.137792c-1.314069 0.40518-1.314069 1.862208-1.314069 1.862208s-0.204947-2 1.116249-2.368384z" style="fill:#302100"/>
 <path d="m25 33s0.894533-0.491773 2.001981-0.582256c0.613851-0.05017 1.438443 0.187285 1.438443 0.187285" style="stroke-linejoin:round;stroke:#302100;stroke-linecap:round;stroke-width:.5;fill:none"/>
 <path d="m25 30s0.51953 0.728944 2.384651 0.728944c1.458352 0 1.615349-1.728944 1.615349-1.728944" style="stroke-linejoin:round;stroke:#302100;stroke-linecap:round;stroke-width:.5;fill:none"/>
 <path style="fill:#ff8080" d="m37 23l-1.212891 3.576172c0.578155 0.13513 1.019036 0.278789 1.212891 0.470703v-4.046875z"/>
 <path style="fill:#302100" d="m20.478345 22.991506c-1.208621 0-2.393028 1.43109-2.393028 3.008494s1.256317 2.972539 2.464938 2.972539 2.436338-1.395135 2.436338-2.972539-1.299627-3.008494-2.508248-3.008494zm0 1.008494c0.703198-0.000225 1.521346 0.810473 1.521655 2-0.000309 1.189527-0.764525 2.000225-1.467723 2-0.703198 0.000226-1.531968-0.810473-1.532277-2 0.000309-1.189527 0.775147-2.000226 1.478345-2z"/>
 <circle r="3" style="opacity:.2" cx="14" cy="28"/>
 <circle r="3" style="fill:#debf9c" cx="14" cy="27"/>
 <path style="opacity:.1;fill:#8b9cbe" d="m25.410156 3c-7.24521-0.0170445-10.410002 4.0008012-11.263672 4.8613281-0.14633-0.8605269-1.228614-2.8613281-4.146484-2.8613281l0.878906 1.0761719c2.253919 0.3547232 3.137169 2.0182522 3.267578 2.7851562 0.85367-0.860527 4.018462-4.8783726 11.263672-4.8613281 5.885195 0.013845 8.802735 2.8710938 8.802735 2.8710938 0-1e-7 5.613339 4.1373142 5.769531 11.160156 0.003118-0.194836 0.01436-0.431496 0.015625-0.617188 0.04946-7.259637-5.785156-11.542968-5.785156-11.542968 0-2e-7 -2.91754-2.857249-8.802735-2.871094zm-12.75 6.2617188c-0.192629 0.1806859-0.405013 0.3972298-0.660156 0.7382812h-3s0.7221122 0.57698 1.621094 1h1.378906c0.474863-0.634754 0.813311-0.851366 1.121094-1.1738281l-0.460938-0.5644531zm-1.876953 2.8066402c-1.4219615 2.366869-2.7812499 5.454481-2.7812499 10.875 0 0.305457 0.0051405 0.524927 0.0058594 0.820313 0.0349998-5.920865 1.6997592-9.041427 3.2656255-11.492188-0.169702-0.053861-0.32725-0.131975-0.490235-0.203125zm4.40625 8.779297c-0.055276 0.041002-0.189453 0.152344-0.189453 0.152344s0.858601 4.49819 3.089844 8.505859c0.283549 0.13867 0.585918 0.299598 0.910156 0.494141-2.274407-3.339438-3.409957-7.458262-3.810547-9.152344zm22.439453 9.894532c-0.096473 2.497578-0.628906 5.257812-0.628906 5.257812s-0.608333 3.709844-0.470703 4.917969c0.08912-1.573752 0.470703-3.917969 0.470703-3.917969s0.680405-3.563633 0.628906-6.257812z"/>
</svg>
