<svg xmlns="http://www.w3.org/2000/svg" width="48" height="48" version="1">
 <rect style="fill:#ffaf30" width="40" height="40" x="4" y="4" rx="2" ry="2"/>
 <path style="opacity:0.2;fill:#8b9cbe" d="M 6,4 C 4.892,4 4,4.892 4,6 V 7 C 4,5.892 4.892,5 6,5 h 36 c 1.108,0 2,0.892 2,2 V 6 C 44,4.892 43.108,4 42,4 Z"/>
 <path style="opacity:0.2" d="M 6,45 C 4.892,45 4,44.108 4,43 v -1 c 0,1.108 0.892,2 2,2 h 36 c 1.108,0 2,-0.892 2,-2 v 1 c 0,1.108 -0.892,2 -2,2 z"/>
 <path style="fill:#17191e" d="M 5.828125,25.997015 5.804688,26.66889 c -0.016994,0.482623 0.00705,0.689278 0.082031,0.736328 0.057297,0.03596 0.3451146,0.06572 0.640625,0.06641 h 0.5371093 l -0.035156,3.080078 c -0.019564,1.69356 -0.015456,3.144052 0.00977,3.222657 0.025222,0.07861 0.1081368,0.15809 0.1835937,0.177734 0.075459,0.01964 0.4855199,0.03992 0.9121094,0.04492 0.5470617,0.0065 0.8020903,-0.02082 0.8632813,-0.09375 0.058144,-0.0694 0.076315,-0.652845 0.054687,-1.773438 -0.017719,-0.918273 -0.043155,-2.350886 -0.056641,-3.183593 l -0.025391,-1.513672 0.578125,-0.02344 c 0.364158,-0.01469 0.6103493,-0.06413 0.6679693,-0.132812 0.05513,-0.06571 0.0808,-0.34001 0.06641,-0.69336 l -0.02344,-0.585937 H 8.0449219 Z m 5.359375,0 -0.05859,0.396484 c -0.0314,0.217429 -0.06663,1.994357 -0.08008,3.949219 l -0.02539,3.554688 0.640624,0.02148 c 0.351976,0.01216 0.657178,0.0402 0.679688,0.0625 0.05715,0.0566 0.510946,-0.04535 0.632812,-0.142578 0.06087,-0.04856 0.101563,-0.275403 0.101563,-0.572266 0,-0.410574 -0.03011,-0.516001 -0.181641,-0.644531 l -0.18164,-0.154297 0.199218,-0.04687 0.197266,-0.04492 -0.02344,-1.048828 c -0.02707,-1.18072 -0.03674,-1.160038 0.615234,-1.242187 0.303653,-0.03826 0.346846,-0.02346 0.378906,0.128906 0.173996,0.826948 0.189957,1.025547 0.123047,1.533203 -0.0402,0.305096 -0.06604,0.931791 -0.05664,1.392578 l 0.01758,0.837891 h 0.966796 0.966797 l -0.0039,-0.597657 -0.0039,-0.595703 -0.560547,-0.171875 c -0.523562,-0.161366 -0.562347,-0.18982 -0.585938,-0.421875 -0.02092,-0.205774 0.0048,-0.248047 0.142579,-0.248047 0.130988,0 0.166015,0.05161 0.166015,0.240235 0,0.27476 0.114239,0.311299 0.240235,0.07813 0.09613,-0.177897 0.321299,-0.208557 0.466797,-0.06445 0.05243,0.05194 0.122279,0.06682 0.15625,0.0332 0.03396,-0.03362 0.0625,-1.445033 0.0625,-3.136719 v -3.076172 l -0.886719,-0.0098 -0.884766,-0.0078 0.0293,0.884766 c 0.01619,0.487069 0.0025,1.107502 -0.0293,1.378906 l -0.05664,0.49414 -0.697265,-0.02344 -0.697266,-0.02344 -0.03906,-1.355469 -0.04102,-1.357422 H 12.03125 Z m 22.421875,0 c -0.117042,0.0028 -0.497922,0.01308 -0.847656,0.02148 -0.504917,0.01222 -0.64738,0.04187 -0.6875,0.148438 -0.02779,0.07382 -0.0063,0.526532 0.04687,1.005859 0.11147,1.004194 0.11349,1.200248 0.02539,1.806641 -0.05558,0.382557 -0.04452,0.458937 0.08398,0.554687 0.02658,0.01981 0.07215,0.01896 0.109375,0.03516 l 4.402344,-0.101562 c 0.0065,-0.0048 0.0231,-0.0085 0.02734,-0.01367 0.06336,-0.07779 0.07408,-0.597617 0.03711,-1.765625 l -0.05273,-1.65625 -0.611328,0.0039 c -1.052648,0.0019 -0.972656,-0.115105 -0.972656,1.439453 0,0.765175 -0.0341,1.362895 -0.07813,1.390626 -0.106512,0.06708 -0.289861,-0.321231 -0.476563,-1.007813 -0.08648,-0.318028 -0.29985,-0.867212 -0.474609,-1.220703 -0.278367,-0.563083 -0.344817,-0.643172 -0.53125,-0.638672 z m -14.365234,0.002 c -1.056281,-0.0053 -2.101163,0.01553 -2.154297,0.06836 -0.0533,0.05302 -0.05108,0.670318 0.0078,1.839844 0.04876,0.968322 0.08984,2.083472 0.08984,2.476563 0,0.751354 0.06055,0.90625 0.359375,0.90625 0.09205,0 0.25278,0.05934 0.355469,0.130859 0.162264,0.113017 0.179105,0.17476 0.134765,0.46875 -0.05629,0.37324 0.0067,0.463794 0.38086,0.552734 0.390766,0.09289 0.15184,0.208985 -0.431641,0.208985 -0.621573,0 -0.733966,0.08975 -0.568359,0.451172 0.07171,0.156508 0.06576,0.248852 -0.0293,0.43164 -0.06649,0.127856 -0.121094,0.26818 -0.121094,0.3125 0,0.04433 0.262742,0.09222 0.583984,0.107422 1.103925,0.05225 3.511357,0.0603 3.638672,0.01172 0.101302,-0.03866 0.126954,-0.178972 0.126954,-0.681641 v -0.632812 h -1.308594 c -1.226616,-0.0011 -1.656469,-0.05879 -1.4375,-0.19336 0.05766,-0.03544 0.08789,-0.418718 0.08789,-1.082031 v -1.02544 l 0.445313,-0.05078 c 0.244194,-0.02854 0.585114,-0.02972 0.759765,-0.002 0.174653,0.02777 0.412772,0.02665 0.527344,-0.002 0.206488,-0.05153 0.206634,-0.05747 0.183594,-0.75 l -0.02148,-0.699219 -0.841797,-0.02344 C 19.545658,28.810454 19.12262,28.761469 19.0625,28.711859 18.98479,28.647724 18.959872,28.448355 18.976562,28.01264 L 19,27.405218 20.289062,27.35639 c 0.708949,-0.02707 1.297514,-0.05455 1.308594,-0.06055 0.01114,-0.006 0.01953,-0.261494 0.01953,-0.568359 0,-0.460753 -0.02543,-0.573212 -0.148438,-0.638672 -0.100744,-0.0536 -1.168329,-0.0845 -2.224609,-0.08984 z m 19.763671,0.002 c -0.392682,0.0038 -0.666857,0.0159 -0.705078,0.04297 -0.0793,0.05616 -0.117383,0.498255 -0.152343,1.742187 l -0.04687,1.650391 3.751953,-0.08789 c 0.02553,-0.02681 0.03773,-0.06199 0.04492,-0.111328 0.01482,-0.101637 -0.0067,-0.219208 -0.04883,-0.261719 -0.04212,-0.04252 -0.453951,-0.09704 -0.914062,-0.121093 -0.494811,-0.02588 -0.861474,-0.0816 -0.896484,-0.136719 -0.03254,-0.05126 -0.05972,-0.32077 -0.06055,-0.597656 -6.8e-4,-0.276885 -0.03577,-0.525085 -0.08008,-0.552735 -0.253775,-0.158302 0.03919,-0.203125 1.328125,-0.203125 h 1.410156 v -0.558593 c 0,-0.369263 -0.03782,-0.590471 -0.109375,-0.650391 -0.1037,-0.08688 -2.343434,-0.165778 -3.521485,-0.154297 z m -14.648437,0.002 c -0.476696,0.03276 -0.40625,0.303832 -0.40625,1.876953 v 1.810547 l 0.330078,0.05273 c 0.180663,0.02912 0.506491,0.02916 0.724609,0 0.163808,-0.0219 0.258473,-0.01972 0.320313,-0.0059 l 0.603516,-0.01367 c -0.03109,-0.194801 -0.06071,-0.887081 -0.06836,-1.80664 l -0.01563,-1.900391 -0.80664,-0.0059 c -0.303666,-0.0025 -0.522742,-0.01874 -0.681641,-0.0078 z m 6.578125,0.01367 c -0.28296,-0.108754 -1.568359,0.31217 -1.568359,0.513672 0,0.04296 -0.08194,0.07112 -0.181641,0.06055 l -0.181641,-0.01953 -0.02148,1.466796 -0.02148,1.464844 0.464843,0.0918 c 0.09594,0.01889 0.08444,0.02703 0.15625,0.04297 l 1.314454,-0.03125 c 0.112535,-0.01253 0.123782,-0.207203 0.142578,-1.75586 0.01884,-1.553833 0.0054,-1.792124 -0.103516,-1.833984 z m 11.136719,3.736328 -3.705078,0.01172 c -0.05416,0.07022 -0.13066,0.547824 -0.171875,1.068359 -0.065,0.821002 -0.05784,1.003632 0.06055,1.335938 0.11989,0.336523 0.125298,0.470967 0.04297,1.058594 -0.07467,0.533355 -0.07217,0.68823 0.0078,0.74414 0.0989,0.06912 4.312877,-0.0015 4.43164,-0.07422 0.03322,-0.02036 0.05859,-0.271675 0.05859,-0.558594 0,-0.502406 -0.0087,-0.527307 -0.251953,-0.654297 -0.186557,-0.09738 -0.515797,-0.137251 -1.259766,-0.150391 -1.310806,-0.02314 -1.306965,-0.01942 -1.30664,-1.296875 V 30.33309 l 0.74414,-0.02148 c 0.409745,-0.01141 0.882669,-0.04228 1.048829,-0.06836 0.280914,-0.04408 0.300781,-0.06624 0.300781,-0.324219 z m -5.314453,0.01758 -4.072266,0.01563 c -0.03632,0.01832 -0.08924,0.03316 -0.15625,0.04102 -0.220981,0.02591 -0.221284,0.0264 -0.208984,0.640625 0.0068,0.338659 0.01398,1.207214 0.01758,1.929688 0.0067,1.320579 0.02986,1.454855 0.251953,1.541015 0.160789,0.06237 1.162887,0.07294 1.314453,0.01367 0.10075,-0.03939 0.112904,-0.22409 0.07617,-1.169922 -0.0459,-1.182558 0.02971,-2.724609 0.134766,-2.724609 0.0856,0 0.972492,2.619299 0.972656,2.873047 1.05e-4,0.221112 0.195348,0.586282 0.474609,0.882812 0.144155,0.153083 0.261117,0.185547 0.679688,0.185547 0.844682,0 0.813406,0.07839 0.841797,-2.134766 0.01746,-1.361907 -10e-4,-1.934878 -0.06836,-2.017578 -0.02939,-0.03608 -0.117387,-0.05921 -0.257812,-0.07617 z m -6.015625,0.02148 c -0.140339,0.01695 -0.254434,0.01361 -0.347657,0.002 l -0.458984,0.002 c -0.059,0.01394 -0.154452,0.0271 -0.287109,0.03906 l -0.482422,0.04492 v 0.402344 0.404297 l 0.34375,0.03906 c 0.27699,0.03247 0.36705,0.08547 0.46289,0.271485 0.242317,0.470329 0.04751,0.949642 -0.257812,0.634765 -0.08136,-0.08391 -0.209571,-0.177178 -0.287109,-0.205078 -0.116273,-0.04184 -0.142579,-0.002 -0.142579,0.220704 0,0.148516 -0.05268,0.399269 -0.11914,0.558593 -0.11272,0.270169 -0.17946,1.664156 -0.08398,1.759766 0.02088,0.02091 0.497455,0.0356 1.058594,0.0332 1.01053,-0.0044 1.020926,-0.0072 1.103516,-0.207031 0.103718,-0.250924 0.07673,-3.563193 -0.03125,-3.847657 -0.03231,-0.08512 -0.06051,-0.12895 -0.111328,-0.152343 h -0.345704 z m -4.804688,0.01758 -0.597656,0.002 c -0.06584,0.03698 -0.212457,0.0625 -0.492188,0.0625 -0.371842,0 -0.584784,0.03639 -0.646484,0.111328 -0.06448,0.07836 -0.08354,0.677792 -0.06836,2.009766 l 0.02148,1.898437 1.570312,0.04297 c 0.864029,0.02379 1.684957,0.05085 1.824219,0.06055 0.143434,0.01 0.268163,-0.02649 0.289063,-0.08398 0.02026,-0.05583 0.01689,-0.375968 -0.0098,-0.710937 l -0.04883,-0.607422 -0.402344,-0.0078 c -0.440586,-0.0084 -1.333717,-0.09914 -1.652344,-0.167969 -0.192834,-0.04166 -0.189887,-0.04788 0.08008,-0.138672 0.231478,-0.07785 0.278218,-0.131392 0.261718,-0.296875 -0.01106,-0.110863 -0.02817,-0.621149 -0.03906,-1.134766 -0.01091,-0.513616 -0.05017,-0.955992 -0.08594,-0.982421 -0.0017,-0.0013 -0.0022,-0.05157 -0.0039,-0.05664 z"/>
 <path style="opacity:0.2" d="M 9.4335938,13 C 9.3008638,13 9.1956162,13.04875 9.1171875,13.146484 9.0387565,13.240724 9,13.366785 9,13.527344 v 1.03125 c 0,0.104709 0.015648,0.191492 0.048828,0.257812 0.033182,0.06283 0.097892,0.109212 0.1914063,0.140625 l 2.4843747,0.869141 v 0.167969 H 10.275391 V 15.585938 H 9 v 0.884765 c 0,0.160559 0.038756,0.288988 0.1171875,0.386719 C 9.1956185,16.951662 9.3008638,17 9.4335938,17 h 3.1328122 c 0.132731,0 0.237976,-0.04834 0.316407,-0.142578 C 12.961244,16.759692 13,16.631262 13,16.470703 v -1.037109 c 0,-0.10471 -0.01849,-0.18954 -0.05469,-0.25586 -0.03318,-0.06981 -0.09594,-0.12093 -0.189453,-0.152343 l -2.480469,-0.859375 v -0.16211 h 1.449218 v 0.314453 H 13 v -0.80664 C 13,13.35116 12.96213,13.225516 12.886719,13.134766 12.811309,13.044016 12.706949,13 12.574219,13 Z M 14,13 v 4 h 1.275391 v -1.011719 h 2.294921 c 0.132731,0 0.237086,-0.04638 0.3125,-0.140625 C 17.961242,15.749926 18,15.619543 18,15.458984 v -1.93164 C 18,13.366785 17.96213,13.240725 17.886719,13.146484 17.814319,13.048754 17.712809,13 17.580078,13 Z m 5,0 v 4 h 4 v -1.136719 h -2.697266 v -0.355469 h 2.027344 v -1.048828 h -2.027344 v -0.324218 h 2.660157 V 13 Z m 5.402344,0 C 24.27536,13 24.175666,13.04875 24.103516,13.146484 24.034256,13.240724 24,13.366785 24,13.527344 v 2.943359 c 0,0.160559 0.03425,0.288988 0.103516,0.386719 C 24.175666,16.951662 24.27536,17 24.402344,17 h 3.185547 c 0.126984,0 0.226678,-0.04834 0.298828,-0.142578 C 27.961759,16.759692 28,16.631262 28,16.470703 V 15.3125 h -1.220703 v 0.603516 h -1.558594 v -1.833985 h 1.558594 v 0.603516 H 28 V 13.527344 C 28,13.366785 27.96176,13.240725 27.886719,13.146484 27.814569,13.048754 27.714875,13 27.587891,13 Z m -9.126953,1.082031 h 1.449218 v 0.859375 H 15.275391 Z M 24.402344,18 C 24.27536,18 24.175666,18.04875 24.103516,18.146484 24.034256,18.240724 24,18.368738 24,18.529297 v 2.941406 c 0,0.160559 0.03425,0.290941 0.103516,0.388672 C 24.175666,21.953615 24.27536,22 24.402344,22 h 3.195312 c 0.126984,0 0.225657,-0.04638 0.294922,-0.140625 C 27.964728,21.761645 28,21.631262 28,21.470703 V 18.529297 C 28,18.368738 27.96473,18.240725 27.892578,18.146484 27.823308,18.048754 27.72464,18 27.597656,18 Z M 29,18 v 4 h 1.275391 v -1.009766 h 2.294921 c 0.132731,0 0.237087,-0.04834 0.3125,-0.142578 C 32.961242,20.749926 33,20.621496 33,20.460938 V 18.529297 C 33,18.368738 32.96213,18.240725 32.886719,18.146484 32.814319,18.048754 32.712809,18 32.580078,18 Z m 5.433594,0 c -0.13273,0 -0.237979,0.04875 -0.316406,0.146484 C 34.038758,18.240724 34,18.368738 34,18.529297 v 1.03125 c 0,0.104709 0.01565,0.189539 0.04883,0.255859 0.03318,0.06283 0.09789,0.111165 0.191406,0.142578 l 2.484375,0.869141 v 0.166016 h -1.44922 V 20.585938 H 34 v 0.884765 c 0,0.160559 0.03876,0.290941 0.117188,0.388672 C 34.195618,21.953615 34.300864,22 34.433594,22 h 3.132812 c 0.132731,0 0.237976,-0.04638 0.316406,-0.140625 C 37.961242,21.761645 38,21.631262 38,21.470703 v -1.037109 c 0,-0.10471 -0.01849,-0.18954 -0.05469,-0.25586 -0.03318,-0.06981 -0.09594,-0.12093 -0.189453,-0.152343 l -2.480468,-0.857422 v -0.16211 h 1.449218 v 0.314453 H 38 v -0.80664 C 38,18.353113 37.96213,18.227469 37.886719,18.136719 37.811309,18.045969 37.706948,18 37.574219,18 Z m -9.212891,1.083984 h 1.558594 v 1.832032 h -1.558594 z m 5.054688,0 h 1.449218 v 0.859375 h -1.449218 z"/>
 <path style="fill:#8b9cbe" d="M 9.4335938,12 C 9.3008638,12 9.1956162,12.04875 9.1171875,12.146484 9.0387565,12.240724 9,12.366785 9,12.527344 v 1.03125 c 0,0.104709 0.015648,0.191492 0.048828,0.257812 0.033182,0.06283 0.097892,0.109212 0.1914063,0.140625 l 2.4843747,0.869141 v 0.167969 H 10.275391 V 14.585938 H 9 v 0.884765 c 0,0.160559 0.038756,0.288988 0.1171875,0.386719 C 9.1956185,15.951662 9.3008638,16 9.4335938,16 h 3.1328122 c 0.132731,0 0.237976,-0.04834 0.316407,-0.142578 C 12.961244,15.759692 13,15.631262 13,15.470703 v -1.037109 c 0,-0.10471 -0.01849,-0.18954 -0.05469,-0.25586 -0.03318,-0.06981 -0.09594,-0.12093 -0.189453,-0.152343 l -2.480469,-0.859375 v -0.16211 h 1.449218 v 0.314453 H 13 v -0.80664 C 13,12.35116 12.96213,12.225516 12.886719,12.134766 12.811309,12.044016 12.706949,12 12.574219,12 Z M 14,12 v 4 h 1.275391 v -1.011719 h 2.294921 c 0.132731,0 0.237086,-0.04638 0.3125,-0.140625 C 17.961242,14.749926 18,14.619543 18,14.458984 v -1.93164 C 18,12.366785 17.96213,12.240725 17.886719,12.146484 17.814319,12.048754 17.712809,12 17.580078,12 Z m 5,0 v 4 h 4 v -1.136719 h -2.697266 v -0.355469 h 2.027344 v -1.048828 h -2.027344 v -0.324218 h 2.660157 V 12 Z m 5.402344,0 C 24.27536,12 24.175666,12.04875 24.103516,12.146484 24.034256,12.240724 24,12.366785 24,12.527344 v 2.943359 c 0,0.160559 0.03425,0.288988 0.103516,0.386719 C 24.175666,15.951662 24.27536,16 24.402344,16 h 3.185547 c 0.126984,0 0.226678,-0.04834 0.298828,-0.142578 C 27.961759,15.759692 28,15.631262 28,15.470703 V 14.3125 h -1.220703 v 0.603516 h -1.558594 v -1.833985 h 1.558594 v 0.603516 H 28 V 12.527344 C 28,12.366785 27.96176,12.240725 27.886719,12.146484 27.814569,12.048754 27.714875,12 27.587891,12 Z m -9.126953,1.082031 h 1.449218 v 0.859375 H 15.275391 Z M 24.402344,17 C 24.27536,17 24.175666,17.04875 24.103516,17.146484 24.034256,17.240724 24,17.368738 24,17.529297 v 2.941406 c 0,0.160559 0.03425,0.290941 0.103516,0.388672 C 24.175666,20.953615 24.27536,21 24.402344,21 h 3.195312 c 0.126984,0 0.225657,-0.04638 0.294922,-0.140625 C 27.964728,20.761645 28,20.631262 28,20.470703 V 17.529297 C 28,17.368738 27.96473,17.240725 27.892578,17.146484 27.823308,17.048754 27.72464,17 27.597656,17 Z M 29,17 v 4 h 1.275391 v -1.009766 h 2.294921 c 0.132731,0 0.237087,-0.04834 0.3125,-0.142578 C 32.961242,19.749926 33,19.621496 33,19.460938 V 17.529297 C 33,17.368738 32.96213,17.240725 32.886719,17.146484 32.814319,17.048754 32.712809,17 32.580078,17 Z m 5.433594,0 c -0.13273,0 -0.237979,0.04875 -0.316406,0.146484 C 34.038758,17.240724 34,17.368738 34,17.529297 v 1.03125 c 0,0.104709 0.01565,0.189539 0.04883,0.255859 0.03318,0.06283 0.09789,0.111165 0.191406,0.142578 l 2.484375,0.869141 v 0.166016 h -1.44922 V 19.585938 H 34 v 0.884765 c 0,0.160559 0.03876,0.290941 0.117188,0.388672 C 34.195618,20.953615 34.300864,21 34.433594,21 h 3.132812 c 0.132731,0 0.237976,-0.04638 0.316406,-0.140625 C 37.961242,20.761645 38,20.631262 38,20.470703 v -1.037109 c 0,-0.10471 -0.01849,-0.18954 -0.05469,-0.25586 -0.03318,-0.06981 -0.09594,-0.12093 -0.189453,-0.152343 l -2.480468,-0.857422 v -0.16211 h 1.449218 v 0.314453 H 38 v -0.80664 C 38,17.353113 37.96213,17.227469 37.886719,17.136719 37.811309,17.045969 37.706948,17 37.574219,17 Z m -9.212891,1.083984 h 1.558594 v 1.832032 h -1.558594 z m 5.054688,0 h 1.449218 v 0.859375 h -1.449218 z"/>
</svg>
