<svg xmlns="http://www.w3.org/2000/svg" width="48" height="48" version="1.1">
 <circle style="opacity:.2" cx="24" cy="25" r="20"/>
 <circle style="fill:#17191e" cx="24" cy="24" r="20"/>
 <path style="opacity:0.1;fill:#8b9cbe" d="m24 4a20 20 0 0 0 -20 20 20 20 0 0 0 0.0215 0.582 20 20 0 0 1 19.9785 -19.582 20 20 0 0 1 19.979 19.418 20 20 0 0 0 0.021 -0.418 20 20 0 0 0 -20 -20z"/>
 <path style="opacity:0.2" d="m 13.175781,8.1816406 a 20,20 0 0 0 -1.59375,1.1425782 L 15.882812,22.248047 4.5664062,29.628906 a 20,20 0 0 0 0.3652344,1.333985 l 13.8750004,0.06641 3.902343,13.90625 A 20,20 0 0 0 24,45 20,20 0 0 0 24.96875,44.964844 L 29.105469,31 H 32 43.074219 a 20,20 0 0 0 0.416015,-1.59375 L 32.255859,22.105469 36.697266,9.5605469 A 20,20 0 0 0 35.003906,8.3164062 L 24.173828,16.207031 Z m 1.267578,3.4003904 8.033203,5.863281 -4.894531,3.566407 z m 19.394532,0.05859 -3.269532,9.234375 -4.697265,-3.429688 z m -9.666016,7.042969 5.699219,4.158203 L 27.691406,29 h -0.04297 -7.408204 L 18.244141,23.001953 Z M 31.558594,24.074219 39.509766,29 H 32 29.814453 Z M 16.546875,24.240234 18.130859,29 H 16 v 0.01367 L 8.9375,28.982422 Z M 20.90625,31 h 6.033203 l -3.111328,10.970703 -0.08789,-0.253906 z"/>
 <path style="fill:#f14c21" d="M 13.175781 7.1816406 A 20 20 0 0 0 11.582031 8.3242188 L 15.882812 21.248047 L 4.5664062 28.628906 A 20 20 0 0 0 4.9316406 29.962891 L 18.806641 30.029297 L 22.708984 43.935547 A 20 20 0 0 0 24 44 A 20 20 0 0 0 24.96875 43.964844 L 29.105469 30 L 32 30 L 43.074219 30 A 20 20 0 0 0 43.490234 28.40625 L 32.255859 21.105469 L 36.697266 8.5605469 A 20 20 0 0 0 35.003906 7.3164062 L 24.173828 15.207031 L 13.175781 7.1816406 z M 14.443359 10.582031 L 22.476562 16.445312 L 17.582031 20.011719 L 14.443359 10.582031 z M 33.837891 10.640625 L 30.568359 19.875 L 25.871094 16.445312 L 33.837891 10.640625 z M 24.171875 17.683594 L 29.871094 21.841797 L 27.691406 28 L 27.648438 28 L 20.240234 28 L 18.244141 22.001953 L 24.171875 17.683594 z M 31.558594 23.074219 L 39.509766 28 L 32 28 L 29.814453 28 L 31.558594 23.074219 z M 16.546875 23.240234 L 18.130859 28 L 16 28 L 16 28.013672 L 8.9375 27.982422 L 16.546875 23.240234 z M 20.90625 30 L 26.939453 30 L 23.828125 40.970703 L 23.740234 40.716797 L 20.90625 30 z"/>
 <path style="opacity:0.2;fill:#8b9cbe" d="M 13.175781 7.1816406 A 20 20 0 0 0 11.582031 8.3242188 L 11.851562 9.1308594 A 20 20 0 0 1 13.175781 8.1816406 L 24.173828 16.207031 L 35.003906 8.3164062 A 20 20 0 0 1 36.416016 9.3535156 L 36.697266 8.5605469 A 20 20 0 0 0 35.003906 7.3164062 L 24.173828 15.207031 L 13.175781 7.1816406 z M 14.443359 11.582031 L 17.582031 21.011719 L 22.476562 17.445312 L 21.791016 16.945312 L 17.582031 20.011719 L 14.882812 11.902344 L 14.443359 11.582031 z M 33.837891 11.640625 L 33.361328 11.988281 L 30.568359 19.875 L 26.556641 16.945312 L 25.871094 17.445312 L 30.568359 20.875 L 33.837891 11.640625 z M 32.542969 21.292969 L 32.255859 22.105469 L 43.267578 29.261719 A 20 20 0 0 0 43.490234 28.40625 L 32.542969 21.292969 z M 15.609375 21.425781 L 4.5664062 28.628906 A 20 20 0 0 0 4.7988281 29.476562 L 15.882812 22.248047 L 15.609375 21.425781 z M 29.589844 22.636719 L 27.691406 28 L 27.648438 28 L 20.240234 28 L 18.511719 22.806641 L 18.244141 23.001953 L 20.240234 29 L 27.648438 29 L 27.691406 29 L 29.871094 22.841797 L 29.589844 22.636719 z M 10.53125 27.990234 L 8.9375 28.982422 L 16 29.013672 L 16 29 L 18.130859 29 L 17.798828 28 L 16 28 L 16 28.013672 L 10.53125 27.990234 z M 30.167969 28 L 29.814453 29 L 32 29 L 39.509766 29 L 37.896484 28 L 32 28 L 30.167969 28 z M 20.90625 31 L 23.740234 41.716797 L 23.828125 41.970703 L 26.939453 31 L 26.65625 31 L 23.828125 40.970703 L 23.740234 40.716797 L 21.169922 31 L 20.90625 31 z"/>
</svg>
