<svg xmlns="http://www.w3.org/2000/svg" width="48" height="48" version="1">
 <rect style="opacity:0.2" width="40" height="40" x="4" y="5" rx="2" ry="2"/>
 <rect style="fill:#b2bfd9" width="40" height="40" x="4" y="4" rx="2" ry="2"/>
 <path fill="#fff" opacity=".2" d="m4 7v-1c0-1.108 0.892-2 2-2h36c1.108 0 2 0.892 2 2v1c0-1.108-0.892-2-2-2h-36c-1.108 0-2 0.892-2 2z"/>
 <path style="opacity:0.1" d="m 25.395423,40.901823 c -0.821486,-0.578566 -1.796833,-0.780574 -1.583326,-2.100668 -1.043065,-1.075411 -0.452928,-2.670729 -0.667449,-4.095636 -0.498686,-1.856403 -0.934208,-3.735312 -1.328901,-5.617825 -1.11449,-0.944137 0.77289,-3.296541 -0.571565,-3.579239 0.103679,-0.620935 -0.304207,-0.924744 0.03058,-1.69962 -0.428567,-0.599249 0.37474,-0.78002 -0.398904,-1.2465 -0.189077,-1.000863 -1.827288,0.219395 -2.067265,-0.395766 -0.627265,0.291741 -1.26023,-0.06781 -1.936412,0.337972 -0.805287,-0.23701 -1.592088,0.133915 -2.499639,0.13308 -0.595184,0.107191 -1.126306,1.091538 -1.428245,0.723858 -0.754351,0.977909 -1.46204,0.435985 -2.419384,0.298766 -1.4132263,-0.856359 0.449959,-2.009781 0.674311,-2.897302 1.502199,-1.067711 3.460868,-0.76016 5.174805,-0.47586 1.266782,0.253997 2.952843,0.824855 4.042137,0.56366 -0.741457,-0.34097 -2.013438,-0.53114 -2.857754,-1.132015 -0.5811,-0.153346 -0.914216,-0.301353 -0.985951,-0.777493 -0.662939,0.280504 -1.983654,0.506723 -0.939268,-0.512244 0.135059,-0.679809 -1.016515,0.934199 -1.491569,0.987887 -0.413269,0.661976 -0.400144,-1.025324 -0.901263,0.228337 -0.900756,0.464349 1.144787,-1.489315 -0.288738,-1.157191 -0.587145,0.424922 -0.523784,-0.457724 -1.079651,-0.133195 -0.655026,-1.519539 1.589034,-2.011402 2.152677,-2.19203 0.43213,-0.905034 2.292063,-0.216133 3.214725,-0.332063 0.768409,-0.346915 0.07359,-1.434068 1.048909,-0.704058 0.488178,-0.3033 -1.885787,-2.902282 -0.355431,-1.604905 0.132223,0.366711 1.253445,1.858411 0.897316,1.055688 -0.876846,-0.529 0.778645,-1.0284 -0.607528,-1.285599 -0.38211,-0.536735 -1.511333,-1.473366 -0.0978,-1.27583 1.307248,-0.100684 2.843082,0.143858 3.94444,0.927191 0.584318,0.464309 1.180599,0.931214 1.653813,0.61311 -0.575465,0.39169 -1.324088,1.712861 -0.07727,1.032325 0.565886,-0.245232 1.13391,-0.75652 1.407357,-0.549148 0.361404,-0.325148 0.837261,1.057997 1.606153,0.261176 0.683611,-0.244981 2.497146,-0.553584 2.643669,-0.139176 -0.921477,-0.100664 -1.279734,0.87314 -0.388644,0.436311 0.757292,-0.236706 1.806868,-0.0813 1.246028,0.488835 0.868086,-0.249386 1.631874,-0.498791 2.386054,0.04949 -0.03343,0.655736 2.379827,1.471573 0.58404,1.360095 -1.348004,-0.424231 -2.472943,7.52e-4 -3.681017,0.632444 -0.516001,0.448006 -0.204588,2.281143 0.999037,1.526467 1.192234,-0.461035 3.021371,-0.190964 3.330157,0.851662 1.570462,-0.451237 1.652178,3.539465 0.314907,1.410244 0.41248,0.71384 0.176977,1.348289 -0.512925,0.558552 -0.830245,-0.450389 -2.072237,-0.152093 -3.010035,-0.694825 -0.487687,0.412736 -1.016665,0.01491 -1.374126,0.172856 -0.343191,-0.301819 0.318296,1.254495 -0.411827,0.07269 -0.547445,0.614283 -1.166733,0.704892 -1.708994,0.407369 -0.389272,0.488557 -1.760732,0.447478 -2.034809,0.07248 -0.437374,0.308557 -1.964954,-0.201751 -1.476951,0.914304 1.314741,1.406607 -1.150723,2.344032 -0.727234,4.044244 0.01918,1.027157 1.096347,2.034783 0.175613,2.760052 0.156921,0.758041 0.552275,1.592417 -0.342101,1.422218 -0.195531,0.863295 0.291818,0.545428 0.597803,0.640199 0.346832,0.107423 0.474196,0.16709 -0.302684,0.383532 -0.417332,1.067457 1.196353,-0.457311 0.956457,0.943021 0.359828,0.63972 0.890746,2.368214 1.034422,0.614763 -0.422691,-1.581559 0.19881,-3.10687 0.252787,-4.65477 -0.656056,0.305833 -1.386715,0.373866 -0.616859,-0.476369 0.256078,-0.363029 0.411586,-0.684091 0.72287,-1.044133 0.137747,-0.159321 0.393089,-0.148724 0.561004,-0.299895 0.147584,-0.132868 0.277304,-0.627134 0.404036,-0.777256 1.243939,-0.675513 1.26144,3.883527 1.710997,5.300376 0.250193,0.889452 -0.19891,1.409056 -0.38455,0.275502 -0.03363,-0.609758 -0.34703,-2.471743 -0.728772,-2.305744 -0.207651,1.349458 0.99779,2.797729 0.244426,4.000608 0.52495,1.486886 -0.09293,2.991031 -0.232156,4.464092 -0.385596,0.873341 -0.81695,1.51831 -0.757665,2.476824 -0.724148,-0.172514 0.164194,1.179883 -0.736866,0.714072 z m 1.115261,-5.272083 c 0.457934,-0.536453 -0.121771,-2.69704 -0.503859,-2.759328 -0.153341,0.676611 -0.773678,1.645559 -0.887528,2.15948 -0.05781,0.260963 0.463912,0.570067 0.832723,1.023368 0.17018,-0.09301 0.351095,-0.333988 0.558662,-0.42352 z m -2.974288,-3.370582 c -0.196316,-0.294911 -0.171795,0.284931 0,0 z m 4.103302,-13.129346 c 0.700808,-0.05847 2.096459,-0.434177 0.855501,-0.618291 -0.614464,-1.013384 -2.712341,1.340993 -0.855501,0.618291 z m -9.151837,-2.65873 c 0.614849,0.538051 0.321425,-1.082382 -0.229818,-3.4e-4 -0.04213,0.503074 -0.04741,0.859886 0.229818,3.4e-4 z m 2.90706,-0.861853 c -0.398309,-0.394386 0.05927,0.635518 -2e-6,-10e-7 z m 8.778403,-0.177487 c 0.713409,-0.660042 -1.559549,0.69126 0,3e-6 z M 18.942043,15.317171 c -0.451774,-0.285592 0.256703,0.368786 0,0 z m 2.054101,-0.596465 c -0.0805,-0.606161 -0.87979,-1.388958 -0.240746,-0.360888 0.105681,0.298669 0.575198,1.156681 0.240746,0.360888 z m 7.060239,-0.150232 c -0.397366,-0.384966 -0.290355,0.882242 0,0 z m 8.154989,0.936172 c 0.36376,-0.739903 -2.332162,-1.369934 -0.484071,-1.284405 0.335294,0.195797 0.698573,0.378952 1.000246,0.525753 0.140459,0.02231 0.334581,-0.119867 0.467122,-0.09558 0.413537,0.07577 0.753944,0.187147 0.805329,0.496527 -0.744049,-0.16684 -0.937807,0.18146 -1.111867,0.525097 -0.230848,-0.02667 -0.491228,0.01 -0.676759,-0.167389 z M 13.653859,12.910118 c -2.062547,-1.264294 1.656629,0.46742 0,0 z m -1.034691,-0.04886 c -0.382731,-0.396591 -1.103655,-0.320978 -0.08677,-0.500983 0.674013,-0.263951 0.996548,0.589105 0.08677,0.500983 z m 3.134829,-1.578867 c 0.03941,-0.642862 -2.052129,-1.3835589 -0.523843,-0.906196 0.72811,0.875764 2.968277,-1.4040512 1.553534,0.03377 -0.423601,0.291209 -0.298581,1.182118 -1.029691,0.872426 z m 9.422716,-1.014638 c -0.453224,-0.06693 -0.943693,-0.112697 -1.325314,-0.169924 -0.194456,-0.02916 0.120038,-0.03343 -0.08845,-0.3445903 -0.03904,-0.058258 -0.190371,-0.1292405 -0.273449,-0.1975033 -0.242733,-0.1354078 -0.486247,-0.4109038 -0.47487,-0.5373877 -0.199279,-0.1082006 0.658885,0.2820516 1.554625,0.6460978 0.718791,0.2921314 1.587011,0.5051435 1.860825,0.6612015 -0.374509,0.02558 -0.889717,0.03881 -1.253408,-0.05789 z m -8.822041,0.471775 c 0.342473,-0.559254 2.222652,-1.7178543 0.929167,-0.585597 -0.300189,0.187794 -0.585376,0.506375 -0.929167,0.585597 z"/>
 <path style="fill:#ca1010" d="m 25.395423,39.901825 c -0.821486,-0.578566 -1.796833,-0.780574 -1.583326,-2.100668 -1.043065,-1.075411 -0.452928,-2.670729 -0.667449,-4.095636 -0.498686,-1.856403 -0.934208,-3.735312 -1.328901,-5.617825 -1.11449,-0.944137 0.77289,-3.296541 -0.571565,-3.579239 0.103679,-0.620935 -0.304207,-0.924744 0.03058,-1.69962 -0.428567,-0.599249 0.37474,-0.78002 -0.398904,-1.2465 -0.189077,-1.000863 -1.827288,0.219395 -2.067265,-0.395766 -0.627265,0.291741 -1.26023,-0.06781 -1.936412,0.337972 -0.805287,-0.23701 -1.592088,0.133915 -2.499639,0.13308 -0.595184,0.107191 -1.126306,1.091538 -1.428245,0.723858 -0.754351,0.977909 -1.46204,0.435985 -2.419384,0.298766 -1.4132263,-0.856359 0.449959,-2.009781 0.674311,-2.897302 1.502199,-1.067711 3.460868,-0.76016 5.174805,-0.47586 1.266782,0.253997 2.952843,0.824855 4.042137,0.56366 -0.741457,-0.34097 -2.013438,-0.53114 -2.857754,-1.132015 -0.5811,-0.153346 -0.914216,-0.301353 -0.985951,-0.777493 -0.662939,0.280504 -1.983654,0.506723 -0.939268,-0.512244 0.135059,-0.679809 -1.016515,0.934199 -1.491569,0.987887 -0.413269,0.661976 -0.400144,-1.025324 -0.901263,0.228337 -0.900756,0.464349 1.144787,-1.489315 -0.288738,-1.157191 -0.587145,0.424922 -0.523784,-0.457724 -1.079651,-0.133195 -0.655026,-1.519539 1.589034,-2.011402 2.152677,-2.19203 0.43213,-0.905034 2.292063,-0.216133 3.214725,-0.332063 0.768409,-0.346915 0.07359,-1.434068 1.048909,-0.704058 0.488178,-0.3033 -1.885787,-2.902282 -0.355431,-1.604905 0.132223,0.366711 1.253445,1.858411 0.897316,1.055688 -0.876846,-0.529 0.778645,-1.0284 -0.607528,-1.285599 -0.38211,-0.536735 -1.511333,-1.473366 -0.0978,-1.27583 1.307248,-0.100684 2.843082,0.143858 3.94444,0.927191 0.584318,0.464309 1.180599,0.931214 1.653813,0.61311 -0.575465,0.39169 -1.324088,1.712861 -0.07727,1.032325 0.565886,-0.245232 1.13391,-0.75652 1.407357,-0.549148 0.361404,-0.325148 0.837261,1.057997 1.606153,0.261176 0.683611,-0.244981 2.497146,-0.553584 2.643669,-0.139176 -0.921477,-0.100664 -1.279734,0.87314 -0.388644,0.436311 0.757292,-0.236706 1.806868,-0.0813 1.246028,0.488835 0.868086,-0.249386 1.631874,-0.498791 2.386054,0.04949 -0.03343,0.655736 2.379827,1.471573 0.58404,1.360095 -1.348004,-0.424231 -2.472943,7.52e-4 -3.681017,0.632444 -0.516001,0.448006 -0.204588,2.281143 0.999037,1.526467 1.192234,-0.461035 3.021371,-0.190964 3.330157,0.851662 1.570462,-0.451237 1.652178,3.539465 0.314907,1.410244 0.41248,0.71384 0.176977,1.348289 -0.512925,0.558552 -0.830245,-0.450389 -2.072237,-0.152093 -3.010035,-0.694825 -0.487687,0.412736 -1.016665,0.01491 -1.374126,0.172856 -0.343191,-0.301819 0.318296,1.254495 -0.411827,0.07269 -0.547445,0.614283 -1.166733,0.704892 -1.708994,0.407369 -0.389272,0.488557 -1.760732,0.447478 -2.034809,0.07248 -0.437374,0.308557 -1.964954,-0.201751 -1.476951,0.914304 1.314741,1.406607 -1.150723,2.344032 -0.727234,4.044244 0.01918,1.027157 1.096347,2.034783 0.175613,2.760052 0.156921,0.758041 0.552275,1.592417 -0.342101,1.422218 -0.195531,0.863295 0.291818,0.545428 0.597803,0.640199 0.346832,0.107423 0.474196,0.16709 -0.302684,0.383532 -0.417332,1.067457 1.196353,-0.457311 0.956457,0.943021 0.359828,0.63972 0.890746,2.368214 1.034422,0.614763 -0.422691,-1.581559 0.19881,-3.10687 0.252787,-4.65477 -0.656056,0.305833 -1.386715,0.373866 -0.616859,-0.476369 0.256078,-0.363029 0.411586,-0.684091 0.72287,-1.044133 0.137747,-0.159321 0.393089,-0.148724 0.561004,-0.299895 0.147584,-0.132868 0.277304,-0.627134 0.404036,-0.777256 1.243939,-0.675513 1.26144,3.883527 1.710997,5.300376 0.250193,0.889452 -0.19891,1.409056 -0.38455,0.275502 -0.03363,-0.609758 -0.34703,-2.471743 -0.728772,-2.305744 -0.207651,1.349458 0.99779,2.797729 0.244426,4.000608 0.52495,1.486886 -0.09293,2.991031 -0.232156,4.464092 -0.385596,0.873341 -0.81695,1.51831 -0.757665,2.476824 -0.724148,-0.172514 0.164194,1.179883 -0.736866,0.714072 z m 1.115261,-5.272083 c 0.457934,-0.536453 -0.121771,-2.69704 -0.503859,-2.759328 -0.153341,0.676611 -0.773678,1.645559 -0.887528,2.15948 -0.05781,0.260963 0.463912,0.570067 0.832723,1.023368 0.17018,-0.09301 0.351095,-0.333988 0.558662,-0.42352 z M 23.536396,31.25916 c -0.196316,-0.294911 -0.171795,0.284931 0,0 z m 4.103302,-13.129346 c 0.700808,-0.05847 2.096459,-0.434177 0.855501,-0.618291 -0.614464,-1.013384 -2.712341,1.340993 -0.855501,0.618291 z m -9.151837,-2.65873 c 0.614849,0.538051 0.321425,-1.082382 -0.229818,-3.4e-4 -0.04213,0.503074 -0.04741,0.859886 0.229818,3.4e-4 z m 2.90706,-0.861853 c -0.398309,-0.394386 0.05927,0.635518 -2e-6,-10e-7 z m 8.778403,-0.177487 c 0.713409,-0.660042 -1.559549,0.69126 0,3e-6 z M 18.942043,14.317173 c -0.451774,-0.285592 0.256703,0.368786 0,0 z m 2.054101,-0.596465 c -0.0805,-0.606161 -0.87979,-1.388958 -0.240746,-0.360888 0.105681,0.298669 0.575198,1.156681 0.240746,0.360888 z m 7.060239,-0.150232 c -0.397366,-0.384966 -0.290355,0.882242 0,0 z m 8.154989,0.936172 c 0.36376,-0.739903 -2.332162,-1.369934 -0.484071,-1.284405 0.335294,0.195797 0.698573,0.378952 1.000246,0.525753 0.140459,0.02231 0.334581,-0.119867 0.467122,-0.09558 0.413537,0.07577 0.753944,0.187147 0.805329,0.496527 -0.744049,-0.16684 -0.937807,0.18146 -1.111867,0.525097 -0.230848,-0.02667 -0.491228,0.01 -0.676759,-0.167389 z M 13.653859,11.91012 c -2.062547,-1.264294 1.656629,0.46742 0,0 z m -1.034691,-0.04886 c -0.382731,-0.396591 -1.103655,-0.320978 -0.08677,-0.500983 0.674013,-0.263951 0.996548,0.589105 0.08677,0.500983 z m 3.134829,-1.578867 c 0.03941,-0.6428623 -2.052129,-1.3835588 -0.523843,-0.9061958 0.72811,0.8757638 2.968277,-1.4040513 1.553534,0.03377 -0.423601,0.2912092 -0.298581,1.1821178 -1.029691,0.8724258 z M 25.176713,9.2677554 C 24.723489,9.2008253 24.23302,9.1550583 23.851399,9.0978313 23.656943,9.068671 23.971437,9.0643968 23.762945,8.7532408 23.723909,8.6949826 23.572574,8.6240003 23.489496,8.5557375 23.246763,8.4203297 23.003249,8.1448337 23.014626,8.0183498 c -0.199279,-0.1082006 0.658885,0.2820516 1.554625,0.6460978 0.718791,0.2921314 1.587011,0.5051434 1.860825,0.6612013 -0.374509,0.025576 -0.889717,0.03881 -1.253408,-0.057893 z m -8.822041,0.4717751 c 0.342473,-0.5592543 2.222652,-1.7178547 0.929167,-0.5855971 -0.300189,0.1877937 -0.585376,0.506375 -0.929167,0.5855971 z"/>
</svg>
