<svg xmlns="http://www.w3.org/2000/svg" width="48" height="48" version="1.1">
 <rect style="opacity:0.2" width="40" height="40" x="4" y="5" rx="2" ry="2"/>
 <rect style="fill:#4f4f4f" width="40" height="40" x="4" y="4" rx="2" ry="2"/>
 <path style="opacity:0.2" d="m 15,18 v 19 h 4 V 23.400391 L 23.779297,28.986328 29,23.193359 V 37 h 4 V 18 H 28.296875 L 23.857422,22.925781 19.642578,18 Z"/>
 <path style="fill:#8b9cbe;opacity:.1" d="m6 4c-1.108 0-2 0.892-2 2v1c0-1.108 0.892-2 2-2h36c1.108 0 2 0.892 2 2v-1c0-1.108-0.892-2-2-2z"/>
 <path style="fill:#9a9a9a" d="m 15,17 v 19 h 4 V 22.400391 L 23.779297,27.986328 29,22.193359 V 36 h 4 V 17 H 28.296875 L 23.857422,21.925781 19.642578,17 Z"/>
 <path style="opacity:0.2" d="m 15,14 v 19 h 4 V 19.400391 L 23.779297,24.986328 29,19.193359 V 33 h 4 V 14 H 28.296875 L 23.857422,18.925781 19.642578,14 Z"/>
 <path style="fill:#8b9cbe" d="m 15,13 v 19 h 4 V 18.400391 L 23.779297,23.986328 29,18.193359 V 32 h 4 V 13 H 28.296875 L 23.857422,17.925781 19.642578,13 Z"/>
 <path style="opacity:0.2" d="m 13,20.27114 -9,4.296875 v 4.517579 L 13,33.527 V 29.066062 L 8.5058594,26.847312 13,24.702781 Z"/>
 <path style="fill:#dd7456" d="m 13,19.27114 -9,4.296875 v 4.517579 L 13,32.527 V 28.066062 L 8.5058594,25.847312 13,23.702781 Z"/>
 <path style="opacity:0.2" d="m 13,16.271484 -9,4.296875 v 4.517579 l 9,4.441406 V 25.066406 L 8.5058594,22.847656 13,20.703125 Z"/>
 <path style="fill:#ffc45a" d="m 13,15.271484 -9,4.296875 v 4.517579 l 9,4.441406 V 24.066406 L 8.5058594,21.847656 13,19.703125 Z"/>
 <path style="opacity:0.2" d="m 35,20.27114 9,4.296875 v 4.517579 L 35,33.527 V 29.066062 L 39.494141,26.847312 35,24.702781 Z"/>
 <path style="fill:#dd7456" d="m 35,19.27114 9,4.296875 v 4.517579 L 35,32.527 V 28.066062 L 39.494141,25.847312 35,23.702781 Z"/>
 <path style="opacity:0.2" d="m 35,16.271484 9,4.296875 v 4.517579 l -9,4.441406 V 25.066406 L 39.494141,22.847656 35,20.703125 Z"/>
 <path style="fill:#ffc45a" d="m 35,15.271484 9,4.296875 v 4.517579 l -9,4.441406 V 24.066406 L 39.494141,21.847656 35,19.703125 Z"/>
</svg>
