<svg xmlns="http://www.w3.org/2000/svg" width="48" height="48" version="1">
 <rect fill="#b2bfd9" width="40" height="40" x="4" y="4" rx="20" ry="20"/>
 <path style="fill:#8b9cbe" d="M 24 4.5 C 23.672606 4.5 23.346755 4.5096389 23.023438 4.5253906 A 3 3 0 0 0 25.296875 4.7285156 A 3 3 0 0 0 25.679688 4.5761719 C 25.125631 4.5293818 24.566667 4.5 24 4.5 z M 20.587891 4.8144531 C 18.920146 5.1064845 17.330357 5.6086907 15.839844 6.2929688 A 3 3 0 0 0 18.615234 6.8222656 A 3 3 0 0 0 20.587891 4.8144531 z M 26.394531 5.5488281 A 3 3 0 0 0 25.597656 5.6835938 A 3 3 0 0 0 23.630859 9.4433594 A 3 3 0 0 0 27.390625 11.410156 A 3 3 0 0 0 29.357422 7.6503906 A 3 3 0 0 0 26.394531 5.5488281 z M 30.316406 5.5566406 A 3 3 0 0 0 30.310547 7.3515625 A 3 3 0 0 0 34.070312 9.3164062 A 3 3 0 0 0 35.546875 8.2851562 C 33.968266 7.1260481 32.211104 6.2008756 30.316406 5.5566406 z M 13.6875 7.4492188 C 12.923664 7.9244355 12.187708 8.4384082 11.5 9.0117188 A 3 3 0 0 0 11.935547 8.9140625 A 3 3 0 0 0 13.6875 7.4492188 z M 19.714844 7.640625 A 3 3 0 0 0 18.916016 7.7753906 A 3 3 0 0 0 16.949219 11.535156 A 3 3 0 0 0 20.708984 13.501953 A 3 3 0 0 0 22.675781 9.7421875 A 3 3 0 0 0 19.714844 7.640625 z M 13.033203 9.7324219 A 3 3 0 0 0 12.234375 9.8691406 A 3 3 0 0 0 10.269531 13.628906 A 3 3 0 0 0 14.029297 15.59375 A 3 3 0 0 0 15.994141 11.833984 A 3 3 0 0 0 13.033203 9.7324219 z M 35.169922 10.136719 A 3 3 0 0 0 34.371094 10.271484 A 3 3 0 0 0 32.404297 14.03125 A 3 3 0 0 0 36.164062 15.998047 A 3 3 0 0 0 38.130859 12.238281 A 3 3 0 0 0 35.169922 10.136719 z M 38.986328 11.496094 A 3 3 0 0 0 39.083984 11.939453 A 3 3 0 0 0 40.554688 13.693359 C 40.077756 12.926148 39.562179 12.186546 38.986328 11.496094 z M 28.488281 12.228516 A 3 3 0 0 0 27.689453 12.363281 A 3 3 0 0 0 25.724609 16.123047 A 3 3 0 0 0 29.484375 18.089844 A 3 3 0 0 0 31.449219 14.330078 A 3 3 0 0 0 28.488281 12.228516 z M 8.2851562 12.453125 C 7.1260481 14.031734 6.2008756 15.788896 5.5566406 17.683594 A 3 3 0 0 0 7.3476562 17.6875 A 3 3 0 0 0 9.3144531 13.927734 A 3 3 0 0 0 8.2851562 12.453125 z M 21.806641 14.320312 A 3 3 0 0 0 21.007812 14.455078 A 3 3 0 0 0 19.042969 18.214844 A 3 3 0 0 0 22.802734 20.181641 A 3 3 0 0 0 24.767578 16.421875 A 3 3 0 0 0 21.806641 14.320312 z M 41.707031 15.839844 A 3 3 0 0 0 41.175781 18.619141 A 3 3 0 0 0 43.1875 20.591797 C 42.895573 18.922571 42.391867 17.331571 41.707031 15.839844 z M 15.125 16.412109 A 3 3 0 0 0 14.328125 16.548828 A 3 3 0 0 0 12.361328 20.308594 A 3 3 0 0 0 16.121094 22.273438 A 3 3 0 0 0 18.087891 18.513672 A 3 3 0 0 0 15.125 16.412109 z M 37.261719 16.816406 A 3 3 0 0 0 36.462891 16.951172 A 3 3 0 0 0 34.498047 20.710938 A 3 3 0 0 0 38.257812 22.677734 A 3 3 0 0 0 40.222656 18.917969 A 3 3 0 0 0 37.261719 16.816406 z M 8.4453125 18.505859 A 3 3 0 0 0 7.6464844 18.640625 A 3 3 0 0 0 5.6816406 22.400391 A 3 3 0 0 0 9.4414062 24.367188 A 3 3 0 0 0 11.40625 20.607422 A 3 3 0 0 0 8.4453125 18.505859 z M 30.580078 18.908203 A 3 3 0 0 0 29.783203 19.044922 A 3 3 0 0 0 27.816406 22.802734 A 3 3 0 0 0 31.576172 24.769531 A 3 3 0 0 0 33.542969 21.009766 A 3 3 0 0 0 30.580078 18.908203 z M 23.900391 21 A 3 3 0 0 0 23.101562 21.134766 A 3 3 0 0 0 21.134766 24.894531 A 3 3 0 0 0 24.894531 26.861328 A 3 3 0 0 0 26.861328 23.101562 A 3 3 0 0 0 23.900391 21 z M 4.5761719 22.320312 C 4.5293818 22.874369 4.5 23.433333 4.5 24 C 4.5 24.321489 4.5082457 24.641423 4.5234375 24.958984 A 3 3 0 0 0 4.7226562 22.697266 L 4.7265625 22.699219 A 3 3 0 0 0 4.5761719 22.320312 z M 43.474609 23.019531 A 3 3 0 0 0 43.269531 25.298828 A 3 3 0 0 0 43.423828 25.685547 C 43.470943 25.129598 43.5 24.568651 43.5 24 C 43.5 23.671297 43.490487 23.344125 43.474609 23.019531 z M 17.21875 23.091797 A 3 3 0 0 0 16.419922 23.228516 A 3 3 0 0 0 14.455078 26.988281 A 3 3 0 0 0 18.214844 28.953125 A 3 3 0 0 0 20.179688 25.193359 A 3 3 0 0 0 17.21875 23.091797 z M 39.355469 23.496094 A 3 3 0 0 0 38.556641 23.630859 A 3 3 0 0 0 36.589844 27.390625 A 3 3 0 0 0 40.349609 29.357422 A 3 3 0 0 0 42.316406 25.597656 A 3 3 0 0 0 39.355469 23.496094 z M 10.539062 25.185547 A 3 3 0 0 0 9.7402344 25.320312 A 3 3 0 0 0 7.7734375 29.080078 A 3 3 0 0 0 11.533203 31.046875 A 3 3 0 0 0 13.5 27.287109 A 3 3 0 0 0 10.539062 25.185547 z M 32.673828 25.587891 A 3 3 0 0 0 31.875 25.724609 A 3 3 0 0 0 29.910156 29.484375 A 3 3 0 0 0 33.669922 31.449219 A 3 3 0 0 0 35.634766 27.689453 A 3 3 0 0 0 32.673828 25.587891 z M 4.8125 27.40625 C 5.1041186 29.074682 5.6068524 30.6651 6.2910156 32.15625 A 3 3 0 0 0 6.8144531 29.376953 L 6.8203125 29.378906 A 3 3 0 0 0 4.8125 27.40625 z M 25.992188 27.679688 A 3 3 0 0 0 25.193359 27.816406 A 3 3 0 0 0 23.228516 31.576172 A 3 3 0 0 0 26.988281 33.541016 A 3 3 0 0 0 28.953125 29.78125 A 3 3 0 0 0 25.992188 27.679688 z M 19.310547 29.773438 A 3 3 0 0 0 18.513672 29.908203 A 3 3 0 0 0 16.546875 33.667969 A 3 3 0 0 0 20.306641 35.632812 A 3 3 0 0 0 22.273438 31.873047 A 3 3 0 0 0 19.310547 29.773438 z M 41.460938 30.175781 A 3 3 0 0 0 40.648438 30.310547 A 3 3 0 0 0 38.683594 34.070312 A 3 3 0 0 0 39.714844 35.546875 C 40.873952 33.968266 41.799124 32.211104 42.443359 30.316406 A 3 3 0 0 0 41.460938 30.175781 z M 12.630859 31.865234 A 3 3 0 0 0 11.832031 32 A 3 3 0 0 0 9.8671875 35.759766 A 3 3 0 0 0 13.626953 37.726562 A 3 3 0 0 0 15.591797 33.966797 A 3 3 0 0 0 12.630859 31.865234 z M 34.765625 32.267578 A 3 3 0 0 0 33.96875 32.404297 A 3 3 0 0 0 32.001953 36.164062 A 3 3 0 0 0 35.761719 38.128906 A 3 3 0 0 0 37.728516 34.369141 A 3 3 0 0 0 34.765625 32.267578 z M 7.4453125 34.304688 C 7.9214972 35.070845 8.4349317 35.81037 9.0097656 36.5 A 3 3 0 0 0 8.9121094 36.058594 A 3 3 0 0 0 7.4453125 34.304688 z M 28.085938 34.359375 A 3 3 0 0 0 27.287109 34.496094 A 3 3 0 0 0 25.320312 38.255859 A 3 3 0 0 0 29.080078 40.220703 A 3 3 0 0 0 31.046875 36.460938 A 3 3 0 0 0 28.085938 34.359375 z M 21.404297 36.453125 A 3 3 0 0 0 20.605469 36.587891 A 3 3 0 0 0 18.640625 40.347656 A 3 3 0 0 0 22.398438 42.314453 A 3 3 0 0 0 24.365234 38.554688 A 3 3 0 0 0 21.404297 36.453125 z M 14.724609 38.544922 A 3 3 0 0 0 13.925781 38.679688 A 3 3 0 0 0 12.451172 39.712891 C 14.029861 40.8724 15.786724 41.798849 17.681641 42.443359 A 3 3 0 0 0 17.685547 40.646484 A 3 3 0 0 0 17.685547 40.644531 A 3 3 0 0 0 14.724609 38.544922 z M 36.505859 38.984375 A 3 3 0 0 0 36.058594 39.083984 A 3 3 0 0 0 34.302734 40.556641 C 35.07208 40.078622 35.813675 39.561837 36.505859 38.984375 z M 30.152344 41.041016 A 3 3 0 0 0 29.378906 41.175781 A 3 3 0 0 0 27.404297 43.1875 C 29.074899 42.895671 30.6673 42.392385 32.160156 41.707031 A 3 3 0 0 0 30.152344 41.041016 z M 23.724609 43.134766 A 3 3 0 0 0 22.697266 43.267578 A 3 3 0 0 0 22.308594 43.423828 C 22.866434 43.471269 23.429365 43.5 24 43.5 C 24.328703 43.5 24.655875 43.490487 24.980469 43.474609 A 3 3 0 0 0 23.724609 43.134766 z"/>
 <path fill="#fff" opacity=".2" d="m24 4c-11.08 0-20 8.92-20 20 0 0.168-0.004 0.333 0 0.5 0.2644-10.846 9.088-19.5 20-19.5s19.736 8.654 20 19.5c0.004-0.167 0-0.332 0-0.5 0-11.08-8.92-20-20-20z"/>
 <path opacity=".2" d="m4.0117 24.5c-0.0041 0.167-0.0117 0.332-0.0117 0.5 0 11.08 8.92 20 20 20s20-8.92 20-20c0-0.168-0.008-0.333-0.012-0.5-0.264 10.846-9.076 19.5-19.988 19.5s-19.724-8.654-19.988-19.5z"/>
</svg>
