<svg xmlns="http://www.w3.org/2000/svg" width="48" height="48" version="1">
 <path fill="#ff766a" d="m44 40v-32c0-1.108-0.892-2-2-2h-36c-1.108 0-2 0.892-2 2v32c0 1.108 0.892 2 2 2h36c1.108 0 2-0.892 2-2z"/>
 <path fill-rule="evenodd" opacity=".2" d="m32 15c3.3137 0 6 2.6863 6 6s-2.6863 6-6 6-6-2.6863-6-6 2.6863-6 6-6z"/>
 <path fill="#fffee4" fill-rule="evenodd" d="m32 14c3.3137 0 6 2.6863 6 6s-2.6863 6-6 6-6-2.6863-6-6 2.6863-6 6-6z"/>
 <path fill="#fff" opacity=".2" d="m6 6c-1.108 0-2 0.892-2 2v1c0-1.108 0.892-2 2-2h36c1.108 0 2 0.892 2 2v-1c0-1.108-0.892-2-2-2z"/>
 <path fill="#d22f7a" d="m4 32v8c0 1.108 0.892 2 2 2h36c1.108 0 2-0.892 2-2v-8z"/>
 <path style="fill:#17191e" d="m 4,32 v -1.390108 c 0,0 2.8845,-2.316482 3.6955,-2.518491 0.81097,-0.202107 1.7687,-0.03759 2.7529,0.188328 0.98427,0.225177 2.4537,1.029502 2.9123,1.048535 0.45862,0.01945 1.2885,-0.04865 2.2528,-0.119546 0.96428,-0.06944 2.5609,-0.13344 3.0589,-0.12648 0.498,0 1.7412,0.08343 3.0665,0.181796 1.3252,0.09864 3.1455,0.263536 3.5584,0.309679 0.41299,0.04585 0.89844,0.130654 1.4494,0.223087 0.5509,0.09171 1.5046,0.230308 1.8421,0.268401 0.33739,0.03745 1.1196,0.168322 2.0272,0.269922 0.90758,0.101426 2.36,0.136213 2.7794,0.09864 0.41944,-0.03759 1.2986,-0.414608 2.2784,-0.762792 0.97975,-0.348037 2.0601,-0.666753 2.8818,-0.587943 C 39.37735,29.162187 44,30.609795 44,30.609795 v 1.389986 H 8.858 Z"/>
 <path opacity=".2" d="m4 40v1c0 1.108 0.892 2 2 2h36c1.108 0 2-0.892 2-2v-1c0 1.108-0.892 2-2 2h-36c-1.108 0-2-0.892-2-2z"/>
 <rect style="opacity:0.1;fill:#8b9cbe" width="40" height="1" x="4" y="32"/>
</svg>
