<svg xmlns="http://www.w3.org/2000/svg" width="48" height="48" version="1.1">
 <rect style="opacity:0.2" width="40" height="40" x="2" y="5" rx="2" ry="2"/>
 <path style="fill:#eb643d" d="m 4,4 h 36 c 1.108,0 2,0.892 2,2 v 24.51634 l -5.718954,7.970588 c -0.645931,0.900243 -2.117521,2.498445 -3.22549,2.490196 L 11.107843,40.813725 C 9.9998738,40.805477 6.3966625,40.775673 6.0849673,39.712418 L 2,25.777778 V 6 C 2,4.892 2.892,4 4,4 Z"/>
 <path style="fill:#7cc42e" d="m 4,4 c -0.161289,0 -0.3161676,0.021025 -0.4648438,0.058594 -0.00953,0.00226 -0.017868,0.00737 -0.027344,0.00977 -0.1435007,0.038528 -0.2819904,0.089979 -0.4121094,0.15625 L 28.529297,37.669922 35.943359,34.115234 12.105469,4 Z M 21.560547,4 42,31.021484 V 16.900391 L 30.679688,4 Z"/>
 <path style="fill:#2be0de" d="M 9.71875,20.460938 2,25.34375 V 42 c 0,1.108 0.892,2 2,2 h 36 c 1.108,0 2,-0.892 2,-2 V 28.442 Z"/>
 <path style="opacity:0.2" d="m 13.716797,18.991294 a 3.8190954,4.6231155 23.444494 0 0 -3.949219,2.984375 3.8190954,4.6231155 23.444494 0 0 1.666016,5.761719 3.8190954,4.6231155 23.444494 0 0 4.923828,-1.939453 4.945502,5.7524585 56.175374 0 0 2.646484,5.898437 4.945502,5.7524585 56.175374 0 0 6.652344,-1.988281 4.945502,5.7524585 22.173135 0 0 0.02734,0.921875 4.945502,5.7524585 22.173135 0 0 5.646484,4.22461 4.945502,5.7524585 22.173135 0 0 4.082031,-3.953125 3.8190954,4.6231155 23.444494 0 0 2.054688,2.835937 3.8190954,4.6231155 23.444494 0 0 5.34375,-2.722656 3.8190954,4.6231155 23.444494 0 0 -1.664063,-5.759766 3.8190954,4.6231155 23.444494 0 0 -5.34375,2.720703 3.8190954,4.6231155 23.444494 0 0 -0.05664,0.140625 4.945502,5.7524585 22.173135 0 0 -0.002,-0.03516 4.945502,5.7524585 22.173135 0 0 -5.648438,-4.222656 4.945502,5.7524585 22.173135 0 0 -3.023437,2.02539 4.945502,5.7524585 56.175374 0 0 -2.941407,-3.996093 4.945502,5.7524585 56.175374 0 0 -7.205078,2.734375 3.8190954,4.6231155 23.444494 0 0 -1.814453,-5.367188 3.8190954,4.6231155 23.444494 0 0 -1.394531,-0.263672 z"/>
 <ellipse style="fill:#8b9cbe" cx="21.126" cy="15.357" rx="3.819" ry="4.623" transform="rotate(23.444494)"/>
 <ellipse style="fill:#8b9cbe" cx="31.353" cy="17.126" rx="5.189" ry="5.533" transform="matrix(0.94096018,0.33851727,-0.46326751,0.88621849,0,0)"/>
 <ellipse style="fill:#8b9cbe" cx="27.615" cy="35.358" rx="5.189" ry="5.533" transform="matrix(0.9693782,-0.24557262,0.11153977,0.99375997,0,0)"/>
 <ellipse style="fill:#8b9cbe" cx="47.398" cy="10.504" rx="3.819" ry="4.623" transform="rotate(23.444494)"/>
 <path style="fill:#ffd520" d="M 28.099609,9.1080002 C 18.820325,11.6717 19.466457,16.147491 11.317989,16.041016 9.526279,16.041214 7.929291,16.834925 6.889235,18.074283 5.6903798,19.396659 6.072628,21.201912 6.2160111,22.479224 6.6589924,22.660967 8.158348,21.165535 8.608679,21.336777 15.828681,24.082236 26.848895,26.976095 35.364,27.871 c 3.760345,0.395199 6.636,-0.257719 9.075453,-0.826078 0.92892,-0.966367 1.500164,-2.25224 1.5,-3.667969 3.46e-4,-2.997312 -2.541657,-5.427387 -5.677734,-5.427734 -4.43345,-0.794931 -5.343691,-8.5495856 -12.16211,-8.8412188 z"/>
 <path style="fill:#5e5e5e" d="m 22.478906,15.500033 c -0.257001,0.003 -0.462616,0.214918 -0.458609,0.472633 0.155925,2.18007 -0.948506,2.039588 -2.032014,2.039588 -0.0157,-8e-4 -0.03143,-8e-4 -0.04713,0 -0.618728,0.03151 -0.571598,0.962231 0.04713,0.930723 1.075847,0 2.032014,0.02198 2.032014,2.085035 -0.0089,0.629317 0.936968,0.629317 0.928093,0 -0.160003,-2.230621 0.983584,-2.085035 2.080957,-2.085035 0.627539,0.0089 0.627539,-0.939623 0,-0.930723 -1.573274,0 -2.080957,0.03662 -2.080957,-2.039588 0.0041,-0.261988 -0.208224,-0.475709 -0.469484,-0.472633 z"/>
 <path style="opacity:0.2;fill:#8b9cbe" d="M 4,4 C 2.892,4 2,4.892 2,6 V 7 C 2,5.892 2.892,5 4,5 h 36 c 1.108,0 2,0.892 2,2 V 6 C 42,4.892 41.108,4 40,4 Z"/>
 <path style="fill:#5e5e5e" d="m 31.478906,15.500033 c -0.257001,0.003 -0.462616,0.214918 -0.458609,0.472633 0.155925,2.18007 -0.948506,2.039588 -2.032014,2.039588 -0.0157,-8e-4 -0.03143,-8e-4 -0.04713,0 -0.618728,0.03151 -0.571598,0.962231 0.04713,0.930723 1.075847,0 2.032014,0.02198 2.032014,2.085035 -0.0089,0.629317 0.936968,0.629317 0.928093,0 -0.160003,-2.230621 0.983584,-2.085035 2.080957,-2.085035 0.627539,0.0089 0.627539,-0.939623 0,-0.930723 -1.573274,0 -2.080957,0.03662 -2.080957,-2.039588 0.0041,-0.261988 -0.208224,-0.475709 -0.469484,-0.472633 z"/>
 <path style="opacity:0.1" d="m 11.521484,28.474609 a 2.0002,2.0002 0 0 0 -1.519531,3.292969 L 20.068359,44 h 5.179688 L 13.089844,29.224609 a 2.0002,2.0002 0 0 0 -1.56836,-0.75 z m 24.658204,5.478516 a 2.0002,2.0002 0 0 0 -1.519532,3.292969 l 5.541016,6.734375 C 41.212648,43.878902 42,43.039115 42,42 V 39.873047 L 37.748047,34.705078 A 2.0002,2.0002 0 0 0 36.179688,33.953125 Z M 6.3457031,34.714844 A 2.0002,2.0002 0 0 0 4.8261719,38.007812 L 9.755859,44 H 14.9375 L 7.9160156,35.466797 A 2.0002,2.0002 0 0 0 6.3457031,34.714844 Z m 20.3964849,0 a 2.0002,2.0002 0 0 0 -1.519532,3.292968 L 30.152344,44 h 5.179687 l -7.021484,-8.533203 a 2.0002,2.0002 0 0 0 -1.568359,-0.751953 z"/>
 <path style="opacity:0.2;fill:#8b9cbe" d="m 28.099609,9.1074219 c -9.279284,2.5637001 -8.632782,7.0400691 -16.78125,6.9335941 -1.79171,1.98e-4 -3.3896311,0.793845 -4.4296871,2.033203 -0.7937762,0.87556 -0.8767378,1.955402 -0.8125,2.960937 0.067963,-0.689763 0.2796635,-1.373201 0.8125,-1.960937 1.040056,-1.239358 2.6379771,-2.033005 4.4296871,-2.033203 8.148468,0.106475 7.501966,-4.369894 16.78125,-6.933594 6.818419,0.291634 7.72866,8.046866 12.16211,8.841797 2.966986,3.28e-4 5.398655,2.176508 5.652343,4.949219 0.01716,-0.171294 0.02541,-0.345831 0.02539,-0.521485 3.46e-4,-2.997312 -2.541657,-5.427387 -5.677734,-5.427734 -4.43345,-0.794931 -5.343691,-8.5501639 -12.16211,-8.8417971 z"/>
</svg>
