<svg xmlns="http://www.w3.org/2000/svg" width="48" height="48" version="1">
 <rect style="opacity:0.2" width="36" height="36" x="8" y="5" rx="1.8" ry="1.8"/>
 <rect style="fill:#b2bfd9" width="36" height="36" x="8" y="4" rx="1.8" ry="1.8"/>
 <path style="opacity:0.2;fill:#8b9cbe" d="M 9.8012662,4 C 8.8040663,4 8.000485,4.8035813 8.000485,5.8007812 v 1 C 8.000485,5.8035813 8.8040663,5 9.8012662,5 H 42.199704 c 0.9972,0 1.800781,0.8035813 1.800781,1.8007812 v -1 C 44.000485,4.8035813 43.196904,4 42.199704,4 Z"/>
 <path style="fill:#2d5de1;fill-rule:evenodd" d="M 44.000485,7.5996094 33.199704,11.009766 26.000485,24.652344 V 40 h 16.199219 c 0.9972,0 1.800781,-0.803581 1.800781,-1.800781 z"/>
 <path style="opacity:0.1;fill-rule:evenodd" d="M 44.000485,7.5996094 33.199704,11.009766 26.000485,24.652344 v 1 L 33.199704,12.009766 44.000485,8.599609 Z"/>
 <path style="fill:#e34ae9;fill-rule:evenodd" d="M 22.400876,19.537109 8.000485,29.767578 v 8.431641 C 8.000485,39.196419 8.8040663,40 9.8012662,40 H 26.000485 42.199704 c 0.9972,0 1.800781,-0.803581 1.800781,-1.800781 V 28.0625 L 33.199704,34.884766 26.000485,24.652344 Z"/>
 <path style="opacity:0.1;fill-rule:evenodd" d="M 22.400876,19.537109 8.000485,29.767578 v 1 l 14.400391,-10.230469 3.599609,5.115235 7.199219,10.232422 10.800781,-6.822266 v -1 L 33.199704,34.884766 26.000485,24.652344 Z"/>
 <path style="opacity:0.1" d="m 6.000485,4.999515 a 2.0002,2.0002 0 1 0 0,4 h 4 a 2.0002,2.0002 0 1 0 0,-4 z m 0,8 a 2.0002,2.0002 0 1 0 0,4 h 4 a 2.0002,2.0002 0 1 0 0,-4 z m 0,8 a 2.0002,2.0002 0 1 0 0,4 h 4 a 2.0002,2.0002 0 1 0 0,-4 z m 0,8 a 2.0002,2.0002 0 1 0 0,4 h 4 a 2.0002,2.0002 0 1 0 0,-4 z m 11.970703,7.972656 a 2.0002,2.0002 0 0 0 -1.970703,2.027344 v 4 a 2.0002,2.0002 0 1 0 4,0 v -4 a 2.0002,2.0002 0 0 0 -2.029297,-2.027344 z m 8,0 a 2.0002,2.0002 0 0 0 -1.970703,2.027344 v 4 a 2.0002,2.0002 0 1 0 4,0 v -4 a 2.0002,2.0002 0 0 0 -2.029297,-2.027344 z m 8,0 a 2.0002,2.0002 0 0 0 -1.970703,2.027344 v 4 a 2.0002,2.0002 0 1 0 4,0 v -4 a 2.0002,2.0002 0 0 0 -2.029297,-2.027344 z m 8,0 a 2.0002,2.0002 0 0 0 -1.970703,2.027344 v 4 a 2.0002,2.0002 0 1 0 4,0 v -4 a 2.0002,2.0002 0 0 0 -2.029297,-2.027344 z"/>
 <path style="fill:none;stroke:#4f4f4f;stroke-width:4;stroke-linecap:round" d="m 6.000485,6 h 4"/>
 <path style="fill:none;stroke:#4f4f4f;stroke-width:4;stroke-linecap:round" d="m 6.000485,30 h 4"/>
 <path style="fill:none;stroke:#4f4f4f;stroke-width:4;stroke-linecap:round" d="m 6.000485,22 h 4"/>
 <path style="fill:none;stroke:#4f4f4f;stroke-width:4;stroke-linecap:round" d="m 6.000485,14 h 4"/>
 <path style="fill:none;stroke:#4f4f4f;stroke-width:4;stroke-linecap:round" d="M 42.000485,42 V 38"/>
 <path style="fill:none;stroke:#4f4f4f;stroke-width:4;stroke-linecap:round" d="M 34.000485,42 V 38"/>
 <path style="fill:none;stroke:#4f4f4f;stroke-width:4;stroke-linecap:round" d="M 26.000485,42 V 38"/>
 <path style="fill:none;stroke:#4f4f4f;stroke-width:4;stroke-linecap:round" d="M 18.000485,42 V 38"/>
</svg>
