<svg xmlns="http://www.w3.org/2000/svg" width="48" height="48" version="1">
 <rect style="opacity:0.2" width="40" height="40" x="4" y="5" rx="12" ry="12"/>
 <rect style="fill:#4f4f4f" width="40" height="40" x="4" y="4" rx="12" ry="12"/>
 <path style="opacity:0.1;fill:#8b9cbe" d="M 16,4 C 9.352,4 4,9.352 4,16 v 1 C 4,10.352 9.352,5 16,5 h 16 c 6.648,0 12,5.352 12,12 V 16 C 44,9.352 38.648,4 32,4 Z"/>
 <path style="opacity:0.2" d="m 35,16 v 18 h 3 V 16 Z m -22,6 a 3,3 0 0 0 -3,3 3,3 0 0 0 3,3 3,3 0 0 0 3,-3 3,3 0 0 0 -3,-3 z m 9,0 a 3,3 0 0 0 -3,3 3,3 0 0 0 3,3 3,3 0 0 0 3,-3 3,3 0 0 0 -3,-3 z m 9,0 a 3,3 0 0 0 -3,3 3,3 0 0 0 3,3 3,3 0 0 0 3,-3 3,3 0 0 0 -3,-3 z"/>
 <circle style="fill:#8b9cbe" cx="22" cy="24" r="3"/>
 <circle style="fill:#8b9cbe" cx="13" cy="24" r="3"/>
 <circle style="fill:#8b9cbe" cx="31" cy="24" r="3"/>
 <rect style="fill:#5279ff" width="3" height="18" x="35" y="15"/>
 <rect style="opacity:0.1;fill:#8b9cbe" width="3" height="1" x="35" y="15"/>
</svg>
