<svg xmlns="http://www.w3.org/2000/svg" width="48" height="48" version="1.1">
 <path style="opacity:0.2" d="m 9.0097656,5 c -0.476518,0 -0.8515625,0.5053945 -0.8515625,1.1503906 0,0.8043857 1.1119972,3.9125014 2.6289059,7.3515624 1.349,3.058386 1.669984,3.935855 1.5,4.099609 -0.177595,0.171089 -0.550865,-0.423584 -1.779297,-2.832031 -1.1815736,-2.31659 -1.4940264,-2.692147 -1.9843745,-2.384765 -0.446628,0.279976 -0.417351,0.680705 0.1953125,2.634765 0.5712186,1.821879 0.7152196,2.773438 0.4179688,2.773438 -0.3021629,0 -1.2409624,-0.957583 -3.0839844,-3.146485 -1.9286097,-2.290552 -2.4456398,-2.67252 -2.8574219,-2.109375 -0.3261441,0.446029 -0.2749283,0.726423 0.3769531,2.035157 0.4593662,0.922233 0.9510577,1.547919 2.1464844,2.734375 1.6806494,1.668036 2.8990522,2.470859 4.949219,3.255859 0.712529,0.272824 1.40431,0.601805 1.537109,0.730469 0.145118,0.140618 3.43427,1.507609 4.615234,2.707031 h 1.712891 c -0.0011,-0.02998 0.02663,-0.02607 0.07422,0 H 19 v -1.753906 l -3.755859,-6.048828 c -0.14412,-0.144121 0.01991,-1.200543 0.595703,-3.828125 0.639887,-2.9200476 -0.05626,-5.4114136 -1.21875,-4.3593754 -0.603407,0.546076 -0.841455,1.8829029 -0.859375,4.8437504 -0.01014,1.674632 -0.07922,2.77641 -0.177735,2.810546 -0.246103,0.0853 -0.805054,-1.454315 -1.53125,-4.210937 C 11.692462,10.085545 11.169517,8.3674758 10.890625,7.6347656 10.369164,6.2647822 9.4659012,5 9.0097656,5 Z M 38.990234,5 c -0.456135,0 -1.359398,1.2647822 -1.880859,2.6347656 -0.278892,0.7327102 -0.801836,2.4507794 -1.162109,3.8183594 -0.726196,2.756622 -1.285147,4.296238 -1.53125,4.210937 -0.09851,-0.03414 -0.167595,-1.135914 -0.177735,-2.810546 -0.01792,-2.9608475 -0.255968,-4.2976744 -0.859375,-4.8437504 -1.16249,-1.0520382 -1.858637,1.4393278 -1.21875,4.3593754 0.575793,2.627582 0.739823,3.684004 0.595703,3.828125 L 29,22.246094 V 24 h 0.392578 c 0.04759,-0.02607 0.07532,-0.02998 0.07422,0 h 1.712891 c 1.180964,-1.199422 4.470116,-2.566413 4.615234,-2.707031 0.132799,-0.128664 0.82458,-0.457645 1.537109,-0.730469 2.050167,-0.785 3.26857,-1.587823 4.949219,-3.255859 1.195427,-1.186456 1.687118,-1.812142 2.146484,-2.734375 0.651882,-1.308734 0.703098,-1.589128 0.376954,-2.035157 -0.411783,-0.563145 -0.928813,-0.181177 -2.857422,2.109375 -1.843022,2.188902 -2.781822,3.146485 -3.083985,3.146485 -0.297251,0 -0.15325,-0.951559 0.417969,-2.773438 0.612663,-1.95406 0.64194,-2.354789 0.195312,-2.634765 -0.490348,-0.307382 -0.802801,0.06817 -1.984374,2.384765 -1.228432,2.408447 -1.601702,3.00312 -1.779297,2.832031 -0.169984,-0.163754 0.151,-1.041223 1.5,-4.099609 C 38.7298,10.062892 39.841797,6.9547763 39.841797,6.1503906 39.841797,5.5053945 39.466752,5 38.990234,5 Z"/>
 <circle style="opacity:0.2" cx="24" cy="41" r="4"/>
 <path style="fill:#f5a34d" d="m 38.990235,4 c 0.476518,0 0.851563,0.5053945 0.851563,1.1503906 0,0.8043857 -1.111997,3.9125009 -2.628906,7.3515624 -1.349,3.058386 -1.669984,3.935855 -1.5,4.099609 0.177595,0.171089 0.550865,-0.423584 1.779297,-2.832031 1.181574,-2.31659 1.494026,-2.692147 1.984374,-2.384765 0.446628,0.279976 0.417351,0.680705 -0.195312,2.634765 -0.571219,1.821879 -0.71522,2.773438 -0.417969,2.773438 0.302163,0 1.240963,-0.957583 3.083985,-3.146485 1.928609,-2.290552 2.445639,-2.67252 2.857421,-2.109375 0.326145,0.446029 0.274929,0.726423 -0.376953,2.035157 -0.459366,0.922233 -0.951057,1.547919 -2.146484,2.734375 -1.680649,1.668036 -2.899052,2.470859 -4.949219,3.255859 -0.712529,0.272824 -1.40431,0.601805 -1.537109,0.730469 C 35.649805,20.433587 32.360653,21.800578 31.179689,23 h -1.712891 c 0.0011,-0.02998 -0.02663,-0.02607 -0.07422,0 H 29 v -1.753906 l 3.755859,-6.048828 c 0.14412,-0.144121 -0.01991,-1.200543 -0.595703,-3.828125 -0.639887,-2.9200472 0.05626,-5.4114136 1.21875,-4.3593754 0.603407,0.546076 0.841455,1.8829033 0.859375,4.8437504 0.01014,1.674632 0.07922,2.776409 0.177735,2.810546 0.246103,0.0853 0.805054,-1.454315 1.53125,-4.210937 0.360273,-1.3675804 0.883218,-3.0856492 1.16211,-3.8183594 C 37.630837,5.2647822 38.5341,4 38.990235,4 Z"/>
 <circle style="fill:#af5d2d" cx="24" cy="40" r="4"/>
 <path style="fill:#f5a34d" d="M 9.0097656 4 C 8.5332476 4 8.1582031 4.5053945 8.1582031 5.1503906 C 8.1582031 5.9547763 9.2701999 9.0628915 10.787109 12.501953 C 12.136109 15.560339 12.457093 16.437808 12.287109 16.601562 C 12.109514 16.772651 11.736244 16.177978 10.507812 13.769531 C 9.3262379 11.452941 9.0137856 11.077384 8.5234375 11.384766 C 8.0768095 11.664742 8.1060865 12.065471 8.71875 14.019531 C 9.2899686 15.84141 9.4339697 16.792969 9.1367188 16.792969 C 8.834556 16.792969 7.8957564 15.835386 6.0527344 13.646484 C 4.1241247 11.355932 3.6070946 10.973964 3.1953125 11.537109 C 2.8691684 11.983138 2.9203842 12.263532 3.5722656 13.572266 C 4.0316318 14.494499 4.5233233 15.120185 5.71875 16.306641 C 7.3993994 17.974677 8.6178024 18.7775 10.667969 19.5625 C 11.380498 19.835324 12.072279 20.164305 12.205078 20.292969 C 12.350196 20.433587 15.639348 21.800578 16.820312 23 L 18.533203 23 C 18.532103 22.97002 18.559832 22.97393 18.607422 23 L 19 23 L 19 21.246094 L 15.244141 15.197266 C 15.100021 15.053145 15.264051 13.996723 15.839844 11.369141 C 16.479731 8.4490938 15.783584 5.9577274 14.621094 7.0097656 C 14.017687 7.5558416 13.779639 8.8926689 13.761719 11.853516 C 13.751579 13.528148 13.682498 14.629925 13.583984 14.664062 C 13.337881 14.749363 12.77893 13.209747 12.052734 10.453125 C 11.692462 9.0855446 11.169517 7.3674758 10.890625 6.6347656 C 10.369164 5.2647822 9.4659012 4 9.0097656 4 z"/>
 <path style="fill:#8b9cbe;opacity:0.2" d="M 9.0097656 4 C 8.5332476 4 8.1582031 4.5053945 8.1582031 5.1503906 C 8.1582031 5.2706765 8.1909138 5.4571093 8.2382812 5.6738281 C 8.3709603 5.2753966 8.6607947 5 9.0097656 5 C 9.4659012 5 10.369164 6.2647822 10.890625 7.6347656 C 11.169517 8.3674758 11.692462 10.085545 12.052734 11.453125 C 12.77893 14.209747 13.337881 15.749363 13.583984 15.664062 C 13.682499 15.629927 13.751579 14.528148 13.761719 12.853516 C 13.779639 9.8926681 14.017687 8.5558416 14.621094 8.0097656 C 15.39802 7.3066572 15.953978 8.2018615 16.054688 9.734375 C 16.174227 7.6194902 15.555324 6.1642995 14.621094 7.0097656 C 14.017687 7.5558416 13.779639 8.8926681 13.761719 11.853516 C 13.751579 13.528148 13.682498 14.629927 13.583984 14.664062 C 13.337881 14.749365 12.77893 13.209747 12.052734 10.453125 C 11.692462 9.0855446 11.169517 7.3674758 10.890625 6.6347656 C 10.369164 5.2647822 9.4659012 4 9.0097656 4 z M 38.990234 4 C 38.534099 4 37.630836 5.2647822 37.109375 6.6347656 C 36.830483 7.3674758 36.307539 9.0855446 35.947266 10.453125 C 35.22107 13.209747 34.662119 14.749364 34.416016 14.664062 C 34.317501 14.629926 34.248421 13.528148 34.238281 11.853516 C 34.220361 8.8926681 33.982313 7.5558416 33.378906 7.0097656 C 32.444676 6.1642995 31.825773 7.6194902 31.945312 9.734375 C 32.046022 8.2018615 32.60198 7.3066572 33.378906 8.0097656 C 33.982313 8.5558416 34.220361 9.8926681 34.238281 12.853516 C 34.248421 14.528148 34.317506 15.629922 34.416016 15.664062 C 34.662119 15.749363 35.22107 14.209747 35.947266 11.453125 C 36.307539 10.085545 36.830483 8.3674758 37.109375 7.6347656 C 37.630836 6.2647822 38.534099 5 38.990234 5 C 39.339205 5 39.62904 5.2753966 39.761719 5.6738281 C 39.809086 5.4571093 39.841797 5.2706765 39.841797 5.1503906 C 39.841797 4.5053945 39.466752 4 38.990234 4 z M 8.875 11.302734 C 8.7582903 11.274555 8.6460245 11.30792 8.5234375 11.384766 C 8.2246361 11.572074 8.160916 11.855705 8.3203125 12.580078 C 8.3705639 12.504356 8.4352524 12.440046 8.5234375 12.384766 C 9.0137856 12.077384 9.3262389 12.452941 10.507812 14.769531 C 11.736244 17.177978 12.109514 17.772651 12.287109 17.601562 C 12.376171 17.515765 12.302657 17.174998 12.044922 16.486328 C 11.796889 16.218532 11.367809 15.455628 10.507812 13.769531 C 9.6216323 12.032089 9.2251292 11.387273 8.875 11.302734 z M 39.125 11.302734 C 38.774871 11.387273 38.378367 12.032089 37.492188 13.769531 C 36.632191 15.455628 36.203111 16.218532 35.955078 16.486328 C 35.697343 17.174998 35.623829 17.515765 35.712891 17.601562 C 35.890486 17.772652 36.263756 17.177978 37.492188 14.769531 C 38.673761 12.452936 38.986215 12.077384 39.476562 12.384766 C 39.564748 12.440046 39.629436 12.504356 39.679688 12.580078 C 39.839084 11.855705 39.775364 11.572074 39.476562 11.384766 C 39.353975 11.30792 39.24171 11.274555 39.125 11.302734 z M 3.5449219 11.306641 C 3.4084089 11.314234 3.298258 11.396323 3.1953125 11.537109 C 2.971804 11.842776 2.9456253 12.092585 3.1484375 12.626953 C 3.1673923 12.597138 3.1726331 12.568125 3.1953125 12.537109 C 3.6070946 11.973964 4.1241247 12.355932 6.0527344 14.646484 C 7.8957564 16.835386 8.8345558 17.792969 9.1367188 17.792969 C 9.3127182 17.792969 9.316015 17.419848 9.1855469 16.769531 C 9.1695184 16.77815 9.1567509 16.792969 9.1367188 16.792969 C 8.8345558 16.792969 7.8957564 15.835386 6.0527344 13.646484 C 4.6062771 11.92857 3.9544607 11.283862 3.5449219 11.306641 z M 44.455078 11.306641 C 44.045539 11.283862 43.393722 11.92857 41.947266 13.646484 C 40.104244 15.835386 39.165444 16.792969 38.863281 16.792969 C 38.843249 16.792969 38.830482 16.77815 38.814453 16.769531 C 38.683985 17.419848 38.687282 17.792969 38.863281 17.792969 C 39.165444 17.792969 40.104244 16.835386 41.947266 14.646484 C 43.875875 12.355932 44.392905 11.973964 44.804688 12.537109 C 44.827367 12.568125 44.832608 12.597138 44.851562 12.626953 C 45.054375 12.092585 45.028196 11.842776 44.804688 11.537109 C 44.701742 11.396323 44.591591 11.314234 44.455078 11.306641 z M 15.269531 15.238281 C 15.179143 15.828296 15.173295 16.12642 15.244141 16.197266 L 19 22.246094 L 19 21.246094 L 15.269531 15.238281 z M 32.730469 15.238281 L 29 21.246094 L 29 22.246094 L 32.755859 16.197266 C 32.826705 16.12642 32.820857 15.828296 32.730469 15.238281 z"/>
 <path style="fill:#af5d2d" d="m 32,24 c 0,4.418278 -8,14.4 -8,14.4 0,0 -8,-9.981722 -8,-14.4 0,-4.418278 3.581722,-8 8,-8 4.418278,0 8,3.581722 8,8 z"/>
 <path style="opacity:0.1;fill:#8b9cbe" d="M 24 16 C 19.581722 16 16 19.581722 16 24 C 16 24.102939 16.02472 24.223249 16.033203 24.332031 C 16.373213 20.22692 19.807113 17 24 17 C 28.192887 17 31.626787 20.22692 31.966797 24.332031 C 31.97528 24.223249 32 24.102939 32 24 C 32 19.581722 28.418278 16 24 16 z"/>
 <g transform="matrix(-1,0,0,1,47.953035,0)">
  <ellipse id="ellipse911" style="fill:#8b9cbe" cx="5.86" cy="31.772" rx="1.947" ry="2.791" transform="matrix(0.80749798,-0.58987034,0.51619146,0.85647322,0,0)"/>
  <ellipse id="ellipse913" style="fill:#17191e" cx="5.586" cy="32.6" rx="1.222" ry="1.752" transform="matrix(0.80749798,-0.58987034,0.51619146,0.85647322,0,0)"/>
 </g>
 <ellipse style="fill:#8b9cbe" cx="5.86" cy="31.772" rx="1.947" ry="2.791" transform="matrix(0.80749798,-0.58987034,0.51619146,0.85647322,0,0)"/>
 <ellipse id="ellipse909" style="fill:#17191e" cx="5.586" cy="32.6" rx="1.222" ry="1.752" transform="matrix(0.80749798,-0.58987034,0.51619146,0.85647322,0,0)"/>
 <path style="opacity:0.2" d="m 24,26.009595 c -0.99743,-0.06959 -1.75591,0.231948 -2.740234,1.148467 C 18.943654,29.774454 16,36.014158 16,38.136112 c 0.09989,3.047271 1.028161,5.011919 2.984375,4.855146 C 21,43.071202 22.433591,41.544216 24,41.509818 c 1.566409,0.0344 3,1.561384 5.015625,1.48144 C 30.971839,43.148031 31.90011,41.183383 32,38.136112 32,36.014158 29.056346,29.774454 26.740234,27.158062 25.75591,26.241543 24.99743,25.940002 24,26.009595 Z"/>
 <path style="fill:#cf7642" d="m 24,25.009595 c -0.99743,-0.06959 -1.75591,0.231948 -2.740234,1.148467 C 18.943654,28.774454 16,35.014158 16,37.136112 c 0.09989,3.047271 1.028161,5.011919 2.984375,4.855146 C 21,42.071202 22.433591,40.544216 24,40.509818 c 1.566409,0.0344 3,1.561384 5.015625,1.48144 C 30.971839,42.148031 31.90011,40.183383 32,37.136112 32,35.014158 29.056346,28.774454 26.740234,26.158062 25.75591,25.241543 24.99743,24.940002 24,25.009595 Z"/>
 <path style="opacity:0.5" d="m 19.274983,39.729277 c -0.891703,-0.452501 -1.327207,-1.460251 -1.269993,-2.938735 0.02565,-0.662715 0.120497,-1.229337 0.21078,-1.259156 0.09028,-0.02982 0.294203,0.311949 0.453154,0.759487 0.36019,1.014138 1.034657,1.796689 1.875226,2.175734 0.950207,0.428483 1.051525,0.994459 0.243896,1.36244 -0.55227,0.251632 -0.860661,0.231295 -1.513063,-0.09977 z"/>
 <path style="opacity:0.5" d="m 28.699652,39.729277 c 0.891703,-0.452501 1.327207,-1.460251 1.269993,-2.938735 -0.02565,-0.662715 -0.120497,-1.229337 -0.21078,-1.259156 -0.09028,-0.02982 -0.294203,0.311949 -0.453154,0.759487 -0.36019,1.014138 -1.034657,1.796689 -1.875226,2.175734 -0.950207,0.428483 -1.051525,0.994459 -0.243896,1.36244 0.55227,0.251632 0.860661,0.231295 1.513063,-0.09977 z"/>
 <path style="opacity:0.1" d="m 24,14 c -5.266667,0 -8.188855,2.216621 -9.597656,4.470703 C 12.993543,20.724785 13,23 13,23 a 1.0001,1.0001 0 0 0 0.05273,0.332031 C 13.020049,23.547221 13,23.76996 13,24 c 0,1.656854 0.895431,3 2,3 h 0.666016 0.667968 C 16.703318,27 17,26.554 17,26 v -2 -2 c 0,-0.554 -0.296682,-1 -0.666016,-1 h -0.667968 -0.257813 c 0.160604,-0.465183 0.369651,-0.958999 0.689453,-1.470703 C 17.188855,17.783379 19.266667,16 24,16 c 4.733333,0 6.811145,1.783379 7.902344,3.529297 0.319815,0.511704 0.528848,1.00552 0.689453,1.470703 H 32.333984 31.666016 C 31.296682,21 31,21.446 31,22 v 2 2 c 0,0.554 0.296682,1 0.666016,1 H 32.333984 33 c 1.104569,0 2,-1.343146 2,-3 0,-0.22935 -0.02024,-0.451418 -0.05273,-0.666016 A 1.0001,1.0001 0 0 0 35,23 c 0,0 0.0065,-2.275215 -1.402344,-4.529297 C 32.188855,16.216621 29.266667,14 24,14 Z"/>
 <path style="fill:none;stroke:#5b5b5b;stroke-width:2;stroke-linecap:round;stroke-linejoin:round" d="m 14,22 c 0,0 0,-8 10,-8 10,0 10,8 10,8"/>
 <path style="fill:#4b4b4b" d="m 15,20 c -1.104569,0 -2,1.343146 -2,3 0,1.656854 0.895431,3 2,3 h 0.666667 0.666666 C 16.702667,26 17,25.554 17,25 v -2 -2 c 0,-0.554 -0.297333,-1 -0.666667,-1 h -0.666666 z"/>
 <path style="fill:#4b4b4b" d="m 33,20 c 1.104569,0 2,1.343146 2,3 0,1.656854 -0.895431,3 -2,3 H 32.333333 31.666667 C 31.297333,26 31,25.554 31,25 v -2 -2 c 0,-0.554 0.297333,-1 0.666667,-1 h 0.666666 z"/>
 <path style="opacity:0.1;fill:#8b9cbe" d="M 24 25.009766 C 23.00257 24.940176 22.24409 25.241684 21.259766 26.158203 C 18.943654 28.774595 16 35.014765 16 37.136719 C 16.006109 37.323074 16.024759 37.491902 16.037109 37.669922 C 16.380971 35.215815 19.094284 29.604436 21.259766 27.158203 C 22.24409 26.241684 23.00257 25.940176 24 26.009766 C 24.99743 25.940173 25.75591 26.241684 26.740234 27.158203 C 28.905716 29.604436 31.619029 35.215815 31.962891 37.669922 C 31.975241 37.491902 31.993891 37.323074 32 37.136719 C 32 35.014765 29.056346 28.774595 26.740234 26.158203 C 25.75591 25.241684 24.99743 24.940173 24 25.009766 z"/>
</svg>
