<svg xmlns="http://www.w3.org/2000/svg" width="48" height="48" version="1.1">
 <circle style="opacity:0.2" cx="25" cy="25" r="19"/>
 <circle style="fill:#5364f6" cx="25" cy="24" r="19"/>
 <path style="opacity:0.1;fill:#8b9cbe" d="M 25 5 A 19 19 0 0 0 6 24 A 19 19 0 0 0 6.0214844 24.591797 A 19 19 0 0 1 25 6 A 19 19 0 0 1 43.978516 24.408203 A 19 19 0 0 0 44 24 A 19 19 0 0 0 25 5 z"/>
 <path style="opacity:0.1" d="M 11.492188,4.9996236 A 2.0002,2.0002 0 0 0 9.5664062,6.4879048 l -4.5,17.0000002 a 2.0002,2.0002 0 1 0 3.8671876,1.023438 l 2.1757812,-8.220703 1.421875,8.05664 a 2.0002,2.0002 0 0 0 3.648438,0.738282 l 5.634765,-8.708985 -1.283203,7.275391 a 2.0002,2.0002 0 1 0 3.9375,0.695312 l 3,-17.0000002 A 2.0002,2.0002 0 0 0 23.820312,5.9136861 L 15.583984,18.642202 13.46875,6.6519674 A 2.0002,2.0002 0 0 0 11.492188,4.9996236 Z M 21.505859,27.999624 a 2.0002,2.0002 0 0 0 -1.964843,1.623047 l -2.5,13 a 2.0002,2.0002 0 1 0 3.927734,0.753906 l 0.841797,-4.376953 h 3.195312 a 2.0002,2.0002 0 1 0 0,-4 h -2.425781 l 0.578125,-3 h 2.847656 a 2.0002,2.0002 0 1 0 0,-4 z m 11.00586,0 a 2.0002,2.0002 0 0 0 -1.964844,1.623047 l -2.5,13 a 2.0002,2.0002 0 0 0 1.964844,2.376953 h 5.49414 a 2.0002,2.0002 0 1 0 0,-4 h -3.074218 l 0.384765,-2 h 3.189453 a 2.0002,2.0002 0 1 0 0,-4 h -2.419921 l 0.578124,-3 h 2.847657 a 2.0002,2.0002 0 1 0 0,-4 z"/>
 <path style="fill:none;stroke:#17191e;stroke-width:4;stroke-linecap:round;stroke-linejoin:round" d="m 7,23 4.5,-17 3,17 11,-17 -3,17"/>
 <path style="fill:none;stroke:#17191e;stroke-width:4;stroke-linecap:round;stroke-linejoin:round" d="m 25.005542,36 h -4.759473 m -1.240527,6 2.5,-13 h 4.5"/>
 <path style="fill:none;stroke:#17191e;stroke-width:4;stroke-linecap:round;stroke-linejoin:round" d="m 36.005542,36 h -4.753931 m 5.759473,-7 h -4.5 l -2.5,13 h 5.494458"/>
</svg>
