<svg xmlns="http://www.w3.org/2000/svg" width="48" height="48" version="1">
 <defs>
  <linearGradient id="linearGradient4721" x1="24.756" x2="24.102" y1="26.512" y2="5.924" gradientTransform="matrix(.6875 0 0 .66667 7.5 4)" gradientUnits="userSpaceOnUse">
   <stop offset="0" stop-color="#fff"/>
   <stop offset="1" stop-color="#fff" stop-opacity="0"/>
  </linearGradient>
 </defs>
 <rect fill="#b2bfd9" width="32" height="40" x="-40" y="3" rx="2" ry="2" transform="scale(-1,1)"/>
 <rect fill="url(#linearGradient4721)" opacity=".15" width="22" height="14" x="13" y="8" rx=".412" ry=".4"/>
 <rect style="fill:#333333" width="20" height="12" x="14" y="9" rx="0" ry="0"/>
 <path fill="#fff" opacity=".2" d="m10 3c-1.108 0-2 0.892-2 2v1c0-1.108 0.892-2 2-2h28c1.108 0 2 0.892 2 2v-1c0-1.108-0.892-2-2-2h-28z"/>
 <path opacity=".2" d="m8 41v1c0 1.108 0.892 2 2 2h28c1.108 0 2-0.892 2-2v-1c0 1.108-0.892 2-2 2h-28c-1.108 0-2-0.892-2-2z"/>
 <path fill="#fff" opacity=".2" d="m15 28c-0.554 0-1 0.446-1 1v2h-2c-0.554 0-1 0.446-1 1v2c0 0.554 0.446 1 1 1h2v2c0 0.554 0.446 1 1 1h2c0.554 0 1-0.446 1-1v-2h2c0.554 0 1-0.446 1-1v-2c0-0.554-0.446-1-1-1h-2v-2c0-0.554-0.446-1-1-1h-2z"/>
 <path fill="#4f4f4f" d="m15 27c-0.554 0-1 0.446-1 1v2h-2c-0.554 0-1 0.446-1 1v2c0 0.554 0.446 1 1 1h2v2c0 0.554 0.446 1 1 1h2c0.554 0 1-0.446 1-1v-2h2c0.554 0 1-0.446 1-1v-2c0-0.554-0.446-1-1-1h-2v-2c0-0.554-0.446-1-1-1h-2z"/>
 <circle fill="#fff" opacity=".2" cx="35" cy="30" r="2"/>
 <circle fill="#fff" opacity=".2" cx="29" cy="30" r="2"/>
 <circle fill="#fff" opacity=".2" cx="35" cy="36" r="2"/>
 <circle fill="#fff" opacity=".2" cx="29" cy="36" r="2"/>
 <circle fill="#ef5646" cx="35" cy="29" r="2"/>
 <circle fill="#ef5646" cx="29" cy="29" r="2"/>
 <circle fill="#eb9200" cx="35" cy="35" r="2"/>
 <circle fill="#eb9200" cx="29" cy="35" r="2"/>
</svg>
