<svg xmlns="http://www.w3.org/2000/svg" width="48" height="48" version="1.1">
 <circle style="opacity:0.2" cx="24" cy="25" r="20"/>
 <circle style="fill:#2e3192" cx="24" cy="24" r="20"/>
 <path style="opacity:0.1;fill:#8b9cbe" d="M 24,4 A 20,20 0 0 0 4,24 20,20 0 0 0 4.0215,24.582 20,20 0 0 1 24,5 20,20 0 0 1 43.979,24.418 20,20 0 0 0 44,24 20,20 0 0 0 24,4 Z"/>
 <path style="opacity:0.2" d="m 33.743707,27.975666 c -0.354813,1.465546 -1.462133,2.994466 -3.099002,3.041658 -1.058947,0.187261 -2.184398,-0.430052 -2.472075,-1.489791 -0.300356,-1.041632 -0.369261,-2.175876 -0.111129,-3.232655 -0.422292,0.603953 -0.719347,1.494679 -1.259362,2.108099 -1.272037,1.720914 -3.401963,3.013203 -5.600595,2.641206 -1.544135,-0.290642 -2.281184,-1.966861 -2.288468,-3.398064 -0.09397,-0.700369 0.174858,-1.921392 -0.23207,-1.586511 -1.074836,2.771244 -1.490662,6.040989 -1.829302,8.977766 0.136014,1.134288 0.937115,2.335079 0.274805,3.445216 -0.54394,0.984832 -2.188312,0.448523 -2.124714,-0.642905 0.01968,-2.241102 0.819258,-4.679119 1.390449,-6.822362 0.633463,-2.094904 1.389938,-4.154248 1.968793,-6.264164 0.392699,-2.370347 0.502928,-4.491105 1.032193,-6.838829 0.238676,-0.997088 1.051811,-2.149833 2.222634,-1.872384 1.094467,0.259506 0.81714,1.638316 0.648819,2.45023 -0.459144,1.766862 -1.18059,3.145055 -1.904636,4.814829 -0.500457,1.300787 -1.125504,2.89813 -0.246271,4.180421 0.97185,1.335651 3.116445,1.324583 4.227985,0.167423 1.901209,-1.609382 3.039094,-3.998884 3.371848,-6.44054 0.345821,-1.41974 0.418989,-2.615119 0.966362,-3.978024 0.338773,-0.868895 1.332104,-1.471287 2.24196,-1.074369 0.869375,0.47314 0.623451,1.660111 0.425199,2.449561 -0.682524,2.501055 -1.781459,4.555922 -2.802449,6.928956 -0.240022,1.195626 0.31851,2.704493 1.621072,3.004052 1.292492,0.257518 2.651372,-0.547408 3.041625,-1.810309 0.243193,-0.322699 0.395601,-2.111563 0.780515,-1.341609 0.04384,0.866746 -0.02998,1.7412 -0.244186,2.583099 z"/>
 <path style="fill:#8b9cbe" d="m 33.743707,26.975666 c -0.354813,1.465546 -1.462133,2.994466 -3.099002,3.041658 -1.058947,0.187261 -2.184398,-0.430052 -2.472075,-1.489791 -0.300356,-1.041632 -0.369261,-2.175876 -0.111129,-3.232655 -0.422292,0.603953 -0.719347,1.494679 -1.259362,2.108099 -1.272037,1.720914 -3.401963,3.013203 -5.600595,2.641206 -1.544135,-0.290642 -2.281184,-1.966861 -2.288468,-3.398064 -0.09397,-0.700369 0.174858,-1.921392 -0.23207,-1.586511 -1.074836,2.771244 -1.490662,6.040989 -1.829302,8.977766 0.136014,1.134288 0.937115,2.335079 0.274805,3.445216 -0.54394,0.984832 -2.188312,0.448523 -2.124714,-0.642905 0.01968,-2.241102 0.819258,-4.679119 1.390449,-6.822362 0.633463,-2.094904 1.389938,-4.154248 1.968793,-6.264164 0.392699,-2.370347 0.502928,-4.491105 1.032193,-6.838829 0.238676,-0.997088 1.051811,-2.149833 2.222634,-1.872384 1.094467,0.259506 0.81714,1.638316 0.648819,2.45023 -0.459144,1.766862 -1.18059,3.145055 -1.904636,4.814829 -0.500457,1.300787 -1.125504,2.89813 -0.246271,4.180421 0.97185,1.335651 3.116445,1.324583 4.227985,0.167423 1.901209,-1.609382 3.039094,-3.998884 3.371848,-6.44054 0.345821,-1.41974 0.418989,-2.615119 0.966362,-3.978024 0.338773,-0.868895 1.332104,-1.471287 2.24196,-1.074369 0.869375,0.47314 0.623451,1.660111 0.425199,2.449561 -0.682524,2.501055 -1.781459,4.555922 -2.802449,6.928956 -0.240022,1.195626 0.31851,2.704493 1.621072,3.004052 1.292492,0.257518 2.651372,-0.547408 3.041625,-1.810309 0.243193,-0.322699 0.395601,-2.111563 0.780515,-1.341609 0.04384,0.866746 -0.02998,1.7412 -0.244186,2.583099 z"/>
</svg>
