<svg xmlns="http://www.w3.org/2000/svg" width="48" height="48" version="1">
 <rect style="opacity:0.2" width="40" height="36" x="4" y="7" rx="3" ry="3"/>
 <rect style="fill:#4f4f4f" width="40" height="36" x="4" y="6" rx="3" ry="3"/>
 <path style="fill:#8b9cbe;opacity:0.1" d="M 7 6 C 5.338 6 4 7.338 4 9 L 4 10 C 4 8.338 5.338 7 7 7 L 41 7 C 42.662 7 44 8.338 44 10 L 44 9 C 44 7.338 42.662 6 41 6 L 7 6 z"/>
 <rect style="opacity:0.2" width="12" height="4" x="20" y="23" rx="1" ry="1"/>
 <rect style="fill:#33c839" width="12" height="4" x="20" y="22" rx="1" ry="1"/>
 <rect style="opacity:0.2" width="12.245" height="4.082" x="-12.71" y="23.12" rx="1.02" ry="1.02" transform="matrix(0.72685813,-0.68678763,0.72685813,0.68678763,0,0)"/>
 <rect style="fill:#24873b" width="12.245" height="4.082" x="-11.98" y="22.39" rx="1.02" ry="1.02" transform="matrix(0.72685813,-0.68678763,0.72685813,0.68678763,0,0)"/>
 <rect style="opacity:0.2" width="12.245" height="4.082" x="14.96" y="-4.55" rx="1.02" ry="1.02" transform="matrix(0.72685813,0.68678763,0.72685813,-0.68678763,0,0)"/>
 <rect style="fill:#33c839" width="12.245" height="4.082" x="14.23" y="-3.82" rx="1.02" ry="1.02" transform="matrix(0.72685813,0.68678763,0.72685813,-0.68678763,0,0)"/>
 <path style="fill:#8b9cbe;opacity:0.2" d="M 21 22 C 20.446 22 20 22.446 20 23 L 20 24 C 20 23.446 20.446 23 21 23 L 31 23 C 31.554 23 32 23.446 32 24 L 32 23 C 32 22.446 31.554 22 31 22 L 21 22 z"/>
 <path style="opacity:0.2;fill:#8b9cbe" d="M 10.533203 10.001953 C 10.265189 10.001953 9.9983352 10.098924 9.7929688 10.292969 L 8.3085938 11.695312 C 7.9608274 12.023907 7.9248766 12.515845 8.1660156 12.896484 C 8.2096763 12.827566 8.2456271 12.754808 8.3085938 12.695312 L 9.7929688 11.292969 C 10.203702 10.904879 10.864658 10.904879 11.275391 11.292969 L 18.693359 18.302734 C 18.756215 18.362125 18.790367 18.435123 18.833984 18.503906 C 19.076367 18.123051 19.041646 17.631821 18.693359 17.302734 L 11.275391 10.292969 C 11.070024 10.098924 10.801218 10.001953 10.533203 10.001953 z"/>
</svg>
