<svg xmlns="http://www.w3.org/2000/svg" width="48" height="48" version="1">
 <circle style="opacity:0.2" cx="24" cy="25" r="20"/>
 <circle style="fill:#e33765" cx="24" cy="24" r="20"/>
 <path opacity=".2" d="m26 39h-4v-4h4zm4.14-15.5-1.8 1.84c-1.44 1.46-2.34 2.66-2.34 5.66h-4v-1c0-2.2 0.9-4.2 2.34-5.66l2.48-2.52c0.74-0.72 1.18-1.72 1.18-2.82 0-2.2-1.8-4-4-4s-4 1.8-4 4h-4c0-4.42 3.58-8 8-8s8 3.58 8 8c0 1.76-0.72 3.36-1.86 4.5z"/>
 <path fill="#fff" d="m26 38h-4v-4h4zm4.14-15.5-1.8 1.84c-1.44 1.46-2.34 2.66-2.34 5.66h-4v-1c0-2.2 0.9-4.2 2.34-5.66l2.48-2.52c0.74-0.72 1.18-1.72 1.18-2.82 0-2.2-1.8-4-4-4s-4 1.8-4 4h-4c0-4.42 3.58-8 8-8s8 3.58 8 8c0 1.76-0.72 3.36-1.86 4.5z"/>
 <path style="opacity:0.2;fill:#8b9cbe" d="M 24 4 A 20 20 0 0 0 4 24 A 20 20 0 0 0 4.0214844 24.582031 A 20 20 0 0 1 24 5 A 20 20 0 0 1 43.978516 24.417969 A 20 20 0 0 0 44 24 A 20 20 0 0 0 24 4 z"/>
</svg>
