<svg xmlns="http://www.w3.org/2000/svg" width="48" height="48" version="1">
 <rect style="opacity:0.2" width="40" height="40" x="4" y="5" rx="2" ry="2"/>
 <rect style="fill:#546e7a" width="40" height="40" x="4" y="4" rx="2" ry="2"/>
 <path style="opacity:0.2" d="m 21,14 v 8 h -4 l 7,8 7,-8 H 27 V 14 Z M 11,28 v 8 h 4 18 4 v -8 h -4 v 4 H 15 v -4 z"/>
 <path style="fill:#8b9cbe" d="m 21,13 v 8 h -4 l 7,8 7,-8 H 27 V 13 Z M 11,27 v 8 h 4 18 4 v -8 h -4 v 4 H 15 v -4 z"/>
 <path style="fill:#8b9cbe;opacity:0.1" d="M 6 4 C 4.892 4 4 4.892 4 6 L 4 7 C 4 5.892 4.892 5 6 5 L 42 5 C 43.108 5 44 5.892 44 7 L 44 6 C 44 4.892 43.108 4 42 4 L 6 4 z"/>
</svg>
