<svg xmlns="http://www.w3.org/2000/svg" width="48" height="48" version="1.1">
 <path style="fill:#78ba26" d="m24 4a20 20 0 0 0 -20 20 20 20 0 0 0 20 20 20 20 0 0 0 20 -20 20 20 0 0 0 -20 -20z"/>
 <path opacity=".2" d="m4.0215 24.418a20 20 0 0 0 -0.0215 0.582 20 20 0 0 0 20 20 20 20 0 0 0 20 -20 20 20 0 0 0 -0.021 -0.418 20 20 0 0 1 -19.979 19.418 20 20 0 0 1 -19.978 -19.582z"/>
 <path fill="#8b9cbe" opacity=".2" d="m24 4a20 20 0 0 0 -20 20 20 20 0 0 0 0.0215 0.418 20 20 0 0 1 19.978 -19.418 20 20 0 0 1 19.979 19.582 20 20 0 0 0 0.021 -0.582 20 20 0 0 0 -20 -20z"/>
 <rect style="opacity:0.7;fill:#8b9cbe" width="12" height="16" x="18" y="12" rx="1" ry="1"/>
 <path style="opacity:0.2" d="m 14.371826,25.000002 a 1.3718555,1.1302534 0 0 0 -1.187852,1.695637 l 9.628176,13.739536 a 1.3718555,1.1302534 0 0 0 2.375701,0 l 9.628175,-13.739536 a 1.3718555,1.1302534 0 0 0 -1.187851,-1.695637 z"/>
 <path style="fill:#8b9cbe" d="m 14.371826,24.000001 a 1.3718555,1.1302534 0 0 0 -1.187852,1.695637 l 9.628176,13.739536 a 1.3718555,1.1302534 0 0 0 2.375701,0 l 9.628175,-13.739536 a 1.3718555,1.1302534 0 0 0 -1.187851,-1.695637 z"/>
</svg>
