<svg xmlns="http://www.w3.org/2000/svg" width="48" height="48" version="1.1">
 <circle style="opacity:0.2" cx="24" cy="25" r="20"/>
 <circle style="fill:#afd817" cx="24" cy="24" r="20"/>
 <path style="opacity:0.2;fill:#8b9cbe" d="M 24,4 A 20,20 0 0 0 4,24 20,20 0 0 0 4.0215,24.582 20,20 0 0 1 24,5 20,20 0 0 1 43.979,24.418 20,20 0 0 0 44,24 20,20 0 0 0 24,4 Z"/>
 <path style="fill:#17191e" d="M 31.595703 11.982422 L 8.2851562 36.363281 A 20 20 0 0 0 11.064453 39.25 L 34.488281 14.748047 L 31.595703 11.982422 z"/>
 <path style="opacity:0.1" transform="matrix(0.84909765,0.49022676,-0.49022676,0.84909765,57.072935,31.200045)" d="M -28.541582,-8.4892456 -25.808671,1.7101161 -36.008033,-1.022795 Z"/>
 <path style="fill:none;stroke:#17191e;stroke-width:4" d="m 15.332826,32.396993 c -0.181743,-0.533446 3.206121,-3.584729 2.838834,-5.415568 -1.003951,-5.004411 -2.62393,-6.158496 2.262681,-10.482621"/>
 <path style="fill:none;stroke:#17191e;stroke-width:4" d="m 17.449491,28.987796 c 0.533447,0.181741 2.781545,-1.734849 4.478519,-1.63529 5.095363,0.298937 7.095546,2.222346 11.419671,-2.664273"/>
 <circle style="opacity:0.1" cx="20" cy="17" r="4"/>
 <circle style="fill:#4f4f4f" cx="20" cy="15.999" r="4"/>
 <rect style="opacity:0.1" width="6.364" height="6.364" x="38.54" y="-10.25" transform="rotate(45)"/>
 <rect style="fill:#4f4f4f" width="6.364" height="6.364" x="37.83" y="-10.96" transform="rotate(45)"/>
 <path style="fill:#4f4f4f" transform="matrix(0.84909765,0.49022676,-0.49022676,0.84909765,57.072935,30.200046)" d="M -28.541582,-8.4892456 -25.808671,1.7101161 -36.008033,-1.022795 Z"/>
</svg>
