<svg xmlns="http://www.w3.org/2000/svg" width="48" height="48" version="1">
 <circle style="opacity:0.2" cx="24" cy="25" r="20"/>
 <circle style="fill:#b2bfd9" cx="24" cy="24" r="20"/>
 <path style="opacity:0.1" d="m 22.722656,13.002205 c -1.331261,0.02947 -2.618346,0.372258 -3.773437,1.068359 -2.310182,1.392204 -3.620672,3.914144 -3.894531,6.792969 -0.27386,2.878826 0.4692,6.136241 2.273437,9.125 0.17768,0.294331 0.367331,0.575341 0.558594,0.853516 -1.597129,0.35658 -3.073067,0.583833 -4.291016,0.615234 -1.601031,0.04152 -3.8295969,-0.31134 -4.4667968,-1.810547 -0.5682996,-1.33815 1.5516588,-4.056201 1.5703128,-4.080078 -0.02443,0.02384 -2.914645,2.846836 -2.6875002,4.617188 0.3148516,2.452058 3.3331082,2.842864 5.7148432,2.814453 1.184816,-0.0139 3.010483,-0.328225 5.134766,-0.869141 1.57548,1.875365 3.460542,3.272468 5.423828,4.080078 2.651035,1.090521 5.470001,1.104132 7.765625,-0.279296 2.295625,-1.38343 3.604362,-3.883573 3.888672,-6.742188 0.145283,-1.46076 0.023,-3.019739 -0.363281,-4.59375 C 38.237257,22.53663 40.020101,20.221581 40,17.785408 c -0.02142,-2.670601 -4.728516,-2.906491 -4.728516,-2.748047 0,0 3.490099,0.895298 3.414063,2.615235 -0.07874,1.778776 -1.48454,3.614134 -3.599609,5.347656 -0.352153,-0.975622 -0.795829,-1.946176 -1.357422,-2.890625 -1.784325,-3.000753 -4.302877,-5.189562 -6.966797,-6.298828 -1.331961,-0.554633 -2.707802,-0.838061 -4.039063,-0.808594 z m 0.0332,1.013672 c 1.170578,-0.02458 2.398072,0.227544 3.615235,0.734375 2.434326,1.013663 4.802604,3.053907 6.482422,5.878906 0.592448,0.996339 1.051874,2.02185 1.394531,3.046875 -0.128246,0.09507 -0.275929,0.185047 -0.408203,0.279297 C 33.127968,20.553532 30.114237,18.000252 26.5,18.000252 c -4.143179,0 -7.5,3.355845 -7.5,7.5 0,1.157922 0.270304,2.249688 0.738281,3.228516 A 2.5,2.5 0 0 0 19,30.500252 a 2.5,2.5 0 0 0 0.002,0.08203 c -0.01468,0.0038 -0.03026,0.008 -0.04492,0.01172 -0.262906,-0.362269 -0.517992,-0.736826 -0.755859,-1.130859 -1.698558,-2.8137 -2.383235,-5.869502 -2.132813,-8.501953 0.250423,-2.632453 1.415072,-4.819573 3.40625,-6.019532 0.995589,-0.599979 2.110673,-0.901206 3.28125,-0.925781 z m 2.402344,7.947266 c 2.523635,0 4.630031,1.827124 5.042969,4.232421 -2.082115,1.121542 -4.34917,2.122853 -6.605469,2.947266 a 2.5,2.5 0 0 0 -3.359375,-0.796875 c -0.107177,-0.413301 -0.169922,-0.844867 -0.169922,-1.291015 0,-2.817365 2.274431,-5.091797 5.091797,-5.091797 z m 9.517578,3.283203 c 0.283777,1.327014 0.370355,2.629731 0.25,3.839844 -0.259884,2.613016 -1.4219,4.780343 -3.40039,5.972656 -1.978491,1.192313 -4.431859,1.205149 -6.853516,0.208984 -1.242144,-0.510964 -2.466121,-1.292279 -3.59375,-2.30664 a 2.5,2.5 0 0 0 2.193359,-0.699219 c 0.978828,0.467977 2.070594,0.738281 3.228516,0.738281 4.074308,0 7.379737,-3.245504 7.490234,-7.292969 0.231205,-0.152834 0.463531,-0.304687 0.685547,-0.460937 z m -4.46875,2.638672 c -0.400231,2.425296 -2.514522,4.291015 -5.048828,4.291015 -0.558976,0 -1.094974,-0.09234 -1.597656,-0.259765 a 2.5,2.5 0 0 0 0.4375,-1.373047 c 2.074334,-0.745844 4.196156,-1.642118 6.208984,-2.658203 z"/>
 <path style="fill:#474747" d="m 22.722656,12.001953 c -1.331261,0.02947 -2.618346,0.372258 -3.773437,1.068359 -2.310182,1.392203 -3.620672,3.914144 -3.894531,6.792969 -0.27386,2.878826 0.4692,6.136241 2.273437,9.125 1.792834,2.96987 4.305996,5.130182 6.957031,6.220703 2.651035,1.090521 5.470001,1.104133 7.765625,-0.279296 2.295625,-1.38343 3.604362,-3.883573 3.888672,-6.742188 0.28431,-2.858615 -0.43789,-6.096337 -2.210937,-9.078125 -1.784325,-3.000753 -4.302877,-5.189562 -6.966797,-6.298828 -1.331961,-0.554633 -2.707802,-0.838061 -4.039063,-0.808594 z m 0.0332,1.013672 c 1.170578,-0.02458 2.398072,0.227544 3.615235,0.734375 2.434326,1.013663 4.802604,3.053907 6.482422,5.878906 1.669152,2.807065 2.332149,5.844014 2.072265,8.457032 -0.259884,2.613017 -1.4219,4.780343 -3.40039,5.972656 -1.978491,1.192313 -4.431859,1.205149 -6.853516,0.208984 -2.421657,-0.996165 -4.782929,-3.008851 -6.470703,-5.804687 -1.698558,-2.8137 -2.383235,-5.869502 -2.132813,-8.501953 0.250423,-2.632452 1.415072,-4.819573 3.40625,-6.019532 0.995589,-0.599979 2.110673,-0.901206 3.28125,-0.925781 z"/>
 <path style="fill:#2a58ae" d="M 26.5,17 C 22.356821,17 19,20.355845 19,24.5 19,28.644154 22.355846,32 26.5,32 30.644155,32 34,28.644154 34,24.5 34,20.355845 30.644155,17 26.5,17 Z m -1.341421,3.963685 c 2.817366,0 5.121614,2.274007 5.121614,5.091372 0,2.817366 -2.304248,5.121614 -5.121614,5.121614 -2.817366,0 -5.091373,-2.304248 -5.091373,-5.121614 0,-2.817365 2.274007,-5.091372 5.091373,-5.091372 z"/>
 <path style="fill:#474747" d="m 10.706069,24.559398 c 0,0 -2.9214809,2.846528 -2.6933741,4.624378 0.3148516,2.452058 3.3327151,2.84325 5.7144501,2.814839 5.774422,-0.06775 26.340836,-6.952958 26.272686,-15.212608 -0.02142,-2.670601 -4.7292,-2.906627 -4.7292,-2.748183 0,0 3.491212,0.893842 3.415176,2.613779 -0.283795,6.410971 -17.461902,13.608302 -25.090775,13.80499 -1.601031,0.04152 -3.829624,-0.310332 -4.4668238,-1.809539 -0.5708024,-1.344043 1.5763998,-4.087855 1.5763998,-4.087855 z"/>
 <path style="opacity:0.2" d="m 33.999953,17.518138 a 3.5,3.5 0 0 1 -6.999906,0 3.5,3.5 0 1 1 6.999906,0 z"/>
 <path style="fill:#d24646" d="m 33.999953,16.518138 a 3.5,3.5 0 0 1 -6.999906,0 3.5,3.5 0 1 1 6.999906,0 z"/>
 <path style="fill:#606060" d="m 24,29.5 a 2.5,2.5 0 0 1 -5,0 2.5,2.5 0 1 1 5,0 z"/>
 <path style="opacity:0.2;fill:#8b9cbe;fill-rule:evenodd" d="M 24 4 A 20 20 0 0 0 4 24 A 20 20 0 0 0 4.0214844 24.582031 A 20 20 0 0 1 24 5 A 20 20 0 0 1 43.978516 24.417969 A 20 20 0 0 0 44 24 A 20 20 0 0 0 24 4 z"/>
</svg>
