<svg xmlns="http://www.w3.org/2000/svg" width="48" height="48" version="1">
 <path style="opacity:0.2" d="M 24,5 A 20,20 0 0 0 4,25 20,20 0 0 0 24,45 20,20 0 0 0 44,25 20,20 0 0 0 24,5 Z M 20.037109,9.5136719 A 4,4 0 0 0 24,13 4,4 0 0 0 27.960938,9.5195312 16,16 0 0 1 37.4375,16.318359 4,4 0 0 0 35,20 4,4 0 0 0 39,24 4,4 0 0 0 39.958984,23.878906 16,16 0 0 1 40,25 16,16 0 0 1 36.089844,35.464844 4,4 0 0 0 33,34 4,4 0 0 0 29,38 4,4 0 0 0 29.539062,39.998047 16,16 0 0 1 24,41 16,16 0 0 1 18.462891,39.990234 4,4 0 0 0 19,38 4,4 0 0 0 15,34 4,4 0 0 0 11.916016,35.457031 16,16 0 0 1 8,25 16,16 0 0 1 8.0566406,23.882812 4,4 0 0 0 9,24 4,4 0 0 0 13,20 4,4 0 0 0 10.572266,16.326172 16,16 0 0 1 20.037109,9.5136719 Z"/>
 <path style="fill:#7d7d7d" d="M 24 4 A 20 20 0 0 0 4 24 A 20 20 0 0 0 24 44 A 20 20 0 0 0 44 24 A 20 20 0 0 0 24 4 z M 20.037109 8.5136719 A 4 4 0 0 0 24 12 A 4 4 0 0 0 27.960938 8.5195312 A 16 16 0 0 1 37.4375 15.318359 A 4 4 0 0 0 35 19 A 4 4 0 0 0 39 23 A 4 4 0 0 0 39.958984 22.878906 A 16 16 0 0 1 40 24 A 16 16 0 0 1 36.089844 34.464844 A 4 4 0 0 0 33 33 A 4 4 0 0 0 29 37 A 4 4 0 0 0 29.539062 38.998047 A 16 16 0 0 1 24 40 A 16 16 0 0 1 18.462891 38.990234 A 4 4 0 0 0 19 37 A 4 4 0 0 0 15 33 A 4 4 0 0 0 11.916016 34.457031 A 16 16 0 0 1 8 24 A 16 16 0 0 1 8.0566406 22.882812 A 4 4 0 0 0 9 23 A 4 4 0 0 0 13 19 A 4 4 0 0 0 10.572266 15.326172 A 16 16 0 0 1 20.037109 8.5136719 z"/>
 <path style="fill:#8b9cbe;opacity:0.1" d="M 24 4 A 20 20 0 0 0 4 24 A 20 20 0 0 0 4.0214844 24.417969 A 20 20 0 0 1 24 5 A 20 20 0 0 1 43.978516 24.582031 A 20 20 0 0 0 44 24 A 20 20 0 0 0 24 4 z M 36.923828 15.587891 A 4 4 0 0 0 35 19 A 4 4 0 0 0 35.035156 19.503906 A 4 4 0 0 1 37.4375 16.318359 A 16 16 0 0 0 36.923828 15.587891 z M 11.09375 15.599609 A 16 16 0 0 0 10.572266 16.326172 A 4 4 0 0 1 12.964844 19.494141 A 4 4 0 0 0 13 19 A 4 4 0 0 0 11.09375 15.599609 z M 39.978516 24.416016 A 16 16 0 0 1 36.089844 34.464844 A 4 4 0 0 0 33 33 A 4 4 0 0 0 29 37 A 4 4 0 0 0 29.037109 37.498047 A 4 4 0 0 1 33 34 A 4 4 0 0 1 36.089844 35.464844 A 16 16 0 0 0 40 25 A 16 16 0 0 0 39.978516 24.416016 z M 8.0234375 24.537109 A 16 16 0 0 0 8 25 A 16 16 0 0 0 11.916016 35.457031 A 4 4 0 0 1 15 34 A 4 4 0 0 1 18.964844 37.503906 A 4 4 0 0 0 19 37 A 4 4 0 0 0 15 33 A 4 4 0 0 0 11.916016 34.457031 A 16 16 0 0 1 8.0234375 24.537109 z M 18.832031 39.117188 A 4 4 0 0 1 18.462891 39.990234 A 16 16 0 0 0 24 41 A 16 16 0 0 0 29.539062 39.998047 A 4 4 0 0 1 29.164062 39.117188 A 16 16 0 0 1 24 40 A 16 16 0 0 1 18.832031 39.117188 z"/>
 <circle style="fill:#454545" cx="24" cy="8" r="2"/>
 <circle style="fill:#454545" cx="9" cy="19" r="2"/>
 <circle style="fill:#454545" cx="39" cy="19" r="2"/>
 <circle style="fill:#454545" cx="33" cy="37" r="2"/>
 <circle style="fill:#454545" cx="15" cy="37" r="2"/>
 <path style="opacity:0.2;fill:none;stroke:#000000;stroke-width:4;stroke-linejoin:bevel" d="m 16,19.999544 8,-3.099772 8,3.099772 m -26,-8 h 4 l 6,8 8,24.300228 8,-24.300228 6,-8 h 4"/>
 <path style="fill:none;stroke:#0bad50;stroke-width:4;stroke-linejoin:bevel" d="M 16,19 24,15.900228 32,19 M 6,11 h 4 l 6,8 8,24.300228 L 32,19 38,11 h 4"/>
</svg>
