<svg xmlns="http://www.w3.org/2000/svg" width="48" height="48" version="1.1">
 <path style="opacity:0.2" d="m 24.112712,35.791802 c -0.12363,0.404646 -0.100254,0.835844 -0.162412,1.25147 -0.101993,0.996145 -0.178859,1.999366 -0.436038,2.972545 -0.09322,0.412759 -0.238255,0.813027 -0.354321,1.220283 0.27955,0.539966 0.370807,1.138552 0.432838,1.732043 0.127513,0.693001 0.159977,1.399454 0.214612,2.099078 0.04428,0.349398 -0.139865,0.792753 0.169941,1.05613 0.352796,0.116336 0.70432,0.242271 1.051129,0.376649 -0.04566,-0.675374 -0.113146,-1.350001 -0.09434,-2.027595 -0.02783,-0.640791 0.07754,-1.275765 0.127293,-1.913502 0.03258,-0.308596 0.03265,-0.623365 0.156492,-0.914631 0.09392,-0.275243 0.285527,-0.510131 0.419151,-0.768996 -0.204708,-0.137896 -0.398535,-0.300643 -0.575243,-0.46683 -0.155041,-0.353956 -0.352545,-0.693261 -0.477939,-1.057451 -0.304913,-1.159443 -0.487728,-2.361617 -0.471159,-3.559193 z"/>
 <path style="fill:#abacac" d="m 24.112712,34.791802 c -0.12363,0.404646 -0.100254,0.835844 -0.162412,1.25147 -0.101993,0.996145 -0.178859,1.999366 -0.436038,2.972545 -0.09322,0.412759 -0.238255,0.813027 -0.354321,1.220283 0.27955,0.539966 0.370807,1.138552 0.432838,1.732043 0.127513,0.693001 0.159977,1.399454 0.214612,2.099078 0.04428,0.349398 -0.139865,0.792753 0.169941,1.05613 0.352796,0.116336 0.70432,0.242271 1.051129,0.376649 -0.04566,-0.675374 -0.113146,-1.350001 -0.09434,-2.027595 -0.02783,-0.640791 0.07754,-1.275765 0.127293,-1.913502 0.03258,-0.308596 0.03265,-0.623365 0.156492,-0.914631 0.09392,-0.275243 0.285527,-0.510131 0.419151,-0.768996 -0.204708,-0.137896 -0.398535,-0.300643 -0.575243,-0.46683 -0.155041,-0.353956 -0.352545,-0.693261 -0.477939,-1.057451 -0.304913,-1.159443 -0.487728,-2.361617 -0.471159,-3.559193 z"/>
 <path style="opacity:0.2" d="m 24,3.9606328 c 0.06381,1.9108378 0.0076,3.8256439 0,5.7428932 0.05219,6.369859 0.0455,12.739653 0,19.109657 -0.0094,2.468298 0.123951,4.93321 0,7.396386 0.102524,1.449063 0.320032,3.01236 1.130475,4.267773 0.722475,0.932817 1.55883,-0.616336 2.215577,-0.995889 3.082265,-2.737704 5.202319,-6.410624 6.124048,-10.34576 C 34.40044,25.193347 34.094086,20.98377 32.642886,17.189719 31.308429,13.242375 28.895155,9.6787454 25.79763,6.8118766 24.9749,6.0078979 24.546665,4.9385693 24,3.9606328 Z"/>
 <path style="fill:#0d6436" d="M 24.033203 3.9433594 C 23.82533 4.272861 23.576108 4.5729558 23.310547 4.8378906 C 22.735753 5.4113286 22.102059 5.8969217 21.693359 6.3730469 L 21.681641 6.3867188 L 21.667969 6.4003906 C 20.161563 7.908877 18.707558 9.4625034 17.804688 11.289062 L 17.796875 11.306641 L 17.787109 11.324219 C 17.133227 12.420469 16.553612 13.524929 16.1875 14.701172 L 16.181641 14.724609 L 16.171875 14.748047 C 14.996029 17.519237 14.52472 20.568951 14.5 23.587891 L 14.5 23.59375 C 14.531735 29.678102 17.924882 35.445639 22.771484 39.273438 L 22.832031 39.322266 L 22.875 39.384766 C 22.88412 39.398196 22.877819 39.388051 22.886719 39.400391 C 22.934364 39.235846 22.968014 39.126679 23.027344 38.904297 C 23.245322 37.945089 23.36235 36.95585 23.464844 35.949219 L 23.511719 35.5 L 24.525391 35.5 L 24.574219 35.947266 C 24.700652 37.118856 24.952969 38.265059 25.544922 39.189453 C 25.600852 39.257613 25.619039 39.273284 25.636719 39.271484 C 25.658358 39.269229 25.786579 39.218515 25.943359 39.087891 C 26.24021 38.840565 26.561249 38.395758 27.021484 38.101562 C 30.018333 35.436518 32.086551 31.854559 32.984375 28.021484 L 32.984375 28.019531 C 33.890792 24.178561 33.591314 20.067988 32.175781 16.367188 L 32.171875 16.359375 L 32.167969 16.349609 C 30.862862 12.489083 28.498033 8.9942421 25.457031 6.1796875 L 25.453125 6.1757812 L 25.447266 6.1699219 C 24.756824 5.4952169 24.421836 4.6997293 24.033203 3.9433594 z"/>
 <path style="fill:#12935a" d="m 24,2.9606328 c 0.06381,1.9108378 0.0076,3.8256439 0,5.7428932 0.05219,6.369859 0.0455,12.739653 0,19.109657 -0.0094,2.468298 0.123951,4.93321 0,7.396386 0.102524,1.449063 0.320032,3.01236 1.130475,4.267773 0.722475,0.932817 1.55883,-0.616336 2.215577,-0.995889 3.082265,-2.737704 5.202319,-6.410624 6.124048,-10.34576 C 34.40044,24.193347 34.094086,19.98377 32.642886,16.189719 31.308429,12.242375 28.895155,8.6787454 25.79763,5.8118766 24.9749,5.0078979 24.546665,3.9385693 24,2.9606328 Z"/>
 <path style="opacity:0.2" d="m 24,3.5957031 c -0.120686,1.5101579 -1.763395,2.3770286 -2.685547,3.4511719 -1.51352,1.5156109 -3.01013,3.105848 -3.957031,5.021484 -0.662941,1.111436 -1.262441,2.250527 -1.646484,3.484375 -1.209337,2.850121 -1.68638,5.967181 -1.710938,9.03711 0.03048,6.269978 3.510345,12.166235 8.460938,16.076172 0.760262,1.119692 0.87426,0.02787 1.054687,-0.650391 C 23.765776,38.914839 23.889564,37.794811 24,36.673828 Z"/>
 <path style="fill:#10aa50" d="M 24 2.5957031 C 23.879314 4.105861 22.236605 4.9727317 21.314453 6.046875 C 19.800933 7.5624859 18.304323 9.1527229 17.357422 11.068359 C 16.694481 12.179795 16.094981 13.318886 15.710938 14.552734 C 14.501601 17.402855 14.024558 20.519915 14 23.589844 C 14.03048 29.859822 17.510345 35.756079 22.460938 39.666016 C 23.2212 40.785708 23.335198 39.693887 23.515625 39.015625 C 23.765776 37.914839 23.889564 36.794811 24 35.673828 L 24 2.5957031 z"/>
 <path style="fill:#8b9cbe;opacity:0.2" d="M 24 2.9609375 C 24.011316 3.2997895 24.005058 3.6394226 24.009766 3.9785156 C 24.551794 4.9517004 24.979042 6.0133066 25.796875 6.8125 C 28.8944 9.6793688 31.308121 13.242109 32.642578 17.189453 C 33.48366 19.388398 33.928351 21.727085 33.982422 24.072266 C 34.051896 21.394297 33.603339 18.701288 32.642578 16.189453 C 31.308121 12.242109 28.8944 8.6793688 25.796875 5.8125 C 24.974145 5.0085213 24.546665 3.938874 24 2.9609375 z M 24.023438 6.3300781 C 24.015595 7.120934 24.003139 7.9113283 24 8.703125 C 24.001942 8.9401056 24.000173 9.177082 24.001953 9.4140625 C 24.008429 8.3849633 24.019921 7.357489 24.023438 6.3300781 z M 24.035156 18.757812 C 24.033159 21.776077 24.021559 24.79417 24 27.8125 C 23.999683 27.895858 24.00196 27.979149 24.001953 28.0625 C 24.022609 24.960841 24.035593 21.859409 24.035156 18.757812 z M 24.046875 33.494141 C 24.040822 34.065876 24.02876 34.637457 24 35.208984 C 24.005181 35.282213 24.015654 35.357883 24.021484 35.431641 C 24.04095 34.785803 24.049785 34.14027 24.046875 33.494141 z"/>
 <path style="fill:#8b9cbe;opacity:0.2" d="M 24 2.5957031 C 23.879314 4.105861 22.236605 4.9727317 21.314453 6.046875 C 19.800933 7.5624859 18.304323 9.1527233 17.357422 11.068359 C 16.694481 12.179795 16.09498 13.318886 15.710938 14.552734 C 14.501601 17.402855 14.024558 20.519915 14 23.589844 C 14.000894 23.773683 14.01471 23.955516 14.021484 24.138672 C 14.087568 21.215198 14.560739 18.26348 15.710938 15.552734 C 16.094981 14.318886 16.694481 13.179795 17.357422 12.068359 C 18.304323 10.152723 19.800933 8.5624859 21.314453 7.046875 C 22.236605 5.9727317 23.879314 5.105861 24 3.5957031 L 24 2.5957031 z"/>
</svg>
