<svg xmlns="http://www.w3.org/2000/svg" width="48" height="48" version="1">
 <rect style="opacity:0.2" width="28" height="4" x="10" y="41"/>
 <path style="fill:#4f4f4f" d="m 20,28 8,0 4,16 -16,0 z"/>
 <path style="opacity:0.2" d="M 35.002337,31.122018 C 28.306241,34.988011 19.743975,32.693759 15.877982,25.997663 12.011989,19.301566 14.306241,10.7393 21.002337,6.8733072 Z"/>
 <path style="fill:#686868" d="M 35.002337,30.122018 C 28.306241,33.988011 19.743975,31.693759 15.877982,24.997663 12.011989,18.301566 14.306241,9.7393 21.002337,5.873307 Z"/>
 <path style="fill:#9c9c9c" transform="matrix(0.2473605,0.42844094,-0.49472098,0.28562729,34.246373,0.84066242)" d="m 23.723231,13.979746 3.032011,5.251599 3.032012,5.251599 -6.064024,0 -6.064024,0 3.032012,-5.251599 z"/>
 <circle style="opacity:0.2" cx="30.356" cy="-20.579" r="2" transform="matrix(0.5,0.8660254,-0.8660254,0.5,0,0)"/>
 <circle style="fill:#b2bfd9" cx="29.49" cy="-21.079" r="2" transform="matrix(0.5,0.8660254,-0.8660254,0.5,0,0)"/>
 <path style="opacity:0.1;fill:#8b9cbe" d="M 21.001953,5.8730469 C 16.325423,8.573043 13.804952,13.563577 14.021484,18.609375 14.156537,13.913793 16.635197,9.394195 21.001953,6.8730469 L 34.556641,30.349609 c 0.147842,-0.07852 0.299179,-0.144145 0.445312,-0.228515 l -14,-24.2480471 z"/>
 <rect style="fill:#4f4f4f" width="28" height="4" x="10" y="40"/>
</svg>
