<svg xmlns="http://www.w3.org/2000/svg" width="48" height="48" version="1">
 <path style="opacity:0.2" d="M 6,5 C 4.892,5 4,5.892 4,7 v 18 18 c 0,1.108 0.892,2 2,2 H 24 A 20,20 0 0 0 44,25 20,20 0 0 0 24,5 Z"/>
 <path style="fill:#b2bfd9" d="m 12.9,4 v 40 h 10.8 c 6.3,0 19,-8.954305 19,-20 C 42.7,12.954305 30,4 23.7,4 Z"/>
 <path style="fill:#e8494e" d="M 6 4 C 4.892 4 4 4.892 4 6 L 4 24 L 4 42 C 4 43.108 4.892 44 6 44 L 7 44 L 7 4 L 6 4 z"/>
 <rect style="fill:#38af29" width="3" height="40" x="7" y="4"/>
 <rect style="fill:#1f72c7" width="3" height="40" x="10" y="4"/>
 <path style="opacity:0.1" d="M 24,5 A 20,20 0 0 0 22.078125,5.1113281 20,20 0 0 1 40,25 20,20 0 0 1 21.921875,44.888672 20,20 0 0 0 24,45 20,20 0 0 0 44,25 20,20 0 0 0 24,5 Z m 0,8 A 12,12 0 0 0 21.960938,13.173828 12,12 0 0 1 32,25 12,12 0 0 1 22.041016,36.826172 12,12 0 0 0 24,37 12,12 0 0 0 36,25 12,12 0 0 0 24,13 Z m -2,6 a 6,6 0 0 0 -6,6 6,6 0 0 0 6,6 6,6 0 0 0 6,-6 6,6 0 0 0 -6,-6 z"/>
 <path style="fill:#4f4f4f" d="M 24 4 A 20 20 0 0 0 22.078125 4.1113281 A 20 20 0 0 1 40 24 A 20 20 0 0 1 21.921875 43.888672 A 20 20 0 0 0 24 44 A 20 20 0 0 0 44 24 A 20 20 0 0 0 24 4 z"/>
 <path style="fill:#4f4f4f" d="M 24 12 A 12 12 0 0 0 21.960938 12.173828 A 12 12 0 0 1 32 24 A 12 12 0 0 1 22.041016 35.826172 A 12 12 0 0 0 24 36 A 12 12 0 0 0 36 24 A 12 12 0 0 0 24 12 z"/>
 <circle style="fill:#4f4f4f" cx="22" cy="24" r="6"/>
 <path style="fill:#8b9cbe" d="m 20.612936,27.099031 c 0,-0.166063 0.02384,-0.306364 0.07152,-0.421287 0.04768,-0.114548 0.113779,-0.207192 0.198726,-0.277914 0.08456,-0.07072 0.184503,-0.121851 0.299434,-0.153756 0.114548,-0.03152 0.237168,-0.04768 0.36786,-0.04768 0.123773,0 0.241401,0.01616 0.352492,0.04768 0.111085,0.03193 0.209104,0.08303 0.294051,0.153756 0.08457,0.07072 0.151453,0.163366 0.201038,0.277914 0.0496,0.114923 0.07417,0.255224 0.07417,0.421287 0,0.159133 -0.02457,0.29521 -0.07417,0.408221 -0.0496,0.112627 -0.116467,0.206798 -0.201038,0.280985 -0.08494,0.07384 -0.182966,0.127621 -0.294051,0.161447 -0.111091,0.03344 -0.228719,0.05032 -0.352492,0.05032 -0.130692,0 -0.253312,-0.01687 -0.36786,-0.05032 -0.114931,-0.03385 -0.214871,-0.08764 -0.299434,-0.161447 -0.08495,-0.07416 -0.151069,-0.168358 -0.198726,-0.280985 -0.0472,-0.112804 -0.0712,-0.248809 -0.0712,-0.408014 m 0.174902,-2.099234 v -0.104441 c 0,-0.180278 0.01847,-0.343644 0.05568,-0.490097 0.03689,-0.146829 0.09341,-0.285978 0.169518,-0.418599 0.07576,-0.132228 0.173742,-0.261376 0.293674,-0.386692 0.120308,-0.125317 0.265225,-0.255241 0.434742,-0.389389 0.148374,-0.116468 0.273689,-0.220641 0.375933,-0.312891 0.102628,-0.09148 0.185271,-0.182591 0.249089,-0.272914 0.06344,-0.08994 0.109547,-0.184126 0.137605,-0.282913 0.02848,-0.09917 0.04272,-0.214112 0.04272,-0.344412 0,-0.201423 -0.0684,-0.367861 -0.204119,-0.498169 -0.136077,-0.130693 -0.343643,-0.196039 -0.622701,-0.196039 -0.243328,0 -0.505857,0.05112 -0.78685,0.153374 -0.280218,0.102627 -0.571204,0.227935 -0.87139,0.376317 L 19.522,20.662299 c 0.151454,-0.08841 0.316739,-0.172207 0.495089,-0.251385 0.17875,-0.07961 0.364021,-0.150301 0.556219,-0.212183 0.192574,-0.06152 0.387844,-0.110324 0.58542,-0.145685 0.197966,-0.03536 0.392077,-0.05305 0.583123,-0.05305 0.360173,0 0.684984,0.04345 0.974433,0.129924 0.289834,0.08648 0.535458,0.212559 0.736489,0.378621 0.201807,0.166054 0.355948,0.367861 0.463576,0.604261 0.108011,0.236784 0.161829,0.506625 0.161829,0.810267 0,0.222559 -0.02505,0.421295 -0.07416,0.596188 -0.0492,0.174902 -0.123004,0.337492 -0.219487,0.487401 -0.09764,0.150301 -0.219487,0.29521 -0.36594,0.434367 -0.146453,0.139533 -0.317123,0.287138 -0.511242,0.442431 -0.148373,0.116468 -0.269449,0.218327 -0.363244,0.304818 -0.09341,0.08649 -0.166829,0.16875 -0.219487,0.246008 -0.05305,0.07801 -0.08918,0.158374 -0.10878,0.2414 -0.01928,0.08265 -0.0292,0.180663 -0.0292,0.293675 v 0.03064 h -1.398447 z"/>
 <path style="fill:#8b9cbe;opacity:0.1" d="M 6 4 C 4.892 4 4 4.892 4 6 L 4 7 C 4 5.892 4.892 5 6 5 L 24 5 A 20 20 0 0 1 43.978516 24.582031 A 20 20 0 0 0 44 24 A 20 20 0 0 0 24 4 L 6 4 z"/>
</svg>
