<svg xmlns="http://www.w3.org/2000/svg" width="48" height="48" version="1.1">
 <path style="opacity:0.2" d="M 7.8461538,4 H 40.153847 C 41.176616,4 42,4.8247 42,5.8528 V 39.2574 C 42,40.2856 41.176616,41 40.153847,41 H 19 l -4,5 -4,-5 H 7.8461538 C 6.8233846,41 6,40.2856 6,39.2574 V 5.8528 C 6,4.8247 6.8233846,4 7.8461538,4 Z"/>
 <path style="fill:#b2bfd9" d="M 7.8461538,3 H 40.153847 C 41.176616,3 42,3.8247 42,4.8528 V 38.2574 C 42,39.2856 41.176616,40 40.153847,40 H 19 l -4,5 -4,-5 H 7.8461538 C 6.8233846,40 6,39.2856 6,38.2574 V 4.8528 C 6,3.8247 6.8233846,3 7.8461538,3 Z"/>
 <path style="opacity:0.1" d="M 11.730469,9.9998 C 11.334271,9.9998 11,10.336022 11,10.732222 v 2.537109 c 0,0.3962 0.334271,0.730469 0.730469,0.730469 h 2.539062 C 14.665729,13.9998 15,13.665531 15,13.269331 V 10.732222 C 15,10.336022 14.665729,9.9998 14.269531,9.9998 Z M 21,9.9998 a 2.0002,2.0002 0 1 0 0,4 h 14 a 2.0002,2.0002 0 1 0 0,-4 z m -9.269531,20 C 11.334271,29.9998 11,30.336022 11,30.732222 v 2.537109 c 0,0.3962 0.334271,0.730469 0.730469,0.730469 h 2.539062 C 14.665729,33.9998 15,33.665531 15,33.269331 V 30.732222 C 15,30.336022 14.665729,29.9998 14.269531,29.9998 Z m 9.269531,0 a 2.0002,2.0002 0 1 0 0,4 h 14 a 2.0002,2.0002 0 1 0 0,-4 z"/>
 <rect style="fill:#00c7c5" width="36" height="10" x="6" y="16"/>
 <path style="opacity:0.2" d="M 11.730469,19.9998 C 11.334271,19.9998 11,20.336022 11,20.732222 v 2.537109 c 0,0.3962 0.334271,0.730469 0.730469,0.730469 h 2.539062 C 14.665729,23.9998 15,23.665531 15,23.269331 V 20.732222 C 15,20.336022 14.665729,19.9998 14.269531,19.9998 Z m 9.269531,0 a 2.0002,2.0002 0 1 0 0,4 h 14 a 2.0002,2.0002 0 1 0 0,-4 z"/>
 <path style="fill:#8b9cbe" d="M 11.730469,19 C 11.334271,19 11,19.336222 11,19.732422 v 2.537109 C 11,22.665731 11.334271,23 11.730469,23 h 2.539062 C 14.665729,23 15,22.665731 15,22.269531 V 19.732422 C 15,19.336222 14.665729,19 14.269531,19 Z"/>
 <path style="fill:#898989" d="M 11.730469,9 C 11.334271,9 11,9.336222 11,9.732422 v 2.537109 C 11,12.665731 11.334271,13 11.730469,13 h 2.539062 C 14.665729,13 15,12.665731 15,12.269531 V 9.732422 C 15,9.336222 14.665729,9 14.269531,9 Z"/>
 <path style="fill:#8b9cbe;opacity:0.2" d="M 7.8457031 3 C 6.8229339 3 6 3.8254156 6 4.8535156 L 6 5.8535156 C 6 4.8254156 6.8229339 4 7.8457031 4 L 40.154297 4 C 41.177066 4 42 4.8254156 42 5.8535156 L 42 4.8535156 C 42 3.8254156 41.177066 3 40.154297 3 L 7.8457031 3 z"/>
 <path style="fill:#8b9cbe;stroke:#8b9cbe;stroke-width:4;stroke-linecap:round" d="M 21,21 H 35"/>
 <path style="fill:none;stroke:#898989;stroke-width:4;stroke-linecap:round" d="M 21,11 H 35"/>
 <path style="fill:#898989" d="M 11.730469,29 C 11.334271,29 11,29.336222 11,29.732422 v 2.537109 C 11,32.665731 11.334271,33 11.730469,33 h 2.539062 C 14.665729,33 15,32.665731 15,32.269531 V 29.732422 C 15,29.336222 14.665729,29 14.269531,29 Z"/>
 <path style="fill:none;stroke:#898989;stroke-width:4;stroke-linecap:round" d="M 21,31 H 35"/>
</svg>
