<svg xmlns="http://www.w3.org/2000/svg" width="48" height="48" version="1.1">
 <circle style="opacity:0.2" cx="24" cy="25" r="20"/>
 <circle style="fill:#792d72" cx="24" cy="24" r="20"/>
 <path style="opacity:0.1;fill:#8b9cbe" d="M 24,4 A 20,20 0 0 0 4,24 20,20 0 0 0 4.0196,24.586 20,20 0 0 1 24,5 20,20 0 0 1 43.98,24.414 20,20 0 0 0 44,24 20,20 0 0 0 24,4 Z"/>
 <path style="opacity:0.2" d="M 20.5,12 A 1.50015,1.50015 0 0 0 19,13.5 V 20 H 12.5 A 1.50015,1.50015 0 0 0 11,21.5 v 7 A 1.50015,1.50015 0 0 0 12.5,30 H 19 v 6.5 a 1.50015,1.50015 0 0 0 1.5,1.5 h 7 A 1.50015,1.50015 0 0 0 29,36.5 V 30 h 6.5 A 1.50015,1.50015 0 0 0 37,28.5 v -7 A 1.50015,1.50015 0 0 0 35.5,20 H 29 V 13.5 A 1.50015,1.50015 0 0 0 27.5,12 Z m 1.5,3 h 4 v 6.5 A 1.50015,1.50015 0 0 0 27.5,23 H 34 v 4 H 27.5 A 1.50015,1.50015 0 0 0 26,28.5 V 35 H 22 V 28.5 A 1.50015,1.50015 0 0 0 20.5,27 H 14 v -4 h 6.5 A 1.50015,1.50015 0 0 0 22,21.5 Z"/>
 <path style="fill:#fcd600" d="M 20.5,11 A 1.50015,1.50015 0 0 0 19,12.5 V 19 H 12.5 A 1.50015,1.50015 0 0 0 11,20.5 v 7 A 1.50015,1.50015 0 0 0 12.5,29 H 19 v 6.5 a 1.50015,1.50015 0 0 0 1.5,1.5 h 7 A 1.50015,1.50015 0 0 0 29,35.5 V 29 h 6.5 A 1.50015,1.50015 0 0 0 37,27.5 v -7 A 1.50015,1.50015 0 0 0 35.5,19 H 29 V 12.5 A 1.50015,1.50015 0 0 0 27.5,11 Z m 1.5,3 h 4 v 6.5 A 1.50015,1.50015 0 0 0 27.5,22 H 34 v 4 H 27.5 A 1.50015,1.50015 0 0 0 26,27.5 V 34 H 22 V 27.5 A 1.50015,1.50015 0 0 0 20.5,26 H 14 v -4 h 6.5 A 1.50015,1.50015 0 0 0 22,20.5 Z"/>
 <path style="opacity:0.2;fill:#8b9cbe" d="M 20.5 11 A 1.50015 1.50015 0 0 0 19 12.5 L 19 13.5 A 1.50015 1.50015 0 0 1 20.5 12 L 27.5 12 A 1.50015 1.50015 0 0 1 29 13.5 L 29 12.5 A 1.50015 1.50015 0 0 0 27.5 11 L 20.5 11 z M 12.5 19 A 1.50015 1.50015 0 0 0 11 20.5 L 11 21.5 A 1.50015 1.50015 0 0 1 12.5 20 L 19 20 L 19 19 L 12.5 19 z M 29 19 L 29 20 L 35.5 20 A 1.50015 1.50015 0 0 1 37 21.5 L 37 20.5 A 1.50015 1.50015 0 0 0 35.5 19 L 29 19 z M 14 26 L 14 27 L 20.5 27 A 1.50015 1.50015 0 0 1 22 28.5 L 22 27.5 A 1.50015 1.50015 0 0 0 20.5 26 L 14 26 z M 27.5 26 A 1.50015 1.50015 0 0 0 26 27.5 L 26 28.5 A 1.50015 1.50015 0 0 1 27.5 27 L 34 27 L 34 26 L 27.5 26 z M 22 34 L 22 35 L 26 35 L 26 34 L 22 34 z"/>
</svg>
