<svg xmlns="http://www.w3.org/2000/svg" width="48" height="48" version="1.1">
 <rect style="opacity:0.2" width="34" height="40" x="12" y="5" rx="2" ry="2"/>
 <path style="fill:#185c37" d="M 46,34 V 42 C 46,43.108 45.108,44 44,44 H 14 C 12.892,44 12,43.108 12,42 V 23 H 28 L 29,24 Z"/>
 <path style="fill:#21a366" d="M 14,4 H 29 L 46,14 V 25 H 30 L 29,24 12,14 V 6 C 12,4.8921 12.892,4 14,4 Z"/>
 <path style="fill:#33c481" d="M 29,4 H 44 C 45.108,4 46,4.892 46,6 V 14 H 29 Z"/>
 <path style="fill:#107c41" d="M 12,14 H 29 V 24 H 12 Z M 29,24 H 46 V 34 H 29 Z"/>
 <path style="opacity:0.1" d="M 12,34 H 46 V 35 H 12 Z M 12,14 H 46 V 15 H 12 Z M 12,24 H 46 V 25 H 12 Z"/>
 <path style="opacity:0.2;fill:#8b9cbe" d="M 14,4 C 12.892,4 12,4.892 12,6 V 7 C 12,5.892 12.892,5 14,5 H 44 C 45.108,5 46,5.892 46,7 V 6 C 46,4.892 45.108,4 44,4 Z"/>
 <rect style="opacity:0.2" width="22" height="22" x="2" y="14" rx="2" ry="2"/>
 <rect style="fill:#0e6f3a" width="22" height="22" x="2" y="13" rx="2" ry="2"/>
 <path style="fill:#8b9cbe" d="M 6.7469,31 11.277,23.98 7.1276,17 H 10.467 L 13.161,22.409 16.08,17 H 19.146 L 14.889,23.941 19.253,31 H 15.992 L 13.024,25.445 10.027,31 Z"/>
</svg>
