<svg xmlns="http://www.w3.org/2000/svg" width="48" height="48" version="1.1">
 <path style="opacity:0.2" d="M 4,25 C 4,36.05305 12.962787,45 24,45 35.03721,45 44,36.05305 44,25 44,13.946952 35.05305,5 24,5 12.946952,5 4,13.946952 4,25 Z"/>
 <path style="fill:#1e3854" d="M 4,24 C 4,35.05305 12.962787,44 24,44 35.03721,44 44,35.05305 44,24 44,12.946952 35.05305,4 24,4 12.946952,4 4,12.946952 4,24 Z"/>
 <path style="opacity:0.2" d="m 26.64453,10.991475 c -0.718283,0.0077 -1.414552,0.132288 -2.056639,0.390625 -0.619812,0.250508 -0.978631,0.311611 -1.458985,0.75 -0.154956,-0.06263 -0.310019,-0.09375 -0.480468,-0.09375 -0.836747,0 -1.919907,1.019293 -2.384766,2.099609 -0.325401,0.782838 -0.386727,1.11198 -0.154297,1.753907 -1.208633,0.266171 -3.920029,-0.0625 -4.632813,-0.0625 0.04649,0.03131 0.107942,0.06244 0.169922,0.09375 l 4.97461,2.878906 0.04492,0.04687 c 1.472054,1.315168 3.738988,3.006968 5.923826,4.384766 1.36358,0.876778 6.25976,2.411989 6.49219,2.474609 -0.58882,-1.471734 0.99191,-3.413285 1.42578,-4.759766 0.52687,-1.643959 0.71357,-3.445884 0.0937,-5.089843 -1.04496,-2.760466 -4.84446,-4.900631 -7.95703,-4.867188 z m -3.572264,1.5 c 0.153552,0 0.338418,0.03242 0.517578,0.113281 0.48013,0.203075 0.774307,0.669236 0.867187,1.199219 0.108734,0.602087 0.119079,1.27611 -0.191406,1.910156 -0.456309,1.001368 -1.384906,1.777344 -2.349609,1.777344 -0.159449,0 -0.31828,-0.02034 -0.480469,-0.08203 -0.449666,-0.171068 -0.667499,-0.545634 -0.769531,-0.810547 -0.287897,-0.69556 -0.197331,-1.540214 0.15039,-2.31836 l 0.0039,-0.0039 0.002,-0.0059 c 0.470493,-0.992279 1.282044,-1.779297 2.25,-1.779297 z M 9.318359,16.042256 c -0.0044,-0.04521 -0.017,-0.02509 -0.04492,0.09961 L 8.8125,18.098897 C 6.946326,17.290824 6.382137,20.407691 8.082031,20.639913 l -1.066406,2.1875 1.488281,-2.09961 c 0.0046,0.733223 -0.141165,2.856829 -0.05273,2.800781 l 0.376953,-2.048828 c 1.753214,3.303242 4.416021,6.183354 7.453125,8.337894 1.351992,1.09726 3.432343,0.71679 4.990234,0.20703 1.417645,-0.47602 2.648159,-1.5786 3.9375,-2.15821 0.377085,0.25194 0.752484,0.50679 1.128902,0.75977 -0.573912,-0.0945 -1.257174,-0.59858 -1.57812,0.18359 -2.062457,2.03622 -5.543828,2.9966 -8.136719,1.39649 -1.987116,0.56624 0.707096,1.93533 -0.04102,3.04687 -0.808062,1.13133 -1.746752,1.96323 -2.394531,3.14258 0.395323,1.04454 1.563676,1.77031 2.464844,2.45117 4.416572,2.82405 10.351506,2.78559 14.939456,0.37891 1.30542,-0.70564 2.49984,-1.64422 3.4082,-2.82422 -0.47101,-1.20866 -1.81459,-1.90298 -2.2168,-3.19531 1.61432,0.70017 -1.11297,-1.73558 -0.17968,-1.7168 1.13921,0.21207 -1.44743,-1.44963 -0.0254,-1.28125 1.19242,0.0819 -1.46979,-1.5601 -0.47266,-1.44726 0.45836,0.0728 1.17902,0.29623 0.53125,-0.26758 -0.31235,-0.38103 -0.62515,-0.76155 -0.9375,-1.14258 0.74525,0.15529 0.55244,-0.18541 0.18164,-0.62109 C 31.43206,25.886955 30.24006,26.060297 29.46874,25.641866 25.792729,24.5846 22.883384,21.961999 20.041016,19.53835 L 17.119141,18.198506 C 14.724337,18.045718 12.292918,17.8783 9.914063,18.286396 l 1.052734,-1.816406 -1.611328,1.957031 c -0.30669,-0.30981 -0.01665,-0.935193 -0.08203,-1.371094 -0.009,-0.165132 0.05798,-0.878052 0.04492,-1.013671 z"/>
 <path style="fill:#d0933a" d="m 7.01549,21.835009 1.487548,-2.098005 c 0.0046,0.733223 -0.140531,2.856036 -0.0521,2.799988 l 0.377505,-2.048464 c 1.753214,3.303242 4.416134,6.182952 7.453238,8.337492 1.351992,1.09726 3.431593,0.71711 4.989484,0.20735 1.417645,-0.47602 2.648749,-1.57917 3.93809,-2.15878 0.377085,0.25194 0.752452,0.50656 1.128875,0.75954 -0.573917,-0.0945 -1.258121,-0.5982 -1.579067,0.18397 -2.062457,2.03622 -5.543591,2.99746 -8.136482,1.39735 -1.987116,0.56624 0.708402,1.93443 -0.03971,3.04597 -0.808062,1.13133 -1.747243,1.9627 -2.395022,3.14205 0.395323,1.04454 1.562472,1.77088 2.46364,2.45174 4.416572,2.82405 10.352741,2.78606 14.940691,0.37938 C 32.8976,37.52895 34.09164,36.58937 35,35.40937 34.52899,34.20071 33.18638,33.50773 32.78417,32.2154 c 1.61432,0.70017 -1.11369,-1.736 -0.1804,-1.71722 1.13921,0.21207 -1.44864,-1.45036 -0.0266,-1.28198 1.19242,0.0819 -1.46953,-1.55912 -0.4724,-1.44628 0.45836,0.0728 1.17954,0.29679 0.53177,-0.26702 -0.31235,-0.38103 -0.6247,-0.76207 -0.93705,-1.1431 0.74525,0.15529 0.55267,-0.186028 0.18187,-0.621717 -0.44879,-0.842801 -1.64041,-0.670107 -2.41173,-1.088538 -3.676021,-1.057266 -6.586578,-3.678832 -9.428946,-6.102481 L 17.118417,17.207 C 14.723613,17.054212 12.29196,16.886343 9.913105,17.29444 l 1.053679,-1.816183 -1.61151,1.957094 c -0.30669,-0.30981 -0.01665,-0.934576 -0.08203,-1.370477 -0.01195,-0.220176 0.111168,-1.413877 -5.38e-4,-0.915082 L 8.812941,17.106559 C 6.946767,16.298486 6.382796,19.415658 8.08269,19.64788 l -1.067209,2.187129 z"/>
 <path style="opacity:0.2" d="m 23.072266,13.000172 c -0.641498,0 -1.388982,0.627856 -1.798828,1.492188 -0.30293,0.677907 -0.358363,1.425162 -0.144532,1.933593 0.07128,0.186424 0.215131,0.421752 0.482422,0.523438 0.0891,0.03389 0.197773,0.05078 0.304688,0.05078 0.641499,0 1.406802,-0.625901 1.798828,-1.490234 0.267297,-0.542326 0.337148,-1.119847 0.248047,-1.611328 -0.07128,-0.406746 -0.285203,-0.711445 -0.570313,-0.830079 -0.106914,-0.05084 -0.213398,-0.06836 -0.320312,-0.06836 z M 8.300781,17.965016 c -0.712785,0 -1.285156,0.58057 -1.285156,1.300781 0,0.62627 0.448288,1.157949 1.037109,1.283203 h 0.03125 C 8.471366,20.423746 9.24701,19.374554 9.123047,18.716969 9.076557,18.482119 8.967453,18.264225 8.8125,18.076344 8.657547,18.013714 8.471228,17.965016 8.300781,17.965016 Z"/>
 <path style="fill:#fdd321" d="m 26.644531,10 c -0.718284,0.0077 -1.414553,0.132288 -2.05664,0.390625 -0.619812,0.250508 -0.978302,0.310861 -1.458656,0.74925 -0.154956,-0.06263 -0.31002,-0.09375 -0.480469,-0.09375 -0.836746,0 -1.920235,1.020043 -2.385094,2.100359 -0.325401,0.782838 -0.386727,1.11198 -0.154297,1.753907 -1.208633,0.266171 -3.920029,-0.0625 -4.632813,-0.0625 0.04649,0.03131 0.107942,0.06244 0.169922,0.09375 l 4.97461,2.878906 0.04492,0.04687 c 1.472054,1.315168 3.73985,3.006968 5.92469,4.384766 1.36358,0.876778 6.259757,2.411989 6.492187,2.474609 -0.58882,-1.471734 0.991911,-3.413285 1.425781,-4.759766 0.52687,-1.643959 0.71357,-3.445884 0.09375,-5.089843 C 33.557464,12.106717 29.757096,9.9665571 26.644531,10 Z m -3.572265,1.5 c 0.153552,0 0.338418,0.03242 0.517578,0.113281 0.48013,0.203075 0.774307,0.669236 0.867187,1.199219 0.108734,0.602087 0.119033,1.27611 -0.191452,1.910156 C 23.80927,15.724024 22.880719,16.5 21.916016,16.5 c -0.159449,0 -0.31828,-0.02034 -0.480469,-0.08203 -0.449666,-0.171068 -0.667499,-0.545634 -0.769531,-0.810547 -0.287897,-0.69556 -0.197331,-1.540215 0.15039,-2.31836 l 0.0039,-0.0039 0.002,-0.0059 C 21.292799,12.286984 22.10431,11.5 23.072266,11.5 Z"/>
 <path style="fill:#ffcc86" d="M 8.812944,17.075356 C 8.657991,17.012726 8.472047,16.965758 8.3016,16.965758 c -0.712785,0 -1.28611,0.5793 -1.28611,1.299511 0,0.62627 0.449364,1.1586 1.038185,1.283854 0.01549,0 0.01549,0 0.03099,0 C 8.472047,19.423869 9.246813,18.374867 9.12285,17.717282 9.07636,17.482432 8.967897,17.263237 8.812944,17.075356 Z"/>
 <path style="fill:#8b9cbe" d="m 23.071887,12 c -0.641498,0 -1.389257,0.628268 -1.799104,1.4926 -0.302929,0.677907 -0.35758,1.423916 -0.143749,1.932347 0.07128,0.186424 0.215615,0.422627 0.482906,0.524313 C 21.70104,15.98315 21.808245,16 21.91516,16 c 0.641499,0 1.407076,-0.626154 1.799102,-1.490487 0.267297,-0.542326 0.338415,-1.119511 0.249314,-1.610993 -0.07128,-0.406745 -0.285392,-0.712233 -0.570502,-0.830867 -0.106914,-0.05084 -0.214273,-0.06765 -0.321187,-0.06765 z"/>
 <path style="opacity:0.1;fill:#8b9cbe" d="M 24,4 C 12.946952,4 4,12.946952 4,24 4,24.167783 4.00761,24.333211 4.011719,24.5 4.2776691,13.679257 13.114735,5 24,5 34.885267,5 43.722331,13.679257 43.988281,24.5 43.992388,24.333211 44,24.167783 44,24 44,12.946952 35.05305,4 24,4 Z"/>
 <path style="opacity:0.2;fill:#8b9cbe" d="m 26.644531,10 c -0.718284,0.0077 -1.414553,0.132288 -2.05664,0.390625 -0.619812,0.250508 -0.978631,0.311611 -1.458985,0.75 -0.154956,-0.06263 -0.31002,-0.09375 -0.480468,-0.09375 -0.836747,0 -1.919907,1.019293 -2.384766,2.099609 -0.289972,0.697605 -0.357466,1.045016 -0.207031,1.564454 0.04916,-0.167273 0.114203,-0.348945 0.207031,-0.572266 0.152454,-0.354299 0.383714,-0.686771 0.638672,-0.994141 C 21.38106,12.22038 22.151088,11.5 23.072266,11.5 c 0.153552,0 0.338418,0.03242 0.517578,0.113281 0.06139,0.02596 0.110739,0.06741 0.166015,0.101563 0.241984,-0.113412 0.498504,-0.19723 0.832032,-0.332032 0.642087,-0.258336 1.338357,-0.382925 2.05664,-0.390624 3.11257,-0.03344 6.912071,2.106721 7.957031,4.867187 0.214502,0.568881 0.326527,1.156379 0.367188,1.75 0.06098,-0.927124 -0.03357,-1.857327 -0.367188,-2.742187 C 33.556604,12.106721 29.757096,9.9665571 26.644531,10 Z m -2.164062,3.988281 c -0.0375,0.246644 -0.09671,0.493142 -0.214844,0.734375 C 23.809316,15.724024 22.880719,16.5 21.916016,16.5 c -0.159449,0 -0.31828,-0.02034 -0.480469,-0.08203 -0.449666,-0.171068 -0.667499,-0.545634 -0.769531,-0.810547 -0.05601,-0.135325 -0.08503,-0.280757 -0.113282,-0.425781 -0.08405,0.495275 -0.06549,0.98605 0.113282,1.417968 0.102032,0.264913 0.319865,0.639479 0.769531,0.810547 0.162189,0.06169 0.32102,0.08203 0.480469,0.08203 0.964703,0 1.8933,-0.775976 2.349609,-1.777344 0.279711,-0.571202 0.293261,-1.172296 0.214844,-1.726563 z m -9.003907,0.84961 c 0.04649,0.03131 0.107942,0.06244 0.169922,0.09375 l 1.757813,1.017578 c 0.988223,0.05935 2.043168,0.08913 2.705078,-0.05664 -0.137778,-0.380517 -0.160136,-0.658162 -0.09766,-0.978516 -1.247422,0.233014 -3.839175,-0.07617 -4.535157,-0.07617 z m -6.1582026,0.21289 c -0.00435,-0.04521 -0.016995,-0.02509 -0.044922,0.09961 L 8.8125,17.107422 C 7.4917431,16.53552 6.8277399,17.927006 7.1523438,18.873047 7.3503188,18.219095 7.9293065,17.717177 8.8125,18.099609 l 0.4609375,-1.955078 c -3.9e-5,-6.26e-4 4.01e-5,-0.0013 0,-0.002 -0.0016,-0.02501 0.00359,-0.05418 0,-0.07813 -0.00896,-0.165132 0.057981,-0.878052 0.044922,-1.013672 z m 1.6484376,0.427735 -1.6113282,1.957031 c -0.035591,-0.03595 -0.062978,-0.07743 -0.083984,-0.121094 -0.026633,0.399195 -0.1667892,0.859957 0.083984,1.113281 l 0.9726562,-1.179687 c -0.137639,0.01983 -0.276757,0.02332 -0.4140625,0.04687 z m 2.542969,1.5625 c -0.997278,-0.0082 -1.990297,0.05385 -2.978516,0.183593 l -0.6171875,1.0625 c 2.3788555,-0.408096 4.8102745,-0.240678 7.2050785,-0.08789 l 2.921875,1.339843 c 2.842368,2.423649 5.751723,5.04625 9.427734,6.103516 0.77132,0.418431 1.963319,0.245086 2.412109,1.087891 0.3708,0.43568 0.56361,0.776383 -0.18164,0.621093 0.11643,0.142032 0.2331,0.283839 0.349609,0.425782 0.02498,7.1e-5 0.02415,-0.01149 0.05664,-0.0078 0.45836,0.0728 1.17902,0.296232 0.53125,-0.267578 -0.31235,-0.38103 -0.62515,-0.761548 -0.9375,-1.142578 0.74525,0.15529 0.55244,-0.185405 0.18164,-0.621094 -0.44879,-0.842801 -1.640789,-0.669459 -2.412109,-1.08789 -3.676021,-1.057266 -6.585366,-3.679867 -9.427734,-6.103516 L 17.11914,17.207044 c -1.197402,-0.07639 -2.404813,-0.156075 -3.609375,-0.166015 z M 7.6679688,20.498047 7.015625,21.835938 7.8964844,20.591797 c -0.082693,-0.02445 -0.1588098,-0.05495 -0.2285156,-0.09375 z m 0.8359374,0.230469 -0.035156,0.05078 c -0.032594,0.791559 -0.064502,1.562125 -0.025391,1.683594 0.024864,-0.625459 0.062903,-1.358729 0.060547,-1.734375 z M 33.021484,24.4375 c -0.01721,0.08363 -0.02496,0.165499 -0.03516,0.248047 0.0066,0.0019 0.09177,0.03019 0.0957,0.03125 -0.03591,-0.08976 -0.04002,-0.186289 -0.06055,-0.279297 z m -7.8125,3.429688 c -1.289341,0.57961 -2.519855,1.682183 -3.9375,2.158203 -1.557891,0.50976 -3.638242,0.890228 -4.990234,-0.207032 -0.105355,-0.07474 -0.206115,-0.157901 -0.310547,-0.234375 -0.175618,0.242337 -0.06224,0.539999 0.123047,0.863282 0.117798,-0.09068 0.287691,-0.171388 0.529297,-0.240235 2.592891,1.60011 6.074262,0.639736 8.136719,-1.396484 0.320946,-0.78217 1.004209,-0.278094 1.578125,-0.183594 -0.376422,-0.25298 -0.751822,-0.507825 -1.128907,-0.759765 z m 6.896485,0.894531 c -0.390083,-0.04414 -0.184411,0.199666 0.0957,0.484375 0.0633,-0.03778 0.178362,-0.05281 0.376953,-0.0293 0.388543,0.02669 0.351667,-0.136438 0.181641,-0.355469 -0.160315,-2.54e-4 -0.433681,-0.06457 -0.654297,-0.09961 z m 0.630859,1.421875 c -0.04834,0.01008 -0.07435,0.03115 -0.158203,0.02539 -0.691941,-0.08193 -0.432411,0.268992 -0.117187,0.626954 -0.08684,-0.200691 -0.08122,-0.342394 0.142578,-0.337891 0.388966,0.07241 0.304687,-0.09741 0.132812,-0.314453 z m 0.134766,1.304687 c -0.04107,0.02481 -0.125177,0.02846 -0.267578,0.002 -0.461156,-0.0093 -0.02696,0.580856 0.333984,1.095704 -0.05797,-0.119493 -0.113666,-0.240544 -0.154297,-0.371094 0.872803,0.378556 0.488634,-0.155299 0.08789,-0.726563 z m -16.302735,0.791016 c -0.805045,1.121888 -1.736629,1.952111 -2.380859,3.125 0.07193,0.190067 0.176111,0.366501 0.292969,0.537109 0.620948,-0.94587 1.404324,-1.711329 2.101562,-2.6875 0.210368,-0.312561 0.139714,-0.644896 -0.01367,-0.974609 z m 16.6875,0.837891 c 0.0863,0.209058 0.01743,0.302405 -0.472656,0.08984 0.329652,1.059195 1.285174,1.719698 1.880859,2.587891 0.11134,-0.128891 0.231847,-0.249547 0.335938,-0.384766 -0.348949,-0.89544 -1.174946,-1.509821 -1.744141,-2.292968 z"/>
</svg>
