<svg xmlns="http://www.w3.org/2000/svg" width="48" height="48" version="1">
 <path style="fill:#714f36" d="m 16.9,6.9 v 2 3 2 h -2.8 v -2 H 11.5 9.1 v -3 H 6.9 v 3 H 4 V 42 c 0,1.108 0.892,2 2,2 h 36 c 1.108,0 2,-0.892 2,-2 V 8.9 h -3.1 v 3 H 39 37.1 v -3 h -3.2 v 3 h -2 v 2 h -2.8 v -2 h -2.2 v 2 h -2.8 v -2 -3 h -2.2 v 3 h -2.8 v -3 -2 z"/>
 <path fill="#fff" opacity=".2" d="m4 7v-1c0-1.108 0.892-2 2-2h36c1.108 0 2 0.892 2 2v1c0-1.108-0.892-2-2-2h-36c-1.108 0-2 0.892-2 2z"/>
 <path opacity=".2" d="m4 42v1c0 1.108 0.892 2 2 2h36c1.108 0 2-0.892 2-2v-1c0 1.108-0.892 2-2 2h-36c-1.108 0-2-0.892-2-2z"/>
 <path style="fill:none;stroke:#78c629;stroke-width:3;stroke-linecap:round" d="m 14.5,20.49985 c 7,0 12,12.000075 19,12.000075 3.073181,0 5.999991,-3.171573 6,-6 9e-6,-2.828445 -2.926819,-6.000075 -6,-6.000075 -8,0 -12,12.000075 -19,12.000075"/>
 <path style="fill:none;stroke:#78c629;stroke-width:3;stroke-linecap:round" d="m 33.4,20.5 c -7.795053,0 -11.9,12.000075 -18.9,12.000075 -3.073181,0 -5.9999912,-3.171573 -6,-6 C 8.4999912,23.67163 11.426819,20.5 14.5,20.5"/>
 <path style="opacity:0.2" d="M 6,5 C 4.892,5 4,5.892 4,7 v 3 3 h 3 v -3 h 2 v 3 h 2.5 2.5 v 3 h 3 V 13 10 8 h 2 v 2 3 h 3 v -3 h 2 v 3 3 h 3 v -3 h 2 v 3 h 3 v -3 h 2 v -3 h 3 v 3 h 2 2 v -3 h 3 V 7 C 44,5.892 43.108,5 42,5 H 39 9 Z"/>
 <path style="fill:#629431" d="M 6,4 C 4.892,4 4,4.892 4,6 v 3 3 H 7 V 9 h 2 v 3 h 2.5 2.5 v 3 h 3 V 12 9 7 h 2 v 2 3 h 3 V 9 h 2 v 3 3 h 3 v -3 h 2 v 3 h 3 v -3 h 2 V 9 h 3 v 3 h 2 2 V 9 h 3 V 6 C 44,4.892 43.108,4 42,4 H 39 9 Z"/>
 <path style="fill:#8b9cbe;opacity:0.1" d="M 6 4 C 4.892 4 4 4.892 4 6 L 4 7 C 4 5.892 4.892 5 6 5 L 9 5 L 39 5 L 42 5 C 43.108 5 44 5.892 44 7 L 44 6 C 44 4.892 43.108 4 42 4 L 39 4 L 9 4 L 6 4 z"/>
 <path style="opacity:0.2" d="M 33.400391 22 C 32.722756 22 32.067399 22.125887 31.425781 22.34375 C 31.42483 22.341221 31.422788 22.340474 31.421875 22.337891 C 31.42078 22.340989 31.420982 22.34263 31.419922 22.345703 C 29.102249 23.134935 26.975756 25.198766 24.734375 27.537109 C 23.302539 29.030887 21.851928 30.585569 20.212891 31.822266 C 18.573853 33.058962 16.678574 34 14.5 34 C 12.447401 34 10.616812 32.98763 9.2734375 31.607422 C 8.047187 30.347549 7.173753 28.739609 7.0292969 27 C 7.0155 27.166157 6.9999995 27.331589 7 27.5 C 7.000006 29.431604 7.930063 31.227214 9.2734375 32.607422 C 10.616812 33.98763 12.447401 35 14.5 35 C 16.678574 35 18.573853 34.058962 20.212891 32.822266 C 21.851928 31.585569 23.302539 30.030887 24.734375 28.537109 C 27.333863 25.825167 29.778575 23.481013 32.546875 23.070312 C 32.875012 23.061178 33.217923 23.041196 33.537109 23.037109 C 34.557682 23.037109 35.726903 23.610737 36.615234 24.523438 C 37.349467 25.277812 37.8202 26.222621 37.96875 27.037109 C 37.99993 26.866166 38.037108 26.692681 38.037109 26.537109 C 38.037112 25.64028 37.503566 24.436138 36.615234 23.523438 C 36.288338 23.187574 35.916721 22.917891 35.535156 22.685547 C 35.531855 22.675435 35.534953 22.670631 35.53125 22.660156 C 35.528539 22.667825 35.522578 22.668703 35.519531 22.675781 C 34.890851 22.296037 34.225289 22.055783 33.603516 22.041016 C 33.532628 22.020414 33.461353 22.000782 33.400391 22 z"/>
 <path style="opacity:0.2;fill:#8b9cbe" d="M 33.400391 19 C 28.73314 19 25.455924 22.450408 22.568359 25.462891 C 21.124577 26.969132 19.749236 28.414417 18.40625 29.427734 C 17.063264 30.441052 15.821426 31 14.5 31 C 13.479418 31 12.310203 30.426357 11.421875 29.513672 C 10.687645 28.75931 10.216912 27.814489 10.068359 27 C 10.037182 27.170942 9.9999995 27.344427 10 27.5 C 10.000003 28.396823 10.533547 29.600987 11.421875 30.513672 C 12.310203 31.426357 13.479418 32 14.5 32 C 15.821426 32 17.063264 31.441052 18.40625 30.427734 C 19.749236 29.414417 21.124577 27.969132 22.568359 26.462891 C 25.106485 23.814964 27.946022 20.830475 31.765625 20.146484 C 31.767315 20.151424 31.765818 20.155176 31.767578 20.160156 C 31.769894 20.153604 31.774873 20.150841 31.777344 20.144531 C 32.299625 20.051689 32.839726 20 33.400391 20 C 33.422086 19.999722 33.458883 19.998632 33.482422 19.998047 C 33.48919 19.998225 33.497189 19.999914 33.503906 20 C 34.277304 20 35.018673 20.143514 35.714844 20.396484 C 35.722646 20.412056 35.738231 20.422738 35.744141 20.439453 C 35.747829 20.42902 35.744805 20.420474 35.748047 20.410156 C 36.885812 20.830258 37.901464 21.54083 38.730469 22.392578 C 39.95672 23.652467 40.83016 25.260386 40.974609 27 C 40.988409 26.833843 41.003905 26.66841 41.003906 26.5 C 41.003912 24.568384 40.073844 22.772804 38.730469 21.392578 C 37.387095 20.012352 35.556514 19 33.503906 19 C 33.480427 18.999699 33.459007 19.003995 33.435547 19.003906 C 33.424684 19.003942 33.411128 18.999862 33.400391 19 z"/>
</svg>
