<svg width="48" height="48" version="1.1" xmlns="http://www.w3.org/2000/svg">
 <path d="m24 4c-7.18 0-13 5.8203-13 13-0.027 3.893 3.418 7.296 5 11 0.705 1.651 2 5 2 5h12s1.295-3.349 2-5c1.582-3.704 4.931-7.15 5-11 0-7.1797-5.82-13-13-13z" style="fill:#f5ab35"/>
 <path d="m30 33-2 9c-0.24036 1.0816-0.892 2-2 2h-4c-1.108 0-1.7678-0.91659-2-2l-2-9z" style="fill:#434343"/>
 <path d="m18 33 0.445 2h11.11l0.445-2zm0.889 4 0.445 2h9.332l0.445-2zm0.888 4 0.223 1c0.078 0.363 0.208 0.703 0.383 1h7.23c0.175-0.297 0.306-0.637 0.387-1l0.223-1z" style="fill:#8b9cbe;opacity:.2"/>
 <path d="m24 4c-7.18 0-13 5.8203-13 13-1e-3 0.171 0.014 0.339 0.025 0.508 0.261-6.95 5.961-12.508 12.975-12.508 6.982 0 12.662 5.508 12.971 12.414 0.011-0.138 0.027-0.275 0.029-0.414 0-7.1797-5.82-13-13-13z" style="fill:#8b9cbe;opacity:.2"/>
 <path d="m36.971 17.414c-0.289 3.684-3.446 7.016-4.971 10.586-0.705 1.651-2 5-2 5h-12s-1.295-3.349-2-5c-1.512-3.542-4.719-6.809-4.975-10.492-6e-3 0.164-0.025 0.326-0.025 0.492-0.027 3.893 3.418 7.296 5 11 0.705 1.651 2 5 2 5h12s1.295-3.349 2-5c1.582-3.704 4.931-7.15 5-11 0-0.198-0.021-0.39-0.029-0.586z" style="opacity:.2"/>
 <path d="m18 34 2 9c0.232 1.083 0.892 2 2 2h4c1.108 0 1.76-0.918 2-2l2-9h-0.223l-1.777 8c-0.24 1.082-0.892 2-2 2h-4c-1.108 0-1.768-0.917-2-2l-1.777-8z" style="opacity:.2"/>
</svg>
