<svg width="48" height="48" version="1.1" xmlns="http://www.w3.org/2000/svg">
 <path d="m9 5h30v14h-30z" style="fill:#b7b7b7"/>
 <rect x="4" y="17" width="40" height="24" rx="2" ry="2" style="fill:#4f4f4f"/>
 <path d="m9 5v1h30v-1z" style="fill:#8b9cbe;opacity:.2"/>
 <path d="m4 39v1c0 1.108 0.892 2 2 2h36c1.108 0 2-0.892 2-2v-1c0 1.108-0.892 2-2 2h-36c-1.108 0-2-0.892-2-2z" style="opacity:.2"/>
 <rect x="12" y="8" width="6" height="4" style="opacity:.5"/>
 <rect x="30" y="8" width="6" height="4" style="opacity:.5"/>
 <path d="m24 21a9 9 0 0 0-9 9 9 9 0 0 0 9 9 9 9 0 0 0 9-9 9 9 0 0 0-9-9zm0 2a7 7 0 0 1 7 7 7 7 0 0 1-7 7 7 7 0 0 1-7-7 7 7 0 0 1 7-7zm-1 1c-0.554 0-1 0.446-1 1v3h-3c-0.554 0-1 0.446-1 1v2c0 0.554 0.446 1 1 1h3v3c0 0.554 0.446 1 1 1h2c0.554 0 1-0.446 1-1v-3h3c0.554 0 1-0.446 1-1v-2c0-0.554-0.446-1-1-1h-3v-3c0-0.554-0.446-1-1-1z" style="opacity:.2"/>
 <path d="m24 20a9 9 0 0 0-9 9 9 9 0 0 0 9 9 9 9 0 0 0 9-9 9 9 0 0 0-9-9zm0 2a7 7 0 0 1 7 7 7 7 0 0 1-7 7 7 7 0 0 1-7-7 7 7 0 0 1 7-7zm-1 1c-0.554 0-1 0.446-1 1v3h-3c-0.554 0-1 0.446-1 1v2c0 0.554 0.446 1 1 1h3v3c0 0.554 0.446 1 1 1h2c0.554 0 1-0.446 1-1v-3h3c0.554 0 1-0.446 1-1v-2c0-0.554-0.446-1-1-1h-3v-3c0-0.554-0.446-1-1-1h-2z" style="fill:#0ad313"/>
</svg>
