<svg width="48" height="48" version="1.1" xmlns="http://www.w3.org/2000/svg">
 <g>
  <path d="m16 42-4-4h-5c-1.662 0-3-1.338-3-3v-24c0-1.662 1.338-3 3-3h34c1.662 0 3 1.338 3 3v24c0 1.662-1.338 3-3 3h-5l-4 4z" style="opacity:.2"/>
  <path d="m16 41-4-4h-5c-1.662 0-3-1.338-3-3v-24c0-1.662 1.338-3 3-3h34c1.662 0 3 1.338 3 3v24c0 1.662-1.338 3-3 3h-5l-4 4z" style="fill:#afafb1"/>
  <path d="m20 35-4.5-4h-5.5v-18h28v18h-6l-4 4z" style="opacity:.6"/>
  <g transform="scale(1,-1)" style="fill:#f8c44e">
   <rect x="15" y="-16" width="2" height="3"/>
   <rect x="19" y="-16" width="2" height="3"/>
   <rect x="23" y="-16" width="2" height="3"/>
   <rect x="27" y="-16" width="2" height="3"/>
   <rect x="31" y="-16" width="2" height="3"/>
  </g>
  <path d="m7 7c-1.662 0-3 1.338-3 3v1c0-1.662 1.338-3 3-3h34c1.662 0 3 1.338 3 3v-1c0-1.662-1.338-3-3-3z" style="fill:#8b9cbe;opacity:.2"/>
  <path d="m10 31v1h5.5l4.5 4h8l4-4h6v-1h-6l-4 4h-8l-4.5-4z" style="fill:#8b9cbe;opacity:.2"/>
 </g>
 <circle cx="36" cy="37" r="11" style="opacity:.2"/>
 <circle cx="36.374001" cy="36.296001" r="11" style="fill:#c149c0"/>
 <path d="m34.859 30.204-0.132 1.58a4.7143 4.7143 0 0 0-1.378 0.797l-1.436-0.676-1.5 2.598 1.304 0.906a4.7143 4.7143 0 0 0-0.072 0.795 4.7143 4.7143 0 0 0 0.068 0.799l-1.301 0.903 1.5 2.598 1.433-0.675a4.7143 4.7143 0 0 0 1.381 0.792l0.131 1.584h3l0.133-1.58a4.7143 4.7143 0 0 0 1.377-0.797l1.437 0.676 1.5-2.598-1.304-0.906a4.7143 4.7143 0 0 0 0.072-0.795 4.7143 4.7143 0 0 0-0.069-0.799l1.301-0.902-1.5-2.598-1.433 0.675a4.7143 4.7143 0 0 0-1.381-0.79l-0.132-1.584h-3zm1.5 4.286a1.7143 1.7143 0 0 1 1.714 1.714 1.7143 1.7143 0 0 1-1.714 1.714 1.7143 1.7143 0 0 1-1.714-1.714 1.7143 1.7143 0 0 1 1.714-1.714z" style="fill:#8b9cbe"/>
</svg>
