<svg width="48" height="48" version="1.1" xmlns="http://www.w3.org/2000/svg">
 <path d="m6 5c-1.108 0-2 0.892-2 2v17h40v-17c0-1.108-0.892-2-2-2z" style="opacity:.05"/>
 <rect x="4" y="4" width="40" height="40" rx="2" ry="2" style="fill:#3c96d6"/>
 <path d="m22 12c-0.554 0-1 0.446-1 1v16h-4l7 9 7-9h-4v-16c0-0.554-0.446-1-1-1z" style="fill:#8b9cbe"/>
 <path d="m4 7v-1c0-1.108 0.892-2 2-2h36c1.108 0 2 0.892 2 2v1c0-1.108-0.892-2-2-2h-36c-1.108 0-2 0.892-2 2z" style="fill:#8b9cbe;opacity:.2"/>
 <path d="m4 42v1c0 1.108 0.892 2 2 2h36c1.108 0 2-0.892 2-2v-1c0 1.108-0.892 2-2 2h-36c-1.108 0-2-0.892-2-2z" style="opacity:.2"/>
 <circle cx="36" cy="37" r="11" style="opacity:.2"/>
 <circle cx="36" cy="36" r="11" style="fill:#17191e"/>
 <path d="m34.447 29.999-0.13226 1.5804a4.7143 4.7143 0 0 0-1.3778 0.79689l-1.4364-0.67635-1.5 2.5982 1.3041 0.9057a4.7143 4.7143 0 0 0-0.072 0.7952 4.7143 4.7143 0 0 0 0.0686 0.79855l-1.301 0.903 1.5 2.5982 1.433-0.67466a4.7143 4.7143 0 0 0 1.3811 0.79185l0.131 1.584h3l0.13225-1.5804a4.7143 4.7143 0 0 0 1.3778-0.79688l1.4364 0.67634 1.5-2.5982-1.3041-0.9057a4.7143 4.7143 0 0 0 0.072-0.79519 4.7143 4.7143 0 0 0-0.0686-0.79855l1.3008-0.90235-1.5-2.5982-1.433 0.67467a4.7143 4.7143 0 0 0-1.381-0.79l-0.13225-1.5837h-3zm1.5 4.2857a1.7143 1.7143 0 0 1 1.7143 1.7143 1.7143 1.7143 0 0 1-1.7143 1.7143 1.7143 1.7143 0 0 1-1.7143-1.7143 1.7143 1.7143 0 0 1 1.7143-1.7143z" style="fill:#8b9cbe"/>
</svg>
