<svg width="48" height="48" version="1.1" xmlns="http://www.w3.org/2000/svg">
 <style id="style1086" type="text/css">.st0{fill:#FFFFFF;}
	.st1{fill:#231F20;}</style>
 <rect x="12" y="11" width="24" height="32" rx="2" ry="2" style="opacity:.2"/>
 <rect x="12" y="10" width="24" height="32" rx="2" ry="2" style="fill:#8e8e8e"/>
 <rect x="4" y="7" width="40" height="32" rx="2" ry="2" style="opacity:.2"/>
 <rect x="4" y="6" width="40" height="32" rx="2" ry="2" style="fill:#4f4f4f"/>
 <rect x="7" y="9" width="34" height="26" rx="0" ry="0" style="fill:#00ccff"/>
 <rect x="7" y="35" width="34" height="1" style="fill:#8b9cbe;opacity:.1"/>
 <path d="m6 6c-1.108 0-2 0.892-2 2v1c0-1.108 0.892-2 2-2h36c1.108 0 2 0.892 2 2v-1c0-1.108-0.892-2-2-2z" style="fill:#8b9cbe;opacity:.1"/>
 <rect x="7" y="9" width="34" height="1" style="opacity:.2"/>
 <path d="m 24,11 c -2.791856,0.0033 -5.495202,0.979906 -7.644531,2.761719 L 20.535156,21 26.1875,11.208984 C 25.46626,11.072566 24.734024,11.002611 24,11 Z M 28.177734,11.765625 24,19 H 35.298828 C 34.112189,15.65385 31.50474,13.004923 28.177734,11.765625 Z M 14.880859,15.207031 C 13.023253,17.378773 12.001694,20.142175 12,23 c 6.88e-4,0.670242 0.05753,1.339249 0.169922,2 h 8.365234 z M 27.464844,21 33.119141,30.792969 C 34.976747,28.621227 35.998306,25.857825 36,23 35.999312,22.329758 35.94247,21.660751 35.830078,21 Z m 0,4 -5.652344,9.791016 C 22.53374,34.927434 23.265976,34.997389 24,35 c 2.791856,-0.0033 5.495202,-0.979906 7.644531,-2.761719 z m -14.763672,2 c 1.186639,3.34615 3.794088,5.995077 7.121094,7.234375 L 24,27 Z" style="opacity:.2"/>
 <path d="m 24,10 c -2.791856,0.0033 -5.495202,0.979906 -7.644531,2.761719 L 20.535156,20 26.1875,10.208984 C 25.46626,10.072566 24.734024,10.002611 24,10 Z M 28.177734,10.765625 24,18 H 35.298828 C 34.112189,14.65385 31.50474,12.004923 28.177734,10.765625 Z M 14.880859,14.207031 C 13.023253,16.378773 12.001694,19.142175 12,22 c 6.88e-4,0.670242 0.05753,1.339249 0.169922,2 h 8.365234 z M 27.464844,20 33.119141,29.792969 C 34.976747,27.621227 35.998306,24.857825 36,22 35.999312,21.329758 35.94247,20.660751 35.830078,20 Z m 0,4 -5.652344,9.791016 C 22.53374,33.927434 23.265976,33.997389 24,34 c 2.791856,-0.0033 5.495202,-0.979906 7.644531,-2.761719 z m -14.763672,2 c 1.186639,3.34615 3.794088,5.995077 7.121094,7.234375 L 24,26 Z" style="fill:#4f4f4f"/>
 <circle cx="24" cy="23" r="3" style="opacity:.2"/>
 <circle cx="24" cy="22" r="3" style="fill:#8b9cbe"/>
</svg>
