<svg xmlns="http://www.w3.org/2000/svg" width="48" height="48" version="1">
 <path style="opacity:0.2" d="m 17.000698,4.0004113 c -0.543467,0.667275 -1.017724,1.2211883 -1.640622,1.8847654 -2.082421,2.2187796 -1.746218,3.6402219 -0.09627,5.1902663 0.285485,0.268199 -0.640414,1.224284 -0.956387,2.473648 0.617105,0.500044 1.318057,1.367166 1.882137,1.947191 0.614438,-0.756509 2.024535,-2.462229 2.452471,-2.917745 0,0 0.905707,-1.426098 -0.222657,-2.7675794 -0.818365,-0.810546 -1.418672,-2.8105463 -1.371476,-4.6874996 0.05273,-0.1230467 -0.06329,-0.8050976 -0.0472,-1.1230467 z m 4.699898,1.9679063 c -0.783165,0 -0.865547,0.2802556 -0.591797,1.9921875 0.396763,2.4812239 -0.10195,4.3132489 -2.035835,5.7430319 -0.806966,0.596615 -2.445089,2.607637 -2.445089,2.872749 0,0.230939 -3.724243,1.195252 -2.644723,2.580903 0.159747,0.205048 -1.86375,1.582888 0.435547,0.576172 1.919493,-0.840425 2.990792,4.13249 3.724609,5.556641 l 1.333985,2.589843 -1.185547,2.3125 c -1.727339,3.371331 -1.226588,4.477077 -4.479031,7.772955 -0.507558,0.514335 -0.424349,1.150823 -0.82479,0.887288 -2.853479,-1.877909 -0.250188,0.843079 -0.428162,1.089559 -1.295976,-2.712277 -0.917179,1.526998 -0.918679,1.529098 1.237318,1.359104 3.54297,1.580187 5.356099,1.529167 3.023031,0.01345 4.491973,-2.019439 5.38238,-3.533216 2.598892,-4.443903 5.810317,-7.988339 6.869141,-7.582031 0.462169,0.177351 2.13196,2.120118 3.712891,4.316406 1.580928,2.196289 3.100279,3.927446 3.375,3.847656 0.892043,-0.259066 1.732734,-2.51381 1.740234,-4.666016 0.0054,-1.552962 -0.297849,-3.516721 -1.16211,-4.361712 -0.643585,-0.629238 -0.247642,-0.959049 -0.855512,-1.846987 -1.061995,-1.551294 -1.579457,-1.073953 -0.788349,-2.741089 0.452818,-0.954244 0.473246,-2.42511 1.658103,-3.396011 2.924076,-2.396062 4.596884,-6.364813 3.948018,-8.714813 -0.266973,-0.966898 -0.716438,-2.197624 -1.122327,-2.734375 -0.693709,-0.917366 -0.738968,-0.864243 -0.753907,0.896485 -0.01307,1.541225 -1.913548,2.573246 -2.744004,2.573243 -0.08328,0 -0.171917,0.01626 -0.265625,0.04492 -0.72763,1.147525 -1.325818,1.869204 -1.789062,2.723697 -2.254491,3.167702 -3.49204,4.51772 -4.33408,4.51772 -0.845429,0 -4.346602,-2.845737 -6.64462,-6.297591 -0.178342,-0.267888 -0.331739,-0.517155 -0.458984,-0.75 -0.06316,-0.115208 -0.105027,-0.217777 -0.150391,-0.322265 -0.0183,-0.03897 -0.03806,-0.07925 -0.05469,-0.117188 -0.03101,-0.07079 -0.07445,-0.149486 -0.09961,-0.216797 -0.06717,-0.177933 -0.106594,-0.338936 -0.132812,-0.49414 -8.02e-4,-0.005 -0.0025,-0.01032 -0.0039,-0.01563 -0.002,-0.01298 -0.008,-0.02818 -0.0098,-0.04102 -0.0027,-0.01899 0.0019,-0.03412 0,-0.05273 -0.01427,-0.138167 -0.01328,-0.269583 0.0078,-0.390625 0.0018,-0.01055 -2.01e-4,-0.02278 0.002,-0.0332 0.02573,-0.13172 0.07936,-0.251908 0.148437,-0.365235 0.002,-0.0033 0.0042,-0.0064 0.0059,-0.0098 0.0063,-0.01 0.009,-0.02141 0.01563,-0.03125 0.07832,-0.117482 0.185159,-0.224379 0.3125,-0.324219 0.0038,-0.003 0.0063,-0.0068 0.0098,-0.0098 0.001,-7.98e-4 0.0029,-0.0012 0.0039,-0.002 0.272047,-0.207441 0.650934,-0.380608 1.140625,-0.529297 0.115736,0.03941 0.223377,0.07213 0.347657,0.119141 l 1.667682,0 c 0.06017,-0.194009 0.06838,-0.426751 0.0332,-0.728516 -0.173655,-1.48737 -3.089948,-5.7638094 -4.307702,-5.7638094 z m 12.488251,-4.297e-4 c -0.675541,0 -3.448184,4.2508031 -3.307817,5.9227311 0.128824,1.53445 0.836939,1.560077 1.50533,1.478784 0.593178,-0.07214 1.285216,-0.06494 1.581242,-0.622618 0.199351,-0.375556 0.369949,-3.6259674 0.566948,-4.4058503 0.557046,-2.205246 0.532155,-2.3730468 -0.345703,-2.3730468 z"/>
 <path style="fill:#dc730e" d="m 17.000698,2.9999966 c -0.543467,0.667275 -1.017724,1.2211883 -1.640622,1.8847654 -2.082421,2.2187796 -1.746218,3.6402215 -0.09627,5.190266 0.285485,0.268199 -0.640414,1.224284 -0.956387,2.473648 0.617105,0.500044 1.318057,1.367166 1.882137,1.947191 0.614438,-0.756509 2.024535,-2.462229 2.452471,-2.917745 0,0 0.905707,-1.426098 -0.222657,-2.7675787 -0.818365,-0.8105467 -1.418672,-2.8105467 -1.371476,-4.6875 0.05273,-0.1230467 -0.06329,-0.8050976 -0.0472,-1.1230467 z m 4.699898,1.9679063 c -0.783165,0 -0.865547,0.2802556 -0.591797,1.9921875 0.396763,2.4812232 -0.10195,4.3132486 -2.035835,5.7430316 -0.806966,0.596615 -2.445089,2.607637 -2.445089,2.872749 0,0.230939 -3.724243,1.195252 -2.644723,2.580903 0.159747,0.205048 -1.86375,1.582888 0.435547,0.576172 1.919493,-0.840425 2.990792,4.13249 3.724609,5.556641 l 1.333985,2.589843 -1.185547,2.3125 c -1.727339,3.371331 -1.226588,4.477077 -4.479031,7.772955 -0.507558,0.514335 -0.424349,1.150823 -0.82479,0.887288 -2.853479,-1.877909 -0.250188,0.843079 -0.428162,1.089559 -1.295976,-2.712277 -0.917179,1.526998 -0.918679,1.529098 1.237318,1.359104 3.54297,1.580187 5.356099,1.529167 3.023031,0.01345 4.491973,-2.019439 5.38238,-3.533216 2.598892,-4.443903 5.810317,-7.988339 6.869141,-7.582031 0.462169,0.177351 2.13196,2.120118 3.712891,4.316406 1.580928,2.196289 3.100279,3.927446 3.375,3.847656 0.892043,-0.259066 1.732734,-2.51381 1.740234,-4.666016 0.0054,-1.552962 -0.297849,-3.516721 -1.16211,-4.361712 -0.643585,-0.629238 -0.247642,-0.959049 -0.855512,-1.846987 -1.061995,-1.551294 -1.579457,-1.073953 -0.788349,-2.741089 0.452818,-0.954244 0.473246,-2.42511 1.658103,-3.396011 2.924076,-2.396062 4.596884,-6.364813 3.948018,-8.714813 -0.266973,-0.966898 -0.716438,-2.197624 -1.122327,-2.734375 -0.693709,-0.9173664 -0.738968,-0.8642434 -0.753907,0.896485 -0.01307,1.541225 -1.913548,2.573246 -2.744004,2.573243 -0.08328,0 -0.171917,0.01626 -0.265625,0.04492 -0.72763,1.147525 -1.325818,1.869204 -1.789062,2.723697 -2.254491,3.167702 -3.49204,4.51772 -4.33408,4.51772 -0.845429,0 -4.346602,-2.845737 -6.64462,-6.297591 -0.178342,-0.267888 -0.331739,-0.517155 -0.458984,-0.75 -0.06316,-0.115208 -0.105027,-0.217777 -0.150391,-0.322265 -0.0183,-0.03897 -0.03806,-0.07925 -0.05469,-0.117188 -0.03101,-0.07079 -0.07445,-0.149486 -0.09961,-0.216797 -0.06717,-0.177933 -0.106594,-0.338936 -0.132812,-0.49414 -8.02e-4,-0.005 -0.0025,-0.01032 -0.0039,-0.01563 -0.002,-0.01298 -0.008,-0.02818 -0.0098,-0.04102 -0.0027,-0.01899 0.0019,-0.03412 0,-0.05273 -0.01427,-0.138167 -0.01328,-0.269583 0.0078,-0.390625 0.0018,-0.01055 -2.01e-4,-0.02278 0.002,-0.0332 0.02573,-0.13172 0.07936,-0.251908 0.148437,-0.365235 0.002,-0.0033 0.0042,-0.0064 0.0059,-0.0098 0.0063,-0.01 0.009,-0.02141 0.01563,-0.03125 0.07832,-0.117482 0.185159,-0.224379 0.3125,-0.324219 0.0038,-0.003 0.0063,-0.0068 0.0098,-0.0098 0.001,-7.98e-4 0.0029,-0.0012 0.0039,-0.002 0.272047,-0.207441 0.650934,-0.380608 1.140625,-0.529297 0.115736,0.03941 0.223377,0.07213 0.347657,0.119141 l 1.667682,0 c 0.06017,-0.194009 0.06838,-0.426751 0.0332,-0.728516 C 25.834643,9.2443416 22.91835,4.9679029 21.700596,4.9679029 Z m 12.488251,-4.297e-4 c -0.675541,0 -3.448184,4.2508024 -3.307817,5.9227308 0.128824,1.53445 0.836939,1.560077 1.50533,1.478784 0.593178,-0.07214 1.285216,-0.06494 1.581242,-0.622618 0.199351,-0.375556 0.369949,-3.6259666 0.566948,-4.40585 0.557046,-2.205246 0.532155,-2.3730468 -0.345703,-2.3730468 z"/>
 <path style="opacity:0.1;fill:#8b9cbe" d="m 17.000698,2.9999966 c -0.543467,0.667275 -1.017727,1.2211885 -1.640625,1.8847656 -1.200793,1.2794216 -1.576636,2.2900799 -1.380859,3.2167969 0.157289,-0.6587633 0.596792,-1.3813881 1.380859,-2.2167969 0.622898,-0.6635771 1.097158,-1.2174906 1.640625,-1.8847656 -0.01609,0.3179491 0.0996,1.0000002 0.04687,1.1230469 -0.0472,1.8769533 0.552729,3.8769541 1.371094,4.6875001 0.278103,0.3306294 0.430863,0.6660844 0.505859,0.9843754 0.112934,-0.535535 0.101653,-1.2621214 -0.505859,-1.9843755 -0.818365,-0.8105467 -1.41829,-2.8105467 -1.371094,-4.6875 0.05273,-0.1230467 -0.06296,-0.8050978 -0.04687,-1.1230469 z m 17.1875,1.9667969 c -0.675541,0 -3.447008,4.2519001 -3.306641,5.9238285 0.01195,0.142357 0.03326,0.259449 0.05469,0.376953 0.38115,-1.9163474 2.648879,-5.2988284 3.251953,-5.2988284 0.318694,0 0.522078,0.024517 0.628906,0.1582031 0.207882,-1.040781 0.04435,-1.1601562 -0.628908,-1.1601562 z m -12.488281,0.00195 c -0.657182,0 -0.803818,0.25114 -0.677735,1.3261719 0.09093,-0.2572215 0.30138,-0.3261719 0.677735,-0.3261719 1.156621,0 3.818523,3.830425 4.234375,5.4921884 l 0.04102,0 c 0.06017,-0.194009 0.06838,-0.426751 0.0332,-0.728516 C 25.834855,9.2450486 22.917671,4.9687466 21.699917,4.9687466 Z m -0.486328,3.8925781 c -0.09917,1.5532113 -0.738784,2.8053713 -2.140625,3.8417973 -0.806966,0.596615 -2.445313,2.607935 -2.445313,2.873047 0,0.230939 -3.724051,1.194427 -2.644531,2.580078 0.633319,-0.841058 2.644531,-1.409989 2.644531,-1.580078 0,-0.265112 1.638347,-2.276432 2.445313,-2.873047 1.692149,-1.25106 2.284528,-2.809362 2.140625,-4.8417973 z m 18.001953,1.1425783 c -0.183935,-0.053651 -0.205507,0.380014 -0.214844,1.480469 -0.01307,1.541225 -1.913685,2.572269 -2.744141,2.572266 -0.08328,0 -0.171917,0.01626 -0.265625,0.04492 -0.72763,1.147526 -1.325818,1.870117 -1.789062,2.72461 -2.254491,3.167702 -3.491944,4.517578 -4.333984,4.517578 -0.845429,0 -4.346514,-2.845021 -6.644532,-6.296875 -0.178342,-0.267888 -0.331739,-0.517155 -0.458984,-0.75 -0.06316,-0.115208 -0.105027,-0.217778 -0.150391,-0.322266 -0.0183,-0.03897 -0.03806,-0.07925 -0.05469,-0.117187 -0.03101,-0.07079 -0.07445,-0.149486 -0.09961,-0.216797 -0.02973,-0.07875 -0.03847,-0.145667 -0.05859,-0.21875 -0.02704,0.0634 -0.06463,0.122334 -0.07813,0.191406 -0.0022,0.01042 -1.54e-4,0.02265 -0.002,0.0332 -0.02108,0.121042 -0.02208,0.252458 -0.0078,0.390625 0.0019,0.01861 -0.0027,0.03375 0,0.05274 0.0018,0.01284 0.0078,0.02804 0.0098,0.04101 0.0014,0.0053 0.0031,0.01063 0.0039,0.01563 0.02622,0.155204 0.06564,0.316208 0.132812,0.494141 0.02516,0.06731 0.0686,0.146007 0.09961,0.216797 0.01663,0.03794 0.03639,0.07822 0.05469,0.117187 0.04536,0.104488 0.08723,0.207058 0.150391,0.322266 0.127245,0.232845 0.280642,0.482112 0.458984,0.75 2.298018,3.451854 5.799103,6.296875 6.644532,6.296875 0.84204,0 2.079493,-1.349876 4.333984,-4.517578 0.463244,-0.854493 1.061432,-1.575131 1.789062,-2.722656 0.09371,-0.02866 0.182345,-0.04492 0.265625,-0.04492 0.830456,3e-6 2.731071,-1.032994 2.744141,-2.574219 0.01494,-1.760728 0.0602,-1.81385 0.753906,-0.896484 0.405889,0.536751 0.856074,1.767477 1.123047,2.734375 0.04619,0.167271 0.07656,0.34482 0.09961,0.527343 0.03969,-0.550102 0.0254,-1.074589 -0.09961,-1.527343 -0.266973,-0.966898 -0.717158,-2.197624 -1.123047,-2.734375 -0.260141,-0.344013 -0.428701,-0.551794 -0.539062,-0.583985 z m -24.16211,0.851563 c -0.239552,0.441542 -0.575395,1.018414 -0.746093,1.693359 0.08825,0.07151 0.180447,0.163434 0.271484,0.248047 0.38803,-0.869723 0.910037,-1.509806 0.685547,-1.720703 -0.07859,-0.07383 -0.138429,-0.147356 -0.210938,-0.220703 z m -1.228515,7.583984 c -0.332592,0.371404 -0.95017,0.888802 0.04101,0.517578 -0.08433,-0.18036 -0.0941,-0.353711 -0.04101,-0.517578 z m 21.222656,8.498047 c -0.434568,1.074988 0.07512,0.868199 1.011719,2.236328 0.60787,0.887938 0.211883,1.218418 0.855468,1.847656 0.773044,0.755807 1.080759,2.396279 1.136719,3.847657 0.0097,-0.162085 0.02483,-0.324511 0.02539,-0.486329 0.0054,-1.552962 -0.297849,-3.516337 -1.16211,-4.361328 -0.643584,-0.629238 -0.247597,-0.959718 -0.855467,-1.847656 -0.480743,-0.702238 -0.825019,-0.978392 -1.011719,-1.236328 z m -15.828125,0.443359 -0.927734,1.810547 c -1.727339,3.371331 -1.226073,4.47756 -4.478516,7.773438 -0.507558,0.514335 -0.425731,1.150254 -0.826172,0.886718 -2.192708,-1.443047 -1.16985,-0.175067 -0.65625,0.603516 0.183362,0.102583 0.374249,0.212849 0.65625,0.398438 0.400441,0.263535 0.318614,-0.374337 0.826172,-0.888672 3.252443,-3.295878 2.751177,-4.402107 4.478516,-7.773438 l 1.185546,-2.3125 -0.257812,-0.498047 z m -7.349609,10.654297 c -0.06621,0.0072 -0.116631,0.07305 -0.15625,0.169922 0.07966,-0.01655 0.256356,0.04985 0.539062,0.203125 -0.156644,-0.236396 -0.290932,-0.383096 -0.382812,-0.373047 z m -0.195313,0.337891 c -0.104882,0.449702 -0.09005,1.157617 -0.0625,1.634765 0.03175,-0.895919 0.21037,-1.608615 0.947266,-0.06641 0.106193,-0.147069 -0.760587,-1.161938 -0.884766,-1.568359 z"/>
 <path style="opacity:0.2" d="M 9.4902344,9.9457432 C 7.8146931,9.9505432 7,12.000431 7,12.000431 6.978501,11.87352 6.7716669,21.082068 7,27.439884 7.2283331,33.7977 7,41.426212 7,41.426212 c 1.5161219,4.145967 4.720476,2.469057 7.916016,0.0059 0.367129,-0.501638 0.97937,-1.173914 2.023437,-2.214844 3.345206,-3.33516 6.065193,-6.916612 7.841797,-10.328125 L 26,26.549259 24.628906,23.928165 C 23.87416,22.486969 22.149141,19.956176 20.796875,18.305119 20.622562,18.09229 20.513912,17.930579 20.349609,17.723087 17.497188,14.321844 14.206689,10.232489 9.4902344,9.9457432 Z M 23.691406,12.000431 c -2.42333,0.354409 -1.709854,2.591794 -1.089844,3.525391 2.307996,3.393231 6.107932,7.474609 6.957032,7.474609 0.845697,0 2.526694,-1.725957 4.791015,-4.839844 0.561192,-1.013186 1.259975,-2.208516 2.230469,-3.652344 0.59077,-0.878906 0.69005,-2.543909 -0.570312,-2.507812 l -6.160157,0 -6.158203,0 z m 14.279297,10 c -0.228013,0.225692 -0.45702,0.452339 -0.708984,0.667969 -1.093054,0.935426 -2.32836,2.453669 -2.746094,3.373047 -0.729813,1.606222 -0.719946,1.731948 0.259766,3.226562 0.560772,0.855494 1.505889,2.051956 2.099609,2.658203 0.586012,0.598372 0.886584,1.204141 1.005859,2.074219 l 0,-5.164062 0,-6.384766 c 0.04686,-0.129387 0.07984,-0.242789 0.119141,-0.363281 -0.0096,-0.033 -0.0195,-0.05585 -0.0293,-0.08789 z m -8.712891,9.001953 c -1.223241,0.07191 -4.170289,3.496577 -6.583984,7.722656 -0.692981,1.213326 -1.166464,1.964795 -1.613281,2.466797 -0.183135,0.897033 0.02748,1.837381 0.988281,1.808594 l 6.566406,0 6.564454,0 c 1.744556,-0.228088 1.981862,-1.491626 1.74414,-2.572266 -0.847061,-2.027021 -2.720158,-3.537897 -3.765625,-5.015625 -1.566159,-2.227876 -3.221836,-4.199004 -3.679687,-4.378906 -0.06556,-0.02576 -0.139155,-0.03605 -0.220704,-0.03125 z"/>
 <path style="fill:#b2bfd9" d="m 29.258697,30.00111 c -1.223242,0.07191 -4.170683,3.4967 -6.584378,7.722779 -0.692981,1.213326 -1.166867,1.964612 -1.613684,2.466614 -0.183135,0.897033 0.02792,1.837637 0.98872,1.80885 l 6.565028,0 6.565028,0 c 1.744556,-0.228088 1.981558,-1.49099 1.743836,-2.57163 -0.847061,-2.027021 -2.720311,-3.538699 -3.765778,-5.016427 -1.566159,-2.227876 -3.220346,-4.198584 -3.678197,-4.378486 -0.06556,-0.02576 -0.139026,-0.0365 -0.220575,-0.0317 z"/>
 <path style="fill:#b2bfd9" d="m 37.970067,21 c -0.228013,0.225692 -0.456142,0.452396 -0.708106,0.668026 -1.093054,0.935426 -2.328204,2.45274 -2.745938,3.372118 -0.729813,1.606222 -0.720253,1.732608 0.259459,3.227222 0.560772,0.855494 1.505372,2.052683 2.099092,2.65893 0.586012,0.598372 0.88793,1.203623 1.007205,2.073701 l 0,-5.163554 0,-6.38482 c 0.04686,-0.129387 0.07962,-0.242688 0.118919,-0.36318 -0.0096,-0.033 -0.02083,-0.05641 -0.03063,-0.08845 z"/>
 <path style="fill:#b2bfd9" d="m 22.602014,14.525611 c 2.307995,3.393231 6.106754,7.474386 6.955854,7.474386 0.845697,0 2.527881,-1.726319 4.792202,-4.840206 0.561192,-1.013186 1.259852,-2.207927 2.230346,-3.651755 0.59077,-0.878906 0.689535,-2.543558 -0.570827,-2.507461 l -6.159442,0 -6.159441,0 c -2.42333,0.354409 -1.708702,2.591439 -1.088692,3.525036 z"/>
 <path style="fill:#b2bfd9" d="m 9.4894251,8.9449909 c -1.6755413,0.0048 -2.4901231,2.0554601 -2.4901231,2.0554601 -0.021499,-0.126911 -0.2283331,9.081849 0,15.439665 0.2283331,6.357816 0,13.985032 0,13.985032 1.5161219,4.145967 4.720433,2.469197 7.915973,0.006 0.367129,-0.501638 0.980834,-1.172642 2.024901,-2.213572 3.345206,-3.33516 6.06386,-6.917173 7.840464,-10.328686 L 26,25.548828 24.627968,22.928118 C 23.873222,21.486922 22.149396,18.956236 20.79713,17.305179 20.622817,17.09235 20.513464,16.929631 20.349161,16.722139 17.49674,13.320896 14.20588,9.2317366 9.4894251,8.9449909 Z"/>
 <path style="opacity:0.2;fill:#8b9cbe" d="M 9.4902344 8.9453125 C 7.8146931 8.9501125 7 11 7 11 C 6.9838162 10.904465 6.8638869 16.096457 6.9023438 21.382812 C 6.884991 16.476939 6.984882 11.910756 7 12 C 7 12 7.8146931 9.9501125 9.4902344 9.9453125 C 14.206689 10.232058 17.497188 14.321413 20.349609 17.722656 C 20.513912 17.930148 20.622562 18.091859 20.796875 18.304688 C 22.149141 19.955744 23.87416 22.486538 24.628906 23.927734 L 25.738281 26.050781 L 26 25.548828 L 24.628906 22.927734 C 23.87416 21.486538 22.149141 18.955744 20.796875 17.304688 C 20.622562 17.091859 20.513912 16.930148 20.349609 16.722656 C 17.497188 13.321413 14.206689 9.2320582 9.4902344 8.9453125 z M 23.691406 11 C 22.0952 11.233443 21.869724 12.281638 22.072266 13.238281 C 22.215604 12.649895 22.658613 12.151045 23.691406 12 L 29.849609 12 L 36.009766 12 C 36.536244 11.984922 36.814419 12.272638 36.929688 12.669922 C 37.119946 11.851568 36.928821 10.973678 36.009766 11 L 29.849609 11 L 23.691406 11 z M 37.970703 21 C 37.74269 21.225692 37.513683 21.452339 37.261719 21.667969 C 36.168665 22.603395 34.933359 24.121638 34.515625 25.041016 C 34.044008 26.078983 33.887434 26.501869 34.095703 27.072266 C 34.18026 26.797749 34.31787 26.476247 34.515625 26.041016 C 34.933359 25.121638 36.168665 23.603395 37.261719 22.667969 C 37.481871 22.479563 37.681109 22.281225 37.880859 22.083984 L 37.880859 21.451172 C 37.927719 21.321785 37.960701 21.208383 38 21.087891 C 37.9904 21.054891 37.980503 21.03204 37.970703 21 z M 29.257812 30.001953 C 28.034571 30.073863 25.087523 33.49853 22.673828 37.724609 C 21.980847 38.937935 21.507364 39.689404 21.060547 40.191406 C 20.986901 40.552137 20.979756 40.917663 21.056641 41.226562 C 21.05893 41.214653 21.058118 41.203303 21.060547 41.191406 C 21.507364 40.689404 21.980847 39.937935 22.673828 38.724609 C 25.087523 34.49853 28.034571 31.073863 29.257812 31.001953 C 29.339362 30.997153 29.412956 31.007443 29.478516 31.033203 C 29.936367 31.213105 31.592044 33.184233 33.158203 35.412109 C 34.20367 36.889837 36.076767 38.400713 36.923828 40.427734 C 36.934722 40.477254 36.938467 40.527955 36.947266 40.578125 C 37.025291 40.206679 37.007204 39.806747 36.923828 39.427734 C 36.076767 37.400713 34.20367 35.889837 33.158203 34.412109 C 31.592044 32.184233 29.936367 30.213105 29.478516 30.033203 C 29.412956 30.007443 29.339361 29.997153 29.257812 30.001953 z M 7.09375 32.207031 C 7.1049702 36.630687 7 40.423828 7 40.423828 C 7.0054722 40.438792 7.012062 40.450031 7.0175781 40.464844 C 7.0436818 39.494427 7.1235381 36.403819 7.09375 32.207031 z"/>
</svg>
