<svg width="48" height="48" version="1.1" xmlns="http://www.w3.org/2000/svg">
 <g transform="matrix(2,0,0,2,2,2)">
  <rect x="1" y="1.5" width="20" height="20" rx="3" ry="3" style="opacity:.2"/>
  <rect x="1" y="1" width="20" height="20" rx="3" ry="3" style="fill:#b2bfd9"/>
  <path d="m2 8.5v2h1v5h2v-5h2v5h2v-5h1v-2z" style="opacity:.1"/>
  <path d="m2 8v2h1v5h2v-5h2v5h2v-5h1v-2z" style="fill:#f9548f"/>
  <path d="m15 2.5s4 5 4 9-4 8-4 8 5-3 5-8-5-9-5-9zm-2 3s3 3 3 6-3 6-3 6 4-2 4-6-4-6-4-6zm-2 2s2 2 2 4-2 4-2 4 3-1.5 3-4-3-4-3-4z" style="opacity:.1"/>
  <path d="m15 2s4 5 4 9-4 8-4 8 5-3 5-8-5-9-5-9zm-2 3s3 3 3 6-3 6-3 6 4-2 4-6-4-6-4-6zm-2 2s2 2 2 4-2 4-2 4 3-1.5 3-4-3-4-3-4z" style="fill:#333333"/>
  <path d="m4 1c-1.662 0-3 1.338-3 3v0.5c0-1.662 1.338-3 3-3h14c1.662 0 3 1.338 3 3v-0.5c0-1.662-1.338-3-3-3z" style="fill:#8b9cbe;opacity:.2"/>
 </g>
</svg>
