<svg xmlns="http://www.w3.org/2000/svg" width="48" height="48" version="1">
 <circle style="opacity:0.2" cx="24" cy="25" r="20"/>
 <circle style="fill:#b2bfd9" cx="24" cy="24" r="20"/>
 <path fill="none" stroke="#474747" stroke-width="1.069" d="m34.18 19.096a12.834 9.5223 59 0 1 -16.324 9.809 12.834 9.5223 59 1 1 16.324 -9.809z"/>
 <path fill="#2a58ae" d="m25.999 16.985c-4.2472 0-7.6883 3.4401-7.6883 7.6883s3.4401 7.6883 7.6883 7.6883 7.6883-3.4401 7.6883-7.6883-3.4401-7.6883-7.6883-7.6883zm-1.3751 4.0632c2.8881 0 5.2502 2.3311 5.2502 5.2192s-2.3621 5.2502-5.2502 5.2502-5.2192-2.3621-5.2192-5.2502 2.3311-5.2192 5.2192-5.2192z"/>
 <path fill="#474747" d="m10.347 24.742s-3.0008 2.8655-2.7665 4.6552c0.3234 2.4684 3.4232 2.8622 5.8696 2.8336 5.9312-0.0682 27.056-6.9993 26.986-15.314-0.022-2.6884-4.8576-2.926-4.8576-2.7665 0 0 3.586 0.8998 3.5079 2.6312-0.2915 6.4537-17.936 13.699-25.772 13.897-1.6445 0.0418-3.9336-0.3124-4.5881-1.8216-0.5863-1.353 1.6192-4.1151 1.6192-4.1151z"/>
 <path fill="#d24646" d="m34.096 17.013a3.7447 3.7447 0 0 1 -7.4893 0 3.7447 3.7447 0 1 1 7.4893 0z"/>
 <path fill="#606060" d="m23.876 29.462a2.3952 2.3952 0 0 1 -4.7904 0 2.3952 2.3952 0 1 1 4.7904 0z"/>
 <circle style="opacity:0.2" cx="36" cy="37" r="11"/>
 <circle style="fill:#009545" cx="36" cy="36" r="11"/>
 <rect style="fill:#8b9cbe" width="4" height="8" x="34" y="35"/>
 <rect style="fill:#8b9cbe" width="4" height="4" x="34" y="29"/>
 <path style="opacity:0.1;fill:#8b9cbe" d="M 24 4 A 20 20 0 0 0 4 24 A 20 20 0 0 0 4.0214844 24.582031 A 20 20 0 0 1 24 5 A 20 20 0 0 1 43.978516 24.417969 A 20 20 0 0 0 44 24 A 20 20 0 0 0 24 4 z"/>
</svg>
