<svg xmlns="http://www.w3.org/2000/svg" width="48" height="48" version="1.1">
 <g>
  <path style="opacity:0.2" d="m 6,41 h 36 c 1.108,0 2,-0.892 2,-2 V 11 C 44,9.892 43.108,9 42,9 H 6 C 4.892,9 4,9.892 4,11 v 28 c 0,1.108 0.892,2 2,2 z"/>
  <path style="fill:#b2bfd9" d="m 6,40 h 36 c 1.108,0 2,-0.892 2,-2 V 10 C 44,8.892 43.108,8 42,8 H 6 C 4.892,8 4,8.892 4,10 v 28 c 0,1.108 0.892,2 2,2 z"/>
  <rect style="opacity:0.3" width="10" height="6" x="31" y="11"/>
  <path style="opacity:0.3;fill:none;stroke:#000000;stroke-width:2;stroke-linecap:round" d="M 40,22 H 25.000229"/>
  <path style="opacity:0.3;fill:none;stroke:#000000;stroke-width:2;stroke-linecap:round" d="M 39.999541,26 H 24.99977"/>
  <path style="opacity:0.3;fill:none;stroke:#000000;stroke-width:2;stroke-linecap:round" d="M 40,30 H 25.000229"/>
  <path style="opacity:0.3;fill:none;stroke:#000000;stroke-width:2;stroke-linecap:round" d="M 40,34 H 25.000229"/>
  <rect style="opacity:0.2" width="22" height="22" x="1" y="22" rx="11" ry="11"/>
  <rect style="fill:#2968b4" width="22" height="22" x="1" y="21" rx="11" ry="11"/>
  <path style="fill:#8b9cbe" d="m 12,25 c -3.866,0 -7,3.134 -7,7 0,3.866 3.134,7 7,7 3.866,0 7,-3.134 7,-7 0,-3.866 -3.134,-7 -7,-7 z m -0.701172,1.337891 c 0.08161,-0.0086 0.185239,0.0049 0.267578,0 0.0098,0.03903 -0.05926,0.177589 -0.152345,0.380859 -0.592692,1.294794 -0.626244,2.812551 -0.07617,3.623047 0.09954,0.146948 0.189453,0.286507 0.189453,0.304687 0,0.01817 -0.107136,0.03711 -0.228516,0.03711 -0.284942,0 -0.554529,-0.173104 -1.10547,-0.609375 -0.2447468,-0.193805 -0.5622764,-0.35622 -0.6855464,-0.38086 -0.1935727,-0.03867 -0.2456737,-0.02193 -0.4960929,0.228515 -0.2329929,0.232953 -0.3046879,0.359006 -0.3046879,0.572267 0,0.808716 0.9595365,1.449837 2.7441412,1.828125 2.42356,0.51366 3.021041,0.975603 3.08789,2.250001 0.08393,1.598057 -0.767352,2.803476 -2.630859,3.736327 -0.222423,0.111379 -0.363712,0.153463 -0.457031,0.189454 -0.04135,-0.0038 -0.07205,0.0038 -0.113281,0 -0.01586,-0.04941 -0.03906,-0.163671 -0.03906,-0.38086 0,-0.848777 -0.333771,-1.722371 -0.837891,-2.210937 C 10.32562,35.775085 9.9455665,35.497728 9.621099,35.296873 9.2966438,35.09603 8.9694386,34.86321 8.8964887,34.76367 c -0.12089,-0.165185 -0.1299891,-0.267109 -0.03711,-0.572266 0.169272,-0.557332 0.3700367,-0.868555 0.7617199,-1.220703 0.2053433,-0.184618 0.4115404,-0.338096 0.4570304,-0.341797 0.0455,-0.0038 -0.2608046,-0.09693 -0.7226559,-0.191406 C 8.893653,32.342838 8.2164901,32.143993 7.867198,32.017577 7.2284871,31.786468 6.3678341,31.302306 6.0390721,30.951171 c -0.01391,-0.01488 -0.02698,-0.02588 -0.03906,-0.03906 0.471037,-1.876315 1.792547,-3.413212 3.544923,-4.154297 0.3666627,-0.155085 0.7455289,-0.262141 1.1445309,-0.34375 0.198745,-0.04062 0.404165,-0.05531 0.609375,-0.07617 z m 5.71875,2.859376 c 0.143275,0.08856 0.683463,1.259167 0.837891,1.830077 0.199379,0.737047 0.184947,2.01196 0,2.74414 -0.07039,0.278672 -0.159443,0.539816 -0.189453,0.572266 -0.03001,0.03245 -0.139563,-0.153996 -0.267578,-0.380859 -0.128029,-0.226827 -0.537105,-0.709773 -0.876954,-1.06836 -0.980964,-1.035115 -1.135518,-1.574279 -0.72461,-2.40039 0.207224,-0.41658 1.109816,-1.365314 1.220704,-1.296874 z"/>
  <path style="opacity:0.7" d="m 27.695312,11 c -0.343324,0 -0.651348,0.0598 -0.923828,0.179688 -0.26703,0.114441 -0.47868,0.284379 -0.636718,0.507812 -0.152589,0.217984 -0.230469,0.482342 -0.230469,0.792969 0,0.452316 0.123909,0.815821 0.369141,1.09375 0.250681,0.27248 0.629906,0.513618 1.136718,0.720703 0.321526,0.13079 0.572117,0.255109 0.751953,0.375 0.185286,0.119891 0.314331,0.250889 0.390625,0.392578 0.08174,0.13624 0.123047,0.306178 0.123047,0.507812 0,0.332426 -0.103462,0.587743 -0.310547,0.767579 -0.207084,0.174387 -0.492299,0.261718 -0.857422,0.261718 -0.256131,0 -0.463055,-0.0598 -0.621093,-0.179687 -0.158038,-0.125341 -0.275269,-0.286237 -0.351563,-0.482422 -0.07629,-0.196185 -0.119959,-0.409789 -0.130859,-0.638672 -0.185286,0 -0.330052,0.05271 -0.433594,0.15625 -0.103542,0.09809 -0.15625,0.22909 -0.15625,0.392578 0,0.343324 0.137677,0.62145 0.410156,0.833985 C 26.502539,16.894175 26.907346,17 27.441406,17 c 0.615804,0 1.103218,-0.144765 1.462891,-0.433594 0.365123,-0.288828 0.548828,-0.691273 0.548828,-1.208984 0,-0.419619 -0.133361,-0.757541 -0.400391,-1.013672 -0.26703,-0.256131 -0.641529,-0.483502 -1.121093,-0.679688 -0.316077,-0.13079 -0.566667,-0.252746 -0.751953,-0.367187 -0.185287,-0.119891 -0.318647,-0.253251 -0.400391,-0.400391 -0.07629,-0.152588 -0.113281,-0.338656 -0.113281,-0.55664 0,-0.283379 0.08733,-0.508797 0.261718,-0.677735 0.174388,-0.168937 0.418299,-0.253906 0.734375,-0.253906 0.228883,0 0.408272,0.05271 0.539063,0.15625 0.136242,0.103543 0.232616,0.23454 0.287109,0.392578 0.05995,0.158038 0.08984,0.321297 0.08984,0.490235 0.196185,0 0.352356,-0.04367 0.466797,-0.13086 0.119891,-0.09264 0.179687,-0.226004 0.179687,-0.40039 0,-0.239782 -0.13336,-0.453386 -0.40039,-0.638672 C 28.557189,11.092058 28.180326,11 27.695312,11 Z M 6,11.082031 v 0.34375 h 0.1054688 c 0.1798365,0 0.3360066,0.03226 0.4667968,0.09766 0.1362398,0.06539 0.2050782,0.217249 0.2050782,0.457031 v 4.005859 c 0,0.256131 -0.066476,0.41939 -0.1972657,0.490234 -0.1307902,0.06539 -0.2893232,0.09766 -0.4746093,0.09766 H 6 v 0.34375 h 2.0527344 v -0.34375 H 7.9453125 c -0.1852861,0 -0.3438192,-0.03226 -0.4746094,-0.09766 -0.1307902,-0.07084 -0.1953125,-0.234103 -0.1953125,-0.490234 v -3.777344 l 3.0644534,4.708985 h 0.582031 v -4.904297 c 0,-0.256133 0.06452,-0.417029 0.195313,-0.482422 0.13079,-0.07085 0.289323,-0.105469 0.474609,-0.105469 h 0.105469 v -0.34375 H 9.6464844 v 0.34375 h 0.1054687 c 0.1798368,0 0.3360069,0.03226 0.4667969,0.09766 0.13624,0.06539 0.203125,0.217249 0.203125,0.457031 v 3.621093 L 7.4960938,11.082031 Z m 6.242188,0 v 0.34375 h 0.107421 c 0.185286,0 0.341867,0.03462 0.472657,0.105469 0.13079,0.0654 0.197265,0.226291 0.197265,0.482422 v 4.013672 c 0,0.239783 -0.06884,0.391638 -0.205078,0.457031 -0.130791,0.05995 -0.285008,0.08984 -0.464844,0.08984 h -0.107421 v 0.34375 h 4.380859 l 0.05859,-1.429688 h -0.425782 l -0.05664,0.351563 c -0.02725,0.179836 -0.100812,0.336416 -0.220703,0.472656 -0.114442,0.13079 -0.30051,0.197266 -0.556641,0.197266 h -1.576172 v -2.445313 h 1.96875 v -0.400391 h -1.96875 V 11.49023 h 1.373047 c 0.245232,0 0.417942,0.06884 0.521484,0.205078 0.108991,0.130791 0.175466,0.285008 0.197266,0.464844 l 0.04102,0.351563 h 0.423828 l -0.03906,-1.429688 z m 4.697265,0 v 0.34375 h 0.105469 c 0.158038,0 0.279994,0.0299 0.367187,0.08984 0.0872,0.05995 0.158398,0.17286 0.212891,0.341797 l 1.496094,5.060547 h 0.751953 L 21.125,12.33984 l 1.332031,4.578125 h 0.734375 L 24.574219,12.0625 c 0.07629,-0.272479 0.156946,-0.447143 0.24414,-0.523438 0.09264,-0.07629 0.218916,-0.113281 0.376953,-0.113281 h 0.154297 v -0.34375 h -1.99414 v 0.34375 h 0.1875 c 0.359673,0 0.541015,0.133361 0.541015,0.400391 0,0.0436 -0.0114,0.108119 -0.0332,0.195312 -0.0218,0.0872 -0.04029,0.163123 -0.05664,0.228516 l -0.720703,2.527344 c -0.07629,0.26158 -0.138454,0.500766 -0.1875,0.71875 -0.04905,0.217984 -0.09508,0.424908 -0.138672,0.621094 -0.03815,-0.185286 -0.08654,-0.403616 -0.146485,-0.654297 -0.05994,-0.250682 -0.128783,-0.512677 -0.205078,-0.785157 l -1.021484,-3.539062 h -0.589844 l -0.972656,3.507812 c -0.07085,0.261581 -0.133007,0.51926 -0.1875,0.775391 -0.0545,0.250681 -0.102891,0.482779 -0.146485,0.695313 -0.04359,-0.196186 -0.0963,-0.414515 -0.15625,-0.654297 -0.05995,-0.239782 -0.124467,-0.481331 -0.195312,-0.726563 l -0.751953,-2.617187 c -0.01635,-0.05995 -0.03248,-0.113063 -0.04883,-0.16211 -0.0109,-0.04904 -0.01758,-0.09507 -0.01758,-0.138672 0,-0.26158 0.16326,-0.392578 0.490235,-0.392578 H 19.1875 v -0.34375 z"/>
  <path style="opacity:0.2;fill:#8b9cbe" d="M 6,8 C 4.892,8 4,8.892 4,10 v 1 C 4,9.892 4.892,9 6,9 h 36 c 1.108,0 2,0.892 2,2 V 10 C 44,8.892 43.108,8 42,8 Z"/>
 </g>
</svg>
