<svg xmlns="http://www.w3.org/2000/svg" width="48" height="48" version="1.1">
 <path style="opacity:0.2" d="M 24,5.0002 C 12.967,5.0002 4,13.967 4,25 4,36.033 12.967,45 24,45 35.033,45 44,36.033 44,25 44,13.967 35.033,5.0002 24,5.0002 Z"/>
 <path style="fill:#cb3300" d="M 24,4.0001 C 12.967,4.0001 4,12.967 4,24 4,35.033 12.967,44 24,44 35.033,44 44,35.033 44,24 44,12.967 35.033,4.0001 24,4.0001 Z"/>
 <circle style="opacity:0.2" cx="24" cy="25" r="17"/>
 <path style="fill:#2a334d" d="M 41,24 C 41,26.261 40.559,28.419 39.757,30.392 37.231,36.613 31.061,37.815 23.934,37.815 16.768,37.815 10.704,36.566 8.2027,30.293 7.4267,28.347 7,26.223 7,24 7,14.611 14.611,7 24,7 33.389,7 41,14.611 41,24 Z"/>
 <path style="opacity:0.2" d="M 30.5,11 29.736,14.736 26,15.5 29.736,16.264 30.5,20 31.264,16.264 35,15.5 31.264,14.736 Z M 34.5,17 34.246,18.246 33,18.5 34.246,18.754 34.5,20 34.754,18.754 36,18.5 34.754,18.246 Z M 33,21 32.83,21.83 32,22 32.83,22.17 33,23 33.17,22.17 34,22 33.17,21.83 Z"/>
 <path style="opacity:0.2" d="M 22.895,10.004 22.293,10.047 22.445,12.293 22.719,12.273 22.656,11.346 23.09,11.314 23.68,12.205 24,12.182 23.334,11.219 C 23.405,11.188 23.473,11.147 23.535,11.094 23.599,11.041 23.648,10.973 23.686,10.891 23.723,10.808 23.738,10.705 23.73,10.586 23.716,10.372 23.641,10.219 23.504,10.123 23.369,10.025 23.165,9.9846 22.895,10.004 Z M 22.897,10.252 C 23.075,10.239 23.209,10.26 23.299,10.316 23.388,10.371 23.437,10.472 23.447,10.619 23.457,10.76 23.424,10.87 23.348,10.949 23.271,11.026 23.144,11.071 22.967,11.084 L 22.641,11.107 22.584,10.273 Z M 20.906,10.279 19.727,10.596 20.273,12.775 21.455,12.459 21.395,12.219 20.481,12.463 20.283,11.684 21.145,11.453 21.086,11.217 20.225,11.447 20.053,10.766 20.967,10.521 Z M 18.418,11.064 17.309,11.59 18.217,13.637 19.326,13.111 19.227,12.887 18.367,13.291 18.043,12.561 18.852,12.178 18.752,11.955 17.943,12.336 17.658,11.697 18.518,11.291 Z M 15.955,12.369 15.748,12.523 16.473,13.551 C 16.512,13.607 16.556,13.667 16.604,13.73 16.651,13.791 16.694,13.847 16.734,13.9 16.776,13.952 16.807,13.992 16.828,14.018 L 16.818,14.025 14.814,13.225 14.557,13.418 15.842,15.238 16.047,15.084 15.328,14.068 C 15.262,13.975 15.196,13.885 15.129,13.801 15.062,13.716 15.004,13.645 14.959,13.588 L 14.969,13.58 16.981,14.383 17.24,14.187 Z M 13.475,14.842 C 13.389,14.841 13.304,14.856 13.221,14.883 13.053,14.936 12.899,15.047 12.756,15.217 12.607,15.395 12.518,15.573 12.49,15.754 12.464,15.933 12.49,16.11 12.57,16.281 12.649,16.451 12.772,16.61 12.94,16.76 13.111,16.912 13.283,17.017 13.459,17.074 13.635,17.131 13.808,17.135 13.977,17.082 14.146,17.028 14.305,16.911 14.453,16.734 14.596,16.564 14.679,16.39 14.705,16.211 14.733,16.03 14.71,15.853 14.633,15.682 14.556,15.507 14.431,15.344 14.26,15.191 14.089,15.039 13.913,14.935 13.736,14.883 13.648,14.855 13.561,14.842 13.475,14.842 Z M 13.469,15.115 C 13.661,15.131 13.862,15.232 14.07,15.418 14.278,15.604 14.403,15.794 14.447,15.992 14.491,16.187 14.433,16.382 14.271,16.574 14.11,16.767 13.933,16.855 13.738,16.84 13.542,16.823 13.339,16.723 13.131,16.537 12.923,16.351 12.799,16.16 12.758,15.965 12.715,15.768 12.775,15.573 12.938,15.379 13.099,15.187 13.275,15.098 13.469,15.115 Z M 11.447,17.086 11.045,17.787 11.182,17.869 11.365,17.674 12.867,18.592 12.787,18.85 12.924,18.934 13.324,18.234 13.188,18.15 13.008,18.348 11.506,17.43 11.584,17.17 Z M 10.844,19.016 C 10.758,19.017 10.678,19.039 10.602,19.08 10.449,19.162 10.318,19.34 10.213,19.613 L 10,20.166 12.027,21 12.129,20.736 11.34,20.412 11.434,20.172 C 11.514,19.963 11.547,19.785 11.533,19.639 11.52,19.491 11.475,19.372 11.398,19.281 11.32,19.188 11.225,19.12 11.113,19.074 11.019,19.035 10.929,19.015 10.844,19.016 Z M 10.836,19.312 C 10.893,19.311 10.954,19.323 11.02,19.35 11.169,19.411 11.256,19.504 11.281,19.627 11.306,19.75 11.28,19.912 11.203,20.111 L 11.121,20.322 10.32,19.992 10.424,19.727 C 10.495,19.543 10.578,19.421 10.676,19.361 10.725,19.331 10.779,19.314 10.836,19.312 Z"/>
 <path style="fill:#dbc464" d="M 24,24 A 25,25 0 0 0 8.0332,29.791 17,17 0 0 0 24,41 17,17 0 0 0 39.967,29.773 25,25 0 0 0 24,24 Z"/>
 <path style="opacity:0.2;fill:#8b9cbe" d="M 24,24 A 25,25 0 0 0 8.0332,29.791 17,17 0 0 0 8.3516,30.549 25,25 0 0 1 24,25 25,25 0 0 1 39.652,30.537 17,17 0 0 0 39.967,29.773 25,25 0 0 0 24,24 Z"/>
 <path style="fill:#d37b1d" d="M 18,33 V 39.885 A 17,17 0 0 0 24,41 17,17 0 0 0 30,39.896 V 33 Z"/>
 <path style="fill:#c95419" d="M 20,33 V 40.502 A 17,17 0 0 0 24,41 17,17 0 0 0 28,40.504 V 33 Z"/>
 <path style="fill:#dbc464" d="M 35,14.5 31.264,15.264 30.5,19 29.736,15.264 26,14.5 29.736,13.736 30.5,10 31.264,13.736 Z"/>
 <path style="fill:#8b9cbe" d="M 32.066,14.5 30.766,14.766 30.5,16.066 30.234,14.766 28.934,14.5 30.234,14.234 30.5,12.934 30.766,14.234 Z"/>
 <path style="fill:#8b9cbe" d="M 36,17.5 34.755,17.755 34.5,19 34.245,17.755 33,17.5 34.245,17.245 34.5,16 34.755,17.245 Z"/>
 <path style="fill:#8b9cbe" d="M 34,21 33.17,21.17 33,22 32.83,21.17 32,21 32.83,20.83 33,20 33.17,20.83 Z"/>
 <path style="fill:#ac00ff" d="M 21.055,34.086 C 20.986,34.379 21.016,35.172 21.055,35.469 21.221,36.757 22.021,39.383 22.021,39.383 22.021,39.383 22.717,36.809 22.851,35.555 22.886,35.234 22.969,34.409 22.851,34.098 22.758,33.851 22.207,33.432 22.207,33.432 H 21.538 C 21.538,33.432 21.108,33.859 21.055,34.086 Z"/>
 <path style="fill:#8b9cbe" d="M 21.481,34.49 C 21.445,34.646 21.461,35.066 21.481,35.223 21.57,35.906 21.994,37.298 21.994,37.298 21.994,37.298 22.363,35.934 22.434,35.269 22.452,35.099 22.496,34.662 22.434,34.497 22.384,34.366 22.092,34.144 22.092,34.144 H 21.738 C 21.738,34.144 21.51,34.37 21.481,34.49 Z"/>
 <path style="fill:#ac00ff" d="M 25.078,34.086 C 25.01,34.379 25.04,35.172 25.078,35.469 25.245,36.757 26.045,39.383 26.045,39.383 26.045,39.383 26.741,36.809 26.875,35.555 26.909,35.234 26.992,34.409 26.875,34.098 26.782,33.851 26.23,33.432 26.23,33.432 H 25.561 C 25.561,33.432 25.131,33.859 25.078,34.086 Z"/>
 <path style="fill:#8b9cbe" d="M 25.505,34.49 C 25.469,34.646 25.485,35.066 25.505,35.223 25.593,35.906 26.017,37.298 26.017,37.298 26.017,37.298 26.386,35.934 26.457,35.269 26.476,35.099 26.52,34.662 26.457,34.497 26.408,34.366 26.116,34.144 26.116,34.144 H 25.761 C 25.761,34.144 25.533,34.37 25.505,34.49 Z"/>
 <path style="opacity:0.2" d="M 23.213,19 22.625,19.256 C 22.625,19.256 20.908,21.679 19.525,23.863 19.525,23.863 19.523,23.865 19.523,23.865 19.063,24.593 18.64,25.295 18.33,25.871 17.594,27.239 16.863,28.639 16.473,30.131 16.072,31.661 16,34.84 16,34.84 L 17.301,35.447 18.002,35.775 C 18.002,35.775 20.02,35.957 21.514,36.953 23.331,38.164 23.977,40 23.977,40 23.977,40 24.622,38.164 26.439,36.953 27.933,35.957 29.951,35.775 29.951,35.775 L 30.695,35.428 30.699,35.447 32,34.84 C 32,34.84 31.928,31.661 31.527,30.131 31.137,28.639 30.406,27.239 29.67,25.871 28.429,23.564 25.375,19.256 25.375,19.256 L 24.795,19.004 24.811,19.029 24.74,19 H 23.977 Z"/>
 <path style="fill:#787878" d="M 26.439,35.953 C 27.933,34.957 29.951,34.775 29.951,34.775 L 31.953,33.84 C 31.953,33.84 31.881,30.661 31.48,29.13 31.089,27.639 30.36,26.239 29.624,24.871 28.382,22.564 25.329,18.256 25.329,18.256 L 24.741,18 H 23.977 23.212 L 22.625,18.256 C 22.625,18.256 19.571,22.564 18.33,24.871 17.594,26.239 16.864,27.639 16.474,29.13 16.073,30.661 16,33.84 16,33.84 L 18.002,34.775 C 18.002,34.775 20.02,34.957 21.514,35.953 23.332,37.164 23.977,39 23.977,39 23.977,39 24.622,37.164 26.439,35.953 Z"/>
 <path style="fill:#717171" d="M 23.205,18.003 22.624,18.256 C 22.624,18.256 19.571,22.564 18.33,24.871 17.593,26.239 16.863,27.639 16.473,29.13 16.072,30.66 16,33.841 16,33.841 L 17.301,34.448 18.146,28.866 19.537,24.556 Z"/>
 <path style="fill:#717171" d="M 24.795,18.003 25.376,18.256 C 25.376,18.256 28.429,22.564 29.67,24.871 30.407,26.239 31.137,27.639 31.527,29.13 31.928,30.66 32,33.841 32,33.841 L 30.699,34.448 29.854,28.866 28.463,24.556 Z"/>
 <path style="fill:#4a49ac" d="M 23.645,18 C 23.645,18 23.6,20.347 23.221,22.268 22.949,23.648 22.197,24.524 21.132,26.145 20.482,27.134 20,27.457 20,28.475 V 31.493 C 20,32.418 21.408,33.741 21.991,34.682 22.522,35.429 22.976,36.325 23.336,37.065 23.696,37.804 23.999,39 23.999,39 23.999,39 24.302,37.804 24.662,37.065 25.023,36.325 25.476,35.429 26.007,34.682 26.591,33.741 28,32.418 28,31.493 V 28.475 C 28,27.457 27.518,27.134 26.868,26.145 25.803,24.524 25.051,23.648 24.779,22.268 24.4,20.347 24.355,18 24.355,18 H 23.999 Z M 23.996,25.655 C 25.687,26.194 26.101,27.292 26.78,28.378 26.78,28.926 26.832,29.474 26.832,30.022 26.832,30.57 26.78,31.116 26.78,31.664 25.664,32.825 24.655,34.036 23.996,35.442 23.337,34.036 22.328,32.825 21.212,31.664 21.212,31.116 21.159,30.57 21.159,30.022 21.159,29.474 21.212,28.926 21.212,28.378 21.891,27.292 22.305,26.194 23.996,25.655 Z"/>
 <path style="fill:#8b9cbe" d="M 22.895,9.0039 22.293,9.0469 22.445,11.293 22.719,11.273 22.656,10.346 23.09,10.314 23.68,11.205 24,11.182 23.334,10.219 C 23.405,10.188 23.473,10.147 23.535,10.094 23.599,10.041 23.648,9.9734 23.686,9.8906 23.723,9.8079 23.738,9.7055 23.73,9.5859 23.716,9.372 23.641,9.2186 23.504,9.123 23.369,9.0253 23.165,8.9846 22.895,9.0039 Z M 22.896,9.252 C 23.075,9.2392 23.209,9.2596 23.299,9.3164 23.388,9.3711 23.437,9.4723 23.447,9.6191 23.457,9.7596 23.424,9.87 23.348,9.9492 23.271,10.026 23.144,10.071 22.967,10.084 L 22.641,10.107 22.584,9.2734 Z M 20.906,9.2793 19.727,9.5957 20.273,11.775 21.455,11.459 21.395,11.219 20.48,11.463 20.283,10.684 21.145,10.453 21.086,10.217 20.225,10.447 20.053,9.7656 20.967,9.5215 Z M 18.418,10.064 17.309,10.59 18.217,12.637 19.326,12.111 19.227,11.887 18.367,12.291 18.043,11.561 18.852,11.178 18.752,10.955 17.943,11.336 17.658,10.697 18.518,10.291 Z M 15.955,11.369 15.748,11.523 16.473,12.551 C 16.512,12.607 16.556,12.667 16.604,12.73 16.651,12.791 16.694,12.847 16.734,12.9 16.776,12.952 16.807,12.992 16.828,13.018 L 16.818,13.025 14.814,12.225 14.557,12.418 15.842,14.238 16.047,14.084 15.328,13.068 C 15.262,12.975 15.196,12.885 15.129,12.801 15.062,12.716 15.004,12.645 14.959,12.588 L 14.969,12.58 16.98,13.383 17.24,13.188 Z M 13.475,13.842 C 13.389,13.841 13.304,13.856 13.221,13.883 13.052,13.936 12.899,14.047 12.756,14.217 12.607,14.395 12.518,14.573 12.49,14.754 12.464,14.933 12.49,15.11 12.57,15.281 12.649,15.451 12.771,15.61 12.939,15.76 13.111,15.912 13.283,16.017 13.459,16.074 13.635,16.131 13.808,16.135 13.977,16.082 14.146,16.028 14.305,15.911 14.453,15.734 14.596,15.564 14.679,15.39 14.705,15.211 14.733,15.03 14.71,14.853 14.633,14.682 14.556,14.507 14.431,14.344 14.26,14.191 14.089,14.039 13.913,13.935 13.736,13.883 13.648,13.855 13.561,13.842 13.475,13.842 Z M 13.469,14.115 C 13.661,14.131 13.862,14.232 14.07,14.418 14.278,14.604 14.403,14.794 14.447,14.992 14.491,15.187 14.433,15.382 14.271,15.574 14.11,15.767 13.933,15.855 13.738,15.84 13.542,15.823 13.339,15.723 13.131,15.537 12.923,15.351 12.799,15.16 12.758,14.965 12.715,14.768 12.775,14.573 12.938,14.379 13.099,14.187 13.275,14.098 13.469,14.115 Z M 11.447,16.086 11.045,16.787 11.182,16.869 11.365,16.674 12.867,17.592 12.787,17.85 12.924,17.934 13.324,17.234 13.188,17.15 13.008,17.348 11.506,16.43 11.584,16.17 Z M 10.844,18.016 C 10.758,18.017 10.678,18.039 10.602,18.08 10.449,18.162 10.318,18.34 10.213,18.613 L 10,19.166 12.027,20 12.129,19.736 11.34,19.412 11.434,19.172 C 11.514,18.963 11.547,18.785 11.533,18.639 11.52,18.491 11.475,18.372 11.398,18.281 11.32,18.188 11.225,18.12 11.113,18.074 11.019,18.035 10.929,18.015 10.844,18.016 Z M 10.836,18.312 C 10.893,18.311 10.954,18.323 11.02,18.35 11.169,18.411 11.256,18.504 11.281,18.627 11.306,18.75 11.28,18.912 11.203,19.111 L 11.121,19.322 10.32,18.992 10.424,18.727 C 10.495,18.543 10.578,18.421 10.676,18.361 10.725,18.331 10.779,18.314 10.836,18.312 Z"/>
 <path style="opacity:0.1;fill:#8b9cbe" d="M 24,4 C 12.967,4 4,12.967 4,24 4,24.168 4.0076,24.333 4.0117,24.5 4.2787,13.698 13.135,5 24,5 34.865,5 43.721,13.698 43.988,24.5 43.992,24.333 44,24.168 44,24 44,12.967 35.033,4 24,4 Z"/>
 <path style="opacity:0.1;fill:#8b9cbe" d="M 24,7 A 17,17 0 0 0 7,24 17,17 0 0 0 7.0215,24.58 17,17 0 0 1 24,8 17,17 0 0 1 40.979,24.42 17,17 0 0 0 41,24 17,17 0 0 0 24,7 Z"/>
</svg>
