<svg xmlns="http://www.w3.org/2000/svg" width="48" height="48" version="1">
 <path fill="#0088d1" d="m19.883 4.1282a4.2224 4.1121 0 0 0 -3.0967 3.1792l-1.7959 8.7759-8.4384 3.5355a4.2224 4.1121 0 0 0 -0.39528 7.3628l8.0126 4.374 0.84278 8.9087a4.2224 4.1121 0 0 0 7.069 2.6449l6.7504-6.0714 8.96 1.9718a4.2224 4.1121 0 0 0 4.764 -5.7326l-3.844-8.1256 4.6966-7.6904a4.2224 4.1121 0 0 0 -4.1225 -6.1839l-9.1263 1.0479-6.0578-6.7265a4.2224 4.1121 0 0 0 -4.2185 -1.2703z"/>
 <path fill="#b2bfd9" d="m20.719 4.0059a4.2224 4.1121 0 0 0 -0.836 0.123 4.2224 4.1121 0 0 0 -3.096 3.1777l-1.797 8.7774-8.4373 3.535a4.2224 4.1121 0 0 0 -0.3965 7.363l8.0138 4.373 0.842 8.909a4.2224 4.1121 0 0 0 7.068 2.646l6.752-6.072 8.959 1.973a4.2224 4.1121 0 0 0 4.764 -5.735l-3.844-8.125 4.697-7.689a4.2224 4.1121 0 0 0 -4.123 -6.186l-9.127 1.049-6.056-6.7266a4.2224 4.1121 0 0 0 -3.383 -1.3925zm0.129 4.0039a4.0004 4.0004 0 0 0 0.002 0c0.12-0.03 0.238 0.0208 0.281 0.0683l6.057 6.7249a4.0004 4.0004 0 0 0 3.427 1.297l9.125-1.049c0.257-0.03 0.209 0.028 0.25 0.09 0.01 0.014 0.019 0.015 0.028 0.011-0.007 0.005-0.003-0.012-0.026 0.026l-4.695 7.689a4.0004 4.0004 0 0 0 -0.201 3.795l3.843 8.125a4.0004 4.0004 0 0 0 0 0.002c0.135 0.284 0.209 0.223-0.289 0.113l-8.959-1.97a4.0004 4.0004 0 0 0 -3.535 0.931l-6.75 6.073c-0.303 0.272-0.386 0.222-0.412-0.047a4.0004 4.0004 0 0 0 0 -0.002l-0.842-8.908a4.0004 4.0004 0 0 0 -2.066 -3.135l-8.0118-4.373c-0.2028-0.111-0.0764-0.036-0.0742-0.076 0.0021-0.04-0.1063-0.001 0.0977-0.086l0.0019-0.002 8.4354-3.534a4.0004 4.0004 0 0 0 2.373 -2.888l1.797-8.7737c0.003-0.0157 0.019-0.0708 0.143-0.1015z"/>
 <path fill="#fff" opacity=".2" d="m20.719 4.0059a4.2224 4.1121 0 0 0 -0.836 0.123 4.2224 4.1121 0 0 0 -3.096 3.1777l-1.797 8.7774-8.4373 3.535a4.2224 4.1121 0 0 0 -2.5175 4.287 4.2224 4.1121 0 0 1 2.5175 -3.287l8.4373-3.535 1.797-8.7774a4.2224 4.1121 0 0 1 3.096 -3.1777 4.2224 4.1121 0 0 1 4.219 1.2695l6.056 6.7266 9.127-1.049a4.2224 4.1121 0 0 1 4.68 3.596 4.2224 4.1121 0 0 0 -4.68 -4.596l-9.127 1.049-6.056-6.7266a4.2224 4.1121 0 0 0 -3.383 -1.3925zm18.26 21.51l-0.268 0.435 3.844 8.125a4.2224 4.1121 0 0 1 0.353 1.221 4.2224 4.1121 0 0 0 -0.353 -2.221l-3.576-7.56z"/>
 <path opacity=".2" d="m43.965 15.672a4.2224 4.1121 0 0 1 -0.55664 1.5898l-4.6973 7.6895 0.26758 0.56445 4.4297-7.2539a4.2224 4.1121 0 0 0 0.557 -2.59zm-39.93 8.234a4.2224 4.1121 0 0 0 2.121 4.076l8.0137 4.373 0.8418 8.9082a4.2224 4.1121 0 0 0 7.0684 2.6465l6.752-6.0723 8.959 1.9727a4.2224 4.1121 0 0 0 5.1172 -4.5137 4.2224 4.1121 0 0 1 -5.1172 3.5137l-8.959-1.9727-6.752 6.0723a4.2224 4.1121 0 0 1 -7.068 -2.647l-0.842-8.908-8.0138-4.373a4.2224 4.1121 0 0 1 -2.121 -3.076z"/>
</svg>
