<svg xmlns="http://www.w3.org/2000/svg" width="48" height="48" version="1.1">
 <path opacity=".2" d="m4.0215 24.418a20 20 0 0 0 -0.0215 0.582 20 20 0 0 0 20 20 20 20 0 0 0 20 -20 20 20 0 0 0 -0.021 -0.418 20 20 0 0 1 -19.979 19.418 20 20 0 0 1 -19.978 -19.582z"/>
 <path style="fill:#42b8fe" d="M 34,6.6794918 A 20,20 0 0 0 6.6794918,14 20,20 0 0 0 14,41.320508 20,20 0 0 0 41.320508,34 20,20 0 0 0 34,6.6794918 Z"/>
 <path fill="#8b9cbe" opacity=".2" d="m24 4a20 20 0 0 0 -20 20 20 20 0 0 0 0.0215 0.418 20 20 0 0 1 19.978 -19.418 20 20 0 0 1 19.979 19.582 20 20 0 0 0 0.021 -0.582 20 20 0 0 0 -20 -20z"/>
 <path style="opacity:0.2" transform="matrix(0.79277569,0.61020802,-0.61020802,0.79277569,18.478075,-9.5589467)" d="m 26.721132,7.139029 1.350113,3.796569 3.639254,-1.7299056 -1.729906,3.6392536 3.796569,1.350113 -3.796569,1.350113 1.729906,3.639253 -3.639254,-1.729906 -1.350113,3.79657 -1.350113,-3.79657 -3.639253,1.729906 1.729906,-3.639254 -3.79657,-1.350112 3.79657,-1.350113 -1.729906,-3.6392538 3.639254,1.7299058 z"/>
 <path style="fill:#8b9cbe" transform="matrix(0.79277569,0.61020802,-0.61020802,0.79277569,18.478075,-10.558947)" d="m 26.721132,7.139029 1.350113,3.796569 3.639254,-1.7299056 -1.729906,3.6392536 3.796569,1.350113 -3.796569,1.350113 1.729906,3.639253 -3.639254,-1.729906 -1.350113,3.79657 -1.350113,-3.79657 -3.639253,1.729906 1.729906,-3.639254 -3.79657,-1.350112 3.79657,-1.350113 -1.729906,-3.6392538 3.639254,1.7299058 z"/>
 <path style="opacity:0.2;fill:none;stroke:#000000;stroke-width:2;stroke-linecap:round;stroke-linejoin:round" d="M 14,6.9998236 C 9,22.999824 14.05932,33.890555 25,44.999824"/>
 <path style="fill:none;stroke:#17191e;stroke-width:2;stroke-linecap:round;stroke-linejoin:round" d="M 14,6 C 9,22 14.05932,32.890731 25,44"/>
 <path style="opacity:0.2;fill:none;stroke:#000000;stroke-width:2;stroke-linecap:round;stroke-linejoin:round" d="m 44,25.999824 c -11.265171,11.207928 -23,13 -38,9"/>
 <path style="fill:none;stroke:#17191e;stroke-width:2;stroke-linecap:round;stroke-linejoin:round" d="M 44,25 C 32.734829,36.207928 21,38 6,34"/>
</svg>
