<svg xmlns="http://www.w3.org/2000/svg" width="48" height="48" version="1.1">
 <path style="fill:#5a72e3" d="m10 4c-1.108 0-2 0.892-2 2v36c0 1.108 0.892 2 2 2h28c1.108 0 2-0.892 2-2v-36c0-1.108-0.892-2-2-2h-28z"/>
 <path style="opacity:0.3" d="m10 4c-1.108 0-2 0.892-2 2v36c0 1.108 0.892 2 2 2h3.9785v-40h-3.978z"/>
 <path fill="#fff" style="opacity:0.1" d="m10 4c-1.108 0-2 0.892-2 2v1c0-1.108 0.892-2 2-2h28c1.108 0 2 0.892 2 2v-1c0-1.108-0.892-2-2-2h-28z"/>
 <path opacity=".2" d="m8 42v1c0 1.108 0.892 2 2 2h28c1.108 0 2-0.892 2-2v-1c0 1.108-0.892 2-2 2h-28c-1.108 0-2-0.892-2-2z"/>
 <path style="opacity:0.2" d="m 32,14 v 21 h 4 V 14 Z m -14,5 v 16 h 4 V 19 Z m 7,6 v 10 h 4 V 25 Z"/>
 <path style="fill:#8b9cbe" d="m 32,13 v 21 h 4 V 13 Z m -14,5 v 16 h 4 V 18 Z m 7,6 v 10 h 4 V 24 Z"/>
</svg>
