<svg xmlns="http://www.w3.org/2000/svg" width="48" height="48" version="1.1">
 <path style="opacity:0.2" d="m 35,11.620505 c 1.749187,-1.272958 3.424986,-2.9148109 5.414249,-3.4420698 1.153981,-0.2643371 2.226033,-0.3117095 3.011668,0.3993989 0.480886,0.7326966 1.249811,1.5074029 1.495794,2.5976249 0.210282,0.932 0.02639,2.251372 -0.913437,2.23634 -0.706332,-0.237847 -2.226938,-0.776726 -3.122726,-0.586448 -2.359952,0.501286 -2.978512,2.17465 -2.978512,2.17465 z"/>
 <path style="opacity:0.2" d="M 31.819552,40.105928 C 23.453168,45.746894 9.7415069,45.220384 4.6385384,38.77914 0.25565736,33.246828 5.1224381,17.62746 13.812212,10.559884 22.501987,3.4923074 30.881711,5.9345648 36.813438,13.53932 c 5.931727,7.604756 4.291268,20.30617 -4.993886,26.566608 z"/>
 <path style="fill:#77451f" d="m 35,10.620504 c 1.749187,-1.2729586 3.424986,-2.9148113 5.414249,-3.4420702 1.153981,-0.2643371 2.226033,-0.3117095 3.011668,0.3993989 0.480886,0.7326966 1.249811,1.5074026 1.495794,2.5976253 0.210282,0.932 0.02639,2.251372 -0.913437,2.23634 C 43.301942,12.173951 41.781336,11.635072 40.885548,11.82535 38.525596,12.326636 37.907036,14 37.907036,14 Z"/>
 <path style="opacity:0.1;fill:#8b9cbe" d="M 42.058594 7.0117188 C 41.548129 6.9677154 40.991053 7.0455658 40.414062 7.1777344 C 38.424799 7.7049933 36.749187 9.3481352 35 10.621094 L 35.517578 11.222656 C 37.083442 10.023258 38.622264 8.6526548 40.414062 8.1777344 C 41.568044 7.9133973 42.640146 7.8670166 43.425781 8.578125 C 43.906667 9.3108216 44.675892 10.085559 44.921875 11.175781 C 44.938848 11.251007 44.935619 11.336648 44.947266 11.416016 C 45.023105 11.017277 45.009632 10.564733 44.921875 10.175781 C 44.675892 9.0855586 43.906667 8.3108216 43.425781 7.578125 C 43.032964 7.2225708 42.569059 7.0557221 42.058594 7.0117188 z"/>
 <path style="fill:#ebbe63" d="M 31.819552,39.105927 C 23.453168,44.746893 9.7415069,44.220383 4.6385384,37.779139 0.25565736,32.246827 5.1224381,16.627459 13.812212,9.5598828 22.501987,2.492306 30.881711,4.9345634 36.813438,12.539319 c 5.931727,7.604756 4.291268,20.30617 -4.993886,26.566608 z"/>
 <path style="opacity:0.2;fill:#8b9cbe" d="M 24.861328 5.3808594 C 21.357275 5.1964878 17.614277 6.468482 13.8125 9.5605469 C 7.1739206 14.959843 2.7820438 25.337186 3.0253906 32.408203 C 3.1978002 25.38816 7.4802825 15.710673 13.8125 10.560547 C 22.502275 3.4929703 30.880773 5.9343073 36.8125 13.539062 C 38.986552 16.326301 40.135367 19.800196 40.271484 23.388672 C 40.32958 19.449247 39.188093 15.584686 36.8125 12.539062 C 33.475904 8.2613875 29.366539 5.6179086 24.861328 5.3808594 z"/>
 <path style="opacity:0.2" d="m 22.51524,5.0001358 c -1.610603,-0.00631 -3.176915,0.2079804 -4.637268,0.6409578 -2.220151,0.8776062 -4.04252,1.6875179 -1.967673,2.7826156 3.934353,2.0556078 7.64113,4.8552138 10.849188,8.4072658 5.104221,5.651538 8.272608,12.424765 9.725307,19.104586 0.411209,2.310058 2.409777,0.265847 3.229136,-0.580648 C 44.196333,30.6963 43.971734,19.267589 37.118671,11.679685 33.097112,7.2269049 27.586913,5.0200357 22.51524,5.0001358 Z"/>
 <path style="fill:#a9622c" d="m 22.51524,4.0001355 c -1.610603,-0.00631 -3.176915,0.2079804 -4.637268,0.6409578 -2.220151,0.8776062 -4.04252,1.6875179 -1.967673,2.7826156 3.934353,2.0556079 7.64113,4.8552141 10.849188,8.4072661 5.104221,5.651538 8.272608,12.424765 9.725307,19.104586 0.411209,2.310058 2.409777,0.265847 3.229136,-0.580648 C 44.196333,29.6963 43.971734,18.267589 37.118671,10.679685 33.097112,6.2269046 27.586913,4.0200354 22.51524,4.0001355 Z"/>
 <path style="opacity:0.1;fill:#8b9cbe" d="M 22.515625 4 C 20.905022 3.99369 19.339259 4.2076476 17.878906 4.640625 C 15.970952 5.3948225 14.363047 6.1003407 15.263672 6.9785156 C 15.724891 6.5193963 16.74675 6.0881565 17.878906 5.640625 C 19.339259 5.2076476 20.905022 4.99369 22.515625 5 C 27.587298 5.0198999 33.097582 7.2269074 37.119141 11.679688 C 40.84236 15.802141 42.594549 21.053962 42.712891 25.742188 C 42.838217 20.814014 41.109858 15.098322 37.119141 10.679688 C 33.097582 6.2269071 27.587298 4.0198999 22.515625 4 z"/>
</svg>
