<svg xmlns="http://www.w3.org/2000/svg" width="48" height="48" version="1">
 <path style="opacity:0.2" d="m 20.5,10 0.02539,0.01758 c -2.218945,-0.1338122 -4.511093,1.160748 -5.173829,3.751953 -5.9940037,1.946034 -9.8613276,5.970703 -9.8613276,5.970703 -1.3697201,1.350281 -1.843586,3.366489 -1.21875,5.185547 0,0 2.9387002,8.666623 11.2089846,11.720703 0.699465,2.005201 2.589198,3.349864 4.71289,3.353516 H 39 c 2.761309,-2.76e-4 4.999724,-2.238691 5,-5 V 15 c -2.76e-4,-2.761309 -2.238691,-4.999724 -5,-5 z"/>
 <path style="fill:#4ca341" d="M 20.5 9 L 20.525391 9.0175781 C 18.306446 8.8837658 16.014298 10.178326 15.351562 12.769531 C 9.3575583 14.715565 5.4902344 18.740234 5.4902344 18.740234 C 4.1205143 20.090515 3.6466484 22.106723 4.2714844 23.925781 C 4.2714844 23.925781 7.2101846 32.592404 15.480469 35.646484 C 16.179934 37.651685 18.069667 38.996348 20.193359 39 L 39 39 C 41.761309 38.999724 43.999724 36.761309 44 34 L 44 14 C 43.999724 11.238691 41.761309 9.0002761 39 9 L 20.5 9 z"/>
 <path fill="#262626" d="m12.065 22.61s2.7123-4.0319 8.1279-4.449v-1.4628c-5.999 0.485-11.193 5.604-11.193 5.604s2.942 8.5689 11.193 9.3535v-1.5548c-6.055-0.768-8.128-7.491-8.128-7.491zm8.1279 4.3986v1.4239c-4.5761-0.82197-5.8464-5.6147-5.8464-5.6147s2.1972-2.4523 5.8464-2.85v1.5625c-0.0023 0-0.0038-0.000811-0.0058-0.000811-1.9153-0.23157-3.4115 1.5711-3.4115 1.5711s0.83862 3.0347 3.4185 3.9081m0-13.008v2.698c0.17609-0.01347 0.35218-0.025 0.52923-0.03108 6.8196-0.23157 11.263 5.6352 11.263 5.6352s-5.1034 6.2523-10.42 6.2523c-0.48729 0-0.94348-0.04556-1.372-0.12202v1.6684c0.3664 0.0468 0.7463 0.07444 1.1427 0.07444 4.9477 0 8.5258-2.5458 11.99-5.5589 0.57444 0.46351 2.9261 1.5911 3.4096 2.0847-3.2942 2.7787-10.972 5.0187-15.324 5.0187-0.41954 0-0.82247-0.02557-1.2185-0.06407v2.3444h18.806v-20h-18.806zm0 5.9677v-1.8068c0.17428-0.01042 0.34989-0.02166 0.52923-0.02743 4.904-0.1552 8.1213 4.2459 8.1213 4.2459s-3.475 4.8625-7.2009 4.8625c-0.53622 0-1.017-0.0868-1.4497-0.2334v-5.4783c1.9091 0.23242 2.2934 1.0821 3.4411 3.0098l2.5527-2.1687s-1.8634-2.4623-5.0047-2.4623c-0.34145-0.000117-0.66819 0.0241-0.98903 0.05851"/>
 <path style="opacity:0.2;fill:#8b9cbe" d="M 20.5 9 L 20.525391 9.0175781 C 18.306446 8.8837658 16.014299 10.178326 15.351562 12.769531 C 9.3575588 14.715565 5.4902344 18.740234 5.4902344 18.740234 C 4.4060299 19.809052 3.8942026 21.294278 4.0332031 22.769531 C 4.1540864 21.642511 4.652207 20.566368 5.4902344 19.740234 C 5.4902344 19.740234 9.3575588 15.715565 15.351562 13.769531 C 16.014299 11.178326 18.306446 9.8837659 20.525391 10.017578 L 20.5 10 L 39 10 C 41.761309 10.000276 43.999724 12.238691 44 15 L 44 14 C 43.999724 11.238691 41.761309 9.0002761 39 9 L 20.5 9 z"/>
</svg>
