<svg width="48" height="48" version="1.1" xmlns="http://www.w3.org/2000/svg">
 <g transform="matrix(2,0,0,2,2,1)">
  <path d="m2 2.5v1l1 1 0.5 2h2.5v-2l-2-2zm9 1v4l-1 2-2-2h-2l2 2-2 4-5 1v3h3l3-3h1l1 1v1l-1 1v3l2 1v-1h1v-4l1-1 4 6h3v-3l-5-4v-2c3-1 5-1 5-1l2-1v-1h-4c-1 1-3 1-3 1l-1-1v-6z" style="opacity:.2"/>
  <path d="m2 2v1l1 1 0.5 2h2.5v-2l-2-2zm9 1v4l-1 2-2-2h-2l2 2-2 4-5 1v3h3l3-3h1l1 1v1l-1 1v3l2 1v-1h1v-4l1-1 4 6h3v-3l-5-4v-2c3-1 5-1 5-1l2-1v-1h-4c-1 1-3 1-3 1l-1-1v-6z" style="fill:#f14223"/>
  <path d="m2 2v0.5h2l2 2v-0.5l-2-2zm9 1v0.5h2v-0.5zm-5 4 0.5 0.5h1.5l2 2 1-2v-0.5l-1 2-2-2zm7 2v0.5l1 1s2 0 3-1h4v-0.5h-4c-1 1-3 1-3 1zm-5.1660156 0.3339844-1.8339844 3.6660156-5 1v0.5l5-1 2-4zm6.1660156 4.6660156v0.5l5 4v-0.5zm-5 2-1 1v0.5l1-1z" style="fill:#8b9cbe;opacity:.2"/>
 </g>
</svg>
