<svg xmlns="http://www.w3.org/2000/svg" width="48" height="48" version="1.1">
 <path style="opacity:0.2" d="M 6.1074219,5.0019531 C 3.857313,4.9417348 2.0005184,6.7490855 2,9 v 5.3125 c -4.023e-4,1.426301 0.7586282,2.744931 1.9921875,3.460938 L 5,18.357422 v -0.0957 c 4.52e-5,1.408869 0.7411888,2.713846 1.9511719,3.435547 L 7,21.726562 v 0.05664 c 0.00157,0.08932 0.00613,0.178563 0.013672,0.267578 -0.4198981,0.748969 -0.4733409,0.94922 -0.4785157,2.464844 0.046531,1.484376 0.2347015,2.342601 1.0351563,3.207031 l 1.3105469,1.410156 c 0.1992461,0.678153 0.574612,1.291407 1.0878906,1.777344 l 3.181641,3 C 13.892668,34.610066 14.792969,35 14.792969,35 l 1.003906,0.931641 c 0.504752,0.467748 1.121633,0.797378 1.791016,0.957031 -0.363365,1.252977 -0.09293,2.604425 0.724609,3.621094 C 19.009329,43.049594 21.265938,45 24,45 c 2.734062,0 4.990671,-1.950406 5.6875,-4.490234 0.817539,-1.016669 1.087974,-2.368117 0.724609,-3.621094 0.669383,-0.159653 1.286264,-0.489283 1.791016,-0.957031 L 33.207031,35 c 0,0 0.900301,-0.389934 1.642578,-1.089844 l 3.181641,-3 c 0.513278,-0.485937 0.888645,-1.099191 1.087891,-1.777344 l 1.310547,-1.410156 c 0.800454,-0.86443 0.988625,-1.722655 1.035156,-3.207031 -0.0052,-1.515624 -0.05862,-1.715872 -0.478516,-2.464844 0.0076,-0.08901 0.01207,-0.178258 0.01367,-0.267578 v -0.05664 l 0.04883,-0.0293 C 42.258811,20.975565 42.999955,19.670588 43,18.261719 v 0.0957 l 1.007812,-0.583984 C 45.241372,17.057431 46.000402,15.738801 46,14.3125 V 9 c -5.19e-4,-2.2509145 -1.857313,-4.0582652 -4.107422,-3.9980469 -0.805382,0.02145 -1.58552,0.2855804 -2.238281,0.7578125 L 29.140625,13.375 C 27.85218,11.945848 26.040939,11 24,11 c -2.040939,0 -3.85218,0.945848 -5.140625,2.375 L 8.3457031,5.7597656 C 7.6929422,5.2875335 6.9128037,5.0234028 6.1074219,5.0019531 Z"/>
 <path style="fill:#17191e" d="M 6.1074219 4.0019531 C 3.857313 3.9417348 2.0005184 5.7490855 2 8 L 2 13.3125 C 1.9995977 14.738801 2.7586282 16.057431 3.9921875 16.773438 L 5 17.357422 L 5 17.261719 C 5.0000452 18.670588 5.7411888 19.975565 6.9511719 20.697266 L 7 20.726562 L 7 20.783203 C 7.00157 20.872523 7.0061299 20.961766 7.0136719 21.050781 C 6.5937738 21.79975 6.540331 22.000001 6.5351562 23.515625 C 6.5816871 25.000001 6.7698577 25.858226 7.5703125 26.722656 L 8.8808594 28.132812 C 9.0801055 28.810965 9.4554714 29.424219 9.96875 29.910156 L 13.150391 32.910156 C 13.892668 33.610066 14.792969 34 14.792969 34 L 15.796875 34.931641 C 16.301627 35.399389 16.918508 35.729019 17.587891 35.888672 C 17.224526 37.141649 17.494961 38.493097 18.3125 39.509766 C 19.009329 42.049594 21.265938 44 24 44 C 26.734062 44 28.990671 42.049594 29.6875 39.509766 C 30.505039 38.493097 30.775474 37.141649 30.412109 35.888672 C 31.081492 35.729019 31.698373 35.399389 32.203125 34.931641 L 33.207031 34 C 33.207031 34 34.107332 33.610066 34.849609 32.910156 L 38.03125 29.910156 C 38.544528 29.424219 38.919895 28.810965 39.119141 28.132812 L 40.429688 26.722656 C 41.230142 25.858226 41.418313 25.000001 41.464844 23.515625 C 41.459669 22.000001 41.406226 21.799753 40.986328 21.050781 C 40.993898 20.961766 40.9984 20.872523 41 20.783203 L 41 20.726562 L 41.048828 20.697266 C 42.258811 19.975565 42.999955 18.670588 43 17.261719 L 43 17.357422 L 44.007812 16.773438 C 45.241372 16.057431 46.000402 14.738801 46 13.3125 L 46 8 C 45.999481 5.7490855 44.142687 3.9417348 41.892578 4.0019531 C 41.087196 4.0234028 40.307058 4.2875335 39.654297 4.7597656 L 29.140625 12.375 C 27.85218 10.945848 26.040939 10 24 10 C 21.959061 10 20.14782 10.945848 18.859375 12.375 L 8.3457031 4.7597656 C 7.6929422 4.2875335 6.9128037 4.0234028 6.1074219 4.0019531 z"/>
 <path style="opacity:0.2" d="m 6,9 v 5.3125 l 3,1.740234 v 2.208985 l 2,1.193359 v 2.328125 L 13.353516,23 H 11.669922 L 10.5,24 H 12 v 1 h -1.5 l 2.789062,3 h -0.576171 l 3.18164,3 h 0.46875 l 2.154297,2 h 3.898438 l -1.154297,2 h 1.896484 L 22.712891,35.771484 21.425781,38 h 0.84375 A 2,2 0 0 0 22,39 a 2,2 0 0 0 2,2 2,2 0 0 0 2,-2 2,2 0 0 0 -0.271484,-1 h 0.845703 L 25.287109,35.771484 24.841797,35 h 1.896484 l -1.154297,-2 h 3.898438 l 2.154297,-2 h 0.46875 l 3.18164,-3 H 34.710938 L 37.5,25 H 36 v -1 h 1.5 L 36.330078,23 H 34.884766 L 37.5,21.783203 v -2.328125 l 1.800781,-1.193359 V 16.052734 L 42,14.3125 V 9 l -15.03125,10.886719 1.34375,1.75 L 27.208984,23 H 25.005859 L 25.369141,22.371094 26.738281,20 H 26.232422 A 3,3 0 0 0 27,18 a 3,3 0 0 0 -3,-3 3,3 0 0 0 -3,3 3,3 0 0 0 0.769531,2 h -0.507812 l 1.36914,2.371094 L 22.994141,23 h -2.203125 l -1.103516,-1.363281 1.34375,-1.75 z"/>
 <path style="fill:#8d5cfe" d="M 26.968437,18.887668 28.312115,20.636785 26.3202,23.1 h 6.201 L 37.5,20.784022 V 18.454747 L 39.3,17.2608 V 15.0522 L 42,13.31326 V 8 Z"/>
 <path style="fill:#8d5cfe" d="M 21.031563,18.887668 19.687885,20.636785 21.6798,23.1 h -6.201 L 11,20.784022 V 18.454747 L 9,17.2608 V 15.0522 L 6,13.31326 V 8 Z"/>
 <path style="fill:#59deb1" d="M 11.670703,22 10.5,23 H 12 v 1 h -1.5 l 2.789648,3 H 24 34.710352 L 37.5,24 H 36 v -1 h 1.5 L 36.329297,22 H 24 Z"/>
 <path style="fill:#48c1d6" d="M 23.999998,22.827248 20.569275,27 h -7.857283 l 3.183207,3 h 8.104799 8.104803 l 3.183207,-3 h -7.857283 z"/>
 <path style="fill:#3ea2de" d="M 23.999999,26.6 21.679185,30 h -5.315288 l 2.153373,2 h 5.482729 5.48273 l 2.153373,-2 h -5.315288 z"/>
 <path style="fill:#3d87dd" d="M 24,29.256435 25.369349,31.628218 26.738699,34 24,34 l -2.738699,0 1.36935,-2.371782 z"/>
 <path style="fill:#3d69df" d="m 24,32.542999 1.286625,2.2285 1.286625,2.2285 -2.57325,-1e-6 -2.57325,0 1.286625,-2.228499 z"/>
 <circle style="fill:#3d48e1" cx="24" cy="38" r="2"/>
 <path style="fill:#52bae1" transform="scale(-1)" d="m -24,-23.743565 1.369349,2.371783 L -21.261301,-19 -24,-19 l -2.738699,0 1.36935,-2.371782 z"/>
 <circle style="fill:#5372ec" cx="24" cy="17" r="3"/>
 <path style="opacity:0.2;fill:#8b9cbe" d="M 6 8 L 6 9 L 20.537109 19.529297 L 21.03125 18.886719 L 6 8 z M 42 8 L 26.96875 18.886719 L 27.462891 19.529297 L 42 9 L 42 8 z M 24 14 A 3 3 0 0 0 21 17 A 3 3 0 0 0 21.042969 17.486328 A 3 3 0 0 1 24 15 A 3 3 0 0 1 26.953125 17.5 A 3 3 0 0 0 27 17 A 3 3 0 0 0 24 14 z M 20.082031 21.123047 L 19.6875 21.636719 L 20.791016 23 L 22.994141 23 L 22.630859 22.371094 L 22.416016 22 L 20.791016 22 L 20.082031 21.123047 z M 27.917969 21.123047 L 27.208984 22 L 25.583984 22 L 25.369141 22.371094 L 25.005859 23 L 27.208984 23 L 28.3125 21.636719 L 27.917969 21.123047 z M 11.576172 22.080078 L 10.5 23 L 11.669922 23 L 12 23 L 13.353516 23 L 11.576172 22.080078 z M 36.578125 22.212891 L 34.884766 23 L 36 23 L 36.330078 23 L 37.5 23 L 36.578125 22.212891 z M 10.5 24 L 11.429688 25 L 12 25 L 12 24 L 10.5 24 z M 36 24 L 36 25 L 36.570312 25 L 37.5 24 L 36 24 z M 21.839844 33 L 21.261719 34 L 21.839844 34 L 22.416016 33 L 21.839844 33 z M 25.583984 33 L 26.160156 34 L 26.738281 34 L 26.160156 33 L 25.583984 33 z M 22.580078 35 L 21.425781 37 L 22.003906 37 L 22.712891 35.771484 L 23.158203 35 L 22.580078 35 z M 24.841797 35 L 25.287109 35.771484 L 25.996094 37 L 26.574219 37 L 25.419922 35 L 24.841797 35 z M 22 38 A 2 2 0 0 0 22.066406 38.501953 A 2 2 0 0 1 22.269531 38 L 22 38 z M 25.728516 38 A 2 2 0 0 1 25.933594 38.507812 A 2 2 0 0 0 26 38 L 25.728516 38 z"/>
 <path style="opacity:0.1;fill:#8b9cbe" d="M 6.1074219 4.0019531 C 3.857313 3.9417348 2.0005184 5.7490855 2 8 L 2 9 C 2.0005184 6.7490855 3.857313 4.9417348 6.1074219 5.0019531 C 6.9128037 5.0234028 7.6929422 5.2875335 8.3457031 5.7597656 L 18.859375 13.375 C 20.14782 11.945848 21.959061 11 24 11 C 26.040939 11 27.85218 11.945848 29.140625 13.375 L 39.654297 5.7597656 C 40.307058 5.2875335 41.087196 5.0234031 41.892578 5.0019531 C 44.142687 4.9417348 45.999481 6.7490855 46 9 L 46 8 C 45.999481 5.7490855 44.142687 3.9417348 41.892578 4.0019531 C 41.087196 4.0234028 40.307058 4.2875335 39.654297 4.7597656 L 29.140625 12.375 C 27.85218 10.945848 26.040939 10 24 10 C 21.959061 10 20.14782 10.945848 18.859375 12.375 L 8.3457031 4.7597656 C 7.6929422 4.2875335 6.9128037 4.0234028 6.1074219 4.0019531 z M 6.7539062 21.5625 C 6.5702141 21.996868 6.5389706 22.398456 6.5351562 23.515625 C 6.5376867 23.596348 6.5473374 23.657254 6.5507812 23.734375 C 6.5823001 22.914318 6.6829256 22.640731 7.0136719 22.050781 C 7.0061299 21.961766 7.00157 21.872523 7 21.783203 L 7 21.726562 L 6.9511719 21.697266 C 6.8821985 21.656126 6.8197823 21.607341 6.7539062 21.5625 z M 41.246094 21.5625 C 41.180218 21.607341 41.117802 21.656126 41.048828 21.697266 L 41 21.726562 L 41 21.783203 C 40.9984 21.872523 40.993928 21.961771 40.986328 22.050781 C 41.317073 22.640733 41.417694 22.914319 41.449219 23.734375 C 41.452663 23.657254 41.462313 23.596348 41.464844 23.515625 C 41.461029 22.398456 41.429786 21.996869 41.246094 21.5625 z M 17.433594 36.841797 C 17.424741 37.062031 17.439579 37.280645 17.466797 37.498047 C 17.492827 37.293843 17.529622 37.089598 17.587891 36.888672 C 17.535455 36.876166 17.485357 36.856374 17.433594 36.841797 z M 30.566406 36.841797 C 30.514643 36.856374 30.464545 36.876166 30.412109 36.888672 C 30.470378 37.089598 30.507173 37.293843 30.533203 37.498047 C 30.560421 37.280645 30.575259 37.062031 30.566406 36.841797 z"/>
</svg>
