<svg xmlns="http://www.w3.org/2000/svg" width="48" height="48" version="1">
 <path style="opacity:0.2" d="m 24,5.0002076 c -1.893179,0.026691 -3.243329,1.1515686 -3.876953,3.0136719 l 0.02344,-0.083984 -2.974609,9.0703129 -10.03125,0 c -0.02187,-3.46e-4 -0.042583,-3.46e-4 -0.064453,0 -1.197906,0.0383 -2.2780475,0.590003 -3.0390625,1.503906 -1.645849,1.863555 -1.2970123,4.795729 0.7929687,6.185547 l 7.8867189,5.685547 -3.060547,9.378906 c -0.0034,0.01038 -0.00657,0.02081 -0.00977,0.03125 -0.467655,1.515362 -0.027888,3.076558 1.1484376,4.144532 0.0085,0.0079 0.01864,0.01574 0.02734,0.02344 1.413575,1.239545 3.399732,1.397086 4.996093,0.371094 0.03037,-0.01938 0.06057,-0.03961 0.08984,-0.06055 L 24,38.500208 32.091797,44.26388 c 0.02927,0.02094 0.05947,0.04117 0.08984,0.06055 1.596361,1.025992 3.582518,0.868451 4.996093,-0.371094 0.0087,-0.0077 0.01879,-0.01556 0.02734,-0.02344 1.176326,-1.067974 1.616093,-2.62917 1.148438,-4.144532 -0.0032,-0.01044 -0.0064,-0.02087 -0.0098,-0.03125 l -3.060547,-9.378906 7.886719,-5.685547 c 2.089981,-1.389818 2.438818,-4.321992 0.792969,-6.185547 -0.761015,-0.913903 -1.841157,-1.465606 -3.039063,-1.503906 -0.02187,-3.46e-4 -0.04258,-3.46e-4 -0.06445,0 l -10.03125,0 -2.974609,-9.0703129 0.02344,0.083984 C 27.243329,6.1517762 25.893179,5.0268986 24,5.0002076 Z"/>
 <path style="fill:#fc3e28" d="M 24 4 C 22.106821 4.026691 20.756671 5.1515686 20.123047 7.0136719 L 20.146484 6.9296875 L 17.171875 16 L 7.140625 16 C 7.118755 15.999654 7.0980419 15.999654 7.0761719 16 C 5.8782659 16.0383 4.7981244 16.590003 4.0371094 17.503906 C 2.3912604 19.367461 2.7400971 22.299635 4.8300781 23.689453 L 12.716797 29.375 L 9.65625 38.753906 C 9.65285 38.764286 9.6496844 38.774716 9.6464844 38.785156 C 9.1788294 40.300518 9.6185959 41.861714 10.794922 42.929688 C 10.803472 42.937568 10.813566 42.945425 10.822266 42.953125 C 12.235841 44.19267 14.221998 44.350211 15.818359 43.324219 C 15.848729 43.304839 15.878933 43.284612 15.908203 43.263672 L 24 37.5 L 32.091797 43.263672 C 32.121067 43.284612 32.151271 43.304839 32.181641 43.324219 C 33.778002 44.350211 35.764159 44.19267 37.177734 42.953125 C 37.186434 42.945425 37.196528 42.937568 37.205078 42.929688 C 38.381404 41.861714 38.821171 40.300518 38.353516 38.785156 C 38.350316 38.774716 38.34715 38.764286 38.34375 38.753906 L 35.283203 29.375 L 43.169922 23.689453 C 45.259903 22.299635 45.60874 19.367461 43.962891 17.503906 C 43.201876 16.590003 42.121734 16.0383 40.923828 16 C 40.901958 15.999654 40.881245 15.999654 40.859375 16 L 30.828125 16 L 27.853516 6.9296875 L 27.876953 7.0136719 C 27.243329 5.1515686 25.893179 4.026691 24 4 z"/>
 <path style="opacity:0.2;fill:#8b9cbe" d="M 24 4 C 22.106821 4.026691 20.756671 5.1515686 20.123047 7.0136719 L 20.146484 6.9296875 L 17.171875 16 L 7.140625 16 C 7.118755 15.999654 7.0980419 15.999654 7.0761719 16 C 5.8782659 16.0383 4.7981244 16.590003 4.0371094 17.503906 C 3.2103408 18.440036 2.8893345 19.644586 3.0371094 20.789062 C 3.1281185 19.970932 3.4500575 19.168611 4.0371094 18.503906 C 4.7981244 17.590003 5.8782659 17.0383 7.0761719 17 C 7.0980419 16.999654 7.118755 16.999654 7.140625 17 L 17.171875 17 L 20.146484 7.9296875 L 20.123047 8.0136719 C 20.756671 6.1515686 22.106821 5.026691 24 5 C 25.893179 5.026691 27.243365 6.151569 27.876953 8.0136719 L 27.853516 7.9296875 L 30.828125 17 L 40.859375 17 C 40.881245 16.999654 40.901958 16.999654 40.923828 17 C 42.121734 17.0383 43.201876 17.590003 43.962891 18.503906 C 44.549942 19.168611 44.871882 19.970932 44.962891 20.789062 C 45.110666 19.644586 44.789659 18.440036 43.962891 17.503906 C 43.201876 16.590003 42.121734 16.0383 40.923828 16 C 40.901958 15.999654 40.881245 15.999654 40.859375 16 L 30.828125 16 L 27.853516 6.9296875 L 27.876953 7.0136719 C 27.243329 5.1515686 25.893179 4.026691 24 4 z M 12.453125 30.183594 L 9.65625 38.753906 C 9.65285 38.764286 9.6496844 38.774716 9.6464844 38.785156 C 9.4679713 39.363599 9.423576 39.947948 9.5 40.509766 C 9.5291582 40.268599 9.5721045 40.026172 9.6464844 39.785156 C 9.6496844 39.774716 9.65285 39.764286 9.65625 39.753906 L 12.716797 30.375 L 12.453125 30.183594 z M 35.546875 30.183594 L 35.283203 30.375 L 38.34375 39.753906 C 38.34715 39.764286 38.350316 39.774716 38.353516 39.785156 C 38.427895 40.026172 38.470842 40.268599 38.5 40.509766 C 38.576424 39.947948 38.532029 39.363599 38.353516 38.785156 C 38.350316 38.774716 38.34715 38.764286 38.34375 38.753906 L 35.546875 30.183594 z"/>
 <path style="opacity:0.2" d="m 23.397868,17.000642 c 0.790484,-0.0088 1.605351,0.07319 2.256912,0.252739 2.543451,0.700882 4.780844,2.749002 5.686881,5.387083 0.818965,2.384546 0.570299,5.148449 -0.303298,7.137533 L 30.681538,30.573656 32.34077,32.057327 34,33.536317 c 0,0 -0.274019,0.48679 -0.599616,1.065223 -0.325596,0.578434 -1.719743,1.625979 -1.719743,1.625979 0,0 -0.557459,-0.467962 -1.088317,-1.048398 -0.530812,-0.580443 -1.208357,-1.30575 -1.503108,-1.614722 l -0.535232,-0.566323 -0.38359,0.308904 c -0.656413,0.521904 -1.22505,0.780606 -2.328276,1.06712 -1.973722,0.512588 -3.608042,0.367979 -5.48618,-0.491439 L 19.419277,33.45207 18.99109,33.97159 c -0.236301,0.285925 -0.847802,1.07945 -1.355933,1.764491 -0.508179,0.685041 -1.022078,1.254349 -1.146297,1.263694 -0.124273,0.0093 -0.572474,-0.271492 -0.994654,-0.617805 -0.422166,-0.346315 -0.933412,-0.897212 -1.132913,-1.226252 L 14,34.556634 l 2.591438,-2.822252 2.58699,-2.822251 0.343447,0.435274 c 0.555207,0.716944 1.489477,1.509905 2.172165,1.839377 0.946942,0.457018 2.767235,0.388581 3.80463,-0.140411 0.416781,-0.212533 0.749337,-0.53356 0.749337,-0.53356 0,0 -1.710292,-2.073918 -2.903664,-3.304326 -0.271321,-0.279736 -0.677036,-0.705385 -0.900979,-0.945431 l -0.405876,-0.439953 -1.106153,1.277736 c -0.609009,0.699988 -1.280116,1.273054 -1.280116,1.273054 L 16.72971,25.481436 c 0,0 1.298321,-1.673757 2.876905,-3.477501 0.224258,-0.256271 0.717359,-0.833477 1.092784,-1.287095 l 0.682407,-0.828423 0.62,0.257419 c 0.705517,0.291923 1.427745,0.263258 1.770725,-0.0702 0.128579,-0.125003 0.414804,-0.234015 0.414804,-0.234015 l 1.561121,1.333899 c 0,0 -0.502211,0.738465 -1.123999,1.46495 -0.621767,0.726482 -1.088463,1.39163 -1.04372,1.47899 0.149513,0.291771 4.558443,3.908092 4.558443,3.908092 0,0 0.614848,-1.800527 0.579829,-2.93926 -0.08586,-2.795047 -1.716936,-5.200652 -4.322032,-6.383998 -1.170906,-0.53187 -1.248774,-0.552923 -2.778781,-0.505477 -0.381401,-0.04074 -2.430853,0.267516 -2.430853,0.267516 0,0 0.804818,-0.690598 2.051744,-1.14742 0.479516,-0.17567 1.126945,-0.277329 1.819802,-0.308904 0.111345,-0.005 0.226047,-0.0081 0.338979,-0.0093 z"/>
 <path style="fill:#fbbe25" d="m 23.397868,16.000642 c 0.790484,-0.0088 1.605351,0.07319 2.256912,0.252739 2.543451,0.700882 4.780844,2.749002 5.686881,5.387083 0.818965,2.384546 0.570299,5.148449 -0.303298,7.137533 L 30.681538,29.573656 32.34077,31.057327 34,32.536317 c 0,0 -0.274019,0.48679 -0.599616,1.065223 -0.325596,0.578434 -1.719743,1.625979 -1.719743,1.625979 0,0 -0.557459,-0.467962 -1.088317,-1.048398 -0.530812,-0.580443 -1.208357,-1.30575 -1.503108,-1.614722 l -0.535232,-0.566323 -0.38359,0.308904 c -0.656413,0.521904 -1.22505,0.780606 -2.328276,1.06712 -1.973722,0.512588 -3.608042,0.367979 -5.48618,-0.491439 L 19.419277,32.45207 18.99109,32.97159 c -0.236301,0.285925 -0.847802,1.07945 -1.355933,1.764491 -0.508179,0.685041 -1.022078,1.254349 -1.146297,1.263694 -0.124273,0.0093 -0.572474,-0.271492 -0.994654,-0.617805 -0.422166,-0.346315 -0.933412,-0.897212 -1.132913,-1.226252 L 14,33.556634 l 2.591438,-2.822252 2.58699,-2.822251 0.343447,0.435274 c 0.555207,0.716944 1.489477,1.509905 2.172165,1.839377 0.946942,0.457018 2.767235,0.388581 3.80463,-0.140411 0.416781,-0.212533 0.749337,-0.53356 0.749337,-0.53356 0,0 -1.710292,-2.073918 -2.903664,-3.304326 -0.271321,-0.279736 -0.677036,-0.705385 -0.900979,-0.945431 l -0.405876,-0.439953 -1.106153,1.277736 c -0.609009,0.699988 -1.280116,1.273054 -1.280116,1.273054 L 16.72971,24.481436 c 0,0 1.298321,-1.673757 2.876905,-3.477501 0.224258,-0.256271 0.717359,-0.833477 1.092784,-1.287095 l 0.682407,-0.828423 0.62,0.257419 c 0.705517,0.291923 1.427745,0.263258 1.770725,-0.0702 0.128579,-0.125003 0.414804,-0.234015 0.414804,-0.234015 l 1.561121,1.333899 c 0,0 -0.502211,0.738465 -1.123999,1.46495 -0.621767,0.726482 -1.088463,1.39163 -1.04372,1.47899 0.149513,0.291771 4.558443,3.908092 4.558443,3.908092 0,0 0.614848,-1.800527 0.579829,-2.93926 -0.08586,-2.795047 -1.716936,-5.200652 -4.322032,-6.383998 -1.170906,-0.53187 -1.248774,-0.552923 -2.778781,-0.505477 -0.381401,-0.04074 -2.430853,0.267516 -2.430853,0.267516 0,0 0.804818,-0.690598 2.051744,-1.14742 0.479516,-0.17567 1.126945,-0.277329 1.819802,-0.308904 0.111345,-0.005 0.226047,-0.0081 0.338979,-0.0093 z"/>
 <path style="fill:#8b9cbe;opacity:0.2" d="M 23.398438 16 C 23.285506 16.0012 23.169939 16.004766 23.058594 16.009766 C 22.365737 16.041341 21.717797 16.142689 21.238281 16.318359 C 19.991355 16.775181 19.1875 17.466797 19.1875 17.466797 C 19.1875 17.466797 21.23774 17.158479 21.619141 17.199219 C 21.662459 17.197875 21.681608 17.198489 21.722656 17.197266 C 22.124261 17.10321 22.567916 17.032127 23.058594 17.009766 C 23.169939 17.004766 23.285506 17.0012 23.398438 17 C 24.188921 16.9912 25.002736 17.074357 25.654297 17.253906 C 28.197748 17.954788 30.43576 20.002544 31.341797 22.640625 C 31.634003 23.491429 31.783735 24.390189 31.824219 25.285156 C 31.88385 24.069555 31.743373 22.809878 31.341797 21.640625 C 30.43576 19.002544 28.197748 16.954788 25.654297 16.253906 C 25.002736 16.074357 24.188921 15.9912 23.398438 16 z M 24.1875 18.841797 C 24.1875 18.841797 23.902016 18.951169 23.773438 19.076172 C 23.430458 19.40963 22.70747 19.438407 22.001953 19.146484 L 21.380859 18.888672 L 20.699219 19.716797 C 20.323794 20.170415 19.83168 20.747635 19.607422 21.003906 C 18.028838 22.80765 16.730469 24.480469 16.730469 24.480469 L 17.175781 24.921875 C 17.627486 24.351367 18.444516 23.332682 19.607422 22.003906 C 19.83168 21.747635 20.323794 21.170415 20.699219 20.716797 L 21.380859 19.888672 L 22.001953 20.146484 C 22.70747 20.438407 23.430458 20.40963 23.773438 20.076172 C 23.902016 19.951169 24.1875 19.841797 24.1875 19.841797 L 25.296875 20.791016 C 25.558211 20.442924 25.748047 20.175781 25.748047 20.175781 L 24.1875 18.841797 z M 23.962891 23.480469 C 23.721385 23.81085 23.554536 24.06927 23.580078 24.119141 C 23.729591 24.410912 28.138672 28.027344 28.138672 28.027344 C 28.138672 28.027344 28.753769 26.226624 28.71875 25.087891 C 28.714098 24.936446 28.687462 24.791603 28.673828 24.642578 C 28.563634 25.734028 28.138672 27.027344 28.138672 27.027344 C 28.138672 27.027344 24.898964 24.362259 23.962891 23.480469 z M 19.177734 27.912109 L 16.591797 30.734375 L 14 33.556641 L 14.361328 34.15625 C 14.362035 34.157417 14.364519 34.158984 14.365234 34.160156 L 16.591797 31.734375 L 19.177734 28.912109 L 19.521484 29.347656 C 20.076691 30.0646 21.010671 30.858028 21.693359 31.1875 C 22.640301 31.644518 24.460652 31.575867 25.498047 31.046875 C 25.914828 30.834342 26.248047 30.513672 26.248047 30.513672 C 26.248047 30.513672 25.919154 30.123894 25.728516 29.896484 C 25.648628 29.948365 25.588374 30.000814 25.498047 30.046875 C 24.460652 30.575867 22.640301 30.644518 21.693359 30.1875 C 21.010671 29.858028 20.076691 29.0646 19.521484 28.347656 L 19.177734 27.912109 z M 31.001953 29.861328 L 30.681641 30.574219 L 32.339844 32.056641 L 33.625 33.203125 C 33.785034 32.918824 34 32.537109 34 32.537109 L 32.339844 31.056641 L 31.001953 29.861328 z"/>
</svg>
