<svg xmlns="http://www.w3.org/2000/svg" width="48" height="48" version="1.1">
 <rect style="opacity:0.2" width="30.593" height="30.593" x="-49.95" y="-14.59" rx="1.53" ry="1.53" transform="matrix(-0.70710678,-0.70710678,-0.70710678,0.70710678,0,0)"/>
 <rect style="fill:#357ab4" width="30.593" height="30.593" x="-49.24" y="-15.3" rx="1.53" ry="1.53" transform="matrix(-0.70710678,-0.70710678,-0.70710678,0.70710678,0,0)"/>
 <path style="fill:#8b9cbe;opacity:0.1" d="M 24 3 C 23.608998 3 23.217575 3.1496128 22.917969 3.4492188 L 3.4492188 22.917969 C 3.0195064 23.347681 2.9032377 23.963922 3.0898438 24.5 C 3.1634504 24.288545 3.2797191 24.087468 3.4492188 23.917969 L 22.917969 4.4492188 C 23.517181 3.8500068 24.482819 3.8500068 25.082031 4.4492188 L 44.550781 23.917969 C 44.720281 24.087468 44.83655 24.288545 44.910156 24.5 C 45.096762 23.963922 44.980494 23.347681 44.550781 22.917969 L 25.082031 3.4492188 C 24.782425 3.1496128 24.391002 3 24 3 z"/>
 <path style="fill:#17191e" d="m 23,3 v 11 h 2 V 3 Z"/>
 <path style="fill:#ee5050" d="m 24,12 c -2.375756,2.57e-4 -4.423286,1.672244 -4.898438,4 L 19,17 v 7 l -3.855469,12.777344 7.773438,7.773437 C 23.217575,44.850387 23.608998,45 24,45 c 0.391002,0 0.782425,-0.149613 1.082031,-0.449219 L 32.855469,36.777344 29,24 V 17 L 28.894531,16 C 28.419674,13.673681 26.374288,12.002113 24,12 Z"/>
 <path style="fill:#ffce35" d="m 24,12 c -2,0 -2,4 -2,4 v 8 l -2.753906,16.878906 3.671875,3.671875 C 23.217575,44.850387 23.608998,45 24,45 c 0.391002,0 0.782425,-0.149613 1.082031,-0.449219 L 28.753906,40.878906 26,24 v -8 c 0,0 0,-4 -2,-4 z"/>
 <path style="opacity:0.1;fill:#8b9cbe" d="M 24 12 C 21.624244 12.000257 19.576714 13.672244 19.101562 16 L 19 17 L 19 18 L 19.101562 17 C 19.576714 14.672244 21.624244 13.000257 24 13 C 26.374288 13.002113 28.419674 14.673681 28.894531 17 L 29 18 L 29 17 L 28.894531 16 C 28.419674 13.673681 26.374288 12.002113 24 12 z M 19 24 L 15.144531 36.777344 L 15.376953 37.009766 L 19 25 L 19 24 z M 29 24 L 29 25 L 32.623047 37.009766 L 32.855469 36.777344 L 29 24 z"/>
 <rect style="opacity:0.1" width="14" height="2" x="17" y="18" rx="1" ry="1"/>
 <rect style="fill:#17191e" width="14" height="2" x="17" y="17" rx="1" ry="1"/>
 <path style="fill:#17191e" d="m 24,20 c -2,0 -2,2 -2,2 V 22 22.666667 26 h 2 2 V 22.666667 22 22 c 0,0 0,-2 -2,-2 z"/>
 <path style="opacity:0.2" d="M 32,7.4999999 28.5,9.2499996 25,11 V 7.4999999 4.0000001 l 3.5,1.7499998 z"/>
 <path style="fill:#ffce35" d="M 32,6.4999998 28.5,8.2499995 25,9.9999999 V 6.4999998 3 l 3.5,1.7499998 z"/>
</svg>
