<svg width="48" height="48" version="1.1" xmlns="http://www.w3.org/2000/svg">
 <g transform="matrix(2,0,0,2,2,2)">
  <path d="m14 2.5c5 0 7 3 7 8v2c0 5-2 8-7 8h-6c-5 0-7-3-7-8v-2c0-5 2-8 7-8h6z" style="opacity:.2"/>
  <path d="m14 2c5 0 7 3 7 8v2c0 5-2 8-7 8h-6c-5 0-7-3-7-8v-2c0-5 2-8 7-8h6z" style="fill:#4f4f4f"/>
  <path d="m10 8.5c-1.108 0-2 0.892-2 2v3c0 1.108 0.892 2 2 2h2c1.108 0 2-0.892 2-2v-3c0-1.108-0.892-2-2-2zm1 2c0.554 0 1 0.446 1 1v1c0 0.554-0.446 1-1 1s-1-0.446-1-1v-1c0-0.554 0.446-1 1-1z" style="opacity:.2"/>
  <path d="m10 8c-1.108 0-2 0.892-2 2v3c0 1.108 0.892 2 2 2h2c1.108 0 2-0.892 2-2v-3c0-1.108-0.892-2-2-2zm1 2c0.554 0 1 0.446 1 1v1c0 0.554-0.446 1-1 1s-1-0.446-1-1v-1c0-0.554 0.446-1 1-1z" style="fill:#9aec2d"/>
  <path d="m17 8.5c-1.108 0-2 0.892-2 2v2h4v1s0 1-1 1-1-1-1-1h-2c0 1.108 0.892 2 2 2h2c1.108 0 2-0.892 2-2v-2h-4v-1s0-1 1-1 1 1 1 1h2c0-1.108-0.892-2-2-2z" style="opacity:.2"/>
  <path d="m17 8c-1.108 0-2 0.892-2 2v2h4v1s0 1-1 1-1-1-1-1h-2c0 1.108 0.892 2 2 2h2c1.108 0 2-0.892 2-2v-2h-4v-1s0-1 1-1 1 1 1 1h2c0-1.108-0.892-2-2-2z" style="fill:#9aec2d"/>
  <path d="m8 2c-5 0-7 3-7 8v0.5c0-5 2-8 7-8h6c5 0 7 3 7 8v-0.5c0-5-2-8-7-8z" style="fill:#8b9cbe;opacity:.1"/>
  <path d="m10 8c-1.108 0-2 0.892-2 2v0.5c0-1.108 0.892-2 2-2h2c1.108 0 2 0.892 2 2v-0.5c0-1.108-0.892-2-2-2zm0 4v0.5c0 0.554 0.446 1 1 1s1-0.446 1-1v-0.5c0 0.554-0.446 1-1 1s-1-0.446-1-1z" style="fill:#8b9cbe;opacity:.2"/>
  <path d="m17 8c-1.108 0-2 0.892-2 2v0.5c0-1.108 0.892-2 2-2h2c0.934165 0 1.707736 0.6370069 1.929688 1.5h0.070312c0-1.108-0.892-2-2-2zm0 3v0.5h4v-0.5zm-2 2c0 0.173835 0.02901 0.339409 0.07031 0.5h1.92969s0 1 1 1 1-1 1-1v-0.5s0 1-1 1-1-1-1-1z" style="fill:#8b9cbe;opacity:.2"/>
 </g>
</svg>
