<svg xmlns="http://www.w3.org/2000/svg" width="48" height="48" version="1">
 <path style="opacity:0.2" d="m 43.9997,34.5 0,1 c 0,1.231 -0.9915,2.5 -2.2227,2.5 L 23,38 18,43 13,38 6.223,38 C 4.992,38 4,36.731 4,35.5 l 0,-1 C 4,35.731 4.992,37 6.223,37 l 6.777,0 5,5 5,-5 18.777,0 C 43.0085,37 44,35.731 44,34.5 Z"/>
 <path style="fill:#3c6eac" d="m 41.7775,6 c 1.2311,0 2.2222,1.2689 2.2222,2.5 l 0,26 c 0,1.231 -0.9911,2.5 -2.2222,2.5 l -8.173502,0 -6.794379,-1.998751 -7.061212,-0.746408 -5.811993,0.434103 -5.2162755,-0.68707 C 7.49968,33.841119 6.6492253,33.66951 6.6230604,32.438788 L 6.1858337,11.872892 C 6.1596666,10.64207 8.8047641,10.771119 9.9693577,10.372267 L 22.73579,6 Z"/>
 <path style="fill:#47f6f4" d="M 6.2226562,6 C 4.9916563,6 4,7.2689 4,8.5 l 0,26 C 4,35.731 4.9916563,37 6.2226562,37 L 13,37 l 5,5 5,-5 11.107422,0 c 0.08273,-0.06778 0.165313,-0.126679 0.248047,-0.195312 6.04828,-5.259846 7.887677,-15.367475 2.279297,-21.640626 -2.20183,-2.46263 -5.452336,-3.934996 -8.666016,-3.966796 -2.38482,-0.02356 -5.249439,0.747263 -7.152649,2.496093 -2.97274,2.73222 -3.854273,8.378049 -0.908203,11.471829 1.89971,1.99526 5.804117,2.575095 7.888977,0.515625 1.29638,-1.28064 1.667395,-3.849307 0.265625,-5.202297 -0.83426,-0.80557 -2.298368,-1.028542 -3.142578,-0.107422 -0.48021,0.52077 -0.608071,1.422935 -0.02539,1.921875 0.30912,0.26388 0.838275,0.330798 1.115235,-0.01953 0.13587,-0.17177 0.174036,-0.463979 -0.02734,-0.605469 -0.09049,-0.0626 -0.237435,-0.07478 -0.302734,0.0293 -0.0183,0.04033 -0.02441,0.106612 0.02539,0.132812 0.0183,0.0105 0.05469,0.01113 0.05469,-0.0098 l 0,-0.01562 c -0.0262,-0.0077 0,-0.01468 0,-0.01563 0.0182,-0.0088 0.04492,0.0091 0.04492,0.02734 0.0105,0.05219 -0.03884,0.09897 -0.08594,0.109375 -0.12292,0.02798 -0.210128,-0.08888 -0.236328,-0.195312 -0.04054,-0.24017 0.188523,-0.421066 0.408203,-0.447266 0.44381,-0.05182 0.771434,0.369791 0.802734,0.775391 0.05884,0.76428 -0.671363,1.31285 -1.376953,1.34375 -1.24931,0.05508 -2.118331,-1.137535 -2.144531,-2.296875 C 23.138405,19.158399 25.005305,17.9895 26.828125,18 29.759815,18.01648 31.7582,20.656986 31.6875,23.410156 31.58054,27.679116 27.457715,31.16868 23.421875,31 17.357655,30.74676 12.67545,24.267057 13,18.523438 13.342699,12.443052 18.055629,7.8630897 23.664062,6 Z"/>
 <path style="opacity:0.2;fill:#8b9cbe" d="m 41.777,6 c 1.2312,0 2.2227,1.2689 2.2227,2.5 l 0,1 C 43.9997,8.2689 43.0082,7 41.777,7 L 6.223,7 C 4.992,7 4,8.2689 4,9.5 l 0,-1 C 4,7.2689 4.992,6 6.223,6 l 35.554,0 z"/>
 <path style="opacity:0.2" d="M 21.265625 7 C 16.769278 9.2479201 13.292366 13.336094 13 18.523438 C 12.98129 18.854556 12.98591 19.188741 13 19.523438 C 13.342699 13.443051 18.055629 8.8630897 23.664062 7 L 21.265625 7 z M 26.828125 18 C 25.005305 17.9895 23.138402 19.158433 23.171875 21.105469 C 23.175348 21.259156 23.196498 21.412581 23.228516 21.564453 C 23.516176 19.947768 25.183103 18.990524 26.828125 19 C 29.560122 19.015357 31.458512 21.31304 31.650391 23.853516 C 31.663817 23.70601 31.683753 23.559698 31.6875 23.410156 C 31.7582 20.656986 29.759815 18.01648 26.828125 18 z M 18.113281 20.771484 C 18.009122 22.754862 18.544666 24.734114 19.908203 26.166016 C 21.807913 28.161276 25.712015 28.741111 27.796875 26.681641 C 28.632438 25.856223 29.074243 24.496678 28.914062 23.271484 C 28.803138 24.18566 28.408184 25.077754 27.796875 25.681641 C 25.712015 27.741111 21.807913 27.161276 19.908203 25.166016 C 18.774613 23.975589 18.212393 22.40623 18.113281 20.771484 z M 25.890625 21.283203 C 25.670945 21.309403 25.441882 21.490299 25.482422 21.730469 C 25.508622 21.836901 25.59583 21.953761 25.71875 21.925781 C 25.76585 21.915376 25.815188 21.868596 25.804688 21.816406 C 25.804688 21.798166 25.777966 21.780262 25.759766 21.789062 C 25.759766 21.790013 25.733566 21.796987 25.759766 21.804688 L 25.759766 21.820312 C 25.759766 21.841242 25.723378 21.840578 25.705078 21.830078 C 25.655278 21.803878 25.661388 21.737596 25.679688 21.697266 C 25.744986 21.593186 25.891932 21.605369 25.982422 21.667969 C 26.183798 21.809459 26.145636 22.101667 26.009766 22.273438 C 26.001676 22.28367 25.988976 22.285396 25.980469 22.294922 C 26.229762 22.303366 26.430064 22.453794 26.554688 22.664062 C 26.652881 22.484482 26.710637 22.28302 26.693359 22.058594 C 26.662059 21.652994 26.334435 21.231383 25.890625 21.283203 z M 24.611328 21.902344 C 24.436404 22.382534 24.480528 22.938464 24.894531 23.292969 C 24.937651 23.329778 24.992568 23.352313 25.042969 23.380859 C 25.13342 23.390551 25.221348 23.406535 25.316406 23.402344 C 25.590863 23.390324 25.855824 23.281756 26.089844 23.130859 C 26.150271 22.968707 26.134762 22.775005 25.982422 22.667969 C 25.891932 22.605369 25.744986 22.593186 25.679688 22.697266 C 25.661388 22.737596 25.655278 22.803878 25.705078 22.830078 C 25.723378 22.840578 25.759766 22.841242 25.759766 22.820312 L 25.759766 22.804688 C 25.733566 22.796988 25.759766 22.790013 25.759766 22.789062 C 25.777966 22.780262 25.804688 22.798166 25.804688 22.816406 C 25.815188 22.868596 25.76585 22.915376 25.71875 22.925781 C 25.59583 22.953761 25.508622 22.836901 25.482422 22.730469 C 25.467686 22.643171 25.495957 22.567053 25.539062 22.5 C 25.309963 22.515441 25.068433 22.44142 24.894531 22.292969 C 24.763625 22.180876 24.67457 22.046244 24.611328 21.902344 z M 39.980469 24.998047 C 39.784579 29.437575 37.725971 33.873552 34.355469 36.804688 C 34.272735 36.87332 34.190152 36.93222 34.107422 37 L 35.203125 37 C 38.301145 33.85621 40.067406 29.376062 39.980469 24.998047 z M 4.3789062 35.832031 C 4.4588528 35.966901 4.5496218 36.092858 4.6503906 36.210938 C 4.5499434 36.093156 4.4586498 35.966494 4.3789062 35.832031 z"/>
</svg>
