<svg xmlns="http://www.w3.org/2000/svg" width="48" height="48" version="1">
 <path style="opacity:0.2" d="M 6,7 C 4.892,7 4,7.892 4,9 l 0,24 0,8 c 0,1.108 0.892,2 2,2 l 36,0 c 1.108,0 2,-0.892 2,-2 L 44,33 44,9 C 44,7.892 43.108,7 42,7 L 6,7 Z"/>
 <path style="fill:#4f4f4f" d="M 6 6 C 4.892 6 4 6.892 4 8 L 4 32 L 4 40 C 4 41.108 4.892 42 6 42 L 42 42 C 43.108 42 44 41.108 44 40 L 44 32 L 44 8 C 44 6.892 43.108 6 42 6 L 6 6 z"/>
 <rect style="opacity:0.2;stroke:#000000;stroke-width:0;stroke-linejoin:round" width="40" height="2" x="4" y="10"/>
 <rect style="opacity:0.2;stroke:#000000;stroke-width:0;stroke-linejoin:round" width="40" height="2" x="4" y="20"/>
 <rect style="opacity:0.2;stroke:#000000;stroke-width:0;stroke-linejoin:round" width="40" height="2" x="4" y="15"/>
 <rect style="opacity:0.2;stroke:#000000;stroke-width:0;stroke-linejoin:round" width="40" height="2" x="4" y="26"/>
 <path style="fill:#47da72" d="m 11,12 c 7,0 4.665507,14.92824 12,15 4.561014,0.04462 8.294118,-5 13,-5 4.705882,0 8,5 8,5 v 5 8 c 0,1.108 -0.892,2 -2,2 H 6 C 4.892,42 4,41.108 4,40 V 21 c 0,0 1.479879,-9 7,-9 z"/>
 <path style="fill:#8b9cbe;opacity:0.1" d="M 6 6 C 4.892 6 4 6.892 4 8 L 4 9 C 4 7.892 4.892 7 6 7 L 42 7 C 43.108 7 44 7.892 44 9 L 44 8 C 44 6.892 43.108 6 42 6 L 6 6 z"/>
 <path style="opacity:0.2;fill:#8b9cbe" d="m 11,12 c 7,0 4.665507,14.92824 12,15 4.561014,0.04462 8.294118,-5 13,-5 4.705882,0 8,5 8,5 v 1 c 0,0 -3.294118,-5 -8,-5 -4.705882,0 -8.438986,5.04462 -13,5 C 15.665507,27.92824 18,13 11,13 5.479879,13 4,22 4,22 v -1 c 0,0 1.479879,-9 7,-9 z"/>
</svg>
