<svg xmlns="http://www.w3.org/2000/svg" width="48" height="48" version="1">
 <rect style="opacity:0.2" width="40" height="26" x="4" y="17" rx="2" ry="2"/>
 <path style="fill:#dd772f" d="M 4,34 C 4,35.107999 4.892,36 6,36 H 42 C 43.108,36 44,35.107999 44,34 V 12 C 44,10.891999 43.108,10 42,10 H 24 C 21,10 20,6 17,6 H 6 C 4.892,6 4,6.892 4,8"/>
 <path style="opacity:0.1;fill:#8b9cbe" d="M 6,6 C 4.892,6 4,6.892 4,8 V 9 C 4,7.892 4.892,7 6,7 H 17 C 20,7 21,11 24,11 H 42 C 43.108,11 44,11.891999 44,13 V 12 C 44,10.891999 43.108,10 42,10 H 24 C 21,10 20,6 17,6 Z"/>
 <rect style="opacity:0.2" width="40" height="26" x="4" y="15" rx="2" ry="2"/>
 <rect style="fill:#dcdcdc" width="36" height="16" x="6" y="13" rx="2" ry="2"/>
 <rect style="fill:#ee923a" width="40" height="26" x="4" y="16" rx="2" ry="2"/>
 <path style="opacity:0.2" d="M 24.072266,20.019788 C 23.188365,19.988968 22.387443,20.530051 22.097656,21.353772 L 20.580078,25.956112 15.958984,26.047912 C 14.048871,26.086092 13.260418,28.478959 14.783203,29.616271 L 18.466797,32.368224 17.126953,36.429947 C 16.572633,38.233104 18.639015,39.71246 20.207031,38.635025 L 24,36.031507 27.792969,38.635022 C 29.360985,39.712457 31.427367,38.233101 30.873047,36.429944 L 29.533203,32.368221 33.216797,29.616268 C 34.739582,28.478956 33.951129,26.086091 32.041016,26.047909 L 27.419922,25.956109 25.902344,21.353769 C 25.629981,20.579477 24.903084,20.049627 24.072266,20.019788 Z M 24,22.004163 25.978516,27.913143 32,28.032284 27.199219,31.620174 28.943359,37.004163 24,33.613538 19.056641,37.004163 20.800781,31.620174 16,28.032284 22.021484,27.913143 Z"/>
 <path style="fill:#8b9cbe" d="M 24.072266,19.015622 C 23.188365,18.984802 22.387443,19.525885 22.097656,20.349606 L 20.580078,24.951946 15.958984,25.043746 C 14.048871,25.081926 13.260418,27.474793 14.783203,28.612105 L 18.466797,31.364058 17.126953,35.425781 C 16.572633,37.228938 18.639015,38.708294 20.207031,37.630859 L 24,35.027341 27.792969,37.630856 C 29.360985,38.708291 31.427367,37.228935 30.873047,35.425778 L 29.533203,31.364055 33.216797,28.612102 C 34.739582,27.47479 33.951129,25.081925 32.041016,25.043743 L 27.419922,24.951943 25.902344,20.349603 C 25.629981,19.575311 24.903084,19.045461 24.072266,19.015622 Z M 24,20.999997 25.978516,26.908977 32,27.028118 27.199219,30.616008 28.943359,35.999997 24,32.609372 19.056641,35.999997 20.800781,30.616008 16,27.028118 22.021484,26.908977 Z"/>
</svg>
