<svg xmlns="http://www.w3.org/2000/svg" width="48" height="48" version="1.1">
 <path style="opacity:0.2" d="m 11.935547,33 a 1.952331,1.9687106 0 0 0 -0.894531,0.222656 C 10.293227,33.608252 9.6852877,34.468429 9.3300781,35.648438 9.0001599,36.745083 8.9138062,38.014961 9.0859375,39.226562 9.4071736,41.483806 10.553277,43 11.9375,43 h 3.875 0.03125 v -0.0059 c 0.166694,-0.0084 0.330556,-0.07973 0.488281,-0.222657 l 1.875,-1.667968 c 0.384652,-0.34639 0.669989,-1.217495 0.761719,-2.332032 0.119284,-1.446462 -0.107988,-3.29966 -0.763672,-3.882812 l -1.875,-1.667969 c -0.155943,-0.1355 -0.319617,-0.203901 -0.486328,-0.212891 V 33 h -0.0332 z m 20.220703,0 v 0.0078 c -0.166711,0.009 -0.330385,0.07739 -0.486328,0.212891 l -1.875,1.667969 c -0.655684,0.583152 -0.882956,2.43635 -0.763672,3.882812 0.09173,1.114537 0.377067,1.985642 0.761719,2.332032 l 1.875,1.667968 c 0.157725,0.14293 0.321587,0.214254 0.488281,0.222657 V 43 h 3.90625 c 1.384223,0 2.530327,-1.516194 2.851562,-3.773438 0.172132,-1.211601 0.08578,-2.481479 -0.24414,-3.578124 -0.35521,-1.180009 -0.963149,-2.040186 -1.710938,-2.425782 A 1.952331,1.9687106 0 0 0 36.064453,33 Z"/>
 <path style="fill:#585e62" d="m 42.747472,33.999998 a 0.72472522,0.72644324 0 0 0 0.08081,-1.448528 1.5509119,1.5545885 0 1 1 1.529895,-0.792549 0.72472522,0.72644324 0 0 0 1.268269,0.701382 3,3.0071118 0 1 0 -2.962677,1.534974 0.78922576,0.79109669 0 0 0 0.08371,0.0047 z"/>
 <circle style="opacity:0.2" cx="-40.5" cy="27.5" r="2.5" transform="scale(-1,1)"/>
 <circle style="fill:#b2bfd9" cx="-40.5" cy="26.5" r="2.5" transform="scale(-1,1)"/>
 <path style="fill:none;stroke:#585e62;stroke-width:2.5;stroke-linecap:round;stroke-linejoin:round" d="M 39.7,24.7 37,20"/>
 <circle style="opacity:0.2" cx="-37" cy="21" r="3" transform="scale(-1,1)"/>
 <circle style="fill:#c8c8c8" cx="-37" cy="20" r="3" transform="scale(-1,1)"/>
 <path style="fill:#585e62" d="m 32.188396,42 c 0.802524,0 1.466512,-1.516881 1.65261,-3.774124 0.09966,-1.211601 0.04945,-2.481443 -0.141932,-3.578089 C 33.493347,33.467779 33.141157,32.607895 32.707431,32.222299 32.541717,32.074988 32.367699,32 32.18915,32 c -0.178548,0 -0.352567,0.07613 -0.519036,0.220776 l -1.87608,1.66838 c -0.655684,0.583152 -0.882928,2.436146 -0.763644,3.882608 0.09173,1.114537 0.377482,1.98622 0.762134,2.33261 l 1.875703,1.667998 C 31.835828,41.924251 32.010979,42 32.188396,42 Z"/>
 <path style="fill:#585e62" d="m 36.063236,42 c 1.384223,0 2.529122,-1.516881 2.850358,-3.774124 0.172131,-1.211601 0.08531,-2.481443 -0.244607,-3.578089 -0.35521,-1.180008 -0.962954,-2.039892 -1.710743,-2.425488 A 1.952331,1.9687106 0 0 0 36.063992,32 h -3.907683 v 10 z"/>
 <path style="fill:#c8c8c8" d="M 24,5 C 17.556868,5 14,10.565957 14,16 H 34 C 34,10.565957 29.986664,5 24,5 Z"/>
 <path style="fill:#585e62" d="m 24,6.9869149 c -5.154354,0 -8,4.4404651 -8,8.7757661 L 24,16.684 32,15.762681 C 32,11.42738 28.789269,6.9869149 24,6.9869149 Z"/>
 <path style="fill:#49b04a" d="m 20,10 a 2,2 0 0 0 -2,2 h 4 a 2,2 0 0 0 -2,-2 z"/>
 <circle style="fill:#49b04a" cx="19.5" cy="13.5" r=".5"/>
 <path style="fill:#585e62" d="m 5.2525282,33.999998 a 0.72472522,0.72644324 0 0 1 -0.080807,-1.448528 1.5509119,1.5545885 0 1 0 -1.529895,-0.792549 0.72472522,0.72644324 0 0 1 -1.2682691,0.701382 3,3.0071118 0 1 1 2.9626767,1.534974 0.78922576,0.79109669 0 0 1 -0.083706,0.0047 z"/>
 <circle style="opacity:0.2" cx="7.5" cy="27.5" r="2.5"/>
 <circle style="fill:#b2bfd9" cx="7.5" cy="26.5" r="2.5"/>
 <path style="fill:none;stroke:#585e62;stroke-width:2.5;stroke-linecap:round;stroke-linejoin:round" d="M 8.3,24.7 11,20"/>
 <circle style="opacity:0.2" cx="11" cy="21" r="3"/>
 <circle style="fill:#c8c8c8" cx="11" cy="20" r="3"/>
 <path style="fill:#585e62" d="m 15.811604,42 c -0.802524,0 -1.466512,-1.516881 -1.65261,-3.774124 -0.09966,-1.211601 -0.04945,-2.481443 0.141932,-3.578089 0.205727,-1.180008 0.557917,-2.039892 0.991643,-2.425488 C 15.458283,32.074988 15.632301,32 15.81085,32 c 0.178548,0 0.352567,0.07613 0.519036,0.220776 l 1.87608,1.66838 c 0.655684,0.583152 0.882928,2.436146 0.763644,3.882608 -0.09173,1.114537 -0.377482,1.98622 -0.762134,2.33261 l -1.875703,1.667998 C 16.164172,41.924251 15.989021,42 15.811604,42 Z"/>
 <path style="fill:#585e62" d="M 11.936764,42 C 10.552541,42 9.407642,40.483119 9.0864059,38.225876 8.9142746,37.014275 9.0010952,35.744433 9.3310134,34.647787 9.686223,33.467779 10.293967,32.607895 11.041756,32.222299 A 1.952331,1.9687106 0 0 1 11.936008,32 h 3.907683 v 10 z"/>
 <path style="opacity:0.3" d="m 15.740571,42 c -0.820404,0 -1.499184,-1.516881 -1.689428,-3.774124 -0.101881,-1.211601 -0.05055,-2.481443 0.145094,-3.578089 0.21031,-1.180008 0.570346,-2.039892 1.013735,-2.425488 C 15.379378,32.074988 15.557273,32 15.7398,32 c 0.182526,0 0.360421,0.07613 0.530599,0.220776 l 1.917877,1.66838 c 0.670292,0.583152 0.902598,2.436146 0.780657,3.882608 -0.09377,1.114537 -0.385892,1.98622 -0.779114,2.33261 l -1.917491,1.667998 C 16.100993,41.924251 15.92194,42 15.740571,42 Z"/>
 <path style="opacity:0.3" d="m 32.259429,42 c 0.820403,0 1.499184,-1.516881 1.689428,-3.774124 0.101881,-1.211601 0.05055,-2.481443 -0.145094,-3.578089 -0.21031,-1.180008 -0.570346,-2.039892 -1.013735,-2.425488 C 32.620622,32.074988 32.442727,32 32.2602,32 c -0.182526,0 -0.360422,0.07613 -0.530599,0.220776 l -1.917877,1.66838 c -0.670292,0.583152 -0.902598,2.436146 -0.780657,3.882608 0.09377,1.114537 0.385892,1.98622 0.779113,2.33261 l 1.917492,1.667998 C 31.899007,41.924251 32.07806,42 32.259429,42 Z"/>
 <path style="opacity:0.2" d="m 35.585742,23.186957 a 3.2741316,3.2730679 0 0 1 -0.02193,-1.784883 c 0.577146,-2.079623 0.198127,-4.375311 0.198127,-4.375311 -7.246395,-2.261243 -11.751556,-0.01879 -11.751556,-0.01879 0,0 -4.49459,-2.256155 -11.746466,-0.01761 0,0 -0.386067,2.295296 0.184811,4.377268 a 3.2768724,3.2758079 0 0 1 -0.02702,1.784492 C 12.220455,23.839847 12.00197,24.893946 12.000013,26.236522 11.985528,35.982921 23.981409,39 23.981409,39 c 0,0 12.004104,-2.980677 12.018591,-12.727467 0,-1.342577 -0.21496,-2.395892 -0.414259,-3.085577 z"/>
 <path style="fill:#b2bfd9" d="m 35.585742,22.186957 a 3.2741316,3.2730679 0 0 1 -0.02193,-1.784883 c 0.577146,-2.079623 0.198127,-4.375311 0.198127,-4.375311 -7.246395,-2.261243 -11.751556,-0.01879 -11.751556,-0.01879 0,0 -4.49459,-2.256155 -11.746466,-0.01761 0,0 -0.386067,2.295296 0.184811,4.377268 a 3.2768724,3.2758079 0 0 1 -0.02702,1.784492 C 12.220455,22.839847 12.00197,23.893946 12.000013,25.236522 11.985528,34.982921 23.981409,38 23.981409,38 c 0,0 12.004104,-2.980677 12.018591,-12.727467 0,-1.342577 -0.21496,-2.395892 -0.414259,-3.085577 z"/>
 <path style="fill:#49b04a" d="M 18.236328 17.001953 C 17.937619 17.006822 17.626065 17.019819 17.302734 17.042969 C 16.390959 17.108251 15.26597 17.388506 14.166016 17.648438 C 14.156712 18.320218 14.183081 19.130846 14.376953 19.837891 L 14.378906 19.845703 L 14.380859 19.851562 C 14.631476 20.790493 14.618149 21.781396 14.341797 22.712891 L 14.337891 22.726562 C 14.182449 23.260913 14.001589 24.120617 14 25.240234 C 13.993977 29.292596 16.403029 31.837101 19.083984 33.601562 C 21.379551 35.112381 23.367086 35.719101 23.984375 35.896484 C 24.601574 35.721162 26.590287 35.12135 28.890625 33.617188 C 31.575681 31.861463 33.9923 29.323633 34 25.273438 C 34 24.151845 33.822361 23.293018 33.667969 22.755859 C 33.389925 21.819174 33.377868 20.824094 33.632812 19.880859 L 33.634766 19.873047 L 33.636719 19.867188 C 33.832859 19.160444 33.862769 18.349568 33.855469 17.677734 C 31.19582 17.040431 28.950894 16.943649 27.439453 17.150391 C 25.666805 17.392861 24.902344 17.798828 24.902344 17.798828 L 24.005859 18.244141 L 23.113281 17.794922 C 23.113281 17.794922 22.350749 17.388521 20.580078 17.140625 C 19.916077 17.047663 19.132454 16.987347 18.236328 17.001953 z"/>
 <path style="fill:#35393b" d="m 24,24 -2,6 1.999105,1 L 26,30 Z"/>
 <circle style="fill:#35393b" cx="24" cy="23" r="2"/>
 <path style="fill:#49b04a" d="m 28,10 a 2,2 0 0 0 -2,2 h 4 a 2,2 0 0 0 -2,-2 z"/>
 <circle style="fill:#49b04a" cx="22.5" cy="13.5" r=".5"/>
 <circle style="fill:#49b04a" cx="25.5" cy="13.5" r=".5"/>
 <circle style="fill:#49b04a" cx="28.5" cy="13.5" r=".5"/>
 <rect style="opacity:0.2" width="4" height="1" x="18" y="12"/>
 <rect style="opacity:0.2" width="4" height="1" x="26" y="12"/>
 <path style="fill:#8b9cbe;opacity:0.2" d="M 24 5 C 17.556868 5 14 10.565957 14 16 L 14.041016 16 C 14.448019 10.904008 17.951862 6 24 6 C 29.61965 6 33.498412 10.904011 33.953125 16 L 34 16 C 34 10.565957 29.986664 5 24 5 z"/>
</svg>
