<svg xmlns="http://www.w3.org/2000/svg" width="48" height="48" version="1">
 <rect style="opacity:0.2" width="40" height="40" x="4" y="5" rx="12" ry="12"/>
 <rect style="fill:#b2bfd9" width="40" height="40" x="4" y="4" rx="12" ry="12"/>
 <path style="fill:#8b9cbe;opacity:0.2" d="M 16 4 C 9.352 4 4 9.352 4 16 L 4 17 C 4 10.352 9.352 5 16 5 L 32 5 C 38.648 5 44 10.352 44 17 L 44 16 C 44 9.352 38.648 4 32 4 L 16 4 z"/>
 <path style="opacity:0.1" d="m 22.720215,38.952345 c -4.183726,-0.403958 -8.044658,-2.70214 -10.340219,-6.154913 -2.15387,-3.239647 -2.8776577,-7.08043 -2.040998,-10.830599 0.311396,-1.395777 1.09771,-3.417937 1.259188,-3.238235 0.03535,0.03932 0.145892,0.404028 0.245638,0.81039 0.588303,2.396684 2.121073,4.149274 4.699049,5.372932 1.64598,0.78127 3.217358,1.236492 6.431077,1.86305 2.980425,0.581058 3.751175,0.884263 4.954033,1.487383 1.315321,0.659505 2.136148,1.42226 2.629674,2.443619 0.447382,0.925878 0.553417,1.531833 0.509558,2.912046 -0.03348,1.054294 -0.06522,1.265437 -0.276871,1.847114 -0.765668,1.977296 -2.379586,2.785287 -3.84756,3.151587 -1.316138,0.32543 -2.888743,0.464415 -4.222569,0.335626 z M 36.270676,31.011557 C 35.747688,27.912423 34.024573,25.645765 31.07761,24.180397 29.3695,23.33104 28.170761,22.98125 24.186515,22.169542 c -2.99417,-0.610004 -4.540289,-0.955932 -5.64263,-1.482916 -1.315158,-0.628705 -2.121644,-1.606558 -2.388622,-2.896168 -0.131903,-0.637105 -0.112592,-2.191817 0.0343,-2.769888 0.295821,-1.163645 1.156258,-2.399414 1.980001,-2.843657 0.219817,-0.118557 0.741451,-0.329292 1.159173,-0.4683 5.941763,-1.9773363 12.821087,0.28658 16.301957,5.506083 2.141492,3.211134 2.867519,7.078926 2.029844,10.813566 -0.313729,1.39874 -1.038764,3.291143 -1.260926,3.291143 -0.04235,0 -0.100341,-0.13853 -0.12895,-0.307848 z"/>
 <path style="fill:#329289" d="m 22.720215,37.952345 c -4.183726,-0.403958 -8.044658,-2.70214 -10.340219,-6.154913 -2.15387,-3.239647 -2.8776577,-7.08043 -2.040998,-10.830599 0.311396,-1.395777 1.09771,-3.417937 1.259188,-3.238235 0.03535,0.03932 0.145892,0.404028 0.245638,0.81039 0.588303,2.396684 2.121073,4.149274 4.699049,5.372932 1.64598,0.78127 3.217358,1.236492 6.431077,1.86305 2.980425,0.581058 3.751175,0.884263 4.954033,1.487383 1.315321,0.659505 2.136148,1.42226 2.629674,2.443619 0.447382,0.925878 0.553417,1.531833 0.509558,2.912046 -0.03348,1.054294 -0.06522,1.265437 -0.276871,1.847114 -0.765668,1.977296 -2.379586,2.785287 -3.84756,3.151587 -1.316138,0.32543 -2.888743,0.464415 -4.222569,0.335626 z M 36.270676,30.011557 C 35.747688,26.912423 34.024573,24.645765 31.07761,23.180397 29.3695,22.33104 28.170761,21.98125 24.186515,21.169542 c -2.99417,-0.610004 -4.540289,-0.955932 -5.64263,-1.482916 -1.315158,-0.628705 -2.121644,-1.606558 -2.388622,-2.896168 -0.131903,-0.637105 -0.112592,-2.191817 0.0343,-2.769888 0.295821,-1.163645 1.156258,-2.399414 1.980001,-2.843657 0.219817,-0.118557 0.741451,-0.329292 1.159173,-0.4683 5.941763,-1.9773364 12.821087,0.28658 16.301957,5.506083 2.141492,3.211134 2.867519,7.078926 2.029844,10.813566 -0.313729,1.39874 -1.038764,3.291143 -1.260926,3.291143 -0.04235,0 -0.100341,-0.13853 -0.12895,-0.307848 z"/>
</svg>
