<svg width="48" height="48" version="1.1" xmlns="http://www.w3.org/2000/svg">
 <g transform="matrix(2,0,0,2,2,2)">
  <path d="m8 1.5s2 1 2 3-9 8-9 11 11 6 11 6-5-2-5-4c0-3 7-8 7-10 0-3-6-6-6-6zm7 6s1 1 1 2-6 6-6 8c0 1 3 2 3 2s-1-1-1-2 5-5 5-7-2-3-2-3zm3 3s1 1 1 3c0 1-2.585786 3.585786-4 5-1 1-1 2-1 2s3-2.357312 4-3c0.841243-0.540657 3-2 3-4 0-1-3-3-3-3z" style="opacity:.2"/>
  <path d="m8 1s2 1 2 3-9 8-9 11 11 6 11 6-5-2-5-4c0-3 7-8 7-10 0-3-6-6-6-6zm7 6s1 1 1 2-6 6-6 8c0 1 3 2 3 2s-1-1-1-2 5-5 5-7-2-3-2-3zm3 3s1 1 1 3c0 1-2.585786 3.585786-4 5-1 1-1 2-1 2s3-2.357312 4-3c0.841243-0.540657 3-2 3-4 0-1-3-3-3-3z" style="fill:#ff5722"/>
  <path d="M 8,1 C 8,1 8.8839736,1.4561888 9.4765625,2.3476562 11.162644,3.3891734 13.706307,5.2569495 13.962891,7.1914062 13.974573,7.127735 14,7.0586394 14,7 14,4 8,1 8,1 Z M 9.9589844,4.1679688 C 9.5309875,6.308773 1,12.07504 1,15 1,15.09766 1.012599,15.195408 1.035156,15.292969 1.4092987,12.233873 10,6.4565623 10,4.5 10,4.3819259 9.9721028,4.2790721 9.9589844,4.1679688 Z M 15,7 c 0,0 0.389435,0.4185029 0.683594,0.9667969 0.533848,0.4391714 1.181025,1.1975964 1.283203,2.2636721 C 16.97952,10.152755 17,10.072672 17,10 17,8 15,7 15,7 Z m 0.958984,2.1445312 C 15.528348,10.394227 10,15.077691 10,17 c 0,0.07113 0.01868,0.142119 0.04687,0.212891 C 10.529069,15.061568 16,10.456037 16,9.5 16,9.3808873 15.98398,9.261954 15.958984,9.1445312 Z M 18,10 c 0,0 0.295861,0.308857 0.566406,0.904297 0.788462,0.575177 2.154523,1.647911 2.396485,2.386719 C 20.973327,13.193407 21,13.100381 21,13 21,12 18,10 18,10 Z m 0.974609,3.095703 C 18.841197,14.150153 16.375965,16.624035 15,18 c -1,1 -1,2 -1,2 0,0 0.109683,-0.08395 0.117188,-0.08984 C 14.23718,19.530895 14.480688,19.019312 15,18.5 c 1.414214,-1.414214 4,-4 4,-5 0,-0.143765 -0.0158,-0.270866 -0.02539,-0.404297 z M 7.0351562,17.234375 C 7.0241678,17.32276 7,17.414732 7,17.5 7,18.476601 8.1939797,19.449617 9.4140625,20.193359 10.883983,20.684944 12,21 12,21 12,21 7.3958087,19.15333 7.0351562,17.234375 Z m 5.0039058,0.111328 C 12.020834,17.400381 12,17.456342 12,17.5 c 0,0.46875 0.223572,0.929169 0.457031,1.294922 C 12.772569,18.91936 13,19 13,19 c 0,0 -0.77986,-0.781964 -0.960938,-1.654297 z" style="fill:#8b9cbe;opacity:.2"/>
 </g>
</svg>
