<svg xmlns="http://www.w3.org/2000/svg" width="48" height="48" version="1">
 <rect style="fill:#df5555" width="40" height="40" x="4" y="4" rx="2" ry="2"/>
 <rect style="opacity:0.1" width="5" height="26" x="30" y="13" rx="1" ry="1"/>
 <rect style="opacity:0.1" width="5" height="26" x="13" y="13" rx="1" ry="1"/>
 <path fill="#fff" style="opacity:0.2" d="m6 4c-1.108 0-2 0.892-2 2v1c0-1.108 0.892-2 2-2h36c1.108 0 2 0.892 2 2v-1c0-1.108-0.892-2-2-2h-36z"/>
 <path opacity=".2" d="m6 45c-1.108 0-2-0.892-2-2v-1c0 1.108 0.892 2 2 2h36c1.108 0 2-0.892 2-2v1c0 1.108-0.892 2-2 2h-36z"/>
 <rect style="fill:#17191e" width="5" height="26" x="13" y="12" rx="1" ry="1"/>
 <rect style="fill:#17191e" width="5" height="26" x="30" y="12" rx="1" ry="1"/>
 <rect style="opacity:0.1" width="14" height="16" x="17" y="20" rx=".979" ry=".991"/>
 <rect style="fill:#545454" width="14" height="16" x="17" y="19" rx=".979" ry=".991"/>
 <rect style="fill:#6c6c6c" width="4" height="15" x="22" y="10" rx="1" ry="1"/>
 <path style="opacity:0.1" d="m 24,24 a 4,4 0 0 0 -4,4 4,4 0 0 0 0.0059,0.166016 C 20.005578,28.17777 20,28.187379 20,28.199219 v 3.601562 C 20,32.465581 20.446,33 21,33 h 6 c 0.554,0 1,-0.534419 1,-1.199219 v -3.601562 c 0,-0.01601 -0.0073,-0.02907 -0.0078,-0.04492 A 4,4 0 0 0 28,28 4,4 0 0 0 24,24 Z"/>
 <path style="fill:#868686" d="M 24 23 A 4 4 0 0 0 20 27 A 4 4 0 0 0 20.005859 27.166016 C 20.005578 27.17777 20 27.187379 20 27.199219 L 20 30.800781 C 20 31.465581 20.446 32 21 32 L 27 32 C 27.554 32 28 31.465581 28 30.800781 L 28 27.199219 C 28 27.183208 27.9927 27.170152 27.992188 27.154297 A 4 4 0 0 0 28 27 A 4 4 0 0 0 24 23 z"/>
</svg>
