<svg xmlns="http://www.w3.org/2000/svg" width="48" height="48" version="1">
 <rect style="opacity:0.2" width="44" height="32" x="2" y="9" rx="3" ry="3"/>
 <rect style="fill:#9e5fb0" width="44" height="32" x="2" y="8" rx="3" ry="3"/>
 <path style="fill:#a7a6a4" d="m 24,18.997894 5,8.884614 v 12.115386 h -5 z"/>
 <path style="fill:#d6d5d3" d="m 24,18.997894 -5,8.884614 v 12.115386 h 5 z"/>
 <path style="opacity:0.2;fill:#8b9cbe" d="M 5 8 C 3.338 8 2 9.338 2 11 L 2 12 C 2 10.338 3.338 9 5 9 L 43 9 C 44.662 9 46 10.338 46 12 L 46 11 C 46 9.338 44.662 8 43 8 L 5 8 z"/>
 <path style="fill:#8b9cbe;opacity:0.2" d="M 24 18.998047 L 19 27.882812 L 19 28.884766 L 24 20 L 29 28.884766 L 29 27.882812 L 24 18.998047 z"/>
</svg>
