<svg xmlns="http://www.w3.org/2000/svg" width="48" height="48" version="1.1">
 <rect style="opacity:0.2" width="40" height="40" x="4" y="5" rx="3" ry="3"/>
 <rect style="fill:#b2bfd9" width="40" height="40" x="4" y="4" rx="3" ry="3"/>
 <rect style="opacity:0.1" width="10" height="10" x="14" y="14"/>
 <rect style="opacity:0.1" width="10" height="10" x="34" y="14"/>
 <path style="opacity:0.1" d="M 7 4 C 5.338 4 4 5.338 4 7 L 4 14 L 14 14 L 14 4 L 7 4 z"/>
 <rect style="opacity:0.1" width="10" height="10" x="24" y="4"/>
 <rect style="opacity:0.1" width="10" height="10" x="4" y="-34" transform="scale(1,-1)"/>
 <rect style="opacity:0.1" width="10" height="10" x="24" y="-34" transform="scale(1,-1)"/>
 <rect style="opacity:0.1" width="10" height="10" x="14" y="-44" transform="scale(1,-1)"/>
 <path style="opacity:0.1" d="M 34,44 V 34 h 10 v 7 c 0,1.662 -1.338,3 -3,3 z"/>
 <path style="opacity:0.1" d="m 39,6 a 4,4 0 0 0 -4,4 4,4 0 0 0 4,4 4,4 0 0 0 4,-4 4,4 0 0 0 -4,-4 z M 29,16 a 4,4 0 0 0 -4,4 4,4 0 0 0 4,4 4,4 0 0 0 4,-4 4,4 0 0 0 -4,-4 z m 10,0 a 4,4 0 0 0 -4,4 4,4 0 0 0 4,4 4,4 0 0 0 4,-4 4,4 0 0 0 -4,-4 z M 9,26 a 4,4 0 0 0 -4,4 4,4 0 0 0 4,4 4,4 0 0 0 4,-4 4,4 0 0 0 -4,-4 z m 10,0 a 4,4 0 0 0 -4,4 4,4 0 0 0 4,4 4,4 0 0 0 4,-4 4,4 0 0 0 -4,-4 z m 10,0 a 4,4 0 0 0 -4,4 4,4 0 0 0 4,4 4,4 0 0 0 4,-4 4,4 0 0 0 -4,-4 z m 10,0 a 4,4 0 0 0 -4,4 4,4 0 0 0 4,4 4,4 0 0 0 4,-4 4,4 0 0 0 -4,-4 z M 9,36 a 4,4 0 0 0 -4,4 4,4 0 0 0 4,4 4,4 0 0 0 4,-4 4,4 0 0 0 -4,-4 z m 10,0 a 4,4 0 0 0 -4,4 4,4 0 0 0 4,4 4,4 0 0 0 4,-4 4,4 0 0 0 -4,-4 z m 10,0 a 4,4 0 0 0 -4,4 4,4 0 0 0 4,4 4,4 0 0 0 4,-4 4,4 0 0 0 -4,-4 z m 10,0 a 4,4 0 0 0 -4,4 4,4 0 0 0 4,4 4,4 0 0 0 4,-4 4,4 0 0 0 -4,-4 z"/>
 <circle style="fill:#d12c6d" cx="39" cy="9" r="4"/>
 <circle style="fill:#24a647" cx="39" cy="19" r="4"/>
 <circle style="fill:#24a647" cx="39" cy="29" r="4"/>
 <circle style="fill:#d12c6d" cx="39" cy="39" r="4"/>
 <circle style="fill:#d12c6d" cx="29" cy="19" r="4"/>
 <circle style="fill:#24a647" cx="29" cy="29" r="4"/>
 <circle style="fill:#d12c6d" cx="29" cy="39" r="4"/>
 <circle style="fill:#d12c6d" cx="19" cy="29" r="4"/>
 <circle style="fill:#24a647" cx="19" cy="39" r="4"/>
 <circle style="fill:#24a647" cx="9" cy="29" r="4"/>
 <circle style="fill:#d12c6d" cx="9" cy="39" r="4"/>
 <path style="fill:#8b9cbe;opacity:0.2" d="M 7 4 C 5.338 4 4 5.338 4 7 L 4 8 C 4 6.338 5.338 5 7 5 L 41 5 C 42.662 5 44 6.338 44 8 L 44 7 C 44 5.338 42.662 4 41 4 L 7 4 z"/>
</svg>
