<svg xmlns="http://www.w3.org/2000/svg" width="48" height="48" version="1.1">
 <circle style="opacity:0.2" cx="24" cy="25" r="17"/>
 <circle style="fill:#005cc0" cx="24" cy="24" r="17"/>
 <path style="opacity:0.1;fill:#8b9cbe" d="M 24,7 A 17,17 0 0 0 7,24 17,17 0 0 0 7.0214844,24.580078 17,17 0 0 1 24,8 17,17 0 0 1 40.978516,24.419922 17,17 0 0 0 41,24 17,17 0 0 0 24,7 Z"/>
 <circle style="opacity:0.2" cx="24" cy="25" r="14"/>
 <circle style="fill:#0179ff" cx="24" cy="24" r="14"/>
 <path style="opacity:0.2;fill:#8b9cbe" d="M 24,10 A 14,14 0 0 0 10,24 14,14 0 0 0 10.021484,24.585938 14,14 0 0 1 24,11 14,14 0 0 1 37.978516,24.414062 14,14 0 0 0 38,24 14,14 0 0 0 24,10 Z"/>
 <circle style="fill:#419cff" cx="24" cy="24" r="11"/>
 <path style="opacity:0.2;fill:#8b9cbe" d="M 24,13 A 11,11 0 0 0 13,24 11,11 0 0 0 13.021484,24.585938 11,11 0 0 1 24,14 11,11 0 0 1 34.978516,24.414062 11,11 0 0 0 35,24 11,11 0 0 0 24,13 Z"/>
 <path style="opacity:0.1" d="M 36.53125,10.002798 C 34.8261,9.960583 33.671875,10.467642 33.671875,10.467642 L 11.935547,22.846548 6.3476562,30.938345 c 0.036256,0.0094 0.067635,0.02164 0.1035157,0.03125 2.2412941,0.600472 3.7536611,1.537683 4.6445311,2.761719 0.127297,0.174903 0.241428,0.35458 0.34375,0.541015 0.102322,0.186436 0.193488,0.378505 0.271485,0.576172 0.155764,0.394755 0.26354,0.812241 0.326171,1.25 0.06048,0.422682 0.07825,0.863633 0.05664,1.324219 0.02124,-0.459456 0.0039,-0.902541 -0.05664,-1.324219 -0.06294,-0.438106 -0.169866,-0.855008 -0.326171,-1.25 -0.07815,-0.197496 -0.169023,-0.3899 -0.271485,-0.576172 -0.102461,-0.186271 -0.216336,-0.366266 -0.34375,-0.541015 -0.8919,-1.223245 -2.403669,-2.161339 -4.6445311,-2.761719 -1.7685341,2.719294 -3.4539469,5.448708 -4.1582031,7 -0.5403327,1.343157 -0.3743337,1.794581 0.8613281,1.929688 7.6888881,0.29106 8.5452251,-0.141376 8.5449221,-0.140626 l 9.871093,-0.478515 21.314454,-12.140625 c 0,0 5.696679,-4.097545 1.683593,-12.017578 -2.739513,-4.104137 -5.844772,-5.064864 -8.037109,-5.119141 z"/>
 <path style="fill:#bb7739" d="M 29.392578 11.902344 L 11.935547 21.845703 L 21.570312 38.279297 L 40.28125 27.623047 C 40.281321 27.622396 40.281179 27.621745 40.28125 27.621094 C 41.108787 20.043001 38.296278 13.14816 29.394531 11.902344 L 29.392578 11.902344 z"/>
 <path style="fill:#4f4f4f" d="m 11.698875,38.758285 c 1.18348,-4.283859 -0.126041,-7.416462 -5.2480116,-8.788759 -1.7685341,2.719294 -3.4545826,5.448023 -4.1588388,6.999315 -0.5403327,1.343157 -0.3737263,1.795405 0.8619355,1.930512 7.6888879,0.29106 8.5452179,-0.141819 8.5449149,-0.141068 z"/>
 <path style="fill:#e4af64" d="m 6.3474357,29.93792 5.5884713,-8.092391 c 9.843246,0.491329 13.402597,9.669665 9.634089,16.433514 l -9.870818,0.478491 C 12.890959,34.443626 11.559327,31.294911 6.3474357,29.93792 Z"/>
 <path style="fill:#e15c7d" d="m 36.530454,9.0025019 c -1.70515,-0.042215 -2.8581,0.4637866 -2.8581,0.4637867 L 29.39206,11.903101 c 8.904068,1.245181 11.718067,8.141016 10.889772,15.720437 l 2.603437,-1.484117 c 0,0 5.69582,-4.09784 1.682734,-12.017873 C 41.82849,10.017411 38.722791,9.0567786 36.530454,9.0025019 Z"/>
 <path style="fill:#b2bfs9" d="m 29.39206,11.903101 -6.558545,3.735416 c 10.388195,-0.07893 13.199459,10.312287 9.467578,16.528199 l 7.980739,-4.543178 c 7e-5,-6.44e-4 -7e-5,-0.0013 0,-0.002 0.827605,-7.57866 -1.98646,-14.473429 -10.889772,-15.718505 z"/>
 <path style="opacity:0.1;fill:#8b9cbe" d="M 36.53125,9.0019531 C 34.8261,8.9597381 33.671875,9.4667968 33.671875,9.4667969 l -4.279297,2.4355471 c 0.461282,0.06451 0.895286,0.153899 1.324219,0.248047 l 2.955078,-1.683594 c 0,0 1.154225,-0.5051058 2.859375,-0.462891 2.192337,0.05428 5.297596,1.013051 8.037109,5.117188 0.932917,1.841159 1.325269,3.467997 1.402344,4.892578 0.09039,-1.643988 -0.242306,-3.603185 -1.402344,-5.892578 C 41.828846,10.016957 38.723587,9.0562298 36.53125,9.0019531 Z m 3.873047,16.5859379 c -0.01346,0.671358 -0.04805,1.348903 -0.123047,2.035156 l 0.08398,-0.04883 c 0.0433,-0.670815 0.05753,-1.333672 0.03906,-1.986328 z"/>
 <path style="opacity:0.3" d="m 28.431641,12.449219 -1.408203,0.802734 a 12,12 0 0 1 10.46289,11.888672 12,12 0 0 1 -0.929687,4.603516 l 1.367187,-0.779297 a 13,13 0 0 0 0.59961,-3.861328 13,13 0 0 0 -10.091797,-12.654297 z m -2.191407,1.25 -1.396484,0.794922 a 12,12 0 0 1 10.365234,11.873047 12,12 0 0 1 -0.96289,4.691406 l 1.367187,-0.779297 a 13,13 0 0 0 0.632813,-3.949219 13,13 0 0 0 -10.00586,-12.630859 z"/>
</svg>
