<svg xmlns="http://www.w3.org/2000/svg" width="48" height="48" version="1.1">
 <ellipse id="ellipse852" style="opacity:0.2" cx="24" cy="25" rx="20" ry="20"/>
 <ellipse id="ellipse1089" style="fill:#cccccc" cx="24" cy="24" rx="20" ry="20"/>
 <path id="ellipse854" style="opacity:0.2;fill:#8b9cbe" d="M 24 4 A 20 19.999823 0 0 0 4 24 A 20 19.999823 0 0 0 4.0214844 24.582031 A 20 19.999823 0 0 1 24 5 A 20 19.999823 0 0 1 43.978516 24.417969 A 20 19.999823 0 0 0 44 24 A 20 19.999823 0 0 0 24 4 z"/>
 <path style="fill:#4a4455" d="M 24,40 A 16,16 0 0 1 10.143593,31.999999 16,16 0 0 1 10.143593,16 16,16 0 0 1 23.999999,8"/>
 <path style="opacity:0.2" d="m 38.923828,7 c -0.822196,9.789e-4 -1.610196,0.3305892 -2.1875,0.9160156 l -0.002,-0.00195 -3.164063,3.1660155 -1.978515,-1.9785155 c -0.461458,-0.4614585 -0.921875,0 -0.921875,0 l -1.464844,1.4648435 c 0,0 -0.461458,0.460416 0,0.921875 l 2.208984,2.208985 -11.46875,11.464843 C 18.972209,26.621566 19.459655,28.081559 18,29.541016 L 19.458984,31 c 1.459655,-1.459457 3.432786,-0.956321 4.378907,-1.945312 l 11.466797,-11.466797 2.207031,2.207031 c 0.461461,0.461458 0.921875,0 0.921875,0 l 1.464844,-1.464844 c 0.461458,-0.461458 0,-0.921875 0,-0.921875 l -1.978516,-1.978515 3.146484,-3.146485 0.01953,-0.01758 -0.002,-0.002 C 41.669385,11.685998 41.999635,10.898568 42,10.076172 42,8.3771288 40.622869,6.9999974 38.923828,7 Z"/>
 <path style="fill:#8b9cbe" d="M 32.09717,12.012856 19.946206,24.162172 C 18.973103,25.621629 19.459655,27.081086 18,28.540543 L 19.459655,30 c 1.459655,-1.459457 3.432844,-0.956951 4.378965,-1.945943 L 35.989583,15.904741 Z"/>
 <path style="fill:#4f4f4f;fill-rule:evenodd" d="m 38.923753,5.9999997 c -0.822196,9.789e-4 -1.609818,0.3308808 -2.187122,0.9163072 l -0.0015,-0.00147 -3.164537,3.1645091 -1.978089,-1.9780868 c -0.461458,-0.4614585 -0.922918,2.3e-6 -0.922918,2.3e-6 L 29.205093,9.565749 c 0,0 -0.461459,0.461456 -1e-6,0.922915 l 8.306269,8.306243 c 0.461461,0.461458 0.922919,2e-6 0.922919,2e-6 l 1.464494,-1.464488 c 0.461458,-0.461458 0,-0.922917 0,-0.922917 l -1.978025,-1.978019 3.146495,-3.146486 0.01801,-0.01801 -6.53e-4,-4.89e-4 c 0.585401,-0.577674 0.915037,-1.3656814 0.915402,-2.1880775 0,-1.6990431 -1.377349,-3.0763878 -3.07639,-3.0763852 z"/>
 <path style="opacity:0.2" d="M 24 8 A 16 16 0 0 0 10.144531 16 A 16 16 0 0 0 8.0234375 24.644531 A 16 16 0 0 1 10.144531 17 A 16 16 0 0 1 24 9 L 24 8 z"/>
</svg>
