<svg xmlns="http://www.w3.org/2000/svg" width="48" height="48" version="1.1">
 <path style="opacity:0.2" d="m 10.388306,33.076461 2.155362,2.766254 C 11.262965,40.336354 7.4634425,40.86117 5,41 5.4297554,39.073281 8.2044838,35.319574 10.388306,33.076461 Z"/>
 <path style="fill:#ce4126" d="m 10.388306,32.076461 2.155362,2.766254 C 11.262965,39.336354 7.4634425,39.86117 5,40 5.4297554,38.073281 8.2044838,34.319574 10.388306,32.076461 Z"/>
 <path style="opacity:0.2" d="m 9.3988001,29.712144 0.9895059,3.364317 C 7.5475362,36.786315 5.3424401,34.77511 3,34 4.1069906,32.365525 6.5440474,30.997066 9.3988001,29.712144 Z"/>
 <path style="fill:#ce4126" d="m 9.3988001,28.712144 0.9895059,3.364317 C 7.5475362,35.786315 5.3424401,33.77511 3,33 4.1069906,31.365525 6.5440474,29.997066 9.3988001,28.712144 Z"/>
 <path style="fill:#17191e" d="m 40.36838,20.705764 c 0,7.332713 -8.870969,16.047236 -16.500383,16.047236 -3.246224,0 -7.535608,1.37238 -9.893641,-0.428999 C 10.79044,33.891702 8.065,30.137222 8.065,25.92449 c 0,-7.332714 6.485171,-13.277052 14.114585,-13.277052 7.629413,1e-6 18.188795,0.725613 18.188795,8.058326 z"/>
 <path style="opacity:0.2" d="m 33.916928,18.236083 c -2.274806,-0.02477 -4.711894,0.323925 -6.622902,0.956921 -4.610972,1.202925 -9.386649,2.240602 -11.390719,6.050428 -0.270268,1.238887 0.51022,3.721799 0.514772,4.858783 0.0031,0.772104 -0.734696,0.44157 -0.734696,0.44157 -1.022911,-0.660183 -2.62,-0.769535 -3.446758,-0.293792 -1.416903,0.818358 -1.638638,3.486411 -0.495249,5.466234 1.143068,1.979727 3.718697,2.921488 5.135641,2.103546 0.897737,-0.465268 0.610027,-1.20449 1.123696,-1.511484 0.448128,-0.267824 1.008933,0.351467 1.106864,0.159624 -0.329767,0.659535 0.349996,2.298843 0.93639,2.599864 4.032691,2.070147 8.620827,2.31974 12.847862,1.487436 3.061997,-0.602908 5.934511,-1.773522 8.269159,-3.231073 2.047719,-1.278417 3.827651,-2.775098 3.637979,-4.856793 -0.178913,-1.963609 -2.094221,-4.109987 -3.05879,-6.47013 -1.133022,-2.772324 -1.324581,-5.62401 -1.324581,-5.62401 -0.91832,-1.457167 -3.573918,-2.105279 -6.498668,-2.137124 z"/>
 <path style="fill:#f9c4b3" d="m 33.916928,17.236083 c -2.274806,-0.02477 -4.711894,0.323925 -6.622902,0.956921 -4.610972,1.202925 -9.386649,2.240602 -11.390719,6.050428 -0.270268,1.238887 0.51022,3.721799 0.514772,4.858783 0.0031,0.772104 -0.734696,0.44157 -0.734696,0.44157 -1.022911,-0.660183 -2.62,-0.769535 -3.446758,-0.293792 -1.416903,0.818358 -1.638638,3.486411 -0.495249,5.466234 1.143068,1.979727 3.718697,2.921488 5.135641,2.103546 0.897737,-0.465268 0.610027,-1.20449 1.123696,-1.511484 0.448128,-0.267824 1.008933,0.351467 1.106864,0.159624 -0.329767,0.659535 0.349996,2.298843 0.93639,2.599864 4.032691,2.070147 8.620827,2.31974 12.847862,1.487436 3.061997,-0.602908 5.934511,-1.773522 8.269159,-3.231073 2.047719,-1.278417 3.827651,-2.775098 3.637979,-4.856793 -0.178913,-1.963609 -2.094221,-4.109987 -3.05879,-6.47013 -1.133022,-2.772324 -1.324581,-5.62401 -1.324581,-5.62401 -0.91832,-1.457167 -3.573918,-2.105279 -6.498668,-2.137124 z"/>
 <path style="fill:#17191e" d="m 37.484797,30.502507 c -0.188378,5.78e-4 -0.354429,0.123754 -0.40963,0.303864 l -0.523788,1.620051 c -2.872766,-0.801475 -5.487239,-0.100539 -7.804782,0.997217 l -0.831011,-0.216566 0.167882,-1.050935 c 0.123796,-0.588567 -0.781313,-0.733743 -0.847799,-0.135984 l -0.229996,1.435382 c -0.03577,0.218941 0.100967,0.429134 0.315615,0.485176 l 1.321223,0.344156 c 0.07381,0.01941 0.151456,0.01881 0.22496,-0.0017 l 3.240101,-0.909915 2.618943,-0.278683 2.080044,0.224961 c 0.202502,0.02174 0.392461,-0.101631 0.454957,-0.29547 l 0.631232,-1.954134 c 0.09428,-0.278948 -0.1135,-0.567958 -0.40795,-0.567438 z"/>
 <ellipse style="fill:#17191e" cx="21.102" cy="30.025" rx="1.434" ry="4.024" transform="matrix(0.99109282,-0.13317292,0.11942206,0.99284358,0,0)"/>
 <ellipse style="fill:#8b9cbe" cx="24.292" cy="26.229" rx=".683" ry="1.771"/>
 <path style="fill:#17191e" d="m 39.878676,24.794439 c 0.292713,2.375712 0.06686,4.086104 -0.798612,4.199633 -0.865462,0.113528 -1.685129,-1.412801 -1.977844,-3.788511 -0.292714,-2.375711 0.05237,-4.086104 0.917832,-4.199633 0.865461,-0.113528 1.565909,1.4128 1.858624,3.788511 z"/>
 <path style="fill:#8b9cbe" d="m 39,24 c -0.04138,1.446894 -0.610816,1.977281 -1.026596,1.97728 -0.41578,-1e-6 -0.479077,-3.264306 -0.479077,-1.97728 0,0 0.405495,-1.129873 0.821276,-1.129874 C 38.731383,22.870125 39,24 39,24 Z"/>
 <path style="opacity:0.1" d="m 37.071933,10.843372 c 0.588839,2.81525 3.279985,6.047921 -3.155005,7.392711 0,0 -11.779193,1.055272 -16.458914,3.777572 C 13.797566,24.143021 8.774,31.095245 8.774,31.095245 7.9716796,29.330581 8.0438663,27.442504 8.0464479,25.488049 8.059215,15.822472 21.242247,8.907673 29.862183,8.1033936 c 3.774253,-0.3521551 6.673697,0.4671628 7.20975,2.7399784 z"/>
 <path style="fill:#f95833" d="m 37.071933,9.8433721 c 0.588839,2.8152499 3.279985,6.0479209 -3.155005,7.3927109 0,0 -11.779193,1.055272 -16.458914,3.777572 C 13.797566,23.143021 8.774,30.095245 8.774,30.095245 7.9716796,28.330581 8.0438663,26.442504 8.0464479,24.488049 8.059215,14.822472 21.242247,7.907673 29.862183,7.1033936 c 3.774253,-0.3521551 6.673697,0.4671628 7.20975,2.7399785 z"/>
 <path style="opacity:0.1" d="m 46,9.4 c -1.704882,1.123149 -3.848326,2.660054 -4.551724,3.950117 C 45.601403,15.295239 45.341281,18.291134 46,21.068257 41.502385,17.057292 37.264224,17.800662 33.110765,18.263721 33.349327,13.549849 36.395948,7.6245604 46,9.4 Z"/>
 <path style="opacity:0.2;fill:#8b9cbe" d="M 31.234375 7.0273438 C 30.792839 7.0342038 30.33311 7.0594962 29.861328 7.1035156 C 21.241392 7.907795 8.0596421 14.822704 8.046875 24.488281 C 8.0464309 24.824532 8.0466319 25.156251 8.046875 25.488281 C 8.0596421 15.822704 21.241392 8.907795 29.861328 8.1035156 C 33.635581 7.7513605 36.536213 8.5709344 37.072266 10.84375 C 37.317975 12.018492 37.921987 13.263406 38.083984 14.416016 C 38.315159 13.012775 37.39113 11.368248 37.072266 9.84375 C 36.603219 7.8550363 34.32513 6.9793236 31.234375 7.0273438 z"/>
 <path style="fill:#836b44" d="M 46,8.4 C 44.295118,9.523149 42.151674,11.060054 41.448276,12.350117 45.601403,14.295239 45.341281,17.291134 46,20.068257 41.502385,16.057292 37.264224,16.800662 33.110765,17.263721 33.349327,12.549849 36.395948,6.6245604 46,8.4 Z"/>
 <path style="opacity:0.2;fill:#b33c3c" d="m 15.730417,32.416134 c 0.511126,1.355666 0.531676,2.876289 -1.542101,2.701772 -0.924095,-0.07777 1.22009,-0.272408 0.573006,-1.050055 -0.207542,-0.2494 -1.451205,-0.685544 -1.575322,-1.014746 -0.213125,-0.565298 0.715533,-0.005 0.830533,-0.522335 0.160776,-0.723273 -1.954805,-1.535022 -1.286656,-1.786932 1.146026,-0.432083 2.489414,0.316628 3.00054,1.672296 z"/>
</svg>
