<svg xmlns="http://www.w3.org/2000/svg" width="48" height="48" version="1.1">
 <circle style="opacity:0.2" cx="24" cy="25" r="20"/>
 <circle style="fill:#caa17d" cx="24" cy="24" r="20"/>
 <path style="opacity:0.2" d="m 20,29 0,10 c 0,1.108 0.892,2 2,2 l 2,0 c 1.108,0 2,-0.892 2,-2 l 0,-10 -6,0 z"/>
 <path style="opacity:0.2" d="m 20,9 c 0,0 10,5.530398 10,20 l -10,0 z"/>
 <path style="fill:#855629" d="m 20,28 0,10 c 0,1.108 0.892,2 2,2 l 2,0 c 1.108,0 2,-0.892 2,-2 l 0,-10 -6,0 z"/>
 <path style="fill:#b2bfd9" d="m 20,8 c 0,0 10,5.530398 10,20 l -10,0 z"/>
 <circle style="opacity:0.2" cx="23" cy="32" r="1"/>
 <circle style="fill:#b2bfd9" cx="23" cy="31" r="1"/>
 <circle style="opacity:0.2" cx="23" cy="38" r="1"/>
 <circle style="fill:#b2bfd9" cx="23" cy="37" r="1"/>
 <circle style="opacity:0.2" cx="37" cy="38" r="9"/>
 <circle style="fill:#e74c3c" cx="37" cy="37" r="9"/>
 <path style="opacity:0.1;fill-rule:evenodd" d="m 35,28 0,1.236328 a 9,9 0 0 0 -6.015625,4.691406 c 0.675226,-0.118183 2.071227,-0.469818 4.181641,-1.621093 C 34.003916,31.849441 34.724149,31.444534 35,31 c -2.392141,3 0.202102,3.43994 1.5,5 0,0 3.041249,-2 0.5,-5 3,1.460662 6,1 6,1 0,0 0.01627,-0.29409 -0.0039,-0.699219 A 9,9 0 0 0 37,29 l 0,-1 -2,0 z"/>
 <path style="fill:#a6ef4d;fill-rule:evenodd" d="m 35,27 0,1.236328 a 9,9 0 0 0 -6.015625,4.691406 c 0.675226,-0.118183 2.071227,-0.469818 4.181641,-1.621093 C 34.003916,30.849441 34.724149,30.444534 35,30 c -2.392141,3 0.202102,3.43994 1.5,5 0,0 3.041249,-2 0.5,-5 3,1.460662 6,1 6,1 0,0 0.01627,-0.29409 -0.0039,-0.699219 A 9,9 0 0 0 37,28 l 0,-1 -2,0 z"/>
 <path style="opacity:0.2;fill:#8b9cbe" d="M 24,4 A 20,20 0 0 0 4,24 20,20 0 0 0 4.0214844,24.582031 20,20 0 0 1 24,5 20,20 0 0 1 43.978516,24.417969 20,20 0 0 0 44,24 20,20 0 0 0 24,4 Z"/>
</svg>
