<svg xmlns="http://www.w3.org/2000/svg" width="48" height="48" version="1">
 <path style="opacity:0.2" d="M 20,6 19.835938,6.0957031 15,8 16,13 11.396484,15.105469 9,13 l -5,5 3,3.095703 0,8.832031 0,0.632813 0,0.900391 0,-0.798829 0,3.333985 C 7,33.996094 8,43 24,43 40,43 41,33.996094 41,33.996094 l 0,-3.333985 0,0.798829 0,-0.900391 0,-0.632813 0,-8.832031 L 44,18 39,13 36.603516,15.105469 32,13 33,8 28,6 26.289062,9 23.998047,9 21.707031,9 Z"/>
 <path style="fill:#3888c3" d="M 20,5 19.835938,5.0957031 15,7 16,12 11.396484,14.105469 9,12 l -5,5 3,3.095703 0,8.832031 0,0.632813 0,0.900391 0,-0.798829 0,3.333985 C 7,32.996094 8,42 24,42 40,42 41,32.996094 41,32.996094 l 0,-3.333985 0,0.798829 0,-0.900391 0,-0.632813 0,-8.832031 L 44,17 39,12 36.603516,14.105469 32,12 33,7 28,5 26.289062,8 23.998047,8 21.707031,8 Z"/>
 <g style="opacity:.2" transform="translate(0 .999891)">
  <path d="m14 20c2.2096 0 4 1.7904 4 4s-1.7904 4-4 4-4-1.7904-4-4 1.7904-4 4-4z"/>
  <path d="m16 24a2 2 0 1 1 -4 0 2 2 0 1 1 4 0z"/>
 </g>
 <path style="fill:#8b9cbe" d="m14 20c2.2096 0 4 1.7904 4 4s-1.7904 4-4 4-4-1.7904-4-4 1.7904-4 4-4z"/>
 <path style="fill:#353535" d="m16 24a2 2 0 1 1 -4 0 2 2 0 1 1 4 0z"/>
 <path style="opacity:.2" d="m24 23c1.108 0 2 0.669 2 1.499999v3.000001c0 0.830999-0.892 1.5-2 1.5s-2-0.669001-2-1.5v-3.000001c0-0.830999 0.892-1.499999 2-1.499999z"/>
 <path style="fill:#8b9cbe" d="m24 22.000109c1.108 0 2 0.669 2 1.499999v3.000001c0 0.830999-0.892 1.5-2 1.5s-2-0.669001-2-1.5v-3.000001c0-0.830999 0.892-1.499999 2-1.499999z"/>
 <g style="opacity:.2" transform="translate(20 .999891)">
  <path d="m14 20c2.2096 0 4 1.7904 4 4s-1.7904 4-4 4-4-1.7904-4-4 1.7904-4 4-4z"/>
  <path d="m16 24a2 2 0 1 1 -4 0 2 2 0 1 1 4 0z"/>
 </g>
 <g transform="translate(20)">
  <path style="fill:#8b9cbe" d="m14 20c2.2096 0 4 1.7904 4 4s-1.7904 4-4 4-4-1.7904-4-4 1.7904-4 4-4z"/>
  <path style="fill:#353535" d="m16 24a2 2 0 1 1 -4 0 2 2 0 1 1 4 0z"/>
 </g>
 <path style="opacity:0.2;fill:none;stroke:#000000;stroke-width:2;stroke-linejoin:round" d="m 41,33 -6,0 0,3 -7,0 0,-3 -4,0 m -17,0 6,0 0,3 7,0 0,-3 4,0"/>
 <path style="fill:none;stroke:#8b9cbe;stroke-width:2;stroke-linejoin:round" d="m 41,32 -6,0 0,3 -7,0 0,-3 -4,0 m -17,0 6,0 0,3 7,0 0,-3 4,0"/>
 <path style="fill:#8b9cbe;opacity:0.2" d="M 20 5 L 19.835938 5.0957031 L 15 7 L 15.185547 7.9277344 L 19.835938 6.0957031 L 20 6 L 21.707031 9 L 23.998047 9 L 26.289062 9 L 28 6 L 32.814453 7.9257812 L 33 7 L 28 5 L 26.289062 8 L 23.998047 8 L 21.707031 8 L 20 5 z M 9 12 L 4 17 L 4.4921875 17.507812 L 9 13 L 11.396484 15.105469 L 16 13 L 15.816406 12.083984 L 11.396484 14.105469 L 9 12 z M 39 12 L 36.603516 14.105469 L 32.183594 12.083984 L 32 13 L 36.603516 15.105469 L 39 13 L 43.507812 17.507812 L 44 17 L 39 12 z"/>
</svg>
