<svg xmlns="http://www.w3.org/2000/svg" width="48" height="48" version="1.1">
 <circle style="opacity:0.2" cx="24" cy="25" r="20"/>
 <circle style="fill:#285da4" cx="24" cy="24" r="20"/>
 <path style="opacity:0.1;fill:#8b9cbe" d="M 24 4 A 20 20 0 0 0 4 24 A 20 20 0 0 0 4.0215 24.582 A 20 20 0 0 1 24 5 A 20 20 0 0 1 43.979 24.418 A 20 20 0 0 0 44 24 A 20 20 0 0 0 24 4 z"/>
 <path style="opacity:0.2" d="M 7.219,15.499 C 7.145,15.644 7.071,15.788 7,15.933 8.125,16.558 11.367,18.187 12.906,19.152 14.851,20.343 17.48,22.773 17.687,23.182 15.664,26.705 16.582,29.823 16.343,30.155 16.171,30.432 14.581,32.178 15.093,32.436 15.601,32.69 16.409,32.291 16.531,32.213 16.785,32.057 17.047,31.83 16.937,32.279 16.722,33.197 15.746,35.404 17.093,34.935 17.257,34.841 19.425,32.451 19.687,32.369 24,33.494 28.824,32.978 29.717,32.56 30.182,32.591 31.498,33.419 32.248,33.814 32.998,34.205 35.041,35.185 34.436,33.404 34.248,32.841 32.905,31.404 33.123,31.31 33.603,31.119 34.791,31.806 35.248,31.935 36.615,32.318 36.799,31.787 35.936,30.619 35.084,29.451 34.956,29.631 34.686,29.092 34.475,28.658 34.686,28.178 34.842,28.061 35.119,27.85 39.201,25.584 40.158,24.717 41.576,23.428 40.158,21.819 39.81,21.592 36.869,19.475 33.849,19.928 33.81,19.592 33.79,19.209 33.798,18.104 33.747,17.721 33.454,15.127 32.255,15.78 32.091,15.78 30.892,15.968 31.333,17.803 31.841,19.53 31.88,19.971 31.423,19.776 31.153,19.311 30.231,16.838 29.844,16.881 29.59,16.807 29.344,16.752 28.477,17.28 28.492,18.28 28.496,18.565 28.836,19.925 28.836,20.343 28.27,20.839 28.242,21.964 27.648,22.374 25.918,22.733 21.761,21.519 21.242,21.464 19.445,21.128 18.66,22.476 18.371,22.152 16.039,19.48 12.476,17.496 10.933,17.152 10.335,17.023 8.316,16.132 7.589,15.683 7.472,15.613 7.339,15.562 7.21,15.495 M 39.28,17.839 C 38.717,18.444 38.815,20.706 38.932,20.687 39.506,20.57 39.452,17.657 39.28,17.839 M 40.909,18.183 C 40.843,17.999 39.362,20.078 39.624,20.843 39.741,21.175 41.108,18.765 40.909,18.183 M 33.218,21.718 C 33.238,21.698 33.261,21.726 33.284,21.749 33.456,22.319 33.647,22.862 34.78,22.999 34.913,23.015 34.151,23.46 33.628,23.187 33.151,22.898 33.108,21.847 33.218,21.718 M 36.156,24.589 C 36.261,24.573 36.336,24.577 36.41,24.589 36.687,24.659 34.4,25.851 34.222,25.687 34.113,25.582 35.441,24.722 36.16,24.589 M 36.754,25.343 C 36.992,25.363 35.43,26.98 35.254,26.812 35.125,26.695 36.266,25.304 36.754,25.343"/>
 <path style="fill:#f9f9f9" d="M 7.219,14.499 C 7.145,14.644 7.071,14.788 7,14.933 8.125,15.558 11.367,17.187 12.906,18.152 14.851,19.343 17.48,21.773 17.687,22.182 15.664,25.705 16.582,28.823 16.343,29.155 16.171,29.432 14.581,31.178 15.093,31.436 15.601,31.69 16.409,31.291 16.531,31.213 16.785,31.057 17.047,30.83 16.937,31.279 16.722,32.197 15.746,34.404 17.093,33.935 17.257,33.841 19.425,31.451 19.687,31.369 24,32.494 28.824,31.978 29.717,31.56 30.182,31.591 31.498,32.419 32.248,32.814 32.998,33.205 35.041,34.185 34.436,32.404 34.248,31.841 32.905,30.404 33.123,30.31 33.603,30.119 34.791,30.806 35.248,30.935 36.615,31.318 36.799,30.787 35.936,29.619 35.084,28.451 34.956,28.631 34.686,28.092 34.475,27.658 34.686,27.178 34.842,27.061 35.119,26.85 39.201,24.584 40.158,23.717 41.576,22.428 40.158,20.819 39.81,20.592 36.869,18.475 33.849,18.928 33.81,18.592 33.79,18.209 33.798,17.104 33.747,16.721 33.454,14.127 32.255,14.78 32.091,14.78 30.892,14.968 31.333,16.803 31.841,18.53 31.88,18.971 31.423,18.776 31.153,18.311 30.231,15.838 29.844,15.881 29.59,15.807 29.344,15.752 28.477,16.28 28.492,17.28 28.496,17.565 28.836,18.925 28.836,19.343 28.27,19.839 28.242,20.964 27.648,21.374 25.918,21.733 21.761,20.519 21.242,20.464 19.445,20.128 18.66,21.476 18.371,21.152 16.039,18.48 12.476,16.496 10.933,16.152 10.335,16.023 8.316,15.132 7.589,14.683 7.472,14.613 7.339,14.562 7.21,14.495 M 39.28,16.839 C 38.717,17.444 38.815,19.706 38.932,19.687 39.506,19.57 39.452,16.657 39.28,16.839 M 40.909,17.183 C 40.843,16.999 39.362,19.078 39.624,19.843 39.741,20.175 41.108,17.765 40.909,17.183 M 33.218,20.718 C 33.238,20.698 33.261,20.726 33.284,20.749 33.456,21.319 33.647,21.862 34.78,21.999 34.913,22.015 34.151,22.46 33.628,22.187 33.151,21.898 33.108,20.847 33.218,20.718 M 36.156,23.589 C 36.261,23.573 36.336,23.577 36.41,23.589 36.687,23.659 34.4,24.851 34.222,24.687 34.113,24.582 35.441,23.722 36.16,23.589 M 36.754,24.343 C 36.992,24.363 35.43,25.98 35.254,25.812 35.125,25.695 36.266,24.304 36.754,24.343"/>
</svg>
