<svg xmlns="http://www.w3.org/2000/svg" width="48" height="48" version="1">
 <rect style="opacity:0.2" width="40" height="40" x="4" y="5" rx="4" ry="4"/>
 <rect style="fill:#4caf50" width="40" height="40" x="4" y="4" rx="4" ry="4"/>
 <rect style="opacity:0.2" width="8" height="19" x="20" y="4"/>
 <path style="opacity:0.2;fill:#8b9cbe" d="M 8 4 C 5.784 4 4 5.784 4 8 L 4 9 C 4 6.784 5.784 5 8 5 L 40 5 C 42.216 5 44 6.784 44 9 L 44 8 C 44 5.784 42.216 4 40 4 L 8 4 z"/>
 <rect style="fill:#8b9cbe" width="2" height="2" x="22" y="18"/>
 <path style="fill:#4b4b4b" d="m 24,18 c 3,0 3,4 4,4 v 5 c 0,0.554 -0.446,1 -1,1 h -6 c -0.554,0 -1,-0.446 -1,-1 v -5 c 1,0 1,-4 4,-4 z"/>
 <rect style="fill:#8b9cbe" width="2" height="2" x="24" y="16"/>
 <rect style="fill:#8b9cbe" width="2" height="2" x="22" y="14"/>
 <rect style="fill:#8b9cbe" width="2" height="2" x="24" y="12"/>
 <rect style="fill:#8b9cbe" width="2" height="2" x="22" y="10"/>
 <rect style="fill:#8b9cbe" width="2" height="2" x="24" y="8"/>
 <rect style="fill:#8b9cbe" width="2" height="2" x="22" y="6"/>
 <rect style="fill:#8b9cbe" width="2" height="2" x="24" y="4"/>
 <path style="opacity:0.2" d="M 23.734375,24 C 21.666108,24 20,25.659635 20,27.71875 v 7.5625 C 20,37.340366 21.666108,39 23.734375,39 h 0.53125 C 26.333892,39 28,37.340366 28,35.28125 v -7.5625 C 28,25.659635 26.333892,24 24.265625,24 Z M 24,32 c 1.656854,3e-6 3,1.345149 3,3.001953 C 27,36.658758 25.656854,38 24,38 22.343146,38 21,36.658758 21,35.001953 21,33.345149 22.343146,32.000003 24,32 Z"/>
 <path style="fill:#8b9cbe" d="M 23.734375 23 C 21.666108 23 20 24.659635 20 26.71875 L 20 34.28125 C 20 36.340366 21.666108 38 23.734375 38 L 24.265625 38 C 26.333892 38 28 36.340366 28 34.28125 L 28 26.71875 C 28 24.659635 26.333892 23 24.265625 23 L 23.734375 23 z M 24 31 C 25.656854 31.000003 27 32.345149 27 34.001953 C 27 35.658758 25.656854 37 24 37 C 22.343146 37 21 35.658758 21 34.001953 C 21 32.345149 22.343146 31.000003 24 31 z"/>
 <path style="fill:#909090" d="M 23.984375,20.000122 A 1.0001,0.99544853 0 0 0 23,21.009079 v 3.981396 a 1.0001,0.99544853 0 1 0 2,0 v -3.981396 a 1.0001,0.99544853 0 0 0 -1.015625,-1.008957 z"/>
</svg>
