<svg xmlns="http://www.w3.org/2000/svg" width="48" height="48" version="1">
 <rect style="opacity:0.2" width="40" height="33" x="-45" y="-37" rx="2" ry="2" transform="matrix(0,-1,-1,0,0,0)"/>
 <rect style="fill:#1e3d7d" width="40" height="33" x="-44" y="-37" rx="2" ry="2" transform="matrix(0,-1,-1,0,0,0)"/>
 <path style="fill:#8b9cbe" d="M 37,9 V 36 H 22 Z"/>
 <path style="fill:#8b9cbe;opacity:0.1" d="M 6 4 C 4.892 4 4 4.892 4 6 L 4 7 C 4 5.892 4.892 5 6 5 L 35 5 C 36.108 5 37 5.892 37 7 L 37 6 C 37 4.892 36.108 4 35 4 L 6 4 z"/>
 <path style="opacity:0.2" d="m 4,13 v 6 h 6 v -6 z m 0,9 v 2 h 22 v -2 z m 0,4 v 2 h 22 v -2 z m 0,4 v 2 h 22 v -2 z"/>
 <path style="fill:#8b9cbe" d="M 4 12 L 4 18 L 10 18 L 10 12 L 4 12 z M 4 21 L 4 23 L 26 23 L 26 21 L 4 21 z M 4 25 L 4 27 L 26 27 L 26 25 L 4 25 z M 4 29 L 4 31 L 26 31 L 26 29 L 4 29 z"/>
 <path style="opacity:0.2" d="M 34.585938,5 18,35.529297 V 40 h 17 v 5 h 6 v -5 h 3 V 34 H 41 V 5 H 38 Z M 35,16.453125 V 34 h -9.869141 z"/>
 <path style="fill:#ff950e" d="M 34.585938 4 L 18 34.529297 L 18 39 L 35 39 L 35 44 L 41 44 L 41 39 L 44 39 L 44 33 L 41 33 L 41 4 L 38 4 L 34.585938 4 z M 35 15.453125 L 35 33 L 25.130859 33 L 35 15.453125 z"/>
 <path style="opacity:0.2;fill:#8b9cbe" d="M 34.585938 4 L 18 34.529297 L 18 35.529297 L 34.585938 5 L 38 5 L 41 5 L 41 4 L 38 4 L 34.585938 4 z M 25.693359 33 L 25.130859 34 L 35 34 L 35 33 L 25.693359 33 z M 41 33 L 41 34 L 44 34 L 44 33 L 41 33 z"/>
</svg>
