<svg xmlns="http://www.w3.org/2000/svg" width="48" height="48" version="1">
 <path style="opacity:0.2" d="m 24.108302,5.0009966 a 4.5656761,4.5479 0 0 0 -2.39104,0.6067 L 8.283038,13.333697 A 4.5656761,4.5479 0 0 0 6,17.272697 v 15.453 a 4.5656761,4.5479 0 0 0 2.282838,3.9386 l 13.434224,7.7264 a 4.5656761,4.5479 0 0 0 4.565676,0 l 13.434224,-7.7264 A 4.5656761,4.5479 0 0 0 42,32.725297 v -15.453 a 4.5656761,4.5479 0 0 0 -2.283038,-3.939 L 26.282738,5.6072966 a 4.5656761,4.5479 0 0 0 -2.175036,-0.6067 z"/>
 <path style="fill:#e4ba75" d="m 6.0078125,15.945149 c -0.00453,0.07609 -0.00713,0.15229 -0.00781,0.228515 v 15.552898 c 4.687e-4,1.624491 0.8707782,3.125384 2.2832031,3.9375 l 13.4335934,7.726563 c 1.412812,0.812684 3.153595,0.812684 4.566406,0 L 39.716797,35.664062 C 41.129829,34.851597 42.000232,33.349798 42,31.724609 V 16.173664 C 41.9978,16.116314 41.9946,16.059014 41.9902,16.001788 42,16 6.0078125,15.945149 6.0078125,15.945149 Z"/>
 <path style="opacity:0.1" d="M 23.892578 4 C 23.850655 4.0009654 23.809389 4.0076564 23.767578 4.0097656 A 4.5691466 4.5479 0 0 1 24 4.0039062 L 24 4 L 23.892578 4 z M 23.470703 4.0351562 C 23.398876 4.0434765 23.327098 4.0508169 23.255859 4.0625 A 4.5691466 4.5479 0 0 1 23.470703 4.0351562 z M 22.277344 4.3359375 C 22.213573 4.3617504 22.152472 4.3931746 22.089844 4.421875 A 4.5691466 4.5479 0 0 1 22.277344 4.3359375 z M 7.8417969 12.619141 C 7.7948802 12.653778 7.7504685 12.690288 7.7050781 12.726562 A 4.5691466 4.5479 0 0 1 7.8417969 12.619141 z M 7.4335938 12.960938 C 7.3904425 13.001391 7.3480839 13.041987 7.3066406 13.083984 A 4.5691466 4.5479 0 0 1 7.4335938 12.960938 z M 7.0507812 13.367188 C 7.0235462 13.399852 6.9950346 13.431462 6.96875 13.464844 A 4.5691466 4.5479 0 0 1 7.0507812 13.367188 z M 6.4140625 14.365234 C 6.402749 14.389637 6.3936953 14.414842 6.3828125 14.439453 A 4.5691466 4.5479 0 0 1 6.4140625 14.365234 z M 6.2246094 14.849609 C 6.210489 14.892339 6.1984075 14.935312 6.1855469 14.978516 A 4.5691466 4.5479 0 0 1 6.2246094 14.849609 z M 6.0800781 15.400391 C 6.0749747 15.426494 6.0691025 15.452285 6.0644531 15.478516 A 4.5691466 4.5479 0 0 1 6.0800781 15.400391 z M 6.0019531 16 C 6.0016001 16.005926 6.00033 16.011648 6 16.017578 C 6.0019 16.035818 6.0037594 16.054046 6.0058594 16.072266 C 6.0037594 16.106118 6.0013 16.139938 6 16.173828 L 6 31.724609 C 5.999768 33.349798 6.8701711 34.851597 8.2832031 35.664062 L 21.716797 43.390625 C 22.418591 43.794315 23.216751 43.9974 24 44 L 24 27.996094 A 4.5691466 4.5479 0 0 1 21.714844 27.390625 L 8.2714844 19.664062 A 4.5691466 4.5479 0 0 1 6.0019531 16 z"/>
 <path style="fill:#b89863" d="M 24.107504,4 V 4.00195 A 4.5691466,4.5479 0 0 0 21.715061,4.6074219 L 8.2712563,12.333984 A 4.5691466,4.5479 0 0 0 6,15.980469 4.5691466,4.5479 0 0 0 8.2712563,19.664062 l 13.4438047,7.726563 a 4.5691466,4.5479 0 0 0 4.569877,0 L 39.728744,19.664062 A 4.5691466,4.5479 0 0 0 42,16.017578 4.5691466,4.5479 0 0 0 39.728744,12.333984 L 26.284938,4.6074219 A 4.5691466,4.5479 0 0 0 24.107504,4 Z"/>
 <path style="opacity:0.07" d="M 24 4 L 24 27.978516 A 4.5691466 4.5479 0 0 0 26.285156 27.373047 L 39.728516 19.646484 A 4.5691466 4.5479 0 0 0 41.998047 16.009766 C 41.987369 15.823807 41.964498 15.63977 41.931641 15.458984 A 4.5691466 4.5479 0 0 0 41.931641 15.451172 C 41.930665 15.445858 41.928728 15.440855 41.927734 15.435547 C 41.894966 15.260517 41.853392 15.088454 41.800781 14.919922 A 4.5691466 4.5479 0 0 0 41.796875 14.904297 C 41.794936 14.898161 41.791028 14.892845 41.789062 14.886719 C 41.447999 13.823423 40.722102 12.906999 39.728516 12.333984 L 26.285156 4.6074219 C 25.621854 4.2265023 24.873003 4.01763 24.107422 4 L 24 4 z"/>
 <path style="opacity:0.2;fill:#8b9cbe" d="M 24.107422 4 L 24.107422 4.0019531 A 4.5691466 4.5479 0 0 0 21.714844 4.6074219 L 8.2714844 12.333984 A 4.5691466 4.5479 0 0 0 6 15.980469 A 4.5691466 4.5479 0 0 0 6.0625 16.494141 A 4.5691466 4.5479 0 0 1 8.2714844 13.333984 L 21.714844 5.6074219 A 4.5691466 4.5479 0 0 1 24.107422 5.0019531 L 24.107422 5 A 4.5691466 4.5479 0 0 1 26.285156 5.6074219 L 39.728516 13.333984 A 4.5691466 4.5479 0 0 1 41.9375 16.501953 A 4.5691466 4.5479 0 0 0 42 16.017578 A 4.5691466 4.5479 0 0 0 39.728516 12.333984 L 26.285156 4.6074219 A 4.5691466 4.5479 0 0 0 24.107422 4 z"/>
 <path style="opacity:0.1" d="M 6.0625 15.494141 A 4.5691466 4.5479 0 0 0 6 15.980469 A 4.5691466 4.5479 0 0 0 8.2714844 19.664062 L 21.714844 27.390625 A 4.5691466 4.5479 0 0 0 26.285156 27.390625 L 39.728516 19.664062 A 4.5691466 4.5479 0 0 0 42 16.017578 A 4.5691466 4.5479 0 0 0 41.9375 15.503906 A 4.5691466 4.5479 0 0 1 39.728516 18.664062 L 26.285156 26.390625 A 4.5691466 4.5479 0 0 1 21.714844 26.390625 L 8.2714844 18.664062 A 4.5691466 4.5479 0 0 1 6.0625 15.494141 z"/>
</svg>
