<svg xmlns="http://www.w3.org/2000/svg" width="48" height="48" version="1">
 <rect style="opacity:.2" width="38" height="34" x="5" y="10" rx="1.9" ry="1.889"/>
 <path style="fill:#4f4f4f" d="m6.9 4.9996641h34.2c1.0526 0 1.9 0.8424444 1.9 1.8888888v34.223003c0 1.046444-0.8474 1.888888-1.9 1.888888h-34.2c-1.0526 0-1.9-0.842444-1.9-1.888888v-34.223003c0-1.0464445 0.8474-1.8888889 1.9-1.8888889z"/>
 <path style="opacity:.2;stroke-linejoin:round;stroke:#000000;stroke-linecap:round;stroke-width:4;fill:none" d="m4 25.000499h14l4-10 4 20 4-10h14"/>
 <path style="stroke-linejoin:round;stroke:#00c0c9;stroke-linecap:round;stroke-width:4;fill:none" d="m4 24h14l4-10 4 20 4-10h14"/>
 <path style="opacity:.1;fill:#8b9cbe" d="m6.9003906 4.9996641c-1.0526 0-1.9003906 0.8422275-1.9003906 1.8886719v1c0-1.0464444 0.8477906-1.8886719 1.9003906-1.8886719h34.199218c1.0526 0 1.900391 0.8422275 1.900391 1.8886719v-1c0-1.0464444-0.847791-1.8886719-1.900391-1.8886719z"/>
</svg>
