<svg xmlns="http://www.w3.org/2000/svg" width="48" height="48" version="1">
 <rect style="opacity:0.2" width="40" height="40" x="4" y="5" rx="2" ry="2"/>
 <rect style="fill:#b2bfd9" width="40" height="40" x="4" y="4" rx="2" ry="2"/>
 <path style="opacity:0.1" d="M 34.601562,8 C 31.497855,8 29,10.497855 29,13.601562 v 0.796876 C 29,17.502145 31.497855,20 34.601562,20 h 0.796876 C 38.502145,20 41,17.502145 41,14.398438 V 13.601562 C 41,10.497855 38.502145,8 35.398438,8 Z M 10,9 v 7.845703 c 0,0 0.02585,1.30153 -1.3671875,1.998047 l 1.0253906,1.650391 C 11.957473,19.344504 12,16.845703 12,16.845703 V 17 h 5 v 0.308594 c 0,0 0.04036,0.538663 -0.164062,1.029297 -0.204434,0.490634 -0.3814,0.816406 -1.166016,0.816406 H 15.207031 L 14.384766,21 h 0.923828 0.460937 c 1.523077,0 2.498605,-1.059143 2.871094,-1.953125 C 19.013119,18.152893 19,17.308594 19,17.308594 V 9 Z m 2,2 h 5 v 1 h -5 z m 0,3 h 5 v 1 h -5 z m 24,15 c -0.552273,0 -1,0.447722 -1,1 0,0.55227 0.447727,1.000001 1,1 0.552273,0 1,-0.44773 1,-1 0,-0.552274 -0.447727,-0.999999 -1,-1 z m -23.003906,1 c -0.294384,0 -0.561256,0.0563 -0.798828,0.169922 -0.299548,0.144609 -0.531998,0.299576 -0.697266,0.464844 -0.196256,0.196256 -0.348575,0.420764 -0.457031,0.673828 -0.108458,0.253067 -0.16211,0.53053 -0.16211,0.830078 0,0.289218 0.05296,0.562081 0.15625,0.820312 0.103293,0.258234 0.256306,0.485386 0.462891,0.681641 0.05165,0.05164 0.13972,0.12383 0.263672,0.216797 0.08263,0.06197 0.160119,0.12887 0.232422,0.201172 0.185927,0.1756 0.335597,0.394112 0.449218,0.652344 0.113622,0.253064 0.171876,0.552403 0.171876,0.898437 -0.325371,0 -0.616074,-0.05295 -0.869141,-0.15625 -0.253067,-0.103296 -0.482869,-0.25826 -0.689453,-0.464844 -0.103288,-0.103286 -0.170179,-0.175477 -0.201172,-0.216797 -0.09297,-0.134282 -0.165157,-0.225697 -0.216797,-0.277343 -0.196255,-0.196253 -0.418114,-0.348576 -0.6660156,-0.457032 -0.242738,-0.108458 -0.5208955,-0.164062 -0.8359375,-0.164062 -0.2995482,0 -0.5770117,0.0556 -0.8300781,0.164062 C 8.0555273,34.145565 7.8310216,34.297888 7.6347656,34.494141 7.4488395,34.680069 7.293873,34.912513 7.1699219,35.191406 7.0563004,35.439304 7,35.709522 7,36.003906 c 0,0.294384 0.0563,0.561255 0.1699219,0.798828 0.1394446,0.299548 0.2944111,0.531999 0.4648437,0.697266 0.196256,0.196256 0.4207617,0.348577 0.6738282,0.457031 0.2530664,0.108459 0.5305299,0.16211 0.8300781,0.16211 0.2892193,0 0.5620818,-0.05295 0.8203125,-0.15625 C 10.217216,37.859605 10.44437,37.706585 10.640625,37.5 c 0.05165,-0.05165 0.123834,-0.139719 0.216797,-0.263672 0.06198,-0.08264 0.128869,-0.160119 0.201172,-0.232422 0.201419,-0.201418 0.428573,-0.35374 0.68164,-0.457031 0.258232,-0.108456 0.551583,-0.164063 0.876954,-0.164063 0,0.330533 -0.05561,0.623882 -0.164063,0.876954 -0.103293,0.247898 -0.255611,0.477705 -0.457031,0.689453 -0.06714,0.06715 -0.141976,0.131386 -0.22461,0.193359 -0.129121,0.09297 -0.219844,0.165157 -0.271484,0.216797 -0.201421,0.201421 -0.354434,0.431226 -0.462891,0.689453 -0.103292,0.258231 -0.15625,0.531091 -0.15625,0.820313 0,0.299544 0.05365,0.57701 0.16211,0.830078 0.108456,0.253068 0.260775,0.477576 0.457031,0.673828 0.185927,0.185933 0.418376,0.340896 0.697266,0.464844 C 12.440003,41.946349 12.709523,42 13.003906,42 c 0.294384,0 0.56195,-0.05365 0.804688,-0.162109 0.27889,-0.123948 0.511339,-0.278911 0.697265,-0.464844 0.196256,-0.196252 0.348574,-0.42076 0.457032,-0.673828 0.108456,-0.253068 0.164062,-0.530534 0.164062,-0.830078 0,-0.289222 -0.05561,-0.562082 -0.164062,-0.820313 -0.103292,-0.258227 -0.255611,-0.488032 -0.457032,-0.689453 -0.05165,-0.05165 -0.140416,-0.123835 -0.269531,-0.216797 -0.08263,-0.06198 -0.157468,-0.126218 -0.224609,-0.193359 -0.170432,-0.170432 -0.317455,-0.386304 -0.441407,-0.644531 -0.118786,-0.263404 -0.179687,-0.570688 -0.179687,-0.921876 0.330535,0 0.621239,0.05561 0.869141,0.164063 0.253066,0.103291 0.485516,0.255613 0.697265,0.457031 0.06714,0.06714 0.131386,0.141976 0.19336,0.22461 0.09297,0.129123 0.165156,0.219844 0.216797,0.271484 0.201419,0.201421 0.431221,0.354441 0.689453,0.462891 0.25823,0.103298 0.531093,0.15625 0.820312,0.15625 0.299548,0 0.577011,-0.05365 0.830078,-0.16211 0.253066,-0.108454 0.477572,-0.260775 0.673828,-0.457031 0.185927,-0.185929 0.340893,-0.41838 0.464844,-0.697266 0.108457,-0.242736 0.162109,-0.512256 0.162109,-0.80664 0,-0.294385 -0.05365,-0.561953 -0.162109,-0.804688 -0.123951,-0.278893 -0.278917,-0.511337 -0.464844,-0.697265 -0.196256,-0.196253 -0.420762,-0.348576 -0.673828,-0.457032 -0.253067,-0.108458 -0.53053,-0.164062 -0.830078,-0.164062 -0.289219,0 -0.562082,0.0556 -0.820312,0.164062 -0.258232,0.103293 -0.488033,0.255616 -0.689453,0.457032 -0.05165,0.05165 -0.123834,0.140414 -0.216797,0.269531 -0.06198,0.08264 -0.126218,0.157475 -0.19336,0.224609 -0.170432,0.170437 -0.388948,0.317459 -0.652343,0.441407 -0.258232,0.11879 -0.562869,0.179687 -0.914063,0.179687 0,-0.325369 0.05031,-0.613423 0.148437,-0.861328 0.103292,-0.253068 0.260907,-0.482866 0.472657,-0.689453 0.10329,-0.103304 0.175477,-0.170199 0.216797,-0.201172 0.134286,-0.09297 0.225703,-0.165157 0.277343,-0.216797 0.196256,-0.196255 0.348574,-0.415464 0.457032,-0.658203 0.108456,-0.247901 0.164062,-0.528707 0.164062,-0.84375 0,-0.299548 -0.05561,-0.577011 -0.164062,-0.830078 C 14.854433,31.05553 14.702115,30.831022 14.505859,30.634766 14.319933,30.44884 14.087484,30.293873 13.808594,30.169922 13.560692,30.0563 13.290477,30 12.996094,30 Z M 34,32 c -0.552273,0 -1,0.44773 -1,1 0,0.552277 0.447727,1 1,1 0.552273,0 1,-0.447726 1,-1 0,-0.55227 -0.447727,-1 -1,-1 z m 4,0 c -0.552273,0 -1,0.44773 -1,1 0,0.552277 0.447727,1 1,1 0.552273,0 1,-0.447726 1,-1 0,-0.55227 -0.447727,-1 -1,-1 z m 3,2.425781 -2,0.859375 v 1.71875 h -2 v -0.859375 -0.859375 l -2,0.859375 v 0.859375 L 33,37 v -1 l -2,1.154297 V 39 c 0,0.552285 -0.447715,1 -1,1 -0.552285,0 -1,-0.447715 -1,-1 v -0.691406 l -1.962891,1.134765 C 27.256429,40.911111 28.515954,41.997938 30,42 c 1.647739,-10e-4 2.986247,-1.330819 2.998047,-2.978516 H 33 l 8,0.002 z"/>
 <path style="opacity:0.1" d="M 23 4 L 23 23 L 4 23 L 4 25 L 23 25 L 23 44 L 25 44 L 25 25 L 44 25 L 44 23 L 25 23 L 25 4 L 23 4 z"/>
 <path fill="#fff" opacity=".2" d="m4 7v-1c0-1.108 0.892-2 2-2h36c1.108 0 2 0.892 2 2v1c0-1.108-0.892-2-2-2h-36c-1.108 0-2 0.892-2 2z"/>
 <rect style="fill:#ffb820" width="12" height="12" x="29" y="7" rx="5.602" ry="5.602"/>
 <path style="fill:#c01c27" d="m 33,15 h 4 c 0,0 0,1 -2,1 -2,0 -2,-1 -2,-1 z"/>
 <rect style="fill:#8b9cbe" width="4" height="1" x="33" y="14"/>
 <path style="fill:#b45600" d="M 32,11.500001 C 32,11.223855 32.22386,11 32.500001,11 32.77614,11 33,11.223855 33,11.500001 V 13 h -1 z"/>
 <path style="fill:#4191ef" d="m 10,8.0000002 v 7.8461538 c 0,0 0.02599,1.301079 -1.3670455,1.997596 l 1.0258601,1.650541 C 11.958084,18.344654 12,15.846154 12,15.846154 V 16 h 5 v 0.307692 c 0,0 0.04125,0.538814 -0.163171,1.029448 -0.204434,0.490634 -0.382752,0.816706 -1.167368,0.816706 H 15.207923 L 14.384616,20 h 0.923077 0.461538 c 1.523077,0 2.498605,-1.058542 2.871094,-1.952524 C 19.012819,17.153494 19,16.307692 19,16.307692 V 8.0000002 Z M 12,10 h 5 v 1 h -5 z m 0,3 h 5 v 1 h -5 z"/>
 <path style="fill:#26a269" d="m 35.999891,28 c -0.552273,0 -1,0.447722 -1,1 0,0.55227 0.447727,1.000001 1,1 0.552273,0 1,-0.44773 1,-1 0,-0.552274 -0.447727,-0.999999 -1,-1 z m -2,3 c -0.552273,0 -1,0.44773 -1,1 0,0.552277 0.447727,1 1,1 0.552273,0 1,-0.447726 1,-1 0,-0.55227 -0.447727,-1 -1,-1 z m 4,0 c -0.552273,0 -1,0.44773 -1,1 0,0.552277 0.447727,1 1,1 0.552273,0 1,-0.447726 1,-1 0,-0.55227 -0.447727,-1 -1,-1 z m 3,2.425781 -2,0.859375 v 1.71875 h -2 v -0.859375 -0.859375 l -2,0.859375 v 0.859375 l -2,-0.0039 v -1 l -2,1.154297 V 38 c 0,0.552285 -0.447715,1 -1,1 -0.552285,0 -1,-0.447715 -1,-1 V 37.308594 L 27.037,38.443359 c 0.21932,1.467752 1.478845,2.554579 2.962891,2.556641 1.647739,-10e-4 2.986247,-1.330819 2.998047,-2.978516 h 0.002 l 8,0.002 z"/>
 <path style="fill:#a347ba" d="m 12.616527,34.608782 q 0,-0.519051 -0.170432,-0.898647 -0.170432,-0.387347 -0.449323,-0.650747 -0.108454,-0.108453 -0.232407,-0.201415 -0.185928,-0.13945 -0.263396,-0.216914 -0.309877,-0.294383 -0.464816,-0.681734 -0.154939,-0.387347 -0.154939,-0.821174 0,-0.449322 0.162686,-0.828923 0.162685,-0.379596 0.457069,-0.67398 0.247902,-0.247901 0.697224,-0.464815 Q 12.554552,29 12.996127,29 q 0.441575,0 0.813428,0.170433 0.418335,0.185926 0.697224,0.464815 0.294383,0.294384 0.457069,0.67398 0.162685,0.379601 0.162685,0.828923 0,0.472565 -0.162685,0.844417 -0.162686,0.364108 -0.457069,0.658491 -0.07746,0.07746 -0.278889,0.216914 -0.06198,0.04646 -0.216915,0.201415 -0.317624,0.309881 -0.472562,0.689483 -0.147192,0.371857 -0.147192,0.859911 0.526791,0 0.914138,-0.178186 0.395093,-0.185922 0.650742,-0.441577 0.100712,-0.100701 0.193674,-0.224654 0.139445,-0.193675 0.216914,-0.271149 0.30213,-0.302123 0.689477,-0.457062 0.387346,-0.162688 0.821175,-0.162688 0.449322,0 0.828923,0.162688 0.379598,0.162683 0.673982,0.457062 0.27889,0.278893 0.464816,0.697233 0.162685,0.364102 0.162685,0.805679 0,0.441577 -0.162685,0.805681 -0.185926,0.418329 -0.464816,0.697222 -0.294384,0.294384 -0.673982,0.457066 -0.379601,0.162688 -0.828923,0.162688 -0.433829,0 -0.821175,-0.154948 -0.387347,-0.162674 -0.689477,-0.464806 -0.07746,-0.07746 -0.216914,-0.271145 -0.09296,-0.12395 -0.193674,-0.224663 -0.317624,-0.302128 -0.697224,-0.457065 -0.371853,-0.162684 -0.867656,-0.162684 0,0.526781 0.178179,0.921886 0.185927,0.387341 0.441575,0.642988 0.100712,0.100712 0.224662,0.193681 0.193673,0.139443 0.271142,0.216913 0.302131,0.302132 0.457069,0.689473 0.162685,0.387347 0.162685,0.821179 0,0.449317 -0.162685,0.828919 -0.162686,0.379602 -0.457069,0.67398 -0.278889,0.278899 -0.697224,0.46482 Q 13.445449,41 13.003874,41 q -0.441575,0 -0.805681,-0.162687 -0.418334,-0.185921 -0.697224,-0.46482 -0.294384,-0.294378 -0.457069,-0.67398 -0.162686,-0.379602 -0.162686,-0.828919 0,-0.433832 0.154939,-0.821179 0.162685,-0.387341 0.464816,-0.689473 0.07746,-0.07746 0.271142,-0.216913 0.123951,-0.09296 0.224661,-0.193681 0.302131,-0.317621 0.45707,-0.689469 0.162685,-0.379607 0.162685,-0.875405 -0.488056,0 -0.875403,0.162684 -0.379601,0.154937 -0.68173,0.457065 -0.108454,0.108454 -0.201421,0.232408 -0.139445,0.18593 -0.216914,0.2634 -0.294383,0.309877 -0.6817303,0.464806 -0.387346,0.154948 -0.821175,0.154948 -0.4493222,0 -0.8289219,-0.162688 Q 7.9296321,36.793415 7.6352481,36.499031 7.3795992,36.25113 7.1704322,35.801809 7,35.445449 7,35.003873 q 0,-0.441577 0.1704322,-0.813424 0.1859267,-0.41834 0.4648159,-0.697233 0.294384,-0.294379 0.6739837,-0.457062 0.3795997,-0.162688 0.8289219,-0.162688 0.472563,0 0.83667,0.162688 0.3718523,0.162683 0.6662353,0.457062 0.07746,0.07747 0.216914,0.278893 0.04649,0.06198 0.201421,0.21691 0.309877,0.309876 0.689477,0.46482 0.3796,0.154943 0.867656,0.154943 z"/>
 <path style="fill:#b45600" d="M 37,11.500001 C 37,11.223855 37.22386,11 37.500001,11 37.77614,11 38,11.223855 38,11.500001 V 13 h -1 z"/>
</svg>
