<svg xmlns="http://www.w3.org/2000/svg" width="48" height="48" version="1">
 <rect style="opacity:0.2" width="40" height="40" x="4" y="5" rx="3" ry="3"/>
 <path style="fill:#e631a1" d="M 41,4 H 24 v 40 h 17 c 1.662,0 3,-1.338 3,-3 V 7 C 44,5.338 42.662,4 41,4 Z"/>
 <path style="fill:#4f4f4f" d="M 7,4 H 24 V 44 H 7 C 5.338,44 4,42.662 4,41 V 7 C 4,5.338 5.338,4 7,4 Z"/>
 <path style="opacity:0.1;fill:#8b9cbe" d="M 24,24 V 44 H 7 C 5.338,44 4,42.662 4,41 V 24 Z"/>
 <path style="opacity:0.2" d="m 13.621094,10 c -0.485239,0 -1.160703,0.177978 -2.46875,0.642578 -0.126581,0.04422 -0.126933,0.04361 -0.232422,0.08789 l 0.08398,0.332031 c 0.822809,-0.221237 0.970651,-0.244141 1.181641,-0.244141 0.52743,0 0.653839,0.199906 0.949219,1.527344 l 0.611328,2.720703 -1.728516,2.587891 c -0.44304,0.663712 -0.844097,1.0625 -1.076172,1.0625 -0.126582,0 -0.337857,-0.06651 -0.548828,-0.199219 C 10.11832,18.362711 9.9066415,18.296875 9.7167969,18.296875 9.2948563,18.296875 9,18.62784 9,19.070312 9,19.645536 9.4006494,20 10.054688,20 c 0.654037,0 0.908005,-0.199901 1.96289,-1.527344 0.569622,-0.73011 1.033458,-1.392595 1.898438,-2.609375 l 0.632812,2.654297 C 14.823089,19.668023 15.096375,20 15.771484,20 c 0.801724,0 1.350581,-0.53031 2.574219,-2.521484 l -0.294922,-0.177735 c -0.16878,0.199118 -0.274968,0.332174 -0.464843,0.597657 -0.485238,0.663719 -0.737074,0.884765 -0.990235,0.884765 -0.295361,0 -0.485126,-0.286784 -0.632812,-0.90625 -0.06329,-0.243363 -0.06484,-0.2891 -0.08594,-0.355469 -0.52743,-2.256665 -0.759765,-3.273581 -0.759765,-3.605468 0.949389,-1.725631 1.688616,-2.677735 2.068359,-2.677735 0.126582,0 0.315987,0.06709 0.505859,0.177735 0.253167,0.154867 0.401926,0.199218 0.591797,0.199218 C 18.705147,11.615234 19,11.282945 19,10.818359 19,10.331633 18.641096,10 18.134766,10 17.206461,10 16.42602,10.796769 14.949219,13.164062 L 14.716797,11.947266 C 14.421437,10.442822 14.190721,10 13.621094,10 Z M 29,21 v 2 h 10 v -2 z m 0,6 v 2 h 10 v -2 z m -14.939453,3 c -1.487233,0 -2.693456,0.416495 -3.619141,1.248047 -0.9206471,0.831553 -1.3808591,1.834071 -1.3808591,3.011719 0,1.062267 0.3314572,1.943646 0.9941411,2.640625 0.662634,0.696978 1.394913,1.121579 2.199218,1.27539 l 0.01563,0.484375 h -1.751953 c -0.419847,0 -0.7257461,-0.06854 -0.9179686,-0.203125 C 9.4073971,38.322467 9.3014857,38.083461 9.28125,37.742188 H 9 V 40 h 3.929688 L 12.787109,37.824219 C 12.028345,37.559817 11.512241,37.102011 11.244141,36.453125 10.97604,35.799451 10.84375,35.076323 10.84375,34.283203 c 0,-1.095912 0.297622,-1.995498 0.894531,-2.697265 0.601948,-0.706597 1.359784,-1.058594 2.275391,-1.058594 0.859957,0 1.60874,0.328852 2.246094,0.992187 0.642436,0.663335 0.964843,1.618347 0.964843,2.863281 0,1.903414 -0.651958,3.052067 -1.957031,3.441407 L 15.070312,40 H 19 v -2.257812 h -0.28125 c -0.01011,0.264363 -0.09318,0.483206 -0.25,0.65625 -0.151747,0.17304 -0.466698,0.261718 -0.947266,0.261718 h -1.791015 l 0.07422,-0.484375 c 0.971257,-0.269189 1.740098,-0.751211 2.30664,-1.443359 0.571626,-0.696978 0.859375,-1.542129 0.859375,-2.53711 0,-1.225697 -0.459392,-2.228215 -1.375,-3.011718 C 16.680095,30.395304 15.502206,30 14.060547,30 Z"/>
 <path style="fill:#8b9cbe" d="M 13.621094 9 C 13.135855 9 12.460391 9.1779781 11.152344 9.6425781 C 11.025763 9.6867981 11.025411 9.6861887 10.919922 9.7304688 L 11.003906 10.0625 C 11.826715 9.841263 11.974557 9.8183594 12.185547 9.8183594 C 12.712977 9.8183594 12.839386 10.018265 13.134766 11.345703 L 13.746094 14.066406 L 12.017578 16.654297 C 11.574538 17.318009 11.173481 17.716797 10.941406 17.716797 C 10.814824 17.716797 10.603549 17.650287 10.392578 17.517578 C 10.11832 17.362711 9.9066415 17.296875 9.7167969 17.296875 C 9.2948563 17.296875 9 17.62784 9 18.070312 C 9 18.645536 9.4006494 19 10.054688 19 C 10.708725 19 10.962693 18.800099 12.017578 17.472656 C 12.5872 16.742546 13.051036 16.080061 13.916016 14.863281 L 14.548828 17.517578 C 14.823089 18.668023 15.096375 19 15.771484 19 C 16.573208 19 17.122065 18.46969 18.345703 16.478516 L 18.050781 16.300781 C 17.882001 16.499899 17.775813 16.632955 17.585938 16.898438 C 17.1007 17.562157 16.848864 17.783203 16.595703 17.783203 C 16.300342 17.783203 16.110577 17.496419 15.962891 16.876953 C 15.899601 16.63359 15.898053 16.587853 15.876953 16.521484 C 15.349523 14.264819 15.117188 13.247903 15.117188 12.916016 C 16.066577 11.190385 16.805804 10.238281 17.185547 10.238281 C 17.312129 10.238281 17.501534 10.305371 17.691406 10.416016 C 17.944573 10.570883 18.093332 10.615234 18.283203 10.615234 C 18.705147 10.615234 19 10.282945 19 9.8183594 C 19 9.3316334 18.641096 9 18.134766 9 C 17.206461 9 16.42602 9.796769 14.949219 12.164062 L 14.716797 10.947266 C 14.421437 9.4428222 14.190721 9 13.621094 9 z M 29 20 L 29 22 L 39 22 L 39 20 L 29 20 z M 29 26 L 29 28 L 39 28 L 39 26 L 29 26 z M 14.060547 29 C 12.573314 29 11.367091 29.416495 10.441406 30.248047 C 9.5207589 31.0796 9.0605469 32.082118 9.0605469 33.259766 C 9.0605469 34.322033 9.3920041 35.203412 10.054688 35.900391 C 10.717322 36.597369 11.449601 37.02197 12.253906 37.175781 L 12.269531 37.660156 L 10.517578 37.660156 C 10.097731 37.660156 9.7918319 37.591617 9.5996094 37.457031 C 9.4073971 37.322467 9.3014857 37.083461 9.28125 36.742188 L 9 36.742188 L 9 39 L 12.929688 39 L 12.787109 36.824219 C 12.028345 36.559817 11.512241 36.102011 11.244141 35.453125 C 10.97604 34.799451 10.84375 34.076323 10.84375 33.283203 C 10.84375 32.187291 11.141372 31.287705 11.738281 30.585938 C 12.340229 29.879341 13.098065 29.527344 14.013672 29.527344 C 14.873629 29.527344 15.622412 29.856196 16.259766 30.519531 C 16.902202 31.182866 17.224609 32.137878 17.224609 33.382812 C 17.224609 35.286226 16.572651 36.434879 15.267578 36.824219 L 15.070312 39 L 19 39 L 19 36.742188 L 18.71875 36.742188 C 18.70864 37.006551 18.625567 37.225394 18.46875 37.398438 C 18.317003 37.571478 18.002052 37.660156 17.521484 37.660156 L 15.730469 37.660156 L 15.804688 37.175781 C 16.775945 36.906592 17.544786 36.42457 18.111328 35.732422 C 18.682954 35.035444 18.970703 34.190293 18.970703 33.195312 C 18.970703 31.969615 18.511311 30.967097 17.595703 30.183594 C 16.680095 29.395304 15.502206 29 14.060547 29 z"/>
 <path style="fill:#8b9cbe;opacity:0.1" d="M 7 4 C 5.338 4 4 5.338 4 7 L 4 8 C 4 6.338 5.338 5 7 5 L 41 5 C 42.662 5 44 6.338 44 8 L 44 7 C 44 5.338 42.662 4 41 4 L 7 4 z"/>
</svg>
