<svg xmlns="http://www.w3.org/2000/svg" width="48" height="48" version="1">
 <rect style="opacity:0.2" width="40" height="40" x="4" y="5" rx="2" ry="2"/>
 <rect style="fill:#0083a4" width="40" height="40" x="4" y="4" rx="2" ry="2"/>
 <path fill="#fff" style="opacity:0.1" d="m6 4c-1.108 0-2 0.892-2 2v1c0-1.108 0.892-2 2-2h36c1.108 0 2 0.892 2 2v-1c0-1.108-0.892-2-2-2h-36z"/>
 <path style="opacity:0.2" d="M 9.5996094,9 C 8.7132094,9 8,9.7132094 8,10.599609 V 29 h 14 4 14 V 10.599609 C 40,9.7132094 39.286791,9 38.400391,9 Z m 15.3535156,4 h 4.080078 C 29.567331,13 30,13.432666 30,13.966797 v 4.080078 c 0,0.534129 -0.432573,0.966797 -0.966797,0.966797 C 28.498978,19.013672 28,18.581004 28,18.046875 V 16.302734 L 21.302734,23 h 1.744141 c 0.534224,0 0.966797,0.498976 0.966797,1.033203 C 24.013672,24.567334 23.581004,25 23.046875,25 H 18.966797 C 18.432669,25 18,24.567334 18,24.033203 v -4.080078 c 0,-0.534129 0.432573,-0.966797 0.966797,-0.966797 0.534225,0 1.033203,0.432668 1.033203,0.966797 v 1.744141 L 26.697266,15 H 24.953125 C 24.418901,15 23.986328,14.501024 23.986328,13.966797 23.986328,13.432666 24.418996,13 24.953125,13 Z M 8,33 v 6.400391 C 8,40.286791 8.7132094,41 9.5996094,41 H 22 v -8 z m 18,0 v 8 H 38.400391 C 39.286791,41 40,40.286791 40,39.400391 V 33 Z"/>
 <path style="fill:#8b9cbe" d="M 9.5996094 8 C 8.7132094 8 8 8.7132094 8 9.5996094 L 8 28 L 22 28 L 26 28 L 40 28 L 40 9.5996094 C 40 8.7132094 39.286791 8 38.400391 8 L 9.5996094 8 z M 24.953125 12 L 29.033203 12 C 29.567331 12 30 12.432666 30 12.966797 L 30 17.046875 C 30 17.581004 29.567427 18.013672 29.033203 18.013672 C 28.498978 18.013672 28 17.581004 28 17.046875 L 28 15.302734 L 21.302734 22 L 23.046875 22 C 23.581099 22 24.013672 22.498976 24.013672 23.033203 C 24.013672 23.567334 23.581004 24 23.046875 24 L 18.966797 24 C 18.432669 24 18 23.567334 18 23.033203 L 18 18.953125 C 18 18.418996 18.432573 17.986328 18.966797 17.986328 C 19.501022 17.986328 20 18.418996 20 18.953125 L 20 20.697266 L 26.697266 14 L 24.953125 14 C 24.418901 14 23.986328 13.501024 23.986328 12.966797 C 23.986328 12.432666 24.418996 12 24.953125 12 z M 8 32 L 8 38.400391 C 8 39.286791 8.7132094 40 9.5996094 40 L 22 40 L 22 32 L 8 32 z M 26 32 L 26 40 L 38.400391 40 C 39.286791 40 40 39.286791 40 38.400391 L 40 32 L 26 32 z"/>
</svg>
