<svg xmlns="http://www.w3.org/2000/svg" width="48" height="48" version="1">
 <rect style="opacity:0.2" width="40" height="32" x="5" y="-40" rx="2.859" ry="3.2" transform="rotate(90)"/>
 <rect style="fill:#8d8d8d" width="40" height="32" x="4" y="-40" rx="2.859" ry="3.2" transform="rotate(90)"/>
 <path style="opacity:0.2" d="M 12,27 V 39.765625 C 12,39.765625 12,41 13.125,41 H 28 l 8,-8 v -6 z"/>
 <path style="fill:#01dfd8" d="M 12,26 V 8.7499993 C 12,8.7499993 12,8 12.774192,8 H 35.225808 C 36,8 36,8.7499993 36,8.7499993 V 26"/>
 <path style="fill:#b2bfd9" d="M 12,25.999999 H 36 V 32 L 30.375,34.647058 28,39.999999 H 13.125 C 12,39.999999 12,38.764706 12,38.764706 Z"/>
 <path style="fill:#cccccc" d="m 28,39.999999 v -6.90909 C 28,33.090909 28,32 29.090909,32 H 36 Z"/>
 <rect style="opacity:0.2" width="40" height="4" x="4" y="25" rx="1" ry="1"/>
 <rect style="fill:#8b9cbe" width="40" height="4" x="4" y="24" rx="1" ry="1"/>
 <path style="opacity:0.2;fill:#8b9cbe" d="M 12.773438 8 C 11.999246 8 12 8.75 12 8.75 L 12 9.75 C 12 9.75 11.999246 9 12.773438 9 L 35.226562 9 C 36.000754 9 36 9.75 36 9.75 L 36 8.75 C 36 8.75 36.000754 8 35.226562 8 L 12.773438 8 z"/>
 <path style="opacity:0.1;fill:#8b9cbe" d="M 11.199219 4 C 9.4264182 4 8 5.275256 8 6.859375 L 8 7.859375 C 8 6.275256 9.4264182 5 11.199219 5 L 36.800781 5 C 38.573582 5 40 6.275256 40 7.859375 L 40 6.859375 C 40 5.275256 38.573582 4 36.800781 4 L 11.199219 4 z"/>
</svg>
