<svg xmlns="http://www.w3.org/2000/svg" width="48" height="48" version="1.1">
 <circle style="opacity:.2" cx="24" cy="25" r="20"/>
 <circle style="fill:#4454ba" cx="24" cy="24" r="20"/>
 <path style="fill:#8b9cbe;opacity:.1" d="M 24,4 A 20,20 0 0 0 4,24 20,20 0 0 0 4.0215,24.582 20,20 0 0 1 24,5 20,20 0 0 1 43.979,24.418 20,20 0 0 0 44,24 20,20 0 0 0 24,4 Z"/>
 <path style="fill:none;opacity:.2;stroke-linejoin:round;stroke-width:4;stroke:#000000" d="m24 20h-9s-2 2-2 5.5 2 4.5 2 4.5h7v-5"/>
 <path style="fill:none;stroke-linejoin:round;stroke-width:4;stroke:#9e9e9e" d="m24 19h-9s-2 2-2 5.5 2 4.5 2 4.5h7v-5"/>
 <path style="fill:none;opacity:.2;stroke-linejoin:round;stroke-width:4;stroke:#000000" d="m22 20h12l-10 10h12"/>
 <path style="fill:none;stroke-linejoin:round;stroke-width:4;stroke:#fefefe" d="m22 19h12l-10 10h12"/>
</svg>
