<svg xmlns="http://www.w3.org/2000/svg" width="48" height="48" version="1.1">
 <path style="opacity:0.2" d="M 8 13 C 5.7853723 13 4 14.785156 4 17 L 4 41 C 4 43.21875 5.7853723 45 8 45 L 23.998047 45 L 40 45 C 42.214627 45 44 43.21875 44 41 L 44 17 C 44 14.785156 42.214627 13 40 13 L 23.998047 13 L 8 13 z"/>
 <path style="fill:#e63e60" d="M 7.9996094,12 C 5.7849817,12 4,13.785156 4,16 v 24 c 0,2.21875 1.7849817,4 3.9996094,4 H 23.998047 V 12 Z m 0,0"/>
 <path style="fill:#177bc7" d="M 23.998047,12 V 44 H 40.000391 C 42.215018,44 44,42.21875 44,40 V 16 c 0,-2.214844 -1.784982,-4 -3.999609,-4 z m 0,0"/>
 <path style="opacity:0.1" d="m 24,17 c -4.417968,0 -8,3.582031 -8,8 0,4.417969 3.582032,8 8,8 4.421875,0 8,-3.582031 8,-8 0,-4.417969 -3.578125,-8 -8,-8 z"/>
 <path style="fill:#5d6266" d="M 24 16 C 19.582032 16 16 19.582031 16 24 C 16 28.417969 19.582032 32 24 32 C 28.421875 32 32 28.417969 32 24 C 32 19.582031 28.421875 16 24 16 z"/>
 <circle style="opacity:0.1" cx="24" cy="25" r="6"/>
 <circle style="fill:#9badff" cx="24" cy="24" r="6"/>
 <path style="opacity:0.2" d="M 8 5 C 5.7851561 5 4 6.785156 4 9 L 4 41 C 4 38.785156 5.7851561 37 8 37 C 10.214844 37 12 38.785156 12 41 L 12 9 C 12 6.785156 10.214844 5 8 5 z M 40 5 C 37.781466 5 36 6.785156 36 9 L 36 41 C 36 38.785156 37.781466 37 40 37 C 42.214627 37 44 38.785156 44 41 L 44 9 C 44 6.785156 42.214627 5 40 5 z"/>
 <path style="fill:#8b9cbe;opacity:0.2" d="M 8 12 C 5.7853723 12 4 13.785156 4 16 L 4 17 C 4 14.785156 5.7853723 13 8 13 L 23.998047 13 L 40 13 C 42.214627 13 44 14.785156 44 17 L 44 16 C 44 13.785156 42.214627 12 40 12 L 23.998047 12 L 8 12 z"/>
 <path style="fill:#3daee9" d="m 40.000391,4 c -2.218534,0 -3.99961,1.785156 -3.99961,4 v 32 c 0,-2.214844 1.781076,-4 3.99961,-4 C 42.215018,36 44,37.785156 44,40 V 8 C 44,5.785156 42.215018,4 40.000391,4 Z"/>
 <path style="fill:#ff6c7f" d="M 7.9999999,4 C 5.785156,4 4,5.785156 4,8 V 40 C 4,37.785156 5.785156,36 7.9999999,36 10.214844,36 12,37.785156 12,40 V 8 C 12,5.785156 10.214844,4 7.9999999,4 Z"/>
 <path style="opacity:0.2;fill:#8b9cbe" d="M 8,4 C 5.7851561,4 4,5.785156 4,8 V 9 C 4,6.785156 5.7851561,5 8,5 c 2.214844,0 4,1.785156 4,4 V 8 C 12,5.785156 10.214844,4 8,4 Z m 32,0 c -2.218534,0 -4,1.785156 -4,4 v 1 c 0,-2.214844 1.781466,-4 4,-4 2.214627,0 4,1.785156 4,4 V 8 C 44,5.785156 42.214627,4 40,4 Z"/>
</svg>
