<svg xmlns="http://www.w3.org/2000/svg" width="48" height="48" version="1.1">
 <rect style="opacity:0.2" width="40" height="40" x="4" y="5" rx="2" ry="2"/>
 <rect style="fill:#f63db6" width="40" height="40" x="4" y="4" rx="2" ry="2"/>
 <path style="fill:#8b9cbe;opacity:0.1" d="M 6 4 C 4.892 4 4 4.892 4 6 L 4 7 C 4 5.892 4.892 5 6 5 L 42 5 C 43.108 5 44 5.892 44 7 L 44 6 C 44 4.892 43.108 4 42 4 L 6 4 z"/>
 <path style="opacity:0.2" d="m 19.922083,36.374508 c -4.136173,-1.44276 -7.533705,-2.63616 -7.550058,-2.65202 -0.0164,-0.0159 -0.02032,-0.038 -0.0093,-0.0491 0.01156,-0.0112 3.418672,0.37612 7.571497,0.8606 5.725265,0.66793 7.039726,0.86801 7.066201,0.82763 0.04622,-0.0705 0.0454,-19.63504 -8.46e-4,-19.70555 -0.05025,-0.0767 -9.859127,2.16977 -9.942522,2.27665 -0.04509,0.0577 -0.05706,1.47043 -0.05706,6.71717 0,5.26299 -0.01187,6.65292 -0.05705,6.68672 -0.08646,0.0647 -4.828487,2.22526 -4.894137,2.22477 -0.0456,-3.6e-4 -0.05478,-1.71478 -0.0456,-8.49971 l 0.01155,-8.49928 5.91073,-2.11754 c 3.250901,-1.16464 6.745788,-2.41618 7.766424,-2.78119 l 1.855693,-0.66366 4.169147,1.29413 c 2.293026,0.71178 4.194807,1.31 4.226192,1.32939 0.0454,0.0281 0.05705,2.36984 0.05705,11.46678 0,10.8427 -0.0041,11.43366 -0.07986,11.47297 -0.139646,0.0724 -8.279961,2.43914 -8.381174,2.43673 -0.05334,-10e-4 -3.481082,-1.18274 -7.617265,-2.62549 z"/>
 <path style="fill:#8b9cbe" d="m 19.922083,35.374509 c -4.136173,-1.44276 -7.533705,-2.63616 -7.550058,-2.65202 -0.0164,-0.0159 -0.02032,-0.038 -0.0093,-0.0491 0.01156,-0.0112 3.418672,0.37612 7.571497,0.8606 5.725265,0.66793 7.039726,0.86801 7.066201,0.82763 0.04622,-0.0705 0.0454,-19.63504 -8.46e-4,-19.70555 -0.05025,-0.0767 -9.859127,2.16977 -9.942522,2.27665 -0.04509,0.0577 -0.05706,1.47043 -0.05706,6.71717 0,5.26299 -0.01187,6.65292 -0.05705,6.68672 -0.08646,0.0647 -4.828487,2.22526 -4.894137,2.22477 -0.0456,-3.6e-4 -0.05478,-1.71478 -0.0456,-8.49971 l 0.01155,-8.49928 5.91073,-2.11754 c 3.250901,-1.16464 6.745788,-2.41618 7.766424,-2.78119 l 1.855693,-0.6636599 4.169147,1.2941299 c 2.293026,0.71178 4.194807,1.31 4.226192,1.32939 0.0454,0.0281 0.05705,2.36984 0.05705,11.46678 0,10.8427 -0.0041,11.43366 -0.07986,11.47297 -0.139646,0.0724 -8.279961,2.43914 -8.381174,2.43673 -0.05334,-0.001 -3.481082,-1.18274 -7.617265,-2.62549 z"/>
</svg>
