<svg xmlns="http://www.w3.org/2000/svg" width="48" height="48" version="1">
 <path style="opacity:0.2" d="m 10.281295,11 c -1.0280653,0.375066 2.192968,7.564809 1.347801,8.037993 C 10.156779,19.625292 9.0334461,20 9.0334461,20 L 9,30 c 0,0 6.713428,1.41688 11.624835,2 C 21.609387,32.117298 4.0421773,41 4.0421773,41 8.9911441,41.001248 59.306887,28.427927 39.335074,19.021646 35.904364,17.19542 30.868297,16 25.2556,16 22.435463,16 19.843806,16.332745 17.546767,16.853996 16.441523,17.104801 11.242512,10.649355 10.281419,11 Z"/>
 <path style="fill:#28aeae" d="m 10.281295,10 c -1.0280653,0.375066 2.192968,7.564809 1.347801,8.037993 C 10.156779,18.625292 9.0334461,19 9.0334461,19 L 9,29 c 0,0 6.713428,1.41688 11.624835,2 C 21.609387,31.117298 4.0421773,40 4.0421773,40 8.9911441,40.001248 59.306887,27.427927 39.335074,18.021646 35.904364,16.19542 30.868297,15 25.2556,15 22.435463,15 19.843806,15.332745 17.546767,15.853996 16.441523,16.104801 11.242512,9.6493546 10.281419,10 Z"/>
 <path style="opacity:0.2" d="M 9,20 V 19 H 4.0000001 V 31 H 9 V 30 C 17.581436,28.651675 22.100829,26.628463 22,24.942252 21.90151,23.295206 17.38212,21.318326 9,20 Z"/>
 <path style="fill:#17191e" d="M 9,19 V 18 H 4.0000001 V 30 H 9 V 29 C 17.581436,27.651675 22.100829,25.628463 22,23.942252 21.90151,22.295206 17.38212,20.318326 9,19 Z"/>
 <path style="opacity:0.2" d="m 34.058594,17.064453 c -0.02827,0.227549 -0.05753,0.462557 -0.05859,0.640625 0.0021,3.290786 4.391839,5.987268 9.990234,6.265625 0.07251,-1.689381 -1.289254,-3.364358 -4.654296,-4.949219 -1.482123,-0.788959 -3.278927,-1.449062 -5.277344,-1.957031 z"/>
 <path style="fill:#17191e" d="M 34.058594 16.064453 C 34.030325 16.292002 34.001068 16.52701 34 16.705078 C 34.002102 19.995864 38.391839 22.692346 43.990234 22.970703 C 44.062744 21.281322 42.70098 19.606345 39.335938 18.021484 C 37.853815 17.232525 36.057011 16.572422 34.058594 16.064453 z"/>
 <path style="fill:#8b9cbe;opacity:0.1" d="M 10.28125 10 C 10.050666 10.084123 10.041429 10.521586 10.144531 11.138672 C 10.177329 11.071612 10.220446 11.022183 10.28125 11 C 11.242343 10.649355 16.441631 17.104321 17.546875 16.853516 C 19.843914 16.332265 22.435722 16 25.255859 16 C 30.868556 16 35.905228 17.195258 39.335938 19.021484 C 42.287431 20.411572 43.692624 21.871993 43.947266 23.349609 C 44.253579 21.532059 42.952501 19.724805 39.335938 18.021484 C 35.905228 16.195258 30.868556 15 25.255859 15 C 22.435722 15 19.843914 15.332265 17.546875 15.853516 C 16.441631 16.104321 11.242343 9.6493546 10.28125 10 z M 11.679688 17.962891 C 11.662138 17.986603 11.652732 18.02377 11.628906 18.037109 C 10.156589 18.624408 9.0332031 19 9.0332031 19 L 9 29 C 9 29 9.0039032 28.999999 9.0039062 29 L 9.0332031 20 C 9.0332031 20 10.156589 19.624408 11.628906 19.037109 C 11.803228 18.939512 11.778372 18.513231 11.679688 17.962891 z M 19.492188 31.837891 C 15.854344 34.022272 4.0429687 40 4.0429688 40 C 4.5187674 40.00012 5.5129273 39.85116 6.7246094 39.632812 C 11.591558 37.143869 21.367626 32.088475 20.625 32 C 20.267341 31.957536 19.865671 31.888328 19.492188 31.837891 z"/>
 <path style="fill:#8b9cbe;opacity:0.1" d="M 4 18 L 4 19 L 9 19 L 9 18 L 4 18 z M 9 19 L 9 20 C 16.646962 21.202702 21.067932 22.951563 21.861328 24.5 C 21.957729 24.311099 22.010901 24.123708 22 23.941406 C 21.90151 22.29436 17.38212 20.318326 9 19 z"/>
 <path style="fill:#8b9cbe;opacity:0.1" d="M 34.058594 16.064453 C 34.030325 16.292002 34.001068 16.52701 34 16.705078 C 34.000113 16.881729 34.018061 17.055572 34.042969 17.228516 C 34.04985 17.170325 34.051351 17.122748 34.058594 17.064453 C 36.057011 17.572422 37.853814 18.232525 39.335938 19.021484 C 42.027661 20.289227 43.420496 21.614671 43.839844 22.958984 C 43.890479 22.961909 43.939398 22.968175 43.990234 22.970703 C 44.062744 21.281322 42.70098 19.606345 39.335938 18.021484 C 37.853814 17.232525 36.057011 16.572422 34.058594 16.064453 z"/>
</svg>
