<svg xmlns="http://www.w3.org/2000/svg" width="48" height="48" version="1">
 <path style="opacity:0.2" d="M 6,5 C 4.892,5 4,5.892 4,7 v 18 a 20,20 0 0 0 20,20 h 18 c 1.108,0 2,-0.892 2,-2 V 25 7 C 44,5.892 43.108,5 42,5 H 24 Z"/>
 <path style="fill:#4f4f4f" d="M 6 4 C 4.892 4 4 4.892 4 6 L 4 24 A 20 20 0 0 0 24 44 L 42 44 C 43.108 44 44 43.108 44 42 L 44 24 L 44 6 C 44 4.892 43.108 4 42 4 L 24 4 L 6 4 z"/>
 <path style="opacity:0.2" d="M 8,9 V 19.425781 25 v 0.03906 c 0.00114,0.478472 0.031184,0.949376 0.074219,1.416016 0.015928,0.179111 0.036895,0.3559 0.058594,0.533203 0.032861,0.260297 0.074078,0.51729 0.1191406,0.773438 0.074657,0.434034 0.168849,0.860277 0.2773438,1.28125 0.033268,0.128323 0.059536,0.259622 0.095703,0.386719 8.479e-4,-0.0012 0.0011,-0.0027 0.00195,-0.0039 0.060018,0.211152 0.121141,0.421502 0.1894531,0.628907 -4.188e-4,1.7e-4 -0.00153,-1.7e-4 -0.00195,0 0.1012289,0.307233 0.2144095,0.608286 0.3339844,0.90625 0.095202,0.2391 0.1965393,0.473888 0.3027344,0.707031 0.046885,0.102002 0.097532,0.201918 0.1464843,0.302734 0.226071,0.469669 0.4730088,0.924835 0.7421878,1.367188 0.0035,0.0057 0.0063,0.01186 0.0098,0.01758 0.109981,0.180222 0.211295,0.365654 0.328125,0.541015 -0.001,-4.62e-4 -0.0029,-0.0015 -0.0039,-0.002 0.0088,0.01324 0.01849,0.02585 0.02734,0.03906 0.04243,0.06331 0.08951,0.122893 0.132812,0.185547 0.21737,0.314399 0.444767,0.620811 0.683594,0.917968 0.07309,0.091 0.145668,0.182152 0.220703,0.271485 0.270644,0.321966 0.554597,0.632393 0.84961,0.93164 0.08636,0.0877 0.175297,0.172131 0.263671,0.257813 0.255859,0.247779 0.518914,0.486553 0.791016,0.716797 0.07513,0.06366 0.146331,0.131082 0.222656,0.193359 0.0122,0.01 0.02488,0.01938 0.03711,0.0293 0.297418,0.24089 0.607122,0.468131 0.921875,0.6875 0.144295,0.100674 0.289731,0.198954 0.4375,0.294922 0.319517,0.207346 0.643519,0.407091 0.978515,0.591797 4.89e-4,2.69e-4 0.0015,-2.7e-4 0.002,0 1.171341,0.645931 2.438487,1.136637 3.769531,1.474609 0.0046,0.0012 0.0091,0.0028 0.01367,0.0039 0.564302,0.14275 1.139439,0.254369 1.726562,0.335938 0.01509,0.0021 0.02982,0.0058 0.04492,0.0078 0.349131,0.0475 0.700464,0.08448 1.056641,0.109375 0.144469,0.0101 0.290003,0.01519 0.435546,0.02148 C 23.525982,40.97509 23.758448,41 23.998047,41 h 0.0039 H 36.890625 39.75 40 V 40.6875 38.310547 37.369141 35.367188 32.875 25 12.1875 9 h -15.998047 -0.0039 z"/>
 <path style="fill:#c6783d" d="m 8,8 v 16 0.03906 C 8.0210868,32.904556 15.127736,40 23.999023,40 h 0.002 15.999023 V 24 8 h -15.999023 -0.002 z"/>
 <path style="opacity:0.1;fill:#8b9cbe" d="M 26.572266 9 C 26.472473 9.0452795 26.392446 9.1545651 26.304688 9.359375 C 26.191359 9.6238582 26.115149 9.568657 25.628906 9.0117188 C 25.211458 9.0233652 24.876953 9.0446997 24.876953 9.0761719 C 24.876953 9.1183989 25.169475 9.4911934 25.527344 9.9042969 C 26.163286 10.638394 26.180464 10.649286 26.304688 10.359375 C 26.497391 9.9096441 26.644024 9.8669309 27.074219 10.132812 C 27.506948 10.40026 27.876953 10.448735 27.876953 10.240234 C 27.876953 10.166534 27.729184 9.8571634 27.550781 9.5527344 L 27.402344 9.2988281 C 27.300416 9.2592707 27.191462 9.2052743 27.074219 9.1328125 C 26.972746 9.0700972 26.888702 9.0270846 26.814453 9 L 26.572266 9 z M 29.859375 9 L 29.898438 9.2675781 C 29.920407 9.4152439 30.035941 9.5839943 30.15625 9.6425781 C 30.276559 9.7011621 30.473441 9.7980702 30.59375 9.8574219 C 30.735386 9.9272949 30.800364 10.077834 30.775391 10.283203 C 30.747361 10.513706 30.889093 10.771563 31.294922 11.228516 C 31.666542 11.646952 31.919188 12.089429 32.052734 12.548828 C 32.263972 13.275481 32.60091 13.625 33.087891 13.625 C 33.288057 13.625 33.439649 13.761192 33.609375 14.09375 C 33.740953 14.351562 33.965677 14.666731 34.107422 14.794922 C 34.379015 15.040546 34.395591 15.041473 35.953125 14.734375 C 36.63269 14.600386 36.794469 14.60908 37.390625 14.822266 C 37.969732 15.029356 38.105482 15.143986 38.373047 15.650391 C 38.543745 15.973465 38.796881 16.288933 38.935547 16.351562 C 39.312849 16.521981 39.483635 16.400842 39.628906 15.861328 C 39.701046 15.593397 39.812802 15.375 39.878906 15.375 C 39.952676 15.375008 40 14.143973 40 12.1875 L 40 11.1875 C 40 13.143973 39.952676 14.375008 39.878906 14.375 C 39.812802 14.375 39.701046 14.593397 39.628906 14.861328 C 39.483635 15.400842 39.312849 15.52198 38.935547 15.351562 C 38.796881 15.288933 38.543745 14.973465 38.373047 14.650391 C 38.105482 14.143986 37.969732 14.029356 37.390625 13.822266 C 36.794469 13.60908 36.63269 13.600386 35.953125 13.734375 C 34.395591 14.041473 34.379015 14.040546 34.107422 13.794922 C 33.965677 13.666731 33.740953 13.351562 33.609375 13.09375 C 33.439649 12.761192 33.288057 12.625 33.087891 12.625 C 32.60091 12.625 32.263972 12.275481 32.052734 11.548828 C 31.919188 11.089429 31.666542 10.646952 31.294922 10.228516 C 30.889093 9.7715626 30.747361 9.5137061 30.775391 9.2832031 C 30.789352 9.1683925 30.76846 9.0760244 30.728516 9 L 29.859375 9 z M 22.09375 10.244141 C 21.946904 10.227558 21.981282 10.539511 22.25 11.095703 C 22.54429 11.704836 22.800661 11.88552 23.3125 11.84375 C 23.593953 11.82078 23.6875 11.750142 23.6875 11.5625 C 23.6875 11.389311 23.558893 11.271274 23.269531 11.177734 C 23.039799 11.103474 22.711566 10.864414 22.541016 10.646484 C 22.334423 10.382501 22.18186 10.254041 22.09375 10.244141 z M 28.585938 11.095703 C 28.470155 11.111203 28.443032 11.183427 28.451172 11.375 C 28.469542 11.807763 28.823258 13.074215 29.113281 13.75 C 29.246054 14.059374 29.419505 14.490035 29.5 14.707031 C 29.5805 14.924027 29.938985 15.416215 30.296875 15.800781 C 30.853589 16.398989 31.01265 16.5 31.396484 16.5 C 31.943961 16.5 32.154221 16.271402 32.169922 15.65625 C 32.173316 15.523296 32.131227 15.358101 32.060547 15.160156 C 31.949404 15.391064 31.748434 15.5 31.396484 15.5 C 31.01265 15.5 30.853589 15.398989 30.296875 14.800781 C 29.938985 14.416215 29.5805 13.924027 29.5 13.707031 C 29.419505 13.490035 29.246054 13.059374 29.113281 12.75 C 28.925552 12.31257 28.71883 11.641802 28.585938 11.095703 z M 23.962891 13.671875 C 23.926936 13.668245 23.887363 13.686846 23.845703 13.728516 C 23.776963 13.797266 23.76261 13.91928 23.8125 14 C 23.872974 14.09787 23.945977 14.104834 24.029297 14.021484 C 24.098047 13.952734 24.114333 13.83074 24.064453 13.75 C 24.034213 13.70106 23.998841 13.675475 23.962891 13.671875 z M 28.558594 14.873047 C 28.239887 15.384347 28.167403 15.722518 28.414062 16.138672 C 28.473641 16.017132 28.525652 15.900721 28.623047 15.753906 C 28.98121 15.214005 28.974407 15.092796 28.558594 14.873047 z M 28.160156 15.671875 C 28.147016 15.685015 28.139719 15.729924 28.136719 15.802734 C 28.131319 15.934507 28.159642 16.008337 28.201172 15.966797 C 28.242772 15.925257 28.247017 15.816793 28.210938 15.726562 C 28.190988 15.676673 28.173296 15.658735 28.160156 15.671875 z M 28.306641 16.912109 C 28.205879 17.20271 28.019127 17.526902 27.763672 17.798828 C 27.604759 17.967979 27.506862 18.15717 27.544922 18.21875 C 27.582984 18.28033 27.523961 18.495946 27.414062 18.697266 C 27.158844 19.164814 26.958033 20.354924 26.976562 21.294922 C 26.990583 22.00622 26.98278 22.0252 26.6875 21.96875 C 26.405226 21.91479 26.418767 21.953972 26.890625 22.517578 C 26.915553 22.547353 26.93929 22.569548 26.962891 22.59375 C 26.965664 22.494412 26.979914 22.464958 26.976562 22.294922 C 26.958033 21.354924 27.158844 20.164814 27.414062 19.697266 C 27.523961 19.495946 27.582984 19.28033 27.544922 19.21875 C 27.506862 19.15717 27.604759 18.967979 27.763672 18.798828 C 28.231278 18.301073 28.502182 17.613622 28.347656 17.316406 C 28.329606 17.281596 28.334152 17.269897 28.357422 17.279297 C 28.427142 17.307507 28.667886 17.52177 28.984375 17.84375 C 29.283951 18.148523 29.475273 18.364634 29.591797 18.541016 C 29.477459 18.366119 29.292322 18.153145 29.001953 17.855469 C 28.618475 17.46234 28.397444 17.178539 28.306641 16.912109 z M 26.851562 17.625 C 26.699871 17.625 26.730848 17.930063 26.900391 18.099609 C 27.096674 18.295893 27.251953 18.291189 27.251953 18.087891 C 27.251953 17.907773 27.007337 17.625 26.851562 17.625 z M 23.794922 20.189453 C 23.400938 20.16499 22.733047 20.272654 22.396484 20.447266 C 22.169346 20.565106 22.017219 20.571814 21.791016 20.46875 C 21.525485 20.347764 21.446216 20.378963 21.126953 20.728516 C 20.92735 20.947061 20.702996 21.125 20.628906 21.125 C 20.554811 21.125 20.273455 20.979166 20.003906 20.800781 C 19.734353 20.622394 19.455523 20.513654 19.382812 20.558594 C 19.310091 20.603534 19.25 20.893289 19.25 21.203125 C 19.25 21.881579 19.102763 22.202047 18.582031 22.652344 C 18.370996 22.834834 18.300361 22.942692 18.337891 22.982422 C 18.293061 22.963792 18.280542 22.92294 18.326172 22.84375 C 18.375685 22.75781 18.275672 22.81406 18.105469 22.96875 C 18.061538 23.008676 17.99518 23.037586 17.9375 23.072266 C 17.931249 23.032146 17.900325 23 17.828125 23 C 17.725003 23 17.60499 23.05625 17.5625 23.125 C 17.53864 23.16361 17.549032 23.193817 17.576172 23.216797 C 17.527019 23.227447 17.472037 23.253424 17.429688 23.253906 C 17.036375 23.258406 16.5 23.624758 16.5 23.888672 C 16.5 23.946387 16.410793 24.071225 16.271484 24.228516 C 16.395223 24.428766 16.5 24.681902 16.5 24.835938 C 16.5 24.981299 16.118682 25.408631 15.648438 25.849609 C 16.114348 25.421599 16.5 25.011161 16.5 24.888672 C 16.5 24.624758 17.036375 24.258406 17.429688 24.253906 C 17.472037 24.253424 17.527019 24.227447 17.576172 24.216797 C 17.549032 24.193817 17.53864 24.16361 17.5625 24.125 C 17.60499 24.05625 17.725003 24 17.828125 24 C 17.900325 24 17.931249 24.032146 17.9375 24.072266 C 17.99518 24.037586 18.061538 24.008676 18.105469 23.96875 C 18.275672 23.81406 18.375685 23.75781 18.326172 23.84375 C 18.280542 23.92294 18.293061 23.963792 18.337891 23.982422 C 18.300361 23.942692 18.370996 23.834834 18.582031 23.652344 C 18.966185 23.320151 19.144419 23.056652 19.212891 22.669922 C 19.237235 22.532427 19.25 22.381071 19.25 22.203125 C 19.25 21.893289 19.310091 21.603534 19.382812 21.558594 C 19.455523 21.513654 19.734353 21.622394 20.003906 21.800781 C 20.273455 21.979166 20.554811 22.125 20.628906 22.125 C 20.702996 22.125 20.92735 21.947061 21.126953 21.728516 C 21.446216 21.378963 21.525485 21.347764 21.791016 21.46875 C 22.017219 21.571814 22.169346 21.565106 22.396484 21.447266 C 22.845234 21.214451 23.882262 21.09883 24.076172 21.259766 C 24.166052 21.334346 24.571465 21.573358 24.976562 21.791016 C 25.476102 22.059418 25.987633 22.499223 26.566406 23.15625 C 26.736195 23.396287 26.894894 23.556792 27.048828 23.685547 C 26.994478 23.626357 26.945407 23.583011 26.890625 23.517578 C 26.418767 22.953972 26.405226 22.91479 26.6875 22.96875 C 26.909892 23.011266 26.95314 22.910122 26.962891 22.603516 C 26.835513 22.487517 26.705134 22.352374 26.566406 22.15625 C 25.987633 21.499223 25.476102 21.059418 24.976562 20.791016 C 24.571465 20.573358 24.166052 20.334346 24.076172 20.259766 C 24.027694 20.219532 23.92625 20.197608 23.794922 20.189453 z M 16.066406 22.974609 C 15.999422 22.926639 15.841544 22.996959 15.716797 23.130859 C 15.59205 23.264763 15.395597 23.375 15.279297 23.375 C 15.162992 23.375 14.76825 23.498728 14.402344 23.650391 C 13.738337 23.925613 13.736403 23.92665 13.814453 24.388672 C 13.978454 25.359408 13.284946 25.97112 12.201172 25.808594 C 11.440349 25.694498 11.0722 25.938556 10.664062 26.830078 C 10.36757 27.477714 10.330437 27.510034 9.9824219 27.433594 C 9.5041626 27.328507 9.0781281 27.608444 8.7578125 28.236328 C 8.7214788 28.307551 8.670983 28.364808 8.625 28.429688 C 8.2281492 27.035106 8.00363 25.565864 8 24.039062 L 8 25.039062 C 8.00363 26.565864 8.2281492 28.035106 8.625 29.429688 C 8.670983 29.364808 8.7214788 29.307551 8.7578125 29.236328 C 9.0781281 28.608444 9.5041626 28.328507 9.9824219 28.433594 C 10.330437 28.510034 10.36757 28.477714 10.664062 27.830078 C 11.0722 26.938556 11.440349 26.694498 12.201172 26.808594 C 13.284946 26.97112 13.978454 26.359408 13.814453 25.388672 C 13.736403 24.92665 13.738337 24.925613 14.402344 24.650391 C 14.76825 24.498728 15.162992 24.375 15.279297 24.375 C 15.395597 24.375 15.59205 24.264763 15.716797 24.130859 C 15.841544 23.996959 15.999422 23.926639 16.066406 23.974609 C 16.130185 24.020278 16.198481 24.113236 16.263672 24.216797 C 16.409027 24.044907 16.5 23.906249 16.5 23.835938 C 16.5 23.598195 16.254443 23.109253 16.066406 22.974609 z M 19.427734 23.5625 C 19.206954 23.68597 19.022646 23.775928 18.861328 23.847656 C 19.023495 23.776016 19.210237 23.684134 19.427734 23.5625 z M 18.673828 23.919922 C 18.604668 23.944952 18.533928 23.968916 18.486328 23.978516 C 18.536498 23.968206 18.604879 23.944692 18.673828 23.919922 z"/>
 <path style="fill:#3876d2" d="m 8,8 v 10.425781 5.613281 c 0.00363,1.526802 0.2281873,2.996045 0.6250381,4.390626 0.045983,-0.06488 0.096487,-0.122137 0.1328207,-0.19336 0.3203156,-0.627884 0.7464248,-0.907821 1.2246841,-0.802734 0.3480151,0.07644 0.3851911,0.04412 0.6816831,-0.603516 0.408138,-0.891522 0.776379,-1.13558 1.537202,-1.021484 1.083774,0.162526 1.777381,-0.449186 1.61338,-1.419922 -0.07805,-0.462022 -0.07608,-0.463059 0.587927,-0.738281 0.365906,-0.151663 0.760701,-0.275391 0.877006,-0.275391 0.1163,0 0.31278,-0.110237 0.437527,-0.244141 0.124747,-0.1339 0.282646,-0.20422 0.34963,-0.15625 0.188037,0.134644 0.433621,0.623586 0.433621,0.861329 0,0.145361 -0.381369,0.572693 -0.851614,1.013671 0.46591,-0.42801 0.851614,-0.838448 0.851614,-0.960937 0,-0.263914 0.536433,-0.630266 0.929745,-0.634766 0.04235,-4.82e-4 0.09734,-0.02646 0.146493,-0.03711 -0.02714,-0.02298 -0.03753,-0.05319 -0.01367,-0.0918 C 17.605577,23.056246 17.725604,23 17.828726,23 c 0.0722,0 0.103131,0.03215 0.109382,0.07227 0.05768,-0.03468 0.124048,-0.06359 0.167979,-0.103516 0.170203,-0.15469 0.270229,-0.21094 0.220716,-0.125 -0.04563,0.07919 -0.03311,0.120042 0.01172,0.138672 -0.03753,-0.03973 0.03312,-0.147588 0.244155,-0.330078 0.520732,-0.450297 0.66801,-0.770765 0.66801,-1.449219 0,-0.309836 0.0601,-0.599591 0.132821,-0.644531 0.07271,-0.04494 0.351578,0.0638 0.621131,0.242187 0.269549,0.178385 0.550943,0.324219 0.625038,0.324219 0.07409,0 0.298474,-0.177939 0.498077,-0.396484 0.319263,-0.349553 0.398573,-0.380752 0.664104,-0.259766 0.226203,0.103064 0.378368,0.09636 0.605506,-0.02148 0.44875,-0.232815 1.483926,-0.348436 1.677836,-0.1875 0.08988,0.07458 0.495348,0.313592 0.900445,0.53125 0.49954,0.268402 1.011168,0.708207 1.589941,1.365234 0.169789,0.240037 0.328518,0.400542 0.482452,0.529297 -0.05435,-0.05919 -0.103431,-0.102536 -0.158213,-0.167969 -0.471858,-0.563606 -0.485412,-0.602796 -0.203138,-0.548836 0.29528,0.05645 0.3031,0.03747 0.289079,-0.673828 -0.01853,-0.939998 0.182309,-2.130108 0.437527,-2.597656 0.109898,-0.20132 0.16893,-0.416936 0.130868,-0.478516 -0.03806,-0.06158 0.05985,-0.250771 0.218763,-0.419922 0.467606,-0.497755 0.738546,-1.185206 0.58402,-1.482422 -0.01805,-0.03481 -0.01347,-0.04651 0.0098,-0.03711 0.06972,0.02821 0.310503,0.242473 0.626992,0.564453 0.299576,0.304773 0.490935,0.520884 0.607459,0.697266 -0.114338,-0.174897 -0.299545,-0.38787 -0.589914,-0.685546 -0.888057,-0.910406 -0.948943,-1.242313 -0.378929,-2.101563 0.384044,-0.578914 0.370014,-0.673518 -0.142587,-0.927734 C 28.255413,13.714907 28.17909,13.559806 28.149668,13.15625 28.119758,12.746001 28.033417,12.577082 27.755112,12.378906 27.5593,12.239472 27.264126,12.125 27.098822,12.125 c -0.454669,0 -0.644515,-0.225962 -1.041079,-1.238281 C 25.730659,10.05176 25.644487,9.9386545 25.18269,9.7343749 24.859354,9.5913444 24.449549,9.2303908 24.067387,8.7539062 L 23.461882,8 Z m 18.051883,0 c -0.646574,0 -1.175853,0.033945 -1.175853,0.076172 0,0.042227 0.292562,0.4150215 0.650431,0.828125 0.635942,0.7340966 0.653167,0.7449892 0.777391,0.4550781 0.192704,-0.449731 0.339383,-0.4924437 0.769578,-0.2265625 0.432729,0.2674476 0.802783,0.3159227 0.802783,0.1074219 0,-0.073696 -0.147789,-0.383071 -0.326192,-0.6875 L 27.225782,8 Z m 3.806873,0 0.03906,0.2675781 c 0.02197,0.1476658 0.137518,0.3164162 0.257827,0.375 0.120309,0.058584 0.317218,0.1554921 0.437527,0.2148438 0.141636,0.069873 0.206625,0.2204118 0.181652,0.4257812 -0.02803,0.2305031 0.113734,0.4883603 0.519563,0.9453129 0.37162,0.418436 0.624312,0.860913 0.757858,1.320312 0.211238,0.726653 0.548239,1.076172 1.03522,1.076172 0.200166,0 0.35179,0.136192 0.521516,0.46875 0.131578,0.257812 0.356332,0.57298 0.498077,0.701171 0.271593,0.245624 0.288282,0.246548 1.845816,-0.06055 0.679565,-0.133989 0.841432,-0.125296 1.437588,0.08789 0.579107,0.20709 0.714917,0.32172 0.982482,0.828125 0.170698,0.323074 0.423868,0.638542 0.562534,0.701171 0.377302,0.170418 0.54813,0.04928 0.693401,-0.490234 0.07214,-0.267931 0.183912,-0.486328 0.250016,-0.486328 0.07377,8e-6 0.121104,-1.231023 0.121104,-3.187496 V 8 Z m -1.267655,2.091797 c -0.123602,0.01281 -0.148982,0.08673 -0.140634,0.283203 0.01837,0.432763 0.372127,1.699215 0.66215,2.375 0.132773,0.309374 0.306247,0.740035 0.386742,0.957031 0.0805,0.216996 0.439034,0.709184 0.796924,1.09375 0.556714,0.598208 0.715842,0.699219 1.099676,0.699219 0.547477,0 0.757784,-0.228598 0.773485,-0.84375 0.0094,-0.368223 -0.200591,-0.841428 -0.988341,-2.21875 -0.906192,-1.584408 -1.055177,-1.775452 -1.560642,-2.027344 -0.307062,-0.153019 -0.697324,-0.29364 -0.869194,-0.3125 -0.06548,-0.0072 -0.118966,-0.01009 -0.160166,-0.0059 z m -6.496491,0.152344 c 0.08811,0.0099 0.240701,0.13836 0.447294,0.402343 0.17055,0.21793 0.498827,0.45699 0.728559,0.53125 0.289362,0.09354 0.417995,0.211577 0.417995,0.384766 0,0.187642 -0.09357,0.25828 -0.375023,0.28125 -0.511839,0.04177 -0.768275,-0.138914 -1.062565,-0.748047 -0.268718,-0.556192 -0.303106,-0.868145 -0.15626,-0.851562 z m 1.869255,3.427734 c 0.03595,0.0036 0.06938,0.02919 0.09962,0.07813 0.04988,0.08074 0.03359,0.202734 -0.03516,0.271484 -0.08332,0.08335 -0.154383,0.07639 -0.214857,-0.02148 -0.04989,-0.08072 -0.03554,-0.202734 0.0332,-0.271484 0.04166,-0.04167 0.08124,-0.06027 0.117195,-0.05664 z m 4.195568,2 c 0.01314,-0.01314 0.03083,0.0048 0.05078,0.05469 0.03608,0.09023 0.0318,0.198695 -0.0098,0.240235 -0.04153,0.04154 -0.06985,-0.03229 -0.06445,-0.164063 0.003,-0.07281 0.0103,-0.117719 0.02344,-0.130859 z M 26.85076,17.625 c 0.155774,0 0.400415,0.282773 0.400415,0.462891 0,0.203298 -0.1553,0.208004 -0.351583,0.01172 C 26.730049,17.930065 26.69907,17.625 26.850762,17.625 Z m -7.422327,4.9375 c -0.22078,0.12347 -0.405124,0.213428 -0.566442,0.285156 0.162167,-0.07164 0.348945,-0.163522 0.566442,-0.285156 z m 9.102117,0.181641 c -0.121296,0.04575 -0.20016,0.05864 -0.341818,0.130859 -0.05576,0.02843 -0.07742,0.02526 -0.13282,0.05078 0.150927,-0.0412 0.309125,-0.100658 0.474638,-0.18164 z m -9.85607,0.175781 c -0.06916,0.02503 -0.139912,0.04899 -0.187512,0.05859 0.05017,-0.01031 0.118563,-0.03382 0.187512,-0.05859 z"/>
 <path style="opacity:0.1" d="M 36.556641 17.71875 C 36.536443 17.729425 36.527553 17.736979 36.505859 17.748047 C 35.952909 18.030148 35.912311 18.039154 35.837891 17.90625 C 35.836474 17.903721 35.837276 17.891635 35.835938 17.888672 C 35.792734 18.31481 35.778282 18.799789 35.837891 18.90625 C 35.912311 19.039154 35.952909 19.030148 36.505859 18.748047 C 37.061671 18.464486 37.125865 18.311364 36.734375 18.208984 C 36.52666 18.154663 36.480695 18.078221 36.556641 17.71875 z M 29.933594 19.435547 C 29.910201 19.530727 29.915028 19.643236 29.945312 19.804688 C 29.990458 20.045354 29.956334 20.41997 29.865234 20.671875 C 29.725597 21.058044 29.730397 21.146653 29.914062 21.349609 C 29.919024 21.355092 29.922856 21.365194 29.927734 21.371094 C 29.960065 21.170363 29.974932 20.962585 29.945312 20.804688 C 29.882503 20.469836 29.919551 20.334683 30.121094 20.162109 C 30.462335 19.869947 30.441499 19.6441 30.0625 19.5 C 30.01154 19.480626 29.97042 19.458849 29.933594 19.435547 z M 29.792969 22.160156 C 29.6085 22.136556 29.424805 22.202141 29.263672 22.363281 C 29.119447 22.507509 28.928424 22.625 28.839844 22.625 C 28.751258 22.625 28.459145 22.7375 28.189453 22.875 C 27.919762 23.012499 27.631008 23.125 27.548828 23.125 C 27.473973 23.125 27.218567 22.886492 26.962891 22.59375 C 26.954063 22.909965 26.912193 23.011706 26.6875 22.96875 C 26.405226 22.91479 26.418768 22.95398 26.890625 23.517578 C 27.170138 23.851434 27.466643 24.125 27.548828 24.125 C 27.631008 24.125 27.919762 24.012499 28.189453 23.875 C 28.459145 23.7375 28.751258 23.625 28.839844 23.625 C 28.928424 23.625 29.119447 23.507509 29.263672 23.363281 C 29.434528 23.192418 29.630535 23.120803 29.826172 23.158203 C 30.079258 23.206583 30.125 23.165302 30.125 22.898438 C 30.125 22.724321 30.030094 22.477827 29.914062 22.349609 C 29.849979 22.278795 29.814964 22.220626 29.792969 22.160156 z M 22.917969 22.775391 C 22.903939 22.841909 22.887968 22.910859 22.896484 22.955078 C 22.912998 23.040838 23.018529 23.121504 23.166016 23.197266 C 23.19227 23.139641 23.25 23.051726 23.25 23.027344 C 23.25 22.971532 23.099964 22.872603 22.917969 22.775391 z M 34.625 23.628906 C 34.310019 23.632906 34.0625 23.722966 34.0625 23.923828 C 34.0625 24.164566 34.107101 24.197851 34.875 24.539062 C 35.688309 24.900454 36.09662 24.772914 35.953125 24.201172 C 35.865895 23.853594 35.149968 23.622302 34.625 23.628906 z M 28.804688 26.216797 C 28.66135 26.23681 28.494674 26.25 28.275391 26.25 C 27.354654 26.25 27.322751 26.262278 25.273438 27.419922 C 24.701504 27.743005 23.940149 28.085348 23.583984 28.179688 C 19.583457 29.239363 17.961087 29.766572 17.0625 30.298828 C 16.281425 30.761478 16.175187 30.816685 15.25 31.248047 C 14.204871 31.735332 13.201784 32.33016 13.146484 32.496094 C 13.061648 32.750593 14.366596 32.545504 14.75 32.244141 C 15.318325 31.797426 16.548379 31 16.667969 31 C 16.732633 31 17.06315 30.829053 17.404297 30.619141 C 17.815605 30.366054 18.493897 30.130272 19.417969 29.921875 C 20.1844 29.749028 21.367642 29.4438 22.046875 29.242188 C 22.72611 29.040571 23.401136 28.873875 23.546875 28.873047 C 23.788444 28.871647 24.026592 28.754349 25.376953 27.962891 C 26.992901 27.015771 27.621336 26.75 28.242188 26.75 C 28.591059 26.75 28.875828 26.79219 28.875 26.84375 C 28.874471 26.874471 28.766065 27.073679 28.689453 27.224609 C 29.283307 27.167144 29.387011 26.974089 29.005859 26.568359 C 28.915201 26.471853 28.849161 26.34279 28.804688 26.216797 z M 35.427734 27.125 C 35.188069 27.125 35.061883 27.710425 35.251953 27.939453 C 35.423781 28.146492 35.700009 28.183048 35.804688 28.013672 C 35.916112 27.833377 35.615374 27.125 35.427734 27.125 z M 28.416016 27.759766 C 28.221778 28.149626 28.2424 28.343315 28.466797 28.666016 C 28.49975 28.604129 28.520394 28.556079 28.5625 28.482422 C 28.733543 28.183218 28.874113 27.89531 28.875 27.84375 C 28.875667 27.802206 28.670321 27.771975 28.416016 27.759766 z M 27.027344 29.404297 C 26.817204 29.44057 26.63857 29.558685 26.546875 29.75 C 26.025867 30.837041 25.967083 31.106989 26.064453 31.990234 C 26.127789 31.664645 26.273357 31.320673 26.546875 30.75 C 26.730265 30.367371 27.266712 30.274455 27.691406 30.552734 C 28.132806 30.841957 28.484285 30.800116 28.650391 30.435547 C 28.771855 30.168954 28.750874 30.062228 28.521484 29.751953 C 28.495221 29.716433 28.485078 29.692244 28.462891 29.660156 C 28.274038 29.789943 28.007781 29.760036 27.691406 29.552734 C 27.479059 29.413595 27.237483 29.368024 27.027344 29.404297 z M 9.1269531 29.910156 C 9.0279518 29.954737 8.8957294 30.021667 8.8144531 30.054688 C 9.1994949 31.223305 9.7210697 32.325701 10.349609 33.355469 C 10.562049 33.405749 10.772247 33.460082 10.908203 33.513672 C 10.997586 33.548904 11.086473 33.573457 11.177734 33.603516 C 11.004247 33.37162 10.834736 33.136141 10.673828 32.894531 C 10.984707 33.036989 11.84286 33.028115 11.9375 32.875 C 11.979993 32.80625 11.900727 32.75 11.761719 32.75 C 11.622713 32.75 11.238924 32.644034 10.908203 32.513672 C 10.772247 32.460082 10.562049 32.405749 10.349609 32.355469 C 9.8768348 31.580899 9.4661348 30.764182 9.1269531 29.910156 z M 39.875 32.75 C 39.80626 32.75 39.75 32.80625 39.75 32.875 C 39.75 32.94375 39.806253 33 39.875 33 C 39.94375 33 40 32.94375 40 32.875 C 40 32.80625 39.943748 32.75 39.875 32.75 z M 10.673828 33.894531 C 12.087768 36.017629 13.996116 37.774388 16.240234 39.011719 C 17.384802 38.562776 18.813703 38.3151 19.189453 38.626953 C 19.287523 38.708353 19.404526 38.979566 19.449219 39.230469 C 19.493909 39.481374 19.644697 39.81267 19.785156 39.966797 C 19.897995 40.090614 19.978184 40.299362 20.011719 40.486328 C 20.595065 40.634392 21.189179 40.751367 21.796875 40.833984 C 22.009171 40.734994 22.110862 40.596343 22.068359 40.421875 C 22.032819 40.275961 22.090001 39.980649 22.197266 39.765625 C 22.358859 39.441693 22.465406 39.375 22.820312 39.375 C 23.229053 39.375 23.25 39.35487 23.25 38.923828 C 23.25 38.481142 23.258075 38.472291 23.65625 38.550781 C 23.879679 38.594821 24.37384 38.664428 24.751953 38.705078 C 24.784308 38.708557 24.813154 38.718104 24.845703 38.722656 C 24.918629 38.665871 25.014473 38.625 25.150391 38.625 C 25.287049 38.625 25.353582 38.708819 25.361328 38.839844 C 25.485132 38.880885 25.603968 38.924351 25.652344 38.966797 C 25.725984 39.031409 25.816875 39.067967 25.916016 39.083984 C 25.951759 38.963405 26.050738 38.875 26.199219 38.875 C 26.32171 38.875 26.408532 38.963696 26.447266 39.068359 C 26.482193 39.0887 26.501953 39.12187 26.501953 39.177734 C 26.501953 39.539444 26.749783 39.50031 27.234375 39.0625 C 27.784732 38.565272 27.937146 38.100852 28.072266 36.494141 C 28.110205 36.043023 28.119046 35.757506 28.0625 35.580078 C 27.929365 37.105521 27.773018 37.575855 27.234375 38.0625 C 26.749783 38.50031 26.501953 38.539444 26.501953 38.177734 C 26.501953 38.173695 26.500162 38.171816 26.5 38.167969 C 26.431652 38.215027 26.367249 38.247294 26.326172 38.246094 C 26.279568 38.24476 26.164193 38.171547 26.037109 38.080078 C 25.891546 38.084807 25.754343 38.056291 25.652344 37.966797 C 25.534805 37.863666 25.13007 37.745728 24.751953 37.705078 C 24.37384 37.664428 23.879679 37.594821 23.65625 37.550781 C 23.258075 37.472291 23.25 37.481142 23.25 37.923828 C 23.25 38.35487 23.229053 38.375 22.820312 38.375 C 22.465406 38.375 22.358859 38.441693 22.197266 38.765625 C 22.090001 38.980649 22.032819 39.275961 22.068359 39.421875 C 22.110862 39.596343 22.009171 39.734994 21.796875 39.833984 C 21.189179 39.751367 20.595065 39.634392 20.011719 39.486328 C 19.978184 39.299362 19.897995 39.090614 19.785156 38.966797 C 19.644697 38.81267 19.493909 38.481374 19.449219 38.230469 C 19.404526 37.979566 19.287523 37.708353 19.189453 37.626953 C 18.813703 37.3151 17.384802 37.562776 16.240234 38.011719 C 14.395247 36.994455 12.781522 35.622656 11.478516 33.988281 C 11.190103 34.00297 10.849214 33.974901 10.673828 33.894531 z M 39.875 34.9375 C 39.735172 35.02392 39.704681 35.661709 39.833984 35.791016 C 39.980178 35.937211 40 35.885336 40 35.367188 C 40 35.060766 39.950488 34.890843 39.875 34.9375 z M 29.521484 35.001953 C 28.611253 35.005753 28.454493 35.566373 29.337891 35.658203 C 29.599535 35.685403 29.831814 35.716956 29.853516 35.728516 C 29.965273 35.788016 30.375 35.468843 30.375 35.322266 C 30.375 35.10433 30.097438 34.999553 29.521484 35.001953 z M 25.46875 35.400391 C 25.167099 35.340521 25.060524 35.697029 25.257812 36.101562 C 25.326348 36.242077 25.361299 36.335627 25.388672 36.412109 C 25.416069 36.409569 25.436865 36.394062 25.46875 36.400391 C 25.598378 36.426122 25.646973 36.55483 25.667969 36.779297 C 25.901755 36.992914 26.233468 37.243441 26.326172 37.246094 C 26.401457 37.248294 26.554743 37.148548 26.667969 37.023438 C 26.969796 36.689914 26.676183 36.304624 26.208984 36.421875 C 25.706242 36.548057 25.689453 36.532665 25.689453 35.96875 C 25.689453 35.568247 25.635899 35.433571 25.46875 35.400391 z M 27.257812 36.5 C 27.100192 36.5 26.988031 36.695062 27.087891 36.794922 C 27.228662 36.935695 27.376953 36.880804 27.376953 36.6875 C 27.376953 36.58438 27.322492 36.5 27.257812 36.5 z M 24.164062 36.796875 C 24.141413 36.806875 24.126953 36.830787 24.126953 36.867188 C 24.126953 36.939999 24.183203 37 24.251953 37 C 24.3207 37 24.376953 36.975633 24.376953 36.945312 C 24.376953 36.914992 24.320703 36.85499 24.251953 36.8125 C 24.217583 36.79127 24.186712 36.786875 24.164062 36.796875 z M 40 37.369141 L 39.996094 37.371094 C 39.993355 37.842091 39.974845 38.25 39.947266 38.25 C 39.917794 38.25 39.692779 38.059681 39.447266 37.828125 C 39.406382 37.789566 39.390609 37.760949 39.355469 37.724609 C 38.897033 38.017029 38.91176 38.323073 39.447266 38.828125 C 39.692779 39.059681 39.917794 39.25 39.947266 39.25 C 39.976746 39.25 40 38.827568 40 38.310547 L 40 37.369141 z M 24.164062 37.796875 C 24.186712 37.786875 24.217583 37.79127 24.251953 37.8125 C 24.320703 37.85499 24.376953 37.914992 24.376953 37.945312 C 24.376953 37.975633 24.3207 38 24.251953 38 C 24.183203 38 24.126953 37.939999 24.126953 37.867188 C 24.126953 37.830787 24.141413 37.806875 24.164062 37.796875 z M 35.630859 37.802734 C 35.622161 37.83217 35.615708 37.857018 35.607422 37.884766 C 35.498229 38.250416 35.522604 38.514063 35.742188 39.314453 C 35.890217 39.85404 36.003068 40.412654 35.992188 40.554688 C 35.981387 40.696719 35.978768 40.85469 35.986328 40.90625 C 35.994028 40.95782 36.40137 41 36.890625 41 C 37.756091 41 37.777761 40.9924 37.691406 40.71875 C 37.642586 40.564063 37.576394 40.268749 37.544922 40.0625 C 37.538727 40.021909 37.537198 40.007761 37.53125 39.96875 C 37.411365 39.990982 37.256437 40 36.890625 40 C 36.40137 40 35.994028 39.95782 35.986328 39.90625 C 35.978768 39.85469 35.981387 39.696719 35.992188 39.554688 C 36.003068 39.412654 35.890217 38.85404 35.742188 38.314453 C 35.678131 38.080966 35.663223 37.960726 35.630859 37.802734 z M 25.150391 39.625 C 24.77783 39.625 24.626394 39.863246 24.78125 40.203125 C 24.945436 40.563477 25.074599 40.578257 25.246094 40.257812 C 25.441958 39.891827 25.401506 39.625 25.150391 39.625 z M 26.199219 39.875 C 25.964209 39.875 25.834252 40.084918 25.923828 40.318359 C 26.003478 40.525922 26.11475 40.542136 26.363281 40.384766 C 26.575722 40.250244 26.454641 39.875 26.199219 39.875 z M 23.367188 40 C 23.317547 40 23.241538 40.193669 23.197266 40.429688 C 23.149736 40.683079 23.029092 40.880773 22.902344 40.914062 C 22.865384 40.923763 22.853056 40.934239 22.853516 40.943359 C 22.997215 40.953399 23.142346 40.958574 23.287109 40.964844 C 23.423067 40.943964 23.540708 40.907734 23.574219 40.853516 C 23.635109 40.754976 23.598177 40.732952 23.457031 40.787109 C 23.265653 40.860549 23.261594 40.836779 23.429688 40.511719 C 23.601495 40.179468 23.579814 40 23.367188 40 z M 39.878906 40.375 C 39.767527 40.375 39.5 40.766965 39.5 40.929688 C 39.5 40.968587 39.612503 41 39.75 41 C 39.933328 40.999996 40 40.916665 40 40.6875 C 40 40.515625 39.945227 40.375 39.878906 40.375 z"/>
 <path style="fill:#56d147" d="m 36.161875,16.142578 c -0.07673,0.01295 -0.146938,0.04341 -0.195324,0.09181 -0.127466,0.12749 -0.232359,1.487122 -0.128914,1.671875 0.07442,0.132904 0.115059,0.123898 0.668009,-0.158203 0.555812,-0.283561 0.62002,-0.436683 0.22853,-0.539063 -0.262658,-0.06869 -0.273248,-0.152268 -0.09571,-0.830078 0.04371,-0.166867 -0.246403,-0.275192 -0.476592,-0.236328 z m -7.805164,0.136719 c -0.02324,-0.0094 -0.02785,0.0023 -0.0098,0.03711 0.154526,0.297216 -0.116414,0.984667 -0.58402,1.482422 -0.158907,0.169151 -0.256825,0.358342 -0.218763,0.419922 0.03806,0.06158 -0.02097,0.277196 -0.130868,0.478516 -0.255218,0.467548 -0.456057,1.657658 -0.437527,2.597656 0.01402,0.711296 0.0062,0.730278 -0.289079,0.673828 -0.282274,-0.05396 -0.26872,-0.01477 0.203137,0.548828 0.279513,0.333856 0.576058,0.607422 0.658243,0.607422 0.08218,0 0.370973,-0.112501 0.640664,-0.25 0.269692,-0.1375 0.561845,-0.25 0.650431,-0.25 0.08858,0 0.279629,-0.117491 0.423854,-0.261719 0.170856,-0.170863 0.366897,-0.242478 0.562534,-0.205078 0.253086,0.04838 0.298846,0.0071 0.298846,-0.259765 0,-0.174116 -0.09492,-0.420611 -0.210951,-0.548829 -0.183665,-0.202956 -0.188467,-0.291565 -0.04883,-0.677734 0.0911,-0.251905 0.125236,-0.626521 0.08009,-0.867187 -0.06281,-0.334851 -0.02575,-0.470005 0.175793,-0.642579 0.341241,-0.292162 0.320439,-0.51801 -0.05856,-0.66211 -0.238437,-0.09065 -0.31252,-0.20902 -0.31252,-0.498047 0,-0.295804 -0.16652,-0.548658 -0.765671,-1.158203 -0.316489,-0.32198 -0.557266,-0.536246 -0.626992,-0.564453 z M 22.151255,21.5 c -0.358552,0 -1.893708,0.598821 -2.722822,1.0625 -0.800386,0.447614 -1.2664,0.56721 -1.101631,0.28125 0.04951,-0.08593 -0.05051,-0.02969 -0.220716,0.125 -0.170199,0.154687 -0.474009,0.282856 -0.675822,0.285156 -0.393312,0.0045 -0.929745,0.370852 -0.929745,0.634766 0,0.258163 -1.670303,1.77001 -2.332174,2.111328 -0.333293,0.171874 -0.951132,0.561537 -1.37313,0.865234 -0.889814,0.640361 -3.0598805,1.81534 -3.9807122,2.189454 0.3850418,1.168617 0.9067095,2.271013 1.5352492,3.300781 0.21244,0.05028 0.422673,0.104613 0.558629,0.158203 0.330721,0.130362 0.714562,0.236328 0.853568,0.236328 0.139008,0 0.218284,0.05625 0.175791,0.125 -0.09464,0.153115 -0.95287,0.161988 -1.263749,0.01953 1.41394,2.123098 3.322629,3.879857 5.566747,5.117188 1.144568,-0.448943 2.573648,-0.696619 2.949398,-0.384766 0.09807,0.0814 0.215089,0.352613 0.259782,0.603516 0.04469,0.250905 0.195498,0.582201 0.335957,0.736328 0.112839,0.123817 0.193042,0.332565 0.226577,0.519531 0.583346,0.148064 1.177569,0.265039 1.785265,0.347656 0.212296,-0.09899 0.314004,-0.237641 0.271501,-0.412109 -0.03554,-0.145914 0.02165,-0.441226 0.128915,-0.65625 0.161593,-0.323932 0.268178,-0.390625 0.623085,-0.390625 0.408741,0 0.429713,-0.02013 0.429713,-0.451172 0,-0.442686 0.0081,-0.451537 0.406275,-0.373047 0.223429,0.04404 0.715703,0.113647 1.093816,0.154297 0.378117,0.04065 0.782907,0.158588 0.900446,0.261719 0.136314,0.119602 0.328746,0.158252 0.531283,0.107422 0.231443,-0.05809 0.318378,-0.02951 0.318378,0.103515 0,0.36171 0.247875,0.322576 0.732467,-0.115234 0.550357,-0.497228 0.702822,-0.961648 0.837942,-2.568359 0.09769,-1.161572 0.02115,-1.251046 -0.945371,-1.117188 -0.378115,0.05238 -0.735164,0.05147 -0.793017,-0.002 -0.05784,-0.05342 -0.118992,-0.399179 -0.134773,-0.767578 -0.01577,-0.3684 -0.07422,-1.078644 -0.130868,-1.578125 -0.104345,-0.919939 -0.05128,-1.17386 0.478545,-2.279297 0.18339,-0.382629 0.719907,-0.475545 1.144601,-0.197266 0.4414,0.289223 0.792937,0.247382 0.959043,-0.117187 0.121464,-0.266593 0.100475,-0.373319 -0.128915,-0.683594 -0.344935,-0.46651 -0.339195,-0.60437 0.04102,-1.269483 0.171043,-0.299204 0.311632,-0.587112 0.312519,-0.638672 8.28e-4,-0.05156 -0.28398,-0.09375 -0.632851,-0.09375 -0.620852,0 -1.249461,0.265771 -2.865409,1.212891 -1.350361,0.791458 -1.586668,0.908756 -1.828237,0.910156 -0.145739,8.28e-4 -0.820857,0.167524 -1.500092,0.369141 -0.679233,0.201613 -1.862635,0.50684 -2.629066,0.679687 -0.924072,0.208397 -1.602487,0.444179 -2.013795,0.697266 C 17.063725,30.829053 16.733159,31 16.668495,31 c -0.11959,0 -1.349761,0.797426 -1.918086,1.244141 -0.383404,0.301363 -1.688449,0.506452 -1.603613,0.251953 0.0553,-0.165934 1.058515,-0.760762 2.103644,-1.248047 0.925187,-0.431362 1.031535,-0.486569 1.81261,-0.949219 0.898587,-0.532256 2.521356,-1.059465 6.521883,-2.11914 0.356165,-0.09434 1.115669,-0.436683 1.687603,-0.759766 C 27.32185,26.262278 27.353935,26.25 28.274672,26.25 c 0.987155,0 1.191822,-0.190586 0.730513,-0.681641 -0.151974,-0.161777 -0.265359,-0.426604 -0.251968,-0.58789 0.05598,-0.67412 -0.17577,-0.841967 -0.753952,-0.542969 -0.198475,0.102635 -0.673223,0.1875 -1.054753,0.1875 -0.685836,0 -0.760247,-0.0499 -0.701214,-0.480469 0.01271,-0.09267 -0.07284,-0.275224 -0.191418,-0.40625 -0.175459,-0.193889 -0.368574,-0.235597 -1.039126,-0.216797 -0.991662,0.02781 -2.055679,-0.256458 -2.115363,-0.566406 -0.02296,-0.11922 0.04549,-0.353456 0.154306,-0.519531 0.108818,-0.166075 0.199231,-0.349773 0.199231,-0.408203 0,-0.135879 -0.816736,-0.527344 -1.099676,-0.527344 z m 12.473417,1.128906 c -0.314981,0.004 -0.562534,0.09406 -0.562534,0.294922 0,0.240738 0.04465,0.274022 0.812549,0.615234 0.813309,0.361392 1.221686,0.233852 1.078191,-0.33789 -0.08723,-0.347578 -0.803238,-0.57887 -1.328206,-0.572266 z M 35.427455,26.125 c -0.239665,0 -0.365862,0.585425 -0.175792,0.814453 0.171828,0.207039 0.44809,0.243596 0.552769,0.07422 C 35.915857,26.833378 35.615095,26.125 35.427455,26.125 Z m 4.447537,5.625 c -0.06874,0 -0.125007,0.05625 -0.125007,0.125 0,0.06875 0.05626,0.125 0.125007,0.125 C 39.943742,32 40,31.943754 40,31.875 40,31.806254 39.94374,31.75 39.874992,31.75 Z m 0,2.1875 c -0.139828,0.08642 -0.170323,0.724209 -0.04102,0.853516 0.146194,0.146195 0.16603,0.09432 0.16603,-0.423828 0,-0.306421 -0.04952,-0.476345 -0.125008,-0.429688 z m -10.354147,0.06445 c -0.910231,0.0038 -1.067003,0.56442 -0.183605,0.65625 0.261644,0.0272 0.493955,0.05875 0.515657,0.07031 0.111757,0.0595 0.521516,-0.259673 0.521516,-0.40625 0,-0.217936 -0.277614,-0.322713 -0.853568,-0.320313 z m -4.052982,1.398438 c 0.167149,0.03318 0.220717,0.167856 0.220717,0.568359 0,0.563915 0.01682,0.579307 0.519562,0.453125 0.467199,-0.117251 0.76084,0.268039 0.459013,0.601563 -0.113226,0.125111 -0.266533,0.224856 -0.341818,0.222656 -0.143279,-0.0041 -0.881077,-0.610098 -0.896538,-0.736328 -0.0049,-0.04008 -0.08181,-0.223524 -0.171887,-0.408204 -0.197288,-0.404533 -0.0907,-0.761041 0.210951,-0.701171 z m 10.60807,0.578125 c -0.143015,-0.05828 -0.214174,0.0074 -0.259782,0.177734 -0.04139,0.154636 -0.135383,0.482012 -0.208997,0.728516 -0.109193,0.36565 -0.08481,0.629297 0.134774,1.429687 0.14803,0.539587 0.260896,1.098202 0.250015,1.240235 -0.0108,0.142031 -0.01346,0.300002 -0.0059,0.351562 0.0077,0.05157 0.415137,0.09375 0.904392,0.09375 0.865466,0 0.887185,-0.0076 0.80083,-0.28125 -0.04882,-0.154687 -0.115021,-0.450001 -0.146493,-0.65625 -0.325195,-2.130861 -0.303032,-2.058399 -0.775438,-2.517578 -0.334746,-0.325374 -0.550387,-0.508122 -0.693401,-0.566406 z M 40,36.369137 39.49997,36.624996 c -0.634923,0.323919 -0.648233,0.641488 -0.05273,1.203125 0.245513,0.231556 0.470559,0.421875 0.500031,0.421875 0.02948,0 0.05273,-0.422432 0.05273,-0.939453 z m -12.742966,0.130859 c 0.06468,0 0.119149,0.08438 0.119149,0.1875 0,0.193304 -0.148309,0.248195 -0.28908,0.107422 -0.09986,-0.09986 0.01231,-0.294922 0.169931,-0.294922 z m -3.093938,0.296875 c 0.02265,-0.01 0.05352,-0.0056 0.08789,0.01563 0.06875,0.04249 0.125007,0.102492 0.125007,0.132812 0,0.03032 -0.05626,0.05469 -0.125007,0.05469 -0.06875,0 -0.125008,-0.06 -0.125008,-0.132812 0,-0.0364 0.01446,-0.06032 0.03711,-0.07032 z m 0.986389,1.828125 c -0.372561,0 -0.52402,0.238246 -0.369164,0.578125 0.164186,0.360352 0.293378,0.375135 0.464873,0.05469 0.195864,-0.365985 0.155405,-0.632815 -0.09571,-0.632815 z m 1.048892,0.25 c -0.23501,0 -0.364984,0.209918 -0.275408,0.443359 0.07965,0.207563 0.190949,0.22378 0.43948,0.06641 0.212441,-0.134522 0.09135,-0.509769 -0.164072,-0.509769 z m -2.830251,0.125 c -0.04964,0 -0.12566,0.193669 -0.169932,0.429688 -0.04753,0.253391 -0.168192,0.451084 -0.29494,0.484374 -0.03696,0.0097 -0.04929,0.02018 -0.04883,0.0293 0.143699,0.01004 0.288856,0.01521 0.433619,0.02148 0.135958,-0.02088 0.253617,-0.05711 0.287128,-0.111328 0.06089,-0.09854 0.02395,-0.120567 -0.117196,-0.06641 -0.191378,0.07344 -0.195433,0.04967 -0.02734,-0.27539 0.171807,-0.332251 0.150126,-0.511714 -0.0625,-0.511714 z m 16.510773,0.375 c -0.111379,0 -0.378929,0.391965 -0.378929,0.554688 0,0.0389 0.112518,0.07032 0.250015,0.07032 C 39.933313,40 40,39.916665 40,39.6875 40,39.515625 39.94522,39.375 39.878899,39.375 Z"/>
 <path style="fill:#8b9cbe;opacity:0.1" d="M 8 8 L 8 9 L 23.998047 9 L 24.001953 9 L 40 9 L 40 8 L 24.001953 8 L 23.998047 8 L 8 8 z"/>
 <path style="fill:#8b9cbe;opacity:0.1" d="M 6 4 C 4.892 4 4 4.892 4 6 L 4 7 C 4 5.892 4.892 5 6 5 L 24 5 L 42 5 C 43.108 5 44 5.892 44 7 L 44 6 C 44 4.892 43.108 4 42 4 L 24 4 L 6 4 z"/>
</svg>
