<svg xmlns="http://www.w3.org/2000/svg" height="48" width="48" version="1.1">
 <g transform="matrix(2,0,0,2,2,2)">
  <path style="opacity:.2" d="m1 10.5s1.75 1.615385 3 1.615385 0-3.615385 1-3.615385-1 0-1-1.307692c0-0.692308 1-2.692308 1-2.692308s-0.4237289 2 0 2c1-1 4.220339-3 6-3 2 0 6 0 6 3 0 7-1.75 7.638853-1.75 9.307692 0 1.66884 0.75 2.692308 0.75 2.692308s-1 0-2-1c-1 1-1 2-1 2l-1-1-2 1-1-1-3 1s1-1.769231 1-3c-2.75-0.538461-3.4188611-1.418861-5-3-1-1-1-3-1-3z"/>
  <path style="fill:#7478ce" d="m1 10s1.75 1.615385 3 1.615385 0-3.615385 1-3.615385-1 0-1-1.307692c0-0.692308 1-2.692308 1-2.692308s-0.4237289 2 0 2c1-1 4.220339-3 6-3 2 0 6 0 6 3 0 7-1.75 7.638853-1.75 9.307692 0 1.66884 0.75 2.692308 0.75 2.692308s-1 0-2-1c-1 1-1 2-1 2l-1-1-2 1-1-1-3 1s1-1.769231 1-3c-2.75-0.538461-3.4188611-1.418861-5-3-1-1-1-3-1-3z"/>
  <path style="opacity:.2;fill:#8b9cbe" d="m11 3c-1.779661 0-5 2-6 3-0.093174 0-0.1412786-0.1069334-0.1660156-0.2578125-0.0242025 0.3991485-0.0085306 0.7578125 0.1660156 0.7578125 1-1 4.220339-3 6-3 1.968051 0 5.864033 0.00672 5.988281 2.8652344 0.001305-0.1316889 0.011719-0.2287648 0.011719-0.3652344 0-3-4-3-6-3zm-6 1s-1 1.9990983-1 2.6914062c0 0.0784545 0.0276979 0.1377082 0.0410156 0.2070313 0.1570574-0.7263617 0.6760671-1.8053891 0.8378906-2.1367187 0.0527044-0.3592942 0.1210938-0.7617188 0.1210938-0.7617188zm-0.3046875 4.2421875c-0.1190338 0.2582076-0.1289897 0.6986445-0.1132813 1.1914063 0.0108383-0.5264982 0.0884172-0.9335938 0.4179688-0.9335938 0.5761139 0 0.1545601-0.0077604-0.3046875-0.2578125zm-3.6953125 1.7578125s0.01331 0.233991 0.044922 0.539062c0.1264001 0.115032 1.7532213 1.576172 2.955078 1.576172 0.574301 0 0.6161695-0.766734 0.5957031-1.591796-0.0217939 0.608422-0.141172 1.091796-0.5957031 1.091796-1.25 0-3-1.615234-3-1.615234zm14.267578 5.660156c-0.0033 0.05033-0.01758 0.09633-0.01758 0.148438 0 0.971842 0.248481 1.687038 0.460938 2.146484 0.166986 0.031191 0.289064 0.044922 0.289064 0.044922s-0.637239-0.88487-0.732422-2.339844zm-8.3124999 0.830078c-0.1935172 1.161421-0.9550781 2.509766-0.9550781 2.509766l0.296875-0.09961c0.295587-0.621921 0.703125-1.603278 0.703125-2.40039-0.016381-0.0032-0.028688-0.0065-0.044922-0.0098z"/>
  <path style="opacity:.2" d="m20 12.5s1-1.538461 1-4c0-2.4615384-0.5-4-3-4-4 0-7 5-7 7s1 3 3 3 5 0 5-4c1 0 1 2 1 2z"/>
  <path style="fill:#fecd38" d="m20 12s1-1.538461 1-4c0-2.4615384-0.5-4-3-4-4 0-7 5-7 7s1 3 3 3 5 0 5-4c1 0 1 2 1 2z"/>
  <circle r="1" style="opacity:.2" cx="11" cy="7.5"/>
  <circle r="1" style="fill:#8b9cbe" cx="11" cy="7"/>
  <path style="opacity:.2;fill:#8b9cbe" d="m18 4c-4 0-7 5-7 7 0 0.100018 0.01453 0.186233 0.01953 0.28125 0.192109-2.1185951 3.114477-6.78125 6.98047-6.78125 2.391664 0 2.946083 1.4180849 2.990234 3.6953125 0.001501-0.0669419 0.009766-0.1269327 0.009766-0.1953125 0-2.4615384-0.5-4-3-4z"/>
 </g>
</svg>
