<svg xmlns="http://www.w3.org/2000/svg" width="48" height="48" version="1.1">
 <path style="opacity:0.2" d="M 10.542969,11 A 1.5552647,1.7323062 0 0 0 9.0410156,12.277344 L 3.0546875,36.8125 a 1.5552647,1.7323062 0 0 0 1.5,2.1875 h 6.9042965 a 1.5552647,1.7323062 0 0 0 1.5,-1.279297 L 18.945312,13.185547 A 1.5552647,1.7323062 0 0 0 17.445312,11 Z m 13,0 a 1.5552647,1.7323062 0 0 0 -1.501953,1.277344 L 16.054688,36.8125 a 1.5552647,1.7323062 0 0 0 1.5,2.1875 h 6.904296 a 1.5552647,1.7323062 0 0 0 1.5,-1.279297 L 31.945312,13.185547 A 1.5552647,1.7323062 0 0 0 30.445312,11 Z m 13,0 a 1.5552647,1.7323062 0 0 0 -1.501953,1.277344 L 29.054688,36.8125 a 1.5552647,1.7323062 0 0 0 1.5,2.1875 h 6.904296 a 1.5552647,1.7323062 0 0 0 1.5,-1.279297 L 44.945312,13.185547 A 1.5552647,1.7323062 0 0 0 43.445312,11 Z"/>
 <path style="fill:#dd2f38" d="M 10.543089,10.000002 A 1.5552647,1.7323062 0 0 0 9.0411322,11.277111 L 3.0545692,35.812844 A 1.5552647,1.7323062 0 0 0 4.5550072,38 h 6.9038348 a 1.5552647,1.7323062 0 0 0 1.500437,-1.278801 l 5.986565,-24.535733 a 1.5552647,1.7323062 0 0 0 -1.500437,-2.185464 z"/>
 <path style="fill:#0766b5" d="m 36.543089,10.000002 a 1.5552647,1.7323062 0 0 0 -1.501957,1.277109 L 29.054569,35.812844 A 1.5552647,1.7323062 0 0 0 30.555007,38 h 6.903835 a 1.5552647,1.7323062 0 0 0 1.500437,-1.278801 l 5.986565,-24.535733 a 1.5552647,1.7323062 0 0 0 -1.500437,-2.185464 z"/>
 <path style="fill:#27a74e" d="m 23.543089,10.000001 a 1.5552647,1.7323062 0 0 0 -1.501957,1.277109 l -5.986563,24.535733 a 1.5552647,1.7323062 0 0 0 1.500438,2.187156 h 6.903835 a 1.5552647,1.7323062 0 0 0 1.500437,-1.278801 l 5.986565,-24.535733 a 1.5552647,1.7323062 0 0 0 -1.500437,-2.185464 z"/>
 <path style="opacity:0.2;fill:#8b9cbe" d="M 10.542969 10 A 1.5552647 1.7323062 0 0 0 9.0410156 11.277344 L 3.0546875 35.8125 A 1.5552647 1.7323062 0 0 0 3.0664062 36.761719 L 9.0410156 12.277344 A 1.5552647 1.7323062 0 0 1 10.542969 11 L 17.445312 11 A 1.5552647 1.7323062 0 0 1 18.931641 12.238281 L 18.945312 12.185547 A 1.5552647 1.7323062 0 0 0 17.445312 10 L 10.542969 10 z M 23.542969 10 A 1.5552647 1.7323062 0 0 0 22.041016 11.277344 L 16.054688 35.8125 A 1.5552647 1.7323062 0 0 0 16.066406 36.761719 L 22.041016 12.277344 A 1.5552647 1.7323062 0 0 1 23.542969 11 L 30.445312 11 A 1.5552647 1.7323062 0 0 1 31.931641 12.238281 L 31.945312 12.185547 A 1.5552647 1.7323062 0 0 0 30.445312 10 L 23.542969 10 z M 36.542969 10 A 1.5552647 1.7323062 0 0 0 35.041016 11.277344 L 29.054688 35.8125 A 1.5552647 1.7323062 0 0 0 29.066406 36.761719 L 35.041016 12.277344 A 1.5552647 1.7323062 0 0 1 36.542969 11 L 43.445312 11 A 1.5552647 1.7323062 0 0 1 44.931641 12.238281 L 44.945312 12.185547 A 1.5552647 1.7323062 0 0 0 43.445312 10 L 36.542969 10 z"/>
</svg>
