<svg xmlns="http://www.w3.org/2000/svg" width="48" height="48" version="1.1">
 <rect style="opacity:0.2" width="32" height="20" x="-41" y="-34" rx="2" ry="2" transform="matrix(0,-1,-1,0,0,0)"/>
 <rect style="fill:#8e8e8e" width="32" height="20" x="-40" y="-34" rx="2" ry="2" transform="matrix(0,-1,-1,0,0,0)"/>
 <rect style="opacity:0.2" width="30" height="40" x="-39" y="-44" rx="2" ry="2" transform="matrix(0,-1,-1,0,0,0)"/>
 <rect style="fill:#4f4f4f" width="30" height="40" x="-38" y="-44" rx="2" ry="2" transform="matrix(0,-1,-1,0,0,0)"/>
 <rect style="fill:#333333" width="26" height="36" x="-36" y="-42" rx="0" ry="0" transform="matrix(0,-1,-1,0,0,0)"/>
 <path style="opacity:0.1;fill:#8b9cbe" d="M 6,8 C 4.892,8 4,8.892 4,10 V 11 C 4,9.892 4.892,9 6,9 H 42 C 43.108,9 44,9.892 44,11 V 10 C 44,8.892 43.108,8 42,8 Z"/>
 <rect style="opacity:0.1;fill:#8b9cbe" width="36" height="1" x="6" y="36"/>
</svg>
