<svg xmlns="http://www.w3.org/2000/svg" width="48" height="48" version="1">
 <rect style="opacity:0.2" width="32" height="40" x="-41" y="-44" rx="2" ry="2" transform="matrix(0,-1,-1,0,0,0)"/>
 <rect style="fill:#4f4f4f" width="32" height="40" x="-40" y="-44" rx="2" ry="2" transform="matrix(0,-1,-1,0,0,0)"/>
 <path style="opacity:0.2" d="m 14,12 v 4 H 7 v 18 h 7 v 4 h 20 v -4 h 7 V 16 h -7 v -4 z"/>
 <rect style="fill:#8b9cbe" width="20" height="26" x="14" y="11"/>
 <path style="opacity:0.1;fill:#8b9cbe" d="M 6,8 C 4.892,8 4,8.892 4,10 v 1 C 4,9.892 4.892,9 6,9 h 36 c 1.108,0 2,0.892 2,2 V 10 C 44,8.892 43.108,8 42,8 Z"/>
 <rect style="fill:#8b9cbe" width="18" height="34" x="15" y="-41" transform="rotate(90)"/>
 <path style="opacity:0.1" d="m 29,14 v 2 h 2 v 3.761719 A 4.5,4.5 0 0 0 28.5,19 4.5,4.5 0 0 0 24,23.5 4.5,4.5 0 0 0 28.5,28 4.5,4.5 0 0 0 31,27.240234 V 28 h 2 2 V 26 H 33 V 23.5 15 14 Z m -17,5 v 2 h 2 v 10 h -2 v 2 h 6 V 31 H 16 V 27.238281 A 4.5,4.5 0 0 0 18.5,28 4.5,4.5 0 0 0 23,23.5 4.5,4.5 0 0 0 18.5,19 4.5,4.5 0 0 0 16,19.759766 V 19 Z m 6.5,1.919922 a 2.5,2.5 0 0 1 2.5,2.5 2.5,2.5 0 0 1 -2.5,2.5 2.5,2.5 0 0 1 -2.5,-2.5 2.5,2.5 0 0 1 2.5,-2.5 z m 10,0.160156 a 2.5,2.5 0 0 1 2.5,2.5 2.5,2.5 0 0 1 -2.5,2.5 2.5,2.5 0 0 1 -2.5,-2.5 2.5,2.5 0 0 1 2.5,-2.5 z"/>
 <rect style="fill:#17191e" width="2" height="13" x="14" y="18"/>
 <rect style="fill:#17191e" width="2" height="6" x="30" y="-18" transform="rotate(90)"/>
 <rect style="fill:#17191e" width="2" height="4" x="18" y="-16" transform="rotate(90)"/>
 <path style="fill:#17191e" d="M 18.5,18 A 4.5,4.5 0 0 0 14,22.5 4.5,4.5 0 0 0 18.5,27 4.5,4.5 0 0 0 23,22.5 4.5,4.5 0 0 0 18.5,18 Z m 0,1.919922 a 2.5,2.5 0 0 1 2.5,2.5 2.5,2.5 0 0 1 -2.5,2.5 2.5,2.5 0 0 1 -2.5,-2.5 2.5,2.5 0 0 1 2.5,-2.5 z"/>
 <rect style="fill:#17191e" width="2" height="13" x="-33" y="-27" transform="scale(-1)"/>
 <rect style="fill:#17191e" width="2" height="4" x="-15" y="29" transform="rotate(-90)"/>
 <rect style="fill:#17191e" width="2" height="4" x="-27" y="31" transform="rotate(-90)"/>
 <path style="fill:#17191e" d="M 28.5,27 A 4.5,4.5 0 0 0 33,22.5 4.5,4.5 0 0 0 28.5,18 4.5,4.5 0 0 0 24,22.5 4.5,4.5 0 0 0 28.5,27 Z m 0,-1.919922 a 2.5,2.5 0 0 1 -2.5,-2.5 2.5,2.5 0 0 1 2.5,-2.5 2.5,2.5 0 0 1 2.5,2.5 2.5,2.5 0 0 1 -2.5,2.5 z"/>
</svg>
