<svg xmlns="http://www.w3.org/2000/svg" width="48" height="48" version="1.1">
 <g transform="translate(0,-1004.3622)">
  <circle style="opacity:0.2" cx="24" cy="1029.362" r="20"/>
  <circle style="fill:#b2bfd9" cx="24" cy="1028.362" r="20"/>
  <path style="fill:#fa9109" d="m 24.66954,1032.3472 c 2.349383,0.7728 3.245548,-0.019 3.245548,-0.019 -1.322005,-1.2838 -1.626883,-1.624 -1.317369,-2.6086 0.617259,-1.97 0.655993,-2.8232 0.418203,-3.8344 -0.569036,-2.4199 -1.635631,-2.8202 -1.635631,-2.8202 -0.467075,1.7863 -0.550974,2.1846 -1.588412,2.4444 -1.992771,0.5142 -2.724397,0.855 -3.487554,1.5454 -1.837929,1.6627 -1.606479,2.851 -1.606479,2.851 1.761373,-0.5213 2.19185,-0.5968 2.889227,0.1482 1.017879,1.1019 2.106936,1.9721 3.082467,2.293 z"/>
  <path style="fill:#009245" d="m 24.011737,1012.3623 c -3.040857,0 -5.883393,0.8574 -8.301162,2.3442 -0.04245,0.026 -0.08254,0.053 -0.125005,0.081 11.14216,3.0233 14.353179,8.2005 14.74677,13.1395 0.227777,2.8599 -1.472724,4.3012 -1.472724,4.3012 5.275028,-0.4785 10.959487,-5.7003 10.959487,-5.7003 -0.980533,-7.9242 -7.407139,-14.1652 -15.807366,-14.1652 z m -9.555126,3.2874 c -6.332443,4.8166 -8.4890857,13.5356 -4.289259,20.8538 1.520429,2.6493 3.677385,4.6977 6.166298,6.0598 0.0436,0.024 0.08921,0.045 0.132819,0.069 -2.967992,-11.2183 -0.118367,-16.6056 3.935728,-19.4176 2.348919,-1.6289 4.44161,-0.8665 4.44161,-0.8665 -3.04889,-4.3567 -10.387196,-6.6984 -10.387196,-6.6984 z m 25.532422,12.157 c -8.173596,8.1949 -14.23424,8.4044 -18.682498,6.278 -2.576696,-1.2312 -2.966933,-3.4348 -2.966933,-3.4348 -2.226137,4.8351 -0.572292,12.3989 -0.572292,12.3989 7.312402,3.1087 15.896798,0.6281 20.096625,-6.6907 1.520429,-2.6487 2.202676,-5.5518 2.130958,-8.4021 -5.51e-4,-0.05 -0.0048,-0.1 -0.0059,-0.1493 z"/>
  <path style="opacity:0.2" d="m 23.216323,1028.7408 c 0.342679,-0.4327 0.971832,-0.5054 1.404503,-0.1627 0.433285,0.343 0.50571,0.9727 0.163017,1.4055 -0.342692,0.4326 -0.97274,0.5056 -1.40511,0.1624 -0.432671,-0.3428 -0.505392,-0.9719 -0.16241,-1.4052"/>
  <path style="fill:#8b9cbe" d="m 23.216323,1027.7408 c 0.342679,-0.4327 0.971832,-0.5054 1.404503,-0.1627 0.433285,0.343 0.50571,0.9727 0.163017,1.4055 -0.342692,0.4326 -0.97274,0.5056 -1.40511,0.1624 -0.432671,-0.3428 -0.505392,-0.9719 -0.16241,-1.4052"/>
  <path style="opacity:0.2;fill:#8b9cbe" d="m 24,1008.3622 a 20,20 0 0 0 -20,20 20,20 0 0 0 0.021484,0.582 A 20,20 0 0 1 24,1009.3622 a 20,20 0 0 1 19.978516,19.418 20,20 0 0 0 0.02148,-0.418 20,20 0 0 0 -20,-20 z"/>
  <path style="opacity:0.2" transform="translate(0,1004.3622)" d="M 24.011719 8 C 20.970862 8 18.128707 8.85695 15.710938 10.34375 C 15.668487 10.36975 15.628403 10.397781 15.585938 10.425781 C 15.987613 10.534771 16.356981 10.653102 16.738281 10.767578 C 18.919415 9.6398679 21.39103 9 24.011719 9 C 32.098367 9 38.341181 14.789714 39.671875 22.291016 C 39.687826 22.2766 39.818359 22.166016 39.818359 22.166016 C 38.837826 14.241816 32.411946 8 24.011719 8 z M 14.457031 11.287109 C 10.256611 14.482045 7.9088946 19.395348 8.0195312 24.476562 C 8.2176881 19.756715 10.532963 15.271845 14.457031 12.287109 C 14.457031 12.287109 20.476039 14.217708 23.875 17.822266 C 24.468056 17.858962 24.84375 17.986328 24.84375 17.986328 C 21.79486 13.629628 14.457031 11.287109 14.457031 11.287109 z M 39.988281 23.445312 C 31.814685 31.640212 25.754899 31.849056 21.306641 29.722656 C 18.729945 28.491456 18.339844 26.287109 18.339844 26.287109 C 17.410442 28.305742 17.17288 30.783026 17.193359 33.003906 C 17.253459 31.060934 17.549927 29.002785 18.339844 27.287109 C 18.339844 27.287109 18.729945 29.491456 21.306641 30.722656 C 25.754899 32.849056 31.814685 32.640212 39.988281 24.445312 C 39.996146 24.161101 40.001273 23.877219 39.994141 23.59375 C 39.99359 23.54375 39.989381 23.494613 39.988281 23.445312 z M 30.332031 24.582031 C 30.155149 26.765431 28.859375 27.865234 28.859375 27.865234 C 29.139098 27.839861 29.420055 27.794704 29.701172 27.744141 C 30.08798 27.029792 30.439303 25.977494 30.332031 24.582031 z M 15.253906 30.253906 C 15.181024 32.464826 15.467732 35.069579 16.189453 38.115234 C 16.238244 38.142611 16.284934 38.174328 16.333984 38.201172 C 16.377584 38.225172 16.423188 38.245531 16.466797 38.269531 C 15.647015 35.170954 15.283238 32.531388 15.253906 30.253906 z"/>
 </g>
</svg>
