<svg xmlns="http://www.w3.org/2000/svg" width="48" height="48" version="1">
 <rect style="fill:#6e85e9" width="40" height="40" x="4" y="4" rx="2" ry="2"/>
 <path style="opacity:0.1;fill:#8b9cbe" d="M 6,4 C 4.892,4 4,4.892 4,6 L 4,7 C 4,5.892 4.892,5 6,5 l 36,0 c 1.108,0 2,0.892 2,2 L 44,6 C 44,4.892 43.108,4 42,4 L 6,4 Z"/>
 <path style="opacity:0.2" d="M 6,45 C 4.892,45 4,44.108 4,43 l 0,-1 c 0,1.108 0.892,2 2,2 l 36,0 c 1.108,0 2,-0.892 2,-2 l 0,1 c 0,1.108 -0.892,2 -2,2 L 6,45 Z"/>
 <path style="opacity:0.10000001;fill-rule:evenodd" d="m 27.786074,14.999696 -1.25,0.911202 -3.181817,1.252838 -0.704544,0.728888 -0.545452,0.410037 -0.113637,0.956726 0.22727,0.501114 0.213922,1.217557 0.772727,1.503394 0.840908,1.070629 -1.318181,2.163988 -1.499998,3.234616 -0.909092,1.457831 -1.27709,1.845082 -0.06818,0.842803 L 18,33.825342 l 1.181819,1.070628 -0.195637,1.275621 0.113636,3.202029 0.445636,3.257348 L 19.999998,45 l 4.926822,0 -0.318183,-0.09113 0.40909,-0.36447 -0.06818,-1.025064 0.431817,-0.888368 -0.363635,0.04537 0.559178,-1.138926 0,-1.138975 0.431819,-0.592245 0,-0.774455 0.886362,-1.607505 0.06819,-1.025062 -0.181818,-0.842804 0.309456,-0.956715 0.477274,-0.774505 0,-0.478332 0.545453,-0.06834 0.477272,-0.478384 0.43182,-1.207273 0.954543,-1.070627 1.136363,-0.432768 0.704547,0.615027 1.749999,0.523898 1.386362,0.72894 0.659089,0.842803 1.136364,0.113913 3.590908,1.571743 1.840909,0.660593 1.499997,1.138925 L 44,36.194134 44,35.761366 43.204546,35.146339 44,35.351331 l 0,-1.708387 -0.136363,0 -0.704547,-0.296173 -0.477276,-0.250559 0.704548,-0.592244 0.181819,-0.432768 -0.11364,-0.296173 -0.659087,0.113913 -1.386363,0.72894 -0.181817,0.364471 -0.477275,-0.113913 -1.72727,-0.979498 -0.06818,-0.660593 -1.022728,-0.523898 -1.72727,-0.91115 -0.431819,0.296123 0.06819,-0.410035 -0.954545,-0.911151 -0.84091,-0.227774 -0.772727,-0.91115 -0.249999,-0.296123 0.772726,0.546679 -0.113636,-0.615027 0.613635,0.318906 -0.181818,-0.911151 0.84091,0.774454 -0.363637,-0.523897 0.840908,0.341688 -0.727272,-1.002281 0.545455,0.18221 -0.25,-0.979447 0.431817,0.36442 -0.613635,-0.888368 0.613635,0.182261 -0.545452,-0.728941 0.72727,-0.06835 -0.795453,-0.478332 0.477272,-0.227826 -0.522726,-0.06834 0.704545,-0.660592 -0.659091,0.06834 0.06819,-0.432767 0.06818,-1.184491 -0.363638,0.820021 -0.431817,-1.184491 0.06818,0.956717 -0.250001,0.06834 -0.590909,0 -0.659091,-0.979498 -0.659088,0 -0.772729,-0.660594 -0.363636,0.364471 -0.90909,0.314574 -0.881473,0 -0.249999,0.592246 0.249999,0.961046 -0.136363,0.706107 -0.590908,-0.341637 -0.477273,-0.911201 -1.323072,-0.227774 -0.409091,-0.432768 -0.909091,-0.410035 -0.62301,-1.285905 0.06819,-0.774454 2.522726,-1.936223 1.181817,0.54668 0.181817,0.410035 0,0.501124 0.318184,0.410035 0.590906,0.18221 0.409092,-0.36447 0.06818,-0.409994 -0.181818,-0.364471 -0.363637,-0.18221 -0.227271,-0.296122 0.522727,-0.250557 -0.113636,-0.592295 0,-0.36442 -0.363663,-0.36447 -0.181817,-0.546681 -0.704545,-0.159478 -0.613635,-0.136696 z"/>
 <path style="fill:#17191e;fill-rule:evenodd" d="m 27.786074,13.999696 -1.25,0.911202 -3.181817,1.252838 -0.704544,0.728888 -0.545452,0.410037 -0.113637,0.956726 0.22727,0.501114 0.213922,1.217557 0.772727,1.503394 0.840908,1.070629 -1.318181,2.163988 -1.499998,3.234616 -0.909092,1.457831 -1.27709,1.845082 -0.06818,0.842803 L 18,32.825342 l 1.181819,1.070628 -0.195637,1.275621 0.113636,3.202029 0.445636,3.257348 L 19.999998,44 l 4.926822,0 -0.318183,-0.09113 0.40909,-0.36447 -0.06818,-1.025064 0.431817,-0.888368 -0.363635,0.04537 0.559178,-1.138926 0,-1.138975 0.431819,-0.592245 0,-0.774455 0.886362,-1.607505 0.06819,-1.025062 -0.181818,-0.842804 0.309456,-0.956715 0.477274,-0.774505 0,-0.478332 0.545453,-0.06834 0.477272,-0.478384 0.43182,-1.207273 0.954543,-1.070627 1.136363,-0.432768 0.704547,0.615027 1.749999,0.523898 1.386362,0.72894 0.659089,0.842803 1.136364,0.113913 3.590908,1.571743 1.840909,0.660593 1.499997,1.138925 L 44,35.194134 44,34.761366 43.204546,34.146339 44,34.351331 l 0,-1.708387 -0.136363,0 -0.704547,-0.296173 -0.477276,-0.250559 0.704548,-0.592244 0.181819,-0.432768 -0.11364,-0.296173 -0.659087,0.113913 -1.386363,0.72894 -0.181817,0.364471 -0.477275,-0.113913 -1.72727,-0.979498 -0.06818,-0.660593 -1.022728,-0.523898 -1.72727,-0.91115 -0.431819,0.296123 0.06819,-0.410035 -0.954545,-0.911151 -0.84091,-0.227774 -0.772727,-0.91115 -0.249999,-0.296123 0.772726,0.546679 -0.113636,-0.615027 0.613635,0.318906 -0.181818,-0.911151 0.84091,0.774454 -0.363637,-0.523897 0.840908,0.341688 -0.727272,-1.002281 0.545455,0.18221 -0.25,-0.979447 0.431817,0.36442 -0.613635,-0.888368 0.613635,0.182261 -0.545452,-0.728941 0.72727,-0.06835 -0.795453,-0.478332 0.477272,-0.227826 -0.522726,-0.06834 0.704545,-0.660592 -0.659091,0.06834 0.06819,-0.432767 0.06818,-1.184491 -0.363638,0.820021 -0.431817,-1.184491 0.06818,0.956717 -0.250001,0.06834 -0.590909,0 -0.659091,-0.979498 -0.659088,0 -0.772729,-0.660594 -0.363636,0.364471 -0.90909,0.314574 -0.881473,0 -0.249999,0.592246 0.249999,0.961046 -0.136363,0.706107 -0.590908,-0.341637 -0.477273,-0.911201 -1.323072,-0.227774 -0.409091,-0.432768 -0.909091,-0.410035 -0.62301,-1.285905 0.06819,-0.774454 2.522726,-1.936223 1.181817,0.54668 0.181817,0.410035 0,0.501124 0.318184,0.410035 0.590906,0.18221 0.409092,-0.36447 0.06818,-0.409994 -0.181818,-0.364471 -0.363637,-0.18221 -0.227271,-0.296122 0.522727,-0.250557 -0.113636,-0.592295 0,-0.36442 -0.363663,-0.36447 -0.181817,-0.546681 -0.704545,-0.159478 -0.613635,-0.136696 z"/>
</svg>
