<svg xmlns="http://www.w3.org/2000/svg" width="48" height="48" version="1">
 <rect style="fill:#0a7cb4" width="40" height="40" x="4" y="4" rx="2" ry="2"/>
 <path opacity=".2" d="m15.904 16c-2.0067-0.02246-4.3992 2.0428-4.832 7.9121-0.46126 6.2606 1.3476 6.8789 3.3086 6.8789 1.6334 0 2.9447-0.8066 4.3828-2.4609 0.21692-0.25042 0.45945-0.37846 0.55469-0.28516 0.09572 0.09331 0.16833 0.164 0.16016 0.1582-0.0077-0.0068-0.11435 0.239-0.2168 0.55469-0.28234 0.8702-0.71362 2.5607-0.2793 3.748 0.11351 0.31085 0.35059 0.26782 0.44727-0.04883 0.23039-0.75514 0.67332-2.0568 1.1543-2.7109 0.19576-0.26734 0.42416-0.11631 0.41406 0.21484-0.06157 2.015 0.59892 5.6864 3.6094 8.0195 3.1485 2.4414 7.737 2.3787 10.225 1.3359 0.30446-0.1286 0.77837-0.121 1.1035-0.0625 0.20009 0.03577 0.45452 0.05843 0.77148 0.04102 0.92156-0.05221-0.6163-0.82444-0.71875-1.2363-0.10149-0.41286 0.71883-0.49166 0.88477-1.8047 0.1669-1.315-0.88281-0.05078-0.88281-0.05078s-0.77032 0.88966-3.8457 0.69531c-2.8334-0.17742-6.2116-1.6131-6.0977-6.6699 0.0082-0.33212 0.11237-0.62931 0.21289-0.66992 0.10052-0.03964 0.38006 0.11073 0.55273 0.39258 0.42759 0.69519 0.80931 1.8218 1.0176 2.5059 0.09716 0.31617 0.33231 0.36115 0.44727 0.05078 0.37757-1.0331 0.10144-2.4457-0.16406-3.3672-0.09042-0.31859 0.0052-0.71927 0.21875-0.91797 0.21259-0.19869 0.53795-0.16644 0.75391 0.08398 1.4468 1.6703 2.7651 2.4863 4.4062 2.4863 1.9605 0 3.7679-0.61785 3.3066-6.8789-0.46222-6.2606-3.1536-8.1922-5.2285-7.8828-1.3381 0.1987-2.2642 0.87862-2.752 1.3379-0.24145 0.22625-0.4082 0.45924-0.4082 0.48438-0.000481 0.02465-0.18943-0.1437-0.44531-0.35352-1.1183-0.91951-2.5242-1.4688-4.0508-1.4688-1.5064 0-2.8958 0.5329-4.0078 1.4297-0.25684 0.2074-0.44826 0.38562-0.44922 0.37305 0-0.01354-0.16381-0.23664-0.4043-0.46289-0.48868-0.45879-1.4139-1.1407-2.752-1.3398-0.12965-0.01955-0.2627-0.02975-0.39648-0.03125zm6.0957 5c0.55207 0 1 0.44794 1 1 0 0.55207-0.44793 1-1 1-0.55206 0-1-0.44793-1-1 0-0.55206 0.44794-1 1-1zm4 0c0.55207 0 1 0.44794 1 1 0 0.55207-0.44793 1-1 1-0.55206 0-1-0.44793-1-1 0-0.55206 0.44794-1 1-1z"/>
 <path style="fill:#8b9cbe" d="m15.904 15c-2.006-0.022-4.399 2.043-4.832 7.912-0.461 6.261 1.348 6.879 3.309 6.879 1.633 0 2.945-0.807 4.383-2.461 0.217-0.25 0.459-0.378 0.554-0.285 0.096 0.093 0.169 0.164 0.161 0.158-0.008-0.007-0.115 0.239-0.217 0.555-0.283 0.87-0.714 2.561-0.28 3.748 0.114 0.311 0.351 0.268 0.448-0.049 0.23-0.755 0.673-2.057 1.154-2.711 0.196-0.267 0.424-0.116 0.414 0.215-0.062 2.015 0.599 5.686 3.609 8.019 3.149 2.442 7.737 2.379 10.225 1.336 0.304-0.128 0.778-0.121 1.104-0.062 0.2 0.036 0.454 0.058 0.771 0.041 0.922-0.052-0.616-0.825-0.719-1.236-0.101-0.413 0.719-0.492 0.885-1.805 0.167-1.315-0.883-0.051-0.883-0.051s-0.77 0.89-3.845 0.695c-2.834-0.177-6.212-1.613-6.098-6.669 0.008-0.333 0.112-0.63 0.213-0.67 0.1-0.04 0.38 0.11 0.552 0.392 0.428 0.695 0.81 1.822 1.018 2.506 0.097 0.316 0.332 0.361 0.447 0.051 0.378-1.033 0.102-2.446-0.164-3.367-0.09-0.319 0.005-0.72 0.219-0.918 0.213-0.199 0.538-0.167 0.754 0.084 1.447 1.67 2.765 2.486 4.406 2.486 1.961 0 3.768-0.618 3.307-6.879-0.462-6.261-3.154-8.192-5.229-7.883-1.338 0.199-2.264 0.879-2.752 1.338-0.241 0.226-0.408 0.459-0.408 0.485 0 0.024-0.189-0.144-0.445-0.354-1.118-0.92-2.524-1.469-4.051-1.469-1.506 0-2.896 0.533-4.008 1.43-0.257 0.207-0.448 0.386-0.449 0.373 0-0.014-0.164-0.237-0.404-0.463-0.489-0.459-1.414-1.141-2.752-1.34-0.13-0.019-0.263-0.03-0.397-0.031zm6.096 5c0.552 0 1 0.448 1 1s-0.448 1-1 1-1-0.448-1-1 0.448-1 1-1zm4 0c0.552 0 1 0.448 1 1s-0.448 1-1 1-1-0.448-1-1 0.448-1 1-1z"/>
 <path fill="#fff" style="opacity:0.1" d="m6 4c-1.108 0-2 0.892-2 2v1c0-1.108 0.892-2 2-2h36c1.108 0 2 0.892 2 2v-1c0-1.108-0.892-2-2-2h-36z"/>
 <path opacity=".2" d="m6 45c-1.108 0-2-0.892-2-2v-1c0 1.108 0.892 2 2 2h36c1.108 0 2-0.892 2-2v1c0 1.108-0.892 2-2 2h-36z"/>
</svg>
