<svg xmlns="http://www.w3.org/2000/svg" width="48" height="48" version="1">
 <rect style="opacity:0.2" width="40" height="40" x="4" y="5" rx="2" ry="2"/>
 <rect style="fill:#4f4f4f" width="40" height="40" x="4" y="4" rx="2" ry="2"/>
 <path style="opacity:0.1;fill:#8b9cbe" d="M 6 4 C 4.892 4 4 4.892 4 6 L 4 7 C 4 5.892 4.892 5 6 5 L 42 5 C 43.108 5 44 5.892 44 7 L 44 6 C 44 4.892 43.108 4 42 4 L 6 4 z"/>
 <path style="opacity:0.2;fill:none;stroke:#000000;stroke-width:2.99981093;stroke-linecap:round;stroke-linejoin:bevel" d="m 8.5211338,25.478716 c 0,0 5.9996932,0.67785 5.9996932,-2.999811 0,-3.677664 -5.9996932,-2.999883 -5.9996932,-2.999883 m 1.44e-4,11.99971 V 19.47917"/>
 <path style="fill:none;stroke:#a287e9;stroke-width:2.99981093;stroke-linecap:round;stroke-linejoin:bevel" d="m 8.5211338,24.478716 c 0,0 5.9996932,0.67785 5.9996932,-2.999811 0,-3.677664 -5.9996932,-2.999883 -5.9996932,-2.999883 m 1.44e-4,11.99971 V 18.47917"/>
 <path style="opacity:0.2;fill:none;stroke:#000000;stroke-width:2.99981093;stroke-linecap:round;stroke-linejoin:round" d="m 28.512216,31.478732 v -11.99949 m -8.999433,0 4.499716,5.999622 4.499717,-5.999622 m -8.999433,11.99949 v -11.99949"/>
 <path style="fill:none;stroke:#ffb145;stroke-width:2.99981093;stroke-linecap:round;stroke-linejoin:round" d="m 28.512216,30.478732 v -11.99949 m -8.999433,0 4.499716,5.999622 4.499717,-5.999622 m -8.999433,11.99949 v -11.99949"/>
 <path style="opacity:0.2;fill:none;stroke:#000000;stroke-width:2.99981093;stroke-linecap:round;stroke-linejoin:bevel" d="m 33.521268,26.4788 h 5.999696 m -5.999547,4.999932 v -8.953534 m 5.999547,8.953534 v -8.953534 m -5.999696,0 c 0,0 0.01537,-3.045956 2.999885,-3.045956 2.984512,0 2.999811,3.045956 2.999811,3.045956"/>
 <path style="fill:none;stroke:#ffb145;stroke-width:2.99981093;stroke-linecap:round;stroke-linejoin:bevel" d="m 33.521268,25.4788 h 5.999696 m -5.999547,4.999932 v -8.953534 m 5.999547,8.953534 v -8.953534 m -5.999696,0 c 0,0 0.01537,-3.045956 2.999885,-3.045956 2.984512,0 2.999811,3.045956 2.999811,3.045956"/>
</svg>
