<svg xmlns="http://www.w3.org/2000/svg" width="48" height="48" version="1">
 <rect style="opacity:0.2" width="40" height="40" x="4" y="5" rx="12" ry="12"/>
 <path style="fill:#4f4f4f" d="m 16,4 h 16 c 6.648,0 12,5.352 12,12 v 16 c 0,1.507851 -0.275328,2.94903 -0.778659,4.276211 -1.715815,4.524263 -5.965684,6.817894 -11.105801,6.799468 L 16,43.017909 C 10.822337,42.999348 6.4307409,40.753561 4.7414835,36.176857 4.2617871,34.877215 4,33.470304 4,32 V 16 C 4,9.352 9.352,4 16,4 Z"/>
 <path style="opacity:0.2" d="M 34.308594,9.000259 C 33.077389,11.437713 31.76392,14.31735 30.486328,16.730731 30.091551,14.360189 29.76103,11.69041 27.757812,10.084246 26.800324,9.3408704 25.574063,9.058465 24.382812,9.010025 20.241356,8.8317898 16.540976,11.393779 14.005859,14.463153 11.532813,17.657931 9.9787854,21.669693 10,25.732684 c 0.09084,2.584178 1.06399,5.510326 3.59375,6.648437 2.091291,0.943112 4.473013,0.605453 6.669922,0.304688 3.339727,-0.752337 5.955119,-3.176383 8.037109,-5.773438 0.398017,-0.64614 0.47581,-0.35517 0.441407,0.257813 0.104124,1.404723 -0.01134,2.958354 0.820312,4.166016 1.17519,1.408701 3.391608,0.864806 4.554688,-0.277344 1.347572,-1.375352 2.26218,-3.17345 2.751953,-5.023438 -1.228178,-0.229595 -1.374408,1.88323 -2.390625,2.414063 -0.951538,1.006797 -3.250199,1.384085 -3.685547,-0.310547 C 30.4006,26.706511 30.556019,25.206685 30.533203,23.738543 33.021216,19.055138 35.530888,13.692773 38,9.000259 Z m -10.425782,1.708987 c 2.431637,-0.107729 4.172796,2.132325 4.625,4.320313 0.350821,1.439366 0.373442,2.928358 0.484376,4.398437 -1.83535,3.392471 -3.633236,6.888525 -6.333985,9.6875 -1.393399,1.306184 -3.310176,2.610753 -5.3125,2.128907 -1.911576,-0.470459 -2.912635,-2.48866 -2.900391,-4.332032 -0.04246,-2.286593 0.753252,-4.48321 1.324219,-6.669921 0.991395,-3.413372 2.544953,-6.974646 5.708985,-8.904297 0.719534,-0.44696 1.565074,-0.638835 2.404296,-0.628907 z M 21.5,17 C 19.567003,17 18,18.567003 18,20.5 18,22.432997 19.567003,24 21.5,24 23.432997,24 25,22.432997 25,20.5 25,18.567003 23.432997,17 21.5,17 Z"/>
 <path style="fill:#8b9cbe;opacity:0.1" d="M 16 4 C 9.352 4 4 9.352 4 16 L 4 17 C 4 10.352 9.352 5 16 5 L 32 5 C 38.648 5 44 10.352 44 17 L 44 16 C 44 9.352 38.648 4 32 4 L 16 4 z"/>
 <path style="fill:#ff4e4e" d="M 24.383414,8.0098294 C 20.241957,7.8315944 16.540663,10.392745 14.005546,13.462119 11.5325,16.656897 9.9789994,20.6699 10.000214,24.732891 c 0.09084,2.584178 1.063887,5.510004 3.593647,6.648115 2.091291,0.943112 4.47212,0.605687 6.669029,0.304922 3.339727,-0.752337 5.956653,-3.176497 8.038643,-5.773552 0.398017,-0.64614 0.474376,-0.355674 0.439972,0.257309 0.104125,1.404723 -0.01162,2.958308 0.820028,4.16597 1.17519,1.408702 3.392791,0.865095 4.55587,-0.277055 1.347573,-1.375352 2.262425,-3.173246 2.752198,-5.023234 -1.228178,-0.229595 -1.374579,1.883899 -2.390796,2.414732 -0.951538,1.006797 -3.251248,1.38345 -3.686596,-0.311182 C 30.39984,25.706493 30.555051,24.205912 30.532235,22.73777 33.020248,18.054365 35.530888,12.692511 38,7.9999964 H 34.309072 C 33.077867,10.437451 31.764887,13.31786 30.487295,15.731241 30.092518,13.360699 29.761124,10.690149 27.757907,9.083982 26.800418,8.3406078 25.574665,8.0582384 24.383414,8.0097984 Z m -0.500191,1.6984884 c 2.431637,-0.107729 4.172645,2.1338052 4.62485,4.3217932 0.350821,1.439366 0.373595,2.926638 0.484528,4.396717 -1.835349,3.392471 -3.633781,6.888647 -6.33453,9.687622 -1.393399,1.306184 -3.310219,2.610899 -5.312543,2.129053 -1.911576,-0.470459 -2.911824,-2.487054 -2.89958,-4.330426 -0.04246,-2.286593 0.753294,-4.484489 1.324261,-6.671201 0.991395,-3.413372 2.545077,-6.97398 5.709109,-8.903631 C 22.198852,9.8912842 23.044,9.6983898 23.883223,9.7083178 Z"/>
 <circle style="fill:#ff4e4e" cx="21.5" cy="19.5" r="3.5"/>
 <path style="opacity:0.2;fill:#8b9cbe" d="M 34.308594,7.9999964 C 33.077389,10.437451 31.76392,13.317088 30.486328,15.730469 30.091551,13.359927 29.76103,10.690148 27.757812,9.083981 26.800324,8.3406068 25.574064,8.0582024 24.382812,8.0097624 20.241356,7.8315274 16.540976,10.393517 14.005859,13.462891 11.532813,16.657669 9.9787854,20.669431 10,24.732422 c 0.0041,0.116465 0.0196,0.235856 0.02734,0.353516 0.136792,-3.839708 1.636988,-7.598171 3.978515,-10.623047 2.535117,-3.069374 6.235498,-5.6313632 10.376953,-5.453128 1.191251,0.04844 2.417512,0.3308454 3.375,1.074221 2.003218,1.606164 2.333739,4.275943 2.728516,6.646485 1.277596,-2.413381 2.591065,-5.293018 3.82227,-7.7304718 h 3.177734 C 37.657102,8.6702018 37.829592,8.3238538 38,7.9999964 Z M 21.5,16.00007 c -1.932997,0 -3.5,1.567004 -3.5,3.5 0.0013,0.16543 0.01438,0.330558 0.03906,0.494141 0.25101,-1.718488 1.724215,-2.992993 3.460938,-2.994141 1.740575,0.002 3.215199,1.282717 3.460938,3.005859 0.02524,-0.167452 0.0383,-0.336516 0.03906,-0.505859 0,-1.932996 -1.567003,-3.5 -3.5,-3.5 z m 7.431641,2.540946 c -1.814339,3.357108 -3.602569,6.80621 -6.273438,9.574218 -1.393399,1.306184 -3.310176,2.610753 -5.3125,2.128907 -1.812244,-0.446013 -2.794847,-2.282569 -2.882812,-4.042969 -0.01255,0.236215 -0.022,0.472862 -0.01758,0.710937 -0.01224,1.843372 0.988815,3.861573 2.900391,4.332032 2.002324,0.481846 3.919101,-0.822723 5.3125,-2.128907 2.700749,-2.798975 4.498634,-6.295029 6.333985,-9.6875 -0.02224,-0.294782 -0.04205,-0.590968 -0.06055,-0.886718 z m 1.597656,6.466796 c -0.01405,1.054157 -0.01615,2.109325 0.263672,3.13086 0.435348,1.694632 2.734009,1.317344 3.685547,0.310547 0.917751,-0.479398 1.128082,-2.242781 2.064453,-2.41211 0.117857,-0.332189 0.236712,-0.664041 0.326172,-1.001953 -1.228178,-0.229595 -1.374408,1.88323 -2.390625,2.414063 -0.951538,1.006797 -3.250199,1.384085 -3.685547,-0.310547 -0.191138,-0.697787 -0.24859,-1.412537 -0.263672,-2.13086 z"/>
 <path style="fill:#00d8f4" d="M 4.6914062 36 C 5.892987 39.41489 8.5851103 42.107013 12 43.308594 L 12 36 L 4.6914062 36 z"/>
 <path style="fill:#02b4f2" d="M 12 36 L 12 43.308594 C 13.251734 43.749035 14.593947 44 16 44 L 20 44 L 20 36 L 12 36 z"/>
 <rect style="fill:#039bf1" width="8" height="8" x="20" y="36"/>
 <path style="fill:#0480f0" d="M 28 36 L 28 44 L 32 44 C 33.406053 44 34.748266 43.749035 36 43.308594 L 36 36 L 28 36 z"/>
 <path style="fill:#065fee" d="M 36 36 L 36 43.308594 C 39.41489 42.107013 42.107013 39.41489 43.308594 36 L 36 36 z"/>
 <path style="opacity:0.1;fill:#8b9cbe" d="M 4.6914062 36 C 4.8119019 36.342448 4.9577218 36.672862 5.1074219 37 L 42.892578 37 C 43.042278 36.672862 43.188098 36.342448 43.308594 36 L 4.6914062 36 z"/>
</svg>
