<svg xmlns="http://www.w3.org/2000/svg" id="circle_pieces" width="48" height="48" x="0" y="0" version="1.1" xml:space="preserve">
 <circle style="opacity:0.2" cx="24" cy="25" r="20"/>
 <path style="fill:#3e5ba9" d="M 24,4 A 20,20 0 0 0 17.234375,5.1992188 C 28.681094,12.643399 34.719668,23.907544 39.585938,36.503906 A 20,20 0 0 0 44,24 20,20 0 0 0 24,4 Z"/>
 <path style="fill:#d82b2f" d="M 11.140625 8.7089844 A 20 20 0 0 0 4 24 A 20 20 0 0 0 8.9628906 37.164062 L 9.6855469 35.748047 L 14.175781 38.042969 C 14.547439 39.392673 14.623079 40.550757 14.464844 41.558594 A 20 20 0 0 0 24 44 A 20 20 0 0 0 33.837891 41.384766 C 32.111299 29.586364 23.67464 15.544992 11.140625 8.7089844 z"/>
 <path style="opacity:0.2" d="M 17.464844,6.1228589 A 20,20 0 0 0 10.880859,9.937312 c 3.643297,1.772739 7.179254,4.507979 10.253907,7.820312 -4.338354,4.359063 -9.493869,12.236687 -12.2246098,20.330079 A 20,20 0 0 0 14.548828,42.617 c 1.587951,-7.496659 5.969857,-15.688225 10.271484,-20.324219 4.019085,5.638878 7.205765,12.642174 8.861329,20.18164 a 20,20 0 0 0 6.072265,-5.191406 C 36.000169,24.473855 25.504999,10.481695 17.464844,6.1228589 Z"/>
 <path style="fill:#8b9cbe" d="M 17.464844 5.1230469 A 20 20 0 0 0 10.880859 8.9375 C 14.524156 10.710239 18.060113 13.445479 21.134766 16.757812 C 16.796412 21.116875 11.640897 28.994499 8.9101562 37.087891 A 20 20 0 0 0 14.548828 41.617188 C 16.136779 34.120529 20.518685 25.928963 24.820312 21.292969 C 28.839397 26.931847 32.026077 33.935143 33.681641 41.474609 A 20 20 0 0 0 39.753906 36.283203 C 36.000169 23.474043 25.504999 9.4818826 17.464844 5.1230469 z"/>
 <path style="opacity:0.1;fill:#8b9cbe" d="M 24 4 A 20 20 0 0 0 4 24 A 20 20 0 0 0 4.0214844 24.582031 A 20 20 0 0 1 24 5 A 20 20 0 0 1 43.978516 24.417969 A 20 20 0 0 0 44 24 A 20 20 0 0 0 24 4 z"/>
</svg>
