<svg xmlns="http://www.w3.org/2000/svg" width="48" height="48" version="1">
 <rect style="opacity:0.2" width="40" height="40" x="4" y="5" rx="2" ry="2"/>
 <rect style="fill:#34344b" width="40" height="40" x="4" y="4" rx="2" ry="2"/>
 <path style="opacity:0.1;fill:#8b9cbe" d="M 6 4 C 4.892 4 4 4.892 4 6 L 4 7 C 4 5.892 4.892 5 6 5 L 42 5 C 43.108 5 44 5.892 44 7 L 44 6 C 44 4.892 43.108 4 42 4 L 6 4 z"/>
 <path style="opacity:0.2" d="M 31.320312,9 C 29.304313,9 26.664188,10.438048 23.992188,12.929688 21.320187,10.45402 18.680062,9.03125 16.664062,9.03125 v 1.638672 c 1.52,0 3.768157,1.206014 6.160157,3.410156 -1.024,1.078113 -2.05525,2.298626 -3.03125,3.65625 -1.656,0.175693 -3.232063,0.44727 -4.664063,0.806641 -0.168,-0.734715 -0.296765,-1.444235 -0.384765,-2.123047 -0.344,-2.795108 0.08026,-4.975788 1.072265,-5.550781 0.224,-0.135763 0.503844,-0.191407 0.839844,-0.191407 V 9.0390625 C 16.04025,9.0390625 15.48,9.1757408 15,9.4472656 12.936,10.637183 12.471156,14.334729 13.535156,18.974609 8.9671563,20.380149 6,22.632057 6,25.003906 c 0,2.379835 2.9843594,4.639556 7.568359,6.03711 -1.056,4.655852 -0.583531,8.360863 1.480469,9.550781 0.48,0.279511 1.030484,0.408203 1.646484,0.408203 2.016001,0 4.656125,-1.438047 7.328126,-3.929688 2.672,2.475668 5.312125,3.898438 7.328124,3.898438 0.616,0 1.17625,-0.136678 1.65625,-0.408203 2.064001,-1.189918 2.528844,-4.887464 1.464844,-9.527344 C 39.032656,29.635649 42,27.383741 42,25.003906 c 0,-2.379835 -2.984359,-4.639555 -7.568359,-6.037109 1.056,-4.655852 0.583531,-8.360864 -1.480469,-9.5507814 C 32.47327,9.1377267 31.925167,9.0089253 31.320312,9.0078125 Z m -0.0078,1.636719 v 0.0078 c 0.336,0 0.607844,0.06363 0.839844,0.191407 1,0.574993 1.431703,2.74786 1.095703,5.542968 -0.08,0.686798 -0.216953,1.413549 -0.376953,2.15625 -1.44,-0.351385 -3.006297,-0.623135 -4.654297,-0.798828 -0.992,-1.357624 -2.016641,-2.587902 -3.056641,-3.666016 2.388163,-2.216553 4.632452,-3.429706 6.152344,-3.433593 z m -7.335938,4.591797 c 0.68,0.70277 1.367063,1.485165 2.039063,2.347656 C 25.351625,17.544232 24.68,17.529297 24,17.529297 c -0.688,0 -1.375062,0.01493 -2.039062,0.04687 0.664,-0.862491 1.343624,-1.644886 2.015624,-2.347656 z M 24,19.166016 c 1.112,0 2.216687,0.04888 3.304688,0.136718 0.608,0.870477 1.19939,1.804829 1.77539,2.78711 0.56,0.958323 1.063344,1.931781 1.527344,2.914062 -0.464,0.974295 -0.975531,1.957519 -1.519531,2.923828 -0.576,0.990267 -1.159578,1.924446 -1.767579,2.794922 -1.096,0.09583 -2.200312,0.142578 -3.320312,0.142578 -1.112,0 -2.216688,-0.04692 -3.304688,-0.134765 -0.608,-0.870476 -1.19939,-1.804829 -1.77539,-2.78711 -0.56,-0.958323 -1.063344,-1.933734 -1.527344,-2.916015 0.456,-0.982281 0.967531,-1.963552 1.519531,-2.921875 0.576,-0.990267 1.159578,-1.924445 1.767579,-2.794922 C 21.775688,19.214717 22.88,19.166016 24,19.166016 Z m -5.455078,0.375 c -0.36,0.567007 -0.720641,1.143409 -1.056641,1.734375 -0.336,0.58298 -0.657125,1.172879 -0.953125,1.755859 -0.4,-0.982281 -0.735625,-1.963726 -1.015625,-2.914062 0.968,-0.223608 1.977391,-0.424438 3.025391,-0.576172 z m 10.894531,0 c 1.04,0.151734 2.047813,0.344404 3.007813,0.583984 -0.272,0.942351 -0.608188,1.91633 -0.992188,2.890625 -0.304,-0.58298 -0.614984,-1.174833 -0.958984,-1.757813 -0.336,-0.582979 -0.696641,-1.157775 -1.056641,-1.716796 z m 4.599609,1.015625 c 0.728001,0.223608 1.416454,0.478475 2.064454,0.75 2.6,1.110057 4.28125,2.555091 4.28125,3.705078 -0.024,1.142001 -1.704875,2.603007 -4.296875,3.705078 -0.632,0.271525 -1.31925,0.512546 -2.03125,0.744141 -0.416,-1.437485 -0.968438,-2.931527 -1.648438,-4.464844 0.672,-1.525331 1.21486,-3.009955 1.630859,-4.439453 z m -20.103515,0.0078 c 0.416,1.437484 0.968437,2.929574 1.648437,4.462891 -0.672,1.525331 -1.216812,3.011908 -1.632812,4.441406 -0.72,-0.231594 -1.406875,-0.480428 -2.046875,-0.751953 -2.6000001,-1.110057 -4.2812501,-2.55509 -4.2812501,-3.705078 0,-1.149987 1.68125,-2.610993 4.2812501,-3.705078 0.632,-0.271525 1.31925,-0.510594 2.03125,-0.742188 z M 24,22 a 3,3 0 0 0 -3,3 3,3 0 0 0 3,3 3,3 0 0 0 3,-3 3,3 0 0 0 -3,-3 z m 7.455078,4.96875 c 0.4,0.982281 0.737578,1.963726 1.017578,2.914062 -0.96,0.231595 -1.97739,0.432251 -3.02539,0.583985 0.36,-0.567007 0.72064,-1.141456 1.05664,-1.732422 0.336,-0.58298 0.647172,-1.174659 0.951172,-1.765625 z m -14.919922,0.03906 c 0.304,0.58298 0.616938,1.174834 0.960938,1.757813 0.344,0.574994 0.69664,1.149963 1.05664,1.708984 -1.04,-0.151734 -2.047812,-0.342624 -3.007812,-0.574218 0.272,-0.942351 0.606234,-1.918284 0.990234,-2.892579 z m 16.353516,4.457032 c 0.16,0.742701 0.287,1.454 0.375,2.132812 0.344,2.795108 -0.08027,4.973834 -1.072266,5.548828 -0.224,0.135762 -0.503844,0.19336 -0.839844,0.19336 -1.519999,0 -3.768156,-1.206014 -6.160156,-3.410156 1.024,-1.078114 2.057203,-2.30058 3.033203,-3.658204 1.656,-0.175693 3.232063,-0.447268 4.664063,-0.80664 z m -17.751953,0.01563 c 1.44,0.351386 3.00825,0.623135 4.65625,0.798828 0.992,1.357624 2.014687,2.587903 3.054687,3.666015 -2.392,2.220115 -4.640156,3.433594 -6.160156,3.433594 -0.336,-0.008 -0.616031,-0.07144 -0.832031,-0.199218 -1,-0.574994 -1.431703,-2.747861 -1.095703,-5.542969 0.08,-0.686798 0.216953,-1.413549 0.376953,-2.15625 z m 6.839843,0.958984 c 0.664001,0.03194 1.335625,0.04687 2.015626,0.04687 0.687999,0 1.375062,-0.01492 2.039062,-0.04687 -0.656,0.862491 -1.343625,1.644886 -2.015625,2.347656 -0.68,-0.70277 -1.367062,-1.485165 -2.039063,-2.347656 z"/>
 <path style="fill:#e1145e" class="st1" d="m 42,24.003993 c 0,-2.379835 -2.984,-4.63988 -7.568,-6.037434 1.056,-4.655852 0.584,-8.3613673 -1.48,-9.5512848 -0.48,-0.2795109 -1.032,-0.4072873 -1.64,-0.4072873 v 1.637135 c 0.336,0 0.608,0.063888 0.84,0.1916645 1,0.5749936 1.432,2.7471926 1.096,5.5423006 -0.08,0.686798 -0.216,1.413526 -0.376,2.156227 -1.44,-0.351385 -3.008,-0.62291 -4.656,-0.798603 C 27.224,15.379087 26.2,14.149239 25.16,13.071126 27.552,10.851011 29.8,9.6371358 31.32,9.6371358 v -1.6371349 0 c -2.016,0 -4.656,1.4374843 -7.328,3.9291241 C 21.32,9.4534573 18.68,8.031945 16.664,8.031945 v 1.6371349 c 1.52,0 3.768,1.2058901 6.16,3.4100321 -1.024,1.078113 -2.056,2.299975 -3.032,3.657599 C 18.136,16.912404 16.56,17.183929 15.128,17.5433 14.96,16.808585 14.832,16.097829 14.744,15.419017 14.4,12.623909 14.824,10.443724 15.816,9.8687305 16.04,9.7329681 16.32,9.677066 16.656,9.677066 v -1.637135 0 C 16.04,8.039931 15.48,8.1756935 15,8.4472183 12.936,9.6371358 12.472,13.334665 13.536,17.974545 8.968,19.380085 6,21.632144 6,24.003993 c 0,2.379835 2.984,4.63988 7.568,6.037434 -1.056,4.655852 -0.584,8.361367 1.48,9.551285 0.48,0.279511 1.032,0.407287 1.648,0.407287 2.016,0 4.656,-1.437484 7.328,-3.929124 2.672,2.475668 5.312,3.89718 7.328,3.89718 0.616,0 1.176,-0.135762 1.656,-0.407287 2.064,-1.189918 2.528,-4.887447 1.464,-9.527327 C 39.032,28.635887 42,26.383828 42,24.003993 Z m -9.552,-4.879461 c -0.272,0.942351 -0.608,1.916646 -0.992,2.890941 -0.304,-0.58298 -0.616,-1.173945 -0.96,-1.756925 -0.336,-0.58298 -0.696,-1.157974 -1.056,-1.716995 1.04,0.151734 2.048,0.343399 3.008,0.582979 z m -3.36,7.802346 c -0.576,0.990267 -1.16,1.924632 -1.768,2.795108 -1.096,0.09583 -2.2,0.143749 -3.32,0.143749 -1.112,0 -2.216,-0.04792 -3.304,-0.135763 -0.608,-0.870476 -1.2,-1.804841 -1.776,-2.787122 -0.56,-0.958323 -1.064,-1.932618 -1.528,-2.914899 0.456,-0.982281 0.968,-1.964562 1.52,-2.922885 0.576,-0.990267 1.16,-1.924631 1.768,-2.795108 1.096,-0.09583 2.2,-0.143749 3.32,-0.143749 1.112,0 2.216,0.04792 3.304,0.135763 0.608,0.870477 1.2,1.804841 1.776,2.787122 0.56,0.958323 1.064,1.932618 1.528,2.914899 -0.464,0.974295 -0.976,1.956576 -1.52,2.922885 z m 2.368,-0.958323 c 0.4,0.982281 0.736,1.964562 1.016,2.914899 -0.96,0.231594 -1.976,0.431245 -3.024,0.582979 0.36,-0.567007 0.72,-1.142001 1.056,-1.732967 0.336,-0.58298 0.648,-1.173945 0.952,-1.764911 z m -7.44,7.818317 c -0.68,-0.70277 -1.368,-1.4854 -2.04,-2.347891 0.664,0.03194 1.336,0.04792 2.016,0.04792 0.688,0 1.376,-0.01597 2.04,-0.04792 -0.656,0.862491 -1.344,1.645121 -2.016,2.347891 z m -5.464,-4.312453 c -1.04,-0.151734 -2.048,-0.343399 -3.008,-0.574993 0.272,-0.942351 0.608,-1.916646 0.992,-2.890941 0.304,0.58298 0.616,1.173946 0.96,1.756925 0.344,0.574994 0.696,1.149988 1.056,1.709009 z M 23.976,14.2291 c 0.68,0.70277 1.368,1.4854 2.04,2.347891 -0.664,-0.03194 -1.336,-0.04792 -2.016,-0.04792 -0.688,0 -1.376,0.01597 -2.04,0.04792 0.664,-0.862491 1.344,-1.645121 2.016,-2.347891 z m -5.432,4.312453 c -0.36,0.567007 -0.72,1.142001 -1.056,1.732967 -0.336,0.58298 -0.656,1.173945 -0.952,1.756925 -0.4,-0.982281 -0.736,-1.964562 -1.016,-2.914899 0.968,-0.223608 1.976,-0.423259 3.024,-0.574993 z m -6.64,9.175941 c -2.6,-1.110057 -4.28,-2.555527 -4.28,-3.705515 0,-1.149987 1.68,-2.61143 4.28,-3.705515 0.632,-0.271525 1.32,-0.511106 2.032,-0.7427 0.416,1.437484 0.968,2.93087 1.648,4.464187 -0.672,1.525331 -1.216,3.010731 -1.632,4.440229 -0.72,-0.231594 -1.408,-0.479161 -2.048,-0.750686 z m 3.952,10.461692 c -1,-0.574994 -1.432,-2.747193 -1.096,-5.542301 0.08,-0.686798 0.216,-1.413526 0.376,-2.156227 1.44,0.351386 3.008,0.62291 4.656,0.798603 0.992,1.357624 2.016,2.587472 3.056,3.665585 -2.392,2.220115 -4.64,3.43399 -6.16,3.43399 -0.336,-0.008 -0.616,-0.07187 -0.832,-0.19965 z m 17.408,-5.582231 c 0.344,2.795108 -0.08,4.975293 -1.072,5.550287 -0.224,0.135762 -0.504,0.191664 -0.84,0.191664 -1.52,0 -3.768,-1.20589 -6.16,-3.410032 1.024,-1.078113 2.056,-2.299975 3.032,-3.657599 1.656,-0.175693 3.232,-0.447217 4.664,-0.806589 0.16,0.742701 0.288,1.453457 0.376,2.132269 z m 2.824,-4.879461 c -0.632,0.271525 -1.32,0.511106 -2.032,0.7427 -0.416,-1.437484 -0.968,-2.93087 -1.648,-4.464187 0.672,-1.525331 1.216,-3.010731 1.632,-4.440229 0.728,0.223608 1.416,0.479161 2.064,0.750686 2.6,1.110057 4.28,2.555528 4.28,3.705515 -0.024,1.142001 -1.704,2.603444 -4.296,3.705515 z"/>
 <circle style="fill:#8b9cbe" class="st2" cx="24" cy="24" r="3"/>
 <path style="fill:#8b9cbe;opacity:0.2" d="M 31.320312 8 C 29.304313 8 26.664188 9.4380477 23.992188 11.929688 C 21.320187 9.4540198 18.680062 8.03125 16.664062 8.03125 L 16.664062 9.03125 C 18.680062 9.03125 21.320187 10.454019 23.992188 12.929688 C 26.664187 10.438048 29.304313 9 31.320312 9 L 31.320312 9.0078125 C 31.925167 9.0089253 32.47327 9.1377267 32.951172 9.4160156 C 34.196201 10.133788 34.852593 11.777532 34.953125 13.982422 C 35.025337 11.276296 34.376708 9.2378521 32.951172 8.4160156 C 32.47327 8.1377267 31.925167 8.0089253 31.320312 8.0078125 L 31.320312 8 z M 16.65625 8.0390625 C 16.04025 8.0390625 15.48 8.1757408 15 8.4472656 C 13.57548 9.268516 12.931713 11.300482 13.007812 13.996094 C 13.105717 11.801652 13.756702 10.16404 15 9.4472656 C 15.48 9.1757408 16.04025 9.0390625 16.65625 9.0390625 L 16.65625 8.0390625 z M 25.660156 13.628906 C 25.493433 13.775121 25.328509 13.914057 25.160156 14.070312 C 26.200156 15.148426 27.224797 16.378704 28.216797 17.736328 C 29.864797 17.912021 31.431094 18.183771 32.871094 18.535156 C 33.031094 17.792455 33.168047 17.065704 33.248047 16.378906 C 33.346362 15.561045 33.371933 14.80593 33.34375 14.119141 C 33.32808 14.5234 33.300785 14.940186 33.248047 15.378906 C 33.168047 16.065704 33.031094 16.792455 32.871094 17.535156 C 31.431094 17.183771 29.864797 16.912021 28.216797 16.736328 C 27.385191 15.598215 26.527313 14.57331 25.660156 13.628906 z M 22.324219 13.640625 C 21.46613 14.582259 20.61011 15.599678 19.792969 16.736328 C 18.136969 16.912021 16.560906 17.183598 15.128906 17.542969 C 14.960906 16.808254 14.832141 16.098734 14.744141 15.419922 C 14.688399 14.967003 14.65884 14.537507 14.642578 14.121094 C 14.614055 14.818353 14.641679 15.587386 14.744141 16.419922 C 14.832141 17.098734 14.960906 17.808254 15.128906 18.542969 C 16.560906 18.183598 18.136969 17.912021 19.792969 17.736328 C 20.768969 16.378704 21.800219 15.158191 22.824219 14.080078 C 22.656008 13.925078 22.490802 13.78568 22.324219 13.640625 z M 24 16.529297 C 23.59208 16.529297 23.193933 16.54541 22.791016 16.556641 C 22.512645 16.886006 22.235533 17.219491 21.960938 17.576172 C 22.624938 17.544222 23.312 17.529297 24 17.529297 C 24.68 17.529297 25.351625 17.544232 26.015625 17.576172 C 25.737667 17.219421 25.455563 16.886065 25.173828 16.556641 C 24.783246 16.545805 24.396008 16.529297 24 16.529297 z M 34.611328 18.027344 C 34.552962 18.339537 34.504626 18.645007 34.431641 18.966797 C 38.693619 20.266174 41.56968 22.310308 41.953125 24.503906 C 41.981942 24.338238 42 24.171087 42 24.003906 C 42 21.656559 39.089409 19.42891 34.611328 18.027344 z M 13.355469 18.037109 C 8.8939314 19.446147 6 21.664671 6 24.003906 C 6 24.171232 6.0198064 24.338023 6.0488281 24.503906 C 6.4318558 22.318526 9.2895369 20.280955 13.535156 18.974609 C 13.461536 18.653567 13.414434 18.34861 13.355469 18.037109 z M 18.544922 19.541016 C 18.3141 19.574435 18.092176 19.618438 17.865234 19.65625 C 17.740286 19.86347 17.608206 20.064464 17.488281 20.275391 C 17.152281 20.858371 16.831156 21.44827 16.535156 22.03125 C 16.264662 21.366997 16.034747 20.707109 15.820312 20.052734 C 15.721242 20.074911 15.617777 20.094493 15.519531 20.117188 C 15.799531 21.067524 16.135156 22.048969 16.535156 23.03125 C 16.831156 22.44827 17.152281 21.858371 17.488281 21.275391 C 17.824281 20.684425 18.184922 20.108023 18.544922 19.541016 z M 29.439453 19.541016 C 29.799453 20.100037 30.160094 20.674833 30.496094 21.257812 C 30.840094 21.840793 31.151078 22.432645 31.455078 23.015625 C 31.839078 22.04133 32.175266 21.067351 32.447266 20.125 C 32.351171 20.101018 32.249384 20.083576 32.152344 20.060547 C 31.942087 20.70724 31.713811 21.35916 31.455078 22.015625 C 31.151078 21.432645 30.840094 20.840792 30.496094 20.257812 C 30.378734 20.054186 30.249147 19.859541 30.126953 19.658203 C 29.89742 19.620125 29.672376 19.574999 29.439453 19.541016 z M 32.611328 24.494141 C 32.539725 24.662851 32.482976 24.826372 32.408203 24.996094 C 33.088203 26.529411 33.640641 28.023453 34.056641 29.460938 C 34.768641 29.229343 35.455891 28.988322 36.087891 28.716797 C 38.679891 27.614726 40.360766 26.15372 40.384766 25.011719 C 40.384766 24.847333 40.339874 24.676572 40.273438 24.501953 C 39.870461 25.551019 38.321585 26.767071 36.087891 27.716797 C 35.455891 27.988322 34.768641 28.229343 34.056641 28.460938 C 33.686346 27.181388 33.191495 25.851012 32.611328 24.494141 z M 30.359375 24.501953 C 29.961113 25.312251 29.539385 26.125744 29.087891 26.927734 C 28.511891 27.918001 27.928313 28.85218 27.320312 29.722656 C 26.224312 29.818486 25.12 29.865234 24 29.865234 C 22.888 29.865234 21.783312 29.818312 20.695312 29.730469 C 20.087312 28.859993 19.495922 27.92564 18.919922 26.943359 C 18.454949 26.147655 18.035589 25.338546 17.638672 24.525391 C 17.557709 24.692826 17.470361 24.859789 17.392578 25.027344 C 17.856578 26.009625 18.359922 26.985036 18.919922 27.943359 C 19.495922 28.92564 20.087312 29.859993 20.695312 30.730469 C 21.783312 30.818312 22.888 30.865234 24 30.865234 C 25.12 30.865234 26.224312 30.818486 27.320312 30.722656 C 27.928313 29.85218 28.511891 28.918001 29.087891 27.927734 C 29.631891 26.961425 30.143422 25.978201 30.607422 25.003906 C 30.528066 24.835911 30.441151 24.669441 30.359375 24.501953 z M 7.7285156 24.511719 C 7.6646089 24.683258 7.6230469 24.850546 7.6230469 25.011719 C 7.6230469 26.161707 9.3042969 27.60674 11.904297 28.716797 C 12.544297 28.988322 13.231172 29.237156 13.951172 29.46875 C 14.367172 28.039252 14.911984 26.552675 15.583984 25.027344 C 15.509296 24.858931 15.452449 24.696725 15.380859 24.529297 C 14.808947 25.876833 14.320884 27.19831 13.951172 28.46875 C 13.231172 28.237156 12.544297 27.988322 11.904297 27.716797 C 9.6688254 26.762374 8.1207065 25.56105 7.7285156 24.511719 z M 32.173828 28.947266 C 31.514347 29.100063 30.82834 29.234722 30.126953 29.351562 C 29.901652 29.72524 29.678965 30.101865 29.447266 30.466797 C 30.495266 30.315063 31.512656 30.114407 32.472656 29.882812 C 32.382057 29.575314 32.276424 29.260371 32.173828 28.947266 z M 15.841797 28.964844 C 15.739932 29.278134 15.633706 29.592796 15.544922 29.900391 C 16.504922 30.131985 17.512734 30.322875 18.552734 30.474609 C 18.317816 30.10982 18.091386 29.733329 17.863281 29.359375 C 17.171902 29.244914 16.495865 29.115652 15.841797 28.964844 z M 34.652344 30.970703 C 34.59016 30.99027 34.535448 31.013959 34.472656 31.033203 C 34.802846 32.473093 34.96822 33.805972 35.001953 35.017578 C 35.055946 33.819744 34.932677 32.451632 34.652344 30.970703 z M 13.388672 30.980469 C 13.111959 32.460572 12.992265 33.827663 13.046875 35.025391 C 13.079217 33.813381 13.241703 32.481225 13.568359 31.041016 C 13.505782 31.021937 13.450649 30.999867 13.388672 30.980469 z M 21.976562 32.439453 C 22.648563 33.301944 23.335625 34.084339 24.015625 34.787109 C 24.687625 34.084339 25.37525 33.301944 26.03125 32.439453 C 25.761576 32.452429 25.479109 32.451279 25.203125 32.458984 C 24.80766 32.926117 24.409766 33.374921 24.015625 33.787109 C 23.616847 33.374978 23.215847 32.926045 22.816406 32.458984 C 22.536962 32.451219 22.253229 32.452761 21.976562 32.439453 z M 14.664062 34.896484 C 14.579896 37.067786 15.012429 38.694944 15.855469 39.179688 C 16.071469 39.307467 16.3515 39.370906 16.6875 39.378906 C 18.2075 39.378906 20.455656 38.165427 22.847656 35.945312 C 22.679501 35.770995 22.514907 35.568869 22.347656 35.386719 C 20.145334 37.318254 18.100636 38.378906 16.6875 38.378906 C 16.3515 38.370906 16.071469 38.307467 15.855469 38.179688 C 15.148073 37.772939 14.732197 36.556854 14.664062 34.896484 z M 33.365234 34.896484 C 33.297744 36.539148 32.887656 37.742916 32.191406 38.146484 C 31.967406 38.282246 31.687562 38.339844 31.351562 38.339844 C 29.938229 38.339844 27.89408 37.285429 25.691406 35.367188 C 25.524368 35.550499 25.358296 35.753978 25.191406 35.929688 C 27.583406 38.13383 29.831563 39.339844 31.351562 39.339844 C 31.687562 39.339844 31.967406 39.282246 32.191406 39.146484 C 33.022587 38.664706 33.449229 37.049598 33.365234 34.896484 z"/>
</svg>
