<svg xmlns="http://www.w3.org/2000/svg" width="48" height="48" version="1">
 <path style="opacity:0.2" d="M 8.6992188,13 C 7.7574188,13 7,13.765129 7,14.714844 V 18 H 5.5 5 4.5 C 3.669,18 3,18.669 3,19.5 v 11 C 3,31.331 3.669,32 4.5,32 H 5 5.5 7 v 3.285156 C 7,36.234871 7.7574188,37 8.6992188,37 H 39.300781 C 40.242581,37 41,36.234871 41,35.285156 V 32 h 1.5 0.5 0.5 c 0.831,0 1.5,-0.669 1.5,-1.5 v -11 C 45,18.669 44.331,18 43.5,18 H 43 42.5 41 V 14.714844 C 41,13.765129 40.242581,13 39.300781,13 Z"/>
 <rect style="fill:#afafb1" width="34" height="24" x="7" y="12" rx="1.7" ry="1.714"/>
 <path style="opacity:0.2" d="M 8.6992188 12 C 7.7574188 12 7 12.765129 7 13.714844 L 7 14 L 41 14 L 41 13.714844 C 41 12.765129 40.242581 12 39.300781 12 L 8.6992188 12 z M 7 34 L 7 34.285156 C 7 35.234871 7.7574188 36 8.6992188 36 L 39.300781 36 C 40.242581 36 41 35.234871 41 34.285156 L 41 34 L 7 34 z"/>
 <path style="fill:#afafb1" d="M 4.5,17 C 3.669,17 3,17.669 3,18.5 v 11 C 3,30.331 3.669,31 4.5,31 H 5 5.5 7 V 29.5 18.5 17 H 5.5 5 Z"/>
 <path style="fill:#afafb1" d="m 43.5,17 c 0.831,0 1.5,0.669 1.5,1.5 v 11 C 45,30.331 44.331,31 43.5,31 H 43 42.5 41 V 29.5 18.5 17 h 1.5 0.5 z"/>
 <path style="opacity:0.1" d="m 24,19 c -2.539609,0.0036 -4.801903,1.605631 -5.648438,4 H 18 16.000273 15.31082 l -0.248047,-0.375 -0.822266,-1.25 C 14.080059,21.130349 13.776646,20.985435 13.455351,21 c -0.289208,0.0136 -0.550902,0.154743 -0.695312,0.375 L 11.937773,22.625 11.689727,23 H 9 C 9,21.892 8.108,21 7,21 5.892,21 5,21.892 5,23 v 4 c 0,1.108 0.892,2 2,2 1.108,0 2,-0.892 2,-2 h 2.689727 l 0.248046,0.375 0.822266,1.25 c 0.144952,0.219506 0.406549,0.359857 0.695312,0.373047 0.320823,0.01496 0.624119,-0.129148 0.785156,-0.373047 L 15.062773,27.375 15.31082,27 H 16.000273 18 18.349609 c 0.846774,2.395044 3.110065,3.997263 5.650391,4 2.539609,-0.0036 4.801903,-1.605631 5.648438,-4 H 30 31.999727 32.68918 l 0.248047,0.375 0.822265,1.25 c 0.144953,0.219506 0.406549,0.359857 0.695313,0.373047 0.320822,0.01496 0.624119,-0.129148 0.785156,-0.373047 L 36.062227,27.375 36.310273,27 H 39 c 0,1.108 0.892,2 2,2 1.108,0 2,-0.892 2,-2 v -4 c 0,-1.108 -0.892,-2 -2,-2 -1.108,0 -2,0.892 -2,2 h -2.689727 l -0.248046,-0.375 -0.822266,-1.25 C 35.079512,21.130349 34.776099,20.985435 34.454805,21 c -0.289209,0.0136 -0.550903,0.154743 -0.695313,0.375 L 32.937227,22.625 32.68918,23 H 31.999727 30 29.650391 C 28.803617,20.604956 26.540326,19.002737 24,19 Z"/>
 <path style="fill:#17191e" d="m 24,18 c -2.539609,0.0036 -4.801903,1.605631 -5.648438,4 H 18 16.000273 15.31082 l -0.248047,-0.375 -0.822266,-1.25 C 14.080059,20.130349 13.776646,19.985435 13.455351,20 c -0.289208,0.0136 -0.550902,0.154743 -0.695312,0.375 L 11.937773,21.625 11.689727,22 H 9 C 9,20.892 8.108,20 7,20 5.892,20 5,20.892 5,22 v 4 c 0,1.108 0.892,2 2,2 1.108,0 2,-0.892 2,-2 h 2.689727 l 0.248046,0.375 0.822266,1.25 c 0.144952,0.219506 0.406549,0.359857 0.695312,0.373047 0.320823,0.01496 0.624119,-0.129148 0.785156,-0.373047 L 15.062773,26.375 15.31082,26 H 16.000273 18 18.349609 c 0.846774,2.395044 3.110065,3.997263 5.650391,4 2.539609,-0.0036 4.801903,-1.605631 5.648438,-4 H 30 31.999727 32.68918 l 0.248047,0.375 0.822265,1.25 c 0.144953,0.219506 0.406549,0.359857 0.695313,0.373047 0.320822,0.01496 0.624119,-0.129148 0.785156,-0.373047 L 36.062227,26.375 36.310273,26 H 39 c 0,1.108 0.892,2 2,2 1.108,0 2,-0.892 2,-2 v -4 c 0,-1.108 -0.892,-2 -2,-2 -1.108,0 -2,0.892 -2,2 h -2.689727 l -0.248046,-0.375 -0.822266,-1.25 C 35.079512,20.130349 34.776099,19.985435 34.454805,20 c -0.289209,0.0136 -0.550903,0.154743 -0.695313,0.375 L 32.937227,21.625 32.68918,22 H 31.999727 30 29.650391 C 28.803617,19.604956 26.540326,18.002737 24,18 Z"/>
 <path style="opacity:0.2;fill:#8b9cbe" d="M 4.5,17 C 3.669,17 3,17.669 3,18.5 v 1 C 3,18.669 3.669,18 4.5,18 H 5 5.5 7 V 17 H 5.5 5 Z M 41,17 v 1 h 1.5 0.5 0.5 c 0.831,0 1.5,0.669 1.5,1.5 v -1 C 45,17.669 44.331,17 43.5,17 H 43 42.5 Z"/>
</svg>
