<svg xmlns="http://www.w3.org/2000/svg" width="48" height="48" version="1">
 <path style="opacity:0.2" d="m 24.108302,5.000997 a 4.5656761,4.5479 0 0 0 -2.39104,0.6067 l -13.434224,7.726 A 4.5656761,4.5479 0 0 0 6,17.272697 v 15.453 a 4.5656761,4.5479 0 0 0 2.282838,3.9386 l 13.434224,7.7264 a 4.5656761,4.5479 0 0 0 4.565676,0 l 13.434224,-7.7264 A 4.5656761,4.5479 0 0 0 42,32.725297 v -15.453 a 4.5656761,4.5479 0 0 0 -2.283038,-3.939 l -13.434224,-7.726 a 4.5656761,4.5479 0 0 0 -2.175036,-0.6067 z"/>
 <path style="fill:#17191e" d="m 24.102051,4.9999999 v 0.00186 A 4.3373773,4.3204901 0 0 0 21.830965,5.5770487 L 9.0690945,12.917257 A 4.3373773,4.3204901 0 0 0 6.900059,16.659726 v 14.680417 a 4.3373773,4.3204901 0 0 0 2.1690355,3.740612 l 12.7618705,7.34021 a 4.3373773,4.3204901 0 0 0 4.33807,0 l 12.761871,-7.34021 a 4.3373773,4.3204901 0 0 0 2.169035,-3.740612 V 16.659726 A 4.3373773,4.3204901 0 0 0 38.930906,12.917257 L 26.169035,5.5770487 A 4.3373773,4.3204901 0 0 0 24.102051,4.9999999 Z"/>
 <path style="fill:#ec8239" d="M 28.105469 5.6542969 L 24 8 L 42 18.296875 L 42 16.273438 A 4.5656761 4.5479 0 0 0 41.980469 15.898438 C 41.978034 15.872516 41.979437 15.846173 41.976562 15.820312 A 4.5656761 4.5479 0 0 0 41.974609 15.808594 A 4.5656761 4.5479 0 0 0 41.943359 15.601562 C 41.923583 15.478375 41.90474 15.355435 41.875 15.234375 A 4.5656761 4.5479 0 0 0 41.851562 15.144531 C 41.757444 14.792401 41.623583 14.449325 41.447266 14.126953 L 41.445312 14.128906 C 41.057259 13.417417 40.487811 12.82129 39.794922 12.402344 L 37.835938 11.251953 L 28.105469 5.6542969 z"/>
 <path style="fill:#f1d41a" d="M 24.107422 4 L 24.107422 4.0019531 C 23.924467 3.9975102 23.741602 4.0081206 23.560547 4.0253906 A 4.5656761 4.5479 0 0 0 23.402344 4.0449219 C 23.270705 4.062135 23.141171 4.084759 23.011719 4.1132812 A 4.5656761 4.5479 0 0 0 22.847656 4.1503906 C 22.67435 4.195323 22.501143 4.2474598 22.333984 4.3125 C 22.153283 4.3828095 21.977943 4.4653271 21.806641 4.5585938 C 21.800215 4.5620923 21.79352 4.5648289 21.787109 4.5683594 L 21.753906 4.5878906 A 4.5656761 4.5479 0 0 0 21.716797 4.6074219 L 10 11.375 L 10 16 L 28.105469 5.6542969 L 26.283203 4.6074219 C 26.135259 4.5223954 25.98187 4.4485284 25.826172 4.3808594 A 4.5656761 4.5479 0 0 0 25.642578 4.3085938 C 25.536789 4.2679599 25.430682 4.2299144 25.322266 4.1972656 A 4.5656761 4.5479 0 0 0 25.148438 4.1503906 C 25.029137 4.1195348 24.90867 4.0934272 24.787109 4.0722656 A 4.5656761 4.5479 0 0 0 24.626953 4.0449219 C 24.45529 4.0212867 24.281632 4.0040266 24.107422 4 z"/>
 <path style="fill:#d25e91" d="m 41.345376,34.032446 -0.0017,-9.74e-4 c 0.42214,-0.685162 0.653265,-1.468864 0.669639,-2.270618 L 42.012115,18.28038 37.999999,16 38,36.585 39.731385,35.597796 c 0.6612,-0.379803 1.216173,-0.918083 1.613933,-1.565385 z"/>
 <path style="fill:#7acdcb" d="M 38 32.005859 L 19.902344 42.347656 L 21.648438 43.351562 L 21.728516 43.392578 C 21.887373 43.483876 22.052971 43.565451 22.220703 43.636719 A 4.5656761 4.5479 0 0 0 22.289062 43.662109 C 22.433133 43.720626 22.579441 43.770941 22.728516 43.814453 A 4.5656761 4.5479 0 0 0 22.828125 43.841797 C 22.96394 43.878126 23.101453 43.907924 23.240234 43.931641 A 4.5656761 4.5479 0 0 0 23.380859 43.955078 C 23.526502 43.975314 23.672734 43.986044 23.820312 43.992188 A 4.5656761 4.5479 0 0 0 23.892578 43.998047 A 4.5656761 4.5479 0 0 0 23.904297 43.998047 C 23.910819 43.998205 23.917307 43.997916 23.923828 43.998047 C 24.093025 44.001436 24.262113 43.991751 24.429688 43.976562 A 4.5656761 4.5479 0 0 0 24.642578 43.949219 C 24.744139 43.935186 24.845044 43.917267 24.945312 43.896484 A 4.5656761 4.5479 0 0 0 25.199219 43.837891 C 25.275024 43.817612 25.349128 43.791738 25.423828 43.767578 A 4.5656761 4.5479 0 0 0 26.019531 43.527344 C 26.04396 43.515433 26.069515 43.506497 26.09375 43.494141 A 4.5656761 4.5479 0 0 0 26.109375 43.484375 A 4.5656761 4.5479 0 0 0 26.283203 43.390625 L 28.771484 41.958984 L 38 36.625 L 38 32.005859 z"/>
 <path style="fill:#aed447" d="m 6.66717,13.952317 0.0017,9.77e-4 C 6.2467305,14.645106 6.015607,15.436413 5.999236,16.245947 L 6.000436,29.757 10.010443,32.04 10,11.375 8.281104,12.371747 c -0.6611997,0.383488 -1.2161737,0.926989 -1.613934,1.58057 z"/>
 <path style="fill:#5e8a93" d="M 6 29.712891 L 6 31.726562 A 4.5656761 4.5479 0 0 0 6.0136719 32.005859 C 6.0161993 32.073096 6.0218656 32.140105 6.0273438 32.207031 A 4.5656761 4.5479 0 0 0 8.2832031 35.664062 L 19.638672 42.195312 L 20.005859 42.402344 L 24 40 L 6 29.712891 z"/>
 <path style="opacity:0.2;fill:#8b9cbe" d="m 24.106698,4.002 a 4.5655239,4.5479 0 0 0 -2.38996,0.6054 L 8.2829619,12.334 A 4.5655239,4.5479 0 0 0 6,16.273 v 1 A 4.5655239,4.5479 0 0 1 8.2831619,13.334 L 21.716938,5.6074 a 4.5655239,4.5479 0 0 1 2.39056,-0.60547 4.5655239,4.5479 0 0 1 2.175764,0.60547 L 39.717038,13.334 A 4.5655239,4.5479 0 0 1 42,17.273 v -1 A 4.5655239,4.5479 0 0 0 39.717038,12.334 L 26.283262,4.6074 A 4.5655239,4.5479 0 0 0 24.107298,4.002 Z"/>
 <path style="opacity:0.2" d="m 24,14 a 2,2 0 0 0 -2,2 2,2 0 0 0 2,2 2,2 0 0 0 2,-2 2,2 0 0 0 -2,-2 z m -3,5 a 2,2 0 0 0 -2,2 2,2 0 0 0 2,2 2,2 0 0 0 2,-2 2,2 0 0 0 -2,-2 z m 5,0 a 2,2 0 0 0 -2,2 2,2 0 0 0 2,2 2,2 0 0 0 2,-2 2,2 0 0 0 -2,-2 z m -7,5 a 2,2 0 0 0 -2,2 2,2 0 0 0 2,2 2,2 0 0 0 2,-2 2,2 0 0 0 -2,-2 z m 5,0 a 2,2 0 0 0 -2,2 2,2 0 0 0 2,2 2,2 0 0 0 2,-2 2,2 0 0 0 -2,-2 z m 5,0 a 2,2 0 0 0 -2,2 2,2 0 0 0 2,2 2,2 0 0 0 2,-2 2,2 0 0 0 -2,-2 z m -13,5 a 2,2 0 0 0 -2,2 2,2 0 0 0 2,2 2,2 0 0 0 2,-2 2,2 0 0 0 -2,-2 z m 5,0 a 2,2 0 0 0 -2,2 2,2 0 0 0 2,2 2,2 0 0 0 2,-2 2,2 0 0 0 -2,-2 z m 5,0 a 2,2 0 0 0 -2,2 2,2 0 0 0 2,2 2,2 0 0 0 2,-2 2,2 0 0 0 -2,-2 z m 5,0 a 2,2 0 0 0 -2,2 2,2 0 0 0 2,2 2,2 0 0 0 2,-2 2,2 0 0 0 -2,-2 z"/>
 <circle style="fill:#8b9cbe" cx="16" cy="30" r="2"/>
 <circle style="fill:#8b9cbe" cx="21" cy="30" r="2"/>
 <circle style="fill:#8b9cbe" cx="26" cy="30" r="2"/>
 <circle style="fill:#8b9cbe" cx="31" cy="30" r="2"/>
 <circle style="fill:#8b9cbe" cx="19" cy="25" r="2"/>
 <circle style="fill:#8b9cbe" cx="24" cy="25" r="2"/>
 <circle style="fill:#8b9cbe" cx="29" cy="25" r="2"/>
 <circle style="fill:#8b9cbe" cx="21" cy="20" r="2"/>
 <circle style="fill:#8b9cbe" cx="26" cy="20" r="2"/>
 <circle style="fill:#8b9cbe" cx="24" cy="15" r="2"/>
</svg>
