<svg width="48" height="48" version="1" xmlns="http://www.w3.org/2000/svg">
 <path d="m24 5a20 20 0 0 0-20 20 20 20 0 0 0 20 20 20 20 0 0 0 20-20 20 20 0 0 0-20-20zm0 12a8 8 0 0 1 8 8 8 8 0 0 1-8 8 8 8 0 0 1-8-8 8 8 0 0 1 8-8z" style="opacity:.2"/>
 <path d="m24 14a10 10 0 0 0-10 10 10 10 0 0 0 10 10 10 10 0 0 0 10-10 10 10 0 0 0-10-10zm0 6a4 4 0 0 1 4 4 4 4 0 0 1-4 4 4 4 0 0 1-4-4 4 4 0 0 1 4-4z" style="fill:#a28039"/>
 <path d="m24 4a20 20 0 0 0-20 20 20 20 0 0 0 20 20 20 20 0 0 0 20-20 20 20 0 0 0-20-20zm0 12a8 8 0 0 1 8 8 8 8 0 0 1-8 8 8 8 0 0 1-8-8 8 8 0 0 1 8-8z" style="fill:#e2d35d"/>
 <path d="M 24,4 A 20,20 0 0 0 4,24 20,20 0 0 0 4.0215,24.418 20,20 0 0 1 24,5 20,20 0 0 1 43.979,24.582 20,20 0 0 0 44,24 20,20 0 0 0 24,4 Z" style="fill:#8b9cbe;opacity:.2"/>
 <path d="M 24,6 A 18,18 0 0 0 6,24 18,18 0 0 0 8.066406,32.347656 L 14.767578,20.162109 A 10,10 0 0 1 24,14 a 10,10 0 0 1 9.880859,8.505859 l 4.853516,-8.828125 A 18,18 0 0 0 24,6 Z m 15.933594,9.652344 -6.701172,12.185547 A 10,10 0 0 1 24,34 10,10 0 0 1 14.119141,25.494141 L 9.265625,34.322266 A 18,18 0 0 0 24,42 18,18 0 0 0 42,24 18,18 0 0 0 39.933594,15.652344 Z" style="fill:#b2bfd9"/>
</svg>
