<svg xmlns="http://www.w3.org/2000/svg" width="48" height="48" version="1">
 <path style="opacity:0.2" d="M 25.1254,5.0014662 C 24.265112,4.9824628 23.328947,5.1418347 22.133156,5.4663188 21.266259,5.7015545 19.317625,6.1575584 17.65065,6.5268858 A 9.0001706,9.0001706 0 0 1 18.000265,8.9995889 9.0001706,9.0001706 0 0 1 9.0000948,17.999759 9.0001706,9.0001706 0 0 1 6.0293354,17.484124 c -0.021729,0.08256 -0.065972,0.197386 -0.066408,0.248052 -0.003,0.361119 -0.4561522,1.954258 -1.0058785,3.541083 -1.139719,3.289865 -1.2188814,4.442429 -0.4628993,6.738409 0.2951662,0.896431 0.6319934,2.225737 0.748061,2.955134 0.2996591,1.883052 0.8471217,2.85341 2.8281786,5.007907 0.9576751,1.041525 2.3186588,2.788207 3.0254478,3.880933 1.137992,1.759379 1.531151,2.11417 3.4278,3.091856 2.293376,1.182187 4.047641,1.50133 10.281445,1.876989 2.035931,0.404954 3.144194,0.102431 4.85556,-0.837907 1.020248,-0.560736 2.367899,-1.188723 2.996151,-1.394558 1.927192,-0.631395 4.446302,-2.157811 5.146582,-3.1192 0.365915,-0.502352 1.284859,-2.193504 2.043007,-3.757883 0.906227,-1.86991 1.842658,-3.307424 2.734427,-4.199299 1.865765,-1.363449 1.355495,-3.006482 1.355495,-5.160253 0,-3.695183 -0.03091,-3.890433 -1.10549,-6.839974 C 42.222489,17.845588 41.501834,15.83147 41.229222,15.040719 40.821952,13.859398 40.293906,13.219532 38.262368,11.45276 35.149819,8.7458797 34.218499,8.1530744 32.08647,7.5151857 31.14409,7.23323 29.507895,6.5487675 28.451635,5.9956257 27.210336,5.3455842 26.231482,5.025898 25.1254,5.0014662 Z"/>
 <path style="fill:#ffaa46" d="M 25.1254,4.001195 C 24.265112,3.9821916 23.328947,4.1415635 22.133156,4.4660476 21.266259,4.7012833 19.317625,5.1572872 17.65065,5.5266146 A 9.0001706,9.0001706 0 0 1 18.000265,7.9993177 9.0001706,9.0001706 0 0 1 9.0000948,16.999488 9.0001706,9.0001706 0 0 1 6.0293354,16.483853 c -0.021729,0.08256 -0.065972,0.197386 -0.066408,0.248052 -0.003,0.361119 -0.4561522,1.954258 -1.0058785,3.541083 -1.139719,3.289865 -1.2188814,4.442429 -0.4628993,6.738409 0.2951662,0.896431 0.6319934,2.225737 0.748061,2.955134 0.2996591,1.883052 0.8471217,2.85341 2.8281786,5.007907 0.9576751,1.041525 2.3186588,2.788207 3.0254478,3.880933 1.137992,1.759379 1.531151,2.11417 3.4278,3.091856 2.293376,1.182187 4.047641,1.50133 10.281445,1.876989 2.035931,0.404954 3.144194,0.102431 4.85556,-0.837907 1.020248,-0.560736 2.367899,-1.188723 2.996151,-1.394558 1.927192,-0.631395 4.446302,-2.157811 5.146582,-3.1192 0.365915,-0.502352 1.284859,-2.193504 2.043007,-3.757883 0.906227,-1.86991 1.842658,-3.307424 2.734427,-4.199299 1.865765,-1.363449 1.355495,-3.006482 1.355495,-5.160253 0,-3.695183 -0.03091,-3.890433 -1.10549,-6.839974 -0.608325,-1.669825 -1.32898,-3.683943 -1.601592,-4.474694 -0.40727,-1.181321 -0.935316,-1.821187 -2.966854,-3.587959 C 35.149819,7.7456085 34.218499,7.1528032 32.08647,6.5149145 31.14409,6.2329588 29.507895,5.5484963 28.451635,4.9953545 27.210336,4.345313 26.231482,4.0256268 25.1254,4.001195 Z"/>
 <path style="opacity:0.1" d="m 26.724609,11.014162 c -0.31191,0.03823 -0.618471,0.152344 -0.933593,0.251953 -1.527748,0.539486 -3.207635,1.441693 -3.597657,2.8125 -0.230995,0.682393 -0.246965,0.922198 -0.09375,1.398437 0.05983,0.185941 0.12882,0.461989 0.152344,0.613282 0.06074,0.390588 0.170752,0.592171 0.572266,1.039062 0.194101,0.216036 0.470032,0.578031 0.613281,0.804688 0.230646,0.364936 0.310905,0.43783 0.695312,0.640625 0.446791,0.199089 0.496997,-0.517026 2.083985,0.388672 0.412638,0.084 0.63752,0.02122 0.984375,-0.173829 0.206782,-0.116309 0.48009,-0.246367 0.607422,-0.289062 0.390598,-0.130965 0.901037,-0.44707 1.042968,-0.646484 1.030765,-1.477428 1.361028,-2.653791 1.019532,-4.140625 -0.123295,-0.34636 -0.270919,-0.763716 -0.326172,-0.927735 -0.08254,-0.245034 -0.189817,-0.377672 -0.601563,-0.74414 -0.630844,-0.561469 -0.817885,-0.684094 -1.25,-0.816407 -0.33821,-0.210567 -0.656839,-0.249169 -0.96875,-0.210937 z m -13.234375,7.992187 c -0.256589,-0.028 -0.503821,0.05005 -0.722656,0.263672 -0.535323,-0.02871 -0.707933,0.0069 -1.015625,0.214844 -0.120132,0.08119 -0.30323,0.186555 -0.40625,0.234375 -0.265962,0.123461 -0.386389,0.244979 -0.621094,0.626953 -0.8920323,1.271752 -0.7819017,1.791637 -0.599609,2.833985 0.02655,0.316244 0.120155,0.465926 0.332031,0.677734 0.126334,0.126265 0.274879,0.297225 0.332031,0.380859 0.87023,1.087942 2.789508,0.761425 3.847657,0.521485 0.221292,-0.15982 0.490254,-0.350417 0.595703,-0.423828 0.157536,-0.10967 0.229119,-0.214856 0.404297,-0.587891 0.26839,-0.571536 0.316479,-0.732078 0.320312,-1.072266 0.158705,-0.576043 -0.153485,-0.954675 -0.427734,-1.371093 -0.415115,-1.17946 -1.269293,-2.214836 -2.039063,-2.298829 z m 21.607422,5.996094 c -0.665413,-0.0244 -1.351471,0.118311 -1.839844,0.238281 -0.204267,0.15982 -0.451491,0.350418 -0.548828,0.423828 -0.145417,0.10967 -0.211345,0.214855 -0.373046,0.587891 -0.247744,0.571536 -0.293339,0.732077 -0.296876,1.072266 -0.146497,0.576043 0.143333,0.954676 0.396485,1.371093 0.510907,1.572614 1.738873,2.889638 2.546875,2.035157 0.49414,0.02871 0.655431,-0.0069 0.939453,-0.214844 0.110889,-0.08119 0.279905,-0.186554 0.375,-0.234375 0.245502,-0.12346 0.355616,-0.24498 0.572266,-0.626953 1.777147,-1.476918 1.049951,-1.862399 0.552734,-2.833985 -0.02451,-0.316244 -0.10911,-0.465927 -0.304687,-0.677734 -0.116614,-0.126266 -0.255837,-0.297225 -0.308594,-0.380859 -0.401642,-0.543971 -1.045524,-0.735361 -1.710938,-0.759766 z M 17.671875,29.00049 c -0.242484,-0.0086 -0.424959,0.06465 -0.673828,0.210938 -0.197821,0.116309 -0.458263,0.246367 -0.580078,0.289062 -0.373672,0.130966 -0.862267,0.447069 -0.998047,0.646484 -2.005924,1.009866 -1.437246,2.591467 -0.97461,4.140625 0.117953,0.34636 0.257689,0.763716 0.310547,0.927735 0.07896,0.245034 0.180315,0.377672 0.574219,0.74414 0.603508,0.561469 0.783876,0.684095 1.197266,0.816407 0.64711,0.421135 1.217378,0.158203 1.820312,-0.04102 2.676572,-0.539487 4.247436,-1.441693 3.441406,-2.8125 0.220986,-0.682393 0.236419,-0.922198 0.08984,-1.398437 -0.05723,-0.18594 -0.123978,-0.46199 -0.146484,-0.613282 -0.05811,-0.390589 -0.162759,-0.59217 -0.546875,-1.039062 -0.837212,-1.576029 -1.616873,-0.881609 -3.246094,-1.833985 -0.09869,-0.021 -0.18675,-0.03424 -0.267578,-0.03711 z m 12.423828,6 c -0.238617,-0.0108 -0.492221,0.08128 -0.804687,0.199219 -1.330559,0.600572 -2.281744,0.549337 -3.148438,1.529297 -0.322893,0.67268 -0.03268,1.471564 0.21875,2.259765 0.09587,0.263569 0.208988,0.582218 0.251953,0.707031 0.06418,0.186464 0.148571,0.287538 0.46875,0.566407 0.490553,0.427259 0.63664,0.520409 0.972657,0.621093 1.148927,0.451135 1.318258,-0.512859 2.162109,-1.068359 1.112739,-0.588544 2.076392,-0.519649 1.632812,-1.222656 0.179625,-0.519279 0.191406,-0.702051 0.07227,-1.064453 -0.04652,-0.141494 -0.09889,-0.351668 -0.117187,-0.466797 -0.04723,-0.297225 -0.13309,-0.450946 -0.445313,-0.791016 -0.510049,-0.947592 -0.865977,-1.251534 -1.263672,-1.269531 z"/>
 <path style="fill:#835145" d="m 22.19389,13.078624 c -0.230995,0.682393 -0.246935,0.921324 -0.09372,1.397563 0.05983,0.18594 0.127955,0.46184 0.151479,0.613133 0.06074,0.390588 0.171851,0.591761 0.573365,1.038652 0.194101,0.216036 0.47002,0.578202 0.613269,0.804859 0.230646,0.364936 0.310142,0.438385 0.694549,0.64118 0.44679,0.199089 0.496999,-0.516084 2.083987,0.389614 0.412638,0.084 0.63709,0.02109 0.983945,-0.173955 0.206782,-0.116309 0.480059,-0.246464 0.607391,-0.289159 0.390598,-0.130965 0.900911,-0.447446 1.042842,-0.64686 1.030765,-1.477428 1.360711,-2.653027 1.019215,-4.139861 -0.123295,-0.34636 -0.2693,-0.763901 -0.324553,-0.92792 -0.08254,-0.245034 -0.189879,-0.377827 -0.601625,-0.744295 -0.630844,-0.561469 -0.819522,-0.684635 -1.251637,-0.816948 -0.676421,-0.4211347 -1.270731,-0.157249 -1.900975,0.04197 -1.527748,0.539486 -3.207513,1.441219 -3.597535,2.812026 z"/>
 <path style="fill:#835145" d="m 21.788356,32.921378 c 0.220986,-0.682393 0.236235,-0.921324 0.08966,-1.397563 -0.05723,-0.18594 -0.12241,-0.46184 -0.144916,-0.613132 -0.05811,-0.390589 -0.164403,-0.591761 -0.548519,-1.038653 -0.837212,-1.576029 -1.615607,-0.883277 -3.244828,-1.835653 -0.394757,-0.084 -0.609483,-0.0211 -0.941308,0.173955 -0.197821,0.116309 -0.459256,0.246464 -0.581071,0.289159 -0.373672,0.130966 -0.861872,0.447446 -0.997652,0.646861 -2.005924,1.009866 -1.437687,2.590702 -0.97505,4.13986 0.117952,0.34636 0.257631,0.763901 0.310489,0.92792 0.07896,0.245034 0.181651,0.377827 0.575555,0.744295 0.603508,0.561469 0.78401,0.684636 1.1974,0.816948 0.64711,0.421135 1.215666,0.157249 1.8186,-0.04197 2.676572,-0.539487 4.247673,-1.44122 3.441644,-2.812027 z"/>
 <path style="fill:#835145" d="m 34.983213,29.731064 c 0.49414,0.02871 0.654592,-0.0083 0.938614,-0.216247 0.110889,-0.08119 0.279425,-0.186681 0.37452,-0.234502 0.245502,-0.12346 0.356502,-0.244925 0.573152,-0.626898 1.777147,-1.476918 1.049976,-1.860749 0.552759,-2.832335 -0.02451,-0.316244 -0.109373,-0.46618 -0.304951,-0.677987 -0.116614,-0.126266 -0.255213,-0.297925 -0.30797,-0.381559 -0.803283,-1.087942 -2.574922,-0.76156 -3.551668,-0.52162 -0.204268,0.15982 -0.451025,0.350581 -0.548362,0.423992 -0.145417,0.109669 -0.212111,0.214493 -0.373812,0.587529 -0.247744,0.571536 -0.292359,0.733373 -0.295896,1.073562 -0.146497,0.576043 0.142297,0.953255 0.395449,1.369673 0.510907,1.572613 1.74016,2.890874 2.548162,2.036393 z"/>
 <path style="fill:#835145" d="m 12.768166,18.268935 c -0.535323,-0.02871 -0.709147,0.0083 -1.016839,0.216247 -0.120132,0.08119 -0.302713,0.186682 -0.405733,0.234502 -0.265962,0.123461 -0.386214,0.244925 -0.620919,0.626899 -0.8920327,1.271752 -0.7811177,1.789986 -0.598825,2.832334 0.02655,0.316245 0.118488,0.46618 0.330364,0.677988 0.126334,0.126265 0.276484,0.297924 0.333637,0.381558 0.870229,1.087942 2.789516,0.76156 3.847665,0.52162 0.221292,-0.15982 0.488614,-0.350581 0.594063,-0.423992 0.157536,-0.109669 0.229788,-0.214493 0.404966,-0.587528 0.26839,-0.571536 0.316723,-0.733374 0.320556,-1.073562 0.158705,-0.576043 -0.154157,-0.953256 -0.428406,-1.369674 -0.553486,-1.572613 -1.885185,-2.890874 -2.760526,-2.036393 z"/>
 <path style="fill:#835145" d="m 31.849226,37.59095 c 0.179625,-0.519279 0.19202,-0.701097 0.07288,-1.063499 -0.04652,-0.141494 -0.0995,-0.351445 -0.117793,-0.466574 -0.04723,-0.297225 -0.133633,-0.45031 -0.445856,-0.79038 -0.816078,-1.516148 -1.23435,-1.384823 -2.067593,-1.070315 -1.330559,0.600572 -2.281067,0.549109 -3.147761,1.529069 -0.322893,0.67268 -0.03309,1.471659 0.218341,2.25986 0.09587,0.263569 0.209411,0.581304 0.252376,0.706117 0.06418,0.186463 0.147652,0.287515 0.467831,0.566384 0.490553,0.427259 0.637271,0.520985 0.973288,0.62167 1.148927,0.451134 1.318763,-0.512622 2.162614,-1.068122 1.112739,-0.588544 2.075257,-0.521199 1.631677,-1.224206 z"/>
 <path style="fill:#8b9cbe;opacity:0.2" d="M 25.125 4.0019531 C 24.264712 3.9829497 23.328603 4.1423128 22.132812 4.4667969 C 21.265916 4.7020326 19.317366 5.1580164 17.650391 5.5273438 A 9.0001706 9.0001706 0 0 1 17.865234 6.4765625 C 19.475038 6.1176983 21.307464 5.6907583 22.132812 5.4667969 C 23.328603 5.1423128 24.264712 4.9829497 25.125 5.0019531 C 26.231082 5.0263849 27.209873 5.3460523 28.451172 5.9960938 C 29.507432 6.5492355 31.143558 7.2336693 32.085938 7.515625 C 34.217966 8.1535137 35.14917 8.7462447 38.261719 11.453125 C 40.293257 13.219897 40.821246 13.859695 41.228516 15.041016 C 41.501128 15.831767 42.221753 17.8458 42.830078 19.515625 C 43.904658 22.465166 43.935547 22.660286 43.935547 26.355469 C 43.935547 26.874581 43.965502 27.36121 43.984375 27.824219 C 44.019869 27.079188 43.935547 26.26539 43.935547 25.355469 C 43.935547 21.660286 43.904658 21.465166 42.830078 18.515625 C 42.221753 16.8458 41.501128 14.831767 41.228516 14.041016 C 40.821246 12.859695 40.293257 12.219897 38.261719 10.453125 C 35.14917 7.7462445 34.217966 7.1535137 32.085938 6.515625 C 31.143558 6.2336693 29.507432 5.5492355 28.451172 4.9960938 C 27.209873 4.3460522 26.231082 4.0263849 25.125 4.0019531 z M 17.978516 8.4375 A 9.0001706 9.0001706 0 0 1 9 17 A 9.0001706 9.0001706 0 0 1 6.0292969 16.484375 C 6.0075679 16.566935 5.9633266 16.681756 5.9628906 16.732422 C 5.9598906 17.093541 5.5067576 18.686612 4.9570312 20.273438 C 4.2089092 22.432935 3.9252884 23.6724 4.0273438 24.917969 C 4.1075315 23.954846 4.4052414 22.866211 4.9570312 21.273438 C 5.5067576 19.686613 5.9598906 18.093541 5.9628906 17.732422 C 5.9633266 17.681756 6.0075679 17.566935 6.0292969 17.484375 A 9.0001706 9.0001706 0 0 0 9 18 A 9.0001706 9.0001706 0 0 0 18 9 A 9.0001706 9.0001706 0 0 0 17.978516 8.4375 z"/>
</svg>
