<svg xmlns="http://www.w3.org/2000/svg" width="48" height="48" version="1">
 <rect style="fill:#253951" width="40" height="40" x="4" y="4" rx="2" ry="2"/>
 <path style="opacity:0.1;fill:#8b9cbe" d="M 6,4 C 4.892,4 4,4.892 4,6 V 7 C 4,5.892 4.892,5 6,5 h 36 c 1.108,0 2,0.892 2,2 V 6 C 44,4.892 43.108,4 42,4 Z"/>
 <path style="opacity:0.2" d="M 6,45 C 4.892,45 4,44.108 4,43 v -1 c 0,1.108 0.892,2 2,2 h 36 c 1.108,0 2,-0.892 2,-2 v 1 c 0,1.108 -0.892,2 -2,2 z"/>
 <rect style="opacity:0.2" width="32" height="14" x="8" y="9" rx="2" ry="2"/>
 <rect style="fill:#1e88e5" width="32" height="14" x="8" y="8" rx="2" ry="2"/>
 <rect style="opacity:0.2" width="32" height="14" x="8" y="26" rx="2" ry="2"/>
 <path style="opacity:0.2;fill:#8b9cbe" d="M 10,8 C 8.892,8 8,8.892 8,10 v 1 C 8,9.892 8.892,9 10,9 h 28 c 1.108,0 2,0.892 2,2 V 10 C 40,8.892 39.108,8 38,8 Z"/>
</svg>
