<svg xmlns="http://www.w3.org/2000/svg" width="48" height="48" version="1">
 <rect fill="#8e8e8e" width="32" height="24" x="-42" y="-36" rx="2" ry="2" transform="matrix(0,-1,-1,0,0,0)"/>
 <rect style="fill:#4f4f4f" width="32" height="40" x="-38" y="-44" rx="2" ry="2" transform="matrix(0,-1,-1,0,0,0)"/>
 <rect style="fill:#2c80c2" width="26" height="34" x="-35" y="-41" rx="0" ry="0" transform="matrix(0,-1,-1,0,0,0)"/>
 <path fill="#fff" style="opacity:0.1" d="m6 6c-1.108 0-2 0.892-2 2v1c0-1.108 0.892-2 2-2h36c1.108 0 2 0.892 2 2v-1c0-1.108-0.892-2-2-2h-36z"/>
 <path opacity=".2" d="m12 40v1c0 1.108 0.892 2 2 2h20c1.108 0 2-0.892 2-2v-1c0 1.108-0.892 2-2 2h-20c-1.108 0-2-0.892-2-2z"/>
 <path opacity=".2" d="m4 36v1c0 1.108 0.892 2 2 2h36c1.108 0 2-0.892 2-2v-1c0 1.108-0.892 2-2 2h-36c-1.108 0-2-0.892-2-2z"/>
 <path style="opacity:0.2" d="m 15,14 c -0.554,0 -1,0.446 -1,1 l 0,14 c 0,0.554 0.446,1 1,1 l 4,0 0,1 c 0,0.554 0.446,1 1,1 l 8,0 c 0.554,0 0.608263,-0.608263 1,-1 l 0,-1 4,0 c 0.554,0 1,-0.446 1,-1 l 0,-14 c 0,-0.554 -0.446,-1 -1,-1 z m 1.800781,2 14.398438,0 C 31.642419,16 32,16.3345 32,16.75 l 0,10.5 C 32,27.6655 31.642419,28 31.199219,28 L 16.800781,28 C 16.357581,28 16,27.6655 16,27.25 l 0,-10.5 C 16,16.3345 16.357581,16 16.800781,16 Z"/>
 <path style="fill:#8b9cbe" d="m 15,13 c -0.554,0 -1,0.446 -1,1 l 0,14 c 0,0.554 0.446,1 1,1 l 4,0 0,1 c 0,0.554 0.446,1 1,1 l 8,0 c 0.554,0 0.608263,-0.608263 1,-1 l 0,-1 4,0 c 0.554,0 1,-0.446 1,-1 l 0,-14 c 0,-0.554 -0.446,-1 -1,-1 z m 1.800781,2 14.398438,0 C 31.642419,15 32,15.3345 32,15.75 l 0,10.5 C 32,26.6655 31.642419,27 31.199219,27 L 16.800781,27 C 16.357581,27 16,26.6655 16,26.25 l 0,-10.5 C 16,15.3345 16.357581,15 16.800781,15 Z"/>
</svg>
