<svg xmlns="http://www.w3.org/2000/svg" width="48" height="48" version="1">
 <path style="opacity:0.2" d="M 30,22 H 18 v 15 l 12,8 z"/>
 <path style="opacity:0.2" transform="matrix(1,0,0,0.66851083,0,4.0404488)" d="M 4.9999999,4.4270815 24,4.4270821 43,4.4270807 33.499999,20.881563 24,37.336046 14.500001,20.881563 Z"/>
 <path style="fill:#e53935" transform="matrix(1,0,0,0.66851083,0,3.0404488)" d="M 4.9999999,4.4270815 24,4.4270821 43,4.4270807 33.499999,20.881563 24,37.336046 14.500001,20.881563 Z"/>
 <rect style="opacity:0.2" width="40" height="4" x="4" y="5" rx="2" ry="2"/>
 <rect style="fill:#ec6b68" width="40" height="4" x="4" y="4" rx="2" ry="2"/>
 <path style="fill:#b4231f" d="M 30,21 H 18 v 15 l 12,8 z"/>
 <path style="opacity:0.2;fill:#8b9cbe" d="M 6 4 C 4.892 4 4 4.892 4 6 C 4 6.1738348 4.0290105 6.3394094 4.0703125 6.5 C 4.2922638 5.6370069 5.0658348 5 6 5 L 42 5 C 42.934165 5 43.707736 5.6370069 43.929688 6.5 C 43.970989 6.3394094 44 6.1738348 44 6 C 44 4.892 43.108 4 42 4 L 6 4 z"/>
</svg>
