<svg xmlns="http://www.w3.org/2000/svg" width="48" height="48" version="1">
 <path style="opacity:0.2" d="M 18.5,5 A 10.5,10.5 0 0 0 8.0058594,15.382812 8.5,8.5 0 0 0 2,23.5 8.5,8.5 0 0 0 10,31.974609 V 32 h 0.5 27 0.5 V 31.98242 A 8.5,8.5 0 0 0 46,23.5 8.5,8.5 0 0 0 39.46875,15.240234 10.5,10.5 0 0 0 29.5,8 10.5,10.5 0 0 0 26.316406,8.5078125 10.5,10.5 0 0 0 18.5,5 Z"/>
 <circle style="fill:#b2bfd9" cx="10.5" cy="22.5" r="8.5"/>
 <circle style="fill:#b2bfd9" cx="18.5" cy="14.5" r="10.5"/>
 <circle style="fill:#b2bfd9" cx="29.5" cy="17.5" r="10.5"/>
 <circle style="fill:#b2bfd9" cx="37.5" cy="22.5" r="8.5"/>
 <rect style="fill:#b2bfd9" width="28" height="12" x="10" y="19"/>
 <path style="opacity:0.2" d="m 8,28 v 15 c 0,1.108 0.892,2 2,2 h 28 c 1.108,0 2,-0.892 2,-2 V 28 Z"/>
 <rect style="fill:#29565b" width="36" height="4" x="6" y="22"/>
 <rect style="fill:#4cb009" width="4" height="4" x="6" y="17" rx="1.5" ry="1.5"/>
 <path style="fill:#2995ff" d="m 8,24 v 18 c 0,1.108 0.892,2 2,2 h 28 c 1.108,0 2,-0.892 2,-2 V 24 Z"/>
 <rect style="opacity:0.5;fill:#8b9cbe" width="21" height="2" x="12" y="38"/>
 <rect style="opacity:0.5;fill:#8b9cbe" width="17" height="2" x="12" y="33"/>
 <rect style="opacity:0.5;fill:#8b9cbe" width="24" height="2" x="12" y="28"/>
 <path style="opacity:0.2;fill:#8b9cbe" d="M 18.5,4 A 10.5,10.5 0 0 0 8.0058594,14.382812 8.5,8.5 0 0 0 2,22.5 8.5,8.5 0 0 0 2.0214844,22.929688 8.5,8.5 0 0 1 8.0058594,15.382812 10.5,10.5 0 0 1 18.5,5 10.5,10.5 0 0 1 26.316406,8.5078125 10.5,10.5 0 0 1 29.5,8 10.5,10.5 0 0 1 39.46875,15.240234 8.5,8.5 0 0 1 45.974609,23.003906 8.5,8.5 0 0 0 46,22.5 8.5,8.5 0 0 0 39.46875,14.240234 10.5,10.5 0 0 0 29.5,7 10.5,10.5 0 0 0 26.316406,7.5078125 10.5,10.5 0 0 0 18.5,4 Z"/>
</svg>
