<svg xmlns="http://www.w3.org/2000/svg" width="48" height="48" version="1">
 <path style="opacity:.2" d="m27.408203 5-7.412109 29.648438c-1.390164-0.374778-2.297126-0.810049-2.794922-1.1875-0.640953-0.486001-0.79899-0.777148-0.94336-1.541016-0.288738-1.527736 0.449301-5.080552 1.701172-9.925781 0.06664-0.257938 0.46423-1.079812 0.751954-2.28711 0.143861-0.603649 0.315344-1.396788-0.0059-2.486328-0.321163-1.08954-1.434329-2.201511-2.464844-2.576172-1.048967-0.381369-2.056722-0.558904-3-0.603515-2.829832-0.133834-5.0901251 0.933038-6.2187496 1.322265l1.9570312 5.671875c1.4433634-0.497771 2.3604684-0.812903 3.2949224-0.912109-0.05352 0.176213-0.07202 0.173591-0.123047 0.371094-1.240086 4.799616-2.5288045 8.625054-1.789063 12.539062 0.369871 1.957004 1.489674 3.900883 3.214844 5.208985 1.3631 1.033563 3.009193 1.722331 4.964844 2.228515l-1.132773 4.529297h6.183594l1-3.998047c2.999377-0.336557 5.688097-1.542952 7.816406-3.099609 3.112217-2.276293 5.217368-5.107489 6.123047-7.931641 1.797119-4.604092 1.46875-9.125904 1.46875-13.970703h-6c0 5.100183 0.149818 8.816121-1.083984 11.894531a3.0003 3.0003 0 0 0-0.07813 0.214844c-0.33231 1.056557-1.850699 3.397207-3.972657 4.949219-0.822526 0.6016-1.709852 1.10274-2.654296 1.46289l7.380864-29.521484z"/>
 <path style="fill:none;stroke-linejoin:round;stroke-width:6;stroke:#3669e9" d="m 8,17.2 c 1.9196615,-0.662031 4.076182,-1.877018 7.214587,-0.736 1.390263,0.505453 0.206491,2.36272 -0.159718,3.78009 C 12.562912,29.888936 11,35 20.731707,36.9 28.415059,38.400083 34.473116,31.9111 35.700046,28.010159 37.250461,24.141781 37,19.99984 37,14.999841"/>
 <path style="fill:#3669e9" d="m27.408 4-10 40h6.183594l10-40z"/>
 <path style="fill:#8b9cbe;opacity:.1" d="m27.408203 4-7.412109 29.648438c-1.390164-0.374778-2.297126-0.810049-2.794922-1.1875-0.640953-0.486001-0.79899-0.777148-0.94336-1.541016-0.021166-0.111995-0.024823-0.257153-0.035156-0.390625-0.037054 0.56281-0.031789 1.036409 0.035156 1.390625 0.14437 0.763868 0.302407 1.055014 0.94336 1.541016 0.497796 0.377451 1.404758 0.812722 2.794922 1.1875l7.412109-29.648438h5.933594l0.25-1h-6.183594zm-14.167969 9.041016c-2.829832-0.133834-5.0901251 0.933038-6.2187496 1.322265l0.3066406 0.886719c1.1965797-0.443219 3.288698-1.333056 5.912109-1.208984 0.943278 0.044611 1.951033 0.222146 3 0.603515 1.030515 0.374661 2.143681 1.486632 2.464844 2.576172 0.074549 0.252842 0.116549 0.486731 0.144531 0.708985 0.056877-0.475101 0.05595-1.028943-0.144531-1.708985-0.321163-1.08954-1.434329-2.201511-2.464844-2.576172-1.048967-0.381369-2.056722-0.558904-3-0.603515zm20.759766 1.958984c0 0.356345 0.001013 0.656915 0.001953 1h5.998047c0 1.027504 0.0134 2.034795 0.019531 3.037109 0.002919-1.326406-0.019531-2.668277-0.019531-4.037109h-6zm0.001953 3.617188c-0.016734 3.321542-0.164441 5.978156-1.085937 8.277343a3.0003 3.0003 0 0 0-0.078125 0.214844c-0.33231 1.056557-1.850699 3.397207-3.972657 4.949219-0.740134 0.541338-1.535526 0.994625-2.375 1.34375l-0.279296 1.11914c0.944443-0.36015 1.83177-0.86129 2.654296-1.46289 2.121958-1.552012 3.640347-3.892662 3.972657-4.949219a3.0003 3.0003 0 0 1 0.078125-0.214844c1.008188-2.515491 1.088811-5.503052 1.085937-9.277343zm-21.728515 1.505859c-0.100001 0.010616-0.202465 0.033307-0.302735 0.048828-0.957994 3.636277-1.869259 6.747499-1.804687 9.773437 0.134896-2.905169 1.070192-5.91293 1.984375-9.451171 0.051027-0.197503 0.069526-0.194881 0.123047-0.371094zm6.035156 20.279297-0.900391 3.597656h0.25l0.882813-3.529297c-0.080666-0.020879-0.152808-0.046848-0.232422-0.068359z"/>
</svg>
