<svg xmlns="http://www.w3.org/2000/svg" width="48" height="48" version="1">
 <path style="fill:#a2e36e" d="m24 4h-18c-1.108 0-2 0.892-2 2v18h20z"/>
 <path style="fill:#2cbfeb" d="m24 4h18c1.108 0 2 0.892 2 2v18h-20z"/>
 <path style="fill:#21d789" d="m24 44h-18c-1.108 0-2-0.892-2-2v-18h20z"/>
 <path style="fill:#f7c73c" d="m24 44h18c1.108 0 2-0.892 2-2v-18h-20z"/>
 <path fill="#fff" opacity=".2" d="m6 4c-1.108 0-2 0.892-2 2v1c0-1.108 0.892-2 2-2h36c1.108 0 2 0.892 2 2v-1c0-1.108-0.892-2-2-2h-36z"/>
 <path opacity=".2" d="m6 45c-1.108 0-2-0.892-2-2v-1c0 1.108 0.892 2 2 2h36c1.108 0 2-0.892 2-2v1c0 1.108-0.892 2-2 2h-36z"/>
 <rect style="fill:#17191e" width="28" height="28" x="10" y="10"/>
 <path style="opacity:0.2;fill:none;stroke:#000000;stroke-width:2;stroke-linecap:round" d="m 16,32.9999 h 8"/>
 <path style="fill:none;stroke:#8b9cbe;stroke-width:2;stroke-linecap:round" d="m 16,32 h 8"/>
 <path style="opacity:0.2;fill:none;stroke:#000000;stroke-width:1.99999988;stroke-linecap:round;stroke-linejoin:bevel" d="m 16,20.9999 c 0,0 4.000003,0.464501 4.000003,-1.999997 C 20.000003,16.535402 16,16.999902 16,16.999902 m 9.8e-5,8.000099 V 17"/>
 <path style="fill:none;stroke:#8b9cbe;stroke-width:1.99999988;stroke-linecap:round;stroke-linejoin:bevel" d="m 16,20 c 0,0 4.000003,0.464501 4.000003,-1.999997 C 20.000003,15.535502 16,16.000002 16,16.000002 m 9.8e-5,8.000099 V 16.0001"/>
 <path style="opacity:0.2;fill:none;stroke:#000000;stroke-width:1.99999988;stroke-linecap:round;stroke-linejoin:bevel" d="m 28,23.9999 c 0,0 0,1.000002 -2.000001,1.000002 C 24,24.999902 24,22.999901 24,20.9999 24,18.999902 24,16.999901 25.999999,16.999901 28,16.999901 28,17.9999 28,17.9999"/>
 <path style="fill:none;stroke:#8b9cbe;stroke-width:1.99999988;stroke-linecap:round;stroke-linejoin:bevel" d="m 28,23 c 0,0 0,1.000002 -2.000001,1.000002 C 24,24.000002 24,22.000001 24,20 24,18.000002 24,16.000001 25.999999,16.000001 28,16.000001 28,17 28,17"/>
</svg>
