<svg xmlns="http://www.w3.org/2000/svg" width="48" height="48" version="1">
 <rect style="fill:#17191e" width="38" height="38" x="-43" y="-43" rx="11.4" ry="11.4" transform="matrix(0,-1,-1,0,0,0)"/>
 <path style="opacity:0.2" d="M 16,5 C 9.352,5 4,10.352 4,17 v 16 c 0,6.648 5.352,12 12,12 h 16 c 6.648,0 12,-5.352 12,-12 V 17 C 44,10.352 38.648,5 32,5 Z m 0,6 h 16 c 3.427783,0 6,2.572217 6,6 v 16 c 0,3.427783 -2.572217,6 -6,6 H 16 c -3.427783,0 -6,-2.572217 -6,-6 V 17 c 0,-3.427783 2.572217,-6 6,-6 z"/>
 <circle style="opacity:0.2" class="st9" cx="33" cy="22" r="4"/>
 <path style="fill:#8b9cbe;opacity:0.1" d="M 16 4 C 9.352 4 4 9.352 4 16 L 4 17 C 4 10.352 9.352 5 16 5 L 32 5 C 38.648 5 44 10.352 44 17 L 44 16 C 44 9.352 38.648 4 32 4 L 16 4 z"/>
 <circle style="fill:#ffd517" class="st6" cx="12.5" cy="35.5" r="4.5"/>
 <circle style="fill:#ffd517" class="st9" cx="33" cy="21" r="4"/>
 <path style="fill:none;stroke:#7c7c7c;stroke-width:3;stroke-linecap:round" d="m 15.61959,33.194216 5.229792,-3.865498"/>
 <path style="fill:none;stroke:#7c7c7c;stroke-width:3;stroke-linecap:round" d="m 27.139503,24.906998 4.348936,-2.89929"/>
 <circle style="opacity:0.2" class="st13" cx="24" cy="28" r="6"/>
 <circle style="fill:#b3e5fc" class="st13" cx="24" cy="27" r="6"/>
 <path style="fill:none;stroke:#7c7c7c;stroke-width:3;stroke-linecap:round" d="m 18,12 3.867378,9.668444"/>
 <circle style="opacity:0.2" class="st19" cx="18" cy="13" r="5"/>
 <path style="fill:#4c6378" d="M 16 4 C 9.352 4 4 9.352 4 16 L 4 32 C 4 38.648 9.352 44 16 44 L 32 44 C 38.648 44 44 38.648 44 32 L 44 16 C 44 9.352 38.648 4 32 4 L 16 4 z M 16 10 L 32 10 C 35.427783 10 38 12.572217 38 16 L 38 32 C 38 35.427783 35.427783 38 32 38 L 16 38 C 12.572217 38 10 35.427783 10 32 L 10 16 C 10 12.572217 12.572217 10 16 10 z"/>
 <path style="opacity:0.1;fill:#8b9cbe" d="M 16 4 C 9.352 4 4 9.352 4 16 L 4 17 C 4 10.352 9.352 5 16 5 L 32 5 C 38.648 5 44 10.352 44 17 L 44 16 C 44 9.352 38.648 4 32 4 L 16 4 z M 10 32 L 10 33 C 10 36.427783 12.572217 39 16 39 L 32 39 C 35.427783 39 38 36.427783 38 33 L 38 32 C 38 35.427783 35.427783 38 32 38 L 16 38 C 12.572217 38 10 35.427783 10 32 z"/>
 <circle style="fill:#ffd517" class="st19" cx="18" cy="12" r="5"/>
 <circle style="opacity:0.2" class="st17" cx="35" cy="37" r="5"/>
 <circle style="fill:#ffd517" class="st17" cx="35" cy="36" r="5"/>
 <path style="fill:#8b9cbe;opacity:0.2" d="M 18 7 A 5 5 0 0 0 13 12 A 5 5 0 0 0 13.027344 12.515625 A 5 5 0 0 1 18 8 A 5 5 0 0 1 22.972656 12.484375 A 5 5 0 0 0 23 12 A 5 5 0 0 0 18 7 z M 33 17 A 4 4 0 0 0 29 21 A 4 4 0 0 0 29.035156 21.505859 A 4 4 0 0 1 33 18 A 4 4 0 0 1 36.964844 21.494141 A 4 4 0 0 0 37 21 A 4 4 0 0 0 33 17 z M 35 31 A 5 5 0 0 0 30 36 A 5 5 0 0 0 30.027344 36.515625 A 5 5 0 0 1 35 32 A 5 5 0 0 1 39.972656 36.484375 A 5 5 0 0 0 40 36 A 5 5 0 0 0 35 31 z"/>
 <path style="fill:none;stroke:#7c7c7c;stroke-width:3;stroke-linecap:round" d="m 27.89445,30.186368 3.512322,2.873718"/>
</svg>
