<svg xmlns="http://www.w3.org/2000/svg" width="48" height="48" version="1.1">
 <path style="opacity:0.2" d="M 24,4.9999999 A 20,20 0 0 0 4,25 20,20 0 0 0 24,45 20,20 0 0 0 33.433594,42.617188 l 0.595703,1.451171 A 1.50015,1.50015 0 0 0 35.417969,45 H 43.5 a 1.50015,1.50015 0 0 0 1.392578,-2.056641 l -3.33789,-8.363281 A 20,20 0 0 0 44,25 20,20 0 0 0 24,4.9999999 Z"/>
 <circle style="fill:#4f4f4f" cx="24" cy="24" r="20"/>
 <path style="opacity:0.2" d="m 18.605469,7.8946092 c -0.02052,0.7866133 -1.391603,0.1026811 -1.451172,1.0019532 -1.520403,-0.6769026 0.116942,1.0328028 -0.03516,1.1914066 h -0.0098 l -0.113281,-0.01172 c -0.07338,-0.0262 -0.180328,-0.07089 -0.337891,-0.1679689 -0.320458,0.2553159 -0.546739,0.5939629 -0.736328,0.9687499 -1.267426,1.971677 -1.884048,3.616008 -2.300781,5.693359 -0.532144,2.652666 -0.662985,5.75369 -0.609375,8.369141 0.05709,0.73737 0.241753,1.432558 0.845703,1.898438 1.701609,1.39772 3.116172,3.165471 4.544922,4.847656 2.812707,3.813271 5.278274,7.065141 6.884765,10.484375 C 25.110151,41.020912 24.879451,39.193871 24.769531,37.781328 23.79401,32.803746 21.228494,30.171432 21,24.611406 c -0.05358,-1.375381 1.430595,-4.154417 3.089844,-5.613281 2.503774,-2.201396 4.885292,-1.646296 8.080078,-1.173828 0.01724,0.0029 0.03942,0.0089 0.05664,0.01172 0.106026,0.01775 0.220936,0.03603 0.326172,0.05664 0.853583,0.07607 2.571013,0.409513 2.878907,-0.179687 -1.177862,-1.002946 -2.872763,-1.133053 -4.306641,-1.527344 -0.226984,-0.04128 -0.509852,-0.08734 -0.789062,-0.113281 l -1.404297,-0.314454 -0.34961,-0.08984 v 0.0098 l -5.027343,-0.978515 c -0.07995,-0.0728 -0.16772,-0.146038 -0.248047,-0.201172 l 4.904297,0.607422 v -0.02344 c 0.172817,0.03851 0.344173,0.06954 0.517578,0.08984 v 0.01172 l 3.464843,0.640625 c 0.597896,0.222999 1.235902,0.390385 1.833985,0.427734 0.987224,0.143647 2.240587,1.61674 2.564453,1.6875 -0.158726,-1.550327 -1.70704,-2.244185 -2.992188,-2.699219 -1.501444,-0.73 -3.744779,-0.703909 -3.982421,-2.722656 C 29.553977,12.377 29.490905,12.236649 29.414062,12.10164 l -0.583984,-0.77539 0.02148,-0.01172 C 28.053453,10.372568 26.92999,9.6859678 25.736328,9.4239061 24.551572,9.0149576 23.221761,8.6079642 21.96875,8.4453905 21.543528,9.6974078 21.067428,7.4535321 20.044922,8.1192186 19.148648,8.2253621 19.272775,8.4624598 18.605469,7.8946092 Z m 6.609375,3.1074218 c 0.354185,-0.01097 0.759162,0.06415 1.166015,0.228516 1.08493,0.438297 1.790277,1.361634 1.582032,2.066406 -0.208244,0.704771 -1.25882,0.912904 -2.34375,0.474609 -1.084931,-0.438297 -1.790273,-1.347961 -1.582032,-2.052734 0.130153,-0.44048 0.587431,-0.698572 1.177735,-0.716797 z"/>
 <path style="fill:#ff7111" d="M 18.605469 6.8945312 C 18.584949 7.6811445 17.213866 6.9972123 17.154297 7.8964844 C 15.633894 7.2195818 17.271239 8.9292872 17.119141 9.0878906 L 17.109375 9.0878906 L 16.996094 9.0761719 C 16.922714 9.0499669 16.815766 9.005287 16.658203 8.9082031 C 16.337745 9.1635188 16.111464 9.5021662 15.921875 9.8769531 C 14.654449 11.84863 14.037827 13.492961 13.621094 15.570312 C 13.08895 18.222978 12.958109 21.324002 13.011719 23.939453 C 13.068809 24.676823 13.253472 25.372011 13.857422 25.837891 C 15.559031 27.235611 16.973594 29.003362 18.402344 30.685547 C 21.215051 34.498818 23.680618 37.750688 25.287109 41.169922 C 25.110151 40.020834 24.879451 38.193793 24.769531 36.78125 C 23.79401 31.803668 21.228494 29.171354 21 23.611328 C 20.94642 22.235947 22.430595 19.456911 24.089844 17.998047 C 26.593618 15.796651 28.975136 16.351751 32.169922 16.824219 C 32.187162 16.827119 32.209343 16.833108 32.226562 16.835938 C 32.332588 16.853687 32.447498 16.871968 32.552734 16.892578 C 33.406317 16.968648 35.123747 17.302091 35.431641 16.712891 C 34.253779 15.709945 32.558878 15.579838 31.125 15.185547 C 30.898016 15.144267 30.615148 15.098212 30.335938 15.072266 L 28.931641 14.757812 L 28.582031 14.667969 L 28.582031 14.677734 L 23.554688 13.699219 C 23.474737 13.626419 23.386968 13.553181 23.306641 13.498047 L 28.210938 14.105469 L 28.210938 14.082031 C 28.383755 14.120541 28.555111 14.151575 28.728516 14.171875 L 28.728516 14.183594 L 32.193359 14.824219 C 32.791255 15.047218 33.429261 15.214604 34.027344 15.251953 C 35.014568 15.3956 36.267931 16.868693 36.591797 16.939453 C 36.433071 15.389126 34.884757 14.695268 33.599609 14.240234 C 32.098165 13.510234 29.85483 13.536325 29.617188 11.517578 C 29.553977 11.376922 29.490905 11.236571 29.414062 11.101562 L 28.830078 10.326172 L 28.851562 10.314453 C 28.053453 9.3724904 26.92999 8.6858898 25.736328 8.4238281 C 24.551572 8.0148796 23.221761 7.6078862 21.96875 7.4453125 C 21.543528 8.6973298 21.067428 6.4534541 20.044922 7.1191406 C 19.148648 7.2252841 19.272775 7.4623818 18.605469 6.8945312 z M 25.214844 10.001953 C 25.569029 9.9909821 25.974006 10.066108 26.380859 10.230469 C 27.465789 10.668766 28.171136 11.592103 27.962891 12.296875 C 27.754647 13.001646 26.704071 13.209779 25.619141 12.771484 C 24.53421 12.333187 23.828868 11.423523 24.037109 10.71875 C 24.167262 10.27827 24.62454 10.020178 25.214844 10.001953 z"/>
 <path style="fill:#4f4f4f" d="m 30.500446,29 a 1.50015,1.50015 0 0 0 -1.388672,2.068359 l 4.917969,12 A 1.50015,1.50015 0 0 0 35.418415,44 h 8.082031 a 1.50015,1.50015 0 0 0 1.392578,-2.056641 l -4.789062,-12 A 1.50015,1.50015 0 0 0 38.711384,29 Z"/>
 <path style="fill:#8b9cbe;opacity:0.1" d="M 24 4 A 20 20 0 0 0 4 24 A 20 20 0 0 0 4.0214844 24.417969 A 20 20 0 0 1 24 5 A 20 20 0 0 1 43.974609 24.498047 A 20 20 0 0 0 44 24 A 20 20 0 0 0 24 4 z M 41.773438 34.126953 A 20 20 0 0 1 41.554688 34.580078 L 44.892578 42.943359 A 1.50015 1.50015 0 0 1 44.912109 43 A 1.50015 1.50015 0 0 0 44.892578 41.943359 L 41.773438 34.126953 z"/>
 <path style="fill:#8b9cbe;opacity:0.2" d="M 18.605469 6.8945312 C 18.584949 7.6811445 17.213866 6.9972123 17.154297 7.8964844 C 15.914119 7.3443416 16.764114 8.3707765 17.041016 8.8574219 C 17.08423 8.8746163 17.104475 8.8743031 17.154297 8.8964844 C 17.213866 7.9972123 18.584949 8.6811446 18.605469 7.8945312 C 19.272775 8.4623818 19.148648 8.2252841 20.044922 8.1191406 C 21.067428 7.4534541 21.543528 9.6973298 21.96875 8.4453125 C 23.221761 8.6078862 24.551572 9.0148796 25.736328 9.4238281 C 26.92999 9.6858898 28.053458 10.372491 28.851562 11.314453 L 28.830078 11.326172 L 29.414062 12.101562 C 29.490906 12.236572 29.553976 12.376888 29.617188 12.517578 C 29.843856 14.44311 31.888982 14.515003 33.380859 15.150391 C 33.597855 15.192537 33.816753 15.238802 34.027344 15.251953 C 35.014568 15.3956 36.267931 16.868693 36.591797 16.939453 C 36.433071 15.389126 34.884757 14.695268 33.599609 14.240234 C 32.098165 13.510234 29.854829 13.536325 29.617188 11.517578 C 29.553977 11.376922 29.490906 11.236572 29.414062 11.101562 L 28.830078 10.326172 L 28.851562 10.314453 C 28.053453 9.3724905 26.92999 8.6858898 25.736328 8.4238281 C 24.551572 8.0148796 23.221761 7.6078862 21.96875 7.4453125 C 21.543528 8.6973298 21.067428 6.4534541 20.044922 7.1191406 C 19.148648 7.2252841 19.272775 7.4623818 18.605469 6.8945312 z M 16.552734 9.0195312 C 16.292792 9.2603156 16.087494 9.5495505 15.921875 9.8769531 C 14.654449 11.84863 14.037827 13.492961 13.621094 15.570312 C 13.15821 17.877725 13.008093 20.50768 13.009766 22.878906 C 13.049729 20.785657 13.223445 18.552537 13.621094 16.570312 C 14.037827 14.492961 14.654449 12.84863 15.921875 10.876953 C 16.111464 10.502166 16.337745 10.163519 16.658203 9.9082031 C 16.815766 10.005282 16.922714 10.049972 16.996094 10.076172 L 17.109375 10.087891 L 17.119141 10.087891 C 17.207576 9.9956745 16.701773 9.3864919 16.552734 9.0195312 z M 24.142578 11.519531 C 24.102884 11.583229 24.059085 11.644376 24.037109 11.71875 C 23.828868 12.423523 24.53421 13.333187 25.619141 13.771484 C 25.640171 13.77998 25.660642 13.784958 25.681641 13.792969 L 27.087891 13.966797 C 27.527232 13.886288 27.856343 13.657469 27.962891 13.296875 C 28.035867 13.049898 27.991711 12.776238 27.863281 12.505859 C 27.523051 13.036346 26.586235 13.162176 25.619141 12.771484 C 24.920756 12.489347 24.38395 12.011926 24.142578 11.519531 z M 23.306641 14.498047 C 23.386968 14.553181 23.474737 14.626419 23.554688 14.699219 L 28.582031 15.677734 L 28.582031 15.667969 L 28.931641 15.757812 L 30.335938 16.072266 C 30.615148 16.098207 30.898016 16.144267 31.125 16.185547 C 32.153705 16.468423 33.314124 16.619998 34.324219 17.050781 C 34.700036 17.054526 35.037388 17.019159 35.248047 16.894531 C 34.846483 16.588733 34.419922 16.309076 34.027344 16.251953 C 33.429261 16.214604 32.791255 16.047218 32.193359 15.824219 L 28.728516 15.183594 L 28.728516 15.171875 C 28.555111 15.151575 28.383754 15.120541 28.210938 15.082031 L 28.210938 15.105469 L 23.306641 14.498047 z M 21.037109 24.167969 C 21.015026 24.323795 20.994847 24.479047 21 24.611328 C 21.228494 30.171354 23.79401 32.803668 24.769531 37.78125 C 24.843594 38.733003 24.971231 39.808799 25.101562 40.802734 C 25.161615 40.925459 25.229261 41.046798 25.287109 41.169922 C 25.110151 40.020834 24.879451 38.193793 24.769531 36.78125 C 23.827618 31.975152 21.40871 29.347712 21.037109 24.167969 z"/>
</svg>
