<svg xmlns="http://www.w3.org/2000/svg" width="48" height="48" version="1">
 <path style="opacity:0.2" d="M 42,5 C 43.108,5 44,5.892 44,7 V 43 C 44,44.108 43.108,45 42,45 H 20 L 4,29 V 7 C 4,5.892 4.892,5 6,5 Z"/>
 <path style="fill:#303d75" d="M 42,4 C 43.108,4 44,4.892 44,6 V 42 C 44,43.108 43.108,44 42,44 H 20 L 4,28 V 6 C 4,4.892 4.892,4 6,4 Z"/>
 <path style="opacity:0.2" d="M 24,10 A 7,7 0 0 0 17,17 7,7 0 0 0 17.08,18.002 5,5 0 0 0 17,18 5,5 0 0 0 12,23 5,5 0 0 0 17,28 H 30 A 6,6 0 0 0 36,22 6,6 0 0 0 30.932,16.078 7,7 0 0 0 24,10 Z M 23.998,12 H 24 C 26.519,12.004 28.617,13.844 28.949,16.342 A 2.0002,2.0002 0 0 0 30.621,18.055 C 32.579,18.362 33.998,20.02 34,22.002 33.999,24.234 32.232,26 30,26 H 17 C 15.319,26 14,24.681 14,23 14,21.319 15.319,20 17,20 17.002,20 17.004,20 17.006,20 A 2.0002,2.0002 0 0 0 19.057,17.699 C 19.021,17.466 19.002,17.232 19,16.996 19.002,14.214 21.215,12.001 23.998,12 Z"/>
 <path style="fill:#5d8cb9" d="M 24,9 A 7,7 0 0 0 17,16 7,7 0 0 0 17.08,17.002 5,5 0 0 0 17,17 5,5 0 0 0 12,22 5,5 0 0 0 17,27 H 30 A 6,6 0 0 0 36,21 6,6 0 0 0 30.932,15.078 7,7 0 0 0 24,9 Z M 23.998,11 H 24 C 26.519,11.004 28.617,12.844 28.949,15.342 A 2.0002,2.0002 0 0 0 30.621,17.055 C 32.579,17.362 33.998,19.02 34,21.002 33.999,23.234 32.232,25 30,25 H 17 C 15.319,25 14,23.681 14,22 14,20.319 15.319,19 17,19 17.002,19 17.004,19 17.006,19 A 2.0002,2.0002 0 0 0 19.057,16.699 C 19.021,16.466 19.002,16.232 19,15.996 19.002,13.214 21.215,11.001 23.998,11 Z"/>
 <path style="fill:#44559e" d="M 4,28 H 18 C 19.105,28 20,28.895 20,30 V 44 Z"/>
 <path style="opacity:0.1;fill:#8b9cbe" d="M 42,4 C 43.108,4 44,4.892 44,6 V 7 C 44,5.892 43.108,5 42,5 H 6 C 4.892,5 4,5.892 4,7 V 6 C 4,4.892 4.892,4 6,4 Z"/>
 <path style="opacity:0.1;fill:#8b9cbe" d="M 18,28 C 19.105,28 20,28.895 20,30 V 31 C 20,29.895 19.105,29 18,29 H 5 L 4,28 Z"/>
</svg>
