<svg xmlns="http://www.w3.org/2000/svg" width="48" height="48" version="1.1">
 <path style="opacity:0.2" d="M 23.754776,4.9999996 C 19.289227,11.2512 4.1163533,28.880554 10.579228,39.071396 c 5.000933,7.884597 21.998931,7.924989 26.941754,0 C 43.951968,28.761504 27.557738,11.2512 23.756193,4.9999996 Z"/>
 <path style="fill:#ec953b" d="m 23.754776,4 c -4.465549,6.2512 -19.6384227,23.880554 -13.175548,34.071396 5.000933,7.884597 21.998931,7.924989 26.941754,0 C 43.951968,27.761504 27.557738,10.2512 23.756193,4 Z"/>
 <path style="opacity:0.2;fill:#8b9cbe" d="M 23.755549,4.0000007 C 20.004647,9.2503426 8.7069414,22.525795 9.0119335,32.679683 9.4289226,22.670794 20.126644,10.078933 23.755549,4.9999896 26.893468,10.159932 38.598163,22.98879 38.978153,33.108678 39.387142,22.850792 26.997465,9.3319417 23.755549,4.0000007 Z"/>
</svg>
