<svg xmlns="http://www.w3.org/2000/svg" width="48" height="48" version="1.1">
 <path style="opacity:0.2" d="M 8.7272727,8 H 43 c 0,0 2,0 2,2 v 26 l -5.727273,6 H 4.9999997 c 0,0 -2,0 -2,-2 V 14 Z"/>
 <path style="fill:#00cc5c" d="M 8.7272727,7 H 43 c 0,0 2,0 2,2 v 26 l -5.727273,6 H 4.9999997 c 0,0 -2,0 -2,-2 V 13 Z"/>
 <path style="opacity:0.2" d="M 18.035156,15 C 12.476536,15 11,18 11,24 c 0,6 1.450556,9 7.035156,9 h 1.585938 l 2.310547,4 2.677734,-1 -2.181641,-4 C 24.505724,31 25,28 25,24 25,18 23.593776,15 18.035156,15 Z m 10.992188,1 v 4 H 27 v 2 h 2.027344 v 6 c 0,4 0.90859,5 3.84375,5 h 2.193359 L 34.935547,31 H 33.460938 C 32.110237,31 32,30 32,28 v -6 h 3 v -2 h -3 v -4 z m -11.015625,2 c 3.229341,0 3.98829,2 3.988281,6 0,4 -0.73447,6 -3.988281,6 C 14.757909,30 14,28 14,24 c 0,-4 0.782379,-6 4.011719,-6 z"/>
 <path style="fill:#8b9cbe" d="M 18.035156,14 C 12.476536,14 11,17 11,23 c 0,6 1.450556,9 7.035156,9 h 1.585938 l 2.310547,4 2.677734,-1 -2.181641,-4 C 24.505724,30 25,27 25,23 25,17 23.593776,14 18.035156,14 Z m 10.992188,1 v 4 H 27 v 2 h 2.027344 v 6 c 0,4 0.90859,5 3.84375,5 h 2.193359 L 34.935547,30 H 33.460938 C 32.110237,30 32,29 32,27 v -6 h 3 v -2 h -3 v -4 z m -11.015625,2 c 3.229341,0 3.98829,2 3.988281,6 0,4 -0.73447,6 -3.988281,6 C 14.757909,29 14,27 14,23 c 0,-4 0.782379,-6 4.011719,-6 z"/>
 <path style="opacity:0.2;fill:#8b9cbe" d="M 8.7265625,7 3,13 v 1 L 8.7265625,8 H 43 c 0,0 2,0 2,2 V 9 C 45,7 43,7 43,7 Z"/>
 <circle style="opacity:0.2" cx="36" cy="35" r="11"/>
 <circle style="fill:#e55252" cx="36" cy="34" r="11"/>
 <g>
  <path style="fill:#8b9cbe" d="m 30,35 h 12 l -3,3 h -9 z"/>
  <path style="fill:#8b9cbe" transform="matrix(1.1111111,0,0,0.96225045,-4.2222222,1.5477316)" d="M 41.6,34.764617 37.1,41 v -5.196152 z"/>
 </g>
 <g transform="rotate(-180,36,34)">
  <path style="fill:#8b9cbe" d="m 30,35 h 12 l -3,3 h -9 z"/>
  <path style="fill:#8b9cbe" transform="matrix(1.1111111,0,0,0.96225045,-4.2222222,1.5477316)" d="M 41.6,34.764617 37.1,41 v -5.196152 z"/>
 </g>
</svg>
