<svg width="48" height="48" version="1.1" xmlns="http://www.w3.org/2000/svg">
 <path d="m24.108 4.0016668c-0.837793-0.020189-1.665003 0.1897102-2.391 0.6067l-13.434 7.7260002c-1.4128037 0.812425-2.2831033 2.314007-2.283 3.939v15.253333c0 1.624809 0.8701975 3.126195 2.2828 3.9386l13.434 7.7264c0.754677 0.434024 1.602912 0.636172 2.44474 0.606445 0.733903-0.02592 1.180835-0.419765 1.83876-0.798145l13-8c1.412804-0.812425 2.000103-1.375007 2-3v-15c3.5e-5 -0.550963 0.899109-1.814773 0.711804-2.31531-0.365127-0.975732-1.061919-1.813755-1.995704-2.350723l-13.434-7.7260002c-0.662546-0.3804996-1.410432-0.5891167-2.175-0.6067z" style="fill:#00e600"/>
 <path d="m24.107 4.0023668a4.5656 4.5479 0 0 0-2.39 0.6054l-13.434 7.7266002a4.5656 4.5479 0 0 0-2.283 3.939v1a4.5656 4.5479 0 0 1 2.2832-3.939l13.434-7.7266002a4.5656 4.5479 0 0 1 2.3906-0.60547 4.5656 4.5479 0 0 1 2.1758 0.60547l13.434 7.7266002a4.5656 4.5479 0 0 1 2.283 3.939v-1a4.5656 4.5479 0 0 0-2.283-3.939l-13.434-7.7266002a4.5656 4.5479 0 0 0-2.176-0.6054z" style="fill:#8b9cbe;opacity:.2"/>
 <path d="m6 31.726367v1a4.5656 4.5479 0 0 0 2.2832 3.9375l13.434 7.7266a4.5656 4.5479 0 0 0 4.5664 0l13.434-7.727a4.5656 4.5479 0 0 0 2.283-3.938v-1a4.5656 4.5479 0 0 1-2.2832 3.9375l-13.434 7.7266a4.5656 4.5479 0 0 1-4.5664 0l-13.434-7.727a4.5656 4.5479 0 0 1-2.283-3.938z" style="opacity:.2"/>
 <path d="m6.4612375 14.285156a4.5656 4.5479 0 0 0-0.4609375 1.988282v15.453124a4.5656 4.5479 0 0 0 2.2832031 3.9375l13.433594 7.726563a4.5656 4.5479 0 0 0 2.283203 0.607422v-19.962891z" style="fill:#00bc00"/>
 <path d="m41.551081 14.322266-17.552734 9.755859 2e-3 19.919922a4.5656 4.5479 0 0 0 2.28125-0.607422l13.435547-7.726563a4.5656 4.5479 0 0 0 2.283203-3.9375v-15.453124a4.5656 4.5479 0 0 0-0.449219-1.951172z" style="fill:#009200"/>
 <path d="m41.551081 14.322266-17.550781 9.753906v1.000004l17.550781-9.75391a4.5656 4.5479 0 0 1 0.449219 1.951172v-1a4.5656 4.5479 0 0 0-0.449219-1.951172z" style="fill:#8b9cbe;opacity:.1"/>
 <path d="m6.4612375 14.285156a4.5656 4.5479 0 0 0-0.4609375 1.988282v1a4.5656 4.5479 0 0 1 0.4609375-1.988282l17.539062 9.75v-1.000004z" style="fill:#8b9cbe;opacity:.2"/>
 <path d="m22 13-14 1 1 18 5-1 2 7 6-2-3-6 4-1zm4 1v23h11l3-7-3-5 2-6-3-5zm-13 5h4v6h-4zm17 0h4v5h-4zm0 8h4v6h-4z" style="opacity:.2"/>
 <path d="m22 12-14 1 1 18 5-1 2 7 6-2-3-6 4-1-1-16zm4 1v23h11l3-7-3-5 2-6-3-5h-10zm-13 5h4v6h-4v-6zm17 0h4v5h-4v-5zm0 8h4v6h-4v-6z" style="fill:#ffbb32"/>
 <path d="m22.697266 23.144531-13.767578 6.583985 0.0703125 1.271484 5-1 2 7 6-2-3-6 4-1-0.302734-4.855469zm16.033203 3.738281-4.730469 1.839844v3.277344h-4v-1.722656l-4 1.55664v4.166016h11l3-7-1.269531-2.117188z" style="fill:#fd6447"/>
 <path d="m22 12-14 1 0.0546875 0.996094 13.945312-0.996094 0.9375 15.015625 0.0625-0.015625-1-16zm4 1v1h10l2.785156 4.642578 0.214844-0.642578-3-5h-10zm4 10v1h4v-1h-4zm-17 1v1h4v-1h-4zm24.214844 0.357422-0.214844 0.642578 2.75 4.583984 0.25-0.583984-2.785156-4.642578zm-17.769532 5.53125-0.445312 0.111328 2.572266 5.142578 0.427734-0.142578-2.554688-5.111328zm10.554688 2.111328v1h4v-1h-4z" style="fill:#8b9cbe;opacity:.2"/>
 <path d="m22.697266 23.144531-13.767578 6.583985 0.0546875 0.974609 13.712891-6.558594 0.242187 3.871094 0.060547-0.015625-0.302734-4.855469zm16.033203 3.738281-4.730469 1.839844v1l4.730469-1.839844 1.019531 1.701172 0.25-0.583984-1.269531-2.117188zm-19.285157 3.00586-0.445312 0.111328 2.572266 5.142578 0.427734-0.142578-2.554688-5.111328zm10.554688 0.388672-4 1.55664v1l4-1.55664v-1zm0 1.722656v1h4v-1h-4z" style="fill:#8b9cbe;opacity:.1"/>
</svg>
