<svg xmlns="http://www.w3.org/2000/svg" width="48" height="48" version="1.1">
 <ellipse style="fill:#005e76" cx="24.106" cy="22.82" rx="17.028" ry="16.616"/>
 <path style="opacity:0.2" d="M 24.357422,4 C 18.105492,4 13.140871,5.8150779 9.4609375,9.4433594 5.8205736,13.071639 4,17.921104 4,23.992188 c 0,6.03516 1.839598,10.884626 5.5195312,14.548828 3.7195018,3.628281 8.6060728,5.441406 14.6601568,5.441406 3.838209,0 7.321301,-0.790457 10.447265,-2.371094 3.244673,2.227263 5.81067,3.490585 8.699219,4.388672 l 1.662109,-3.255859 C 42.614132,41.917898 40.68036,40.732211 38.1875,39.1875 42.500541,35.451449 45,30.386584 45,23.992188 45,17.777411 42.856653,12.890417 39.255859,9.3339844 35.655064,5.7775511 30.68849,4 24.357422,4 Z m 0.171875,5 c 4.530639,0 8.064794,1.376294 10.603515,4.128906 C 37.710591,15.846679 39,19.470384 39,24 c 0,5.191638 -1.699675,9.199183 -5.097656,12.021484 -2.148148,-1.567945 -4.764088,-2.771186 -7.84961,-3.607422 l -1.40625,3.607422 c 1.796631,0.383275 3.613529,1.079391 5.449219,2.089844 C 28.728699,38.703663 26.872731,39 24.529297,39 19.959601,39 16.386371,37.659489 13.808594,34.976562 11.269873,32.258793 10,28.599305 10,24 10,19.296166 11.289409,15.620738 13.867188,12.972656 16.444965,10.324572 19.998657,9 24.529297,9 Z"/>
 <path style="fill:#66d5ff" d="M 24.357422 3 C 18.105492 3 13.140871 4.8150779 9.4609375 8.4433594 C 5.8205736 12.071639 4 16.921104 4 22.992188 C 4 29.027348 5.839598 33.876814 9.5195312 37.541016 C 13.239033 41.169297 18.125604 42.982422 24.179688 42.982422 C 28.017897 42.982422 31.500989 42.191965 34.626953 40.611328 C 37.871626 42.838591 40.437623 44.101913 43.326172 45 L 44.988281 41.744141 C 42.614132 40.917898 40.68036 39.732211 38.1875 38.1875 C 42.500541 34.451449 45 29.386584 45 22.992188 C 45 16.777411 42.856653 11.890417 39.255859 8.3339844 C 35.655064 4.7775511 30.68849 3 24.357422 3 z M 24.529297 8 C 29.059936 8 32.594091 9.3762944 35.132812 12.128906 C 37.710591 14.846679 39 18.470384 39 23 C 39 28.191638 37.300325 32.199183 33.902344 35.021484 C 31.754196 33.453539 29.138256 32.250298 26.052734 31.414062 L 24.646484 35.021484 C 26.443115 35.404759 28.260013 36.100875 30.095703 37.111328 C 28.728699 37.703663 26.872731 38 24.529297 38 C 19.959601 38 16.386371 36.659489 13.808594 33.976562 C 11.269873 31.258793 10 27.599305 10 23 C 10 18.296166 11.289409 14.620738 13.867188 11.972656 C 16.444965 9.3245723 19.998657 8 24.529297 8 z"/>
 <path style="opacity:0.2" d="m 24.373222,17.859778 q -1.713809,0 -2.490377,0.594094 -0.749791,0.568268 -1.178242,1.963101 L 18.455231,20.107008 Q 19.338914,16 24.694561,16 q 2.945607,0 4.150627,1.059038 1.231799,1.033212 1.231799,4.00369 v 5.889302 q 0,1.420664 0.723013,2.738005 H 28.36318 Q 28.015062,28.966788 27.90795,28.036899 25.47113,30 22.766528,30 20.677824,30 19.338914,28.992619 18,27.959407 18,26.177121 q 0,-2.06642 2.00837,-3.306272 0.856903,-0.542437 3.695395,-0.92989 2.838495,-0.413286 3.989958,-0.800739 v -0.568267 q 0,-2.712175 -3.320501,-2.712175 z m -1.017573,10.280444 q 4.338074,0 4.338074,-4.339485 v -0.800738 q -0.88368,0.361624 -2.945607,0.671585 -2.035145,0.284133 -3.213388,0.80074 -1.151463,0.490775 -1.151463,1.627305 0,2.040593 2.972384,2.040593 z"/>
 <path style="fill:#66d5ff" d="m 24.373222,16.859778 q -1.713809,0 -2.490377,0.594094 -0.749791,0.568268 -1.178242,1.963101 L 18.455231,19.107008 Q 19.338914,15 24.694561,15 q 2.945607,0 4.150627,1.059038 1.231799,1.033212 1.231799,4.00369 v 5.889302 q 0,1.420664 0.723013,2.738005 H 28.36318 Q 28.015062,27.966788 27.90795,27.036899 25.47113,29 22.766528,29 20.677824,29 19.338914,27.992619 18,26.959407 18,25.177121 q 0,-2.06642 2.00837,-3.306272 0.856903,-0.542437 3.695395,-0.92989 2.838495,-0.413286 3.989958,-0.800739 v -0.568267 q 0,-2.712175 -3.320501,-2.712175 z m -1.017573,10.280444 q 4.338074,0 4.338074,-4.339485 v -0.800738 q -0.88368,0.361624 -2.945607,0.671585 -2.035145,0.284133 -3.213388,0.80074 -1.151463,0.490775 -1.151463,1.627305 0,2.040593 2.972384,2.040593 z"/>
 <path style="fill:#8b9cbe;opacity:0.2" d="M 24.357422 3 C 18.105492 3 13.140871 4.8150779 9.4609375 8.4433594 C 5.8205736 12.071639 4 16.921104 4 22.992188 C 4 23.162429 4.0166037 23.32188 4.0195312 23.490234 C 4.1195876 17.657975 5.9235203 12.969034 9.4609375 9.4433594 C 13.140871 5.8150779 18.105492 4 24.357422 4 C 30.68849 4 35.655064 5.7775511 39.255859 9.3339844 C 42.753107 12.788147 44.869107 17.500999 44.988281 23.462891 C 44.991359 23.305596 45 23.151125 45 22.992188 C 45 16.777411 42.856653 11.890417 39.255859 8.3339844 C 35.655064 4.7775511 30.68849 3 24.357422 3 z M 38.980469 23.462891 C 38.87962 28.425384 37.196332 32.285557 33.902344 35.021484 C 31.754196 33.453539 29.138256 32.250298 26.052734 31.414062 L 24.646484 35.021484 C 24.76392 35.046537 24.882391 35.083602 25 35.111328 L 26.052734 32.414062 C 29.138256 33.250298 31.754196 34.453539 33.902344 36.021484 C 37.300325 33.199183 39 29.191638 39 24 C 39 23.816386 38.984706 23.643527 38.980469 23.462891 z M 10.017578 23.503906 C 10.014206 23.671316 10 23.8299 10 24 C 10 28.599305 11.269873 32.258793 13.808594 34.976562 C 16.386371 37.659489 19.959601 39 24.529297 39 C 26.872731 39 28.728699 38.703663 30.095703 38.111328 C 29.702599 37.894945 29.311288 37.699287 28.919922 37.511719 C 27.721367 37.835052 26.260553 38 24.529297 38 C 19.959601 38 16.386371 36.659489 13.808594 33.976562 C 11.364964 31.360592 10.109143 27.863167 10.017578 23.503906 z M 38.84375 38.589844 C 38.628943 38.791747 38.412254 38.992813 38.1875 39.1875 C 40.526179 40.636672 42.384661 41.757367 44.564453 42.574219 L 44.988281 41.744141 C 42.832819 40.994004 41.021178 39.932217 38.84375 38.589844 z"/>
 <path style="fill:#8b9cbe;opacity:0.2" d="M 24.695312 15 C 21.124881 15 19.0442 16.369417 18.455078 19.107422 L 18.746094 19.146484 C 19.587273 17.049086 21.570356 16 24.695312 16 C 26.65905 16 28.042356 16.352568 28.845703 17.058594 C 29.666902 17.747402 30.076172 19.082181 30.076172 21.0625 L 30.076172 20.0625 C 30.076172 18.082181 29.666902 16.747402 28.845703 16.058594 C 28.042356 15.352568 26.65905 15 24.695312 15 z M 27.660156 20.148438 C 26.888882 20.404201 25.575541 20.668782 23.703125 20.941406 C 21.810797 21.199708 20.579081 21.509469 20.007812 21.871094 C 18.668899 22.697662 18 23.800121 18 25.177734 C 18 25.331058 18.028106 25.468273 18.042969 25.613281 C 18.204953 24.496315 18.857431 23.581273 20.007812 22.871094 C 20.579081 22.509469 21.810797 22.199708 23.703125 21.941406 C 25.595455 21.665882 26.925717 21.398927 27.693359 21.140625 L 27.693359 20.572266 C 27.693359 20.421837 27.675478 20.286351 27.660156 20.148438 z M 27.693359 23 C 27.68995 23.001395 27.683123 23.002512 27.679688 23.003906 C 27.609325 25.754324 26.175355 27.140625 23.355469 27.140625 C 21.65311 27.140625 20.687149 26.634874 20.447266 25.630859 C 20.409353 25.777983 20.382812 25.931224 20.382812 26.099609 C 20.382812 27.460005 21.373879 28.140625 23.355469 28.140625 C 26.247518 28.140625 27.693359 26.693771 27.693359 23.800781 L 27.693359 23 z M 30.076172 25.951172 L 30.076172 26.951172 C 30.076172 27.544241 30.184045 28.123393 30.373047 28.689453 L 30.800781 28.689453 C 30.318773 27.811226 30.076172 26.898281 30.076172 25.951172 z"/>
</svg>
