<svg xmlns="http://www.w3.org/2000/svg" width="48" height="48" version="1.1">
 <path style="fill:#4dc76c" d="m 7,4 h 28 l 3.173823,3.3696732 c 1.139526,1.2098444 1.78339,1.8676996 3,2.9999998 L 44,13 v 28 c 0,1.662 -1.338,3 -3,3 H 7 C 5.338,44 4,42.662 4,41 V 7 C 4,5.338 5.338,4 7,4 Z"/>
 <path style="opacity:0.2;fill:#8b9cbe" d="M 7,4 C 5.338,4 4,5.338 4,7 V 8 C 4,6.338 5.338,5 7,5 H 31 V 4 Z"/>
 <path style="opacity:0.2" d="m 4,41 v 1 c 0,1.662 1.338,3 3,3 h 34 c 1.662,0 3,-1.338 3,-3 v -1 c 0,1.662 -1.338,3 -3,3 H 7 C 5.338,44 4,42.662 4,41 Z"/>
 <path style="opacity:0.2" d="m 8,19 c 0,1 1,2 2,2 9.9411,-10e-6 18,8.0589 18,18 0,1 0.90694,2 2,2 1,0 2,-1 2,-2 C 32,26.85 22.1503,17 10,17 9,17 8,18 8,19 Z m 0,8 c 0,1 1,2 2,2 5.5229,-6e-6 10,4.4771 10,10 0,1 1,2 2,2 1,0 2,-1 2,-2 0,-7.732 -6.268,-14 -14,-14 -1,0 -2,1 -2,2 z m 4,6 c -2.2091,0 -4,1.7909 -4,4 0,2.209 1.791,4 4,4 2.2091,0 4,-1.7909 4,-4 0,-2.2091 -1.7909,-4 -4,-4 z"/>
 <path style="fill:#8b9cbe" d="m 8,18 c 0,1 1,2 2,2 9.9411,-10e-6 18,8.0589 18,18 0,1 0.90694,2 2,2 1,0 2,-1 2,-2 C 32,25.85 22.1503,16 10,16 9,16 8,17 8,18 Z m 0,8 c 0,1 1,2 2,2 5.5229,-6e-6 10,4.4771 10,10 0,1 1,2 2,2 1,0 2,-1 2,-2 0,-7.732 -6.268,-14 -14,-14 -1,0 -2,1 -2,2 z m 4,6 c -2.2091,0 -4,1.7909 -4,4 0,2.209 1.791,4 4,4 2.2091,0 4,-1.7909 4,-4 0,-2.2091 -1.7909,-4 -4,-4 z"/>
 <circle style="opacity:0.2" cx="35" cy="14" r="11"/>
 <circle style="fill:#ffbd1e" cx="35" cy="13" r="11"/>
 <path style="fill:#8b9cbe" d="M 35,4.9999997 37.472136,9.9376938 43,10.72949 39,14.572949 39.944271,20 35,17.437694 30.055728,19.999999 31,14.572949 27,10.72949 32.527864,9.9376937 Z"/>
</svg>
