<svg xmlns="http://www.w3.org/2000/svg" width="48" height="48" version="1">
 <path style="opacity:0.2" d="M 24,5 C 12.92,5 4,13.92 4,25 4,36.08 12.92,45 24,45 35.08,45 44,36.08 44,25 44,13.92 35.08,5 24,5 Z"/>
 <path style="fill:#17191e" d="M 24,4 C 12.92,4 4,12.92 4,24 4,35.08 12.92,44 24,44 35.08,44 44,35.08 44,24 44,12.92 35.08,4 24,4 Z"/>
 <path style="opacity:0.1;fill:#8b9cbe" d="M 24,4 C 12.920985,4 4.0017778,12.92 4.0017778,24 c 0,0.168 -0.004,0.333 0,0.5 C 4.2661543,13.654 13.08897,5 24,5 c 10.91103,0 19.734246,8.654 19.998223,19.5 0.004,-0.167 0,-0.332 0,-0.5 C 43.998223,12.92 35.079015,4 24,4 Z"/>
 <path style="opacity:0.2;isolation:isolate" d="M 31.5,13 A 2.5,2.5 0 0 0 29,15.5 2.5,2.5 0 0 0 31.5,18 2.5,2.5 0 0 0 34,15.5 2.5,2.5 0 0 0 31.5,13 Z m -12.060547,6 c -0.242007,0.0067 -0.478509,0.100423 -0.644531,0.287109 l -8.574219,8.964844 C 10.110368,28.412042 10,28.624606 10,28.837891 V 32.09375 C 10,32.627211 10.385699,33 10.939453,33 H 37.058594 C 37.55666,33 38,32.574021 38,32.09375 V 29.746094 C 38.0017,29.504951 37.90023,29.27335 37.720703,29.105469 L 31.46875,22.308594 c -0.387211,-0.320178 -0.940913,-0.373374 -1.328125,0 l -2.435547,2.847656 c -0.380503,0.320086 -0.947622,0.320086 -1.328125,0 L 20.123047,19.234375 C 19.929441,19.074289 19.68146,18.99335 19.439453,19 Z"/>
 <path style="isolation:isolate;fill:#8b9cbe" d="M 31.5,12 A 2.5,2.5 0 0 0 29,14.5 2.5,2.5 0 0 0 31.5,17 2.5,2.5 0 0 0 34,14.5 2.5,2.5 0 0 0 31.5,12 Z m -12.060547,6 c -0.242007,0.0067 -0.478509,0.100423 -0.644531,0.287109 l -8.574219,8.964844 C 10.110368,27.412042 10,27.624606 10,27.837891 V 31.09375 C 10,31.627211 10.385699,32 10.939453,32 H 37.058594 C 37.55666,32 38,31.574021 38,31.09375 V 28.746094 C 38.0017,28.504951 37.90023,28.27335 37.720703,28.105469 L 31.46875,21.308594 c -0.387211,-0.320178 -0.940913,-0.373374 -1.328125,0 l -2.435547,2.847656 c -0.380503,0.320086 -0.947622,0.320086 -1.328125,0 L 20.123047,18.234375 C 19.929441,18.074289 19.68146,17.99335 19.439453,18 Z"/>
</svg>
