<svg xmlns="http://www.w3.org/2000/svg" width="48" height="48" version="1">
 <rect style="opacity:0.2" width="40" height="40" x="4" y="5" rx="12" ry="12"/>
 <path style="fill:#e53fa9" d="M 18.097902,5.5734266 32,4 c 6.648,0 12,5.352 12,12 v 16 c 0,6.648 -5.352,12 -12,12 L 16.087412,42.601396 C 9.464943,42.019332 5.436799,37.94859 5.3986016,31.3007 L 5.3111888,16.087412 C 5.2729912,9.4395222 11.492076,6.3210678 18.097902,5.5734266 Z"/>
 <path style="fill:#7e53cb" d="M 16,4 C 9.352,4 4,9.352 4,16 v 8 H 6.5 C 18.772283,23.989174 29.55202,15.847989 32.919922,4.046875 32.615358,4.023918 32.310636,4 32,4 Z"/>
 <path style="fill:#f97b49" d="M 6.5,24 H 4 v 8 c 0,6.648 5.352,12 12,12 h 16 c 0.315242,0 0.624612,-0.02324 0.933594,-0.04686 C 29.564302,32.147144 18.777354,24.004728 6.5,24 Z"/>
 <path style="opacity:0.2" d="M 17.5,10 C 12.816946,10 9,13.816946 9,18.5 v 13 c 0,4.683054 3.816946,8.5 8.5,8.5 h 13 c 4.683054,0 8.5,-3.816946 8.5,-8.5 v -13 C 39,13.816946 35.183054,10 30.5,10 Z m 0,3 h 13 c 3.072946,0 5.5,2.427054 5.5,5.5 v 13 c 0,3.072946 -2.427054,5.5 -5.5,5.5 h -13 C 14.427054,37 12,34.572946 12,31.5 v -13 C 12,15.427054 14.427054,13 17.5,13 Z M 32,15 a 2,2 0 0 0 -2,2 2,2 0 0 0 2,2 2,2 0 0 0 2,-2 2,2 0 0 0 -2,-2 z m -8,2 c -4.400511,0 -8,3.599489 -8,8 0,4.400511 3.599489,8 8,8 4.400511,0 8,-3.599489 8,-8 0,-4.400511 -3.599489,-8 -8,-8 z m 0,3 c 2.779191,0 5,2.220809 5,5 0,2.779191 -2.220809,5 -5,5 -2.779191,0 -5,-2.220809 -5,-5 0,-2.779191 2.220809,-5 5,-5 z"/>
 <rect style="fill:none;stroke:#8b9cbe;stroke-width:3;stroke-linecap:round;stroke-linejoin:round" width="27" height="27" x="10.5" y="10.5" rx="7" ry="7"/>
 <circle style="fill:none;stroke:#8b9cbe;stroke-width:3;stroke-linecap:round;stroke-linejoin:round" cx="24" cy="24" r="6.5"/>
 <circle style="fill:#8b9cbe" cx="32" cy="16" r="2"/>
 <path style="opacity:0.1;fill:#8b9cbe" d="M 16,4 C 9.352,4 4,9.352 4,16 v 1 C 4,10.352 9.352,5 16,5 h 16 c 6.648,0 12,5.352 12,12 V 16 C 44,9.352 38.648,4 32,4 Z"/>
</svg>
