<svg xmlns="http://www.w3.org/2000/svg" width="48" height="48" version="1">
 <path style="opacity:0.2" d="M 11.248405,44.976098 C 10.122411,44.829988 9.160808,44.409968 8.2210547,43.653788 7.9019405,43.396998 7.209185,42.687438 6.9252791,42.326578 4.4765808,39.214108 3.4383624,34.280363 4.2978997,29.534983 c 0.6407581,-3.5375 2.2840265,-6.49511 4.3983014,-7.91618 l 0.3780412,-0.25409 0.022399,-0.26163 c 0.1514924,-1.76871 0.4188291,-2.92152 0.9754717,-4.2064 0.427299,-0.98631 0.934644,-1.75025 1.625589,-2.44775 0.885126,-0.89352 1.784202,-1.33452 2.83258,-1.3894 1.045668,-0.0547 2.112665,0.37908 2.976002,1.20996 0.220809,0.2125 0.300475,0.22054 0.337763,0.0341 0.0415,-0.20732 0.421009,-1.21893 0.698835,-1.8626 1.131994,-2.6226603 2.765293,-4.9176053 4.661548,-6.1794053 0.190361,-0.12666 0.579932,-0.34856 0.865707,-0.4931 1.782462,-0.90153 3.702626,-1.01212 5.555444,-0.31994 3.41543,1.27592 6.581991,5.3464303 7.751733,10.5804603 0.428259,1.91623 0.577111,3.30424 0.651387,6.07393 l 0.009,0.32824 0.312554,0.086 c 3.0357,0.83509 5.07708,4.59155 5.560206,9.40298 0.360882,3.59398 -0.380521,7.1924 -2.01804,9.79466 -0.959022,1.52402 -2.282216,2.6478 -3.60866,3.06479 -0.760162,0.23896 0.19985,0.22403 -13.982875,0.21761 -7.114296,-0.003 -12.987835,-0.0127 -13.052301,-0.0211 z"/>
 <path style="fill:#00539e" d="M 11.248405,43.97611 C 10.122411,43.83 9.160808,43.40998 8.2210547,42.6538 7.9019405,42.39701 7.209185,41.68745 6.9252791,41.32659 4.4765808,38.21412 3.4383624,33.280375 4.2978997,28.534995 c 0.6407581,-3.5375 2.2840265,-6.49511 4.3983014,-7.91618 l 0.3780412,-0.25409 0.022399,-0.26163 c 0.1514924,-1.76871 0.4188291,-2.92152 0.9754717,-4.2064 0.427299,-0.98631 0.934644,-1.75025 1.625589,-2.44775 0.885126,-0.89352 1.784202,-1.33452 2.83258,-1.3894 1.045668,-0.0547 2.112665,0.37908 2.976002,1.20996 0.220809,0.2125 0.300475,0.22054 0.337763,0.0341 0.0415,-0.20732 0.421009,-1.21893 0.698835,-1.8626 1.131994,-2.6226605 2.765293,-4.9176055 4.661548,-6.1794055 0.190361,-0.12666 0.579932,-0.34856 0.865707,-0.4931 1.782462,-0.90153 3.702626,-1.01212 5.555444,-0.31994 3.41543,1.27592 6.581991,5.34643 7.751733,10.5804605 0.428259,1.91623 0.577111,3.30424 0.651387,6.07393 l 0.009,0.32824 0.312554,0.086 c 3.0357,0.83509 5.07708,4.59155 5.560206,9.40298 0.360882,3.59398 -0.380521,7.1924 -2.01804,9.79466 -0.959022,1.52402 -2.282216,2.6478 -3.60866,3.06479 -0.760162,0.23896 0.19985,0.22403 -13.982875,0.21761 -7.114296,-0.003 -12.987835,-0.0127 -13.052301,-0.0211 z"/>
 <path style="opacity:0.2" d="m 21.521484,17.003894 c -2.171099,0.02792 -4.392918,0.232625 -6.292968,0.611328 -0.492774,0.0982 -0.967164,0.202595 -1.052735,0.230469 l -0.154297,0.05078 -0.01172,11.53125 L 14,40.960926 l 1.931641,-0.01172 2.0625,-0.0098 0.01172,-2.75 c 0.0072,-1.938824 -0.01013,-2.26687 0.02148,-2.304687 0.02464,-0.02954 0.0853,-0.04555 0.132812,-0.03516 0.04751,0.0104 0.440002,0.05083 0.996094,0.08984 1.259702,0.08832 4.750688,0.100124 5.703125,0.01953 1.367475,-0.115643 2.516283,-0.291435 3.550781,-0.544922 l 0.556641,-0.136718 0.09766,0.125 c 0.327222,0.428676 0.972189,1.654878 1.277344,2.427734 0.417927,1.058416 0.682611,1.836426 0.683594,2.791016 1.97e-4,0.178801 0.01243,0.336812 0.02734,0.351562 0.0148,0.01476 0.928524,0.02739 2.029299,0.02739 h 2.001953 l -0.02539,-0.472656 c -0.11032,-2.005214 -1.016011,-4.320555 -2.185547,-6.294922 -0.16962,-0.286332 -0.308594,-0.539106 -0.308594,-0.560547 0,-0.02141 0.104516,-0.112165 0.232422,-0.203125 1.406509,-1.000312 2.534715,-3.228732 2.9375,-4.996094 0.404284,-1.77398 0.642488,-3.855466 0.14137,-5.287109 -0.749663,-2.141681 -2.692837,-3.775316 -5.090589,-4.759766 -1.04075,-0.427307 -2.080802,-0.734233 -3.277344,-0.96875 -1.696215,-0.332451 -3.815228,-0.481048 -5.986328,-0.453125 z m 1.908204,4.103516 c 0.521019,0.0015 1.010985,0.02006 1.445312,0.05664 2.746128,0.231291 4.515288,0.835886 5.714844,1.951172 1.007114,0.936349 1.478016,2.147523 1.402344,3.607422 -0.0452,0.872417 -0.184577,1.416161 -0.529297,2.072266 -0.519985,0.989674 -1.367756,1.74378 -2.558594,2.27539 -0.992589,0.443115 -2.34405,0.775655 -3.759766,0.925782 -1.001952,0.106242 -3.808696,0.149714 -4.832031,0.07422 -1.061239,-0.07829 -2.214379,-0.251716 -2.275391,-0.341796 -0.02016,-0.02973 -0.0368,-2.229284 -0.03711,-5.03125 -5.61e-4,-4.475721 0.0055,-4.985447 0.0625,-5.039063 0.03512,-0.03283 0.07664,-0.05859 0.0918,-0.05859 0.01517,0 0.247721,-0.04129 0.515625,-0.0918 1.365487,-0.257236 3.196707,-0.404873 4.759766,-0.40039 z"/>
 <path style="fill:#8b9cbe" d="m 21.521484,16.003906 c -2.171099,0.02792 -4.392918,0.232625 -6.292968,0.611328 -0.492774,0.0982 -0.967164,0.202595 -1.052735,0.230469 l -0.154297,0.05078 -0.01172,11.53125 L 14,39.960938 l 1.931641,-0.01172 2.0625,-0.0098 0.01172,-2.75 c 0.0072,-1.938824 -0.01013,-2.26687 0.02148,-2.304687 0.02464,-0.02954 0.0853,-0.04555 0.132812,-0.03516 0.04751,0.0104 0.440002,0.05083 0.996094,0.08984 1.259702,0.08832 4.750688,0.100124 5.703125,0.01953 1.367475,-0.115643 2.516283,-0.291435 3.550781,-0.544922 l 0.556641,-0.136718 0.09766,0.125 c 0.327222,0.428676 0.972189,1.654878 1.277344,2.427734 0.417927,1.058416 0.682611,1.836426 0.683594,2.791016 1.97e-4,0.178801 0.01243,0.336812 0.02734,0.351562 C 31.067534,39.987376 31.981256,40 33.082031,40 h 2.001953 l -0.02539,-0.472656 c -0.11032,-2.005214 -1.016011,-4.320555 -2.185547,-6.294922 -0.16962,-0.286332 -0.308594,-0.539106 -0.308594,-0.560547 0,-0.02141 0.104516,-0.112165 0.232422,-0.203125 1.406509,-1.000312 2.534715,-3.228732 2.9375,-4.996094 0.404284,-1.77398 0.642488,-3.855466 0.14137,-5.287109 -0.749663,-2.141681 -2.692837,-3.775316 -5.090589,-4.759766 -1.04075,-0.427307 -2.080802,-0.734233 -3.277344,-0.96875 -1.696215,-0.332451 -3.815228,-0.481048 -5.986328,-0.453125 z m 1.908204,4.103516 c 0.521019,0.0015 1.010985,0.02006 1.445312,0.05664 2.746128,0.231291 4.515288,0.835886 5.714844,1.951172 1.007114,0.936349 1.478016,2.147523 1.402344,3.607422 -0.0452,0.872417 -0.184577,1.416161 -0.529297,2.072266 -0.519985,0.989674 -1.367756,1.74378 -2.558594,2.27539 -0.992589,0.443115 -2.34405,0.775655 -3.759766,0.925782 -1.001952,0.106242 -3.808696,0.149714 -4.832031,0.07422 -1.061239,-0.07829 -2.214379,-0.251716 -2.275391,-0.341796 -0.02016,-0.02973 -0.0368,-2.229284 -0.03711,-5.03125 -5.61e-4,-4.475721 0.0055,-4.985447 0.0625,-5.039063 0.03512,-0.03283 0.07664,-0.05859 0.0918,-0.05859 0.01517,0 0.247721,-0.04129 0.515625,-0.0918 1.365487,-0.257236 3.196707,-0.404873 4.759766,-0.40039 z"/>
 <path style="fill:#8b9cbe;opacity:0.1" d="M 27.523438 4.0078125 C 26.35188 3.9504587 25.184351 4.2041219 24.070312 4.7675781 C 23.784538 4.9121181 23.395439 5.1350587 23.205078 5.2617188 C 21.308823 6.5235187 19.674963 8.8187457 18.542969 11.441406 C 18.265143 12.085076 17.88525 13.095414 17.84375 13.302734 C 17.806462 13.489174 17.726668 13.482031 17.505859 13.269531 C 16.642522 12.438651 15.576918 12.003894 14.53125 12.058594 C 13.482872 12.113474 12.582392 12.555699 11.697266 13.449219 C 11.006321 14.146719 10.499565 14.910174 10.072266 15.896484 C 9.515623 17.181364 9.2471955 18.334806 9.0957031 20.103516 L 9.0742188 20.365234 L 8.6953125 20.619141 C 6.5810376 22.040211 4.9395862 24.997656 4.2988281 28.535156 C 4.0610425 29.847936 3.9810626 31.17164 4.0234375 32.470703 C 4.0437546 31.495163 4.1218425 30.512268 4.2988281 29.535156 C 4.9395862 25.997656 6.5810376 23.040211 8.6953125 21.619141 L 9.0742188 21.365234 L 9.0957031 21.103516 C 9.2471955 19.334806 9.515623 18.181364 10.072266 16.896484 C 10.499565 15.910174 11.006321 15.146719 11.697266 14.449219 C 12.582392 13.555699 13.482872 13.113474 14.53125 13.058594 C 15.576918 13.003894 16.642522 13.438651 17.505859 14.269531 C 17.726668 14.482031 17.806462 14.489174 17.84375 14.302734 C 17.88525 14.095414 18.265143 13.085076 18.542969 12.441406 C 19.674963 9.818746 21.308823 7.5235188 23.205078 6.2617188 C 23.395439 6.1350587 23.784538 5.9121181 24.070312 5.7675781 C 25.852774 4.8660481 27.772182 4.7570388 29.625 5.4492188 C 33.04043 6.7251388 36.207211 10.795267 37.376953 16.029297 C 37.805212 17.945527 37.955021 19.333826 38.029297 22.103516 L 38.037109 22.431641 L 38.349609 22.517578 C 41.385309 23.352668 43.42703 27.108492 43.910156 31.919922 C 43.949963 32.316357 43.971115 32.712221 43.984375 33.107422 C 44.00063 32.383193 43.983691 31.652248 43.910156 30.919922 C 43.42703 26.108492 41.385309 22.352668 38.349609 21.517578 L 38.037109 21.431641 L 38.029297 21.103516 C 37.955021 18.333826 37.805212 16.945527 37.376953 15.029297 C 36.207211 9.7952664 33.04043 5.7251388 29.625 4.4492188 C 28.930193 4.1896512 28.226372 4.0422248 27.523438 4.0078125 z"/>
</svg>
