<svg xmlns="http://www.w3.org/2000/svg" width="48" height="48" version="1.1">
 <ellipse style="opacity:0.2" cx="24" cy="25" rx="20" ry="7"/>
 <ellipse style="fill:#c22c2d" cx="24" cy="24" rx="20" ry="7"/>
 <path style="opacity:0.1;fill:#8b9cbe" d="M 24 17 A 20 7 0 0 0 4 24 A 20 7 0 0 0 4.0664062 24.539062 A 20 7 0 0 1 24 18 A 20 7 0 0 1 43.933594 24.460938 A 20 7 0 0 0 44 24 A 20 7 0 0 0 24 17 z"/>
 <ellipse style="opacity:0.2" cx="33.862" cy="-8.003" rx="20.44" ry="7.086" transform="matrix(0.50724541,0.86180165,-0.85261856,0.52253381,0,0)"/>
 <ellipse style="fill:#ed5633" cx="33.009" cy="-8.511" rx="20.44" ry="7.086" transform="matrix(0.50724541,0.86180165,-0.85261856,0.52253381,0,0)"/>
 <path style="opacity:0.2;fill:#8b9cbe" d="M 15.039062 6 A 20.440204 7.0850591 59.659038 0 0 13.632812 6.3847656 A 20.440204 7.0850591 59.659038 0 0 12.017578 11.25 A 20.440204 7.0850591 59.659038 0 1 13.632812 7.3847656 A 20.440204 7.0850591 59.659038 0 1 30.041016 21.296875 A 20.440204 7.0850591 59.659038 0 1 35.982422 37.75 A 20.440204 7.0850591 59.659038 0 0 30.041016 20.296875 A 20.440204 7.0850591 59.659038 0 0 15.039062 6 z"/>
 <ellipse style="opacity:0.2" cx="8.776" cy="33.37" rx="20.44" ry="7.086" transform="matrix(-0.50724541,0.86180165,0.85261856,0.52253381,0,0)"/>
 <ellipse style="fill:#ff9c31" cx="7.923" cy="32.862" rx="20.44" ry="7.086" transform="matrix(-0.50724541,0.86180165,0.85261856,0.52253381,0,0)"/>
 <path style="opacity:0.2;fill:#8b9cbe" d="M 32.960938 6 A 7.0850591 20.440204 30.340962 0 0 17.958984 20.296875 A 7.0850591 20.440204 30.340962 0 0 12.017578 37.75 A 7.0850591 20.440204 30.340962 0 1 17.958984 21.296875 A 7.0850591 20.440204 30.340962 0 1 34.367188 7.3847656 A 7.0850591 20.440204 30.340962 0 1 35.982422 11.25 A 7.0850591 20.440204 30.340962 0 0 34.367188 6.3847656 A 7.0850591 20.440204 30.340962 0 0 32.960938 6 z"/>
 <path style="opacity:0.2" d="m 20,17.999999 h 8 l 4,7 -4,7 h -8 l -4,-7 z"/>
 <path style="fill:#8b9cbe" d="m 20,17 h 8 l 4,7 -4,7 h -8 l -4,-7 z"/>
 <circle style="fill:#c22c2d" cx="24" cy="24" r="4"/>
</svg>
