<svg xmlns="http://www.w3.org/2000/svg" xmlns:xlink="http://www.w3.org/1999/xlink" width="48" height="48" version="1">
 <defs>
  <linearGradient id="linearGradient938">
   <stop style="stop-color:#2bb5fe" offset="0"/>
   <stop style="stop-color:#2bb5fe;stop-opacity:0" offset="1"/>
  </linearGradient>
  <linearGradient id="linearGradient940" x1="22.26" x2="21.73" y1="32.569" y2="30.835" gradientTransform="translate(0,-2)" gradientUnits="userSpaceOnUse" xlink:href="#linearGradient938"/>
  <linearGradient id="linearGradient944" x1="22.26" x2="21.73" y1="32.569" y2="30.835" gradientTransform="translate(9.4818913,-2.1257545)" gradientUnits="userSpaceOnUse" xlink:href="#linearGradient938"/>
 </defs>
 <path style="fill:#3fbcfe" d="M 24,4 C 12.92,4 4,12.92 4,24 4,35.08 12.92,44 24,44 35.08,44 44,35.08 44,24 44,12.92 35.08,4 24,4 Z"/>
 <ellipse style="opacity:0.1" cx="25.423" cy="27.703" rx="8.976" ry="9.297"/>
 <path style="opacity:0.2;fill:#8b9cbe" d="M 24,4 C 12.920985,4 4.0017778,12.92 4.0017778,24 c 0,0.168 -0.004,0.333 0,0.5 C 4.2661543,13.654 13.08897,5 24,5 c 10.91103,0 19.734246,8.654 19.998223,19.5 0.004,-0.167 0,-0.332 0,-0.5 C 43.998223,12.92 35.079015,4 24,4 Z"/>
 <path style="opacity:0.2" d="M 4.0117,24.5 C 4.0076,24.667 4,24.832 4,25 4,36.08 12.92,45 24,45 35.08,45 44,36.08 44,25 44,24.832 43.992,24.667 43.988,24.5 43.724,35.346 34.912,44 24,44 13.088,44 4.276,35.346 4.012,24.5 Z"/>
 <ellipse style="fill:#f6dcc2" cx="25.423" cy="26.703" rx="8.976" ry="9.297"/>
 <path style="opacity:0.1" d="m 17.432888,19.0346 c 7.453376,-0.498429 10.686131,-2.907534 17.702897,-0.786307 3.131501,2.191087 4.019205,14.311943 1.026207,18.254707 l -0.327558,-2.639174 c -0.06404,1.379593 -0.366601,1.924334 -0.669683,2.46727 l -0.237416,-1.16714 -0.89937,1.289053 0.586419,-3.154221 c -0.432257,1.074792 -0.939479,2.119597 -1.975611,2.952838 l -2.626402,-0.279431 1.927576,-1.757212 2.045829,-4.723555 -1.024771,0.490558 -0.218394,-7.07407 c -0.293118,2.211412 -0.31059,4.648342 -0.95339,5.810711 -0.693119,-1.440404 -1.014699,-3.995421 -1.489572,-6.090561 0.250527,4.012505 -0.940504,5.910726 -2.511599,7.25152 -0.750746,-1.187617 -0.928152,-3.020243 -0.700128,-5.308976 -0.974211,1.113334 -1.733652,2.87098 -2.46657,4.708193 0.04577,-2.172093 -0.86405,-3.834538 0.843012,-6.892654 -1.702557,0.904096 -3.031145,2.743113 -4.247343,4.863105 0.108386,-1.411787 0.272838,-2.863621 1.222805,-4.876537 -1.275131,1.991771 -2.545101,3.986122 -3.341745,6.217136 -0.453215,-1.510167 -0.790319,-3.064993 0.320405,-5.176675 -2.929218,1.843622 -1.492278,10.026921 -0.955294,12.607628 h -4.638093 l -0.55977,-1.119539 -0.639737,1.119539 h -1.999179 l 1.985288,-13.801044 z"/>
 <path style="fill:#ff7f7f" d="M 24.738281,10 C 11.190316,10 12.238543,23.811733 10.626953,35.021484 H 12.625 l 0.640625,-1.121093 0.558594,1.121093 h 4.638672 c -0.536984,-2.580707 -1.97414,-10.7638 0.955078,-12.607422 -1.110724,2.111682 -0.773528,3.665615 -0.320313,5.175782 0.796644,-2.231014 2.066666,-4.225026 3.341797,-6.216797 -0.949967,2.012916 -1.11427,3.465166 -1.222656,4.876953 1.216198,-2.119992 2.54549,-3.959185 4.248047,-4.863281 -1.707062,3.058116 -0.79798,4.720485 -0.84375,6.892578 0.732918,-1.837213 1.492586,-3.59565 2.466797,-4.708985 -0.228024,2.288734 -0.05153,4.120977 0.699218,5.308594 1.571095,-1.340794 2.762246,-3.237495 2.511719,-7.25 0.474873,2.09514 0.797116,4.64944 1.490234,6.089844 0.642801,-1.162369 0.660008,-3.599135 0.953126,-5.810547 l 0.21875,7.074219 1.02539,-0.490234 -2.046875,4.722656 -1.927734,1.757812 2.626953,0.279297 c 1.036132,-0.833241 1.544305,-1.878333 1.976562,-2.953125 l -0.58789,3.154297 0.90039,-1.289063 0.236328,1.166016 c 0.303082,-0.542936 0.605882,-1.087204 0.669922,-2.466797 l 0.328125,2.640625 C 40.961028,25.328908 36.315145,10 24.738281,10 Z"/>
 <path style="fill:#29325f" d="m 21.292969,27.001953 c -1.092345,0.03971 -2.28711,1.288438 -2.28711,2.392578 0.340337,0.47541 0.811561,0.889416 1.203125,1.273438 0.0019,0.002 0.0039,0.0039 0.0059,0.0059 0.01478,0.0097 0.02791,0.0219 0.04297,0.03125 0.353844,0.282722 0.793173,0.436969 1.246094,0.4375 1.104569,0 2,-0.895431 2,-2 0.01783,-0.534995 -0.191291,-1.069589 -0.345703,-1.490234 -0.391211,-0.459291 -1.257035,-0.672501 -1.865234,-0.650391 z"/>
 <path style="fill:#29325f" d="m 29.059928,29.417783 c 0.351725,1.116481 0.57665,1.370496 1.567609,1.571722 0.938694,0.100143 1.743661,-0.531186 2.275085,-1.262765 0.139355,-1.158535 0.122599,-2.437752 -0.862693,-2.680514 -0.548594,-0.135165 -1.814447,0.03038 -2.227084,0.440286 -0.455155,0.452139 -0.994998,1.162828 -0.752917,1.931271 z"/>
 <path style="fill:#8b9cbe" d="m 24.573887,33.002598 h 2.892396 c -0.495856,2.167946 -2.973139,1.505017 -2.892396,0 z"/>
 <path style="fill:#a66067" d="m 33.680076,18.390051 c 1.722106,4.806045 1.9714,6.830438 2.165387,8.750037 0.91063,-4.202362 0.296664,-5.588444 -2.165387,-8.750037 z m -11.925227,1.170353 c -1.120325,1.445585 -2.542156,2.137031 -3.434544,4.152459 l 0.18397,-2.59221 -1.26317,5.987499 -0.385904,-2.299123 -0.895563,6.289901 -0.650381,-5.107571 -0.536606,2.889954 -0.794762,-6.24133 -0.715253,3.853384 -0.524297,-3.348382 -2.111826,11.875794 h 1.999049 l 0.639735,-1.119454 0.559894,1.119454 h 4.638166 c -0.536984,-2.580708 -1.974106,-10.764059 0.955112,-12.60768 -1.085738,2.064178 -0.786898,3.595891 -0.349643,5.074303 0.500446,-2.780225 1.15956,-5.610604 2.686023,-7.926998 z m 6.436278,1.690325 c -1.128117,0.59933 -2.587597,3.128513 -3.657436,5.478838 0.05163,0.504481 0.09916,1.011204 0.08783,1.549271 0.732918,-1.837213 1.492247,-3.595027 2.466458,-4.70836 -0.228024,2.288733 -0.0508,4.121555 0.699951,5.309172 0.148589,-0.126809 0.292582,-0.26078 0.433476,-0.398878 -0.526059,-2.399606 -0.934173,-4.886984 -0.03027,-7.230043 z m 2.1085,0.377255 c 0.474873,2.095139 0.796603,4.650224 1.489722,6.090628 0.09663,-0.174741 0.182687,-0.381212 0.261815,-0.608464 -0.0076,-1.486449 -0.346366,-3.245744 -1.751537,-5.482164 z m 2.62461,0.398878 c 0.132755,1.198782 0.08763,2.27438 -0.07751,3.252571 l 0.11444,3.702349 1.024642,-0.490365 -2.34225,4.669756 -1.631028,1.811101 2.626274,0.279448 c 1.036133,-0.833241 1.543171,-1.878039 1.975428,-2.952831 l -0.586174,3.154099 0.899222,-1.289118 0.23753,1.167026 c 0.303082,-0.542936 0.605643,-1.08753 0.669678,-2.467123 l 0.327352,2.639117 c 0.484204,-0.637856 0.865387,-1.49183 1.153386,-2.481096 -0.961351,-3.405883 -2.357748,-7.758903 -4.390986,-10.994934 z"/>
 <path style="fill:url(#linearGradient940)" d="m 21.46875,27.675781 a 1.5,1.5 0 0 0 -1.5,1.5 1.5,1.5 0 0 0 1.5,1.5 1.5,1.5 0 0 0 1.5,-1.5 1.5,1.5 0 0 0 -1.5,-1.5 z m 0.01367,0.431641 a 1.0820434,1.0820434 0 0 1 1.082031,1.082031 1.0820434,1.0820434 0 0 1 -1.082031,1.082031 1.0820434,1.0820434 0 0 1 -1.082031,-1.082031 1.0820434,1.0820434 0 0 1 1.082031,-1.082031 z"/>
 <path style="fill:url(#linearGradient944)" d="m 30.950641,27.550026 a 1.5,1.5 0 0 0 -1.5,1.5 1.5,1.5 0 0 0 1.5,1.5 1.5,1.5 0 0 0 1.5,-1.5 1.5,1.5 0 0 0 -1.5,-1.5 z m 0.01367,0.431641 a 1.0820434,1.0820434 0 0 1 1.082031,1.082031 1.0820434,1.0820434 0 0 1 -1.082031,1.082031 1.0820434,1.0820434 0 0 1 -1.082031,-1.082031 1.0820434,1.0820434 0 0 1 1.082031,-1.082031 z"/>
</svg>
