<svg xmlns="http://www.w3.org/2000/svg" width="48" height="48" version="1.1">
 <circle style="fill:#b2bfd9" cx="24" cy="24" r="19"/>
 <path style="fill:#56676e" d="m 43.907265,22.133588 c 0.05484,0.604409 0.09274,1.214158 0.09274,1.833254 v 0 c 0,-0.619096 -0.0379,-1.2284 -0.09274,-1.833254 z"/>
 <path style="opacity:0.2" d="m 24,5 a 20.074013,20.038944 0 0 0 -3.626953,0.34375 c 23.168222,2.8391175 17.146916,29.901282 2.867187,29.699219 0,0 20.791675,2.708679 19.490235,-17.025391 C 39.90065,10.421526 32.594232,5 24,5 Z M 18.654297,6.3808594 C 18.015323,6.368828 17.350919,6.3774037 16.660156,6.40625 9.2478763,9.3290412 4,16.527604 4,24.964844 a 20.112357,20.07722 0 0 0 0.2050781,2.714844 C 8.8570916,4.2982488 35.360494,11.870511 33.853516,26.148438 c 0,0 4.608965,-19.3946074 -15.199219,-19.7675786 z M 20.958984,14.78125 C 14.848835,14.588741 5.1067015,16.707705 5.3261719,32.240234 a 20.057071,20.022031 0 0 0 4.8359371,7.21875 c 0.08917,0.08412 0.181423,0.16331 0.271485,0.246094 a 20.070892,20.035829 0 0 0 1.898437,1.542969 c 0.102992,0.07344 0.199298,0.154905 0.302735,0.226562 a 19.917965,19.883169 0 0 0 2.189453,1.296875 c 0.219805,0.113048 0.445044,0.216784 0.667969,0.322266 a 19.791789,19.757213 0 0 0 2,0.810547 c 0.167193,0.05697 0.326669,0.128677 0.496093,0.181641 a 19.82612,19.791484 0 0 0 2.490235,0.58789 c 0.254581,0.04451 0.511829,0.08158 0.769531,0.117188 a 20.063313,20.028262 0 0 0 2.634765,0.203125 c 0.03389,0 0.06572,0.0059 0.09961,0.0059 0.66521,0 1.322881,-0.03596 1.970703,-0.09961 C 2.6645231,39.356162 11.516937,13.36151 25.763672,15.435547 c 0,0 -2.027347,-0.566793 -4.804688,-0.654297 z m -6.722656,8.246094 c 0,0 -5.562547,20.45869 16.730469,20.636718 6.994517,-2.599223 12.148555,-8.971455 12.929687,-16.654296 0.05395,-0.531417 0.06999,-1.074199 0.08203,-1.617188 C 43.980716,25.24971 44,25.110556 44,24.966797 44,24.348146 43.963043,23.737222 43.908203,23.132812 38.018506,46.277918 11.962486,37.21225 14.236328,23.027344 Z"/>
 <path style="fill:#4b6a77" d="M 24 4 A 20.074013 20.038944 0 0 0 20.373047 4.34375 C 43.541269 7.1828675 37.519963 34.245032 23.240234 34.042969 C 23.240234 34.042969 44.031909 36.751648 42.730469 17.017578 C 39.90065 9.4215259 32.594232 4 24 4 z M 18.654297 5.3808594 C 18.015323 5.368828 17.350919 5.3774037 16.660156 5.40625 C 9.2478763 8.3290412 4 15.527604 4 23.964844 A 20.112357 20.07722 0 0 0 4.2050781 26.679688 C 8.8570916 3.2982488 35.360494 10.870511 33.853516 25.148438 C 33.853516 25.148438 38.462481 5.7538306 18.654297 5.3808594 z M 20.958984 13.78125 C 14.848835 13.588741 5.1067015 15.707705 5.3261719 31.240234 A 20.057071 20.022031 0 0 0 10.162109 38.458984 C 10.251279 38.543104 10.343532 38.622294 10.433594 38.705078 A 20.070892 20.035829 0 0 0 12.332031 40.248047 C 12.435023 40.321487 12.531329 40.402952 12.634766 40.474609 A 19.917965 19.883169 0 0 0 14.824219 41.771484 C 15.044024 41.884532 15.269263 41.988268 15.492188 42.09375 A 19.791789 19.757213 0 0 0 17.492188 42.904297 C 17.659381 42.961267 17.818857 43.032974 17.988281 43.085938 A 19.82612 19.791484 0 0 0 20.478516 43.673828 C 20.733097 43.718338 20.990345 43.755407 21.248047 43.791016 A 20.063313 20.028262 0 0 0 23.882812 43.994141 C 23.916702 43.994141 23.948535 44 23.982422 44 C 24.647632 44 25.305303 43.964041 25.953125 43.900391 C 2.6645231 38.356162 11.516937 12.36151 25.763672 14.435547 C 25.763672 14.435547 23.736325 13.868754 20.958984 13.78125 z M 14.236328 22.027344 C 14.236328 22.027344 8.673781 42.486034 30.966797 42.664062 C 37.961314 40.064839 43.115352 33.692607 43.896484 26.009766 C 43.950434 25.478349 43.966476 24.935567 43.978516 24.392578 C 43.980716 24.24971 44 24.110556 44 23.966797 C 44 23.348146 43.963043 22.737222 43.908203 22.132812 C 38.018506 45.277918 11.962486 36.21225 14.236328 22.027344 z"/>
 <path style="opacity:0.1" d="M 30,25 A 6,6 0 1 1 24.001911,19 5.9995225,5.9995225 0 0 1 30,25 Z"/>
 <path style="fill:#4b4c4d" d="M 30,24 A 6,6 0 1 1 24.001911,18 5.9995225,5.9995225 0 0 1 30,24 Z"/>
 <path style="fill:#8b9cbe;opacity:0.1" d="M 24 4 A 20.074013 20.038944 0 0 0 20.373047 4.34375 C 21.608944 4.4952014 22.74541 4.72827 23.818359 5.0097656 A 20.074013 20.038944 0 0 1 24 5 C 32.594232 5 39.90065 10.421526 42.730469 18.017578 C 42.758947 18.449396 42.763714 18.856989 42.771484 19.267578 C 42.787401 18.548254 42.78254 17.807145 42.730469 17.017578 C 39.90065 9.421526 32.594232 4 24 4 z M 18.654297 5.3808594 C 18.015323 5.368828 17.350919 5.3774037 16.660156 5.40625 C 9.2478765 8.3290412 4 15.527604 4 23.964844 A 20.112357 20.07722 0 0 0 4.0234375 24.367188 C 4.2660508 16.190507 9.4246383 9.259341 16.660156 6.40625 C 17.350919 6.3774037 18.015323 6.368828 18.654297 6.3808594 C 31.861205 6.6295342 34.199612 15.317628 34.300781 21.091797 C 34.418511 16.498915 33.267445 9.306147 25.509766 6.5273438 C 25.25785 6.4389281 25.006305 6.350402 24.744141 6.2695312 C 24.403871 6.166283 24.057437 6.0670708 23.693359 5.9804688 C 23.645625 5.9682223 23.596876 5.9553648 23.548828 5.9433594 C 22.110528 5.6132491 20.488117 5.4153887 18.654297 5.3808594 z M 19.773438 13.775391 C 13.669331 13.906446 5.1204184 16.678488 5.3261719 31.240234 A 20.057071 20.022031 0 0 0 5.3320312 31.251953 C 5.5355161 16.624154 14.981917 14.592934 20.958984 14.78125 C 20.994987 14.782384 21.022845 14.787769 21.058594 14.789062 C 22.527752 14.347078 24.106428 14.194286 25.763672 14.435547 C 25.763672 14.435547 23.736325 13.868754 20.958984 13.78125 C 20.5771 13.769218 20.180378 13.766654 19.773438 13.775391 z M 35.855469 19.841797 C 35.674398 27.115017 30.544742 34.14633 23.240234 34.042969 C 23.240234 34.042969 25.187586 34.288529 27.841797 34.078125 C 32.901343 31.801559 36.084297 25.803567 35.855469 19.841797 z M 14.236328 22.027344 C 14.236328 22.027344 13.606494 24.427301 13.638672 27.572266 C 13.703882 25.631018 13.959392 24.271769 14.111328 23.59375 C 14.119645 23.078906 14.151275 22.55793 14.236328 22.027344 z M 43.908203 22.132812 C 38.322542 44.083129 14.615954 37.058728 14.121094 24.175781 C 13.379032 37.681787 38.179326 45.645936 43.908203 23.132812 C 43.948033 23.571794 43.960954 24.018525 43.974609 24.464844 C 43.975167 24.440577 43.977978 24.416846 43.978516 24.392578 C 43.980716 24.24971 44 24.110556 44 23.966797 C 44 23.348146 43.963043 22.737222 43.908203 22.132812 z M 33.886719 24.445312 C 33.876933 24.679454 33.878633 24.910458 33.853516 25.148438 C 33.853516 25.148438 33.896622 24.916142 33.914062 24.833984 C 33.914045 24.832706 33.914081 24.831356 33.914062 24.830078 C 33.912222 24.69947 33.893232 24.57457 33.886719 24.445312 z M 11.621094 29.210938 C 11.452655 34.939308 14.584864 40.918863 22.791016 43.933594 A 20.063313 20.028262 0 0 0 23.882812 43.994141 C 23.916702 43.994141 23.948535 44 23.982422 44 C 24.647632 44 25.305303 43.964041 25.953125 43.900391 C 15.910995 41.509699 11.8553 35.316499 11.621094 29.210938 z"/>
</svg>
