<svg xmlns="http://www.w3.org/2000/svg" width="48" height="48" version="1.1">
 <g transform="translate(0 -1004.4)">
  <circle fill="#b2bfd9" cx="24" cy="1028.4" r="20"/>
  <path fill="#fff" opacity=".2" d="m24 1008.4a20 20 0 0 0 -20 20 20 20 0 0 0 0.021484 0.582 20 20 0 0 1 19.979 -19.6 20 20 0 0 1 19.979 19.418 20 20 0 0 0 0.02148 -0.418 20 20 0 0 0 -20 -20z"/>
  <path opacity=".2" d="m43.979 1028.8a20 20 0 0 1 -19.979 19.6 20 20 0 0 1 -19.978 -19.5 20 20 0 0 0 -0.022 0.5 20 20 0 0 0 20 20 20 20 0 0 0 20 -20 20 20 0 0 0 -0.02148 -0.582z"/>
  <path opacity=".2" d="m24 1012.4a17 12 0 0 0 -17 12 17 12 0 0 0 17 12 17 12 0 0 0 17 -12 17 12 0 0 0 -17 -12zm2 4a13 8 0 0 1 13 8 13 8 0 0 1 -13 8 13 8 0 0 1 -13 -8 13 8 0 0 1 13 -8z"/>
  <path fill="#1e62b2" fill-rule="evenodd" d="m34 1030.4s0.55306-0.016 1.1046 0.2656c0.1914 0.097 0.52254 0.2932 0.76141 0.5495 0.23398 0.2511 0.34806 0.5056 0.34806 0.5056l3.786 6.7h-7c-1.1716-2.2427-2.1676-4.6656-3.6615-6.6628-0.29725-0.2431-0.54456-0.3372-0.83845-0.3372h-1.5004l0.000866 6.9961h-6.0004v-19.996h10.826c1.1736 0 6.1736 1 6.3471 6-0.17357 5-4.1736 6-4.1736 6zm-6.9996-8.0013v5.0013h3.9996s1 0 1-2.6952c0-2.3048-1-2.3035-1-2.3035z"/>
 </g>
</svg>
