<svg xmlns="http://www.w3.org/2000/svg" width="48" height="48" version="1.1">
 <circle style="fill:#91926a" cx="24" cy="41" r="4"/>
 <path style="opacity:0.2" d="M 10.852224,40.715208 C 10.852224,42.09592 10.880712,43 9.5,43 8.1192881,43 7,41.880712 7,40.5 7,39.119288 8.1192881,38 9.5,38 c 0.879371,0 1.652698,0.454025 2.098354,1.140447 0.254075,0.391338 -0.74613,1.07342 -0.74613,1.574761 z"/>
 <path id="Fill-24" style="fill:#888860;fill-rule:evenodd" d="M 10.090822,27.238349 C 9.7689619,27.85901 9.468315,28.489757 9.2620113,29.159899 9.01223,29.971205 8.8473565,30.796611 8.7851607,31.648716 8.638806,33.653418 9.1248912,35.507071 10.036014,37.269441 9.1318794,37.285148 8.1835193,37.90882 7.99224,39.08099 7.5008637,38.420233 7.1701182,37.671657 6.8560946,36.918864 6.4703413,35.994195 6.2292455,35.022305 6.1081485,34.029639 6.0024757,33.163333 5.9673845,32.293163 6.0336735,31.413659 6.1155865,30.327252 6.3030219,29.268645 6.6563297,28.243912 7.166175,26.765025 7.907033,25.413501 8.9529295,24.242686 9.0076885,24.181366 9.0766222,24.132786 9.1389178,24.078287 9.0629448,24.611078 9.858787,25.477748 10,26 c 0.161929,0.598831 0.583797,0.54414 1,1"/>
 <path style="fill:#1c7049" d="M 10.852224,39.715208 C 10.852224,41.09592 10.880712,42 9.5,42 8.1192881,42 7,40.880712 7,39.5 7,38.119288 8.1192881,37 9.5,37 c 0.879371,0 1.652698,0.454025 2.098354,1.140447 0.254075,0.391338 -0.74613,1.07342 -0.74613,1.574761 z"/>
 <path style="opacity:0.2;fill-rule:evenodd" d="m 12.921018,38.002482 c 1.134628,0.01768 2.037022,0.39672 2.809754,1.087864 0.579002,0.51796 0.512424,1.511433 -0.113277,1.901179 -0.382542,0.238198 -1.098308,0.183673 -1.437703,-0.11734 -0.399037,-0.353891 -0.825382,-0.598787 -1.392751,-0.569081 -0.66732,0.03492 -1.29029,0.470519 -1.496964,1.116635 -0.297119,0.928737 0.221039,1.945384 1.126874,2.159749 0.352392,0.08346 0.707736,0.130191 1.034568,0.308262 0.517612,0.281959 0.580478,0.892057 0.395214,1.336987 -0.283193,0.680326 -0.641812,0.840552 -1.378224,0.750226 -1.690855,-0.207228 -3.0335222,-1.469264 -3.3793615,-3.150917 -0.2529348,-1.230024 0.036649,-2.346385 0.8141317,-3.335247 0.5821698,-0.740342 1.3466548,-1.178134 2.2483388,-1.388876 0.281336,-0.06578 0.568352,-0.113553 0.7694,-0.09944"/>
 <path id="Fill-28" style="fill:#40a140;fill-rule:evenodd" d="m 12.921018,37.002482 c 1.134628,0.01768 2.037022,0.39672 2.809754,1.087864 0.579002,0.51796 0.512424,1.511433 -0.113277,1.901179 -0.382542,0.238198 -1.098308,0.183673 -1.437703,-0.11734 -0.399037,-0.353891 -0.825382,-0.598787 -1.392751,-0.569081 -0.66732,0.03492 -1.29029,0.470519 -1.496964,1.116635 -0.297119,0.928737 0.221039,1.945384 1.126874,2.159749 0.352392,0.08346 0.707736,0.130191 1.034568,0.308262 0.517612,0.281959 0.580478,0.892057 0.395214,1.336987 -0.283193,0.680326 -0.641812,0.840552 -1.378224,0.750226 -1.690855,-0.207228 -3.0335222,-1.469264 -3.3793615,-3.150917 -0.2529348,-1.230024 0.036649,-2.346385 0.8141317,-3.335247 0.5821698,-0.740342 1.3466548,-1.178134 2.2483388,-1.388876 0.281336,-0.06578 0.568352,-0.113553 0.7694,-0.09944"/>
 <path style="fill:#888860;fill-rule:evenodd" d="m 38,27.238349 c 0.32186,0.620661 0.622507,1.251408 0.828811,1.92155 0.249781,0.811306 0.414654,1.636712 0.47685,2.488817 0.146355,2.004702 -0.33973,3.858355 -1.250853,5.620725 0.904135,0.01571 1.852495,0.639379 2.043774,1.811549 0.491376,-0.660757 0.822122,-1.409333 1.136145,-2.162126 0.385754,-0.924669 0.62685,-1.896559 0.747947,-2.889225 0.105672,-0.866306 0.140764,-1.736476 0.07447,-2.61598 -0.08191,-1.086407 -0.269349,-2.145014 -0.622657,-3.169747 -0.509845,-1.478887 -1.250703,-2.830411 -2.296599,-4.001226 -0.05476,-0.06132 -0.123693,-0.1099 -0.185989,-0.164399 0.07597,0.532791 -0.719869,1.399461 -0.861082,1.921713 -0.161929,0.598831 -0.583797,0.54414 -1,1"/>
 <path style="opacity:0.2" d="M 37.238598,40.715208 C 37.238598,42.09592 37.21011,43 38.590822,43 c 1.380712,0 2.5,-1.119288 2.5,-2.5 0,-1.380712 -1.119288,-2.5 -2.5,-2.5 -0.879371,0 -1.652698,0.454025 -2.098354,1.140447 -0.254075,0.391338 0.74613,1.07342 0.74613,1.574761 z"/>
 <path style="fill:#1c7049" d="M 37.238598,39.715208 C 37.238598,41.09592 37.21011,42 38.590822,42 c 1.380712,0 2.5,-1.119288 2.5,-2.5 0,-1.380712 -1.119288,-2.5 -2.5,-2.5 -0.879371,0 -1.652698,0.454025 -2.098354,1.140447 -0.254075,0.391338 0.74613,1.07342 0.74613,1.574761 z"/>
 <path style="opacity:0.2;fill-rule:evenodd" d="m 35.169804,38.002482 c -1.134628,0.01768 -2.037022,0.39672 -2.809754,1.087864 -0.579002,0.51796 -0.512424,1.511433 0.113277,1.901179 0.382542,0.238198 1.098308,0.183673 1.437703,-0.11734 0.399037,-0.353891 0.825382,-0.598787 1.392751,-0.569081 0.66732,0.03492 1.29029,0.470519 1.496964,1.116635 0.297119,0.928737 -0.221039,1.945384 -1.126874,2.159749 -0.352392,0.08346 -0.707736,0.130191 -1.034568,0.308262 -0.517612,0.281959 -0.580478,0.892057 -0.395214,1.336987 0.283193,0.680326 0.641812,0.840552 1.378224,0.750226 1.690855,-0.207228 3.033522,-1.469264 3.379362,-3.150917 0.252934,-1.230024 -0.03665,-2.346385 -0.814132,-3.335247 -0.58217,-0.740342 -1.346655,-1.178134 -2.248339,-1.388876 -0.281336,-0.06578 -0.568352,-0.113553 -0.7694,-0.09944"/>
 <path style="fill:#40a140;fill-rule:evenodd" d="m 35.169804,37.002482 c -1.134628,0.01768 -2.037022,0.39672 -2.809754,1.087864 -0.579002,0.51796 -0.512424,1.511433 0.113277,1.901179 0.382542,0.238198 1.098308,0.183673 1.437703,-0.11734 0.399037,-0.353891 0.825382,-0.598787 1.392751,-0.569081 0.66732,0.03492 1.29029,0.470519 1.496964,1.116635 0.297119,0.928737 -0.221039,1.945384 -1.126874,2.159749 -0.352392,0.08346 -0.707736,0.130191 -1.034568,0.308262 -0.517612,0.281959 -0.580478,0.892057 -0.395214,1.336987 0.283193,0.680326 0.641812,0.840552 1.378224,0.750226 1.690855,-0.207228 3.033522,-1.469264 3.379362,-3.150917 0.252934,-1.230024 -0.03665,-2.346385 -0.814132,-3.335247 -0.58217,-0.740342 -1.346655,-1.178134 -2.248339,-1.388876 -0.281336,-0.06578 -0.568352,-0.113553 -0.7694,-0.09944"/>
 <circle style="opacity:0.1" cx="24" cy="34" r="9"/>
 <circle style="opacity:0.2" cx="12.5" cy="25.5" r="3.5"/>
 <circle style="fill:#1c7049" cx="12.5" cy="24.5" r="3.5"/>
 <circle style="opacity:0.1" cx="35.5" cy="25.5" r="3.5"/>
 <circle style="fill:#1c7049" cx="35.5" cy="24.5" r="3.5"/>
 <circle style="fill:#1c7049" cx="24" cy="33" r="9"/>
 <path style="opacity:0.2;fill-rule:evenodd" d="m 36.994419,25.008781 c -0.02427,2.351836 -0.413758,4.426775 -1.230766,6.418231 -0.603972,1.472115 -1.412133,2.832374 -2.450121,4.046525 -1.295259,1.515068 -2.835124,2.736632 -4.686953,3.54478 -1.040601,0.454096 -2.123326,0.758128 -3.261095,0.895934 -2.046618,0.247732 -4.001195,-0.0427 -5.884944,-0.853327 -1.125505,-0.484394 -2.140669,-1.132346 -3.07611,-1.914495 -1.371165,-1.146385 -2.453238,-2.513812 -3.321166,-4.058043 -0.855666,-1.522383 -1.43199,-3.142337 -1.767731,-4.843848 -0.147135,-0.745622 -0.240634,-1.500833 -0.278988,-2.263903 -0.01975,-0.393793 -0.03961,-0.78729 -0.03615,-1.180835 0.01227,-1.401186 0.246866,-2.769354 0.65409,-4.110535 0.451307,-1.486548 1.090165,-2.896285 1.833732,-4.259807 0.88115,-1.615752 1.919037,-3.133242 3.052935,-4.587366 0.786194,-1.008232 1.617278,-1.9791963 2.47073,-2.9336517 1.194421,-1.3357431 2.47254,-2.5908198 3.767548,-3.8288933 0.36359,-0.3475779 0.711094,-0.7178433 1.118618,-1.0225176 0.08842,-0.066086 0.134015,-0.082446 0.230026,-0.00761 1.405649,1.0958688 2.681857,2.3306801 3.905687,3.6122501 1.811412,1.8969492 3.461665,3.9257235 4.893604,6.1193385 1.235591,1.892896 2.305097,3.867002 3.062638,5.997745 0.413858,1.164081 0.728989,2.350749 0.886328,3.572066 0.07942,0.616368 0.143315,1.239408 0.11808,1.657964"/>
 <path id="Fill-20" style="fill:#40a140;fill-rule:evenodd" d="m 36.994419,24.008781 c -0.02427,2.351836 -0.413758,4.426775 -1.230766,6.418231 -0.603972,1.472115 -1.412133,2.832374 -2.450121,4.046525 -1.295259,1.515068 -2.835124,2.736632 -4.686953,3.54478 -1.040601,0.454096 -2.123326,0.758128 -3.261095,0.895934 -2.046618,0.247732 -4.001195,-0.0427 -5.884944,-0.853327 -1.125505,-0.484394 -2.140669,-1.132346 -3.07611,-1.914495 -1.371165,-1.146385 -2.453238,-2.513812 -3.321166,-4.058043 -0.855666,-1.522383 -1.43199,-3.142337 -1.767731,-4.843848 -0.147135,-0.745622 -0.240634,-1.500833 -0.278988,-2.263903 -0.01975,-0.393793 -0.03961,-0.78729 -0.03615,-1.180835 0.01227,-1.401186 0.246866,-2.769354 0.65409,-4.110535 0.451307,-1.486548 1.090165,-2.896285 1.833732,-4.259807 0.88115,-1.615752 1.919037,-3.133242 3.052935,-4.587366 0.786194,-1.0082319 1.617278,-1.9791964 2.47073,-2.9336518 1.194421,-1.3357431 2.47254,-2.5908198 3.767548,-3.8288933 0.36359,-0.3475779 0.711094,-0.7178433 1.118618,-1.0225176 0.08842,-0.066086 0.134015,-0.082446 0.230026,-0.00761 1.405649,1.0958688 2.681857,2.3306801 3.905687,3.6122501 1.811412,1.8969492 3.461665,3.9257236 4.893604,6.1193386 1.235591,1.892896 2.305097,3.867002 3.062638,5.997745 0.413858,1.164081 0.728989,2.350749 0.886328,3.572066 0.07942,0.616368 0.143315,1.239408 0.11808,1.657964"/>
 <path id="Fill-34" style="fill:#1c7927;fill-rule:evenodd" d="m 23.997355,32.520655 c 0,0.428141 -0.0045,0.856371 0.0026,1.28442 0.0022,0.136211 -0.04445,0.184124 -0.206276,0.188575 -0.789666,0.02176 -0.789509,0.02593 -0.789509,-0.658937 0,-0.703409 0.0054,-1.406863 -0.0041,-2.110134 -0.0022,-0.16774 0.04669,-0.237818 0.246927,-0.222536 0.181,0.01377 0.364866,0.01042 0.546542,7.34e-4 0.163594,-0.0087 0.208466,0.05158 0.206278,0.187567 -0.007,0.443375 -0.0026,0.886844 -0.0026,1.330311"/>
 <path id="Fill-36" style="fill:#1d7a28;fill-rule:evenodd" d="m 21.971621,32.537381 c 0,0.434045 -0.0028,0.868139 0.0016,1.302085 0.0014,0.131681 -0.01303,0.178612 -0.173274,0.154433 -0.794649,-0.11996 -0.795714,-0.112722 -0.795714,-0.919207 0,-0.606057 0.0068,-1.212164 -0.0041,-1.818024 -0.0034,-0.18787 0.05816,-0.248245 0.235697,-0.2315 0.231049,0.02177 0.525828,-0.09485 0.679101,0.04436 0.15802,0.143548 0.04581,0.448079 0.05439,0.681746 0.0097,0.261688 0.0021,0.524065 0.0021,0.786098"/>
 <path id="Fill-42" style="fill:#1c7727;fill-rule:evenodd" d="m 19.998034,32.011256 c 0,0.289867 -0.0032,0.579735 0.0015,0.869604 0.0021,0.130867 -0.06006,0.144843 -0.176874,0.08582 -0.03849,-0.01948 -0.07083,-0.05406 -0.11159,-0.06283 -0.662858,-0.14191 -0.763504,-0.542072 -0.690998,-1.042583 0.03267,-0.225442 0.01132,-0.4573 0.0035,-0.685906 -0.0044,-0.126055 0.04437,-0.18104 0.199462,-0.174901 0.19698,0.0079 0.394986,0.0069 0.592129,4.58e-4 0.143612,-0.0047 0.187062,0.04876 0.184798,0.163584 -0.0056,0.28217 -0.0018,0.564478 -0.0018,0.846741"/>
 <path id="Fill-32" style="fill:#186521;fill-rule:evenodd" d="m 23.981591,28.999993 c -3.851262,-0.0061 -6.995297,-3.153611 -6.981546,-7.03353 0.01351,-3.807448 3.147441,-7.023124 7.112806,-6.965706 3.728241,0.05393 6.948096,3.113908 6.886274,7.127492 -0.05785,3.758394 -3.135052,6.877195 -7.017534,6.871744"/>
 <path id="Fill-46" style="fill:#89d4a4;fill-rule:evenodd" d="M 29,22.025918 C 28.9989,24.774976 26.750054,27.001032 23.975366,27 21.214314,26.9989 18.99655,24.745947 19.000004,21.94574 c 0.0035,-2.731723 2.269766,-4.948388 5.055485,-4.944811 2.719415,0.0037 4.945723,2.265994 4.944511,5.024989"/>
 <path style="fill:#1d7a28;fill-rule:evenodd" d="m 25.02654,32.526138 c 0,0.434045 0.0028,0.868139 -0.0016,1.302085 -0.0014,0.131681 0.01303,0.178612 0.173274,0.154433 0.794649,-0.11996 0.795714,-0.112722 0.795714,-0.919207 0,-0.606057 -0.0068,-1.212164 0.0041,-1.818024 0.0034,-0.18787 -0.05816,-0.248245 -0.235697,-0.2315 -0.231049,0.02177 -0.525828,-0.09485 -0.679101,0.04436 -0.15802,0.143548 -0.04581,0.448079 -0.05439,0.681746 -0.0097,0.261688 -0.0021,0.524065 -0.0021,0.786098"/>
 <path style="fill:#1c7727;fill-rule:evenodd" d="m 27.000127,32.000013 c 0,0.289867 0.0032,0.579735 -0.0015,0.869604 -0.0021,0.130867 0.06006,0.144843 0.176874,0.08582 0.03849,-0.01948 0.07083,-0.05406 0.11159,-0.06283 0.662858,-0.14191 0.763504,-0.542072 0.690998,-1.042583 -0.03267,-0.225442 -0.01132,-0.4573 -0.0035,-0.685906 0.0044,-0.126055 -0.04437,-0.18104 -0.199462,-0.174901 -0.19698,0.0079 -0.394986,0.0069 -0.592129,4.58e-4 -0.143612,-0.0047 -0.187062,0.04876 -0.184798,0.163584 C 27.0038,31.435429 27,31.717737 27,32"/>
 <path style="fill:#8b9cbe;fill-rule:evenodd;opacity:0.2" d="M 24.009766 3 C 23.975313 3.0029962 23.942647 3.0235976 23.898438 3.0566406 C 23.490914 3.3613149 23.142887 3.7325002 22.779297 4.0800781 C 21.484289 5.3181516 20.20614 6.57246 19.011719 7.9082031 C 18.158267 8.8626585 17.32721 9.833565 16.541016 10.841797 C 15.407118 12.295921 14.369431 13.813935 13.488281 15.429688 C 12.744714 16.79321 12.105604 18.202905 11.654297 19.689453 C 11.247073 21.030634 11.01227 22.397642 11 23.798828 C 10.998221 24.001135 11.012168 24.203922 11.019531 24.40625 C 11.068154 23.142505 11.285395 21.904421 11.654297 20.689453 C 12.105604 19.202905 12.744714 17.79321 13.488281 16.429688 C 14.369431 14.813935 15.407118 13.295921 16.541016 11.841797 C 17.32721 10.833565 18.158267 9.8626585 19.011719 8.9082031 C 20.20614 7.57246 21.484289 6.3181516 22.779297 5.0800781 C 23.142887 4.7325002 23.490914 4.3613149 23.898438 4.0566406 C 23.986857 3.9905546 24.032895 3.9739921 24.128906 4.0488281 C 25.534555 5.1446969 26.809373 6.3805394 28.033203 7.6621094 C 29.844615 9.5590586 31.495795 11.587635 32.927734 13.78125 C 34.163325 15.674146 35.232693 17.648554 35.990234 19.779297 C 36.404092 20.943378 36.719614 22.130246 36.876953 23.351562 C 36.921395 23.696469 36.95474 24.031664 36.976562 24.34375 C 36.979505 24.229996 36.992953 24.122869 36.994141 24.007812 C 37.019376 23.589256 36.956373 22.967931 36.876953 22.351562 C 36.719614 21.130246 36.404092 19.943378 35.990234 18.779297 C 35.232693 16.648554 34.163325 14.674146 32.927734 12.78125 C 31.495795 10.587635 29.844615 8.5590586 28.033203 6.6621094 C 26.809373 5.3805394 25.534555 4.1446969 24.128906 3.0488281 C 24.080901 3.0114101 24.044218 2.9970038 24.009766 3 z"/>
 <circle style="fill:#599462" cx="24" cy="22" r="2"/>
</svg>
