<svg xmlns="http://www.w3.org/2000/svg" width="48" height="48" version="1">
 <rect opacity=".2" width="40" height="40" x="4" y="5" rx="20" ry="20"/>
 <path style="fill:#4f4f4f" transform="matrix(0,-1,-1,0,0,0)" d="m -24,-44 c 0.76129,0 2.251087,0.124137 2.251087,0.124137 C -17,-41 -7.0526316,-32.052632 -5.0526316,-25.052632 c 0.255605,0.894618 0.9897326,2.898234 0.867939,3.794185 C -5.5133022,-11.484827 -13.850416,-4 -24,-4 c -6.912077,0 -12.983551,-3.4713827 -16.573252,-8.77298 -2.164558,-3.196817 -0.764209,-8.173648 -0.764209,-12.341571 0,-2.623218 3.214656,-5.535008 5.020953,-6.716371 C -33,-34 -38.048513,-38.90713 -34.333612,-41.144148 -31.321282,-42.958096 -27.786791,-44 -24,-44 Z"/>
 <path fill="#fff" opacity=".1" d="m24 4c-11.08 0-20 8.92-20 20 0 0.168 0.0076 0.333 0.0117 0.5 0.2647-10.846 9.0763-19.5 19.988-19.5s19.724 8.654 19.988 19.5c0.004-0.167 0.012-0.332 0.012-0.5 0-11.08-8.92-20-20-20z"/>
 <path style="opacity:0.2" d="m 23.566406,5.0097656 c -1.035161,0.021904 -2.051125,0.1228286 -3.041015,0.2949219 -0.02783,0.0238 -0.04883,0.04765 -0.04883,0.074219 0,0.079035 0.17723,0.1445313 0.392579,0.1445313 3.230054,0.4070526 6.519841,1.544113 9.099609,3.3339844 1.969382,1.3885838 3.606879,4.0483128 4.68147,6.1590698 0.595617,1.169946 0.07619,1.173437 -2.398455,0.291016 -1.908858,-0.680665 -4.069284,-1.374609 -4.2181,-1.210844 -0.06109,0.06724 -0.224477,0.467695 -0.361328,0.888672 -0.259849,0.799311 -0.927529,1.642298 -1.041495,1.528336 -0.03633,-0.03636 0.03456,-0.543395 0.158203,-1.126953 0.269369,-1.271503 0.284348,-1.940812 0.06641,-2.957031 -0.23599,-1.100413 -0.37767,-1.168304 -1.644531,-0.791016 -0.585633,0.174408 -1.847778,0.488707 -2.804688,0.699219 -2.863342,0.629909 -4.460285,1.397153 -6.236311,2.464843 -1.044754,0.628064 -1.271022,0.654338 -1.140625,0.134766 0.166555,-0.663596 -0.297064,-0.449515 -1.496094,0.689453 -1.130467,1.073832 -1.476562,1.270441 -1.476562,0.841797 0,-0.500673 -0.300274,-0.174198 -0.88086,0.957031 -0.334892,0.652516 -0.802578,1.702519 -1.039062,2.333985 -0.3480142,0.929244 -0.6588646,1.404188 -1.6328128,2.492187 -1.8901702,2.111521 -1.9624113,2.558594 -0.4179687,2.558594 1.1472267,0 1.1776903,0.293676 0.056641,0.535156 l -0.7539062,0.162109 0.013672,0.927735 c 0.018125,1.264376 0.4102906,2.038279 1.2265624,2.417969 0.3894567,0.181158 0.7376604,0.492479 0.9121094,0.816406 0.28113,0.522025 1.0426519,1.265625 1.2968759,1.265625 0.07377,0 0.0932,-0.334328 0.04492,-0.742188 -0.09777,-0.825497 0.238126,-1.758128 0.726563,-2.019531 0.224787,-0.120302 0.353514,-0.05007 0.677734,0.375 0.399754,0.524108 1.118354,1.088687 1.236329,0.970703 0.0342,-0.03422 -0.10841,-0.501394 -0.31836,-1.037109 -0.576112,-1.470064 -0.525009,-1.69307 0.267578,-2.383289 0.899349,-0.783189 1.853738,-1.192406 2.494141,-1.072266 0.984737,0.184737 2.963168,1.768586 3.177248,2.621571 0.128579,0.512259 -0.181997,1.214793 -0.746094,1.689453 -0.58413,0.491511 -1.647491,1.136718 -2.026857,1.136718 -0.15934,0 -0.613417,-0.283706 -1.007813,-0.630859 -0.394386,-0.34716 -0.754246,-0.593401 -0.798828,-0.548828 -0.04455,0.04459 -0.0056,0.34434 0.08399,0.667969 0.08981,0.323625 0.163605,0.676007 0.164062,0.78125 0.002,0.337632 -0.857099,0.205294 -1.759766,-0.269532 -0.48017,-0.252584 -0.900043,-0.458984 -0.933593,-0.458984 -0.280775,0 0.759574,3.573587 1.246093,4.220308 0.36123,0.480177 0.726667,0.739672 1.189314,0.769978 0.613887,0.04021 1.398929,-0.323102 2.572405,-1.109822 1.948471,-1.306293 3.350082,-2.490308 5.300781,-2.807792 1.069567,-0.174074 1.619896,0.04054 2.398437,0.941406 1.069597,1.237628 3.513536,7.172662 3.263672,7.823813 C 25.428792,41.566123 22.504925,41.974517 19.56696,42 16.491056,42.088162 14.193327,41.40821 11.52149,40.636719 14.938752,43.363376 19.268644,45 24,45 c 7.704766,0 14.356412,-4.318416 17.699219,-10.671875 -1.970582,-1.018014 -5.390046,-2.571707 -7.490235,-3.320313 -0.695792,-0.248017 -1.137852,-0.483238 -1.058593,-0.5625 0.284854,-0.284848 5.890171,0.682342 8.490234,1.464844 0.194013,0.05839 0.647038,0.204798 0.998047,0.324219 0.137827,-0.356631 0.276841,-0.711816 0.394531,-1.078125 -0.443946,-0.232545 -0.958472,-0.505596 -1.201172,-0.636719 -2.078894,-1.123207 -5.204199,-2.256829 -8.189453,-2.972656 -2.659877,-0.637806 -2.549177,-0.601469 -2.255859,-0.765625 0.543892,-0.304378 7.38618,0.345334 10.865234,1.03125 0.164118,0.03235 0.932988,0.172026 1.511719,0.279297 0.07912,-0.514201 0.134368,-1.037859 0.173828,-1.564453 -0.730416,-0.33923 -1.595271,-0.680597 -2.542969,-1.023438 C 38.544393,24.47284 34.463648,23.895085 30.802734,23.686 29.240999,23.5968 28.658866,23.284416 29.042862,23.123902 31.493334,22.670413 32,22 36.657026,22 c 2.542564,0.146672 4.922918,0.674039 7.255083,1.146485 C 43.109572,14.340273 36.647552,7.2232443 28.171875,5.4375 28.097187,5.4219132 27.986259,5.3978787 27.914062,5.3828125 27.749025,5.3503147 27.582509,5.3233579 27.416016,5.2949219 27.249066,5.2663227 27.088853,5.2352595 26.904297,5.2109375 26.830574,5.2003011 26.755626,5.1934295 26.681641,5.1835938 25.721838,5.0696064 24.601421,5.0164823 23.566406,5.0097656 Z"/>
 <path style="fill:#11a0ee" d="m 23.566406,4.0097656 c -1.035161,0.021904 -2.051125,0.1228286 -3.041015,0.2949219 -0.02783,0.0238 -0.04883,0.04765 -0.04883,0.074219 0,0.079035 0.17723,0.1445313 0.392579,0.1445313 3.230054,0.4070526 6.519841,1.544113 9.099609,3.3339844 1.969382,1.3885833 3.606879,4.0483128 4.68147,6.1590698 0.595617,1.169946 0.07619,1.173437 -2.398455,0.291016 -1.908858,-0.680665 -4.069284,-1.374609 -4.2181,-1.210844 -0.06109,0.06724 -0.224477,0.467695 -0.361328,0.888672 -0.259849,0.799311 -0.927529,1.642298 -1.041495,1.528336 -0.03633,-0.03636 0.03456,-0.543395 0.158203,-1.126953 0.269369,-1.271503 0.284348,-1.940812 0.06641,-2.957031 -0.23599,-1.100413 -0.37767,-1.168304 -1.644531,-0.791016 -0.585633,0.174408 -1.847778,0.488707 -2.804688,0.699219 -2.863342,0.629909 -4.460285,1.397153 -6.236311,2.464843 -1.044754,0.628064 -1.271022,0.654338 -1.140625,0.134766 0.166555,-0.663596 -0.297064,-0.449515 -1.496094,0.689453 -1.130467,1.073832 -1.476562,1.270441 -1.476562,0.841797 0,-0.500673 -0.300274,-0.174198 -0.88086,0.957031 -0.334892,0.652516 -0.802578,1.702519 -1.039062,2.333985 -0.3480142,0.929244 -0.6588646,1.404188 -1.6328128,2.492187 -1.8901702,2.111521 -1.9624113,2.558594 -0.4179687,2.558594 1.1472267,0 1.1776903,0.293676 0.056641,0.535156 l -0.7539062,0.162109 0.013672,0.927735 c 0.018125,1.264376 0.4102906,2.038279 1.2265624,2.417969 0.3894567,0.181158 0.7376604,0.492479 0.9121094,0.816406 0.28113,0.522025 1.0426519,1.265625 1.2968759,1.265625 0.07377,0 0.0932,-0.334328 0.04492,-0.742188 -0.09777,-0.825497 0.238126,-1.758128 0.726563,-2.019531 0.224787,-0.120302 0.353514,-0.05007 0.677734,0.375 0.399754,0.524108 1.118354,1.088687 1.236329,0.970703 0.0342,-0.03422 -0.10841,-0.501394 -0.31836,-1.037109 -0.576112,-1.470064 -0.525009,-1.69307 0.267578,-2.383289 0.899349,-0.783189 1.853738,-1.192406 2.494141,-1.072266 0.984737,0.184737 2.963168,1.768586 3.177248,2.621571 0.128579,0.512259 -0.181997,1.214793 -0.746094,1.689453 -0.58413,0.491511 -1.647491,1.136718 -2.026857,1.136718 -0.15934,0 -0.613417,-0.283706 -1.007813,-0.630859 -0.394386,-0.34716 -0.754246,-0.593401 -0.798828,-0.548828 -0.04455,0.04459 -0.0056,0.34434 0.08399,0.667969 0.08981,0.323625 0.163605,0.676007 0.164062,0.78125 0.002,0.337632 -0.857099,0.205294 -1.759766,-0.269532 -0.48017,-0.252584 -0.900043,-0.458984 -0.933593,-0.458984 -0.280775,0 0.759574,3.573587 1.246093,4.220308 0.36123,0.480177 0.726667,0.739672 1.189314,0.769978 0.613887,0.04021 1.398929,-0.323102 2.572405,-1.109822 1.948471,-1.306293 3.350082,-2.490308 5.300781,-2.807792 1.069567,-0.174074 1.619896,0.04054 2.398437,0.941406 1.069597,1.237628 3.513536,7.172662 3.263672,7.823813 C 25.428792,40.566123 22.504925,40.974517 19.56696,41 16.491056,41.088162 14.193327,40.40821 11.52149,39.636719 14.938752,42.363376 19.268644,44 24,44 c 7.704766,0 14.356412,-4.318416 17.699219,-10.671875 -1.970582,-1.018014 -5.390046,-2.571707 -7.490235,-3.320313 -0.695792,-0.248017 -1.137852,-0.483238 -1.058593,-0.5625 0.284854,-0.284848 5.890171,0.682342 8.490234,1.464844 0.194013,0.05839 0.647038,0.204798 0.998047,0.324219 0.137827,-0.356631 0.276841,-0.711816 0.394531,-1.078125 -0.443946,-0.232545 -0.958472,-0.505596 -1.201172,-0.636719 -2.078894,-1.123207 -5.204199,-2.256829 -8.189453,-2.972656 -2.659877,-0.637806 -2.549177,-0.601469 -2.255859,-0.765625 0.543892,-0.304378 7.38618,0.345334 10.865234,1.03125 0.164118,0.03235 0.932988,0.172026 1.511719,0.279297 0.07912,-0.514201 0.134368,-1.037859 0.173828,-1.564453 -0.730416,-0.33923 -1.595271,-0.680597 -2.542969,-1.023438 C 38.544393,23.47284 34.463648,22.895085 30.802734,22.686 29.240999,22.5968 28.658866,22.284416 29.042862,22.123902 31.493334,21.670413 32,21 36.657026,21 c 2.542564,0.146672 4.922918,0.674039 7.255083,1.146485 C 43.109572,13.340273 36.647552,6.2232443 28.171875,4.4375 28.097187,4.4219132 27.986259,4.3978787 27.914062,4.3828125 27.749025,4.3503147 27.582509,4.3233579 27.416016,4.2949219 27.249066,4.2663227 27.088853,4.2352595 26.904297,4.2109375 26.830574,4.2003011 26.755626,4.1934295 26.681641,4.1835938 25.721838,4.0696064 24.601421,4.0164823 23.566406,4.0097656 Z"/>
 <path style="opacity:0.2" d="m 13.763716,19.000699 c 0.07649,0.0036 0.136392,0.01977 0.171184,0.0519 0.345647,0.31894 -0.759382,1.580689 -1.565112,1.787207 -1.400577,0.358992 -1.72186,0.116241 -0.987977,-0.744669 0.423772,-0.497126 1.846142,-1.11889 2.381905,-1.094437 z"/>
 <path style="fill:#8b9cbe" d="m 13.763716,18.000699 c 0.07649,0.0036 0.136392,0.01977 0.171184,0.0519 0.345647,0.31894 -0.759382,1.580689 -1.565112,1.787207 -1.400577,0.358992 -1.72186,0.116241 -0.987977,-0.744669 0.423772,-0.497126 1.846142,-1.11889 2.381905,-1.094437 z"/>
 <path style="fill:#8b9cbe;opacity:0.2" d="M 23.566406 4.0097656 C 22.531245 4.0316696 21.515281 4.1325942 20.525391 4.3046875 C 20.497561 4.3284875 20.476563 4.3523372 20.476562 4.3789062 C 20.476562 4.4579413 20.653792 4.5234375 20.869141 4.5234375 C 21.739937 4.6331756 22.614119 4.8012858 23.478516 5.015625 C 23.508091 5.0148694 23.536799 5.0103921 23.566406 5.0097656 C 24.601421 5.0164823 25.721838 5.0696063 26.681641 5.1835938 C 26.755626 5.1934295 26.830574 5.2003011 26.904297 5.2109375 C 27.088853 5.2352595 27.249066 5.2663227 27.416016 5.2949219 C 27.582509 5.3233579 27.749025 5.3503147 27.914062 5.3828125 C 27.986259 5.3978787 28.097187 5.4219132 28.171875 5.4375 C 36.313848 7.152936 42.581776 13.792846 43.775391 22.119141 C 43.820385 22.128286 43.867151 22.137377 43.912109 22.146484 C 43.109572 13.340272 36.647552 6.2232443 28.171875 4.4375 C 28.097187 4.4219132 27.986259 4.3978787 27.914062 4.3828125 C 27.749025 4.3503147 27.582509 4.3233579 27.416016 4.2949219 C 27.249066 4.2663227 27.088853 4.2352595 26.904297 4.2109375 C 26.830574 4.2003011 26.755626 4.1934295 26.681641 4.1835938 C 25.721838 4.0696063 24.601421 4.0164823 23.566406 4.0097656 z M 26.226562 10.433594 C 26.003638 10.418897 25.68601 10.497189 25.210938 10.638672 C 24.625304 10.81308 23.36316 11.127379 22.40625 11.337891 C 19.542908 11.9678 17.945948 12.735044 16.169922 13.802734 C 15.125168 14.430798 14.8989 14.457072 15.029297 13.9375 C 15.195852 13.273904 14.732233 13.487985 13.533203 14.626953 C 12.402736 15.700785 12.056641 15.897394 12.056641 15.46875 C 12.056641 14.968077 11.756367 15.294552 11.175781 16.425781 C 10.840889 17.078297 10.373203 18.1283 10.136719 18.759766 C 9.7887046 19.68901 9.4778545 20.163954 8.5039062 21.251953 C 7.0370274 22.890613 6.6778343 23.521833 7.3066406 23.724609 C 7.5517213 23.357559 7.93546 22.886968 8.5039062 22.251953 C 9.4778545 21.163954 9.7887046 20.68901 10.136719 19.759766 C 10.373203 19.1283 10.840889 18.078297 11.175781 17.425781 C 11.756367 16.294552 12.056641 15.968077 12.056641 16.46875 C 12.056641 16.897394 12.402736 16.700785 13.533203 15.626953 C 14.732233 14.487985 15.195852 14.273904 15.029297 14.9375 C 14.8989 15.457072 15.125168 15.430798 16.169922 14.802734 C 17.945948 13.735044 19.542908 12.9678 22.40625 12.337891 C 23.36316 12.127379 24.625304 11.81308 25.210938 11.638672 C 26.477799 11.261384 26.619479 11.329275 26.855469 12.429688 C 26.911538 12.691133 26.949739 12.930425 26.974609 13.162109 C 27.0243 12.570521 26.990945 12.061398 26.855469 11.429688 C 26.707975 10.741929 26.598104 10.458088 26.226562 10.433594 z M 28.179688 13.074219 C 28.102643 13.069587 28.051805 13.075233 28.033203 13.095703 C 27.972113 13.162943 27.808726 13.563398 27.671875 13.984375 C 27.468771 14.609134 27.019607 15.25477 26.777344 15.455078 C 26.663758 16.005529 26.596141 16.478924 26.630859 16.513672 C 26.744825 16.627634 27.412026 15.783686 27.671875 14.984375 C 27.808726 14.563398 27.972113 14.162943 28.033203 14.095703 C 28.182019 13.931938 30.343095 14.625976 32.251953 15.306641 C 34.726598 16.189062 35.246008 16.185571 34.650391 15.015625 C 34.636712 14.988757 34.617376 14.958683 34.603516 14.931641 C 34.239632 14.969615 33.491883 14.748781 32.251953 14.306641 C 30.581702 13.711059 28.718999 13.10664 28.179688 13.074219 z M 30.869141 22.691406 C 30.327015 22.840463 29.767405 22.988981 29.042969 23.123047 C 28.658973 23.283561 29.240999 23.596347 30.802734 23.685547 C 34.463648 23.894632 38.544393 24.47284 41.394531 25.503906 C 42.300253 25.831562 43.122682 26.158038 43.832031 26.482422 C 43.869725 26.164639 43.913412 25.848798 43.9375 25.527344 C 43.207084 25.188114 42.342229 24.846747 41.394531 24.503906 C 38.561308 23.478959 34.513224 22.903603 30.869141 22.691406 z M 7.3925781 24.744141 L 7.4023438 25.435547 C 7.4027046 25.460718 7.4075454 25.479123 7.4082031 25.503906 L 8.1425781 25.345703 C 9.2636274 25.104223 9.2331642 24.810547 8.0859375 24.810547 C 7.7877592 24.810547 7.568787 24.78623 7.3925781 24.744141 z M 12.931641 26.697266 C 12.732248 27.060955 12.824478 27.485579 13.169922 28.380859 C 13.336574 28.492341 13.478828 28.564144 13.523438 28.519531 C 13.557638 28.485311 13.415028 28.018137 13.205078 27.482422 C 13.078949 27.160578 12.996445 26.917553 12.931641 26.697266 z M 31.867188 26.710938 C 31.621246 26.720962 31.454705 26.743203 31.386719 26.78125 C 31.093401 26.945406 30.982701 26.909069 33.642578 27.546875 C 36.627832 28.262702 39.753137 29.396324 41.832031 30.519531 C 42.01281 30.6172 42.385658 30.814376 42.726562 30.994141 C 42.833221 30.71699 42.941737 30.440938 43.033203 30.15625 C 42.589257 29.923705 42.074731 29.650654 41.832031 29.519531 C 40.019349 28.540156 37.410258 27.570714 34.792969 26.859375 C 33.574315 26.760479 32.447693 26.687276 31.867188 26.710938 z M 19.050781 27.441406 C 18.922869 27.763167 18.701542 28.082843 18.398438 28.337891 C 17.814307 28.829402 16.75046 29.474609 16.371094 29.474609 C 16.211754 29.474609 15.757677 29.190903 15.363281 28.84375 C 14.968895 28.49659 14.609035 28.250349 14.564453 28.294922 C 14.519903 28.339512 14.558847 28.639262 14.648438 28.962891 C 14.695798 29.133552 14.704328 29.228804 14.734375 29.375 C 14.882089 29.457477 15.093965 29.606684 15.363281 29.84375 C 15.757677 30.190903 16.211754 30.474609 16.371094 30.474609 C 16.75046 30.474609 17.814307 29.829402 18.398438 29.337891 C 18.962535 28.863231 19.27311 28.160697 19.144531 27.648438 C 19.128683 27.58529 19.08485 27.511701 19.050781 27.441406 z M 12.119141 29.015625 C 12.022041 29.015625 12.110597 29.496112 12.251953 30.082031 C 12.369561 30.129743 12.641099 30.258077 13.052734 30.474609 C 13.955401 30.949435 14.8145 31.081773 14.8125 30.744141 C 14.812043 30.638898 14.738247 30.286516 14.648438 29.962891 C 14.643278 29.944254 14.643489 29.930543 14.638672 29.912109 C 14.345628 29.982059 13.714095 29.822502 13.052734 29.474609 C 12.572564 29.222025 12.152691 29.015625 12.119141 29.015625 z M 10.896484 29.519531 C 10.880524 29.633619 10.886355 29.747326 10.884766 29.863281 C 10.902827 29.79561 10.899567 29.659998 10.896484 29.519531 z M 33.490234 30.394531 C 33.304624 30.393817 33.185997 30.409706 33.150391 30.445312 C 33.071132 30.524575 33.513192 30.759795 34.208984 31.007812 C 36.172371 31.707656 39.246205 33.09775 41.253906 34.109375 C 41.405363 33.85057 41.559206 33.594238 41.699219 33.328125 C 40.221282 32.564614 37.928394 31.499732 35.988281 30.699219 C 35.987581 30.699106 35.987028 30.699331 35.986328 30.699219 C 34.92478 30.5285 33.959565 30.396337 33.490234 30.394531 z M 27.945312 38.9375 C 25.322786 40.573769 22.4517 40.974974 19.566406 41 C 16.490502 41.088162 14.193321 40.40821 11.521484 39.636719 C 12.296592 40.255183 13.125233 40.808668 13.988281 41.308594 C 15.729917 41.749316 17.465945 42.060204 19.566406 42 C 22.504371 41.974517 25.428786 41.566123 28.089844 39.853516 C 28.137374 39.72965 28.064734 39.375064 27.945312 38.9375 z"/>
</svg>
