<svg xmlns="http://www.w3.org/2000/svg" width="48" height="48" version="1">
 <path style="opacity:0.2" d="M 20.751223,4.0013741 A 1.8262663,1.8262663 0 0 0 19.559989,4.507827 L 3.5621403,19.854776 a 1.8262663,1.8262663 0 0 0 -0.50467,1.772586 l 4.479612,17.403078 a 1.8262663,1.8262663 0 0 0 1.260782,1.300014 L 28.12154,45.928185 a 1.8262663,1.8262663 0 0 0 1.68877,-0.362007 L 44.354782,33.231196 a 1.8262663,1.8262663 0 0 0 0.640199,-1.528275 L 43.648601,13.600796 A 1.8262663,1.8262663 0 0 0 42.471633,12.027939 L 21.468103,4.1172876 a 1.8262663,1.8262663 0 0 0 -0.71688,-0.1159135 z"/>
 <path style="fill:#36c53c" d="M 20.751223,3.0014119 A 1.8262663,1.8262663 0 0 0 19.559989,3.5078648 L 3.5621403,18.854814 A 1.8262663,1.8262663 0 0 0 3.0574706,20.6274 l 4.4796116,17.403078 a 1.8262663,1.8262663 0 0 0 1.2607824,1.300014 L 28.12154,44.928223 a 1.8262663,1.8262663 0 0 0 1.68877,-0.362007 L 44.354782,32.231234 a 1.8262663,1.8262663 0 0 0 0.640199,-1.528275 L 43.648601,12.600834 A 1.8262663,1.8262663 0 0 0 42.471633,11.027977 L 21.468103,3.1173254 a 1.8262663,1.8262663 0 0 0 -0.71688,-0.1159135 z"/>
 <path style="opacity:0.3;fill:#8b9cbe" d="m 20.164062,3.125 c -0.22442,0.086612 -0.429518,0.2167065 -0.603515,0.3828125 L 3.5625,18.855469 c -0.2475771,0.238271 -0.4229122,0.541553 -0.5058594,0.875 L 13,27 Z"/>
 <path style="opacity:0.1;fill:#8b9cbe" d="M 20.740234,3.0039062 C 20.542891,3.0128433 20.348306,3.0537392 20.164062,3.125 L 13,27 36,18 Z"/>
 <path style="opacity:0.05" d="m 20.751953,3.0019531 c -0.0039,6.383e-4 -0.0078,0.00129 -0.01172,0.00195 L 36,18 43.404297,11.818359 C 43.193319,11.455175 42.863603,11.175814 42.470703,11.027344 L 21.46875,3.1171875 C 21.239937,3.0311928 20.996189,2.9920072 20.751953,3.0019531 Z"/>
 <path style="opacity:0.1" d="m 3.0566406,19.730469 c -0.074484,0.294187 -0.074484,0.602297 0,0.896484 L 7.5371094,38.03125 c 0.071442,0.274528 0.2058532,0.528639 0.3925781,0.742188 L 13,27 Z"/>
 <path style="opacity:0.16000001" d="M 13,27 7.9296875,38.773438 c 0.2301659,0.265256 0.5319321,0.458521 0.8691406,0.55664 l 19.3222659,5.597656 c 0.200432,0.05719 0.409176,0.07965 0.617187,0.06641 z"/>
 <path style="opacity:0.23000004" d="m 36,18 -23,9 15.738281,17.994141 c 0.121378,-0.0069 0.241767,-0.02585 0.359375,-0.05664 z"/>
 <path style="opacity:0.3" d="m 36,18 -6.902344,26.9375 c 0.262238,-0.06923 0.505765,-0.195994 0.712891,-0.371094 L 44.355469,32.230469 c 0.207692,-0.176637 0.373198,-0.397535 0.484375,-0.646485 z"/>
 <path style="opacity:0.22000002" d="M 43.404297,11.818359 36,18 44.839844,31.583984 c 0.123637,-0.276295 0.176659,-0.57899 0.154297,-0.880859 L 43.648438,12.601562 c -0.02093,-0.276204 -0.104418,-0.544028 -0.244141,-0.783203 z"/>
 <path style="opacity:0.2;fill:#8b9cbe" d="M 20.751953 3.0019531 A 1.8262663 1.8262663 0 0 0 19.560547 3.5078125 L 3.5625 18.855469 A 1.8262663 1.8262663 0 0 0 3.0566406 20.626953 L 3.0703125 20.681641 A 1.8262663 1.8262663 0 0 1 3.5625 19.855469 L 19.560547 4.5078125 A 1.8262663 1.8262663 0 0 1 20.751953 4.0019531 A 1.8262663 1.8262663 0 0 1 21.46875 4.1171875 L 42.470703 12.027344 A 1.8262663 1.8262663 0 0 1 43.648438 13.601562 L 44.958984 31.21875 A 1.8262663 1.8262663 0 0 0 44.994141 30.703125 L 43.648438 12.601562 A 1.8262663 1.8262663 0 0 0 42.470703 11.027344 L 21.46875 3.1171875 A 1.8262663 1.8262663 0 0 0 20.751953 3.0019531 z"/>
</svg>
