<svg xmlns="http://www.w3.org/2000/svg" width="48" height="48" version="1">
 <path style="opacity:0.2" d="M 4.0117,24.5 C 4.0076,24.667 4,24.832 4,25 c 0,11.08 8.92,20 20,20 11.08,0 20,-8.92 20,-20 0,-0.16787 -0.0076,-0.33314 -0.01172,-0.5 -0.264,10.846 -9.076,19.5 -19.988,19.5 -10.912,0 -19.724,-8.654 -19.988,-19.5 z"/>
 <rect style="fill:#4f4f4f" width="40" height="40" x="4" y="4" rx="20" ry="20"/>
 <path style="opacity:0.2" d="M 26.306641,5.1367188 C 20.679301,8.7049889 17.007137,14.96572 17,22 c 0.607933,10.707041 8.23181,14.22723 10.994141,21.603516 1.207089,-0.242777 2.36775,-0.604365 3.484375,-1.052735 C 28.291881,34.941651 21.141359,29.371353 21,21 21.005345,14.865739 23.818387,9.2215796 28.404297,5.4980469 27.716621,5.3444496 27.019514,5.2179191 26.306641,5.1367188 Z m -1.144532,0.085937 C 15.321025,6.6333212 8.010087,15.058329 8,25 c 0.4914111,8.654841 5.563544,12.614281 8.953125,17.707031 1.51259,0.567176 3.103793,0.972952 4.767578,1.160157 C 18.276898,37.085641 12.130795,31.745807 12,24 12.007321,15.597439 17.265896,8.0954446 25.162109,5.2226558 Z m 5.533203,0.9414063 C 27.761749,9.6559373 26.004928,14.143192 26,19 c 0.578928,10.196205 7.52391,13.870079 10.572266,20.566406 0.96639,-0.780392 1.853266,-1.650473 2.658203,-2.595703 C 35.726475,30.609089 30.124933,25.39863 30,18 30.00341,14.085795 31.159461,10.374954 33.177734,7.2285156 32.380938,6.8177646 31.550693,6.4665175 30.695312,6.1640621 Z m 5.830079,3.234375 C 35.553044,11.752375 35.002722,14.317112 35,17 c 0.411592,7.249058 4.040235,11.196414 7.203125,15.279297 0.639165,-1.409063 1.131707,-2.897734 1.431641,-4.460938 C 41.203894,24.187649 39.076018,20.501827 39,16 c 0.0011,-1.294879 0.141832,-2.564275 0.382812,-3.802734 -0.855203,-1.027663 -1.814429,-1.96161 -2.857421,-2.7988289 z"/>
 <path style="fill:#2cc0cb" d="M 26.306641,4.1367188 C 20.679301,7.704989 17.007137,13.96572 17,21 c 0.632977,11.148125 8.887412,14.491884 11.324219,22.523438 1.215369,-0.26614 2.391334,-0.632371 3.511719,-1.107422 C 28.857375,34.351213 21.146706,28.688004 21,20 21.005345,13.865739 23.818387,8.2215796 28.404297,4.4980469 27.716621,4.3444496 27.019514,4.2179191 26.306641,4.1367188 Z m -1.144532,0.085937 C 15.321025,5.6333208 8.010087,14.058329 8,24 c 0.5322703,9.374462 6.442928,13.237526 9.763672,19.001953 1.426519,0.465172 2.920995,0.78155 4.470703,0.916016 C 18.930057,36.622623 12.137497,31.142685 12,23 12.007321,14.597439 17.265896,7.0954442 25.162109,4.2226558 Z m 5.533203,0.9414063 C 27.761748,8.6559369 26.004928,13.143192 26,18 c 0.599824,10.564237 8.046274,14.11725 10.898438,21.294922 0.972806,-0.820321 1.866003,-1.728499 2.666015,-2.71875 C 36.094963,29.933501 30.128899,24.633471 30,17 30.00341,13.085795 31.159461,9.3749538 33.177734,6.2285156 32.380938,5.8177646 31.550692,5.4665171 30.695312,5.1640621 Z m 5.830079,3.234375 C 35.553044,10.752375 35.002722,13.317112 35,16 c 0.42384,7.464767 4.263437,11.43081 7.488281,15.646484 0.601798,-1.46057 1.042171,-3.004308 1.285157,-4.617187 C 41.284246,23.330363 39.077486,19.588781 39,15 39.0011,13.705121 39.141831,12.435725 39.382812,11.197266 38.527609,10.169603 37.568383,9.2356562 36.525391,8.3984371 Z"/>
 <path style="opacity:0.1;fill:#8b9cbe" d="M 24,4 C 12.92,4 4,12.92 4,24 4,24.168 4.008,24.333 4.0117,24.5 4.2764,13.654 13.088,5 23.9997,5 c 10.9117,0 19.724,8.6539 19.988,19.5 0.004,-0.16686 0.0117,-0.33213 0.0117,-0.5 0,-11.08 -8.92,-20 -20,-20 z"/>
 <path style="opacity:0.2;fill:#8b9cbe" d="M 26.306641,4.1367188 C 25.73106,4.501692 25.18128,4.9010566 24.648438,5.3203125 24.82094,5.2909936 24.987997,5.2476143 25.162109,5.2226562 24.883451,5.3240374 24.615724,5.443893 24.34375,5.5566406 19.840986,9.241273 17.006269,14.821407 17,21 c 0.0048,0.08431 0.01974,0.158764 0.02539,0.242188 C 17.285817,14.518905 20.88298,8.575836 26.30664,5.1367188 26.698643,5.1813701 27.085229,5.2434715 27.46875,5.3125 27.77271,5.0328186 28.082523,4.7593111 28.404297,4.4980469 27.716621,4.3444496 27.019514,4.217919 26.306641,4.1367188 Z m -1.144532,0.085937 C 15.321025,5.6333208 8.010087,14.058329 8,24 8.00648,24.114078 8.023194,24.217619 8.03125,24.330078 8.3130402,16.122707 13.557343,9.0634769 21.042969,6.2871094 22.313578,5.455166 23.691691,4.7576215 25.162109,4.2226558 Z m 5.533203,0.9414063 C 27.761748,8.6559369 26.004928,13.143192 26,18 c 0.0062,0.108577 0.02365,0.205393 0.03125,0.3125 0.162513,-4.590373 1.870343,-8.8230222 4.664062,-12.1484375 0.69219,0.2447523 1.362713,0.531373 2.017579,0.8457031 0.152087,-0.2622216 0.301275,-0.5262503 0.464843,-0.78125 -0.796796,-0.410751 -1.627041,-0.7619985 -2.482422,-1.0644535 z m 5.830079,3.234375 C 35.553044,10.752375 35.002722,13.317112 35,16 c 0.0046,0.0818 0.01602,0.157319 0.02148,0.238281 0.09578,-2.406313 0.624144,-4.710041 1.503907,-6.8398435 0.992554,0.7967315 1.907093,1.6830095 2.730468,2.6523435 0.04389,-0.284088 0.07228,-0.572548 0.126953,-0.853515 -0.855203,-1.027663 -1.814429,-1.9616098 -2.857421,-2.7988285 z m 2.49414,6.8769539 C 39.00978,15.516183 39.000206,15.757383 39,16 c 0.07598,4.499401 2.201627,8.183685 4.630859,11.8125 0.05013,-0.25998 0.102845,-0.519464 0.142579,-0.783203 -2.438309,-3.623322 -4.593489,-7.292526 -4.753907,-11.753906 z m -8.996093,2.09375 C 30.016547,17.579734 30.000185,17.788158 30,18 c 0.124858,7.394184 5.720196,12.60258 9.224609,18.958984 0.11074,-0.129981 0.232432,-0.249858 0.339844,-0.382812 C 36.151962,30.04263 30.336648,24.80277 30.023438,17.369141 Z m -9.001954,2.921875 C 21.01292,20.526965 21.000207,20.762498 21,21 c 0.141338,8.370131 7.291186,13.939453 10.478516,21.546875 0.11748,-0.04698 0.241121,-0.08155 0.357422,-0.130859 -2.944606,-7.972859 -10.500498,-13.603532 -10.814454,-22.125 z m -8.996093,3.080078 C 12.018618,23.581014 12.000184,23.788883 12,24 c 0.130735,7.742248 6.272088,13.080319 9.716797,19.857422 0.172604,0.01964 0.343564,0.04545 0.517578,0.06055 -3.253091,-7.182245 -9.872869,-12.61065 -10.208984,-20.546875 z"/>
</svg>
