<svg xmlns="http://www.w3.org/2000/svg" width="48" height="48" x="0" y="0" version="1.1">
 <path style="opacity:0.2" d="M 36.960938,5.0013296 C 31.326861,5.0665307 22.635006,6.6329155 19.917969,9.8704703 l -0.0059,0 C 17.74408,13.022424 17.468242,25.357046 18.03125,24.597033 22.645312,18.334927 33.703504,10.60157 40.308594,7.4935171 43.874642,5.8078886 41.342996,4.9505287 36.960938,5.0013296 Z M 15.916016,12.048205 c -1.423419,0.241824 -7.136031,4.180093 -5.820313,11.257813 l 0.002,0.0039 c 1.248917,3.615961 9.249561,8.422593 8.972656,7.517578 -2.272131,-7.463626 -3.093246,-12.292143 -2.839843,-18.65625 0.0047,-0.117952 -0.11111,-0.157588 -0.314453,-0.123047 z m 15.605468,3.167969 c -3.813152,0.274545 -10.520038,6.76767 -9.578125,6.730469 7.799505,-0.269025 12.670778,0.176877 18.75586,2.068359 0.902762,0.280065 -0.972614,-8.162817 -9.177735,-8.798828 z m -4.125,6.759765 c -0.201153,0.01048 -0.284468,0.06323 -0.216796,0.160157 4.45706,6.402708 6.721976,10.73885 8.4375,16.876953 0.254764,0.910536 6.327503,-5.248752 2.40625,-12.484375 -2.011027,-2.675045 -9.217935,-4.626736 -10.626954,-4.552735 z m -20.6542965,1.21875 c -0.7334899,-0.09648 -2.4525021,7.91436 4.4003905,11.986329 3.543248,1.444424 12.428418,-1.401715 11.566406,-1.794922 -7.112696,-3.206154 -11.281328,-5.770676 -15.9003902,-10.15625 -0.021288,-0.02039 -0.042746,-0.03204 -0.066406,-0.03516 z m 22.9746095,3.910157 0,0.002 c -0.04407,-0.01149 -0.07531,0.0094 -0.08984,0.06641 -1.974426,7.550528 -3.796955,12.09463 -7.345703,17.386719 -0.530307,0.780853 8.096688,1.400674 11.048828,-6.285156 l 0.002,0.0039 C 34.108042,34.776615 30.377805,27.277849 29.716797,27.104846 Z m -2.166016,4.826172 c -0.01803,-0.0045 -0.03993,-9.15e-4 -0.06641,0.01172 -7.042095,3.367657 -11.687258,4.910157 -18.0273438,5.605469 -0.9359926,0.107611 4.1520828,7.098384 11.9296878,4.398438 l 0.0078,-0.002 c 3.279544,-1.722729 6.715158,-9.873069 6.15625,-10.013671 z"/>
 <path style="fill:#37a0f2" d="M 36.960903,4.0011056 C 31.326827,4.0663067 22.63471,5.6327331 19.917673,8.8702879 l -0.0059,0 C 17.743744,12.022241 17.46774,24.35755 18.030748,23.597537 22.64481,17.335431 33.703959,9.6013002 40.309049,6.4932477 43.875097,4.8076192 41.343062,3.9504047 36.961003,4.0012056 Z M 31.52083,14.216278 c -3.813152,0.274545 -10.520142,6.767815 -9.578229,6.730614 7.799505,-0.269025 12.671171,0.176953 18.756253,2.068435 0.902762,0.280065 -0.972703,-8.162938 -9.177824,-8.798949 z m -4.125056,6.759914 c -0.201153,0.01048 -0.284474,0.06324 -0.216803,0.160163 4.45706,6.402708 6.722091,10.739182 8.437614,16.877285 0.254764,0.910536 6.327486,-5.248588 2.406233,-12.484211 -2.011027,-2.675045 -9.218125,-4.627078 -10.627144,-4.553077 z m 2.320332,5.130987 c -0.04407,-0.01149 -0.07531,0.0094 -0.08984,0.06641 -1.974426,7.550528 -3.797051,12.095205 -7.345799,17.387294 -0.530307,0.780853 8.097009,1.400524 11.049149,-6.285306 l 0.002,0.0039 c 0.776011,-3.502059 -2.95404,-11.000186 -3.615048,-11.173189 z m -2.16603,4.824282 c -0.01803,-0.0045 -0.03993,-9.13e-4 -0.06641,0.01172 -7.042095,3.367657 -11.687157,4.910283 -18.027243,5.605595 -0.9359926,0.107611 4.152556,7.09842 11.930161,4.398474 l 0.0078,-0.002 c 3.279544,-1.722729 6.715191,-9.873567 6.156283,-10.014169 z"/>
 <path style="fill:#4f4f4f" d="m 15.915619,11.048225 c -1.423419,0.241824 -7.1360961,4.18047 -5.820378,11.25819 l 0.002,0.0039 c 1.248917,3.615961 9.249725,8.422742 8.972821,7.517727 -2.272131,-7.463626 -3.093242,-12.292208 -2.839839,-18.656315 0.0047,-0.117952 -0.111111,-0.157593 -0.314454,-0.123052 z M 6.7416954,22.194413 C 6.0082055,22.097931 4.2892623,30.110647 11.142155,34.182616 14.685403,35.62704 23.570323,32.780892 22.708311,32.387685 15.595615,29.181531 11.427159,26.615088 6.8080963,22.229514 c -0.021288,-0.02039 -0.042747,-0.03204 -0.066407,-0.03516 z"/>
 <path style="fill:#8b9cbe;opacity:0.1" d="M 36.960938 4.0019531 C 31.326861 4.0671542 22.635006 5.6335389 19.917969 8.8710938 L 19.912109 8.8710938 C 18.251423 11.285456 17.706621 19.042897 17.792969 22.220703 C 17.823193 18.64286 18.402298 12.066149 19.912109 9.8710938 L 19.917969 9.8710938 C 22.635006 6.633539 31.326861 5.0671542 36.960938 5.0019531 C 39.234202 4.9755993 40.999251 5.1951862 41.683594 5.6464844 C 42.873474 4.523646 40.533978 3.9605311 36.960938 4.0019531 z M 15.916016 11.048828 C 14.606734 11.271261 9.6814856 14.628086 9.921875 20.671875 C 10.219766 15.256944 14.680572 12.258717 15.916016 12.048828 C 16.068523 12.022922 16.17277 12.038367 16.212891 12.097656 C 16.220135 11.787629 16.217841 11.489013 16.230469 11.171875 C 16.235169 11.053923 16.119359 11.014287 15.916016 11.048828 z M 16.199219 13.898438 C 16.155635 19.182839 16.944059 23.646617 18.800781 29.908203 C 19.002596 29.963764 19.105544 29.943274 19.070312 29.828125 C 17.133727 23.466717 16.260735 19.01366 16.199219 13.898438 z M 31.521484 14.216797 C 27.708332 14.491342 21.001446 20.984467 21.943359 20.947266 C 22.145023 20.94031 22.323664 20.939581 22.521484 20.933594 C 24.198996 19.105459 28.668741 15.422193 31.521484 15.216797 C 37.807953 15.704086 40.37165 20.761984 40.824219 22.980469 C 41.370458 22.367608 39.264834 14.817014 31.521484 14.216797 z M 27.703125 21.90625 C 27.726533 21.940384 27.748203 21.973792 27.771484 22.007812 C 29.713926 22.162879 36.133381 24.015165 38.023438 26.529297 C 38.882391 28.114266 39.242533 29.639913 39.308594 31.058594 C 39.401147 29.372393 39.088351 27.49431 38.023438 25.529297 C 37.026764 24.203533 34.75381 23.057976 32.542969 22.246094 C 31.0061 22.062095 29.414156 21.951249 27.703125 21.90625 z M 6.7421875 22.195312 C 6.4204963 22.152998 5.9101829 23.670125 6.015625 25.730469 C 6.0837569 24.202127 6.4756154 23.160249 6.7421875 23.195312 C 6.7658475 23.198433 6.7873057 23.210079 6.8085938 23.230469 C 11.234171 27.432339 15.275223 29.967696 21.859375 32.992188 C 22.542336 32.715071 22.912267 32.479446 22.708984 32.386719 C 21.371426 31.783794 20.165579 31.20478 19.013672 30.630859 C 19.034275 30.698898 19.049466 30.759646 19.070312 30.828125 C 19.234373 31.364328 16.496142 29.878046 13.974609 27.839844 C 11.405162 26.224751 9.162683 24.465561 6.8085938 22.230469 C 6.7873057 22.210079 6.7658475 22.198433 6.7421875 22.195312 z M 29.716797 26.105469 L 29.716797 26.107422 C 29.672727 26.095932 29.641483 26.116818 29.626953 26.173828 C 27.652527 33.724356 25.829998 38.268458 22.28125 43.560547 C 22.194632 43.688087 22.371632 43.807167 22.708984 43.890625 C 25.968053 38.879398 27.736926 34.401601 29.626953 27.173828 C 29.641483 27.116818 29.672727 27.095932 29.716797 27.107422 L 29.716797 27.105469 C 30.288842 27.255188 33.154637 32.887588 33.414062 36.671875 C 33.61432 34.152798 32.12107 30.271237 30.945312 27.978516 C 30.622782 27.425106 30.289745 26.864488 29.931641 26.291016 C 29.845314 26.192205 29.768809 26.119082 29.716797 26.105469 z M 27.550781 30.931641 C 27.532751 30.927141 27.510855 30.930726 27.484375 30.943359 C 25.637453 31.826591 23.960135 32.578728 22.369141 33.228516 C 22.48673 33.28191 22.589757 33.332975 22.708984 33.386719 C 23.303609 33.657957 19.259968 35.094163 15.53125 35.486328 C 13.594403 35.961968 11.626905 36.31086 9.4570312 36.548828 C 9.24322 36.57341 9.3572914 36.96635 9.7324219 37.511719 C 15.897445 36.805256 20.504447 35.272917 27.382812 31.990234 C 27.57688 31.393342 27.667544 30.961014 27.550781 30.931641 z"/>
</svg>
