<svg xmlns="http://www.w3.org/2000/svg" width="48" height="48" version="1">
 <rect style="opacity:0.2" width="40" height="40" x="4" y="5" rx="2" ry="2"/>
 <rect style="fill:#3496de" width="40" height="40" x="4" y="4" rx="2" ry="2"/>
 <path style="fill:#8b9cbe;opacity:0.2" d="M 6 4 C 4.892 4 4 4.892 4 6 L 4 7 C 4 5.892 4.892 5 6 5 L 42 5 C 43.108 5 44 5.892 44 7 L 44 6 C 44 4.892 43.108 4 42 4 L 6 4 z"/>
 <path style="opacity:0.2" d="M 25.949219,8.9999247 C 24.07674,8.95984 22.132525,9.6454789 20.720703,10.562425 c -0.688791,0.455179 -0.617594,0.590728 0.105469,0.201172 1.203349,-0.648324 2.382311,-0.9046349 4.154297,-0.9062504 2.266911,-0.00192 3.52899,0.3497714 4.835937,1.3515624 l 0.554688,0.425782 0.705078,0.0059 c 0.387402,0.0038 0.861877,0.0324 1.054687,0.0625 0.509469,0.07933 0.58287,0.0795 0.626953,0.0078 0.0932,-0.166318 -1.514357,-1.345412 -2.449218,-1.7949227 -1.420733,-0.722339 -2.931183,-0.8810335 -4.359375,-0.9160156 z m -9.619141,0.1445312 c -0.09263,-0.057217 -0.866863,0.4553541 -1.488281,0.9863281 -0.863609,0.737918 -1.752411,1.985205 -2.212891,3.101563 -0.707875,1.716089 -0.825433,3.831056 -0.3125,5.623047 0.318991,1.114435 1.332673,2.950963 1.623047,2.939453 0.06531,-0.0029 0.285836,-0.205839 0.488281,-0.451172 h -0.002 c 0.202455,-0.245322 0.369141,-0.476111 0.369141,-0.513672 0,-0.0376 -0.141914,-0.298367 -0.314453,-0.578125 -0.400311,-0.649102 -0.696665,-1.365504 -0.890625,-2.146484 -0.211835,-0.852947 -0.214284,-2.25227 -0.0039,-3.105469 0.417685,-1.696385 1.374075,-3.114136 2.800781,-4.150391 0.319751,-0.232253 0.582031,-0.430009 0.582031,-0.439453 0,-0.07722 -0.582246,-1.2307659 -0.638672,-1.2656251 z m 1.791016,2.0410161 c -0.166307,0 -0.896437,0.585444 -1.417969,1.136719 -0.840224,0.888134 -1.374638,1.941632 -1.607422,3.173828 -0.235246,1.245265 -0.02973,2.848506 0.501953,3.912109 0.272183,0.544514 0.543373,0.958849 0.626953,0.958985 0.04088,7.7e-5 0.215304,-0.164802 0.386719,-0.367188 0.561163,-0.662564 0.537537,-0.55196 0.253906,-1.158203 -0.373945,-0.799288 -0.495776,-1.335909 -0.496093,-2.189453 -5.58e-4,-1.563892 0.749755,-3.087314 1.949218,-3.958985 0.212189,-0.154198 0.387046,-0.335866 0.388672,-0.404297 0.0048,-0.194259 -0.47801,-1.103515 -0.585937,-1.103515 z M 21,12.999925 a 4,4 0 0 0 -4,4 4,4 0 0 0 4,4 4,4 0 0 0 4,-4 4,4 0 0 0 -4,-4 z m 10,0 a 4,4 0 0 0 -4,4 4,4 0 0 0 4,4 4,4 0 0 0 4,-4 4,4 0 0 0 -4,-4 z m -10,2 a 2,2 0 0 1 2,2 2,2 0 0 1 -2,2 2,2 0 0 1 -2,-2 2,2 0 0 1 2,-2 z m 10,0 a 2,2 0 0 1 2,2 2,2 0 0 1 -2,2 2,2 0 0 1 -2,-2 2,2 0 0 1 2,-2 z m -10.189453,0.507812 c -0.198614,0.01198 -0.374681,0.0368 -0.40625,0.06836 -0.02221,0.02215 -0.0066,0.163488 0.03516,0.3125 0.143569,0.511419 -0.1487,0.830543 -0.626953,0.685547 -0.128252,-0.03887 -0.242584,-0.04443 -0.275391,-0.01172 -0.03089,0.03081 -0.04622,0.267686 -0.0332,0.525391 0.01927,0.381078 0.05787,0.517455 0.199219,0.730468 0.193466,0.291549 0.568803,0.566703 0.882813,0.646485 0.308239,0.07834 0.822386,0.0211 1.099609,-0.121094 0.752955,-0.386133 1.037317,-1.326175 0.626953,-2.078125 -0.19922,-0.365065 -0.604281,-0.679002 -0.962891,-0.746094 -0.119513,-0.02238 -0.340448,-0.0237 -0.539062,-0.01172 z m 10,0 c -0.198614,0.01198 -0.374681,0.0368 -0.40625,0.06836 -0.02221,0.02215 -0.0066,0.163488 0.03516,0.3125 0.143569,0.511419 -0.1487,0.830543 -0.626953,0.685547 -0.128252,-0.03887 -0.242584,-0.04443 -0.275391,-0.01172 -0.03089,0.03081 -0.04622,0.267686 -0.0332,0.525391 0.01927,0.381078 0.05787,0.517455 0.199219,0.730468 0.193466,0.291549 0.568803,0.566703 0.882813,0.646485 0.308239,0.07834 0.822386,0.0211 1.099609,-0.121094 0.752955,-0.386133 1.037317,-1.326175 0.626953,-2.078125 -0.19922,-0.365065 -0.604281,-0.679002 -0.962891,-0.746094 -0.119513,-0.02238 -0.340448,-0.0237 -0.539062,-0.01172 z M 26,17.999925 c -0.446092,-1.33e-4 -0.707479,0.196413 -0.914062,0.689453 -0.176063,0.420202 -0.07028,1.425594 0.226562,2.134766 0.16903,0.403773 0.631129,1.175781 0.703125,1.175781 0.02466,0 0.133033,-0.122633 0.240234,-0.273438 0.428004,-0.602092 0.731287,-1.630609 0.742188,-2.509765 0.0059,-0.459122 -0.0051,-0.510897 -0.158203,-0.742188 C 26.615885,18.135767 26.377383,18.000048 26,17.999925 Z m 9.90625,0.9375 c -0.05318,0.01251 -0.55342,0.46419 -1.111328,1.003906 l -1.013672,0.982422 -0.04687,1.056641 c -0.20711,4.814716 -1.838003,8.722581 -4.914063,11.769531 -2.324636,2.302645 -6.258561,4.200442 -9.849609,5.074219 -1.097278,0.266997 -3.8433,0.664475 -3.9375,0.570312 -0.04425,-0.04424 0.02077,-0.20023 0.183594,-0.445312 0.605873,-0.912232 1.079396,-2.106052 1.304687,-3.285157 0.221558,-1.159534 0.247355,-1.958236 0.113282,-3.630859 -0.147866,-1.844755 -0.111702,-3.234842 0.09375,-4.191406 0.293327,-1.365777 0.881933,-2.443032 1.646484,-3.017578 0.93405,-0.701934 1.803541,-1.013672 2.835938,-1.013672 2.343258,0 4.424232,1.639102 4.898437,3.857422 0.145212,0.679307 0.08965,2.326602 -0.111328,3.324219 -0.46679,2.317301 -1.672811,3.987277 -3.417969,5.466796 -0.334121,0.283258 -0.718175,0.61832 -0.855469,0.744141 l -0.25,0.228516 0.208985,-0.07617 c 0.11569,-0.04174 0.526495,-0.264003 0.912109,-0.494141 2.903624,-1.732879 4.530734,-3.48941 5.150391,-6.425781 0.189508,-0.898 0.26833,-2.677266 0.148437,-3.367188 -0.19601,-1.127889 -0.872811,-2.310649 -1.849609,-3.230468 -2.017582,-1.899905 -4.841841,-2.341027 -7.382813,-1.152344 -1.304926,0.610454 -2.434611,1.634457 -2.988281,2.708984 -0.911465,1.768921 -1.06518,3.611716 -0.482422,6.638672 0.196222,1.019214 0.28711,1.8186 0.28711,2.523438 0,2.250861 -0.788251,4.377529 -2.201172,5.933593 -0.215527,0.23736 -0.392578,0.449809 -0.392578,0.472657 0,0.07039 0.170444,0.04862 1.009765,-0.132813 0.445328,-0.09626 1.480114,-0.271719 2.300781,-0.388672 3.145998,-0.448361 5.394891,-1.126922 8.013672,-2.419922 3.237024,-1.598242 6.198419,-3.737553 8.128907,-6.453125 1.973636,-2.776259 3.213623,-6.33211 3.515625,-10.083984 0.143242,-1.779509 0.159526,-2.57204 0.05273,-2.546875 z"/>
 <path style="fill:#8b9cbe" d="M 25.949219 8 C 24.07674 7.9599153 22.132525 8.6455542 20.720703 9.5625 C 20.031912 10.017679 20.103109 10.153228 20.826172 9.7636719 C 22.029521 9.1153488 23.208483 8.8590374 24.980469 8.8574219 C 27.24738 8.8555019 28.509459 9.2071933 29.816406 10.208984 L 30.371094 10.634766 L 31.076172 10.640625 C 31.463574 10.644425 31.938049 10.673025 32.130859 10.703125 C 32.640328 10.782455 32.713729 10.782627 32.757812 10.710938 C 32.851007 10.54462 31.243455 9.3655261 30.308594 8.9160156 C 28.887861 8.1936766 27.377411 8.0349821 25.949219 8 z M 16.330078 8.1445312 C 16.237448 8.0873143 15.463215 8.5998853 14.841797 9.1308594 C 13.978188 9.8687778 13.089386 11.116064 12.628906 12.232422 C 11.921031 13.948511 11.803473 16.063478 12.316406 17.855469 C 12.635397 18.969904 13.649079 20.806432 13.939453 20.794922 C 14.004763 20.792022 14.225289 20.589083 14.427734 20.34375 L 14.425781 20.34375 C 14.628236 20.098428 14.794922 19.867639 14.794922 19.830078 C 14.794922 19.792478 14.653008 19.531711 14.480469 19.251953 C 14.080158 18.602851 13.783804 17.886449 13.589844 17.105469 C 13.378009 16.252522 13.37556 14.853199 13.585938 14 C 14.003623 12.303615 14.960013 10.885864 16.386719 9.8496094 C 16.70647 9.6173568 16.96875 9.4195999 16.96875 9.4101562 C 16.96875 9.3329412 16.386504 8.1793904 16.330078 8.1445312 z M 18.121094 10.185547 C 17.954787 10.185547 17.224657 10.770991 16.703125 11.322266 C 15.862901 12.2104 15.328487 13.263898 15.095703 14.496094 C 14.860457 15.741359 15.065976 17.3446 15.597656 18.408203 C 15.869839 18.952717 16.141029 19.367052 16.224609 19.367188 C 16.265489 19.367265 16.439913 19.202386 16.611328 19 C 17.172491 18.337436 17.148865 18.44804 16.865234 17.841797 C 16.491289 17.042509 16.369458 16.505888 16.369141 15.652344 C 16.368583 14.088452 17.118896 12.56503 18.318359 11.693359 C 18.530548 11.539161 18.705405 11.357493 18.707031 11.289062 C 18.711831 11.094803 18.229021 10.185547 18.121094 10.185547 z M 21 12 A 4 4 0 0 0 17 16 A 4 4 0 0 0 21 20 A 4 4 0 0 0 25 16 A 4 4 0 0 0 21 12 z M 31 12 A 4 4 0 0 0 27 16 A 4 4 0 0 0 31 20 A 4 4 0 0 0 35 16 A 4 4 0 0 0 31 12 z M 21 14 A 2 2 0 0 1 23 16 A 2 2 0 0 1 21 18 A 2 2 0 0 1 19 16 A 2 2 0 0 1 21 14 z M 31 14 A 2 2 0 0 1 33 16 A 2 2 0 0 1 31 18 A 2 2 0 0 1 29 16 A 2 2 0 0 1 31 14 z M 20.810547 14.507812 C 20.611933 14.519797 20.435866 14.544612 20.404297 14.576172 C 20.382087 14.598322 20.397683 14.73966 20.439453 14.888672 C 20.583022 15.400091 20.290753 15.719215 19.8125 15.574219 C 19.684248 15.535349 19.569916 15.52979 19.537109 15.5625 C 19.506219 15.59331 19.490886 15.830186 19.503906 16.087891 C 19.523176 16.468969 19.561774 16.605346 19.703125 16.818359 C 19.896591 17.109908 20.271928 17.385062 20.585938 17.464844 C 20.894177 17.543184 21.408324 17.485945 21.685547 17.34375 C 22.438502 16.957617 22.722864 16.017575 22.3125 15.265625 C 22.11328 14.90056 21.708219 14.586623 21.349609 14.519531 C 21.230096 14.497151 21.009161 14.495828 20.810547 14.507812 z M 30.810547 14.507812 C 30.611933 14.519797 30.435866 14.544612 30.404297 14.576172 C 30.382087 14.598322 30.397683 14.73966 30.439453 14.888672 C 30.583022 15.400091 30.290753 15.719215 29.8125 15.574219 C 29.684248 15.535349 29.569916 15.52979 29.537109 15.5625 C 29.506219 15.59331 29.490886 15.830186 29.503906 16.087891 C 29.523176 16.468969 29.561774 16.605346 29.703125 16.818359 C 29.896591 17.109908 30.271928 17.385062 30.585938 17.464844 C 30.894177 17.543184 31.408324 17.485945 31.685547 17.34375 C 32.438502 16.957617 32.722864 16.017575 32.3125 15.265625 C 32.11328 14.90056 31.708219 14.586623 31.349609 14.519531 C 31.230096 14.497151 31.009161 14.495828 30.810547 14.507812 z M 26 17 C 25.553908 16.999867 25.292521 17.196413 25.085938 17.689453 C 24.909875 18.109655 25.015654 19.115047 25.3125 19.824219 C 25.48153 20.227992 25.943629 21 26.015625 21 C 26.040285 21 26.148658 20.877367 26.255859 20.726562 C 26.683863 20.12447 26.987146 19.095953 26.998047 18.216797 C 27.003947 17.757675 26.99294 17.7059 26.839844 17.474609 C 26.615885 17.135842 26.377383 17.000123 26 17 z M 35.90625 17.9375 C 35.85307 17.95001 35.35283 18.40169 34.794922 18.941406 L 33.78125 19.923828 L 33.734375 20.980469 C 33.527265 25.795185 31.896372 29.70305 28.820312 32.75 C 26.495676 35.052645 22.561751 36.950442 18.970703 37.824219 C 17.873425 38.091216 15.127403 38.488694 15.033203 38.394531 C 14.988953 38.350291 15.053976 38.194301 15.216797 37.949219 C 15.82267 37.036987 16.296193 35.843167 16.521484 34.664062 C 16.743042 33.504528 16.768839 32.705826 16.634766 31.033203 C 16.4869 29.188448 16.523064 27.798361 16.728516 26.841797 C 17.021843 25.47602 17.610449 24.398765 18.375 23.824219 C 19.30905 23.122285 20.178541 22.810547 21.210938 22.810547 C 23.554196 22.810547 25.63517 24.449649 26.109375 26.667969 C 26.254587 27.347276 26.199023 28.994571 25.998047 29.992188 C 25.531257 32.309489 24.325236 33.979465 22.580078 35.458984 C 22.245957 35.742242 21.861903 36.077304 21.724609 36.203125 L 21.474609 36.431641 L 21.683594 36.355469 C 21.799284 36.313729 22.210089 36.091466 22.595703 35.861328 C 25.499327 34.128449 27.126437 32.371918 27.746094 29.435547 C 27.935602 28.537547 28.014424 26.758281 27.894531 26.068359 C 27.698521 24.94047 27.02172 23.75771 26.044922 22.837891 C 24.02734 20.937986 21.203081 20.496864 18.662109 21.685547 C 17.357183 22.296001 16.227498 23.320004 15.673828 24.394531 C 14.762363 26.163452 14.608648 28.006247 15.191406 31.033203 C 15.387628 32.052417 15.478516 32.851803 15.478516 33.556641 C 15.478516 35.807502 14.690265 37.93417 13.277344 39.490234 C 13.061817 39.727594 12.884766 39.940043 12.884766 39.962891 C 12.884766 40.033281 13.05521 40.011514 13.894531 39.830078 C 14.339859 39.733818 15.374645 39.558359 16.195312 39.441406 C 19.34131 38.993045 21.590203 38.314484 24.208984 37.021484 C 27.446008 35.423242 30.407403 33.283931 32.337891 30.568359 C 34.311527 27.7921 35.551514 24.236249 35.853516 20.484375 C 35.996758 18.704866 36.013042 17.912335 35.90625 17.9375 z"/>
</svg>
