<svg xmlns="http://www.w3.org/2000/svg" width="48" height="48" version="1.1">
 <circle style="opacity:0.2" cx="24" cy="25" r="20"/>
 <circle style="fill:#97302c" cx="24" cy="24" r="20"/>
 <path style="opacity:0.1;fill:#8b9cbe" d="M 24,4 A 20,20 0 0 0 4,24 20,20 0 0 0 4.0215,24.582 20,20 0 0 1 23.9995,5 20,20 0 0 1 43.9785,24.418 20,20 0 0 0 43.9995,24 a 20,20 0 0 0 -20,-20 z"/>
 <path style="opacity:0.2" d="m 23.550465,11.999998 c -3.172033,-8.22e-4 -5.572114,1.377242 -6.716549,3.853344 -0.382377,0.827313 -0.455685,1.122837 -0.507793,2.073977 -0.106856,1.950278 0.526734,3.527643 1.902274,4.739126 1.003827,0.884102 1.383988,1.09137 4.783026,2.594911 4.198391,1.857129 4.915144,2.252038 5.888454,3.248515 1.323656,1.355161 2.002297,3.20889 1.673766,4.571335 -0.421598,1.748407 -1.593627,3.510548 -3.005749,4.207167 -2.118744,1.045208 -4.945419,1.015569 -6.89037,-0.07219 -0.797787,-0.446179 -2.188142,-2.033011 -2.669823,-2.864839 -0.213962,-0.369499 -0.504311,-1.143894 -0.644507,-1.720835 -0.58573,-2.410401 0.243206,-3.858698 2.263588,-4.302089 1.338261,-0.293694 3.10564,0.217019 4.007665,1.291603 0.422336,0.503129 0.572263,1.174665 0.318347,1.935452 -0.199341,-0.918364 -1.012385,-1.573822 -1.953053,-1.574504 -1.104528,0 -1.999926,0.894484 -1.999926,1.997886 0,1.103401 0.895398,1.997885 1.999926,1.997885 1.537639,0 2.999889,-1.997885 2.999889,-4.405494 0,-2.587106 -5.660138,-3.806458 -8.40008,-0.850663 -1.565758,1.708263 -2.142268,3.643673 -1.001134,6.450206 0.203313,0.500035 0.339666,1.170407 0.380845,1.726082 0.04083,0.550905 0.114992,0.871118 0.166009,0.957027 0.07307,0.123021 0.348523,0.128275 1.292921,0.02146 1.120153,-0.126693 1.275395,0.0842 2.363194,0.371646 1.845066,0.83061 3.931523,0.872574 5.928687,0.609338 2.865919,-0.407784 5.443286,-2.018254 6.472417,-4.0465 0.629837,-1.241303 0.808065,-2.064082 0.796846,-3.677748 -0.01747,-2.51348 -0.655441,-4.271387 -2.083907,-5.740021 -0.976025,-1.00347 -1.933125,-1.537452 -5.027158,-2.809527 -3.733815,-1.535113 -4.935086,-2.195412 -6.087666,-3.348019 -0.896613,-0.896634 -1.096144,-2.650469 -0.48631,-3.986997 0.327095,-0.716873 1.287156,-1.584803 2.115156,-1.912039 0.938494,-0.370904 2.488217,-0.460082 3.466668,-0.199008 1.64659,0.439352 3.218058,1.61974 3.843608,2.887569 0.377735,0.765571 0.499443,2.608368 0.263662,3.764576 -0.08351,0.409592 -0.119323,0.778608 -0.08008,0.819446 0.139854,0.145537 0.902326,-0.09189 1.390574,-0.433136 0.557055,-0.389331 0.982401,-0.982464 1.197222,-1.666206 0.202229,-0.643648 -0.119566,-2.05154 -0.346587,-3.070254 -0.105426,-0.473058 -0.1799,-1.187583 -0.16601,-1.588163 0.02611,-0.753018 -0.114009,-1.009133 -0.494122,-0.89944 -0.0989,0.02854 -0.58555,0.119688 -1.080039,0.202912 -0.898381,0.151204 -0.598713,0.05067 -1.67677,-0.392879 -1.340276,-0.551425 -2.49692,-0.760472 -4.197114,-0.760909 z"/>
 <path style="fill:#8b9cbe" d="m 23.550465,10.999998 c -3.172033,-8.22e-4 -5.572114,1.377242 -6.716549,3.853344 -0.382377,0.827313 -0.455685,1.122837 -0.507793,2.073977 -0.106856,1.950278 0.526734,3.527643 1.902274,4.739126 1.003827,0.884102 1.383988,1.09137 4.783026,2.594911 4.198391,1.857129 4.915144,2.252038 5.888454,3.248515 1.323656,1.355161 2.002297,3.20889 1.673766,4.571335 -0.421598,1.748407 -1.593627,3.510548 -3.005749,4.207167 -2.118744,1.045208 -4.945419,1.015569 -6.89037,-0.07219 -0.797787,-0.446179 -2.188142,-2.033011 -2.669823,-2.864839 -0.213962,-0.369499 -0.504311,-1.143894 -0.644507,-1.720835 -0.58573,-2.410401 0.243206,-3.858698 2.263588,-4.302089 1.338261,-0.293694 3.10564,0.217019 4.007665,1.291603 0.422336,0.503129 0.572263,1.174665 0.318347,1.935452 -0.199341,-0.918364 -1.012385,-1.573822 -1.953053,-1.574504 -1.104528,0 -1.999926,0.894484 -1.999926,1.997886 0,1.103401 0.895398,1.997885 1.999926,1.997885 1.537639,0 2.999889,-1.997885 2.999889,-4.405494 0,-2.587106 -5.660138,-3.806458 -8.40008,-0.850663 -1.565758,1.708263 -2.142268,3.643673 -1.001134,6.450206 0.203313,0.500035 0.339666,1.170407 0.380845,1.726082 0.04083,0.550905 0.114992,0.871118 0.166009,0.957027 0.07307,0.123021 0.348523,0.128275 1.292921,0.02146 1.120153,-0.126693 1.275395,0.0842 2.363194,0.371646 1.845066,0.83061 3.931523,0.872574 5.928687,0.609338 2.865919,-0.407784 5.443286,-2.018254 6.472417,-4.0465 0.629837,-1.241303 0.808065,-2.064082 0.796846,-3.677748 -0.01747,-2.51348 -0.655441,-4.271387 -2.083907,-5.740021 -0.976025,-1.00347 -1.933125,-1.537452 -5.027158,-2.809527 -3.733815,-1.535113 -4.935086,-2.195412 -6.087666,-3.348019 -0.896613,-0.896634 -1.096144,-2.650469 -0.48631,-3.986997 0.327095,-0.716873 1.287156,-1.584803 2.115156,-1.912039 0.938494,-0.370904 2.488217,-0.460082 3.466668,-0.199008 1.64659,0.439352 3.218058,1.61974 3.843608,2.887569 0.377735,0.765571 0.499443,2.608368 0.263662,3.764576 -0.08351,0.409592 -0.119323,0.778608 -0.08008,0.819446 0.139854,0.145537 0.902326,-0.09189 1.390574,-0.433136 0.557055,-0.389331 0.982401,-0.982464 1.197222,-1.666206 0.202229,-0.643648 -0.119566,-2.05154 -0.346587,-3.070254 -0.105426,-0.473058 -0.1799,-1.187583 -0.16601,-1.588163 0.02611,-0.753018 -0.114009,-1.009133 -0.494122,-0.89944 -0.0989,0.02854 -0.58555,0.119688 -1.080039,0.202912 -0.898381,0.151204 -0.598713,0.05067 -1.67677,-0.392879 -1.340276,-0.551425 -2.49692,-0.760472 -4.197114,-0.760909 z"/>
</svg>
