<svg xmlns="http://www.w3.org/2000/svg" width="48" height="48" version="1">
 <path style="fill:#00679a" d="m40 42v-36c0-1.108-0.892-2-2-2h-28c-1.108 0-2 0.892-2 2v36c0 1.108 0.892 2 2 2h28c1.108 0 2-0.892 2-2z"/>
 <path style="opacity:0.2;fill:none;stroke:#000000;stroke-width:2;stroke-linecap:round;stroke-linejoin:round" d="M 31,8.9997575 C 31,11.999758 21,28.999758 15,28.999758 c -3,0 -4,-2 -4,-4 0,-2 1,-4 4,-4 6.038432,-0.02152 16,17 16,20"/>
 <path fill="#fff" opacity=".2" d="m10 4c-1.108 0-2 0.892-2 2v1c0-1.108 0.892-2 2-2h28c1.108 0 2 0.892 2 2v-1c0-1.108-0.892-2-2-2z"/>
 <path opacity=".2" d="m8 42v1c0 1.108 0.892 2 2 2h28c1.108 0 2-0.892 2-2v-1c0 1.108-0.892 2-2 2h-28c-1.108 0-2-0.892-2-2z"/>
 <path style="opacity:0.2;fill:none;stroke:#000000;stroke-width:2;stroke-linecap:round;stroke-linejoin:round" d="m 34.999973,11.999758 c 0,2.894696 -8,13 -8,13 0,0 8.026902,10.375865 8,13"/>
 <path style="fill:none;stroke:#8b9cbe;stroke-width:2;stroke-linecap:round;stroke-linejoin:round" d="m 31,8 c 0,3 -10,20 -16,20 -3,0 -4,-2 -4,-4 0,-2 1,-4 4,-4 6.038432,-0.02152 16,17 16,20"/>
 <path style="fill:none;stroke:#8b9cbe;stroke-width:2;stroke-linecap:round;stroke-linejoin:round" d="m 34.999973,11 c 0,2.894696 -8,13 -8,13 0,0 8.026902,10.375865 8,13"/>
 <path style="opacity:0.2;fill:none;stroke:#000000;stroke-width:2;stroke-linecap:round;stroke-linejoin:round" d="m 37,17.999779 c 0,1 -5.000023,7 -5.000023,7 0,0 5.04883,6.115854 5.000023,7"/>
 <path style="fill:none;stroke:#8b9cbe;stroke-width:2;stroke-linecap:round;stroke-linejoin:round" d="m 37,17 c 0,1 -5.000023,7 -5.000023,7 0,0 5.04883,6.115854 5.000023,7"/>
</svg>
