<svg xmlns="http://www.w3.org/2000/svg" width="48" height="48" version="1">
 <circle style="opacity:0.2" cx="15.6" cy="16.6" r="11.6"/>
 <circle style="opacity:0.2" cx="32.4" cy="33.4" r="11.6"/>
 <circle style="fill:#1587d7" cx="15.6" cy="15.6" r="11.6"/>
 <path style="fill:#8b9cbe;opacity:0.1" d="M 15.599609 4 A 11.6 11.6 0 0 0 4 15.599609 A 11.6 11.6 0 0 0 4.0214844 16.185547 A 11.6 11.6 0 0 1 15.599609 5 A 11.6 11.6 0 0 1 27.179688 16.005859 A 11.6 11.6 0 0 0 27.199219 15.599609 A 11.6 11.6 0 0 0 15.599609 4 z"/>
 <circle style="fill:#1587d7" cx="32.4" cy="32.4" r="11.6"/>
 <circle style="opacity:0.2" cx="24" cy="25" r="19"/>
 <circle style="fill:#28a8ea" cx="24" cy="24" r="19"/>
 <path style="opacity:0.2;fill-rule:evenodd" d="m 19.313838,24.659625 a 5.4909489,5.3946015 0 0 1 -1.721896,-1.786184 5.0228014,4.9346684 0 0 1 -0.589835,-2.467005 4.5129997,4.433812 0 0 1 1.063192,-2.98596 6.3998109,6.2875161 0 0 1 2.771522,-1.819963 10.703855,10.516039 0 0 1 3.629087,-0.599892 14.09324,13.845952 0 0 1 2.414824,0.181984 8.7172184,8.5642611 0 0 1 1.673926,0.424661 3.2460163,3.1890598 0 0 1 1.310383,0.822288 1.6939361,1.6642133 0 0 1 0.40473,1.105474 1.6301035,1.6015008 0 0 1 -0.425349,1.152632 1.4162094,1.3913598 0 0 1 -1.070216,0.438152 1.9264929,1.8926895 0 0 1 -0.795743,-0.175342 14.404792,14.152037 0 0 0 -1.893556,-0.68071 6.8733411,6.7527375 0 0 0 -1.82474,-0.222404 4.1647855,4.0917078 0 0 0 -2.284539,0.572881 1.9010021,1.867646 0 0 0 -0.912378,1.678354 1.7175599,1.6874226 0 0 0 0.473297,1.179533 4.3165862,4.2408449 0 0 0 1.2761,0.896472 q 0.802713,0.391156 2.394174,1.03805 a 2.4810428,2.437509 0 0 1 0.343072,0.134841 17.005557,16.707168 0 0 1 2.963592,1.496349 5.9754629,5.870614 0 0 1 1.824861,1.840102 4.9384166,4.8517643 0 0 1 0.658583,2.554561 5.230319,5.1385448 0 0 1 -0.912497,3.080388 5.4231038,5.3279469 0 0 1 -2.551885,1.860375 10.756538,10.567798 0 0 1 -3.834962,0.613397 12.082792,11.87078 0 0 1 -5.227414,-0.970634 2.8449911,2.7950712 0 0 1 -1.077066,-0.822295 1.8816769,1.8486599 0 0 1 -0.349916,-1.118965 1.4886091,1.4624891 0 0 1 0.45955,-1.139127 1.6951331,1.6653893 0 0 1 1.186815,-0.411148 3.0328222,2.9796066 0 0 1 1.385735,0.350477 q 0.795553,0.391178 1.255503,0.586519 a 6.3101638,6.199442 0 0 0 1.08397,0.336971 6.1977888,6.0890388 0 0 0 1.392457,0.141482 3.7167837,3.6515669 0 0 0 2.339473,-0.613286 2.0602031,2.0240536 0 0 0 0.788861,-1.678369 1.8155709,1.7837138 0 0 0 -0.493857,-1.226802 5.2506379,5.1585072 0 0 0 -1.454303,-1.037939 q -0.960611,-0.498719 -2.703074,-1.213296 a 16.746169,16.452331 0 0 1 -2.970503,-1.516622"/>
 <path style="fill:#8b9cbe;fill-rule:evenodd" d="m 19.313838,23.659625 a 5.4909489,5.3946015 0 0 1 -1.721896,-1.786184 5.0228014,4.9346684 0 0 1 -0.589835,-2.467005 4.5129997,4.433812 0 0 1 1.063192,-2.98596 6.3998109,6.2875161 0 0 1 2.771522,-1.819963 10.703855,10.516039 0 0 1 3.629087,-0.599892 14.09324,13.845952 0 0 1 2.414824,0.181984 8.7172184,8.5642611 0 0 1 1.673926,0.424661 3.2460163,3.1890598 0 0 1 1.310383,0.822288 1.6939361,1.6642133 0 0 1 0.40473,1.105474 1.6301035,1.6015008 0 0 1 -0.425349,1.152632 1.4162094,1.3913598 0 0 1 -1.070216,0.438152 1.9264929,1.8926895 0 0 1 -0.795743,-0.175342 14.404792,14.152037 0 0 0 -1.893556,-0.68071 6.8733411,6.7527375 0 0 0 -1.82474,-0.222404 4.1647855,4.0917078 0 0 0 -2.284539,0.572881 1.9010021,1.867646 0 0 0 -0.912378,1.678354 1.7175599,1.6874226 0 0 0 0.473297,1.179533 4.3165862,4.2408449 0 0 0 1.2761,0.896472 q 0.802713,0.391156 2.394174,1.03805 a 2.4810428,2.437509 0 0 1 0.343072,0.134841 17.005557,16.707168 0 0 1 2.963592,1.496349 5.9754629,5.870614 0 0 1 1.824861,1.840102 4.9384166,4.8517643 0 0 1 0.658583,2.554561 5.230319,5.1385448 0 0 1 -0.912497,3.080388 5.4231038,5.3279469 0 0 1 -2.551885,1.860375 10.756538,10.567798 0 0 1 -3.834962,0.613397 12.082792,11.87078 0 0 1 -5.227414,-0.970634 2.8449911,2.7950712 0 0 1 -1.077066,-0.822295 1.8816769,1.8486599 0 0 1 -0.349916,-1.118965 1.4886091,1.4624891 0 0 1 0.45955,-1.139127 1.6951331,1.6653893 0 0 1 1.186815,-0.411148 3.0328222,2.9796066 0 0 1 1.385735,0.350477 q 0.795553,0.391178 1.255503,0.586519 a 6.3101638,6.199442 0 0 0 1.08397,0.336971 6.1977888,6.0890388 0 0 0 1.392457,0.141482 3.7167837,3.6515669 0 0 0 2.339473,-0.613286 2.0602031,2.0240536 0 0 0 0.788861,-1.678369 1.8155709,1.7837138 0 0 0 -0.493857,-1.226802 5.2506379,5.1585072 0 0 0 -1.454303,-1.037939 q -0.960611,-0.498719 -2.703074,-1.213296 a 16.746169,16.452331 0 0 1 -2.970503,-1.516622"/>
 <path style="fill:#8b9cbe;opacity:0.2" d="M 24 5 A 19 19 0 0 0 5 24 A 19 19 0 0 0 5.0214844 24.591797 A 19 19 0 0 1 24 6 A 19 19 0 0 1 42.978516 24.408203 A 19 19 0 0 0 43 24 A 19 19 0 0 0 24 5 z"/>
</svg>
