<svg xmlns="http://www.w3.org/2000/svg" width="48" height="48" version="1.1">
 <path style="opacity:0.2" d="m 19.050605,5.0001984 c -0.133089,-0.00268 -0.268547,0.021737 -0.400404,0.074219 L 14.19301,6.8478783 c -0.527435,0.2099266 -0.782217,0.8026724 -0.572285,1.3300952 l 1.804751,4.5352155 A 15.000533,15.000192 0 0 0 11.95465,16.088232 L 7.472069,14.158519 c -0.5213966,-0.224505 -1.1231952,0.01378 -1.3477041,0.535163 l -1.8945985,4.404353 c -0.2245089,0.521385 0.013778,1.121217 0.5351752,1.34572 l 4.480628,1.929713 a 15.000533,15.000192 0 0 0 -0.2461026,2.626986 15.000533,15.000192 0 0 0 0.1777408,2.214873 l -4.5314111,1.80471 c -0.5274348,0.209927 -0.7822174,0.802674 -0.5722859,1.330095 l 1.7735004,4.45709 c 0.2099314,0.527423 0.8026909,0.782199 1.3301255,0.572272 l 4.5353173,-1.80471 a 15.000533,15.000192 0 0 0 3.37512,3.470747 l -1.929757,4.48248 c -0.22451,0.521385 0.01378,1.12317 0.535175,1.347673 l 4.404454,1.894555 c 0.521396,0.224504 1.121242,-0.01378 1.345751,-0.535163 L 21.372953,39.75455 A 15.000533,15.000192 0 0 0 24,40.000647 15.000533,15.000192 0 0 0 26.214922,39.822911 l 1.804751,4.531308 c 0.209932,0.527423 0.802692,0.782199 1.330126,0.572272 l 4.45719,-1.77346 c 0.527435,-0.209926 0.782217,-0.802673 0.572285,-1.330095 l -1.804751,-4.535215 a 15.000533,15.000192 0 0 0 3.470827,-3.375043 l 4.482581,1.929713 c 0.521396,0.224505 1.123195,-0.01378 1.347704,-0.535163 l 1.894598,-4.404354 c 0.224508,-0.521384 -0.01378,-1.121216 -0.535175,-1.34572 L 38.75443,27.627442 a 15.000533,15.000192 0 0 0 0.246103,-2.626988 15.000533,15.000192 0 0 0 -0.177741,-2.214871 l 4.531411,-1.80471 c 0.527435,-0.209928 0.782217,-0.802674 0.572286,-1.330096 l -1.7735,-4.457089 c -0.209932,-0.527423 -0.802691,-0.782199 -1.330126,-0.572272 l -4.535318,1.80471 a 15.000533,15.000192 0 0 0 -3.37512,-3.470748 L 34.842182,8.4728991 C 35.066692,7.9515142 34.828405,7.3497294 34.307007,7.1252257 L 29.902553,5.2306701 c -0.521396,-0.2245037 -1.121242,0.013778 -1.34575,0.5351631 L 26.627046,10.246359 A 15.000533,15.000192 0 0 0 24,10.000262 15.000533,15.000192 0 0 0 21.785077,10.177999 L 19.980326,5.6466911 C 19.822877,5.2511239 19.449872,5.0082293 19.050605,5.0001984 Z"/>
 <path style="fill:#b2bfd9" d="M 29.902661,4.2294952 C 29.381283,4.0049943 28.780809,4.2439965 28.556309,4.7653747 L 24.124829,15.05699 19.981182,4.6464287 C 19.771258,4.1190126 19.177802,3.8634755 18.650387,4.0733995 L 14.193225,5.8474539 C 13.665809,6.0573777 13.410271,6.650834 13.620195,7.17825 L 17.763842,17.588811 7.4722265,13.157332 c -0.5213781,-0.224502 -1.1218511,0.0145 -1.346352,0.53588 l -1.896379,4.404127 c -0.2245009,0.521378 0.014501,1.121852 0.5358794,1.346352 L 15.05699,23.875171 4.6464289,28.018818 c -0.5274161,0.209924 -0.7829532,0.80338 -0.5730292,1.330795 l 1.7740545,4.457162 c 0.2099239,0.527416 0.8033802,0.782954 1.3307961,0.57303 L 17.588811,30.236158 13.157333,40.527773 c -0.224502,0.521379 0.0145,1.121852 0.535879,1.346352 l 4.404128,1.89638 c 0.521378,0.224501 1.121851,-0.0145 1.346352,-0.535879 l 4.43148,-10.291616 4.143646,10.410562 c 0.209924,0.527416 0.803381,0.782952 1.330796,0.573028 l 4.457162,-1.774054 c 0.527416,-0.209924 0.782953,-0.803381 0.573029,-1.330796 l -4.143646,-10.410561 10.291615,4.431478 c 0.521378,0.224502 1.121851,-0.0145 1.346352,-0.535879 l 1.89638,-4.404128 c 0.2245,-0.521378 -0.0145,-1.121851 -0.53588,-1.346352 L 32.94301,24.124828 43.353572,19.981182 c 0.527416,-0.209924 0.782952,-0.803381 0.573028,-1.330796 L 42.152547,14.193224 C 41.942623,13.665808 41.349166,13.410271 40.82175,13.620195 L 30.411189,17.763841 34.842668,7.4722263 c 0.224502,-0.5213782 -0.0145,-1.1218511 -0.53588,-1.346352 z"/>
 <circle style="fill:#b2bfd9" cx="24" cy="24" r="15"/>
 <path style="opacity:0.1" d="M 21.300001,11.000004 15,22.666669 21.299993,34.333332 v -4.666664 c -1.157633,-0.123788 -1.489382,-0.678217 -1.566295,-1.501456 -0.08892,-0.952221 0.634633,-1.699878 0.291554,-2.458411 1.336967,0.341176 1.370159,0.884414 1.705067,1.687295 0.165832,-0.560534 0.11878,-0.968463 0.07065,-1.328458 1.735973,0.796541 2.22748,1.694914 2.203964,3.612041 -0.0063,0.512414 -1.373507,2.159883 -1.347002,2.648511 0.02655,0.488629 0.549252,1.040863 0.609578,1.450616 0.05921,0.402553 -1.015973,0.928282 -1.015973,1.733268 0,0.763132 1.748429,3.489926 1.748429,3.489926 l 1.799997,-3.111111 c -0.955879,0.529202 -1.573684,0.57877 -2.021253,0.55576 -0.641241,0.03196 -0.971783,-0.581043 -0.885006,-0.956028 0.137214,-0.592904 1.106262,-1.280559 1.106262,-1.720851 0,-0.525844 -0.396739,-0.861333 -0.352567,-1.372867 0.04419,-0.511532 1.962737,-1.966539 1.775753,-3.046293 -0.291987,-1.686093 -0.675296,-2.655132 0.892277,-3.359321 -0.197073,0.579841 -0.07713,0.917127 0.02655,1.481155 0.186868,-1.083188 0.747108,-1.226239 1.68741,-1.839992 -0.271737,1.157206 0.28385,1.592595 0.247355,2.466048 -0.03645,0.873452 -0.996434,1.550884 -1.576736,1.570168 v 2.333333 c 0.387396,-0.184461 0.544203,2.72e-4 0.9,0 L 33,22.666669 26.700006,11.000004 v 1.555555 c -0.5534,0.311436 -0.597203,0.529697 -0.581966,1.03395 0,0 0.308097,-0.279077 0.581966,-0.256173 0.273871,0.0229 1.791161,4.284925 1.799999,4.666667 -8e-6,0.473358 -1.799999,0.777777 -1.799999,1.555555 0.432495,-0.373346 1.140966,-0.247222 1.786661,0.01106 0.502056,0.200826 0.885563,2.18996 0.95624,2.640414 -0.01745,0.458089 -0.583082,0.862734 -1.289852,0.870369 -0.706759,0.0077 -1.024809,-0.106882 -1.033639,-0.381735 -0.0091,-0.274855 0.909953,-1.000162 0.909953,-1.000162 -1.053251,-0.05 -1.524157,0.578022 -1.917097,1.023066 0.05247,-0.267219 0.105984,-0.45809 0.159039,-0.687134 -0.535733,0.08936 -0.784251,0.45331 -0.980639,0.748212 -0.26631,-0.594502 -1.845763,-1.834917 -1.819925,-2.356141 -0.09676,-0.856365 2.894227,-0.80256 3.211935,-2.794344 -0.01764,-0.755847 -0.829781,-1.487398 -1.577536,-1.658453 -0.600758,-0.137427 -0.795113,-0.183237 -0.795113,-0.183237 0.403388,-0.187594 1.614103,-0.723203 1.325177,-1.465885 -0.111222,0.293207 -0.248652,0.664766 -1.493036,0.725309 -1.272437,-0.529818 -1.107161,-1.325142 -0.901124,-1.969785 -0.838988,0.529141 -0.71433,1.044361 -0.503567,1.801817 0.05985,0.374103 -0.385291,0.687896 -0.515241,0.936019 0.02573,0.312464 0.04644,0.652248 -0.156186,0.797086 -0.503612,0.474894 0.111277,1.198242 0.39754,1.152857 -0.03924,-0.938844 1.061188,-1.304481 1.501872,-1.404805 0.724437,-8e-6 2.028104,0.841527 2.019265,1.307251 -0.0089,0.465723 -0.879604,0.923812 -1.957417,1.23684 -1.07782,0.313028 -1.943611,0.725307 -1.917105,1.733104 0.03375,0.984868 0.568458,1.896037 0.671426,2.165271 -0.359288,-0.29843 -0.557297,-0.730079 -1.077811,-0.794021 0.124118,0.228668 0.252206,0.482985 0.362231,0.748212 -0.544796,-0.76168 -1.108493,-0.983555 -2.093794,-1.099414 1.732751,1.195519 0.535517,1.445409 -0.106002,1.435346 -0.611784,-0.0096 -1.37176,-0.225285 -1.289842,-0.83983 0.04932,-0.369865 0.325322,-2.415209 0.955222,-2.684296 0.664056,-0.283678 1.363184,-0.268159 1.768373,-0.01299 0,-0.777777 -1.811725,-1.203078 -1.799998,-1.555556 0.01169,-0.352477 1.512142,-4.666666 1.799998,-4.666666 0.287856,0 0.389528,0.05208 0.5625,0.279514 0.1646,-0.736907 -0.378559,-0.792376 -0.5625,-1.057291 8e-6,-0.183236 0,-1.555556 0,-1.555556 z"/>
 <path style="fill:#4f4f4f" d="M 21.300001,10.000002 15,21.666667 21.299993,33.33333 v -4.666664 c -1.157633,-0.123788 -1.489382,-0.678217 -1.566295,-1.501456 -0.08892,-0.952221 0.634633,-1.699878 0.291554,-2.458411 1.336967,0.341176 1.370159,0.884414 1.705067,1.687295 0.165832,-0.560534 0.11878,-0.968463 0.07065,-1.328458 1.735973,0.796541 2.22748,1.694914 2.203964,3.612041 -0.0063,0.512414 -1.373507,2.159883 -1.347002,2.648511 0.02655,0.488629 0.549252,1.040863 0.609578,1.450616 0.05921,0.402553 -1.015973,0.928282 -1.015973,1.733268 0,0.763132 1.748429,3.489926 1.748429,3.489926 l 1.799997,-3.111111 c -0.955879,0.529202 -1.573684,0.57877 -2.021253,0.55576 -0.641241,0.03196 -0.971783,-0.581043 -0.885006,-0.956028 0.137214,-0.592904 1.106262,-1.280559 1.106262,-1.720851 0,-0.525844 -0.396739,-0.861333 -0.352567,-1.372867 0.04419,-0.511532 1.962737,-1.966539 1.775753,-3.046293 -0.291987,-1.686093 -0.675296,-2.655132 0.892277,-3.359321 -0.197073,0.579841 -0.07713,0.917127 0.02655,1.481155 0.186868,-1.083188 0.747108,-1.226239 1.68741,-1.839992 -0.271737,1.157206 0.28385,1.592595 0.247355,2.466048 -0.03645,0.873452 -0.996434,1.550884 -1.576736,1.570168 v 2.333333 c 0.387396,-0.184461 0.544203,2.72e-4 0.9,0 L 33,21.666667 26.700006,10.000002 v 1.555555 c -0.5534,0.311436 -0.597203,0.529697 -0.581966,1.03395 0,0 0.308097,-0.279077 0.581966,-0.256173 0.273871,0.0229 1.791161,4.284925 1.799999,4.666667 -8e-6,0.473358 -1.799999,0.777777 -1.799999,1.555555 0.432495,-0.373346 1.140966,-0.247222 1.786661,0.01106 0.502056,0.200826 0.885563,2.18996 0.95624,2.640414 -0.01745,0.458089 -0.583082,0.862734 -1.289852,0.870369 -0.706759,0.0077 -1.024809,-0.106882 -1.033639,-0.381735 -0.0091,-0.274855 0.909953,-1.000162 0.909953,-1.000162 -1.053251,-0.05 -1.524157,0.578022 -1.917097,1.023066 0.05247,-0.267219 0.105984,-0.45809 0.159039,-0.687134 -0.535733,0.08936 -0.784251,0.45331 -0.980639,0.748212 -0.26631,-0.594502 -1.845763,-1.834917 -1.819925,-2.356141 -0.09676,-0.856365 2.894227,-0.80256 3.211935,-2.794344 -0.01764,-0.755847 -0.829781,-1.487398 -1.577536,-1.658453 -0.600758,-0.137427 -0.795113,-0.183237 -0.795113,-0.183237 0.403388,-0.187594 1.614103,-0.723203 1.325177,-1.465885 -0.111222,0.293207 -0.248652,0.664766 -1.493036,0.725309 -1.272437,-0.529818 -1.107161,-1.325142 -0.901124,-1.969785 -0.838988,0.529141 -0.71433,1.044361 -0.503567,1.801817 0.05985,0.374103 -0.385291,0.687896 -0.515241,0.936019 0.02573,0.312464 0.04644,0.652248 -0.156186,0.797086 -0.503612,0.474894 0.111277,1.198242 0.39754,1.152857 -0.03924,-0.938844 1.061188,-1.304481 1.501872,-1.404805 0.724437,-8e-6 2.028104,0.841527 2.019265,1.307251 -0.0089,0.465723 -0.879604,0.923812 -1.957417,1.23684 -1.07782,0.313028 -1.943611,0.725307 -1.917105,1.733104 0.03375,0.984868 0.568458,1.896037 0.671426,2.165271 -0.359288,-0.29843 -0.557297,-0.730079 -1.077811,-0.794021 0.124118,0.228668 0.252206,0.482985 0.362231,0.748212 -0.544796,-0.76168 -1.108493,-0.983555 -2.093794,-1.099414 1.732751,1.195519 0.535517,1.445409 -0.106002,1.435346 -0.611784,-0.0096 -1.37176,-0.225285 -1.289842,-0.83983 0.04932,-0.369865 0.325322,-2.415209 0.955222,-2.684296 0.664056,-0.283678 1.363184,-0.268159 1.768373,-0.01299 0,-0.777777 -1.811725,-1.203078 -1.799998,-1.555556 0.01169,-0.352477 1.512142,-4.666666 1.799998,-4.666666 0.287856,0 0.389528,0.05208 0.5625,0.279514 0.1646,-0.736907 -0.378559,-0.792376 -0.5625,-1.057291 8e-6,-0.183236 0,-1.555556 0,-1.555556 z"/>
 <path style="opacity:0.2;fill:#8b9cbe" d="M 19.050781 4 C 18.917697 3.9973231 18.782244 4.0217377 18.650391 4.0742188 L 14.193359 5.8476562 C 13.665943 6.0575801 13.41117 6.6503184 13.621094 7.1777344 L 13.679688 7.3242188 C 13.789452 7.118406 13.958429 6.9411641 14.193359 6.8476562 L 18.650391 5.0742188 C 18.782244 5.0217378 18.917697 4.99732 19.050781 5 C 19.450034 5.0080308 19.823026 5.2509223 19.980469 5.6464844 L 21.785156 10.177734 A 15 15 0 0 1 24 10 A 15 15 0 0 1 26.626953 10.246094 L 28.556641 5.765625 C 28.781141 5.2442468 29.380966 5.0059679 29.902344 5.2304688 L 34.306641 7.125 C 34.52875 7.2206382 34.685551 7.3926532 34.791016 7.5898438 L 34.841797 7.4726562 C 35.066299 6.951278 34.828021 6.3495009 34.306641 6.125 L 29.902344 4.2304688 C 29.380966 4.0059679 28.781141 4.2442468 28.556641 4.765625 L 26.626953 9.2460938 A 15 15 0 0 0 24 9 A 15 15 0 0 0 21.785156 9.1777344 L 19.980469 4.6464844 C 19.823026 4.2509223 19.450034 4.0080308 19.050781 4 z M 15.121094 11.949219 A 15 15 0 0 0 11.955078 15.087891 L 7.4726562 13.158203 C 6.9512782 12.933701 6.3495009 13.171979 6.125 13.693359 L 4.2304688 18.097656 C 4.1015361 18.397088 4.1389414 18.715244 4.28125 18.980469 L 6.125 14.693359 C 6.3495009 14.171979 6.9512782 13.933701 7.4726562 14.158203 L 11.955078 16.087891 A 15 15 0 0 1 15.425781 12.712891 L 15.121094 11.949219 z M 33.236328 12.203125 L 32.912109 12.955078 A 15 15 0 0 1 36.287109 16.425781 L 40.822266 14.621094 C 41.349682 14.41117 41.94242 14.665943 42.152344 15.193359 L 43.867188 19.503906 C 44.003842 19.247672 44.042197 18.942875 43.925781 18.650391 L 42.152344 14.193359 C 41.94242 13.665943 41.349682 13.41117 40.822266 13.621094 L 36.287109 15.425781 A 15 15 0 0 0 33.236328 12.203125 z M 9.1210938 22.318359 A 15 15 0 0 0 9 24 A 15 15 0 0 0 9.0234375 24.433594 A 15 15 0 0 1 9.2460938 22.373047 L 9.1210938 22.318359 z M 38.929688 22.742188 L 38.822266 22.785156 A 15 15 0 0 1 38.976562 24.566406 A 15 15 0 0 0 39 24 A 15 15 0 0 0 38.929688 22.742188 z M 9.0703125 26.257812 L 4.6464844 28.019531 C 4.1190683 28.229455 3.8642947 28.822194 4.0742188 29.349609 L 4.1328125 29.496094 C 4.2425769 29.290281 4.4115537 29.113039 4.6464844 29.019531 L 9.1777344 27.214844 A 15 15 0 0 1 9.0703125 26.257812 z M 38.878906 26.681641 A 15 15 0 0 1 38.753906 27.626953 L 43.234375 29.556641 C 43.456483 29.652279 43.613285 29.824701 43.71875 30.021484 L 43.769531 29.902344 C 43.994031 29.380966 43.755755 28.781142 43.234375 28.556641 L 38.878906 26.681641 z M 14.763672 36.796875 L 13.158203 40.527344 C 13.02934 40.826613 13.066882 41.144462 13.208984 41.410156 L 15.087891 37.044922 A 15 15 0 0 1 14.763672 36.796875 z M 32.878906 37.050781 A 15 15 0 0 1 32.574219 37.287109 L 34.320312 41.675781 C 34.456967 41.419547 34.495322 41.11475 34.378906 40.822266 L 32.878906 37.050781 z"/>
</svg>
