<svg xmlns="http://www.w3.org/2000/svg" width="48" height="48" version="1.1">
 <rect style="opacity:0.2" width="40" height="40" x="4" y="5" rx="2" ry="2"/>
 <rect style="fill:#834e2f" width="40" height="40" x="4" y="4" rx="2" ry="2"/>
 <path style="opacity:0.1" d="m 31.071286,40.606154 c 1.163339,1.255168 2.514483,-0.8169 3.185392,-1.660821 1.576275,-2.831442 2.322412,-6.1866 1.172643,-9.08172 -0.441357,-0.59177 -0.436716,-1.692606 0.255804,-1.787176 C 36.407663,27.994967 37.492438,28.146477 38,27.890482 37.318528,27.432192 36.254301,27.318291 35.690947,26.642093 35.233654,25.907297 34.946341,24.77779 34.37526,24.344387 29.412549,19.860112 24.302487,14.941466 19.822382,10.352339 19.617494,9.7098843 19.369317,9.0296208 18.653919,9.1556763 c -0.675008,-0.6097786 -2.273887,0.713487 -1.397936,1.5239977 3.897739,3.922065 7.797444,7.844316 11.618023,11.844104 -0.366784,0.614929 -1.034543,1.541479 -1.476303,1.357836 -1.071297,0.323518 0.150388,2.186316 -0.155267,3.017885 -0.396747,1.007933 -1.730742,2.19145 -0.919973,3.567273 0.649378,1.139981 2.229026,2.7373 3.299877,2.011729 1.078046,-1.007867 2.798086,-0.346349 2.523676,1.089718 0.02544,1.318758 -1.379813,2.120335 -2.284009,2.544014 -1.392759,0.486417 -1.311833,1.838034 -0.481334,2.773895 0.520342,0.615296 1.093925,1.182122 1.690623,1.720026 z M 28.300858,28.262275 c 0.982279,0.698915 1.389306,2.4663 -0.0097,2.763571 1.042468,0.465966 1.554755,-2.325192 2.062379,-0.687105 0.563493,1.432756 -1.634056,2.312542 -2.711441,1.226821 -1.4544,-1.816094 -1.157145,-3.804809 0.658742,-3.303287 z"/>
 <path style="opacity:0.1;fill:#8b9cbe" d="M 6,4 C 4.892,4 4,4.892 4,6 V 7 C 4,5.892 4.892,5 6,5 h 36 c 1.108,0 2,0.892 2,2 V 6 C 44,4.892 43.108,4 42,4 Z"/>
 <path style="fill:#2e2e2e" d="m 31.071286,39.606154 c 1.163339,1.255168 2.514483,-0.8169 3.185392,-1.660821 1.576275,-2.831442 2.322412,-6.1866 1.172643,-9.08172 -0.441357,-0.59177 -0.436716,-1.692606 0.255804,-1.787176 C 36.407663,26.994967 37.492438,27.146477 38,26.890482 37.318528,26.432192 36.254301,26.318291 35.690947,25.642093 35.233654,24.907297 34.946341,23.77779 34.37526,23.344387 29.412549,18.860112 24.302487,13.941466 19.822382,9.3523386 19.617494,8.7098842 19.369317,8.0296207 18.653919,8.1556762 c -0.675008,-0.6097786 -2.273887,0.713487 -1.397936,1.5239975 3.897739,3.9220653 7.797444,7.8443163 11.618023,11.8441043 -0.366784,0.614929 -1.034543,1.541479 -1.476303,1.357836 -1.071297,0.323518 0.150388,2.186316 -0.155267,3.017885 -0.396747,1.007933 -1.730742,2.19145 -0.919973,3.567273 0.649378,1.139981 2.229026,2.7373 3.299877,2.011729 1.078046,-1.007867 2.798086,-0.346349 2.523676,1.089718 0.02544,1.318758 -1.379813,2.120335 -2.284009,2.544014 -1.392759,0.486417 -1.311833,1.838034 -0.481334,2.773895 0.520342,0.615296 1.093925,1.182122 1.690623,1.720026 z M 28.300858,27.262275 c 0.982279,0.698915 1.389306,2.4663 -0.0097,2.763571 1.042468,0.465966 1.554755,-2.325192 2.062379,-0.687105 0.563493,1.432756 -1.634056,2.312542 -2.711441,1.226821 -1.4544,-1.816094 -1.157145,-3.804809 0.658742,-3.303287 z"/>
 <path style="opacity:0.1" d="m 16.928714,40.606154 c -1.163339,1.255168 -2.514483,-0.8169 -3.185392,-1.660821 -1.576275,-2.831442 -2.322412,-6.1866 -1.172643,-9.08172 0.441357,-0.59177 0.436716,-1.692606 -0.255804,-1.787176 -0.722538,-0.08147 -1.807313,0.07004 -2.314875,-0.185955 0.681472,-0.45829 1.745699,-0.572191 2.309053,-1.248389 0.457293,-0.734796 0.744606,-1.864303 1.315687,-2.297706 4.962711,-4.484275 10.072773,-9.402921 14.552878,-13.992048 0.204888,-0.6424547 0.453065,-1.3227182 1.168463,-1.1966627 0.675008,-0.6097786 2.273887,0.713487 1.397936,1.5239977 -3.897739,3.922065 -7.797444,7.844316 -11.618023,11.844104 0.366784,0.614929 1.034543,1.541479 1.476303,1.357836 1.071297,0.323518 -0.150388,2.186316 0.155267,3.017885 0.396747,1.007933 1.730742,2.19145 0.919973,3.567273 -0.649378,1.139981 -2.229026,2.7373 -3.299877,2.011729 -1.078046,-1.007867 -2.798086,-0.346349 -2.523676,1.089718 -0.02544,1.318758 1.379813,2.120335 2.284009,2.544014 1.392759,0.486417 1.311833,1.838034 0.481334,2.773895 -0.520342,0.615296 -1.093925,1.182122 -1.690623,1.720026 z m 2.770428,-12.343879 c -0.982279,0.698915 -1.389306,2.4663 0.0097,2.763571 -1.042468,0.465966 -1.554755,-2.325192 -2.062379,-0.687105 -0.563493,1.432756 1.634056,2.312542 2.711441,1.226821 1.4544,-1.816094 1.157145,-3.804809 -0.658742,-3.303287 z"/>
 <path style="fill:#b6b6b6" d="m 16.928714,39.606154 c -1.163339,1.255168 -2.514483,-0.8169 -3.185392,-1.660821 -1.576275,-2.831442 -2.322412,-6.1866 -1.172643,-9.08172 0.441357,-0.59177 0.436716,-1.692606 -0.255804,-1.787176 -0.722538,-0.08147 -1.807313,0.07004 -2.314875,-0.185955 0.681472,-0.45829 1.745699,-0.572191 2.309053,-1.248389 0.457293,-0.734796 0.744606,-1.864303 1.315687,-2.297706 4.962711,-4.484275 10.072773,-9.402921 14.552878,-13.9920484 0.204888,-0.6424544 0.453065,-1.3227179 1.168463,-1.1966624 0.675008,-0.6097786 2.273887,0.713487 1.397936,1.5239975 -3.897739,3.9220653 -7.797444,7.8443163 -11.618023,11.8441043 0.366784,0.614929 1.034543,1.541479 1.476303,1.357836 1.071297,0.323518 -0.150388,2.186316 0.155267,3.017885 0.396747,1.007933 1.730742,2.19145 0.919973,3.567273 -0.649378,1.139981 -2.229026,2.7373 -3.299877,2.011729 -1.078046,-1.007867 -2.798086,-0.346349 -2.523676,1.089718 -0.02544,1.318758 1.379813,2.120335 2.284009,2.544014 1.392759,0.486417 1.311833,1.838034 0.481334,2.773895 -0.520342,0.615296 -1.093925,1.182122 -1.690623,1.720026 z m 2.770428,-12.343879 c -0.982279,0.698915 -1.389306,2.4663 0.0097,2.763571 -1.042468,0.465966 -1.554755,-2.325192 -2.062379,-0.687105 -0.563493,1.432756 1.634056,2.312542 2.711441,1.226821 1.4544,-1.816094 1.157145,-3.804809 -0.658742,-3.303287 z"/>
</svg>
