<svg xmlns="http://www.w3.org/2000/svg" width="48" height="48" version="1">
 <rect style="opacity:0.2" width="40" height="40" x="4" y="5" rx="12" ry="12"/>
 <rect style="fill:#5098f8" width="40" height="40" x="4" y="4" rx="12" ry="12"/>
 <circle style="opacity:0.2" cx="24" cy="25" r="14"/>
 <circle style="fill:#8b9cbe" cx="24" cy="24" r="14"/>
 <path style="fill:#8b9cbe;opacity:0.2" d="M 16 4 C 9.352 4 4 9.352 4 16 L 4 17 C 4 10.352 9.352 5 16 5 L 32 5 C 38.648 5 44 10.352 44 17 L 44 16 C 44 9.352 38.648 4 32 4 L 16 4 z"/>
 <path style="fill:#fefdfd" d="M -2402.1486,69.744886 V -930.25511 h 1000 1000 V 69.744886 1069.7449 h -1000 -1000 z"/>
 <path style="opacity:0.1" d="M 12.000069,28.568674 18.632497,15 24.018155,21.258562 29.403813,15 35.99989,28.540414 31.740538,31.997163 28.169857,22.037746 24.018155,27.117439 19.866583,22.037703 16.258854,32 Z"/>
 <path style="fill:#f80000" d="M 12.000069,27.568674 18.632497,14 24.018155,20.258562 29.403813,14 35.99989,27.540414 31.740538,30.997163 28.169857,21.037746 24.018155,26.117439 19.866583,21.037703 16.258854,31 Z"/>
</svg>
