<svg xmlns="http://www.w3.org/2000/svg" width="48" height="48" version="1.1">
 <g transform="translate(0,-1074.5197)">
  <circle style="opacity:0.2" cx="24" cy="1099.52" r="20"/>
  <circle style="fill:#8e8e8e" cx="24" cy="1098.52" r="20"/>
  <path style="opacity:0.2;fill:#8b9cbe" transform="translate(0,1074.5197)" d="M 24 4 A 20 20 0 0 0 4 24 A 20 20 0 0 0 4.0214844 24.582031 A 20 20 0 0 1 24 5 A 20 20 0 0 1 43.978516 24.417969 A 20 20 0 0 0 44 24 A 20 20 0 0 0 24 4 z"/>
  <ellipse style="opacity:0.1;stroke:#000000;stroke-width:0;stroke-linecap:round;stroke-linejoin:round" cx="24" cy="1109.02" rx="3" ry="2.5"/>
  <ellipse style="fill:#17191e" cx="24" cy="1108.02" rx="3" ry="2.5"/>
  <path style="opacity:0.1;fill-rule:evenodd" d="m 11.833984,1085.4867 c -0.163801,0 -0.329312,0.019 -0.496093,0.047 -0.79367,0.131 -1.4400204,0.6898 -1.791016,1.3321 -0.3509956,0.6424 -0.5044978,1.3731 -0.578125,2.1719 -0.1472543,1.5977 0.052843,3.5024 0.3613281,5.3808 0.6169699,3.7568 1.7128909,7.3906 1.7128909,7.3906 a 1.0001,1.0001 0 1 0 1.914062,-0.5761 c 0,0 -1.065459,-3.5532 -1.654297,-7.1387 -0.294419,-1.7928 -0.459221,-3.5991 -0.341796,-4.8731 0.05871,-0.637 0.195475,-1.1322 0.339843,-1.3964 0.144368,-0.2642 0.19919,-0.2917 0.361328,-0.3184 0.585185,-0.097 1.318826,0.149 2.142579,0.748 0.823752,0.5991 1.678127,1.513 2.421874,2.4629 1.487498,1.8998 2.533204,3.9024 2.533204,3.9024 a 1.0001,1.0001 0 1 0 1.773437,-0.9238 c 0,0 -1.106069,-2.1339 -2.732422,-4.211 -0.813176,-1.0386 -1.756581,-2.074 -2.820312,-2.8476 -0.930765,-0.6769 -1.999872,-1.182 -3.146485,-1.1504 z m 24.332032,0 c -1.146613,-0.032 -2.21572,0.4735 -3.146485,1.1504 -1.063731,0.7736 -2.007136,1.809 -2.820312,2.8476 -1.626353,2.0771 -2.732422,4.211 -2.732422,4.211 a 1.0001,1.0001 0 1 0 1.773437,0.9238 c 0,0 1.045705,-2.0026 2.533204,-3.9024 0.743747,-0.9499 1.598123,-1.8638 2.421874,-2.4629 0.823753,-0.599 1.557394,-0.8446 2.142579,-0.748 0.162138,0.027 0.21696,0.054 0.361328,0.3184 0.144368,0.2642 0.281132,0.7594 0.339843,1.3964 0.117424,1.274 -0.04738,3.0803 -0.341796,4.8731 -0.588838,3.5855 -1.654297,7.1387 -1.654297,7.1387 a 1.0001,1.0001 0 1 0 1.914062,0.5761 c 0,0 1.095921,-3.6338 1.712891,-7.3906 0.308485,-1.8784 0.508582,-3.7831 0.361328,-5.3808 -0.07363,-0.7988 -0.227129,-1.5295 -0.578125,-2.1719 -0.350996,-0.6423 -0.997346,-1.2011 -1.791016,-1.3321 -0.166781,-0.027 -0.332292,-0.042 -0.496093,-0.047 z m -23.816407,19.6953 c -4.1202833,-6e-4 -9.5878903,1.3672 -9.5878902,1.3672 a 1.0001,1.0001 0 1 0 0.4765624,1.9414 c 0,0 5.4500589,-1.3091 9.1113278,-1.3086 1.573075,2e-4 2.98084,0.2575 4.070313,0.5371 -0.629293,-0.1156 -1.310866,-0.2155 -2.066406,-0.2559 -0.976278,-0.052 -2.03859,-0.016 -3.132813,0.1719 -3.7727734,0.6489 -7.7265624,3.0234 -7.7265624,3.0234 a 1.0001,1.0001 0 1 0 1.0117188,1.7227 c 0,0 3.8799482,-2.2299 7.0546876,-2.7754 1.840733,-0.3164 3.66251,-0.1192 4.990234,0.168 0.3447,0.075 0.651274,0.1548 0.919922,0.2324 -0.637722,-0.1478 -1.341378,-0.2725 -2.080078,-0.2617 -4.313087,0.063 -7.1191406,3.0898 -7.1191406,3.0898 a 1.0003568,1.0003568 0 1 0 1.4570312,1.3711 c 0,0 2.3075714,-2.4116 5.6914064,-2.4609 1.331408,-0.019 3.197266,0.6992 3.197266,0.6992 a 1.0001,1.0001 0 1 0 0.765624,-1.8477 c 0,0 -0.126041,-0.05 -0.220703,-0.088 a 1.0001,1.0001 0 0 0 0.08203,-0.018 c 0.03977,-0.01 0.138199,-0.047 0.138671,-0.047 4.73e-4,-2e-4 0.181287,-0.098 0.181641,-0.098 3.54e-4,-2e-4 0.208748,-0.1891 0.208985,-0.1894 2.36e-4,-2e-4 0.169802,-0.2984 0.169921,-0.2988 1.2e-4,-3e-4 0.06054,-0.3317 0.06055,-0.3321 4e-6,-4e-4 -0.03504,-0.2711 -0.03516,-0.2715 -1.13e-4,-4e-4 -0.06813,-0.1851 -0.06836,-0.1855 -2.29e-4,-5e-4 -0.04812,-0.087 -0.07031,-0.1191 -0.177566,-0.2604 -0.239713,-0.2517 -0.292969,-0.2871 -0.106511,-0.071 -0.159849,-0.092 -0.230468,-0.125 -0.02612,-0.012 -0.06953,-0.027 -0.09766,-0.039 a 1.0007209,1.0007209 0 0 0 0.207032,-1.8887 c 0,0 -3.108481,-1.4271 -7.066407,-1.4277 z m 23.300782,0 c -3.957926,6e-4 -7.066407,1.4277 -7.066407,1.4277 a 1.0007209,1.0007209 0 0 0 0.205078,1.8887 c -0.0276,0.012 -0.07003,0.027 -0.0957,0.039 -0.07062,0.033 -0.123957,0.054 -0.230468,0.125 -0.05326,0.035 -0.115403,0.027 -0.292969,0.2871 -0.0222,0.033 -0.07008,0.1186 -0.07031,0.1191 -2.28e-4,4e-4 -0.06825,0.1851 -0.06836,0.1855 -1.13e-4,4e-4 -0.03516,0.2711 -0.03516,0.2715 3e-6,4e-4 0.06043,0.3318 0.06055,0.3321 1.19e-4,4e-4 0.169685,0.2986 0.169921,0.2988 2.37e-4,3e-4 0.208631,0.1892 0.208985,0.1894 3.54e-4,2e-4 0.181168,0.097 0.181641,0.098 4.71e-4,2e-4 0.09891,0.037 0.138671,0.047 a 1.0001,1.0001 0 0 0 0.08203,0.018 c -0.09466,0.038 -0.220703,0.088 -0.220703,0.088 a 1.0001,1.0001 0 1 0 0.765624,1.8477 c 0,0 1.865858,-0.7185 3.197266,-0.6992 3.383835,0.049 5.691406,2.4609 5.691406,2.4609 a 1.0003571,1.0003571 0 1 0 1.457032,-1.3711 c 0,0 -2.806054,-3.027 -7.119141,-3.0898 -0.7387,-0.011 -1.442356,0.1139 -2.080078,0.2617 0.268648,-0.078 0.575222,-0.1578 0.919922,-0.2324 1.327724,-0.2872 3.149501,-0.4844 4.990234,-0.168 3.174739,0.5455 7.054688,2.7754 7.054688,2.7754 a 1.0001,1.0001 0 1 0 1.011718,-1.7227 c 0,0 -3.953789,-2.3745 -7.726562,-3.0234 h -0.002 c -1.093502,-0.1878 -2.155189,-0.2241 -3.13086,-0.1719 -0.760133,0.041 -1.445928,0.1412 -2.078125,0.2578 1.090905,-0.2807 2.503528,-0.5388 4.082032,-0.539 3.661269,-5e-4 9.111328,1.3086 9.111328,1.3086 a 1.0001,1.0001 0 1 0 0.476562,-1.9414 c 0,0 -5.467606,-1.3678 -9.58789,-1.3672 z"/>
  <path style="fill:none;stroke:#17191e;stroke-width:2;stroke-linecap:round;stroke-linejoin:round" d="m 12,1100.5197 c 0,0 -4.3232319,-14.3692 -0.5,-15 3.838879,-0.6333 8.14714,7.6373 8.14714,7.6373"/>
  <path style="fill:none;stroke:#17191e;stroke-width:2;stroke-linecap:round;stroke-linejoin:round" d="m 19,1106.5197 c 0,0 -2.931452,-1.3375 -6.649636,-1.338 C 8.4595871,1105.1811 3,1106.5197 3,1106.5197"/>
  <path style="fill:none;stroke:#17191e;stroke-width:2;stroke-linecap:round;stroke-linejoin:round" d="m 19,1108.5197 c 0.151108,-0.038 -3.579748,-1.592 -7.608926,-0.8994 C 7.9170335,1108.2173 4,1110.5197 4,1110.5197"/>
  <path style="fill:none;stroke:#17191e;stroke-width:2;stroke-linecap:round;stroke-linejoin:round" d="m 19,1110.5197 c 0,0 -1.93138,-0.8004 -3.594741,-0.7762 C 11.556798,1109.7995 9,1112.5197 9,1112.5197"/>
  <ellipse style="fill:#17191e" cx="19" cy="1100.02" rx="3" ry="3.5"/>
  <ellipse style="opacity:0.2" cx="20" cy="1101.02" rx="1" ry="1.5"/>
  <ellipse style="fill:#8b9cbe" cx="20" cy="1100.02" rx="1" ry="1.5"/>
  <path style="fill:none;stroke:#17191e;stroke-width:2;stroke-linecap:round;stroke-linejoin:round" d="m 36,1100.5197 c 0,0 4.8b9cbe,-14.3692 0.5,-15 -3.838879,-0.6333 -8.14714,7.6373 -8.14714,7.6373"/>
  <path style="fill:none;stroke:#17191e;stroke-width:2;stroke-linecap:round;stroke-linejoin:round" d="m 29,1106.5197 c 0,0 2.931452,-1.3375 6.649636,-1.338 3.890777,-6e-4 9.350364,1.338 9.350364,1.338"/>
  <path style="fill:none;stroke:#17191e;stroke-width:2;stroke-linecap:round;stroke-linejoin:round" d="m 29,1108.5197 c -0.151108,-0.038 3.579748,-1.592 7.608926,-0.8994 3.47404,0.597 7.391074,2.8994 7.391074,2.8994"/>
  <path style="fill:none;stroke:#17191e;stroke-width:2;stroke-linecap:round;stroke-linejoin:round" d="m 29,1110.5197 c 0,0 1.93138,-0.8004 3.594741,-0.7762 3.848461,0.056 6.405259,2.7762 6.405259,2.7762"/>
  <ellipse style="fill:#17191e" cx="29" cy="-1100.02" rx="3" ry="3.5" transform="scale(1,-1)"/>
  <ellipse style="opacity:0.2" cx="30" cy="-1101.02" rx="1" ry="1.5" transform="scale(1,-1)"/>
  <ellipse style="fill:#8b9cbe" cx="30" cy="-1100.02" rx="1" ry="1.5" transform="scale(1,-1)"/>
 </g>
</svg>
