<svg xmlns="http://www.w3.org/2000/svg" width="48" height="48" version="1.1">
 <path fill="#324e89" d="m24 4c-11.041 0-19.992 8.95-20 19.989v16.906c0 1.7193 1.3845 3.1038 3.1038 3.1038h16.907c11.042 0 19.989-8.9569 19.989-20 0-11.046-8.9544-20-20-20z"/>
 <path style="opacity:.2;fill:#8b9cbe" d="m30 9c-4.970563 0-9 4.029437-9 9v5h-5c-4.970563 0-9 4.029437-9 9s4.029437 9 9 9 9-4.029437 9-9v-5h5c4.970563 0 9-4.029437 9-9s-4.029437-9-9-9zm0 4c2.761423 0 5 2.238577 5 5 0 2.761424-2.238577 5-5 5h-3.980469c-0.463095 0-1.019531 0.000701-1.019531-1.097656v-3.902344c0-2.761423 2.238576-5 5-5zm-14 14h3.980469c0.463095 0 1.019531-0.000701 1.019531 1.097656v3.902344c0 2.761423-2.238576 5-5 5-2.761423 0-5-2.238577-5-5 0-2.761424 2.238577-5 5-5z"/>
 <path style="fill:#8b9cbe" d="m30 9c-4.970563 0-9 4.029437-9 9v5h-5a2 2 0 0 0 -0.199219 0.009766c-0.001309 0.000028-0.002597-0.00003-0.003906 0a2 2 0 0 0 -1.796875 1.990234 2 2 0 0 0 2 2h3.980469c0.463095 0 1.019531-0.000701 1.019531 1.097656v3.902344c0 2.761423-2.238576 5-5 5-0.768064 0-1.48647-0.186649-2.136719-0.496094-0.269954-0.129392-0.563339-0.203299-0.863281-0.203125-1.104569 0-2 0.895431-2 2 0.001 0.755755 0.427937 1.446396 1.103516 1.785157 0.000057 0.006206-0.000062 0.011368 0 0.017578 1.180375 0.568763 2.498513 0.896484 3.896484 0.896484 4.970563 0 9-4.029437 9-9v-5h4a2 2 0 0 0 2 -2 2 2 0 0 0 -2 -2h-2.980469c-0.463095 0-1.019531 0.000701-1.019531-1.097656v-3.902344c0-2.761423 2.238576-5 5-5 0.504185 0 0.980571 0.097521 1.439453 0.236328-0.000563-0.00568-0.001436-0.011949-0.001953-0.017578 0.182638 0.05399 0.372051 0.081611 0.5625 0.082031 1.104569 0 2-0.895431 2-2-0.000075-0.186991-0.026365-0.373047-0.078125-0.552734 0.0011-0.03068 0.007813-0.058734 0.007813-0.089844-0.01642-0.02617-0.048127-0.053588-0.066407-0.080078v-0.001953c-0.249236-0.6403003-0.809719-1.1079185-1.484375-1.2382814-0.014105-0.0075129-0.028807-0.0140569-0.042968-0.0214844-0.746103-0.2003274-1.526601-0.3164062-2.335938-0.3164062z"/>
 <path opacity=".2" d="m43.988 24.5c-0.266 10.812-9.104 19.5-19.978 19.5h-16.906c-1.7193 0-3.1035-1.384-3.1035-3.104v1c0 1.72 1.3842 3.104 3.1035 3.104h16.906c11.041 0 19.99-8.957 19.99-20 0-0.168-0.008-0.333-0.012-0.5z"/>
 <path fill="#fff" opacity=".1" d="m24 4c-11.041 0-19.992 8.951-20 19.99v1c0.0076-11.039 8.959-19.99 20-19.99 10.878 0 19.722 8.685 19.988 19.5 0.004-0.167 0.012-0.332 0.012-0.5 0-11.046-8.954-20-20-20z"/>
</svg>
