<svg xmlns="http://www.w3.org/2000/svg" width="48" height="48" version="1">
 <rect style="opacity:0.2" width="40" height="40" x="-45" y="-44" rx="2" ry="2" transform="matrix(0,-1,-1,0,0,0)"/>
 <rect style="fill:#4f4f4f" width="40" height="40" x="-44" y="-44" rx="2" ry="2" transform="matrix(0,-1,-1,0,0,0)"/>
 <path style="opacity:0.1;fill:#8b9cbe" d="M 6,4 C 4.892,4 4,4.892 4,6 V 7 C 4,5.892 4.892,5 6,5 h 36 c 1.108,0 2,0.892 2,2 V 6 C 44,4.892 43.108,4 42,4 Z"/>
 <path style="opacity:0.2" d="m 30.146365,11.999377 c -0.318475,0 -0.678863,0.211909 -0.919922,0.541016 -0.13798,0.188377 -0.156473,0.338053 -0.189453,1.552734 l -0.03711,0.943652 -1.111328,0.01953 -0.609256,0.02149 C 27,14.999377 26.496168,14.297568 26.173828,14.069693 25.781794,13.64282 25.359183,13.151849 25.236328,12.97985 24.696981,12.224737 23.996496,12.0492 23.436275,12.561881 c -0.381689,0.349304 -0.438965,0.190293 -0.439454,1.46123 -2.92e-4,0.780782 -0.02435,1.062388 -0.0918,1.082031 -0.05014,0.0146 -0.400626,0.08297 -0.779297,0.152344 -0.378671,0.06938 -0.90512,0.188267 -1.047603,0.265625 -0.142483,0.07735 -0.311244,0.142578 -0.375,0.142578 -0.06376,0 -0.377199,0.07793 -0.695313,0.173828 -0.318118,0.0959 -0.812987,0.19632 -1.101562,0.22461 -0.288575,0.02829 -0.707549,0.116224 -0.929688,0.195312 -0.222138,0.07909 -0.468528,0.144531 -0.546874,0.144532 -0.288326,0 -1.881869,0.581073 -2.341797,0.853515 -0.733153,0.434291 -1.014642,0.659196 -2.126953,1.703125 -0.361723,0.339485 -1.021551,1.124314 -1.298829,1.544922 -0.134003,0.203273 -0.30352,0.436268 -0.375,0.517578 -0.07148,0.08131 -0.290599,0.465345 -0.488281,0.851563 -0.435412,0.850695 -0.8663008,2.50556 -0.791016,3.042968 0.02459,0.175542 0.07533,1.452528 0.111329,2.224966 0.06357,1.363984 0.07354,1.430282 0.361328,2.296875 0.162976,0.490762 0.36,1.041469 0.4375,1.224609 0.159313,0.376472 0.750589,0.942617 1.232422,1.179688 0.170573,0.08391 0.310547,0.189152 0.310547,0.232421 0,0.04325 -0.08112,0.253542 -0.181641,0.46875 -0.100511,0.215217 -0.229118,0.500923 -0.285156,0.757164 -0.05604,0.256242 -0.171594,0.729204 -0.25586,1.050782 -0.08426,0.321572 -0.152153,0.670096 -0.152343,0.77539 -1.43e-4,0.105293 -0.08244,0.390838 -0.181641,0.634766 -0.332452,0.817515 -0.170703,1.633635 0.400391,2.021484 0.209759,0.14246 0.327638,0.167924 0.658203,0.144532 0.504063,-0.03566 0.818925,-0.256717 1.023437,-0.71875 0.08206,-0.185381 0.212647,-0.460986 0.291016,-0.611329 0.07837,-0.150344 0.142578,-0.317568 0.142578,-0.371093 0,-0.0535 0.07031,-0.226044 0.154297,-0.384766 0.276897,-0.523323 0.662921,-1.770125 0.71289,-2.298828 0.03525,-0.372767 0.108088,-0.521281 0.25586,-0.776695 0.235884,-0.407725 0.276215,-0.41142 1.140625,-0.117188 0.260872,0.0888 0.714076,0.174771 0.764242,0.189453 0.07009,0.0205 0.09149,0.393253 0.0918,1.942711 2.14e-4,1.176184 0.03163,2.132436 0.07617,2.294922 0.09268,0.338046 0.49588,0.762964 0.818359,0.863281 0.423346,0.131698 0.657131,0.03889 1.178023,-0.230468 0.332917,-0.172157 0.543855,-0.342215 0.699219,-0.566407 l 0.220703,-0.320312 0.02344,-1.933594 c 0.01238,-1.063795 0.04456,-1.858182 0.07227,-1.88607 0.02775,-0.02787 1.941977,-0.05714 4.008907,-0.06641 l 3.757812,-0.01758 0.08789,0.179688 c 0.048,0.09915 0.133564,0.29666 0.191406,0.559898 0.05782,0.263239 0.211314,0.74508 0.339844,1.070313 0.128536,0.325239 0.348513,0.940316 0.488281,1.367187 0.312604,0.954743 0.534745,1.354633 0.884766,1.585938 0.706884,0.467138 1.623147,0.19167 1.908203,-0.574219 0.115917,-0.311449 0.09375,-1.196595 -0.03711,-1.513672 -0.06238,-0.151151 -0.145944,-0.539995 -0.1875,-0.865234 -0.04627,-0.362055 -0.156203,-0.763611 -0.283203,-1.035157 -0.262224,-0.56065 -0.350289,-0.897788 -0.201171,-0.897788 0.127732,0 0.521606,-0.205418 1.460937,-0.761719 0.390963,-0.231539 0.743483,-0.421875 0.783203,-0.421875 0.0942,0 0.135754,0.191061 0.216797,0.998047 0.03675,0.365891 0.117886,0.690267 0.181641,0.843101 0.06377,0.152836 0.16124,0.484568 0.216796,0.738281 0.521232,2.3802 0.575729,2.318866 1.089844,2.624041 0.643122,0.381749 1.311516,0.313907 1.75,-0.177734 0.142525,-0.159802 0.279307,-0.402015 0.304688,-0.539063 0.0644,-0.347691 -0.08009,-1.378666 -0.289063,-2.258806 -0.211319,-0.890016 -0.401139,-2.369679 -0.414062,-3.347008 -0.0087,-0.658827 0.0054,-0.732362 0.177734,-0.960937 0.102518,-0.136143 0.252029,-0.402751 0.332031,-0.591797 0.08,-0.189046 0.283284,-0.564707 0.451172,-0.833985 0.167887,-0.269276 0.383251,-0.712914 0.478516,-0.986328 0.160265,-0.459965 0.172406,-0.710088 0.173828,-2.100258 0.0012,-1.34719 -0.01714,-1.587548 -0.183594,-2.328125 -0.102095,-0.454266 -0.253678,-0.992038 -0.335937,-1.195312 -0.08226,-0.203273 -0.198273,-0.548969 -0.257813,-0.769531 -0.325968,-1.207446 -2.110076,-3.286632 -3.371213,-4.154005 -0.482148,-0.331604 -0.947265,-0.868466 -0.947265,-1.09375 0,-0.303461 -0.175779,-0.648738 -0.548828,-1.074218 -0.457151,-0.521392 -0.745718,-0.591142 -0.869144,-1.012011 -0.273932,-0.93405 -0.717011,-1.394531 -1.339844,-1.394531 z m 3.295041,6 c 1.042656,0.0018 1.709624,0.792764 1.529297,1.869141 -0.06095,0.363828 -0.517147,0.968323 -0.785156,1.041015 -0.357927,0.09708 -0.58084,0.114 -0.814453,0.05859 -0.706351,-0.167519 -1.262698,-0.71155 -1.353516,-1.322266 -0.123242,-0.828751 0.416438,-1.559922 1.208984,-1.636718 0.0727,-0.007 0.145332,-0.0099 0.214844,-0.0098 z m -5.898437,3 c 0.810331,0.0078 1.553097,0.633264 1.447265,1.527344 -0.108517,0.916802 -0.61742,1.436486 -1.4375,1.470703 -0.254614,0.01063 -0.559479,-0.01264 -0.679687,-0.05078 -0.285305,-0.09053 -0.642827,-0.428934 -0.773438,-0.734375 -0.132755,-0.310448 -0.133805,-1.012413 -0.002,-1.328125 0.05605,-0.134305 0.223182,-0.350526 0.371094,-0.480469 0.323251,-0.283944 0.705938,-0.407827 1.074266,-0.404298 z"/>
 <path style="fill:#8b9cbe" d="m 30.146365,11 c -0.318475,0 -0.678863,0.211909 -0.919922,0.541016 -0.13798,0.188377 -0.156473,0.338053 -0.189453,1.552734 l -0.03711,0.943652 -1.111328,0.01953 -0.609256,0.02149 C 27,14 26.496168,13.298191 26.173828,13.070316 c -0.392034,-0.426873 -0.814645,-0.917844 -0.9375,-1.089843 -0.539347,-0.755113 -1.239832,-0.93065 -1.800053,-0.417969 -0.381689,0.349304 -0.438965,0.190293 -0.439454,1.46123 -2.92e-4,0.780782 -0.02435,1.062388 -0.0918,1.082031 -0.05014,0.0146 -0.400626,0.08297 -0.779297,0.152344 -0.378671,0.06938 -0.90512,0.188267 -1.047603,0.265625 -0.142483,0.07735 -0.311244,0.142578 -0.375,0.142578 -0.06376,0 -0.377199,0.07793 -0.695313,0.173828 -0.318118,0.0959 -0.812987,0.19632 -1.101562,0.22461 -0.288575,0.02829 -0.707549,0.116224 -0.929688,0.195312 -0.222138,0.07909 -0.468528,0.144531 -0.546874,0.144532 -0.288326,0 -1.881869,0.581073 -2.341797,0.853515 -0.733153,0.434291 -1.014642,0.659196 -2.126953,1.703125 -0.361723,0.339485 -1.021551,1.124314 -1.298829,1.544922 -0.134003,0.203273 -0.30352,0.436268 -0.375,0.517578 -0.07148,0.08131 -0.290599,0.465345 -0.488281,0.851563 -0.435412,0.850695 -0.8663008,2.50556 -0.791016,3.042968 0.02459,0.175542 0.07533,1.452528 0.111329,2.224966 0.06357,1.363984 0.07354,1.430282 0.361328,2.296875 0.162976,0.490762 0.36,1.041469 0.4375,1.224609 0.159313,0.376472 0.750589,0.942617 1.232422,1.179688 0.170573,0.08391 0.310547,0.189152 0.310547,0.232421 0,0.04325 -0.08112,0.253542 -0.181641,0.46875 -0.100511,0.215217 -0.229118,0.500923 -0.285156,0.757164 -0.05604,0.256242 -0.171594,0.729204 -0.25586,1.050782 -0.08426,0.321572 -0.152153,0.670096 -0.152343,0.77539 -1.43e-4,0.105293 -0.08244,0.390838 -0.181641,0.634766 -0.332452,0.817515 -0.170703,1.633635 0.400391,2.021484 0.209759,0.14246 0.327638,0.167924 0.658203,0.144532 0.504063,-0.03566 0.818925,-0.256717 1.023437,-0.71875 0.08206,-0.185381 0.212647,-0.460986 0.291016,-0.611329 0.07837,-0.150344 0.142578,-0.317568 0.142578,-0.371093 0,-0.0535 0.07031,-0.226044 0.154297,-0.384766 0.276897,-0.523323 0.662921,-1.770125 0.71289,-2.298828 0.03525,-0.372767 0.108088,-0.521281 0.25586,-0.776695 0.235884,-0.407725 0.276215,-0.41142 1.140625,-0.117188 0.260872,0.0888 0.714076,0.174771 0.764242,0.189453 0.07009,0.0205 0.09149,0.393253 0.0918,1.942711 2.14e-4,1.176184 0.03163,2.132436 0.07617,2.294922 0.09268,0.338046 0.49588,0.762964 0.818359,0.863281 0.423346,0.131698 0.657131,0.03889 1.178023,-0.230468 0.332917,-0.172157 0.543855,-0.342215 0.699219,-0.566407 l 0.220703,-0.320312 0.02344,-1.933594 c 0.01238,-1.063795 0.04456,-1.858182 0.07227,-1.88607 0.02775,-0.02787 1.941977,-0.05714 4.008907,-0.06641 l 3.757812,-0.01758 0.08789,0.179688 c 0.048,0.09915 0.133564,0.29666 0.191406,0.559898 0.05782,0.263239 0.211314,0.74508 0.339844,1.070313 0.128536,0.325239 0.348513,0.940316 0.488281,1.367187 0.312604,0.954743 0.534745,1.354633 0.884766,1.585938 0.706884,0.467138 1.623147,0.19167 1.908203,-0.574219 0.115917,-0.311449 0.09375,-1.196595 -0.03711,-1.513672 -0.06238,-0.151151 -0.145944,-0.539995 -0.1875,-0.865234 -0.04627,-0.362055 -0.156203,-0.763611 -0.283203,-1.035157 -0.262224,-0.56065 -0.350289,-0.897788 -0.201171,-0.897788 0.127732,0 0.521606,-0.205418 1.460937,-0.761719 0.390963,-0.231539 0.743483,-0.421875 0.783203,-0.421875 0.0942,0 0.135754,0.191061 0.216797,0.998047 0.03675,0.365891 0.117886,0.690267 0.181641,0.843101 0.06377,0.152836 0.16124,0.484568 0.216796,0.738281 0.521232,2.3802 0.575729,2.318866 1.089844,2.624041 0.643122,0.381749 1.311516,0.313907 1.75,-0.177734 0.142525,-0.159802 0.279307,-0.402015 0.304688,-0.539063 0.0644,-0.347691 -0.08009,-1.378666 -0.289063,-2.258806 -0.211319,-0.890016 -0.401139,-2.369679 -0.414062,-3.347008 -0.0087,-0.658827 0.0054,-0.732362 0.177734,-0.960937 0.102518,-0.136143 0.252029,-0.402751 0.332031,-0.591797 0.08,-0.189046 0.283284,-0.564707 0.451172,-0.833985 0.167887,-0.269276 0.383251,-0.712914 0.478516,-0.986328 0.160265,-0.459965 0.172406,-0.710088 0.173828,-2.100258 0.0012,-1.34719 -0.01714,-1.587548 -0.183594,-2.328125 -0.102095,-0.454266 -0.253678,-0.992038 -0.335937,-1.195312 -0.08226,-0.203273 -0.198273,-0.548969 -0.257813,-0.769531 -0.325968,-1.207446 -2.110076,-3.286632 -3.371213,-4.154005 -0.482148,-0.331604 -0.947265,-0.868466 -0.947265,-1.09375 0,-0.303461 -0.175779,-0.648738 -0.548828,-1.074218 C 31.898202,12.88515 31.609635,12.8154 31.486209,12.394531 31.212277,11.460481 30.769198,11 30.146365,11 Z m 3.295041,6 c 1.042656,0.0018 1.709624,0.792764 1.529297,1.869141 -0.06095,0.363828 -0.517147,0.968323 -0.785156,1.041015 -0.357927,0.09708 -0.58084,0.114 -0.814453,0.05859 -0.706351,-0.167519 -1.262698,-0.71155 -1.353516,-1.322266 -0.123242,-0.828751 0.416438,-1.559922 1.208984,-1.636718 0.0727,-0.007 0.145332,-0.0099 0.214844,-0.0098 z m -5.898437,3 c 0.810331,0.0078 1.553097,0.633264 1.447265,1.527344 -0.108517,0.916802 -0.61742,1.436486 -1.4375,1.470703 -0.254614,0.01063 -0.559479,-0.01264 -0.679687,-0.05078 -0.285305,-0.09053 -0.642827,-0.428934 -0.773438,-0.734375 -0.132755,-0.310448 -0.133805,-1.012413 -0.002,-1.328125 0.05605,-0.134305 0.223182,-0.350526 0.371094,-0.480469 C 26.791954,20.120354 27.174641,19.996471 27.542969,20 Z"/>
</svg>
