<svg xmlns="http://www.w3.org/2000/svg" width="48" height="48" version="1">
 <rect style="opacity:0.2" width="40" height="40" x="4" y="5" rx="2" ry="2"/>
 <rect style="fill:#3c4164" width="40" height="40" x="4" y="4" rx="2" ry="2"/>
 <rect style="fill:#ff6a5b" width="8.561" height=".626" x="18.44" y="-1.12" transform="matrix(0.70710678,0.70710678,0.70710678,-0.70710678,0,0)"/>
 <path style="opacity:0.2" d="m 31.459816,13.838811 c 1.945362,-1.945362 2.205968,-4.8388116 2.205968,-4.8388116 0,0 -2.893449,0.2606064 -4.838811,2.2059686 -1.945362,1.945362 -1.366904,2.545669 -0.639865,3.272708 0.727039,0.72704 1.327346,1.305497 3.272708,-0.639865 z"/>
 <path style="fill:#5f5f5f" d="m 18.983411,20.147212 0.618766,1.205831 -0.587064,0.587065 2.34826,2.34826 4.717794,-4.832484 1.98401,-4.377418 c 0.325141,-0.576596 0.287311,-0.621758 -0.150626,-1.059695 L 27.575404,13.679624 C 27.111823,13.225201 27.216517,13.38434 26.696486,13.532911 l -2.594909,1.495888 z"/>
 <path style="fill:#797979" d="M 11.72014,12.797261 22.44592,23.52304 26.715728,19.126957 14.995462,9.5219393 Z"/>
 <rect style="opacity:0.2" width="2.443" height="7.635" x="18.04" y="-3.35" rx="1.245" ry="1.245" transform="matrix(0.70710678,0.70710678,0.70710678,-0.70710678,0,0)"/>
 <rect style="fill:#959595" width="2.443" height="7.635" x="17.34" y="-2.65" rx="1.245" ry="1.245" transform="matrix(0.70710678,0.70710678,0.70710678,-0.70710678,0,0)"/>
 <path style="fill:#ff5722" d="m 31.459816,12.838811 c 1.945362,-1.945362 2.205968,-4.8388113 2.205968,-4.8388113 0,0 -2.893449,0.2606064 -4.838811,2.2059683 -1.945362,1.945362 -1.366904,2.545669 -0.639865,3.272708 0.727039,0.72704 1.327346,1.305497 3.272708,-0.639865 z"/>
 <path style="fill:#ffee58" d="m 28.186856,13.479264 c -0.403966,-0.403966 -0.744202,-0.777113 -0.648982,-1.355295 0.01763,-0.01792 0.02763,-0.03221 0.04586,-0.05045 1.427254,-1.427254 3.549909,-1.619016 3.549909,-1.619016 0,0 -0.191761,2.122656 -1.619015,3.54991 -0.06078,0.06078 -0.11013,0.09945 -0.167406,0.153644 -0.472792,-0.0019 -0.802121,-0.320544 -1.16037,-0.678793 z"/>
 <rect style="opacity:0.2" width="2.443" height="7.635" x="25.6" y="-2.52" rx="1.245" ry="1.245" transform="matrix(0.70710678,0.70710678,0.70710678,-0.70710678,0,0)"/>
 <rect style="fill:#959595" width="2.443" height="7.635" x="24.9" y="-1.81" rx="1.245" ry="1.245" transform="matrix(0.70710678,0.70710678,0.70710678,-0.70710678,0,0)"/>
 <rect style="fill:#ff6a5b" width="8.561" height=".626" x="-49.44" y="-1.12" transform="rotate(-135)"/>
 <path style="fill:#5f5f5f" d="m 27.852789,29.016589 -1.205832,-0.618767 -0.587065,0.587066 -2.34826,-2.34826 4.832484,-4.717795 4.377418,-1.98401 c 0.576596,-0.325142 0.621758,-0.287311 1.059695,0.150626 l 0.339147,0.339148 c 0.454422,0.46358 0.295284,0.358885 0.146713,0.878917 l -1.495887,2.594909 z"/>
 <path style="fill:#797979" d="M 35.202739,36.27986 24.47696,25.554081 l 4.396083,-4.269809 9.605018,11.720266 z"/>
 <path style="opacity:0.2" d="m 8.4101046,40.890307 c 0.2595762,0.192548 0.7643275,0.146826 1.4263847,-0.259134 L 16.10272,35.16757 c 0,0 2.228969,-0.659197 3.004121,-1.458489 0.745528,-0.76874 1.31287,-2.931884 1.31287,-2.931884 l 3.153182,-0.231616 5.944032,-6.265083 -0.643249,-1.996251 1.976758,-2.109766 -1.012458,-1.012457 -1.012458,-1.012458 -2.109765,1.976758 -1.99625,-0.643249 -6.265083,5.944033 -0.231616,3.153181 c 0,0 -2.163145,0.567342 -2.931885,1.312869 -0.799292,0.775152 -1.45849,3.004122 -1.45849,3.004122 l -5.4636022,6.266231 c -0.4059594,0.662057 -0.4516812,1.166808 -0.2591339,1.426384 0.043597,0.05878 0.1099595,0.09126 0.1765779,0.123834 0.03257,0.06662 0.06506,0.132981 0.1238338,0.176578 z"/>
 <rect style="opacity:0.2" width="2.443" height="7.635" x="-51.25" y="-3.35" rx="1.245" ry="1.245" transform="rotate(-135)"/>
 <rect style="fill:#959595" width="2.443" height="7.635" x="-50.55" y="-2.65" rx="1.245" ry="1.245" transform="rotate(-135)"/>
 <path style="fill:#959595" d="m 8.4101046,39.890307 c 0.2595762,0.192548 0.7643275,0.146826 1.4263847,-0.259134 L 16.10272,34.16757 c 0,0 2.228969,-0.659197 3.004121,-1.458489 0.745528,-0.76874 1.31287,-2.931884 1.31287,-2.931884 l 3.153182,-0.231616 5.944032,-6.265083 -0.643249,-1.996251 1.976758,-2.109766 -1.012458,-1.012457 -1.012458,-1.012458 -2.109765,1.976758 -1.99625,-0.643249 -6.265083,5.944033 -0.231616,3.153181 c 0,0 -2.163145,0.567342 -2.931885,1.312869 -0.799292,0.775152 -1.45849,3.004122 -1.45849,3.004122 l -5.4636022,6.266231 c -0.4059594,0.662057 -0.4516812,1.166808 -0.2591339,1.426384 0.043597,0.05878 0.1099595,0.09126 0.1765779,0.123834 0.03257,0.06662 0.06506,0.132981 0.1238338,0.176578 z"/>
 <path style="opacity:0.4" d="m 16.709041,33.26313 c 0.339906,-0.137551 1.221232,-0.97428 1.514176,-1.142673 l -2.343674,-2.343674 c -0.168393,0.292943 -1.005122,1.17427 -1.142674,1.514175 -0.455973,1.082947 1.069121,2.432876 1.972172,1.972172 z"/>
 <path style="opacity:0.2" d="M 35.161189,17.540184 C 37.106551,15.594822 40,15.334216 40,15.334216 c 0,0 -0.260606,2.893449 -2.205968,4.838811 -1.945362,1.945363 -2.545669,1.366905 -3.272708,0.639865 -0.727039,-0.727039 -1.305496,-1.327347 0.639865,-3.272708 z"/>
 <path style="fill:#ff5722" d="M 35.161189,16.540184 C 37.106551,14.594822 40,14.334216 40,14.334216 c 0,0 -0.260606,2.893449 -2.205968,4.838811 -1.945362,1.945363 -2.545669,1.366905 -3.272708,0.639865 -0.727039,-0.727039 -1.305496,-1.327347 0.639865,-3.272708 z"/>
 <path style="fill:#ffee58" d="m 34.520736,19.813144 c 0.403966,0.403966 0.777113,0.744201 1.355295,0.648981 0.01792,-0.01763 0.03221,-0.02763 0.05045,-0.04586 1.427254,-1.427253 1.619015,-3.549908 1.619015,-3.549908 0,0 -2.122655,0.191761 -3.549908,1.619015 -0.06078,0.06078 -0.09945,0.110131 -0.153646,0.167406 0.0019,0.472793 0.320545,0.802122 0.678794,1.160371 z"/>
 <rect style="opacity:0.2" width="2.443" height="7.635" x="-43.69" y="-2.52" rx="1.245" ry="1.245" transform="rotate(-135)"/>
 <rect style="fill:#959595" width="2.443" height="7.635" x="-42.98" y="-1.81" rx="1.245" ry="1.245" transform="rotate(-135)"/>
 <path style="opacity:0.2;fill:#8b9cbe" d="m 20.419711,29.777197 -2.196907,-2.196908 8.492949,-8.453965 3.074937,-0.917014 -0.917014,3.074937 z"/>
 <path style="fill:#8b9cbe;opacity:0.1" d="M 6 4 C 4.892 4 4 4.892 4 6 L 4 7 C 4 5.892 4.892 5 6 5 L 42 5 C 43.108 5 44 5.892 44 7 L 44 6 C 44 4.892 43.108 4 42 4 L 6 4 z"/>
</svg>
