<svg xmlns="http://www.w3.org/2000/svg" xmlns:xlink="http://www.w3.org/1999/xlink" width="48" height="48" version="1.1">
 <defs>
  <linearGradient id="linearGradient933">
   <stop style="stop-color:#814f24" offset="0"/>
   <stop style="stop-color:#814f24;stop-opacity:0" offset="1"/>
  </linearGradient>
  <linearGradient id="linearGradient935" x1="18.282" x2="30.205" y1="18.229" y2="14.071" gradientUnits="userSpaceOnUse" xlink:href="#linearGradient933"/>
 </defs>
 <path style="opacity:0.2" d="M 16.541016,22 C 15.68759,22 15,22.818707 15,23.836297 V 34.350068 C 14.543396,35.03232 14.085511,35.574319 13.628906,35.49873 13.2926,35.443055 13,35.858644 13,36.305528 v 1.890994 c 0,0.446883 0.288024,0.806799 0.628906,0.806799 h 2.117188 c 0.552142,0.702147 -0.22949,2.992507 0.496094,2.992772 L 28,42 39.757812,41.9961 c 0.725584,-2.65e-4 -0.05605,-2.290625 0.496094,-2.992772 h 2.117188 C 42.711976,39.003321 43,38.643405 43,38.196522 V 36.305528 C 43,35.858644 42.7074,35.443059 42.371094,35.49873 41.914489,35.574319 41.456604,35.03232 41,34.350068 V 23.836297 C 41,22.818707 40.31241,22 39.458984,22 H 28 Z"/>
 <path style="fill:#c7b198" d="M 16.541016,21 C 15.68759,21 15,21.818707 15,22.836297 V 33.350068 C 14.543396,34.03232 14.085511,34.574319 13.628906,34.49873 13.2926,34.443055 13,34.858644 13,35.305528 v 1.890994 c 0,0.446883 0.288024,0.806799 0.628906,0.806799 h 2.117188 c 0.552142,0.702147 -0.22949,2.992507 0.496094,2.992772 L 28,41 39.757812,40.9961 c 0.725584,-2.65e-4 -0.05605,-2.290625 0.496094,-2.992772 h 2.117188 C 42.711976,38.003321 43,37.643405 43,37.196522 V 35.305528 C 43,34.858644 42.7074,34.443059 42.371094,34.49873 41.914489,34.574319 41.456604,34.03232 41,33.350068 V 22.836297 C 41,21.818707 40.31241,21 39.458984,21 H 28 Z"/>
 <rect style="fill:#17191e" width="3" height="8" x="21" y="29" rx="1.37" ry="1.283"/>
 <path style="fill:#17191e" d="m 21.879745,27.004113 c -0.308268,-0.01545 -0.428329,0.39439 -0.160449,0.547715 1.067206,0.351334 1.994324,0.982843 2.842268,1.772702 0.336536,0.19954 0.526018,-0.607293 0.189482,-0.806833 -1.007132,-0.73102 -1.867853,-1.096013 -2.732439,-1.470673 -0.04196,-0.02572 -0.08971,-0.04048 -0.138862,-0.04291 z"/>
 <path style="fill:#17191e" d="m 33.040017,26.951114 c 0.308268,-0.01545 0.428329,0.39439 0.160449,0.547715 -1.067206,0.351334 -1.994324,0.982842 -2.842268,1.772701 -0.336536,0.199541 -0.526018,-0.607292 -0.189482,-0.806833 1.007131,-0.731019 1.867852,-1.096012 2.732439,-1.470672 0.04196,-0.02572 0.08971,-0.04048 0.138862,-0.04291 z"/>
 <rect style="fill:#17191e" width="3" height="8" x="31" y="29" rx="1.37" ry="1.283"/>
 <rect style="fill:#a8271e" width="26" height="8" x="15" y="18"/>
 <path style="opacity:0.1" d="m 5.0142297,15.510969 c 0,0 6.2902993,2.408105 8.7754053,1.150887 1.865991,-0.944006 1.098729,-5.739021 1.098729,-5.739021 2.95529,0.528652 5.76314,1.587525 8.425635,1.042597 1.343632,-0.349667 0.28732,-1.909367 0.590715,-2.1633518 0,0 5.319024,-1.542058 7.682338,-1.7176945 C 36.463625,7.9099159 41.414058,13.665363 46,20.756657 L 40.88678,34.63 40.90346,29.884424 C 36.97146,27.16067 33.986733,24.522462 34.247048,20.46479 32.847154,24.556523 27.271247,28.163548 21.78464,27.13324 19.31812,26.670063 17.814146,26.401768 16.886831,25.553789 13.830474,27.398009 15.881645,31.173775 15,34.349977 13.678118,29.858876 10.462801,28.810353 9.7010066,27.497027 9.2405897,25.383197 7.6804968,22.811168 9.3376348,21.579653 Z"/>
 <path style="fill:#5c2e07" d="m 5.0142297,14.51106 c 0,0 6.2902993,2.408105 8.7754053,1.150887 1.865991,-0.944006 1.098729,-5.7390207 1.098729,-5.7390207 2.95529,0.5286517 5.76314,1.5875247 8.425635,1.0425967 1.343632,-0.349667 0.28732,-1.9093668 0.590715,-2.1633518 0,0 5.319024,-1.542058 7.682338,-1.7176945 C 36.463625,6.9100069 41.414058,12.665454 46,19.756748 l -5.11322,13.873343 0.01668,-4.745576 c -3.932,-2.723754 -6.916727,-5.361962 -6.656412,-9.419634 -1.399894,4.091733 -6.975801,7.698758 -12.462408,6.66845 C 19.31812,25.670154 17.814146,25.401859 16.886831,24.55388 13.830474,26.3981 15.881645,30.173866 15,33.350068 13.678118,28.858967 10.462801,27.810444 9.7010066,26.497118 9.2405897,24.383288 7.6804968,21.811259 9.3376348,20.579744 Z"/>
 <path style="opacity:0.1;fill:#8b9cbe" d="M 31.587891 7.0839844 C 29.224577 7.2596209 23.904297 8.8027344 23.904297 8.8027344 C 23.760359 8.9232307 23.91965 9.3416163 23.986328 9.78125 C 24.130134 9.7396553 29.257326 8.257187 31.587891 8.0839844 C 36.381031 7.9124995 41.242104 13.478622 45.761719 20.402344 L 46 19.755859 C 41.414058 12.664565 36.464464 6.9095146 31.587891 7.0839844 z M 14.888672 9.9238281 C 14.888672 9.9238281 14.949971 10.349165 14.996094 10.945312 C 17.911508 11.480018 20.684661 12.503079 23.314453 11.964844 C 24.163739 11.743825 24.052556 11.056495 23.933594 10.503906 C 23.840604 10.708318 23.656584 10.875808 23.314453 10.964844 C 20.651958 11.509772 17.843962 10.45248 14.888672 9.9238281 z M 15.033203 12.507812 C 14.984269 13.80505 14.70556 15.198453 13.789062 15.662109 C 11.303956 16.919327 5.0136719 14.511719 5.0136719 14.511719 L 5.9609375 15.841797 C 7.7846981 16.448776 11.880175 17.627818 13.789062 16.662109 C 14.950979 16.074295 15.09228 13.994506 15.033203 12.507812 z M 8.9296875 21.007812 C 8.6068 21.472022 8.5583936 22.049771 8.6425781 22.683594 C 8.7281675 22.254709 8.9373585 21.877737 9.3378906 21.580078 L 8.9296875 21.007812 z M 15.150391 28.960938 C 15.123565 29.788337 15.184129 30.669885 15.220703 31.564453 C 15.241595 30.685735 15.18554 29.811693 15.150391 28.960938 z M 40.900391 29.882812 L 40.886719 33.630859 L 40.890625 33.621094 L 40.904297 29.884766 C 40.903088 29.883928 40.901599 29.88365 40.900391 29.882812 z"/>
 <path style="opacity:0.2" d="M 2 16.333984 C 11.191618 28.427714 26.882687 25.09456 34.246094 20.464844 L 33.755859 19.748047 C 26.572076 24.009503 12.439242 26.880513 3.3320312 16.916016 C 2.8979535 16.704394 2.4588542 16.500918 2 16.333984 z"/>
 <path style="fill:url(#linearGradient935)" d="m 1.9999988,15.333124 c 2.4376382,0.886827 4.3813688,2.690221 7.3642271,2.371719 6.6031171,-0.705068 12.4557281,-5.867438 19.8475371,-5.60477 l 5.035282,7.364808 C 26.883638,24.094597 11.191617,27.426854 1.9999988,15.333124 Z"/>
</svg>
