<svg width="48" height="48" version="1.1" xmlns="http://www.w3.org/2000/svg">
 <rect x="4" y="5" width="40" height="40" rx="2" ry="2" style="opacity:.2"/>
 <rect x="4" y="4" width="40" height="40" rx="2" ry="2" style="fill:#522f17"/>
 <path d="m17.5823 13.711h6.131l7.039 17.902 3.096-1.008 1.031 3.467-6.676 1.928-4.49-11.383-6.584 10.375h-4.129l9.195-14.849-1.031-2.934h-3.582z" style="opacity:.2"/>
 <path d="m17.5823 12.711h6.131l7.039 17.902 3.096-1.008 1.031 3.467-6.676 1.928-4.49-11.383-6.584 10.375h-4.129l9.195-14.849-1.031-2.934h-3.582z" style="fill:#a38976"/>
 <path d="m6 4c-1.108 0-2 0.892-2 2v1c0-1.108 0.892-2 2-2h36c1.108 0 2 0.892 2 2v-1c0-1.108-0.892-2-2-2h-36z" style="fill:#8b9cbe;opacity:.1"/>
 <path d="m17.582031 12.710938v1h6.13086l7.039062 17.902343 3.095703-1.007812 0.757813 2.546875 0.273437-0.080078-1.03125-3.466797-3.095703 1.007812-7.039062-17.902343h-6.13086zm4.388672 6.792968-8.970703 14.488282h0.619141l8.576171-13.84961-0.224609-0.638672z" style="fill:#8b9cbe;opacity:.2"/>
</svg>
