<svg xmlns="http://www.w3.org/2000/svg" width="48" height="48" version="1.1">
 <path style="opacity:.2" d="M 22,9 C 19.659458,9 17.622804,10.44531 16.640625,12.453125 15.611995,11.650745 14.379239,11 13,11 H 10 C 7.6666667,11 5.3989028,12.756882 4.671875,14.210938 3.9448472,15.664993 4,17 4,17 V 34 C 4,34 3.944847,35.335007 4.671875,36.789062 5.3989028,38.243118 7.6666667,40 10,40 h 25 c 3.566667,0 6.507373,-1.864532 7.767578,-3.880859 C 44.027783,34.102813 44,32 44,32 V 17 c 0,0 0.05515,-1.335007 -0.671875,-2.789062 C 42.601097,12.756882 40.333333,11 38,11 H 30.371094 C 29.265498,9.7948846 27.721486,9 26,9 Z"/>
 <path style="fill:#bfbfbf" d="M 22,8 C 19.659458,8 17.622804,9.44531 16.640625,11.453125 15.611995,10.650745 14.379239,10 13,10 H 10 C 7.6666667,10 5.3989028,11.756882 4.671875,13.210938 3.9448472,14.664993 4,16 4,16 V 33 C 4,33 3.944847,34.335007 4.671875,35.789062 5.3989028,37.243118 7.6666667,39 10,39 h 25 c 3.566667,0 6.507373,-1.864532 7.767578,-3.880859 C 44.027783,33.102813 44,31 44,31 V 16 c 0,0 0.05515,-1.335007 -0.671875,-2.789062 C 42.601097,11.756882 40.333333,10 38,10 H 30.371094 C 29.265498,8.7948846 27.721486,8 26,8 Z"/>
 <path style="opacity:0.1" d="m22 13c-1.108 0-2 0.892-2 2v2c0 1.108 0.892 2 2 2h4c1.108 0 2-0.892 2-2v-2c0-1.108-0.892-2-2-2zm-12 2c-2 0-2 2-2 2v17s0 2 2 2h25c5 0 5-4 5-4v-15s0-2-2-2h-5.02677l0.02677 13c0.0041 1.999996-3 2-3 2h-13c-2 0-2-2-2-2v-11s0-2-2-2z"/>
 <path style="fill:#2e56b2" d="m22 12c-1.108 0-2 0.892-2 2v2c0 1.108 0.892 2 2 2h4c1.108 0 2-0.892 2-2v-2c0-1.108-0.892-2-2-2zm-12 2c-2 0-2 2-2 2v17s0 2 2 2h25c5 0 5-4 5-4v-15s0-2-2-2h-5.02677l0.02677 13c0.0041 1.999996-3 2-3 2h-13c-2 0-2-2-2-2v-11s0-2-2-2z"/>
 <path style="fill:#8b9cbe;opacity:.2" d="M 22 8 C 19.659458 8 17.622804 9.44531 16.640625 11.453125 C 15.611995 10.650745 14.379239 10 13 10 L 10 10 C 7.6666667 10 5.3989028 11.756881 4.671875 13.210938 C 3.9448472 14.664993 4 16 4 16 L 4 17 C 4 17 3.944847 15.664993 4.671875 14.210938 C 5.398903 12.756881 7.6666671 11 10 11 L 13 11 C 14.379239 11 15.611995 11.650745 16.640625 12.453125 C 17.622804 10.44531 19.659458 9 22 9 L 26 9 C 27.721486 9 29.265498 9.7948846 30.371094 11 L 38 11 C 40.333333 11 42.601097 12.756881 43.328125 14.210938 C 44.05515 15.664992 44 17 44 17 L 44 16 C 44 16 44.05515 14.664992 43.328125 13.210938 C 42.601097 11.756881 40.333333 10 38 10 L 30.371094 10 C 29.265498 8.7948846 27.721486 8 26 8 L 22 8 z"/>
</svg>
