<svg width="48" height="48" version="1.1" xmlns="http://www.w3.org/2000/svg">
 <rect x="4" y="5" width="40" height="40" ry="5" style="opacity:.2"/>
 <rect x="4" y="4" width="40" height="40" ry="5" style="fill:#91c1e1"/>
 <path d="m10 8c-1.662 0-3 1.338-3 3v28c0 1.662 1.338 3 3 3h5.472656l-0.226562-1.121094 0.271484-0.25-0.417969-2.863281 0.126953-0.126953-0.126953-0.160156 0.289063-2.228516-0.244141 0.03711-0.410156 0.722657s-1.785613-0.628692-2.734375-1.291016c1.163419-1.659541 1.650627-3.199464 1.912109-3.873047-0.491329-0.838609-0.449765-1.345458-0.128906-2.253906 0.03653-0.10343-0.246172-0.0063-0.320312-0.08789-0.717823-0.789649-0.480221-2.079148-0.525391-3.138672-0.06312-1.480422 0.576172-3.101562 0.576172-3.101562l-1.089844-1.556641 0.550781-0.935547-0.152343-0.203125 1.283203-1.771484 1.142578-0.785156c0.275445-2.703754 2.65625-1.910157 2.65625-1.910157 0 1e-6 0.01347-1.1329 0.166015-1.671874 0.169908-0.600308 0.671414-1.333984 1.25-1.421876 0.08266-0.01255 0.166882-0.0102 0.251954 0.0059 2.892018 0.546079 2.425781 1.771484 2.425781 1.771484l-0.308594 0.316406-0.152344 0.785157-0.117187 0.138672s-0.01302 0.585937-0.01172 0.785156c8.03e-4 0.11999-0.359375 0.0625-0.359375 0.0625s-0.05738 0.175236-0.103516 0.253906c-0.05185 0.0884-0.191406 0.240235-0.191406 0.240235 0-1e-6 0.05468 0.164984 0.02539 0.240234-0.04126 0.105974-0.257813 0.226562-0.257813 0.226562s0.807261 0.305853 0.951172 0.558594c0.154438 0.271228 0.513672 2.074219 0.513672 2.074219s-0.199685 0.605967-0.347656 0.734375c-0.125628 0.10902-0.5 0.03906-0.5 0.03906l-0.03906 0.150391 0.21875 0.05078-0.03906 0.316406 0.193359 0.46875-0.269531 0.519532 3.634766 1.833984 0.05469 0.259766 1.007813-0.08008s0.981746-0.135784 1.035156 0.115234c0.04184 0.196736-0.373577 0.14-0.582031 0.1875-0.08499 0.12707-0.445313 0.162109-0.445313 0.162109l0.345703 0.04492s0.433037 0.248001 0.865235 0.337891c0.432197 0.08989 0.862985 0.02199 0.822265 0.24414-0.03597 0.196247-1.296875 0.07031-1.296875 0.07031s0.314882 0.204671 0.664063 0.269531c0.349182 0.06485 0.73195-0.01016 0.6875 0.222656-0.04677 0.244956-1.388672 0.04492-1.388672 0.04492s0.227439 0.154309 0.466797 0.205078c0.239357 0.05077 0.49139-0.0017 0.46875 0.16211-0.04126 0.298643-1.261719-0.04492-1.261719-0.04492s0.119911 0.10064 0.277344 0.15625c0.157433 0.0556 0.352995 0.06707 0.322265 0.175781-0.05862 0.207303-1.314453-0.279297-1.314453-0.279297l-1.103515-0.632812-0.333985 0.404297-2.052734-0.859375s0.06665 0.922426 0.08398 1.384765c0.02039 0.544148-0.779297 0.429688-0.779297 0.429688s0.01668 1.382469 0.144532 2.058594c0.109103 0.576966 0.437673 1.101427 0.527343 1.68164 0.283484 1.834339 0.01758 5.566407 0.01758 5.566407l-1.035156 0.269531-0.01758-0.716797-0.472656-0.142578-0.01758 1.144531-0.21875 0.179687 0.18164 0.822266-0.416015 0.304688 0.199219 0.179687-0.05469 0.447266-0.5625 1.771484 0.03516 0.644531-0.18164 0.125 0.236328 0.03711s0.130953 0.339632 0.126953 0.517578c-0.005377 0.235934-0.214846 0.548796-0.214846 0.548796h4.337891s0.01844-1.169099 0.07617-2.34375c0.01965-0.399786 0.46168-0.979395 0.859375-0.978516 0.522926 0.0012 1.492187-0.02539 1.492187-0.02539s-0.358796-0.143156-0.378906-0.304688c-0.05451-0.43783 0.658203-2.416015 0.658203-2.416015l-0.177734 0.203125-0.873047 0.01367 0.203125-0.865235-0.228516-0.08594c-0.181156 0.232258-0.632812 0.582031-0.632812 0.582031l-0.0625 0.304687-1.251953 0.01367-0.115235-0.203125s-0.124143 0.05518-0.189453 0.05078c-0.115553 0.01481-0.408545-0.08056-0.328125-0.445312 0.110081-0.499284 0.443359-0.789062 0.443359-0.789062 0-1e-6 -0.176685-0.128242-0.166015-0.355469 0.01712-0.364395 0.04278-0.727085 0.05078-1.091797 0.0037-0.170359 0.271004-0.202883 0.402344 0.0098 0.196548 0.318227 0.408203 0.917968 0.408203 0.917968s0.648571-0.614499 1.058594-0.630859c0.245172-0.0098 0.662109 0.324219 0.662109 0.324219l0.09961 0.154296 0.279297-0.128906h0.164063l0.07617 0.128906 0.443359-0.01367 0.0625 0.101562 0.253906-0.152344-0.43164-0.330078-0.150391-0.636719s-0.260887-0.413814-0.279297-0.648437c-0.02936-0.374255 0.164063-0.443359 0.164063-0.443359l-0.404297-0.496094s-0.594215-1.613931 1.390625-2.492188c0.498015-0.220363 0.8865-0.316293 1.193359-0.330078 0.920579-0.04135 1.123454 0.656848 1.464844 0.953125 0.201479 0.174855 0.695312 0.394531 0.695312 0.394531 0 1e-6 0.368483 0.322911 0.669922 0.927735 0.397574 0.202212 0.353516 0.927734 0.353516 0.927734l-0.175781 0.203125-0.01367 0.978516-1.166016 0.808594h0.796875l0.125 0.107422v0.234374l0.0625-0.07227 0.402344 0.01758 0.107422-0.152344 0.402344 0.179688 0.269531-0.369141-0.207031-0.277344 0.519531-0.49414 0.554687-0.216797 0.285156-0.673828 0.07227 0.02734 0.294922-1.205078-0.125-0.08984 0.07227-0.521485 0.160156-0.07227-0.1875-0.02539 0.322266-0.863281-0.04492-0.117188 0.197265-0.332031 0.222657-0.02734 0.08008 0.04492-0.177735 0.296875 0.214844 0.1875 0.01758 1.601563-0.214844 0.09766-0.269531 1.267578 0.107422 0.07227-0.08008 0.251953 0.08984 0.05273-0.097663 0.279271 0.25586 1.050781s-0.519703 1.172614-1.212891 2.029297c-0.504558 0.03798-0.99414-0.01367-0.99414-0.01367l-0.0293-0.08984-0.242188 0.109376-0.207031 0.02344-0.22461-0.203125s0.829967 1.865805 0.810547 2.542969c-0.0038 0.133943-0.330078 0.228515-0.330078 0.228515s0.623641-0.0074 1.03711 0.01367c0.655866 0.03346 1.140411 0.442874 1.367187 0.623047 0.235572 0.187148 0.142581 2.68554 0.142581 2.68554h3.058594c1.662 0 3-1.338 3-3v-28c0-1.662-1.338-3-3-3z" style="opacity:.1"/>
 <path d="m10 7c-1.662 0-3 1.338-3 3v28c0 1.662 1.338 3 3 3h5.472656l-0.226562-1.121094 0.271484-0.25-0.417969-2.863281 0.126953-0.126953-0.126953-0.160156 0.289063-2.228516-0.244141 0.037109-0.410156 0.722657s-1.785613-0.628692-2.734375-1.291016c1.163419-1.659541 1.650627-3.199464 1.912109-3.873047-0.491329-0.838609-0.449765-1.345458-0.128906-2.253906 0.036531-0.10343-0.246172-0.006341-0.320312-0.087891-0.717823-0.789649-0.480221-2.079148-0.525391-3.138672-0.063116-1.480422 0.576172-3.101562 0.576172-3.101562l-1.089844-1.556641 0.550781-0.935547-0.152343-0.203125 1.283203-1.771484 1.142578-0.785156c0.275445-2.703754 2.65625-1.910157 2.65625-1.910157 0 1e-6 0.013466-1.1329 0.166015-1.671874 0.169908-0.600308 0.671414-1.333984 1.25-1.421876 0.082657-0.012554 0.166882-0.010204 0.251954 0.00586 2.892018 0.546079 2.425781 1.771484 2.425781 1.771484l-0.308594 0.316406-0.152344 0.785157-0.117187 0.138672s-0.013019 0.585937-0.011719 0.785156c8.03e-4 0.11999-0.359375 0.0625-0.359375 0.0625s-0.057375 0.175236-0.103516 0.253906c-0.051854 0.088402-0.191406 0.240235-0.191406 0.240235 0-1e-6 0.054681 0.164984 0.025391 0.240234-0.041258 0.105974-0.257813 0.226562-0.257813 0.226562s0.807261 0.305853 0.951172 0.558594c0.154438 0.271228 0.513672 2.074219 0.513672 2.074219s-0.199685 0.605967-0.347656 0.734375c-0.125628 0.10902-0.5 0.039062-0.5 0.039062l-0.039063 0.150391 0.21875 0.050781-0.039062 0.316406 0.193359 0.46875-0.269531 0.519532 3.634766 1.833984 0.054687 0.259766 1.007813-0.080078s0.981746-0.135784 1.035156 0.115234c0.041843 0.196736-0.373577 0.14-0.582031 0.1875-0.084991 0.12707-0.445313 0.162109-0.445313 0.162109l0.345703 0.044922s0.433037 0.248001 0.865235 0.337891c0.432197 0.089889 0.862985 0.021985 0.822265 0.24414-0.035967 0.196247-1.296875 0.070313-1.296875 0.070313s0.314882 0.204671 0.664063 0.269531c0.349182 0.064852 0.73195-0.010155 0.6875 0.222656-0.046771 0.244956-1.388672 0.044922-1.388672 0.044922s0.227439 0.154309 0.466797 0.205078c0.239357 0.050772 0.49139-0.001732 0.46875 0.16211-0.041264 0.298643-1.261719-0.044922-1.261719-0.044922s0.119911 0.10064 0.277344 0.15625c0.157433 0.055605 0.352995 0.067072 0.322265 0.175781-0.058619 0.207303-1.314453-0.279297-1.314453-0.279297l-1.103515-0.632812-0.333985 0.404297-2.052734-0.859375s0.066654 0.922426 0.083984 1.384765c0.020388 0.544148-0.779297 0.429688-0.779297 0.429688s0.016678 1.382469 0.144532 2.058594c0.109103 0.576966 0.437673 1.101427 0.527343 1.68164 0.283484 1.834339 0.017578 5.566407 0.017578 5.566407l-1.035156 0.269531-0.017578-0.716797-0.472656-0.142578-0.017578 1.144531-0.21875 0.179687 0.18164 0.822266-0.416015 0.304688 0.199219 0.179687-0.054688 0.447266-0.5625 1.771484 0.035156 0.644531-0.18164 0.125 0.236328 0.03711s0.130953 0.339632 0.126953 0.517578c-0.005375 0.235966-0.214844 0.548828-0.214844 0.548828h4.337891s0.018435-1.169099 0.076172-2.34375c0.019651-0.399786 0.46168-0.979395 0.859375-0.978516 0.522926 0.00116 1.492187-0.02539 1.492187-0.02539s-0.358796-0.143156-0.378906-0.304688c-0.054513-0.43783 0.658203-2.416015 0.658203-2.416015l-0.177734 0.203125-0.873047 0.013672 0.203125-0.865235-0.228516-0.085937c-0.181156 0.232258-0.632812 0.582031-0.632812 0.582031l-0.0625 0.304687-1.251953 0.013672-0.115235-0.203125s-0.124143 0.055181-0.189453 0.050781c-0.115553 0.014815-0.408545-0.080562-0.328125-0.445312 0.110081-0.499284 0.443359-0.789062 0.443359-0.789062 0-1e-6 -0.176685-0.128242-0.166015-0.355469 0.01712-0.364395 0.042781-0.727085 0.050781-1.091797 0.003739-0.170359 0.271004-0.202883 0.402344 0.009766 0.196548 0.318227 0.408203 0.917968 0.408203 0.917968s0.648571-0.614499 1.058594-0.630859c0.245172-0.009784 0.662109 0.324219 0.662109 0.324219l0.099609 0.154296 0.279297-0.128906h0.164063l0.076172 0.128906 0.443359-0.013671 0.0625 0.101562 0.253906-0.152344-0.43164-0.330078-0.150391-0.636719s-0.260887-0.413814-0.279297-0.648437c-0.029363-0.374255 0.164063-0.443359 0.164063-0.443359l-0.404297-0.496094s-0.594215-1.613931 1.390625-2.492188c0.498015-0.220363 0.8865-0.316293 1.193359-0.330078 0.920579-0.041355 1.123454 0.656848 1.464844 0.953125 0.201479 0.174855 0.695312 0.394531 0.695312 0.394531 0 1e-6 0.368483 0.322911 0.669922 0.927735 0.397574 0.202212 0.353516 0.927734 0.353516 0.927734l-0.175781 0.203125-0.013672 0.978516-1.166016 0.808594h0.796875l0.125 0.107422v0.234374l0.0625-0.072265 0.402344 0.017578 0.107422-0.152344 0.402344 0.179688 0.269531-0.369141-0.207031-0.277344 0.519531-0.49414 0.554687-0.216797 0.285156-0.673828 0.072266 0.027343 0.294922-1.205078-0.125-0.089843 0.072266-0.521485 0.160156-0.072265-0.1875-0.025391 0.322266-0.863281-0.044922-0.117188 0.197265-0.332031 0.222657-0.027344 0.080078 0.044922-0.177735 0.296875 0.214844 0.1875 0.017578 1.601563-0.214844 0.097656-0.269531 1.267578 0.107422 0.072266-0.080078 0.251953 0.089844 0.052734-0.097657 0.279297 0.25586 1.050781s-0.519703 1.172614-1.212891 2.029297c-0.504558 0.03798-0.99414-0.013672-0.99414-0.013672l-0.029297-0.089844-0.242188 0.109376-0.207031 0.023437-0.22461-0.203125s0.829967 1.865805 0.810547 2.542969c-0.003839 0.133943-0.330078 0.228515-0.330078 0.228515s0.623641-0.007418 1.03711 0.013672c0.655866 0.033459 1.140411 0.442874 1.367187 0.623047 0.235569 0.187155 0.142578 2.685547 0.142578 2.685547h3.058594c1.662 0 3-1.338 3-3v-28c0-1.662-1.338-3-3-3h-28z" style="fill:#3a405b"/>
 <path d="m9 4c-2.77 0-5 2.23-5 5v1c0-2.77 2.23-5 5-5h30c2.77 0 5 2.23 5 5v-1c0-2.77-2.23-5-5-5z" style="fill:#8b9cbe;opacity:.2"/>
</svg>
