<svg xmlns="http://www.w3.org/2000/svg" width="48" height="48" version="1">
 <path opacity=".2" d="m4.0117 24.5c-0.0041 0.167-0.0117 0.332-0.0117 0.5 0 11.08 8.92 20 20 20s20-8.92 20-20c0-0.16787-0.0076-0.33314-0.01172-0.5-0.264 10.846-9.076 19.5-19.988 19.5s-19.724-8.654-19.988-19.5z"/>
 <circle style="fill:#7a509e" cx="24" cy="24" r="20"/>
 <path fill="#fff" style="opacity:0.1" d="m24 4c-11.08 0-20 8.92-20 20 0 0.168 0.008 0.333 0.0117 0.5 0.2647-10.846 9.0763-19.5 19.988-19.5s19.724 8.6539 19.988 19.5c0.004-0.16686 0.0117-0.33213 0.0117-0.5 0-11.08-8.92-20-20-20z"/>
 <circle style="opacity:0.2" cx="-24" cy="25" r="14" transform="scale(-1,1)"/>
 <circle style="fill:#fae8a2" cx="-24" cy="24" r="14" transform="scale(-1,1)"/>
 <path style="opacity:0.2" d="m 25.3223,10.07518 a 14,14 0 0 1 5.0666,1.46972 c -0.0707,0.22407 0.0119,0.47684 0.2695,0.7 0.1743,0.15106 0.3171,0.38633 0.3171,0.52367 0,0.41979 -0.3794,1.06435 -0.6825,1.15801 -0.4025,0.1246 -0.2674,0.55412 0.2506,0.79142 0.2394,0.1099 0.5341,0.4263 0.6545,0.7028 0.1211,0.2772 0.2989,0.5502 0.3955,0.6069 0.0959,0.0574 0.175,0.2737 0.175,0.4816 0,0.2905 -0.133,0.4312 -0.5691,0.6055 -0.3122,0.1253 -0.686,0.2163 -0.8309,0.2023 -0.8337,-0.0784 -0.8918,0.4074 -0.1631,1.3566 0.3871,0.504 0.5733,0.6307 0.8372,0.567 0.2457,-0.0588 0.3801,0.0105 0.4921,0.2541 0.1176,0.2583 0.3108,0.3458 0.8295,0.3815 0.5103,0.0357 0.7385,0.1393 0.9296,0.4186 0.14,0.2037 0.3416,0.3689 0.4487,0.3689 0.10738,0 0.35952,0.1372 0.56056,0.3038 0.40908,0.3395 0.56882,0.3738 0.71225,0.1519 0.18956,-0.294 0.59857,-0.1456 1.20722,0.4375 0.5383,0.5152 0.60347,0.6531 0.52227,1.1004 -0.14448,0.7959 -0.57617,1.5022 -1.06911,1.7486 -0.43015,0.2149 -0.43855,0.238 -0.17773,0.5138 0.15001,0.1589 0.4074,0.329 0.57148,0.3787 0.4739,0.1442 0.20713,0.3248 -0.63847,0.4326 -0.86548,0.1099 -1.13442,0.4235 -0.7301,0.8512 0.22547,0.2387 0.2128,0.2835 -0.14903,0.5103 -0.707,0.4438 -1.26924,0.1722 -0.60564,-0.2926 0.42651,-0.2989 0.12824,-0.4207 -0.4977,-0.2037 -0.4991,0.1729 -0.5978,0.1631 -0.8925,-0.0931 -0.6055,-0.5243 -1.2635,0.2513 -0.7098,0.8365 0.3521,0.3731 0.2457,0.8225 -0.2107,0.8848 -0.2016,0.0273 -0.6202,0.2149 -0.931,0.4172 -0.3108,0.2016 -0.6496,0.3675 -0.7518,0.3675 -0.1022,0 -0.3906,0.2051 -0.6412,0.4557 -0.5082,0.5075 -0.7903,0.5719 -0.9338,0.2142 -0.1722,-0.4298 -0.1029,-0.6517 0.3612,-1.1578 0.3689,-0.4032 0.9688,-1.4742 0.9688,-1.7311 0,-0.1582 -0.6097,-0.0238 -0.9513,0.2093 -0.2135,0.1463 -0.5593,0.3346 -0.7686,0.42 -0.2226,0.091 -0.4536,0.3738 -0.5593,0.6832 -0.1645,0.4858 -0.2296,0.5278 -0.812,0.5278 h -0.6328 l -0.0959,1.1375 c -0.1148,1.3685 -0.2247,1.6457 -0.6944,1.7584 -0.3458,0.0833 -0.7147,0.6188 -0.7147,1.0374 0,0.1113 0.2485,0.3843 0.5523,0.6062 0.3766,0.2751 0.539,0.5089 0.5138,0.7378 -0.0315,0.2863 0.0336,0.3311 0.4389,0.301 0.2611,-0.0196 0.7147,0.0721 1.0059,0.2037 0.3451,0.1554 0.7189,0.2051 1.0696,0.1421 0.4032,-0.0721 0.5397,-0.0441 0.5397,0.1134 0,0.1162 0.1414,0.3332 0.3136,0.483 0.4256,0.3689 0.2499,0.5642 -0.4039,0.4466 -0.406,-0.0728 -0.5642,-0.0406 -0.6342,0.1344 -0.1491,0.3717 0.2289,0.9037 0.5796,0.8162 0.2226,-0.056 0.329,0.0203 0.3983,0.2828 0.0238,0.0931 0.0679,0.1722 0.1204,0.2394 a 14,14 0 0 1 -2.2155,0.6545 c 0.07,-0.1337 0.1498,-0.2555 0.2275,-0.3101 0.3605,-0.2548 0.119,-0.917 -0.3773,-1.036 -0.5061,-0.1218 -0.4263,-0.4501 0.1239,-0.5131 0.4823,-0.0546 0.9954,-0.5432 0.8344,-0.7931 -0.1085,-0.1673 -0.5698,-0.1428 -1.5029,0.0784 -0.4214,0.0994 -0.7091,-0.1008 -1.6856,-1.169 -0.5649,-0.6188 -0.9996,-0.8764 -1.4763,-0.8764 -0.182,0 -0.8309,-0.1673 -1.4427,-0.3717 -1.155,-0.3871 -1.6065,-0.3731 -1.5638,0.049 0.0882,0.8778 -0.4767,0.8484 -1.3972,-0.0714 -0.3836,-0.3829 -0.7343,-0.6601 -0.7798,-0.6167 -0.1757,0.1687 0.1407,0.9898 0.5103,1.3223 0.4683,0.4214 0.4914,0.6874 0.0791,0.8981 -0.2254,0.1162 -0.3213,0.3507 -0.357,0.8778 l -0.0476,0.7196 h -0.5852 c -0.2051,0 -0.3752,0.028 -0.5124,0.0805 a 14,14 0 0 1 -6.783,-11.5542 c 0.2142,-0.4578 0.1988,-0.7343 0,-1.0458 a 14,14 0 0 1 0.063,-0.7847 c 0.1274,-0.0063 0.2576,-0.0119 0.4074,-0.0056 0.7056,0.0294 1.3097,-0.2485 1.3097,-0.6027 0,-0.0749 0.2506,-0.3836 0.5565,-0.6853 0.3472,-0.3416 0.525,-0.644 0.4732,-0.8008 -0.0476,-0.1428 0.0546,-0.3731 0.2352,-0.5292 0.1757,-0.1526 0.3199,-0.3976 0.3199,-0.5446 0,-0.2345 0.1491,-0.2639 1.2278,-0.238 l 1.2278,0.0301 -0.021,1.2103 c -0.0364,2.1196 -0.3521,2.6698 -1.3258,2.3149 -0.4459,-0.1631 -1.5414,-0.0399 -1.8529,0.2072 -0.1127,0.0896 -0.2758,0.4144 -0.3619,0.7224 -0.0868,0.3073 -0.4074,0.84 -0.714,1.1823 -0.6202,0.6944 -0.6685,0.9653 -0.3129,1.7801 0.3101,0.7112 0.6447,0.6293 0.5782,-0.1421 l -0.049,-0.574 0.525,0.098 c 0.2905,0.0553 0.6545,0.2695 0.8176,0.4816 0.2324,0.3017 0.3409,0.3458 0.5152,0.2079 0.1218,-0.0966 0.2205,-0.3003 0.2205,-0.4515 0,-0.1512 0.1498,-0.3192 0.3318,-0.3745 0.1827,-0.0553 0.4326,-0.3304 0.5551,-0.6125 0.1967,-0.4508 0.1918,-0.5887 -0.0371,-1.1361 -0.2317,-0.5551 -0.2338,-0.6468 -0.0203,-0.8519 0.196,-0.1876 0.2975,-0.1939 0.5551,-0.0392 0.259,0.1547 0.3815,0.1435 0.6895,-0.063 0.2051,-0.1379 0.5642,-0.252 0.7966,-0.252 0.4725,0 0.6153,-0.2296 0.6153,-0.9898 0,-0.7021 0.4186,-0.9569 1.4154,-0.8652 0.6916,0.0637 0.8442,0.0182 1.4021,-0.4116 0.3451,-0.2653 0.8897,-0.9037 1.2117,-1.4203 0.322,-0.5166 0.6685,-1.0563 0.77,-1.1991 0.1456,-0.2065 0.1099,-0.4046 -0.175,-0.9667 l -0.3598,-0.707 0.7602,0.1029 c 1.3524,0.1827 1.6261,0.3577 1.0444,0.6699 -0.2268,0.1211 -0.2366,0.1834 -0.0616,0.3857 0.1148,0.1316 0.1687,0.3409 0.119,0.4648 -0.0497,0.1232 0.0133,0.4144 0.1393,0.6461 0.1267,0.2324 0.2324,0.5579 0.2366,0.7252 0.0133,0.5215 0.9065,0.9366 1.9019,0.8813 1.5078,-0.0833 1.6303,-0.0595 2.1658,0.4375 0.6692,0.6216 0.7553,0.9107 0.4438,1.4875 -0.3017,0.56 -0.8379,0.7833 -1.7661,0.7371 -0.8302,-0.0413 -0.924,0.0322 -0.7343,0.581 0.1617,0.4662 0.7035,0.6454 1.071,0.3542 0.2828,-0.2247 1.2579,-0.0511 1.5568,0.2779 0.1253,0.1372 0.3115,0.4984 0.413,0.8008 0.175,0.5222 0.2261,0.5544 1.0101,0.63 0.7826,0.0763 0.8582,0.0511 1.421,-0.4676 0.6279,-0.5782 0.7343,-1.0206 0.4319,-1.7822 -0.1344,-0.3374 -0.2338,-0.3927 -0.5922,-0.3269 -0.7098,0.1295 -0.9898,-0.1169 -0.9898,-0.875 0,-0.3675 0.0714,-0.7112 0.1589,-0.763 0.0868,-0.0518 0.1582,-0.2464 0.1582,-0.4333 0,-0.1869 0.0896,-0.4277 0.1981,-0.5334 0.1589,-0.154 0.1358,-0.2366 -0.1176,-0.4158 -0.1736,-0.1225 -0.4592,-0.2051 -0.6342,-0.1841 -0.1743,0.021 -0.6566,-0.0546 -1.0717,-0.1673 -0.5999,-0.1617 -0.7763,-0.2842 -0.8575,-0.5999 -0.154,-0.5992 -0.5299,-1.0801 -0.8449,-1.0801 -0.4977,0 -0.5082,-1.1704 -0.0245,-2.8728 0.0714,-0.2513 0.2681,-0.4109 0.6153,-0.497 0.2814,-0.07 0.5873,-0.2618 0.6797,-0.42686 0.0917,-0.16506 0.2604,-0.29946 0.3745,-0.29946 0.1141,0 0.3374,-0.13664 0.4949,-0.30352 0.1589,-0.168 0.4872,-0.30352 0.7371,-0.30352 0.5915,0 0.6013,-0.40726 0.0147,-0.62202 -0.6195,-0.22708 -1.5841,0.07056 -1.8172,0.56049 -0.3157,0.66437 -0.6664,0.38717 -0.7791,-0.61656 -0.1393,-1.24145 -0.5677,-1.59824 -1.918,-1.59824 h -0.9709 l 0.4256,-0.42518 c 0.1323,-0.13272 0.2422,-0.29491 0.3185,-0.45395 z m -5.033,0.44023 c 0.0273,0.02464 0.0539,0.0448 0.0805,0.07245 0.3248,0.33152 0.4774,0.37877 0.9793,0.30219 0.8764,-0.13363 0.7637,0.21924 -0.2065,0.64533 -0.5243,0.23037 -0.8617,0.49301 -0.9765,0.75873 -0.553,1.28212 -0.9338,1.97239 -1.1249,2.04239 -0.3864,0.1421 -0.6167,-0.14308 -0.7028,-0.87206 -0.0987,-0.83636 -0.3815,-1.01367 -0.8897,-0.55643 -0.1974,0.17745 -0.4732,0.32263 -0.6125,0.32263 -0.4347,0 -0.756,0.17451 -0.756,0.4102 0,0.12418 -0.147,0.42343 -0.3269,0.66556 -0.2653,0.3563 -0.4452,0.4417 -0.9408,0.4417 -0.6083,0 -0.9814,0.1141 -1.743,0.5348 -0.0119,0.0063 -0.0238,0.0084 -0.0357,0.0147 a 14,14 0 0 1 7.2555,-4.78219 z m 17.7079,13.4246 a 14,14 0 0 1 0.0027,0.0602 14,14 0 0 1 -0.27342,2.6894 c -0.50722,0.2065 -0.64736,0.1246 -0.7,-0.3472 -0.02723,-0.2443 -0.15477,-0.5208 -0.28441,-0.6167 -0.20027,-0.1477 -0.16415,-0.2233 0.24612,-0.5033 0.26558,-0.1813 0.52731,-0.4977 0.58107,-0.7028 0.05208,-0.1988 0.2282,-0.4158 0.42791,-0.5796 z m -4.40657,4.6277 c 0.1309,-0.0133 0.28861,0.0567 0.46361,0.2247 0.37023,0.3542 0.3143,1.0661 -0.10528,1.3475 -0.48083,0.3227 -0.66633,0.2289 -0.72723,-0.3661 -0.0749,-0.7336 0.0819,-1.176 0.3689,-1.2061 z m -2.3758,2.1168 c 0.1428,0.0049 0.3003,0.1071 0.4578,0.3227 0.1673,0.2282 0.2128,0.5229 0.1491,0.9702 -0.0791,0.5502 -0.0448,0.6678 0.2429,0.8155 0.3703,0.189 0.4494,0.7518 0.1463,1.0416 -0.301,0.2884 -0.588,0.2128 -0.6916,-0.182 -0.147,-0.5628 -0.9709,-0.6286 -1.5337,-0.1232 -0.2401,0.2156 -0.4361,0.3248 -0.4361,0.2422 0,-0.0826 0.2499,-0.3829 0.5551,-0.6657 0.4669,-0.434 0.5537,-0.6188 0.5537,-1.1774 0,-0.7882 0.2415,-1.2537 0.5565,-1.2439 z m 3.90173,1.8074 a 14,14 0 0 1 -0.32403,0.4088 c 0.09541,-0.1477 0.20433,-0.2891 0.32403,-0.4088 z m -4.71793,2.149 c 0.0707,0.0245 0.1008,0.1134 0.1008,0.2695 0,0.1582 0.1008,0.3241 0.224,0.3689 0.1638,0.0602 0.2016,0.2499 0.1386,0.7028 -0.0119,0.0847 -0.0154,0.1526 -0.0196,0.2233 a 14,14 0 0 1 -0.5824,0.2989 c 0.0098,-0.2422 -0.0343,-0.5271 -0.161,-0.8841 -0.2149,-0.6062 -0.2226,-0.7581 -0.0476,-0.8645 0.1638,-0.0994 0.2758,-0.1393 0.3472,-0.1148 z"/>
 <path style="fill:#8b9cbe;opacity:0.1" d="M 24 10 A 14 14 0 0 0 10 24 A 14 14 0 0 0 10.021484 24.414062 A 14 14 0 0 1 24 11 A 14 14 0 0 1 37.978516 24.585938 A 14 14 0 0 0 38 24 A 14 14 0 0 0 24 10 z"/>
</svg>
