<svg xmlns="http://www.w3.org/2000/svg" width="48" height="48" version="1">
 <rect style="fill:#d9b263" width="40" height="40" x="4" y="4" rx="2" ry="2"/>
 <path style="opacity:0.2;fill-rule:evenodd" d="M 24,10 A 16,15 0 0 0 8,25 16,15 0 0 0 24,40 16,15 0 0 0 40,25 16,15 0 0 0 24,10 Z m 0,3 A 11,12 0 0 1 35,25 11,12 0 0 1 24,37 11,12 0 0 1 13,25 11,12 0 0 1 24,13 Z m -6,8 0,8 1,0 c 0,-2 0,-2 5,-2 4,0 4,0 4,2 l 1,0 0,-8 -1,0 c 0,2 0,2 -4,2 -5,0 -5,0 -5,-2 l -1,0 z"/>
 <path fill="#fff" opacity=".2" d="m4 7v-1c0-1.108 0.892-2 2-2h36c1.108 0 2 0.892 2 2v1c0-1.108-0.892-2-2-2h-36c-1.108 0-2 0.892-2 2z"/>
 <path opacity=".2" d="m4 42v1c0 1.108 0.892 2 2 2h36c1.108 0 2-0.892 2-2v-1c0 1.108-0.892 2-2 2h-36c-1.108 0-2-0.892-2-2z"/>
 <path style="fill:#17191e;fill-rule:evenodd" d="M 24 9 A 16 15 0 0 0 8 24 A 16 15 0 0 0 24 39 A 16 15 0 0 0 40 24 A 16 15 0 0 0 24 9 z M 24 12 A 11 12 0 0 1 35 24 A 11 12 0 0 1 24 36 A 11 12 0 0 1 13 24 A 11 12 0 0 1 24 12 z"/>
 <path style="fill:#17191e;fill-rule:evenodd" d="m 18,20 0,8 1,0 c 0,-2 0,-2 5,-2 4,0 4,0 4,2 l 1,0 0,-8 -1,0 c 0,2 0,2 -4,2 -5,0 -5,0 -5,-2 z"/>
</svg>
