<svg width="48" height="48" version="1.1" xmlns="http://www.w3.org/2000/svg">
 <g>
  <path d="m20 5.0003507v38.806641c-0.05694 1.13884-0.116227 1.169921 0.976562 1.169921h6.107422c1.133662 0.121116 0.916016-0.225804 0.916016-1.242187v-38.734375zm8 0.027344c0 10.006938 0.06844 17.714219 2.001953 24.308594 1.825363 6.225519 5.462165 11.298958 11.160156 15.15039 0.844431 0.553608 1.100965 0.866963 1.625-0.339844l2.863282-4.90039c0.565095-0.967167 0.464284-0.968085-0.451172-1.546875-8.255899-6.022476-11.436757-18.651519-11.583985-31.712891-0.0053-0.8064957 0.072644-1.0793209-0.910156-0.9589843zm-8 0h-4.705078c-0.982803-0.1203366-0.904857 0.1524884-0.910156 0.9589841-0.147229 13.061372-3.328085 25.690415-11.583985 31.712891-0.9154558 0.57879-1.0162665 0.579708-0.4511718 1.546875l2.8632812 4.90039c0.524035 1.206807 0.7805692 0.893452 1.625 0.339844 5.6979904-3.851432 9.3347934-8.924872 11.160156-15.15039 1.933514-6.594374 2.001953-14.301656 2.001953-24.308594z" style="opacity:.2"/>
  <path d="m19.999893 4.0000002v38.805767c-0.05694 1.13884-0.116201 1.1712 0.976589 1.1712h6.107585c1.133662 0.121115 0.91604-0.227041 0.91604-1.243424v-38.733543zm8.000214 0.027328c0 10.006938 0.06849 17.713886 2.002006 24.30826 1.825363 6.225519 5.462463 11.299996 11.160454 15.151428 0.844431 0.553608 1.101009 0.867158 1.625044-0.339649l2.863358-4.901473c0.565095-0.967167 0.464272-0.967194-0.451184-1.545984-8.255899-6.022476-11.437066-18.652778-11.584294-31.71415-0.0053-0.8064957 0.07262-1.0787685-0.91018-0.958432zm-8.000214 0h-4.705203c-0.982803-0.1203364-0.904881 0.1519364-0.91018 0.9584321-0.147229 13.061372-3.328395 25.691674-11.584295 31.71415-0.9154559 0.57879-1.0162786 0.578817-0.4511839 1.545984l2.8633576 4.901473c0.524035 1.206807 0.7806126 0.893257 1.6250434 0.339649 5.6979907-3.851432 9.3350917-8.925909 11.160455-15.151428 1.933514-6.594374 2.002006-14.301322 2.002006-24.30826z" style="fill:#a901e7"/>
  <path d="m20 4v1h8v-1zm8 0.027344c0 0.3527646 0.0056 0.6528997 0.0059 1h4.699219c0.9828-0.1203365 0.904856 0.1524886 0.910156 0.9589843 0.147228 13.061372 3.328086 25.690415 11.583985 31.712891 0.237159 0.149942 0.418428 0.26024 0.548828 0.359375 0.416864-0.750798 0.291173-0.828291-0.548828-1.359375-8.25594-6.022476-11.436798-18.651519-11.584026-31.712891-0.0053-0.8064957 0.072644-1.0793209-0.910156-0.9589843zm-8 0h-4.705078c-0.982803-0.1203366-0.904857 0.1524884-0.910156 0.9589841-0.147229 13.061372-3.328085 25.690415-11.583985 31.712891-0.8400009 0.531084-0.9656924 0.608577-0.5488281 1.359375 0.1304002-0.099135 0.3116693-0.209433 0.5488281-0.359375 8.2558998-6.022476 11.436756-18.651519 11.583985-31.712891 0.0053-0.8064957-0.07265-1.0793208 0.910156-0.9589843h4.699219c2.49e-4 -0.3471003 0.005859-0.6472354 0.005859-0.9999998zm8 38.707031v0.769531c9e-3 -0.197044 0-0.433981 0-0.769531zm-8 0.07227c-0.02184 0.436841-0.04263 0.709003 0 0.880859z" style="fill:#8b9cbe;opacity:.2"/>
 </g>
</svg>
