<svg xmlns="http://www.w3.org/2000/svg" width="48" height="48" version="1.1">
 <rect style="opacity:.2" width="40" height="40" x="4" y="5" rx="2" ry="2"/>
 <rect style="fill:#44465a" width="40" height="40" x="4" y="4" rx="2" ry="2"/>
 <path style="fill:#8b9cbe;opacity:0.1" d="m6 4c-1.108 0-2 0.892-2 2v1c0-1.108 0.892-2 2-2h36c1.108 0 2 0.892 2 2v-1c0-1.108-0.892-2-2-2h-36z"/>
 <path style="opacity:0.2" d="m 32.446959,11.004027 c -0.625201,-0.0217 -2.104223,0.04389 -4.662489,0.205084 -1.989648,0.125368 -3.314737,0.192897 -4.470449,0.251275 l -0.533647,0.62449 -0.485638,-0.567215 c -0.08362,0.0034 -0.462788,0.02807 -0.517028,0.02956 -2.82583,0.07747 -6.324481,0.243886 -6.562568,0.312246 -0.245192,0.0704 -0.254206,0.236777 -0.158802,2.749234 0.05584,1.470581 0.155552,2.817639 0.221584,2.994963 0.112329,0.301652 0.203354,0.323331 1.412596,0.323331 0.710832,0 1.540006,0.06098 1.540006,0.06098 0,0 -0.474013,0.341309 -0.74969,0.511787 -0.409652,0.253325 -0.50041,0.397203 -0.50041,0.785231 0,0.880464 0.436933,6.003502 0.720146,8.434309 0.23112,1.983707 0.282519,3.360417 0.28252,7.748849 0,2.935423 0.04165,5.379414 0.09418,5.431952 0.192238,0.19235 0.758627,0.08998 0.893721,-0.162589 0.408362,-0.763473 1.33495,-3.360594 1.413281,-4.613465 0.06428,-1.028132 0.164341,-2.178324 0.164341,-2.178324 0,0 0.813038,2.114876 1.224249,2.617231 0.340787,0.279411 0.686352,0.50809 0.768157,0.50809 0.288471,0 0.338487,-0.603621 0.350841,-5.444063 0.0042,-1.66047 0.03589,-3.719481 0.06094,-5.762675 l -0.672137,-0.5783 0.685063,-0.587538 c 0.01135,-0.805879 0.01349,-1.77296 0.02585,-2.401884 l 0.08863,-4.34114 0.679522,0.03511 c 1.070661,0.0546 3.265456,0.836881 5.644158,2.003919 l 2.184444,1.071611 0.203119,-0.315941 c 0.334149,-0.519573 0.780714,-2.003772 1.02113,-3.397743 0.258538,-1.498954 0.2464,-6.03596 -0.01662,-6.298478 -0.02658,-0.02653 -0.140593,-0.04265 -0.348993,-0.04989 z"/>
 <path style="fill:#8b9cbe" d="m 32.446959,10.004026 c -0.625201,-0.021697 -2.104223,0.04389 -4.662489,0.205084 -1.989648,0.125368 -3.314737,0.192897 -4.470449,0.251275 l -0.533647,0.62449 -0.485638,-0.567215 c -0.08362,0.0034 -0.462788,0.02807 -0.517028,0.02956 -2.82583,0.07747 -6.324481,0.243886 -6.562568,0.312246 -0.245192,0.0704 -0.254206,0.236777 -0.158802,2.749234 0.05584,1.470581 0.155552,2.817639 0.221584,2.994963 0.112329,0.301652 0.203354,0.323331 1.412596,0.323331 0.710832,0 1.540006,0.06098 1.540006,0.06098 0,0 -0.474013,0.341309 -0.74969,0.511787 -0.409652,0.253325 -0.50041,0.397203 -0.50041,0.785231 0,0.880464 0.436933,6.003502 0.720146,8.434309 0.23112,1.983707 0.282519,3.360417 0.28252,7.748849 0,2.935423 0.04165,5.379414 0.09418,5.431952 0.192238,0.19235 0.758627,0.08998 0.893721,-0.162589 0.408362,-0.763473 1.33495,-3.360594 1.413281,-4.613465 0.06428,-1.028132 0.164341,-2.178324 0.164341,-2.178324 0,0 0.813038,2.114876 1.224249,2.617231 0.340787,0.279411 0.686352,0.50809 0.768157,0.50809 0.288471,0 0.338487,-0.603621 0.350841,-5.444063 0.0042,-1.66047 0.03589,-3.719481 0.06094,-5.762675 l -0.672137,-0.5783 0.685063,-0.587538 c 0.01135,-0.805879 0.01349,-1.77296 0.02585,-2.401884 l 0.08863,-4.34114 0.679522,0.03511 c 1.070661,0.0546 3.265456,0.836881 5.644158,2.003919 l 2.184444,1.071611 0.203119,-0.315941 c 0.334149,-0.519573 0.780714,-2.003772 1.02113,-3.397743 0.258538,-1.498954 0.2464,-6.03596 -0.01662,-6.298478 -0.02658,-0.02653 -0.140593,-0.04265 -0.348993,-0.04989 z"/>
</svg>
