<svg xmlns="http://www.w3.org/2000/svg" width="48" height="48" version="1">
 <path style="opacity:0.2" d="M 23.521503,6.000002 C 21.45033,6.0016646 19.370634,6.124686 17.435738,6.390627 14.565683,6.7851039 11.903362,7.4660961 9.5179918,8.5078145 8.7767919,8.8315056 8.0873116,9.1873466 7.4535968,9.5488301 7.1367395,9.7295719 6.8480433,9.9009745 6.510264,10.132815 c -1.3114324,1.00127 -1.7158607,1.556422 -2.1151748,2.593749 -0.3478429,0.887977 -0.3511733,1.819335 -0.3925673,2.708985 -0.00819,0.257683 0.00357,0.515613 0.035155,0.771484 0.9475224,5.535101 2.6166241,11.701521 5.1775886,16.449219 0.9419395,1.59305 2.0405915,3.17333 3.1815515,4.568359 1.146776,1.402129 2.195953,2.502185 3.728411,3.722657 1.602978,1.276642 3.132322,2.228725 5.115089,3.199218 0.214152,0.104822 0.4092,0.198039 0.578109,0.277344 0.08446,0.03965 0.158624,0.07479 0.2539,0.117188 0.04764,0.0212 0.09422,0.04333 0.199212,0.08594 0.0525,0.0213 0.113147,0.04499 0.259759,0.0957 0.07331,0.02536 0.16415,0.05836 0.347646,0.107422 0.09175,0.02453 0.2043,0.05435 0.386708,0.08789 C 23.44806,44.95151 24.171618,45 24.171876,45 c 0.0013,0 0.926633,-0.08173 1.130827,-0.128906 0.204194,-0.04718 0.321104,-0.08463 0.416004,-0.115235 0.189799,-0.06121 0.279384,-0.0983 0.355458,-0.128906 0.152147,-0.06121 0.227383,-0.09518 0.300774,-0.128906 0.146781,-0.06745 0.260971,-0.125152 0.390614,-0.189453 0.259285,-0.128603 0.555376,-0.278906 0.867162,-0.441406 0.623573,-0.325001 1.146245,-0.592202 1.744092,-0.953126 1.914307,-1.244104 3.560431,-2.503429 5.109227,-4.085933 l 0.0078,-0.0078 c 5.846477,-6.073431 8.423891,-13.98058 9.468484,-22.613281 0.03159,-0.25587 0.04335,-0.513801 0.03516,-0.771484 0.0011,-1.072218 -0.18295,-2.145014 -0.392573,-2.708985 C 43.262101,11.391215 42.410126,10.835458 41.489747,10.132815 41.151968,9.9009734 40.863274,9.7295726 40.546415,9.5488301 39.912698,9.1873452 39.223229,8.8315073 38.48202,8.5078145 36.096651,7.4660936 33.43433,6.7851039 30.564274,6.390627 28.464511,6.1020254 26.194337,5.9803941 23.951179,6.0019551 c -0.142764,-0.00118 -0.285268,-0.00204 -0.429676,-0.00195 z"/>
 <path style="fill:#b2bfd9" d="M 23.521503,5.000002 C 21.45033,5.0016646 19.370634,5.124686 17.435738,5.390627 14.565683,5.7851039 11.903362,6.4660961 9.5179918,7.5078145 8.7767919,7.8315056 8.0873116,8.1873466 7.4535968,8.5488301 7.1367395,8.7295719 6.8480433,8.9009745 6.510264,9.1328145 5.1988316,10.134085 4.7944033,10.689237 4.3950892,11.726564 c -0.3478429,0.887977 -0.3511733,1.819335 -0.3925673,2.708985 -0.00819,0.257683 0.00357,0.515613 0.035155,0.771484 0.9475224,5.535101 2.6166241,11.701521 5.1775886,16.449219 0.9419395,1.59305 2.0405915,3.17333 3.1815515,4.568359 1.146776,1.402129 2.195953,2.502185 3.728411,3.722657 1.602978,1.276642 3.132322,2.228725 5.115089,3.199218 0.214152,0.104822 0.4092,0.198039 0.578109,0.277344 0.08446,0.03965 0.158624,0.07479 0.2539,0.117188 0.04764,0.0212 0.09422,0.04333 0.199212,0.08594 0.0525,0.0213 0.113147,0.04499 0.259759,0.0957 0.07331,0.02536 0.16415,0.05836 0.347646,0.107422 0.09175,0.02453 0.2043,0.05435 0.386708,0.08789 C 23.44806,43.95151 24.171618,44 24.171876,44 c 0.0013,0 0.926633,-0.08173 1.130827,-0.128906 0.204194,-0.04718 0.321104,-0.08463 0.416004,-0.115235 0.189799,-0.06121 0.279384,-0.0983 0.355458,-0.128906 0.152147,-0.06121 0.227383,-0.09518 0.300774,-0.128906 0.146781,-0.06745 0.260971,-0.125152 0.390614,-0.189453 0.259285,-0.128603 0.555376,-0.278906 0.867162,-0.441406 0.623573,-0.325001 1.146245,-0.592202 1.744092,-0.953126 1.914307,-1.244104 3.560431,-2.503429 5.109227,-4.085933 l 0.0078,-0.0078 c 5.846477,-6.073431 8.423891,-13.98058 9.468484,-22.613281 0.03159,-0.25587 0.04335,-0.513801 0.03516,-0.771484 0.0011,-1.072218 -0.18295,-2.145014 -0.392573,-2.708985 C 43.262101,10.391215 42.410126,9.8354577 41.489747,9.1328145 41.151968,8.9009734 40.863274,8.7295726 40.546415,8.5488301 39.912698,8.1873452 39.223229,7.8315073 38.48202,7.5078145 36.096651,6.4660936 33.43433,5.7851039 30.564274,5.390627 28.464511,5.1020254 26.194337,4.9803941 23.951179,5.0019551 c -0.142764,-0.00118 -0.285268,-0.00204 -0.429676,-0.00195 z"/>
 <path style="opacity:0.2;fill:#8b9cbe" d="M 23.521484 5 C 21.450311 5.0016626 19.370443 5.124684 17.435547 5.390625 C 14.565492 5.7851019 11.902948 6.4660941 9.5175781 7.5078125 C 8.7763782 7.8315036 8.0868398 8.1873446 7.453125 8.5488281 C 7.1362677 8.7295699 6.8475449 8.9009725 6.5097656 9.1328125 C 5.1983332 10.134083 4.7938454 10.689235 4.3945312 11.726562 C 4.0466884 12.614539 4.0433471 13.545897 4.0019531 14.435547 C 3.995899 14.626027 4.011646 14.81604 4.0273438 15.005859 C 4.0601109 14.247881 4.1018172 13.473806 4.3945312 12.726562 C 4.7938454 11.689235 5.1983332 11.134082 6.5097656 10.132812 C 6.8475449 9.900972 7.1362677 9.7295699 7.453125 9.5488281 C 8.0868398 9.1873446 8.7763782 8.8315036 9.5175781 8.5078125 C 11.902948 7.4660941 14.565492 6.7851019 17.435547 6.390625 C 19.370443 6.124684 21.450311 6.0016626 23.521484 6 C 23.665892 5.99991 23.808408 6.0007731 23.951172 6.0019531 C 26.19433 5.9803921 28.46469 6.1020234 30.564453 6.390625 C 33.434509 6.7851019 36.097053 7.4660916 38.482422 8.5078125 C 39.223631 8.8315053 39.913158 9.1873432 40.546875 9.5488281 C 40.863734 9.7295706 41.152455 9.9009709 41.490234 10.132812 C 42.410613 10.835455 43.262665 11.391198 43.605469 12.726562 C 43.779768 13.195499 43.92936 14.018764 43.976562 14.898438 C 43.985987 14.744142 44.002961 14.590163 43.998047 14.435547 C 43.999147 13.363329 43.815092 12.290534 43.605469 11.726562 C 43.262665 10.391198 42.410613 9.8354557 41.490234 9.1328125 C 41.152455 8.9009714 40.863734 8.7295706 40.546875 8.5488281 C 39.913158 8.1873432 39.223631 7.8315053 38.482422 7.5078125 C 36.097053 6.4660916 33.434509 5.7851019 30.564453 5.390625 C 28.46469 5.1020234 26.19433 4.9803921 23.951172 5.0019531 C 23.808408 5.0007731 23.665892 4.99991 23.521484 5 z"/>
 <path style="opacity:0.2" d="m 23.524836,10.999998 c -1.868642,0.0015 -3.757803,0.116587 -5.409002,0.343529 -2.499128,0.343485 -4.747759,0.938618 -6.596325,1.745885 -1.045086,0.456389 -2.3775222,1.216426 -2.4442729,1.394213 -0.022342,0.05949 -0.056197,0.564414 -0.075237,1.122093 0.1412814,1.167571 0.3103935,2.305605 0.5104223,3.414158 0.094165,0.686452 0.3690068,2.069683 0.6383966,3.144127 0.379453,1.513449 0.625535,2.038938 1.248321,2.665925 0.377684,0.380232 0.665186,0.582507 1.233349,0.867678 0.821503,0.412323 1.785609,0.683198 3.532239,0.992415 1.079081,0.191042 2.10293,0.43967 2.955952,0.71791 5.414679,1.766191 10.181094,5.739699 10.41741,8.68438 0.01606,0.200015 0.03869,0.394379 0.05031,0.431971 0.03101,0.100319 0.371365,-0.205058 1.30578,-1.171691 4.864493,-5.053185 7.135141,-11.708701 8.10782,-19.746873 -0.01903,-0.557679 -0.0529,-1.062599 -0.07524,-1.122093 -0.06675,-0.177787 -1.399184,-0.937824 -2.444277,-1.394213 -1.84856,-0.807267 -4.097189,-1.4024 -6.596319,-1.745885 -1.791686,-0.246251 -3.863378,-0.360646 -5.8852,-0.341213 -0.157831,-0.0016 -0.315848,-0.0024 -0.47413,-0.0023 z m -9.096141,17.563565 c -0.331078,-0.0026 -0.587532,0.01596 -0.730227,0.0585 -0.123408,0.03677 -0.301049,0.145092 -0.396538,0.241794 -0.263765,0.267115 -0.222551,0.503253 0.217742,1.24788 0.804791,1.361061 1.794241,2.783238 2.746543,3.947566 0.586642,0.717249 2.336944,2.468744 2.974246,2.976286 1.41284,1.12518 2.390716,1.735547 4.197411,2.619835 C 23.825061,39.844936 24.15534,40 24.171787,40 c 0.0811,0 2.1099,-1.057374 2.621965,-1.366501 0.896737,-0.541348 1.5849,-1.019135 1.761916,-1.223306 0.08807,-0.101583 0.217828,-0.311918 0.28833,-0.46745 0.250496,-0.552632 0.144906,-1.290955 -0.291649,-2.038546 -1.508328,-2.582975 -6.32254,-5.163787 -11.271777,-6.042659 -1.03398,-0.18361 -2.123506,-0.292215 -2.851877,-0.297965 z"/>
 <path style="fill:#0087db" d="m 23.524836,10.000001 c -1.868642,0.0015 -3.757803,0.116587 -5.409002,0.343529 -2.499128,0.343485 -4.747759,0.938618 -6.596325,1.745885 -1.045086,0.456389 -2.3775222,1.216426 -2.4442729,1.394213 -0.022342,0.05949 -0.056197,0.564414 -0.075237,1.122093 0.1412814,1.167571 0.3103935,2.305605 0.5104223,3.414158 0.094165,0.686452 0.3690068,2.069683 0.6383966,3.144127 0.379453,1.513449 0.625535,2.038938 1.248321,2.665925 0.377684,0.380232 0.665186,0.582507 1.233349,0.867678 0.821503,0.412323 1.785609,0.683198 3.532239,0.992415 1.079081,0.191042 2.10293,0.43967 2.955952,0.71791 5.414679,1.766191 10.181094,5.739699 10.41741,8.68438 0.01606,0.200015 0.03869,0.394379 0.05031,0.431971 0.03101,0.100319 0.371365,-0.205058 1.30578,-1.171691 4.864493,-5.053185 7.135141,-11.708701 8.10782,-19.746873 -0.01903,-0.557679 -0.0529,-1.062599 -0.07524,-1.122093 -0.06675,-0.177787 -1.399184,-0.937824 -2.444277,-1.394213 -1.84856,-0.807267 -4.097189,-1.4024 -6.596319,-1.745885 -1.791686,-0.246251 -3.863378,-0.360646 -5.8852,-0.341213 -0.157831,-0.0016 -0.315848,-0.0024 -0.47413,-0.0023 z m -9.096141,17.563565 c -0.331078,-0.0026 -0.587532,0.01596 -0.730227,0.0585 -0.123408,0.03677 -0.301049,0.145092 -0.396538,0.241794 -0.263765,0.267115 -0.222551,0.503253 0.217742,1.24788 0.804791,1.361061 1.794241,2.783238 2.746543,3.947566 0.586642,0.717249 2.336944,2.468744 2.974246,2.976286 1.41284,1.12518 2.390716,1.735547 4.197411,2.619835 0.387189,0.189512 0.717468,0.344576 0.733915,0.344576 0.0811,0 2.1099,-1.057374 2.621965,-1.366501 0.896737,-0.541348 1.5849,-1.019135 1.761916,-1.223306 0.08807,-0.101583 0.217828,-0.311918 0.28833,-0.46745 0.250496,-0.552632 0.144906,-1.290955 -0.291649,-2.038546 -1.508328,-2.582975 -6.32254,-5.163787 -11.271777,-6.042659 -1.03398,-0.18361 -2.123506,-0.292215 -2.851877,-0.297965 z"/>
 <circle style="opacity:0.2" cx="9" cy="12" r="7"/>
 <circle style="fill:#e6e6e6" cx="9" cy="11" r="7"/>
 <circle style="opacity:0.2" cx="9" cy="12" r="4"/>
 <circle style="fill:#4f4f4f" cx="9" cy="11" r="4"/>
 <path style="opacity:0.2;fill:#8b9cbe" d="M 9 4 A 7 7 0 0 0 2 11 A 7 7 0 0 0 2.0234375 11.541016 A 7 7 0 0 1 9 5 A 7 7 0 0 1 15.976562 11.458984 A 7 7 0 0 0 16 11 A 7 7 0 0 0 9 4 z"/>
</svg>
