<svg xmlns="http://www.w3.org/2000/svg" height="48" width="48" version="1.1">
 <rect style="opacity:.2" ry="2" height="10" width="28" y="25" x="10"/>
 <path d="m24 5c12 0 12 6 12 6v28l-12 6-12-6v-28s0-6 12-6z" style="opacity:.2"/>
 <rect style="fill:#d01818" ry="2" height="10" width="28" y="24" x="10"/>
 <path style="opacity:.1;fill:#8b9cbe" d="m12 24c-1.108 0-2 0.892-2 2v1c0-1.108 0.892-2 2-2h24c1.108 0 2 0.892 2 2v-1c0-1.108-0.892-2-2-2z"/>
 <path d="m24 4c12 0 12 6 12 6v28l-12 6-12-6v-28s0-6 12-6z" style="fill:#f15555"/>
 <path style="opacity:.2" d="m20 13v12h-8v10h8v8l4 2 4-2v-8h8v-10h-8v-12l-4 4z"/>
 <path style="fill:#b2bfd9" d="m20 12v12h-8v10h8v8l4 2 4-2v-8h8v-10h-8v-12l-4 4z"/>
 <path style="fill:#17191e" d="m16.128906 26.128906a3 3 0 0 0 -2.128906 2.871094 3 3 0 0 0 3 3 3 3 0 0 0 2.867188 -2.132812zm15.738282 0.004-3.738282 3.738282a3 3 0 0 0 2.871094 2.128812 3 3 0 0 0 3 -3 3 3 0 0 0 -2.132812 -2.867188z"/>
 <path style="opacity:.2;fill:#8b9cbe" d="m24 4c-12 0-12 6-12 6v1s0-6 12-6 12 6 12 6v-1s0-6-12-6z"/>
</svg>
