<svg xmlns="http://www.w3.org/2000/svg" width="48" height="48" version="1">
 <circle fill="#56aad4" cx="24" cy="24" r="20"/>
 <path opacity=".2" d="m22.656 5.0488a20 20 0 0 0 -0.336 0.0332c0.113-0.0099 0.223-0.0252 0.336-0.0332zm-1.635 0.1914a20 20 0 0 0 -0.818 0.1407c0.271-0.0534 0.544-0.098 0.818-0.1407zm-1.574 0.3086c-0.204 0.0481-0.411 0.0909-0.613 0.1446l0.023 0.0234a20 20 0 0 1 0.59 -0.168zm-0.59 0.168a20 20 0 0 0 -2.144 0.6816l8.715 8.7166a10 10 0 0 0 -1.428 -0.115h-17.299a20 20 0 0 0 -1.0213 2h12.336a10 10 0 0 0 -1.082 0.934l-0.004-0.004-12.006 12.004a20 20 0 0 0 0.7694 2.06l8.4216-8.422a10 10 0 0 0 -0.115 1.428v16.299a20 20 0 0 0 2 1.021v-11.336a10 10 0 0 0 0.934 1.082l-0.004 0.004 11.424 11.424a20 20 0 0 0 2.203 -0.623l-7.985-7.986a10 10 0 0 0 1.428 0.115h16.686a20 20 0 0 0 1.15 -2h-11.852a10 10 0 0 0 1.082 -0.934l0.004 0.004 12.211-12.209a20 20 0 0 0 -0.689 -2.14l-8.707 8.707a10 10 0 0 0 0.115 -1.428v-17.299a20 20 0 0 0 -2 -1.0213v12.336a10 10 0 0 0 -0.934 -1.082l0.004-0.004-12.213-12.213zm23.735 12.004l0.021-0.022c-0.07-0.179-0.155-0.349-0.23-0.525a20 20 0 0 1 0.209 0.547zm0.689 2.14a20 20 0 0 1 0.174 0.61c-0.049-0.212-0.093-0.426-0.148-0.635l-0.026 0.025zm-26.568-13.463l-0.014-0.0136c-0.085 0.0333-0.165 0.0768-0.25 0.1113a20 20 0 0 1 0.264 -0.0977zm-1.664 0.7227a20 20 0 0 0 -0.576 0.3144c0.192-0.1042 0.38-0.2163 0.576-0.3144zm-1.629 0.918a20 20 0 0 0 -0.609 0.4043c0.201-0.1364 0.402-0.2753 0.609-0.4043zm21.504 0.2285c0.143 0.0935 0.293 0.1783 0.433 0.2754a20 20 0 0 0 -0.433 -0.2754zm-23.057 0.8515a20 20 0 0 0 -0.562 0.4454c0.184-0.1519 0.372-0.3001 0.562-0.4454zm24.942 0.5254c0.148 0.1239 0.285 0.2607 0.429 0.3885a20 20 0 0 0 -0.429 -0.3885zm-26.397 0.7055a20 20 0 0 0 -0.4921 0.461c0.1591-0.159 0.3271-0.308 0.4921-0.461zm27.766 0.558c0.166 0.168 0.324 0.344 0.484 0.518a20 20 0 0 0 -0.484 -0.518zm-29.2 0.91a20 20 0 0 0 -0.3242 0.362c0.1038-0.125 0.2174-0.24 0.3242-0.362zm30.452 0.481c0.158 0.192 0.312 0.387 0.463 0.586a20 20 0 0 0 -0.463 -0.586zm-31.887 1.344a20 20 0 0 0 -0.2754 0.433c0.0935-0.143 0.1783-0.293 0.2754-0.433zm32.986 0.132c0.15 0.221 0.302 0.441 0.444 0.668a20 20 0 0 0 -0.444 -0.668zm0.992 1.625c0.122 0.223 0.252 0.441 0.366 0.668a20 20 0 0 0 -0.366 -0.668zm-36.619 3.664a20 20 0 0 0 -0.0214 0.073c0.0073-0.024 0.014-0.049 0.0214-0.073zm-0.4961 1.93a20 20 0 0 0 -0.0175 0.102c0.0066-0.034 0.0107-0.068 0.0175-0.102zm39.213 0.205c0.056 0.283 0.101 0.571 0.145 0.858a20 20 0 0 0 -0.145 -0.858zm-39.514 1.764a20 20 0 0 0 -0.0117 0.146c0.0045-0.048 0.0067-0.098 0.0117-0.146zm39.798 0.244c0.041 0.436 0.055 0.88 0.069 1.324a20 20 0 0 0 0.002 -0.013 20 20 0 0 0 -0.071 -1.311z"/>
 <path fill="#fff" d="m22.656 4.0488a20 20 0 0 0 -0.336 0.0332c0.113-0.0099 0.223-0.0252 0.336-0.0332zm-1.635 0.1914a20 20 0 0 0 -0.818 0.1407c0.271-0.0534 0.544-0.098 0.818-0.1407zm-1.574 0.3086a20 20 0 0 0 -2.998 0.9473c0.085-0.0345 0.165-0.078 0.25-0.1113l8.729 8.7302a10 10 0 0 0 -1.428 -0.115h-17.299a20 20 0 0 0 -1.0213 2h12.336a10 10 0 0 0 -1.082 0.934l-0.004-0.004-12.237 12.234c-0.0551-0.209-0.0986-0.423-0.1481-0.635a20 20 0 0 0 1.0723 3.297c-0.0748-0.176-0.1606-0.346-0.2305-0.525l8.7283-8.729a10 10 0 0 0 -0.115 1.428v17.299a20 20 0 0 0 2 1.021v-12.336a10 10 0 0 0 0.934 1.082l-0.004 0.004 12.236 12.237c-0.202 0.053-0.409 0.096-0.613 0.144a20 20 0 0 0 2.998 -0.947c-0.085 0.034-0.165 0.078-0.25 0.111l-8.729-8.73a10 10 0 0 0 1.428 0.115h17.299a20 20 0 0 0 1.021 -2h-12.336a10 10 0 0 0 1.082 -0.934l0.004 0.004 12.237-12.234c0.055 0.209 0.099 0.423 0.148 0.635a20 20 0 0 0 -1.072 -3.297c0.075 0.176 0.16 0.346 0.23 0.525l-8.728 8.729a10 10 0 0 0 0.115 -1.428v-17.299a20 20 0 0 0 -2 -1.0213v12.336a10 10 0 0 0 -0.934 -1.082l0.004-0.004-12.236-12.237c0.202-0.0533 0.409-0.0961 0.613-0.1442zm-4.398 1.5723a20 20 0 0 0 -0.576 0.3144c0.192-0.1042 0.38-0.2163 0.576-0.3144zm-1.629 0.918a20 20 0 0 0 -0.609 0.4043c0.201-0.1364 0.402-0.2753 0.609-0.4043zm21.504 0.2285c0.143 0.0935 0.293 0.1783 0.433 0.2754a20 20 0 0 0 -0.433 -0.2754zm-23.057 0.8515a20 20 0 0 0 -0.562 0.4454c0.184-0.1519 0.372-0.3001 0.562-0.4454zm24.942 0.5254c0.148 0.1239 0.285 0.2607 0.429 0.3887a20 20 0 0 0 -0.429 -0.3887zm-26.397 0.7051a20 20 0 0 0 -0.4921 0.4609c0.1591-0.1583 0.3271-0.308 0.4921-0.4609zm27.766 0.5586c0.166 0.1678 0.324 0.3438 0.484 0.5178a20 20 0 0 0 -0.484 -0.5178zm-29.2 0.9098a20 20 0 0 0 -0.3242 0.362c0.1038-0.125 0.2174-0.24 0.3242-0.362zm30.452 0.481c0.158 0.192 0.312 0.387 0.463 0.586a20 20 0 0 0 -0.463 -0.586zm-31.887 1.344a20 20 0 0 0 -0.2754 0.433c0.0935-0.143 0.1783-0.293 0.2754-0.433zm32.986 0.132c0.15 0.221 0.302 0.441 0.444 0.668a20 20 0 0 0 -0.444 -0.668zm0.992 1.625c0.122 0.223 0.252 0.441 0.366 0.668a20 20 0 0 0 -0.366 -0.668zm-36.619 3.664a20 20 0 0 0 -0.0214 0.073c0.0073-0.024 0.014-0.049 0.0214-0.073zm-0.4961 1.93a20 20 0 0 0 -0.0175 0.102c0.0066-0.034 0.0107-0.068 0.0175-0.102zm39.213 0.205c0.056 0.283 0.101 0.571 0.145 0.858a20 20 0 0 0 -0.145 -0.858zm-39.514 1.764a20 20 0 0 0 -0.0117 0.146c0.0045-0.048 0.0068-0.098 0.0117-0.146zm39.798 0.244c0.056 0.591 0.094 1.187 0.094 1.793 0 0.027-0.002 0.053-0.002 0.08a20 20 0 0 0 0.004 -0.08 20 20 0 0 0 -0.096 -1.793zm-39.9 1.713a20 20 0 0 0 -0.0039 0.08 20 20 0 0 0 0.0957 1.793c-0.0556-0.591-0.0937-1.187-0.0937-1.793 0-0.027 0.0018-0.053 0.0019-0.08zm39.902 1.971c-0.004 0.048-0.007 0.098-0.011 0.146a20 20 0 0 0 0.011 -0.146zm-39.67 1.052a20 20 0 0 0 0.1446 0.858c-0.0557-0.283-0.1006-0.571-0.1446-0.858zm39.375 0.961c-0.006 0.034-0.01 0.068-0.017 0.102a20 20 0 0 0 0.017 -0.102zm-0.492 1.959c-0.007 0.024-0.014 0.049-0.021 0.073a20 20 0 0 0 0.021 -0.073zm-37.006 3.069a20 20 0 0 0 0.3652 0.668c-0.1218-0.223-0.2517-0.441-0.3652-0.668zm0.914 1.625a20 20 0 0 0 0.4434 0.668c-0.1499-0.221-0.3022-0.441-0.4434-0.668zm33.705 0.367c-0.093 0.143-0.178 0.293-0.275 0.433a20 20 0 0 0 0.275 -0.433zm-32.625 1.191a20 20 0 0 0 0.4629 0.586c-0.1582-0.192-0.3118-0.387-0.4629-0.586zm31.239 0.705c-0.104 0.125-0.218 0.24-0.325 0.362a20 20 0 0 0 0.325 -0.362zm-30.008 0.754a20 20 0 0 0 0.4844 0.518c-0.1665-0.168-0.324-0.344-0.4844-0.518zm28.742 0.615c-0.159 0.159-0.327 0.308-0.492 0.461a20 20 0 0 0 0.492 -0.461zm-27.318 0.778a20 20 0 0 0 0.429 0.388c-0.148-0.123-0.285-0.26-0.429-0.388zm25.933 0.469c-0.184 0.151-0.372 0.3-0.562 0.445a20 20 0 0 0 0.562 -0.445zm-24.052 1.021a20 20 0 0 0 0.433 0.275c-0.143-0.093-0.293-0.178-0.433-0.275zm22.56 0.09c-0.212 0.144-0.424 0.288-0.642 0.424a20 20 0 0 0 0.642 -0.424zm-1.641 0.996c-0.204 0.111-0.404 0.231-0.613 0.336a20 20 0 0 0 0.613 -0.336zm-5.763 2.076c-0.281 0.055-0.565 0.101-0.85 0.145a20 20 0 0 0 0.85 -0.145zm-2.088 0.295c-0.123 0.011-0.244 0.028-0.367 0.037a20 20 0 0 0 0.367 -0.037z"/>
 <path fill="#fff" opacity=".2" d="m24 4a20 20 0 0 0 -20 20 20 20 0 0 0 0.0215 0.582 20 20 0 0 1 19.978 -19.582 20 20 0 0 1 19.979 19.418 20 20 0 0 0 0.021 -0.418 20 20 0 0 0 -20 -20z"/>
 <path opacity=".2" d="m43.979 24.418a20 20 0 0 1 -19.979 19.582 20 20 0 0 1 -19.978 -19.418 20 20 0 0 0 -0.022 0.418 20 20 0 0 0 20 20 20 20 0 0 0 20 -20 20 20 0 0 0 -0.021 -0.582z"/>
 <circle style="opacity:0.2" cx="36" cy="36" r="11"/>
 <circle style="fill:#ab49d8" cx="36" cy="35" r="11"/>
 <path style="fill:#8b9cbe;fill-rule:evenodd" d="m 36,30.000001 c 0,0 -0.70875,-0.014 -1.44727,0.3555 C 33.81422,30.724701 33,31.666701 33,33.000001 l 2,0 c 0,-1 1,-1 1,-1 0,0 1,0 1,1 0,0.5278 -0.1396,0.8229 -0.40625,1.1562 -0.26665,0.3334 -0.69336,0.668 -1.19336,1.043 -0.5,0.375 -1.07329,0.7904 -1.55664,1.3946 C 33.3604,37.197901 33,38.027801 33,39.000001 L 33,40 l 6,0 0,-1.999999 -3.64844,0 c 0.0313,-0.044 0.0187,-0.1112 0.0547,-0.1562 0.26665,-0.3334 0.69336,-0.668 1.19336,-1.043 0.5,-0.375 1.07329,-0.7904 1.55664,-1.3946 0.48335,-0.6041 0.84375,-1.434 0.84375,-2.4062 0,-1.3333 -0.81422,-2.2753 -1.55273,-2.6445 C 36.70875,29.986201 36,30.000001 36,30.000001 Z"/>
</svg>
