<svg width="48" height="48" version="1.1" xmlns="http://www.w3.org/2000/svg">
 <rect x="4" y="5" width="40" height="40" rx="2" ry="2" style="opacity:.2"/>
 <rect x="4" y="4" width="40" height="40" rx="2" ry="2" style="fill:#d3e5e2"/>
 <path d="m6 4c-1.108 0-2 0.892-2 2v1c0-1.108 0.892-2 2-2h36c1.108 0 2 0.892 2 2v-1c0-1.108-0.892-2-2-2z" style="fill:#8b9cbe;opacity:.2"/>
 <path d="m25 29.999999 0.236165 3.079436 0.303607 0.640966 0.121439 5.384108-0.151803 0.03204 0.03037 0.560844 0.273246 0.208313 0.03037 0.640967 0.333967 0.208312 0.01517 1.986992s0.705522 0.170811 1.244779 0.160242c0.854909-0.01675 1.351041-0.30446 1.351041-0.30446l-0.455406-2.01904 0.197344-0.16024-0.03037-0.528798 0.136622-0.03204v-0.336507h0.151802l-0.273247-6.137242 0.470587-1.153737-0.03037-4.598925 0.212523-0.224339-0.09108-0.81723-0.455407-0.833255-0.02436-6.281459 1.123338 4.727118 0.455409 0.640965s-0.02874 0.965449-0.03037 1.522292c-7.66e-4 0.263579-0.284338 0.598167-0.106101 0.782768 0.131693 0.136397 0.373389 8.4e-4 0.546332-0.09374-0.03477 0.23538-0.619849 0.5135-0.616103 0.699563 0.0028 0.136148 0.327679 0.08561 0.327679 0.08561s-0.310443 0.436467-0.166983 0.560846c0.217512 0.188583 0.891429-0.568036 1.138518-1.025546 0.255386-0.472873 0.166983-2.627958 0.166983-2.627958l0.349146-0.272409 0.01516-2.676031-0.576849-0.06411-0.288416-1.810727-0.728651-2.643982-0.349145-2.387596-1.871224-1.906871s0.0056-0.62788-0.500949-0.833255l0.01517-0.432652 0.531309-0.496747-0.03037-0.945425-0.470588-0.336506s-0.787091-1.8858923-2.546227-1.8748236c-1.877335 0.011829-2.34945 1.9549446-2.34945 1.9549446l-0.592028 0.336506-0.01518 0.9294 0.516129 0.54482 0.03037 0.336507s-0.401619 0.08341-0.455406 0.384581c-0.05595 0.313266 0.303603 0.480723 0.303603 0.480723l-0.565156 0.769158-1.017077-0.01602-0.409866 0.272411-2.185956 0.04808-0.258063-0.913376s0.218281-0.05291 0.227707-0.400601c8e-3 -0.293631-0.227701-0.432654-0.227701-0.432654l0.03037-0.400601 0.273244-0.176266-0.03037-0.416627-0.242883-0.208316 0.01516-0.224337s0.271755-0.212972 0.371916-0.368554c0.195359-0.6248809 0.673611-1.5633538 0.645162-1.8587968-0.310793-0.2299634-0.834919 0.8172368-0.834919 0.8172368-0.121453-0.7826375 0.108719-2.2761914-0.121453-2.2914503-0.215774-0.01431-0.184117 0.3471802-0.265653 0.841266-0.060192-0.5213841 0.142126-1.0634876-0.144217-1.0736177-0.240553-0.00861-0.199494 0.351495-0.212524 0.7290991-0.141029-0.2402217-0.058666-0.641713-0.235294-0.6409646-0.237737 0.00101-0.247974 0.4231633-0.220113 0.9614481-0.143855-0.1966577-0.190106-0.4901824-0.303604-0.4326531-0.240741 0.1220271-0.288424 3.3650685-0.288424 3.3650685l-0.318785 0.288433 0.03037 0.913377s-0.33333 0.127208-0.333965 0.400603c-5.22e-4 0.224434 0.318785 0.272407 0.318785 0.272407l-0.03037 2.131209s0.726164 0.897597 3.74952 1.986992c1.589543 0.572756 1.32436 2.708079 1.32436 2.708079l-0.04554 6.55387s-0.426632 0.44701-0.440226 0.737111c-0.01341 0.286297 0.364327 0.769156 0.364327 0.769156l-0.09108 4.663023 0.425045 0.801207-0.333964 6.233386 0.288424 0.224337-0.03037 0.673015 0.303604 0.352532-0.592029 1.986992s0.462458 0.29174 1.259959 0.320482c0.788167 0.0284 1.518025-0.320482 1.518025-0.320482l-0.03037-2.003017h0.288423l0.01517-0.785183 0.197341-0.06411 0.03037-5.832784 0.258065-1.009519z" style="opacity:.1"/>
 <path d="m25 29 0.236165 3.079436 0.303607 0.640966 0.121439 5.384108-0.151803 0.03204 0.03037 0.560844 0.273246 0.208313 0.03037 0.640967 0.333967 0.208312 0.01517 1.986992s0.705522 0.170811 1.244779 0.160242c0.854909-0.01675 1.351041-0.30446 1.351041-0.30446l-0.455406-2.01904 0.197344-0.16024-0.03037-0.528798 0.136622-0.03204v-0.336507h0.151802l-0.273247-6.137242 0.470587-1.153737-0.03037-4.598925 0.212523-0.224339-0.09108-0.81723-0.455407-0.833255-0.02436-6.281459 1.123338 4.727118 0.455409 0.640965s-0.02874 0.965449-0.03037 1.522292c-7.66e-4 0.263579-0.284338 0.598167-0.106101 0.782768 0.131693 0.136397 0.373389 8.4e-4 0.546332-0.09374-0.03477 0.23538-0.619849 0.5135-0.616103 0.699563 0.0028 0.136148 0.327679 0.08561 0.327679 0.08561s-0.310443 0.436467-0.166983 0.560846c0.217512 0.188583 0.891429-0.568036 1.138518-1.025546 0.255386-0.472873 0.166983-2.627958 0.166983-2.627958l0.349146-0.272409 0.01516-2.676031-0.576849-0.06411-0.288416-1.810727-0.728651-2.643982-0.349145-2.387596-1.871224-1.906871s0.0056-0.62788-0.500949-0.833255l0.01517-0.432652 0.531309-0.496747-0.03037-0.9454245-0.470588-0.3365057s-0.787091-1.8858923-2.546227-1.8748236c-1.877335 0.011829-2.34945 1.9549441-2.34945 1.9549441l-0.592028 0.3365062-0.01518 0.9293995 0.516129 0.54482 0.03037 0.336507s-0.401619 0.08341-0.455406 0.384581c-0.05595 0.313266 0.303603 0.480723 0.303603 0.480723l-0.565156 0.769158-1.017077-0.01602-0.409866 0.272411-2.185956 0.04808-0.258063-0.913376s0.218281-0.05291 0.227707-0.400601c8e-3 -0.293631-0.227701-0.432654-0.227701-0.432654l0.03037-0.400601 0.273244-0.176266-0.03037-0.416627-0.242883-0.208316 0.01516-0.2243365s0.271755-0.212972 0.371916-0.368554c0.195359-0.6248806 0.673611-1.5633535 0.645162-1.8587965-0.310793-0.2299634-0.834919 0.8172368-0.834919 0.8172368-0.121453-0.7826375 0.108719-2.2761914-0.121453-2.2914503-0.215774-0.01431-0.184117 0.3471802-0.265653 0.841266-0.060192-0.5213841 0.142126-1.0634876-0.144217-1.0736177-0.240553-0.00861-0.199494 0.351495-0.212524 0.7290991-0.141029-0.2402217-0.058666-0.641713-0.235294-0.6409646-0.237737 0.00101-0.247974 0.4231633-0.220113 0.9614481-0.143855-0.1966577-0.190106-0.4901824-0.303604-0.4326531-0.240741 0.1220271-0.288424 3.3650682-0.288424 3.3650682l-0.318785 0.2884325 0.03037 0.913377s-0.33333 0.127208-0.333965 0.400603c-5.22e-4 0.224434 0.318785 0.272407 0.318785 0.272407l-0.03037 2.131209s0.726164 0.897597 3.74952 1.986992c1.589543 0.572756 1.32436 2.708079 1.32436 2.708079l-0.04554 6.55387s-0.426632 0.44701-0.440226 0.737111c-0.01341 0.286297 0.364327 0.769156 0.364327 0.769156l-0.09108 4.663023 0.425045 0.801207-0.333964 6.233386 0.288424 0.224337-0.03037 0.673015 0.303604 0.352532-0.592029 1.986992s0.462458 0.29174 1.259959 0.320482c0.788167 0.0284 1.518025-0.320482 1.518025-0.320482l-0.03037-2.003017h0.288423l0.01517-0.785183 0.197341-0.06411 0.03037-5.832784 0.258065-1.009519z" style="fill:#1a2f41"/>
</svg>
