<svg width="48" height="48" version="1.1" xmlns="http://www.w3.org/2000/svg">
 <circle cx="24" cy="25" r="20" style="opacity:.2"/>
 <circle cx="24" cy="24" r="20" style="fill:#cf6237"/>
 <path d="M 24,4 A 20,20 0 0 0 4,24 20,20 0 0 0 4.0215,24.582 20,20 0 0 1 24,5 20,20 0 0 1 43.979,24.418 20,20 0 0 0 44,24 20,20 0 0 0 24,4 Z" style="fill:#8b9cbe;opacity:.2"/>
 <path d="m24.003906 17.999464a7 7 0 0 0-7 7 7 7 0 0 0 7 7 7 7 0 0 0 7-7 7 7 0 0 0-7-7zm0 2a5 5 0 0 1 5 5 5 5 0 0 1-5 5 5 5 0 0 1-5-5 5 5 0 0 1 5-5z" style="opacity:.2"/>
 <path d="m24.003906 17a7 7 0 0 0-7 7 7 7 0 0 0 7 7 7 7 0 0 0 7-7 7 7 0 0 0-7-7zm0 2a5 5 0 0 1 5 5 5 5 0 0 1-5 5 5 5 0 0 1-5-5 5 5 0 0 1 5-5z" style="fill:#8b9cbe"/>
 <path d="m23.580078 11.015089c-4.783152 0.225497-8.547548 4.156353-8.574219 8.939453-0.854441 0.423463-1.661404 0.973905-2.373047 1.685547-3.3415427 3.349618-3.5191841 8.714271-0.40625 12.277344-1.946379-2.385787-1.770721-5.857733 0.40625-8.035157 2.343146-2.343146 6.141229-2.343144 8.484375 0 2.343146 2.343148 2.343146 6.14123 0 8.484376-2.226914 2.226439-5.795425 2.352889-8.173828 0.289062 3.109831 2.829812 7.684665 3.086819 11.056641 0.830078 3.371975 2.256741 7.946809 1.999734 11.05664-0.830078-2.378403 2.063827-5.946914 1.937378-8.173828-0.289062-2.343146-2.343146-2.343146-6.141229 0-8.484376 2.343146-2.343144 6.141229-2.343146 8.484375 0 2.176971 2.177424 2.352629 5.64937 0.40625 8.035157 3.112935-3.563073 2.935293-8.927726-0.40625-12.277344-0.709394-0.709394-1.513828-1.258608-2.365234-1.681641-0.02702-4.712777-3.685727-8.610368-8.392578-8.927734 3.063304 0.310709 5.394212 2.889729 5.394531 5.96875 0 3.313708-2.686292 6-6 6s-6-2.686292-6-6c3.34e-4 -3.148997 2.435041-5.761936 5.576172-5.984375zm0.423828 12.984375 1.5 1.5-1.5 1.5-1.5-1.5z" style="opacity:.2"/>
 <path d="m23.580078 10.015625c-4.783152 0.225497-8.547548 4.156353-8.574219 8.939453-0.854441 0.423463-1.661404 0.973905-2.373047 1.685547-3.3415427 3.349618-3.5191841 8.714271-0.40625 12.277344-1.946379-2.385787-1.770721-5.857733 0.40625-8.035157 2.343146-2.343146 6.141229-2.343144 8.484375 0 2.343146 2.343148 2.343146 6.14123 0 8.484376-2.226914 2.226439-5.795425 2.352889-8.173828 0.289062 3.109831 2.829812 7.684665 3.086819 11.056641 0.830078 3.371975 2.256741 7.946809 1.999734 11.05664-0.830078-2.378403 2.063827-5.946914 1.937378-8.173828-0.289062-2.343146-2.343146-2.343146-6.141229 0-8.484376 2.343146-2.343144 6.141229-2.343146 8.484375 0 2.176971 2.177424 2.352629 5.64937 0.40625 8.035157 3.112935-3.563073 2.935293-8.927726-0.40625-12.277344-0.709394-0.709394-1.513828-1.258608-2.365234-1.681641-0.02702-4.712777-3.685727-8.610368-8.392578-8.927734 3.063304 0.310709 5.394212 2.889729 5.394531 5.96875 0 3.313708-2.686292 6-6 6s-6-2.686292-6-6c3.34e-4 -3.148997 2.435041-5.761936 5.576172-5.984375zm0.423828 12.984375 1.5 1.5-1.5 1.5-1.5-1.5z" style="fill:#8b9cbe"/>
</svg>
