<svg width="48" height="48" version="1.1" xmlns="http://www.w3.org/2000/svg">
 <rect x="4" y="5" width="40" height="40" rx="2" ry="2" style="opacity:.2"/>
 <rect x="4" y="4" width="40" height="40" rx="2" ry="2" style="fill:#57a534"/>
 <path d="m6 4c-1.108 0-2 0.892-2 2v1c0-1.108 0.892-2 2-2h36c1.108 0 2 0.892 2 2v-1c0-1.108-0.892-2-2-2h-36z" style="fill:#8b9cbe;opacity:.2"/>
 <path d="m6 20v2h15v-2zm16 0v2h18v8h2v-10zm-16 3v2h5v5h2v-7zm8 0v7h2v-5h5v-2h-5zm8 0v7h2v-7zm3 0v7h2v-5h3v5h2v-7h-5zm8 0v7h2v-5h2v5h2v-7h-4z" style="opacity:.2"/>
 <path d="m6 19v2h15v-2h-15zm16 0v2h18v8h2v-10h-20zm-16 3v2h5v5h2v-7h-7zm8 0v7h2v-5h5v-2h-5-2zm8 0v7h2v-7h-2zm3 0v2 5h2v-5h3v5h2v-7h-5-2zm8 0v7h2v-5h2v5h2v-7h-4-2z" style="fill:#8b9cbe"/>
</svg>
