<svg width="48" height="48" version="1.1" xmlns="http://www.w3.org/2000/svg">
 <path d="m13 35 2 4h18l2-4z" style="opacity:.2"/>
 <path d="m19.782609 5c-1.782609 0-1.782609 0-1.782609 2l-6 2-2 5h-2v8l2 2h3l1 1h20l1-1h3l2-2v-8h-2l-2-5-6-2c0-2 0-2-1.895652-2zm-15.782609 9 3 4v-4zm37 0v4l3-4z" style="opacity:.2"/>
 <path d="m19.782609 4c-1.782609 0-1.782609 0-1.782609 2l-6 2-2 5h-2v8l2 2h3l1 1h20l1-1h3l2-2v-8h-2l-2-5-6-2c0-2 0-2-1.895652-2zm-15.782609 9 3 4v-4zm37 0v4l3-4z" style="fill:#7eacf9"/>
 <path d="m13 34 2 4h18l2-4z" style="fill:#8149bf"/>
 <path d="m9 31 2 4h26l2-4z" style="opacity:.2"/>
 <path d="m9 30 2 4h26l2-4z" style="fill:#ad509c"/>
 <path d="m5 27 2 4h34l2-4z" style="opacity:.2"/>
 <path d="m5 26 2 4h34l2-4z" style="fill:#de7ca2"/>
 <path d="m9 26 12 15h6l12-15zm11 16 3 3h2l3-3z" style="opacity:.2"/>
 <path d="m9 25 12 15h6l12-15h-30zm11 16 3 3h2l3-3h-8z" style="fill:#f6e195"/>
 <path d="m23 5-7 6v8l6.652174 6h2.869565l6.478261-6v-8l-7-6zm-9 7-2 3 2 3zm20.130435 0.142857v5.714286l2.869565-2.857143z" style="opacity:.2"/>
 <path d="m23 4-7 6v8l6.652174 6h2.869565l6.478261-6v-8l-7-6zm-9 7-2 3 2 3zm20.130435 0.142857v5.714286l2.869565-2.857143z" style="fill:#8288f9"/>
 <path d="m17 16v-2l6-6h2l6 6v2l-6 6h-2z" style="opacity:.2"/>
 <path d="m17 15v-2l6-6h2l6 6v2l-6 6h-2z" style="fill:#8149bf"/>
 <path d="m23 19h2l5-3v-2l-5-3h-2l-4.652174 3 0.05085 2z" style="opacity:.2"/>
 <path d="m23 18h2l5-3v-2l-5-3h-2l-4.652174 3 0.05085 2z" style="fill:#de7ca2"/>
 <path d="m22 17h4l1-1v-2l-1-1h-4l-1 1v2z" style="opacity:.2"/>
 <path d="m22 16h4l1-1v-2l-1-1h-4l-1 1v2z" style="fill:#f6e195"/>
 <path d="m19.783203 4c-1.782609 0-1.783203 0-1.783203 2l-6 2-2 5h-2v1h2l2-5 6-2c0-2 5.94e-4 -2 1.783203-2h8.320313c1.895652 0 1.896484 0 1.896484 2l6 2 2 5h2v-1h-2l-2-5-6-2c0-2-8.32e-4 -2-1.896484-2h-8.320313zm-15.783203 9 0.75 1h2.25v-1h-3zm37 0v1h2.25l0.75-1h-3z" style="fill:#8b9cbe;opacity:.2"/>
 <path d="m9 25 0.8007812 1h28.398438l0.800781-1h-30zm11 16 1 1h6l1-1h-1-6-1z" style="fill:#8b9cbe;opacity:.2"/>
</svg>
