<svg xmlns="http://www.w3.org/2000/svg" width="48" height="48" version="1">
 <ellipse style="fill:#8b9cbe;stroke:#000000;stroke-width:0;stroke-linecap:round;stroke-linejoin:round" cx="24" cy="24" rx="19.5" ry="19.5"/>
 <circle style="opacity:0.2;stroke:#000000;stroke-width:0;stroke-linecap:round;stroke-linejoin:round" cx="24" cy="25" r="20"/>
 <path style="fill:#e040fb;stroke:#000000;stroke-width:0;stroke-linecap:round;stroke-linejoin:round" d="M 41.320508,14 A 20,20 0 0 0 14,6.6794919 20,20 0 0 0 6.6559983,14.088214 L 24,24 Z"/>
 <path style="fill:#fdfd4b;stroke:#000000;stroke-width:0;stroke-linecap:round;stroke-linejoin:round" d="M 41.320508,14 24,24 23.911143,43.978907 A 20,20 0 0 0 34,41.320508 20,20 0 0 0 41.320508,14 Z"/>
 <path style="fill:#18ffff;stroke:#000000;stroke-width:0;stroke-linecap:round;stroke-linejoin:round" d="M 24,24 6.6559983,14.088214 A 20,20 0 0 0 6.6794919,34 20,20 0 0 0 23.911143,43.978907 Z"/>
 <path style="opacity:0.2;fill:#8b9cbe;stroke:#000000;stroke-width:0;stroke-linecap:round;stroke-linejoin:round" d="M 24 4 A 20 20.000002 0 0 0 4 24 A 20 20.000002 0 0 0 4.0214844 24.582031 A 20 20.000002 0 0 1 24 5 A 20 20.000002 0 0 1 43.978516 24.417969 A 20 20.000002 0 0 0 44 24 A 20 20.000002 0 0 0 24 4 z"/>
 <path style="opacity:0.1" d="M 26.86147,27.112562 C 23.834277,29.900399 18.010352,25.478325 15.552144,22.701051 13.023799,19.844527 3.583029,10.210239 2.8929795,9.5854006 2.202963,8.9605851 1.6534185,8.1889662 2.2635695,7.4212559 2.8987539,6.6735958 3.7771416,7.0450579 4.5389659,7.5824945 5.3008396,8.1199506 16.800408,15.248998 20.154112,17.101209 c 3.260635,1.800828 8.846503,6.512603 6.707358,10.011353 z"/>
 <path style="fill:#4f4f4f" d="M 26.86147,26.112345 C 23.834277,28.900182 18.010352,24.478108 15.552144,21.700834 13.023799,18.84431 3.583029,9.2100224 2.8929795,8.5851836 2.202963,7.9603681 1.6534185,7.1887492 2.2635695,6.4210389 2.8987539,5.6733788 3.7771416,6.0448409 4.5389659,6.5822775 5.3008396,7.1197336 16.800408,14.248781 20.154112,16.100992 c 3.260635,1.800828 8.846503,6.512603 6.707358,10.011353 z"/>
 <path style="opacity:0.1" d="M 31.717695,29.773981 C 19.903082,40.135562 10.239907,30.205259 8.7426822,26.765297 c 0.8853864,5.970801 4.9778998,11.313962 11.1603998,13.370265 4.669309,1.552985 12.120243,1.51694 15.460627,-4.399523 z"/>
 <path style="fill:#4883f7" d="M 31.717695,28.773981 C 19.903082,39.135562 10.239907,29.205259 8.7426822,25.765297 c 0.8853864,5.970801 4.9778998,11.313962 11.1603998,13.370265 4.669309,1.552985 12.120243,1.51694 15.460627,-4.399523 z"/>
 <path style="opacity:0.1" d="m 31.668836,30.749282 c -0.965087,0.434532 -0.860718,0.748604 -1.717629,0.61312 -0.591025,-0.09345 -5.711067,-3.908939 -5.711067,-3.908939 -0.259518,-0.612271 0.05179,-1.453978 0.636557,-2.120162 0.542364,-0.699987 1.315869,-1.173138 1.978817,-1.049854 0,0 4.854123,4.137802 5.069099,4.687048 0.311686,0.796348 -0.02245,0.760764 -0.255777,1.778787 z"/>
 <path style="fill:#9b9b9b" d="m 31.668836,29.749065 c -0.965087,0.434532 -0.860718,0.748604 -1.717629,0.61312 -0.591025,-0.09345 -5.711067,-3.908939 -5.711067,-3.908939 -0.259518,-0.612271 0.05179,-1.453978 0.636557,-2.120162 0.542364,-0.699987 1.315869,-1.173138 1.978817,-1.049854 0,0 4.854123,4.137802 5.069099,4.687048 0.311686,0.796348 -0.02245,0.760764 -0.255777,1.778787 z"/>
 <path style="opacity:0.1" d="m 32.218204,39.044 c 3.629355,-2.013103 4.598122,-5.56368 3.165037,-8.129421 -1.113643,-1.993815 -2.942184,-2.370775 -4.205149,-1.406708 -1.252888,0.956376 -1.363337,2.095985 -0.989607,3.227814 0.762162,2.30842 3.915034,3.92749 2.029719,6.308315 z"/>
 <path style="fill:#17191e" d="m 32.218204,38.043783 c 3.629355,-2.013103 4.598122,-5.56368 3.165037,-8.129421 -1.113643,-1.993815 -2.942184,-2.370775 -4.205149,-1.406708 -1.252888,0.956376 -1.363337,2.095985 -0.989607,3.227814 0.762162,2.30842 3.915034,3.92749 2.029719,6.308315 z"/>
</svg>
