<svg xmlns="http://www.w3.org/2000/svg" width="48" height="48" version="1">
 <rect style="opacity:0.2" width="40" height="40" x="4" y="5" rx="2" ry="2"/>
 <rect style="fill:#68303e" width="40" height="40" x="4" y="4" rx="2" ry="2"/>
 <path fill="#fff" opacity=".1" d="m6 4c-1.108 0-2 0.892-2 2v1c0-1.108 0.892-2 2-2h36c1.108 0 2 0.892 2 2v-1c0-1.108-0.892-2-2-2h-36z"/>
 <path style="opacity:0.2" d="m 21.885692,11.000003 -0.358451,0.11018 c -0.510014,0.07952 -0.568311,0.544395 -0.767893,0.957657 -0.389828,0.582877 -0.411883,0.974532 -0.182314,1.54507 0.254617,0.628012 0.616542,1.166564 1.075364,1.72803 l 0.752332,0.919885 v 0.223851 0.223851 l -0.446697,0.196569 -0.446341,0.196915 -0.841731,0.116471 c -0.548043,0.04415 -0.637719,0.106568 -0.850001,0.556827 -0.240082,0.357495 -0.208085,0.692898 -0.209427,1.103164 l -0.002,0.663152 -0.278514,0.984938 c -0.444951,1.179548 -0.264654,2.437561 -0.253188,3.671139 -0.01873,1.241185 -0.176504,2.344517 0.455018,3.417562 0.230102,0.370617 0.258024,0.73136 0.71617,0.73136 0.478308,0.07345 0.225842,-0.359903 0.171811,-0.686588 -0.03871,-0.434859 -0.310346,-0.686589 0.200384,-0.686589 0.411951,0.04023 0.289227,-0.07849 0.186995,-0.40293 -0.04826,-0.313488 -0.201473,-0.484988 -0.408361,-0.712824 -0.256305,-0.256583 -0.316359,-0.266906 -0.100558,-0.537237 0.357157,-0.421447 0.317595,-1.047639 0.404751,-1.570446 l 0.223885,-1.343105 0.129855,-0.613135 c 0.07423,-0.314217 0.20802,-0.574636 0.532119,-0.677153 l 0.202554,-0.06403 0.584508,1.060483 c 0.417153,0.579805 0.584507,1.040396 0.584507,1.714208 0.07721,0.516983 -0.06003,0.736559 -0.351569,1.138826 -0.391885,0.395649 -0.391644,0.801678 -0.457556,1.322469 l -0.105977,0.837341 -0.822147,1.311614 c -0.566998,0.698694 -0.8245,1.330701 -0.944773,2.176246 l -0.122974,0.864622 -0.636955,0.681688 c -0.639476,0.504243 -0.695042,0.985629 -0.837706,1.731344 l -0.20075,1.049292 -0.203991,0.359212 -0.204369,0.358858 -0.0137,0.716315 c -0.181276,0.515855 0.107367,0.655973 0.250704,1.02971 0.439846,0.755562 1.64797,1.872605 2.62885,1.53233 l -0.11607,-0.3683 -0.12696,-0.40293 -0.264047,-0.291004 -0.263679,-0.291359 -0.108874,-0.648817 -0.108872,-0.649162 h 0.191349 0.191338 l 0.40366,-1.298333 c 0.140348,-0.841951 0.442934,-1.338195 1.02108,-1.925104 0.550987,-0.413654 0.668103,-0.813298 0.835177,-1.43264 l 0.217379,-0.805859 0.396788,-0.626781 0.396421,-0.62678 0.625384,-0.670153 c 0.57446,-0.529601 0.955255,-1.101987 0.955255,0.0392 -0.07335,0.511281 0.175008,0.906847 0.377987,1.365142 0.473077,0.756775 0.29359,1.054984 -0.02963,1.825069 -0.491106,0.794902 -0.34489,1.366765 -0.20545,2.238154 l 0.202912,1.265797 -0.265485,0.496319 c -0.370776,0.59515 -0.348355,1.036206 0.02857,1.557156 l 0.294431,0.40643 -0.10272,0.258477 c -0.0017,0.717578 0.740558,0.582306 1.246879,0.585509 h 3.242928 c -0.03079,-0.675062 -1.503539,-0.922797 -2.128257,-1.011529 l -0.244866,-0.285404 -0.244511,-0.285059 -0.05753,-1.206344 -0.05714,-1.206344 0.279239,-1.196198 0.279227,-1.196544 c 0.54234,-0.346575 0.453233,-0.525635 0.329149,-1.145835 l -0.151886,-0.759333 -0.02094,-1.880341 -0.02133,-1.880342 -0.13057,-1.387868 c 0.09797,-0.429595 -0.50955,-1.387868 0.117193,-1.387868 l 0.112493,0.283305 0.112482,0.283313 v 0.516955 c 0.01709,0.399971 -0.133022,0.566273 0.296236,0.40713 l 0.296592,-0.11018 0.163861,0.250087 0.163483,0.249732 0.0029,0.41342 c 0.03031,0.270835 -0.116508,0.48525 0.188075,0.302895 l 0.185191,-0.110525 0.0058,-0.481974 0.0058,-0.481983 0.272,0.347667 c 0.160337,0.134839 0.272009,0.529863 0.272009,0.161243 0.02036,-0.265384 -0.116045,-0.508518 -0.204726,-0.754442 -0.09604,-0.406374 -0.183376,-0.556613 -0.538217,-0.740451 l -0.333848,-0.172789 0.09658,-0.695679 C 29.253493,22.958431 28.772,22.319125 28.43907,21.579364 L 27.764121,20.278493 27.408564,19.562168 27.052652,18.845853 26.926782,18.15541 C 26.882962,17.502795 26.765191,17.450537 26.183115,17.215244 25.820746,17.009938 25.509068,16.965511 25.10669,16.965511 H 24.648418 L 24.360136,16.36786 24.071865,15.969821 v -0.216506 -0.216851 l 0.370379,-0.11367 c 0.580214,-0.08671 0.370381,-0.575951 0.370381,-1.052101 0.05096,-0.539859 0.05067,-0.873937 -0.271999,-1.286433 l -0.271999,-0.347667 -0.0058,-0.40293 c 0.05222,-0.389265 -0.09246,-0.486781 -0.362775,-0.748152 -0.314321,-0.416547 -0.685832,-0.392821 -1.185654,-0.465183 z"/>
 <path style="fill:#8b9cbe" d="m 21.885692,10.000001 -0.358451,0.11018 c -0.510014,0.07952 -0.568311,0.544395 -0.767893,0.957657 -0.389828,0.582877 -0.411883,0.974532 -0.182314,1.54507 0.254617,0.628012 0.616542,1.166564 1.075364,1.72803 l 0.752332,0.919885 v 0.223851 0.223851 l -0.446697,0.196569 -0.446341,0.196915 -0.841731,0.116471 c -0.548043,0.04415 -0.637719,0.106568 -0.850001,0.556827 -0.240082,0.357495 -0.208085,0.692898 -0.209427,1.103164 l -0.002,0.663152 -0.278514,0.984938 c -0.444951,1.179548 -0.264654,2.437561 -0.253188,3.671139 -0.01873,1.241185 -0.176504,2.344517 0.455018,3.417562 0.230102,0.370617 0.258024,0.73136 0.71617,0.73136 0.478308,0.07345 0.225842,-0.359903 0.171811,-0.686588 -0.03871,-0.434859 -0.310346,-0.686589 0.200384,-0.686589 0.411951,0.04023 0.289227,-0.07849 0.186995,-0.40293 -0.04826,-0.313488 -0.201473,-0.484988 -0.408361,-0.712824 -0.256305,-0.256583 -0.316359,-0.266906 -0.100558,-0.537237 0.357157,-0.421447 0.317595,-1.047639 0.404751,-1.570446 l 0.223885,-1.343105 0.129855,-0.613135 c 0.07423,-0.314217 0.20802,-0.574636 0.532119,-0.677153 l 0.202554,-0.06403 0.584508,1.060483 c 0.417153,0.579805 0.584507,1.040396 0.584507,1.714208 0.07721,0.516983 -0.06003,0.736559 -0.351569,1.138826 -0.391885,0.395649 -0.391644,0.801678 -0.457556,1.322469 l -0.105977,0.837341 -0.822147,1.311614 c -0.566998,0.698694 -0.8245,1.330701 -0.944773,2.176246 l -0.122974,0.864622 -0.636955,0.681688 c -0.639476,0.504243 -0.695042,0.985629 -0.837706,1.731344 l -0.20075,1.049292 -0.203991,0.359212 -0.204369,0.358858 -0.0137,0.716315 c -0.181276,0.515855 0.107367,0.655973 0.250704,1.02971 0.439846,0.755562 1.64797,1.872605 2.62885,1.53233 l -0.11607,-0.3683 -0.12696,-0.40293 L 20.430479,36.874909 20.1668,36.58355 20.057926,35.934733 19.949054,35.285571 h 0.191349 0.191338 l 0.40366,-1.298333 c 0.140348,-0.841951 0.442934,-1.338195 1.02108,-1.925104 0.550987,-0.413654 0.668103,-0.813298 0.835177,-1.43264 l 0.217379,-0.805859 0.396788,-0.626781 0.396421,-0.62678 0.625384,-0.670153 c 0.57446,-0.529601 0.955255,-1.101987 0.955255,0.0392 -0.07335,0.511281 0.175008,0.906847 0.377987,1.365142 0.473077,0.756775 0.29359,1.054984 -0.02963,1.825069 -0.491106,0.794902 -0.34489,1.366765 -0.20545,2.238154 l 0.202912,1.265797 -0.265485,0.496319 c -0.370776,0.59515 -0.348355,1.036206 0.02857,1.557156 l 0.294431,0.40643 -0.10272,0.258477 c -0.0017,0.717578 0.740558,0.582306 1.246879,0.585509 h 3.242928 c -0.03079,-0.675062 -1.503539,-0.922797 -2.128257,-1.011529 l -0.244866,-0.285404 -0.244511,-0.285059 -0.05753,-1.206344 -0.05714,-1.206344 0.279239,-1.196198 0.279227,-1.196544 c 0.54234,-0.346575 0.453233,-0.525635 0.329149,-1.145835 l -0.151886,-0.759333 -0.02094,-1.880341 -0.02133,-1.880342 -0.13057,-1.387868 c 0.09797,-0.429595 -0.50955,-1.387868 0.117193,-1.387868 l 0.112493,0.283305 0.112482,0.283313 v 0.516955 c 0.01709,0.399971 -0.133022,0.566273 0.296236,0.40713 l 0.296592,-0.11018 0.163861,0.250087 0.163483,0.249732 0.0029,0.41342 c 0.03031,0.270835 -0.116508,0.48525 0.188075,0.302895 l 0.185191,-0.110525 0.0058,-0.481974 0.0058,-0.481983 0.272,0.347667 c 0.160337,0.134839 0.272009,0.529863 0.272009,0.161243 0.02036,-0.265384 -0.116045,-0.508518 -0.204726,-0.754442 -0.09604,-0.406374 -0.183376,-0.556613 -0.538217,-0.740451 l -0.333848,-0.172789 0.09658,-0.695679 C 29.253493,21.958429 28.772,21.319123 28.43907,20.579362 l -0.674949,-1.300871 -0.355557,-0.716325 -0.355912,-0.716315 -0.12587,-0.690443 c -0.04382,-0.652615 -0.161591,-0.704873 -0.743667,-0.940166 -0.362369,-0.205306 -0.674047,-0.249733 -1.076425,-0.249733 h -0.458272 l -0.288282,-0.597651 -0.288271,-0.398039 v -0.216506 -0.216851 l 0.370379,-0.11367 c 0.580214,-0.08671 0.370381,-0.575951 0.370381,-1.052101 0.05096,-0.539859 0.05067,-0.873937 -0.271999,-1.286433 l -0.271999,-0.347667 -0.0058,-0.40293 c 0.05222,-0.389265 -0.09246,-0.486781 -0.362775,-0.748152 -0.314321,-0.416547 -0.685832,-0.392821 -1.185654,-0.465183 z"/>
</svg>
