<svg width="48" height="48" version="1.1" xmlns="http://www.w3.org/2000/svg">
 <rect transform="matrix(0,-1,-1,0,0,0)" x="-43.997784" y="-44" width="40" height="40" rx="2" ry="2" style="fill:#90decd"/>
 <path d="m4 7v-1c0-1.108 0.892-2 2-2h36c1.108 0 2 0.892 2 2v1c0-1.108-0.892-2-2-2h-36c-1.108 0-2 0.892-2 2z" style="fill:#8b9cbe;opacity:.2"/>
 <path d="m4 42v1c0 1.108 0.892 2 2 2h36c1.108 0 2-0.892 2-2v-1c0 1.108-0.892 2-2 2h-36c-1.108 0-2-0.892-2-2z" style="opacity:.2"/>
 <path d="m24 9-8 16 8 16 8-16z" style="opacity:.2"/>
 <path d="m24 8-8 16 8 16 8-16z" style="fill:#72be45"/>
 <path d="m20 24h8l-4-16z" style="fill:#a7e077"/>
 <path d="m16 24 8 16-4-16h-4zm8 16 8-16h-4l-4 16z" style="fill:#008000;opacity:.4"/>
 <path d="m24 8-8 16 0.25 0.5 7.75-15.5 7.75 15.5 0.25-0.5-8-16z" style="fill:#8b9cbe;opacity:.2"/>
</svg>
