<svg xmlns="http://www.w3.org/2000/svg" width="48" height="48" version="1.1">
 <circle style="opacity:0.2" cx="24" cy="25" r="20"/>
 <circle style="fill:#4f4f4f" cx="24" cy="24" r="20"/>
 <circle style="opacity:0.2" cx="24" cy="25" r="14"/>
 <path style="opacity:0.1;fill:#8b9cbe" d="M 24,4 A 20,20 0 0 0 4,24 20,20 0 0 0 4.0215,24.582 20,20 0 0 1 24,5 20,20 0 0 1 43.979,24.418 20,20 0 0 0 44,24 20,20 0 0 0 24,4 Z"/>
 <path style="fill:#afafb1" d="M 24 10 A 14 14 0 0 0 10 24 A 14 14 0 0 0 24 38 A 14 14 0 0 0 38 24 A 14 14 0 0 0 24 10 z M 24 12 A 12 12 0 0 1 27.703125 12.591797 L 26 16 L 24 20 L 22 16 L 20.300781 12.599609 A 12 12 0 0 1 24 12 z M 18.550781 13.308594 L 19.757812 16.929688 L 21.171875 21.171875 L 16.929688 19.757812 L 13.320312 18.554688 A 12 12 0 0 1 15.638672 15.392578 A 12 12 0 0 1 18.550781 13.308594 z M 29.445312 13.320312 A 12 12 0 0 1 32.607422 15.638672 A 12 12 0 0 1 34.691406 18.550781 L 31.070312 19.757812 L 26.828125 21.171875 L 28.242188 16.929688 L 29.445312 13.320312 z M 12.591797 20.296875 L 16 22 L 20 24 L 16 26 L 12.599609 27.699219 A 12 12 0 0 1 12 24 A 12 12 0 0 1 12.591797 20.296875 z M 35.400391 20.300781 A 12 12 0 0 1 36 24 A 12 12 0 0 1 35.408203 27.703125 L 32 26 L 28 24 L 32 22 L 35.400391 20.300781 z M 24 21 A 1 1 0 0 1 25 22 A 1 1 0 0 1 24 23 A 1 1 0 0 1 23 22 A 1 1 0 0 1 24 21 z M 22 23 A 1 1 0 0 1 23 24 A 1 1 0 0 1 22 25 A 1 1 0 0 1 21 24 A 1 1 0 0 1 22 23 z M 26 23 A 1 1 0 0 1 27 24 A 1 1 0 0 1 26 25 A 1 1 0 0 1 25 24 A 1 1 0 0 1 26 23 z M 24 25 A 1 1 0 0 1 25 26 A 1 1 0 0 1 24 27 A 1 1 0 0 1 23 26 A 1 1 0 0 1 24 25 z M 21.171875 26.828125 L 19.757812 31.070312 L 18.554688 34.679688 A 12 12 0 0 1 15.392578 32.361328 A 12 12 0 0 1 13.308594 29.449219 L 16.929688 28.242188 L 21.171875 26.828125 z M 26.828125 26.828125 L 31.070312 28.242188 L 34.679688 29.445312 A 12 12 0 0 1 32.361328 32.607422 A 12 12 0 0 1 29.449219 34.691406 L 28.242188 31.070312 L 26.828125 26.828125 z M 24 28 L 26 32 L 27.699219 35.400391 A 12 12 0 0 1 24 36 A 12 12 0 0 1 20.296875 35.408203 L 22 32 L 24 28 z"/>
 <path style="opacity:0.2;fill-rule:evenodd" d="M 27.263672 12.472656 L 26 15 L 24 19 L 22 15 L 20.738281 12.476562 A 12 12 0 0 0 20.300781 12.599609 L 22 16 L 24 20 L 26 16 L 27.703125 12.591797 A 12 12 0 0 0 27.263672 12.472656 z M 34.208984 17.710938 L 31.070312 18.757812 L 27.203125 20.046875 L 26.828125 21.171875 L 31.070312 19.757812 L 34.691406 18.550781 A 12 12 0 0 0 34.208984 17.710938 z M 13.804688 17.716797 A 12 12 0 0 0 13.320312 18.554688 L 16.929688 19.757812 L 21.171875 21.171875 L 20.796875 20.046875 L 16.929688 18.757812 L 13.804688 17.716797 z M 23.134766 21.5 A 1 1 0 0 0 23 22 A 1 1 0 0 0 24 23 A 1 1 0 0 0 25 22 A 1 1 0 0 0 24.865234 21.5 A 1 1 0 0 1 24 22 A 1 1 0 0 1 23.134766 21.5 z M 12.025391 23.472656 A 12 12 0 0 0 12 24 A 12 12 0 0 0 12.599609 27.699219 L 16 26 L 20 24 L 19 23.5 L 16 25 L 12.599609 26.699219 A 12 12 0 0 1 12.025391 23.472656 z M 21.134766 23.5 A 1 1 0 0 0 21 24 A 1 1 0 0 0 22 25 A 1 1 0 0 0 23 24 A 1 1 0 0 0 22.865234 23.5 A 1 1 0 0 1 22 24 A 1 1 0 0 1 21.134766 23.5 z M 25.134766 23.5 A 1 1 0 0 0 25 24 A 1 1 0 0 0 26 25 A 1 1 0 0 0 27 24 A 1 1 0 0 0 26.865234 23.5 A 1 1 0 0 1 26 24 A 1 1 0 0 1 25.134766 23.5 z M 29 23.5 L 28 24 L 32 26 L 35.408203 27.703125 A 12 12 0 0 0 36 24 A 12 12 0 0 0 35.974609 23.527344 A 12 12 0 0 1 35.408203 26.703125 L 32 25 L 29 23.5 z M 23.134766 25.5 A 1 1 0 0 0 23 26 A 1 1 0 0 0 24 27 A 1 1 0 0 0 25 26 A 1 1 0 0 0 24.865234 25.5 A 1 1 0 0 1 24 26 A 1 1 0 0 1 23.134766 25.5 z M 21.171875 26.828125 L 20.796875 26.953125 L 19.757812 30.070312 L 18.554688 33.679688 A 12 12 0 0 1 15.392578 31.361328 A 12 12 0 0 1 13.791016 29.289062 L 13.308594 29.449219 A 12 12 0 0 0 15.392578 32.361328 A 12 12 0 0 0 18.554688 34.679688 L 19.757812 31.070312 L 21.171875 26.828125 z M 26.828125 26.828125 L 28.242188 31.070312 L 29.449219 34.691406 A 12 12 0 0 0 32.361328 32.607422 A 12 12 0 0 0 34.679688 29.445312 L 34.195312 29.283203 A 12 12 0 0 1 32.361328 31.607422 A 12 12 0 0 1 29.449219 33.691406 L 28.242188 30.070312 L 27.203125 26.953125 L 26.828125 26.828125 z M 27.261719 34.523438 A 12 12 0 0 1 24 35 A 12 12 0 0 1 20.736328 34.527344 L 20.296875 35.408203 A 12 12 0 0 0 24 36 A 12 12 0 0 0 27.699219 35.400391 L 27.261719 34.523438 z"/>
 <path style="fill:#8b9cbe;opacity:0.2" d="M 24 10 A 14 14 0 0 0 10 24 A 14 14 0 0 0 10.021484 24.414062 A 14 14 0 0 1 24 11 A 14 14 0 0 1 37.978516 24.585938 A 14 14 0 0 0 38 24 A 14 14 0 0 0 24 10 z M 27.265625 13.46875 L 26 16 L 24 20 L 22 16 L 20.740234 13.478516 A 12 12 0 0 0 20.300781 13.599609 L 22 17 L 24 21 L 26 17 L 27.703125 13.591797 A 12 12 0 0 0 27.265625 13.46875 z M 34.208984 18.710938 L 31.070312 19.757812 L 27.203125 21.046875 L 26.828125 22.171875 L 31.070312 20.757812 L 34.691406 19.550781 A 12 12 0 0 0 34.208984 18.710938 z M 13.798828 18.714844 A 12 12 0 0 0 13.320312 19.554688 L 16.929688 20.757812 L 21.171875 22.171875 L 20.796875 21.046875 L 16.929688 19.757812 L 13.798828 18.714844 z M 23.134766 22.5 A 1 1 0 0 0 23 23 A 1 1 0 0 0 24 24 A 1 1 0 0 0 25 23 A 1 1 0 0 0 24.865234 22.5 A 1 1 0 0 1 24 23 A 1 1 0 0 1 23.134766 22.5 z M 35.974609 24.486328 A 12 12 0 0 1 35.408203 27.703125 L 32 26 L 29 24.5 L 28 25 L 32 27 L 35.408203 28.703125 A 12 12 0 0 0 36 25 A 12 12 0 0 0 35.974609 24.486328 z M 19 24.5 L 16 26 L 12.599609 27.699219 A 12 12 0 0 1 12.025391 24.513672 A 12 12 0 0 0 12 25 A 12 12 0 0 0 12.599609 28.699219 L 16 27 L 20 25 L 19 24.5 z M 21.134766 24.5 A 1 1 0 0 0 21 25 A 1 1 0 0 0 22 26 A 1 1 0 0 0 23 25 A 1 1 0 0 0 22.865234 24.5 A 1 1 0 0 1 22 25 A 1 1 0 0 1 21.134766 24.5 z M 25.134766 24.5 A 1 1 0 0 0 25 25 A 1 1 0 0 0 26 26 A 1 1 0 0 0 27 25 A 1 1 0 0 0 26.865234 24.5 A 1 1 0 0 1 26 25 A 1 1 0 0 1 25.134766 24.5 z M 23.134766 26.5 A 1 1 0 0 0 23 27 A 1 1 0 0 0 24 28 A 1 1 0 0 0 25 27 A 1 1 0 0 0 24.865234 26.5 A 1 1 0 0 1 24 27 A 1 1 0 0 1 23.134766 26.5 z M 21.171875 27.828125 L 20.796875 27.953125 L 19.757812 31.070312 L 18.554688 34.679688 A 12 12 0 0 1 15.392578 32.361328 A 12 12 0 0 1 13.791016 30.289062 L 13.308594 30.449219 A 12 12 0 0 0 15.392578 33.361328 A 12 12 0 0 0 18.554688 35.679688 L 19.757812 32.070312 L 21.171875 27.828125 z M 26.828125 27.828125 L 28.242188 32.070312 L 29.449219 35.691406 A 12 12 0 0 0 32.361328 33.607422 A 12 12 0 0 0 34.679688 30.445312 L 34.201172 30.285156 A 12 12 0 0 1 32.361328 32.607422 A 12 12 0 0 1 29.449219 34.691406 L 28.242188 31.070312 L 27.203125 27.953125 L 26.828125 27.828125 z M 27.259766 35.521484 A 12 12 0 0 1 24 36 A 12 12 0 0 1 20.734375 35.53125 L 20.296875 36.408203 A 12 12 0 0 0 24 37 A 12 12 0 0 0 27.699219 36.400391 L 27.259766 35.521484 z"/>
 <circle style="opacity:0.2" cx="36" cy="36" r="11"/>
 <circle style="fill:#cc8e31" cx="36" cy="35" r="11"/>
 <path style="fill:#8b9cbe;fill-rule:evenodd" d="m 36,30.000001 c 0,0 -0.70875,-0.014 -1.44727,0.3555 C 33.81422,30.724701 33,31.666701 33,33.000001 l 2,0 c 0,-1 1,-1 1,-1 0,0 1,0 1,1 0,0.5278 -0.1396,0.8229 -0.40625,1.1562 -0.26665,0.3334 -0.69336,0.668 -1.19336,1.043 -0.5,0.375 -1.07329,0.7904 -1.55664,1.3946 C 33.3604,37.197901 33,38.027801 33,39.000001 L 33,40 l 6,0 0,-1.999999 -3.64844,0 c 0.0313,-0.044 0.0187,-0.1112 0.0547,-0.1562 0.26665,-0.3334 0.69336,-0.668 1.19336,-1.043 0.5,-0.375 1.07329,-0.7904 1.55664,-1.3946 0.48335,-0.6041 0.84375,-1.434 0.84375,-2.4062 0,-1.3333 -0.81422,-2.2753 -1.55273,-2.6445 C 36.70875,29.986201 36,30.000001 36,30.000001 Z"/>
</svg>
