<svg width="48" height="48" version="1.1" xmlns="http://www.w3.org/2000/svg">
 <circle cx="24" cy="25" r="20" style="opacity:.2"/>
 <circle cx="24" cy="24" r="20" style="fill:#fecd38"/>
 <path d="M 24,4 A 20,20 0 0 0 4,24 20,20 0 0 0 4.0215,24.582 20,20 0 0 1 24,5 20,20 0 0 1 43.979,24.418 20,20 0 0 0 44,24 20,20 0 0 0 24,4 Z" style="fill:#8b9cbe;opacity:.2"/>
 <path d="m24 7a18 18 0 0 0-18 18 18 18 0 0 0 18 18 18 18 0 0 0 18-18 18 18 0 0 0-18-18zm0 2a16 16 0 0 1 16 16 16 16 0 0 1-16 16 16 16 0 0 1-16-16 16 16 0 0 1 16-16zm-7 11c-5 0-7 1-7 1v3s1 0 1 1 1 4 5 4c6 0 5-1 6-4 0.447214-1.341641 1-2 2-2s1.552786 0.658359 2 2c1 3 0 4 6 4 4 0 5-3 5-4s1-1 1-1v-3s-1.235117-0.600634-4.130859-0.869141l-0.869141 0.869141 1 1-5 3 2-3-1-1 1-1c-3 0-5 1-7 1s-4-1-7-1zm13.167969 11.445312s-0.453568 0.676224-1.125 1.347657c-0.671433 0.671432-1.542969 1.207031-2.042969 1.207031h-2v2h2c1.5 0 2.628464-0.964401 3.457031-1.792969 0.828568-0.828567 1.375-1.652344 1.375-1.652343l-1.664062-1.109376z" style="opacity:.1"/>
 <path d="m24 6a18 18 0 0 0-18 18 18 18 0 0 0 18 18 18 18 0 0 0 18-18 18 18 0 0 0-18-18zm0 2a16 16 0 0 1 16 16 16 16 0 0 1-16 16 16 16 0 0 1-16-16 16 16 0 0 1 16-16zm-7 11c-5 0-7 1-7 1v3s1 0 1 1 1 4 5 4c6 0 5-1 6-4 0.447214-1.341641 1-2 2-2s1.552786 0.658359 2 2c1 3 0 4 6 4 4 0 5-3 5-4s1-1 1-1v-3s-1.235117-0.600634-4.130859-0.869141l-0.869141 0.869141 1 1-5 3 2-3-1-1 1-1c-3 0-5 1-7 1s-4-1-7-1zm13.167969 11.445312s-0.453568 0.676224-1.125 1.347657c-0.671433 0.671432-1.542969 1.207031-2.042969 1.207031h-2v2h2c1.5 0 2.628464-0.964401 3.457031-1.792969 0.828568-0.828567 1.375-1.652344 1.375-1.652343l-1.664062-1.109376z" style="fill:#4f4f4f"/>
</svg>
