<svg xmlns="http://www.w3.org/2000/svg" width="48" height="48" version="1">
 <rect style="opacity:0.2" width="40" height="40" x="4" y="5" rx="12" ry="12"/>
 <rect style="fill:#204e7b" width="40" height="40" x="4" y="4" rx="12" ry="12"/>
 <path style="opacity:0.1;fill:#8b9cbe" d="M 16,4 C 9.352,4 4,9.352 4,16 v 1 C 4,10.352 9.352,5 16,5 h 16 c 6.648,0 12,5.352 12,12 V 16 C 44,9.352 38.648,4 32,4 Z"/>
 <path style="opacity:0.2" d="M 24,11 A 14,14 0 0 0 10,25 14,14 0 0 0 24,39 14,14 0 0 0 38,25 14,14 0 0 0 24,11 Z m -0.0293,7 c 2.991618,-1.02e-4 5.981658,0.0344 6.380859,0.105469 0.949897,0.16917 1.233511,0.52151 1.988282,2.458984 0.766745,1.968214 1.415654,4.679838 1.613281,6.736328 0.114468,1.191137 0.01934,2.009003 -0.326172,2.796875 -0.519766,1.185223 -1.96301,2.07762 -3.029297,1.873047 C 30.049073,31.865454 29.709893,31.447718 28.810547,29.777344 28.352054,28.925776 27.879735,28.142822 27.742188,28 h -7.53711 l -0.0293,0.0332 c -0.132957,0.15218 -0.557766,0.871599 -0.945312,1.599609 -0.387546,0.728011 -0.803799,1.477098 -0.923828,1.664063 -0.396726,0.61797 -1.238355,0.864887 -2.001953,0.585937 -0.946502,-0.345765 -1.722417,-1.087368 -2.056641,-1.964843 -0.652303,-1.712554 0.0232,-5.970293 1.556641,-9.800781 0.597186,-1.49176 0.923511,-1.8612 1.773437,-2.009766 C 17.984997,18.036301 20.979086,18.000102 23.970703,18 Z M 19.5,20 A 2.5,2.5 0 0 0 17,22.5 2.5,2.5 0 0 0 19.5,25 2.5,2.5 0 0 0 22,22.5 2.5,2.5 0 0 0 19.5,20 Z m 9,0 A 2.5,2.5 0 0 0 26,22.5 2.5,2.5 0 0 0 28.5,25 2.5,2.5 0 0 0 31,22.5 2.5,2.5 0 0 0 28.5,20 Z"/>
 <path style="fill:#8b9cbe" d="M 24 10 A 14 14 0 0 0 10 24 A 14 14 0 0 0 24 38 A 14 14 0 0 0 38 24 A 14 14 0 0 0 24 10 z M 23.970703 17 C 26.962321 16.999898 29.952361 17.034397 30.351562 17.105469 C 31.301459 17.274639 31.585073 17.626979 32.339844 19.564453 C 33.106589 21.532667 33.755498 24.244291 33.953125 26.300781 C 34.067593 27.491918 33.972466 28.309784 33.626953 29.097656 C 33.107187 30.282879 31.663943 31.175276 30.597656 30.970703 C 30.049073 30.865454 29.709893 30.447718 28.810547 28.777344 C 28.352054 27.925776 27.879735 27.142822 27.742188 27 L 20.205078 27 L 20.175781 27.033203 C 20.042824 27.185383 19.618015 27.904802 19.230469 28.632812 C 18.842923 29.360823 18.42667 30.10991 18.306641 30.296875 C 17.909915 30.914845 17.068286 31.161762 16.304688 30.882812 C 15.358186 30.537047 14.582271 29.795444 14.248047 28.917969 C 13.595744 27.205415 14.271247 22.947676 15.804688 19.117188 C 16.401874 17.625428 16.728199 17.255988 17.578125 17.107422 C 17.984997 17.036301 20.979086 17.000102 23.970703 17 z M 19.5 19 A 2.5 2.5 0 0 0 17 21.5 A 2.5 2.5 0 0 0 19.5 24 A 2.5 2.5 0 0 0 22 21.5 A 2.5 2.5 0 0 0 19.5 19 z M 28.5 19 A 2.5 2.5 0 0 0 26 21.5 A 2.5 2.5 0 0 0 28.5 24 A 2.5 2.5 0 0 0 31 21.5 A 2.5 2.5 0 0 0 28.5 19 z"/>
</svg>
