<svg xmlns="http://www.w3.org/2000/svg" width="48" height="48" version="1.1">
 <path style="opacity:0.2" d="m 20.063539,5 a 2.1894834,2.2971264 0 0 0 -1.919628,1.1928429 l -7.87459,15.0471091 a 2.1894834,2.2971264 0 0 0 0.0082,2.223182 L 21.103268,43.820987 A 2.1894834,2.2971264 0 0 0 23.016304,45 h 1.967412 a 2.1894834,2.2971264 0 0 0 1.913036,-1.179013 L 37.722459,23.463134 a 2.1894834,2.2971264 0 0 0 0.0082,-2.223182 L 29.856108,6.1928429 A 2.1894834,2.2971264 0 0 0 27.936481,5 Z"/>
 <path style="fill:#4f4f4f" d="m 20.063539,4 a 2.1894834,2.2971264 0 0 0 -1.919628,1.1928429 l -7.87459,15.0471091 a 2.1894834,2.2971264 0 0 0 0.0082,2.223182 L 21.103268,42.820987 A 2.1894834,2.2971264 0 0 0 23.016304,44 h 1.967412 a 2.1894834,2.2971264 0 0 0 1.913036,-1.179013 L 37.722459,22.463134 a 2.1894834,2.2971264 0 0 0 0.0082,-2.223182 L 29.856108,5.1928429 A 2.1894834,2.2971264 0 0 0 27.936481,4 Z"/>
 <path style="opacity:0.2" d="M 21.000009,8.9999997 14,22.333333 21,35.666665 v -5.333332 c -1.286257,-0.141471 -1.654871,-0.775105 -1.740327,-1.715949 -0.09885,-1.088253 0.705146,-1.942719 0.323946,-2.809613 1.485516,0.389915 1.522404,1.010759 1.894525,1.928337 0.184257,-0.64061 0.131975,-1.106815 0.07853,-1.518238 1.928857,0.910333 2.474971,1.937045 2.448848,4.128048 -0.007,0.585616 -1.526126,2.468437 -1.496675,3.026869 0.02945,0.558434 0.610287,1.189558 0.677317,1.657848 0.06585,0.46006 -1.128863,1.060893 -1.128863,1.980878 C 22.057301,37.883664 24,41 24,41 l 2,-3.555556 c -1.062092,0.604803 -1.748537,0.661452 -2.245836,0.635154 -0.712496,0.03653 -1.079769,-0.664049 -0.983344,-1.092603 0.152461,-0.677605 1.229179,-1.463496 1.229179,-1.966687 0,-0.600965 -0.44082,-0.984381 -0.39174,-1.568991 0.04908,-0.584608 2.180819,-2.247474 1.973058,-3.481478 -0.32443,-1.926964 -0.750324,-3.034437 0.991427,-3.839225 -0.21897,0.662675 -0.08571,1.048145 0.02945,1.692749 0.207621,-1.23793 0.83012,-1.401416 1.874892,-2.102848 -0.301929,1.322521 0.315395,1.820108 0.274844,2.81834 C 28.71138,29.537087 27.644777,30.311295 27,30.333333 V 33 c 0.430437,-0.210813 0.604668,3.11e-4 1,0 L 33.999999,22.333333 27,8.9999997 v 1.7777783 c -0.614888,0.355927 -0.663558,0.605368 -0.646626,1.181657 0,0 0.342323,-0.318945 0.646626,-0.292769 0.304301,0.02617 1.990181,4.897058 2,5.333334 -1.5e-5,0.540981 -2,0.888888 -2,1.777778 0.480554,-0.426682 1.267739,-0.28254 1.98518,0.01264 0.557836,0.229515 0.983957,2.731811 1.062485,3.246616 -0.01942,0.523531 -0.647869,0.985982 -1.433164,0.994708 -0.785296,0.0088 -1.138679,-0.122151 -1.148494,-0.436269 -0.0098,-0.31412 1.011066,-1.143042 1.011066,-1.143042 -1.170287,-0.05714 -1.69351,0.660596 -2.130114,1.169218 0.05825,-0.305393 0.117756,-0.523532 0.17671,-0.785296 -0.595257,0.102121 -0.871392,0.518069 -1.089598,0.8551 -0.2959,-0.679432 -2.050854,-2.326049 -2.022144,-2.921734 -0.107504,-0.978703 3.215813,-0.917211 3.568819,-3.193536 -0.0196,-0.863825 -0.921972,-1.47108 -1.75282,-1.666573 -0.667503,-0.157058 -0.883459,-0.209412 -0.883459,-0.209412 0.448211,-0.214393 1.793457,-0.826519 1.472426,-1.675298 -0.123587,0.335094 -0.276286,0.759733 -1.658937,0.828924 -1.413816,-0.605507 -1.230173,-1.514447 -1.001243,-2.251182 -0.932218,0.604733 -0.793704,1.193554 -0.559523,2.05922 0.06654,0.427546 -0.428098,0.786165 -0.572487,1.069735 0.02857,0.357103 0.05162,0.745427 -0.173544,0.910955 -0.559573,0.542737 0.123637,1.369421 0.441711,1.317552 -0.04358,-1.072964 1.179097,-1.490836 1.668752,-1.605493 0.80493,-9e-6 2.253447,0.732943 2.243632,1.265199 -0.0098,0.532256 -0.977341,1.055786 -2.174918,1.413532 -1.197575,0.357746 -2.159564,0.828923 -2.130114,1.980691 0.03749,1.125563 0.631621,2.395899 0.74603,2.703595 -0.399216,-0.341062 -0.619222,-0.834376 -1.197575,-0.907452 0.137911,0.261335 0.280237,0.551983 0.402487,0.855099 -0.605334,-0.870491 -1.231661,-1.124063 -2.326441,-1.256473 1.925274,1.366308 0.595015,1.651896 -0.117782,1.640396 -0.679761,-0.01096 -1.524181,-0.257469 -1.433163,-0.959806 0.05478,-0.422703 0.361469,-2.98924 1.061363,-3.296768 0.737841,-0.324203 1.514649,-0.306467 1.964859,-0.01485 0,-0.888888 -2.013034,-1.374946 -2,-1.777778 0.01302,-0.402831 1.680156,-5.333333 2,-5.333333 0.319844,0 0.432807,0.05952 0.625,0.319444 0.182892,-0.84218 -0.42062,-0.905573 -0.625,-1.208334 10e-6,-0.209412 0,-1.7777776 0,-1.7777776 z"/>
 <path style="fill:#8b9cbe" d="M 21.000009,7.9999997 14,21.333333 21,34.666665 v -5.333332 c -1.286257,-0.141471 -1.654871,-0.775105 -1.740327,-1.715949 -0.09885,-1.088253 0.705146,-1.942719 0.323946,-2.809613 1.485516,0.389915 1.522404,1.010759 1.894525,1.928337 0.184257,-0.64061 0.131975,-1.106815 0.07853,-1.518238 1.928857,0.910333 2.474971,1.937045 2.448848,4.128048 -0.007,0.585616 -1.526126,2.468437 -1.496675,3.026869 0.02945,0.558434 0.610287,1.189558 0.677317,1.657848 0.06585,0.46006 -1.128863,1.060893 -1.128863,1.980878 C 22.057301,36.883664 24,40 24,40 l 2,-3.555556 c -1.062092,0.604803 -1.748537,0.661452 -2.245836,0.635154 -0.712496,0.03653 -1.079769,-0.664049 -0.983344,-1.092603 0.152461,-0.677605 1.229179,-1.463496 1.229179,-1.966687 0,-0.600965 -0.44082,-0.984381 -0.39174,-1.568991 0.04908,-0.584608 2.180819,-2.247474 1.973058,-3.481478 -0.32443,-1.926964 -0.750324,-3.034437 0.991427,-3.839225 -0.21897,0.662675 -0.08571,1.048145 0.02945,1.692749 0.207621,-1.23793 0.83012,-1.401416 1.874892,-2.102848 -0.301929,1.322521 0.315395,1.820108 0.274844,2.81834 C 28.71138,28.537087 27.644777,29.311295 27,29.333333 V 32 c 0.430437,-0.210813 0.604668,3.11e-4 1,0 L 33.999999,21.333333 27,7.9999997 v 1.7777779 c -0.614888,0.3559274 -0.663558,0.6053684 -0.646626,1.1816574 0,0 0.342323,-0.318945 0.646626,-0.292769 0.304301,0.02617 1.990181,4.897058 2,5.333334 -1.5e-5,0.540981 -2,0.888888 -2,1.777778 0.480554,-0.426682 1.267739,-0.28254 1.98518,0.01264 0.557836,0.229515 0.983957,2.731811 1.062485,3.246616 -0.01942,0.523531 -0.647869,0.985982 -1.433164,0.994708 -0.785296,0.0088 -1.138679,-0.122151 -1.148494,-0.436269 -0.0098,-0.31412 1.011066,-1.143042 1.011066,-1.143042 -1.170287,-0.05714 -1.69351,0.660596 -2.130114,1.169218 0.05825,-0.305393 0.117756,-0.523532 0.17671,-0.785296 -0.595257,0.102121 -0.871392,0.518069 -1.089598,0.8551 -0.2959,-0.679432 -2.050854,-2.326049 -2.022144,-2.921734 -0.107504,-0.978703 3.215813,-0.917211 3.568819,-3.193536 -0.0196,-0.863825 -0.921972,-1.47108 -1.75282,-1.666573 -0.667503,-0.157058 -0.883459,-0.209412 -0.883459,-0.209412 0.448211,-0.214393 1.793457,-0.826519 1.472426,-1.675298 -0.123587,0.335094 -0.276286,0.759733 -1.658937,0.828924 -1.413816,-0.605507 -1.230173,-1.514447 -1.001243,-2.251182 -0.932218,0.604733 -0.793704,1.193554 -0.559523,2.05922 0.06654,0.427546 -0.428098,0.786165 -0.572487,1.069735 0.02857,0.357103 0.05162,0.745427 -0.173544,0.910955 -0.559573,0.542737 0.123637,1.369421 0.441711,1.317552 -0.04358,-1.072964 1.179097,-1.490836 1.668752,-1.605493 0.80493,-9e-6 2.253447,0.732943 2.243632,1.265199 -0.0098,0.532256 -0.977341,1.055786 -2.174918,1.413532 -1.197575,0.357746 -2.159564,0.828923 -2.130114,1.980691 0.03749,1.125563 0.631621,2.395899 0.74603,2.703595 -0.399216,-0.341062 -0.619222,-0.834376 -1.197575,-0.907452 0.137911,0.261335 0.280237,0.551983 0.402487,0.855099 -0.605334,-0.870491 -1.231661,-1.124063 -2.326441,-1.256473 1.925274,1.366308 0.595015,1.651896 -0.117782,1.640396 -0.679761,-0.01096 -1.524181,-0.257469 -1.433163,-0.959806 0.05478,-0.422703 0.361469,-2.98924 1.061363,-3.296768 0.737841,-0.324203 1.514649,-0.306467 1.964859,-0.01485 0,-0.888888 -2.013034,-1.374946 -2,-1.777778 0.01302,-0.402831 1.680156,-5.333333 2,-5.333333 0.319844,0 0.432807,0.05952 0.625,0.319444 0.182892,-0.84218 -0.42062,-0.905573 -0.625,-1.2083337 10e-6,-0.2094123 0,-1.7777779 0,-1.7777779 z"/>
 <path style="opacity:0.1;fill:#8b9cbe" d="M 20.064453 4 A 2.1894834 2.2971264 0 0 0 18.144531 5.1933594 L 10.269531 20.240234 A 2.1894834 2.2971264 0 0 0 10.054688 21.84375 A 2.1894834 2.2971264 0 0 1 10.269531 21.240234 L 18.144531 6.1933594 A 2.1894834 2.2971264 0 0 1 20.064453 5 L 27.935547 5 A 2.1894834 2.2971264 0 0 1 29.855469 6.1933594 L 37.730469 21.240234 A 2.1894834 2.2971264 0 0 1 37.947266 21.847656 A 2.1894834 2.2971264 0 0 0 37.730469 20.240234 L 29.855469 5.1933594 A 2.1894834 2.2971264 0 0 0 27.935547 4 L 20.064453 4 z"/>
</svg>
