<svg width="48" height="48" version="1.1" xmlns="http://www.w3.org/2000/svg">
 <path d="m24 4.0001-2e-3 0.0039c-11.007 0.0839-19.844 8.9681-19.844 19.996 0 11.08 8.92 20 20 20 10.68 0 19.351-8.289 19.963-18.811l0.037-0.035v-17.154c0-2.216-1.784-4-4-4h-16.154z" style="fill:#57b339"/>
 <path d="m24 10c-2.500347 0.0055-4.85936 0.635935-7.054 1.833984v6.027344c1.868845-1.833278 4.436083-2.860592 7.054-2.861328v3c-3.094516 0.0014-5.975228 2.034479-6.859375 5h-3.140625l-0.154297-9.021484c-3.083445 2.835964-4.8404192 6.832176-4.845703 11.021484 0.00268 2.440311 0.6006975 4.843121 1.742187 7h5.964844c-1.833278-1.868845-2.706295-4.382083-2.707031-7h2.845703c0.0014 3.094516 2.034479 5.820931 5 6.705078v3.294922h-9.001953c2.840023 3.175254 6.896212 4.993153 11.15625 5 2.381011-9.35e-4 4.827892-0.568668 6.946-1.65625v-6.205078c-1.868845 1.833278-4.48238 2.860592-7.100297 2.861328v-3c3.094516-0.0014 5.820931-2.034479 6.705078-5h3.449219v9.291016c3.267686-2.842988 4.992649-6.959699 5-11.291016-0.0033-2.440475-0.601973-4.843294-1.744141-7h-6.271484c1.833278 1.868845 2.860592 4.382083 2.861328 7h-3c-0.0014-3.094516-1.880182-5.820931-4.845703-6.705078v-3.294922h9.15625c-2.840023-3.175254-6.896212-4.993153-11.15625-5zm-0.154297 10c2.761424 0 5 2.238576 5 5s-2.238576 5-5 5-5-2.238576-5-5 2.238576-5 5-5z" style="opacity:.2"/>
 <path d="m24 9c-2.500347 0.0055-4.85936 0.6362791-7.054 1.834328v6.027344c1.868845-1.833278 4.436083-2.860936 7.054-2.861672v3c-3.094516 0.0014-5.975228 2.034479-6.859375 5h-3.140625l-0.154297-9.021484c-3.083445 2.835964-4.8404192 6.832176-4.845703 11.021484 0.00268 2.440311 0.6006975 4.843121 1.742187 7h5.964844c-1.833278-1.868845-2.706295-4.382083-2.707031-7h2.845703c0.0014 3.094516 2.034479 5.820931 5 6.705078v3.294922h-9.001953c2.840023 3.175254 6.896212 4.993153 11.15625 5 2.381011-9.35e-4 4.827892-0.568668 6.946-1.65625v-6.205078c-1.868845 1.833278-4.48238 2.860592-7.100297 2.861328v-3c3.094516-0.0014 5.820931-2.034479 6.705078-5h3.449219v9.291016c3.267686-2.842988 4.992649-6.959699 5-11.291016-0.0033-2.440475-0.601973-4.843294-1.744141-7h-6.271484c1.833278 1.868845 2.860592 4.382083 2.861328 7h-3c-0.0014-3.094516-1.880182-5.820931-4.845703-6.705078v-3.294922h9.15625c-2.840023-3.175254-6.896212-4.9931535-11.15625-5zm-0.154297 10c2.761424 0 5 2.238576 5 5s-2.238576 5-5 5-5-2.238576-5-5 2.238576-5 5-5z" style="fill:#8b9cbe"/>
 <path d="m24 4.0001-2e-3 0.0039c-11.007 0.0839-19.844 8.9681-19.844 19.996 0 0.168 0.0076 0.333 0.0117 0.5 0.2632-10.794 8.9923-19.414 19.832-19.496l2e-3 -4e-3h16.154c2.216 0 4 1.784 4 4v-1c0-2.216-1.784-4-4-4h-16.154z" style="fill:#8b9cbe;opacity:.2"/>
 <path d="m4.1657 24.5001c-4e-3 0.167-0.0117 0.332-0.0117 0.5 0 11.08 8.92 20 20 20 10.68 0 19.351-8.289 19.963-18.811l0.037-0.035v-1l-0.03711 0.03516c-0.612 10.522-9.283 18.811-19.963 18.811-10.912 0-19.724-8.654-19.988-19.5z" style="opacity:.2"/>
</svg>
