<svg xmlns="http://www.w3.org/2000/svg" width="48" height="48" version="1">
 <rect style="opacity:0.2" width="40" height="40" x="4" y="5" rx="2" ry="2"/>
 <rect style="fill:#f2385a" width="40" height="40" x="4" y="4" rx="2" ry="2"/>
 <path fill="#fff" style="opacity:0.2" d="m6 4c-1.108 0-2 0.892-2 2v1c0-1.108 0.892-2 2-2h36c1.108 0 2 0.892 2 2v-1c0-1.108-0.892-2-2-2h-36z"/>
 <path style="opacity:0.2" d="m 10,9 v 6 h 4 V 14.230469 H 10.615234 V 9 Z m 7,0 c 0.110789,0.9589743 0.344717,1.726422 0.701172,2.300781 0.327553,0.528206 0.806478,1.028205 1.4375,1.5 V 15 h 0.722656 v -2.199219 c 0.631022,-0.471795 1.109948,-0.971794 1.4375,-1.5 C 21.655283,10.726422 21.889209,9.9589743 22,9 h -0.730469 c -0.09634,0.7846154 -0.289107,1.412971 -0.578125,1.884766 C 20.421656,11.325791 20.025048,11.743801 19.5,12.138672 18.974953,11.743801 18.578343,11.325791 18.308594,10.884766 18.019575,10.412971 17.826807,9.7846154 17.730469,9 Z m 9,0 v 6 h 0.597656 V 10.777344 L 30,15 V 9 h -0.597656 v 4.207031 z m 8,0 v 6 h 4 v -0.769531 h -3.384766 v -2.146485 h 2.460938 V 11.314453 H 34.615234 V 9.7695312 H 38 V 9 Z m -22,8.5 -3,3 3,3 3,-3 z m 8,0 -3,3 3,3 3,-3 z m 8,0 -3,3 3,3 3,-3 z m 8,0 -3,3 3,3 3,-3 z m -24,8 -3,3 3,3 3,-3 z m 8,0 -3,3 3,3 3,-3 z m 8,0 -3,3 3,3 3,-3 z m 8,0 -3,3 3,3 3,-3 z m -24,8 -3,3 3,3 3,-3 z m 8,0 -3,3 3,3 3,-3 z m 8,0 -3,3 3,3 3,-3 z m 8,0 -3,3 3,3 3,-3 z"/>
 <path style="fill:#8b9cbe" d="M 10 8 L 10 14 L 14 14 L 14 13.230469 L 10.615234 13.230469 L 10.615234 8 L 10 8 z M 17 8 C 17.110789 8.9589743 17.344717 9.7264223 17.701172 10.300781 C 18.028725 10.828987 18.50765 11.328986 19.138672 11.800781 L 19.138672 14 L 19.861328 14 L 19.861328 11.800781 C 20.49235 11.328986 20.971276 10.828987 21.298828 10.300781 C 21.655283 9.7264223 21.889209 8.9589743 22 8 L 21.269531 8 C 21.173192 8.7846154 20.980424 9.4129708 20.691406 9.8847656 C 20.421656 10.325791 20.025048 10.743801 19.5 11.138672 C 18.974953 10.743801 18.578343 10.325791 18.308594 9.8847656 C 18.019575 9.4129708 17.826807 8.7846154 17.730469 8 L 17 8 z M 26 8 L 26 14 L 26.597656 14 L 26.597656 9.7773438 L 30 14 L 30 8 L 29.402344 8 L 29.402344 12.207031 L 26 8 z M 34 8 L 34 14 L 38 14 L 38 13.230469 L 34.615234 13.230469 L 34.615234 11.083984 L 37.076172 11.083984 L 37.076172 10.314453 L 34.615234 10.314453 L 34.615234 8.7695312 L 38 8.7695312 L 38 8 L 34 8 z M 12 16.5 L 9 19.5 L 12 22.5 L 15 19.5 L 12 16.5 z M 20 16.5 L 17 19.5 L 20 22.5 L 23 19.5 L 20 16.5 z M 28 16.5 L 25 19.5 L 28 22.5 L 31 19.5 L 28 16.5 z M 36 16.5 L 33 19.5 L 36 22.5 L 39 19.5 L 36 16.5 z M 12 24.5 L 9 27.5 L 12 30.5 L 15 27.5 L 12 24.5 z M 20 24.5 L 17 27.5 L 20 30.5 L 23 27.5 L 20 24.5 z M 28 24.5 L 25 27.5 L 28 30.5 L 31 27.5 L 28 24.5 z M 36 24.5 L 33 27.5 L 36 30.5 L 39 27.5 L 36 24.5 z M 12 32.5 L 9 35.5 L 12 38.5 L 15 35.5 L 12 32.5 z M 20 32.5 L 17 35.5 L 20 38.5 L 23 35.5 L 20 32.5 z M 28 32.5 L 25 35.5 L 28 38.5 L 31 35.5 L 28 32.5 z M 36 32.5 L 33 35.5 L 36 38.5 L 39 35.5 L 36 32.5 z"/>
</svg>
