<svg width="48" height="48" version="1.1" xmlns="http://www.w3.org/2000/svg">
 <path d="m22 4-2 3-2 1-1 1-3 5-4 10-2 4v3l-1 4v6l8-1 9-8 9 8 8 1v-6l-1-4v-3l-2-4-4-10-3-5-1-1-2-1-2-3z" style="fill:#922292"/>
 <path d="m22 4-2 3-2 1-1 1-3 5-4 10-2 4v1l2-4 4-10 3-5 1-1 2-1 2-3h4l2 3 2 1 1 1 3 5 4 10 2 4v-1l-2-4-4-10-3-5-1-1-2-1-2-3zm-14 27-1 4v1l1-4zm32 0v1l1 4v-1z" style="fill:#8b9cbe;opacity:.1"/>
 <path d="m21 31c-1 0-4 4-5 6h-4c-2 0-2.945907 0.945907-4 2-1 1-1 3-1 3s0.00939 0.06209 0.033203 0.146484a5.5 3.5 0 0 0-0.033203 0.353516 5.5 3.5 0 0 0 5.5 3.5 5.5 3.5 0 0 0 5.5-3.5 5.5 3.5 0 0 0-0.080078-0.572266c0.129138-0.09989 0.229183-0.185702 0.33789-0.27539 1.149439 3.347857 5.742188 3.347656 5.742188 3.347656s4.592749 2.01e-4 5.742188-3.347656c0.107337 0.08856 0.206714 0.172951 0.333984 0.271484a5.5 3.5 0 0 0-0.076172 0.576172 5.5 3.5 0 0 0 5.5 3.5 5.5 3.5 0 0 0 5.5-3.5 5.5 3.5 0 0 0-0.03125-0.363281c0.021582-0.079517 0.03125-0.136719 0.03125-0.136719s0-2-1-3c-1.054093-1.054093-2-2-4-2h-4c-1-2-4-6-5-6h-3z" style="opacity:.2"/>
 <path d="m21 30c-1 0-4 4-5 6h-4c-2 0-2.945907 0.945907-4 2-1 1-1 3-1 3s0 2 6 2c3 0 6-3 6-3h10s3 3 6 3c6 0 6-2 6-2s0-2-1-3c-1.054093-1.054093-2-2-4-2h-4c-1-2-4-6-5-6h-3z" style="fill:#f46baa"/>
 <path d="m24 33s-6 0-6 6c0 5 6 5 6 5s6 0 6-5c0-6-6-6-6-6zm-11.5 5a5.5 3.5 0 0 0-5.5 3.5 5.5 3.5 0 0 0 5.5 3.5 5.5 3.5 0 0 0 5.5-3.5 5.5 3.5 0 0 0-5.5-3.5zm23 0a5.5 3.5 0 0 0-5.5 3.5 5.5 3.5 0 0 0 5.5 3.5 5.5 3.5 0 0 0 5.5-3.5 5.5 3.5 0 0 0-5.5-3.5z" style="fill:#922292"/>
 <path d="m22 6-4 1v2l3.5-1-1.5 6h-2v-4h-2s-2 2-2 5h9l1-1.5 1 1.5h9c0-3-2-5-2-5h-2v4h-2l-1.5-6 3.5 1v-2l-4-1 0.888672 8h-0.888672l-1-2h-2l-1 2h-0.888672zm-8 10c-1.085185 0-1.995237 0.574429-2.671875 1.289062-0.676638 0.714636-1.160232 1.600426-1.314453 2.550782-0.1926206 1.186978 0.457535 2.103484 0.974609 2.777344 0.517075 0.673859 0.949909 1.23562 1.039063 1.613281 0.138674 0.587434 0.163395 1.821048 0.117187 2.832031-0.04621 1.010983-0.138672 1.824219-0.138672 1.824219a1.0005743 1.0005743 0 1 0 1.988282 0.226562s0.09891-0.875488 0.148437-1.958984c0.04952-1.083497 0.07433-2.350118-0.169922-3.384766-0.253341-1.073173-0.939486-1.775528-1.396484-2.371093-0.456998-0.595567-0.63601-0.953797-0.589844-1.238282 0.07231-0.445596 0.381746-1.059716 0.794922-1.496094 0.413176-0.436376 0.889721-0.664062 1.21875-0.664062h2a1.0001 1.0001 0 1 0 0-2zm7 0-2 6h10l-2-6v5h-6zm11 0a1.0001 1.0001 0 1 0 0 2h2c0.329029 0 0.805574 0.227685 1.21875 0.664062 0.413176 0.436379 0.722611 1.050498 0.794922 1.496094 0.04617 0.284485-0.132846 0.642714-0.589844 1.238282-0.456998 0.595566-1.143143 1.29792-1.396484 2.371093-0.244248 1.034648-0.219445 2.301269-0.169922 3.384766 0.04952 1.083496 0.148437 1.958984 0.148437 1.958984a1.0005743 1.0005743 0 1 0 1.988282-0.226562s-0.09246-0.813236-0.138672-1.824219c-0.04621-1.010983-0.02149-2.244597 0.117187-2.832031 0.08915-0.377661 0.521988-0.939422 1.039063-1.613281 0.517074-0.673861 1.167229-1.590366 0.974609-2.777344-0.154221-0.950356-0.637815-1.836146-1.314453-2.550782-0.676638-0.714634-1.58669-1.289062-2.671875-1.289062zm-17 10v6c-0.783714 1.268075-4 2-4 2s4 0 6-1v-5zm18 0-2 2v5c2 1 6 1 6 1s-3.216286-0.731925-4-2zm-23 1v3l-2 2v2l3-2v-4zm28 0-1 1v4l3 2v-2l-2-2z" style="opacity:.2"/>
 <path d="m22 5-4 1v2l3.5-1-1.5 6h-2v-4h-2s-2 2-2 5h9l1-1.5 1 1.5h9c0-3-2-5-2-5h-2v4h-2l-1.5-6 3.5 1v-2l-4-1 0.888672 8h-0.888672l-1-2h-2l-1 2h-0.888672zm-8 10c-1.085185 0-1.995237 0.574429-2.671875 1.289062-0.676638 0.714636-1.160232 1.600426-1.314453 2.550782-0.1926206 1.186978 0.457535 2.103484 0.974609 2.777344 0.517075 0.673859 0.949909 1.23562 1.039063 1.613281 0.138674 0.587434 0.163395 1.821048 0.117187 2.832031-0.04621 1.010983-0.138672 1.824219-0.138672 1.824219-0.151234 1.325674 1.837048 1.552236 1.988282 0.226562 0 0 0.09891-0.875488 0.148437-1.958984 0.04952-1.083497 0.07433-2.350118-0.169922-3.384766-0.253341-1.073173-0.939486-1.775528-1.396484-2.371093-0.456998-0.595567-0.63601-0.953797-0.589844-1.238282 0.07231-0.445596 0.381746-1.059716 0.794922-1.496094 0.413176-0.436376 0.889721-0.664062 1.21875-0.664062h2c1.352323 0.01912 1.352323-2.019125 0-2zm7 0-2 6h10l-2-6v5h-6zm11 0c-1.352323-0.01913-1.352323 2.019125 0 2h2c0.329029 0 0.805574 0.227685 1.21875 0.664062 0.413176 0.436379 0.722611 1.050498 0.794922 1.496094 0.04617 0.284485-0.132846 0.642714-0.589844 1.238282-0.456998 0.595566-1.143143 1.29792-1.396484 2.371093-0.244248 1.034648-0.219445 2.301269-0.169922 3.384766 0.04952 1.083496 0.148437 1.958984 0.148437 1.958984 0.150888 1.325713 2.13917 1.099151 1.988282-0.226562 0 0-0.09246-0.813236-0.138672-1.824219-0.04621-1.010983-0.02149-2.244597 0.117187-2.832031 0.08915-0.377661 0.521988-0.939422 1.039063-1.613281 0.517074-0.673861 1.167229-1.590366 0.974609-2.777344-0.154221-0.950356-0.637815-1.836146-1.314453-2.550782-0.676638-0.714634-1.58669-1.289062-2.671875-1.289062zm-17 10v6c-0.783714 1.268075-4 2-4 2s4 0 6-1v-5zm18 0-2 2v5c2 1 6 1 6 1s-3.216286-0.731925-4-2zm-23 1v3l-2 2v2l3-2v-4zm28 0-1 1v4l3 2v-2l-2-2z" style="fill:#f46baa"/>
 <path d="m24 37a4 3 0 0 0-4 3 4 3 0 0 0 4 3 4 3 0 0 0 4-3 4 3 0 0 0-4-3zm-11.5 4a2.5 1.5 0 0 0-2.5 1.5 2.5 1.5 0 0 0 2.5 1.5 2.5 1.5 0 0 0 2.5-1.5 2.5 1.5 0 0 0-2.5-1.5zm23 0a2.5 1.5 0 0 0-2.5 1.5 2.5 1.5 0 0 0 2.5 1.5 2.5 1.5 0 0 0 2.5-1.5 2.5 1.5 0 0 0-2.5-1.5z" style="opacity:.2"/>
 <path d="m24 36a4 3 0 0 0-4 3 4 3 0 0 0 4 3 4 3 0 0 0 4-3 4 3 0 0 0-4-3zm-11.5 4a2.5 1.5 0 0 0-2.5 1.5 2.5 1.5 0 0 0 2.5 1.5 2.5 1.5 0 0 0 2.5-1.5 2.5 1.5 0 0 0-2.5-1.5zm23 0a2.5 1.5 0 0 0-2.5 1.5 2.5 1.5 0 0 0 2.5 1.5 2.5 1.5 0 0 0 2.5-1.5 2.5 1.5 0 0 0-2.5-1.5z" style="fill:#f46baa"/>
 <path d="m21 30c-1 0-4 4-5 6h-4c-2 0-2.945907 0.945907-4 2-1 1-1 3-1 3s0.010425 0.105691 0.072266 0.253906c0.0898859-0.673789 0.3088307-1.635003 0.927734-2.253906 1.054093-1.054093 2-2 4-2h4c1-2 4-6 5-6h6c1 0 4 4 5 6h4c2 0 2.945907 0.945907 4 2 0.618903 0.618903 0.837848 1.580117 0.927734 2.253906 0.061841-0.148215 0.072266-0.253906 0.072266-0.253906s0-2-1-3c-1.054093-1.054093-2-2-4-2h-4c-1-2-4-6-5-6h-3z" style="fill:#8b9cbe;opacity:.2"/>
 <path d="m 24,33 c 0,0 -6,0 -6,6 0,0.161469 0.02305,0.303869 0.03516,0.455078 C 18.397444,34.016811 24,34 24,34 c 0,0 5.602556,0.01681 5.964844,5.455078 C 29.976954,39.303869 30,39.161469 30,39 30,33 24,33 24,33 Z M 12.5,38 A 5.5,3.5 0 0 0 7,41.5 5.5,3.5 0 0 0 7.0625,41.998047 5.5,3.5 0 0 1 12.5,39 5.5,3.5 0 0 1 17.9375,42.001953 5.5,3.5 0 0 0 18,41.5 5.5,3.5 0 0 0 12.5,38 Z m 23,0 A 5.5,3.5 0 0 0 30,41.5 5.5,3.5 0 0 0 30.0625,41.998047 5.5,3.5 0 0 1 35.5,39 5.5,3.5 0 0 1 40.9375,42.001953 5.5,3.5 0 0 0 41,41.5 5.5,3.5 0 0 0 35.5,38 Z" style="fill:#8b9cbe;opacity:.1"/>
</svg>
