<svg xmlns="http://www.w3.org/2000/svg" height="48" width="48" version="1.1">
 <path style="opacity:.2" d="m24 5-20 20 20 20 20-20z"/>
 <path style="fill:#00a1fd" d="m24 4-20 20 20 20 20-20z"/>
 <path style="opacity:.1;fill:#8b9cbe" d="m24 4l-20 20 0.5 0.5 19.5-19.5 19.5 19.5 0.5-0.5-20-20z"/>
 <rect style="opacity:.2" rx="2.909091" ry="2.909091" height="32" width="32" y="9" x="8"/>
 <rect style="fill:#47bcff" rx="2.909091" ry="2.909091" height="32" width="32" y="8" x="8"/>
 <path style="opacity:.2" d="m17 22v-4h4l3 3 3-3h4v4l-3 3 3 3v4h-4l-3-3-3 3h-4v-4l3-3z"/>
 <path style="fill:#8b9cbe" d="m17 21v-4h4l3 3 3-3h4v4l-3 3 3 3v4h-4l-3-3-3 3h-4v-4l3-3z"/>
 <path style="opacity:.2;fill:#8b9cbe" d="m10.908203 8c-1.6116363 0-2.908203 1.2965667-2.908203 2.908203v1c0-1.611636 1.2965667-2.908203 2.908203-2.908203h26.183594c1.611636 0 2.908203 1.296567 2.908203 2.908203v-1c0-1.6116363-1.296567-2.908203-2.908203-2.908203h-26.183594z"/>
</svg>
