<svg xmlns="http://www.w3.org/2000/svg" width="48" height="48" version="1">
 <path fill="#fecd38" d="m24 4c-11.08 0-20 8.92-20 20s8.92 20 20 20 20-8.92 20-20-8.92-20-20-20z"/>
 <path fill="#fff" opacity=".2" d="m24 4c-11.08 0-20 8.92-20 20 0 0.168-0.004 0.333 0 0.5 0.2644-10.846 9.088-19.5 20-19.5s19.736 8.654 20 19.5c0.004-0.167 0-0.332 0-0.5 0-11.08-8.92-20-20-20z"/>
 <path opacity=".2" d="m4.0117 24.5c-0.0041 0.167-0.0117 0.332-0.0117 0.5 0 11.08 8.92 20 20 20s20-8.92 20-20c0-0.168-0.008-0.333-0.012-0.5-0.264 10.846-9.076 19.5-19.988 19.5s-19.724-8.654-19.988-19.5z"/>
 <g fill="#fff" opacity=".2" transform="matrix(.075417 0 0 .074989 7.0001 6.0963)">
  <g>
   <path d="m186.98 323.4-75.443 115.38s-57.62-12.844-91.065-70.775c-33.452-57.92-15.849-114.38-15.849-114.38l137.65-7.649c0.48 15.102 4.552 30.319 12.645 44.33 8.081 14.003 19.217 25.142 32.061 33.109zm259.18-71.55-137.65-7.64c-0.477 15.101-4.566 30.313-12.648 44.321-8.093 13.997-19.223 25.144-32.071 33.111l75.453 115.38s57.705-12.99 91.149-70.926c33.445-57.927 15.763-114.24 15.763-114.24zm-222.3-84.5c16.176 0 31.393 4.068 44.714 11.201l62.21-123.03s-40.104-43.472-106.99-43.472c-66.895 0-106.82 43.472-106.82 43.472l62.206 123.03c13.319-7.133 28.531-11.201 44.701-11.201zm0 29.808c-26.949 0-48.799 21.848-48.799 48.795 0 26.956 21.851 48.799 48.799 48.799 26.961 0 48.799-21.843 48.799-48.799 0-26.954-21.844-48.795-48.799-48.795z"/>
  </g>
 </g>
 <g fill="#17191e" transform="matrix(.075417 0 0 .074989 7.0001 5.0963)">
  <g>
   <path d="m186.98 323.4-75.443 115.38s-57.62-12.844-91.065-70.775c-33.452-57.92-15.849-114.38-15.849-114.38l137.65-7.649c0.48 15.102 4.552 30.319 12.645 44.33 8.081 14.003 19.217 25.142 32.061 33.109zm259.18-71.55-137.65-7.64c-0.477 15.101-4.566 30.313-12.648 44.321-8.093 13.997-19.223 25.144-32.071 33.111l75.453 115.38s57.705-12.99 91.149-70.926c33.445-57.927 15.763-114.24 15.763-114.24zm-222.3-84.5c16.176 0 31.393 4.068 44.714 11.201l62.21-123.03s-40.104-43.472-106.99-43.472c-66.895 0-106.82 43.472-106.82 43.472l62.206 123.03c13.319-7.133 28.531-11.201 44.701-11.201zm0 29.808c-26.949 0-48.799 21.848-48.799 48.795 0 26.956 21.851 48.799 48.799 48.799 26.961 0 48.799-21.843 48.799-48.799 0-26.954-21.844-48.795-48.799-48.795z"/>
  </g>
 </g>
</svg>
