<svg xmlns="http://www.w3.org/2000/svg" width="48" height="48" version="1">
 <path style="opacity:0.2" d="m 20,5.0003507 v 0.027344 38.7792975 c -0.05694,1.13884 -0.116227,1.169921 0.976562,1.169921 h 6.107422 C 28.217646,45.098029 28,44.751109 28,43.734726 V 5.0276945 5.0003507 Z m 8,0.027344 c 0,10.0069385 0.06844,17.7142195 2.001953,24.3085945 1.825363,6.225519 5.462165,11.298958 11.160156,15.15039 0.844431,0.553608 1.100965,0.866963 1.625,-0.339844 l 2.863282,-4.90039 C 46.215486,38.279278 46.114675,38.27836 45.199219,37.69957 36.94332,31.677094 33.762462,19.048051 33.615234,5.9866788 33.609934,5.1801831 33.687878,4.9073579 32.705078,5.0276945 Z m -8,0 H 15.294922 C 14.312119,4.9073581 14.390065,5.1801831 14.384766,5.9866788 14.237537,19.048051 11.056681,31.677094 2.8007812,37.69957 1.8853254,38.27836 1.7845147,38.279278 2.3496094,39.246445 l 2.8632812,4.90039 c 0.524035,1.206807 0.7805692,0.893452 1.625,0.339844 C 12.535881,40.635247 16.172684,35.561807 17.998047,29.336289 19.931561,22.741915 20,15.034633 20,5.0276945 Z"/>
 <path style="fill:#ffa726" d="m 19.999893,4.0000002 v 0.027328 38.7784388 c -0.05694,1.13884 -0.116201,1.1712 0.976589,1.1712 h 6.107585 c 1.133662,0.121115 0.91604,-0.227041 0.91604,-1.243424 V 4.0273283 4.0000002 Z m 8.000214,0.027328 c 0,10.0069378 0.06849,17.7138858 2.002006,24.3082598 1.825363,6.225519 5.462463,11.299996 11.160454,15.151428 0.844431,0.553608 1.101009,0.867158 1.625044,-0.339649 l 2.863358,-4.901473 C 46.216064,37.278727 46.115241,37.2787 45.199785,36.69991 36.943886,30.677434 33.762719,18.047132 33.615491,4.9857603 c -0.0053,-0.8064957 0.07262,-1.0787685 -0.91018,-0.958432 z m -8.000214,0 H 15.29469 C 14.311887,3.9069918 14.389809,4.1792646 14.38451,4.9857603 14.237281,18.047132 11.056115,30.677434 2.8002152,36.69991 1.8847593,37.2787 1.7839366,37.278727 2.3490313,38.245894 l 2.8633576,4.901473 c 0.524035,1.206807 0.7806126,0.893257 1.6250434,0.339649 5.6979907,-3.851432 9.3350917,-8.925909 11.1604547,-15.151428 1.933514,-6.594374 2.002006,-14.301322 2.002006,-24.3082598 z"/>
 <path style="opacity:0.2;fill:#8b9cbe" d="M 20 4 L 20 4.0273438 L 20 5 L 28 5 L 28 4.0273438 L 28 4 L 20 4 z M 28 4.0273438 C 28 4.3801084 28.00561 4.6802435 28.005859 5.0273438 L 32.705078 5.0273438 C 33.687878 4.9070073 33.609934 5.1798324 33.615234 5.9863281 C 33.762462 19.0477 36.94332 31.676743 45.199219 37.699219 C 45.436378 37.849161 45.617647 37.959459 45.748047 38.058594 C 46.164911 37.307796 46.03922 37.230303 45.199219 36.699219 C 36.94332 30.676743 33.762462 18.0477 33.615234 4.9863281 C 33.609934 4.1798324 33.687878 3.9070072 32.705078 4.0273438 L 28 4.0273438 z M 20 4.0273438 L 15.294922 4.0273438 C 14.312119 3.9070074 14.390065 4.1798324 14.384766 4.9863281 C 14.237537 18.0477 11.056681 30.676743 2.8007812 36.699219 C 1.9607803 37.230303 1.8350888 37.307796 2.2519531 38.058594 C 2.3823533 37.959459 2.5636224 37.849161 2.8007812 37.699219 C 11.056681 31.676743 14.237537 19.0477 14.384766 5.9863281 C 14.390065 5.1798324 14.312119 4.9070073 15.294922 5.0273438 L 19.994141 5.0273438 C 19.99439 4.6802435 20 4.3801084 20 4.0273438 z M 28 42.734375 L 28 43.503906 C 28.009016 43.306862 28 43.069925 28 42.734375 z M 20 42.806641 C 19.978159 43.243482 19.957372 43.515644 20 43.6875 L 20 42.806641 z"/>
</svg>
