<svg xmlns="http://www.w3.org/2000/svg" width="48" height="48" version="1">
 <rect style="fill:#41ab93" width="34" height="31" x="7" y="10"/>
 <rect style="fill:#b2bfd9" width="2" height="20" x="31" y="7"/>
 <rect style="fill:#b2bfd9" width="2" height="20" x="23" y="7"/>
 <rect style="fill:#b2bfd9" width="2" height="20" x="15" y="7"/>
 <circle style="opacity:0.1" cx="16" cy="29" r="4"/>
 <circle style="fill:#17191e" cx="16" cy="28" r="4"/>
 <path style="fill:#4f4f4f" d="M 6.0033359,7 C 4.8954332,7 3.9344025,7.8941577 4.0035115,9 V 41 H 8.0031604 V 11 H 40.000352 V 41 H 44 V 9 C 44,7.892 43.108079,7 42.000176,7 Z"/>
 <circle style="opacity:0.1" cx="24" cy="29" r="4"/>
 <circle style="fill:#17191e" cx="24" cy="28" r="4"/>
 <circle style="opacity:0.1" cx="32" cy="29" r="4"/>
 <circle style="fill:#17191e" cx="32" cy="28" r="4"/>
 <path style="fill:#8b9cbe;opacity:0.1" d="M 6.0039062 7 C 4.8960036 7 3.9347973 7.8941577 4.0039062 9 L 4.0039062 10 C 3.9347973 8.8941577 4.8960036 8 6.0039062 8 L 42 8 C 43.107903 8 44 8.892 44 10 L 44 9 C 44 7.892 43.107903 7 42 7 L 6.0039062 7 z"/>
 <rect style="opacity:0.2" width="40" height="1" x="4" y="41"/>
 <rect style="opacity:0.2" width="32" height="1" x="8" y="11"/>
</svg>
