<svg xmlns="http://www.w3.org/2000/svg" width="48" height="48" version="1">
 <path style="opacity:0.2" d="m 26.028789,9.0004814 c -0.416366,-0.0055 -0.953645,0.03628 -1.686839,0.1173602 C 19.151309,9.6918477 14.821204,13.01834 9.8678684,20.235595 8.3722345,22.414808 6.449937,25.21376 5.5962473,26.455698 1.999942,31.687567 2.1548705,37.05678 5.967323,39.314539 c 2.4640179,1.459209 4.84498,2.037854 8.614058,2.094597 1.89447,0.02852 4.668191,0.168699 6.163825,0.311291 4.172876,0.397841 4.69538,0.388573 7.632548,-0.140976 3.287363,-0.592681 5.823299,-1.827009 7.85987,-3.824233 1.599027,-1.568136 3.882477,-5.908838 4.240461,-7.806614 C 43.476876,20.719888 32.872136,9.4677207 26.028789,9.0004814 Z"/>
 <path style="fill:#dc3a2d" d="m 26.028789,8.0004812 c -0.416366,-0.0055 -0.953645,0.03628 -1.686839,0.1173602 C 19.151309,8.6918475 14.821204,12.01834 9.8678684,19.235595 8.3722345,21.414808 6.449937,24.21376 5.5962473,25.455698 1.999942,30.687567 2.1548705,36.05678 5.967323,38.314539 c 2.4640179,1.459209 4.84498,2.037854 8.614058,2.094597 1.89447,0.02852 4.668191,0.168699 6.163825,0.311291 4.172876,0.397841 4.69538,0.388573 7.632548,-0.140976 3.287363,-0.592681 5.823299,-1.827009 7.85987,-3.824233 1.599027,-1.568136 3.882477,-5.908838 4.240461,-7.806614 C 43.476876,19.719888 32.872136,8.4677205 26.028789,8.0004812 Z"/>
 <path style="fill:#8b9cbe;opacity:0.2" d="M 26.029297 8 C 25.612931 7.9945 25.074991 8.0361073 24.341797 8.1171875 C 19.151156 8.6911936 14.820523 12.019073 9.8671875 19.236328 C 8.3715536 21.415541 6.4493928 24.21314 5.5957031 25.455078 C 3.7445202 28.14816 2.8956173 30.8745 3.0195312 33.197266 C 3.1502679 31.110205 4.0046777 28.769686 5.5957031 26.455078 C 6.4493928 25.21314 8.3715536 22.415541 9.8671875 20.236328 C 14.820523 13.019073 19.151156 9.6911936 24.341797 9.1171875 C 25.074991 9.0361073 25.612931 8.9945 26.029297 9 C 31.939723 9.4035428 40.647749 17.852244 40.982422 26.09375 C 41.359807 17.549936 32.179134 8.4198889 26.029297 8 z"/>
 <path style="opacity:0.2" d="m 27.198962,7.9999999 c -0.199762,0 -0.257643,0.3769022 -0.134512,0.8746249 0,0 0.353967,1.5881312 2.72896,2.7513812 1.65186,0.756147 1.648886,1.193135 -0.01085,1.646555 -0.723305,0.197596 -1.602346,0.572351 -1.953138,0.832581 -0.57855,0.429195 -0.367394,0.606191 2.271757,1.908461 1.600189,0.789603 3.205962,1.66595 3.567961,1.947747 0.628499,0.489249 0.599841,0.557782 -0.626363,1.506643 -1.368894,1.059278 -2.988475,3.535791 -2.988475,4.569552 0,0.558875 0.267205,0.604276 2.521758,0.428009 1.386968,-0.108438 2.913066,-0.24492 3.391331,-0.303259 l 0.869572,-0.10614 -0.124321,2.811343 c -0.06828,1.546107 -0.26809,3.195795 -0.444296,3.665981 -0.176203,0.470185 -0.249633,0.92669 -0.163045,1.014537 0.364539,0.369835 1.851576,-0.446439 2.871626,-1.576255 1.042828,-1.155044 1.109125,-1.17881 1.330852,-0.47005 0.746711,1.270578 1.077233,2.383572 2.235878,3.497028 0.258736,0.02355 0.456157,-0.28286 0.622158,-0.914507 0.511065,-1.94461 0.237309,-3.826919 -0.838998,-5.77087 -0.579983,-1.047512 -1.148075,-2.69831 -1.262917,-3.668737 -0.11484,-0.970427 -0.303992,-2.099285 -0.419844,-2.508775 -0.176047,-0.622245 0.165337,-0.985431 2.078141,-2.211029 2.177986,-1.395508 2.740143,-2.189429 1.916457,-2.705893 -0.204652,-0.128319 -1.282636,0.259451 -2.396078,0.861531 -1.113438,0.602078 -2.243391,1.094486 -2.510888,1.094486 -0.267495,0 -1.106917,-0.753741 -1.864825,-1.674813 -1.317196,-1.600766 -1.377729,-1.783766 -1.377729,-4.14637 0,-2.2449142 -0.06719,-2.4812594 -0.733021,-2.5776962 -0.538165,-0.077946 -0.849878,0.1800781 -1.172563,0.970427 -0.241758,0.5921332 -0.561555,1.0765662 -0.710603,1.0765662 -0.149048,0 -1.632708,-0.635187 -3.296902,-1.411529 C 28.911848,8.6351885 27.391983,7.9999999 27.198983,7.9999999 Z"/>
 <path style="fill:#75ac4c" d="m 27.198962,6.9999997 c -0.199762,0 -0.257643,0.3769022 -0.134512,0.8746249 0,0 0.353967,1.588131 2.72896,2.7513814 1.65186,0.756147 1.648886,1.193135 -0.01085,1.646555 -0.723305,0.197596 -1.602346,0.572351 -1.953138,0.832581 -0.57855,0.429195 -0.367394,0.606191 2.271757,1.908461 1.600189,0.789603 3.205962,1.66595 3.567961,1.947747 0.628499,0.489249 0.599841,0.557782 -0.626363,1.506643 -1.368894,1.059278 -2.988475,3.535791 -2.988475,4.569552 0,0.558875 0.267205,0.604276 2.521758,0.428009 1.386968,-0.108438 2.913066,-0.24492 3.391331,-0.303259 l 0.869572,-0.10614 -0.124321,2.811343 c -0.06828,1.546107 -0.26809,3.195795 -0.444296,3.665981 -0.176203,0.470185 -0.249633,0.92669 -0.163045,1.014537 0.364539,0.369835 1.851576,-0.446439 2.871626,-1.576255 1.042828,-1.155044 1.109125,-1.17881 1.330852,-0.47005 0.746711,1.270578 1.077233,2.383572 2.235878,3.497028 0.258736,0.02355 0.456157,-0.28286 0.622158,-0.914507 0.511065,-1.94461 0.237309,-3.826919 -0.838998,-5.77087 -0.579983,-1.047512 -1.148075,-2.69831 -1.262917,-3.668737 -0.11484,-0.970427 -0.303992,-2.099285 -0.419844,-2.508775 -0.176047,-0.622245 0.165337,-0.985431 2.078141,-2.211029 2.177986,-1.395508 2.740143,-2.189429 1.916457,-2.705893 -0.204652,-0.128319 -1.282636,0.259451 -2.396078,0.861531 -1.113438,0.602078 -2.243391,1.094486 -2.510888,1.094486 -0.267495,0 -1.106917,-0.753741 -1.864825,-1.674813 -1.317196,-1.600766 -1.377729,-1.783766 -1.377729,-4.14637 0,-2.2449144 -0.06719,-2.4812596 -0.733021,-2.5776964 -0.538165,-0.077946 -0.849878,0.1800781 -1.172563,0.970427 -0.241758,0.592133 -0.561555,1.0765666 -0.710603,1.0765666 -0.149048,0 -1.632708,-0.6351878 -3.296902,-1.4115294 C 28.911848,7.6351883 27.391983,6.9999997 27.198983,6.9999997 Z"/>
 <path style="fill:#8b9cbe;opacity:0.2" d="M 27.199219 7 C 26.999457 7 26.941322 7.3772773 27.064453 7.875 C 27.064453 7.875 27.097524 7.971329 27.121094 8.0410156 C 27.145392 8.0232611 27.167705 8 27.199219 8 C 27.392219 8 28.911975 8.6357679 30.576172 9.4121094 C 32.240366 10.188451 33.723999 10.822266 33.873047 10.822266 C 34.022095 10.822266 34.342226 10.338227 34.583984 9.7460938 C 34.906669 8.9557448 35.217694 8.6974446 35.755859 8.7753906 C 36.42169 8.8718274 36.488281 9.1086014 36.488281 11.353516 C 36.488281 13.71612 36.549991 13.899234 37.867188 15.5 C 38.625096 16.421072 39.464927 17.175781 39.732422 17.175781 C 39.999919 17.175781 41.128749 16.682156 42.242188 16.080078 C 43.35563 15.477998 44.43402 15.090431 44.638672 15.21875 C 44.684121 15.247247 44.709122 15.280306 44.746094 15.310547 C 45.110004 14.840081 45.070789 14.489694 44.638672 14.21875 C 44.43402 14.090431 43.35563 14.477998 42.242188 15.080078 C 41.128749 15.682156 39.999919 16.175781 39.732422 16.175781 C 39.464927 16.175781 38.625096 15.421072 37.867188 14.5 C 36.549991 12.899234 36.488281 12.71612 36.488281 10.353516 C 36.488281 8.1086012 36.42169 7.8718274 35.755859 7.7753906 C 35.217694 7.6974446 34.906669 7.9557449 34.583984 8.7460938 C 34.342226 9.3382268 34.022095 9.8222656 33.873047 9.8222656 C 33.723999 9.8222656 32.240366 9.188451 30.576172 8.4121094 C 28.911975 7.6357679 27.392219 7 27.199219 7 z M 30.527344 12.015625 C 30.332033 12.102378 30.09677 12.187775 29.783203 12.273438 C 29.059898 12.471034 28.18087 12.845239 27.830078 13.105469 C 27.478884 13.366001 27.500426 13.56058 28.097656 13.943359 C 28.524428 13.705911 29.197544 13.433431 29.783203 13.273438 C 31.132724 12.904764 31.367429 12.542969 30.527344 12.015625 z M 33.669922 17.960938 C 33.509569 18.09944 33.316529 18.257064 33.042969 18.46875 C 31.674075 19.528028 30.054688 22.003348 30.054688 23.037109 C 30.054688 23.209977 30.089371 23.328859 30.191406 23.412109 C 30.595015 22.216401 31.899822 20.353341 33.042969 19.46875 C 34.269173 18.519889 34.298421 18.450187 33.669922 17.960938 z M 40.716797 19.496094 C 40.587472 19.71179 40.579497 19.906853 40.644531 20.136719 C 40.760383 20.546209 40.949613 21.674104 41.064453 22.644531 C 41.179295 23.614958 41.746189 25.264988 42.326172 26.3125 C 42.964395 27.465213 43.31309 28.597215 43.390625 29.732422 C 43.501231 28.258202 43.151596 26.803324 42.326172 25.3125 C 41.746189 24.264988 41.179295 22.614958 41.064453 21.644531 C 40.969401 20.841317 40.829967 20.018644 40.716797 19.496094 z M 36.837891 24.056641 L 36.792969 24.0625 L 36.712891 25.867188 C 36.644611 27.413294 36.443784 29.063017 36.267578 29.533203 C 36.091375 30.003388 36.018881 30.460981 36.105469 30.548828 C 36.140078 30.58394 36.192609 30.598805 36.246094 30.613281 C 36.25613 30.584581 36.256753 30.562089 36.267578 30.533203 C 36.443784 30.063017 36.644611 28.413294 36.712891 26.867188 L 36.837891 24.056641 z"/>
 <g style="fill:#b4291e">
  <path style="fill:#b4291e" d="m 24.127672,19.37962 c -0.769299,0.7693 -1.954217,0.831664 -2.646586,0.139295 -0.69237,-0.692371 -0.630007,-1.877289 0.139293,-2.646588 0.769301,-0.7693 2.345864,-1.22331 3.038234,-0.53094 0.69237,0.69237 0.23836,2.268933 -0.530941,3.038233 z"/>
  <path style="fill:#b4291e" d="m 20.127672,26.37962 c -0.769299,0.7693 -1.954217,0.831664 -2.646586,0.139295 -0.69237,-0.692371 -0.630007,-1.877289 0.139293,-2.646588 0.769301,-0.7693 2.345864,-1.22331 3.038234,-0.53094 0.69237,0.69237 0.23836,2.268933 -0.530941,3.038233 z"/>
  <path style="fill:#b4291e" d="m 30.127672,29.37962 c -0.769299,0.7693 -1.954217,0.831664 -2.646586,0.139295 -0.69237,-0.692371 -0.630007,-1.877289 0.139293,-2.646588 0.769301,-0.7693 2.345864,-1.22331 3.038234,-0.53094 0.69237,0.69237 0.23836,2.268933 -0.530941,3.038233 z"/>
  <path style="fill:#b4291e" d="m 27.127672,37.37962 c -0.769299,0.7693 -1.954217,0.831664 -2.646586,0.139295 -0.69237,-0.692371 -0.630007,-1.877289 0.139293,-2.646588 0.769301,-0.7693 2.345864,-1.22331 3.038234,-0.53094 0.69237,0.69237 0.23836,2.268933 -0.530941,3.038233 z"/>
  <path style="fill:#b4291e" d="m 19.127672,35.37962 c -0.769299,0.7693 -1.954217,0.831664 -2.646586,0.139295 -0.69237,-0.692371 -0.630007,-1.877289 0.139293,-2.646588 0.769301,-0.7693 2.345864,-1.22331 3.038234,-0.53094 0.69237,0.69237 0.23836,2.268933 -0.530941,3.038233 z"/>
  <path style="fill:#b4291e" d="m 10.127672,32.37962 c -0.7692987,0.7693 -1.954217,0.831664 -2.646586,0.139295 -0.69237,-0.692371 -0.630007,-1.877289 0.139293,-2.646588 0.769301,-0.7693 2.3458643,-1.22331 3.038234,-0.53094 0.69237,0.69237 0.23836,2.268933 -0.530941,3.038233 z"/>
  <path style="fill:#b4291e" d="m 13.127672,24.37962 c -0.769299,0.7693 -1.954217,0.831664 -2.646586,0.139295 -0.69237,-0.692371 -0.630007,-1.877289 0.139293,-2.646588 0.769301,-0.7693 2.345864,-1.22331 3.038234,-0.53094 0.69237,0.69237 0.23836,2.268933 -0.530941,3.038233 z"/>
 </g>
 <path style="opacity:0.2" d="M 24.933594 16.861328 C 24.80643 17.428393 24.50509 18.00077 24.126953 18.378906 C 23.357654 19.148206 22.172838 19.2119 21.480469 18.519531 C 21.279654 18.318716 21.14906 18.074013 21.074219 17.8125 C 20.906822 18.424087 21.0348 19.073862 21.480469 19.519531 C 22.172838 20.2119 23.357654 20.148206 24.126953 19.378906 C 24.740764 18.765097 25.143286 17.643517 24.933594 16.861328 z M 13.933594 21.861328 C 13.80643 22.428393 13.50509 23.00077 13.126953 23.378906 C 12.357654 24.148206 11.172838 24.2119 10.480469 23.519531 C 10.279654 23.318716 10.14906 23.074013 10.074219 22.8125 C 9.9068221 23.424087 10.0348 24.073862 10.480469 24.519531 C 11.172838 25.2119 12.357654 25.148206 13.126953 24.378906 C 13.740764 23.765097 14.143286 22.643517 13.933594 21.861328 z M 20.933594 23.861328 C 20.80643 24.428393 20.50509 25.00077 20.126953 25.378906 C 19.357654 26.148206 18.172838 26.2119 17.480469 25.519531 C 17.279654 25.318716 17.14906 25.074013 17.074219 24.8125 C 16.906822 25.424087 17.0348 26.073862 17.480469 26.519531 C 18.172838 27.2119 19.357654 27.148206 20.126953 26.378906 C 20.740764 25.765097 21.143286 24.643517 20.933594 23.861328 z M 30.933594 26.861328 C 30.80643 27.428393 30.50509 28.00077 30.126953 28.378906 C 29.357654 29.148206 28.172838 29.2119 27.480469 28.519531 C 27.279654 28.318716 27.14906 28.074013 27.074219 27.8125 C 26.906822 28.424087 27.0348 29.073862 27.480469 29.519531 C 28.172838 30.2119 29.357654 30.148206 30.126953 29.378906 C 30.740764 28.765097 31.143286 27.643517 30.933594 26.861328 z M 10.933594 29.861328 C 10.80643 30.428393 10.50509 31.00077 10.126953 31.378906 C 9.3576545 32.148206 8.1728377 32.2119 7.4804688 31.519531 C 7.2796539 31.318716 7.1490598 31.074013 7.0742188 30.8125 C 6.9068221 31.424087 7.0347999 32.073862 7.4804688 32.519531 C 8.1728377 33.2119 9.3576545 33.148206 10.126953 32.378906 C 10.740764 31.765097 11.143286 30.643517 10.933594 29.861328 z M 19.933594 32.861328 C 19.80643 33.428393 19.50509 34.00077 19.126953 34.378906 C 18.357654 35.148206 17.172838 35.2119 16.480469 34.519531 C 16.279654 34.318716 16.14906 34.074013 16.074219 33.8125 C 15.906822 34.424087 16.0348 35.073862 16.480469 35.519531 C 17.172838 36.2119 18.357654 36.148206 19.126953 35.378906 C 19.740764 34.765097 20.143286 33.643517 19.933594 32.861328 z M 27.933594 34.861328 C 27.80643 35.428393 27.50509 36.00077 27.126953 36.378906 C 26.357654 37.148206 25.172838 37.2119 24.480469 36.519531 C 24.279654 36.318716 24.14906 36.074013 24.074219 35.8125 C 23.906822 36.424087 24.0348 37.073862 24.480469 37.519531 C 25.172838 38.2119 26.357654 38.148206 27.126953 37.378906 C 27.740764 36.765097 28.143286 35.643517 27.933594 34.861328 z"/>
</svg>
