<svg xmlns="http://www.w3.org/2000/svg" width="48" height="48" version="1">
 <g transform="translate(1)">
  <path style="opacity:0.2" d="m 39.953125,6.0527344 c -0.293001,-0.00432 -0.62883,0.025377 -1.011719,0.09375 L 17.138672,10.439453 C 13.909968,10.76111 14,13 14,14 V 28.265625 A 8,8 0 0 0 12,28 a 8,8 0 0 0 -8,8 8,8 0 0 0 8,8 8,8 0 0 0 8,-8 V 15.929688 l 16,-3.257813 v 10.59375 A 8,8 0 0 0 34,23 a 8,8 0 0 0 -8,8 8,8 0 0 0 8,8 8,8 0 0 0 8,-8 V 8.5996094 c 2.54e-4,-0.875 0.0041,-2.5166422 -2.046875,-2.546875 z"/>
  <path style="fill:#3c8cf8" d="m 39.953125,5.0527344 c -0.293001,-0.00432 -0.62883,0.025377 -1.011719,0.09375 L 17.138672,9.4394531 C 13.909968,9.7611104 14,12 14,13 V 27.265625 A 8,8 0 0 0 12,27 a 8,8 0 0 0 -8,8 8,8 0 0 0 8,8 8,8 0 0 0 8,-8 V 14.929688 l 16,-3.257813 v 10.59375 A 8,8 0 0 0 34,22 a 8,8 0 0 0 -8,8 8,8 0 0 0 8,8 8,8 0 0 0 8,-8 V 7.5996094 c 2.54e-4,-0.875 0.0041,-2.5166422 -2.046875,-2.546875 z"/>
  <path style="opacity:0.2;fill:#8b9cbe" d="m 39.953125,5.0527344 c -0.293001,-0.00432 -0.62883,0.025377 -1.011719,0.09375 L 17.138672,9.4394531 C 13.909968,9.7611104 14,12 14,13 v 1 c 0,-1 -0.09003,-3.23889 3.138672,-3.560547 L 38.941406,6.1464844 c 0.382889,-0.068373 0.718718,-0.09807 1.011719,-0.09375 C 42.0041,6.0829672 42.000254,7.7246094 42,8.5996094 v -1 c 2.54e-4,-0.875 0.0041,-2.5166422 -2.046875,-2.546875 z M 34,22 a 8,8 0 0 0 -8,8 8,8 0 0 0 0.02148,0.423828 A 8,8 0 0 1 34,23 a 8,8 0 0 1 2,0.265625 v -1 A 8,8 0 0 0 34,22 Z M 12,27 A 8,8 0 0 0 4,35 8,8 0 0 0 4.0214844,35.423828 8,8 0 0 1 12,28 a 8,8 0 0 1 2,0.265625 v -1 A 8,8 0 0 0 12,27 Z"/>
 </g>
 <circle opacity=".2" cx="36" cy="37" r="11"/>
 <circle fill="#f5c839" cx="36" cy="36" r="11"/>
 <g fill="#fff" transform="translate(1,2)">
  <rect width="3" height="14" x="30" y="27"/>
  <rect width="3" height="14" x="37" y="27"/>
 </g>
 <g fill="#fff" transform="matrix(0,1,-1,0,70,1)">
  <rect width="3" height="14" x="30" y="27"/>
  <rect width="3" height="14" x="37" y="27"/>
 </g>
</svg>
