<svg xmlns="http://www.w3.org/2000/svg" width="48" height="48" version="1">
 <circle style="opacity:0.2" cx="24" cy="25" r="20"/>
 <circle style="fill:#1ca4d4" cx="24" cy="24" r="20"/>
 <path opacity=".2" d="m24 11a14 14 0 0 0 -14 14 14 14 0 0 0 14 14 14 14 0 0 0 14 -14 14 14 0 0 0 -14 -14zm0 2a12 12 0 0 1 10.734 6.6426l-8.0918 5.3945-14.492 1.8105a12 12 0 0 1 -0.15 -1.848 12 12 0 0 1 12 -12zm11.482 8.5469a12 12 0 0 1 0.518 3.453 12 12 0 0 1 -2.762 7.65l-4.8047-6.4062 7.0488-4.6973zm-8.9355 5.5176 5.2676 7.0234a12 12 0 0 1 -7.814 2.912 12 12 0 0 1 -11.365 -8.197l13.912-1.7383z"/>
 <path fill="#fff" d="m24 10a14 14 0 0 0 -14 14 14 14 0 0 0 14 14 14 14 0 0 0 14 -14 14 14 0 0 0 -14 -14zm0 2a12 12 0 0 1 12 12 12 12 0 0 1 -12 12 12 12 0 0 1 -12 -12 12 12 0 0 1 12 -12z"/>
 <path fill="none" stroke="#8b9cbe" stroke-width="2" d="m11 27 16-2 9-6"/>
 <path fill="none" stroke="#8b9cbe" stroke-width="2" d="m33 33-6-8"/>
 <g opacity=".2" transform="translate(0,1)">
  <circle cx="11" cy="27" r="3"/>
  <circle cx="33" cy="33" r="3"/>
  <circle cx="36" cy="19" r="3"/>
  <circle cx="27" cy="25" r="3"/>
 </g>
 <circle fill="#fff" cx="33" cy="33" r="3"/>
 <circle fill="#fff" cx="36" cy="19" r="3"/>
 <circle fill="#fff" cx="27" cy="25" r="3"/>
 <circle fill="#fff" cx="11" cy="27" r="3"/>
 <path style="opacity:0.2;fill:#8b9cbe" d="M 24 4 A 20 20 0 0 0 4 24 A 20 20 0 0 0 4.0215 24.582 A 20 20 0 0 1 24 5 A 20 20 0 0 1 43.979 24.418 A 20 20 0 0 0 44 24 A 20 20 0 0 0 24 4 z"/>
</svg>
