<svg xmlns="http://www.w3.org/2000/svg" width="48" height="48" version="1">
 <rect style="opacity:.2" width="10" height="16" x="19" y="29" rx="4" ry="4"/>
 <path style="opacity:.2" d="m23 5c-2.216 0-4 1.784-4 4v1.875a15 15 0 0 0-4.730469 2.732422l-1.625-0.9375c-1.919112-1.108-4.3568435-0.454269-5.4648435 1.464844l-1 1.730468c-1.108 1.919113-0.4542685 4.356844 1.4648437 5.464844l1.6171876 0.933594a15 15 0 0 0-0.2617188 2.736328 15 15 0 0 0 0.2617188 2.736328l-1.6171876 0.933594c-1.9191122 1.108-2.5728437 3.545731-1.4648437 5.464844l1 1.730468c1.108 1.919113 3.5457315 2.572844 5.4648435 1.464844l1.613281-0.93164a15 15 0 0 0 9.742188 3.601562 15 15 0 0 0 9.730469-3.607422l1.625 0.9375c1.919112 1.108 4.356843 0.454269 5.464843-1.464844l1-1.730468c1.108-1.919113 0.454269-4.356844-1.464843-5.464844l-1.617188-0.933594a15 15 0 0 0 0.261719-2.736328 15 15 0 0 0-0.261719-2.736328l1.617188-0.933594c1.919112-1.108 2.572843-3.545731 1.464843-5.464844l-1-1.730468c-1.108-1.919113-3.545731-2.572844-5.464843-1.464844l-1.613281 0.93164a15 15 0 0 0-4.742188-2.724609v-1.876953c0-2.216-1.784-4-4-4h-2z"/>
 <path style="fill:#008374" d="m23 4c-2.216 0-4 1.784-4 4v1.875a15 15 0 0 0-4.730469 2.732422l-1.625-0.9375c-1.919112-1.108-4.3568435-0.454269-5.4648435 1.464844l-1 1.730468c-1.108 1.919113-0.4542685 4.356844 1.4648437 5.464844l1.6171876 0.933594a15 15 0 0 0-0.2617188 2.736328 15 15 0 0 0 0.2617188 2.736328l-1.6171876 0.933594c-1.9191122 1.108-2.5728437 3.545731-1.4648437 5.464844l1 1.730468c1.108 1.919113 3.5457315 2.572844 5.4648435 1.464844l1.613281-0.93164a15 15 0 0 0 9.742188 3.601562 15 15 0 0 0 9.730469-3.607422l1.625 0.9375c1.919112 1.108 4.356843 0.454269 5.464843-1.464844l1-1.730468c1.108-1.919113 0.454269-4.356844-1.464843-5.464844l-1.617188-0.933594a15 15 0 0 0 0.261719-2.736328 15 15 0 0 0-0.261719-2.736328l1.617188-0.933594c1.919112-1.108 2.572843-3.545731 1.464843-5.464844l-1-1.730468c-1.108-1.919113-3.545731-2.572844-5.464843-1.464844l-1.613281 0.93164a15 15 0 0 0-4.742188-2.7246089v-1.8769531c0-2.216-1.784-4-4-4h-2z"/>
 <rect style="fill:#b2bfd9" width="10" height="16" x="19" y="28" rx="4" ry="4"/>
 <rect style="opacity:.4" width="4" height="12" x="22" y="30" rx="2" ry="2"/>
 <path style="opacity:.2" d="m28 15.839843v9.160156l-4 2-4-2v-9.152344a10 10 0 0 0-6 9.152344 10 10 0 0 0 10 10 10 10 0 0 0 10-10 10 10 0 0 0-6-9.160156z"/>
 <path style="fill:#8b9cbe" d="m28 14.839843v7.160156l-4 3-4-3v-7.152344c-3.64001 1.588627-5.994912 5.180772-6 9.152344 0 5.522847 4.477153 10 10 10s10-4.477153 10-10c-2e-3 -3.974408-2.357394-7.570393-6-9.160156z"/>
 <path style="fill:#8b9cbe;opacity:.1" d="m28 14.839843v1c3.465999 1.512685 5.761859 4.842779 5.978516 8.585937 0.006017-0.142404 0.021484-0.281897 0.021484-0.425781-2e-3 -3.974408-2.357394-7.570393-6-9.160156zm-8 0.0078c-3.64001 1.588627-5.994912 5.180772-6 9.152344 0 0.143884 0.01547 0.283377 0.02148 0.425781 0.219272-3.740362 2.514991-7.066509 5.97852-8.578113v-1zm0 7.152344v1l4 3 4-3v-1l-4 3-4-3z"/>
 <path style="fill:#8b9cbe;opacity:.1" d="m23 4c-2.216 0-4 1.784-4 4v1c0-2.216 1.784-4 4-4h2c2.216 0 4 1.784 4 4v-1c0-2.216-1.784-4-4-4h-2zm-4 5.875a15 15 0 0 0-4.730469 2.732422l-1.625-0.9375c-1.919112-1.108-4.3568435-0.454269-5.4648435 1.464844l-1 1.730468c-0.4491532 0.777957-0.5948307 1.639567-0.4980469 2.464844 0.0683085-0.501073 0.2288014-0.998497 0.4980469-1.464844l1-1.730468c1.108-1.919113 3.5457315-2.572844 5.4648435-1.464844l1.625 0.9375a15 15 0 0 1 4.730469-2.732422v-1zm10 0.0019531v0.9999999a15 15 0 0 1 4.742188 2.724609l1.613281-0.93164c1.919112-1.108 4.356844-0.454269 5.464843 1.464844l1 1.730468c0.269246 0.466347 0.429739 0.963771 0.498047 1.464844 0.096784-0.825277-0.048893-1.686887-0.498047-2.464844l-1-1.730468c-1.108-1.919113-3.545731-2.572844-5.464843-1.464844l-1.613281 0.93164a15 15 0 0 0-4.742188-2.7246089zm9.873047 12.308594-0.134766 0.078125a15 15 0 0 1 0.236328 2.277344 15 15 0 0 0 0.025391-0.541016 15 15 0 0 0-0.126953-1.814453zm-29.740234 0.003906a15 15 0 0 0-0.1328125 1.810547 15 15 0 0 0 0.0253906 0.458984 15 15 0 0 1 0.2363282-2.195312l-0.1289063-0.074219zm29.734376 4.621094a15 15 0 0 1-0.128907 0.925781l1.617188 0.933594c1.141156 0.658847 1.820922 1.789431 1.96289 3 0.212795-1.560945-0.510125-3.161246-1.96289-4l-1.488281-0.859375zm-29.740235 0.003906-1.4824219 0.855469c-1.4527653 0.838754-2.1756853 2.439055-1.9628906 4 0.1419688-1.210569 0.8217346-2.341153 1.9628906-3l1.6171876-0.933594a15 15 0 0 1-0.1347657-0.921875z"/>
</svg>
