<svg xmlns="http://www.w3.org/2000/svg" width="48" height="48" version="1">
 <rect style="opacity:0.2" width="40" height="40" x="4" y="5" rx="2" ry="2"/>
 <rect style="fill:#b2bfd9" width="40" height="40" x="4" y="4" rx="2" ry="2"/>
 <path style="opacity:0.1;fill:none;stroke:#000000;stroke-width:4;stroke-linecap:round;stroke-linejoin:round" d="m 24,9.999515 0,9.999515 m -11,-3.999515 22,0 m -16,16 10,0 m -5,8 0,-23.985757 c 3.400677,5.509586 6.233722,13.700831 13,15 m -12.979799,8.957272 0,-23.985757 c -3.400677,5.509586 -6.233722,13.700831 -13,14.999999"/>
 <path style="opacity:0.2;fill:#8b9cbe" d="M 6 4 C 4.892 4 4 4.892 4 6 L 4 7 C 4 5.892 4.892 5 6 5 L 42 5 C 43.108 5 44 5.892 44 7 L 44 6 C 44 4.892 43.108 4 42 4 L 6 4 z"/>
 <path style="fill:none;stroke:#17191e;stroke-width:4;stroke-linecap:round;stroke-linejoin:round" d="m 24,39 0,-23.985757 c 3.400677,5.509586 6.233722,13.700831 13,15 m -12.979799,8.957272 0,-23.985757 c -3.400677,5.509586 -6.233722,13.700831 -13,14.999999"/>
 <path style="fill:none;stroke:#17191e;stroke-width:4;stroke-linecap:round;stroke-linejoin:round" d="m 19,31 10,0"/>
 <path style="fill:none;stroke:#17191e;stroke-width:4;stroke-linecap:round;stroke-linejoin:round" d="m 13,15 22,0"/>
 <path style="fill:none;stroke:#17191e;stroke-width:4;stroke-linecap:round;stroke-linejoin:round" d="m 24,9 0,9.999515"/>
</svg>
