<svg xmlns="http://www.w3.org/2000/svg" width="48" height="48" version="1.1">
 <rect style="fill:#ff7964" width="44" height="3" x="2" y="9"/>
 <rect style="fill:#ff7964" width="44" height="3" x="2" y="27"/>
 <rect style="fill:#ff7964" width="44" height="3" x="2" y="36"/>
 <rect style="fill:#ff7964" width="44" height="3" x="2" y="18"/>
 <rect style="opacity:.2" width="40" height="40" x="-45" y="-44" rx="2" ry="2" transform="matrix(0,-1,-1,0,0,0)"/>
 <rect style="fill:#414141" width="40" height="40" x="-44" y="-44" rx="2" ry="2" transform="matrix(0,-1,-1,0,0,0)"/>
 <path style="fill:#8b9cbe;opacity:0.1" d="m6 4c-1.108 0-2 0.892-2 2v1c0-1.108 0.892-2 2-2h36c1.108 0 2 0.892 2 2v-1c0-1.108-0.892-2-2-2z"/>
 <g style="opacity:0.2" transform="scale(-0.996045,1.0039707)">
  <path d="m -12.04765,28.901345 h -0.94792 c -0.682502,6.332105 -3.260844,7.355858 -9.213781,7.355858 h -10.465035 l 9.517116,-10.768369 c 0.341251,-0.379168 0.341251,-0.606669 0.341251,-0.606669 0,-0.189584 -0.151667,-0.379168 -0.265418,-0.530835 L -30.85438,13.127959 h 8.75878 c 6.407938,0 8.303778,1.365005 9.10003,7.355858 h 0.94792 l -1.06167,-8.531279 h -21.043821 c -0.910003,0 -0.985836,0 -0.985836,0.872087 l 9.441281,13.725879 -9.024196,10.275451 c -0.379168,0.417085 -0.379168,0.492918 -0.379168,0.606669 0,0.417085 0.379168,0.417085 0.947919,0.417085 h 21.043821 z"/>
 </g>
 <g style="fill:#b4b4b4" transform="scale(-0.996045,1.0039707)">
  <path style="fill:#b4b4b4" d="m -12.04765,27.905301 h -0.94792 c -0.682502,6.332105 -3.260844,7.355858 -9.213781,7.355858 H -32.674386 L -23.15727,24.49279 c 0.341251,-0.379168 0.341251,-0.606669 0.341251,-0.606669 0,-0.189584 -0.151667,-0.379168 -0.265418,-0.530835 L -30.85438,12.131915 h 8.75878 c 6.407938,0 8.303778,1.365004 9.10003,7.355858 h 0.94792 l -1.06167,-8.531279 h -21.043821 c -0.910003,0 -0.985836,0 -0.985836,0.872086 l 9.441281,13.72588 -9.024196,10.275451 c -0.379168,0.417085 -0.379168,0.492918 -0.379168,0.606669 0,0.417084 0.379168,0.417084 0.947919,0.417084 h 21.043821 z"/>
 </g>
</svg>
