<svg xmlns="http://www.w3.org/2000/svg" width="48" height="48" version="1">
 <circle style="opacity:0.2" cx="24" cy="25" r="20"/>
 <circle style="fill:#664f41" cx="24" cy="24" r="20"/>
 <path style="opacity:0.2" d="m 24.5625,10 -0.212891,2.033203 a 12.980129,12.980129 0 0 0 -1.396484,0.0332 l -0.320313,-2.013672 -1.972656,0.3125 0.322266,2.021485 a 12.980129,12.980129 0 0 0 -1.337891,0.396484 l -0.833984,-1.86914 -1.822266,0.814453 0.833985,1.873046 a 12.980129,12.980129 0 0 0 -1.1875,0.730469 l -1.292969,-1.59375 -1.548828,1.257813 1.28125,1.580078 a 12.980129,12.980129 0 0 0 -0.958985,1.017578 l -1.652343,-1.197266 -1.171875,1.615235 1.660156,1.205078 a 12.980129,12.980129 0 0 0 -0.666016,1.226562 l -1.914062,-0.732421 -0.714844,1.863281 1.912109,0.732422 a 12.980129,12.980129 0 0 0 -0.322265,1.357421 L 9.2070312,22.451172 9,24.4375 l 2.033203,0.212891 a 12.980129,12.980129 0 0 0 0.0332,1.396484 l -2.0136716,0.320313 0.3125,1.972656 2.0214846,-0.322266 a 12.980129,12.980129 0 0 0 0.396484,1.337891 l -1.8691405,0.833984 0.8144535,1.822266 1.873046,-0.833985 a 12.980129,12.980129 0 0 0 0.730469,1.1875 l -1.59375,1.292969 1.257813,1.548828 1.580078,-1.28125 a 12.980129,12.980129 0 0 0 1.017578,0.958985 l -1.197266,1.652343 1.615235,1.171875 1.205078,-1.660156 a 12.980129,12.980129 0 0 0 1.226562,0.666016 l -0.732421,1.914062 1.863281,0.714844 0.732422,-1.912109 a 12.980129,12.980129 0 0 0 1.357421,0.322265 L 21.451172,39.792969 23.4375,40 23.650391,37.966797 a 12.980129,12.980129 0 0 0 1.396484,-0.0332 l 0.320313,2.013672 1.972656,-0.3125 -0.322266,-2.021485 a 12.980129,12.980129 0 0 0 1.337891,-0.396484 l 0.833984,1.869141 1.822266,-0.814454 -0.833985,-1.873046 a 12.980129,12.980129 0 0 0 1.1875,-0.730469 l 1.292969,1.59375 1.548828,-1.257813 -1.28125,-1.580078 a 12.980129,12.980129 0 0 0 0.958985,-1.017578 l 1.652343,1.197266 1.171875,-1.615235 -1.660156,-1.205078 a 12.980129,12.980129 0 0 0 0.666016,-1.226562 l 1.914062,0.732421 0.714844,-1.863281 -1.912109,-0.732422 a 12.980129,12.980129 0 0 0 0.322265,-1.357421 l 2.039063,0.21289 L 39,25.5625 36.966797,25.349609 a 12.980129,12.980129 0 0 0 -0.0332,-1.396484 l 2.013672,-0.320313 -0.3125,-1.972656 -2.021485,0.322266 a 12.980129,12.980129 0 0 0 -0.396484,-1.337891 l 1.869141,-0.833984 -0.814454,-1.822266 -1.873046,0.833985 a 12.980129,12.980129 0 0 0 -0.730469,-1.1875 l 1.59375,-1.292969 -1.257813,-1.548828 -1.580078,1.28125 A 12.980129,12.980129 0 0 0 32.40625,15.115234 l 1.197266,-1.652343 -1.615235,-1.171875 -1.205078,1.660156 a 12.980129,12.980129 0 0 0 -1.226562,-0.666016 l 0.732421,-1.914062 -1.863281,-0.714844 -0.732422,1.912109 a 12.980129,12.980129 0 0 0 -1.357421,-0.322265 l 0.21289,-2.039063 z m -0.480469,4.029297 -0.796875,1.378906 -1.685547,-0.974609 A 2.5,2.5 0 0 1 21.78125,14.25 a 10.983186,10.983186 0 0 1 0.494141,-0.09766 10.983186,10.983186 0 0 1 1.80664,-0.123047 z M 25.125,14.220703 a 2.5,2.5 0 0 1 0.759766,1.222656 2.5,2.5 0 0 1 -0.04687,1.4375 l -1.685547,-0.972656 z m 1.347656,0.08594 a 10.983186,10.983186 0 0 1 0.841797,0.236328 l -0.632812,0.169922 a 3.5,3.5 0 0 0 -0.208985,-0.40625 z m -6.207031,0.373047 a 3.5,3.5 0 0 0 -0.01367,0.03125 l -0.03906,-0.0098 a 10.983186,10.983186 0 0 1 0.05273,-0.02148 z m 7.484375,0 a 10.983186,10.983186 0 0 1 7.097656,8.595703 10.983186,10.983186 0 0 1 -0.0625,3.726562 l -0.06445,0.01758 c -0.09171,-0.16211 -0.2051,-0.310806 -0.337891,-0.441406 l 0.533204,-0.923828 -0.867188,-0.5 -0.53125,0.921875 c -0.17989,-0.04923 -0.366244,-0.07258 -0.552734,-0.07031 L 32.689453,24.976562 31.722656,25.234375 32,26.265625 c -0.16211,0.09171 -0.310806,0.205101 -0.441406,0.337891 l -0.923828,-0.533204 -0.5,0.865235 0.921875,0.533203 c -0.04923,0.17989 -0.07258,0.364291 -0.07031,0.550781 l -1.03125,0.277344 0.259766,0.964844 1.029297,-0.275391 c 0.09171,0.16211 0.20509,0.310806 0.33789,0.441406 l -0.533203,0.923828 0.867188,0.5 0.53125,-0.921874 C 32.627156,29.978918 32.81351,30.00228 33,30 l 0.244141,0.912109 a 10.983186,10.983186 0 0 1 -0.585938,0.832032 L 32.1875,30.888672 31.275391,31.390625 a 3.5,3.5 0 0 0 -0.56836,-0.597656 l 0.535157,-0.886719 -0.857422,-0.515625 -0.53711,0.886719 a 3.5,3.5 0 0 0 -0.791015,-0.226563 l 0.01953,-1.039062 -1,-0.01953 -0.01953,1.041015 a 3.5,3.5 0 0 0 -0.800782,0.195313 l -0.386718,-0.699219 0.193359,0.191406 0.703125,-0.712891 -0.732422,-0.722656 a 4.5,4.5 0 0 0 0.416016,-0.640625 l 0.957031,0.390625 0.376953,-0.927734 -0.953125,-0.386719 A 4.5,4.5 0 0 0 27.96875,25.96875 l 1.035156,-0.0059 -0.0059,-1 -1.033203,0.0078 a 4.5,4.5 0 0 0 -0.154297,-0.746094 l 0.951172,-0.402343 -0.388672,-0.921875 -0.949219,0.402343 a 4.5,4.5 0 0 0 -0.427734,-0.632812 l 0.724609,-0.732422 -0.712891,-0.703125 -0.722656,0.732422 a 4.5,4.5 0 0 0 -0.640625,-0.416016 l 0.390625,-0.957031 -0.927734,-0.376953 -0.0098,0.02148 -0.25,-0.935547 A 3.5,3.5 0 0 0 25.5625,18.892578 l 0.734375,0.734375 0.708984,-0.708984 -0.736328,-0.734375 a 3.5,3.5 0 0 0 0.416016,-0.712891 l 1,0.269531 0.259765,-0.96875 -1.003906,-0.267578 a 3.5,3.5 0 0 0 0,-0.826172 l 1.003906,-0.267578 z m -8.703125,0.53125 -0.05273,0.199218 1.001953,0.269532 a 3.5,3.5 0 0 0 0,0.824218 l -1.003906,0.269532 0.259765,0.964843 1.005859,-0.269531 a 3.5,3.5 0 0 0 0.410157,0.714844 l -0.734375,0.734375 0.707031,0.708984 0.736328,-0.734375 a 3.5,3.5 0 0 0 0.710938,0.416016 l -0.25586,0.955078 -0.0098,-0.02539 -0.921875,0.388672 0.402343,0.949219 a 4.5,4.5 0 0 0 -0.632812,0.427734 l -0.732422,-0.724609 -0.703125,0.712891 0.732422,0.722656 a 4.5,4.5 0 0 0 -0.416016,0.640625 l -0.957031,-0.390625 -0.376953,0.927734 0.953125,0.386719 A 4.5,4.5 0 0 0 19.03125,25.03125 l -1.035156,0.0059 0.0059,1 1.033203,-0.0078 a 4.5,4.5 0 0 0 0.154297,0.746094 l -0.951172,0.402343 0.388672,0.919922 0.949219,-0.40039 a 4.5,4.5 0 0 0 0.427734,0.632812 l -0.724609,0.732422 0.712891,0.703125 0.722656,-0.732422 a 4.5,4.5 0 0 0 0.640625,0.416016 l -0.390625,0.957031 0.927734,0.376953 0.386719,-0.953125 a 4.5,4.5 0 0 0 0.751953,0.138672 l 0.0059,1.035156 1,-0.0059 -0.0078,-1.033203 a 4.5,4.5 0 0 0 0.746094,-0.154297 l 0.402343,0.951172 0.919922,-0.388672 -0.40039,-0.949219 a 4.5,4.5 0 0 0 0.632812,-0.427734 l 0.361328,0.357422 -0.814453,0.449218 0.501953,0.910157 A 3.5,3.5 0 0 0 25.78125,31.28125 l -0.886719,-0.535156 -0.515625,0.857422 0.886719,0.537109 a 3.5,3.5 0 0 0 -0.228516,0.792969 L 24,32.914062 l -0.01953,1 1.041015,0.01953 a 3.5,3.5 0 0 0 0.195313,0.800781 l -0.908203,0.501953 0.396484,0.720703 A 10.983186,10.983186 0 0 1 13.152344,26.724609 10.983186,10.983186 0 0 1 19.046875,15.210938 Z m 2.052734,0.08984 1.685547,0.972657 -0.972656,1.6875 a 2.5,2.5 0 0 1 -0.757812,-1.222657 2.5,2.5 0 0 1 0.04492,-1.4375 z m 2.552735,1.472657 1.685547,0.974609 a 2.5,2.5 0 0 1 -1.222657,0.757812 2.5,2.5 0 0 1 -1.4375,-0.04492 z m 0.230468,2.789062 0.267579,1.003906 0.914062,-0.24414 -0.34375,0.847656 A 4.5,4.5 0 0 0 23.96875,21.03125 l -0.0059,-1.035156 -1,0.0059 0.0078,1.033203 a 4.5,4.5 0 0 0 -0.746094,0.154297 l -0.36914,-0.871094 0.93164,0.248047 0.269532,-1.001953 a 3.5,3.5 0 0 0 0.826171,-0.002 z m -0.373046,2.435547 a 3.5,3.5 0 0 1 1.357422,0.279297 3.5,3.5 0 0 1 1.626953,1.416015 l -2.728516,1.152344 -1.150391,-2.726562 A 3.5,3.5 0 0 1 23.494141,22 a 3.5,3.5 0 0 1 0.0078,0 z m -1.816407,0.507812 1.152344,2.728516 -2.726562,1.150391 A 3.5,3.5 0 0 1 20,25.505859 a 3.5,3.5 0 0 1 -0.002,-0.01367 3.5,3.5 0 0 1 0.279297,-1.359376 3.5,3.5 0 0 1 1.416015,-1.626953 z m 5.1875,2.109375 A 3.5,3.5 0 0 1 27,25.494141 a 3.5,3.5 0 0 1 0,0.0078 l 0.002,0.0078 a 3.5,3.5 0 0 1 -0.279297,1.357422 3.5,3.5 0 0 1 -1.416015,1.626953 l -1.152344,-2.728516 z m -3.646484,1.539063 1.150391,2.726562 A 3.5,3.5 0 0 1 23.505859,29 a 3.5,3.5 0 0 1 -0.01367,0.002 3.5,3.5 0 0 1 -1.359376,-0.279297 3.5,3.5 0 0 1 -1.626953,-1.416015 z M 33,27 a 1,1 0 0 1 1,1 1,1 0 0 1 -1,1 1,1 0 0 1 -1,-1 1,1 0 0 1 1,-1 z m -4.462891,4.001953 a 2.5,2.5 0 0 1 1.369141,0.441406 l -1.404297,1.34961 -1.349609,-1.402344 a 2.5,2.5 0 0 1 1.384765,-0.388672 z m 4.076172,0.794922 a 10.983186,10.983186 0 0 1 -0.740234,0.84375 3.5,3.5 0 0 0 -0.111328,-0.373047 z m -6.18164,0.287109 1.349609,1.402344 -1.402344,1.351563 a 2.5,2.5 0 0 1 -0.390625,-1.386719 2.5,2.5 0 0 1 0.44336,-1.367188 z m 4.167968,0.08008 a 2.5,2.5 0 0 1 0.386719,1.294922 10.983186,10.983186 0 0 1 -1.085937,0.789063 l -0.705079,-0.734375 z m -2.125,2.042969 0.53125,0.552735 a 10.983186,10.983186 0 0 1 -1.894531,0.759765 z m -2.773437,1.404297 a 3.5,3.5 0 0 0 0.171875,0.207031 10.983186,10.983186 0 0 1 -0.148438,0.0293 10.983186,10.983186 0 0 1 -0.560547,0.06055 z"/>
 <path style="opacity:0.1;fill:#8b9cbe" d="M 24 4 A 20 20 0 0 0 4 24 A 20 20 0 0 0 4.0214844 24.582031 A 20 20 0 0 1 24 5 A 20 20 0 0 1 43.978516 24.417969 A 20 20 0 0 0 44 24 A 20 20 0 0 0 24 4 z"/>
 <path style="fill:#ca9159" d="m 20.901355,19.626903 0.40085,0.950101 a 4.5,4.5 0 0 0 -0.631517,0.427549 l -0.734005,-0.724808 -0.702368,0.711817 0.733243,0.723003 a 4.5,4.5 0 0 0 -0.416775,0.640079 l -0.956972,-0.389073 -0.376587,0.926265 0.95185,0.386989 a 4.5,4.5 0 0 0 -0.13863,0.751674 l -1.034087,0.006 0.0064,0.999982 1.031534,-0.007 a 4.5,4.5 0 0 0 0.155824,0.746159 l -0.951944,0.401628 0.388723,0.921355 0.950101,-0.40085 a 4.5,4.5 0 0 0 0.427549,0.631517 l -0.724808,0.734005 0.711817,0.702368 0.723003,-0.733243 a 4.5,4.5 0 0 0 0.640079,0.416775 l -0.389073,0.956972 0.926265,0.376587 0.386989,-0.95185 a 4.5,4.5 0 0 0 0.751674,0.13863 l 0.006,1.034087 0.999982,-0.0064 -0.007,-1.031534 a 4.5,4.5 0 0 0 0.746159,-0.155824 l 0.401628,0.951944 0.921355,-0.388723 -0.40085,-0.950101 a 4.5,4.5 0 0 0 0.631517,-0.427549 l 0.734005,0.724808 0.702368,-0.711817 -0.733243,-0.723003 a 4.5,4.5 0 0 0 0.416775,-0.640079 l 0.956972,0.389073 0.376587,-0.926265 -0.95185,-0.386989 a 4.5,4.5 0 0 0 0.13863,-0.751674 l 1.034087,-0.006 -0.0064,-0.999982 -1.031534,0.007 A 4.5,4.5 0 0 0 27.809891,23.224333 L 28.761835,22.822705 28.373112,21.90135 27.423011,22.3022 A 4.5,4.5 0 0 0 26.995462,21.670683 L 27.72027,20.936678 27.008453,20.23431 26.28545,20.967553 a 4.5,4.5 0 0 0 -0.640079,-0.416775 l 0.389073,-0.956972 -0.926265,-0.376587 -0.386989,0.95185 a 4.5,4.5 0 0 0 -0.751674,-0.13863 l -0.006,-1.034087 -0.999982,0.0064 0.007,1.031534 a 4.5,4.5 0 0 0 -0.746159,0.155824 L 21.82271,19.23818 Z m 0.792644,1.878734 1.150968,2.72804 -2.726289,1.15023 a 3.5,3.5 0 0 1 -0.118399,-0.878539 3.5,3.5 0 0 1 -0.0017,-0.01411 3.5,3.5 0 0 1 0.279257,-1.357949 3.5,3.5 0 0 1 1.416142,-1.627719 z m 0.922132,-0.386879 a 3.5,3.5 0 0 1 0.878539,-0.1184 3.5,3.5 0 0 1 0.008,-0.0012 l 0.0062,-4.5e-4 a 3.5,3.5 0 0 1 1.357895,0.279128 3.5,3.5 0 0 1 1.627719,1.416142 l -2.72804,1.150968 z M 20.50565,26.306 l 2.72804,-1.150968 1.15023,2.726289 a 3.5,3.5 0 0 1 -0.878538,0.118399 3.5,3.5 0 0 1 -0.01411,0.0017 3.5,3.5 0 0 1 -1.357949,-0.279258 3.5,3.5 0 0 1 -1.627719,-1.416141 z m 3.649394,-1.539691 2.72629,-1.15023 a 3.5,3.5 0 0 1 0.118399,0.878539 3.5,3.5 0 0 1 0.0012,0.008 l 4.5e-4,0.0062 a 3.5,3.5 0 0 1 -0.279164,1.357911 3.5,3.5 0 0 1 -1.416142,1.627719 z"/>
 <path style="fill:#ca9159" d="m 28.076005,27.991747 -0.02018,1.040805 a 3.5,3.5 0 0 0 -0.80082,0.19545 l -0.502014,-0.908344 -0.876721,0.483093 0.501976,0.910294 a 3.5,3.5 0 0 0 -0.597077,0.56861 l -0.886276,-0.534863 -0.516719,0.857333 0.888198,0.536851 a 3.5,3.5 0 0 0 -0.2283,0.792603 l -1.038905,-0.02015 -0.01939,0.999812 1.040805,0.02018 a 3.5,3.5 0 0 0 0.19545,0.80082 l -0.908344,0.502013 0.483093,0.876721 0.910294,-0.501976 a 3.5,3.5 0 0 0 0.56861,0.597077 l -0.347161,0.575407 a 12,12 0 0 0 2.830557,-0.800741 2.5,2.5 0 0 1 -0.312896,0.01738 2.5,2.5 0 0 1 -1.368675,-0.44264 l 1.403438,-1.350043 1.263865,1.31385 a 12,12 0 0 0 3.186504,-2.434777 l -0.968567,-0.01878 a 3.5,3.5 0 0 0 -0.195451,-0.80082 L 32.669643,30.7649 32.18655,29.888179 31.276257,30.390155 a 3.5,3.5 0 0 0 -0.568611,-0.597077 l 0.534864,-0.886276 -0.857333,-0.516719 -0.536852,0.888198 a 3.5,3.5 0 0 0 -0.792602,-0.2283 l 0.02015,-1.038905 -0.999812,-0.01939 z m 0.46113,2.009319 a 2.5,2.5 0 0 1 1.368676,0.442639 l -1.403439,1.350044 -1.350044,-1.403439 a 2.5,2.5 0 0 1 1.384807,-0.389244 z m -2.105381,1.082384 1.350044,1.403438 -1.403438,1.350044 a 2.5,2.5 0 0 1 -0.389245,-1.384807 2.5,2.5 0 0 1 0.442639,-1.368675 z m 4.167217,0.08081 a 2.5,2.5 0 0 1 0.389244,1.384807 2.5,2.5 0 0 1 -0.442639,1.368675 l -1.350044,-1.403438 z"/>
 <path style="fill:#ca9159" d="m 32.688995,23.977005 -0.9668,0.25781 0.27734,1.0312 c -0.16211,0.09171 -0.31081,0.2051 -0.44141,0.33789 l -0.92383,-0.5332 -0.5,0.86524 0.92188,0.5332 c -0.04923,0.17989 -0.07258,0.36429 -0.07031,0.55078 l -1.0312,0.27734 0.25977,0.96484 1.0293,-0.27539 c 0.09171,0.16211 0.20509,0.31081 0.33789,0.44141 l -0.5332,0.92383 0.86719,0.5 0.53125,-0.92187 c 0.17989,0.04923 0.36624,0.07259 0.55273,0.07031 l 0.27539,1.0293 0.9668,-0.25781 -0.27539,-1.0312 c 0.16211,-0.09171 0.30886,-0.20509 0.43945,-0.33789 l 0.92383,0.5332 0.5,-0.86524 -0.92188,-0.5332 c 0.04923,-0.17989 0.07454,-0.36429 0.07227,-0.55078 l 1.0293,-0.27734 -0.25977,-0.96484 -1.0293,0.27539 c -0.09171,-0.16211 -0.2051,-0.31081 -0.33789,-0.44141 l 0.5332,-0.92383 -0.86719,-0.5 -0.53125,0.92188 c -0.17989,-0.04923 -0.36624,-0.07258 -0.55273,-0.07031 l -0.27539,-1.0293 z m 0.31055,2.0234 a 1,1 0 0 1 1,1 1,1 0 0 1 -1,1 1,1 0 0 1 -1,-1 1,1 0 0 1 1,-1 z"/>
 <path style="fill:#ca9159" d="m 23.999995,12.000005 a 12,12 0 0 0 -3.7227,0.60742 l 0.39062,0.39062 a 3.5,3.5 0 0 0 -0.41602,0.71289 l -1,-0.26758 -0.25781,0.9668 1.002,0.26953 a 3.5,3.5 0 0 0 0,0.82422 l -1.0039,0.26953 0.25976,0.96484 1.0059,-0.26953 a 3.5,3.5 0 0 0 0.41016,0.71484 l -0.73438,0.73438 0.70703,0.70898 0.73633,-0.73438 a 3.5,3.5 0 0 0 0.71094,0.41602 l -0.26758,1 0.9668,0.25781 0.26953,-1.002 a 3.5,3.5 0 0 0 0.82617,-0.002 l 0.26758,1.0039 0.9668,-0.25781 -0.26953,-1.0059 a 3.5,3.5 0 0 0 0.71484,-0.41016 l 0.73438,0.73438 0.70898,-0.70898 -0.73633,-0.73438 a 3.5,3.5 0 0 0 0.41602,-0.71289 l 1,0.26953 0.25976,-0.96875 -1.0039,-0.26758 a 3.5,3.5 0 0 0 0,-0.82617 l 1.0039,-0.26758 -0.25976,-0.9668 -1.0039,0.26953 a 3.5,3.5 0 0 0 -0.41016,-0.71484 l 0.62695,-0.62891 a 12,12 0 0 0 -1.1855,-0.23242 l -0.15234,0.15234 a 3.5,3.5 0 0 0 -0.34375,-0.22656 12,12 0 0 0 -1.2168,-0.0625 z m -0.43555,0.59375 a 2.5,2.5 0 0 1 0.69531,0.12695 l -0.97461,1.6875 -1.6855,-0.97461 a 2.5,2.5 0 0 1 1.2227,-0.75781 2.5,2.5 0 0 1 0.74219,-0.08203 z m 1.5605,0.62695 a 2.5,2.5 0 0 1 0.75977,1.2227 2.5,2.5 0 0 1 -0.04687,1.4375 l -1.6855,-0.97266 0.97266,-1.6875 z m -4.0254,1.0801 1.6855,0.97266 -0.97266,1.6875 a 2.5,2.5 0 0 1 -0.75781,-1.2227 2.5,2.5 0 0 1 0.04492,-1.4375 z m 2.5527,1.4727 1.6855,0.97461 a 2.5,2.5 0 0 1 -1.2227,0.75781 2.5,2.5 0 0 1 -1.4375,-0.04492 l 0.97461,-1.6875 z"/>
 <path style="fill:#ecc895" d="m 20.66113,9.3657448 0.32136,2.0202692 a 12.980129,12.980129 0 0 0 -1.338898,0.396618 l -0.832262,-1.8679257 -1.823517,0.8133487 0.83511,1.873438 a 12.980129,12.980129 0 0 0 -1.189081,0.730204 l -1.292081,-1.593387 -1.549549,1.257508 1.282242,1.581102 a 12.980129,12.980129 0 0 0 -0.959768,1.017569 l -1.651873,-1.198473 -1.172602,1.616213 1.660787,1.204941 a 12.980129,12.980129 0 0 0 -0.666002,1.225549 l -1.913387,-0.732347 -0.7146406,1.863255 1.9115136,0.732644 a 12.980129,12.980129 0 0 0 -0.322965,1.358628 L 9.2073957,21.451992 9.0000002,23.437877 11.03397,23.649473 a 12.980129,12.980129 0 0 0 0.03262,1.396799 l -2.0145496,0.32045 0.3137056,1.972149 2.020269,-0.32136 a 12.980129,12.980129 0 0 0 0.396618,1.338898 l -1.8679255,0.832262 0.8133495,1.823517 1.873438,-0.83511 a 12.980129,12.980129 0 0 0 0.730204,1.189081 l -1.593387,1.292081 1.257508,1.549549 1.581101,-1.282242 a 12.980129,12.980129 0 0 0 1.01757,0.959768 l -1.198475,1.651873 1.616213,1.172602 1.204941,-1.660787 a 12.980129,12.980129 0 0 0 1.225549,0.666002 l -0.732347,1.913387 1.863255,0.714641 0.732644,-1.911514 A 12.980129,12.980129 0 0 0 21.6649,36.754484 L 21.451992,38.792605 23.437877,39 23.649473,36.966031 a 12.980129,12.980129 0 0 0 1.396799,-0.03262 l 0.32045,2.01455 1.972149,-0.313706 -0.32136,-2.020269 a 12.980129,12.980129 0 0 0 1.338899,-0.396618 l 0.832262,1.867925 1.823517,-0.813349 -0.835111,-1.873438 a 12.980129,12.980129 0 0 0 1.189081,-0.730204 l 1.292082,1.593387 1.549549,-1.257508 -1.282242,-1.581101 a 12.980129,12.980129 0 0 0 0.959767,-1.01757 l 1.651874,1.198475 1.172602,-1.616213 -1.660788,-1.204941 a 12.980129,12.980129 0 0 0 0.666002,-1.225549 l 1.913387,0.732347 0.714641,-1.863255 -1.911513,-0.732644 a 12.980129,12.980129 0 0 0 0.322964,-1.358629 L 38.792606,26.548009 39,24.562124 36.966031,24.350528 a 12.980129,12.980129 0 0 0 -0.03262,-1.396799 l 2.01455,-0.32045 -0.313706,-1.972149 -2.020269,0.32136 a 12.980129,12.980129 0 0 0 -0.396618,-1.338899 l 1.867926,-0.832262 -0.813349,-1.823517 -1.873438,0.835111 A 12.980129,12.980129 0 0 0 34.668303,16.633842 L 36.26169,15.34176 35.004182,13.792211 33.42308,15.074453 a 12.980129,12.980129 0 0 0 -1.017568,-0.959767 l 1.198473,-1.651874 -1.616213,-1.172602 -1.204941,1.660788 A 12.980129,12.980129 0 0 0 29.557282,12.284996 L 30.289629,10.371609 28.426374,9.6569682 27.69373,11.568481 A 12.980129,12.980129 0 0 0 26.335102,11.245517 L 26.548009,9.2073955 24.562124,9 24.350528,11.03397 a 12.980129,12.980129 0 0 0 -1.396799,0.03262 l -0.32045,-2.0145508 z m 1.613486,3.7874442 A 10.983186,10.983186 0 0 1 34.846814,22.274626 10.983186,10.983186 0 0 1 25.725377,34.846823 10.983186,10.983186 0 0 1 13.15318,25.725387 10.983186,10.983186 0 0 1 22.274616,13.153189 Z"/>
</svg>
