<svg xmlns="http://www.w3.org/2000/svg" width="48" height="48" version="1.1">
 <rect style="opacity:0.2" width="40" height="40" x="4" y="5" rx="2" ry="2"/>
 <rect style="fill:#0a384e" width="40" height="40" x="4" y="4" rx="2" ry="2"/>
 <path style="fill:#004465" d="m 16.773438,4 6.134765,16.380859 a 6,6 0 0 0 -1.810547,1.070313 L 4.2851562,4.9824219 C 4.1077685,5.2812769 4,5.6258602 4,6 v 6.140625 L 19.630859,23.339844 A 6,6 0 0 0 19,26 6,6 0 0 0 19.05078,26.714844 L 4,29.712891 v 6.984375 l 15.878906,-7.580078 a 6,6 0 0 0 0.857422,1.099609 L 6.375,44 h 9.636719 L 23.001953,31.650391 A 6,6 0 0 0 25,32 6,6 0 0 0 25.390625,31.986328 L 26.695312,44 H 33.34375 L 27.744141,31.333984 a 6,6 0 0 0 1.052734,-0.691406 L 41.003906,44 H 42 c 1.108,0 2,-0.892 2,-2 V 35.720703 L 30.527344,28.332031 a 6,6 0 0 0 0.451172,-1.902343 L 44,25.363281 v -6.841797 l -13.423828,5.269532 a 6,6 0 0 0 -0.9375,-1.589844 L 44,6.9492188 V 6 C 44,4.892 43.108,4 42,4 h -9.478516 l -5.61914,16.314453 A 6,6 0 0 0 26.162109,20.115234 L 27.962891,4 Z"/>
 <path style="opacity:0.2" d="m 26.492188,5 -0.01563,0.4003906 c -0.01601,0.4530199 -0.352132,8.6382324 -0.621093,15.1113284 -0.09809,2.364576 -0.168562,4.309983 -0.15625,4.322265 0.01201,0.01231 0.03005,0.01473 0.03906,0.0059 0.01001,-0.009 1.117585,-3.203477 2.462891,-7.09961 C 31.697071,7.6151595 32.435657,5.4787962 32.53125,5.2246094 L 32.617188,5 Z m -6.589844,8.347656 c 0,0 -4.269254,3.561817 -4.304688,3.654297 -0.01401,0.03704 0.697589,0.767141 2.085938,2.138672 1.159525,1.145453 3.172945,3.135676 4.474609,4.421875 1.301764,1.286189 2.381521,2.337891 2.398438,2.337891 0.01702,0 0.03125,-0.01548 0.03125,-0.0332 h -0.002 c 0,-0.01772 -0.877629,-2.390429 -1.951172,-5.273438 -1.073642,-2.88301 -2.116464,-5.688355 -2.31836,-6.234375 -0.201796,-0.54601 -0.414015,-1.011722 -0.414062,-1.011719 z m 16.55664,2.623047 c -0.04604,-0.01531 -9.65511,10.17971 -9.673828,10.263672 -0.01001,0.04484 0.01152,0.04676 0.09961,0.01563 0.06104,-0.02131 2.890784,-1.126687 6.289062,-2.455078 3.39814,-1.328387 6.188308,-2.433554 6.195313,-2.455078 0.01601,-0.05005 -2.857006,-5.351424 -2.910157,-5.369141 z m -19.361328,6.580078 c -0.04204,-0.01612 -0.06701,0.0052 -0.08203,0.06836 -0.03303,0.141988 -0.6875,5.36573 -0.6875,5.484375 0,0.07838 0.02107,0.105468 0.07813,0.105468 0.04204,0 1.525955,-0.299289 3.296875,-0.666015 1.770919,-0.366726 3.23544,-0.684688 3.255859,-0.705078 0.02002,-0.02042 0.02854,-0.04267 0.01953,-0.05078 -0.104101,-0.09009 -5.836016,-4.219112 -5.88086,-4.236328 z m 20.378906,4.328125 c -0.04104,-0.03724 -9.704152,0.83217 -9.746093,0.876953 -0.01702,0.01832 -0.01429,0.04137 0.0098,0.05078 0.02102,0.009 1.967131,1.080055 4.324219,2.378906 2.357189,1.298851 4.32104,2.358992 4.363281,2.355469 0.07007,-0.006 0.118432,-0.242059 0.580078,-2.820313 h -0.002 c 0.276969,-1.547092 0.488622,-2.825722 0.470703,-2.841797 z M 23.71875,28.283203 c -0.05005,0.01922 -3.198658,1.51902 -6.998047,3.332031 -3.799389,1.81301 -7.7056416,3.674531 -8.6796874,4.138672 -0.9740458,0.46413 -1.7714843,0.867044 -1.7714844,0.894532 0,0.02753 0.6889321,1.041869 1.53125,2.253906 1.9940363,2.869226 1.9538479,2.810547 1.9882813,2.810547 0.016016,0 3.1709895,-3.010873 7.0117185,-6.691407 v -0.002 c 3.840629,-3.680544 6.988687,-6.710271 6.996094,-6.732422 0.01001,-0.02643 -0.01807,-0.02725 -0.07813,-0.0039 z m 2.625,0.714844 c -0.01902,-0.007 -0.03516,0.0044 -0.03516,0.02539 0,0.02092 0.368623,0.873068 0.818359,1.892578 0.449737,1.01951 2.010835,4.55704 3.46875,7.861328 1.457816,3.304279 2.654696,6.05969 2.681641,6.115234 L 33.328125,45 h 0.08008 c 0.04809,-0.02745 0.138094,-0.07477 0.140625,-0.07813 0.01101,-0.01461 1.064406,-0.683148 2.339844,-1.486328 1.275439,-0.80317 2.318359,-1.472986 2.318359,-1.488281 0,-0.03493 -11.815034,-12.931442 -11.863281,-12.949219 z m -1.392578,0.275391 c -0.01288,-0.01239 -0.02683,-0.0068 -0.04297,0.01172 -0.07908,0.08919 -4.705078,8.357164 -4.705078,8.408203 0,0.04224 0.131867,0.07202 0.539063,0.125 0.295987,0.03854 1.566848,0.205924 2.826171,0.371094 1.259322,0.165181 2.31397,0.290879 2.341797,0.28125 0.03503,-0.01231 0.04335,-0.06447 0.02734,-0.177734 -0.02002,-0.148364 -0.708433,-6.711582 -0.867188,-8.273438 -0.0518,-0.507861 -0.0805,-0.708916 -0.11914,-0.746093 z"/>
 <path style="fill:#26aaff" d="m 26.492188,4 -0.01563,0.4003906 c -0.01601,0.4530199 -0.352132,8.6382324 -0.621093,15.1113284 -0.09809,2.364576 -0.168562,4.309983 -0.15625,4.322265 0.01201,0.01231 0.03005,0.01473 0.03906,0.0059 0.01001,-0.009 1.117585,-3.203477 2.462891,-7.09961 C 31.697071,6.6151595 32.435657,4.4787962 32.53125,4.2246094 L 32.617188,4 Z m -6.589844,8.347656 c 0,0 -4.269254,3.561817 -4.304688,3.654297 -0.01401,0.03704 0.697589,0.767141 2.085938,2.138672 1.159525,1.145453 3.172945,3.135676 4.474609,4.421875 1.301764,1.286189 2.381521,2.337891 2.398438,2.337891 0.01702,0 0.03125,-0.01548 0.03125,-0.0332 h -0.002 c 0,-0.01772 -0.877629,-2.390429 -1.951172,-5.273438 -1.073642,-2.88301 -2.116464,-5.688355 -2.31836,-6.234375 -0.201796,-0.54601 -0.414015,-1.011722 -0.414062,-1.011719 z m 16.55664,2.623047 c -0.04604,-0.01531 -9.65511,10.17971 -9.673828,10.263672 -0.01001,0.04484 0.01152,0.04676 0.09961,0.01563 0.06104,-0.02131 2.890784,-1.126687 6.289062,-2.455078 3.39814,-1.328387 6.188308,-2.433554 6.195313,-2.455078 0.01601,-0.05005 -2.857006,-5.351424 -2.910157,-5.369141 z m -19.361328,6.580078 c -0.04204,-0.01612 -0.06701,0.0052 -0.08203,0.06836 -0.03303,0.141988 -0.6875,5.36573 -0.6875,5.484375 0,0.07838 0.02107,0.105468 0.07813,0.105468 0.04204,0 1.525955,-0.299289 3.296875,-0.666015 1.770919,-0.366726 3.23544,-0.684688 3.255859,-0.705078 0.02002,-0.02042 0.02854,-0.04267 0.01953,-0.05078 -0.104101,-0.09009 -5.836016,-4.219112 -5.88086,-4.236328 z m 20.378906,4.328125 c -0.04104,-0.03724 -9.704152,0.83217 -9.746093,0.876953 -0.01702,0.01832 -0.01429,0.04137 0.0098,0.05078 0.02102,0.009 1.967131,1.080055 4.324219,2.378906 2.357189,1.298851 4.32104,2.358992 4.363281,2.355469 0.07007,-0.006 0.118432,-0.242059 0.580078,-2.820313 h -0.002 c 0.276969,-1.547092 0.488622,-2.825722 0.470703,-2.841797 z M 23.71875,27.283203 c -0.05005,0.01922 -3.198658,1.51902 -6.998047,3.332031 -3.799389,1.81301 -7.7056416,3.674531 -8.6796874,4.138672 -0.9740458,0.46413 -1.7714843,0.867044 -1.7714844,0.894532 0,0.02753 0.6889321,1.041869 1.53125,2.253906 1.9940363,2.869226 1.9538479,2.810547 1.9882813,2.810547 0.016016,0 3.1709895,-3.010873 7.0117185,-6.691407 v -0.002 c 3.840629,-3.680544 6.988687,-6.710271 6.996094,-6.732422 0.01001,-0.02643 -0.01807,-0.02725 -0.07813,-0.0039 z m 2.625,0.714844 c -0.01902,-0.007 -0.03516,0.0044 -0.03516,0.02539 0,0.02092 0.368623,0.873068 0.818359,1.892578 0.449737,1.01951 2.010835,4.55704 3.46875,7.861328 1.457816,3.304279 2.654696,6.05969 2.681641,6.115234 L 33.328125,44 h 0.08008 c 0.04809,-0.02745 0.138094,-0.07477 0.140625,-0.07813 0.01101,-0.01461 1.064406,-0.683148 2.339844,-1.486328 1.275439,-0.80317 2.318359,-1.472986 2.318359,-1.488281 0,-0.03493 -11.815034,-12.931442 -11.863281,-12.949219 z m -1.392578,0.275391 c -0.01288,-0.01239 -0.02683,-0.0068 -0.04297,0.01172 -0.07908,0.08919 -4.705078,8.357164 -4.705078,8.408203 0,0.04224 0.131867,0.07202 0.539063,0.125 0.295987,0.03854 1.566848,0.205924 2.826171,0.371094 1.259322,0.165181 2.31397,0.290879 2.341797,0.28125 0.03503,-0.01231 0.04335,-0.06447 0.02734,-0.177734 -0.02002,-0.148364 -0.708433,-6.711582 -0.867188,-8.273438 -0.0518,-0.507861 -0.0805,-0.708916 -0.11914,-0.746093 z"/>
 <path style="opacity:0.1;fill:#8b9cbe" d="M 6,4 C 4.892,4 4,4.892 4,6 V 7 C 4,5.892 4.892,5 6,5 h 36 c 1.108,0 2,0.892 2,2 V 6 C 44,4.892 43.108,4 42,4 Z"/>
 <path style="opacity:0.2;fill:#8b9cbe" d="m 26.492188,4 -0.01563,0.4003906 c -0.01601,0.4530199 -0.352132,8.6382324 -0.621093,15.1113284 -0.09809,2.364576 -0.168562,4.309983 -0.15625,4.322265 0.01084,0.01111 0.02556,0.01188 0.03516,0.0059 0.0176,-0.632499 0.04556,-1.507397 0.121094,-3.328125 C 26.12443,14.038623 26.460552,5.8534105 26.476562,5.4003906 L 26.492188,5 h 5.771484 C 32.275032,4.968365 32.525329,4.2403529 32.53125,4.2246094 L 32.617188,4 Z m -6.589844,8.347656 c 0,0 -4.269254,3.561817 -4.304688,3.654297 -0.0069,0.01829 0.170828,0.210652 0.511719,0.560547 0.808545,-0.717721 3.792969,-3.214844 3.792969,-3.214844 4.7e-5,-3e-6 0.212266,0.465709 0.414062,1.011719 0.201896,0.54602 1.244718,3.351365 2.31836,6.234375 0.774922,2.08106 1.093842,2.951169 1.408203,3.806641 0.09275,0.08834 0.510051,0.5 0.513672,0.5 0.01702,0 0.03125,-0.01548 0.03125,-0.0332 h -0.002 c 0,-0.01772 -0.877629,-2.390429 -1.951172,-5.273438 -1.073642,-2.88301 -2.116464,-5.688355 -2.31836,-6.234375 -0.201796,-0.54601 -0.414015,-1.011722 -0.414062,-1.011719 z m 16.55664,2.623047 c -0.04604,-0.01531 -9.65511,10.17971 -9.673828,10.263672 -0.01001,0.04484 0.01152,0.04676 0.09961,0.01563 0.01251,-0.0044 1.062781,-0.415835 1.289062,-0.503906 2.039455,-2.202902 8.245742,-8.788498 8.285156,-8.775391 0.04501,0.015 1.850309,3.347848 2.472657,4.542969 0.02751,-0.01203 0.437005,-0.172308 0.4375,-0.173828 0.01601,-0.05005 -2.857006,-5.351424 -2.910157,-5.369141 z m -19.361328,6.580078 c -0.04204,-0.01612 -0.06701,0.0052 -0.08203,0.06836 -0.03303,0.141988 -0.6875,5.36573 -0.6875,5.484375 0,0.07838 0.02107,0.105468 0.07813,0.105468 4.5e-4,0 0.03438,-0.0077 0.03516,-0.0078 0.151073,-1.272243 0.546624,-4.463405 0.574219,-4.582031 0.01502,-0.06316 0.03999,-0.08448 0.08203,-0.06836 0.03709,0.01424 3.446964,2.475485 4.863282,3.503907 0.244943,-0.05502 0.991786,-0.210546 0.998046,-0.216797 0.02002,-0.02042 0.02854,-0.04267 0.01953,-0.05078 -0.104101,-0.09009 -5.836016,-4.219112 -5.88086,-4.236328 z m 20.378906,4.328125 c -0.04104,-0.03724 -9.704152,0.83217 -9.746093,0.876953 -0.01702,0.01832 -0.01429,0.04137 0.0098,0.05078 0.0071,0.0031 1.07582,0.591781 1.466797,0.80664 2.091113,-0.211903 7.796554,-0.726113 8.101563,-0.720703 0.04457,-0.281906 0.17436,-1.007938 0.167968,-1.013672 z M 23.71875,27.283203 c -0.05005,0.01922 -3.198658,1.51902 -6.998047,3.332031 -3.799389,1.81301 -7.7056416,3.674531 -8.6796874,4.138672 -0.9740458,0.46413 -1.7714843,0.867044 -1.7714844,0.894532 0,0.0091 0.3748947,0.548251 0.5058594,0.74414 0.2892552,-0.154536 0.5698175,-0.307121 1.265625,-0.638672 0.9740458,-0.464141 4.8802984,-2.325662 8.6796874,-4.138672 2.770747,-1.322158 3.974307,-1.893423 5.103516,-2.429687 0.446627,-0.431671 1.970567,-1.892192 1.972656,-1.898438 0.01001,-0.02643 -0.01807,-0.02725 -0.07813,-0.0039 z m 2.625,0.714844 c -0.01902,-0.007 -0.03516,0.0044 -0.03516,0.02539 0,0.01961 0.356702,0.84012 0.767578,1.773437 1.255163,1.342845 9.583089,10.432893 10.554687,11.521484 0.116604,-0.07679 0.576172,-0.367289 0.576172,-0.371093 0,-0.03493 -11.815034,-12.931442 -11.863281,-12.949219 z m -1.392578,0.275391 c -0.01288,-0.01239 -0.02683,-0.0068 -0.04297,0.01172 -0.07908,0.08919 -4.705078,8.357164 -4.705078,8.408203 0,0.03999 0.136115,0.06928 0.494141,0.117188 0.778949,-1.428281 4.140161,-7.445566 4.210937,-7.525391 0.01614,-0.01852 0.03009,-0.02411 0.04297,-0.01172 0.03864,0.03718 0.06734,0.238232 0.11914,0.746093 0.142826,1.405137 0.651462,6.255114 0.779297,7.44336 0.0021,-7e-5 0.05983,0.0081 0.06055,0.0078 0.03503,-0.01231 0.04335,-0.06447 0.02734,-0.177734 -0.02002,-0.148364 -0.708433,-6.711582 -0.867188,-8.273438 -0.0518,-0.507861 -0.0805,-0.708917 -0.11914,-0.746093 z"/>
</svg>
