<svg xmlns="http://www.w3.org/2000/svg" width="48" height="48" version="1">
 <rect style="opacity:0.2" width="40" height="36" x="4" y="7" rx="3" ry="3"/>
 <path style="fill:#4f4f4f" d="M 24,6 V 42 H 7 C 5.338,42 4,40.662 4,39 V 9 C 4,7.338 5.338,6 7,6 Z"/>
 <path style="fill:#17191e" d="M 24 6 L 24 42 L 41 42 C 42.662 42 44 40.662 44 39 L 44 9 C 44 7.338 42.662 6 41 6 L 24 6 z"/>
 <path style="opacity:0.2;fill:none;stroke:#000000;stroke-width:3;stroke-linecap:round;stroke-linejoin:round" d="m 8.5,11.499881 4,3.5 -4,3.5"/>
 <path style="fill:none;stroke:#8b9cbe;stroke-width:3;stroke-linecap:round;stroke-linejoin:round" d="m 8.5,10.5 4,3.5 -4,3.5"/>
 <path style="opacity:0.2;fill:none;stroke:#000000;stroke-width:3;stroke-linecap:round;stroke-linejoin:round" d="m 15.5,18.499881 h 4"/>
 <path style="fill:none;stroke:#8b9cbe;stroke-width:3;stroke-linecap:round;stroke-linejoin:round" d="m 15.5,17.5 h 4"/>
 <path style="opacity:0.2;fill:none;stroke:#000000;stroke-width:3;stroke-linecap:round;stroke-linejoin:round" d="m 28.500115,11.499881 4,3.5 -4,3.5"/>
 <path style="fill:#8b9cbe;opacity:0.1" d="M 7 6 C 5.338 6 4 7.338 4 9 L 4 10 C 4 8.338 5.338 7 7 7 L 41 7 C 42.662 7 44 8.338 44 10 L 44 9 C 44 7.338 42.662 6 41 6 L 7 6 z"/>
 <path style="opacity:0.2;fill:none;stroke:#000000;stroke-width:3;stroke-linecap:round;stroke-linejoin:round" d="m 35.500115,18.499881 h 4"/>
 <path style="fill:none;stroke:#8b9cbe;stroke-width:3;stroke-linecap:round;stroke-linejoin:round" d="m 28.500115,10.5 4,3.5 -4,3.5"/>
 <path style="fill:none;stroke:#8b9cbe;stroke-width:3;stroke-linecap:round;stroke-linejoin:round" d="m 35.500115,17.5 h 4"/>
</svg>
