<svg xmlns="http://www.w3.org/2000/svg" width="48" height="48" version="1">
 <rect style="opacity:0.2" width="28" height="40" x="10" y="5" rx="2" ry="2"/>
 <rect style="fill:#5d6c7b" width="28" height="40" x="10" y="4" rx="2" ry="2"/>
 <rect style="fill:#b0ee80" width="20" height="12" x="14" y="7"/>
 <circle style="opacity:0.2" cx="17" cy="41" r="2"/>
 <circle style="fill:#ef5c51" cx="17" cy="40" r="2"/>
 <circle style="opacity:0.2" cx="24" cy="41" r="2"/>
 <circle style="fill:#c5e7fb" cx="24" cy="40" r="2"/>
 <circle style="opacity:0.2" cx="31" cy="41" r="2"/>
 <circle style="fill:#c5e7fb" cx="31" cy="40" r="2"/>
 <rect style="fill:#44525e" width="2" height="10" x="23" y="8"/>
 <rect style="fill:#44525e" width="2" height="6" x="19" y="8"/>
 <circle style="opacity:0.2" cx="38.184" cy="4.243" r="8" transform="rotate(45)"/>
 <circle style="fill:#8b9cbe" cx="37.477" cy="3.536" r="8" transform="rotate(45)"/>
 <path style="fill:#129eee" d="m 29.656854,23.343146 a 8,8 0 0 0 -0.758209,-0.656004 l -3.484431,3.484431 a 1.0001,1.0001 0 1 0 1.414213,1.414213 l 3.485816,-3.485815 a 8,8 0 0 0 -0.657389,-0.756825 z"/>
 <rect style="opacity:0.2" width="20" height="1" x="14" y="7"/>
 <path style="opacity:0.1;fill:#8b9cbe" d="M 12 4 C 10.892 4 10 4.892 10 6 L 10 7 C 10 5.892 10.892 5 12 5 L 36 5 C 37.108 5 38 5.892 38 7 L 38 6 C 38 4.892 37.108 4 36 4 L 12 4 z"/>
 <rect style="fill:#44525e" width="2" height="5" x="12" y="-24" transform="rotate(90)"/>
 <rect style="fill:#44525e" width="2" height="6" x="31" y="8"/>
 <rect style="fill:#44525e" width="2" height="6" x="27" y="12"/>
 <rect style="fill:#44525e" width="2" height="5" x="12" y="-32" transform="rotate(90)"/>
 <rect style="fill:#44525e" width="2" height="5" x="8" y="-32" transform="rotate(90)"/>
 <rect style="fill:#44525e" width="2" height="5" x="16" y="-33" transform="rotate(90)"/>
 <rect style="opacity:0.1;fill:#8b9cbe" width="20" height="1" x="14" y="19"/>
</svg>
