<svg xmlns="http://www.w3.org/2000/svg" width="48" height="48" version="1">
 <path style="opacity:0.2" d="m 24,5.0002076 c -1.893179,0.026691 -3.243329,1.1515686 -3.876953,3.0136719 l 0.02344,-0.083984 -2.974609,9.0703129 -10.03125,0 c -0.02187,-3.46e-4 -0.042583,-3.46e-4 -0.064453,0 -1.197906,0.0383 -2.2780475,0.590003 -3.0390625,1.503906 -1.645849,1.863555 -1.2970123,4.795729 0.7929687,6.185547 l 7.8867189,5.685547 -3.060547,9.378906 c -0.0034,0.01038 -0.00657,0.02081 -0.00977,0.03125 -0.467655,1.515362 -0.027888,3.076558 1.1484376,4.144532 0.0085,0.0079 0.01864,0.01574 0.02734,0.02344 1.413575,1.239545 3.399732,1.397086 4.996093,0.371094 0.03037,-0.01938 0.06057,-0.03961 0.08984,-0.06055 L 24,38.500208 32.091797,44.26388 c 0.02927,0.02094 0.05947,0.04117 0.08984,0.06055 1.596361,1.025992 3.582518,0.868451 4.996093,-0.371094 0.0087,-0.0077 0.01879,-0.01556 0.02734,-0.02344 1.176326,-1.067974 1.616093,-2.62917 1.148438,-4.144532 -0.0032,-0.01044 -0.0064,-0.02087 -0.0098,-0.03125 l -3.060547,-9.378906 7.886719,-5.685547 c 2.089981,-1.389818 2.438818,-4.321992 0.792969,-6.185547 -0.761015,-0.913903 -1.841157,-1.465606 -3.039063,-1.503906 -0.02187,-3.46e-4 -0.04258,-3.46e-4 -0.06445,0 l -10.03125,0 -2.974609,-9.0703129 0.02344,0.083984 C 27.243329,6.1517762 25.893179,5.0268986 24,5.0002076 Z"/>
 <path style="fill:#ffbc2c" d="M 24 4 C 22.106821 4.026691 20.756671 5.1515686 20.123047 7.0136719 L 20.146484 6.9296875 L 17.171875 16 L 7.140625 16 C 7.118755 15.999654 7.0980419 15.999654 7.0761719 16 C 5.8782659 16.0383 4.7981244 16.590003 4.0371094 17.503906 C 2.3912604 19.367461 2.7400971 22.299635 4.8300781 23.689453 L 12.716797 29.375 L 9.65625 38.753906 C 9.65285 38.764286 9.6496844 38.774716 9.6464844 38.785156 C 9.1788294 40.300518 9.6185959 41.861714 10.794922 42.929688 C 10.803472 42.937568 10.813566 42.945425 10.822266 42.953125 C 12.235841 44.19267 14.221998 44.350211 15.818359 43.324219 C 15.848729 43.304839 15.878933 43.284612 15.908203 43.263672 L 24 37.5 L 32.091797 43.263672 C 32.121067 43.284612 32.151271 43.304839 32.181641 43.324219 C 33.778002 44.350211 35.764159 44.19267 37.177734 42.953125 C 37.186434 42.945425 37.196528 42.937568 37.205078 42.929688 C 38.381404 41.861714 38.821171 40.300518 38.353516 38.785156 C 38.350316 38.774716 38.34715 38.764286 38.34375 38.753906 L 35.283203 29.375 L 43.169922 23.689453 C 45.259903 22.299635 45.60874 19.367461 43.962891 17.503906 C 43.201876 16.590003 42.121734 16.0383 40.923828 16 C 40.901958 15.999654 40.881245 15.999654 40.859375 16 L 30.828125 16 L 27.853516 6.9296875 L 27.876953 7.0136719 C 27.243329 5.1515686 25.893179 4.026691 24 4 z"/>
 <path style="opacity:0.2;fill:#8b9cbe" d="M 24 4 C 22.106821 4.026691 20.756671 5.1515686 20.123047 7.0136719 L 20.146484 6.9296875 L 17.171875 16 L 7.140625 16 C 7.118755 15.999654 7.0980419 15.999654 7.0761719 16 C 5.8782659 16.0383 4.7981244 16.590003 4.0371094 17.503906 C 3.2103408 18.440036 2.8893345 19.644586 3.0371094 20.789062 C 3.1281185 19.970932 3.4500575 19.168611 4.0371094 18.503906 C 4.7981244 17.590003 5.8782659 17.0383 7.0761719 17 C 7.0980419 16.999654 7.118755 16.999654 7.140625 17 L 17.171875 17 L 20.146484 7.9296875 L 20.123047 8.0136719 C 20.756671 6.1515686 22.106821 5.026691 24 5 C 25.893179 5.026691 27.243365 6.151569 27.876953 8.0136719 L 27.853516 7.9296875 L 30.828125 17 L 40.859375 17 C 40.881245 16.999654 40.901958 16.999654 40.923828 17 C 42.121734 17.0383 43.201876 17.590003 43.962891 18.503906 C 44.549942 19.168611 44.871882 19.970932 44.962891 20.789062 C 45.110666 19.644586 44.789659 18.440036 43.962891 17.503906 C 43.201876 16.590003 42.121734 16.0383 40.923828 16 C 40.901958 15.999654 40.881245 15.999654 40.859375 16 L 30.828125 16 L 27.853516 6.9296875 L 27.876953 7.0136719 C 27.243329 5.1515686 25.893179 4.026691 24 4 z M 12.453125 30.183594 L 9.65625 38.753906 C 9.65285 38.764286 9.6496844 38.774716 9.6464844 38.785156 C 9.4679713 39.363599 9.423576 39.947948 9.5 40.509766 C 9.5291582 40.268599 9.5721045 40.026172 9.6464844 39.785156 C 9.6496844 39.774716 9.65285 39.764286 9.65625 39.753906 L 12.716797 30.375 L 12.453125 30.183594 z M 35.546875 30.183594 L 35.283203 30.375 L 38.34375 39.753906 C 38.34715 39.764286 38.350316 39.774716 38.353516 39.785156 C 38.427895 40.026172 38.470842 40.268599 38.5 40.509766 C 38.576424 39.947948 38.532029 39.363599 38.353516 38.785156 C 38.350316 38.774716 38.34715 38.764286 38.34375 38.753906 L 35.546875 30.183594 z"/>
</svg>
