<svg xmlns="http://www.w3.org/2000/svg" width="48" height="48" version="1">
 <rect style="opacity:0.2" width="40" height="40" x="4" y="5" rx="2" ry="2"/>
 <rect fill="#4f4f4f" width="40" height="40" x="4" y="4" rx="2" ry="2"/>
 <g opacity=".35">
  <rect width="18" height="10" x="5" y="32" rx="2" ry="2"/>
  <rect width="18" height="10" x="25" y="32" rx="2" ry="2"/>
  <rect width="6" height="1" x="37" y="10"/>
  <rect width="6" height="1" x="37" y="13"/>
  <rect width="6" height="1" x="37" y="16"/>
  <rect width="6" height="1" x="37" y="19"/>
  <rect width="6" height="1" x="37" y="22"/>
  <rect width="6" height="1" x="37" y="25"/>
 </g>
 <path style="fill:#8b9cbe;opacity:.1" d="m6 4c-1.108 0-2 0.892-2 2v1c0-1.108 0.892-2 2-2h36c1.108 0 2 0.892 2 2v-1c0-1.108-0.892-2-2-2h-36z"/>
</svg>
