<svg xmlns="http://www.w3.org/2000/svg" width="48" height="48" version="1">
 <path style="opacity:0.2" d="m 27.289312,5.0000001 -5.773271,8.2732849 a 16.170213,16.326537 0 0 0 -4.671044,2.598828 C 11.098417,14.481877 5,19.143799 5,19.143799 l 5.916972,12.345372 A 16.170213,16.326537 0 0 0 26.829787,45 16.170213,16.326537 0 0 0 43,28.673474 16.170213,16.326537 0 0 0 36.517703,15.626595 C 35.533449,8.8051276 27.289312,5.0000001 27.289312,5.0000001 Z"/>
 <path style="fill:#21a8e3" d="m 27.289312,4 -5.773271,8.273285 a 16.170213,16.326537 0 0 0 -4.671044,2.598828 C 11.098417,13.481877 5,18.143799 5,18.143799 l 5.916972,12.345372 A 16.170213,16.326537 0 0 0 26.829787,44 16.170213,16.326537 0 0 0 43,27.673474 16.170213,16.326537 0 0 0 36.517703,14.626595 C 35.533449,7.8051275 27.289312,4 27.289312,4 Z"/>
 <path style="fill:#8b9cbe" d="M 8.8295455,18.00017 C 8.2569352,18.00307 7.647059,18.0614 7,18.187257 c 0,0 4.013493,0.415757 6.009944,2.959001 C 12.167765,24.471071 11.069602,27 11.069602,27 L 15,20.567622 c 0,0 -2.162183,-2.593701 -6.1704545,-2.567424 z"/>
 <path style="fill:#8b9cbe" d="M 28,6.0001175 24,13 26.439024,12.315447 c 0,0 1.230038,-2.9194363 1.560976,-6.315447 z"/>
 <path style="opacity:0.2" d="m 18.832011,29.909921 a 3.0002651,3.0106486 0 0 0 -0.651594,3.10915 3.0002651,3.0106486 0 0 0 3.845474,1.799364 3.0002651,3.0106486 0 0 0 1.793178,-3.858766 A 3.0002651,3.0106486 0 0 0 21.328948,29 l -0.0098,0.202733 -0.148559,3.258118 -2.200864,-2.40006 z"/>
 <path style="opacity:0.2" d="m 31.832011,24.909921 a 3.0002651,3.0106486 0 0 0 -0.651594,3.10915 3.0002651,3.0106486 0 0 0 3.845474,1.799364 3.0002651,3.0106486 0 0 0 1.793178,-3.858766 A 3.0002651,3.0106486 0 0 0 34.328948,24 l -0.0098,0.202733 -0.148559,3.258118 -2.200864,-2.40006 z"/>
 <path style="fill:#8b9cbe" d="m 18.832011,28.909921 a 3.0002651,3.0106486 0 0 0 -0.651594,3.10915 3.0002651,3.0106486 0 0 0 3.845474,1.799364 3.0002651,3.0106486 0 0 0 1.793178,-3.858766 A 3.0002651,3.0106486 0 0 0 21.328948,28 l -0.0098,0.202733 -0.148559,3.258118 -2.200864,-2.40006 z"/>
 <path style="fill:#8b9cbe" d="m 31.832012,23.909921 a 3.0002654,3.0106483 0 0 0 -0.651594,3.10915 3.0002654,3.0106483 0 0 0 3.845474,1.799364 3.0002654,3.0106483 0 0 0 1.793177,-3.858766 A 3.0002654,3.0106483 0 0 0 34.328948,23 l -0.0098,0.202734 -0.148558,3.258116 -2.200866,-2.400058 z"/>
 <path style="opacity:0.2" d="m 35.986715,35.000225 a 1.0340629,0.953396 0 0 0 -0.102323,0.0024 1.0340629,0.953396 0 0 0 -0.697385,0.323965 c -0.425926,0.434862 -1.279773,0.532448 -2.193123,0.417081 -0.816206,-0.102961 -1.437674,-0.31979 -1.577867,-0.36991 a 1.0340629,0.953396 0 0 0 -0.484668,-0.119063 1.0340629,0.953396 0 0 0 -1.085121,1.019062 c -0.04932,0.22588 -0.167598,0.715759 -0.460434,1.328173 -0.371885,0.777739 -0.91663,1.398996 -1.541516,1.5057 a 1.035112,0.95436308 0 0 0 0.376965,1.876811 c 1.661333,-0.283663 2.561418,-1.575526 3.057453,-2.612891 0.160214,-0.335099 0.275493,-0.647836 0.371578,-0.93717 0.317697,0.07642 0.665346,0.150132 1.058193,0.199799 1.218251,0.153988 2.882284,0.124732 4.014671,-1.031491 a 1.0340629,0.953396 0 0 0 -0.736427,-1.602514 z"/>
 <path style="fill:#8b9cbe" d="m 35.986715,34.000225 a 1.0340629,0.953396 0 0 0 -0.102323,0.0024 1.0340629,0.953396 0 0 0 -0.697385,0.323965 c -0.425926,0.434862 -1.279773,0.532448 -2.193123,0.417081 -0.816206,-0.102961 -1.437674,-0.31979 -1.577867,-0.36991 a 1.0340629,0.953396 0 0 0 -0.484668,-0.119063 1.0340629,0.953396 0 0 0 -1.085121,1.019062 c -0.04932,0.22588 -0.167598,0.715759 -0.460434,1.328173 -0.371885,0.777739 -0.91663,1.398996 -1.541516,1.5057 a 1.035112,0.95436308 0 0 0 0.376965,1.876811 c 1.661333,-0.283663 2.561418,-1.575526 3.057453,-2.612891 0.160214,-0.335099 0.275493,-0.647836 0.371578,-0.93717 0.317697,0.07642 0.665346,0.150132 1.058193,0.199799 1.218251,0.153988 2.882284,0.124732 4.014671,-1.031491 a 1.0340629,0.953396 0 0 0 -0.736427,-1.602514 z"/>
 <path style="opacity:0.2;fill:#8b9cbe" d="m 27.289063,4 -5.773438,8.273438 a 16.170213,16.326537 0 0 0 -4.669922,2.597656 C 11.099123,13.480858 5,18.144531 5,18.144531 l 0.361328,0.753906 c 0.921851,-0.66497 6.236244,-4.296992 11.484375,-3.027343 a 16.170213,16.326537 0 0 1 4.669922,-2.597656 L 27.289063,5 c 0,0 8.244261,3.8054852 9.228515,10.626953 A 16.170213,16.326537 0 0 1 42.978516,28.259765 16.170213,16.326537 0 0 0 43,27.673828 16.170213,16.326537 0 0 0 36.517578,14.626953 C 35.533324,7.8054856 27.289063,4 27.289063,4 Z"/>
</svg>
