<svg xmlns="http://www.w3.org/2000/svg" width="48" height="48" version="1">
 <rect style="opacity:0.2" width="40" height="40" x="4" y="5" rx="20" ry="20"/>
 <rect style="fill:#17191e" width="40" height="40" x="4" y="4" rx="20" ry="20"/>
 <path fill="#fff" style="opacity:0.1" d="m24 4c-11.079 0-19.998 8.92-19.998 20 0 0.16772-0.004 0.33329 0 0.5 0.2642-10.846 9.087-19.5 19.998-19.5s19.734 8.6536 19.998 19.5c0.004-0.16671 0-0.33228 0-0.5 0-11.08-8.919-20-19.998-20z"/>
 <g style="opacity:0.2" transform="translate(0,1.0000004)">
  <path d="m 12,11 v 2.572266 c 3.302811,4.058544 6.73272,7.941351 10.273438,11.654296 0.465299,-0.47451 0.921519,-0.962316 1.382812,-1.443359 C 19.903734,19.849165 16.273203,15.717626 12.787109,11.382812 A 1.0007273,1.0004369 0 0 0 12.037109,11 1.0007273,1.0004369 0 0 0 12,11 Z m 13.736328,14.945312 c -0.459951,0.479557 -0.91875,0.960347 -1.382812,1.433594 1.062,1.077081 2.127365,2.150647 3.210937,3.19336 l 1.414063,-1.416016 c -1.092385,-1.05078 -2.171044,-2.12492 -3.242188,-3.210938 z m 3.59961,3.560547 -1.414063,1.416016 c 0.252589,0.24163 0.510024,0.473028 0.763672,0.712891 l -0.03516,0.03906 a 0.50165002,0.50154558 0 1 0 0.732421,0.685547 l 0.03711,-0.03906 c 1.628241,1.522265 3.271378,3.016943 4.949219,4.457032 a 1.0014515,1.0011608 0 0 0 1.30664,-1.515625 C 34.020316,33.840835 32.39589,32.36215 30.787109,30.859375 l 0.09766,-0.101563 a 0.50054212,0.50043791 0 0 0 -0.378907,-0.847656 0.50054212,0.50043791 0 0 0 -0.353515,0.164063 l -0.09766,0.103515 C 29.816149,29.95225 29.573493,29.733 29.335938,29.505859 Z"/>
  <path d="m 35.962852,11.000169 a 1.0007273,1.0004369 0 0 0 -0.750738,0.383109 C 30.101776,17.737773 24.705929,23.689726 19.022367,29.156821 l 1.4135,1.41516 C 25.893711,25.31994 31.07628,19.622814 35.999997,13.572475 v -2.572306 a 1.0007273,1.0004369 0 0 0 -0.03714,0 z M 18.664594,29.506703 c -0.237555,0.227141 -0.480919,0.444956 -0.719457,0.67044 l -0.09775,-0.103595 a 0.50054212,0.50043791 0 0 0 -0.353863,-0.16419 0.50054212,0.50043791 0 0 0 -0.377324,0.848314 l 0.0958,0.101641 c -1.608781,1.502775 -3.232153,2.980966 -4.887618,4.40185 a 1.0014515,1.0011608 0 0 0 1.305972,1.5168 c 1.677841,-1.440089 3.321938,-2.936269 4.950179,-4.458534 l 0.03715,0.03909 a 0.50071335,0.5006091 0 1 0 0.731187,-0.684124 l -0.03519,-0.03909 c 0.253648,-0.239863 0.511834,-0.471814 0.764423,-0.713444 z"/>
 </g>
 <g>
  <path style="fill:#8b9cbe" d="M 12 11 L 12 13.572266 C 15.302811 17.63081 18.73272 21.513617 22.273438 25.226562 C 22.738737 24.752052 23.194957 24.264246 23.65625 23.783203 C 19.903734 19.849165 16.273203 15.717626 12.787109 11.382812 A 1.0007273 1.0004369 0 0 0 12.037109 11 A 1.0007273 1.0004369 0 0 0 12 11 z M 25.736328 25.945312 C 25.276377 26.424869 24.817578 26.905659 24.353516 27.378906 C 25.415516 28.455987 26.480881 29.529553 27.564453 30.572266 L 28.978516 29.15625 C 27.886131 28.10547 26.807472 27.03133 25.736328 25.945312 z M 29.335938 29.505859 L 27.921875 30.921875 C 28.174464 31.163505 28.431899 31.394903 28.685547 31.634766 L 28.650391 31.673828 A 0.50071335 0.5006091 0 1 0 29.382812 32.359375 L 29.419922 32.320312 C 31.048163 33.842577 32.6913 35.337255 34.369141 36.777344 A 1.0014515 1.0011608 0 0 0 35.675781 35.261719 C 34.020316 33.840835 32.39589 32.36215 30.787109 30.859375 L 30.884766 30.757812 A 0.50054212 0.50043791 0 0 0 30.505859 29.910156 A 0.50054212 0.50043791 0 0 0 30.152344 30.074219 L 30.054688 30.177734 C 29.816149 29.95225 29.573493 29.733 29.335938 29.505859 z"/>
  <path style="fill:#8b9cbe" d="m 35.962852,11.000169 a 1.0007273,1.0004369 0 0 0 -0.750738,0.383109 C 30.101776,17.737773 24.705929,23.689726 19.022367,29.156821 l 1.4135,1.41516 C 25.893711,25.31994 31.07628,19.622814 35.999997,13.572475 v -2.572306 a 1.0007273,1.0004369 0 0 0 -0.03714,0 z M 18.664594,29.506703 c -0.237555,0.227141 -0.480919,0.444956 -0.719457,0.67044 l -0.09775,-0.103595 a 0.50054212,0.50043791 0 0 0 -0.353863,-0.16419 0.50054212,0.50043791 0 0 0 -0.377324,0.848314 l 0.0958,0.101641 c -1.608781,1.502775 -3.232153,2.980966 -4.887618,4.40185 a 1.0014515,1.0011608 0 0 0 1.305972,1.5168 c 1.677841,-1.440089 3.321938,-2.936269 4.950179,-4.458534 l 0.03715,0.03909 a 0.50071335,0.5006091 0 1 0 0.731187,-0.684124 l -0.03519,-0.03909 c 0.253648,-0.239863 0.511834,-0.471814 0.764423,-0.713444 z"/>
 </g>
</svg>
