<svg xmlns="http://www.w3.org/2000/svg" width="48" height="48" version="1">
 <path fill="#4f4f4f" d="m24.108 4.0013a4.5656 4.5479 0 0 0 -2.391 0.6067l-13.434 7.726a4.5656 4.5479 0 0 0 -2.283 3.939v15.453a4.5656 4.5479 0 0 0 2.2828 3.9386l13.434 7.7264a4.5656 4.5479 0 0 0 4.5656 0l13.434-7.7264a4.5656 4.5479 0 0 0 2.283 -3.939v-15.453a4.5656 4.5479 0 0 0 -2.283 -3.939l-13.434-7.726a4.5656 4.5479 0 0 0 -2.175 -0.6067z"/>
 <path fill="#fff" opacity=".1" d="m24.107 4.002a4.5656 4.5479 0 0 0 -2.39 0.6054l-13.434 7.7266a4.5656 4.5479 0 0 0 -2.283 3.939v1a4.5656 4.5479 0 0 1 2.2832 -3.939l13.434-7.7266a4.5656 4.5479 0 0 1 2.3906 -0.60547 4.5656 4.5479 0 0 1 2.1758 0.60547l13.434 7.7266a4.5656 4.5479 0 0 1 2.283 3.939v-1a4.5656 4.5479 0 0 0 -2.283 -3.939l-13.434-7.7266a4.5656 4.5479 0 0 0 -2.176 -0.6054z"/>
 <path opacity=".2" d="m6 31.726v1a4.5656 4.5479 0 0 0 2.2832 3.9375l13.434 7.7266a4.5656 4.5479 0 0 0 4.5664 0l13.434-7.727a4.5656 4.5479 0 0 0 2.283 -3.938v-1a4.5656 4.5479 0 0 1 -2.2832 3.9375l-13.434 7.7266a4.5656 4.5479 0 0 1 -4.5664 0l-13.434-7.727a4.5656 4.5479 0 0 1 -2.283 -3.938z"/>
 <path style="opacity:0.2" d="m 20.660156,18.000134 -1.193359,1.193359 C 18.650768,18.633794 17.474354,18.079968 15.900391,18.002087 12.600796,17.83882 9.0112016,20.395542 9,24.976696 c -0.00399,1.630463 0.5642906,3.338849 1.689453,4.69336 1.125163,1.354511 2.860936,2.330078 4.998047,2.330078 2.391558,0 4.256496,-0.876107 5.6875,-2.121094 1.431004,-1.244987 2.474165,-2.819418 3.492188,-4.316406 1.018021,-1.496988 2.009724,-2.915806 3.208984,-3.921875 1.19926,-1.006069 2.571137,-1.640625 4.605469,-1.640625 1.744457,0 4.318359,1.438562 4.318359,5.550781 0,2.303193 -1.852956,4.514232 -4.705078,4.449219 -1.135761,-0.02589 -1.890176,-0.275226 -2.400391,-0.554688 L 31,28.339978 28.5,27.670056 26,27.000134 l 0.669922,2.5 0.669922,2.5 1.113281,-1.113281 c 0.816025,0.565449 2.047705,1.073407 3.796875,1.113281 3.924948,0.08947 6.75,-3.051742 6.75,-6.449219 0,-4.991026 -3.424147,-7.550781 -6.318359,-7.550781 -2.477601,0 -4.407827,0.865444 -5.890625,2.109375 -1.482799,1.243931 -2.556007,2.825113 -3.578125,4.328125 -1.022119,1.503012 -1.995217,2.928581 -3.150391,3.933594 -1.155174,1.005013 -2.446387,1.628906 -4.375,1.628906 -1.550889,0 -2.660449,-0.646117 -3.458984,-1.607422 C 11.42998,27.431407 10.997195,26.129408 11,24.982556 c 0.0088,-3.581921 2.54772,-5.095858 4.800781,-4.984375 1.003737,0.04967 1.734056,0.308966 2.259766,0.601562 L 17,21.66029 l 2.5,0.669922 2.5,0.669922 -0.669922,-2.5 z"/>
 <g>
  <path style="fill:none;stroke:#8b9cbe;stroke-width:2" d="m 28,28 c 0,0 0.898274,1.92309 4.272157,2 C 35.660692,30.07724 38,27.401958 38,24.551623 38,20 35,18 32.680665,18 23.656802,18 24.328341,30 15.688,30 12,30 9.9932072,26.757025 10,23.979711 10.00998,19.898173 13.073795,17.862625 15.850123,18 18.767664,18.144363 20,20 20,20"/>
  <path style="fill:#8b9cbe" d="M 22,22 19.5,21.330127 17,20.660254 18.830127,18.830127 20.660254,17 l 0.669873,2.5 z"/>
  <path style="fill:#8b9cbe" transform="scale(-1)" d="m -26,-26 -2.5,-0.669873 -2.5,-0.669873 1.830127,-1.830127 1.830127,-1.830127 0.669873,2.5 z"/>
 </g>
</svg>
