<svg xmlns="http://www.w3.org/2000/svg" width="48" height="48" version="1.1">
 <circle style="opacity:0.2" cx="24" cy="25" r="20"/>
 <circle style="fill:#4f4f4f" cx="24" cy="24" r="20"/>
 <path style="opacity:0.1;fill:#8b9cbe" d="M 24 4 A 20 20 0 0 0 4 24 A 20 20 0 0 0 4.0215 24.582 A 20 20 0 0 1 24 5 A 20 20 0 0 1 43.979 24.418 A 20 20 0 0 0 44 24 A 20 20 0 0 0 24 4 z"/>
 <g style="opacity:0.2;fill:none;stroke:#000000;stroke-width:3;stroke-linecap:round" transform="translate(0,1)">
  <circle cx="24" cy="24" r="4.5"/>
  <path d="M 16.929,16.929 A 10,10 0 0 1 31.071,16.929 10,10 0 0 1 31.071,31.071 10,10 0 0 1 16.929,31.071"/>
  <path d="M 14.311,26.475 A 10,10 0 0 1 14.311,21.525"/>
  <path d="M 9.1614,28.48 A 15.5,15.5 0 0 1 9.1615,19.52"/>
  <path d="M 27.52,8.905 A 15.5,15.5 0 0 1 35.483,13.589"/>
  <path d="M 35.494,34.399 A 15.5,15.5 0 0 1 27.526,39.094"/>
 </g>
 <g style="fill:none;stroke:#8b9cbe;stroke-width:3;stroke-linecap:round">
  <circle cx="24" cy="24" r="4.5"/>
  <path d="M 16.929,16.929 A 10,10 0 0 1 27.827,14.761 10,10 0 0 1 34,24 10,10 0 0 1 27.827,33.239 10,10 0 0 1 16.929,31.071"/>
  <path d="M 14.311,26.475 A 10,10 0 0 1 14.311,21.525"/>
  <path d="M 9.1614,28.48 A 15.5,15.5 0 0 1 9.1615,19.52"/>
  <path d="M 27.52,8.905 A 15.5,15.5 0 0 1 35.483,13.589"/>
  <path d="M 35.494,34.399 A 15.5,15.5 0 0 1 27.526,39.094"/>
 </g>
</svg>
