<svg xmlns="http://www.w3.org/2000/svg" width="48" height="48" version="1">
 <rect style="opacity:0.2" width="40" height="40" x="4" y="5" rx="12" ry="12"/>
 <rect style="fill:#17191e" width="40" height="40" x="4" y="4" rx="12" ry="12"/>
 <path style="opacity:0.1;fill:#8b9cbe" d="M 16,4 C 9.352,4 4,9.352 4,16 v 1 C 4,10.352 9.352,5 16,5 h 16 c 6.648,0 12,5.352 12,12 V 16 C 44,9.352 38.648,4 32,4 Z"/>
 <path style="opacity:0.2" d="m 14,11 v 2 h -2 v 2 h -2 v 2 8 3 h 4 v 1 3 h 3 v 3 h 4 v 4 h 2 2 2 v -4 h 4 v -3 h 3 v -3 -1 h 4 v -3 -8 -2 h -2 v -2 h -2 v -2 h -2 -2 -1 v 2 h -1 v 2 h -1 -1 v 2 1 h -1 -2 -1 v -1 -2 h -1 -1 v -2 h -1 v -2 h -1 -2 z"/>
 <path style="fill:#ff433d" d="m 14,10 v 2 h -2 v 2 h -2 v 2 8 3 h 4 v 1 3 h 3 v 3 h 4 v 4 h 2 2 2 v -4 h 4 v -3 h 3 v -3 -1 h 4 v -3 -8 -2 h -2 v -2 h -2 v -2 h -2 -2 -1 v 2 h -1 v 2 h -1 -1 v 2 1 h -1 -2 -1 v -1 -2 h -1 -1 v -2 h -1 v -2 h -1 -2 z"/>
 <path style="opacity:0.2;fill:#8b9cbe" d="m 14,10 v 1 h 2 2 1 v -1 h -1 -2 z m 15,0 v 1 h 1 2 2 v -1 h -2 -2 z m -17,2 v 1 h 2 v -1 z m 7,0 v 1 h 1 v -1 z m 9,0 v 1 h 1 v -1 z m 6,0 v 1 h 2 v -1 z m -24,2 v 1 h 2 v -1 z m 10,0 v 1 h 1 1 v -1 h -1 z m 6,0 v 1 h 1 1 v -1 h -1 z m 10,0 v 1 h 2 v -1 z m -14,3 v 1 h 1 2 1 v -1 h -1 -2 z"/>
</svg>
