<svg width="48" height="48" version="1.1" xmlns="http://www.w3.org/2000/svg">
 <rect x="4" y="5" width="40" height="40" rx="4" ry="4" style="opacity:.2"/>
 <rect x="4" y="4" width="40" height="40" rx="4" ry="4" style="fill:#1ab7ea"/>
 <path d="m9 20 2 2 2-2s5 18 9 18c9 0 16-18 16-18s0-7-5-7c-4 0-8 7-8 7s3-1 4 0-2 10-4 10c-3-2-3-16-7-16-3 0-9 6-9 6z" style="opacity:.2"/>
 <path d="m9 19 2 2 2-2s5 18 9 18c9 0 16-18 16-18s0-7-5-7c-4 0-8 7-8 7s3-1 4 0-2 10-4 10c-3-2-3-16-7-16-3 0-9 6-9 6z" style="fill:#8b9cbe"/>
 <path d="m8 4c-2.216 0-4 1.784-4 4v1c0-2.216 1.784-4 4-4h32c2.216 0 4 1.784 4 4v-1c0-2.216-1.784-4-4-4h-32z" style="fill:#8b9cbe;opacity:.2"/>
</svg>
