<svg xmlns="http://www.w3.org/2000/svg" width="48" height="48" version="1">
 <path style="opacity:0.2" d="M 14 5 L 16 19.541016 L 29.433594 28 L 27.453125 13.806641 L 14 5 z M 29.433594 28 L 16 34.25 L 30.613281 41 L 44 34.966797 L 29.433594 28 z M 16 34.25 L 16 19.541016 L 4 30.291016 L 4 45 L 16 34.25 z"/>
 <path style="fill:#acae26" d="M 27.453754,12.806277 14,4 16,18.540394 17,31 29.43442,27 Z"/>
 <path style="fill:#7b7c08" d="M 4,29.291173 16,18.540394 24,25 16,33.24922 4,44 Z"/>
 <path style="fill:#dbde63" d="M 29.43442,27 44,33.966452 30.613061,40 16,33.24922 17,21 Z"/>
 <path style="opacity:0.2;fill:#8b9cbe" d="M 14 4 L 14.150391 5.0996094 L 27.453125 13.806641 L 29.28125 26.904297 L 29.433594 27 L 27.453125 12.806641 L 14 4 z"/>
 <path style="opacity:0.1;fill:#8b9cbe" d="M 16 18.541016 L 4 29.291016 L 4 30.291016 L 16 19.541016 L 16 18.541016 z"/>
 <path style="opacity:0.2;fill:#8b9cbe" d="M 29.433594 27 L 28.519531 27.425781 L 29.433594 28 L 42.923828 34.451172 L 44 33.966797 L 29.433594 27 z"/>
 <path style="fill:#8b9cbe" d="m 29.433594,27 z m 0,0 L 16,18.541016 V 33.25 Z M 16,33.25 c 0,-7.8e-4 0,0 0,0 z m 0,-14.708984 z"/>
 <path style="opacity:0.2" d="M 28.519531 27.425781 L 16 33.25 L 16 34.25 L 29.433594 28 L 28.519531 27.425781 z"/>
</svg>
