<svg width="48" height="48" version="1.1" xmlns="http://www.w3.org/2000/svg">
 <g transform="matrix(1.9996869,0,0,2,2.0006262,3)">
  <path d="M 6,5 C 5.6656557,5.0000271 5.3534403,5.1671283 5.1679688,5.4453125 l -4,5.9999995 C 0.72512627,12.109866 1.201413,12.999829 2,13 h 18 c 0.798587,-1.71e-4 1.274873,-0.890134 0.832031,-1.554688 l -4,-5.9999995 C 16.64656,5.1671283 16.334344,5.0000272 16,5 Z" style="fill:#3b3b3b"/>
  <path d="m6 5c-0.3343443 2.71e-5 -0.6465598 0.1671283-0.8320312 0.4453125l-4 5.9999995c-0.1714382 0.25727-0.20224746 0.546511-0.1328126 0.806641 0.027214-0.104572 0.067297-0.208324 0.1328126-0.306641l4-5.9999995c0.1854714-0.2781842 0.4976869-0.4452854 0.8320312-0.4453125h10c0.334344 2.72e-5 0.64656 0.1671283 0.832031 0.4453125l4 5.9999995c0.06552 0.09832 0.105599 0.202069 0.132813 0.306641 0.06944-0.26013 0.03862-0.549371-0.132813-0.806641l-4-5.9999995c-0.185471-0.2781842-0.497687-0.4452853-0.832031-0.4453125z" style="fill:#8b9cbe;opacity:.1"/>
  <rect x="1" y="11.5" width="20" height="7" rx="0" ry="1" style="opacity:.2"/>
  <rect x="1" y="11" width="20" height="7" rx="0" ry="1" style="fill:#505050"/>
  <circle cx="13.5" cy="15" r="1.5" style="opacity:.2"/>
  <circle cx="13.5" cy="14.5" r="1.5" style="fill:#e25104"/>
  <circle cx="17.5" cy="15" r="1.5" style="opacity:.2"/>
  <circle cx="17.5" cy="14.5" r="1.5" style="fill:#fc9602"/>
  <path d="m2 11c-0.554 0-1 0.446-1 1v0.5c0-0.554 0.446-1 1-1h17.998047c0.554 0 1 0.446 1 1v-0.5c0-0.554-0.446-1-1-1z" style="fill:#8b9cbe;opacity:.2"/>
 </g>
</svg>
