<svg xmlns="http://www.w3.org/2000/svg" width="48" height="48" version="1.1">
 <path style="opacity:0.2" d="M 13.041094,5 C 8.03082,5 4,9.0308185 4,14.041096 v 21.91781 C 4,40.96918 8.03082,45 13.041094,45 H 34.958906 C 39.96918,45 44,40.96918 44,35.958906 V 14.041096 C 44,9.0308185 39.96918,5 34.958906,5 Z"/>
 <path style="fill:#515e6f" d="M 13.041016 4 C 8.0307416 4 4 8.0307381 4 13.041016 L 4 34.958984 C 4 37.338257 4.9169941 39.48886 6.4082031 41.099609 L 41.591797 41.099609 C 43.083006 39.48886 44 37.338257 44 34.958984 L 44 13.041016 C 44 8.0307381 39.969258 4 34.958984 4 L 13.041016 4 z"/>
 <path style="opacity:0.2" d="M 25.5,17 A 6.5,6.5 0 0 0 20.326172,19.578125 5,5 0 0 0 18,19 5,5 0 0 0 13,24 5,5 0 0 0 13.111328,25.025391 3.5,3.5 0 0 0 10,28.5 3.5,3.5 0 0 0 13.5,32 3.5,3.5 0 0 0 15.443359,31.408203 C 15.166969,30.826095 15,30.18379 15,29.5 15,27.13649 16.86688,25.231646 19.189453,25.0625 19.65853,22.220987 22.03021,20 25,20 a 1.0001,1.0001 0 0 0 0.002,0 c 1.819111,0.002 3.422343,0.942342 4.550781,2.333984 C 30.028191,22.186081 30.497297,22.0013 30.998047,22 A 1.0001,1.0001 0 0 0 31,22 c 0.286891,0 0.5661,0.03034 0.837891,0.07813 A 6.5,6.5 0 0 0 25.5,17 Z M 25,21 a 5,5 0 0 0 -5,5 5,5 0 0 0 0.002,0.04102 A 3.5,3.5 0 0 0 19.5,26 3.5,3.5 0 0 0 16,29.5 3.5,3.5 0 0 0 19.5,33 H 35 A 3,3 0 0 0 38,30 3,3 0 0 0 35,27 4,4 0 0 0 31,23 4,4 0 0 0 29.265625,23.400391 5,5 0 0 0 25,21 Z"/>
 <path style="fill:#8b9cbe" d="M 25.5,16 A 6.5,6.5 0 0 0 20.326172,18.578125 5,5 0 0 0 18,18 5,5 0 0 0 13,23 5,5 0 0 0 13.111328,24.025391 3.5,3.5 0 0 0 10,27.5 3.5,3.5 0 0 0 13.5,31 3.5,3.5 0 0 0 15.443359,30.408203 C 15.166969,29.826095 15,29.18379 15,28.5 15,26.13649 16.86688,24.231646 19.189453,24.0625 19.65853,21.220987 22.03021,19 25,19 a 1.0001,1.0001 0 0 0 0.002,0 c 1.819111,0.002 3.422343,0.942342 4.550781,2.333984 C 30.028238,21.186081 30.497297,21.0013 30.998047,21 A 1.0001,1.0001 0 0 0 31,21 c 0.286891,0 0.5661,0.03034 0.837891,0.07813 A 6.5,6.5 0 0 0 25.5,16 Z"/>
 <path style="fill:#8b9cbe" d="m 25,20 a 5,5 0 0 0 -5,5 5,5 0 0 0 0.002,0.04102 A 3.5,3.5 0 0 0 19.5,25 3.5,3.5 0 0 0 16,28.5 3.5,3.5 0 0 0 19.5,32 H 35 A 3,3 0 0 0 38,29 3,3 0 0 0 35,26 4,4 0 0 0 31,22 4,4 0 0 0 29.265625,22.400391 5,5 0 0 0 25,20 Z"/>
 <rect style="fill:#2bb563" width="10" height="3" x="14" y="41"/>
 <path style="fill:#5057eb" d="M 6.3164062 41 C 7.9689244 42.83951 10.361083 44 13.041016 44 L 14 44 L 14 41 L 6.3164062 41 z"/>
 <path style="fill:#ffb73f" d="M 34 41 L 34 44 L 34.958984 44 C 37.638917 44 40.031076 42.83951 41.683594 41 L 34 41 z"/>
 <rect style="fill:#e8475b" width="10" height="3" x="24" y="41"/>
 <path style="fill:#8b9cbe;opacity:0.1" d="M 13.041016 4 C 8.0307416 4 4 8.0307381 4 13.041016 L 4 14.041016 C 4 9.0307381 8.0307416 5 13.041016 5 L 34.958984 5 C 39.969258 5 44 9.0307381 44 14.041016 L 44 13.041016 C 44 8.0307381 39.969258 4 34.958984 4 L 13.041016 4 z"/>
 <path style="opacity:0.2;fill:#8b9cbe" d="M 6.3164062 41 C 6.6438906 41.364541 7.0085624 41.69254 7.390625 42 L 40.609375 42 C 40.991438 41.69254 41.356109 41.364541 41.683594 41 L 6.3164062 41 z"/>
</svg>
