<svg xmlns="http://www.w3.org/2000/svg" width="48" height="48" version="1">
 <path style="opacity:0.2" d="m 24.108302,5.000997 a 4.5656761,4.5479 0 0 0 -2.39104,0.6067 l -13.434224,7.726 A 4.5656761,4.5479 0 0 0 6,17.272697 v 15.453 a 4.5656761,4.5479 0 0 0 2.282838,3.9386 l 13.434224,7.7264 a 4.5656761,4.5479 0 0 0 4.565676,0 l 13.434224,-7.7264 A 4.5656761,4.5479 0 0 0 42,32.725297 v -15.453 a 4.5656761,4.5479 0 0 0 -2.283038,-3.939 l -13.434224,-7.726 a 4.5656761,4.5479 0 0 0 -2.175036,-0.6067 z"/>
 <path style="fill:#e43e54" d="M 24.107422 4 L 24.107422 4.0019531 A 4.5656761 4.5479 0 0 0 21.716797 4.6074219 L 8.2832031 12.333984 A 4.5656761 4.5479 0 0 0 6 16.273438 L 6 31.726562 A 4.5656761 4.5479 0 0 0 8.2832031 35.664062 L 21.716797 43.390625 A 4.5656761 4.5479 0 0 0 26.283203 43.390625 L 39.716797 35.664062 A 4.5656761 4.5479 0 0 0 42 31.726562 L 42 16.273438 A 4.5656761 4.5479 0 0 0 39.716797 12.333984 L 26.283203 4.6074219 A 4.5656761 4.5479 0 0 0 24.107422 4 z"/>
 <path style="fill:#343b45" d="M 24.011719,8 C 23.904811,7.99742 23.799784,8.02402 23.708984,8.076172 l -13.43164,7.724609 C 10.09553,15.905331 9.9999875,16.076815 10,16.273438 v 15.453124 c -10e-8,0.196598 0.09556,0.366158 0.277344,0.470704 l 13.433594,7.726562 c 0.181784,0.104546 0.396339,0.104546 0.578124,0 L 37.722656,32.197266 C 37.90447,32.092716 38.000013,31.923185 38,31.726562 v -15.453124 -0.002 c 1.3e-5,-0.196623 -0.09553,-0.366153 -0.277344,-0.470703 L 24.291016,8.0761719 C 24.208212,8.0286189 24.113115,8.00224 24.015625,8 Z"/>
 <g style="opacity:0.2" transform="matrix(0.04078454,0,0,0.04433608,14.999999,16.216306)">
  <g>
   <path transform="matrix(16.974759,0,0,15.614997,-186.72234,-169.70378)" d="M 18.5,12 C 14.357261,12 11,15.822731 11,20.537109 11.000001,27.888889 22.555556,33.666666 24,38 25.444444,33.666666 36.999999,27.888889 37,20.537109 37,15.822731 33.640786,12 29.498047,12 27.325409,12 25.37027,13.320269 24,15 22.62973,13.320269 20.672638,12 18.5,12 Z"/>
  </g>
 </g>
 <g style="fill:#ef334c" transform="matrix(0.04078454,0,0,0.04433608,14.999999,15.216306)">
  <g style="fill:#ef334c">
   <path style="fill:#e43e54" transform="matrix(16.974759,0,0,15.614997,-186.72234,-169.70378)" d="M 18.5,12 C 14.357261,12 11,15.822731 11,20.537109 11.000001,27.888889 22.555556,33.666666 24,38 25.444444,33.666666 36.999999,27.888889 37,20.537109 37,15.822731 33.640786,12 29.498047,12 27.325409,12 25.37027,13.320269 24,15 22.62973,13.320269 20.672638,12 18.5,12 Z"/>
  </g>
 </g>
 <path style="opacity:0.2;fill:#8b9cbe" d="m 24.106698,4.002 a 4.5655239,4.5479 0 0 0 -2.38996,0.6054 L 8.2829619,12.334 A 4.5655239,4.5479 0 0 0 6,16.273 v 1 A 4.5655239,4.5479 0 0 1 8.2831619,13.334 L 21.716938,5.6074 a 4.5655239,4.5479 0 0 1 2.39056,-0.60547 4.5655239,4.5479 0 0 1 2.175764,0.60547 L 39.717038,13.334 A 4.5655239,4.5479 0 0 1 42,17.273 v -1 A 4.5655239,4.5479 0 0 0 39.717038,12.334 L 26.283262,4.6074 A 4.5655239,4.5479 0 0 0 24.107298,4.002 Z"/>
 <g style="opacity:0.2;fill:#8b9cbe" transform="matrix(0.04078454,0,0,0.04433608,14.999999,15.216306)">
  <g style="fill:#8b9cbe">
   <path style="fill:#8b9cbe" transform="matrix(24.519095,0,0,22.554994,-367.7864,-343.20368)" d="M 20.191406 16 C 17.323356 16 15 18.646356 15 21.910156 C 15 22.028286 15.024772 22.142809 15.033203 22.259766 C 15.318151 19.302503 17.516887 17 20.191406 17 C 21.69554 17 23.051351 17.913281 24 19.076172 C 24.948649 17.913281 26.302507 17 27.806641 17 C 30.48116 17 32.681691 19.302503 32.966797 22.259766 C 32.975228 22.142809 33 22.028286 33 21.910156 C 33 18.646356 30.674691 16 27.806641 16 C 26.302507 16 24.948649 16.913281 24 18.076172 C 23.051351 16.913281 21.69554 16 20.191406 16 z"/>
  </g>
 </g>
 <path style="opacity:0.2" d="m 24.011719,8 c -0.106908,-0.00258 -0.211935,0.02402 -0.302735,0.076172 L 10.277344,15.800781 C 10.09553,15.905331 9.9999875,16.076814 10,16.273438 v 1 c -1.25e-5,-0.196624 0.09553,-0.368107 0.277344,-0.472657 L 23.708984,9.0761719 C 23.799784,9.0240199 23.904811,8.99742 24.011719,9 h 0.0039 c 0.09749,0.00224 0.192591,0.028619 0.275391,0.076172 l 13.43164,7.7246091 c 0.181814,0.10455 0.277357,0.27408 0.277344,0.470703 v -0.998046 -0.002 c 1.3e-5,-0.196623 -0.09553,-0.366153 -0.277344,-0.470703 L 24.291016,8.0761719 C 24.208212,8.0286189 24.113115,8.00224 24.015625,8 Z"/>
 <path style="opacity:0.2;fill:#8b9cbe" d="m 10,31.726562 v 1 c -10e-8,0.196599 0.09556,0.366158 0.277344,0.470704 l 13.433594,7.726562 c 0.181784,0.104546 0.396339,0.104546 0.578124,0 L 37.722656,33.197266 C 37.90447,33.092716 38.000013,32.923186 38,32.726562 v -1 c 1.3e-5,0.196624 -0.09553,0.366154 -0.277344,0.470704 l -13.433594,7.726562 c -0.181785,0.104546 -0.39634,0.104546 -0.578124,0 L 10.277344,32.197266 C 10.09556,32.09272 9.9999999,31.923161 10,31.726562 Z"/>
</svg>
