<svg xmlns="http://www.w3.org/2000/svg" width="48" height="48" version="1.1">
 <path style="fill:#50bcff" d="m 23.994,2.00005 c -0.56998,0.00422 -1.1395,0.031591 -1.707,0.082031 -0.4114,0.03259 -0.81493,0.085152 -1.2188,0.14062 -0.21405,0.027311 -0.42762,0.057914 -0.64062,0.091797 -0.57543,0.096959 -1.1403,0.21947 -1.6973,0.36133 -0.03648,0.00902 -0.07294,0.018131 -0.10938,0.027344 -8.442,2.1985 -14.621,9.4219 -14.621,17.996 1.01e-4,0.06216 0.0051,0.12346 0.00586,0.18555 -0.0021,0.038 -0.0041,0.077 -0.0059,0.115 0.00988,5.887 3.089,11.41 8,15 l 0,6 5.3047,-3.1211 c 2.148,0.734 4.412,1.113 6.695,1.121 10.639,-0.012 19.406,-7.935 19.949,-18.029 0.01591,-0.22113 0.02754,-0.44286 0.03516,-0.66602 0.006,-0.102 0.012,-0.203 0.016,-0.305 -0.001,-0.041 -0.002,-0.082 -0.004,-0.123 0.001,-0.06 0.004,-0.118 0.004,-0.178 0,-9.684 -7.877,-17.666 -18.004,-18.603 -0.553,-0.0489 -1.108,-0.0757 -1.664,-0.0804 -0.112,-0.0017 -0.221,-0.0156 -0.334,-0.0156 z"/>
 <circle style="opacity:0.1" cx="34" cy="18" r="3"/>
 <circle style="fill:#17191e" cx="34" cy="17" r="3"/>
 <path style="opacity:0.2;fill:#8b9cbe" d="m 23.994,2.00005 a 20,19 0 0 0 -1.707,0.082 c -0.411,0.0326 -0.815,0.0852 -1.219,0.1407 a 20,19 0 0 0 -0.64,0.0918 c -0.576,0.0969 -1.141,0.2194 -1.698,0.3613 a 20,19 0 0 0 -0.109,0.0273 C 10.179,4.90165 4,12.12505 4,20.69915 c 10e-5,0.062 0.0051,0.124 0.0059,0.186 A 20,19 0 0 0 4,21.00015 a 20,19 0 0 0 0.0176,0.318 c 0.1811,-8.405 6.2874,-15.449 14.603,-17.615 a 20,19 0 0 1 0.109,-0.0272 c 0.557,-0.1419 1.122,-0.2644 1.698,-0.3613 a 20,19 0 0 1 0.64,-0.0918 c 0.404,-0.0555 0.808,-0.1081 1.219,-0.1407 a 20,19 0 0 1 1.707,-0.082 l 0.004,0 c 0.113,0 0.222,0.0139 0.334,0.0156 a 20,19 0 0 1 1.664,0.0801 c 10.003,0.9259 17.797,8.7283 17.986,18.252 10e-4,-0.015 0.002,-0.029 0.002,-0.043 a 20,19 0 0 0 0.016,-0.305 20,19 0 0 0 -0.004,-0.123 c 10e-4,-0.06 0.004,-0.118 0.004,-0.178 0,-9.684 -7.877,-17.666 -18.004,-18.603 a 20,19 0 0 0 -1.664,-0.0804 c -0.112,-0.0017 -0.221,-0.0156 -0.334,-0.0156 l -0.004,0 z"/>
 <path style="opacity:0.2" d="m 43.982,21.34805 c -0.0076,0.20859 -0.01832,0.41617 -0.0332,0.62305 -0.543,10.094 -9.31,18.017 -19.949,18.029 -2.2828,-0.008 -4.5472,-0.38714 -6.6953,-1.1211 l -5.305,3.121 0,1 5.3047,-3.1211 c 2.148,0.734 4.412,1.113 6.695,1.121 10.639,-0.012 19.406,-7.935 19.949,-18.029 0.01591,-0.22113 0.02754,-0.44286 0.03516,-0.66602 0.006,-0.102 0.012,-0.203 0.016,-0.305 -0.001,-0.041 -0.003,-0.082 -0.004,-0.123 0.001,-0.06 0.004,-0.118 0.004,-0.178 0,-0.11854 -0.01523,-0.23354 -0.01758,-0.35156 z m -39.968,0.052 c -0.0017,0.101 -0.0137,0.199 -0.0137,0.299 1.01e-4,0.06216 0.0051,0.12346 0.00586,0.18555 -0.0021,0.038 -0.0041,0.077 -0.0059,0.115 0.00988,5.887 3.089,11.41 8,15 l 0,-1 c -4.7993,-3.509 -7.8408,-8.864 -7.9863,-14.6 z"/>
 <circle style="opacity:0.1" cx="14" cy="18" r="3"/>
 <circle style="fill:#17191e" cx="14" cy="17" r="3"/>
 <path style="fill:#8b9cbe" d="m 33.0005,19 a 14,13 0 0 1 14,13 14,13 0 0 1 -5,9.957 l 0,5.043 -3.721,-2.967 a 14,13 0 0 1 -5.279,0.967 14,13 0 0 1 -14,-13 14,13 0 0 1 14,-13 z"/>
 <path style="opacity:0.2;fill:#8b9cbe" d="m 33.0005,19 a 14,13 0 0 1 14,13 A 14,13 0 0 1 46.979,32.414 14,13 0 0 0 33.001,20 14,13 0 0 0 19.022,32.586 14,13 0 0 1 19.001,32 a 14,13 0 0 1 14,-13 z"/>
 <path style="opacity:0.2" d="m 46.979,32.414 a 14,13 0 0 1 0.0215,0.586 14,13 0 0 1 -5,9.957 l 0,-1 A 14,13 0 0 0 46.979,32.414 Z M 19.021,32.586 A 14,13 0 0 0 33,45 14,13 0 0 0 38.279,44.033 L 42,47 42,48 38.279,45.033 A 14,13 0 0 1 33,46 14,13 0 0 1 19,33 14,13 0 0 1 19.021,32.586 Z"/>
 <circle style="opacity:0.1" cx="26" cy="32" r="3"/>
 <circle style="fill:#17191e" cx="26" cy="31" r="3"/>
 <circle style="opacity:0.1" cx="40" cy="32" r="3"/>
 <circle style="fill:#17191e" cx="40" cy="31" r="3"/>
</svg>
