<svg xmlns="http://www.w3.org/2000/svg" width="48" height="48" version="1">
 <rect style="opacity:0.2" width="40" height="40" x="4" y="5" rx="12" ry="12"/>
 <rect style="fill:#40e0ca" width="40" height="40" x="4" y="4" rx="12" ry="12"/>
 <path style="opacity:0.2;fill:#8b9cbe" d="M 16,4 C 9.352,4 4,9.352 4,16 v 1 C 4,10.352 9.352,5 16,5 h 16 c 6.648,0 12,5.352 12,12 V 16 C 44,9.352 38.648,4 32,4 Z"/>
 <path style="opacity:0.2" d="m 29.575736,36.525649 c -0.552125,-0.272383 -1.166117,-0.725711 -1.442067,-1.064716 -0.634561,-0.779564 -0.836998,-0.933612 -1.435183,-0.483171 -0.779814,0.587216 -1.846229,0.894841 -2.841432,0.98668 -1.336113,0.123298 -1.443119,-0.01061 -0.922966,-1.154884 0.886516,-1.950238 0.887199,-3.288725 0.0019,-5.23593 -0.604185,-1.329143 -0.925031,-1.535409 -2.378756,-1.529256 -0.727813,0.0031 -1.498469,0.112364 -2.001027,0.283762 -0.899067,0.30663 -2.317061,0.797044 -2.449796,1.138543 -0.04969,0.127835 0.133016,0.394102 0.44416,0.647305 0.966295,0.786352 1.303744,2.11852 0.823863,3.252407 -0.217866,0.514772 -0.649117,1.024826 -0.866498,1.024826 -0.06777,0 -0.24314,-0.310009 -0.389711,-0.688909 -0.146571,-0.378902 -0.445295,-1.227595 -0.663833,-1.397306 -1.209493,-0.939263 -3.694196,0.763775 -4.415003,2.715468 -0.186004,0.50375 -0.40973,0.892376 -0.49713,0.863615 -0.342777,-0.112807 -0.5964246,-1.262881 -0.532305,-2.413615 0.09886,-1.774183 1.03746,-3.255664 2.599756,-4.103429 l 0.541736,-0.293969 0.176411,-1.760114 c 0.204659,-2.041937 0.504506,-3.165218 1.244282,-4.661272 1.207916,-2.442792 3.458355,-4.476708 5.855971,-5.609686 0.726673,-0.343387 1.496097,-0.709929 1.709828,-0.814538 0.285392,-0.139687 0.375147,-0.289997 0.337956,-0.565977 -0.07568,-0.561592 -0.745572,-1.950634 -1.195096,-2.478058 -0.498326,-0.584679 -0.342679,-0.808148 0.7195,-1.033039 1.58284,-0.335134 3.200543,-0.102198 4.63341,0.61948 0.89622,0.451392 2.227006,1.733377 2.815551,2.712306 0.435493,0.724361 0.65218,0.902797 1.824413,1.502365 5.584675,2.856427 8.051859,9.029835 6.02292,15.070604 -0.314498,0.936356 -0.768899,1.875854 -1.238113,2.559863 C 34.878653,36.334933 33.651717,37 31.658558,37 c -0.94237,0 -1.274944,-0.07573 -2.082935,-0.474351 z"/>
 <path style="fill:#8b9cbe" d="m 29.575736,35.525649 c -0.552125,-0.272383 -1.166117,-0.725711 -1.442067,-1.064716 -0.634561,-0.779564 -0.836998,-0.933612 -1.435183,-0.483171 -0.779814,0.587216 -1.846229,0.894841 -2.841432,0.98668 -1.336113,0.123298 -1.443119,-0.01061 -0.922966,-1.154884 0.886516,-1.950238 0.887199,-3.288725 0.0019,-5.23593 -0.604185,-1.329143 -0.925031,-1.535409 -2.378756,-1.529256 -0.727813,0.0031 -1.498469,0.112364 -2.001027,0.283762 -0.899067,0.30663 -2.317061,0.797044 -2.449796,1.138543 -0.04969,0.127835 0.133016,0.394102 0.44416,0.647305 0.966295,0.786352 1.303744,2.11852 0.823863,3.252407 -0.217866,0.514772 -0.649117,1.024826 -0.866498,1.024826 -0.06777,0 -0.24314,-0.310009 -0.389711,-0.688909 -0.146571,-0.378902 -0.445295,-1.227595 -0.663833,-1.397306 -1.209493,-0.939263 -3.694196,0.763775 -4.415003,2.715468 -0.186004,0.50375 -0.40973,0.892376 -0.49713,0.863615 -0.342777,-0.112807 -0.5964246,-1.262881 -0.532305,-2.413615 0.09886,-1.774183 1.03746,-3.255664 2.599756,-4.103429 l 0.541736,-0.293969 0.176411,-1.760114 c 0.204659,-2.041937 0.504506,-3.165218 1.244282,-4.661272 1.207916,-2.442792 3.458355,-4.476708 5.855971,-5.609686 0.726673,-0.343387 1.496097,-0.709929 1.709828,-0.814538 0.285392,-0.139687 0.375147,-0.289997 0.337956,-0.565977 -0.07568,-0.561592 -0.745572,-1.950634 -1.195096,-2.478058 -0.498326,-0.584679 -0.342679,-0.808148 0.7195,-1.033039 1.58284,-0.335134 3.200543,-0.102198 4.63341,0.61948 0.89622,0.451392 2.227006,1.733377 2.815551,2.712306 0.435493,0.724361 0.65218,0.902797 1.824413,1.502365 5.584675,2.856427 8.051859,9.029835 6.02292,15.070604 -0.314498,0.936356 -0.768899,1.875854 -1.238113,2.559863 C 34.878653,35.334933 33.651717,36 31.658558,36 c -0.94237,0 -1.274944,-0.07573 -2.082935,-0.474351 z"/>
</svg>
