<svg xmlns="http://www.w3.org/2000/svg" width="48" height="48" version="1">
 <path style="opacity:0.2" d="M 24,5 A 20,20 0 0 0 4,25 20,20 0 0 0 6.3516,34.381 L 6.3242,34.357 C 7.3322,36.725 7.3012,37.452 7.1426,39.43 7.0321,40.808 6.6585,42.215 6.1914,43.008 5.768,43.726 5.4219,44.468 5.4219,44.656 5.4219,45.24 8.7995,45.036 11.783,44.271 15.279,43.376 15.585,43.378 18.451,44.277 L 18.312,44.164 A 20,20 0 0 0 24,45 20,20 0 0 0 44,25 20,20 0 0 0 24,5 Z"/>
 <path style="fill:#47ad5d" d="M 24 4 A 20 20 0 0 0 4 24 A 20 20 0 0 0 6.3516 33.381 L 6.3242 33.357 C 7.3322 35.725 7.3012 36.452 7.1426 38.43 C 7.0321 39.808 6.6585 41.215 6.1914 42.008 C 5.768 42.726 5.4219 43.468 5.4219 43.656 C 5.4219 44.24 8.7995 44.036 11.783 43.271 C 15.279 42.376 15.585 42.378 18.451 43.277 L 18.312 43.164 A 20 20 0 0 0 24 44 A 20 20 0 0 0 44 24 A 20 20 0 0 0 24 4 z"/>
 <path style="opacity:0.2" d="m 31.500912,33.537285 c 1.49931,-0.69398 2.19637,-1.564694 2.43673,-3.043759 0.18318,-1.127202 0.0987,-1.41558 -2.18208,-2.479896 -2.9,-1.353321 -2.72123,-1.35978 -3.97054,0.143574 -0.77751,0.935605 -1.11161,1.239163 -1.36393,1.239163 -2.955393,-0.774461 -5.962529,-3.011571 -6.918962,-5.949319 0,-0.125792 0.31456,-0.586027 0.69904,-1.022741 1.1305,-1.284073 1.13174,-1.31554 0.1447,-3.67245 -1.1363,-2.713364 -1.520658,-2.69494 -2.758558,-2.744569 -1.26682,-0.05078 -1.66715,0.144382 -2.46868,1.203483 -0.82927,1.095773 -1.12535,1.977275 -1.11852,3.330139 0.009,1.717081 0.58958,3.095771 2.27107,5.390056 2.8866,3.938558 5.70294,6.076244 9.76032,7.40835 2.48148,0.814725 4.01693,0.870296 5.46941,0.197969 z"/>
 <path style="fill:#8b9cbe" d="m 31.500912,32.537286 c 1.49931,-0.69398 2.19637,-1.564694 2.43673,-3.043759 0.18318,-1.127202 0.0987,-1.41558 -2.18208,-2.479896 -2.9,-1.353321 -2.72123,-1.35978 -3.97054,0.143574 -0.77751,0.935605 -1.11161,1.239163 -1.36393,1.239163 -2.955393,-0.774461 -5.962529,-3.011571 -6.918962,-5.949319 0,-0.125792 0.31456,-0.586027 0.69904,-1.022741 1.1305,-1.284073 1.13174,-1.31554 0.1447,-3.67245 -1.1363,-2.713364 -1.520658,-2.69494 -2.758558,-2.744569 -1.26682,-0.05078 -1.66715,0.144382 -2.46868,1.203483 -0.82927,1.095773 -1.12535,1.977275 -1.11852,3.330139 0.009,1.717081 0.58958,3.095771 2.27107,5.390056 2.8866,3.938558 5.70294,6.076244 9.76032,7.40835 2.48148,0.814725 4.01693,0.870296 5.46941,0.197969 z"/>
 <path style="fill:#8b9cbe;opacity:0.2" d="M 24 4 A 20 20 0 0 0 4 24 A 20 20 0 0 0 4.0215 24.408 A 20 20 0 0 1 24 5 A 20 20 0 0 1 43.979 24.582 A 20 20 0 0 0 44 24 A 20 20 0 0 0 24 4 z M 7.1953 37.574 C 7.1802 37.846 7.1688 38.103 7.1426 38.43 C 7.0321 39.808 6.6585 41.215 6.1914 42.008 C 5.768 42.726 5.4219 43.468 5.4219 43.656 C 5.4219 43.756 5.5497 43.824 5.7285 43.879 C 5.86 43.609 6.0112 43.313 6.1914 43.008 C 6.6585 42.215 7.0321 40.808 7.1426 39.43 C 7.2025 38.682 7.2211 38.121 7.1953 37.574 z"/>
</svg>
