<svg xmlns="http://www.w3.org/2000/svg" width="48" height="48" version="1">
 <path style="opacity:0.2" d="m 11.111328,5 c 0,0 -1.9583092,0.1360437 -2.9999999,1.1777344 L 5.3105469,8.9785156 C 3.9929582,9.9853813 4,12.000217 4,12.111328 V 25 37.888672 c 0,0.111111 -0.00704,2.125947 1.3105469,3.132812 l 2.8007812,2.800782 C 9.1530188,44.863956 11.111328,45 11.111328,45 H 24 36.888672 c 0,0 1.958309,-0.136044 3,-1.177734 l 2.800781,-2.800782 C 44.007,40.014619 44,37.999783 44,37.888672 V 25 12.111328 C 44,12.000217 44.007,9.9853813 42.689453,8.9785156 L 39.888672,6.1777344 C 38.846981,5.1360437 36.888672,5 36.888672,5 H 24 Z"/>
 <path style="fill:#17191e" d="m 11.111328,4 c 0,0 -1.9583092,0.1360437 -2.9999999,1.1777344 L 5.3105469,7.9785156 C 3.9929582,8.9853813 4,11.000217 4,11.111328 V 24 36.888672 c 0,0.111111 -0.00704,2.125947 1.3105469,3.132812 l 2.8007812,2.800782 C 9.1530188,43.863956 11.111328,44 11.111328,44 H 24 36.888672 c 0,0 1.958309,-0.136044 3,-1.177734 l 2.800781,-2.800782 C 44.007,39.014619 44,36.999783 44,36.888672 V 24 11.111328 C 44,11.000217 44.007,8.9853813 42.689453,7.9785156 L 39.888672,5.1777344 C 38.846981,4.1360437 36.888672,4 36.888672,4 H 24 Z"/>
 <path style="fill:#e53935" d="M 4 12 L 4 24 L 4 25 L 4 31 L 4 32 L 18 32 L 18 44 L 24 44 L 25 44 L 36.888672 44 C 36.888672 44 38.846981 43.863956 39.888672 42.822266 L 40 42.710938 L 40 37 L 25 37 L 25 32 L 26 32 L 26 25 L 11 25 L 11 12 L 4 12 z"/>
 <path style="fill:#8b9cbe" d="M 8.7226562 4.7226562 C 8.5026406 4.8525825 8.2914097 4.9976528 8.1113281 5.1777344 L 5.3105469 7.9785156 C 3.9929582 8.9853813 4 11.000217 4 11.111328 L 4 12 L 11 19 L 11 25 L 19 25 L 25 31 L 25 37 L 33 37 L 39.277344 43.277344 C 39.497359 43.147418 39.70859 43.002347 39.888672 42.822266 L 42.689453 40.021484 C 44.007 39.014619 44 36.999783 44 36.888672 L 44 36 L 39 31 L 31 31 L 31 25 L 25 19 L 17 19 L 17 13 L 8.7226562 4.7226562 z"/>
 <path style="fill:#c6c8cb" d="m 31.000422,25 -6,6 v 6 l 6,-6 z"/>
 <path style="fill:#b3b6bb" d="m 33.000422,37 6,-6 h -8 l -6,6 z"/>
 <path style="fill:#dadbdd" d="M 39 31 L 38.142578 31.857422 L 33.857422 36.142578 L 33 37 L 39.277344 43.277344 C 39.497359 43.147418 39.70859 43.002347 39.888672 42.822266 L 42.689453 40.021484 C 44.007 39.014619 44 36.999783 44 36.888672 L 44 36 L 39 31 z"/>
 <path style="fill:#dadbdd" d="m 25.000422,19 z m 0,0 -6,6 6,6 0.857422,-0.857422 L 30.143,25.857422 31.000422,25 Z"/>
 <path style="fill:#c6c8cb" d="m 17.000422,13 -6,6 v 6 l 6,-6 z"/>
 <path style="fill:#b3b6bb" d="m 19.000422,25 6,-6 h -8 l -6,6 z"/>
 <path style="fill:#dadbdd" d="M 8.7226562 4.7226562 C 8.5026405 4.8525825 8.2914097 4.9976528 8.1113281 5.1777344 L 5.3105469 7.9785156 C 3.9929582 8.9853813 4 11.000217 4 11.111328 L 4 12 L 11 19 L 11.857422 18.142578 L 16.142578 13.857422 L 17 13 L 8.7226562 4.7226562 z"/>
 <rect style="opacity:0.2" width="14" height="1" x="4" y="32"/>
 <path style="opacity:0.2" d="M 4.0058594 12.005859 C 4.0055245 12.029433 4 12.1039 4 12.111328 L 4 13 L 11 20 L 11 19 L 4.0058594 12.005859 z M 11 25 L 11 26 L 19 26 L 25 32 L 25 31 L 19 25 L 11 25 z M 43.994141 36.994141 C 43.989461 37.323199 43.91892 39.08193 42.689453 40.021484 L 39.888672 42.822266 C 39.70859 43.002347 39.497359 43.147418 39.277344 43.277344 L 33 37 L 25 37 L 25 38 L 33 38 L 39.277344 44.277344 C 39.497359 44.147418 39.70859 44.002347 39.888672 43.822266 L 42.689453 41.021484 C 44.007 40.014619 44 37.999783 44 37.888672 L 44 37 L 43.994141 36.994141 z"/>
 <path style="opacity:0.2;fill:#8b9cbe" d="M 8.7226562 4.7226562 C 8.5026407 4.8525825 8.2914097 4.9976528 8.1113281 5.1777344 L 5.3105469 7.9785156 C 3.9929582 8.9853813 4 11.000217 4 11.111328 L 4 12 L 4.0058594 12.005859 C 4.0105344 11.676801 4.0810412 9.9180707 5.3105469 8.9785156 L 8.1113281 6.1777344 C 8.2914097 5.9976528 8.5026407 5.8525826 8.7226562 5.7226562 L 17 14 L 17 13 L 8.7226562 4.7226562 z M 17 19 L 17 20 L 25 20 L 31 26 L 31 25 L 25 19 L 17 19 z M 31 31 L 31 32 L 39 32 L 43.994141 36.994141 C 43.994476 36.970567 44 36.8961 44 36.888672 L 44 36 L 39 31 L 31 31 z"/>
 <path style="fill:#8b9cbe;opacity:0.1" d="M 11.111328 4 C 11.111328 4 9.1530188 4.1360437 8.1113281 5.1777344 L 5.3105469 7.9785156 C 3.9929582 8.9853813 4 11.000217 4 11.111328 L 4 12.111328 C 4 12.000217 3.9929582 9.9853813 5.3105469 8.9785156 L 8.1113281 6.1777344 C 9.1530188 5.1360437 11.111328 5 11.111328 5 L 24 5 L 36.888672 5 C 36.888672 5 38.846981 5.1360437 39.888672 6.1777344 L 42.689453 8.9785156 C 44.007 9.9853813 44 12.000217 44 12.111328 L 44 11.111328 C 44 11.000217 44.007 8.9853813 42.689453 7.9785156 L 39.888672 5.1777344 C 38.846981 4.1360437 36.888672 4 36.888672 4 L 24 4 L 11.111328 4 z"/>
</svg>
