<svg xmlns="http://www.w3.org/2000/svg" width="48" height="48" version="1.1">
 <rect style="fill:#555e70" width="40" height="40" x="4" y="4" rx="3" ry="3"/>
 <path style="opacity:0.2" d="m 4,41 v 1 c 0,1.662 1.338,3 3,3 h 34 c 1.662,0 3,-1.338 3,-3 v -1 c 0,1.662 -1.338,3 -3,3 H 7 C 5.338,44 4,42.662 4,41 Z"/>
 <path style="opacity:0.1;fill:#8b9cbe" d="M 7,4 C 5.338,4 4,5.338 4,7 V 8 C 4,6.338 5.338,5 7,5 h 34 c 1.662,0 3,1.338 3,3 V 7 C 44,5.338 42.662,4 41,4 Z"/>
 <path style="opacity:0.6;fill:#8b9cbe;fill-rule:evenodd" d="M 38.298599,14 17.992875,29.771861 17.990221,33 l 1.249112,-2.824823 -1.282764,2.80791 z"/>
 <path style="fill:#8b9cbe;fill-rule:evenodd" d="M 10.300001,26.946901 38.299999,14.002651 17.992066,29.782856 c -2.434755,-1.583942 -4.587601,-3.024755 -7.692065,-2.835955 z"/>
 <path style="fill:#8b9cbe;fill-rule:evenodd" d="M 19.280259,30.187478 38.299999,14.005207 27.733542,32.941694 c -2.752727,-1.399525 -5.255595,-2.814158 -8.453283,-2.754216 z"/>
 <path style="opacity:0.2;fill-rule:evenodd" d="m 38.3,15.001953 -0.0078,0.0039 -0.0039,0.002 -0.7383,0.341756 -9.816406,17.591797 c -2.286915,-1.162699 -4.406932,-2.322979 -6.890625,-2.652344 l -2.0625,1.925782 -0.753907,1.703125 2.816407,-2.628907 c 2.483693,0.329365 4.60371,1.489645 6.890625,2.652344 L 38.3,15.005859 l -0.07617,0.06445 0.05273,-0.04883 z m -20.273438,18.916016 -0.03711,0.0332 V 34 Z m -0.03711,0.0332 v -0.04102 l -0.0332,0.07227 z m 0,-0.04102 0.763672,-1.669922 -0.726563,0.677735 -0.03516,0.08008 z m 0.03711,-0.992187 1.212891,-2.742188 -1.248047,2.732422 v 0.04102 z M 12.227734,27.056641 10.3,27.947266 c 3.104464,-0.1888 5.256651,1.251995 7.691406,2.835937 l 0.002,-1.001953 -0.002,0.002 c -1.896314,-1.233656 -3.62676,-2.368862 -5.763672,-2.726562 z"/>
</svg>
