<svg xmlns="http://www.w3.org/2000/svg" width="48" height="48" version="1">
 <path style="opacity:0.2" d="M 6,9 C 6,9 4,9 4,11 v 28 c 0,1.108 0.892,2 2,2 h 36 c 1.108,0 2,-0.892 2,-2 V 11 C 44,9.892 43.108,9 42,9 Z"/>
 <path style="fill:#0245c5" d="m6 8s-2 0-2 2v28c0 1.108 0.892 2 2 2h36c1.108 0 2-0.892 2-2v-28c0-1.108-0.892-2-2-2h-36z"/>
 <path style="fill:#8b9cbe;opacity:0.2" d="m 24,40 h 18 c 1.108,0 2,-0.892 2,-2 V 10 C 44,8.892 43.108,8 42,8 H 24 Z"/>
 <path style="opacity:0.1;fill:#8b9cbe" d="M 6,8 C 6,8 4,8 4,10 V 24 H 44 V 10 C 44,8.892 43.108,8 42,8 Z"/>
 <path fill="#fff" opacity=".1" d="m6 8c-1.108 0-2 0.892-2 2v1c0-1.108 0.892-2 2-2h36c1.108 0 2 0.892 2 2v-1c0-1.108-0.892-2-2-2h-36z"/>
 <rect style="opacity:0.2" width="22" height="18" x="24" y="7" rx="1" ry="1"/>
 <rect style="fill:#ebebeb" width="22" height="18" x="24" y="6" rx="1" ry="1"/>
</svg>
