<svg xmlns="http://www.w3.org/2000/svg" width="48" height="48" version="1">
 <rect style="opacity:0.2" width="40" height="40" x="4" y="5" rx="2" ry="2"/>
 <rect style="fill:#dc4c3a" width="40" height="40" x="4" y="4" rx="2" ry="2"/>
 <path fill="#fff" opacity=".2" d="m4 7v-1c0-1.108 0.892-2 2-2h36c1.108 0 2 0.892 2 2v1c0-1.108-0.892-2-2-2h-36c-1.108 0-2 0.892-2 2z"/>
 <path style="opacity:0.2" d="m 22,11.986318 a 2.0002,2.0002 0 0 0 -2,2 v 7.013672 a 2.0002,2.0002 0 1 0 4,0 v -5.013672 h 3.996094 c 0,0 1.038362,0.02645 2.048828,0.576172 C 31.055388,17.112208 32,17.865375 32,20.49999 32,23.134605 31.055888,23.883129 30.046875,24.429678 29.037862,24.976226 28,24.99999 28,24.99999 H 17.5 a 2.0002,2.0002 0 0 0 -0.287109,0.02148 c 0,0 -1.340107,0.187167 -2.621094,1.105469 C 13.31081,27.045246 12.011521,28.91214 12,31.490224 c -0.01155,2.584789 1.293936,4.468015 2.582031,5.386719 1.288095,0.918704 2.632813,1.103516 2.632813,1.103516 A 2.0002,2.0002 0 0 0 17.5,37.99999 H 22 a 2.0002,2.0002 0 0 0 2,-2 v -3 a 2.0002,2.0002 0 1 0 -4,0 v 1 H 17.742188 C 17.704638,33.99319 17.347915,33.93553 16.904297,33.619131 16.437929,33.286505 15.9937,32.919649 16,31.509756 c 0.0063,-1.416616 0.457325,-1.79979 0.921875,-2.132813 0.439403,-0.314995 0.778259,-0.369717 0.818359,-0.376953 H 28 c 0,0 1.962138,0.02376 3.953125,-1.054688 C 33.944112,26.866851 36,24.365375 36,20.49999 c 0,-3.865385 -2.055388,-6.368818 -4.044922,-7.451172 -1.989534,-1.082353 -3.951172,-1.0625 -3.951172,-1.0625 a 2.0002,2.0002 0 0 0 -0.0039,0 z"/>
 <path style="fill:none;stroke:#8b9cbe;stroke-width:4;stroke-linecap:round;stroke-linejoin:round" d="m 22,20 v -7.014142 h 6 C 28,12.985858 34,13 34,19.5 34,26 28,26 28,26 H 17.5 c 0,0 -3.482149,0.5053 -3.5,4.5 -0.01785,3.994682 3.5,4.5 3.5,4.5 H 22 v -3"/>
</svg>
