<svg width="48" height="48" version="1.1" xmlns="http://www.w3.org/2000/svg">
 <path d="m11 10h11l4 6.25 5-6.25h13l-13 15 8 15h-12l-4-6-5 6h-14l14-16z" style="opacity:.2"/>
 <path d="m11 9h11l4 6.25 5-6.25h13l-13 15 8 15h-12l-4-6-5 6h-14l14-16z" style="fill:#a64599"/>
 <path d="m11 9 0.5 1h10.5l4 6.25 5-6.25h12.132812l0.867188-1h-13l-5 6.25-4-6.25h-11zm6.681641 14.363281-13.681641 15.636719h0.875l13.125-15-0.318359-0.636719zm13.648437 1.25586-0.330078 0.380859 7.466797 14h0.533203l-7.669922-14.380859z" style="fill:#8b9cbe;opacity:.1"/>
 <circle cx="36" cy="36" r="11" style="opacity:.2"/>
 <circle cx="36" cy="35" r="11" style="fill:#465096"/>
 <path d="m36 30.000001s-0.70875-0.014-1.44727 0.3555c-0.73851 0.3692-1.55273 1.3112-1.55273 2.6445h2c0-1 1-1 1-1s1 0 1 1c0 0.5278-0.1396 0.8229-0.40625 1.1562-0.26665 0.3334-0.69336 0.668-1.19336 1.043s-1.07329 0.7904-1.55664 1.3946c-0.48335 0.6041-0.84375 1.434-0.84375 2.4062v0.999999h6v-1.999999h-3.64844c0.0313-0.044 0.0187-0.1112 0.0547-0.1562 0.26665-0.3334 0.69336-0.668 1.19336-1.043s1.07329-0.7904 1.55664-1.3946c0.48335-0.6041 0.84375-1.434 0.84375-2.4062 0-1.3333-0.81422-2.2753-1.55273-2.6445-0.73853-0.3693-1.44728-0.3555-1.44728-0.3555z" style="fill-rule:evenodd;fill:#8b9cbe"/>
</svg>
