<svg xmlns="http://www.w3.org/2000/svg" width="48" height="48" version="1.1">
 <path style="opacity:0.2" d="M 14.001,4.9992 C 13.14,4.9988 12.375,5.5496 12.102,6.3664 L 6.1027,24.366 C 5.8765,25.046 6.0299,25.792 6.5051,26.328 L 22.504,44.328 C 23.3,45.224 24.7,45.224 25.496,44.328 L 41.495,26.328 C 41.971,25.792 42.123,25.046 41.897,24.366 L 35.898,6.3664 C 35.626,5.5496 34.862,4.9988 34,4.9992 Z"/>
 <path style="fill:#3134a1" d="M 14.001,4 C 13.14,3.9995 12.375,4.5504 12.102,5.3672 L 6.1027,23.368 C 5.8765,24.046 6.0299,24.794 6.5051,25.328 L 22.504,43.328 C 23.3,44.224 24.7,44.224 25.496,43.328 L 41.495,25.328 C 41.971,24.794 42.123,24.046 41.897,23.368 L 35.898,5.3672 C 35.626,4.5504 34.862,3.9995 34,4 Z"/>
 <path style="fill:#386ab5" d="M 24,20 A 21.999,13 0 0 0 6.4229,25.208 C 6.4527,25.246 6.4721,25.292 6.5051,25.328 L 22.504,43.328 C 23.3,44.224 24.7,44.224 25.496,43.328 L 41.495,25.328 C 41.529,25.29 41.547,25.242 41.577,25.204 A 21.999,13 0 0 0 24,20 Z"/>
 <path style="opacity:0.1;fill:#8b9cbe" d="M 14.001,4 C 13.14,3.9995 12.375,4.5504 12.102,5.3672 L 6.1027,23.368 C 5.9775,23.742 5.9775,24.138 6.0753,24.508 6.0873,24.46 6.0873,24.414 6.1027,24.368 L 12.102,6.3672 C 12.375,5.5504 13.14,4.9996 14.001,5 H 34 C 34.862,4.9996 35.626,5.5504 35.898,6.3672 L 41.897,24.368 C 41.913,24.414 41.913,24.46 41.925,24.508 42.023,24.138 42.023,23.742 41.897,23.368 L 35.898,5.3672 C 35.626,4.5504 34.862,3.9995 34,4 Z"/>
 <path style="opacity:0.2" d="M 14.001,5.0006 C 13.14,5.0002 12.375,5.5508 12.102,6.3678 L 10.442,11.348 20,25 13.536,34.238 18.008,39.274 24,30.716 29.992,39.274 34.464,34.238 28,25 37.558,11.348 35.898,6.3678 C 35.626,5.5508 34.862,5.0002 34,5.0006 L 24,19.286 Z"/>
 <path style="fill:#469fe3" d="M 14.001,4 C 13.14,3.9995 12.375,4.5504 12.102,5.3672 L 10.442,10.348 20,24 13.536,33.238 18.008,38.274 24,29.714 29.992,38.274 34.464,33.238 28,24 37.558,10.348 35.898,5.3672 C 35.626,4.5504 34.862,3.9995 34,4 L 24,18.285 Z"/>
 <path style="opacity:0.2;fill:#8b9cbe" d="M 14.001,4 C 13.14,3.9995 12.375,4.5504 12.102,5.3672 L 10.442,10.348 10.669,10.672 12.102,6.3672 C 12.375,5.5504 13.14,4.9996 14.001,5 L 24,19.285 34,5 C 34.862,4.9996 35.626,5.5504 35.898,6.3672 L 37.332,10.672 37.558,10.348 35.898,5.3672 C 35.626,4.5504 34.862,3.9995 34,4 L 24,18.285 Z M 19.649,24.5 13.536,33.238 13.927,33.68 20,25 Z M 28.352,24.5 28,25 34.074,33.68 34.464,33.238 Z"/>
</svg>
