<svg xmlns="http://www.w3.org/2000/svg" width="48" height="48" version="1.1">
 <rect style="opacity:.2" width="40" height="40" x="4" y="5" rx="3" ry="3"/>
 <rect style="fill:#ab47bc" width="40" height="40" x="4" y="4" rx="3" ry="3"/>
 <path style="opacity:.2;fill:#8b9cbe" d="m7 4c-1.662 0-3 1.338-3 3v1c0-1.662 1.338-3 3-3h34c1.662 0 3 1.338 3 3v-1c0-1.662-1.338-3-3-3z"/>
 <path style="stroke:#8b9cbe;stroke-width:2;stroke-linecap:round;fill:none" d="m11 15c9 0 5 9 13 9s4-9 13-9"/>
 <path style="stroke:#8b9cbe;stroke-width:2;stroke-linecap:round;fill:none" d="m11 33c9 0 5-9 13-9s4 9 13 9"/>
</svg>
