<svg xmlns="http://www.w3.org/2000/svg" width="48" height="48" version="1">
 <rect style="opacity:0.2" width="40" height="32" x="-45" y="-40" rx="2" ry="2" transform="matrix(0,-1,-1,0,0,0)"/>
 <rect style="fill:#4f4f4f" width="40" height="32" x="-44" y="-40" rx="2" ry="2" transform="matrix(0,-1,-1,0,0,0)"/>
 <rect style="fill:#b2bfd9" width="30" height="22" x="-39" y="-35" rx="0" ry="0" transform="matrix(0,-1,-1,0,0,0)"/>
 <path style="opacity:0.1;fill:#8b9cbe" d="M 10,4 C 8.892,4 8,4.892 8,6 L 8,7 C 8,5.892 8.892,5 10,5 l 28,0 c 1.108,0 2,0.892 2,2 L 40,6 C 40,4.892 39.108,4 38,4 L 10,4 Z"/>
 <rect style="opacity:0.2" width="40" height="4" x="4" y="17" rx="1" ry="1"/>
 <rect style="fill:#f34235" width="40" height="4" x="4" y="16" rx="1" ry="1"/>
 <rect style="opacity:0.2" width="1" height="22" x="-40" y="-35" rx="0" ry="0" transform="matrix(0,-1,-1,0,0,0)"/>
 <rect style="opacity:0.2;fill:#8b9cbe" width="1" height="22" x="-10" y="-35" rx="0" ry="0" transform="matrix(0,-1,-1,0,0,0)"/>
</svg>
