<svg xmlns="http://www.w3.org/2000/svg" width="48" height="48" version="1">
 <path opacity=".2" d="m4.0117 24.5c-0.0041 0.167-0.0117 0.332-0.0117 0.5 0 11.08 8.92 20 20 20s20-8.92 20-20c0-0.16787-0.0076-0.33314-0.01172-0.5-0.264 10.846-9.076 19.5-19.988 19.5s-19.724-8.654-19.988-19.5z"/>
 <rect fill="#b2bfd9" width="40" height="40" x="4" y="4" rx="20" ry="20"/>
 <path fill="#fff" opacity=".2" d="m24 4c-11.08 0-20 8.92-20 20 0 0.168 0.008 0.333 0.0117 0.5 0.2647-10.846 9.0763-19.5 19.988-19.5s19.724 8.6539 19.988 19.5c0.004-0.16686 0.0117-0.33213 0.0117-0.5 0-11.08-8.92-20-20-20z"/>
 <path style="opacity:0.2;fill:none;stroke:#000000;stroke-width:8;stroke-linecap:round;stroke-linejoin:round" d="m 24,43.00003 0,-17 m -15,-13 15,13 15,-13"/>
 <path style="fill:none;stroke:#e34241;stroke-width:8;stroke-linecap:round;stroke-linejoin:round" d="M 24,42 24,25 M 9,12 24,25 39,12"/>
</svg>
