<svg xmlns="http://www.w3.org/2000/svg" width="48" height="48" version="1">
 <rect fill="#1da6e8" width="40" height="40" x="4" y="4" rx="20" ry="20"/>
 <path style="fill:none;stroke:#000000;stroke-width:3;opacity:0.4" d="M 29,31 17,24 29,17"/>
 <path fill="#fff" opacity=".2" d="m24 4c-11.08 0-20 8.92-20 20 0 0.168 0.008 0.333 0.0117 0.5 0.2647-10.846 9.0763-19.5 19.988-19.5s19.724 8.6539 19.988 19.5c0.004-0.16686 0.0117-0.33213 0.0117-0.5 0-11.08-8.92-20-20-20z"/>
 <path opacity=".2" d="m4.0117 24.5c-0.0041 0.167-0.0117 0.332-0.0117 0.5 0 11.08 8.92 20 20 20s20-8.92 20-20c0-0.16787-0.0076-0.33314-0.01172-0.5-0.264 10.846-9.076 19.5-19.988 19.5s-19.724-8.654-19.988-19.5z"/>
 <path style="opacity:0.2;fill-rule:evenodd" d="m 29,14 a 4,4 0 0 0 -4,4 4,4 0 0 0 4,4 4,4 0 0 0 4,-4 4,4 0 0 0 -4,-4 z m -12,7 a 4,4 0 0 0 -4,4 4,4 0 0 0 4,4 4,4 0 0 0 4,-4 4,4 0 0 0 -4,-4 z m 12,7 a 4,4 0 0 0 -4,4 4,4 0 0 0 4,4 4,4 0 0 0 4,-4 4,4 0 0 0 -4,-4 z"/>
 <path style="fill:#8b9cbe;fill-rule:evenodd" d="M 29 13 A 4 4 0 0 0 25 17 A 4 4 0 0 0 29 21 A 4 4 0 0 0 33 17 A 4 4 0 0 0 29 13 z M 17 20 A 4 4 0 0 0 13 24 A 4 4 0 0 0 17 28 A 4 4 0 0 0 21 24 A 4 4 0 0 0 17 20 z M 29 27 A 4 4 0 0 0 25 31 A 4 4 0 0 0 29 35 A 4 4 0 0 0 33 31 A 4 4 0 0 0 29 27 z"/>
</svg>
