<svg xmlns="http://www.w3.org/2000/svg" width="48" height="48" version="1.1">
 <path style="fill:#9aca3c" d="m24 4a20 20 0 0 0 -20 20 20 20 0 0 0 20 20 20 20 0 0 0 20 -20 20 20 0 0 0 -20 -20z"/>
 <path opacity=".2" d="m4.0215 24.418a20 20 0 0 0 -0.0215 0.582 20 20 0 0 0 20 20 20 20 0 0 0 20 -20 20 20 0 0 0 -0.021 -0.418 20 20 0 0 1 -19.979 19.418 20 20 0 0 1 -19.978 -19.582z"/>
 <path fill="#8b9cbe" opacity=".2" d="m24 4a20 20 0 0 0 -20 20 20 20 0 0 0 0.0215 0.418 20 20 0 0 1 19.978 -19.418 20 20 0 0 1 19.979 19.582 20 20 0 0 0 0.021 -0.582 20 20 0 0 0 -20 -20z"/>
 <path style="opacity:.2;stroke-linejoin:round;stroke:#000000;stroke-linecap:round;stroke-width:4;fill:none" d="m17 16.000029 8 9"/>
 <path style="opacity:.2;stroke-linejoin:round;stroke:#000000;stroke-linecap:round;stroke-width:4;fill:none" d="m19 35.000029 14-19"/>
 <g transform="translate(0,1.000029)">
  <path style="stroke-linejoin:round;stroke:#8b9cbe;stroke-linecap:round;fill:none;stroke-width:4" d="m19 33 14-19"/>
  <path style="stroke-linejoin:round;stroke:#8b9cbe;stroke-linecap:round;fill:none;stroke-width:4" d="m17 14 8 9"/>
 </g>
 <circle style="opacity:.2" cx="36" cy="36" r="11"/>
 <circle style="fill:#9739d9" cx="36" cy="35" r="11"/>
 <path style="stroke-linejoin:round;stroke:#8b9cbe;stroke-linecap:round;stroke-width:3;fill:none" d="m32.5 39.5v-9l7 9v-9"/>
</svg>
