<svg width="48" height="48" version="1.1" xmlns="http://www.w3.org/2000/svg">
 <ellipse cx="8.0001469" cy="31" rx="3.9999757" ry="4" style="opacity:.2"/>
 <path d="m6.0001163 30v-15" style="fill:none;stroke-linecap:round;stroke-linejoin:round;stroke-width:1.9999939px;stroke:#515153"/>
 <ellipse cx="8.0001469" cy="30" rx="3.9999757" ry="4" style="fill:#6b6c6e"/>
 <ellipse cx="39.99995" cy="31" rx="3.9999757" ry="4" style="opacity:.2"/>
 <path d="m42.000116 30v-15" style="fill:none;stroke-linecap:round;stroke-linejoin:round;stroke-width:1.9999939px;stroke:#515153"/>
 <ellipse cx="39.99995" cy="30" rx="3.9999757" ry="4" style="fill:#6b6c6e"/>
 <path d="m39.999951 27c0-2-1.999988-4-3.999975-4h-23.999854c-1.999988 0-3.9999756 2-3.9999756 4v12s3.9999756 2 15.999903 2 15.999902-2 15.999902-2v-12z" style="opacity:.2"/>
 <path d="M 8.0001464,26 A 3.9999756,4 0 0 0 4.0001708,30 3.9999756,4 0 0 0 4.0353268,30.488282 3.9999756,4 0 0 1 8.0001464,27 3.9999756,4 0 0 1 11.964966,30.511718 3.9999756,4 0 0 0 12.000122,30 3.9999756,4 0 0 0 8.0001464,26 Z" style="fill:#8b9cbe;opacity:.1"/>
 <rect x="16.000097" y="8" width="15.999903" height="20" ry="2" style="fill:#6b6c6e"/>
 <rect x="18.000086" y="14" width="11.999927" height="10" style="fill:#17191e"/>
 <ellipse cx="24.00005" cy="20" rx="3.9999757" ry="4" style="fill:#d56d36"/>
 <path d="m39.999951 26a3.9999756 4 0 0 0-3.999975 4 3.9999756 4 0 0 0 0.03516 0.488282 3.9999756 4 0 0 1 3.964815-3.488282 3.9999756 4 0 0 1 3.96482 3.511718 3.9999756 4 0 0 0 0.035156-0.511718 3.9999756 4 0 0 0-3.999976-4z" style="fill:#8b9cbe;opacity:.1"/>
 <path d="m39.999951 26c0-2-1.999988-4-3.999975-4h-23.999854c-1.999988 0-3.9999756 2-3.9999756 4v12s3.9999756 2 15.999903 2 15.999902-2 15.999902-2v-12z" style="fill:#8a8a8c"/>
 <ellipse cx="24.00005" cy="11" rx=".99999392" ry="1" style="fill:#8b9cbe"/>
 <ellipse cx="18.000086" cy="33" rx="3.9999757" ry="4" style="opacity:.2"/>
 <ellipse cx="18.000086" cy="32" rx="3.9999757" ry="4" style="fill:#8b9cbe"/>
 <ellipse cx="30.000011" cy="33" rx="3.9999757" ry="4" style="opacity:.2"/>
 <ellipse cx="30.000011" cy="32" rx="3.9999757" ry="4" style="fill:#8b9cbe"/>
 <ellipse cx="24.00005" cy="20" rx="1.9999878" ry="2" style="fill:#8b9cbe"/>
 <path d="m18.000085 8c-1.107993 0-1.999987 0.892-1.999987 2v1c0-1.108 0.891994-2 1.999987-2h11.999927c1.107993 0 1.999988 0.892 1.999988 2v-1c0-1.108-0.891995-2-1.999988-2z" style="fill:#8b9cbe;opacity:.1"/>
 <path d="m5.9844914 13.984375a1.0000939 1.0001 0 0 0-0.984369 1.015625v0.929688a1.0000939 1.0001 0 0 1 0.984369-0.945313 1.0000939 1.0001 0 0 1 1.0156188 1.015625v-1a1.0000939 1.0001 0 0 0-1.0156188-1.015625z" style="fill:#8b9cbe;opacity:.1"/>
 <path d="m41.984492 13.984375a1.0000939 1.0001 0 0 0-0.98437 1.015625v0.929688a1.0000939 1.0001 0 0 1 0.98437-0.945313 1.0000939 1.0001 0 0 1 1.015618 1.015625v-1a1.0000939 1.0001 0 0 0-1.015618-1.015625z" style="fill:#8b9cbe;opacity:.1"/>
 <path d="m12.000122 22c-1.999988 0-3.9999756 2-3.9999756 4v1c0-2 1.9999876-4 3.9999756-4h23.999854c1.999987 0 3.999975 2 3.999975 4v-1c0-2-1.999988-4-3.999975-4z" style="fill:#8b9cbe;opacity:.2"/>
</svg>
