<svg xmlns="http://www.w3.org/2000/svg" width="48" height="48" version="1.1">
 <g transform="translate(0,-1004.3622)">
  <rect style="opacity:0.2" width="40" height="40" x="-1049.36" y="-44" rx="20" ry="20" transform="matrix(0,-1,-1,0,0,0)"/>
  <rect style="fill:#484bb6" width="40" height="40" x="-1048.36" y="-44" rx="20" ry="20" transform="matrix(0,-1,-1,0,0,0)"/>
  <path style="opacity:0.3" d="m 24.103516,1009.3622 -2.316407,0.2637 -2.859375,0.7851 -0.541015,0.5254 1.77539,1.2246 0,0.6992 -1.16211,0.6993 1.396485,1.8379 0.617188,-0.3497 0.773437,-1.2246 c 1.19387,-0.369 2.263684,-0.7878 3.398438,-1.3125 l 0.814452,-2.3613 z m -5.484375,0.1758 -0.998047,0.1426 -0.472656,0.4687 -0.775391,0.1133 -0.691406,0.3242 -0.335938,0.1621 -0.205078,0.2754 1.003906,0.1738 0.386719,-0.3496 0.773438,-0.1738 c 0.529421,-0.2574 1.061298,-0.4317 1.623046,-0.6133 z m -4.560547,2.0976 -0.154297,0.3496 0.07617,0.875 -0.617188,0.5254 -0.386719,0.961 0.773438,0 0.386719,-0.8731 c 0.333277,-0.2356 0.664462,-0.4743 1.003906,-0.7011 l 0.773437,0.2636 c 0.51497,0.3498 1.029526,0.6996 1.544922,1.0489 l 0.773438,-0.6993 -0.851563,-0.3496 -0.386718,-0.7871 -1.46875,-0.1758 -0.07617,-0.4375 -0.695313,0.1758 -0.308594,0.6113 z m 19.792968,0.6993 -1.464843,0.3515 -0.931641,0.6113 0,0.5254 -1.464844,0.961 0.306641,1.4004 0.853516,-0.6133 0.539062,0.6133 0.617188,0.3496 0.386718,-1.0489 -0.230468,-0.6132 0.230468,-0.4375 0.84961,-1.0723 0.386719,0 -0.386719,1.1602 0,0.7871 c 0.355079,-0.097 0.720609,-0.1287 1.083984,-0.1739 l -1.005859,0.6993 -0.07617,0.4375 -1.158203,0.9609 -1.16211,-0.2617 0,-0.6992 -0.541015,0.3496 0.234375,0.8112 -0.851563,0 -0.46289,0.5872 -0.582032,0.6543 -1.041015,0.2207 0.617187,0.6094 0.15625,0.6113 -0.773437,0 -0.980472,0.5254 0,1.5762 0.439456,0 0.423828,0.4804 0.966797,-0.4804 0.384766,-0.9629 0.697265,-0.4375 0.154297,-0.3496 1.158203,-0.2598 0.619141,0.6973 0.695312,0.3496 -0.386718,0.7871 0.61914,-0.1758 0.308594,-0.7832 -0.773437,-0.875 0.310547,0 0.773437,0.6094 0.154297,0.875 0.693359,0.7871 0.154297,-1.1387 0.388672,-0.1738 c 0.382082,0.3965 0.682099,0.8662 1.003906,1.3125 l 1.158203,0.088 0.697266,0.4355 -0.310547,0.4375 -0.695312,0.6133 -1.003907,0 -1.314453,-0.4375 -0.695312,0.086 -0.5,0.5704 -1.431641,-1.4434 -1.005859,-0.2617 -1.46875,0.1738 -1.314453,0.3496 c -0.737161,0.8355 -1.364583,1.6675 -2.062292,2.5352 l -0.849609,2.0136 0.386719,0.4356 -0.695313,1.0488 0.773438,1.8379 c 0.657108,0.7431 1.212779,1.4849 1.868932,2.2285 l 0.96875,-0.8301 0.423828,0.4825 1.041015,-0.6563 0.34961,0.3926 1.044922,0 0.597656,0.6777 -0.369141,1.2032 0.736328,0.83 -0.03906,1.4434 0.541016,1.0508 -0.578128,0.873 c -0.03849,0.6434 -0.03907,1.2823 -0.03907,1.9258 0.316696,0.8718 0.480719,1.7411 0.779766,2.6191 l 0.230469,1.4004 0,0.7012 0.841327,0 0.851563,-0.5254 0.732422,0 c 0.273168,-0.1902 0.535917,-0.3943 0.798828,-0.5976 l 0.978516,-1.1075 -0.191407,-0.5683 1.00586,-0.877 -0.736328,-0.8281 0.890625,-0.7422 0.750005,-0.5273 0.386719,-0.4336 -0.232422,-0.9668 0,-2.4453 0.794916,-1.4883 0.84961,-0.961 0.927734,-2.2734 0,-0.6133 c -0.456968,0.058 -0.902613,0.1043 -1.349609,0.1367 l 0.923828,-0.9238 1.27539,-0.875 0.697266,-0.7851 0,-0.875 c -0.154679,-0.2917 -0.309107,-0.5834 -0.464844,-0.875 l -0.61914,0.6992 -0.462891,-0.5235 -0.695312,-0.5253 0,-1.1368 0.8125,0.918 0.888671,-0.1309 c 0.404831,0.3675 0.803125,0.7185 1.158204,1.1368 l 0.08789,-0.1 c -0.427434,-4.6408 -2.43498,-8.8027 -5.47265,-11.9707 -0.167775,-0.1719 -0.344833,-0.357 -0.482422,-0.4922 -0.230943,-0.2248 -0.473222,-0.437 -0.714844,-0.6504 l -0.21875,0.3593 -0.773437,0.875 -1.003906,-1.248 1.003906,0 0.464844,-0.3262 -1.855469,-0.3496 z m -21.845703,0.029 c -0.113126,0.085 -0.228606,0.1667 -0.339843,0.2539 l 0.152343,0.6796 c 0,0 -0.706767,0.078 -1.115234,0.1309 -4.1041268,3.6542 -6.6980233,8.9645 -6.7031246,14.916 0.1609659,0.265 0.3203125,0.5176 0.3203125,0.5176 l 1.6230469,0.9609 1.625,0.4395 0.6933594,0.875 1.0820312,0.7851 0.6191406,-0.086 0.46289,0.209 0,0.1406 -0.6171868,1.6602 -0.4648438,0.7011 0.1542969,0.3497 -0.4980474,1.3105 1.5019531,2.5371 0.992453,1.2227 0.617188,0.873 -0.07617,1.8379 0.863016,1.0488 -0.25586,1.1094 c 0.89177,0.6146 1.842605,1.146 2.832031,1.6113 l 0.361329,-0.3593 0.230468,-0.6114 1.00586,-0.3515 0.927731,-1.9239 -0.386716,-0.5234 0.539063,-1.0876 1.160156,-0.2636 0.687497,-1.098 -0.222653,-1.7461 1.125528,-1.3125 0.15625,-1.3125 c -1.268711,-0.629 -2.727601,-1.2763 -3.986856,-1.9238 l -0.619141,-1.2246 -1.158203,-0.2618 -0.617188,-1.1598 -1.544922,0.1738 -1.314453,-1.0999 -1.392578,0.8613 0,0.1934 c -0.420995,-0.1215 -0.9376566,-0.1368 -1.3125014,-0.3672 l -0.3105468,-0.875 0,-0.9629 -0.9277344,0.088 c 0.077394,-0.6124 0.1564513,-1.2237 0.234375,-1.8359 l -0.5410156,0 -0.5410156,0.6992 -0.5410157,0.2617 -0.7734375,-0.4355 -0.078125,-0.9629 0.1542969,-1.0489 1.1601563,-0.875 0.9257812,0 0.1542969,-0.5254 1.1601562,0.2618 0.7494214,1.0507 0.1562501,-1.75 1.568937,-1.2226 0.541016,-1.3125 1.080078,-0.038 0.619141,-0.8711 1.390625,-0.2656 0.695312,-1.0469 -2.085937,0 1.314453,-0.6132 0.925781,0 1.314453,-0.8373 0.154297,-0.5234 -0.464843,-0.4375 -0.541016,-0.1758 0.15625,-0.5234 -0.386719,-0.7872 -0.927734,0.3477 0.154297,-0.6992 -1.082032,-0.6113 -0.847656,1.4863 0.07617,0.5254 -0.851562,0.3496 -0.541016,1.1367 -0.230469,-1.0488 -1.46875,-0.6133 -0.232422,-0.7871 1.931641,-1.1367 0.851562,-0.7871 0.07617,-0.961 -0.46289,-0.2637 z m 14.685747,0.9096 -1.11934,0.3497 -0.506202,-0.088 -0.002,0 -0.07813,0.5253 0.74253,0.3497 1.425981,-0.6133 -0.462891,-0.5235 z m -10.701372,0.3736 -0.617187,0.4375 0.771484,0.5253 0.619141,0 0,-0.6132 z m 12.208985,2.0117 0,0.5254 0.310547,0.3496 0,0.7871 -0.15625,1.0488 0.851562,-0.1738 0.617188,-0.6133 -0.541016,-0.5234 c -0.181682,-0.4837 -0.389795,-0.9365 -0.617188,-1.4004 z m -0.306641,1.0488 -0.542969,0.1758 0.15625,0.9609 0.69336,-0.3476 z m -10.664062,1.5762 0.230468,1.2207 0.462891,-0.6973 z m 20.177734,6.8183 0.890625,1.0059 1.042969,2.2285 0.617187,0.7012 -0.310547,0.7851 0.587891,0.6661 c -0.269928,0.018 -0.538857,0.037 -0.816406,0.037 -0.492109,-1.0338 -0.861574,-2.0689 -1.236328,-3.1504 l -0.857813,-0.7422 -0.347657,-1.2695 z"/>
  <path style="opacity:0.1;fill:#8b9cbe" d="m 24,1008.3622 c -11.08,0 -20,8.92 -20,20 0,0.1679 0.00765,0.3331 0.011719,0.5 0.2646714,-10.8461 9.076155,-19.5 19.988281,-19.5 10.912126,0 19.72361,8.6539 19.988281,19.5 0.0041,-0.1669 0.01172,-0.3321 0.01172,-0.5 0,-11.08 -8.92,-20 -20,-20 z"/>
  <path style="opacity:0.2;fill-rule:evenodd" d="m 10.237953,1033.3657 c -1.3712379,-0.049 -2.4869636,0.414 -3.2949204,1.1627 -0.8079569,0.7486 -1.3155467,1.7616 -1.5863749,2.8173 -0.4448329,1.7336 -0.4739086,4.2257 -0.8144749,6.0684 -0.1691585,0.915 -0.9382338,2.3393 -2.3786363,4.1846 -0.3679007,0.6183 -1.352e-4,0.6983 -1.352e-4,0.6983 0.2064998,0.1472 0.5810823,0.012 0.7695433,-0.082 2.1230753,-1.0774 3.4159355,-1.8566 4.3525274,-1.8998 1.8605052,-0.085 4.315941,0.225 6.082645,0.02 1.147668,-0.1329 2.285193,-0.5391 3.15609,-1.3359 0.870897,-0.7969 1.445087,-1.6896 1.464203,-3.2471 0.0016,-0.1294 0.04778,-0.3449 0.05923,-0.6055 0.01147,-0.2607 -0.04557,-0.6476 -0.348002,-0.8962 -0.327867,-0.2696 -0.708604,-0.9461 -1.082881,-1.716 -0.374277,-0.7699 -0.761013,-1.6273 -1.305012,-2.2992 l -0.316533,-0.3913 -0.211023,0.1937 c -0.460432,-0.4002 -0.939487,-0.7677 -1.356841,-1.0526 -0.530829,-0.3621 -0.952004,-0.6889 -1.186543,-1.0769 -0.550575,-0.5742 -1.295816,-0.4918 -2.002867,-0.5431 z"/>
  <path style="opacity:0.2;fill-rule:evenodd" d="m 41.211177,1011.8889 c -1.236327,0.4833 -2.70964,1.1952 -4.155796,1.941 -1.446156,0.7459 -2.863349,1.5264 -3.970042,2.1477 -1.106693,0.6212 -1.938682,1.0995 -2.090647,1.178 -0.490655,0.2531 -2.947603,1.6726 -5.727423,3.4797 -2.77982,1.8068 -5.808808,3.9447 -7.33183,5.6615 -1.445582,1.6296 -2.322482,2.6326 -2.899223,3.7262 -0.576743,1.0937 -0.817896,2.2364 -1.016186,4.0469 L 14,1034.2512 l 0.111088,0.1467 c 0.998123,1.321 2.676937,3.526 4.30695,4.8407 l 0.122014,0.097 0.156616,0.01 c 3.743658,0.1168 4.729355,-0.3597 8.45,-2.693 1.957998,-1.2279 4.554987,-3.8497 6.78003,-6.2761 2.225044,-2.4263 4.008738,-4.595 4.336087,-5.0346 0.110118,-0.1478 0.687854,-0.869 1.449613,-1.843 0.761757,-0.9742 1.724454,-2.2247 2.664298,-3.5087 0.939846,-1.2841 1.855962,-2.5998 2.531357,-3.7225 0.337699,-0.5615 0.616193,-1.0733 0.808578,-1.5206 0.192385,-0.4472 0.32507,-0.8125 0.271346,-1.2143 -0.08931,-0.6678 -0.427064,-1.0623 -0.624642,-1.2649 l 0.0055,-0.01 c 0,0 -0.03213,-0.023 -0.03278,-0.024 -0.235395,-0.2835 -0.495931,-0.4651 -0.769078,-0.5994 -1.190673,-0.5749 -2.302691,-0.1184 -3.3558,0.2541 z"/>
  <path style="fill:#9c7e40;fill-rule:evenodd" d="m 10.237953,1032.3657 c -1.3712379,-0.049 -2.4869636,0.414 -3.2949204,1.1627 -0.8079569,0.7486 -1.3155467,1.7616 -1.5863749,2.8173 -0.4448329,1.7336 -0.4739086,4.2257 -0.8144749,6.0684 -0.1691585,0.915 -0.9382338,2.3393 -2.3786363,4.1846 -0.3679007,0.6183 -1.352e-4,0.6983 -1.352e-4,0.6983 0.2064998,0.1472 0.5810823,0.012 0.7695433,-0.082 2.1230753,-1.0774 3.4159355,-1.8566 4.3525274,-1.8998 1.8605052,-0.085 4.315941,0.225 6.082645,0.02 1.147668,-0.1329 2.285193,-0.5391 3.15609,-1.3359 0.870897,-0.7969 1.445087,-1.6896 1.464203,-3.2471 0.0016,-0.1294 0.04778,-0.3449 0.05923,-0.6055 0.01147,-0.2607 -0.04557,-0.6476 -0.348002,-0.8962 -0.327867,-0.2696 -0.708604,-0.9461 -1.082881,-1.716 -0.374277,-0.7699 -0.761013,-1.6273 -1.305012,-2.2992 l -0.316533,-0.3913 -0.211023,0.1937 c -0.460432,-0.4002 -0.939487,-0.7677 -1.356841,-1.0526 -0.530829,-0.3621 -0.952004,-0.6889 -1.186543,-1.0769 -0.550575,-0.5742 -1.295816,-0.4918 -2.002867,-0.5431 z"/>
  <path style="opacity:0.1;fill:#8b9cbe;fill-rule:evenodd" transform="translate(0,1004.3622)" d="M 10.238281 28.001953 L 10.238281 28.003906 C 8.8670433 27.954906 7.7513162 28.417316 6.9433594 29.166016 C 6.1354025 29.914616 5.6282501 30.928675 5.3574219 31.984375 C 4.912589 33.717975 4.883535 36.210034 4.5429688 38.052734 C 4.3738103 38.967734 3.604465 40.391028 2.1640625 42.236328 C 1.7961618 42.854628 2.1640625 42.935547 2.1640625 42.935547 C 2.2145122 42.971509 2.2744945 42.989124 2.3398438 42.996094 C 3.6550235 41.272991 4.3816035 39.92558 4.5429688 39.052734 C 4.883535 37.210034 4.912589 34.717975 5.3574219 32.984375 C 5.6282501 31.928675 6.1354025 30.914616 6.9433594 30.166016 C 7.7513162 29.417316 8.8670433 28.954906 10.238281 29.003906 L 10.238281 29.001953 C 10.945332 29.053253 11.689659 28.972675 12.240234 29.546875 C 12.474773 29.934875 12.896905 30.260947 13.427734 30.623047 C 13.845088 30.907947 14.324724 31.275581 14.785156 31.675781 L 14.996094 31.482422 L 15.3125 31.873047 C 15.856499 32.544947 16.242911 33.401975 16.617188 34.171875 C 16.991464 34.941775 17.371352 35.619072 17.699219 35.888672 C 17.853082 36.015148 17.944015 36.176605 17.994141 36.339844 C 18.001955 36.208328 18.036387 36.02386 18.046875 35.785156 C 18.058345 35.524456 18.001651 35.137272 17.699219 34.888672 C 17.371352 34.619072 16.991464 33.941775 16.617188 33.171875 C 16.242911 32.401975 15.856499 31.544947 15.3125 30.873047 L 14.996094 30.482422 L 14.785156 30.675781 C 14.324724 30.275581 13.845088 29.907947 13.427734 29.623047 C 12.896905 29.260947 12.474773 28.934875 12.240234 28.546875 C 11.689659 27.972675 10.945332 28.053253 10.238281 28.001953 z"/>
  <path style="fill:#449b29;fill-rule:evenodd" d="m 41.211177,1010.8889 c -1.236327,0.4833 -2.70964,1.1952 -4.155796,1.941 -1.446156,0.7459 -2.863349,1.5264 -3.970042,2.1477 -1.106693,0.6212 -1.938682,1.0995 -2.090647,1.178 -0.490655,0.2531 -2.947603,1.6726 -5.727423,3.4797 -2.77982,1.8068 -5.808808,3.9447 -7.33183,5.6615 -1.445582,1.6296 -2.322482,2.6326 -2.899223,3.7262 -0.576743,1.0937 -0.817896,2.2364 -1.016186,4.0469 L 14,1033.2512 l 0.111088,0.1467 c 0.998123,1.321 2.676937,3.526 4.30695,4.8407 l 0.122014,0.097 0.156616,0.01 c 3.743658,0.1168 4.729355,-0.3597 8.45,-2.693 1.957998,-1.2279 4.554987,-3.8497 6.78003,-6.2761 2.225044,-2.4263 4.008738,-4.595 4.336087,-5.0346 0.110118,-0.1478 0.687854,-0.869 1.449613,-1.843 0.761757,-0.9742 1.724454,-2.2247 2.664298,-3.5087 0.939846,-1.2841 1.855962,-2.5998 2.531357,-3.7225 0.337699,-0.5615 0.616193,-1.0733 0.808578,-1.5206 0.192385,-0.4472 0.32507,-0.8125 0.271346,-1.2143 -0.08931,-0.6678 -0.427064,-1.0623 -0.624642,-1.2649 l 0.0055,-0.01 c 0,0 -0.03213,-0.023 -0.03278,-0.024 -0.235395,-0.2835 -0.495931,-0.4651 -0.769078,-0.5994 -1.190673,-0.5749 -2.302691,-0.1184 -3.3558,0.2541 z"/>
  <path style="opacity:0.1;fill:#8b9cbe;fill-rule:evenodd" transform="translate(0,1004.3622)" d="M 43.259766 6.0019531 C 42.550729 6.0280762 41.869131 6.2945313 41.210938 6.5273438 C 39.97461 7.0106437 38.500844 7.7209969 37.054688 8.4667969 C 35.608531 9.2126969 34.192631 9.9939344 33.085938 10.615234 C 31.979245 11.236434 31.146106 11.714469 30.994141 11.792969 C 30.503486 12.046069 28.047398 13.466338 25.267578 15.273438 C 22.487758 17.080237 19.458569 19.218747 17.935547 20.935547 C 16.489965 22.565147 15.61385 23.566556 15.037109 24.660156 C 14.460366 25.753856 14.217821 26.896531 14.019531 28.707031 L 14 28.888672 L 14.107422 29.03125 C 14.293496 27.614024 14.538803 26.605115 15.037109 25.660156 C 15.61385 24.566556 16.489965 23.565147 17.935547 21.935547 C 19.458569 20.218747 22.487758 18.080237 25.267578 16.273438 C 28.047398 14.466338 30.503486 13.046069 30.994141 12.792969 C 31.146106 12.714469 31.979245 12.236434 33.085938 11.615234 C 34.192631 10.993934 35.608531 10.212697 37.054688 9.4667969 C 38.500844 8.7209969 39.97461 8.0106437 41.210938 7.5273438 C 42.264046 7.1548438 43.375733 6.6965844 44.566406 7.2714844 C 44.839553 7.4057844 45.100543 7.5875937 45.335938 7.8710938 C 45.336588 7.8720937 45.369141 7.8964844 45.369141 7.8964844 L 45.363281 7.90625 C 45.525794 8.072893 45.776183 8.3780123 45.912109 8.8496094 C 45.979637 8.6215204 46.01901 8.3997379 45.988281 8.1699219 C 45.898971 7.5021219 45.560859 7.10885 45.363281 6.90625 L 45.369141 6.8964844 C 45.369141 6.8964844 45.336588 6.8720937 45.335938 6.8710938 C 45.100543 6.5875937 44.839553 6.4057844 44.566406 6.2714844 C 44.119904 6.0558969 43.685188 5.9862793 43.259766 6.0019531 z"/>
  <rect style="opacity:0.2" width="11.49" height="3.83" x="838.12" y="599.92" rx="1.915" ry="1.915" transform="matrix(0.59329155,0.80498766,-0.80498766,0.59329155,0,0)"/>
  <rect style="fill:#ffc612" width="11.49" height="3.83" x="837.31" y="599.33" rx="1.915" ry="1.915" transform="matrix(0.59329155,0.80498766,-0.80498766,0.59329155,0,0)"/>
  <path style="opacity:0.2;fill:#8b9cbe" transform="translate(0,1004.3622)" d="M 13.837891 26.001953 C 13.469658 26.017336 13.101518 26.138956 12.78125 26.375 C 12.122512 26.860502 11.869033 27.681568 12.074219 28.423828 C 12.182529 28.018951 12.416112 27.644114 12.78125 27.375 C 13.635298 26.74555 14.829535 26.927202 15.458984 27.78125 L 20.003906 33.947266 C 20.148238 34.143098 20.243907 34.357426 20.304688 34.578125 C 20.45012 34.035728 20.364478 33.436495 20.003906 32.947266 L 15.458984 26.78125 C 15.065578 26.24747 14.451612 25.976314 13.837891 26.001953 z"/>
 </g>
</svg>
