<svg xmlns="http://www.w3.org/2000/svg" width="24" height="24" version="1.1">
 <path style="opacity:0.2" d="M 5,2.5 C 4.446,2.5 4,2.946 4,3.5 V 21.5 C 4,22.054 4.446,22.5 5,22.5 H 19 C 19.554,22.5 20,22.054 20,21.5 V 8.5 L 14,2.5 Z"/>
 <path style="fill:#4caf50" d="M 5,2 C 4.446,2 4,2.446 4,3 V 21 C 4,21.554 4.446,22 5,22 H 19 C 19.554,22 20,21.554 20,21 V 8 L 15,7 14,2 Z"/>
 <rect style="opacity:0.2" width="4" height="9.5" x="7" y="2"/>
 <rect style="fill:#8b9cbe" width="1" height="1" x="8" y="9"/>
 <path style="fill:#4b4b4b" d="M 9,8.9999999 C 10.5,8.9999999 10.5,11 11,11 v 2.5 c 0,0.277 -0.223,0.5 -0.5,0.5 h -3 C 7.223,14 7,13.777 7,13.5 V 11 C 7.5,11 7.5,8.9999999 9,8.9999999 Z"/>
 <rect style="fill:#8b9cbe" width="1" height="1" x="9" y="8"/>
 <rect style="fill:#8b9cbe" width="1" height="1" x="8" y="7"/>
 <rect style="fill:#8b9cbe" width="1" height="1" x="9" y="6"/>
 <rect style="fill:#8b9cbe" width="1" height="1" x="8" y="5"/>
 <rect style="fill:#8b9cbe" width="1" height="1" x="9" y="4"/>
 <rect style="fill:#8b9cbe" width="1" height="1" x="8" y="3"/>
 <rect style="fill:#8b9cbe" width="1" height="1" x="9" y="2"/>
 <path style="opacity:0.2" d="m 9,11.5 c -1.105,0 -2,0.9 -2,2 v 4 c 0,1.1 0.895,2 2,2 1.105,0 2,-0.9 2,-2 v -4 c 0,-1.1 -0.895,-2 -2,-2 z m 0,5 a 1,1 0 0 1 1,1 1,1 0 0 1 -1,1 1,1 0 0 1 -1,-1 1,1 0 0 1 1,-1 z"/>
 <path style="fill:#8b9cbe" d="m 9,11 c -1.105,0 -2,0.9 -2,2 v 4 c 0,1.1 0.895,2 2,2 1.105,0 2,-0.9 2,-2 v -4 c 0,-1.1 -0.895,-2 -2,-2 z m 0,5 a 1,1 0 0 1 1,1 1,1 0 0 1 -1,1 1,1 0 0 1 -1,-1 1,1 0 0 1 1,-1 z"/>
 <path style="fill:#909090" d="M 8.992188,10.000061 A 0.50005,0.49772427 0 0 0 8.5,10.50454 v 1.990698 a 0.50005,0.49772427 0 1 0 1,0 V 10.50454 A 0.50005,0.49772427 0 0 0 8.992188,10.000061 Z"/>
 <path style="opacity:0.2" d="M 20,8.5 14,2.5 V 7.5 C 14,8.054 14.446,8.5 15,8.5 Z"/>
 <path style="fill:#88cc8b" d="M 20,8 14,2 V 7 C 14,7.554 14.446,8 15,8 Z"/>
 <path style="opacity:0.2;fill:#8b9cbe" d="M 5 2 C 4.446 2 4 2.446 4 3 L 4 3.5 C 4 2.946 4.446 2.5 5 2.5 L 14 2.5 L 14 2 L 5 2 z"/>
</svg>
