<svg xmlns="http://www.w3.org/2000/svg" width="24" height="24" version="1.1">
 <path style="opacity:0.2" d="m 5,2.5 c -0.554,0 -1,0.446 -1,1 v 18 c 0,0.554 0.446,1 1,1 h 14 c 0.554,0 1,-0.446 1,-1 v -13 l -6,-6 z"/>
 <path style="fill:#b2bfd9" d="M 5,2 C 4.446,2 4,2.446 4,3 v 18 c 0,0.554 0.446,1 1,1 h 14 c 0.554,0 1,-0.446 1,-1 V 8 L 15,7 14,2 Z"/>
 <path style="opacity:0.2" d="m 20,8.5 -6,-6 v 5 c 0,0.554 0.446,1 1,1 z"/>
 <path style="fill:#fafafa" d="M 20,8 14,2 v 5 c 0,0.554 0.446,1 1,1 z"/>
 <path style="opacity:0.2;fill:#8b9cbe" d="M 5,2 C 4.446,2 4,2.446 4,3 v 0.5 c 0,-0.554 0.446,-1 1,-1 h 9 V 2 Z"/>
 <path style="opacity:0.1" d="m 12.515775,14.652386 c 0.03655,0.04113 0.133586,0.132414 0.291106,0.273875 2.21109,2.192933 3.274083,3.170916 3.188557,3.433699 -0.06147,0.1933 -0.238655,0.357209 -0.531554,0.49173 -0.292415,0.126696 -0.555855,0.184146 -0.790321,0.172351 -0.185638,-0.0093 -1.067265,-0.683613 -2.644457,-2.522584 -0.318245,-0.385212 -0.50516,-0.602785 -0.560745,-0.65272 -0.231085,0.23976 -0.576506,0.732997 -1.036265,1.479712 -0.5918129,1.191418 -1.3705169,2.290826 -1.8165084,3.549683 -0.1362225,0.440914 -0.4827735,0.647367 -1.0396515,0.619359 -0.2930975,-0.01474 -0.4731775,-0.11021 -0.5402365,-0.286404 -0.067064,-0.176196 -0.03964,-0.449759 0.082272,-0.820696 0.2340475,-0.742358 1.359633,-2.543581 3.3767604,-5.403673 -0.01148,-0.126259 -0.300497,-0.584633 -0.8670659,-1.375125 -0.5665795,-0.790476 -1.0163915,-1.389257 -1.34944,-1.696673 -0.3608515,-0.332361 -0.5110505,-0.587365 -0.450596,-0.765012 0.1362155,-0.440904 0.5658095,-0.643181 1.288782,-0.606828 0.3517115,0.0177 0.9785759,0.75893 1.8805969,2.12402 0.385294,0.56142 0.637665,0.904046 0.757114,1.027879 0.207999,-0.185919 0.504506,-0.528433 0.889518,-1.027543 0.385503,-0.506923 0.652101,-0.917714 0.799798,-1.232372 0.146168,-0.291149 0.37674,-0.523074 0.69172,-0.695775 0.314963,-0.172681 0.61411,-0.251902 0.897446,-0.237662 0.439632,0.02212 0.598752,0.214731 0.477357,0.577825 -0.136229,0.440925 -0.928898,1.410493 -2.378009,2.908709 -0.377953,0.389487 -0.583344,0.610894 -0.616178,0.664225"/>
 <path style="fill:#ff6600" d="m 12.515775,14.152386 c 0.03655,0.04113 0.133586,0.132414 0.291106,0.273875 2.21109,2.192933 3.274083,3.170916 3.188557,3.433699 -0.06147,0.1933 -0.238655,0.357209 -0.531554,0.49173 -0.292415,0.126696 -0.555855,0.184146 -0.790321,0.172351 -0.185638,-0.0093 -1.067265,-0.683613 -2.644457,-2.522584 -0.318245,-0.385212 -0.50516,-0.602785 -0.560745,-0.65272 -0.231085,0.23976 -0.576506,0.732997 -1.036265,1.479711 -0.5918129,1.191418 -1.3705169,2.290826 -1.8165084,3.549684 -0.1362225,0.440914 -0.4827735,0.647367 -1.0396515,0.619359 -0.2930975,-0.01474 -0.4731775,-0.11021 -0.5402365,-0.286405 -0.067064,-0.176196 -0.03964,-0.449759 0.082272,-0.820695 0.2340475,-0.742359 1.359633,-2.543582 3.3767604,-5.403673 -0.01148,-0.126259 -0.300497,-0.584634 -0.8670659,-1.375125 -0.5665795,-0.790477 -1.0163915,-1.389257 -1.34944,-1.696673 -0.3608515,-0.332362 -0.5110505,-0.587366 -0.450596,-0.765012 0.1362155,-0.440905 0.5658095,-0.643183 1.288782,-0.60683 0.3517115,0.0177 0.9785759,0.758932 1.8805969,2.124022 0.385294,0.56142 0.637665,0.904045 0.757114,1.027878 0.207999,-0.185919 0.504506,-0.528432 0.889518,-1.027543 0.385503,-0.506923 0.652101,-0.917713 0.799798,-1.232372 0.146168,-0.291149 0.37674,-0.523073 0.69172,-0.695775 0.314963,-0.172682 0.61411,-0.251902 0.897446,-0.237663 0.439632,0.02212 0.598752,0.214732 0.477357,0.577827 -0.136229,0.440924 -0.928898,1.410493 -2.378009,2.908709 -0.377953,0.389487 -0.583344,0.610894 -0.616178,0.664225"/>
</svg>
