<svg xmlns="http://www.w3.org/2000/svg" width="24" height="24" version="1.1">
 <path style="opacity:0.2" d="m 5,2.5 c -0.554,0 -1,0.446 -1,1 v 18 c 0,0.554 0.446,1 1,1 h 14 c 0.554,0 1,-0.446 1,-1 V 8.5 L 14.5,8 14,2.5 Z"/>
 <path style="fill:#13a553" d="M 5,2 C 4.446,2 4,2.446 4,3 v 18 c 0,0.554 0.446,1 1,1 h 14 c 0.554,0 1,-0.446 1,-1 V 8 L 14.5,7.5 14,2 Z"/>
 <path style="opacity:0.2;fill:#8b9cbe" d="M 5,2 C 4.446,2 4,2.446 4,3 v 0.5 c 0,-0.554 0.446,-1 1,-1 h 9 L 19.5,8 H 20 L 14,2 Z"/>
 <path style="opacity:0.2" d="m 14,2.5 v 5 c 0,0.5523 0.447715,1 1,1 h 5 z"/>
 <path style="fill:#70c896" d="m 14,2 v 5 c 0,0.5523 0.447715,1 1,1 h 5 z"/>
 <path style="opacity:0.2" d="M 20,10.592797 12.00293,18.589867 8.5009765,15.039086 4,19.581078 V 21.001 L 8.4990235,16.460961 11.997071,20.009789 20,12.006859 Z"/>
 <path style="fill:#8b9cbe" d="M 20,10.092969 12.00293,18.090039 8.5009765,14.539258 4,19.08125 v 1.419922 L 8.4990235,15.961133 11.997071,19.509961 20,11.507031 Z"/>
</svg>
