<svg xmlns="http://www.w3.org/2000/svg" width="24" height="24" version="1">
 <rect style="opacity:0.2" width="21" height="21" x="-22.5" y="-23" rx="1.05" ry="1.05" transform="matrix(0,-1,-1,0,0,0)"/>
 <rect style="fill:#ee4a58" width="21" height="21" x="-22" y="-23" rx="1.05" ry="1.05" transform="matrix(0,-1,-1,0,0,0)"/>
 <path style="opacity:0.2" d="m 3,9.5 v 5 h 1 v -2 -1 -1 h 2.5 c 0.1354165,0 0.252604,0.04948 0.3515625,0.148438 0.087766,0.08776 0.1306986,0.192149 0.140625,0.308593 H 7 V 11 11.5 h 1 v -1 C 8,10.229167 7.9010415,9.9947915 7.703125,9.796875 7.5104165,9.5989585 7.2760415,9.5 7,9.5 Z m 6,0 v 2 3 h 1 V 13 c 0,-0.135416 0.04687,-0.252604 0.140625,-0.351562 C 10.239584,12.549478 10.359375,12.5 10.5,12.5 H 13 c 0.276042,0 0.510417,-0.09635 0.703125,-0.289062 C 13.901042,12.013018 14,11.776042 14,11.5 v -1 C 14,10.223959 13.901042,9.9895835 13.703125,9.796875 13.505209,9.5989585 13.270834,9.5 13,9.5 Z m 6,0 v 5 h 1 V 11 c 0,-0.135416 0.04687,-0.252606 0.140625,-0.351562 C 16.239584,10.549478 16.359375,10.5 16.5,10.5 h 1 c 0.135417,0 0.252605,0.04948 0.351562,0.148438 C 17.950521,10.747393 18,10.864584 18,11 v 3.5 h 1 V 11 c 0,-0.135416 0.04687,-0.252606 0.140625,-0.351562 C 19.239583,10.549478 19.359375,10.5 19.5,10.5 h 1 c 0.135417,0 0.252605,0.04948 0.351562,0.148438 C 20.950521,10.747393 21,10.864584 21,11 v 3.5 h 1 v -4 C 22,10.229167 21.901042,9.9947915 21.703125,9.796875 21.510417,9.5989585 21.276042,9.5 21,9.5 Z m -4.5,1 h 2 c 0.135417,0 0.252603,0.04948 0.351562,0.148438 C 12.95052,10.747393 13,10.864584 13,11 13,11.140625 12.95052,11.260417 12.851562,11.359375 12.752606,11.453125 12.635417,11.5 12.5,11.5 h -2 c -0.140625,0 -0.260416,-0.04687 -0.359375,-0.140625 C 10.046875,11.260417 10,11.140625 10,11 10,10.864584 10.046875,10.747394 10.140625,10.648438 10.239584,10.549478 10.359375,10.5 10.5,10.5 Z"/>
 <path style="fill:#8b9cbe" d="M 3 9 L 3 14 L 4 14 L 4 12 L 4 11 L 4 10 L 6.5 10 C 6.6354165 10 6.752604 10.049478 6.8515625 10.148438 C 6.9393287 10.236201 6.9822611 10.340587 6.9921875 10.457031 L 7 10.457031 L 7 10.5 L 7 11 L 8 11 L 8 10 C 8 9.729167 7.9010415 9.4947915 7.703125 9.296875 C 7.5104165 9.0989585 7.2760415 9 7 9 L 3 9 z M 9 9 L 9 11 L 9 14 L 10 14 L 10 12.5 C 10 12.364584 10.04687 12.247396 10.140625 12.148438 C 10.239584 12.049478 10.359375 12 10.5 12 L 13 12 C 13.276042 12 13.510417 11.903647 13.703125 11.710938 C 13.901042 11.513018 14 11.276042 14 11 L 14 10 C 14 9.723959 13.901042 9.4895835 13.703125 9.296875 C 13.505209 9.0989585 13.270834 9 13 9 L 9 9 z M 15 9 L 15 14 L 16 14 L 16 10.5 C 16 10.364584 16.04687 10.247394 16.140625 10.148438 C 16.239584 10.049478 16.359375 10 16.5 10 L 17.5 10 C 17.635417 10 17.752605 10.049478 17.851562 10.148438 C 17.950521 10.247393 18 10.364584 18 10.5 L 18 14 L 19 14 L 19 10.5 C 19 10.364584 19.04687 10.247394 19.140625 10.148438 C 19.239583 10.049478 19.359375 10 19.5 10 L 20.5 10 C 20.635417 10 20.752605 10.049478 20.851562 10.148438 C 20.950521 10.247393 21 10.364584 21 10.5 L 21 14 L 22 14 L 22 10 C 22 9.729167 21.901042 9.4947915 21.703125 9.296875 C 21.510417 9.0989585 21.276042 9 21 9 L 15 9 z M 10.5 10 L 12.5 10 C 12.635417 10 12.752603 10.049478 12.851562 10.148438 C 12.95052 10.247393 13 10.364584 13 10.5 C 13 10.640625 12.950522 10.760417 12.851562 10.859375 C 12.752606 10.953125 12.635417 11 12.5 11 L 10.5 11 C 10.359375 11 10.239584 10.953125 10.140625 10.859375 C 10.046875 10.760417 10 10.640625 10 10.5 C 10 10.364584 10.046875 10.247394 10.140625 10.148438 C 10.239584 10.049478 10.359375 10 10.5 10 z"/>
 <path style="fill:#8b9cbe;opacity:0.2" d="M 3.0507812 1 C 2.4690813 1 2 1.4690813 2 2.0507812 L 2 2.5507812 C 2 1.9690813 2.4690813 1.5 3.0507812 1.5 L 21.949219 1.5 C 22.530919 1.5 23 1.9690813 23 2.5507812 L 23 2.0507812 C 23 1.4690813 22.530919 1 21.949219 1 L 3.0507812 1 z"/>
</svg>
