<svg width="24" height="24" version="1.1" xmlns="http://www.w3.org/2000/svg">
 <path d="m5 2.5c-0.554 0-1 0.446-1 1v18c0 0.554 0.446 1 1 1h14c0.554 0 1-0.446 1-1v-13l-6-6z" style="opacity:.2"/>
 <path d="m5 2c-0.554 0-1 0.446-1 1v18c0 0.554 0.446 1 1 1h14c0.554 0 1-0.446 1-1v-13l-5-1-1-5z" style="fill:#4f4f4f"/>
 <path d="m12 10.5c-1.536094 0-2.6141052 0.433459-3.3828125 1.039062 0.1275901-0.013268 0.2439761-0.039062 0.3828125-0.039062 1.922185 0 2 2.572266 2 2.572266s-0.06698 2.427734-2.75 2.427734c-0.6803313 0-1.1376407-0.300253-1.46875-0.701172 0.0434125 0.782084 0.4707591 4.701172 5.21875 4.701172 5.25 0 5.25-4.285156 5.25-4.285156s0.01066-0.122236 0.01953-0.306641c-0.332821 0.33565-0.803181 0.591797-1.51953 0.591797-1.5 0-1.75-2.427734-1.75-2.427734s0.223934-2.293512 1.513672-2.546875c-0.783198-0.605419-1.898307-1.025391-3.513672-1.025391zm-3.1992188 2c-1.3499994 0-1.8007812 1.115234-1.8007812 1.115234s-3.905e-4 1.884766 1.3496094 1.884766c1.6098096 0 1.6503906-1.457031 1.6503906-1.457031s-0.0459086-1.542969-1.1992188-1.542969zm7.0742188 0c-0.744954 0-0.869141 1.535156-0.869141 1.535156s0.124187 1.464844 0.869141 1.464844c1.031433 0 1.106948-1.20243 1.113281-1.394531a0.5 0.5 0 0 1-0.488281 0.394531 0.5 0.5 0 0 1-0.5-0.5 0.5 0.5 0 0 1 0.5-0.5 0.5 0.5 0 0 1 0.482422 0.365234c-0.029156-0.367824-0.187525-1.365234-1.107422-1.365234zm-7.4121094 0.986328a0.5 0.5 0 0 1 0.00195 0 0.5 0.5 0 0 1 0.035156 0 0.5 0.5 0 0 1 0.5 0.5 0.5 0.5 0 0 1-0.5 0.5 0.5 0.5 0 0 1-0.5-0.5 0.5 0.5 0 0 1 0.4628906-0.5z" style="opacity:.2"/>
 <path d="m12 10c-1.536094 0-2.6141052 0.433459-3.3828125 1.039062 0.1275901-0.013268 0.2439761-0.039062 0.3828125-0.039062 1.922185 0 2 2.572266 2 2.572266s-0.066984 2.427734-2.75 2.427734c-0.6803313 0-1.1376407-0.300253-1.46875-0.701172 0.0434125 0.782084 0.4707591 4.701172 5.21875 4.701172 5.25 0 5.25-4.285156 5.25-4.285156s0.01066-0.122236 0.019531-0.306641c-0.332822 0.33565-0.803182 0.591797-1.519531 0.591797-1.5 0-1.75-2.427734-1.75-2.427734s0.223934-2.293512 1.513672-2.546875c-0.783198-0.605419-1.898307-1.025391-3.513672-1.025391zm-3.1992188 2c-1.3499994 0-1.8007812 1.115234-1.8007812 1.115234s-3.905e-4 1.884766 1.3496094 1.884766c1.6098096 0 1.6503906-1.457031 1.6503906-1.457031s-0.0459086-1.542969-1.1992188-1.542969zm7.0742188 0c-0.744954 0-0.869141 1.535156-0.869141 1.535156s0.124187 1.464844 0.869141 1.464844c1.031433 0 1.106948-1.20243 1.113281-1.394531a0.5 0.5 0 0 1-0.488281 0.394531 0.5 0.5 0 0 1-0.5-0.5 0.5 0.5 0 0 1 0.5-0.5 0.5 0.5 0 0 1 0.482422 0.365234c-0.029156-0.367824-0.187525-1.365234-1.107422-1.365234zm-7.4121094 0.986328a0.5 0.5 0 0 1 0.0019532 0 0.5 0.5 0 0 1 0.0351562 0 0.5 0.5 0 0 1 0.5 0.5 0.5 0.5 0 0 1-0.5 0.5 0.5 0.5 0 0 1-0.5-0.5 0.5 0.5 0 0 1 0.4628906-0.5z" style="fill:#8b9cbe"/>
 <path d="m20 8.5-6-6v5c0 0.554 0.446 1 1 1z" style="opacity:.2"/>
 <path d="m20 8-6-6v5c0 0.554 0.446 1 1 1z" style="fill:#696969"/>
 <path d="m5 2c-0.554 0-1 0.446-1 1v0.5c0-0.554 0.446-1 1-1h9v-0.5h-9z" style="fill:#8b9cbe;opacity:.1"/>
</svg>
