<svg xmlns="http://www.w3.org/2000/svg" width="24" height="24" version="1">
 <rect style="opacity:0.2" width="20" height="20" x="2" y="2.5" rx="1" ry="1"/>
 <rect style="fill:#4f4f4f" width="20" height="20" x="2" y="2" rx="1" ry="1"/>
 <path style="opacity:0.1;fill:#8b9cbe" d="M 3,2 C 2.446,2 2,2.446 2,3 v 0.5 c 0,-0.554 0.446,-1 1,-1 h 18 c 0.554,0 1,0.446 1,1 V 3 C 22,2.446 21.554,2 21,2 Z"/>
 <path style="opacity:0.2" d="m 10.354798,5.5 h 2.362339 L 12.914755,6 H 13.59191 L 19.5,16.253315 18.227798,18.5 h -5.170962 l 0.524005,1 h -0.228725 l -0.523956,-1 H 6.4094235 L 6.080841,18 H 5.6744895 L 4.5,15.811517 v 0 L 6.0053145,13.200461 7.3996555,12.396779 9.7065075,8.4025485 9.242475,7.598817 Z M 11.746896,9.20628 7.6660705,16.5 h 3.9054415 l -0.450721,-1.00245 4.256208,0.0049 z"/>
 <path style="fill:#8b9cbe" d="m 10.354798,5 h 2.362339 l 0.197618,0.5 H 13.59191 L 19.5,15.753315 18.227798,18 h -5.170962 l 0.524005,1 H 13.352116 L 12.82816,18 H 6.4094235 L 6.080841,17.5 H 5.6744895 L 4.5,15.311517 v 0 L 6.0053145,12.700461 7.3996555,11.896779 9.7065075,7.9025485 9.242475,7.098817 Z M 11.746896,8.70628 7.6660705,16 h 3.9054415 l -0.450721,-1.00245 4.256208,0.0049 z"/>
</svg>
