<svg xmlns="http://www.w3.org/2000/svg" width="24" height="24" version="1.1">
 <g transform="translate(0,-308.3)">
  <path style="opacity:0.2" d="m 9.9870897,329.76921 c -0.211244,-0.061 -0.383076,-0.16564 -0.5543559,-0.33771 -0.2935505,-0.29493 -0.4395595,-0.60732 -0.3890505,-1.05662 0.057438,-0.80076 0.7088334,-1.55621 1.7941957,-1.59746 0.190052,-5e-4 0.393751,0.0276 0.608516,0.0751 0.111755,0.0247 0.250608,0.062 0.308565,0.0829 0.09489,0.0343 0.110943,0.0344 0.161357,10e-4 0.0746,-0.0491 0.07094,-0.0953 -0.02691,-0.33916 -0.290935,-0.72511 -0.889355,-1.46456 -1.650201,-1.68779 -0.160703,-0.0471 -0.4038513,-0.0759 -0.6393323,-0.0811 -1.5760838,0.0401 -2.2250625,1.53696 -2.9431965,2.65456 -0.2295965,0.35546 -0.4986945,0.75586 -0.597994,0.88977 -0.5060765,0.68249 -1.0968418,1.14104 -1.6903278,1.31204 -0.2242491,0.0646 -0.7626096,0.0912 -0.9862726,0.0487 -1.18925,-0.22609 -1.9837404,-1.28046 -1.8715459,-2.48374 0.00948,-0.10163 0.02438,-0.18417 0.03312,-0.18341 0.00874,0.001 0.056165,0.0545 0.1053914,0.11947 0.2040665,0.26929 0.6493061,0.50233 0.9981646,0.58473 0.259591,0.0613 0.513482,0.0708 0.7564079,0.0283 0.6575045,-0.1152 1.0778651,-0.38945 1.7643039,-1.31134 1.0398635,-1.39655 1.7810945,-2.74536 3.240677,-5.897 0.9629329,-2.07924 1.4895374,-3.12007 2.0660333,-4.08349 0.743168,-1.24196 1.526519,-2.24115 2.261279,-2.88431 1.123377,-0.98333 2.454062,-1.57818 3.983232,-1.7806 0.460767,-0.061 1.257779,-0.0554 1.693259,0.0119 1.562417,0.2414 2.764043,1.01876 3.503445,2.26645 0.238525,0.4025 0.443845,0.9734 0.538744,1.49801 0.06051,0.33451 0.06055,1.08026 7.2e-5,1.41647 -0.04964,0.27596 -0.175514,0.72718 -0.260911,0.93534 l -0.05848,0.14255 -0.0027,-0.25705 c -0.01145,-1.08423 -0.223999,-2.19663 -1.289424,-2.49187 -0.208688,-0.0578 -0.273771,-0.0647 -0.604396,-0.0638 -0.323991,10e-4 -0.400474,0.009 -0.60901,0.0652 -1.19473,0.32128 -2.062754,1.7843 -2.454895,3.33933 -0.287725,1.14097 -0.242486,2.39861 0.134816,3.74779 0.900252,2.09037 3.196232,4.10273 4.628706,5.10447 0.325204,0.22261 0.416152,0.33481 0.445436,0.54952 0.03613,0.26491 -0.126566,0.51241 -0.537589,0.8178 -0.113661,0.0845 -0.328215,0.25009 -0.476785,0.3681 -0.493251,0.39178 -1.263445,0.49673 -1.594849,0.49842 -0.774585,0.009 -0.705548,-0.63314 -0.705548,-0.63314 0.171275,-0.34965 0.559735,-0.51055 0.927778,-0.38428 0.08311,0.0285 0.174549,0.088 0.266147,0.17327 0.148979,0.13862 0.793417,0.11687 0.83653,0.0359 0.04653,-0.0874 0.05498,-0.39315 0.01636,-0.59274 -0.135907,-0.70245 -0.759767,-1.59744 -1.460387,-1.55903 -0.408322,0.0224 -0.796944,0.20714 -1.121032,0.53298 -0.214527,0.21567 -0.361897,0.41363 -0.614661,0.82566 -0.544327,0.88731 -0.976216,1.2182 -1.339568,1.4302 -0.30671,0.17894 -0.737747,0.22452 -1.018172,0.11579 -0.106351,-0.0412 -0.211847,-0.11467 -0.304327,-0.20841 -0.26144,-0.2584 -0.232805,-0.20421 -0.207957,-0.53662 0.02819,-0.37712 0.263539,-0.66135 0.488852,-0.8726 0.326733,-0.26632 0.659095,-0.37534 1.019456,-0.41229 0.452054,-0.0432 0.802439,-0.01 1.212402,0.098 0.227363,0.0732 0.303059,-0.32501 0.329077,-0.39271 0.03879,-0.10158 -0.175773,-0.53962 -0.353448,-0.78611 -0.29417,-0.40811 -0.726646,-0.7125 -1.214344,-0.85469 -0.224575,-0.0655 -0.752386,-0.0897 -1.018893,-0.0469 -1.488276,0.27848 -1.98535,1.11495 -2.575318,2.14719 -0.681786,1.18214 -1.456417,1.63252 -2.096755,1.85265 -0.229536,0.0789 -0.660286,0.10244 -0.8536733,0.0466 z"/>
  <path style="fill:#5245ac" d="m 9.9870897,329.26959 c -0.211244,-0.061 -0.383076,-0.16564 -0.5543559,-0.33771 -0.2935505,-0.29493 -0.4395595,-0.60732 -0.3890505,-1.05662 0.057438,-0.80076 0.7088334,-1.55621 1.7941957,-1.59746 0.190052,-5e-4 0.393751,0.0276 0.608516,0.0751 0.111755,0.0247 0.250608,0.062 0.308565,0.0829 0.09489,0.0343 0.110943,0.0344 0.161357,0.001 0.0746,-0.0491 0.07094,-0.0953 -0.02691,-0.33916 -0.290935,-0.72511 -0.889355,-1.46456 -1.650201,-1.68779 -0.160703,-0.0471 -0.4038513,-0.0759 -0.6393323,-0.0811 -1.5760838,0.0401 -2.2250625,1.53696 -2.9431965,2.65456 -0.2295965,0.35546 -0.4986945,0.75586 -0.597994,0.88977 -0.5060765,0.68249 -1.0968418,1.14104 -1.6903278,1.31204 -0.2242491,0.0646 -0.7626096,0.0912 -0.9862726,0.0487 -1.18925,-0.22609 -1.9837404,-1.28046 -1.8715459,-2.48374 0.00948,-0.10163 0.02438,-0.18417 0.03312,-0.18341 0.00874,0.001 0.056165,0.0545 0.1053914,0.11947 0.2040665,0.26929 0.6493061,0.50233 0.9981646,0.58473 0.259591,0.0613 0.513482,0.0708 0.7564079,0.0283 0.6575045,-0.1152 1.0778651,-0.38945 1.7643039,-1.31134 1.0398635,-1.39655 1.7810945,-2.74536 3.240677,-5.897 0.9629329,-2.07924 1.4895374,-3.12007 2.0660333,-4.08349 0.743168,-1.24196 1.526519,-2.24115 2.261279,-2.88431 1.123377,-0.98333 2.454062,-1.57818 3.983232,-1.7806 0.460767,-0.061 1.257779,-0.0554 1.693259,0.0119 1.562417,0.2414 2.764043,1.01876 3.503445,2.26645 0.238525,0.4025 0.443845,0.9734 0.538744,1.49801 0.06051,0.33451 0.06055,1.08026 7.2e-5,1.41647 -0.04964,0.27596 -0.175514,0.72718 -0.260911,0.93534 l -0.05848,0.14255 -0.0027,-0.25705 c -0.01145,-1.08423 -0.223999,-2.19663 -1.289424,-2.49187 -0.208688,-0.0578 -0.273771,-0.0647 -0.604396,-0.0638 -0.323991,10e-4 -0.400474,0.009 -0.60901,0.0652 -1.19473,0.32128 -2.062754,1.7843 -2.454895,3.33933 -0.287725,1.14097 -0.242486,2.39861 0.134816,3.74779 0.900252,2.09037 3.196232,4.10273 4.628706,5.10447 0.325204,0.22261 0.416152,0.33481 0.445436,0.54952 0.03613,0.26491 -0.126566,0.51241 -0.537589,0.8178 -0.113661,0.0845 -0.328215,0.25009 -0.476785,0.3681 -0.493251,0.39178 -1.263445,0.49673 -1.594849,0.49842 C 19,329.3 19.069037,328.65792 19.069037,328.65792 c 0.171275,-0.34965 0.559735,-0.51055 0.927778,-0.38428 0.08311,0.0285 0.174549,0.088 0.266147,0.17327 0.148979,0.13862 0.793417,0.11687 0.83653,0.0359 0.04653,-0.0874 0.05498,-0.39315 0.01636,-0.59274 -0.135907,-0.70245 -0.759767,-1.59744 -1.460387,-1.55903 -0.408322,0.0224 -0.796944,0.20714 -1.121032,0.53298 -0.214527,0.21567 -0.361897,0.41363 -0.614661,0.82566 -0.544327,0.88731 -0.976216,1.2182 -1.339568,1.4302 -0.30671,0.17894 -0.737747,0.22452 -1.018172,0.11579 -0.106351,-0.0412 -0.211847,-0.11467 -0.304327,-0.20841 -0.26144,-0.2584 -0.232805,-0.20421 -0.207957,-0.53662 0.02819,-0.37712 0.263539,-0.66135 0.488852,-0.8726 0.326733,-0.26632 0.659095,-0.37534 1.019456,-0.41229 0.452054,-0.0432 0.802439,-0.01 1.212402,0.098 0.227363,0.0732 0.303059,-0.32501 0.329077,-0.39271 0.03879,-0.10158 -0.175773,-0.53962 -0.353448,-0.78611 -0.29417,-0.40811 -0.726646,-0.7125 -1.214344,-0.85469 -0.224575,-0.0655 -0.752386,-0.0897 -1.018893,-0.0469 -1.488276,0.27848 -1.98535,1.11495 -2.575318,2.14719 -0.681786,1.18214 -1.456417,1.63252 -2.096755,1.85265 -0.229536,0.0789 -0.660286,0.10244 -0.8536733,0.0466 z"/>
  <path style="opacity:0.1;fill:#8b9cbe" d="m 17.576172,311.3 c -0.311284,-0.002 -0.627038,0.0125 -0.857422,0.043 -1.52917,0.20242 -2.859045,0.79597 -3.982422,1.7793 -0.73476,0.64316 -1.518551,1.6428 -2.261719,2.88476 -0.5764955,0.96342 -1.103473,2.00475 -2.0664059,4.08399 -1.4595825,3.15164 -2.2003708,4.49993 -3.2402343,5.89648 -0.6864388,0.92189 -1.1061674,1.1973 -1.7636719,1.3125 -0.2429259,0.0425 -0.4982215,0.032 -0.7578125,-0.0293 -0.3488585,-0.0824 -0.7939804,-0.31469 -0.9980469,-0.58398 -0.049226,-0.065 -0.096729,-0.11815 -0.1054687,-0.11914 -0.00874,-7.6e-4 -0.023723,0.08 -0.033203,0.18164 -0.014938,0.1602 -0.01014,0.31737 0.00586,0.4707 0.00917,-0.0788 0.020003,-0.15494 0.027344,-0.1543 0.00874,10e-4 0.056242,0.0561 0.1054687,0.1211 0.2040665,0.26929 0.6491884,0.50158 0.9980469,0.58398 0.259591,0.0613 0.5148866,0.0698 0.7578125,0.0273 0.6575035,-0.11519 1.0772321,-0.38865 1.7636709,-1.31054 1.0398635,-1.39655 1.7806518,-2.74484 3.2402343,-5.89648 0.9629329,-2.07924 1.4899104,-3.12057 2.0664059,-4.08399 0.743168,-1.24196 1.526959,-2.2416 2.261719,-2.88476 1.123377,-0.98333 2.453252,-1.57688 3.982422,-1.7793 0.460767,-0.061 1.257879,-0.0556 1.693359,0.0117 1.562417,0.2414 2.764505,1.01793 3.503907,2.26562 0.238525,0.4025 0.444163,0.97344 0.539062,1.49805 0.01964,0.10858 0.0224,0.29182 0.0293,0.45898 0.01446,-0.34868 0.01166,-0.73259 -0.0293,-0.95898 -0.0949,-0.52461 -0.300537,-1.09555 -0.539062,-1.49805 -0.739402,-1.24769 -1.94149,-2.02422 -3.503907,-2.26562 -0.21774,-0.0337 -0.524653,-0.0525 -0.835937,-0.0547 z m -0.572266,8.82031 c -0.01438,0.74203 0.07894,1.5178 0.306641,2.33203 0.900252,2.09037 3.194479,4.10373 4.626953,5.10547 0.222145,0.15207 0.316458,0.26006 0.375,0.37696 0.05744,-0.10968 0.08731,-0.21785 0.07227,-0.32813 -0.02928,-0.21471 -0.122062,-0.32622 -0.447266,-0.54883 -1.432474,-1.00174 -3.726701,-3.0151 -4.626953,-5.10547 -0.176913,-0.63261 -0.275834,-1.24225 -0.306641,-1.83203 z m -6.166015,6.15821 c -1.0853627,0.0412 -1.7374843,0.79689 -1.7949222,1.59765 -0.016235,0.14442 -0.00517,0.27053 0.017578,0.39063 0.1058209,-0.75933 0.7410661,-1.45085 1.7773442,-1.49024 0.190052,-5e-4 0.39461,0.0287 0.609375,0.0762 0.111755,0.0247 0.250636,0.0611 0.308593,0.082 0.09489,0.0343 0.109743,0.0353 0.160157,0.002 0.0746,-0.0491 0.07051,-0.096 -0.02734,-0.33984 -0.01961,-0.0489 -0.05186,-0.0957 -0.07422,-0.14453 -0.01752,-0.004 -0.02954,-0.005 -0.05859,-0.0156 -0.05796,-0.0209 -0.196838,-0.0593 -0.308593,-0.084 -0.214765,-0.0475 -0.419323,-0.0747 -0.609375,-0.0742 z m 7.18164,0.85156 c -0.05013,0.1135 -0.123015,0.21471 -0.25,0.17383 -0.409963,-0.108 -0.758883,-0.14086 -1.210937,-0.0977 -0.360361,0.0369 -0.692798,0.14578 -1.019532,0.4121 -0.225313,0.21126 -0.462044,0.49593 -0.490234,0.87305 -0.01457,0.19496 -0.0069,0.26589 0.03516,0.33594 0.0732,-0.2959 0.264168,-0.52999 0.455078,-0.70899 0.326734,-0.26632 0.659171,-0.37515 1.019532,-0.4121 0.452054,-0.0432 0.800974,-0.0103 1.210937,0.0977 0.03148,0.0101 0.05414,-0.006 0.08008,-0.0117 0.02402,-0.0377 0.04584,-0.0617 0.07031,-0.10157 0.06822,-0.11121 0.117568,-0.17909 0.173828,-0.26367 9.25e-4,-0.003 0.005,-0.0135 0.0059,-0.0156 0.01606,-0.0421 -0.02985,-0.16128 -0.08008,-0.28125 z m 1.701172,1.10156 c -0.272551,0.008 -0.523887,0.16354 -0.652344,0.42578 0,0 -0.01573,0.19535 0.0957,0.36914 0.19603,-0.25031 0.517395,-0.36185 0.832032,-0.2539 0.08311,0.0285 0.17598,0.0886 0.267578,0.17382 0.111444,0.1037 0.498245,0.11743 0.705078,0.084 5.15e-4,-2.3e-4 0.0014,2.4e-4 0.002,0 0.04808,-0.0216 0.08847,-0.0551 0.134766,-0.0801 0.0392,-0.10616 0.046,-0.3733 0.0098,-0.56054 -1.09e-4,-5.7e-4 1.1e-4,-10e-4 0,-0.002 -0.006,0.0296 -0.0069,0.0793 -0.01563,0.0957 -0.04311,0.081 -0.686958,0.10151 -0.835937,-0.0371 -0.0916,-0.0853 -0.184468,-0.14338 -0.267578,-0.17188 -0.09201,-0.0316 -0.184541,-0.0458 -0.275391,-0.043 z"/>
 </g>
</svg>
