<svg xmlns="http://www.w3.org/2000/svg" width="24" height="24" version="1">
 <path style="opacity:0.2" d="m 22,19.5 c 0,0.554 -0.446,1 -1,1 H 3 c -0.554,0 -1,-0.446 -1,-1 v -14 c 0,-0.554 0.446,-1 1,-1 h 13 l 0.5,5.5 5.5,0.5 z"/>
 <path style="fill:#4f4f4f" d="m 22,19 c 0,0.554 -0.446,1 -1,1 H 3 C 2.446,20 2,19.554 2,19 V 5 C 2,4.446 2.446,4 3,4 H 16 L 16.5,9.5 22,10 Z"/>
 <path style="opacity:0.2" d="m 7,6.5 v 12 h 2 v -5 h 2 v -2 H 9 v -2 h 5 v -3 z m 6.25,6.001953 -0.06641,0.789063 a 2.35715,2.3567667 0 0 0 -0.6875,0.398437 l -0.71875,-0.337891 -0.75,1.298829 0.652344,0.453125 A 2.35715,2.3567667 0 0 0 11.642578,15.5 a 2.35715,2.3567667 0 0 0 0.03516,0.398438 l -0.65039,0.453124 0.75,1.296876 0.716797,-0.335938 a 2.35715,2.3567667 0 0 0 0.689453,0.396484 L 13.25,18.5 h 1.5 l 0.06641,-0.789062 a 2.35715,2.3567667 0 0 0 0.6875,-0.398438 l 0.71875,0.335938 0.75,-1.296876 -0.652344,-0.453124 A 2.35715,2.3567667 0 0 0 16.357422,15.5 2.35715,2.3567667 0 0 0 16.322266,15.101562 l 0.65039,-0.451171 -0.75,-1.298829 -0.716797,0.337891 A 2.35715,2.3567667 0 0 0 14.816406,13.294922 L 14.75,12.501953 Z M 14,14.5 a 1,0.99999985 0 0 1 1,1 1,0.99999985 0 0 1 -1,1 1,0.99999985 0 0 1 -1,-1 1,0.99999985 0 0 1 1,-1 z"/>
 <path style="opacity:0.1;fill:#8b9cbe" d="M 3,4 C 2.446,4 2,4.446 2,5 v 0.5 c 0,-0.554 0.446,-1 1,-1 H 16 V 4 Z"/>
 <path style="opacity:0.2" d="m 22,10.5 h -5 c -0.5523,0 -1,-0.447715 -1,-1 v -5 z"/>
 <path style="fill:#676767" d="M 22,10 H 17 C 16.4477,10 16,9.552285 16,9 V 4 Z"/>
 <path style="fill:#3f92e7" d="m 9.750634,12.5 -10e-4,0.002 h 10e-4 z"/>
 <path style="fill:#ff6363" d="m 7,6.0000253 h 7.00015 V 8.9999748 H 9 V 11 h 1.99985 v 2 H 9 v 5 H 7 Z"/>
 <path style="fill:#3f92e7" d="m 13.250636,12.001954 -0.06641,0.789062 a 2.35715,2.3567667 0 0 0 -0.688476,0.398438 l -0.71875,-0.338868 -0.75,1.299805 0.652343,0.452149 a 2.35715,2.3567667 0 0 0 -0.03613,0.397461 2.35715,2.3567667 0 0 0 0.03418,0.398437 l -0.65039,0.452148 0.75,1.298828 0.716796,-0.336914 a 2.35715,2.3567667 0 0 0 0.69043,0.395508 L 13.249659,18 h 1.5 l 0.06641,-0.790039 a 2.35715,2.3567667 0 0 0 0.688477,-0.398437 l 0.717773,0.33789 0.75,-1.298828 -0.651367,-0.453125 a 2.35715,2.3567667 0 0 0 0.03614,-0.39746 2.35715,2.3567667 0 0 0 -0.03418,-0.398438 l 0.650391,-0.451172 -0.75,-1.298828 -0.716797,0.336914 a 2.35715,2.3567667 0 0 0 -0.690432,-0.394531 l -0.06641,-0.791992 z m 0.749024,1.998047 a 1,0.99999985 0 0 1 1,1 1,0.99999985 0 0 1 -1,0.999999 1,0.99999985 0 0 1 -1,-0.999999 1,0.99999985 0 0 1 1,-1 z"/>
</svg>
