<svg xmlns="http://www.w3.org/2000/svg" width="24" height="24" version="1">
 <path style="opacity:0.2" d="m 5,2.5 c -0.554,0 -1,0.446 -1,1 v 18 c 0,0.554 0.446,1 1,1 h 14 c 0.554,0 1,-0.446 1,-1 V 8.5 L 14.5,8 14,2.5 Z"/>
 <path style="fill:#348ee2" d="M 5,2 C 4.446,2 4,2.446 4,3 v 18 c 0,0.554 0.446,1 1,1 h 14 c 0.554,0 1,-0.446 1,-1 V 8 L 14.5,7.5 14,2 Z"/>
 <path style="opacity:0.2;fill:#8b9cbe" d="M 5,2 C 4.446,2 4,2.446 4,3 v 0.5 c 0,-0.554 0.446,-1 1,-1 h 9 L 19.5,8 H 20 L 14,2 Z"/>
 <path style="opacity:0.2" d="m 14,2.5 v 5 c 0,0.5523 0.447715,1 1,1 h 5 z"/>
 <path style="fill:#7caff5" d="m 14,2 v 5 c 0,0.5523 0.447715,1 1,1 h 5 z"/>
 <path style="opacity:0.2" d="m 11.5,9.5 -2.5,8 -1.539,-5 H 4 v 1 h 2.531 l 2.469,7 2.5,-8 1.5,5 2,-5.5 1.5,5.5 H 20 v -1 H 17.5 L 15,10 13,14 Z"/>
 <path style="fill:#8b9cbe" d="M 11.5,9 9,17 7.461,12 H 4 v 1 H 6.531 L 9,20 11.5,12 13,17 15,11.5 16.5,17 H 20 V 16 H 17.5 L 15,9.5 l -2,4 z"/>
</svg>
