<svg xmlns="http://www.w3.org/2000/svg" width="24" height="24" version="1.1">
 <path style="opacity:0.2" d="m 5,2.5 c -0.554,0 -1,0.446 -1,1 v 18 c 0,0.554 0.446,1 1,1 h 14 c 0.554,0 1,-0.446 1,-1 v -13 l -6,-6 z"/>
 <path style="fill:#83bc3d" d="M 5,2 C 4.446,2 4,2.446 4,3 v 18 c 0,0.554 0.446,1 1,1 h 14 c 0.554,0 1,-0.446 1,-1 V 8 L 15,7 14,2 Z"/>
 <path style="opacity:0.2" d="m 20,8.5 -6,-6 v 5 c 0,0.554 0.446,1 1,1 z"/>
 <path style="fill:#b2d885" d="M 20,8 14,2 v 5 c 0,0.554 0.446,1 1,1 z"/>
 <path style="opacity:0.2;fill:#8b9cbe" d="M 5,2 C 4.446,2 4,2.446 4,3 v 0.5 c 0,-0.554 0.446,-1 1,-1 h 9 V 2 Z"/>
 <path style="opacity:0.2" d="m 7.46875,11.494141 a 0.50005,0.50005 0 0 0 -0.397461,0.762695 l 1.013672,1.689453 C 6.932596,14.929275 6.1534565,16.333536 6.0009765,17.922851 5.973417,18.500331 6.583008,18.5 6.583008,18.5 h 10.819336 c 0,0 0.627076,-1.26e-4 0.596679,-0.606446 -0.159115,-1.578225 -0.936531,-2.972238 -2.083007,-3.949218 l 1.012695,-1.6875 a 0.50005,0.50005 0 0 0 -0.41211,-0.762695 0.50005,0.50005 0 0 0 -0.445312,0.249023 l -0.96875,1.615235 C 14.195989,12.815596 13.13592,12.5 12.000977,12.5 10.86522,12.5 9.8052665,12.815777 8.8984375,13.359375 L 7.928711,11.743164 a 0.50005,0.50005 0 0 0 -0.4101565,-0.249023 0.50005,0.50005 0 0 0 -0.049804,0 z M 9.25,15.5 A 0.75,0.75 0 0 1 10,16.25 0.75,0.75 0 0 1 9.25,17 0.75,0.75 0 0 1 8.5,16.25 0.75,0.75 0 0 1 9.25,15.5 Z m 5.5,0 A 0.75,0.75 0 0 1 15.5,16.25 0.75,0.75 0 0 1 14.75,17 0.75,0.75 0 0 1 14,16.25 0.75,0.75 0 0 1 14.75,15.5 Z"/>
 <path style="fill:none;stroke:#8b9cbe;stroke-linecap:round" d="m 8.7,13.5 -1.2,-2"/>
 <path style="fill:none;stroke:#8b9cbe;stroke-linecap:round" d="m 15.3,13.5 1.2,-2"/>
 <path style="fill:#8b9cbe" d="M 12.000977,12 C 8.8675195,12 6.292903,14.380072 6.0009765,17.422851 5.973417,18.000331 6.583008,18 6.583008,18 h 10.819336 c 0,0 0.627076,-1.26e-4 0.596679,-0.606446 C 17.693646,14.364591 15.124527,12 12.000977,12 Z M 9.25,15 A 0.75,0.75 0 0 1 10,15.75 0.75,0.75 0 0 1 9.25,16.5 0.75,0.75 0 0 1 8.5,15.75 0.75,0.75 0 0 1 9.25,15 Z m 5.5,0 A 0.75,0.75 0 0 1 15.5,15.75 0.75,0.75 0 0 1 14.75,16.5 0.75,0.75 0 0 1 14,15.75 0.75,0.75 0 0 1 14.75,15 Z"/>
</svg>
