<svg xmlns="http://www.w3.org/2000/svg" width="24" height="24" version="1">
 <path style="opacity:0.2" d="m 22,20.5 v -16 c 0,-0.554 -0.446,-1 -1,-1 H 3 c -0.554,0 -1,0.446 -1,1 v 16 c 0,0.554 0.446,1 1,1 h 18 c 0.554,0 1,-0.446 1,-1 z"/>
 <path style="fill:#4f4f4f" d="M 22,20 V 4 C 22,3.446 21.554,3 21,3 H 3 C 2.446,3 2,3.446 2,4 v 16 c 0,0.554 0.446,1 1,1 h 18 c 0.554,0 1,-0.446 1,-1 z"/>
 <path style="fill:#8b9cbe;opacity:0.1" d="M 3 3 C 2.446 3 2 3.446 2 4 L 2 4.5 C 2 3.946 2.446 3.5 3 3.5 L 21 3.5 C 21.554 3.5 22 3.946 22 4.5 L 22 4 C 22 3.446 21.554 3 21 3 L 3 3 z"/>
 <path style="fill:#e14c39" d="m 11,3 0.03906,18 H 13 V 3 Z"/>
 <path style="opacity:0.2" d="M 15,2.5 H 12 9 l 1.5,2 1.5,2 1.5,-2 z"/>
 <path style="opacity:0.2;fill-rule:evenodd" d="m 9,7.5 v 1 h 1 v -1 z m -2,2 v 1 h 3 v -1 z m -2,2 v 1 h 5 v -1 z m -2,2 v 1 h 7 v -1 z m 2,2 v 1 h 5 v -1 z m 3,2 v 1 h 2 v -1 z"/>
 <path style="fill:#83b9f5;fill-rule:evenodd" d="m 9,7 v 1 h 1 V 7 Z M 7,9 v 1 h 3 V 9 Z m -2,2 v 1 h 5 v -1 z m -2,2 v 1 h 7 v -1 z m 2,2 v 1 h 5 v -1 z m 3,2 v 1 h 2 v -1 z"/>
 <path style="fill:#ff6161" d="M 15,2 H 12 9 L 10.5,3.9999999 12,6 13.5,4 Z"/>
 <path style="opacity:0.2" d="m 14.518432,8.5006936 c -0.245509,0.01489 -0.509869,0.2577465 -0.509252,0.526843 L 14,16.972564 c 0,0.358823 0.46944,0.671054 0.737986,0.457889 l 5.05952,-3.986096 c 0.2703,-0.210531 0.269683,-0.704389 0,-0.915854 L 14.747371,8.5696446 c -0.06741,-0.05282 -0.146901,-0.073866 -0.228774,-0.068951 z"/>
 <path style="fill:#3a7cca" d="m 14.518432,8.0006936 c -0.245509,0.01489 -0.509869,0.2577465 -0.509252,0.526843 L 14,16.472565 c 0,0.358822 0.46944,0.671053 0.737986,0.457888 l 5.05952,-3.986096 c 0.2703,-0.210531 0.269683,-0.704389 0,-0.915854 L 14.747371,8.0696446 c -0.06741,-0.05282 -0.146901,-0.073866 -0.228774,-0.068951 z"/>
 <path style="opacity:0.1;fill:#8b9cbe;fill-rule:evenodd" d="m 9,7 v 0.5 h 1 V 7 Z M 7,9 v 0.5 h 3 V 9 Z m -2,2 v 0.5 h 5 V 11 Z m -2,2 v 0.5 h 7 V 13 Z m 2,2 v 0.5 h 5 V 15 Z m 3,2 v 0.5 h 2 V 17 Z"/>
 <path style="opacity:0.1;fill:#8b9cbe" d="m 14.518555,8.0009771 c -0.245509,0.01489 -0.510383,0.257271 -0.509766,0.5263675 L 14,16.472657 c 0,0.0013 9.5e-4,0.0025 10e-4,0.0039 l 0.0078,-7.4492189 c -6e-4,-0.2690965 0.264257,-0.5114775 0.509766,-0.5263675 0.08187,-0.0049 0.161101,0.01554 0.228516,0.068359 l 5.050781,3.9589854 c 0.06878,0.05393 0.119574,0.12672 0.15332,0.208008 0.09802,-0.236984 0.04733,-0.550668 -0.15332,-0.708008 L 14.747071,8.0693366 c -0.06742,-0.05282 -0.146644,-0.073275 -0.228516,-0.068359 z"/>
</svg>
