<svg xmlns="http://www.w3.org/2000/svg" width="24" height="24" version="1.1">
 <path style="opacity:0.2" d="m 5,2.5 c -0.554,0 -1,0.446 -1,1 v 18 c 0,0.554 0.446,1 1,1 h 14 c 0.554,0 1,-0.446 1,-1 v -13 l -6,-6 z"/>
 <path style="fill:#cd9f00" d="M 5,2 C 4.446,2 4,2.446 4,3 v 18 c 0,0.554 0.446,1 1,1 h 14 c 0.554,0 1,-0.446 1,-1 V 8 L 15,7 14,2 Z"/>
 <path style="opacity:0.2" d="m 20,8.5 -6,-6 v 5 c 0,0.554 0.446,1 1,1 z"/>
 <path style="fill:#e9c235" d="M 20,8 14,2 v 5 c 0,0.554 0.446,1 1,1 z"/>
 <path style="opacity:0.2;fill:#8b9cbe" d="M 5,2 C 4.446,2 4,2.446 4,3 v 0.5 c 0,-0.554 0.446,-1 1,-1 h 9 V 2 Z"/>
 <path style="opacity:0.1" d="M 9,5.5 V 6 8.5 H 8 v 4 h 1 v 2.25 L 8,15.5 V 15 14.5 H 7 V 15 16.425781 A 0.50005,0.50005 0 0 0 6.9941406,16.5 H 4.5 4 v 1 H 4.5 7 V 19 19.5 H 8 V 19 17.707031 l 1,1 V 20.5 H 8.5 8 v 1 h 0.5 0.9199219 a 0.50005,0.50005 0 0 0 0.1621093,0 H 10.5 11 v -1 H 10.5 10 V 18.595703 A 0.50005,0.50005 0 0 0 9.9550781,18.285156 0.50005,0.50005 0 0 0 9.8007812,18.09375 L 8.2617188,16.554688 9.7460938,15.441406 A 0.50005,0.50005 0 0 0 9.9277344,15.265625 0.50005,0.50005 0 0 0 10,14.917969 V 14.5 h 4 v 1 h 4.207031 l 1.5,-1.5 -1.5,-1.5 H 14 v 0.5 0.5 h -4 v -1 h 0.5 0.5 v -1 -3 H 10 V 6 5.5 Z m 0,4 h 1 v 2 H 9 Z m 6,4 h 2.792969 l 0.5,0.5 -0.5,0.5 H 15 Z m -3,3 v 6 h 1 v -5 h 7 v -1 z m 2,2 v 1 h 2 v -1 z m 3,0 v 1 h 2 v -1 z m -3,2 v 1 h 3 v -1 z m 4,0 v 1 h 1 v -1 z"/>
 <path style="fill:#9f2e03" d="M 9 5 L 9 5.5 L 9 8 L 8 8 L 8 12 L 9 12 L 9 14.25 L 8 15 L 8 14.5 L 8 14 L 7 14 L 7 14.5 L 7 15.925781 A 0.50005 0.50005 0 0 0 6.9941406 16 L 4.5 16 L 4 16 L 4 17 L 4.5 17 L 7 17 L 7 18.5 L 7 19 L 8 19 L 8 18.5 L 8 17.207031 L 9 18.207031 L 9 20 L 8.5 20 L 8 20 L 8 21 L 8.5 21 L 9.4199219 21 A 0.50005 0.50005 0 0 0 9.5820312 21 L 10.5 21 L 11 21 L 11 20 L 10.5 20 L 10 20 L 10 18.095703 A 0.50005 0.50005 0 0 0 9.9550781 17.785156 A 0.50005 0.50005 0 0 0 9.8007812 17.59375 L 8.2617188 16.054688 L 9.7460938 14.941406 A 0.50005 0.50005 0 0 0 9.9277344 14.765625 A 0.50005 0.50005 0 0 0 10 14.417969 L 10 14 L 14 14 L 14 15 L 18.207031 15 L 19.707031 13.5 L 18.207031 12 L 14 12 L 14 12.5 L 14 13 L 10 13 L 10 12 L 10.5 12 L 11 12 L 11 11 L 11 8 L 10 8 L 10 5.5 L 10 5 L 9 5 z M 9 9 L 10 9 L 10 11 L 9 11 L 9 9 z M 15 13 L 17.792969 13 L 18.292969 13.5 L 17.792969 14 L 15 14 L 15 13 z M 12 16 L 12 22 L 13 22 L 13 17 L 20 17 L 20 16 L 12 16 z M 14 18 L 14 19 L 16 19 L 16 18 L 14 18 z M 17 18 L 17 19 L 19 19 L 19 18 L 17 18 z M 14 20 L 14 21 L 17 21 L 17 20 L 14 20 z M 18 20 L 18 21 L 19 21 L 19 20 L 18 20 z"/>
</svg>
