<svg xmlns="http://www.w3.org/2000/svg" width="24" height="24" version="1">
 <path style="opacity:0.2" d="m 5,2.5 c -0.554,0 -1,0.446 -1,1 v 18 c 0,0.554 0.446,1 1,1 h 14 c 0.554,0 1,-0.446 1,-1 V 8.5 L 14.5,8 14,2.5 Z"/>
 <path fill="#b2bfd9" d="m5 2c-0.554 0-1 0.446-1 1v18c0 0.554 0.446 1 1 1h14c0.554 0 1-0.446 1-1v-13l-5.5-0.5-0.5-5.5z"/>
 <path fill="#fff" opacity=".2" d="m5 2c-0.554 0-1 0.446-1 1v0.5c0-0.554 0.446-1 1-1h9l5.5 5.5h0.5l-6-6z"/>
 <path style="opacity:0.2" d="m 14,2.5 v 5 c 0,0.5523 0.44772,1 1,1 h 5 z"/>
 <path fill="#fafafa" d="m14 2v5c0 0.5523 0.44772 1 1 1h5l-6-6z"/>
 <path style="fill:#d84747" d="m12 10c-1.4773 0-3.1086 1.0454-3 2.3213v1.6786h-0.33371c-0.3692 0-0.6663 0.184-0.6663 0.5v3.9282c0 0.317 0.29714 0.5715 0.66629 0.5715h6.6674c0.369 0 0.666-0.255 0.666-0.572v-3.928c0-0.31657-0.30935-0.4999-0.66629-0.4999h-0.334v-1.678c0-1.28-1.523-2.322-3-2.322zm0 2c0.63314 0 0.94748-0.05151 1 0.5v1.5001h-2v-1.5c0-0.554 0.367-0.5 1-0.5z"/>
</svg>
