<svg xmlns="http://www.w3.org/2000/svg" width="24" height="24" version="1">
 <path style="opacity:0.2" d="m 5,2.5 c -0.554,0 -1,0.446 -1,1 v 18 c 0,0.554 0.446,1 1,1 h 14 c 0.554,0 1,-0.446 1,-1 V 8.5 L 14.5,8 14,2.5 Z"/>
 <path fill="#1e98d1" d="m5 2c-0.554 0-1 0.446-1 1v18c0 0.554 0.446 1 1 1h14c0.554 0 1-0.446 1-1v-13l-5.5-0.5-0.5-5.5z"/>
 <path fill="#fff" style="opacity:0.2" d="m5 2c-0.554 0-1 0.446-1 1v0.5c0-0.554 0.446-1 1-1h9l5.5 5.5h0.5l-6-6z"/>
 <path style="opacity:0.2" d="m 14,2.5 v 5 c 0,0.5523 0.44772,1 1,1 h 5 z"/>
 <path fill="#67bbe9" d="m14 2v5c0 0.5523 0.44772 1 1 1h5l-6-6z"/>
 <path style="opacity:0.2" d="M 8.799569,10.500212 A 0.78133646,0.78170941 0 0 0 8,11.281844 v 7.436692 a 0.78133646,0.78170941 0 0 0 1.171887,0.676803 l 6.437752,-3.718346 a 0.78133646,0.78170941 0 0 0 0,-1.353606 L 9.171887,10.605039 A 0.78133646,0.78170941 0 0 0 8.799569,10.500212 Z"/>
 <path style="fill:#8b9cbe" d="M 8.799569,10.000212 A 0.78133646,0.78170941 0 0 0 8,10.781844 v 7.436692 a 0.78133646,0.78170941 0 0 0 1.171887,0.676803 l 6.437752,-3.718346 a 0.78133646,0.78170941 0 0 0 0,-1.353606 L 9.171887,10.105039 A 0.78133646,0.78170941 0 0 0 8.799569,10.000212 Z"/>
</svg>
