<svg xmlns="http://www.w3.org/2000/svg" width="24" height="24" version="1.1">
 <path style="opacity:0.2" d="m 5,2.5 c -0.554,0 -1,0.446 -1,1 v 18 c 0,0.554 0.446,1 1,1 h 14 c 0.554,0 1,-0.446 1,-1 v -13 l -6,-6 z"/>
 <path style="fill:#b4262c" d="M 5,2 C 4.446,2 4,2.446 4,3 v 18 c 0,0.554 0.446,1 1,1 h 14 c 0.554,0 1,-0.446 1,-1 V 8 L 15,7 14,2 Z"/>
 <path style="opacity:0.2" d="m 20,8.5 -6,-6 v 5 c 0,0.554 0.446,1 1,1 z"/>
 <path style="fill:#c64c51" d="M 20,8 14,2 v 5 c 0,0.554 0.446,1 1,1 z"/>
 <path style="opacity:0.1;fill:#8b9cbe" d="M 5,2 C 4.446,2 4,2.446 4,3 v 0.5 c 0,-0.554 0.446,-1 1,-1 h 9 V 2 Z"/>
 <path style="opacity:0.2" d="m 10.310547,11.500262 c -0.150808,0.015 -0.157928,0.01083 -0.175781,0.200195 -0.02843,2.611364 -0.6355775,5.13577 -2.2304685,6.339844 -0.1768475,0.115719 -0.196082,0.116205 -0.086914,0.30957 l 0.552734,0.979492 c 0.101234,0.241278 0.1513245,0.179044 0.314453,0.06836 1.100747,-0.770016 1.8036225,-1.784627 2.1562505,-3.029297 0.11898,-0.419969 0.179857,-0.866304 0.21289,-1.339844 v 4.233399 c -0.011,0.227689 -0.0019,0.233398 0.208985,0.233398 h 1.59375 c 0.219002,0.02419 0.140629,-0.04487 0.140625,-0.248047 v -3.754883 c 0.03425,0.302781 0.08277,0.595933 0.162108,0.875977 0.35263,1.244669 1.055502,2.259281 2.15625,3.029297 0.163128,0.110684 0.21322,0.172918 0.314454,-0.06836 l 0.552734,-0.979492 c 0.109165,-0.193366 0.08994,-0.193851 -0.08691,-0.30957 -1.594891,-1.204074 -2.202029,-3.72848 -2.230468,-6.339844 -9e-4,-0.161241 -0.025,-0.202974 -0.175782,-0.200195 z"/>
 <path style="fill:#8b9cbe" d="m 10.310547,11.000195 c -0.150808,0.015 -0.157928,0.01083 -0.175781,0.200195 -0.02843,2.611364 -0.6355775,5.13577 -2.2304685,6.339844 -0.1768475,0.115719 -0.196082,0.116205 -0.086914,0.30957 l 0.552734,0.979492 c 0.101234,0.241278 0.1513245,0.179044 0.314453,0.06836 1.100747,-0.770016 1.8036225,-1.784627 2.1562505,-3.029297 0.11898,-0.419969 0.179857,-0.866304 0.21289,-1.339844 v 4.233399 c -0.011,0.227689 -0.0019,0.233398 0.208985,0.233398 h 1.59375 c 0.219002,0.02419 0.140629,-0.04486 0.140625,-0.248047 v -3.754883 c 0.03425,0.30278 0.08277,0.595933 0.162108,0.875977 0.35263,1.244669 1.055502,2.259281 2.15625,3.029297 0.163128,0.110684 0.21322,0.172918 0.314454,-0.06836 l 0.552734,-0.979492 c 0.109165,-0.193366 0.08994,-0.193851 -0.08691,-0.30957 -1.594891,-1.204074 -2.202029,-3.72848 -2.230468,-6.339844 -9e-4,-0.161241 -0.025,-0.202974 -0.175782,-0.200195 z"/>
</svg>
