<svg xmlns="http://www.w3.org/2000/svg" width="24" height="24" version="1">
 <path style="fill:#1fa5cd" d="M 9.9495,2.00085 C 9.737,2.02395 9.55,2.19735 9.511,2.40705 L 9.0885,4.54765 C 8.33,4.84385 7.617,5.25075 6.991,5.75075 L 4.9092,5.04765 C 4.6929,4.9732 4.4306,5.0697 4.3144,5.26635 l -2.0036,3.4689 c -0.11285,0.1995 -0.06445,0.4755 0.1096,0.625 l 1.6592,1.453 c -0.05843,0.38962 -0.093915,0.7816 -0.093915,1.1875 0,0.40587 0.035513,0.79785 0.093915,1.1875 l -1.6592,1.453 c -0.17405,0.1495 -0.22245,0.4255 -0.1096,0.625 l 2.0036,3.4687 c 0.1162,0.19671 0.37853,0.29319 0.5948,0.21874 l 2.0818,-0.7031 c 0.6257,0.49998 1.3388,0.9069 2.0975,1.2031 l 0.42263,2.1406 c 0.042825,0.22407 0.25673,0.40314 0.48524,0.40624 h 4.0072 c 0.2285,-0.003 0.4424,-0.18217 0.48524,-0.40624 l 0.42263,-2.1406 c 0.7587,-0.29618 1.4718,-0.70315 2.0975,-1.2031 l 2.0818,0.7031 c 0.21628,0.07445 0.47861,-0.02205 0.5948,-0.21874 l 2.0036,-3.4687 c 0.11286,-0.1995 0.06445,-0.4756 -0.10957,-0.625 l -1.6585,-1.453 c 0.05843,-0.38962 0.09392,-0.7816 0.09392,-1.1875 0,-0.40587 -0.03552,-0.79785 -0.09392,-1.1875 l 1.6592,-1.4531 c 0.17402,-0.14939 0.22242,-0.42548 0.10957,-0.625 l -2.0035,-3.4689 c -0.116,-0.1967 -0.3785,-0.29315 -0.5945,-0.2187 l -2.0818,0.7031 c -0.626,-0.5 -1.339,-0.90695 -2.0975,-1.2031 l -0.4225,-2.1406 C 14.44704,2.1829 14.23304,2.0038 14.00454,2.0007 h -4.0072 c -0.01563,-5e-4 -0.031305,-5e-4 -0.046935,0 z"/>
 <path style="opacity:0.2;fill:#8b9cbe" d="M 9.8975,2.00065 C 9.6795,2.0235 9.4875,2.1951 9.448,2.40255 L 9.0145,4.52015 C 8.2365,4.8132 7.505,5.21575 6.8635,5.71025 L 4.7288,5.01485 C 4.507,4.9412 4.238,5.03665 4.11885,5.23125 l -2.0546,3.4316 c 0.027942,0.049475 0.067745,0.08671 0.11236,0.12366 l 0.080255,0.06183 1.862,-3.1224 c 0.1192,-0.1945 0.3882,-0.28995 0.61,-0.2165 l 2.1348,0.6956 c 0.64165,-0.49462 1.3728,-0.8972 2.1509,-1.1902 l 0.4333,-2.1177 c 0.03981,-0.20746 0.23165,-0.37904 0.44944,-0.40189 0.016025,-4.947e-4 0.0321,-4.947e-4 0.04813,0 h 4.1092 c 0.23432,0.00297 0.45366,0.18022 0.49759,0.40189 l 0.43338,2.1176 c 0.77805,0.293 1.5092,0.6956 2.1509,1.1902 l 2.1348,-0.6956 c 0.22178,-0.073645 0.49079,0.021815 0.60995,0.2164 l 1.862,3.1224 0.08025,-0.06183 c 0.04463,-0.03695 0.08441,-0.074185 0.11236,-0.12366 l -2.055,-3.4316 c -0.119,-0.1946 -0.388,-0.29005 -0.61,-0.2164 l -2.1345,0.69545 c -0.6415,-0.4945 -1.373,-0.89705 -2.151,-1.1901 l -0.4335,-2.1176 c -0.044,-0.22165 -0.263,-0.3988 -0.4975,-0.4019 h -4.1092 c -0.016025,-4.947e-4 -0.032105,-4.947e-4 -0.04813,0 z M 2.016,8.98715 c 0.0094,0.0584 0.0195,0.1192 0.0481,0.17 -0.0279,-0.0495 -0.038,-0.1143 -0.0481,-0.17 z m 19.968,0 C 21.97388,9.042865 21.96376,9.10771 21.93587,9.15718 21.96458,9.106375 21.97465,9.04561 21.984,8.98715 Z M 3.83,11.16665 c -0.016334,0.15866 -0.023268,0.31914 -0.032103,0.47918 0.00308,0.08338 0.011249,0.16434 0.016026,0.24732 0.0132,-0.22827 0.029535,-0.45698 0.064205,-0.6801 l -0.04815,-0.0465 z m 16.34,0 -0.04813,0.04634 c 0.03467,0.22314 0.051,0.45186 0.06421,0.6801 0.0046,-0.08298 0.01294,-0.16393 0.01602,-0.24732 -0.0088,-0.16004 -0.01577,-0.32052 -0.03211,-0.47918 z m -16.34,1.9475 -1.6533,1.3915 C 2.132064,14.5426 2.092285,14.57984 2.06434,14.62931 l 0.19262,0.30914 1.6212,-1.3757 c -0.0228,-0.148 -0.0328,-0.301 -0.0481,-0.449 z m 16.34,0 c -0.01531,0.14836 -0.02532,0.30122 -0.04813,0.44826 l 1.6212,1.3757 0.19262,-0.30914 c -0.02794,-0.04948 -0.06774,-0.08671 -0.11236,-0.12366 l -1.654,-1.3915 z M 2,14.92215 c 0.00155,0.027 0.0099,0.0515 0.01605,0.0775 -0.0067,-0.0265 -0.0137,-0.05 -0.01605,-0.0775 z m 20,0 c -0.0025,0.0275 -0.0095,0.051 -0.016,0.0775 0.006,-0.026 0.0145,-0.0505 0.016,-0.0775 z"/>
 <path style="opacity:0.2" d="m 2.3144,9.22675 -0.0039,0.0078 c -0.11286,0.1995 -0.06367,0.47561 0.11035,0.625 l 1.6054,1.4062 c 0.015,-0.152 0.0312,-0.3035 0.05375,-0.4535 L 2.4208,9.35925 C 2.3774,9.32235 2.3417,9.27685 2.3144,9.22685 Z m 19.371,0 c -0.027,0.05 -0.062,0.0954 -0.106,0.1328 l -1.659,1.453 c 0.02251,0.15016 0.03872,0.3016 0.05371,0.45312 l 1.6054,-1.4062 c 0.17402,-0.14939 0.22321,-0.4255 0.11035,-0.625 l -0.0039,-0.00781 z m -17.69,3.0235 c -0.00297,0.08351 -0.010742,0.16538 -0.010742,0.25 0,0.24918 0.017163,0.49299 0.041016,0.7344 l 0.05375,-0.047 c -0.04625,-0.3085 -0.0727,-0.6205 -0.084,-0.9375 z m 16.008,0 c -0.01128,0.31707 -0.03774,0.6291 -0.08398,0.9375 l 0.05371,0.04687 c 0.02385,-0.24138 0.04102,-0.48519 0.04102,-0.7344 0,-0.08461 -0.0078,-0.16649 -0.01074,-0.25 z m -17.69,3.0235 c -0.0803,0.149 -0.0871,0.342 -0.0025,0.492 l 2.0039,3.4688 c 0.1162,0.19671 0.37844,0.2932 0.59475,0.21875 l 2.0818,-0.703 c 0.6257,0.49998 1.339,0.90695 2.0976,1.2031 l 0.42188,2.1406 c 0.0428,0.223 0.2569,0.402 0.4854,0.405 h 4.0078 c 0.22851,-0.003 0.4425,-0.18218 0.48535,-0.40625 l 0.42188,-2.1406 c 0.7585,-0.2965 1.4715,-0.7035 2.0975,-1.2035 l 2.082,0.7031 c 0.21628,0.07445 0.47852,-0.02206 0.59475,-0.21875 l 2.0039,-3.4688 c 0.08464,-0.14962 0.07783,-0.34216 -0.0039,-0.49219 l -2,3.461 c -0.1162,0.1967 -0.37844,0.2932 -0.59475,0.21875 l -2.082,-0.703 c -0.6257,0.49998 -1.339,0.90695 -2.0976,1.2031 l -0.42188,2.1406 c -0.043,0.2245 -0.257,0.4035 -0.4855,0.4065 h -4.0078 c -0.2271,-0.003 -0.4411,-0.182 -0.4839,-0.406 l -0.4219,-2.141 c -0.7585,-0.2965 -1.4715,-0.7035 -2.0975,-1.2035 l -2.082,0.7031 c -0.2163,0.074 -0.4786,-0.022 -0.5948,-0.219 l -2,-3.461 z"/>
 <path style="opacity:0.2" d="M 10.656715,7.5002728 C 10.340142,7.5002728 10,7.7435455 10,8.0457273 V 13.5 H 7.5 l 4.5,5 4.5,-5 H 14 V 8.0457273 C 14,7.7435454 13.659858,7.5002728 13.343286,7.5002728 Z"/>
 <path style="fill:#8b9cbe" d="M 10.656715,7.0002728 C 10.340142,7.0002728 10,7.2435455 10,7.5457272 V 13 H 7.5 l 4.5,5 4.5,-5 H 14 V 7.5457272 C 14,7.2435454 13.659858,7.0002728 13.343286,7.0002728 Z"/>
</svg>
