<svg xmlns="http://www.w3.org/2000/svg" width="24" height="24" version="1.1">
 <path style="opacity:0.2" d="m 5,2.5 c -0.554,0 -1,0.446 -1,1 l 0,18 c 0,0.554 0.446,1 1,1 l 14,0 c 0.554,0 1,-0.446 1,-1 l 0,-13 -6,-6 z"/>
 <path style="fill:#f4b43f" d="M 5,2 C 4.446,2 4,2.446 4,3 l 0,18 c 0,0.554 0.446,1 1,1 l 14,0 c 0.554,0 1,-0.446 1,-1 L 20,8 14,2 Z"/>
 <path style="opacity:0.2" d="m 20,8.5 -6,-6 0,5 c 0,0.554 0.446,1 1,1 z"/>
 <path style="fill:#ffdea2" d="m 20,8 -6,-6 0,5 c 0,0.554 0.446,1 1,1 z"/>
 <path style="opacity:0.2;fill:#8b9cbe" d="M 5,2 C 4.446,2 4,2.446 4,3 l 0,0.5 c 0,-0.554 0.446,-1 1,-1 l 9,0 L 14,2 5,2 Z"/>
 <path style="opacity:0.2" d="m 10.888551,10.085938 c -0.254021,0.02854 -0.497144,0.154582 -0.669921,0.371093 -0.3455547,0.433022 -0.2748195,1.058743 0.158203,1.404297 L 11.177614,12.5 l -3.1777344,0 c -0.554,0 -1,0.446 -1,1 0,0.554 0.446,1 1,1 l 1.4335938,0 -3.0195313,2.189453 c -0.4485324,0.325169 -0.5478249,0.947952 -0.2226563,1.396485 0.3251688,0.448532 0.947952,0.547824 1.3964844,0.222656 L 9.0701921,17.234375 A 4,4 0 0 0 12.99988,20.5 a 4,4 0 0 0 4,-4 4,4 0 0 0 -1.714844,-3.279297 4,4 0 0 0 -0.02734,-0.02148 L 11.62488,10.298828 C 11.408369,10.126051 11.142573,10.0574 10.888551,10.085938 Z M 12.99988,14.5 a 2,2 0 0 1 2,2 2,2 0 0 1 -2,2 2,2 0 0 1 -2,-2 2,2 0 0 1 2,-2 z m 0,1 a 1,1 0 0 0 -1,1 1,1 0 0 0 1,1 1,1 0 0 0 1,-1 1,1 0 0 0 -1,-1 z"/>
 <path style="fill:#8b9cbe" d="M 10.888551,9.5859375 C 10.63453,9.6144751 10.391407,9.7405201 10.21863,9.9570312 9.8730753,10.390053 9.9438105,11.015774 10.376833,11.361328 L 11.177614,12 7.9998796,12 c -0.554,0 -1,0.446 -1,1 0,0.554 0.446,1 1,1 l 1.4335938,0 -3.0195313,2.189453 c -0.4485324,0.325169 -0.5478249,0.947952 -0.2226563,1.396485 0.3251688,0.448532 0.947952,0.547824 1.3964844,0.222656 L 9.0701921,16.734375 A 4,4 0 0 0 12.99988,20 a 4,4 0 0 0 4,-4 4,4 0 0 0 -1.714844,-3.279297 4,4 0 0 0 -0.02734,-0.02148 L 11.62488,9.7988281 C 11.408369,9.626051 11.142573,9.5573999 10.888551,9.5859375 Z M 12.99988,14 a 2,2 0 0 1 2,2 2,2 0 0 1 -2,2 2,2 0 0 1 -2,-2 2,2 0 0 1 2,-2 z m 0,1 a 1,1 0 0 0 -1,1 1,1 0 0 0 1,1 1,1 0 0 0 1,-1 1,1 0 0 0 -1,-1 z"/>
</svg>
