<svg xmlns="http://www.w3.org/2000/svg" width="24" height="24" version="1">
 <path style="opacity:0.2" d="M 6.804746,2.502617 C 4.9309072,2.585527 2.8097711,4.893419 2.1825338,8.109521 2.0333017,8.915383 2.0039668,9.56155 2.0000031,10.289557 c 0.00174,0.06614 0.00182,0.131699 0.00488,0.198262 0.2529819,6.535967 5.5747,11.815284 12.1281159,12.005151 0.03342,0.0014 0.06634,0.0019 0.09965,0.0029 0.429638,0.0168 0.918346,-0.02136 1.31041,-0.04792 4.937266,-0.481963 8.158374,-4.481901 5.501031,-6.690087 C 19.53997,14.507787 16.767505,13.612687 13.866293,10.736888 10.806012,7.702554 9.9352101,4.827655 8.6531751,3.344501 8.1246731,2.733133 7.4812236,2.472686 6.804746,2.502617 Z"/>
 <path style="fill:#f17623" d="M 6.804746,2.002624 C 4.9309072,2.085534 2.8097711,4.393426 2.1825338,7.609528 2.0333017,8.415389 2.0039668,9.061557 2.0000031,9.789563 c 0.00174,0.06614 0.00182,0.131699 0.00488,0.198263 0.2529819,6.535966 5.5747,11.815283 12.1281159,12.00515 0.03342,0.0014 0.06634,0.0019 0.09965,0.0029 0.429638,0.0168 0.918346,-0.02136 1.31041,-0.04792 4.937266,-0.481962 8.158374,-4.481901 5.501031,-6.690087 C 19.53997,14.007794 16.767505,13.112693 13.866293,10.236895 10.806012,7.202561 9.9352101,4.327661 8.6531751,2.844508 8.1246731,2.23314 7.4812236,1.972692 6.804746,2.002624 Z"/>
 <path style="fill:#ffbf55" d="m 7.1395036,2.016918 a 10.500001,10.499863 0 0 0 -3.1395003,7.483403 10.500001,10.499863 0 0 0 10.5000007,10.499864 10.500001,10.499863 0 0 0 7.474501,-3.13846 c -0.0725,-0.582492 -0.3645,-1.134985 -0.9305,-1.605479 -1.504,-1.249983 -4.275001,-2.145972 -7.175001,-5.021435 -3.059,-3.03396 -3.9289999,-5.907423 -5.2109999,-7.390903 -0.4415,-0.510694 -0.9640005,-0.77099 -1.5185005,-0.82679 z"/>
 <path style="opacity:0.2" d="m 7.1396521,2.516914 c -2.0071852,1.972852 -3.1383242,4.668903 -3.1396488,7.483301 0,5.798914 4.7010108,10.499863 10.5000007,10.499863 2.811243,-0.0034 5.503708,-1.134002 7.47461,-3.138631 l -1.142578,-0.343746 c -1.737856,1.569932 -3.976721,2.479295 -6.332032,2.48239 -5.2582189,0 -9.4994661,-4.240878 -9.5000006,-9.4989 v -0.001 C 5.0013034,7.6728 5.891167,5.46033 7.4248081,3.729788 Z"/>
 <path style="fill:#8b9cbe" d="M 7.1396521,2.01692 C 5.1324669,3.989772 4.0013279,6.685823 4.0000033,9.500221 c 0,5.798915 4.7010108,10.499864 10.5000007,10.499864 2.811243,-0.0034 5.503708,-1.134003 7.47461,-3.138632 l -1.142578,-0.343745 c -1.737856,1.569931 -3.976721,2.479294 -6.332032,2.482389 -5.2582189,0 -9.4994661,-4.240877 -9.5000006,-9.498899 v -0.001 C 5.0013034,7.172783 5.891167,4.960312 7.4248081,3.229771 Z"/>
 <path style="opacity:0.2;fill:#8b9cbe" d="M 6.804691,2.002272 C 4.9308522,2.085182 2.8098576,4.393518 2.1826203,7.60962 2.0333882,8.415481 2.0039668,9.061273 2.0000031,9.78928 c 0.00174,0.06613 0.00182,0.131676 0.00488,0.198239 7.6e-4,0.01964 0.00305,0.03897 0.00391,0.05859 0.00978,-0.630673 0.041705,-1.223025 0.1738282,-1.936498 0.6272363,-3.216103 2.7482309,-5.524439 4.6220697,-5.607349 0.3830141,-0.01695 0.7545931,0.06295 1.1015626,0.243161 0.019205,0.0098 0.03857,0.01886 0.057617,0.0293 0.1045995,0.05827 0.2063385,0.126172 0.3056645,0.204098 0.03466,0.02689 0.06859,0.05658 0.102539,0.08594 0.07416,0.0647 0.146297,0.135326 0.216797,0.211911 0.02251,0.02432 0.04723,0.04181 0.06934,0.06738 1.282,1.483481 2.1519369,4.356568 5.2109379,7.390529 2.9,2.875462 5.670805,3.771436 7.174805,5.021419 0.01024,0.0085 0.01729,0.0178 0.02735,0.02636 0.118172,0.100391 0.221805,0.205354 0.316407,0.312496 0.0142,0.0162 0.03028,0.0315 0.04394,0.04785 0.09951,0.118049 0.183368,0.240527 0.255859,0.36523 0.0038,0.0066 0.008,0.01289 0.01172,0.01953 0.158026,0.277906 0.249395,0.570817 0.282227,0.871082 0.04837,-0.47486 -0.03745,-0.94062 -0.282227,-1.371076 -0.0037,-0.0066 -0.0079,-0.01291 -0.01172,-0.01953 -0.07249,-0.124702 -0.156345,-0.247181 -0.255859,-0.365229 -0.01366,-0.01635 -0.02974,-0.03164 -0.04394,-0.04785 -0.0946,-0.107142 -0.198235,-0.212105 -0.316407,-0.312496 -0.01006,-0.0086 -0.01711,-0.01786 -0.02735,-0.02636 -1.504,-1.249984 -4.274805,-2.145957 -7.174805,-5.02142 -3.059001,-3.03396 -3.9289379,-5.907048 -5.2109379,-7.390529 -0.0221,-0.02557 -0.04683,-0.04306 -0.06934,-0.06738 -0.0705,-0.07656 -0.142637,-0.14721 -0.216797,-0.211912 -0.03395,-0.02935 -0.06788,-0.05905 -0.102539,-0.08594 C 8.1702051,2.400896 8.0684701,2.333002 7.9638706,2.274727 7.9448246,2.264287 7.9254586,2.255227 7.9062536,2.245427 7.5592841,2.065218 7.1877051,1.985325 6.804691,2.002272 Z"/>
</svg>
