<svg xmlns="http://www.w3.org/2000/svg" width="24" height="24" version="1">
 <path style="fill:#0073d6" d="M 12.052734 2 A 2.2828188 2.2739687 0 0 0 10.857422 2.3046875 L 4.140625 6.1679688 A 2.2828188 2.2739687 0 0 0 3 8.1367188 L 3 15.863281 A 2.2828188 2.2739687 0 0 0 3.53125 17.322266 L 12 10.5 L 20.464844 17.320312 A 2.2828188 2.2739687 0 0 0 21 15.863281 L 21 8.1367188 A 2.2828188 2.2739687 0 0 0 19.857422 6.1660156 L 13.140625 2.3046875 A 2.2828188 2.2739687 0 0 0 12.054688 2 L 12.052734 2 z M 20.390625 17.40625 A 2.2828188 2.2739687 0 0 1 20.228516 17.566406 A 2.2828188 2.2739687 0 0 0 20.390625 17.40625 z M 3.6875 17.488281 A 2.2828188 2.2739687 0 0 0 3.8574219 17.638672 A 2.2828188 2.2739687 0 0 1 3.6875 17.488281 z M 4.0429688 17.771484 A 2.2828188 2.2739687 0 0 0 4.140625 17.832031 A 2.2828188 2.2739687 0 0 1 4.0429688 17.771484 z"/>
 <path style="opacity:0.1;fill:#8b9cbe" d="M 12.05335,2.0010149 A 2.2828188,2.2739687 0 0 0 10.858341,2.3037174 L 4.1412854,6.1670492 A 2.2828188,2.2739687 0 0 0 2.999776,8.1365654 V 8.6365695 A 2.2828188,2.2739687 0 0 1 4.1413854,6.6670533 L 10.858441,2.8037215 A 2.2828188,2.2739687 0 0 1 12.05375,2.500984 2.2828188,2.2739687 0 0 1 13.141659,2.8037215 l 6.717056,3.8633318 a 2.2828188,2.2739687 0 0 1 1.141509,1.9695162 V 8.1365654 A 2.2828188,2.2739687 0 0 0 19.858715,6.1670492 L 13.141659,2.3037174 A 2.2828188,2.2739687 0 0 0 12.05365,2.0010149 Z"/>
 <path style="opacity:0.2" d="m 2.999776,15.863129 v 0.500004 a 2.2828188,2.2739687 0 0 0 1.1416094,1.968766 l 6.7170556,3.863332 a 2.2828188,2.2739687 0 0 0 2.283218,0 l 6.717056,-3.863532 a 2.2828188,2.2739687 0 0 0 1.141509,-1.969016 v -0.500004 a 2.2828188,2.2739687 0 0 1 -1.141609,1.968766 l -6.717056,3.863332 a 2.2828188,2.2739687 0 0 1 -2.283218,0 L 4.1412854,17.831245 A 2.2828188,2.2739687 0 0 1 2.999776,15.862229 Z"/>
 <path style="opacity:0.3" d="M 12 2.0019531 A 2.2828188 2.2739687 0 0 0 10.857422 2.3046875 L 4.140625 6.1679688 A 2.2828188 2.2739687 0 0 0 3 8.1367188 L 3 15.863281 A 2.2828188 2.2739687 0 0 0 3.53125 17.322266 L 12 10.5 L 12 2.0019531 z M 4.0429688 17.771484 A 2.2828188 2.2739687 0 0 0 4.140625 17.832031 A 2.2828188 2.2739687 0 0 1 4.0429688 17.771484 z"/>
 <path style="fill:#ff9e43" d="M 11.99985,10.500085 3.532007,17.32143 a 2.2828188,2.2739687 0 0 0 0.60938,0.510746 l 6.716852,3.863313 a 2.2828188,2.2739687 0 0 0 2.283222,0 l 6.716852,-3.863313 a 2.2828188,2.2739687 0 0 0 0.607427,-0.511723 z"/>
 <path style="opacity:0.1" transform="matrix(0.48112522,0,0,0.50000411,0.64606775,0.28808406)" d="m 23.598706,12.423532 10.392304,6.000001 0,12 -10.392305,5.999999 -10.392305,-6 10e-7,-12 z"/>
 <path style="opacity:0.2;fill:#8b9cbe" d="M 11.99985,10.500085 3.532007,17.32143 a 2.2828188,2.2739687 0 0 0 0.2783226,0.275393 l 8.1895204,-6.596734 8.188544,6.596734 a 2.2828188,2.2739687 0 0 0 0.277346,-0.27637 z"/>
 <path style="fill:#f13f3f" transform="matrix(0.48112522,0,0,0.50000411,0.64606775,-0.2117695)" d="m 23.598706,12.423532 10.392304,6.000001 0,12 -10.392305,5.999999 -10.392305,-6 10e-7,-12 z"/>
 <path style="opacity:0.3" d="m 17,9.0000725 -5,3.0000245 v 6.000049 l 5,-3.000024 z"/>
 <path style="opacity:0.1" d="M 7.0000001,9.0000725 V 15.000122 L 12,18.000146 v -6.000049 z"/>
 <path style="opacity:0.1" d="M 7 9 L 7 9.5 L 12 12.5 L 17 9.5 L 17 9 L 12 12 L 7 9 z"/>
 <path style="opacity:0.2;fill:#8b9cbe" d="M 12 6 L 7 9 L 7.4160156 9.25 L 12 6.5 L 16.583984 9.25 L 17 9 L 12 6 z"/>
</svg>
