<svg width="24" height="24" version="1.1" xmlns="http://www.w3.org/2000/svg">
 <path d="m5 2.5c-0.554 0-1 0.446-1 1v18c0 0.554 0.446 1 1 1h14c0.554 0 1-0.446 1-1v-13l-6-6z" style="opacity:.2"/>
 <path d="m5 2c-0.554 0-1 0.446-1 1v18c0 0.554 0.446 1 1 1h14c0.554 0 1-0.446 1-1v-13l-5-1-1-5z" style="fill:#66548f"/>
 <path d="m20 8.5-6-6v5c0 0.554 0.446 1 1 1z" style="opacity:.2"/>
 <path d="m20 8-6-6v5c0 0.554 0.446 1 1 1z" style="fill:#8878ad"/>
 <path d="m5 2c-0.554 0-1 0.446-1 1v0.5c0-0.554 0.446-1 1-1h9v-0.5h-9z" style="fill:#8b9cbe;opacity:.2"/>
 <path d="m10.580078 11.490234c-1.8455551 0.03544-4.5020009 1.492338-4.5781249 4.054688-0.047618 1.602867 0.6517919 2.84166 3.3535157 2.941406l0.4628906-1.033203c-0.1628109 0.0183-0.4739619 0.05847-0.7167969 0.04883-0.998208-0.03965-2.1255975-0.897293-2.1191406-1.716797 0.018-2.284526 2.1272037-3.278985 3.8378901-3.296875 0.785964-0.0082 1.439454 0.320313 1.439454 0.320313l0.240234-0.978518s-0.567875-0.365809-1.919922-0.339844zm3.419922 0.009766-0.4375 3.0625a1.0001 1.0001 0 0 1 0.564453 0.529297l0.517578 1.160156 0.09375-0.806641 1.169922 0.01953s1.156071 0.03374 1.132813 0.757812c-0.041 1.276431-0.925066 1.253282-1.232422 1.257813l-0.611328 0.0098 0.46289 1.03125 0.197266 2e-3c0.889669 5e-3 2.103721-0.992158 2.152344-2.365235-0.01-0.658534-0.783203-1.220703-0.783204-1.220703 0 0 0.764334-0.755958 0.763672-1.6875-8e-4 -1.055446-1.324417-1.726564-1.636718-1.726562zm1.285156 0.990234 0.933594 0.01953s0.78125-0.0098 0.78125 1.166015c-0.06048 0.566569-0.692069 0.847806-1.046875 0.84375-0.31744-0.00354-0.953125-0.019529-0.953125-0.019529zm-5.785156 3.009766-0.5 1h1.244141l0.447265-1zm2.285156 0-1.785156 4h2.857422l-0.357422-1h-0.714844l0.714844-1.666016 1.072266 2.666016h1.427734l-1.785156-4z" style="opacity:.2"/>
 <path d="m10.580078 10.990234c-1.8455551 0.03544-4.5020009 1.492338-4.5781249 4.054688-0.0476184 1.602867 0.6517919 2.84166 3.3535157 2.941406l0.4628906-1.033203c-0.1628109 0.018299-0.4739619 0.058474-0.7167969 0.048828-0.998208-0.039646-2.1255975-0.897293-2.1191406-1.716797 0.018-2.284526 2.1272037-3.278985 3.8378901-3.296875 0.785964-0.008221 1.439454 0.320313 1.439454 0.320313l0.240234-0.978516s-0.567875-0.365809-1.919922-0.339844zm3.419922 0.009766-0.4375 3.0625a1.0001 1.0001 0 0 1 0.564453 0.529297l0.517578 1.160156 0.09375-0.806641 1.169922 0.019532s1.156071 0.033743 1.132813 0.757812c-0.041 1.276431-0.925066 1.253282-1.232422 1.257813l-0.611328 0.009765 0.46289 1.03125 0.197266 0.001954c0.889669 0.004999 2.103721-0.992158 2.152344-2.365235-0.01-0.658534-0.783203-1.220703-0.783204-1.220703 0 0 0.764334-0.755958 0.763672-1.6875-8e-4 -1.055446-1.324417-1.726564-1.636718-1.726562l-2.353516-0.023438zm1.285156 0.990234 0.933594 0.019532s0.78125-0.009795 0.78125 1.166015c-0.06048 0.566569-0.692069 0.847806-1.046875 0.84375-0.31744-0.003545-0.953125-0.019531-0.953125-0.019531l0.285156-2.009766zm-5.785156 3.009766-0.5 1h1.244141l0.447265-1h-1.191406zm2.285156 0-1.785156 4h2.857422l-0.357422-1h-0.714844l0.714844-1.666016 1.072266 2.666016h1.427734l-1.785156-4h-1.429688z" style="fill:#8b9cbe"/>
</svg>
