<svg xmlns="http://www.w3.org/2000/svg" width="24" height="24" version="1">
 <path style="opacity:0.2" d="m 5,2.5 c -0.554,0 -1,0.446 -1,1 v 18 c 0,0.554 0.446,1 1,1 h 14 c 0.554,0 1,-0.446 1,-1 V 8.5 L 14.5,8 14,2.5 Z"/>
 <path style="fill:#b2bfd9" d="M 5,2 C 4.446,2 4,2.446 4,3 v 18 c 0,0.554 0.446,1 1,1 h 14 c 0.554,0 1,-0.446 1,-1 V 8 L 14.5,7.5 14,2 Z"/>
 <path style="opacity:0.2;fill:#8b9cbe" d="M 5,2 C 4.446,2 4,2.446 4,3 v 0.5 c 0,-0.554 0.446,-1 1,-1 h 9 L 19.5,8 H 20 L 14,2 Z"/>
 <path style="opacity:0.2" d="m 14,2.5 v 5 c 0,0.5523 0.447715,1 1,1 h 5 z"/>
 <path style="fill:#fafafa" d="m 14,2 v 5 c 0,0.5523 0.447715,1 1,1 h 5 z"/>
 <path style="opacity:0.1" d="m 10.293363,20.48978 c -0.227702,-0.0087 -0.4206955,-0.02248 -0.428874,-0.0309 -0.00818,-0.0085 0.091086,-0.0668 0.22059,-0.129755 0.520418,-0.253038 0.931765,-0.680212 1.298737,-1.348703 0.05642,-0.102782 0.243447,-0.502232 0.415611,-0.887669 1.259854,-2.820554 2.910661,-6.476499 2.937053,-6.504521 0.02787,-0.02959 0.107528,-0.0287 0.629529,0.0072 1.391591,0.09531 1.64819,0.13461 1.894624,0.290111 0.228449,0.144151 0.437356,0.422345 0.511997,0.681806 0.111933,0.389095 0.227026,2.117602 0.22737,3.414697 2.66e-4,1.333087 -0.118518,3.11318 -0.231432,3.465714 -0.120329,0.375685 -0.408573,0.66998 -0.767755,0.783873 -0.204446,0.06483 -1.279784,0.159108 -2.664119,0.233577 -0.549481,0.02956 -3.446012,0.04727 -4.043331,0.0247 z M 7.8061805,20.356911 c -0.043795,-0.005 -0.187154,-0.02109 -0.318562,-0.03566 C 6.788324,20.24376 6.402533,19.988459 6.235184,19.492448 6.083985,19.044303 5.965134,16.786362 6.0093465,15.201983 c 0.03534,-1.266444 0.133505,-2.430913 0.226416,-2.685842 0.1450385,-0.397965 0.467557,-0.69041 0.8570525,-0.777141 0.1815025,-0.04042 0.9825925,-0.110865 1.8738405,-0.164786 0.508642,-0.03079 0.6350555,-0.04514 0.675493,-0.07673 0.027365,-0.02138 0.35758,-0.393036 0.7338185,-0.825889 0.37624,-0.432851 0.692592,-0.792412 0.703004,-0.7990194 0.08771,-0.055652 0.618213,-0.037254 0.618213,0.02143 0,0.022215 -4.199886,5.0688004 -4.9327395,5.9271694 -0.01927,0.02256 -0.02952,0.04667 -0.022785,0.05358 0.00675,0.007 0.1149385,-0.009 0.24046,-0.03517 0.1635725,-0.03423 0.3156195,-0.04773 0.536737,-0.04773 1.049121,0 2.1869635,0.426661 2.8329365,1.062275 0.437237,0.430223 0.61634,0.834151 0.616559,1.390498 5.5e-4,1.113856 -0.673651,1.831831 -1.932969,2.058814 -0.250469,0.04515 -1.013417,0.07836 -1.2291995,0.0535 z M 11.287471,18.208385 C 11.28692,17.402061 10.964698,16.658547 10.332601,16.005295 10.000145,15.661712 9.6252825,15.383618 9.1957205,15.161891 9.0075295,15.064751 8.513486,14.88179 8.437617,14.881137 c -0.021905,-1.87e-4 -0.03982,-0.01401 -0.03982,-0.03068 0,-0.02275 2.389944,-2.86833 4.464505,-5.3156669 l 0.06644,-0.078382 0.158763,0.052406 c 0.192929,0.063687 0.473707,0.2077351 0.505377,0.2592768 0.0239,0.038908 0.0855,-0.036034 -3.038812,3.6973571 -0.484789,0.579296 -0.8815665,1.060279 -0.8817315,1.068848 -1.605e-4,0.0086 0.089297,0.0873 0.198802,0.174965 0.7701565,0.616525 1.3702985,1.597145 1.5203105,2.484144 0.06411,0.379072 0.01447,1.098589 -0.08292,1.201857 -0.01279,0.01357 -0.02097,-0.05914 -0.02105,-0.186877 z"/>
 <path style="fill:#ec2f36" d="m 10.293363,19.976478 c -0.227702,-0.0087 -0.4206955,-0.02249 -0.428874,-0.0309 -0.00818,-0.0085 0.091086,-0.0668 0.22059,-0.129755 0.520418,-0.253039 0.931765,-0.680213 1.298737,-1.348704 0.05642,-0.102782 0.243447,-0.502232 0.415611,-0.887668 1.259854,-2.820553 2.910661,-6.4765 2.937053,-6.504521 0.02787,-0.0296 0.107528,-0.0287 0.629529,0.0072 1.391591,0.09532 1.64819,0.13461 1.894624,0.290112 0.228449,0.144151 0.437356,0.422344 0.511997,0.681805 0.111933,0.389095 0.227026,2.117601 0.22737,3.414696 2.66e-4,1.333089 -0.118518,3.113181 -0.231432,3.465715 -0.120329,0.375685 -0.408573,0.66998 -0.767755,0.783873 -0.204446,0.06483 -1.279784,0.159108 -2.664119,0.233578 -0.549481,0.02956 -3.446012,0.04727 -4.043331,0.0247 z M 7.8061805,19.84361 C 7.7623855,19.83871 7.6190265,19.82252 7.4876185,19.80795 6.788324,19.730459 6.402533,19.475157 6.235184,18.979146 6.083985,18.531003 5.965134,16.273061 6.0093465,14.688681 c 0.03534,-1.266443 0.133505,-2.430911 0.226416,-2.685842 0.1450385,-0.397963 0.467557,-0.690409 0.8570525,-0.777141 0.1815025,-0.04042 0.9825925,-0.110865 1.8738405,-0.164786 0.508642,-0.03079 0.6350555,-0.04514 0.675493,-0.07673 0.027365,-0.0214 0.35758,-0.393035 0.7338185,-0.825887 0.37624,-0.4328537 0.692592,-0.7924131 0.703004,-0.7990202 0.08771,-0.055647 0.618213,-0.037255 0.618213,0.02142 0,0.022215 -4.199886,5.0688002 -4.9327395,5.9271682 -0.01927,0.02257 -0.02952,0.04667 -0.022785,0.05358 0.00675,0.007 0.1149385,-0.009 0.24046,-0.03517 0.1635725,-0.03423 0.3156195,-0.04773 0.536737,-0.04773 1.049121,0 2.1869635,0.42666 2.8329365,1.062274 0.437237,0.430223 0.61634,0.834152 0.616559,1.390498 5.5e-4,1.113857 -0.673651,1.83183 -1.932969,2.058815 -0.250469,0.04515 -1.013417,0.07836 -1.2291995,0.0535 z M 11.287471,17.695083 C 11.28692,16.88876 10.964698,16.145247 10.332601,15.491994 10.000145,15.148412 9.6252825,14.870316 9.1957205,14.64859 9.0075295,14.551453 8.513486,14.368489 8.437617,14.367835 c -0.021905,-1.87e-4 -0.03982,-0.01401 -0.03982,-0.03069 0,-0.02275 2.389944,-2.86833 4.464505,-5.3156675 l 0.06644,-0.078382 0.158763,0.052406 c 0.192929,0.063687 0.473707,0.2077352 0.505377,0.2592773 0.0239,0.038909 0.0855,-0.036029 -3.038812,3.6973572 -0.484789,0.579295 -0.8815665,1.060278 -0.8817315,1.068847 -1.605e-4,0.0086 0.089297,0.0873 0.198802,0.174966 0.7701565,0.616524 1.3702985,1.597144 1.5203105,2.484143 0.06411,0.379072 0.01447,1.098589 -0.08292,1.201858 -0.01279,0.01357 -0.02097,-0.05914 -0.02105,-0.186878 z"/>
</svg>
