<svg xmlns="http://www.w3.org/2000/svg" width="24" height="24" version="1.1">
 <path style="opacity:0.2" d="m 5,2.5 c -0.554,0 -1,0.446 -1,1 v 18 c 0,0.554 0.446,1 1,1 h 14 c 0.554,0 1,-0.446 1,-1 V 8.5 L 14.5,8 14,2.5 Z"/>
 <path style="fill:#13a553" d="M 5,2 C 4.446,2 4,2.446 4,3 V 21 C 4,21.554 4.446,22 5,22 H 19 C 19.554,22 20,21.554 20,21 V 8 L 14.5,7.5 14,2 Z"/>
 <path style="opacity:0.2;fill:#8b9cbe" d="M 5,2 C 4.446,2 4,2.446 4,3 V 3.5 C 4,2.946 4.446,2.5 5,2.5 H 14 V 2 Z"/>
 <path style="opacity:0.2" d="m 14,2.5 v 5 c 0,0.5525 0.448,1 1,1 h 5 z"/>
 <path style="fill:#70c896" d="M 14,2 V 7 C 14,7.5525 14.448,8 15,8 H 20 Z"/>
 <path style="opacity:0.2" d="m 12,10.5 c -0.559885,7.78e-4 -1.072735,0.313308 -1.330078,0.810547 C 10.533524,11.270571 10.392136,11.250185 10.25,11.25 c -0.8284271,0 -1.5,0.671573 -1.5,1.5 1.851e-4,0.142136 0.020571,0.283524 0.060547,0.419922 C 8.3133075,13.427265 8.000778,13.940115 8,14.5 8.000778,15.059885 8.3133076,15.572735 8.8105469,15.830078 8.7705712,15.966476 8.7501851,16.107864 8.75,16.25 8.7502459,16.981764 9.2784706,17.606555 10,17.728516 V 20 c 8.5e-5,0.399294 0.445067,0.637437 0.777344,0.416016 L 12,19.601562 13.222656,20.416016 C 13.554933,20.637437 13.999915,20.399294 14,20 v -2.25 c 0.828427,0 1.5,-0.671573 1.5,-1.5 1.57e-4,-0.18781 -0.03496,-0.373979 -0.103516,-0.548828 C 15.775848,15.41838 15.99954,14.973168 16,14.5 15.999222,13.940115 15.686692,13.427265 15.189453,13.169922 15.229429,13.033524 15.249815,12.892136 15.25,12.75 c 0,-0.828427 -0.671573,-1.5 -1.5,-1.5 -0.142136,1.85e-4 -0.283524,0.02057 -0.419922,0.06055 C 13.072735,10.813305 12.559885,10.500778 12,10.5 Z m 0,1.5 c 1.380712,0 2.5,1.119288 2.5,2.5 C 14.5,15.880712 13.380712,17 12,17 10.619288,17 9.5,15.880712 9.5,14.5 9.5,13.119288 10.619288,12 12,12 Z m 0,0.5 a 2,2 0 0 0 -2,2 2,2 0 0 0 2,2 2,2 0 0 0 2,-2 2,2 0 0 0 -2,-2 z"/>
 <path style="fill:#8b9cbe" d="M 12 10 C 11.440115 10.000778 10.927265 10.313308 10.669922 10.810547 C 10.533524 10.770571 10.392136 10.750185 10.25 10.75 C 9.4215729 10.75 8.75 11.421573 8.75 12.25 C 8.7501851 12.392136 8.7705709 12.533524 8.8105469 12.669922 C 8.3133075 12.927265 8.000778 13.440115 8 14 C 8.000778 14.559885 8.3133076 15.072735 8.8105469 15.330078 C 8.7705712 15.466476 8.7501851 15.607864 8.75 15.75 C 8.7502459 16.481764 9.2784706 17.106555 10 17.228516 L 10 19.5 C 10.000085 19.899294 10.445067 20.137437 10.777344 19.916016 L 12 19.101562 L 13.222656 19.916016 C 13.554933 20.137437 13.999915 19.899294 14 19.5 L 14 17.25 C 14.828427 17.25 15.5 16.578427 15.5 15.75 C 15.500157 15.56219 15.46504 15.376021 15.396484 15.201172 C 15.775848 14.91838 15.99954 14.473168 16 14 C 15.999222 13.440115 15.686692 12.927265 15.189453 12.669922 C 15.229429 12.533524 15.249815 12.392136 15.25 12.25 C 15.25 11.421573 14.578427 10.75 13.75 10.75 C 13.607864 10.750185 13.466476 10.770567 13.330078 10.810547 C 13.072735 10.313305 12.559885 10.000778 12 10 z M 12 11.5 C 13.380712 11.5 14.5 12.619288 14.5 14 C 14.5 15.380712 13.380712 16.5 12 16.5 C 10.619288 16.5 9.5 15.380712 9.5 14 C 9.5 12.619288 10.619288 11.5 12 11.5 z M 12 12 A 2 2 0 0 0 10 14 A 2 2 0 0 0 12 16 A 2 2 0 0 0 14 14 A 2 2 0 0 0 12 12 z"/>
</svg>
