<svg xmlns="http://www.w3.org/2000/svg" width="24" height="24" version="1">
 <path style="opacity:0.2" d="m 5,2.5 c -0.554,0 -1,0.446 -1,1 v 18 c 0,0.554 0.446,1 1,1 h 14 c 0.554,0 1,-0.446 1,-1 V 8.5 L 14.5,8 14,2.5 Z"/>
 <path fill="#9264c3" d="m5 2c-0.554 0-1 0.446-1 1v18c0 0.554 0.446 1 1 1h14c0.554 0 1-0.446 1-1v-13l-5.5-0.5-0.5-5.5z"/>
 <path fill="#fff" style="opacity:0.2" d="m5 2c-0.554 0-1 0.446-1 1v0.5c0-0.554 0.446-1 1-1h9l5.5 5.5h0.5l-6-6z"/>
 <path style="opacity:0.2" d="m 14,2.5 v 5 c 0,0.5523 0.44772,1 1,1 h 5 z"/>
 <path fill="#b783f6" d="m14 2v5c0 0.5523 0.44772 1 1 1h5l-6-6z"/>
 <path style="opacity:0.2" d="m 13.5,11.5 c -1.932997,0 -3.5,1.567003 -3.5,3.5 0,1.932997 1.567003,3.5 3.5,3.5 H 20 v -1 H 13.5 C 12.119288,17.5 11,16.380712 11,15 c 0,-1.380712 1.119288,-2.5 2.5,-2.5 0.344234,3.94e-4 0.684677,0.07187 1,0.209961 V 11.649414 C 14.175656,11.55147 13.838808,11.501141 13.5,11.5 Z"/>
 <path style="fill:#d7bdfb" d="m 13.5,11 c -1.932997,0 -3.5,1.567003 -3.5,3.5 0,1.932997 1.567003,3.5 3.5,3.5 H 20 V 17 H 13.5 C 12.119288,17 11,15.880712 11,14.5 11,13.119288 12.119288,12 13.5,12 c 0.344234,3.94e-4 0.684677,0.07187 1,0.209961 V 11.149414 C 14.175656,11.05147 13.838808,11.001141 13.5,11 Z"/>
 <path style="opacity:0.2" d="M 13.5,9.5 C 10.462434,9.5 8,11.962434 8,15 c 0,3.003935 2.409278,5.440447 5.400391,5.494141 V 20.5 H 13.5 20 v -1 H 13.5 C 11.014719,19.5 9,17.485281 9,15 c 0,-2.485281 2.014719,-4.5 4.5,-4.5 0.167118,0.0011 0.334043,0.01156 0.5,0.03125 V 9.5273438 C 13.833835,9.5106428 13.666995,9.5015189 13.5,9.5 Z"/>
 <path style="fill:#8b9cbe" d="M 13.5,9 C 10.462434,9 8,11.462434 8,14.5 c 0,3.003935 2.409278,5.440447 5.400391,5.494141 V 20 H 13.5 20 V 19 H 13.5 C 11.014719,19 9,16.985281 9,14.5 9,12.014719 11.014719,10 13.5,10 c 0.167118,0.0011 0.334043,0.01156 0.5,0.03125 V 9.0273438 C 13.833835,9.0106428 13.666995,9.0015189 13.5,9 Z"/>
 <path style="opacity:0.2" d="m 13.5,13.5 c -0.828427,0 -1.5,0.671573 -1.5,1.5 0,0.828427 0.671573,1.5 1.5,1.5 H 20 v -1 H 16.5 14.912109 13.5 C 13.223858,15.5 13,15.276142 13,15 c 0,-0.276142 0.223858,-0.5 0.5,-0.5 h 1.408203 C 14.701611,13.918655 14.152215,13.5 13.5,13.5 Z"/>
 <path style="fill:#c090f9" d="m 13.5,13 c -0.828427,0 -1.5,0.671573 -1.5,1.5 0,0.828427 0.671573,1.5 1.5,1.5 H 20 V 15 H 16.5 14.912109 13.5 C 13.223858,15 13,14.776142 13,14.5 13,14.223858 13.223858,14 13.5,14 h 1.408203 C 14.701611,13.418655 14.152215,13 13.5,13 Z"/>
</svg>
