<svg xmlns="http://www.w3.org/2000/svg" width="24" height="24" version="1.1">
 <path style="opacity:0.2" d="m 5,2.5 c -0.554,0 -1,0.446 -1,1 v 18 c 0,0.554 0.446,1 1,1 h 14 c 0.554,0 1,-0.446 1,-1 v -13 l -6,-6 z"/>
 <path style="fill:#369eda" d="M 5,2 C 4.446,2 4,2.446 4,3 v 18 c 0,0.554 0.446,1 1,1 h 14 c 0.554,0 1,-0.446 1,-1 V 8 L 15,7 14,2 Z"/>
 <path style="opacity:0.2" d="m 20,8.5 -6,-6 v 5 c 0,0.554 0.446,1 1,1 z"/>
 <path style="fill:#81c2e8" d="M 20,8 14,2 v 5 c 0,0.554 0.446,1 1,1 z"/>
 <path style="opacity:0.2;fill:#8b9cbe" d="M 5,2 C 4.446,2 4,2.446 4,3 v 0.5 c 0,-0.554 0.446,-1 1,-1 h 9 V 2 Z"/>
 <path style="opacity:0.2" d="m 11,10.5 c -1.5365905,0 -3.5,1 -3.5,3 0,2 2,3.5 2.75,4 C 7.5,17.5 6,15 6,15 c 0,0 2.5,5.5 7,5.5 2,0 3.5,-1.5 3.5,-3.5 0,-1.5 -1,-3 -2.5,-3.75 3,0.25 4,2.25 4,2.25 0,0 -2,-5 -7,-5 z m 0.516602,2.498047 c 0.754048,0.02248 1.621524,0.328762 2.333984,0.93457 1.167193,0.99247 1.519058,2.450678 1.079102,3.318359 a 1.654386,1.3277826 45.000001 0 0 -0.624024,-1.811523 1.654386,1.3277826 45.000001 0 0 -2.070312,0 1.654386,1.3277826 45.000001 0 0 0.458984,2.121094 1.654386,1.3277826 45.000001 0 0 0.944336,0.426757 c -0.880118,0.0608 -2.014036,-0.293652 -2.864258,-1.016601 -1.3027845,-1.107764 -1.442828,-2.654088 -0.746093,-3.453125 0.261275,-0.299638 0.681767,-0.471785 1.172851,-0.511718 0.102309,-0.0083 0.207709,-0.01103 0.31543,-0.0078 z"/>
 <path style="fill:#8b9cbe" d="m 11,10.050848 c -1.5365905,0 -3.5,1 -3.5,3 0,2 2,3.499999 2.75,3.999999 -2.75,0 -4.25,-2.499999 -4.25,-2.499999 0,0 2.5,5.499999 7,5.499999 2,0 3.5,-1.5 3.5,-3.5 0,-1.499999 -1,-2.999999 -2.5,-3.749999 3,0.25 4,2.25 4,2.25 0,0 -2,-5 -7,-5 z m 0.516602,2.498046 c 0.754048,0.02248 1.621524,0.328762 2.333984,0.934571 1.167193,0.99247 1.519058,2.450678 1.079102,3.318359 a 1.654386,1.3277826 45.000001 0 0 -0.624024,-1.811523 1.654386,1.3277826 45.000001 0 0 -2.070312,0 1.654386,1.3277826 45.000001 0 0 0.458984,2.121093 1.654386,1.3277826 45.000001 0 0 0.944336,0.426758 c -0.880118,0.0608 -2.014036,-0.293653 -2.864258,-1.016602 -1.3027845,-1.107763 -1.442828,-2.654087 -0.746093,-3.453124 0.261275,-0.299639 0.681767,-0.471786 1.172851,-0.511719 0.102309,-0.0083 0.207709,-0.01103 0.31543,-0.0078 z"/>
</svg>
