<svg xmlns="http://www.w3.org/2000/svg" width="24" height="24" version="1.1">
 <path style="opacity:0.2" d="m 5,2.5 c -0.554,0 -1,0.446 -1,1 V 21.5 c 0,0.553999 0.446,1 1,1 h 14 c 0.554,0 1,-0.446001 1,-1 V 8.5 l -5.5,-0.5 -0.5,-5.5 z"/>
 <path style="fill:#1273b2" d="M 5,2 C 4.446,2 4,2.446 4,3 V 21 C 4,21.554 4.446,22 5,22 H 19 C 19.554,22 20,21.554 20,21 V 8 L 14.5,7.5 14,2 Z"/>
 <path style="opacity:0.2;fill:#8b9cbe" d="M 5,2 C 4.446,2 4,2.446 4,3 V 3.5 C 4,2.946 4.446,2.5 5,2.5 H 14 V 2 Z"/>
 <path style="opacity:0.2" d="m 14,2.5 v 5 c 0,0.5525 0.448,1 1,1 h 5 z"/>
 <path style="fill:#4e92be" d="M 14,2 V 7 C 14,7.5525 14.448,8 15,8 H 20 Z"/>
 <path style="opacity:0.2" d="M 8,2.5 V 14.5 H 5 V 17.5 H 4 V 18.5 H 5 V 21.5 H 8 V 22 H 9 V 21.5 H 12 V 18.5 H 20 V 17.5 H 12 V 14.5 H 9 V 2.5 Z M 6,15.5 H 11 V 20.5 H 6 Z M 8,17.5 V 18.5 H 9 V 17.5 Z"/>
 <path style="fill:#8b9cbe" d="M 8,2 V 14 H 5 V 17 H 4 V 18 H 5 V 21 H 8 V 22 H 9 V 21 H 12 V 18 H 20 V 17 H 12 V 14 H 9 V 2 Z M 6,15 H 11 V 20 H 6 Z M 8,17 V 18 H 9 V 17 Z"/>
</svg>
