<svg xmlns="http://www.w3.org/2000/svg" width="24" height="24" version="1.1">
 <path style="opacity:0.2" d="M 5,2.5 C 4.446,2.5 4,2.946 4,3.5 V 21.5 C 4,22.054 4.446,22.5 5,22.5 H 19 C 19.554,22.5 20,22.054 20,21.5 V 8.5 L 14,2.5 Z"/>
 <path style="fill:#b2bfd9" d="M 5,2 C 4.446,2 4,2.446 4,3 V 21 C 4,21.554 4.446,22 5,22 H 19 C 19.554,22 20,21.554 20,21 V 8 L 14,2 Z"/>
 <path style="opacity:0.2" d="M 20,8.5 14,2.5 V 7.5 C 14,8.054 14.446,8.5 15,8.5 Z"/>
 <path style="fill:#fafafa" d="M 20,8 14,2 V 7 C 14,7.554 14.446,8 15,8 Z"/>
 <path style="opacity:0.2;fill:#8b9cbe" d="M 5 2 C 4.446 2 4 2.446 4 3 L 4 3.5 C 4 2.946 4.446 2.5 5 2.5 L 14 2.5 L 14 2 L 5 2 z"/>
 <path style="opacity:0.1" d="m 12.000002,10.5 c -0.16798,3.36e-4 -0.335836,0.0091 -0.50293,0.02637 -0.158885,0.01599 -0.315524,0.03973 -0.469726,0.07031 -0.0068,9.53e-4 -0.01367,0.0019 -0.02051,0.0029 -0.144947,0.02938 -0.286606,0.06771 -0.426758,0.109375 -0.01989,0.0051 -0.03975,0.0103 -0.05957,0.01563 -0.158073,0.04913 -0.312886,0.104939 -0.463868,0.168945 -0.1491644,0.06318 -0.2951701,0.13358 -0.4375004,0.210938 -0.2823347,0.153655 -0.5491944,0.334178 -0.796874,0.539062 -0.1236011,0.101989 -0.2422277,0.209861 -0.355469,0.323243 -0.1079903,0.108179 -0.2109632,0.221254 -0.308594,0.338867 -0.0058,0.0069 -0.01185,0.01356 -0.01758,0.02051 -0.07896,0.09772 -0.1542084,0.198373 -0.225586,0.301757 -0.02535,0.03594 -0.05175,0.0708 -0.07617,0.107422 -0.054266,0.08308 -0.1060463,0.167749 -0.155273,0.253907 -0.03467,0.05933 -0.07028,0.117871 -0.102539,0.178711 -0.040132,0.07744 -0.078231,0.155918 -0.114258,0.235351 -0.03346,0.07198 -0.0666,0.144002 -0.09668,0.217774 -0.029844,0.07548 -0.057846,0.151673 -0.08398,0.228515 -0.02843,0.08085 -0.05673,0.161467 -0.08105,0.244141 -0.020525,0.07248 -0.03941,0.145416 -0.05664,0.21875 -0.02135,0.08705 -0.04286,0.173937 -0.05957,0.262695 -0.014851,0.08397 -0.027552,0.168309 -0.03809,0.25293 -0.01064,0.07849 -0.02139,0.156742 -0.02832,0.236328 -0.01382,0.144794 -0.021316,0.290122 -0.022465,0.435569 3.362e-4,0.16798 0.00914,0.335835 0.02637,0.502929 0.08597,0.854478 0.388717,1.645751 0.851563,2.319336 0.0042,0.0062 0.0084,0.01239 0.0127,0.01855 0.035825,0.05147 0.072616,0.102259 0.110352,0.152344 2.65e-4,-0.0016 7.1e-4,-0.0033 9.76e-4,-0.0049 C 8.9150246,19.706241 10.365287,20.5 12.000002,20.5 c 0.938983,0 1.815672,-0.265097 2.567382,-0.717774 l 9.76e-4,9.77e-4 c 0.01011,-0.0068 0.0202,-0.01364 0.03027,-0.02051 0.119259,-0.07302 0.235225,-0.14997 0.347656,-0.232422 0.0259,-0.01896 0.05162,-0.03817 0.07715,-0.05762 0.09872,-0.07535 0.19433,-0.154008 0.28711,-0.236328 0.03763,-0.03362 0.07474,-0.0678 0.111328,-0.102539 0.07729,-0.07283 0.152059,-0.148021 0.224609,-0.225586 0.04319,-0.04575 0.08552,-0.0923 0.126953,-0.139649 0.06816,-0.07856 0.133052,-0.159469 0.196289,-0.242187 0.03462,-0.04467 0.06848,-0.08992 0.101563,-0.135742 0.06644,-0.09326 0.128425,-0.189279 0.188476,-0.28711 0.02497,-0.03969 0.04939,-0.07974 0.07324,-0.120117 0.05947,-0.10329 0.113882,-0.209646 0.166015,-0.317383 0.02042,-0.04107 0.04028,-0.08241 0.05957,-0.124023 0.04673,-0.103797 0.08823,-0.209998 0.127929,-0.317383 0.01939,-0.0508 0.03794,-0.101914 0.05566,-0.15332 0.03445,-0.103564 0.06408,-0.209011 0.0918,-0.31543 0.01457,-0.05348 0.02824,-0.107195 0.04102,-0.161128 0.02262,-0.1006 0.04021,-0.202897 0.05664,-0.305664 0.01148,-0.06749 0.02157,-0.135217 0.03027,-0.203125 0.01037,-0.08806 0.01578,-0.177222 0.02148,-0.266601 0.0089,-0.106241 0.01448,-0.212741 0.01661,-0.319336 0,-0.168583 -0.009,-0.334663 -0.02539,-0.499024 l -9.76e-4,-0.0039 c -0.01599,-0.158885 -0.03973,-0.315524 -0.07031,-0.469726 -0.0013,-0.0067 -0.0016,-0.01379 -0.0029,-0.02051 -0.02938,-0.144947 -0.06771,-0.286606 -0.109375,-0.426758 -0.0056,-0.01892 -0.0088,-0.03879 -0.01465,-0.05762 l -0.002,-0.0068 c -0.0488,-0.156433 -0.1046,-0.309506 -0.167969,-0.458985 -0.06318,-0.149164 -0.133579,-0.29517 -0.210937,-0.4375 -0.153655,-0.282335 -0.334178,-0.549195 -0.539063,-0.796875 -0.101989,-0.123601 -0.209861,-0.242227 -0.323242,-0.355468 -0.108179,-0.10799 -0.221254,-0.210963 -0.338867,-0.308594 -0.0055,-0.0049 -0.01106,-0.0098 -0.0166,-0.01465 -0.0013,-10e-4 -0.0027,-0.0019 -0.0039,-0.0029 -0.09771,-0.07898 -0.198366,-0.154252 -0.301748,-0.225651 -0.03594,-0.02536 -0.0708,-0.05175 -0.107422,-0.07617 -0.08308,-0.05427 -0.167749,-0.106046 -0.253906,-0.155273 -0.05933,-0.03467 -0.117871,-0.07028 -0.178711,-0.10254 -0.07744,-0.04013 -0.155918,-0.07823 -0.235351,-0.114257 -0.07198,-0.03346 -0.144001,-0.0666 -0.217773,-0.09668 -0.07548,-0.02984 -0.151674,-0.05785 -0.228516,-0.08398 -0.08085,-0.02843 -0.161466,-0.05673 -0.24414,-0.08105 -0.07248,-0.02052 -0.145416,-0.03941 -0.21875,-0.05664 -0.08705,-0.02135 -0.173937,-0.04286 -0.262696,-0.05957 -0.08397,-0.01485 -0.168308,-0.02755 -0.252929,-0.03809 -0.07849,-0.01064 -0.156742,-0.02139 -0.236328,-0.02832 C 12.290763,10.508648 12.145442,10.501151 12.000002,10.5 Z M 11.240236,11.422031 12,13.007969 13.000002,12.427 v 2.141359 l 2.749999,2.181641 -0.823242,0.761719 -2.288085,-0.02344 1.28125,1.523438 C 13.350441,19.322784 12.696774,19.5 12.000002,19.5 c -1.666751,0 -3.0889384,-1.011025 -3.6914064,-2.455078 0.315341,-1.218333 0.786332,-2.394604 1.460937,-3.050782 0.2877904,-1.059093 0.8493834,-1.735369 1.4707034,-2.572109 z M 12.000002,15 l 0.03613,0.425781 0.963867,0.07422 c -0.124012,-0.299769 -0.429425,-0.43785 -1,-0.5 z"/>
 <path style="fill:#d6342a" d="m 12.000002,10 c -0.16798,3.36e-4 -0.335836,0.0091 -0.50293,0.02637 -0.158885,0.01599 -0.315524,0.03973 -0.469726,0.07031 -0.0068,9.53e-4 -0.01367,0.0019 -0.02051,0.0029 -0.144947,0.02938 -0.286606,0.06771 -0.426758,0.109375 -0.01989,0.0051 -0.03975,0.0103 -0.05957,0.01563 -0.158073,0.04913 -0.312886,0.104939 -0.463868,0.168945 -0.1491644,0.06318 -0.2951701,0.13358 -0.4375004,0.210938 -0.2823347,0.153655 -0.5491944,0.334178 -0.796874,0.539062 -0.1236011,0.101989 -0.2422277,0.209861 -0.355469,0.323243 -0.1079903,0.108179 -0.2109632,0.221254 -0.308594,0.338867 -0.0058,0.0069 -0.01185,0.01356 -0.01758,0.02051 -0.07896,0.09772 -0.1542084,0.198373 -0.225586,0.301757 -0.02535,0.03594 -0.05175,0.0708 -0.07617,0.107422 -0.054266,0.08308 -0.1060463,0.167749 -0.155273,0.253907 -0.03467,0.05933 -0.07028,0.117871 -0.102539,0.178711 -0.040132,0.07744 -0.078231,0.155918 -0.114258,0.235351 -0.03346,0.07198 -0.0666,0.144002 -0.09668,0.217774 -0.029844,0.07548 -0.057846,0.151673 -0.08398,0.228515 -0.02843,0.08085 -0.05673,0.161467 -0.08105,0.244141 -0.020525,0.07248 -0.03941,0.145416 -0.05664,0.21875 -0.02135,0.08705 -0.04286,0.173937 -0.05957,0.262695 -0.014851,0.08397 -0.027552,0.168309 -0.03809,0.25293 -0.01064,0.07849 -0.02139,0.156742 -0.02832,0.236328 -0.01382,0.144794 -0.021316,0.290122 -0.022465,0.435569 3.362e-4,0.16798 0.00914,0.335835 0.02637,0.502929 0.08597,0.854478 0.388717,1.645751 0.851563,2.319336 0.0042,0.0062 0.0084,0.01239 0.0127,0.01855 0.035825,0.05147 0.072616,0.102259 0.110352,0.152344 2.65e-4,-0.0016 7.1e-4,-0.0033 9.76e-4,-0.0049 C 8.9150246,19.206241 10.365287,20 12.000002,20 c 0.938983,0 1.815672,-0.265097 2.567382,-0.717774 l 9.76e-4,9.77e-4 c 0.01011,-0.0068 0.0202,-0.01364 0.03027,-0.02051 0.119259,-0.07302 0.235225,-0.14997 0.347656,-0.232422 0.0259,-0.01896 0.05162,-0.03817 0.07715,-0.05762 0.09872,-0.07535 0.19433,-0.154008 0.28711,-0.236328 0.03763,-0.03362 0.07474,-0.0678 0.111328,-0.102539 0.07729,-0.07283 0.152059,-0.148021 0.224609,-0.225586 0.04319,-0.04575 0.08552,-0.0923 0.126953,-0.139649 0.06816,-0.07856 0.133052,-0.159469 0.196289,-0.242187 0.03462,-0.04467 0.06848,-0.08992 0.101563,-0.135742 0.06644,-0.09326 0.128425,-0.189279 0.188476,-0.28711 0.02497,-0.03969 0.04939,-0.07974 0.07324,-0.120117 0.05947,-0.10329 0.113882,-0.209646 0.166015,-0.317383 0.02042,-0.04107 0.04028,-0.08241 0.05957,-0.124023 0.04673,-0.103797 0.08823,-0.209998 0.127929,-0.317383 0.01939,-0.0508 0.03794,-0.101914 0.05566,-0.15332 0.03445,-0.103564 0.06408,-0.209011 0.0918,-0.31543 0.01457,-0.05348 0.02824,-0.107195 0.04102,-0.161128 0.02262,-0.1006 0.04021,-0.202897 0.05664,-0.305664 0.01148,-0.06749 0.02157,-0.135217 0.03027,-0.203125 0.01037,-0.08806 0.01578,-0.177222 0.02148,-0.266601 0.0089,-0.106241 0.01448,-0.212741 0.01661,-0.319336 0,-0.168583 -0.009,-0.334663 -0.02539,-0.499024 l -9.76e-4,-0.0039 c -0.01599,-0.158885 -0.03973,-0.315524 -0.07031,-0.469726 -0.0013,-0.0067 -0.0016,-0.01379 -0.0029,-0.02051 -0.02938,-0.144947 -0.06771,-0.286606 -0.109375,-0.426758 -0.0056,-0.01892 -0.0088,-0.03879 -0.01465,-0.05762 l -0.002,-0.0068 c -0.0488,-0.156433 -0.1046,-0.309506 -0.167969,-0.458985 -0.06318,-0.149164 -0.133579,-0.29517 -0.210937,-0.4375 -0.153655,-0.282335 -0.334178,-0.549195 -0.539063,-0.796875 -0.101989,-0.123601 -0.209861,-0.242227 -0.323242,-0.355468 -0.108179,-0.10799 -0.221254,-0.210963 -0.338867,-0.308594 -0.0055,-0.0049 -0.01106,-0.0098 -0.0166,-0.01465 -0.0013,-10e-4 -0.0027,-0.0019 -0.0039,-0.0029 -0.09771,-0.07898 -0.198366,-0.154252 -0.301748,-0.225651 -0.03594,-0.02536 -0.0708,-0.05175 -0.107422,-0.07617 -0.08308,-0.05427 -0.167749,-0.106046 -0.253906,-0.155273 -0.05933,-0.03467 -0.117871,-0.07028 -0.178711,-0.10254 -0.07744,-0.04013 -0.155918,-0.07823 -0.235351,-0.114257 -0.07198,-0.03346 -0.144001,-0.0666 -0.217773,-0.09668 -0.07548,-0.02984 -0.151674,-0.05785 -0.228516,-0.08398 -0.08085,-0.02843 -0.161466,-0.05673 -0.24414,-0.08105 -0.07248,-0.02052 -0.145416,-0.03941 -0.21875,-0.05664 -0.08705,-0.02135 -0.173937,-0.04286 -0.262696,-0.05957 -0.08397,-0.01485 -0.168308,-0.02755 -0.252929,-0.03809 -0.07849,-0.01064 -0.156742,-0.02139 -0.236328,-0.02832 C 12.290763,10.008648 12.145442,10.001151 12.000002,10 Z M 11.240236,10.922031 12,12.507969 13.000002,11.927 v 2.141359 l 2.749999,2.181641 -0.823242,0.761719 -2.288085,-0.02344 1.28125,1.523438 C 13.350441,18.822784 12.696774,19 12.000002,19 10.333251,19 8.9110636,17.988975 8.3085956,16.544922 8.6239366,15.326589 9.0949276,14.150318 9.7695326,13.49414 10.057323,12.435047 10.618916,11.758771 11.240236,10.922031 Z M 12.000002,14.5 l 0.03613,0.425781 0.963867,0.07422 c -0.124012,-0.299769 -0.429425,-0.43785 -1,-0.5 z"/>
</svg>
