<svg xmlns="http://www.w3.org/2000/svg" width="24" height="24" version="1">
 <rect style="opacity:0.2" width="20" height="20" x="2" y="2.5" rx="2" ry="2"/>
 <rect style="fill:#4caf50" width="20" height="20" x="2" y="2" rx="2" ry="2"/>
 <rect style="opacity:0.2" width="4" height="9.5" x="10" y="2"/>
 <path style="opacity:0.2;fill:#8b9cbe" d="M 4,2 C 2.892,2 2,2.892 2,4 v 0.5 c 0,-1.108 0.892,-2 2,-2 h 16 c 1.108,0 2,0.892 2,2 V 4 C 22,2.892 21.108,2 20,2 Z"/>
 <rect style="fill:#8b9cbe" width="1" height="1" x="11" y="9"/>
 <path style="fill:#4b4b4b" d="m 12,9 c 1.5,0 1.5,2 2,2 v 2.5 c 0,0.277 -0.223,0.5 -0.5,0.5 h -3 C 10.223,14 10,13.777 10,13.5 V 11 c 0.5,0 0.5,-2 2,-2 z"/>
 <rect style="fill:#8b9cbe" width="1" height="1" x="12" y="8"/>
 <rect style="fill:#8b9cbe" width="1" height="1" x="11" y="7"/>
 <rect style="fill:#8b9cbe" width="1" height="1" x="12" y="6"/>
 <rect style="fill:#8b9cbe" width="1" height="1" x="11" y="5"/>
 <rect style="fill:#8b9cbe" width="1" height="1" x="12" y="4"/>
 <rect style="fill:#8b9cbe" width="1" height="1" x="11" y="3"/>
 <rect style="fill:#8b9cbe" width="1" height="1" x="12" y="2"/>
 <path style="opacity:0.2" d="m 12,11.5 c -1.105,0 -2,0.9 -2,2 v 4 c 0,1.1 0.895,2 2,2 1.105,0 2,-0.9 2,-2 v -4 c 0,-1.1 -0.895,-2 -2,-2 z m 0,5 a 1,1 0 0 1 1,1 1,1 0 0 1 -1,1 1,1 0 0 1 -1,-1 1,1 0 0 1 1,-1 z"/>
 <path style="fill:#8b9cbe" d="M 12 11 C 10.895 11 10 11.9 10 13 L 10 17 C 10 18.1 10.895 19 12 19 C 13.105 19 14 18.1 14 17 L 14 13 C 14 11.9 13.105 11 12 11 z M 12 16 A 1 1 0 0 1 13 17 A 1 1 0 0 1 12 18 A 1 1 0 0 1 11 17 A 1 1 0 0 1 12 16 z"/>
 <path style="fill:#909090" d="M 11.992188,10.000061 A 0.50005,0.49772427 0 0 0 11.5,10.50454 v 1.990698 a 0.50005,0.49772427 0 1 0 1,0 V 10.50454 a 0.50005,0.49772427 0 0 0 -0.507812,-0.504479 z"/>
</svg>
