<svg xmlns="http://www.w3.org/2000/svg" width="24" height="24" version="1">
 <rect style="fill:#8e8e8e" width="16" height="12" x="-21" y="-18" rx="1" ry="1" transform="matrix(0,-1,-1,0,0,0)"/>
 <rect style="fill:#4f4f4f" width="16" height="20" x="-19" y="-22" rx="1" ry="1" transform="matrix(0,-1,-1,0,0,0)"/>
 <rect style="fill:#2c80c2" width="12" height="16" x="-17" y="-20" rx="0" ry="0" transform="matrix(0,-1,-1,0,0,0)"/>
 <path style="opacity:0.1;fill:#8b9cbe" d="M 3,3 C 2.446,3 2,3.446 2,4 v 0.5 c 0,-0.554 0.446,-1 1,-1 h 18 c 0.554,0 1,0.446 1,1 V 4 C 22,3.446 21.554,3 21,3 Z"/>
 <path style="opacity:0.2" d="m 6,20 v 0.5 c 0,0.554 0.446,1 1,1 h 10 c 0.554,0 1,-0.446 1,-1 V 20 c 0,0.554 -0.446,1 -1,1 H 7 C 6.446,21 6,20.554 6,20 Z"/>
 <path style="opacity:0.2" d="m 2,18 v 0.5 c 0,0.554 0.446,1 1,1 h 18 c 0.554,0 1,-0.446 1,-1 V 18 c 0,0.554 -0.446,1 -1,1 H 3 C 2.446,19 2,18.554 2,18 Z"/>
 <path style="opacity:0.2" d="m 7.5000001,7.5005001 c -0.2770002,0 -0.5000002,0.223 -0.5000002,0.5 l 0,5.9994999 c 0,0.277 0.2695576,0.346295 0.5000002,0.5 L 10,14.5 10,15 c 0,0.277 0.223,0.5 0.5,0.5 l 3,0 c 0.277,0 0.252244,-0.376122 0.5,-0.5 l 0,-0.5 2.5,0 c 0.277,0 0.5,-0.223 0.5,-0.5 l 0,-5.9994999 c 0,-0.277 -0.223,-0.5 -0.5,-0.5 z m 0.900391,1 7.1992179,0 c 0.221601,0 0.400391,0.16725 0.400391,0.375 L 16,13.125 c 0,0.20775 -0.17879,0.375 -0.400391,0.375 l -7.1992179,0 c -0.2216,0 -0.400391,-0.16725 -0.400391,-0.375 l 0,-4.2494999 c 0,-0.20775 0.178791,-0.375 0.400391,-0.375 z"/>
 <path style="fill:#8b9cbe" d="m 7.5000001,7.0000001 c -0.2770002,0 -0.5000002,0.223 -0.5000002,0.5 l 0,5.9994999 c 0,0.277 0.2695576,0.346295 0.5000002,0.5 l 2.4999999,0 0,0.5 c 0,0.277 0.223,0.5 0.5,0.5 l 3,0 c 0.277,0 0.252244,-0.376122 0.5,-0.5 l 0,-0.5 2.5,0 c 0.277,0 0.5,-0.223 0.5,-0.5 l 0,-5.9994999 c 0,-0.277 -0.223,-0.5 -0.5,-0.5 z m 0.900391,1 7.1992179,0 c 0.221601,0 0.400391,0.16725 0.400391,0.375 L 16,12.6245 c 0,0.20775 -0.17879,0.375 -0.400391,0.375 l -7.1992179,0 c -0.2216,0 -0.400391,-0.16725 -0.400391,-0.375 l 0,-4.2494999 c 0,-0.20775 0.178791,-0.375 0.400391,-0.375 z"/>
</svg>
