<svg xmlns="http://www.w3.org/2000/svg" width="24" height="24" version="1">
 <path style="opacity:0.2" d="m 22,20.5 v -16 c 0,-0.554 -0.446,-1 -1,-1 H 3 c -0.554,0 -1,0.446 -1,1 v 16 c 0,0.554 0.446,1 1,1 h 18 c 0.554,0 1,-0.446 1,-1 z"/>
 <path fill="#a47a4a" d="m22 20v-16c0-0.554-0.446-1-1-1h-18c-0.554 0-1 0.446-1 1v16c0 0.554 0.446 1 1 1h18c0.554 0 1-0.446 1-1z"/>
 <path fill="#fff" style="opacity:0.1" d="m3 3c-0.554 0-1 0.446-1 1v0.5c0-0.554 0.446-1 1-1h18c0.554 0 1 0.446 1 1v-0.5c0-0.554-0.446-1-1-1z"/>
 <path style="fill:none;stroke:#8b9cbe;stroke-width:1px" d="m 6,11 4,6 8,-2"/>
 <circle style="opacity:0.2" cx="6" cy="11.5" r="2"/>
 <circle style="fill:#17191e" cx="6" cy="11" r="2"/>
 <circle style="opacity:0.2" cx="10" cy="17.5" r="2"/>
 <circle style="fill:#17191e" cx="10" cy="17" r="2"/>
 <circle style="opacity:0.2" cx="18" cy="15.5" r="2"/>
 <circle style="fill:#17191e" cx="18" cy="15" r="2"/>
</svg>
