<svg xmlns="http://www.w3.org/2000/svg" width="24" height="24" version="1">
 <path style="opacity:0.2" d="m 5,2.5 c -0.554,0 -1,0.446 -1,1 v 18 c 0,0.554 0.446,1 1,1 h 14 c 0.554,0 1,-0.446 1,-1 V 8.5 L 14.5,8 14,2.5 Z"/>
 <path fill="#b2bfd9" d="m5 2c-0.554 0-1 0.446-1 1v18c0 0.554 0.446 1 1 1h14c0.554 0 1-0.446 1-1v-13l-5.5-0.5-0.5-5.5z"/>
 <path style="opacity:0.2" d="m 14,2.5 v 5 c 0,0.5523 0.44772,1 1,1 h 5 z"/>
 <path fill="#fff" opacity=".2" d="m5 2c-0.554 0-1 0.446-1 1v0.5c0-0.554 0.446-1 1-1h9l5.5 5.5h0.5l-6-6z"/>
 <path fill="#fafafa" d="m14 2v5c0 0.5523 0.44772 1 1 1h5l-6-6z"/>
 <path style="fill:#0180cd" d="m11.5 11a4.5 4.5 0 0 0 -4.5 4.5 4.5 4.5 0 0 0 4.5 4.5 4.5 4.5 0 0 0 0.5 -0.03v-1.5127a3 3 0 0 1 -0.5 0.043 3 3 0 0 1 -3 -3 3 3 0 0 1 3 -3 3 3 0 0 1 0.5 0.04492v-1.5117a4.5 4.5 0 0 0 -0.5 -0.0332z"/>
 <path style="fill:#01559d" d="m15 12v1h-1v1h1v1h1v-1h1v-1h-1v-1h-1z"/>
 <path style="fill:#01559d" d="m15 16v1h-1v1h1v1h1v-1h1v-1h-1v-1h-1z"/>
</svg>
