<svg xmlns="http://www.w3.org/2000/svg" width="24" height="24" version="1">
 <path style="opacity:0.2" d="m 5,2.5 c -0.554,0 -1,0.446 -1,1 v 18 c 0,0.554 0.446,1 1,1 h 14 c 0.554,0 1,-0.446 1,-1 V 8.5 L 14.5,8 14,2.5 Z"/>
 <path fill="#b2bfd9" d="m5 2c-0.554 0-1 0.446-1 1v18c0 0.554 0.446 1 1 1h14c0.554 0 1-0.446 1-1v-13l-5.5-0.5-0.5-5.5z"/>
 <path fill="#fff" opacity=".2" d="m5 2c-0.554 0-1 0.446-1 1v0.5c0-0.554 0.446-1 1-1h9l5.5 5.5h0.5l-6-6z"/>
 <path style="opacity:0.2" d="m 14,2.5 v 5 c 0,0.5523 0.44772,1 1,1 h 5 z"/>
 <path fill="#fafafa" d="m14 2v5c0 0.5523 0.44772 1 1 1h5l-6-6z"/>
 <path fill-rule="evenodd" opacity=".5" d="m9.532 10.741a0.50005 0.50005 0 0 0 -0.0475 0.001 0.50005 0.50005 0 0 0 -0.132 0.0275s-0.313 0.103-0.6755 0.294c-0.363 0.191-0.8035 0.458-1.087 0.917-0.3155 0.5105-0.196 1.057-0.098 1.384 0.0985 0.3265 0.1525 0.4695 0.0615 0.688-0.044 0.107-0.3155 0.341-0.612 0.4865-0.297 0.1455-0.5665 0.2215-0.5665 0.2215a0.50005 0.50005 0 0 0 -0.3575 0.614 0.50005 0.50005 0 0 0 0.3575 0.601s0.2695 0.0765 0.5665 0.222c0.2965 0.145 0.568 0.379 0.612 0.486 0.091 0.219 0.037 0.3615-0.0615 0.6885-0.098 0.327-0.2175 0.873 0.098 1.384 0.2835 0.4585 0.724 0.726 1.087 0.917 0.3625 0.1905 0.6755 0.294 0.6755 0.294a0.50005 0.50005 0 1 0 0.3145 -0.95s-0.238-0.0795-0.5245-0.2305c-0.2865-0.15-0.593-0.383-0.701-0.558-0.1225-0.199-0.0825-0.268 0.0085-0.571 0.0915-0.303 0.256-0.807 0.0275-1.358-0.202-0.488-0.6055-0.747-0.967-0.933 0.3615-0.186 0.765-0.444 0.967-0.932 0.2285-0.552 0.064-1.056-0.0275-1.359-0.091-0.303-0.131-0.372-0.0085-0.57 0.108-0.175 0.4145-0.408 0.701-0.559 0.2865-0.15 0.5245-0.23 0.5245-0.23a0.50005 0.50005 0 0 0 -0.135 -0.977zm4.966 0a0.50005 0.50005 0 0 0 -0.133 0.977s0.238 0.0795 0.5245 0.23c0.2865 0.151 0.593 0.3835 0.7015 0.559 0.1225 0.198 0.082 0.2665-0.009 0.57s-0.2555 0.8075-0.0275 1.3585c0.2025 0.488 0.6055 0.7465 0.967 0.9325-0.3615 0.1865-0.7645 0.445-0.967 0.933-0.228 0.551-0.0635 1.0545 0.0275 1.358s0.1315 0.372 0.009 0.5705c-0.1085 0.1755-0.415 0.408-0.7015 0.5585-0.2865 0.151-0.5245 0.2305-0.5245 0.2305a0.50005 0.50005 0 1 0 0.3145 0.9485s0.3135-0.1035 0.676-0.294c0.3625-0.191 0.8035-0.4585 1.087-0.917 0.3155-0.511 0.1955-1.057 0.0975-1.384s-0.152-0.4695-0.0615-0.6885c0.0445-0.107 0.3155-0.341 0.6125-0.486 0.2965-0.1455 0.566-0.222 0.566-0.222a0.50005 0.50005 0 0 0 0.356 -0.599 0.50005 0.50005 0 0 0 -0.357 -0.615s-0.2695-0.076-0.566-0.2215c-0.297-0.1455-0.568-0.3795-0.6125-0.4865-0.0905-0.2185-0.0365-0.3615 0.0615-0.688 0.098-0.327 0.218-0.8735-0.0975-1.384-0.2835-0.459-0.7245-0.726-1.087-0.917s-0.676-0.294-0.676-0.294a0.50005 0.50005 0 0 0 -0.132 -0.027 0.50005 0.50005 0 0 0 -0.048 -0.001 0.50005 0.50005 0 0 0 -0.002 0zm-2.498 2.259a1 1 0 0 0 -1 1 1 1 0 0 0 1 1 1 1 0 0 0 1 -1 1 1 0 0 0 -1 -1zm0 3c-0.5525 0-1 0.4475-1 1s0.4475 1 1 1c0.3535 0 0.5 1 0.5 1s0.5-1.801 0.5-2c0-0.5525-0.4475-1-1-1z"/>
</svg>
