<svg xmlns="http://www.w3.org/2000/svg" width="24" height="24" version="1.1">
 <path style="opacity:0.2" d="m 5,2.5 c -0.554,0 -1,0.446 -1,1 v 18 c 0,0.554 0.446,1 1,1 h 14 c 0.554,0 1,-0.446 1,-1 V 8.5 L 14.5,8 14,2.5 Z"/>
 <path fill="#555e70" d="m5 2c-0.554 0-1 0.446-1 1v18c0 0.554 0.446 1 1 1h14c0.554 0 1-0.446 1-1v-13l-5.5-0.5-0.5-5.5z"/>
 <path fill="#fff" style="opacity:0.1" d="m5 2c-0.554 0-1 0.446-1 1v0.5c0-0.554 0.446-1 1-1h9l5.5 5.5h0.5l-6-6z"/>
 <path style="opacity:0.2" d="m 14,2.5 v 5 c 0,0.5523 0.44772,1 1,1 h 5 z"/>
 <path fill="#859daa" d="m14 2v5c0 0.5523 0.44772 1 1 1h5l-6-6z"/>
 <path style="opacity:0.2;fill-rule:evenodd" d="m 9.532,11.241 a 0.50005,0.50005 0 0 0 -0.04785,0 0.50005,0.50005 0 0 0 -0.13184,0.0275 c 0,0 -0.31316,0.10315 -0.6758,0.29395 -0.36262,0.1908 -0.8034,0.4582 -1.0869,0.917 -0.31558,0.5106 -0.1958,1.0569 -0.097655,1.3838 0.098145,0.3269 0.15218,0.4696 0.061525,0.68845 -0.04427,0.1069 -0.3155,0.34085 -0.6123,0.48635 -0.2968,0.14545 -0.5664,0.22165 -0.5664,0.22165 a 0.50005,0.50005 0 0 0 -0.35742,0.61425 0.50005,0.50005 0 0 0 0.35742,0.6006 c 0,0 0.2696,0.0762 0.5664,0.22165 0.2968,0.1455 0.56805,0.37945 0.6123,0.48635 0.09065,0.21885 0.03662,0.36155 -0.061525,0.68845 -0.098145,0.3269 -0.21792,0.8732 0.097655,1.3838 0.28354,0.4588 0.7243,0.7262 1.0869,0.917 0.36262,0.1908 0.6758,0.29395 0.6758,0.29395 A 0.50005,0.50005 0 1 0 9.66677,19.5175 c 0,0 -0.23794,-0.07975 -0.5244,-0.23045 C 8.85589,19.1363 8.54952,18.9037 8.44122,18.72845 8.3187,18.5302 8.3589,18.4616 8.45001,18.15815 8.54112,17.85465 8.7056,17.3508 8.477355,16.79975 8.275215,16.3117 7.871805,16.0534 7.510555,15.8671 c 0.36124,-0.18625 0.76465,-0.4446 0.9668,-0.9326 0.22825,-0.55105 0.06377,-1.055 -0.027345,-1.3584 -0.09111,-0.30345 -0.13132,-0.37205 -0.00879,-0.5703 0.10832,-0.1753 0.4147,-0.4079 0.70115,-0.5586 0.28648,-0.1507 0.5244,-0.2305 0.5244,-0.2305 A 0.50005,0.50005 0 0 0 9.53201,11.24015 Z m 4.9658,0 a 0.50005,0.50005 0 0 0 -0.13281,0.97655 c 0,0 0.23794,0.0798 0.5244,0.2305 0.28648,0.1507 0.59285,0.3833 0.70115,0.5586 0.12252,0.19825 0.08232,0.26685 -0.0088,0.5703 -0.09111,0.30345 -0.2556,0.80735 -0.02735,1.3584 0.20214,0.488 0.60555,0.74635 0.9668,0.9326 -0.36124,0.1863 -0.76465,0.4446 -0.9668,0.93265 -0.22825,0.55105 -0.06376,1.0549 0.02735,1.3584 0.09111,0.30345 0.13132,0.37205 0.0088,0.5703 -0.10832,0.17525 -0.4147,0.40785 -0.70115,0.5586 -0.28648,0.1507 -0.5244,0.23045 -0.5244,0.23045 a 0.50005,0.50005 0 1 0 0.31446,0.94825 c 0,0 0.31316,-0.10315 0.6758,-0.29395 0.36262,-0.1908 0.8034,-0.4582 1.0869,-0.917 0.31558,-0.5106 0.1958,-1.0569 0.09765,-1.3838 -0.09814,-0.3269 -0.15218,-0.4696 -0.06152,-0.68845 0.04427,-0.1069 0.3155,-0.34085 0.6123,-0.48635 0.2968,-0.14545 0.5664,-0.22165 0.5664,-0.22165 a 0.50005,0.50005 0 0 0 0.35742,-0.6006 0.50005,0.50005 0 0 0 -0.35742,-0.61425 c 0,0 -0.2696,-0.0762 -0.5664,-0.2217 -0.2968,-0.14545 -0.56805,-0.37945 -0.6123,-0.4863 -0.09065,-0.21885 -0.03662,-0.3616 0.06152,-0.6885 0.09814,-0.3269 0.21792,-0.87315 -0.09765,-1.3838 -0.28354,-0.45875 -0.7243,-0.7262 -1.0869,-0.91695 -0.36262,-0.1908 -0.6758,-0.29395 -0.6758,-0.29395 a 0.50005,0.50005 0 0 0 -0.13184,-0.0275 0.50005,0.50005 0 0 0 -0.04785,0 0.50005,0.50005 0 0 0 -0.002,0 z m -2.498,2.2588 a 1,1 0 0 0 -1,1 1,1 0 0 0 1,1 1,1 0 0 0 1,-1 1,1 0 0 0 -1,-1 z m 0,3 c -0.5523,0 -1,0.4477 -1,1 0,0.5523 0.44772,1 1,1 0.35348,0 0.5,1 0.5,1 0,0 0.5,-1.8012 0.5,-2 0,-0.5523 -0.44772,-1 -1,-1 z"/>
 <path fill="#fff" fill-rule="evenodd" d="m9.532 10.741a0.50005 0.50005 0 0 0 -0.04785 0 0.50005 0.50005 0 0 0 -0.13184 0.0275s-0.31316 0.10315-0.6758 0.29395c-0.36262 0.1908-0.8034 0.4582-1.0869 0.917-0.31558 0.5106-0.1958 1.0569-0.097655 1.3838s0.15218 0.4696 0.061525 0.68845c-0.04427 0.1069-0.3155 0.34085-0.6123 0.48635-0.2968 0.14545-0.5664 0.22165-0.5664 0.22165a0.50005 0.50005 0 0 0 -0.35742 0.61425 0.50005 0.50005 0 0 0 0.35742 0.6006s0.2696 0.0762 0.5664 0.22165c0.2968 0.1455 0.56805 0.37945 0.6123 0.48635 0.09065 0.21885 0.03662 0.36155-0.061525 0.68845s-0.21792 0.8732 0.097655 1.3838c0.28354 0.4588 0.7243 0.7262 1.0869 0.917 0.36262 0.1908 0.6758 0.29395 0.6758 0.29395a0.50005 0.50005 0 1 0 0.31446 -0.94825s-0.23794-0.07975-0.5244-0.23045c-0.28648-0.15075-0.59285-0.38335-0.70115-0.5586-0.12252-0.19825-0.08232-0.26685 0.00879-0.5703 0.09111-0.3035 0.25559-0.80735 0.027345-1.3584-0.20214-0.48805-0.60555-0.74635-0.9668-0.93265 0.36124-0.18625 0.76465-0.4446 0.9668-0.9326 0.22825-0.55105 0.06377-1.055-0.027345-1.3584-0.09111-0.30345-0.13132-0.37205-0.00879-0.5703 0.10832-0.1753 0.4147-0.4079 0.70115-0.5586 0.28648-0.1507 0.5244-0.2305 0.5244-0.2305a0.50005 0.50005 0 0 0 -0.13476 -0.97655zm4.9658 0a0.50005 0.50005 0 0 0 -0.13281 0.97655s0.23794 0.0798 0.5244 0.2305c0.28648 0.1507 0.59285 0.3833 0.70115 0.5586 0.12252 0.19825 0.08232 0.26685-0.0088 0.5703-0.09111 0.30345-0.2556 0.80735-0.02735 1.3584 0.20214 0.488 0.60555 0.74635 0.9668 0.9326-0.36124 0.1863-0.76465 0.4446-0.9668 0.93265-0.22825 0.55105-0.06376 1.0549 0.02735 1.3584 0.09111 0.30345 0.13132 0.37205 0.0088 0.5703-0.10832 0.17525-0.4147 0.40785-0.70115 0.5586-0.28648 0.1507-0.5244 0.23045-0.5244 0.23045a0.50005 0.50005 0 1 0 0.31446 0.94825s0.31316-0.10315 0.6758-0.29395c0.36262-0.1908 0.8034-0.4582 1.0869-0.917 0.31558-0.5106 0.1958-1.0569 0.09765-1.3838-0.09814-0.3269-0.15218-0.4696-0.06152-0.68845 0.04427-0.1069 0.3155-0.34085 0.6123-0.48635 0.2968-0.14545 0.5664-0.22165 0.5664-0.22165a0.50005 0.50005 0 0 0 0.35742 -0.6006 0.50005 0.50005 0 0 0 -0.35742 -0.61425s-0.2696-0.0762-0.5664-0.2217c-0.2968-0.14545-0.56805-0.37945-0.6123-0.4863-0.09065-0.21885-0.03662-0.3616 0.06152-0.6885s0.21792-0.87315-0.09765-1.3838c-0.28354-0.45875-0.7243-0.7262-1.0869-0.91695-0.36262-0.1908-0.6758-0.29395-0.6758-0.29395a0.50005 0.50005 0 0 0 -0.13184 -0.0275 0.50005 0.50005 0 0 0 -0.04785 0 0.50005 0.50005 0 0 0 -0.002 0zm-2.498 2.2588a1 1 0 0 0 -1 1 1 1 0 0 0 1 1 1 1 0 0 0 1 -1 1 1 0 0 0 -1 -1zm0 3c-0.5523 0-1 0.4477-1 1s0.44772 1 1 1c0.35348 0 0.5 1 0.5 1s0.5-1.8012 0.5-2c0-0.5523-0.44772-1-1-1z"/>
</svg>
