<svg xmlns="http://www.w3.org/2000/svg" width="24" height="24" version="1">
 <path style="opacity:0.2" d="m 5,2.5 c -0.554,0 -1,0.446 -1,1 v 18 c 0,0.554 0.446,1 1,1 h 14 c 0.554,0 1,-0.446 1,-1 V 8.5 L 14.5,8 14,2.5 Z"/>
 <path style="fill:#b2bfd9" d="M 5,2 C 4.446,2 4,2.446 4,3 v 18 c 0,0.554 0.446,1 1,1 h 14 c 0.554,0 1,-0.446 1,-1 V 8 L 14.5,7.5 14,2 Z"/>
 <path style="opacity:0.2;fill:#8b9cbe" d="M 5,2 C 4.446,2 4,2.446 4,3 v 0.5 c 0,-0.554 0.446,-1 1,-1 h 9 L 19.5,8 H 20 L 14,2 Z"/>
 <path style="opacity:0.2" d="m 14,2.5 v 5 c 0,0.5523 0.447715,1 1,1 h 5 z"/>
 <path style="fill:#fafafa" d="m 14,2 v 5 c 0,0.5523 0.447715,1 1,1 h 5 z"/>
 <path style="opacity:0.5" d="M 11.75 10 C 10.328962 10.0012 9.129185 10.584846 9 12 L 10 12 C 10.118788 11.418061 10.720921 11.000052 11.75 11 C 12.821094 10.999946 13 12.059644 13 12.75 C 13 14 11 14.499027 11 17.009766 L 12 16.988281 C 11.878154 15.250399 13.958471 14.304002 14 12.75 C 14 11.231217 13.268783 10 11.75 10 z M 11 18 L 11 19 L 11.972656 19 L 11.972656 18 L 11 18 z"/>
</svg>
