<svg xmlns="http://www.w3.org/2000/svg" width="24" height="24" version="1">
 <circle style="fill:#e65a2f" cx="12" cy="12" r="10"/>
 <rect style="opacity:0.2" width="14" height="14" x="-19.5" y="-19" rx="7" ry="7" transform="matrix(0,-1,-1,0,0,0)"/>
 <rect style="fill:#ff9907" width="14" height="14" x="-19" y="-19" rx="7" ry="7" transform="matrix(0,-1,-1,0,0,0)"/>
 <g style="opacity:0.2;enable-background:new" transform="matrix(0.5,0,0,0.5,-234.5,-82.99975)">
  <path d="m 489,183 0,8.1875 c -0.32,-0.12 -0.64,-0.19 -1,-0.19 -1.6568,0 -3,1.3432 -3,3 0,1.6568 1.3432,3 3,3 1.6568,0 3,-1.3432 3,-3 l 0,-7 6,0 0,4.1875 c -0.32,-0.12 -0.64,-0.19 -1,-0.19 -1.6568,0 -3,1.3432 -3,3 0,1.6568 1.3432,3 3,3 1.6568,0 3,-1.3432 3,-3 l 0,-11 -1,0 z"/>
 </g>
 <g style="fill:#8b9cbe;enable-background:new" transform="matrix(0.5,0,0,0.5,-234.5,-83.49975)">
  <path style="fill:#8b9cbe" d="m 489,183 0,8.1875 c -0.32,-0.12 -0.64,-0.19 -1,-0.19 -1.6568,0 -3,1.3432 -3,3 0,1.6568 1.3432,3 3,3 1.6568,0 3,-1.3432 3,-3 l 0,-7 6,0 0,4.1875 c -0.32,-0.12 -0.64,-0.19 -1,-0.19 -1.6568,0 -3,1.3432 -3,3 0,1.6568 1.3432,3 3,3 1.6568,0 3,-1.3432 3,-3 l 0,-11 -1,0 z"/>
 </g>
 <path style="opacity:0.2;fill:#8b9cbe" d="M 12,2 A 10,10 0 0 0 2,12 10,10 0 0 0 2.0107,12.291 10,10 0 0 1 12,2.5 10,10 0 0 1 21.989,12.209 10,10 0 0 0 22,12 10,10 0 0 0 12,2 Z"/>
 <path style="opacity:0.2" d="M 21.989,12.209 A 10,10 0 0 1 12,22 10,10 0 0 1 2.0107,12.291 10,10 0 0 0 2,12.5 a 10,10 0 0 0 10,10 10,10 0 0 0 10,-10 10,10 0 0 0 -0.01074,-0.29102 z"/>
 <path style="fill:#8b9cbe;opacity:0.2" d="M 12 5 C 8.122 5 5 8.122 5 12 C 5 12.084525 5.0087769 12.166218 5.0117188 12.25 C 5.1437474 8.4898619 8.2065251 5.5 12 5.5 C 15.793475 5.5 18.856253 8.4898619 18.988281 12.25 C 18.991223 12.166218 19 12.084525 19 12 C 19 8.122 15.878 5 12 5 z"/>
</svg>
