<svg xmlns="http://www.w3.org/2000/svg" width="32" height="32" version="1">
 <path style="opacity:0.2" d="M 16,3 C 8.244,3 2,9.244 2,17 2,24.756 8.244,31 16,31 23.756,31 30,24.756 30,17 30,9.244 23.756,3 16,3 Z"/>
 <path style="fill:#ffa50c" d="M 16,2 C 8.244,2 2,8.244 2,16 2,23.756 8.244,30 16,30 23.756,30 30,23.756 30,16 30,8.244 23.756,2 16,2 Z"/>
 <circle style="opacity:0.1" cx="21" cy="13" r="2"/>
 <path style="fill:#db493d" d="m 16,20.7 v 2.5 c 0,1.546397 1.343146,2.8 3,2.8 1.656854,0 3,-1.253603 3,-2.8 v -2.5 z"/>
 <circle style="fill:#17191e" cx="21" cy="12" r="2"/>
 <path style="opacity:0.1" d="m 13,14.02408 c 0,1.10457 -0.89543,0 -2,0 -1.1045694,0 -2,1.10457 -2,0 0,-1.10457 0.8954306,-2 2,-2 1.10457,0 2,0.89543 2,2 z"/>
 <path style="fill:#17191e" d="m 13,13.02408 c 0,1.10457 -0.89543,0 -2,0 -1.1045694,0 -2,1.10457 -2,0 0,-1.10457 0.8954306,-2 2,-2 1.10457,0 2,0.89543 2,2 z"/>
 <path style="opacity:0.1;fill:none;stroke:#000000;stroke-width:1.5;stroke-linecap:round" d="m 10.75,21.749925 h 10.5 v 0 0"/>
 <path style="fill:none;stroke:#17191e;stroke-width:1.5;stroke-linecap:round" d="m 10.75,20.749925 h 10.5 v 0 0"/>
 <path style="fill:#8b9cbe;opacity:0.2" d="M 16 2 C 8.244 2 2 8.244 2 16 C 2 16.168842 2.0195214 16.33264 2.0253906 16.5 C 2.2891326 8.9794325 8.4128418 3 16 3 C 23.500fae9 3 29.710867 8.9794325 29.974609 16.5 C 29.980479 16.33264 30 16.168842 30 16 C 30 8.244 23.756 2 16 2 z"/>
</svg>
