<svg xmlns="http://www.w3.org/2000/svg" width="32" height="32" version="1">
 <path style="opacity:0.2" d="M 16,3 C 8.244,3 2,9.244 2,17 2,24.756 8.244,31 16,31 23.756,31 30,24.756 30,17 30,9.244 23.756,3 16,3 Z"/>
 <path style="fill:#70af3b" d="M 16,2 C 8.244,2 2,8.244 2,16 2,23.756 8.244,30 16,30 23.756,30 30,23.756 30,16 30,8.244 23.756,2 16,2 Z"/>
 <path style="opacity:0.1" d="m 11,11.02308 c -1.1045692,-1e-6 -1.9999999,0.895429 -1.9999999,2 0,1.10457 0.8954307,0 1.9999999,0 1.10457,0 2,1.10457 2,0 0,-1.104571 -0.89543,-2 -2,-2 z"/>
 <path style="opacity:0.1" d="m 21,11.02308 c -1.10457,-1e-6 -2,0.895429 -2,2 0,1.10457 0.89543,0 2,0 1.10457,0 2,1.10457 2,0 0,-1.104571 -0.89543,-2 -2,-2 z"/>
 <path style="fill:#17191e" d="m 13,12.023722 c 0,1.10457 -0.89543,0 -2,0 -1.1045692,0 -1.9999999,1.10457 -1.9999999,0 0,-1.10457 0.8954307,-2 1.9999999,-2 1.10457,0 2,0.89543 2,2 z"/>
 <path style="fill:#17191e" d="m 23,12.023722 c 0,1.10457 -0.89543,0 -2,0 -1.10457,0 -2,1.10457 -2,0 0,-1.10457 0.89543,-2 2,-2 1.10457,0 2,0.89543 2,2 z"/>
 <path style="fill:#8b9cbe;opacity:0.2" d="M 16 2 C 8.244 2 2 8.244 2 16 C 2 16.168842 2.0195214 16.33264 2.0253906 16.5 C 2.2891326 8.9794325 8.4128418 3 16 3 C 23.500fae9 3 29.710867 8.9794325 29.974609 16.5 C 29.980479 16.33264 30 16.168842 30 16 C 30 8.244 23.756 2 16 2 z"/>
 <path style="opacity:0.1" d="m 16.000485,21.04342 c -4.509471,0 -6.8828123,2.876953 -6.8828123,2.876953 a 0.750075,0.750075 0 1 0 1.1660153,0.943359 c 0,0 1.826268,-2.320312 5.716797,-2.320312 3.890529,0 5.716797,2.320312 5.716797,2.320312 a 0.750075,0.750075 0 1 0 1.166015,-0.943359 c 0,0 -2.373341,-2.876953 -6.882812,-2.876953 z"/>
 <path style="fill:none;stroke:#17191e;stroke-width:1.5;stroke-linecap:round;stroke-linejoin:round" d="m 9.7004847,23.392 c 0,0 2.1000003,-2.59956 6.3000003,-2.59956 4.2,0 6.3,2.59956 6.3,2.59956 v 0 0"/>
</svg>
