<svg xmlns="http://www.w3.org/2000/svg" width="32" height="32" version="1">
 <path style="opacity:0.2" d="M 16,3 C 8.244,3 2,9.244 2,17 2,24.756 8.244,31 16,31 23.756,31 30,24.756 30,17 30,9.244 23.756,3 16,3 Z"/>
 <path style="fill:#ffa50c" d="M 16,2 C 8.244,2 2,8.244 2,16 2,23.756 8.244,30 16,30 23.756,30 30,23.756 30,16 30,8.244 23.756,2 16,2 Z"/>
 <circle style="opacity:0.1" cx="11" cy="13" r="2"/>
 <circle style="fill:#17191e" cx="11" cy="12" r="2"/>
 <circle style="opacity:0.1" cx="21" cy="13" r="2"/>
 <circle style="fill:#17191e" cx="21" cy="12" r="2"/>
 <path style="opacity:0.1;fill:none;stroke:#000000;stroke-width:1.5;stroke-linecap:round;stroke-linejoin:round" d="m 9.7060095,24.24144 c 0,0 2.0999995,-2.8 6.2999995,-2.8 4.2,0 6.3,2.8 6.3,2.8 v 0 0"/>
 <path style="fill:none;stroke:#17191e;stroke-width:1.5;stroke-linecap:round;stroke-linejoin:round" d="m 9.7060095,23.24144 c 0,0 2.0999995,-2.8 6.2999995,-2.8 4.2,0 6.3,2.8 6.3,2.8 v 0 0"/>
 <path style="fill:#8b9cbe;opacity:0.2" d="M 16 2 C 8.244 2 2 8.244 2 16 C 2 16.168842 2.0195214 16.33264 2.0253906 16.5 C 2.2891326 8.9794325 8.4128418 3 16 3 C 23.500fae9 3 29.710867 8.9794325 29.974609 16.5 C 29.980479 16.33264 30 16.168842 30 16 C 30 8.244 23.756 2 16 2 z"/>
</svg>
