<svg xmlns="http://www.w3.org/2000/svg" width="22" height="22" version="1.1">
 <defs>
  <style id="current-color-scheme" type="text/css">
   .ColorScheme-Text { color:#323a41; } .ColorScheme-Highlight { color:#4285f4; } .ColorScheme-NeutralText { color:#ff9800; } .ColorScheme-PositiveText { color:#4caf50; } .ColorScheme-NegativeText { color:#f44336; }
  </style>
 </defs>
 <path style="opacity:0.3;fill:currentColor" class="ColorScheme-Text" d="M 6.0410156 5 L 11.005859 8.5449219 L 15.96875 5 L 6.0410156 5 z M 6 9.8808594 L 6 17 L 16 17 L 16 9.890625 L 12.169922 12.626953 C 11.477581 13.121627 10.536091 13.121627 9.84375 12.626953 L 6 9.8808594 z"/>
 <path style="fill:currentColor" class="ColorScheme-Text" d="M 4.0371094,5.0003095 A 0.99917917,0.9987072 0 0 0 3.0019531,6.0413251 C 3.0019147,6.0440485 3,6.0686689 3,6.0686689 v 9.9374991 c 0,0.54653 0.4399575,1.000321 0.9921875,0.994141 H 5 V 7.9397626 l 5.425781,3.8730474 a 0.99917917,0.9987072 0 0 0 1.16211,0 L 17,7.9495283 v 9.0507807 h 0.980469 C 18.557469,16.99931 19,16.553934 19,16.015934 V 5.9905439 c 0,-0.00348 -0.0019,-0.0063 -0.002,-0.00977 A 1.0001247,0.99965229 0 0 0 18.92573,5.6331176 c -0.0071,-0.018016 -0.01332,-0.03526 -0.02148,-0.052734 A 1.0001247,0.99965229 0 0 0 18.724609,5.320622 C 18.707849,5.302882 18.691829,5.28632 18.673829,5.269841 A 1.0001247,0.99965229 0 0 0 18.431641,5.1077314 c -0.03286,-0.015969 -0.06494,-0.028643 -0.09961,-0.041016 a 1.0001247,0.99965229 0 0 0 -0.279297,-0.05664 C 18.03439,5.0090619 18.01856,5.0003095 18,5.0003095 l -0.0059,0.00977 A 1.0001247,0.99965229 0 0 0 17.417969,5.1936689 L 11.005859,9.773747 4.59375,5.1936689 A 0.99917917,0.9987072 0 0 0 4.0371094,5.0003095 Z"/>
</svg>
