<svg xmlns="http://www.w3.org/2000/svg" width="22" height="22" version="1.1">
 <defs>
  <style id="current-color-scheme" type="text/css">
   .ColorScheme-Text { color:#323a41; } .ColorScheme-Highlight { color:#4285f4; } .ColorScheme-NeutralText { color:#ff9800; } .ColorScheme-PositiveText { color:#4caf50; } .ColorScheme-NegativeText { color:#f44336; }
  </style>
 </defs>
 <g transform="translate(0 -1030.4)">
  <path style="fill:currentColor" class="ColorScheme-Text" d="m9 1034.4v1h-3v13h10v-13h-3v-1h-4zm-2 8h8v2h-8v-2zm0 3h8v2h-8v-2z"/>
 </g>
</svg>
