<svg xmlns="http://www.w3.org/2000/svg" width="22" height="22" version="1.1">
 <defs>
  <style id="current-color-scheme" type="text/css">
   .ColorScheme-Text { color:#323a41; } .ColorScheme-Highlight { color:#4285f4; } .ColorScheme-NeutralText { color:#ff9800; } .ColorScheme-PositiveText { color:#4caf50; } .ColorScheme-NegativeText { color:#f44336; }
  </style>
 </defs>
 <path d="m 11,3.9999998 c -3.0506001,0 -5.9194001,1.0732 -8.0000001,3 L 11,18 19,6.9999998 c -2.081,-1.9269 -4.949,-3 -8,-3 z m 0,3 c 1.11,0 2,0.9 2,2 C 13,10.11 12.11,11 11,11 v 1 H 9.9999999 V 9.9999998 H 11 c 0.56,0 1,-0.44 1,-1 0,-0.55 -0.44,-1 -1,-1 -0.55,0 -1.0000001,0.45 -1.0000001,1 h -1 c 0,-1.1 0.9,-2 2.0000001,-2 z M 9.9999999,13 H 11 v 1 H 9.9999999 Z" style="fill:currentColor" class="ColorScheme-Text"/>
</svg>
