<svg xmlns="http://www.w3.org/2000/svg" width="22" height="22" version="1.1">
 <defs>
  <style id="current-color-scheme" type="text/css">
   .ColorScheme-Text { color:#323a41; } .ColorScheme-Highlight { color:#4285f4; } .ColorScheme-NeutralText { color:#ff9800; } .ColorScheme-PositiveText { color:#4caf50; } .ColorScheme-NegativeText { color:#f44336; }
  </style>
 </defs>
 <path style="fill:currentColor" class="ColorScheme-Text" d="M 5.4453125 3 A 1.4120914 1.4364486 0 0 0 4 4.4355469 L 4 17.564453 A 1.4120914 1.4364486 0 0 0 6.1171875 18.808594 L 17.292969 12.244141 A 1.4120914 1.4364486 0 0 0 17.292969 9.7558594 L 6.1171875 3.1933594 A 1.4120914 1.4364486 0 0 0 5.4453125 3 z M 7 7.1914062 L 13.486328 11.001953 L 7 14.8125 L 7 7.1914062 z M 18.035156 13 L 15 15 L 18.035156 17 L 18.035156 16.101562 C 18.615209 16.323085 18.99882 16.879088 19 17.5 C 19 18.328427 18.328427 19 17.5 19 C 16.865098 18.999109 16.299525 18.598592 16.087891 18 L 14.041016 18 C 14.289287 19.720082 15.762095 20.997459 17.5 21 C 19.432997 21 21 19.432997 21 17.5 C 20.9981 15.775062 19.739812 14.308667 18.035156 14.044922 L 18.035156 13 z"/>
</svg>
