<svg xmlns="http://www.w3.org/2000/svg" width="22" height="22" version="1.1">
 <defs>
  <style id="current-color-scheme" type="text/css">
   .ColorScheme-Text { color:#323a41; } .ColorScheme-Highlight { color:#4285f4; } .ColorScheme-NeutralText { color:#ff9800; } .ColorScheme-PositiveText { color:#4caf50; } .ColorScheme-NegativeText { color:#f44336; }
  </style>
 </defs>
 <g transform="translate(-81 -815.36)">
  <path opacity=".3" style="fill:currentColor" class="ColorScheme-Text" d="m97 820.36s2 0 2 2v6c0 2-2 2-2 2h-1l-2 3.0034-2-3.0034h-5c-1.108 0-2-0.892-2-2v-6c0-2 1.9688-2 1.9688-2z"/>
 </g>
</svg>
