<svg xmlns="http://www.w3.org/2000/svg" width="22" height="22" version="1.1">
 <defs>
  <style id="current-color-scheme" type="text/css">
   .ColorScheme-Text { color:#323a41; } .ColorScheme-Highlight { color:#4285f4; } .ColorScheme-NeutralText { color:#ff9800; } .ColorScheme-PositiveText { color:#4caf50; } .ColorScheme-NegativeText { color:#f44336; }
  </style>
 </defs>
 <path style="fill:none;stroke:currentColor;stroke-width:2;stroke-linecap:round;stroke-linejoin:round" class="ColorScheme-Text" d="m 3.0142425,8 8.9999995,0 c 0,0 2,0 2,-2 0,-2 -2,-2 -2,-2"/>
 <path style="fill:none;stroke:currentColor;stroke-width:2;stroke-linecap:round;stroke-linejoin:round" class="ColorScheme-Text" d="m 8.0142425,11 9.0000005,0 c 0,0 2,0 2,-2 0,-1.9999999 -2,-1.9999999 -2,-1.9999999"/>
 <path style="fill:none;stroke:currentColor;stroke-width:2;stroke-linecap:round;stroke-linejoin:round" class="ColorScheme-Text" d="m 3.0142425,14 9.0000005,0 c 0,0 2,0 2,2 0,2 -2,2 -2,2"/>
</svg>
