<svg xmlns="http://www.w3.org/2000/svg" width="22" height="22" version="1.1">
 <defs>
  <style id="current-color-scheme" type="text/css">
   .ColorScheme-Text { color:#323a41; } .ColorScheme-Highlight { color:#4285f4; } .ColorScheme-NeutralText { color:#ff9800; } .ColorScheme-PositiveText { color:#4caf50; } .ColorScheme-NegativeText { color:#f44336; }
  </style>
 </defs>
 <path style="fill:currentColor" class="ColorScheme-Text" d="m 9.9999992,3.0000001 v 2.0859371 a 6,6 0 0 1 0.9999998,-0.085937 6,6 0 0 1 1,0.08984 V 3.0000001 Z m -3.949219,1.636719 -1.4140621,1.4140621 1.4765621,1.476563 a 6,6 0 0 1 1.416016,-1.41211 z m 9.8984378,0 -1.476563,1.4765621 a 6,6 0 0 1 1.41211,1.416016 L 17.36328,6.0507812 Z M 10.999999,6.0000002 A 5,5 0 0 0 5.9999992,11 a 5,5 0 0 0 4.9999998,5 5,5 0 0 0 5,-5 5,5 0 0 0 -5,-4.9999998 z M 2.9999992,10 v 2 h 2.085937 a 6,6 0 0 1 -0.08594,-1 6,6 0 0 1 0.08984,-1 z m 13.9140618,0 a 6,6 0 0 1 0.08594,1 6,6 0 0 1 -0.08984,1 h 2.08984 V 10 Z M 6.1152332,14.470703 4.6367181,15.949219 6.0507802,17.363281 7.5273431,15.886719 A 6,6 0 0 1 6.1152332,14.470703 Z m 9.7714848,0.002 a 6,6 0 0 1 -1.416016,1.41211 l 1.478516,1.478515 1.414062,-1.414062 z M 9.9999992,16.910156 V 19 h 1.9999998 v -2.085938 a 6,6 0 0 1 -1,0.08594 6,6 0 0 1 -0.9999998,-0.08984 z"/>
</svg>
