<svg xmlns="http://www.w3.org/2000/svg" width="22" height="22" version="1">
 <path style="opacity:0.2" d="m 21,19.5 v -16 c 0,-0.554 -0.446,-1 -1,-1 H 2 c -0.554,0 -1,0.446 -1,1 v 16 c 0,0.554 0.446,1 1,1 h 18 c 0.554,0 1,-0.446 1,-1 z"/>
 <path style="fill:#4f4f4f" d="M 21,19 V 3 C 21,2.446 20.554,2 20,2 H 2 C 1.446,2 1,2.446 1,3 v 16 c 0,0.554 0.446,1 1,1 h 18 c 0.554,0 1,-0.446 1,-1 z"/>
 <path style="opacity:0.1;fill:#8b9cbe" d="M 2,2 C 1.446,2 1,2.446 1,3 v 0.5 c 0,-0.554 0.446,-1 1,-1 h 18 c 0.554,0 1,0.446 1,1 V 3 C 21,2.446 20.554,2 20,2 Z"/>
 <path style="fill:#e14c39" d="m 10,2 0.03906,18 H 12 V 2 Z"/>
 <path style="opacity:0.2" d="M 14,1.5 H 11 8 l 1.5,2 1.5,2 1.5,-2 z"/>
 <path style="opacity:0.2;fill-rule:evenodd" d="m 8,6.5 v 1 h 1 v -1 z m -2,2 v 1 h 3 v -1 z m -2,2 v 1 h 5 v -1 z m -2,2 v 1 h 7 v -1 z m 2,2 v 1 h 5 v -1 z m 3,2 v 1 h 2 v -1 z"/>
 <path style="fill:#83b9f5;fill-rule:evenodd" d="M 8,6 V 7 H 9 V 6 Z M 6,8 V 9 H 9 V 8 Z m -2,2 v 1 h 5 v -1 z m -2,2 v 1 h 7 v -1 z m 2,2 v 1 h 5 v -1 z m 3,2 v 1 h 2 v -1 z"/>
 <path style="fill:#ff6161" d="M 14,1 H 11 8 L 9.5,2.9999999 11,5 12.5,3 Z"/>
 <path style="opacity:0.2" d="m 13.518432,7.5006936 c -0.245509,0.01489 -0.509869,0.2577465 -0.509252,0.526843 L 13,15.972564 c 0,0.358823 0.46944,0.671054 0.737986,0.457889 l 5.05952,-3.986096 c 0.2703,-0.210531 0.269683,-0.704389 0,-0.915854 L 13.747371,7.5696446 c -0.06741,-0.05282 -0.146901,-0.073866 -0.228774,-0.068951 z"/>
 <path style="fill:#3a7cca" d="m 13.518432,7.0006936 c -0.245509,0.01489 -0.509869,0.2577465 -0.509252,0.526843 L 13,15.472565 c 0,0.358822 0.46944,0.671053 0.737986,0.457888 l 5.05952,-3.986096 c 0.2703,-0.210531 0.269683,-0.704389 0,-0.915854 L 13.747371,7.0696446 c -0.06741,-0.05282 -0.146901,-0.073866 -0.228774,-0.068951 z"/>
 <path style="opacity:0.1;fill:#8b9cbe;fill-rule:evenodd" d="M 8,6 V 6.5 H 9 V 6 Z M 6,8 V 8.5 H 9 V 8 Z m -2,2 v 0.5 H 9 V 10 Z m -2,2 v 0.5 H 9 V 12 Z m 2,2 v 0.5 H 9 V 14 Z m 3,2 v 0.5 H 9 V 16 Z"/>
 <path style="opacity:0.1;fill:#8b9cbe" d="m 13.518555,7.0009771 c -0.245509,0.01489 -0.510383,0.257271 -0.509766,0.5263675 L 13,15.472657 c 0,0.0013 9.5e-4,0.0025 10e-4,0.0039 l 0.0078,-7.4492189 c -6e-4,-0.2690965 0.264257,-0.5114775 0.509766,-0.5263675 0.08187,-0.0049 0.161101,0.01554 0.228516,0.068359 l 5.050781,3.9589854 c 0.06878,0.05393 0.119574,0.12672 0.15332,0.208008 0.09802,-0.236984 0.04733,-0.550668 -0.15332,-0.708008 L 13.747071,7.0693366 c -0.06742,-0.05282 -0.146644,-0.073275 -0.228516,-0.068359 z"/>
</svg>
