<svg xmlns="http://www.w3.org/2000/svg" width="22" height="22" version="1">
 <path style="opacity:0.2" d="m 4,1.5 c -0.554,0 -1,0.446 -1,1 v 18 c 0,0.554 0.446,1 1,1 h 14 c 0.554,0 1,-0.446 1,-1 V 7.5 L 13.5,7 13,1.5 Z"/>
 <path style="fill:#4f4f4f" d="M 4,1 C 3.446,1 3,1.446 3,2 v 18 c 0,0.554 0.446,1 1,1 h 14 c 0.554,0 1,-0.446 1,-1 V 7 L 13.5,6.5 13,1 Z"/>
 <path style="opacity:0.1;fill:#8b9cbe" d="M 4,1 C 3.446,1 3,1.446 3,2 v 0.5 c 0,-0.554 0.446,-1 1,-1 h 9 L 18.5,7 H 19 L 13,1 Z"/>
 <path style="opacity:0.2" d="m 13,1.5 v 5 c 0,0.5523 0.447715,1 1,1 h 5 z"/>
 <path style="fill:#696969" d="m 13,1 v 5 c 0,0.5523 0.447715,1 1,1 h 5 z"/>
 <path style="opacity:0.2" d="m 8.9654,10.502837 c -0.52915,-0.02792 -1.0474,0.14732 -1.4314,0.53138 -0.76815,0.76812 -0.69935,2.0734 0.15416,2.9269 l 0.53905,0.53903 -0.53905,0.53903 c -0.8535,0.85347 -0.9223,2.1588 -0.15416,2.9269 0.76814,0.76812 2.0735,0.69932 2.927,-0.15415 l 0.539,-0.539 0.53905,0.53903 c 0.8535,0.85347 2.1588,0.92227 2.927,0.15415 0.768,-0.768 0.699,-2.073 -0.154,-2.927 l -0.53905,-0.53903 0.53905,-0.53903 c 0.8535,-0.85347 0.9223,-2.1588 0.15416,-2.9269 -0.76815,-0.76812 -2.0735,-0.69932 -2.927,0.15415 l -0.539,0.539 -0.539,-0.539 c -0.427,-0.426 -0.966,-0.657 -1.4956,-0.685 z"/>
 <path style="fill:#ffc510" d="m 8.9654,10.002837 c -0.52915,-0.02792 -1.0474,0.14732 -1.4314,0.53138 -0.76815,0.76812 -0.69935,2.0734 0.15416,2.9269 l 0.53905,0.53903 -0.53905,0.53903 c -0.8535,0.85347 -0.9223,2.1588 -0.15416,2.9269 0.76814,0.76812 2.0735,0.69932 2.927,-0.15415 l 0.539,-0.539 0.53905,0.53903 c 0.8535,0.85347 2.1588,0.92227 2.927,0.15415 0.768,-0.768 0.699,-2.073 -0.154,-2.927 l -0.53905,-0.53903 0.53905,-0.53903 c 0.8535,-0.85347 0.9223,-2.1588 0.15416,-2.9269 -0.76815,-0.76812 -2.0735,-0.69932 -2.927,0.15415 l -0.539,0.539 -0.539,-0.539 c -0.427,-0.426 -0.966,-0.657 -1.4956,-0.685 z"/>
</svg>
