<svg xmlns="http://www.w3.org/2000/svg" width="22" height="22" version="1">
 <path style="opacity:0.2" d="m 4,1.5 c -0.554,0 -1,0.446 -1,1 v 18 c 0,0.554 0.446,1 1,1 h 14 c 0.554,0 1,-0.446 1,-1 V 7.5 L 13.5,7 13,1.5 Z"/>
 <path style="fill:#b2bfd9" d="M 4,1 C 3.446,1 3,1.446 3,2 v 18 c 0,0.554 0.446,1 1,1 h 14 c 0.554,0 1,-0.446 1,-1 V 7 L 13.5,6.5 13,1 Z"/>
 <path style="opacity:0.2;fill:#8b9cbe" d="M 4,1 C 3.446,1 3,1.446 3,2 v 0.5 c 0,-0.554 0.446,-1 1,-1 h 9 L 18.5,7 H 19 L 13,1 Z"/>
 <path style="opacity:0.2" d="m 13,1.5 v 5 c 0,0.5523 0.44772,1 1,1 h 5 z"/>
 <path style="fill:#fafafa" d="m 13,1 v 5 c 0,0.5523 0.44772,1 1,1 h 5 z"/>
 <g style="fill:#9c40d3" transform="matrix(0.5,0,0,0.5,-1,-1)">
  <path style="fill:#9c40d3" d="m 28,22 v 3 l 4.5,4 -4.5,4 v 3 l 7.9999,-6.8672 z"/>
  <path style="fill:#9c40d3" d="m 20,24 v 3 l -4.5,4 4.5,4 v 3 l -7.9999,-6.8672 z"/>
  <rect style="fill:#9c40d3" width="2" height="16" x="29.99" y="14.77" transform="rotate(15)"/>
 </g>
</svg>
