<svg width="22" height="22" version="1.1" xmlns="http://www.w3.org/2000/svg">
 <g transform="translate(-1,-1)">
  <path d="m5 2.5c-0.554 0-1 0.446-1 1v18c0 0.554 0.446 1 1 1h14c0.554 0 1-0.446 1-1v-13l-6-6z" style="opacity:.2"/>
  <path d="m5 2c-0.554 0-1 0.446-1 1v18c0 0.554 0.446 1 1 1h14c0.554 0 1-0.446 1-1v-13l-5-1-1-5z" style="fill:#4f4f4f"/>
  <path d="m12 10.5c-1.536094 0-2.6141052 0.433459-3.3828125 1.039062 0.1275901-0.013268 0.2439761-0.039062 0.3828125-0.039062 1.922185 0 2 2.572266 2 2.572266s-0.06698 2.427734-2.75 2.427734c-0.6803313 0-1.1376407-0.300253-1.46875-0.701172 0.0434125 0.782084 0.4707591 4.701172 5.21875 4.701172 5.25 0 5.25-4.285156 5.25-4.285156s0.01066-0.122236 0.01953-0.306641c-0.332821 0.33565-0.803181 0.591797-1.51953 0.591797-1.5 0-1.75-2.427734-1.75-2.427734s0.223934-2.293512 1.513672-2.546875c-0.783198-0.605419-1.898307-1.025391-3.513672-1.025391zm-3.1992188 2c-1.3499994 0-1.8007812 1.115234-1.8007812 1.115234s-3.905e-4 1.884766 1.3496094 1.884766c1.6098096 0 1.6503906-1.457031 1.6503906-1.457031s-0.0459086-1.542969-1.1992188-1.542969zm7.0742188 0c-0.744954 0-0.869141 1.535156-0.869141 1.535156s0.124187 1.464844 0.869141 1.464844c1.031433 0 1.106948-1.20243 1.113281-1.394531a0.5 0.5 0 0 1-0.488281 0.394531 0.5 0.5 0 0 1-0.5-0.5 0.5 0.5 0 0 1 0.5-0.5 0.5 0.5 0 0 1 0.482422 0.365234c-0.029156-0.367824-0.187525-1.365234-1.107422-1.365234zm-7.4121094 0.986328a0.5 0.5 0 0 1 0.00195 0 0.5 0.5 0 0 1 0.035156 0 0.5 0.5 0 0 1 0.5 0.5 0.5 0.5 0 0 1-0.5 0.5 0.5 0.5 0 0 1-0.5-0.5 0.5 0.5 0 0 1 0.4628906-0.5z" style="opacity:.2"/>
  <path d="M 12,10 C 10.463906,10 9.3858948,10.433459 8.6171875,11.039062 8.7447776,11.025794 8.8611636,11 9,11 c 1.922185,0 2,2.572266 2,2.572266 C 11,13.572266 10.933016,16 8.25,16 7.5696687,16 7.1123593,15.699747 6.78125,15.298828 6.8246625,16.080912 7.2520091,20 12,20 c 5.25,0 5.25,-4.285156 5.25,-4.285156 0,0 0.01066,-0.122236 0.01953,-0.306641 C 16.936709,15.743853 16.466349,16 15.75,16 14.25,16 14,13.572266 14,13.572266 c 0,0 0.223934,-2.293512 1.513672,-2.546875 C 14.730474,10.419972 13.615365,10 12,10 Z M 8.8007812,12 C 7.4507818,12 7,13.115234 7,13.115234 7,13.115234 6.9996095,15 8.3496094,15 9.959419,15 10,13.542969 10,13.542969 10,13.542969 9.9540914,12 8.8007812,12 Z M 15.875,12 c -0.744954,0 -0.869141,1.535156 -0.869141,1.535156 0,0 0.124187,1.464844 0.869141,1.464844 1.031433,0 1.106948,-1.20243 1.113281,-1.394531 A 0.5,0.5 0 0 1 16.5,14 0.5,0.5 0 0 1 16,13.5 0.5,0.5 0 0 1 16.5,13 0.5,0.5 0 0 1 16.982422,13.365234 C 16.953266,12.99741 16.794897,12 15.875,12 Z m -7.4121094,0.986328 a 0.5,0.5 0 0 1 0.00195,0 0.5,0.5 0 0 1 0.035156,0 0.5,0.5 0 0 1 0.5,0.5 0.5,0.5 0 0 1 -0.5,0.5 0.5,0.5 0 0 1 -0.5,-0.5 0.5,0.5 0 0 1 0.4628906,-0.5 z" style="fill:#8b9cbe"/>
  <path d="m20 8.5-6-6v5c0 0.554 0.446 1 1 1z" style="opacity:.2"/>
  <path d="m20 8-6-6v5c0 0.554 0.446 1 1 1z" style="fill:#696969"/>
  <path d="m5 2c-0.554 0-1 0.446-1 1v0.5c0-0.554 0.446-1 1-1h9v-0.5z" style="fill:#8b9cbe;opacity:.1"/>
 </g>
</svg>
