<svg xmlns="http://www.w3.org/2000/svg" width="22" height="22" version="1">
 <path style="opacity:0.2" d="m 4,1.5 c -0.554,0 -1,0.446 -1,1 v 18 c 0,0.554 0.446,1 1,1 h 14 c 0.554,0 1,-0.446 1,-1 V 7.5 L 13.5,7 13,1.5 Z"/>
 <path style="fill:#2095f2" d="M 4,1 C 3.446,1 3,1.446 3,2 v 18 c 0,0.554 0.446,1 1,1 h 14 c 0.554,0 1,-0.446 1,-1 V 7 L 13.5,6.5 13,1 Z"/>
 <path style="opacity:0.2;fill:#8b9cbe" d="M 4,1 C 3.446,1 3,1.446 3,2 v 0.5 c 0,-0.554 0.446,-1 1,-1 h 9 L 18.5,7 H 19 L 13,1 Z"/>
 <path style="opacity:0.2" d="m 13,1.5 v 5 c 0,0.5523 0.44772,1 1,1 h 5 z"/>
 <path style="fill:#7cc0f5" d="m 13,1 v 5 c 0,0.5523 0.44772,1 1,1 h 5 z"/>
 <path style="opacity:0.2" d="m 11,9.5 c -2.7614285,0 -5,2.238572 -5,5 0,2.761428 2.2385715,5 5,5 2.761428,0 5,-2.238572 5,-5 0,-2.761428 -2.238572,-5 -5,-5 z m -0.467774,0.997071 c 0.0544,-0.0057 0.122843,0.0032 0.177735,0 0.0065,0.02602 -0.03854,0.119377 -0.100586,0.254882 -0.395108,0.863144 -0.41845,1.873764 -0.05176,2.414062 0.06636,0.09796 0.126953,0.19101 0.126953,0.203125 0,0.01212 -0.07143,0.02539 -0.152344,0.02539 -0.18995,1e-6 -0.370032,-0.11542 -0.737304,-0.40625 -0.163156,-0.129195 -0.374856,-0.237481 -0.457032,-0.253906 -0.12904,-0.02578 -0.163142,-0.01461 -0.330078,0.152344 -0.155317,0.155292 -0.2031245,0.23967 -0.2031245,0.381836 0,0.539111 0.6404135,0.966572 1.8300775,1.21875 1.615612,0.342419 2.013053,0.649476 2.057618,1.499023 0.05595,1.065309 -0.510665,1.868371 -1.75293,2.490235 -0.148273,0.07425 -0.242477,0.103939 -0.304688,0.127929 -0.02757,-0.0024 -0.04967,0.0024 -0.07715,0 -0.01057,-0.03293 -0.02539,-0.109122 -0.02539,-0.253906 0,-0.565817 -0.222534,-1.148918 -0.558593,-1.474609 C 9.88342,16.788536 9.631334,16.603621 9.415036,16.469726 9.198745,16.335838 8.9802672,16.180615 8.9316372,16.114257 8.8510672,16.00414 8.8453042,15.936823 8.9072222,15.733398 9.020062,15.361866 9.153928,15.153696 9.415035,14.918945 9.551923,14.795874 9.689397,14.693855 9.719722,14.691405 9.750052,14.689005 9.545182,14.626455 9.2373,14.563476 8.9294339,14.500366 8.4779592,14.368452 8.2451127,14.284179 7.8193307,14.130116 7.2445472,13.80634 7.0253867,13.572265 c -0.00926,-0.0099 -0.01734,-0.0166 -0.02539,-0.02539 0.314006,-1.250802 1.1951005,-2.275503 2.3632813,-2.76953 0.244427,-0.103384 0.49671,-0.174112 0.762695,-0.228516 0.132489,-0.02708 0.269451,-0.03785 0.40625,-0.05176 z m 3.812501,1.90625 c 0.09551,0.05904 0.456624,0.840118 0.55957,1.220702 0.13291,0.491336 0.12329,1.341011 0,1.829102 -0.04693,0.18577 -0.107925,0.359229 -0.12793,0.380859 -0.02,0.02163 -0.09337,-0.101697 -0.178711,-0.25293 -0.08535,-0.151209 -0.356454,-0.47287 -0.583008,-0.711914 -0.653937,-0.690036 -0.757321,-1.049878 -0.483398,-1.600586 0.138141,-0.277704 0.739556,-0.910853 0.813477,-0.865233 z"/>
 <path style="fill:#8b9cbe" d="m 11,8.9999996 c -2.7614285,0 -5,2.2385724 -5,5.0000004 0,2.761428 2.2385715,5 5,5 2.761428,0 5,-2.238572 5,-5 0,-2.761428 -2.238572,-5.0000004 -5,-5.0000004 z M 10.532226,9.997071 c 0.0544,-0.0057 0.122843,0.0032 0.177735,0 0.0065,0.02602 -0.03854,0.119377 -0.100586,0.254882 -0.395108,0.863144 -0.41845,1.873764 -0.05176,2.414062 0.06636,0.09796 0.126953,0.19101 0.126953,0.203125 0,0.01212 -0.07143,0.02539 -0.152344,0.02539 -0.18995,1e-6 -0.370032,-0.11542 -0.737304,-0.40625 -0.163156,-0.129195 -0.374856,-0.237481 -0.457032,-0.253906 -0.12904,-0.02578 -0.163142,-0.01461 -0.330078,0.152344 -0.155317,0.155292 -0.2031245,0.23967 -0.2031245,0.381836 0,0.539111 0.6404135,0.966572 1.8300775,1.21875 1.615612,0.342419 2.013053,0.649476 2.057618,1.499023 0.05595,1.065309 -0.510665,1.868371 -1.75293,2.490235 -0.148273,0.07425 -0.242477,0.103939 -0.304688,0.127929 -0.02757,-0.0024 -0.04967,0.0024 -0.07715,0 -0.01057,-0.03293 -0.02539,-0.109122 -0.02539,-0.253906 0,-0.565817 -0.222534,-1.148918 -0.558593,-1.474609 C 9.88342,16.288536 9.631334,16.103621 9.415036,15.969726 9.198745,15.835838 8.9802672,15.680615 8.9316372,15.614257 8.8510672,15.50414 8.8453042,15.436823 8.9072222,15.233398 9.020062,14.861866 9.153928,14.653696 9.415035,14.418945 9.551923,14.295874 9.689397,14.193855 9.719722,14.191405 9.750052,14.189005 9.545182,14.126455 9.2373,14.063476 8.9294339,14.000366 8.4779592,13.868452 8.2451127,13.784179 7.8193307,13.630116 7.2445472,13.30634 7.0253867,13.072265 c -0.00926,-0.0099 -0.01734,-0.0166 -0.02539,-0.02539 0.314006,-1.250802 1.1951005,-2.275503 2.3632813,-2.76953 0.244427,-0.103384 0.49671,-0.174112 0.762695,-0.228516 0.132489,-0.02708 0.269451,-0.03785 0.40625,-0.05176 z m 3.812501,1.90625 c 0.09551,0.05904 0.456624,0.840118 0.55957,1.220702 0.13291,0.491336 0.12329,1.341011 0,1.829102 -0.04693,0.18577 -0.107925,0.359229 -0.12793,0.380859 -0.02,0.02163 -0.09337,-0.101697 -0.178711,-0.25293 -0.08535,-0.151209 -0.356454,-0.47287 -0.583008,-0.711914 -0.653937,-0.690036 -0.757321,-1.049878 -0.483398,-1.600586 0.138141,-0.277704 0.739556,-0.910853 0.813477,-0.865233 z"/>
</svg>
