<svg xmlns="http://www.w3.org/2000/svg" width="22" height="22" version="1">
 <path style="opacity:0.2" d="m 4,1.5 c -0.554,0 -1,0.446 -1,1 l 0,18 c 0,0.554 0.446,1 1,1 l 14,0 c 0.554,0 1,-0.446 1,-1 L 19,7.5 13.5,7 13,1.5 Z"/>
 <path style="fill:#b2bfd9" d="M 4,1 C 3.446,1 3,1.446 3,2 l 0,18 c 0,0.554 0.446,1 1,1 l 14,0 c 0.554,0 1,-0.446 1,-1 L 19,7 13.5,6.5 13,1 Z"/>
 <path style="opacity:0.2;fill:#8b9cbe" d="M 4,1 C 3.446,1 3,1.446 3,2 l 0,0.5 c 0,-0.554 0.446,-1 1,-1 l 9,0 L 18.5,7 19,7 13,1 Z"/>
 <path style="opacity:0.2" d="m 13,1.5 0,5 c 0,0.5523 0.44772,1 1,1 l 5,0 z"/>
 <path style="fill:#fafafa" d="m 13,1 0,5 c 0,0.5523 0.44772,1 1,1 l 5,0 z"/>
 <path style="fill:#2470b2" d="m 9,10 0,4.2695 c -0.3039,-0.177 -0.6488,-0.27 -1,-0.27 -1.1046,0 -2,0.89543 -2,2 0,1.10457 0.89543,2 2,2 1.10457,0 2,-0.89543 2,-2 l 0,-4 4,0 0,2.2695 c -0.304,-0.177 -0.649,-0.27 -1,-0.27 -1.1046,0 -2,0.89543 -2,2 0,1.10457 0.89543,2 2,2 1.10457,0 2,-0.89543 2,-2 l 0,-6 -0.5,0 z"/>
</svg>
