<svg xmlns="http://www.w3.org/2000/svg" width="22" height="22" version="1">
 <defs>
  <linearGradient id="linearGradient4561" x1="24" x2="44" y1="24" y2="24" gradientTransform="scale(0.5)" gradientUnits="userSpaceOnUse">
   <stop offset="0"/>
   <stop offset="1" stop-opacity="0"/>
  </linearGradient>
 </defs>
 <g transform="translate(-1,-1)">
  <path style="opacity:0.2" d="m 22,20.5 v -16 c 0,-0.554 -0.446,-1 -1,-1 H 3 c -0.554,0 -1,0.446 -1,1 v 16 c 0,0.554 0.446,1 1,1 h 18 c 0.554,0 1,-0.446 1,-1 z"/>
  <path style="fill:#ddd6a7" d="M 22,20 V 4 C 22,3.446 21.554,3 21,3 H 3 C 2.446,3 2,3.446 2,4 v 16 c 0,0.554 0.446,1 1,1 h 18 c 0.554,0 1,-0.446 1,-1 z"/>
  <path style="opacity:0.1;fill:url(#linearGradient4561)" d="M 22,20 V 4 C 22,3.446 21.554,3 21,3 h -9 v 18 h 9 c 0.554,0 1,-0.446 1,-1 z"/>
  <rect style="opacity:0.5" width="7" height="1" x="3" y="5"/>
  <rect style="opacity:0.5" width="8" height="1" x="3" y="8"/>
  <rect style="opacity:0.5" width="8" height="1" x="3" y="11"/>
  <rect style="opacity:0.5" width="7" height="1" x="3" y="14"/>
  <rect style="opacity:0.5" width="8" height="1" x="3" y="17"/>
  <rect style="opacity:0.5" width="8" height="1" x="13" y="-12" transform="scale(1,-1)"/>
  <rect style="opacity:0.5" width="5" height="1" x="13" y="-9" transform="scale(1,-1)"/>
  <rect style="opacity:0.5" width="6" height="1" x="13" y="-6" transform="scale(1,-1)"/>
  <path style="fill:#ff5959" d="m 8,3 h 3 v 8 L 9.5,9 8,11 Z"/>
  <path style="opacity:0.2;fill:#8b9cbe" d="M 3,3 C 2.446,3 2,3.446 2,4 v 0.5 c 0,-0.554 0.446,-1 1,-1 h 18 c 0.554,0 1,0.446 1,1 V 4 C 22,3.446 21.554,3 21,3 Z"/>
 </g>
</svg>
