<svg xmlns="http://www.w3.org/2000/svg" width="22" height="22" version="1">
 <rect style="opacity:0.2" width="20" height="20" x="1" y="1.5" rx="2" ry="2"/>
 <rect style="fill:#4caf50" width="20" height="20" x="1" y="1" rx="2" ry="2"/>
 <rect style="opacity:0.2" width="4" height="9.5" x="9" y="1"/>
 <path style="opacity:0.2;fill:#8b9cbe" d="M 3,1 C 1.892,1 1,1.892 1,3 v 0.5 c 0,-1.108 0.892,-2 2,-2 h 16 c 1.108,0 2,0.892 2,2 V 3 C 21,1.892 20.108,1 19,1 Z"/>
 <rect style="fill:#8b9cbe" width="1" height="1" x="10" y="8"/>
 <path style="fill:#4b4b4b" d="m 11,8 c 1.5,0 1.5,2 2,2 v 2.5 c 0,0.277 -0.223,0.5 -0.5,0.5 h -3 C 9.223,13 9,12.777 9,12.5 V 10 c 0.5,0 0.5,-2 2,-2 z"/>
 <rect style="fill:#8b9cbe" width="1" height="1" x="11" y="7"/>
 <rect style="fill:#8b9cbe" width="1" height="1" x="10" y="6"/>
 <rect style="fill:#8b9cbe" width="1" height="1" x="11" y="5"/>
 <rect style="fill:#8b9cbe" width="1" height="1" x="10" y="4"/>
 <rect style="fill:#8b9cbe" width="1" height="1" x="11" y="3"/>
 <rect style="fill:#8b9cbe" width="1" height="1" x="10" y="2"/>
 <rect style="fill:#8b9cbe" width="1" height="1" x="11" y="1"/>
 <path style="opacity:0.2" d="m 11,10.5 c -1.105,0 -2,0.9 -2,2 v 4 c 0,1.1 0.895,2 2,2 1.105,0 2,-0.9 2,-2 v -4 c 0,-1.1 -0.895,-2 -2,-2 z m 0,5 a 1,1 0 0 1 1,1 1,1 0 0 1 -1,1 1,1 0 0 1 -1,-1 1,1 0 0 1 1,-1 z"/>
 <path style="fill:#8b9cbe" d="m 11,10 c -1.105,0 -2,0.9 -2,2 v 4 c 0,1.1 0.895,2 2,2 1.105,0 2,-0.9 2,-2 v -4 c 0,-1.1 -0.895,-2 -2,-2 z m 0,5 a 1,1 0 0 1 1,1 1,1 0 0 1 -1,1 1,1 0 0 1 -1,-1 1,1 0 0 1 1,-1 z"/>
 <path style="fill:#909090" d="M 10.992188,9.000061 A 0.50005,0.49772427 0 0 0 10.5,9.50454 v 1.990698 a 0.50005,0.49772427 0 1 0 1,0 V 9.50454 A 0.50005,0.49772427 0 0 0 10.992188,9.000061 Z"/>
</svg>
