<svg xmlns="http://www.w3.org/2000/svg" width="22" height="22" version="1">
 <path style="opacity:0.2" d="m 4,1.5 c -0.554,0 -1,0.446 -1,1 v 18 c 0,0.554 0.446,1 1,1 h 14 c 0.554,0 1,-0.446 1,-1 V 7.5 L 13.5,7 13,1.5 Z"/>
 <path style="fill:#9052ff" d="M 4,1 C 3.446,1 3,1.446 3,2 v 18 c 0,0.554 0.446,1 1,1 h 14 c 0.554,0 1,-0.446 1,-1 V 7 L 13.5,6.5 13,1 Z"/>
 <path style="opacity:0.2;fill:#8b9cbe" d="M 4,1 C 3.446,1 3,1.446 3,2 v 0.5 c 0,-0.554 0.446,-1 1,-1 h 9 L 18.5,7 H 19 L 13,1 Z"/>
 <path style="opacity:0.2" d="m 13,1.5 v 5 c 0,0.5523 0.447715,1 1,1 h 5 z"/>
 <path style="fill:#ac7cf5" d="m 13,1 v 5 c 0,0.5523 0.447715,1 1,1 h 5 z"/>
 <path style="opacity:0.2" d="m 10.5,8.5 -2.5,8 -1.539,-5 H 3 v 1 h 2.531 l 2.469,7 2.5,-8 1.5,5 2,-5.5 1.5,5.5 H 19 v -1 H 16.5 L 14,9 12,13 Z"/>
 <path style="fill:#8b9cbe" d="M 10.5,8 8,16 6.461,11 H 3 v 1 H 5.531 L 8,19 10.5,11 12,16 14,10.5 15.5,16 H 19 V 15 H 16.5 L 14,8.5 l -2,4 z"/>
</svg>
