<svg xmlns="http://www.w3.org/2000/svg" width="22" height="22" version="1.1">
 <path style="opacity:0.2" d="m 4,1.5 c -0.554,0 -1,0.446 -1,1 v 18 c 0,0.554 0.446,1 1,1 h 14 c 0.554,0 1,-0.446 1,-1 V 7.5 L 13.5,7 13,1.5 Z"/>
 <path style="fill:#fec006" d="M 4,1 C 3.446,1 3,1.446 3,2 v 18 c 0,0.554 0.446,1 1,1 h 14 c 0.554,0 1,-0.446 1,-1 V 7 L 13.5,6.5 13,1 Z"/>
 <path style="opacity:0.2;fill:#8b9cbe" d="M 4,1 C 3.446,1 3,1.446 3,2 v 0.5 c 0,-0.554 0.446,-1 1,-1 h 9 L 18.5,7 H 19 L 13,1 Z"/>
 <path style="opacity:0.2" d="m 13,1.5 v 5 c 0,0.5523 0.44772,1 1,1 h 5 z"/>
 <path style="fill:#fed861" d="m 13,1 v 5 c 0,0.5523 0.44772,1 1,1 h 5 z"/>
 <path style="opacity:0.2;fill:none;stroke:#000000;stroke-linecap:square" d="m 6.503,14.839004 0.75352,0.01682 c 1.483,0.03266 2.8917,0.40606 3.4173,1.2302 1.2262,1.9228 -1.2025,2.5463 -2.1782,1.1883 -0.91186,-1.4905 -0.59676,-4.5871 0.71704,-4.9467 2.3773,-0.54736 2.771,3.2646 4.2345,2.5204 1.1305,-0.57482 -0.71474,-3.1874 0.39122,-3.8089 0.47401,-0.26638 1.4656,0.71469 1.4656,0.71469"/>
 <path style="fill:none;stroke:#8b9cbe;stroke-linecap:square" d="m 6.503,14.339 0.75352,0.01682 c 1.483,0.03266 2.8917,0.40606 3.4173,1.2302 1.2262,1.9228 -1.2025,2.5463 -2.1782,1.1883 -0.91186,-1.4905 -0.59676,-4.5871 0.71704,-4.9467 2.3773,-0.54736 2.771,3.2646 4.2345,2.5204 1.1305,-0.57482 -0.71474,-3.1874 0.39122,-3.8089 0.47401,-0.26638 1.4656,0.71469 1.4656,0.71469"/>
</svg>
