<svg xmlns="http://www.w3.org/2000/svg" width="22" height="22" version="1.1">
 <path style="opacity:0.2" d="m 4,1.5 c -0.554,0 -1,0.446 -1,1 v 18 c 0,0.554 0.446,1 1,1 h 14 c 0.554,0 1,-0.446 1,-1 v -13 l -6,-6 z"/>
 <path style="fill:#00879d" d="M 4,1 C 3.446,1 3,1.446 3,2 v 18 c 0,0.554 0.446,1 1,1 h 14 c 0.554,0 1,-0.446 1,-1 V 7 L 14,6 13,1 Z"/>
 <path style="opacity:0.2" d="m 19,7.5 -6,-6 v 5 c 0,0.554 0.446,1 1,1 z"/>
 <path style="fill:#00a6c1" d="M 19,7 13,1 v 5 c 0,0.554 0.446,1 1,1 z"/>
 <path style="opacity:0.1;fill:#8b9cbe" d="M 4,1 C 3.446,1 3,1.446 3,2 v 0.5 c 0,-0.554 0.446,-1 1,-1 h 9 V 1 Z"/>
 <path style="opacity:0.2" d="m 10.1875,8.5027408 c -0.225374,-0.00669 -0.448894,-0.0039 -0.666992,0.0078 -0.290797,0.01563 -0.5726065,0.04763 -0.836914,0.0957 -0.5147795,0.1663508 -0.9442385,0.3843994 -1.239258,0.9140612 -0.3175285,0.502383 -0.429458,1.000771 -0.439453,1.49707 -0.00758,0.38654 -0.077313,1.5735 0.6728515,2.575196 0.2751535,0.322298 0.6808685,0.664691 1.1660155,0.858398 1.130952,0.341756 1.483086,-0.413984 2.055664,-1.52832 -0.137206,0.593247 -0.20278,1.203986 -0.674804,1.71289 0.382329,0.592608 1.010557,0.827098 1.604492,1.348633 0.118574,0.105305 0.306041,0.16562 0.132812,0.433594 -0.251811,0.415046 -0.269305,0.180293 -0.538086,0.50985 -0.176025,0.234325 -0.290244,0.395384 -0.348632,0.581055 -0.05371,0.411092 -0.01646,0.773041 0.204101,1.166992 0.102149,0.2124 0.227958,0.413283 0.401367,0.608399 0.18025,0.216694 0.297125,0.269638 0.595703,0.162109 0.25067,-0.08823 0.431528,-0.19674 0.629883,-0.396484 0.08827,-0.145141 0.109739,-0.462528 -0.143554,-0.594727 -0.0921,-0.05851 -0.190648,-0.120234 -0.25293,-0.1875 -0.109776,-0.11856 -0.219334,-0.233331 -0.233399,-0.416016 -0.0094,-0.122019 0.166016,-0.327148 0.166016,-0.327148 0.660179,-0.596573 1.190925,-0.679252 1.529297,-1.054773 0.74377,-0.844562 1.10657,-2.244106 1.013672,-3.592773 0.01861,-1.016729 -0.415608,-2.140856 -1.137696,-3.012695 C 13.398995,9.364548 12.901138,8.9930462 12.182617,8.8142664 11.557737,8.6262266 10.863623,8.5228058 10.1875,8.5027408 Z M 12.5,11.499898 c 0.276142,0 0.5,0.223857 0.5,0.5 0,0.276142 -0.223858,0.5 -0.5,0.5 -0.276142,0 -0.5,-0.223858 -0.5,-0.5 0,-0.276143 0.223858,-0.5 0.5,-0.5 z m 0.02832,2.769444 c 0.05267,0.0057 0.104741,0.0491 0.198242,0.123047 l 1.483398,1.111327 c -0.202749,-0.0051 -0.4689,0.06157 -0.763672,0.03809 -0.640673,-0.05103 -1.405523,-0.213336 -1.467773,-0.422851 -0.03514,-0.290715 0.03262,-0.517738 0.34668,-0.748046 0.09674,-0.07546 0.150453,-0.107232 0.203125,-0.101563 z"/>
 <path style="fill:#8b9cbe" d="m 10.1875,8.0029463 c -0.225374,-0.00669 -0.448894,-0.0039 -0.666992,0.00781 -0.290797,0.015625 -0.5726065,0.04763 -0.836914,0.095704 -0.5147795,0.166351 -0.9442385,0.3844 -1.239258,0.9140627 -0.3175285,0.502382 -0.429458,1.000769 -0.439453,1.49707 -0.00758,0.386539 -0.077313,1.573499 0.6728515,2.575195 0.2751535,0.322298 0.6808685,0.664692 1.1660155,0.858399 1.130952,0.341756 1.483086,-0.413984 2.055664,-1.528321 -0.137206,0.593248 -0.20278,1.203987 -0.674804,1.712891 0.382329,0.592607 1.010557,0.827097 1.604492,1.348631 0.118574,0.105306 0.306041,0.165621 0.132812,0.433594 -0.448126,0.410085 -0.748463,0.527841 -0.886718,1.090904 -0.05371,0.411092 -0.01646,0.773041 0.204101,1.166993 0.102149,0.2124 0.227958,0.413283 0.401367,0.608399 0.18025,0.216694 0.297125,0.269638 0.595703,0.162109 0.25067,-0.08823 0.431528,-0.196739 0.629883,-0.396484 0.08827,-0.145141 0.109739,-0.462528 -0.143554,-0.594727 -0.0921,-0.05851 -0.190648,-0.120232 -0.25293,-0.1875 -0.109776,-0.118559 -0.219334,-0.233329 -0.233399,-0.416015 -0.0094,-0.12202 0.166016,-0.327149 0.166016,-0.327149 0.660179,-0.596571 1.190925,-0.67925 1.529297,-1.054771 0.74377,-0.844562 1.10657,-2.244107 1.013672,-3.592773 0.01861,-1.016729 -0.415608,-2.140857 -1.137696,-3.012695 C 13.398995,8.8647534 12.901138,8.4932518 12.182617,8.3144723 11.557737,8.1264328 10.863623,8.0230108 10.1875,8.0029463 Z M 12.5,11.000103 c 0.276142,0 0.5,0.223857 0.5,0.5 0,0.276142 -0.223858,0.5 -0.5,0.5 -0.276142,0 -0.5,-0.223858 -0.5,-0.5 0,-0.276143 0.223858,-0.5 0.5,-0.5 z m 0.02832,2.769444 c 0.05267,0.0057 0.104741,0.0491 0.198242,0.123047 l 1.483398,1.111328 c -0.202749,-0.0052 -0.4689,0.06156 -0.763672,0.03808 -0.640673,-0.05103 -1.405523,-0.213337 -1.467773,-0.422852 -0.03514,-0.290714 0.03262,-0.517737 0.34668,-0.748046 0.09674,-0.07546 0.150453,-0.107231 0.203125,-0.101563 z"/>
</svg>
