<svg xmlns="http://www.w3.org/2000/svg" width="22" height="22" version="1.1">
 <path style="opacity:0.2" d="m 4,1.5 c -0.554,0 -1,0.446 -1,1 v 18 c 0,0.554 0.446,1 1,1 h 14 c 0.554,0 1,-0.446 1,-1 v -13 l -6,-6 z"/>
 <path style="fill:#b2bfd9" d="M 4,1 C 3.446,1 3,1.446 3,2 v 18 c 0,0.554 0.446,1 1,1 h 14 c 0.554,0 1,-0.446 1,-1 V 7 L 13,1 Z"/>
 <path style="opacity:0.2" d="m 19,7.5 -6,-6 v 5 c 0,0.554 0.446,1 1,1 z"/>
 <path style="fill:#fafafa" d="M 19,7 13,1 v 5 c 0,0.554 0.446,1 1,1 z"/>
 <path style="opacity:0.2;fill:#8b9cbe" d="M 4,1 C 3.446,1 3,1.446 3,2 v 0.5 c 0,-0.554 0.446,-1 1,-1 h 9 V 1 Z"/>
 <path style="opacity:0.1" d="M 10.193359,9.5 C 7.834747,9.499974 5.999927,11.391676 6,13.615234 c 3.35e-5,2.223486 1.6570887,3.884792 4.015625,3.884766 2.973285,-0.183424 3.564141,-4.256879 0.970703,-3.779297 -0.0313,0.09678 0.727205,0.375361 0.78125,0.882813 0.106227,0.997402 -0.721943,1.599505 -1.755859,1.410156 C 9.25632,15.875329 8.345068,15.266217 8.167969,14.660156 8.004224,14.099789 8.085879,13.427094 8.259769,12.980469 9.080714,10.871882 11.97829,10.313402 13.000003,10.339844 12.200654,9.766583 11.321796,9.501099 10.193362,9.5 Z m 1.791016,2 c -2.973285,0.183424 -3.564141,4.256879 -0.970703,3.779297 0.0313,-0.09678 -0.727205,-0.375361 -0.78125,-0.882813 -0.106227,-0.997402 0.721943,-1.599505 1.755859,-1.410156 0.755399,0.138343 1.668604,0.747455 1.845703,1.353516 0.163745,0.560367 0.08209,1.233062 -0.0918,1.679687 C 12.921241,18.128118 10.021713,18.686597 9,18.660156 9.799349,19.233417 10.678207,19.498901 11.806641,19.5 14.165254,19.500026 16.000073,17.608324 16,15.384766 15.999966,13.16128 14.342912,11.499974 11.984375,11.5 Z"/>
 <path style="fill:#d6342a" d="M 10.193359,9 C 7.834747,8.999974 5.999927,10.891676 6,13.115234 6.0000335,15.33872 7.6570887,17.000026 10.015625,17 c 2.973285,-0.183424 3.564141,-4.256879 0.970703,-3.779297 -0.0313,0.09678 0.727205,0.375361 0.78125,0.882813 0.106227,0.997402 -0.721943,1.599505 -1.755859,1.410156 C 9.25632,15.375329 8.345068,14.766217 8.167969,14.160156 8.004224,13.599789 8.085879,12.927094 8.259769,12.480469 9.080714,10.371882 11.97829,9.813402 13.000003,9.839844 12.200654,9.266583 11.321796,9.001099 10.193362,9 Z m 1.791016,2 c -2.973285,0.183424 -3.564141,4.256879 -0.970703,3.779297 0.0313,-0.09678 -0.727205,-0.375361 -0.78125,-0.882813 -0.106227,-0.997402 0.721943,-1.599505 1.755859,-1.410156 0.755399,0.138343 1.668604,0.747455 1.845703,1.353516 0.163745,0.560367 0.08209,1.233062 -0.0918,1.679687 C 12.921241,17.628118 10.021713,18.186597 9,18.160156 9.799349,18.733417 10.678207,18.998901 11.806641,19 14.165254,19.000026 16.000073,17.108324 16,14.884766 15.999966,12.66128 14.342912,10.999974 11.984375,11 Z"/>
</svg>
