<svg xmlns="http://www.w3.org/2000/svg" width="22" height="22" version="1.1">
 <path style="opacity:0.2" d="m 4,1.5 c -0.554,0 -1,0.446 -1,1 v 18 c 0,0.554 0.446,1 1,1 h 14 c 0.554,0 1,-0.446 1,-1 v -13 l -6,-6 z"/>
 <path style="fill:#b2bfd9" d="M 4,1 C 3.446,1 3,1.446 3,2 v 18 c 0,0.554 0.446,1 1,1 h 14 c 0.554,0 1,-0.446 1,-1 V 7 L 14,6 13,1 Z"/>
 <path style="opacity:0.2" d="m 19,7.5 -6,-6 v 5 c 0,0.554 0.446,1 1,1 z"/>
 <path style="fill:#fafafa" d="M 19,7 13,1 v 5 c 0,0.554 0.446,1 1,1 z"/>
 <path style="opacity:0.2;fill:#8b9cbe" d="M 4,1 C 3.446,1 3,1.446 3,2 v 0.5 c 0,-0.554 0.446,-1 1,-1 h 9 V 1 Z"/>
 <rect style="opacity:0.1" width="6" height="6" x="10" y="13.5" rx=".462" ry=".462"/>
 <rect style="fill:#1190e6" width="6" height="6" x="10" y="13" rx=".462" ry=".462"/>
 <rect style="opacity:0.1" width="6" height="6" x="8" y="11.5" rx=".462" ry=".462"/>
 <rect style="fill:#6eca60" width="6" height="6" x="8" y="11" rx=".462" ry=".462"/>
 <rect style="opacity:0.1" width="6" height="6" x="6" y="9.5" rx=".462" ry=".462"/>
 <rect style="fill:#ffd748" width="6" height="6" x="6" y="9" rx=".462" ry=".462"/>
</svg>
