<svg xmlns="http://www.w3.org/2000/svg" width="22" height="22" version="1.1">
 <g transform="translate(-1,-1)">
  <path style="opacity:0.2" d="M 5,2.5 C 4.446,2.5 4,2.946 4,3.5 V 21.5 C 4,22.054 4.446,22.5 5,22.5 H 19 C 19.554,22.5 20,22.054 20,21.5 V 8.5 L 14,2.5 Z"/>
  <path style="fill:#1c59a5" d="M 5,2 C 4.446,2 4,2.446 4,3 V 21 C 4,21.554 4.446,22 5,22 H 19 C 19.554,22 20,21.554 20,21 V 8 L 14,2 Z"/>
  <path style="opacity:0.2" d="M 20,8.5 14,2.5 V 7.5 C 14,8.054 14.446,8.5 15,8.5 Z"/>
  <path style="fill:#6295d3" d="M 20,8 14,2 V 7 C 14,7.554 14.446,8 15,8 Z"/>
  <path style="opacity:0.1;fill:#8b9cbe" d="M 5,2 C 4.446,2 4,2.446 4,3 V 3.5 C 4,2.946 4.446,2.5 5,2.5 H 14 V 2 Z"/>
  <path style="opacity:0.2;fill:none;stroke:#000000;stroke-linecap:round" d="M 9.4995,12 C 6.4995,13.5 10.5,14.5 6.9995,16 M 9.4995,20 C 6.4435,18.5 10.5,17.5 6.9995,16 M 14.5,12 C 17.5,13.5 13.5,14.5 17,16 M 14.5,20 C 17.556,18.5 13.5,17.5 17,16"/>
  <path style="fill:none;stroke:#8b9cbe;stroke-linecap:round" d="M 9.4995,11.5 C 6.4995,13 10.5,14 6.9995,15.5 M 9.4995,19.5 C 6.4435,18 10.5,17 6.9995,15.5 M 14.5,11.5 C 17.5,13 13.5,14 17,15.5 M 14.5,19.5 C 17.556,18 13.5,17 17,15.5"/>
 </g>
</svg>
