<svg xmlns="http://www.w3.org/2000/svg" width="22" height="22" version="1">
 <path style="opacity:0.2" d="m 4,1.5 c -0.554,0 -1,0.446 -1,1 v 18 c 0,0.554 0.446,1 1,1 h 14 c 0.554,0 1,-0.446 1,-1 V 7.5 L 13.5,7 13,1.5 Z"/>
 <path style="fill:#ff7111" d="M 4,1 C 3.446,1 3,1.446 3,2 v 18 c 0,0.554 0.446,1 1,1 h 14 c 0.554,0 1,-0.446 1,-1 V 7 L 13.5,6.5 13,1 Z"/>
 <path style="opacity:0.1;fill:#8b9cbe" d="M 4,1 C 3.446,1 3,1.446 3,2 v 0.5 c 0,-0.554 0.446,-1 1,-1 h 9 L 18.5,7 H 19 L 13,1 Z"/>
 <path style="opacity:0.2" d="m 13,1.5 v 5 c 0,0.5523 0.447715,1 1,1 h 5 z"/>
 <path style="fill:#ff8d40" d="m 13,1 v 5 c 0,0.5523 0.447715,1 1,1 h 5 z"/>
 <path style="opacity:0.1" d="M 7.6660156,9.5 C 6.9993486,9.5 7,10.142578 7,10.142578 v 7.714844 c 0,0 -6.514e-4,0.642578 0.6660156,0.642578 h 6.6679684 c 0,0 0.666016,2.79e-4 0.666016,-0.642578 V 10.142578 C 15,10.142578 15.00065,9.5 14.333984,9.5 Z M 11,11.5 c 1.104999,0 2,0.895 2,2 0,1.105 -0.895001,2 -2,2 H 9 v -2 c 0,-1.105 0.895,-2 2,-2 z m 0,1 c -0.55,0 -1,0.45 -1,1 0,0.55 0.45,1 1,1 0.55,0 1,-0.45 1,-1 0,-0.55 -0.45,-1 -1,-1 z"/>
 <path style="fill:#8b9cbe" d="M 7.6660156,9 C 6.9993486,9 7,9.642578 7,9.642578 v 7.714844 C 7,17.357422 6.9993486,18 7.6660156,18 H 14.333984 C 14.333984,18 15,18.000279 15,17.357422 V 9.642578 C 15,9.642578 15.00065,9 14.333984,9 Z M 11,11 c 1.104999,0 2,0.895 2,2 0,1.105 -0.895001,2 -2,2 H 9 v -2 c 0,-1.105 0.895,-2 2,-2 z m 0,1 c -0.55,0 -1,0.45 -1,1 0,0.55 0.45,1 1,1 0.55,0 1,-0.45 1,-1 0,-0.55 -0.45,-1 -1,-1 z"/>
</svg>
