<svg xmlns="http://www.w3.org/2000/svg" width="22" height="22" version="1.1">
 <path style="opacity:0.2" d="m 4,1.5 c -0.554,0 -1,0.446 -1,1 l 0,18 c 0,0.554 0.446,1 1,1 l 14,0 c 0.554,0 1,-0.446 1,-1 l 0,-13 -6,-6 z"/>
 <path style="fill:#ffba3a" d="M 4,1 C 3.446,1 3,1.446 3,2 l 0,18 c 0,0.554 0.446,1 1,1 l 14,0 c 0.554,0 1,-0.446 1,-1 L 19,7 13,1 Z"/>
 <path style="opacity:0.2" d="m 19,7.5 -6,-6 0,5 c 0,0.554 0.446,1 1,1 z"/>
 <path style="fill:#ffdea2" d="m 19,7 -6,-6 0,5 c 0,0.554 0.446,1 1,1 z"/>
 <path style="opacity:0.2;fill:#8b9cbe" d="M 4,1 C 3.446,1 3,1.446 3,2 l 0,0.5 c 0,-0.554 0.446,-1 1,-1 l 9,0 L 13,1 4,1 Z"/>
 <path style="fill:#17191e" d="M 9,10 C 9,13 9,13 8.616211,13 8.216075,13 7.74039,12.90588 7.457031,12.410156 7.070576,11.734182 7.5,10 7.5,10 5,10 4,12.646491 4,14.380859 4,17 6,18 7.2503865,18 c 0,0 -0.734693,-1.708929 0.236328,-2 0.526394,-0.08365 1.21674,0.488675 1.5136715,1 0,0 -0.1068365,-0.984745 0.657228,-1 0.764063,-0.01526 1.213052,0.841758 1.342386,2 0.129334,-1.158242 0.578324,-2.015254 1.342387,-2 0.764064,0.01525 0.657227,1 0.657227,1 0.296932,-0.511325 0.987278,-1.083647 1.513672,-1 0.971021,0.291071 0.236328,2 0.236328,2 C 16,18 18,17 18,14.380859 18,12.646491 17,10 14.5,10 c 0,0 0.429424,1.734182 0.04297,2.410156 C 14.25961,12.905877 13.783926,13 13.383789,13 13,13 13,13 13,10 l -1.5,1 -0.5,0 -0.5,0 z"/>
</svg>
