<svg xmlns="http://www.w3.org/2000/svg" width="22" height="22" version="1.1">
 <path style="opacity:0.2" d="m 4,1.5 c -0.554,0 -1,0.446 -1,1 v 18 c 0,0.554 0.446,1 1,1 h 14 c 0.554,0 1,-0.446 1,-1 v -13 l -6,-6 z"/>
 <path style="fill:#293e91" d="M 4,1 C 3.446,1 3,1.4460002 3,2 v 18 c 0,0.554 0.446,1 1,1 h 14 c 0.554,0 1,-0.446 1,-1 V 7 L 13,1 Z"/>
 <path style="opacity:0.2" d="m 19,7.5 -6,-6 v 5 c 0,0.554 0.446,1 1,1 z"/>
 <path style="opacity:0.1;fill:#8b9cbe" d="M 4,1 C 3.446,1 3,1.446 3,2 v 0.5 c 0,-0.554 0.446,-1 1,-1 h 9 V 1 Z"/>
 <path style="fill:#3554b9" d="M 19,7 13,1 v 5 c 0,0.554 0.446,1 1,1 z"/>
 <path style="opacity:0.2" d="m 13.398045,9.507591 c -0.428084,-0.03906 -0.87051,0.0754 -1.21875,0.328125 -0.336528,0.244225 -0.575371,0.595753 -0.837891,0.917968 -0.13126,0.161108 -0.270616,0.31774 -0.431641,0.449219 -0.161024,0.131479 -0.343978,0.237269 -0.544921,0.291016 -0.200943,0.05375 -0.413833,0.05302 -0.619141,0.01953 -0.205308,-0.0335 -0.405238,-0.09787 -0.599609,-0.171875 -0.3887433,-0.148019 -0.7717763,-0.333413 -1.185547,-0.376953 -0.5708967,-0.06008 -1.16422,0.17564 -1.5371095,0.611328 -0.372889,0.435687 -0.5138118,1.057811 -0.3652343,1.611328 0.1485776,0.553516 0.5818844,1.023641 1.1230469,1.214844 0.541162,0.191202 1.1743512,0.09869 1.6386719,-0.238282 0.336527,-0.244225 0.57537,-0.595753 0.837891,-0.917968 0.13126,-0.161108 0.270615,-0.31774 0.43164,-0.449219 0.161025,-0.131479 0.343979,-0.237269 0.544922,-0.291016 0.200943,-0.05375 0.413833,-0.05302 0.61914,-0.01953 0.205309,0.03349 0.405239,0.09786 0.59961,0.171875 0.388743,0.148019 0.771776,0.333413 1.185546,0.376953 0.570896,0.06007 1.16422,-0.17564 1.53711,-0.611328 0.372889,-0.435688 0.513811,-1.057811 0.365234,-1.611328 -0.148578,-0.553517 -0.581885,-1.023642 -1.123047,-1.214845 -0.13529,-0.0478 -0.277227,-0.07682 -0.419921,-0.08984 z m 0.355468,3.998046 c -0.332953,-0.03125 -0.676412,0.06149 -0.947265,0.263672 -0.261744,0.195381 -0.448161,0.476603 -0.652344,0.734375 -0.102091,0.128886 -0.210695,0.252238 -0.335937,0.357422 -0.125242,0.105183 -0.267539,0.191377 -0.423829,0.234375 -0.156289,0.043 -0.322738,0.04242 -0.482421,0.01563 -0.159684,-0.02679 -0.313666,-0.07946 -0.464844,-0.138672 -0.302356,-0.118415 -0.600053,-0.265949 -0.921875,-0.300781 -0.444031,-0.04806 -0.9052873,0.139731 -1.1953124,0.488281 -0.2900245,0.34855 -0.4007165,0.848202 -0.2851562,1.291016 0.1155602,0.442814 0.4540962,0.817741 0.875,0.970703 0.4209036,0.152962 0.9122996,0.07816 1.2734376,-0.191406 0.261743,-0.195381 0.448161,-0.476603 0.652343,-0.734375 0.102092,-0.128888 0.210696,-0.252239 0.335938,-0.357422 0.125241,-0.105184 0.267539,-0.191377 0.423828,-0.234375 0.156289,-0.043 0.322738,-0.04242 0.482422,-0.01563 0.159684,0.0268 0.313665,0.07946 0.464844,0.138672 0.302355,0.118417 0.600053,0.265948 0.921874,0.300781 0.444031,0.04806 0.905288,-0.139731 1.195313,-0.488281 0.290025,-0.348551 0.400717,-0.848203 0.285156,-1.291016 -0.11556,-0.442814 -0.454096,-0.817741 -0.875,-0.970703 -0.105226,-0.03824 -0.215187,-0.06185 -0.326172,-0.07227 z m -2.623046,4.001953 c -0.129854,-0.01709 -0.264089,-0.0085 -0.390625,0.02539 -0.253073,0.06781 -0.476422,0.239899 -0.607422,0.466797 -0.131,0.226899 -0.16742,0.506693 -0.09961,0.759766 0.06781,0.253073 0.239898,0.47642 0.466797,0.607422 0.226899,0.131 0.506693,0.167416 0.759765,0.09961 0.253073,-0.06781 0.476421,-0.239899 0.607422,-0.466797 0.131,-0.226902 0.16742,-0.506693 0.09961,-0.759766 -0.06781,-0.253072 -0.239899,-0.476421 -0.466797,-0.607422 -0.11345,-0.0655 -0.239287,-0.107904 -0.36914,-0.125 z"/>
 <path style="fill:#fed909" d="m 13.398045,9.007591 c -0.428084,-0.039061 -0.87051,0.0754 -1.21875,0.328125 -0.336528,0.244225 -0.575371,0.595753 -0.837891,0.917968 -0.13126,0.161108 -0.270616,0.31774 -0.431641,0.449219 -0.161024,0.131479 -0.343978,0.237269 -0.544921,0.291016 -0.200943,0.05375 -0.413833,0.05302 -0.619141,0.01953 -0.205308,-0.0335 -0.405238,-0.09787 -0.599609,-0.171875 -0.3887433,-0.148019 -0.7717763,-0.333413 -1.185547,-0.376953 -0.5708967,-0.06008 -1.16422,0.17564 -1.5371095,0.611328 -0.372889,0.435687 -0.5138118,1.057811 -0.3652343,1.611328 0.1485776,0.553516 0.5818844,1.023641 1.1230469,1.214844 0.541162,0.191202 1.1743512,0.09869 1.6386719,-0.238282 0.336527,-0.244225 0.57537,-0.595753 0.837891,-0.917968 0.13126,-0.161108 0.270615,-0.31774 0.43164,-0.449219 0.161025,-0.131479 0.343979,-0.237269 0.544922,-0.291016 0.200943,-0.05375 0.413833,-0.05302 0.61914,-0.01953 0.205309,0.03349 0.405239,0.09786 0.59961,0.171875 0.388743,0.148019 0.771776,0.333413 1.185546,0.376953 0.570896,0.06007 1.16422,-0.17564 1.53711,-0.611328 0.372889,-0.435688 0.513811,-1.057811 0.365234,-1.611328 -0.148578,-0.553517 -0.581885,-1.023642 -1.123047,-1.214845 -0.13529,-0.0478 -0.277227,-0.07682 -0.419921,-0.08984 z m 0.355468,3.998046 c -0.332953,-0.03125 -0.676412,0.06149 -0.947265,0.263672 -0.261744,0.195381 -0.448161,0.476603 -0.652344,0.734375 -0.102091,0.128886 -0.210695,0.252238 -0.335937,0.357422 -0.125242,0.105183 -0.267539,0.191377 -0.423829,0.234375 -0.156289,0.043 -0.322738,0.04242 -0.482421,0.01563 -0.159684,-0.02679 -0.313666,-0.07946 -0.464844,-0.138672 -0.302356,-0.118415 -0.600053,-0.265949 -0.921875,-0.300781 -0.444031,-0.04806 -0.9052873,0.139731 -1.1953124,0.488281 -0.2900245,0.34855 -0.4007165,0.848202 -0.2851562,1.291016 0.1155602,0.442814 0.4540962,0.817741 0.875,0.970703 0.4209036,0.152962 0.9122996,0.07816 1.2734376,-0.191406 0.261743,-0.195381 0.448161,-0.476603 0.652343,-0.734375 0.102092,-0.128888 0.210696,-0.252239 0.335938,-0.357422 0.125241,-0.105184 0.267539,-0.191377 0.423828,-0.234375 0.156289,-0.043 0.322738,-0.04242 0.482422,-0.01563 0.159684,0.0268 0.313665,0.07946 0.464844,0.138672 0.302355,0.118417 0.600053,0.265948 0.921874,0.300781 0.444031,0.04806 0.905288,-0.139731 1.195313,-0.488281 0.290025,-0.348551 0.400717,-0.848203 0.285156,-1.291016 -0.11556,-0.442814 -0.454096,-0.817741 -0.875,-0.970703 -0.105226,-0.03824 -0.215187,-0.06185 -0.326172,-0.07227 z m -2.623046,4.001953 c -0.129854,-0.01709 -0.264089,-0.0085 -0.390625,0.02539 -0.253073,0.06781 -0.476422,0.239899 -0.607422,0.466797 -0.131,0.226899 -0.16742,0.506693 -0.09961,0.759766 0.06781,0.253073 0.239898,0.47642 0.466797,0.607422 0.226899,0.131 0.506693,0.167416 0.759765,0.09961 0.253073,-0.06781 0.476421,-0.239899 0.607422,-0.466797 0.131,-0.226902 0.16742,-0.506693 0.09961,-0.759766 -0.06781,-0.253072 -0.239899,-0.476421 -0.466797,-0.607422 -0.11345,-0.0655 -0.239287,-0.107904 -0.36914,-0.125 z"/>
</svg>
