<svg xmlns="http://www.w3.org/2000/svg" width="22" height="22" version="1">
 <path style="opacity:0.2" d="m 4,1.5 c -0.554,0 -1,0.446 -1,1 v 18 c 0,0.554 0.446,1 1,1 h 14 c 0.554,0 1,-0.446 1,-1 V 7.5 L 13.5,7 13,1.5 Z"/>
 <path style="fill:#c63166" d="M 9.458008,1 C 8.6382265,1.7686456 5.159992,5.296406 3,7.508789 V 7.941406 C 3.3457843,7.6288625 3.849462,7.17924 4.024414,7.033203 4.1273305,6.9472955 4.5272365,6.595582 4.913086,6.251953 5.2989355,5.9083245 5.7977205,5.46891 6.0214845,5.2753905 6.2452485,5.0818715 6.7093195,4.659818 7.0527345,4.3378905 7.715105,3.7169646 9.761011,1.9025466 9.988281,1.734375 c 0.07424,-0.054938 0.143271,-0.092089 0.153321,-0.082031 0.02221,0.022227 -0.106694,0.238486 -0.561524,0.9404297 -0.190849,0.294539 -0.936,1.449612 -1.65625,2.566406 C 7.203577,6.2759735 6.309722,7.6614755 5.9375,8.238281 5.5652785,8.815087 4.7426455,10.090469 4.109375,11.072266 3.7267479,11.665475 3.3817423,12.19963 3,12.791016 V 20 c 0,0.554 0.446,1 1,1 h 6.59375 c 0.942096,-3.580513 1.916486,-9.363209 3.524414,-14.4433595 L 13.5,6.5 13,1 Z"/>
 <path style="fill:#b8da6c" d="M 4,1 C 3.446,1 3,1.446 3,2 V 7.5078125 C 5.159253,5.296441 8.638742,1.7679219 9.458008,1 Z m 6.141602,0.6523438 c -0.01005,-0.010058 -0.07908,0.027093 -0.153321,0.082031 -0.22727,0.1681715 -2.273176,1.9825899 -2.9355465,2.6035155 -0.343415,0.3219275 -0.807486,0.743981 -1.03125,0.9375 C 5.7977205,5.46891 5.2989355,5.9083245 4.913086,6.251953 4.5272365,6.595582 4.1273305,6.9472955 4.024414,7.033203 3.849462,7.17924 3.3457843,7.6288625 3,7.941406 v 4.84961 C 3.3817423,12.19963 3.7267479,11.665475 4.109375,11.072266 4.7426455,10.090469 5.5652785,8.8150875 5.9375,8.238281 6.309722,7.6614755 7.203577,6.2759735 7.923828,5.1591795 c 0.72025,-1.116794 1.465401,-2.271867 1.65625,-2.566406 0.45483,-0.7019437 0.583739,-0.9182027 0.561524,-0.9404297 z"/>
 <path style="fill:#778b3c" d="M 19,14.006836 12.123047,21 H 18 c 0.554,0 1,-0.446 1,-1 z"/>
 <path style="fill:#eddf36" d="m 13.5,6.496094 c -1.737661,4.570153 -2.912849,9.331072 -3.127929,13.160156 -0.02619,0.466353 -0.06144,1.039284 -0.07813,1.272461 L 10.289063,21 h 1.833984 L 19,14.006836 V 7 L 13.5,6.5 Z"/>
 <path style="opacity:0.2;fill:#8b9cbe" d="M 4,1 C 3.446,1 3,1.446 3,2 v 0.5 c 0,-0.554 0.446,-1 1,-1 h 9 L 18.5,7 H 19 L 13,1 Z"/>
 <path style="opacity:0.1" d="m 13,1.5 v 5 c 0,0.5523 0.447715,1 1,1 h 5 z"/>
 <path style="fill:#faf5bc" d="m 13,1 v 5 c 0,0.5523 0.447715,1 1,1 h 5 z"/>
 <path style="opacity:0.2" d="M 8.948242,1.5 C 7.712719,2.7105472 4.8973265,5.56469 3,7.5078125 V 7.941406 C 3.1717553,7.786162 3.3187572,7.659116 3.508789,7.4902345 5.671334,5.2799385 8.6946035,2.2155612 9.458008,1.5 Z m 1.19336,0.6523438 c -0.01005,-0.010058 -0.07908,0.027093 -0.153321,0.082031 -0.03503,0.025917 -0.292649,0.2549088 -0.402343,0.3486328 -0.003,0.00461 -0.0029,0.00511 -0.0059,0.00977 C 9.389229,2.8873123 8.6440775,4.0423855 7.9238275,5.1591795 7.2035765,6.2759735 6.3097215,7.6614755 5.9374995,8.238281 5.565278,8.8150875 4.742645,10.090469 4.1093745,11.072266 3.7267479,11.665475 3.3817423,12.19963 3,12.791016 v 0.5 C 3.3817423,12.69963 3.7267479,12.165475 4.109375,11.572266 4.7426455,10.590469 5.5652785,9.315088 5.9375,8.738281 6.309722,8.1614755 7.203577,6.7759735 7.923828,5.6591795 c 0.72025,-1.116794 1.465401,-2.271867 1.65625,-2.566406 0.45483,-0.7019437 0.583739,-0.9182027 0.561524,-0.9404297 z M 19,14.006836 12.123047,21 h -1.802734 c -0.0088,0.138624 -0.02074,0.350149 -0.02637,0.428711 L 10.289063,21.5 h 1.833984 L 19,14.506836 Z"/>
</svg>
