<svg xmlns="http://www.w3.org/2000/svg" width="22" height="22" version="1">
 <g>
  <path style="fill:#e44545" d="M 11,1 H 2 C 1.446,1 1,1.446 1,2 v 9 h 10 z"/>
  <path style="fill:#38ac52" d="m 11,1 h 9 c 0.554,0 1,0.446 1,1 v 9 H 11 Z"/>
  <path style="fill:#f2ae37" d="M 11,21 H 2 C 1.446,21 1,20.554 1,20 v -9 h 10 z"/>
  <path style="fill:#3776f2" d="m 11,21 h 9 c 0.554,0 1,-0.446 1,-1 V 11 H 11 Z"/>
  <path style="opacity:0.2;fill:#8b9cbe" d="M 2,1 C 1.446,1 1,1.446 1,2 v 0.5 c 0,-0.554 0.446,-1 1,-1 h 18 c 0.554,0 1,0.446 1,1 V 2 C 21,1.446 20.554,1 20,1 Z"/>
  <path style="opacity:0.2" d="m 2,21.5 c -0.554,0 -1,-0.446 -1,-1 V 20 c 0,0.554 0.446,1 1,1 h 18 c 0.554,0 1,-0.446 1,-1 v 0.5 c 0,0.554 -0.446,1 -1,1 z"/>
 </g>
 <rect style="fill:#8b9cbe" width="14" height="14" x="4" y="4"/>
 <rect style="opacity:0.2" width="14" height=".5" x="4" y="18"/>
</svg>
