<svg xmlns="http://www.w3.org/2000/svg" width="22" height="22" version="1.1">
 <path style="opacity:0.2" d="m 4,1.5 c -0.554,0 -1,0.446 -1,1 v 18 c 0,0.554 0.446,1 1,1 h 14 c 0.554,0 1,-0.446 1,-1 v -13 l -6,-6 z"/>
 <path style="fill:#3f4077" d="M 4,1 C 3.446,1 3,1.446 3,2 v 18 c 0,0.554 0.446,1 1,1 h 14 c 0.554,0 1,-0.446 1,-1 V 7 L 14,6 13,1 Z"/>
 <path style="opacity:0.2" d="m 14.5,11.500406 a 2.5,2.5 0 0 0 -2.5,2.5 2.5,2.5 0 0 0 0.519531,1.519531 L 11.5,16.500406 H 4.8808594 L 3,18.435953 v 1.064453 C 3,19.609874 3.03028,19.710573 3.0625,19.809 L 5.3027344,17.500406 H 11.900391 L 13.277344,16.17814 A 2.5,2.5 0 0 0 14.5,16.500406 a 2.5,2.5 0 0 0 2.5,-2.5 2.5,2.5 0 0 0 -2.5,-2.5 z m -8.5,1 a 1,1 0 0 0 -1,1 1,1 0 0 0 1,1 1,1 0 0 0 1,-1 1,1 0 0 0 -1,-1 z m 3,0 a 1,1 0 0 0 -1,1 1,1 0 0 0 1,1 1,1 0 0 0 1,-1 1,1 0 0 0 -1,-1 z m 5.5,0 a 1.5,1.5 0 0 1 1.5,1.5 1.5,1.5 0 0 1 -1.5,1.5 1.5,1.5 0 0 1 -1.5,-1.5 1.5,1.5 0 0 1 1.5,-1.5 z"/>
 <path style="opacity:0.2" d="m 19,7.5 -6,-6 v 5 c 0,0.554 0.446,1 1,1 z"/>
 <path style="fill:#5c5da7" d="M 19,7 13,1 v 5 c 0,0.554 0.446,1 1,1 z"/>
 <path style="opacity:0.1;fill:#8b9cbe" d="M 4,1 C 3.446,1 3,1.446 3,2 v 0.5 c 0,-0.554 0.446,-1 1,-1 h 9 V 1 Z"/>
 <circle style="fill:#8b9cbe" cx="6" cy="13" r="1"/>
 <circle style="fill:#8b9cbe" cx="9" cy="13" r="1"/>
 <path style="fill:#8b9cbe" d="m 14.5,11.000406 a 2.5,2.5 0 0 0 -2.5,2.5 2.5,2.5 0 0 0 2.5,2.5 2.5,2.5 0 0 0 2.5,-2.5 2.5,2.5 0 0 0 -2.5,-2.5 z m 0,1 a 1.5,1.5 0 0 1 1.5,1.5 1.5,1.5 0 0 1 -1.5,1.5 1.5,1.5 0 0 1 -1.5,-1.5 1.5,1.5 0 0 1 1.5,-1.5 z"/>
 <path style="fill:#8b9cbe" d="M 12.650391,14.892984 11.5,16.000406 H 4.8808594 L 3,17.935953 v 1.064453 c 0,0.109468 0.03028,0.210167 0.0625,0.308594 l 2.2402344,-2.308594 h 6.5976566 l 1.441406,-1.384766 z"/>
</svg>
