<svg xmlns="http://www.w3.org/2000/svg" width="22" height="22" version="1">
 <path style="opacity:0.2" d="M 9,2 8.917969,2.0478515 6.5,3 7,5.5 4.698242,6.5527345 3.5,5.5 1,8 l 1,1.547852 0,5.182617 0,-0.399414 0,1.666992 c 0,0 2,4.501953 9,4.501953 7,0 9,-4.501953 9,-4.501953 l 0,-1.666992 0,0.399414 L 20,9.547852 21,8 18.5,5.5 17.301758,6.5527345 15,5.5 15.5,3 13,2 12.144531,3.5 9.853516,3.5 Z"/>
 <path style="fill:#3888c3" d="M 9,1.5 8.917969,1.5478515 6.5,2.5 7,5 4.698242,6.0527345 3.5,5 1,7.5 2,9.047852 2,14.230469 2,13.831055 2,15.498047 C 2,15.498047 4,20 11,20 c 7,0 9,-4.501953 9,-4.501953 l 0,-1.666992 0,0.399414 L 20,9.047852 21,7.5 18.5,5 17.301758,6.0527345 15,5 15.5,2.5 13,1.5 12.144531,3 9.853516,3 Z"/>
 <g style="opacity:0.2" transform="matrix(0.5,0,0,0.5,-1,-0.5000545)">
  <path d="m 14,20 c 2.2096,0 4,1.7904 4,4 0,2.2096 -1.7904,4 -4,4 -2.2096,0 -4,-1.7904 -4,-4 0,-2.2096 1.7904,-4 4,-4 z"/>
  <path d="m 16,24 a 2,2 0 1 1 -4,0 2,2 0 1 1 4,0 z"/>
 </g>
 <g transform="matrix(0.5,0,0,0.5,-1,-1)">
  <path style="fill:#8b9cbe" d="m 14,20 c 2.2096,0 4,1.7904 4,4 0,2.2096 -1.7904,4 -4,4 -2.2096,0 -4,-1.7904 -4,-4 0,-2.2096 1.7904,-4 4,-4 z"/>
  <path style="fill:#353535" d="m 16,24 a 2,2 0 1 1 -4,0 2,2 0 1 1 4,0 z"/>
 </g>
 <path style="opacity:0.2" d="m 11,10.5 c 0.554,0 1,0.3345 1,0.75 l 0,1.5 c 0,0.415499 -0.446,0.75 -1,0.75 -0.554,0 -1,-0.334501 -1,-0.75 l 0,-1.5 c 0,-0.4155 0.446,-0.75 1,-0.75 z"/>
 <path style="fill:#8b9cbe" d="m 11,10.000054 c 0.554,0 1,0.3345 1,0.75 l 0,1.5 c 0,0.4155 -0.446,0.75 -1,0.75 -0.554,0 -1,-0.3345 -1,-0.75 l 0,-1.5 c 0,-0.4155 0.446,-0.75 1,-0.75 z"/>
 <g style="opacity:0.2" transform="matrix(0.5,0,0,0.5,9,-0.5000545)">
  <path d="m 14,20 c 2.2096,0 4,1.7904 4,4 0,2.2096 -1.7904,4 -4,4 -2.2096,0 -4,-1.7904 -4,-4 0,-2.2096 1.7904,-4 4,-4 z"/>
  <path d="m 16,24 a 2,2 0 1 1 -4,0 2,2 0 1 1 4,0 z"/>
 </g>
 <g transform="matrix(0.5,0,0,0.5,9,-1)">
  <path style="fill:#8b9cbe" d="m 14,20 c 2.2096,0 4,1.7904 4,4 0,2.2096 -1.7904,4 -4,4 -2.2096,0 -4,-1.7904 -4,-4 0,-2.2096 1.7904,-4 4,-4 z"/>
  <path style="fill:#353535" d="m 16,24 a 2,2 0 1 1 -4,0 2,2 0 1 1 4,0 z"/>
 </g>
 <path style="opacity:0.2;fill:none;stroke:#000000" d="m 20,15 -3.5,0 0,2 -4,0 0,-2.00035 -1.5,0 M 2,15 l 3.5,0 0,2 4,0 0,-2.00035 1.5,0"/>
 <path style="fill:none;stroke:#8b9cbe" d="m 20,14.5 -3.5,0 0,2 -4,0 0,-2.00035 -1.5,0 M 2,14.5 l 3.5,0 0,2 4,0 0,-2.00035 1.5,0"/>
 <path style="opacity:0.2;fill:#8b9cbe" d="M 9,1.5 8.9179688,1.546875 6.5,2.5 6.5917969,2.9628906 8.9179688,2.046875 9,2 9.853516,3.5 12.144531,3.5 13,2 15.408203,2.9628906 15.5,2.5 13,1.5 12.144531,3 9.853516,3 9,1.5 Z M 3.5,5 1,7.5 1.1953125,7.8046875 3.5,5.5 4.6972656,6.5527344 7,5.5 6.9082031,5.0410156 4.6972656,6.0527344 3.5,5 Z M 18.5,5 17.302734,6.0527344 15.091797,5.0410156 15,5.5 17.302734,6.5527344 18.5,5.5 20.804688,7.8046875 21,7.5 18.5,5 Z"/>
</svg>
