<svg xmlns="http://www.w3.org/2000/svg" width="22" height="22" version="1">
 <g transform="translate(-1,-1)">
  <path style="opacity:0.2" d="m 5,2.5 c -0.554,0 -1,0.446 -1,1 v 18 c 0,0.554 0.446,1 1,1 h 14 c 0.554,0 1,-0.446 1,-1 V 8.5 L 14.5,8 14,2.5 Z"/>
  <path style="fill:#636e73" d="M 5,2 C 4.446,2 4,2.446 4,3 v 18 c 0,0.554 0.446,1 1,1 h 14 c 0.554,0 1,-0.446 1,-1 V 8 L 14.5,7.5 14,2 Z"/>
  <path style="opacity:0.1;fill:#8b9cbe" d="M 5,2 C 4.446,2 4,2.446 4,3 v 0.5 c 0,-0.554 0.446,-1 1,-1 h 9 L 19.5,8 H 20 L 14,2 Z"/>
  <path style="opacity:0.2" d="m 14,2.5 v 5 c 0,0.5523 0.44772,1 1,1 h 5 z"/>
  <path style="fill:#909b9f" d="m 14,2 v 5 c 0,0.5523 0.44772,1 1,1 h 5 z"/>
  <path style="opacity:0.2" d="m 11.958,12.5 -1.5576,4.9698 -1.1533,-2.8974 h -2.247 v 1.0068 H 8.5909 L 10.1514,19.5 h 0.68944 l 1.8496,-5.9933 h 3.1991 v -1.0068 h -3.9316 z m 0.74898,2.5004 1.6289,2.1455 -1.7802,2.3545 h 0.88768 l 1.334,-1.7676 1.334,1.7676 h 0.88863 l -1.7441,-2.3095 1.6582,-2.1904 h -0.88863 l -1.2148,1.6035 -1.2158,-1.6035 h -0.88768 z"/>
  <path style="fill:#8b9cbe" d="m 11.958,12 -1.5576,4.9698 -1.1533,-2.8974 h -2.247 v 1.0068 H 8.5909 L 10.1514,19 h 0.68944 l 1.8496,-5.9933 h 3.1991 v -1.0068 h -3.9316 z m 0.74898,2.5004 1.6289,2.1455 -1.7802,2.3545 h 0.88768 l 1.334,-1.7676 1.334,1.7676 h 0.88863 l -1.7441,-2.3095 1.6582,-2.1904 h -0.88863 l -1.2148,1.6035 -1.2158,-1.6035 h -0.88768 z"/>
 </g>
</svg>
