<svg xmlns="http://www.w3.org/2000/svg" width="22" height="22" version="1.1">
 <path style="opacity:0.2" d="m 4,1.5 c -0.554,0 -1,0.446 -1,1 v 18 c 0,0.554 0.446,1 1,1 h 14 c 0.554,0 1,-0.446 1,-1 v -13 l -6,-6 z"/>
 <path style="fill:#4caf50" d="M 4,1 C 3.446,1 3,1.446 3,2 v 18 c 0,0.554 0.446,1 1,1 h 14 c 0.554,0 1,-0.446 1,-1 V 7 L 14,6 13,1 Z"/>
 <rect style="opacity:0.2" width="4" height="9.5" x="6" y="1"/>
 <rect style="fill:#8b9cbe" width="1" height="1" x="7" y="8"/>
 <path style="fill:#4b4b4b" d="M 8,7.9999999 C 9.5,7.9999999 9.5,10 10,10 v 2.5 C 10,12.777 9.777,13 9.5,13 h -3 C 6.223,13 6,12.777 6,12.5 V 10 C 6.5,10 6.5,7.9999999 8,7.9999999 Z"/>
 <rect style="fill:#8b9cbe" width="1" height="1" x="8" y="7"/>
 <rect style="fill:#8b9cbe" width="1" height="1" x="7" y="6"/>
 <rect style="fill:#8b9cbe" width="1" height="1" x="8" y="5"/>
 <rect style="fill:#8b9cbe" width="1" height="1" x="7" y="4"/>
 <rect style="fill:#8b9cbe" width="1" height="1" x="8" y="3"/>
 <rect style="fill:#8b9cbe" width="1" height="1" x="7" y="2"/>
 <rect style="fill:#8b9cbe" width="1" height="1" x="8" y="1"/>
 <path style="opacity:0.2" d="m 8,10.5 c -1.105,0 -2,0.9 -2,2 v 4 c 0,1.1 0.895,2 2,2 1.105,0 2,-0.9 2,-2 v -4 c 0,-1.1 -0.895,-2 -2,-2 z m 0,5 a 1,1 0 0 1 1,1 1,1 0 0 1 -1,1 1,1 0 0 1 -1,-1 1,1 0 0 1 1,-1 z"/>
 <path style="fill:#8b9cbe" d="m 8,10 c -1.105,0 -2,0.9 -2,2 v 4 c 0,1.1 0.895,2 2,2 1.105,0 2,-0.9 2,-2 V 12 C 10,10.9 9.105,10 8,10 Z m 0,5 a 1,1 0 0 1 1,1 1,1 0 0 1 -1,1 1,1 0 0 1 -1,-1 1,1 0 0 1 1,-1 z"/>
 <path style="fill:#909090" d="M 7.992188,9.000061 A 0.50005,0.49772427 0 0 0 7.5,9.50454 v 1.990698 a 0.50005,0.49772427 0 1 0 1,0 V 9.50454 A 0.50005,0.49772427 0 0 0 7.992188,9.000061 Z"/>
 <path style="opacity:0.2" d="m 19,7.5 -6,-6 v 5 c 0,0.554 0.446,1 1,1 z"/>
 <path style="fill:#88cc8b" d="M 19,7 13,1 v 5 c 0,0.554 0.446,1 1,1 z"/>
 <path style="opacity:0.2;fill:#8b9cbe" d="M 4,1 C 3.446,1 3,1.446 3,2 v 0.5 c 0,-0.554 0.446,-1 1,-1 h 9 V 1 Z"/>
</svg>
