<svg xmlns="http://www.w3.org/2000/svg" width="22" height="22" version="1.1">
 <path style="opacity:0.2" d="m 4,1.5 c -0.554,0 -1,0.446 -1,1 v 18 c 0,0.554 0.446,1 1,1 h 14 c 0.554,0 1,-0.446 1,-1 v -13 l -6,-6 z"/>
 <path style="fill:#b2bfd9" d="M 4,1 C 3.446,1 3,1.446 3,2 v 18 c 0,0.554 0.446,1 1,1 h 14 c 0.554,0 1,-0.446 1,-1 V 7 L 13,1 Z"/>
 <path style="opacity:0.1;fill-rule:evenodd" d="m 7.2910156,9.3 c 0,0 0.6906348,2.263441 0.2695313,3.714844 C 7.1394438,14.466248 5,16.100782 5,16.100782 c 0,0 2.7940876,0.1548 3.8554688,0.845703 C 9.91685,17.637388 10.996094,20.3 10.996094,20.3 c 0,0 1.435544,-2.933673 2.035156,-3.353515 C 13.630863,16.526645 17,16.096875 17,16.096875 c 0,0 -2.462445,-2.360664 -2.671875,-3.019531 -0.209427,-0.658869 0.380859,-3.775391 0.380859,-3.775391 0,0 -2.216082,1.691407 -3.773437,1.691407 C 9.378191,10.99336 7.2910156,9.3 7.2910156,9.3 Z m 1.7382814,2.779297 c 0.561635,0.234377 1.182205,0.414063 1.90625,0.414063 0.700735,0 1.311384,-0.165241 1.867187,-0.384766 -0.03011,0.446201 -0.121747,0.737751 0.0957,1.421875 0.231039,0.726852 0.482941,0.893943 0.78125,1.253906 0.08561,0.103302 0.187354,0.207689 0.279296,0.3125 -0.138165,0.03014 -0.283612,0.05113 -0.416015,0.08399 -0.458276,0.113721 -0.780875,0.122479 -1.373047,0.537109 -0.59199,0.414505 -0.711114,0.720047 -0.964844,1.107422 -0.06011,0.09176 -0.114533,0.195238 -0.173828,0.291016 C 10.703848,16.603905 10.307485,16.103102 9.673828,15.690625 9.122322,15.331624 8.5956862,15.313585 8.0507812,15.184766 8.4382299,14.696791 8.7937058,14.143841 9,13.432813 9.146063,12.929381 9.0241,12.543019 9.0293,12.079297 Z"/>
 <path style="fill:#d6342a;fill-rule:evenodd" d="m 7.2910156,8.8 c 0,0 0.6906348,2.263441 0.2695313,3.714844 C 7.1394438,13.966248 5,15.600782 5,15.600782 c 0,0 2.7940876,0.1548 3.8554688,0.845703 C 9.91685,17.137388 10.996094,19.8 10.996094,19.8 c 0,0 1.435544,-2.933673 2.035156,-3.353515 C 13.630863,16.026645 17,15.596875 17,15.596875 c 0,0 -2.462445,-2.360664 -2.671875,-3.019531 -0.209427,-0.658869 0.380859,-3.775391 0.380859,-3.775391 0,0 -2.216082,1.691407 -3.773437,1.691407 C 9.378191,10.49336 7.2910156,8.8 7.2910156,8.8 Z m 1.7382814,2.779297 c 0.561635,0.234377 1.182205,0.414063 1.90625,0.414063 0.700735,0 1.311384,-0.165241 1.867187,-0.384766 -0.03011,0.446201 -0.121747,0.737751 0.0957,1.421875 0.231039,0.726852 0.482941,0.893943 0.78125,1.253906 0.08561,0.103302 0.187354,0.207689 0.279296,0.3125 -0.138165,0.03014 -0.283612,0.05113 -0.416015,0.08399 -0.458276,0.113721 -0.780875,0.122479 -1.373047,0.537109 -0.59199,0.414505 -0.711114,0.720047 -0.964844,1.107422 -0.06011,0.09176 -0.114533,0.195238 -0.173828,0.291016 C 10.703848,16.103905 10.307485,15.603102 9.673828,15.190625 9.122322,14.831624 8.5956862,14.813585 8.0507812,14.684766 8.4382299,14.196791 8.7937058,13.643841 9,12.932813 9.146063,12.429381 9.0241,12.043019 9.0293,11.579297 Z"/>
 <path style="opacity:0.2" d="m 19,7.5 -6,-6 v 5 c 0,0.554 0.446,1 1,1 z"/>
 <path style="fill:#fafafa" d="M 19,7 13,1 v 5 c 0,0.554 0.446,1 1,1 z"/>
 <path style="opacity:0.2;fill:#8b9cbe" d="M 4,1 C 3.446,1 3,1.446 3,2 v 0.5 c 0,-0.554 0.446,-1 1,-1 h 9 V 1 Z"/>
</svg>
