<svg xmlns="http://www.w3.org/2000/svg" width="22" height="22" version="1.1">
 <g transform="translate(-1,-1)">
  <path style="opacity:0.2" d="M 5,2.5 C 4.446,2.5 4,2.946 4,3.5 V 21.5 C 4,22.054 4.446,22.5 5,22.5 H 19 C 19.554,22.5 20,22.054 20,21.5 V 8.5 L 14.5,8 14,2.5 Z"/>
  <path style="fill:#764ebf" d="M 5,2 C 4.446,2 4,2.446 4,3 V 21 C 4,21.554 4.446,22 5,22 H 19 C 19.554,22 20,21.554 20,21 V 8 L 14.5,7.5 14,2 Z"/>
  <path style="opacity:0.2;fill:#8b9cbe" d="M 5,2 C 4.446,2 4,2.446 4,3 V 3.5 C 4,2.946 4.446,2.5 5,2.5 H 14 V 2 Z"/>
  <path style="opacity:0.2" d="M 14,2.5 V 7.5 C 14,8.0525 14.448,8.5 15,8.5 H 20 Z"/>
  <path style="fill:#b7a2dd" d="M 14,2 V 7 C 14,7.5525 14.448,8 15,8 H 20 Z"/>
  <path style="opacity:0.1" d="M 7,11.5 V 12.5 H 8 V 11.5 Z M 9,11.5 V 12.5 H 17 V 11.5 Z M 7,14.5 V 15.5 H 8 V 14.5 Z M 9,14.5 V 15.5 H 17 V 14.5 Z M 7,17.5 V 18.5 H 8 V 17.5 Z M 9,17.5 V 18.5 H 17 V 17.5 Z"/>
  <path style="fill:#8b9cbe" d="M 7,11 V 12 H 8 V 11 Z M 9,11 V 12 H 17 V 11 Z M 7,14 V 15 H 8 V 14 Z M 9,14 V 15 H 17 V 14 Z M 7,17 V 18 H 8 V 17 Z M 9,17 V 18 H 17 V 17 Z"/>
 </g>
</svg>
