<svg xmlns="http://www.w3.org/2000/svg" width="22" height="22" version="1">
 <path style="opacity:0.2" d="m 21,19.5 0,-16 c 0,-0.554 -0.446,-1 -1,-1 l -18,0 c -0.554,0 -1,0.446 -1,1 l 0,16 c 0,0.554 0.446,1 1,1 l 18,0 c 0.554,0 1,-0.446 1,-1 z"/>
 <path style="fill:#a47a4a" d="M 21,19 21,3 C 21,2.446 20.554,2 20,2 L 2,2 C 1.446,2 1,2.446 1,3 l 0,16 c 0,0.554 0.446,1 1,1 l 18,0 c 0.554,0 1,-0.446 1,-1 z"/>
 <path style="opacity:0.1;fill:#8b9cbe" d="M 2,2 C 1.446,2 1,2.446 1,3 l 0,0.5 c 0,-0.554 0.446,-1 1,-1 l 18,0 c 0.554,0 1,0.446 1,1 L 21,3 C 21,2.446 20.554,2 20,2 Z"/>
 <path style="fill:none;stroke:#8b9cbe;stroke-width:1px" d="m 5,10 4,6 8,-2"/>
 <circle style="opacity:0.2" cx="5" cy="10.5" r="2"/>
 <circle style="fill:#17191e" cx="5" cy="10" r="2"/>
 <circle style="opacity:0.2" cx="9" cy="16.5" r="2"/>
 <circle style="fill:#17191e" cx="9" cy="16" r="2"/>
 <circle style="opacity:0.2" cx="17" cy="14.5" r="2"/>
 <circle style="fill:#17191e" cx="17" cy="14" r="2"/>
</svg>
