<svg xmlns="http://www.w3.org/2000/svg" width="22" height="22" version="1">
 <path style="opacity:0.2" d="m 4,1.5 c -0.554,0 -1,0.446 -1,1 v 18 c 0,0.554 0.446,1 1,1 h 14 c 0.554,0 1,-0.446 1,-1 V 7.5 L 13.5,7 13,1.5 Z"/>
 <path style="fill:#1e98d1" d="M 4,1 C 3.446,1 3,1.446 3,2 v 18 c 0,0.554 0.446,1 1,1 h 14 c 0.554,0 1,-0.446 1,-1 V 7 L 13.5,6.5 13,1 Z"/>
 <path style="opacity:0.2;fill:#8b9cbe" d="M 4,1 C 3.446,1 3,1.446 3,2 v 0.5 c 0,-0.554 0.446,-1 1,-1 h 9 L 18.5,7 H 19 L 13,1 Z"/>
 <path style="opacity:0.2" d="m 13,1.5 v 5 c 0,0.5523 0.44772,1 1,1 h 5 z"/>
 <path style="fill:#67bbe9" d="m 13,1 v 5 c 0,0.5523 0.44772,1 1,1 h 5 z"/>
 <path style="opacity:0.2" d="M 7.799569,9.500212 A 0.78133646,0.78170941 0 0 0 7,10.281844 v 7.436692 a 0.78133646,0.78170941 0 0 0 1.171887,0.676803 l 6.437752,-3.718346 a 0.78133646,0.78170941 0 0 0 0,-1.353606 L 8.171887,9.605039 A 0.78133646,0.78170941 0 0 0 7.799569,9.500212 Z"/>
 <path style="fill:#8b9cbe" d="M 7.799569,9.000212 A 0.78133646,0.78170941 0 0 0 7,9.781844 v 7.436692 a 0.78133646,0.78170941 0 0 0 1.171887,0.676803 l 6.437752,-3.718346 a 0.78133646,0.78170941 0 0 0 0,-1.353606 L 8.171887,9.105039 A 0.78133646,0.78170941 0 0 0 7.799569,9.000212 Z"/>
</svg>
