<svg xmlns="http://www.w3.org/2000/svg" width="22" height="22" version="1">
 <path style="opacity:0.2" d="m 4,1.5 c -0.554,0 -1,0.446 -1,1 v 18 c 0,0.554 0.446,1 1,1 h 14 c 0.554,0 1,-0.446 1,-1 V 7.5 L 13.5,7 13,1.5 Z"/>
 <path style="fill:#b2bfd9" d="M 4,1 C 3.446,1 3,1.446 3,2 v 18 c 0,0.554 0.446,1 1,1 h 14 c 0.554,0 1,-0.446 1,-1 V 7 L 13.5,6.5 13,1 Z"/>
 <path style="opacity:0.2;fill:#8b9cbe" d="M 4,1 C 3.446,1 3,1.446 3,2 v 0.5 c 0,-0.554 0.446,-1 1,-1 h 9 L 18.5,7 H 19 L 13,1 Z"/>
 <path style="opacity:0.2" d="m 13,1.5 v 5 c 0,0.5523 0.44772,1 1,1 h 5 z"/>
 <path style="fill:#fafafa" d="m 13,1 v 5 c 0,0.5523 0.44772,1 1,1 h 5 z"/>
 <path style="fill:#d84747" d="M 11,9 C 9.5227,9 7.8914,10.0454 8,11.3213 v 1.6786 H 7.66629 c -0.3692,0 -0.6663,0.184 -0.6663,0.5 v 3.9282 c 0,0.317 0.29714,0.5715 0.66629,0.5715 h 6.6674 c 0.369,0 0.666,-0.255 0.666,-0.572 v -3.928 c 0,-0.31657 -0.30935,-0.4999 -0.66629,-0.4999 h -0.334 v -1.678 c 0,-1.28 -1.523,-2.322 -3,-2.322 z m 0,2 c 0.63314,0 0.94748,-0.05151 1,0.5 v 1.5001 h -2 v -1.5 c 0,-0.554 0.367,-0.5 1,-0.5 z"/>
</svg>
