<svg xmlns="http://www.w3.org/2000/svg" width="22" height="22" version="1.1">
 <path style="opacity:0.2" d="m 4,1.5 c -0.554,0 -1,0.446 -1,1 v 18 c 0,0.554 0.446,1 1,1 h 14 c 0.554,0 1,-0.446 1,-1 V 7.5 L 13.5,7 13,1.5 Z"/>
 <path style="fill:#4f4f4f" d="M 4,1 C 3.446,1 3,1.446 3,2 v 18 c 0,0.554 0.446,1 1,1 h 14 c 0.554,0 1,-0.446 1,-1 V 7 L 13.5,6.5 13,1 Z"/>
 <path style="opacity:0.5;fill:#8b9cbe" d="M 5.1992,4 C 5.0884,4 5,4.0884 5,4.1992 V 6.8008 C 5,6.9116 5.0884,7 5.1992,7 H 6.8008 C 6.9116,7 7,6.9116 7,6.8008 V 4.1992 C 7,4.0884 6.9116,4 6.8008,4 Z m 3,0 C 8.0884,4 8,4.0884 8,4.1992 V 6.8008 C 8,6.9116 8.0884,7 8.1992,7 H 8.8008 C 8.9116,7 9,6.9116 9,6.8008 V 4.1992 C 9,4.0884 8.9116,4 8.8008,4 Z M 10.199,4 C 10.088,4 10,4.0884 10,4.1992 V 6.8008 C 10,6.9116 10.088,7 10.199,7 h 0.602 C 10.912,7 11,6.9116 11,6.8008 V 4.1992 C 11,4.0884 10.912,4 10.801,4 Z m 2,0 C 12.088,4 12,4.0884 12,4.1992 V 6.8008 C 12,6.9116 12.088,7 12.199,7 h 1.602 C 13.912,7 14,6.9116 14,6.8008 V 4.1992 C 14,4.0884 13.912,4 13.801,4 Z M 6.1992,8 C 6.0884,8 6,8.0884 6,8.1992 V 10.801 C 6,10.912 6.0884,11 6.1992,11 H 6.8008 C 6.9116,11 7,10.912 7,10.801 V 8.1992 C 7,8.0884 6.9116,8 6.8008,8 Z m 2,0 C 8.0884,8 8,8.0884 8,8.1992 V 10.801 C 8,10.912 8.0884,11 8.1992,11 H 9.801 C 9.912,11 10,10.912 10,10.801 V 8.1992 C 10,8.0884 9.912,8 9.801,8 Z M 11.199,8 C 11.088,8 11,8.0884 11,8.1992 V 10.801 C 11,10.912 11.088,11 11.199,11 h 0.602 C 11.912,11 12,10.912 12,10.801 V 8.1992 C 12,8.0884 11.912,8 11.801,8 Z m 2,0 C 13.088,8 13,8.0884 13,8.1992 V 10.801 C 13,10.912 13.088,11 13.199,11 h 0.602 C 13.912,11 14,10.912 14,10.801 V 8.1992 C 14,8.0884 13.912,8 13.801,8 Z m 2,0 C 15.088,8 15,8.0884 15,8.1992 V 10.801 C 15,10.912 15.088,11 15.199,11 h 1.602 C 16.912,11 17,10.912 17,10.801 V 8.1992 C 17,8.0884 16.912,8 16.801,8 Z M 5.1992,12 C 5.0884,12 5,12.088 5,12.199 v 2.602 C 5,14.912 5.0884,15 5.1992,15 H 6.8008 C 6.9116,15 7,14.912 7,14.801 V 12.199 C 7,12.088 6.9116,12 6.8008,12 Z m 3,0 C 8.0884,12 8,12.088 8,12.199 v 2.602 C 8,14.912 8.0884,15 8.1992,15 H 9.801 C 9.912,15 10,14.912 10,14.801 V 12.199 C 10,12.088 9.912,12 9.801,12 Z m 2.9998,0 C 11.088,12 11,12.088 11,12.199 v 2.602 C 11,14.912 11.088,15 11.199,15 h 0.602 C 11.912,15 12,14.912 12,14.801 V 12.199 C 12,12.088 11.912,12 11.801,12 Z m 2,0 C 13.088,12 13,12.088 13,12.199 v 2.602 C 13,14.912 13.088,15 13.199,15 h 0.602 C 13.912,15 14,14.912 14,14.801 V 12.199 C 14,12.088 13.912,12 13.801,12 Z m 2,0 C 15.088,12 15,12.088 15,12.199 v 2.602 C 15,14.912 15.088,15 15.199,15 h 1.602 C 16.912,15 17,14.912 17,14.801 V 12.199 C 17,12.088 16.912,12 16.801,12 Z M 5.1992,16 C 5.0884,16 5,16.088 5,16.199 v 2.602 C 5,18.912 5.0884,19 5.1992,19 H 6.8008 C 6.9116,19 7,18.912 7,18.801 V 16.199 C 7,16.088 6.9116,16 6.8008,16 Z m 3,0 C 8.0884,16 8,16.088 8,16.199 v 2.602 C 8,18.912 8.0884,19 8.1992,19 H 8.8008 C 8.9116,19 9,18.912 9,18.801 V 16.199 C 9,16.088 8.9116,16 8.8008,16 Z m 1.9998,0 C 10.088,16 10,16.088 10,16.199 v 2.602 C 10,18.912 10.088,19 10.199,19 h 0.602 C 10.912,19 11,18.912 11,18.801 V 16.199 C 11,16.088 10.912,16 10.801,16 Z m 2,0 C 12.088,16 12,16.088 12,16.199 v 2.602 C 12,18.912 12.088,19 12.199,19 h 1.602 C 13.912,19 14,18.912 14,18.801 V 16.199 C 14,16.088 13.912,16 13.801,16 Z m 4,0 C 16.088,16 16,16.088 16,16.199 v 2.602 C 16,18.912 16.088,19 16.199,19 h 0.602 C 16.912,19 17,18.912 17,18.801 V 16.199 C 17,16.088 16.912,16 16.801,16 Z"/>
 <path style="opacity:0.2" d="m 13,1.5 v 5 c 0,0.5525 0.448,1 1,1 h 5 z"/>
 <path style="fill:#696969" d="m 13,1 v 5 c 0,0.5525 0.448,1 1,1 h 5 z"/>
 <path style="opacity:0.1;fill:#8b9cbe" d="M 4,1 C 3.446,1 3,1.446 3,2 v 0.5 c 0,-0.554 0.446,-1 1,-1 h 9 V 1 Z"/>
</svg>
