<svg xmlns="http://www.w3.org/2000/svg" width="22" height="22" version="1">
 <path style="opacity:0.2" d="m 4,1.5 c -0.554,0 -1,0.446 -1,1 v 18 c 0,0.554 0.446,1 1,1 h 14 c 0.554,0 1,-0.446 1,-1 V 7.5 L 13.5,7 13,1.5 Z"/>
 <path style="fill:#b2bfd9" d="M 4,1 C 3.446,1 3,1.446 3,2 v 18 c 0,0.554 0.446,1 1,1 h 14 c 0.554,0 1,-0.446 1,-1 V 7 L 13.5,6.5 13,1 Z"/>
 <path style="opacity:0.2;fill:#8b9cbe" d="M 4,1 C 3.446,1 3,1.446 3,2 v 0.5 c 0,-0.554 0.446,-1 1,-1 h 9 L 18.5,7 H 19 L 13,1 Z"/>
 <path style="opacity:0.2" d="m 13,1.5 v 5 c 0,0.5523 0.44772,1 1,1 h 5 z"/>
 <path style="fill:#fafafa" d="m 13,1 v 5 c 0,0.5523 0.44772,1 1,1 h 5 z"/>
 <g style="fill:#6b6cd0" transform="translate(27.992,10.161)">
  <path style="fill:#6b6cd0" d="m -21.992,1.839 v 1 h 1 v 3 h 1 v -3 h 1 v -1 z"/>
  <path style="fill:#6b6cd0" d="m -18.992,2.839 v 4 h 3 v -1 h -2 v -0.5 h 2 v -1 h -2 v -0.5 h 2 v -1 z"/>
  <path style="fill:#6b6cd0" d="m -15.992,1.839 1,2 -1,2 h 1 l 0.5,-1 0.5,1 h 1 l -1,-2 1,-2 h -1 l -0.5,1 -0.5,-1 z"/>
 </g>
</svg>
