<svg xmlns="http://www.w3.org/2000/svg" width="22" height="22" version="1.1">
 <g transform="translate(-1,-1)">
  <path style="opacity:0.2" d="m 5,2.5 c -0.554,0 -1,0.446 -1,1 v 18 c 0,0.554 0.446,1 1,1 h 14 c 0.554,0 1,-0.446 1,-1 V 8.5 L 14.5,8 14,2.5 Z"/>
  <path style="fill:#dc682a" d="M 5,2 C 4.446,2 4,2.446 4,3 v 18 c 0,0.554 0.446,1 1,1 h 14 c 0.554,0 1,-0.446 1,-1 V 8 L 14.5,7.5 14,2 Z"/>
  <path style="opacity:0.2;fill:#8b9cbe" d="M 5,2 C 4.446,2 4,2.446 4,3 v 0.5 c 0,-0.554 0.446,-1 1,-1 h 9 V 2 Z"/>
  <path style="opacity:0.2" d="m 14,2.5 v 5 c 0,0.5525 0.448,1 1,1 h 5 z"/>
  <path style="fill:#e69367" d="m 14,2 v 5 c 0,0.5525 0.448,1 1,1 h 5 z"/>
  <path style="opacity:0.2" d="M 8,16.5 H 7 v 2 h 4 v -2 H 10.016 L 10,15.5 h 1 c 1,0 1,3 2.5,3 H 15 c 2,0 2,-3 2,-3 h -2 c 0,0 0.5,1.5 -0.5,1.5 C 13.75,17 13,15.5 13,15.5 h 0.5 c 1,0 2,-1 2,-2.5 0,-1.5 -1,-2.5 -2,-2.5 H 7 v 2 h 1 m 4.5,0 c 0.5,0 1,0 1,0.5 0,0.5 -0.5,0.5 -1,0.5 H 10 v -1"/>
  <path style="fill:#8b9cbe" d="M 8,16 H 7 v 2 h 4 V 16 H 10.016 L 10,15 h 1 c 1,0 1,3 2.5,3 H 15 c 2,0 2,-3 2,-3 h -2 c 0,0 0.5,1.5 -0.5,1.5 C 13.75,16.5 13,15 13,15 h 0.5 c 1,0 2,-1 2,-2.5 0,-1.5 -1,-2.5 -2,-2.5 H 7 v 2 h 1 m 4.5,0 c 0.5,0 1,0 1,0.5 0,0.5 -0.5,0.5 -1,0.5 H 10 v -1"/>
 </g>
</svg>
