<svg xmlns="http://www.w3.org/2000/svg" width="22" height="22" version="1.1">
 <path style="opacity:0.2" d="m 4,1.5 c -0.554,0 -1,0.446 -1,1 v 18 c 0,0.554 0.446,1 1,1 h 14 c 0.554,0 1,-0.446 1,-1 v -13 l -6,-6 z"/>
 <path style="fill:#b2bfd9" d="M 4,1 C 3.446,1 3,1.446 3,2 v 18 c 0,0.554 0.446,1 1,1 h 14 c 0.554,0 1,-0.446 1,-1 V 7 L 14,6 13,1 Z"/>
 <path style="fill:#2c69c8" d="m 14.552369,13.54776 c -0.16465,-0.0079 -0.341995,0.01718 -0.524702,0.08142 -0.128402,0.04559 -0.195633,0.1504 -0.195633,0.1504 0,0 0.08013,-0.03241 0.26122,-0.07011 0.738837,-0.154023 1.797486,0.989441 -0.491908,2.179099 -0.01059,0.02832 -0.04636,0.05997 -0.04636,0.05993 2.675401,-0.703319 2.14994,-2.345551 0.997387,-2.40074 z"/>
 <path style="fill:#2c69c8" d="m 9.471575,13.427152 c -0.29188,0.0077 -0.9741725,0.07057 -1.7686095,0.454591 -1.25251,0.605864 3.0977995,0.881804 5.3499305,0.289492 0.234143,-0.159878 0.557497,-0.298538 0.557497,-0.298538 0,0 -0.920898,0.164574 -1.838721,0.241996 -1.123056,0.0941 -2.32968,0.112638 -2.934489,0.03166 -1.432418,-0.191287 0.785922,-0.718073 0.785922,-0.718073 0,0 -0.05424,-0.0037 -0.15153,-0.0012 z"/>
 <path style="fill:#2c69c8" d="m 9.106319,15.011627 c -2.0669285,0.686015 1.149987,1.464236 4.038174,0.619692 C 12.837499,15.523078 12.642407,15.324866 12.642407,15.324866 11.230875,15.596667 10.415178,15.588612 9.38224,15.48205 8.5834775,15.39943 9.106318,15.011627 9.106319,15.011627 Z"/>
 <path style="fill:#2c69c8" d="m 9.399202,16.241953 c -1.876265,0.524263 1.140516,1.607299 3.529304,0.583505 -0.391258,-0.152149 -0.670579,-0.327939 -0.670579,-0.327939 -1.065597,0.20168 -1.560433,0.21661 -2.527393,0.106297 -0.7981705,-0.09176 -0.331332,-0.361863 -0.331332,-0.361863 z"/>
 <path style="fill:#2c69c8" d="m 8.185828,17.203184 c -0.806326,-0.03107 -2.6369615,0.774609 -1.0742835,1.027919 4.8704565,0.789849 8.8783015,-0.356296 7.6149715,-0.926145 0,0 0.345165,0.284381 -0.379957,0.504348 -1.378839,0.4177 -5.7388465,0.544155 -6.950047,0.01696 -0.4353955,-0.189412 0.380949,-0.452585 0.6377855,-0.507741 0.267855,-0.05808 0.421797,-0.04636 0.421797,-0.04636 -0.060525,-0.04264 -0.1550775,-0.06454 -0.2702665,-0.06898 z"/>
 <path style="fill:#2c69c8" d="m 15.5,17.844336 c 0,0 -0.15359,0.39372 -1.816104,0.706766 -1.875641,0.352973 -4.18933,0.312158 -5.561395,0.08594 3.4e-5,-3.3e-5 0.281348,0.231929 1.725639,0.324547 2.197533,0.14067 5.571938,-0.07744 5.65186,-1.117255 z"/>
 <path style="fill:#fa7800" d="m 12.321115,6.797313 c 0.511568,2.014666 -1.803713,2.623947 -2.639344,3.878727 -0.569323,0.854806 0.278643,1.772423 1.435015,2.815754 -0.450931,-1.019191 -1.979921,-1.910521 0.0012,-3.475024 2.470453,-1.950334 1.203198,-3.219457 1.203198,-3.219457 z"/>
 <path style="fill:#fa7800" d="m 13.721311,9.289649 c 0,0 -4.176588,1.043719 -2.18136,3.342718 0.588596,0.677661 -0.154923,1.288009 -0.154923,1.288009 0,0 1.494917,-0.771939 0.80854,-1.738077 -0.641055,-0.900984 -1.133602,-1.349163 1.527743,-2.89265 z"/>
 <path style="opacity:0.2" d="m 19,7.5 -6,-6 v 5 c 0,0.554 0.446,1 1,1 z"/>
 <path style="fill:#fafafa" d="M 19,7 13,1 v 5 c 0,0.554 0.446,1 1,1 z"/>
 <path style="opacity:0.2;fill:#8b9cbe" d="M 4,1 C 3.446,1 3,1.446 3,2 v 0.5 c 0,-0.554 0.446,-1 1,-1 h 9 V 1 Z"/>
</svg>
