<svg xmlns="http://www.w3.org/2000/svg" width="22" height="22" version="1.1">
 <path style="opacity:0.2" d="m 4,1.5 c -0.554,0 -1,0.446 -1,1 v 18 c 0,0.554 0.446,1 1,1 h 14 c 0.554,0 1,-0.446 1,-1 v -13 l -6,-6 z"/>
 <path style="fill:#f44336" d="M 4,1 C 3.446,1 3,1.446 3,2 v 18 c 0,0.554 0.446,1 1,1 h 14 c 0.554,0 1,-0.446 1,-1 V 7 L 13,1 Z"/>
 <path style="opacity:0.2" d="m 19,7.5 -6,-6 v 5 c 0,0.554 0.446,1 1,1 z"/>
 <path style="fill:#f88e86" d="M 19,7 13,1 v 5 c 0,0.554 0.446,1 1,1 z"/>
 <path style="opacity:0.2;fill:#8b9cbe" d="M 4,1 C 3.446,1 3,1.446 3,2 v 0.5 c 0,-0.554 0.446,-1 1,-1 h 9 V 1 Z"/>
 <path style="opacity:0.2;fill:none;stroke:#000000;stroke-linejoin:round" d="M 14.5,19 9,16.5 l 3,-3 z m 0,-8 -8,8 m 0,-4 h 4 v -4 m 0,0 h 4 v 8 h -8 v -4 z"/>
 <path style="fill:none;stroke:#8b9cbe;stroke-linejoin:round" d="M 14.5,18.5 9,16 12,13 Z m 0,-8 -8,8 m 0,-4 h 4 v -4 m 0,0 h 4 v 8 h -8 v -4 z"/>
</svg>
