<svg xmlns="http://www.w3.org/2000/svg" width="22" height="22" version="1.1">
 <path style="opacity:0.2" d="m 4,1.5 c -0.554,0 -1,0.446 -1,1 v 18 c 0,0.554 0.446,1 1,1 h 14 c 0.554,0 1,-0.446 1,-1 V 7.5 L 13.5,7 13,1.5 Z"/>
 <path style="fill:#b2bfd9" d="M 4,1 C 3.446,1 3,1.446 3,2 v 18 c 0,0.554 0.446,1 1,1 h 14 c 0.554,0 1,-0.446 1,-1 V 7 L 13.5,6.5 13,1 Z"/>
 <path style="fill:#0c49a0" d="m 12.341797,9.692383 c 0,0 -0.763355,1.324397 -1.302734,1.852539 -0.331471,0.324564 -0.731754,0.587037 -1.155274,0.776367 -0.892869,0.399147 -2.84375,0.723633 -2.84375,0.723633 l 0.5009765,0.68457 -0.5566405,1.518555 c 0,0 1.75092,0.221146 2.59375,0.46875 0.425875,0.125112 0.861788,0.261137 1.229492,0.509765 0.632129,0.427424 1.600586,1.636719 1.600586,1.636719 l 0.384766,-0.770508 1.361328,-0.08594 c 0,0 -0.503018,-1.690399 -0.616211,-2.561523 -0.0572,-0.440172 -0.109561,-0.895299 -0.03027,-1.332032 0.136311,-0.750797 0.852539,-2.124023 0.852539,-2.124023 l -1.3125,-0.06445 z m -0.407226,2.311523 c 0.06978,0.0072 0.114699,0.02219 0.135742,0.03125 0.05417,0.04132 0.110065,0.08006 0.168945,0.115235 0.112009,0.06673 0.226881,0.119551 0.34375,0.158203 0.13685,0.146292 0.388884,0.56149 0.415039,1.65332 0.02673,1.100178 -0.260988,1.523863 -0.417969,1.673828 -0.161791,0.08226 -0.313359,0.191955 -0.449218,0.325195 -0.149197,0.05925 -0.574567,0.125046 -1.47168,-0.415039 -0.971514,-0.585499 -1.115645,-1.074858 -1.136719,-1.221679 0.01381,-0.178126 0.0046,-0.355957 -0.02246,-0.529297 l 0.0059,0.01074 c 0,0 -0.07941,-0.476051 1.032227,-1.250976 0.746224,-0.519855 1.187134,-0.572341 1.396484,-0.550782 z"/>
 <path style="opacity:0.1" d="M 13.25,9.5 A 1.75,1.75 0 0 0 11.5,11.25 1.75,1.75 0 0 0 13.25,13 1.75,1.75 0 0 0 15,11.25 1.75,1.75 0 0 0 13.25,9.5 Z M 7.75,13 A 1.75,1.75 0 0 0 6,14.75 1.75,1.75 0 0 0 7.75,16.5 1.75,1.75 0 0 0 9.5,14.75 1.75,1.75 0 0 0 7.75,13 Z m 5.5,3 A 1.75,1.75 0 0 0 11.5,17.75 1.75,1.75 0 0 0 13.25,19.5 1.75,1.75 0 0 0 15,17.75 1.75,1.75 0 0 0 13.25,16 Z"/>
 <path style="opacity:0.2" d="m 13,1.5 v 5 c 0,0.5523 0.447715,1 1,1 h 5 z"/>
 <path style="fill:#fafafa" d="m 13,1 v 5 c 0,0.5523 0.447715,1 1,1 h 5 z"/>
 <path style="opacity:0.2;fill:#8b9cbe" d="M 4,1 C 3.446,1 3,1.446 3,2 v 0.5 c 0,-0.554 0.446,-1 1,-1 h 9 V 1 Z"/>
 <circle style="fill:#246dd4" cx="7.75" cy="14.25" r="1.75"/>
 <circle style="fill:#246dd4" cx="13.25" cy="10.75" r="1.75"/>
 <circle style="fill:#246dd4" cx="13.25" cy="17.25" r="1.75"/>
</svg>
