<svg xmlns="http://www.w3.org/2000/svg" width="22" height="22" version="1">
 <path style="opacity:0.2" d="m 4,1.5 c -0.554,0 -1,0.446 -1,1 v 18 c 0,0.554 0.446,1 1,1 h 14 c 0.554,0 1,-0.446 1,-1 V 7.5 L 13.5,7 13,1.5 Z"/>
 <path style="fill:#b2bfd9" d="M 4,1 C 3.446,1 3,1.446 3,2 v 18 c 0,0.554 0.446,1 1,1 h 14 c 0.554,0 1,-0.446 1,-1 V 7 L 13.5,6.5 13,1 Z"/>
 <path style="opacity:0.2;fill:#8b9cbe" d="M 4,1 C 3.446,1 3,1.446 3,2 v 0.5 c 0,-0.554 0.446,-1 1,-1 h 9 L 18.5,7 H 19 L 13,1 Z"/>
 <path style="opacity:0.2" d="m 13,1.5 v 5 c 0,0.5523 0.44772,1 1,1 h 5 z"/>
 <path style="fill:#fafafa" d="m 13,1 v 5 c 0,0.5523 0.44772,1 1,1 h 5 z"/>
 <path style="fill:#ffa923" d="m 13.5,11.5 v 1.25 c 0,0.103664 -0.01549,0.202632 -0.03906,0.298828 -0.09556,0.479482 -0.393227,0.709123 -0.679688,0.824219 -0.105505,0.04987 -0.216519,0.08866 -0.335938,0.107422 C 12.381134,13.990552 12.317098,14 12.25,14 h -2.5 c 0,0 -0.07813,0 -0.195312,0.01953 -0.09166,0.01528 -0.215173,0.0589 -0.335938,0.107422 -0.3353925,0.158525 -0.5894533,0.455922 -0.6796875,0.82422 C 8.5203944,15.044844 8.5,15.13673 8.5,15.25 v 1.25 0.9375 C 8.5,18.303 9.4755,19 10.6875,19 h 0.625 C 12.5245,19 13.5,18.303 13.5,17.4375 V 16.5 h 0.9375 C 15.3025,16.5 16,15.522547 16,14.310547 v -0.625 C 16,12.474547 15.3025,11.5 14.4375,11.5 Z m -1,5.5 A 0.5,0.5 0 0 1 13,17.5 0.5,0.5 0 0 1 12.5,18 0.5,0.5 0 0 1 12,17.5 0.5,0.5 0 0 1 12.5,17 Z"/>
 <path style="fill:#3084e0" d="M 10.688,9 C 9.476,9 8.5,9.697 8.5,10.562 V 11.5 H 7.5625 C 6.697,11.5 6,12.476 6,13.688 v 0.625 C 6,15.524 6.697,16.5 7.5625,16.5 H 8.5 V 15.25 C 8.5,14.5575 9.0575,14 9.75,14 h 2.5 c 0,0 1.25,0 1.25,-1.25 v -2.1875 c 0,-0.865 -0.976,-1.562 -2.188,-1.562 H 10.687 Z M 9.5,10 A 0.5,0.5 0 0 1 10,10.5 0.5,0.5 0 0 1 9.5,11 0.5,0.5 0 0 1 9,10.5 0.5,0.5 0 0 1 9.5,10 Z"/>
</svg>
