<svg xmlns="http://www.w3.org/2000/svg" width="22" height="22" version="1.1">
 <path style="opacity:0.2" d="m 4,1.5 c -0.554,0 -1,0.446 -1,1 l 0,18 c 0,0.554 0.446,1 1,1 l 14,0 c 0.554,0 1,-0.446 1,-1 l 0,-13 -6,-6 z"/>
 <path style="fill:#404b8b" d="M 4,1 C 3.446,1 3,1.446 3,2 l 0,18 c 0,0.554 0.446,1 1,1 l 14,0 c 0.554,0 1,-0.446 1,-1 L 19,7 13,1 Z"/>
 <path style="opacity:0.2" d="m 19,7.5 -6,-6 0,5 c 0,0.554 0.446,1 1,1 z"/>
 <path style="fill:#6672ba" d="m 19,7 -6,-6 0,5 c 0,0.554 0.446,1 1,1 z"/>
 <path style="opacity:0.1;fill:#8b9cbe" d="M 4,1 C 3.446,1 3,1.446 3,2 l 0,0.5 c 0,-0.554 0.446,-1 1,-1 l 9,0 L 13,1 4,1 Z"/>
 <path style="opacity:0.2" d="m 8.0002,10.50002 0,0.7 L 8.003,11.5 9.499999,14 8,16.5 l 0,1 5.5,0 0,-1.5 -1,0 0,0.5 -3.5000007,0 L 10.499999,14 8.9999993,11.5 12,11.5 l 0,0.5 1,0 0,-1.5 -4.9998999,0 z"/>
 <path style="fill:#f26265" d="m 8.0002,10.00002 0,0.7 L 8.003,11 9.499999,13.5 8,16 l 0,1 5.5,0 0,-1.5 -1,0 0,0.5 L 8.9999993,16 10.499999,13.5 8.9999993,11 12,11 l 0,0.5 1,0 0,-1.5 -4.9998999,0 z"/>
</svg>
