<svg xmlns="http://www.w3.org/2000/svg" width="22" height="22" version="1">
 <g transform="translate(-1,-1)">
  <path style="opacity:0.2" d="m 5,2.5 c -0.554,0 -1,0.446 -1,1 v 18 c 0,0.554 0.446,1 1,1 h 14 c 0.554,0 1,-0.446 1,-1 V 8.5 L 14.5,8 14,2.5 Z"/>
  <path style="fill:#ff5722" d="M 5,2 C 4.446,2 4,2.446 4,3 v 18 c 0,0.554 0.446,1 1,1 h 14 c 0.554,0 1,-0.446 1,-1 V 8 L 14.5,7.5 14,2 Z"/>
  <path style="opacity:0.1;fill:#8b9cbe" d="M 5,2 C 4.446,2 4,2.446 4,3 v 0.5 c 0,-0.554 0.446,-1 1,-1 h 9 L 19.5,8 H 20 L 14,2 Z"/>
  <path style="opacity:0.2" d="m 14,2.5 v 5 c 0,0.5523 0.44772,1 1,1 h 5 z"/>
  <path style="fill:#ff8660" d="m 14,2 v 5 c 0,0.5523 0.44772,1 1,1 h 5 z"/>
  <path style="opacity:0.2" d="m 9,12.5 c -1.1062,0 -2,0.894 -2,2 0,1.106 0.8938,2 2,2 1.106,0 2,-0.894 2,-2 H 9 Z m 3,1 v 1 h 4 v -1 z m 0,2 v 1 h 4 v -1 z m -4,2 v 1 h 6 v -1 z"/>
  <path style="fill:#8b9cbe" d="m 9,12 c -1.1062,0 -2,0.894 -2,2 0,1.106 0.8938,2 2,2 1.106,0 2,-0.894 2,-2 H 9 Z m 3,1 v 1 h 4 v -1 z m 0,2 v 1 h 4 v -1 z m -4,2 v 1 h 6 v -1 z"/>
 </g>
</svg>
