<svg xmlns="http://www.w3.org/2000/svg" width="22" height="22" version="1">
 <path fill="#9c27b0" d="m2.5 2c-0.831 0-1.5 0.669-1.5 1.5v12.5h20v-12.5c0-0.831-0.669-1.5-1.5-1.5z"/>
 <path fill="#fff" opacity=".2" d="m2.5 2c-0.831 0-1.5 0.669-1.5 1.5v0.5c0-0.831 0.669-1.5 1.5-1.5h17c0.831 0 1.5 0.669 1.5 1.5v-0.5c0-0.831-0.669-1.5-1.5-1.5h-17z"/>
 <path style="fill:#b2bfd9" d="m1 16v2.5c0 0.831 0.669 1.5 1.5 1.5h17c0.831 0 1.5-0.669 1.5-1.5v-2.5z"/>
 <rect fill="#999" width="6" height="1" x="13" y="17" rx=".462" ry=".464"/>
 <rect fill="#9c27b0" width="10" height="1" x="3" y="17" rx=".476" ry=".5"/>
 <circle opacity=".2" cx="13.5" cy="18" r="1.5"/>
 <circle fill="#fff" cx="13.5" cy="17.5" r="1.5"/>
 <rect fill="#fff" style="opacity:0.2" width="20" height=".5" x="1" y="16"/>
 <path opacity=".2" d="m8.2957 5.5001c-0.2723-0.0054-0.3192 0.3448-0.2967 0.5976 0.002 2.366-0.00351 4.7323 0.0025 7.0981 0.023945 0.28288 0.3278 0.3959 0.50056 0.22047 1.8459-1.211 4.5319-2.414 6.3759-3.6305 0.201-0.1675 0.124-0.5574-0.101-0.6385-1.846-1.2065-4.525-2.4196-6.3729-3.622-0.0345-0.0164-0.0716-0.0249-0.1087-0.025z"/>
 <path style="fill:#8b9cbe" d="m8.3016 5.0001c-0.2723-0.0054-0.3192 0.3448-0.2967 0.5976 0.002 2.366-0.00351 4.7323 0.0025 7.0981 0.023945 0.28288 0.3278 0.3959 0.50056 0.22047 1.846-1.211 4.532-2.414 6.376-3.6305 0.201-0.1675 0.124-0.5574-0.101-0.6385-1.846-1.2065-4.525-2.4196-6.3729-3.622-0.0346-0.0164-0.0717-0.0249-0.1088-0.025z"/>
 <path opacity=".2" d="m1 18.5v0.5c0 0.831 0.669 1.5 1.5 1.5h17c0.831 0 1.5-0.669 1.5-1.5v-0.5c0 0.831-0.669 1.5-1.5 1.5h-17c-0.831 0-1.5-0.669-1.5-1.5z"/>
</svg>
