<svg xmlns="http://www.w3.org/2000/svg" width="64" height="64" version="1">
 <rect style="opacity:0.2" width="56" height="36" x="4" y="22" rx="2.8" ry="2.8"/>
 <path style="fill:#bf4b4b" d="M 4,46.2 C 4,47.751 5.2488,49 6.8,49 H 57.2 C 58.751,49 60,47.751 60,46.2 V 15.8 C 60,14.249 58.751,13 57.2,13 H 32 C 27.8,13 26.4,7 22.2,7 H 6.8 C 5.2488,7 4,8.2488 4,9.8"/>
 <rect style="opacity:0.2" width="56" height="36" x="4" y="20" rx="2.8" ry="2.8"/>
 <rect style="fill:#b2bfd9" width="48" height="22" x="8" y="16" rx="2.8" ry="2.8"/>
 <rect style="fill:#e25252" width="56" height="36" x="4" y="21" rx="2.8" ry="2.8"/>
 <path style="opacity:0.1;fill:#8b9cbe" d="M 6.8008,7 C 5.2496,7 4,8.2496 4,9.8008 V 10.801 C 4,9.2496 5.2496,8 6.8008,8 H 22.199 C 26.399,8 27.8,14 32,14 H 57.199 C 58.75,14 60,15.25 60,16.801 V 15.801 C 60,14.25 58.75,13 57.199,13 H 32 C 27.8,13 26.399,7 22.199,7 Z"/>
 <path style="fill:#4f1d1d" d="m23.957031 32.988281a1.0001 1.0001 0 0 0-0.771484 1.59375l2.121094 2.96875c-1.829314 1.630264-3.057929 3.914325-3.304688 6.486328-0.045933 0.962466 0.96875 0.962891 0.96875 0.962891h18.033203s1.044802 7.66e-4 0.994141-1.009766c-0.257459-2.553668-1.481414-4.823103-3.300781-6.443359l2.117187-2.964844a1.0001 1.0001 0 0 0-0.800781-1.59375 1.0001 1.0001 0 0 0-0.828125 0.429688l-2.113281 2.957031c-1.489269-0.869243-3.219153-1.375-5.070313-1.375-1.853252 0-3.583821 0.505888-5.074219 1.376953l-2.113281-2.958984a1.0001 1.0001 0 0 0-0.857422-0.429688z"/>
 <circle style="fill:#e25252" cx="27" cy="41" r="1"/>
 <circle style="fill:#e25252" cx="-37" cy="41" r="1" transform="scale(-1,1)"/>
</svg>
