<svg xmlns="http://www.w3.org/2000/svg" width="64" height="64" version="1">
 <rect style="opacity:0.2" width="56" height="36" x="4" y="22" rx="2.8" ry="2.8"/>
 <path style="fill:#bea389" d="M 4,46.2 C 4,47.751 5.2488,49 6.8,49 H 57.2 C 58.751,49 60,47.751 60,46.2 V 15.8 C 60,14.249 58.751,13 57.2,13 H 32 C 27.8,13 26.4,7 22.2,7 H 6.8 C 5.2488,7 4,8.2488 4,9.8"/>
 <rect style="opacity:0.2" width="56" height="36" x="4" y="20" rx="2.8" ry="2.8"/>
 <rect style="fill:#b2bfd9" width="48" height="22" x="8" y="16" rx="2.8" ry="2.8"/>
 <rect style="fill:#d1bfae" width="56" height="36" x="4" y="21" rx="2.8" ry="2.8"/>
 <path style="opacity:0.1;fill:#8b9cbe" d="M 6.8008,7 C 5.2496,7 4,8.2496 4,9.8008 V 10.801 C 4,9.2496 5.2496,8 6.8008,8 H 22.199 C 26.399,8 27.8,14 32,14 H 57.199 C 58.75,14 60,15.25 60,16.801 V 15.801 C 60,14.25 58.75,13 57.199,13 H 32 C 27.8,13 26.399,7 22.199,7 Z"/>
 <path style="fill:#a38d7b" d="M 32.5 28 A 10.214286 10.214286 0 0 0 23.056641 34.333984 A 7.8571429 7.8571429 0 0 0 16 42.142578 A 7.8571429 7.8571429 0 0 0 23.857422 50 L 42.322266 50 C 45.142862 50 47.427734 47.713175 47.427734 44.892578 C 47.427734 42.96447 46.348622 41.304758 44.771484 40.435547 A 4.7142857 4.7142857 0 0 0 45.857422 37.427734 A 4.7142857 4.7142857 0 0 0 41.142578 32.714844 A 4.7142857 4.7142857 0 0 0 41.105469 32.714844 A 10.214286 10.214286 0 0 0 32.5 28 z M 33 31 A 6.9999991 6.9999991 0 0 1 40 38 A 6.9999991 6.9999991 0 0 1 33 45 A 6.9999991 6.9999991 0 0 1 26 38 A 6.9999991 6.9999991 0 0 1 33 31 z M 33 33 A 5 5 0 0 0 30.009766 34 L 32 34 L 33.529297 34 C 34.999297 34 36 34.490309 36 36.357422 C 36 38.533177 34.999297 39 33.529297 39 L 32 39 L 32 42 L 30.009766 42 A 5 5 0 0 0 33 43 A 5 5 0 0 0 38 38 A 5 5 0 0 0 33 33 z M 30 34.007812 A 5 5 0 0 0 28 38 A 5 5 0 0 0 30 41.992188 L 30 38.714844 L 30 34.007812 z M 32 36 L 32 37 L 33 37 C 33.587821 37 34.000002 36.999976 34 36.511719 C 34.000002 35.999976 33.639263 36 33 36 L 32 36 z"/>
</svg>
