<svg xmlns="http://www.w3.org/2000/svg" width="64" height="64" version="1">
 <rect style="opacity:0.2" width="56" height="36" x="4" y="22" rx="2.8" ry="2.8"/>
 <path style="fill:#cccccc" d="M 4,46.2 C 4,47.751 5.2488,49 6.8,49 H 57.2 C 58.751,49 60,47.751 60,46.2 V 15.8 C 60,14.249 58.751,13 57.2,13 H 32 C 27.8,13 26.4,7 22.2,7 H 6.8 C 5.2488,7 4,8.2488 4,9.8"/>
 <rect style="opacity:0.2" width="56" height="36" x="4" y="20" rx="2.8" ry="2.8"/>
 <rect style="fill:#8b9cbe" width="48" height="22" x="8" y="16" rx="2.8" ry="2.8"/>
 <rect style="fill:#b2bfd9" width="56" height="36" x="4" y="21" rx="2.8" ry="2.8"/>
 <path style="opacity:0.1;fill:#8b9cbe" d="M 6.8008,7 C 5.2496,7 4,8.2496 4,9.8008 V 10.801 C 4,9.2496 5.2496,8 6.8008,8 H 22.199 C 26.399,8 27.8,14 32,14 H 57.199 C 58.75,14 60,15.25 60,16.801 V 15.801 C 60,14.25 58.75,13 57.199,13 H 32 C 27.8,13 26.399,7 22.199,7 Z"/>
 <path style="fill:#4f4f4f" d="M 32 30 C 30.132468 30.0027 28.312033 30.586321 26.791016 31.669922 L 28.957031 33.835938 C 29.878594 33.290764 30.929258 33.002134 32 33 C 34.972138 33 37.433066 35.163496 37.910156 38 L 36 38 L 39.5 44 L 43 38 L 40.941406 38 C 40.443387 33.500659 36.63212 30 32 30 z M 24.5 34 L 21 40 L 23.058594 40 C 23.556613 44.499341 27.36788 48 32 48 C 33.867532 47.9973 35.687967 47.413679 37.208984 46.330078 L 35.042969 44.164062 C 34.121406 44.709236 33.070742 44.997866 32 45 C 29.027862 45 26.566934 42.836504 26.089844 40 L 28 40 L 24.5 34 z"/>
</svg>
