<svg xmlns="http://www.w3.org/2000/svg" width="22" height="22" version="1">
 <g transform="translate(-1,-1)">
  <path style="opacity:0.2" d="M 12,2.5 C 9.0175,2.5 6.564,4.6562 6.0898,7.5 H 8.1387 C 8.5824,5.7737 10.131,4.5 12,4.5 14.216,4.5 16,6.284 16,8.5 V 10.5 H 18 V 8.5 C 18,5.176 15.324,2.5 12,2.5 Z"/>
  <path style="fill:#d2d2d2" d="M 12,2 C 9.0175,2 6.564,4.1562 6.0898,7 H 8.1387 C 8.5824,5.2737 10.131,4 12,4 14.216,4 16,5.784 16,8 V 10 H 18 V 8 C 18,4.676 15.324,2 12,2 Z"/>
  <rect style="fill:#fe3c38" width="16" height="12" x="4" y="10" rx="1" ry="1"/>
  <path style="opacity:0.2;fill:#8b9cbe" d="M 12,2 C 9.0175,2 6.564,4.1562 6.0898,7 H 6.1953 C 6.8591,4.408 9.1954,2.5 12,2.5 15.324,2.5 18,5.176 18,8.5 V 8 C 18,4.676 15.324,2 12,2 Z"/>
  <path style="opacity:0.2;fill:#8b9cbe" d="M 5,10 C 4.446,10 4,10.446 4,11 V 11.5 C 4,10.946 4.446,10.5 5,10.5 H 19 C 19.554,10.5 20,10.946 20,11.5 V 11 C 20,10.446 19.554,10 19,10 Z"/>
  <rect style="fill:#fe6a6a" width="16" height="7" x="4" y="12" rx="0" ry="0"/>
  <path style="opacity:0.2" d="M 4,21 V 21.5 C 4,22.054 4.446,22.5 5,22.5 H 19 C 19.554,22.5 20,22.054 20,21.5 V 21 C 20,21.554 19.554,22 19,22 H 5 C 4.446,22 4,21.554 4,21 Z"/>
 </g>
</svg>
