<svg xmlns="http://www.w3.org/2000/svg" width="22" height="22" version="1">
 <rect fill="#ffd453" width="20" height="20" x="-21" y="-21" rx="10" ry="10" transform="matrix(0,-1,-1,0,0,0)"/>
 <g opacity=".2" transform="translate(-535 360.5)">
  <path class="error" d="m545-355h2v9.0039h-2zm0 11.004h2v1.9961h-2z"/>
 </g>
 <g fill="#17191e" transform="translate(-535 360)">
  <path class="error" d="m545-355h2v9.0039h-2zm0 11.004h2v1.9961h-2z"/>
 </g>
 <path fill="#fff" opacity=".2" d="m11 1c-5.54 0-10 4.46-10 10 0 0.084 0.004 0.166 0.0058 0.25 0.1324-5.423 4.5382-9.75 9.9942-9.75 5.4558 0 9.862 4.327 9.994 9.75 0.002-0.08343 0.0059-0.16606 0.0059-0.25 0-5.54-4.46-10-10-10z"/>
 <path opacity=".3" d="m1.0058 11.25c-0.002 0.084-0.0058 0.166-0.0058 0.25 0 5.54 4.46 10 10 10s10-4.46 10-10c0-0.084-0.004-0.1665-0.006-0.25-0.132 5.423-4.538 9.75-9.994 9.75s-9.862-4.327-9.994-9.75z"/>
</svg>
