<svg xmlns="http://www.w3.org/2000/svg" width="22" height="22" version="1">
 <g transform="translate(-1,-1)">
  <path style="opacity:0.2" d="M 3,3.5 C 2.446,3.5 2,3.946 2,4.5 V 20.5 C 2,21.054 2.446,21.5 3,21.5 H 14 L 22,13.5 V 4.5 C 22,3.946 21.554,3.5 21,3.5 Z"/>
  <path style="fill:#b2bfd9" d="M 3,3 C 2.446,3 2,3.446 2,4 V 20 C 2,20.554 2.446,21 3,21 H 14 L 22,13 V 4 C 22,3.446 21.554,3 21,3 Z"/>
  <path style="opacity:0.3" d="M 7.6084,10 12,16 15,13 18,15.077 17.47,15.548 15.546,18 H 3.9996 V 14 Z"/>
  <path style="fill:#fafafa" d="M 22,13 H 15 C 14.448,13 14,13.448 14,14 V 21 Z"/>
  <path style="opacity:0.2;fill:#8b9cbe" d="M 15,13 C 14.448,13 14,13.448 14,14 V 14.5 C 14,13.948 14.448,13.5 15,13.5 H 21.5 L 22,13 Z"/>
  <path style="opacity:0.2;fill:#8b9cbe" d="M 3,3 C 2.446,3 2,3.446 2,4 V 4.5 C 2,3.946 2.446,3.5 3,3.5 H 21 C 21.554,3.5 22,3.946 22,4.5 V 4 C 22,3.446 21.554,3 21,3 Z"/>
 </g>
</svg>
