<svg xmlns="http://www.w3.org/2000/svg" width="22" height="22" version="1">
 <path style="opacity:0.2" d="m 8.328125,1.5002739 a 0.65615963,0.72622729 0 0 0 -0.3125,0.097656 l -3.34375,2.1367188 -3.34375,2.1367188 a 0.65615963,0.72622729 0 0 0 0,1.2578124 l 3.34375,2.1367188 3.34375,2.1367183 A 0.65615963,0.72622729 0 0 0 9,10.773711 V 8.5002739 h 10 c 0.554,0 1,-0.446 1,-1 v -2 c 0,-0.554 -0.446,-1 -1,-1 H 9 V 2.2268364 A 0.65615963,0.72622729 0 0 0 8.328125,1.5002739 Z m 4.34375,9.9999991 A 0.65615963,0.72622729 0 0 0 12,12.226835 v 2.273438 H 2 c -0.554,0 -1,0.446 -1,1 v 2 c 0,0.554 0.446,1 1,1 h 10 v 2.273438 a 0.65615963,0.72622729 0 0 0 0.984375,0.628906 l 3.34375,-2.136719 3.34375,-2.136719 a 0.65615963,0.72622729 0 0 0 0,-1.257812 l -3.34375,-2.136719 -3.34375,-2.136719 a 0.65615963,0.72622729 0 0 0 -0.3125,-0.09766 z"/>
 <rect style="fill:#a0a0a4" width="16" height="4" x="1" y="14" rx="1" ry="1"/>
 <path style="fill:#a0a0a4" d="M 12.671453,11 A 0.65615963,0.72622729 0 0 0 12,11.726229 v 4.273901 4.273901 a 0.65615963,0.72622729 0 0 0 0.983665,0.628842 l 3.344198,-2.136951 3.344198,-2.136951 a 0.65615963,0.72622729 0 0 0 0,-1.257683 l -3.344198,-2.136951 -3.344198,-2.13695 a 0.65615963,0.72622729 0 0 0 -0.312212,-0.09739 z"/>
 <rect style="fill:#a0a0a4" width="16" height="4" x="-20" y="4" rx="1" ry="1" transform="scale(-1,1)"/>
 <path style="fill:#a0a0a4" d="M 8.328547,1.0001976 A 0.65615963,0.72622729 0 0 1 9,1.7264266 v 4.273901 4.2739014 A 0.65615963,0.72622729 0 0 1 8.016335,10.903071 L 4.672137,8.7661196 1.327939,6.6291686 a 0.65615963,0.72622729 0 0 1 0,-1.257683 l 3.344198,-2.136951 3.344198,-2.13695 a 0.65615963,0.72622729 0 0 1 0.312212,-0.09739 z"/>
 <path style="opacity:0.1;fill:#8b9cbe" d="M 8.328125 1 A 0.65615963 0.72622729 0 0 0 8.015625 1.0976562 L 4.671875 3.234375 L 1.328125 5.3710938 A 0.65615963 0.72622729 0 0 0 1.0410156 6.25 A 0.65615963 0.72622729 0 0 1 1.328125 5.8710938 L 4.671875 3.734375 L 8.015625 1.5976562 A 0.65615963 0.72622729 0 0 1 8.328125 1.5 A 0.65615963 0.72622729 0 0 1 9 2.2265625 L 9 1.7265625 A 0.65615963 0.72622729 0 0 0 8.328125 1 z M 9 4 L 9 4.5 L 19 4.5 C 19.554 4.5 20 4.946 20 5.5 L 20 5 C 20 4.446 19.554 4 19 4 L 9 4 z M 12.671875 11 A 0.65615963 0.72622729 0 0 0 12 11.726562 L 12 12.226562 A 0.65615963 0.72622729 0 0 1 12.671875 11.5 A 0.65615963 0.72622729 0 0 1 12.984375 11.597656 L 16.328125 13.734375 L 19.671875 15.871094 A 0.65615963 0.72622729 0 0 1 19.958984 16.25 A 0.65615963 0.72622729 0 0 0 19.671875 15.371094 L 16.328125 13.234375 L 12.984375 11.097656 A 0.65615963 0.72622729 0 0 0 12.671875 11 z M 2 14 C 1.446 14 1 14.446 1 15 L 1 15.5 C 1 14.946 1.446 14.5 2 14.5 L 12 14.5 L 12 14 L 2 14 z"/>
</svg>
