<svg width="32" height="32" version="1.1" xmlns="http://www.w3.org/2000/svg">
 <path d="m5.4117647 2.9998488c-0.7796639 7.7e-5 -1.4116868 0.6268332-1.4117647 1.4v21c-2.76e-5 0.572677 0.3516283 1.087642 0.8878676 1.300195l10.588234 4.2c0.336337 0.133275 0.711459 0.133275 1.047796 0l10.588235-4.2c0.536239-0.212553 0.887894-0.727518 0.887867-1.300195v-21c-7.8e-5 -0.7731668-0.632101-1.399923-1.411765-1.4z" style="opacity:.2"/>
 <path d="m5.4117647 2c-0.7796639 7.7e-5 -1.4116868 0.6268332-1.4117647 1.4v21c-2.76e-5 0.572677 0.3516283 1.087642 0.8878676 1.300195l10.588234 4.2c0.336337 0.133275 0.711459 0.133275 1.047796 0l10.588235-4.2c0.536239-0.212553 0.887894-0.727518 0.887867-1.300195v-21c-7.8e-5 -0.7731668-0.632101-1.399923-1.411765-1.4z" style="fill:#4f4f4f"/>
 <path d="m7 6v12h4v-2h-2v-3h2v-2h-2v-3h2v-2zm5 0v12h2v-4h1c1.108 0 2-0.892 2-2v-4c0-1.108-0.892-2-2-2h-1zm6 0v12h2v-12zm4.5 0c-1.108 0-1.5 0.892-1.5 2v8c0 1.108 0.392 2 1.5 2h1c1.108 0 1.5-0.892 1.5-2v-2h-1v0.5c0 0.277-0.223 0.5-0.5 0.5s-0.5-0.223-0.5-0.5v-5c0-0.277 0.223-0.5 0.5-0.5s0.554324 0.228379 0.5 0.5v0.5h1v-2c0-1.108-0.392-2-1.5-2zm-8 2c0.277 0 0.5 0.223 0.5 0.5v3c0 0.277-0.223 0.5-0.5 0.5s-0.5-0.223-0.5-0.5v-3c0-0.277 0.223-0.5 0.5-0.5zm8.923828 12.300781c-0.607168 0.0039-1.240476 0.383312-1.257812 1.316407-0.01759 0.947458 1.882323 0.816019 1.888672 1.298828 0.0021 0.167371-0.249782 0.259711-0.416016 0.279296-0.383385 0.04519-1.085938-0.40625-1.085938-0.40625l-0.533203 0.638672s0.652605 0.54799 1.578125 0.552735c0.613638 0.0033 1.41028-0.297185 1.404297-1.191407-0.0071-1.07522-1.869545-1.02768-1.896484-1.394531-0.01353-0.184205 0.178713-0.297657 0.376953-0.291015 0.357144 0.01185 0.929687 0.349609 0.929687 0.349609l0.445313-0.677734s-0.577462-0.480083-1.433594-0.47461zm-14.521484 0.0293c-0.9010973-0.017313-1.8734115 0.647111-1.9023438 1.847653-0.020519 0.851336 0.7512239 1.805906 1.7929688 1.820313 0.9138809 0.01264 1.5742192-0.570313 1.5742192-0.570313v-1.548828h-1.5195318v0.705078l0.625 0.01953 0.025391 0.388672s-0.2039326 0.209845-0.5703125 0.216796c-0.6439322 0.0122-0.9556727-0.517993-0.9765625-0.978515-0.022431-0.494529 0.3270984-1.085414 0.9882812-1.082031 0.4406584 0.0022 0.7226563 0.402343 0.7226563 0.402343l0.5976563-0.73242c-0.6446966-0.440555-0.6490676-0.427078-1.3574222-0.488281zm3.1132812 0.019528-1.611328 3.650391 1.091797-2e-3 0.25-0.660156h1.402344l0.242187 0.660156h1.017578l-1.496094-3.648438zm2.505859 0v3.648438h0.892578v-2.025391l0.929688 1.38086 0.904297-1.4375 0.05859 2.082031h0.693363v-3.648438h-0.751953l-0.904297 1.455079-0.902344-1.455079zm4.478516 0v3.648438h2.599609v-0.730469h-1.96875v-0.730469l1.822266 0.01563v-0.74414h-1.822266v-0.730469h1.96875v-0.728516zm-6.544922 1.115235 0.390625 1.05664h-0.791015zm-1.455078 5.535156 5 2 5-2z" style="opacity:.2"/>
 <path d="m7 5v12h4v-2h-2v-3h2v-2h-2v-3h2v-2h-4zm5 0v2 4 6h2v-4h1c1.108 0 2-0.892 2-2v-4c0-1.108-0.892-2-2-2h-1-2zm6 0v12h2v-12h-2zm4.5 0c-1.108 0-1.5 0.892-1.5 2v8c0 1.108 0.392 2 1.5 2h1c1.108 0 1.5-0.892 1.5-2v-2h-1v0.5c0 0.277-0.223 0.5-0.5 0.5s-0.5-0.223-0.5-0.5v-1-3-1c0-0.277 0.223-0.5 0.5-0.5s0.554324 0.228379 0.5 0.5v0.5h1v-2c0-1.108-0.392-2-1.5-2h-1zm-8 2c0.277 0 0.5 0.223 0.5 0.5v3c0 0.277-0.223 0.5-0.5 0.5s-0.5-0.223-0.5-0.5v-3c0-0.277 0.223-0.5 0.5-0.5zm8.923828 12.300781c-0.607168 0.0039-1.240476 0.383312-1.257812 1.316407-0.01759 0.947458 1.882323 0.816019 1.888672 1.298828 0.002099 0.167371-0.249782 0.259711-0.416016 0.279296-0.383385 0.045191-1.085938-0.40625-1.085938-0.40625l-0.533203 0.638672s0.652605 0.54799 1.578125 0.552735c0.613638 0.0033 1.41028-0.297185 1.404297-1.191407-0.0071-1.07522-1.869545-1.02768-1.896484-1.394531-0.01353-0.184205 0.178713-0.297657 0.376953-0.291015 0.357144 0.01185 0.929687 0.349609 0.929687 0.349609l0.445313-0.677734s-0.577462-0.480083-1.433594-0.47461zm-14.521484 0.029297c-0.9010973-0.01731-1.8734115 0.647114-1.9023438 1.847656-0.020519 0.851336 0.7512239 1.805906 1.7929688 1.820313 0.9138809 0.01264 1.5742192-0.570313 1.5742192-0.570313v-1.548828h-1.5195318v0.705078l0.625 0.019532 0.0253907 0.388672s-0.2039326 0.209845-0.5703125 0.216796c-0.6439322 0.0122-0.9556727-0.517993-0.9765625-0.978515-0.022431-0.494529 0.3270984-1.085414 0.9882812-1.082031 0.4406584 0.002199 0.7226563 0.402343 0.7226563 0.402343l0.5976566-0.732422c-0.6446966-0.440555-0.6490676-0.427078-1.3574222-0.488281zm3.1132812 0.019531-1.611328 3.650391 1.091797-0.001953 0.25-0.660156h1.402344l0.242187 0.660156h1.017578l-1.496094-3.648438h-0.896484zm2.505859 0v3.648438h0.892578v-2.025391l0.929688 1.38086 0.904297-1.4375 0.058594 2.082031h0.693359v-3.648438h-0.751953l-0.904297 1.455079-0.902344-1.455079h-0.919922zm4.478516 0v3.648438h2.599609v-0.730469h-1.96875v-0.730469l1.822266 0.015625v-0.74414h-1.822266v-0.730469h1.96875v-0.728516h-2.599609zm-6.544922 1.115235 0.390625 1.05664h-0.791015l0.40039-1.05664zm-1.455078 5.535156 5 2 5-2h-10z" style="fill:#8b9cbe"/>
 <path d="m5.4121094 2c-0.7796639 7.7e-5 -1.4120315 0.6272238-1.4121094 1.4003906v1c7.79e-5 -0.7731668 0.6324455-1.4003136 1.4121094-1.4003906h21.175782c0.779664 7.7e-5 1.412031 0.6272238 1.412109 1.4003906v-1c-7.8e-5 -0.7731668-0.632445-1.4003136-1.412109-1.4003906h-21.175782z" style="fill:#8b9cbe;opacity:.1"/>
</svg>
