<svg xmlns="http://www.w3.org/2000/svg" width="32" height="32" version="1.1">
 <rect style="opacity:0.2" width="28" height="28" x="2" y="3" rx="2.1" ry="2.1"/>
 <rect style="fill:#70c74d" width="28" height="28" x="2" y="2" rx="2.1" ry="2.1"/>
 <path style="opacity:0.2;fill-rule:evenodd" d="m 7.9999845,13.000055 c 0,0 -0.4793965,-0.01 -0.9735925,0.240198 C 6.532096,13.487451 6,14.083346 6,15.000039 l 0.999992,0 c 0,-0.999992 0.9999925,-0.999992 0.9999925,-0.999992 0,0 0.999992,0 0.999992,0.999992 0,0.374997 -0.127499,0.657195 -0.362497,0.957493 C 8.402381,16.257829 8.054884,16.553327 7.679887,16.865824 7.30489,17.178322 6.902393,17.507819 6.5749955,17.926316 6.247498,18.344713 6,18.875009 6,19.500004 L 6,20 l 3.9999685,0 0,-0.999992 -2.908777,0 c 0.061,-0.157399 0.1521985,-0.305298 0.271398,-0.457497 0.234998,-0.300297 0.582495,-0.595795 0.9574925,-0.908293 0.374997,-0.312497 0.7774935,-0.641995 1.104991,-1.060491 0.3273975,-0.418397 0.5748955,-0.948693 0.5748955,-1.573688 0,-0.916693 -0.5320955,-1.512588 -1.026392,-1.759786 -0.494196,-0.247098 -0.973592,-0.240198 -0.973592,-0.240198 z"/>
 <path style="fill:#8b9cbe;fill-rule:evenodd" d="m 7.9999845,12.000055 c 0,0 -0.4793965,-0.01 -0.9735925,0.240198 C 6.532096,12.487451 6,13.083346 6,14.000039 l 0.999992,0 c 0,-0.999992 0.9999925,-0.999992 0.9999925,-0.999992 0,0 0.999992,0 0.999992,0.999992 0,0.374997 -0.127499,0.657195 -0.362497,0.957493 C 8.402381,15.25783 8.054884,15.553327 7.679887,15.865824 7.30489,16.178322 6.902393,16.507819 6.5749955,16.926316 6.247498,17.344713 6,17.875009 6,18.500004 L 6,19 l 3.9999685,0 0,-0.999992 -2.908777,0 c 0.061,-0.157399 0.1521985,-0.305298 0.271398,-0.457497 0.234998,-0.300297 0.582495,-0.595795 0.9574925,-0.908293 0.374997,-0.312497 0.7774935,-0.641995 1.104991,-1.060491 0.3273975,-0.418397 0.5748955,-0.948693 0.5748955,-1.573688 0,-0.916693 -0.5320955,-1.512588 -1.026392,-1.759786 -0.494196,-0.247098 -0.973592,-0.240198 -0.973592,-0.240198 z"/>
 <path style="opacity:0.2" d="M 12.999985,13.000055 C 11.900643,13.000055 11,13.900648 11,15.000039 l 0,2.999976 C 11,19.099407 11.900643,20 12.999985,20 c 1.099341,0 1.999984,-0.900593 1.999984,-1.999985 l 0,-2.999976 c 0,-1.099391 -0.900643,-1.999984 -1.999984,-1.999984 z m 0,0.999992 c 0.562645,0 0.999992,0.437397 0.999992,0.999992 l 0,2.999976 c 0,0.562696 -0.437347,0.999993 -0.999992,0.999993 -0.562646,0 -0.999992,-0.437296 -0.999992,-0.999993 l 0,-2.999976 c 0,-0.562595 0.437346,-0.999992 0.999992,-0.999992 z"/>
 <path style="fill:#8b9cbe" d="M 12.999985,12.000055 C 11.900643,12.000055 11,12.900648 11,14.000039 l 0,2.999976 C 11,18.099407 11.900643,19 12.999985,19 c 1.099341,0 1.999984,-0.900593 1.999984,-1.999985 l 0,-2.999976 c 0,-1.099391 -0.900643,-1.999984 -1.999984,-1.999984 z m 0,0.999992 c 0.562645,0 0.999992,0.437397 0.999992,0.999992 l 0,2.999976 c 0,0.562696 -0.437347,0.999993 -0.999992,0.999993 -0.562646,0 -0.999992,-0.437296 -0.999992,-0.999993 l 0,-2.999976 c 0,-0.562595 0.437346,-0.999992 0.999992,-0.999992 z"/>
 <path style="opacity:0.2;fill-rule:evenodd" d="m 16.999992,13.000055 0,2.999976 1.999984,0 0,-2.999976 0.999992,0 0,6.999945 -0.999992,0 0,-2.999977 -2.999976,0 0,-3.999968 0.999992,0 0,0"/>
 <path style="fill:#8b9cbe;fill-rule:evenodd" d="m 16.999992,12.000055 0,2.999976 1.999984,0 0,-2.999976 0.999992,0 0,6.999945 -0.999992,0 0,-2.999977 -2.999976,0 0,-3.999968 0.999992,0 0,0"/>
 <path style="opacity:0.2" d="m 23,13 c -1.099342,0 -2,0.900609 -2,2 0,0.599066 0.273063,1.132537 0.694336,1.5 C 21.273063,16.867463 21,17.400933 21,18 c 0,1.099391 0.900658,2 2,2 1.099342,0 2,-0.900609 2,-2 0,-0.599067 -0.273063,-1.132537 -0.694336,-1.5 C 24.726937,16.132537 25,15.599066 25,15 25,13.900609 24.099342,13 23,13 Z m 0,1 c 0.562645,0 1,0.437405 1,1 0,0.562596 -0.437355,1 -1,1 -0.562645,0 -1,-0.437404 -1,-1 0,-0.562595 0.437355,-1 1,-1 z m 0,3 c 0.562645,0 1,0.437404 1,1 0,0.562596 -0.437355,1 -1,1 -0.562645,0 -1,-0.437404 -1,-1 0,-0.562596 0.437355,-1 1,-1 z"/>
 <path style="fill:#8b9cbe" d="m 23,12 c -1.099342,0 -2,0.900609 -2,2 0,0.599066 0.273063,1.132537 0.694336,1.5 C 21.273063,15.867463 21,16.400933 21,17 c 0,1.099391 0.900658,2 2,2 1.099342,0 2,-0.900609 2,-2 0,-0.599067 -0.273063,-1.132537 -0.694336,-1.5 C 24.726937,15.132537 25,14.599066 25,14 25,12.900609 24.099342,12 23,12 Z m 0,1 c 0.562645,0 1,0.437405 1,1 0,0.562596 -0.437355,1 -1,1 -0.562645,0 -1,-0.437404 -1,-1 0,-0.562595 0.437355,-1 1,-1 z m 0,3 c 0.562645,0 1,0.437404 1,1 0,0.562596 -0.437355,1 -1,1 -0.562645,0 -1,-0.437404 -1,-1 0,-0.562596 0.437355,-1 1,-1 z"/>
 <path style="fill:#8b9cbe;opacity:0.2" d="M 4.0996094 2 C 2.9361887 2 2 2.9361887 2 4.0996094 L 2 5.0996094 C 2 3.9361887 2.9361887 3 4.0996094 3 L 27.900391 3 C 29.063811 3 30 3.9361887 30 5.0996094 L 30 4.0996094 C 30 2.9361887 29.063811 2 27.900391 2 L 4.0996094 2 z"/>
</svg>
