<svg xmlns="http://www.w3.org/2000/svg" width="32" height="32" version="1">
 <rect style="opacity:0.2" width="29" height="23.925" x="-31" y="-24.93" rx="1.45" ry="1.45" transform="matrix(0,-1,-1,0,0,0)"/>
 <rect style="fill:#1e3d7d" width="29" height="23.925" x="-30" y="-24.93" rx="1.45" ry="1.45" transform="matrix(0,-1,-1,0,0,0)"/>
 <path style="fill:#8b9cbe;opacity:0.1" d="M 2.4492188 1 C 1.6459187 1 1 1.6459187 1 2.4492188 L 1 3.4492188 C 1 2.6459187 1.6459187 2 2.4492188 2 L 23.474609 2 C 24.277909 2 24.925781 2.6459187 24.925781 3.4492188 L 24.925781 2.4492188 C 24.925781 1.6459187 24.277909 1 23.474609 1 L 2.4492188 1 z"/>
 <path style="opacity:0.2" d="m 1,8 v 4 H 5 V 8 Z m 0,7 v 1 h 16 v -1 z m 0,3 v 1 h 16 v -1 z m 0,3 v 1 h 16 v -1 z"/>
 <path style="fill:#8b9cbe" d="M 24.925,4.625 V 24.2 H 14.05 Z"/>
 <path style="fill:#8b9cbe" d="M 1 7 L 1 11 L 5 11 L 5 7 L 1 7 z M 1 14 L 1 15 L 17 15 L 17 14 L 1 14 z M 1 17 L 1 18 L 17 18 L 17 17 L 1 17 z M 1 20 L 1 21 L 17 21 L 17 20 L 1 20 z"/>
 <path style="opacity:0.2" d="M 23.174805,2 11,24.13374 V 28 h 12 v 3 h 5 v -3 h 2 V 23.025 H 28 V 2 H 25.65 Z M 23,11 v 12.025 h -6 z"/>
 <path style="fill:#ff950e" d="M 23.174805,1 11,23.13374 V 27 h 12 v 3 h 5 v -3 h 2 V 22.025 H 28 V 1 H 25.65 Z M 23,10 v 12.025 h -6 z"/>
 <path style="opacity:0.2;fill:#8b9cbe" d="M 23.175781 1 L 11 23.132812 L 11 24.132812 L 23.175781 2 L 25.650391 2 L 28 2 L 28 1 L 25.650391 1 L 23.175781 1 z M 17.498047 22.025391 L 17 23.025391 L 23 23.025391 L 23 22.025391 L 17.498047 22.025391 z M 28 22.025391 L 28 23.025391 L 30 23.025391 L 30 22.025391 L 28 22.025391 z"/>
</svg>
