<svg xmlns="http://www.w3.org/2000/svg" width="32" height="32" version="1">
 <path style="opacity:0.2" d="M 17.5,6 A 7.5,7.5 0 0 0 10.914062,9.9277344 5,5 0 0 0 6.765625,14.179688 6.4285712,6.4285712 0 0 0 1,20.572266 6.4285712,6.4285712 0 0 0 7.4277344,27 H 24.572266 A 6.4285712,6.4285712 0 0 0 31,20.572266 6.4285712,6.4285712 0 0 0 24.964844,14.15625 7.5,7.5 0 0 0 25,13.5 7.5,7.5 0 0 0 17.5,6 Z"/>
 <circle style="fill:#88ba14" cx="-24.571" cy="19.571" r="6.429" transform="scale(-1,1)"/>
 <circle style="fill:#88ba14" cx="-17.5" cy="12.5" r="7.5" transform="scale(-1,1)"/>
 <circle style="fill:#88ba14" cx="-11.714" cy="13.857" r="5" transform="scale(-1,1)"/>
 <circle style="fill:#88ba14" cx="-7.429" cy="19.571" r="6.429" transform="scale(-1,1)"/>
 <rect style="fill:#88ba14" width="17.143" height="8.571" x="-24.57" y="17.43" transform="scale(-1,1)"/>
 <path style="opacity:0.2" d="m 10,14 v 1.5 2.5 1.5 4.5 h 3 9 v -1.5 -3 -1.5 -4 h -9 z m 3,1.5 h 6 V 18 h -6 z m 0,4 h 6 v 3 h -6 z"/>
 <rect style="fill:#8b9cbe" width="3" height="10" x="10" y="13"/>
 <rect style="fill:#8b9cbe" width="3" height="10" x="19" y="13"/>
 <rect style="fill:#8b9cbe" width="1.5" height="12" x="13" y="-22" transform="rotate(90)"/>
 <rect style="fill:#8b9cbe" width="1.5" height="12" x="21.5" y="-22" transform="rotate(90)"/>
 <rect style="fill:#8b9cbe" width="1.5" height="12" x="17" y="-22" transform="rotate(90)"/>
 <path style="fill:#8b9cbe;opacity:0.2" d="M 17.5 5 A 7.5 7.5 0 0 0 10.914062 8.9277344 A 5 5 0 0 0 6.765625 13.179688 A 6.4285712 6.4285712 0 0 0 1 19.572266 A 6.4285712 6.4285712 0 0 0 1.0234375 20.056641 A 6.4285712 6.4285712 0 0 1 6.765625 14.179688 A 5 5 0 0 1 10.914062 9.9277344 A 7.5 7.5 0 0 1 17.5 6 A 7.5 7.5 0 0 1 24.974609 12.980469 A 7.5 7.5 0 0 0 25 12.5 A 7.5 7.5 0 0 0 17.5 5 z M 24.982422 13.158203 A 7.5 7.5 0 0 1 25 13.5 A 7.5 7.5 0 0 1 24.964844 14.15625 A 6.4285712 6.4285712 0 0 1 30.976562 20.089844 A 6.4285712 6.4285712 0 0 0 31 19.572266 A 6.4285712 6.4285712 0 0 0 24.982422 13.158203 z"/>
</svg>
