<svg xmlns="http://www.w3.org/2000/svg" width="32" height="32" version="1">
 <rect style="opacity:0.2" width="28" height="28" x="2" y="3" rx="14" ry="14"/>
 <rect style="fill:#2869b6" width="28" height="28" x="2" y="2" rx="14" ry="14"/>
 <g style="enable-background:new" transform="matrix(0.74417616,0,0,0.74395328,-28.755194,-16.447684)">
  <g>
   <path style="opacity:0.3" transform="matrix(0.9406375,0,0,0.9409193,37.565291,21.033155)" d="m 24.103516,5 -2.316407,0.2636719 -2.859375,0.7851562 -0.541015,0.5253907 1.77539,1.2246093 v 0.6992188 l -1.16211,0.6992187 1.396485,1.8378904 0.617188,-0.349609 0.773437,-1.2246095 c 1.19387,-0.3690008 2.263684,-0.7878004 3.398438,-1.3125 l 0.814452,-2.3613281 z m -5.484375,0.1757812 -0.998047,0.1425782 -0.472656,0.46875 -0.775391,0.1132812 -0.691406,0.3242188 -0.335938,0.1621094 -0.205078,0.2753906 1.003906,0.1738281 L 16.53125,6.4863281 17.304688,6.3125 c 0.529421,-0.2574078 1.061298,-0.4316504 1.623046,-0.6132812 z m -4.560547,2.0976563 -0.154297,0.3496094 0.07617,0.875 -0.617188,0.5253906 -0.386719,0.9609375 h 0.773438 l 0.386719,-0.8730469 c 0.333277,-0.2356195 0.664462,-0.4743724 1.003906,-0.7011719 l 0.773437,0.2636719 c 0.51497,0.3497654 1.029526,0.6995952 1.544922,1.0488281 L 18.23242,9.0234375 17.380857,8.6738281 16.994139,7.8867188 l -1.46875,-0.1757813 -0.07617,-0.4375 -0.695313,0.1757813 -0.308594,0.6113281 z m 19.792968,0.6992187 -1.464843,0.3515626 -0.931641,0.6113281 v 0.5253906 l -1.464844,0.9609375 0.306641,1.400391 0.853516,-0.613282 0.539062,0.613282 0.617188,0.349609 0.386718,-1.048828 -0.230468,-0.613281 0.230468,-0.4375 0.84961,-1.0722662 h 0.386719 l -0.386719,1.1601562 v 0.78711 c 0.355079,-0.09661 0.720609,-0.12866 1.083984,-0.173828 l -1.005859,0.699218 -0.07617,0.4375 -1.158203,0.960938 -1.16211,-0.261719 v -0.699219 l -0.541015,0.34961 0.234375,0.811234 h -0.851563 l -0.46289,0.587203 -0.582032,0.654297 -1.041015,0.220703 0.617187,0.609375 0.15625,0.611328 h -0.773437 l -0.980472,0.525391 v 1.576172 h 0.439456 l 0.423828,0.480469 0.966797,-0.480469 0.384766,-0.962891 0.697265,-0.4375 0.154297,-0.349609 1.158203,-0.259766 0.619141,0.697266 0.695312,0.349609 -0.386718,0.78711 0.61914,-0.175782 0.308594,-0.783203 -0.773437,-0.875 h 0.310547 l 0.773437,0.609375 0.154297,0.875 0.693359,0.78711 0.154297,-1.138672 0.388672,-0.173828 c 0.382082,0.396527 0.682099,0.866234 1.003906,1.3125 l 1.158203,0.08789 0.697266,0.435547 -0.310547,0.4375 -0.695312,0.613281 h -1.003907 l -1.314453,-0.4375 -0.695312,0.08594 -0.5,0.570312 -1.431641,-1.443359 -1.005859,-0.261719 -1.46875,0.173828 -1.314453,0.34961 c -0.737161,0.835459 -1.364583,1.667494 -2.062292,2.535156 l -0.849609,2.013672 0.386719,0.435547 -0.695313,1.048828 0.773438,1.83789 c 0.657108,0.743102 1.212779,1.484882 1.868932,2.228516 l 0.96875,-0.830078 0.423828,0.482422 1.041015,-0.65625 0.34961,0.392578 h 1.044922 l 0.597656,0.677734 -0.369141,1.203125 0.736328,0.830078 -0.03906,1.44336 0.541016,1.050781 -0.578128,0.873047 c -0.03849,0.643412 -0.03907,1.282257 -0.03907,1.925781 0.316696,0.871804 0.480719,1.741068 0.779766,2.619141 l 0.230469,1.40039 v 0.701172 h 0.841327 l 0.851563,-0.52539 h 0.732422 c 0.273168,-0.190233 0.535917,-0.394345 0.798828,-0.597657 l 0.978516,-1.107421 -0.191407,-0.56836 1.00586,-0.876953 -0.736328,-0.828125 0.890625,-0.742188 0.750005,-0.527343 0.386719,-0.433594 -0.232422,-0.966797 v -2.445312 l 0.794916,-1.488282 0.84961,-0.960937 0.927734,-2.273438 V 25.98633 c -0.456968,0.05754 -0.902613,0.104273 -1.349609,0.136719 l 0.923828,-0.923828 1.27539,-0.875 0.697266,-0.785157 v -0.875 c -0.154679,-0.291629 -0.309107,-0.58337 -0.464844,-0.875 l -0.61914,0.699219 -0.462891,-0.523437 -0.695312,-0.525391 v -1.136719 l 0.8125,0.917969 0.888671,-0.130859 c 0.404831,0.367406 0.803125,0.718404 1.158204,1.136718 l 0.08789,-0.09961 C 43.482716,17.486207 41.47517,13.324306 38.4375,10.15625 38.269725,9.9843689 38.092667,9.7993495 37.955078,9.6640625 37.724135,9.4392605 37.481856,9.227136 37.240234,9.0136719 l -0.21875,0.359375 -0.773437,0.8750001 -1.003906,-1.2480472 h 1.003906 L 36.712891,8.6738281 34.857422,8.3242188 Z m -21.845703,0.029297 c -0.113126,0.0848 -0.228606,0.1667762 -0.339843,0.2539063 l 0.152343,0.6796875 c 0,0 -0.706767,0.077591 -1.115234,0.1308593 C 6.5989978,12.720635 4.0051013,18.030857 4,23.982422 4.1609659,24.247444 4.3203125,24.5 4.3203125,24.5 l 1.6230469,0.960938 1.625,0.439453 0.6933594,0.875 1.0820312,0.785156 0.6191406,-0.08594 0.4628904,0.208985 v 0.140625 l -0.6171872,1.660156 -0.4648438,0.701172 0.1542969,0.349609 -0.4980474,1.310547 1.5019535,2.537109 0.992453,1.222657 0.617188,0.873047 -0.07617,1.83789 0.863016,1.048828 -0.25586,1.109375 c 0.89177,0.614561 1.842605,1.146031 2.832031,1.611329 l 0.361329,-0.359376 0.230468,-0.611328 1.00586,-0.351562 0.927731,-1.923828 -0.386716,-0.523438 0.539063,-1.087568 1.160156,-0.263672 0.687497,-1.097978 -0.222653,-1.746094 1.125528,-1.3125 0.15625,-1.3125 c -1.268711,-0.62896 -2.727601,-1.276271 -3.986856,-1.923828 l -0.619141,-1.22461 -1.158203,-0.261718 -0.617188,-1.15985 -1.544922,0.173828 L 11.818361,26 10.425783,26.861326 v 0.19336 C 10.004788,26.933211 9.488126,26.917913 9.1132812,26.6875 L 8.8027344,25.8125 V 24.849609 L 7.875,24.9375 C 7.952394,24.32512 8.0314513,23.713836 8.109375,23.101562 H 7.5683594 L 7.0273438,23.800781 6.4863281,24.0625 5.7128906,23.626953 l -0.078125,-0.962891 0.1542969,-1.048828 1.1601563,-0.875 H 7.875 l 0.1542969,-0.52539 1.1601562,0.261718 0.7494214,1.050782 0.1562505,-1.75 1.568937,-1.222656 0.541016,-1.3125 1.080078,-0.03775 0.619141,-0.871094 1.390625,-0.265625 0.695312,-1.046875 h -2.085937 l 1.314453,-0.613282 h 0.925781 l 1.314453,-0.83725 0.154297,-0.523437 -0.464843,-0.4375 -0.541016,-0.175781 0.15625,-0.523438 -0.386719,-0.787109 -0.927734,0.347656 0.154297,-0.699219 -1.082032,-0.611328 -0.847656,1.486328 0.07617,0.525391 -0.851562,0.349609 -0.541016,1.136719 -0.230469,-1.048828 -1.46875,-0.613281 -0.232422,-0.78711 1.931641,-1.136718 0.851562,-0.7871098 0.07617,-0.9609374 -0.46289,-0.2636719 z M 26.691606,8.9116406 25.572266,9.26125 25.066064,9.173359 h -0.002 l -0.07813,0.5253906 0.74253,0.3496094 1.425981,-0.6132813 -0.462891,-0.5234375 z m -10.701372,0.3735157 -0.617187,0.4375 0.771484,0.5253907 h 0.619141 V 9.6347657 Z m 12.208985,2.0117187 v 0.525391 l 0.310547,0.349609 v 0.787109 l -0.15625,1.048828 0.851562,-0.173828 0.617188,-0.613281 -0.541016,-0.523437 C 29.099568,12.21359 28.891455,11.760782 28.664062,11.296875 Z m -0.306641,1.048828 -0.542969,0.175781 0.15625,0.960938 0.69336,-0.347656 z m -10.664062,1.576172 0.230468,1.220703 0.462891,-0.697266 z m 20.177734,6.818359 0.890625,1.00586 1.042969,2.228515 0.617187,0.701172 -0.310547,0.785157 0.587891,0.666015 c -0.269928,0.01823 -0.538857,0.03711 -0.816406,0.03711 -0.492109,-1.033775 -0.861574,-2.068895 -1.236328,-3.15039 l -0.857813,-0.742188 -0.347657,-1.269531 z"/>
  </g>
 </g>
 <path style="opacity:0.2" d="m 11.411082,17.000184 c -0.131386,0.0031 -0.257369,0.05187 -0.355414,0.137637 l -8.4698061,6.735174 c -0.3515653,0.30706 -0.1762434,0.876714 0.289943,0.942078 l 3.2842378,0.46369 -1.539236,2.665882 c -0.3439747,0.595844 -0.140157,1.353068 0.4556245,1.697078 l 0.3300272,0.191088 c 0.5957814,0.344011 1.352926,0.140172 1.6969005,-0.455671 l 1.5980264,-2.768775 2.3422567,1.898855 c 0.360591,0.293338 0.90679,0.04234 0.907241,-0.41692 l 0.02806,-10.54625 c 8.9e-4,-0.305691 -0.256023,-0.55173 -0.567863,-0.543866 z"/>
 <path style="fill:#8b9cbe" d="m 11.411082,16.000184 c -0.131386,0.0031 -0.257369,0.05187 -0.355414,0.137637 l -8.4698061,6.735174 c -0.3515653,0.30706 -0.1762434,0.876714 0.289943,0.942078 l 3.2842378,0.46369 -1.539236,2.665882 c -0.3439747,0.595844 -0.140157,1.353068 0.4556245,1.697078 l 0.3300272,0.191088 c 0.5957814,0.344011 1.352926,0.140172 1.6969005,-0.455671 l 1.5980264,-2.768775 2.3422567,1.898855 c 0.360591,0.293338 0.90679,0.04234 0.907241,-0.41692 l 0.02806,-10.54625 c 8.9e-4,-0.305691 -0.256023,-0.55173 -0.567863,-0.543866 z"/>
 <path style="fill:#8b9cbe;opacity:0.1" d="M 16 2 C 8.244 2 2 8.244 2 16 C 2 16.168842 2.0195214 16.33264 2.0253906 16.5 C 2.2891326 8.9794325 8.4128418 3 16 3 C 23.500fae9 3 29.710867 8.9794325 29.974609 16.5 C 29.980479 16.33264 30 16.168842 30 16 C 30 8.244 23.756 2 16 2 z"/>
</svg>
