<svg xmlns="http://www.w3.org/2000/svg" width="32" height="32" version="1.1">
 <path style="opacity:0.2" d="m 16.065156,2.0007767 a 2.8036328,2.7887773 0 0 0 -1.46738,0.372526 L 4.4016762,8.2291491 A 2.8036328,2.7887773 0 0 0 3,10.644032 v 11.711694 a 2.8036328,2.7887773 0 0 0 1.4016762,2.414883 l 10.1960998,5.855847 a 2.8036328,2.7887773 0 0 0 2.803353,0 L 27.598323,24.770609 A 2.8036328,2.7887773 0 0 0 29,22.355726 V 10.644032 A 2.8036328,2.7887773 0 0 0 27.598323,8.2291491 L 17.401129,2.3733027 a 2.8036328,2.7887773 0 0 0 -1.335973,-0.372526 z"/>
 <path style="fill:#d2323a" d="m 16.065156,1.0007757 a 2.8036328,2.7887773 0 0 0 -1.46738,0.372526 L 4.4016762,7.2291481 A 2.8036328,2.7887773 0 0 0 3,9.6440313 V 21.355725 a 2.8036328,2.7887773 0 0 0 1.4016762,2.414883 l 10.1960998,5.855847 a 2.8036328,2.7887773 0 0 0 2.803353,0 L 27.598323,23.770608 A 2.8036328,2.7887773 0 0 0 29,21.355725 V 9.6440313 A 2.8036328,2.7887773 0 0 0 27.598323,7.2291481 L 17.401129,1.3733017 a 2.8036328,2.7887773 0 0 0 -1.335973,-0.372526 z"/>
 <path style="opacity:0.3;fill:#8b9cbe" d="m 16.065481,1.0013484 a 2.8036328,2.7887773 0 0 0 -1.46731,0.3722099 L 4.4018298,7.2291198 A 2.8036328,2.7887773 0 0 0 3.213816,8.5857978 L 16,14.809524 28.787521,8.5844493 A 2.8036328,2.7887773 0 0 0 27.598171,7.2291198 L 17.400494,1.3735583 A 2.8036328,2.7887773 0 0 0 16.065481,1.0013484 Z"/>
 <path style="opacity:0.15;fill:#8b9cbe" d="m 27.598171,7.2291198 a 2.8036328,2.7887773 0 0 1 0.130961,0.080915 2.8036328,2.7887773 0 0 0 -0.130961,-0.080915 z m 0.168379,0.1078869 a 2.8036328,2.7887773 0 0 1 0.185752,0.134859 2.8036328,2.7887773 0 0 0 -0.185752,-0.134859 z m 0.260588,0.1995911 A 2.8036328,2.7887773 0 0 1 28.16211,7.6579704 2.8036328,2.7887773 0 0 0 28.027138,7.5365978 Z m 0.177734,0.1658759 a 2.8036328,2.7887773 0 0 1 0.152344,0.167225 2.8036328,2.7887773 0 0 0 -0.152344,-0.167225 z m 0.152344,0.167225 A 2.8036328,2.7887773 0 0 1 28.667249,8.3295662 2.8036328,2.7887773 0 0 0 28.357216,7.8696987 Z M 28.67794,8.3524929 A 2.8036328,2.7887773 0 0 1 28.787521,8.5844493 2.8036328,2.7887773 0 0 0 28.67794,8.3524929 Z M 28.787521,8.5844493 16,14.809524 v 15.187779 a 2.8036328,2.7887773 0 0 0 1.400494,-0.370862 L 27.598171,23.77088 A 2.8036328,2.7887773 0 0 0 29,21.355561 V 9.644438 A 2.8036328,2.7887773 0 0 0 28.787521,8.5844493 Z"/>
 <rect style="opacity:0.2" width="15" height="15" x="17" y="17" rx="1.5" ry="1.5"/>
 <rect style="fill:#89b736" width="15" height="15" x="17" y="16" rx="1.5" ry="1.5"/>
 <rect style="fill:#8b9cbe" width="3" height="11" x="23" y="18"/>
 <rect style="fill:#8b9cbe" width="3" height="11" x="22" y="-30" transform="rotate(90)"/>
 <path style="fill:#8b9cbe;opacity:0.2" d="M 16.064453 1 A 2.8036328 2.7887773 0 0 0 14.597656 1.3730469 L 4.4023438 7.2285156 A 2.8036328 2.7887773 0 0 0 3 9.6445312 L 3 10.644531 A 2.8036328 2.7887773 0 0 1 4.4023438 8.2285156 L 14.597656 2.3730469 A 2.8036328 2.7887773 0 0 1 16.064453 2 A 2.8036328 2.7887773 0 0 1 17.400391 2.3730469 L 27.597656 8.2285156 A 2.8036328 2.7887773 0 0 1 29 10.644531 L 29 9.6445312 A 2.8036328 2.7887773 0 0 0 27.597656 7.2285156 L 17.400391 1.3730469 A 2.8036328 2.7887773 0 0 0 16.064453 1 z"/>
 <path style="opacity:0.1" d="M 28.308594 8.8164062 L 16 14.810547 L 3.6914062 8.8183594 A 2.8036328 2.7887773 0 0 0 3.2128906 9.5859375 L 16 15.810547 L 28.787109 9.5839844 A 2.8036328 2.7887773 0 0 0 28.308594 8.8164062 z"/>
</svg>
