<svg width="32" height="32" version="1" xmlns="http://www.w3.org/2000/svg">
 <rect x="2" y="3" width="28" height="28" rx="1.4" ry="1.4" style="opacity:.2"/>
 <rect x="2" y="2" width="28" height="28" rx="1.4" ry="1.4" style="fill:#3a6688"/>
 <path d="m3.4003906 2c-0.7756 0-1.4003906 0.6247906-1.4003906 1.4003906v1c0-0.7756 0.6247906-1.4003906 1.4003906-1.4003906h25.199218c0.7756 0 1.400391 0.6247906 1.400391 1.4003906v-1c0-0.7756-0.624791-1.4003906-1.400391-1.4003906h-25.199218z" style="fill:#8b9cbe;opacity:.1"/>
 <path d="m21.984375 11.986328a1.0001 1.0001 0 0 0-0.984375 1.013672v8a1.0001 1.0001 0 0 0 1 1h4a1.0001 1.0001 0 1 0 0-2h-3v-7a1.0001 1.0001 0 0 0-1.015625-1.013672zm-7.835937 0.0098c-0.134429-4.43e-4 -0.210938 0.0059-0.210938 0.0059a1.0001 1.0001 0 0 0-0.9375 0.997972v8a1.0001 1.0001 0 0 0 0.9375 0.998047s1.223414 0.09394 2.486328-0.498047c1.262914-0.591991 2.576172-2.061275 2.576172-4.5s-1.313258-3.908009-2.576172-4.5c-0.947185-0.443993-1.872106-0.502578-2.27539-0.503906zm-6.148438 0.003872c-1.3333333 0-2.2752743 0.81422-2.6445312 1.552734-0.369257 0.738514-0.3554688 1.447266-0.3554688 1.447266v2.832031a1.0001 1.0001 0 0 0 0 0.326172v2.841797a1.0001 1.0001 0 1 0 2 0v-2h2v2a1.0001 1.0001 0 1 0 2 0v-2.832031a1.0001 1.0001 0 0 0 0-0.326172v-2.841797s0.01379-0.708752-0.355469-1.447266c-0.369257-0.738514-1.3111977-1.552734-2.644531-1.552734zm0 2c0.6666667 0 0.7247256 0.18578 0.8554688 0.447266 0.1307429 0.261486 0.1445312 0.552734 0.1445312 0.552734v2h-2v-2s0.013788-0.291248 0.1445312-0.552734 0.1888021-0.447266 0.8554688-0.447266zm7 0.193359c0.246887 0.04474 0.295657-0.01235 0.576172 0.119141 0.737086 0.345509 1.423828 0.876225 1.423828 2.6875s-0.686742 2.341991-1.423828 2.6875c-0.280515 0.131491-0.329285 0.0744-0.576172 0.119141z" style="opacity:.2"/>
 <path d="m21.984375 10.986328a1.0001 1.0001 0 0 0-0.984375 1.013672v8a1.0001 1.0001 0 0 0 1 1h4a1.0001 1.0001 0 1 0 0-2h-3v-7a1.0001 1.0001 0 0 0-1.015625-1.013672zm-7.835937 0.009766c-0.134429-4.43e-4 -0.210938 0.005859-0.210938 0.005859a1.0001 1.0001 0 0 0-0.9375 0.998047v8a1.0001 1.0001 0 0 0 0.9375 0.998047s1.223414 0.09394 2.486328-0.498047c1.262914-0.591991 2.576172-2.061275 2.576172-4.5s-1.313258-3.908009-2.576172-4.5c-0.947185-0.443993-1.872106-0.502578-2.27539-0.503906zm-6.148438 0.003906c-1.3333333 0-2.2752743 0.81422-2.6445312 1.552734-0.369257 0.738514-0.3554688 1.447266-0.3554688 1.447266v2.832031a1.0001 1.0001 0 0 0 0 0.326172v2.841797a1.0001 1.0001 0 1 0 2 0v-2h2v2a1.0001 1.0001 0 1 0 2 0v-2.832031a1.0001 1.0001 0 0 0 0-0.326172v-2.841797s0.01379-0.708752-0.355469-1.447266c-0.369257-0.738514-1.3111977-1.552734-2.644531-1.552734zm0 2c0.6666667 0 0.7247256 0.18578 0.8554688 0.447266 0.1307429 0.261486 0.1445312 0.552734 0.1445312 0.552734v2h-2v-2s0.0137882-0.291248 0.1445312-0.552734c0.1307432-0.261486 0.1888021-0.447266 0.8554688-0.447266zm7 0.193359c0.246887 0.04474 0.295657-0.01235 0.576172 0.119141 0.737086 0.345509 1.423828 0.876225 1.423828 2.6875s-0.686742 2.341991-1.423828 2.6875c-0.280515 0.131491-0.329285 0.0744-0.576172 0.119141v-5.613282z" style="fill:#a1eae9"/>
</svg>
