<svg xmlns="http://www.w3.org/2000/svg" width="32" height="32" version="1.1">
 <circle style="opacity:0.2" cx="16" cy="17" r="14"/>
 <circle style="fill:#455a64" cx="16" cy="16" r="14"/>
 <path style="opacity:0.2" d="m 17.544092,11.017463 c -0.633025,-0.08398 -1.309545,0.137136 -1.76966,0.613333 0.122266,0.257494 0.870453,0.129672 1.140233,0.488719 0.401761,0.346068 1.092719,1.104605 0.578154,1.62828 -2.00087,1.956088 -4.416783,4.356831 -6.404895,6.328906 -0.362615,0.457911 -0.991395,0.761905 -1.087924,1.398874 0.118562,0.634685 0.673304,1.088519 1.113851,1.470631 0.196819,0.105891 0.465759,0.04928 0.620438,-0.115902 2.636638,-2.818027 4.503685,-5.185244 6.916073,-7.889094 0.295579,-0.254873 0.802468,-0.228752 0.794269,0.30525 -0.333566,0.580256 0.510622,0.920858 0.777948,1.347449 0.307018,0.227606 0.518891,-0.215511 0.744301,-0.377524 C 21.298679,15.775916 21.984496,15.500746 22,14.876851 21.619937,14.49742 21.304865,13.566598 20.729933,13.807174 20.159289,13.543855 20.397774,12.58244 19.790974,12.253648 19.312092,11.857585 18.690445,11.766594 18.251696,11.259187 18.03288,11.129895 17.791798,11.050327 17.544092,11.017463 Z"/>
 <path style="fill:#00ad9a" d="m 17.544092,10.01747 c -0.633025,-0.08398 -1.309545,0.137136 -1.76966,0.613333 0.122266,0.257494 0.870453,0.129672 1.140233,0.488719 0.401761,0.346068 1.092719,1.104605 0.578154,1.62828 -2.00087,1.956088 -4.416783,4.356831 -6.404895,6.328906 -0.362615,0.457911 -0.991395,0.761905 -1.087924,1.398874 0.118562,0.634685 0.673304,1.088519 1.113851,1.470631 0.196819,0.105891 0.465759,0.04928 0.620438,-0.115902 2.636638,-2.818027 4.503685,-5.185244 6.916073,-7.889094 0.295579,-0.254873 0.802468,-0.228752 0.794269,0.30525 -0.333566,0.580256 0.510622,0.920858 0.777948,1.347449 0.307018,0.227606 0.518891,-0.215511 0.744301,-0.377524 C 21.298679,14.775923 21.984496,14.500753 22,13.876858 21.619937,13.497427 21.304865,12.566605 20.729933,12.807181 20.159289,12.543862 20.397774,11.582447 19.790974,11.253655 19.312092,10.857592 18.690445,10.766601 18.251696,10.259194 18.03288,10.129902 17.791798,10.050334 17.544092,10.01747 Z"/>
 <path style="opacity:0.2" d="m 12.212478,11.00062 c -0.200387,0.0034 -0.400006,0.01939 -0.591977,0.03827 -0.911329,0.05683 -0.343962,0.735816 0.212156,0.871231 0.910862,0.259844 0.905764,1.294152 0.364641,1.943441 -0.495187,0.840832 -1.239177,0.04199 -1.816827,-0.233078 -0.861182,-0.14276 -0.0294,1.053776 0.244313,1.347069 0.410244,0.634357 1.108464,0.938622 1.826431,0.829189 0.901357,-0.12903 1.535261,0.638954 2.130228,1.217892 1.676099,1.562474 3.382255,3.272128 5.068371,4.986316 0.247873,0.212174 0.51856,0.454136 0.709388,0.725605 0.926296,0.870094 2.307615,-0.517423 1.272878,-1.628935 C 19.488978,19.124 17.28677,16.851629 15.306555,14.920086 14.98246,14.602669 14.679842,14.267039 14.47295,13.853822 14.123169,13.129347 14.49617,12.161495 13.847761,11.58146 13.421383,11.095284 12.813644,10.990673 12.212478,11.000617 Z"/>
 <path style="fill:#1092ff" d="m 12.212478,10.000627 c -0.200387,0.0034 -0.400006,0.01939 -0.591977,0.03827 -0.911329,0.05683 -0.343962,0.735816 0.212156,0.871231 0.910862,0.259844 0.905764,1.294152 0.364641,1.943441 -0.495187,0.840832 -1.239177,0.04199 -1.816827,-0.233078 -0.861182,-0.14276 -0.0294,1.053776 0.244313,1.347069 0.410244,0.634357 1.108464,0.938622 1.826431,0.829189 0.901357,-0.12903 1.535261,0.638954 2.130228,1.217892 1.676099,1.562474 3.382255,3.272128 5.068371,4.986316 0.247873,0.212174 0.51856,0.454136 0.709388,0.725605 0.926296,0.870094 2.307615,-0.517423 1.272878,-1.628935 -2.143102,-1.97362 -4.34531,-4.245991 -6.325525,-6.177534 -0.324095,-0.317417 -0.626713,-0.653047 -0.833605,-1.066264 -0.349781,-0.724475 0.02322,-1.692327 -0.625189,-2.272362 -0.426378,-0.486176 -1.034117,-0.5907869 -1.635283,-0.580843 z"/>
 <path style="opacity:0.1;fill:#8b9cbe" d="M 16 2 A 14 14 0 0 0 2 16 A 14 14 0 0 0 2.0214844 16.585938 A 14 14 0 0 1 16 3 A 14 14 0 0 1 29.978516 16.414062 A 14 14 0 0 0 30 16 A 14 14 0 0 0 16 2 z"/>
</svg>
