<svg width="32" height="32" version="1.1" xmlns="http://www.w3.org/2000/svg">
 <rect x="1.9999" y="1.9425" width="28" height="28" rx="1.4" ry="1.4" style="fill:#a34100"/>
 <path d="m3.4003 1.9425c-0.7756 0-1.4004 0.6248-1.4004 1.4004v1c0-0.7756 0.6248-1.4004 1.4004-1.4004h25.2c0.775 0 1.4 0.6248 1.4 1.4004v-1c0-0.7756-0.625-1.4004-1.4-1.4004z" style="fill:#8b9cbe;opacity:.1"/>
 <path d="m1.9999 28.5425v1c0 0.775 0.6248 1.4 1.4004 1.4h25.2c0.775 0 1.4-0.625 1.4-1.4v-1c0 0.775-0.625 1.4-1.4 1.4h-25.2c-0.7752 0-1.4-0.625-1.4-1.4z" style="opacity:.2"/>
 <path d="m7 10v14h3v-4h5v-2h-5v-6h6l-1-2h-5z" style="opacity:.2"/>
 <path d="m7 9v14h3v-4h5v-2h-5v-6h6l-1-2h-5z" style="fill:#ff7d25"/>
 <path d="m21 10v4c4 0 4 5 4 5s0 5-3 5c-4 0-4-1-4-1v-13zm0 6v6s2 0 2-3-2-3-2-3z" style="opacity:.2"/>
 <path d="m21 9v4c4 0 4 5 4 5s0 5-3 5c-4 0-4-1-4-1v-13zm0 6v6s2 0 2-3-2-3-2-3z" style="fill:#ff7d25"/>
</svg>
