<svg width="32" height="32" version="1.1" xmlns="http://www.w3.org/2000/svg">
 <rect x="2.0002301" y="1.999608" width="28" height="28" rx="1.4" ry="1.4" style="fill:#502e8e"/>
 <path d="m3.4006299 1.999608c-0.7756 0-1.4004 0.6248-1.4004 1.4004v1c0-0.7756 0.6248-1.4004 1.4004-1.4004h25.2c0.775 0 1.4 0.6248 1.4 1.4004v-1c0-0.7756-0.625-1.4004-1.4-1.4004z" style="fill:#8b9cbe;opacity:.1"/>
 <path d="m2.0002299 28.599608v1c0 0.775 0.6248 1.4 1.4004 1.4h25.2c0.775 0 1.4-0.625 1.4-1.4v-1c0 0.775-0.625 1.4-1.4 1.4h-25.2c-0.7752 0-1.4-0.625-1.4-1.4z" style="opacity:.2"/>
 <path d="m9.9999999 10-3 14h3l0.5996091-4h1.800782l0.599609 4h3l-3-14zm1.5000001 4 0.599609 4h-1.199218z" style="opacity:.2"/>
 <path d="m9.9999999 9-3 14h3l0.5996091-4h1.800782l0.599609 4h3l-3-14zm1.5000001 4 0.599609 4h-1.199218z" style="fill:#cdb5d7"/>
 <path d="m21.5 14c-1.932997 0-3.5 2.238576-3.5 5s1.567003 5 3.5 5c0.425392-0.0017 2.102857-0.198158 2.5-0.415925v-3.003907c-0.27742 0.832295-1.999861 1.417197-2.5 1.419832-0.634902-0.0018-1.200475-0.802816-1.412109-2h4.83789c0.0482-0.328923 0.07307-0.663951 0.07422-1 0-2.761424-1.567003-5-3.500001-5zm0 2c0.634902 0.0018 1.200475 0.802816 1.412109 2h-2.824218c0.211634-1.197184 0.777207-1.998218 1.412109-2z" style="opacity:.2"/>
 <path d="m21.5 13c-1.932997 0-3.5 2.238576-3.5 5s1.567003 5 3.5 5c0.425392-0.0017 2.102857-0.198158 2.5-0.415925v-3.003907c-0.27742 0.832295-1.999861 1.417197-2.5 1.419832-0.634902-0.0018-1.200475-0.802816-1.412109-2h4.83789c0.0482-0.328923 0.07307-0.663951 0.07422-1 0-2.761424-1.567003-5-3.5-5zm0 2c0.634902 0.0018 1.200475 0.802816 1.412109 2h-2.824218c0.211634-1.197184 0.777207-1.998218 1.412109-2z" style="fill:#cdb5d7"/>
</svg>
