<svg width="32" height="32" version="1.1" xmlns="http://www.w3.org/2000/svg">
 <rect x="2.0002301" y="1.999608" width="28" height="28" rx="1.4" ry="1.4" style="fill:#417983"/>
 <path d="m3.40063 1.999608c-0.7756 0-1.4004 0.6248-1.4004 1.4004v1c0-0.7756 0.6248-1.4004 1.4004-1.4004h25.2c0.775 0 1.4 0.6248 1.4 1.4004v-1c0-0.7756-0.625-1.4004-1.4-1.4004z" style="fill:#8b9cbe;opacity:.1"/>
 <path d="m2.00023 28.599608v1c0 0.775 0.6248 1.4 1.4004 1.4h25.2c0.775 0 1.4-0.625 1.4-1.4v-1c0 0.775-0.625 1.4-1.4 1.4h-25.2c-0.7752 0-1.4-0.625-1.4-1.4z" style="opacity:.2"/>
 <path d="m7 20v2s1 2 4 2c4 0 5-2 5-4 0-3-6-3-6-5 0-1.414214 1-3 3-3 1 0 3 2 3 2v-3s-2-1-3-1c-4 0-6 1.056608-6 5 0 4 6 3 6 5 0 0.942809-1 2-2 2-2 0-4-2-4-2z" style="opacity:.2"/>
 <path d="m7 19v2s1 2 4 2c4 0 5-2 5-4 0-3-6-3-6-5 0-1.414214 1-3 3-3 1 0 3 2 3 2v-3s-2-1-3-1c-4 0-6 1.056608-6 5 0 4 6 3 6 5 0 0.942809-1 2-2 2-2 0-4-2-4-2z" style="fill:#0bc3d4"/>
 <path d="m21.5 13a3.5 4.5 0 0 0-3.5 4.5 3.5 4.5 0 0 0 3.5 4.5 3.5 4.5 0 0 0 1.5-0.439453v2.439453s-0.528595 1-1 1c-3 0-4-1-4-1v2s1 1 4 1 3-3 3-3v-11h-2v0.439453a3.5 4.5 0 0 0-1.5-0.439453zm0 2a1.5 2.5 0 0 1 1.5 2.5 1.5 2.5 0 0 1-1.5 2.5 1.5 2.5 0 0 1-1.5-2.5 1.5 2.5 0 0 1 1.5-2.5z" style="opacity:.2"/>
 <path d="m21.5 12a3.5 4.5 0 0 0-3.5 4.5 3.5 4.5 0 0 0 3.5 4.5 3.5 4.5 0 0 0 1.5-0.439453v2.439453s-0.528595 1-1 1c-3 0-4-1-4-1v2s1 1 4 1 3-3 3-3v-6.5-4.5h-2v0.439453a3.5 4.5 0 0 0-1.5-0.439453zm0 2a1.5 2.5 0 0 1 1.5 2.5 1.5 2.5 0 0 1-1.5 2.5 1.5 2.5 0 0 1-1.5-2.5 1.5 2.5 0 0 1 1.5-2.5z" style="fill:#0bc3d4"/>
</svg>
