<svg width="32" height="32" version="1.1" xmlns="http://www.w3.org/2000/svg">
 <path d="m10 3c-0.7486681-2.763e-4 -1.3829318 0.5514749-1.4863281 1.2929688-1.1666666 8.3333332-2.3333333 16.666667-3.5 25-0.1256301 0.902273 0.5753505 1.707342 1.4863281 1.707031h19c0.910978 3.11e-4 1.611958-0.804758 1.486328-1.707031-1.165691-8.33347-2.333053-16.666706-3.5-25-0.103396-0.741494-0.73766-1.293245-1.486328-1.2929688z" style="opacity:.2"/>
 <path d="M 10 2 C 9.2513319 1.9997237 8.6170682 2.5514749 8.5136719 3.2929688 L 6.9824219 14.230469 L 13 26 L 25.880859 20.392578 L 23.486328 3.2929688 C 23.382932 2.5514748 22.748668 1.9997238 22 2 L 10 2 z " style="fill:#d8e0e5"/>
 <path d="m6.9824219 14.230469-1.96875 14.0625c-0.1256301 0.902273 0.5753505 1.707342 1.4863281 1.707031h19c0.910978 3.11e-4 1.611958-0.804758 1.486328-1.707031l-1.105469-7.900391c-2.444879 0.431843-6.439147 1.014374-8.880859 0.607422-4.421451-0.736908-8.2828611-4.718377-10.017578-6.769531z" style="fill:#a6b9c4"/>
 <path d="m18.020888 29.597c0.749013-0.330057 1.399545-0.292707 2.072224-0.02517l-1.26191-5.310491 0.151009-0.453028-0.5537-2.592325s0.22143-0.02313 0.402691-0.226514c-0.192327-1.043384-0.831202-2.989381-0.831202-2.989381s0.972851 0.05048 1.155-8e-3c0.442872-0.142195 0.92689-0.775598 0.781294-1.48256-0.321718-1.562154-0.752877-2.722805-1.136294-3.00944-0.681925-0.509794-1.807-0.967135-1.807-0.967135s0.111843-0.794405 0.04232-1.208074c-0.09375-0.557824-0.418939-1.3258001-0.981559-1.3842515-0.6141-0.063798-1.082699 0.7045595-1.058761 1.2584105 0.03277 0.758289 0.615 2.088961 0.615 2.088961l-0.832034 0.229886-0.04918 0.550329-0.653936 0.226513-0.45385 4.379268-0.741729 2.768503-0.830552 0.453028-0.02516 1.459756 0.327187-0.02517 0.0755-0.402692h0.27685l0.201345-0.654374s0.186118 0.104821 0.491697-0.08288c0.130942-0.08043 0.09204-0.528532 0.09204-0.528532l0.411822-0.01779-0.199661 3.699726-0.404456 0.629205 0.201345 0.855719-0.27685 0.327187-0.195539 2.013457c0.675498-0.269053 1.114043-0.269053 2.075498 0.27685l-0.19369-0.98156-0.27685-0.377523 0.352354-0.906056 0.15101-2.139298 1.080339-3.141466 0.98177 2.034066 0.780215 3.271866-0.02516 0.855719 0.478196 0.85572z" style="opacity:.1"/>
 <path d="m18.020888 28.596909c0.749013-0.330057 1.399545-0.292707 2.072224-0.02517l-1.26191-5.310491 0.151009-0.453028-0.5537-2.592325s0.22143-0.02313 0.402691-0.226514c-0.192327-1.043384-0.831202-2.989381-0.831202-2.989381s0.972851 0.05048 1.155-8e-3c0.442872-0.142195 0.92689-0.775598 0.781294-1.48256-0.321718-1.562154-0.752877-2.722805-1.136294-3.00944-0.681925-0.509794-1.807-0.967135-1.807-0.967135s0.111843-0.794405 0.04232-1.208074c-0.093748-0.5578248-0.418939-1.3258004-0.981559-1.3842518-0.6141-0.063798-1.082699 0.7045598-1.058761 1.2584108 0.03277 0.758289 0.615 2.088961 0.615 2.088961l-0.832034 0.229886-0.04918 0.550329-0.653936 0.226513-0.45385 4.379268-0.741729 2.768503-0.830552 0.453028-0.02516 1.459756 0.327187-0.02517 0.0755-0.402692h0.27685l0.201345-0.654374s0.186118 0.104821 0.491697-0.08288c0.130942-0.08043 0.09204-0.528532 0.09204-0.528532l0.411822-0.017787-0.199661 3.699726-0.404456 0.629205 0.201345 0.855719-0.27685 0.327187-0.195539 2.013457c0.675498-0.269053 1.114043-0.269053 2.075498 0.27685l-0.19369-0.98156-0.27685-0.377523 0.352354-0.906056 0.15101-2.139298 1.080339-3.141466 0.98177 2.034066 0.780215 3.271866-0.02516 0.855719 0.478196 0.85572z" style="fill:#173545"/>
 <circle cx="18" cy="15" r="1" style="fill:#8b9cbe"/>
 <path d="m10 2c-0.7486681-2.763e-4 -1.3829318 0.5514749-1.4863281 1.2929688l-3.5 25c-0.0312194 0.224217-0.0106292 0.441234 0.0507812 0.642578l3.4492188-24.642578c0.1033963-0.7414939 0.73766-1.2932451 1.4863281-1.2929688h12c0.748668-2.762e-4 1.382932 0.5514747 1.486328 1.2929688 1.150259 8.2141202 2.300152 16.428291 3.449219 24.642578 0.06141-0.201344 0.082001-0.418361 0.050781-0.642578-1.165691-8.33347-2.333053-16.666706-3.5-25-0.103396-0.7414941-0.73766-1.293245-1.486328-1.2929688h-12z" style="fill:#8b9cbe;opacity:.2"/>
</svg>
