<svg xmlns="http://www.w3.org/2000/svg" width="32" height="32" version="1.1">
 <circle style="opacity:0.2" cx="15.5" cy="16.5" r="14.5"/>
 <circle style="fill:#b2bfd9" cx="15.5" cy="15.5" r="14.5"/>
 <path style="opacity:0.1;fill-rule:evenodd" d="m 23.624501,15 c 0.30236,0 0.482338,0.336025 0.30596,0.576044 L 15.680313,26.846611 C 15.464341,27.134632 15,26.990622 15,26.634022 V 15.363456 C 15,15.164584 15.169179,15 15.374353,15 Z"/>
 <path style="fill:#ec0361;fill-rule:evenodd" d="m 23.624501,14 c 0.30236,0 0.482338,0.336025 0.30596,0.576044 L 15.680313,25.846611 C 15.464341,26.134632 15,25.990622 15,25.634022 V 14.363456 C 15,14.164584 15.169179,14 15.374353,14 Z"/>
 <path style="opacity:0.1;fill-rule:evenodd" d="M 17.621094,5.9999994 A 0.36000488,0.34285714 0 0 0 17.322266,6.1542963 L 9.0722656,17.423828 C 8.8922633,17.663827 9.0706423,18 9.3730469,18 H 17.625 C 17.830202,18 18,17.835576 18,17.636719 V 6.3671869 C 18,6.1409015 17.811897,5.9999994 17.621094,5.9999994 Z M 17,8.2871088 V 17 h -6.378906 z"/>
 <path style="fill:#5802cd;fill-rule:evenodd" d="M 17.621094,4.9999997 A 0.36000488,0.34285714 0 0 0 17.322266,5.1542966 L 9.0722656,16.423828 C 8.8922633,16.663827 9.0706423,17 9.3730469,17 H 17.625 C 17.830202,17 18,16.835576 18,16.636719 V 5.3671872 C 18,5.1409018 17.811897,4.9999997 17.621094,4.9999997 Z M 17,7.2871091 V 16 h -6.378906 z"/>
 <path style="fill:#51004d;fill-rule:evenodd" d="m 17,14 v 2 h -2 v 1 h 2.625 C 17.830202,17 18,16.835576 18,16.636719 V 14 Z"/>
 <path style="fill:#8b9cbe;opacity:0.2" d="M 15.5 1 A 14.5 14.5 0 0 0 1 15.5 A 14.5 14.5 0 0 0 1.0214844 16.080078 A 14.5 14.5 0 0 1 15.5 2 A 14.5 14.5 0 0 1 29.978516 15.919922 A 14.5 14.5 0 0 0 30 15.5 A 14.5 14.5 0 0 0 15.5 1 z"/>
</svg>
