<svg width="32" height="32" version="1.1" xmlns="http://www.w3.org/2000/svg">
 <path d="m21.513059 26.633507c-6.420363 3.739642-14.088088 2.90444-18.914222-1.499316-0.1434181-0.130842-0.2413869-0.302033-0.2819664-0.492709-1.3657268-6.411435 1.7431267-13.531517 8.1700669-17.274989 6.420362-3.7396424 14.088087-2.9044396 18.914221 1.4993174 0.143422 0.1308395 0.241388 0.3020315 0.281967 0.4927073 1.365726 6.4114334-1.743074 13.531485-8.170067 17.274989z" style="opacity:.2"/>
 <path d="m21.513059 25.633507c-6.420363 3.739642-14.088088 2.90444-18.914222-1.499316-0.1434181-0.130842-0.2413869-0.302033-0.2819664-0.492709-0.3465909-1.627079-0.405005-3.299796-0.1941442-4.951384 0.6200273-4.856422 4.9968517-7.387292 9.7927781-10.180754 6.420363-3.7396411 10.278575-4.4222923 15.104709-0.0185353 0.143422 0.1308395 1.729478 0.3913169 1.770057 0.5819927 0.07829 0.3675106 1.034723 0.023066 1.083822 0.3944636 0.807457 6.1078503-2.302443 12.63732-8.361034 16.166242z" style="fill:#b0a4a4"/>
 <path d="m19.287109 5.0001945c-2.944004-0.030947-5.991873 0.7310939-8.800781 2.3671875-4.9312086 2.87226-7.8983199 7.731755-8.4003905 12.734374 0.052598 0.516132 0.121994 1.029826 0.2304687 1.539063 0.04058 0.190676 0.1397851 0.363299 0.2832032 0.494141 4.8261336 4.403756 12.4937 5.237688 18.914063 1.498046 4.931249-2.872284 7.898332-7.731762 8.40039-12.734374-0.052598-0.516131-0.121994-1.0298255-0.230468-1.5390625-0.040579-0.1906758-0.139781-0.3633011-0.283203-0.4941406-2.714701-2.4771133-6.328133-3.825445-10.113282-3.8652344z" style="opacity:.2"/>
 <path d="m19.287109 4c-2.944004-0.0309473-5.991873 0.7310939-8.800781 2.3671875-4.9312086 2.8722599-7.8983199 7.7317555-8.4003905 12.734374 0.052598 0.516132 0.121994 1.029826 0.2304687 1.539063 0.0405795 0.190676 0.1397851 0.363299 0.2832032 0.494141 4.8261336 4.403756 12.4937 5.237688 18.914063 1.498046 4.931249-2.872284 7.898332-7.731762 8.40039-12.734374-0.052598-0.5161308-0.121994-1.0298255-0.230468-1.5390625-0.040579-0.1906758-0.139781-0.3633011-0.283203-0.4941406-2.714701-2.4771133-6.328133-3.825445-10.113282-3.8652344z" style="fill:#c2352a"/>
 <circle transform="rotate(-30)" cx="5.356" cy="22.722" r="8" style="opacity:.1"/>
 <circle transform="rotate(-30)" cx="5.856" cy="21.856" r="8" style="fill:#b47764"/>
 <circle transform="rotate(-30)" cx="5.856" cy="21.856" r="4" style="fill:#17191e;opacity:.95700001"/>
 <path d="m19.287109 4c-2.944004-0.0309473-5.991873 0.7310939-8.800781 2.3671875-5.6300187 3.2792928-8.7125399 9.1498725-8.4726561 14.865234 0.135817-5.3911 3.1701749-10.776721 8.4726561-13.865234 6.420362-3.7396424 14.087929-2.9057101 18.914063 1.4980469 0.143422 0.1308395 0.242624 0.3034648 0.283203 0.4941406 0.169346 0.794999 0.268778 1.599202 0.302734 2.408203 0.0288-1.14325-0.063787-2.2864572-0.302734-3.408203-0.040579-0.1906758-0.139781-0.3633011-0.283203-0.4941406-2.714701-2.4771133-6.328133-3.825445-10.113282-3.8652344z" style="fill:#8b9cbe;opacity:.1"/>
</svg>
