<svg xmlns="http://www.w3.org/2000/svg" width="32" height="32" x="0" y="0" version="1.1" xml:space="preserve">
 <path style="opacity:0.2" d="M 21.513059,26.633507 C 15.092696,30.373149 7.4249711,29.537947 2.5988375,25.134191 2.4554194,25.003349 2.3574506,24.832158 2.3168711,24.641482 0.95114431,18.230047 4.0599978,11.109965 10.486938,7.3664929 16.9073,3.6268505 24.575025,4.4620533 29.401159,8.8658103 c 0.143422,0.1308395 0.241388,0.3020315 0.281967,0.4927073 1.365726,6.4114334 -1.743074,13.5314854 -8.170067,17.2749894 z"/>
 <path style="fill:#4b4e30" d="M 21.513059,25.633507 C 15.092696,29.373149 7.4249711,28.537947 2.5988375,24.134191 2.4554194,24.003349 2.3574506,23.832158 2.3168711,23.641482 0.95114431,17.230047 4.0599978,10.109965 10.486938,6.3664928 16.9073,2.6268504 24.575025,3.4620532 29.401159,7.8658102 c 0.143422,0.1308395 0.241388,0.3020315 0.281967,0.4927073 1.365726,6.4114335 -1.743074,13.5314855 -8.170067,17.2749895 z"/>
 <circle style="opacity:0.2" cx="5.356" cy="22.722" r="8" transform="rotate(-30)"/>
 <circle style="fill:#97c800" cx="5.856" cy="21.856" r="8" transform="rotate(-30)"/>
 <circle style="opacity:0.95700001;fill:#17191e" cx="5.856" cy="21.856" r="4" transform="rotate(-30)"/>
 <path style="fill:#8b9cbe;opacity:0.1" d="M 19.287109 4 C 16.343105 3.9690527 13.295236 4.7310939 10.486328 6.3671875 C 4.8563093 9.6464803 1.7737881 15.51706 2.0136719 21.232422 C 2.1494889 15.841322 5.1838468 10.455701 10.486328 7.3671875 C 16.90669 3.6275451 24.574257 4.4614774 29.400391 8.8652344 C 29.543813 8.9960739 29.643015 9.1686992 29.683594 9.359375 C 29.85294 10.154374 29.952372 10.958577 29.986328 11.767578 C 30.015128 10.624328 29.922541 9.4811208 29.683594 8.359375 C 29.643015 8.1686992 29.543813 7.9960739 29.400391 7.8652344 C 26.68569 5.3881211 23.072258 4.0397894 19.287109 4 z"/>
 <path style="opacity:0.2;fill:#8b9cbe" d="M 15.810547 8.0019531 A 8 8 0 0 0 12 9.0722656 A 8 8 0 0 0 8.0214844 16.457031 A 8 8 0 0 1 12 10.072266 A 8 8 0 0 1 22.927734 13 A 8 8 0 0 1 23.978516 16.542969 A 8 8 0 0 0 22.927734 12 A 8 8 0 0 0 15.810547 8.0019531 z"/>
</svg>
