<svg xmlns="http://www.w3.org/2000/svg" width="32" height="32" version="1">
 <circle style="fill:#ff4e4e" cx="22" cy="29" r="2"/>
 <path style="opacity:0.2" d="m 21.808165,2.0000072 c -0.295601,-0.00387 -0.778222,0.6383326 -1.162098,1.2128781 -0.875088,1.3097383 -1.790628,2.7423024 -2.685519,4.5468281 -0.868895,1.752102 -0.963787,1.7664013 -0.869132,5.2655706 -0.110089,-0.0057 -0.232602,-0.02491 -0.335935,-0.02539 -0.587873,0.05472 -1.119001,0.184035 -1.603498,0.367185 C 13.544004,11.036009 10.958708,8.9924611 7.8063541,7.1972193 7.5299399,7.0398061 7.3286645,6.9754144 7.189173,6.9843309 c -0.9764433,0.062414 1.0817809,3.7451981 1.6874828,4.6815931 0.5493981,0.849297 1.9127552,2.297305 3.0038752,3.468714 0.199073,0.21371 0.373414,0.395589 0.544917,0.574211 -0.06458,0.108913 -0.132447,0.214469 -0.191404,0.328122 -0.134032,0.414946 -0.207029,0.8752 -0.207029,1.378893 0,1.742238 0.54463,3.089227 0.388668,4.859325 -0.211354,2.398997 -2.012258,3.847184 -1.212879,6.015563 0.01658,0.05303 0.02156,0.100272 0.04102,0.154295 0.165041,0.458401 0.493581,0.933153 0.955068,1.462877 0.07472,0.08577 0.163029,0.160871 0.253902,0.234372 0.0046,0.0037 0.01109,0.0061 0.01562,0.0098 0.158457,0.12656 0.339419,0.234846 0.539056,0.328122 0.07656,0.03716 0.158437,0.06902 0.240233,0.10156 0.09726,0.03722 0.19898,0.07026 0.30273,0.101562 0.100507,0.03141 0.188696,0.07376 0.294919,0.09961 0.377054,0.09176 0.787022,0.151506 1.208973,0.187499 0.143655,0.01224 0.28747,0.02212 0.433589,0.02929 l 0.124999,-0.01562 c 0.02535,9.97e-4 0.05079,-8.64e-4 0.07617,0 1.456997,0.0496 2.971133,-0.110067 3.863242,-0.158202 6.42e-4,-3.4e-5 0.0013,3.6e-5 0.0019,0 0.216595,-0.01167 0.433622,-0.03367 0.650383,-0.06836 0.334876,-0.05361 0.666615,-0.135804 0.992177,-0.240232 5.76e-4,-1.85e-4 0.0013,1.86e-4 0.0019,0 0.326141,-0.104711 0.646051,-0.232168 0.951163,-0.382809 0.263602,-0.130159 0.516079,-0.276562 0.755851,-0.437495 0,0 0.0019,0 0.0019,0 0.16993,-0.114097 0.333555,-0.237086 0.488276,-0.365231 0.465678,-0.385356 0.857404,-0.830821 1.136708,-1.322251 0.07843,-0.138003 0.147142,-0.280996 0.207028,-0.425778 0.06159,-0.148595 0.111838,-0.300104 0.152342,-0.455073 0.03848,-0.147886 0.06816,-0.298153 0.08594,-0.451167 2.26e-4,-0.0019 -2.23e-4,-0.0039 0,-0.0058 0.01762,-0.15395 0.02432,-0.3103 0.01953,-0.468747 -5.8e-5,-0.0019 6.1e-5,-0.0039 0,-0.0058 -1.9e-4,-0.0059 2.22e-4,-0.01164 0,-0.01758 -0.0081,-0.675832 -0.216288,-1.39045 -0.687493,-2.117167 -1.535172,-2.367489 -3.200566,-5.272621 -3.287076,-8.437412 -0.04649,-0.461074 -0.210568,-0.863951 -0.462886,-1.207019 -0.197848,-0.242582 -0.443469,-0.442532 -0.714836,-0.615229 0.07006,-0.14934 0.141611,-0.321858 0.207028,-0.453121 1.313334,-2.63602 1.595853,-6.6499348 1.970684,-9.8338823 0.13174,-1.1189709 0.01507,-1.5125964 -0.214842,-1.5156095 z"/>
 <path style="fill:#895c33" d="M 21.808561,1.0000334 C 21.51296,0.9961634 21.030113,1.6382293 20.646237,2.2127747 19.77115,3.522513 18.855141,4.9553474 17.96025,6.7598732 c -0.889934,1.7945256 -0.971438,1.7100061 -0.865271,5.4725978 0.664919,0.03686 2.073379,0.386883 2.694086,0.697667 0.09056,-0.156133 0.179316,-0.412868 0.262988,-0.580757 1.313333,-2.6360207 1.59561,-6.6501546 1.970441,-9.8341022 0.131741,-1.1189708 0.01598,-1.5122323 -0.213933,-1.5152454 z M 7.1888203,5.9839424 c -0.9764432,0.062414 1.0812344,3.7456056 1.6869363,4.6819996 0.5493981,0.849297 1.9134804,2.29708 3.0046004,3.468489 0.233809,0.250999 0.442543,0.468736 0.640437,0.674502 0,0 0.12738,0.175617 0.210605,0.100328 0.470553,-0.425699 2.000169,-2.078289 2.583821,-2.303117 L 15.237876,12.48429 C 13.636628,10.103826 11.01176,8.0234796 7.8060916,6.1978757 7.5296773,6.0404625 7.3283118,5.9750259 7.1888203,5.9839424 Z"/>
 <path style="opacity:0.1;fill:#8b9cbe" d="m 21.808165,1.0000175 c -0.295601,-0.00387 -0.778222,0.6383326 -1.162098,1.2128781 -0.875087,1.3097383 -1.790628,2.7423025 -2.685519,4.5468282 -0.738701,1.4895698 -0.908963,1.8092167 -0.888663,3.9843342 0.04439,-1.3704232 0.267215,-1.7312126 0.888663,-2.9843445 0.894891,-1.8045257 1.810432,-3.2370899 2.685519,-4.5468282 0.383876,-0.5745454 0.866497,-1.2167499 1.162098,-1.2128781 0.108011,0.00142 0.186669,0.100136 0.230466,0.3085906 0.08929,-0.9407393 -0.01733,-1.3057871 -0.230466,-1.3085803 z M 7.1891729,5.9843412 C 6.8653251,6.0050412 6.8919981,6.440387 7.0719866,7.025346 7.1058976,7.00546 7.1410726,6.987405 7.1891729,6.984331 7.3286645,6.975411 7.5299399,7.039806 7.8063541,7.1972194 10.758354,8.878361 13.2066,10.779012 14.827767,12.927629 c 0.190803,-0.151813 0.363944,-0.274368 0.488276,-0.322262 l -0.07813,-0.121093 C 13.636671,10.103811 11.012022,8.0228335 7.8063541,6.1972296 7.5299399,6.0398165 7.3286645,5.9754247 7.1891729,5.9843412 Z"/>
 <path style="fill:#c37e3f" d="m 16.755509,11.999918 c -2.203414,0.205074 -3.660561,1.375611 -4.522353,3.036926 -0.134032,0.414944 -0.206555,0.875496 -0.206555,1.379191 0,1.742238 0.544453,3.088172 0.38849,4.858269 -0.211353,2.398998 -2.01136,3.847329 -1.211981,6.015707 0.01658,0.05303 0.02159,0.101472 0.04104,0.155496 0.165042,0.458401 0.493322,0.933304 0.954809,1.463026 0.07472,0.08577 0.163559,0.160423 0.254433,0.233921 0.362625,0.299436 0.841201,0.506741 1.392546,0.640919 0.377054,0.09176 0.785926,0.151955 1.207876,0.187948 0.143656,0.01224 0.28888,0.02121 0.434999,0.02839 l 0.12448,-0.01624 c 1.480794,0.05784 3.032344,-0.108016 3.939619,-0.156849 0.216715,-0.01167 0.434248,-0.03562 0.651129,-0.07031 0.66996,-0.107187 1.331583,-0.321704 1.941083,-0.621989 h 0.004 c 0.02949,-0.01486 0.05557,-0.0347 0.08481,-0.05002 0.232231,-0.1188 0.459936,-0.245126 0.673018,-0.388065 0.681977,-0.457414 1.252688,-1.032243 1.625092,-1.687482 0.317803,-0.559155 0.489529,-1.176863 0.465094,-1.829457 -0.0081,-0.67583 -0.215492,-1.389396 -0.686697,-2.116112 -1.535139,-2.367491 -3.200576,-5.27397 -3.287086,-8.438762 -0.04649,-0.461072 -0.21004,-0.863046 -0.462358,-1.206115 -0.866686,-1.062634 -2.596808,-1.412749 -3.805561,-1.418404 z"/>
 <path style="opacity:0.2;fill:#8b9cbe" d="m 16.755481,11.999904 c -2.203413,0.205074 -3.659646,1.375763 -4.521437,3.037078 -0.134032,0.414946 -0.207029,0.875197 -0.207029,1.378892 0,0.183658 0.02451,0.349574 0.03516,0.525385 0.03119,-0.31907 0.08186,-0.625613 0.171874,-0.904288 0.861791,-1.661314 2.318024,-2.832003 4.521437,-3.037077 1.208753,0.0057 2.937964,0.355319 3.80465,1.417955 0.252318,0.343068 0.416391,0.745945 0.462886,1.207018 0.08651,3.164792 1.751904,6.069924 3.287075,8.437412 0.375341,0.57887 0.577221,1.149446 0.650385,1.699202 0.02731,-0.190927 0.04452,-0.384014 0.03711,-0.582025 -0.0081,-0.675831 -0.216287,-1.39045 -0.687493,-2.117166 -1.535173,-2.367489 -3.200567,-5.27262 -3.287077,-8.437412 -0.0465,-0.461074 -0.210568,-0.863951 -0.462886,-1.207019 -0.866691,-1.062635 -2.595902,-1.4123 -3.804655,-1.417955 z m -4.331986,9.103423 c -0.0037,0.05793 -0.0026,0.113039 -0.0078,0.171872 -0.190773,2.165393 -1.669568,3.557336 -1.369127,5.402288 0.212558,-1.395016 1.214192,-2.643693 1.369127,-4.402298 0.03614,-0.410207 0.03141,-0.797005 0.0078,-1.171862 z"/>
 <path style="fill:#8e8e8e" d="m 19.956213,21.003042 c 0.796598,0 1.533075,-0.01683 2.083124,0.174922 0.593664,0.206907 0.970018,0.656822 0.970018,1.633137 0,0.892865 -1.389168,2.202395 -1.802251,3.426575 0.138989,1.051687 0.477138,2.093029 0.942525,2.895955 0.263603,-0.130161 0.517202,-0.276474 0.756974,-0.437406 0.681604,-0.457413 1.251766,-1.032475 1.623965,-1.687715 0.627877,-1.105316 0.692483,-2.438754 -0.221407,-3.820175 -2.214966,-4.315016 -10.95371,-1.227618 -12.61473,0.59693 -0.08573,0.579816 -1.100311,1.83837 -0.444551,3.660705 0.164953,0.458399 0.493044,0.932505 0.954276,1.462227 0.372803,0.428117 0.957393,0.698152 1.646485,0.862516 0.376848,0.08989 0.784902,0.148161 1.20662,0.183419 0.143578,0.01198 0.288688,0.02131 0.434726,0.02834 -9.41e-4,-0.67387 0.0476,-1.345264 0.03307,-1.98641 -0.0012,-0.05574 -0.003,-0.111266 -0.0053,-0.166528 -0.144945,-1.471519 -2.850699,-1.754221 -2.850699,-3.822337 0,-0.428856 0.14194,-0.798333 0.388706,-1.116294 1.226407,-1.58009 5.042259,-1.887864 6.898509,-1.887864 v 0 z"/>
 <path style="opacity:0.2" d="m 18.951079,17.038992 c -0.363477,0.106313 -0.950828,1.746049 -0.951466,2.282348 -8.74e-4,0.7007 0.212881,0.969401 0.621221,1.287905 0.408338,0.318503 2.373461,0.708217 2.378221,-0.03801 0.0047,-0.734845 -0.0213,-1.358925 -0.116479,-1.772056 -0.09517,-0.413131 -0.288963,-1.195957 -0.679533,-1.533045 -0.245425,-0.211807 -0.888489,-0.333444 -1.251964,-0.227131 z"/>
 <path style="fill:#8b9cbe" d="m 18.951079,16.039009 c -0.363477,0.106313 -0.950828,1.746049 -0.951466,2.282348 -8.74e-4,0.7007 0.212881,0.969401 0.621221,1.287903 0.408338,0.318505 2.373461,0.708219 2.378221,-0.03801 0.0047,-0.734844 -0.0213,-1.358923 -0.116479,-1.772054 -0.09517,-0.413132 -0.288963,-1.195958 -0.679533,-1.533045 -0.245425,-0.211807 -0.888489,-0.333444 -1.251964,-0.227131 z"/>
 <circle style="fill:#17191e" cx="19.5" cy="18.5" r=".5"/>
 <path style="opacity:0.2" d="m 15.972979,19.793262 c -0.0708,-0.49413 -0.765552,-1.330038 -1.204751,-1.595171 -1.109262,-0.669653 -1.85346,0.493494 -1.760789,1.460842 0.06883,0.718923 0.481197,2.701486 1.427167,2.283616 0.945968,-0.41787 1.720198,-0.88114 1.538373,-2.149287 z"/>
 <path style="fill:#8b9cbe" d="m 15.972979,18.793278 c -0.0708,-0.494129 -0.765552,-1.330036 -1.204751,-1.595171 -1.109262,-0.669652 -1.85346,0.493495 -1.760789,1.460842 0.06883,0.718924 0.481197,2.701486 1.427167,2.283617 0.945968,-0.41787 1.720198,-0.881141 1.538373,-2.149288 z"/>
 <circle style="fill:#17191e" cx="14.499" cy="19.5" r=".5"/>
 <path style="fill:#b2bfd9" d="m 19.956213,21.003042 c -1.85625,0 -5.672102,0.307775 -6.898509,1.887866 0.825184,1.063195 1.473558,2.042729 2.059568,3.174698 0.278523,0.538063 0.376247,1.134977 0.402424,1.763933 0.0053,0.05389 0.0071,0.109304 0.0053,0.166528 0.01453,0.641146 -0.03406,1.312538 -0.03306,1.98641 1.51673,0.07285 3.129493,-0.105562 4.061636,-0.155761 0.216597,-0.01167 0.434071,-0.03521 0.650832,-0.06989 0.670999,-0.107422 1.33495,-0.32192 1.945173,-0.623202 -0.465388,-0.802925 -0.803537,-1.844267 -0.942526,-2.895955 -0.0458,-0.34641 -0.06997,-0.693876 -0.06997,-1.034376 0,-1.065567 0.399528,-2.937387 0.902191,-4.02539 -0.550047,-0.191705 -1.286525,-0.174867 -2.083123,-0.174867 v 0 z"/>
 <path style="fill:#17191e" d="m 15.117272,26.065606 c -0.58601,-1.13197 -1.234384,-2.111504 -2.059568,-3.174699 -0.246766,0.31796 -0.388704,0.687437 -0.388704,1.116293 0,2.068117 2.705753,2.35082 2.850696,3.822338 -0.02618,-0.628955 -0.123901,-1.22587 -0.402424,-1.763932 z"/>
 <path style="fill:#17191e" d="m 22.039337,21.177911 c -0.502663,1.088002 -0.902193,2.959821 -0.902193,4.025389 0,0.340499 0.02416,0.687967 0.06997,1.034376 0.413083,-1.224181 1.80225,-2.53371 1.80225,-3.426575 0,-0.976315 -0.376354,-1.426231 -0.970017,-1.63319 z"/>
 <path style="opacity:0.2;fill:#8b9cbe" d="m 19.956621,21.003717 c -1.85625,0 -5.67196,0.30661 -6.898367,1.8867 0.155094,0.199829 0.276556,0.3924 0.419918,0.587885 1.517366,-1.220072 4.798017,-1.474595 6.478449,-1.474595 0.642959,0 1.240052,-0.0048 1.738263,0.0918 0.10617,-0.33618 0.220945,-0.652158 0.343747,-0.91796 -0.550047,-0.191705 -1.285412,-0.173826 -2.08201,-0.173826 z m 1.214831,4.726514 c -0.0124,0.158949 -0.03516,0.336662 -0.03516,0.472651 0,0.3405 0.02451,0.688736 0.07031,1.035146 0.09469,0.716514 0.28808,1.421835 0.544917,2.05662 0.132069,-0.05529 0.270647,-0.09706 0.398433,-0.160155 -0.465388,-0.802924 -0.804361,-1.844767 -0.94335,-2.896455 -0.02247,-0.169951 -0.0234,-0.338294 -0.03516,-0.507807 z m -5.660098,3.039031 c -0.01071,0.403305 -0.02014,0.801405 -0.01953,1.212879 0.0058,2.8e-4 0.01174,-2.73e-4 0.01758,0 0.01011,-0.329878 0.02284,-0.667958 0.01563,-0.986318 0.0018,-0.05722 -5.93e-4,-0.112124 -0.0059,-0.166015 -8.66e-4,-0.02082 -0.0068,-0.0398 -0.0078,-0.06055 z"/>
</svg>
