<svg xmlns="http://www.w3.org/2000/svg" width="32" height="32" version="1">
 <rect style="opacity:0.2" width="28" height="28" x="2" y="3" rx="1.4" ry="1.4"/>
 <rect style="fill:#109d8f" width="28" height="28" x="2" y="2" rx="1.4" ry="1.4"/>
 <g opacity=".2" transform="translate(0 .9997)">
  <path d="m9.044 13c-0.5753 0-1.044 0.53-1.044 1.183v4.6305c0 0.653 0.4687 1.186 1.044 1.186s0.956-0.533 0.956-1.186v-4.631c0-0.654-0.38-1.184-0.956-1.184"/>
  <path d="m11 13-0.000245 8.5c-0.000007 0.23573 0.26439 0.5 0.50012 0.5h1.5v1.8751c0 0.622 0.396 1.125 1 1.125 0.60019 0 1.0199-0.50359 1-1.1249v-1.875h1v1.8751c0 0.622 0.396 1.125 1 1.125 0.60019 0 1-0.51173 1-1.1249v-1.875h1.5c0.236 0 0.5-0.264 0.5-0.5v-8.5z"/>
  <path d="m22.044 13c-0.575 0-1.044 0.53-1.044 1.183v4.6305c0 0.653 0.469 1.186 1.044 1.186s0.956-0.533 0.956-1.186v-4.6305c0-0.654-0.38-1.184-0.956-1.184"/>
  <path d="m12.865 5.9023-0.865 0.5 1.197 2.0743c-2.188 1.0571-2.197 3.5234-2.197 3.5234h9s-0.01-2.4665-2.197-3.5234l1.197-2.0743-0.86523-0.5-1.2949 2.2422c-0.397-0.0888-0.835-0.1445-1.338-0.1445-0.504 0-0.944 0.0555-1.342 0.1445l-1.295-2.2422zm0.637 4.0977c0.277 0 0.498 0.223 0.498 0.498s-0.224 0.502-0.498 0.502c-0.277 0-0.502-0.224-0.502-0.502 0-0.275 0.225-0.498 0.502-0.498zm4 0c0.277 0 0.498 0.223 0.498 0.498s-0.224 0.502-0.498 0.502c-0.277 0-0.502-0.224-0.502-0.502 0-0.275 0.225-0.498 0.502-0.498z"/>
 </g>
 <g style="fill:#8b9cbe">
  <path style="fill:#8b9cbe" d="m9.044 13c-0.5753 0-1.044 0.53-1.044 1.183v4.6305c0 0.653 0.4687 1.186 1.044 1.186s0.956-0.533 0.956-1.186v-4.6305c0-0.654-0.38-1.184-0.956-1.184"/>
  <path style="fill:#8b9cbe" d="m11 13-0.000245 8.5c-0.000007 0.23573 0.26439 0.5 0.50012 0.5h1.5v1.8751c0 0.622 0.396 1.125 1 1.125 0.60019 0 1.0199-0.50359 1-1.1249v-1.875h1v1.8751c0 0.622 0.396 1.125 1 1.125 0.60019 0 1-0.51173 1-1.1249v-1.875h1.5c0.236 0 0.5-0.264 0.5-0.5v-8.5z"/>
  <path style="fill:#8b9cbe" d="m22.044 13c-0.575 0-1.044 0.53-1.044 1.183v4.6305c0 0.653 0.469 1.186 1.044 1.186s0.956-0.533 0.956-1.186v-4.6305c0-0.654-0.38-1.184-0.956-1.184"/>
  <path style="fill:#8b9cbe" d="m12.865 5.9023-0.865 0.5 1.197 2.0743c-2.188 1.0571-2.197 3.5234-2.197 3.5234h9s-0.01-2.4665-2.197-3.5234l1.197-2.0743-0.86523-0.5-1.2949 2.2422c-0.397-0.0888-0.835-0.1445-1.338-0.1445-0.504 0-0.944 0.0555-1.342 0.1445l-1.295-2.2422zm0.637 4.0977c0.277 0 0.498 0.223 0.498 0.498s-0.224 0.502-0.498 0.502c-0.277 0-0.502-0.224-0.502-0.502 0-0.275 0.225-0.498 0.502-0.498zm4 0c0.277 0 0.498 0.223 0.498 0.498s-0.224 0.502-0.498 0.502c-0.277 0-0.502-0.224-0.502-0.502 0-0.275 0.225-0.498 0.502-0.498z"/>
 </g>
 <path style="fill:#8b9cbe;opacity:0.2" d="M 3.4003906 2 C 2.6247906 2 2 2.6247906 2 3.4003906 L 2 4.4003906 C 2 3.6247906 2.6247906 3 3.4003906 3 L 28.599609 3 C 29.375209 3 30 3.6247906 30 4.4003906 L 30 3.4003906 C 30 2.6247906 29.375209 2 28.599609 2 L 3.4003906 2 z"/>
</svg>
