<svg xmlns="http://www.w3.org/2000/svg" width="32" height="32" version="1">
 <path style="opacity:0.2" d="M 20.105266,12.8 C 19.631334,10.027684 21.473687,4.4736838 21.473687,4.4736838 H 10.526319 c 0,0 1.840612,5.5536882 1.368421,8.3263162 C 10.869219,18.821692 3.1199936,28.789473 3.1199936,28.789473 2.6866065,29.894734 3.4811494,31 4.6368425,31 H 27.389601 c 1.155698,0 1.878005,-1.178944 1.516849,-2.210527 0,0 -7.771136,-9.964104 -8.801184,-15.989473 z"/>
 <path style="fill:#a9c9e0" d="M 20.105266,11.8 C 19.631334,9.0276836 21.473687,3.4736838 21.473687,3.4736838 H 10.526319 c 0,0 1.840612,5.5536883 1.368421,8.3263162 C 10.869219,17.821692 3.1199936,27.789473 3.1199936,27.789473 2.6866065,28.894734 3.4811494,30 4.6368425,30 H 27.389601 c 1.155698,0 1.878005,-1.178944 1.516849,-2.210527 0,0 -7.771136,-9.964104 -8.801184,-15.989473 z"/>
 <path style="opacity:0.1" d="M 22.400002,6 H 9.5999987 C 8.7200022,6 8,5.3250003 8,4.4999997 8,3.6750001 8.7200022,3 9.5999987,3 H 22.400002 C 23.279999,3 24,3.6750001 24,4.4999997 24,5.3250003 23.279999,6 22.400002,6 Z"/>
 <path style="fill:#c0dce9" d="M 22.400002,5 H 9.5999987 C 8.7200022,5 8,4.3250003 8,3.4999997 8,2.6750001 8.7200022,2 9.5999987,2 H 22.400002 C 23.279999,2 24,2.6750001 24,3.4999997 24,4.3250003 23.279999,5 22.400002,5 Z"/>
 <path style="opacity:0.1" d="M 13.953323,15 C 12.9166,18.258537 11.025275,21.475758 9.2638702,24.266168 7.9307328,26.378118 7.4810549,26.902529 6.679886,28 H 25.341995 C 24.538362,26.902507 24.088329,26.380075 22.752542,24.2704 20.985214,21.479167 19.087708,18.261613 18.04805,15 Z"/>
 <path style="fill:#ffda31" d="M 13.953323,14 C 12.9166,17.258537 11.025275,20.475758 9.2638702,23.266168 7.9307328,25.378118 7.4810549,25.902529 6.679886,27 H 25.341995 C 24.538362,25.902507 24.088329,25.380075 22.752542,23.2704 20.985214,20.479167 19.087708,17.261613 18.04805,14 Z"/>
 <path style="opacity:0.1" d="m 15.571688,21.573869 c 0.0064,-0.511955 -1.466564,0.807553 -1.262862,-0.812797 0.105686,-0.840656 1.502193,-0.806814 1.563202,-1.651887 0.02632,-0.364664 -0.64233,-0.437964 -0.612256,-0.802338 0.03944,-0.477884 0.90398,-1.716298 0.90398,-1.716298 0,0 -0.287569,0.779141 -0.145764,1.221693 0.09385,0.292877 0.785375,0.777257 0.863581,1.074692 0.100061,0.380566 -0.665825,0.626893 -0.453993,0.958512 0.259854,0.4068 1.199975,-0.08282 1.40404,0.354635 0.359919,0.771564 -1.555008,3.026421 -1.111985,2.299383 0,0 -0.1329,-0.511251 0.959282,0.360489 0.964917,0.770161 1.920595,2.291112 0.848405,3.315296 -1.071182,1.02322 -3.092441,0.994822 -4.489436,0.45509 -0.593751,-0.229398 -1.148792,-1.936387 -1.018785,-2.470293 0.35406,-1.454015 2.538561,-1.45103 2.552591,-2.586177 z"/>
 <path style="fill:#61b620" d="m 15.571688,20.573869 c 0.0064,-0.511955 -1.466564,0.807553 -1.262862,-0.812797 0.105686,-0.840656 1.502193,-0.806814 1.563202,-1.651887 0.02632,-0.364664 -0.64233,-0.437964 -0.612256,-0.802338 0.03944,-0.477884 0.90398,-1.716298 0.90398,-1.716298 0,0 -0.287569,0.779141 -0.145764,1.221693 0.09385,0.292877 0.785375,0.777257 0.863581,1.074692 0.100061,0.380566 -0.665825,0.626893 -0.453993,0.958512 0.259854,0.4068 1.199975,-0.08282 1.40404,0.354635 0.359919,0.771564 -1.555008,3.026421 -1.111985,2.299383 0,0 -0.1329,-0.511251 0.959282,0.360489 0.964917,0.770161 1.920595,2.291112 0.848405,3.315296 -1.071182,1.02322 -3.092441,0.994822 -4.489436,0.45509 -0.593751,-0.229398 -1.148792,-1.936387 -1.018785,-2.470293 0.35406,-1.454015 2.538561,-1.45103 2.552591,-2.586177 z"/>
 <path style="fill:#8b9cbe;opacity:0.2" d="M 9.5996094 2 C 8.7196129 2 8 2.6750004 8 3.5 C 8 3.676172 8.0393982 3.8426203 8.0996094 4 C 8.3213627 3.4203824 8.9075288 3 9.5996094 3 L 22.400391 3 C 23.092472 3 23.678638 3.4203824 23.900391 4 C 23.960602 3.8426203 24 3.676172 24 3.5 C 24 2.6750004 23.280388 2 22.400391 2 L 9.5996094 2 z"/>
</svg>
