<svg xmlns="http://www.w3.org/2000/svg" width="32" height="32" version="1">
 <rect style="opacity:0.2" width="28" height="28" x="2" y="3" rx="1.4" ry="1.4"/>
 <rect style="fill:#2167bb" width="28" height="28" x="2" y="2" rx="1.4" ry="1.4"/>
 <path style="opacity:0.2" d="m 14.90928,27.920894 c -0.840518,-0.219535 0.369644,-1.365198 0.07348,-2.027842 -0.09842,-0.926218 0.343375,-2.450248 -0.790696,-2.862594 -0.983298,0.11277 -1.34875,1.161523 -1.960064,1.840447 -0.433756,0.498826 0.520033,-0.93424 -0.270855,-0.455442 -0.653517,0.233648 -0.921434,0.09473 -0.116464,-0.09931 0.602181,0.0071 0.963707,-0.647541 0.402428,-0.736582 0.546417,-0.507335 2.644631,-0.669464 1.570049,-1.702067 -0.261675,-0.559774 -1.041872,-1.335987 -1.389308,-0.482915 -0.656109,0.07589 -0.760185,1.89085 -1.153653,1.265761 -0.388456,0.75103 -0.472283,1.653053 -1.3348744,2.039533 0.089825,-0.114442 1.0667034,-1.329222 0.7342624,-1.666523 -0.451847,0.523694 -0.7601694,0.118281 -1.2379054,0.431409 C 10.048691,22.982366 11.354318,22.765833 11.282824,21.8674 10.64619,21.604005 9.8750647,23.181836 9.6565471,22.645225 9.7144231,22.092153 8.1154488,23.902866 8.6602693,23.00706 7.6247978,23.071152 9.6688496,22.450444 9.5649262,22.127587 10.233087,21.603172 11.657536,21.927882 11.914842,21.075072 10.977605,20.577211 9.8239136,20.64882 9.0383281,21.390973 8.795181,21.5408 7.988431,22.085242 8.5351107,21.506171 6.971828,21.609125 10.27407,20.988604 8.6598269,20.899783 8.6076629,20.940957 10.461018,20.533855 9.3683067,20.19562 8.5455253,19.668012 7.0452874,20.027397 6.5209524,19.704962 c 0.4645389,-0.163946 1.881873,0.122292 0.8252657,-0.449663 -0.7742336,-0.481331 0.7750848,0.256843 1.0086384,0.326638 0.4033708,0.230541 1.2182254,0.352308 0.5239885,-0.208707 -0.5007135,-0.701192 0.8279005,0.827353 1.24402,0.826239 0.618103,-0.0462 1.964766,0.04624 2.202944,-0.390444 C 11.566714,19.000904 10.446001,18.665231 9.4871324,18.152679 8.4268767,18.103028 7.3417451,18.345231 6.2658078,18.479571 6.1548443,18.104823 7.7109384,18.159473 8.1992451,18.025529 8.5151152,17.546605 6.7981293,17.309858 6.2561887,17.253209 5.7899897,17.368264 5.7696169,16.850455 5.7747399,16.867797 6.3455287,17.027022 8.3200637,17.620044 7.0430957,16.633123 7.1879789,15.908283 4.8112061,15.088255 6.4114751,15.5782 6.1855129,15.258347 5.7709173,14.490449 6.425536,15.158794 c 0.6222371,0.795267 1.1359902,1.795584 2.0366137,2.300251 0.3445365,0.26341 1.5962543,0.517193 0.7111874,-0.09341 C 8.4441926,17.00509 8.4670896,16.544383 7.8864809,15.991533 8.8342893,16.301064 9.204996,17.368892 9.9937938,17.921908 10.772051,18.119927 11.465295,18.9443 12.159118,19.020959 11.856021,17.961423 10.623124,17.816185 9.9040573,17.127082 9.4240575,16.879053 9.0973283,16.701412 9.8167064,16.857208 10.476524,17.081195 10.861659,17.66874 11.652332,17.906402 10.939686,17.149334 10.105688,16.241732 9.0992806,15.94043 8.4129761,15.894909 6.9043305,15.263896 6.8420305,15.040337 7.4524032,15.220515 9.0447478,16.137489 9.1866007,15.460899 8.9331209,14.878144 7.7040602,14.665177 7.6952101,14.361773 8.1462782,14.653419 8.8107945,14.634202 8.0490748,14.158216 7.6326287,13.920957 6.621541,13.071797 7.6314555,13.657604 c 1.0230731,0.660261 -1.094569,-1.510654 -0.060858,-0.530479 0.4401838,0.375972 1.2558399,1.629041 1.4278117,1.447612 -0.2211748,-0.459587 -0.5866217,-1.61477 -0.081495,-0.552146 0.4207693,1.122933 1.0851698,2.182485 2.1287628,2.819672 -0.02502,-0.744356 -0.81766,-1.612838 -1.3349002,-2.28406 C 9.3366597,14.122837 8.9625671,13.292195 9.6301823,14.149808 9.787746,14.694157 10.563943,15.195313 10.042998,14.34756 9.7294353,13.592368 8.5134002,12.953028 8.422137,12.398006 9.0060154,13.049709 8.5877892,12.07291 8.788881,12.29096 c 0.047152,0.56452 1.026585,1.470792 0.8766856,0.891537 0.2144681,0.383059 0.6799344,0.858473 0.3229205,0.07308 -0.286181,-0.55543 -0.2986844,-1.023243 0.056231,-0.217525 0.157316,1.245783 1.392645,1.837173 2.148955,2.708754 0.312903,0.387368 1.08973,0.876522 0.507398,0.07502 -0.289716,-0.792154 -1.650112,-1.598961 -1.777548,-1.990935 0.332085,0.365339 1.340959,0.925129 0.586438,0.05994 C 10.708768,13.053354 9.9359381,12.157044 8.9040961,11.599724 8.3983139,11.322842 8.149011,10.818016 8.8401721,11.393344 9.7937226,12.051775 7.4918853,9.8046856 8.461309,10.531507 c 0.8688666,0.760679 1.5172934,1.753026 2.479406,2.413838 0.835397,0.440691 -0.204327,-1.067996 -0.496248,-1.296305 C 10.043,11.064495 8.7436799,10.312234 8.9328675,9.8861712 9.472921,10.198859 8.0613094,8.5422783 8.8745925,9.237148 9.2726363,9.7393574 9.2139791,9.419148 9.034756,9.0252335 9.6430518,9.6677943 10.009918,10.908099 10.685219,11.251605 10.5129,10.760281 10.487595,10.152537 10.156738,9.7421329 9.8256153,9.4453882 9.0956658,8.6147157 9.949971,9.2805725 c 0.736163,0.5773859 0.818777,1.6431725 1.17158,2.4722725 0.244024,0.657429 0.59512,1.990049 0.926296,2.221193 0.170509,-0.79696 -0.363127,-1.537323 -0.260657,-2.312395 0.171432,0.707314 0.627242,1.261106 1.133078,1.766251 0.299793,0.495269 0.940523,0.840529 0.358493,0.0614 C 12.336997,12.056105 11.217017,10.706475 10.686089,9.0481151 10.402072,8.7096658 9.4999872,8.3103046 10.473548,8.6391765 c -0.136403,-1.204931 0.932936,1.7773945 0.567977,0.2183244 -0.168172,-0.4767539 -0.215678,-0.9943451 2.9e-5,-0.2508366 0.35094,1.2202897 0.730281,2.5287207 1.598865,3.4877947 -0.03695,-0.87775 -0.768974,-1.421035 -0.641301,-2.019885 -0.188496,-0.6099078 -0.597379,-1.3412874 -0.686486,-1.8551427 0.354943,0.595168 0.284245,0.1112377 0.113434,-0.2321921 0.612256,-0.093633 0.675648,1.3737927 1.066068,1.4129661 -0.02782,-0.3832164 -0.746816,-1.6091278 -0.434141,-1.5708196 0.547198,0.9870119 0.713112,2.2106943 1.53381,3.0330973 0.296895,0.429467 0.925448,1.283673 0.515017,0.280001 -0.431765,-1.127796 -0.930117,-2.2599637 -1.812608,-3.1128913 -0.617303,-0.9476593 1.080713,1.1056731 0.463896,-0.1312717 -0.55223,-0.7050036 0.227913,-0.4616787 0.206267,0.1785532 0.09485,0.5027414 0.496927,0.9247777 0.284298,0.086197 0.0497,-0.1229144 0.562121,2.3889878 0.4981,0.9532271 0.118439,-1.0142153 -0.788206,-1.5914437 -0.886852,-2.5136735 0.327852,1.0154096 0.48248,-1.0337953 0.501319,0.098763 0.01695,0.466311 0.146636,1.0223952 0.36799,0.7779881 0.156298,1.0109953 0.103232,2.0658526 0.499564,3.0280421 -0.02201,-0.512919 -0.280868,-2.0395399 0.197676,-0.9271867 0.356836,1.2106937 0.225795,-1.050126 -0.112914,-1.4181419 0.121492,-0.688653 -0.899825,-1.3896676 -0.59139,-1.7019468 0.469134,0.2731637 0.585374,1.1891401 0.777283,1.3614241 0.144914,-0.4628414 -0.340456,-2.0722762 0.109055,-0.8639248 0.437029,1.1307851 0.200982,-0.1468203 0.110267,-0.6300527 0.286022,0.2786175 0.523901,2.0080701 0.700308,1.7195091 0.01327,-0.5071598 -0.657471,-2.0973343 0.02685,-1.0490702 0.20717,1.0160428 0.267876,2.0594691 0.380302,3.0827039 0.301756,-0.9928233 0.214138,-2.0671574 0.05085,-3.0292101 0.145475,0.7632156 0.222965,0.2709833 0.326959,-0.1265717 0.0022,0.9081602 0.190252,0.5708001 0.36868,0.3379087 0.08361,0.4655903 -0.903478,2.0918765 0.103058,1.2289116 0.476165,-0.3645621 0.03016,-1.5501381 0.344806,-1.7082979 0.202343,0.9257098 0.005,1.7133596 -0.132693,2.6604673 0.151276,0.6007781 -0.427564,1.8420341 -0.03634,1.6601911 -0.07161,0.938616 -0.577584,1.785587 -0.458231,2.754085 0.01098,1.427879 -0.01672,2.864571 0.1126,4.285774 0.518032,-1.060667 0.438651,-2.36011 0.74408,-3.51009 0.58389,-2.557323 0.123087,-5.1876424 0.276919,-7.7751065 0.180768,0.3328593 0.157261,1.8834958 0.37258,0.6476731 0.244638,0.7719768 -0.288513,2.0821269 -0.08606,3.0601974 0.45261,-0.581342 0.573361,-1.4940489 0.635461,-2.2542965 -0.07394,-0.4245913 0.499095,-1.5764031 0.283397,-0.5090358 -0.180048,1.05455 -0.300463,2.1378938 -0.696868,3.1356093 0.307735,-0.197914 0.895787,-1.7426072 0.557131,-0.499033 -0.225531,0.591828 -0.725179,1.5656 -0.03387,0.865519 0.550215,-0.761999 1.023932,-1.7288084 0.688826,-2.6811129 0.145085,-1.3586398 0.177667,1.4700969 0.421589,0.1959594 0.289521,-0.8203706 0.289955,0.4861031 -0.02442,0.720629 -0.372892,0.9255795 -0.913745,1.7973895 -1.239997,2.7340995 0.0027,0.484859 -0.143917,1.617158 0.459784,0.686131 -0.06241,1.039354 -1.222014,1.627452 -1.340805,2.608809 0.291268,-0.410253 0.758433,-1.148851 0.413884,-0.191223 0.594158,-0.593292 0.925009,-1.515562 1.306708,-2.293622 0.78716,-1.460433 0.570011,-3.207337 1.228295,-4.7013197 -0.08033,0.4773748 -0.338879,1.6990277 0.158187,0.633199 0.137382,0.5630632 -0.802788,1.9195037 -0.503301,2.5215547 0.326058,-0.413902 1.306503,-1.493335 0.54766,-0.453931 -0.514403,0.842279 -1.15625,1.599057 -1.47575,2.547325 -0.236633,0.785217 -1.236064,1.911093 -0.968014,2.503042 1.017546,-0.655589 1.041035,-2.041861 1.488688,-3.074191 0.413819,-0.629053 -0.653813,2.08115 0.08168,0.639803 0.732247,-1.370514 1.727721,-2.764292 1.56734,-4.3985508 -0.01551,-0.6511029 0.195807,0.3091704 0.364844,-0.4409671 0.01222,0.4981116 -0.277997,1.7698319 0.185579,0.690081 0.103507,-0.6099996 0.710356,-0.9956625 0.282124,-0.1551347 -0.285981,0.360101 -0.373226,1.0738206 0.09613,0.3382302 0.777115,-1.1359278 0.0023,0.3839874 -0.343598,0.7458344 -0.626183,0.673755 -0.995018,1.587579 -1.528568,2.363737 -0.432518,0.844256 -1.01662,1.910003 -1.219205,2.676003 0.835223,-0.610682 1.23109,-1.63591 1.92202,-2.391022 0.462126,-0.504767 0.556014,-1.361305 0.981016,-1.34918 0.424139,-0.395673 0.814138,-1.7900936 1.004567,-0.862005 -0.653255,0.578841 -1.389862,1.399901 -1.619427,2.155244 0.728829,-0.231721 1.14003,-1.235927 1.499053,-0.997581 0.502886,-0.63229 1.089854,-0.625194 1.649623,-1.090128 -0.364196,0.941185 -1.321086,1.380898 -1.675305,2.383967 -0.363775,0.614472 0.641945,-0.05644 0.0217,0.574433 -0.22455,0.461828 -0.464678,1.108568 0.221704,0.466548 0.468856,-0.549248 1.566728,-0.371229 1.912412,-1.128006 0.112973,-0.512462 0.651216,-1.379254 0.313071,-0.332237 -0.18065,0.568183 0.160633,0.536324 -0.333127,1.070786 -0.781024,1.274681 1.455212,-1.336986 0.497926,-0.01656 -0.810647,0.846913 0.825815,-0.421726 0.485776,0.258902 -0.993634,0.21707 -1.487397,1.197448 -2.272467,1.791056 -1.001436,0.812449 0.760627,0.276515 0.946555,0.250811 0.551359,0.08901 1.594982,-0.65873 1.544163,-0.142501 -0.332932,0.169967 -2.099508,0.33361 -0.838986,0.432832 0.662634,0.0061 0.284697,0.570831 -0.224233,0.167583 -0.925323,-0.298492 -1.789237,0.14041 -2.675522,0.246575 -0.623642,0.225115 -1.110134,1.239742 0.0042,0.996238 0.62864,0.156039 1.669547,0.07529 2.026063,-0.193459 -0.746073,0.616412 1.123815,0.133563 1.464876,0.301909 1.054852,0.155662 -0.545628,0.08911 -0.913279,0.149502 -0.414575,0.427297 -2.292623,0.893858 -0.893444,0.260891 0.933004,-0.371699 -0.892141,-0.180344 -1.209335,-0.272223 -0.500959,-0.36732 -2.095479,0.213597 -1.203198,0.683938 0.39517,0.318362 1.652267,0.07966 1.641545,0.107866 -0.02166,0.82647 1.545817,-0.373334 1.751761,-0.135681 -0.692926,0.242336 -0.647568,0.585653 0.09246,0.558171 0.808018,-0.22608 0.950105,0.754053 0.142176,0.224982 -1.175361,-0.160183 -2.377049,-0.170814 -3.542031,-0.444145 -0.769581,-0.160869 -2.078526,1.680547 -0.5502,1.40045 0.735824,0.218653 1.920903,-0.09932 2.405782,0.13079 -0.533422,-0.02015 -1.739066,0.127121 -0.514335,0.313118 0.331288,0.121505 1.628884,0.151044 0.634213,0.346516 0.235955,0.374168 2.013042,0.806461 0.797749,0.608216 -0.861577,-0.451628 -1.563938,-0.587547 -2.338849,-0.946806 -0.657026,-0.212135 -2.263292,-0.522569 -2.404391,0.264704 0.431012,1.029799 1.281643,1.728093 2.436292,1.294946 0.559395,-0.04684 0.03001,0.137297 0.256322,0.517096 -0.481652,-0.42018 -1.928797,-0.214996 -0.821514,0.369825 0.460785,0.136952 1.467284,1.103746 0.508908,0.415394 -0.806606,-0.601266 -0.44515,0.155872 -0.241704,0.598848 -0.613882,-0.356672 -1.046621,-1.545139 -1.610207,-1.73544 -0.151977,0.64881 0.871808,1.748588 0.694129,1.861411 -1.08892,-0.576411 -0.809228,-1.731344 -1.168354,-2.709697 -0.545384,-1.007138 -2.339031,0.844493 -1.309904,1.351527 0.140505,0.418163 1.84051,1.479875 0.665454,0.924888 -0.467638,-0.45666 -0.994402,-0.39859 -0.521655,0.299603 0.269914,0.406497 0.52215,1.325578 0.02199,0.409831 -0.297641,-0.509457 -0.790361,-2.522536 -1.289694,-1.098279 -0.370969,1.219524 -0.871086,2.706573 -0.100727,3.872751 -0.628569,0.510657 -1.746649,0.217715 -2.568728,0.183181 z m 2.109203,-4.860513 c 0.630523,-0.56263 -0.444174,-1.094308 -0.278562,-0.174984 -0.0053,0.242523 0.02259,0.68744 0.278562,0.174984 z m -2.318244,-1.379035 c 0.263833,-0.738525 -1.250956,-0.958139 -0.457644,-0.15931 0.130493,0.154637 0.599185,0.795625 0.457644,0.15931 z m 2.756102,0.149961 c -0.12978,-0.389679 -0.148526,0.394005 -1.22e-4,-7e-6 z m 1.181037,-0.543602 c 0.498454,-0.461486 1.757989,-1.289895 1.656917,-1.70446 -0.935971,0.159101 -1.78666,0.869003 -1.917728,1.828935 0.08352,0.0998 0.191653,-0.175677 0.260811,-0.124475 z m -1.518637,-0.159568 c 0.876825,-0.38312 1.140308,-1.306209 1.054024,-2.188349 -0.445333,0.17482 -1.174803,1.389137 -1.291139,2.145241 -0.08424,0.227156 0.165469,0.126673 0.237115,0.04311 z M 12.62848,20.755383 c 0.707175,-0.161935 -0.476147,-0.592236 -0.775042,-0.376174 -1.325644,0.03657 0.501212,0.508714 0.775042,0.376174 z m 1.71839,-0.103193 c 0.17865,-0.691533 -0.970136,-1.537764 -1.615164,-1.875202 -0.374621,0.403118 0.558687,1.489673 0.953576,1.871296 0.219179,0.0224 0.442624,0.03586 0.661588,0.0039 z m 0.774822,-0.484862 c -0.208553,-1.555636 -1.287817,-2.850447 -2.553747,-3.711145 -0.698323,-0.478968 -1.313513,-1.4061 -2.037019,-1.650267 0.430183,1.135214 0.895033,2.330036 1.734511,3.228783 0.712285,0.165484 -0.51974,-0.94389 -0.637595,-1.350871 -0.302573,-0.812463 0.792336,0.691914 0.943,0.967191 0.704777,0.985591 1.671434,1.754264 2.378701,2.742459 0.170802,0.275239 0.214235,-0.171759 0.172149,-0.22615 z m 3.698111,-0.271248 c 0.711727,-0.671507 2.021599,-0.76482 2.429085,-1.599607 -0.273318,-0.500888 -1.421401,0.03194 -1.780412,0.392899 -0.07891,0.224674 -1.611242,1.626217 -0.648673,1.206708 z m -1.335752,-1.33843 c 0.469872,-0.586642 1.194537,-1.382334 1.007483,-2.136246 -0.632894,0.572019 -1.138763,1.411177 -1.156175,2.259632 l 0.148702,-0.123377 z m -2.289475,-0.357539 c 0.02875,-1.082464 -0.420628,-2.328589 -1.643647,-2.508336 -0.941721,-0.274855 0.37754,1.03944 0.514998,1.399981 0.344045,0.395604 0.884239,1.451946 1.153934,1.403294 l -0.0096,-0.134585 -0.01569,-0.160373 z m 6.156506,-0.363287 c 0.103472,-0.523099 0.862069,-1.862025 0.356615,-2.003441 -0.501093,0.496601 -1.132559,1.314843 -1.182625,1.923468 0.24989,0.04264 0.58958,0.259803 0.82601,0.07997 z m -1.579375,-0.263712 c 0.710614,0.143633 1.346059,-1.457592 0.874396,-1.635163 -0.551725,0.369371 -1.245659,1.179386 -1.309145,1.659709 0.143901,-0.02194 0.289638,-0.02295 0.434749,-0.02454 z m -0.643712,-0.722361 c 0.867425,-0.637913 1.734791,-1.347433 2.182271,-2.354879 0.295525,-0.411509 1.181314,-2.070626 0.123801,-1.102991 -0.907025,0.573919 -1.224737,1.722085 -1.987662,2.445333 -0.07924,0.11212 -0.958082,1.349153 -0.31841,1.012537 z m 3.533311,-0.476986 c 0.259435,-0.386814 0.512642,-0.437317 0.235494,0.09861 0.830012,-0.404001 1.973655,-1.730023 1.724463,-2.467617 -0.963149,0.320379 -2.038844,0.746998 -2.385663,1.792452 -0.277141,0.494612 -0.329491,1.547035 0.318682,0.694254 l 0.107002,-0.117702 z m -7.277862,-0.565059 c 0.292428,-1.138228 -0.639648,-2.099563 -1.028372,-3.098577 -0.173865,-0.770014 -2.177623,-1.712612 -1.257541,-0.336925 0.720492,1.29538 1.440745,2.590936 2.101501,3.91829 0.153295,0.0899 0.127794,-0.408494 0.184412,-0.482788 z m -1.190805,-0.41948 c -0.550336,-0.709906 -1.258495,-1.722555 -1.940866,-2.086098 -0.243383,1.169019 0.522057,2.320588 1.800656,2.111314 l 0.110495,-0.0013 0.02971,-0.02397 z m 1.885583,-0.169903 c 0.163154,-1.539363 -0.2126,-3.078206 -0.963785,-4.421879 -0.154316,-0.416124 -0.392276,-1.0858038 -0.456683,-0.246227 -0.103419,0.625152 -0.162708,1.276844 0.150889,1.850228 0.165051,0.436839 0.557036,1.736369 0.552292,0.521874 0.572845,0.06151 0.315961,2.216781 0.717287,2.296004 z m 5.911526,-1.169164 c 0.295174,-0.331862 0.518931,-1.18842 0.04726,-0.354125 -0.214524,0.301395 -0.634682,1.322481 -0.128947,0.485614 l 0.08171,-0.131483 z m 1.573279,-2.082335 c -0.118585,-0.303927 -1.227598,1.067764 -0.270322,0.238215 l 0.119006,-0.09669 0.151316,-0.141531 z m -7.315802,-0.17128 c 0.05942,-0.698018 0.193724,-2.0712076 -0.06597,-2.3800322 -0.005,0.9013532 -0.394454,2.0839232 -0.0364,2.8178352 0.04925,-0.142094 0.07442,-0.290663 0.102376,-0.437803 z m -2.651606,-0.299869 c -0.5621,-0.740234 -1.053864,-1.5342234 -1.629756,-2.2624649 -0.0039,1.0100429 0.786667,1.1322979 1.129764,1.9867919 0.09572,0.123802 0.343897,0.351682 0.499992,0.275673 z m 1.838327,-1.416686 c 0.107491,-0.6441908 -0.244342,-2.3753461 -0.730454,-2.2542223 0.04215,0.9397129 0.341971,1.7755682 0.685585,2.7019813 0.0427,-0.145455 0.0352,-0.298405 0.04487,-0.447759 z m 1.245705,-0.9178145 c 0.08086,-1.1391387 -0.39543,0.6329148 -0.05644,0.2456216 l 0.02681,-0.1082634 0.02962,-0.1373582 z M 10.371722,24.703161 c 0.31707,-0.469069 0.165842,0.136308 0,0 z m 9.95719,-0.58962 c 0.171257,-0.239396 0.108243,0.22045 0,0 z m 3.065513,-2.19122 c -0.505915,-0.406226 0.374292,-0.02857 0,0 z m 2.161468,-0.350042 c -1.445313,-0.518221 1.658072,0.379578 0.23651,0.06712 l -0.115373,-0.03242 -0.121146,-0.03471 z m 0.795242,-1.971109 c 0.06028,-0.311747 0.29444,0.139559 0,0 z M 6.1406068,19.298371 c 0.00669,-0.277219 0.3065215,0.188719 0,0 z M 25.725045,18.913595 c -0.705412,-0.129766 1.498467,-0.417725 0.361789,-0.02726 -0.08366,0.165918 -0.246762,-0.0048 -0.361789,0.02726 z M 6.0731877,17.962803 c -0.6893097,-0.348823 0.8725842,0.121184 0,0 z m 19.2474943,-0.02618 c 0.370777,-0.352171 1.173157,0.175187 0.254394,0.02953 l -0.124123,-0.007 -0.130271,-0.02246 z m 0.911833,-0.881448 c 0.143965,-0.04238 0.04472,-0.02397 0,0 z M 7.9836493,16.657157 c -0.29183,-0.383339 0.5739818,0.361626 0,0 z M 6.5198989,16.499113 c -0.9871413,-0.391915 0.095484,-0.225839 0.3685521,0.07298 -0.1269191,0.01581 -0.249795,-0.03982 -0.3685521,-0.07298 z M 5.6934386,16.017691 c -0.039535,-0.216748 0.280674,0.18908 0,0 z m 1.5041345,-1.911173 c -0.3541412,-0.298009 0.3893078,0.06369 0,0 z M 23.70334,13.562611 c 0.226831,-0.491437 0.147739,-0.80354 0.444496,-0.490083 0.357004,-0.100911 -0.94883,1.500321 -0.444363,0.490072 z m -1.709145,-2.228867 c 0.08367,-0.633151 0.430373,-0.801196 0.09054,-0.07548 0.07534,-0.05652 -0.10714,0.180785 -0.09054,0.07548 z M 10.257313,9.3261754 c -0.2698759,-0.8337553 0.289759,0.3216381 0,0 z M 22.511704,8.8660633 c 0.07303,-0.2979725 0.167136,0.082334 -2e-6,-9.8e-6 z M 12.364671,7.3582017 c -0.306388,-0.5120411 0.341462,0.3620995 0,0 z"/>
 <path style="fill:#8b9cbe;opacity:0.1" d="M 3.4003906 2 C 2.6247906 2 2 2.6247906 2 3.4003906 L 2 4.4003906 C 2 3.6247906 2.6247906 3 3.4003906 3 L 28.599609 3 C 29.375209 3 30 3.6247906 30 4.4003906 L 30 3.4003906 C 30 2.6247906 29.375209 2 28.599609 2 L 3.4003906 2 z"/>
 <path style="fill:#8b9cbe" d="m 14.90928,26.920894 c -0.840518,-0.219535 0.369644,-1.365198 0.07348,-2.027842 -0.09842,-0.926218 0.343375,-2.450248 -0.790696,-2.862594 -0.983298,0.11277 -1.34875,1.161523 -1.960064,1.840447 -0.433756,0.498826 0.520033,-0.93424 -0.270855,-0.455442 -0.653517,0.233648 -0.921434,0.09473 -0.116464,-0.09931 0.602181,0.0071 0.963707,-0.647541 0.402428,-0.736582 0.546417,-0.507335 2.644631,-0.669464 1.570049,-1.702067 -0.261675,-0.559774 -1.041872,-1.335987 -1.389308,-0.482915 -0.656109,0.07589 -0.760185,1.89085 -1.153653,1.265761 -0.388456,0.75103 -0.472283,1.653053 -1.3348744,2.039533 0.089825,-0.114442 1.0667034,-1.329222 0.7342624,-1.666523 -0.451847,0.523694 -0.7601694,0.118281 -1.2379054,0.431409 C 10.048691,21.982366 11.354318,21.765833 11.282824,20.8674 10.64619,20.604005 9.8750647,22.181836 9.6565471,21.645225 9.7144231,21.092153 8.1154488,22.902866 8.6602693,22.00706 7.6247978,22.071152 9.6688496,21.450444 9.5649262,21.127587 10.233087,20.603172 11.657536,20.927882 11.914842,20.075072 10.977605,19.577211 9.8239136,19.64882 9.0383281,20.390973 8.795181,20.5408 7.988431,21.085242 8.5351107,20.506171 6.971828,20.609125 10.27407,19.988604 8.6598269,19.899783 8.6076629,19.940957 10.461018,19.533855 9.3683067,19.19562 8.5455253,18.668012 7.0452874,19.027397 6.5209524,18.704962 c 0.4645389,-0.163946 1.881873,0.122292 0.8252657,-0.449663 -0.7742336,-0.481331 0.7750848,0.256843 1.0086384,0.326638 0.4033708,0.230541 1.2182254,0.352308 0.5239885,-0.208707 -0.5007135,-0.701192 0.8279005,0.827353 1.24402,0.826239 0.618103,-0.0462 1.964766,0.04624 2.202944,-0.390444 C 11.566714,18.000904 10.446001,17.665231 9.4871324,17.152679 8.4268767,17.103028 7.3417451,17.345231 6.2658078,17.479571 6.1548443,17.104823 7.7109384,17.159473 8.1992451,17.025529 8.5151152,16.546605 6.7981293,16.309858 6.2561887,16.253209 5.7899897,16.368264 5.7696169,15.850455 5.7747399,15.867797 6.3455287,16.027022 8.3200637,16.620044 7.0430957,15.633123 7.1879789,14.908283 4.8112061,14.088255 6.4114751,14.5782 6.1855129,14.258347 5.7709173,13.490449 6.425536,14.158794 c 0.6222371,0.795267 1.1359902,1.795584 2.0366137,2.300251 0.3445365,0.26341 1.5962543,0.517193 0.7111874,-0.09341 C 8.4441926,16.00509 8.4670896,15.544383 7.8864809,14.991533 8.8342893,15.301064 9.204996,16.368892 9.9937938,16.921908 10.772051,17.119927 11.465295,17.9443 12.159118,18.020959 11.856021,16.961423 10.623124,16.816185 9.9040573,16.127082 9.4240575,15.879053 9.0973283,15.701412 9.8167064,15.857208 10.476524,16.081195 10.861659,16.66874 11.652332,16.906402 10.939686,16.149334 10.105688,15.241732 9.0992806,14.94043 8.4129761,14.894909 6.9043305,14.263896 6.8420305,14.040337 7.4524032,14.220515 9.0447478,15.137489 9.1866007,14.460899 8.9331209,13.878144 7.7040602,13.665177 7.6952101,13.361773 8.1462782,13.653419 8.8107945,13.634202 8.0490748,13.158216 7.6326287,12.920957 6.621541,12.071797 7.6314555,12.657604 c 1.0230731,0.660261 -1.094569,-1.510654 -0.060858,-0.530479 0.4401838,0.375972 1.2558399,1.629041 1.4278117,1.447612 -0.2211748,-0.459587 -0.5866217,-1.61477 -0.081495,-0.552146 0.4207693,1.122933 1.0851698,2.182485 2.1287628,2.819672 -0.02502,-0.744356 -0.81766,-1.612838 -1.3349002,-2.28406 C 9.3366597,13.122837 8.9625671,12.292195 9.6301823,13.149808 9.787746,13.694157 10.563943,14.195313 10.042998,13.34756 9.7294353,12.592368 8.5134002,11.953028 8.422137,11.398006 9.0060154,12.049709 8.5877892,11.07291 8.788881,11.29096 c 0.047152,0.56452 1.026585,1.470792 0.8766856,0.891537 0.2144681,0.383059 0.6799344,0.858473 0.3229205,0.07308 -0.286181,-0.55543 -0.2986844,-1.023243 0.056231,-0.217525 0.157316,1.245783 1.392645,1.837173 2.148955,2.708754 0.312903,0.387368 1.08973,0.876522 0.507398,0.07502 -0.289716,-0.792154 -1.650112,-1.598961 -1.777548,-1.990935 0.332085,0.365339 1.340959,0.925129 0.586438,0.05994 C 10.708768,12.053354 9.9359381,11.157044 8.9040961,10.599724 8.3983139,10.322842 8.149011,9.8180158 8.8401721,10.393344 9.7937226,11.051775 7.4918853,8.8046857 8.461309,9.5315076 9.3301756,10.292186 9.9786024,11.284533 10.940715,11.945345 11.776112,12.386036 10.736388,10.877349 10.444467,10.64904 10.043,10.064495 8.7436799,9.312234 8.9328675,8.8861713 9.472921,9.1988592 8.0613094,7.5422784 8.8745925,8.2371481 9.2726363,8.7393575 9.2139791,8.4191481 9.034756,8.0252336 9.6430518,8.6677944 10.009918,9.9080989 10.685219,10.251605 10.5129,9.7602816 10.487595,9.1525367 10.156738,8.742133 9.8256153,8.4453883 9.0956658,7.6147158 9.949971,8.2805726 c 0.736163,0.5773859 0.818777,1.6431723 1.17158,2.4722724 0.244024,0.657429 0.59512,1.990049 0.926296,2.221193 0.170509,-0.79696 -0.363127,-1.537323 -0.260657,-2.312395 0.171432,0.707314 0.627242,1.261106 1.133078,1.766251 0.299793,0.495269 0.940523,0.840529 0.358493,0.0614 C 12.336997,11.056105 11.217017,9.7064754 10.686089,8.0481152 10.402072,7.7096659 9.4999872,7.3103047 10.473548,7.6391766 c -0.136403,-1.204931 0.932936,1.7773945 0.567977,0.2183244 -0.168172,-0.4767539 -0.215678,-0.9943451 2.9e-5,-0.2508366 0.35094,1.2202897 0.730281,2.5287206 1.598865,3.4877946 -0.03695,-0.87775 -0.768974,-1.4210348 -0.641301,-2.0198848 -0.188496,-0.6099079 -0.597379,-1.3412875 -0.686486,-1.8551428 0.354943,0.595168 0.284245,0.1112377 0.113434,-0.2321921 0.612256,-0.093633 0.675648,1.3737927 1.066068,1.4129661 -0.02782,-0.3832164 -0.746816,-1.6091278 -0.434141,-1.5708196 0.547198,0.9870119 0.713112,2.2106945 1.53381,3.033097 0.296895,0.4294672 0.925448,1.2836732 0.515017,0.2800012 -0.431765,-1.1277962 -0.930117,-2.2599636 -1.812608,-3.1128912 -0.617303,-0.9476593 1.080713,1.1056731 0.463896,-0.1312717 -0.55223,-0.7050036 0.227913,-0.4616787 0.206267,0.1785532 0.09485,0.5027414 0.496927,0.9247777 0.284298,0.086197 0.0497,-0.1229144 0.562121,2.388988 0.4981,0.9532271 0.118439,-1.0142153 -0.788206,-1.5914437 -0.886852,-2.5136735 0.327852,1.0154096 0.48248,-1.0337953 0.501319,0.098763 0.01695,0.466311 0.146636,1.0223952 0.36799,0.7779881 0.156298,1.0109953 0.103232,2.0658526 0.499564,3.0280418 -0.02201,-0.5129187 -0.280868,-2.0395396 0.197676,-0.9271864 0.356836,1.2106934 0.225795,-1.050126 -0.112914,-1.4181419 0.121492,-0.688653 -0.899825,-1.3896676 -0.59139,-1.7019468 0.469134,0.2731637 0.585374,1.1891401 0.777283,1.3614241 0.144914,-0.4628414 -0.340456,-2.0722762 0.109055,-0.8639248 0.437029,1.1307851 0.200982,-0.1468203 0.110267,-0.6300527 0.286022,0.2786175 0.523901,2.0080701 0.700308,1.7195091 0.01327,-0.5071598 -0.657471,-2.0973343 0.02685,-1.0490702 0.20717,1.0160428 0.267876,2.0594691 0.380302,3.0827039 0.301756,-0.9928233 0.214138,-2.0671574 0.05085,-3.0292101 0.145475,0.7632156 0.222965,0.2709833 0.326959,-0.1265717 0.0022,0.9081602 0.190252,0.5708001 0.36868,0.3379087 0.08361,0.4655903 -0.903478,2.0918765 0.103058,1.2289116 0.476165,-0.3645621 0.03016,-1.5501381 0.344806,-1.7082979 0.202343,0.9257098 0.005,1.7133596 -0.132693,2.6604673 0.151276,0.6007778 -0.427564,1.842034 -0.03634,1.660191 -0.07161,0.938616 -0.577584,1.785587 -0.458231,2.754085 0.01098,1.427879 -0.01672,2.864571 0.1126,4.285774 0.518032,-1.060667 0.438651,-2.36011 0.74408,-3.51009 0.58389,-2.557323 0.123087,-5.1876423 0.276919,-7.7751064 0.180768,0.3328593 0.157261,1.8834958 0.37258,0.6476731 0.244638,0.7719768 -0.288513,2.0821269 -0.08606,3.0601977 0.45261,-0.5813423 0.573361,-1.4940492 0.635461,-2.2542968 -0.07394,-0.4245913 0.499095,-1.5764031 0.283397,-0.5090358 -0.180048,1.05455 -0.300463,2.1378938 -0.696868,3.1356091 0.307735,-0.1979135 0.895787,-1.742607 0.557131,-0.4990325 -0.225531,0.5918276 -0.725179,1.5655996 -0.03387,0.8655186 0.550215,-0.7619991 1.023932,-1.7288083 0.688826,-2.6811128 0.145085,-1.3586398 0.177667,1.4700966 0.421589,0.1959594 0.289521,-0.8203706 0.289955,0.4861031 -0.02442,0.720629 -0.372892,0.9255792 -0.913745,1.7973894 -1.239997,2.7340994 0.0027,0.484859 -0.143917,1.617158 0.459784,0.686131 -0.06241,1.039354 -1.222014,1.627452 -1.340805,2.608809 0.291268,-0.410253 0.758433,-1.148851 0.413884,-0.191223 0.594158,-0.593292 0.925009,-1.515562 1.306708,-2.293622 0.78716,-1.460433 0.570011,-3.2073369 1.228295,-4.7013196 -0.08033,0.4773748 -0.338879,1.6990281 0.158187,0.633199 0.137382,0.5630632 -0.802788,1.9195035 -0.503301,2.5215546 0.326058,-0.413902 1.306503,-1.4933344 0.54766,-0.453931 -0.514403,0.842279 -1.15625,1.599057 -1.47575,2.547325 -0.236633,0.785217 -1.236064,1.911093 -0.968014,2.503042 1.017546,-0.655589 1.041035,-2.041861 1.488688,-3.074191 0.413819,-0.629053 -0.653813,2.08115 0.08168,0.639803 0.732247,-1.370514 1.727721,-2.7642921 1.56734,-4.3985507 -0.01551,-0.6511029 0.195807,0.3091704 0.364844,-0.4409671 0.01222,0.4981116 -0.277997,1.7698324 0.185579,0.690081 0.103507,-0.6099996 0.710356,-0.9956625 0.282124,-0.1551347 -0.285981,0.360101 -0.373226,1.0738203 0.09613,0.3382302 0.777115,-1.1359278 0.0023,0.3839871 -0.343598,0.7458346 -0.626183,0.6737547 -0.995018,1.5875787 -1.528568,2.3637367 -0.432518,0.844256 -1.01662,1.910003 -1.219205,2.676003 0.835223,-0.610682 1.23109,-1.63591 1.92202,-2.391022 0.462126,-0.504767 0.556014,-1.361305 0.981016,-1.34918 0.424139,-0.395673 0.814138,-1.7900935 1.004567,-0.8620051 -0.653255,0.5788411 -1.389862,1.3999011 -1.619427,2.1552441 0.728829,-0.231721 1.14003,-1.235927 1.499053,-0.997581 0.502886,-0.63229 1.089854,-0.625194 1.649623,-1.0901281 -0.364196,0.9411851 -1.321086,1.3808981 -1.675305,2.3839671 -0.363775,0.614472 0.641945,-0.05644 0.0217,0.574433 -0.22455,0.461828 -0.464678,1.108568 0.221704,0.466548 0.468856,-0.549248 1.566728,-0.371229 1.912412,-1.128006 0.112973,-0.512462 0.651216,-1.379254 0.313071,-0.332237 -0.18065,0.568183 0.160633,0.536324 -0.333127,1.070786 -0.781024,1.274681 1.455212,-1.336986 0.497926,-0.01656 -0.810647,0.846913 0.825815,-0.421726 0.485776,0.258902 -0.993634,0.21707 -1.487397,1.197448 -2.272467,1.791056 -1.001436,0.812449 0.760627,0.276515 0.946555,0.250811 0.551359,0.08901 1.594982,-0.65873 1.544163,-0.142501 -0.332932,0.169967 -2.099508,0.33361 -0.838986,0.432832 0.662634,0.0061 0.284697,0.570831 -0.224233,0.167583 -0.925323,-0.298492 -1.789237,0.14041 -2.675522,0.246575 -0.623642,0.225115 -1.110134,1.239742 0.0042,0.996238 0.62864,0.156039 1.669547,0.07529 2.026063,-0.193459 -0.746073,0.616412 1.123815,0.133563 1.464876,0.301909 1.054852,0.155662 -0.545628,0.08911 -0.913279,0.149502 -0.414575,0.427297 -2.292623,0.893858 -0.893444,0.260891 0.933004,-0.371699 -0.892141,-0.180344 -1.209335,-0.272223 -0.500959,-0.36732 -2.095479,0.213597 -1.203198,0.683938 0.39517,0.318362 1.652267,0.07966 1.641545,0.107866 -0.02166,0.82647 1.545817,-0.373334 1.751761,-0.135681 -0.692926,0.242336 -0.647568,0.585653 0.09246,0.558171 0.808018,-0.22608 0.950105,0.754053 0.142176,0.224982 -1.175361,-0.160183 -2.377049,-0.170814 -3.542031,-0.444145 -0.769581,-0.160869 -2.078526,1.680547 -0.5502,1.40045 0.735824,0.218653 1.920903,-0.09932 2.405782,0.13079 -0.533422,-0.02015 -1.739066,0.127121 -0.514335,0.313118 0.331288,0.121505 1.628884,0.151044 0.634213,0.346516 0.235955,0.374168 2.013042,0.806461 0.797749,0.608216 -0.861577,-0.451628 -1.563938,-0.587547 -2.338849,-0.946806 -0.657026,-0.212135 -2.263292,-0.522569 -2.404391,0.264704 0.431012,1.029799 1.281643,1.728093 2.436292,1.294946 0.559395,-0.04684 0.03001,0.137297 0.256322,0.517096 -0.481652,-0.42018 -1.928797,-0.214996 -0.821514,0.369825 0.460785,0.136952 1.467284,1.103746 0.508908,0.415394 -0.806606,-0.601266 -0.44515,0.155872 -0.241704,0.598848 -0.613882,-0.356672 -1.046621,-1.545139 -1.610207,-1.73544 -0.151977,0.64881 0.871808,1.748588 0.694129,1.861411 -1.08892,-0.576411 -0.809228,-1.731344 -1.168354,-2.709697 -0.545384,-1.007138 -2.339031,0.844493 -1.309904,1.351527 0.140505,0.418163 1.84051,1.479875 0.665454,0.924888 -0.467638,-0.45666 -0.994402,-0.39859 -0.521655,0.299603 0.269914,0.406497 0.52215,1.325578 0.02199,0.409831 -0.297641,-0.509457 -0.790361,-2.522536 -1.289694,-1.098279 -0.370969,1.219524 -0.871086,2.706573 -0.100727,3.872751 -0.628569,0.510657 -1.746649,0.217715 -2.568728,0.183181 z m 2.109203,-4.860513 c 0.630523,-0.56263 -0.444174,-1.094308 -0.278562,-0.174984 -0.0053,0.242523 0.02259,0.68744 0.278562,0.174984 z m -2.318244,-1.379035 c 0.263833,-0.738525 -1.250956,-0.958139 -0.457644,-0.15931 0.130493,0.154637 0.599185,0.795625 0.457644,0.15931 z m 2.756102,0.149961 c -0.12978,-0.389679 -0.148526,0.394005 -1.22e-4,-7e-6 z m 1.181037,-0.543602 c 0.498454,-0.461486 1.757989,-1.289895 1.656917,-1.70446 -0.935971,0.159101 -1.78666,0.869003 -1.917728,1.828935 0.08352,0.0998 0.191653,-0.175677 0.260811,-0.124475 z m -1.518637,-0.159568 c 0.876825,-0.38312 1.140308,-1.306209 1.054024,-2.188349 -0.445333,0.17482 -1.174803,1.389137 -1.291139,2.145241 -0.08424,0.227156 0.165469,0.126673 0.237115,0.04311 z M 12.62848,19.755383 c 0.707175,-0.161935 -0.476147,-0.592236 -0.775042,-0.376174 -1.325644,0.03657 0.501212,0.508714 0.775042,0.376174 z m 1.71839,-0.103193 c 0.17865,-0.691533 -0.970136,-1.537764 -1.615164,-1.875202 -0.374621,0.403118 0.558687,1.489673 0.953576,1.871296 0.219179,0.0224 0.442624,0.03586 0.661588,0.0039 z m 0.774822,-0.484862 c -0.208553,-1.555636 -1.287817,-2.850447 -2.553747,-3.711145 -0.698323,-0.478968 -1.313513,-1.4061 -2.037019,-1.650267 0.430183,1.135214 0.895033,2.330036 1.734511,3.228783 0.712285,0.165484 -0.51974,-0.94389 -0.637595,-1.350871 -0.302573,-0.812463 0.792336,0.691914 0.943,0.967191 0.704777,0.985591 1.671434,1.754264 2.378701,2.742459 0.170802,0.275239 0.214235,-0.171759 0.172149,-0.22615 z m 3.698111,-0.271248 c 0.711727,-0.671507 2.021599,-0.76482 2.429085,-1.599607 -0.273318,-0.500888 -1.421401,0.03194 -1.780412,0.392899 -0.07891,0.224674 -1.611242,1.626217 -0.648673,1.206708 z m -1.335752,-1.33843 c 0.469872,-0.586642 1.194537,-1.382334 1.007483,-2.136246 -0.632894,0.572019 -1.138763,1.411177 -1.156175,2.259632 l 0.148702,-0.123377 z m -2.289475,-0.357539 c 0.02875,-1.082464 -0.420628,-2.328589 -1.643647,-2.508336 -0.941721,-0.274855 0.37754,1.03944 0.514998,1.399981 0.344045,0.395604 0.884239,1.451946 1.153934,1.403294 l -0.0096,-0.134585 -0.01569,-0.160373 z m 6.156506,-0.363287 c 0.103472,-0.523099 0.862069,-1.862025 0.356615,-2.003441 -0.501093,0.496601 -1.132559,1.314843 -1.182625,1.923468 0.24989,0.04264 0.58958,0.259803 0.82601,0.07997 z m -1.579375,-0.263712 c 0.710614,0.143633 1.346059,-1.457592 0.874396,-1.635163 -0.551725,0.369371 -1.245659,1.179386 -1.309145,1.659709 0.143901,-0.02194 0.289638,-0.02295 0.434749,-0.02454 z m -0.643712,-0.722361 c 0.867425,-0.637913 1.734791,-1.347433 2.182271,-2.354879 0.295525,-0.411509 1.181314,-2.070626 0.123801,-1.102991 -0.907025,0.573919 -1.224737,1.722085 -1.987662,2.445333 -0.07924,0.11212 -0.958082,1.349153 -0.31841,1.012537 z m 3.533311,-0.476986 c 0.259435,-0.386814 0.512642,-0.437317 0.235494,0.09861 0.830012,-0.404001 1.973655,-1.730023 1.724463,-2.467617 -0.963149,0.320379 -2.038844,0.746998 -2.385663,1.792452 -0.277141,0.494612 -0.329491,1.547035 0.318682,0.694254 l 0.107002,-0.117702 z m -7.277862,-0.565059 c 0.292428,-1.138228 -0.639648,-2.099563 -1.028372,-3.098577 -0.173865,-0.770014 -2.177623,-1.7126121 -1.257541,-0.336925 0.720492,1.29538 1.440745,2.590936 2.101501,3.91829 0.153295,0.0899 0.127794,-0.408494 0.184412,-0.482788 z m -1.190805,-0.41948 c -0.550336,-0.709906 -1.258495,-1.722555 -1.940866,-2.086098 -0.243383,1.169019 0.522057,2.320588 1.800656,2.111314 l 0.110495,-0.0013 0.02971,-0.02397 z m 1.885583,-0.169903 c 0.163154,-1.539363 -0.2126,-3.078206 -0.963785,-4.4218791 -0.154316,-0.4161241 -0.392276,-1.0858036 -0.456683,-0.2462271 -0.103419,0.6251522 -0.162708,1.2768442 0.150889,1.8502282 0.165051,0.436839 0.557036,1.736369 0.552292,0.521874 0.572845,0.06151 0.315961,2.216781 0.717287,2.296004 z m 5.911526,-1.169164 c 0.295174,-0.331862 0.518931,-1.18842 0.04726,-0.354125 -0.214524,0.301395 -0.634682,1.322481 -0.128947,0.485614 l 0.08171,-0.131483 z m 1.573279,-2.082335 c -0.118585,-0.303927 -1.227598,1.067764 -0.270322,0.238215 l 0.119006,-0.09669 0.151316,-0.141531 z m -7.315802,-0.17128 c 0.05942,-0.698018 0.193724,-2.0712075 -0.06597,-2.3800321 -0.005,0.9013536 -0.394454,2.0839231 -0.0364,2.8178351 0.04925,-0.142094 0.07442,-0.290663 0.102376,-0.437803 z m -2.651606,-0.299869 c -0.5621,-0.7402343 -1.053864,-1.5342233 -1.629756,-2.2624648 -0.0039,1.0100426 0.786667,1.1322983 1.129764,1.9867918 0.09572,0.123802 0.343897,0.351682 0.499992,0.275673 z M 15.433946,9.0799894 C 15.541437,8.4357983 15.189604,6.704643 14.703492,6.8257668 c 0.04215,0.9397129 0.341971,1.7755682 0.685585,2.7019818 0.0427,-0.1454551 0.0352,-0.2984058 0.04487,-0.4477592 z m 1.245705,-0.9178148 c 0.08086,-1.1391387 -0.39543,0.6329148 -0.05644,0.2456216 l 0.02681,-0.1082634 0.02962,-0.1373582 z M 10.371722,23.703161 c 0.31707,-0.469069 0.165842,0.136308 0,0 z m 9.95719,-0.58962 c 0.171257,-0.239396 0.108243,0.22045 0,0 z m 3.065513,-2.19122 c -0.505915,-0.406226 0.374292,-0.02857 0,0 z m 2.161468,-0.350042 c -1.445313,-0.518221 1.658072,0.379578 0.23651,0.06712 l -0.115373,-0.03242 -0.121146,-0.03471 z m 0.795242,-1.971109 c 0.06028,-0.311747 0.29444,0.139559 0,0 z M 6.1406068,18.298371 c 0.00669,-0.277219 0.3065215,0.188719 0,0 z M 25.725045,17.913595 c -0.705412,-0.129766 1.498467,-0.417725 0.361789,-0.02726 -0.08366,0.165918 -0.246762,-0.0048 -0.361789,0.02726 z M 6.0731877,16.962803 c -0.6893097,-0.348823 0.8725842,0.121184 0,0 z m 19.2474943,-0.02618 c 0.370777,-0.352171 1.173157,0.175187 0.254394,0.02953 l -0.124123,-0.007 -0.130271,-0.02246 z m 0.911833,-0.881448 c 0.143965,-0.04238 0.04472,-0.02397 0,0 z M 7.9836493,15.657157 c -0.29183,-0.383339 0.5739818,0.361626 0,0 z M 6.5198989,15.499113 c -0.9871413,-0.391915 0.095484,-0.225839 0.3685521,0.07298 -0.1269191,0.01581 -0.249795,-0.03982 -0.3685521,-0.07298 z M 5.6934386,15.017691 c -0.039535,-0.216748 0.280674,0.18908 0,0 z m 1.5041345,-1.911173 c -0.3541412,-0.298009 0.3893078,0.06369 0,0 z M 23.70334,12.562611 c 0.226831,-0.491437 0.147739,-0.80354 0.444496,-0.490083 0.357004,-0.100911 -0.94883,1.500321 -0.444363,0.490072 z m -1.709145,-2.228867 c 0.08367,-0.6331507 0.430373,-0.8011962 0.09054,-0.07548 0.07534,-0.05652 -0.10714,0.180785 -0.09054,0.07548 z M 10.257313,8.3261755 c -0.2698759,-0.8337553 0.289759,0.3216381 0,0 z M 22.511704,7.8660634 c 0.07303,-0.2979725 0.167136,0.082334 -2e-6,-9.8e-6 z M 12.364671,6.3582018 c -0.306388,-0.5120411 0.341462,0.3620995 0,0 z"/>
</svg>
