<svg xmlns="http://www.w3.org/2000/svg" width="32" height="32" version="1">
 <path style="opacity:0.2" d="M 30,13.5 C 30,19.29899 23.955844,31 16.5,31 9.0441561,31 3,19.29899 3,13.5 3,7.7010103 6.5173909,3 16.5,3 26.482609,3 30,7.7010103 30,13.5 Z"/>
 <path style="fill:#2c5771" d="M 30,12.5 C 30,18.29899 23.955844,30 16.5,30 9.0441561,30 3,18.29899 3,12.5 3,6.7010103 6.5173909,2 16.5,2 26.482609,2 30,6.7010103 30,12.5 Z"/>
 <path style="opacity:0.2" d="m 14.693276,26.651396 c -0.09197,-0.191731 -0.217349,-0.553218 -0.278621,-0.803304 -0.204252,-0.833662 -0.116292,-0.752207 -0.861968,-0.798239 -1.365013,-0.08428 -2.335837,-0.594308 -3.050239,-1.602505 -0.9823356,-1.38632 -1.0291206,-3.369674 -0.136262,-5.776867 0.179888,-0.484991 0.316312,-0.891718 0.303167,-0.903839 -0.01316,-0.01212 -0.270657,-0.08369 -0.572249,-0.159049 C 8.6283585,16.240611 7.3595287,15.39413 6.6700222,14.321278 6.168651,13.541158 5.9098463,12.382105 6.028536,11.448381 6.1699163,10.336158 6.5783482,9.5758693 7.4773965,8.7513678 8.2223722,8.0681606 8.8985077,7.6742993 9.8324574,7.3794999 11.628694,6.8125192 13.668046,6.8833856 15.460315,7.5750636 c 0.995078,0.384025 2.209335,1.159797 2.789013,1.7818657 0.155724,0.1671114 0.326373,0.3038385 0.379221,0.3038385 0.05285,0 0.417462,-0.1485885 0.810246,-0.3301978 2.013977,-0.931185 4.233871,-1.54923 5.564528,-1.54923 0.471229,0 1.106396,0.1623628 1.406906,0.3596335 0.479994,0.3151008 0.703739,1.0331872 0.532697,1.7096515 -0.123237,0.487391 -0.550676,1.20184 -1.026849,1.716339 -1.778103,1.921217 -6.0998,4.044236 -9.824078,4.826049 -0.750613,0.157572 -2.328985,0.395159 -2.893494,0.435547 -0.212294,0.01519 -0.246582,0.04706 -0.441575,0.410543 -0.30426,0.56715 -0.717058,1.768752 -0.910997,2.651794 -0.299519,1.363762 -0.284347,2.573972 0.04236,3.378985 0.175338,0.432044 0.686787,0.949967 1.133312,1.147664 0.398711,0.176527 1.014596,0.292719 1.074887,0.202787 0.02206,-0.0329 0.03439,-0.504584 0.02744,-1.048206 -0.02915,-2.282453 0.65292,-3.930222 2.18757,-5.28458 0.902203,-0.796213 1.81345,-1.144044 2.871263,-1.095992 1.187126,0.05394 1.920091,0.651382 2.104463,1.715389 0.21946,1.266502 -0.452047,2.63067 -1.959615,3.980966 -1.230938,1.102527 -2.597776,1.79007 -4.09052,2.057606 -0.235101,0.04214 -0.46756,0.104488 -0.516585,0.13856 -0.118967,0.08269 -0.05392,0.609109 0.158886,1.286176 C 15.065724,26.963029 15.069878,27 14.950164,27 c -0.04931,0 -0.164912,-0.156871 -0.256882,-0.348604 z m 1.025701,-2.163232 c 1.23943,-0.289858 2.313821,-0.862032 3.344625,-1.781206 1.242963,-1.108353 1.828966,-2.152894 1.828966,-3.260097 0,-0.701385 -0.251517,-1.183135 -0.756252,-1.448507 -0.350118,-0.18408 -0.603474,-0.220218 -1.06365,-0.151723 -0.620524,0.09236 -1.26684,0.426168 -1.853804,0.957443 -1.102117,0.997553 -1.997262,2.498146 -2.402177,4.02693 -0.168969,0.637957 -0.286464,1.621384 -0.207748,1.738805 0.06972,0.104008 0.42927,0.07756 1.11004,-0.08164 z m 0.734708,-9.095227 c 3.333558,-0.46643 6.797977,-1.893941 8.716536,-3.591639 1.042587,-0.922569 1.51136,-1.671536 1.507891,-2.4091973 -0.0024,-0.567225 -0.41942,-1.1032321 -0.966733,-1.243355 -0.62074,-0.1589214 -1.66497,-0.046357 -2.807513,0.3026435 -1.08018,0.3299501 -3.72109,1.6175418 -3.72109,1.8142408 0,0.03486 0.21797,0.397281 0.484375,0.805383 0.657672,1.007479 0.845461,1.361883 0.796691,1.503553 -0.02227,0.06464 -0.06543,0.117536 -0.09593,0.117536 -0.09993,0 -0.355509,-0.326846 -0.823107,-1.052612 -0.253009,-0.39269 -0.54394,-0.807854 -0.64652,-0.922586 l -0.186518,-0.208605 -0.208379,0.134115 c -1.111835,0.715575 -2.988521,2.356128 -3.726292,3.257423 -0.458774,0.560461 -1.11826,1.503841 -1.11826,1.599646 0,0.0846 1.963658,0.0098 2.794853,-0.106546 z M 12.202286,14.698 C 13.762322,12.83859 15.414114,11.507441 18.052798,9.9831771 18.248826,9.8699378 18.224814,9.84306 17.36188,9.2098899 16.22214,8.3736143 15.291007,7.9285693 14.110159,7.6556907 13.332975,7.4760935 11.742304,7.4293513 10.916921,7.5618536 8.9733547,7.8738657 7.3777223,8.945505 6.8460473,10.295882 c -0.6711713,1.70468 0.2403705,3.538626 2.2095006,4.445332 0.6742555,0.310468 1.9024041,0.664645 2.3389811,0.674523 0.181888,0.0041 0.261409,-0.06654 0.807757,-0.717737 z"/>
 <path style="fill:#8b9cbe" d="m 14.693276,25.651396 c -0.09197,-0.191731 -0.217349,-0.553218 -0.278621,-0.803304 -0.204252,-0.833662 -0.116292,-0.752207 -0.861968,-0.798239 -1.365013,-0.08428 -2.335837,-0.594308 -3.050239,-1.602505 -0.9823356,-1.38632 -1.0291206,-3.369674 -0.136262,-5.776867 0.179888,-0.484991 0.316312,-0.891718 0.303167,-0.903839 -0.01316,-0.01212 -0.270657,-0.08369 -0.572249,-0.159049 C 8.6283585,15.240611 7.3595287,14.39413 6.6700222,13.321278 6.168651,12.541158 5.9098463,11.382105 6.028536,10.448381 6.1699163,9.3361578 6.5783482,8.5758693 7.4773965,7.7513678 8.2223722,7.0681606 8.8985077,6.6742993 9.8324574,6.3794999 11.628694,5.8125192 13.668046,5.8833856 15.460315,6.5750636 c 0.995078,0.384025 2.209335,1.159797 2.789013,1.7818657 0.155724,0.1671114 0.326373,0.3038385 0.379221,0.3038385 0.05285,0 0.417462,-0.1485885 0.810246,-0.3301978 2.013977,-0.931185 4.233871,-1.54923 5.564528,-1.54923 0.471229,0 1.106396,0.1623628 1.406906,0.3596335 0.479994,0.3151008 0.703739,1.0331872 0.532697,1.7096515 -0.123237,0.4873914 -0.550676,1.20184 -1.026849,1.716339 -1.778103,1.921217 -6.0998,4.044236 -9.824078,4.826049 -0.750613,0.157572 -2.328985,0.395159 -2.893494,0.435547 -0.212294,0.01519 -0.246582,0.04706 -0.441575,0.410543 -0.30426,0.56715 -0.717058,1.768752 -0.910997,2.651794 -0.299519,1.363762 -0.284347,2.573972 0.04236,3.378985 0.175338,0.432044 0.686787,0.949967 1.133312,1.147664 0.398711,0.176527 1.014596,0.292719 1.074887,0.202787 0.02206,-0.0329 0.03439,-0.504584 0.02744,-1.048206 -0.02915,-2.282453 0.65292,-3.930222 2.18757,-5.28458 0.902203,-0.796213 1.81345,-1.144044 2.871263,-1.095992 1.187126,0.05394 1.920091,0.651382 2.104463,1.715389 0.21946,1.266502 -0.452047,2.63067 -1.959615,3.980966 -1.230938,1.102527 -2.597776,1.79007 -4.09052,2.057606 -0.235101,0.04214 -0.46756,0.104488 -0.516585,0.13856 -0.118967,0.08269 -0.05392,0.609109 0.158886,1.286176 C 15.065724,25.963029 15.069878,26 14.950164,26 c -0.04931,0 -0.164912,-0.156871 -0.256882,-0.348604 z m 1.025701,-2.163232 c 1.23943,-0.289858 2.313821,-0.862032 3.344625,-1.781206 1.242963,-1.108353 1.828966,-2.152894 1.828966,-3.260097 0,-0.701385 -0.251517,-1.183135 -0.756252,-1.448507 -0.350118,-0.18408 -0.603474,-0.220218 -1.06365,-0.151723 -0.620524,0.09236 -1.26684,0.426168 -1.853804,0.957443 -1.102117,0.997553 -1.997262,2.498146 -2.402177,4.02693 -0.168969,0.637957 -0.286464,1.621384 -0.207748,1.738805 0.06972,0.104008 0.42927,0.07756 1.11004,-0.08164 z m 0.734708,-9.095227 c 3.333558,-0.46643 6.797977,-1.893941 8.716536,-3.591639 1.042587,-0.9225685 1.51136,-1.6715359 1.507891,-2.4091973 -0.0024,-0.567225 -0.41942,-1.1032321 -0.966733,-1.243355 -0.62074,-0.1589214 -1.66497,-0.046357 -2.807513,0.3026435 -1.08018,0.3299501 -3.72109,1.6175422 -3.72109,1.8142408 0,0.034864 0.21797,0.3972814 0.484375,0.805383 0.657672,1.007479 0.845461,1.361883 0.796691,1.503553 -0.02227,0.06464 -0.06543,0.117536 -0.09593,0.117536 -0.09993,0 -0.355509,-0.326846 -0.823107,-1.052612 -0.253009,-0.39269 -0.54394,-0.8078537 -0.64652,-0.9225857 l -0.186518,-0.208605 -0.208379,0.134115 c -1.111835,0.7155747 -2.988521,2.3561277 -3.726292,3.2574227 -0.458774,0.560461 -1.11826,1.503841 -1.11826,1.599646 0,0.0846 1.963658,0.0098 2.794853,-0.106546 z M 12.202286,13.698 C 13.762322,11.83859 15.414114,10.507441 18.052798,8.9831771 18.248826,8.8699378 18.224814,8.84306 17.36188,8.2098899 16.22214,7.3736143 15.291007,6.9285693 14.110159,6.6556907 13.332975,6.4760935 11.742304,6.4293513 10.916921,6.5618536 8.9733547,6.8738657 7.3777223,7.945505 6.8460473,9.2958821 6.174876,11.000562 7.0864178,12.834508 9.0555479,13.741214 c 0.6742555,0.310468 1.9024041,0.664645 2.3389811,0.674523 0.181888,0.0041 0.261409,-0.06654 0.807757,-0.717737 z"/>
 <path style="opacity:0.1;fill:#8b9cbe" d="M 16.5 2 C 6.5173909 2 3 6.7010103 3 12.5 C 3 12.621016 3.0182152 12.758769 3.0234375 12.884766 C 3.269878 7.3735954 6.8747218 3 16.5 3 C 26.125278 3 29.730122 7.3735954 29.976562 12.884766 C 29.981785 12.758769 30 12.621016 30 12.5 C 30 6.7010103 26.482609 2 16.5 2 z"/>
</svg>
