<svg xmlns="http://www.w3.org/2000/svg" width="32" height="32" version="1.1">
 <path style="opacity:0.2" d="M 16,3 A 14,14 0 0 0 2,17 14,14 0 0 0 16,31 14,14 0 0 0 30,17 14,14 0 0 0 16,3 Z"/>
 <path style="fill:#5ca742" d="M 16,2 A 14,14 0 0 0 2,16 14,14 0 0 0 16,30 14,14 0 0 0 30,16 14,14 0 0 0 16,2 Z"/>
 <g style="opacity:0.2" transform="translate(0,1)">
  <path d="m 16,5 a 6,6 0 0 0 -6,6 6,6 0 0 0 6,6 6,6 0 0 0 6,-6 6,6 0 0 0 -6,-6 z m 0,1 a 2.9999997,2.9999997 0 0 1 3,3 2.9999997,2.9999997 0 0 1 -3,3 2.9999997,2.9999997 0 0 1 -3,-3 2.9999997,2.9999997 0 0 1 3,-3 z"/>
  <path d="m 13,15 v 9.933594 L 16,27 19,24.933594 v -0.867188 l 1,-1 -1,-1 V 21 L 21,19.5 19,18 v -3 z m 1,3 h 1 v 6 h -1 z"/>
 </g>
 <g>
  <path style="fill:#8b9cbe" d="M 16 5 A 6 6 0 0 0 10 11 A 6 6 0 0 0 16 17 A 6 6 0 0 0 22 11 A 6 6 0 0 0 16 5 z M 16 6 A 2.9999997 2.9999997 0 0 1 19 9 A 2.9999997 2.9999997 0 0 1 16 12 A 2.9999997 2.9999997 0 0 1 13 9 A 2.9999997 2.9999997 0 0 1 16 6 z"/>
  <path style="fill:#8b9cbe" d="M 13 15 L 13 24.933594 L 16 27 L 19 24.933594 L 19 24.066406 L 20 23.066406 L 19 22.066406 L 19 21 L 21 19.5 L 19 18 L 19 15 L 13 15 z M 14 18 L 15 18 L 15 24 L 14 24 L 14 18 z"/>
 </g>
 <path style="fill:#8b9cbe;opacity:0.2" d="M 16 2 A 14 14 0 0 0 2 16 A 14 14 0 0 0 2.0214844 16.414062 A 14 14 0 0 1 16 3 A 14 14 0 0 1 29.978516 16.585938 A 14 14 0 0 0 30 16 A 14 14 0 0 0 16 2 z"/>
</svg>
