<svg xmlns="http://www.w3.org/2000/svg" width="32" height="32" version="1">
 <path style="opacity:0.2" d="m 17.223352,3.0003686 c -0.24185,-0.0014 -0.336119,0.190218 -0.826763,1.6834998 l -0.487441,1.4836569 -0.745158,0.06734 c -0.40983,0.03703 -0.882336,0.095788 -1.050028,0.130634 -0.221697,0.04606 -0.32512,0.04655 -0.379034,0.0014 -0.04077,-0.03388 -0.386012,-0.593495 -0.767255,-1.2436199 -0.761899,-1.2992489 -0.918144,-1.5070929 -1.132394,-1.5070929 -0.225158,0 -1.73323,0.600852 -1.8430997,0.734328 -0.053914,0.06552 -0.097283,0.198198 -0.096373,0.2950009 6.993e-4,0.096803 0.1362877,0.80682 0.3008197,1.5777159 0.164539,0.7709029 0.289393,1.4268735 0.277415,1.4577085 -0.01196,0.0308 -0.19146,0.161644 -0.398837,0.2907309 -0.207376,0.129087 -0.5827796,0.400309 -0.8342035,0.602707 -0.2514162,0.202398 -0.4810428,0.3680389 -0.5103007,0.3680389 -0.029232,0 -0.6174363,-0.3187659 -1.307086,-0.7083789 C 6.0055805,7.4329368 5.9376462,7.4024378 5.7375989,7.4785768 c -0.2161313,0.082257 -1.276137,1.4285248 -1.276137,1.6207518 0,0.208334 0.050694,0.274407 1.1321778,1.4777494 0.5170626,0.575301 0.9400941,1.086679 0.9400941,1.136421 0,0.0497 -0.1096389,0.31073 -0.2436126,0.579929 -0.1339735,0.269199 -0.311847,0.670481 -0.3953332,0.891793 -0.083486,0.221305 -0.1829645,0.428358 -0.2210746,0.460019 -0.042588,0.03542 -0.6665953,0.06391 -1.6195073,0.07414 -1.9118034,0.02051 -1.7437124,-0.0726 -1.9239358,1.065351 -0.06979,0.440769 -0.1283513,0.868007 -0.1300642,0.949389 -0.0063,0.303191 0.1226309,0.371049 1.6784697,0.883365 l 1.4812334,0.487725 0.06566,0.727755 c 0.036155,0.400246 0.092884,0.875021 0.1261274,1.055061 0.033285,0.180047 0.046641,0.349762 0.029792,0.377132 -0.016919,0.02737 -0.589892,0.381045 -1.2733958,0.786009 -0.68351,0.40497 -1.2994778,0.797376 -1.3687896,0.871975 -0.0693,0.07461 -0.1260161,0.202209 -0.1260161,0.283612 0,0.238147 0.6107863,1.741971 0.7460326,1.836807 0.1768179,0.12397 0.3298183,0.105805 1.8577557,-0.220542 0.7697871,-0.164416 1.4250681,-0.28812 1.4561922,-0.274855 0.031115,0.0133 0.1622102,0.193088 0.2914148,0.399581 0.1291976,0.206486 0.4025637,0.58443 0.6074369,0.839776 0.2549126,0.317723 0.36123,0.493703 0.3366992,0.557697 -0.019719,0.05145 -0.3367902,0.628271 -0.7045793,1.281847 -0.7538292,1.339604 -0.7966321,1.432823 -0.7474522,1.628963 0.050281,0.200592 1.4372489,1.309399 1.637227,1.308895 0.2062571,-5.18e-4 0.3043369,-0.0757 1.4602342,-1.120875 0.5626968,-0.508795 1.0655508,-0.932428 1.1174088,-0.941395 0.05188,-0.009 0.320245,0.09555 0.5965,0.232365 0.276254,0.136815 0.697643,0.317793 0.936374,0.402094 0.238732,0.08429 0.439017,0.156268 0.445101,0.159985 0.0063,0.0035 0.02496,0.731507 0.04203,1.617245 0.03804,1.978024 -0.05328,1.805628 1.05167,1.984527 0.830308,0.134428 1.158113,0.134785 1.291339,0.0014 0.04643,-0.04648 0.302645,-0.748607 0.569263,-1.560201 l 0.484701,-1.475551 0.557228,-0.04291 c 0.306505,-0.02359 0.784164,-0.08021 1.061405,-0.125818 0.501867,-0.08257 0.504525,-0.08236 0.608422,0.04291 0.05741,0.06923 0.415717,0.655641 0.796352,1.303197 0.380635,0.647556 0.746047,1.221528 0.811995,1.275491 0.18058,0.147762 0.309917,0.124928 1.182064,-0.208166 0.831749,-0.317674 0.997966,-0.433489 0.997406,-0.695128 -1.68e-4,-0.08138 -0.136442,-0.791084 -0.302896,-1.57717 C 21.634156,27.050837 21.51,26.38807 21.524727,26.364214 c 0.01476,-0.02387 0.207712,-0.165627 0.428919,-0.315147 0.221201,-0.14952 0.591249,-0.426706 0.822274,-0.615846 0.231033,-0.18914 0.443241,-0.34391 0.471582,-0.343945 0.02832,-4.2e-5 0.63322,0.324135 1.34417,0.720419 1.453436,0.810131 1.445199,0.806393 1.63745,0.758086 0.204565,-0.05138 1.307415,-1.439249 1.307415,-1.64528 0,-0.192745 -0.04664,-0.252868 -1.146505,-1.478729 -0.493798,-0.550368 -0.905572,-1.046241 -0.91504,-1.102038 -0.0095,-0.05579 0.08526,-0.305452 0.210467,-0.554743 0.125205,-0.249291 0.304995,-0.648963 0.399487,-0.888181 0.09449,-0.239218 0.196327,-0.460173 0.226327,-0.491008 0.03244,-0.03332 0.68844,-0.06741 1.618633,-0.0841 1.49233,-0.02674 1.569411,-0.03339 1.68098,-0.145201 0.09158,-0.09177 0.146323,-0.298438 0.252577,-0.95312 0.07462,-0.45976 0.136072,-0.889994 0.136519,-0.955955 0.0021,-0.266504 -0.157882,-0.347704 -1.679344,-0.853251 l -1.484191,-0.493094 -0.06315,-0.724577 c -0.03476,-0.398496 -0.09117,-0.872543 -0.125359,-1.053423 -0.0342,-0.18088 -0.04818,-0.35147 -0.03105,-0.379211 0.01714,-0.02772 0.590228,-0.38101 1.273508,-0.785022 0.68328,-0.404012 1.299044,-0.796124 1.368349,-0.871318 0.0693,-0.07519 0.126016,-0.199682 0.126016,-0.276717 0,-0.220913 -0.601388,-1.720271 -0.733998,-1.83001 -0.168482,-0.139418 -0.284471,-0.128169 -1.623884,0.15757 -1.57267,0.33551 -1.657478,0.350833 -1.715112,0.310884 -0.02699,-0.01869 -0.169861,-0.217504 -0.317554,-0.441847 -0.147687,-0.224342 -0.417326,-0.590169 -0.599228,-0.812951 -0.181902,-0.2227755 -0.330755,-0.4278964 -0.330797,-0.4557494 -3.5e-5,-0.02786 0.324846,-0.63336 0.722082,-1.3455749 0.397229,-0.7122079 0.73811,-1.3483755 0.757514,-1.4136855 0.06713,-0.225918 -0.07419,-0.4014919 -0.778625,-0.9671269 -0.750718,-0.6028049 -0.882558,-0.6570269 -1.150666,-0.4730529 -0.07616,0.05229 -0.608933,0.5190079 -1.183917,1.0372109 -0.57499,0.5182029 -1.085837,0.9422705 -1.135247,0.9422705 -0.04944,0 -0.309854,-0.110229 -0.578774,-0.244958 -0.268919,-0.1347226 -0.652791,-0.3022886 -0.853021,-0.3723096 -0.586612,-0.205142 -0.560061,-0.119084 -0.560292,-1.8138048 -1.89e-4,-1.3471989 -0.009,-1.4797439 -0.107961,-1.6423258 -0.06489,-0.10654 -0.17058,-0.190239 -0.26582,-0.210469 -0.242025,-0.05138 -1.602124,-0.256221 -1.706029,-0.256893 z"/>
 <path style="fill:#959dbd" d="m 17.223352,2.0003746 c -0.24185,-0.0014 -0.336119,0.190218 -0.826763,1.6834998 l -0.487441,1.4836569 -0.745158,0.06734 c -0.40983,0.03703 -0.882336,0.095788 -1.050028,0.130634 -0.221697,0.04606 -0.32512,0.04655 -0.379034,0.0014 -0.04077,-0.03388 -0.386012,-0.593495 -0.767255,-1.2436199 -0.761899,-1.2992489 -0.918144,-1.5070929 -1.132394,-1.5070929 -0.225158,0 -1.73323,0.600852 -1.8430997,0.734328 -0.053914,0.06552 -0.097283,0.198198 -0.096373,0.2950009 6.993e-4,0.096803 0.1362877,0.80682 0.3008197,1.5777159 0.164539,0.7709029 0.289393,1.4268735 0.277415,1.4577085 -0.01196,0.0308 -0.19146,0.161644 -0.398837,0.2907309 -0.207376,0.129087 -0.5827796,0.400309 -0.8342035,0.602707 -0.2514162,0.202398 -0.4810428,0.3680389 -0.5103007,0.3680389 -0.029232,0 -0.6174363,-0.3187659 -1.307086,-0.7083789 C 6.0055805,6.4329428 5.9376462,6.4024438 5.7375989,6.4785828 c -0.2161313,0.082257 -1.276137,1.4285248 -1.276137,1.6207518 0,0.208334 0.050694,0.274407 1.1321778,1.4777489 0.5170626,0.5753015 0.9400941,1.0866795 0.9400941,1.1364215 0,0.0497 -0.1096389,0.31073 -0.2436126,0.579929 -0.1339735,0.269199 -0.311847,0.670481 -0.3953332,0.891793 -0.083486,0.221305 -0.1829645,0.428358 -0.2210746,0.460019 -0.042588,0.03542 -0.6665953,0.06391 -1.6195073,0.07414 -1.9118034,0.02051 -1.7437124,-0.0726 -1.9239358,1.065351 -0.06979,0.440769 -0.1283513,0.868007 -0.1300642,0.949389 -0.0063,0.303191 0.1226309,0.371049 1.6784697,0.883365 l 1.4812334,0.487725 0.06566,0.727755 c 0.036155,0.400246 0.092884,0.875021 0.1261274,1.055061 0.033285,0.180047 0.046641,0.349762 0.029792,0.377132 -0.016919,0.02737 -0.589892,0.381045 -1.2733958,0.786009 -0.68351,0.40497 -1.2994778,0.797376 -1.3687896,0.871975 -0.0693,0.07461 -0.1260161,0.202209 -0.1260161,0.283612 0,0.238147 0.6107863,1.741971 0.7460326,1.836807 0.1768179,0.12397 0.3298183,0.105805 1.8577557,-0.220542 0.7697871,-0.164416 1.4250681,-0.28812 1.4561922,-0.274855 0.031115,0.0133 0.1622102,0.193088 0.2914148,0.399581 0.1291976,0.206486 0.4025637,0.58443 0.6074369,0.839776 0.2549126,0.317723 0.36123,0.493703 0.3366992,0.557697 -0.019719,0.05145 -0.3367902,0.628271 -0.7045793,1.281847 -0.7538292,1.339604 -0.7966321,1.432823 -0.7474522,1.628963 0.050281,0.200592 1.4372489,1.309399 1.637227,1.308895 0.2062571,-5.18e-4 0.3043369,-0.0757 1.4602342,-1.120875 0.5626968,-0.508795 1.0655508,-0.932428 1.1174088,-0.941395 0.05188,-0.009 0.320245,0.09555 0.5965,0.232365 0.276254,0.136815 0.697643,0.317793 0.936374,0.402094 0.238732,0.08429 0.439017,0.156268 0.445101,0.159985 0.0063,0.0035 0.02496,0.731507 0.04203,1.617245 0.03804,1.978024 -0.05328,1.805628 1.05167,1.984527 0.830308,0.134428 1.158113,0.134785 1.291339,0.0014 0.04643,-0.04648 0.302645,-0.748607 0.569263,-1.560201 l 0.484701,-1.475551 0.557228,-0.04291 c 0.306505,-0.02359 0.784164,-0.08021 1.061405,-0.125818 0.501867,-0.08257 0.504525,-0.08236 0.608422,0.04291 0.05741,0.06923 0.415717,0.655641 0.796352,1.303197 0.380635,0.647556 0.746047,1.221528 0.811995,1.275491 0.18058,0.147762 0.309917,0.124928 1.182064,-0.208166 0.831749,-0.317674 0.997966,-0.433489 0.997406,-0.695128 -1.68e-4,-0.08138 -0.136442,-0.791084 -0.302896,-1.57717 C 21.634156,26.050843 21.51,25.388076 21.524727,25.36422 c 0.01476,-0.02387 0.207712,-0.165627 0.428919,-0.315147 0.221201,-0.14952 0.591249,-0.426706 0.822274,-0.615846 0.231033,-0.18914 0.443241,-0.34391 0.471582,-0.343945 0.02832,-4.2e-5 0.63322,0.324135 1.34417,0.720419 1.453436,0.810131 1.445199,0.806393 1.63745,0.758086 0.204565,-0.05138 1.307415,-1.439249 1.307415,-1.64528 0,-0.192745 -0.04664,-0.252868 -1.146505,-1.478729 -0.493798,-0.550368 -0.905572,-1.046241 -0.91504,-1.102038 -0.0095,-0.05579 0.08526,-0.305452 0.210467,-0.554743 0.125205,-0.249291 0.304995,-0.648963 0.399487,-0.888181 0.09449,-0.239218 0.196327,-0.460173 0.226327,-0.491008 0.03244,-0.03332 0.68844,-0.06741 1.618633,-0.0841 1.49233,-0.02674 1.569411,-0.03339 1.68098,-0.145201 0.09158,-0.09177 0.146323,-0.298438 0.252577,-0.95312 0.07462,-0.45976 0.136072,-0.889994 0.136519,-0.955955 0.0021,-0.266504 -0.157882,-0.347704 -1.679344,-0.853251 l -1.484191,-0.493094 -0.06315,-0.724577 c -0.03476,-0.398496 -0.09117,-0.872543 -0.125359,-1.053423 -0.0342,-0.18088 -0.04818,-0.35147 -0.03105,-0.379211 0.01714,-0.02772 0.590228,-0.38101 1.273508,-0.785022 0.68328,-0.404012 1.299044,-0.796124 1.368349,-0.871318 0.0693,-0.07519 0.126016,-0.199682 0.126016,-0.276717 0,-0.220913 -0.601388,-1.720271 -0.733998,-1.83001 -0.168482,-0.1394185 -0.284471,-0.1281695 -1.623884,0.15757 -1.57267,0.33551 -1.657478,0.350833 -1.715112,0.310884 -0.02699,-0.01869 -0.169861,-0.217504 -0.317554,-0.441847 C 24.846526,9.8050735 24.576887,9.4392465 24.394985,9.2164645 24.213083,8.9936895 24.06423,8.7885686 24.064188,8.7607156 c -3.5e-5,-0.02786 0.324846,-0.63336 0.722082,-1.3455749 0.397229,-0.7122079 0.73811,-1.3483755 0.757514,-1.4136855 0.06713,-0.225918 -0.07419,-0.4014919 -0.778625,-0.9671269 -0.750718,-0.6028049 -0.882558,-0.6570269 -1.150666,-0.4730529 -0.07616,0.05229 -0.608933,0.5190079 -1.183917,1.0372109 -0.57499,0.5182029 -1.085837,0.9422705 -1.135247,0.9422705 -0.04944,0 -0.309854,-0.110229 -0.578774,-0.244958 -0.268919,-0.1347226 -0.652791,-0.3022886 -0.853021,-0.3723096 -0.586612,-0.205142 -0.560061,-0.119084 -0.560292,-1.8138048 -1.89e-4,-1.3471989 -0.009,-1.4797439 -0.107961,-1.6423258 -0.06489,-0.10654 -0.17058,-0.190239 -0.26582,-0.210469 -0.242025,-0.05138 -1.602124,-0.256221 -1.706029,-0.256893 z"/>
 <path style="fill:#8b9cbe;opacity:0.2" d="M 17.222656 2 C 16.980806 1.9986 16.887128 2.190312 16.396484 3.6835938 L 15.908203 5.1679688 L 15.164062 5.234375 C 14.754233 5.271405 14.280973 5.3303884 14.113281 5.3652344 C 13.891584 5.4112944 13.788289 5.4123375 13.734375 5.3671875 C 13.693605 5.3333075 13.34804 4.7731718 12.966797 4.1230469 C 12.204898 2.823798 12.050188 2.6152344 11.835938 2.6152344 C 11.610779 2.6152344 10.102057 3.2161334 9.9921875 3.3496094 C 9.9382735 3.4151294 9.8955744 3.5496815 9.8964844 3.6464844 C 9.8967877 3.688473 9.9849298 4.1024219 10.027344 4.3300781 C 10.21049 4.1750503 11.6173 3.6152344 11.835938 3.6152344 C 12.050188 3.6152344 12.204898 3.823798 12.966797 5.1230469 C 13.34804 5.7731718 13.693605 6.3333075 13.734375 6.3671875 C 13.788289 6.4123375 13.891584 6.4112944 14.113281 6.3652344 C 14.280973 6.3303884 14.754233 6.271405 15.164062 6.234375 L 15.908203 6.1679688 L 16.396484 4.6835938 C 16.887128 3.190312 16.980806 2.9986 17.222656 3 C 17.326561 3.000672 18.687662 3.2064325 18.929688 3.2578125 C 19.024928 3.2780425 19.130423 3.3602569 19.195312 3.4667969 C 19.294273 3.6293788 19.302545 3.7621761 19.302734 5.109375 C 19.302965 6.8040958 19.276669 6.7186861 19.863281 6.9238281 C 20.063511 6.9938491 20.447878 7.1601993 20.716797 7.2949219 C 20.985717 7.4296509 21.245482 7.5410156 21.294922 7.5410156 C 21.344332 7.5410156 21.854698 7.1158592 22.429688 6.5976562 C 23.004671 6.0794532 23.539074 5.6128369 23.615234 5.5605469 C 23.883342 5.3765729 24.014907 5.4323514 24.765625 6.0351562 C 25.032341 6.2493192 25.154782 6.3698617 25.279297 6.4960938 C 25.353227 6.3550599 25.536191 6.0247667 25.542969 6.0019531 C 25.610099 5.7760351 25.47006 5.6007913 24.765625 5.0351562 C 24.014907 4.4323514 23.883342 4.3765729 23.615234 4.5605469 C 23.539074 4.6128369 23.004672 5.0794532 22.429688 5.5976562 C 21.854698 6.1158592 21.344332 6.5410156 21.294922 6.5410156 C 21.245482 6.5410156 20.985717 6.4296509 20.716797 6.2949219 C 20.447878 6.1601993 20.063511 5.9938491 19.863281 5.9238281 C 19.276669 5.7186861 19.302965 5.8040958 19.302734 4.109375 C 19.302545 2.7621761 19.294273 2.6293788 19.195312 2.4667969 C 19.130423 2.3602569 19.024928 2.2780425 18.929688 2.2578125 C 18.687662 2.2064325 17.326561 2.000672 17.222656 2 z M 5.8867188 6.4511719 C 5.8300615 6.4465024 5.7882931 6.4594809 5.7382812 6.4785156 C 5.52215 6.5607726 4.4609375 7.9073824 4.4609375 8.0996094 C 4.4609375 8.2176428 4.5392163 8.3538821 4.75 8.6132812 C 5.0795759 8.1500469 5.5928956 7.5338477 5.7382812 7.4785156 C 5.9383286 7.4023766 6.0057948 7.4332741 7.4238281 8.234375 C 8.1134778 8.623988 8.7012367 8.9433594 8.7304688 8.9433594 C 8.7597266 8.9433594 8.9888182 8.7766168 9.2402344 8.5742188 C 9.4916583 8.3718208 9.8687959 8.0997901 10.076172 7.9707031 C 10.283549 7.8416162 10.462649 7.7124406 10.474609 7.6816406 C 10.481826 7.6630619 10.377523 7.1636032 10.306641 6.8027344 C 10.232369 6.8589043 10.196315 6.8959173 10.076172 6.9707031 C 9.8687959 7.0997901 9.4916583 7.3718208 9.2402344 7.5742188 C 8.9888182 7.7766167 8.7597266 7.9433594 8.7304688 7.9433594 C 8.7012367 7.9433594 8.1134778 7.623988 7.4238281 7.234375 C 6.3603032 6.6335493 6.0566905 6.4651802 5.8867188 6.4511719 z M 24.373047 9.1875 C 24.274603 9.3727165 24.064438 9.7478936 24.064453 9.7597656 C 24.064495 9.7876186 24.212629 9.9940214 24.394531 10.216797 C 24.576433 10.439579 24.846454 10.804955 24.994141 11.029297 C 25.141834 11.25364 25.28551 11.452013 25.3125 11.470703 C 25.370134 11.510652 25.454674 11.495666 27.027344 11.160156 C 28.366757 10.874417 28.481909 10.862535 28.650391 11.001953 C 28.732654 11.070029 28.986243 11.661443 29.173828 12.162109 C 29.182048 12.155208 29.253573 12.113975 29.257812 12.109375 C 29.327112 12.034185 29.384766 11.909066 29.384766 11.832031 C 29.384766 11.611118 28.783001 10.111692 28.650391 10.001953 C 28.481909 9.8625346 28.366757 9.8744167 27.027344 10.160156 C 25.454674 10.495666 25.370134 10.510652 25.3125 10.470703 C 25.28551 10.452013 25.141834 10.25364 24.994141 10.029297 C 24.846454 9.8049544 24.576433 9.4395789 24.394531 9.2167969 C 24.382809 9.2024411 24.384463 9.2016664 24.373047 9.1875 z M 6.2539062 11.375 C 6.126002 11.639083 5.9703215 11.984636 5.8945312 12.185547 C 5.8110453 12.406852 5.7119382 12.61287 5.6738281 12.644531 C 5.6312401 12.679951 5.0075995 12.70852 4.0546875 12.71875 C 2.1428841 12.73926 2.3110828 12.647205 2.1308594 13.785156 C 2.0610694 14.225925 2.0017129 14.652993 2 14.734375 C 1.9979594 14.832581 2.0332853 14.906589 2.1035156 14.978516 C 2.11642 14.892623 2.1166361 14.874986 2.1308594 14.785156 C 2.3110828 13.647205 2.1428841 13.73926 4.0546875 13.71875 C 5.0075995 13.70852 5.6312401 13.679951 5.6738281 13.644531 C 5.7119382 13.61287 5.8110453 13.406852 5.8945312 13.185547 C 5.9780174 12.964235 6.1570421 12.562168 6.2910156 12.292969 C 6.4249893 12.02377 6.5332031 11.762591 6.5332031 11.712891 C 6.5332031 11.698104 6.3200295 11.460928 6.2539062 11.375 z M 26.714844 14.705078 C 26.70717 14.710924 26.618504 14.763496 26.617188 14.765625 C 26.600058 14.793366 26.614238 14.963651 26.648438 15.144531 C 26.682626 15.325411 26.738678 15.800723 26.773438 16.199219 L 26.835938 16.923828 L 28.320312 17.416016 C 29.349573 17.758015 29.734233 17.904531 29.888672 18.046875 C 29.944069 17.691049 29.999636 17.323218 30 17.269531 C 30.0021 17.003027 29.841774 16.921563 28.320312 16.416016 L 26.835938 15.923828 L 26.773438 15.199219 C 26.757152 15.012515 26.736122 14.88703 26.714844 14.705078 z M 5.2832031 18.326172 C 5.1911549 18.396216 4.7384293 18.67692 4.1074219 19.050781 C 3.4239119 19.455751 2.8095462 19.849229 2.7402344 19.923828 C 2.6709344 19.998438 2.6132812 20.125628 2.6132812 20.207031 C 2.6132812 20.295646 2.7071438 20.571746 2.8203125 20.873047 C 2.944204 20.768808 3.4638657 20.432079 4.1074219 20.050781 C 4.7909257 19.645817 5.3639404 19.292995 5.3808594 19.265625 C 5.3977084 19.238255 5.3848475 19.068719 5.3515625 18.888672 C 5.3338626 18.792812 5.3075685 18.533402 5.2832031 18.326172 z M 25.742188 21.662109 C 25.722769 21.702339 25.70319 21.751982 25.685547 21.787109 C 25.56034 22.0364 25.465109 22.286007 25.474609 22.341797 C 25.484077 22.397594 25.896827 22.892991 26.390625 23.443359 C 26.866819 23.974105 27.079158 24.220843 27.242188 24.419922 C 27.405545 24.190841 27.537109 23.988597 27.537109 23.921875 C 27.537109 23.72913 27.49049 23.66922 26.390625 22.443359 C 26.040682 22.053327 25.89575 21.860172 25.742188 21.662109 z M 7.625 23.861328 C 7.4940688 24.101341 7.4248257 24.236453 7.2050781 24.626953 C 6.4512489 25.966557 6.4078513 26.059719 6.4570312 26.255859 C 6.4696015 26.306007 6.5648545 26.412771 6.7050781 26.544922 C 6.8207094 26.322225 6.9268018 26.121468 7.2050781 25.626953 C 7.5728672 24.973377 7.8884841 24.397153 7.9082031 24.345703 C 7.9303279 24.287986 7.8287751 24.12307 7.625 23.861328 z M 21.689453 26.242188 C 21.639702 26.2799 21.53106 26.354113 21.525391 26.363281 C 21.510664 26.387137 21.634326 27.051805 21.800781 27.837891 C 21.890921 28.263577 21.909227 28.398168 21.964844 28.691406 C 22.059773 28.607437 22.10375 28.523649 22.103516 28.414062 C 22.103348 28.332683 21.967235 27.623977 21.800781 26.837891 C 21.733536 26.520325 21.736524 26.485508 21.689453 26.242188 z"/>
 <circle style="opacity:0.2" cx="16" cy="16" r="8"/>
 <path style="opacity:0.1" d="m 21.007407,2.9995166 c -1.429629,0 -3.007407,0 -3.007407,1.4296296 V 12.482626 C 17.330384,12.162233 16.746019,11.994843 16.003703,11.992587 13.240234,11.992587 11,14.232821 11,16.99629 c 0,2.763469 2.240234,5.003704 5.003703,5.003704 2.76347,0 5.003704,-2.240234 5.003704,-5.003704 -0.001,-0.05122 -0.0029,-0.102414 -0.0055,-0.153574 0.001,-0.02115 0.0047,-0.04161 0.0055,-0.06283 0.01716,-2.691777 0,-5.119689 0,-7.8231181 0,-3.8128222 4.288888,1.1908931 5.003704,1.9057071 0,-1.9064106 0,-7.8629624 -5.003704,-7.8629624 z"/>
 <path style="fill:#1d63c9" d="m 21.007407,1.9995226 c -1.429629,0 -3.007407,0 -3.007407,1.4296296 V 11.482632 C 17.330384,11.162239 16.746019,10.994849 16.003703,10.992593 13.240234,10.992593 11,13.232827 11,15.996296 11,18.759765 13.240234,21 16.003703,21 c 2.76347,0 5.003704,-2.240234 5.003704,-5.003704 -0.001,-0.05122 -0.0029,-0.102414 -0.0055,-0.153574 0.001,-0.02115 0.0047,-0.04161 0.0055,-0.06283 0.01716,-2.691777 0,-5.119689 0,-7.8231181 0,-3.8128222 4.288888,1.1908927 5.003704,1.9057075 0,-1.906411 0,-7.8629628 -5.003704,-7.8629628 z"/>
</svg>
