<svg xmlns="http://www.w3.org/2000/svg" width="32" height="32" version="1">
 <rect style="opacity:0.2" width="28" height="28" x="2" y="3" rx="1.4" ry="1.4"/>
 <rect style="fill:#52575f" width="28" height="28" x="2" y="2" rx="1.4" ry="1.4"/>
 <path style="opacity:0.2" d="m 7,7 v 20 h 5 V 7 Z m 7,0 v 5 H 25 V 7 Z m 0,7 v 5 h 5 v -5 z"/>
 <path style="fill:#8b9cbe" d="M 7 6 L 7 26 L 12 26 L 12 6 L 7 6 z M 14 6 L 14 11 L 25 11 L 25 6 L 14 6 z M 14 13 L 14 18 L 19 18 L 19 13 L 14 13 z"/>
 <path style="fill:#8b9cbe;opacity:0.1" d="M 3.4003906 2 C 2.6247906 2 2 2.6247906 2 3.4003906 L 2 4.4003906 C 2 3.6247906 2.6247906 3 3.4003906 3 L 28.599609 3 C 29.375209 3 30 3.6247906 30 4.4003906 L 30 3.4003906 C 30 2.6247906 29.375209 2 28.599609 2 L 3.4003906 2 z"/>
</svg>
