<svg width="32" height="32" version="1" xmlns="http://www.w3.org/2000/svg">
 <rect x="2" y="2.9000001" width="28" height="28" rx="7" ry="7" style="opacity:.2"/>
 <rect x="2" y="2" width="28" height="28" rx="7" ry="7" style="fill:#ea8ab2"/>
 <path d="m9 2c-3.878 0-7 3.122-7 7v1c0-3.878 3.122-7 7-7h14c3.878 0 7 3.122 7 7v-1c0-3.878-3.122-7-7-7h-14z" style="fill:#8b9cbe;opacity:.2"/>
 <path d="m18.8 5.9999995c-6.3 0-14.7 4-14.7 11 0 3.5 3.9 6 3.9 6s-2.5-3.2-2.5-6c0-4.2 7-8.0000005 11.2-8.0000005 2.1 0 6.3 0.4512267 6.3-1.7 0-1.4-2.634752-1.3-4.2-1.3zm6.2 6.0000005s1.5 1.5 1.5 5.7-7.7 8.52-11.9 7.12c-1.992235-0.664078-6.3-1.671363-6.3 0.479863 0 1.4 2.681486 1.930918 4.2 2.310547 8.4 2.100001 15.5-2.91041 15.5-9.91041 0-3.5-3-5.7-3-5.7zm-9 3c-1.546397 0-3 0.840202-3 2s1.453603 2 3 2 3-0.840202 3-2-1.453603-2-3-2z" style="opacity:.2"/>
 <path d="m18.8 5c-6.3 0-14.7 4-14.7 11 0 3.5 3.9 6 3.9 6s-2.5-3.2-2.5-6c0-4.2 7-8 11.2-8 2.1 0 6.3 0.4512267 6.3-1.7 0-1.4-2.634752-1.3-4.2-1.3zm6.2 6s1.5 1.5 1.5 5.7-7.7 8.52-11.9 7.12c-1.992235-0.664078-6.3-1.671363-6.3 0.479863 0 1.4 2.681486 1.930918 4.2 2.310547 8.4 2.100001 15.5-2.91041 15.5-9.91041 0-3.5-3-5.7-3-5.7zm-9 3c-1.546397 0-3 0.840202-3 2s1.453603 2 3 2 3-0.840202 3-2-1.453603-2-3-2z" style="fill:#8b9cbe"/>
</svg>
