<svg xmlns="http://www.w3.org/2000/svg" width="32" height="32" version="1.1">
 <path style="opacity:0.2" d="m 16.0179,3.003 c -8.2253754,0 -14.9820521,6.6947 -14.9821118,14.9034 -0.086368,1.2151 0,2.1009 0.085835,3.4984 0.2402414,3.4079 2.3459265,5.8484 4.231276,7.0228 1.777916,1.1072 3.4099909,1.4984 3.4099909,1.4984 0.042715,0.01 0.085643,0.019 0.1287526,0.027 1.106327,0.201 2.4071863,-0.2614 3.1290773,-1.0177 0.72189,-0.7564 1.001332,-1.6766 1.000758,-2.5455 V 15.624 c 7.58e-4,-0.7735 -0.212705,-1.6017 -0.819333,-2.3443 -0.178865,-0.2189 -0.469535,-0.3698 -0.723746,-0.547 1.237607,-1.0679 2.837986,-1.7257 4.5395,-1.7288 1.702084,0 3.302729,0.6581 4.541452,1.7269 -0.254624,0.177 -0.54474,0.3282 -0.723745,0.547 -0.606643,0.7414 -0.820554,1.5682 -0.821285,2.3403 v 10.7697 c -5.73e-4,0.8689 0.278867,1.7892 1.000758,2.5455 0.721891,0.7562 2.023094,1.2183 3.129077,1.0177 0.04311,-0.01 0.08604,-0.017 0.128752,-0.027 0,0 1.632075,-0.3912 3.409991,-1.4984 1.883819,-1.1734 3.986154,-3.6115 4.229325,-7.015 0.08779,-1.4033 0.08777,-2.3135 0.08777,-3.5071 -6e-5,-8.2087 -6.756736,-14.9034 -14.982111,-14.9034 z"/>
 <path style="fill:#b2bfd9" d="m 16.0179,2.003 c -8.2253754,0 -14.9820521,6.6947 -14.9821118,14.9034 -0.086368,1.2151 0,2.1009 0.085835,3.4984 0.2402414,3.4079 2.3459265,5.8484 4.231276,7.0228 1.777916,1.1072 3.4099909,1.4984 3.4099909,1.4984 0.042715,0.01 0.085643,0.019 0.1287526,0.027 1.106327,0.201 2.4071863,-0.2614 3.1290773,-1.0177 0.72189,-0.7564 1.001332,-1.6766 1.000758,-2.5455 V 14.624 c 7.58e-4,-0.7735 -0.212705,-1.6017 -0.819333,-2.3443 -0.178865,-0.2189 -0.469535,-0.3698 -0.723746,-0.547 1.237607,-1.0679 2.837986,-1.7257 4.5395,-1.7288 1.702084,0 3.302729,0.6581 4.541452,1.7269 -0.254624,0.177 -0.54474,0.3282 -0.723745,0.547 -0.606643,0.7414 -0.820554,1.5682 -0.821285,2.3403 v 10.7697 c -5.73e-4,0.8689 0.278867,1.7892 1.000758,2.5455 0.721891,0.7562 2.023094,1.2183 3.129077,1.0177 0.04311,-0.01 0.08604,-0.017 0.128752,-0.027 0,0 1.632075,-0.3912 3.409991,-1.4984 1.883819,-1.1734 3.986154,-3.6115 4.229325,-7.015 0.08779,-1.4033 0.08777,-2.3135 0.08777,-3.5071 -6e-5,-8.2087 -6.756736,-14.9034 -14.982111,-14.9034 z"/>
 <path style="opacity:0.1" d="M 16.000001,6 C 9.3726195,6 4.0000517,11.3278 4.0000038,17.8999 v 2.8 h 0.00414 c -7.411e-4,0.043 -0.0043,0.085 -0.00414,0.13 0.00958,2.5617 1.5013407,4.1669 2.9062496,5.0408 1.4049081,0.8737 2.4946898,1.1211 2.4946898,1.1211 C 9.7426438,27.0538 10.000251,26.7645 10,26.3848 V 15.6153 c 3.4e-4,-0.3466 -0.2073392,-0.6248 -0.5232295,-0.6152 -0.010569,-3e-4 -0.021143,-3e-4 -0.031712,0 0,0 -1.1013648,0.1263 -2.5208858,0.8859 C 6.696854,16.0076 6.3685251,16.2563 6.143,16.418 6.880412,11.6379 11.123675,8.0058 16.000001,8 20.880222,8 25.126736,11.6391 25.862,16.4234 25.634702,16.26 25.305003,16.0095 25.075826,15.887 23.656304,15.1274 22.55494,15.001 22.55494,15.001 c -0.01057,-3e-4 -0.02114,-3e-4 -0.03171,0 C 22.207805,14.991 22.000328,15.2689 22,15.6149 v 10.7699 c -2.51e-4,0.3797 0.257356,0.6689 0.599057,0.607 0,0 1.089787,-0.2474 2.49469,-1.1211 1.404909,-0.8739 2.896671,-2.4791 2.906249,-5.0408 1.66e-4,-0.044 -0.0034,-0.086 -0.0041,-0.13 h 0.0041 v -2.8 C 27.999948,11.3278 22.627382,6 16.000001,6 Z"/>
 <path style="fill:#4f4f4f" d="M 16 5 C 9.3726185 5 4.0000479 10.328291 4 16.900391 L 4 19.699219 L 4.0039062 19.699219 C 4.0031652 19.742219 3.99984 19.785078 4 19.830078 C 4.00958 22.391778 5.1517317 21.1261 6.5566406 22 C 7.9615487 22.8737 8 23.578125 8 23.578125 C 8.3417006 23.640125 8.000251 22.3797 8 22 L 9 16 C 9 16 7.419521 16.773603 6 17.533203 C 5.7726813 17.654803 6.1425781 15.417969 6.1425781 15.417969 C 6.8799901 10.637869 11.123674 7.0058 16 7 C 20.876326 7.0058 25.12001 10.637869 25.857422 15.417969 C 25.857422 15.417969 26.227319 17.654803 26 17.533203 C 24.580479 16.773603 23 16 23 16 L 24 22 C 23.999749 22.3797 23.658299 23.640125 24 23.578125 C 24 23.578125 24.038451 22.8737 25.443359 22 C 26.848268 21.1261 27.9904 22.391778 28 19.830078 C 28.0002 19.785078 27.996835 19.742219 27.996094 19.699219 L 28 19.699219 L 28 16.900391 C 27.999952 10.328291 22.627382 5 16 5 z M 23 16 C 22.99966 15.6534 22.68411 15.9904 23 16 z M 9 16 C 9.3158903 15.9904 9.00034 15.6534 9 16 z"/>
 <path style="opacity:0.2;fill:#8b9cbe" d="m 16.017578,2 v 0.00391 c -8.2253753,0 -14.982362,6.6936438 -14.9824218,14.902344 -0.0402981,0.566949 -0.0407494,1.063269 -0.023437,1.572266 0.00561,-0.187113 0.00912,-0.370893 0.023437,-0.572266 C 1.035216,9.69755 7.7922027,3.0039062 16.017578,3.0039062 V 3 C 24.202702,3 30.928403,9.6314946 30.994141,17.785156 30.995738,17.496185 31,17.218365 31,16.904297 30.99994,8.6955969 24.242953,2 16.017578,2 Z m 3.876953,10.226562 c -0.01732,0.01823 -0.04288,0.03158 -0.05859,0.05078 -0.606643,0.7414 -0.821535,1.567743 -0.822266,2.339844 v 1 c 7.31e-4,-0.772101 0.215623,-1.598444 0.822266,-2.339844 0.179005,-0.2188 0.468032,-0.369875 0.722656,-0.546875 -0.21055,-0.181668 -0.43388,-0.347185 -0.664063,-0.503907 z m -7.751953,0.002 c -0.230037,0.156617 -0.453702,0.322391 -0.664062,0.503906 0.254211,0.1772 0.543791,0.327975 0.722656,0.546875 0.606628,0.7426 0.82107,1.57025 0.820312,2.34375 v -1 c 7.58e-4,-0.7735 -0.213684,-1.60115 -0.820312,-2.34375 -0.01575,-0.01928 -0.04121,-0.03249 -0.05859,-0.05078 z"/>
 <path style="fill:#e91e63" d="m 9.399021,14.008385 c 0,10e-7 -1.0917201,0.24737 -2.4998368,1.120987 C 5.5237269,15.982921 4.0758674,17.541165 4,20 c 0.075867,2.458835 1.5237269,4.017079 2.8991842,4.870629 1.4081167,0.873616 2.4998368,1.120987 2.4998368,1.120987 0.342481,0.06199 0.60123,-0.2277 0.600979,-0.607364 V 20 14.615749 c 2.51e-4,-0.379664 -0.258498,-0.669357 -0.600979,-0.607364 z"/>
 <path style="fill:#e91e63" d="m 22.600981,14.008385 c 0,10e-7 1.09172,0.24737 2.499837,1.120987 1.375457,0.853549 2.823317,2.411793 2.899184,4.870628 -0.07587,2.458835 -1.523727,4.017079 -2.899184,4.870629 -1.408117,0.873616 -2.499837,1.120987 -2.499837,1.120987 -0.342481,0.06199 -0.60123,-0.2277 -0.600979,-0.607364 V 20 14.615749 c -2.51e-4,-0.379664 0.258498,-0.669357 0.600979,-0.607364 z"/>
</svg>
