<svg xmlns="http://www.w3.org/2000/svg" width="32" height="32" version="1.1">
 <path style="opacity:0.2" d="m 26.340095,2.9999671 -4.76184,4.7564454 C 19.93678,6.2337013 19.057342,5.8133558 17.263478,6.0999837 15.747663,6.341826 14.814815,7.3712018 14.303563,8.8939125 c -0.511341,1.5227115 -0.429778,1.8354455 -1.192169,2.4445315 -1.255705,1.003197 -3.7497369,0.538549 -5.8036216,1.075977 -2.3320225,0.609084 -4.4135806,2.703864 -5.0503127,5.193945 -0.8251774,3.179779 0.3587948,5.795848 3.1841305,8.796484 2.6369802,2.803579 5.5786538,4.604075 8.1797568,4.595117 2.421716,0 5.122153,-1.397778 6.745599,-3.941601 1.076318,-1.683939 0.555331,-5.929719 1.416385,-7.031445 1.246735,-1.594368 3.322687,-1.119772 3.977538,-2.418555 C 26.352754,16.434983 26.06663,15.182204 25.01713,14.671647 24.371429,14.358148 24.133449,14.28614 23.702831,14.106999 23.371057,13.972641 23.119998,13.595842 23.155965,13.13903 L 30,6.2962561 C 29.922795,5.3184982 29.580982,4.6431459 29.049815,3.9714222 28.392169,3.3262405 27.459764,3.1076874 26.681888,2.9999671 Z"/>
 <path style="fill:#3194ed" d="m 26.340095,1.9999834 -4.76184,4.7564454 C 19.93678,5.2337176 19.057342,4.8133721 17.263478,5.1 15.747663,5.3418423 14.814815,6.3712181 14.303563,7.8939288 13.792222,9.4166402 13.873785,9.7293743 13.111394,10.33846 c -1.255705,1.003197 -3.7497369,0.538549 -5.8036216,1.075977 -2.3320225,0.609084 -4.4135806,2.703864 -5.0503127,5.193945 -0.8251774,3.179779 0.3587948,5.795848 3.1841305,8.796484 2.6369802,2.803579 5.5786538,4.604075 8.1797568,4.595117 2.421716,0 5.122153,-1.397778 6.745599,-3.941601 1.076318,-1.683939 0.555331,-5.929719 1.416385,-7.031445 1.246735,-1.594368 3.322687,-1.119772 3.977538,-2.418555 0.591885,-1.173383 0.305761,-2.426162 -0.743739,-2.936719 -0.645701,-0.313499 -0.883681,-0.385507 -1.314299,-0.564648 -0.331774,-0.134358 -0.582833,-0.511157 -0.546866,-0.967969 L 30,5.2962724 C 29.922795,4.3185145 29.580982,3.6431622 29.049815,2.9714385 28.392169,2.3262568 27.459764,2.1077037 26.681888,1.9999834 Z"/>
 <path style="opacity:0.2" d="M 28.636719,3.65625 16.292969,16 H 16 v 0.292969 l -5.353516,5.353515 0.707032,-0.292968 1.022048,-0.02205 L 16,17.707031 V 25 h 1 V 16.707031 L 29.335938,4.3710938 C 29.246692,4.2364298 29.155248,4.1028134 29.050781,3.9707031 28.924361,3.8466791 28.780396,3.750987 28.636719,3.65625 Z"/>
 <path style="fill:#8b9cbe" d="M 28.636719 2.65625 L 16.292969 15 L 16 15 L 16 15.292969 L 10.646484 20.646484 L 11.353516 21.353516 L 16 16.707031 L 16 24 L 17 24 L 17 15.707031 L 29.335938 3.3710938 C 29.246692 3.2364298 29.155248 3.1028134 29.050781 2.9707031 C 28.924361 2.8466791 28.780396 2.750987 28.636719 2.65625 z"/>
 <path style="opacity:0.2" d="M 16.5 15 A 1.5 1.5 0 0 0 15 16.5 A 1.5 1.5 0 0 0 16.5 18 A 1.5 1.5 0 0 0 18 16.5 A 1.5 1.5 0 0 0 16.5 15 z M 11.5 20 A 1.5 1.5 0 0 0 10 21.5 A 1.5 1.5 0 0 0 11.5 23 A 1.5 1.5 0 0 0 13 21.5 A 1.5 1.5 0 0 0 11.5 20 z M 16.5 23 A 1.5 1.5 0 0 0 15 24.5 A 1.5 1.5 0 0 0 16.5 26 A 1.5 1.5 0 0 0 18 24.5 A 1.5 1.5 0 0 0 16.5 23 z"/>
 <circle style="fill:#8b9cbe" cx="11.5" cy="20.5" r="1.5"/>
 <circle style="fill:#8b9cbe" cx="16.5" cy="23.5" r="1.5"/>
 <circle style="fill:#8b9cbe" cx="16.5" cy="15.5" r="1.5"/>
 <path style="fill:#8b9cbe;opacity:0.2" d="M 26.339844 2 L 21.578125 6.7558594 C 19.93665 5.2331482 19.057536 4.8129815 17.263672 5.0996094 C 15.747857 5.3414517 14.813986 6.3718205 14.302734 7.8945312 C 13.791393 9.4172426 13.873719 9.7288049 13.111328 10.337891 C 11.855623 11.341088 9.3624785 10.876634 7.3085938 11.414062 C 4.9765713 12.023146 2.8945446 14.117341 2.2578125 16.607422 C 2.0355168 17.464027 1.9710742 18.27894 2.0332031 19.072266 C 2.0647491 18.594475 2.1274942 18.109597 2.2578125 17.607422 C 2.8945446 15.117341 4.9765713 13.023146 7.3085938 12.414062 C 9.3624785 11.876634 11.855623 12.341088 13.111328 11.337891 C 13.873719 10.728805 13.791393 10.417243 14.302734 8.8945312 C 14.813986 7.3718205 15.747857 6.3414517 17.263672 6.0996094 C 19.057536 5.8129815 19.93665 6.2331482 21.578125 7.7558594 L 26.339844 3 L 26.681641 3 C 27.459517 3.1077203 28.393135 3.3255214 29.050781 3.9707031 C 29.41351 4.4294173 29.67964 4.8978312 29.841797 5.4550781 L 30 5.296875 C 29.922795 4.3191171 29.581948 3.6424268 29.050781 2.9707031 C 28.393135 2.3255214 27.459517 2.1077203 26.681641 2 L 26.339844 2 z M 23.408203 12.886719 L 23.15625 13.138672 C 23.120283 13.595484 23.371351 13.973064 23.703125 14.107422 C 24.133743 14.286563 24.371877 14.358376 25.017578 14.671875 C 25.542328 14.927153 25.875173 15.366938 26.003906 15.890625 C 26.194754 14.957176 25.853675 14.078616 25.017578 13.671875 C 24.371877 13.358376 24.133743 13.286563 23.703125 13.107422 C 23.591075 13.062045 23.493893 12.981145 23.408203 12.886719 z"/>
</svg>
