<svg xmlns="http://www.w3.org/2000/svg" width="32" height="32" version="1.1">
 <circle style="opacity:0.2" cx="16" cy="17" r="14"/>
 <circle style="fill:#473fd9" cx="16" cy="16" r="14"/>
 <circle style="opacity:0.2" cx="16" cy="17" r="11"/>
 <circle style="fill:#78ffb8" cx="16" cy="16" r="11"/>
 <path style="fill:#8b9cbe;opacity:0.2" d="M 16 5 A 11 11 0 0 0 5 16 A 11 11 0 0 0 5.0214844 16.585938 A 11 11 0 0 1 16 6 A 11 11 0 0 1 26.978516 16.414062 A 11 11 0 0 0 27 16 A 11 11 0 0 0 16 5 z"/>
 <path style="fill:#5952d2" d="M 10.784493,20.441058 9.7156064,20.858055 8.8301628,20.13249 9.013605,18.98993 l 1.068886,-0.416997 0.885444,0.725564 z"/>
 <path style="fill:#f99e00" d="M 12.815362,12.936781 12.444132,16.81152 8.9028934,18.427395 5.7328862,16.16853 6.1041171,12.293791 9.6453556,10.677916 Z"/>
 <path style="fill:#ea6f2a" d="m 24.144896,19.075498 -2.077881,1.491799 -2.330878,-1.053598 -0.252996,-2.545398 2.077883,-1.4918 2.330877,1.053599 z"/>
 <path style="fill:#0478f5" d="m 25.770258,14.730116 -1.826132,1.311057 -2.048475,-0.925947 -0.222343,-2.237005 1.826132,-1.311058 2.048476,0.925948 z"/>
 <path style="fill:#00c75f" d="m 26.163361,17.321979 -0.828139,0.602457 -0.92897,-0.425492 -0.100831,-1.027949 0.828139,-0.602457 0.92897,0.425492 z"/>
 <path style="fill:#569100" d="M 8.4156649,20.347742 7.090169,20.911918 5.9512224,20.03519 6.1377715,18.594285 7.463267,18.030111 8.6022139,18.906838 Z"/>
 <path style="fill:#17191e" d="M 11.657087,7 C 11.293426,7 11,7.2787544 11,7.6242328 V 25.375768 C 11,25.721246 11.293426,26 11.657087,26 h 8.685826 C 20.706574,26 21,25.721246 21,25.375768 V 7.6242328 C 21,7.2787544 20.706574,7 20.342913,7 Z"/>
 <rect style="fill:#bb0eff" width="8" height="15" x="12" y="10" ry=".492"/>
 <path style="fill:#5be19b" d="m 18.507812,20.068015 c -0.03327,0 -0.04509,0.004 -0.0677,0.02219 -0.03866,0.03097 -0.04312,0.03561 -0.119791,0.181407 -0.107087,0.203619 -0.141589,0.270075 -0.192709,0.365429 -0.0261,0.04867 -0.129513,0.24391 -0.229166,0.433296 -0.101339,0.192587 -0.184705,0.344547 -0.190103,0.344547 -0.0082,0 -0.03605,-0.01343 -0.132814,-0.06264 -0.03779,-0.01922 -0.258796,-0.10479 -0.33724,-0.130509 -0.11571,-0.03792 -0.170154,-0.0543 -0.260416,-0.07699 -0.05413,-0.0136 -0.119398,-0.03 -0.144531,-0.03655 -0.02513,-0.0066 -0.05284,-0.01314 -0.06251,-0.01436 -0.04384,-0.0056 -0.17656,-0.02704 -0.208334,-0.03394 -0.03274,-0.0071 -0.112566,-0.01628 -0.256509,-0.02872 -0.07837,-0.0068 -0.533991,-0.0068 -0.610678,0 -0.03286,0.0028 -0.08231,0.0081 -0.109375,0.01045 -0.02707,0.0023 -0.07257,0.007 -0.101563,0.01175 -0.029,0.0047 -0.0646,0.01035 -0.07813,0.01175 -0.07805,0.0082 -0.285287,0.05196 -0.432291,0.09135 -0.141644,0.03797 -0.377432,0.121418 -0.492188,0.173578 -0.03867,0.01758 -0.08153,0.03629 -0.09505,0.04176 -0.01353,0.0054 -0.0371,0.01677 -0.0534,0.0261 -0.01628,0.0093 -0.03548,0.01706 -0.04166,0.01567 -0.0064,-0.0015 -0.06441,-0.103471 -0.132813,-0.233612 -0.12063,-0.229506 -0.201158,-0.384107 -0.321614,-0.612093 -0.03465,-0.0656 -0.100077,-0.18813 -0.144531,-0.272768 -0.109895,-0.209244 -0.130163,-0.231262 -0.208334,-0.225782 -0.05114,0.0035 -0.08782,0.02946 -0.109373,0.0757 -0.02919,0.06265 -0.0263,0.10149 0.01563,0.180104 0.0263,0.04931 0.10556,0.197736 0.374999,0.708672 0.02009,0.03809 0.06566,0.124135 0.101563,0.19185 0.171379,0.323265 0.169364,0.319747 0.161458,0.330192 -0.0042,0.0055 -0.04915,0.03762 -0.100261,0.07047 -0.09631,0.06191 -0.258636,0.177757 -0.332031,0.237529 -0.0232,0.01891 -0.05825,0.04794 -0.07813,0.06395 -0.172336,0.138552 -0.471748,0.453202 -0.618491,0.651246 -0.01542,0.02082 -0.04255,0.05844 -0.0612,0.08353 -0.08716,0.117255 -0.233325,0.348529 -0.286459,0.452869 -0.01186,0.02328 -0.03319,0.06205 -0.04687,0.08743 -0.116255,0.215775 -0.258338,0.570356 -0.325519,0.811774 -0.01237,0.04444 -0.02505,0.08994 -0.02864,0.100494 -0.01624,0.0479 -0.0675,0.275868 -0.09114,0.407192 -0.0089,0.04905 -0.01513,0.112995 -0.02344,0.174884 0.06283,0.157662 0.206734,0.265771 0.380207,0.289733 0.0589,0.01016 0.09696,0.01303 3.583334,0.01303 2.8526,0 3.385186,-0.0021 3.559895,-0.0078 0.186147,-0.01618 0.340312,-0.132667 0.404948,-0.300175 -0.0062,-0.04772 -0.01217,-0.10713 -0.01692,-0.13051 -0.0039,-0.01904 -0.01574,-0.083 -0.02735,-0.142256 -0.106207,-0.542645 -0.321884,-1.087993 -0.606771,-1.532191 -0.08931,-0.139232 -0.113049,-0.172991 -0.164063,-0.241444 -0.0232,-0.03114 -0.05036,-0.06821 -0.0612,-0.08353 -0.09071,-0.12828 -0.341034,-0.397974 -0.505207,-0.544227 -0.101158,-0.09012 -0.115101,-0.102039 -0.209635,-0.1788 -0.06186,-0.05024 -0.249201,-0.182063 -0.328127,-0.231002 -0.03533,-0.02191 -0.06838,-0.04489 -0.07291,-0.0509 -0.0067,-0.0087 0.02258,-0.06799 0.148437,-0.305394 0.08598,-0.162172 0.163314,-0.309343 0.171875,-0.326276 0.0085,-0.01693 0.03265,-0.06283 0.0534,-0.101797 0.293826,-0.552026 0.296789,-0.558031 0.296875,-0.605568 9.5e-5,-0.08348 -0.05939,-0.150087 -0.135418,-0.150087 z m -4.348959,2.958667 c 0.07547,0 0.125181,0.01473 0.183594,0.05612 0.06278,0.0445 0.106189,0.104951 0.134116,0.18924 0.01986,0.05995 0.01789,0.187335 -0.0039,0.24275 -0.04352,0.11064 -0.130022,0.197634 -0.220053,0.223172 v 0.0014 c -0.0518,0.01463 -0.144878,0.01379 -0.190104,-0.0014 -0.07671,-0.02559 -0.152266,-0.09061 -0.191406,-0.164442 -0.08815,-0.166269 -0.04314,-0.381993 0.102865,-0.489414 0.0563,-0.04143 0.108759,-0.05743 0.184895,-0.05743 z m 3.578126,0.01305 c 0.04823,-0.0189 0.162036,-0.01887 0.209635,0 0.05301,0.02101 0.08991,0.04673 0.132813,0.09527 0.100949,0.114243 0.1249,0.260812 0.06641,0.399362 -0.01404,0.03324 -0.03728,0.07462 -0.05078,0.09266 -0.03089,0.04127 -0.09862,0.09203 -0.145833,0.108322 -0.05238,0.01802 -0.153824,0.01918 -0.201823,0.0026 -0.151135,-0.0522 -0.24768,-0.204259 -0.236979,-0.373258 0.0097,-0.154036 0.09192,-0.271983 0.226562,-0.324971 z"/>
 <path style="fill:#8b9cbe;opacity:0.1" d="M 16 2 A 14 14 0 0 0 2 16 A 14 14 0 0 0 2.0214844 16.585938 A 14 14 0 0 1 16 3 A 14 14 0 0 1 29.978516 16.414062 A 14 14 0 0 0 30 16 A 14 14 0 0 0 16 2 z"/>
</svg>
