<svg xmlns="http://www.w3.org/2000/svg" width="32" height="32" version="1.1">
 <path style="opacity:0.2" d="m 16.47423,2.9999999 c -0.741247,0 -1.480058,0.196783 -2.138944,0.5892692 L 12.189562,4.8525747 9.8553062,6.2115853 6.1457243,8.3936588 C 4.8091284,9.1786318 4,10.614998 4,12.184943 v 9.630654 c 0,1.5508 0.8091278,3.006312 2.1457243,3.791285 l 8.2085507,4.804389 c 1.336597,0.784972 2.973679,0.784972 4.29145,0 l 8.20855,-4.804389 C 28.190871,24.821909 29,23.385542 29,21.815597 V 12.184943 C 28.981174,10.614998 28.153058,9.1786318 26.835286,8.3936588 L 18.626736,3.5892691 C 17.958437,3.1967829 17.215476,2.9999999 16.47423,2.9999999 Z"/>
 <path style="fill:#fad83b" d="m 16.47423,1.9999999 c -0.741247,0 -1.480058,0.196783 -2.138944,0.5892692 L 12.189562,3.8525747 9.8553062,5.2115853 6.1457243,7.3936588 C 4.8091284,8.1786318 4,9.6149983 4,11.184943 v 9.630654 c 0,1.5508 0.8091278,3.006312 2.1457243,3.791285 l 8.2085507,4.804389 c 1.336597,0.784972 2.973679,0.784972 4.29145,0 l 8.20855,-4.804389 C 28.190871,23.821909 29,22.385542 29,20.815597 V 11.184943 C 28.981174,9.6149983 28.153058,8.1786318 26.835286,7.3936588 L 18.626736,2.5892691 C 17.958437,2.1967829 17.215476,1.9999999 16.47423,1.9999999 Z"/>
 <path style="opacity:0.1" d="M 12,4.9628906 9.8554688,6.2109375 9,6.7148438 v 4.6445312 3.712891 1.443359 1.445313 c 0,1.645268 0.85562,3.150021 2.267578,3.972656 l 2.464844,1.445312 C 14.428457,23.800255 15.222465,24 15.998047,24 c 0.775581,0 1.571543,-0.219809 2.267578,-0.621094 l 2.466797,-1.445312 C 22.14438,21.110959 23,19.586143 23,17.960938 V 15.09375 c 0,-1.64527 -0.85562,-3.151974 -2.267578,-3.974609 L 18.265625,9.6738281 C 17.56959,9.2524785 16.775581,9.0527344 16,9.0527344 V 12 c 2.209139,0 4,1.790861 4,4 0,2.209139 -1.790861,4 -4,4 -2,0 -4,-2 -4,-3.484375 V 16.300781 16 10.998047 9.6542969 Z m 3.5,4.1972656 c -0.226425,0.060193 -0.773575,0.1203806 -1,0.2207032 v 2.9140626 c 0.320793,-0.128787 0.656927,-0.215446 1,-0.257813 z M 14,9.6757812 13,10.076172 v 3.285156 c 0.286625,-0.325876 0.624373,-0.602934 1,-0.820312 z"/>
 <path style="fill:#17191e" d="M 12,3.9628906 9.8554688,5.2109375 9,5.7148438 v 4.6445312 3.712891 1.443359 1.445313 c 0,1.645268 0.85562,3.150021 2.267578,3.972656 l 2.464844,1.445312 C 14.428457,22.800255 15.222465,23 15.998047,23 c 0.775581,0 1.571543,-0.219809 2.267578,-0.621094 l 2.466797,-1.445312 C 22.14438,20.110959 23,18.586143 23,16.960938 V 14.09375 c 0,-1.64527 -0.85562,-3.151974 -2.267578,-3.974609 L 18.265625,8.6738281 C 17.56959,8.2524785 16.775581,8.0527344 16,8.0527344 V 11 c 2.209139,0 4,1.790861 4,4 0,2.209139 -1.790861,4 -4,4 -2,0 -4,-2 -4,-3.484375 V 15.300781 15 9.9980469 8.6542969 Z m 3.5,4.1972656 c -0.226425,0.060193 -0.773575,0.1203806 -1,0.2207032 v 2.9140626 c 0.320793,-0.128787 0.656927,-0.215446 1,-0.257813 z M 14,8.6757812 13,9.0761719 v 3.2851561 c 0.286625,-0.325876 0.624373,-0.602934 1,-0.820312 z"/>
 <path style="fill:#8b9cbe;opacity:0.2" d="M 16.474609 2 C 15.733362 2 14.994824 2.1973576 14.335938 2.5898438 L 12.189453 3.8535156 L 9.8554688 5.2109375 L 6.1464844 7.3945312 C 4.8098885 8.1795043 4 9.6156022 4 11.185547 L 4 12.185547 C 4 10.615602 4.8098885 9.1795042 6.1464844 8.3945312 L 9.8554688 6.2109375 L 12.189453 4.8535156 L 14.335938 3.5898438 C 14.994824 3.1973575 15.733362 3 16.474609 3 C 17.215855 3 17.958654 3.1973575 18.626953 3.5898438 L 26.835938 8.3945312 C 28.15371 9.1795042 28.981174 10.615602 29 12.185547 L 29 11.185547 C 28.981174 9.6156022 28.15371 8.1795042 26.835938 7.3945312 L 18.626953 2.5898438 C 17.958654 2.1973575 17.215855 2 16.474609 2 z"/>
</svg>
