<svg xmlns="http://www.w3.org/2000/svg" width="32" height="32" version="1">
 <circle style="opacity:0.2" cx="16" cy="17" r="14"/>
 <circle style="fill:#44a2f8" cx="16" cy="16" r="14"/>
 <path style="opacity:0.2" d="m 16,7 a 2,2 0 0 0 -2,2 2,2 0 0 0 1.300781,1.871094 v 2.164062 A 7,7 0 0 0 9,20 a 7,7 0 0 0 7,7 7,7 0 0 0 7,-7 7,7 0 0 0 -3.253906,-5.910156 l 0.898437,-1.123047 A 2,2 0 0 0 21,13 a 2,2 0 0 0 2,-2 2,2 0 0 0 -2,-2 2,2 0 0 0 -2,2 2,2 0 0 0 0.429688,1.240234 l -0.96875,1.210938 A 7,7 0 0 0 16.699219,13.042969 V 10.871094 A 2,2 0 0 0 18,9 2,2 0 0 0 16,7 Z m 0,9 a 4,4 0 0 1 4,4 4,4 0 0 1 -4,4 4,4 0 0 1 -4,-4 4,4 0 0 1 4,-4 z m 0,1 a 3,3 0 0 0 -3,3 3,3 0 0 0 3,3 3,3 0 0 0 3,-3 A 3,3 0 0 0 18.109375,17.869141 1.5,1.5 0 0 1 18.25,18.5 1.5,1.5 0 0 1 16.75,20 1.5,1.5 0 0 1 15.25,18.5 1.5,1.5 0 0 1 16.435547,17.035156 3,3 0 0 0 16,17 Z"/>
 <path style="fill:#8b9cbe" d="M 16 6 A 2 2 0 0 0 14 8 A 2 2 0 0 0 15.300781 9.8710938 L 15.300781 12.035156 A 7 7 0 0 0 9 19 A 7 7 0 0 0 16 26 A 7 7 0 0 0 23 19 A 7 7 0 0 0 19.746094 13.089844 L 20.644531 11.966797 A 2 2 0 0 0 21 12 A 2 2 0 0 0 23 10 A 2 2 0 0 0 21 8 A 2 2 0 0 0 19 10 A 2 2 0 0 0 19.429688 11.240234 L 18.460938 12.451172 A 7 7 0 0 0 16.699219 12.042969 L 16.699219 9.8710938 A 2 2 0 0 0 18 8 A 2 2 0 0 0 16 6 z M 16 15 A 4 4 0 0 1 20 19 A 4 4 0 0 1 16 23 A 4 4 0 0 1 12 19 A 4 4 0 0 1 16 15 z M 16 16 A 3 3 0 0 0 13 19 A 3 3 0 0 0 16 22 A 3 3 0 0 0 19 19 A 3 3 0 0 0 18.109375 16.869141 A 1.5 1.5 0 0 1 18.25 17.5 A 1.5 1.5 0 0 1 16.75 19 A 1.5 1.5 0 0 1 15.25 17.5 A 1.5 1.5 0 0 1 16.435547 16.035156 A 3 3 0 0 0 16 16 z"/>
 <path style="fill:#8b9cbe;opacity:0.2" d="M 16 2 A 14 14 0 0 0 2 16 A 14 14 0 0 0 2.0214844 16.585938 A 14 14 0 0 1 16 3 A 14 14 0 0 1 29.978516 16.414062 A 14 14 0 0 0 30 16 A 14 14 0 0 0 16 2 z"/>
</svg>
