<svg xmlns="http://www.w3.org/2000/svg" width="32" height="32" version="1">
 <rect style="opacity:0.2" width="28" height="28" x="-31" y="-30" rx="1.4" ry="1.4" transform="matrix(0,-1,-1,0,0,0)"/>
 <rect style="fill:#454f6c" width="28" height="28" x="-30" y="-30" rx="1.4" ry="1.4" transform="matrix(0,-1,-1,0,0,0)"/>
 <path style="fill:#8b9cbe;opacity:0.1" d="M 3.4003906 2 C 2.6247906 2 2 2.6247906 2 3.4003906 L 2 4.4003906 C 2 3.6247906 2.6247906 3 3.4003906 3 L 28.599609 3 C 29.375209 3 30 3.6247906 30 4.4003906 L 30 3.4003906 C 30 2.6247906 29.375209 2 28.599609 2 L 3.4003906 2 z"/>
 <path style="opacity:0.2" d="M 30.000395,12.009997 C 25.379864,18.021354 20.266541,24.480739 17.917777,27.999968 15.703756,26.163296 15.926511,23.804456 15.41474,21.603014 L 26.259812,7.497021 c 1.601423,0.6179228 2.648526,2.621643 3.740583,4.512976 z"/>
 <path style="fill:#008679" d="M 30.000395,11.009997 C 25.379864,17.021354 20.266541,23.480739 17.917777,26.999968 15.703756,25.163296 15.926511,22.804456 15.41474,20.603014 L 26.259812,6.497021 c 1.601423,0.6179228 2.648526,2.6216432 3.740583,4.512976 z"/>
 <path style="opacity:0.2" d="M 8.7486563,6.0000117 2.693,6.0001078 10.258407,26.613718 c 0.133846,0.384974 0.616378,1.360566 1.222195,1.378228 L 17.917777,28 C 15.348917,20.996767 12.780065,13.993569 10.211205,6.9903764 10.024665,6.5887269 9.4329443,6 8.7486563,6 Z"/>
 <path style="fill:#009e8d" d="M 8.7486563,5.0000117 2.693,5.0001078 10.258407,25.613718 c 0.133846,0.384974 0.616378,1.360566 1.222195,1.378228 L 17.917777,27 C 15.348917,19.996767 12.780065,12.993569 10.211205,5.9903764 10.024665,5.5887269 9.4329443,5 8.7486563,5 Z"/>
 <path style="opacity:0.2" d="M 29.997307,4.2363505 C 30.012358,3.6557141 29.595569,3.0044586 28.832045,3.0005974 L 21.983857,3 c 1.594833,2.1173569 4.676964,5.4683108 8.016538,9.010057 z"/>
 <path style="fill:#009e8d" d="M 29.997307,3.2363505 C 30.012358,2.6557141 29.595569,2.0044586 28.832045,2.0005974 L 21.983857,2 c 1.594833,2.1173569 4.676964,5.4683108 8.016538,9.010057 z"/>
 <path style="fill:#8b9cbe;opacity:0.2" d="M 2.6933594 5 L 3.0605469 6 L 8.7480469 6 C 9.4323349 6 10.024398 6.5885849 10.210938 6.9902344 C 12.657514 13.660058 15.104206 20.330141 17.550781 27 L 17.917969 27 C 15.349109 19.996767 12.779798 12.993427 10.210938 5.9902344 C 10.024398 5.5885849 9.4323349 5 8.7480469 5 L 2.6933594 5 z"/>
 <path style="fill:#8b9cbe;opacity:0.2" d="M 21.984375 2 C 22.205488 2.2935581 22.516002 2.6617964 22.791016 3 L 28.832031 3 C 29.595555 3.0038612 30.013098 3.6556917 29.998047 4.2363281 L 29.998047 3.2363281 C 30.013098 2.6556917 29.595555 2.0038612 28.832031 2 L 21.984375 2 z"/>
</svg>
