<svg xmlns="http://www.w3.org/2000/svg" width="32" height="32" version="1.1">
 <path style="fill:#b2bfd9" d="M 16,2 C 8.2680135,2 2,8.2680135 2,16 2.0028767,20.185125 3.8779404,24.149484 7.1113281,26.806641 6.3918972,25.854217 6.0018268,24.693603 6,23.5 6,20.462434 8.4624339,18 11.5,18 c 3.037566,0 5.5,2.462434 5.5,5.5 0,3.037566 -2.462434,5.5 -5.5,5.5 -0.291926,-0.0022 -0.583211,-0.0277 -0.871094,-0.07617 C 12.330939,29.63273 14.156238,29.998455 16,30 23.731986,30 30,23.731986 30,16 30,8.2680135 23.731986,2 16,2 Z"/>
 <path style="fill:#263547" d="M 16,4 C 22.651106,4 28,9.3488938 28,16 28,22.103161 23.42404,26.907889 17.542969,27.691406 18.391455,26.476551 19,25.08248 19,23.5 19,19.381554 15.618446,16 11.5,16 8.5705957,16 6.0738499,17.75075 4.8417969,20.220703 4.3333661,18.87978 4.0010097,17.467002 4,15.998047 4.0010724,9.3478685 9.3495606,4 16,4 Z"/>
 <path style="opacity:0.2;fill:#8b9cbe" d="M 16 2 C 8.2680135 2 2 8.2680135 2 16 C 2.0001092 16.158858 2.0218678 16.314494 2.0273438 16.472656 C 2.306833 8.9870337 8.4460303 3 16 3 C 23.563209 3 29.70918 9.0015471 29.974609 16.5 C 29.980533 16.332668 30 16.168777 30 16 C 30 8.2680135 23.731986 2 16 2 z M 11.5 16 C 8.5705957 16 6.0738499 17.75075 4.8417969 20.220703 C 4.3890804 19.02672 4.0912435 17.773418 4.0273438 16.476562 C 4.0198856 16.650825 4.0000284 16.821882 4 16.998047 C 4.0010097 18.467002 4.3333661 19.87978 4.8417969 21.220703 C 6.0738499 18.75075 8.5705957 17 11.5 17 C 15.457142 17 18.723997 20.123702 18.974609 24.021484 C 18.989264 23.849512 19 23.676655 19 23.5 C 19 19.381554 15.618446 16 11.5 16 z M 27.976562 16.521484 C 27.732629 22.143086 23.595951 26.558213 18.207031 27.572266 C 18.008963 27.959012 17.791451 28.335631 17.542969 28.691406 C 23.42404 27.907889 28 23.103161 28 17 C 28 16.838356 27.982823 16.681532 27.976562 16.521484 z M 6.0332031 23.90625 C 6.0122565 24.101343 6 24.299343 6 24.5 C 6.0007792 25.009121 6.0871275 25.508666 6.2246094 25.992188 C 6.5109255 26.272036 6.7992413 26.550172 7.1113281 26.806641 C 6.4742855 25.963287 6.112876 24.954438 6.0332031 23.90625 z M 16.974609 24 C 16.721723 26.802974 14.368824 29 11.5 29 C 11.208074 28.9978 10.916789 28.972298 10.628906 28.923828 C 11.469373 29.273884 12.340553 29.538582 13.228516 29.71875 C 15.418174 28.993474 17 26.932937 17 24.5 C 17 24.331258 16.989484 24.164869 16.974609 24 z"/>
 <path style="opacity:0.2" d="M 16 4 C 9.3495606 4 4.0010724 9.3478683 4 15.998047 C 4.0001106 16.159016 4.0194798 16.316963 4.0273438 16.476562 C 4.3014284 10.072482 9.5257327 5 16 5 C 22.489462 5 27.725221 10.096112 27.976562 16.521484 C 27.984111 16.347524 28 16.17619 28 16 C 28 9.3488938 22.651106 4 16 4 z M 2.0273438 16.472656 C 2.0207573 16.649062 2 16.821983 2 17 C 2.0028767 21.185125 3.8779404 25.149484 7.1113281 27.806641 C 6.6987644 27.260465 6.4094452 26.642251 6.2246094 25.992188 C 3.6571338 23.482712 2.1522079 20.079114 2.0273438 16.472656 z M 29.974609 16.5 C 29.70918 23.998452 23.563209 30 16 30 C 15.066691 29.999218 14.138769 29.903441 13.228516 29.71875 C 12.684346 29.898994 12.104629 30 11.5 30 C 11.208074 29.9978 10.916789 29.972298 10.628906 29.923828 C 12.330939 30.632726 14.156238 30.998455 16 31 C 23.731986 31 30 24.731986 30 17 C 30 16.831223 29.980533 16.667332 29.974609 16.5 z M 11.5 18 C 8.4624339 18 6 20.462434 6 23.5 C 6.0002092 23.63669 6.0228991 23.770689 6.0332031 23.90625 C 6.3293494 21.147997 8.6630904 19 11.5 19 C 14.368824 19 16.721723 21.197026 16.974609 24 C 16.989484 23.835131 17 23.668742 17 23.5 C 17 20.462434 14.537566 18 11.5 18 z M 18.974609 24.021484 C 18.857991 25.390042 18.296737 26.612168 17.542969 27.691406 C 17.767792 27.661454 17.986205 27.613819 18.207031 27.572266 C 18.685301 26.6384 19 25.619045 19 24.5 C 19 24.338696 18.984825 24.180369 18.974609 24.021484 z"/>
</svg>
