<svg xmlns="http://www.w3.org/2000/svg" width="32" height="32" version="1.1">
 <path style="opacity:0.2" d="m 5,19.520834 c 0,-10.8750004 11.5,-9.0625 11.5,-13.2916673 0,-1.8125 -2.421053,-4.2291666 -2.421053,-4.2291666 0,0 5.174213,1.3580458 7.263158,4.8333335 1.81579,3.0208328 1.210527,4.8333324 -1.210526,7.8541664 4.236842,-1.208334 4.236842,-4.229166 4.236842,-4.229166 0,0 3.631579,3.020832 3.631579,9.0625 C 28,24.958334 23.763158,31 16.5,31 9.2368421,31 5,25.5625 5,19.520834 Z"/>
 <path style="fill:#ff7711" d="M 5,18.520834 C 5,7.6458336 16.5,9.4583336 16.5,5.2291667 c 0,-1.8125 -2.421053,-4.2291666 -2.421053,-4.2291666 0,0 5.174213,1.3580458 7.263158,4.8333335 1.81579,3.0208328 1.210527,4.8333324 -1.210526,7.8541664 4.236842,-1.208334 4.236842,-4.2291664 4.236842,-4.2291664 0,0 3.631579,3.0208324 3.631579,9.0625004 C 28,23.958334 23.763158,30 16.5,30 9.2368421,30 5,24.5625 5,18.520834 Z"/>
 <path style="opacity:0.2" d="M 11,21.666666 C 11,19 11.6875,16.333334 15.125001,13 15.8125,17.000001 22,17.666667 22,21.666666 22,24.333334 19.9375,27 16.5,27 13.0625,27 11,24.333334 11,21.666666 Z"/>
 <path style="fill:#ffda3b" d="M 11,20.666666 C 11,18 11.6875,15.333334 15.125001,12 15.8125,16.000001 22,16.666667 22,20.666666 22,23.333334 19.9375,26 16.5,26 13.0625,26 11,23.333334 11,20.666666 Z"/>
 <path style="fill:#8b9cbe;opacity:0.2" d="M 14.078125 1 C 14.078125 1 14.662898 1.5893634 15.255859 2.3945312 C 16.903354 3.0078082 19.871885 4.3885556 21.341797 6.8339844 C 21.934517 7.8200612 22.265453 8.6756528 22.363281 9.4882812 C 22.499444 8.3689106 22.18167 7.2312367 21.341797 5.8339844 C 19.252852 2.3586967 14.078125 1 14.078125 1 z M 16.429688 5.7460938 C 15.512587 9.3211724 5 8.1205423 5 18.521484 C 5 18.668593 5.0145249 18.812662 5.0195312 18.958984 C 5.4157209 8.717369 16.5 10.38216 16.5 6.2285156 C 16.5 6.072678 16.462405 5.9089439 16.429688 5.7460938 z M 24.369141 9.4589844 C 24.369141 9.4589844 24.357019 11.972309 21.132812 13.330078 C 20.841114 13.760998 20.517785 14.204719 20.130859 14.6875 C 24.367701 13.479166 24.369141 10.458984 24.369141 10.458984 C 24.369141 10.458984 27.76125 13.298795 27.978516 18.960938 C 27.984596 18.814262 28 18.667418 28 18.521484 C 28 12.479816 24.369141 9.4589844 24.369141 9.4589844 z"/>
 <path style="fill:#8b9cbe;opacity:0.2" d="M 15.125 12 C 11.687499 15.333334 11 17.99935 11 20.666016 C 11 20.759496 11.022304 20.851947 11.027344 20.945312 C 11.15529 18.513965 11.997186 16.033032 15.125 13 C 15.782715 16.82671 21.459265 17.609502 21.951172 21.171875 C 21.96762 21.003269 22 20.835304 22 20.666016 C 22 16.666017 15.812499 16.000001 15.125 12 z"/>
</svg>
