<svg xmlns="http://www.w3.org/2000/svg" width="32" height="32" version="1">
 <rect width="28" height="28" x="2" y="3" rx="8.4" ry="8.4" style="opacity:0.2"/>
 <rect width="28" height="28" x="2" y="2" rx="8.4" ry="8.4" style="fill:#176fd0"/>
 <path d="M 16,10 V 7 H 24 V 10 H 22.7 C 22.7,10 22,10 22,10.7 V 23.7 C 22,25.1 20.9,28 15.3,28 10.4,28 8,24.619 8,21.15 8,14.15 16,16.35 16,16.35 V 19.5 C 16,19.5 15.3,19 13.9,19 13.059,19 12,20.1 12,21.5 12,23.322 13.9,24 15.3,24 17.4,24 18,22.6 18,21.9 V 10.7 C 18,10 17.3,10 17.3,10 Z" style="opacity:0.2"/>
 <path d="M 16,9 V 6 H 24 V 9 H 22.7 C 22.7,9 22,9 22,9.7 V 22.7 C 22,24.1 20.9,27 15.3,27 10.4,27 8,23.619 8,20.15 8,13.15 16,15.35 16,15.35 V 18.5 C 16,18.5 15.3,18 13.9,18 13.059,18 12,19.1 12,20.5 12,22.322 13.9,23 15.3,23 17.4,23 18,21.6 18,20.9 V 9.7 C 18,9 17.3,9 17.3,9 Z" style="fill:#8b9cbe"/>
 <path style="fill:#8b9cbe;opacity:0.1" d="M 10.4 2 C 5.7468 2 2 5.7468 2 10.4 L 2 11.4 C 2 6.7468 5.7468 3 10.4 3 L 21.6 3 C 26.253 3 30 6.7468 30 11.4 L 30 10.4 C 30 5.7468 26.253 2 21.6 2 L 10.4 2 z"/>
</svg>
