<svg xmlns="http://www.w3.org/2000/svg" width="32" height="32" version="1">
 <circle style="opacity:0.2" cx="16" cy="17" r="14"/>
 <circle style="fill:#388ebb" cx="16" cy="16" r="14"/>
 <path style="opacity:0.2" d="m 22.800781,11.900391 v 0.484375 h 0.326172 c 0.319396,0 0.547626,0.100032 0.685547,0.302734 0.137921,0.195194 0.207031,0.488516 0.207031,0.878906 v 1.925782 c 0,0.367867 0.101436,0.67608 0.304688,0.923828 0.203252,0.240241 0.503097,0.393368 0.902343,0.460937 v 0.01172 c -0.413762,0.07507 -0.716116,0.236627 -0.912109,0.484375 -0.195992,0.240241 -0.294922,0.54424 -0.294922,0.912109 v 1.947266 c 0,0.382883 -0.06911,0.676202 -0.207031,0.878906 -0.137921,0.202702 -0.366151,0.304688 -0.685547,0.304688 h -0.326172 v 0.484375 h 0.576172 c 0.50813,0 0.895481,-0.146661 1.164063,-0.439453 0.268583,-0.292792 0.402343,-0.686145 0.402343,-1.181641 v -1.960938 c 0,-0.307808 0.05964,-0.54382 0.175782,-0.708984 0.116144,-0.172672 0.415337,-0.29376 0.611328,-0.361328 0.188735,-0.06756 0.401078,-0.108032 0.640625,-0.123047 v -0.472656 c -0.239547,-0.0076 -0.451891,-0.04376 -0.640625,-0.111328 -0.195991,-0.07507 -0.495184,-0.196165 -0.611328,-0.361328 -0.116145,-0.165166 -0.175782,-0.401177 -0.175782,-0.708985 v -1.960937 c 0,-0.510511 -0.13376,-0.903863 -0.402343,-1.181641 -0.268582,-0.285285 -0.655933,-0.427734 -1.164063,-0.427734 z M 8.6953125,12 c -0.50813,0 -0.8954796,0.142449 -1.1640625,0.427734 -0.2685828,0.277778 -0.4042969,0.67113 -0.4042969,1.181641 v 1.960937 c 0,0.307808 -0.057685,0.543819 -0.1738281,0.708985 -0.1161443,0.165165 -0.4153355,0.286253 -0.6113281,0.361328 -0.188734,0.06757 -0.4030312,0.103821 -0.6425781,0.111328 v 0.472656 c 0.2395469,0.01501 0.4538441,0.05743 0.6425781,0.125 0.1959926,0.06756 0.4951838,0.188657 0.6113281,0.361329 0.116145,0.165164 0.1738281,0.399223 0.1738281,0.707031 v 1.960937 c 0,0.495496 0.1357141,0.888849 0.4042969,1.181641 C 7.7998329,21.85334 8.1871825,22 8.6953125,22 H 9.2714844 V 21.515625 H 8.9453125 c -0.3193965,0 -0.5495793,-0.101985 -0.6875,-0.304687 C 8.1198882,21.008235 8.0527344,20.714914 8.0527344,20.332031 v -1.947265 c 0,-0.367867 -0.098929,-0.671869 -0.2949219,-0.91211 C 7.561819,17.224908 7.257515,17.063356 6.84375,16.988281 v -0.0098 c 0.3992457,-0.06757 0.6990924,-0.22265 0.9023438,-0.462891 0.2032521,-0.247748 0.3066406,-0.55596 0.3066406,-0.923828 v -1.923828 c 0,-0.39039 0.067155,-0.683711 0.2050781,-0.878907 0.1379207,-0.202704 0.3681035,-0.304687 0.6875,-0.304687 H 9.2714844 V 12 Z m 7.6933595,1 c -0.961337,0 -1.767883,0.170211 -2.419922,0.511719 -0.652037,0.334242 -1.144137,0.803162 -1.478516,1.40625 C 12.164217,15.51379 12,16.205493 12,16.990234 c 0,0.80654 0.153593,1.510193 0.462891,2.113282 0.317661,0.595821 0.794368,1.060289 1.429687,1.394531 C 14.536255,20.832288 15.344757,21 16.314453,21 c 0.543365,0 1.035464,-0.03922 1.478516,-0.119141 0.443051,-0.08719 1.12304,-0.215691 1.541015,-0.382812 V 18.269531 C 19.362308,17.687432 19.685814,17.480923 20,17.486328 v -0.458984 h -2.666016 c 0,0 0.02185,0.429566 0.02344,0.458984 C 17.840359,17.506698 18,18.062639 18,18.226562 v 2.021485 c -0.175549,0.04359 -0.557499,0.07586 -0.783203,0.09766 -0.225705,0.0218 -0.460701,0.0332 -0.703125,0.0332 -1.145246,0 -1.951792,-0.291757 -2.419922,-0.873047 -0.468131,-0.588557 -0.759766,-1.425707 -0.759766,-2.515625 0,-1.089917 0.282966,-1.930975 0.734375,-2.519531 0.451412,-0.595822 1.207883,-0.892578 2.269532,-0.892578 0.409613,0 0.73609,0.07147 0.978515,0.216797 0.242424,0.138057 0.413358,0.317172 0.513672,0.535156 0.108676,0.210717 0.164063,0.427095 0.164063,0.652344 0.0023,0 0.0034,10e-5 0.0059,0 V 15 h 0.666016 V 14.839844 13.46875 13 H 18 v 0.177734 C 17.5781,13.061444 17.04473,13 16.388672,13 Z"/>
 <path style="fill:#8b9cbe" d="M 22.800781 10.900391 L 22.800781 11.384766 L 23.126953 11.384766 C 23.446349 11.384766 23.674579 11.484798 23.8125 11.6875 C 23.950421 11.882694 24.019531 12.176016 24.019531 12.566406 L 24.019531 14.492188 C 24.019531 14.860055 24.120967 15.168268 24.324219 15.416016 C 24.527471 15.656257 24.827316 15.809384 25.226562 15.876953 L 25.226562 15.888672 C 24.8128 15.963742 24.510446 16.125299 24.314453 16.373047 C 24.118461 16.613288 24.019531 16.917287 24.019531 17.285156 L 24.019531 19.232422 C 24.019531 19.615305 23.950423 19.908624 23.8125 20.111328 C 23.674579 20.31403 23.446349 20.416016 23.126953 20.416016 L 22.800781 20.416016 L 22.800781 20.900391 L 23.376953 20.900391 C 23.885083 20.900391 24.272434 20.75373 24.541016 20.460938 C 24.809599 20.168146 24.943359 19.774793 24.943359 19.279297 L 24.943359 17.318359 C 24.943359 17.010551 25.002994 16.774539 25.119141 16.609375 C 25.235285 16.436703 25.534478 16.315615 25.730469 16.248047 C 25.919204 16.180487 26.131547 16.140015 26.371094 16.125 L 26.371094 15.652344 C 26.131547 15.644744 25.919203 15.608583 25.730469 15.541016 C 25.534478 15.465946 25.235285 15.344851 25.119141 15.179688 C 25.002996 15.014522 24.943359 14.778511 24.943359 14.470703 L 24.943359 12.509766 C 24.943359 11.999255 24.809599 11.605903 24.541016 11.328125 C 24.272434 11.04284 23.885083 10.900391 23.376953 10.900391 L 22.800781 10.900391 z M 8.6953125 11 C 8.1871825 11 7.7998329 11.142449 7.53125 11.427734 C 7.2626672 11.705512 7.1269531 12.098864 7.1269531 12.609375 L 7.1269531 14.570312 C 7.1269531 14.87812 7.0692684 15.114131 6.953125 15.279297 C 6.8369807 15.444462 6.5377895 15.56555 6.3417969 15.640625 C 6.1530629 15.708195 5.9387657 15.744446 5.6992188 15.751953 L 5.6992188 16.224609 C 5.9387657 16.239619 6.1530629 16.282036 6.3417969 16.349609 C 6.5377895 16.417169 6.8369807 16.538266 6.953125 16.710938 C 7.06927 16.876102 7.1269531 17.110161 7.1269531 17.417969 L 7.1269531 19.378906 C 7.1269531 19.874402 7.2626672 20.267755 7.53125 20.560547 C 7.7998329 20.85334 8.1871825 21 8.6953125 21 L 9.2714844 21 L 9.2714844 20.515625 L 8.9453125 20.515625 C 8.625916 20.515625 8.3957332 20.41364 8.2578125 20.210938 C 8.1198882 20.008235 8.0527344 19.714914 8.0527344 19.332031 L 8.0527344 17.384766 C 8.0527344 17.016899 7.9538058 16.712897 7.7578125 16.472656 C 7.561819 16.224908 7.257515 16.063356 6.84375 15.988281 L 6.84375 15.978516 C 7.2429957 15.910946 7.5428424 15.755866 7.7460938 15.515625 C 7.9493459 15.267877 8.0527344 14.959665 8.0527344 14.591797 L 8.0527344 12.667969 C 8.0527344 12.277579 8.1198896 11.984258 8.2578125 11.789062 C 8.3957332 11.586358 8.625916 11.484375 8.9453125 11.484375 L 9.2714844 11.484375 L 9.2714844 11 L 8.6953125 11 z M 16.388672 12 C 15.427335 12 14.620789 12.170211 13.96875 12.511719 C 13.316713 12.845961 12.824613 13.314881 12.490234 13.917969 C 12.164217 14.51379 12 15.205493 12 15.990234 C 12 16.796774 12.153593 17.500427 12.462891 18.103516 C 12.780552 18.699337 13.257259 19.163805 13.892578 19.498047 C 14.536255 19.832288 15.344757 20 16.314453 20 C 16.857818 20 17.349917 19.960781 17.792969 19.880859 C 18.23602 19.793669 18.916009 19.665168 19.333984 19.498047 L 19.333984 17.269531 C 19.362308 16.687432 19.685814 16.480923 20 16.486328 L 20 16.027344 L 17.333984 16.027344 C 17.333984 16.027344 17.355832 16.45691 17.357422 16.486328 C 17.840359 16.506698 18 17.062639 18 17.226562 L 18 19.248047 C 17.824451 19.291637 17.442501 19.323903 17.216797 19.345703 C 16.991092 19.367503 16.756096 19.378906 16.513672 19.378906 C 15.368426 19.378906 14.56188 19.087149 14.09375 18.505859 C 13.625619 17.917302 13.333984 17.080152 13.333984 15.990234 C 13.333984 14.900317 13.61695 14.059259 14.068359 13.470703 C 14.519771 12.874881 15.276242 12.578125 16.337891 12.578125 C 16.747504 12.578125 17.073981 12.649596 17.316406 12.794922 C 17.55883 12.932979 17.729764 13.112094 17.830078 13.330078 C 17.938754 13.540795 17.994141 13.757173 17.994141 13.982422 C 17.996441 13.982422 17.9975 13.982522 18 13.982422 L 18 14 L 18.666016 14 L 18.666016 13.839844 L 18.666016 12.46875 L 18.666016 12 L 18 12 L 18 12.177734 C 17.5781 12.061444 17.04473 12 16.388672 12 z"/>
 <path style="fill:#8b9cbe;opacity:0.1" d="M 16 2 A 14 14 0 0 0 2 16 A 14 14 0 0 0 2.0214844 16.585938 A 14 14 0 0 1 16 3 A 14 14 0 0 1 29.978516 16.414062 A 14 14 0 0 0 30 16 A 14 14 0 0 0 16 2 z"/>
</svg>
