<svg xmlns="http://www.w3.org/2000/svg" width="32" height="32" version="1">
 <rect style="opacity:0.2" width="28" height="28" x="2" y="3" rx="1.4" ry="1.4"/>
 <rect style="fill:#2a7bdb" width="28" height="28" x="2" y="2" rx="1.4" ry="1.4"/>
 <path style="opacity:0.2" d="M 16,8 A 6,6 0 0 0 10.076172,13.087891 5,5 0 0 0 6,18 a 5,5 0 0 0 5,5 h 0.455078 c 0.03607,0.184217 0.05783,0.367716 0.04492,0.548828 0.01182,0.849214 -0.455679,1.366294 -1.027344,1.861328 -0.145397,0.07713 -0.256579,0.166873 -0.246094,0.199219 0.03456,0.106557 0.701279,0.333685 1.09375,0.373047 0.506365,0.05076 1.21182,-0.01085 1.615235,-0.16211 0.641387,-0.240469 1.15678,-0.640374 1.519531,-1.183593 0.310185,-0.464507 0.472774,-0.926036 0.521484,-1.462891 L 14.988281,23 H 22 a 4,4 0 0 0 4,-4 4,4 0 0 0 -4,-4 4,4 0 0 0 -0.08984,0.0039 A 6,6 0 0 0 22,14 6,6 0 0 0 16,8 Z"/>
 <path style="fill:#8b9cbe" d="M 16 7 A 6 6 0 0 0 10.076172 12.087891 A 5 5 0 0 0 6 17 A 5 5 0 0 0 11 22 L 11.455078 22 C 11.491147 22.184217 11.512913 22.367716 11.5 22.548828 C 11.51182 23.398042 11.044321 23.915122 10.472656 24.410156 C 10.327259 24.487286 10.216077 24.577029 10.226562 24.609375 C 10.261124 24.715932 10.927841 24.94306 11.320312 24.982422 C 11.826677 25.033182 12.532132 24.971567 12.935547 24.820312 C 13.576934 24.579843 14.092327 24.179938 14.455078 23.636719 C 14.765263 23.172212 14.927852 22.710683 14.976562 22.173828 L 14.988281 22 L 22 22 A 4 4 0 0 0 26 18 A 4 4 0 0 0 22 14 A 4 4 0 0 0 21.910156 14.003906 A 6 6 0 0 0 22 13 A 6 6 0 0 0 16 7 z"/>
 <path style="fill:#8b9cbe;opacity:0.2" d="M 3.4003906 2 C 2.6247906 2 2 2.6247906 2 3.4003906 L 2 4.4003906 C 2 3.6247906 2.6247906 3 3.4003906 3 L 28.599609 3 C 29.375209 3 30 3.6247906 30 4.4003906 L 30 3.4003906 C 30 2.6247906 29.375209 2 28.599609 2 L 3.4003906 2 z"/>
</svg>
