<svg xmlns="http://www.w3.org/2000/svg" width="32" height="32" version="1.1">
 <circle style="opacity:0.2" cx="16" cy="17" r="14"/>
 <circle style="fill:#b2bfd9" cx="16" cy="16" r="14"/>
 <path style="opacity:0.1" d="m 19,11 a 8,8 0 0 1 8,8 8,8 0 0 1 -8,8 H 17 V 26.734375 24.650391 13.351562 11.259766 11 Z m 0,2 v 12 a 6,6 0 0 0 6,-6 6,6 0 0 0 -6,-6 z"/>
 <path style="fill:#ff3c28" d="m 19,10 a 8,8 0 0 1 8,8 8,8 0 0 1 -8,8 H 17 V 25.734375 23.650391 12.351562 10.259766 10 Z m 0,2 v 12 a 6,6 0 0 0 6,-6 6,6 0 0 0 -6,-6 z"/>
 <path style="opacity:0.1" d="M 13,7.0000002 A 8,8 0 0 0 5,15 a 8,8 0 0 0 8,8 h 2 V 22.734375 20.650391 9.3515622 7.2597658 7.0000002 Z m 0,2 V 21 A 6,6 0 0 1 7,15 6,6 0 0 1 13,9.0000002 Z"/>
 <path style="fill:#0ab9e6" d="M 13,6.0000002 A 8,8 0 0 0 5,14 a 8,8 0 0 0 8,8 h 2 V 21.734375 19.650391 8.3515622 6.2597658 6.0000002 Z m 0,2 V 20 A 6,6 0 0 1 7,14 6,6 0 0 1 13,8.0000002 Z"/>
 <path style="fill:#8b9cbe;opacity:0.2" d="M 16 2 A 14 14 0 0 0 2 16 A 14 14 0 0 0 2.0214844 16.585938 A 14 14 0 0 1 16 3 A 14 14 0 0 1 29.978516 16.414062 A 14 14 0 0 0 30 16 A 14 14 0 0 0 16 2 z"/>
</svg>
