<svg xmlns="http://www.w3.org/2000/svg" width="32" height="32" version="1.1">
 <rect style="opacity:0.2" width="28" height="28" x="2" y="3" rx="2.1" ry="2.1"/>
 <rect style="fill:#475ad0" width="28" height="28" x="2" y="2" rx="2.1" ry="2.1"/>
 <path style="opacity:0.2" d="m 11.009766,7.9998662 c -1.3475247,-0.019125 -1.3475247,2.0191248 0,2 H 15 c 1.347525,-0.019125 1.347525,2.0191248 0,1.9999998 h -0.990234 c -1.347525,-0.01913 -1.347525,2.019125 0,2 H 15 c 1.347525,-0.01913 1.347525,2.019125 0,2 h -4.990234 c -1.3475247,-0.01913 -1.3475247,2.019125 0,2 H 15 c 1.347525,-0.01913 1.347525,2.019125 0,2 h -2.990234 c -1.347525,-0.01912 -1.347525,2.019125 0,2 H 15 c 1.347525,-0.01912 1.347525,2.019125 0,2 h -2 c -1.347525,-0.01912 -1.347525,2.019125 0,2 H 15 18.978516 23.5 c 0.831,0 1.5,-0.669 1.5,-1.5 v -10.5 L 19,7.9998662 H 16.990234 15 Z M 7.0097656,11.999866 c -1.3459329,-0.01913 -1.3459329,2.019125 0,2 h 3.9804684 c 1.345933,0.01913 1.345933,-2.019125 0,-2 z m 0.9902344,8 c -0.5522847,0 -1,0.447715 -1,1 0,0.552285 0.4477153,1 1,1 0.5522847,0 1,-0.447715 1,-1 0,-0.552285 -0.4477153,-1 -1,-1 z m 0.00781,4 c -1.3427605,-0.01912 -1.3427605,2.019125 0,2 h 1.984375 c 1.342761,0.01912 1.342761,-2.019125 0,-2 z"/>
 <path style="fill:#8b9cbe" d="m 11.009766,7 c -1.3475247,-0.019125 -1.3475247,2.0191252 0,2 H 15 c 1.347525,-0.019125 1.347525,2.019125 0,2 h -0.990234 c -1.347525,-0.01913 -1.347525,2.019125 0,2 H 15 c 1.347525,-0.01913 1.347525,2.019125 0,2 h -4.990234 c -1.3475247,-0.01913 -1.3475247,2.019125 0,2 H 15 c 1.347525,-0.01913 1.347525,2.019125 0,2 h -2.990234 c -1.347525,-0.01912 -1.347525,2.019125 0,2 H 15 c 1.347525,-0.01912 1.347525,2.019125 0,2 h -2 c -1.347525,-0.01912 -1.347525,2.019125 0,2 H 15 18.978516 23.5 C 24.331,25 25,24.331 25,23.5 V 13 L 19,7 H 16.990234 15 Z m -4.0000004,4 c -1.3459329,-0.01913 -1.3459329,2.019125 0,2 h 3.9804684 c 1.345933,0.01913 1.345933,-2.019125 0,-2 z M 8,19 c -0.5522847,0 -1,0.447715 -1,1 0,0.552285 0.4477153,1 1,1 0.5522847,0 1,-0.447715 1,-1 0,-0.552285 -0.4477153,-1 -1,-1 z m 0.00781,4 c -1.3427605,-0.01912 -1.3427605,2.019125 0,2 h 1.984375 c 1.342761,0.01912 1.342761,-2.019125 0,-2 z"/>
 <path style="fill:#979797" d="m 19,7 v 4.666666 c 0,0.738667 0.594667,1.333333 1.333333,1.333333 H 25 Z"/>
 <path style="fill:#979797" d="m 18,21 v 2.25 L 18.859375,22.390625 20.46875,24 H 21 V 23.46875 L 19.390625,21.859375 20.25,21 Z m 3,0 v 0.53125 L 22.609375,23.140625 21.75,24 H 24 V 21.75 L 23.140625,22.609375 21.529297,21 Z"/>
 <path style="fill:#8b9cbe;opacity:0.1" d="M 4.0996094 2 C 2.9362094 2 2 2.9362093 2 4.0996094 L 2 5.0996094 C 2 3.9362093 2.9362094 3 4.0996094 3 L 27.900391 3 C 29.063791 3 30 3.9362093 30 5.0996094 L 30 4.0996094 C 30 2.9362093 29.063791 2 27.900391 2 L 4.0996094 2 z"/>
</svg>
