<svg xmlns="http://www.w3.org/2000/svg" width="32" height="32" version="1.1">
 <circle style="opacity:0.2" cx="16" cy="17" r="14"/>
 <path style="fill:#42a5f5" d="m 30.002734,16.001367 c 0,4.565928 -2.185563,8.62139 -5.5676,11.177297 -2.345697,1.772713 -4.573287,-1.711434 -7.740101,-1.711434 -7.2739527,0 -13.9276036,-1.238664 -14.6282136,-8.125985 C 2.0226299,16.906842 2,16.460156 2,16.001367 2,8.2686256 8.2686256,2 16.001367,2 23.734109,2 30.002734,8.2686256 30.002734,16.001367 Z"/>
 <path style="opacity:0.2;fill:#8b9cbe" d="M 16 2 A 14 14 0 0 0 2 16 A 14 14 0 0 0 2.0214844 16.585938 A 14 14 0 0 1 16 3 A 14 14 0 0 1 29.978516 16.414062 A 14 14 0 0 0 30 16 A 14 14 0 0 0 16 2 z"/>
 <path style="opacity:0.1;fill-rule:evenodd" d="M 15.266019,7.0155898 C 14.813982,7.0205603 14.342,7.0547516 13.845671,7.1275762 10.25669,7.6541523 7.9573423,9.6218153 5.0113894,13.177167 c -1.1969312,1.444527 -2.2547358,3.185607 -3.0113892,4.522129 0.026277,0.493461 0.078256,0.985173 0.1557188,1.473086 2.0673603,-2.860948 7.8229951,-7.020704 9.118808,-5.155823 1.483616,2.13516 -2.7902208,4.882378 -2.2165197,5.689024 0.6147265,0.864329 3.3070777,-0.357227 5.8057477,-0.536674 2.789564,-0.200337 4.271612,0.662823 6.134981,2.095091 -0.469283,-0.885495 -0.777055,-1.532264 -0.955579,-2.167253 -0.371079,-1.319911 0.619349,-2.82721 0.989759,-3.549552 0.588508,-1.147643 1.084127,-2.746532 1.959016,-3.609631 1.53123,-1.510599 4.204441,-2.292421 6.56633,-3.0761721 0.739163,-0.245278 1.394376,-0.1933337 2.165297,-0.3622216 C 31.008086,8.0998135 30.115046,7.9518841 29.385611,7.9410793 25.497176,7.8834846 23.127469,8.4727112 21.558237,8.3017818 19.567956,8.0849895 17.707018,6.9886855 15.266019,7.0155898 Z"/>
 <path style="fill:#b2bfd9;fill-rule:evenodd" d="M 10.652407,11.836507 C 8.3595687,11.641955 4.0846308,14.79482 2.1380994,17.839047 A 14.001367,14.001367 0 0 0 15.935736,30 c 0.351735,-0.002 0.70436,-0.01117 1.055571,-0.03281 a 14.001367,14.001367 0 0 0 0.0082,-0.0014 14.001367,14.001367 0 0 0 7.583162,-2.909659 C 24.276194,25.053688 23.236661,22.83834 20.998926,20.264674 18.180315,16.971556 13.849109,12.369796 10.652407,11.836507 Z"/>
 <path style="fill:#424242;fill-rule:evenodd" d="M 15.266019,6.0160068 C 14.813982,6.0209773 14.342,6.0551686 13.845671,6.1279932 10.25669,6.6545693 7.9573423,8.6222323 5.0113894,12.177584 c -1.1969312,1.444527 -2.2547358,3.185607 -3.0113892,4.522129 0.026277,0.493461 0.078256,0.985173 0.1557188,1.473086 2.0673603,-2.860948 7.8229951,-7.020704 9.118808,-5.155823 1.483616,2.13516 -2.7902208,4.882378 -2.2165197,5.689024 0.6147265,0.864329 3.3070777,-0.357227 5.8057477,-0.536674 2.789564,-0.200337 4.271612,0.662823 6.134981,2.095091 -0.469283,-0.885495 -0.777055,-1.532264 -0.955579,-2.167253 -0.371079,-1.319911 0.619349,-2.82721 0.989759,-3.549552 0.588508,-1.147643 1.084127,-2.746532 1.959016,-3.609631 1.53123,-1.5105994 4.204441,-2.292421 6.56633,-3.0761721 0.739163,-0.245278 1.394376,-0.1933337 2.165297,-0.3622216 C 31.008086,7.1002305 30.115046,6.9523011 29.385611,6.9414963 25.497176,6.8839016 23.127469,7.4731282 21.558237,7.3021988 19.567956,7.0854065 17.707018,5.9891025 15.266019,6.0160068 Z"/>
 <ellipse style="opacity:0.4;fill:#8b9cbe" cx="17.648" cy="6.619" rx="1.001" ry=".999" transform="matrix(0.98003409,0.19882953,-0.19571032,0.98066175,0,0)"/>
 <path style="fill:#424242;fill-rule:evenodd" d="M 5.6757812 20.03125 C 5.0813519 20.020692 3.7724905 20.588805 2.9199219 20.976562 A 14 14 0 0 0 4.2792969 23.648438 C 4.8359518 21.863373 6.2361796 20.616094 5.9453125 20.136719 C 5.9025551 20.066252 5.8084989 20.033606 5.6757812 20.03125 z"/>
 <path style="opacity:0.1;fill-rule:evenodd" d="m 23.552799,9.0466277 c 1.673402,-0.4663253 4.560439,-1.6050145 6.665693,-1.8706898 -0.38765,-0.072344 -1.08921,0.046793 -1.47691,0.088097 -2.078974,0.4116086 -4.108234,1.2405785 -5.188783,1.7825945 z"/>
 <path style="fill:#ffc107;fill-rule:evenodd" d="m 19.529185,10.561666 c 0.824333,-0.4275 1.222672,-0.7829544 3.14797,-1.2639651 1.86897,-0.4669372 4.193945,-1.5955986 6.064427,-2.0336677 -3.200175,0.3856102 -7.06132,1.1928744 -9.212397,3.2976328 z"/>
 <path style="opacity:0.1" d="M 15.134766 10.498047 A 1.0017237 0.99827346 45.000294 0 0 15.019531 10.800781 A 1.0017237 0.99827346 45.000294 0 0 15.804688 11.980469 A 1.0017237 0.99827346 45.000294 0 0 16.980469 11.199219 A 1.0017237 0.99827346 45.000294 0 0 16.865234 10.501953 A 1.0017237 0.99827346 45.000294 0 1 15.804688 10.980469 A 1.0017237 0.99827346 45.000294 0 1 15.134766 10.498047 z"/>
</svg>
