<svg xmlns="http://www.w3.org/2000/svg" width="32" height="32" version="1">
 <circle style="opacity:0.2" cx="16" cy="17" r="14"/>
 <circle style="fill:#3f3bbd" cx="16" cy="16" r="14"/>
 <path style="opacity:0.2" d="m 25.232116,17.636363 -1.833161,-1.833992 -3.698484,-3.604743 -1.222108,-1.201581 c -1.350752,-1.3280631 -3.569842,-1.3280631 -4.952753,0 l -1.222107,1.201581 -3.6984842,3.604743 -1.8331614,1.802372 c -1.0291431,1.011859 -1.0291431,2.624505 0,3.636363 v 0 c 1.0291436,1.011859 2.6693407,1.011859 3.6984846,0 l 1.833161,-1.802371 1.833161,1.802371 c 1.029143,1.011859 2.66934,1.011859 3.698484,0 1.029144,-1.011858 1.029144,-2.624504 0,-3.636363 l 1.833162,1.802372 1.833162,1.802372 c 1.029143,1.011857 2.66934,1.011857 3.698484,0 v 0 c 1.061303,-0.948618 1.061303,-2.592885 0.03216,-3.573124 z"/>
 <path style="fill:#8b9cbe" d="M 25.232116,16.636363 23.398955,14.802371 19.700471,11.197628 18.478363,9.9960471 c -1.350752,-1.3280632 -3.569842,-1.3280632 -4.952753,0 l -1.222107,1.2015809 -3.6984842,3.604743 -1.8331614,1.802372 c -1.0291431,1.011859 -1.0291431,2.624505 0,3.636363 v 0 c 1.0291436,1.011859 2.6693407,1.011859 3.6984846,0 l 1.833161,-1.802371 1.833161,1.802371 c 1.029143,1.011859 2.66934,1.011859 3.698484,0 1.029144,-1.011858 1.029144,-2.624504 0,-3.636363 l 1.833162,1.802372 1.833162,1.802372 c 1.029143,1.011857 2.66934,1.011857 3.698484,0 v 0 c 1.061303,-0.948618 1.061303,-2.592885 0.03216,-3.573124 z"/>
 <path style="opacity:0.1;fill:#8b9cbe" d="M 16 2 A 14 14 0 0 0 2 16 A 14 14 0 0 0 2.0214844 16.585938 A 14 14 0 0 1 16 3 A 14 14 0 0 1 29.978516 16.414062 A 14 14 0 0 0 30 16 A 14 14 0 0 0 16 2 z"/>
</svg>
