<svg xmlns="http://www.w3.org/2000/svg" width="32" height="32" version="1">
 <rect style="opacity:0.2" width="28" height="28" x="2" y="3" rx="1.4" ry="1.4"/>
 <rect style="fill:#4f4f4f" width="28" height="28" x="2" y="2" rx="1.4" ry="1.4"/>
 <path style="opacity:0.1;fill:#8b9cbe" d="M 3.4004,2 C 2.6248,2 2,2.6248 2,3.4004 V 4.4004 C 2,3.6248 2.6248,3 3.4004,3 H 28.6 C 29.375,3 30,3.6248 30,4.4004 V 3.4004 C 30,2.6248 29.375,2 28.6,2 Z"/>
 <path style="fill:none;stroke:#000000;stroke-width:3;stroke-linecap:round;stroke-linejoin:round;opacity:0.2" d="M 7.5,10.5 13.5,16.5 7.5,22.5"/>
 <path style="fill:none;stroke:#f2f2f2;stroke-width:3;stroke-linecap:round;stroke-linejoin:round" d="M 7.5,9.5 13.5,15.5 7.5,21.5"/>
 <path style="fill:none;stroke:#000000;stroke-width:3.00004;stroke-linecap:round;stroke-linejoin:round;opacity:0.2" d="M 24.5,22.5 H 16.5"/>
 <path style="fill:none;stroke:#f2f2f2;stroke-width:3.00004;stroke-linecap:round;stroke-linejoin:round" d="M 24.5,21.5 H 16.5"/>
</svg>
