<svg xmlns="http://www.w3.org/2000/svg" width="32" height="32" version="1.1">
 <path style="opacity:0.2" d="m 8.0546875,22 a 1.3666316,1.3780973 0 0 0 -0.625,0.15625 C 6.9062352,22.426167 6.4810685,23.027511 6.2324219,23.853516 6.0014796,24.621169 5.940055,25.509301 6.0605469,26.357422 6.2854121,27.937491 7.0876845,29 8.0566406,29 h 2.6621094 0.07227 v -0.0059 c 0.116082,-0.0063 0.231944,-0.05475 0.341796,-0.154297 l 1.3125,-1.166016 c 0.269257,-0.242473 0.468994,-0.852637 0.533204,-1.632812 0.02087,-0.253131 0.02597,-0.524555 0.01563,-0.794922 -0.03103,-0.811101 -0.206548,-1.617673 -0.550782,-1.923828 l -1.3125,-1.167969 c -0.10911,-0.09481 -0.223202,-0.142105 -0.339843,-0.148438 V 22 h -0.07227 z m 13.1542965,0 v 0.0059 c -0.116641,0.0063 -0.230733,0.05363 -0.339843,0.148438 l -1.3125,1.167969 c -0.458978,0.408207 -0.618656,1.706227 -0.535157,2.71875 0.06421,0.780175 0.263948,1.390339 0.533204,1.632812 l 1.3125,1.166016 c 0.109852,0.09955 0.225714,0.147974 0.341796,0.154297 V 29 h 2.734375 c 0.968956,0 1.771229,-1.062509 1.996094,-2.642578 0.120492,-0.848121 0.05907,-1.736253 -0.171875,-2.503906 -0.248647,-0.826005 -0.673813,-1.427349 -1.197266,-1.697266 A 1.3666316,1.3780973 0 0 0 23.945312,22 Z"/>
 <path style="fill:#585e62" d="m 28.831649,21.999999 a 0.48315014,0.48429549 0 0 0 0.05387,-0.965686 1.0339412,1.0363923 0 1 1 1.01993,-0.528365 0.48315014,0.48429549 0 0 0 0.845513,0.467588 2,2.0047411 0 1 0 -1.975118,1.023316 0.5261505,0.52739778 0 0 0 0.0558,0.0031 z"/>
 <circle style="opacity:0.2" cx="-27.25" cy="18.25" r="1.75" transform="scale(-1,1)"/>
 <circle style="fill:#b2bfd9" cx="-27.25" cy="17.25" r="1.75" transform="scale(-1,1)"/>
 <path style="fill:none;stroke:#585e62;stroke-width:1.7045455;stroke-linecap:round;stroke-linejoin:round" d="M 26.704547,16.204545 24.863637,13"/>
 <circle style="opacity:0.2" cx="-25" cy="14" r="2" transform="scale(-1,1)"/>
 <circle style="fill:#c8c8c8" cx="-25" cy="13" r="2" transform="scale(-1,1)"/>
 <path style="fill:#585e62" d="m 21.231877,27.999999 c 0.561767,0 1.026559,-1.061817 1.156827,-2.641886 0.06976,-0.848121 0.03461,-1.73701 -0.09935,-2.504663 -0.144008,-0.826005 -0.390541,-1.427924 -0.694149,-1.697841 -0.116,-0.103118 -0.237813,-0.15561 -0.362797,-0.15561 -0.124984,0 -0.246796,0.05329 -0.363325,0.154543 l -1.313256,1.167866 c -0.458978,0.408207 -0.61805,1.705303 -0.534551,2.717826 0.06421,0.780175 0.264238,1.390354 0.533494,1.632827 l 1.312992,1.167598 c 0.117321,0.106316 0.239926,0.15934 0.364118,0.15934 z"/>
 <path style="fill:#585e62" d="m 23.944265,27.999999 c 0.968956,0 1.770386,-1.061817 1.995251,-2.641886 0.120492,-0.848121 0.05972,-1.73701 -0.171225,-2.504663 -0.248647,-0.826005 -0.674068,-1.427924 -1.19752,-1.697841 a 1.3666316,1.3780973 0 0 0 -0.625977,-0.15561 h -2.735377 v 7 z"/>
 <path style="opacity:0.3" d="m 21.281601,27.999999 c 0.574282,0 1.049428,-1.061817 1.182599,-2.641886 0.07132,-0.848121 0.03538,-1.73701 -0.101566,-2.504663 -0.147217,-0.826005 -0.399242,-1.427924 -0.709614,-1.697841 -0.118584,-0.103118 -0.243111,-0.15561 -0.370879,-0.15561 -0.127769,0 -0.252295,0.05329 -0.37142,0.154543 l -1.342514,1.167866 c -0.469204,0.408207 -0.631819,1.705303 -0.54646,2.717826 0.06564,0.780175 0.270124,1.390354 0.54538,1.632827 l 1.342243,1.167598 c 0.119935,0.106316 0.245272,0.15934 0.372231,0.15934 z"/>
 <path style="fill:#c8c8c8" d="m 16,3.0212002 c -4.510193,0 -6.9999997,3.8961696 -6.9999997,7.6999998 H 23 C 23,6.9173698 20.190664,3.0212002 16,3.0212002 Z"/>
 <path style="fill:#585e62" d="m 16,4.4120405 c -3.608047,0 -5.6,3.1083254 -5.6,6.1430365 L 16,11.2 21.599999,10.555077 C 21.599999,7.5203659 19.352488,4.4120405 16,4.4120405 Z"/>
 <path style="fill:#49b04a" d="M 13.5,6.5 A 1.4999999,1.4999999 0 0 0 12,8 h 3 A 1.4999999,1.4999999 0 0 0 13.5,6.5 Z"/>
 <path style="fill:#49b04a" d="M 18.500001,6.5000005 A 1.4999994,1.4999994 0 0 0 17,8 h 3 A 1.4999994,1.4999994 0 0 0 18.500001,6.5000005 Z"/>
 <circle style="fill:#49b04a" cx="13.5" cy="9.5" r=".5"/>
 <path style="fill:#585e62" d="m 3.1683509,21.999999 a 0.48315014,0.48429549 0 0 1 -0.053871,-0.965686 1.0339412,1.0363923 0 1 0 -1.0199301,-0.528365 0.48315014,0.48429549 0 0 1 -0.8455126,0.467588 2,2.0047411 0 1 1 1.9751178,1.023316 0.5261505,0.52739778 0 0 1 -0.055804,0.0031 z"/>
 <circle style="opacity:0.2" cx="4.75" cy="18.25" r="1.75"/>
 <circle style="fill:#b2bfd9" cx="4.75" cy="17.25" r="1.75"/>
 <path style="fill:none;stroke:#585e62;stroke-width:1.7045455;stroke-linecap:round;stroke-linejoin:round" d="M 5.2954534,16.204545 7.1363625,13"/>
 <circle style="opacity:0.2" cx="7" cy="14" r="2"/>
 <circle style="fill:#c8c8c8" cx="7" cy="13" r="2"/>
 <path style="fill:#585e62" d="m 10.768123,27.999999 c -0.561767,0 -1.0265588,-1.061817 -1.1568274,-2.641886 -0.069762,-0.848121 -0.034615,-1.73701 0.099353,-2.504663 0.1440089,-0.826005 0.3905414,-1.427924 0.6941494,-1.697841 0.116,-0.103118 0.237813,-0.15561 0.362797,-0.15561 0.124984,0 0.246796,0.05329 0.363325,0.154543 l 1.313256,1.167866 c 0.458978,0.408207 0.61805,1.705303 0.534551,2.717826 -0.06421,0.780175 -0.264238,1.390354 -0.533494,1.632827 l -1.312992,1.167598 c -0.117321,0.106316 -0.239926,0.15934 -0.364118,0.15934 z"/>
 <path style="fill:#585e62" d="m 8.0557347,27.999999 c -0.9689561,0 -1.7703854,-1.061817 -1.9952506,-2.641886 -0.1204919,-0.848121 -0.059717,-1.73701 0.1712253,-2.504663 0.2486466,-0.826005 0.6740674,-1.427924 1.1975197,-1.697841 a 1.3666316,1.3780973 0 0 1 0.6259764,-0.15561 h 2.7353775 v 7 z"/>
 <path style="opacity:0.3" d="m 10.718399,27.999999 c -0.574282,0 -1.0494283,-1.061817 -1.1825991,-2.641886 -0.071317,-0.848121 -0.035385,-1.73701 0.1015658,-2.504663 0.147217,-0.826005 0.3992423,-1.427924 0.7096143,-1.697841 0.118584,-0.103118 0.243111,-0.15561 0.370879,-0.15561 0.127769,0 0.252295,0.05329 0.37142,0.154543 l 1.342514,1.167866 c 0.469204,0.408207 0.631819,1.705303 0.54646,2.717826 -0.06564,0.780175 -0.270124,1.390354 -0.54538,1.632827 l -1.342243,1.167598 c -0.119935,0.106316 -0.245272,0.15934 -0.372231,0.15934 z"/>
 <path style="opacity:0.2" d="m 23.723826,15.687146 a 2.1827544,2.1346097 0 0 1 -0.01462,-1.164054 c 0.384764,-1.356277 0.132085,-2.853464 0.132085,-2.853464 -4.83093,-1.474724 -7.834371,-0.01225 -7.834371,-0.01225 0,0 -2.996393,-1.471405 -7.8309769,-0.01149 0,0 -0.257378,1.496933 0.1232073,2.854741 a 2.1845816,2.1363967 0 0 1 -0.018014,1.163799 C 8.1469701,16.112943 8.0013135,16.800399 8.0000087,17.675992 7.9903483,24.03234 15.987606,26 15.987606,26 c 0,0 8.002737,-1.94392 8.012394,-8.300522 0,-0.875595 -0.143306,-1.562539 -0.276172,-2.012334 z"/>
 <path style="fill:#b2bfd9" d="m 23.723826,14.687146 a 2.1827544,2.1346097 0 0 1 -0.01462,-1.164054 c 0.384764,-1.356277 0.132085,-2.853464 0.132085,-2.853464 -4.83093,-1.4747241 -7.834371,-0.01225 -7.834371,-0.01225 0,0 -2.996393,-1.4714053 -7.8309769,-0.01149 0,0 -0.257378,1.496933 0.1232073,2.854741 a 2.1845816,2.1363967 0 0 1 -0.018014,1.163799 C 8.1469701,15.112943 8.0013135,15.800399 8.0000087,16.675992 7.9903483,23.03234 15.987606,25 15.987606,25 c 0,0 8.002737,-1.94392 8.012394,-8.300522 0,-0.875595 -0.143306,-1.562539 -0.276172,-2.012334 z"/>
 <path style="fill:#49b04a" d="m 12.432692,11.602857 c -0.371006,-0.01394 -0.778817,-0.0098 -1.220865,0.02116 -0.432571,0.03028 -0.999778,0.193405 -1.498046,0.283528 0.01174,0.323738 -0.0495,0.447681 0.02962,0.729981 l 0.0021,0.0063 0.0021,0.0085 c 0.220523,0.808231 0.207224,1.664095 -0.03809,2.465005 l 0.0042,-0.0127 c -0.09453,0.316012 -0.2126457,0.851558 -0.2137037,1.561523 -0.00385,2.534017 1.5054187,4.090688 3.3282857,5.264319 1.56779,1.009405 2.746946,1.298306 3.16113,1.415527 0.414127,-0.115867 1.594291,-0.399975 3.165363,-1.404947 1.825776,-1.167899 3.340447,-2.720842 3.345213,-5.25374 0,-0.703728 -0.111721,-1.231256 -0.20524,-1.550944 -0.243375,-0.802064 -0.254989,-1.659107 -0.03174,-2.467121 l 0.0021,-0.0063 0.0021,-0.0085 c 0.07983,-0.281381 0.01892,-0.404892 0.03174,-0.727863 -1.516287,-0.278958 -2.836087,-0.347323 -3.723956,-0.228516 -1.192342,0.159548 -1.618652,0.391438 -1.618652,0.391438 l -0.952148,0.463378 -0.952147,-0.465494 c 0,0 -0.425644,-0.234684 -1.616536,-0.397785 -0.297723,-0.04078 -0.631923,-0.07281 -1.002929,-0.08675 z"/>
 <path style="fill:#35393b" d="M 16,15.934783 14.5,19.847827 15.999329,20.5 17.5,19.847827 Z"/>
 <ellipse style="fill:#35393b" cx="16" cy="15.533" rx="1.5" ry="1.467"/>
 <circle style="fill:#49b04a" cx="18.5" cy="9.5" r=".5"/>
 <circle style="fill:#49b04a" cx="16" cy="9.5" r=".5"/>
 <rect style="opacity:0.2" width="3" height="1" x="12" y="8"/>
 <rect style="opacity:0.2" width="3" height="1" x="17" y="8"/>
 <path style="fill:#8b9cbe;opacity:0.2" d="M 16 3.0214844 C 11.489807 3.0214844 9 6.9168729 9 10.720703 L 9.0644531 10.720703 C 9.4600303 7.2641635 11.885864 4.0214844 16 4.0214844 C 19.822667 4.0214844 22.487711 7.2641628 22.927734 10.720703 L 23 10.720703 C 23 6.9168729 20.190664 3.0214844 16 3.0214844 z"/>
</svg>
