<svg xmlns="http://www.w3.org/2000/svg" width="32" height="32" version="1.1">
 <path style="opacity:0.2" d="M 11.961104,5.0001679 C 7.6568141,5.0240253 4.5448098,7.3724076 2.8853032,9.8769806 1.4316305,12.070904 1.1070363,14.260691 1.1002202,14.307077 c -0.064102,0.38006 -0.098986,0.765478 -0.099605,1.150928 a 5.000295,4.9943557 0 0 0 0,0.0078 v 6.443246 c -0.0273194,1.929441 0.8576474,4.035035 2.2713913,5.304033 1.4137437,1.269 3.1073457,1.786865 4.7283217,1.786865 1.3808126,0 2.7824188,-0.485548 4.0506148,-1.381114 0.985863,0.702254 2.088506,1.247875 3.355331,1.355754 a 5.000295,4.9943557 0 0 0 0.02734,0.002 c 0.226718,0.01799 0.454225,0.02364 0.681612,0.01951 1.436366,-0.02361 2.701622,-0.602289 3.812344,-1.390868 C 21.201008,28.511685 22.611119,29 23.999669,29 c 1.620977,0 3.314578,-0.517865 4.728322,-1.786865 1.413747,-1.269043 2.298715,-3.374637 2.271395,-5.304065 v -6.529078 a 5.000295,4.9943557 0 0 0 0,-0.0039 c -2.43e-4,-0.38902 -0.0347,-0.777134 -0.09961,-1.160682 -0.0051,-0.03427 -0.335648,-2.24955 -1.820238,-4.447653 -1.69623,-2.5114752 -4.83503,-4.7913239 -9.118762,-4.7675781 -1.435883,0.00796 -2.73765,0.335062 -3.913903,0.7997972 -1.220748,-0.4870425 -2.586695,-0.808118 -4.085769,-0.7998082 z"/>
 <path style="fill:#f540ae" d="M 11.961104,4.0001679 C 7.6568141,4.0240253 4.5448098,6.3724076 2.8853032,8.8769806 1.4316305,11.070904 1.1070363,13.260691 1.1002202,13.307077 c -0.064102,0.38006 -0.098986,0.765478 -0.099605,1.150928 a 5.000295,4.9943557 0 0 0 0,0.0078 v 6.443246 c -0.0273194,1.929441 0.8576474,4.035035 2.2713913,5.304033 1.4137437,1.269 3.1073457,1.786865 4.7283217,1.786865 1.3808126,0 2.7824188,-0.485548 4.0506148,-1.381114 0.985863,0.702254 2.088506,1.247875 3.355331,1.355754 a 5.000295,4.9943557 0 0 0 0.02734,0.002 c 0.226718,0.01799 0.454225,0.02364 0.681612,0.01951 1.436366,-0.02361 2.701622,-0.602289 3.812344,-1.390868 C 21.201008,27.511685 22.611119,28 23.999669,28 c 1.620977,0 3.314578,-0.517865 4.728322,-1.786865 1.413747,-1.269043 2.298715,-3.374637 2.271395,-5.304065 v -6.529078 a 5.000295,4.9943557 0 0 0 0,-0.0039 c -2.43e-4,-0.38902 -0.0347,-0.777134 -0.09961,-1.160682 -0.0051,-0.03427 -0.335648,-2.24955 -1.820238,-4.447653 -1.69623,-2.5114752 -4.83503,-4.7913239 -9.118762,-4.7675781 -1.435883,0.00796 -2.73765,0.335062 -3.913903,0.7997972 -1.220748,-0.4870425 -2.586695,-0.808118 -4.085769,-0.7998082 z"/>
 <path style="opacity:0.2" d="M 11.988281,9.999515 C 9.6080358,10.012724 7.8790807,11.396416 7.0546875,12.642093 6.2302943,13.88777 6.0292969,15.14014 6.0292969,15.14014 A 2.0002,2.0002 0 0 0 6,15.478031 v 6.521484 a 2.0002,2.0002 0 1 0 4,0 v -6.253906 c 0.01306,-0.06045 0.0883,-0.442616 0.388672,-0.896485 0.323234,-0.488414 0.594202,-0.8439 1.623047,-0.849609 1.036664,-0.0058 1.293178,0.339872 1.609375,0.808594 0.293514,0.435097 0.365931,0.80054 0.378906,0.859375 v 6.332031 a 2.0002,2.0002 0 0 0 1.830078,2.021484 2.0002,2.0002 0 0 0 0.199219,0.0059 A 2.0002,2.0002 0 0 0 18,21.999515 v -6.253906 c 0.01306,-0.06045 0.0883,-0.442616 0.388672,-0.896485 0.323234,-0.488414 0.594201,-0.8439 1.623047,-0.849609 1.036664,-0.0058 1.293178,0.339872 1.609375,0.808594 0.293514,0.435097 0.365931,0.80054 0.378906,0.859375 v 6.332031 a 2.0002,2.0002 0 1 0 4,0 v -6.607422 a 2.0002,2.0002 0 0 0 -0.0293,-0.339844 c 0,0 -0.203626,-1.249784 -1.035156,-2.482422 -0.831527,-1.232637 -2.574839,-2.5834786 -4.947266,-2.570312 -1.677474,0.00931 -3.022975,0.702272 -3.964843,1.544922 -0.950454,-0.852563 -2.325429,-1.5544107 -4.035157,-1.544922 z"/>
 <path style="fill:none;stroke:#8b9cbe;stroke-width:4;stroke-linecap:round;stroke-linejoin:round" d="m 8.0002,21 v -6.522359 c 0,0 0.5907092,-3.458723 3.9998,-3.477641 3.409091,-0.01892 4,3.393258 4,3.393258 V 21 21"/>
 <path style="fill:none;stroke:#8b9cbe;stroke-width:4;stroke-linecap:round;stroke-linejoin:round" d="m 16.0002,21 v -6.522359 c 0,0 0.590709,-3.458723 3.9998,-3.477641 3.409091,-0.01892 4,3.393258 4,3.393258 V 21 21"/>
 <path style="opacity:0.2;fill:#8b9cbe" d="M 11.960938 4 C 7.6566476 4.0238574 4.5442722 6.3723801 2.8847656 8.8769531 C 1.4310929 11.070877 1.1064255 13.260255 1.0996094 13.306641 C 1.0355074 13.686701 1.000619 14.071581 1 14.457031 A 5.000295 4.9943557 0 0 0 1 14.464844 L 1 15.457031 C 1.000619 15.071581 1.0355074 14.686701 1.0996094 14.306641 C 1.1064255 14.260255 1.4310929 12.070877 2.8847656 9.8769531 C 4.5442722 7.3723801 7.6566476 5.0238574 11.960938 5 C 13.460011 4.9916902 14.826127 5.3137387 16.046875 5.8007812 C 17.223128 5.3360461 18.525054 5.00796 19.960938 5 C 24.244669 4.9762542 27.383848 7.2561029 29.080078 9.7675781 C 30.564668 11.965681 30.895291 14.180574 30.900391 14.214844 C 30.965301 14.598392 30.999757 14.987933 31 15.376953 L 31 14.380859 A 5.000295 4.9943557 0 0 0 31 14.376953 C 30.999757 13.987933 30.965301 13.598392 30.900391 13.214844 C 30.895291 13.180574 30.564668 10.965681 29.080078 8.7675781 C 27.383848 6.2561029 24.244669 3.9762542 19.960938 4 C 18.525054 4.00796 17.223128 4.336046 16.046875 4.8007812 C 14.826127 4.3137387 13.460011 3.9916902 11.960938 4 z"/>
</svg>
