<svg xmlns="http://www.w3.org/2000/svg" width="32" height="32" version="1">
 <path style="fill:#4f4f4f" d="M 4.5526627,5.1316107 10.494595,3.0000345 H 23.633756 L 25.868424,6.5526613 28,12.122655 v 7.883496 l -1.42105,6.441221 -2.086096,2.131576 H 5.2894664 L 3.8421374,27.157897 2.4210866,25.716632 V 7.119667 Z"/>
 <path style="opacity:0.2" d="m 23.324219,2.0057175 c -0.49846,-0.053615 -1.053788,0.2765326 -1.220703,0.7246094 -0.06452,0.172372 -0.06641,0.2036195 -0.06641,2.0664062 0,1.4666793 -0.0078,2.1140847 -0.03711,2.1523438 -0.03417,0.044619 -0.06917,0.049653 -2.242188,0.0625 -1.332161,0.00783 -2.292495,0.030616 -2.501953,0.048828 -1.65663,0.1437967 -2.729249,0.3262403 -3.791015,0.59375 -2.315488,0.5833877 -4.2452241,1.6885422 -5.4140628,3.099609 -1.1576698,1.397585 -1.7492711,2.830126 -1.9960937,5.087891 -0.05405,0.494618 -0.074405,2.142776 -0.03125,2.541015 0.08345,0.769999 0.2752236,1.602504 0.5898437,2.5625 0.3633407,1.108645 0.8328606,2.108865 1.703125,3.628907 0.5130862,0.896174 0.8050525,1.305537 0.9902344,1.386719 0.1190787,0.05195 0.3552489,0.05175 0.4785156,0 0.1410002,-0.05916 0.2848418,-0.214866 0.3261718,-0.353516 0.02947,-0.09886 0.0231,-0.248268 -0.04297,-0.857422 C 9.9215049,23.39376 9.8772873,22.384435 9.9257812,21.44517 c 0.1782168,-3.453807 1.2803548,-5.407922 3.6816408,-6.447265 1.164613,-0.504077 2.385909,-0.793469 4.283203,-0.939453 0.637471,-0.04906 4.051353,-0.07572 4.095703,-0.03125 0.02657,0.02668 0.0396,0.782957 0.05078,2.228515 l 0.01563,1.949219 0.08008,0.167969 c 0.209803,0.444356 0.782782,0.735451 1.269532,0.644531 0.101226,-0.01892 0.246798,-0.0652 0.324218,-0.101562 0.109774,-0.05155 1.441796,-0.989854 4.347657,-3.90625 3.57531,-3.588279 3.730752,-3.749114 3.826172,-3.953125 C 31.989801,10.86537 32,10.817848 32,10.572124 32,10.326392 31.989787,10.276917 31.900391,10.085796 31.805006,9.8818691 31.649144,9.7209552 28.089844,6.1463425 24.662387,2.7041402 23.88274,2.2007186 23.705078,2.1170456 23.59388,2.0647157 23.433106,2.0174355 23.324219,2.0057175 Z M 6.3242188,4.0096237 c -0.4637234,0.013144 -0.6736931,0.03677 -0.7636719,0.052734 -1.1838971,0.2098595 -2.107244,0.6850072 -2.9335938,1.5078125 -0.9555939,0.9514902 -1.4664546,2.0125006 -1.59375,3.3144531 -0.0445954,0.4577716 -0.0447389,16.7330103 0,17.2070313 0.068346,0.724627 0.2221633,1.270387 0.5351563,1.898437 0.273987,0.549784 0.5341626,0.903399 1.0390625,1.408204 0.5049069,0.504805 0.8583156,0.76513 1.4082031,1.039062 0.6128345,0.305286 1.1797086,0.468813 1.8359375,0.53125 0.4119017,0.03927 16.8261495,0.04296 17.2402345,0.0039 0.848911,-0.08003 1.594952,-0.321698 2.25,-0.726562 1.117657,-0.690785 1.981395,-1.75435 2.369141,-2.917969 0.270984,-0.813276 0.299629,-1.106051 0.287109,-4.275391 -0.0085,-2.175234 -0.01307,-2.364718 -0.0625,-2.455078 -0.738844,-0.478686 -1.277345,-0.04554 -2.144531,0.396485 -0.325383,0.177795 -0.478165,0.294976 -0.552735,0.421875 -0.06126,0.104272 -0.06315,-0.195556 -0.08008,2.123046 -0.01709,2.341524 -0.01787,2.231432 -0.08594,2.470704 -0.349754,1.145071 -1.658545,2.263065 -3.078125,2.125 -2.683044,0.01636 -4.850401,0.08984 -7.603516,0.08984 -6.065839,0.0068 -7.8960168,1.3e-4 -8.0605469,-0.02539 C 5.9496072,28.139975 5.4969554,27.960218 5.1601562,27.73228 4.9590173,27.596151 4.5319893,27.172718 4.3808594,26.960796 4.1374853,26.619527 3.9483791,26.172552 3.8769531,25.769389 3.8549741,25.645398 3.8452408,23.336238 3.8457031,17.724467 3.8463421,9.7132666 3.848565,9.5010464 3.90625,9.2400925 4.1724558,8.0364313 5.2334611,7.0727167 6.4609375,6.9236862 6.6162213,6.9048431 6.8282709,6.8905399 7.4960938,6.8904831 H 8.6796875 L 8.9648438,6.7361862 C 9.7299601,6.3210466 10.400258,5.7549146 11.205078,5.2420456 11.884998,4.774968 11.984634,4.0220343 10.646484,4.0213425 H 8.6113281 C 7.5060976,3.9934772 6.7879421,3.9964795 6.3242188,4.0096237 Z"/>
 <path style="fill:#ef3e51" d="M 5.8524217,29.969368 C 5.1961928,29.906931 4.6288857,29.742591 4.0160512,29.437305 3.4661637,29.163373 3.1127565,28.902462 2.6078496,28.397657 2.1029497,27.892853 1.8419789,27.539524 1.5679919,26.98974 1.2549989,26.36169 1.1014934,25.817169 1.0331477,25.092542 0.98840874,24.618521 0.9892628,8.3427391 1.0338582,7.8849675 1.1611536,6.583015 1.6711746,5.5216636 2.6267685,4.5701734 3.4531183,3.7473681 4.3775873,3.2724659 5.5614844,3.0626064 5.741442,3.0306769 6.4011262,2.9661996 8.6115872,3.0219301 H 10.6462 c 1.33815,6.918e-4 1.239611,0.7540633 0.559691,1.2211409 -0.80482,0.512869 -1.4757443,1.0785327 -2.2408607,1.4936723 l -0.2844859,0.1543635 -1.184607,9.24e-5 C 6.8281146,5.891256 6.617142,5.9058504 6.4618582,5.9246935 5.2343818,6.073724 4.1717706,7.0360227 3.9055648,8.2396839 c -0.057685,0.2609539 -0.059249,0.4746032 -0.059888,8.4858041 -4.623e-4,5.611771 0.00953,7.920713 0.031509,8.044704 0.071426,0.403163 0.2604232,0.850097 0.5037973,1.191366 0.1511299,0.211922 0.578957,0.634621 0.780096,0.77075 0.3367991,0.227938 0.7879706,0.408491 1.1684415,0.467593 0.1645301,0.02552 1.9959744,0.03236 8.0618134,0.02552 2.753115,0 4.920105,-0.07422 7.603149,-0.09058 1.41958,0.138065 2.727122,-0.979322 3.076876,-2.124393 0.06807,-0.239272 0.06913,-0.129947 0.08622,-2.471471 0.01693,-2.318603 0.0187,-2.018902 0.07996,-2.123174 0.07457,-0.126899 0.228921,-0.244491 0.554304,-0.422286 0.867186,-0.442025 1.404073,-0.873814 2.142917,-0.395128 0.04943,0.09036 0.05426,0.278831 0.0628,2.454065 0.01252,3.16934 -0.01572,3.461516 -0.286705,4.274792 -0.387746,1.163619 -1.252369,2.228675 -2.370026,2.91946 -0.655048,0.404864 -1.400633,0.645251 -2.249544,0.725282 -0.414085,0.03905 -16.8271817,0.03647 -17.2390834,-0.0028 z"/>
 <path style="fill:#ef3e51" d="M 9.3062233,24.960527 C 9.1210414,24.879345 8.829419,24.471175 8.3163328,23.575001 7.4460683,22.054959 6.9761934,21.053701 6.6128528,19.945057 6.2982326,18.98506 6.1068373,18.153272 6.0233869,17.383274 5.9802319,16.985035 6.0004036,15.336489 6.0544534,14.841871 6.301276,12.584106 6.8925887,11.151421 8.0502586,9.7538361 9.2190972,8.3427689 11.14932,7.2379021 13.464808,6.6545144 c 1.061766,-0.2675097 2.134769,-0.4510983 3.791399,-0.594895 0.209458,-0.018212 1.169365,-0.039176 2.501526,-0.047011 2.173019,-0.012847 2.208236,-0.018988 2.242403,-0.063607 0.02931,-0.038259 0.03781,-0.6857272 0.03781,-2.1524065 0,-1.8627867 7.04e-4,-1.8942214 0.06522,-2.0665934 0.166915,-0.4480768 0.723262,-0.77790469 1.221722,-0.72429 0.108887,0.011718 0.269526,0.058521 0.380724,0.1108509 0.177662,0.083673 0.956845,0.587031 4.384302,4.0292333 3.5593,3.5746127 3.715243,3.7358454 3.810628,3.9397719 C 31.989938,9.2766886 32,9.3258561 32,9.5715879 c 0,0.245724 -0.01004,0.2948915 -0.09945,0.4860201 -0.09542,0.204011 -0.250435,0.364157 -3.825745,3.952436 -2.905861,2.916396 -4.238053,3.854794 -4.347826,3.90634 -0.07742,0.03636 -0.223599,0.08157 -0.324825,0.100488 -0.48675,0.09092 -1.060381,-0.200151 -1.270184,-0.644507 l -0.07888,-0.167071 -0.01511,-1.950166 c -0.01118,-1.445558 -0.02439,-2.200931 -0.05096,-2.227615 -0.04435,-0.04447 -3.458164,-0.01856 -4.095635,0.0305 -1.897294,0.145984 -3.11882,0.43513 -4.283433,0.939207 -2.401286,1.039343 -3.504218,2.995245 -3.6824345,6.449052 -0.048494,0.939265 -0.00492,1.947618 0.1419345,3.303716 0.06607,0.609154 0.07375,0.757666 0.04428,0.85653 -0.04133,0.13865 -0.1862003,0.295781 -0.3272005,0.354944 -0.1232667,0.05175 -0.3591528,0.05125 -0.4782315,-7.05e-4 z"/>
 <path style="fill:#8b9cbe;opacity:0.2" d="M 23.324219 1.0058594 C 22.825759 0.95224466 22.270431 1.2823919 22.103516 1.7304688 C 22.039 1.9028408 22.037109 1.9340883 22.037109 3.796875 C 22.037109 5.2635543 22.02931 5.9109597 22 5.9492188 C 21.965833 5.9938377 21.930832 5.9988718 19.757812 6.0117188 C 18.425651 6.0195537 17.465317 6.0423349 17.255859 6.0605469 C 15.599229 6.2043436 14.52661 6.3867872 13.464844 6.6542969 C 11.149356 7.2376846 9.2196199 8.3428392 8.0507812 9.7539062 C 6.8931115 11.151491 6.3015101 12.584032 6.0546875 14.841797 C 6.0123544 15.229194 6.0003405 16.199773 6.0136719 16.847656 C 6.0227918 16.452528 6.0338832 16.03218 6.0546875 15.841797 C 6.3015101 13.584032 6.8931115 12.151491 8.0507812 10.753906 C 9.2196199 9.3428394 11.149356 8.2376846 13.464844 7.6542969 C 14.52661 7.3867872 15.599229 7.2043436 17.255859 7.0605469 C 17.465317 7.0423349 18.425652 7.0195488 19.757812 7.0117188 C 21.93083 6.9988718 21.96583 6.9938377 22 6.9492188 C 22.02931 6.9109596 22.037109 6.2635543 22.037109 4.796875 C 22.037109 2.9340883 22.038996 2.9028408 22.103516 2.7304688 C 22.270431 2.282392 22.825759 1.9522444 23.324219 2.0058594 C 23.433106 2.0175774 23.59388 2.0648576 23.705078 2.1171875 C 23.88274 2.2008605 24.662387 2.7042821 28.089844 6.1464844 C 31.581021 9.6526809 31.793594 9.8706616 31.890625 10.070312 C 31.892345 10.066759 31.898725 10.060202 31.900391 10.056641 C 31.989801 9.8655116 32 9.8179896 32 9.5722656 C 32 9.3265338 31.989787 9.2770585 31.900391 9.0859375 C 31.805006 8.882011 31.649144 8.7210971 28.089844 5.1464844 C 24.662387 1.7042821 23.88274 1.2008605 23.705078 1.1171875 C 23.59388 1.0648576 23.433106 1.0175774 23.324219 1.0058594 z M 6.3242188 3.0097656 C 5.8604953 3.0229098 5.6505257 3.0465352 5.5605469 3.0625 C 4.3766498 3.2723595 3.4533029 3.7475072 2.6269531 4.5703125 C 1.6713592 5.5218027 1.1604985 6.5828131 1.0332031 7.8847656 C 1.0096105 8.1269443 1.0005995 12.567928 1.0019531 16.982422 C 1.0031931 13.053347 1.0122022 9.1003405 1.0332031 8.8847656 C 1.1604985 7.5828131 1.6713592 6.5218027 2.6269531 5.5703125 C 3.4533029 4.7475072 4.3766498 4.2723595 5.5605469 4.0625 C 5.6505257 4.046536 5.8604953 4.0229096 6.3242188 4.0097656 C 6.7879421 3.9966214 7.5060976 3.9936191 8.6113281 4.0214844 L 10.646484 4.0214844 C 10.951813 4.0216422 11.174038 4.0647059 11.339844 4.1308594 C 11.885043 3.6644684 11.885212 3.0221248 10.646484 3.0214844 L 8.6113281 3.0214844 C 7.5060976 2.9936191 6.7879421 2.9966214 6.3242188 3.0097656 z M 3.8476562 16.984375 C 3.8476072 17.358438 3.8457362 17.309821 3.8457031 17.724609 C 3.8452408 23.33638 3.8549741 25.64554 3.8769531 25.769531 C 3.9483791 26.172694 4.1374853 26.619669 4.3808594 26.960938 C 4.5319893 27.17286 4.9590173 27.596293 5.1601562 27.732422 C 5.4969555 27.96036 5.9496122 28.140126 6.3300781 28.199219 C 6.4946082 28.224739 8.324786 28.231409 14.390625 28.224609 C 17.14374 28.224609 19.311097 28.151126 21.994141 28.134766 C 23.413721 28.272831 24.722512 27.154837 25.072266 26.009766 C 25.140336 25.770494 25.141113 25.880586 25.158203 23.539062 C 25.175133 21.220461 25.177021 21.520288 25.238281 21.416016 C 25.312851 21.289117 25.465633 21.171936 25.791016 20.994141 C 26.658202 20.552116 27.196703 20.11897 27.935547 20.597656 C 27.977435 20.67423 27.986991 21.07238 27.994141 22.439453 C 27.993729 22.259307 27.998848 22.25555 27.998047 22.052734 C 27.989507 19.8775 27.984977 19.688016 27.935547 19.597656 C 27.196703 19.11897 26.658202 19.552116 25.791016 19.994141 C 25.465633 20.171936 25.312851 20.289117 25.238281 20.416016 C 25.177021 20.520288 25.175133 20.22046 25.158203 22.539062 C 25.141113 24.880586 25.140336 24.770494 25.072266 25.009766 C 24.722512 26.154837 23.413721 27.272831 21.994141 27.134766 C 19.311097 27.151126 17.14374 27.224609 14.390625 27.224609 C 8.324786 27.231449 6.4946082 27.224739 6.3300781 27.199219 C 5.9496072 27.140117 5.4969554 26.96036 5.1601562 26.732422 C 4.9590173 26.596293 4.5319893 26.17286 4.3808594 25.960938 C 4.1374853 25.619668 3.9483791 25.172694 3.8769531 24.769531 C 3.8556838 24.649544 3.8478481 22.209675 3.8476562 16.984375 z M 9.9257812 21.957031 C 9.9123941 22.745437 9.9461844 23.596447 10.0625 24.6875 C 10.077455 24.66016 10.103314 24.634307 10.111328 24.607422 C 10.140798 24.508558 10.134429 24.359154 10.068359 23.75 C 9.995569 23.07783 9.9493481 22.492506 9.9257812 21.957031 z"/>
</svg>
