<svg xmlns="http://www.w3.org/2000/svg" width="32" height="32" version="1.1">
 <path style="opacity:0.2" d="m 6,13.852629 h 3 v 3.72769 l 5.200917,2.236613 v 3.727689 L 6,19.071394 Z"/>
 <path style="fill:none;stroke:#b8b8b8;stroke-width:2.23661351" d="M 23.630114,11.361554 18.411349,24.035697"/>
 <rect style="opacity:0.2" width="5" height="8.946" x="21" y="6.05" rx="2.5" ry="2.237"/>
 <rect style="fill:#e98300" width="7.455" height="8.201" x="6.35" y="11.54" transform="rotate(-36.715872)"/>
 <path style="fill:#e98300" d="m 6,12.852629 h 3 v 3.72769 l 5.200917,2.236613 v 3.727689 L 6,18.071394 Z"/>
 <rect style="opacity:0.2" width="5" height="13.42" x="-15" y="3" rx="2.5" ry="2.237" transform="rotate(-90)"/>
 <rect style="fill:#e9a400" width="5" height="13.42" x="-14" y="3" rx="2.5" ry="2.237" transform="rotate(-90)"/>
 <path style="opacity:0.2;fill:#8b9cbe" d="M 5.2363281 9 C 3.9972442 9 3 10.115 3 11.5 C 3 11.669146 3.0165426 11.834588 3.0449219 11.994141 C 3.2527959 10.852881 4.1521297 10 5.2363281 10 L 14.183594 10 C 15.267792 10 16.167126 10.852881 16.375 11.994141 C 16.403379 11.834588 16.419922 11.669146 16.419922 11.5 C 16.419922 10.115 15.422678 9 14.183594 9 L 5.2363281 9 z"/>
 <rect style="fill:#e9a400" width="5" height="8.946" x="21" y="5.05" rx="2.5" ry="2.237"/>
 <rect style="fill:#e98300" width="4.693" height="9.387" x="23.59" y="7.27" rx="2.347" ry="2.347" transform="rotate(21.358618)"/>
 <circle style="opacity:0.3" cx="23.5" cy="11.5" r="1.5"/>
 <path style="opacity:0.2" d="M 23.962891,3 C 16.984802,3 11.216207,8.3207797 10.154297,15 h 7.140625 A 7,7 0 0 1 24,10 7,7 0 0 1 27.955078,11.224609 L 26.769531,3.3007812 C 25.846608,3.106243 24.90608,3.0054707 23.962891,3 Z M 10,18 c 0.385403,7.387364 6.479578,13 13.962891,13 0.918654,-6.88e-4 1.835522,-0.09128 2.736328,-0.271484 l 1.183593,-7.910157 A 7,7 0 0 1 24,24 7,7 0 0 1 17.078125,18 Z"/>
 <path style="fill:#f5c700" d="M 23.962891 2 C 16.984802 2 11.216207 7.3207797 10.154297 14 L 17.294922 14 A 7 7 0 0 1 24 9 A 7 7 0 0 1 27.955078 10.224609 L 26.769531 2.3007812 C 25.846608 2.106243 24.90608 2.0054707 23.962891 2 z M 10 17 C 10.385403 24.387364 16.479578 30 23.962891 30 C 24.881545 29.999312 25.798413 29.908715 26.699219 29.728516 L 27.882812 21.818359 A 7 7 0 0 1 24 23 A 7 7 0 0 1 17.078125 17 L 10 17 z"/>
 <path style="opacity:0.3" d="M 15.000001,8 A 2.5000002,2.5000002 0 0 0 12.5,10.5 2.5000002,2.5000002 0 0 0 15.000001,13 2.5000002,2.5000002 0 0 0 17.5,10.5 2.5000002,2.5000002 0 0 0 15.000001,8 Z m 0,0.7142858 A 1.7857144,1.7857144 0 0 1 16.785715,10.5 1.7857144,1.7857144 0 0 1 15.000001,12.285715 1.7857144,1.7857144 0 0 1 13.214286,10.5 1.7857144,1.7857144 0 0 1 15.000001,8.7142858 Z"/>
 <circle style="opacity:0.3" cx="5.5" cy="11.5" r="1.5"/>
 <circle style="opacity:0.3" cx="18.5" cy="24.5" r="1.5"/>
 <path style="opacity:0.2;fill:#8b9cbe" d="M 23.962891 2 C 16.984802 2 11.216207 7.3207797 10.154297 14 L 10.359375 14 C 11.810913 7.7984234 17.337544 3 23.962891 3 C 24.90608 3.0054707 25.846608 3.1062431 26.769531 3.3007812 L 27.791016 10.123047 A 7 7 0 0 1 27.955078 10.224609 L 26.769531 2.3007812 C 25.846608 2.1062431 24.90608 2.0054707 23.962891 2 z M 10 17 C 10.017669 17.33867 10.060314 17.669159 10.101562 18 L 17.078125 18 A 7 7 0 0 0 24 24 A 7 7 0 0 0 27.71875 22.916016 L 27.882812 21.818359 A 7 7 0 0 1 24 23 A 7 7 0 0 1 17.078125 17 L 10 17 z"/>
</svg>
