<svg xmlns="http://www.w3.org/2000/svg" width="32" height="32" version="1">
 <rect style="opacity:0.2" width="29" height="29" x="-31" y="-30" rx="1.45" ry="1.45" transform="matrix(0,-1,-1,0,0,0)"/>
 <rect style="fill:#3c7fb0" width="29" height="29" x="-30" y="-30" rx="1.45" ry="1.45" transform="matrix(0,-1,-1,0,0,0)"/>
 <rect style="opacity:0.4;fill:#8b9cbe" width="9.75" height="3" x="14.25" y="14" rx="1.5" ry="1.5"/>
 <rect style="opacity:0.4;fill:#8b9cbe" width="16.5" height="3" x="7.5" y="20" rx="1.5" ry="1.5"/>
 <rect style="opacity:0.4;fill:#8b9cbe" width="16.5" height="3" x="7.5" y="8" rx="1.5" ry="1.5"/>
 <circle style="opacity:0.2" cx="9.5" cy="10.5" r="2.5"/>
 <circle style="fill:#8b9cbe" cx="9.5" cy="9.5" r="2.5"/>
 <circle style="opacity:0.2" cx="9.5" cy="22.5" r="2.5"/>
 <circle style="fill:#8b9cbe" cx="9.5" cy="21.5" r="2.5"/>
 <circle style="opacity:0.2" cx="13.5" cy="16.5" r="2.5"/>
 <circle style="fill:#8b9cbe" cx="13.5" cy="15.5" r="2.5"/>
 <path style="fill:#8b9cbe;opacity:0.1" d="M 2.4492188 1 C 1.6459187 1 1 1.6459187 1 2.4492188 L 1 3.4492188 C 1 2.6459187 1.6459187 2 2.4492188 2 L 28.550781 2 C 29.354081 2 30 2.6459187 30 3.4492188 L 30 2.4492188 C 30 1.6459187 29.354081 1 28.550781 1 L 2.4492188 1 z"/>
</svg>
