<svg xmlns="http://www.w3.org/2000/svg" width="32" height="32" version="1">
 <rect style="opacity:0.2" width="28" height="28" x="2" y="3" rx="1.4" ry="1.4"/>
 <rect style="fill:#32a980" width="28" height="28" x="2" y="2" rx="1.4" ry="1.4"/>
 <path style="opacity:0.2" d="m 16.22966,27 c 0.325747,-0.681013 1.074346,-1.258402 1.297196,-2.017818 0.273858,-0.705058 0.185825,-1.408774 -0.544061,-1.821085 -0.259397,-0.215703 -0.654169,-0.07335 -0.973579,-0.130323 -1.615707,-0.05508 -3.404947,0.03018 -4.713426,-1.061871 -1.3258844,-1.143909 -1.4465234,-3.28552 -1.181719,-4.881284 0.561462,-2.743154 2.545549,-4.945589 4.67138,-6.714298 0.299574,-0.262907 1.258402,-1.4311828 0.333411,-1.3513149 C 13.714537,8.9607851 11,8.9779941 11,8.9779941 V 7 h 9 v 1.9779939 c -2.400633,1.4866111 -4.02432,3.5718781 -5.335892,6.0911411 -0.625518,1.192812 -0.901199,2.574664 -0.337348,3.835848 0.372686,0.74068 1.453808,1.05267 2.25848,1.026008 0.965484,0.105592 1.694788,-0.07536 2.610075,0.294026 1.266028,0.533938 1.925052,1.845457 1.786509,3.143075 C 20.927206,24.574851 20.288879,26.091933 19.503329,27 Z"/>
 <path style="fill:#8b9cbe" d="m 16.22966,26 c 0.325747,-0.681013 1.074346,-1.258402 1.297196,-2.017818 0.273858,-0.705058 0.185825,-1.408774 -0.544061,-1.821085 -0.259397,-0.215703 -0.654169,-0.07335 -0.973579,-0.130323 -1.615707,-0.05508 -3.404947,0.03018 -4.713426,-1.061871 C 9.9699056,19.824994 9.8492666,17.683383 10.114071,16.087619 10.675533,13.344465 12.65962,11.14203 14.785451,9.3733214 15.085025,9.1104136 16.043853,7.9421382 15.118862,8.0220061 13.714537,7.9607851 11,7.9779941 11,7.9779941 V 6 h 9 v 1.9779939 c -2.400633,1.4866115 -4.02432,3.5718781 -5.335892,6.0911411 -0.625518,1.192812 -0.901199,2.574664 -0.337348,3.835848 0.372686,0.74068 1.453808,1.05267 2.25848,1.026008 0.965484,0.105592 1.694788,-0.07536 2.610075,0.294026 1.266028,0.533938 1.925052,1.845457 1.786509,3.143075 C 20.927206,23.574851 20.288879,25.091933 19.503329,26 Z"/>
 <path style="fill:#8b9cbe;opacity:0.2" d="M 3.4003906 2 C 2.6247906 2 2 2.6247906 2 3.4003906 L 2 4.4003906 C 2 3.6247906 2.6247906 3 3.4003906 3 L 28.599609 3 C 29.375209 3 30 3.6247906 30 4.4003906 L 30 3.4003906 C 30 2.6247906 29.375209 2 28.599609 2 L 3.4003906 2 z"/>
</svg>
