<svg xmlns="http://www.w3.org/2000/svg" width="32" height="32" version="1">
 <rect style="fill:#713a9d" width="28" height="28" x="2" y="2" rx="1.5" ry="1.5"/>
 <path fill="#fff" style="opacity:0.1" d="m3.5 2c-0.831 0-1.5 0.669-1.5 1.5v1c0-0.831 0.669-1.5 1.5-1.5h25c0.831 0 1.5 0.669 1.5 1.5v-1c0-0.831-0.669-1.5-1.5-1.5h-25z"/>
 <path opacity=".2" d="m2 28.5v1c0 0.831 0.669 1.5 1.5 1.5h25c0.831 0 1.5-0.669 1.5-1.5v-1c0 0.831-0.669 1.5-1.5 1.5h-25c-0.831 0-1.5-0.669-1.5-1.5z"/>
 <path style="opacity:0.5;fill:#8b9cbe" d="m 14,15 v 3 h 9.5 C 24.331,18 25,17.331 25,16.5 25,15.669 24.331,15 23.5,15 Z m 3,8 v 3 h 6.5 C 24.331,26 25,25.331 25,24.5 25,23.669 24.331,23 23.5,23 Z"/>
 <path style="fill:#f44336" d="M 22,7 H 8.5 C 7.669,7 7,7.669 7,8.5 7,9.331 7.669,10 8.5,10 H 22 Z"/>
 <path style="fill:#03a9f4" d="M 17,23 H 8.5 C 7.669,23 7,23.669 7,24.5 7,25.331 7.669,26 8.5,26 H 17 Z"/>
 <path style="fill:#4caf50" d="M 14,15 H 8.5 C 7.669,15 7,15.669 7,16.5 7,17.331 7.669,18 8.5,18 H 14 Z"/>
 <path style="opacity:0.2" d="M 25,9.5 C 25,8.1193 23.881,7 22.5,7 21.119,7 20,8.1193 20,9.5 20,10.881 21.119,12 22.5,12 23.881,12 25,10.881 25,9.5 Z"/>
 <path style="opacity:0.2" d="M 20,25.5 C 20,24.119 18.881,23 17.5,23 16.119,23 15,24.119 15,25.5 c 0,1.381 1.119,2.5 2.5,2.5 1.381,0 2.5,-1.119 2.5,-2.5 z"/>
 <path style="opacity:0.2" d="M 17,17.5 C 17,16.119 15.881,15 14.5,15 13.119,15 12,16.119 12,17.5 c 0,1.381 1.119,2.5 2.5,2.5 1.381,0 2.5,-1.119 2.5,-2.5 z"/>
 <path style="fill:#8b9cbe" d="M 25,8.5 C 25,7.1193 23.881,6 22.5,6 21.119,6 20,7.1193 20,8.5 20,9.8807 21.119,11 22.5,11 23.881,11 25,9.8807 25,8.5 Z"/>
 <path style="fill:#8b9cbe" d="M 20,24.5 C 20,23.119 18.881,22 17.5,22 16.119,22 15,23.119 15,24.5 c 0,1.381 1.119,2.5 2.5,2.5 1.381,0 2.5,-1.119 2.5,-2.5 z"/>
 <path style="fill:#8b9cbe" d="M 17,16.5 C 17,15.119 15.881,14 14.5,14 13.119,14 12,15.119 12,16.5 c 0,1.381 1.119,2.5 2.5,2.5 1.381,0 2.5,-1.119 2.5,-2.5 z"/>
</svg>
