<svg xmlns="http://www.w3.org/2000/svg" width="32" height="32" version="1">
 <path style="opacity:0.2" d="M 15.400391,3 C 14.070791,3 13,4.2265 13,5.75 V 6.4199219 C 11.246536,6.9162232 9.6438452,7.840388 8.3359375,9.109375 L 7.7578125,8.7773438 C 6.4384235,8.0155936 4.8405813,8.3290014 4.1757812,9.4804688 L 3.5761719,10.519531 c -0.6648,1.151468 -0.1377484,2.691375 1.1816406,3.453125 L 5.3476562,14.3125 C 5.121446,15.19058 5.0046747,16.093262 5,17 c 0.00324,0.90723 0.1186975,1.810574 0.34375,2.689453 l -0.5859375,0.337891 c -1.3193897,0.76175 -1.8464406,2.301658 -1.1816406,3.453125 l 0.5996093,1.039062 c 0.6648,1.151467 2.2626416,1.464875 3.5820313,0.703125 L 8.3457031,24.882812 C 9.6532946,26.155262 11.254914,27.074201 13,27.572266 V 28.25 c 0,1.5235 1.070791,2.75 2.400391,2.75 h 1.199218 C 17.929209,31 19,29.7735 19,28.25 v -0.679688 c 1.748487,-0.492778 3.3524,-1.410971 4.664062,-2.679687 l 0.578126,0.332031 c 1.319388,0.76175 2.917231,0.448342 3.582031,-0.703125 l 0.599609,-1.039062 c 0.6648,-1.151467 0.137749,-2.691375 -1.18164,-3.453125 L 26.652344,19.6875 C 26.878554,18.80942 26.995325,17.906738 27,17 26.9968,16.09277 26.881303,15.189426 26.65625,14.310547 l 0.585938,-0.337891 c 1.319389,-0.76175 1.84644,-2.301657 1.18164,-3.453125 L 27.824219,9.4804688 C 27.159419,8.3290009 25.561576,8.0155935 24.242188,8.7773438 L 23.654297,9.1171875 C 22.349156,7.8495892 20.749976,6.925514 19,6.4277344 V 5.75 C 19,4.2265 17.929209,3 16.599609,3 Z"/>
 <path style="fill:#546e7a" d="M 15.400391,2 C 14.070791,2 13,3.2265 13,4.75 V 5.4199219 A 11,11 0 0 0 8.3359375,8.109375 L 7.7578125,7.7773438 C 6.4384235,7.0155937 4.8405813,7.3290014 4.1757812,8.4804688 L 3.5761719,9.5195312 c -0.6648,1.1514678 -0.1377484,2.6913748 1.1816406,3.4531248 L 5.3476562,13.3125 A 11,11 0 0 0 5,16 11,11 0 0 0 5.34375,18.689453 l -0.5859375,0.337891 c -1.3193897,0.76175 -1.8464406,2.301658 -1.1816406,3.453125 l 0.5996093,1.039062 c 0.6648,1.151467 2.2626416,1.464875 3.5820313,0.703125 L 8.3457031,23.882812 A 11,11 0 0 0 13,26.574219 V 27.25 c 0,1.5235 1.070791,2.75 2.400391,2.75 h 1.199218 C 17.929209,30 19,28.7735 19,27.25 v -0.689453 a 11,11 0 0 0 4.664062,-2.669922 l 0.578126,0.332031 c 1.319388,0.76175 2.917231,0.448342 3.582031,-0.703125 l 0.599609,-1.039062 c 0.6648,-1.151467 0.137749,-2.691375 -1.18164,-3.453125 L 26.652344,18.6875 A 11,11 0 0 0 27,16 11,11 0 0 0 26.65625,13.310547 l 0.585938,-0.337891 c 1.319389,-0.76175 1.84644,-2.301657 1.18164,-3.4531248 L 27.824219,8.4804688 C 27.159419,7.329001 25.561576,7.0155934 24.242188,7.7773438 L 23.654297,8.1171875 A 11,11 0 0 0 19,5.4277344 V 4.75 C 19,3.2265 17.929209,2 16.599609,2 Z"/>
 <path style="opacity:0.1;fill:#8b9cbe" d="M 15.400391,2 C 14.070791,2 13,3.2265 13,4.75 V 5.4199219 A 11,11 0 0 0 8.3359375,8.109375 L 7.7578125,7.7773438 C 6.4384235,7.0155937 4.8405813,7.3290014 4.1757812,8.4804688 L 3.5761719,9.5195312 C 3.2933885,10.009327 3.2377019,10.5688 3.3554688,11.109375 3.4022369,10.906231 3.4678775,10.707103 3.5761719,10.519531 L 4.1757812,9.4804688 C 4.8405813,8.3290013 6.4384235,8.0155936 7.7578125,8.7773438 L 8.3359375,9.109375 A 11,11 0 0 1 13,6.4199219 V 5.75 C 13,4.2265 14.070791,3 15.400391,3 h 1.199218 C 17.929209,3 19,4.2265 19,5.75 v 0.6777344 a 11,11 0 0 1 4.654297,2.6894531 l 0.587891,-0.3398437 c 1.319388,-0.7617503 2.917231,-0.4483429 3.582031,0.703125 l 0.599609,1.0390622 c 0.108294,0.187572 0.173935,0.3867 0.220703,0.589844 0.117767,-0.540575 0.06208,-1.100048 -0.220703,-1.5898438 L 27.824219,8.4804688 C 27.159419,7.3290009 25.561576,7.0155935 24.242188,7.7773438 L 23.654297,8.1171875 A 11,11 0 0 0 19,5.4277344 V 4.75 C 19,3.2265 17.929209,2 16.599609,2 Z M 5.164063,14.207031 A 11,11 0 0 0 5.0000005,16 11,11 0 0 0 5.0214849,16.417969 11,11 0 0 1 5.3476567,14.3125 Z m 21.669922,0.002 -0.177734,0.101563 A 11,11 0 0 1 26.978517,16.582031 11,11 0 0 0 27.000001,16 11,11 0 0 0 26.833985,14.208984 Z M 5.166017,18.791016 4.7578139,19.027344 C 3.6533497,19.665006 3.1151364,20.846706 3.3554702,21.890625 3.5145631,21.160354 3.9996479,20.465071 4.7578139,20.027344 L 5.3437514,19.689453 A 11,11 0 0 1 5.166017,18.791016 Z m 21.669922,0.002 A 11,11 0 0 1 26.652345,19.6875 l 0.589844,0.339844 c 0.758165,0.437727 1.24325,1.13301 1.402343,1.863281 0.240334,-1.043919 -0.29788,-2.225619 -1.402343,-2.863281 z"/>
 <path style="opacity:0.2" d="m 16,11 c 3.3137,0 6,2.6863 6,6 0,3.3137 -2.6863,6 -6,6 -3.3137,0 -6,-2.6863 -6,-6 0,-3.3137 2.6863,-6 6,-6 z"/>
 <path style="fill:#8b9cbe" d="m 16,10.0002 c 3.3137,0 6,2.6863 6,6 0,3.3137 -2.6863,6 -6,6 -3.3137,0 -6,-2.6863 -6,-6 0,-3.3137 2.6863,-6 6,-6 z"/>
</svg>
