<svg xmlns="http://www.w3.org/2000/svg" width="32" height="32" version="1">
 <rect style="opacity:0.2" width="28" height="28" x="2" y="3" rx="8.4" ry="8.4"/>
 <rect style="fill:#c33131" width="28" height="28" x="2" y="2" rx="8.4" ry="8.4"/>
 <path opacity=".2" d="m14.885 7c-0.491 0-0.885 0.5479-0.885 1.2285v1.0312a8 8 0 0 0 -2.057 0.8553l-0.732-0.7322c-0.481-0.4813-1.147-0.5889-1.4942-0.2422l-1.5762 1.5764c-0.34677 0.34677-0.23911 1.0128 0.24219 1.4941l0.73242 0.73242a8 8 0 0 0 -0.8496 2.057h-1.0371c-0.6806 0-1.2285 0.394-1.2285 0.885v2.2305c0 0.49 0.5479 0.884 1.2285 0.884h1.0312a8 8 0 0 0 0.85547 2.0566l-0.73242 0.73242c-0.4813 0.4813-0.58896 1.1474-0.24219 1.4941l1.5762 1.5762c0.34677 0.34677 1.0128 0.23911 1.4941-0.24219l0.73242-0.73242a8 8 0 0 0 2.057 0.849v1.0371c0 0.681 0.394 1.229 0.885 1.229h2.2305c0.49 0 0.884-0.548 0.884-1.229v-1.0312a8 8 0 0 0 2.0566 -0.85547l0.73242 0.73242c0.4813 0.4813 1.1474 0.58896 1.4941 0.24219l1.5762-1.5762c0.34677-0.34677 0.23911-1.0128-0.24219-1.4941l-0.732-0.732a8 8 0 0 0 0.849 -2.057h1.0371c0.681 0 1.229-0.394 1.229-0.885v-2.2305c0-0.49-0.548-0.884-1.229-0.884h-1.0312a8 8 0 0 0 -0.85547 -2.0566l0.73242-0.73242c0.4813-0.4813 0.58896-1.1474 0.24219-1.4941l-1.576-1.5764c-0.347-0.3467-1.013-0.2391-1.494 0.2422l-0.732 0.7322a8 8 0 0 0 -2.057 -0.8494v-1.0371c0-0.6806-0.394-1.2285-0.885-1.2285h-2.23zm1.115 6a4 4 0 0 1 4 4 4 4 0 0 1 -4 4 4 4 0 0 1 -4 -4 4 4 0 0 1 4 -4z"/>
 <path fill="#ffaa56" d="m14.885 6c-0.491 0-0.885 0.5479-0.885 1.2285v1.0313a8 8 0 0 0 -2.057 0.8554l-0.732-0.7324c-0.481-0.4813-1.147-0.5889-1.4942-0.2422l-1.5762 1.5762c-0.3467 0.3472-0.2391 1.0132 0.2422 1.4942l0.7324 0.732a8 8 0 0 0 -0.8496 2.057h-1.0371c-0.6806 0-1.2285 0.394-1.2285 0.885v2.23c0 0.491 0.5479 0.885 1.2285 0.885h1.0313a8 8 0 0 0 0.8554 2.057l-0.7324 0.732c-0.4813 0.481-0.5889 1.147-0.2422 1.494l1.5762 1.576c0.3472 0.347 1.0132 0.239 1.4942-0.242l0.732-0.732a8 8 0 0 0 2.057 0.849v1.037c0 0.681 0.394 1.229 0.885 1.229h2.23c0.491 0 0.885-0.548 0.885-1.229v-1.031a8 8 0 0 0 2.057 -0.855l0.732 0.732c0.481 0.481 1.147 0.589 1.494 0.242l1.576-1.576c0.347-0.347 0.239-1.013-0.242-1.494l-0.732-0.732a8 8 0 0 0 0.849 -2.057h1.037c0.681 0 1.229-0.394 1.229-0.885v-2.23c0-0.491-0.548-0.885-1.229-0.885h-1.031a8 8 0 0 0 -0.855 -2.057l0.732-0.732c0.481-0.481 0.589-1.147 0.242-1.4942l-1.576-1.5762c-0.347-0.3467-1.013-0.2391-1.494 0.2422l-0.732 0.7324a8 8 0 0 0 -2.057 -0.8496v-1.0371c0-0.6806-0.394-1.2285-0.885-1.2285h-2.23zm1.115 6a4 4 0 0 1 4 4 4 4 0 0 1 -4 4 4 4 0 0 1 -4 -4 4 4 0 0 1 4 -4z"/>
 <path style="fill:#8b9cbe;opacity:0.1" d="M 10.400391 2 C 5.7467908 2 2 5.7467908 2 10.400391 L 2 11.400391 C 2 6.7467908 5.7467908 3 10.400391 3 L 21.599609 3 C 26.253209 3 30 6.7467908 30 11.400391 L 30 10.400391 C 30 5.7467908 26.253209 2 21.599609 2 L 10.400391 2 z"/>
</svg>
