<svg width="32" height="32" version="1.1" xmlns="http://www.w3.org/2000/svg">
 <path d="M 16,5 C 9.9041669,5 6.4857274,8.5535473 4.9326172,11.853907 3.3795072,15.154265 3,18.4 3,18.4 c -0.026775,1.893252 3.0267753,1.893252 3,0 0,0 0.220496,-2.704265 1.4673829,-5.353907 C 8.7142726,10.396453 10.895833,8 16,8 c 5.104167,0 7.285727,2.396453 8.532617,5.046093 C 25.779507,15.695735 26,18.4 26,18.4 c -0.02678,1.893252 3.026775,1.893252 3,0 0,0 -0.37951,-3.245735 -1.932617,-6.546093 C 25.514273,8.5535473 22.095833,5 16,5 Z" style="opacity:.2"/>
 <path d="M 16,4 C 9.9041669,4 6.4857274,7.5535473 4.9326172,10.853907 3.3795072,14.154265 3,17.4 3,17.4 c -0.026775,1.893252 3.0267753,1.893252 3,0 0,0 0.220496,-2.704265 1.4673829,-5.353907 C 8.7142726,9.3964527 10.895833,7 16,7 21.104167,7 23.285727,9.3964527 24.532617,12.046093 25.779507,14.695735 26,17.4 26,17.4 c -0.02678,1.893252 3.026775,1.893252 3,0 0,0 -0.37951,-3.245735 -1.932617,-6.546093 C 25.514273,7.5535473 22.095833,4 16,4 Z" style="fill:#4f4f4f"/>
 <path d="M 16 4 C 9.9041669 4 6.4867039 7.5531559 4.9335938 10.853516 C 3.3804837 14.153874 3 17.400391 3 17.400391 C 2.9974558 17.580288 3.030331 17.737103 3.078125 17.882812 C 3.2459708 16.858945 3.7402828 14.389301 4.9335938 11.853516 C 6.4867039 8.5531559 9.9041669 5 16 5 C 22.095833 5 25.515249 8.5531559 27.068359 11.853516 C 28.261668 14.389301 28.754029 16.858945 28.921875 17.882812 C 28.969669 17.737103 29.002544 17.580288 29 17.400391 C 29 17.400391 28.621466 14.153874 27.068359 10.853516 C 25.515249 7.5531559 22.095833 4 16 4 z " style="fill:#8b9cbe;opacity:.1"/>
 <path d="M 16,3 C 13.2,13.5 2.5129877,19.716388 7.037,26.849977 c 3.500653,5.519218 14.399024,5.547493 17.859,0 C 29.39769,19.633053 18.8,13.5 16.000992,3 Z" style="opacity:.2"/>
 <path d="M 16,2 C 13.2,12.5 2.5129877,18.716388 7.037,25.849977 c 3.500653,5.519218 14.399024,5.547493 17.859,0 C 29.39769,18.633053 18.8,12.5 16.000992,2 Z" style="fill:#3ba2ec"/>
 <path d="m6 19v1h3v2.5s0 1.5 3 1.5 3-1.5 3-1.5v-2.5h2v2.5s0 1.5 3 1.5 3-1.5 3-1.5v-2.5h3v-1h-20z" style="opacity:.2"/>
 <path d="m9 19v2.5s0 1.5 3 1.5 3-1.5 3-1.5v-2.5zm8 0v2.5s0 1.5 3 1.5 3-1.5 3-1.5v-2.5z" style="fill:#8b9cbe"/>
 <rect x="6" y="18" width="20" height="1" style="fill:#4f4f4f"/>
 <path d="m16 2c-2.387064 8.951491-10.499279 14.788981-10.039062 20.736328 0.4323181-5.611462 7.7860155-11.287401 10.039062-19.736328h0.001953c2.252333 8.449242 9.547925 14.071068 9.96875 19.705078 0.460536-5.979286-7.583215-11.756153-9.96875-20.705078h-0.001953z" style="fill:#8b9cbe;opacity:.2"/>
 <path d="m4 16c-1.108 0-2 0.892-2 2v7c0 1.108 0.892 2 2 2h2c1.108 0 2-0.892 2-2v-7c0-1.108-0.892-2-2-2zm22 0c-1.108 0-2 0.892-2 2v7c0 1.108 0.892 2 2 2h2c1.108 0 2-0.892 2-2v-7c0-1.108-0.892-2-2-2z" style="opacity:.2"/>
 <path d="m4 15c-1.108 0-2 0.892-2 2v7c0 1.108 0.892 2 2 2h2c1.108 0 2-0.892 2-2v-7c0-1.108-0.892-2-2-2h-2zm22 0c-1.108 0-2 0.892-2 2v7c0 1.108 0.892 2 2 2h2c1.108 0 2-0.892 2-2v-7c0-1.108-0.892-2-2-2h-2z" style="fill:#8e8e8e"/>
 <path d="m4 15c-1.108 0-2 0.892-2 2v1c0-1.108 0.892-2 2-2h2c1.108 0 2 0.892 2 2v-1c0-1.108-0.892-2-2-2h-2zm22 0c-1.108 0-2 0.892-2 2v1c0-1.108 0.892-2 2-2h2c1.108 0 2 0.892 2 2v-1c0-1.108-0.892-2-2-2h-2z" style="fill:#8b9cbe;opacity:.2"/>
</svg>
