<svg width="32" height="32" version="1.1" xmlns="http://www.w3.org/2000/svg">
 <path d="M 10,3 C 7.7909525,3.0002209 6.0002209,4.7909525 6,7 3.7909525,7.0002209 2.0002209,8.7909525 2,11 v 2 c 0.00216,1.455873 0.795096,2.795628 2.0703125,3.498047 C 2.793872,17.201142 2.000743,18.542728 2,20 v 5 c 0.00233,1.570734 0.9236658,2.994753 2.3554688,3.640625 C 5.0007632,30.075243 6.426936,30.99851 8,31 h 2 c 0.336294,-0.0022 0.670965,-0.04685 0.996094,-0.132812 C 11.323752,30.953805 11.66109,30.998434 12,31 h 2 c 0.980854,-0.0018 1.926848,-0.363974 2.658203,-1.017578 C 16.771832,29.993155 16.885869,29.999019 17,30 h 0.361328 C 18.090221,30.642777 19.028175,30.998242 20,31 h 2 c 0.169193,-0.001 0.338152,-0.01275 0.505859,-0.03516 C 22.669688,30.98676 22.834718,30.998501 23,31 h 2 c 1.304886,-0.0023 2.526642,-0.640878 3.273438,-1.710938 C 29.353954,28.542581 29.999255,27.313297 30,26 V 24 C 29.999,23.830807 29.98725,23.661848 29.96484,23.494141 29.98676,23.330312 29.998501,23.165282 30,23 V 21 C 29.9982,20.028175 29.642777,19.090221 29,18.361328 V 18 C 28.999075,17.885218 28.9932,17.770528 28.98242,17.65625 29.635579,16.925398 29.997681,15.98018 30,15 V 13 C 29.9978,12.663706 29.95315,12.329035 29.867188,12.003906 29.953805,11.676248 29.998434,11.33891 30,11 V 9 C 29.997669,7.4292662 29.076334,6.0052466 27.644531,5.359375 26.999237,3.9247575 25.573064,3.0014902 24,3 H 19 C 17.544127,3.0021646 16.204372,3.795096 15.501953,5.0703125 14.798858,3.793872 13.457272,3.000743 12,3 Z" style="opacity:.2"/>
 <path d="M 10,2 C 7.7909525,2.0002209 6.0002209,3.7909525 6,6 3.7909525,6.0002209 2.0002209,7.7909525 2,10 v 2 c 0.00216,1.455873 0.795096,2.795628 2.0703125,3.498047 C 2.793872,16.201142 2.000743,17.542728 2,19 v 5 c 0.00233,1.570734 0.9236658,2.994753 2.3554688,3.640625 C 5.0007632,29.075243 6.426936,29.99851 8,30 h 2 c 0.336294,-0.0022 0.670965,-0.04685 0.996094,-0.132812 C 11.323752,29.953805 11.66109,29.998434 12,30 h 2 c 0.980854,-0.0018 1.926848,-0.363974 2.658203,-1.017578 C 16.771832,28.993155 16.885869,28.999019 17,29 h 0.361328 C 18.090221,29.642777 19.028175,29.998242 20,30 h 2 c 0.169193,-0.001 0.338152,-0.01275 0.505859,-0.03516 C 22.669688,29.98676 22.834718,29.998501 23,30 h 2 c 1.304886,-0.0023 2.526642,-0.640878 3.273438,-1.710938 C 29.353954,27.542581 29.999255,26.313297 30,25 v -2 c -0.001,-0.169193 -0.01275,-0.338152 -0.03516,-0.505859 C 29.98676,22.330312 29.998501,22.165282 30,22 v -2 c -0.0018,-0.971825 -0.357223,-1.909779 -1,-2.638672 V 17 c -9.25e-4,-0.114782 -0.0068,-0.229472 -0.01758,-0.34375 C 29.635579,15.925398 29.997681,14.98018 30,14 v -2 c -0.0022,-0.336294 -0.04685,-0.670965 -0.132812,-0.996094 C 29.953805,10.676248 29.998434,10.33891 30,10 V 8 C 29.997669,6.4292662 29.076334,5.0052466 27.644531,4.359375 26.999237,2.9247575 25.573064,2.0014902 24,2 H 19 C 17.544127,2.0021646 16.204372,2.795096 15.501953,4.0703125 14.798858,2.793872 13.457272,2.000743 12,2 Z" style="fill:#17306a"/>
 <path d="m10 7v2h2v-2zm9 0v2h-1v2h-2v2h-1v1h-2v2h-1v1h-2v2h-2v1h-2v5h2v-4h1v-1h2v-2h2v-1h1v-1h1v-1h1v-1h1v-2h2v-2h1v-1h4v-2zm5 2v2h2v-2zm0 2h-2v2h2zm0 2v2h2v-2zm-2 0h-2v2h2zm-2 2h-1v-1h-2v1h-1v2h1v1h-1v-1h-2v1h-1v2h1v1h2v-1h1v1h-1v3h1v2h2v-5h1v-1h5v-2h-2v-1h-3v1h-1v-1h1zm0 6v6h2v-3h1v-1h3v-2h-3zm3 3v3h2v-1h1v-2zm-9-3h-2v2h2zm-2 2h-2v2h2zm0 2v2h2v-2zm-2 0h-2v2h2zm2-9v-3h-3v3zm0-3h3v-3h-3zm-6-2v2h2v-2z" style="opacity:.2"/>
 <path d="m10 6v2h2v-2h-2zm9 0v2h-1v1 1h-2v2h-1v1h-2v2h-1v1h-2v2h-1-1v1h-2v5h2v-4h1v-1h2v-2h1 1v-1h1v-1h1v-1h1v-1h1v-1-1h2v-2h1v-1h4v-2h-5zm5 2v2h2v-2h-2zm0 2h-2v2h2v-2zm0 2v2h2v-2h-2zm-2 0h-2v2h2v-2zm-2 2h-1v-1h-2v1h-1v2h1v1h-1v-1h-2v1h-1v2h1v1h2v-1h1v1h-1v3h1v2h2v-2-3h1v-1h3 2v-2h-2v-1h-3v1h-1v-1h1v-2zm0 6v3 3h2v-3h1v-1h3v-2h-3-3zm3 3v2 1h2v-1h1v-2h-3zm-9-3h-2v2h2v-2zm-2 2h-2v2h2v-2zm0 2v2h2v-2h-2zm-2 0h-2v2h2v-2zm2-9v-3h-3v3h3zm0-3h3v-3h-3v3zm-6-2v2h2v-2h-2z" style="fill:#7095ce"/>
 <path d="m10 2c-2.2090475 2.209e-4 -3.9997791 1.7909525-4 4-2.2090475 2.209e-4 -3.9997791 1.7909525-4 4v1c2.209e-4 -2.2090475 1.7909525-3.9997791 4-4 2.209e-4 -2.2090475 1.7909525-3.9997791 4-4h2c1.457272 7.43e-4 2.798858 0.793872 3.501953 2.0703125 0.702419-1.2752165 2.042174-2.0681479 3.498047-2.0703125h5c1.573064 0.0014902 2.999237 0.9247575 3.644531 2.359375 1.431803 0.6458716 2.353138 2.0698912 2.355469 3.640625v-1c-0.002331-1.5707338-0.923666-2.9947534-2.355469-3.640625-0.645294-1.4346175-2.071467-2.3578848-3.644531-2.359375h-5c-1.455873 0.0021646-2.795628 0.795096-3.498047 2.0703125-0.703095-1.2764405-2.044681-2.0695695-3.501953-2.0703125h-2zm19.964844 9.505859c-0.02218 0.167656-0.054348 0.334218-0.097656 0.498047 0.085962 0.325129 0.130612 0.6598 0.132812 0.996094v-1c-0.001083-0.165543-0.013636-0.330329-0.035156-0.494141zm-26.59375 4.492188c-0.8565822 0.750062-1.3704994 1.836151-1.3710938 3.001953v1c7.43e-4 -1.457272 0.793872-2.798858 2.0703125-3.501953-0.2550565-0.140491-0.485217-0.312687-0.6992187-0.5zm25.728515 1.5c-0.041428 0.051249-0.073083 0.108853-0.117187 0.158203 0.01078 0.114278 0.016653 0.228968 0.017578 0.34375v0.361328c0.642777 0.728893 0.9982 1.666847 1 2.638672v-1c-0.001695-0.915051-0.326991-1.793206-0.900391-2.501953zm0.900391 5.501953c-0.001499 0.165282-0.013236 0.330312-0.035156 0.494141 0.02241 0.167707 0.034156 0.336666 0.035156 0.505859v-1z" style="fill:#8b9cbe;opacity:.1"/>
</svg>
