<svg xmlns="http://www.w3.org/2000/svg" width="32" height="32" version="1">
 <circle style="opacity:0.2" cx="16.5" cy="16.5" r="14.5"/>
 <circle style="fill:#b2bfd9" cx="16.5" cy="15.5" r="14.5"/>
 <path style="opacity:0.1" d="M 24 9 C 22.075237 9 20.462924 10.016772 19.095703 11.267578 C 17.728482 12.518384 16.520377 14.072754 15.339844 15.572266 C 14.15931 17.071777 13.007322 18.516791 11.910156 19.515625 C 10.812991 20.514459 9.856271 21 9 21 C 6.7495223 21 6.0443562 20.031151 5.5253906 18.882812 C 5.006425 17.734474 5 16.519531 5 16.519531 L 2 16.480469 C 2 16.480469 1.954191 18.265508 2.7910156 20.117188 C 3.62784 21.968864 5.6736377 24 9 24 C 10.932149 24 12.555348 22.985541 13.929688 21.734375 C 15.304026 20.483209 16.515963 18.928223 17.697266 17.427734 C 18.878569 15.927246 20.028902 14.481616 21.121094 13.482422 C 22.213285 12.483228 23.160529 12 24 12 C 26.221591 12 26.93328 12.970095 27.458984 14.123047 C 27.984689 15.275999 28 16.492188 28 16.492188 L 31 16.507812 C 31 16.507812 31.02968 14.723983 30.1875 12.876953 C 29.345321 11.029927 27.306877 9 24 9 z M 23.492188 13.992188 A 0.50005 0.50005 0 0 0 23 14.5 L 23 16 L 21.5 16 A 0.50005 0.50005 0 1 0 21.5 17 L 23 17 L 23 18.5 A 0.50005 0.50005 0 1 0 24 18.5 L 24 17 L 25.5 17 A 0.50005 0.50005 0 1 0 25.5 16 L 24 16 L 24 14.5 A 0.50005 0.50005 0 0 0 23.492188 13.992188 z M 7.5 16 A 0.50005 0.50005 0 1 0 7.5 17 L 11.5 17 A 0.50005 0.50005 0 1 0 11.5 16 L 7.5 16 z"/>
 <path style="fill:none;stroke:#00797d;stroke-linecap:round;stroke-linejoin:round" d="m 7.5,15.500036 h 4"/>
 <path style="fill:none;stroke:#009da2;stroke-linecap:round;stroke-linejoin:round" d="m 23.5,13.5 v 4 m -2,-1.999964 h 4"/>
 <path style="fill:none;stroke:#00797d;stroke-width:3" d="m 3.5,15.5 c 0,0 -0.07684,6.000036 5.5,6.000036 5.57684,0 9.471532,-12 15,-12 5.528468,0 5.5,5.999964 5.5,5.999964 v 0 0"/>
 <path style="opacity:0.1" d="M 9 9 C 5.6736377 9 3.62784 11.031134 2.7910156 12.882812 C 2.3460117 13.867493 2.1576942 14.811421 2.0722656 15.5 L 5.1152344 15.5 C 5.189521 15.086485 5.3050248 14.604805 5.5253906 14.117188 C 6.0443562 12.968846 6.7495223 12 9 12 C 9.856271 12 10.812991 12.485541 11.910156 13.484375 C 13.007322 14.483209 14.15931 15.928223 15.339844 17.427734 C 16.520377 18.927246 17.728482 20.481616 19.095703 21.732422 C 20.462924 22.983228 22.075237 24 24 24 C 27.306877 24 29.345321 21.970077 30.1875 20.123047 C 31.029679 18.276017 31 16.492188 31 16.492188 L 28 16.507812 C 28 16.507812 27.98469 17.724001 27.458984 18.876953 C 26.93328 20.029909 26.221591 21 24 21 C 23.160529 21 22.213285 20.516772 21.121094 19.517578 C 20.028902 18.518384 18.878569 17.072754 17.697266 15.572266 C 16.515963 14.071777 15.304026 12.516791 13.929688 11.265625 C 12.555347 10.014459 10.932149 9 9 9 z"/>
 <path style="fill:none;stroke:#009da2;stroke-width:3" d="M 3.5,15.500036 C 3.5,15.500036 3.42316,9.5 9,9.5 c 5.57684,0 9.471532,12 15,12 5.528468,0 5.5,-5.999964 5.5,-5.999964 v 0 0"/>
 <path style="opacity:0.2;fill:#8b9cbe" d="M 16.5 1 A 14.499965 14.499965 0 0 0 2 15.5 A 14.499965 14.499965 0 0 0 2.0214844 16.080078 A 14.499965 14.499965 0 0 1 16.5 2 A 14.499965 14.499965 0 0 1 30.978516 15.919922 A 14.499965 14.499965 0 0 0 31 15.5 A 14.499965 14.499965 0 0 0 16.5 1 z"/>
</svg>
