<svg width="32" height="32" version="1.1" xmlns="http://www.w3.org/2000/svg">
 <rect x="2" y="3" width="28" height="28.026995" ry="6.3060765" style="opacity:.2"/>
 <path d="m3.84375 3.84375c-1.1398233 1.1398233-1.84375 2.7161074-1.84375 4.4628906v15.414062c0 3.493567 2.8130742 6.306641 6.3066406 6.306641h15.386718c1.753748 0 3.335695-0.709562 4.476563-1.857422l-7.169922-22.169922-17.15625-2.15625z" style="fill:#369ad7"/>
 <path d="M 8.3066406 2 C 6.5598574 2 4.9835733 2.7039267 3.84375 3.84375 L 28.169922 28.169922 C 29.301728 27.031179 30 25.460522 30 23.720703 L 30 8.3066406 C 30 4.8130742 27.186926 2 23.693359 2 L 8.3066406 2 z " style="fill:#e65776"/>
 <path d="M 8.3066406 2 C 4.8130742 2 2 4.8130742 2 8.3066406 L 2 9.3066406 C 2 5.8130742 4.8130742 3 8.3066406 3 L 23.693359 3 C 27.186926 3 30 5.8130742 30 9.3066406 L 30 8.3066406 C 30 4.8130742 27.186926 2 23.693359 2 L 8.3066406 2 z " style="fill:#8b9cbe;opacity:.2"/>
 <path d="m13.601562 2c-0.35199 0.9773422-0.784273 2.4290303-0.818359 3.9472656-0.03374 1.5034448 0.753906 3.421875 0.753906 3.421875l2.464844-0.453125s-0.911849-1.1372497-0.953125-3.1210937c-0.028704-1.3799524 0.364924-2.8154817 0.69336-3.7949219h-2.140626zm16.382813 6.0195312c-1.107044 0.0563496-3.070256 0.1802965-4.382813 0.5429688-3.252317 0.8986477-7.582031 1.914063-7.582031 1.914062l1.685547 1.509766s3.420026-1.004079 6.09375-1.533203c1.27172-0.25167 3.128276-0.353319 4.201172-0.402344v-1.7441404c0-0.0969854-0.011336-0.1912193-0.015625-0.2871094zm-27.984375 0.7402344v1.9707034c0.7705818 0.233577 1.8900356 0.539719 3.5390625 0.814453 1.3153942 0.219157 3.9746094 0.453125 3.9746094 0.453125l0.5527341-2.0117189s-2.4612131 0.0388239-3.6718748-0.1503906c-1.9981063-0.3122855-3.5941259-0.8124602-4.3945312-1.0761719zm16.822266 5.2421874-1.828125 1.728516s2.213028 0.241343 7.414062 5.871093c2.211673 2.393976 3.552159 4.328019 4.380859 5.833985 0.747479-1.025449 1.19371-2.283932 1.207032-3.652344-1.130613-1.539783-2.663599-3.290676-4.783203-5.201172-3.343114-3.013309-6.390625-4.580078-6.390625-4.580078zm-8.378907 0.976563c-4.4441676-0.02049-5.4414059 2.30664-5.4414059 2.30664l1.9980469 1.714844s0.8473856-0.968062 3.396484-0.970703c2.604746-0.0027 2.597657 2 2.597657 2s-8.994141-0.299251-8.994141 4.599609c0 2.150729 1.4976199 4.398438 4.9960938 4.398438 2.7987782 0 4.0039062-2.027344 4.0039062-2.027344v2h3l-0.005859-8.570312c0.0061-2.429174-0.994948-5.430172-5.550782-5.451172zm2.556641 7.021484v1.400391c0 0.699837-0.504431 2.626953-2.603516 2.626953-2.0990844 0-2.396484-1.027344-2.396484-2.027344 0-2 5-2 5-2z" style="opacity:.2"/>
 <path d="m13.273438 2c-0.248146 0.8690281-0.466801 1.9034552-0.490235 2.9472656-0.03374 1.5034448 0.753906 3.421875 0.753906 3.421875l2.464844-0.453125s-0.911849-1.1372497-0.953125-3.1210937c-0.019689-0.946556 0.166584-1.9412619 0.390625-2.7949219h-2.166015zm16.597656 5.0253906c-1.1541 0.0616486-3.005351 0.1878038-4.269532 0.5371094-3.252317 0.8986477-7.582031 1.9140625-7.582031 1.9140625l1.685547 1.5097655s3.420026-1.0040796 6.09375-1.533203c1.27172-0.251671 3.128276-0.3533193 4.201172-0.4023438v-0.7441406c0-0.4388539-0.044369-0.8681149-0.128906-1.28125zm-27.84375 0.7441406c-0.0148677 0.1774318-0.0273438 0.3557067-0.0273438 0.5371094v1.4238282c0.7705818 0.2335774 1.8900356 0.5397192 3.5390625 0.8144532 1.3153942 0.219157 3.9746094 0.453125 3.9746094 0.453125l0.5527341-2.0117189s-2.4612131 0.038824-3.6718748-0.1503906c-1.9754632-0.3087466-3.5501001-0.798132-4.3671874-1.0664063zm16.794922 5.2324218-1.828125 1.728516s2.213028 0.241343 7.414062 5.871093c2.511362 2.718368 3.88392 4.825429 4.669922 6.400391 0.581587-0.955397 0.921875-2.076424 0.921875-3.28125v-0.931641c-1.130974-1.541134-2.664906-3.294192-4.787109-5.207031-3.343114-3.013309-6.390625-4.580078-6.390625-4.580078zm-8.378907 0.976563c-4.4441676-0.02049-5.4414059 2.30664-5.4414059 2.30664l1.9980469 1.714844s0.8473856-0.968062 3.396484-0.970703c2.604746-0.0027 2.597657 2 2.597657 2s-8.994141-0.299251-8.994141 4.599609c0 2.150729 1.49762 4.398438 4.9960938 4.398438 2.7987782 0 4.0039062-2.027344 4.0039062-2.027344v2h3l-0.005859-8.570312c0.0061-2.429174-0.994948-5.430172-5.550782-5.451172zm2.556641 7.021484v1.400391c0 0.699837-0.504431 2.626953-2.603516 2.626953-2.0990844 0-2.396484-1.027344-2.396484-2.027344 0-2 5-2 5-2z" style="fill:#fcfcfc"/>
</svg>
