<svg width="32" height="32" version="1.1" xmlns="http://www.w3.org/2000/svg">
 <g transform="translate(5.0015761e-5)">
  <path d="m13 2.9999997v27.164037c-0.03882 0.797188-0.0062 0.81984 0.738928 0.81984h4.663786c0.772951 0.08478 0.597286-0.158929 0.597286-0.870397v-27.11348zm6 0.01913c0 7.0048563-0.225955 12.399719 1.09235 17.015781 1.244565 4.357864 3.724406 7.909997 7.6094 10.606 0.575748 0.387525 0.750688 0.60701 1.107984-0.237754l1.95229-3.431032c0.385292-0.677016 0.316549-0.677035-0.307626-1.082188-5.629021-4.215734-7.397726-13.056945-7.498109-22.199905-0.0036-0.564547 0.04951-0.755138-0.620577-0.6709024zm-6 0h-3.3357115c-0.6700926-0.0842359-0.616964 0.1063551-0.6205769 0.6709021-0.1003834 9.1429602-1.8690877 17.984171-7.4981102 22.199905-0.62417448 0.405153-0.69291723 0.405172-0.3076254 1.082188l1.9522892 3.431032c0.3572966 0.844764 0.5322359 0.625279 1.1079842 0.237754 3.8849936-2.696003 6.3648346-6.248136 7.6094006-10.606 1.318305-4.616062 1.09235-10.010925 1.09235-17.015781z" style="opacity:.2"/>
  <path d="m13 1.9999998v27.164037c-0.03882 0.797188-0.0062 0.81984 0.738928 0.81984h4.663786c0.772951 0.08478 0.597286-0.158929 0.597286-0.870397v-27.11348zm6 0.01913c0 7.0048564-0.225955 12.399719 1.09235 17.015781 1.244565 4.357864 3.724406 7.909997 7.6094 10.606 0.575748 0.387525 0.750688 0.60701 1.107984-0.237754l1.95229-3.431032c0.385292-0.677016 0.316549-0.677035-0.307626-1.082188-5.629021-4.215734-7.397726-13.056945-7.498109-22.199905-0.0036-0.564547 0.04951-0.755138-0.620577-0.6709024zm-6 0h-3.3357115c-0.6700926-0.0842359-0.616964 0.1063551-0.6205769 0.6709021-0.1003834 9.1429601-1.8690877 17.984171-7.4981102 22.199905-0.62417448 0.405153-0.69291723 0.405172-0.3076254 1.082188l1.9522892 3.431032c0.3572966 0.844764 0.5322359 0.625279 1.1079842 0.237754 3.8849936-2.696003 6.3648346-6.248136 7.6094006-10.606 1.318305-4.616062 1.09235-10.010925 1.09235-17.015781z" style="fill:#a901e7"/>
  <path d="m13 2v0.019531h-3.3359375c-0.6700926-0.0842356-0.6174808 0.1053751-0.6210937 0.6699221-0.1003835 9.1429599-1.8690244 17.985438-7.4980469 22.201172-0.6241745 0.405153-0.69193248 0.405015-0.3066407 1.082031l0.050781 0.08984c0.0758521-0.051971 0.1463787-0.100807 0.2558597-0.171871 5.6290225-4.215734 7.3976634-13.058212 7.4980469-22.201172 0.0036129-0.564547-0.0489989-0.7541577 0.6210937-0.6699219h3.3359375v-0.0195312h6v0.019531h3.335938c0.670086-0.084235 0.617493 0.1053749 0.621093 0.6699219 0.100383 9.1429601 1.869026 17.985438 7.498047 22.201172 0.109481 0.07106 0.180008 0.1199 0.25586 0.171875l0.05078-0.08984c0.385293-0.67702 0.317535-0.676882-0.30664-1.082035-5.629021-4.215734-7.397664-13.058212-7.498047-22.201172-0.0036-0.564547 0.04899-0.7541575-0.621093-0.6699219h-3.335938v-0.0195312zm6 27.113281v0.638672c0.02017-0.1441 0-0.34263 0-0.638672zm-6 0.05078c-0.0104 0.213635-0.0122 0.365566 0 0.482422z" style="fill:#8b9cbe;opacity:.2"/>
 </g>
</svg>
