<svg xmlns="http://www.w3.org/2000/svg" height="32" width="32" version="1.1">
 <rect style="opacity:.2" rx="2" ry="2" height="23" width="28" y="6" x="2"/>
 <rect style="fill:#5bc621" rx="2" ry="2" height="23" width="28" y="5" x="2"/>
 <path style="opacity:.2;fill:#8b9cbe" d="m4 5c-1.108 0-2 0.892-2 2v1c0-1.108 0.892-2 2-2h24c1.108 0 2 0.892 2 2v-1c0-1.108-0.892-2-2-2h-24z"/>
 <path d="m7 6v5h-5v2h5v4h-5v2h5v3h-5v2h5v5h2v-5h6v5h2v-5h6v5h2v-5h5v-2h-5v-3h5v-2h-5v-4h5v-2h-5v-5h-2v5h-6v-5h-2v5h-6v-5zm2 7h14v9h-14z" style="opacity:.2"/>
 <path d="m7 5v5h-5v2h5v4h-5v2h5v3h-5v2h5v5h2v-5h6v5h2v-5h6v5h2v-5h5v-2h-5v-3h5v-2h-5v-4h5v-2h-5v-5h-2v5h-6v-5h-2v5h-6v-5zm2 7h14v9h-14z" style="fill:#8b9cbe"/>
</svg>
