<svg xmlns="http://www.w3.org/2000/svg" width="32" height="32" version="1">
 <rect style="opacity:0.2" width="28" height="28" x="-31" y="-30" rx="1.4" ry="1.4" transform="matrix(0,-1,-1,0,0,0)"/>
 <rect style="fill:#4f4f4f" width="28" height="28" x="-30" y="-30" rx="1.4" ry="1.4" transform="matrix(0,-1,-1,0,0,0)"/>
 <path style="opacity:0.2" d="m 20.84764,8.0273438 c -0.227475,0 -0.486021,0.1516495 -0.658203,0.3867187 -0.09856,0.1345509 -0.11121,0.2417724 -0.134765,1.109375 l -0.02539,0.4746094 -0.794922,0.013672 -1.092781,0.01563 C 17.942091,9.9713299 17.582751,9.6705753 17.352515,9.5078125 17.072499,9.2029125 16.770345,8.8513682 16.682593,8.7285156 16.297357,8.1891657 15.725316,8.0634981 15.325172,8.4296875 c -0.272628,0.2494952 -0.312151,0.1371376 -0.3125,1.0449219 -2.09e-4,0.5576846 -0.01823,0.5582356 -0.06641,0.5722656 -0.03581,0.01043 -0.286169,0.05982 -0.55664,0.109375 -0.270471,0.04956 -0.574011,0.134199 -0.675782,0.189453 -0.101772,0.05525 -0.223993,0.101563 -0.269531,0.101563 -0.04554,0 -0.268878,0.0565 -0.496093,0.125 -0.227222,0.0685 -0.58099,0.139949 -0.78711,0.160156 -0.206118,0.02021 -0.505397,0.08218 -0.664062,0.138672 -0.158666,0.05649 -0.334665,0.103515 -0.390625,0.103515 -0.205941,0 -1.1431464,0.41478 -1.4716564,0.609375 -0.5236646,0.310199 -0.7250477,0.471157 -1.5195312,1.216797 -0.2583657,0.242481 -0.7296848,0.803092 -0.9277344,1.103516 -0.095713,0.145191 -0.2165225,0.311064 -0.2675781,0.369141 -0.051055,0.05808 -0.2084123,0.333513 -0.3496094,0.609374 -0.310999,0.607621 -0.6182263,1.789978 -0.5644531,2.173829 0.017564,0.125384 0.054366,1.237337 0.080078,1.789062 0.045406,0.974244 0.052256,1.02165 0.2578125,1.640625 0.1164078,0.350535 0.2571445,0.74419 0.3125,0.875 0.1137915,0.268901 0.5367035,0.672465 0.8808594,0.841797 0.1218341,0.05994 0.2207031,0.13511 0.2207031,0.166016 0,0.03089 -0.057108,0.182222 -0.1289063,0.335937 -0.071792,0.153722 -0.163099,0.356039 -0.203125,0.539063 -0.040027,0.183024 -0.1234056,0.32109 -0.1835937,0.550781 -0.060184,0.229687 -0.1092393,0.179536 -0.109375,0.254743 -1.022e-4,0.07521 -0.058051,0.278896 -0.1289063,0.453125 -0.2374584,0.583921 -0.1227555,1.166333 0.2851563,1.44336 0.1498232,0.101752 0.2345925,0.120224 0.4707031,0.103515 0.360034,-0.02547 0.5843933,-0.183659 0.7304688,-0.513671 0.058613,-0.132411 0.1530082,-0.330114 0.2089844,-0.4375 0.055977,-0.107386 0.1015625,-0.225441 0.1015624,-0.263671 0,-0.03821 0.049386,-0.162023 0.109375,-0.275391 0.1977776,-0.373792 0.4740747,-0.76383 0.5097657,-1.141463 0.025178,-0.266254 0.078046,-0.372256 0.1835937,-0.554688 0.1684834,-0.291224 0.1970365,-0.294146 0.8144535,-0.08398 0.186331,0.06343 0.50909,0.12428 0.544922,0.134765 0.05006,0.01464 0.06618,-0.219163 0.06641,0.887556 1.53e-4,0.840106 0.02287,1.522615 0.05469,1.638672 0.0662,0.241455 0.353649,0.545536 0.583985,0.617188 0.30238,0.09407 0.469742,0.02833 0.841797,-0.164063 0.237791,-0.122965 0.287466,-0.244163 0.398437,-0.404297 l 0.158203,-0.228515 0.01758,-1.382813 c 0.0089,-0.75983 0.03098,-0.82662 0.05078,-0.84654 0.01983,-0.01991 1.486557,-0.04024 2.96289,-0.04687 l 2.683594,-0.01172 0.06445,0.126953 c 0.03429,0.07082 0.09539,0.0112 0.136719,0.199219 0.0413,0.188023 0.150382,0.233379 0.242187,0.465682 0.09181,0.232306 0.247826,0.671665 0.347657,0.976563 0.223281,0.681939 0.382805,0.967599 0.632812,1.132812 0.504902,0.333659 1.159676,0.136891 1.363281,-0.410156 0.08279,-0.222457 0.06614,-0.855556 -0.02734,-1.082031 -0.04456,-0.107962 -0.10313,-0.384883 -0.132813,-0.617188 -0.03305,-0.258603 -0.112413,-0.246336 -0.203125,-0.440291 -0.187296,-0.400452 -0.251041,-0.439453 -0.144531,-0.439453 0.09123,0 0.373991,-0.147577 1.044922,-0.544922 0.27925,-0.165381 0.530223,-0.300781 0.558593,-0.300782 0.06728,0 0.09642,0.136491 0.154297,0.712891 0.02624,0.261343 0.08532,0.492399 0.13086,0.601563 0.04555,0.109165 0.114614,0.144952 0.154297,0.326172 0.372296,1.700091 0.412083,1.357081 0.779296,1.575056 0.459359,0.27267 0.936808,0.224208 1.25,-0.126954 0.101804,-0.11414 0.198667,-0.286876 0.216797,-0.384765 0.046,-0.248342 -0.05776,-0.684685 -0.207031,-1.313337 -0.150938,-0.635706 -0.28569,-1.491383 -0.294922,-2.189454 -0.0062,-0.470576 0.0039,-0.524238 0.126953,-0.6875 0.07322,-0.09724 0.179187,-0.286846 0.236329,-0.421875 0.05714,-0.135028 0.202349,-0.403367 0.322265,-0.595703 0.119916,-0.192333 0.273752,-0.509789 0.341797,-0.705078 0.114471,-0.328537 0.123985,-0.708224 0.125,-1.701172 8.57e-4,-0.962249 -0.01197,-1.133142 -0.130859,-1.662109 -0.07293,-0.324466 -0.181479,-0.708324 -0.240235,-0.853516 -0.05875,-0.145198 -0.141071,-0.39325 -0.183598,-0.550789 -0.232827,-0.862436 -1.149996,-2.347264 -2.050781,-2.966797 -0.344377,-0.236848 -0.677734,-0.620338 -0.677734,-0.78125 0,-0.216751 -0.124169,-0.463673 -0.390625,-0.767578 C 21.999644,9.1744646 21.793237,9.324049 21.705078,9.0234375 21.509418,8.3562794 21.292507,8.0273437 20.84764,8.0273438 Z M 22.960938,12 c 0.695095,0.0012 1.139748,0.528518 1.019531,1.246094 -0.04063,0.24255 -0.344768,0.644898 -0.523438,0.693359 -0.238615,0.06473 -0.387229,0.076 -0.542969,0.03906 -0.470894,-0.111678 -0.8418,-0.473721 -0.902343,-0.88086 -0.08216,-0.552495 0.278282,-1.040599 0.80664,-1.091797 C 22.866829,12.001159 22.914599,12 22.960938,12 Z m -3.931641,2 c 0.540054,0.0052 1.035377,0.421709 0.964844,1.017578 -0.07232,0.611012 -0.412433,0.957664 -0.958985,0.980469 -0.16969,0.0071 -0.373011,-0.0078 -0.453125,-0.0332 -0.190145,-0.06033 -0.428578,-0.286671 -0.515625,-0.490235 -0.08847,-0.206901 -0.08787,-0.674356 0,-0.884765 0.03735,-0.08951 0.147517,-0.233711 0.246094,-0.320313 C 18.527934,14.080297 18.783822,13.997648 19.029297,14 Z"/>
 <path style="fill:#8b9cbe" d="m 20.84764,7.0273438 c -0.227475,0 -0.486021,0.1516495 -0.658203,0.3867187 -0.09856,0.1345509 -0.11121,0.2417724 -0.134765,1.109375 l -0.02539,0.4746094 -0.794922,0.013672 -1.092781,0.015625 C 17.942091,8.9713299 17.582751,8.6705753 17.352515,8.5078125 17.072499,8.2029125 16.770345,7.8513682 16.682593,7.7285156 16.297357,7.1891657 15.725316,7.0634981 15.325172,7.4296875 c -0.272628,0.2494952 -0.312151,0.1371376 -0.3125,1.0449219 -2.09e-4,0.5576843 -0.01823,0.5582353 -0.06641,0.5722656 -0.03581,0.010428 -0.286169,0.059823 -0.55664,0.109375 -0.270471,0.049556 -0.574011,0.1341991 -0.675782,0.1894531 -0.101772,0.055248 -0.223993,0.1015625 -0.269531,0.1015625 -0.04554,0 -0.268878,0.056504 -0.496093,0.125 -0.227222,0.068498 -0.58099,0.1399497 -0.78711,0.1601563 -0.206118,0.020206 -0.505397,0.082183 -0.664062,0.1386719 -0.158666,0.056491 -0.334665,0.1035149 -0.390625,0.1035156 -0.205941,0 -1.1431464,0.4147796 -1.4716564,0.6093746 -0.5236646,0.310199 -0.7250477,0.471157 -1.5195312,1.216797 -0.2583657,0.242481 -0.7296848,0.803092 -0.9277344,1.103516 -0.095713,0.145191 -0.2165225,0.311064 -0.2675781,0.369141 -0.051055,0.05808 -0.2084123,0.333513 -0.3496094,0.609374 -0.310999,0.607621 -0.6182263,1.789978 -0.5644531,2.173829 0.017564,0.125384 0.054366,1.237337 0.080078,1.789062 0.045406,0.974244 0.052256,1.02165 0.2578125,1.640625 0.1164078,0.350535 0.2571445,0.74419 0.3125,0.875 0.1137915,0.268901 0.5367035,0.672465 0.8808594,0.841797 0.1218341,0.05994 0.2207031,0.13511 0.2207031,0.166016 0,0.03089 -0.057108,0.182222 -0.1289063,0.335937 -0.071792,0.153722 -0.163099,0.356039 -0.203125,0.539063 -0.040027,0.183024 -0.1234056,0.32109 -0.1835937,0.550781 -0.060184,0.229687 -0.1092393,0.179536 -0.109375,0.254743 -1.022e-4,0.07521 -0.058051,0.278896 -0.1289063,0.453125 -0.2374584,0.583921 -0.1227555,1.166333 0.2851563,1.44336 0.1498232,0.101752 0.2345925,0.120224 0.4707031,0.103515 0.360034,-0.02547 0.5843933,-0.183659 0.7304688,-0.513671 0.058613,-0.132411 0.1530082,-0.330114 0.2089844,-0.4375 0.055977,-0.107386 0.1015625,-0.225441 0.1015624,-0.263671 0,-0.03821 0.049386,-0.162023 0.109375,-0.275391 0.1977776,-0.373792 0.4740747,-0.76383 0.5097657,-1.141463 0.025178,-0.266254 0.078046,-0.372256 0.1835937,-0.554688 0.1684834,-0.291224 0.1970365,-0.294146 0.8144535,-0.08398 0.186331,0.06343 0.50909,0.12428 0.544922,0.134765 0.05006,0.01464 0.06618,-0.219163 0.06641,0.887556 1.53e-4,0.840106 0.02287,1.522615 0.05469,1.638672 0.0662,0.241455 0.353649,0.545536 0.583985,0.617188 0.30238,0.09407 0.469742,0.02833 0.841797,-0.164063 0.237791,-0.122965 0.287466,-0.244163 0.398437,-0.404297 l 0.158203,-0.228515 0.01758,-1.382813 c 0.0089,-0.75983 0.03098,-0.82662 0.05078,-0.84654 0.01983,-0.01991 1.486557,-0.04024 2.96289,-0.04687 l 2.683594,-0.01172 0.06445,0.126953 c 0.03429,0.07082 0.09539,0.0112 0.136719,0.199219 0.0413,0.188023 0.150382,0.233379 0.242187,0.465682 0.09181,0.232306 0.247826,0.671665 0.347657,0.976563 0.223281,0.681939 0.382805,0.967599 0.632812,1.132812 0.504902,0.333659 1.159676,0.136891 1.363281,-0.410156 0.08279,-0.222457 0.06614,-0.855556 -0.02734,-1.082031 -0.04456,-0.107962 -0.10313,-0.384883 -0.132813,-0.617188 -0.03305,-0.258603 -0.112413,-0.246336 -0.203125,-0.440291 -0.187296,-0.400452 -0.251041,-0.439453 -0.144531,-0.439453 0.09123,0 0.373991,-0.147577 1.044922,-0.544922 0.27925,-0.165381 0.530223,-0.300781 0.558593,-0.300782 0.06728,0 0.09642,0.136491 0.154297,0.712891 0.02624,0.261343 0.08532,0.492399 0.13086,0.601563 0.04555,0.109165 0.114614,0.144952 0.154297,0.326172 0.372296,1.700091 0.412083,1.357081 0.779296,1.575056 0.459359,0.27267 0.936808,0.224208 1.25,-0.126954 0.101804,-0.11414 0.198667,-0.286876 0.216797,-0.384765 0.046,-0.248342 -0.05776,-0.684685 -0.207031,-1.313337 -0.150938,-0.635706 -0.28569,-1.491383 -0.294922,-2.189454 -0.0062,-0.470576 0.0039,-0.524238 0.126953,-0.6875 0.07322,-0.09724 0.179187,-0.286846 0.236329,-0.421875 0.05714,-0.135028 0.202349,-0.403367 0.322265,-0.595703 0.119916,-0.192333 0.273752,-0.509789 0.341797,-0.705078 0.114471,-0.328537 0.123985,-0.708224 0.125,-1.701172 8.57e-4,-0.962249 -0.01197,-1.133142 -0.130859,-1.662109 C 25.796215,14.142339 25.687666,13.758481 25.62891,13.613289 25.570156,13.468091 25.487839,13.220039 25.445312,13.0625 25.212485,12.200064 24.295316,10.715236 23.394531,10.095703 23.050154,9.8588553 22.716797,9.4753654 22.716797,9.3144531 22.716797,9.0977019 22.592628,8.85078 22.326172,8.546875 21.999644,8.1744646 21.793237,8.324049 21.705078,8.0234375 21.509418,7.3562794 21.292507,7.0273437 20.84764,7.0273438 Z M 22.960938,11 c 0.695095,0.0012 1.139748,0.528518 1.019531,1.246094 -0.04063,0.24255 -0.344768,0.644898 -0.523438,0.693359 -0.238615,0.06473 -0.387229,0.076 -0.542969,0.03906 -0.470894,-0.111678 -0.8418,-0.473721 -0.902343,-0.88086 -0.08216,-0.552495 0.278282,-1.040599 0.80664,-1.091797 C 22.866829,11.001159 22.914599,11 22.960938,11 Z m -3.931641,2 c 0.540054,0.0052 1.035377,0.421709 0.964844,1.017578 -0.07232,0.611012 -0.412433,0.957664 -0.958985,0.980469 -0.16969,0.0071 -0.373011,-0.0078 -0.453125,-0.0332 -0.190145,-0.06033 -0.428578,-0.286671 -0.515625,-0.490235 -0.08847,-0.206901 -0.08787,-0.674356 0,-0.884765 0.03735,-0.08951 0.147517,-0.233711 0.246094,-0.320313 C 18.527934,13.080297 18.783822,12.997648 19.029297,13 Z"/>
 <path style="fill:#8b9cbe;opacity:0.1" d="M 3.4003906 2 C 2.6247906 2 2 2.6247906 2 3.4003906 L 2 4.4003906 C 2 3.6247906 2.6247906 3 3.4003906 3 L 28.599609 3 C 29.375209 3 30 3.6247906 30 4.4003906 L 30 3.4003906 C 30 2.6247906 29.375209 2 28.599609 2 L 3.4003906 2 z"/>
</svg>
