<svg xmlns="http://www.w3.org/2000/svg" height="32" width="32" version="1.1">
 <circle cx="16" cy="17" r="14" style="opacity:.2"/>
 <circle cx="16" cy="16" r="14" style="fill:#00a2a4"/>
 <path style="opacity:.2" d="m16 3a14 14 0 0 0 -12.802734 8.359375c2.5745256 0.794654 6.887513 1.640625 13.802734 1.640625 6.079269 0 9.733264-0.656953 11.921875-1.355469a14 14 0 0 0 -12.921875 -8.644531z"/>
 <path style="fill:#69d3d3" d="m16 2a14 14 0 0 0 -12.802734 8.359375c2.5745256 0.794654 6.887513 1.640625 13.802734 1.640625 6.079269 0 9.733264-0.656953 11.921875-1.355469a14 14 0 0 0 -12.921875 -8.644531z"/>
 <path d="m16 2a14 14 0 0 0 -14 14 14 14 0 0 0 0.0215 0.586 14 14 0 0 1 13.9785 -13.586 14 14 0 0 1 13.979 13.414 14 14 0 0 0 0.021 -0.414 14 14 0 0 0 -14 -14z" style="opacity:.2;fill:#8b9cbe"/>
 <path style="opacity:.2" d="m15 9c-3 0-4 1.576172-4 1.576172l-2-0.576172s-2-1-2 1c3 3 5 4 5 4s2 1 3 3c0.471405 0.942809 0 3-1 3s-1-1-1-1 1 0 1-2c0-1-2-2-2-2l-2 2-4 1s0 3 3 3h1s2 3 5 3c7 0 7-6 7-6v-2s4 0 4-2c0-1-6-3-6-3s-2-3-5-3zm-1 2a1 1 0 0 1 1 1 1 1 0 0 1 -1 1 1 1 0 0 1 -1 -1 1 1 0 0 1 1 -1z"/>
 <path style="fill:#8b9cbe" d="m15 8c-3 0-4 1.5761719-4 1.5761719l-2-0.5761719s-2-1-2 1c3 3 5 4 5 4s2 1 3 3c0.471405 0.942809 0 3-1 3s-1-1-1-1 1 0 1-2c0-1-2-2-2-2l-2 2-4 1s0 3 3 3h1s2 3 5 3c7 0 7-6 7-6v-2s4 0 4-2c0-1-6-3-6-3s-2-3-5-3zm-1 2a1 1 0 0 1 1 1 1 1 0 0 1 -1 1 1 1 0 0 1 -1 -1 1 1 0 0 1 1 -1z"/>
</svg>
