<svg width="32" height="32" version="1.1" xmlns="http://www.w3.org/2000/svg">
 <circle cx="16" cy="17" r="14" style="opacity:.2"/>
 <circle cx="16" cy="16" r="14" style="fill:#fecd38"/>
 <path d="M 16,2 A 14,14 0 0 0 2,16 14,14 0 0 0 2.0215,16.586 14,14 0 0 1 16,3 14,14 0 0 1 29.979,16.414 14,14 0 0 0 30,16 14,14 0 0 0 16,2 Z" style="fill:#8b9cbe;opacity:.2"/>
 <path d="m16 5a12 12 0 0 0-12 12 12 12 0 0 0 12 12 12 12 0 0 0 12-12 12 12 0 0 0-12-12zm0 1.3339844a10.666667 10.666667 0 0 1 10.666016 10.666016 10.666667 10.666667 0 0 1-10.666016 10.666016 10.666667 10.666667 0 0 1-10.666016-10.666016 10.666667 10.666667 0 0 1 10.666016-10.666016zm-4.5 6.6660156c-3.2142847 0-4.5 1.066406-4.5 1.066406v2s0.6425781-6.5e-4 0.6425781 0.666016c0 0.666667 0.6434166 2.267578 3.2148439 2.267578 2.142858 0 3.214556-0.06641 3.857422-2.066406 0.287499-0.894426 0.642304-1.132813 1.285156-1.132813 0.642865 0 0.997664 0.238387 1.285156 1.132813 0.642866 2 1.714556 2.066406 3.857422 2.066406 2.571422 0 3.214844-1.600911 3.214844-2.267578 0-0.666666 0.642578-0.666016 0.642578-0.666016v-2s-0.794704-0.79951-2.65625-0.978515l-0.558594 0.580078 0.642578 0.666015-3.21289 2 1.285156-2-0.642578-0.666015 0.642578-0.667969c-1.928573 0-3.214289 1.068359-4.5 1.068359-1.285712 0-2.571422-1.068359-4.5-1.068359zm8.816406 8.011719s-0.317147 0.473356-0.787109 0.943359-1.079718 0.845703-1.429688 0.845703h-1.099609v1.199219h1.099609c1.049908 0 1.839975-0.474691 2.419922-1.054688 0.579945-0.579996 0.962891-1.15625 0.962891-1.15625z" style="opacity:.1"/>
 <path d="m16 4a12 12 0 0 0-12 12 12 12 0 0 0 12 12 12 12 0 0 0 12-12 12 12 0 0 0-12-12zm0 1.3339844a10.666667 10.666667 0 0 1 10.666016 10.666016 10.666667 10.666667 0 0 1-10.666016 10.666016 10.666667 10.666667 0 0 1-10.666016-10.666016 10.666667 10.666667 0 0 1 10.666016-10.666016zm-4.5 6.6660156c-3.2142847 0-4.5 1.066406-4.5 1.066406v2s0.6425781-6.5e-4 0.6425781 0.666016c0 0.666667 0.6434166 2.267578 3.2148439 2.267578 2.142858 0 3.214556-0.066406 3.857422-2.066406 0.287499-0.894426 0.642304-1.132813 1.285156-1.132813 0.642865 0 0.997664 0.238387 1.285156 1.132813 0.642866 2 1.714556 2.066406 3.857422 2.066406 2.571422 0 3.214844-1.600911 3.214844-2.267578 0-0.666666 0.642578-0.666016 0.642578-0.666016v-2s-0.794704-0.79951-2.65625-0.978515l-0.558594 0.580078 0.642578 0.666015-3.21289 2 1.285156-2-0.642578-0.666015 0.642578-0.667969c-1.928573 0-3.214289 1.068359-4.5 1.068359-1.285712 0-2.571422-1.068359-4.5-1.068359zm8.816406 8.011719s-0.317147 0.473356-0.787109 0.943359-1.079718 0.845703-1.429688 0.845703h-1.099609v1.199219h1.099609c1.049908 0 1.839975-0.474691 2.419922-1.054688 0.579945-0.579996 0.962891-1.15625 0.962891-1.15625l-1.166016-0.777343z" style="fill:#4f4f4f"/>
 <circle cx="24.000031" cy="23" r="8" style="fill:#c03630"/>
 <path d="m31.979031 23.424a8 8 0 0 1-7.979 7.576 8 8 0 0 1-7.979-7.424 8 8 0 0 0-0.021 0.424 8 8 0 0 0 8 8 8 8 0 0 0 8-8 8 8 0 0 0-0.02148-0.57617z" style="opacity:.3"/>
 <path d="m24.000015 20.000055s-0.479396-0.01-0.973592 0.240198c-0.494296 0.247198-1.026392 0.843093-1.026392 1.759786h0.999992c0-0.999992 0.999992-0.999992 0.999992-0.999992s0.999992 0 0.999992 0.999992c0 0.374997-0.127499 0.657195-0.362496 0.957493-0.235099 0.300298-0.582596 0.595795-0.957593 0.908292-0.374997 0.312498-0.777494 0.641995-1.104892 1.060492-0.327497 0.418397-0.574995 0.948693-0.574995 1.573688v0.499996h3.999969v-0.999992h-2.908778c0.061-0.157399 0.152199-0.305298 0.271398-0.457497 0.234998-0.300297 0.582495-0.595795 0.957493-0.908293 0.374997-0.312497 0.777493-0.641995 1.104991-1.060491 0.327397-0.418397 0.574896-0.948693 0.574896-1.573688 0-0.916693-0.532096-1.512588-1.026393-1.759786-0.494195-0.247098-0.973592-0.240198-0.973592-0.240198z" style="fill-rule:evenodd;fill:#8b9cbe"/>
</svg>
