<svg xmlns="http://www.w3.org/2000/svg" width="32" height="32" version="1">
 <rect style="opacity:0.2" width="28" height="28" x="2" y="3" rx="1.4" ry="1.4"/>
 <rect style="fill:#4f4f4f" width="28" height="28" x="2" y="2" rx="1.4" ry="1.4"/>
 <path style="opacity:0.2" class="st0" d="m 21.616822,21.386566 c -1.570093,-0.672692 -2.714954,-1.681729 -3.827102,-2.118979 0.588785,-0.269077 1.14486,-0.639056 1.471962,-0.975403 0.359812,-0.36998 0.490654,-0.807229 0.457944,-1.244479 1.177569,0.807229 2.551402,0.874499 3.271027,0.908134 0.719626,0.03364 1.439252,0.201807 1.570094,0.538153 0,0 0.228972,-4.10342 -7.981307,-6.827821 0,0 2.45327,1.143576 3.205606,2.051709 0,0 -0.883178,-0.06727 -1.24299,0.538154 -0.196262,0.302711 -0.228973,0.739961 -0.06542,1.244479 -0.13084,-0.03364 -0.294391,-0.03364 -0.457943,-0.06727 L 5,7.9999993 6.3738321,11.027113 5.0981308,10.556228 5.4906541,11.29619 c 0,0 0.5560751,1.076306 1.7990657,3.329823 0.9813081,1.782632 2.7476632,2.657132 5.1028022,2.556228 h 0.294393 c 0.588785,-0.03364 1.504673,-0.134537 2.38785,-0.201807 -0.06542,0.336346 -0.06542,0.739961 0.03271,1.210845 0.09813,0.538154 0.327103,0.908133 0.588784,1.109942 -0.686915,0.336345 -1.241035,1.009037 -1.502718,1.782633 v 0 c -0.196261,0.504518 -0.261682,1.076306 0,1.782632 v 0 c 0.03271,0.134539 0.09813,0.269077 0.196262,0.43725 0.06542,0.134539 0.163552,0.269076 0.294393,0.403614 1.439252,1.782634 4.871877,1.479922 7.096175,0.538154 0.03271,0 0.06542,-0.03364 0.09813,-0.03364 0.16355,-0.06727 0.359812,-0.168173 0.523364,-0.235442 0.03271,-0.03364 0.06542,-0.03364 0.09813,-0.06727 0.196261,-0.100908 0.359813,-0.201809 0.556074,-0.302712 C 25.247663,22.294692 26,20.747501 26,20.747501 c 0,0 -2.25701,1.547191 -4.383178,0.639057 z m 0.355785,-6.288335 c 0.621496,0.269078 1.570094,1.883538 1.570094,1.883538 -0.785047,-0.134538 -2.38785,-0.672692 -2.551402,-1.278114 -0.163551,-0.605424 0.359814,-0.874499 0.981308,-0.605424 z m -1.860457,8.138238 c 0,0 0.163551,0.538152 -0.03271,1.244478 -0.228972,0.06727 -0.457944,0.100908 -0.686915,0.168174 0.392522,-0.302711 0.719626,-0.773596 0.719626,-1.412652 z M 9.3504684,12.97792 15.009346,16.274109 c -1.046729,0.100908 -2.126168,0.201807 -2.682243,0.235442 -0.850467,0.03364 -1.602804,-0.06727 -2.25701,-0.302711 C 9.088786,15.870494 8.3691603,15.197803 7.8457955,14.289668 7.1915903,13.146092 6.7663564,12.305228 6.4719638,11.767076 L 7.6495337,12.17069 6.4719638,9.5808257 16.775701,15.433244 c -0.294393,0.03364 -0.556075,0.134539 -0.817757,0.235443 z m 6.0186896,4.137054 c 0.392524,-1.950806 2.845796,-1.345384 2.845796,-1.345384 -0.883178,0 -1.406543,0.235442 -1.668225,0.605424 -0.392523,0.538152 0.09813,0.975402 0.09813,0.975402 -0.13084,-0.03364 -0.261681,-0.06727 -0.327103,-0.134538 v 0.03364 c 0.196263,0.773594 0.817757,0.975402 0.817757,0.975402 -0.22897,0.03364 -0.425232,0 -0.588784,-0.03364 0.130842,0.302712 0.327102,0.538154 0.425233,0.605423 -0.556075,0 -0.817756,0.134538 -1.014018,0.201807 -0.425234,-0.302711 -0.785047,-1.042671 -0.588786,-1.883536 z m 1.76831,4.305226 c 0,0 -0.883177,1.143576 -2.813084,1.143576 -0.09813,-0.43725 -0.06542,-0.874499 0.03271,-1.278114 0.621495,0.403615 1.537384,0.605423 2.780373,0.134538 z m -1.602803,2.657133 c 0.817756,-0.201808 1.864485,-0.672692 2.845794,-1.816268 0,0 -0.130842,1.278114 -1.046729,2.455325 -0.425234,-0.06727 -0.850467,-0.168173 -1.242991,-0.336346 -0.196261,-0.100907 -0.392523,-0.201808 -0.556074,-0.302711 z m 7.61954,-1.042673 c -0.09813,-0.302711 -0.163552,-0.941767 -0.163552,-0.941767 0.686917,0.06727 1.504673,-0.235443 1.504673,-0.235443 -0.556074,0.73996 -1.341121,1.17721 -1.341121,1.17721 z"/>
 <path style="fill:#ffbb00" class="st0" d="m 21.616822,20.386566 c -1.570093,-0.672692 -2.714954,-1.681729 -3.827102,-2.118979 0.588785,-0.269077 1.14486,-0.639056 1.471962,-0.975403 0.359812,-0.36998 0.490654,-0.807229 0.457944,-1.244479 1.177569,0.807229 2.551402,0.874499 3.271027,0.908134 0.719626,0.03364 1.439252,0.201807 1.570094,0.538153 0,0 0.228972,-4.10342 -7.981307,-6.827821 0,0 2.45327,1.143576 3.205606,2.051709 0,0 -0.883178,-0.06727 -1.24299,0.538154 -0.196262,0.302711 -0.228973,0.739961 -0.06542,1.244479 -0.13084,-0.03364 -0.294391,-0.03364 -0.457943,-0.06727 L 5,6.9999994 6.3738321,10.027113 5.0981308,9.5562285 5.4906541,10.29619 c 0,0 0.5560751,1.076306 1.7990657,3.329823 0.9813081,1.782632 2.7476632,2.657132 5.1028022,2.556228 h 0.294393 c 0.588785,-0.03364 1.504673,-0.134537 2.38785,-0.201807 -0.06542,0.336346 -0.06542,0.739961 0.03271,1.210845 0.09813,0.538154 0.327103,0.908133 0.588784,1.109942 -0.686915,0.336345 -1.241035,1.009037 -1.502718,1.782633 v 0 c -0.196261,0.504518 -0.261682,1.076306 0,1.782632 v 0 c 0.03271,0.134539 0.09813,0.269077 0.196262,0.43725 0.06542,0.134539 0.163552,0.269076 0.294393,0.403614 1.439252,1.782634 4.871877,1.479922 7.096175,0.538154 0.03271,0 0.06542,-0.03364 0.09813,-0.03364 0.16355,-0.06727 0.359812,-0.168173 0.523364,-0.235442 0.03271,-0.03364 0.06542,-0.03364 0.09813,-0.06727 0.196261,-0.100908 0.359813,-0.201809 0.556074,-0.302712 C 25.247663,21.294692 26,19.747501 26,19.747501 c 0,0 -2.25701,1.547191 -4.383178,0.639057 z m 0.355785,-6.288335 c 0.621496,0.269078 1.570094,1.883538 1.570094,1.883538 -0.785047,-0.134538 -2.38785,-0.672692 -2.551402,-1.278114 -0.163551,-0.605424 0.359814,-0.874499 0.981308,-0.605424 z m -1.860457,8.138238 c 0,0 0.163551,0.538152 -0.03271,1.244478 -0.228972,0.06727 -0.457944,0.100908 -0.686915,0.168174 0.392522,-0.302711 0.719626,-0.773596 0.719626,-1.412652 z M 9.3504684,11.97792 15.009346,15.274109 c -1.046729,0.100908 -2.126168,0.201807 -2.682243,0.235442 -0.850467,0.03364 -1.602804,-0.06727 -2.25701,-0.302711 C 9.088786,14.870494 8.3691603,14.197803 7.8457955,13.289668 7.1915903,12.146092 6.7663564,11.305228 6.4719638,10.767076 L 7.6495337,11.17069 6.4719638,8.5808258 16.775701,14.433244 c -0.294393,0.03364 -0.556075,0.134539 -0.817757,0.235443 z m 6.0186896,4.137054 c 0.392524,-1.950806 2.845796,-1.345384 2.845796,-1.345384 -0.883178,0 -1.406543,0.235442 -1.668225,0.605424 -0.392523,0.538152 0.09813,0.975402 0.09813,0.975402 -0.13084,-0.03364 -0.261681,-0.06727 -0.327103,-0.134538 v 0.03364 c 0.196263,0.773594 0.817757,0.975402 0.817757,0.975402 -0.22897,0.03364 -0.425232,0 -0.588784,-0.03364 0.130842,0.302712 0.327102,0.538154 0.425233,0.605423 -0.556075,0 -0.817756,0.134538 -1.014018,0.201807 -0.425234,-0.302711 -0.785047,-1.042671 -0.588786,-1.883536 z m 1.76831,4.305226 c 0,0 -0.883177,1.143576 -2.813084,1.143576 -0.09813,-0.43725 -0.06542,-0.874499 0.03271,-1.278114 0.621495,0.403615 1.537384,0.605423 2.780373,0.134538 z m -1.602803,2.657133 c 0.817756,-0.201808 1.864485,-0.672692 2.845794,-1.816268 0,0 -0.130842,1.278114 -1.046729,2.455325 -0.425234,-0.06727 -0.850467,-0.168173 -1.242991,-0.336346 -0.196261,-0.100907 -0.392523,-0.201808 -0.556074,-0.302711 z m 7.61954,-1.042673 c -0.09813,-0.302711 -0.163552,-0.941767 -0.163552,-0.941767 0.686917,0.06727 1.504673,-0.235443 1.504673,-0.235443 -0.556074,0.73996 -1.341121,1.17721 -1.341121,1.17721 z"/>
 <path style="fill:#8b9cbe;opacity:0.1" d="M 3.4003906 2 C 2.6247906 2 2 2.6247906 2 3.4003906 L 2 4.4003906 C 2 3.6247906 2.6247906 3 3.4003906 3 L 28.599609 3 C 29.375209 3 30 3.6247906 30 4.4003906 L 30 3.4003906 C 30 2.6247906 29.375209 2 28.599609 2 L 3.4003906 2 z"/>
</svg>
