<svg width="32" height="32" version="1.1" xmlns="http://www.w3.org/2000/svg">
 <circle cx="16" cy="17" r="14" style="opacity:.2"/>
 <circle cx="16" cy="16" r="14" style="fill:#46a9d7"/>
 <path d="M 16,2 A 14,14 0 0 0 2,16 14,14 0 0 0 2.0215,16.586 14,14 0 0 1 16,3 14,14 0 0 1 29.979,16.414 14,14 0 0 0 30,16 14,14 0 0 0 16,2 Z" style="fill:#8b9cbe;opacity:.2"/>
 <path d="M 19.080078,10.923828 15.806641,16.378906 14,12.763672 8.3828125,24 H 25.617187 Z M 18.919922,15.076172 22.382812,22 h -3.765624 l -1.75,-3.501953 z M 14,17.236328 16.382812,22 h -4.765624 z" style="opacity:.1"/>
 <path d="M 19.080078,9.9238281 15.806641,15.378906 14,11.763672 8.3828125,23 H 25.617188 Z M 18.919922,14.076172 22.382812,21 h -3.765624 l -1.75,-3.501953 z M 14,16.236328 16.382812,21 h -4.765624 z" style="fill:#9f3699"/>
 <circle cx="11" cy="11" r="2" style="opacity:.1"/>
 <circle cx="11" cy="10" r="2" style="fill:#9f3699"/>
</svg>
