<svg xmlns="http://www.w3.org/2000/svg" height="32" width="32" version="1.1">
 <g>
  <circle style="opacity:.2" cx="16" r="14" cy="17"/>
  <circle style="fill:#ffc129" cx="16" r="14" cy="16"/>
  <path style="opacity:.2;fill:#8b9cbe" d="m16 2a14 14 0 0 0 -14 14 14 14 0 0 0 0.0215 0.586 14 14 0 0 1 13.9785 -13.586 14 14 0 0 1 13.979 13.414 14 14 0 0 0 0.021 -0.414 14 14 0 0 0 -14 -14z"/>
  <path style="opacity:.2" d="m6.2656252 7a14 14 0 0 0 -3.265625 5h1.0585938v18h3v-18h22.072266a14 14 0 0 0 -3.292969 -5z"/>
  <path style="fill:#f13c3c" d="m6.2070312 6a14 14 0 0 0 -3.265625 5h1.0585938v18h3v-18h22.072266a14 14 0 0 0 -3.292969 -5z"/>
  <path style="opacity:.1" d="m8 13v2l6 1v-2zm16 0-6 1v2l6-1zm-13 3a3 3 0 0 0 -3 3 3 3 0 0 0 3 3 3 3 0 0 0 3 -3 3 3 0 0 0 -3 -3zm10 0a3 3 0 0 0 -3 3 3 3 0 0 0 3 3 3 3 0 0 0 3 -3 3 3 0 0 0 -3 -3z"/>
  <path style="fill:#17191e" d="m8 12v2l6 1v-2zm16 0-6 1v2l6-1zm-13 3a3 3 0 0 0 -3 3 3 3 0 0 0 3 3 3 3 0 0 0 3 -3 3 3 0 0 0 -3 -3zm10 0a3 3 0 0 0 -3 3 3 3 0 0 0 3 3 3 3 0 0 0 3 -3 3 3 0 0 0 -3 -3z"/>
  <path style="opacity:.2;fill:#8b9cbe" d="m6.2070312 6a14 14 0 0 0 -3.265625 5h0.5039063a14.000075 14 0 0 1 2.8203125 -4h19.572266a14.000075 14 0 0 1 2.849609 4h0.384766a14 14 0 0 0 -3.292969 -5zm-2.2070312 6v17h0.058594v-17z"/>
 </g>
 <circle style="fill:#c03630" cx="24" r="8" cy="23"/>
 <path style="opacity:.3" d="m31.979 23.424a8 8 0 0 1 -7.979 7.576 8 8 0 0 1 -7.979 -7.424 8 8 0 0 0 -0.021 0.424 8 8 0 0 0 8 8 8 8 0 0 0 8 -8 8 8 0 0 0 -0.02148 -0.57617z"/>
 <path style="fill-rule:evenodd;fill:#8b9cbe" d="m23.999984 20.000055s-0.479396-0.01-0.973592 0.240198c-0.494296 0.247198-1.026392 0.843093-1.026392 1.759786h0.999992c0-0.999992 0.999992-0.999992 0.999992-0.999992s0.999992 0 0.999992 0.999992c0 0.374997-0.127499 0.657195-0.362496 0.957493-0.235099 0.300298-0.582596 0.595795-0.957593 0.908292-0.374997 0.312498-0.777494 0.641995-1.104892 1.060492-0.327497 0.418397-0.574995 0.948693-0.574995 1.573688v0.499996h3.999969v-0.999992h-2.908778c0.061-0.157399 0.152199-0.305298 0.271398-0.457497 0.234998-0.300297 0.582495-0.595795 0.957493-0.908293 0.374997-0.312497 0.777493-0.641995 1.104991-1.060491 0.327397-0.418397 0.574896-0.948693 0.574896-1.573688 0-0.916693-0.532096-1.512588-1.026393-1.759786-0.494195-0.247098-0.973592-0.240198-0.973592-0.240198z"/>
</svg>
