<svg xmlns="http://www.w3.org/2000/svg" width="32" height="32" version="1">
 <circle style="opacity:.2" cx="16" cy="17" r="14"/>
 <circle style="fill:#00c586" cx="16" cy="16" r="14"/>
 <path style="opacity:.2" d="m22 11-15 4.800781 5.552734 2.308594 1.947266 0.390625 0.417969 1.998047 2.28125 5.501953zm-10.068359 9.013672c0-0.02641-0.1754-0.01126-0.324219 0.02734-0.569101 0.148536-1.394888 0.758801-1.8378908 1.359375-0.5024312 0.681145-0.7707239 1.479752-0.7695312 2.292972 0.000294 0.227453 0.011226 0.266051 0.078125 0.294922 0.075832 0.03273 0.7195268-0.0075 0.980469-0.06055 0.75237-0.153727 1.392119-0.504142 1.964844-1.078125 0.360037-0.360819 0.57235-0.65837 0.78125-1.09375 0.13676-0.285016 0.231099-0.632079 0.183593-0.679687-0.0095-0.009-0.08575 0.03505-0.167969 0.09961-0.62096 0.397939-1.116643 0.686008-1.820312 0.824221 0.18261-0.691968 0.377063-1.219948 0.740234-1.716797 0.105217-0.141763 0.191407-0.262465 0.191407-0.269531z"/>
 <path style="fill:#8b9cbe" d="m22 10l-15 4.800781 5.552734 2.308594 1.947266 0.390625 0.417969 1.998047 2.28125 5.501953 4.800781-15zm-10.068359 9.013672c0-0.02641-0.1754-0.011256-0.324219 0.027344-0.569101 0.148536-1.394888 0.758801-1.8378908 1.359375-0.5024312 0.681141-0.7707239 1.479748-0.7695312 2.292968 0.000294 0.227453 0.011226 0.266051 0.078125 0.294922 0.075832 0.03273 0.7195268-0.007527 0.980469-0.060547 0.75237-0.153727 1.392119-0.504142 1.964844-1.078125 0.360037-0.360819 0.57235-0.65837 0.78125-1.09375 0.13676-0.285016 0.231099-0.632079 0.183593-0.679687-0.0095-0.009-0.085752 0.035047-0.167969 0.099609-0.62096 0.397937-1.116643 0.686006-1.820312 0.824219 0.18261-0.691968 0.377063-1.219948 0.740234-1.716797 0.105217-0.141763 0.191407-0.262465 0.191407-0.269531z"/>
 <path style="fill:#c4f1e3" d="m7 14.8 5.552513 2.309183 1.947486 0.390817 7.500001-7.5z"/>
 <path style="opacity:.2;fill:#8b9cbe" d="m16 2a14 14 0 0 0 -14 14 14 14 0 0 0 0.0214844 0.585938 14 14 0 0 1 13.9785156 -13.585938 14 14 0 0 1 13.978516 13.414062 14 14 0 0 0 0.021484 -0.414062 14 14 0 0 0 -14 -14z"/>
</svg>
