<svg xmlns="http://www.w3.org/2000/svg" width="32" height="32" version="1">
 <circle style="opacity:0.2" cx="16.5" cy="16.5" r="14.5"/>
 <circle style="fill:#f44336" cx="16.5" cy="15.5" r="14.5"/>
 <path style="opacity:0.2" d="M 16.476562,5 A 1.50015,1.4947898 0 0 0 15,6.515625 v 8.96875 a 1.50015,1.4947898 0 1 0 3,0 V 6.515625 A 1.50015,1.4947898 0 0 0 16.476562,5 Z M 11.490234,7.5 A 1.5003103,1.499483 0 0 0 10.689453,7.7617188 C 6.8435316,10.315534 5.1165042,15.101284 6.4433594,19.521484 7.7702145,23.941685 11.84553,26.983891 16.462891,27 c 4.61736,0.01611 8.71652,-2.997369 10.074218,-7.408203 1.3577,-4.410836 -0.338025,-9.208475 -4.166015,-11.7890626 a 1.5003103,1.499483 0 1 0 -1.677735,2.4863286 c 2.743355,1.849395 3.947614,5.258866 2.97461,8.419921 -0.973004,3.161055 -3.884296,5.304514 -7.19336,5.292969 -3.309063,-0.01155 -6.207302,-2.175983 -7.1582028,-5.34375 -0.9508998,-3.167767 0.2769976,-6.566276 3.0332028,-8.396484 A 1.5003103,1.499483 0 0 0 11.490234,7.5 Z"/>
 <path style="fill:#8b9cbe" d="M 16.476562 4 A 1.50015 1.4947898 0 0 0 15 5.515625 L 15 14.484375 A 1.50015 1.4947898 0 1 0 18 14.484375 L 18 5.515625 A 1.50015 1.4947898 0 0 0 16.476562 4 z M 11.490234 6.5 A 1.5003103 1.499483 0 0 0 10.689453 6.7617188 C 6.8435316 9.3155336 5.1165042 14.101284 6.4433594 18.521484 C 7.7702145 22.941685 11.84553 25.983891 16.462891 26 C 21.080251 26.01611 25.179411 23.002631 26.537109 18.591797 C 27.894809 14.180961 26.199084 9.3833216 22.371094 6.8027344 A 1.5003103 1.499483 0 1 0 20.693359 9.2890625 C 23.436714 11.138458 24.640973 14.547929 23.667969 17.708984 C 22.694965 20.870039 19.783673 23.013498 16.474609 23.001953 C 13.165546 22.990403 10.267307 20.82597 9.3164062 17.658203 C 8.3655064 14.490436 9.5934038 11.091927 12.349609 9.2617188 A 1.5003103 1.499483 0 0 0 11.490234 6.5 z"/>
 <path style="fill:#8b9cbe;opacity:0.2" d="M 16.5 1 A 14.5 14.5 0 0 0 2 15.5 A 14.5 14.5 0 0 0 2.0214844 16.080078 A 14.5 14.5 0 0 1 16.5 2 A 14.5 14.5 0 0 1 30.978516 15.919922 A 14.5 14.5 0 0 0 31 15.5 A 14.5 14.5 0 0 0 16.5 1 z"/>
</svg>
