<svg xmlns="http://www.w3.org/2000/svg" width="32" height="32" version="1">
 <rect style="opacity:0.2" width="28" height="28" x="2" y="3" rx="14" ry="14"/>
 <rect style="fill:#b2bfd9" width="28" height="28" x="2" y="2" rx="14" ry="14"/>
 <path style="fill:#8b9cbe;opacity:0.2" d="M 16 2 C 8.244 2 2 8.244 2 16 C 2 16.168842 2.0195214 16.33264 2.0253906 16.5 C 2.2891326 8.9794325 8.4128418 3 16 3 C 23.500fae9 3 29.710867 8.9794325 29.974609 16.5 C 29.980479 16.33264 30 16.168842 30 16 C 30 8.244 23.756 2 16 2 z"/>
 <path style="opacity:0.1" d="m 24.839844,3.0063091 a 7.6379009,16.721392 37.877957 0 0 -0.648438,0.00586 7.6379009,16.721392 37.877957 0 0 -6.996094,3.0644531 C 16.798498,6.0312068 16.400157,6.0025312 16,6.0004497 c -6.0751322,0 -11,4.9248673 -11,11.0000003 0.00123,0.710962 0.070892,1.419764 0.2089844,2.117188 1.2200947,-2.11418 2.9820291,-3.959518 4.7304687,-5.53125 A 7.6379009,16.721392 37.877957 0 0 6.703125,30.254356 7.6379009,16.721392 37.877957 0 0 9.9980469,30.953575 7.1519126,15.769174 36.749883 0 1 8.2714844,30.2817 7.1519126,15.769174 36.749883 0 1 7.0527344,23.379356 C 9.0854834,26.232628 12.395003,27.998418 16,28.00045 c 4.924733,-0.0041 9.226528,-3.282517 10.564453,-8 h -6.375 C 19.344562,21.953534 17.749999,23.18508 16,23.18795 13.551518,23.18375 11.496659,21.129009 11.224609,18.00045 H 17 h 3.78125 6.193359 c 0.01567,-0.228844 0.02406,-0.770623 0.02539,-1 -0.004,-4.293625 -2.503351,-8.1757463 -6.373047,-9.9687503 -1.707447,0.9085427 -3.233652,2.2699628 -4.699219,3.7832033 0.02417,-6.82e-4 0.0481,-0.0018 0.07227,-0.002 2.037471,0.003 3.852094,1.717711 4.53125,4.1875 h -9.0625 c 0.167153,-0.602769 0.349656,-1.190254 0.609375,-1.714844 A 7.1519126,15.769174 36.749883 0 1 27.191406,5.0492778 7.1519126,15.769174 36.749883 0 1 28.757812,8.9379497 7.6379009,16.721392 37.877957 0 0 27.109375,3.7602153 7.6379009,16.721392 37.877957 0 0 24.839844,3.0063091 Z"/>
 <path style="fill:#60ab1a" d="M 16 5 C 9.9248678 5 5 9.9248677 5 16 C 5.00123 16.710962 5.0708918 17.419764 5.2089844 18.117188 C 6.9260484 15.14186 9.7136518 12.672174 12.03125 10.796875 L 11.660156 12.517578 C 10.500323 13.642642 9.3618052 14.93465 8.2890625 16.365234 C 7.346885 17.621673 6.7918303 19.503399 6.0917969 20.765625 C 7.9126423 24.557027 11.755323 26.997607 16 27 C 20.924733 26.995874 25.226528 23.717483 26.564453 19 L 20.189453 19 C 19.344562 20.953084 17.749999 22.18463 16 22.1875 C 13.551518 22.1833 11.496659 20.128559 11.224609 17 L 17 17 L 20.78125 17 L 26.974609 17 C 26.990279 16.771156 26.99867 16.229377 27 16 C 26.996 11.706375 24.496649 7.824254 20.626953 6.03125 C 18.919506 6.9397927 17.393301 8.3012128 15.927734 9.8144531 C 15.951904 9.8137711 15.97583 9.8127 16 9.8125 C 18.037471 9.8155 19.852094 11.530211 20.53125 14 L 11.46875 14 C 11.716125 13.107941 11.983482 12.238174 12.511719 11.578125 C 12.503219 11.562595 12.472656 11.519531 12.472656 11.519531 C 12.59235 11.358688 12.853125 11.199336 12.976562 11.039062 C 14.707764 8.7912782 16.631928 6.8429275 18.564453 5.3164062 C 17.724975 5.1103752 16.864381 5.0044962 16 5 z M 6.0917969 20.765625 C 5.9967019 20.567616 6.1756309 20.970842 6.0917969 20.765625 z"/>
 <path style="fill:#60ab1a" d="M 24.19225,2.0110492 A 7.6379009,16.721392 37.877957 0 0 10.769434,11.456127 7.6379009,16.721392 37.877957 0 0 6.702784,29.25336 7.6379009,16.721392 37.877957 0 0 9.9979598,29.953705 7.1519126,15.769174 36.749883 0 1 8.2717199,29.282085 7.1519126,15.769174 36.749883 0 1 12.042912,12.33019 7.1519126,15.769174 36.749883 0 1 27.191968,4.0491614 7.1519126,15.769174 36.749883 0 1 28.758168,7.9379895 7.6379009,16.721392 37.877957 0 0 27.108528,2.7606369 7.6379009,16.721392 37.877957 0 0 24.19225,2.0110492 Z"/>
</svg>
