<svg xmlns="http://www.w3.org/2000/svg" width="32" height="32" version="1.1">
 <circle style="opacity:0.2" cx="16.5" cy="16.5" r="14.5"/>
 <circle style="fill:#395a95" cx="16.5" cy="15.5" r="14.5"/>
 <path style="opacity:0.2" d="m 7.5,8.9997183 c -0.2761309,2.76e-5 -0.4999724,0.2238691 -0.5,0.5 V 11.999718 H 6.7558594 C 6.7497794,11.999718 6,11.986801 6,12.739952 v 9.134631 c 6.23e-5,0.621294 0.5037053,1.124938 1.125,1.125 h 6.486328 c 2.060363,0.0671 1.717734,1.547981 2.888672,1.498047 1.170938,0.04993 0.828309,-1.430954 2.888672,-1.498047 H 25.875 c 0.621295,-6.2e-5 1.124938,-0.503706 1.125,-1.125 v -9.134631 c 0,-0.753154 -0.749777,-0.740234 -0.755859,-0.740234 H 26 V 9.4997183 c -2.8e-5,-0.2761309 -0.223869,-0.4999724 -0.5,-0.5 h -6.099609 c -1.257989,0 -2.172451,0.6866391 -2.691407,1.5312497 C 16.62676,10.66479 16.566262,10.807096 16.5,10.946984 16.433738,10.807096 16.37324,10.66479 16.291016,10.530968 15.77206,9.6863574 14.857598,8.9997183 13.599609,8.9997183 Z m 0.5,1 h 5.599609 c 0.917012,0 1.45255,0.4243587 1.839844,1.0546877 C 15.826747,11.684733 16,12.533833 16,13.175499 v 5.324325 c -1.94e-4,0.01695 4.73e-4,0.0339 0.002,0.05078 8.85e-4,0.01176 0.0022,0.02349 0.0039,0.03516 0.0026,0.01446 0.0059,0.0288 0.0098,0.04297 -1.2e-5,0.002 -1.2e-5,0.0039 0,0.0059 0.0035,0.0112 0.0074,0.02227 0.01172,0.0332 0.003,0.0086 0.0063,0.01702 0.0098,0.02539 -5e-6,0.0013 -5e-6,0.0026 0,0.0039 0.0042,0.0099 0.0088,0.01968 0.01367,0.0293 0.0025,0.0046 0.0051,0.0092 0.0078,0.01367 0.0055,0.01062 0.01135,0.02105 0.01758,0.03125 0.0025,0.0039 0.0051,0.0079 0.0078,0.01172 0.0085,0.01278 0.01766,0.02517 0.02734,0.03711 6.61e-4,0.0013 0.0013,0.0026 0.002,0.0039 0.0075,0.0087 0.01534,0.0172 0.02344,0.02539 0.0087,0.01013 0.01784,0.0199 0.02734,0.0293 0.0051,0.004 0.01034,0.0079 0.01563,0.01172 l 0.0078,0.0078 c 0.01198,0.009 0.02437,0.01749 0.03711,0.02539 0.01081,0.0069 0.02189,0.01345 0.0332,0.01953 0.0083,0.0048 0.0168,0.0094 0.02539,0.01367 0.0071,0.0034 0.01424,0.0067 0.02148,0.0098 0.0084,0.0035 0.01684,0.0068 0.02539,0.0098 0.0052,0.0021 0.01039,0.004 0.01563,0.0059 0.0045,0.0014 0.0091,0.0027 0.01367,0.0039 0.01607,0.0047 0.03237,0.0086 0.04883,0.01172 0.01165,0.0024 0.02337,0.0044 0.03516,0.0059 0.0045,7.3e-4 0.0091,0.0014 0.01367,0.002 0.0072,1.54e-4 0.01432,1.54e-4 0.02148,0 0.0097,9.53e-4 0.01952,0.0016 0.0293,0.002 0.01174,-2.54e-4 0.02347,-9.21e-4 0.03516,-0.002 0.0046,-6.04e-4 0.0091,-0.0013 0.01367,-0.002 0.01179,-0.0015 0.02351,-0.0035 0.03516,-0.0059 0.01646,-0.0031 0.03276,-0.007 0.04883,-0.01172 0.0099,-0.003 0.01964,-0.0062 0.0293,-0.0098 0.0086,-0.003 0.01702,-0.0063 0.02539,-0.0098 0.0072,-0.0031 0.0144,-0.0064 0.02148,-0.0098 0.0086,-0.0043 0.01706,-0.0089 0.02539,-0.01367 0.01131,-0.0061 0.02239,-0.0126 0.0332,-0.01953 0.01274,-0.0079 0.02513,-0.01638 0.03711,-0.02539 l 0.0078,-0.0078 c 0.0053,-0.0038 0.0105,-0.0077 0.01563,-0.01172 0.01909,-0.01811 0.03672,-0.0377 0.05273,-0.05859 0.03054,-0.03723 0.05553,-0.07867 0.07422,-0.123046 5e-6,-0.0013 5e-6,-0.0026 0,-0.0039 0.0035,-0.0084 0.0068,-0.01684 0.0098,-0.02539 0.0043,-0.01093 0.0082,-0.022 0.01172,-0.0332 1.2e-5,-0.002 1.2e-5,-0.0039 0,-0.0059 0.0039,-0.01417 0.0072,-0.02851 0.0098,-0.04297 0.0017,-0.01167 0.003,-0.0234 0.0039,-0.03516 0.0015,-0.01688 0.0022,-0.03383 0.002,-0.05078 v -5.324325 c 0,-0.641666 0.173253,-1.490766 0.560547,-2.121093 0.387294,-0.630329 0.922832,-1.0546877 1.839844,-1.0546877 H 25 v 1.9999997 1.050781 c -4.12e-4,0.01172 -4.12e-4,0.02344 0,0.03516 v 7.904161 H 19.162109 C 17.981381,20.996624 17.282989,21.899637 16.5,22.46834 15.717011,21.899637 15.018619,20.996664 13.837891,20.989824 H 8 v -7.904161 c 4.122e-4,-0.01172 4.122e-4,-0.02344 0,-0.03516 v -1.050781 z"/>
 <path style="fill:#8b9cbe" d="M 6.755859,10.999269 C 6.749779,10.999269 6,10.987329 6,11.74048 v 9.133654 c 6.23e-5,0.621294 0.5037053,1.124938 1.125,1.125 h 6.486329 c 2.060363,0.0671 1.717733,1.549431 2.888671,1.499497 1.170938,0.04993 0.828308,-1.432404 2.888671,-1.499497 H 25.875 c 0.621295,-6.2e-5 1.124938,-0.503706 1.125,-1.125 V 11.74048 c 0,-0.753154 -0.749777,-0.741211 -0.755859,-0.741211 H 25 V 19.99037 H 19.161621 C 17.980893,19.99717 17.282989,20.900657 16.5,21.46936 15.717011,20.900657 15.019107,19.99721 13.838379,19.99037 H 8 v -8.991101 z"/>
 <path style="fill:#8b9cbe" d="M 7.5,8 A 0.50005,0.50005 0 0 0 7,8.5 v 3.550781 a 0.50005,0.50005 0 1 0 1,0 V 9 h 5.599609 c 0.917012,0 1.45255,0.4243589 1.839844,1.054688 C 15.826747,10.685016 16,11.534115 16,12.175781 V 18.5 a 0.50005,0.50005 0 1 0 1,0 V 12.175781 C 17,11.367448 16.809972,10.375861 16.291016,9.53125 15.77206,8.6866391 14.857598,8 13.599609,8 Z"/>
 <path style="fill:#8b9cbe" d="m 25.5,8 c 0.276131,2.76e-5 0.499972,0.2238691 0.5,0.5 v 3.550781 c 0.0096,0.676161 -1.009563,0.676161 -1,0 V 9 H 19.400391 C 18.483379,9 17.947841,9.4243589 17.560547,10.054688 17.173253,10.685016 17,11.534115 17,12.175781 v 5.324325 c 0.0096,0.676161 -1.009563,0.676161 -1,0 V 12.175781 C 16,11.367448 16.190028,10.375861 16.708984,9.53125 17.22794,8.6866391 18.142402,8 19.400391,8 Z"/>
 <path style="fill:#8b9cbe;opacity:0.1" d="M 16.5 1 A 14.5 14.5 0 0 0 2 15.5 A 14.5 14.5 0 0 0 2.0214844 16.080078 A 14.5 14.5 0 0 1 16.5 2 A 14.5 14.5 0 0 1 30.978516 15.919922 A 14.5 14.5 0 0 0 31 15.5 A 14.5 14.5 0 0 0 16.5 1 z"/>
</svg>
