<svg xmlns="http://www.w3.org/2000/svg" width="32" height="32" version="1">
 <rect fill="#4ba357" width="28" height="28" x="2" y="2" rx="1.5" ry="1.5"/>
 <path fill="#fff" opacity=".1" d="m3.5 2c-0.831 0-1.5 0.669-1.5 1.5v1c0-0.831 0.669-1.5 1.5-1.5h25c0.831 0 1.5 0.669 1.5 1.5v-1c0-0.831-0.669-1.5-1.5-1.5h-25z"/>
 <path opacity=".2" d="m2 28.5v1c0 0.831 0.669 1.5 1.5 1.5h25c0.831 0 1.5-0.669 1.5-1.5v-1c0 0.831-0.669 1.5-1.5 1.5h-25c-0.831 0-1.5-0.669-1.5-1.5z"/>
 <path opacity=".1" d="m16 11c-2.0974 0-3.8893 0.69009-4.6317 1.6667-0.06232 0.08199-0.11759 0.16549-0.16462 0.2513-0.0447 0.08155-0.08291 0.16412-0.113 0.2487a5 2.6667 0 0 0 -0.02093 0.07813c-0.01714 0.05732-0.03586 0.1147-0.04604 0.17318a5 2.6667 0 0 0 -0.024 0.248c0.000275 0.08665 0.0091 0.17319 0.02512 0.25911a5 2.6667 0 0 0 0.06836 0.25 5 2.6667 0 0 0 0.11579 0.2487 5 2.6667 0 0 0 0.15904 0.24219 5 2.6667 0 0 0 4.6317 1.6667 5 2.6667 0 0 0 4.6317 -1.6667 5 2.6667 0 0 0 0.0015 -0.0026 5 2.6667 0 0 0 0.13532 -0.20573c0.0079-0.01352 0.01758-0.02679 0.02511-0.04036a5 2.6667 0 0 0 0.08231 -0.17708c0.01166-0.0279 0.02631-0.05525 0.03628-0.08333a5 2.6667 0 0 0 0.04046 -0.14844c0.0096-0.0391 0.02013-0.07786 0.02651-0.11719a5 2.6667 0 0 0 0.02089 -0.22526 5 2.6667 0 0 0 -0.02651 -0.26562c-0.046-0.26-0.165-0.506-0.34-0.736-0.743-0.977-2.535-1.667-4.632-1.667zm-4.6317 5a5 2.6667 0 0 0 -0.3683 1 5 2.6667 0 0 0 5 2.6667 5 2.6667 0 0 0 5 -2.667 5 2.6667 0 0 0 -0.368 -1 5 2.6667 0 0 1 -4.632 1.667 5 2.6667 0 0 1 -4.632 -1.667zm0 3.3333a5 2.6667 0 0 0 -0.3683 1 5 2.6667 0 0 0 5 2.667 5 2.6667 0 0 0 5 -2.6667 5 2.6667 0 0 0 -0.3683 -1 5 2.6667 0 0 1 -4.632 1.667 5 2.6667 0 0 1 -4.632 -1.667z"/>
 <path fill="#8b9cbe" d="m16 10c-2.0974 0-3.8893 0.69009-4.6317 1.6667-0.06232 0.08199-0.11759 0.16549-0.16462 0.2513-0.0447 0.08155-0.08291 0.16412-0.113 0.2487a5 2.6667 0 0 0 -0.02093 0.07813c-0.01714 0.05732-0.03586 0.1147-0.04604 0.17318a5 2.6667 0 0 0 -0.02371 0.2487c0.000275 0.08665 0.0091 0.17319 0.02512 0.25911a5 2.6667 0 0 0 0.06836 0.25 5 2.6667 0 0 0 0.11579 0.2487 5 2.6667 0 0 0 0.15904 0.24219 5 2.6667 0 0 0 4.6317 1.6667 5 2.6667 0 0 0 4.6317 -1.6667 5 2.6667 0 0 0 0.0015 -0.0026 5 2.6667 0 0 0 0.13532 -0.20573c0.0079-0.01352 0.01758-0.02679 0.02511-0.04036a5 2.6667 0 0 0 0.08231 -0.17708c0.01166-0.0279 0.02631-0.05525 0.03628-0.08333a5 2.6667 0 0 0 0.04046 -0.14844c0.0096-0.0391 0.02013-0.07786 0.02651-0.11719a5 2.6667 0 0 0 0.02089 -0.22526 5 2.6667 0 0 0 -0.02651 -0.26562c-0.046-0.26-0.165-0.506-0.34-0.736-0.743-0.977-2.535-1.667-4.632-1.667zm-4.6317 5a5 2.6667 0 0 0 -0.3683 1 5 2.6667 0 0 0 5 2.6667 5 2.6667 0 0 0 5 -2.667 5 2.6667 0 0 0 -0.368 -1 5 2.6667 0 0 1 -4.632 1.667 5 2.6667 0 0 1 -4.632 -1.667zm0 3.3333a5 2.6667 0 0 0 -0.3683 1 5 2.6667 0 0 0 5 2.667 5 2.6667 0 0 0 5 -2.6667 5 2.6667 0 0 0 -0.3683 -1 5 2.6667 0 0 1 -4.632 1.667 5 2.6667 0 0 1 -4.632 -1.667z"/>
</svg>
