<svg xmlns="http://www.w3.org/2000/svg" height="32" width="32" version="1.1">
 <circle cx="16" cy="17" r="14" style="opacity:.2"/>
 <circle cx="16" cy="16" r="14" style="fill:#426180"/>
 <path d="m16 2a14 14 0 0 0 -14 14 14 14 0 0 0 0.0215 0.586 14 14 0 0 1 13.9785 -13.586 14 14 0 0 1 13.979 13.414 14 14 0 0 0 0.021 -0.414 14 14 0 0 0 -14 -14z" style="opacity:.1;fill:#8b9cbe"/>
 <path d="m5 21c0 3 3 6 3 6v-1l4 2 1-1s3-1 6 0l1 1 2-1c2-1 3 1 3 1s3-3 3-9.000001c0-5.924369-0.02353-9.970588-11.882353-9.970588-8.4705882 0-11.117647 0.9705885-11.117647 11.970589z" style="opacity:.1"/>
 <path d="m5 20c0 3 3 6 3 6v-1l4 2 1-1s3-1 6 0l1 1 2-1c2-1 3 1 3 1s3-3 3-9c0-5.92437-0.02353-9.9705885-11.882353-9.9705885-8.4705882 0-11.117647 0.9705885-11.117647 11.970588z" style="fill:#4f4f4f"/>
 <rect style="opacity:.2" rx="4" ry="4" height="13" width="20" y="12" x="6"/>
 <rect style="fill:#b2bfd9" rx="4" ry="4" height="13" width="20" y="11" x="6"/>
 <path style="opacity:.2" d="m9.5 16c-0.831 0-1.5 0.892-1.5 2v1c0 1.108 0.669 2 1.5 2s1.5-0.892 1.5-2v-1c0-1.108-0.669-2-1.5-2zm11 0c-0.831 0-1.5 0.892-1.5 2v1c0 1.108 0.669 2 1.5 2s1.5-0.892 1.5-2v-1c0-1.108-0.669-2-1.5-2z"/>
 <rect style="fill:#426180" rx="1.5" ry="2" height="5" width="3" y="15" x="8"/>
 <rect style="fill:#426180" rx="1.5" ry="2" height="5" width="3" y="15" x="19"/>
 <path d="m12 12c0 4 4 5 4 5l0.117647-5.205883s-4.117647-0.794117-4.117647 0.205883zm4.117647-0.205883s3.882353 8.205883 9.882353 8.205883c0 0 0.691525-3.343049 0.867796-5.092589 0.191121-1.896926-2.867796-4.907411-4.867796-3.907411z" style="opacity:.2"/>
 <path d="m12 11c0 4 4 5 4 5l0.117647-5.205883s-4.117647-0.794117-4.117647 0.205883zm4.117647-0.205883s3.882353 8.205883 9.882353 8.205883c0 0 0.691525-3.343049 0.867796-5.092589 0.191121-1.896926-2.867796-4.907411-4.867796-3.907411z" style="fill:#4f4f4f"/>
 <path d="m29 9v6c-1-2-3-2-3-2v8s4 0 4-3l1-9z" style="opacity:.2"/>
 <path d="m29 8v6c-1-2-3-2-3-2v8s4 0 4-3l1-9z" style="fill:#7cac5a"/>
 <path d="m2 13h25s0-6-3-6h-14c-4 0-4 4-4 4h-4z" style="opacity:.2"/>
 <path d="m2 12h25s0-6-3-6h-14c-4 0-4 4-4 4h-4z" style="fill:#df371c"/>
 <path d="m6 12h17v-4s0-2-2-2h-13c-2 0-2 2-2 2z" style="opacity:.2"/>
 <path style="opacity:.2;fill:#8b9cbe" d="m10 6c-4 0-4 4-4 4h-4v1h4s0-4 4-4h14c2.225584 0 2.79701 3.295175 2.945312 5h0.054688s0-6-3-6z"/>
 <path d="m6 11h17v-4s0-2-2-2h-13c-2 0-2 2-2 2z" style="fill:#cccccc"/>
 <ellipse style="fill:#999999" rx="1.0588236" ry="1.0294113" cy="8" cx="9"/>
 <circle r="1" cy="8" cx="20" style="fill:#999999"/>
 <path style="opacity:.2;fill:#8b9cbe" d="m29 8v1h1.888672l0.111328-1h-2zm-3 4v1s2 0 3 2v-1c-1-2-3-2-3-2z"/>
 <path style="opacity:.2;fill:#8b9cbe" d="m8 5c-2 0-2 2-2 2v1s0-2 2-2h13c2 0 2 2 2 2v-1s0-2-2-2h-13z"/>
</svg>
