<svg xmlns="http://www.w3.org/2000/svg" width="32" height="32" version="1.1">
 <circle style="opacity:0.2" cx="17" cy="16" r="14"/>
 <circle style="fill:#17191e" cx="17" cy="15" r="14"/>
 <path style="fill:#8b9cbe;opacity:0.1" d="M 17 1 A 14 14 0 0 0 3 15 A 14 14 0 0 0 3.0214844 15.585938 A 14 14 0 0 1 17 2 A 14 14 0 0 1 30.978516 15.414062 A 14 14 0 0 0 31 15 A 14 14 0 0 0 17 1 z"/>
 <path style="fill:none;stroke:#236ae4;stroke-width:3" d="M 20,25 7,12 25,7 Z"/>
 <circle style="opacity:0.2" cx="7" cy="13" r="5"/>
 <circle style="fill:#71d1ff" cx="7" cy="12" r="5"/>
 <circle style="opacity:0.2" cx="25" cy="8" r="5"/>
 <circle style="fill:#71d1ff" cx="25" cy="7" r="5"/>
 <circle style="opacity:0.2" cx="20" cy="26" r="5"/>
 <circle style="fill:#71d1ff" cx="20" cy="25" r="5"/>
 <path style="opacity:0.2;fill:#8b9cbe" d="M 25 2 A 5 5 0 0 0 20 7 A 5 5 0 0 0 20.027344 7.515625 A 5 5 0 0 1 25 3 A 5 5 0 0 1 29.972656 7.484375 A 5 5 0 0 0 30 7 A 5 5 0 0 0 25 2 z M 7 7 A 5 5 0 0 0 2 12 A 5 5 0 0 0 2.0273438 12.515625 A 5 5 0 0 1 7 8 A 5 5 0 0 1 11.972656 12.484375 A 5 5 0 0 0 12 12 A 5 5 0 0 0 7 7 z M 20 20 A 5 5 0 0 0 15 25 A 5 5 0 0 0 15.027344 25.515625 A 5 5 0 0 1 20 21 A 5 5 0 0 1 24.972656 25.484375 A 5 5 0 0 0 25 25 A 5 5 0 0 0 20 20 z"/>
</svg>
