<svg width="32" height="32" version="1.1" xmlns="http://www.w3.org/2000/svg">
 <path d="m16 24s7-1 9-3c1-1-0.555553-8.6-2-10-4-1-7-1-7-1s-3 0-7 1c-1.4444445 1.4-3 9-2 10 2 2 9 3 9 3z" style="opacity:.2"/>
 <path d="m16 23s7-1 9-3c1-1-0.555553-8.6-2-10-4-1-7-1-7-1s-3 0-7 1c-1.4444445 1.4-3 9-2 10 2 2 9 3 9 3z" style="fill:#20b28f"/>
 <path d="m16 9s-3 0-7 1c-1.2034883 1.166458-2.4775962 6.625038-2.2929688 8.996094 0.1323129-2.6493 1.2366908-6.972317 2.2929688-7.996094 4-1 7-1 7-1s3 0 7 1c1.05628 1.023777 2.160657 5.346794 2.292969 7.996094 0.184628-2.371056-1.089479-7.829636-2.292969-8.996094-4-1-7-1-7-1z" style="fill:#8b9cbe;opacity:.1"/>
 <rect x="11" y="15" width="10" height="8" rx="1" ry="1" style="fill:#8b9cbe"/>
 <path d="m3 25c0-3 4-3 4-3h18s3.999999 0 3.999998 3c-1e-6 3.85-10.999998 6-10.999998 6h-4s-11-2.15-11-6z" style="opacity:.2"/>
 <path d="m3 24c0-3 4-3 4-3h18s3.999999 0 3.999998 3c-1e-6 3.85-10.999998 6-10.999998 6h-4s-11-2.15-11-6z" style="fill:#48deba"/>
 <circle cx="16" cy="9" r="6" style="opacity:.2"/>
 <circle cx="16" cy="8" r="6" style="fill:#48deba"/>
 <path d="m7 21s-4 0-4 3c0 0.149639 0.0227446 0.294977 0.0546875 0.439453 0.4666169-2.436453 3.9453125-2.439453 3.9453125-2.439453h18s3.478697 3e-3 3.945312 2.439453c0.031943-0.144476 0.054688-0.289814 0.054688-0.439453 1e-6 -3-4-3-4-3h-18z" style="fill:#8b9cbe;opacity:.2"/>
 <path d="M 16 2 A 6 6 0 0 0 10 8 A 6 6 0 0 0 10.025391 8.4980469 A 6 6 0 0 1 16 3 A 6 6 0 0 1 21.974609 8.5019531 A 6 6 0 0 0 22 8 A 6 6 0 0 0 16 2 z " style="fill:#8b9cbe;opacity:.2"/>
</svg>
