<svg xmlns="http://www.w3.org/2000/svg" width="32" height="32" version="1.1">
 <path style="opacity:0.2" d="m 22.572266,13.857143 c -0.60622,2.945639 -1.91558,5.584762 -3.751395,7.58231 C 14.375742,25.61849 9.6913308,26.833733 4.9313617,27.597377 2.6021356,27.977946 1.0000001,28.312234 1.0000001,29.115234 1.0000001,30.385076 6.4000001,31 16,31 28.136764,31 28.167386,23.878078 28.142857,17.457869 v -3.600726 c 0,0 -5.714286,0 -5.570591,0 z"/>
 <path style="fill:#17191e" d="m 22.572266,12.857143 c -0.60622,2.945639 -1.91558,5.584762 -3.751395,7.58231 C 14.375742,24.61849 9.6913308,25.833733 4.9313617,26.597377 2.6021356,26.977946 1.0000001,27.312234 1.0000001,28.115234 1.0000001,29.385076 6.4000001,30 16,30 28.136764,30 28.167386,22.878078 28.142857,16.457869 v -3.600726 c 0,0 -5.714286,0 -5.570591,0 z"/>
 <path style="opacity:0.2" d="M 29.5,3 A 1.5,1.5 0 0 0 28,4.5 V 9.5410156 A 4,4 0 0 0 26,9 4,4 0 0 0 24,9.5410156 V 6.9121094 A 1.5,1.5 0 0 0 24.5,7 1.5,1.5 0 0 0 26,5.5 1.5,1.5 0 0 0 24.5,4 1.5,1.5 0 0 0 23,5.5 v 4.861328 A 4,4 0 0 0 22,13 a 4,4 0 0 0 4,4 4,4 0 0 0 4,-4 4,4 0 0 0 -1,-2.638672 V 5.9121094 A 1.5,1.5 0 0 0 29.5,6 1.5,1.5 0 0 0 31,4.5 1.5,1.5 0 0 0 29.5,3 Z"/>
 <path style="fill:#4f4f4f" d="M 24.5 3 A 1.5 1.5 0 0 0 23 4.5 L 23 12 L 24 12 L 24 5.9121094 A 1.5 1.5 0 0 0 24.5 6 A 1.5 1.5 0 0 0 26 4.5 A 1.5 1.5 0 0 0 24.5 3 z"/>
 <path style="fill:#4f4f4f" d="m 29.5,1.9999996 a 1.5,1.5 0 0 0 -1.5,1.5 V 11 h 1 V 4.912109 A 1.5,1.5 0 0 0 29.5,5 1.5,1.5 0 0 0 31,3.5 1.5,1.5 0 0 0 29.5,1.9999996 Z"/>
 <circle style="opacity:0.2" cx="11" cy="18" r="10"/>
 <circle style="fill:#af2158" cx="11" cy="17" r="10"/>
 <path style="opacity:0.2;fill:none;stroke:#000000;stroke-width:1.35803235" d="m 11.609059,18.000116 c -0.184125,-0.318914 0.33905,-0.405538 0.530057,-0.306028 0.517619,0.269666 0.417203,0.998317 0.082,1.366142 -0.5996,0.657954 -1.649164,0.472625 -2.202228,-0.142029 -0.8116425,-0.902029 -0.5322437,-2.309764 0.366058,-3.038313 1.197295,-0.97104 2.973948,-0.593806 3.874398,0.590087 1.133125,1.489808 0.656404,3.639868 -0.814115,4.710483 -1.780996,1.296659 -4.306773,0.719607 -5.5465684,-1.038144 -1.461056,-2.071448 -0.7831912,-4.974292 1.2621726,-6.382653 2.3614538,-1.626009 5.6422228,-0.84703 7.2187388,1.486201 1.791338,2.651165 0.911046,6.31044 -1.71023,8.054824 -2.940675,1.956935 -6.9788679,0.97519 -8.8909093,-1.934259 -2.1227283,-3.23004 -1.0394311,-7.647453 2.1582874,-9.726994"/>
 <path style="fill:none;stroke:#8b9cbe;stroke-width:1.35803235" d="m 11.609059,17.000116 c -0.184125,-0.318914 0.33905,-0.405538 0.530057,-0.306028 0.517619,0.269666 0.417203,0.998317 0.082,1.366142 -0.5996,0.657954 -1.649164,0.472625 -2.202228,-0.142029 -0.8116425,-0.902029 -0.5322437,-2.309764 0.366058,-3.038313 1.197295,-0.97104 2.973948,-0.593806 3.874398,0.590087 1.133125,1.489808 0.656404,3.639868 -0.814115,4.710483 -1.780996,1.296659 -4.306773,0.719607 -5.5465684,-1.038144 -1.461056,-2.071448 -0.7831912,-4.974292 1.2621726,-6.382653 2.3614538,-1.626009 5.6422228,-0.84703 7.2187388,1.486201 1.791338,2.651165 0.911046,6.31044 -1.71023,8.054824 -2.940675,1.956935 -6.9788679,0.97519 -8.8909093,-1.934259 -2.1227283,-3.23004 -1.0394311,-7.647453 2.1582874,-9.726994"/>
 <circle style="fill:#4f4f4f" cx="26" cy="12" r="4"/>
 <path style="opacity:0.3" d="m 24.666667,10.966729 a 1.3333333,1.3333333 0 0 0 -1.333333,1.333333 1.3333333,1.3333333 0 0 0 0.04297,0.335938 1.3333333,1.3333333 0 0 1 1.290364,-1.002604 1.3333333,1.3333333 0 0 1 1.290365,0.997396 1.3333333,1.3333333 0 0 0 0.04297,-0.33073 1.3333333,1.3333333 0 0 0 -1.333334,-1.333333 z"/>
 <path style="opacity:0.3" d="m 28.000001,10.966729 a 1.3333333,1.3333333 0 0 0 -1.333334,1.333333 1.3333333,1.3333333 0 0 0 0.04297,0.335938 1.3333333,1.3333333 0 0 1 1.290367,-1.002604 1.3333333,1.3333333 0 0 1 1.290364,0.997396 1.3333333,1.3333333 0 0 0 0.04297,-0.33073 1.3333333,1.3333333 0 0 0 -1.333333,-1.333333 z"/>
 <path style="opacity:0.2;fill:#8b9cbe" d="M 11 7 A 10 10 0 0 0 1 17 A 10 10 0 0 0 1.0214844 17.585938 A 10 10 0 0 1 11 8 A 10 10 0 0 1 20.978516 17.414062 A 10 10 0 0 0 21 17 A 10 10 0 0 0 11 7 z"/>
 <path style="opacity:0.1;fill:#8b9cbe" d="M 29.5 2 A 1.5 1.5 0 0 0 28 3.5 L 28 4.5 A 1.5 1.5 0 0 1 29.5 3 A 1.5 1.5 0 0 1 30.912109 4 A 1.5 1.5 0 0 0 31 3.5 A 1.5 1.5 0 0 0 29.5 2 z M 24.5 3 A 1.5 1.5 0 0 0 23 4.5 L 23 5.5 A 1.5 1.5 0 0 1 24.5 4 A 1.5 1.5 0 0 1 25.912109 5 A 1.5 1.5 0 0 0 26 4.5 A 1.5 1.5 0 0 0 24.5 3 z M 26 8 A 4 4 0 0 0 24 8.5410156 L 24 9.5410156 A 4 4 0 0 1 26 9 A 4 4 0 0 1 28 9.5410156 L 28 8.5410156 A 4 4 0 0 0 26 8 z M 23 9.3613281 A 4 4 0 0 0 22 12 A 4 4 0 0 0 22.033203 12.492188 A 4 4 0 0 1 23 10.361328 L 23 9.3613281 z M 29 9.3613281 L 29 10.361328 A 4 4 0 0 1 29.962891 12.501953 A 4 4 0 0 0 30 12 A 4 4 0 0 0 29 9.3613281 z"/>
</svg>
