<svg xmlns="http://www.w3.org/2000/svg" width="32" height="32" version="1.1">
 <rect style="opacity:0.2" width="29" height="29" x="2" y="2" rx="8.7" ry="8.7"/>
 <rect style="fill:#795548" width="29" height="29" x="2" y="1" rx="8.7" ry="8.7"/>
 <path style="fill:#6d4c41" d="M 10.7,1 C 9.6806117,1 8.7075073,1.1819494 7.8000001,1.5012695 V 6.8000001 H 13.6 V 1 Z m 2.9,5.8000001 V 12.6 h 5.8 V 6.8000001 Z m 5.8,0 h 5.8 V 1.5012695 C 24.292493,1.1819494 23.319389,1 22.3,1 h -2.9 z m 5.8,0 V 12.6 H 31 V 9.7000001 c 0,-1.0193884 -0.18195,-1.9924929 -0.501269,-2.9 z M 25.2,12.6 h -5.8 v 5.8 h 5.8 z m 0,5.8 v 5.8 h 5.298731 C 30.81805,23.292493 31,22.319389 31,21.3 v -2.9 z m 0,5.8 H 19.4 V 30 h 2.9 c 1.019389,0 1.992493,-0.18195 2.9,-0.501269 z m -5.8,0 v -5.8 h -5.8 v 5.8 z m -5.8,0 H 7.8000001 v 5.298731 C 8.7075073,29.81805 9.6806117,30 10.7,30 h 2.9 z m -5.7999999,0 V 18.4 H 2 v 2.9 c 0,1.019389 0.1819495,1.992493 0.5012695,2.9 z m 0,-5.8 H 13.6 V 12.6 H 7.8000001 Z m 0,-5.8 V 6.8000001 H 2.5012695 C 2.1819495,7.7075072 2,8.6806117 2,9.7000001 V 12.6 Z"/>
 <rect style="fill:#bdbdbd" width="9" height="13" x="12" y="11"/>
 <path style="opacity:0.2" d="m 9,6 v 4.2 c 0,1.5512 1.338,2.8 3,2.8 h 9 c 1.662,0 3,-1.2488 3,-2.8 V 6 H 21 V 9 H 18 V 6 H 15 V 9 H 12 V 6 Z"/>
 <path style="fill:#8b9cbe" d="M 9,5 V 9.2000001 C 9,10.7512 10.338,12 12,12 h 9 c 1.662,0 3,-1.2488 3,-2.7999999 V 5 H 21 V 8 H 18 V 5 H 15 V 8 H 12 V 5 Z"/>
 <path style="opacity:0.2" d="M 10.125,23 C 8.94775,23 8,23.892 8,25 v 2 h 17 v -2 c 0,-1.108 -0.94775,-2 -2.125,-2 z"/>
 <path style="fill:#8b9cbe" d="M 10.125,22 C 8.94775,22 8,22.892 8,24 v 2 h 17 v -2 c 0,-1.108 -0.94775,-2 -2.125,-2 z"/>
 <path style="fill:#8b9cbe;opacity:0.1" d="M 10.699219 1 C 5.8794189 1 2 4.8794189 2 9.6992188 L 2 10.699219 C 2 5.8794189 5.8794189 2 10.699219 2 L 22.300781 2 C 27.120581 2 31 5.8794189 31 10.699219 L 31 9.6992188 C 31 4.8794189 27.120581 1 22.300781 1 L 10.699219 1 z"/>
</svg>
