<svg xmlns="http://www.w3.org/2000/svg" width="32" height="32" version="1">
 <rect style="opacity:0.2" width="28" height="28" x="2" y="3" rx="8.4" ry="8.4"/>
 <rect style="fill:#4e91d9" width="28" height="28" x="2" y="2" rx="8.4" ry="8.4"/>
 <path style="opacity:0.2" d="M 16,6 C 9.9248678,6 5,10.924868 5,17 5,23.075132 9.9248678,28 16,28 22.075132,28 27,23.075132 27,17 27,10.924868 22.075132,6 16,6 Z m -4,6.5 V 15 h 8 v -2.5 l 6,4.5 -6,4.5 V 19 h -8 v 2.5 L 6,17 Z"/>
 <path style="fill:#8b9cbe" d="M 16,5 C 9.9248678,5 5,9.9248678 5,16 5,22.075132 9.9248678,27 16,27 22.075132,27 27,22.075132 27,16 27,9.9248678 22.075132,5 16,5 Z m -4,6.5 0,2.5 8,0 0,-2.5 6,4.5 -6,4.5 0,-2.5 -8,0 0,2.5 L 6,16 Z"/>
 <path style="fill:#8b9cbe;opacity:0.2" d="M 10.400391 2 C 5.7467908 2 2 5.7467908 2 10.400391 L 2 11.400391 C 2 6.7467908 5.7467908 3 10.400391 3 L 21.599609 3 C 26.253209 3 30 6.7467908 30 11.400391 L 30 10.400391 C 30 5.7467908 26.253209 2 21.599609 2 L 10.400391 2 z"/>
</svg>
