<svg xmlns="http://www.w3.org/2000/svg" width="32" height="32" version="1.1">
 <path fill="#248afd" d="m16 2a14 14 0 0 0 -14 14 14 14 0 0 0 14 14 14 14 0 0 0 14 -14 14 14 0 0 0 -14 -14z"/>
 <path fill="#8b9cbe" opacity=".2" d="m16 2a14 14 0 0 0 -14 14 14 14 0 0 0 0.0215 0.414 14 14 0 0 1 13.978 -13.414 14 14 0 0 1 13.979 13.586 14 14 0 0 0 0.021 -0.586 14 14 0 0 0 -14 -14z"/>
 <path opacity=".2" d="m2.0215 16.414a14 14 0 0 0 -0.0215 0.586 14 14 0 0 0 14 14 14 14 0 0 0 14 -14 14 14 0 0 0 -0.021 -0.414 14 14 0 0 1 -13.979 13.414 14 14 0 0 1 -13.978 -13.586z"/>
 <path style="opacity:.2" d="m16.000001 4.9999998c-6.6169732 0-12.000001 5.3834012-12.000001 12 0 6.617009 5.3832323 12 12.000001 12 6.616562 0 11.999999-5.382991 11.999999-12 0-6.616599-5.383438-12-11.999999-12zm0 0.9234374c2.883886 5e-7 5.610397 1.3017978 7.581187 3.1072478-0.04785-0.00276-0.09526-0.00937-0.144376-0.00937-1.087832 0-2.460031 1.047551-2.460031 2.065779 0.023219 2.912906 2.457877 3.71404 2.501657 5.353223 0 0.948252-0.363921 2.049169-0.842813 3.581251l-1.105312 3.691875-4.003124-11.706911c0.666485-0.03498 1.067966-0.105938 1.067966-0.105938 0.596717-0.07061 0.527247-0.948325-0.07031-0.913126 0 0-1.595147 0.140625-2.753592 0.140625-1.088466 0-3.317098-0.140625-3.317098-0.140625-0.596928-0.0352-0.667241 0.878143-0.07031 0.913126 0 0 0.965592 0.07095 1.562099 0.105938l1.725937 4.527536-2.425312 7.270312-4.0331252-11.798317c0.6677496-0.03498 1.3681812-0.105001 1.3681812-0.105001 0.596507-0.07061 0.52589-0.948323-0.07125-0.913125 0 0-1.8942139 0.140624-3.0528693 0.140624-0.2080403 0.000001-0.5526152-0.004741-0.8125057-0.012561 1.9806923-3.0072582 5.48509-5.1925546 9.355001-5.1925628zm9.719999 5.7609378c0.865246 1.577818 1.356775 3.389826 1.356563 5.315625 0 4.086396-2.214594 7.653431-5.507813 9.57375l3.384376-9.781875c0.63234-1.579927 0.841875-2.843467 0.841875-3.9675 0-0.407416-0.02736-0.787173-0.075-1.14zm-19.8375 0.807188 5.283751 14.476875c-3.6949671-1.795545-6.2428143-5.584015-6.2428143-9.968438 0-1.605851 0.3444302-3.130849 0.9590633-4.508437zm10.3125 5.475937 3.405001 9.328125c0.02213 0.0548 0.04904 0.106326 0.07875 0.15375-1.151489 0.404887-2.388779 0.627188-3.67875 0.627188-1.087412 0-2.136088-0.159233-3.128438-0.450938z"/>
 <path style="fill:#8b9cbe" d="m16.000001 3.9999998c-6.6169732 0-12.000001 5.3834015-12.000001 12 0 6.617009 5.3832323 12 12.000001 12 6.616562 0 11.999999-5.382991 11.999999-12 0-6.616599-5.383438-12-11.999999-12zm0 0.9234374c2.883886 5e-7 5.610397 1.3017978 7.581187 3.1072478-0.04785-0.00276-0.09526-0.00937-0.144376-0.00937-1.087832 0-2.460031 1.0475514-2.460031 2.065779 0.023219 2.912906 2.457877 3.71404 2.501657 5.353223 0 0.948252-0.363921 2.049169-0.842813 3.581251l-1.105312 3.691875-4.003124-11.706911c0.666485-0.03498 1.067966-0.105938 1.067966-0.105938 0.596717-0.07061 0.527247-0.9483246-0.07031-0.9131256 0 0-1.595147 0.1406246-2.753592 0.1406246-1.088466 0-3.317098-0.1406246-3.317098-0.1406246-0.596928-0.0352-0.667241 0.8781426-0.07031 0.9131256 0 0 0.965592 0.07095 1.562099 0.105938l1.725937 4.527536-2.425312 7.270312-4.0331252-11.798317c0.6677496-0.03498 1.3681812-0.105001 1.3681812-0.105001 0.596507-0.07061 0.52589-0.9483231-0.07125-0.9131251 0 0-1.8942139 0.1406241-3.0528693 0.1406241-0.2080403 0.000001-0.5526152-0.004741-0.8125057-0.012561 1.9806923-3.0072582 5.48509-5.1925546 9.355001-5.1925628zm9.719999 5.7609378c0.865246 1.577818 1.356775 3.389826 1.356563 5.315625 0 4.086396-2.214594 7.653431-5.507813 9.57375l3.384376-9.781875c0.63234-1.579927 0.841875-2.843467 0.841875-3.9675 0-0.407416-0.02736-0.787173-0.075-1.14zm-19.8375 0.807188 5.283751 14.476875c-3.6949671-1.795545-6.2428143-5.584015-6.2428143-9.968438 0-1.605851 0.3444302-3.130849 0.9590633-4.508437zm10.3125 5.475937 3.405001 9.328125c0.02213 0.0548 0.04904 0.106326 0.07875 0.15375-1.151489 0.404887-2.388779 0.627188-3.67875 0.627188-1.087412 0-2.136088-0.159233-3.128438-0.450938z"/>
</svg>
