<svg xmlns="http://www.w3.org/2000/svg" width="32" height="32" version="1">
 <path style="opacity:0.2" d="m 29.134738,6.9001146 c -1.08403,0.6246404 -2.467641,0.9783816 -3.741495,1.2336092 0.0013,0.00154 0.003,0.0028 0.0043,0.00434 0.110089,0.1268106 0.214298,0.1840321 0.313194,0.3198314 0.100196,0.1374268 0.394665,0.5796876 0.482854,0.7255543 0.07802,0.1290485 0.148301,0.8219425 0.216439,0.9570365 0.0089,0.01775 0.0201,0.0341 0.02885,0.05194 l 0.0015,0.0029 c 0.07486,0.152442 0.06933,-0.3244479 0.131066,-0.165192 1.175365,-0.6933076 2.13677,-1.8336819 2.563311,-3.1299993 z M 30,9 c -1.022943,0.4408271 -2.270117,0.9060007 -3.4228,1.0431 0.255436,0.635129 0.226358,1.837389 0.2678,2.1878 C 27.97018,11.442177 29.227844,10.122128 30,9 Z"/>
 <path style="opacity:0.1;fill:#8b9cbe" d="m 29.134738,6.9001146 c -1.08403,0.6246404 -2.467641,0.9783816 -3.741495,1.2336092 0.0013,0.00154 0.003,0.0028 0.0043,0.00434 0.110089,0.1268106 0.214298,0.1840321 0.313194,0.3198314 0.100196,0.1374268 0.394665,0.5796876 0.482854,0.7255543 0.07802,0.1290485 0.148301,0.8219425 0.216439,0.9570365 0.0089,0.01775 0.0201,0.0341 0.02885,0.05194 l 0.0015,0.0029 c 0.07486,0.152442 0.06933,-0.3244479 0.131066,-0.165192 1.175365,-0.6933076 2.13677,-1.8336819 2.563311,-3.1299993 z M 30,9 c -1.022943,0.4408271 -2.270117,0.9060007 -3.4228,1.0431 0.255436,0.635129 0.226358,1.837389 0.2678,2.1878 C 27.97018,11.442177 29.227844,10.122128 30,9 Z"/>
 <path style="opacity:0.2" d="m 21,5 c -3.313708,0 -6,2.6862915 -6,6 0,6 -1.410638,9.541423 -4.544922,12.128906 -1.9542814,1.50563 -4.4185039,2.961133 -7.0937499,2.961133 C 2.900433,26.090039 2.4467137,26.061811 2,26.009961 4.5270705,27.602753 7.5289648,28 10.753906,28 21.25708,28 27,19.281181 27,11.863281 c 0,-0.07515 -0.005,-0.149713 -0.0059,-0.224609 0.0022,-0.03665 0.0044,-0.07269 0.0059,-0.109375 -7.2e-5,-0.06265 -0.01558,-0.121363 -0.01758,-0.183594 C 26.991605,11.230662 26.997467,11.115379 27,11 27,7.6862915 24.313708,5 21,5 Z"/>
 <path style="fill:#085585" d="m 29.134738,5.9001146 c -1.08403,0.6246404 -2.467641,0.9783816 -3.741495,1.2336092 0.0013,0.00154 0.003,0.0028 0.0043,0.00434 0.110089,0.1268106 0.214298,0.1840321 0.313194,0.3198314 0.100196,0.1374268 0.394665,0.5796876 0.482854,0.7255543 0.07802,0.1290485 0.148301,0.8219428 0.216439,0.9570365 0.0089,0.017745 0.0201,0.034104 0.02885,0.05194 l 0.0015,0.00287 c 0.07486,0.1524425 0.06933,-0.3244479 0.131066,-0.1651916 1.175365,-0.693308 2.13677,-1.8336823 2.563311,-3.1299997 z M 30,8 C 28.977057,8.4408271 27.729883,8.9060007 26.5772,9.0430999 26.832636,9.6782288 26.803558,10.880489 26.845,11.2309 27.97018,10.442177 29.227844,9.122128 30,8 Z"/>
 <path style="fill:#8b9cbe;opacity:0.1" d="M 29.134766 5.9003906 C 28.050736 6.525031 26.666432 6.8775849 25.392578 7.1328125 C 25.393878 7.1343525 25.397137 7.1371319 25.398438 7.1386719 C 25.508526 7.2654825 25.612042 7.3212319 25.710938 7.4570312 C 25.784124 7.5574129 25.938111 7.7969267 26.0625 7.9882812 C 26.879187 7.8033008 27.701258 7.563445 28.447266 7.234375 C 28.731117 6.8158221 28.978583 6.3750512 29.134766 5.9003906 z M 30 8 C 29.429754 8.245742 28.789162 8.4915838 28.134766 8.6914062 C 28.134179 8.692117 28.133399 8.6926489 28.132812 8.6933594 C 27.740336 9.1684171 27.266376 9.5705795 26.753906 9.9003906 C 26.75795 9.9370951 26.762117 9.9729968 26.765625 10.009766 C 27.45042 9.9088939 28.139142 9.6966946 28.8125 9.453125 C 29.259586 8.9683427 29.677361 8.4688713 30 8 z"/>
 <path style="fill:#0391e9" d="m 21,4 c -3.313708,0 -6,2.6862915 -6,6 0,6 -1.410638,9.541423 -4.544922,12.128906 -1.9542814,1.50563 -4.4185039,2.961133 -7.0937499,2.961133 C 2.900433,25.090039 2.4467137,25.061811 2,25.009961 4.5270705,26.602753 7.5289648,27 10.753906,27 21.25708,27 27,18.281181 27,10.863281 c 0,-0.07515 -0.005,-0.149713 -0.0059,-0.224609 0.0022,-0.03665 0.0044,-0.07269 0.0059,-0.109375 -7.2e-5,-0.06265 -0.01558,-0.121363 -0.01758,-0.183594 C 26.991605,10.230662 26.997467,10.115379 27,10 27,6.6862915 24.313708,4 21,4 Z"/>
 <path style="fill:#8b9cbe;opacity:0.1" d="M 21 4 C 17.686292 4 15 6.6862915 15 10 C 15 16 13.589362 19.541423 10.455078 22.128906 C 8.5007967 23.634536 6.0365741 25.089844 3.3613281 25.089844 C 2.900433 25.089844 2.4467137 25.061616 2 25.009766 C 2.67538 25.435452 3.3865959 25.770878 4.125 26.041016 C 6.5036789 25.799662 8.6888069 24.489688 10.455078 23.128906 C 13.589362 20.541423 15 17 15 11 C 15 7.6862915 17.686292 5 21 5 C 24.291273 5 26.96006 7.6508515 26.996094 10.933594 C 26.996206 10.910346 27 10.886503 27 10.863281 C 27 10.788131 26.995041 10.713568 26.994141 10.638672 C 26.996341 10.602022 26.9985 10.565982 27 10.529297 C 26.999928 10.466647 26.984422 10.407934 26.982422 10.345703 C 26.991607 10.230662 26.997467 10.115379 27 10 C 27 6.6862915 24.313708 4 21 4 z"/>
 <circle style="fill:#085585" cx="22.5" cy="8.5" r="1.5"/>
 <path style="opacity:0.2" d="M 2.7710937,7 C 2.2753286,7.8263528 1.9999999,9.344586 2,10.370027 c 0,1.941241 2.1093932,3.582313 3.6548413,4.585547 -0.9441064,-0.02906 -2.8578331,-0.452412 -3.6343335,-0.871439 -6.684e-4,0.02333 -0.00136,0.04613 -0.00136,0.06973 0,2.710873 3.63615,6.107356 5.6892163,6.846135 C 5.6552978,21 3.7387786,20.07786 3,20.07786 3.7329766,22.300684 7.2670651,23.954871 9.7874999,24 l 4.7714841,0 c 0.04472,0 0.08023,-0.0092 0.12168,-0.01231 0.08262,0.0062 0.164646,0.0098 0.247461,0.01231 0.0616,0 0.120937,-0.0076 0.181836,-0.0096 0.06329,0.0043 0.126643,0.0075 0.190039,0.0096 3.092794,0 5.7,-2.507206 5.7,-5.6 0,-3.092795 -2.607206,-5.4041 -5.7,-5.4041 -0.07524,0.0012 -0.150454,0.0039 -0.225586,0.0082 -0.04911,-0.0014 -0.09673,-0.0082 -0.146289,-0.0082 C 8.648506,12.9959 5.579508,10.196803 2.7710937,7 Z"/>
 <path style="fill:#3cbbff" d="M 2.7710937,6 C 2.2753286,6.8263528 1.9999999,8.344586 2,9.3700272 2,11.311268 4.1093932,12.95234 5.6548413,13.955574 4.7107349,13.926514 2.7970082,13.503162 2.0205078,13.084135 c -6.684e-4,0.02333 -0.00136,0.04613 -0.00136,0.06973 0,2.710873 3.63615,6.107356 5.6892163,6.846135 C 5.6552978,20 3.7387786,19.07786 3,19.07786 3.7329766,21.300684 7.2670651,22.954871 9.7874999,23 l 4.7714841,0 c 0.04472,0 0.08023,-0.0092 0.12168,-0.01231 0.08262,0.0062 0.164646,0.0098 0.247461,0.01231 0.0616,0 0.120937,-0.0076 0.181836,-0.0096 0.06329,0.0043 0.126643,0.0075 0.190039,0.0096 3.092794,0 5.7,-2.507206 5.7,-5.6 0,-3.092795 -2.607206,-5.4041 -5.7,-5.4041 -0.07524,0.0012 -0.150454,0.0039 -0.225586,0.0082 -0.04911,-0.0014 -0.09673,-0.0082 -0.146289,-0.0082 C 8.648506,11.9959 5.579508,9.1968033 2.7710937,6 Z"/>
 <path style="fill:#8b9cbe;opacity:0.2" d="M 2.7714844 6 C 2.2757193 6.8263528 1.9999999 8.3436994 2 9.3691406 C 2 9.4758725 2.0287068 9.5787327 2.0410156 9.6835938 C 2.1284878 8.7462251 2.3766522 7.6581155 2.7714844 7 C 5.5798987 10.196803 8.6481154 12.996094 14.927734 12.996094 C 14.977293 12.996094 15.025109 13.002506 15.074219 13.003906 C 15.149351 12.999606 15.225541 12.997294 15.300781 12.996094 C 18.224112 12.996094 20.710572 15.062348 20.974609 17.900391 C 20.989813 17.73531 21 17.569277 21 17.400391 C 21 14.307596 18.393575 11.996094 15.300781 11.996094 C 15.225541 11.997294 15.149351 11.999606 15.074219 12.003906 C 15.025109 12.002506 14.977293 11.996094 14.927734 11.996094 C 8.6481154 11.996094 5.5798987 9.1968033 2.7714844 6 z M 2.0195312 13.083984 C 2.0188629 13.107314 2.0195312 13.130697 2.0195312 13.154297 C 2.0195312 13.476766 2.0738505 13.808287 2.1679688 14.144531 C 3.0072256 14.542672 4.7561284 14.927432 5.6542969 14.955078 C 5.1233818 14.610432 4.5282964 14.186584 3.9726562 13.705078 C 3.2105253 13.538438 2.4452223 13.313702 2.0195312 13.083984 z M 3 19.078125 C 3.1289216 19.469092 3.347429 19.841283 3.6289062 20.191406 C 4.5678016 20.43438 6.0919177 21 7.7089844 21 C 7.1005607 20.781064 6.3522108 20.311626 5.6015625 19.712891 C 4.4439756 19.441225 3.4706994 19.078125 3 19.078125 z"/>
</svg>
