<svg xmlns="http://www.w3.org/2000/svg" width="32" height="32" version="1">
 <rect fill="#0286c2" width="28" height="28" x="2" y="2" rx="14" ry="14"/>
 <path style="opacity:0.2" d="M 15.150153,3.0272935 C 13.973141,3.097292 12.83613,3.3112875 11.756119,3.6522804 9.6722983,9.6091557 7.5781774,16.142019 5.4980566,21.903898 c 0.1512015,0.045 0.300803,0.027 0.4571046,0.03 0.8608086,-0.006 1.7265172,0.002 2.5898259,0 0.1169011,0 0.100901,-0.167997 0.1504015,-0.242995 1.0374103,-2.926939 2.0927214,-5.840878 3.1347314,-8.766817 0.062,-0.180996 0.131001,-0.375992 0.213002,-0.548988 0.541005,0.01 1.075011,-0.008 1.613016,0 -1.131011,3.173933 -2.259022,6.365867 -3.410034,9.5288 0.121001,0.047 0.241002,0.027 0.367004,0.03 0.904009,-0.008 1.806018,0.012 2.709027,0 1.02201,-2.88394 2.078021,-5.76188 3.106031,-8.644819 0.218002,-0.587988 0.249002,-1.340972 -0.123001,-1.823962 -0.791008,-1.024979 -2.548026,-1.197975 -3.684037,-1.239974 0.829008,-2.3464511 1.689017,-4.7995997 2.529025,-7.1975495 z m 4.108041,7.6175405 c -0.022,0.047 -0.039,0.163997 -0.061,0.209996 -2.101021,5.893876 -4.565046,12.602736 -6.754068,18.675609 0.789008,0.205995 1.601016,0.346993 2.438024,0.411991 0.97101,-2.504947 2.136022,-5.24489 2.97403,-7.581841 1.129011,-0.022 2.252023,-0.011 3.383034,-0.033 0.718007,-0.025 1.801018,-0.454991 2.03902,-1.153976 0.95301,-2.682944 1.905019,-5.340889 2.828029,-8.034832 0.152001,-0.407992 0.245002,-0.854982 0.124001,-1.277973 -0.162002,-0.540989 -0.655007,-0.95098 -1.186012,-1.094977 -0.462005,-0.144997 -0.926009,-0.082 -1.400014,-0.092 -1.450014,-0.003 -2.936029,-0.014 -4.385044,-0.029 z m 2.724027,1.698964 c 0.046,0.005 0.092,0.01 0.137002,0.004 0.419004,0.007 0.831008,-0.011 1.248012,0 -0.972009,2.775942 -1.962019,5.554884 -2.920029,8.339826 -0.543005,0.037 -1.102011,0.002 -1.646016,0 0.99001,-2.759942 1.966019,-5.516885 2.953029,-8.281827 0.022,-0.025 0.062,-0.053 0.092,-0.06 v 0.002 c 0.044,-0.014 0.091,-0.009 0.136001,-0.004 z"/>
 <path style="fill:#8b9cbe" d="M 15.149864,2.0274744 C 13.972313,2.0974067 12.836068,2.312594 11.75653,2.6536454 9.672363,8.611125 7.5790952,15.143464 5.499129,20.906057 c 0.1512054,0.04447 0.3004155,0.02617 0.4566965,0.02871 0.8608301,-0.0051 1.7250207,0.0025 2.5884412,0 0.1169009,0 0.1022271,-0.169042 0.1517794,-0.24337 1.0374628,-2.927848 2.0914479,-5.840716 3.1340209,-8.766394 0.06226,-0.181047 0.131351,-0.374834 0.21331,-0.548258 0.541282,0.01016 1.074778,-0.0076 1.613497,0 -1.131485,3.173696 -2.259049,6.366083 -3.410206,9.529419 0.121346,0.04701 0.24139,0.02617 0.36782,0.02872 0.903395,-0.0076 1.80399,0.01271 2.707386,0 1.022201,-2.883397 2.078706,-5.761613 3.106648,-8.64529 0.218546,-0.588243 0.249679,-1.342155 -0.123062,-1.825241 C 15.514359,9.4389588 13.757904,9.267943 12.621798,9.2256616 13.450284,6.879463 14.309504,4.4252508 15.150032,2.0273204 Z m 4.107565,7.6169553 c -0.02202,0.047581 -0.03669,0.1651915 -0.05879,0.2119181 -2.203672,6.1818372 -4.819557,13.2927452 -7.084206,19.5908562 0.769468,0.220634 1.562109,0.386308 2.380584,0.473062 1.020451,-2.735902 2.415169,-5.922338 3.36099,-8.557787 1.128965,-0.02223 2.251348,-0.01058 3.382833,-0.03281 0.717242,-0.02477 1.80049,-0.455904 2.038731,-1.155318 0.952962,-2.68263 1.905994,-5.340479 2.829062,-8.03557 0.151205,-0.407196 0.243673,-0.853888 0.121696,-1.276983 -0.16137,-0.54123 -0.654387,-0.9523115 -1.185531,-1.0965163 -0.46187,-0.1442048 -0.926219,-0.081441 -1.400179,-0.091605 -1.449116,-0.00252 -2.935966,-0.014833 -4.385152,-0.03008 z m 2.725169,1.6994473 c 0.0459,0.005 0.09195,0.01182 0.136735,0.0055 0.419304,0.0076 0.831636,-0.01017 1.248399,0 -0.972634,2.776643 -1.962631,5.555176 -2.920703,8.340079 -0.543186,0.03748 -1.102501,0.0025 -1.646331,0 0.990417,-2.759492 1.966202,-5.518075 2.953538,-8.282677 0.02224,-0.02477 0.06176,-0.05253 0.09161,-0.06016 v 0.0027 c 0.04479,-0.01366 0.09084,-0.01047 0.136734,-0.0055 z"/>
 <path fill="#fff" opacity=".2" d="m16 2c-7.756 0-14 6.244-14 14 0 0.169 0.0195 0.333 0.0254 0.5 0.2637-7.5206 6.3874-13.5 13.975-13.5 7.587 0 13.711 5.9794 13.975 13.5 0.005-0.167 0.025-0.331 0.025-0.5 0-7.756-6.244-14-14-14z"/>
 <path opacity=".2" d="m2.0254 16.5c-0.0059 0.167-0.0254 0.331-0.0254 0.5 0 7.756 6.244 14 14 14s14-6.244 14-14c0-0.169-0.02-0.333-0.025-0.5-0.264 7.521-6.388 13.5-13.975 13.5-7.5872 0-13.711-5.979-13.975-13.5z"/>
</svg>
