<svg xmlns="http://www.w3.org/2000/svg" width="32" height="32" version="1">
 <rect style="opacity:.2" width="28" height="28" x="2" y="3" rx="14" ry="14"/>
 <rect style="fill:#2071c5" width="28" height="28" x="2" y="2" rx="14" ry="14"/>
 <path style="opacity:.2" d="m16 7a1 1 0 0 0 -0.0957 0.00586c-5.466612 0.0522697-9.9043 4.515485-9.9043 9.99414 0 5.511003 4.488997 10 10 10 5.477339 0 9.939762-4.43559 9.994141-9.900391a1 1 0 0 0 0.005859 -0.099609 1 1 0 0 0 -1 -1 1 1 0 0 0 -1 1c0 4.430123-3.569877 8-8 8s-8-3.569877-8-8 3.569877-8 8-8a1 1 0 0 0 1 -1 1 1 0 0 0 -1 -1zm0 4a1 1 0 0 0 -0.0957 0.0039c-3.257687 0.052063-5.9043 2.726526-5.9043 5.9961 0 3.301864 2.698136 6 6 6 3.268226 0 5.93994-2.644556 5.994141-5.900391a1 1 0 0 0 0.005859 -0.099609 1 1 0 0 0 -1 -1 1 1 0 0 0 -1 1c0 2.220984-1.779016 4-4 4s-4-1.779016-4-4 1.779016-4 4-4a1 1 0 0 0 1 -1 1 1 0 0 0 -1 -1zm0 4a2 2 0 0 0 -2 2 2 2 0 0 0 2 2 2 2 0 0 0 2 -2 2 2 0 0 0 -2 -2z"/>
 <path style="fill:#8b9cbe" d="m16 6a1 1 0 0 0 -0.095703 0.0058594c-5.466609 0.0522703-9.904297 4.5154856-9.904297 9.9941406 0 5.511003 4.488997 10 10 10 5.477339 0 9.939762-4.43559 9.994141-9.900391a1 1 0 0 0 0.005859 -0.099609 1 1 0 0 0 -1 -1 1 1 0 0 0 -1 1c0 4.430123-3.569877 8-8 8s-8-3.569877-8-8 3.569877-8 8-8a1 1 0 0 0 1 -1 1 1 0 0 0 -1 -1zm0 4a1 1 0 0 0 -0.095703 0.003906c-3.257684 0.052057-5.904297 2.72652-5.904297 5.996094 0 3.301864 2.698136 6 6 6 3.268226 0 5.93994-2.644556 5.994141-5.900391a1 1 0 0 0 0.005859 -0.099609 1 1 0 0 0 -1 -1 1 1 0 0 0 -1 1c0 2.220984-1.779016 4-4 4s-4-1.779016-4-4 1.779016-4 4-4a1 1 0 0 0 1 -1 1 1 0 0 0 -1 -1zm0 4a2 2 0 0 0 -2 2 2 2 0 0 0 2 2 2 2 0 0 0 2 -2 2 2 0 0 0 -2 -2z"/>
 <path style="opacity:.1;fill:#8b9cbe" d="m16 2c-7.756 0-14 6.244-14 14 0 0.168842 0.0195214 0.33264 0.0253906 0.5 0.263742-7.5205675 6.3874512-13.5 13.9746094-13.5 7.500fae9 0 13.710867 5.9794325 13.974609 13.5 0.00587-0.16736 0.025391-0.331158 0.025391-0.5 0-7.756-6.244-14-14-14z"/>
</svg>
