<svg xmlns="http://www.w3.org/2000/svg" width="32" height="32" version="1">
 <rect style="opacity:0.2" width="28" height="28" x="2" y="3" rx="1.4" ry="1.4"/>
 <rect style="fill:#17191e" width="28" height="28" x="2" y="2" rx="1.4" ry="1.4"/>
 <path style="opacity:0.2" d="m 8.5,11 -3,12 h 1.3339844 l 3,-12 z m 2.666016,0 -3.0000004,12 h 2.6679684 l 3,-12 z m 4,0 -3,12 h 4.667968 l 3,-12 z m 6,0 -3,12 H 23.5 l 3,-12 z"/>
 <path style="fill:#f47c04" d="M 21.166667,10 H 26.5 l -3,12 h -5.333333 z"/>
 <path style="fill:#05caf4" d="m 15.166667,10 h 4.666666 l -3,12 h -4.666666 z"/>
 <path style="fill:#05caf4" d="m 11.166667,10 h 2.666666 l -3,12 H 8.1666667 Z"/>
 <path style="fill:#05caf4" d="m 8.5,10 h 1.3333334 l -3,12 H 5.5 Z"/>
 <path style="fill:#8b9cbe;opacity:0.1" d="M 3.4003906 2 C 2.6247906 2 2 2.6247906 2 3.4003906 L 2 4.4003906 C 2 3.6247906 2.6247906 3 3.4003906 3 L 28.599609 3 C 29.375209 3 30 3.6247906 30 4.4003906 L 30 3.4003906 C 30 2.6247906 29.375209 2 28.599609 2 L 3.4003906 2 z"/>
 <path style="opacity:0.2;fill:#8b9cbe" d="M 8.5 10 L 5.5 22 L 5.75 22 L 8.5 11 L 9.5839844 11 L 9.8339844 10 L 8.5 10 z M 11.166016 10 L 8.1660156 22 L 8.4160156 22 L 11.166016 11 L 13.583984 11 L 13.833984 10 L 11.166016 10 z M 15.166016 10 L 12.166016 22 L 12.416016 22 L 15.166016 11 L 19.583984 11 L 19.833984 10 L 15.166016 10 z M 21.166016 10 L 18.166016 22 L 18.416016 22 L 21.166016 11 L 26.25 11 L 26.5 10 L 21.166016 10 z"/>
</svg>
