<svg xmlns="http://www.w3.org/2000/svg" width="32" height="32" version="1">
 <path style="opacity:0.2" d="M 3.4003906,31 C 2.6247906,31 2,30.375209 2,29.599609 v -1 C 2,29.375209 2.6247906,30 3.4003906,30 H 16 28.599609 C 29.375209,30 30,29.375209 30,28.599609 v 1 C 30,30.375209 29.375209,31 28.599609,31 H 16 Z"/>
 <path style="fill:#21d789" d="M 16,2 H 3.4 C 2.6244,2 2,2.6244 2,3.4 V 16 h 14 z"/>
 <path style="fill:#cf4f8c" d="M 16,2 H 28.6 C 29.3756,2 30,2.6244 30,3.4 V 16 H 16 Z"/>
 <path style="fill:#2086e7" d="M 16,30 H 3.4 C 2.6244,30 2,29.3756 2,28.6 V 16 h 14 z"/>
 <path style="fill:#21d789" d="M 16,30 H 28.6 C 29.3756,30 30,29.3756 30,28.6 V 16 H 16 Z"/>
 <rect style="fill:#17191e" width="20" height="20" x="6" y="6"/>
 <path style="opacity:0.2;fill:none;stroke:#000000;stroke-width:2;stroke-linecap:round" d="M 9.0002425,23.9999 H 17.000242"/>
 <path style="fill:none;stroke:#8b9cbe;stroke-width:2;stroke-linecap:round" d="M 9.0002425,23 H 17.000242"/>
 <path style="opacity:0.2;fill:none;stroke:#000000;stroke-width:1.99999988;stroke-linecap:round;stroke-linejoin:bevel" d="m 12.999898,16.999898 c 0,0 0,1.000003 -2.000001,1.000003 -1.9999994,0 -1.9999994,-2.000001 -1.9999994,-4.000003 0,-1.999997 0,-3.9999989 1.9999994,-3.9999989 2.000001,0 2.000001,0.9999989 2.000001,0.9999989"/>
 <path style="fill:none;stroke:#8b9cbe;stroke-width:1.99999988;stroke-linecap:round;stroke-linejoin:bevel" d="m 12.999898,15.999998 c 0,0 0,1.000003 -2.000001,1.000003 -1.9999994,0 -1.9999994,-2.000001 -1.9999994,-4.000003 0,-1.999997 0,-3.9999989 1.9999994,-3.9999989 2.000001,0 2.000001,0.999999 2.000001,0.999999"/>
 <path style="opacity:0.2;fill:none;stroke:#000000;stroke-width:1.99999988;stroke-linecap:round;stroke-linejoin:round" d="M 16.999898,9.9998981 V 17.9999 h 3.999999 v 0"/>
 <path style="fill:none;stroke:#8b9cbe;stroke-width:1.99999988;stroke-linecap:round;stroke-linejoin:round" d="M 16.999898,8.9999981 V 17 h 3.999999 v 0"/>
 <path style="fill:#8b9cbe;opacity:0.2" d="M 3.4003906 2 C 2.6247906 2 2 2.6247906 2 3.4003906 L 2 4.4003906 C 2 3.6247906 2.6247906 3 3.4003906 3 L 16 3 L 28.599609 3 C 29.375209 3 30 3.6247906 30 4.4003906 L 30 3.4003906 C 30 2.6247906 29.375209 2 28.599609 2 L 16 2 L 3.4003906 2 z"/>
</svg>
