<svg xmlns="http://www.w3.org/2000/svg" width="32" height="32" version="1.1">
 <path style="fill:#465051" d="m 15.499878,2.5 c -1.796903,0 -4.43924,0.4604453 -6.8768387,1.574119 -0.1480131,0.067623 -0.2980242,0.1291566 -0.4442717,0.2017088 -0.620364,0.3077908 -1.2216407,0.660118 -1.7877909,1.061278 -0.016306,0.01155 -0.031928,0.023965 -0.048172,0.035596 -0.087154,0.062297 -0.1729317,0.1251181 -0.2582667,0.1898436 -0.047432,0.035977 -0.092344,0.075282 -0.1391687,0.1120603 -0.09702,0.076022 -0.1920452,0.1541775 -0.2863687,0.2333494 -0.041184,0.03464 -0.08513,0.066329 -0.1257871,0.1015136 -0.012833,0.011098 -0.026029,0.021795 -0.038807,0.032959 C 5.4451039,6.0855205 5.3996938,6.1329055 5.3512233,6.1769 5.2620884,6.2578168 5.1750904,6.3407351 5.0889421,6.4247506 4.9969647,6.5143979 4.9069857,6.6057454 4.8186327,6.6989682 4.7287133,6.7938993 4.6409344,6.8903209 4.5550135,6.9890078 c -0.04017,0.046129 -0.083863,0.088831 -0.123111,0.1357903 -0.035545,0.042539 -0.069597,0.087298 -0.1043772,0.1305178 -0.01643,0.020412 -0.030537,0.042748 -0.046836,0.063281 -0.063547,0.080417 -0.1251965,0.1624405 -0.1860056,0.2452143 -0.041383,0.055856 -0.085929,0.109001 -0.1257871,0.1661133 -0.072879,0.1044271 -0.1430671,0.2096223 -0.2114306,0.3177241 0,0 0,0.00135 0,0.00135 0,0 -0.00137,0 -0.00137,0 C 3.619368,8.2652024 3.4920605,8.4888674 3.3747177,8.7200431 3.2743526,8.917772 3.1840435,9.1215151 3.0990551,9.3304428 3.0846811,9.3657858 3.0688131,9.4002448 3.0548981,9.4359115 3.0068631,9.559028 2.9608361,9.684633 2.9184049,9.811643 c -0.029817,0.08925 -0.05601,0.180387 -0.082966,0.271582 -0.011449,0.03872 -0.025206,0.07693 -0.036128,0.116015 -0.1763245,0.630933 -0.2857183,1.30628 -0.3117928,2.03159 -0.02685,0.750224 0.045171,1.528247 0.196711,2.318989 0.7667418,4.004554 3.615098,8.352505 6.4941239,11.258777 1.166635,1.177809 3.260713,3.032091 5.292449,3.549019 0.213501,0.05436 0.424711,0.09651 0.635629,0.118652 0.131696,0.01378 0.263567,0.02373 0.393422,0.02373 2.319588,0 4.957161,-2.312508 6.322838,-3.691401 2.770365,-2.796828 5.512046,-6.929093 6.397801,-10.805293 0.102232,-0.44772 0.18034,-0.893135 0.230165,-1.331543 0.0555,-0.488741 0.0786,-0.970093 0.06155,-1.440964 C 28.248628,4.8787996 19.631765,2.5 15.499878,2.5 Z m -1.00764,4.6037043 c 0.401139,-0.00662 0.791419,0.00628 1.177588,0.029005 -0.385946,-0.022693 -0.776686,-0.035606 -1.177588,-0.029005 z m 0,0 c -0.377415,0.00621 -0.763007,0.02837 -1.154837,0.060642 0.391229,-0.032144 0.777921,-0.054439 1.154837,-0.060642 z m 1.494733,0.052738 c 0.294885,0.023753 0.585623,0.057713 0.872485,0.098877 -0.287101,-0.041202 -0.577345,-0.075111 -0.872485,-0.098877 z m -2.954672,0.039548 c -0.292332,0.028782 -0.58905,0.063767 -0.889881,0.106787 0.301254,-0.043038 0.597142,-0.078017 0.889881,-0.106787 z m 4.13092,0.1028321 c 0.357656,0.059522 0.710828,0.1304989 1.057152,0.2175293 C 17.87391,7.4292527 17.521021,7.358387 17.163219,7.2988224 Z m -5.410208,0.063281 c -0.301887,0.048681 -0.608505,0.1047579 -0.919321,0.1674315 0.310531,-0.062586 0.617717,-0.1188269 0.919321,-0.1674315 z m 6.706892,0.2214841 c 0.275269,0.074793 0.547424,0.1581064 0.816282,0.2504881 C 19.00747,7.7417296 18.735023,7.6583633 18.459903,7.5835875 Z m -7.960754,0.011866 C 10.107378,7.6798884 9.70808,7.7753232 9.3014896,7.8815376 9.708311,7.7752557 10.107215,7.6798877 10.499149,7.5954535 Z m 9.11693,0.3612298 c 0.279127,0.1046269 0.555283,0.2188718 0.828326,0.3427734 C 20.171138,8.1754302 19.895442,8.0614046 19.616079,7.9566833 Z m 0.999611,0.416602 C 20.946364,8.528851 21.27221,8.7007902 21.595228,8.8848077 21.272144,8.7007187 20.946432,8.5289138 20.61569,8.3732853 Z m 1.247171,0.6723626 c 0.24037,0.1436594 0.479036,0.2952689 0.71592,0.4548331 -0.23684,-0.1595514 -0.475596,-0.3111778 -0.71592,-0.4548331 z m 1.018346,0.6604971 c 0.311971,0.220289 0.622712,0.449293 0.930025,0.697411 -0.307384,-0.248175 -0.617983,-0.477069 -0.930025,-0.697411 z m -10.056325,3.402681 c 0.351029,0.380051 0.698023,0.757381 1.023699,1.140379 -0.326481,-0.383951 -0.671779,-0.759398 -1.023699,-1.140379 z m 1.203012,1.353953 c 0.11359,0.137944 0.22242,0.280035 0.330528,0.421875 -0.108164,-0.14189 -0.217084,-0.283679 -0.330528,-0.421875 z m 0.533929,0.693457 c 0.105811,0.147371 0.205192,0.300979 0.303765,0.454833 -0.0987,-0.154037 -0.197802,-0.307287 -0.303765,-0.454833 z m 0.480402,0.73037 c 0.148551,0.250982 0.289086,0.509952 0.414832,0.784423 -0.125744,-0.274467 -0.266257,-0.533424 -0.414832,-0.784423 z m 0.433566,0.83452 c 0.117102,0.259996 0.223849,0.532353 0.317145,0.8187 -0.09326,-0.286171 -0.200102,-0.558855 -0.317145,-0.8187 z m 0.40145,1.131151 c 0.05971,0.210262 0.117482,0.423404 0.163256,0.64995 -0.04583,-0.226644 -0.103311,-0.439857 -0.163256,-0.64995 z m 0.291721,1.444921 c 0.0048,0.04139 0.0091,0.08463 0.01338,0.126562 -0.0043,-0.04192 -0.0086,-0.08526 -0.01338,-0.126562 z m 0.05085,2.050046 c -0.01401,0.294965 -0.041,0.606856 -0.0736,0.925487 0.03268,-0.318885 0.05953,-0.630319 0.0736,-0.925487 z m -0.127125,1.439647 c -0.04657,0.359728 -0.112915,0.743076 -0.183329,1.133787 0.07034,-0.39024 0.13673,-0.774388 0.183329,-1.133787 z m -0.27031,1.636081 c -0.114491,0.571004 -0.249654,1.168976 -0.41617,1.808787 0.166563,-0.639994 0.301658,-1.23755 0.41617,-1.808787 z"/>
 <path style="opacity:0.2" d="m 15.500002,3.000002 c -1.863455,0 -4.603657,0.4774988 -7.1315367,1.6324197 -0.153495,0.070128 -0.309062,0.1339402 -0.460726,0.2091795 -0.64334,0.3191905 -1.266886,0.6845668 -1.854005,1.1005846 -0.01691,0.011978 -0.03311,0.024853 -0.04996,0.036914 -0.09038,0.064604 -0.179337,0.1297521 -0.267832,0.1968748 -0.04919,0.037309 -0.09576,0.07807 -0.144323,0.1162107 -0.100613,0.078838 -0.199158,0.1598878 -0.296975,0.2419919 -0.04271,0.035923 -0.08828,0.068786 -0.130446,0.1052734 -0.01331,0.011509 -0.02699,0.022602 -0.04024,0.03418 -0.05113,0.044689 -0.09822,0.093829 -0.148487,0.1394529 -0.09244,0.083914 -0.182656,0.169903 -0.271995,0.2570302 -0.09538,0.092968 -0.188696,0.1876983 -0.280321,0.2843738 -0.09325,0.098447 -0.18428,0.1984399 -0.273383,0.3007819 -0.04166,0.047838 -0.08697,0.092121 -0.127671,0.1408195 -0.03686,0.044114 -0.07218,0.090532 -0.108243,0.1353518 -0.01704,0.021168 -0.03167,0.044331 -0.04857,0.065625 -0.0659,0.083395 -0.129833,0.1684568 -0.192894,0.2542963 -0.04292,0.057925 -0.08911,0.113038 -0.130446,0.1722656 -0.07558,0.1082948 -0.148366,0.2173861 -0.219262,0.3294917 0,0 0,0.0014 0,0.0014 0,0 -0.0014,0 -0.0014,0 -0.141792,0.2242111 -0.273815,0.45616 -0.395503,0.6958978 -0.104083,0.2050522 -0.197737,0.4163413 -0.285873,0.6330069 -0.01491,0.03665 -0.03136,0.07239 -0.04579,0.109375 -0.04981,0.127676 -0.09755,0.257934 -0.141548,0.389648 -0.03092,0.09256 -0.05809,0.187068 -0.08604,0.28164 -0.01187,0.04016 -0.02614,0.07978 -0.03747,0.120312 -0.182855,0.654301 -0.296301,1.354661 -0.323341,2.106834 -0.02784,0.77801 0.04684,1.584849 0.203997,2.404878 0.795139,4.15287 3.74899,8.661857 6.734647,11.675768 1.2098427,1.221432 3.3814787,3.144391 5.4884647,3.680464 0.221408,0.05637 0.440441,0.10008 0.659171,0.123047 C 15.228574,30.98968 15.365329,31 15.499994,31 c 2.405498,0 5.140759,-2.398156 6.557017,-3.82812 2.872971,-2.900414 5.716196,-7.185726 6.634756,-11.205489 0.106019,-0.464302 0.18702,-0.926214 0.23869,-1.380859 0.05756,-0.506842 0.08151,-1.006022 0.06383,-1.494333 C 28.720928,5.4669053 19.784921,3.000002 15.500002,3.000002 Z m -1.04496,4.7742119 c 0.415996,-0.00686 0.82073,0.00651 1.221202,0.030079 -0.40024,-0.023534 -0.805452,-0.036925 -1.221202,-0.030079 z m 0,0 c -0.391394,0.00644 -0.791267,0.029421 -1.197609,0.062888 0.405719,-0.033334 0.806733,-0.056455 1.197609,-0.062888 z m 1.550093,0.054691 c 0.305807,0.024633 0.607313,0.05985 0.904799,0.1025386 C 16.6122,7.8887155 16.311206,7.8535505 16.005135,7.8289049 Z m -3.064104,0.041013 c -0.303159,0.029848 -0.610867,0.066129 -0.92284,0.110742 0.312412,-0.044632 0.619259,-0.080907 0.92284,-0.110742 z m 4.283917,0.1066407 c 0.370902,0.061726 0.737155,0.1353322 1.096306,0.2255859 -0.359293,-0.090325 -0.725252,-0.1638152 -1.096306,-0.2255859 z m -5.610586,0.065625 c -0.313068,0.050484 -0.631042,0.1086378 -0.95337,0.1736327 0.322032,-0.064904 0.640595,-0.1232279 0.95337,-0.1736327 z m 6.955295,0.2296872 c 0.285464,0.077563 0.567699,0.1639622 0.846515,0.2597655 C 19.137504,8.4358693 18.854967,8.3494158 18.569657,8.2718708 Z M 10.31406,8.2841768 C 9.907779,8.3717378 9.4936933,8.4707077 9.0720443,8.580856 9.4939323,8.4706377 9.907611,8.3717376 10.31406,8.2841768 Z m 9.454595,0.3746087 c 0.289465,0.108502 0.575849,0.2269782 0.859004,0.3554687 C 20.344271,8.8856335 20.058364,8.7673848 19.768655,8.6587855 Z m 1.036633,0.4320311 C 21.148209,9.252144 21.486124,9.4304513 21.821105,9.6212843 21.486055,9.4303771 21.14828,9.2522091 20.805288,9.0908166 Z m 1.293363,0.6972649 c 0.249272,0.1489801 0.496778,0.3062045 0.742435,0.4716795 C 22.595474,10.0943 22.347876,9.9370574 22.098651,9.7880815 Z m 1.056062,0.6849595 c 0.323526,0.228448 0.645776,0.465934 0.964471,0.723241 -0.318769,-0.257366 -0.640872,-0.494737 -0.964471,-0.723241 z m -10.428781,3.528707 c 0.36403,0.394126 0.723875,0.785432 1.061613,1.182615 -0.338572,-0.398172 -0.696659,-0.787524 -1.061613,-1.182615 z m 1.247568,1.404099 c 0.117797,0.143053 0.230657,0.290407 0.342769,0.4375 -0.11217,-0.147145 -0.225124,-0.294186 -0.342769,-0.4375 z m 0.553704,0.71914 c 0.10973,0.15283 0.212792,0.312127 0.315015,0.471679 -0.102357,-0.159742 -0.205128,-0.318668 -0.315015,-0.471679 z m 0.498195,0.757421 c 0.154052,0.260278 0.299792,0.528839 0.430196,0.813476 -0.130402,-0.284633 -0.276119,-0.55318 -0.430196,-0.813476 z m 0.449624,0.865428 c 0.121439,0.269626 0.232139,0.55207 0.328891,0.849023 -0.09671,-0.29677 -0.207514,-0.579554 -0.328891,-0.849023 z m 0.416318,1.173046 c 0.06192,0.218049 0.121833,0.439085 0.169303,0.674022 -0.04753,-0.235038 -0.107138,-0.456148 -0.169303,-0.674022 z m 0.302525,1.498436 c 0.005,0.04292 0.0094,0.08777 0.01388,0.13125 -0.0045,-0.04347 -0.0089,-0.08842 -0.01388,-0.13125 z m 0.05273,2.125974 c -0.01453,0.30589 -0.04252,0.629332 -0.07633,0.959764 0.03389,-0.330695 0.06173,-0.653664 0.07633,-0.959764 z m -0.131834,1.492967 c -0.04829,0.373052 -0.117097,0.770598 -0.190119,1.175779 0.07295,-0.404693 0.141794,-0.803069 0.190119,-1.175779 z m -0.280321,1.696677 c -0.118732,0.592152 -0.258901,1.212271 -0.431584,1.875779 0.172732,-0.663697 0.312831,-1.283385 0.431584,-1.875779 z"/>
 <path style="fill:#e45e3e" d="m 16.693447,7.9500103 c -0.810621,-0.0092 -1.625505,0.060522 -2.453504,0.2091793 -4.54e-4,8.19e-5 -9.24e-4,-8.12e-5 -0.0014,0 -1.37958,0.2478242 -2.794385,0.7150344 -4.2783672,1.4013653 0.2031862,0.3277704 0.4132722,0.6375441 0.6286412,0.9324201 0.21537,0.294884 0.43646,0.574044 0.659171,0.843555 1.559151,1.886922 3.238047,3.243114 4.207593,5.359368 1.72e-4,3.76e-4 -1.72e-4,9.8e-4 0,0.0014 0.484403,1.057732 0.791529,2.305227 0.817372,3.903315 7e-6,4.69e-4 -8e-6,9.1e-4 0,0.0014 0.02586,1.59872 -0.229468,3.547224 -0.870106,6.008782 -0.258621,0.994108 -0.578877,2.070015 -0.970022,3.241597 0.221408,0.05637 0.44044,0.10008 0.659171,0.123047 0.136573,0.01429 0.273361,0.02454 0.408026,0.02454 2.405498,0 5.140759,-2.398158 6.557017,-3.828121 2.872945,-2.900379 5.716169,-7.185689 6.63473,-11.205454 -1.522813,-1.929497 -2.71947,-3.437052 -4.572566,-4.770112 -2.44404,-1.7581673 -4.975861,-2.2184853 -7.425735,-2.2462857 z"/>
 <path style="fill:#519c26" d="M 2.3296041,9.9838045 C 2.1467487,10.638106 2.0329701,11.338412 2.00593,12.090585 1.978087,12.868595 2.052184,13.675534 2.2093374,14.495564 4.4215784,12.790726 6.443163,11.419802 8.3387486,10.380898 7.9216346,9.7399045 7.5195558,9.0056957 7.1434039,8.1426024 7.1433534,8.1424197 3.1277048,7.2856397 2.3296041,9.9838045 Z"/>
 <path style="fill:#2194cd" d="M 28.994168,12.091195 C 28.720822,4.4669003 19.784737,2.0000247 15.499817,2.0000247 c -1.976605,0 -4.942717,0.5269384 -7.5921121,1.841283 C 7.2643644,4.1604982 6.6411039,4.5266669 6.0539852,4.9426847 4.3349307,6.1604631 2.9374124,7.8088743 2.3294116,9.9842245 4.0407022,9.2424914 5.6419585,8.6262948 7.1433534,8.1424197 7.7639374,7.9422403 8.3673867,7.7652896 8.9561111,7.6092178 15.340789,5.9151327 19.912976,6.800149 24.119185,10.196149 c 1.549318,1.250923 3.04991,2.840352 4.572723,4.769849 0.106018,-0.464301 0.186336,-0.925209 0.238006,-1.379853 0.05756,-0.506842 0.08192,-1.006638 0.06425,-1.49495 z"/>
 <path style="fill:#65c32f" d="m 8.3387486,10.380898 c -1.8955856,1.038904 -3.9171702,2.409828 -6.1294112,4.114666 0.7951398,4.15287 3.7487486,8.661815 6.7344043,11.675726 1.2098443,1.221432 3.3818753,3.144799 5.4888613,3.680872 0.391072,-1.171398 0.711912,-2.246989 0.970499,-3.240961 4.2e-5,-1.67e-4 -4.3e-5,-2.61e-4 0,-5.22e-4 0,0 0,-5.22e-4 0,-5.22e-4 0.02367,-0.374833 0.04217,-0.736761 0.05595,-1.086777 0,0 0,-5.22e-4 0,-5.22e-4 0.01378,-0.349992 0.02294,-0.688037 0.02719,-1.014394 0,0 0,-5.23e-4 0,-5.23e-4 0.0043,-0.326331 0.0038,-0.641197 -0.0011,-0.945067 0,0 0,-5.22e-4 0,-5.22e-4 -0.0098,-0.607871 -0.03747,-1.171902 -0.08157,-1.696942 0,0 0,-5.23e-4 0,-5.23e-4 -0.02203,-0.262409 -0.04838,-0.515021 -0.07844,-0.758501 0,0 0,-5.22e-4 0,-5.22e-4 -0.06014,-0.487086 -0.135937,-0.937541 -0.225892,-1.355923 -0.404892,-1.88319 -1.09691,-3.118079 -1.938382,-4.133528 0,0 0,-5.22e-4 0,-5.22e-4 -0.09351,-0.112834 -0.189004,-0.222819 -0.286025,-0.330825 -0.194043,-0.216011 -0.394454,-0.423229 -0.600287,-0.626987 -0.411657,-0.407503 -0.843993,-0.800225 -1.284761,-1.215233 -0.220469,-0.207586 -0.442933,-0.420718 -0.666172,-0.644318 -0.111411,-0.111582 -0.223115,-0.225733 -0.3346545,-0.343062 0,0 -5.357e-4,-5.21e-4 -5.357e-4,-5.21e-4 C 9.6533294,12.102397 9.3187157,11.721407 8.9891985,11.295782 8.7695201,11.012034 8.5521396,10.708784 8.338713,10.380791 Z"/>
 <path style="fill:#465051" d="M 6.0542068,4.94293 C 5.946766,5.0190399 5.8405764,5.0963842 5.7357624,5.1758843 5.5403649,5.3240874 5.3498902,5.4790318 5.1647572,5.639243 c -0.013311,0.011509 -0.027009,0.022576 -0.040263,0.034153 -1.831e-4,1.592e-4 -3.481e-4,2.61e-4 -5.354e-4,5.22e-4 -0.3952996,0.345527 -0.7653916,0.7188834 -1.1022693,1.1219513 -8.38e-5,9.87e-5 8.41e-5,5.215e-4 0,5.215e-4 -0.036865,0.044114 -0.072172,0.089752 -0.1082399,0.134572 C 3.784736,7.0909125 3.6596794,7.2542846 3.5416691,7.4233771 3.4660909,7.5316719 3.3929477,7.6415878 3.3220521,7.7536934 c -7.71e-5,1.232e-4 7.7e-5,2.611e-4 0,5.222e-4 -0.141702,0.2240963 -0.2742124,0.4561999 -0.395834,0.695804 -0.1040825,0.2050522 -0.1984123,0.4169468 -0.286548,0.6336126 -0.014909,0.036652 -0.031582,0.072098 -0.046015,0.1090858 -5.78e-5,1.491e-4 5.76e-5,2.611e-4 0,5.222e-4 -0.049814,0.1276763 -0.096657,0.2572238 -0.1406597,0.3889377 -0.030922,0.092557 -0.058845,0.1873177 -0.086801,0.2818897 -0.011874,0.040159 -0.025276,0.07926 -0.036603,0.1197894 -4.45e-5,1.589e-4 4.41e-5,2.604e-4 0,5.215e-4 C 4.040882,9.2426454 5.6419961,8.6265426 7.1433911,8.1426675 6.7469446,7.2329795 6.3794467,6.1796117 6.0541941,4.9429951 Z"/>
 <path style="opacity:0.2" d="M 8.3684638,3.6324375 C 8.2149687,3.7025651 8.0594017,3.7663777 7.9077376,3.841617 7.2643971,4.1608075 6.6408509,4.5261838 6.0537322,4.9422015 c -0.017138,0.01214 -0.032996,0.025915 -0.049956,0.038281 0.016889,-0.012074 0.033004,-0.024905 0.049956,-0.036914 C 6.3789849,6.1801853 6.7466526,7.2330957 7.143099,8.1427837 7.7636831,7.9426043 8.3667493,7.7656529 8.9554724,7.6095811 8.9950126,7.5990881 9.0326416,7.5911641 9.0720419,7.5808671 8.6354612,6.3256287 8.4063841,5.0087547 8.3684638,3.6324375 Z"/>
 <path style="opacity:0.2;fill:#8b9cbe" d="M 15.5 2 C 13.636545 2 10.89702 2.4778916 8.3691406 3.6328125 C 8.2156456 3.7029405 8.0598671 3.7665576 7.9082031 3.8417969 C 7.2648631 4.1609874 6.6418065 4.5253885 6.0546875 4.9414062 C 6.0377775 4.9533843 6.0207562 4.9664546 6.0039062 4.9785156 C 5.9135263 5.0431196 5.8248231 5.1086586 5.7363281 5.1757812 C 5.6871381 5.2130902 5.6403599 5.2548281 5.5917969 5.2929688 C 5.4911839 5.3718068 5.3927389 5.451099 5.2949219 5.5332031 C 5.2522119 5.5691261 5.2062285 5.6021845 5.1640625 5.6386719 C 5.1507525 5.6501809 5.1362969 5.6622501 5.1230469 5.6738281 C 5.0719169 5.7185171 5.0248764 5.7668761 4.9746094 5.8125 C 4.8821694 5.896414 4.792464 5.9831853 4.703125 6.0703125 C 4.607745 6.1632805 4.5154531 6.2568401 4.4238281 6.3535156 C 4.3305781 6.4519626 4.2394936 6.5519549 4.1503906 6.6542969 C 4.1087306 6.7021349 4.0621854 6.7481765 4.0214844 6.796875 C 3.9846244 6.840989 3.9501255 6.8868208 3.9140625 6.9316406 C 3.8970225 6.9528086 3.8821344 6.9747997 3.8652344 6.9960938 C 3.7993344 7.0794888 3.734936 7.1661136 3.671875 7.2519531 C 3.628955 7.3098781 3.5823516 7.3646005 3.5410156 7.4238281 C 3.4654356 7.5321229 3.3931616 7.6418007 3.3222656 7.7539062 L 3.3203125 7.7539062 C 3.1785205 7.9781173 3.0474693 8.2114341 2.9257812 8.4511719 C 2.8216982 8.6562241 2.728761 8.8673186 2.640625 9.0839844 C 2.625715 9.1206364 2.60818 9.1563725 2.59375 9.1933594 C 2.54394 9.3210357 2.497123 9.4503173 2.453125 9.5820312 C 2.422205 9.6745882 2.3951375 9.7687093 2.3671875 9.8632812 C 2.3553175 9.9034402 2.339455 9.9438457 2.328125 9.984375 C 2.14527 10.638676 2.0328994 11.339624 2.0058594 12.091797 C 1.9968011 12.344937 2.0153858 12.604575 2.0273438 12.863281 C 2.0675986 12.199626 2.1644385 11.570086 2.328125 10.984375 C 2.339455 10.943843 2.3553175 10.903441 2.3671875 10.863281 C 2.3951375 10.768709 2.422205 10.674591 2.453125 10.582031 C 2.497123 10.450317 2.54394 10.321035 2.59375 10.193359 C 2.60818 10.156374 2.625715 10.120634 2.640625 10.083984 C 2.728761 9.8673188 2.8216982 9.6562241 2.9257812 9.4511719 C 3.0474693 9.2114341 3.1785205 8.9781173 3.3203125 8.7539062 L 3.3222656 8.7539062 C 3.3931616 8.6418007 3.4654356 8.5321229 3.5410156 8.4238281 C 3.5823516 8.3646005 3.628955 8.3098781 3.671875 8.2519531 C 3.734936 8.1661136 3.7993344 8.0794887 3.8652344 7.9960938 C 3.8821344 7.9747998 3.8970225 7.9528086 3.9140625 7.9316406 C 3.9501255 7.8868208 3.9846244 7.840989 4.0214844 7.796875 C 4.0621854 7.7481765 4.1087306 7.7021349 4.1503906 7.6542969 C 4.2394936 7.5519549 4.3305781 7.4519626 4.4238281 7.3535156 C 4.5154531 7.2568401 4.607745 7.1632805 4.703125 7.0703125 C 4.792464 6.9831853 4.8821694 6.896414 4.9746094 6.8125 C 5.0248764 6.7668761 5.0719169 6.7185171 5.1230469 6.6738281 C 5.1362969 6.6622501 5.1507525 6.6501809 5.1640625 6.6386719 C 5.2062285 6.6021845 5.2522119 6.5691261 5.2949219 6.5332031 C 5.3927389 6.451099 5.4911839 6.3718068 5.5917969 6.2929688 C 5.6403599 6.2548281 5.6871381 6.2130902 5.7363281 6.1757812 C 5.8248231 6.1086586 5.9135263 6.0431196 6.0039062 5.9785156 C 6.0207562 5.9664546 6.0377775 5.9533843 6.0546875 5.9414062 C 6.6418065 5.5253884 7.2648631 5.1609874 7.9082031 4.8417969 C 8.0598671 4.7665576 8.2156456 4.7029405 8.3691406 4.6328125 C 10.89702 3.4778916 13.636545 3 15.5 3 C 19.753961 3 28.587459 5.4343233 28.982422 12.929688 C 28.997549 12.647551 29.004126 12.367578 28.994141 12.091797 C 28.720782 4.4675032 19.784919 2 15.5 2 z M 16.005859 6.828125 C 16.311666 6.852758 16.61267 6.888952 16.910156 6.9316406 C 16.612422 6.8889126 16.31193 6.8527706 16.005859 6.828125 z M 16.005859 7.828125 C 16.31193 7.8527706 16.612422 7.8889126 16.910156 7.9316406 C 16.61267 7.888952 16.311666 7.852758 16.005859 7.828125 z"/>
 <path style="opacity:0.2" d="M 14.455041,7.7744361 C 12.769687,7.8021841 10.950684,8.0803855 8.9554724,8.6097871 8.36675,8.7658589 7.7636831,8.9428103 7.143099,9.1429897 c 0.376152,0.8630933 0.7791082,1.5970893 1.1962222,2.2380823 0.2134266,0.327994 0.4297783,0.6309 0.6494574,0.914648 0.3295164,0.425625 0.6640364,0.806826 0.9991645,1.159373 h 0.00142 c 0.1115389,0.117329 0.2230309,0.231583 0.3344429,0.343164 0.223238,0.2236 0.44564,0.437725 0.666109,0.645312 0.440768,0.415007 0.873379,0.806557 1.285037,1.214061 0.205831,0.203757 0.405455,0.411528 0.599499,0.627538 0.09702,0.108006 0.192362,0.218025 0.285871,0.330859 0.841473,1.015449 1.533766,2.25118 1.938658,4.13437 0.08995,0.418382 0.166061,0.869163 0.226199,1.356248 0.03006,0.24348 0.05707,0.496379 0.0791,0.758788 0.0441,0.525041 0.07072,1.088806 0.08049,1.696677 v 0.0014 c 0.0049,0.30387 0.0057,0.618394 0.0014,0.944726 -0.0043,0.326357 -0.01397,0.664459 -0.02775,1.014452 v 0.0014 c -0.01378,0.350016 -0.03184,0.712079 -0.05551,1.086912 0.172971,-0.664617 0.312724,-1.285375 0.431583,-1.878513 0.03619,-0.180616 0.05878,-0.343799 0.0902,-0.518164 0.07311,-0.405611 0.141776,-0.805076 0.190118,-1.178514 0.02368,-0.18308 0.03754,-0.354718 0.05551,-0.530468 0.03388,-0.330695 0.06173,-0.653664 0.07632,-0.959764 0.01531,-0.322311 0.03114,-0.644886 0.02637,-0.941991 -8e-6,-4.42e-4 7e-6,-9.1e-4 0,-0.0014 0,0 0,-0.0014 0,-0.0014 -0.006,-0.368714 -0.03059,-0.713902 -0.06523,-1.047265 -0.0046,-0.0443 -0.0088,-0.09027 -0.01388,-0.133984 -0.03339,-0.287111 -0.08008,-0.558278 -0.133222,-0.821678 -0.04935,-0.244572 -0.109875,-0.475055 -0.174853,-0.701367 -0.02783,-0.09696 -0.04996,-0.200062 -0.08049,-0.293945 -0.09714,-0.298772 -0.208155,-0.583363 -0.330279,-0.854491 -0.0073,-0.01612 -0.01209,-0.03456 -0.01943,-0.05059 0,0 0,-0.0014 0,-0.0014 -0.130402,-0.284633 -0.276118,-0.55318 -0.430196,-0.813476 -0.05806,-0.0981 -0.12215,-0.190485 -0.18318,-0.285742 -0.102356,-0.159742 -0.205127,-0.318668 -0.315014,-0.471679 -0.06844,-0.09532 -0.139893,-0.188433 -0.210935,-0.28164 -0.116722,-0.153115 -0.233785,-0.306496 -0.356646,-0.455273 -0.05502,-0.06664 -0.111819,-0.132227 -0.167915,-0.198242 -0.339866,-0.399966 -0.699247,-0.791288 -1.065776,-1.188084 -0.11858,-0.128384 -0.23123,-0.257879 -0.351095,-0.388281 -0.375196,-0.408138 -0.754064,-0.824494 -1.126836,-1.275584 -2.26e-4,-2.75e-4 2.27e-4,-0.0011 0,-0.0014 -0.222673,-0.26951 -0.443763,-0.54867 -0.659132,-0.843554 -0.21537,-0.294876 -0.425456,-0.60465 -0.6286418,-0.93242 0.3434018,-0.158821 0.6822258,-0.302167 1.0185928,-0.437499 0.08748,-0.0352 0.173852,-0.06756 0.260893,-0.101172 0.2485,-0.095945 0.495883,-0.1863385 0.741047,-0.2693359 0.106165,-0.035945 0.212203,-0.070386 0.31779,-0.1039058 0.229256,-0.072769 0.457401,-0.1382834 0.68415,-0.199609 0.102743,-0.02779 0.205806,-0.05796 0.308076,-0.083399 0.304714,-0.075793 0.607941,-0.1433003 0.908962,-0.1982418 0.01285,-0.00231 0.02602,-0.00588 0.03886,-0.0082 0,0 0.0014,0 0.0014,0 0.362689,-0.065114 0.721117,-0.1087302 1.079654,-0.1435544 0.101811,-0.0099 0.203757,-0.018522 0.3053,-0.025977 0.35713,-0.02618 0.71393,-0.043673 1.068551,-0.039648 2.449873,0.027797 4.981695,0.4881184 7.425735,2.2462859 C 21.227521,8.8616825 18.162926,7.7133185 14.455148,7.7743654 Z"/>
 <path style="fill:#8b9cbe" d="M 14.455041,6.7742301 C 12.769687,6.8019781 10.950684,7.0801795 8.9554724,7.6095811 8.36675,7.7656529 7.7636831,7.9426043 7.143099,8.1427837 7.519251,9.005877 7.9222072,9.739873 8.3393212,10.380866 c 0.2134266,0.327994 0.4297783,0.6309 0.6494574,0.914648 0.3295164,0.425625 0.6640364,0.806826 0.9991645,1.159373 h 0.00142 c 0.1115389,0.117329 0.2230309,0.231583 0.3344429,0.343164 0.223238,0.2236 0.44564,0.437725 0.666109,0.645312 0.440768,0.415007 0.873379,0.806557 1.285037,1.214061 0.205831,0.203757 0.405455,0.411528 0.599499,0.627538 0.09702,0.108006 0.192362,0.218025 0.285871,0.330859 0.841473,1.015449 1.533766,2.25118 1.938658,4.13437 0.08995,0.418382 0.166061,0.869163 0.226199,1.356248 0.03006,0.24348 0.05707,0.496379 0.0791,0.758788 0.0441,0.525041 0.07072,1.088806 0.08049,1.696677 v 0.0014 c 0.0049,0.30387 0.0057,0.618394 0.0014,0.944726 -0.0043,0.326357 -0.01397,0.664459 -0.02775,1.014452 v 0.0014 c -0.01378,0.350016 -0.03184,0.712079 -0.05551,1.086912 0.172971,-0.664617 0.312724,-1.285375 0.431583,-1.878513 0.03619,-0.180616 0.05878,-0.343799 0.0902,-0.518164 0.07311,-0.405611 0.141776,-0.805076 0.190118,-1.178514 0.02368,-0.18308 0.03754,-0.354718 0.05551,-0.530468 0.03388,-0.330695 0.06173,-0.653664 0.07632,-0.959764 0.01531,-0.322311 0.03114,-0.644886 0.02637,-0.941991 -8e-6,-4.42e-4 7e-6,-9.1e-4 0,-0.0014 0,0 0,-0.0014 0,-0.0014 -0.006,-0.368714 -0.03059,-0.713902 -0.06523,-1.047265 -0.0046,-0.0443 -0.0088,-0.09027 -0.01388,-0.133984 -0.03339,-0.287111 -0.08008,-0.558278 -0.133222,-0.821678 -0.04935,-0.244572 -0.109875,-0.475055 -0.174853,-0.701367 -0.02783,-0.09696 -0.04996,-0.200062 -0.08049,-0.293945 -0.09714,-0.298772 -0.208155,-0.583363 -0.330279,-0.854491 -0.0073,-0.01612 -0.01209,-0.03456 -0.01943,-0.05059 0,0 0,-0.0014 0,-0.0014 -0.130402,-0.284633 -0.276118,-0.55318 -0.430196,-0.813476 -0.05806,-0.0981 -0.12215,-0.190485 -0.18318,-0.285742 -0.102356,-0.159742 -0.205127,-0.318668 -0.315014,-0.471679 -0.06844,-0.09532 -0.139893,-0.188433 -0.210935,-0.28164 -0.116722,-0.153115 -0.233785,-0.306496 -0.356646,-0.455273 -0.05502,-0.06664 -0.111819,-0.132227 -0.167915,-0.198242 -0.339866,-0.399966 -0.699247,-0.791288 -1.065776,-1.188084 -0.11858,-0.128384 -0.23123,-0.257879 -0.351095,-0.388281 -0.375196,-0.408138 -0.754064,-0.824494 -1.126836,-1.275584 -2.26e-4,-2.75e-4 2.27e-4,-0.0011 0,-0.0014 C 11.02536,11.066949 10.80427,10.787789 10.588901,10.492905 10.373531,10.198029 10.163445,9.8882553 9.9602592,9.5604849 10.303661,9.4016642 10.642485,9.2583177 10.978852,9.1229855 c 0.08748,-0.035196 0.173852,-0.067564 0.260893,-0.1011716 0.2485,-0.095945 0.495883,-0.1863384 0.741047,-0.2693358 0.106165,-0.035945 0.212203,-0.070386 0.31779,-0.1039058 0.229256,-0.072769 0.457401,-0.1382834 0.68415,-0.199609 0.102743,-0.02779 0.205806,-0.05796 0.308076,-0.083399 0.304714,-0.075793 0.607941,-0.1433003 0.908962,-0.1982418 0.01285,-0.00231 0.02602,-0.00588 0.03886,-0.0082 0,0 0.0014,0 0.0014,0 0.362689,-0.065114 0.721117,-0.1087302 1.079654,-0.1435544 0.101811,-0.0099 0.203757,-0.018522 0.3053,-0.025977 0.35713,-0.02618 0.71393,-0.043673 1.068551,-0.039648 2.449873,0.027797 4.981695,0.4881184 7.425735,2.2462859 C 21.227521,7.8614765 18.162926,6.7131125 14.455148,6.7741594 Z"/>
</svg>
