<svg xmlns="http://www.w3.org/2000/svg" width="32" height="32" version="1">
 <path style="opacity:0.2" d="m 23.24431,30.826643 c -0.667545,0.322896 -1.465167,0.186459 -1.988973,-0.340382 0.645356,0.649096 1.748932,0.189322 1.748932,-0.728693 V 4.2424275 c 0,-0.9180149 -1.103576,-1.377768 -1.748932,-0.72863 0.523806,-0.526841 1.321428,-0.663369 1.988973,-0.3404589 l 5.764701,2.788352 C 29.614797,6.2546825 30,6.8709205 30,7.5469735 V 26.453155 c 0,0.676032 -0.385203,1.292256 -0.990989,1.585248 z"/>
 <path style="opacity:0.2" d="m 29.009667,5.9660655 -5.765684,-2.792188 c -0.667328,-0.323197 -1.46495,-0.186865 -1.988755,0.339934 L 2.3803882,20.512675 c -0.5076856,0.465605 -0.5071019,1.269499 0.00126,1.734334 l 1.5417572,1.409674 c 0.415612,0.380072 1.0415222,0.407995 1.4889975,0.06664 L 28.142087,6.6904255 c 0.762534,-0.581833 1.857803,-0.03479 1.857803,0.927892 v -0.06734 c 0,-0.675759 -0.384874,-1.291773 -0.990223,-1.584919 z"/>
 <path style="fill:#007c64" d="m 29.009667,4.9660666 -5.765684,-2.792188 c -0.667328,-0.323197 -1.46495,-0.186865 -1.988755,0.339934 L 2.3803882,19.512676 c -0.5076856,0.465605 -0.5071019,1.269499 0.00126,1.734334 l 1.5417572,1.409674 c 0.415612,0.380072 1.0415222,0.407995 1.4889975,0.06664 L 28.142087,5.6904266 c 0.762534,-0.581833 1.857803,-0.03479 1.857803,0.927892 v -0.06734 c 0,-0.675759 -0.384874,-1.291773 -0.990223,-1.584919 z"/>
 <path style="fill:#8b9cbe;opacity:0.1" d="M 22.724609 2.015625 C 22.194196 1.9423133 21.648713 2.1185726 21.255859 2.5136719 L 2.3808594 19.511719 C 1.990077 19.87011 1.9039528 20.42856 2.1152344 20.878906 C 2.1782051 20.744727 2.2644403 20.618488 2.3808594 20.511719 L 21.255859 3.5136719 C 21.779664 2.9868729 22.576813 2.8506311 23.244141 3.1738281 L 28.279297 5.6132812 C 29.029687 5.1843558 30 5.7115511 30 6.6191406 L 30 6.5507812 C 30 5.8750222 29.615115 5.2599429 29.009766 4.9667969 L 23.244141 2.1738281 C 23.077309 2.0930289 22.901414 2.0400622 22.724609 2.015625 z"/>
 <path style="opacity:0.2" d="M 4.65625 9.0078125 C 4.3918865 9.0196311 4.1316341 9.122492 3.9238281 9.3125 L 2.3808594 10.722656 C 1.8724975 11.187477 1.8731738 11.991461 2.3808594 12.457031 L 21.255859 30.486328 C 21.335485 30.566398 21.430624 30.619856 21.521484 30.681641 C 21.522063 30.681936 21.522859 30.681346 21.523438 30.681641 C 22.166068 31.008685 23.003906 30.558013 23.003906 29.757812 L 23.003906 23.226562 L 5.4121094 9.2460938 C 5.1883718 9.0753813 4.9206135 8.9959939 4.65625 9.0078125 z"/>
 <path style="fill:#00a388" d="m 29.009667,27.034008 -5.765684,2.792195 c -0.667328,0.32312 -1.46495,0.186788 -1.988755,-0.339941 L 2.3803882,11.45631 C 1.8727026,10.99074 1.8732863,10.186811 2.3816482,9.7219902 L 3.9234054,8.3122598 c 0.415612,-0.380016 1.0415222,-0.4079949 1.4889974,-0.06657 L 28.142087,26.309599 c 0.762534,0.581812 1.857803,0.03486 1.857803,-0.927906 v 0.06741 c 0,0.675703 -0.384874,1.29171 -0.990223,1.584926 z"/>
 <path style="fill:#8b9cbe;opacity:0.1" d="M 4.65625 8.0078125 C 4.3918865 8.0196311 4.1316341 8.122492 3.9238281 8.3125 L 2.3808594 9.7226562 C 1.9890716 10.080887 1.9035995 10.638895 2.1152344 11.089844 C 2.1784396 10.955121 2.2638004 10.829689 2.3808594 10.722656 L 3.9238281 9.3125 C 4.3394401 8.932484 4.9646342 8.9046688 5.4121094 9.2460938 L 28.142578 27.310547 C 28.186216 27.343843 28.233747 27.360683 28.279297 27.386719 L 29.009766 27.033203 C 29.615115 26.739987 30 26.124922 30 25.449219 L 30 25.380859 C 30 26.343625 28.905112 26.892359 28.142578 26.310547 L 5.4121094 8.2460938 C 5.1883718 8.0753813 4.9206135 7.9959939 4.65625 8.0078125 z"/>
 <path style="fill:#24bfa5" d="m 23.24431,29.826644 c -0.667545,0.322896 -1.465167,0.186459 -1.988973,-0.340382 0.645356,0.649096 1.748932,0.189322 1.748932,-0.728693 V 3.2424286 c 0,-0.9180149 -1.103576,-1.377768 -1.748932,-0.72863 0.523806,-0.526841 1.321428,-0.663369 1.988973,-0.3404589 l 5.764701,2.788352 C 29.614797,5.2546836 30,5.8709216 30,6.5469746 V 25.453156 c 0,0.676032 -0.385203,1.292256 -0.990989,1.585248 z"/>
 <path style="fill:#8b9cbe;opacity:0.2" d="M 22.724609 2.015625 C 22.302144 1.9573854 21.880616 2.0758747 21.523438 2.3183594 C 22.123327 2.0130367 22.880622 2.3917849 22.980469 3.09375 C 23.068509 3.1200668 23.159462 3.1328666 23.244141 3.1738281 L 29.009766 5.9609375 C 29.615552 6.2539294 30 6.870822 30 7.546875 L 30 6.546875 C 30 5.870822 29.615552 5.2539294 29.009766 4.9609375 L 23.244141 2.1738281 C 23.077254 2.0931006 22.901444 2.0400028 22.724609 2.015625 z M 21.523438 2.3183594 C 21.428822 2.3665153 21.338682 2.430364 21.255859 2.5136719 C 21.335866 2.433202 21.432094 2.3803712 21.523438 2.3183594 z M 23.003906 28.757812 C 23.003906 29.558013 22.166068 30.008685 21.523438 29.681641 C 21.954263 29.974106 22.480472 30.055714 22.980469 29.90625 C 22.987583 29.856236 23.003906 29.811033 23.003906 29.757812 L 23.003906 28.757812 z M 21.523438 29.681641 C 21.432094 29.619632 21.335866 29.566798 21.255859 29.486328 C 21.338682 29.569631 21.428822 29.633489 21.523438 29.681641 z"/>
</svg>
