<svg xmlns="http://www.w3.org/2000/svg" width="32" height="32" version="1">
 <rect style="opacity:0.2" width="28" height="28" x="2" y="3" rx="1.4" ry="1.4"/>
 <rect style="fill:#4f4f4f" width="28" height="28" x="2" y="2" rx="1.4" ry="1.4"/>
 <path style="opacity:0.2" d="m 18.555931,26.949101 c -0.13226,0 -0.244187,-0.06838 -0.337255,-0.105966 -0.175259,-0.157902 -0.07184,-0.07768 0.11642,-0.149289 -0.107058,0.01844 0.02487,0.01038 0.13782,-0.06232 0.03932,0 0.116046,-0.01922 0.170504,-0.04269 0.05446,-0.02323 0.117152,-0.04692 0.139329,-0.05214 0.02218,-0.0052 0.12202,-0.04049 0.221874,-0.07837 0.09985,-0.03806 0.228235,-0.08614 0.285293,-0.107264 0.09744,-0.03604 0.274503,-0.126273 0.477614,-0.243478 0.0878,-0.05064 0.138189,-0.08778 0.241775,-0.178113 0.02951,-0.02563 0.06549,-0.04683 0.07994,-0.04683 0.01446,0 0.01992,-0.0064 0.01216,-0.0146 -0.0078,-0.0079 0.03112,-0.06311 0.08646,-0.122509 0.05532,-0.05937 0.1002,-0.122039 0.09972,-0.139216 -0.0026,-0.09369 -0.184846,-0.216928 -0.829084,-0.560614 -0.164046,-0.08752 -0.321285,-0.175712 -0.349422,-0.195971 -0.02814,-0.02042 -0.07093,-0.03686 -0.0951,-0.03686 -0.02417,0 -0.04783,-0.0097 -0.05259,-0.02084 -0.967486,-0.46344 -1.586779,-0.792139 -2.526434,-1.182815 -0.01001,0 -0.07378,-0.03525 -0.141725,-0.07839 -0.176088,-0.100499 -0.270411,-0.122623 -0.426854,-0.248864 -0.01426,-0.01168 -0.07042,-0.05631 -0.124775,-0.09938 -0.218518,-0.173084 -0.298807,-0.342632 -0.269388,-0.568804 0.0084,-0.06434 0.159865,-0.410384 0.367758,-0.840021 0.19444,-0.401803 0.351872,-0.738628 0.34985,-0.748425 -0.002,-0.0097 0.0071,-0.02522 0.0203,-0.03405 0.04577,-0.03124 0.472899,-0.944785 0.455994,-0.975262 -0.0093,-0.01677 -0.0075,-0.02162 0.004,-0.01119 0.02098,0.01964 0.25208,-0.417699 0.254197,-0.480973 6.67e-4,-0.01843 0.01279,-0.03326 0.02706,-0.03326 0.01427,0 0.01924,-0.0069 0.01106,-0.01525 -0.01875,-0.01922 -0.175316,0.06264 -0.175316,0.0918 0,0.01217 -0.01632,0.02162 -0.03627,0.02162 -0.825984,0.332397 -1.754388,0.844351 -2.48174,1.185118 -0.193801,0.09108 -0.381829,0.19164 -0.417843,0.223512 -0.03863,0.03408 -0.09458,0.142882 -0.136463,0.265003 -0.03904,0.113817 -0.0928,0.235581 -0.119476,0.270535 -0.02668,0.03488 -0.04283,0.06942 -0.0359,0.07654 0.007,0.0073 -0.114707,0.270567 -0.270292,0.585334 -0.379789,0.768359 -0.401341,0.80998 -0.431297,0.832639 -0.01427,0.01087 -0.01537,0.02004 -0.0025,0.02004 0.01291,0 0.0065,0.02162 -0.01431,0.04724 -0.02078,0.02563 -0.07065,0.118975 -0.110813,0.207228 -0.04017,0.08827 -0.102951,0.201647 -0.139525,0.252011 -0.03657,0.05029 -0.04979,0.08111 -0.02937,0.0684 0.03182,-0.01961 0.03201,-0.01679 0.0012,0.02244 -0.393394,0.792705 -0.887883,1.530345 -1.225739,2.337407 -0.101929,0.187373 -0.162745,0.363587 -0.253008,0.596021 h 0.121872 c 0.410372,0.0503 -0.06575,0.100678 -0.202326,0.116022 -0.495359,0.05511 -2.3945625,0.01763 -2.4587773,-0.04869 -0.065087,-0.06713 0.2523229,-0.09721 1.0905975,-0.103339 0.3387536,-0.0042 0.6159428,-0.0055 0.6159758,-0.0073 2.7e-5,0 -0.0711,-0.0604 -0.158081,-0.130895 -0.08702,-0.07043 -0.1833081,-0.15377 -0.2140135,-0.185092 -0.030707,-0.03124 -0.0926,-0.08082 -0.1375461,-0.109858 -0.044947,-0.02925 -0.1558207,-0.116297 -0.2463901,-0.193877 -0.09057,-0.07763 -0.1796935,-0.153751 -0.1980535,-0.16916 -0.01836,-0.01557 -0.1058941,-0.08908 -0.1945188,-0.163612 -0.1869955,-0.157318 -0.3667656,-0.35105 -0.421049,-0.45382 -0.035613,-0.06741 -0.034367,-0.07307 0.020207,-0.09205 0.093297,-0.03244 0.2035395,-0.0042 0.550093,0.146224 0.0566,0.02444 0.1091168,0.04544 0.1167101,0.04667 0.017273,0.0042 0.094101,0.03366 0.1953602,0.07742 0.042793,0.01844 0.1361627,0.05552 0.2074868,0.08199 0.071324,0.02642 0.1413514,0.0564 0.1556161,0.06656 0.03158,0.02244 0.1741658,0.063 0.2007158,0.05706 0.01054,-0.0042 0.06306,0.0133 0.116712,0.03406 0.177813,0.07011 0.471008,0.09576 0.727167,0.06358 0.226845,-0.179248 0.386833,-0.462142 0.485622,-0.69065 0.02582,-0.02963 0.03638,-0.05368 0.02348,-0.05387 -0.01291,0 -0.01049,-0.0097 0.0054,-0.02003 0.152262,-0.303801 0.31878,-0.641081 0.44957,-0.92897 0.161686,-0.349007 0.242858,-0.534759 0.25009,-0.57234 0.0039,-0.02084 0.02257,-0.04751 0.04135,-0.05975 0.01878,-0.01232 0.02515,-0.02245 0.01416,-0.02245 -0.01099,0 0.0023,-0.04553 0.02952,-0.100711 0.02723,-0.05516 0.06432,-0.151479 0.08244,-0.213974 0.01811,-0.06252 0.04081,-0.113655 0.05044,-0.113655 0.0096,0 0.01766,-0.01476 0.01783,-0.03326 1.35e-4,-0.01841 0.05588,-0.177869 0.123767,-0.354327 0.139947,-0.36388 0.278216,-0.732968 0.355696,-0.949538 0.02894,-0.08086 0.06254,-0.171137 0.07466,-0.200544 0.01211,-0.02963 0.04704,-0.119721 0.07763,-0.200562 0.03059,-0.08095 0.07852,-0.201274 0.106529,-0.267468 0.02801,-0.06623 0.05256,-0.132421 0.05456,-0.147164 0.002,-0.0146 0.01321,-0.03885 0.0249,-0.05346 0.445374,-0.671915 1.232637,-1.132483 1.780105,-1.633943 0.01202,0.0074 0.09081,-0.04881 0.175065,-0.125445 0.08427,-0.07669 0.164876,-0.148543 0.179141,-0.159752 0.07489,-0.05873 0.391724,-0.32055 0.557966,-0.461132 0.104399,-0.08823 0.249152,-0.20738 0.321673,-0.264749 0.07252,-0.05735 0.137695,-0.112102 0.144827,-0.121634 0.0071,-0.0096 0.08882,-0.07691 0.181539,-0.149755 0.09271,-0.07285 0.187684,-0.152151 0.211044,-0.176263 0.197558,-0.223375 0.506037,-0.396639 0.891245,-0.72731 0.02852,-0.02764 0.07803,-0.06838 0.110003,-0.09052 0.03197,-0.02203 0.05152,-0.05127 0.04346,-0.06472 -0.0081,-0.01372 -0.0035,-0.02123 0.01007,-0.01723 0.0388,0.01161 0.189863,-0.112672 0.172428,-0.141785 0.08533,-0.04449 0.164117,-0.116952 0.258348,-0.198058 0.05115,-0.05127 0.093,-0.08647 0.093,-0.07833 0,0.0085 0.01504,0 0.03342,-0.02044 0.04275,-0.04521 0.139052,-0.278604 0.158024,-0.383055 0.008,-0.04411 0.03201,-0.152285 0.05332,-0.240439 0.06953,-0.287489 0.114598,-0.790432 0.130645,-1.457895 0.0087,-0.360388 0.02176,-0.715413 0.02911,-0.788949 l 0.01336,-0.133775 -0.172079,0.187245 c -0.161804,0.17603 -0.262851,0.323423 -0.251453,0.366757 0.0028,0.01041 -0.01145,0.01281 -0.03158,0.0048 -0.06347,0.01601 -0.0814,0.06612 -0.115788,0.123443 -0.0086,0.0072 -0.03308,0.03685 -0.05448,0.06529 -0.03068,0.04093 -0.03121,0.04718 -0.0025,0.02924 0.02472,-0.01521 0.03048,-0.01281 0.01792,0.0084 -0.01018,0.01723 -0.03053,0.03084 -0.04524,0.03084 -0.03552,0 -0.17748,0.139223 -0.164333,0.161132 0.0056,0.0096 -0.0062,0.01723 -0.02632,0.01723 -0.02014,0 -0.0293,-0.01326 -0.02034,-0.02924 0.009,-0.01601 -0.0061,-0.0096 -0.03356,0.01441 -0.02741,0.02404 -0.07892,0.05284 -0.114459,0.06401 -0.03554,0.01114 -0.13474,0.05359 -0.220456,0.09412 -0.08571,0.04058 -0.325073,0.147947 -0.531912,0.238677 -0.206837,0.09072 -0.44026,0.193371 -0.518717,0.228088 -0.07846,0.03486 -0.2062,0.08883 -0.283877,0.120236 -0.07768,0.03126 -0.305265,0.132494 -0.50575,0.224744 -0.200485,0.09224 -0.413804,0.189397 -0.47404,0.21604 -0.06023,0.02644 -0.103134,0.05895 -0.09533,0.07196 0.0078,0.01326 0.0046,0.02204 -0.0071,0.02004 -0.06034,-0.01086 -0.08965,0.01129 -0.136213,0.102779 -0.07258,0.142615 -0.236801,0.308441 -0.417508,0.421626 -0.08991,0.05636 -0.148224,0.109586 -0.138253,0.126245 0.0097,0.01603 0.0052,0.02122 -0.01034,0.01114 -0.01517,-0.0096 -0.08991,0 -0.166107,0.01922 -0.122222,0.03285 -0.141237,0.03204 -0.161602,-0.0044 -0.01433,-0.02564 -0.01179,-0.05981 0.0067,-0.09032 0.03573,-0.05899 0.0273,-0.0602 -0.08469,-0.01206 -0.100391,0.04326 -0.131742,0.02964 -0.169554,-0.07273 -0.01739,-0.04719 -0.01798,-0.06846 -0.0016,-0.05808 0.01422,0.0091 0.02586,0.0048 0.02586,-0.0101 0,-0.01446 -0.02626,-0.03003 -0.05835,-0.03486 -0.0763,-0.01116 -0.09868,-0.144618 -0.02745,-0.163641 0.04301,-0.01161 0.04314,-0.0128 0.0015,-0.01562 -0.03264,-0.0041 -0.04539,-0.02604 -0.04539,-0.0846 0,-0.06404 0.01572,-0.08847 0.07316,-0.113667 0.04024,-0.01762 0.111442,-0.07727 0.158228,-0.132373 0.04679,-0.05511 0.09389,-0.09455 0.104669,-0.08774 0.01078,0.0068 0.100058,-0.01206 0.19839,-0.04173 0.113607,-0.03445 0.240244,-0.05235 0.347368,-0.04899 0.342365,0.0104 0.374743,0.006 0.57059,-0.08751 0.106986,-0.05091 0.270382,-0.125764 0.363103,-0.166384 0.491744,-0.215316 0.663131,-0.296375 0.67973,-0.321617 0.01009,-0.01521 0.03355,-0.02804 0.05212,-0.02844 0.07176,0 0.406942,-0.156397 0.391532,-0.182151 -0.0089,-0.01476 -0.0035,-0.01883 0.01184,-0.0091 0.250392,-0.08627 0.415325,-0.168852 0.649667,-0.275196 0.333631,-0.135575 0.46234,-0.212275 0.527943,-0.314489 0.03598,-0.05611 0.06847,-0.113988 0.0722,-0.128688 0.0037,-0.01441 0.02747,-0.05688 0.05276,-0.09365 0.208077,-0.380334 0.407511,-0.711767 0.598538,-1.069073 0.318821,-0.579073 0.363429,-0.689738 0.413499,-1.026137 0.06075,-0.40809 0.08701,-0.533534 0.173526,-0.82924 l 0.06914,-0.236506 -0.105158,-0.09777 C 18.810802,9.9732525 18.726402,9.9157764 18.585564,9.9057251 c -0.03073,-0.004 -0.05047,-0.013233 -0.04386,-0.024033 0.02117,-0.035247 -0.181153,-0.020827 -0.315236,0.022433 -0.17862,0.057713 -0.267683,0.071452 -0.340922,0.052507 -0.06882,-0.01762 -0.234033,-0.1854015 -0.257303,-0.2610195 -0.0081,-0.026033 -0.02565,-0.047947 -0.03895,-0.047947 -0.0133,0 -0.02419,-0.021627 -0.02419,-0.04778 0,-0.026033 -0.03571,-0.06945 -0.07935,-0.096005 -0.09862,-0.060107 -0.135714,-0.1559134 -0.114733,-0.2963369 0.01592,-0.1065394 0.09997,-0.5934544 0.129473,-0.7500992 0.06576,-0.3490149 0.07138,-0.4140183 0.03923,-0.453991 -0.01806,-0.022427 -0.04357,-0.040813 -0.0567,-0.040813 -0.01312,0 -0.03795,-0.01202 -0.05518,-0.026433 -0.01724,-0.014827 -0.05816,-0.04786 -0.09096,-0.073574 -0.0328,-0.026033 -0.0709,-0.094963 -0.08467,-0.1537608 -0.05289,-0.2260566 -0.06852,-0.3326353 -0.04675,-0.318738 0.01236,0.00801 0.02248,0 0.02248,-0.013607 0,-0.050507 0.167554,-0.2637428 0.220455,-0.2806462 0.124627,-0.039653 0.641066,-0.095885 0.880883,-0.095885 0.267267,0 0.335064,0.021227 0.422459,0.1324935 0.02814,0.036047 0.03048,0.034047 0.0175,-0.01202 -0.01499,-0.053507 -0.01499,-0.053507 0.01739,0 0.01781,0.02964 0.05591,0.070812 0.08468,0.092 0.06759,0.049707 0.115349,0.1017727 0.211061,0.2299382 0.04279,0.057313 0.100081,0.1276066 0.127305,0.1561633 0.04707,0.049347 0.04801,0.071015 0.01919,0.4421381 -0.03689,0.475137 -0.03672,0.7786952 5.19e-4,0.938544 0.01541,0.066207 0.0295,0.1865628 0.03129,0.2675075 0.003,0.1355381 0.01192,0.1560028 0.113638,0.2607322 0.06071,0.06252 0.116553,0.1136668 0.124099,0.1136668 0.351951,0.3534609 0.927188,0.7590309 1.101601,1.1710479 0.118221,0.221288 0.249416,0.484913 0.323259,0.707961 0.03108,0.09937 0.06142,0.175792 0.06744,0.169863 0.006,-0.0056 0.01408,0.07346 0.01792,0.176429 0.0039,0.102974 0.01728,0.20711 0.02987,0.231341 0.05377,0.103575 0.282312,0.374809 0.301083,0.357347 0.01128,-0.01041 0.01255,-0.0048 0.0028,0.01281 -0.0098,0.01762 0.02012,0.07726 0.06712,0.133694 0.267442,0.259019 0.202853,0.262302 0.413449,0.446863 0.01869,-0.01202 0.02247,-0.0069 0.01024,0.01361 -0.01225,0.02043 0.06501,0.120678 0.209962,0.272476 0.126129,0.132093 0.237574,0.260818 0.247656,0.286052 0.02386,0.05976 0.11567,0.517193 0.28034,1.396619 0.07299,0.389786 0.174275,0.901298 0.225065,1.136677 0.05079,0.235348 0.098,0.454716 0.104917,0.487399 0.01296,0.06129 0.04895,0.104466 0.24034,0.288215 0.0613,0.05884 0.133545,0.155129 0.160558,0.213958 0.02701,0.05885 0.07373,0.149078 0.103834,0.200589 0.04421,0.07562 0.05519,0.139858 0.05719,0.334316 0.0024,0.233465 6.5e-4,0.240633 -0.05589,0.2375 -0.05195,-0.0041 -0.05836,0.0096 -0.05836,0.111829 0,0.133053 -0.09109,0.30308 -0.163337,0.304798 -0.06824,0 -0.167066,-0.120552 -0.268754,-0.332435 -0.106853,-0.222605 -0.102079,-0.216881 -0.147549,-0.177949 -0.04837,0.04142 -0.111627,0.01356 -0.132131,-0.05868 -0.0091,-0.03204 -0.02368,-0.176113 -0.03232,-0.320008 -0.01272,-0.212047 -0.0066,-0.292913 0.03241,-0.425647 l 0.04811,-0.163853 -0.06912,-0.350611 c -0.03802,-0.192815 -0.139996,-0.65125 -0.226616,-1.018686 -0.08663,-0.367407 -0.1828,-0.776292 -0.213727,-0.908711 -0.03092,-0.132404 -0.06566,-0.244761 -0.07719,-0.249717 -0.01151,-0.0048 -0.01578,-0.01723 -0.0095,-0.02804 0.02257,-0.03766 -0.08669,-0.470132 -0.126316,-0.499968 -0.02225,-0.01683 -0.0407,-0.04121 -0.04104,-0.05432 -3.25e-4,-0.01323 -0.06526,-0.09605 -0.144298,-0.184281 -0.07904,-0.08828 -0.17596,-0.196577 -0.215381,-0.240713 -0.161302,-0.180556 -0.371232,-0.360873 -0.40021,-0.343809 -0.01681,0.01001 -0.02211,0.0084 -0.01177,-0.004 0.0175,-0.02003 -0.127992,-0.173025 -0.165365,-0.173947 -0.02396,0 -0.04186,0.197298 -0.100376,1.109525 -0.06943,1.082417 -0.115085,1.535689 -0.218213,2.166349 -0.05048,0.308757 -0.199484,0.864369 -0.275075,1.025737 -0.02789,0.0595 -0.05419,0.131725 -0.05845,0.160491 -0.0043,0.02883 -0.02039,0.06848 -0.03588,0.0883 -0.0904,0.357508 -0.256447,0.425753 -0.38252,0.748021 0.0117,0.01963 0.008,0.02484 -0.0095,0.01356 -0.01716,-0.01086 -0.08356,0.07022 -0.166106,0.20307 -0.07564,0.121666 -0.175365,0.275422 -0.221612,0.34168 -0.04625,0.06624 -0.126504,0.186644 -0.178347,0.267508 -0.05185,0.08097 -0.168647,0.251994 -0.259564,0.38023 -0.09092,0.128155 -0.165303,0.246237 -0.165303,0.262311 0,0.01606 -0.0098,0.02286 -0.02175,0.01525 -0.01197,-0.0076 -0.04648,0.03086 -0.07668,0.08535 -0.03021,0.05454 -0.09592,0.146111 -0.146017,0.203433 -0.0501,0.05728 -0.08374,0.117481 -0.07477,0.133701 0.009,0.01643 0.0069,0.02083 -0.0046,0.0097 -0.01151,-0.01038 -0.08048,0.06251 -0.153288,0.162736 -0.205667,0.283137 -0.56968,0.744128 -0.816153,1.033672 -0.03759,0.04416 -0.161066,0.191559 -0.274386,0.327628 -0.113318,0.136022 -0.21544,0.247356 -0.226937,0.247356 -0.0115,0 -0.0209,0.01346 -0.0209,0.03004 0,0.01677 -0.02631,0.0558 -0.05844,0.08688 -0.03214,0.03086 -0.09169,0.09867 -0.132317,0.150198 -0.04063,0.05147 -0.06506,0.07668 -0.05427,0.05606 0.01298,-0.02482 0.0095,-0.03123 -0.01034,-0.01841 -0.01647,0.01038 -0.02994,0.03366 -0.02994,0.05195 0,0.01802 -0.110517,0.152776 -0.245596,0.299292 -0.135077,0.146532 -0.245953,0.280623 -0.246389,0.297962 -4.06e-4,0.01761 -0.0375,0.06111 -0.08236,0.09729 l -0.08156,0.06584 0.08805,0.01924 c 0.149226,0.03285 0.398255,0.126678 0.418334,0.157723 0.01048,0.01644 0.01924,0.01881 0.01946,0.006 2.76e-4,-0.01281 0.0167,-0.0097 0.03666,0.0076 0.01994,0.0173 0.05834,0.03526 0.08533,0.04074 0.02699,0.0055 0.110667,0.04722 0.18595,0.09301 0.07529,0.04577 0.129978,0.0717 0.121543,0.05763 -0.0189,-0.03163 0.226057,0.105884 0.248151,0.139233 0.0088,0.01329 0.02364,0.02203 0.03311,0.02001 0.97867,0.431438 1.578714,0.959238 2.440865,1.40417 0.05706,0.02921 0.109578,0.06029 0.116711,0.06942 0.0071,0.0092 0.07351,0.04911 0.147507,0.08884 0.074,0.03966 0.14837,0.08944 0.165276,0.110426 0.0169,0.02123 0.04539,0.03806 0.06329,0.03806 0.0179,0 0.04697,0.01761 0.0646,0.03966 0.01763,0.02162 0.04117,0.03363 0.05232,0.02683 0.01116,-0.0073 0.02726,0.006 0.03578,0.02884 0.0086,0.02284 0.02647,0.03446 0.03986,0.02604 0.02865,-0.01802 0.42101,0.38487 0.403324,0.414358 -0.0066,0.01103 0.0026,0.02601 0.02024,0.03363 0.01774,0.0073 0.05504,0.05969 0.08286,0.116428 0.02783,0.0568 0.06756,0.124343 0.08831,0.150068 0.02075,0.02565 0.02928,0.04679 0.01896,0.04679 -0.01031,0 0.003,0.03326 0.02966,0.07357 0.132457,0.201177 0.142946,0.327061 0.03392,0.407091 -0.08388,0.06159 -0.29508,0.142542 -0.448398,0.171819 -0.05349,0.01006 -0.09726,0.03206 -0.09726,0.04854 0,0.01643 0.0077,0.02203 0.01707,0.01232 0.0093,-0.0097 0.03339,-0.0042 0.05333,0.01346 0.01994,0.0173 0.03424,0.02005 0.03173,0.0064 -0.01132,-0.06141 0.0048,-0.07066 0.04002,-0.02284 0.03097,0.0419 0.0429,0.04491 0.0616,0.01557 0.01382,-0.02162 0.02953,-0.02565 0.03889,-0.01006 0.0087,0.0146 0.06647,0.02723 0.12851,0.02843 0.124589,0.0042 0.251311,0.04331 0.251311,0.08079 0,0.08976 -0.17099,0.112989 -0.900911,0.122396 -0.313454,0.0042 -0.582473,0.01525 -0.597819,0.02522 -0.01534,0.01006 -0.03559,0.0053 -0.04497,-0.01038 -0.01177,-0.01963 -0.02906,-0.01802 -0.05564,0.0049 -0.02298,0.01963 -0.04563,0.02282 -0.05605,0.0079 -0.39244,0.03202 -0.659836,-0.01926 -1.062674,-0.04151 z"/>
 <path style="fill:#8b9cbe" d="m 18.555931,25.949101 c -0.13226,0 -0.244187,-0.06838 -0.337255,-0.105966 -0.175259,-0.157902 -0.07184,-0.07768 0.11642,-0.149289 -0.107058,0.01844 0.02487,0.01038 0.13782,-0.06232 0.03932,0 0.116046,-0.01922 0.170504,-0.04269 0.05446,-0.02323 0.117152,-0.04692 0.139329,-0.05214 0.02218,-0.0052 0.12202,-0.04049 0.221874,-0.07837 0.09985,-0.03806 0.228235,-0.08614 0.285293,-0.107264 0.09744,-0.03604 0.274503,-0.126273 0.477614,-0.243478 0.0878,-0.05064 0.138189,-0.08778 0.241775,-0.178113 0.02951,-0.02563 0.06549,-0.04683 0.07994,-0.04683 0.01446,0 0.01992,-0.0064 0.01216,-0.0146 -0.0078,-0.0079 0.03112,-0.06311 0.08646,-0.122509 0.05532,-0.05937 0.1002,-0.122039 0.09972,-0.139216 -0.0026,-0.09369 -0.184846,-0.216928 -0.829084,-0.560614 -0.164046,-0.08752 -0.321285,-0.175712 -0.349422,-0.195971 -0.02814,-0.02042 -0.07093,-0.03686 -0.0951,-0.03686 -0.02417,0 -0.04783,-0.0097 -0.05259,-0.02084 -0.967486,-0.46344 -1.586779,-0.792139 -2.526434,-1.182815 -0.01001,0 -0.07378,-0.03525 -0.141725,-0.07839 -0.176088,-0.100499 -0.270411,-0.122623 -0.426854,-0.248864 -0.01426,-0.01168 -0.07042,-0.05631 -0.124775,-0.09938 -0.218518,-0.173084 -0.298807,-0.342632 -0.269388,-0.568804 0.0084,-0.06434 0.159865,-0.410384 0.367758,-0.840021 0.19444,-0.401803 0.351872,-0.738628 0.34985,-0.748425 -0.002,-0.0097 0.0071,-0.02522 0.0203,-0.03405 0.04577,-0.03124 0.472899,-0.944785 0.455994,-0.975262 -0.0093,-0.01677 -0.0075,-0.02162 0.004,-0.01119 0.02098,0.01964 0.25208,-0.417699 0.254197,-0.480973 6.67e-4,-0.01843 0.01279,-0.03326 0.02706,-0.03326 0.01427,0 0.01924,-0.0069 0.01106,-0.01525 -0.01875,-0.01922 -0.175316,0.06264 -0.175316,0.0918 0,0.01217 -0.01632,0.02162 -0.03627,0.02162 -0.825984,0.332397 -1.754388,0.844351 -2.48174,1.185118 -0.193801,0.09108 -0.381829,0.19164 -0.417843,0.223512 -0.03863,0.03408 -0.09458,0.142882 -0.136463,0.265003 -0.03904,0.113817 -0.0928,0.235581 -0.119476,0.270535 -0.02668,0.03488 -0.04283,0.06942 -0.0359,0.07654 0.007,0.0073 -0.114707,0.270567 -0.270292,0.585334 -0.379789,0.768359 -0.401341,0.80998 -0.431297,0.832639 -0.01427,0.01087 -0.01537,0.02004 -0.0025,0.02004 0.01291,0 0.0065,0.02162 -0.01431,0.04724 -0.02078,0.02563 -0.07065,0.118975 -0.110813,0.207228 -0.04017,0.08827 -0.102951,0.201647 -0.139525,0.252011 -0.03657,0.05029 -0.04979,0.08111 -0.02937,0.0684 0.03182,-0.01961 0.03201,-0.01679 0.0012,0.02244 -0.393394,0.792705 -0.887883,1.530345 -1.225739,2.337407 -0.101929,0.187373 -0.162745,0.363587 -0.253008,0.596021 h 0.121872 c 0.410372,0.0503 -0.06575,0.100678 -0.202326,0.116022 -0.495359,0.05511 -2.3945625,0.01763 -2.4587773,-0.04869 -0.065087,-0.06713 0.2523229,-0.09721 1.0905975,-0.103339 0.3387536,-0.0042 0.6159428,-0.0055 0.6159758,-0.0073 2.7e-5,0 -0.0711,-0.0604 -0.158081,-0.130895 -0.08702,-0.07043 -0.1833081,-0.15377 -0.2140135,-0.185092 -0.030707,-0.03124 -0.0926,-0.08082 -0.1375461,-0.109858 -0.044947,-0.02925 -0.1558207,-0.116297 -0.2463901,-0.193877 -0.09057,-0.07763 -0.1796935,-0.153751 -0.1980535,-0.16916 -0.01836,-0.01557 -0.1058941,-0.08908 -0.1945188,-0.163612 -0.1869955,-0.157318 -0.3667656,-0.35105 -0.421049,-0.45382 -0.035613,-0.06741 -0.034367,-0.07307 0.020207,-0.09205 0.093297,-0.03244 0.2035395,-0.0042 0.550093,0.146224 0.0566,0.02444 0.1091168,0.04544 0.1167101,0.04667 0.017273,0.0042 0.094101,0.03366 0.1953602,0.07742 0.042793,0.01844 0.1361627,0.05552 0.2074868,0.08199 0.071324,0.02642 0.1413514,0.0564 0.1556161,0.06656 0.03158,0.02244 0.1741658,0.063 0.2007158,0.05706 0.01054,-0.0042 0.06306,0.0133 0.116712,0.03406 0.177813,0.07011 0.471008,0.09576 0.727167,0.06358 0.226845,-0.179248 0.386833,-0.462142 0.485622,-0.69065 0.02582,-0.02963 0.03638,-0.05368 0.02348,-0.05387 -0.01291,0 -0.01049,-0.0097 0.0054,-0.02003 0.152262,-0.303801 0.31878,-0.641081 0.44957,-0.92897 0.161686,-0.349007 0.242858,-0.534759 0.25009,-0.57234 0.0039,-0.02084 0.02257,-0.04751 0.04135,-0.05975 0.01878,-0.01232 0.02515,-0.02245 0.01416,-0.02245 -0.01099,0 0.0023,-0.04553 0.02952,-0.100711 0.02723,-0.05516 0.06432,-0.151479 0.08244,-0.213974 0.01811,-0.06252 0.04081,-0.113655 0.05044,-0.113655 0.0096,0 0.01766,-0.01476 0.01783,-0.03326 1.35e-4,-0.01841 0.05588,-0.177869 0.123767,-0.354327 0.139947,-0.36388 0.278216,-0.732968 0.355696,-0.949538 0.02894,-0.08086 0.06254,-0.171137 0.07466,-0.200544 0.01211,-0.02963 0.04704,-0.119721 0.07763,-0.200562 0.03059,-0.08095 0.07852,-0.201274 0.106529,-0.267468 0.02801,-0.06623 0.05256,-0.132421 0.05456,-0.147164 0.002,-0.0146 0.01321,-0.03885 0.0249,-0.05346 0.445374,-0.671915 1.232637,-1.132483 1.780105,-1.633943 0.01202,0.0074 0.09081,-0.04881 0.175065,-0.125445 0.08427,-0.07669 0.164876,-0.148543 0.179141,-0.159752 0.07489,-0.05873 0.391724,-0.32055 0.557966,-0.461132 0.104399,-0.08823 0.249152,-0.20738 0.321673,-0.264749 0.07252,-0.05735 0.137695,-0.112102 0.144827,-0.121634 0.0071,-0.0096 0.08882,-0.07691 0.181539,-0.149755 0.09271,-0.07285 0.187684,-0.152151 0.211044,-0.176263 0.197558,-0.223375 0.506037,-0.396639 0.891245,-0.72731 0.02852,-0.02764 0.07803,-0.06838 0.110003,-0.09052 0.03197,-0.02203 0.05152,-0.05127 0.04346,-0.06472 -0.0081,-0.01372 -0.0035,-0.02123 0.01007,-0.01723 0.0388,0.01161 0.189863,-0.112672 0.172428,-0.141785 0.08533,-0.04449 0.164117,-0.116952 0.258348,-0.198058 0.05115,-0.05127 0.093,-0.08647 0.093,-0.07833 0,0.0085 0.01504,0 0.03342,-0.02044 0.04275,-0.04521 0.139052,-0.278604 0.158024,-0.383055 0.008,-0.04411 0.03201,-0.152285 0.05332,-0.240439 0.06953,-0.287489 0.114598,-0.790432 0.130645,-1.457895 0.0087,-0.360388 0.02176,-0.715413 0.02911,-0.788949 l 0.01336,-0.133775 -0.172079,0.187245 c -0.161804,0.17603 -0.262851,0.323423 -0.251453,0.366757 0.0028,0.01041 -0.01145,0.01281 -0.03158,0.0048 -0.06347,0.01601 -0.0814,0.06612 -0.115788,0.123443 -0.0086,0.0072 -0.03308,0.03685 -0.05448,0.06529 -0.03068,0.04093 -0.03121,0.04718 -0.0025,0.02924 0.02472,-0.01521 0.03048,-0.01281 0.01792,0.0084 -0.01018,0.01723 -0.03053,0.03084 -0.04524,0.03084 -0.03552,0 -0.17748,0.139223 -0.164333,0.161132 0.0056,0.0096 -0.0062,0.01723 -0.02632,0.01723 -0.02014,0 -0.0293,-0.01326 -0.02034,-0.02924 0.009,-0.01601 -0.0061,-0.0096 -0.03356,0.01441 -0.02741,0.02404 -0.07892,0.05284 -0.114459,0.06401 -0.03554,0.01114 -0.13474,0.05359 -0.220456,0.09412 -0.08571,0.04058 -0.325073,0.147947 -0.531912,0.238677 -0.206837,0.09072 -0.44026,0.193371 -0.518717,0.228088 -0.07846,0.03486 -0.2062,0.08883 -0.283877,0.120236 -0.07768,0.03126 -0.305265,0.132494 -0.50575,0.224744 -0.200485,0.09224 -0.413804,0.189397 -0.47404,0.21604 -0.06023,0.02644 -0.103134,0.05895 -0.09533,0.07196 0.0078,0.01326 0.0046,0.02204 -0.0071,0.02004 -0.06034,-0.01086 -0.08965,0.01129 -0.136213,0.102779 -0.07258,0.142615 -0.236801,0.308441 -0.417508,0.421626 -0.08991,0.05636 -0.148224,0.109586 -0.138253,0.126245 0.0097,0.01603 0.0052,0.02122 -0.01034,0.01114 -0.01517,-0.0096 -0.08991,0 -0.166107,0.01922 -0.122222,0.03285 -0.141237,0.03204 -0.161602,-0.0044 -0.01433,-0.02564 -0.01179,-0.05981 0.0067,-0.09032 0.03573,-0.05899 0.0273,-0.0602 -0.08469,-0.01206 -0.100391,0.04326 -0.131742,0.02964 -0.169554,-0.07273 -0.01739,-0.04719 -0.01798,-0.06846 -0.0016,-0.05808 0.01422,0.0091 0.02586,0.0048 0.02586,-0.0101 0,-0.01446 -0.02626,-0.03003 -0.05835,-0.03486 -0.0763,-0.01116 -0.09868,-0.144618 -0.02745,-0.163641 0.04301,-0.01161 0.04314,-0.0128 0.0015,-0.01562 -0.03264,-0.0041 -0.04539,-0.02604 -0.04539,-0.0846 0,-0.06404 0.01572,-0.08847 0.07316,-0.113667 0.04024,-0.01762 0.111442,-0.07727 0.158228,-0.132373 0.04679,-0.05511 0.09389,-0.09455 0.104669,-0.08774 0.01078,0.0068 0.100058,-0.01206 0.19839,-0.04173 0.113607,-0.03445 0.240244,-0.05235 0.347368,-0.04899 0.342365,0.0104 0.374743,0.006 0.57059,-0.08751 0.106986,-0.05091 0.270382,-0.125764 0.363103,-0.166384 0.491744,-0.215316 0.663131,-0.296375 0.67973,-0.321617 0.01009,-0.01521 0.03355,-0.02804 0.05212,-0.02844 0.07176,0 0.406942,-0.156397 0.391532,-0.182151 -0.0089,-0.01476 -0.0035,-0.01883 0.01184,-0.0091 0.250392,-0.08627 0.415325,-0.168852 0.649667,-0.275196 0.333631,-0.135575 0.46234,-0.212275 0.527943,-0.314489 0.03598,-0.05611 0.06847,-0.113988 0.0722,-0.128688 0.0037,-0.01441 0.02747,-0.05688 0.05276,-0.09365 0.208077,-0.380334 0.407511,-0.711767 0.598538,-1.069073 0.318821,-0.579073 0.363429,-0.689738 0.413499,-1.026137 0.06075,-0.40809 0.08701,-0.533534 0.173526,-0.82924 l 0.06914,-0.2365062 -0.105158,-0.097768 C 18.810802,8.9732525 18.726402,8.9157764 18.585564,8.9057251 c -0.03073,-0.004 -0.05047,-0.013233 -0.04386,-0.024033 0.02117,-0.035247 -0.181153,-0.020827 -0.315236,0.022433 -0.17862,0.057713 -0.267683,0.071452 -0.340922,0.052507 -0.06882,-0.01762 -0.234033,-0.1854015 -0.257303,-0.2610195 -0.0081,-0.026033 -0.02565,-0.047947 -0.03895,-0.047947 -0.0133,0 -0.02419,-0.021627 -0.02419,-0.04778 0,-0.026033 -0.03571,-0.06945 -0.07935,-0.096005 -0.09862,-0.060107 -0.135714,-0.1559134 -0.114733,-0.2963369 0.01592,-0.1065394 0.09997,-0.5934544 0.129473,-0.7500992 0.06576,-0.3490149 0.07138,-0.4140183 0.03923,-0.453991 -0.01806,-0.022427 -0.04357,-0.040813 -0.0567,-0.040813 -0.01312,0 -0.03795,-0.01202 -0.05518,-0.026433 -0.01724,-0.014827 -0.05816,-0.04786 -0.09096,-0.073574 -0.0328,-0.026033 -0.0709,-0.094963 -0.08467,-0.1537608 -0.05289,-0.2260566 -0.06852,-0.3326353 -0.04675,-0.318738 0.01236,0.00801 0.02248,0 0.02248,-0.013607 0,-0.050507 0.167554,-0.2637428 0.220455,-0.2806462 0.124627,-0.039653 0.641066,-0.095885 0.880883,-0.095885 0.267267,0 0.335064,0.021227 0.422459,0.1324935 0.02814,0.036047 0.03048,0.034047 0.0175,-0.01202 -0.01499,-0.053507 -0.01499,-0.053507 0.01739,0 0.01781,0.02964 0.05591,0.070812 0.08468,0.092 0.06759,0.049707 0.115349,0.1017727 0.211061,0.2299382 0.04279,0.057313 0.100081,0.1276066 0.127305,0.1561633 0.04707,0.049347 0.04801,0.071015 0.01919,0.4421381 -0.03689,0.475137 -0.03672,0.7786952 5.19e-4,0.938544 0.01541,0.066207 0.0295,0.1865628 0.03129,0.2675075 0.003,0.1355381 0.01192,0.1560028 0.113638,0.2607322 0.06071,0.06252 0.116553,0.1136668 0.124099,0.1136668 0.351951,0.3534609 0.927188,0.7590305 1.101601,1.1710479 0.118221,0.221288 0.249416,0.484913 0.323259,0.707961 0.03108,0.09937 0.06142,0.175792 0.06744,0.169863 0.006,-0.0056 0.01408,0.07346 0.01792,0.176429 0.0039,0.102974 0.01728,0.20711 0.02987,0.231341 0.05377,0.103575 0.282312,0.374809 0.301083,0.357347 0.01128,-0.01041 0.01255,-0.0048 0.0028,0.01281 -0.0098,0.01762 0.02012,0.07726 0.06712,0.133694 0.267442,0.259019 0.202853,0.262302 0.413449,0.446863 0.01869,-0.01202 0.02247,-0.0069 0.01024,0.01361 -0.01225,0.02043 0.06501,0.120678 0.209962,0.272476 0.126129,0.132093 0.237574,0.260818 0.247656,0.286052 0.02386,0.05976 0.11567,0.517193 0.28034,1.396619 0.07299,0.389786 0.174275,0.901298 0.225065,1.136677 0.05079,0.235348 0.098,0.454716 0.104917,0.487399 0.01296,0.06129 0.04895,0.104466 0.24034,0.288215 0.0613,0.05884 0.133545,0.155129 0.160558,0.213958 0.02701,0.05885 0.07373,0.149078 0.103834,0.200589 0.04421,0.07562 0.05519,0.139858 0.05719,0.334316 0.0024,0.233465 6.5e-4,0.240633 -0.05589,0.2375 -0.05195,-0.0041 -0.05836,0.0096 -0.05836,0.111829 0,0.133053 -0.09109,0.30308 -0.163337,0.304798 -0.06824,0 -0.167066,-0.120552 -0.268754,-0.332435 -0.106853,-0.222605 -0.102079,-0.216881 -0.147549,-0.177949 -0.04837,0.04142 -0.111627,0.01356 -0.132131,-0.05868 -0.0091,-0.03204 -0.02368,-0.176113 -0.03232,-0.320008 -0.01272,-0.212047 -0.0066,-0.292913 0.03241,-0.425647 l 0.04811,-0.163853 -0.06912,-0.350611 c -0.03802,-0.192815 -0.139996,-0.65125 -0.226616,-1.018686 -0.08663,-0.367407 -0.1828,-0.776292 -0.213727,-0.908711 -0.03092,-0.132404 -0.06566,-0.244761 -0.07719,-0.249717 -0.01151,-0.0048 -0.01578,-0.01723 -0.0095,-0.02804 0.02257,-0.03766 -0.08669,-0.470132 -0.126316,-0.499968 -0.02225,-0.01683 -0.0407,-0.04121 -0.04104,-0.05432 -3.25e-4,-0.01323 -0.06526,-0.09605 -0.144298,-0.184281 -0.07904,-0.08828 -0.17596,-0.196577 -0.215381,-0.240713 -0.161302,-0.180556 -0.371232,-0.360873 -0.40021,-0.343809 -0.01681,0.01001 -0.02211,0.0084 -0.01177,-0.004 0.0175,-0.02003 -0.127992,-0.173025 -0.165365,-0.173947 -0.02396,0 -0.04186,0.197298 -0.100376,1.109525 -0.06943,1.082417 -0.115085,1.535689 -0.218213,2.166349 -0.05048,0.308757 -0.199484,0.864369 -0.275075,1.025737 -0.02789,0.0595 -0.05419,0.131725 -0.05845,0.160491 -0.0043,0.02883 -0.02039,0.06848 -0.03588,0.0883 -0.0904,0.357508 -0.256447,0.425753 -0.38252,0.748021 0.0117,0.01963 0.008,0.02484 -0.0095,0.01356 -0.01716,-0.01086 -0.08356,0.07022 -0.166106,0.20307 -0.07564,0.121666 -0.175365,0.275422 -0.221612,0.34168 -0.04625,0.06624 -0.126504,0.186644 -0.178347,0.267508 -0.05185,0.08097 -0.168647,0.251994 -0.259564,0.38023 -0.09092,0.128155 -0.165303,0.246237 -0.165303,0.262311 0,0.01606 -0.0098,0.02286 -0.02175,0.01525 -0.01197,-0.0076 -0.04648,0.03086 -0.07668,0.08535 -0.03021,0.05454 -0.09592,0.146111 -0.146017,0.203433 -0.0501,0.05728 -0.08374,0.117481 -0.07477,0.133701 0.009,0.01643 0.0069,0.02083 -0.0046,0.0097 -0.01151,-0.01038 -0.08048,0.06251 -0.153288,0.162736 -0.205667,0.283137 -0.56968,0.744128 -0.816153,1.033672 -0.03759,0.04416 -0.161066,0.191559 -0.274386,0.327628 -0.113318,0.136022 -0.21544,0.247356 -0.226937,0.247356 -0.0115,0 -0.0209,0.01346 -0.0209,0.03004 0,0.01677 -0.02631,0.0558 -0.05844,0.08688 -0.03214,0.03086 -0.09169,0.09867 -0.132317,0.150198 -0.04063,0.05147 -0.06506,0.07668 -0.05427,0.05606 0.01298,-0.02482 0.0095,-0.03123 -0.01034,-0.01841 -0.01647,0.01038 -0.02994,0.03366 -0.02994,0.05195 0,0.01802 -0.110517,0.152776 -0.245596,0.299292 -0.135077,0.146532 -0.245953,0.280623 -0.246389,0.297962 -4.06e-4,0.01761 -0.0375,0.06111 -0.08236,0.09729 l -0.08156,0.06584 0.08805,0.01924 c 0.149226,0.03285 0.398255,0.126678 0.418334,0.157723 0.01048,0.01644 0.01924,0.01881 0.01946,0.006 2.76e-4,-0.01281 0.0167,-0.0097 0.03666,0.0076 0.01994,0.0173 0.05834,0.03526 0.08533,0.04074 0.02699,0.0055 0.110667,0.04722 0.18595,0.09301 0.07529,0.04577 0.129978,0.0717 0.121543,0.05763 -0.0189,-0.03163 0.226057,0.105884 0.248151,0.139233 0.0088,0.01329 0.02364,0.02203 0.03311,0.02001 0.97867,0.431438 1.578714,0.959238 2.440865,1.40417 0.05706,0.02921 0.109578,0.06029 0.116711,0.06942 0.0071,0.0092 0.07351,0.04911 0.147507,0.08884 0.074,0.03966 0.14837,0.08944 0.165276,0.110426 0.0169,0.02123 0.04539,0.03806 0.06329,0.03806 0.0179,0 0.04697,0.01761 0.0646,0.03966 0.01763,0.02162 0.04117,0.03363 0.05232,0.02683 0.01116,-0.0073 0.02726,0.006 0.03578,0.02884 0.0086,0.02284 0.02647,0.03446 0.03986,0.02604 0.02865,-0.01802 0.42101,0.38487 0.403324,0.414358 -0.0066,0.01103 0.0026,0.02601 0.02024,0.03363 0.01774,0.0073 0.05504,0.05969 0.08286,0.116428 0.02783,0.0568 0.06756,0.124343 0.08831,0.150068 0.02075,0.02565 0.02928,0.04679 0.01896,0.04679 -0.01031,0 0.003,0.03326 0.02966,0.07357 0.132457,0.201177 0.142946,0.327061 0.03392,0.407091 -0.08388,0.06159 -0.29508,0.142542 -0.448398,0.171819 -0.05349,0.01006 -0.09726,0.03206 -0.09726,0.04854 0,0.01643 0.0077,0.02203 0.01707,0.01232 0.0093,-0.0097 0.03339,-0.0042 0.05333,0.01346 0.01994,0.0173 0.03424,0.02005 0.03173,0.0064 -0.01132,-0.06141 0.0048,-0.07066 0.04002,-0.02284 0.03097,0.0419 0.0429,0.04491 0.0616,0.01557 0.01382,-0.02162 0.02953,-0.02565 0.03889,-0.01006 0.0087,0.0146 0.06647,0.02723 0.12851,0.02843 0.124589,0.0042 0.251311,0.04331 0.251311,0.08079 0,0.08976 -0.17099,0.112989 -0.900911,0.122396 -0.313454,0.0042 -0.582473,0.01525 -0.597819,0.02522 -0.01534,0.01006 -0.03559,0.0053 -0.04497,-0.01038 -0.01177,-0.01963 -0.02906,-0.01802 -0.05564,0.0049 -0.02298,0.01963 -0.04563,0.02282 -0.05605,0.0079 -0.39244,0.03202 -0.659836,-0.01926 -1.062674,-0.04151 z"/>
 <path style="fill:#8b9cbe;opacity:0.1" d="M 3.4003906 2 C 2.6247906 2 2 2.6247906 2 3.4003906 L 2 4.4003906 C 2 3.6247906 2.6247906 3 3.4003906 3 L 28.599609 3 C 29.375209 3 30 3.6247906 30 4.4003906 L 30 3.4003906 C 30 2.6247906 29.375209 2 28.599609 2 L 3.4003906 2 z"/>
</svg>
