<svg xmlns="http://www.w3.org/2000/svg" width="32" height="32" version="1">
 <path style="opacity:0.2" d="m 16.500491,2.0000941 c -0.557444,0 -1.114469,0.2131964 -1.541612,0.6397775 L 12.29973,4.9954239 H 7.2388974 c -1.2430892,0 -2.2441008,0.9996964 -2.2441008,2.2411525 v 5.0681826 l -2.3726699,2.655656 c -0.8043443,0.900278 -0.8542845,2.226008 0,3.079171 l 2.3726699,2.655655 v 5.068183 c 0,1.241455 1.0010116,2.241152 2.2441008,2.241152 H 12.29973 l 2.659149,2.355553 c 0.854286,0.853161 2.228938,0.853161 3.083222,0 l 2.65915,-2.355553 h 5.074851 c 1.24309,0 2.244102,-0.999697 2.244102,-2.241152 v -5.068183 l 2.35865,-2.655655 c 0.801688,-0.902638 0.854284,-2.226009 0,-3.079171 l -2.35865,-2.655656 V 7.2365764 c 0,-1.2414561 -1.001012,-2.2411525 -2.244102,-2.2411525 H 20.701251 L 18.042101,2.6398716 C 17.590188,2.2395542 17.057934,2.0000941 16.500491,2.0000941 Z"/>
 <path style="fill:#546e7a" d="m 16.500491,1.0000939 c -0.557444,0 -1.114469,0.2131964 -1.541612,0.6397775 L 12.29973,3.9954237 H 7.2388973 c -1.2430891,0 -2.2441008,0.9996964 -2.2441008,2.2411525 v 5.0681828 l -2.3726698,2.655656 c -0.8043443,0.900278 -0.8542845,2.226008 0,3.079171 l 2.3726698,2.655655 v 5.068183 c 0,1.241455 1.0010117,2.241152 2.2441008,2.241152 H 12.29973 l 2.659149,2.355553 c 0.854285,0.853161 2.228938,0.853161 3.083222,0 l 2.65915,-2.355553 h 5.074851 c 1.243089,0 2.244102,-0.999697 2.244102,-2.241152 v -5.068183 l 2.35865,-2.655655 c 0.801688,-0.902638 0.854284,-2.226009 0,-3.079171 l -2.35865,-2.655656 V 6.2365762 c 0,-1.2414561 -1.001013,-2.2411525 -2.244102,-2.2411525 H 20.701251 L 18.042101,1.6398714 C 17.590188,1.239554 17.057934,1.0000939 16.500491,1.0000939 Z"/>
 <path style="opacity:0.2" d="m 16,9 v 0.025391 A 7.5000002,7.5000002 0 0 0 9,16.5 7.5000002,7.5000002 0 0 0 16,23.982422 V 24 H 16.5 17 V 9 h -0.5 z"/>
 <path style="fill:#8b9cbe" d="M 16 8 L 16 8.0253906 A 7.5000002 7.5000002 0 0 0 9 15.5 A 7.5000002 7.5000002 0 0 0 16 22.982422 L 16 23 L 16.5 23 L 17 23 L 17 8 L 16.5 8 L 16 8 z"/>
 <path style="opacity:0.1;fill:#8b9cbe" d="M 16.5 1 C 15.942556 1 15.386127 1.2140439 14.958984 1.640625 L 12.298828 3.9960938 L 7.2382812 3.9960938 C 5.9951922 3.9960938 4.9941406 4.994872 4.9941406 6.2363281 L 4.9941406 7.2363281 C 4.9941406 5.994872 5.9951922 4.9960938 7.2382812 4.9960938 L 12.298828 4.9960938 L 14.958984 2.640625 C 15.386127 2.2140439 15.942556 2 16.5 2 C 17.057443 2 17.591056 2.2403076 18.042969 2.640625 L 20.701172 4.9960938 L 25.775391 4.9960938 C 27.01848 4.9960937 28.019531 5.994872 28.019531 7.2363281 L 28.019531 6.2363281 C 28.019531 4.994872 27.01848 3.9960937 25.775391 3.9960938 L 20.701172 3.9960938 L 18.042969 1.640625 C 17.591056 1.2403076 17.057443 1 16.5 1 z M 4.9941406 11.304688 L 2.6230469 13.960938 C 2.0941002 14.552971 1.8983028 15.326624 2.0644531 16.03125 C 2.1540738 15.647988 2.3398489 15.277912 2.6230469 14.960938 L 4.9941406 12.304688 L 4.9941406 11.304688 z M 28.019531 11.304688 L 28.019531 12.304688 L 30.378906 14.960938 C 30.671529 15.253176 30.849392 15.601979 30.935547 15.96875 C 31.100664 15.263423 30.932496 14.513801 30.378906 13.960938 L 28.019531 11.304688 z"/>
</svg>
