<svg xmlns="http://www.w3.org/2000/svg" width="32" height="32" version="1">
 <rect style="opacity:0.2" width="28" height="28" x="2" y="3" rx="1.4" ry="1.4"/>
 <rect style="fill:#b2bfd9" width="28" height="28" x="2" y="2" rx="1.4" ry="1.4"/>
 <path style="opacity:0.1" d="M 7.0000001,8 17.717269,16.59948 7.0000001,25 V 21.779189 L 13.741871,16.5 7.0000001,11.187359 Z M 25,10.689335 17.717269,16.59948 25,22.376818 V 19.156382 L 21.724469,16.499875 25,13.843742 Z"/>
 <path style="fill:#d87d00" d="M 7.0000001,7 17.717269,15.59948 7.0000001,24 V 20.779189 L 13.741871,15.5 7.0000001,10.187359 Z M 25,9.689335 17.717269,15.59948 25,21.376818 V 18.156382 L 21.724469,15.499875 25,12.843742 Z"/>
 <path style="fill:#8b9cbe;opacity:0.2" d="M 3.4003906 2 C 2.6247906 2 2 2.6247906 2 3.4003906 L 2 4.4003906 C 2 3.6247906 2.6247906 3 3.4003906 3 L 28.599609 3 C 29.375209 3 30 3.6247906 30 4.4003906 L 30 3.4003906 C 30 2.6247906 29.375209 2 28.599609 2 L 3.4003906 2 z"/>
</svg>
