<svg xmlns="http://www.w3.org/2000/svg" width="32" height="32" version="1.1">
 <g transform="translate(0,-1020.3622)">
  <path style="opacity:0.2" d="m 30,1049.9872 0,-19.25 c 0,-0.7617 -0.6244,-1.375 -1.4,-1.375 l -25.2,0 c -0.7756,0 -1.4,0.6133 -1.4,1.375 l 0,19.25 c 0,0.7618 0.6244,1.375 1.4,1.375 l 25.2,0 c 0.7756,0 1.4,-0.6132 1.4,-1.375 z"/>
  <path style="fill:#86603b" d="m 30,1042.9872 0,-19.25 c 0,-0.7618 -0.6244,-1.375 -1.4,-1.375 l -25.2,0 c -0.7756,0 -1.4,0.6133 -1.4,1.375 l 0,19.25 c 0,0.7618 0.6244,1.375 1.4,1.375 l 25.2,0 c 0.7756,0 1.4,-0.6132 1.4,-1.375 z"/>
  <path style="fill:#c28a52" d="m 30,1045.9872 0,-19.25 c 0,-0.7617 -0.6244,-1.375 -1.4,-1.375 l -25.2,0 c -0.7756,0 -1.4,0.6133 -1.4,1.375 l 0,19.25 c 0,0.7617 0.6244,1.375 1.4,1.375 l 25.2,0 c 0.7756,0 1.4,-0.6132 1.4,-1.375 z"/>
  <path style="fill:#fabd7f" d="m 30,1048.9872 0,-19.25 c 0,-0.7617 -0.6244,-1.375 -1.4,-1.375 l -25.2,0 c -0.7756,0 -1.4,0.6133 -1.4,1.375 l 0,19.25 c 0,0.7618 0.6244,1.375 1.4,1.375 l 25.2,0 c 0.7756,0 1.4,-0.6132 1.4,-1.375 z"/>
  <path style="fill:#8b9cbe;opacity:0.1" transform="translate(0,1020.3622)" d="M 3.4003906 2 C 2.6247906 2 2 2.6133 2 3.375 L 2 4.375 C 2 3.6133 2.6247906 3 3.4003906 3 L 28.599609 3 C 29.375209 3 30 3.6132 30 4.375 L 30 3.375 C 30 2.6132 29.375209 2 28.599609 2 L 3.4003906 2 z"/>
  <path style="fill:#8b9cbe;opacity:0.2" transform="translate(0,1020.3622)" d="M 3.4003906 5 C 2.6247906 5 2 5.6133 2 6.375 L 2 7.375 C 2 6.6133 2.6247906 6 3.4003906 6 L 28.599609 6 C 29.375209 6 30 6.6133 30 7.375 L 30 6.375 C 30 5.6133 29.375209 5 28.599609 5 L 3.4003906 5 z"/>
  <path style="fill:#8b9cbe;opacity:0.2" transform="translate(0,1020.3622)" d="M 3.4003906 8 C 2.6247906 8 2 8.6133 2 9.375 L 2 10.375 C 2 9.6133 2.6247906 9 3.4003906 9 L 28.599609 9 C 29.375209 9 30 9.6133 30 10.375 L 30 9.375 C 30 8.6133 29.375209 8 28.599609 8 L 3.4003906 8 z"/>
 </g>
</svg>
