<svg width="32" height="32" version="1.1" xmlns="http://www.w3.org/2000/svg">
 <rect x="2" y="3" width="28" height="28" rx="1.4" ry="1.4" style="opacity:.2"/>
 <rect x="2" y="2" width="28" height="28" rx="1.4" ry="1.4" style="fill:#b2bfd9"/>
 <path d="m13 8-4 18h3l4-18h-3zm7 0-4 18h3l4-18h-3z" style="opacity:.1"/>
 <path d="m13 7h3l-4 18h-3z" style="fill:#8e8e8e"/>
 <path d="m20 7h3l-4 18h-3z" style="fill:#8e8e8e"/>
 <path d="m3.4003906 2c-0.7756 0-1.4003906 0.6247906-1.4003906 1.4003906v1c0-0.7756 0.6247906-1.4003906 1.4003906-1.4003906h25.199218c0.7756 0 1.400391 0.6247906 1.400391 1.4003906v-1c0-0.7756-0.624791-1.4003906-1.400391-1.4003906h-25.199218z" style="fill:#8b9cbe;opacity:.2"/>
</svg>
