<svg width="32" height="32" version="1.1" xmlns="http://www.w3.org/2000/svg">
 <circle cx="16" cy="17" r="14" style="opacity:.2"/>
 <circle cx="16" cy="16" r="14" style="fill:#3a3751"/>
 <path d="M 16,2 A 14,14 0 0 0 2,16 14,14 0 0 0 2.0215,16.586 14,14 0 0 1 16,3 14,14 0 0 1 29.979,16.414 14,14 0 0 0 30,16 14,14 0 0 0 16,2 Z" style="fill:#8b9cbe;opacity:.1"/>
 <path d="m22.73656 11.000098c0.756851-0.05349 1.403584 0.389582 1.363892 1.261262-0.0937 0.839561-0.416946 1.636897-0.620905 2.455961-0.0977 0.734351-0.633044 1.37387-1.335547 1.272518-0.649319 0.03698-1.045275-0.696777-1.138955-1.307053-0.169242-0.483848-0.214421-1.129624-0.507733-1.554395-0.532917-0.191608-1.124559-0.07108-1.685278-0.105104h-0.980491l-1.194265 3.961838c0.54496 0.03492 1.124142 0.156691 1.506191-0.281286 0.63184-0.497439 1.296367-0.861689 2.188566-0.585725 0.616733 0.18636 0.668033 0.715242 0.446376 1.219445-0.326392 1.075851-0.754383 2.044765-1.10638 3.112057-0.217555 0.744188-1.222487 1.062289-1.800061 0.517643-0.482686-0.423764-0.420461-1.541325-0.922802-1.93227-0.287025-0.04582-0.696066-0.0956-0.942088-0.0063-0.300683 1.11072-0.656361 2.107423-0.91408 3.227147-0.226448 0.874123 1.503887 1.655455 0.755204 2.508935-0.687453 0.374254-1.508457 0.191101-2.261065 0.235172-1.501006-0.0074-3.302719 0.01512-4.803154-0.01182-0.995892 0.06225-0.929422-1.713384-0.07997-1.919284 0.744378-0.409962 1.0789303-1.01487 1.329723-1.733107 0.797123-2.780621 1.623915-5.353612 2.402287-8.138962 0.283362-0.740348-0.899675-1.398794-0.07903-2.007507 0.719088-0.314559 1.428256-0.146065 2.190882-0.18919h8.188682z" style="opacity:.2"/>
 <path d="m22.73656 10.000259c0.756851-0.053491 1.403584 0.389582 1.363892 1.261262-0.0937 0.839561-0.416946 1.636897-0.620905 2.455961-0.0977 0.734351-0.633044 1.37387-1.335547 1.272518-0.649319 0.03698-1.045275-0.696777-1.138955-1.307053-0.169242-0.483848-0.214421-1.129624-0.507733-1.554395-0.532917-0.191608-1.124559-0.07108-1.685278-0.105104h-0.980491l-1.194265 3.961838c0.54496 0.03492 1.124142 0.156691 1.506191-0.281286 0.63184-0.497439 1.296367-0.861689 2.188566-0.585725 0.616733 0.18636 0.668033 0.715242 0.446376 1.219445-0.326392 1.075851-0.754383 2.044765-1.10638 3.112057-0.217555 0.744188-1.222487 1.062289-1.800061 0.517643-0.482686-0.423764-0.420461-1.541325-0.922802-1.93227-0.287025-0.04582-0.696066-0.0956-0.942088-0.0063-0.300683 1.11072-0.656361 2.107423-0.91408 3.227147-0.226448 0.874123 1.503887 1.655455 0.755204 2.508935-0.687453 0.374254-1.508457 0.191101-2.261065 0.235172-1.501006-0.0074-3.302719 0.01512-4.803154-0.01182-0.995892 0.062253-0.929422-1.713384-0.07997-1.919284 0.744378-0.409962 1.0789303-1.01487 1.329723-1.733107 0.797123-2.780621 1.623915-5.353612 2.402287-8.138962 0.283362-0.740348-0.899675-1.398794-0.07903-2.007507 0.719088-0.3145585 1.428256-0.146065 2.190882-0.18919h8.188682z" style="fill:#8b9cbe"/>
</svg>
