<svg xmlns="http://www.w3.org/2000/svg" width="32" height="32" version="1.1">
 <rect style="opacity:0.2" width="28" height="28" x="2" y="3" rx="1.4" ry="1.4"/>
 <rect style="fill:#4f4f4f" width="28" height="28" x="2" y="2" rx="1.4" ry="1.4"/>
 <path style="opacity:0.2" d="M 14.999609,6.6972656 V 13 h 2 V 8.9648438 L 17.698828,8.4746094 Z M 11.974218,9.46875 11.857031,11.601562 9.6148438,11.599609 11.064062,11 H 1.65 L 6.9039063,11.599609 5.0777344,13 h 8.9218746 v -2.6875 z m 8.050782,0 -2.025391,0.84375 V 13 h 8.921875 L 25.095312,11.599609 30.349218,11 h -9.414062 l 1.449219,0.599609 -2.242188,0.002 z M 9.9,14 l 2.099609,1.619141 v 11.99414 l 3,-2.097656 v 2.113281 l 5,-3.992187 v -7.97461 L 22.099218,14 h -4.099609 v 8.736328 L 17.021093,23.753906 16.978125,14 h -1.978516 v 8.757812 L 14.023047,23.753906 13.976171,14 Z"/>
 <path style="fill:#dc4043" d="M 14.999609,5.6972656 V 12 h 2 V 7.9648438 L 17.698828,7.4746094 Z M 11.974218,8.46875 11.857031,10.601562 9.6148438,10.599609 11.064062,10 H 1.65 L 6.9039063,10.599609 5.0777344,12 H 13.999609 V 9.3125 Z m 8.050782,0 -2.025391,0.84375 V 12 h 8.921875 L 25.095312,10.599609 30.349218,10 h -9.414062 l 1.449219,0.599609 -2.242188,0.002 z M 9.9,13 l 2.099609,1.619141 v 11.99414 l 3,-2.097656 v 2.113281 l 5,-3.992187 v -7.97461 L 22.099218,13 h -4.099609 v 8.736328 L 17.021093,22.753906 16.978125,13 h -1.978516 v 8.757812 L 14.023047,22.753906 13.976171,13 Z"/>
 <path style="fill:#8b9cbe;opacity:0.1" d="M 3.4003906 2 C 2.6247906 2 2 2.6247906 2 3.4003906 L 2 4.4003906 C 2 3.6247906 2.6247906 3 3.4003906 3 L 28.599609 3 C 29.375209 3 30 3.6247906 30 4.4003906 L 30 3.4003906 C 30 2.6247906 29.375209 2 28.599609 2 L 3.4003906 2 z"/>
</svg>
