<svg xmlns="http://www.w3.org/2000/svg" width="32" height="32" version="1">
 <rect style="opacity:0.2" width="29" height="29" x="2" y="2" rx="1.45" ry="1.45"/>
 <rect style="fill:#558ef4" width="29" height="29" x="2" y="1" rx="1.45" ry="1.45"/>
 <path style="opacity:0.2;fill:none;stroke:#040404;stroke-width:3;stroke-linecap:round;stroke-linejoin:round" d="M 7.5005,9.4998679 V 22.699868 c 0,0 0.3625,1.8125 2.175,0 l 6.824573,-8.2 6.825427,8.2 c 1.8125,1.8125 2.175,0 2.175,0 l -1.52e-4,-13.2"/>
 <path style="fill:none;stroke:#8b9cbe;stroke-width:3;stroke-linecap:round;stroke-linejoin:round" d="m 7.5005,8.5 v 13.2 c 0,0 0.3625,1.8125 2.175,0 l 6.824573,-8.2 6.825427,8.2 c 1.8125,1.8125 2.175,0 2.175,0 L 25.500348,8.5000001"/>
 <path style="fill:#8b9cbe;opacity:0.2" d="M 3.4492188 1 C 2.6459187 1 2 1.6459187 2 2.4492188 L 2 3.4492188 C 2 2.6459187 2.6459187 2 3.4492188 2 L 29.550781 2 C 30.354081 2 31 2.6459187 31 3.4492188 L 31 2.4492188 C 31 1.6459187 30.354081 1 29.550781 1 L 3.4492188 1 z"/>
</svg>
