<svg xmlns="http://www.w3.org/2000/svg" width="32" height="32" version="1">
 <circle style="fill:#f57c00" cx="16" cy="16" r="13.5"/>
 <circle style="opacity:0.2" cx="16" cy="17" r="14"/>
 <path style="fill:#1e88e5" d="M 15.999999,16 29.537633,12.375673 A 14.014114,14.005127 0 0 0 19.622648,2.4890539 Z"/>
 <path style="fill:#43a047" d="m 15.999999,16 9.909981,9.903625 a 14.014114,14.005127 0 0 0 3.609635,-13.52395 z"/>
 <path style="fill:#fbc02d" d="M 15.999999,16 12.372346,29.527952 A 14.014114,14.005127 0 0 0 25.896967,25.890621 Z"/>
 <path style="fill:#f57c00" d="M 15.999999,16 2.4623662,19.624327 a 14.014114,14.005127 0 0 0 9.9149848,9.886619 z"/>
 <path style="fill:#e53935" d="M 15.999999,16 6.0900196,6.0963745 A 14.014114,14.005127 0 0 0 2.4803843,19.620325 Z"/>
 <path style="fill:#8e24aa" d="M 15.999999,16 19.627653,2.4720477 A 14.014114,14.005127 0 0 0 6.1030327,6.1093793 Z"/>
 <path style="opacity:0.2" d="m 16,9 a 8,8 0 1 0 8,8 V 11 C 24,9.892 23.108,9 22,9 Z m 4.5,2 A 1.5,1.5 0 0 1 22,12.5 1.5,1.5 0 0 1 20.5,13.999999 1.5,1.5 0 0 1 19.000001,12.5 1.5,1.5 0 0 1 20.5,11 Z"/>
 <path style="fill:#8b9cbe" d="m 16,8 a 8,8 0 1 0 8,8 V 10 C 24,8.892 23.108,8 22,8 Z m 4.5,2 A 1.5,1.5 0 0 1 22,11.5 1.5,1.5 0 0 1 20.5,12.999999 1.5,1.5 0 0 1 19.000001,11.5 1.5,1.5 0 0 1 20.5,10 Z"/>
 <path style="opacity:0.2;fill:#8b9cbe" d="M 16 2 A 14 14 0 0 0 2 16 A 14 14 0 0 0 2.0214844 16.585938 A 14 14 0 0 1 16 3 A 14 14 0 0 1 29.978516 16.414062 A 14 14 0 0 0 30 16 A 14 14 0 0 0 16 2 z"/>
</svg>
