<svg xmlns="http://www.w3.org/2000/svg" width="32" height="32" version="1">
 <path style="opacity:0.2" d="M 2.45,31 C 1.6467,31 1,30.3533 1,29.55 V 3.45 C 1,2.6467 1.6467,2 2.45,2 H 18 L 30,14 V 29.55 C 30,30.3533 29.3533,31 28.55,31 Z"/>
 <path style="fill:#2663b2" d="M 2.45,30 C 1.6467,30 1,29.3533 1,28.55 V 2.45 C 1,1.6467 1.6467,1 2.45,1 H 18 L 30,13 V 28.55 C 30,29.3533 29.3533,30 28.55,30 Z"/>
 <path style="opacity:0.2" d="m 15.5,6 c -0.34955,0 -0.692479,0.026964 -1.033203,0.060547 a 10.5,10.5 0 0 0 -0.421875,0.050781 c -0.233745,0.032687 -0.464822,0.075148 -0.69336,0.1230469 a 10.5,10.5 0 0 0 -0.449218,0.1015625 c -0.226437,0.05806 -0.447698,0.124687 -0.667969,0.1972656 a 10.5,10.5 0 0 0 -0.386719,0.1289063 c -0.285365,0.1066125 -0.564872,0.2272401 -0.83789,0.3574218 A 10.5,10.5 0 0 0 10.84375,7.09375 C 9.4580393,7.7842573 8.2454934,8.7717572 7.2890625,9.9726562 A 10.5,10.5 0 0 0 6.703125,10.783203 c -0.010831,0.01662 -0.020509,0.0341 -0.03125,0.05078 -0.2099656,0.326054 -0.3984008,0.666522 -0.5722656,1.015625 A 10.5,10.5 0 0 0 5.9375,12.183594 c -0.067721,0.148951 -0.1305225,0.300593 -0.1914062,0.453125 a 10.5,10.5 0 0 0 -0.1796876,0.492187 c -0.037432,0.109431 -0.079405,0.217111 -0.1132812,0.328125 -0.00121,0.004 -0.00271,0.0078 -0.00391,0.01172 A 10.5,10.5 0 0 0 5.234375,14.316406 c -0.019618,0.0917 -0.035546,0.184775 -0.052734,0.277344 A 10.5,10.5 0 0 0 5.078125,15.289062 c -0.010232,0.08789 -0.023224,0.175132 -0.03125,0.263672 A 10.5,10.5 0 0 0 5,16.5 c 0,0.25908 0.010643,0.515242 0.029297,0.769531 3.309e-4,0.0045 -3.367e-4,0.0092 0,0.01367 a 10.5,10.5 0 0 0 0.1113281,0.898438 c 0.015611,0.09578 0.03453,0.190262 0.052734,0.285156 a 10.5,10.5 0 0 0 0.1464844,0.652344 c 0.026084,0.100468 0.051104,0.2015 0.080078,0.300781 a 10.5,10.5 0 0 0 0.2246093,0.679687 c 0.066881,0.181685 0.1403199,0.360252 0.2167969,0.53711 a 10.5,10.5 0 0 0 0.1757813,0.392578 c 0.080002,0.165999 0.1636629,0.329157 0.2519531,0.490234 a 10.5,10.5 0 0 0 0.1132813,0.197266 c 0.097168,0.168575 0.1947809,0.337394 0.3007812,0.5 -0.00198,0.0014 -0.00388,0.0025 -0.00586,0.0039 a 10.5,10.5 0 0 0 0.5839844,0.8125 c 0.00283,-0.002 0.00498,-0.0038 0.00781,-0.0059 0.4811925,0.604165 1.0267242,1.154915 1.6269531,1.640625 0.2852329,0.230812 0.5839642,0.444087 0.8925782,0.644531 a 10.5,10.5 0 0 0 0.1582031,0.0957 c 0.2526191,0.157836 0.5129611,0.305075 0.7792971,0.441406 a 10.5,10.5 0 0 0 0.298828,0.144532 c 0.229655,0.108491 0.464734,0.208866 0.703125,0.300781 a 10.5,10.5 0 0 0 0.390625,0.142578 c 0.217572,0.07402 0.438392,0.137454 0.662109,0.197266 a 10.5,10.5 0 0 0 0.433594,0.111328 c 0.242857,0.05379 0.491368,0.09235 0.740234,0.128906 a 10.5,10.5 0 0 0 0.378907,0.05664 C 14.73044,26.972887 15.112102,27 15.5,27 c 0.343047,0 0.679084,-0.02626 1.013672,-0.05859 a 10.5,10.5 0 0 0 0.447266,-0.05469 c 0.229165,-0.03218 0.455519,-0.07235 0.679687,-0.119141 a 10.5,10.5 0 0 0 0.441406,-0.09961 c 0.215891,-0.05498 0.428351,-0.119326 0.638672,-0.1875 a 10.5,10.5 0 0 0 0.431641,-0.142578 c 0.256224,-0.09561 0.505621,-0.205661 0.751953,-0.320313 a 10.5,10.5 0 0 0 0.236328,-0.105469 c 1.371134,-0.679941 2.574273,-1.647806 3.527344,-2.828125 a 10.5,10.5 0 0 0 0.591797,-0.80664 c 0.140031,-0.21168 0.273594,-0.428477 0.398437,-0.650391 0.06955,-0.123621 0.13067,-0.252284 0.195313,-0.378906 a 10.5,10.5 0 0 0 0.21289,-0.439453 c 0.05783,-0.12761 0.113198,-0.256472 0.166016,-0.386719 a 10.5,10.5 0 0 0 0.238281,-0.650391 c 0.02223,-0.06733 0.04747,-0.133245 0.06836,-0.201172 a 10.5,10.5 0 0 0 0.002,-0.0039 10.5,10.5 0 0 0 0.224609,-0.878906 c 0.0188,-0.08795 0.03421,-0.176879 0.05078,-0.265625 a 10.5,10.5 0 0 0 0.109375,-0.726563 c 0.0089,-0.07802 0.01819,-0.15584 0.02539,-0.234374 A 10.5,10.5 0 0 0 26,16.5 c 0,-0.257635 -0.0089,-0.512691 -0.02734,-0.765625 a 10.5,10.5 0 0 0 -0.115234,-0.935547 c -0.01393,-0.08471 -0.03092,-0.167942 -0.04687,-0.251953 A 10.5,10.5 0 0 0 25.65625,13.865234 c -0.025,-0.09592 -0.04853,-0.192271 -0.07617,-0.287109 a 10.5,10.5 0 0 0 -0.257812,-0.775391 c -0.01069,-0.02822 -0.01837,-0.05784 -0.0293,-0.08594 -0.03147,-0.08097 -0.0701,-0.15829 -0.103516,-0.238281 a 10.5,10.5 0 0 0 -0.25,-0.558594 c -0.06627,-0.135772 -0.135177,-0.269895 -0.207031,-0.402344 a 10.5,10.5 0 0 0 -0.216797,-0.378906 c -0.0835,-0.139805 -0.166186,-0.280461 -0.255859,-0.416016 7.72e-4,-5.66e-4 0.0012,-0.0014 0.002,-0.002 A 10.5,10.5 0 0 0 23.671875,9.9121094 c -0.0016,0.00116 -0.0023,0.00274 -0.0039,0.00391 C 23.190869,9.325158 22.650463,8.7882359 22.058594,8.3125 A 10.5,10.5 0 0 0 22,8.2675781 C 21.737286,8.0594134 21.463768,7.8643612 21.181641,7.6816406 A 10.5,10.5 0 0 0 20.958984,7.5449219 C 20.725111,7.401575 20.485672,7.2676422 20.240234,7.1425781 A 10.5,10.5 0 0 0 19.921875,6.9902344 C 19.704511,6.8885793 19.482951,6.7938893 19.257812,6.7070312 A 10.5,10.5 0 0 0 18.832031,6.5527344 c -0.213183,-0.071735 -0.43135,-0.13328 -0.65039,-0.1914063 A 10.5,10.5 0 0 0 17.759766,6.2539062 C 17.522397,6.2014787 17.280209,6.1629384 17.037109,6.1269531 a 10.5,10.5 0 0 0 -0.404297,-0.0625 C 16.260138,6.0241841 15.883347,6 15.5,6 Z m 0.494141,1.078125 c 0.9424,0.23372 1.86219,1.1216444 2.59375,2.5839844 0.28795,0.5755796 0.524525,1.2554196 0.734375,1.9746096 -1.02434,0.20536 -2.152675,0.318379 -3.328125,0.349609 z m -1,0.00391 v 4.9082028 c -1.17186,-0.0252 -2.297206,-0.133441 -3.322266,-0.332031 0.21103,-0.72746 0.449474,-1.414884 0.740234,-1.9960936 0.7285,-1.45623 1.643772,-2.3418381 2.582032,-2.5800782 z m -2.273438,0.3320313 c -0.4523,0.49969 -0.857225,1.1093513 -1.203125,1.8007813 -0.32891,0.6574599 -0.608401,1.3992682 -0.83789,2.1992182 C 9.8865875,11.207803 9.1401319,10.970084 8.5136719,10.677734 8.3822819,10.616434 8.2646781,10.552251 8.1425781,10.488281 9.3165481,9.0525712 10.901493,7.9685125 12.720703,7.4140625 Z m 5.558594,0 c 1.80146,0.54904 3.374452,1.61634 4.544922,3.0312505 -0.14682,0.0789 -0.294338,0.157411 -0.455078,0.232421 -0.59814,0.27914 -1.305691,0.507885 -2.056641,0.708985 -0.22807,-0.78932 -0.504958,-1.5219852 -0.830078,-2.1718752 -0.3459,-0.6914301 -0.750825,-1.3010913 -1.203125,-1.8007813 z m 5.144531,3.8457035 c 0.90866,1.37257 1.460891,2.996873 1.550781,4.746093 h -3.986328 c -0.0308,-1.28282 -0.176438,-2.506026 -0.423828,-3.628906 0.81081,-0.21624 1.560503,-0.480195 2.226563,-0.791015 0.21973,-0.102551 0.429602,-0.213112 0.632812,-0.326172 z m -15.8749999,0.04492 c 0.17666,0.0959 0.3542288,0.19317 0.5429688,0.28125 0.69589,0.324749 1.4828575,0.599162 2.3359371,0.820312 -0.24342,1.11462 -0.385505,2.328229 -0.416015,3.599609 H 6.0253906 c 0.0889,-1.73063 0.6317475,-3.337932 1.5234375,-4.701171 z m 12.0351559,1.302734 c 0.22976,1.04601 0.371264,2.190967 0.402344,3.398437 h -3.992187 v -3.019531 c 1.26535,-0.0315 2.479883,-0.152236 3.589843,-0.378906 z m -8.175781,0.02344 c 1.11053,0.21951 2.323858,0.334015 3.585938,0.359375 v 3.015625 h -3.980469 c 0.0308,-1.19782 0.168011,-2.33573 0.394531,-3.375 z m -5.3828124,4.375 h 3.9863284 c 0.0304,1.26691 0.172172,2.476501 0.414062,3.587891 -0.8523797,0.22129 -1.6385841,0.497736 -2.3339841,0.822266 -0.18868,0.088 -0.3663588,0.183476 -0.5429688,0.279296 -0.88968,-1.36018 -1.4326275,-2.963273 -1.5234375,-4.689453 z m 4.9882814,0 h 3.980469 v 3.003907 c -1.26281,0.0254 -2.476831,0.139335 -3.587891,0.359375 -0.22499,-1.03603 -0.361868,-2.170082 -0.392578,-3.363282 z m 4.980469,0 h 3.992187 c -0.031,1.20338 -0.170047,2.345512 -0.398437,3.388672 -1.11112,-0.22747 -2.32681,-0.349299 -3.59375,-0.380859 z m 4.99414,0 h 3.986328 c -0.0918,1.74476 -0.644151,3.364855 -1.550781,4.734375 -0.20319,-0.11305 -0.413102,-0.221688 -0.632812,-0.324218 -0.66494,-0.31031 -1.413427,-0.574766 -2.222657,-0.791016 0.24603,-1.12005 0.389232,-2.340251 0.419922,-3.619141 z m -5.99414,4.003907 v 4.919922 c -0.93842,-0.23764 -1.853412,-1.123619 -2.582032,-2.580079 -0.29232,-0.58433 -0.53245,-1.275762 -0.74414,-2.007812 1.02607,-0.19901 2.152922,-0.306781 3.326172,-0.332031 z m 1,0.0039 c 1.17712,0.0313 2.306511,0.145692 3.332031,0.351562 -0.21041,0.72307 -0.449011,1.406155 -0.738281,1.984375 -0.73168,1.46257 -1.65119,2.350865 -2.59375,2.583985 z m -5.31836,0.574219 c 0.23001,0.80389 0.511497,1.548734 0.841797,2.208984 0.34311,0.68585 0.743556,1.289979 1.191406,1.787109 -1.8145,-0.55549 -3.3948659,-1.639515 -4.5664059,-3.072265 0.1221,-0.064 0.2397038,-0.128143 0.3710938,-0.189453 0.62538,-0.29185 1.3706293,-0.528295 2.1621091,-0.734375 z m 9.640625,0.02734 c 0.74935,0.2009 1.455675,0.428402 2.052735,0.707032 0.16074,0.075 0.308258,0.153452 0.455078,0.232422 -1.16803,1.41196 -2.736443,2.479236 -4.533203,3.029296 0.44785,-0.49713 0.848296,-1.101259 1.191406,-1.787109 0.32652,-0.65268 0.605384,-1.388401 0.833984,-2.181641 z"/>
 <path style="fill:#8b9cbe" d="M 15.5 5 C 15.15045 5 14.807521 5.0269643 14.466797 5.0605469 A 10.5 10.5 0 0 0 14.044922 5.1113281 C 13.811177 5.1440154 13.5801 5.1864764 13.351562 5.234375 A 10.5 10.5 0 0 0 12.902344 5.3359375 C 12.675907 5.3939971 12.454646 5.4606245 12.234375 5.5332031 A 10.5 10.5 0 0 0 11.847656 5.6621094 C 11.562291 5.7687219 11.282784 5.8893495 11.009766 6.0195312 A 10.5 10.5 0 0 0 10.84375 6.09375 C 9.4580393 6.7842573 8.2454934 7.7717572 7.2890625 8.9726562 A 10.5 10.5 0 0 0 6.703125 9.7832031 C 6.6922936 9.7998187 6.6826159 9.817305 6.671875 9.8339844 C 6.4619094 10.160038 6.2734742 10.500506 6.0996094 10.849609 A 10.5 10.5 0 0 0 5.9375 11.183594 C 5.8697788 11.332545 5.8069775 11.484187 5.7460938 11.636719 A 10.5 10.5 0 0 0 5.5664062 12.128906 C 5.5289739 12.238337 5.4870016 12.346017 5.453125 12.457031 C 5.4519196 12.460982 5.4504196 12.464798 5.4492188 12.46875 A 10.5 10.5 0 0 0 5.234375 13.316406 C 5.2147572 13.408104 5.1988293 13.501181 5.1816406 13.59375 A 10.5 10.5 0 0 0 5.078125 14.289062 C 5.0678925 14.376948 5.054901 14.464194 5.046875 14.552734 A 10.5 10.5 0 0 0 5 15.5 C 5 15.75908 5.0106427 16.015242 5.0292969 16.269531 C 5.0296278 16.274043 5.0289602 16.278693 5.0292969 16.283203 A 10.5 10.5 0 0 0 5.140625 17.181641 C 5.1562356 17.277426 5.1751549 17.371903 5.1933594 17.466797 A 10.5 10.5 0 0 0 5.3398438 18.119141 C 5.3659274 18.219609 5.3909482 18.320641 5.4199219 18.419922 A 10.5 10.5 0 0 0 5.6445312 19.099609 C 5.7114124 19.281294 5.7848511 19.459861 5.8613281 19.636719 A 10.5 10.5 0 0 0 6.0371094 20.029297 C 6.1171116 20.195296 6.2007723 20.358454 6.2890625 20.519531 A 10.5 10.5 0 0 0 6.4023438 20.716797 C 6.4995116 20.885372 6.5971247 21.054191 6.703125 21.216797 C 6.7011402 21.218208 6.6992479 21.219291 6.6972656 21.220703 A 10.5 10.5 0 0 0 7.28125 22.033203 C 7.2840773 22.031178 7.2862272 22.029367 7.2890625 22.027344 C 7.770255 22.631509 8.3157867 23.182259 8.9160156 23.667969 C 9.2012485 23.898781 9.4999798 24.112056 9.8085938 24.3125 A 10.5 10.5 0 0 0 9.9667969 24.408203 C 10.219416 24.566039 10.479758 24.713278 10.746094 24.849609 A 10.5 10.5 0 0 0 11.044922 24.994141 C 11.274577 25.102632 11.509656 25.203007 11.748047 25.294922 A 10.5 10.5 0 0 0 12.138672 25.4375 C 12.356244 25.511517 12.577064 25.574954 12.800781 25.634766 A 10.5 10.5 0 0 0 13.234375 25.746094 C 13.477232 25.799882 13.725743 25.838446 13.974609 25.875 A 10.5 10.5 0 0 0 14.353516 25.931641 C 14.73044 25.972887 15.112102 26 15.5 26 C 15.843047 26 16.179084 25.973743 16.513672 25.941406 A 10.5 10.5 0 0 0 16.960938 25.886719 C 17.190103 25.85454 17.416457 25.814373 17.640625 25.767578 A 10.5 10.5 0 0 0 18.082031 25.667969 C 18.297922 25.612991 18.510382 25.548643 18.720703 25.480469 A 10.5 10.5 0 0 0 19.152344 25.337891 C 19.408568 25.24228 19.657965 25.13223 19.904297 25.017578 A 10.5 10.5 0 0 0 20.140625 24.912109 C 21.511759 24.232168 22.714898 23.264303 23.667969 22.083984 A 10.5 10.5 0 0 0 24.259766 21.277344 C 24.399797 21.065664 24.53336 20.848867 24.658203 20.626953 C 24.727749 20.503332 24.788873 20.374669 24.853516 20.248047 A 10.5 10.5 0 0 0 25.066406 19.808594 C 25.124236 19.680984 25.179604 19.552122 25.232422 19.421875 A 10.5 10.5 0 0 0 25.470703 18.771484 C 25.492929 18.704149 25.518173 18.638239 25.539062 18.570312 A 10.5 10.5 0 0 0 25.541016 18.566406 A 10.5 10.5 0 0 0 25.765625 17.6875 C 25.784425 17.599554 25.799836 17.510621 25.816406 17.421875 A 10.5 10.5 0 0 0 25.925781 16.695312 C 25.934714 16.61729 25.943972 16.539472 25.951172 16.460938 A 10.5 10.5 0 0 0 26 15.5 C 26 15.242365 25.991055 14.987309 25.972656 14.734375 A 10.5 10.5 0 0 0 25.857422 13.798828 C 25.843497 13.714121 25.826499 13.630886 25.810547 13.546875 A 10.5 10.5 0 0 0 25.65625 12.865234 C 25.631246 12.769312 25.607716 12.672963 25.580078 12.578125 A 10.5 10.5 0 0 0 25.322266 11.802734 C 25.311578 11.774518 25.303892 11.744898 25.292969 11.716797 C 25.261495 11.635826 25.222864 11.558507 25.189453 11.478516 A 10.5 10.5 0 0 0 24.939453 10.919922 C 24.873186 10.78415 24.804276 10.650027 24.732422 10.517578 A 10.5 10.5 0 0 0 24.515625 10.138672 C 24.432123 9.9988668 24.349439 9.8582109 24.259766 9.7226562 C 24.260538 9.7220901 24.260947 9.7212695 24.261719 9.7207031 A 10.5 10.5 0 0 0 23.671875 8.9121094 C 23.6703 8.9132735 23.669546 8.914852 23.667969 8.9160156 C 23.190869 8.325158 22.650463 7.7882359 22.058594 7.3125 A 10.5 10.5 0 0 0 22 7.2675781 C 21.737286 7.0594134 21.463768 6.8643612 21.181641 6.6816406 A 10.5 10.5 0 0 0 20.958984 6.5449219 C 20.725111 6.401575 20.485672 6.2676422 20.240234 6.1425781 A 10.5 10.5 0 0 0 19.921875 5.9902344 C 19.704511 5.8885793 19.482951 5.7938893 19.257812 5.7070312 A 10.5 10.5 0 0 0 18.832031 5.5527344 C 18.618848 5.4809992 18.400681 5.4194544 18.181641 5.3613281 A 10.5 10.5 0 0 0 17.759766 5.2539062 C 17.522397 5.2014787 17.280209 5.1629384 17.037109 5.1269531 A 10.5 10.5 0 0 0 16.632812 5.0644531 C 16.260138 5.0241841 15.883347 5 15.5 5 z M 15.994141 6.078125 C 16.936541 6.311845 17.856331 7.1997694 18.587891 8.6621094 C 18.875841 9.2376894 19.112416 9.9175288 19.322266 10.636719 C 18.297926 10.842079 17.169591 10.955098 15.994141 10.986328 L 15.994141 6.078125 z M 14.994141 6.0820312 L 14.994141 10.990234 C 13.822281 10.965034 12.696935 10.856793 11.671875 10.658203 C 11.882905 9.9307431 12.121349 9.2433194 12.412109 8.6621094 C 13.140609 7.2058794 14.055881 6.3202713 14.994141 6.0820312 z M 12.720703 6.4140625 C 12.268403 6.9137525 11.863478 7.5234138 11.517578 8.2148438 C 11.188668 8.8723037 10.909177 9.6141125 10.679688 10.414062 C 9.8865875 10.207803 9.1401319 9.9700844 8.5136719 9.6777344 C 8.3822819 9.6164344 8.2646781 9.5522513 8.1425781 9.4882812 C 9.3165481 8.0525712 10.901493 6.9685125 12.720703 6.4140625 z M 18.279297 6.4140625 C 20.080757 6.9631025 21.653749 8.0304025 22.824219 9.4453125 C 22.677399 9.5242125 22.529881 9.6027244 22.369141 9.6777344 C 21.771001 9.9568744 21.06345 10.185619 20.3125 10.386719 C 20.08443 9.5973987 19.807542 8.8647338 19.482422 8.2148438 C 19.136522 7.5234137 18.731597 6.9137525 18.279297 6.4140625 z M 23.423828 10.259766 C 24.332488 11.632336 24.884719 13.256639 24.974609 15.005859 L 20.988281 15.005859 C 20.957481 13.723039 20.811843 12.499833 20.564453 11.376953 C 21.375263 11.160713 22.124956 10.896758 22.791016 10.585938 C 23.010746 10.483387 23.220618 10.372826 23.423828 10.259766 z M 7.5488281 10.304688 C 7.7254881 10.400588 7.9030569 10.497858 8.0917969 10.585938 C 8.7876869 10.910687 9.5746544 11.1851 10.427734 11.40625 C 10.184314 12.52087 10.042229 13.734479 10.011719 15.005859 L 6.0253906 15.005859 C 6.1142906 13.275229 6.6571381 11.667927 7.5488281 10.304688 z M 19.583984 11.607422 C 19.813744 12.653432 19.955248 13.798389 19.986328 15.005859 L 15.994141 15.005859 L 15.994141 11.986328 C 17.259491 11.954828 18.474024 11.834092 19.583984 11.607422 z M 11.408203 11.630859 C 12.518733 11.850369 13.732061 11.964874 14.994141 11.990234 L 14.994141 15.005859 L 11.013672 15.005859 C 11.044472 13.808039 11.181683 12.670129 11.408203 11.630859 z M 6.0253906 16.005859 L 10.011719 16.005859 C 10.042119 17.272769 10.183891 18.48236 10.425781 19.59375 C 9.5734013 19.81504 8.7871969 20.091486 8.0917969 20.416016 C 7.9031169 20.504016 7.7254381 20.599492 7.5488281 20.695312 C 6.6591481 19.335132 6.1162006 17.732039 6.0253906 16.005859 z M 11.013672 16.005859 L 14.994141 16.005859 L 14.994141 19.009766 C 13.731331 19.035166 12.51731 19.149101 11.40625 19.369141 C 11.18126 18.333111 11.044382 17.199059 11.013672 16.005859 z M 15.994141 16.005859 L 19.986328 16.005859 C 19.955328 17.209239 19.816281 18.351371 19.587891 19.394531 C 18.476771 19.167061 17.261081 19.045232 15.994141 19.013672 L 15.994141 16.005859 z M 20.988281 16.005859 L 24.974609 16.005859 C 24.882809 17.750619 24.330458 19.370714 23.423828 20.740234 C 23.220638 20.627184 23.010726 20.518546 22.791016 20.416016 C 22.126076 20.105706 21.377589 19.84125 20.568359 19.625 C 20.814389 18.50495 20.957591 17.284749 20.988281 16.005859 z M 14.994141 20.009766 L 14.994141 24.929688 C 14.055721 24.692048 13.140729 23.806069 12.412109 22.349609 C 12.119789 21.765279 11.879659 21.073847 11.667969 20.341797 C 12.694039 20.142787 13.820891 20.035016 14.994141 20.009766 z M 15.994141 20.013672 C 17.171261 20.044972 18.300652 20.159364 19.326172 20.365234 C 19.115762 21.088304 18.877161 21.771389 18.587891 22.349609 C 17.856211 23.812179 16.936701 24.700474 15.994141 24.933594 L 15.994141 20.013672 z M 10.675781 20.587891 C 10.905791 21.391781 11.187278 22.136625 11.517578 22.796875 C 11.860688 23.482725 12.261134 24.086854 12.708984 24.583984 C 10.894484 24.028494 9.3141181 22.944469 8.1425781 21.511719 C 8.2646781 21.447719 8.3822819 21.383576 8.5136719 21.322266 C 9.1390519 21.030416 9.8843012 20.793971 10.675781 20.587891 z M 20.316406 20.615234 C 21.065756 20.816134 21.772081 21.043636 22.369141 21.322266 C 22.529881 21.397266 22.677399 21.475718 22.824219 21.554688 C 21.656189 22.966648 20.087776 24.033924 18.291016 24.583984 C 18.738866 24.086854 19.139312 23.482725 19.482422 22.796875 C 19.808942 22.144195 20.087806 21.408474 20.316406 20.615234 z"/>
 <path style="fill:#5491dc" d="M 30,13 H 19.5 C 18.67155,13 18,12.32842 18,11.5 V 1 Z"/>
 <path style="opacity:0.2" d="m 18,11.5 v 1 c 0,0.82842 0.67155,1.5 1.5,1.5 H 30 l 0,-1 H 19.5 C 18.67155,13 18,12.32842 18,11.5 Z"/>
 <path style="fill:#8b9cbe;opacity:0.1" d="M 2.4492188 1 C 1.6459187 1 1 1.6459187 1 2.4492188 L 1 3.4492188 C 1 2.6459187 1.6459187 2 2.4492188 2 L 18 2 L 29 13 L 30 13 L 18 1 L 2.4492188 1 z"/>
</svg>
