<svg xmlns="http://www.w3.org/2000/svg" width="32" height="32" version="1">
 <path style="opacity:.2" d="m10 24h7l-7 7z"/>
 <path style="fill:#694088" d="m10 23h7l-7 7z"/>
 <rect style="opacity:.2" width="24" height="23" x="4" y="3" rx="8.486" ry="8.883"/>
 <rect style="fill:#924cc4" width="24" height="23" x="4" y="2" rx="8.486" ry="8.883"/>
 <path style="fill:#8b9cbe;opacity:.1" d="M 12.486328 2 C 7.7849076 2 4 5.9618157 4 10.882812 L 4 11.882812 C 4 6.9618157 7.7849076 3 12.486328 3 L 19.513672 3 C 24.215092 3 28 6.9618157 28 11.882812 L 28 10.882812 C 28 5.9618157 24.215092 2 19.513672 2 L 12.486328 2 z"/>
 <path style="opacity:.2" d="m17.621094 6.0007623 2e-3 0.00195c-0.338132 0-0.619824 0.2703891-0.623047 0.5976563-2e-3 0.3287588 0.278613 0.6037751 0.619141 0.6054687 1.469618 0.011037 2.678018 0.4766072 3.652343 1.3925781 0.962873 0.9074739 1.465717 2.1639735 1.478516 3.8046875v2e-3c0.0035 0.326426 0.28403 0.595703 0.623047 0.595703 3.5e-5 0 0.0055-0.0019 0.0059-2e-3 0.339777-0.0031 0.621893-0.276999 0.619141-0.605469-0.007754-0.9575679-0.162799-1.8376389-0.466885-2.6113246-0.307934-0.7818654-0.776623-1.4733752-1.386719-2.0488281-1.205756-1.1336807-2.745029-1.7199121-4.517578-1.7324219zm-6.914063 2.0136719c-0.236716-0.039759-0.492114 0.00586-0.7480466 0.1289062h-0.0214844l-0.027344 0.015625c-0.4754478 0.2702766-0.9222617 0.6315303-1.3398435 1.0859375l-0.033203 0.037109v0.03125c-0.2888507 0.3600797-0.4795323 0.7228741-0.5234376 1.0859381-0.014019 0.061532-0.0136719 0.118366-0.0136719 0.177734 0 0.165179 0.025235 0.331464 0.076172 0.496094l0.013672 0.04687 0.027344 0.01758c0.1649241 0.565675 0.5404835 1.444695 1.359375 2.935547 0.5454365 0.988126 1.1027165 1.814342 1.6562495 2.509765 0.291576 0.365489 0.620583 0.745601 1.003907 1.128907 0.0045 0.0046 0.02148 0.02126 0.03906 0.03711 0.0061 0.0061 0.01422 0.01811 0.03516 0.03906l0.03906 0.03906h2e-3c0.01349 0.01349 0.02337 0.02269 0.02539 0.02539l0.0059 0.0078 0.0078 0.0078c0.383343 0.379041 0.761256 0.710396 1.130859 1 0.694561 0.553373 1.519557 1.115781 2.507813 1.662109 1.492972 0.823381 2.382534 1.195334 2.945312 1.357422l0.01953 0.02539 0.03516 0.01172c0.159445 0.05314 0.324022 0.07669 0.488281 0.07422 0.06663 0.0036 0.125363-9.65e-4 0.18164-0.01367 0.385471-0.04506 0.768919-0.226328 1.146485-0.542969l0.0039-0.0059 0.0039-2e-3c0.0059-0.0058 0.0028-0.0039 0.0059-0.0078 0.0034-3e-3 0.0043-0.0067 0.0078-0.0098 0.446929-0.407773 0.80673-0.851273 1.078125-1.326172l0.01758-0.0293v-0.0293c0.249278-0.518925 0.151014-1.048969-0.253906-1.386719-0.0099-0.0085-0.20393-0.170495-0.445313-0.367187-0.24685-0.20109-0.54062-0.437037-0.738281-0.582032-0.373984-0.276571-0.95173-0.635075-1.28125-0.818359-0.632853-0.354305-1.294968-0.148216-1.585937 0.228516l-0.509766 0.638672c-0.205739 0.25915-0.617988 0.235011-0.628906 0.234375-3.460141-0.88992-4.389842-4.369796-4.396484-4.394532-6.18e-4 -0.01089-0.02499-0.42178 0.234374-0.630859l0.634766-0.507813c0.377749-0.289218 0.590624-0.951547 0.234375-1.585937-0.1859395-0.327834-0.5458445-0.9101771-0.8184525-1.2811047-0.147314-0.1983761-0.382752-0.4912015-0.583985-0.7382812-0.100135-0.1234917-0.193329-0.2376999-0.259765-0.3183594-0.0337-0.04033-0.05887-0.072891-0.07813-0.095703-0.0096-0.011403-0.01782-0.018839-0.02344-0.025391-0.0028-0.00329-0.0053-0.00507-0.0078-0.00781-0.17577-0.2087407-0.399762-0.336531-0.64649-0.3789085zm6.951172 0.7890625c-0.333503-0.023516-0.631933 0.2251218-0.65625 0.546875-0.02434 0.3221093 0.235233 0.6093324 0.568359 0.6328125 0.823804 0.058219 1.379142 0.3003778 1.796876 0.7421878v2e-3c0.426403 0.450008 0.621721 0.963732 0.605468 1.666015v0.0039c-0.0072 0.323177 0.262806 0.596434 0.597656 0.603516h0.01563c0.329961 0 0.603986-0.260981 0.611328-0.580078 0.02257-0.965375-0.290291-1.826307-0.923828-2.4941405-0.638005-0.6711475-1.540354-1.0466815-2.615239-1.1230878z"/>
 <path style="fill:#8b9cbe" d="m17.621094 5 0.001953 0.0019531c-0.338132 0-0.619824 0.2703891-0.623047 0.5976563-2e-3 0.3287588 0.278613 0.6037751 0.619141 0.6054687 1.469618 0.011037 2.678018 0.4766072 3.652343 1.3925781 0.962873 0.9074739 1.465717 2.1639732 1.478516 3.8046878v0.001953c0.003464 0.326426 0.28403 0.595703 0.623047 0.595703 3.5e-5 0 0.005459-0.001853 0.005859-0.001953 0.339777-0.0031 0.621893-0.276999 0.619141-0.605469-0.007666-0.957571-0.162711-1.8376423-0.466797-2.611328-0.307934-0.7818654-0.776623-1.4733752-1.386719-2.0488281-1.205756-1.1336807-2.745029-1.7199121-4.517578-1.7324219h-0.005859zm-6.914063 2.0136719c-0.236716-0.0397591-0.492114 0.0058649-0.7480466 0.1289062h-0.0214844l-0.0273438 0.015625c-0.475448 0.2702766-0.9222619 0.6315303-1.3398437 1.0859375l-0.0332031 0.0371094v0.03125c-0.2888506 0.3600793-0.4795322 0.7228738-0.5234375 1.0859375-0.014019 0.061532-0.0136719 0.118366-0.0136719 0.1777344 0 0.1651786 0.0252349 0.3314638 0.0761719 0.4960941l0.0136719 0.046875 0.0273437 0.017578c0.1649241 0.565675 0.5404835 1.444695 1.359375 2.935547 0.5454365 0.988126 1.1027165 1.814342 1.6562495 2.509765 0.291576 0.365489 0.620583 0.745601 1.003907 1.128907 0.0045 0.004599 0.021482 0.021259 0.039062 0.037109 0.0061 0.0061 0.014216 0.018112 0.035157 0.039062l0.039062 0.039063h0.001953c0.01349 0.01349 0.023371 0.02269 0.025391 0.02539l0.005859 0.007813 0.007813 0.007813c0.383343 0.379041 0.761256 0.710396 1.130859 1 0.694561 0.553373 1.519557 1.115781 2.507813 1.662109 1.492972 0.823381 2.382534 1.195334 2.945312 1.357422l0.019531 0.02539 0.035157 0.011719c0.159445 0.05314 0.324022 0.076689 0.488281 0.074219 0.06663 0.0036 0.125363-9.65e-4 0.18164-0.013672 0.385471-0.04506 0.768919-0.226328 1.146485-0.542969l0.003906-0.005859 0.003906-0.001953c0.0059-0.0058 0.00276-0.003913 0.00586-0.007813 0.0034-3e-3 0.004312-0.006665 0.007812-0.009765 0.446929-0.407773 0.80673-0.851273 1.078125-1.326172l0.017578-0.029297v-0.029297c0.249278-0.518925 0.151014-1.048969-0.253906-1.386719-0.0099-0.0085-0.20393-0.170495-0.445313-0.367187-0.24685-0.20109-0.54062-0.437037-0.738281-0.582032-0.373984-0.276571-0.95173-0.635075-1.28125-0.818359-0.632853-0.354305-1.294968-0.148216-1.585937 0.228516l-0.509766 0.638672c-0.205739 0.25915-0.617988 0.235011-0.628906 0.234375-3.460141-0.88992-4.389842-4.369796-4.396484-4.394532-6.18e-4 -0.01089-0.024987-0.42178 0.234374-0.630859l0.634766-0.507813c0.377749-0.289218 0.590624-0.951547 0.234375-1.585937-0.185846-0.3279798-0.545751-0.9103224-0.818359-1.28125-0.147314-0.1983761-0.382752-0.4912015-0.583985-0.7382812-0.100135-0.1234917-0.193329-0.2376999-0.259765-0.3183594-0.0337-0.04033-0.058875-0.0728911-0.078125-0.0957032-0.0096-0.0114029-0.017818-0.0188386-0.023438-0.0253906-0.0028-0.00329-0.005312-0.0050725-0.007812-0.0078125-0.175765-0.2087384-0.399757-0.3365287-0.646485-0.3789062h-0.001953zm6.951172 0.7890625c-0.333503-0.023516-0.631933 0.2251218-0.65625 0.546875-0.02434 0.3221093 0.235233 0.6093324 0.568359 0.6328125 0.823804 0.058219 1.379142 0.3003782 1.796876 0.7421875v0.0019531c0.426403 0.4500085 0.621721 0.9637325 0.605468 1.6660155v0.003906c-0.0072 0.323177 0.262806 0.596434 0.597656 0.603516h0.015626c0.329961 0 0.603986-0.260981 0.611328-0.580078 0.02257-0.965375-0.290291-1.8263075-0.923828-2.4941408-0.638001-0.6711065-1.54035-1.0466405-2.615235-1.1230468z"/>
</svg>
