<svg xmlns="http://www.w3.org/2000/svg" width="32" height="32" version="1.1">
 <path style="opacity:.2" d="m16 3a14 14 0 0 0 -14 14 14 14 0 0 0 14 14 14 14 0 0 0 14 -14 14 14 0 0 0 -14 -14z"/>
 <path style="fill:#9aca3c" d="m16 2a14 14 0 0 0 -14 14 14 14 0 0 0 14 14 14 14 0 0 0 14 -14 14 14 0 0 0 -14 -14z"/>
 <path style="opacity:.2;stroke-linejoin:round;stroke:#000000;stroke-linecap:round;stroke-width:3;fill:none" d="m11.5 10.500035 5.2 6.50002"/>
 <path style="opacity:.2;stroke-linejoin:round;stroke:#000000;stroke-linecap:round;stroke-width:3;fill:none" d="m12.5 23.500035 10-13"/>
 <path style="stroke-linejoin:round;stroke:#8b9cbe;stroke-linecap:round;fill:none;stroke-width:3" d="m12.5 22.5 10-13"/>
 <path style="stroke-linejoin:round;stroke:#8b9cbe;stroke-linecap:round;fill:none;stroke-width:3" d="m11.5 9.5 5.2 6.50002"/>
 <path style="opacity:.2;fill:#8b9cbe" d="m16 2a14 14 0 0 0 -14 14 14 14 0 0 0 0.0214844 0.414062 14 14 0 0 1 13.978516 -13.414062 14 14 0 0 1 13.978516 13.585938 14 14 0 0 0 0.021484 -0.585938 14 14 0 0 0 -14 -14z"/>
 <circle style="opacity:.2" cx="24" cy="24" r="8"/>
 <circle style="fill:#4f4f4f" cx="24" cy="23" r="8"/>
 <path style="fill:#8b9cbe" d="m22 19a3.9999999 3.9999999 0 0 0 -4 4 3.9999999 3.9999999 0 0 0 4 4 3.9999999 3.9999999 0 0 0 4 -4 3.9999999 3.9999999 0 0 0 -4 -4zm0 2a1.9999999 1.9999999 0 0 1 2 2 1.9999999 1.9999999 0 0 1 -2 2 1.9999999 1.9999999 0 0 1 -2 -2 1.9999999 1.9999999 0 0 1 2 -2z"/>
 <rect style="fill:#8b9cbe" width="5" height="2" x="25" y="22"/>
 <rect style="fill:#8b9cbe" width="2" height="1" x="24" y="-29" transform="rotate(90)"/>
</svg>
