<svg xmlns="http://www.w3.org/2000/svg" width="32" height="32" version="1">
 <rect style="opacity:0.2" width="25" height="25" x="-30" y="-28" rx="1.25" ry="1.25" transform="matrix(0,-1,-1,0,0,0)"/>
 <rect style="fill:#309b30" width="25" height="25" x="-29" y="-28" rx="1.25" ry="1.25" transform="matrix(0,-1,-1,0,0,0)"/>
 <path style="opacity:0.25" d="m 3.0000011,19.277778 v 8.47168 C 3.0000011,28.441958 3.5580436,29 4.2505436,29 H 26.749458 C 27.441958,29 28,28.441958 28,27.749458 v -8.47168 z"/>
 <path style="opacity:0.2" d="M 1.75,3 C 1.3345,3 1,3.3078678 1,3.6914062 V 20.308594 21 h 12 v 7.296875 C 13,28.686172 13.372318,29 13.833984,29 h 3.332032 C 17.627682,29 18,28.686172 18,28.296875 V 21 H 30 V 17 3.6914062 C 30,3.3078678 29.6655,3 29.25,3 h -1.5 C 27.3345,3 27,3.3078678 27,3.6914062 V 17 H 18 V 3.703125 C 18,3.3138277 17.627682,3 17.166016,3 H 13.833984 C 13.372318,3 13,3.3138277 13,3.703125 V 17 H 4 V 3.6914062 C 4,3.3078678 3.6655,3 3.25,3 Z"/>
 <rect style="fill:#ffa402" width="3" height="18" x="1" y="2" rx=".75" ry=".692"/>
 <rect style="fill:#ffa402" width="3" height="18" x="27" y="2" rx=".75" ry=".692"/>
 <rect style="fill:#ffa402" width="4" height="29" x="16" y="-30" transform="rotate(90)"/>
 <rect style="fill:#ffa402" width="5" height="26" x="-18" y="-28" rx=".833" ry=".703" transform="scale(-1)"/>
 <path style="opacity:0.2;fill:#8b9cbe" d="M 1.75 2 C 1.3345 2 1 2.3078678 1 2.6914062 L 1 3.6914062 C 1 3.3078678 1.3345 3 1.75 3 L 3.25 3 C 3.6655 3 4 3.3078679 4 3.6914062 L 4 2.6914062 C 4 2.3078679 3.6655 2 3.25 2 L 1.75 2 z M 13.833984 2 C 13.372318 2 13 2.3138277 13 2.703125 L 13 3.703125 C 13 3.3138277 13.372318 3 13.833984 3 L 17.166016 3 C 17.627682 3 18 3.3138277 18 3.703125 L 18 2.703125 C 18 2.3138277 17.627682 2 17.166016 2 L 13.833984 2 z M 27.75 2 C 27.3345 2 27 2.3078678 27 2.6914062 L 27 3.6914062 C 27 3.3078678 27.3345 3 27.75 3 L 29.25 3 C 29.6655 3 30 3.3078679 30 3.6914062 L 30 2.6914062 C 30 2.3078679 29.6655 2 29.25 2 L 27.75 2 z M 4 16 L 4 17 L 13 17 L 13 16 L 4 16 z M 18 16 L 18 17 L 27 17 L 27 16 L 18 16 z"/>
 <rect style="opacity:0.2" width="13" height="13" x="9" y="13" rx="1.444" ry="1.444"/>
 <rect style="fill:#ffdc2f" width="13" height="13" x="9" y="12" rx="1.444" ry="1.444"/>
 <rect style="fill:#17191e" width="5" height="4" x="13" y="15"/>
 <rect style="fill:#17191e" width="3" height="4" x="14" y="19"/>
 <path style="opacity:0.2;fill:#8b9cbe" d="M 10.445312 12 C 9.6450903 12 9 12.64509 9 13.445312 L 9 14.445312 C 9 13.64509 9.6450903 13 10.445312 13 L 20.554688 13 C 21.35491 13 22 13.64509 22 14.445312 L 22 13.445312 C 22 12.64509 21.35491 12 20.554688 12 L 10.445312 12 z"/>
</svg>
