<svg xmlns="http://www.w3.org/2000/svg" width="32" height="32" version="1.1">
 <circle style="opacity:0.2" cx="16" cy="17" r="14"/>
 <circle style="fill:#666f7f" cx="16" cy="16" r="14"/>
 <path style="opacity:0.2" d="m 13.365234,7 c -0.01118,-1.217e-4 -0.02207,9.258e-4 -0.0332,0.00195 -0.205125,0.016294 -0.343127,0.2160636 -0.287109,0.4140625 1.183164,4.1820734 4.167969,12.7167964 4.167969,12.7167964 0.01346,0.04087 0.03438,0.07876 0.0625,0.111329 l 0.04102,0.05469 A 4.5,3.5 0 0 0 15.5,20 4.5,3.5 0 0 0 11,23.5 4.5,3.5 0 0 0 15.5,27 4.5,3.5 0 0 0 20,23.5 4.5,3.5 0 0 0 19.886719,22.740234 c -0.0028,-0.01809 0.008,-0.03204 0.002,-0.05078 0,0 -2.108252,-6.101982 -3.261719,-9.966797 0.817363,0.342961 1.384717,0.531965 2.191406,0.892578 1.036952,0.463549 1.848775,1.042678 2.5,3.197266 0.108959,0.352474 0.62625,0.280896 0.636719,-0.08789 8.59e-4,-0.04155 -0.01408,-0.05866 -0.01367,-0.09961 -3.58e-4,-0.0011 3.7e-4,-0.0027 0,-0.0039 0.02243,-2.346929 -0.470601,-3.522054 -1.484375,-4.408203 C 19.42511,11.310941 18.091359,10.898073 16.78125,10.255859 15.565634,9.6599678 14.561141,8.3776555 13.617188,7.1308594 13.557408,7.0513964 13.464634,7.0026848 13.365234,7 Z"/>
 <path style="fill:#48cc41" d="m 13.365844,6.0000191 c -0.01118,-1.217e-4 -0.02237,3.327e-4 -0.0335,0.00136 -0.205125,0.016294 -0.344135,0.2160846 -0.288117,0.4140835 1.183164,4.1820734 4.168646,12.7173284 4.168646,12.7173284 0.01346,0.04087 0.03486,0.07866 0.06298,0.111226 l 2.056081,2.759453 c 0.233378,0.266818 0.664911,0.02244 0.556131,-0.31494 0,0 -2.10689,-6.101569 -3.260357,-9.966384 0.817363,0.342961 1.384152,0.531877 2.190841,0.89249 1.036952,0.463549 1.848111,1.042907 2.499336,3.197495 0.108959,0.352474 0.627409,0.281677 0.637878,-0.08711 8.59e-4,-0.04155 -0.01515,-0.05956 -0.01474,-0.10051 h 0.0013 c -3.58e-4,-0.0011 -9.3e-4,-0.0015 -0.0013,-0.0027 0.02243,-2.346929 -0.469783,-3.522776 -1.483557,-4.408925 -1.031921,-0.90195 -2.367065,-1.3142405 -3.677174,-1.9564537 -1.215616,-0.5958916 -2.218564,-1.879602 -3.162518,-3.1263981 -0.05978,-0.079463 -0.15253,-0.1273303 -0.25193,-0.1300151 z"/>
 <ellipse style="fill:#48cc41" cx="15.5" cy="22.5" rx="4.5" ry="3.5"/>
 <path style="opacity:0.2;fill:#8b9cbe" d="M 13.365234 6 C 13.354054 5.9998783 13.343161 6.0009258 13.332031 6.0019531 C 13.126906 6.0182471 12.988904 6.2180167 13.044922 6.4160156 C 13.093584 6.5880179 13.179951 6.847372 13.234375 7.0332031 C 13.265709 7.0199066 13.295814 7.00483 13.332031 7.0019531 C 13.343161 7.0009289 13.354054 6.9998783 13.365234 7 C 13.464634 7.0026848 13.557408 7.0513964 13.617188 7.1308594 C 14.561141 8.3776555 15.565634 9.6599682 16.78125 10.255859 C 18.091359 10.898073 19.425061 11.310934 20.457031 12.212891 C 21.344084 12.988271 21.832578 13.985621 21.925781 15.794922 C 21.932758 15.769079 21.954233 15.754397 21.955078 15.724609 C 21.955937 15.683059 21.940996 15.66595 21.941406 15.625 C 21.941048 15.6239 21.941776 15.622294 21.941406 15.621094 C 21.963836 13.274165 21.470805 12.09904 20.457031 11.212891 C 19.42511 10.310941 18.091359 9.8980726 16.78125 9.2558594 C 15.565634 8.6599678 14.561141 7.3776555 13.617188 6.1308594 C 13.557408 6.0513964 13.464634 6.0026848 13.365234 6 z M 16.626953 12.722656 C 17.78042 16.587471 19.888672 22.689453 19.888672 22.689453 C 19.894672 22.708193 19.883919 22.722144 19.886719 22.740234 A 4.5 3.5 0 0 1 19.947266 23.013672 A 4.5 3.5 0 0 0 20 22.5 A 4.5 3.5 0 0 0 19.886719 21.740234 C 19.883884 21.72214 19.894714 21.708193 19.888672 21.689453 C 19.888672 21.689453 18.167852 16.69125 16.984375 12.869141 C 16.86214 12.819943 16.760384 12.778643 16.626953 12.722656 z M 15.5 19 A 4.5 3.5 0 0 0 11 22.5 A 4.5 3.5 0 0 0 11.052734 22.998047 A 4.5 3.5 0 0 1 15.5 20 A 4.5 3.5 0 0 1 17.316406 20.298828 L 17.275391 20.244141 C 17.247271 20.211572 17.226351 20.173683 17.212891 20.132812 C 17.212891 20.132812 16.938056 19.330646 16.882812 19.171875 A 4.5 3.5 0 0 0 15.5 19 z"/>
 <path style="fill:#8b9cbe;opacity:0.1" d="M 16 2 A 14 14 0 0 0 2 16 A 14 14 0 0 0 2.0214844 16.585938 A 14 14 0 0 1 16 3 A 14 14 0 0 1 29.978516 16.414062 A 14 14 0 0 0 30 16 A 14 14 0 0 0 16 2 z"/>
</svg>
