<svg xmlns="http://www.w3.org/2000/svg" width="32" height="32" version="1">
 <rect style="opacity:0.2" width="29" height="29" x="-31" y="-30" rx="8.7" ry="8.7" transform="matrix(0,-1,-1,0,0,0)"/>
 <rect style="fill:#1e3d47" width="29" height="29" x="-30" y="-30" rx="8.7" ry="8.7" transform="matrix(0,-1,-1,0,0,0)"/>
 <path style="opacity:0.2" d="M 15.5,9 A 7.5000001,7.5000001 0 0 0 8,16.5 7.5000001,7.5000001 0 0 0 15.5,24 7.5000001,7.5000001 0 0 0 21.879394,20.425782 l -6.004393,-3.858399 6.014648,-3.98291 A 7.5000001,7.5000001 0 0 0 15.5,9 Z"/>
 <path style="fill:#ffcc2c" d="M 15.5,8 A 7.5000001,7.5000001 0 0 0 8,15.5 7.5000001,7.5000001 0 0 0 15.5,23 7.5000001,7.5000001 0 0 0 21.879394,19.425782 l -6.004393,-3.858399 6.014648,-3.98291 A 7.5000001,7.5000001 0 0 0 15.5,8 Z"/>
 <circle style="opacity:0.2" cx="22.5" cy="16.5" r="1.5"/>
 <circle style="fill:#f26522" cx="22.5" cy="15.5" r="1.5"/>
 <path style="fill:#8b9cbe;opacity:0.1" d="M 9.6992188 1 C 4.8794189 1 1 4.8794189 1 9.6992188 L 1 10.699219 C 1 5.8794189 4.8794189 2 9.6992188 2 L 21.300781 2 C 26.120581 2 30 5.8794189 30 10.699219 L 30 9.6992188 C 30 4.8794189 26.120581 1 21.300781 1 L 9.6992188 1 z"/>
 <path style="opacity:0.2;fill:#8b9cbe" d="M 15.5 8 A 7.5000001 7.5000001 0 0 0 8 15.5 A 7.5000001 7.5000001 0 0 0 8.0214844 15.947266 A 7.5000001 7.5000001 0 0 1 15.5 9 A 7.5000001 7.5000001 0 0 1 21.412109 11.900391 L 21.890625 11.583984 A 7.5000001 7.5000001 0 0 0 15.5 8 z M 16.640625 16.060547 L 15.875 16.568359 L 21.398438 20.117188 A 7.5000001 7.5000001 0 0 0 21.878906 19.425781 L 16.640625 16.060547 z"/>
 <path style="opacity:0.2;fill:#8b9cbe" d="M 22.5 14 A 1.5 1.5 0 0 0 21 15.5 A 1.5 1.5 0 0 0 21.087891 16 A 1.5 1.5 0 0 1 22.5 15 A 1.5 1.5 0 0 1 23.912109 16 A 1.5 1.5 0 0 0 24 15.5 A 1.5 1.5 0 0 0 22.5 14 z"/>
</svg>
