<svg xmlns="http://www.w3.org/2000/svg" width="32" height="32" version="1.1">
 <rect style="opacity:0.2" width="28" height="28" x="2" y="3" rx="8.4" ry="8.4"/>
 <rect style="fill:#4f4f4f" width="28" height="28" x="2" y="2" rx="8.4" ry="8.4"/>
 <circle style="opacity:0.2" cx="16" cy="17" r="10"/>
 <circle style="opacity:0.2" cx="25.5" cy="7.5" r="1.5"/>
 <circle style="fill:#f44336" cx="25.5" cy="6.5" r="1.5"/>
 <path style="fill:#ffc42e" d="M 21.374024,7.5800784 C 20.827497,7.6819059 20.281698,7.7998055 20,7.7998055 c -2.30879,0 -4.995744,0.9718221 -6.58789,2.9218745 -1.359493,1.665098 -1.794867,4.158578 -1.893555,6.105469 0.09811,-0.96605 1.389365,-1.158393 2.050781,-1.701172 0.719563,-0.590496 1.351529,-2.725586 2.430665,-2.725586 0.13535,-2.5e-5 0.270616,0.0067 0.405273,0.02051 0.004,2.02e-4 0.0078,7.15e-4 0.01173,10e-4 4.223226,0.218146 7.333004,3.300574 7.333004,7.578102 0,0.857241 -0.138999,1.680901 -0.388672,2.455077 0.07013,0.03117 0.13667,0.05525 0.203124,0.07812 a 9.9999994,9.9999994 0 0 0 0.004,-0.0049 c 0.141069,-0.163359 0.269872,-0.33466 0.399414,-0.505859 a 9.9999994,9.9999994 0 0 0 0.186525,-0.245118 c 0.109508,-0.154384 0.209313,-0.31479 0.309569,-0.474609 a 9.9999994,9.9999994 0 0 0 0.202149,-0.330078 c 0.08758,-0.152417 0.168755,-0.308303 0.248046,-0.464844 a 9.9999994,9.9999994 0 0 0 0.181641,-0.375977 c 0.07194,-0.158079 0.139548,-0.31797 0.203125,-0.479492 a 9.9999994,9.9999994 0 0 0 0.148438,-0.404297 c 0.05373,-0.155916 0.106358,-0.312227 0.152343,-0.470703 a 9.9999994,9.9999994 0 0 0 0.120117,-0.473632 c 0.03391,-0.142561 0.07001,-0.284575 0.09765,-0.428711 a 9.9999994,9.9999994 0 0 0 0.08496,-0.561524 c 0.0167,-0.125206 0.03881,-0.248962 0.05078,-0.375 A 9.9999994,9.9999994 0 0 0 26,16 c -8.57e-4,-0.210145 -0.0084,-0.42021 -0.02246,-0.629883 -6.3e-5,-9.28e-4 6.4e-5,-0.0019 0,-0.003 -0.0039,-0.05942 -0.01072,-0.118491 -0.01563,-0.177736 -0.02194,-0.277973 -0.0555,-0.554907 -0.100581,-0.830077 -0.01039,-0.06189 -0.0234,-0.12303 -0.03515,-0.184569 a 9.9999994,9.9999994 0 0 0 -0.0019,-0.01075 c -0.04267,-0.226286 -0.09317,-0.451029 -0.151369,-0.673829 -1.8e-4,-7e-4 -7.85e-4,-0.0012 -0.001,-0.0019 -0.02994,-0.114593 -0.06176,-0.228488 -0.0957,-0.341796 -0.05637,-0.18765 -0.118248,-0.373604 -0.185547,-0.557618 -0.05224,-0.143194 -0.10732,-0.285214 -0.166015,-0.425781 -0.06709,-0.161346 -0.13841,-0.320907 -0.213867,-0.478515 -0.05593,-0.11638 -0.11158,-0.233418 -0.171876,-0.347657 a 9.9999994,9.9999994 0 0 0 -0.003,-0.0068 l -0.001,-10e-4 c -0.09287,-0.174063 -0.190916,-0.345385 -0.293945,-0.513671 -0.0018,-0.003 -0.0041,-0.0058 -0.0058,-0.0088 -0.08048,-0.13194 -0.163338,-0.262372 -0.25,-0.390626 l -0.0019,-0.003 a 9.9999994,9.9999994 0 0 0 -0.0019,-0.0039 C 24.180096,10.259826 24.074036,10.112688 23.964767,9.9687126 23.863451,9.8352228 23.758538,9.7047193 23.650314,9.576135 a 9.9999994,9.9999994 0 0 0 -0.0039,-0.00493 c -0.0358,-0.041321 -0.07194,-0.082343 -0.108408,-0.123061 -0.201682,-0.2315293 -0.412804,-0.4553993 -0.636719,-0.668945 -0.0029,-0.00271 -0.0059,-0.00514 -0.0088,-0.00782 A 9.9999994,9.9999994 0 0 0 22.843717,8.72555 C 22.723693,8.6128826 22.601661,8.501669 22.475551,8.3945019 c 0.0024,-0.00243 0.0035,-0.00436 0.0058,-0.00686 A 9.9999994,9.9999994 0 0 0 21.373986,7.5800277 Z M 23.252929,22.58789 c -0.04856,0.05457 -0.09772,0.108613 -0.147459,0.16211 0.04974,-0.0535 0.0989,-0.107536 0.147459,-0.16211 z m -0.567382,0.586914 c -0.06174,0.05906 -0.124256,0.117339 -0.1875,0.174805 -0.0036,0.0077 -0.0062,0.0158 -0.0098,0.02344 0.06668,-0.06515 0.132439,-0.131248 0.197266,-0.198242 z"/>
 <path style="fill:#ff8514" d="m 16.409179,12.020508 c 2.017026,0.20484 2.940431,1.958229 2.940431,4.029296 2.4e-5,0.135352 -0.0068,0.270616 -0.02051,0.405274 -2.02e-4,0.004 -7.14e-4,0.0078 -0.001,0.01172 -0.218147,4.223228 -3.050573,7.333005 -7.328101,7.333005 -0.857241,0 -2.1027766,-0.64974 -2.8769532,-0.899414 0.025364,0.02161 -0.01035,0.127617 -0.072266,0.27539 a 9.9999994,9.9999994 0 0 0 6.9492222,2.824216 c 0.210144,-8.57e-4 0.420209,-0.0084 0.629882,-0.02246 9.29e-4,-6.3e-5 0.0019,6.4e-5 0.003,0 0.05942,-0.0039 0.118491,-0.01072 0.177734,-0.01563 0.277975,-0.02194 0.554909,-0.0555 0.830079,-0.100582 0.06189,-0.01039 0.12303,-0.0234 0.18457,-0.03515 a 9.9999994,9.9999994 0 0 0 0.01075,-0.0019 c 0.226285,-0.04267 0.451028,-0.09316 0.673828,-0.151368 7e-4,-1.81e-4 0.0012,-7.86e-4 0.0019,-9.99e-4 0.114593,-0.02994 0.228489,-0.06175 0.341797,-0.0957 0.18765,-0.05637 0.373602,-0.118249 0.557616,-0.185547 0.143195,-0.05225 0.285215,-0.107322 0.425782,-0.166017 0.161347,-0.06709 0.320906,-0.13841 0.478515,-0.213867 0.116381,-0.05593 0.233419,-0.111579 0.347656,-0.171874 a 9.9999994,9.9999994 0 0 0 0.0068,-0.003 l 0.001,-0.001 c 0.174087,-0.09289 0.345386,-0.190917 0.513673,-0.293945 0.003,-0.0018 0.0058,-0.0041 0.0088,-0.0058 0.131939,-0.08048 0.262371,-0.163337 0.390625,-0.25 l 0.003,-0.0019 a 9.9999994,9.9999994 0 0 0 0.0039,-0.0019 c 0.149317,-0.101062 0.296455,-0.207138 0.44043,-0.316406 0.133491,-0.101317 0.263994,-0.20623 0.392578,-0.314453 a 9.9999994,9.9999994 0 0 0 0.0049,-0.0039 c 0.04131,-0.0358 0.08233,-0.07193 0.123047,-0.108399 0.23153,-0.201683 0.4554,-0.412804 0.668945,-0.636719 0.0028,-0.0029 0.0051,-0.0059 0.0079,-0.0088 a 9.9999994,9.9999994 0 0 0 0.0459,-0.04883 c 0.112674,-0.120022 0.223887,-0.242054 0.331054,-0.368164 0.253683,-0.780021 0.394439,-1.610888 0.394439,-2.475587 0,-4.280207 -3.363862,-7.765227 -7.590821,-7.979492 z M 8.6269536,22.538085 c 0.065157,0.06668 0.1312457,0.132438 0.1982421,0.197266 -0.059064,-0.06175 -0.1173399,-0.124255 -0.1748042,-0.1875 -0.00765,-0.0036 -0.0158,-0.0062 -0.023436,-0.0098 z"/>
 <path style="fill:#ff5757" d="M 9.461915,8.6269533 C 9.395236,8.6921103 9.3294771,8.758199 9.2646493,8.8251954 c 0.06175,-0.059064 0.1242557,-0.1173399 0.1875,-0.1748042 0.00357,-0.00765 0.00621,-0.0158 0.00977,-0.023436 z M 8.8447272,9.2500004 C 8.7949843,9.3034933 8.7458265,9.3575361 8.6972665,9.4121097 8.7458236,9.3575383 8.7949829,9.3034968 8.8447272,9.2500004 Z M 8.5205086,9.3759768 A 9.9999994,9.9999994 0 0 0 6.0000009,16 a 9.9999994,9.9999994 0 0 0 0.022457,0.629883 c 0.00393,0.06039 0.010636,0.120452 0.015621,0.180664 a 9.9999994,9.9999994 0 0 0 0.1005867,0.830077 c 0.010993,0.06548 0.024829,0.130146 0.037107,0.195313 a 9.9999994,9.9999994 0 0 0 0.1513671,0.673828 c 0.0301,0.115296 0.062529,0.229758 0.09668,0.34375 a 9.9999994,9.9999994 0 0 0 0.1855464,0.557617 c 0.05225,0.143195 0.1073207,0.285215 0.1660157,0.425782 a 9.9999994,9.9999994 0 0 0 0.2138671,0.478515 c 0.057,0.11861 0.1131507,0.238188 0.1748043,0.354493 2.043e-4,3.85e-4 7.857e-4,6e-4 0.001,0.001 a 9.9999994,9.9999994 0 0 0 0.2939457,0.513672 c 0.082188,0.135025 0.1672236,0.268239 0.2558593,0.399414 0.102415,0.151565 0.2094535,0.301195 0.3203128,0.447265 0.1025714,0.13515 0.2087036,0.267329 0.3183593,0.397461 a 9.9999994,9.9999994 0 0 0 0.1083985,0.123047 c 0.2016822,0.231529 0.4128036,0.455399 0.6367186,0.668945 a 9.9999994,9.9999994 0 0 0 0.057614,0.05371 c 0.1200221,0.112675 0.2420542,0.223888 0.3681642,0.331055 C 10.304451,23.859266 11.135302,24 12.000001,24 c 4.280207,0 7.765226,-3.363862 7.979491,-7.59082 -0.20484,2.017024 -1.908424,3.440429 -3.979491,3.440429 -0.135351,2.5e-5 -0.270617,-0.0068 -0.405274,-0.02051 -0.004,-2.02e-4 -0.0078,-7.15e-4 -0.01172,-10e-4 C 11.359776,19.609929 8.2001958,16.277529 8.2001958,12 c 0,-0.857241 0.1389986,-1.680901 0.3886721,-2.4550775 -0.022693,-0.062586 -0.045607,-0.1100128 -0.068357,-0.1689457 z"/>
 <path style="fill:#baff41" d="M 15.590821,19.979492 C 15.058543,19.92543 17.894087,19.30333 17.464824,19.06132 16.267426,18.386256 12.200001,17.524527 12.200001,16 c -2.6e-5,-0.135351 -0.193181,-0.270616 -0.179491,-0.405273 2.03e-4,-0.004 7.14e-4,-0.0078 10e-4,-0.01173 C 12.239706,11.359775 15.722472,8.0000005 20,8.0000005 c 0.857241,0 1.6809,0.1389986 2.455078,0.3886721 C 20.653819,6.8537141 18.366555,6.0073228 16.000001,6.0000006 13.071037,6.0042863 10.291206,7.2924927 8.3945315,9.5244147 8.1407344,10.304451 8.0000008,11.135301 8.0000008,12 c 0,4.280207 3.3638612,7.765227 7.5908202,7.979492 z M 23.373047,9.2617197 c -0.06515,-0.066679 -0.131246,-0.1324386 -0.198243,-0.1972664 0.05906,0.06175 0.11734,0.1242557 0.174805,0.1875 0.0077,0.00357 0.0158,0.00621 0.02344,0.00977 z M 22.75,8.6445312 c -0.0535,-0.049743 -0.107536,-0.0989 -0.162109,-0.14746 0.05457,0.048557 0.108612,0.097716 0.162109,0.14746 z"/>
 <path style="opacity:0.2;fill:#8b9cbe" d="M 16 6 A 10 10 0 0 0 6 16 A 10 10 0 0 0 6.0214844 16.585938 A 10 10 0 0 1 16 7 A 10 10 0 0 1 25.978516 16.414062 A 10 10 0 0 0 26 16 A 10 10 0 0 0 16 6 z"/>
 <circle style="fill:#17191e" cx="16" cy="16" r="4"/>
 <path style="opacity:0.2;fill:#8b9cbe" d="M 25.5 5 A 1.5 1.5 0 0 0 24 6.5 A 1.5 1.5 0 0 0 24.087891 7 A 1.5 1.5 0 0 1 25.5 6 A 1.5 1.5 0 0 1 26.912109 7 A 1.5 1.5 0 0 0 27 6.5 A 1.5 1.5 0 0 0 25.5 5 z"/>
 <path style="fill:#8b9cbe;opacity:0.1" d="M 10.400391 2 C 5.7467908 2 2 5.7467908 2 10.400391 L 2 11.400391 C 2 6.7467908 5.7467908 3 10.400391 3 L 21.599609 3 C 26.253209 3 30 6.7467908 30 11.400391 L 30 10.400391 C 30 5.7467908 26.253209 2 21.599609 2 L 10.400391 2 z"/>
</svg>
