<svg width="32" height="32" version="1.1" xmlns="http://www.w3.org/2000/svg">
 <path d="m15 26v2h9v-2h2v-2h2v-2h2v-10h-2v-2h-2v-2h-2v-2h-9v2h-2v2h-2v2h-4v2h-5v6h5v2h4v2h2v2z" style="opacity:.2"/>
 <path d="m15 25v2h9v-2h2v-2h2v-2h2v-10h-2v-2h-2v-2h-2v-2h-9v2h-2v2h-2v2h-4v2h-5v6h5v2h4v2h2v2z" style="fill:#17191e"/>
 <path d="m16 8v2h2v2h-5v2h-4v2h-5v2h5v2h4v2h5v2h-2v2h6v-2h2v-2h2v-2h2v-6h-2v-2h-2v-2h-2v-2z" style="opacity:.2"/>
 <path d="m16 7v2h2v2h-5v2h-4v2h-5v2h5v2h4v2h5v2h-2v2h6v-2h2v-2h2v-2h2v-6h-2v-2h-2v-2h-2v-2z" style="fill:#eb2d21"/>
 <path d="m9 16v2h4v2h5v2h2v2h2v-2h2v-2h2v-6h-2v-2h-2v-2h-2v2h-2v2h-5v2z" style="opacity:.2"/>
 <path d="m9 15v2h4v2h5v2h2v2h2v-2h2v-2h2v-6h-2v-2h-2v-2h-2v2h-2v2h-5v2z" style="fill:#f58800"/>
 <path d="m24 19v-4h-2v-1h-2v1h-2v1h-3v2h3v1h2v1h2v-1z" style="opacity:.2"/>
 <path d="m24 18v-4h-2v-1h-2v1h-2v1h-3v2h3v1h2v1h2v-1z" style="fill:#dcfa20"/>
 <path d="m15 5v1h9v-1h-9zm-2 2v1h2v-1h-2zm11 0v1h2v-1h-2zm-13 2v1h2v-1h-2zm15 0v1h2v-1h-2zm-19 2v1h4v-1h-4zm21 0v1h2v-1h-2zm-26 2v1h5v-1h-5z" style="fill:#8b9cbe;opacity:.1"/>
 <path d="m16 7v1h6v-1h-6zm6 2v1h2v-1h-2zm-9 2v1h5v-1h-5zm11 0v1h2v-1h-2zm-15 2v1h4v-1h-4zm17 0v1h2v-1h-2zm-22 2v1h5v-1h-5zm12 8v1h2v-1h-2z" style="fill:#8b9cbe;opacity:.2"/>
 <path d="m20 9v1h2v-1h-2zm-2 2v1h2v-1h-2zm4 0v1h2v-1h-2zm-9 2v1h5v-1h-5zm11 0v1h2v-1h-2zm-15 2v1h4v-1h-4z" style="fill:#8b9cbe;opacity:.2"/>
 <path d="m20 13v1h2v-1h-2zm2 1v1h2v-1h-2zm-2 0h-2v1h2v-1zm-2 1h-3v1h3v-1z" style="fill:#8b9cbe;opacity:.2"/>
</svg>
