<svg xmlns="http://www.w3.org/2000/svg" width="32" height="32" version="1.1">
 <path style="opacity:0.2" d="m 16.5,2.999595 -0.05078,0.00977 c -6.205288,0.2124065 -8.1620642,5.023414 -8.4121096,9.1386724 -0.1899955,3.126963 0.4160156,5.851562 0.4160156,5.851562 0.060684,0.356928 0.1387788,0.72531 0.21875,1.09375 0.066608,0.290454 0.1395119,0.593312 0.2089844,0.888672 l -4.1386719,3.597656 c -1.4223021,1.486245 -0.6574247,3.744426 1.0742187,4.337891 0.2079944,0.07128 0.5122674,-0.216257 0.7460938,-0.197266 0.3034785,0.02464 0.5439861,0.337616 0.8828125,0.257813 0.4887623,-1.838707 1.3827697,-2.863925 2.4082031,-3.621094 0.3001354,1.573604 0.4904614,3.061382 0.4121094,4.298828 0,0 0.669255,0.563574 0.746094,0.957031 0.03906,0.199985 -0.04339,0.492135 -0.136719,0.738281 0,0 -0.280184,0.646756 0.390625,0.638672 h 3.380859 c 0.479442,0.01968 0.558431,0.0611 0.63086,-0.439453 L 15.6875,28.728111 c 0.08901,-0.364403 0.09281,-0.483915 0.359375,-0.490235 v 0.01563 l 0.453125,-0.0625 0.453125,0.0625 v -0.01563 c 0.266565,0.0063 0.270368,0.125832 0.359375,0.490235 l 0.410156,1.822265 c 0.07243,0.500554 0.151418,0.45913 0.63086,0.439453 h 3.380859 c 0.670809,0.0081 0.390625,-0.638671 0.390625,-0.638672 -0.09333,-0.246145 -0.175775,-0.538296 -0.136719,-0.738281 0.07684,-0.393457 0.746094,-0.957031 0.746094,-0.957031 -0.07812,-1.233829 0.112224,-2.723273 0.412109,-4.298828 1.025434,0.757169 1.919441,1.782387 2.408204,3.621094 0.338826,0.0798 0.579333,-0.233168 0.882812,-0.257813 0.233826,-0.01899 0.5381,0.268549 0.746094,0.197266 1.731644,-0.593465 2.49652,-2.851646 1.074218,-4.337891 l -4.138671,-3.597656 c 0.06963,-0.295233 0.142168,-0.598677 0.208984,-0.888672 0.07998,-0.36844 0.158065,-0.736822 0.21875,-1.09375 0,0 0.606012,-2.724599 0.416016,-5.851562 C 24.71287,8.0327756 22.756067,3.2217702 16.550781,3.0093606 Z m -0.0078,1.4082031 a 1.3161945,1.3996356 0 0 0 0.0059,0 1.3161945,1.3996356 0 0 0 0.0098,0 c 2.787719,0.095425 4.378935,1.1364475 5.449219,2.5761719 1.070283,1.4397245 1.58046,3.395776 1.69336,5.253906 0.175205,2.883547 -0.382813,5.439453 -0.382813,5.439453 a 1.3161945,1.3996356 0 0 0 -0.01563,0.07422 c -0.04316,0.253872 -0.107513,0.52292 -0.164062,0.787109 L 16.5,15.595298 9.9121094,18.538657 C 9.8555585,18.274468 9.79121,18.00542 9.7480469,17.751548 a 1.3161945,1.3996356 0 0 0 -0.015625,-0.07422 c 0,0 -0.558018,-2.555906 -0.3828125,-5.439453 C 9.4625107,10.379745 9.9726849,8.4236945 11.042969,6.98397 12.113253,5.5442456 13.704468,4.503223 16.492188,4.4077981 Z"/>
 <path style="fill:#b2bfd9" d="m 8.6717543,18.0942 c 0.7558819,3.296152 1.7585087,6.972861 1.5945217,9.562765 0,0 0.66779,0.563229 0.744629,0.956686 0.03906,0.199985 -0.04231,0.49187 -0.135634,0.738016 0,0 -0.280184,0.64633 0.390625,0.638246 h 3.381348 c 0.479442,0.01968 0.556911,0.06048 0.62934,-0.440075 l 0.41097,-1.820438 c 0.08901,-0.364403 0.09286,-0.484324 0.359429,-0.490644 v 0.01503 L 16.5,27.190922 l 0.453017,0.06286 v -0.01503 c 0.266565,0.0063 0.270422,0.12624 0.359429,0.490643 l 0.41097,1.820438 c 0.07243,0.500554 0.149898,0.459752 0.62934,0.440075 h 3.381347 c 0.670809,0.0081 0.390625,-0.638246 0.390625,-0.638246 -0.09333,-0.246146 -0.174689,-0.538031 -0.135633,-0.738016 0.07684,-0.393457 0.744628,-0.956686 0.744628,-0.956686 -0.163495,-2.582148 0.836833,-6.274237 1.594519,-9.562761 L 16.5,14.595461 Z"/>
 <path style="fill:#b2bfd9" d="m 4.7431305,22.579547 4.2403805,-3.686305 1.787611,3.853866 C 9.374536,23.577023 8.0761569,24.604847 7.445334,26.977981 7.1065076,27.057784 6.8661944,26.745623 6.5627159,26.720978 6.3288895,26.701987 6.0237791,26.989857 5.8157847,26.918574 4.0841412,26.325109 3.3208284,24.065792 4.7431305,22.579547 Z"/>
 <path style="fill:#bac61d" d="m 16.5,6.0000001 c -3.589819,-7e-7 -6.5,2.8143028 -6.5,6.2858609 v 5.406101 c 4.276262,0.541161 8.621465,0.318435 12.999999,-0.273594 v -5.132507 c 0,-3.4715574 -2.910181,-6.2858609 -6.499999,-6.2858609 z"/>
 <circle style="opacity:0.2" cx="16.5" cy="12.5" r="3.5"/>
 <circle style="fill:#8b9cbe" cx="16.5" cy="11.5" r="3.5"/>
 <circle style="fill:#4d4d4d" cx="16.5" cy="11.5" r="2.5"/>
 <circle style="fill:#8b9cbe" cx="15.417" cy="9.852" r="1.148"/>
 <ellipse style="fill:#bac61d" cx="16.5" cy="4.25" rx="1.5" ry=".75"/>
 <path style="fill:#bac61d" d="m 16.156944,4.4294925 h 0.719445 l 0.335203,2.0629914 h -1.43441 z"/>
 <path style="fill:none;stroke:#5e742c;stroke-width:0.6970911;stroke-linecap:round;stroke-linejoin:round" d="m 13.375,15.826442 c 2.408458,1.247081 4.281785,0.860044 6.25,0"/>
 <path style="opacity:0.4" d="m 7.8798229,19.853073 -0.3295896,0.285639 c -0.017882,0.691271 0.2358937,1.259425 0.6252715,1.734336 0.4587813,0.559559 1.0972819,1.005327 1.7103403,1.452797 0.00774,-0.0057 0.015306,-0.01078 0.023056,-0.0164 l 0.047472,-0.06696 0.1139319,-0.158537 C 10.010985,23.040625 9.9518048,22.998638 9.8926249,22.95547 9.335111,22.548802 8.7907534,22.144844 8.4087923,21.678978 7.9964326,21.17604 7.768943,20.612486 7.8798208,19.853073 Z m -1.279025,1.111123 -0.249566,0.217304 c 0.2475799,0.845707 0.6343118,1.447055 1.1013451,1.892873 0.4697077,0.448373 1.0132167,0.742522 1.5625,1.001787 C 9.091183,23.99768 9.1682062,23.920963 9.2470104,23.847922 8.6717291,23.580409 8.1206458,23.292597 7.6600965,22.852968 7.2056638,22.419178 6.8315284,21.838415 6.6007979,20.964196 Z m -1.2098528,1.053722 -0.2360028,0.203637 c 0.9326202,1.843441 2.0543681,2.379317 3.1453451,2.75799 0.057278,-0.08933 0.1161584,-0.176159 0.1763243,-0.259671 C 7.3634173,24.341223 6.3141562,23.898203 5.3909451,22.017918 Z"/>
 <path style="opacity:0.4" d="m 10.239149,26.231502 c 0.0051,0.06279 0.0087,0.124753 0.01356,0.187237 0.0034,0.05057 0.0095,0.103037 0.01221,0.15307 1.742157,0.70418 3.550068,1.132316 5.474176,0.985387 0.05135,-0.195061 0.102419,-0.306849 0.292968,-0.315706 l -0.0014,-0.01503 c -2.034786,0.223215 -3.938157,-0.228598 -5.791527,-0.994957 z m 0.0312,1.332528 c -0.0015,0.02964 -0.0023,0.05946 -0.0041,0.08883 -5.4e-5,9.09e-4 5.6e-5,0.0018 0,0.0027 0,0 0.152918,0.138892 0.306532,0.29794 0.01813,0.01877 0.0181,0.01421 0.03662,0.03417 0.0022,0.0023 0.0019,0.0018 0.0041,0.0041 1.594267,0.467897 3.225002,0.6937 4.911295,0.459209 l 0.07189,-0.318439 c -1.823854,0.276403 -3.585909,-0.0096 -5.326335,-0.568546 z m 5.168999,1.265559 c -1.476602,0.371689 -2.957674,0.365026 -4.448785,0.143503 -0.02115,0.09834 -0.05276,0.198233 -0.08681,0.295206 1.484054,0.224183 2.972259,0.244014 4.459635,-0.105236 z"/>
 <path style="opacity:0.4;fill:none;stroke:#000000;stroke-width:0.26791164" d="m 12.456716,21.904835 c 3.107553,0.46842 5.339869,0.295442 7.233588,-0.12567 m -6.443714,-1.631513 -0.789874,1.757183 0.706729,3.753055 c 2.224781,0.380889 4.260358,0.316929 6.152708,-0.08378 l 0.374151,-3.794945 -0.498869,-1.631513 z"/>
 <path style="fill:#b2bfd9" d="m 28.256869,22.579547 -4.24038,-3.686305 -1.787611,3.853866 c 1.396586,0.829915 2.694965,1.857739 3.325788,4.230873 0.338826,0.0798 0.579139,-0.232358 0.882618,-0.257003 0.233826,-0.01899 0.538937,0.268879 0.746931,0.197596 1.731644,-0.593465 2.494956,-2.852782 1.072654,-4.339027 z"/>
 <path style="opacity:0.4" d="m 25.120177,19.853073 0.329589,0.285639 c 0.01788,0.691271 -0.235893,1.259425 -0.625271,1.734336 -0.458781,0.559559 -1.097282,1.005327 -1.71034,1.452797 -0.0077,-0.0057 -0.01531,-0.01078 -0.02306,-0.0164 l -0.04747,-0.06696 -0.113932,-0.158537 c 0.05932,-0.04331 0.1185,-0.0853 0.17768,-0.12847 0.557514,-0.406668 1.101871,-0.810626 1.483832,-1.276492 0.41236,-0.502938 0.63985,-1.066492 0.528972,-1.825905 z m 1.279025,1.111123 0.249566,0.217304 c -0.24758,0.845707 -0.634312,1.447055 -1.101345,1.892873 -0.469708,0.448373 -1.013217,0.742522 -1.5625,1.001787 -0.07611,-0.07848 -0.153129,-0.155197 -0.231934,-0.228238 0.575282,-0.267513 1.126365,-0.555325 1.586914,-0.994954 0.454433,-0.43379 0.828568,-1.014553 1.059299,-1.888772 z m 1.209853,1.053722 0.236002,0.203637 c -0.93262,1.843441 -2.054368,2.379317 -3.145345,2.75799 -0.05728,-0.08933 -0.116158,-0.176159 -0.176324,-0.259671 1.113194,-0.378651 2.162456,-0.821671 3.085667,-2.701956 z"/>
 <path style="opacity:0.4" d="m 22.760851,26.231502 c -0.0051,0.06279 -0.0087,0.124753 -0.01356,0.187237 -0.0034,0.05057 -0.0095,0.103037 -0.01221,0.15307 -1.742157,0.70418 -3.550068,1.132316 -5.474176,0.985387 -0.05135,-0.195061 -0.102419,-0.306849 -0.292969,-0.315706 l 0.0014,-0.01503 c 2.034786,0.223215 3.938156,-0.228598 5.791527,-0.994957 z m -0.0312,1.332528 c 0.0015,0.02964 0.0023,0.05946 0.0041,0.08883 5.4e-5,9.09e-4 -5.5e-5,0.0018 0,0.0027 0,0 -0.152917,0.138892 -0.306532,0.29794 -0.01812,0.01877 -0.0181,0.01421 -0.03662,0.03417 -0.0022,0.0023 -0.0019,0.0018 -0.0041,0.0041 -1.594267,0.467897 -3.225003,0.6937 -4.911295,0.459209 l -0.07189,-0.318439 c 1.823853,0.276403 3.585909,-0.0096 5.326335,-0.568546 z m -5.168999,1.265559 c 1.476602,0.371689 2.957673,0.365026 4.448785,0.143503 0.02115,0.09834 0.05276,0.198233 0.08681,0.295206 -1.484054,0.224183 -2.972259,0.244014 -4.459635,-0.105236 z"/>
 <path style="fill:#b2bfd9" d="m 16.500013,2 -0.05012,0.00957 c -6.205288,0.2124065 -8.1629909,5.0238281 -8.4130363,9.139086 -0.1899955,3.126964 0.4164101,5.852188 0.4164101,5.852188 0.060684,0.356928 0.1385163,0.724916 0.2184875,1.093356 H 10.026373 C 9.9189668,17.635387 9.8223408,17.184859 9.7487642,16.752105 a 1.3161945,1.3996356 0 0 0 -0.015425,-0.0738 c 0,0 -0.5582002,-2.555899 -0.3829947,-5.439446 C 9.4632458,9.3807281 9.9726931,7.4236404 11.042977,5.9839159 12.113261,4.5441915 13.70458,3.5031207 16.4923,3.4076958 a 1.3161945,1.3996356 0 0 0 0.0051,0 1.3161945,1.3996356 0 0 0 0.01028,0 c 2.787719,0.095425 4.37904,1.1364957 5.449324,2.5762201 1.070283,1.4397245 1.579731,3.3968122 1.692631,5.2549421 0.175205,2.883547 -0.382995,5.439446 -0.382995,5.439446 a 1.3161945,1.3996356 0 0 0 -0.01542,0.0738 c -0.07357,0.432754 -0.170192,0.883282 -0.277598,1.342095 h 1.35462 c 0.07998,-0.36844 0.157802,-0.736428 0.218487,-1.093356 0,0 0.606406,-2.725224 0.41641,-5.852188 C 24.713118,7.0333981 22.755414,2.2219765 16.550128,2.0095669 Z"/>
 <path style="opacity:0.2;fill:#8b9cbe" d="m 16.5,2 -0.05078,0.00977 c -6.205288,0.2124065 -8.1620642,5.0234135 -8.4121096,9.1386724 -0.037333,0.614421 -0.038888,1.203796 -0.025391,1.769531 0.00557,-0.254905 0.00948,-0.507616 0.025391,-0.769531 C 8.2871548,8.0331791 10.243931,3.2221721 16.449219,3.0097656 L 16.5,3 l 0.05078,0.00977 c 6.205286,0.2124096 8.162089,5.0234145 8.41211,9.1386724 0.01591,0.261915 0.01982,0.514626 0.02539,0.769531 0.0135,-0.565735 0.01194,-1.15511 -0.02539,-1.769531 C 24.71287,7.0331801 22.756067,2.2221752 16.550781,2.0097656 Z M 8.6855469,19.152344 4.7421875,22.580078 C 4.095604,23.25573 3.9177646,24.087724 4.0605469,24.853516 4.155983,24.405239 4.3721406,23.966761 4.7421875,23.580078 L 8.8808594,19.982422 C 8.8159656,19.706528 8.7485007,19.425101 8.6855469,19.152344 Z m 15.6289061,0 c -0.06308,0.27245 -0.130271,0.554303 -0.195312,0.830078 l 4.138671,3.597656 c 0.370047,0.386683 0.586205,0.825161 0.681641,1.273438 0.142782,-0.765792 -0.03506,-1.597786 -0.681641,-2.273438 z m -14.046875,8.388672 c -0.0019,0.03709 3.68e-4,0.07858 -0.002,0.115234 0,0 0.0095,0.0095 0.0098,0.0098 -0.0014,-0.04024 -0.006,-0.0844 -0.0078,-0.125 z m 12.466797,0.01953 c -0.0015,0.03359 -0.0066,0.07018 -0.0078,0.103515 1.78e-4,-1.5e-4 0.0078,-0.0078 0.0078,-0.0078 -0.0019,-0.03041 0.0016,-0.06499 0,-0.0957 z m -11.853516,1.773437 c -0.0021,0.0057 -0.0037,0.01194 -0.0059,0.01758 0,0 -0.177923,0.426387 0.119141,0.580079 0.02187,-0.115511 0.03526,-0.227813 0.01758,-0.31836 -0.01695,-0.08681 -0.06978,-0.183807 -0.13086,-0.279297 z m 11.238282,0 c -0.06108,0.09549 -0.113907,0.19249 -0.13086,0.279297 -0.01768,0.09055 -0.0043,0.202849 0.01758,0.31836 0.297064,-0.153687 0.119141,-0.580078 0.119141,-0.580079 -0.0021,-0.0056 -0.0037,-0.01189 -0.0059,-0.01758 z"/>
</svg>
