<svg xmlns="http://www.w3.org/2000/svg" width="32" height="32" version="1">
 <rect style="opacity:0.2" width="28" height="28" x="2" y="3" rx="1.4" ry="1.4"/>
 <rect style="fill:#4d525a" width="28" height="28" x="2" y="2" rx="1.4" ry="1.4"/>
 <path style="fill:#8b9cbe;opacity:0.1" d="M 3.4003906 2 C 2.6247906 2 2 2.6247906 2 3.4003906 L 2 4.4003906 C 2 3.6247906 2.6247906 3 3.4003906 3 L 28.599609 3 C 29.375209 3 30 3.6247906 30 4.4003906 L 30 3.4003906 C 30 2.6247906 29.375209 2 28.599609 2 L 3.4003906 2 z"/>
 <path style="opacity:0.2" d="M 5,5 V 29 H 10.031 L 10,20 H 22 V 29 H 27 V 5 H 22 V 15 H 10 V 5 Z"/>
 <path style="fill:#cccccc" d="M 5,4 V 28 H 10.031 L 10,19 H 22 V 28 H 27 V 4 H 22 V 14 H 10 V 4 Z"/>
 <path style="opacity:0.1" d="M 6,8 V 11 H 9 V 8 Z M 23,8 V 11 H 26 V 8 Z M 6,16 V 19 H 9 V 16 Z M 23,16 V 19 H 26 V 16 Z M 6,23 V 26 H 9 V 23 Z M 23,23 V 26 H 26 V 23 Z"/>
 <path style="fill:#4d525a" d="M 6 7 L 6 10 L 9 10 L 9 7 L 6 7 z M 23 7 L 23 10 L 26 10 L 26 7 L 23 7 z M 6 15 L 6 18 L 9 18 L 9 15 L 6 15 z M 23 15 L 23 18 L 26 18 L 26 15 L 23 15 z M 6 22 L 6 25 L 9 25 L 9 22 L 6 22 z M 23 22 L 23 25 L 26 25 L 26 22 L 23 22 z"/>
</svg>
