<svg xmlns="http://www.w3.org/2000/svg" width="32" height="32" version="1.1">
 <path style="opacity:0.2" d="m 2,11.25 12.000002,-6.2499999 5.333334,2.7777777 3.333334,8.3333332 3.333324,1.427375 3e-6,6.173941 L 14.000002,30 2,23.75 Z"/>
 <path style="fill:#cccccc" d="M 2.0000028,10.25 14.000005,4.0000001 19.333339,6.7777778 22.666673,15.111111 25.999997,16.538486 26,22.712427 14.000005,29 2.0000028,22.75 Z"/>
 <path style="fill:#b2bfd9" d="m 26,16.481216 v 6.231211 l -0.0271,0.01364 -0.258586,0.12815 -2.714317,1.422384 -2.999989,1.579613 v -6.231213 l 0.02712,-0.01454 0.258586,-0.141785 2.822647,-1.47964 z"/>
 <path style="fill:#c5c5c5" d="m 19.999999,13.413029 -0.232771,0.128555 -5.767233,2.996902 2.739458,1.426878 3.027775,1.583697 0.232771,0.113969 0.232764,-0.113969 4.136964,-2.154449 0.260106,-0.143144 0.260981,-0.128556 1.109183,-0.584426 -2.50668,-1.299236 -0.23278,-0.127645 -0.232764,-0.11488 -2.79501,-1.455141 z"/>
 <path style="fill:#c5c5c5" d="M 8.0000045,7.1621147 7.7672321,7.2906702 2,10.287572 l 2.7394579,1.426877 3.0277742,1.583698 0.2327724,0.113968 0.2327639,-0.113968 4.1369636,-2.15445 0.260105,-0.143143 0.260982,-0.128555 1.109182,-0.584427 L 11.493322,8.9883361 11.260542,8.8606917 11.027778,8.7458119 8.2327684,7.2906702 Z"/>
 <path style="fill:#b2bfd9" d="m 2.0000057,10.26833 v 6.231211 l 0.027105,0.01364 0.2585868,0.128152 2.714316,1.422382 2.9999894,1.579614 V 13.412114 L 7.9728788,13.39757 7.714292,13.255787 4.8916446,11.776146 Z"/>
 <path style="fill:#b2bfd9" d="M 20.000001,13.393789 V 19.625 l -0.02711,0.01364 -0.258587,0.128151 -2.714317,1.422383 -2.999989,1.579613 v -6.231214 l 0.02712,-0.01454 0.258587,-0.141784 2.822646,-1.47964 z"/>
 <path style="fill:#d4d4d4" d="m 20.000001,7.1625772 v 6.2312118 l -0.02711,0.01364 -0.258587,0.12815 -2.714316,1.422384 -2.99999,1.579613 v -6.231214 l 0.02712,-0.01454 0.258587,-0.141783 2.822647,-1.4796408 z"/>
 <path style="fill:#a0a0a0" d="m 14.000003,4.0183293 -0.232772,0.1285555 -5.7672322,2.9969014 2.7394582,1.4268778 3.027774,1.583698 0.232772,0.113968 0.232764,-0.113968 4.136964,-2.1544501 0.260106,-0.1431431 0.260981,-0.1285555 1.109183,-0.5844271 -2.50668,-1.2992355 -0.23278,-0.1276444 -0.232764,-0.1148798 -2.79501,-1.4551417 z"/>
 <path style="opacity:0.2;fill:#8b9cbe" d="M 14 4.0175781 L 13.767578 4.1464844 L 8 7.1445312 L 8.9609375 7.6445312 L 13.767578 5.1464844 L 14 5.0175781 L 14.232422 5.1464844 L 17.027344 6.6015625 L 17.259766 6.7167969 L 17.494141 6.84375 L 19.042969 7.6484375 L 20 7.1445312 L 17.494141 5.84375 L 17.259766 5.7167969 L 17.027344 5.6015625 L 14.232422 4.1464844 L 14 4.0175781 z M 8 7.1621094 L 7.7675781 7.2910156 L 2.0195312 10.277344 L 2 10.267578 L 2 11.267578 L 2.0195312 11.277344 L 7.7675781 8.2910156 L 8 8.1621094 L 8.2324219 8.2910156 L 11.027344 9.7460938 L 11.259766 9.8613281 L 11.494141 9.9882812 L 13.042969 10.791016 L 13.058594 10.783203 L 10.740234 9.5703125 L 8 8.1445312 L 8.9375 7.6582031 L 8.2324219 7.2910156 L 8 7.1621094 z M 2.0273438 17.513672 L 4.7988281 18.958984 L 2.2851562 17.640625 L 2.0273438 17.513672 z"/>
 <path style="fill:#a0a0a0" d="m 14.000001,10.287572 -0.232771,0.128556 -5.7672322,2.996901 2.7394582,1.426877 3.027774,1.583699 0.232771,0.113967 0.232765,-0.113967 4.136964,-2.154451 0.260105,-0.143143 0.260981,-0.128556 1.109183,-0.584426 -2.506679,-1.299236 -0.232781,-0.127644 -0.232763,-0.11488 -2.79501,-1.455141 z"/>
 <path style="fill:#c5c5c5" d="m 20.000001,19.625002 v 6.231211 l -0.02711,0.01364 -0.258587,0.128152 -2.714317,1.422382 L 14.000001,29 v -6.231214 l 0.02712,-0.01454 0.258587,-0.141783 2.822646,-1.479641 z"/>
 <path style="fill:#c5c5c5" d="M 8.0000026,13.393789 V 19.625 l 0.027105,0.01364 0.2585867,0.128151 L 11.00001,21.189175 14,22.768788 v -6.231214 l -0.02712,-0.01454 -0.258587,-0.141784 -2.822647,-1.47964 z"/>
 <path style="fill:#c5c5c5" d="m 2.0000057,16.499544 v 6.231211 l 0.027105,0.01364 0.2585868,0.128151 2.714316,1.422383 2.9999894,1.579613 V 19.643328 L 7.9728788,19.628785 7.714292,19.487 4.8916446,18.00736 Z"/>
 <path style="fill:#b2bfd9" d="m 8.0000026,19.625002 v 6.231211 l 0.027105,0.01364 0.2585867,0.128152 2.7143157,1.42238 L 14.000001,29 v -6.231214 l -0.02712,-0.01454 -0.258587,-0.141783 -2.822648,-1.479641 z"/>
 <path style="fill:#f06826" d="M 23.000002,3.0004274 22.767231,3.1238273 17,6.0005406 19.739457,7.3701945 22.767231,8.8903792 23.000002,8.9997766 23.232766,8.8903792 27.369729,6.8223319 27.629834,6.6849296 27.890815,6.5615297 28.999998,6.0005406 26.493319,4.7534101 26.260539,4.6308848 26.027776,4.5206121 23.232766,3.1238273 Z"/>
 <path style="fill:#f06826" d="M 23.000001,3.000004 22.766928,3.1236885 17.019533,5.9918663 17,5.9814512 v 0.019529 5.9628938 l 0.02734,0.01302 0.257811,0.122382 2.714841,1.365738 3,1.515461 v 0.01953 L 26,13.483239 28.714844,12.117503 28.972656,11.995121 29,11.9821 V 6.0009798 L 26.49349,4.7537196 26.260417,4.6313371 26.027345,4.5206721 23.233074,3.1236885 Z m 4.683593,3.6597583 -0.108073,0.053381 0.05469,-0.028644 z m -3.247396,1.6287296 -1.15104,0.5793638 -0.257813,0.1367037 -0.02734,0.014322 V 8.9993504 L 23.233078,8.889987 Z"/>
 <path style="opacity:0.1;fill:#8b9cbe" d="M 23 3 L 22.767578 3.1230469 L 17.019531 5.9921875 L 17 5.9824219 L 17 6.0019531 L 17 6.9824219 L 17.019531 6.9921875 L 22.767578 4.1230469 L 23 4 L 23.232422 4.1230469 L 26.027344 5.5214844 L 26.259766 5.6308594 L 26.494141 5.7539062 L 29 7 L 29 6.0019531 L 26.494141 4.7539062 L 26.259766 4.6308594 L 26.027344 4.5214844 L 23.232422 3.1230469 L 23 3 z M 27.683594 7.6601562 L 27.630859 7.6835938 L 27.576172 7.7128906 L 27.683594 7.6601562 z M 24.435547 9.2890625 L 23.232422 9.890625 L 23 10 L 23 10.019531 L 23.027344 10.003906 L 23.285156 9.8671875 L 24.435547 9.2890625 z"/>
 <path style="opacity:0.2" d="m 28.999999,7.0009819 v 5.9813121 l -0.0271,0.01309 -0.258587,0.123013 -2.714316,1.365338 L 23.000008,16 v -5.981313 l 0.02712,-0.01396 0.258587,-0.1360982 2.822645,-1.4203004 z"/>
 <path style="fill:#f38854" d="m 28.999999,6.0005419 v 5.9813121 l -0.0271,0.01309 -0.258587,0.123013 -2.714316,1.365338 -2.999988,1.516265 V 9.0182466 l 0.02712,-0.013958 0.258587,-0.1360978 2.822645,-1.4203004 z"/>
 <path style="opacity:0.2" d="m 17.000009,6.9827353 v 5.9813117 l 0.0271,0.01309 0.258587,0.123013 2.714316,1.365338 L 23,15.981753 V 10.00044 L 22.97288,9.986482 22.714293,9.8503842 19.891648,8.4300838 Z"/>
 <path style="fill:#c85319" d="m 17.000009,5.9822953 v 5.9813117 l 0.0271,0.01309 0.258587,0.123013 2.714316,1.365338 L 23,14.981313 V 9 L 22.97288,8.986042 22.714293,8.8499442 19.891648,7.4296438 Z"/>
 <path style="opacity:0.1;fill:#8b9cbe" d="M 29 6 L 26.107422 7.4472656 L 23.285156 8.8691406 L 23.027344 9.0039062 L 23 9.0175781 L 23 10.019531 L 23.027344 10.003906 L 23.285156 9.8691406 L 26.107422 8.4492188 L 29 7.0019531 L 29 6 z"/>
 <path style="opacity:0.1" d="M 17 5.9824219 L 17 6.9824219 L 19.892578 8.4296875 L 22.714844 9.8496094 L 22.972656 9.9863281 L 23 10 L 23 9 L 22.972656 8.9863281 L 22.714844 8.8496094 L 19.892578 7.4296875 L 17 5.9824219 z"/>
</svg>
