<svg xmlns="http://www.w3.org/2000/svg" width="32" height="32" version="1.1">
 <rect style="opacity:0.2" width="22.615" height="18" x="-29" y="-25" rx="1.346" ry="1.406" transform="matrix(0,-1,-1,0,0,0)"/>
 <rect style="fill:#8e8e8e" width="22.615" height="18" x="-28" y="-25" rx="1.346" ry="1.406" transform="matrix(0,-1,-1,0,0,0)"/>
 <rect style="opacity:0.2" width="22" height="28" x="-26" y="-30" rx="1.375" ry="1.346" transform="matrix(0,-1,-1,0,0,0)"/>
 <rect style="fill:#4f4f4f" width="22" height="28" x="-25" y="-30" rx="1.375" ry="1.346" transform="matrix(0,-1,-1,0,0,0)"/>
 <rect style="fill:#333333" width="18" height="24" x="-23" y="-28" rx="0" ry="0" transform="matrix(0,-1,-1,0,0,0)"/>
 <path style="fill:#303f9f" d="M 4.0000001,17.855018 V 23 h 5.2458642 z"/>
 <path style="fill:#2357cd" d="m 4.0000001,12.65054 v 5.204478 L 9.2458643,23 H 14.55239 Z"/>
 <path style="fill:#9844e8" d="M 4.0000001,7.4460636 V 12.65054 L 14.55239,23 h 5.305147 z"/>
 <path style="fill:#f845c5" d="M 4.0000001,5 V 7.4460636 L 19.857537,23 h 5.307904 L 6.8111215,5 Z"/>
 <path style="fill:#ffb86c" d="M 6.8111215,5 25.165441,23 H 28 V 20.576923 L 12.117647,5 Z"/>
 <path style="fill:#359435" d="M 12.117647,5 28,20.576923 V 15.372446 L 17.424173,5 Z"/>
 <path style="fill:#17aab6" d="M 17.424173,5 28,15.372446 V 10.167969 L 22.730698,5 Z"/>
 <path style="fill:#1bbcff" d="M 22.730698,5 28,10.167969 V 5 Z"/>
 <path style="opacity:0.2" d="M 21.193359,8.0097656 20.703125,8.140625 c -0.06505,0.017432 -0.120567,0.060715 -0.154297,0.1191406 -0.03374,0.058431 -0.04282,0.1263443 -0.02539,0.1914063 l 0.261718,0.9824219 c 0.01743,0.065053 0.06071,0.1205658 0.119141,0.1542968 0.05843,0.033733 0.128299,0.042822 0.193359,0.025391 l 0.490235,-0.1308593 c 0.06505,-0.017434 0.120567,-0.060715 0.154297,-0.1191407 0.03375,-0.058431 0.04283,-0.1283043 0.02539,-0.1933593 L 21.503906,8.1894531 c -0.01743,-0.065052 -0.05876,-0.1205649 -0.117187,-0.1542969 -0.05843,-0.033732 -0.1283,-0.042815 -0.19336,-0.025391 z m 2.425782,0.3183594 c -0.06269,0.016797 -0.119072,0.058132 -0.154297,0.1191406 l -0.507813,0.8789063 c -0.03375,0.058429 -0.04282,0.1282974 -0.02539,0.1933593 0.01743,0.065053 0.05877,0.1205649 0.117187,0.1542969 l 0.441406,0.2539063 c 0.122018,0.070446 0.275253,0.028267 0.345704,-0.09375 L 24.34375,8.9550781 c 0.07044,-0.1220172 0.03022,-0.2772072 -0.0918,-0.3476562 L 23.8125,8.3535156 c -0.06101,-0.035223 -0.130674,-0.042187 -0.193359,-0.025391 z m -4.857422,1.3007812 c -0.06269,0.016797 -0.119072,0.058132 -0.154297,0.1191407 L 18.353516,10.1875 c -0.03375,0.05843 -0.04282,0.12829 -0.02539,0.193359 0.01743,0.06505 0.05876,0.120565 0.117187,0.154297 l 0.88086,0.507813 c 0.122015,0.07045 0.275253,0.03022 0.345703,-0.0918 l 0.255859,-0.441406 c 0.07044,-0.122018 0.02827,-0.275254 -0.09375,-0.345703 L 18.953125,9.65625 c -0.06101,-0.035223 -0.128721,-0.04414 -0.191406,-0.027344 z M 22,10 c -1.097657,0 -2,0.902344 -2,2 0,1.097659 0.902343,2 2,2 1.097656,0 2,-0.902341 2,-2 0,-1.097656 -0.902344,-2 -2,-2 z m 3.548828,0.523438 -0.982422,0.263671 c -0.06505,0.01744 -0.120567,0.05875 -0.154297,0.117188 -0.03375,0.05843 -0.04283,0.128299 -0.02539,0.193359 l 0.132812,0.492188 c 0.01789,0.06387 0.05959,0.119088 0.117188,0.152344 0.05843,0.03375 0.128299,0.04282 0.193359,0.02539 L 25.8125,11.505859 c 0.06505,-0.01744 0.120557,-0.06071 0.154297,-0.11914 0.03375,-0.05843 0.04282,-0.126346 0.02539,-0.191407 l -0.132813,-0.492187 c -0.01743,-0.06505 -0.06072,-0.120566 -0.119141,-0.154297 -0.05843,-0.03373 -0.126346,-0.04282 -0.191406,-0.02539 z m -6.378906,1.708984 -0.982422,0.263672 c -0.06506,0.01743 -0.120567,0.05876 -0.154297,0.117187 -0.03374,0.05843 -0.04282,0.1283 -0.02539,0.19336 l 0.132813,0.490234 c 0.01744,0.06505 0.05877,0.120567 0.117187,0.154297 0.05843,0.03375 0.1283,0.04282 0.19336,0.02539 l 0.980469,-0.261718 c 0.06505,-0.01743 0.120567,-0.06071 0.154297,-0.119141 0.03375,-0.05843 0.04283,-0.128299 0.02539,-0.193359 l -0.130859,-0.490235 c -0.01743,-0.06505 -0.06072,-0.120566 -0.119141,-0.154297 -0.05843,-0.03375 -0.126346,-0.04282 -0.191406,-0.02539 z m 5.310547,0.699219 c -0.06269,0.0168 -0.119072,0.05813 -0.154297,0.11914 l -0.253906,0.439453 c -0.03375,0.05843 -0.04282,0.1283 -0.02539,0.19336 0.01744,0.06505 0.06072,0.120567 0.119141,0.154297 l 0.878906,0.507812 c 0.122017,0.07045 0.277206,0.02827 0.347656,-0.09375 L 25.646484,13.8125 c 0.07044,-0.122018 0.02827,-0.277206 -0.09375,-0.347656 l -0.878906,-0.507813 c -0.06101,-0.03522 -0.130674,-0.04219 -0.193359,-0.02539 z m -4.164063,1.115234 c -0.06269,0.0168 -0.119072,0.05813 -0.154297,0.119141 l -0.507812,0.880859 c -0.03375,0.05843 -0.04283,0.126346 -0.02539,0.191406 0.01743,0.06505 0.06072,0.120567 0.119141,0.154297 l 0.439453,0.253906 c 0.122018,0.07044 0.277206,0.03022 0.347656,-0.0918 l 0.507813,-0.88086 c 0.07044,-0.122017 0.02827,-0.275253 -0.09375,-0.345703 l -0.439453,-0.255859 c -0.06101,-0.03522 -0.130674,-0.04219 -0.19336,-0.02539 z m 2.585938,0.341797 -0.492188,0.130859 c -0.06438,0.01769 -0.118881,0.06117 -0.152344,0.119141 -0.03375,0.05843 -0.04282,0.126346 -0.02539,0.191406 l 0.261719,0.982422 c 0.01743,0.06505 0.06071,0.120567 0.11914,0.154297 0.05843,0.03375 0.1283,0.04282 0.19336,0.02539 l 0.490234,-0.13086 c 0.06505,-0.01743 0.120567,-0.06072 0.154297,-0.11914 0.03375,-0.05843 0.04283,-0.1283 0.02539,-0.19336 l -0.263671,-0.980469 c -0.01743,-0.06505 -0.05876,-0.120566 -0.117188,-0.154297 -0.05843,-0.03375 -0.128299,-0.04282 -0.193359,-0.02539 z M 9.5,15 C 7.5673827,15 6,16.567384 6,18.5 6,20.432616 7.5673827,22 9.5,22 11.432615,22 13,20.432616 13,18.5 13,18.292969 12.981443,18.085937 12.945312,17.882812 12.706054,18.972656 11.741211,19.75 10.625,19.75 9.3134766,19.75 8.25,18.686524 8.25,17.375 8.25,16.25879 9.0273427,15.293946 10.117188,15.054688 9.9140604,15.018548 9.7070312,15 9.5,15 Z"/>
 <path style="fill:#8b9cbe" d="M 22.000001,8.9999992 C 20.902344,8.9999992 20,9.9023419 20,10.999998 20,12.097657 20.902344,13 22.000001,13 23.097657,13 24,12.097657 24,10.999998 24,9.9023419 23.097657,8.9999992 22.000001,8.9999992 Z m 0,0"/>
 <path style="fill:#8b9cbe" d="m 23.811632,7.3538441 0.439947,0.254004 c 0.122018,0.070449 0.16342,0.2249585 0.09298,0.3469757 l -0.508008,0.8798957 c -0.07045,0.1220166 -0.224959,0.1634182 -0.346977,0.092972 l -0.43995,-0.254004 c -0.05842,-0.033732 -0.100891,-0.089185 -0.118322,-0.1542379 -0.01743,-0.065062 -0.0084,-0.1343047 0.02535,-0.1927342 L 23.464665,7.446819 c 0.07045,-0.1220165 0.224958,-0.1634182 0.346975,-0.092972 z m -3.302052,5.7193219 0.439948,0.254004 c 0.122017,0.07045 0.163419,0.224959 0.09298,0.346976 L 20.5345,14.554042 c -0.07045,0.122017 -0.224959,0.163418 -0.346977,0.09298 l -0.439952,-0.254009 c -0.05842,-0.03373 -0.100891,-0.08919 -0.118322,-0.154239 -0.01744,-0.06506 -0.0084,-0.134304 0.02535,-0.192734 l 0.508007,-0.879896 c 0.07045,-0.122016 0.224959,-0.163418 0.346976,-0.09298 z m 0.192926,-5.9321695 0.490646,-0.1314672 c 0.06506,-0.017424 0.134305,-0.00838 0.192734,0.025352 0.05843,0.033732 0.100891,0.089186 0.118322,0.1542378 l 0.262936,0.9812912 c 0.01744,0.065055 0.0084,0.134304 -0.02535,0.1927349 -0.03373,0.058426 -0.08919,0.1008868 -0.154237,0.1183212 l -0.490645,0.1314695 c -0.06506,0.017431 -0.134304,0.00838 -0.192735,-0.025353 -0.05843,-0.033731 -0.100891,-0.089185 -0.118322,-0.1542386 l -0.26294,-0.9812901 c -0.01743,-0.065062 -0.0084,-0.1343085 0.02534,-0.1927394 0.03373,-0.058426 0.08919,-0.1008858 0.154244,-0.1183182 z m 1.70859,6.3792545 0.491141,-0.132329 c 0.06506,-0.01743 0.134305,-0.0084 0.192734,0.02535 0.05843,0.03373 0.100891,0.08919 0.118323,0.154238 l 0.263795,0.981788 c 0.01744,0.06506 0.0084,0.134304 -0.02535,0.192735 -0.03373,0.05842 -0.08919,0.100891 -0.154238,0.118322 l -0.491504,0.130971 c -0.06506,0.01743 -0.134305,0.0084 -0.192735,-0.02535 -0.05843,-0.03373 -0.100891,-0.08919 -0.118323,-0.154239 l -0.262936,-0.981291 c -0.01743,-0.06506 -0.0084,-0.134305 0.02535,-0.192734 0.03373,-0.05843 0.08919,-0.100891 0.154237,-0.118322 z m -4.270953,-1.222754 -0.131468,-0.490645 c -0.01743,-0.06506 -0.0084,-0.134309 0.02534,-0.19274 0.03373,-0.05843 0.08919,-0.100891 0.154245,-0.118318 l 0.98129,-0.262936 c 0.06506,-0.01743 0.134305,-0.0084 0.192736,0.02535 0.05842,0.03373 0.100891,0.08919 0.118322,0.154237 l 0.131467,0.490646 c 0.01744,0.06506 0.0084,0.134303 -0.02535,0.192735 -0.03373,0.05843 -0.08919,0.100891 -0.154237,0.118321 l -0.981292,0.262937 c -0.06506,0.01743 -0.134303,0.0084 -0.192735,-0.02535 -0.05842,-0.03373 -0.100881,-0.08919 -0.118321,-0.154237 z m 6.379253,-1.70859 -0.132327,-0.491142 c -0.01744,-0.06506 -0.0084,-0.1343042 0.02535,-0.1927351 0.03373,-0.058434 0.08919,-0.1008868 0.154238,-0.1183219 l 0.98129,-0.262936 c 0.06506,-0.017431 0.134305,-0.00838 0.192737,0.025352 0.05842,0.033731 0.100891,0.089185 0.118322,0.1542378 l 0.132328,0.4911412 c 0.01743,0.06506 0.0084,0.134304 -0.02535,0.192734 -0.03374,0.05843 -0.08919,0.100887 -0.154239,0.118323 l -0.982151,0.262439 c -0.06506,0.01743 -0.134304,0.0084 -0.192735,-0.02535 -0.05842,-0.03373 -0.100881,-0.08918 -0.118321,-0.154236 z m 1.126763,2.22358 -0.254005,0.439949 c -0.07045,0.122016 -0.224958,0.163417 -0.346975,0.09297 l -0.879896,-0.508008 c -0.05842,-0.03373 -0.100881,-0.08919 -0.118322,-0.154237 -0.01743,-0.06506 -0.0084,-0.134304 0.02535,-0.192735 l 0.254004,-0.439948 c 0.07045,-0.122017 0.224957,-0.163419 0.346976,-0.09298 l 0.879895,0.508008 c 0.122018,0.07045 0.163419,0.224959 0.09298,0.346977 z M 19.926838,9.5104352 19.672834,9.9503826 C 19.602384,10.0724 19.447872,10.1138 19.325857,10.043355 L 18.445961,9.5353464 C 18.387531,9.5016144 18.34507,9.4461604 18.32764,9.3811086 18.31021,9.3160396 18.31924,9.2467994 18.35299,9.1883684 L 18.606998,8.748421 c 0.07045,-0.1220172 0.224959,-0.1634182 0.346977,-0.092972 l 0.879895,0.508008 c 0.122016,0.070449 0.163419,0.2249593 0.09298,0.3469765 z m 0,0"/>
 <path style="fill:#8b9cbe" d="M 9.5000005,14 C 7.5673832,14 6,15.567384 6,17.5 6,19.432616 7.5673832,21 9.5000005,21 11.432616,21 13,19.432616 13,17.5 13,17.292969 12.98145,17.085937 12.94532,16.882813 12.706062,17.972656 11.741219,18.75 10.625008,18.75 c -1.3115234,0 -2.3749998,-1.063476 -2.3749998,-2.375 0,-1.11621 0.777343,-2.081054 1.8671878,-2.320312 -0.2031271,-0.03614 -0.4101568,-0.05468 -0.617188,-0.05468 z m 0,0"/>
 <rect style="opacity:0.1;fill:#8b9cbe" width="24" height="1" x="4" y="23"/>
 <path style="fill:#8b9cbe;opacity:0.1" d="M 3.3457031 3 C 2.5999339 3 2 3.61325 2 4.375 L 2 5.375 C 2 4.61325 2.5999339 4 3.3457031 4 L 28.654297 4 C 29.400066 4 30 4.61325 30 5.375 L 30 4.375 C 30 3.61325 29.400066 3 28.654297 3 L 3.3457031 3 z"/>
</svg>
