<svg width="32" height="32" version="1.1" xmlns="http://www.w3.org/2000/svg">
 <circle cx="16" cy="17" r="14" style="opacity:.2"/>
 <circle cx="16" cy="16" r="14" style="fill:#fda324"/>
 <path d="M 16,2 A 14,14 0 0 0 2,16 14,14 0 0 0 2.0215,16.586 14,14 0 0 1 16,3 14,14 0 0 1 29.979,16.414 14,14 0 0 0 30,16 14,14 0 0 0 16,2 Z" style="fill:#8b9cbe;opacity:.2"/>
 <path d="m23.097467 14.631194c0.0015 1.050797 0.03676 2.128593-0.239602 3.152344-0.319423 1.038089 0.05503 1.775058-0.895495 2.262777-0.02885 1.703674 0.04804 2.267942-0.09674 3.915981-0.156795 1.118287-1.800905 1.686834-2.86409 1.816514-0.650576 0.307635-1.387906 0.142883-2.100537 0.216783-1.635383 0.02598-3.350768-0.04334-4.847834-0.747217-0.668871-0.258762-0.813268-0.990114-1.02691-1.569795 0.02169-1.457869-0.09851-2.915976 0.04666-4.371329 0.151486-2.559027 0.558295-4.795001 1.006622-7.317995-0.01068-0.304457-0.916294-0.10433-0.461081-0.672513 0.524271-0.528756 0.810639-1.6239504 1.551834-1.9359564 1.642326-0.5545946 3.309992-0.3791414 5.008141-0.240472 0.781738 0.1091105 1.522923 0.9340044 2.332427 0.8227332 0.893001-0.102744 0.77172 0.3482102 1.492843 0.7939012 0.718413 0.312723 0.810898 0.880212 0.998365 1.533932 0.133098 0.842789 0.07898 1.490602 0.0954 2.340312zm-1.010627 1.345023c-0.111089-1.115703 0.145653-2.281411-0.216311-3.362559-0.147394-0.654702-0.759411-0.78036-0.861994-0.01139 0.307681 1.849976-0.04012 3.629177 0.138465 5.487732 0.787952-0.427858 0.952684-1.09 0.93984-2.113789z" style="opacity:.1"/>
 <path d="m23.097467 13.631194c0.0015 1.050797 0.03676 2.128593-0.239602 3.152344-0.319423 1.038089 0.05503 1.775058-0.895495 2.262777-0.02885 1.703674 0.04804 2.267942-0.09674 3.915981-0.156795 1.118287-1.800905 1.686834-2.86409 1.816514-0.650576 0.307635-1.387906 0.142883-2.100537 0.216783-1.635383 0.02598-3.350768-0.04334-4.847834-0.747217-0.668871-0.258762-0.813268-0.990114-1.02691-1.569795 0.02169-1.457869-0.09851-2.915976 0.04666-4.371329 0.151486-2.559027 0.558295-4.795001 1.006622-7.317995-0.01068-0.304457-0.916294-0.10433-0.461081-0.672513 0.524271-0.5287557 0.810639-1.6239498 1.551834-1.9359558 1.642326-0.5545946 3.309992-0.3791414 5.008141-0.240472 0.781738 0.1091105 1.522923 0.9340048 2.332427 0.8227332 0.893001-0.102744 0.77172 0.3482098 1.492843 0.7939013 0.718413 0.3127223 0.810898 0.8802113 0.998365 1.5339313 0.133098 0.842789 0.07898 1.490602 0.0954 2.340312zm-1.010627 1.345023c-0.111089-1.115703 0.145653-2.281411-0.216311-3.362559-0.147394-0.654702-0.759411-0.78036-0.861994-0.01139 0.307681 1.849976-0.04012 3.629177 0.138465 5.487732 0.787952-0.427858 0.952684-1.09 0.93984-2.113789z" style="fill:#623f0f"/>
</svg>
