<svg xmlns="http://www.w3.org/2000/svg" width="32" height="32" version="1.1">
 <path style="opacity:0.2" d="m 11.633789,2.5000001 a 0.37503749,0.37503749 0 0 0 -0.325196,0.5771484 l 1.268556,2.0390624 A 7.4999998,7.4999998 0 0 0 9,11.5 7.4999998,7.4999998 0 0 0 16.5,19 7.4999998,7.4999998 0 0 0 24,11.5 7.4999998,7.4999998 0 0 0 20.421387,5.1176758 L 21.691406,3.0771485 A 0.37503749,0.37503749 0 0 0 21.36621,2.5000001 0.37503749,0.37503749 0 0 0 21.055664,2.6816407 L 19.763671,4.7573242 A 7.4999998,7.4999998 0 0 0 16.5,4.0000001 7.4999998,7.4999998 0 0 0 13.234863,4.7543946 L 11.944335,2.6816407 A 0.37503749,0.37503749 0 0 0 11.633789,2.5000001 Z"/>
 <path style="opacity:0.2" d="M 28.000977,26.999832 H 7.3092473 C 6.0349398,26.991703 5.0050936,25.969552 5.001011,24.70884 V 8.6995852 c -0.00719,1.3294198 1.1243548,2.3817458 2.465621,2.3002468 h 17.161921 c 1.371447,0 3.372424,-0.08536 3.372424,2.530085 z"/>
 <path style="fill:#0a455f" d="M 13.434063,6 H 7.2649437 A 2.2712886,2.0032306 0 0 0 5.0009895,8.0032312 2.1980211,1.9386103 0 0 0 7.1990122,9.9999998 H 13.5 Z"/>
 <path style="opacity:0.2" d="M 7.265625 6 A 2.2712886 2.0032306 0 0 0 5.0019531 8.0039062 A 2.1980211 1.9386103 0 0 0 5.0683594 8.53125 A 2.2712886 2.0032306 0 0 1 7.265625 7 L 13.433594 7 L 13.484375 10 L 13.5 10 L 13.433594 6 L 7.265625 6 z"/>
 <path style="fill:#3ddc84" d="m 11.633789,1.5000001 a 0.37503749,0.37503749 0 0 0 -0.325196,0.5771484 l 1.268556,2.0390624 A 7.4999998,7.4999998 0 0 0 9,10.5 7.4999998,7.4999998 0 0 0 16.5,18 7.4999998,7.4999998 0 0 0 24,10.5 7.4999998,7.4999998 0 0 0 20.421387,4.1176758 L 21.691406,2.0771485 A 0.37503749,0.37503749 0 0 0 21.36621,1.5000001 0.37503749,0.37503749 0 0 0 21.055664,1.6816407 L 19.763671,3.7573242 A 7.4999998,7.4999998 0 0 0 16.5,3.0000001 7.4999998,7.4999998 0 0 0 13.234863,3.7543946 L 11.944335,1.6816407 A 0.37503749,0.37503749 0 0 0 11.633789,1.5000001 Z"/>
 <path style="fill:#8b9cbe;opacity:0.2" d="M 11.595703 1.5 A 0.37503749 0.37503749 0 0 0 11.308594 2.078125 L 11.574219 2.5039062 A 0.37503749 0.37503749 0 0 1 11.632812 2.5 A 0.37503749 0.37503749 0 0 1 11.943359 2.6816406 L 13.234375 4.7539062 A 7.4999998 7.4999998 0 0 1 16.5 4 A 7.4999998 7.4999998 0 0 1 19.763672 4.7578125 L 21.054688 2.6816406 A 0.37503749 0.37503749 0 0 1 21.365234 2.5 A 0.37503749 0.37503749 0 0 1 21.425781 2.5039062 A 0.37503749 0.37503749 0 0 1 21.427734 2.5039062 L 21.691406 2.078125 A 0.37503749 0.37503749 0 0 0 21.365234 1.5 A 0.37503749 0.37503749 0 0 0 21.054688 1.6816406 L 19.763672 3.7578125 A 7.4999998 7.4999998 0 0 0 16.5 3 A 7.4999998 7.4999998 0 0 0 13.234375 3.7539062 L 11.943359 1.6816406 A 0.37503749 0.37503749 0 0 0 11.632812 1.5 A 0.37503749 0.37503749 0 0 0 11.595703 1.5 z M 12.140625 4.4140625 A 7.4999998 7.4999998 0 0 0 9 10.5 A 7.4999998 7.4999998 0 0 0 9.0253906 11.017578 A 7.4999998 7.4999998 0 0 1 12.578125 5.1152344 L 12.140625 4.4140625 z M 20.857422 4.4179688 L 20.421875 5.1171875 A 7.4999998 7.4999998 0 0 1 23.976562 11.060547 A 7.4999998 7.4999998 0 0 0 24 10.5 A 7.4999998 7.4999998 0 0 0 20.857422 4.4179688 z"/>
 <path style="fill:#4285f4" d="M 28.000977,26 H 7.3092473 C 6.0349398,25.991871 5.0050936,24.96972 5.001011,23.709008 V 7.6997535 C 4.993821,9.0291731 6.1253658,10.081499 7.466632,10 H 24.628553 C 26,10 28.000977,9.914639 28.000977,12.530085 Z"/>
 <path style="opacity:0.2" d="m 13.787109,6.9997826 a 0.72545588,0.7292113 0 0 0 -0.574218,0.2675781 0.71649963,0.72020868 0 0 0 0.511718,1.2324219 0.70754337,0.71120607 0 0 0 0.509766,-0.2070312 0.72545588,0.7292113 0 0 0 -0.447266,-1.2929688 z m 5.476563,0 a 0.7505204,0.75713788 0 0 0 -0.542969,0.21875 0.74125471,0.74779049 0 0 0 0.537109,1.28125 A 0.74125471,0.74779049 0 0 0 20,7.7517357 0.7505204,0.75713788 0 0 0 19.263672,6.9997826 Z"/>
 <path style="fill:#8b9cbe" d="m 19.258743,7.4999999 a 0.74125471,0.74779049 0 0 1 -0.537398,-1.2805897 0.7505204,0.75713788 0 0 1 1.278652,0.5328007 0.74125471,0.74779049 0 0 1 -0.741254,0.747789"/>
 <path style="fill:#073042" d="m 17.257039,15.266613 a 1.2429818,1.2576933 0 1 0 0.476957,2.413016 1.2357553,1.2503812 0 0 0 -0.476957,-2.413016 z"/>
 <path style="fill:#8b9cbe" d="m 13.724296,7.4999999 a 0.71649963,0.72020868 0 0 1 -0.510502,-1.2333562 0.72545588,0.7292113 0 1 1 1.021027,1.026297 0.70754337,0.71120607 0 0 1 -0.510525,0.2070592"/>
 <path style="opacity:0.1" d="M 16.492188,13.99202 A 0.50005,0.50005 0 0 0 16,14.499832 v 0.550781 a 2.5,2.5 0 0 0 -2,2.449219 2.5,2.5 0 0 0 0.888672,1.908203 l -4.765625,9.962891 c -0.1898536,0.367145 -0.1571735,0.803088 0.08594,1.140625 0.24666,0.334381 0.659988,0.518694 1.087891,0.484375 0.42804,-0.0391 0.80091,-0.296873 0.972656,-0.671875 l 3.339844,-6.748047 c 0.161057,-0.313549 0.494463,-0.520029 0.861328,-0.521484 0.01022,-3e-5 0.01913,0.0037 0.0293,0.0039 0.01018,-2.89e-4 0.01906,-0.0039 0.0293,-0.0039 0.366864,0.0014 0.700271,0.207935 0.861328,0.521484 l 3.339844,6.748047 c 0.171747,0.375002 0.544616,0.632772 0.972656,0.671875 0.427902,0.03432 0.841233,-0.149994 1.087891,-0.484375 0.243112,-0.337537 0.27579,-0.77348 0.08594,-1.140625 L 18.113281,19.409988 A 2.5,2.5 0 0 0 19,17.499832 2.5,2.5 0 0 0 17,15.05452 V 14.499832 A 0.50005,0.50005 0 0 0 16.492188,13.99202 Z M 16.5,15.999832 a 1.5,1.5 0 0 1 1.5,1.5 1.5,1.5 0 0 1 -1.5,1.5 1.5,1.5 0 0 1 -1.5,-1.5 1.5,1.5 0 0 1 1.5,-1.5 z"/>
 <path style="fill:#0a455f" d="M 16.492188 12.992188 A 0.50005 0.50005 0 0 0 16 13.5 L 16 14.050781 A 2.5 2.5 0 0 0 14 16.5 A 2.5 2.5 0 0 0 14.888672 18.408203 L 10.123047 28.371094 C 9.9331934 28.738239 9.9658735 29.174182 10.208984 29.511719 C 10.455644 29.8461 10.868972 30.030413 11.296875 29.996094 C 11.724915 29.956994 12.097785 29.699221 12.269531 29.324219 L 15.609375 22.576172 C 15.770432 22.262623 16.103838 22.056143 16.470703 22.054688 C 16.480923 22.054658 16.48983 22.058394 16.5 22.058594 C 16.51018 22.058305 16.519057 22.054687 16.529297 22.054688 C 16.896161 22.056088 17.229568 22.262623 17.390625 22.576172 L 20.730469 29.324219 C 20.902216 29.699221 21.275085 29.956991 21.703125 29.996094 C 22.131027 30.030414 22.544358 29.8461 22.791016 29.511719 C 23.034128 29.174182 23.066806 28.738239 22.876953 28.371094 L 18.113281 18.410156 A 2.5 2.5 0 0 0 19 16.5 A 2.5 2.5 0 0 0 17 14.054688 L 17 13.5 A 0.50005 0.50005 0 0 0 16.492188 12.992188 z M 16.5 15 A 1.5 1.5 0 0 1 18 16.5 A 1.5 1.5 0 0 1 16.5 18 A 1.5 1.5 0 0 1 15 16.5 A 1.5 1.5 0 0 1 16.5 15 z"/>
 <path style="opacity:0.2" d="M 26.014187,14.999832 H 25.113475 C 25.050765,14.999832 25,15.047239 25,15.113074 v 14.767542 c -1.2e-4,0.06304 0.0465,0.115279 0.106387,0.119216 h 0.929078 C 27.121593,29.995732 28.000007,29.06953 28,27.928431 V 12.85059 c 3e-5,1.149848 -0.891375,2.157514 -1.985813,2.149242 z"/>
 <path style="fill:#0a455f" d="M 26.014187,14 H 25.113475 C 25.050765,14 25,14.047407 25,14.113242 v 14.767542 c -1.2e-4,0.06304 0.0465,0.115279 0.106387,0.119216 h 0.929078 C 27.121593,28.9959 28.000007,28.069698 28,26.928599 V 11.850758 c 3e-5,1.149848 -0.891375,2.157514 -1.985813,2.149242 z"/>
</svg>
