<svg xmlns="http://www.w3.org/2000/svg" width="32" height="32" version="1.1">
 <circle style="opacity:0.2" cx="16" cy="17" r="14"/>
 <circle style="fill:#2fbd8c" cx="16" cy="16" r="14"/>
 <path style="opacity:0.3;fill:#8b9cbe;fill-rule:evenodd" d="M 25.8,25.1 12.872648,18.495977 18.670926,13.572382 Z"/>
 <path style="opacity:0.3;fill-rule:evenodd" d="m 6.2,6.9 12.464542,6.706983 -5.842138,4.854696 z"/>
 <path style="opacity:0.2;fill-rule:evenodd" d="M 8.5900218,22 C 8.2788875,20.523078 8.0134998,19.053841 8.000048,17.673642 c -0.013615,-3.070876 2.873094,-6.25699 6.085447,-6.612973 4.027494,-0.446317 8.523234,1.650914 11.554897,3.63233 0.468568,0.280752 0.41209,0.616252 0.208522,0.943443 -1.288085,1.771454 -3.191127,3.171346 -4.821965,4.11678 -3.725968,2.14197 -6.710321,0.819796 -10.288446,1.467555 C 10.376015,21.286401 8.9513999,21.891367 8.5900218,22 Z"/>
 <path style="fill:#8b9cbe;fill-rule:evenodd" d="M 8.5900218,21 C 8.2788875,19.523078 8.0134998,18.053841 8.000048,16.673642 c -0.013615,-3.070876 2.873094,-6.25699 6.085447,-6.612973 4.027494,-0.446317 8.523234,1.650914 11.554897,3.63233 0.468568,0.280752 0.41209,0.616252 0.208522,0.943443 -1.288085,1.771454 -3.191127,3.171346 -4.821965,4.11678 -3.725968,2.14197 -6.710321,0.819796 -10.288446,1.467555 C 10.376015,20.286401 8.9513999,20.891367 8.5900218,21 Z"/>
 <circle style="fill:#f7785b" cx="13.5" cy="15.5" r="3.5"/>
 <circle style="fill:#17191e" cx="13.5" cy="15.5" r="1.5"/>
 <path style="fill:#8b9cbe;opacity:0.2" d="M 16 2 A 14 14 0 0 0 2 16 A 14 14 0 0 0 2.0214844 16.585938 A 14 14 0 0 1 16 3 A 14 14 0 0 1 29.978516 16.414062 A 14 14 0 0 0 30 16 A 14 14 0 0 0 16 2 z"/>
</svg>
