<svg xmlns="http://www.w3.org/2000/svg" width="32" height="32" version="1.1">
 <path style="opacity:0.2" d="M 24.376953,6.0054585 C 23.099112,6.1501168 21.961899,6.8036651 20.742188,7.3196172 19.970919,7.647159 19.281959,8.2139051 19,9.0028338 18.671349,8.6880077 18.514258,8.3323305 18.158203,8.0714019 16.204788,6.639875 13.88644,5.8590153 11.480469,6.02108 5.4358975,5.987834 2.0845283,12.335693 2,16.598789 2.035936,21.51182 3.6408152,24.6131 4.6992188,27.153065 5.3419222,28.695526 7.1213931,29.415585 8.65625,28.754268 10.267515,28.115599 12.559025,27.636112 13,25.999026 c 0.20705,0.202958 0.08361,0.163338 0.306641,0.35539 1.782141,1.536081 4.149604,2.643938 6.847656,2.643938 2.506105,0 4.795808,-1.126534 6.642578,-2.934889 C 28.643645,24.25511 30.022336,21.587662 30,18.471416 29.964379,13.64287 28.499749,10.388627 27.287109,7.9971997 27.24686,7.8844922 27.199902,7.7742939 27.146484,7.6671956 c -0.0039,-0.00848 -0.0078,-0.016941 -0.01172,-0.025385 -0.526121,-1.032078 -1.599623,-1.6690417 -2.757811,-1.6363521 z"/>
 <path style="fill:#4a5579" d="M 24.376953,5.0054589 C 23.099112,5.1501172 21.961899,5.8036655 20.742188,6.3196176 19.970919,6.6471594 19.281959,7.2139055 19,8.0028342 18.671349,7.6880081 18.514258,7.3323309 18.158203,7.0714023 16.204788,5.6398754 13.88644,4.8590157 11.480469,5.0210804 5.4358975,4.9878344 2.0845283,11.335693 2,15.598789 2.035936,20.51182 3.6408152,23.6131 4.6992188,26.153065 5.3419222,27.695526 7.1213931,28.415585 8.65625,27.754268 10.267515,27.115599 12.559025,26.636112 13,24.999026 c 0.20705,0.202958 0.08361,0.163338 0.306641,0.35539 1.782141,1.536081 4.149604,2.643938 6.847656,2.643938 2.506105,0 4.795808,-1.126534 6.642578,-2.934889 C 28.643645,23.25511 30.022336,20.587662 30,17.471416 29.964379,12.64287 28.499749,9.3886273 27.287109,6.9972001 27.24686,6.8844926 27.199902,6.7742943 27.146484,6.667196 27.142584,6.658716 27.138684,6.650255 27.134764,6.641811 26.608643,5.609733 25.535141,4.9727693 24.376953,5.0054589 Z"/>
 <path style="opacity:0.2" d="M 11.679263,9.01344 C 8.6495011,9.2170979 4.9667891,12.02583 5.000226,16.575785 5.0318051,20.894091 6.3358476,23.280066 7.4689903,26 L 9.8346557,24.979783 C 8.4841737,22.921977 6.4714532,18.752311 6.5875538,15.998594 6.6646448,14.184018 7.2971606,12.912849 8.3959373,11.888773 11.04396,9.4197903 14.694163,9.9998749 16.838774,12.632941 c 1.218592,1.552041 1.427573,3.831845 0.310221,5.496816 -1.89569,2.825142 -6.199773,1.451661 -6.496062,-1.821334 -0.14025,-1.554937 1.353269,-2.751785 2.725114,-2.765298 -1.40714,-0.81656 -3.584258,0.690118 -3.4663003,2.537511 0.3473733,5.444696 6.2740773,5.550868 8.1019663,2.446783 3.262891,-5.543145 -2.27743,-9.7880955 -6.331664,-9.5149438 z"/>
 <path style="opacity:0.2" d="m 24.464878,9 -2.55282,1.080691 c 1.537719,2.989434 3.322149,5.2805 3.324974,8.972143 9.11e-4,1.355427 -0.5358,2.891451 -1.807971,4.033621 -1.156349,1.037463 -2.663934,1.650336 -4.461548,1.397694 -1.88048,-0.264168 -3.173368,-1.135446 -3.980364,-2.127761 -1.267464,-1.691643 -1.477452,-3.852065 -0.453877,-5.434198 0.583825,-0.902018 1.88048,-1.668588 3.164893,-1.556196 2.265616,0.196926 3.53402,1.466858 3.514246,3.387129 -0.01977,1.95389 -1.388937,2.704129 -2.924771,2.570604 1.43696,0.641691 3.607469,-0.197887 3.598994,-2.350624 -0.0113,-2.901057 -1.944511,-4.297792 -4.031213,-4.309318 -2.155442,-0.01248 -3.347574,0.79923 -4.038746,1.899135 -0.691173,1.099904 -0.877621,2.550433 -0.800405,3.735831 0.0791,1.20365 0.941653,2.658983 2.247724,3.783863 1.304188,1.124878 3.055662,1.917386 4.89,1.917386 2.953963,0 6.877828,-3.040346 6.845811,-7.508165 -0.03296,-4.46878 -1.320195,-7.121998 -2.535869,-9.489914 z"/>
 <path style="fill:#f9f9f9" d="M 11.679263,8.01344 C 8.6495011,8.2170979 4.9667891,11.02583 5.000226,15.575785 5.0318051,19.894091 6.3358476,22.280066 7.4689903,25 L 9.8346557,23.979783 C 8.4841737,21.921977 6.4714532,17.752311 6.5875538,14.998594 6.6646448,13.184018 7.2971606,11.912849 8.3959373,10.888773 11.04396,8.4197903 14.694163,8.9998749 16.838774,11.632941 c 1.218592,1.552041 1.427573,3.831845 0.310221,5.496816 -1.89569,2.825142 -6.199773,1.451661 -6.496062,-1.821334 -0.14025,-1.554937 1.353269,-2.751785 2.725114,-2.765298 -1.40714,-0.81656 -3.584258,0.690118 -3.4663003,2.537511 0.3473733,5.444696 6.2740773,5.550868 8.1019663,2.446783 3.262891,-5.543145 -2.27743,-9.7880955 -6.331664,-9.5149438 z"/>
 <path style="fill:#4696e2" d="m 24.464878,8 -2.55282,1.0806914 c 1.537719,2.9894336 3.322149,5.2804996 3.324974,8.9721426 9.11e-4,1.355427 -0.5358,2.891451 -1.807971,4.033621 -1.156349,1.037463 -2.663934,1.650336 -4.461548,1.397694 -1.88048,-0.264168 -3.173368,-1.135446 -3.980364,-2.127761 -1.267464,-1.691643 -1.477452,-3.852065 -0.453877,-5.434198 0.583825,-0.902018 1.88048,-1.668588 3.164893,-1.556196 2.265616,0.196926 3.53402,1.466858 3.514246,3.387129 -0.01977,1.95389 -1.388937,2.704129 -2.924771,2.570604 1.43696,0.641691 3.607469,-0.197887 3.598994,-2.350624 -0.0113,-2.901057 -1.944511,-4.297792 -4.031213,-4.309318 -2.155442,-0.01248 -3.347574,0.79923 -4.038746,1.899135 -0.691173,1.099904 -0.877621,2.550433 -0.800405,3.735831 0.0791,1.20365 0.941653,2.658983 2.247724,3.783863 1.304188,1.124878 3.055662,1.917386 4.89,1.917386 2.953963,0 6.877828,-3.040346 6.845811,-7.508165 -0.03296,-4.46878 -1.320195,-7.121998 -2.535869,-9.489914 z"/>
 <path style="fill:#f9f9f9" d="m 17.6872,13.299372 c 0.152019,0.528048 0.216406,1.079675 0.186143,1.62513 l 1.031241,0.308319 c 0.127676,-0.685927 0.12304,-1.340081 0.01105,-1.954647 z"/>
 <path style="opacity:0.1;fill:#8b9cbe" d="M 12.378906 5.0039062 C 12.08144 4.9952688 11.781215 5.0012263 11.480469 5.0214844 C 5.4358973 4.9882384 2.0845283 11.336513 2 15.599609 C 2.0015006 15.804772 2.0205253 15.988565 2.0273438 16.1875 C 2.3069287 11.939472 5.6252368 5.9892798 11.480469 6.0214844 C 13.88644 5.8594197 16.204788 6.6407387 18.158203 8.0722656 C 18.514258 8.3331942 18.671349 8.687127 19 9.0019531 C 19.281959 8.2130244 19.970918 7.6478543 20.742188 7.3203125 C 21.961898 6.8043604 23.099112 6.1505177 24.376953 6.0058594 C 25.535141 5.9731698 26.608645 6.6105001 27.134766 7.6425781 C 27.138686 7.6510221 27.142584 7.6594888 27.146484 7.6679688 C 27.199902 7.7750671 27.24686 7.8853394 27.287109 7.9980469 C 28.454273 10.299791 29.841391 13.414439 29.976562 17.949219 C 29.982869 17.789397 30.001163 17.633018 30 17.470703 C 29.964379 12.642157 28.499749 9.3894741 27.287109 6.9980469 C 27.24686 6.8853394 27.199902 6.7750671 27.146484 6.6679688 C 27.142584 6.6594888 27.138686 6.6510221 27.134766 6.6425781 C 26.608645 5.6105001 25.535141 4.9731698 24.376953 5.0058594 C 23.099112 5.1505177 21.961898 5.8043604 20.742188 6.3203125 C 19.970918 6.6478543 19.281959 7.2130244 19 8.0019531 C 18.671349 7.687127 18.514258 7.3331942 18.158203 7.0722656 C 16.448965 5.8196796 14.461172 5.0643686 12.378906 5.0039062 z"/>
</svg>
