<svg xmlns="http://www.w3.org/2000/svg" width="32" height="32" version="1.1">
 <rect style="opacity:.2" width="28" height="28" x="2" y="3" rx="1.4" ry="1.4"/>
 <rect style="fill:#b76728" width="28" height="28" x="2" y="2" rx="1.4" ry="1.4"/>
 <rect style="fill:#4d4d4d" width="24" height="24" x="4" y="4" rx="1.2" ry="1.2"/>
 <path style="opacity:.2" d="m6 8v1h1v6h-1v1h5v-1h1v-6h-1v-1zm8 0v1h-1v6h1v1h4v-1h1v-6h-1v-1zm7 0v1h-1v2h1v1h2v1h1v2h-2v-2h-2v2h1v1h4v-1h1v-2h-1v-1h-1v-1h-2v-2h2v2h2v-2h-1v-1zm-12 1h1v6h-1zm6 0h2v6h-2zm-9 9v1h1v6h-1v1h5v-1h1v-3h-1v-1h1v-2h-1v-1zm8 0v1h-1v6h1v1h4v-1h1v-6h-1v-1zm5 0v1h1v2h1v2h-1v2h-1v1h2v-1h1v-1h1v1h1v1h2v-1h-1v-2h-1v-2h1v-2h1v-1h-2v1h-1v1h-1v-1h-1v-1zm-10 1h1v2h-1zm6 0h2v6h-2zm-6 3h1v3h-1z"/>
 <path style="fill:#b2bfd9" d="m6 7v1h1v6h-1v1h5v-1h1v-6h-1v-1zm8 0v1h-1v6h1v1h4v-1h1v-6h-1v-1zm7 0v1h-1v2h1v1h2v1h1v2h-2v-2h-2v2h1v1h4v-1h1v-2h-1v-1h-1v-1h-2v-2h2v2h2v-2h-1v-1zm-12 1h1v6h-1zm6 0h2v6h-2zm-9 9v1h1v6h-1v1h5v-1h1v-3h-1v-1h1v-2h-1v-1zm8 0v1h-1v6h1v1h4v-1h1v-6h-1v-1zm5 0v1h1v2h1v2h-1v2h-1v1h2v-1h1v-1h1v1h1v1h2v-1h-1v-2h-1v-2h1v-2h1v-1h-2v1h-1v1h-1v-1h-1v-1zm-10 1h1v2h-1zm6 0h2v6h-2zm-6 3h1v3h-1z"/>
 <path style="opacity:.2;fill:#8b9cbe" d="m3.4004 2c-0.7756 0-1.4004 0.6248-1.4004 1.4004v1c0-0.7756 0.6248-1.4004 1.4004-1.4004h25.2c0.775 0 1.4 0.6248 1.4 1.4004v-1c0-0.7756-0.625-1.4004-1.4-1.4004h-25.2z"/>
</svg>
