<svg xmlns="http://www.w3.org/2000/svg" width="32" height="32" version="1">
 <path style="opacity:0.2" d="m 2,22 0,6.9 C 2,30.0634 2.9506842,31 4.131579,31 l 22.736842,0 C 28.049316,31 28.743828,30.035696 29,28.9 L 29,22 Z"/>
 <path style="fill:#ffbf3f" d="M 4.131579,2 C 2.9506842,2 2,2.9366 2,4.1 l 0,17.57 27,0 L 29,4.1 C 29,2.9366 28.049316,2 26.868421,2 Z"/>
 <path style="fill:#b2bfd9" d="m 2,21 0,6.9 C 2,29.0634 2.9506842,30 4.131579,30 l 22.736842,0 C 28.049316,30 28.743828,29.035696 29,27.9 L 29,21 Z"/>
 <rect style="opacity:0.6;fill:#4f4f4f" width="9" height="2" x="4" y="26" rx="1" ry="1"/>
 <rect style="fill:#4f4f4f" width="19" height="2" x="4" y="23" rx="1" ry="1"/>
 <path style="fill:#8b9cbe;opacity:0.2" d="M 4.1308594 2 C 2.9499646 2 2 2.9362094 2 4.0996094 L 2 5.0996094 C 2 3.9362094 2.9499646 3 4.1308594 3 L 26.869141 3 C 28.050036 3 29 3.9362094 29 5.0996094 L 29 4.0996094 C 29 2.9362094 28.050036 2 26.869141 2 L 4.1308594 2 z"/>
 <path style="fill:#8b9cbe;opacity:0.2" d="M 2 21 L 2 22 L 29 22 L 29 21 L 2 21 z"/>
 <path style="opacity:0.1" d="m 2,20 0,1 27,0 0,-1 -27,0 z"/>
</svg>
