<svg xmlns="http://www.w3.org/2000/svg" width="32" height="32" version="1">
 <rect style="opacity:0.2" width="27" height="27" x="-30" y="-30" rx="3" ry="3" transform="matrix(0,-1,-1,0,0,0)"/>
 <rect style="fill:#9bca6b" width="3" height="3" x="3" y="8" ry="0"/>
 <rect style="fill:#583c28" width="3" height="3" x="6" y="17" ry="0"/>
 <rect style="fill:#b8845b" width="3" height="3" x="-18" y="17" ry="0" transform="scale(-1,1)"/>
 <rect style="fill:#785439" width="3" height="3" x="-15" y="17" ry="0" transform="scale(-1,1)"/>
 <rect style="fill:#956b49" width="3" height="3" x="-18" y="14" ry="0" transform="scale(-1,1)"/>
 <rect style="fill:#785439" width="3" height="3" x="12" y="14" ry="0"/>
 <rect style="fill:#583c28" width="3" height="3" x="-15" y="11" ry="0" transform="scale(-1,1)"/>
 <rect style="fill:#9bca6b" width="3" height="3" x="27" y="5" ry="0"/>
 <path style="fill:#72b248" d="M 6,2 V 5 H 3 C 3,2 6,2 6,2 Z"/>
 <rect style="fill:#b8845b" width="3" height="3" x="-21" y="-23" ry="0" transform="scale(-1)"/>
 <rect style="fill:#785439" width="3" height="3" x="9" y="17" ry="0"/>
 <rect style="fill:#583c28" width="3" height="3" x="9" y="14" ry="0"/>
 <rect style="fill:#6b6b6b" width="3" height="3" x="-21" y="14" ry="0" transform="scale(-1,1)"/>
 <rect style="fill:#956b49" width="3" height="3" x="18" y="11" ry="0"/>
 <rect style="fill:#60a036" width="3" height="3" x="-12" y="8" ry="0" transform="scale(-1,1)"/>
 <rect style="fill:#956b49" width="3" height="3" x="-24" y="17" ry="0" transform="scale(-1,1)"/>
 <rect style="fill:#9bca6b" width="3" height="3" x="6" y="5" ry="0"/>
 <rect style="fill:#72b248" width="3" height="3" x="15" y="8" ry="0"/>
 <rect style="fill:#56962c" width="3" height="3" x="18" y="8" ry="0"/>
 <rect style="fill:#60a036" width="3" height="3" x="21" y="8" ry="0"/>
 <rect style="fill:#72b248" width="3" height="3" x="-24" y="11" ry="0" transform="scale(-1,1)"/>
 <rect style="fill:#785439" width="3" height="3" x="-9" y="14" ry="0" transform="scale(-1,1)"/>
 <rect style="fill:#56962c" width="3" height="3" x="-15" y="8" ry="0" transform="scale(-1,1)"/>
 <rect style="fill:#60a036" width="3" height="3" x="-6" y="5" ry="0" transform="scale(-1,1)"/>
 <rect style="fill:#785439" width="3" height="3" x="-27" y="26" ry="0" transform="scale(-1,1)"/>
 <rect style="fill:#785439" width="3" height="3" x="12" y="26" ry="0"/>
 <rect style="fill:#956b49" width="3" height="3" x="15" y="26" ry="0"/>
 <rect style="fill:#956b49" width="3" height="3" x="9" y="-29" ry="0" transform="scale(1,-1)"/>
 <rect style="fill:#785439" width="3" height="3" x="-21" y="-29" ry="0" transform="scale(-1)"/>
 <rect style="fill:#583c28" width="3" height="3" x="9" y="23" ry="0"/>
 <rect style="fill:#6b6b6b" width="3" height="3" x="12" y="23" ry="0"/>
 <rect style="fill:#785439" width="3" height="3" x="18" y="23" ry="0"/>
 <rect style="fill:#583c28" width="3" height="3" x="15" y="23" ry="0"/>
 <rect style="fill:#583c28" width="3" height="3" x="24" y="23" ry="0"/>
 <rect style="fill:#6b6b6b" width="3" height="3" x="-9" y="-26" ry="0" transform="scale(-1)"/>
 <rect style="fill:#b8845b" width="3" height="3" x="6" y="-29" ry="0" transform="scale(1,-1)"/>
 <rect style="fill:#b8845b" width="3" height="3" x="-27" y="17" ry="0" transform="scale(-1,1)"/>
 <rect style="fill:#956b49" width="3" height="3" x="-27" y="14" ry="0" transform="scale(-1,1)"/>
 <rect style="fill:#9bca6b" width="3" height="3" x="24" y="2" ry="0"/>
 <rect style="fill:#72b248" width="3" height="3" x="24" y="8" ry="0"/>
 <rect style="fill:#72b248" width="3" height="3" x="-24" y="2" ry="0" transform="scale(-1,1)"/>
 <rect style="fill:#60a036" width="3" height="3" x="18" y="2" ry="0"/>
 <rect style="fill:#72b248" width="3" height="3" x="6" y="2" ry="0"/>
 <rect style="fill:#56962c" width="3" height="3" x="9" y="2" ry="0"/>
 <rect style="fill:#56962c" width="3" height="3" x="15" y="2" ry="0"/>
 <rect style="fill:#72b248" width="3" height="3" x="12" y="2" ry="0"/>
 <rect style="fill:#b8845b" width="3" height="3" x="-6" y="-14" ry="0" transform="scale(-1)"/>
 <rect style="fill:#b8845b" width="3" height="3" x="3" y="-26" ry="0" transform="scale(1,-1)"/>
 <rect style="fill:#956b49" width="3" height="3" x="3" y="17" ry="0"/>
 <rect style="fill:#583c28" width="3" height="3" x="3" y="14" ry="0"/>
 <rect style="fill:#b8845b" width="3" height="3" x="-12" y="11" ry="0" transform="scale(-1,1)"/>
 <rect style="fill:#56962c" width="3" height="3" x="21" y="5" ry="0"/>
 <rect style="fill:#60a036" width="3" height="3" x="24" y="5" ry="0"/>
 <rect style="fill:#56962c" width="3" height="3" x="-18" y="5" ry="0" transform="scale(-1,1)"/>
 <rect style="fill:#72b248" width="3" height="3" x="18" y="5" ry="0"/>
 <path style="fill:#72b248" d="m 27,2 c 0,0 3,0 3,3 h -3 z"/>
 <rect style="fill:#56962c" width="3" height="3" x="-12" y="5" ry="0" transform="scale(-1,1)"/>
 <rect style="fill:#56962c" width="3" height="3" x="27" y="11" ry="0"/>
 <rect style="fill:#9bca6b" width="3" height="3" x="12" y="5" ry="0"/>
 <rect style="fill:#b8845b" width="3" height="3" x="-12" y="20" ry="0" transform="scale(-1,1)"/>
 <rect style="fill:#785439" width="3" height="3" x="6" y="-23" ry="0" transform="scale(1,-1)"/>
 <rect style="fill:#583c28" width="3" height="3" x="12" y="-23" ry="0" transform="scale(1,-1)"/>
 <rect style="fill:#785439" width="3" height="3" x="15" y="-23" ry="0" transform="scale(1,-1)"/>
 <rect style="fill:#785439" width="3" height="3" x="21" y="-17" ry="0" transform="scale(1,-1)"/>
 <rect style="fill:#785439" width="3" height="3" x="27" y="-17" ry="0" transform="scale(1,-1)"/>
 <path style="fill:#583c28" d="M 6,29 V 26 H 3 c 0,0 0,3 3,3 z"/>
 <rect style="fill:#6b6b6b" width="3" height="3" x="-6" y="20" ry="0" transform="scale(-1,1)"/>
 <rect style="fill:#6b6b6b" width="3" height="3" x="-21" y="14" ry="0" transform="scale(-1,1)"/>
 <rect style="fill:#6b6b6b" width="3" height="3" x="-9" y="11" ry="0" transform="scale(-1,1)"/>
 <rect style="fill:#6b6b6b" width="3" height="3" x="-27" y="-14" ry="0" transform="scale(-1)"/>
 <rect style="fill:#b8845b" width="3" height="3" x="-30" y="8" ry="0" transform="scale(-1,1)"/>
 <rect style="fill:#b8845b" width="3" height="3" x="21" y="26" ry="0"/>
 <rect style="fill:#785439" width="3" height="3" x="-24" y="20" ry="0" transform="scale(-1,1)"/>
 <rect style="fill:#956b49" width="3" height="3" x="-30" y="20" ry="0" transform="scale(-1,1)"/>
 <rect style="fill:#785439" width="3" height="3" x="-9" y="-11" ry="0" transform="scale(-1)"/>
 <rect style="fill:#6b6b6b" width="3" height="3" x="24" y="20" ry="0"/>
 <rect style="fill:#b8845b" width="3" height="3" x="-18" y="11" ry="0" transform="scale(-1,1)"/>
 <rect style="fill:#785439" width="3" height="3" x="27" y="23" ry="0"/>
 <path style="fill:#6b6b6b" d="m 27,26 h 3 c 0,3 -3,3 -3,3 z"/>
 <rect style="fill:#785439" width="3" height="3" x="18" y="17" ry="0"/>
 <rect style="fill:#583c28" width="3" height="3" x="27" y="-20" ry="0" transform="scale(1,-1)"/>
 <rect style="fill:#785439" width="3" height="3" x="21" y="-26" ry="0" transform="scale(1,-1)"/>
 <path style="opacity:0.2;fill:#8b9cbe" d="M 6,2 C 4.338,2 3,3.338 3,5 V 6 C 3,4.338 4.338,3 6,3 h 21 c 1.662,0 3,1.338 3,3 V 5 C 30,3.338 28.662,2 27,2 Z"/>
</svg>
