<svg xmlns="http://www.w3.org/2000/svg" height="32" width="32" version="1.1">
 <path style="opacity:.2" d="m11.385139 3.9999955c-0.04222 0.0006947-0.08484 0.0028-0.126954 0.00586l0.0059 0.00977c-0.772755 0.042269-1.4801606 0.4668915-1.8730466 1.15625l-8.076172 14.18164c-0.44425701 0.77999-0.41681401 1.752573 0.07227 2.503906l4.617187 7.089844c0.169763 0.260601 0.387758 0.48491 0.642578 0.658203 0.37847 0.257543 0.822953 0.394505 1.277344 0.394531h16.154297c0.771624 0.000061 1.491793-0.395246 1.919922-1.052734l4.615234-7.089844c0.103243-0.160121 0.187454-0.332824 0.25-0.513672 0.0012-0.0033 0.0028-0.0064 0.0039-0.0098 0.226929-0.654693 0.161274-1.37989-0.179688-1.980468l-8.078162-14.181612c-0.38311-0.6722034-1.0644-1.0881391-1.814453-1.148437l0.01367-0.023437h-9.423828zm4.611328 8.6992185 4.707031 8.634765h-9.482422z"/>
 <path style="fill:#abacae" d="m3.7522726 20.009766 2.8695407 4.121775-0.5458258 3.277512c-0.051092 0.306793 0.3159964 1.023123 0.5708164 1.196416 0.3784694 0.257543 0.8229523 0.394505 1.2773437 0.394531h16.154296c0.771624 0.000061 1.491793-0.395246 1.919922-1.052734l4.615234-7.089844c0.103243-0.160121 0.187454-0.332824 0.25-0.513672 0.0011-0.0033 0.0028-0.0064 0.0039-0.0098 0.03664-0.105703 0.05276-0.21566 0.07422-0.324218l-0.406776-0.430571-20.34776 0.430571z"/>
 <path style="opacity:.2" d="m15.998366 11.699219-9.3515621 16.90625c0.1351678 0.09198 0.2802354 0.162182 0.4296875 0.222656l9.1953116-16.625zm-14.93164 8.3125c0.026106 0.132871 0.058886 0.261115 0.1074219 0.388672-0.043371-0.127689-0.081402-0.25676-0.1074219-0.388672z"/>
 <path style="fill:#7e8087" d="m11.385334 3c-0.820767-0.0001128-1.5798463 0.4462096-1.9936106 1.1722006l-8.0769879 14.182074c-0.44425668 0.77999-0.41583339 1.751054 0.073246 2.502387l4.6158016 7.091038c0.1697628 0.260601 0.3884095 0.484042 0.6432295 0.657335l14.161163-25.605035z"/>
 <path style="opacity:.2;fill:#8b9cbe" d="m11.385085 3c-0.820767-0.0001128-1.5803762 0.445884-1.9941405 1.171875l-8.0761719 14.181641c-0.2898543 0.508903-0.35728172 1.096814-0.2480469 1.654296 0.051559-0.225975 0.130276-0.447524 0.2480469-0.654296l8.0761719-14.181641c0.4137643-0.725991 1.1733735-1.1719878 1.9941405-1.171875h8.871093l0.552735-1z"/>
 <path style="opacity:.2" d="m11.385085 4c-0.04222 0.0006947-0.08484 0.0028-0.126954 0.00586l9.269532 17.003907h9.986328l0.09961-0.152344c0.103243-0.160121 0.187454-0.332824 0.25-0.513672 0.0012-0.0033 0.0028-0.0064 0.0039-0.0098 0.0322-0.09291 0.04398-0.189964 0.06445-0.285156-0.0026-0.01285-0.0012-0.02625-0.0039-0.03906h-10.400388l-8.728516-16.009735z"/>
 <path style="fill:#555761" d="m11.385085 3c-0.04222 0.0006947-0.08484 0.0028-0.126954 0.00586l9.269532 17.003907h10.414062c0.111422-0.563495 0.03201-1.152639-0.253906-1.65625l-8.078125-14.181642c-0.413765-0.725991-1.17142-1.1719878-1.992187-1.171875zm-10.074219 17.722656c0.017063 0.03144 0.034287 0.06314 0.052734 0.09375-0.018446-0.03062-0.035671-0.06231-0.052734-0.09375z"/>
 <path style="opacity:.2;fill:#8b9cbe" d="m11.385085 3c-0.04222 0.0006947-0.08484 0.0028-0.126954 0.00586l0.541016 0.99414h8.81836c0.820766-0.0001128 1.578422 0.445884 1.992187 1.171875l8.078125 14.181641c0.117241 0.206507 0.191358 0.428645 0.240234 0.65625h0.01367c0.111422-0.563495 0.03201-1.152639-0.253906-1.65625l-8.078123-14.181641c-0.413765-0.725991-1.171421-1.1719878-1.992187-1.171875zm-10.074219 17.722656c0.017063 0.03144 0.034287 0.06314 0.052734 0.09375-0.018446-0.03062-0.035671-0.06231-0.052734-0.09375zm0 1c0.017063 0.03144 0.034288 0.06313 0.052734 0.09375-0.018447-0.03061-0.035671-0.06231-0.052734-0.09375z"/>
 <path style="opacity:.2" d="m16.057606 11.001179a1.3333407 1.2501302 0 0 0 -1.209522 0.6189l-2.333113 3.750015-2.333113 3.750017a1.3333407 1.2501302 0 0 0 1.152235 1.879889h9.332452a1.3333407 1.2501302 0 0 0 1.152235 -1.879889l-2.333113-3.750017-2.333112-3.750015a1.3333407 1.2501302 0 0 0 -1.094949 -0.6189z"/>
 <path style="fill:#8b9cbe" d="m16.057606 10.001179a1.3333407 1.2501302 0 0 0 -1.209522 0.6189l-2.333113 3.750015-2.333113 3.750017a1.3333407 1.2501302 0 0 0 1.152235 1.879889h9.332452a1.3333407 1.2501302 0 0 0 1.152235 -1.879889l-2.333113-3.750017-2.333112-3.750015a1.3333407 1.2501302 0 0 0 -1.094949 -0.6189z"/>
</svg>
