<svg xmlns="http://www.w3.org/2000/svg" width="32" height="32" version="1.1">
 <rect style="opacity:0.2" width="25" height="28" x="4" y="3" rx="2.273" ry="2.154"/>
 <rect style="fill:#c29875" width="25" height="28" x="4" y="2" rx="2.273" ry="2.154"/>
 <rect style="fill:#885e3d" width="21" height="6.722" x="6" y="4" rx="0" ry="0"/>
 <rect style="fill:#bd916c" width="21" height="6.111" x="6" y="8.89" rx="0" ry="0"/>
 <path style="fill:#ff7800" d="M 22.225813,5.499987 C 21.821075,5.5051926 21.499776,5.6409846 21.5,5.806437 v 9.193504 H 23 V 5.806437 c 0,-0.1692524 -0.335774,-0.30645 -0.75,-0.30645 -0.0079,-6.13e-5 -0.01612,-6.13e-5 -0.024,0 z"/>
 <path style="fill:#f9f06b" d="m 20.72587,5.499987 c -0.404737,0.0052 -0.726037,0.1409976 -0.725811,0.30645 v 9.193504 h 1.5 V 5.806437 c 0,-0.1692524 -0.335776,-0.30645 -0.75,-0.30645 -0.0079,-6.13e-5 -0.01612,-6.13e-5 -0.024,0 z"/>
 <rect style="fill:#1a5fb4" width="1" height="10.5" x="-20" y="4.5" transform="scale(-1,1)"/>
 <rect style="fill:#3584e4" width="2" height="10" x="-25" y="5" transform="scale(-1,1)"/>
 <rect style="fill:#1a5fb4" width="2" height="2" x="23" y="6"/>
 <rect style="fill:#1a5fb4" width="2" height=".5" x="23" y="14"/>
 <rect style="fill:#1a5fb4" width="2" height=".5" x="23" y="12.5"/>
 <rect style="fill:#8b9cbe" width="2" height="9" x="-27" y="6" transform="scale(-1,1)"/>
 <rect style="fill:#ff7800" width="2" height="3.5" x="-27" y="11.5" transform="scale(-1,1)"/>
 <rect style="fill:#ff7800" width="2" height=".5" x="-27" y="10.5" transform="scale(-1,1)"/>
 <path style="fill:#ed333b" d="m 17.000001,4.999942 c -0.3453,0 -0.690599,0.013758 -1,0.040839 -0.618311,0.054088 -0.999432,0.154015 -1,0.2621908 V 14.999942 H 19 V 5.3029723 c -5.71e-4,-0.1081758 -0.381689,-0.208103 -0.999999,-0.2621909 -0.309401,-0.02706 -0.654701,-0.040839 -1,-0.040839 z"/>
 <circle style="fill:#c01c28" cx="-17" cy="11.667" r=".667" transform="scale(-1,1)"/>
 <path style="fill:#c01c28" d="m 17,7.0180584 c -0.345299,0 -0.690599,0.01376 -1,0.04084 -0.61831,0.054087 -0.999432,0.1540148 -1,0.2621908 v 2.4242426 c 5.71e-4,-0.1081767 0.38169,-0.2081041 1,-0.2621913 0.309401,-0.027093 0.654701,-0.040833 1,-0.040833 0.345299,0 0.690599,0.01376 1.000001,0.040833 C 18.61831,9.5372269 18.999429,9.637155 19,9.7453316 V 7.3210904 C 18.999429,7.2129143 18.61831,7.1129877 18.000001,7.0588997 17.690599,7.0318384 17.345299,7.0180584 17,7.0180584 Z"/>
 <path style="fill:#c01c28" d="m 17,13.384929 c -0.345299,0 -0.690599,0.01376 -1,0.04082 -0.61831,0.05409 -0.999432,0.154015 -1,0.262191 V 14.294 c 5.71e-4,-0.108176 0.38169,-0.208103 1,-0.262191 0.309401,-0.02708 0.654701,-0.04083 1,-0.04083 0.345299,0 0.690599,0.01376 1.000001,0.04083 C 18.61831,14.085899 18.999429,14.185824 19,14.294 V 13.687955 C 18.999429,13.579779 18.61831,13.479851 18.000001,13.425764 17.690599,13.398702 17.345299,13.38493 17,13.384929 Z"/>
 <rect style="fill:#e01b24" width="1" height="8" x="11" y="7"/>
 <rect style="fill:#1a5fb4" width="1" height="9" x="6" y="6"/>
 <rect style="fill:#ff7800" width="2" height="10" x="7" y="5"/>
 <circle style="fill:#c64600" cx="8" cy="14" r=".5"/>
 <path style="fill:#2ec27e" d="m 10.000001,4.4999407 c 0.172633,0 0.345299,0.0135 0.5,0.04044 0.309132,0.05355 0.4997,0.1524901 0.499999,0.25956 V 14.999941 H 9 V 4.7999408 c 2.673e-4,-0.1070699 0.1908334,-0.20601 0.5000008,-0.25956 0.1546992,-0.026699 0.3273333,-0.04044 0.5000002,-0.04044 z"/>
 <path style="fill:#26a269" d="m 10.000001,7.0001112 c -0.1726669,0 -0.345301,0.014 -0.5000002,0.041937 C 9.1908334,7.0975787 9.0002673,7.2001865 9,7.3112225 V 12.289 c 2.673e-4,-0.111035 0.1908334,-0.213641 0.5000008,-0.269174 0.1546992,-0.02768 0.3273333,-0.04194 0.5000002,-0.04194 0.172633,0 0.345299,0.01401 0.5,0.04194 0.309132,0.05553 0.4997,0.158139 0.499999,0.269174 V 7.3112226 c -2.99e-4,-0.111036 -0.190867,-0.2136407 -0.499999,-0.2691744 -0.154701,-0.027685 -0.327367,-0.041937 -0.5,-0.041937 z"/>
 <rect style="fill:#5e5c64" width=".56" height="3.105" x="12.72" y="8.17"/>
 <path style="fill:#deddda" d="m 13.5,5.499941 c -0.828427,0 -1.5,0.1372014 -1.5,0.3064516 v 9.1935484 h 3 V 5.8063926 C 15,5.6371424 14.328426,5.499941 13.5,5.499941 Z"/>
 <path style="fill:#5e5c64" d="M 13.499999,6.4156443 C 12.671571,6.4156443 12,6.5528486 12,6.7220959 V 7.335 c 0,-0.1692473 0.671571,-0.3064517 1.499999,-0.3064517 0.828427,0 1.5,0.1372044 1.5,0.3064517 V 6.7220959 c 0,-0.1692473 -0.671573,-0.3064516 -1.5,-0.3064516 z"/>
 <path style="fill:#5e5c64" d="M 13.499999,12.95542 C 12.671571,12.95542 12,13.092625 12,13.261871 v 1.225807 c 0,-0.169248 0.671571,-0.30645 1.499999,-0.30645 0.828427,0 1.5,0.137202 1.5,0.30645 v -1.225807 c 0,-0.169246 -0.671573,-0.306451 -1.5,-0.306451 z"/>
 <rect style="fill:#9a9996" width=".6" height="3.065" x="13.2" y="8.26"/>
 <rect style="fill:#885e3d" width="21" height="6.111" x="6" y="17" rx="0" ry="0"/>
 <rect style="fill:#bd916c" width="21" height="6.111" x="6" y="21.89" rx="0" ry="0"/>
 <path style="fill:#3d3846" d="m 14.499999,17.499966 c -0.172665,0 -0.345299,0.01431 -0.499999,0.04289 -0.309167,0.05679 -0.499734,0.161731 -0.5,0.275291 v 10.181819 h 2 V 17.818148 c -2.67e-4,-0.113559 -0.190866,-0.218494 -0.5,-0.275292 -0.1547,-0.02831 -0.327368,-0.04289 -0.500001,-0.04289 z"/>
 <rect style="fill:#f6d32d" width="2.5" height="9" x="-18" y="19" transform="scale(-1,1)"/>
 <rect style="fill:#77767b" width="3" height=".5" x="-18.5" y="26" transform="scale(-1,1)"/>
 <rect style="fill:#77767b" width="3" height=".3" x="-18.5" y="27" transform="scale(-1,1)"/>
 <rect style="fill:#3584e4" width="3.5" height="10" x="-13.5" y="18" transform="scale(-1,1)"/>
 <rect style="fill:#1a5fb4" width="2.1" height="1.071" x="-12.8" y="19.43" transform="scale(-1,1)"/>
 <rect style="fill:#ed333b" width="2" height="10" x="6" y="18"/>
 <rect style="fill:#5e5c64" width="2" height="1.5" x="-8" y="19.5" transform="scale(-1,1)"/>
 <rect style="fill:#5e5c64" width="2" height=".5" x="-8" y="27" transform="scale(-1,1)"/>
 <rect style="fill:#5e5c64" width="2" height=".5" x="-8" y="25.5" transform="scale(-1,1)"/>
 <rect style="fill:#8b9cbe" width="2" height="9" x="8" y="19"/>
 <rect style="fill:#c061cb" width="2" height="3" x="8" y="25"/>
 <rect style="fill:#c061cb" width="2" height=".5" x="8" y="23.5"/>
 <rect style="fill:#3584e4" width="2" height="10" x="20" y="18"/>
 <rect style="fill:#1a5fb4" width="2" height="1.5" x="20" y="19"/>
 <rect style="fill:#1a5fb4" width="2" height="1" x="20" y="21"/>
 <path style="fill:#57e389" d="m 23.5,18.5 c -0.258991,0 -0.51795,0.01424 -0.750001,0.04269 C 22.28626,18.59922 22.000421,18.703652 22,18.81667 v 9.183327 h 3 v -9.183333 c -2.99e-4,-0.11302 -0.286291,-0.217455 -0.750001,-0.27398 C 24.01795,18.514504 23.75896,18.499994 23.5,18.499994 Z"/>
 <path style="fill:#8c3ea6" d="m 26,17.99997 c -0.172667,0 -0.345299,0.01364 -0.5,0.04085 -0.309167,0.05409 -0.499733,0.15403 -0.5,0.262182 v 9.696967 h 2 v -9.696966 c -2.68e-4,-0.108152 -0.190868,-0.208091 -0.5,-0.262182 -0.1547,-0.02696 -0.327366,-0.04085 -0.5,-0.04085 z"/>
 <rect style="fill:#613583" width=".7" height="7" x="25.7" y="19.5"/>
 <rect style="fill:#ed333b" width="2" height="9" x="18" y="19"/>
 <rect style="fill:#a51d2d" width="1" height="3" x="18.5" y="23"/>
 <rect style="fill:#a51d2d" width="2" height="1" x="18" y="21"/>
 <path style="fill:#8b9cbe;opacity:0.2" d="M 6.2734375 2 C 5.0143543 2 4 2.961066 4 4.1542969 L 4 5.1542969 C 4 3.961066 5.0143543 3 6.2734375 3 L 26.726562 3 C 27.985646 3 29 3.961066 29 5.1542969 L 29 4.1542969 C 29 2.961066 27.985646 2 26.726562 2 L 6.2734375 2 z"/>
 <rect style="opacity:0.2" width="21" height="1" x="6" y="4"/>
 <rect style="opacity:0.2" width="21" height="1" x="6" y="17"/>
 <rect style="opacity:0.2;fill:#8b9cbe" width="21" height="1" x="6" y="15"/>
</svg>
