<svg xmlns="http://www.w3.org/2000/svg" width="32" height="32" version="1">
 <path style="opacity:0.2" d="M 16.5,2 A 14.5,14.5 0 0 0 2,16.5 14.5,14.5 0 0 0 16.5,31 H 29.55 C 30.3533,31 31,30.3533 31,29.55 V 16.5 3.45 C 31,2.6467 30.3533,2 29.55,2 Z"/>
 <path style="fill:#b2bfd9" d="M 16.5,1 A 14.5,14.5 0 0 0 2,15.5 14.5,14.5 0 0 0 16.5,30 H 29.55 C 30.3533,30 31,29.3533 31,28.55 V 15.5 2.45 C 31,1.6467 30.3533,1 29.55,1 Z"/>
 <path style="fill:#adadad;fill-rule:evenodd" d="M 16.857143,7 C 16.387229,7 16,7.3388247 16,7.75 v 2.5 C 16,10.661175 16.387229,11 16.857143,11 H 27.142857 C 27.612772,11 28,10.661175 28,10.25 V 7.75 C 28,7.3388247 27.612772,7 27.142857,7 Z"/>
 <path style="fill:#adadad;fill-rule:evenodd" d="M 18.886364,14 C 18.400429,14 18,14.338824 18,14.75 v 1.5 C 18,16.661176 18.400429,17 18.886364,17 H 30.113637 C 30.599571,17 31,16.661176 31,16.25 v -1.5 C 31,14.338824 30.599571,14 30.113637,14 Z"/>
 <g transform="matrix(0.94043886,0,0,0.94043886,0.79184946,0.92319744)">
  <path style="fill:#305483" d="m 15.775,15.5 -5.7999999,1.45 v -2.9 z"/>
  <g style="fill:#2f5d97" transform="matrix(0.5914677,0,0,0.58765663,2.1806926,1.1677127)">
   <path style="fill:#305483;fill-rule:evenodd" d="M 4.9763661,19.993735 C 6.6130595,17.892454 10.222513,7.6141185 22.117392,11.866741 c 0,0 -10.85914,-1.452094 -12.12183,7.891816"/>
   <path style="fill:#305483;fill-rule:evenodd" d="m 4.5975588,28.434804 c 1.6366934,2.101281 5.6249542,12.758223 17.5198332,8.5056 0,0 -11.174812,0.410374 -12.184965,-7.670846"/>
  </g>
 </g>
 <path style="opacity:0.2;fill-rule:evenodd" d="M 7.4999994,13 C 5.5707721,13 4,14.570772 4,16.500001 4,18.429229 5.5707721,20 7.4999994,20 9.4292274,20 11,18.429229 11,16.500001 11,14.570772 9.4292274,13 7.4999994,13 Z"/>
 <path style="fill:#3594f3;fill-rule:evenodd" d="M 7.4999994,12 C 5.5707721,12 4,13.570772 4,15.500001 4,17.429229 5.5707721,19 7.4999994,19 9.4292274,19 11,17.429229 11,15.500001 11,13.570772 9.4292274,12 7.4999994,12 Z"/>
 <path style="fill:#adadad;fill-rule:evenodd" d="M 16.857143,20 C 16.387229,20 16,20.338825 16,20.75 v 2.5 C 16,23.661175 16.387229,24 16.857143,24 H 27.142857 C 27.612772,24 28,23.661175 28,23.25 v -2.5 C 28,20.338825 27.612772,20 27.142857,20 Z"/>
 <path style="fill:#8b9cbe;opacity:0.2" d="M 16.5 1 A 14.5 14.5 0 0 0 2 15.5 A 14.5 14.5 0 0 0 2.0214844 15.919922 A 14.5 14.5 0 0 1 16.5 2 L 29.550781 2 C 30.354081 2 31 2.6459187 31 3.4492188 L 31 2.4492188 C 31 1.6459187 30.354081 1 29.550781 1 L 16.5 1 z"/>
 <path style="opacity:0.2;fill-rule:evenodd" d="M 16.857422 7 C 16.387508 7 16 7.3388247 16 7.75 L 16 8.75 C 16 8.3388247 16.387508 8 16.857422 8 L 27.142578 8 C 27.612493 8 28 8.3388247 28 8.75 L 28 7.75 C 28 7.3388247 27.612493 7 27.142578 7 L 16.857422 7 z M 18.886719 14 C 18.400784 14 18 14.338824 18 14.75 L 18 15.75 C 18 15.338824 18.400784 15 18.886719 15 L 30.113281 15 C 30.599215 15 31 15.338824 31 15.75 L 31 14.75 C 31 14.338824 30.599215 14 30.113281 14 L 18.886719 14 z M 16.857422 20 C 16.387508 20 16 20.338825 16 20.75 L 16 21.75 C 16 21.338825 16.387508 21 16.857422 21 L 27.142578 21 C 27.612493 21 28 21.338825 28 21.75 L 28 20.75 C 28 20.338825 27.612493 20 27.142578 20 L 16.857422 20 z"/>
 <path style="opacity:0.2;fill:#8b9cbe;fill-rule:evenodd" d="M 16 10.25 L 16 11.25 C 16 11.661175 16.387508 12 16.857422 12 L 27.142578 12 C 27.612493 12 28 11.661175 28 11.25 L 28 10.25 C 28 10.661175 27.612493 11 27.142578 11 L 16.857422 11 C 16.387508 11 16 10.661175 16 10.25 z M 18 16.25 L 18 17.25 C 18 17.661176 18.400784 18 18.886719 18 L 30.113281 18 C 30.599215 18 31 17.661176 31 17.25 L 31 16.25 C 31 16.661176 30.599215 17 30.113281 17 L 18.886719 17 C 18.400784 17 18 16.661176 18 16.25 z M 16 23.25 L 16 24.25 C 16 24.661175 16.387508 25 16.857422 25 L 27.142578 25 C 27.612493 25 28 24.661175 28 24.25 L 28 23.25 C 28 23.661175 27.612493 24 27.142578 24 L 16.857422 24 C 16.387508 24 16 23.661175 16 23.25 z"/>
</svg>
