<svg xmlns="http://www.w3.org/2000/svg" width="32" height="32" version="1.1">
 <rect style="opacity:0.2" width="28" height="28" x="2" y="3" rx="8.4" ry="8.4"/>
 <rect style="fill:#f8a084" width="28" height="28" x="2" y="2" rx="8.4" ry="8.4"/>
 <path style="fill:#8b9cbe;opacity:0.2" d="M 10.400391 2 C 5.7467908 2 2 5.7467908 2 10.400391 L 2 11.400391 C 2 6.7467908 5.7467908 3 10.400391 3 L 21.599609 3 C 26.253209 3 30 6.7467908 30 11.400391 L 30 10.400391 C 30 5.7467908 26.253209 2 21.599609 2 L 10.400391 2 z"/>
 <circle style="opacity:0.2" cx="16" cy="17" r="10"/>
 <path style="fill:#cccccc" d="M 21.374023,7.5800776 C 20.827497,7.6819055 20.281698,7.7998048 20,7.7998048 c -2.308791,0 -4.995744,0.9718221 -6.58789,2.9218742 -1.359493,1.665098 -1.794868,4.158579 -1.893555,6.10547 0.0981,-0.96605 1.389364,-1.158393 2.05078,-1.701173 0.719564,-0.590496 1.35153,-2.725585 2.430665,-2.725585 0.135351,-2.5e-5 0.270616,0.0067 0.405273,0.02051 0.004,2.02e-4 0.0078,7.14e-4 0.01172,10e-4 4.223227,0.218146 7.333005,3.300573 7.333005,7.578102 0,0.857241 -0.138998,1.680901 -0.388672,2.455078 0.07013,0.03117 0.13667,0.05524 0.203125,0.07812 a 10,10 0 0 0 0.004,-0.0049 c 0.141068,-0.163359 0.269872,-0.33466 0.399414,-0.505859 a 10,10 0 0 0 0.186523,-0.245117 c 0.109509,-0.154385 0.209314,-0.31479 0.309571,-0.47461 a 10,10 0 0 0 0.202148,-0.330078 c 0.08758,-0.152416 0.168756,-0.308302 0.248047,-0.464844 A 10,10 0 0 0 25.09578,20.13182 c 0.07194,-0.158079 0.139547,-0.31797 0.203124,-0.479491 a 10,10 0 0 0 0.148438,-0.404297 c 0.05373,-0.155917 0.106359,-0.312228 0.152344,-0.470703 a 10,10 0 0 0 0.120117,-0.473633 c 0.03391,-0.142561 0.07001,-0.284575 0.09765,-0.428711 a 10,10 0 0 0 0.08496,-0.561524 c 0.0167,-0.125206 0.03881,-0.248962 0.05078,-0.375 A 10,10 0 0 0 26,16 c -8.57e-4,-0.210145 -0.0084,-0.42021 -0.02246,-0.629883 -6.3e-5,-9.28e-4 6.4e-5,-0.0019 0,-0.003 -0.0039,-0.05942 -0.01072,-0.118491 -0.01563,-0.177735 -0.02194,-0.277974 -0.0555,-0.554908 -0.100581,-0.830078 -0.01039,-0.06189 -0.0234,-0.12303 -0.03515,-0.18457 a 10,10 0 0 0 -0.0019,-0.01075 c -0.04267,-0.226285 -0.09316,-0.451028 -0.151368,-0.673828 -1.81e-4,-7e-4 -7.85e-4,-0.0012 -10e-4,-0.0019 -0.02994,-0.114594 -0.06175,-0.228489 -0.0957,-0.341797 -0.05637,-0.18765 -0.118249,-0.373603 -0.185547,-0.557617 -0.05225,-0.143194 -0.107321,-0.285215 -0.166016,-0.425781 -0.06709,-0.161347 -0.13841,-0.320907 -0.213867,-0.478515 -0.05593,-0.116381 -0.11158,-0.233419 -0.171875,-0.347656 a 10,10 0 0 0 -0.003,-0.0068 l -0.001,-10e-4 c -0.09287,-0.174064 -0.190917,-0.345386 -0.293946,-0.513673 -0.0018,-0.003 -0.0041,-0.0058 -0.0058,-0.0088 -0.08048,-0.13194 -0.163337,-0.262372 -0.25,-0.390626 l -0.0019,-0.003 a 10,10 0 0 0 -0.0019,-0.0039 C 24.180116,10.25981 24.074055,10.112672 23.964788,9.9686966 23.863471,9.835207 23.758557,9.7047034 23.650334,9.5761191 a 10,10 0 0 0 -0.0039,-0.00493 C 23.610594,9.5298821 23.574454,9.4888601 23.537984,9.448142 23.336301,9.2166127 23.12518,8.9927427 22.901266,8.779197 c -0.0029,-0.00271 -0.0059,-0.00514 -0.0088,-0.00782 A 10,10 0 0 0 22.843696,8.725549 C 22.723693,8.6128819 22.601661,8.5016684 22.475552,8.3945012 c 0.0024,-0.00243 0.0035,-0.00436 0.0058,-0.00686 A 10,10 0 0 0 21.373987,7.5800269 Z M 23.25293,22.587891 c -0.04856,0.05457 -0.09772,0.108612 -0.147461,0.162109 0.04975,-0.0535 0.0989,-0.107536 0.147461,-0.162109 z m -0.567383,0.586913 c -0.06175,0.05906 -0.124255,0.11734 -0.1875,0.174805 -0.0036,0.0077 -0.0062,0.0158 -0.0098,0.02344 0.06668,-0.06515 0.132439,-0.131248 0.197266,-0.198242 z"/>
 <path style="fill:#8b9cbe" d="m 16.409179,12.020508 c 2.017025,0.20484 2.94043,1.958229 2.94043,4.029296 2.6e-5,0.135352 -0.0067,0.270616 -0.02051,0.405273 -2.02e-4,0.004 -7.14e-4,0.0078 -10e-4,0.01173 -0.218146,4.223229 -3.050574,7.333005 -7.328103,7.333005 -0.857239,0 -2.1027751,-0.64974 -2.876952,-0.899413 0.025364,0.02161 -0.01035,0.127616 -0.072266,0.27539 A 10,10 0 0 0 16,26 c 0.210145,-8.57e-4 0.42021,-0.0084 0.629883,-0.02246 9.29e-4,-6.3e-5 0.0019,6.4e-5 0.003,0 0.05942,-0.0039 0.118489,-0.01072 0.177733,-0.01563 0.277975,-0.02194 0.554908,-0.0555 0.830079,-0.100581 0.06189,-0.01039 0.123029,-0.0234 0.18457,-0.03515 a 10,10 0 0 0 0.01075,-0.0019 c 0.226285,-0.04267 0.451029,-0.09316 0.673829,-0.151368 7e-4,-1.81e-4 0.0012,-7.86e-4 0.0019,-10e-4 0.114592,-0.02994 0.228487,-0.06176 0.341795,-0.0957 0.18765,-0.05637 0.373604,-0.118248 0.557618,-0.185547 0.143194,-0.05225 0.285214,-0.10732 0.425781,-0.166015 0.161346,-0.06709 0.320907,-0.13841 0.478515,-0.213867 0.116381,-0.05593 0.233419,-0.11158 0.347657,-0.171875 a 10,10 0 0 0 0.0068,-0.003 l 10e-4,-10e-4 c 0.174085,-0.09289 0.345385,-0.190917 0.513671,-0.293946 0.003,-0.0018 0.0058,-0.0041 0.0088,-0.0058 0.131939,-0.08048 0.262371,-0.163338 0.390625,-0.25 l 0.003,-0.0019 a 10,10 0 0 0 0.0039,-0.0019 c 0.149316,-0.101061 0.296455,-0.207137 0.440429,-0.316406 0.13349,-0.101316 0.263994,-0.206229 0.392579,-0.314453 a 10,10 0 0 0 0.0049,-0.0039 c 0.04131,-0.0358 0.08233,-0.07193 0.123046,-0.108399 0.23153,-0.201683 0.4554,-0.412805 0.668945,-0.63672 0.0028,-0.0029 0.0051,-0.0059 0.0079,-0.0088 a 10,10 0 0 0 0.0459,-0.04883 c 0.11257,-0.120072 0.223785,-0.242105 0.330951,-0.368214 C 23.859245,21.695566 24,20.864698 24,20 24,15.719793 20.636139,12.234773 16.409179,12.020508 Z M 8.6269528,22.538086 c 0.065157,0.06668 0.1312457,0.132438 0.1982421,0.197265 -0.059064,-0.06175 -0.11734,-0.124255 -0.1748043,-0.1875 -0.00765,-0.0036 -0.0158,-0.0062 -0.023436,-0.0098 z"/>
 <path style="fill:#cccccc" d="m 9.4619143,8.6269526 c -0.066679,0.065157 -0.1324379,0.1312458 -0.1972658,0.1982422 0.06175,-0.059064 0.1242557,-0.11734 0.1875,-0.1748043 0.00357,-0.00765 0.00621,-0.0158 0.00977,-0.023436 z M 8.8447264,9.2499998 C 8.7949835,9.3034927 8.7458253,9.3575355 8.6972657,9.4121091 8.7458228,9.3575377 8.794982,9.3034962 8.8447264,9.2499998 Z M 8.5205078,9.3759762 A 10,10 0 0 0 5.9999999,16 a 10,10 0 0 0 0.022457,0.629883 c 0.00393,0.06039 0.010636,0.120452 0.015621,0.180664 a 10,10 0 0 0 0.1005868,0.830077 c 0.010993,0.06548 0.024828,0.130146 0.037107,0.195313 a 10,10 0 0 0 0.1513671,0.673828 c 0.0301,0.115296 0.062529,0.229758 0.09668,0.34375 a 10,10 0 0 0 0.1855466,0.557618 c 0.05225,0.143195 0.1073207,0.285214 0.1660157,0.425781 a 10,10 0 0 0 0.2138671,0.478516 c 0.057,0.118609 0.1131508,0.238187 0.1748043,0.354492 2.043e-4,3.85e-4 7.858e-4,6e-4 10e-4,0.001 a 10,10 0 0 0 0.2939458,0.513672 c 0.082188,0.135025 0.1672235,0.26824 0.2558593,0.399414 0.102415,0.151566 0.2094535,0.301195 0.3203128,0.447266 0.1025715,0.13515 0.2087035,0.267328 0.3183592,0.39746 a 10,10 0 0 0 0.1083986,0.123048 c 0.2016822,0.231528 0.4128036,0.455399 0.6367186,0.668945 a 10,10 0 0 0 0.057614,0.05371 C 9.2762829,23.38711 9.3983151,23.498325 9.5244251,23.605492 10.304451,23.859266 11.135302,24 12,24 c 4.280207,0 7.765227,-3.363861 7.979493,-7.590821 -0.204841,2.017025 -1.908425,3.44043 -3.979493,3.44043 -0.13535,2.5e-5 -0.270617,-0.0068 -0.405274,-0.02051 -0.004,-2.02e-4 -0.0078,-7.14e-4 -0.01172,-10e-4 C 11.359776,19.60993 8.2001949,16.277528 8.2001949,12 c 0,-0.857241 0.1389986,-1.680901 0.3886722,-2.455078 C 8.5661741,9.482336 8.5432601,9.4349091 8.5205101,9.3759762 Z"/>
 <path style="fill:#8b9cbe" d="M 15.590821,19.979492 C 15.058543,19.925431 17.894088,19.303331 17.464823,19.06132 16.267426,18.386256 12.2,17.524527 12.2,16 c -2.5e-5,-0.135351 -0.19318,-0.270616 -0.17949,-0.405274 2.02e-4,-0.004 7.14e-4,-0.0078 10e-4,-0.01172 C 12.239705,11.359771 15.722471,7.9999967 20,7.9999967 c 0.857241,0 1.680901,0.1389986 2.455077,0.3886722 C 20.653818,6.8537134 18.366554,6.0073219 16,5.9999998 13.071035,6.0042855 10.291206,7.2924919 8.3945306,9.5244141 8.1407336,10.304451 8,11.135302 8,12 c 0,4.280207 3.363862,7.765227 7.590821,7.979492 z M 23.373047,9.2617191 c -0.06515,-0.066679 -0.131245,-0.1324386 -0.198243,-0.1972664 0.05906,0.06175 0.117341,0.1242557 0.174805,0.1875 0.0077,0.00357 0.0158,0.00621 0.02344,0.00977 z M 22.75,8.6445305 c -0.0535,-0.049743 -0.107536,-0.0989 -0.162109,-0.14746 0.05457,0.048557 0.108613,0.097716 0.162109,0.14746 z"/>
 <circle style="fill:#4f4f4f" cx="16" cy="16" r="4"/>
 <path style="opacity:0.1" d="m 27.570312,3 c -0.363547,0 -0.72729,0.1393995 -1.005859,0.4179688 l -2.513672,2.5136718 -7.541015,7.5429684 -0.75586,2.263672 -0.25,0.751953 1.00586,1.00586 0.751953,-0.25 2.263672,-0.75586 7.542968,-7.5410152 2.513672,-2.5136719 c 0.557138,-0.5571386 0.557138,-1.4545803 0,-2.0117188 L 28.576172,3.4179688 C 28.297603,3.1393995 27.93386,3 27.570312,3 Z M 15.501953,16.492188 15,18 16.507812,17.498047 Z"/>
 <path style="fill:#b94141" d="M 24.051403,4.9323513 16.50879,12.474965 19.525036,15.49121 27.067649,7.9485974 Z"/>
 <path style="fill:#f6b473" d="m 16.50879,12.474965 -0.75506,2.262518 -0.250356,0.753727 1.005416,1.005416 0.753728,-0.250355 2.262518,-0.755061 -1.507458,-1.508788 z"/>
 <path style="fill:#8a5f5a" d="m 24.050988,4.9320179 3.016995,3.0169954 2.514164,-2.5141627 c 0.557138,-0.5571386 0.557138,-1.4541919 0,-2.0113304 L 28.57648,2.417855 c -0.557138,-0.5571385 -1.454191,-0.5571385 -2.011329,0 z"/>
 <rect style="fill:#8b9cbe" width=".711" height="4.267" x="13.52" y="20.49" transform="rotate(-45)"/>
 <path style="fill:#7d5651" d="M 15.502833,15.491503 15,17 16.508498,16.497168 Z"/>
</svg>
