<svg xmlns="http://www.w3.org/2000/svg" width="32" height="32" version="1">
 <path style="opacity:0.2" d="m 25.9995,29.606061 0,-20.2121216 C 25.9995,8.621697 25.38625,8 24.6245,8 L 6.375,8 C 5.61325,8 5,8.621697 5,9.3939394 L 5,29.606061 C 5,30.378303 5.61325,31 6.375,31 l 18.2495,0 c 0.76175,0 1.375,-0.621697 1.375,-1.393939 z"/>
 <path style="fill:#b2bfd9" d="m 25.9995,28.606061 0,-20.2121216 C 25.9995,7.621697 25.38625,7 24.6245,7 L 6.375,7 C 5.61325,7 5,7.621697 5,8.3939394 L 5,28.606061 C 5,29.378303 5.61325,30 6.375,30 l 18.2495,0 c 0.76175,0 1.375,-0.621697 1.375,-1.393939 z"/>
 <path style="fill:#4f4f4f" d="m 25.9995,8 0,-2.6666667 C 25.9995,4.5946667 25.38625,4 24.6245,4 L 6.375,4 C 5.61325,4 5,4.5946667 5,5.3333333 L 5,8 Z"/>
 <path style="fill:#f7c13e" d="M 7.46875,2 C 7.2091615,2 7,2.2719098 7,2.609375 l 0,2.78125 C 7,5.7280902 7.2091615,6 7.46875,6 l 1.0625,0 C 8.7908385,6 9,5.7280902 9,5.390625 L 9,2.609375 C 9,2.2719098 8.7908385,2 8.53125,2 l -1.0625,0 z"/>
 <path style="fill:#f7c13e" d="M 12.46875,2 C 12.209161,2 12,2.2719098 12,2.609375 l 0,2.78125 C 12,5.7280902 12.209161,6 12.46875,6 l 1.0625,0 C 13.790839,6 14,5.7280902 14,5.390625 l 0,-2.78125 C 14,2.2719098 13.790839,2 13.53125,2 l -1.0625,0 z"/>
 <path style="fill:#f7c13e" d="M 17.46875,2 C 17.209161,2 17,2.2719098 17,2.609375 l 0,2.78125 C 17,5.7280902 17.209161,6 17.46875,6 l 1.0625,0 C 18.790839,6 19,5.7280902 19,5.390625 l 0,-2.78125 C 19,2.2719098 18.790839,2 18.53125,2 l -1.0625,0 z"/>
 <path style="fill:#f7c13e" d="M 22.46875,2 C 22.209161,2 22,2.2719098 22,2.609375 l 0,2.78125 C 22,5.7280902 22.209161,6 22.46875,6 l 1.0625,0 C 23.790839,6 24,5.7280902 24,5.390625 l 0,-2.78125 C 24,2.2719098 23.790839,2 23.53125,2 l -1.0625,0 z"/>
 <path style="opacity:0.1" d="m 16.354193,18.662344 c 0.04874,0.05608 0.17811,0.180566 0.388132,0.373466 2.948049,2.990364 4.36534,4.323977 4.251307,4.682318 -0.08196,0.26359 -0.318198,0.487102 -0.70872,0.670541 -0.389879,0.172766 -0.741124,0.251107 -1.053738,0.235023 -0.247511,-0.01273 -1.422985,-0.9322 -3.525858,-3.439888 -0.424317,-0.525289 -0.673531,-0.821979 -0.747642,-0.890072 -0.308106,0.326946 -0.768656,0.999541 -1.381654,2.017789 -0.789065,1.62466 -1.827312,3.123853 -2.421953,4.840478 -0.181626,0.601245 -0.643683,0.882773 -1.3861704,0.844579 -0.390787,-0.02011 -0.630888,-0.150286 -0.720298,-0.390551 -0.089417,-0.240267 -0.052852,-0.613308 0.109693,-1.119131 0.312056,-1.012307 1.8128014,-3.46852 4.5022394,-7.368645 -0.0153,-0.172171 -0.400651,-0.797227 -1.156059,-1.87517 -0.755421,-1.077922 -1.355156,-1.894442 -1.799211,-2.313645 -0.481123,-0.45322 -0.681383,-0.800953 -0.60078,-1.043198 0.181617,-0.601234 0.754395,-0.877065 1.718336,-0.827494 0.468937,0.02414 1.304736,1.034906 2.507403,2.896392 0.513712,0.765572 0.850199,1.23279 1.00946,1.401652 0.277326,-0.253525 0.67266,-0.72059 1.185996,-1.401194 0.513992,-0.691259 0.869447,-1.251428 1.066372,-1.680508 0.194886,-0.397022 0.502308,-0.713282 0.922272,-0.948784 0.41994,-0.235473 0.818794,-0.343501 1.196566,-0.324083 0.586162,0.03016 0.798317,0.292815 0.636461,0.787943 -0.181635,0.60126 -1.238502,1.923399 -3.170604,3.966421 -0.503925,0.531117 -0.777772,0.833037 -0.821551,0.905761"/>
 <path style="fill:#ff6600" d="m 16.354193,17.662344 c 0.04874,0.05608 0.17811,0.180566 0.388132,0.373466 2.948049,2.990364 4.36534,4.323977 4.251307,4.682318 -0.08196,0.26359 -0.318198,0.487102 -0.70872,0.670541 -0.389879,0.172766 -0.741124,0.251107 -1.053738,0.235023 -0.247511,-0.01273 -1.422985,-0.9322 -3.525858,-3.439888 -0.424317,-0.525289 -0.673531,-0.821979 -0.747642,-0.890072 -0.308106,0.326946 -0.768656,0.999541 -1.381654,2.017789 -0.789065,1.62466 -1.827312,3.123853 -2.421953,4.840478 -0.181626,0.601245 -0.643683,0.882773 -1.3861704,0.844579 -0.390787,-0.02011 -0.630888,-0.150286 -0.720298,-0.390551 -0.089417,-0.240267 -0.052852,-0.613308 0.109693,-1.119131 0.312056,-1.012307 1.8128014,-3.46852 4.5022394,-7.368645 -0.0153,-0.172171 -0.400651,-0.797227 -1.156059,-1.87517 -0.755421,-1.077922 -1.355156,-1.894442 -1.799211,-2.313645 -0.481123,-0.45322 -0.681383,-0.800953 -0.60078,-1.043198 0.181617,-0.601234 0.754395,-0.877065 1.718336,-0.827494 0.468937,0.02414 1.304736,1.034906 2.507403,2.896392 0.513712,0.765572 0.850199,1.23279 1.00946,1.401652 0.277326,-0.253525 0.67266,-0.72059 1.185996,-1.401194 0.513992,-0.691259 0.869447,-1.251428 1.066372,-1.680508 0.194886,-0.397022 0.502308,-0.713282 0.922272,-0.948784 0.41994,-0.235473 0.818794,-0.343501 1.196566,-0.324083 0.586162,0.03016 0.798317,0.292815 0.636461,0.787943 -0.181635,0.60126 -1.238502,1.923399 -3.170604,3.966421 -0.503925,0.531117 -0.777772,0.833037 -0.821551,0.905761"/>
</svg>
