<svg xmlns="http://www.w3.org/2000/svg" width="32" height="32" version="1.1">
 <rect style="opacity:0.2" width="28" height="28" x="2" y="3" rx="1.4" ry="1.4"/>
 <path style="fill:#005bb7" d="M 4.9441614,3.7729261 16.83,2 H 28.6 C 29.3756,2 30,2.6244 30,3.4 v 11.842 l -2.058882,11.928221 c -0.131922,0.764298 -0.629992,1.307033 -1.4,1.4 L 15.299,30 H 3.4 C 2.6244,30 2,29.3756 2,28.6 V 16.73 L 3.5441614,5.1729261 c 0.1027165,-0.7687683 0.6322263,-1.2900963 1.4,-1.4 z"/>
 <path style="opacity:0.1;fill:#8b9cbe" d="M 3.4003906 2 C 2.6247906 2 2 2.6247906 2 3.4003906 L 2 4.4003906 C 2 3.6247906 2.6247906 3 3.4003906 3 L 28.599609 3 C 29.375209 3 30 3.6247906 30 4.4003906 L 30 3.4003906 C 30 2.6247906 29.375209 2 28.599609 2 L 3.4003906 2 z"/>
 <path style="fill:#0a84ff" d="M 3.4,2 C 2.6244,2 2,2.6244 2,3.4 v 25.2 c 0,0.074 0.010919,0.14518 0.021875,0.216016 V 17.061 c 4.3743875,0.02045 9.159451,-0.702754 11.320836,1.603757 C 15.67958,21.158535 14.9608,25.481356 15,30 H 28.6 C 29.3756,30 30,29.3756 30,28.6 V 15.035289 C 25.481356,14.996092 21.158535,15.67958 18.664757,13.342711 16.358246,11.181326 17.020452,6.3962625 17,2.021875 H 28.816016 C 28.74518,2.0109183 28.673999,2 28.6,2 Z M 30,15.035289 V 3.4 C 30,3.3700013 29.992271,3.342019 29.99043,3.3125 29.962871,5.0615506 29.934652,13.829565 30,15.035289 Z M 15,30 C 13.794276,29.934652 5.0615505,29.962871 3.3125,29.99043 3.342019,29.992271 3.3700013,30 3.4,30 Z"/>
 <g transform="matrix(0.02558459,0,0,0.02568428,-16.056226,25.340755)">
  <path style="opacity:0.2" d="M 1331.1226,142.47021 V 80.922336 L 1449.9441,-74.225586 1331.1226,-228.56362 v -57.24372 h 351.7742 v 116.80299 h -38.5011 l -1.1697,-77.86864 H 1377.1283 L 1508.5326,-73.794372 1377.1283,103.5359 h 266.9413 l -0.5175,-77.868644 h 37.4851 V 142.47021 Z"/>
 </g>
 <g transform="matrix(0.02558459,0,0,0.02568428,-16.056226,24.340755)">
  <path style="fill:#8b9cbe" d="M 1331.1226,142.47021 V 80.922336 L 1449.9441,-74.225586 1331.1226,-228.56362 v -57.24372 h 351.7742 v 116.80299 h -38.5011 l -1.1697,-77.86864 H 1377.1283 L 1508.5326,-73.794372 1377.1283,103.5359 h 266.9413 l -0.5175,-77.868644 h 37.4851 V 142.47021 Z"/>
 </g>
 <path style="opacity:0.2" d="M 6.9570312 16.96875 C 5.3611482 16.97125 3.6618797 17.068217 2.0214844 17.060547 L 2.0214844 18.060547 C 6.3958719 18.080997 11.180412 17.357551 13.341797 19.664062 C 14.737884 21.15389 15.036383 23.304766 15.064453 25.751953 C 15.100353 22.891591 14.924862 20.353423 13.341797 18.664062 C 11.990931 17.22249 9.6168365 16.964587 6.9570312 16.96875 z"/>
 <path style="opacity:0.2;fill:#8b9cbe" d="M 3.4003906,2 C 2.6247906,2 2,2.6247906 2,3.4003906 v 1 C 2,3.6247906 2.6247906,3 3.4003906,3 H 16.984375 C 16.988845,2.6735023 17.001511,2.3447216 17,2.0214844 46.473128,2.004063 11.919409,2 3.4003906,2 Z M 16.935547,7.2207031 c -0.03008,2.9503669 0.156304,5.6478059 1.728515,7.1210939 2.493778,2.336869 6.817294,1.654162 11.335938,1.693359 -0.0058,-0.106547 -0.0034,-0.785408 -0.0078,-1 -4.515761,-0.03833 -8.835812,0.642138 -11.328126,-1.693359 C 17.27139,12.036751 16.967358,9.7708501 16.935547,7.2207031 Z"/>
</svg>
