<svg xmlns="http://www.w3.org/2000/svg" width="32" height="32" version="1">
 <rect style="opacity:0.2" width="28" height="28" x="2" y="3" rx="14" ry="14"/>
 <rect style="fill:#614eff" width="28" height="28" x="2" y="2" rx="14" ry="14"/>
 <path style="opacity:0.2" d="m 16,8 a 9,9 0 0 0 -9,9 9,9 0 0 0 9,9 9,9 0 0 0 9,-9 9,9 0 0 0 -1.398438,-4.796875 c -0.0063,-0.04123 -0.0089,-0.0482 -0.01562,-0.09375 -0.04074,-0.274351 -0.04971,-0.514914 -0.04297,-1.111328 0.0047,-0.418933 0.01187,-0.891585 0.01367,-1.0507814 0.0029,-0.2573598 -0.0065,-0.3061869 -0.07813,-0.4433594 -0.04767,-0.091249 -0.118147,-0.1826474 -0.201172,-0.2617187 -0.0941,-0.110243 -0.205893,-0.1620419 -0.31836,-0.1914063 -0.36229,-0.09656 -0.759101,-0.016886 -1.085937,0.015625 -0.510707,0.048417 -1.040442,0.091461 -1.439453,0.1132813 A 9,9 0 0 0 16,8 Z m 0,3 a 6.0000001,6.0000001 0 0 1 6,6 6.0000001,6.0000001 0 0 1 -6,6 6.0000001,6.0000001 0 0 1 -6,-6 6.0000001,6.0000001 0 0 1 6,-6 z"/>
 <path style="fill:#8b9cbe" d="M 16 7 A 9 9 0 0 0 7 16 A 9 9 0 0 0 16 25 A 9 9 0 0 0 25 16 A 9 9 0 0 0 16 7 z M 16 10 A 6.0000001 6.0000001 0 0 1 22 16 A 6.0000001 6.0000001 0 0 1 16 22 A 6.0000001 6.0000001 0 0 1 10 16 A 6.0000001 6.0000001 0 0 1 16 10 z"/>
 <path style="fill:#8b9cbe" d="m 18.57,7.7188261 c 1.194426,0.4730373 1.678485,2.3572959 2.635518,3.2494319 1.302592,1.214261 2.927301,1.587937 3.280468,3.300448 -0.03418,-0.180958 -0.07046,-0.386247 -0.09195,-0.477313 -0.09806,-0.415522 -0.347015,-1.140167 -0.507061,-1.47521 -0.152951,-0.320191 -0.190071,-0.464581 -0.300181,-1.206131 -0.04074,-0.274351 -0.05001,-0.515064 -0.04327,-1.1114781 0.0047,-0.4189334 0.01037,-0.8927861 0.01217,-1.051983 0.0029,-0.2573598 -0.0054,-0.3063371 -0.07707,-0.4435096 -0.04767,-0.091249 -0.117568,-0.1809069 -0.200593,-0.2599782 -0.0941,-0.110243 -0.206491,-0.16256 -0.318958,-0.1919243 -0.36229,-0.09656 -0.758997,-0.016782 -1.085833,0.015729 -0.534974,0.050718 -1.105356,0.097934 -1.508579,0.1184137 H 19.77647 L 19.519559,8.0609238 C 19.245965,7.9285947 18.839854,7.8181675 18.57,7.7188261 Z m 5.93086,6.6215449 c 0.0402,0.2133 0.07267,0.427982 0.09736,0.643629 -0.01246,-0.138219 -0.02738,-0.260307 -0.0595,-0.446213 -0.01224,-0.07089 -0.02389,-0.121878 -0.03786,-0.197416 z"/>
 <path style="fill:#8b9cbe;opacity:0.1" d="M 16 2 C 8.244 2 2 8.244 2 16 C 2 16.168842 2.0195214 16.33264 2.0253906 16.5 C 2.2891326 8.9794325 8.4128418 3 16 3 C 23.500fae9 3 29.710867 8.9794325 29.974609 16.5 C 29.980479 16.33264 30 16.168842 30 16 C 30 8.244 23.756 2 16 2 z"/>
</svg>
