<svg xmlns="http://www.w3.org/2000/svg" width="32" height="32" version="1">
 <rect style="opacity:0.2" width="20" height="30" x="6" y="2" rx="1.5" ry="1.5"/>
 <path style="fill:#b2bfd9" d="M 7.5 1 C 6.669 1 6 1.669 6 2.5 L 6 4 L 26 4 L 26 2.5 C 26 1.669 25.331 1 24.5 1 L 7.5 1 z M 6 26 L 6 29.5 C 6 30.331 6.669 31 7.5 31 L 24.5 31 C 25.331 31 26 30.331 26 29.5 L 26 26 L 6 26 z"/>
 <rect style="fill:#17191e" width="20" height="22" x="6" y="4"/>
 <rect style="fill:#333333" width="4" height="1" x="14" y="2" rx=".5" ry=".492"/>
 <rect style="fill:#4d4d4d" width="4" height="3" x="14" y="27" rx="1" ry="1"/>
 <path style="fill:#8b9cbe;opacity:0.2" d="M 7.5 1 C 6.669 1 6 1.669 6 2.5 L 6 3.5 C 6 2.669 6.669 2 7.5 2 L 24.5 2 C 25.331 2 26 2.669 26 3.5 L 26 2.5 C 26 1.669 25.331 1 24.5 1 L 7.5 1 z"/>
 <rect style="fill:#4d4d4d" width="3" height="1" x="20" y="28" rx=".5" ry=".5"/>
 <rect style="fill:#4d4d4d" width="3" height="1" x="9" y="28" rx=".5" ry=".5"/>
 <circle style="fill:#333333" cx="19.5" cy="2.5" r=".5"/>
 <path style="opacity:0.2" d="M 17.016,7.975 14,8.5004 V 18.887 L 17,18.5 16.984,13.818 20.523,19 24,18.5 20,13.137 24.014,8.6371 20.494,7.9887 16.984,12.488 Z M 10.674,10.627 C 10.645,10.63 10.618,10.643 10.596,10.665 L 9.5605,11.711 C 9.5156,11.756 9.5081,11.827 9.543,11.881 L 10.793,13.801 C 10.557,14.219 10.379,14.678 10.264,15.158 L 8.1055,15.687 C 8.0456,15.702 8,15.756 8,15.818 V 16.5 17.182 C 8,17.244 8.0456,17.298 8.1055,17.312 L 10.264,17.842 C 10.379,18.322 10.557,18.781 10.793,19.199 L 9.543,21.119 C 9.5081,21.173 9.5156,21.244 9.5605,21.289 L 10.596,22.336 C 10.639,22.38 10.707,22.384 10.76,22.352 L 12.719,21.15 C 13.103,21.374 13.704,21.554 14.143,21.674 L 14.602,23.891 C 14.614,23.955 14.665,24 14.729,24 H 15.5 16.271 C 16.335,24 16.386,23.955 16.398,23.891 L 16.857,21.674 C 17.296,21.554 17.897,21.374 18.281,21.15 L 20.24,22.352 C 20.293,22.384 20.361,22.38 20.404,22.336 L 21.439,21.289 C 21.484,21.244 21.492,21.173 21.457,21.119 L 20.416,19.52 20.287,19.539 19.557,18.469 C 18.811,20.033 17.233,21.029 15.5,21.031 13.015,21.031 11,19.017 11,16.531 11.001,14.823 11.97,13.263 13.5,12.504 V 11.521 C 13.215,11.617 12.934,11.724 12.719,11.85 L 10.76,10.649 C 10.733,10.633 10.703,10.625 10.674,10.627 Z"/>
 <path style="fill:#8b9cbe" d="M 17.016,6.975 14,7.5004 V 17.887 L 17,17.5 16.984,12.818 20.523,18 24,17.5 20,12.137 24.014,7.6371 20.494,6.9887 16.984,11.488 Z M 10.674,9.6274 C 10.645,9.6298 10.618,9.6425 10.596,9.6645 L 9.5605,10.711 C 9.5156,10.756 9.5081,10.827 9.543,10.881 L 10.793,12.801 C 10.557,13.219 10.379,13.678 10.264,14.158 L 8.1055,14.687 C 8.0456,14.702 8,14.756 8,14.818 V 15.5 16.182 C 8,16.244 8.0456,16.298 8.1055,16.312 L 10.264,16.842 C 10.379,17.322 10.557,17.781 10.793,18.199 L 9.543,20.119 C 9.5081,20.173 9.5156,20.244 9.5605,20.289 L 10.596,21.336 C 10.639,21.38 10.707,21.384 10.76,21.352 L 12.719,20.15 C 13.103,20.374 13.704,20.554 14.143,20.674 L 14.602,22.891 C 14.614,22.955 14.665,23 14.729,23 H 15.5 16.271 C 16.335,23 16.386,22.955 16.398,22.891 L 16.857,20.674 C 17.296,20.554 17.897,20.374 18.281,20.15 L 20.24,21.352 C 20.293,21.384 20.361,21.38 20.404,21.336 L 21.439,20.289 C 21.484,20.244 21.492,20.173 21.457,20.119 L 20.416,18.52 20.287,18.539 19.557,17.469 C 18.811,19.033 17.233,20.029 15.5,20.031 13.015,20.031 11,18.017 11,15.531 11.001,13.823 11.97,12.263 13.5,11.504 V 10.521 C 13.215,10.617 12.934,10.724 12.719,10.85 L 10.76,9.6488 C 10.733,9.6328 10.703,9.6249 10.674,9.6274 Z"/>
 <rect style="opacity:0.2" width="20" height="1" x="6" y="4"/>
 <rect style="opacity:0.2;fill:#8b9cbe" width="20" height="1" x="6" y="26"/>
</svg>
