<svg xmlns="http://www.w3.org/2000/svg" width="32" height="32" version="1">
 <path style="opacity:0.2" d="M 3.4003906,31 C 2.6247906,31 2,30.375209 2,29.599609 v -1 C 2,29.375209 2.6247906,30 3.4003906,30 H 16 28.599609 C 29.375209,30 30,29.375209 30,28.599609 v 1 C 30,30.375209 29.375209,31 28.599609,31 H 16 Z"/>
 <path style="fill:#14ddb1" d="M 16,2 H 3.4 C 2.6244,2 2,2.6244 2,3.4 V 16 h 14 z"/>
 <path style="fill:#f7c73c" d="M 16,2 H 28.6 C 29.3756,2 30,2.6244 30,3.4 V 16 H 16 Z"/>
 <path style="fill:#2086e7" d="M 16,30 H 3.4 C 2.6244,30 2,29.3756 2,28.6 V 16 h 14 z"/>
 <path style="fill:#14ddb1" d="M 16,30 H 28.6 C 29.3756,30 30,29.3756 30,28.6 V 16 H 16 Z"/>
 <path style="fill:#8b9cbe;opacity:0.2" d="M 3.4003906 2 C 2.6247906 2 2 2.6247906 2 3.4003906 L 2 4.4003906 C 2 3.6247906 2.6247906 3 3.4003906 3 L 16 3 L 28.599609 3 C 29.375209 3 30 3.6247906 30 4.4003906 L 30 3.4003906 C 30 2.6247906 29.375209 2 28.599609 2 L 16 2 L 3.4003906 2 z"/>
 <rect style="fill:#17191e" width="20" height="20" x="6" y="6"/>
 <path style="opacity:0.2;fill:none;stroke:#000000;stroke-width:2;stroke-linecap:round" d="m 8,23.9999 h 8"/>
 <path style="fill:none;stroke:#8b9cbe;stroke-width:2;stroke-linecap:round" d="m 8,23 h 8"/>
 <path style="opacity:0.2;fill:none;stroke:#000000;stroke-width:1.99999988;stroke-linecap:round;stroke-linejoin:bevel" d="m 15.999998,10.000102 -3e-6,6.000001 c 0,1.514679 -1.043948,2.024798 -1.999998,2.000001 -0.89596,0.0036 -2.000001,-0.466262 -2.000001,-2.000001 L 12,10.000102 m -4e-6,0 -4e-6,6.000001 c 0,1.514679 -1.043947,2.024798 -1.999997,2.000001 -0.89596,0.0036 -2.000002,-0.466262 -2.000002,-2.000001 l 4e-6,-6.000001"/>
 <path style="fill:none;stroke:#8b9cbe;stroke-width:1.99999988;stroke-linecap:round;stroke-linejoin:bevel" d="m 15.999998,9.0002021 -3e-6,6.0000009 c 0,1.514679 -1.043948,2.024798 -1.999998,2.000001 -0.89596,0.0036 -2.000001,-0.466262 -2.000001,-2.000001 L 12,9.0002021 m -4e-6,0 -4e-6,6.0000009 c 0,1.514679 -1.043947,2.024798 -1.999997,2.000001 -0.89596,0.0036 -2.000002,-0.466262 -2.000002,-2.000001 l 4e-6,-6.0000009"/>
 <path style="opacity:0.2;fill:none;stroke:#000000;stroke-width:1.99999988;stroke-linecap:round;stroke-linejoin:round" d="m 20.000115,17.000102 c 0,0 0.504386,1.000966 2.000001,1.000482 1.495612,-4.8e-4 1.999998,-1.000482 1.999998,-2.000481 0,-4.214385 -3.999999,0.211162 -3.988018,-3.990705 -0.0121,-1.009296 0.471867,-2.009295 1.98802,-2.009295 1.51615,0 1.999884,0.999999 1.999884,0.999999"/>
 <path style="fill:none;stroke:#8b9cbe;stroke-width:1.99999988;stroke-linecap:round;stroke-linejoin:round" d="m 20.000115,16.000202 c 0,0 0.504386,1.000966 2.000001,1.000482 1.495612,-4.8e-4 1.999998,-1.000482 1.999998,-2.000481 0,-4.214385 -3.999999,0.211162 -3.988018,-3.990705 -0.0121,-1.009296 0.471867,-2.0092949 1.98802,-2.0092949 1.51615,0 1.999884,0.9999989 1.999884,0.9999989"/>
</svg>
