<svg xmlns="http://www.w3.org/2000/svg" width="32" height="32" version="1">
 <circle style="opacity:0.2" cx="16.5" cy="16.5" r="14.5"/>
 <circle style="fill:#4caf50" cx="16.5" cy="15.5" r="14.5"/>
 <path style="opacity:0.2" d="m 16.039062,6.0097656 c -0.308704,0.0135 -0.615761,0.041602 -0.921874,0.082031 C 12.668283,6.4152341 10.331073,7.5952328 8.5996094,9.5703125 5.1366807,13.520472 5.1318549,19.457859 8.5878906,23.414062 12.043927,27.370265 17.923767,28.158256 22.296875,25.25 a 1.5003306,1.501761 0 1 0 -1.660156,-2.501953 c -3.140123,2.088281 -7.3094,1.532168 -9.791016,-1.308594 -2.4816155,-2.840762 -2.4768388,-7.052248 0.0098,-9.888672 2.486566,-2.8364213 6.656492,-3.3867322 9.792969,-1.292968 A 1.4997883,1.5012181 0 1 0 22.3125,7.7597656 c -1.911018,-1.2757024 -4.112508,-1.8444976 -6.273438,-1.75 z M 23,11.25 V 15 h -5.5 c -0.828427,0 -1.5,0.671555 -1.5,1.5 0,0.828445 0.671573,1.5 1.5,1.5 H 23 v 3.75 l 6.5,-5.25 z"/>
 <path style="fill:#8b9cbe" d="M 16.039062 5.0097656 C 15.730358 5.0232653 15.423301 5.0513672 15.117188 5.0917969 C 12.668283 5.4152341 10.331073 6.5952328 8.5996094 8.5703125 C 5.1366807 12.520472 5.1318549 18.457859 8.5878906 22.414062 C 12.043927 26.370265 17.923767 27.158256 22.296875 24.25 A 1.499736 1.5011658 0 1 0 20.636719 21.748047 C 17.496596 23.836328 13.327319 23.280215 10.845703 20.439453 C 8.3640875 17.598691 8.3688642 13.387205 10.855469 10.550781 C 13.342035 7.7143597 17.511961 7.1640488 20.648438 9.2578125 A 1.4993765 1.5008059 0 1 0 22.3125 6.7597656 C 20.401482 5.4840632 18.199992 4.915268 16.039062 5.0097656 z M 23 10.25 L 23 14 L 17.5 14 C 16.671573 14 16 14.671555 16 15.5 C 16 16.328445 16.671573 17 17.5 17 L 23 17 L 23 20.75 L 29.5 15.5 L 23 10.25 z"/>
 <path style="fill:#8b9cbe;opacity:0.2" d="M 16.5 1 A 14.5 14.5 0 0 0 2 15.5 A 14.5 14.5 0 0 0 2.0214844 16.080078 A 14.5 14.5 0 0 1 16.5 2 A 14.5 14.5 0 0 1 30.978516 15.919922 A 14.5 14.5 0 0 0 31 15.5 A 14.5 14.5 0 0 0 16.5 1 z"/>
</svg>
