<svg xmlns="http://www.w3.org/2000/svg" width="32" height="32" version="1">
 <rect style="opacity:0.2" width="28" height="28" x="2" y="3" rx="14" ry="14"/>
 <rect style="fill:#ababab" width="28" height="28" x="2" y="2" rx="14" ry="14"/>
 <circle style="opacity:0.1" cx="16" cy="17" r="11"/>
 <circle style="fill:#17191e" cx="16" cy="16" r="11"/>
 <path style="opacity:0.2" d="M 12.840939,12.000216 A 0.82198326,0.81066576 0 0 0 12,12.811271 v 8.378305 a 0.82198326,0.81066576 0 0 0 1.232833,0.701896 l 3.678254,-2.094021 3.678252,-2.095076 a 0.82198326,0.81066576 0 0 0 0,-1.403737 L 16.911144,14.203229 13.232946,12.10893 a 0.82198326,0.81066576 0 0 0 -0.392063,-0.108881 z"/>
 <path style="fill:#8b9cbe" d="M 12.840939,11.000216 A 0.82198326,0.81066576 0 0 0 12,11.811271 v 8.378305 a 0.82198326,0.81066576 0 0 0 1.232833,0.701896 l 3.678254,-2.094021 3.678252,-2.095076 a 0.82198326,0.81066576 0 0 0 0,-1.403737 L 16.911144,13.203229 13.232946,11.10893 a 0.82198326,0.81066576 0 0 0 -0.392063,-0.108881 z"/>
 <path style="fill:#8b9cbe;opacity:0.2" d="M 16 2 C 8.244 2 2 8.244 2 16 C 2 16.168842 2.0195214 16.33264 2.0253906 16.5 C 2.2891326 8.9794325 8.4128418 3 16 3 C 23.500fae9 3 29.710867 8.9794325 29.974609 16.5 C 29.980479 16.33264 30 16.168842 30 16 C 30 8.244 23.756 2 16 2 z"/>
</svg>
