<svg xmlns="http://www.w3.org/2000/svg" width="32" height="32" version="1">
 <rect style="opacity:0.2" width="24.866" height="24.866" x="10.9" y="-12.43" rx="7.46" ry="7.46" transform="rotate(45)"/>
 <rect style="fill:#b2bfd9" width="24.866" height="24.866" x="10.19" y="-13.14" rx="7.46" ry="7.46" transform="rotate(45)"/>
 <path style="opacity:0.1" d="m 9.0000004,12 a 2.9999999,5.0000003 0 0 0 -3,5 2.9999999,5.0000003 0 0 0 3,5 H 24 a 2.9999999,5.0000003 0 0 0 3,-5 2.9999999,5.0000003 0 0 0 -3,-5 z"/>
 <path style="fill:#3068c1" d="m 9.0000004,11 a 2.9999999,5.0000003 0 0 0 -3,5 2.9999999,5.0000003 0 0 0 3,5 H 24 a 2.9999999,5.0000003 0 0 0 3,-5 2.9999999,5.0000003 0 0 0 -3,-5 z"/>
 <path style="opacity:0.2;fill:#8b9cbe" d="M 9 11 A 2.9999999 5.0000003 0 0 0 6 16 A 2.9999999 5.0000003 0 0 0 6.0605469 17 L 9 17 L 9 11 z M 12 11 L 12 17 L 15 17 L 15 11 L 12 11 z M 18 11 L 18 17 L 21 17 L 21 11 L 18 11 z M 24 11 L 24 17 L 26.9375 17 A 2.9999999 5.0000003 0 0 0 27 16 A 2.9999999 5.0000003 0 0 0 24 11 z"/>
 <path style="opacity:0.2" d="M 9 11 L 9 17 L 12 17 L 12 11 L 9 11 z M 15 11 L 15 17 L 18 17 L 18 11 L 15 11 z M 21 11 L 21 17 L 24 17 L 24 11 L 21 11 z"/>
 <circle style="opacity:0.1" cx="9" cy="18" r="4"/>
 <circle style="fill:#ffa802" cx="9" cy="17" r="4"/>
 <circle style="opacity:0.1" cx="9" cy="18" r="2.75"/>
 <circle style="fill:#ffd264" cx="9" cy="17" r="2.75"/>
 <circle style="opacity:0.1" cx="9" cy="18" r="1.25"/>
 <circle style="fill:#ffe6bc" cx="9" cy="17" r="1.25"/>
 <path style="fill:#8b9cbe;opacity:0.2" d="M 16.5 1 C 14.5931 1 12.685775 1.7302409 11.224609 3.1914062 L 4.1914062 10.224609 C 2.6024787 11.813537 1.8864571 13.930069 2.0253906 16 C 2.1419815 14.262947 2.8580031 12.558012 4.1914062 11.224609 L 11.224609 4.1914062 C 14.14694 1.2690756 18.85306 1.2690756 21.775391 4.1914062 L 28.808594 11.224609 C 30.141997 12.558012 30.858019 14.262947 30.974609 16 C 31.113543 13.930069 30.397521 11.813537 28.808594 10.224609 L 21.775391 3.1914062 C 20.314225 1.7302409 18.4069 1 16.5 1 z"/>
</svg>
