<svg xmlns="http://www.w3.org/2000/svg" width="32" height="32" version="1.1">
 <path style="fill:#007c7d;fill-rule:evenodd" d="m 24.009072,1.7747683 c -0.119536,-0.001 -0.238366,0.018422 -0.351366,0.057422 L 11.74809,4.5583521 c -0.30576,0.06462 -0.566852,0.2620673 -0.712303,0.5386697 L 4.3297572,14.434878 c -0.1762499,0.176625 -0.2838476,0.410238 -0.3035144,0.658983 -1.06e-5,0.0027 -1.06e-5,0.0055 0,0.0082 -0.00251,0.02819 -0.00388,0.05647 -0.0041,0.08477 4.457e-4,0.03106 0.00227,0.06208 0.00546,0.09297 0.00328,0.03486 0.0083,0.06954 0.015038,0.103905 0.00693,0.03459 0.0156,0.06881 0.025976,0.10254 0.031399,0.107739 0.079866,0.209748 0.1435543,0.302146 4.629e-4,9.29e-4 9.285e-4,0.0019 0.00139,0.0028 l 6.1947049,13.215187 0.0014,0.0041 c 0.0018,0.0064 0.0036,0.01277 0.0056,0.01914 9.29e-4,0.0027 0.0019,0.0055 0.0028,0.0082 0.01029,0.03246 0.02214,0.0644 0.03553,0.0957 0.0097,0.02223 0.02021,0.04412 0.03146,0.06562 0.0078,0.01569 0.01601,0.03119 0.0246,0.04646 0.0088,0.01434 0.01788,0.02848 0.02734,0.04239 0.0075,0.012 0.01526,0.02384 0.02326,0.03553 0.01637,0.02349 0.0337,0.0463 0.05193,0.06838 0.0031,0.0041 0.0064,0.0082 0.0096,0.01232 0.01624,0.01836 0.03311,0.03614 0.05059,0.05332 0.0094,0.0098 0.01896,0.01934 0.02872,0.02872 0.0098,0.0093 0.01987,0.01841 0.03007,0.02733 0.02076,0.01769 0.04219,0.03457 0.06426,0.05059 9.28e-4,4.54e-4 0.0019,9.29e-4 0.0028,0.0014 9.28e-4,9.29e-4 0.0019,0.0019 0.0028,0.0028 0.0265,0.01904 0.05387,0.03683 0.08203,0.05332 9.29e-4,9.29e-4 0.0019,0.0019 0.0028,0.0028 0.0027,0.0014 0.0054,0.0028 0.0082,0.0041 0.02539,0.01475 0.05139,0.02843 0.07793,0.041 0.0032,0.0019 0.0064,0.0037 0.0096,0.0056 0.01042,0.0043 0.02091,0.0084 0.03146,0.01232 0.01354,0.0062 0.02721,0.01216 0.041,0.01779 0.02918,0.01088 0.05884,0.02047 0.08887,0.02872 0.148887,0.04231 0.305287,0.05119 0.458005,0.02599 l 14.057595,0.01506 c 0.785361,0.09541 1.390182,-0.678976 1.107369,-1.417834 l -1.666778,-6.666807 c -0.04832,-0.699864 -0.756139,-1.156452 -1.413667,-0.91191 -0.0032,9.29e-4 -0.0064,0.0019 -0.0096,0.0028 l -7.070661,1.959084 -2.830068,-5.067903 2.026165,-6.328016 9.28395,-0.746481 0.952927,-1.1935513 -0.993942,-6.5768194 c 0.0016,-0.5751692 -0.459883,-1.04456 -1.034994,-1.052837 z"/>
 <path style="opacity:0.2;fill:none;stroke:#000000;stroke-width:2;stroke-linecap:round;stroke-linejoin:bevel" d="M 4.8002353,16.172368 15.457347,11.685559 24.302318,3.5747898 m 1.898433,26.4182232 -9.621603,-5.364738 m -5.306982,5.349656 13.159591,-7.59306 m -13.159591,7.59306 5.306982,-5.349656 m -5.306982,5.349656 1.725848,-11.130735 m -8.1977787,-2.674828 8.1977787,2.674828 m 2.459333,-7.161637 -2.459333,7.161637 3.581134,5.781079 7.852609,-2.243404 1.768994,7.608142 L 11.272166,29.977931 4.8002353,16.172368 11.833066,6.3790444 Z m -3.624281,-5.3065146 12.469252,-2.8042546 1.035509,7.2910642 -9.88048,0.819705"/>
 <path style="fill:none;stroke:#00feff;stroke-width:2;stroke-linecap:round;stroke-linejoin:bevel" d="M 4.8002353,15.172368 15.457347,10.685559 24.302318,2.57479 m 1.898433,26.418223 -9.621603,-5.364738 m -5.306982,5.349656 13.159591,-7.59306 m -13.159591,7.59306 5.306982,-5.349656 m -5.306982,5.349656 1.725848,-11.130735 m -8.1977787,-2.674828 8.1977787,2.674828 m 2.459333,-7.161637 -2.459333,7.161637 3.581134,5.781079 7.852609,-2.243404 1.768994,7.608142 L 11.272166,28.977931 4.8002353,15.172368 11.833066,5.3790446 Z M 11.833066,5.3790446 24.302318,2.57479 l 1.035509,7.2910638 -9.88048,0.8197052"/>
 <path style="opacity:0.2;fill:#8b9cbe;fill-rule:evenodd" d="M 24.326172 1.5644531 A 1.0001 1.0001 0 0 0 23.982422 1.6210938 L 11.613281 4.4042969 A 1.0001 1.0001 0 0 0 10.9375 4.9121094 L 4.0820312 14.458984 A 1.0001 1.0001 0 0 0 3.7910156 15.091797 A 1.0001 1.0001 0 0 0 3.7871094 15.179688 A 1.0001 1.0001 0 0 0 3.7890625 15.238281 A 1.0001 1.0001 0 0 0 3.7910156 15.273438 A 1.0001 1.0001 0 0 0 3.8066406 15.367188 A 1.0001 1.0001 0 0 0 3.9199219 15.673828 A 1.0001 1.0001 0 0 1 4.0820312 15.458984 L 10.9375 5.9121094 A 1.0001 1.0001 0 0 1 11.613281 5.4042969 L 23.982422 2.6210938 A 1.0001 1.0001 0 0 1 24.326172 2.5644531 A 1.0001 1.0001 0 0 1 25.3125 3.5644531 L 26.207031 9.875 L 26.328125 9.7246094 L 25.3125 2.5644531 A 1.0001 1.0001 0 0 0 24.326172 1.5644531 z M 20.861328 5.375 L 19.417969 5.6992188 L 15.632812 9.1699219 L 14.082031 6.8984375 L 13.490234 7.03125 L 15.632812 10.169922 L 20.861328 5.375 z M 24.058594 8.96875 L 19.486328 9.3476562 L 18.287109 10.447266 L 24.199219 9.9570312 L 24.058594 8.96875 z M 13.410156 10.462891 L 8.7109375 12.439453 L 7.6816406 13.873047 L 13.941406 11.240234 L 13.410156 10.462891 z M 13.785156 13.474609 L 13.384766 13.642578 L 12.373047 16.591797 L 8.9960938 15.490234 L 7.6582031 16.052734 L 12.373047 17.591797 L 13.785156 13.474609 z M 6.6875 17.839844 L 10.785156 26.583984 L 11.878906 19.535156 L 11.730469 19.486328 L 10.785156 25.583984 L 7.2402344 18.021484 L 6.6875 17.839844 z M 14.318359 18.080078 L 14.097656 18.722656 L 17.03125 23.458984 L 24.083984 21.445312 A 1.0001 1.0001 0 0 1 24.105469 21.439453 A 1.0001 1.0001 0 0 1 25.439453 22.302734 L 27.099609 29.453125 A 1.0001 1.0001 0 0 0 27.144531 28.644531 L 25.439453 21.302734 A 1.0001 1.0001 0 0 0 24.105469 20.439453 A 1.0001 1.0001 0 0 0 24.083984 20.445312 L 17.03125 22.458984 L 14.318359 18.080078 z M 14.931641 23.869141 L 12.916016 25.900391 L 12.732422 27.085938 L 15.3125 24.484375 L 14.931641 23.869141 z M 21.503906 25.230469 L 20.623047 25.738281 L 24.714844 28.019531 L 24.447266 26.871094 L 21.503906 25.230469 z M 16.730469 27.984375 L 15 28.982422 L 22.34375 28.988281 L 20.548828 27.986328 L 16.730469 27.984375 z"/>
 <path style="opacity:0.1" d="M 24,2 A 2,2 0 0 0 22,4 2,2 0 0 0 24,6 2,2 0 0 0 26,4 2,2 0 0 0 24,2 Z M 12,4 a 1.9999998,1.9999998 0 0 0 -2,2 1.9999998,1.9999998 0 0 0 2,2 1.9999998,1.9999998 0 0 0 2,-2 1.9999998,1.9999998 0 0 0 -2,-2 z m 13,5 a 1.9999999,1.9999999 0 0 0 -2,2 1.9999999,1.9999999 0 0 0 2,2 1.9999999,1.9999999 0 0 0 2,-2 1.9999999,1.9999999 0 0 0 -2,-2 z m -9,1 a 2.0000002,2.0000002 0 0 0 -2,2 2.0000002,2.0000002 0 0 0 2,2 2.0000002,2.0000002 0 0 0 2,-2 2.0000002,2.0000002 0 0 0 -2,-2 z M 5,14 a 2.0000003,2.0000003 0 0 0 -2,2 2.0000003,2.0000003 0 0 0 2,2 2.0000003,2.0000003 0 0 0 2,-2 2.0000003,2.0000003 0 0 0 -2,-2 z m 8,3 a 2.0000003,2.0000003 0 0 0 -2,2 2.0000003,2.0000003 0 0 0 2,2 2.0000003,2.0000003 0 0 0 2,-2 2.0000003,2.0000003 0 0 0 -2,-2 z m 11,4 a 1.9999998,1.9999998 0 0 0 -2,2 1.9999998,1.9999998 0 0 0 2,2 1.9999998,1.9999998 0 0 0 2,-2 1.9999998,1.9999998 0 0 0 -2,-2 z m -6,2 a 1.9999998,1.9999998 0 0 0 -2,2 1.9999998,1.9999998 0 0 0 2,2 1.9999998,1.9999998 0 0 0 2,-2 1.9999998,1.9999998 0 0 0 -2,-2 z m -7,5 a 1.9999998,1.9999998 0 0 0 -2,2 1.9999998,1.9999998 0 0 0 2,2 1.9999998,1.9999998 0 0 0 2,-2 1.9999998,1.9999998 0 0 0 -2,-2 z m 15,0 a 1.9999998,1.9999998 0 0 0 -2,2 1.9999998,1.9999998 0 0 0 2,2 1.9999998,1.9999998 0 0 0 2,-2 1.9999998,1.9999998 0 0 0 -2,-2 z"/>
 <path style="fill:#ff6060" d="M 24 1 A 2 2 0 0 0 22 3 A 2 2 0 0 0 24 5 A 2 2 0 0 0 26 3 A 2 2 0 0 0 24 1 z M 12 3 A 1.9999998 1.9999998 0 0 0 10 5 A 1.9999998 1.9999998 0 0 0 12 7 A 1.9999998 1.9999998 0 0 0 14 5 A 1.9999998 1.9999998 0 0 0 12 3 z M 25 8 A 1.9999999 1.9999999 0 0 0 23 10 A 1.9999999 1.9999999 0 0 0 25 12 A 1.9999999 1.9999999 0 0 0 27 10 A 1.9999999 1.9999999 0 0 0 25 8 z M 16 9 A 2.0000002 2.0000002 0 0 0 14 11 A 2.0000002 2.0000002 0 0 0 16 13 A 2.0000002 2.0000002 0 0 0 18 11 A 2.0000002 2.0000002 0 0 0 16 9 z M 5 13 A 2.0000003 2.0000003 0 0 0 3 15 A 2.0000003 2.0000003 0 0 0 5 17 A 2.0000003 2.0000003 0 0 0 7 15 A 2.0000003 2.0000003 0 0 0 5 13 z M 13 16 A 2.0000003 2.0000003 0 0 0 11 18 A 2.0000003 2.0000003 0 0 0 13 20 A 2.0000003 2.0000003 0 0 0 15 18 A 2.0000003 2.0000003 0 0 0 13 16 z M 24 20 A 1.9999998 1.9999998 0 0 0 22 22 A 1.9999998 1.9999998 0 0 0 24 24 A 1.9999998 1.9999998 0 0 0 26 22 A 1.9999998 1.9999998 0 0 0 24 20 z M 18 22 A 1.9999998 1.9999998 0 0 0 16 24 A 1.9999998 1.9999998 0 0 0 18 26 A 1.9999998 1.9999998 0 0 0 20 24 A 1.9999998 1.9999998 0 0 0 18 22 z M 11 27 A 1.9999998 1.9999998 0 0 0 9 29 A 1.9999998 1.9999998 0 0 0 11 31 A 1.9999998 1.9999998 0 0 0 13 29 A 1.9999998 1.9999998 0 0 0 11 27 z M 26 27 A 1.9999998 1.9999998 0 0 0 24 29 A 1.9999998 1.9999998 0 0 0 26 31 A 1.9999998 1.9999998 0 0 0 28 29 A 1.9999998 1.9999998 0 0 0 26 27 z"/>
</svg>
