<svg xmlns="http://www.w3.org/2000/svg" width="32" height="32" version="1.1">
 <g transform="translate(0,-1020.3622)">
  <path style="opacity:0.2" d="m 4.5175781,1029.3622 a 14,14 0 0 0 -2.5175781,8 14,14 0 0 0 14,14 14,14 0 0 0 14,-14 14,14 0 0 0 -2.53125,-8 l -22.9511719,0 z"/>
  <circle style="fill:#e96ca2" cx="16" cy="1034.362" r="12"/>
  <path style="opacity:0.2;fill:#8b9cbe" transform="translate(0,1020.3622)" d="M 16 2 A 12 12 0 0 0 4 14 A 12 12 0 0 0 4.0195312 14.59375 A 12 12 0 0 1 16 3 A 12 12 0 0 1 27.980469 14.40625 A 12 12 0 0 0 28 14 A 12 12 0 0 0 16 2 z"/>
  <path style="fill:#4f84be" transform="translate(0,1020.3622)" d="M 4.5175781 8 A 14 14 0 0 0 2 16 A 14 14 0 0 0 16 30 A 14 14 0 0 0 30 16 A 14 14 0 0 0 27.46875 8 L 4.5175781 8 z"/>
  <circle style="opacity:0.2" cx="12" cy="1038.362" r="5"/>
  <circle style="opacity:0.2" cx="20" cy="1038.362" r="5"/>
  <path style="opacity:0.2;fill-rule:evenodd" d="m 15.993906,1038.3622 0,0 c -0.245484,0 -0.495445,0.09 -0.699011,0.3157 l -4.008314,3.3409 c -0.02327,0.025 -0.04196,0.053 -0.06231,0.08 -0.0056,0.01 -0.01185,0.014 -0.01711,0.022 -0.05437,0.077 -0.09276,0.1568 -0.125871,0.2397 -0.01275,0.033 -0.02048,0.065 -0.03055,0.099 -0.01958,0.065 -0.03868,0.1305 -0.04644,0.1978 -0.0065,0.049 -0.0037,0.099 -0.0037,0.1491 4.14e-4,0.049 -0.0026,0.1 0.0037,0.149 0.0078,0.067 0.02686,0.1319 0.04644,0.1977 0.01,0.034 0.01779,0.067 0.03055,0.099 0.0331,0.083 0.07151,0.1637 0.125871,0.2397 0.005,0.01 0.01165,0.014 0.01711,0.021 0.02035,0.026 0.03908,0.055 0.06231,0.082 l 4.008314,4.4518 c 0.203565,0.2258 0.453527,0.3152 0.699011,0.3156 l 0,0 c 0.0016,0 0.0032,0 0.0049,0 0.0016,0 0.0032,0 0.0049,0 l 0,0 c 0.2456,-3e-4 0.495344,-0.09 0.69901,-0.3156 l 4.010775,-4.4518 c 0.02324,-0.025 0.04198,-0.054 0.06231,-0.082 0.0054,-0.01 0.0121,-0.013 0.0171,-0.021 0.0544,-0.076 0.0927,-0.1568 0.125872,-0.2398 0.0127,-0.033 0.02054,-0.065 0.03055,-0.099 0.01958,-0.065 0.03746,-0.1306 0.04522,-0.1978 0.0063,-0.049 0.0045,-0.099 0.0049,-0.149 0,-0.051 0.0015,-0.1 -0.0049,-0.1491 -0.0078,-0.067 -0.02563,-0.1318 -0.04522,-0.1977 -0.0101,-0.034 -0.01778,-0.067 -0.03055,-0.099 -0.03313,-0.083 -0.07148,-0.1638 -0.12587,-0.2398 -0.0052,-0.01 -0.01147,-0.013 -0.0171,-0.021 -0.02037,-0.027 -0.03904,-0.054 -0.06232,-0.08 l -4.010758,-3.3408 c -0.203668,-0.2259 -0.453409,-0.3133 -0.699011,-0.3157 l 0,0 c -0.0016,0 -0.0032,0 -0.0049,0 -0.0016,0 -0.0032,0 -0.0049,0 z"/>
  <circle style="fill:#8b9cbe" cx="20" cy="1037.362" r="5"/>
  <circle style="fill:#8b9cbe" cx="12" cy="1037.362" r="5"/>
  <path style="fill:#fcb700;fill-rule:evenodd" d="m 15.993906,1037.3622 0,0 c -0.245484,0 -0.495445,0.09 -0.699011,0.3157 l -4.008314,3.3409 c -0.02327,0.025 -0.04196,0.053 -0.06231,0.08 -0.0056,0.01 -0.01185,0.014 -0.01711,0.022 -0.05437,0.077 -0.09276,0.1568 -0.125871,0.2397 -0.01275,0.033 -0.02048,0.065 -0.03055,0.099 -0.01958,0.065 -0.03868,0.1305 -0.04644,0.1978 -0.0065,0.049 -0.0037,0.099 -0.0037,0.1491 4.14e-4,0.049 -0.0026,0.1 0.0037,0.149 0.0078,0.067 0.02686,0.1319 0.04644,0.1977 0.01,0.034 0.01779,0.067 0.03055,0.099 0.0331,0.083 0.07151,0.1637 0.125871,0.2397 0.005,0.01 0.01165,0.014 0.01711,0.021 0.02035,0.026 0.03908,0.055 0.06231,0.082 l 4.008314,4.4518 c 0.203565,0.2258 0.453527,0.3152 0.699011,0.3156 l 0,0 c 0.0016,0 0.0032,0 0.0049,0 0.0016,0 0.0032,0 0.0049,0 l 0,0 c 0.2456,-3e-4 0.495344,-0.09 0.69901,-0.3156 l 4.010775,-4.4518 c 0.02324,-0.025 0.04198,-0.054 0.06231,-0.082 0.0054,-0.01 0.0121,-0.013 0.0171,-0.021 0.0544,-0.076 0.0927,-0.1568 0.125872,-0.2398 0.0127,-0.033 0.02054,-0.065 0.03055,-0.099 0.01958,-0.065 0.03746,-0.1306 0.04522,-0.1978 0.0063,-0.049 0.0045,-0.099 0.0049,-0.149 0,-0.051 0.0015,-0.1 -0.0049,-0.1491 -0.0078,-0.067 -0.02563,-0.1318 -0.04522,-0.1977 -0.0101,-0.034 -0.01778,-0.067 -0.03055,-0.099 -0.03313,-0.083 -0.07148,-0.1638 -0.12587,-0.2398 -0.0052,-0.01 -0.01147,-0.013 -0.0171,-0.021 -0.02037,-0.027 -0.03904,-0.054 -0.06232,-0.08 l -4.010758,-3.3408 c -0.203668,-0.2259 -0.453409,-0.3133 -0.699011,-0.3157 l 0,0 c -0.0016,0 -0.0032,0 -0.0049,0 -0.0016,0 -0.0032,0 -0.0049,0 z"/>
  <circle style="opacity:0.6" cx="11.5" cy="1037.862" r="1.5"/>
  <circle style="opacity:0.6" cx="20.5" cy="1037.862" r="1.5"/>
 </g>
</svg>
