<svg xmlns="http://www.w3.org/2000/svg" width="32" height="32" version="1.1">
 <circle style="opacity:0.2" cx="16" cy="17" r="14"/>
 <circle style="fill:#207bf6" cx="16" cy="16" r="14"/>
 <path style="opacity:0.2" d="M 16,8 A 6,6 0 0 0 10.039062,13.337891 6,6 0 0 0 6,19 6,6 0 0 0 11.5,24.974609 V 25 h 0.5 8 0.5 v -0.02539 A 6,6 0 0 0 26,19 6,6 0 0 0 21.955078,13.333984 6,6 0 0 0 16,8 Z"/>
 <circle style="fill:#8b9cbe" cx="16" cy="13" r="6"/>
 <circle style="fill:#8b9cbe" cx="12" cy="18" r="6"/>
 <circle style="fill:#8b9cbe" cx="20" cy="18" r="6"/>
 <rect style="fill:#8b9cbe" width="9" height="5.183" x="11.5" y="18.82"/>
 <path style="fill:none;stroke:#207bf6;stroke-width:0.69999999px" d="m 13.2,17.6 c 0,0 1.106451,1.05 2.8,1.05 1.693549,0 2.8,-1.05 2.8,-1.05"/>
 <path style="fill:none;stroke:#207bf6;stroke-width:0.69999999px;stroke-linecap:round;stroke-linejoin:round" d="M 13.55,17.04 13.4366,17.7421 12.99,18.09"/>
 <path style="fill:none;stroke:#207bf6;stroke-width:0.69999999px;stroke-linecap:round;stroke-linejoin:round" d="m 18.648649,17.04 0.1134,0.7021 0.4466,0.3479"/>
 <path style="fill:#8b9cbe;opacity:0.2" d="M 16 2 A 14 14 0 0 0 2 16 A 14 14 0 0 0 2.0214844 16.585938 A 14 14 0 0 1 16 3 A 14 14 0 0 1 29.978516 16.414062 A 14 14 0 0 0 30 16 A 14 14 0 0 0 16 2 z"/>
</svg>
