<svg xmlns="http://www.w3.org/2000/svg" width="32" height="32" version="1">
 <rect style="opacity:0.2" width="28" height="28" x="2" y="3" rx="14" ry="14"/>
 <rect style="fill:#ffeb3b" width="28" height="28" x="2" y="2" rx="14" ry="14"/>
 <path style="opacity:0.1" d="M 16,5 C 9.3728003,5 4,10.3728 4,17 c 0,6.6272 5.3728003,12 12,12 3.202047,-0.0019 6.269737,-1.284668 8.521911,-3.560807 L 23.509602,24.452486 C 21.524018,26.456089 18.820807,27.584929 16,27.587887 10.152471,27.587887 5.4121122,22.847529 5.4121122,17 5.4121122,11.152471 10.152471,6.4121122 16,6.4121122 c 2.821087,0.00223 5.525424,1.1299967 7.511571,3.1334318 l 1.00837,-0.9827671 C 22.268895,6.2863031 19.201489,5.0033567 16,5 Z m 0,3.5292959 c -4.678023,0 -8.4707041,3.7926811 -8.4707041,8.4707041 0,4.678023 3.7926811,8.470704 8.4707041,8.470704 2.249833,-0.0017 4.407303,-0.899387 5.995076,-2.493354 l -1.01034,-0.984736 C 19.662675,23.314229 17.86936,24.056848 16,24.058592 12.101648,24.058592 8.9414081,20.898352 8.9414081,17 8.9414081,13.101647 12.101648,9.9414081 16,9.9414081 c 1.86936,0.00182 3.662675,0.7443629 4.984736,2.0659769 l 1.01034,-0.984736 C 20.407531,9.4281766 18.250031,8.53146 16,8.5292959 Z m 0,3.5292951 c -2.728846,0 -4.941408,2.212562 -4.941408,4.941409 0,2.728846 2.212562,4.941408 4.941408,4.941408 1.298333,-0.0016 2.542877,-0.515173 3.466273,-1.427868 l -1.00837,-0.980797 C 17.799309,20.171971 16.917802,20.529302 16,20.529296 c -1.949176,0 -3.529296,-1.58012 -3.529296,-3.529296 0,-1.949177 1.58012,-3.529296 3.529296,-3.529296 0.917234,0.0015 1.798464,0.36092 2.455933,1.000493 l 1.012309,-0.988676 C 18.544061,12.570501 17.298419,12.05911 16,12.058591 Z"/>
 <path style="fill:#4f4f4f" d="M 16,4 C 9.3728003,4 4,9.3728003 4,16 c 0,6.6272 5.3728003,12 12,12 3.202047,-0.0019 6.269737,-1.284668 8.521911,-3.560807 L 23.509602,23.452486 C 21.524018,25.456089 18.820807,26.584929 16,26.587887 10.152471,26.587887 5.4121122,21.847529 5.4121122,16 5.4121122,10.152471 10.152471,5.4121122 16,5.4121122 c 2.821087,0.00223 5.525424,1.1299967 7.511571,3.1334318 l 1.00837,-0.9827671 C 22.268895,5.2863031 19.201489,4.0033567 16,4 Z m 0,3.5292959 c -4.678023,0 -8.4707041,3.7926811 -8.4707041,8.4707041 0,4.678023 3.7926811,8.470704 8.4707041,8.470704 2.249833,-0.0017 4.407303,-0.899387 5.995076,-2.493354 l -1.01034,-0.984736 C 19.662675,22.314229 17.86936,23.056848 16,23.058592 12.101648,23.058592 8.9414081,19.898352 8.9414081,16 8.9414081,12.101647 12.101648,8.9414081 16,8.9414081 c 1.86936,0.00176 3.662675,0.7443624 4.984736,2.0659769 l 1.01034,-0.984736 C 20.407531,8.4281766 18.250031,7.53146 16,7.5292959 Z m 0,3.5292951 c -2.728846,0 -4.941408,2.212562 -4.941408,4.941409 0,2.728846 2.212562,4.941408 4.941408,4.941408 1.298333,-0.0016 2.542877,-0.515173 3.466273,-1.427868 l -1.00837,-0.980797 C 17.799309,19.171971 16.917802,19.529302 16,19.529296 c -1.949176,0 -3.529296,-1.58012 -3.529296,-3.529296 0,-1.949177 1.58012,-3.529296 3.529296,-3.529296 0.917234,0.0015 1.798464,0.36092 2.455933,1.000493 l 1.012309,-0.988676 C 18.544061,11.570501 17.298419,11.05911 16,11.058591 Z"/>
 <path style="fill:#8b9cbe;opacity:0.2" d="M 16 2 C 8.244 2 2 8.244 2 16 C 2 16.168842 2.0195214 16.33264 2.0253906 16.5 C 2.2891326 8.9794325 8.4128418 3 16 3 C 23.500fae9 3 29.710867 8.9794325 29.974609 16.5 C 29.980479 16.33264 30 16.168842 30 16 C 30 8.244 23.756 2 16 2 z"/>
</svg>
