<svg xmlns="http://www.w3.org/2000/svg" width="32" height="32" version="1">
 <path style="opacity:0.2" d="M 2.4902344,3.0073944 A 1.50015,1.50015 0 0 0 2.4023438,6.0034881 C 3.861676,6.1198543 4.7515274,6.3665941 5.2246094,6.6187225 5.6976914,6.870851 5.8395277,7.0594392 6.0351562,7.5425507 6.4264133,8.5087735 6.4992994,10.738966 7.2753906,13.843332 A 1.5009261,1.5009261 0 1 0 10.1875,13.114816 C 9.4959806,10.348738 9.5964274,8.3438399 8.8164062,6.4175507 8.4263957,5.454406 7.6843343,4.5316044 6.6347656,3.9722381 5.5851969,3.4128719 4.3150183,3.1467688 2.640625,3.0132538 a 1.50015,1.50015 0 0 0 -0.1503906,-0.00586 z"/>
 <circle style="opacity:0.2" cx="26.5" cy="13.5" r="3.5"/>
 <circle style="opacity:0.2" cx="4.5" cy="13.5" r="3.5"/>
 <path style="opacity:0.2" d="M 5.15,8.000021 C 4.5129001,8.000021 4,8.468321 4,9.0500211 V 18.50002 A 11.5,10.5 0 0 0 15.5,29.000021 11.5,10.5 0 0 0 27,18.50002 V 9.0500211 C 27,8.468321 26.4871,8.000021 25.85,8.000021 H 15.5 Z"/>
 <circle style="fill:#17191e" cx="4.5" cy="12.5" r="3.5"/>
 <circle style="fill:#17191e" cx="26.5" cy="12.5" r="3.5"/>
 <path style="fill:none;stroke:#ffb500;stroke-width:3;stroke-linecap:round" d="M 2.5212966,3.5091425 C 8.7887477,4.0089048 7.2637732,6.6088258 8.7313838,12.47927"/>
 <path style="opacity:0.2;fill:#8b9cbe" d="M 2.4902344 2.0078125 A 1.50015 1.50015 0 0 0 1.0976562 4.0078125 A 1.50015 1.50015 0 0 1 2.4902344 3.0078125 A 1.50015 1.50015 0 0 1 2.640625 3.0136719 C 4.3150183 3.1471869 5.5851969 3.41329 6.6347656 3.9726562 C 7.6843343 4.5320225 8.4263958 5.4548241 8.8164062 6.4179688 C 9.57997 8.3036157 9.5093528 10.274599 10.154297 12.951172 A 1.5009261 1.5009261 0 0 0 10.1875 12.115234 C 9.4959806 9.3491564 9.5964275 7.3442579 8.8164062 5.4179688 C 8.4263958 4.4548241 7.6843343 3.5320225 6.6347656 2.9726562 C 5.5851969 2.4132901 4.3150183 2.1471869 2.640625 2.0136719 A 1.50015 1.50015 0 0 0 2.4902344 2.0078125 z"/>
 <path style="fill:#4f4f4f" d="M 5.15,7 C 4.5129001,7 4,7.4683 4,8.0500001 V 17.499999 A 11.5,10.5 0 0 0 15.5,28 11.5,10.5 0 0 0 27,17.499999 V 8.0500001 C 27,7.4683 26.4871,7 25.85,7 H 15.5 Z"/>
 <path style="opacity:0.2" d="m 18.419118,21.023117 c 0.40904,2.668796 -0.743169,6.038859 -2.092965,6.408735 -2.388483,0.602047 -0.179522,-4.177158 -4.263471,-4.983472 1.140252,1.935121 -0.358708,2.615581 -2.4492494,2.866941 -0.7454038,0.0843 -1.323387,-0.314693 -0.9824049,-1.362545 -0.065234,-0.214539 -0.3097115,-0.56807 -0.6900155,-0.698409 -0.3696094,-0.155125 -0.718724,0.0067 -1.0688371,-0.05132 -0.00349,0.03009 -0.038368,0.06924 -0.00563,0.08956 0.7166795,0.736439 0.5480617,1.316882 -0.1397589,1.659158 -0.2342531,0.07062 -0.450049,0.05185 -0.6343171,-0.04334 -0.2494854,-0.128861 -0.2927489,-0.278741 -0.2133204,-0.433365 0.056398,-0.109741 0.1619247,-0.215577 0.2232115,-0.325017 0.016733,-0.02984 -0.045538,-0.06722 -0.072049,-0.101121 -0.077493,0.01507 -0.1890128,0.0211 -0.2274496,0.04621 -2.1905927,1.287686 0.6803407,4.145449 1.7532925,4.851599 2.211443,1.334636 4.7391359,2.048127 7.3249299,2.053269 6.030202,-0.264331 11.796504,-3.371794 9.593192,-6.730899 0.06116,1.089333 -0.899255,2.410423 -3.032463,1.669367 0.750209,-2.116497 -3.237124,-5.237609 -3.02269,-4.915374 z"/>
 <path style="fill:#f67c01" d="m 18.419118,20.023096 c 0.40904,2.668796 -0.743169,6.038859 -2.092965,6.408735 -2.388483,0.602047 -0.179522,-4.177158 -4.263471,-4.983472 1.140252,1.935121 -0.358708,2.615581 -2.4492494,2.866941 -0.7454038,0.0843 -1.323387,-0.314693 -0.9824049,-1.362545 -0.065234,-0.214539 -0.3097115,-0.56807 -0.6900155,-0.698409 -0.3696094,-0.155125 -0.718724,0.0067 -1.0688371,-0.05132 -0.00349,0.03009 -0.038368,0.06924 -0.00563,0.08956 0.7166795,0.736439 0.5480617,1.316882 -0.1397589,1.659158 -0.2342531,0.07062 -0.450049,0.05185 -0.6343171,-0.04334 -0.2494854,-0.128861 -0.2927489,-0.278741 -0.2133204,-0.433365 0.056398,-0.109741 0.1619247,-0.215577 0.2232115,-0.325017 0.016733,-0.02984 -0.045538,-0.06722 -0.072049,-0.101121 -0.077493,0.01507 -0.1890128,0.0211 -0.2274496,0.04621 -2.1905927,1.287686 0.6803407,4.145449 1.7532925,4.851599 2.211443,1.334636 4.7391359,2.048127 7.3249299,2.053269 6.030202,-0.264331 11.796504,-3.371794 9.593192,-6.730899 0.06116,1.089333 -0.899255,2.410423 -3.032463,1.669367 0.750209,-2.116497 -3.237124,-5.237609 -3.02269,-4.915374 z"/>
 <path style="fill:#8b9cbe;opacity:0.1" d="M 5.1503906 7 C 4.5132907 7 4 7.4690811 4 8.0507812 L 4 9.0507812 C 4 8.4690812 4.5132907 8 5.1503906 8 L 15.5 8 L 25.849609 8 C 26.486709 8 27 8.4690811 27 9.0507812 L 27 8.0507812 C 27 7.4690812 26.486709 7 25.849609 7 L 15.5 7 L 5.1503906 7 z"/>
 <path style="fill:#8b9cbe;opacity:0.2" d="M 18.419922 20.023438 C 18.471052 20.357037 18.496949 20.700543 18.501953 21.048828 C 18.917703 21.305277 21.055547 23.14142 21.460938 24.845703 C 22.070488 22.731993 18.208514 19.70575 18.419922 20.023438 z M 12.0625 21.449219 C 12.316308 21.879955 12.422634 22.239173 12.4375 22.554688 C 15.985757 23.582378 14.018207 28.013392 16.326172 27.431641 C 17.566384 27.091793 18.623826 24.223787 18.472656 21.689453 C 18.34136 23.926567 17.404182 26.136241 16.326172 26.431641 C 13.937689 27.033688 16.146449 22.255533 12.0625 21.449219 z M 7.6679688 22.189453 C 7.3974398 22.166803 7.1356317 22.24664 6.8730469 22.203125 C 6.8695569 22.233215 6.8344495 22.272649 6.8671875 22.292969 C 7.1943335 22.629134 7.3292356 22.930019 7.3222656 23.193359 C 7.5244641 23.175128 7.7298063 23.165098 7.9414062 23.253906 C 8.3217102 23.384245 8.5656254 23.738586 8.6308594 23.953125 C 8.2898773 25.000977 8.8678774 25.398753 9.6132812 25.314453 C 11.453357 25.093208 12.830297 24.53893 12.357422 23.089844 C 12.038711 23.816009 10.948891 24.153864 9.6132812 24.314453 C 8.8678774 24.398753 8.2898773 24.000977 8.6308594 22.953125 C 8.5656254 22.738586 8.3217102 22.384245 7.9414062 22.253906 C 7.8490039 22.215125 7.7581451 22.197003 7.6679688 22.189453 z M 6.03125 23.048828 C 5.953757 23.063898 5.8411712 23.070593 5.8027344 23.095703 C 5.0219014 23.554697 4.8912403 24.212927 5.0859375 24.902344 C 5.1953731 24.598917 5.4173881 24.322219 5.8027344 24.095703 C 5.8411712 24.070593 5.953757 24.063898 6.03125 24.048828 C 6.057761 24.082729 6.1182955 24.120551 6.1015625 24.150391 C 6.0402757 24.259831 5.9353042 24.364868 5.8789062 24.474609 C 5.7994778 24.629233 5.8423115 24.779342 6.0917969 24.908203 C 6.276065 25.003393 6.4923094 25.021792 6.7265625 24.951172 C 7.2998129 24.665909 7.5044973 24.213089 7.1445312 23.644531 C 7.0426817 23.76174 6.9023402 23.863701 6.7265625 23.951172 C 6.4923094 24.021792 6.276065 24.003393 6.0917969 23.908203 C 5.8423115 23.779342 5.7994778 23.629233 5.8789062 23.474609 C 5.9353042 23.364868 6.0402757 23.259831 6.1015625 23.150391 C 6.1182955 23.120551 6.057761 23.082729 6.03125 23.048828 z M 24.474609 23.269531 C 24.535332 24.351067 23.585651 25.653823 21.484375 24.947266 C 21.551576 25.289552 21.552268 25.624736 21.441406 25.9375 C 23.574614 26.678556 24.535769 25.358864 24.474609 24.269531 C 24.69377 24.603657 24.811818 24.93317 24.880859 25.259766 C 25.025744 24.620475 24.921734 23.951205 24.474609 23.269531 z"/>
</svg>
