<svg xmlns="http://www.w3.org/2000/svg" width="32" height="32" version="1">
 <path style="opacity:0.2" d="m 16.500018,2.9999912 c -1.3072,0.018684 -2.23945,0.8061022 -2.676954,2.1095813 l 0.01619,-0.058789 -2.053904,5.9492095 H 4.8589765 c -0.015101,-2.43e-4 -0.029402,-2.43e-4 -0.044503,0 -0.8271286,0.02681 -1.5729434,0.51273 -2.0984081,1.152465 -1.1364238,1.304495 -0.8955596,3.357028 0.547528,4.329906 l 5.4456121,3.979903 -2.1132428,6.865584 c -0.00235,0.0073 -0.00454,0.01457 -0.00675,0.02188 -0.3229059,1.060759 -0.019256,2.153602 0.792972,2.901188 0.00587,0.0055 0.012871,0.01102 0.018878,0.01641 0.9760436,0.867686 2.3474429,0.977965 3.4496963,0.259767 0.02097,-0.01357 0.04182,-0.02773 0.06203,-0.04239 l 5.587222,-4.034593 5.587214,4.034591 c 0.02021,0.01466 0.04106,0.02882 0.06203,0.04239 1.102254,0.718198 2.473653,0.607919 3.449697,-0.259767 0.006,-0.0054 0.01297,-0.01089 0.01888,-0.01641 0.812227,-0.747586 1.115878,-1.840429 0.792972,-2.901188 -0.0022,-0.0073 -0.0044,-0.01461 -0.0068,-0.02188 l -2.113214,-6.865584 5.445612,-3.979903 c 1.443087,-0.972878 1.683952,-3.025411 0.547528,-4.329906 -0.525464,-0.639735 -1.27128,-1.125655 -2.098408,-1.152465 -0.0151,-2.43e-4 -0.02941,-2.43e-4 -0.04451,0 h -6.926317 l -2.053904,-5.9492079 0.01619,0.058789 C 18.739468,3.8060934 17.807218,3.018675 16.500018,2.9999912 Z"/>
 <path style="fill:#4caf50" d="m 16.500018,1.999999 c -1.3072,0.018684 -2.23945,0.8061022 -2.676954,2.1095813 l 0.01619,-0.058789 -2.053904,5.9492097 H 4.8589765 c -0.015101,-2.43e-4 -0.029402,-2.43e-4 -0.044503,0 -0.8271286,0.02681 -1.5729434,0.51273 -2.0984081,1.152465 -1.1364238,1.304495 -0.8955596,3.357028 0.547528,4.329906 l 5.4456121,3.979903 -2.1132428,6.865584 c -0.00235,0.0073 -0.00454,0.01457 -0.00675,0.02188 -0.3229059,1.060759 -0.019256,2.153602 0.792972,2.901188 0.00587,0.0055 0.012871,0.01102 0.018878,0.01641 0.9760436,0.867686 2.3474429,0.977965 3.4496963,0.259767 0.02097,-0.01357 0.04182,-0.02773 0.06203,-0.04239 l 5.587222,-4.034593 5.587214,4.034591 c 0.02021,0.01466 0.04106,0.02882 0.06203,0.04239 1.102254,0.718198 2.473653,0.607919 3.449697,-0.259767 0.006,-0.0054 0.01297,-0.01089 0.01888,-0.01641 0.812227,-0.747586 1.115878,-1.840429 0.792972,-2.901188 -0.0022,-0.0073 -0.0044,-0.01461 -0.0068,-0.02188 L 24.29079,19.462273 29.736402,15.48237 c 1.443087,-0.972878 1.683952,-3.025411 0.547528,-4.329906 -0.525464,-0.639735 -1.27128,-1.125655 -2.098408,-1.152465 -0.0151,-2.43e-4 -0.02941,-2.43e-4 -0.04451,0 H 21.214695 L 19.160791,4.0507909 19.176976,4.10958 C 18.739468,2.8061012 17.807218,2.0186828 16.500018,1.999999 Z"/>
 <g style="font-size:19.90416336px;line-height:1.25;letter-spacing:0px;word-spacing:0px;opacity:0.2" transform="matrix(0.72812678,0,0,0.70070775,-0.64285672,-0.14286464)">
  <path d="m 27.166338,31.600702 -1.035017,-2.854257 h -5.175082 l -1.035017,2.854257 h -3.244378 l 5.015849,-14.271285 h 3.68227 l 5.035753,14.271285 z m -1.751567,-5.708514 -1.870991,-6.353409 -1.831183,6.353409 z"/>
 </g>
 <g style="font-size:19.90416336px;line-height:1.25;letter-spacing:0px;word-spacing:0px;fill:#8b9cbe" transform="matrix(0.72812678,0,0,0.70070775,-0.64285672,-1.1428568)">
  <path style="fill:#8b9cbe" d="m 27.166338,31.600702 -1.035017,-2.854257 h -5.175082 l -1.035017,2.854257 h -3.244378 l 5.015849,-14.271285 h 3.68227 l 5.035753,14.271285 z m -1.751567,-5.708514 -1.870991,-6.353409 -1.831183,6.353409 z"/>
 </g>
 <path style="fill:#8b9cbe;opacity:0.2" d="M 16.5 2 C 15.1928 2.018684 14.25977 2.8058959 13.822266 4.109375 L 13.839844 4.0507812 L 11.785156 10 L 4.859375 10 C 4.844274 9.999757 4.8295541 9.999757 4.8144531 10 C 3.9873245 10.02681 3.2422616 10.512609 2.7167969 11.152344 C 2.113633 11.844712 1.9100096 12.745389 2.0566406 13.585938 C 2.1428781 13.071994 2.3510044 12.572235 2.7167969 12.152344 C 3.2422616 11.512609 3.9873245 11.02681 4.8144531 11 C 4.8295541 10.999757 4.844274 10.999757 4.859375 11 L 11.785156 11 L 13.839844 5.0507812 L 13.822266 5.109375 C 14.25977 3.8058959 15.1928 3.018684 16.5 3 C 17.8072 3.0186838 18.740221 3.8058963 19.177734 5.109375 L 19.160156 5.0507812 L 21.214844 11 L 28.140625 11 C 28.155725 10.999757 28.170447 10.999757 28.185547 11 C 29.012675 11.02681 29.757739 11.512609 30.283203 12.152344 C 30.648996 12.572235 30.857122 13.071994 30.943359 13.585938 C 31.08999 12.745389 30.886367 11.844712 30.283203 11.152344 C 29.757739 10.512609 29.012675 10.02681 28.185547 10 C 28.170447 9.999757 28.155725 9.999757 28.140625 10 L 21.214844 10 L 19.160156 4.0507812 L 19.177734 4.109375 C 18.740226 2.8058962 17.8072 2.0186838 16.5 2 z M 8.4570312 20.279297 L 6.5957031 26.328125 C 6.5933531 26.335425 6.5920537 26.342299 6.5898438 26.349609 C 6.4534287 26.797738 6.4353357 27.25051 6.5136719 27.681641 C 6.5338427 27.570899 6.5562149 27.460081 6.5898438 27.349609 C 6.5920537 27.342299 6.5933531 27.335425 6.5957031 27.328125 L 8.7089844 20.462891 L 8.4570312 20.279297 z M 24.542969 20.279297 L 24.291016 20.462891 L 26.404297 27.328125 C 26.406697 27.335395 26.407956 27.342309 26.410156 27.349609 C 26.443785 27.460081 26.466157 27.570899 26.486328 27.681641 C 26.564664 27.25051 26.546571 26.797738 26.410156 26.349609 C 26.407956 26.342309 26.406697 26.335395 26.404297 26.328125 L 24.542969 20.279297 z"/>
</svg>
