<svg xmlns="http://www.w3.org/2000/svg" width="32" height="32" version="1">
 <path style="opacity:0.2" d="M 2.4492188,2 C 1.6459187,2 1,2.6459187 1,3.4492188 V 19 v 3 6 0.210938 1.339843 C 1,30.354081 1.6459187,31 2.4492188,31 H 25 26.910156 28 28.550781 C 29.354081,31 30,30.354081 30,29.550781 V 15 12 8 5 3.4492188 C 30,2.6459187 29.354081,2 28.550781,2 H 14 11 7 4 Z"/>
 <path style="fill:#b2bfd9" d="M 30,28.55 V 2.45 C 30,1.6467 29.3533,1 28.55,1 H 2.45 C 1.6467,1 1,1.6467 1,2.45 v 24.760866 l 0.7293762,1.375603 c 0.3763037,0.709708 0.099995,0.697707 0.9029679,0.720624 L 25.65,29.275 26.910362,30 H 28.55 C 29.3533,30 30,29.3533 30,28.55 Z"/>
 <path style="fill:#239623" d="M 4,1 V 18 H 1 v 3 h 10 v 6 H 1 v 1.55 C 1,29.3533 1.6467,30 2.45,30 H 25 28 V 14 h 2 v -3 h -5 v 3 13 H 14 V 21 18 H 7 V 1 Z m 7,0 v 13 h 3 4 v 9 h 3 V 7 h 9 V 4 H 18 v 3 4 H 14 V 1 Z"/>
 <path style="opacity:0.2" d="M 4 1 L 4 2 L 7 2 L 7 1 L 4 1 z M 11 1 L 11 2 L 14 2 L 14 1 L 11 1 z M 18 4 L 18 5 L 30 5 L 30 4 L 18 4 z M 14 11 L 14 12 L 18 12 L 18 11 L 14 11 z M 25 11 L 25 12 L 30 12 L 30 11 L 25 11 z M 1 18 L 1 19 L 4 19 L 4 18 L 1 18 z M 7 18 L 7 19 L 14 19 L 14 18 L 7 18 z M 1 27 L 1 28 L 11 28 L 11 27 L 1 27 z M 14 27 L 14 28 L 25 28 L 25 27 L 14 27 z"/>
 <path style="fill:#8b9cbe;opacity:0.2" d="M 2.4492188 1 C 1.6459187 1 1 1.6459187 1 2.4492188 L 1 3.4492188 C 1 2.6459187 1.6459187 2 2.4492188 2 L 4 2 L 4 1 L 2.4492188 1 z M 7 1 L 7 2 L 11 2 L 11 1 L 7 1 z M 14 1 L 14 2 L 28.550781 2 C 29.354081 2 30 2.6459187 30 3.4492188 L 30 2.4492188 C 30 1.6459187 29.354081 1 28.550781 1 L 14 1 z"/>
</svg>
