<svg xmlns="http://www.w3.org/2000/svg" width="32" height="32" version="1">
 <rect style="opacity:0.2" width="28" height="28" x="2" y="3" rx="8.4" ry="8.4"/>
 <rect style="fill:#797979" width="28" height="28" x="2" y="2" rx="8.4" ry="8.4"/>
 <path style="opacity:0.1" d="M 19.224609,7.0135481 C 18.414036,7.1387023 17.336815,8.1172395 16.25,10.12097 l -1.177734,2.173828 3.710937,4.509766 0.197266,0.195312 h 6.746093 C 25.014612,15.410599 22.03782,9.3682112 21.462891,8.4608137 21.155423,7.9755446 20.525267,7.3949623 20.060547,7.167845 19.770676,7.0261803 19.494799,6.9718305 19.224609,7.0135481 Z m -7.261718,3.9941399 c -0.390245,0.06006 -0.822136,0.416095 -1.566407,0.978516 -1.4659154,1.295529 -2.9673364,3.531321 -3.8457028,5.013672 H 17.458984 C 16.564248,15.592909 14.463402,13.095223 13.273438,11.80261 12.701042,11.183807 12.353136,10.94763 11.962891,11.007688 Z m -5.6894535,6.992188 c 0.7494833,1.267472 1.5131988,3.081681 2.1171875,4.261719 1.4600686,2.861055 2.217498,3.953799 3.089844,4.458984 1.471213,0.851998 2.312864,-0.05754 4.951172,-5.351562 0.67748,-1.359434 1.14931,-2.799846 1.394531,-3.369141 z m 12.7714845,0 -1.689453,3.929688 c 1.042668,0.882049 2.508856,1.611939 3.21289,1.568359 1.606626,-0.09945 2.06518,-1.193819 3.810547,-3.636719 l 1.027344,-1.861328 z"/>
 <path style="fill:#4a4a4a" d="m 19.044,17 -1.688242,3.929612 c 1.042668,0.88205 2.50907,1.612113 3.213104,1.568533 1.606626,-0.09945 2.064575,-1.194323 3.809942,-3.637223 l 1.026773,-1.860656 z"/>
 <path style="fill:#0eb5fd" d="m 6.2735563,17 c 0.7494833,1.267472 1.5137311,3.081884 2.1177198,4.261922 1.4600686,2.861055 2.2163439,3.953465 3.0886899,4.45865 1.471213,0.851998 2.312803,-0.05747 4.951111,-5.351496 C 17.108557,19.009642 17.580928,17.569295 17.826149,17 Z"/>
 <path style="fill:#f05abe" d="M 19.225407,6.0137817 C 18.414834,6.1389359 17.336944,7.1182725 16.250129,9.122003 l -1.178837,2.173522 3.712366,4.508873 0.196683,0.195311 h 6.746103 C 25.014493,14.410432 22.038032,8.3692644 21.463103,7.4618669 21.155635,6.9765978 20.52438,6.3943571 20.05966,6.1672398 19.769789,6.0255751 19.495597,5.9720641 19.225407,6.0137817 Z"/>
 <path style="fill:#00d49f" d="m 11.962962,10.008784 c -0.390245,0.06006 -0.822395,0.415204 -1.566666,0.977625 -1.4659158,1.295529 -2.9667539,3.530949 -3.8451203,5.0133 H 17.459246 C 16.56451,14.592742 14.462899,12.095222 13.272935,10.802609 12.70054,10.183806 12.353207,9.9487252 11.962962,10.008784 Z"/>
 <path style="fill:#8b9cbe;opacity:0.1" d="M 10.400391 2 C 5.7467908 2 2 5.7467908 2 10.400391 L 2 11.400391 C 2 6.7467908 5.7467908 3 10.400391 3 L 21.599609 3 C 26.253209 3 30 6.7467908 30 11.400391 L 30 10.400391 C 30 5.7467908 26.253209 2 21.599609 2 L 10.400391 2 z"/>
</svg>
