<svg xmlns="http://www.w3.org/2000/svg" width="32" height="32" version="1.1">
 <path fill="#fecd38" d="m15.94 2c-5.364 0-11.438 4.4624-12.758 9.402-0.62128 3.7181 0.1023 6.3418 1.9789 8.143 0.0503 0.5259 0.15071 1.0518 0.10664 1.5777-0.001 0.0155-0.004 0.031-0.005 0.0465-0.01 0.0989-0.025 0.19777-0.0479 0.29668-0.01 0.0404-0.0249 0.0813-0.0369 0.12168-0.022 0.0752-0.0436 0.15036-0.0752 0.22558-0.0264 0.0625-0.0646 0.12477-0.0984 0.18731-0.0314 0.0583-0.0573 0.11666-0.0957 0.175-0.0789 0.11944-0.17103 0.23876-0.28301 0.3582-0.4375 0.46666-0.82031 0.75788-1.1484 0.94746-0.98437 0.56862-1.4766 0.21875-1.4766 0.91875 0 0.75833 1.7324 2.1325 3.3209 1.6201 0.24438-0.0788 0.48569-0.20144 0.7164-0.37871 0.11536-0.0886 0.22833-0.19095 0.3377-0.30762 0.20052-0.21389 0.37463-0.41379 0.5291-0.60156 0.1528-0.18408 0.28245-0.35314 0.39922-0.51407 0.0267 0.23449 0.0113 0.53136-0.10254 0.98438-0.45293 1.8031-2.8477 1.6513-1.7008 2.9312 0.88873 0.99175 3.5453 1.0301 5.0148-0.2584-0.58576 1.3282-1.4762 2.1246 0.23516 2.1246 2.625 0 5.25-1.8662 5.25-4.6662 0 2.8 2.625 4.6662 5.25 4.6662 1.7114 0 0.82092-0.79643 0.23516-2.1246 1.4695 1.2885 4.1261 1.2502 5.0148 0.2584 1.147-1.2799-1.2478-1.1282-1.7008-2.9312-0.11399-0.45378-0.12947-0.75108-0.10254-0.98574 0.237 0.32667 0.53256 0.69485 0.92832 1.117 1.75 1.8667 4.375-0.00046 4.375-0.93379 0-0.93334-0.875 0.00045-2.625-1.8662-0.97667-1.0418-0.60331-2.0836-0.52773-3.1254 2.0247-1.8311 2.6858-4.4351 1.8503-8.0062-1.8634-5.2946-7.394-9.4022-12.758-9.4022z"/>
 <ellipse opacity=".2" cx="11" cy="11.5" rx="2" ry="2.5"/>
 <ellipse fill="#fff" cx="11" cy="10.5" rx="2" ry="2.5"/>
 <ellipse opacity=".2" cx="21" cy="11.5" rx="2" ry="2.5"/>
 <ellipse fill="#17191e" cx="12" cy="10.5" rx="1" ry="1.5"/>
 <ellipse fill="#17191e" cx="21.95" cy="10.4" rx="1.05" ry="1.4"/>
 <ellipse fill="#fff" cx="21" cy="10.5" rx="2" ry="2.5"/>
 <ellipse fill="#17191e" cx="22" cy="10.5" rx="1" ry="1.5"/>
 <path fill="#fff" opacity=".2" d="m15.939 2c-5.363 0-11.438 4.4626-12.757 9.402-0.1802 1.076-0.2345 2.05-0.1937 2.95 0.0238-0.618 0.0779-1.259 0.1933-1.95 1.3194-4.9394 7.3944-9.402 12.757-9.402 5.364 0 10.895 4.1078 12.758 9.402 0.187 0.799 0.29 1.542 0.328 2.246 0.05-0.982-0.049-2.055-0.328-3.246-1.863-5.2942-7.394-9.402-12.758-9.402zm-10.695 19.281c-0.0088 0.062-0.0149 0.124-0.0293 0.186-0.01 0.04-0.0251 0.081-0.0371 0.121-0.022 0.075-0.0426 0.149-0.0742 0.224-0.0264 0.063-0.0658 0.125-0.0996 0.188-0.0314 0.058-0.0573 0.117-0.0957 0.176-0.0789 0.119-0.1712 0.238-0.2832 0.357-0.4375 0.467-0.8203 0.758-1.1484 0.947-0.9844 0.569-1.4766 0.22-1.4766 0.92 0 0.161 0.0924 0.351 0.2305 0.543 0.2345-0.109 0.6473-0.117 1.2461-0.463 0.3281-0.189 0.7109-0.48 1.1484-0.947 0.112-0.119 0.2043-0.238 0.2832-0.357 0.0384-0.059 0.0643-0.118 0.0957-0.176 0.0338-0.063 0.0732-0.125 0.0996-0.188 0.0316-0.075 0.0522-0.149 0.0742-0.224 0.012-0.04 0.0271-0.081 0.0371-0.121 0.0229-0.099 0.0369-0.198 0.0469-0.297 0.001-0.016 0.0049-0.031 0.0059-0.047 0.0235-0.28 0.0057-0.561-0.0235-0.842zm21.51 0.033c-0.078 0.74-0.072 1.48 0.621 2.219 1.233 1.316 2.023 1.245 2.387 1.412 0.138-0.193 0.238-0.383 0.238-0.545 0-0.933-0.875 0-2.625-1.867-0.381-0.406-0.553-0.812-0.621-1.219zm-2.057 3.903c-0.027 0.234-0.012 0.532 0.102 0.986 0.274 1.093 1.256 1.467 1.736 1.877 0.964-1.151-1.051-1.116-1.646-2.617-0.063-0.082-0.136-0.169-0.192-0.246zm-17.392 0.002c-0.0556 0.076-0.1288 0.163-0.1914 0.244-0.5959 1.501-2.6149 1.467-1.6485 2.619 0.4798-0.411 1.4616-0.785 1.7364-1.879 0.1138-0.453 0.1302-0.75 0.1035-0.984zm3.2113 3.656c-0.214 0.187-0.458 0.338-0.7133 0.471-0.0791 0.252-0.037 0.435 0.2013 0.541 0.15-0.29 0.341-0.625 0.512-1.012zm10.97 0c0.171 0.387 0.362 0.722 0.512 1.012 0.238-0.106 0.278-0.289 0.199-0.541-0.255-0.133-0.497-0.284-0.711-0.471z"/>
 <path opacity=".2" d="m2.9883 14.352c-0.1043 2.703 0.644 4.726 2.1719 6.193 0.0234 0.245 0.0584 0.491 0.0839 0.736 0.0053-0.037 0.0139-0.074 0.0176-0.111 0.001-0.016 0.0049-0.031 0.0059-0.047 0.044-0.526-0.0571-1.052-0.1074-1.578-1.3336-1.28-2.0717-2.985-2.1719-5.193zm26.037 0.296c-0.098 1.966-0.828 3.539-2.177 4.76-0.046 0.636-0.2 1.271-0.094 1.906 0.032-0.302 0.072-0.604 0.094-0.906 1.571-1.421 2.311-3.316 2.177-5.76zm-4.328 9.569c-0.027 0.234-0.012 0.532 0.102 0.986 0.023 0.093 0.057 0.177 0.09 0.26 0.204 0.265 0.434 0.548 0.736 0.871 1.75 1.867 4.375 0 4.375-0.934 0-0.275-0.086-0.385-0.238-0.455-0.664 0.924-2.689 1.933-4.137 0.389-0.396-0.422-0.691-0.791-0.928-1.117zm-17.392 0.002c-0.1168 0.161-0.2476 0.329-0.4004 0.513-0.1545 0.188-0.3288 0.388-0.5293 0.602-0.1094 0.117-0.2225 0.218-0.3379 0.307-0.2307 0.177-0.4705 0.3-0.7148 0.379-1.2515 0.403-2.5792-0.362-3.0918-1.077-0.1511 0.071-0.2305 0.183-0.2305 0.457 0 0.759 1.7338 2.132 3.3223 1.62 0.2443-0.079 0.4841-0.202 0.7148-0.379 0.1154-0.089 0.2285-0.19 0.3379-0.307 0.2005-0.214 0.3748-0.414 0.5293-0.602 0.08-0.096 0.1402-0.18 0.209-0.269 0.033-0.083 0.0645-0.167 0.0879-0.26 0.1138-0.453 0.1302-0.75 0.1035-0.984zm8.6953 1.115c0 2.8-2.625 4.666-5.25 4.666-0.364 0-0.59-0.044-0.746-0.113-0.367 0.706-0.4677 1.113 0.746 1.113 2.625 0 5.25-1.866 5.25-4.666 0 2.8 2.625 4.666 5.25 4.666 1.213 0 1.114-0.407 0.748-1.113-0.156 0.069-0.383 0.113-0.748 0.113-2.625 0-5.25-1.866-5.25-4.666zm-5.484 2.541c-1.4699 1.288-4.1273 1.252-5.016 0.26-0.0181-0.02-0.0188-0.033-0.0352-0.053-0.3109 0.267-0.4159 0.549 0.0352 1.053 0.7594 0.847 2.8053 0.989 4.3027 0.211 0.1132-0.361 0.4413-0.856 0.7133-1.471zm10.97 0c0.272 0.615 0.598 1.11 0.711 1.471 1.498 0.778 3.544 0.636 4.303-0.211 0.452-0.505 0.348-0.788 0.035-1.055-0.017 0.02-0.016 0.034-0.035 0.055-0.889 0.992-3.544 1.028-5.014-0.26z"/>
</svg>
