<svg xmlns="http://www.w3.org/2000/svg" width="32" height="32" version="1.1">
 <path style="opacity:0.2" d="M 30,14.83 V 28.76 C 30,29.997032 29.035607,31 27.846154,31 H 4.1538462 C 2.9643929,31 2,29.997032 2,28.76 V 14.83 Z"/>
 <path style="fill:#b2bfd9" d="M 30,13.83 V 27.76 C 30,28.997032 29.035607,30 27.846154,30 H 4.1538462 C 2.9643929,30 2,28.997032 2,27.76 V 13.83 Z"/>
 <path style="fill:#cdcdcd" d="M 4.1538462,2 C 2.9601862,2 2,3.0104816 2,4.2666666 V 14 H 30 V 4.2666666 C 30,3.0104816 29.039813,2 27.846154,2 Z"/>
 <path style="fill:#3584e4" d="M 22.857603,19 H 18.142395 C 16.407027,19 15,20.343454 15,22.000518 15,23.657581 16.407027,25 18.142395,25 h 4.715208 c 1.735368,0 2.442764,-1.342419 2.442764,-2.999482 C 25.300367,20.343454 24.592971,19 22.857603,19 Z"/>
 <path style="opacity:0.1" d="M 18.142578,19 C 16.40721,19 15,20.342936 15,22 c 0,0.171034 0.02394,0.3368 0.05273,0.5 0.250844,-1.417364 1.534165,-2.5 3.089844,-2.5 h 4.714844 c 1.555679,0 2.139367,1.082636 2.390211,2.5 0.02879,-0.1632 0.05273,-0.328966 0.05273,-0.5 0,-1.657064 -0.707577,-3 -2.442945,-3 z"/>
 <path style="opacity:0.2" d="m 20,23 c 0,1.656716 1.343345,3 3.000001,3 C 24.657679,26 26,24.656716 26,23 26,21.343283 24.657679,20 23.000001,20 21.343345,20 20,21.343283 20,23 Z m 0,0"/>
 <path style="fill:#8b9cbe" d="m 20,22 c 0,1.656716 1.343345,3 3.000001,3 C 24.657679,25 26,23.656716 26,22 26,20.343283 24.657679,19 23.000001,19 21.343345,19 20,20.343283 20,22 Z m 0,0"/>
 <path style="opacity:0.1" d="m 6.21875,19 h 6.5625 C 12.902018,19 13,19.08398 13,19.1875 v 1.625 C 13,20.916015 12.90202,21 12.78125,21 H 6.21875 C 6.0979818,21 6,20.916015 6,20.8125 v -1.625 C 6,19.083985 6.0979818,19 6.21875,19 Z m 0,0"/>
 <path style="fill:#797979" d="m 10,6 h 2 v 2 h -2 z m 0,0"/>
 <path style="opacity:0.1" d="m 6.1875,24 h 3.625 C 9.916015,24 10,24.08398 10,24.1875 v 1.625 C 10,25.916015 9.91602,26 9.8125,26 H 6.1875 C 6.0839847,26 6,25.916015 6,25.8125 v -1.625 C 6,24.083985 6.0839847,24 6.1875,24 Z m 0,0"/>
 <path style="fill:#797979" d="m 18,6 h 8 v 2 h -8 z m 0,0"/>
 <path style="opacity:0.2" d="m 15.833333,4 h 1.132487 l -2.333333,7 H 13.5 Z m 0,0"/>
 <path style="fill:#3584e4" d="m 18,10 h 8 v 1 h -8 z m 0,0"/>
 <path style="opacity:0.2" d="M 7.8333331,4 H 8.9361978 L 6.6028647,11 H 5.5 Z m 0,0"/>
 <rect style="opacity:0.2" width="28" height="1" x="2" y="14"/>
 <path style="fill:#8b9cbe;opacity:0.2" d="M 4.1542969 2 C 2.9606369 2 2 3.0113931 2 4.2675781 L 2 5.2675781 C 2 4.0113931 2.9606369 3 4.1542969 3 L 27.845703 3 C 29.039362 3 30 4.0113931 30 5.2675781 L 30 4.2675781 C 30 3.0113931 29.039362 2 27.845703 2 L 4.1542969 2 z"/>
</svg>
