<svg xmlns="http://www.w3.org/2000/svg" width="32" height="32" version="1">
 <rect style="opacity:0.2" width="28" height="21" x="2" y="10" rx="2.1" ry="2.1"/>
 <rect style="fill:#807975" width="28" height="21" x="2" y="9" rx="2.1" ry="2.1"/>
 <path style="opacity:0.2;fill:#8b9cbe" d="M 4.0996094 9 C 2.9362094 9 2 9.9362094 2 11.099609 L 2 12.099609 C 2 10.936209 2.9362094 10 4.0996094 10 L 27.900391 10 C 29.063791 10 30 10.936209 30 12.099609 L 30 11.099609 C 30 9.9362094 29.063791 9 27.900391 9 L 4.0996094 9 z"/>
 <rect style="fill:#fca526" width="24" height="17" x="4" y="11"/>
 <rect style="opacity:0.1" width="15" height="1" x="4" y="11"/>
 <rect style="opacity:0.6;fill:#8b9cbe" width="11" height="11" x="12" y="13" rx="1.158" ry="1.1"/>
 <rect style="opacity:0.6;fill:#8b9cbe" width="10" height="9" x="6" y="17" rx="1" ry="1.125"/>
 <rect style="fill:#b2bfd9" width="13" height="28" x="17" y="2" rx="2.167" ry="2.1"/>
 <path style="opacity:0.1" d="M 21.5,17 A 1.5,1.5 0 0 0 20,18.5 1.5,1.5 0 0 0 21.5,20 1.5,1.5 0 0 0 23,18.5 1.5,1.5 0 0 0 21.5,17 Z m 4,0 A 1.5,1.5 0 0 0 24,18.5 1.5,1.5 0 0 0 25.5,20 1.5,1.5 0 0 0 27,18.5 1.5,1.5 0 0 0 25.5,17 Z m -4,4 A 1.5,1.5 0 0 0 20,22.5 1.5,1.5 0 0 0 21.5,24 1.5,1.5 0 0 0 23,22.5 1.5,1.5 0 0 0 21.5,21 Z m 4,0 A 1.5,1.5 0 0 0 24,22.5 1.5,1.5 0 0 0 25.5,24 1.5,1.5 0 0 0 27,22.5 1.5,1.5 0 0 0 25.5,21 Z m -4,4 A 1.5,1.5 0 0 0 20,26.5 1.5,1.5 0 0 0 21.5,28 1.5,1.5 0 0 0 23,26.5 1.5,1.5 0 0 0 21.5,25 Z m 4,0 A 1.5,1.5 0 0 0 24,26.5 1.5,1.5 0 0 0 25.5,28 1.5,1.5 0 0 0 27,26.5 1.5,1.5 0 0 0 25.5,25 Z"/>
 <circle style="fill:#a9a8a4" cx="23.5" cy="8.5" r="4.5"/>
 <circle style="opacity:0.2" cx="-9.5" cy="-23.5" r="2.5" transform="matrix(0,-1,-1,0,0,0)"/>
 <circle style="fill:#f9f8f7" cx="-8.5" cy="-23.5" r="2.5" transform="matrix(0,-1,-1,0,0,0)"/>
 <circle style="fill:#f66151" cx="21.5" cy="17.5" r="1.5"/>
 <circle style="fill:#a9a8a4" cx="25.5" cy="17.5" r="1.5"/>
 <circle style="fill:#a9a8a4" cx="21.5" cy="21.5" r="1.5"/>
 <circle style="fill:#a9a8a4" cx="25.5" cy="21.5" r="1.5"/>
 <circle style="fill:#a9a8a4" cx="21.5" cy="25.5" r="1.5"/>
 <circle style="fill:#a9a8a4" cx="25.5" cy="25.5" r="1.5"/>
 <path style="opacity:0.2;fill:#8b9cbe" d="M 19.166016 2 C 17.965682 2 17 2.9362094 17 4.0996094 L 17 5.0996094 C 17 3.9362094 17.965682 3 19.166016 3 L 27.833984 3 C 29.034318 3 30 3.9362094 30 5.0996094 L 30 4.0996094 C 30 2.9362094 29.034318 2 27.833984 2 L 19.166016 2 z"/>
 <path style="opacity:0.1" d="M 23.5 4 A 4.5 4.5 0 0 0 19 8.5 A 4.5 4.5 0 0 0 19.033203 8.9882812 A 4.5 4.5 0 0 1 23.5 5 A 4.5 4.5 0 0 1 27.966797 9.0117188 A 4.5 4.5 0 0 0 28 8.5 A 4.5 4.5 0 0 0 23.5 4 z"/>
</svg>
