<svg xmlns="http://www.w3.org/2000/svg" width="32" height="32" version="1">
 <circle opacity=".2" cx="16" cy="17" r="14"/>
 <circle fill="#f9548f" cx="16" cy="16" r="14"/>
 <path style="opacity:.2" d="m8.0392 13.742c0.10587-0.33033 0.12483-0.52848 0.16524-0.71996-0.29187 0.38021-0.13454 0.46136-0.16524 0.71996m0.5392-2.293c0.052592 0.49515-0.36569 0.68755 0.092546 0.36067 0.24605-0.56411-0.095708-0.15563-0.092546-0.36067m8.0076-4.335c0.22776-0.084822 0.56027-0.04666 0.80272-0.10252-0.31557 0.026899-0.62958 0.042988-0.93951 0.083213l0.137 0.0193m7.328 9.247-0.04944 0.12689c-0.09074 0.65697-0.28736 1.307-0.58804 1.91 0.33228-0.63606 0.54651-1.3319 0.63748-2.0369m-9.274 2.053c-0.11795-0.13227-0.18634-0.29119-0.26464-0.45012 0.07449 0.27838 0.22709 0.51767 0.36862 0.76134l-0.10407-0.31094m-0.52391 0.02072-0.04763 0.24068c0.2219 0.30688 0.39797 0.63928 0.68081 0.87835-0.20361-0.40435-0.35462-0.57147-0.63319-1.119m2.762-11.054-0.127 0.0269 0.118-0.011 0.009-0.0159m-0.359-0.1016c0.18014 0.032643 0.38917 0.057933 0.35914 0.10183 0.19774-0.04437 0.24221-0.084367-0.35914-0.10183m3.757 8.4541c0.04108-0.61859-0.11942-0.42274-0.17337-0.18712 0.06276 0.03356 0.11264 0.4363 0.17337 0.18712m-0.668 1.771c0.20158-0.28252 0.34785-0.59147 0.39954-0.911-0.04538 0.22758-0.16614 0.42412-0.28081 0.63192-0.63048 0.40435-0.0596-0.23998-0.000451-0.48526-0.67766 0.86962-0.09346 0.52136-0.11829 0.76433m-1.81 0.459c-0.33725 0.0045 0.06343 0.17654 0.50384 0.24574 0.12212-0.097 0.23183-0.19447 0.33025-0.28964-0.27381 0.06828-0.55282 0.06988-0.83409 0.04391m-9.7579-4.221c0.1059-0.33 0.1248-0.528 0.1652-0.72-0.2918 0.38-0.1345 0.461-0.1652 0.72m0.53904-2.2928c0.052595 0.49516-0.36568 0.68757 0.092549 0.36068 0.2462-0.564-0.0956-0.156-0.0924-0.361m8.0068-4.3357c0.22776-0.084826 0.56026-0.046666 0.8027-0.10253-0.31557 0.026896-0.62956 0.042987-0.93949 0.083216l0.13679 0.01931m7.3284 9.2478-0.04944 0.12689c-0.09074 0.657-0.28736 1.3071-0.58803 1.9101 0.33228-0.63608 0.54649-1.3319 0.63746-2.037m-9.2739 2.0528c-0.11738-0.13241-0.18645-0.29149-0.26456-0.44965 0.07449 0.27838 0.22708 0.51769 0.36862 0.76136l-0.10406-0.31172m-0.52392 0.02069-0.04763 0.24068c0.22189 0.30689 0.39796 0.6393 0.6808 0.87837-0.20361-0.40436-0.35462-0.57148-0.63317-1.1191m2.7617-11.055-0.12663 0.026896 0.11806-0.011034 0.0086-0.015862m5.03 8.61c0.0186 0.51939-0.14571 0.77177-0.29432 1.2181l-0.26724 0.13823c-0.21847 0.44157 0.02169 0.28034-0.13476 0.6314-0.34144 0.31538-1.0347 0.98655-1.2566 1.048-0.16225-0.0038 0.10975-0.19907 0.1453-0.27539-0.45657 0.32591-0.36645 0.4893-1.0648 0.68772l-0.02025-0.04752c-1.7217 0.84273-4.1135-0.82703-4.0821-3.1049-0.01819 0.14447-0.05229 0.10835-0.09033 0.1664-0.08888-1.1719 0.52043-2.3489 1.548-2.8302 1.0052-0.51724 2.1835-0.30527 2.9029 0.3932-0.39518-0.53874-1.1825-1.1099-2.1148-1.0571-0.91376 0.01548-1.7689 0.61936-2.054 1.2752-0.46794 0.30635-0.5225 1.1816-0.7263 1.3419-0.27469 2.0982 0.51609 3.0043 1.854 4.0709 0.20999 0.14747 0.05911 0.17005 0.08722 0.28227-0.44438-0.21627-0.85113-0.54304-1.1859-0.94312 0.17775 0.27023 0.36934 0.53294 0.61717 0.73932-0.41937-0.14727-0.97928-1.0562-1.1423-1.0932 0.72236 1.3453 2.9304 2.3594 4.0872 1.8561-0.53532 0.02063-1.2151 0.01139-1.8161-0.21971-0.25319-0.13522-0.59608-0.41492-0.53469-0.46715 1.5783 0.61291 3.2082 0.46393 4.5735-0.67439 0.34765-0.28163 0.72712-0.76038 0.83687-0.76684-0.16514 0.2584 0.02831 0.12426-0.09859 0.35236 0.34558-0.58066-0.15068-0.23648 0.35757-1.0027l0.18767 0.26873c-0.07027-0.48242 0.57562-1.0675 0.50989-1.8299 0.14819-0.23303 0.16514 0.2511 0.008 0.78726 0.21805-0.59485 0.05767-0.69052 0.11347-1.1816 0.06015 0.1651 0.14013 0.34031 0.18085 0.51466-0.1422-0.57507 0.1453-0.96806 0.21681-1.3024-0.07068-0.03225-0.21929 0.25411-0.2536-0.4248 0.0053-0.29496 0.07917-0.15457 0.10747-0.22723-0.0554-0.03332-0.20152-0.25948-0.29019-0.69309 0.06386-0.10212 0.17196 0.26421 0.2596 0.27904-0.05643-0.34462-0.15336-0.60753-0.1575-0.87217-0.25629-0.5568-0.09073 0.07439-0.29825-0.23906-0.27282-0.88443 0.22612-0.20531 0.26001-0.60689 0.41296 0.62237 0.64837 1.5877 0.75688 1.9872-0.08267-0.48735-0.21599-0.95967-0.37907-1.4165 0.12587 0.05525-0.20234-1.0025 0.16348-0.30204-0.392-1.4929-1.671-2.888-2.848-3.5425 0.144 0.137 0.326 0.3089 0.261 0.336-0.586-0.3622-0.483-0.3908-0.567-0.5439-0.477-0.2018-0.508 0.0166-0.824 0.0005-0.899-0.4962-1.072-0.4435-1.899-0.754l0.03763 0.18317c-0.59546-0.20638-0.69384 0.077823-1.3373 0.0004303-0.03906-0.031587 0.20628-0.11522 0.40841-0.14554-0.57583 0.079116-0.54896-0.11823-1.1124 0.021716 0.13869-0.10126 0.28585-0.16855 0.43383-0.25453-0.46938 0.029662-1.121 0.28421-0.91995 0.052455-0.76577 0.35557-2.126 0.85454-2.8893 1.599l-0.02398-0.16683c-0.34971 0.43662-1.5251 1.3041-1.6188 1.8702l-0.09363 0.02257c-0.18167 0.32053-0.29969 0.68364-0.44396 1.0132-0.23789 0.422-0.34889 0.16253-0.31499 0.22874-0.46814 0.9872-0.70107 1.8166-0.90177 2.4972 0.14303 0.2225 0.00357 1.3398 0.057459 2.2339-0.23479 4.4166 2.98 8.7043 6.494 9.6941 0.51506 0.19198 1.2808 0.1851 1.9323 0.20401-0.76845-0.22874-0.86767-0.12104-1.6167-0.39255-0.54006-0.26486-0.65829-0.5669-1.041-0.91238l0.1515 0.2784c-0.75027-0.27624-0.43632-0.34181-1.0469-0.54282l0.16184-0.21949c-0.242-0.019-0.643-0.426-0.753-0.652l-0.26621 0.01097c-0.31954-0.40976-0.49005-0.70578-0.47745-0.93516l-0.08599 0.15952c-0.09734-0.17392-1.1762-1.5388-0.61654-1.221-0.10396-0.09846-0.24223-0.16059-0.39208-0.44414l0.11389-0.13522c-0.2689-0.36052-0.49563-0.82251-0.47826-0.97644 0.14364 0.20164 0.24327 0.23949 0.34207 0.2741-0.6802-1.7551-0.71844-0.09653-1.2333-1.7865l0.10871-0.009c-0.0833-0.13136-0.13434-0.27303-0.20131-0.41255l0.047537-0.49123c-0.4893-0.589-0.1367-2.504-0.0658-3.554 0.0485-0.427 0.4086-0.882 0.6816-1.595l-0.16659-0.02966c0.3187-0.57787 1.8192-2.3216 2.5145-2.2321 0.33669-0.43985-0.06697-0.0017-0.1329-0.11222 0.73973-0.79608 0.97225-0.56239 1.4714-0.70578 0.538-0.33214-0.46194 0.12984-0.20689-0.12663 0.93071-0.24701 0.65932-0.56196 1.8732-0.68729 0.12814 0.075671-0.29701 0.11695-0.40366 0.2152 0.77507-0.3947 2.4532-0.30463 3.5437 0.21885 1.2642 0.61506 2.6857 2.4323 2.7419 4.1421l0.06386 0.01784c-0.03224 0.67977 0.10004 1.4659-0.12959 2.1878l0.15522-0.34203m-5.387-8.7119c0.18013 0.032643 0.38916 0.05793 0.35914 0.10184 0.19774-0.044367 0.24221-0.084366-0.35914-0.10184m3.758 8.4548c0.04108-0.61861-0.11941-0.42275-0.17336-0.18712 0.06275 0.03356 0.11264 0.43631 0.17336 0.18712m-0.66884 1.771c0.20158-0.28252 0.34785-0.59148 0.39954-0.91102-0.04537 0.22758-0.16614 0.42413-0.28081 0.63194-0.63046 0.40436-0.05959-0.23999-0.000451-0.48528-0.67764 0.86964-0.09345 0.52137-0.11828 0.76435m-1.8097 0.45953c-0.33724 0.0046 0.06343 0.17655 0.50383 0.24574 0.12212-0.09701 0.23182-0.19448 0.33024-0.28965-0.27381 0.06827-0.55281 0.06988-0.83407 0.04391"/>
 <path style="fill:#8b9cbe" d="m8.0392 12.742c0.1059-0.33 0.1248-0.528 0.1652-0.72-0.2918 0.38-0.1345 0.461-0.1652 0.72m0.5392-2.293c0.0526 0.495-0.3657 0.688 0.0925 0.361 0.2461-0.564-0.0957-0.156-0.0925-0.361m8.0076-4.335c0.228-0.0848 0.56-0.0467 0.803-0.1025-0.316 0.0269-0.63 0.043-0.94 0.0832l0.137 0.0193m7.328 9.247-0.04944 0.12689c-0.09074 0.65697-0.28736 1.307-0.58804 1.91 0.33228-0.63606 0.54651-1.3319 0.63748-2.0369m-9.274 2.053c-0.11795-0.13227-0.18634-0.29119-0.26464-0.45012 0.07449 0.27838 0.22709 0.51767 0.36862 0.76134l-0.104-0.311m-0.524 0.021-0.048 0.241c0.2219 0.30688 0.39797 0.63928 0.68081 0.87835-0.20361-0.40435-0.35462-0.57147-0.63319-1.119m2.762-11.054-0.127 0.0269 0.118-0.011 0.009-0.0159m-0.359-0.1016c0.18014 0.032643 0.38917 0.057933 0.35914 0.10183 0.198-0.0443 0.242-0.0843-0.359-0.1018m3.757 8.4541c0.04108-0.61859-0.11942-0.42274-0.17337-0.18712 0.06276 0.03356 0.11264 0.4363 0.17337 0.18712m-0.668 1.771c0.20158-0.28252 0.34785-0.59147 0.39954-0.911-0.04538 0.22758-0.16614 0.42412-0.28081 0.63192-0.63048 0.40435-0.0596-0.23998-0.000451-0.48526-0.67766 0.86962-0.09346 0.52136-0.11829 0.76433m-1.81 0.459c-0.33725 0.0045 0.06343 0.17654 0.50384 0.24574 0.12212-0.097 0.23183-0.19447 0.33025-0.28964-0.27381 0.06828-0.55282 0.06988-0.83409 0.04391m-9.7579-4.221c0.10587-0.33034 0.12483-0.52849 0.16523-0.71998-0.29187 0.38022-0.13454 0.46137-0.16523 0.71998m0.53904-2.2928c0.052595 0.49516-0.36568 0.68757 0.092549 0.36068 0.2462-0.564-0.0956-0.156-0.0924-0.361m8.0068-4.3357c0.22776-0.084826 0.56026-0.046666 0.8027-0.10253-0.31557 0.026896-0.62956 0.042987-0.93949 0.083216l0.13679 0.01931m7.3284 9.2478-0.04944 0.12689c-0.09074 0.657-0.28736 1.3071-0.58803 1.9101 0.33228-0.63608 0.54649-1.3319 0.63746-2.037m-9.2739 2.0528c-0.11738-0.13241-0.18645-0.29149-0.26456-0.44965 0.07449 0.27838 0.22708 0.51769 0.36862 0.76136l-0.10406-0.31172m-0.52392 0.02069-0.04763 0.24068c0.22189 0.30689 0.39796 0.6393 0.6808 0.87837-0.20361-0.40436-0.35462-0.57148-0.63317-1.1191m2.7617-11.055-0.12663 0.026896 0.11806-0.011034 0.0086-0.015862m5.03 8.61c0.0186 0.51939-0.14571 0.77177-0.29432 1.2181l-0.26724 0.13823c-0.21847 0.44157 0.02169 0.28034-0.13476 0.6314-0.34144 0.31538-1.0347 0.98655-1.2566 1.048-0.16225-0.0038 0.10975-0.19907 0.1453-0.27539-0.45657 0.32591-0.36645 0.4893-1.0648 0.68772l-0.02025-0.04752c-1.7217 0.84273-4.1135-0.82703-4.0821-3.1049-0.01819 0.14447-0.05229 0.10835-0.09033 0.1664-0.08888-1.1719 0.52043-2.3489 1.548-2.8302 1.0052-0.51724 2.1835-0.30527 2.9029 0.3932-0.39518-0.53874-1.1825-1.1099-2.1148-1.0571-0.91376 0.01548-1.7689 0.61936-2.054 1.2752-0.46794 0.30635-0.5225 1.1816-0.7263 1.3419-0.27469 2.0982 0.51609 3.0043 1.854 4.0709 0.20999 0.14747 0.05911 0.17005 0.08722 0.28227-0.44438-0.21627-0.85113-0.54304-1.1859-0.94312 0.17775 0.27023 0.36934 0.53294 0.61717 0.73932-0.41937-0.14727-0.97928-1.0562-1.1423-1.0932 0.72236 1.3453 2.9304 2.3594 4.0872 1.8561-0.53532 0.02063-1.2151 0.01139-1.8161-0.21971-0.25319-0.13522-0.59608-0.41492-0.53469-0.46715 1.5783 0.61291 3.2082 0.46393 4.5735-0.67439 0.34765-0.28163 0.72712-0.76038 0.83687-0.76684-0.16514 0.2584 0.02831 0.12426-0.09859 0.35236 0.34558-0.58066-0.15068-0.23648 0.35757-1.0027l0.18767 0.26873c-0.07027-0.48242 0.57562-1.0675 0.50989-1.8299 0.14819-0.23303 0.16514 0.2511 0.008 0.78726 0.21805-0.59485 0.05767-0.69052 0.11347-1.1816 0.06015 0.1651 0.14013 0.34031 0.18085 0.51466-0.1422-0.57507 0.1453-0.96806 0.21681-1.3024-0.07068-0.03225-0.21929 0.25411-0.2536-0.4248 0.0053-0.29496 0.07917-0.15457 0.10747-0.22723-0.0554-0.03332-0.20152-0.25948-0.29019-0.69309 0.06386-0.10212 0.17196 0.26421 0.2596 0.27904-0.05643-0.34462-0.15336-0.60753-0.1575-0.87217-0.25629-0.5568-0.09073 0.07439-0.29825-0.23906-0.27282-0.88443 0.22612-0.20531 0.26001-0.60689 0.41296 0.62237 0.64837 1.5877 0.75688 1.9872-0.08267-0.48735-0.21599-0.95967-0.37907-1.4165 0.12587 0.05525-0.20234-1.0025 0.16348-0.30204-0.392-1.4929-1.671-2.888-2.848-3.5425 0.144 0.137 0.326 0.3089 0.261 0.336-0.586-0.3622-0.483-0.3908-0.567-0.5439-0.477-0.2018-0.508 0.0166-0.824 0.0005-0.899-0.4962-1.072-0.4435-1.899-0.754l0.03763 0.18317c-0.59546-0.20638-0.69384 0.077823-1.3373 0.0004303-0.03906-0.031587 0.20628-0.11522 0.40841-0.14554-0.57583 0.079116-0.54896-0.11823-1.1124 0.021716 0.13869-0.10126 0.28585-0.16855 0.43383-0.25453-0.46938 0.029662-1.121 0.28421-0.91995 0.052455-0.76577 0.35557-2.126 0.85454-2.8893 1.599l-0.02398-0.16683c-0.34971 0.43662-1.5251 1.3041-1.6188 1.8702l-0.09363 0.02257c-0.18167 0.32053-0.29969 0.68364-0.44396 1.0132-0.23789 0.422-0.34889 0.16253-0.31499 0.22874-0.46814 0.9872-0.70107 1.8166-0.90177 2.4972 0.14303 0.2225 0.00357 1.3398 0.057459 2.2339-0.23479 4.4166 2.98 8.7043 6.494 9.6941 0.51506 0.19198 1.2808 0.1851 1.9323 0.20401-0.76845-0.22874-0.86767-0.12104-1.6167-0.39255-0.54006-0.26486-0.65829-0.5669-1.041-0.91238l0.1515 0.2784c-0.75027-0.27624-0.43632-0.34181-1.0469-0.54282l0.16184-0.21949c-0.242-0.019-0.643-0.426-0.753-0.652l-0.26621 0.01097c-0.31954-0.40976-0.49005-0.70578-0.47745-0.93516l-0.08599 0.15952c-0.09734-0.17392-1.1762-1.5388-0.61654-1.221-0.10396-0.09846-0.24223-0.16059-0.39208-0.44414l0.11389-0.13522c-0.2689-0.36052-0.49563-0.82251-0.47826-0.97644 0.14364 0.20164 0.24327 0.23949 0.34207 0.2741-0.6802-1.7551-0.71844-0.09653-1.2333-1.7865l0.10871-0.009c-0.0833-0.13136-0.13434-0.27303-0.20131-0.41255l0.047537-0.49123c-0.4893-0.589-0.1367-2.504-0.0658-3.554 0.0485-0.427 0.4086-0.882 0.6816-1.595l-0.16659-0.02966c0.3187-0.57787 1.8192-2.3216 2.5145-2.2321 0.33669-0.43985-0.06697-0.0017-0.1329-0.11222 0.73973-0.79608 0.97225-0.56239 1.4714-0.70578 0.538-0.33214-0.46194 0.12984-0.20689-0.12663 0.93071-0.24701 0.65932-0.56196 1.8732-0.68729 0.12814 0.075671-0.29701 0.11695-0.40366 0.2152 0.77507-0.3947 2.4532-0.30463 3.5437 0.21885 1.2642 0.61506 2.6857 2.4323 2.7419 4.1421l0.06386 0.01784c-0.03224 0.67977 0.10004 1.4659-0.12959 2.1878l0.15522-0.34203m-5.387-8.7119c0.18013 0.032643 0.38916 0.05793 0.35914 0.10184 0.19774-0.044367 0.24221-0.084366-0.35914-0.10184m3.758 8.4548c0.04108-0.61861-0.11941-0.42275-0.17336-0.18712 0.06275 0.03356 0.11264 0.43631 0.17336 0.18712m-0.66884 1.771c0.20158-0.28252 0.34785-0.59148 0.39954-0.91102-0.04537 0.22758-0.16614 0.42413-0.28081 0.63194-0.63046 0.40436-0.05959-0.23999-0.000451-0.48528-0.67764 0.86964-0.09345 0.52137-0.11828 0.76435m-1.8097 0.45953c-0.33724 0.0046 0.06343 0.17655 0.50383 0.24574 0.12212-0.09701 0.23182-0.19448 0.33024-0.28965-0.27381 0.06827-0.55281 0.06988-0.83407 0.04391"/>
 <path fill="#fff" opacity=".2" d="m16 2a14 14 0 0 0 -14 14 14 14 0 0 0 0.0215 0.586 14 14 0 0 1 13.978 -13.586 14 14 0 0 1 13.979 13.414 14 14 0 0 0 0.021 -0.414 14 14 0 0 0 -14 -14z"/>
</svg>
