<svg xmlns="http://www.w3.org/2000/svg" width="32" height="32" version="1">
 <rect style="opacity:0.2" width="28" height="24" x="2" y="5" rx="1.5" ry="1.5"/>
 <rect style="fill:#1e88e5" width="28" height="24" x="2" y="4" rx="1.5" ry="1.5"/>
 <rect style="opacity:0.2" width="14" height="10" x="18" y="8" rx=".6" ry=".6"/>
 <rect style="fill:#ebebeb" width="14" height="10" x="18" y="7" rx=".6" ry=".6"/>
 <rect style="opacity:0.2" width="14" height="10" x="9" y="22" rx=".6" ry=".6"/>
 <rect style="fill:#ebebeb" width="14" height="10" x="9" y="21" rx=".6" ry=".6"/>
 <rect style="opacity:0.2" width="14" height="10" x="0" y="8" rx=".6" ry=".6"/>
 <rect style="fill:#ebebeb" width="14" height="10" x="0" y="7" rx=".6" ry=".6"/>
 <path style="fill:#8b9cbe;opacity:0.2" d="M 3.5 4 C 2.669 4 2 4.669 2 5.5 L 2 6.5 C 2 5.669 2.669 5 3.5 5 L 28.5 5 C 29.331 5 30 5.669 30 6.5 L 30 5.5 C 30 4.669 29.331 4 28.5 4 L 3.5 4 z"/>
</svg>
