<svg xmlns="http://www.w3.org/2000/svg" width="32" height="32" version="1.1">
 <path style="opacity:0.2" d="M 13.407635,30.77618 C 7.0571289,29.631736 2.4245898,24.4443 2.027023,18.032372 1.5051723,9.6160055 8.6145827,2.5028968 17.024332,3.0272614 c 3.294692,0.2054299 6.319411,1.4960729 8.65145,3.6915579 2.826942,2.6614101 4.316299,6.0499337 4.324174,9.8381837 0.0038,1.816357 -0.237989,2.942814 -1.078758,5.026266 -0.345478,0.856104 -0.720498,1.893807 -0.83338,2.306008 -0.433849,1.584255 -0.167627,3.217921 0.852496,5.231346 0.330016,0.651354 0.566771,1.217383 0.526121,1.257841 -0.04064,0.04045 -0.702472,-0.164797 -1.470719,-0.456121 -2.87038,-1.088465 -3.979065,-1.096173 -6.556305,-0.04557 -2.654117,1.081935 -5.346163,1.383394 -8.031776,0.899412 z"/>
 <path style="fill:#465c66" d="M 13.407635,29.776181 C 7.0571289,28.631737 2.4245898,23.444301 2.027023,17.032373 1.5051723,8.6160061 8.6145827,1.5028974 17.024332,2.027262 c 3.294692,0.2054299 6.319411,1.4960729 8.65145,3.6915579 2.826942,2.6614101 4.316299,6.0499341 4.324174,9.8381841 0.0038,1.816357 -0.237989,2.942814 -1.078758,5.026266 -0.345478,0.856104 -0.720498,1.893807 -0.83338,2.306008 -0.433849,1.584255 -0.167627,3.217921 0.852496,5.231346 0.330016,0.651354 0.566771,1.217383 0.526121,1.257841 -0.04064,0.04045 -0.702472,-0.164797 -1.470719,-0.456121 -2.87038,-1.088465 -3.979065,-1.096173 -6.556305,-0.04557 -2.654117,1.081935 -5.346163,1.383394 -8.031776,0.899412 z"/>
 <path style="opacity:0.2" d="m 15.988281,7.0005441 c -0.849813,0.00716 -1.794539,0.073949 -2.314453,0.2050781 -1.740354,0.4389382 -2.63137,1.2646777 -2.605469,2.4101563 0.02251,0.9951845 0.507394,1.6426625 2.773438,3.3144535 1.122567,0.828179 2.016896,1.776576 1.988281,1.861328 -0.02861,0.08474 -0.542102,0.277677 -1.140625,0.427734 -2.364886,0.592899 -4.329553,1.986667 -5.1660155,3.664062 -0.704444,1.661215 -0.6892431,3.419282 -0.00586,4.798829 1.1153569,2.23668 3.5748049,3.489287 6.4687499,3.298828 0.602567,-0.03966 1.520109,-0.201132 2.039063,-0.359375 1.154856,-0.352143 2.326054,-1.094296 3.238281,-1.998047 1.708774,-1.662866 2.185487,-4.613097 1.300781,-6.525391 -0.718747,-1.461071 -2.167165,-2.730847 -4.974609,-4.361328 -3.960225,-2.299982 -4.460308,-2.866773 -4.945313,-3.412109 -0.255426,-0.287198 -0.464843,-0.6790345 -0.464843,-0.8691408 0,-1.3079008 2.825203,-2.040394 4.591796,-1.21875 0.413169,0.1921653 1.191394,0.7012586 1.728516,1.1308594 1.578024,1.2621424 2.330473,1.4298794 3.119141,0.7031254 C 22.516797,9.2436728 21.704149,8.001992 19.884766,7.420466 19.006693,7.1398137 17.404638,6.9886163 15.988281,7.0005441 Z m 0.736328,8.6874999 c 0.321613,8.48e-4 0.493188,0.165567 1.15625,0.8125 1.530913,1.493663 2.267427,3.298713 2.09375,5.136719 -0.237419,2.086054 -1.594648,3.89515 -3.892578,3.949219 C 13.692527,25.607832 12.013684,23.07416 12,20.928278 c -0.0087,-1.837752 0.275851,-2.692293 1.220703,-3.667968 0.724238,-0.747865 1.971191,-1.362276 3.109375,-1.53125 0.164137,-0.02436 0.287326,-0.04132 0.394531,-0.04102 z"/>
 <path style="fill:#8b9cbe" d="M 15.988281 6 C 15.138468 6.00716 14.193742 6.0739491 13.673828 6.2050781 C 11.933474 6.6440163 11.042458 7.4697558 11.068359 8.6152344 C 11.090869 9.610419 11.575753 10.257897 13.841797 11.929688 C 14.964364 12.757867 15.858693 13.706264 15.830078 13.791016 C 15.801468 13.875756 15.287976 14.068693 14.689453 14.21875 C 12.324567 14.811649 10.3599 16.205417 9.5234375 17.882812 C 8.8189935 19.544027 8.8341944 21.302094 9.5175781 22.681641 C 10.632935 24.918321 13.092383 26.170928 15.986328 25.980469 C 16.588895 25.940809 17.506437 25.779337 18.025391 25.621094 C 19.180247 25.268951 20.351445 24.526798 21.263672 23.623047 C 22.972446 21.960181 23.449159 19.00995 22.564453 17.097656 C 21.845706 15.636585 20.397288 14.366809 17.589844 12.736328 C 13.629619 10.436346 13.129536 9.8695552 12.644531 9.3242188 C 12.389105 9.0370211 12.179688 8.6451844 12.179688 8.4550781 C 12.179688 7.1471773 15.004891 6.4146841 16.771484 7.2363281 C 17.184653 7.4284934 17.962878 7.9375867 18.5 8.3671875 C 20.078024 9.6293295 20.830473 9.7970666 21.619141 9.0703125 C 22.516797 8.2431287 21.704149 7.0014479 19.884766 6.4199219 C 19.006693 6.1392696 17.404638 5.9880722 15.988281 6 z M 16.724609 14.6875 C 17.046222 14.688348 17.217797 14.853067 17.880859 15.5 C 19.411772 16.993663 20.148286 18.798713 19.974609 20.636719 C 19.73719 22.722773 18.379961 24.531869 16.082031 24.585938 C 13.692527 24.607288 12.013684 22.073616 12 19.927734 C 11.9913 18.089982 12.275851 17.235441 13.220703 16.259766 C 13.944941 15.511901 15.191894 14.89749 16.330078 14.728516 C 16.494215 14.704156 16.617404 14.687199 16.724609 14.6875 z"/>
 <path style="fill:#8b9cbe;opacity:0.1" d="M 15.464844 2.0175781 C 7.9599066 2.3877618 1.8885831 8.79462 2.0234375 16.414062 C 2.4358122 8.7262116 9.1588634 2.5369719 17.023438 3.0273438 C 20.31813 3.2327736 23.343742 4.523265 25.675781 6.71875 C 28.394307 9.2780921 29.861871 12.513934 29.978516 16.126953 C 29.984889 15.936675 30.00043 15.762204 30 15.556641 C 29.992125 11.768391 28.502723 8.3801601 25.675781 5.71875 C 23.343742 3.523265 20.31813 2.2327736 17.023438 2.0273438 C 16.497828 1.994571 15.978749 1.9922296 15.464844 2.0175781 z M 27.917969 24.878906 C 27.804359 26.164054 28.129508 27.522498 28.939453 29.121094 C 28.969589 29.180574 28.985231 29.219622 29.013672 29.277344 C 29.270879 29.356566 29.446903 29.398707 29.466797 29.378906 C 29.507447 29.338448 29.269469 28.772448 28.939453 28.121094 C 28.336027 26.930106 28.004957 25.872512 27.917969 24.878906 z"/>
</svg>
