<svg xmlns="http://www.w3.org/2000/svg" width="32" height="32" version="1.1">
 <circle style="opacity:0.2" cx="16" cy="17" r="14"/>
 <circle style="fill:#b2bfd9" cx="16" cy="16" r="14"/>
 <path style="opacity:0.1" d="m 18.492188,7.999859 c -0.68585,-0.014355 -1.375021,0.1844867 -1.949219,0.5625 -0.572601,0.376418 -1.029078,0.9276931 -1.289063,1.5625 -0.259981,0.636402 -0.322876,1.349992 -0.177734,2.021484 0.145145,0.669897 0.496864,1.295103 0.996094,1.765625 -0.253603,-0.417888 -0.385091,-0.91268 -0.369141,-1.402343 0.01436,-0.489662 0.175954,-0.97342 0.455078,-1.376954 0.279121,-0.401937 0.677883,-0.719277 1.130859,-0.904296 0.452979,-0.185018 0.959718,-0.2370408 1.441407,-0.144532 0.516029,0.09756 0.994185,0.479061 1.359375,0.916016 h 5.939453 L 21.554688,10.042828 C 21.293109,9.4494902 20.859778,8.9329508 20.322266,8.5740778 19.78316,8.2152045 19.139754,8.01262 18.492188,7.999859 Z M 8.2246094,9.2264215 C 7.439873,10.036678 6.9904303,11.161262 7,12.288921 c 0.00924,1.104247 0.4667297,2.191 1.234375,2.984376 L 8.1230469,15.23814 c -0.2121343,0.810256 -0.1469275,1.690556 0.1816406,2.460938 0.3301641,0.768786 0.9206003,1.421043 1.6542969,1.826172 0.5598426,0.309428 1.1982976,0.474609 1.8378906,0.474609 0.639592,0 1.278047,-0.165181 1.837891,-0.474609 -0.515186,0.04626 -1.039961,-0.03679 -1.513672,-0.244141 -0.473714,-0.205754 -0.89513,-0.535041 -1.210938,-0.943359 -0.363659,-0.472118 -0.588511,-1.051194 -0.634765,-1.644532 L 16.083984,17.689312 9.75,15.740093 C 9.317867,15.279819 9.0492306,14.667806 9,14.038921 c -0.046256,-0.612477 0.1142702,-1.236412 0.4492188,-1.75 L 16.1875,15.96275 Z M 19.431641,12.419781 c -0.357088,0.422163 -0.588975,0.946827 -0.664063,1.49414 -0.07009,0.517277 -1.09e-4,1.046855 0.136719,1.550782 0.136825,0.502262 0.338826,0.986515 0.539062,1.46875 0.200238,0.482237 0.399143,0.965106 0.529297,1.470703 0.128485,0.505598 0.188346,1.038791 0.101563,1.552734 -0.145173,0.861015 -0.694311,1.626076 -1.410157,2.125 -0.715848,0.498922 -1.589909,0.746004 -2.460937,0.802735 C 15.103491,22.956395 13.987834,22.73291 13,22.244 l 0.02539,5.125 1.28125,-2.548829 c 1.693667,0.495583 3.588107,0.251774 5.101562,-0.654296 0.764233,-0.457207 1.435126,-1.080327 1.902344,-1.837891 0.468888,-0.757563 0.727264,-1.649394 0.685547,-2.537109 -0.06009,-1.266497 -0.706824,-2.421038 -1.324219,-3.527344 -0.619062,-1.106307 -1.241659,-2.27871 -1.25,-3.546875 0,-0.09843 0.0031,-0.198426 0.0098,-0.296875 z"/>
 <path style="fill:#17191e" d="m 18.492188,7 c -0.685849,-0.014355 -1.375021,0.1844867 -1.949219,0.5625 -0.572601,0.376418 -1.029078,0.9276931 -1.289063,1.5625 -0.259981,0.6364022 -0.322876,1.349992 -0.177734,2.021484 0.145145,0.669897 0.496864,1.295103 0.996094,1.765625 -0.253603,-0.417888 -0.385091,-0.91268 -0.369141,-1.402343 0.01436,-0.489662 0.175954,-0.973421 0.455078,-1.376954 C 16.437324,9.7308748 16.836086,9.4135347 17.289062,9.2285156 17.742041,9.0434979 18.24878,8.9914752 18.730469,9.0839844 19.246498,9.1815481 19.724654,9.5630452 20.089844,10 H 26.029 L 21.554688,9.0429688 C 21.293109,8.4496312 20.859778,7.9330919 20.322266,7.5742188 19.78316,7.2153455 19.139754,7.012761 18.492188,7 Z"/>
 <path style="fill:#0192d3" d="M 16.187309,14.963003 8.2251042,8.2257541 C 7.4403678,9.0360104 6.99058,10.16048 7.0001497,11.28814 c 0.00957,1.14361 0.4928525,2.276055 1.3110846,3.075146 0.8182307,0.799091 1.9618407,1.25526 3.1054497,1.239309 C 10.788258,15.516466 10.19173,15.208632 9.7562975,14.746084 9.3208639,14.285132 9.0497154,13.671059 9.0002709,13.039442 8.9540149,12.426965 9.1151101,11.801728 9.4500587,11.28814 l 6.7372503,3.674863"/>
 <path style="fill:#0192d3" d="M 16.08463,16.688855 8.122425,14.238947 c -0.2121343,0.810256 -0.1467396,1.689097 0.1818285,2.459479 0.3301641,0.768786 0.9219063,1.422733 1.6556029,1.827862 C 10.519699,18.835716 11.157696,19 11.797289,19 c 0.639592,0 1.277588,-0.164284 1.837432,-0.473712 -0.515186,0.04626 -1.039938,-0.03828 -1.513649,-0.24563 -0.473714,-0.205754 -0.894792,-0.534322 -1.2106,-0.94264 -0.363659,-0.472118 -0.588553,-1.0511 -0.634807,-1.644438 l 5.808965,0.995275"/>
 <path style="fill:#0192d3" d="m 19.432611,11.419007 c -0.357088,0.422163 -0.590697,0.947785 -0.665785,1.495098 -0.07009,0.517277 0,1.046237 0.136828,1.550164 0.136825,0.502262 0.340401,0.986167 0.540637,1.468402 0.200238,0.482237 0.398805,0.966141 0.528959,1.471738 0.128485,0.505598 0.186885,1.037892 0.100102,1.551835 -0.145173,0.861015 -0.694152,1.62692 -1.409997,2.125844 C 17.947507,21.58101 17.074812,21.827969 16.203784,21.8847 15.10415,21.95647 13.987834,21.732855 13,21.243945 L 13.02503,26.37 14.306545,23.820323 c 1.693667,0.495583 3.587571,0.251962 5.101026,-0.654108 0.764233,-0.457207 1.435025,-1.079606 1.902243,-1.83717 0.468888,-0.757563 0.727529,-1.650282 0.685812,-2.537997 -0.06009,-1.266497 -0.705835,-2.421195 -1.32323,-3.527501 -0.619062,-1.106307 -1.241467,-2.279358 -1.249808,-3.547523 0,-0.09843 0.0032,-0.198568 0.0099,-0.297017"/>
 <path style="fill:#8b9cbe;opacity:0.2" d="M 16 2 A 14 14 0 0 0 2 16 A 14 14 0 0 0 2.0214844 16.585938 A 14 14 0 0 1 16 3 A 14 14 0 0 1 29.978516 16.414062 A 14 14 0 0 0 30 16 A 14 14 0 0 0 16 2 z"/>
</svg>
