<svg xmlns="http://www.w3.org/2000/svg" width="32" height="32" version="1">
 <path style="opacity:0.2;fill-rule:evenodd" d="m 28.895136,30.428 c 0,0 1.371,-2.490811 1.058559,-3.023554 -0.274674,-0.468298 -2.796178,-0.353554 -2.796178,-0.353554 0,0 2.134555,-2.588669 1.796483,-3.165061 C 28.621159,23.318372 25,22.999669 25,22.999669 c 0,0 3.952746,-1.321395 4.066,-1.971 0.118847,-0.680802 -3.540133,-3.141043 -3.540133,-3.141043 0,0 2.716987,-4.529482 2.462133,-5.133842 -0.319896,-0.758384 -4.187702,-0.75423 -4.187702,-0.75423 0,0 1.71278,-5.4862974 1.007404,-5.932885 -0.592662,-0.3750683 -7.156741,1.6609605 -7.156741,1.6609605 0,0 -1.966908,-4.7279604 -3.062093,-4.7279604 -1.102105,0 -3.430398,4.7348057 -3.430398,4.7348057 0,0 -3.965261,-3.136559 -4.6808794,-2.7298058 -0.632665,0.3595519 -0.3471812,5.496367 -0.3471812,5.496367 z"/>
 <path style="opacity:0.2" d="m 14.095703,10.193306 c -2.117119,0 -4.042361,0.127196 -5.6855468,0.509765 C 4.8219335,10.910585 2.015625,17.691406 2,18.689399 c 0.0026,1.621482 0.4201319,3.203748 1.1972656,4.537109 1.9408227,4.004273 6.0405745,6.767579 10.7890624,6.767579 2.21592,0 4.285409,-0.611937 6.066406,-1.660157 3.422992,1.215399 9.036532,3.111989 9.464844,2.5625 0.493912,-0.633718 -2.925666,-5.905124 -4.480469,-8.234375 0.603679,-1.431013 0.9375,-3.003607 0.9375,-4.654297 0,-6.620183 -5.258722,-7.814452 -11.878906,-7.814452 z"/>
 <path style="fill:#455a64;fill-rule:evenodd" d="m 28.895136,29.428331 c 0,0 1.371,-2.490811 1.058559,-3.023554 -0.274674,-0.468298 -2.796178,-0.353554 -2.796178,-0.353554 0,0 2.134555,-2.588669 1.796483,-3.165061 C 28.621159,22.318703 25,22 25,22 c 0,0 3.952746,-1.321395 4.066,-1.971 0.118847,-0.680802 -3.540133,-3.141043 -3.540133,-3.141043 0,0 2.716987,-4.529482 2.462133,-5.133842 -0.319896,-0.758384 -4.187702,-0.75423 -4.187702,-0.75423 0,0 1.71278,-5.4862974 1.007404,-5.932885 -0.592662,-0.3750683 -7.156741,1.6609605 -7.156741,1.6609605 0,0 -1.966908,-4.7279604 -3.062093,-4.7279604 -1.102105,0 -3.430398,4.7348057 -3.430398,4.7348057 0,0 -3.965261,-3.136559 -4.6808794,-2.7298058 -0.632665,0.3595519 -0.3471812,5.4963668 -0.3471812,5.4963668 z"/>
 <path style="fill:#8b9cbe;fill-rule:evenodd;opacity:0.1" d="M 14.589844 2 C 13.487739 2 11.158203 6.734375 11.158203 6.734375 C 11.158203 6.734375 7.194134 3.5991062 6.4785156 4.0058594 C 6.1101456 4.215209 6.059595 5.9908975 6.0761719 7.4824219 C 6.0990884 6.2931923 6.194664 5.1652229 6.4785156 5.0039062 C 7.194134 4.5971531 11.158203 7.734375 11.158203 7.734375 C 11.158203 7.734375 13.487739 3 14.589844 3 C 15.685029 3 17.650391 7.7285156 17.650391 7.7285156 C 17.650391 7.7285156 24.215932 5.691338 24.808594 6.0664062 C 24.867575 6.1037485 24.902106 6.1874008 24.929688 6.2890625 C 25.004552 5.6622699 24.994828 5.1843147 24.808594 5.0664062 C 24.215932 4.691338 17.650391 6.7285156 17.650391 6.7285156 C 17.650391 6.7285156 15.685029 2 14.589844 2 z M 24.091797 11.005859 C 23.926505 11.586649 23.800781 12 23.800781 12 C 23.800781 12 26.969028 11.99868 27.802734 12.5625 C 27.948562 12.186627 28.040055 11.876682 27.988281 11.753906 C 27.706579 11.086068 24.812019 11.01461 24.091797 11.005859 z M 25.931641 17.169922 C 25.824596 17.352074 25.525391 17.886719 25.525391 17.886719 C 25.525391 17.886719 27.805682 19.426384 28.697266 20.40625 C 28.895061 20.269112 29.047436 20.138106 29.066406 20.029297 C 29.164083 19.469763 26.809039 17.779708 25.931641 17.169922 z M 26.988281 22.257812 C 25.986578 22.669005 25 23 25 23 C 25 23 27.951506 23.264641 28.755859 23.736328 C 28.944022 23.365285 29.046843 23.046502 28.953125 22.886719 C 28.79516 22.617405 27.888963 22.407589 26.988281 22.257812 z M 27.912109 26.052734 C 27.520136 26.592727 27.158203 27.050781 27.158203 27.050781 C 27.158203 27.050781 29.309994 26.95724 29.839844 27.318359 C 29.969582 26.920656 30.047889 26.565878 29.953125 26.404297 C 29.758409 26.072321 28.666348 26.047294 27.912109 26.052734 z"/>
 <g>
  <path style="fill:#80cbc4" d="m 14.095703,9.1933594 c -2.117119,0 -4.042361,0.1271965 -5.6855468,0.5097656 C 4.8219335,9.9106394 2,17 2,17.689453 c 0.0026,1.621482 0.4201319,3.203748 1.1972656,4.537109 1.9408227,4.004272 6.0405744,6.767579 10.7890624,6.767579 6.620184,0 11.988281,-5.366145 11.988281,-11.986329 0,-6.620183 -5.258722,-7.8144526 -11.878906,-7.8144526 z"/>
  <path style="fill:#80cbc4;fill-rule:evenodd" d="m 24.237437,20.474579 c 0,0 5.912377,8.61138 5.280262,9.422421 -0.613835,0.787499 -12.111773,-3.51282 -12.111773,-3.51282 z"/>
 </g>
 <path style="fill:#009688;fill-rule:evenodd" d="M 13.986903,5.02108 C 7.3667191,5.02108 2,10.387799 2,17.007983 c 0,0.04511 0.00639,0.0886 0.00689,0.133586 C 2.006326,17.188831 2,17.234643 2,17.28204 c 0,0.631989 0.051069,1.252413 0.1473573,1.857806 0.030978,0.147039 0.081118,0.27237 0.1225683,0.407641 0.5844494,1.907354 2.1070729,2.674469 2.1070729,2.674469 0.3693952,0.298407 0.8290925,0.602682 1.3592685,0.903424 H 5.692198 c 0,0 1.1120566,5.924859 3.150969,5.87462 1.54206,-0.03801 2.752124,-3.061633 4.712682,-3 1.958857,0.06159 2.753793,2.979642 4.703041,3 1.125732,0.01176 2.123138,-1.429075 2.74111,-3 h 0.564104 c 1.85338,1.725253 6.06663,3.346414 7.892258,3.941725 0.02495,-0.01303 0.04529,-0.02757 0.05922,-0.04545 0.446863,-0.573257 -2.70506,-5.782186 -4.450704,-8.317465 0.582275,-1.409419 0.90893,-2.95109 0.90893,-4.570828 0,-6.620184 -5.366719,-11.986903 -11.986903,-11.986903 z"/>
 <circle style="opacity:0.2" cx="8.5" cy="14.5" r="1.5"/>
 <circle style="fill:#8b9cbe" cx="8.5" cy="13.5" r="1.5"/>
 <path style="fill:#8b9cbe;fill-rule:evenodd;opacity:0.1" d="M 13.986328 5.0214844 C 7.3661442 5.0214844 2 10.387628 2 17.007812 C 2 17.052923 2.0073125 17.095639 2.0078125 17.140625 C 2.0072485 17.187887 2 17.233853 2 17.28125 C 2 17.419203 2.0108192 17.554592 2.015625 17.691406 C 2.1850839 11.218999 7.4730401 6.0214844 13.986328 6.0214844 C 20.438236 6.0214844 25.685915 11.12255 25.949219 17.509766 C 25.956291 17.342044 25.974609 17.177305 25.974609 17.007812 C 25.974609 10.387629 20.606512 5.0214844 13.986328 5.0214844 z M 25.296875 21.933594 C 25.221607 22.14962 25.151341 22.367809 25.064453 22.578125 C 26.424714 24.553695 28.616506 28.126577 29.316406 29.890625 C 29.355142 29.903463 29.4202 29.929396 29.457031 29.941406 C 29.481981 29.928376 29.501695 29.914364 29.515625 29.896484 C 29.945138 29.345485 27.072452 24.559403 25.296875 21.933594 z"/>
</svg>
