<svg width="32" height="32" version="1.1" xmlns="http://www.w3.org/2000/svg">
 <rect x="2" y="3" width="28" height="28" rx="2" ry="2" style="opacity:.2"/>
 <rect x="2" y="2" width="28" height="28" rx="2" ry="2" style="fill:#aeea66"/>
 <path d="m29.597656 2.8046875-13.597656 27.195312h12c1.108 0 2-0.892 2-2v-24c0-0.4510038-0.152353-0.8614741-0.402344-1.1953125z" style="fill:#3195d2"/>
 <path d="M 2.4023438 2.8046875 C 2.1523531 3.1385259 2 3.5489962 2 4 L 2 28 C 2 29.108 2.892 30 4 30 L 16 30 L 2.4023438 2.8046875 z " style="fill:#f8d057"/>
 <path d="m4 2c-1.108 0-2 0.892-2 2v1c0-1.108 0.892-2 2-2h24c1.108 0 2 0.892 2 2v-1c0-1.108-0.892-2-2-2h-24z" style="fill:#8b9cbe;opacity:.2"/>
 <path d="m 2.453125,3.7441411 c -0.01659,0.020416 -0.035,0.039471 -0.05078,0.060547 L 16,31 29.597656,3.804688 c -0.01578,-0.021076 -0.0342,-0.040131 -0.05078,-0.060547 L 16,26 Z" style="opacity:.2"/>
 <path d="M 2.453125 2.7441406 C 2.4365392 2.7645566 2.4181264 2.7836113 2.4023438 2.8046875 L 16 30 L 29.597656 2.8046875 C 29.581874 2.7836113 29.563461 2.7645566 29.546875 2.7441406 L 16 25 L 2.453125 2.7441406 z " style="fill:#8b9cbe"/>
</svg>
