<svg xmlns="http://www.w3.org/2000/svg" width="32" height="32" version="1.1">
 <path style="opacity:0.2;fill-rule:evenodd" d="M 30,17 C 30,24.732298 23.731658,31 16,31 8.267702,31 2,24.731658 2,17 2,9.267702 8.2683418,3 16,3 23.732298,3 30,9.2683418 30,17"/>
 <path style="fill:#6790eb;fill-rule:evenodd" d="M 30,16 C 30,23.732298 23.731658,30 16,30 8.267702,30 2,23.731658 2,16 2,8.267702 8.2683418,2 16,2 23.732298,2 30,8.2683418 30,16"/>
 <path style="opacity:0.2" d="m 6.6468128,23.976474 c 0,-0.06179 8.9644902,-17.1143764 9.2650102,-17.624236 L 16.119433,6 16.346186,6.3978721 c 0.124715,0.2188243 1.038681,1.9585736 2.031029,3.8660999 0.992352,1.907532 2.993415,5.742729 4.446802,8.522659 2.039431,3.90087 2.614405,5.072244 2.519317,5.132503 -0.06777,0.04293 -0.884435,0.0787 -1.814813,0.07949 L 21.83692,24 21.338057,23.494155 C 20.086493,22.225084 17.898975,21.135567 15.4543,20.460542 l -1.095227,-0.302414 1.369036,-0.06867 c 1.286098,-0.0645 2.76727,-0.02102 3.560494,0.105824 0.265126,0.0424 0.348794,0.02502 0.348794,-0.07241 0,-0.240734 -3.386326,-6.436304 -3.518029,-6.436304 -0.09598,0 -0.773473,1.18093 -3.403449,5.932504 -1.291973,2.334212 -2.35617,4.252675 -2.364888,4.263254 -0.03894,0.04725 -3.7042182,0.140402 -3.7042182,0.09414 z"/>
 <path style="fill:#8b9cbe" d="m 6.6468128,22.976474 c 0,-0.06179 8.9644902,-17.1143764 9.2650102,-17.624236 L 16.119433,5 16.346186,5.3978721 c 0.124715,0.2188243 1.038681,1.9585736 2.031029,3.8661 0.992352,1.9075319 2.993415,5.7427289 4.446802,8.5226589 2.039431,3.90087 2.614405,5.072244 2.519317,5.132503 -0.06777,0.04293 -0.884435,0.0787 -1.814813,0.07949 L 21.83692,23 21.338057,22.494155 C 20.086493,21.225084 17.898975,20.135567 15.4543,19.460542 l -1.095227,-0.302414 1.369036,-0.06867 c 1.286098,-0.0645 2.76727,-0.02102 3.560494,0.105824 0.265126,0.0424 0.348794,0.02502 0.348794,-0.07241 0,-0.240734 -3.386326,-6.436304 -3.518029,-6.436304 -0.09598,0 -0.773473,1.18093 -3.403449,5.932504 -1.291973,2.334212 -2.35617,4.252675 -2.364888,4.263254 -0.03894,0.04725 -3.7042182,0.140402 -3.7042182,0.09414 z"/>
 <path style="fill:#8b9cbe;fill-rule:evenodd;opacity:0.2" d="M 16 2 C 8.2683418 2 2 8.267702 2 16 C 2 16.16877 2.0194677 16.332674 2.0253906 16.5 C 2.2908338 9.0012686 8.4371118 3 16 3 C 23.563514 3 29.709193 9.0018407 29.974609 16.5 C 29.980533 16.332662 30 16.168784 30 16 C 30 8.2683418 23.732298 2 16 2 z"/>
</svg>
