<svg width="32" height="32" version="1.1" xmlns="http://www.w3.org/2000/svg">
 <circle cx="16" cy="20" r="11" style="opacity:.2"/>
 <circle cx="16" cy="19" r="11" style="fill:#b2bfd9"/>
 <path d="M 16 8 A 11 11 0 0 0 5 19 A 11 11 0 0 0 5.0214844 19.585938 A 11 11 0 0 1 16 9 A 11 11 0 0 1 26.978516 19.414062 A 11 11 0 0 0 27 19 A 11 11 0 0 0 16 8 z " style="fill:#8b9cbe;opacity:.1"/>
 <path d="m17 3s1 1.6 1 3c0 2.1512267-1.97275 3.0904242-3.4 4.7-2.1 2.368268-2.1 4.9-2.8 4.9-1.4 0-1.8-1.6-1.8-1.6s-0.200993 1.548759 0.4 2.3c2.8 3.5 0.6 3.7 0.6 3.7s-2.4363331 0.923352-2.4363331-1.552061c0-1.4 0.4363331-1.885881 0.4363331-2.847939 0-0.7-1-1.6-1-1.6s0.3 0.9 0.3 1.6-1.3 0.9-1.3 4.4c0 2.1 2.7 2.6 3.4 3.3 0.521749 0.521749 0.7 2.1-0.7 2.1-0.5217492 0-0.7-0.7-0.7-1.4v-1s-0.9864624 1.059419-1 2c-0.0403 2.80002 5 4.57603 5 4.57603s-0.5-2.07603-0.5-3.47603c0-2.8 1.519849-2.240423 1.519849-4.2 0-2.8-0.819849-3.5-0.819849-3.5s1.812506 1.4 1.849341 3.5c0.02133 1.215962-1.249725 2.321532-0.949341 3.5 0.163009 0.639519 0.5 1.6 1.2 1.6 1.4 0 1.50731-0.865488 1.669-1.6 0.281049-1.276714-0.966483-2.092721-0.969379-3.4-0.0012-0.521748 1.026758-1.4 1.026758-1.4s-0.326758 0.7-0.326758 1.4c0 1.494062 2.100379 1.683584 2.100379 3.4 0 1.618319-2.471913 2.4-2.434961 3.8 0.0069 0.258628 0.0823 0.644343 0.334961 0.7 3.177734 0.7 7.3-3.1 7.3-6.6s-2.495879-5.3-2.495879-5.3 2.195879-1 2.195879-3.1c0-1.4-0.574928-2.224786-1.7-5.6-0.7-2.1 1-3.3 1-3.3s-2 0.6726661-2 2.6c0 2.8 0.247266 2.8 0.247266 4.9 0 0.841295-0.347266 2.1-1.047266 2.1-0.488929 0-0.489624-0.7-0.565129-1.4-0.052433-0.48611 0.365129-1.2 0.365129-1.2s-1.000442 0.5-1.000871 1.9c-1.43e-4 0.466667 0.500871 1.4-0.899129 1.4s-2.1-0.7-2.1-2.1c0-1.565248 2.1-4.2 2.1-4.2s1.9-2.0242705 1.9-3.5c0-1.4-3-3.5-3-3.5zm3 15s1.6 1.1 1.6 3.2c0 0.659966-0.7 1.4-1.4 1.4-1.013378 0-2.2-0.758705-2.2-1.6 0-1.4 1.369001-2 2-2 0.36207-0.7 0-1 0-1z" style="opacity:.1"/>
 <path d="m17 2s1 1.6 1 3c0 2.1512267-1.97275 3.0904242-3.4 4.7-2.1 2.368268-2.1 4.9-2.8 4.9-1.4 0-1.8-1.6-1.8-1.6s-0.200993 1.548759 0.4 2.3c2.8 3.5 0.6 3.7 0.6 3.7s-2.4363331 0.923352-2.4363331-1.552061c0-1.4 0.4363331-1.885881 0.4363331-2.847939 0-0.7-1-1.6-1-1.6s0.3 0.9 0.3 1.6-1.3 0.9-1.3 4.4c0 2.1 2.7 2.6 3.4 3.3 0.521749 0.521749 0.7 2.1-0.7 2.1-0.5217492 0-0.7-0.7-0.7-1.4v-1s-0.9864624 1.059419-1 2c-0.0403 2.80002 5 4.57603 5 4.57603s-0.5-2.07603-0.5-3.47603c0-2.8 1.519849-2.240423 1.519849-4.2 0-2.8-0.819849-3.5-0.819849-3.5s1.812506 1.4 1.849341 3.5c0.02133 1.215962-1.249725 2.321532-0.949341 3.5 0.163009 0.639519 0.5 1.6 1.2 1.6 1.4 0 1.50731-0.865488 1.669-1.6 0.281049-1.276714-0.966483-2.092721-0.969379-3.4-0.0012-0.521748 1.026758-1.4 1.026758-1.4s-0.326758 0.7-0.326758 1.4c0 1.494062 2.100379 1.683584 2.100379 3.4 0 1.618319-2.471913 2.4-2.434961 3.8 0.0069 0.258628 0.0823 0.644343 0.334961 0.7 3.177734 0.7 7.3-3.1 7.3-6.6s-2.495879-5.3-2.495879-5.3 2.195879-1 2.195879-3.1c0-1.4-0.574928-2.224786-1.7-5.6-0.7-2.1 1-3.3 1-3.3s-2 0.6726661-2 2.6c0 2.8 0.247266 2.8 0.247266 4.9 0 0.841295-0.347266 2.1-1.047266 2.1-0.488929 0-0.489624-0.7-0.565129-1.4-0.052433-0.48611 0.365129-1.2 0.365129-1.2s-1.000442 0.5-1.000871 1.9c-1.43e-4 0.466667 0.500871 1.4-0.899129 1.4s-2.1-0.7-2.1-2.1c0-1.565248 2.1-4.2 2.1-4.2s1.9-2.0242705 1.9-3.5c0-1.4-3-3.5-3-3.5zm3 15s1.6 1.1 1.6 3.2c0 0.659966-0.7 1.4-1.4 1.4-1.013378 0-2.2-0.758705-2.2-1.6 0-1.4 1.369001-2 2-2 0.36207-0.7 0-1 0-1z" style="fill:#f34235"/>
</svg>
