<svg xmlns="http://www.w3.org/2000/svg" width="32" height="32" version="1.1">
 <rect style="opacity:0.2" width="28" height="28" x="2" y="3" rx="1.4" ry="1.4"/>
 <rect style="fill:#ffd017" width="28" height="28" x="2" y="2" rx="1.4" ry="1.4"/>
 <path style="opacity:0.1" d="m 16.322005,25.034556 c -0.355443,0.07086 -0.959664,0.355393 -1.351253,0.533312 -0.07086,0.03571 -0.07086,0.142265 0,0.142265 0.107057,0.03571 0.178462,0.07092 0.248878,0.142266 0.178413,0.213177 0.39154,0.391095 0.39154,0.675625 0,0.319691 -0.177919,0.426304 -0.142266,0.710786 0.106613,0.569062 0.568568,1.556394 0.568568,2.161158 -0.03521,0.461956 -0.461955,0.461956 -0.710833,0.78214 -0.07136,0.106613 -0.107009,0.213176 -0.107009,0.355441 0,0.142266 -0.03521,0.391096 0.107009,0.391096 0.177474,0.03566 0.213175,-0.31974 0.391095,-0.31974 C 15.966562,30.644115 15.931404,31 16.144531,31 h 9.35047 c -0.03566,-0.107057 -0.106563,-0.248829 -0.177424,-0.284532 -0.4625,-0.426747 -1.635733,-0.995809 -1.84891,-1.670941 -0.355887,-1.031464 0.106563,-2.34652 0.248828,-3.484595 0.497659,-3.306182 0.320234,-5.119883 -0.284481,-7.857496 C 23.11278,16.138056 22.863952,14.751645 22.401995,13.22297 22.330588,12.938439 21.93999,12.547343 21.79728,12.298514 21.690667,12.120595 21.584103,11.800363 21.548451,11.587236 21.299622,10.413951 21.406631,9.2763692 20.553086,8.2805595 20.232902,7.9251675 19.62868,7.8894653 19.237586,7.6406361 18.491098,7.2495412 17.744562,6.858447 16.997581,6.3964908 16.891017,6.3250864 16.570833,6.2185231 16.393359,6.3250864 c 0.85305,0.604765 1.422113,1.3155497 1.670942,2.3822702 0.106564,0.4976584 0.248829,0.8887533 -0.248829,1.1732353 -0.142265,0.071397 -1.066959,0.7656231 -1.493706,1.7966421 -0.106564,0.213127 -0.710835,1.600031 -1.422114,2.915582 -0.853052,-0.46245 -1.706644,-0.49766 -2.310866,-0.49766 -0.639924,0 -1.487364,0.07086 -2.020725,0.461957 -1.137088,0.853544 -1.6352401,1.955473 -1.9906328,3.200111 -0.2845307,0.959663 -0.4620049,1.955475 -0.5333599,2.950791 -0.071353,1.351202 0.071594,2.753975 0.2134149,4.105227 0.1070085,0.888753 0.213127,1.742501 0.2844827,2.631253 0.1774735,0.959664 0.142265,1.706644 0.1065635,1.884069 -0.3196912,0.995811 -0.8173489,1.351252 -1.7775059,1.52917 -0.1422664,0 -0.2136214,0.07092 -0.1779184,0.142266 h 2.6667521 v 0 h 2.9803388 c 0.284038,0 0.355393,-0.142266 0.639924,-0.391095 0.391094,-0.391094 -0.142266,-1.06672 0,-1.955473 0.320184,-2.204747 1.279608,-4.10543 1.741565,-6.238822 0.07141,-0.248829 0.107056,-0.569014 0.14276,-0.924407 0.177472,0.853546 0.426541,1.380421 0.675369,2.198264 0.24883,0.853049 0.497658,1.09726 0.889248,1.310387 v 0 c -0.03571,0 -0.07141,0 -0.107057,0.03571 z"/>
 <path style="fill:#17191e" d="m 16.322005,24.034556 c -0.355443,0.07086 -0.959664,0.355393 -1.351253,0.533312 -0.07086,0.03571 -0.07086,0.142265 0,0.142265 0.107057,0.03571 0.178462,0.07092 0.248878,0.142266 0.178413,0.213177 0.39154,0.391095 0.39154,0.675625 0,0.319691 -0.177919,0.426304 -0.142266,0.710786 0.106613,0.569062 0.568568,1.556394 0.568568,2.161158 -0.03521,0.461956 -0.461955,0.461956 -0.710833,0.78214 -0.07136,0.106613 -0.107009,0.213176 -0.107009,0.355441 0,0.142266 -0.03521,0.391096 0.107009,0.391096 0.177474,0.03566 0.213175,-0.31974 0.391095,-0.31974 C 15.966562,29.644115 15.931404,30 16.144531,30 h 9.35047 c -0.03566,-0.107057 -0.106563,-0.248829 -0.177424,-0.284532 -0.4625,-0.426747 -1.635733,-0.995809 -1.84891,-1.670941 -0.355887,-1.031464 0.106563,-2.34652 0.248828,-3.484595 0.497659,-3.306182 0.320234,-5.119883 -0.284481,-7.857496 C 23.11278,15.138056 22.863952,13.751645 22.401995,12.22297 22.330588,11.938439 21.93999,11.547343 21.79728,11.298514 21.690667,11.120595 21.584103,10.800363 21.548451,10.587236 21.299622,9.4139514 21.406631,8.2763692 20.553086,7.2805595 20.232902,6.9251675 19.62868,6.8894653 19.237586,6.6406361 18.491098,6.2495412 17.744562,5.858447 16.997581,5.3964908 16.891017,5.3250864 16.570833,5.2185231 16.393359,5.3250864 c 0.85305,0.604765 1.422113,1.3155497 1.670942,2.3822702 0.106564,0.4976584 0.248829,0.8887533 -0.248829,1.1732353 -0.142265,0.071397 -1.066959,0.7656232 -1.493706,1.7966421 -0.106564,0.213127 -0.710835,1.600031 -1.422114,2.915582 -0.853052,-0.46245 -1.706644,-0.49766 -2.310866,-0.49766 -0.639924,0 -1.487364,0.07086 -2.020725,0.461957 -1.137088,0.853544 -1.6352401,1.955473 -1.9906328,3.200111 -0.2845307,0.959663 -0.4620049,1.955475 -0.5333599,2.950791 -0.071353,1.351202 0.071594,2.753975 0.2134149,4.105227 0.1070085,0.888753 0.213127,1.742501 0.2844827,2.631253 0.1774735,0.959664 0.142265,1.706644 0.1065635,1.884069 -0.3196912,0.995811 -0.8173489,1.351252 -1.7775059,1.52917 -0.1422664,0 -0.2136214,0.07092 -0.1779184,0.142266 h 2.6667521 v 0 h 2.9803388 c 0.284038,0 0.355393,-0.142266 0.639924,-0.391095 0.391094,-0.391094 -0.142266,-1.06672 0,-1.955473 0.320184,-2.204747 1.279608,-4.10543 1.741565,-6.238822 0.07141,-0.248829 0.107056,-0.569014 0.14276,-0.924407 0.177472,0.853546 0.426541,1.380421 0.675369,2.198264 0.24883,0.853049 0.497658,1.09726 0.889248,1.310387 v 0 c -0.03571,0 -0.07141,0 -0.107057,0.03571 z"/>
 <path style="fill:#8b9cbe" d="m 16.341793,24.349572 c -0.08834,-8e-6 -0.179415,0.01312 -0.268386,0.03976 -0.213183,0.03571 -0.284764,0.320666 -0.142004,0.462932 0,0 0.106298,0.07086 0.142004,0.106503 v 0.071 c -0.09567,0.096 -0.429656,0.08305 -0.621976,0.09656 0.09,0.117277 0.159044,0.242703 0.159044,0.40187 0,0.319691 -0.177658,0.425535 -0.142004,0.710018 0.106613,0.569062 0.569434,1.556637 0.569434,2.161401 -0.0018,0.0225 -0.0092,0.03924 -0.01278,0.05964 0.129958,0.120111 0.419507,0.177476 0.474292,0.259866 0.106565,0.142265 -0.07057,0.391668 0.0355,0.533934 0.03571,0.107056 0.179009,0.141714 0.249927,0.106502 0.177918,-0.0357 0.248243,-0.248506 0.390509,-0.248506 0.248829,-0.03521 0.569465,-0.03547 0.746939,0.142004 0.07136,0.0357 0.106504,-2.9e-4 0.106504,-0.0355 0.03521,-0.142266 -0.533583,-0.284429 -0.604937,-0.853442 -0.07136,-0.462005 -0.03483,-1.16531 -0.355009,-1.662968 -0.07091,-0.07141 -0.177357,-0.07094 -0.213005,-0.177504 0,-0.142266 0.106504,-0.320959 0.106504,-0.498433 0,-0.07136 -0.03515,-0.213295 -0.106504,-0.248507 -0.106613,-0.03569 -0.249712,0.0355 -0.391929,0.0355 -0.213177,0 -0.46125,-9.9e-5 -0.603516,-0.071 -0.03565,-0.03566 -0.03585,-0.0708 0.0355,-0.106503 0.141772,-0.0357 0.496891,0.142618 0.710019,-0.071 0.248878,-0.213175 0.427489,-0.568909 0.320925,-0.85344 -0.08029,-0.240138 -0.320039,-0.360665 -0.585054,-0.360689 z"/>
 <path style="fill:#ff5811" d="m 16.819663,5.5030536 c 0.604715,0.3201849 1.351202,1.4577659 1.742295,2.062038 0.17797,0.2488285 0.426798,0.035655 0.319741,-0.1774742 C 18.277922,6.5340726 17.566642,5.8232385 16.819663,5.5030536 v 0 m -3.128758,9.4403384 c 0.462005,0.107057 0.881693,0.278876 1.023464,0.705624 0.142759,0.426795 0.614004,0.675624 0.436037,1.91977 0,0 -0.03521,0.142266 0,0 0.03521,-0.31969 -0.03521,0.142216 0,0 0.03566,-0.213175 0.391592,0.288823 0.462453,0.395385 -0.142266,-0.426798 -0.179607,-1.426404 0.353711,-1.390702 0.28453,0.03571 0.248878,0.24883 0.711328,0.355393 0.141771,0.03571 0.461955,-0.07086 0.533359,-0.31969 0.177425,-0.533361 0,-0.99581 -0.426797,-1.351203 -0.249322,-0.21367 -0.569012,-0.320234 -0.888753,-0.106613 -0.07136,0.07092 -0.177967,0.284038 -0.177967,0.391095 0.07091,0.462004 -0.177918,0.319739 -0.355392,0 -0.248829,-0.391095 -1.173729,-0.66992 -1.671436,-0.59906 v 0 m 3.057846,6.465431 c 0.213621,-0.675627 -0.03521,-1.670943 -0.177918,-2.417924 -0.07092,-0.248828 0.248829,-0.319689 0.320183,-0.07086 0.213178,0.995317 0.177475,1.742297 -0.142265,2.488785 v 0 M 17.922037,8.8097262 c -0.07136,0.035211 -0.355394,0.2488292 -0.533361,0.3553927 0.391095,0.070917 0.924455,0.3553923 1.173283,0.8178908 0.177969,0.3910953 0.31974,0.9596153 0.391096,1.3507103 0,-0.248829 -0.03571,-1.3507103 0.07136,-1.4929749 0.177474,-0.2136201 0.533361,-0.035709 0.782189,0.070857 0.177475,0.071407 0.284531,0.2845309 0.462005,0.3910949 0.17792,0.0714 0.355887,0.106564 0.533312,0.03571 0.177474,-0.03571 0.355886,-0.177968 0.426796,-0.3553933 0.106564,-0.3202339 -0.21362,-1.6000805 -0.924455,-1.3155498 -0.284481,0.1065635 -0.320183,0.5333606 -0.569012,0.7464874 -0.141772,0.1065629 -0.284531,0.1422656 -0.462005,0.1065629 -0.177919,0 -0.39154,-0.1065629 -0.569014,-0.2488295 -0.248832,-0.177424 -0.49766,-0.3910941 -0.78219,-0.4619561 z"/>
 <path style="fill:#231f20" d="m 16.393359,24.786349 c 0.106563,0 0.248829,0.142265 0.213127,0.177967 -0.07136,0.07092 -0.106564,-0.03571 -0.248829,-0.03571 -0.106565,0 -0.213126,0.03571 -0.213126,-0.03566 0,-0.07092 0.106561,-0.106613 0.248828,-0.106613 z"/>
 <path style="fill:#8b9cbe" d="m 17.641602,8.9938676 c -0.316784,0.216675 -0.972403,0.8446049 -1.319628,1.6834994 -0.106563,0.213126 -0.710729,1.600223 -1.422008,2.915773 0.177968,0.106562 0.462369,0.31967 0.604141,0.426679 0.817891,0.639924 1.209011,0.710414 1.706719,1.243774 0.213126,0.320185 0.604054,1.457766 0.710618,1.635733 0.177474,0.497659 0.249304,0.995335 0.14274,1.492993 -0.106563,0.53336 -0.462931,0.995612 -0.640404,1.493766 -0.107058,0.284036 -0.177376,0.782064 -0.283939,1.101805 -0.106564,0.320183 -0.106792,0.533383 -0.28471,0.817866 -0.141822,0.142265 -0.320012,0.036 -0.212955,-0.14197 0.106564,-0.213127 0.142267,-0.782466 0,-1.173561 -0.177917,-0.53336 -0.427154,-1.102319 -0.569421,-1.422007 -0.177472,-0.320234 -0.497528,-1.102269 -0.604139,-1.422008 -0.355394,-0.924455 -0.14197,-2.702819 -1.777704,-2.702819 -0.604222,0.07141 -1.280415,0.178116 -1.706719,0.604913 -0.53336,0.461956 -0.746499,0.960231 -0.995328,1.706718 -0.21362,0.639924 -0.106878,1.066406 -0.178233,1.457499 -0.10607,0.959615 0.107056,1.280541 0,2.240648 -0.10607,0.995315 -0.284298,1.13111 -0.497425,1.877598 -0.141772,0.426747 -0.284167,1.053487 -0.5686498,1.409373 -0.1061188,0.142266 -0.4262594,0.248904 -0.4976638,0.07098 -0.3196905,-0.675625 -0.1426096,-1.936146 -0.2139645,-2.54086 -0.071354,-0.142266 -0.1419698,-0.106615 -0.1419698,0 -0.070859,0.355885 2.98e-5,1.687667 0.035728,2.149673 0.1065643,0.675626 0.4268277,1.315852 0.5686491,1.991428 0.1779185,0.78219 0.9956368,2.914995 0.6758988,3.590127 -0.09196,0.152875 -0.2358006,0.387991 -0.38733,0.498436 h 2.556219 c 0.07101,0 0.128698,-0.009 0.179776,-0.02624 0.0015,-4.74e-4 0.0024,-0.0018 0.0039,-0.0023 0.08442,-0.04453 0.169024,-0.106905 0.253847,-0.179777 0.0401,-0.03709 0.0827,-0.07335 0.133483,-0.120365 0.04496,-0.04491 0.08945,-0.09258 0.133482,-0.14197 0.259994,-0.399956 -0.19786,-1.044528 -0.06481,-1.875692 0.320184,-2.204747 1.280015,-4.105616 1.74197,-6.239009 0.07141,-0.248828 0.10704,-0.568951 0.142742,-0.924343 0.177474,0.853543 0.426536,1.380729 0.675364,2.198571 0.218168,0.830936 0.451507,1.006951 0.889158,1.310071 1.273937,-0.01565 0.82882,1.829212 1.066779,2.636508 0.177475,0.497658 0.603401,1.089188 0.746112,1.586846 0.213175,0.639923 0.106982,1.066233 -0.07099,1.670454 h 1.280039 c 1.173778,-0.106563 2.382319,-1.706729 2.524585,-2.702046 0.07091,-0.355393 -0.03532,-1.77695 -0.213726,-2.097134 -0.319739,-0.533361 -0.782201,-0.889105 -0.995329,-1.244547 -0.675132,-0.960107 -0.4265,-2.524227 -0.14197,-3.590898 0.24883,-0.995316 0.852873,-2.310859 0.888082,-2.310859 0.07135,-0.106564 -0.106108,-0.214023 -0.177463,-0.07176 -0.284531,0.320183 -0.640108,1.315414 -0.782374,1.742211 -0.177424,0.53336 -0.319505,1.137866 -0.390416,1.671226 -0.106563,0.817842 0.141655,1.706694 -0.03626,2.524585 -0.03521,0.177918 -0.319462,0.355009 -0.462173,0.248447 -1.172791,-0.924455 -1.421448,-2.808136 -1.385744,-4.19504 0.03521,-1.422114 0.638966,-2.737484 0.852587,-4.159548 0.07092,-0.320233 -0.248731,-0.60416 -0.283939,-0.924344 -0.07092,-0.426797 -0.03528,-0.569562 -0.07099,-0.960608 0,-0.248877 0.177461,-0.817483 0.177461,-1.066312 0.03571,-0.604715 -0.03571,-1.244257 0,-1.88418 -0.137183,-1.1698562 -0.36405,-1.3223369 -1.311673,-1.8780082 z"/>
 <path style="fill:#8b9cbe;opacity:0.2" d="M 3.4003906 2 C 2.6247906 2 2 2.6247906 2 3.4003906 L 2 4.4003906 C 2 3.6247906 2.6247906 3 3.4003906 3 L 28.599609 3 C 29.375209 3 30 3.6247906 30 4.4003906 L 30 3.4003906 C 30 2.6247906 29.375209 2 28.599609 2 L 3.4003906 2 z"/>
</svg>
