<svg xmlns="http://www.w3.org/2000/svg" width="32" height="32" version="1">
 <circle style="opacity:0.2" cx="16" cy="17" r="14"/>
 <circle style="fill:#cccccc" cx="16" cy="16" r="14"/>
 <path style="opacity:0.1;fill-rule:evenodd" d="M 24.5,11 C 23.119604,11 22,12.119599 22,13.5 22,14.880371 23.119604,16 24.5,16 25.880397,16 27,14.880371 27,13.5 27,12.11961 25.880397,11 24.5,11 Z M 9,12 c -2.7607621,0 -5,2.238964 -5,5 0,2.761038 2.2392379,5 5,5 2.760762,0 5,-2.238962 5,-5 0,-2.761036 -2.239238,-5 -5,-5 z m 1,3 c 1.104037,1.1e-5 2,0.896002 2,2 0,1.104009 -0.895963,2 -2,2 -1.1040375,0 -2,-0.895991 -2,-2 0,-1.103998 0.8959625,-2 2,-2 z m 12.466797,2 c -0.06222,0 -0.120392,0.01188 -0.175781,0.03125 l -7.052735,2 c -0.01385,0.0034 -0.02568,0.0073 -0.03906,0.01172 h -0.002 l -0.0039,0.002 h -0.002 c -0.203358,0.07007 -0.349609,0.258457 -0.349609,0.480469 0,0.211242 0.13238,0.393243 0.320312,0.470703 0.0012,5.46e-4 0.0027,-5.37e-4 0.0039,0 l 4.339843,2.382812 v 0.01758 c 0,0.732661 -0.333698,1.397428 -0.875,1.88086 -0.551532,0.492587 -1.317433,0.796875 -2.166015,0.796875 -0.535233,0 -1.049087,-0.119545 -1.496094,-0.341797 -0.436759,-0.217167 -0.812889,-0.53212 -1.087891,-0.921875 -0.0037,-0.0059 -0.0077,-0.01187 -0.01172,-0.01758 -0.08547,-0.122813 -0.230754,-0.203125 -0.394532,-0.203125 -0.262202,0 -0.474609,0.205892 -0.474609,0.460937 0,0.102517 0.0356,0.196786 0.09375,0.273438 0.364164,0.518921 0.864126,0.937588 1.445312,1.226562 C 15.121937,25.840607 15.783011,26 16.464844,26 c 1.09333,0 2.085317,-0.398746 2.80664,-1.042969 0.524158,-0.46812 0.906204,-1.064898 1.080078,-1.734375 0.707872,0.570561 1.639906,0.914063 2.65625,0.914063 1.093328,0 2.087271,-0.396805 2.808594,-1.041016 C 26.548019,22.442334 27,21.536809 27,20.535156 c 0,-0.0424 -0.001,-0.09418 -0.0039,-0.15039 5.4e-5,-0.0029 0,-0.0048 0,-0.0078 0,-0.255045 -0.212408,-0.46289 -0.47461,-0.462891 -0.262204,0 -0.474609,0.207846 -0.474609,0.462891 0,0.0041 -1.02e-4,0.0077 0,0.01172 2.24e-4,0.0072 0.0014,0.01436 0.002,0.02148 0.0015,0.03384 0.002,0.07445 0.002,0.125 0,0.732661 -0.335651,1.397429 -0.876953,1.88086 -0.551544,0.492589 -1.317422,0.796875 -2.166016,0.796875 -0.814499,0 -1.554147,-0.281226 -2.101562,-0.742188 -0.112899,-0.09507 -0.21716,-0.197128 -0.3125,-0.306641 l 2.326172,-4.398437 c 0.045,-0.07526 0.07227,-0.162554 0.07227,-0.255859 C 22.992188,17.228114 22.75635,17 22.466797,17 Z"/>
 <path style="opacity:0.2;fill:#8b9cbe" d="M 16 2 A 14 14 0 0 0 2 16 A 14 14 0 0 0 2.0214844 16.585938 A 14 14 0 0 1 16 3 A 14 14 0 0 1 29.978516 16.414062 A 14 14 0 0 0 30 16 A 14 14 0 0 0 16 2 z"/>
 <path style="opacity:0.2;fill-rule:evenodd" d="m 8.4804688,4.000172 c -0.8151382,-0.00383 -1.5612531,0.1230588 -2.203125,0.3046875 -1.2749376,0.360768 -2.106186,0.9096215 -2.25,1.0957031 -0.021127,0.027553 -0.047737,0.051853 -0.078125,0.072266 C 3.5143373,5.766517 3.288126,6.7253555 3.1855469,7.8771251 3.0612331,9.2729219 2.9312155,10.441574 3.0410156,11.609547 c 3.608e-4,0.0037 0.00158,0.008 0.00195,0.01172 0.00343,0.05318 0.00963,0.120607 0.013672,0.177734 0.5741901,-0.637501 1.283662,-0.971581 1.859375,-1.429687 C 6.8359994,8.8415474 8.3052196,9.1878981 9.8671875,9.6798595 10.869538,9.9955433 11.74516,10.272589 12.369141,9.8243908 12.725208,9.5685974 12.901847,9.1872313 12.9375,8.7404064 12.97148,8.314709 12.88428,8.0294883 12.703125,7.531422 12.517198,7.020257 12.231921,6.4975587 11.880859,6.0060314 11.030717,4.8157586 10.204466,4.1159066 9.0546875,4.0236095 8.8596568,4.0079565 8.6685776,4.0010399 8.4804688,4.000172 Z m 15.3632812,0 c -0.09584,-2.283e-4 -0.190831,0.00133 -0.285156,0.00195 -0.702606,0.00463 -1.359712,0.033369 -1.910156,0.080078 h -0.0059 c -0.08169,0.011111 -0.169186,0.0258 -0.253906,0.037109 2.676301,0.9397904 3.06785,3.1573582 4.162109,5.0273438 0.707838,1.1477816 0.729726,1.9756386 1.607422,1.8398436 0.397788,-0.06154 0.723984,-0.25727 0.984375,-0.539062 0.382917,-0.414378 0.629079,-1.0167316 0.75586,-1.6757816 0.130297,-0.677313 0.131019,-1.40718 0.02148,-2.0585938 C 28.800261,6.0010991 28.554772,5.3971056 28.207031,5.0919689 27.548408,4.646362 26.633747,4.1892104 25.003906,4.0743908 24.31814,4.0260717 24.5146,4.0018436 23.84375,4.000172 Z"/>
 <path style="fill:#b2bfd9;fill-rule:evenodd" d="m 23.8433,3.0000341 c -0.09584,-2.283e-4 -0.190902,6.864e-4 -0.285227,0.00131 -0.702606,0.00463 -1.358793,0.033275 -1.909238,0.079984 l -0.0055,0.00131 c -0.08169,0.011111 -0.169118,0.02541 -0.253838,0.036719 2.676301,0.9397904 3.067602,3.1564346 4.161861,5.0264202 0.707838,1.1477816 0.728289,1.9754287 1.605985,1.8396343 C 27.555131,9.9238746 27.882277,9.7296057 28.142668,9.447813 28.525585,9.0334354 28.77194,8.4298191 28.898721,7.7707691 29.029018,7.0934561 29.030086,6.3635758 28.920551,5.712162 28.80089,5.0001985 28.554594,4.3966344 28.206853,4.0914977 27.54823,3.6458908 26.634344,3.1882819 25.004503,3.0734622 24.318737,3.0251431 24.51415,3.0017057 23.8433,3.0000341 Z"/>
 <path id="path2488_4" style="fill:#b2bfd9;fill-rule:evenodd" d="M 8.480544,3.0000891 C 7.6654058,2.9962561 6.9197246,3.1222658 6.2778526,3.3038945 5.0029151,3.6646625 4.17095,4.2143812 4.027136,4.4004628 4.0060087,4.4280154 3.9796449,4.4517635 3.9492566,4.4721765 3.5143751,4.7658653 3.2886169,5.7247729 3.1860378,6.8765425 3.061724,8.2723393 2.9315009,9.4412002 3.041301,10.609173 c 3.608e-4,0.0037 9.311e-4,0.008 0.0013,0.01173 0.00343,0.05318 0.010235,0.121505 0.014277,0.178632 C 3.6310681,10.162034 4.3405487,9.8267062 4.9162617,9.3686002 6.8362455,7.840835 8.3061581,8.1886056 9.868126,8.680567 10.870477,8.9962508 11.745374,9.2721918 12.369355,8.8239937 12.725422,8.5682003 12.902221,8.1872897 12.937874,7.7404648 12.971854,7.3147674 12.884094,7.0294956 12.702939,6.5314293 12.517012,6.0202643 12.232369,5.4974102 11.881307,5.0058829 11.031165,3.8156101 10.205332,3.1158561 9.0555536,3.023559 8.8605229,3.007906 8.6686528,3.000957 8.480544,3.0000891 Z"/>
 <path style="fill:#17191e;fill-rule:evenodd" d="M 24.500033,10 C 23.119637,10 22,11.119602 22,12.500003 22,13.880374 23.119637,15 24.500033,15 25.88043,15 27.000055,13.880374 27.000055,12.500003 27.000055,11.119613 25.88043,10 24.500033,10 Z"/>
 <path style="fill:#17191e;fill-rule:evenodd" d="M 9 11 C 6.2392379 11 4 13.238964 4 16 C 4 18.761038 6.2392379 21 9 21 C 11.760762 21 14 18.761038 14 16 C 14 13.238964 11.760762 11 9 11 z M 10 14 C 11.104037 14.000011 12 14.896002 12 16 C 12 17.104009 11.104037 18 10 18 C 8.8959625 18 8 17.104009 8 16 C 8 14.896002 8.8959625 14 10 14 z"/>
 <path id="path2488_5" style="fill:#17191e;fill-rule:evenodd" d="m 22.467242,16.000021 c -0.06222,0 -0.121728,0.01143 -0.177117,0.0308 l -7.050943,1.99999 c -0.01385,0.0034 -0.02719,0.0071 -0.04057,0.01154 l -0.002,9.69e-4 -0.004,9.7e-4 -9.8e-4,9.69e-4 c -0.203358,0.07007 -0.349286,0.258255 -0.349286,0.480267 0,0.211242 0.131668,0.392222 0.3196,0.469682 0.0012,5.46e-4 0.0028,4.32e-4 0.004,9.69e-4 l 4.339804,2.382084 v 0.01829 c 0,0.732661 -0.334378,1.398175 -0.87568,1.881607 -0.551532,0.492587 -1.317362,0.796916 -2.165944,0.796916 -0.535233,0 -1.048082,-0.121341 -1.495089,-0.343593 -0.436759,-0.217167 -0.813411,-0.531318 -1.088413,-0.921073 -0.0037,-0.0059 -0.0079,-0.01162 -0.01187,-0.01733 C 13.783284,22.670265 13.638729,22.58904 13.474951,22.58904 13.212749,22.58904 13,22.795971 13,23.051016 c 0,0.102517 0.03487,0.196684 0.09302,0.273336 0.364164,0.518921 0.864425,0.937203 1.445612,1.226177 C 15.121506,24.840355 15.782278,25 16.464111,25 c 1.09333,0 2.086785,-0.399086 2.808108,-1.043309 0.524158,-0.46812 0.904646,-1.064871 1.078521,-1.734348 0.707871,0.570561 1.64136,0.9153 2.657704,0.9153 1.093328,0 2.086784,-0.398137 2.808107,-1.042348 0.731613,-0.653369 1.18343,-1.558488 1.18343,-2.560141 0,-0.0424 -0.0011,-0.09393 -0.004,-0.15014 5.4e-5,-0.0029 0,-0.0057 0,-0.0087 0,-0.255045 -0.21275,-0.461977 -0.474952,-0.461977 -0.262204,0 -0.47494,0.206932 -0.47494,0.461977 0,0.0041 -1.02e-4,0.0085 0,0.0125 2.24e-4,0.0072 0.0014,0.01406 0.002,0.02118 0.0015,0.03384 0.002,0.07457 0.002,0.125116 0,0.732661 -0.334375,1.398175 -0.875677,1.881606 -0.551544,0.492589 -1.317352,0.796916 -2.165946,0.796916 -0.814499,0 -1.555199,-0.281094 -2.102614,-0.742056 -0.112899,-0.09507 -0.217337,-0.197513 -0.312677,-0.307026 l 2.327231,-4.398431 c 0.045,-0.07526 0.07124,-0.162713 0.07124,-0.256018 0,-0.281652 -0.234862,-0.510103 -0.524415,-0.510103 v 0 z"/>
 <path style="fill:#8b9cbe;fill-rule:evenodd;opacity:0.2" d="M 8.4804688 3 C 7.6653305 2.996167 6.9192156 3.1230588 6.2773438 3.3046875 C 5.0024062 3.6654555 4.1711577 4.214309 4.0273438 4.4003906 C 4.0062165 4.4279432 3.9796071 4.4522433 3.9492188 4.4726562 C 3.5143373 4.766345 3.288126 5.7251835 3.1855469 6.8769531 C 3.0789823 8.0734609 2.9778683 9.102086 3.0175781 10.107422 C 3.0458994 9.4093714 3.1137705 8.6828591 3.1855469 7.8769531 C 3.288126 6.7251835 3.5143372 5.7663447 3.9492188 5.4726562 C 3.9796067 5.4522432 4.0062168 5.4279436 4.0273438 5.4003906 C 4.1711577 5.214309 5.0024062 4.6654555 6.2773438 4.3046875 C 6.9192157 4.1230588 7.6653306 3.99617 8.4804688 4 C 8.6685775 4.0008679 8.8596568 4.0077845 9.0546875 4.0234375 C 10.204466 4.1157346 11.030717 4.8155866 11.880859 6.0058594 C 12.231921 6.4973867 12.517198 7.020085 12.703125 7.53125 C 12.782191 7.7486327 12.833993 7.9163637 12.875 8.0820312 C 12.905335 7.9732382 12.927984 7.8594973 12.9375 7.7402344 C 12.97148 7.314537 12.88428 7.0293163 12.703125 6.53125 C 12.517198 6.020085 12.231921 5.4973867 11.880859 5.0058594 C 11.030717 3.8155866 10.204466 3.1157346 9.0546875 3.0234375 C 8.8596568 3.0077845 8.6685775 3.0008679 8.4804688 3 z M 23.84375 3 C 23.74791 2.9997717 23.652919 3.0013295 23.558594 3.0019531 C 22.855988 3.0065831 22.198881 3.0353223 21.648438 3.0820312 L 21.642578 3.0820312 C 21.560888 3.0931423 21.473392 3.1078316 21.388672 3.1191406 C 22.04874 3.3509254 22.56721 3.6625394 22.994141 4.0253906 C 23.192234 4.0199706 23.350976 4.0033213 23.558594 4.0019531 C 23.652919 4.0013331 23.74791 3.9997717 23.84375 4 C 24.5146 4.0016716 24.31814 4.0258997 25.003906 4.0742188 C 26.633747 4.1890383 27.548408 4.64619 28.207031 5.0917969 C 28.554772 5.3969336 28.800305 6.0009307 28.919922 6.7128906 C 28.944896 6.8614079 28.943749 7.0226136 28.957031 7.1777344 C 28.998333 6.6801452 28.998158 6.1781693 28.919922 5.7128906 C 28.800261 5.0009271 28.554772 4.3969336 28.207031 4.0917969 C 27.548408 3.64619 26.633747 3.1890383 25.003906 3.0742188 C 24.31814 3.0258996 24.5146 3.0016716 23.84375 3 z"/>
</svg>
