<svg xmlns="http://www.w3.org/2000/svg" width="32" height="32" version="1.1">
 <path style="opacity:0.2" d="m 16.282315,6 c -0.907604,0 -1.177318,1.1414485 -2.281161,1.1414485 -1.054783,0 -1.840628,-0.8560865 -2.821821,-0.8560863 -0.956665,0 -1.5687323,0.6176018 -2.0348021,1.9019838 0,0 -1.3250945,3.615129 -1.4968036,4.138397 -0.024532,0.09514 -0.6131257,1.308428 -0.5886007,1.403568 C 4.4344321,13.848235 1,14.323672 1,17.249207 1,22.053745 12.749771,28 22.071112,28 29.209295,28 31,24.861389 31,22.41155 31,20.437409 29.257896,18.249312 26.118075,16.917361 L 25.774503,15.489259 24.597301,10.542552 C 24.327472,9.4484493 24.107302,8.9489286 22.120383,7.9975346 20.599535,7.2364215 17.26351,6 16.282315,6 Z"/>
 <path style="fill:#e73232" d="m 16.282315,5 c -0.907604,0 -1.177318,1.1414485 -2.281161,1.1414485 -1.054783,0 -1.840628,-0.8560865 -2.821821,-0.8560863 -0.956665,0 -1.5687323,0.6176018 -2.0348021,1.9019838 0,0 -1.3250945,3.615129 -1.4968036,4.138397 -0.024532,0.09514 -0.6131257,1.308428 -0.5886007,1.403568 C 4.4344321,12.848235 1,13.323672 1,16.249207 1,21.053745 12.749771,27 22.071112,27 29.209295,27 31,23.861389 31,21.41155 31,19.437409 29.257896,17.249312 26.118075,15.917361 L 25.774503,14.489259 24.597301,9.542552 C 24.327472,8.4484493 24.107302,7.9489286 22.120383,6.9975346 20.599535,6.2364215 17.26351,5 16.282315,5 Z"/>
 <path style="fill:#8b9cbe;opacity:0.2" d="M 16.283203 5 C 15.375599 5 15.105796 6.140625 14.001953 6.140625 C 12.94717 6.140625 12.16088 5.285156 11.179688 5.2851562 C 10.223023 5.2851562 9.610601 5.903118 9.1445312 7.1875 C 9.1445312 7.1875 7.8201466 10.802904 7.6484375 11.326172 C 7.6239055 11.421312 7.0340688 12.633376 7.0585938 12.728516 C 4.4338993 12.84744 1 13.324465 1 16.25 C 1 16.408464 1.0140078 16.567822 1.0390625 16.728516 C 1.4259924 14.26528 4.5979427 13.840007 7.0585938 13.728516 C 7.0340688 13.633376 7.6239055 12.421312 7.6484375 12.326172 C 7.8201466 11.802904 9.1445312 8.1875 9.1445312 8.1875 C 9.610601 6.903118 10.223023 6.2851562 11.179688 6.2851562 C 12.16088 6.2851561 12.94717 7.140625 14.001953 7.140625 C 15.105796 7.140625 15.375599 6 16.283203 6 C 17.264398 6 20.600246 7.2369338 22.121094 7.9980469 C 24.108013 8.9494409 24.327827 9.448866 24.597656 10.542969 L 25.775391 15.490234 L 26.117188 16.917969 C 29.006984 18.143856 30.695873 20.093491 30.949219 21.935547 C 30.967633 21.760286 31 21.582021 31 21.412109 C 31 19.437968 29.257009 17.24992 26.117188 15.917969 L 25.775391 14.490234 L 24.597656 9.5429688 C 24.327827 8.448866 24.108013 7.9494409 22.121094 6.9980469 C 20.600246 6.2369338 17.264398 5 16.283203 5 z"/>
 <path style="opacity:0.1" d="m 26.14953,17.083129 c 0.269828,1.271191 0.269828,1.391114 0.269828,1.559008 C 26.419358,20.800763 23.910875,22 20.648406,22 13.289452,22 6.7452653,17.778686 6.7452653,14.996457 c 0,-0.383756 0.07359,-0.767512 0.245299,-1.127283 l 0.5887159,-1.391115 c -0.024532,0.09594 -0.049057,0.191878 -0.024532,0.287817 0,1.4151 5.7837618,6.068139 13.4616028,6.068139 1.962388,0 4.863349,-0.407741 4.863349,-2.686291 0,-0.167893 0,-0.359771 -0.04906,-0.527664 z"/>
 <path style="fill:#17191e" d="m 26.14953,16.083129 c 0.269828,1.271191 0.269828,1.391114 0.269828,1.559008 C 26.419358,19.800763 23.910875,21 20.648406,21 13.289452,21 6.7452653,16.778686 6.7452653,13.996457 c 0,-0.383756 0.07359,-0.767512 0.245299,-1.127283 l 0.5887159,-1.391115 c -0.024532,0.09594 -0.049057,0.191878 -0.024532,0.287817 0,1.4151 5.7837618,6.068139 13.4616028,6.068139 1.962388,0 4.863349,-0.407741 4.863349,-2.686291 0,-0.167893 0,-0.359771 -0.04906,-0.527664 z"/>
</svg>
