<svg xmlns="http://www.w3.org/2000/svg" width="32" height="32" version="1.1">
 <circle style="opacity:0.2" cx="16.5" cy="16.5" r="14.5"/>
 <circle style="fill:#404552" cx="16.5" cy="15.5" r="14.5"/>
 <path style="opacity:0.2" d="m 19.115234,5.0001868 c -0.251431,0.00334 -0.51272,0.028133 -0.824218,0.089844 -0.566826,0.1123013 -1.158949,0.4550429 -1.658204,0.8027343 -1.69505,1.1804902 -2.14126,3.4877143 -1.001953,5.1542971 0.953049,1.394126 2.733351,1.881118 4.28711,1.347656 0.327983,-0.112608 0.460534,-0.123316 0.714843,-0.144531 0.327914,-0.02736 0.855107,0.0128 1.328126,0.246094 0.384834,0.189802 0.714231,0.355894 0.927734,0.796875 0.05557,0.114788 0.152811,0.318648 0.173828,0.576172 0.03339,0.410511 -0.04861,0.609737 -0.320312,1.130859 0.432002,-0.348404 0.639841,-0.405568 1.28125,-1.185547 1.276778,-1.552595 1.343886,-4.1472301 -0.04688,-6.1816407 -1.030944,-1.508079 -2.610049,-2.471194 -4.097656,-2.5957031 -0.272032,-0.022769 -0.512242,-0.040451 -0.763672,-0.037109 z M 10.111328,10.00214 c -1.7530067,0.03999 -3.5810594,1.24769 -4.4921874,3.228516 -0.7718922,1.678124 -0.8100875,3.565433 -0.1777344,4.947265 0.2312711,0.505379 0.4197327,0.891128 0.8339844,1.38086 0.3769094,0.445573 0.9601863,0.796109 1.5039063,1.0625 1.8456766,0.904256 4.0313921,0.133015 4.8847651,-1.720703 v -0.002 c 0.712802,-1.551073 0.246384,-3.377595 -0.978515,-4.484376 -0.258629,-0.233688 -0.334241,-0.343903 -0.478516,-0.558593 -0.186033,-0.276827 -0.414967,-0.765195 -0.451172,-1.302735 -0.02946,-0.43733 -0.05257,-0.813834 0.216797,-1.226562 0.07012,-0.107435 0.195542,-0.296184 0.404297,-0.445313 0.332822,-0.237629 0.5427,-0.267803 1.121094,-0.291015 -0.510949,-0.206488 -0.660372,-0.359852 -1.642578,-0.533204 -0.244393,-0.04314 -0.493712,-0.060397 -0.744141,-0.05469 z m 11.279297,7.998047 c -0.123917,-0.0029 -0.248825,0.0035 -0.375,0.01367 v -0.002 c -1.688775,0.135988 -3.011293,1.44354 -3.333984,3.0625 -0.06812,0.341746 -0.124311,0.463241 -0.234375,0.695312 -0.141916,0.299239 -0.443816,0.739306 -0.884766,1.035157 -0.358743,0.240694 -0.668444,0.445708 -1.158203,0.412109 -0.127483,-0.0087 -0.352282,-0.0268 -0.585938,-0.136719 C 14.445951,22.904963 14.314117,22.736547 14,22.240421 c 0.08357,0.549752 0.02731,0.756097 0.378906,1.703125 0.699864,1.88513 2.91257,3.235554 5.376953,3.03711 1.826813,-0.147104 3.459218,-1.041655 4.31836,-2.275391 0.314216,-0.451217 0.550066,-0.806066 0.757812,-1.410156 0.189007,-0.549631 0.189613,-1.233822 0.140625,-1.841797 -0.155943,-1.935169 -1.723272,-3.410486 -3.582031,-3.453125 z"/>
 <path style="fill:#8b9cbe" d="m 19.114345,4.0004065 c -0.251431,0.00334 -0.512342,0.027062 -0.82384,0.088773 -0.566826,0.1123014 -1.157607,0.455244 -1.656862,0.8029354 -1.695051,1.1804902 -2.142869,3.4875735 -1.003562,5.1541561 0.953049,1.394126 2.734667,1.882288 4.288426,1.348826 0.327983,-0.112608 0.459335,-0.124533 0.713644,-0.145748 0.327914,-0.02736 0.855882,0.01315 1.328901,0.246445 0.384834,0.189802 0.713972,0.355331 0.927475,0.796312 0.05557,0.114788 0.153459,0.31884 0.174476,0.576364 0.03339,0.410511 -0.04839,0.610408 -0.320091,1.13153 0.432002,-0.348404 0.638953,-0.405875 1.280362,-1.185854 1.276778,-1.552595 1.343531,-4.1466015 -0.04723,-6.1810121 -1.030945,-1.508079 -2.609285,-2.471119 -4.096892,-2.5956281 -0.272032,-0.022769 -0.513376,-0.040441 -0.764806,-0.037099 z"/>
 <path style="fill:#8b9cbe" d="M 10.112069,9.0010779 C 8.3590622,9.0410679 6.5293485,10.249772 5.6182205,12.230598 4.8463283,13.908722 4.80877,15.795773 5.4411231,17.177605 c 0.2312711,0.505379 0.4191481,0.892046 0.8333998,1.381778 0.3769094,0.445573 0.9616084,0.795792 1.5053284,1.062183 1.8456766,0.904256 4.0311317,0.132202 4.8845047,-1.721516 0,0 0,-0.0013 0,-0.0013 0.712802,-1.551072 0.245654,-3.378291 -0.979245,-4.485071 -0.258629,-0.233688 -0.333628,-0.34393 -0.477903,-0.55862 -0.186033,-0.276827 -0.414352,-0.765009 -0.450557,-1.302549 -0.02946,-0.43733 -0.0532,-0.813281 0.216163,-1.226009 0.07012,-0.107435 0.196225,-0.296694 0.40498,-0.4458231 0.332822,-0.237629 0.54279,-0.26684 1.121184,-0.290052 -0.510949,-0.206488 -0.661155,-0.361172 -1.643361,-0.534524 -0.244393,-0.04314 -0.493119,-0.06077 -0.743548,-0.05506 z"/>
 <path style="fill:#8b9cbe" d="m 21.391294,17.000859 c -0.123917,-0.0029 -0.248822,0.0017 -0.374997,0.01187 v -0.0014 c -1.688775,0.135988 -3.011211,1.444703 -3.333902,3.063663 -0.06812,0.341746 -0.124475,0.461938 -0.234539,0.694009 -0.141916,0.299239 -0.444202,0.739884 -0.885152,1.035734 -0.358743,0.240695 -0.668361,0.445253 -1.15812,0.411654 -0.127483,-0.0087 -0.353354,-0.02598 -0.58701,-0.135898 C 14.445166,21.905189 14.314117,21.736153 14,21.240027 c 0.08357,0.549752 0.02738,0.756328 0.378973,1.703356 0.699864,1.88513 2.91279,3.235719 5.377173,3.037275 1.826813,-0.147104 3.459292,-1.040921 4.318434,-2.274657 0.314216,-0.451217 0.548876,-0.806357 0.756622,-1.410447 0.189007,-0.549631 0.19077,-1.235237 0.141782,-1.843212 -0.155943,-1.935169 -1.722931,-3.408929 -3.58169,-3.451568 z"/>
 <path style="fill:#8b9cbe;opacity:0.1" d="M 16.5 1 A 14.5 14.5 0 0 0 2 15.5 A 14.5 14.5 0 0 0 2.0214844 16.080078 A 14.5 14.5 0 0 1 16.5 2 A 14.5 14.5 0 0 1 30.978516 15.919922 A 14.5 14.5 0 0 0 31 15.5 A 14.5 14.5 0 0 0 16.5 1 z"/>
</svg>
