<svg width="32" height="32" version="1.1" xmlns="http://www.w3.org/2000/svg">
 <circle cx="16" cy="17" r="14" style="opacity:.2"/>
 <circle cx="16" cy="16" r="14" style="fill:#4f4f4f"/>
 <path d="M 16,2 A 14,14 0 0 0 2,16 14,14 0 0 0 2.0215,16.586 14,14 0 0 1 16,3 14,14 0 0 1 29.979,16.414 14,14 0 0 0 30,16 14,14 0 0 0 16,2 Z" style="fill:#8b9cbe;opacity:.1"/>
 <path d="m13.15625 7.126953c-4.168646 1.4946103-7.1514172 5.444566-7.15625 9.873047 0 5.79899 3.9992188 11 10.699219 11 2.947954-0.0048 5.758495-1.748819 7.74414-3.927734-0.288158 0.104367-0.589427 0.205113-0.884765 0.3125 6.91e-4 -0.0021 0.0033-0.0037 0.0039-0.0059 0.06485-0.216219-0.413625-0.315015-0.453125-0.501953-0.151841-0.718638-0.133246-1.468803 0.04687-2.185547 0.135708-0.540015 0.805871-0.894366 0.806641-1.451172 0.0011-0.811918-0.263672-1.52539-0.263672-1.52539s0.542768-0.200578 0.798828-0.345703c0.261636-0.148284 0.481416-0.474163 0.478515-0.84961-0.0017-0.217684-0.266522-0.37936-0.402343-0.603515-0.113036-0.186551-0.116492-0.434505-0.251953-0.605469-0.115682-0.146-0.542969-0.361328-0.542969-0.361328s-0.228099-0.965681-0.654297-0.931641c-0.173991 0.0139-0.125 0.90625-0.125 0.90625s-0.926338 0.583591-0.982422 1.457031c-0.02396 0.373149-0.31267 0.476395-0.628906 0.742188-0.316237 0.265794-0.658831 0.694029-1.00586 0.792969-2.53653 0.723154-2.699701 1.980955-2.763671 3.408203-0.01982 0.44229 0.226562 1.308593 0.226562 1.308593s-1.226847-1.121353-1.273437-1.925781c-0.0471-0.813384 0.536079-1.822145 0.443359-2.626953-0.05442-0.472347-0.616269-1.347413-0.949219-0.99414-0.243727 0.258603 0.436073 0.63169 0.470703 1.11914 0.02337 0.328953-0.648917 1.565251-0.542968 2.552734 0.07739 0.721327 0.561035 1.766137 0.876953 2.416016-3.94121-1.649527-6.871083-5.58106-6.871083-9.974569 0.0047-2.618709 1.387705-5.1409691 3.15625-7.072266zm8.568359 15.818359c0.155216 0.01513 0.305719 0.08289 0.324219 0.208985 0.06168 0.420507 0.292198 1.283158 0.378906 1.603515-0.321729 0.08793-0.645328 0.14811-0.970703 0.1875-0.07434-0.336437-0.295503-1.40198-0.08398-1.892578 0.03706-0.08596 0.196347-0.122556 0.351562-0.107422z" style="opacity:.2"/>
 <path d="m13.15625 6.1269531c-4.168646 1.4946103-7.1514172 5.4445659-7.15625 9.8730469 0 5.79899 3.9992188 11 10.699219 11 2.947954-0.0048 5.758495-1.748819 7.74414-3.927734-0.288158 0.104367-0.589427 0.205113-0.884765 0.3125 6.91e-4 -0.002122 0.003267-0.003729 0.003906-0.00586 0.064852-0.216219-0.413625-0.315015-0.453125-0.501953-0.151841-0.718638-0.133246-1.468803 0.046875-2.185547 0.135708-0.540015 0.805871-0.894366 0.806641-1.451172 0.00112-0.811918-0.263672-1.52539-0.263672-1.52539s0.542768-0.200578 0.798828-0.345703c0.261636-0.148284 0.481416-0.474163 0.478515-0.84961-0.001699-0.217684-0.266522-0.37936-0.402343-0.603515-0.113036-0.186551-0.116492-0.434505-0.251953-0.605469-0.115682-0.146-0.542969-0.361328-0.542969-0.361328s-0.228099-0.965681-0.654297-0.931641c-0.173991 0.013898-0.125 0.90625-0.125 0.90625s-0.926338 0.583591-0.982422 1.457031c-0.023959 0.373149-0.31267 0.476395-0.628906 0.742188-0.316237 0.265794-0.658831 0.694029-1.00586 0.792969-2.53653 0.723154-2.699701 1.980955-2.763671 3.408203-0.019825 0.44229 0.226562 1.308593 0.226562 1.308593s-1.226847-1.121353-1.273437-1.925781c-0.047101-0.813384 0.536079-1.822145 0.443359-2.626953-0.054419-0.472347-0.616269-1.347413-0.949219-0.99414-0.243727 0.258603 0.436073 0.63169 0.470703 1.11914 0.023368 0.328953-0.648917 1.565251-0.542968 2.552734 0.077393 0.721327 0.561035 1.766137 0.876953 2.416016-3.941221-1.649567-6.871094-5.5811-6.871094-9.974609 0.0047-2.618709 1.387705-5.140969 3.15625-7.0722659zm8.568359 15.818359c0.155216 0.015135 0.305719 0.082888 0.324219 0.208985 0.061681 0.420507 0.292198 1.283158 0.378906 1.603515-0.321729 0.087935-0.645328 0.14811-0.970703 0.1875-0.074337-0.336437-0.295503-1.40198-0.083984-1.892578 0.037062-0.085963 0.196347-0.122556 0.351562-0.107422z" style="fill:#8b9cbe"/>
</svg>
