<svg width="32" height="32" version="1.1" xmlns="http://www.w3.org/2000/svg">
 <path d="m12.815439 22.470836 6.838557-12.227684 8.731472 6.216537-11.390468 9.515906z" style="opacity:.2"/>
 <circle cx="15.5" cy="23.5" r="4.5" style="opacity:.2"/>
 <circle cx="5.5" cy="15.5" r="4.5" style="opacity:.2"/>
 <path d="m12.815439 21.470836 6.838557-12.227684 8.731472 6.2165369-11.390468 9.515906z" style="fill:#2d1c84"/>
 <circle cx="24" cy="13" r="7" style="opacity:.2"/>
 <circle cx="24" cy="12" r="7" style="fill:#9d2acd"/>
 <circle cx="15.5" cy="22.5" r="4.5" style="fill:#9d2acd"/>
 <circle cx="5.5" cy="14.5" r="4.5" style="fill:#9d2acd"/>
 <path d="M 15.5,18 A 4.5,4.5 0 0 0 11,22.5 4.5,4.5 0 0 0 11.0332,22.988281 4.5,4.5 0 0 1 15.5,19 4.5,4.5 0 0 1 19.966797,23.011719 4.5,4.5 0 0 0 20,22.5 4.5,4.5 0 0 0 15.5,18 Z" style="fill:#8b9cbe;opacity:.2"/>
 <path d="m5.5 15.499663 10 8" style="fill:none;opacity:.2;stroke-linecap:round;stroke-width:5;stroke:#000000"/>
 <path d="m5.5 14.5 10 8" style="fill:none;stroke-linecap:round;stroke-width:5;stroke:#e5acf3"/>
 <circle cx="24" cy="13" r="4" style="opacity:.2"/>
 <circle cx="24" cy="12" r="4" style="fill:#e5acf3"/>
 <path d="m 24,5 a 7,7 0 0 0 -7,7 7,7 0 0 0 0.02344,0.541016 A 7,7 0 0 1 24,6 7,7 0 0 1 30.976562,12.458984 7,7 0 0 0 31,12 7,7 0 0 0 24,5 Z" style="fill:#8b9cbe;opacity:.2"/>
 <path d="M 5.5,10 A 4.5,4.5 0 0 0 1,14.5 4.5,4.5 0 0 0 1.0332031,14.988281 4.5,4.5 0 0 1 5.5,11 4.5,4.5 0 0 1 9.9667969,15.011719 4.5,4.5 0 0 0 10,14.5 4.5,4.5 0 0 0 5.5,10 Z" style="fill:#8b9cbe;opacity:.2"/>
 <path d="m 24,8 a 4,4 0 0 0 -4,4 4,4 0 0 0 0.03516,0.494141 A 4,4 0 0 1 24,9 4,4 0 0 1 27.964844,12.505859 4,4 0 0 0 28,12 4,4 0 0 0 24,8 Z" style="fill:#8b9cbe;opacity:.2"/>
 <path d="m5.4453125 11.978516a2.50025 2.50025 0 0 0-2.4199219 3 2.50025 2.50025 0 0 1 2.4199219-2 2.50025 2.50025 0 0 1 1.6171875 0.568359l10 8a2.5012204 2.5012204 0 0 1 0.884766 1.455078 2.5012204 2.5012204 0 0 0-0.884766-2.455078l-10-8a2.50025 2.50025 0 0 0-1.6171875-0.568359z" style="fill:#8b9cbe;opacity:.2"/>
</svg>
