<svg xmlns="http://www.w3.org/2000/svg" width="32" height="32" version="1">
 <rect style="opacity:0.2" width="23" height="28" x="-28" y="-30" rx="1.437" ry="1.4" transform="matrix(0,-1,-1,0,0,0)"/>
 <rect style="fill:#c52f2f" width="23" height="28" x="-27" y="-30" rx="1.437" ry="1.4" transform="matrix(0,-1,-1,0,0,0)"/>
 <circle style="opacity:0.2" cx="25.5" cy="10.5" r="1.5"/>
 <path style="opacity:0.2" d="m 2,17 0,8.562499 c 0,0.796375 0.6244,1.4375 1.4,1.4375 l 25.2,0 c 0.7756,0 1.4,-0.641125 1.4,-1.4375 l 0,-3.783265 C 21.410125,18.660605 8.9739586,17.052178 2,17 Z"/>
 <path style="opacity:0.2" d="m 24.003987,14 c 0,2.209138 -1.823422,4 -4.072727,4 -0.580527,0 -1.132685,-0.119292 -1.63245,-0.334278 -1.436616,-0.617997 -0.66635,-1.719288 -0.66635,-3.358266 0,-0.767597 -1.553784,-1.792149 -1.172122,-2.401168 C 17.177098,10.762555 18.463507,10 19.93126,10 c 2.249305,0 4.072727,1.790862 4.072727,4 z"/>
 <path style="fill:#ff783e" d="m 24.003987,13 c 0,2.209138 -1.823422,4 -4.072727,4 -0.580527,0 -1.132685,-0.119292 -1.63245,-0.334278 -1.436616,-0.617997 -0.66635,-1.719288 -0.66635,-3.358266 0,-0.767597 -1.553784,-1.792149 -1.172122,-2.401168 C 17.177098,9.762555 18.463507,9 19.93126,9 c 2.249305,0 4.072727,1.790862 4.072727,4 z"/>
 <circle style="fill:#ffba46" cx="25.5" cy="9.5" r="1.5"/>
 <path style="opacity:0.2" d="M 5.6818182,9.0000032 C 5.3040909,9.0000032 5,9.304094 5,9.6818212 L 5,23.318182 C 5,23.695909 5.3040909,24 5.6818182,24 l 1.1692118,0 0.1944245,0 5.6489695,0 c 0.0151,0 0.02788,-0.01012 0.04261,-0.01199 C 16.781669,23.86012 19.995552,20.546655 20,16.500002 19.997464,12.446286 16.774326,9.1281934 12.72239,9.0079934 12.71259,9.0071827 12.70435,9 12.69442,9 L 7.0454505,9 6.851026,9 Z M 8,12 12.299637,12 C 14.935541,12 17.000001,13.864098 17,16.500002 17,19.135906 14.935541,21 12.299637,21 L 8,21 Z"/>
 <path style="fill:#8b9cbe" d="M 5.6818182,8.0000032 C 5.3040909,8.0000032 5,8.304094 5,8.6818212 L 5,22.318182 C 5,22.695909 5.3040909,23 5.6818182,23 l 1.1692118,0 0.1944245,0 5.6489695,0 c 0.0151,0 0.02788,-0.01012 0.04261,-0.01199 C 16.781669,22.86012 19.995552,19.546655 20,15.500002 19.997464,11.446286 16.774326,8.1281934 12.72239,8.0079934 12.71259,8.0071827 12.70435,8 12.69442,8 L 7.0454505,8 6.851026,8 Z M 8,11 12.299637,11 C 14.935541,11 17.000001,12.864098 17,15.500002 17,18.135906 14.935541,20 12.299637,20 L 8,20 Z"/>
 <path style="fill:#8b9cbe;opacity:0.2" d="M 3.4003906 4 C 2.6247906 4 2 4.6411251 2 5.4375 L 2 6.4375 C 2 5.6411251 2.6247906 5 3.4003906 5 L 28.599609 5 C 29.375209 5 30 5.6411251 30 6.4375 L 30 5.4375 C 30 4.6411251 29.375209 4 28.599609 4 L 3.4003906 4 z"/>
</svg>
