<svg width="32" height="32" version="1.1" xmlns="http://www.w3.org/2000/svg">
 <circle cx="16" cy="17" r="14" style="opacity:.2"/>
 <circle cx="16" cy="16" r="14" style="fill:#ff8dcb"/>
 <circle cx="16" cy="17" r="10" style="opacity:.2"/>
 <circle cx="16" cy="16" r="10" style="fill:#fdcfea"/>
 <path d="M 16,2 A 14,14 0 0 0 2,16 14,14 0 0 0 2.0215,16.586 14,14 0 0 1 16,3 14,14 0 0 1 29.979,16.414 14,14 0 0 0 30,16 14,14 0 0 0 16,2 Z" style="fill:#8b9cbe;opacity:.2"/>
 <path d="m 12,11 c -2.376729,0 -4,1.752082 -4,4 0,1.169675 1.164652,2.257591 2,3 l 6,6 6.742058,-5.958332 C 24,17 24,16.170001 24,15 24,12.752083 22.376728,11 20,11 18.433777,11 17,12 16.107305,12.963 15,12 13.566222,11 12,11 Z" style="opacity:.2"/>
 <path d="m 12,10 c -2.376729,0 -4,1.752082 -4,4 0,1.169675 1.1646524,2.257591 2,3 l 6,6 6.742058,-5.958332 C 24,16 24,15.170001 24,14 24,11.752083 22.376728,10 20,10 18.433777,10 17,11 16.107305,11.963 15,11 13.566222,10 12,10 Z" style="fill:#03adee"/>
 <path d="m12 11c-1.563698 6.33e-4 -3 1.606766-3 3 0 0.726952 0.467043 1.529457 1 2l6 6 6-6c0.533067-0.470279 1-1.272849 1-2 0-1.393612-1.435688-3-3-3-1.032684 0-2.992868 1.328303-3.468896 2.071267l-0.531104 0.828371-0.531073-0.828375c-0.476816-0.743068-2.43681-2.07084-3.468927-2.071263z" style="fill:none;opacity:.3;stroke-dasharray:0.6355385, 0.31776925;stroke-width:.31776926;stroke:#000000"/>
 <path d="M 16 6 A 10 10 0 0 0 6 16 A 10 10 0 0 0 6.0214844 16.585938 A 10 10 0 0 1 16 7 A 10 10 0 0 1 25.978516 16.414062 A 10 10 0 0 0 26 16 A 10 10 0 0 0 16 6 z " style="fill:#8b9cbe;opacity:.2"/>
</svg>
