<svg xmlns="http://www.w3.org/2000/svg" width="32" height="32" version="1">
 <rect style="opacity:0.2" width="28" height="28" x="2" y="3" rx="1.4" ry="1.4"/>
 <rect style="fill:#4f4f4f" width="28" height="28" x="2" y="2" rx="1.4" ry="1.4"/>
 <path style="opacity:0.2" d="m 11.633093,11.999501 -0.316406,0.238281 -0.316406,0.236328 v 3.455079 2.455078 l 2.232422,2.414062 1.767578,-1.326172 -0.0039,-2.996094 -0.0039,-4 -0.310559,-0.238281 -0.314453,-0.238281 h -0.867188 z m 4.994141,0 -0.314453,0.238281 -0.310547,0.238281 -0.0039,4 -0.0039,2.996094 1.767578,1.326172 2.232422,-2.414062 V 15.929189 12.47411 l -0.316419,-0.236328 -0.316406,-0.238281 h -1.867187 z m 9.074219,0 -1.0625,0.03125 c -0.776964,-0.0053 -0.650202,-0.0066 -0.658203,-0.0039 l -0.980469,2.009765 c 0,0 -0.910946,-1.85465 -1.128906,-1.974609 -0.01333,-0.01791 -0.005,-0.01684 -0.02539,-0.04102 h -0.845703 v 3.591797 2.802735 l -0.06641,0.05078 c -0.05886,0.0423 -0.07031,0.05698 -0.05664,0.07031 l 1.107422,1.513672 0.0059,-1.472656 c 0.0062,-1.353968 0.0083,-1.46572 0.02734,-1.404297 l 0.982422,2.0625 1.007812,-2.142578 0.0059,1.947266 0.0078,2.048828 0.97461,1.398437 0.0039,-5.53125 0.0078,-4.222656 z m -20.4003905,0.0039 0.7167969,0.708985 v 4.02539 c 0,2.76388 0.00495,5.214707 0.00977,5.447266 v 0.002 c 0.00622,0.299272 0.013142,0.719059 0.023437,0.712891 0.034457,-0.02056 4.0834866,-4.155921 4.0898436,-4.166016 0.0038,-0.0062 -0.02842,-0.03556 -0.07226,-0.06641 l -0.082032,-0.05664 V 16.04247 12.476063 L 9.6858282,12.243642 9.3811407,12.009267 7.7502813,12.00536 c -1.6539361,-0.0027 -2.4574418,-0.0097 -2.4492188,-0.002 z m 3.421875,0.888672 0.140625,0.05469 0.1367188,0.05274 v 2.355469 2.800781 l -1.9726562,2.115234 c -0.028362,0.0085 -0.031534,-2.473023 -0.025391,-4.517578 l 0.00586,-2.855468 1.5332031,-0.002 z m 4.7382815,0.07617 c 0.131282,-0.0075 0.152392,-0.0041 0.33789,0.05664 l 0.195313,0.06445 0.0059,3.15625 c 7.53e-4,1.388605 -0.01217,3.354042 -0.02539,3.353515 l -1.972698,-1.78905 v -2.029297 l -0.002,-2.693359 0.181641,-0.05469 0.18164,-0.05664 c 0.699215,0.0028 1.097656,-0.0078 1.097657,-0.0078 z m 4.072265,0 c 10e-7,0 0.398441,0.01061 1.097656,0.0078 l 0.181641,0.05664 0.181641,0.05469 -0.002,2.693359 v 2.029297 l -1.972657,1.789062 c -0.01322,5.27e-4 -0.02614,-1.96491 -0.02539,-3.353515 l 0.0059,-3.15625 0.195312,-0.06445 c 0.185499,-0.06074 0.206609,-0.06414 0.337891,-0.05664 z"/>
 <path style="fill:#8b9cbe" d="m 11.633093,11 -0.316406,0.238281 -0.316406,0.236328 v 3.455079 2.455078 l 2.232422,2.414062 1.767578,-1.326172 -0.0039,-2.996094 -0.0039,-4 L 14.681922,11.238281 14.367469,11 h -0.867188 z m 4.994141,0 -0.314453,0.238281 -0.310547,0.238281 -0.0039,4 -0.0039,2.996094 1.767578,1.326172 2.232422,-2.414062 V 14.929688 11.474609 L 19.678015,11.238281 19.361609,11 h -1.867187 z m 9.074219,0 -1.0625,0.03125 c -0.776964,-0.0053 -0.650202,-0.0066 -0.658203,-0.0039 l -0.980469,2.009765 c 0,0 -0.910946,-1.85465 -1.128906,-1.974609 -0.01333,-0.01791 -0.005,-0.01684 -0.02539,-0.04102 h -0.845703 v 3.591797 2.802735 l -0.06641,0.05078 c -0.05886,0.0423 -0.07031,0.05698 -0.05664,0.07031 l 1.107422,1.513672 0.0059,-1.472656 c 0.0062,-1.353968 0.0083,-1.46572 0.02734,-1.404297 l 0.982422,2.0625 1.007812,-2.142578 0.0059,1.947266 0.0078,2.048828 0.97461,1.398437 0.0039,-5.53125 0.0078,-4.222656 z m -20.4003905,0.0039 0.7167969,0.708985 v 4.02539 c 0,2.76388 0.00495,5.214707 0.00977,5.447266 v 0.002 c 0.00622,0.299272 0.013142,0.719059 0.023437,0.712891 0.034457,-0.02056 4.0834865,-4.155921 4.0898435,-4.166016 0.0038,-0.0062 -0.02842,-0.03556 -0.07226,-0.06641 l -0.082032,-0.05664 V 15.042969 11.476562 L 9.6858282,11.244141 9.3811407,11.009766 7.7502813,11.005859 c -1.6539361,-0.0027 -2.4574418,-0.0097 -2.4492188,-0.002 z m 3.421875,0.888672 0.140625,0.05469 L 9.0002813,12 v 2.355469 2.800781 l -1.9726562,2.115234 c -0.028362,0.0085 -0.031534,-2.473023 -0.025391,-4.517578 l 0.00586,-2.855468 1.5332031,-0.002 z m 4.7382815,0.07617 c 0.131282,-0.0075 0.152392,-0.0041 0.33789,0.05664 l 0.195313,0.06445 0.0059,3.15625 c 7.53e-4,1.388605 -0.01217,3.354042 -0.02539,3.353515 L 12.002234,16.810547 V 14.78125 l -0.002,-2.693359 0.181641,-0.05469 0.18164,-0.05664 c 0.699215,0.0028 1.097656,-0.0078 1.097657,-0.0078 z m 4.072265,0 c 10e-7,0 0.398441,0.01061 1.097656,0.0078 l 0.181641,0.05664 0.181641,0.05469 -0.002,2.693359 v 2.029297 l -1.972657,1.789062 c -0.01322,5.27e-4 -0.02614,-1.96491 -0.02539,-3.353515 l 0.0059,-3.15625 0.195312,-0.06445 c 0.185499,-0.06074 0.206609,-0.06414 0.337891,-0.05664 z"/>
 <path style="fill:#8b9cbe;opacity:0.1" d="M 3.4003906 2 C 2.6247906 2 2 2.6247906 2 3.4003906 L 2 4.4003906 C 2 3.6247906 2.6247906 3 3.4003906 3 L 28.599609 3 C 29.375209 3 30 3.6247906 30 4.4003906 L 30 3.4003906 C 30 2.6247906 29.375209 2 28.599609 2 L 3.4003906 2 z"/>
</svg>
