<svg xmlns="http://www.w3.org/2000/svg" width="32" height="32" version="1.1">
 <rect style="opacity:0.2" width="28" height="28" x="2" y="3" rx="1.4" ry="1.4"/>
 <rect style="fill:#4f4f4f" width="28" height="28" x="2" y="2" rx="1.4" ry="1.4"/>
 <path style="fill:#8b9cbe;opacity:0.1" d="M 3.4003906 2 C 2.6247906 2 2 2.6247906 2 3.4003906 L 2 4.4003906 C 2 3.6247906 2.6247906 3 3.4003906 3 L 28.599609 3 C 29.375209 3 30 3.6247906 30 4.4003906 L 30 3.4003906 C 30 2.6247906 29.375209 2 28.599609 2 L 3.4003906 2 z"/>
 <path style="opacity:0.2" d="m 25.433706,13.351426 c 0.259749,-0.275019 0.654658,-0.512996 0.542461,-0.949154 -0.01696,-0.568737 0.0347,-1.145112 -0.02713,-1.708904 -1.0441,0.558769 0.274015,-0.8068071 0.01694,-1.2476601 -0.0036,-0.525068 0.23096,-2.1976051 -0.533715,-1.184832 -1.65071,1.591541 -3.309917,3.1789901 -4.826471,4.9006881 -1.684647,1.452765 -3.163992,3.123646 -4.739964,4.687094 -1.279642,1.161943 -2.458761,2.431582 -3.695303,3.63968 -0.207334,0.653582 0.620472,1.150489 1.115434,1.681626 0.188983,0.502288 0.90628,1.271704 1.352758,1.383273 0.306629,-0.275533 1.278351,-1.301185 1.151881,-1.052288 -0.197743,0.407308 -1.161229,1.122577 -0.826404,1.323523 0.386353,-0.363741 -0.241699,0.388214 0.315729,0.447531 0.788222,1.239187 1.563942,-0.754927 2.292827,-1.152135 2.770437,-2.752273 5.560469,-5.484785 8.322029,-8.245999 0.168906,-0.539083 0.04197,-1.141607 0.08137,-1.708062 0.05126,-0.419008 -0.008,-0.597773 -0.329339,-0.206614 -0.163567,0.143292 -0.737569,0.618355 -0.656574,0.507191 0.559865,-0.394214 1.318647,-1.281822 0.87204,-1.456747 -0.138836,0.1188 -0.31003,0.201905 -0.42857,0.341789 z M 15.886397,8.5235239 c -0.804947,0.716339 -1.528546,1.5133691 -2.337245,2.2257851 -0.878192,0.974211 -1.877377,1.831554 -2.77333,2.791554 -1.5436279,1.577163 -3.1474064,3.105934 -4.6740598,4.692709 0.129175,0.504841 -0.2826007,1.97673 0.4905835,1.038338 0.2791021,-0.194581 1.2009299,-1.109864 1.1435121,-0.835358 -0.4904928,0.703724 -1.3283499,1.218577 -1.6273213,2.017726 -0.039214,1.865177 -0.037943,3.747344 0.00932,5.603874 0.7579271,-0.241294 1.3483592,-1.305756 2.0410113,-1.845216 1.1398727,-1.169577 2.3287002,-2.290982 3.4149602,-3.51116 1.26808,-0.917364 2.06754,-2.337293 3.343763,-3.252222 1.761836,-1.72524 3.56845,-3.442583 5.233902,-5.244071 -0.581347,-0.37927 -0.926841,-1.008897 -1.498548,-1.484983 -0.369683,0.193243 -1.120338,1.112589 -0.515335,0.193676 0.532363,-0.618979 -0.0084,-0.115235 -0.298361,0.05042 0.636455,-0.461115 0.303032,-1.0162871 -0.358532,-1.1446811 0.02379,-0.596615 -0.656242,-0.811938 -0.878961,-0.85224 0.221956,-0.863167 -0.664151,0.191033 -0.494449,-0.52453 0.02775,-0.172793 -0.26231,-0.02439 -0.22091,0.08037 z M 10.57028,12.239381 C 9.0903327,10.793656 7.6372028,9.3198499 6.1627836,7.8691829 c -0.2939821,0.188751 -0.087182,0.703066 -0.1491743,1.033659 0.01295,0.609894 -0.026314,1.2241101 0.020343,1.8312141 0.2768721,0.423924 0.4270507,0.557117 0.047457,0.254284 0.197835,0.288603 0.25689,0.494649 -0.040693,0.08475 -0.1967879,0.416271 0.9201913,1.373113 0.1059428,0.633159 -0.2646071,-0.201062 -0.076671,0.610679 -0.1330771,0.858177 0.018243,1.073956 -0.036386,2.164261 0.027129,3.228076 0.2611278,0.177571 0.5235871,0.810864 0.7659713,0.291826 0.9795907,-0.996712 2.0006049,-1.965752 2.9532755,-2.980399 -0.1422343,-0.246236 -0.7230992,-0.913022 -0.1389943,-0.325476 0.3221857,0.540023 0.6172295,-0.21151 0.9230055,-0.404278 0.04096,-0.06149 0.140672,-0.0733 0.02631,-0.134797 z m 14.700689,5.5331 c -1.319988,1.319988 -2.639977,2.639977 -3.959965,3.959964 0.396897,0.516733 0.969638,0.961511 1.426503,1.456417 0.999446,0.975472 1.962006,1.999912 2.991163,2.937514 0.363702,0.06116 0.150343,-0.668638 0.16612,-0.922182 -0.296767,-0.286693 -1.061577,-1.114285 -1.006254,-1.102457 0.361701,0.161169 1.230751,1.401097 1.087622,0.47883 0,-1.247728 0,-2.495455 0,-3.743183 -0.159483,-0.303973 -1.065865,-1.193021 -0.325475,-0.542461 0.492265,0.695097 0.281935,-0.296123 0.325482,-0.623419 0,-0.48835 0,-0.976701 0,-1.465051 -0.224413,-0.06076 -0.471841,-0.776289 -0.705196,-0.433972 z"/>
 <path style="fill:#8b9cbe" d="m 25.433706,12.351835 c 0.259749,-0.275019 0.654658,-0.512996 0.542461,-0.949154 -0.01696,-0.568737 0.0347,-1.145112 -0.02713,-1.7089044 -1.0441,0.5587694 0.274015,-0.806807 0.01694,-1.24766 -0.0036,-0.525068 0.23096,-2.1976051 -0.533715,-1.184832 -1.65071,1.591541 -3.309917,3.1789904 -4.826471,4.9006884 -1.684647,1.452765 -3.163992,3.123646 -4.739964,4.687094 -1.279642,1.161943 -2.458761,2.431582 -3.695303,3.63968 -0.207334,0.653582 0.620472,1.150489 1.115434,1.681626 0.188983,0.502288 0.90628,1.271704 1.352758,1.383273 0.306629,-0.275533 1.278351,-1.301185 1.151881,-1.052288 -0.197743,0.407308 -1.161229,1.122577 -0.826404,1.323523 0.386353,-0.363741 -0.241699,0.388214 0.315729,0.447531 0.788222,1.239187 1.563942,-0.754927 2.292827,-1.152135 2.770437,-2.752273 5.560469,-5.484785 8.322029,-8.245999 0.168906,-0.539083 0.04197,-1.141607 0.08137,-1.708062 0.05126,-0.419008 -0.008,-0.597773 -0.329339,-0.206614 -0.163567,0.143292 -0.737569,0.618355 -0.656574,0.507191 0.559865,-0.394214 1.318647,-1.281822 0.87204,-1.456747 -0.138836,0.1188 -0.31003,0.201905 -0.42857,0.341789 z M 15.886397,7.5239326 c -0.804947,0.716339 -1.528546,1.513369 -2.337245,2.225785 -0.878192,0.9742114 -1.877377,1.8315544 -2.77333,2.7915544 -1.5436279,1.577163 -3.1474064,3.105934 -4.6740598,4.692709 0.129175,0.504841 -0.2826007,1.97673 0.4905835,1.038338 0.2791021,-0.194581 1.2009299,-1.109864 1.1435121,-0.835358 -0.4904928,0.703724 -1.3283499,1.218577 -1.6273213,2.017726 -0.039214,1.865177 -0.037943,3.747344 0.00932,5.603874 0.7579271,-0.241294 1.3483592,-1.305756 2.0410113,-1.845216 1.1398727,-1.169577 2.3287002,-2.290982 3.4149602,-3.51116 1.26808,-0.917364 2.06754,-2.337293 3.343763,-3.252222 1.761836,-1.72524 3.56845,-3.442583 5.233902,-5.244071 -0.581347,-0.37927 -0.926841,-1.008897 -1.498548,-1.4849834 -0.369683,0.193243 -1.120338,1.1125894 -0.515335,0.193676 0.532363,-0.618979 -0.0084,-0.115235 -0.298361,0.05042 0.636455,-0.461115 0.303032,-1.016287 -0.358532,-1.144681 0.02379,-0.596615 -0.656242,-0.811938 -0.878961,-0.85224 0.221956,-0.863167 -0.664151,0.191033 -0.494449,-0.52453 0.02775,-0.172793 -0.26231,-0.02439 -0.22091,0.08037 z M 10.57028,11.23979 C 9.0903327,9.7940646 7.6372028,8.3202586 6.1627836,6.8695916 c -0.2939821,0.188751 -0.087182,0.703066 -0.1491743,1.033659 0.01295,0.609894 -0.026314,1.22411 0.020343,1.831214 0.2768721,0.4239244 0.4270507,0.5571174 0.047457,0.254284 0.197835,0.2886034 0.25689,0.4946494 -0.040693,0.08475 -0.1967879,0.416271 0.9201913,1.373113 0.1059428,0.633159 -0.2646071,-0.201062 -0.076671,0.610679 -0.1330771,0.858177 0.018243,1.073956 -0.036386,2.164261 0.027129,3.228076 0.2611278,0.177571 0.5235871,0.810864 0.7659713,0.291826 0.9795907,-0.996712 2.0006049,-1.965752 2.9532755,-2.980399 -0.1422343,-0.246236 -0.7230992,-0.913022 -0.1389943,-0.325476 0.3221857,0.540023 0.6172295,-0.21151 0.9230055,-0.404278 0.04096,-0.06149 0.140672,-0.0733 0.02631,-0.134797 z m 14.700689,5.5331 c -1.319988,1.319988 -2.639977,2.639977 -3.959965,3.959964 0.396897,0.516733 0.969638,0.961511 1.426503,1.456417 0.999446,0.975472 1.962006,1.999912 2.991163,2.937514 0.363702,0.06116 0.150343,-0.668638 0.16612,-0.922182 -0.296767,-0.286693 -1.061577,-1.114285 -1.006254,-1.102457 0.361701,0.161169 1.230751,1.401097 1.087622,0.47883 0,-1.247728 0,-2.495455 0,-3.743183 -0.159483,-0.303973 -1.065865,-1.193021 -0.325475,-0.542461 0.492265,0.695097 0.281935,-0.296123 0.325482,-0.623419 0,-0.48835 0,-0.976701 0,-1.465051 -0.224413,-0.06076 -0.471841,-0.776289 -0.705196,-0.433972 z"/>
</svg>
