<svg xmlns="http://www.w3.org/2000/svg" width="32" height="32" version="1">
 <path style="opacity:0.2" d="M 3.4003906,31 C 2.6247906,31 2,30.375209 2,29.599609 v -1 C 2,29.375209 2.6247906,30 3.4003906,30 H 16 28.599609 C 29.375209,30 30,29.375209 30,28.599609 v 1 C 30,30.375209 29.375209,31 28.599609,31 H 16 Z"/>
 <path style="fill:#ff8c2a" d="M 16,2 H 3.4 C 2.6244,2 2,2.6244 2,3.4 V 16 h 14 z"/>
 <path style="fill:#cf4f8c" d="M 16,2 H 28.6 C 29.3756,2 30,2.6244 30,3.4 V 16 H 16 Z"/>
 <path style="fill:#6655e4" d="M 16,30 H 3.4 C 2.6244,30 2,29.3756 2,28.6 V 16 h 14 z"/>
 <path style="fill:#ff8c2a" d="M 16,30 H 28.6 C 29.3756,30 30,29.3756 30,28.6 V 16 H 16 Z"/>
 <path style="fill:#8b9cbe;opacity:0.2" d="M 3.4003906 2 C 2.6247906 2 2 2.6247906 2 3.4003906 L 2 4.4003906 C 2 3.6247906 2.6247906 3 3.4003906 3 L 16 3 L 28.599609 3 C 29.375209 3 30 3.6247906 30 4.4003906 L 30 3.4003906 C 30 2.6247906 29.375209 2 28.599609 2 L 16 2 L 3.4003906 2 z"/>
 <rect style="fill:#17191e" width="20" height="20" x="6" y="6"/>
 <path style="opacity:0.2;fill:none;stroke:#000000;stroke-width:2;stroke-linecap:round" d="M 9.0002425,23.9999 H 17.000242"/>
 <path style="fill:none;stroke:#8b9cbe;stroke-width:2;stroke-linecap:round" d="M 9.0002425,23 H 17.000242"/>
 <path style="opacity:0.2;fill:none;stroke:#000000;stroke-width:1.99999988;stroke-linecap:round;stroke-linejoin:bevel" d="m 9.0002425,18.000171 c 0,0 4.0437825,0.350249 3.9999995,-3.999999 C 12.956462,9.6499089 9.0002425,10.00017 9.0002425,10.00017 m -0.0141,7.993587 V 9.9937589"/>
 <path style="fill:none;stroke:#8b9cbe;stroke-width:1.99999988;stroke-linecap:round;stroke-linejoin:bevel" d="m 9.0002425,17.000271 c 0,0 4.0437825,0.350249 3.9999995,-3.999999 C 12.956462,8.6500089 9.0002425,9.0002699 9.0002425,9.0002699 m -0.0141,7.9935871 V 8.9938589"/>
 <path style="opacity:0.2;fill:none;stroke:#000000;stroke-width:1.99999988;stroke-linecap:round;stroke-linejoin:bevel" d="m 21.000242,17.000171 c 0,0 0,1.000002 -2.000001,1.000002 -1.999999,0 -1.999999,-2.000001 -1.999999,-4.000002 0,-1.999998 0,-3.999999 1.999999,-3.999999 2.000001,0 2.000001,0.999999 2.000001,0.999999"/>
 <path style="fill:none;stroke:#8b9cbe;stroke-width:1.99999988;stroke-linecap:round;stroke-linejoin:bevel" d="m 21.000242,16.000271 c 0,0 0,1.000002 -2.000001,1.000002 -1.999999,0 -1.999999,-2.000001 -1.999999,-4.000002 0,-1.999998 0,-3.9999991 1.999999,-3.9999991 2.000001,0 2.000001,0.9999991 2.000001,0.9999991"/>
</svg>
