<svg xmlns="http://www.w3.org/2000/svg" width="32" height="32" version="1">
 <rect style="opacity:0.2" width="28" height="28" x="2" y="3" rx="2.1" ry="2.1"/>
 <rect style="fill:#6692ab" width="28" height="28" x="2" y="2" rx="2.1" ry="2.1"/>
 <path style="fill:#313c43" d="m 10.375391,2 c 0.772402,0 1.063911,1.1635466 1.155273,1.4916016 0.0911,0.3254919 0.424996,1.5402819 0.06973,3.8212892 -0.242763,1.3583521 -0.382813,0.7738276 -0.382813,0.7738276 0,0 -0.32452,-0.6635335 -0.334961,-1.1607421 -0.0024,-0.1230201 0,-0.225603 0,-0.3076171 0.0029,-0.2460409 0.0029,-0.3103338 -0.08066,-0.2283204 -0.109896,0.1102059 -0.302264,0.4284378 -0.391016,1.2126954 -0.09162,0.7816935 0.158595,1.7833326 0.158595,1.8320316 0,0.048692 -0.03963,0.058954 -0.13125,0.041013 C 10.34718,9.4552758 9.2983981,9.2966957 8.4080079,6.9669893 7.5207502,4.6372869 7.5412112,3.9222629 7.5412112,3.9222629 c 0,-2e-7 -0.031332,-0.2973658 -0.080665,-0.3076173 -0.049595,-0.010251 -0.1332219,-0.040633 -0.1517579,0.1490234 -0.020622,0.1896568 -0.1816122,1.8623544 0.1914066,3.807617 0.3735417,1.9427002 0.8271172,3.173057 1.2523434,3.906055 0.4231381,0.73556 0.4650835,0.884464 0.5564454,1.189453 0.091102,0.307551 0.05978,0.922394 0.109375,1.18125 0.038892,0.192219 0.063406,0.438546 0.039648,0.535937 -0.00757,0.03331 -0.023352,0.04922 -0.060158,0.02871 -0.06265,-0.03588 -0.4622263,-0.43597 -0.5222646,-0.494917 C 8.8129341,13.858827 8.4583757,13.543402 8.1373025,13.056445 7.813619,12.572052 7.5494327,12.231138 7.3484354,12.054297 7.2153073,11.933839 6.9254807,11.68757 6.9150367,11.784961 c -0.010178,0.09996 0.078283,0.162378 0.1490237,0.280273 0.07048,0.117895 0.4250379,0.801621 0.6289059,1.298828 0.2007369,0.494646 0.8660232,1.843193 1.028125,2.091797 0.1615817,0.246041 0.5873567,0.694434 0.9501954,1.04043 0.3625783,0.345995 0.8986023,1.088668 1.0212893,1.298828 0.120337,0.207597 0.372867,0.782572 0.39375,0.913282 0.0261,0.17428 0.0495,0.176529 -0.123047,0.138085 -0.169411,-0.03844 -1.0692341,-0.348308 -1.2496094,-0.425195 -0.1563597,-0.0692 -0.4961474,-0.203214 -0.6658204,-0.277539 -0.065261,-0.02819 -0.2666188,0.0284 -0.094335,0.166797 0.1720222,0.138398 1.6975358,1.120258 1.8306638,1.209961 0.130518,0.0897 0.928441,0.763792 1.097852,0.981641 0.172544,0.217849 0.517509,0.725096 0.849023,1.406835 0.334386,0.686865 0.615373,1.499584 0.474414,2.865625 -0.127907,0.768879 -0.41924,1.170491 -0.432031,1.193555 -0.01566,0.02307 -0.04525,0.02631 -0.0998,0.01094 -0.130519,-0.03332 -0.404814,-0.177232 -0.516798,-0.231055 -0.14122,-0.0692 -0.425689,-0.248823 -0.464843,-0.22832 -0.0415,0.0205 -0.119323,0.07011 0.03965,0.259766 0.162102,0.187093 0.534052,0.58415 0.615233,0.671289 0.08092,0.0897 0.134124,0.140662 0.102539,0.199609 -0.02845,0.05895 -0.02946,0.14887 0.04101,0.228321 0.07048,0.07945 0.402196,0.456486 0.464844,0.535937 0.06004,0.07945 0.2922,0.394291 0.341797,0.525 0.04986,0.128146 0.102163,0.238264 0.123046,0.386914 0.01801,0.14865 0.06724,0.446076 0.129883,0.594726 0.06004,0.14865 0.172268,0.317552 0.281641,0.425196 C 13.944147,29.45669 14.6,30 14.6,30 h 2.8 c 0,0 0.655853,-0.54331 0.768359,-0.653516 0.109374,-0.107643 0.221603,-0.276545 0.281641,-0.425195 0.06265,-0.14865 0.111871,-0.446077 0.129883,-0.594727 0.02088,-0.148649 0.07319,-0.258767 0.123047,-0.386913 0.0496,-0.13071 0.281758,-0.44555 0.341796,-0.525 0.06265,-0.07945 0.394365,-0.456486 0.464844,-0.535938 0.07048,-0.07945 0.06947,-0.169373 0.04101,-0.22832 -0.03158,-0.05895 0.02162,-0.109907 0.102539,-0.199609 0.08118,-0.08714 0.453132,-0.484196 0.615234,-0.67129 0.158971,-0.189657 0.08115,-0.239262 0.03965,-0.259766 -0.03916,-0.0205 -0.323624,0.159121 -0.464844,0.228321 -0.111984,0.05382 -0.386279,0.197736 -0.516796,0.231054 -0.05456,0.01538 -0.08278,0.01213 -0.09844,-0.01094 -0.01279,-0.02307 -0.305491,-0.424676 -0.433398,-1.193554 -0.14096,-1.366042 0.140028,-2.17876 0.474414,-2.865625 0.331514,-0.681739 0.676479,-1.188987 0.849023,-1.406836 0.169413,-0.217849 0.967334,-0.891938 1.097852,-0.981641 0.133127,-0.0897 1.658641,-1.071562 1.830664,-1.209961 0.172283,-0.138398 -0.02908,-0.194988 -0.09434,-0.166797 -0.169672,0.07433 -0.509461,0.20834 -0.66582,0.277539 -0.180376,0.07689 -1.080199,0.386752 -1.24961,0.425196 -0.172544,0.03844 -0.14915,0.0362 -0.123047,-0.138086 0.02088,-0.130709 0.273413,-0.705685 0.39375,-0.913281 0.122687,-0.210161 0.658712,-0.952833 1.02129,-1.298829 0.362838,-0.345995 0.788615,-0.794388 0.950195,-1.040429 0.162103,-0.248605 0.827388,-1.597152 1.028125,-2.091797 0.203868,-0.497208 0.558426,-1.180934 0.628906,-1.298828 0.07074,-0.117895 0.159204,-0.180319 0.149024,-0.280273 -0.01044,-0.09739 -0.300271,0.148877 -0.433399,0.269335 -0.200997,0.176842 -0.465184,0.517755 -0.788867,1.002149 -0.321073,0.486956 -0.675633,0.80238 -0.738282,0.861328 -0.06004,0.05895 -0.459616,0.459041 -0.522265,0.494922 -0.03681,0.0205 -0.05258,0.0046 -0.06016,-0.02871 -0.02375,-0.09739 7.7e-4,-0.343718 0.03965,-0.535938 0.0496,-0.258855 0.01828,-0.873698 0.109375,-1.18125 0.09136,-0.304988 0.133308,-0.453892 0.556446,-1.189453 0.425226,-0.732997 0.878801,-1.9633543 1.252343,-3.9060545 0.373019,-1.9452626 0.212029,-3.6179602 0.191407,-3.807617 -0.01854,-0.1896566 -0.102162,-0.1592751 -0.151758,-0.1490234 -0.04934,0.010251 -0.08066,0.3076172 -0.08066,0.3076173 0,0 0.02046,0.715024 -0.866797,3.0447264 -0.89039,2.3297029 -1.939172,2.4882851 -2.030273,2.5087895 -0.09162,0.017941 -0.13125,0.00768 -0.13125,-0.041013 0,-0.048699 0.250218,-1.0503381 0.158594,-1.8320316 -0.08875,-0.7842562 -0.28112,-1.1024895 -0.391016,-1.2126954 -0.08353,-0.082013 -0.08354,-0.017717 -0.08066,0.2283204 0,0.082014 0.0024,0.184597 0,0.3076171 -0.01044,0.4972086 -0.334961,1.1607421 -0.334961,1.1607421 0,7e-7 -0.14005,0.5845245 -0.382812,-0.7738276 C 20.04434,5.0318886 20.378233,3.8170935 20.469338,3.4916016 20.560698,3.1635466 20.852206,2 21.624609,2 Z m 2.313281,13.418945 c 0.03305,0.01009 0.05188,0.126901 0.0998,0.237891 0.06054,0.143784 0.332922,0.473742 0.438867,0.579688 0.06811,0.06558 0.122706,0.144441 0.180469,0.220117 0.149082,0.186667 0.300129,0.373148 0.438868,0.567383 0.08854,0.118558 0.154415,0.255223 0.202344,0.396484 0.189189,0.542342 0.168163,1.077158 0.168163,1.644726 0,0.08829 0.01816,0.586524 -0.04238,0.586524 -0.06307,0 -0.03526,2.69e-4 -0.08066,-0.07793 -0.04263,-0.08072 -0.297894,-0.544335 -0.39375,-0.693164 -0.09585,-0.148829 -0.486085,-0.703449 -0.589256,-0.842188 -0.09611,-0.138738 -0.389516,-0.615719 -0.518165,-0.898242 C 12.519564,16.97627 12.5,16.801805 12.5,16.630274 c 0,-0.133694 0.01042,-0.267412 0.02051,-0.391016 0.02043,-0.252252 0.0425,-0.464482 0.06016,-0.736915 0.005,-0.0782 0.08303,-0.09348 0.108008,-0.0834 z m 6.522852,0 c 0.02497,-0.01009 0.102962,0.0052 0.108008,0.0834 0.01766,0.272433 0.03973,0.484663 0.06016,0.736915 0.01009,0.123604 0.02051,0.257322 0.02051,0.391016 0,0.171531 -0.01957,0.345996 -0.09297,0.50996 -0.128648,0.282523 -0.422055,0.759504 -0.518163,0.898242 -0.103171,0.138739 -0.493402,0.693359 -0.589258,0.842188 -0.09586,0.148829 -0.35112,0.612444 -0.39375,0.693164 -0.0454,0.0782 -0.0176,0.07793 -0.08066,0.07793 -0.06054,0 -0.04238,-0.498236 -0.04238,-0.586524 0,-0.567568 -0.02103,-1.102384 0.168164,-1.644726 0.04793,-0.141261 0.113803,-0.277926 0.202344,-0.396484 0.138738,-0.194235 0.289786,-0.380716 0.438867,-0.567383 0.05776,-0.07568 0.113728,-0.154532 0.181835,-0.220117 0.105947,-0.105946 0.378327,-0.435904 0.438868,-0.579688 0.04793,-0.11099 0.06539,-0.227801 0.09844,-0.237891 z m -4.459766,9.765821 c 0.0035,-0.0029 0.01074,3.18e-4 0.02461,0.0041 0.02498,0.01009 0.04891,0.106141 0.06152,0.149023 0.01261,0.0454 0.08189,0.28274 0.0998,0.360938 0.03002,0.131171 0.115768,0.52687 0.146288,0.663085 0.03784,0.184145 0.144264,0.61042 0.149024,0.650782 0.03809,0.385946 0.131171,0.653267 0,0.764258 -0.130919,0.108468 -0.250023,-0.03422 -0.313086,-0.0998 -0.06054,-0.06558 -0.231399,-0.27781 -0.284375,-0.378711 -0.03052,-0.05802 -0.05879,-0.07385 -0.05879,-0.106641 0,-0.03027 0.04101,-0.06973 0.04101,-0.06973 0.141265,-0.24973 0.163633,-0.558122 0.158593,-0.724609 -0.0025,-0.06558 0,-0.141707 0,-0.217383 0.0023,-0.116036 0.0032,-0.226567 -0.0041,-0.28711 -0.01261,-0.1009 -0.0252,-0.307252 -0.03555,-0.400585 -0.01009,-0.09081 0.01231,-0.23697 0.01231,-0.274805 0,-0.02018 -7e-4,-0.02997 0.0027,-0.03281 z m 2.474609,0 c 0.0035,0.0029 0.0027,0.01263 0.0027,0.03281 0,0.03784 0.02376,0.183993 0.01367,0.274804 -0.01034,0.09333 -0.0243,0.299685 -0.03691,0.400586 -0.0073,0.06054 -0.0064,0.171074 -0.0041,0.28711 0,0.07568 0.0025,0.151797 0,0.217383 -0.005,0.166486 0.01733,0.474879 0.158593,0.724609 0,0 0.04101,0.03946 0.04101,0.06973 0,0.0328 -0.02827,0.04862 -0.05879,0.106641 -0.05298,0.1009 -0.223834,0.313125 -0.284375,0.378711 -0.06306,0.06558 -0.182168,0.208273 -0.313086,0.0998 -0.131171,-0.110991 -0.03809,-0.378312 0,-0.764257 0.0048,-0.04036 0.111186,-0.466638 0.149024,-0.650782 0.03052,-0.136216 0.116271,-0.531915 0.146289,-0.663086 0.01791,-0.0782 0.08856,-0.315532 0.101171,-0.360937 0.01261,-0.04288 0.03518,-0.138934 0.06016,-0.149024 0.01387,-0.0038 0.02114,-0.0069 0.02461,-0.0041 z"/>
 <path style="fill:#8b9cbe;opacity:0.1" d="M 4.0996094 2 C 2.9362094 2 2 2.9362094 2 4.0996094 L 2 5.0996094 C 2 3.9362094 2.9362094 3 4.0996094 3 L 27.900391 3 C 29.063791 3 30 3.9362094 30 5.0996094 L 30 4.0996094 C 30 2.9362094 29.063791 2 27.900391 2 L 4.0996094 2 z"/>
 <path style="opacity:0.2" d="M 10.375 2 C 10.907422 2 11.201755 2.5490207 11.369141 3 L 20.630859 3 C 20.798244 2.5490207 21.092577 2 21.625 2 L 10.375 2 z M 7.3730469 3.6132812 C 7.3436238 3.6281114 7.3178618 3.6688437 7.3085938 3.7636719 C 7.2961947 3.8777033 7.2466043 4.5611981 7.2792969 5.484375 C 7.2924287 5.2107578 7.3026302 4.8185175 7.3085938 4.7636719 C 7.3271298 4.5740155 7.4113425 4.6049834 7.4609375 4.6152344 C 7.5102705 4.6254859 7.5410156 4.9218748 7.5410156 4.921875 C 7.5410156 4.921875 7.5209454 5.6370945 8.4082031 7.9667969 C 9.2985933 10.296504 10.346391 10.456062 10.4375 10.476562 C 10.52912 10.494502 10.570312 10.484237 10.570312 10.435547 C 10.570312 10.404473 10.471813 9.9749996 10.421875 9.4726562 C 10.301326 9.4474368 9.2838192 9.2578466 8.4082031 6.9667969 C 7.5209454 4.6370945 7.5410156 3.921875 7.5410156 3.921875 C 7.5410156 3.9218748 7.5102705 3.6254859 7.4609375 3.6152344 C 7.43614 3.6101089 7.40247 3.5984511 7.3730469 3.6132812 z M 24.626953 3.6132812 C 24.597531 3.598451 24.563861 3.6101085 24.539062 3.6152344 C 24.489722 3.6254854 24.458984 3.9218749 24.458984 3.921875 C 24.458984 3.921875 24.479054 4.6370945 23.591797 6.9667969 C 22.716181 9.2578432 21.698666 9.4474354 21.578125 9.4726562 C 21.528187 9.9749993 21.429688 10.404472 21.429688 10.435547 C 21.429687 10.484257 21.47088 10.494502 21.5625 10.476562 C 21.653601 10.456059 22.701407 10.2965 23.591797 7.9667969 C 24.479054 5.6370945 24.458984 4.921875 24.458984 4.921875 C 24.458984 4.9218749 24.489722 4.6254854 24.539062 4.6152344 C 24.588659 4.6049827 24.672866 4.5740153 24.691406 4.7636719 C 24.69737 4.8185175 24.707571 5.2107578 24.720703 5.484375 C 24.753396 4.5611981 24.703805 3.8777033 24.691406 3.7636719 C 24.682136 3.6688436 24.656376 3.6281115 24.626953 3.6132812 z M 11.736328 5.9453125 C 11.715654 6.3536664 11.679826 6.7974669 11.599609 7.3125 C 11.356846 8.6708521 11.216797 8.0859375 11.216797 8.0859375 C 11.216797 8.0859375 10.893254 7.4229899 10.882812 6.9257812 C 10.880413 6.8027612 10.882813 6.7011547 10.882812 6.6191406 C 10.885713 6.3730997 10.886294 6.3086116 10.802734 6.390625 C 10.692838 6.5008309 10.498908 6.819258 10.410156 7.6035156 C 10.375608 7.8982791 10.394862 8.2133881 10.425781 8.5078125 C 10.519275 7.802063 10.698034 7.4956208 10.802734 7.390625 C 10.886294 7.3086116 10.885713 7.3730997 10.882812 7.6191406 C 10.882813 7.7011547 10.880413 7.8027612 10.882812 7.9257812 C 10.893254 8.4229899 11.216797 9.0859375 11.216797 9.0859375 C 11.216797 9.0859375 11.356846 9.6708521 11.599609 8.3125 C 11.755461 7.3118432 11.767053 6.5505197 11.736328 5.9453125 z M 20.263672 5.9453125 C 20.232947 6.5505208 20.244539 7.3118434 20.400391 8.3125 C 20.643153 9.6708521 20.783203 9.0859382 20.783203 9.0859375 C 20.783203 9.0859375 21.106748 8.4229899 21.117188 7.9257812 C 21.119588 7.8027612 21.117188 7.7011546 21.117188 7.6191406 C 21.114308 7.3731032 21.113736 7.308612 21.197266 7.390625 C 21.301966 7.4956208 21.480726 7.802064 21.574219 8.5078125 C 21.605138 8.2133881 21.624394 7.8982791 21.589844 7.6035156 C 21.501094 6.8192594 21.307162 6.5008309 21.197266 6.390625 C 21.113736 6.308612 21.114308 6.3731032 21.117188 6.6191406 C 21.117188 6.7011546 21.119588 6.8027612 21.117188 6.9257812 C 21.106748 7.4229899 20.783203 8.0859375 20.783203 8.0859375 C 20.783203 8.0859382 20.643153 8.6708521 20.400391 7.3125 C 20.320174 6.7974678 20.284347 6.3536663 20.263672 5.9453125 z M 6.96875 11.769531 C 6.9380299 11.758257 6.9166735 11.760808 6.9140625 11.785156 C 6.9038845 11.885116 6.9937124 11.946558 7.0644531 12.064453 C 7.1349331 12.182348 7.4894914 12.866074 7.6933594 13.363281 C 7.7112531 13.407374 7.7625186 13.510127 7.7871094 13.566406 C 7.8967086 13.712284 8.0080991 13.864161 8.1367188 14.056641 C 8.4577919 14.543598 8.81235 14.859022 8.875 14.917969 C 8.9350383 14.976916 9.3357875 15.376229 9.3984375 15.412109 C 9.4352435 15.432619 9.4494613 15.418076 9.4570312 15.384766 C 9.4807893 15.287375 9.4568608 15.039875 9.4179688 14.847656 C 9.3986699 14.746928 9.3934938 14.571798 9.3867188 14.402344 C 9.3117389 14.352451 8.9337684 13.975669 8.875 13.917969 C 8.81235 13.859022 8.4577919 13.543598 8.1367188 13.056641 C 7.8130352 12.572248 7.5486536 12.231528 7.3476562 12.054688 C 7.2478102 11.964344 7.0609102 11.803354 6.96875 11.769531 z M 25.03125 11.769531 C 24.93909 11.803354 24.75219 11.964344 24.652344 12.054688 C 24.451347 12.23153 24.186964 12.572247 23.863281 13.056641 C 23.542208 13.543597 23.187649 13.859021 23.125 13.917969 C 23.06623 13.975672 22.68826 14.35245 22.613281 14.402344 C 22.606505 14.571798 22.601332 14.746928 22.582031 14.847656 C 22.543151 15.039876 22.517266 15.287376 22.541016 15.384766 C 22.548596 15.418076 22.564753 15.432609 22.601562 15.412109 C 22.664211 15.376228 23.06496 14.976919 23.125 14.917969 C 23.187649 14.859021 23.542208 14.543597 23.863281 14.056641 C 23.991901 13.864161 24.103291 13.712284 24.212891 13.566406 C 24.237481 13.510127 24.288747 13.407374 24.306641 13.363281 C 24.510509 12.866073 24.865067 12.182347 24.935547 12.064453 C 25.006287 11.946558 25.094164 11.88511 25.083984 11.785156 C 25.081374 11.760809 25.06197 11.758257 25.03125 11.769531 z M 12.542969 16.96875 C 12.535314 17.055668 12.528997 17.147477 12.521484 17.240234 C 12.511394 17.363838 12.5 17.497165 12.5 17.630859 C 12.5 17.80239 12.520342 17.976661 12.59375 18.140625 C 12.722399 18.423148 13.015218 18.900324 13.111328 19.039062 C 13.214499 19.177802 13.605322 19.73203 13.701172 19.880859 C 13.797028 20.029688 14.05112 20.493499 14.09375 20.574219 C 14.13915 20.652418 14.110758 20.652344 14.173828 20.652344 C 14.234368 20.652344 14.216797 20.152743 14.216797 20.064453 C 14.216797 19.858126 14.212583 19.660543 14.207031 19.460938 C 14.201248 19.550789 14.196134 19.652344 14.173828 19.652344 C 14.110758 19.652344 14.13915 19.652418 14.09375 19.574219 C 14.05112 19.493499 13.797028 19.029688 13.701172 18.880859 C 13.605322 18.73203 13.214499 18.177802 13.111328 18.039062 C 13.015218 17.900324 12.722399 17.423148 12.59375 17.140625 C 12.568706 17.084686 12.55684 17.0266 12.542969 16.96875 z M 19.357422 16.96875 C 19.343551 17.0266 19.331682 17.084686 19.306641 17.140625 C 19.177993 17.423148 18.885171 17.900324 18.789062 18.039062 C 18.685892 18.177802 18.295075 18.73203 18.199219 18.880859 C 18.103359 19.029688 17.849271 19.493499 17.806641 19.574219 C 17.761241 19.652419 17.787669 19.652344 17.724609 19.652344 C 17.701833 19.652344 17.697062 19.549711 17.691406 19.457031 C 17.68571 19.657895 17.683594 19.856794 17.683594 20.064453 C 17.683594 20.152741 17.664069 20.652344 17.724609 20.652344 C 17.787669 20.652344 17.761241 20.652419 17.806641 20.574219 C 17.849271 20.493499 18.103359 20.029688 18.199219 19.880859 C 18.295075 19.73203 18.685892 19.177802 18.789062 19.039062 C 18.885171 18.900324 19.177993 18.423148 19.306641 18.140625 C 19.380041 17.976661 19.400391 17.80239 19.400391 17.630859 C 19.400391 17.497165 19.388996 17.363838 19.378906 17.240234 C 19.371394 17.147477 19.365077 17.055668 19.357422 16.96875 z M 9.046875 18.144531 C 8.981614 18.116341 8.7808412 18.17215 8.953125 18.310547 C 9.1251472 18.448945 10.650075 19.431781 10.783203 19.521484 C 10.820797 19.547321 10.974431 19.677455 11.091797 19.775391 C 11.088391 19.752155 11.091774 19.747954 11.085938 19.708984 C 11.065054 19.578274 10.813696 19.002519 10.693359 18.794922 C 10.687952 18.78566 10.663213 18.753439 10.65625 18.742188 C 10.323809 18.635593 9.8490376 18.479909 9.7128906 18.421875 C 9.5565309 18.352675 9.216548 18.218856 9.046875 18.144531 z M 22.951172 18.144531 C 22.7815 18.218861 22.443468 18.352676 22.287109 18.421875 C 22.150962 18.479911 21.676191 18.635593 21.34375 18.742188 C 21.336787 18.753439 21.312048 18.78566 21.306641 18.794922 C 21.186304 19.002518 20.934942 19.578275 20.914062 19.708984 C 20.908226 19.747956 20.911609 19.752155 20.908203 19.775391 C 21.025524 19.677495 21.17726 19.545362 21.214844 19.519531 C 21.347971 19.429831 22.874852 18.448946 23.046875 18.310547 C 23.219158 18.172149 23.016432 18.11634 22.951172 18.144531 z M 13.210938 24.619141 C 13.206471 24.674731 13.211014 24.71787 13.205078 24.775391 C 13.077171 25.54427 12.786229 25.945686 12.773438 25.96875 C 12.757777 25.99182 12.728378 25.993886 12.673828 25.978516 C 12.543309 25.945196 12.268234 25.80187 12.15625 25.748047 C 12.01503 25.678847 11.73056 25.499028 11.691406 25.519531 C 11.649906 25.540031 11.573449 25.589641 11.732422 25.779297 C 11.894524 25.96639 12.266475 26.364033 12.347656 26.451172 C 12.428576 26.540872 12.480804 26.591444 12.449219 26.650391 C 12.420769 26.709341 12.419764 26.799455 12.490234 26.878906 C 12.494089 26.883252 12.510294 26.902175 12.515625 26.908203 C 12.573623 26.933311 12.633946 26.968334 12.673828 26.978516 C 12.728378 26.993886 12.757777 26.99182 12.773438 26.96875 C 12.786229 26.945686 13.077171 26.54427 13.205078 25.775391 C 13.250916 25.331178 13.241663 24.961031 13.210938 24.619141 z M 18.789062 24.619141 C 18.758337 24.961031 18.749084 25.331178 18.794922 25.775391 C 18.922829 26.544269 19.215726 26.94568 19.228516 26.96875 C 19.244176 26.99182 19.271612 26.993896 19.326172 26.978516 C 19.366053 26.968335 19.426377 26.933311 19.484375 26.908203 C 19.489706 26.902175 19.505911 26.883252 19.509766 26.878906 C 19.580246 26.799456 19.579241 26.709338 19.550781 26.650391 C 19.519201 26.591441 19.571425 26.540874 19.652344 26.451172 C 19.733524 26.364032 20.105476 25.966391 20.267578 25.779297 C 20.426549 25.58964 20.350094 25.540035 20.308594 25.519531 C 20.269434 25.499031 19.98497 25.678847 19.84375 25.748047 C 19.731766 25.801867 19.456689 25.945198 19.326172 25.978516 C 19.271612 25.993896 19.244176 25.99182 19.228516 25.96875 C 19.215726 25.94568 18.922829 25.544269 18.794922 24.775391 C 18.788986 24.71787 18.793529 24.674731 18.789062 24.619141 z M 14.751953 26.185547 C 14.748553 26.188387 14.748047 26.196617 14.748047 26.216797 C 14.748047 26.254632 14.726238 26.401377 14.736328 26.492188 C 14.741578 26.539532 14.747793 26.618322 14.753906 26.695312 C 14.77105 26.581274 14.777657 26.473315 14.775391 26.398438 C 14.773002 26.335785 14.775192 26.261768 14.775391 26.189453 C 14.763469 26.186063 14.75519 26.182865 14.751953 26.185547 z M 17.226562 26.185547 C 17.223093 26.182747 17.215042 26.185653 17.201172 26.189453 C 17.201372 26.26174 17.203559 26.333853 17.201172 26.396484 C 17.198951 26.470441 17.208015 26.579026 17.224609 26.691406 C 17.230932 26.61595 17.237045 26.538606 17.242188 26.492188 C 17.252278 26.401377 17.228516 26.254637 17.228516 26.216797 C 17.228516 26.196617 17.230062 26.188447 17.226562 26.185547 z M 14.769531 27.478516 C 14.766933 27.652465 14.741314 27.901661 14.617188 28.121094 C 14.617188 28.121094 14.576172 28.161136 14.576172 28.191406 C 14.576172 28.224197 14.604246 28.240808 14.634766 28.298828 C 14.687742 28.399729 14.859382 28.612154 14.919922 28.677734 C 14.982985 28.743314 15.101503 28.885812 15.232422 28.777344 C 15.363593 28.666353 15.270512 28.397665 15.232422 28.011719 C 15.23085 27.998389 15.201211 27.871767 15.183594 27.796875 C 15.072928 27.839489 14.974822 27.734826 14.919922 27.677734 C 14.888056 27.643216 14.829247 27.556673 14.769531 27.478516 z M 17.207031 27.478516 C 17.147437 27.556485 17.090389 27.643289 17.058594 27.677734 C 17.003554 27.734973 16.903989 27.840423 16.792969 27.796875 C 16.77537 27.871691 16.745725 27.998398 16.744141 28.011719 C 16.706051 28.397664 16.61297 28.666353 16.744141 28.777344 C 16.875059 28.885817 16.995534 28.743314 17.058594 28.677734 C 17.119135 28.612148 17.288817 28.399728 17.341797 28.298828 C 17.372317 28.240807 17.400391 28.224206 17.400391 28.191406 C 17.400391 28.161136 17.359375 28.121094 17.359375 28.121094 C 17.235555 27.902201 17.209789 27.652481 17.207031 27.478516 z"/>
 <path style="opacity:0.1;fill:#8b9cbe" d="M 10.375 3 C 11.147402 3 11.439888 4.1641325 11.53125 4.4921875 C 11.582385 4.6748891 11.697016 5.1709438 11.736328 5.9453125 C 11.807218 4.5451259 11.60178 3.744186 11.53125 3.4921875 C 11.502864 3.390263 11.444587 3.2032712 11.369141 3 L 10.375 3 z M 20.630859 3 C 20.555414 3.2032712 20.497135 3.390263 20.46875 3.4921875 C 20.398216 3.744186 20.192781 4.5451248 20.263672 5.9453125 C 20.302984 5.1709425 20.417612 4.6748891 20.46875 4.4921875 C 20.56011 4.1641325 20.852597 3 21.625 3 L 20.630859 3 z M 7.2792969 5.484375 C 7.2470186 6.1569285 7.2348522 7.1875882 7.5 8.5703125 C 7.8735417 10.513013 8.3267269 11.743564 8.7519531 12.476562 C 9.1750912 13.212123 9.2172317 13.361027 9.3085938 13.666016 C 9.3642452 13.85389 9.376083 14.136327 9.3867188 14.402344 C 9.3883389 14.403422 9.3971124 14.41135 9.3984375 14.412109 C 9.4352435 14.432619 9.4494613 14.418076 9.4570312 14.384766 C 9.4807894 14.287375 9.4568608 14.039875 9.4179688 13.847656 C 9.3683736 13.5888 9.3996957 12.973567 9.3085938 12.666016 C 9.2172317 12.361027 9.1750912 12.212123 8.7519531 11.476562 C 8.3267269 10.743564 7.8735417 9.5130125 7.5 7.5703125 C 7.3512592 6.7946414 7.3009786 6.0966244 7.2792969 5.484375 z M 24.720703 5.484375 C 24.699021 6.0966244 24.648741 6.7946414 24.5 7.5703125 C 24.126458 9.513013 23.673273 10.743567 23.248047 11.476562 C 22.824909 12.212124 22.782766 12.361028 22.691406 12.666016 C 22.600311 12.973568 22.631631 13.588801 22.582031 13.847656 C 22.543151 14.039876 22.517266 14.287376 22.541016 14.384766 C 22.548596 14.418076 22.564754 14.432609 22.601562 14.412109 C 22.602888 14.41135 22.611661 14.403422 22.613281 14.402344 C 22.623918 14.136327 22.635759 13.85389 22.691406 13.666016 C 22.782766 13.361028 22.824909 13.212125 23.248047 12.476562 C 23.673273 11.743567 24.126458 10.513013 24.5 8.5703125 C 24.765148 7.1875882 24.752981 6.1569285 24.720703 5.484375 z M 10.425781 8.5078125 C 10.421142 8.5428333 10.414352 8.5664389 10.410156 8.6035156 C 10.376997 8.8864232 10.39355 9.1877308 10.421875 9.4726562 C 10.423909 9.4730818 10.435988 9.4762223 10.4375 9.4765625 C 10.52912 9.4945025 10.570313 9.4842369 10.570312 9.4355469 C 10.570312 9.4052114 10.476858 8.9941826 10.425781 8.5078125 z M 21.574219 8.5078125 C 21.523142 8.9941823 21.429688 9.4052108 21.429688 9.4355469 C 21.429687 9.4842569 21.47088 9.4945025 21.5625 9.4765625 C 21.564012 9.4762223 21.576091 9.4730818 21.578125 9.4726562 C 21.606449 9.1877311 21.623004 8.8864232 21.589844 8.6035156 C 21.585648 8.566439 21.578858 8.5428333 21.574219 8.5078125 z M 6.96875 12.769531 C 6.9380299 12.758257 6.9166735 12.760808 6.9140625 12.785156 C 6.9038845 12.885116 6.9937124 12.946558 7.0644531 13.064453 C 7.1349331 13.182348 7.4894914 13.866074 7.6933594 14.363281 C 7.8940963 14.857927 8.5586013 16.206474 8.7207031 16.455078 C 8.8822848 16.701119 9.3090363 17.150098 9.671875 17.496094 C 10.018474 17.82684 10.505232 18.498145 10.65625 18.742188 C 10.764246 18.776815 10.921351 18.836278 10.962891 18.845703 C 11.135438 18.884147 11.112037 18.883264 11.085938 18.708984 C 11.065053 18.578274 10.813696 18.002519 10.693359 17.794922 C 10.570672 17.584762 10.034453 16.842089 9.671875 16.496094 C 9.3090363 16.150098 8.8822848 15.701119 8.7207031 15.455078 C 8.5730511 15.228635 8.0383858 14.141482 7.7871094 13.566406 C 7.6208919 13.345169 7.4687848 13.161258 7.3476562 13.054688 C 7.2478102 12.964344 7.0609102 12.803354 6.96875 12.769531 z M 25.03125 12.769531 C 24.93909 12.803354 24.75219 12.964343 24.652344 13.054688 C 24.531215 13.161258 24.379108 13.345169 24.212891 13.566406 C 23.961614 14.141481 23.42695 15.228634 23.279297 15.455078 C 23.117717 15.701119 22.690963 16.150099 22.328125 16.496094 C 21.965547 16.84209 21.429328 17.584761 21.306641 17.794922 C 21.186304 18.002518 20.934942 18.578275 20.914062 18.708984 C 20.88796 18.88327 20.864565 18.884143 21.037109 18.845703 C 21.078649 18.836277 21.235754 18.776816 21.34375 18.742188 C 21.494768 18.498145 21.981527 17.826841 22.328125 17.496094 C 22.690963 17.150099 23.117717 16.701119 23.279297 16.455078 C 23.4414 16.206473 24.105904 14.857926 24.306641 14.363281 C 24.510509 13.866073 24.865067 13.182347 24.935547 13.064453 C 25.006287 12.946558 25.094164 12.88511 25.083984 12.785156 C 25.081374 12.760809 25.06197 12.758257 25.03125 12.769531 z M 12.689453 15.417969 C 12.664475 15.407889 12.585078 15.423753 12.580078 15.501953 C 12.562418 15.774386 12.541914 15.987982 12.521484 16.240234 C 12.511394 16.363838 12.5 16.497165 12.5 16.630859 C 12.5 16.74387 12.516182 16.857035 12.542969 16.96875 C 12.556132 16.819297 12.568912 16.674208 12.580078 16.501953 C 12.585078 16.423753 12.664475 16.407889 12.689453 16.417969 C 12.722503 16.428059 12.741144 16.54526 12.789062 16.65625 C 12.849603 16.800034 13.120618 17.130382 13.226562 17.236328 C 13.294674 17.301908 13.35044 17.381355 13.408203 17.457031 C 13.557285 17.643698 13.706964 17.829201 13.845703 18.023438 C 13.934243 18.141996 14.000899 18.278661 14.048828 18.419922 C 14.169242 18.765108 14.197311 19.111464 14.207031 19.460938 C 14.216943 19.306929 14.216797 19.120212 14.216797 19.064453 C 14.216797 18.496885 14.238017 17.962264 14.048828 17.419922 C 14.000899 17.278661 13.934243 17.141996 13.845703 17.023438 C 13.706964 16.829203 13.557285 16.643698 13.408203 16.457031 C 13.35044 16.381355 13.294674 16.301908 13.226562 16.236328 C 13.120617 16.130382 12.849603 15.800034 12.789062 15.65625 C 12.741143 15.54526 12.722503 15.428059 12.689453 15.417969 z M 19.210938 15.417969 L 19.210938 15.419922 C 19.177888 15.430012 19.161211 15.54526 19.113281 15.65625 C 19.05274 15.800034 18.779775 16.130382 18.673828 16.236328 C 18.605721 16.301913 18.549947 16.381351 18.492188 16.457031 C 18.343107 16.643698 18.191472 16.829203 18.052734 17.023438 C 17.964193 17.141996 17.899493 17.278661 17.851562 17.419922 C 17.66237 17.962264 17.683594 18.496885 17.683594 19.064453 C 17.683594 19.119526 17.682029 19.303365 17.691406 19.457031 C 17.701278 19.108901 17.73159 18.763834 17.851562 18.419922 C 17.899493 18.278661 17.964193 18.141996 18.052734 18.023438 C 18.191472 17.829203 18.343107 17.643698 18.492188 17.457031 C 18.549947 17.381351 18.605721 17.301913 18.673828 17.236328 C 18.779775 17.130382 19.05274 16.800034 19.113281 16.65625 C 19.161211 16.54526 19.177888 16.430012 19.210938 16.419922 L 19.210938 16.417969 C 19.235907 16.407879 19.315267 16.423753 19.320312 16.501953 C 19.33148 16.674208 19.344259 16.819297 19.357422 16.96875 C 19.384209 16.857035 19.400391 16.74387 19.400391 16.630859 C 19.400391 16.497165 19.388996 16.363838 19.378906 16.240234 C 19.358476 15.987982 19.337972 15.774386 19.320312 15.501953 C 19.315267 15.423753 19.235907 15.407879 19.210938 15.417969 z M 9.046875 19.144531 C 8.981614 19.116341 8.7808412 19.17215 8.953125 19.310547 C 9.1251472 19.448945 10.650075 20.431781 10.783203 20.521484 C 10.913721 20.611184 11.713403 21.284104 11.882812 21.501953 C 12.055358 21.719802 12.398955 22.226464 12.730469 22.908203 C 12.956118 23.371712 13.147174 23.90965 13.210938 24.619141 C 13.312549 23.354531 13.050774 22.566146 12.730469 21.908203 C 12.398955 21.226464 12.055357 20.719802 11.882812 20.501953 C 11.762199 20.346852 11.381905 20.01747 11.091797 19.775391 C 11.103622 19.856068 11.096855 19.875551 10.962891 19.845703 C 10.79348 19.807263 9.8932659 19.498762 9.7128906 19.421875 C 9.5565309 19.352675 9.216548 19.218856 9.046875 19.144531 z M 22.951172 19.144531 C 22.7815 19.218861 22.443468 19.352676 22.287109 19.421875 C 22.106733 19.498765 21.20652 19.807259 21.037109 19.845703 C 20.903147 19.875548 20.896378 19.856069 20.908203 19.775391 C 20.618096 20.017465 20.237817 20.346835 20.117188 20.501953 C 19.944644 20.719802 19.601045 21.226464 19.269531 21.908203 C 18.949226 22.566146 18.68745 23.35453 18.789062 24.619141 C 18.852825 23.90965 19.043882 23.371712 19.269531 22.908203 C 19.601045 22.226464 19.944644 21.719802 20.117188 21.501953 C 20.2866 21.284104 21.084326 20.609234 21.214844 20.519531 C 21.347971 20.429831 22.874852 19.448946 23.046875 19.310547 C 23.219158 19.172149 23.016432 19.11634 22.951172 19.144531 z M 14.751953 25.185547 C 14.748553 25.188387 14.748047 25.196617 14.748047 25.216797 C 14.748047 25.254632 14.726238 25.401377 14.736328 25.492188 C 14.746678 25.58552 14.758874 25.791678 14.771484 25.892578 C 14.778784 25.953121 14.777691 26.063651 14.775391 26.179688 C 14.775391 26.183066 14.7754 26.186074 14.775391 26.189453 C 14.775391 26.189453 14.777344 26.189453 14.777344 26.189453 C 14.802324 26.199543 14.825281 26.295009 14.837891 26.337891 C 14.850501 26.383291 14.91959 26.621021 14.9375 26.699219 C 14.96752 26.83039 15.053464 27.225113 15.083984 27.361328 C 15.109327 27.484657 15.147869 27.645002 15.183594 27.796875 C 15.200048 27.790539 15.215476 27.791384 15.232422 27.777344 C 15.363593 27.666353 15.270512 27.397665 15.232422 27.011719 C 15.227662 26.971357 15.121824 26.545473 15.083984 26.361328 C 15.053464 26.225113 14.96752 25.83039 14.9375 25.699219 C 14.91959 25.621021 14.850501 25.383291 14.837891 25.337891 C 14.825281 25.295009 14.802324 25.199543 14.777344 25.189453 C 14.763474 25.185671 14.755453 25.182647 14.751953 25.185547 z M 17.226562 25.185547 C 17.223093 25.182747 17.215042 25.185653 17.201172 25.189453 C 17.176192 25.199543 17.153235 25.295011 17.140625 25.337891 C 17.128014 25.383296 17.058926 25.621019 17.041016 25.699219 C 17.010998 25.83039 16.925051 26.225112 16.894531 26.361328 C 16.856693 26.545472 16.748941 26.971359 16.744141 27.011719 C 16.706051 27.397664 16.61297 27.666353 16.744141 27.777344 C 16.760792 27.79114 16.776791 27.790529 16.792969 27.796875 C 16.828693 27.645005 16.869181 27.484697 16.894531 27.361328 C 16.925051 27.225112 17.010998 26.83039 17.041016 26.699219 C 17.058926 26.621019 17.128014 26.383296 17.140625 26.337891 C 17.153235 26.295011 17.176192 26.199543 17.201172 26.189453 C 17.201162 26.186043 17.201172 26.183096 17.201172 26.179688 C 17.198872 26.063652 17.197778 25.953118 17.205078 25.892578 C 17.217688 25.791677 17.231848 25.585518 17.242188 25.492188 C 17.252278 25.401377 17.228516 25.254637 17.228516 25.216797 C 17.228516 25.196617 17.230062 25.188447 17.226562 25.185547 z M 11.691406 26.519531 C 11.649906 26.540031 11.573449 26.589641 11.732422 26.779297 C 11.894524 26.96639 12.266475 27.364033 12.347656 27.451172 C 12.428576 27.540872 12.480804 27.591444 12.449219 27.650391 C 12.420769 27.709341 12.419764 27.799455 12.490234 27.878906 C 12.560714 27.958356 12.89243 28.334611 12.955078 28.414062 C 13.015118 28.493513 13.247278 28.808744 13.296875 28.939453 C 13.346735 29.067599 13.399039 29.177522 13.419922 29.326172 C 13.437932 29.474822 13.488138 29.773225 13.550781 29.921875 C 13.561907 29.94942 13.589178 29.971659 13.603516 30 L 14.599609 30 C 14.599609 30 13.94454 29.455906 13.832031 29.345703 C 13.722658 29.238059 13.610821 29.070525 13.550781 28.921875 C 13.488138 28.773225 13.437932 28.474822 13.419922 28.326172 C 13.399039 28.177522 13.346735 28.067599 13.296875 27.939453 C 13.247278 27.808744 13.015118 27.493513 12.955078 27.414062 C 12.895856 27.338957 12.607763 27.012396 12.515625 26.908203 C 12.383817 26.851142 12.234016 26.785423 12.15625 26.748047 C 12.01503 26.678847 11.73056 26.499028 11.691406 26.519531 z M 20.308594 26.519531 C 20.269434 26.499031 19.98497 26.678847 19.84375 26.748047 C 19.765984 26.785421 19.616182 26.851142 19.484375 26.908203 C 19.392238 27.012397 19.104145 27.338959 19.044922 27.414062 C 18.984884 27.493512 18.752725 27.808743 18.703125 27.939453 C 18.653268 28.067599 18.600958 28.177523 18.580078 28.326172 C 18.562066 28.474822 18.511869 28.773225 18.449219 28.921875 C 18.389181 29.070525 18.277343 29.23806 18.167969 29.345703 C 18.055463 29.455909 17.400391 30 17.400391 30 L 18.396484 30 C 18.410821 29.971659 18.438094 29.94942 18.449219 29.921875 C 18.511869 29.773225 18.562066 29.474822 18.580078 29.326172 C 18.600958 29.177523 18.653268 29.067599 18.703125 28.939453 C 18.752725 28.808743 18.984884 28.493512 19.044922 28.414062 C 19.107572 28.334612 19.439287 27.958358 19.509766 27.878906 C 19.580246 27.799456 19.579241 27.709338 19.550781 27.650391 C 19.519201 27.591441 19.571425 27.540874 19.652344 27.451172 C 19.733524 27.364032 20.105476 26.966391 20.267578 26.779297 C 20.426549 26.58964 20.350094 26.540035 20.308594 26.519531 z M 17.224609 26.691406 C 17.21822 26.767664 17.211416 26.841861 17.205078 26.892578 C 17.197778 26.953118 17.198872 27.063651 17.201172 27.179688 C 17.201172 27.255367 17.203672 27.330898 17.201172 27.396484 C 17.200554 27.417042 17.206643 27.454008 17.207031 27.478516 C 17.260909 27.408025 17.316641 27.346737 17.341797 27.298828 C 17.372317 27.240807 17.400391 27.224206 17.400391 27.191406 C 17.400391 27.161136 17.359375 27.121094 17.359375 27.121094 C 17.280864 26.982299 17.245372 26.832009 17.224609 26.691406 z M 14.753906 26.695312 C 14.732931 26.834836 14.694918 26.983679 14.617188 27.121094 C 14.617188 27.121094 14.576172 27.161136 14.576172 27.191406 C 14.576172 27.224197 14.604246 27.240808 14.634766 27.298828 C 14.659857 27.346619 14.715797 27.408186 14.769531 27.478516 C 14.76989 27.454498 14.776002 27.418635 14.775391 27.398438 C 14.772891 27.332857 14.775391 27.255362 14.775391 27.179688 C 14.777691 27.063651 14.778784 26.953121 14.771484 26.892578 C 14.765271 26.842861 14.759844 26.770099 14.753906 26.695312 z"/>
</svg>
