<svg xmlns="http://www.w3.org/2000/svg" width="32" height="32" version="1.1">
 <g transform="scale(0.5,0.5)">
  <path style="fill:#f4b400" d="M 32,4 A 28,28 0 0 0 4,32 28,28 0 0 0 32,60 28,28 0 0 0 60,32 28,28 0 0 0 32,4 Z"/>
  <path style="opacity:0.2;fill:#8b9cbe" d="M 28.418187,4.120092 C 24.7766,4.58164 21.364987,5.742508 18.304734,7.455714 l 1.987654,0.497583 1.285015,0.899478 0,0.770993 2.187152,1.416219 -0.514002,2.058766 -1.155869,-0.899698 -0.773912,0.899498 -0.899898,0.513942 -0.514142,-1.544625 0.256171,-0.899498 -0.256171,-0.642527 -1.287854,-1.159268 -0.514002,0 0.514002,1.287714 0,1.156488 c -0.506142,-0.140784 -1.026483,-0.190978 -1.544625,-0.25697 l 1.41624,1.030723 0.128505,0.642487 1.67323,1.416219 1.670511,-0.385496 0,-1.030723 0.773732,0.513982 -0.385496,0.902217 1.285014,0 0.645227,1.156489 0.771013,0.902218 1.544744,0.256991 -0.902237,0.899478 -0.257011,0.902217 1.159228,0 1.4135,0.770993 0,2.315737 -0.642507,0 -0.642507,0.642487 -1.41624,-0.642487 -0.514001,-1.416219 -1.030743,-0.642487 -0.128506,-0.513982 -1.67051,-0.385496 -0.902238,1.027983 -1.028003,0.513982 0.642507,1.159208 -0.899498,-0.256991 -0.516742,-1.159208 1.159249,-1.284974 -0.514002,0 -1.030883,0.899498 -0.257171,1.287854 -0.899498,1.155869 -0.256971,-1.669811 -0.516741,-0.259971 c -0.544838,0.577095 -0.954612,1.280735 -1.4135,1.930201 l -1.801735,0.128506 -0.902238,0.645227 0.388236,0.642487 1.028003,0.899478 1.41624,0 1.930241,-0.642487 0.899498,0.128505 0.771012,0.770993 2.058767,-2.058767 1.416239,-0.385496 2.058767,0.256991 1.930241,0.516721 c 1.051141,1.215882 2.091763,2.46632 3.08665,3.729177 l 1.159228,2.960864 -0.516741,0.513982 1.030743,1.544705 -1.159229,2.701094 c -0.937033,1.081477 -1.894125,2.132958 -2.829679,3.215235 l -1.416239,-1.156489 -0.514002,0.642487 -1.544745,-0.899498 -0.514001,0.514002 -1.4135,0 -0.902238,1.027983 0.514002,1.801716 -1.028003,1.159209 0.128505,2.058766 -0.899498,1.541985 0.642507,1.287714 c 0.05485,0.936374 0.128506,1.893105 0.128506,2.829679 -0.451609,1.268756 -0.989788,2.453922 -1.41624,3.731977 l -0.256991,2.058767 0,1.027983 -0.770992,0 -1.287734,-0.770993 -1.227581,0 c 4.58468,3.276829 10.191644,5.224608 16.281354,5.224608 4.572881,0 8.870394,-1.109174 12.674962,-3.037456 l 0.06289,-0.128505 -0.902238,-0.899498 -0.25701,-0.902218 -1.4135,-0.385496 -1.030743,-2.829679 0.257011,-0.642487 -0.642508,-1.159209 -1.67323,-0.385496 -0.771012,-1.930201 0.128505,-2.572708 -1.287734,-1.801716 -0.128505,-1.801716 c 1.755681,-0.888259 3.405613,-1.786597 5.148216,-2.701093 l 0.899498,-1.801716 1.544745,-0.385496 0.899498,-2.315738 2.058766,0.256991 1.930241,-1.41348 1.930241,1.798976 0,0.256991 c 0.582574,-0.17168 1.283015,-0.188738 1.801736,-0.513981 l 0.385496,-1.284975 0,-1.287714 1.285014,0.128506 C 54.792613,31.275872 54.621592,30.304362 54.514144,29.4397 l 0.773732,0 0.770993,1.027984 0.771013,0.385496 1.030743,-0.642487 0.128505,-1.284975 -0.128505,-1.544704 -1.673251,-1.159209 -1.285014,0 -0.25973,-0.770992 -1.542005,0.385496 -1.159229,1.416199 -0.257011,-2.444123 -2.058766,-1.67321 -0.642508,-1.930201 -1.544744,-0.642487 -0.899498,-1.159209 -1.930241,-0.385496 -0.902238,-1.544705 2.832479,0 -1.801736,-0.770992 -1.287734,0 -1.67051,-0.642487 -0.259731,1.67047 -0.770993,-1.156489 0.899498,-0.642487 -0.25699,-0.645227 0.645246,-0.642487 0.770993,-0.128501 -0.256991,-0.770993 0.642507,-1.159208 1.287734,0.513981 -0.257011,-1.027983 1.542005,-0.902218 1.159229,2.187152 -0.128505,0.645227 1.156508,0.513982 0.773733,1.67321 0.25701,-1.544705 2.058767,-0.770992 0.385496,-1.159209 -2.701293,-1.544705 -1.159229,-1.156489 -0.128505,-1.416219 0.06835,-0.04101 C 47.212755,8.35952 46.896791,8.18634 46.590826,7.999761 l 0.464787,1.115473 -1.287734,0 -0.385496,-1.030723 -1.156509,0.899478 -1.030743,0 0,-1.027983 1.159228,-0.516722 1.028004,0.645227 L 45.253857,7.82752 C 44.737916,7.453963 44.239972,7.027611 43.714032,6.668252 L 42.426298,7.056488 C 41.626509,7.610885 40.91101,8.173381 40.110561,8.726958 L 38.822827,7.57047 40.239066,7.056468 40.753068,5.768754 41.756474,5.656659 C 41.214536,5.456482 40.674597,5.252905 40.11866,5.085524 l -2.580907,1.842711 0,1.156489 1.028003,1.159209 -1.4135,2.829679 L 36.121513,11.55963 34.965004,9.629429 C 33.2372,9.084491 31.575389,8.452562 29.943574,7.699048 l 0.128505,0.770993 -0.771012,0.516721 -1.41624,-1.030723 0.645247,-0.770993 1.028004,0.513982 0.128505,-0.128499 -1.263857,-3.447609 z m -12.87214,5.118219 c -0.437151,0.317564 -0.8811,0.625929 -1.298653,0.96769 l 0.511262,0.576875 1.416239,-1.544705 -0.628828,0 z m 10.66279,1.41622 0.773733,0 0,0.770992 -0.514002,0.642487 0,1.159209 0.257011,1.67321 -1.287734,-0.256991 -1.028004,-0.902217 0.899498,-0.899478 c 0.282028,-0.766673 0.546338,-1.451836 0.899498,-2.187152 z m 1.930241,1.67321 0.773733,0.256991 -0.128506,1.541985 -1.159228,-0.642487 0.514001,-1.156489 z M 8.0693538,25.450053 6.9100857,26.735907 5.6250314,26.607921 c -0.4523087,0.418953 -0.9019777,0.778592 -1.3232899,1.197484 -0.1927181,1.33111 -0.2980062,2.692895 -0.2980062,4.079138 0,9.192757 4.4069005,17.296038 11.2095287,22.39346 l -1.741602,-2.067765 0.25977,-0.899898 -1.544624,-1.287854 1.156468,-1.157869 -1.285054,-1.027883 -1.287654,-0.771913 -0.514001,-0.645227 0.385496,-1.413479 0,-3.603392 -1.0278843,-2.187752 -1.1592679,-1.287853 -1.4162401,-3.343621 0,-0.902218 c 0.662245,0.08513 1.282255,0.212796 1.9302411,0.259731 l -1.2850141,-1.4162 -1.8017354,-1.287714 -1.0307432,-1.156489 0,-1.159208 c 0.2207749,-0.425952 0.423152,-0.989888 0.6453268,-1.41384 l 0.899498,1.156489 0.6425068,-0.899478 1.030743,-0.773712 0,-1.541985 z m 5.0170322,0.642487 -1.156509,1.413479 -1.544745,3.217835 -0.8994982,1.027984 0.514002,1.159208 -0.899498,1.027984 c 0.375897,0.02472 0.770212,0 1.1565092,0 0.70172,-1.50449 1.267356,-3.057453 1.801735,-4.631475 l 0.899498,-1.027983 0.516742,-1.930201 -0.388236,-0.256991 z m 46.890682,5.057426 c -0.05131,0.08969 -0.185919,0.347221 -0.185919,0.347221 l -2.187152,1.287714 -2.315738,0.642487 -0.902237,1.287714 -1.542005,1.156489 -0.773733,-0.256991 -0.642507,0.385496 0,0.128506 0.771013,2.444122 0.645227,0.902218 -0.128506,0.513982 0.514002,1.930201 -1.930241,3.475006 -1.930241,1.798976 -0.899498,1.159208 0.128505,2.701094 -0.645247,1.416219 0.472987,2.077765 c 7.008805,-5.078624 11.570487,-13.307291 11.570487,-22.66143 0,-0.246472 -0.0126,-0.490545 -0.019,-0.735437 z"/>
  <path style="opacity:0.2;fill:#8b9cbe" d="M 32,4 A 28.0005,28.021517 0 0 0 4,32.021986 28.0005,28.021517 0 0 0 4.0214844,32.428158 28.0005,28.021517 0 0 1 32,4.9998088 28.0005,28.021517 0 0 1 59.978516,32.6 28.0005,28.021517 0 0 0 60,32.021986 28.0005,28.021517 0 0 0 32,4 Z"/>
  <path style="opacity:0.2" d="M 4.0214844,32.5 A 28,27.923455 0 0 0 4,33.076545 28,27.923455 0 0 0 32,61 28,27.923455 0 0 0 60,33.076545 28,27.923455 0 0 0 59.978516,32.671405 28,27.923455 0 0 1 32,60.002734 28,27.923455 0 0 1 4.0214844,32.5 Z"/>
  <g style="opacity:0.3" transform="translate(-4.5597897e-7,1.0003026)">
   <path d="M 21,31.411697 18.527864,26.402603 13,25.599358 17,21.700321 16.055728,16.194794 21,18.794151 25.944271,16.194794 25,21.700321 l 4,3.899036 -5.527864,0.803246 z"/>
   <path d="M 40,26.608452 37.527864,21.599357 32,20.796112 36,16.897076 35.055728,11.391548 40,13.990906 44.944271,11.391548 44,16.897076 l 4,3.899036 -5.527864,0.803246 z"/>
   <path d="M 23,51.411697 20.527864,46.402603 15,45.599358 19,41.700321 18.055728,36.194794 23,38.794151 27.944271,36.194794 27,41.700321 l 4,3.899036 -5.527864,0.803246 z"/>
   <path d="M 45,45.411697 42.527864,40.402603 37,39.599358 41,35.700321 40.055728,30.194794 45,32.794151 49.944271,30.194794 49,35.700321 l 4,3.899036 -5.527864,0.803246 z"/>
  </g>
  <path style="fill:#8b9cbe" d="M 21,31.411697 18.527864,26.402603 13,25.599358 17,21.700321 16.055728,16.194794 21,18.794151 25.944271,16.194794 25,21.700321 l 4,3.899036 -5.527864,0.803246 z"/>
  <g>
   <path style="fill:#8b9cbe" d="M 40,26.608452 37.527864,21.599357 32,20.796112 36,16.897076 35.055728,11.391548 40,13.990906 44.944271,11.391548 44,16.897076 l 4,3.899036 -5.527864,0.803246 z"/>
  </g>
  <path style="fill:#8b9cbe" d="M 23,51.411697 20.527864,46.402603 15,45.599358 19,41.700321 18.055728,36.194794 23,38.794151 27.944271,36.194794 27,41.700321 l 4,3.899036 -5.527864,0.803246 z"/>
  <g>
   <path style="fill:#8b9cbe" d="M 45,45.411697 42.527864,40.402603 37,39.599358 41,35.700321 40.055728,30.194794 45,32.794151 49.944271,30.194794 49,35.700321 l 4,3.899036 -5.527864,0.803246 z"/>
  </g>
 </g>
</svg>
