<svg xmlns="http://www.w3.org/2000/svg" width="32" height="32" version="1">
 <rect style="opacity:0.2" width="28" height="28" x="2" y="3" rx="1.4" ry="1.4"/>
 <rect style="fill:#f58800" width="28" height="28" x="2" y="2" rx="1.4" ry="1.4"/>
 <path style="fill:none;stroke:#17191e;stroke-width:1.5" d="M 9.7,21.6 16,10.4 22.3,21.6"/>
 <path style="opacity:0.2" d="M 13.333984,8 C 12.595318,8 12,8.6247906 12,9.4003906 V 13.599609 C 12,14.375209 12.595318,15 13.333984,15 h 5.332032 C 19.404682,15 20,14.375209 20,13.599609 V 9.4003906 C 20,8.6247906 19.404682,8 18.666016,8 Z M 7.3339844,19 C 6.5953178,19 6,19.624791 6,20.400391 v 4.199218 C 6,25.375209 6.5953178,26 7.3339844,26 H 12.666016 C 13.404682,26 14,25.375209 14,24.599609 V 20.400391 C 14,19.624791 13.404682,19 12.666016,19 Z M 19.333984,19 C 18.595318,19 18,19.624791 18,20.400391 v 4.199218 C 18,25.375209 18.595318,26 19.333984,26 h 5.332032 C 25.404682,26 26,25.375209 26,24.599609 V 20.400391 C 26,19.624791 25.404682,19 24.666016,19 Z"/>
 <path style="fill:#8b9cbe" d="M 13.333984 7 C 12.595318 7 12 7.6247906 12 8.4003906 L 12 12.599609 C 12 13.375209 12.595318 14 13.333984 14 L 18.666016 14 C 19.404682 14 20 13.375209 20 12.599609 L 20 8.4003906 C 20 7.6247906 19.404682 7 18.666016 7 L 13.333984 7 z M 7.3339844 18 C 6.5953178 18 6 18.624791 6 19.400391 L 6 23.599609 C 6 24.375209 6.5953178 25 7.3339844 25 L 12.666016 25 C 13.404682 25 14 24.375209 14 23.599609 L 14 19.400391 C 14 18.624791 13.404682 18 12.666016 18 L 7.3339844 18 z M 19.333984 18 C 18.595318 18 18 18.624791 18 19.400391 L 18 23.599609 C 18 24.375209 18.595318 25 19.333984 25 L 24.666016 25 C 25.404682 25 26 24.375209 26 23.599609 L 26 19.400391 C 26 18.624791 25.404682 18 24.666016 18 L 19.333984 18 z"/>
 <path style="fill:#8b9cbe;opacity:0.2" d="M 3.4003906 2 C 2.6247906 2 2 2.6247906 2 3.4003906 L 2 4.4003906 C 2 3.6247906 2.6247906 3 3.4003906 3 L 28.599609 3 C 29.375209 3 30 3.6247906 30 4.4003906 L 30 3.4003906 C 30 2.6247906 29.375209 2 28.599609 2 L 3.4003906 2 z"/>
</svg>
