<svg xmlns="http://www.w3.org/2000/svg" width="32" height="32" version="1.1">
 <rect style="opacity:0.2" width="28" height="28" x="2" y="3" rx="2.8" ry="2.8"/>
 <rect style="fill:#75aa03" width="28" height="28" x="2" y="2" rx="2.8" ry="2.8"/>
 <path style="opacity:0.2" d="m 12.003906,8.1660156 -0.408203,0.2695313 1.035156,1.5527343 C 11.229302,10.876789 10.234518,12.382598 9.8632812,14 H 22.134766 C 21.764191,12.38232 20.770472,10.877373 19.369141,9.9882812 L 20.404297,8.4355469 19.996094,8.1660156 18.943359,9.7421875 C 18.037354,9.2584942 17.027029,9.00383 16,9 14.971927,9.0019 13.96033,9.2553649 13.052734,9.7382812 Z M 13.25,11 A 0.75,0.75 0 0 1 14,11.75 0.75,0.75 0 0 1 13.25,12.5 0.75,0.75 0 0 1 12.5,11.75 0.75,0.75 0 0 1 13.25,11 Z m 5.5,0 A 0.75,0.75 0 0 1 19.5,11.75 0.75,0.75 0 0 1 18.75,12.5 0.75,0.75 0 0 1 18,11.75 0.75,0.75 0 0 1 18.75,11 Z M 7.984375,15 A 0.99999646,1.0867674 0 0 0 7,16.101562 v 5.796876 a 1,1.0867712 0 1 0 2,0 V 16.101562 A 0.99999646,1.0867674 0 0 0 7.984375,15 Z M 10,15 v 0.787109 1.375 5.5 V 24.625 C 10,25.38675 10.595318,26 11.333984,26 H 13 v -1 h 2.333984 v -0.962891 -0.06055 C 15.072324,23.930955 14.84916,23.853787 14.650391,23.759766 13.062585,23.190667 12.002394,21.686711 12,20 c 0,-2.209139 1.790861,-4 4,-4 2.209139,0 4,1.790861 4,4 -8.12e-4,1.661395 -1.028528,3.149329 -2.582031,3.738281 -0.226563,0.104108 -0.471796,0.1914 -0.751953,0.240235 V 24.037109 25 H 19 v 1 h 1.666016 C 21.404682,26 22,25.38675 22,24.625 v -1.962891 -5.5 -1.375 V 15 Z m 13.984375,0 A 0.99999646,1.0867679 0 0 0 23,16.101562 v 5.796876 a 1,1.0867717 0 1 0 2,0 V 16.101562 A 0.99999646,1.0867679 0 0 0 23.984375,15 Z M 16,18 a 2,2 0 0 0 -2,2 2,2 0 0 0 2,2 2,2 0 0 0 2,-2 2,2 0 0 0 -2,-2 z m 0,0.666016 A 1.3333333,1.3333333 0 0 1 17.333984,20 1.3333333,1.3333333 0 0 1 16,21.333984 1.3333333,1.3333333 0 0 1 14.666016,20 1.3333333,1.3333333 0 0 1 14.726562,19.607422 0.66666666,0.66666666 0 0 0 15.333984,20 0.66666666,0.66666666 0 0 0 16,19.333984 0.66666666,0.66666666 0 0 0 15.607422,18.726562 1.3333333,1.3333333 0 0 1 16,18.666016 Z"/>
 <path style="fill:#8b9cbe" d="M 12.003906 7.1660156 L 11.595703 7.4355469 L 12.630859 8.9882812 C 11.229302 9.8767889 10.234518 11.382598 9.8632812 13 L 22.134766 13 C 21.764191 11.38232 20.770472 9.8773728 19.369141 8.9882812 L 20.404297 7.4355469 L 19.996094 7.1660156 L 18.943359 8.7421875 C 18.037354 8.2584942 17.027029 8.00383 16 8 C 14.971927 8.0019 13.96033 8.2553649 13.052734 8.7382812 L 12.003906 7.1660156 z M 13.25 10 A 0.75 0.75 0 0 1 14 10.75 A 0.75 0.75 0 0 1 13.25 11.5 A 0.75 0.75 0 0 1 12.5 10.75 A 0.75 0.75 0 0 1 13.25 10 z M 18.75 10 A 0.75 0.75 0 0 1 19.5 10.75 A 0.75 0.75 0 0 1 18.75 11.5 A 0.75 0.75 0 0 1 18 10.75 A 0.75 0.75 0 0 1 18.75 10 z M 7.984375 14 A 0.99999646 1.0867674 0 0 0 7 15.101562 L 7 20.898438 A 0.99999646 1.0867674 0 1 0 9 20.898438 L 9 15.101562 A 0.99999646 1.0867674 0 0 0 7.984375 14 z M 10 14 L 10 14.787109 L 10 16.162109 L 10 21.662109 L 10 23.625 C 10 24.38675 10.595318 25 11.333984 25 L 13 25 L 13 24 L 15.333984 24 L 15.333984 23.037109 L 15.333984 22.976562 C 15.072324 22.930955 14.84916 22.853787 14.650391 22.759766 C 13.062585 22.190667 12.002394 20.686711 12 19 C 12 16.790861 13.790861 15 16 15 C 18.209139 15 20 16.790861 20 19 C 19.999188 20.661395 18.971472 22.149329 17.417969 22.738281 C 17.191406 22.842389 16.946173 22.929681 16.666016 22.978516 L 16.666016 23.037109 L 16.666016 24 L 19 24 L 19 25 L 20.666016 25 C 21.404682 25 22 24.38675 22 23.625 L 22 21.662109 L 22 16.162109 L 22 14.787109 L 22 14 L 10 14 z M 23.984375 14 A 0.99999646 1.0867679 0 0 0 23 15.101562 L 23 20.898438 A 0.99999646 1.0867679 0 1 0 25 20.898438 L 25 15.101562 A 0.99999646 1.0867679 0 0 0 23.984375 14 z M 16 17 A 2 2 0 0 0 14 19 A 2 2 0 0 0 16 21 A 2 2 0 0 0 18 19 A 2 2 0 0 0 16 17 z M 16 17.666016 A 1.3333333 1.3333333 0 0 1 17.333984 19 A 1.3333333 1.3333333 0 0 1 16 20.333984 A 1.3333333 1.3333333 0 0 1 14.666016 19 A 1.3333333 1.3333333 0 0 1 14.726562 18.607422 A 0.66666666 0.66666666 0 0 0 15.333984 19 A 0.66666666 0.66666666 0 0 0 16 18.333984 A 0.66666666 0.66666666 0 0 0 15.607422 17.726562 A 1.3333333 1.3333333 0 0 1 16 17.666016 z"/>
 <path style="fill:#8b9cbe;opacity:0.2" d="M 4.8007812 2 C 3.2495813 2 2 3.2495813 2 4.8007812 L 2 5.8007812 C 2 4.2495813 3.2495813 3 4.8007812 3 L 27.199219 3 C 28.750419 3 30 4.2495813 30 5.8007812 L 30 4.8007812 C 30 3.2495813 28.750419 2 27.199219 2 L 4.8007812 2 z"/>
</svg>
