<svg xmlns="http://www.w3.org/2000/svg" width="32" height="32" version="1">
 <rect style="opacity:0.2" width="28" height="28" x="2" y="3" rx="8.4" ry="8.4"/>
 <rect style="fill:#b2bfd9" width="28" height="28" x="2" y="2" rx="8.4" ry="8.4"/>
 <path style="opacity:0.1" d="M 9.84375 7 C 9.304854 7 9 7.4049311 9 7.9082031 L 9 12.333984 C 9 12.333984 9.0006444 13 8.3339844 13 L 7 13 L 10 16.333984 L 13 19.666016 L 15.78125 16.576172 C 14.197397 14.913241 12.582351 12.937312 12.126953 7.6953125 C 12.093263 7.1236885 11.583984 7 11.583984 7 L 9.84375 7 z M 14.662109 7 C 14.662109 7 14.120406 7.1703404 14.039062 7.6152344 C 13.455374 11.048206 13.85531 14.052859 16.052734 16.273438 L 19 13 L 17.666016 13 C 16.999348 13 17 12.333984 17 12.333984 L 17 7.9082031 C 17 7.4049311 16.437341 7 15.898438 7 L 14.662109 7 z M 19 14.333984 L 16.21875 17.423828 C 17.802603 19.086759 19.417649 21.062689 19.873047 26.304688 C 19.906737 26.876311 20.416016 27 20.416016 27 L 22.15625 27 C 22.695146 27 23 26.595069 23 26.091797 L 23 21.666016 C 23 21.666016 22.999356 21 23.666016 21 L 25 21 L 22 17.666016 L 19 14.333984 z M 15.947266 17.726562 L 13 21 L 14.333984 21 C 15.000652 21 15 21.666016 15 21.666016 L 15 26.091797 C 15 26.595069 15.56266 27 16.101562 27 L 17.337891 27 C 17.337891 27 17.879594 26.82966 17.960938 26.384766 C 18.544626 22.951794 18.14469 19.94714 15.947266 17.726562 z"/>
 <g transform="translate(0,-1.000166)">
  <path style="fill:#5c3420" d="m 19.000004,14.333332 -2.781253,3.091145 c 1.583853,1.662931 3.199355,3.638048 3.654753,8.880047 C 19.907196,26.876148 20.416333,27 20.416333,27 h 1.739919 c 0.538896,0 0.843752,-0.405584 0.843752,-0.908856 v -4.42448 c 0,0 0,-0.666668 0.66666,-0.666668 H 25 L 21.999998,17.666664 Z M 15.946613,17.72656 13,20.999996 h 1.333336 c 0.666668,0 0.666668,0.666668 0.666668,0.666668 v 4.42448 C 15.000004,26.594416 15.56266,27 16.101563,27 h 1.235789 c 0,0 0.541626,-0.169866 0.62297,-0.61476 0.583689,-3.432972 0.183715,-6.438102 -2.013709,-8.65868 z"/>
  <path style="fill:#e8580d" d="m 12.999996,19.667 2.781253,-3.091145 C 14.197396,14.912924 12.581894,12.937807 12.126496,7.695808 12.092806,7.124184 11.583667,7.000332 11.583667,7.000332 H 9.843748 c -0.538896,0 -0.843752,0.405584 -0.843752,0.908856 v 4.42448 c 0,0 0,0.666668 -0.66666,0.666668 H 7 l 3.000002,3.333332 z M 16.053387,16.273772 19,13.000336 h -1.333336 c -0.666668,0 -0.666668,-0.666668 -0.666668,-0.666668 v -4.42448 c 0,-0.503272 -0.562656,-0.908856 -1.101559,-0.908856 h -1.235789 c 0,0 -0.541626,0.169866 -0.62297,0.61476 -0.583689,3.432972 -0.183715,6.438102 2.013709,8.65868 z"/>
 </g>
 <path style="fill:#8b9cbe;opacity:0.2" d="M 10.400391 2 C 5.7467908 2 2 5.7467908 2 10.400391 L 2 11.400391 C 2 6.7467908 5.7467908 3 10.400391 3 L 21.599609 3 C 26.253209 3 30 6.7467908 30 11.400391 L 30 10.400391 C 30 5.7467908 26.253209 2 21.599609 2 L 10.400391 2 z"/>
</svg>
