<svg xmlns="http://www.w3.org/2000/svg" width="32" height="32" version="1">
 <path style="opacity:0.2" d="M 8.6942464,30.990452 C 7.6218067,30.978272 7.0393636,30.959372 7,30.910882 7,30.999979 7.0449214,3.4185331 7.0449214,3.4185331 7.1833554,3.2769373 7.9126149,3.2085334 10.702526,3.0754495 c 1.838907,-0.08771 5.650959,-0.1022838 6.824502,-0.02611 2.008738,0.1304309 3.003813,0.2751068 4.303602,0.6257083 1.294062,0.3490546 2.322881,0.8659061 2.462211,1.2369266 0.04866,0.1295558 0.29243,1.4556413 0.465416,2.5317363 0.123789,0.7700345 0.220253,1.580564 0.220253,1.8506157 0,0.377986 -0.154612,0.4987361 -0.818778,0.6394634 -0.816054,0.1729002 -1.37434,0.076987 -4.779009,0.066213 -3.656195,-0.01155 -3.827172,0.120161 -4.343268,0.378293 -0.680271,0.340445 -1.073769,1.046355 -1.122644,1.789708 -0.01549,1.253585 0.90256,2.215424 1.752355,2.396393 1.140113,0.235179 2.476826,0.350552 6.225695,0.571661 0.504004,0.02975 1.004205,0.07305 1.027274,0.09628 0.07476,0.07528 0.05681,0.31483 0.08686,1.020079 0.03463,0.812671 -0.0325,1.019645 -0.285902,1.564538 -0.541499,1.164512 -1.937279,1.759615 -4.23935,2.05405 -0.742474,0.09496 -1.557215,0.149856 -2.242677,0.151116 -0.429858,7e-4 -0.789132,0.02842 -0.988712,0.07614 -0.76299,0.1823 -1.263115,0.846984 -1.334553,1.773658 -0.03558,0.461425 0.04298,1.100805 0.257372,1.547153 0.361354,0.75243 0.95912,1.165184 1.932297,1.334247 1.364725,0.237076 2.54237,0.230633 5.94203,0.266941 l 2.942011,0.03143 -1.44e-4,0.489394 c -1.43e-4,0.415092 0.03548,2.682238 -0.02385,3.634153 l -0.03073,0.493339 c -0.417918,0.231647 -1.046546,0.387408 -1.440381,0.524159 -0.364352,0.167874 -1.754172,0.465772 -2.74909,0.589259 -1.595209,0.197995 -2.126826,0.206955 -6.425549,0.215775 -2.321053,0.0049 -4.8525256,0.0014 -5.6255005,-0.0073 z"/>
 <path style="fill:#c06e00" d="M 8.6942464,29.990457 C 7.6218067,29.978277 7.0393636,29.959377 7,29.910887 7,29.999984 7.0449214,2.4185377 7.0449214,2.4185377 7.1833554,2.2769419 7.9126149,2.208538 10.702526,2.0754541 c 1.838907,-0.08771 5.650959,-0.1022838 6.824502,-0.02611 2.008738,0.1304309 3.003813,0.2751068 4.303602,0.6257083 1.294062,0.3490546 2.322881,0.8659061 2.462211,1.2369266 0.04866,0.1295558 0.29243,1.4556413 0.465416,2.5317363 0.123789,0.7700345 0.220253,1.580564 0.220253,1.8506157 0,0.377986 -0.154612,0.4987361 -0.818778,0.6394634 -0.816054,0.1729 -1.37434,0.076987 -4.779009,0.066213 -3.656195,-0.01155 -3.827172,0.1201613 -4.343268,0.3782934 -0.680271,0.3404451 -1.073769,1.0463552 -1.122644,1.7897082 -0.01549,1.253585 0.90256,2.215424 1.752355,2.396393 1.140113,0.235179 2.476826,0.350552 6.225695,0.571661 0.504004,0.02975 1.004205,0.07305 1.027274,0.09628 0.07476,0.07528 0.05681,0.31483 0.08686,1.020079 0.03463,0.812671 -0.0325,1.019645 -0.285902,1.564538 -0.541499,1.164512 -1.937279,1.759615 -4.23935,2.05405 -0.742474,0.09496 -1.557215,0.149856 -2.242677,0.151116 -0.429858,7e-4 -0.789132,0.02842 -0.988712,0.07614 -0.76299,0.1823 -1.263115,0.846984 -1.334553,1.773658 -0.03558,0.461425 0.04298,1.100805 0.257372,1.547153 0.361354,0.75243 0.95912,1.165184 1.932297,1.334247 1.364725,0.237076 2.54237,0.230633 5.94203,0.266941 l 2.942011,0.03143 -1.44e-4,0.489394 c -1.43e-4,0.415092 0.03548,2.682238 -0.02385,3.634153 l -0.03073,0.493339 c -0.417918,0.231647 -1.046546,0.387408 -1.440381,0.524159 -0.364352,0.167874 -1.754172,0.465772 -2.74909,0.589259 -1.595209,0.197995 -2.126826,0.206955 -6.425549,0.215775 -2.321053,0.0049 -4.8525256,0.0014 -5.6255005,-0.0073 z"/>
 <path style="fill:#8b9cbe;opacity:0.1" d="M 14.365234 2 C 13.035665 2.0050855 11.622578 2.0323169 10.703125 2.0761719 C 7.9132139 2.2092558 7.1833559 2.276373 7.0449219 2.4179688 C 7.0449219 2.4179687 7 29.999253 7 29.910156 C 7.0000826 29.910258 7.0018658 29.910055 7.0019531 29.910156 C 7.0049877 28.126699 7.0449219 3.4179688 7.0449219 3.4179688 C 7.1833559 3.276373 7.9132139 3.2092558 10.703125 3.0761719 C 12.542032 2.9884619 16.353801 2.9726543 17.527344 3.0488281 C 19.536082 3.179259 20.530289 3.3251798 21.830078 3.6757812 C 23.12414 4.0248358 24.153639 4.5410889 24.292969 4.9121094 C 24.341629 5.0416652 24.584827 6.3672644 24.757812 7.4433594 C 24.834978 7.9233699 24.855349 8.2269016 24.894531 8.5976562 C 24.946191 8.5170027 24.978516 8.4256373 24.978516 8.2949219 C 24.978516 8.0248702 24.881601 7.2133939 24.757812 6.4433594 C 24.584827 5.3672644 24.341629 4.0416652 24.292969 3.9121094 C 24.153639 3.5410889 23.12414 3.0248359 21.830078 2.6757812 C 20.530289 2.3251798 19.536082 2.179259 17.527344 2.0488281 C 16.940572 2.0107412 15.694804 1.9949145 14.365234 2 z M 13.988281 11.765625 C 13.956158 11.898181 13.923081 12.030802 13.914062 12.167969 C 13.898573 13.421554 14.818174 14.383484 15.667969 14.564453 C 16.808082 14.799632 18.143709 14.91561 21.892578 15.136719 C 22.396582 15.166469 22.896853 15.209192 22.919922 15.232422 C 22.97795 15.290854 22.983975 15.520643 22.996094 15.917969 C 23.013075 15.740259 23.020068 15.539561 23.007812 15.251953 C 22.977762 14.546704 22.994682 14.307702 22.919922 14.232422 C 22.896853 14.209192 22.396582 14.166469 21.892578 14.136719 C 18.143709 13.91561 16.808082 13.799632 15.667969 13.564453 C 14.960266 13.413744 14.212046 12.716962 13.988281 11.765625 z M 13.957031 21.673828 C 13.946561 21.741816 13.921503 21.799914 13.916016 21.871094 C 13.880436 22.332519 13.959436 22.973574 14.173828 23.419922 C 14.535182 24.172352 15.132292 24.584843 16.105469 24.753906 C 17.470194 24.990982 18.647215 24.983223 22.046875 25.019531 L 24.990234 25.050781 L 24.990234 25.541016 C 24.990196 25.653196 24.993488 26.09386 24.996094 26.414062 C 24.996865 25.57019 24.990154 24.775056 24.990234 24.541016 L 24.990234 24.050781 L 22.046875 24.019531 C 18.647215 23.983223 17.470194 23.990982 16.105469 23.753906 C 15.132292 23.584843 14.535182 23.172352 14.173828 22.419922 C 14.069763 22.203266 13.99957 21.939017 13.957031 21.673828 z"/>
 <path style="fill:#d39447" d="m 7.1284545,2.3855247 c -0.022306,0.011411 -0.071662,0.020364 -0.083834,0.032813 v 0.045117 C 10.093022,5.9796851 11.995175,11.235857 12,16.549949 c -0.0048,5.1629 -1.809499,9.889634 -4.7092873,13.395348 0.2581455,0.02184 0.6702346,0.03679 1.4035337,0.04511 0.7729749,0.0087 3.3038976,0.01174 5.6249516,0.0069 4.298722,-0.0088 4.831568,-0.01665 6.426777,-0.214649 0.994918,-0.123487 2.384572,-0.421384 2.748924,-0.589258 0.393835,-0.136751 1.022123,-0.293353 1.440042,-0.525 l 0.0311,-0.493555 c 0.05933,-0.951915 0.02285,-3.21802 0.02298,-3.633113 v -0.489453 l -2.94093,-0.03144 c -3.399659,-0.03631 -4.577981,-0.03089 -5.942706,-0.267969 -0.973177,-0.169064 -1.570871,-0.581946 -1.932226,-1.334376 -0.214393,-0.446348 -0.292493,-1.085378 -0.256909,-1.546802 0.07144,-0.926674 0.571584,-1.590942 1.334575,-1.773243 0.199579,-0.04772 0.558565,-0.07586 0.988422,-0.07656 0.685463,-0.0013 1.499394,-0.05543 2.241868,-0.150391 2.30207,-0.294434 3.697868,-0.890372 4.239367,-2.054883 0.253398,-0.544893 0.321287,-0.751392 0.286656,-1.564063 -0.03005,-0.705249 -0.01178,-0.944638 -0.08654,-1.019922 -0.02307,-0.02323 -0.523632,-0.06732 -1.027635,-0.09707 -3.748869,-0.221109 -5.085567,-0.336305 -6.225679,-0.571484 -0.849795,-0.180968 -1.767882,-1.142088 -1.752389,-2.395672 0.04888,-0.743353 0.442015,-1.4492031 1.122286,-1.7896482 0.5161,-0.2581552 0.68692,-0.3902844 4.343115,-0.3787344 3.40467,0.010773 3.963802,0.107275 4.779856,-0.065625 0.664166,-0.1407273 0.818053,-0.2618589 0.818053,-0.6398435 0,-0.090777 -0.02409,-0.3054402 -0.04327,-0.4962897 C 20.291733,4.7422883 13.958616,2.8171741 7.1284545,2.3855247 Z"/>
 <path style="fill:#fdd161" d="M 22.949001,14.296824 C 16.515044,15.065379 12.007936,18.130697 12,21.550268 c 0.0068,3.836434 5.556041,6.724575 12.941702,7.021005 l 0.02434,-0.396485 c 0.05933,-0.951914 0.02285,-3.21802 0.02298,-3.633112 v -0.489454 l -2.94093,-0.03144 c -3.399659,-0.03631 -4.577981,-0.03089 -5.942706,-0.267969 -0.973177,-0.169063 -1.570871,-0.581946 -1.932225,-1.334375 -0.214394,-0.446348 -0.292494,-1.085378 -0.256909,-1.546803 0.07144,-0.926673 0.571583,-1.590942 1.334574,-1.773242 0.199579,-0.04772 0.558565,-0.07586 0.988422,-0.07656 0.685463,-0.0013 1.499394,-0.05543 2.241868,-0.150391 2.30207,-0.294434 3.697869,-0.890371 4.239368,-2.054883 0.253397,-0.544893 0.321285,-0.751392 0.286655,-1.564063 -0.02478,-0.581611 -0.01973,-0.838441 -0.05814,-0.955664 z"/>
 <path style="opacity:0.2;fill:#8b9cbe" d="M 7.1289062 2.3847656 C 7.1066002 2.3961766 7.0570939 2.4055198 7.0449219 2.4179688 L 7.0449219 2.4628906 C 7.3136188 2.7728236 7.5621285 3.1114483 7.8125 3.4472656 C 14.313168 3.9561146 20.321935 5.8122893 24.794922 8.7148438 C 24.93036 8.6180942 24.978516 8.4927732 24.978516 8.2949219 C 24.978516 8.2041449 24.954727 7.9896776 24.935547 7.7988281 C 20.292345 4.7428532 13.959068 2.816415 7.1289062 2.3847656 z M 13.988281 11.767578 C 13.956446 11.899511 13.924991 12.031477 13.916016 12.167969 C 13.900523 13.421553 14.818174 14.383485 15.667969 14.564453 C 16.808081 14.799632 18.143709 14.91561 21.892578 15.136719 C 22.396581 15.166469 22.898805 15.209192 22.921875 15.232422 C 22.979903 15.290857 22.984062 15.520686 22.996094 15.917969 C 23.013197 15.740336 23.020069 15.539561 23.007812 15.251953 C 22.977763 14.546704 22.994682 14.307706 22.919922 14.232422 C 22.896852 14.209192 22.396581 14.164516 21.892578 14.134766 C 18.143709 13.913657 16.808081 13.799632 15.667969 13.564453 C 14.960569 13.413809 14.212412 12.718117 13.988281 11.767578 z M 11.978516 17.058594 C 11.85921 22.021484 10.094644 26.555851 7.2910156 29.945312 C 7.4265591 29.95678 7.7827043 29.961044 8.0273438 29.96875 C 10.48644 26.582692 11.995627 22.254239 12 17.550781 C 11.999851 17.386359 11.982275 17.222856 11.978516 17.058594 z M 13.957031 21.675781 C 13.94667 21.7433 13.921464 21.800425 13.916016 21.871094 C 13.880432 22.332518 13.959435 22.971621 14.173828 23.417969 C 14.535183 24.170399 15.132292 24.584842 16.105469 24.753906 C 17.470194 24.990985 18.649169 24.985174 22.048828 25.021484 L 24.990234 25.052734 L 24.990234 25.541016 C 24.990199 25.654702 24.993357 26.099427 24.996094 26.425781 C 24.996754 25.577653 24.988208 24.776261 24.988281 24.541016 L 24.988281 24.052734 L 22.048828 24.021484 C 18.649169 23.985174 17.470194 23.989032 16.105469 23.751953 C 15.132292 23.582889 14.535183 23.170399 14.173828 22.417969 C 14.070026 22.201861 13.9995 21.940198 13.957031 21.675781 z"/>
 <path style="opacity:0.2;fill:#8b9cbe" d="M 22.949219 14.296875 C 16.515262 15.06543 12.007936 18.13121 12 21.550781 C 12.000286 21.712384 12.023291 21.869229 12.042969 22.027344 C 12.482614 18.822856 16.845821 16.025944 22.949219 15.296875 C 22.976161 15.379098 22.980765 15.683297 22.990234 15.966797 C 23.012327 15.779162 23.021209 15.566334 23.007812 15.251953 C 22.983033 14.670342 22.987629 14.414098 22.949219 14.296875 z M 13.957031 21.673828 C 13.94656 21.741812 13.921503 21.799914 13.916016 21.871094 C 13.880431 22.332519 13.959434 22.971621 14.173828 23.417969 C 14.535182 24.170398 15.132292 24.58289 16.105469 24.751953 C 17.470194 24.989032 18.649169 24.985174 22.048828 25.021484 L 24.988281 25.052734 L 24.988281 25.541016 C 24.988244 25.659469 24.991292 26.11652 24.994141 26.462891 C 24.995229 25.600441 24.988206 24.780107 24.988281 24.541016 L 24.988281 24.052734 L 22.048828 24.021484 C 18.649169 23.985174 17.470194 23.989032 16.105469 23.751953 C 15.132292 23.58289 14.535182 23.170398 14.173828 22.417969 C 14.069777 22.201343 13.999461 21.938894 13.957031 21.673828 z"/>
 <path style="opacity:0.2" d="m 12.042969,22.027344 c -0.02381,0.173554 -0.04256,0.347749 -0.04297,0.523437 0.0068,3.836434 5.555745,6.723102 12.941406,7.019531 l 0.02539,-0.396484 c 0.0424,-0.680269 0.03448,-1.843536 0.02734,-2.710937 -8.01e-4,0.63487 -0.0022,1.307321 -0.02734,1.710937 l -0.02539,0.396484 C 17.866853,28.286369 12.490446,25.622856 12.042969,22.027344 Z"/>
</svg>
