<svg xmlns="http://www.w3.org/2000/svg" width="32" height="32" version="1.1">
 <path style="opacity:0.2" d="M 10.202103,3.0005238 C 9.4628598,3.0062007 8.6541054,3.3011647 8.1773203,3.7839137 L 6.6242121,5.3575294 C 5.9888437,6.0014265 4.9494041,7.0544629 4.3136899,7.6981293 L 2.7605817,9.2703774 C 2.125214,9.914159 1.828512,11.148396 2.1016045,12.011559 l 1.4423671,4.562255 c 0.2729771,0.863626 1.0220123,2.091813 1.6638492,2.728876 L 16.515706,30.525811 c 0.642068,0.637295 1.687458,0.631244 2.322827,-0.0123 l 4.189016,-4.242337 c 0.635831,-0.643897 1.674924,-1.696819 2.310522,-2.3406 l 4.189017,-4.242337 c 0.635599,-0.644017 0.629535,-1.692372 -0.0123,-2.329667 L 18.206899,6.1354506 C 17.565062,5.4981558 16.332321,4.7597459 15.468452,4.4948434 L 10.903462,3.0948586 C 10.687466,3.028662 10.448517,2.9986324 10.202103,3.0005238 Z M 9.000358,7.9004705 c 1.159636,0 2.099977,0.9401808 2.099977,2.0999775 -1.6e-4,1.159796 -0.940341,2.099977 -2.099977,2.099977 -1.1597964,0 -2.0999772,-0.940181 -2.0999772,-2.099977 0,-1.1596364 0.9401808,-2.0999775 2.0999772,-2.0999775 z"/>
 <path style="fill:#5bb237" d="M 10.202103,2.0003041 C 9.4628598,2.005981 8.6541054,2.300945 8.1773203,2.783694 L 6.6242121,4.3573097 C 5.9888437,5.0012068 4.9494041,6.0542432 4.3136899,6.6979096 L 2.7605817,8.2701577 C 2.125214,8.9139393 1.828512,10.148176 2.1016045,11.011339 l 1.4423671,4.562255 c 0.2729771,0.863626 1.0220123,2.091813 1.6638492,2.728876 L 16.515706,29.525591 c 0.642068,0.637295 1.687458,0.631244 2.322827,-0.0123 l 4.189016,-4.242337 c 0.635831,-0.643897 1.674924,-1.696819 2.310522,-2.3406 l 4.189017,-4.242337 C 30.162687,18.044 30.156623,16.995645 29.514783,16.35835 L 18.206899,5.1352309 C 17.565062,4.4979361 16.332321,3.7595262 15.468452,3.4946237 L 10.903462,2.0946389 C 10.687466,2.0284423 10.448517,1.9984127 10.202103,2.0003041 Z M 9.000358,6.9002508 c 1.159636,0 2.099977,0.9401808 2.099977,2.0999772 -1.6e-4,1.159796 -0.940341,2.099977 -2.099977,2.099977 -1.1597964,0 -2.0999772,-0.940181 -2.0999772,-2.099977 0,-1.1596361 0.9401808,-2.0999772 2.0999772,-2.0999772 z"/>
 <path style="opacity:0.2" d="m 19.434186,7.3536015 c -2.737161,0.7121828 -5.462542,1.4797118 -8.164755,2.3118887 -0.301995,0.092996 -0.571738,0.200762 -0.823038,0.3185511 -0.0069,0.8279307 -0.6766817,1.4970547 -1.5038901,1.4970547 -0.040242,0 -0.078132,-0.0078 -0.117577,-0.01094 -0.3262524,0.64539 -0.4422461,1.436408 -0.341793,2.42263 0.2844132,2.796244 0.6706361,5.581763 1.0568241,8.36573 0.072831,0.524973 0.1541369,1.050165 0.2324198,1.574983 l 4.8356892,4.798776 c 2.808467,-0.780501 5.614523,-1.570865 8.420417,-2.362474 0.63593,-0.644 1.67393,-1.695831 2.309154,-2.339233 l 0.0069,-0.0069 c -0.05655,-0.837437 -0.113027,-1.661071 -0.172263,-2.541574 -0.425581,0.119768 -0.73471,0.20707 -1.043153,0.293943 -2.618061,0.737603 -5.242391,1.455859 -7.851673,2.224389 -0.749155,0.220772 -1.041427,-0.01086 -1.100573,-0.745109 -0.05753,-0.706214 -0.157256,-1.409511 -0.254294,-2.246265 0.398779,-0.112239 0.736851,-0.202995 1.071863,-0.302145 2.011805,-0.59687 4.0403,-1.143328 6.029231,-1.808769 1.824776,-0.610307 2.61506,-1.704519 2.499192,-3.616172 -0.06203,-1.021195 -0.157818,-2.043962 -0.287106,-3.062466 z m -1.071864,4.3694845 c 0.254839,-0.0022 0.406393,0.144465 0.4498,0.505854 0.119565,0.999378 0.293007,1.993548 0.360934,2.995475 0.01791,0.260964 -0.216483,0.718109 -0.430659,0.787491 -1.400929,0.455095 -2.82937,0.827398 -4.351711,1.256432 -0.168315,-1.305168 -0.359134,-2.475561 -0.44023,-3.653086 -0.01825,-0.262585 0.292626,-0.71429 0.545502,-0.801163 1.17439,-0.400076 2.383881,-0.69557 3.576524,-1.041785 0.107666,-0.03116 0.204894,-0.0485 0.28984,-0.04922 z"/>
 <path style="fill:#8b9cbe" d="m 19.434186,6.3533818 c -2.737161,0.7121828 -5.462542,1.4797118 -8.164755,2.3118887 -0.301995,0.092996 -0.571738,0.200762 -0.823038,0.3185511 -0.0069,0.8279307 -0.6766817,1.4970544 -1.5038901,1.4970544 -0.040242,0 -0.078132,-0.0078 -0.117577,-0.01094 -0.3262524,0.64539 -0.4422461,1.436408 -0.341793,2.42263 0.2844132,2.796244 0.6706361,5.581763 1.0568241,8.36573 0.072831,0.524973 0.1541369,1.050165 0.2324198,1.574983 l 4.8356892,4.798776 c 2.808467,-0.780501 5.614523,-1.570865 8.420417,-2.362474 0.63593,-0.644 1.67393,-1.695831 2.309154,-2.339233 l 0.0069,-0.0069 c -0.05655,-0.837437 -0.113027,-1.661071 -0.172263,-2.541574 -0.425581,0.119768 -0.73471,0.20707 -1.043153,0.293943 -2.618061,0.737603 -5.242391,1.455859 -7.851673,2.224389 -0.749155,0.220772 -1.041427,-0.01086 -1.100573,-0.745109 -0.05753,-0.706214 -0.157256,-1.409511 -0.254294,-2.246265 0.398779,-0.112239 0.736851,-0.202995 1.071863,-0.302145 2.011805,-0.59687 4.0403,-1.143328 6.029231,-1.808769 1.824776,-0.610307 2.61506,-1.704519 2.499192,-3.616172 -0.06203,-1.021195 -0.157818,-2.043962 -0.287106,-3.062466 z m -1.071864,4.3694842 c 0.254839,-0.0022 0.406393,0.144465 0.4498,0.505854 0.119565,0.999378 0.293007,1.993548 0.360934,2.995475 0.01791,0.260964 -0.216483,0.718109 -0.430659,0.787491 -1.400929,0.455095 -2.82937,0.827398 -4.351711,1.256432 -0.168315,-1.305168 -0.359134,-2.475561 -0.44023,-3.653086 -0.01825,-0.262585 0.292626,-0.71429 0.545502,-0.801163 1.17439,-0.400076 2.383881,-0.69557 3.576524,-1.041785 0.107666,-0.03116 0.204894,-0.0485 0.28984,-0.04922 z"/>
 <path style="opacity:0.1" d="m 9,7.0002197 c -1.6541804,0 -3,1.3458189 -3,3.0000003 0,1.654044 1.3458196,3 3,3 1.654182,0 3,-1.345956 3,-3 C 11.999863,8.3460386 10.654046,7.0002197 9,7.0002197 Z m 0,1.5 c 0.8283208,0 1.5,0.6715651 1.5,1.5000003 0,0.828435 -0.6715642,1.5 -1.5,1.5 -0.8284342,0 -1.5,-0.671565 -1.5,-1.5 C 7.5,9.1717848 8.1715658,8.5002197 9,8.5002197 Z"/>
 <path style="fill:#c7c7c7" d="M 9 6 C 7.3458196 6 6 7.3458189 6 9 C 6 10.654044 7.3458196 12 9 12 C 10.654182 12 12 10.654044 12 9 C 11.999863 7.3458189 10.654046 6 9 6 z M 9 7.5 C 9.8283208 7.5 10.5 8.1715651 10.5 9 C 10.5 9.828435 9.8284358 10.5 9 10.5 C 8.1715658 10.5 7.5 9.828435 7.5 9 C 7.5 8.1715651 8.1715658 7.5 9 7.5 z"/>
 <path style="opacity:0.1" d="m 8.4884354,22.565333 c -0.1083589,1.178914 -0.6789199,3.171534 -1.8266246,4.204272 -0.5399476,0.485673 -1.1924121,0.730653 -1.9446875,0.730653 -0.1596505,0 -0.3239219,-0.01112 -0.4924677,-0.03324 C 3.1886597,27.331379 2.477279,26.562965 2.1674506,25.245171 1.2412,21.30731 4.2609009,12.905239 8.6728946,9.9232043 c 0.1411667,-0.095328 0.3324705,-0.057798 0.4274286,0.083514 0.09519,0.141311 0.057875,0.333357 -0.083175,0.428685 -4.407488,2.978908 -7.0414629,11.304299 -6.2502569,14.667992 0.2495262,1.061 0.766831,1.65011 1.5374743,1.751229 0.7862386,0.102973 1.4232236,-0.07494 1.9452647,-0.543936 1.1680367,-1.049996 1.6145276,-3.367287 1.6590037,-4.320681"/>
 <path style="fill:#17191e" d="m 8.4884354,21.565113 c -0.1083589,1.178914 -0.6789199,3.171534 -1.8266246,4.204272 -0.5399476,0.485673 -1.1924121,0.730653 -1.9446875,0.730653 -0.1596505,0 -0.3239219,-0.01112 -0.4924677,-0.03324 C 3.1886597,26.331159 2.477279,25.562745 2.1674506,24.244951 1.2412,20.30709 4.2609009,11.905019 8.6728946,8.9229846 8.8140613,8.8276568 9.0053651,8.8651862 9.1003232,9.0064979 9.1955131,9.1478095 9.1581986,9.3398553 9.017148,9.435183 4.60966,12.414091 1.9756851,20.739482 2.7668911,24.103175 c 0.2495262,1.061 0.766831,1.65011 1.5374743,1.751229 0.7862386,0.102973 1.4232236,-0.07494 1.9452647,-0.543936 1.1680367,-1.049996 1.6145276,-3.367287 1.6590037,-4.320681"/>
 <path style="opacity:0.2;fill:#8b9cbe" d="M 10.201172,2 C 9.4619287,2.0056769 8.6545195,2.3004541 8.1777344,2.7832031 L 6.625,4.3574219 C 5.9896316,5.001319 4.9501673,6.0535992 4.3144531,6.6972656 L 2.7597656,8.2695312 C 2.1691326,8.8679857 1.8782505,9.9737798 2.0585938,10.820312 2.1514138,10.229976 2.386797,9.6474389 2.7597656,9.2695312 L 4.3144531,7.6972656 C 4.9501673,7.0535992 5.9896316,6.001319 6.625,5.3574219 L 8.1777344,3.7832031 C 8.6545195,3.3004541 9.4619287,3.0056769 10.201172,3 c 0.246414,-0.00189 0.487129,0.029507 0.703125,0.095703 l 4.564453,1.3984375 c 0.863869,0.2649025 2.096444,1.0033302 2.738281,1.640625 L 29.515625,17.359375 c 0.194418,0.193043 0.322806,0.424108 0.400391,0.669922 0.180192,-0.571503 0.05135,-1.223334 -0.400391,-1.671875 L 18.207031,5.1347656 C 17.565194,4.4974708 16.332619,3.7590431 15.46875,3.4941406 L 10.904297,2.09375 C 10.688301,2.0275534 10.447586,1.9981086 10.201172,2 Z"/>
</svg>
