<svg xmlns="http://www.w3.org/2000/svg" width="32" height="32" version="1.1">
 <rect style="opacity:0.2" width="29" height="29" x="2" y="2" rx="1.45" ry="1.45"/>
 <rect style="fill:#e64031" width="29" height="29" x="2" y="1" rx="1.45" ry="1.45"/>
 <path style="opacity:0.2" d="m 4,13 v 7 H 8 V 19 H 5 V 17 H 8 V 16 H 5 v -2 h 3 v -1 z m 9.013672,0 c -0.679817,0 -1.244194,0.145437 -1.69336,0.4375 -0.443094,0.292063 -0.773673,0.698115 -0.992187,1.21875 C 10.109611,15.176884 10,15.787916 10,16.486328 c 0,0.704762 0.109611,1.320671 0.328125,1.847656 0.218514,0.526983 0.549093,0.936453 0.992187,1.228516 C 11.76948,19.854563 12.330158,20 13.003906,20 c 0.65554,0 1.205344,-0.145437 1.648438,-0.4375 0.06302,-0.04154 0.119121,-0.09057 0.177734,-0.136719 L 14.132812,18.695312 C 13.837419,18.892322 13.465971,19 13.003906,19 12.315918,19 11.810421,18.778044 11.486328,18.333984 11.162235,17.884156 11,17.270733 11,16.492188 11,15.713641 11.162235,15.104308 11.486328,14.666016 11.816108,14.221956 12.325683,14 13.013672,14 c 0.487372,0 0.876352,0.117022 1.177734,0.339844 l 0.69336,-0.726563 C 14.809906,13.55183 14.734734,13.490626 14.652344,13.4375 14.20925,13.145437 13.663141,13 13.013672,13 Z M 16,13 v 7 h 1 v -3 h 3 v 3 h 1 v -7 h -1 v 3 h -3 v -3 z m 10.013672,0 c -0.679817,0 -1.244194,0.145437 -1.69336,0.4375 -0.443094,0.292063 -0.773673,0.698115 -0.992187,1.21875 C 23.109611,15.176884 23,15.787916 23,16.486328 c 0,0.704762 0.109611,1.320671 0.328125,1.847656 0.218514,0.526983 0.549093,0.936453 0.992187,1.228516 0.449167,0.292063 1.009846,0.4375 1.683594,0.4375 0.65554,0 1.205344,-0.145437 1.648438,-0.4375 0.443096,-0.292063 0.777371,-0.698113 1.001953,-1.21875 C 28.88495,17.816767 29,17.200855 29,16.496094 29,15.791332 28.88495,15.176884 28.654297,14.65625 28.429715,14.129265 28.09544,13.723214 27.652344,13.4375 27.20925,13.145437 26.663141,13 26.013672,13 Z m 0,1 c 0.68799,0 1.189403,0.221956 1.507812,0.666016 C 27.839836,15.104308 28,15.713641 28,16.492188 28,17.270733 27.839892,17.884156 27.521484,18.333984 27.203076,18.778044 26.697582,19 26.003906,19 25.315918,19 24.810421,18.778044 24.486328,18.333984 24.162235,17.884156 24,17.270733 24,16.492188 24,15.713641 24.162235,15.104308 24.486328,14.666016 24.816108,14.221956 25.325683,14 26.013672,14 Z"/>
 <path style="fill:#8b9cbe" d="M 4 12 L 4 19 L 8 19 L 8 18 L 5 18 L 5 16 L 8 16 L 8 15 L 5 15 L 5 13 L 8 13 L 8 12 L 4 12 z M 13.013672 12 C 12.333855 12 11.769478 12.145437 11.320312 12.4375 C 10.877218 12.729563 10.546639 13.135615 10.328125 13.65625 C 10.109611 14.176884 10 14.787916 10 15.486328 C 10 16.19109 10.109611 16.806999 10.328125 17.333984 C 10.546639 17.860967 10.877218 18.270437 11.320312 18.5625 C 11.76948 18.854563 12.330158 19 13.003906 19 C 13.659446 19 14.20925 18.854563 14.652344 18.5625 C 14.715361 18.520963 14.771465 18.471931 14.830078 18.425781 L 14.132812 17.695312 C 13.837419 17.892322 13.465971 18 13.003906 18 C 12.315918 18 11.810421 17.778044 11.486328 17.333984 C 11.162235 16.884156 11 16.270733 11 15.492188 C 11 14.713641 11.162235 14.104308 11.486328 13.666016 C 11.816108 13.221956 12.325683 13 13.013672 13 C 13.501044 13 13.890024 13.117022 14.191406 13.339844 L 14.884766 12.613281 C 14.809906 12.55183 14.734734 12.490626 14.652344 12.4375 C 14.20925 12.145437 13.663141 12 13.013672 12 z M 16 12 L 16 19 L 17 19 L 17 16 L 20 16 L 20 19 L 21 19 L 21 12 L 20 12 L 20 15 L 17 15 L 17 12 L 16 12 z M 26.013672 12 C 25.333855 12 24.769478 12.145437 24.320312 12.4375 C 23.877218 12.729563 23.546639 13.135615 23.328125 13.65625 C 23.109611 14.176884 23 14.787916 23 15.486328 C 23 16.19109 23.109611 16.806999 23.328125 17.333984 C 23.546639 17.860967 23.877218 18.270437 24.320312 18.5625 C 24.769479 18.854563 25.330158 19 26.003906 19 C 26.659446 19 27.20925 18.854563 27.652344 18.5625 C 28.09544 18.270437 28.429715 17.864387 28.654297 17.34375 C 28.88495 16.816767 29 16.200855 29 15.496094 C 29 14.791332 28.88495 14.176884 28.654297 13.65625 C 28.429715 13.129265 28.09544 12.723214 27.652344 12.4375 C 27.20925 12.145437 26.663141 12 26.013672 12 z M 26.013672 13 C 26.701662 13 27.203075 13.221956 27.521484 13.666016 C 27.839836 14.104308 28 14.713641 28 15.492188 C 28 16.270733 27.839892 16.884156 27.521484 17.333984 C 27.203076 17.778044 26.697582 18 26.003906 18 C 25.315918 18 24.810421 17.778044 24.486328 17.333984 C 24.162235 16.884156 24 16.270733 24 15.492188 C 24 14.713641 24.162235 14.104308 24.486328 13.666016 C 24.816108 13.221956 25.325683 13 26.013672 13 z"/>
 <path style="fill:#8b9cbe;opacity:0.2" d="M 3.4492188 1 C 2.6459188 1 2 1.6459188 2 2.4492188 L 2 3.4492188 C 2 2.6459188 2.6459188 2 3.4492188 2 L 29.550781 2 C 30.354081 2 31 2.6459188 31 3.4492188 L 31 2.4492188 C 31 1.6459188 30.354081 1 29.550781 1 L 3.4492188 1 z"/>
</svg>
