<svg xmlns="http://www.w3.org/2000/svg" width="32" height="32" version="1">
 <rect style="opacity:0.2" width="1" height="5" x="29" y="13" rx=".25" ry=".313"/>
 <rect style="opacity:0.2" width="1" height="5" x="23" y="13" rx=".25" ry=".313"/>
 <path style="opacity:0.2" d="M 15,2 C 7.244,2 1,8.244 1,16 c 0,7.756 6.244,14 14,14 3.823185,0 7.269406,-1.524449 9.787824,-3.994485 C 25.296323,25.506784 23.571685,25.571066 24,25 L 17,16 25,7 C 24.260671,6.0142639 24.590443,5.7307547 23.622012,4.970854 21.250765,3.1102037 18.262648,2 15,2 Z"/>
 <rect style="fill:#4c3a91" width="1" height="5" x="14" y="-26" rx=".25" ry=".313" transform="rotate(90)"/>
 <rect style="fill:#4c3a91" width="1" height="5" x="14" y="-32" rx=".25" ry=".313" transform="rotate(90)"/>
 <path style="fill:#f7941e" d="M 15,1 C 7.244,1 1,7.244 1,15 c 0,7.756 6.244,14 14,14 3.823185,0 7.269406,-1.524449 9.787824,-3.994485 C 25.296323,24.506784 23.571685,24.571066 24,24 L 17,15 25,6 C 24.260671,5.0142639 24.590443,4.7307547 23.622012,3.970854 21.250765,2.1102037 18.262648,1 15,1 Z"/>
 <path style="fill:#8b9cbe;opacity:0.1" d="M 15 1 C 7.244 1 1 7.244 1 15 C 1 15.168842 1.0195214 15.33264 1.0253906 15.5 C 1.2891326 7.9794325 7.4128418 2 15 2 C 18.262648 2 21.249847 3.1100528 23.621094 4.9707031 C 24.362346 5.5523426 24.35113 5.860144 24.632812 6.4121094 L 25 6 C 24.260671 5.0142639 24.589525 4.7306038 23.621094 3.9707031 C 21.249847 2.1100528 18.262648 1 15 1 z M 17.414062 15.533203 L 17 16 L 24 25 C 23.823515 25.235304 24.031561 25.355586 24.279297 25.458984 C 24.448845 25.308063 24.625094 25.164762 24.787109 25.005859 C 25.295608 24.507128 23.571685 24.571066 24 24 L 17.414062 15.533203 z"/>
 <path style="opacity:0.2" d="M 18,2 C 10.244,2 4,8.244 4,16 c 0,7.756 6.244,14 14,14 3.826049,0 7.280611,-1.523272 9.802734,-3.994141 L 17.796875,16 27.802734,5.9941406 C 25.280611,3.5232725 21.826049,2 18,2 Z"/>
 <path style="fill:#4c3a91" d="M 18 1 C 10.244 1 4 7.244 4 15 C 4 22.756 10.244 29 18 29 C 21.826049 29 25.280611 27.476728 27.802734 25.005859 L 17.796875 15 L 27.802734 4.9941406 C 25.280611 2.5232725 21.826049 1 18 1 z"/>
 <path style="opacity:0.2" d="m 18,6 a 10,10 0 0 0 -9.1523438,6 h -4.265625 c -0.191483,0.647182 -0.3266338,1.316784 -0.4238281,2 H 8.2128906 A 10,10 0 0 0 8.0605469,15 H 4.0507812 C 4.0274997,15.331561 4,15.662316 4,16 c 0,0.337684 0.0275,0.668439 0.050781,1 h 4 A 10,10 0 0 0 8.203125,18 H 4.1582031 c 0.097194,0.683216 0.2323451,1.352818 0.4238281,2 H 8.8398438 A 10,10 0 0 0 18,26 10,10 0 0 0 24.960938,23.164062 L 22.845703,21.048828 A 7,7 0 0 1 18,23 7,7 0 0 1 11,16 7,7 0 0 1 18,9 7,7 0 0 1 22.841797,10.955078 L 24.96875,8.828125 A 10,10 0 0 0 18,6 Z m 0,7 a 3,3 0 0 0 -3,3 3,3 0 0 0 3,3 3,3 0 0 0 3,-3 3,3 0 0 0 -3,-3 z"/>
 <path style="fill:#8b9cbe" d="M 18 5 A 10 10 0 0 0 8.8476562 11 L 4.5820312 11 C 4.3905482 11.647182 4.2553974 12.316784 4.1582031 13 L 8.2128906 13 A 10 10 0 0 0 8.0605469 14 L 4.0507812 14 C 4.0274997 14.331561 4 14.662316 4 15 C 4 15.337684 4.0274998 15.668439 4.0507812 16 L 8.0507812 16 A 10 10 0 0 0 8.203125 17 L 4.1582031 17 C 4.2553974 17.683216 4.3905482 18.352818 4.5820312 19 L 8.8398438 19 A 10 10 0 0 0 18 25 A 10 10 0 0 0 24.960938 22.164062 L 22.845703 20.048828 A 7 7 0 0 1 18 22 A 7 7 0 0 1 11 15 A 7 7 0 0 1 18 8 A 7 7 0 0 1 22.841797 9.9550781 L 24.96875 7.828125 A 10 10 0 0 0 18 5 z M 18 12 A 3 3 0 0 0 15 15 A 3 3 0 0 0 18 18 A 3 3 0 0 0 21 15 A 3 3 0 0 0 18 12 z"/>
 <rect style="fill:#4c3a91" width="1" height="5" x="23" y="12" rx=".25" ry=".313"/>
 <rect style="fill:#4c3a91" width="1" height="5" x="29" y="12" rx=".25" ry=".313"/>
 <rect style="opacity:0.2" width="1" height="5" x="15" y="-26" rx=".25" ry=".313" transform="rotate(90)"/>
 <rect style="opacity:0.2" width="1" height="5" x="15" y="-32" rx=".25" ry=".313" transform="rotate(90)"/>
 <path style="fill:#8b9cbe;opacity:0.2" d="M 18 1 C 10.244 1 4 7.244 4 15 C 4 15.168842 4.0195214 15.33264 4.0253906 15.5 C 4.2891326 7.9794325 10.412842 2 18 2 C 21.570163 2 24.805954 3.3384969 27.273438 5.5234375 L 27.802734 4.9941406 C 25.280611 2.5232725 21.826049 1 18 1 z M 18.296875 15.5 L 17.796875 16 L 27.273438 25.476562 C 27.450291 25.31996 27.634055 25.171111 27.802734 25.005859 L 18.296875 15.5 z"/>
</svg>
