<svg xmlns="http://www.w3.org/2000/svg" width="32" height="32" version="1.1">
 <path style="opacity:0.2" d="M 16,3 A 14,14 0 0 0 2,17 14,14 0 0 0 16,31 14,14 0 0 0 30,17 14,14 0 0 0 16,3 Z"/>
 <path style="fill:#17191e" d="M 16,2 A 14,14 0 0 0 2,16 14,14 0 0 0 16,30 14,14 0 0 0 30,16 14,14 0 0 0 16,2 Z"/>
 <path style="opacity:0.2;fill:none;stroke:#000000" d="m 8.5,9.5 v 15 h 15 v -15 z"/>
 <path style="opacity:0.2;fill:none;stroke:#000000;stroke-width:2" d="M 18.999999,18.5 19,19.55 17.750001,21 h -3.5 L 13,19.55 v -5.1 L 14.250001,13 h 3.5 l 1.234829,1.45 0.03034,2.55 h -5.565537"/>
 <path style="fill:none;stroke:#eaeaeb;stroke-width:2" d="M 18.999999,17.5 19,18.55 17.750001,20 h -3.5 L 13,18.55 v -5.1 L 14.250001,12 h 3.5 l 1.234829,1.45 0.03034,2.55 h -5.565537"/>
 <path style="fill:none;stroke:#eaeaeb" d="m 8.5,8.5 v 15 h 15 v -15 z"/>
 <path style="fill:#8b9cbe;opacity:0.1" d="M 16 2 A 14 14 0 0 0 2 16 A 14 14 0 0 0 2.0214844 16.414062 A 14 14 0 0 1 16 3 A 14 14 0 0 1 29.978516 16.585938 A 14 14 0 0 0 30 16 A 14 14 0 0 0 16 2 z"/>
</svg>
