<svg xmlns="http://www.w3.org/2000/svg" width="32" height="32" version="1.1">
 <path fill="#b2bfd9" d="m3.4 7h25.2c0.748 0 1.4 0.6517 1.4 1.4v15.2c0 0.748-0.652 1.4-1.4 1.4h-25.2c-0.7483 0-1.4-0.652-1.4-1.4v-15.2c0-0.7483 0.6517-1.4 1.4-1.4z"/>
 <path opacity=".2" d="m24.907 10c2.2856 0.000543 2.0858 2.445 2.0858 2.445v2.1388c0 0.787-0.992 2.416-0.992 2.416v1.5l1.999 0.928v1.572h-8v-1.572l1.997-0.928v-1.5s-0.99488-1.6279-0.98934-2.4163v-2.1388s-0.2-2.4444 2.0856-2.445"/>
 <path fill="#289b36" d="m5 18-2-2 2-2z"/>
 <path fill="#ecb64e" d="m6.875 13h5.25c0.444 0 0.875 0.492 0.875 1v4c0 0.50759-0.43086 1-0.875 1h-5.25c-0.4441 0-0.875-0.492-0.875-1v-4c0-0.50759 0.43086-1 0.875-1z"/>
 <path opacity=".2" d="m2 23.6v1c0 0.748 0.6521 1.4 1.4004 1.4h25.2c0.748 0 1.4-0.652 1.4-1.4v-1c0 0.748-0.652 1.4-1.4 1.4h-25.2c-0.7479 0-1.4-0.652-1.4-1.4z"/>
 <g transform="translate(0 -.05)">
  <circle fill="#484848" cx="-16.068" cy="14" r="6" transform="rotate(-90)"/>
  <rect fill="#484848" width="3" height="8" x="-2.96" y="24.76" rx="1.5" ry="1.454" transform="rotate(-45)"/>
  <path opacity=".2" d="m11.879 14.873c-1.1803 1.1803-1.1789 3.0637 0.000001 4.2426s3.0623 1.1803 4.2426 0.000001 1.1789-3.0637 0-4.2426-3.0623-1.1803-4.2426 0z"/>
  <path fill="#5d99ff" d="m11.879 13.947c-1.1803 1.1803-1.1789 3.0637 0.000001 4.2426s3.0623 1.1803 4.2426 0.000001 1.1789-3.0637 0-4.2426-3.0623-1.1803-4.2426 0z"/>
 </g>
 <path fill="#fff" opacity=".2" d="m3.4004 7c-0.7483 0-1.4004 0.6521-1.4004 1.4004v1c0-0.7483 0.6521-1.4004 1.4004-1.4004h25.2c0.748 0 1.4 0.6521 1.4 1.4004v-1c0-0.7483-0.652-1.4004-1.4-1.4004h-25.2z"/>
</svg>
