<svg xmlns="http://www.w3.org/2000/svg" width="32" height="32" version="1">
 <circle style="opacity:0.2" cx="16" cy="17" r="14"/>
 <circle style="fill:#5e5e5e" cx="16" cy="16" r="14"/>
 <circle style="fill:#4f4f4f" cx="16" cy="16" r="11"/>
 <circle style="opacity:0.2" cx="16" cy="17" r="8"/>
 <circle style="fill:#fec006" cx="16" cy="16" r="8"/>
 <circle style="fill:#4f4f4f" cx="16" cy="16" r="4"/>
 <path style="fill:#8b9cbe;opacity:0.2" d="M 16 8 A 8 8 0 0 0 8 16 A 8 8 0 0 0 8.0215 16.576 A 8 8 0 0 1 16 9 A 8 8 0 0 1 23.979 16.424 A 8 8 0 0 0 24 16 A 8 8 0 0 0 16 8 z"/>
 <path style="fill:#8b9cbe;opacity:0.1" d="M 16 2 A 14 14 0 0 0 2 16 A 14 14 0 0 0 2.0215 16.586 A 14 14 0 0 1 16 3 A 14 14 0 0 1 29.979 16.414 A 14 14 0 0 0 30 16 A 14 14 0 0 0 16 2 z"/>
</svg>
