<svg xmlns="http://www.w3.org/2000/svg" width="32" height="32" version="1.1">
 <path style="opacity:0.2" d="m 23,10 v 3.5 c 0,1.939 -1.561,3.5 -3.5,3.5 h -7 c 0,0 -3.5,0 -3.5,3.5 v 6.125 C 9,29.0484 11.7314,31 15.125,31 h 1.75 C 20.2686,31 23,29.0484 23,26.625 V 25 h -7 v -1 h 9.625 C 28.0484,24 30,21.2686 30,17.875 v -1.75 C 30,12.7314 28.0484,10 25.625,10 Z"/>
 <path style="fill:#ffa923" d="M 23,9.0000001 V 12.5 c 0,1.939 -1.561,3.5 -3.5,3.5 h -7 c 0,0 -3.5,0 -3.5,3.5 v 6.125 C 9,28.0484 11.7314,30 15.125,30 h 1.75 C 20.2686,30 23,28.0484 23,25.625 V 24 h -7 v -1 h 9.625 C 28.0484,23 30,20.2686 30,16.875 v -1.75 C 30,11.7314 28.0484,9.0000001 25.625,9.0000001 Z"/>
 <path style="opacity:0.2" d="m 19,28 a 1,1 0 0 1 1,1 1,1 0 0 1 -1,1 1,1 0 0 1 -1,-1 1,1 0 0 1 1,-1 z"/>
 <path style="fill:#8b9cbe" d="m 19,27 a 1,1 0 0 1 1,1 1,1 0 0 1 -1,1 1,1 0 0 1 -1,-1 1,1 0 0 1 1,-1 z"/>
 <path style="opacity:0.2" d="m 15.125,3.0000001 c -3.3936,0 -6.125,1.95125 -6.125,4.375 V 9 h 7 v 1 H 6.375 C 3.95125,10 2,12.7314 2,16.125 v 1.75 C 2,21.2686 3.95125,24 6.375,24 H 9 V 20.5 C 9,18.561 10.561,17 12.5,17 h 7 c 0,0 3.5,0 3.5,-3.5 V 7.3750001 c 0,-2.42375 -2.7314,-4.375 -6.125,-4.375 z"/>
 <path style="fill:#3084e0" d="m 15.125,2.0000001 c -3.3936,0 -6.125,1.95125 -6.125,4.375 V 8 h 7 V 9.0000001 H 6.375 C 3.95125,9.0000001 2,11.7314 2,15.125 v 1.75 C 2,20.2686 3.95125,23 6.375,23 H 9 V 19.5 C 9,17.561 10.561,16 12.5,16 h 7 c 0,0 3.5,0 3.5,-3.5 V 6.3750001 c 0,-2.42375 -2.7314,-4.375 -6.125,-4.375 z"/>
 <path style="opacity:0.2" d="M 13,4 A 1,1 0 0 1 14,5 1,1 0 0 1 13,6 1,1 0 0 1 12,5 1,1 0 0 1 13,4 Z"/>
 <path style="fill:#8b9cbe" d="M 13,3 A 1,1 0 0 1 14,4 1,1 0 0 1 13,5 1,1 0 0 1 12,4 1,1 0 0 1 13,3 Z"/>
 <path style="opacity:0.2;fill:#8b9cbe" d="m 23,9 v 1 h 2.625 C 28.0484,10 30,12.7314 30,16.125 v -1 C 30,11.7314 28.0484,9 25.625,9 Z m -2.052734,7.681641 c -0.07417,0.02927 -0.148611,0.06404 -0.220704,0.08789 0.07467,-0.0279 0.148578,-0.05515 0.220704,-0.08789 z m -0.470704,0.164062 c -0.151807,0.04013 -0.303874,0.07864 -0.429687,0.09961 0.147534,-0.02313 0.288979,-0.05877 0.429687,-0.09961 z m -8.523437,0.208985 c -0.147534,0.02313 -0.288979,0.05877 -0.429687,0.09961 0.151807,-0.04013 0.303874,-0.07864 0.429687,-0.09961 z m -0.679687,0.175781 c -0.07467,0.0279 -0.148578,0.05515 -0.220704,0.08789 0.07417,-0.02927 0.148611,-0.06404 0.220704,-0.08789 z M 16,24 v 1 h 7 v -1 z"/>
 <path style="opacity:0.2;fill:#8b9cbe" d="M 15.125,2 C 11.7314,2 9,3.95125 9,6.375 v 1 C 9,4.95125 11.7314,3 15.125,3 h 1.75 C 20.2686,3 23,4.95125 23,7.375 v -1 C 23,3.95125 20.2686,2 16.875,2 Z M 6.375,9 C 3.95125,9 2,11.7314 2,15.125 v 1 C 2,12.7314 3.95125,10 6.375,10 H 16 V 9 H 9 Z"/>
 <circle style="fill:#dc5145" cx="24" cy="23" r="8"/>
 <path fill="#fff" d="m23 19-0.0882 1.0536a3.1429 3.1429 0 0 0 -0.91852 0.53126l-0.95759-0.4509-1 1.7321 0.86941 0.6038a3.1429 3.1429 0 0 0 -0.048 0.53013 3.1429 3.1429 0 0 0 0.0457 0.53237l-0.86719 0.60156 1 1.7321 0.95536-0.44978a3.1429 3.1429 0 0 0 0.92075 0.5279l0.0882 1.0558h2l0.0882-1.0536a3.1429 3.1429 0 0 0 0.91854 -0.53126l0.95758 0.4509 1-1.7321-0.86942-0.6038a3.1429 3.1429 0 0 0 0.048 -0.53013 3.1429 3.1429 0 0 0 -0.0457 -0.53237l0.86719-0.60156-1-1.7321-0.95536 0.44978a3.1429 3.1429 0 0 0 -0.921 -0.528l-0.088-1.056h-2zm1 2.8572a1.1429 1.1429 0 0 1 1.143 1.143 1.1429 1.1429 0 0 1 -1.143 1.143 1.1429 1.1429 0 0 1 -1.143 -1.143 1.1429 1.1429 0 0 1 1.143 -1.143z"/>
 <path fill-rule="evenodd" opacity=".2" d="m31.979 23.424a8 8 0 0 1 -7.979 7.576 8 8 0 0 1 -7.979 -7.424 8 8 0 0 0 -0.021 0.424 8 8 0 0 0 8 8 8 8 0 0 0 8 -8 8 8 0 0 0 -0.021 -0.576z"/>
</svg>
