<svg xmlns="http://www.w3.org/2000/svg" width="32" height="32" version="1">
 <path style="opacity:0.2" d="M 15.57521,3.001243 A 3.1706084,3.183468 0 0 0 13.914765,3.4259247 L 4.585443,8.8340193 A 3.1706084,3.183468 0 0 0 3,11.591266 v 10.816889 a 3.1706084,3.183468 0 0 0 1.5853041,2.756966 l 9.3293219,5.408375 a 3.1706084,3.183468 0 0 0 3.170609,0 l 9.329322,-5.408375 A 3.1706084,3.183468 0 0 0 28,22.407875 V 11.590986 A 3.1706084,3.183468 0 0 0 26.414557,8.8337393 L 17.085235,3.4256447 A 3.1706084,3.183468 0 0 0 15.574793,3.000963 Z"/>
 <path style="fill:#c8f178" d="M 15.57521,2.000931 A 3.1706084,3.183468 0 0 0 13.914765,2.4256127 L 4.585443,7.8337073 A 3.1706084,3.183468 0 0 0 3,10.590954 v 10.816889 a 3.1706084,3.183468 0 0 0 1.5853041,2.756966 l 9.3293219,5.408375 a 3.1706084,3.183468 0 0 0 3.170609,0 l 9.329322,-5.408375 A 3.1706084,3.183468 0 0 0 28,21.407563 V 10.590674 A 3.1706084,3.183468 0 0 0 26.414557,7.8334273 L 17.085235,2.4253327 A 3.1706084,3.183468 0 0 0 15.574793,2.000651 Z"/>
 <path style="opacity:0.2;fill:#8b9cbe" d="M 6 20.859375 L 6 21.859375 C 5.9999998 22.288543 6.2677388 22.75845 6.6308594 22.972656 L 14.865234 27.830078 C 15.247657 28.055671 15.752343 28.05567 16.134766 27.830078 L 24.369141 22.972656 C 24.732231 22.758493 25.000028 22.288508 25 21.859375 L 25 20.859375 C 25.000028 21.288508 24.732231 21.758493 24.369141 21.972656 L 16.134766 26.830078 C 15.752343 27.05567 15.247657 27.055671 14.865234 26.830078 L 6.6308594 21.972656 C 6.2677388 21.75845 5.9999998 21.288543 6 20.859375 z"/>
 <path style="fill:#86bd1f" d="m 15.529927,5.0003851 c -0.232366,-0.00575 -0.462678,0.052892 -0.666772,0.1731306 L 6.6308591,10.029769 C 6.2634798,10.246462 5.9999734,10.715552 6,11.144681 v 9.71496 c -2e-7,0.429168 0.2677385,0.899479 0.6308591,1.113685 l 8.2334929,4.85748 c 0.382423,0.225593 0.888873,0.225592 1.271296,0 l 8.233492,-4.85748 C 24.73223,21.759163 25.000028,21.288774 25,20.859641 v -9.71496 -0.0013 c 2.8e-5,-0.429099 -0.26777,-0.899522 -0.63086,-1.113684 L 16.136845,5.1735157 a 0.91944678,0.94310365 0 0 0 -0.0012,0 C 15.948647,5.0633441 15.742859,5.0053752 15.531124,5.0003851 a 0.91944678,0.94310365 0 0 0 -0.0013,0 z"/>
 <path style="opacity:0.1" d="M 6.5351562 11.105469 C 6.2685838 11.306578 6.0786198 11.632467 6.0253906 11.966797 L 15 17.285156 L 15 26.886719 C 15.316885 27.023887 15.683115 27.023887 16 26.886719 L 16 17.285156 L 24.974609 11.966797 C 24.921209 11.63224 24.729061 11.307616 24.464844 11.107422 L 15.5 16.417969 L 6.5351562 11.105469 z"/>
 <path style="opacity:0.1" d="M 15.529297 5 C 15.296931 4.99425 15.067375 5.0535895 14.863281 5.1738281 L 6.6308594 10.029297 C 6.2634801 10.24599 5.9999734 10.715402 6 11.144531 L 6 12.144531 C 5.9999734 11.715402 6.2634801 11.24599 6.6308594 11.029297 L 14.863281 6.1738281 C 15.067375 6.0535895 15.296931 5.99425 15.529297 6 A 0.91944678 0.94310365 0 0 0 15.53125 6 C 15.742985 6.0049901 15.947768 6.0636565 16.134766 6.1738281 A 0.91944678 0.94310365 0 0 0 16.136719 6.1738281 L 24.369141 11.029297 C 24.732231 11.243459 25.000028 11.713479 25 12.142578 L 25 11.144531 L 25 11.142578 C 25.000028 10.713479 24.732231 10.243459 24.369141 10.029297 L 16.136719 5.1738281 A 0.91944678 0.94310365 0 0 0 16.134766 5.1738281 C 15.947768 5.0636565 15.742985 5.0049901 15.53125 5 A 0.91944678 0.94310365 0 0 0 15.529297 5 z"/>
 <path style="fill:#c8f178" d="M 6.5351562 10.105469 C 6.2685838 10.306578 6.0786198 10.632467 6.0253906 10.966797 L 15 16.285156 L 15 26.886719 C 15.316755 27.023464 15.683245 27.023463 16 26.886719 L 16 16.285156 L 24.974609 10.966797 C 24.92121 10.63224 24.729061 10.307616 24.464844 10.107422 L 15.5 15.417969 L 6.5351562 10.105469 z"/>
 <path style="fill:#8b9cbe;opacity:0.2" d="M 15.574219 2 A 3.1706084 3.183468 0 0 0 13.914062 2.4257812 L 4.5859375 7.8339844 A 3.1706084 3.183468 0 0 0 3 10.591797 L 3 11.591797 A 3.1706084 3.183468 0 0 1 4.5859375 8.8339844 L 13.914062 3.4257812 A 3.1706084 3.183468 0 0 1 15.576172 3.0019531 L 15.574219 3 A 3.1706084 3.183468 0 0 1 17.085938 3.4257812 L 26.414062 8.8339844 A 3.1706084 3.183468 0 0 1 28 11.591797 L 28 10.589844 A 3.1706084 3.183468 0 0 0 26.414062 7.8339844 L 17.085938 2.4257812 A 3.1706084 3.183468 0 0 0 15.576172 2 L 15.574219 2 z"/>
</svg>
