<svg xmlns="http://www.w3.org/2000/svg" width="32" height="32" version="1">
 <rect style="opacity:0.2" width="28" height="28" x="2" y="3" rx="1.4" ry="1.4"/>
 <rect style="fill:#355681" width="28" height="28" x="2" y="2" rx="1.4" ry="1.4"/>
 <path style="opacity:0.2;fill:none;stroke:#000000;stroke-width:3;stroke-linejoin:round" d="m 15.5,12.9998 c 0,-1 -0.931186,-6.4780132 5,-6.5000002 6.850263,-0.025394 6.525394,10.0437832 0,10.0000002 l -10,0 c -6.7443082,0 -6.3686049,9.949889 0,10 5.449058,0.04288 5.028997,-5.5 5,-6.5"/>
 <path style="fill:none;stroke:#8b9cbe;stroke-width:3;stroke-linejoin:round" d="m 15.5,11.9998 c 0,-1 -0.931186,-6.4780131 5,-6.5000001 6.850263,-0.025394 6.525394,10.0437831 0,10.0000001 l -10,0 c -6.7443082,0 -6.3686049,9.949889 0,10 5.449058,0.04288 5.028997,-5.5 5,-6.5"/>
 <path style="fill:#8b9cbe;opacity:0.1" d="M 3.4003906 2 C 2.6247906 2 2 2.6247906 2 3.4003906 L 2 4.4003906 C 2 3.6247906 2.6247906 3 3.4003906 3 L 28.599609 3 C 29.375209 3 30 3.6247906 30 4.4003906 L 30 3.4003906 C 30 2.6247906 29.375209 2 28.599609 2 L 3.4003906 2 z"/>
</svg>
