<svg xmlns="http://www.w3.org/2000/svg" width="32" height="32" version="1">
 <rect style="opacity:0.2" width="28" height="28" x="2" y="3" rx="1.4" ry="1.4"/>
 <rect style="fill:#4f4f4f" width="28" height="28" x="2" y="2" rx="1.4" ry="1.4"/>
 <path style="opacity:0.2" d="m 6,7 v 4 2 h 4 V 11 H 26 V 7 Z m 0,8 v 4 h 20 v -4 z m 0,6 v 2 4 H 26 V 23 H 10 v -2 z"/>
 <path style="fill:#8b9cbe" d="M 6 6 L 6 10 L 6 12 L 10 12 L 10 10 L 26 10 L 26 6 L 6 6 z M 6 14 L 6 18 L 26 18 L 26 14 L 6 14 z M 6 20 L 6 22 L 6 26 L 26 26 L 26 22 L 10 22 L 10 20 L 6 20 z"/>
 <path style="fill:#8b9cbe;opacity:0.1" d="M 3.4003906 2 C 2.6247906 2 2 2.6247906 2 3.4003906 L 2 4.4003906 C 2 3.6247906 2.6247906 3 3.4003906 3 L 28.599609 3 C 29.375209 3 30 3.6247906 30 4.4003906 L 30 3.4003906 C 30 2.6247906 29.375209 2 28.599609 2 L 3.4003906 2 z"/>
</svg>
