<svg xmlns="http://www.w3.org/2000/svg" width="32" height="32" version="1">
 <rect style="opacity:0.2" width="28" height="28" x="2" y="3" rx="2.1" ry="2.1"/>
 <rect style="fill:#b2bfd9" width="28" height="28" x="2" y="2" rx="2.1" ry="2.1"/>
 <path style="opacity:0.1" d="m 6.0236447,7.0023193 c -0.065592,0.020564 0.00271,0.1726834 0.2371667,0.4468704 0.8915807,1.0425639 1.2242723,1.873647 1.575067,3.9408333 0.4502589,2.65333 1.0825928,3.913741 2.2084426,4.398876 0.308359,0.13287 1.16318,0.224372 2.017314,0.305826 1.24479,0.118715 1.755493,0.246834 2.272617,0.566967 0.370604,0.229423 0.370604,0.450651 0,0.680078 -0.502637,0.31116 -1.004433,0.441254 -2.045215,0.530659 -1.380886,0.118618 -2.193137,0.225264 -2.6618507,0.536243 -0.8923764,0.592063 -1.427096,1.871979 -1.8666427,4.467302 -0.2979422,1.759188 -0.530721,2.360252 -1.307208,3.387832 -0.2403139,0.318023 -0.436666,0.615214 -0.436666,0.66053 -1.4e-6,0.159593 0.1706362,0.07862 0.7421925,-0.354704 1.0540097,-0.799099 1.5795049,-0.99557 3.6007519,-1.346194 2.268649,-0.393536 3.679785,-0.982842 4.20762,-1.755361 0.320433,-0.468968 0.464583,-1.326612 0.567804,-2.551348 0.09363,-1.110932 0.239634,-1.682564 0.553855,-2.168715 0.111531,-0.172553 0.21155,-0.257079 0.311107,-0.268122 0.09956,0.01104 0.199576,0.09557 0.311108,0.268122 0.31422,0.486151 0.460222,1.057783 0.553855,2.168715 0.103221,1.224736 0.24737,2.08238 0.567804,2.551348 0.527835,0.772519 1.938971,1.361825 4.20762,1.755361 2.021246,0.350624 2.546742,0.547095 3.600751,1.346194 0.571556,0.433325 0.742193,0.514297 0.742192,0.354704 0,-0.04532 -0.196351,-0.342507 -0.436665,-0.66053 -0.776487,-1.02758 -1.009266,-1.628644 -1.307208,-3.387832 -0.439547,-2.595323 -0.974267,-3.875239 -1.866643,-4.467302 -0.468713,-0.310979 -1.280964,-0.417625 -2.66185,-0.536243 -1.040782,-0.08941 -1.542579,-0.219499 -2.045215,-0.530659 -0.370605,-0.229427 -0.370605,-0.450655 0,-0.680078 0.517124,-0.320133 1.027827,-0.448251 2.272616,-0.566967 0.854135,-0.08146 1.708956,-0.172956 2.017315,-0.305826 1.125849,-0.485135 1.758184,-1.745546 2.208442,-4.398876 0.350795,-2.0671863 0.683486,-2.8982694 1.575067,-3.9408333 0.234452,-0.274187 0.30276,-0.4263067 0.237167,-0.4468704 -0.06559,-0.020566 -0.266038,0.091318 -0.570596,0.3435318 -0.479459,0.3970557 -1.554303,0.9779591 -2.071722,1.1199673 -0.191093,0.05245 -0.933796,0.1977514 -1.650403,0.3225844 -2.702871,0.4708377 -4.014683,1.106988 -4.486639,2.1756972 -0.09631,0.218086 -0.202768,0.762952 -0.255304,1.31268 -0.133953,1.401654 -0.303301,2.52647 -0.576176,2.959117 C 16.224576,15.459366 16.109061,15.575842 16,15.594789 15.890938,15.575839 15.775425,15.459366 15.634485,15.235897 15.36161,14.80325 15.192262,13.678434 15.058309,12.27678 15.005773,11.727052 14.899315,11.182186 14.803005,10.9641 14.331049,9.8953908 13.019237,9.2592405 10.316366,8.7884028 9.5997582,8.6635698 8.8570557,8.5182702 8.6659629,8.4658184 8.1485435,8.3238102 7.0736993,7.7429068 6.5942402,7.3458511 6.2896823,7.0936371 6.089238,6.9817528 6.0236447,7.0023193 Z"/>
 <path style="fill:#32434a" d="m 6.0236447,6.0023193 c -0.065592,0.020564 0.00271,0.1726834 0.2371667,0.4468704 0.8915807,1.0425639 1.2242723,1.873647 1.575067,3.9408333 0.4502589,2.65333 1.0825928,3.913741 2.2084426,4.398876 0.308359,0.13287 1.16318,0.224372 2.017314,0.305826 1.24479,0.118715 1.755493,0.246834 2.272617,0.566967 0.370604,0.229423 0.370604,0.450651 0,0.680078 -0.502637,0.31116 -1.004433,0.441254 -2.045215,0.530659 -1.380886,0.118618 -2.193137,0.225264 -2.6618507,0.536243 -0.8923764,0.592063 -1.427096,1.871979 -1.8666427,4.467302 -0.2979422,1.759188 -0.530721,2.360252 -1.307208,3.387832 -0.2403139,0.318023 -0.436666,0.615214 -0.436666,0.66053 -1.4e-6,0.159593 0.1706362,0.07862 0.7421925,-0.354704 1.0540097,-0.799099 1.5795049,-0.99557 3.6007519,-1.346194 2.268649,-0.393536 3.679785,-0.982842 4.20762,-1.755361 0.320433,-0.468968 0.464583,-1.326612 0.567804,-2.551348 0.09363,-1.110932 0.239634,-1.682564 0.553855,-2.168715 0.111531,-0.172553 0.21155,-0.257079 0.311107,-0.268122 0.09956,0.01104 0.199576,0.09557 0.311108,0.268122 0.31422,0.486151 0.460222,1.057783 0.553855,2.168715 0.103221,1.224736 0.24737,2.08238 0.567804,2.551348 0.527835,0.772519 1.938971,1.361825 4.20762,1.755361 2.021246,0.350624 2.546742,0.547095 3.600751,1.346194 0.571556,0.433325 0.742193,0.514297 0.742192,0.354704 0,-0.04532 -0.196351,-0.342507 -0.436665,-0.66053 -0.776487,-1.02758 -1.009266,-1.628644 -1.307208,-3.387832 -0.439547,-2.595323 -0.974267,-3.875239 -1.866643,-4.467302 -0.468713,-0.310979 -1.280964,-0.417625 -2.66185,-0.536243 -1.040782,-0.08941 -1.542579,-0.219499 -2.045215,-0.530659 -0.370605,-0.229427 -0.370605,-0.450655 0,-0.680078 0.517124,-0.320133 1.027827,-0.448251 2.272616,-0.566967 0.854135,-0.08146 1.708956,-0.172956 2.017315,-0.305826 1.125849,-0.485135 1.758184,-1.745546 2.208442,-4.398876 0.350795,-2.0671863 0.683486,-2.8982694 1.575067,-3.9408333 0.234452,-0.274187 0.30276,-0.4263067 0.237167,-0.4468704 -0.06559,-0.020566 -0.266038,0.091318 -0.570596,0.3435318 -0.479459,0.3970557 -1.554303,0.9779591 -2.071722,1.1199673 -0.191093,0.05245 -0.933796,0.1977514 -1.650403,0.3225844 -2.702871,0.4708377 -4.014683,1.106988 -4.486639,2.1756974 -0.09631,0.2180858 -0.202768,0.7629518 -0.255304,1.3126798 -0.133953,1.401654 -0.303301,2.52647 -0.576176,2.959117 C 16.224576,14.459366 16.109061,14.575842 16,14.594789 15.890938,14.575839 15.775425,14.459366 15.634485,14.235897 15.36161,13.80325 15.192262,12.678434 15.058309,11.27678 15.005773,10.727052 14.899315,10.182186 14.803005,9.9641002 14.331049,8.8953908 13.019237,8.2592405 10.316366,7.7884028 9.5997582,7.6635698 8.8570557,7.5182702 8.6659629,7.4658184 8.1485435,7.3238102 7.0736993,6.7429068 6.5942402,6.3458511 6.2896823,6.0936371 6.089238,5.9817528 6.0236447,6.0023193 Z"/>
 <path style="fill:#8b9cbe;opacity:0.2" d="M 4.0996094 2 C 2.9362094 2 2 2.9362094 2 4.0996094 L 2 5.0996094 C 2 3.9362094 2.9362094 3 4.0996094 3 L 27.900391 3 C 29.063791 3 30 3.9362094 30 5.0996094 L 30 4.0996094 C 30 2.9362094 29.063791 2 27.900391 2 L 4.0996094 2 z"/>
</svg>
