<svg xmlns="http://www.w3.org/2000/svg" width="32" height="32" version="1">
 <rect style="opacity:0.2" width="28" height="28" x="2" y="3" rx="8.4" ry="8.4"/>
 <rect style="fill:#424652" width="28" height="28" x="2" y="2" rx="8.4" ry="8.4"/>
 <path style="opacity:0.2" d="m 13,20 a 3,3 0 0 0 -3,3 3,3 0 0 0 3,3 3,3 0 0 0 3,-3 v -3 z"/>
 <path style="fill:#09c37b" d="m 13,19 a 3,3 0 0 0 -3,3 3,3 0 0 0 3,3 3,3 0 0 0 3,-3 v -3 z"/>
 <path style="opacity:0.2" d="m 13,14 h 3 v 6 h -3 c -1.662,0 -3,-1.338 -3,-3 0,-1.662 1.338,-3 3,-3 z"/>
 <path style="fill:#9154dd" d="m 13,13 h 3 v 6 h -3 c -1.662,0 -3,-1.338 -3,-3 0,-1.662 1.338,-3 3,-3 z"/>
 <circle style="opacity:0.2" cx="19" cy="17" r="3"/>
 <circle style="fill:#01b1f8" cx="19" cy="16" r="3"/>
 <path style="opacity:0.2" d="m 13,7.9999999 c -1.662,0 -3,1.338 -3,3.0000001 0,1.662 1.338,3 3,3 h 3 V 7.9999999 Z"/>
 <path style="fill:#f24e1e" d="m 13,6.9999999 c -1.662,0 -3,1.338 -3,3 C 10,11.662 11.338,13 13,13 h 3 V 6.9999999 Z"/>
 <path style="opacity:0.2" d="m 16,7.9999999 h 3 c 1.662,0 3,1.338 3,3.0000001 0,1.662 -1.338,3 -3,3 h -3 z"/>
 <path style="fill:#ff7262" d="m 16,6.9999999 h 3 c 1.662,0 3,1.338 3,3 C 22,11.662 20.662,13 19,13 h -3 z"/>
 <path style="fill:#8b9cbe;opacity:0.1" d="M 10.400391 2 C 5.7467908 2 2 5.7467908 2 10.400391 L 2 11.400391 C 2 6.7467908 5.7467908 3 10.400391 3 L 21.599609 3 C 26.253209 3 30 6.7467908 30 11.400391 L 30 10.400391 C 30 5.7467908 26.253209 2 21.599609 2 L 10.400391 2 z"/>
 <path style="opacity:0.2;fill:#8b9cbe" d="M 13 7 C 11.338 7 10 8.338 10 10 C 10 10.171588 10.023374 10.336435 10.050781 10.5 C 10.288841 9.0792738 11.509588 8 13 8 L 16 8 L 19 8 C 20.490412 8 21.711159 9.0792738 21.949219 10.5 C 21.976626 10.336435 22 10.171588 22 10 C 22 8.338 20.662 7 19 7 L 16 7 L 13 7 z"/>
</svg>
