<svg xmlns="http://www.w3.org/2000/svg" width="32" height="32" version="1">
 <path style="opacity:0.2" d="M 7.1685502,12.034826 C 3.8936196,14.56741 2,12.735223 2,17.163552 2,24.805211 8.2680136,31 16,31 c 7.731986,0 14,-6.194789 14,-13.836448 0,-3.557712 -1.358669,-6.801823 -3.591104,-9.2531763 0.04976,-0.00189 -0.208769,-0.2006295 -0.342053,-0.1510295 0.933267,1.546912 1.47043,3.3596838 1.47043,5.2980428 0,5.672532 -3.15483,11.292157 -8.827363,11.292157 -3.643432,0.17685 -8.496885,-2.152368 -9.2439042,-4.331961 -0.4819559,-1.406213 -0.3602998,-2.985566 0.9509522,-3.859822 0.712229,-0.452115 1.750599,-0.898515 3.393382,-0.950936 1.500678,-0.986933 0.770502,-0.874672 0.698316,-1.173477 C 14.04248,13.905876 13.214975,13.729712 12.072429,12.830484 11.060463,12.034026 10.590446,11.732022 7.641371,11.704475 7.0842357,10.631677 7.2231587,13.308634 7.1685502,12.034826 Z"/>
 <path style="fill:#45f1af" d="m 20.402474,1 c 0.59057,1.5721706 2.726226,3.5997298 5.543129,7.2075006 2.385645,3.0554354 2.659053,6.4644184 3.540982,9.5294844 l -6.628858,5.705436 -7.487756,-7.686744 C 15.336351,10.645545 14.109805,5.2768345 20.402474,1 Z"/>
 <path style="opacity:0.2;fill:#8b9cbe" d="M 20.402344 1 C 15.53636 4.307183 15.169591 8.2673168 15.267578 12.255859 C 15.275423 8.6095832 15.943703 5.0303308 20.402344 2 C 20.992914 3.5721706 23.12841 5.5992605 25.945312 9.2070312 C 28.122365 11.99531 28.552608 15.066978 29.279297 17.914062 L 29.486328 17.736328 C 28.604399 14.671262 28.330958 11.262467 25.945312 8.2070312 C 23.12841 4.5992605 20.992914 2.5721706 20.402344 1 z"/>
 <path style="fill:#715fff" d="m 6.769,10.199763 c 0.9725357,-0.9650152 2.5605798,-3.2120889 4.455366,-3.8349985 -0.509057,2.713323 0.150891,3.5757204 0.479375,4.9629395 L 8.6583009,10.538145 Z"/>
 <circle style="fill:#5543c7" cx="16" cy="16" r="7"/>
 <path style="fill:#15bfd1" d="m 18.217615,11.064705 c -0.09957,9.8e-4 -0.199095,0.0045 -0.298481,0.0106 2.027346,0.95169 3.323024,2.988288 3.325971,5.227895 -0.0015,3.077098 -2.412109,5.68455 -5.485105,5.843392 0.768412,0.363591 1.607527,0.483041 2.457615,0.485408 3.194219,2.9e-5 5.783672,-2.589367 5.783714,-5.783586 2.9e-5,-3.194269 -2.589445,-5.783743 -5.783714,-5.783714 z"/>
 <path id="ellipse841" style="fill:#763ad2" d="M 7.1685502,11.034826 C 3.8936196,13.56741 2,11.735223 2,16.163552 2,23.805211 8.2680136,30 16,30 23.731986,30 30,23.805211 30,16.163552 30,12.60584 28.641331,9.3617287 26.408896,6.9103757 c 0.04976,-0.00189 -0.208769,-0.2006295 -0.342053,-0.1510295 0.933267,1.546912 1.47043,3.3596838 1.47043,5.2980428 0,5.672532 -3.15483,11.292157 -8.827363,11.292157 -3.643432,0.17685 -8.496885,-2.152368 -9.2439042,-4.331961 -0.4819559,-1.406213 -0.3602998,-2.985566 0.9509522,-3.859822 0.712229,-0.452115 1.750599,-0.898515 3.393382,-0.950936 1.500678,-0.986933 0.770502,-0.874672 0.698316,-1.173477 C 14.04248,12.905876 13.214975,12.729712 12.072429,11.830484 11.060463,11.034026 10.590446,10.732022 7.641371,10.704475 7.0842357,9.6316772 7.2231587,12.308634 7.1685502,11.034826 Z"/>
 <path style="opacity:0.1" d="M 6.9797028,6.2606938 C 3.8449581,8.6848684 2.1872001,12.402051 2.0163507,16.599386 2.1956124,23.031886 8.0675269,28 15.29997,28 c 7.345402,0 13.300027,-5.127827 13.300027,-11.700029 0,-1.771243 -0.435662,-3.45099 -1.211331,-4.961533 0.0944,0.559484 0.149024,1.132208 0.149024,1.718558 C 27.53769,18.729528 22.938523,23 17.26599,23 13.622558,23.176851 10.881745,21.492852 10.134726,19.313259 9.6527703,17.907045 9.8105849,17.313681 11.121837,16.439425 11.834066,15.98731 12.836874,15.681102 14.479656,15.628681 15.980334,14.641748 16.0954,14.262248 16.023214,13.963443 15.557038,13.835969 14.271419,13.342356 13.128873,12.443127 12.116905,11.64667 10.437372,10.041506 7.4882972,10.013959 6.9311619,8.9411613 7.0343113,7.5345016 6.9797028,6.2606938 Z"/>
 <path style="fill:#8171ff" d="M 6.9797028,5.2606938 C 3.8449581,7.6848684 2.1872001,11.402051 2.0163507,15.599386 2.1956124,22.031886 8.0675269,27 15.29997,27 c 7.345402,0 13.300027,-5.127827 13.300027,-11.700029 0,-1.771243 -0.435662,-3.45099 -1.211331,-4.961533 0.0944,0.559484 0.149024,1.132208 0.149024,1.718558 C 27.53769,17.729528 22.938523,22 17.26599,22 13.622558,22.176851 10.881745,20.492852 10.134726,18.313259 9.6527703,16.907045 9.8105849,16.313681 11.121837,15.439425 11.834066,14.98731 12.836874,14.681102 14.479656,14.628681 15.980334,13.641748 16.0954,13.262248 16.023214,12.963443 15.557038,12.835969 14.271419,12.342356 13.128873,11.443127 12.116905,10.64667 10.437372,9.0415061 7.4882972,9.0139589 6.9311619,7.9411613 7.0343113,6.5345016 6.9797028,5.2606938 Z"/>
 <path style="fill:#15bfd1" d="M 8.2558594 12.003906 C 7.3031323 11.983236 6.5003954 12.311312 5.8632812 12.746094 C 5.7491629 12.860213 6.7711005 14.924874 8.9003906 14.947266 C 8.7032464 18.382039 11.273779 20.893617 13 21.390625 L 13.757812 21.529297 C 11.923025 20.899858 10.614417 19.71199 10.134766 18.3125 C 9.6528099 16.906286 9.8098417 16.313709 11.121094 15.439453 C 11.833323 14.987338 12.835733 14.681327 14.478516 14.628906 C 15.228855 14.13544 15.634511 13.793001 15.841797 13.537109 C 15.945461 13.409313 15.999353 13.303956 16.023438 13.210938 C 16.047506 13.117807 16.041484 13.037592 16.023438 12.962891 C 14.000633 14.999997 11.128396 12.758458 8.9023438 12.076172 C 8.6928669 12.031452 8.4757193 12.008666 8.2558594 12.003906 z"/>
 <path style="opacity:0.2;fill:#8b9cbe" d="M 6.9804688 5.2597656 C 3.845724 7.6839402 2.1864744 11.402274 2.015625 15.599609 C 2.0204347 15.772198 2.0456716 15.938963 2.0585938 16.109375 C 2.335551 12.115577 3.9696018 8.5881425 6.9804688 6.2597656 C 7.0350773 7.5335734 6.931146 8.9408742 7.4882812 10.013672 C 10.437356 10.041219 12.116938 11.646902 13.128906 12.443359 C 13.999515 13.128563 14.94769 13.574996 15.558594 13.806641 C 15.994586 13.402263 16.070193 13.156429 16.023438 12.962891 C 15.557262 12.835417 14.271452 12.342588 13.128906 11.443359 C 12.116938 10.646902 10.437356 9.0412191 7.4882812 9.0136719 C 6.931146 7.9408743 7.0350773 6.5335734 6.9804688 5.2597656 z M 27.388672 10.337891 C 27.459842 10.759699 27.497988 11.191881 27.517578 11.628906 C 28.13741 12.924227 28.503443 14.336851 28.570312 15.820312 C 28.57876 15.646507 28.599609 15.476728 28.599609 15.300781 C 28.599609 13.529538 28.164341 11.848434 27.388672 10.337891 z M 27.513672 12.527344 C 27.26516 17.961687 22.778755 22 17.265625 22 C 13.622193 22.176851 10.881785 20.492093 10.134766 18.3125 C 10.05414 18.077257 9.9974905 17.872602 9.9550781 17.677734 C 9.8119624 18.111134 9.8937878 18.609393 10.134766 19.3125 C 10.881785 21.492093 13.622193 23.176851 17.265625 23 C 22.938158 23 27.537109 18.729173 27.537109 13.056641 C 27.537109 12.878106 27.523381 12.703363 27.513672 12.527344 z"/>
</svg>
