<svg xmlns="http://www.w3.org/2000/svg" width="32" height="32" version="1.1">
 <path style="opacity:.2" d="m16.5 3c-0.08008 0-0.424019 0.2277897-0.791015 0.5058593-3.242221 2.4008703-7.8024647 4.9015952-12.14556 5.5187775l-0.563425 0.0875 0.0388566 0.5673829c0.065569 0.9595593 0.6219295 3.5068593 1.1573808 5.2964843 0.6853405 2.290595 1.4446803 4.214707 2.4424347 6.19336 2.2596428 4.481106 5.1158289 7.255547 8.6248449 9.3863 0.457159 0.277596 0.881476 0.427137 1.236483 0.444336 0.355007-0.0172 0.779325-0.16674 1.236482-0.444336 3.509017-2.130753 6.365203-4.905194 8.624846-9.3863 0.997754-1.978653 1.757094-3.902765 2.442434-6.19336 0.535452-1.789625 1.091813-4.336925 1.157381-5.2964843l0.038857-0.5673832-0.563425-0.0875c-4.343095-0.6171823-8.903339-3.1179072-12.145559-5.5187775-0.366997-0.2780696-0.710935-0.5058593-0.791016-0.5058593z"/>
 <path style="fill:#fe6d40" d="m16.5 2c-0.08008 0-0.424019 0.2277897-0.791015 0.5058593-3.242221 2.4008703-7.8024647 4.9015952-12.14556 5.5187775l-0.563425 0.0875 0.0388566 0.5673829c0.065569 0.9595593 0.6219295 3.5068593 1.1573808 5.2964843 0.6853405 2.290595 1.4446803 4.214707 2.4424347 6.19336 2.2596428 4.481106 5.1158289 7.255547 8.6248449 9.3863 0.457159 0.277596 0.881476 0.427137 1.236483 0.444336 0.355007-0.0172 0.779325-0.16674 1.236482-0.444336 3.509017-2.130753 6.365203-4.905194 8.624846-9.3863 0.997754-1.978653 1.757094-3.902765 2.442434-6.19336 0.535452-1.789625 1.091813-4.336925 1.157381-5.2964843l0.038857-0.5673832-0.563425-0.0875c-4.343095-0.6171823-8.903339-3.1179072-12.145559-5.5187775-0.366997-0.2780696-0.710935-0.5058593-0.791016-0.5058593z"/>
 <path style="opacity:.2" d="m16.5 6.5214844c-2.816176 1.9765719-6.23333 3.8846866-10.035156 4.8906246 0.2068964 1.011927 0.3288113 1.778461 0.6054687 2.703125 0.6431535 2.149595 1.3248682 3.876237 2.2460937 5.703125 1.9482448 3.863572 4.2240488 6.059899 7.1835938 7.919922 2.959545-1.860023 5.235349-4.05635 7.183594-7.919922 0.921225-1.826888 1.60294-3.553531 2.246094-5.703125 0.276657-0.924664 0.398572-1.691199 0.605468-2.703125-3.801826-1.005938-7.21898-2.9140525-10.035156-4.8906246z"/>
 <path style="fill:#8b9cbe" d="m16.5 5.5214844c-2.816176 1.9765719-6.23333 3.884687-10.035156 4.8906246 0.2068964 1.011927 0.3288113 1.778461 0.6054687 2.703125 0.6431535 2.149595 1.3248682 3.876237 2.2460937 5.703125 1.9482448 3.863572 4.2240488 6.059899 7.1835938 7.919922 2.959545-1.860023 5.235349-4.05635 7.183594-7.919922 0.921225-1.826888 1.60294-3.553531 2.246094-5.703125 0.276657-0.924664 0.398572-1.691199 0.605468-2.703125-3.801826-1.0059376-7.21898-2.9140525-10.035156-4.8906246z"/>
 <rect style="fill:#fe6d40" width="3" height="5.6" x="15" y="17.4"/>
 <path style="opacity:.2" transform="matrix(2.0953941,0,0,2.1995933,-25.505568,-29.693993)" d="m20.046619 18.04606 1.312403 2.273148 1.312402 2.273147h-2.624805-2.624804l1.312402-2.273147z"/>
 <path style="fill:#fe6d40" transform="matrix(2.0953941,0,0,2.1995933,-25.505568,-30.693993)" d="m20.046619 18.04606 1.312403 2.273148 1.312402 2.273147h-2.624805-2.624804l1.312402-2.273147z"/>
 <path style="opacity:.2" transform="matrix(1.7144133,0,0,1.5397153,-17.868191,-18.785795)" d="m20.046619 18.04606 1.312403 2.273148 1.312402 2.273147h-2.624805-2.624804l1.312402-2.273147z"/>
 <path style="fill:#fe6d40" transform="matrix(1.7144133,0,0,1.5397153,-17.868191,-19.785795)" d="m20.046619 18.04606 1.312403 2.273148 1.312402 2.273147h-2.624805-2.624804l1.312402-2.273147z"/>
 <path style="opacity:.2;fill:#8b9cbe" d="m16.5 2c-0.08008 0-0.42402 0.2277898-0.791016 0.5058594-3.242221 2.4008703-7.8033889 4.9023489-12.146484 5.5195312l-0.5625 0.0859375 0.0390625 0.5683594c0.006988 0.1022645 0.0391231 0.2824758 0.0566406 0.4179687l0.4667969-0.0722656c4.3430951-0.6171823 8.904263-3.1186609 12.146484-5.5195312 0.366996-0.2780696 0.710936-0.5058594 0.791016-0.5058594 0.080081 0 0.424019 0.2277898 0.791016 0.5058594 3.24222 2.4008703 7.803389 4.9023489 12.146484 5.5195312l0.466797 0.0722656c0.017517-0.1354929 0.049653-0.3157042 0.056641-0.4179687l0.039062-0.5683594-0.5625-0.0859375c-4.343095-0.6171823-8.904264-3.1186609-12.146484-5.5195312-0.366997-0.2780696-0.710935-0.5058594-0.791016-0.5058594z"/>
</svg>
