<svg xmlns="http://www.w3.org/2000/svg" width="32" height="32" version="1.1">
 <circle style="opacity:0.2" cx="16" cy="17" r="14"/>
 <circle cx="16" cy="16" r="14" style="fill:#b2bfd9"/>
 <path style="opacity:0.1" d="m 16.607422,6.9994283 c -1.178088,0 -1.337562,0.054477 -1.460938,0.5 -0.414949,1.4983872 0.08738,3.8834817 1.085938,5.1503907 0.346058,0.439062 1.353042,1.124171 2.490234,1.693359 1.050075,0.525588 2.202205,1.190874 2.560547,1.478516 0.35835,0.287643 0.737706,0.471625 0.84375,0.408203 0.474618,-0.283859 0.973035,-2.430858 0.855469,-3.685547 -0.305767,-3.2632056 -2.92955,-5.5449217 -6.375,-5.5449217 z M 14.0625,7.4779439 13.158203,7.9623189 c -1.667802,0.89049 -3.059183,2.9236401 -3.7636718,5.5000001 -0.4745013,1.73529 -0.5304661,5.20569 -0.1113281,6.894531 0.8260839,3.328615 2.8052359,5.711405 5.3613279,6.453125 0.321432,0.09328 1.231184,0.178933 2.021485,0.189453 3.691063,0.04911 6.679763,-3.072951 6.302734,-6.583984 C 22.709363,17.999935 21.565045,16.67766 18.384766,15.110756 15.271227,13.576733 14.174579,12.00233 14.099609,8.9623189 Z M 20.25,9.9994283 a 0.74999934,0.7500002 0 0 1 0.75,0.7499997 0.74999934,0.7500002 0 0 1 -0.75,0.75 0.74999934,0.7500002 0 0 1 -0.75,-0.75 0.74999934,0.7500002 0 0 1 0.75,-0.7499997 z m 2.9375,0.2128907 c -0.05437,0.02554 -0.03725,0.112157 0.02539,0.275391 0.0809,0.210837 0.205323,0.814386 0.277343,1.339843 0.07202,0.525457 0.209258,0.955078 0.304688,0.955078 0.09543,0 0.489929,-0.400007 0.876953,-0.888672 L 25.375,11.005287 24.746094,10.761147 c -0.34617,-0.13464 -0.865078,-0.338183 -1.154297,-0.451172 -0.223917,-0.08748 -0.349929,-0.123194 -0.404297,-0.09766 z"/>
 <path style="fill:#f03b43" d="M 14.644729,25.810722 C 12.088637,25.069002 10.108407,22.685866 9.2823234,19.357251 8.8631854,17.66841 8.9192842,14.199051 9.3937855,12.463761 10.098274,9.8874011 11.490376,7.85299 13.158178,6.9625 l 0.905149,-0.4832829 0.03662,1.4842108 c 0.07497,3.0400111 1.171582,4.6131481 4.285121,6.1471711 3.180279,1.566904 4.323374,2.890372 4.582761,5.305881 0.377029,3.511033 -2.610669,6.632057 -6.301732,6.582948 -0.790301,-0.01052 -1.699913,-0.09543 -2.021345,-0.188706 z"/>
 <path d="M 17.460727,25.183018 C 18.885888,23.41798 17.285452,19.473654 15.004015,19.128355 L 14.155958,19 14.47752,19.701675 c 0.425971,0.929515 0.404537,1.587875 -0.08095,2.486396 -0.220553,0.408194 -0.399002,1.12222 -0.396544,1.586721 0.01123,2.121575 2.174085,3.001684 3.460701,1.408226 z" style="opacity:0.2"/>
 <path style="fill:#ffff00" d="M 17.460727,24.183018 C 18.885888,22.41798 17.285452,18.473654 15.004015,18.128355 L 14.155958,18 14.47752,18.701675 c 0.425971,0.929515 0.404537,1.587875 -0.08095,2.486396 -0.220553,0.408194 -0.399002,1.12222 -0.396544,1.586721 0.01123,2.121575 2.174085,3.001684 3.460701,1.408226 z"/>
 <path style="fill:#404040" d="M 16.607422 6 C 15.429334 6 15.26986 6.0544768 15.146484 6.5 C 14.731535 7.9983872 15.233865 10.383482 16.232422 11.650391 C 16.57848 12.089453 17.585464 12.774562 18.722656 13.34375 C 19.772731 13.869338 20.924861 14.534624 21.283203 14.822266 C 21.641553 15.109909 22.020909 15.293891 22.126953 15.230469 C 22.601571 14.94661 23.099988 12.799611 22.982422 11.544922 C 22.676655 8.2817162 20.052872 6 16.607422 6 z M 20.25 9 A 0.74999934 0.7500002 0 0 1 21 9.75 A 0.74999934 0.7500002 0 0 1 20.25 10.5 A 0.74999934 0.7500002 0 0 1 19.5 9.75 A 0.74999934 0.7500002 0 0 1 20.25 9 z"/>
 <path style="fill:#404040" d="M 23.490186,10.827758 C 23.418166,10.302301 23.293044,9.6998779 23.21214,9.4890408 23.086865,9.1625743 23.143059,9.1361793 23.590893,9.3111343 23.880112,9.4241229 24.39997,9.6267286 24.74614,9.7613686 l 0.629395,0.2448004 -0.703699,0.888483 c -0.387024,0.488665 -0.781766,0.888483 -0.877193,0.888483 -0.09543,0 -0.232433,-0.42992 -0.304457,-0.955377 z"/>
 <path style="fill:#8b9cbe;opacity:0.2" d="M 16 2 A 14 14 0 0 0 2 16 A 14 14 0 0 0 2.0214844 16.585938 A 14 14 0 0 1 16 3 A 14 14 0 0 1 29.978516 16.414062 A 14 14 0 0 0 30 16 A 14 14 0 0 0 16 2 z"/>
</svg>
