<svg xmlns="http://www.w3.org/2000/svg" width="32" height="32" x="0" y="0" version="1.1" xml:space="preserve">
 <g style="opacity:0.2" transform="matrix(0.4375,0,0,0.4375,2,3)">
  <g>
   <path d="M 32,0 C 49.7,0 64,14.3 64,32 64,49.7 49.7,64 32,64 14.3,64 0,49.7 0,32 0,14.3 14.3,0 32,0 Z"/>
  </g>
 </g>
 <g style="fill:#763983" transform="matrix(0.4375,0,0,0.4375,2,2)">
  <g style="fill:#763983">
   <path style="fill:#763983" d="M 32,0 C 49.7,0 64,14.3 64,32 64,49.7 49.7,64 32,64 14.3,64 0,49.7 0,32 0,14.3 14.3,0 32,0 Z"/>
  </g>
 </g>
 <path style="opacity:0.2" d="M 16.70141,15.160533 C 24.693022,13.577281 25,10 25,10 25,10 24.370648,21.08654 18.530278,21.67309 11.129167,22.416386 10.623318,26 10.623318,26 c 0,0 -0.151369,-1.150328 0.315363,-2.651506 0.934215,-3.004774 2.629396,-7.567204 5.762729,-8.187961 z"/>
 <path style="fill:#eb2273" d="M 16.70141,14.160533 C 24.693022,12.577281 25,9 25,9 25,9 24.370648,20.08654 18.530278,20.67309 11.129167,21.416386 10.623318,25 10.623318,25 c 0,0 -0.151369,-1.150328 0.315363,-2.651506 0.934215,-3.004774 2.629396,-7.567204 5.762729,-8.187961 z"/>
 <path style="fill:#8b9cbe;opacity:0.2" d="M 25 9 C 25 9 24.692784 12.576904 16.701172 14.160156 C 13.567839 14.780913 11.873668 19.342882 10.939453 22.347656 C 10.472721 23.848834 10.623047 25 10.623047 25 C 10.623047 25 10.634232 24.958566 10.636719 24.945312 C 10.672771 24.501156 10.746531 23.968165 10.939453 23.347656 C 11.873668 20.342882 13.567839 15.780913 16.701172 15.160156 C 22.708565 13.970006 24.373604 11.655281 24.830078 10.578125 C 24.95743 9.641996 25 9 25 9 z"/>
 <path style="opacity:0.2" d="M 12.415117,14.749926 C 19.381527,11.804653 18.743477,7 18.743477,7 c 0,0 3.846189,9.801777 -1.919752,12.086895 C 10.382574,21.639607 10.66918,26 10.66918,26 c 0,0 -2.3455261,-9.520275 1.745937,-11.250074 z"/>
 <path style="fill:#ff812d" d="M 12.415117,13.749926 C 19.381527,10.804653 18.743477,6 18.743477,6 c 0,0 3.846189,9.801777 -1.919752,12.086895 C 10.382574,20.639607 10.66918,25 10.66918,25 c 0,0 -2.3455261,-9.520275 1.745937,-11.250074 z"/>
 <path style="fill:#8b9cbe;opacity:0.2" d="M 18.744141 6 C 18.744141 6 19.382426 10.804727 12.416016 13.75 C 10.372836 14.613821 9.9342335 17.420082 10.007812 20.013672 C 10.073382 17.735097 10.634201 15.50332 12.416016 14.75 C 19.382426 11.804727 18.744141 7 18.744141 7 C 18.744141 7 19.850866 9.8492243 19.978516 12.832031 C 20.11252 9.5189426 18.744141 6 18.744141 6 z"/>
 <path style="opacity:0.2" d="M 8.680918,17.500951 C 12.926605,12.504424 11.971648,9 11.971648,9 c 0,0 5.439621,6.087472 1.738116,9.857847 C 9.5748017,23.069749 10.725,26 10.725,26 c 0,0 -4.4792476,-5.633225 -2.044082,-8.499049 z"/>
 <path style="fill:#ffdf55" d="M 8.680918,16.500951 C 12.926605,11.504424 11.971648,8 11.971648,8 c 0,0 5.439621,6.087472 1.738116,9.857847 C 9.5748017,22.069749 10.725,25 10.725,25 c 0,0 -4.4792476,-5.633225 -2.044082,-8.499049 z"/>
 <g style="fill:#8b9cbe;opacity:0.1" transform="matrix(0.4375,0,0,0.4375,2,2)">
  <g style="fill:#8b9cbe">
   <path style="fill:#8b9cbe" transform="matrix(2.2857143,0,0,2.2857143,-4.5714286,-4.5714286)" d="M 16 2 C 8.25625 2 2 8.25625 2 16 C 2 16.168804 2.0194943 16.332659 2.0253906 16.5 C 2.2899854 8.9907086 8.4250543 3 16 3 C 23.574946 3 29.710015 8.9907086 29.974609 16.5 C 29.980506 16.332659 30 16.168804 30 16 C 30 8.25625 23.74375 2 16 2 z"/>
  </g>
 </g>
 <path style="fill:#8b9cbe;opacity:0.2" d="M 11.970703 8 C 11.970703 8 12.065929 8.4127262 12.052734 9.1035156 C 12.236302 9.3125025 14.677081 12.14073 14.962891 15.134766 C 15.273164 11.712208 11.970703 8 11.970703 8 z M 12.035156 9.4863281 C 11.919792 10.966235 11.275265 13.447699 8.6816406 16.5 C 8.043354 17.251167 7.8855702 18.193681 7.9921875 19.173828 C 8.0613724 18.564461 8.2655466 17.98968 8.6816406 17.5 C 12.10161 13.475217 12.146815 10.523023 12.035156 9.4863281 z M 10.615234 24.503906 C 10.606789 24.601942 10.586665 24.715646 10.583984 24.804688 C 10.607335 24.83493 10.724609 25 10.724609 25 C 10.724609 25 10.658777 24.811029 10.615234 24.503906 z"/>
</svg>
