<svg xmlns="http://www.w3.org/2000/svg" width="32" height="32" version="1">
 <path style="opacity:0.2" d="m 21.093069,5.1161706 6.79076,6.7907594 c 2.821561,2.821562 2.821561,7.364579 0,10.18614 l -6.790759,6.79076 c -2.821561,2.82156 -7.364579,2.82156 -10.18614,0 L 4.1161705,22.09307 c -2.8215606,-2.821561 -2.8215606,-7.364578 2e-7,-10.186139 L 10.90693,5.1161708 c 2.821561,-2.8215607 7.364579,-2.8215607 10.186139,-2e-7 z"/>
 <path style="fill:#17191e" d="m 20.1705,5.8459892 5.983511,6.3871358 c 2.728048,2.912071 2.658303,5.532975 -0.05766,8.456321 l -6.041171,6.502456 c -1.377023,1.482169 -2.265751,2.827741 -4.132627,2.807682 -1.815245,-0.0195 -3.624623,-0.724756 -5.015622,-2.115754 L 4.1161706,21.09307 c -2.8215605,-2.82156 -2.8215605,-7.364579 0,-10.18614 L 10.90693,4.1161707 c 1.420143,-1.4201428 3.276382,-2.1255017 5.129726,-2.1160769 1.828907,0.0093 2.778872,2.3995227 4.133844,3.8458954 z"/>
 <path style="opacity:0.2" d="M 16 3 C 16 3 16.008191 7.2100436 15.988281 9.1464844 C 15.985981 9.3628257 15.875308 9.6278808 15.724609 9.7832031 C 14.721025 10.819608 13.187432 12.125958 12.179688 13.158203 C 12.052101 13.289024 12.001386 13.51066 12 13.691406 C 11.98475 15.887641 11.9986 18.085017 12 20.28125 C 12 20.36122 11.9903 20.441516 12 20.521484 C 12.04022 20.548784 12.051577 20.576256 12.091797 20.603516 C 14.249201 18.446115 16.847679 15.988257 19 13.835938 C 19 15.815831 19.01342 18.116025 19 20.117188 C 18.99909 20.261409 18.869995 20.434336 18.763672 20.542969 C 17.917721 21.406482 17.143277 22.262396 16.279297 23.107422 C 16.077749 23.304808 15.992754 23.503848 15.994141 23.789062 C 16.003339 25.858279 16.010346 27.930091 16.013672 30 C 17.850261 29.99652 19.686458 29.292057 21.09375 27.884766 L 27.884766 21.09375 C 29.167665 19.810851 29.860273 18.171037 29.976562 16.5 C 29.860273 14.829097 29.165711 13.191102 27.882812 11.908203 L 21.09375 5.1171875 C 19.682969 3.7064072 17.841145 3 16 3 z"/>
 <path style="opacity:0.1;fill:#8b9cbe" d="M 16 2 C 14.158855 2 12.31703 2.704454 10.90625 4.1152344 L 4.1152344 10.90625 C 2.5765724 12.444912 1.883964 14.49582 2.0234375 16.5 C 2.1397271 14.828963 2.8323355 13.189149 4.1152344 11.90625 L 10.90625 5.1152344 C 13.727811 2.2936737 18.27219 2.2936739 21.09375 5.1152344 L 27.884766 11.90625 C 29.167665 13.189149 29.860273 14.828963 29.976562 16.5 C 30.116036 14.49582 29.423428 12.444913 27.884766 10.90625 L 21.09375 4.1152344 C 19.68297 2.7044541 17.841145 2 16 2 z"/>
 <path style="fill:#1e84d4" d="m 16,1.9999999 c 0,0 0.0076,4.2090672 -0.01231,6.145508 -0.0023,0.2163413 -0.111801,0.4817869 -0.2625,0.6371092 -1.003584,1.0364053 -2.537211,2.3422869 -3.544956,3.3745319 -0.127586,0.130821 -0.179081,0.353824 -0.180467,0.53457 -0.01525,2.196235 -0.0014,4.393611 0,6.589844 0,0.07997 -0.0097,0.15929 0,0.239258 0.04022,0.0273 0.05275,0.05477 0.09297,0.08203 2.157404,-2.157401 4.755202,-4.615571 6.907523,-6.767891 0,1.979894 0.01342,4.281429 0,6.282591 -9.1e-4,0.144221 -0.130198,0.316562 -0.236521,0.425195 -0.845951,0.863513 -1.619487,1.719818 -2.483467,2.564844 -0.201548,0.197386 -0.287129,0.395644 -0.285742,0.680859 0.01063,2.391312 0.02186,4.786059 0.02324,7.177371 l 0.08613,0.02871 c 1.806282,-0.0261 3.604685,-0.726756 4.988867,-2.110939 l 6.79082,-6.790819 c 2.821561,-2.821561 2.821561,-7.363987 0,-10.185548 L 21.092774,4.1164062 C 19.681993,2.7056259 17.841145,1.9999999 16,1.9999999 Z"/>
 <path style="fill:#8b9cbe;opacity:0.2" d="M 16 2 C 16 2 16.008191 6.2100436 15.988281 8.1464844 C 15.985981 8.3628257 15.875308 8.6278808 15.724609 8.7832031 C 14.721025 9.8196084 13.187432 11.124005 12.179688 12.15625 C 12.052101 12.287071 12.001386 12.51066 12 12.691406 C 11.997686 13.024682 12.001119 13.358086 12 13.691406 C 12.001386 13.51066 12.052101 13.289024 12.179688 13.158203 C 13.187432 12.125958 14.721025 10.819608 15.724609 9.7832031 C 15.875308 9.6278808 15.985981 9.3628257 15.988281 9.1464844 C 16.008191 7.2100436 16 3 16 3 C 17.841145 3 19.682969 3.7064072 21.09375 5.1171875 L 27.882812 11.908203 C 29.165711 13.191102 29.860273 14.829097 29.976562 16.5 C 30.116036 14.49598 29.421475 12.444912 27.882812 10.90625 L 21.09375 4.1171875 C 19.682969 2.7064072 17.841145 2 16 2 z M 19 19.117188 C 18.99909 19.261409 18.869995 19.434336 18.763672 19.542969 C 17.917721 20.406482 17.143277 21.262396 16.279297 22.107422 C 16.077749 22.304808 15.992754 22.503848 15.994141 22.789062 C 15.995596 23.116453 15.996596 23.443983 15.998047 23.771484 C 16.00074 23.497024 16.082534 23.300122 16.279297 23.107422 C 17.143277 22.262396 17.917721 21.406482 18.763672 20.542969 C 18.869995 20.434336 18.99909 20.261409 19 20.117188 C 19.002137 19.798595 18.999062 19.448497 19 19.117188 z"/>
</svg>
