<svg xmlns="http://www.w3.org/2000/svg" width="32" height="32" version="1">
 <rect style="opacity:0.2" width="28" height="28" x="2" y="3" rx="14" ry="14"/>
 <rect style="fill:#b2bfd9" width="28" height="28" x="2" y="2" rx="14" ry="14"/>
 <circle style="fill:#17191e" cx="16" cy="16" r="10"/>
 <path style="opacity:0.2" d="m 12,11 0,5 0,3 0,4 3,0 0,-4 3,0 0,-3 -3,0 0,-2 5,0 0,-3 -5,0 -1.4,0 z"/>
 <path style="fill:#8b9cbe" d="m 12,10 0,5 0,3 0,4 3,0 0,-4 3,0 0,-3 -3,0 0,-2 5,0 0,-3 -5,0 -1.4,0 z"/>
 <path style="fill:#8b9cbe;opacity:0.2" d="M 16 2 C 8.244 2 2 8.244 2 16 C 2 16.168842 2.0195214 16.33264 2.0253906 16.5 C 2.2891326 8.9794325 8.4128418 3 16 3 C 23.500fae9 3 29.710867 8.9794325 29.974609 16.5 C 29.980479 16.33264 30 16.168842 30 16 C 30 8.244 23.756 2 16 2 z"/>
</svg>
