<svg xmlns="http://www.w3.org/2000/svg" width="32" height="32" version="1">
 <path fill="#f4981b" d="m16 2c-7.756 0-14 6.244-14 14s6.244 14 14 14 14-6.244 14-14-6.244-14-14-14z"/>
 <circle opacity=".2" cx="16" cy="17" r="11"/>
 <circle fill="#fff" cx="16" cy="16" r="11"/>
 <path fill="#17191e" d="m9 16h2v7h10v-7h2l-7-7.0012z"/>
 <rect fill="#17191e" width="2" height="7" x="19" y="10"/>
 <path fill="#fff" opacity=".2" d="m16 2c-7.756 0-14 6.244-14 14 0 0.169 0.0195 0.333 0.0254 0.5 0.2637-7.5206 6.3874-13.5 13.975-13.5 7.587 0 13.711 5.9794 13.975 13.5 0.005-0.167 0.025-0.331 0.025-0.5 0-7.756-6.244-14-14-14z"/>
 <path opacity=".2" d="m2.0254 16.5c-0.0059 0.167-0.0254 0.331-0.0254 0.5 0 7.756 6.244 14 14 14s14-6.244 14-14c0-0.16884-0.01952-0.33264-0.02539-0.5-0.264 7.521-6.388 13.5-13.975 13.5-7.5872 0-13.711-5.979-13.975-13.5z"/>
</svg>
