<svg width="32" height="32" version="1.1" xmlns="http://www.w3.org/2000/svg">
 <rect x="2" y="3" width="28" height="28" rx="2" ry="2" style="opacity:.2"/>
 <rect x="2" y="2" width="28" height="28" rx="2" ry="2" style="fill:#4f4f4f"/>
 <path d="m15.275391 4.6269531c-0.267075-0.019243-0.520736-0.007292-0.810547 0.03125-0.285186 0.037923-0.594391 0.087604-0.689453 0.109375-0.09506 0.021771-0.515884 0.1080208-0.933594 0.1933594-1.21926 0.2490976-1.764328 0.4585194-2.820313 1.09375-0.2099683 0.126308-0.5479809 0.3199509-0.7539059 0.4277344-0.597607 0.3127923-0.8456635 0.4791699-1.1015625 0.7421875-1.405646 1.4447434-1.6115112 1.6781053-2.0820312 2.3652344-0.311762 0.4552852-0.9571068 1.6453202-1.2304688 2.2695312-0.05725 0.13071-0.1655995 0.372704-0.2421875 0.539063-0.339129 0.736624-0.439254 1.042524-0.625 1.880859-0.141952 0.640674-0.411744 1.619304-0.578125 2.101562-0.195034 0.565307-0.2410994 0.859546-0.2402343 1.548829 7.7e-4 0.625267 0.0360777 0.839179 0.1679687 1.017578 0.08124 0.109886 0.0898437 0.181725 0.0898437 0.783203 0 0.726995 0.0366015 0.855469 0.2421876 0.855469 0.262287 0 0.5792712 0.257404 0.5820312 0.474609 0.0018 0.14532 0.0789356 0.190718 0.3847656 0.21875 0.275939 0.02528 0.326007 0.046144 0.46875 0.183594 0.08763 0.08436 0.2516244 0.193435 0.3652344 0.246093 0.234236 0.10857 0.3159725 0.207531 0.3828125 0.455078 0.02566 0.095061 0.1219086 0.252817 0.2128906 0.351563 0.09356 0.101556 0.1924736 0.272216 0.2285157 0.390625 0.03504 0.11515 0.1222465 0.312648 0.1953124 0.443359 0.09688 0.173321 0.1322525 0.295951 0.1328126 0.449219l0.0039062 0.210938 0.1386719-0.03125c0.07724-0.01662 0.2586119-0.039092 0.4042969-0.050782l0.265625-0.019531 0.1230468 0.179688c0.172444 0.254111 0.367996 0.353675 0.65625 0.332031 0.22295-0.0168 0.2322882-0.013721 0.3457032 0.144531 0.152984 0.213452 0.2913282 0.290055 0.5820312 0.324219 0.213042 0.02505 0.2446804 0.020676 0.2871094-0.058594 0.02621-0.04894 0.046875-0.148803 0.046875-0.21875 0-0.15351 0.1022948-0.256597 0.1855468-0.1875 0.03083 0.02558 0.0936648 0.162946 0.1367188 0.306641 0.04304 0.143692 0.1023485 0.263672 0.1328125 0.263672 0.0969495 0 0.2612915-0.415389 0.3652345-0.919922 0.02815-0.136654 0.075519-0.248119 0.103516-0.248047 0.04701 1.3e-4 0.235117 0.139288 1.171874 0.849609 0.645966 0.48983 1.636728 1.145636 2.019532 1.337891 0.963933 0.484117 1.549564 0.56148 2.402344 0.316406 0.580334-0.166775 1.406582-0.561556 2.21289-1.0625 0.344599-0.214094 0.780579-0.476037 0.970703-0.578125 0.190123-0.102088 0.441603-0.242752 0.556641-0.314453 0.216853-0.135156 0.285406-0.120424 0.287109 0.0625 0.0012 0.132076 0.172863 0.633264 0.25 0.728516l0.074219 0.095703 0.212891-0.175781c0.208014-0.171884 0.347515-0.219198 0.666015-0.21875 0.10437 1.3e-4 0.183395-0.036089 0.279297-0.128907 0.07398-0.0716 0.210096-0.161382 0.300781-0.199219 0.149555-0.06238 0.188086-0.062163 0.423828-0.001953 0.313369 0.08028 0.276789 0.080553 0.355469 0.001953 0.04453-0.04453 0.057636-0.112336 0.041016-0.214843-0.02171-0.133882-0.010777-0.154785 0.095703-0.195313 0.14728-0.056 0.306613 0.03361 0.373047 0.208985 0.0461 0.121674 0.200973 0.310547 0.255859 0.310547 0.0175 0 0.128003-0.076577 0.246094-0.169922 0.188663-0.149135 0.232342-0.213331 0.345703-0.529297 0.07097-0.197779 0.142103-0.430702 0.158203-0.519531 0.05095-0.280858 0.248818-0.324096 0.501953-0.107422 0.09178 0.07857 0.217232 0.169901 0.279297 0.203125 0.09736 0.05209 0.120008 0.050403 0.154297-0.003907 0.02185-0.03455 0.040656-0.105633 0.041016-0.158203 3.47e-4 -0.05258 0.040094-0.20495 0.089843-0.33789 0.08588-0.229504 0.098991-0.241086 0.228516-0.228516 0.116536 0.01134 0.152932 0.048642 0.263672 0.255859 0.165865 0.31041 0.229147 0.386719 0.330078 0.386719 0.09747 0 0.253676-0.237815 0.253906-0.386719 1.71e-4 -0.112546-0.061913-0.327523-0.158203-0.55664-0.07743-0.184285-0.074647-0.287083 0.007813-0.355469 0.05516-0.04578 0.088892-0.039687 0.1875 0.033203 0.06552 0.04844 0.22584 0.140384 0.353515 0.205078 0.211939 0.107394 0.245036 0.115109 0.392579 0.066406 0.088889-0.02933 0.214083-0.04174 0.279296-0.02539 0.151533 0.03802 0.188129-0.02241 0.191407-0.300781 0.0035-0.301271 0.067164-0.589091 0.136718-0.63086 0.03226-0.01936 0.136136-0.081835 0.232422-0.140625l0.175781-0.109375 0.201172 0.132813c0.110544 0.0719 0.2224 0.116661 0.25 0.099609 0.0621-0.0383 0.02854-0.393412-0.09375-0.970703-0.04785-0.225661-0.124114-0.592697-0.169922-0.814453-0.087849-0.425302-0.183451-2.106713-0.140624-2.470703 0.06784-0.576482-0.365713-3.162538-0.707032-4.22461-0.05915-0.183963-0.153089-0.506814-0.208984-0.720703-0.207704-0.79483-0.653527-1.82302-1.097656-2.5292966-0.097138-0.1544753-0.207714-0.3373871-0.246094-0.40625-0.327708-0.5880098-1.707667-2.155067-2.371094-2.6914063-0.190124-0.1537031-0.491681-0.3572462-0.669922-0.4511719-0.178241-0.0939259-0.430061-0.2343139-0.560547-0.3164062-0.13048-0.082092-0.395589-0.2118287-0.585937-0.2871094-0.19035-0.075281-0.424468-0.1720202-0.519531-0.2128906-0.577795-0.2484165-1.398464-0.4602255-2.007813-0.5195312-0.848945-0.0826251-1.601154-0.0979787-2.095703-0.0410157-0.443581 0.051093-0.504578 0.0495609-0.845703-0.0332031-0.348363-0.084521-0.627456-0.1350543-0.894531-0.1542969zm-3.992188 12.267578c0.260358 0.0022 0.517885 0.068573 0.779297 0.197266 0.66941 0.329551 1.074369 1.101312 0.957031 1.822265-0.04109 0.2525-0.156356 0.550782-0.214843 0.550782-0.018001 0-0.133871 0.092742-0.25586 0.210937-0.289409 0.280417-0.833262 0.546942-1.238281 0.605469-0.339264 0.04903-0.378043 0.052182-0.560547 0.007812-0.172494-0.042-0.399992-0.162363-0.570312-0.300781-0.076371-0.06206-0.1946724-0.156328-0.2636724-0.208984-0.15617-0.119168-0.3324866-0.48298-0.4003906-0.828125-0.140807-0.715705 0.2992041-1.553566 0.980469-1.873047 0.264777-0.124166 0.526751-0.185833 0.787109-0.183594zm8.671875 0.398438c0.19396 0.0301 0.383447 0.092498 0.542969 0.177734 0.275341 0.14712 0.599647 0.465626 0.748047 0.738281 0.149817 0.275279 0.260153 0.834965 0.199218 1.009766-0.024329 0.06979-0.044921 0.173353-0.044921 0.228516 0 0.150078-0.188706 0.531266-0.363282 0.734375-0.08478 0.09864-0.244374 0.237129-0.357421 0.304687-0.195842 0.11704-0.235216 0.119974-0.791016 0.128906-0.320833 5e-3 -0.630038-0.007083-0.689453-0.027343-0.358621-0.121422-0.691472-0.314287-0.896485-0.525391-0.276738-0.284959-0.35976-0.480529-0.388672-0.902344-0.063079-0.920423 0.542613-1.692634 1.46875-1.863281 0.178182-0.03283 0.378305-0.034026 0.572266-0.003906zm-4.537109 5.609375c0.257761-0.01981 0.395004-0.012186 0.435547 0.021484 0.07657 0.06355 0.075627 0.10412-0.007813 0.1875-0.09408 0.09408-0.71945 0.097076-0.796875 0.003906-0.108416-0.130634-0.02019-0.182966 0.369141-0.21289zm-0.138672 1.226562c0.164292-0.0062 0.339802 0.010182 0.464844 0.044922 0.197897 0.05496 0.352824 0.220432 0.333984 0.353516-0.01747 0.123368-0.035901 0.121849-0.802734 0.064453l-0.578125-0.041016 0.013672-0.132812c0.01022-0.104356 0.046701-0.15426 0.164062-0.212891 0.0852-0.04257 0.240008-0.068109 0.404297-0.074219v-0.001953zm-1.644531 3.203125c-0.0574 0.0032-0.153031 0.031758-0.333985 0.085938-0.49049 0.146825-0.924483 0.239727-1.384765 0.296875-0.526669 0.06539-0.740717 0.12278-1.201172 0.328125-0.617705 0.275481-1.0824911 0.623947-1.2949221 0.96875-0.05124 0.08317-0.136432 0.196219-0.1875 0.251953-0.1243163 0.13567-0.3000505 0.433582-0.4550781 0.736328h11.892578c-0.128926-0.235671-0.904866-1.28955-1.121094-1.519531-0.20375-0.216709-0.259393-0.243098-0.998047-0.460938-0.344599-0.101626-0.75568-0.247117-0.910156-0.324219-0.347442-0.173425-0.540021-0.220909-0.625-0.15039-0.102816 0.08533-0.076555 0.160705 0.132813 0.361328l0.199218 0.191406-0.380859 0.117188c-0.566784 0.172882-0.810174 0.199696-1.873047 0.205078-0.9506 0.0049-0.980368 0.001503-1.318359-0.113281-0.354922-0.120568-0.669922-0.306161-0.669922-0.392579 0-0.02681 0.095891-0.093895 0.214843-0.15039 0.274089-0.13013 0.440216-0.280627 0.40625-0.369141-0.016659-0.04341-0.034396-0.06561-0.091796-0.0625z" style="opacity:.2"/>
 <path d="m15.275391 3.6269529c-0.267075-0.019243-0.520247-0.00778-0.810058 0.030762-0.285186 0.037923-0.595369 0.087604-0.690431 0.109375-0.09506 0.021771-0.515395 0.1094856-0.933105 0.1948242-1.21926 0.2490976-1.76384 0.4585194-2.819825 1.09375-0.2099687 0.126308-0.5494447 0.3194627-0.7553697 0.4272462-0.597607 0.3127923-0.844687 0.4786815-1.100586 0.7416991-1.405646 1.4447434-1.611024 1.6781052-2.081544 2.3652343-0.311762 0.4552854-0.957106 1.6453203-1.230468 2.2695313-0.05725 0.13071-0.166088 0.373681-0.242676 0.540039-0.339129 0.736624-0.439742 1.041548-0.625488 1.879883-0.141952 0.640674-0.411256 1.619793-0.577637 2.102051-0.195034 0.565307-0.240123 0.859057-0.239258 1.54834 7.7e-4 0.625267 0.03559 0.840156 0.167481 1.018555 0.08124 0.109886 0.08887 0.181237 0.08887 0.782715 0 0.726995 0.03709 0.854491 0.242676 0.854491 0.262287 0 0.578295 0.257891 0.581055 0.475096 0.0018 0.14532 0.0804 0.190718 0.38623 0.21875 0.275939 0.02528 0.325518 0.04712 0.468261 0.18457 0.08763 0.08436 0.252113 0.193437 0.365723 0.246095 0.234236 0.10857 0.315972 0.207043 0.382812 0.45459 0.02566 0.09506 0.120932 0.253305 0.211914 0.352051 0.09356 0.101556 0.192963 0.271239 0.229005 0.389648 0.03504 0.11515 0.121758 0.313624 0.194824 0.444335 0.09688 0.173321 0.132734 0.294488 0.133294 0.447756l0.0034 0.211914 0.140136-0.03077c0.07724-0.01662 0.257635-0.03958 0.40332-0.05127l0.266602-0.02051 0.123046 0.18115c0.172444 0.254111 0.367996 0.353188 0.65625 0.331544 0.22295-0.0168 0.2318-0.0147 0.345215 0.143552 0.152984 0.213452 0.290352 0.290542 0.581055 0.324706 0.213042 0.02505 0.24468 0.02117 0.287109-0.0581 0.02621-0.04894 0.04785-0.148803 0.04785-0.21875 0-0.15351 0.101318-0.257085 0.18457-0.187988 0.03083 0.02558 0.09367 0.163923 0.136724 0.307618 0.04304 0.143692 0.102844 0.263182 0.133308 0.263182 0.09695 0 0.2617807-0.414899 0.3657237-0.919432 0.02815-0.136654 0.07454-0.249584 0.102536-0.249512 0.04701 1.3e-4 0.235604 0.140753 1.172362 0.851074 0.645965 0.48983 1.637216 1.144171 2.02002 1.336426 0.963933 0.484117 1.550052 0.562944 2.402832 0.31787 0.580334-0.166775 1.405117-0.562044 2.211425-1.062988 0.344599-0.214094 0.78058-0.475549 0.970704-0.577637 0.190123-0.102088 0.442089-0.242752 0.557127-0.314453 0.216853-0.135156 0.285408-0.121394 0.287111 0.06153 0.0012 0.132076 0.172375 0.632775 0.249512 0.728027l0.07519 0.0957 0.211915-0.174319c0.208014-0.171883 0.348002-0.219198 0.666502-0.21875 0.10437 1.31e-4 0.184372-0.03706 0.280274-0.129878 0.07398-0.0716 0.210096-0.160405 0.300781-0.198241 0.149555-0.06238 0.188087-0.06371 0.423829-0.0035 0.313368 0.08028 0.276788 0.0821 0.355468 0.0035 0.04453-0.04453 0.05764-0.112826 0.04102-0.215333-0.02171-0.133882-0.01078-0.154296 0.0957-0.194824 0.14728-0.056 0.306123 0.03312 0.372557 0.208495 0.0461 0.121674 0.201464 0.311037 0.25635 0.311037 0.0175 0 0.128002-0.07756 0.246093-0.170905 0.188663-0.149135 0.231853-0.213821 0.345214-0.529787 0.07097-0.197779 0.14112-0.4307 0.15722-0.51953 0.05095-0.280857 0.249305-0.32264 0.50244-0.105966 0.09178 0.07857 0.218211 0.168438 0.280276 0.201662 0.09736 0.05209 0.119518 0.05081 0.153807-0.0035 0.02185-0.03455 0.04066-0.10465 0.04102-0.15722 3.47e-4 -0.05258 0.03912-0.20544 0.08887-0.33838 0.08588-0.229504 0.09948-0.241574 0.229005-0.229004 0.116536 0.01134 0.152443 0.04913 0.263183 0.256347 0.165865 0.31041 0.230611 0.386232 0.331542 0.386232 0.09747 0 0.2527-0.237328 0.25293-0.386232 1.71e-4 -0.112546-0.06093-0.328011-0.15722-0.557128-0.07743-0.184285-0.07556-0.287083 0.0069-0.355469 0.05516-0.04578 0.08938-0.03872 0.187988 0.03417 0.06552 0.04844 0.224376 0.140385 0.352051 0.205079 0.211939 0.107394 0.245523 0.113652 0.393065 0.06495 0.08889-0.02933 0.21506-0.04028 0.280273-0.02393 0.151533 0.03802 0.188129-0.02241 0.191407-0.300781 0.0035-0.301271 0.06717-0.590555 0.136724-0.632324 0.03226-0.01936 0.136136-0.08135 0.232422-0.14014l0.174317-0.109382 0.201661 0.133294c0.110544 0.0719 0.221913 0.116172 0.249513 0.09912 0.0621-0.0383 0.02996-0.393304-0.09233-0.970595-0.04785-0.225661-0.12509-0.591713-0.170898-0.813469-0.08785-0.425302-0.182963-2.1072-0.140137-2.47119 0.06784-0.576482-0.366184-3.162538-0.707503-4.22461-0.059152-0.183963-0.152631-0.507302-0.208526-0.721191-0.207704-0.79483-0.653038-1.8230206-1.097167-2.529297-0.097138-0.1544753-0.207715-0.3378754-0.246095-0.4067383-0.327708-0.5880098-1.708641-2.1536021-2.372068-2.6899414-0.190124-0.1537031-0.491683-0.357246-0.669924-0.4511717-0.178241-0.093926-0.43006-0.235779-0.560546-0.3178713-0.13048-0.082092-0.394125-0.2118286-0.584473-0.2871093-0.19035-0.075281-0.424469-0.1710435-0.519532-0.2119139-0.577795-0.2484165-1.400415-0.4602257-2.009764-0.5195314-0.848945-0.082625-1.600666-0.097979-2.095215-0.041016-0.443581 0.051093-0.503114 0.048584-0.844239-0.03418-0.348363-0.084521-0.628432-0.1345652-0.895507-0.1538078zm-3.992188 12.267089c0.260358 0.0022 0.517885 0.06955 0.779297 0.198243 0.66941 0.329551 1.07437 1.100825 0.957032 1.821779-0.04109 0.252499-0.156845 0.550291-0.215333 0.550291-0.018 0-0.134358 0.09372-0.256347 0.211915-0.289409 0.280417-0.832286 0.546452-1.237305 0.604979-0.339264 0.04903-0.378043 0.05127-0.560547 0.0069-0.172494-0.042-0.40048-0.162364-0.570801-0.300782-0.07637-0.06206-0.1941827-0.155839-0.2631827-0.208495-0.15617-0.119168-0.331999-0.482004-0.399903-0.827149-0.140807-0.715705 0.299692-1.553566 0.9809567-1.873047 0.264777-0.124166 0.525775-0.186809 0.786133-0.18457zm8.671387 0.399902c0.19396 0.0301 0.383934 0.0925 0.543456 0.177736 0.275341 0.14712 0.600137 0.465625 0.748537 0.73828 0.149817 0.275279 0.259176 0.8335 0.198241 1.008301-0.02433 0.06979-0.04444 0.173841-0.04444 0.229004 0 0.150078-0.18773 0.531755-0.362306 0.734864-0.08478 0.09864-0.245839 0.236641-0.358887 0.304199-0.195842 0.11704-0.233751 0.120946-0.789551 0.129878-0.320833 5e-3 -0.631015-0.0071-0.69043-0.02736-0.358621-0.121422-0.690494-0.315255-0.895507-0.526359-0.276738-0.284959-0.360737-0.480529-0.389648-0.902344-0.06308-0.920423 0.543589-1.692146 1.469726-1.862793 0.178182-0.03283 0.37684-0.03352 0.570801-0.0034zm-4.535645 5.608887c0.257761-0.01981 0.39354-0.01316 0.434083 0.02051 0.07657 0.06355 0.07654 0.104608-0.0069 0.187988-0.09408 0.09408-0.718962 0.09667-0.796387 0.0035-0.108416-0.130634-0.02019-0.18199 0.369141-0.211914zm-0.140137 1.227051c0.164292-0.0062 0.339803 0.0097 0.464845 0.04444 0.197897 0.05496 0.353801 0.218967 0.334961 0.352051-0.01747 0.123368-0.03639 0.122346-0.803223 0.06495l-0.577637-0.04102 0.01372-0.133294c0.01022-0.104356 0.0467-0.153281 0.164061-0.211912 0.0852-0.04257 0.239032-0.06908 0.403321-0.07519zm-1.644042 3.202636c-0.0574 0.0032-0.154007 0.03128-0.334961 0.08546-0.49049 0.146825-0.923995 0.240215-1.384277 0.297363-0.526669 0.06539-0.739253 0.12278-1.199708 0.328125-0.617705 0.275481-1.0829787 0.622482-1.2954097 0.967285-0.05124 0.08317-0.13692 0.197194-0.187988 0.252928-0.271349 0.296131-0.79203 1.346341-0.792968 1.596191v0.140133h12.595213l-0.129878-0.399903c-0.07062-0.219419-0.167094-0.47574-0.215328-0.570801-0.104902-0.206705-0.921194-1.313909-1.141602-1.548337-0.20375-0.216709-0.259393-0.243586-0.998047-0.461426-0.344599-0.101626-0.754704-0.247607-0.90918-0.324708-0.347442-0.173425-0.540509-0.220914-0.625488-0.150395-0.102816 0.08533-0.07606 0.161682 0.133308 0.362305l0.198242 0.191405-0.379395 0.116214c-0.566784 0.172882-0.810173 0.199697-1.873046 0.205079-0.9506 0.0049-0.981345 2e-3 -1.319336-0.112784-0.354922-0.120568-0.669936-0.306649-0.669936-0.393067 0-0.02681 0.09638-0.0939 0.215332-0.150395 0.274088-0.13013 0.440703-0.280628 0.406738-0.369142-0.01666-0.04341-0.03489-0.06464-0.09229-0.06153z" style="fill:#8b9cbe"/>
 <path d="m11.331055 15.832519c-0.369224-0.01302-0.445569-3.79e-4 -0.731446 0.109382-0.418954 0.160846-0.7491467 0.461232-0.9775387 0.888673-0.166871 0.312316-0.16748 0.315585-0.16748 0.810058 0 0.483657 2e-3 0.505521 0.157227 0.830567 0.12495 0.261648 0.156077 0.369474 0.136724 0.48877-0.01931 0.118972 2.9e-5 0.190464 0.08887 0.324706 0.06254 0.0945 0.112798 0.202448 0.112798 0.242676 0 0.100464 0.1252857 0.232424 0.2221667 0.232424 0.04393 0 0.153993-0.03793 0.242676-0.08546 0.241521-0.129444 0.370213-0.112896 0.505859 0.06495 0.198663 0.260458 0.251576 0.43761 0.198243 0.649412-0.02565 0.10185-0.04444 0.318269-0.04444 0.478516 0 0.23967 0.01499 0.307379 0.09229 0.389648 0.10843 0.115416 0.23718 0.130032 0.369141 0.0376 0.08998-0.06301 0.157045-0.235724 0.358886-0.926271 0.09925-0.339546 0.115906-0.363836 0.632327-0.810065 0.489004-0.422544 0.725734-0.904964 0.563964-1.151856-0.05428-0.08284-0.05953-0.140537-0.02393-0.293945 0.02425-0.104496 0.03513-0.361412 0.02393-0.570801-0.01747-0.326606-0.04095-0.423994-0.174315-0.693851-0.190988-0.386437-0.48249-0.672152-0.881835-0.861329-0.251107-0.118958-0.347613-0.141208-0.704102-0.153808zm-0.04785 0.06152c0.260358 0.0022 0.517885 0.06955 0.779297 0.198243 0.66941 0.329551 1.07437 1.100825 0.957032 1.821779-0.04109 0.252499-0.156845 0.550291-0.215333 0.550291-0.018 0-0.134358 0.09372-0.256347 0.211915-0.289409 0.280417-0.832286 0.546452-1.237305 0.60498-0.339264 0.04903-0.378043 0.05127-0.560547 0.0069-0.172494-0.042-0.40048-0.162365-0.570801-0.30078-0.07637-0.06206-0.1941827-0.155841-0.2631827-0.208496-0.15617-0.119168-0.331999-0.482005-0.399903-0.82715-0.140807-0.715706 0.299692-1.553566 0.9809567-1.873046 0.264777-0.124166 0.525775-0.186809 0.786133-0.184571zm8.39795 0.293945c-0.466323-6.2e-4 -0.934394 0.180243-1.309083 0.546875-0.522397 0.511166-0.679366 1.237899-0.427246 1.965334 0.07043 0.203235 0.07921 0.283042 0.04444 0.382813-0.08844 0.253677-0.058 0.356895 0.198241 0.642576 0.35743 0.398499 0.686937 1.094359 0.772462 1.63379 0.0358 0.225771 0.06486 0.517517 0.06495 0.649413 9.6e-5 0.131894 0.02275 0.262001 0.05127 0.290528 0.07181 0.07181 0.145485 0.06643 0.232422-0.02051 0.06511-0.06511 0.07204-0.145127 0.05127-0.669923-0.02038-0.51499-0.014-0.608794 0.04785-0.680176 0.118496-0.136822 0.335335-0.07378 0.4375 0.126476 0.08939 0.175213 0.180883 0.23164 0.307618 0.191407 0.156502-0.04966 0.147717-0.248502-0.03417-0.803224-0.02919-0.08903 0.1071-0.214151 0.495605-0.45117 0.274616-0.167547 0.29284-0.183843 0.314453-0.365722 0.02479-0.208543 0.03452-0.233516 0.239257-0.502442 0.533214-0.700424 0.451758-1.734613-0.191406-2.385746-0.363116-0.367616-0.82909-0.549673-1.295411-0.550294zm0.273437 0.105952c0.19396 0.0301 0.383935 0.0925 0.543456 0.177734 0.275341 0.14712 0.600137 0.465626 0.748537 0.738282 0.149816 0.275279 0.259176 0.833499 0.198241 1.008301-0.02433 0.06979-0.04444 0.17384-0.04444 0.229003 0 0.150079-0.18773 0.531757-0.362306 0.734863-0.08478 0.09864-0.245839 0.236641-0.358887 0.3042-0.195842 0.11704-0.233751 0.120946-0.789551 0.129878-0.320833 5e-3 -0.631015-0.0071-0.69043-0.02736-0.358621-0.121422-0.690494-0.315254-0.895507-0.526359-0.276738-0.284959-0.360737-0.480529-0.389648-0.902343-0.06308-0.920423 0.543589-1.692147 1.469726-1.862794 0.178182-0.03283 0.37684-0.03352 0.570801-0.0034zm-9.782227 3.739272c-0.0335-0.0049-0.06969 0.01162-0.109382 0.05127-0.05289 0.05289-0.05778 0.09055-0.02393 0.153807 0.05417 0.10129 0.138796 0.105868 0.215332 0.01358 0.04015-0.0484 0.04463-0.08763 0.01372-0.136724-0.03167-0.0502-0.0622-0.07708-0.0957-0.08203zm1.134766 2.088377c-0.05702 0.0063-0.1155 0.04133-0.170898 0.102536-0.09554 0.10556-0.04637 0.334431 0.08203 0.386231 0.126266 0.05088 0.132608 0.05138 0.215332-0.01036 0.120134-0.08952 0.140021-0.311146 0.03759-0.413574-0.04957-0.04957-0.107044-0.07126-0.164063-0.06495z" style="fill:#af2828"/>
 <path d="m4 2c-1.108 0-2 0.892-2 2v1c0-1.108 0.892-2 2-2h24c1.108 0 2 0.892 2 2v-1c0-1.108-0.892-2-2-2h-24z" style="fill:#8b9cbe;opacity:.2"/>
</svg>
