<svg xmlns="http://www.w3.org/2000/svg" width="32" height="32" version="1">
 <rect style="opacity:0.2" width="29" height="29" x="2" y="2" rx="1.45" ry="1.45"/>
 <rect style="fill:#e78117" width="29" height="29" x="2" y="1" rx="1.45" ry="1.45"/>
 <path style="opacity:0.5;fill:#8b9cbe" d="M 4,3 V 23 H 6 V 5 H 27 V 26 H 9 v 2 H 29 V 3 Z m 0,22 v 3 h 3 v -3 z"/>
 <path style="fill:#8b9cbe;opacity:0.2" d="M 3.4492188 1 C 2.6459187 1 2 1.6459187 2 2.4492188 L 2 3.4492188 C 2 2.6459187 2.6459187 2 3.4492188 2 L 29.550781 2 C 30.354081 2 31 2.6459187 31 3.4492188 L 31 2.4492188 C 31 1.6459187 30.354081 1 29.550781 1 L 3.4492188 1 z"/>
 <g style="font-size:6.91562939px;line-height:1.25;letter-spacing:0px;word-spacing:0px;opacity:0.2" transform="matrix(0.65618806,0,0,0.7083333,0.75148624,-0.49999951)">
  <path d="m 23.319502,31.585063 c 0.730291,0 1.327801,-0.05533 1.792532,-0.165975 0.48686,-0.13278 0.874135,-0.298755 1.161825,-0.497925 0.287691,-0.221301 0.486861,-0.475796 0.597511,-0.763486 0.11065,-0.28769 0.165975,-0.608575 0.165975,-0.962656 0,-0.75242 -0.35408,-1.37206 -1.062241,-1.858921 -0.70816,-0.50899 -2.23946,-1.051175 -3.965601,-1.626556 -0.752421,-0.26556 -1.504842,-0.564315 -2.257262,-0.896266 -0.752421,-0.35408 -1.427386,-0.785615 -2.024896,-1.294605 -0.597511,-0.531121 -1.084371,-1.161826 -1.460581,-1.892117 -0.376211,-0.752421 -0.564316,-1.659751 -0.564316,-2.721992 0,-1.062241 0.19917,-2.013831 0.597511,-2.854772 0.39834,-0.86307 0.962655,-1.59336 1.692946,-2.190871 0.73029,-0.597511 1.615491,-1.051176 2.655602,-1.360996 C 21.688617,12.165975 22.861508,12 24.167179,12 c 1.549101,0 3.202116,0.165975 4.330747,0.497925 1.128631,0.33195 2.058091,0.697095 2.788382,1.095436 l -1.493776,4.082988 c -0.641771,-0.331951 -1.360996,-0.619641 -2.157677,-0.863071 -0.77455,-0.26556 -2.029225,-0.39834 -3.135726,-0.39834 -1.239281,0 -2.135546,0.17704 -2.688796,0.53112 -0.531121,0.33195 -0.796681,0.852005 -0.796681,1.560166 0,0.420471 0.09959,0.774551 0.298755,1.062241 0.19917,0.28769 0.475795,0.55325 0.829876,0.79668 0.37621,0.221301 0.79668,0.431536 1.261411,0.630706 0.48686,0.17704 1.01798,0.365145 1.593361,0.564315 1.19502,0.442601 2.54928,0.885201 3.434481,1.327801 0.885201,0.420471 1.615491,0.918396 2.190871,1.493776 0.597511,0.575381 1.040111,1.250346 1.327801,2.024896 0.287691,0.774551 0.431536,1.715076 0.431536,2.821577 0,2.146612 -0.752421,3.817428 -2.257262,5.012449 -1.504841,1.172891 -3.773167,1.759336 -6.80498,1.759336 -1.017981,0 -1.936376,-0.06639 -2.755186,-0.19917 -0.818811,-0.11065 -1.549101,-0.254495 -2.190872,-0.431535 -0.619641,-0.177041 -1.161826,-0.365146 -1.626556,-0.564316 -0.4426,-0.19917 -0.81881,-0.387275 -1.128631,-0.564315 l 1.460581,-4.116183 c 0.686031,0.37621 1.526971,0.719225 2.522822,1.029046 1.017981,0.28769 2.257261,0.431535 3.717842,0.431535 z"/>
 </g>
 <g style="font-size:6.91562939px;line-height:1.25;letter-spacing:0px;word-spacing:0px;fill:#8b9cbe" transform="matrix(0.65618806,0,0,0.7083333,0.75148624,-1.4999995)">
  <path style="fill:#8b9cbe" d="m 23.319502,31.585063 c 0.730291,0 1.327801,-0.05533 1.792532,-0.165975 0.48686,-0.13278 0.874135,-0.298755 1.161825,-0.497925 0.287691,-0.221301 0.486861,-0.475796 0.597511,-0.763486 0.11065,-0.28769 0.165975,-0.608575 0.165975,-0.962656 0,-0.75242 -0.35408,-1.37206 -1.062241,-1.858921 -0.70816,-0.50899 -2.23946,-1.051175 -3.965601,-1.626556 -0.752421,-0.26556 -1.504842,-0.564315 -2.257262,-0.896266 -0.752421,-0.35408 -1.427386,-0.785615 -2.024896,-1.294605 -0.597511,-0.531121 -1.084371,-1.161826 -1.460581,-1.892117 -0.376211,-0.752421 -0.564316,-1.659751 -0.564316,-2.721992 0,-1.062241 0.19917,-2.013831 0.597511,-2.854772 0.39834,-0.86307 0.962655,-1.59336 1.692946,-2.190871 0.73029,-0.597511 1.615491,-1.051176 2.655602,-1.360996 C 21.688617,12.165975 22.861508,12 24.167179,12 c 1.549101,0 3.202116,0.165975 4.330747,0.497925 1.128631,0.33195 2.058091,0.697095 2.788382,1.095436 l -1.493776,4.082988 c -0.641771,-0.331951 -1.360996,-0.619641 -2.157677,-0.863071 -0.77455,-0.26556 -2.029225,-0.39834 -3.135726,-0.39834 -1.239281,0 -2.135546,0.17704 -2.688796,0.53112 -0.531121,0.33195 -0.796681,0.852005 -0.796681,1.560166 0,0.420471 0.09959,0.774551 0.298755,1.062241 0.19917,0.28769 0.475795,0.55325 0.829876,0.79668 0.37621,0.221301 0.79668,0.431536 1.261411,0.630706 0.48686,0.17704 1.01798,0.365145 1.593361,0.564315 1.19502,0.442601 2.54928,0.885201 3.434481,1.327801 0.885201,0.420471 1.615491,0.918396 2.190871,1.493776 0.597511,0.575381 1.040111,1.250346 1.327801,2.024896 0.287691,0.774551 0.431536,1.715076 0.431536,2.821577 0,2.146612 -0.752421,3.817428 -2.257262,5.012449 -1.504841,1.172891 -3.773167,1.759336 -6.80498,1.759336 -1.017981,0 -1.936376,-0.06639 -2.755186,-0.19917 -0.818811,-0.11065 -1.549101,-0.254495 -2.190872,-0.431535 -0.619641,-0.177041 -1.161826,-0.365146 -1.626556,-0.564316 -0.4426,-0.19917 -0.81881,-0.387275 -1.128631,-0.564315 l 1.460581,-4.116183 c 0.686031,0.37621 1.526971,0.719225 2.522822,1.029046 1.017981,0.28769 2.257261,0.431535 3.717842,0.431535 z"/>
 </g>
</svg>
