<svg xmlns="http://www.w3.org/2000/svg" width="32" height="32" version="1.1">
 <rect style="opacity:0.2" width="28" height="22" x="2" y="6" rx="4" ry="4"/>
 <rect style="fill:#5496c6" width="28" height="22" x="2" y="5" rx="4" ry="4"/>
 <path style="fill:none;stroke:#84c4f6" d="M 9,11.5 23.5,14 15,22.5 Z"/>
 <rect style="fill:#5496c6" width="10" height="9" x="4" y="7" rx=".8" ry=".8"/>
 <rect style="fill:#5496c6" width="9" height="8" x="19" y="10" rx=".8" ry=".8"/>
 <rect style="fill:#5496c6" width="6" height="5" x="12" y="20" rx=".8" ry=".8"/>
 <rect style="opacity:0.2" width="8" height="7" x="5" y="9" rx=".8" ry=".8"/>
 <rect style="opacity:0.2" width="4" height="3" x="13" y="22" rx=".8" ry=".8"/>
 <rect style="opacity:0.2" width="7" height="6" x="20" y="12" rx=".8" ry=".8"/>
 <rect style="fill:#8b9cbe" width="8" height="7" x="5" y="8" rx=".8" ry=".8"/>
 <rect style="fill:#8b9cbe" width="4" height="3" x="13" y="21" rx=".8" ry=".8"/>
 <rect style="fill:#8b9cbe" width="7" height="6" x="20" y="11" rx=".8" ry=".8"/>
 <path style="opacity:0.2;fill:#8b9cbe" d="M 6 5 C 3.784 5 2 6.784 2 9 L 2 10 C 2 7.784 3.784 6 6 6 L 26 6 C 28.216 6 30 7.784 30 10 L 30 9 C 30 6.784 28.216 5 26 5 L 6 5 z"/>
</svg>
