<svg xmlns="http://www.w3.org/2000/svg" width="32" height="32" version="1">
 <path style="opacity:0.2" d="m 4.1,2.9999999 c -1.1634,0 -2.1,0.9366 -2.1,2.1 V 11.4 22.6 28.9 C 2,30.0634 2.9366,31 4.1,31 H 10.4 16.980274 21.6 C 26.2536,31 30,27.2536 30,22.6 V 18.960547 11.4 5.0999999 c 0,-1.1634 -0.9366,-2.1 -2.1,-2.1 H 21.6 10.4 Z"/>
 <path style="fill:#b2bfd9" d="m 4.1,1.9999999 c -1.1634,0 -2.1,0.9366 -2.1,2.1 V 10.4 21.6 27.9 C 2,29.0634 2.9366,30 4.1,30 H 10.4 16.980274 21.6 C 26.2536,30 30,26.2536 30,21.6 V 17.960547 10.4 4.0999999 c 0,-1.1634 -0.9366,-2.1 -2.1,-2.1 H 21.6 10.4 Z"/>
 <path style="opacity:0.1" d="M 7.5,7 C 6.669,7 6,7.6363058 6,8.4277344 V 23.427734 C 6,25.570592 9,27 10.5,27 H 12 V 25.572266 23.427734 8.4277344 C 12,7.6363058 11.331,7 10.5,7 Z m 6.869141,0 C 13.611036,7 13,7.6690001 13,8.5 v 3 c 0,0.831 0.611036,1.5 1.369141,1.5 h 8.208984 C 24.630757,13 26,9.9999999 26,8.5 V 7 h -1.369141 -2.052734 z m -0.748047,7 A 0.60767821,0.5371635 0 0 0 13,14.537109 V 18 21.462891 a 0.60767821,0.5371635 0 0 0 0.910156,0.464843 l 3.394532,-1.730468 3.392578,-1.732422 a 0.60767821,0.5371635 0 0 0 0,-0.929688 L 17.304688,15.804688 13.910156,14.072266 A 0.60767821,0.5371635 0 0 0 13.621094,14 Z"/>
 <path style="fill:#f04242" d="M 7.5,6 C 6.669,6 6,6.6371428 6,7.4285714 V 22.428571 C 6,24.571429 9,26 10.5,26 H 12 V 24.571429 22.428571 7.4285714 C 12,6.6371428 11.331,6 10.5,6 Z"/>
 <path style="fill:#f04242" d="m 13,10.5 c 0,0.831 0.610316,1.5 1.368421,1.5 h 8.210526 C 24.631579,12 26,8.9999998 26,7.4999999 V 6 H 24.631579 22.578947 14.368421 C 13.610316,6 13,6.669 13,7.4999999 Z"/>
 <path style="fill:#14a4df" d="M 13.621775,13.000145 A 0.60767821,0.5371635 0 0 0 13,13.537853 v 3.462972 3.462972 a 0.60767821,0.5371635 0 0 0 0.911128,0.464435 l 3.39271,-1.731485 3.392711,-1.731486 a 0.60767821,0.5371635 0 0 0 0,-0.929999 l -3.392711,-1.731485 -3.39271,-1.731486 a 0.60767821,0.5371635 0 0 0 -0.289353,-0.07214 z"/>
 <path style="fill:#8b9cbe;opacity:0.2" d="M 4.0996094 2 C 2.9362094 2 2 2.9362094 2 4.0996094 L 2 5.0996094 C 2 3.9362094 2.9362094 3 4.0996094 3 L 27.900391 3 C 29.063791 3 30 3.9362094 30 5.0996094 L 30 4.0996094 C 30 2.9362094 29.063791 2 27.900391 2 L 4.0996094 2 z"/>
</svg>
