<svg xmlns="http://www.w3.org/2000/svg" width="32" height="32" version="1">
 <path style="opacity:0.2" d="M 16,3.0000001 C 8.2439999,3.0000001 2,9.2440001 2,17 2,24.755999 8.2439999,31 16,31 23.756,31 30,24.755999 30,17 30,9.2440001 23.756,3.0000001 16,3.0000001 Z"/>
 <path style="fill:#fead38" d="M 16,2.0000001 C 8.2439999,2.0000001 2,8.2440001 2,16 2,23.755999 8.2439999,30 16,30 23.756,30 30,23.755999 30,16 30,8.2440001 23.756,2.0000001 16,2.0000001 Z"/>
 <path style="fill:#17191e" d="M 16.217383,2.0054689 A 21.003038,21.015963 0 0 0 2.7396484,20.480274 c 0.8161233,2.42995 2.2732154,4.555889 4.1794924,6.179687 A 21.003038,21.015963 0 0 1 6.9,25.819141 21.003038,21.015963 0 0 1 24.741797,5.0597657 C 22.40135,3.1899162 19.447426,2.0544186 16.217383,2.0054689 Z"/>
 <path style="fill:#17191e" d="M 26.319532,6.5445316 A 21.003038,21.015963 0 0 0 9,27.216406 21.003038,21.015963 0 0 0 9.047852,28.152929 c 1.297026,0.741159 2.719369,1.288578 4.236915,1.584571 A 21.003038,21.015963 0 0 1 29.09082,11.05625 C 28.457252,9.3709091 27.511789,7.8457742 26.319532,6.5445316 Z"/>
 <path style="fill:#8b9cbe;opacity:0.2" d="M 16 2 C 8.2439999 2 2 8.2440001 2 16 C 2 16.168842 2.0195214 16.33264 2.0253906 16.5 C 2.2891326 8.9794326 8.4128417 3 16 3 C 23.500fae9 3 29.710867 8.9794326 29.974609 16.5 C 29.980479 16.33264 30 16.168842 30 16 C 30 8.2440001 23.756 2 16 2 z"/>
 <circle style="opacity:0.2" cx="19.5" cy="18.5" r="5.5"/>
 <circle style="opacity:0.2" cx="28" cy="15" r="4"/>
 <circle style="fill:#8b9cbe" cx="19.5" cy="17.5" r="5.5"/>
 <circle style="fill:#17191e" cx="18.5" cy="19.5" r="2.5"/>
 <circle style="fill:#8b9cbe" cx="28" cy="14" r="4"/>
 <circle style="fill:#17191e" cx="27" cy="15" r="2"/>
 <path style="opacity:0.1" d="M 24,27.666667 C 24,27.666667 22.209138,29 20,29 c -2.209138,0 -4,-2.527241 -4,-4 0,0 2.120127,1.544871 3.333334,2 C 21.62713,27.860508 24,27.666667 24,27.666667 Z"/>
 <path style="fill:#17191e" d="M 24,26.666667 C 24,26.666667 22.209138,28 20,28 c -2.209138,0 -4,-2.527241 -4,-4 0,0 2.120127,1.544871 3.333334,2 C 21.62713,26.860508 24,26.666667 24,26.666667 Z"/>
 <path style="opacity:0.2" d="M 7.9041417,20.731422 C 10.984191,19.259899 13.703367,20.078627 13.977593,22.5601 14.251818,25.041575 11.97725,28.246111 8.8972002,29.717635 5.8171517,31.189157 0.28487062,26.550882 0.0106452,24.069408 -0.26358021,21.587934 4.8240935,22.202945 7.9041417,20.731422 Z"/>
 <path style="fill:#b2bfd9" d="M 7.9041417,19.731422 C 10.984191,18.259899 13.703367,19.078627 13.977593,21.5601 14.251818,24.041575 11.97725,27.246111 8.8972002,28.717635 5.8171517,30.189157 0.28487062,25.550882 0.0106452,23.069408 -0.26358021,20.587934 4.8240935,21.202945 7.9041417,19.731422 Z"/>
 <path style="opacity:0.2;fill:#8b9cbe" d="M 11.107422 19.009766 C 10.163801 18.950545 9.0593154 19.178648 7.9042969 19.730469 C 4.8242487 21.201992 -0.26445979 20.588839 0.009765625 23.070312 C 0.022315539 23.183877 0.057960734 23.305928 0.091796875 23.427734 C 0.73313904 21.695933 5.1279417 22.056899 7.9042969 20.730469 C 10.955656 19.272653 13.650181 20.066523 13.966797 22.494141 C 14.005813 22.175056 14.011899 21.862631 13.978516 21.560547 C 13.807124 20.009626 12.680123 19.108467 11.107422 19.009766 z"/>
</svg>
