<svg xmlns="http://www.w3.org/2000/svg" width="32" height="32" version="1">
 <path style="opacity:0.2" d="M 10.983459,2.9997919 C 10.602508,3.4675276 10.371833,3.8558008 9.9352042,4.3209444 8.4755023,5.8762287 8.7111685,6.8726082 9.8677224,7.9591334 10.067837,8.1471312 9.4188154,8.8173122 9.1973297,9.6930713 9.629898,10.043584 9.7420535,10.578422 10.137454,10.984999 c 0.430699,-0.530286 1.419126,-1.7259341 1.719093,-2.0452343 0,0 0.634868,-0.9996432 -0.156074,-1.9399727 -0.573644,-0.568164 -0.717015,-1.8971084 -0.683931,-3.2127849 0.03696,-0.086251 -0.04436,-0.5643443 -0.03308,-0.7872152 z M 14.633616,4.0745 c -0.548971,0 -0.606717,0.196449 -0.414829,1.3964514 0.278117,1.7392479 -0.325396,3.3281547 -1.680982,4.3303809 -0.565654,0.4182057 -1.713919,1.8278597 -1.713919,2.0136937 0,0.16188 -2.6105603,0.837828 -1.8538557,1.809119 0.1119768,0.143732 -1.3064215,1.109548 0.3053027,0.403876 1.345495,-0.589107 2.096437,2.896726 2.610816,3.895005 l 0.935076,1.815386 -0.831026,1.620979 c -1.210802,2.363181 -0.859794,3.138269 -3.1396389,5.448561 -0.3557799,0.36053 -0.2974534,0.806685 -0.578148,0.621957 -2.0001857,-1.316347 -0.1753728,0.590968 -0.3001261,0.763741 -0.9084324,-1.901208 -0.6429094,1.070371 -0.6439608,1.071843 0.8673152,0.952682 2.483494,1.107654 3.7544318,1.071891 2.119036,0.0094 3.0491,-1.415554 3.673243,-2.476657 1.82173,-3.115016 4.172433,-5.599537 4.914631,-5.31473 0.323964,0.124316 1.494427,1.486126 2.602602,3.025645 1.108174,1.539519 2.173184,2.752997 2.365753,2.697067 C 25.264276,28.087114 26,26.506628 26,24.998001 c 0,-1.998209 -0.349954,-2.465095 -0.95577,-3.057403 -0.451129,-0.441073 -0.173588,-0.672259 -0.599683,-1.294671 -0.74442,-1.087401 -1.107142,-0.752802 -0.552604,-1.921404 0.317409,-0.668891 0.331729,-0.988894 1.162271,-1.66946 2.049671,-1.679553 3.222249,-5.172525 2.767418,-6.819791 -0.187139,-0.6777601 -0.502198,-1.5404546 -0.786711,-1.9166977 -0.486265,-0.6430407 -0.51799,-0.6058034 -0.528462,0.6284036 -0.0092,1.0803431 -2.738146,2.3214661 -3.320265,2.3214641 -0.05838,0 -0.120508,0.0114 -0.186194,0.03149 -0.510042,0.804373 -0.92935,1.310244 -1.254068,1.909213 -1.580317,2.220445 -1.061947,2.19196 -1.652186,2.19196 -0.592615,0 -1.878705,-1.537673 -3.489533,-3.957298 -0.125011,-0.18778 -0.689622,-0.362507 -0.778816,-0.525724 -0.04427,-0.08076 -0.07362,-0.152653 -0.105419,-0.225896 -0.01283,-0.02732 -0.02668,-0.05555 -0.03834,-0.08215 -0.02174,-0.04962 -0.05219,-0.104784 -0.06982,-0.151967 -0.04708,-0.124724 -0.07472,-0.237582 -0.0931,-0.346374 -5.62e-4,-0.0035 -0.0018,-0.0072 -0.0027,-0.01096 -0.0014,-0.0091 -0.0056,-0.01975 -0.0069,-0.02875 -0.0019,-0.01331 0.0013,-0.02392 0,-0.03696 -0.01,-0.09685 -0.0093,-0.188968 0.0055,-0.273814 0.0013,-0.0074 -1.4e-4,-0.015968 0.0014,-0.023272 0.01804,-0.092331 0.05563,-0.1765784 0.104049,-0.2560166 0.0014,-0.00231 0.0029,-0.00449 0.0041,-0.00687 0.0044,-0.00701 0.0063,-0.015008 0.01096,-0.021905 0.0549,-0.082351 0.12979,-0.1572816 0.219051,-0.2272658 0.0027,-0.0021 0.0044,-0.00477 0.0069,-0.00687 7.01e-4,-5.594e-4 0.002,-8.411e-4 0.0027,-0.0014 0.190696,-0.1454087 0.456282,-0.2667925 0.799537,-0.3710181 0.08113,0.027625 0.15658,0.05056 0.243695,0.083513 l 1.168985,0 c 0.04218,-0.1359933 0.04793,-0.299137 0.02327,-0.5106634 C 17.977547,7.3768522 15.487217,4.0745 14.633616,4.0745 Z m 8.8046,-3.013e-4 c -0.47353,0 -2.622174,3.2843822 -2.523782,4.4563436 0.0903,1.075594 -0.113386,1.0935576 0.355132,1.0365742 0.415797,-0.050568 1.501338,-0.045521 1.708842,-0.4364327 0.139738,-0.2632512 0.564044,-2.8463949 0.702133,-3.393065 C 24.07101,4.191821 24.053562,4.0741987 23.438216,4.0741987 Z"/>
 <path style="fill:#dc730e" d="M 10.983459,1.9999999 C 10.602508,2.4677356 10.371833,2.8560088 9.9352042,3.3211524 8.4755023,4.8764367 8.7111685,5.8728162 9.8677224,6.9593414 10.067837,7.1473392 9.4188154,7.8175202 9.1973297,8.6932793 9.629898,9.0437921 9.7420535,9.57863 10.137454,9.9852067 c 0.430699,-0.5302856 1.419126,-1.7259338 1.719093,-2.045234 0,0 0.634868,-0.9996432 -0.156074,-1.9399727 -0.573644,-0.568164 -0.717015,-1.8971084 -0.683931,-3.2127849 0.03696,-0.086251 -0.04436,-0.5643443 -0.03308,-0.7872152 z m 3.650157,1.0747081 c -0.548971,0 -0.606717,0.196449 -0.414829,1.3964514 0.278117,1.7392479 -0.325396,3.3281547 -1.680982,4.3303809 -0.565654,0.4182056 -1.713919,1.8278597 -1.713919,2.0136937 0,0.16188 -2.6105603,0.837828 -1.8538557,1.809119 0.1119768,0.143732 -1.3064215,1.109548 0.3053027,0.403876 1.345495,-0.589107 2.096437,2.896726 2.610816,3.895005 l 0.935076,1.815386 -0.831026,1.620979 C 10.779397,22.72278 11.130405,23.497868 8.8505601,25.80816 8.4947802,26.16869 8.5531067,26.614845 8.2724121,26.430117 6.2722264,25.11377 8.0970393,27.021085 7.972286,27.193858 7.0638536,25.29265 7.3293766,28.264229 7.3283252,28.265701 c 0.8673152,0.952682 2.483494,1.107654 3.7544318,1.071891 2.119036,0.0094 3.0491,-1.415554 3.673243,-2.476657 1.82173,-3.115016 4.172433,-5.599537 4.914631,-5.31473 0.323964,0.124316 1.494427,1.486126 2.602602,3.025645 1.108174,1.539519 2.173184,2.752997 2.365753,2.697067 C 25.264276,27.087322 26,25.506836 26,23.998209 26,22 25.650046,21.533114 25.04423,20.940806 c -0.451129,-0.441073 -0.173588,-0.672259 -0.599683,-1.294671 -0.74442,-1.087401 -1.107142,-0.752802 -0.552604,-1.921404 0.317409,-0.668891 0.331729,-0.988894 1.162271,-1.66946 2.049671,-1.679553 3.222249,-5.172525 2.767418,-6.8197906 -0.187139,-0.6777605 -0.502198,-1.540455 -0.786711,-1.9166981 -0.486265,-0.6430407 -0.51799,-0.6058034 -0.528462,0.6284036 -0.0092,1.0803431 -2.738146,2.3214661 -3.320265,2.3214641 -0.05838,0 -0.120508,0.0114 -0.186194,0.03149 -0.510042,0.804373 -0.92935,1.310244 -1.254068,1.909213 -1.580317,2.220445 -1.061947,2.19196 -1.652186,2.19196 -0.592615,0 -1.878705,-1.537673 -3.489533,-3.957298 -0.125011,-0.18778 -0.689622,-0.362507 -0.778816,-0.5257236 -0.04427,-0.080757 -0.07362,-0.1526538 -0.105419,-0.2258962 -0.01283,-0.027317 -0.02668,-0.055551 -0.03834,-0.082145 -0.02174,-0.049621 -0.05219,-0.1047843 -0.06982,-0.1519669 -0.04708,-0.1247246 -0.07472,-0.2375819 -0.0931,-0.3463743 -5.62e-4,-0.0035 -0.0018,-0.00723 -0.0027,-0.010956 -0.0014,-0.0091 -0.0056,-0.019753 -0.0069,-0.028754 -0.0019,-0.013311 0.0013,-0.023917 0,-0.036962 -0.01,-0.09685 -0.0093,-0.188968 0.0055,-0.273814 0.0013,-0.0074 -1.4e-4,-0.015968 0.0014,-0.023272 0.01804,-0.092331 0.05563,-0.1765784 0.104049,-0.2560166 0.0014,-0.00231 0.0029,-0.00449 0.0041,-0.00687 0.0044,-0.00701 0.0063,-0.015008 0.01096,-0.021905 0.0549,-0.082351 0.12979,-0.1572816 0.219051,-0.2272658 0.0027,-0.0021 0.0044,-0.00477 0.0069,-0.00687 7.01e-4,-5.594e-4 0.002,-8.411e-4 0.0027,-0.0014 0.190696,-0.1454087 0.456282,-0.2667925 0.799537,-0.3710181 0.08113,0.027625 0.15658,0.05056 0.243695,0.083513 l 1.168985,0 c 0.04218,-0.1359933 0.04793,-0.299137 0.02327,-0.5106634 C 17.977547,6.3770602 15.487217,3.074708 14.633616,3.074708 Z m 8.8046,-3.013e-4 c -0.47353,0 -2.622174,3.2843822 -2.523782,4.4563436 0.0903,1.075594 -0.113386,1.0935576 0.355132,1.0365742 0.415797,-0.050568 1.501338,-0.045521 1.708842,-0.4364327 0.139738,-0.2632512 0.564044,-2.8463949 0.702133,-3.393065 C 24.07101,3.192029 24.053562,3.0744067 23.438216,3.0744067 Z"/>
 <path style="fill:#8b9cbe;opacity:0.1" d="M 10.984375 2 C 10.603424 2.4677357 10.372176 2.8551689 9.9355469 3.3203125 C 9.0129863 4.303283 8.7695186 5.0633502 9.0058594 5.7636719 C 9.136216 5.3310614 9.4284507 4.8606137 9.9355469 4.3203125 C 10.372176 3.8551689 10.603424 3.4677357 10.984375 3 C 10.973095 3.2228709 11.052585 3.7008584 11.015625 3.7871094 C 10.982541 5.1027859 11.127528 6.431836 11.701172 7 C 11.857529 7.1858893 11.945022 7.3723432 12.005859 7.5546875 C 12.124096 7.17998 12.199439 6.5923762 11.701172 6 C 11.127528 5.431836 10.982541 4.1027859 11.015625 2.7871094 C 11.052585 2.7008584 10.973095 2.2228709 10.984375 2 z M 14.632812 3.0742188 C 14.127116 3.0742188 14.050329 3.2779066 14.189453 4.2421875 C 14.264835 4.1142079 14.403062 4.0742188 14.632812 4.0742188 C 15.379058 4.0742188 17.377337 6.5982117 17.949219 7.9296875 L 18.076172 7.9296875 C 18.118352 7.7936942 18.124269 7.6314483 18.099609 7.4199219 C 17.977891 6.377327 15.486413 3.0742188 14.632812 3.0742188 z M 23.4375 3.0742188 C 22.96397 3.0742188 20.81567 6.3592886 20.914062 7.53125 C 20.950144 7.9610263 20.937561 8.1304067 20.941406 8.2851562 C 21.082183 6.9672498 22.99148 4.0742188 23.4375 4.0742188 C 23.614636 4.0742188 23.737735 4.0898694 23.820312 4.140625 C 24.030814 3.2098664 23.952051 3.0742188 23.4375 3.0742188 z M 14.251953 5.8125 C 14.1196 7.0097281 13.533444 8.0641608 12.537109 8.8007812 C 11.971455 9.2189869 10.824219 10.628619 10.824219 10.814453 C 10.824219 10.976333 8.2139985 11.653709 8.9707031 12.625 C 9.0658737 12.74716 8.1635699 13.402707 8.8476562 13.181641 C 8.9901513 12.450419 10.824219 11.950367 10.824219 11.814453 C 10.824219 11.628619 11.971455 10.218987 12.537109 9.8007812 C 13.802835 8.8649916 14.403029 7.416054 14.251953 5.8125 z M 26.65625 6.9101562 C 26.527318 6.8725485 26.512404 7.1758863 26.505859 7.9472656 C 26.496659 9.0276087 23.767666 10.269533 23.185547 10.269531 C 23.127167 10.269531 23.065686 10.280691 23 10.300781 C 22.489958 11.105154 22.070812 11.610015 21.746094 12.208984 C 20.165777 14.429429 20.683989 14.400391 20.09375 14.400391 C 19.501135 14.400391 18.214344 12.862984 16.603516 10.443359 C 16.478505 10.255579 15.915366 10.081185 15.826172 9.9179688 C 15.781902 9.8372117 15.752502 9.7666018 15.720703 9.6933594 C 15.707873 9.6660424 15.693301 9.635969 15.681641 9.609375 C 15.662991 9.5668074 15.638971 9.5226565 15.621094 9.4804688 C 15.620695 9.4811024 15.619533 9.4817751 15.619141 9.4824219 C 15.570722 9.5618601 15.533665 9.6459503 15.515625 9.7382812 C 15.514085 9.7455853 15.514972 9.7543187 15.513672 9.7617188 C 15.498872 9.8465647 15.499766 9.9383063 15.509766 10.035156 C 15.511066 10.048196 15.507866 10.058956 15.509766 10.072266 C 15.511066 10.081266 15.514225 10.092462 15.515625 10.101562 C 15.516525 10.105322 15.518969 10.107828 15.519531 10.111328 C 15.537911 10.22012 15.564248 10.33426 15.611328 10.458984 C 15.628958 10.506167 15.659901 10.559755 15.681641 10.609375 C 15.693301 10.635975 15.707873 10.664086 15.720703 10.691406 C 15.752502 10.764649 15.781902 10.837209 15.826172 10.917969 C 15.915366 11.081186 16.478505 11.255579 16.603516 11.443359 C 18.214344 13.862984 19.501135 15.400391 20.09375 15.400391 C 20.683989 15.400391 20.165777 15.429429 21.746094 13.208984 C 22.070812 12.610015 22.489958 12.105154 23 11.300781 C 23.065686 11.280691 23.127167 11.267578 23.185547 11.267578 C 23.767666 11.26758 26.496659 10.027609 26.505859 8.9472656 C 26.516331 7.7130586 26.548891 7.6753187 27.035156 8.3183594 C 27.319669 8.6946025 27.635127 9.5566149 27.822266 10.234375 C 27.854597 10.351471 27.860799 10.496425 27.876953 10.630859 C 27.935893 10.099738 27.927123 9.6160897 27.822266 9.2363281 C 27.635127 8.5585676 27.319669 7.6946025 27.035156 7.3183594 C 26.852807 7.0772191 26.733609 6.9327209 26.65625 6.9101562 z M 9.6210938 7.703125 C 9.4682281 7.9832187 9.2934329 8.313112 9.1972656 8.6933594 C 9.3061488 8.7815881 9.3947481 8.8816802 9.4726562 8.9882812 C 9.7283062 8.4733669 10.008266 8.0915203 9.8671875 7.9589844 C 9.7756749 7.8730128 9.7006917 7.7882893 9.6210938 7.703125 z M 23.828125 18.888672 C 23.41695 19.813551 23.748546 19.628693 24.445312 20.646484 C 24.871408 21.268896 24.593793 21.500333 25.044922 21.941406 C 25.586001 22.470421 25.906817 22.959471 25.972656 24.46875 C 25.987585 24.312137 26 24.154757 26 23.998047 C 26 21.999838 25.650738 21.533714 25.044922 20.941406 C 24.593793 20.500333 24.871408 20.268896 24.445312 19.646484 C 24.168804 19.242578 23.971863 19.050103 23.828125 18.888672 z M 12.564453 19.240234 L 11.990234 20.359375 C 10.779432 22.722556 11.129454 23.498302 8.8496094 25.808594 C 8.4938295 26.169124 8.552179 26.614415 8.2714844 26.429688 C 6.2712987 25.11334 8.0974095 27.020586 7.9726562 27.193359 C 7.1986373 25.573458 7.273053 27.403977 7.3125 28.007812 C 7.3609173 27.508494 7.5212594 27.248656 7.9726562 28.193359 C 8.0974095 28.020586 6.2712987 26.11334 8.2714844 27.429688 C 8.552179 27.614416 8.4938295 27.169124 8.8496094 26.808594 C 11.129454 24.498302 10.779432 23.722556 11.990234 21.359375 L 12.820312 19.738281 L 12.564453 19.240234 z"/>
 <path style="opacity:0.2" d="m 5.7675781,7.0007057 c -1.1399953,0.00338 -1.6953125,1.4511719 -1.6953125,1.4511719 -0.014627,-0.089584 -0.1553521,6.4105674 0,10.8984374 0.1553519,4.487869 0,9.871094 0,9.871094 1.0315303,2.926565 3.2125554,1.742669 5.3867188,0.0039 0.2497852,-0.354098 0.6665956,-0.827726 1.3769536,-1.5625 2.275992,-2.35423 4.125229,-4.880934 5.333984,-7.289062 L 17,18.721409 16.066406,16.8718 C 15.552895,15.854486 14.380984,14.066549 13.460938,12.901097 13.342339,12.750865 13.268037,12.637405 13.15625,12.49094 11.215536,10.090069 8.9765329,7.2031145 5.7675781,7.0007057 Z m 10.3593749,1 c -1.615553,0.257752 -1.139902,1.8854737 -0.726562,2.5644533 1.538663,2.467805 4.072604,5.435547 4.638671,5.435547 0.563798,0 1.683813,-1.254885 3.19336,-3.519531 0.374128,-0.736862 0.841286,-1.606194 1.488281,-2.6562505 C 25.114551,9.18572 25.180085,7.9744533 24.339844,8.0007057 l -4.107422,0 -4.105469,0 z m 9.949219,8.0000003 c -0.17101,0.150461 -0.340324,0.30156 -0.529297,0.445312 -0.81979,0.623617 -1.747246,1.635128 -2.060547,2.248047 -0.547358,1.070815 -0.539471,1.155936 0.195313,2.152344 0.420578,0.57033 1.128928,1.367319 1.574218,1.771485 0.439508,0.398914 0.666403,0.80276 0.75586,1.382812 l 0,-3.441406 0,-4.257813 c 0.03515,-0.08626 0.05841,-0.161858 0.08789,-0.242187 -0.0072,-0.022 -0.01609,-0.03722 -0.02344,-0.05859 z m -6.398438,6 c -0.84098,0.04794 -2.867928,2.331052 -4.527343,5.148438 -0.476424,0.808885 -0.802188,1.309863 -1.109375,1.644531 -0.125905,0.598022 0.01913,1.226223 0.679687,1.207031 l 4.513672,0 4.513672,0 c 1.199382,-0.152058 1.362653,-0.994417 1.199219,-1.714844 -0.582354,-1.351347 -1.871086,-2.358598 -2.589844,-3.34375 -1.076734,-1.485251 -2.214525,-2.799988 -2.529297,-2.919922 -0.04508,-0.01718 -0.09433,-0.02468 -0.150391,-0.02148 z"/>
 <path style="fill:#b2bfd9" d="m 19.677376,21.00074 c -0.84098,0.04794 -2.867346,2.331134 -4.526761,5.14852 -0.476424,0.808885 -0.802221,1.309742 -1.109408,1.64441 -0.125905,0.598022 0.01919,1.225092 0.679745,1.2059 l 4.513457,0 4.513457,0 c 1.199382,-0.152058 1.362321,-0.993993 1.198887,-1.71442 -0.582354,-1.351347 -1.870214,-2.359133 -2.588972,-3.344285 -1.076734,-1.485251 -2.213988,-2.799057 -2.52876,-2.918991 -0.04508,-0.01718 -0.09558,-0.02433 -0.151645,-0.02113 z"/>
 <path style="fill:#b2bfd9" d="m 26.077024,15.000005 c -0.17101,0.150461 -0.342106,0.301597 -0.531079,0.44535 -0.81979,0.623617 -1.746151,1.635159 -2.059452,2.248078 -0.547358,1.070815 -0.540189,1.155072 0.194595,2.15148 0.420578,0.57033 1.129027,1.368455 1.574317,1.77262 0.439508,0.398914 0.665947,0.802415 0.755404,1.382467 l 0,-3.442368 0,-4.256545 c 0.03515,-0.08626 0.05971,-0.161792 0.08919,-0.242121 -0.0072,-0.022 -0.01562,-0.0376 -0.02297,-0.05897 z"/>
 <path style="fill:#b2bfd9" d="M 15.400877,9.5640824 C 16.93954,12.031887 19.472046,15 20.038113,15 c 0.563798,0 1.685254,-1.255504 3.194801,-3.52015 0.374128,-0.736862 0.839902,-1.605765 1.486897,-2.6558219 0.393848,-0.6392044 0.45969,-1.8498604 -0.380551,-1.823608 l -4.106294,0 -4.106295,0 c -1.615553,0.257752 -1.139134,1.8846829 -0.725794,2.5636623 z"/>
 <path style="fill:#b2bfd9" d="m 5.7666282,5.9999993 c -1.1399953,0.00338 -1.6942158,1.450913 -1.6942158,1.450913 -0.014627,-0.089584 -0.1553521,6.4107167 0,10.8985867 0.1553519,4.487869 0,9.871786 0,9.871786 1.0315303,2.926565 3.2116614,1.742963 5.3858248,0.0042 0.2497852,-0.354098 0.6673338,-0.827748 1.3776908,-1.562522 2.275992,-2.35423 4.125695,-4.882709 5.33445,-7.290837 L 17,17.720348 16.066505,15.870435 C 15.552994,14.853121 14.380147,13.066754 13.460101,11.901302 13.341503,11.75107 13.267101,11.636209 13.155314,11.489744 11.2146,9.0888733 8.975583,6.2024081 5.7666282,5.9999993 Z"/>
 <path style="opacity:0.2;fill:#8b9cbe" d="M 5.7675781 6 C 4.6275828 6.00338 4.0722656 7.4511719 4.0722656 7.4511719 C 4.06124 7.3836444 3.9793641 11.058157 4.0058594 14.794922 C 3.9988814 11.446079 4.0622688 8.3899455 4.0722656 8.4511719 C 4.0722656 8.4511719 4.6275828 7.00338 5.7675781 7 C 8.9765329 7.2024088 11.215536 10.089363 13.15625 12.490234 C 13.268037 12.636699 13.342339 12.750159 13.460938 12.900391 C 14.380983 14.065843 15.552895 15.85378 16.066406 16.871094 L 16.748047 18.222656 L 17 17.720703 L 16.066406 15.871094 C 15.552895 14.85378 14.380983 13.065843 13.460938 11.900391 C 13.342339 11.750159 13.268037 11.636699 13.15625 11.490234 C 11.215536 9.0893641 8.9765329 6.2024088 5.7675781 6 z M 16.126953 7 C 14.998116 7.1800993 14.897698 8.0271007 15.076172 8.7539062 C 15.205811 8.3907483 15.516918 8.0973276 16.126953 8 L 20.232422 8 L 24.339844 8 C 24.633701 7.9908188 24.811217 8.1393325 24.908203 8.3554688 C 25.090631 7.7235515 25.003938 6.9792511 24.339844 7 L 20.232422 7 L 16.126953 7 z M 26.076172 15 C 25.905162 15.150461 25.735848 15.301561 25.546875 15.445312 C 24.727085 16.06893 23.799629 17.08044 23.486328 17.693359 C 23.086316 18.475917 22.986022 18.734989 23.246094 19.205078 C 23.309537 19.055999 23.378358 18.904586 23.486328 18.693359 C 23.799629 18.08044 24.727085 17.068929 25.546875 16.445312 C 25.712755 16.319127 25.86169 16.186794 26.011719 16.054688 L 26.011719 15.300781 C 26.046869 15.214521 26.070129 15.138923 26.099609 15.058594 C 26.092409 15.036594 26.083522 15.02137 26.076172 15 z M 19.677734 21 C 18.836754 21.04794 16.809806 23.331052 15.150391 26.148438 C 14.673967 26.957323 14.348203 27.458301 14.041016 27.792969 C 13.972194 28.119856 13.988063 28.45324 14.121094 28.6875 C 14.406795 28.35435 14.712864 27.891281 15.150391 27.148438 C 16.809806 24.331052 18.836754 22.04794 19.677734 22 C 19.733795 21.9968 19.783045 22.004304 19.828125 22.021484 C 20.142897 22.141418 21.280688 23.456155 22.357422 24.941406 C 23.06361 25.909329 24.316048 26.900811 24.912109 28.216797 C 25.019997 27.925931 25.017737 27.595798 24.947266 27.285156 C 24.364912 25.933809 23.07618 24.926558 22.357422 23.941406 C 21.280688 22.456155 20.142897 21.141418 19.828125 21.021484 C 19.783045 21.004304 19.733799 20.9968 19.677734 21 z M 4.1367188 22.671875 C 4.1396747 25.678279 4.0722656 28.220703 4.0722656 28.220703 C 4.0775636 28.235734 4.0844853 28.246904 4.0898438 28.261719 C 4.111637 27.375461 4.156485 25.453327 4.1367188 22.671875 z"/>
</svg>
