<svg xmlns="http://www.w3.org/2000/svg" width="32" height="32" version="1">
 <path style="opacity:0.2" d="m 18.534818,4.0078125 c -0.412187,0.015491 -0.863824,0.055222 -1.353247,0.1347656 -0.933397,0.1517026 -2.35205,0.503962 -3.671145,1.5507813 C 12.13597,6.7841119 11.387732,8.3704193 11.174952,10.164063 10.083714,10.362461 8.9836317,10.821076 8.2692791,11.621094 7.3582682,12.641352 7,13.840145 7,14.980469 c 0,1.140323 0.3582682,2.337163 1.2692791,3.357422 0.142578,0.159676 0.3726738,0.238856 0.5428609,0.378906 -0.4670328,1.019549 -0.8008938,2.101931 -0.802575,3.269531 v 0.0059 c 0,4.361563 3.606937,8.007772 7.980837,8.007772 4.373899,0 7.980836,-3.646209 7.980836,-8.007812 v -0.0039 c -0.0011,-1.168482 -0.333427,-2.253072 -0.800622,-3.273437 0.169388,-0.13956 0.398915,-0.217933 0.540908,-0.376953 0.911011,-1.020259 1.269279,-2.217099 1.269279,-3.357422 0,-1.001319 -0.346969,-2.030061 -1.031045,-2.960938 0.505183,-0.690739 0.873798,-1.428493 0.990037,-2.1972654 C 25.111346,8.687678 24.934538,7.4402243 24.17237,6.2871094 23.420276,5.1492366 21.993306,4.3082027 20.661348,4.1269531 20.564597,4.111395 19.699281,3.9640519 18.534818,4.0078125 Z"/>
 <path style="fill:#c2352a" d="m 18.534818,3.0078125 c -0.412187,0.015491 -0.863824,0.055222 -1.353247,0.1347656 -0.933397,0.1517026 -2.35205,0.503962 -3.671145,1.5507813 C 12.13597,5.7841119 11.387732,7.3704193 11.174952,9.1640625 10.083714,9.3624612 8.9836317,9.8210764 8.2692791,10.621094 7.3582682,11.641352 7,12.840145 7,13.980469 c 0,1.140323 0.3582682,2.337163 1.2692791,3.357422 0.142578,0.159676 0.3726738,0.238856 0.5428609,0.378906 -0.4670328,1.019549 -0.8008938,2.101931 -0.802575,3.269531 v 0.0059 c 0,4.361563 3.606937,8.007772 7.980837,8.007772 4.373899,0 7.980836,-3.646209 7.980836,-8.007812 v -0.0039 c -0.0011,-1.168482 -0.333427,-2.253072 -0.800622,-3.273437 0.169388,-0.13956 0.398915,-0.217933 0.540908,-0.376953 0.911011,-1.020259 1.269279,-2.217099 1.269279,-3.357422 0,-1.001319 -0.346969,-2.030061 -1.031045,-2.960938 0.505183,-0.690739 0.873798,-1.4284933 0.990037,-2.1972654 C 25.111346,7.687678 24.934538,6.4402243 24.17237,5.2871094 23.420276,4.1492366 21.993306,3.3082027 20.661348,3.1269531 20.564597,3.111395 19.699281,2.9640519 18.534818,3.0078125 Z"/>
 <path style="opacity:0.2" d="m 18.687646,8.0056866 c -0.271727,0.01021 -0.564447,0.03556 -0.863412,0.08414 -0.597932,0.097161 -1.251113,0.2815612 -1.826003,0.7376968 -0.57489,0.4561355 -1.001481,1.2501136 -1.001481,2.1446026 v 3.005575 h -2.986942 a 0.99574708,1.0019584 0 1 0 0,2.003717 h 2.986942 v 2.136775 A 3.9825901,4.007433 0 0 0 12.009808,21.992567 3.9825901,4.007433 0 0 0 15.992398,26 a 3.9825901,4.007433 0 0 0 3.98259,-4.007433 3.9825901,4.007433 0 0 0 -2.986943,-3.876331 v -2.134818 h 2.986943 a 0.99574708,1.0019584 0 1 0 0,-2.003717 h -2.986943 v -3.005575 c 0,-0.36189 0.07123,-0.435024 0.243079,-0.571372 0.171845,-0.136348 0.514312,-0.269978 0.912028,-0.334605 0.795431,-0.1292536 1.682099,-0.0078 1.682099,-0.0078 a 0.99574708,1.0019584 0 1 0 0.299473,-1.98024 c 0,0 -0.621896,-0.1030285 -1.437078,-0.0724 z M 15.992398,20.990709 a 0.99564752,1.0018582 0 0 1 0.995647,1.001858 0.99564752,1.0018582 0 0 1 -0.995647,1.001858 0.99564752,1.0018582 0 0 1 -0.995648,-1.001858 0.99564752,1.0018582 0 0 1 0.995648,-1.001858 z"/>
 <path style="fill:#8b9cbe" d="m 18.687646,7.0056866 c -0.271727,0.01021 -0.564447,0.03556 -0.863412,0.08414 -0.597932,0.097161 -1.251113,0.2815612 -1.826003,0.7376968 -0.57489,0.4561355 -1.001481,1.2501132 -1.001481,2.1446028 v 3.0055748 h -2.986942 a 0.99574708,1.0019584 0 1 0 0,2.003717 h 2.986942 v 2.136775 A 3.9825901,4.007433 0 0 0 12.009808,20.992567 3.9825901,4.007433 0 0 0 15.992398,25 a 3.9825901,4.007433 0 0 0 3.98259,-4.007433 3.9825901,4.007433 0 0 0 -2.986943,-3.876331 v -2.134818 h 2.986943 a 0.99574708,1.0019584 0 1 0 0,-2.003717 H 16.988045 V 9.9721263 c 0,-0.3618908 0.07123,-0.4350245 0.243079,-0.5713723 0.171845,-0.1363478 0.514312,-0.2699783 0.912028,-0.334605 0.795431,-0.1292536 1.682099,-0.00782 1.682099,-0.00782 a 0.99574708,1.0019584 0 1 0 0.299473,-1.98024 c 0,0 -0.621896,-0.1030285 -1.437078,-0.0724 z M 15.992398,19.990709 a 0.99564752,1.0018582 0 0 1 0.995647,1.001858 0.99564752,1.0018582 0 0 1 -0.995647,1.001858 0.99564752,1.0018582 0 0 1 -0.995648,-1.001858 0.99564752,1.0018582 0 0 1 0.995648,-1.001858 z"/>
 <path style="opacity:0.2;fill:#8b9cbe" d="M 19.345703 3.0058594 C 19.099315 2.9979567 18.826272 2.9968723 18.535156 3.0078125 C 18.122969 3.0233035 17.671064 3.0630345 17.181641 3.1425781 C 16.248244 3.2942807 14.828861 3.6465401 13.509766 4.6933594 C 12.13531 5.7841119 11.388561 7.3704193 11.175781 9.1640625 C 10.084543 9.3624612 8.9838838 9.8210762 8.2695312 10.621094 C 7.3585204 11.641352 7 12.840145 7 13.980469 C 7 14.145963 7.0253291 14.313306 7.0410156 14.480469 C 7.1332354 13.495036 7.4904377 12.493615 8.2695312 11.621094 C 8.9838838 10.821076 10.084543 10.36246 11.175781 10.164062 C 11.388561 8.3704188 12.13531 6.7841119 13.509766 5.6933594 C 14.828861 4.6465401 16.248244 4.2942807 17.181641 4.1425781 C 17.671064 4.0630345 18.122969 4.0233035 18.535156 4.0078125 C 19.699619 3.9640519 20.565358 4.111395 20.662109 4.1269531 C 21.994067 4.3082027 23.419781 5.1492366 24.171875 6.2871094 C 24.658279 7.0230099 24.88779 7.7957972 24.958984 8.5546875 C 25.066525 7.4925331 24.875368 6.3514528 24.171875 5.2871094 C 23.419781 4.1492366 21.994067 3.3082027 20.662109 3.1269531 C 20.589546 3.1152845 20.084866 3.0295674 19.345703 3.0058594 z M 24.273438 11.533203 C 24.172903 11.697259 24.065691 11.860278 23.949219 12.019531 C 24.522545 12.799702 24.845512 13.648289 24.939453 14.492188 C 24.955893 14.321111 24.980469 14.149816 24.980469 13.980469 C 24.980469 13.159034 24.734998 12.322379 24.273438 11.533203 z M 23.494141 18.5 C 23.383683 18.567951 23.268766 18.633406 23.169922 18.714844 C 23.579377 19.609103 23.871317 20.55634 23.941406 21.5625 C 23.955182 21.373257 23.970703 21.184463 23.970703 20.992188 L 23.970703 20.988281 C 23.969881 20.114703 23.783178 19.288017 23.494141 18.5 z M 8.4882812 18.501953 C 8.1988543 19.288959 8.0110225 20.113415 8.0097656 20.986328 L 8.0097656 20.992188 C 8.0097656 21.187088 8.024911 21.378531 8.0390625 21.570312 C 8.1086502 20.56186 8.4019887 19.612958 8.8125 18.716797 C 8.7133083 18.63517 8.5989859 18.570214 8.4882812 18.501953 z"/>
</svg>
