<svg xmlns="http://www.w3.org/2000/svg" xmlns:xlink="http://www.w3.org/1999/xlink" width="32" height="32" version="1">
 <defs>
  <linearGradient id="linearGradient4648">
   <stop style="stop-color:#7d329a" offset="0"/>
   <stop style="stop-color:#ac5cce" offset="1"/>
  </linearGradient>
  <linearGradient id="linearGradient4652" x1="30.577" x2="45" y1="19.129" y2="27.456" gradientTransform="matrix(0.70588237,0,0,0.6666667,-0.76470551,-5e-7)" gradientUnits="userSpaceOnUse" xlink:href="#linearGradient4648"/>
 </defs>
 <path style="opacity:0.2" d="M 11.799957,16.44606 C 10.377165,20.846162 7.6584483,25.727629 2,24.909492 2.3741618,21.229224 3.9020084,17.523799 6.0602551,14.550501 6.5152175,13.923728 7.4539722,13.645854 7.8422815,13.100052 Z"/>
 <path style="opacity:0.2" d="M 14.018805,3.0000005 C 10.656816,3.0495625 3.9251227,8.5378863 3.090676,15.137838 c -0.2402875,1.900524 0.00636,3.924104 0.6287074,5.814622 0.3439426,5.932894 8.1345696,9.723162 13.0002256,10.044683 5.952638,0.140248 11.512144,-4.924251 12.604682,-6.283566 1.9981,-2.955053 -0.829997,-9.325121 -3.353106,-13.034708 -2.768901,-4.0709657 -7.93056,-7.0352075 -11.95238,-8.6788685 z"/>
 <path style="fill:#653578" d="M 11.799957,15.44606 C 10.377165,19.846162 7.6584483,24.727629 2,23.909492 2.3741618,20.229224 3.9020084,16.523799 6.0602551,13.550501 6.5152175,12.923728 7.4539722,12.645854 7.8422815,12.100052 Z"/>
 <path style="fill:#7d329a" d="M 14.018805,2 C 10.656816,2.049562 3.9251227,7.5378858 3.090676,14.137838 c -0.2402875,1.900524 0.00636,3.924104 0.6287074,5.814622 0.3439426,5.932894 8.1345696,9.723162 13.0002256,10.044683 5.952638,0.140248 11.512144,-4.924251 12.604682,-6.283566 1.9981,-2.955053 -0.829997,-9.325121 -3.353106,-13.034708 C 23.202284,6.6079028 18.040625,3.643661 14.018805,2 Z"/>
 <path style="opacity:0.1;fill:#8b9cbe" d="M 14.019531 2 C 10.657542 2.049562 3.9242904 7.5387197 3.0898438 14.138672 C 3.0081752 14.784619 3.0028339 15.445054 3.0292969 16.109375 C 3.0426957 15.784092 3.0494433 15.458214 3.0898438 15.138672 C 3.9242904 8.5387202 10.657542 3.049562 14.019531 3 C 18.041351 4.643661 23.201802 7.6087218 25.970703 11.679688 C 27.802742 14.373232 29.787254 18.46365 29.976562 21.636719 C 30.226779 18.371739 28.001753 13.665827 25.970703 10.679688 C 23.201802 6.6087213 18.041351 3.643661 14.019531 2 z"/>
 <ellipse style="fill:#fcf8fd" cx="-9.022" cy="21.565" rx="4.794" ry="6.125" transform="matrix(0.67816245,-0.73491203,0.72426349,0.68952331,0,0)"/>
 <path style="opacity:0.2" d="m 22.37414,11 c 4.437096,1.451835 9.359607,4.226048 8.534591,10 C 27.197522,20.6182 23.460942,19.059165 20.462644,16.856864 19.8306,16.392616 19.550391,15.434697 19,15.038461 Z"/>
 <path style="fill:url(#linearGradient4652)" d="m 22.37414,10 c 4.437096,1.451835 9.359607,4.226048 8.534591,10 C 27.197522,19.6182 23.460942,18.059165 20.462644,15.856864 19.8306,15.392616 19.550391,14.434697 19,14.038461 Z"/>
 <path style="opacity:0.2" d="M 12,16 C 12.694813,19.016811 6.702767,22.128003 3.6965278,20.919811 2.2495433,20.338275 2.0029664,18.124182 2.0639263,16.39197 2.1253743,14.85765 1.9714613,14.390471 3.5074842,14.244052 6.4165319,13.974549 11.694687,14.674347 12,16 Z"/>
 <path style="fill:#ffc102" d="m 11.944414,14.813137 c 0.694813,3.016811 -5.297233,6.128003 -8.3034722,4.919811 -1.4469845,-0.581536 -1.6935614,-2.795629 -1.6326015,-4.527841 0.061448,-1.53432 -0.092465,-2.001499 1.4435579,-2.147918 2.9090477,-0.269503 8.1872028,0.430295 8.4925158,1.755948 z"/>
 <circle style="opacity:0.2" cx="-4" cy="12" r="3" transform="scale(-1,1)"/>
 <circle style="opacity:0.2" cx="-10.5" cy="11.5" r="4.5" transform="scale(-1,1)"/>
 <circle style="fill:#8b9cbe" cx="-4" cy="11" r="3" transform="scale(-1,1)"/>
 <circle style="fill:#8b9cbe" cx="-10.5" cy="10.5" r="4.5" transform="scale(-1,1)"/>
 <circle style="fill:#17191e" cx="-9" cy="11" r="2" transform="scale(-1,1)"/>
 <circle style="fill:#17191e" cx="-3.5" cy="11.5" r="1.5" transform="scale(-1,1)"/>
</svg>
