<svg xmlns="http://www.w3.org/2000/svg" width="32" height="32" version="1">
 <circle style="opacity:0.2" cx="16" cy="17" r="14"/>
 <circle style="fill:#455259" cx="16" cy="16" r="14"/>
 <path style="opacity:0.2;fill:none;stroke:#000000;stroke-width:1.39999998" d="m 16,25.750201 -4.13,-6.65 4.13,-2.135 4.13,2.135 z m 8.05,-12.95 -8.05,12.95 -4.13,-6.65 z m -16.1,0 8.05,12.95 4.13,-6.65 z"/>
 <path style="fill:none;stroke:#ff5e49;stroke-width:1.39999998" d="M 7.95,11.8 16,24.75 20.13,18.1 Z"/>
 <path style="fill:none;stroke:#5cd262;stroke-width:1.39999998" d="M 24.05,11.8 16,24.75 11.87,18.1 Z"/>
 <path style="fill:none;stroke:#8b9cbe;stroke-width:1.39999998" d="M 16,24.75 11.87,18.1 16,15.965 20.13,18.1 Z"/>
 <path style="fill:#8b9cbe;opacity:0.1" d="M 16 2 A 14 14 0 0 0 2 16 A 14 14 0 0 0 2.0214844 16.585938 A 14 14 0 0 1 16 3 A 14 14 0 0 1 29.978516 16.414062 A 14 14 0 0 0 30 16 A 14 14 0 0 0 16 2 z"/>
</svg>
