<svg xmlns="http://www.w3.org/2000/svg" width="32" height="32" version="1.1">
 <path style="opacity:.2" d="m3.5 31c-0.831 0-1.5-0.669-1.5-1.5v-1c0 0.831 0.669 1.5 1.5 1.5h25c0.831 0 1.5-0.669 1.5-1.5v1c0 0.831-0.669 1.5-1.5 1.5h-25z"/>
 <rect style="fill:#4f4f4f" width="28" height="28" x="2" y="2" rx="1.5" ry="1.5"/>
 <path style="opacity:.1;fill:#8b9cbe" d="m3.5 2c-0.831 0-1.5 0.669-1.5 1.5v1c0-0.831 0.669-1.5 1.5-1.5h25c0.831 0 1.5 0.669 1.5 1.5v-1c0-0.831-0.669-1.5-1.5-1.5h-25z"/>
 <path style="fill:#f24c3d" d="m30 6-24 24h5l19-19z"/>
 <path style="fill:#e6df15" d="m11 30 19-19v5l-14 14z"/>
 <path style="fill:#66dd23" d="m16 30h5l9-9v-5z"/>
 <path style="fill:#24f0ff" d="m21 30h5l4-4v-5z"/>
 <path style="opacity:.2" d="m13 5 2.857 5-2.857 5h2.286l1.714-3 1.714 3h2.286l-2.857-5 2.857-5h-2.286l-1.714 3.0005-1.714-3.0005zm-9 0h8v1.25l-5.1429 6.875h5.1429v1.875h-8v-1.25l5.1429-6.875h-5.1429z"/>
 <path style="fill:#8b9cbe" d="m13 4 2.857 5-2.857 5h2.286l1.714-3 1.714 3h2.286l-2.857-5 2.857-5h-2.286l-1.714 3.0005-1.714-3.0005zm-9 0h8v1.25l-5.1429 6.875h5.1429v1.875h-8v-1.25l5.1429-6.875h-5.1429z"/>
</svg>
