<svg xmlns="http://www.w3.org/2000/svg" width="32" height="32" version="1.1">
 <path style="opacity:0.2" d="m 14,28.2 v 0.96922 C 14,30.13844 14.941177,31 16.000001,31 17.058825,31 18,30.13844 18,29.16922 V 28.2 Z"/>
 <path style="fill:#707070" d="m 14,27.2 v 0.96922 C 14,29.13844 14.941177,30 16.000001,30 17.058825,30 18,29.13844 18,28.16922 V 27.2 Z"/>
 <path style="opacity:0.2" d="m 16.963616,21.707267 c -0.481159,0 -0.999821,0.0182 -1.524815,0.049 -2.083465,0.12208 -3.506544,1.17082 -3.436313,2.0699 0.02846,0.36435 0.341461,0.63112 0.831366,0.79429 -0.540556,0.40551 -0.863586,0.83867 -0.831366,1.23186 0.02932,0.35777 0.344494,0.62195 0.841677,0.78617 -0.547082,0.40768 -0.874107,0.84427 -0.841677,1.23998 0.04554,0.55573 0.764947,0.89572 1.821272,0.9625 0.261621,0.0588 0.570639,0.10465 0.974437,0.12579 3.111674,0.16317 5.055768,-0.28644 5.193138,-1.08276 0.05314,-0.30814 -0.140783,-0.60578 -0.507842,-0.86275 0.287804,-0.2989 0.456206,-0.60235 0.433084,-0.88452 -0.02932,-0.35784 -0.344464,-0.62195 -0.841679,-0.78617 0.547083,-0.40768 0.874108,-0.84427 0.841679,-1.24005 -0.03322,-0.40537 -0.435643,-0.6895 -1.054353,-0.8435 0.415144,-0.34902 0.659938,-0.71848 0.659938,-1.07324 -1e-6,-0.34923 -1.115069,-0.49035 -2.558546,-0.48678 z"/>
 <path style="fill:#beb796" d="m 16.963616,20.707267 c -0.481159,0 -0.999821,0.0182 -1.524815,0.049 -2.083465,0.12208 -3.506544,1.17082 -3.436313,2.0699 0.02846,0.36435 0.341461,0.63112 0.831366,0.79429 -0.540556,0.40551 -0.863586,0.83867 -0.831366,1.23186 0.02932,0.35777 0.344494,0.62195 0.841677,0.78617 -0.547082,0.40768 -0.874107,0.84427 -0.841677,1.23998 0.04554,0.55573 0.764947,0.89572 1.821272,0.9625 0.261621,0.0588 0.570639,0.10465 0.974437,0.12579 3.111674,0.16317 5.055768,-0.28644 5.193138,-1.08276 0.05314,-0.30814 -0.140783,-0.60578 -0.507842,-0.86275 0.287804,-0.2989 0.456206,-0.60235 0.433084,-0.88452 -0.02932,-0.35784 -0.344464,-0.62195 -0.841679,-0.78617 0.547083,-0.40768 0.874108,-0.84427 0.841679,-1.24005 -0.03322,-0.40537 -0.435643,-0.6895 -1.054353,-0.8435 0.415144,-0.34902 0.659938,-0.71848 0.659938,-1.07324 -1e-6,-0.34923 -1.115069,-0.49035 -2.558546,-0.48678 z"/>
 <path style="opacity:0.3" d="m 19.489493,21.348504 c -0.870648,0.73773 -3.071803,2.725518 -6.833334,2.295508 2.075182,0.3304 4.266315,-0.02153 6.035157,-1.249609 0.495969,-0.34419 0.569948,-0.738179 0.798177,-1.045899 z m 0.460938,1.982422 c -0.913372,0.73766 -3.223153,2.724081 -7.169272,2.294141 2.177016,0.3304 4.476389,-0.02016 6.332032,-1.248243 0.520308,-0.34419 0.597811,-0.738178 0.83724,-1.045898 z m -0.01302,2.03711 c -0.913371,0.73773 -3.22315,2.72408 -7.169271,2.29414 2.177017,0.33033 4.475088,-0.02146 6.33073,-1.249609 0.520309,-0.34412 0.599113,-0.736811 0.838541,-1.044531 z"/>
 <path style="opacity:0.2" d="m 16,3 c -4.959429,0 -9,4.02563 -9,8.98548 0,2.52924 0.9348743,3.99854 1.8426143,5.00381 0.4538707,0.50267 0.8965032,0.89733 1.2047357,1.2537 0.308231,0.35651 0.46903,0.64673 0.46903,0.99064 0,2.33646 2.237677,4.85471 5.778438,4.76399 1.861754,-0.0476 3.223358,-0.61747 4.112716,-1.50031 0.889358,-0.88277 1.2905,-2.06276 1.2905,-3.26368 0,-0.38759 0.151706,-0.66045 0.436867,-0.99064 0.285163,-0.33012 0.7006,-0.68761 1.129691,-1.16186 C 24.122775,16.13249 25,14.68888 25,11.98548 25,7.02563 20.959429,3 16,3 Z"/>
 <path style="fill:#f44336" d="m 16,2 c -4.959429,0 -9,4.02563 -9,8.98548 0,2.52924 0.9348743,3.99854 1.8426143,5.00381 0.4538707,0.50267 0.8965032,0.89733 1.2047357,1.2537 0.308231,0.35651 0.46903,0.64673 0.46903,0.99064 0,2.33646 2.237677,4.85471 5.778438,4.76399 1.861754,-0.0476 3.223358,-0.61747 4.112716,-1.50031 0.889358,-0.88277 1.2905,-2.06276 1.2905,-3.26368 0,-0.38759 0.151706,-0.66045 0.436867,-0.99064 0.285163,-0.33012 0.7006,-0.68761 1.129691,-1.16186 C 24.122775,15.13249 25,13.68888 25,10.98548 25,6.02563 20.959429,2 16,2 Z"/>
 <path style="fill:#bc160a" d="m 19.550038,13.24606 c 0.188196,0.0637 0.313661,0.25466 0.250929,0.44569 l -2.321089,7.0672 c -0.06273,0.19096 -0.250928,0.31836 -0.439124,0.25466 -0.188196,-0.0637 -0.313659,-0.25466 -0.250928,-0.44569 l 2.321087,-7.0672 c 0.06273,-0.19096 0.25093,-0.31829 0.439125,-0.25466 z"/>
 <path style="fill:#bc160a" d="m 12.452314,13.32243 c -0.188197,0.0637 -0.313662,0.25466 -0.250929,0.44569 l 2.321088,7.06713 c 0.06273,0.19103 0.250927,0.31836 0.439124,0.25473 0.188196,-0.0637 0.313661,-0.25473 0.250929,-0.44569 l -2.321088,-7.0672 c -0.06273,-0.19103 -0.25093,-0.31836 -0.439124,-0.25466 z"/>
 <path style="fill:#bc160a" d="m 12.51427,13.27686 c -0.14798,0.0259 -0.263907,0.14322 -0.289274,0.29344 -0.02537,0.15022 0.04534,0.3003 0.176444,0.3745 0,0 1.10858,0.5704 2.557491,0.90276 1.44891,0.33229 3.303016,0.44355 4.701271,-0.94091 0.105457,-0.08491 0.154348,-0.22316 0.126157,-0.35672 -0.02819,-0.13363 -0.128586,-0.2394 -0.259058,-0.27307 -0.130472,-0.0336 -0.268448,0.0105 -0.356031,0.11452 -1.17376,1.16221 -2.734914,1.07342 -4.061899,0.76906 -1.326984,-0.30436 -2.350635,-0.82632 -2.350635,-0.82632 -0.07187,-0.0483 -0.158824,-0.0693 -0.244466,-0.0574 z"/>
 <path style="fill:#8b9cbe;opacity:0.2" d="M 16 2 C 11.040571 2 7 6.0264781 7 10.986328 C 7 11.171887 7.0137535 11.339288 7.0234375 11.513672 C 7.2714778 6.7742391 11.19982 3 16 3 C 20.80937 3 24.742218 6.7888058 24.976562 11.541016 C 24.985467 11.357734 25 11.182598 25 10.986328 C 25 6.0264781 20.959429 2 16 2 z"/>
</svg>
