<svg xmlns="http://www.w3.org/2000/svg" width="32" height="32" version="1.1">
 <circle style="opacity:0.2" cx="16" cy="17" r="14"/>
 <circle style="fill:#b2bfd9" cx="16" cy="16" r="14"/>
 <path style="opacity:0.1" d="M 23.009766,7.4001758 21.423828,7.9197071 19.871094,7.667754 19.365234,8.5954883 c 0,0 -0.674741,1.5305457 -1.001953,2.2597657 -0.350713,0.683927 -0.729475,1.500816 -1.058593,2.195312 -0.341593,0.720821 -0.673854,1.44737 -1.003907,2.173828 -0.5704,1.255471 -1.132216,2.515216 -1.716797,3.763672 -0.806268,1.874862 -2.067519,3.671946 -2.521484,5.677735 -0.204784,0.865522 -0.08211,2.088978 0.978516,2.291015 2.207151,0.05465 2.802429,-1.790499 2.964843,-3.951172 -0.0022,-0.328576 -0.01299,-0.77022 -0.02539,-1.230468 -0.03053,-1.133474 -0.07813,-2.386719 -0.07813,-2.386719 l -0.767578,1.5625 c -0.07997,0.556701 -0.09427,1.129265 -0.152344,1.695312 -0.016,0.155991 -0.03556,0.312485 -0.06055,0.466797 -0.08813,0.578949 -0.809056,3.116417 -1.427734,2.271485 -0.565089,-0.771747 0.05729,-1.969426 0.375,-2.81836 1.172463,-2.640211 2.799538,-5.157323 4.333984,-7.603515 0.518968,-0.827331 0.880173,-1.374262 1.417969,-2.1875 l 1.310547,-2.025391 z M 11.085938,11.062285 c -0.396374,-0.0029 -0.794341,0.06414 -1.1582036,0.195312 C 8.6016176,11.765055 8.0134505,13.172146 8,14.597441 c -0.00322,0.34147 0.027351,0.684203 0.087891,1.015625 l 0.085937,0.492188 0.5664063,-0.806641 c 0.029491,-1.001127 0.3160903,-1.987624 1.2753906,-2.351562 0.941292,-0.469104 2.072468,0.06462 2.554687,0.939453 0.912823,1.632025 1.29818,3.345227 1.703126,5.140625 0.273991,-0.565748 0.791015,-1.619141 0.791015,-1.619141 -0.310321,-1.819044 -0.764938,-3.625175 -1.761719,-5.224609 -0.480349,-0.76702 -1.344773,-1.114549 -2.216796,-1.121094 z"/>
 <path style="fill:#356899" d="m 19.365918,7.5952326 c 0,0 -0.674494,1.5318667 -1.001706,2.2610861 -0.350713,0.6839273 -0.73017,1.5007793 -1.059289,2.1952753 -0.341593,0.720821 -0.674394,1.445967 -1.004447,2.172425 -0.5704,1.255471 -1.132485,2.51498 -1.717066,3.763436 -0.806268,1.874862 -2.066226,3.671896 -2.520191,5.677685 -0.204784,0.865522 -0.08202,2.089878 0.978605,2.291915 2.207151,0.05465 2.801288,-1.790841 2.963702,-3.951514 -0.0022,-0.328576 -0.01178,-0.769053 -0.02418,-1.229301 -0.03053,-1.133474 -0.07852,-2.387223 -0.07852,-2.387223 l -0.767795,1.561762 c -0.07997,0.556701 -0.09415,1.130412 -0.152229,1.696459 -0.016,0.155991 -0.03534,0.311433 -0.06033,0.465745 -0.08813,0.578949 -0.810561,3.116244 -1.429239,2.271312 -0.565089,-0.771747 0.05784,-1.969854 0.375548,-2.818788 1.172463,-2.640211 2.7992,-5.156961 4.333646,-7.603153 0.518968,-0.827331 0.881708,-1.372814 1.419504,-2.186052 0.331735,-0.581218 1.308906,-2.0254299 1.308906,-2.0254299 z M 11.086284,10.06154 c -0.396373,-0.0029 -0.794225,0.06476 -1.158088,0.195936 -1.3261168,0.507457 -1.9145095,1.914608 -1.92796,3.339903 -0.00322,0.34147 0.026544,0.683994 0.087084,1.015416 l 0.086085,0.493665 0.566622,-0.807263 c 0.029491,-1.001127 0.3164497,-1.987473 1.27575,-2.351411 0.941292,-0.469104 2.073105,0.06497 2.555324,0.9398 0.912823,1.632025 1.297004,3.344938 1.70195,5.140336 0.273991,-0.565748 0.791144,-1.620676 0.791144,-1.620676 -0.310321,-1.819044 -0.763834,-3.624163 -1.760615,-5.223597 -0.480349,-0.76702 -1.345273,-1.115564 -2.217296,-1.122109 z"/>
 <path style="fill:#75b4f4" d="m 23.009864,6.4000004 -3.643946,1.1952322 1.564919,2.1556395 z"/>
 <path style="fill:#7fb9f5" d="m 19.871375,6.668518 1.558559,0.2527399 -2.064037,0.6739705 z"/>
 <path style="fill:#5fa4e9" d="m 19.365897,7.5952284 1.56496,2.1556668 -2.566676,0.1054102 z"/>
 <path style="fill:#4993dd" d="M 18.364181,9.8563054 20.930857,9.7508952 19.621948,11.776309 Z"/>
 <path style="fill:#3c8ce0" d="m 18.364181,9.8563054 1.257767,1.9200036 -2.316995,0.275289 z"/>
 <path style="fill:#3d81c3" d="m 17.304953,12.051598 2.316995,-0.275289 -1.41952,2.186044 z"/>
 <path style="fill:#3b73ac" d="m 17.304953,12.051598 0.897475,1.910755 -1.901949,0.261648 z"/>
 <path style="fill:#407ebc" d="m 15.902732,18.38902 0.07855,2.387249 -0.846386,-0.825486 z"/>
 <path style="fill:#3871ab" d="m 15.981286,20.776269 -0.846387,-0.825486 -0.152173,1.696455 z"/>
 <path style="fill:#547fa9" d="M 8.0873384,14.612794 8.7399946,14.299227 8.1734034,15.106423 Z"/>
 <path style="fill:#3771aa" d="m 8.000236,13.597379 c -0.00322,0.34147 0.026544,0.683994 0.087084,1.015416 l 0.6527073,-0.313598 z"/>
 <path style="fill:#8b9cbe;opacity:0.2" d="M 16 2 A 14 14 0 0 0 2 16 A 14 14 0 0 0 2.0214844 16.585938 A 14 14 0 0 1 16 3 A 14 14 0 0 1 29.978516 16.414062 A 14 14 0 0 0 30 16 A 14 14 0 0 0 16 2 z"/>
</svg>
