<svg xmlns="http://www.w3.org/2000/svg" width="32" height="32" version="1">
 <path style="opacity:0.2" d="m 22,15 c -3.356237,0 -6.224592,2.069753 -7.412109,5 H 1.8027344 L 1,20.681641 v 1.875 L 3.4101562,25 3.9472656,24.488281 4.4824219,25 5.5527344,23.720703 6.625,25 7.1601562,24.488281 7.6972656,25 8.5,24.232422 9.3027344,25 H 10.107422 L 10.642578,24.488281 11.177734,25 H 12 v 1 h 2.587891 c 1.187517,2.930247 4.055872,5 7.412109,5 4.418278,0 8,-3.581723 8,-8 0,-4.418278 -3.581722,-8 -8,-8 z m 4,6 c 1.104578,3e-5 2,0.895453 2,2 0,1.104548 -0.895422,1.99997 -2,2 -1.104578,-3e-5 -2,-0.895452 -2,-2 0,-1.104547 0.895422,-1.99997 2,-2 z"/>
 <path style="fill:#4caf50" d="m 16,19 -5e-6,6 h -4 v -0.999943 h -0.82142 L 10.64286,23.488693 10.107145,24.000057 H 9.303573 L 8.500002,23.233012 7.696431,24.000057 7.160716,23.488693 6.625003,24.000055 5.553575,22.719943 4.482146,24.000057 3.946432,23.488693 3.410718,24.000057 1.000003,21.556819 1,19.681883 1.803577,19 Z"/>
 <path style="opacity:0.2" d="m 12.864573,20.146777 c 0.29164,0.317454 0.08067,0.859188 -0.332191,0.853111 L 1.000003,21 1,20.000046 h 11.532382 c 0.124438,-0.0018 0.244273,0.05107 0.332191,0.146731 z"/>
 <path style="fill:#4caf50" d="m 30,22 c 0,-4.418278 -3.581722,-8 -8,-8 -4.418278,0 -8,3.581722 -8,8 0,4.418277 3.581722,8 8,8 4.418278,0 8,-3.581723 8,-8 z m -2,0 c 0,1.104548 -0.895422,1.99997 -2,2 -1.104578,-3e-5 -2,-0.895452 -2,-2 0,-1.104547 0.895422,-1.99997 2,-2 1.104578,3e-5 2,0.895453 2,2 z"/>
 <path style="opacity:0.2;fill:#8b9cbe" d="m 22,14 c -3.356237,0 -6.224592,2.069753 -7.412109,5 H 1.8027344 L 1,19.681641 v 1 L 1.8027344,20 H 14.587891 C 15.775408,17.069753 18.643763,15 22,15 c 4.249555,0 7.715353,3.315747 7.974609,7.5 C 29.984903,22.33387 30,22.168723 30,22 30,17.581722 26.418278,14 22,14 Z m 2.070312,8.5 C 24.028656,22.660755 24,22.82622 24,23 c 0,1.104548 0.895422,1.99997 2,2 1.104578,-3e-5 2,-0.895452 2,-2 0,-0.17378 -0.02866,-0.339245 -0.07031,-0.5 C 27.706575,23.361002 26.930793,23.999975 26,24 c -0.930793,-2.5e-5 -1.706575,-0.638998 -1.929688,-1.5 z"/>
 <path style="opacity:0.2" d="m 9,3 c 3.356237,0 6.224592,2.069753 7.412109,5 H 29.197266 L 30,8.681641 v 1.875 L 27.589844,13 27.052734,12.488281 26.517578,13 25.447266,11.720703 24.375,13 23.839844,12.488281 23.302734,13 22.5,12.232422 21.697266,13 H 20.892578 L 20.357422,12.488281 19.822266,13 H 19 v 1 H 16.412109 C 15.224592,16.930247 12.356237,19 9,19 4.581722,19 1,15.418277 1,11 1,6.581722 4.581722,3 9,3 Z M 5,9 c -1.104578,3e-5 -2,0.895453 -2,2 0,1.104548 0.895422,1.99997 2,2 1.104578,-3e-5 2,-0.895452 2,-2 C 7,9.895453 6.104578,9.00003 5,9 Z"/>
 <path style="fill:#f44336" d="m 15,7 5e-6,6 h 4 v -0.999943 h 0.82142 l 0.535715,-0.511364 0.535715,0.511364 h 0.803572 l 0.803571,-0.767045 0.803571,0.767045 0.535715,-0.511364 0.535713,0.511362 1.071428,-1.280112 1.071429,1.280114 0.535714,-0.511364 0.535714,0.511364 L 29.999997,9.556819 30,7.681883 29.196423,7 Z"/>
 <path style="opacity:0.2" d="m 18.135427,8.146777 c -0.29164,0.317454 -0.08067,0.859188 0.332191,0.853111 L 29.999997,9 30,8.000046 H 18.467618 c -0.124438,-0.0018 -0.244273,0.05107 -0.332191,0.146731 z"/>
 <path style="fill:#f44336" d="M 1,10 C 1,5.581722 4.581722,2 9,2 c 4.418278,0 8,3.581722 8,8 0,4.418277 -3.581722,8 -8,8 -4.418278,0 -8,-3.581723 -8,-8 z m 2,0 c 0,1.104548 0.895422,1.99997 2,2 1.104578,-3e-5 2,-0.895452 2,-2 C 7,8.895453 6.104578,8.00003 5,8 3.895422,8.00003 3,8.895453 3,10 Z"/>
 <path style="opacity:0.2;fill:#8b9cbe" d="m 9,2 c 3.356237,0 6.224592,2.069753 7.412109,5 H 29.197266 L 30,7.681641 v 1 L 29.197266,8 H 16.412109 C 15.224592,5.069753 12.356237,3 9,3 4.750445,3 1.284647,6.315747 1.025391,10.5 1.015097,10.33387 1,10.168723 1,10 1,5.581722 4.581722,2 9,2 Z M 6.929688,10.5 C 6.971344,10.660755 7,10.82622 7,11 7,12.104548 6.104578,12.99997 5,13 3.895422,12.99997 3,12.104548 3,11 3,10.82622 3.02866,10.660755 3.07031,10.5 3.293425,11.361002 4.069207,11.999975 5,12 c 0.930793,-2.5e-5 1.706575,-0.638998 1.929688,-1.5 z"/>
</svg>
