<svg xmlns="http://www.w3.org/2000/svg" width="32" height="32" version="1">
 <path style="opacity:0.2" d="m 16.574599,3.0000005 v 0.00137 A 3.1706083,3.1835191 0 0 0 14.914442,3.4251944 L 5.5855577,8.8337691 A 3.1706083,3.1835191 0 0 0 4,11.591377 v 10.817149 a 3.1706083,3.1835191 0 0 0 1.5855577,2.756241 l 9.3288843,5.408575 a 3.1706083,3.1835191 0 0 0 3.171115,0 l 9.328885,-5.408575 A 3.1706083,3.1835191 0 0 0 29,22.408526 V 11.591377 A 3.1706083,3.1835191 0 0 0 27.414442,8.8337691 L 18.085557,3.4251944 A 3.1706083,3.1835191 0 0 0 16.574599,3.0000005 Z"/>
 <path style="fill:#1c5b6c" d="m 16.574599,2.0000001 v 0.00137 A 3.1706083,3.1835191 0 0 0 14.914442,2.425194 L 5.5855577,7.8337687 A 3.1706083,3.1835191 0 0 0 4,10.591377 v 10.817149 a 3.1706083,3.1835191 0 0 0 1.5855577,2.756241 l 9.3288843,5.408575 a 3.1706083,3.1835191 0 0 0 3.171115,0 l 9.328885,-5.408575 A 3.1706083,3.1835191 0 0 0 29,21.408526 V 10.591377 A 3.1706083,3.1835191 0 0 0 27.414442,7.8337687 L 18.085557,2.425194 A 3.1706083,3.1835191 0 0 0 16.574599,2.0000001 Z"/>
 <path style="opacity:0.2" d="m 12.058594,11.001953 c -0.187032,0.0043 -0.367919,0.01619 -0.476563,0.0332 -0.520979,0.08167 -0.960234,0.251291 -1.330078,0.511719 -0.6901005,0.48594 -1.093854,1.24544 -1.2265624,2.310547 -0.035053,0.2814 -0.035135,0.853988 0,1.123047 0.1593741,1.221201 0.7798285,2.28488 1.8496094,3.173828 0.445191,0.369931 0.984014,0.717202 1.484375,0.955078 0.315577,0.150033 0.322603,0.152494 0.339844,0.199219 0.0089,0.02386 0.01757,0.276028 0.02148,0.59375 0.0049,0.387051 0.01344,0.594669 0.0293,0.695312 0.102544,0.649041 0.278396,1.132512 0.595703,1.632813 0.531188,0.837525 1.329293,1.425235 2.257813,1.664062 0.09745,0.02503 0.253151,0.05699 0.345703,0.07031 0.09255,0.01332 0.18811,0.02572 0.21289,0.0293 0.110071,0.01603 0.759233,-0.0034 0.902344,-0.02734 1.077833,-0.182359 1.992494,-0.797558 2.587891,-1.736328 0.317308,-0.500302 0.497065,-0.983774 0.599609,-1.632813 0.01592,-0.100642 0.02259,-0.30826 0.02734,-0.695312 0.0042,-0.317723 0.01465,-0.569865 0.02344,-0.59375 0.01725,-0.0467 0.02426,-0.04918 0.339844,-0.199219 0.371414,-0.176576 0.831799,-0.455757 1.177734,-0.712891 1.034751,-0.769141 1.714613,-1.693391 2.015626,-2.740234 0.119837,-0.416779 0.164431,-0.751621 0.164062,-1.234375 -0.0013,-1.919579 -0.920912,-3.12662 -2.580078,-3.386719 -0.217293,-0.03404 -0.727547,-0.04649 -0.986328,-0.02344 -1.320129,0.117664 -2.667719,0.734836 -3.710938,1.697265 -0.139999,0.129156 -0.185044,0.16211 -0.220703,0.16211 -0.03568,0 -0.08266,-0.03293 -0.222656,-0.16211 -1.04322,-0.962429 -2.392763,-1.579602 -3.712891,-1.697265 -0.129391,-0.01153 -0.320782,-0.01406 -0.507812,-0.0098 z m 1.341797,2.994141 c 0.09849,-0.0044 0.19132,0.0038 0.25,0.02148 0.10676,0.03207 0.353827,0.165077 0.509765,0.275391 0.4417,0.312469 0.700398,0.802148 0.796875,1.513672 0.03268,0.241139 0.02879,0.305014 -0.01563,0.351562 -0.02626,0.02753 -0.05289,0.03906 -0.09375,0.03906 -0.05215,0 -0.06979,-0.01148 -0.185547,-0.134766 -0.323101,-0.344055 -0.687446,-0.60657 -1.097656,-0.791016 -0.09354,-0.04209 -0.299758,-0.122329 -0.458984,-0.175781 -0.315989,-0.106075 -0.460234,-0.174009 -0.548828,-0.263672 -0.0768,-0.07773 -0.105469,-0.136753 -0.105469,-0.224609 0,-0.217196 0.272025,-0.449897 0.666016,-0.56836 0.07916,-0.02379 0.184711,-0.03857 0.283203,-0.04297 z m 6.291015,0.0078 c 0.130363,0.01731 0.270524,0.05663 0.394532,0.111328 0.18944,0.0836 0.370663,0.233734 0.43164,0.357422 0.03652,0.07412 0.04017,0.18908 0.0078,0.253906 -0.07116,0.142269 -0.230212,0.235262 -0.628907,0.369141 -0.452963,0.152105 -0.690784,0.266594 -1.005859,0.484375 -0.186947,0.129215 -0.38061,0.299142 -0.552734,0.482422 -0.115796,0.123302 -0.131449,0.134766 -0.183594,0.134766 -0.04085,0 -0.06944,-0.01153 -0.0957,-0.03906 -0.04441,-0.04655 -0.04636,-0.110423 -0.01367,-0.351562 0.09648,-0.711523 0.355174,-1.201206 0.796875,-1.513672 0.155938,-0.110316 0.403011,-0.243328 0.509765,-0.275391 0.08833,-0.02653 0.20948,-0.03097 0.339844,-0.01367 z m -4.130859,3.900391 c 0.08882,0 0.114808,0.03234 0.164062,0.201172 0.192421,0.659639 0.131056,1.282472 -0.171875,1.759765 -0.138378,0.218024 -0.220505,0.269568 -0.310546,0.195313 -0.119925,-0.0989 -0.182879,-0.590181 -0.125,-0.994141 0.04175,-0.291627 0.168506,-0.733201 0.287109,-1.003906 0.05971,-0.136264 0.08165,-0.158203 0.15625,-0.158203 z m 1.878906,0.002 c 0.03215,-8.66e-4 0.06477,0.0038 0.08203,0.01758 0.05564,0.04392 0.225168,0.511395 0.302735,0.832031 0.107536,0.444501 0.109869,0.897433 0.0059,1.189453 -0.05362,0.150363 -0.1468,0.189223 -0.24414,0.09961 h -0.002 c -0.02933,-0.02694 -0.091,-0.107664 -0.136718,-0.179688 -0.302932,-0.477294 -0.364297,-1.100126 -0.171875,-1.759765 0.03044,-0.104334 0.05745,-0.161104 0.08008,-0.177735 0.01997,-0.01467 0.05183,-0.02061 0.08398,-0.02148 z"/>
 <path style="fill:#8b9cbe" d="M 12.058594 10.001953 C 11.871562 10.006253 11.690675 10.018146 11.582031 10.035156 C 11.061052 10.116826 10.621797 10.286447 10.251953 10.546875 C 9.5618525 11.032815 9.158099 11.792315 9.0253906 12.857422 C 8.9903376 13.138822 8.9902556 13.71141 9.0253906 13.980469 C 9.1847647 15.20167 9.8052191 16.265349 10.875 17.154297 C 11.320191 17.524228 11.859014 17.871499 12.359375 18.109375 C 12.674952 18.259408 12.681978 18.261869 12.699219 18.308594 C 12.708119 18.332454 12.716793 18.584622 12.720703 18.902344 C 12.725603 19.289395 12.73414 19.497013 12.75 19.597656 C 12.852544 20.246697 13.028396 20.730168 13.345703 21.230469 C 13.876891 22.067994 14.674996 22.655704 15.603516 22.894531 C 15.700966 22.919561 15.856667 22.951524 15.949219 22.964844 C 16.041769 22.978164 16.137329 22.990561 16.162109 22.994141 C 16.27218 23.010171 16.921342 22.990707 17.064453 22.966797 C 18.142286 22.784438 19.056947 22.169239 19.652344 21.230469 C 19.969652 20.730167 20.149409 20.246695 20.251953 19.597656 C 20.267873 19.497014 20.274547 19.289396 20.279297 18.902344 C 20.283497 18.584621 20.293944 18.332479 20.302734 18.308594 C 20.319984 18.261894 20.326994 18.259418 20.642578 18.109375 C 21.013992 17.932799 21.474377 17.653618 21.820312 17.396484 C 22.855063 16.627343 23.534925 15.703093 23.835938 14.65625 C 23.955775 14.239471 24.000369 13.904629 24 13.421875 C 23.9987 11.502296 23.079088 10.295255 21.419922 10.035156 C 21.202629 10.001116 20.692375 9.9886638 20.433594 10.011719 C 19.113465 10.129383 17.765875 10.746555 16.722656 11.708984 C 16.582657 11.83814 16.537612 11.871094 16.501953 11.871094 C 16.466273 11.871094 16.419292 11.838165 16.279297 11.708984 C 15.236077 10.746555 13.886534 10.129382 12.566406 10.011719 C 12.437015 10.000189 12.245624 9.9976571 12.058594 10.001953 z M 13.400391 12.996094 C 13.498881 12.991694 13.591711 12.999918 13.650391 13.017578 C 13.757151 13.049648 14.004218 13.182655 14.160156 13.292969 C 14.601856 13.605438 14.860554 14.095117 14.957031 14.806641 C 14.989711 15.04778 14.985826 15.111655 14.941406 15.158203 C 14.915146 15.185733 14.888516 15.197266 14.847656 15.197266 C 14.795506 15.197266 14.777867 15.185791 14.662109 15.0625 C 14.339008 14.718445 13.974663 14.45593 13.564453 14.271484 C 13.470913 14.229394 13.264695 14.149155 13.105469 14.095703 C 12.78948 13.989628 12.645235 13.921694 12.556641 13.832031 C 12.479841 13.754301 12.451172 13.695278 12.451172 13.607422 C 12.451172 13.390226 12.723197 13.157525 13.117188 13.039062 C 13.196346 13.015273 13.301899 13.000494 13.400391 12.996094 z M 19.691406 13.003906 C 19.821769 13.021216 19.96193 13.060533 20.085938 13.115234 C 20.275378 13.198834 20.456601 13.348968 20.517578 13.472656 C 20.554098 13.546776 20.557751 13.661736 20.525391 13.726562 C 20.454231 13.868831 20.295179 13.961824 19.896484 14.095703 C 19.443521 14.247808 19.2057 14.362297 18.890625 14.580078 C 18.703678 14.709293 18.510015 14.87922 18.337891 15.0625 C 18.222095 15.185802 18.206442 15.197266 18.154297 15.197266 C 18.113447 15.197266 18.084854 15.185733 18.058594 15.158203 C 18.014184 15.111653 18.012232 15.04778 18.044922 14.806641 C 18.141402 14.095118 18.400096 13.605435 18.841797 13.292969 C 18.997735 13.182653 19.244808 13.049641 19.351562 13.017578 C 19.439892 12.991048 19.561042 12.986606 19.691406 13.003906 z M 15.560547 16.904297 C 15.649367 16.904297 15.675355 16.936634 15.724609 17.105469 C 15.91703 17.765108 15.855665 18.387941 15.552734 18.865234 C 15.414356 19.083258 15.332229 19.134802 15.242188 19.060547 C 15.122263 18.961647 15.059309 18.470366 15.117188 18.066406 C 15.158938 17.774779 15.285694 17.333205 15.404297 17.0625 C 15.464007 16.926236 15.485948 16.904297 15.560547 16.904297 z M 17.439453 16.90625 C 17.471603 16.905384 17.504224 16.910098 17.521484 16.923828 C 17.577124 16.967748 17.746652 17.435223 17.824219 17.755859 C 17.931755 18.20036 17.934088 18.653292 17.830078 18.945312 C 17.776458 19.095675 17.683278 19.134535 17.585938 19.044922 L 17.583984 19.044922 C 17.554654 19.017982 17.492981 18.937258 17.447266 18.865234 C 17.144334 18.38794 17.082969 17.765108 17.275391 17.105469 C 17.305831 17.001135 17.332839 16.944365 17.355469 16.927734 C 17.375439 16.913064 17.407303 16.90712 17.439453 16.90625 z"/>
 <path style="fill:#8b9cbe;opacity:0.1" d="M 16.574219 2 L 16.574219 2.0019531 A 3.1706083 3.1835191 0 0 0 14.914062 2.4257812 L 5.5859375 7.8339844 A 3.1706083 3.1835191 0 0 0 4 10.591797 L 4 11.591797 A 3.1706083 3.1835191 0 0 1 5.5859375 8.8339844 L 14.914062 3.4257812 A 3.1706083 3.1835191 0 0 1 16.574219 3.0019531 L 16.574219 3 A 3.1706083 3.1835191 0 0 1 18.085938 3.4257812 L 27.414062 8.8339844 A 3.1706083 3.1835191 0 0 1 29 11.591797 L 29 10.591797 A 3.1706083 3.1835191 0 0 0 27.414062 7.8339844 L 18.085938 2.4257812 A 3.1706083 3.1835191 0 0 0 16.574219 2 z"/>
</svg>
