<svg xmlns="http://www.w3.org/2000/svg" width="32" height="32" version="1">
 <ellipse style="opacity:0.2" cx="6.859" cy="23.531" rx="13.278" ry="9.997" transform="matrix(0.84250019,-0.53869605,0.43439331,0.90072329,0,0)"/>
 <ellipse style="fill:#6e6e6e" cx="7.296" cy="22.682" rx="13.278" ry="9.997" transform="matrix(0.84250019,-0.53869605,0.43439331,0.90072329,0,0)"/>
 <path style="opacity:0.1;fill:#8b9cbe" d="M 19.884766,5.0039062 A 9.8385587,13.395998 49.086323 0 0 11.65625,7.4941406 9.8385587,13.395998 49.086323 0 0 4.0234375,20.380859 9.8385587,13.395998 49.086323 0 1 11.65625,8.4941406 9.8385587,13.395998 49.086323 0 1 27.1875,10.347656 9.8385587,13.395998 49.086323 0 1 27.976562,13.619141 9.8385587,13.395998 49.086323 0 0 27.1875,9.3476562 9.8385587,13.395998 49.086323 0 0 19.884766,5.0039062 Z"/>
 <rect style="opacity:0.2" width="7" height="7" x="-20" y="-9" rx="3.5" ry="3.5" transform="matrix(0,-1,-1,0,0,0)"/>
 <rect style="opacity:0.2" width="7" height="7" x="-11" y="-19" rx="3.5" ry="3.5" transform="matrix(0,-1,-1,0,0,0)"/>
 <rect style="opacity:0.2" width="7" height="7" x="-18" y="-31" rx="3.5" ry="3.5" transform="matrix(0,-1,-1,0,0,0)"/>
 <rect style="fill:#3e3e3e" width="7" height="7" x="-10" y="-19" rx="3.5" ry="3.5" transform="matrix(0,-1,-1,0,0,0)"/>
 <rect style="opacity:0.2" width="5" height="5" x="-10" y="-18" rx="2.5" ry="2.5" transform="matrix(0,-1,-1,0,0,0)"/>
 <rect style="fill:#6666ff" width="5" height="5" x="-9" y="-18" rx="2.5" ry="2.5" transform="matrix(0,-1,-1,0,0,0)"/>
 <rect style="fill:#3e3e3e" width="7" height="7" x="-17" y="-31" rx="3.5" ry="3.5" transform="matrix(0,-1,-1,0,0,0)"/>
 <rect style="opacity:0.2" width="5" height="5" x="-17" y="-30" rx="2.5" ry="2.5" transform="matrix(0,-1,-1,0,0,0)"/>
 <rect style="fill:#6666ff" width="5" height="5" x="-16" y="-30" rx="2.5" ry="2.5" transform="matrix(0,-1,-1,0,0,0)"/>
 <rect style="fill:#3e3e3e" width="7" height="7" x="-19" y="-9" rx="3.5" ry="3.5" transform="matrix(0,-1,-1,0,0,0)"/>
 <rect style="opacity:0.2" width="5" height="5" x="-19" y="-8" rx="2.5" ry="2.5" transform="matrix(0,-1,-1,0,0,0)"/>
 <rect style="fill:#6666ff" width="5" height="5" x="-18" y="-8" rx="2.5" ry="2.5" transform="matrix(0,-1,-1,0,0,0)"/>
 <rect style="opacity:0.2" width="7" height="7" x="-31" y="-12" rx="3.5" ry="3.5" transform="matrix(0,-1,-1,0,0,0)"/>
 <rect style="fill:#3e3e3e" width="7" height="7" x="-30" y="-12" rx="3.5" ry="3.5" transform="matrix(0,-1,-1,0,0,0)"/>
 <rect style="opacity:0.2" width="5" height="5" x="-30" y="-11" rx="2.5" ry="2.5" transform="matrix(0,-1,-1,0,0,0)"/>
 <rect style="fill:#6666ff" width="5" height="5" x="-29" y="-11" rx="2.5" ry="2.5" transform="matrix(0,-1,-1,0,0,0)"/>
 <rect style="opacity:0.2" width="7" height="7" x="-29" y="-25" rx="3.5" ry="3.5" transform="matrix(0,-1,-1,0,0,0)"/>
 <rect style="fill:#3e3e3e" width="7" height="7" x="-28" y="-25" rx="3.5" ry="3.5" transform="matrix(0,-1,-1,0,0,0)"/>
 <rect style="opacity:0.2" width="5" height="5" x="-28" y="-24" rx="2.5" ry="2.5" transform="matrix(0,-1,-1,0,0,0)"/>
 <rect style="fill:#6666ff" width="5" height="5" x="-27" y="-24" rx="2.5" ry="2.5" transform="matrix(0,-1,-1,0,0,0)"/>
</svg>
