<svg xmlns="http://www.w3.org/2000/svg" width="32" height="32" version="1">
 <path style="opacity:0.2" d="m 2,7 v 2 1 H 3 V 24 H 1 v 3 H 32 V 24 H 30 V 10 h 1 V 9 7 H 30 V 9 H 28 V 7 H 27 V 9 H 25 V 7 h -1 v 2 1 h 1 V 16.955078 17 h -6 v -4 h 1 v -1 -2 h -1 v 2 h -2 v -2 h -1 v 2 h -2 v -2 h -1 v 2 1 h 1 v 4 H 8 V 16.955078 10 H 9 V 9 7 H 8 V 9 H 6 V 7 H 5 V 9 H 3 V 7 Z"/>
 <path style="fill:#cf2619" d="m 3.6,16 v 7 H 1 v 3 h 31 v -3 h -3 v -7 z"/>
 <path style="opacity:0.1;fill:#8b9cbe" d="m 3.5996094,16 v 1 H 29 V 16 Z M 1,23 v 1 h 2 v -1 z m 29,0 v 1 h 2 v -1 z"/>
 <path style="fill:#f44336" d="m 13,9 v 2 1 h 1 v 11 h 5 V 18.954546 12 h 1 V 11 9 h -1 v 2 H 17 V 9 h -1 v 2 H 14 V 9 Z"/>
 <path style="fill:#f44336" d="M 2,6 V 8 9 H 3 V 23 H 8 V 15.954546 9 H 9 V 8 6 H 8 V 8 H 6 V 6 H 5 V 8 H 3 V 6 Z"/>
 <path style="fill:#f44336" d="M 31,6 V 8 9 H 30 V 23 H 25 V 15.954546 9 H 24 V 8 6 h 1 v 2 h 2 V 6 h 1 v 2 h 2 V 6 Z"/>
 <path style="opacity:0.2" d="m 5,11 v 5 h 1 v -5 z m 22,0 v 5 h 1 V 11 Z M 5,18 v 5 h 1 v -5 z m 10.841797,0 v 1 h -0.75 v 5 h 3 v -5 h -0.75 V 18 Z M 27,18 v 5 h 1 v -5 z m -17,1 v 3 h 1 v -3 z m 12,0 v 3 h 1 v -3 z"/>
 <rect style="fill:#8b9cbe" width="1" height="5" x="-28" y="10" transform="scale(-1,1)"/>
 <rect style="fill:#8b9cbe" width="1" height="5" x="-28" y="17" transform="scale(-1,1)"/>
 <rect style="fill:#8b9cbe" width="1" height="3" x="-23" y="18" transform="scale(-1,1)"/>
 <path style="fill:#8b9cbe" d="m 15.840908,17 v 1 h -0.749999 v 5 h 3 v -5 h -0.750001 v -1 z"/>
 <rect style="fill:#8b9cbe" width="1" height="3" x="10" y="18"/>
 <rect style="fill:#8b9cbe" width="1" height="5" x="5" y="17"/>
 <rect style="fill:#8b9cbe" width="1" height="5" x="5" y="10"/>
 <path style="opacity:0.2;fill:#8b9cbe" d="M 2 6 L 2 7 L 3 7 L 3 6 L 2 6 z M 5 6 L 5 7 L 6 7 L 6 6 L 5 6 z M 8 6 L 8 7 L 9 7 L 9 6 L 8 6 z M 24 6 L 24 7 L 25 7 L 25 6 L 24 6 z M 27 6 L 27 7 L 28 7 L 28 6 L 27 6 z M 30 6 L 30 7 L 31 7 L 31 6 L 30 6 z M 3 8 L 3 9 L 5 9 L 5 8 L 3 8 z M 6 8 L 6 9 L 8 9 L 8 8 L 6 8 z M 25 8 L 25 9 L 27 9 L 27 8 L 25 8 z M 28 8 L 28 9 L 30 9 L 30 8 L 28 8 z M 13 9 L 13 10 L 14 10 L 14 9 L 13 9 z M 16 9 L 16 10 L 17 10 L 17 9 L 16 9 z M 19 9 L 19 10 L 20 10 L 20 9 L 19 9 z M 14 11 L 14 12 L 16 12 L 16 11 L 14 11 z M 17 11 L 17 12 L 19 12 L 19 11 L 17 11 z"/>
</svg>
