<svg xmlns="http://www.w3.org/2000/svg" width="32" height="32" version="1">
 <circle style="opacity:0.2" cx="16" cy="17" r="14"/>
 <circle style="fill:#623bb2" cx="16" cy="16" r="14"/>
 <path style="opacity:0.2" d="M 13.694922,3.944727 9.8736329,18.635157 C 8.7728423,12.532945 7.8240091,9.2912553 6.5308592,6.7064457 A 14,14 0 0 0 3.6748047,10.369141 c 0.9128993,2.344608 1.791898,5.497943 2.9708986,10.474023 1.2690867,5.41681 3.3242174,7.372056 8.0226557,8.298828 l 3.366016,0.801172 3.819922,-14.691797 c 1.135455,6.294394 2.111404,9.545659 3.468554,12.170703 a 14,14 0 0 0 2.864258,-3.550586 C 27.225332,21.496744 26.318571,18.262806 25.082226,13.044726 23.813147,7.6279104 21.758014,5.6726708 17.05957,4.7458988 Z m 3.21289,3.9101563 c 2.382082,0.6359339 3.290605,1.7958689 4.025,4.1685537 h -1.614648 l -4.49668,14.009571 c -2.382082,-0.635936 -3.290598,-1.79587 -4.025,-4.168555 h 1.614649 z"/>
 <path style="fill:#8b9cbe" d="M 13.694922,2.944727 9.8736329,17.635157 C 8.7728423,11.532945 7.8240091,8.2912553 6.5308592,5.7064457 A 14,14 0 0 0 3.6748047,9.3691412 c 0.9128993,2.3446078 1.791898,5.4979428 2.9708986,10.4740228 1.2690867,5.41681 3.3242174,7.372056 8.0226557,8.298828 l 3.366016,0.801172 3.819922,-14.691797 c 1.135455,6.294394 2.111404,9.545659 3.468554,12.170703 a 14,14 0 0 0 2.864258,-3.550586 C 27.225332,20.496744 26.318571,17.262806 25.082226,12.044726 23.813147,6.6279104 21.758014,4.6726708 17.05957,3.7458988 Z m 3.21289,3.9101563 c 2.382082,0.6359339 3.290605,1.7958689 4.025,4.1685537 h -1.614648 l -4.49668,14.009571 c -2.382082,-0.635936 -3.290598,-1.79587 -4.025,-4.168555 h 1.614649 z"/>
 <path style="opacity:0.1;fill:#8b9cbe" d="M 16 2 A 14 14 0 0 0 2 16 A 14 14 0 0 0 2.0214844 16.585938 A 14 14 0 0 1 16 3 A 14 14 0 0 1 29.978516 16.414062 A 14 14 0 0 0 30 16 A 14 14 0 0 0 16 2 z"/>
</svg>
