<svg xmlns="http://www.w3.org/2000/svg" width="32" height="32" version="1">
 <path style="opacity:0.2" d="m 15.999565,2.0000292 c -0.785749,0 -1.572023,0.2928722 -2.159391,0.8802248 L 1.8802124,14.84155 c -1.17473397,1.174704 -1.17306697,3.140583 0.0017,4.315288 L 13.841875,31.118134 c 1.174734,1.174705 3.142365,1.176371 4.317099,0.0017 L 30.118951,19.158553 c 1.174733,-1.174705 1.174734,-3.142267 0,-4.316971 L 18.158957,2.880254 C 17.57159,2.2929015 16.785315,2.0000292 15.999565,2.0000292 Z"/>
 <path style="fill:#c2352a" d="m 15.999565,1.0000147 c -0.785749,0 -1.572023,0.2928722 -2.159391,0.8802248 L 1.8802124,13.841535 c -1.17473397,1.174704 -1.17306697,3.140583 0.0017,4.315288 L 13.841875,30.118119 c 1.174734,1.174705 3.142365,1.176371 4.317099,0.0017 L 30.118951,18.158538 c 1.174733,-1.174705 1.174734,-3.142267 0,-4.316971 L 18.158957,1.8802395 C 17.57159,1.292887 16.785315,1.0000147 15.999565,1.0000147 Z"/>
 <path style="fill:#17191e" d="M 9.2128906 6.5078125 L 8.5058594 7.2148438 L 13 11.714844 L 13 19 L 14 19 L 14 12.716797 L 17.28125 16.003906 L 17.990234 15.296875 L 14 11.300781 L 14 11.021484 L 13.720703 11.021484 L 9.2128906 6.5078125 z"/>
 <path style="opacity:0.2" d="M 13.5,10 A 2.5,2.5 0 0 0 11,12.5 2.5,2.5 0 0 0 13.5,15 2.5,2.5 0 0 0 16,12.5 2.5,2.5 0 0 0 13.5,10 Z m 5,5 A 2.5,2.5 0 0 0 16,17.5 2.5,2.5 0 0 0 18.5,20 2.5,2.5 0 0 0 21,17.5 2.5,2.5 0 0 0 18.5,15 Z m -5,4 A 2.5,2.5 0 0 0 11,21.5 2.5,2.5 0 0 0 13.5,24 2.5,2.5 0 0 0 16,21.5 2.5,2.5 0 0 0 13.5,19 Z"/>
 <path style="fill:#8b9cbe" d="M 13.5 9 A 2.5 2.5 0 0 0 11 11.5 A 2.5 2.5 0 0 0 13.5 14 A 2.5 2.5 0 0 0 16 11.5 A 2.5 2.5 0 0 0 13.5 9 z M 18.5 14 A 2.5 2.5 0 0 0 16 16.5 A 2.5 2.5 0 0 0 18.5 19 A 2.5 2.5 0 0 0 21 16.5 A 2.5 2.5 0 0 0 18.5 14 z M 13.5 18 A 2.5 2.5 0 0 0 11 20.5 A 2.5 2.5 0 0 0 13.5 23 A 2.5 2.5 0 0 0 16 20.5 A 2.5 2.5 0 0 0 13.5 18 z"/>
 <path style="opacity:0.2;fill:#8b9cbe" d="M 16,1 C 15.214251,1 14.427212,1.2935068 13.839844,1.8808594 L 1.8808594,13.841797 C 1.1677671,14.554871 0.89374824,15.557797 1.046875,16.5 1.1451361,15.88944 1.4188022,15.303842 1.8808594,14.841797 L 13.839844,2.8808594 C 14.427212,2.2935068 15.214251,2 16,2 c 0.78575,0 1.570836,0.2935069 2.158203,0.8808594 L 30.119141,14.841797 c 0.462057,0.462045 0.735408,1.047327 0.833984,1.658203 0.152044,-0.942214 -0.121308,-1.945545 -0.833984,-2.658203 L 18.158203,1.8808594 C 17.570836,1.2935069 16.78575,1 16,1 Z"/>
</svg>
