<svg xmlns="http://www.w3.org/2000/svg" width="32" height="32" version="1.1">
 <path style="opacity:0.2" d="M 3.3076923,3 H 28.692308 C 29.966722,3 31,4.0029687 31,5.24 V 28.76 C 31,29.997032 29.966722,31 28.692308,31 H 3.3076923 C 2.0332782,31 1,29.997032 1,28.76 V 5.24 C 1,4.0029687 2.0332782,3 3.3076923,3 Z m 0,0"/>
 <path style="fill:#b2bfd9" d="M 3.3076923,2 H 28.692308 C 29.966722,2 31,3.0029687 31,4.24 V 27.76 C 31,28.997032 29.966722,30 28.692308,30 H 3.3076923 C 2.0332782,30 1,28.997032 1,27.76 V 4.24 C 1,3.0029687 2.0332782,2 3.3076923,2 Z m 0,0"/>
 <path style="fill:none;stroke:#e9a119;stroke-width:2;stroke-linejoin:round" d="M 16,5.36 V 30"/>
 <path style="fill:none;stroke:#e22e28;stroke-width:2" d="M 16,30 V 24.47 C 16,23.07875 17.19875,22 18.59,22 h 2.96 C 22.94125,22 24,20.75125 24,19.36 v -6.72"/>
 <path style="fill:none;stroke:#1a5fb4;stroke-width:2;stroke-linejoin:round" d="m 16,30 c 0,-1.39125 -1.05875,-3 -2.45,-3 H 10.31 C 8.91875,27 8,25.85125 8,24.46 V 13.36 C 8,11.96875 8.91875,11 10.31,11 h 3.24 C 14.94125,11 16,10.11125 16,8.72 V 7.04"/>
 <path style="opacity:0.1" d="m 16,5 c -1.373291,0 -2.5,1.1267091 -2.5,2.5 0,1.3732907 1.126709,2.5 2.5,2.5 1.373291,0 2.5,-1.1267093 2.5,-2.5 C 18.5,6.1267091 17.373291,5 16,5 Z m 8,6 c -1.373291,0 -2.5,1.126709 -2.5,2.5 0,1.373291 1.126709,2.5 2.5,2.5 1.373291,0 2.5,-1.126709 2.5,-2.5 C 26.5,12.126709 25.373291,11 24,11 Z M 8,17 C 6.6267093,17 5.5,18.126709 5.5,19.5 5.5,20.873291 6.6267093,22 8,22 9.3732907,22 10.5,20.873291 10.5,19.5 10.5,18.126709 9.3732907,17 8,17 Z"/>
 <path style="fill:#f65d5a" d="m 21.5,12.5 c 0,-1.373291 1.126709,-2.5 2.5,-2.5 1.373291,0 2.5,1.126709 2.5,2.5 0,1.373291 -1.126709,2.5 -2.5,2.5 -1.373291,0 -2.5,-1.126709 -2.5,-2.5 z m 0,0"/>
 <path style="fill:#8b9cbe" d="m 25,12.5 c 0,0.552734 -0.447266,1 -1,1 -0.552734,0 -1,-0.447266 -1,-1 0,-0.552734 0.447266,-1 1,-1 0.552734,0 1,0.447266 1,1 z m 0,0"/>
 <path style="fill:#5292de" d="M 5.5,18.5 C 5.5,19.873291 6.6267093,21 8,21 9.3732907,21 10.5,19.873291 10.5,18.5 10.5,17.126709 9.3732907,16 8,16 6.6267093,16 5.5,17.126709 5.5,18.5 Z m 0,0"/>
 <path style="fill:#8b9cbe" d="M 9,18.500001 C 9,19.052735 8.5527346,19.5 8,19.5 c -0.5527347,0 -1,-0.447265 -1,-0.999999 0,-0.552734 0.4472653,-1 1,-1 0.5527346,0 1,0.447266 1,1 z m 0,0"/>
 <path style="fill:#ffc425" d="M 13.5,6.5 C 13.5,7.8732907 14.626709,9 16,9 17.373291,9 18.5,7.8732907 18.5,6.5 18.5,5.1267091 17.373291,4 16,4 14.626709,4 13.5,5.1267091 13.5,6.5 Z m 0,0"/>
 <path style="fill:#8b9cbe" d="M 17,6.4999994 C 17,7.0527344 16.552734,7.5 16,7.5 c -0.552734,0 -1,-0.4472656 -1,-1.0000006 0,-0.5527348 0.447266,-1.0000005 1,-1.0000005 0.552734,0 1,0.4472657 1,1.0000005 z m 0,0"/>
 <path style="fill:#8b9cbe;opacity:0.2" d="M 3.3085938 2 C 2.0341797 2 1 3.0032031 1 4.2402344 L 1 5.2402344 C 1 4.0032031 2.0341797 3 3.3085938 3 L 28.691406 3 C 29.96582 3 31 4.0032031 31 5.2402344 L 31 4.2402344 C 31 3.0032031 29.96582 2 28.691406 2 L 3.3085938 2 z"/>
</svg>
