<svg xmlns="http://www.w3.org/2000/svg" width="32" height="32" version="1.1">
 <g transform="translate(0 -1020.4)">
  <g transform="translate(0 1020.4)">
   <path fill="#b2bfd9" d="m27 28.5v-25c0-0.831-0.669-1.5-1.5-1.5h-19c-0.831 0-1.5 0.669-1.5 1.5v25c0 0.831 0.669 1.5 1.5 1.5h19c0.831 0 1.5-0.669 1.5-1.5z"/>
   <path fill="#fff" opacity=".1" d="m6.5 2c-0.831 0-1.5 0.669-1.5 1.5v1c0-0.831 0.669-1.5 1.5-1.5h19c0.831 0 1.5 0.669 1.5 1.5v-1c0-0.831-0.669-1.5-1.5-1.5z"/>
   <path opacity=".2" d="m2 5v22c0 2 2 2 2 2h26l-28-24zm5 10.871 9.482 8.129h-9.482v-8.129z"/>
   <path fill="#689f38" d="m2 4v22c0 2 2 2 2 2h26l-28-24zm5 10.871 9.482 8.129h-9.482v-8.129z"/>
   <path opacity=".2" d="m5 28.5v1c0 0.831 0.669 1.5 1.5 1.5h19c0.831 0 1.5-0.669 1.5-1.5v-1c0 0.831-0.669 1.5-1.5 1.5h-19c-0.831 0-1.5-0.669-1.5-1.5z"/>
  </g>
 </g>
</svg>
