<svg xmlns="http://www.w3.org/2000/svg" height="32" width="32" version="1.1">
 <path style="opacity:.2" d="m8 5s1 2 3 3c2.828427 1.4142136 5 1 5 1l5 7s0 3 1 5l2 4-7 1s1-2 1-4-1-2-1-2-3 0-6 3c-1 1-2 3-2 3l-3-4s3-1 4-2c2-2 3-7 3-7s0-1-2-2c-3.2249031-1.6124515-5-1-5-1z"/>
 <path style="fill:#0037d1" d="m8 4s1 2 3 3c2.828427 1.4142136 5 1 5 1l5 7s0 3 1 5l2 4-7 1s1-2 1-4-1-2-1-2-3 0-6 3c-1 1-2 3-2 3l-3-4s3-1 4-2c2-2 3-7 3-7s0-1-2-2c-3.2249031-1.6124515-5-1-5-1z"/>
 <path style="opacity:.1;fill:#8b9cbe" d="m8 4l-2 5s0.156614-0.0462988 0.4316406-0.0800781l1.5683594-3.9199219s1 2 3 3c2.828427 1.4142136 5 1 5 1l5 7s0 3 1 5l1.533203 3.066406 0.466797-0.066406-2-4c-1-2-1-5-1-5l-5-7s-2.171573 0.4142136-5-1c-2-1-3-3-3-3zm4.861328 8.603516c-0.302376 1.287329-1.232641 4.767797-2.861328 6.396484-1 1-4 2-4 2l0.5898438 0.787109c0.9199687-0.342788 2.6832062-1.060159 3.4101562-1.787109 2-2 3-7 3-7s-0.034293-0.169364-0.138672-0.396484zm5.107422 8.927734c-0.147741 1.807541-0.96875 3.46875-0.96875 3.46875l0.427734-0.060547c0.273129-0.767658 0.572266-1.834853 0.572266-2.939453 0-0.177533-0.01689-0.321336-0.03125-0.46875z"/>
 <path style="opacity:.2" d="m19 21c4.043038-0.808608 4-8 4-8s-2-5-7-5c-4 0-4 7-4 7s2 7 7 6z"/>
 <path style="fill:#0849ff" d="m19 20c4.043038-0.808608 4-8 4-8s-2-5-7-5c-4 0-4 7-4 7s2 7 7 6z"/>
 <path style="opacity:.2;fill:#8b9cbe" d="m16 7c-4 0-4 7-4 7s0.044789 0.12317 0.048828 0.136719c0.125004-1.779829 0.740432-6.136719 3.951172-6.136719 4.85625 0 6.842582 4.63895 6.955078 4.910156 0.029667-0.467407 0.044922-0.910156 0.044922-0.910156s-2-5-7-5z"/>
 <path style="opacity:.2" d="m7 4c-3 0-3 3-3 3s0 4 2 4c3 0 4-3 4-3s0.162278-4-3-4zm17.5 2a4.5 4.5 0 0 0 -4.5 4.5 4.5 4.5 0 0 0 4.5 4.5 4.5 4.5 0 0 0 4.5 -4.5 4.5 4.5 0 0 0 -4.5 -4.5zm-18.087891 15.617188c-0.8038839 0.044174-1.4121094 0.382812-1.4121094 0.382812s-2.1401754 0.579474-1 4c1 3 4 2 4 2s3-2 1-5c-0.7844645-1.176697-1.7840068-1.426987-2.5878906-1.382812zm14.587891 1.382812a5 4 0 0 0 -5 4 5 4 0 0 0 5 4 5 4 0 0 0 5 -4 5 4 0 0 0 -5 -4z"/>
 <path style="fill:#225cff" d="m7 3c-3 0-3 3-3 3s0 4 2 4c3 0 4-3 4-3s0.162278-4-3-4zm17.5 2a4.5 4.5 0 0 0 -4.5 4.5 4.5 4.5 0 0 0 4.5 4.5 4.5 4.5 0 0 0 4.5 -4.5 4.5 4.5 0 0 0 -4.5 -4.5zm-18.087891 15.617188c-0.8038839 0.044174-1.4121094 0.382812-1.4121094 0.382812s-2.1401754 0.579474-1 4c1 3 4 2 4 2s3-2 1-5c-0.7844645-1.176697-1.7840068-1.426987-2.5878906-1.382812zm14.587891 1.382812a5 4 0 0 0 -5 4 5 4 0 0 0 5 4 5 4 0 0 0 5 -4 5 4 0 0 0 -5 -4z"/>
 <path style="opacity:.2;fill:#8b9cbe" d="m7 3c-3 0-3 3-3 3s0.0017087 0.264913 0.0351562 0.6542969c0.0832042-0.735994 0.5180616-2.6542969 2.9648438-2.6542969 2.2234133 0 2.7930555 1.9605895 2.9414062 3.1347656 0.0107149-0.0287975 0.0585938-0.1347656 0.0585938-0.1347656s0.162278-4-3-4zm17.5 2a4.5 4.5 0 0 0 -4.5 4.5 4.5 4.5 0 0 0 0.033203 0.511719 4.5 4.5 0 0 1 4.466797 -4.011719 4.5 4.5 0 0 1 4.466797 3.9882812 4.5 4.5 0 0 0 0.033203 -0.4882812 4.5 4.5 0 0 0 -4.5 -4.5zm-18.087891 15.617188c-0.803883 0.044174-1.4121094 0.382812-1.4121094 0.382812s-1.6005278 0.43766-1.2929688 2.771484c0.1924022-1.452527 1.2929688-1.771484 1.2929688-1.771484s0.6082264-0.338638 1.4121094-0.382812c0.803884-0.044176 1.8034266 0.206115 2.5878906 1.382812 0.3667048 0.550057 0.5627427 1.066312 0.6425781 1.542969 0.1233704-0.723531-0.0010203-1.580632-0.6425781-2.542969-0.784464-1.176697-1.7840066-1.426988-2.5878906-1.382812zm14.587891 1.382812a5 4 0 0 0 -5 4 5 4 0 0 0 0.044922 0.501953 5 4 0 0 1 4.955078 -3.501953 5 4 0 0 1 4.955078 3.498047 5 4 0 0 0 0.044922 -0.498047 5 4 0 0 0 -5 -4z"/>
</svg>
