<svg xmlns="http://www.w3.org/2000/svg" width="32" height="32" version="1">
 <path style="opacity:0.2" d="m 27.361328,4.0703125 c -0.110806,0.00648 -0.229179,0.022241 -0.355469,0.048828 L 12.03125,7.5722656 C 9.9204927,7.8383424 10,10 10,10 v 2 1 11.011 c 2.365749,0.670626 3.998909,-1.969964 4,0.489 V 13 11.158203 L 25,8.5410156 V 13 21.011 c 2.365749,0.670626 3.998909,-1.969964 4,0.489 V 7.6992188 6 C 29,6 29.02342,3.9730693 27.361328,4.0703125 Z M 29,21.5 c -0.0019,0.183382 -0.01299,0.366553 -0.0332,0.548828 0.0027,-0.01622 0.0063,-0.03227 0.0078,-0.04883 H 29 Z m -15,3 c -0.0022,0.167025 -0.01194,0.333865 -0.0293,0.5 H 13.9746 14 Z"/>
 <path style="fill:#5652d2" d="m 27.361328,3.0703125 c -0.110806,0.00648 -0.229179,0.022241 -0.355469,0.048828 L 12.03125,6.5722656 C 9.9204927,6.8383424 10,9 10,9 v 2 1 11.011 c 2.365749,0.670626 3.998909,-1.969964 4,0.489 V 12 10.158203 L 25,7.5410156 V 12 20.011 c 2.365749,0.670626 3.998909,-1.969964 4,0.489 V 6.6992188 5 C 29,5 29.02342,2.9730693 27.361328,3.0703125 Z M 29,20.5 c -0.0019,0.183382 -0.01299,0.366553 -0.0332,0.548828 0.0027,-0.01622 0.0063,-0.03227 0.0078,-0.04883 H 29 Z m -15,3 c -0.0022,0.167025 -0.01194,0.333865 -0.0293,0.5 H 13.9746 14 Z"/>
 <path style="opacity:0.2" d="M 23.5,16 A 5.5,5.5 0 0 0 18,21.5 5.5,5.5 0 0 0 23.5,27 5.5,5.5 0 0 0 29,21.5 5.5,5.5 0 0 0 23.5,16 Z m -15,3 A 5.5,5.5 0 0 0 3,24.5 5.5,5.5 0 0 0 8.5,30 5.5,5.5 0 0 0 14,24.5 5.5,5.5 0 0 0 8.5,19 Z"/>
 <path style="fill:#3c8cf8" d="M 23.5 15 A 5.5 5.5 0 0 0 18 20.5 A 5.5 5.5 0 0 0 23.5 26 A 5.5 5.5 0 0 0 29 20.5 A 5.5 5.5 0 0 0 23.5 15 z M 8.5 18 A 5.5 5.5 0 0 0 3 23.5 A 5.5 5.5 0 0 0 8.5 29 A 5.5 5.5 0 0 0 14 23.5 A 5.5 5.5 0 0 0 8.5 18 z"/>
 <path style="fill:#8b9cbe;opacity:0.1" d="M 27.361328 3.0703125 C 27.250522 3.0767925 27.132149 3.0925536 27.005859 3.1191406 L 12.03125 6.5722656 C 9.9204927 6.8383424 10 9 10 9 L 10 10 C 10 10 9.9204927 7.8383424 12.03125 7.5722656 L 27.005859 4.1191406 C 27.132149 4.0925536 27.250522 4.0767925 27.361328 4.0703125 C 29.02342 3.9730693 29 6 29 6 L 29 5 C 29 5 29.02342 2.9730693 27.361328 3.0703125 z"/>
 <path style="opacity:0.2;fill:#8b9cbe" d="M 23.5 15 A 5.5 5.5 0 0 0 18 20.5 A 5.5 5.5 0 0 0 18.025391 21.013672 A 5.5 5.5 0 0 1 23.5 16 A 5.5 5.5 0 0 1 28.974609 20.986328 A 5.5 5.5 0 0 0 29 20.5 A 5.5 5.5 0 0 0 23.5 15 z M 8.5 18 A 5.5 5.5 0 0 0 3 23.5 A 5.5 5.5 0 0 0 3.0253906 24.013672 A 5.5 5.5 0 0 1 8.5 19 A 5.5 5.5 0 0 1 13.974609 23.986328 A 5.5 5.5 0 0 0 14 23.5 A 5.5 5.5 0 0 0 8.5 18 z"/>
</svg>
