<svg width="32" xmlns="http://www.w3.org/2000/svg" version="1.1" height="32">
 <path style="opacity:.2" d="m16 6c-12 0-14 4-14 6s2 3 2 3l6-2v-2s0-1 6-1 6 1 6 1v2l6 2s2-1 2-3-3-6-14-6zm-3.5 5c-0.277 0-0.5 0.223-0.5 0.5v1.5h-1c0 6-5 7-5 9v3c0 2 2 2 2 2h16s2 0 2-2v-3c0-2-5-3-5-9h-1v-1.5c0-0.277-0.223-0.5-0.5-0.5s-0.5 0.223-0.5 0.5v1.5h-6v-1.5c0-0.277-0.223-0.5-0.5-0.5z"/>
 <path style="fill:#c2352a" d="m16 5c-12 0-14 4-14 6s2 3 2 3l6-2v-2s0-1 6-1 6 1 6 1v2l6 2s2-1 2-3-3-6-14-6zm-3.5 5c-0.277 0-0.5 0.223-0.5 0.5v1.5h-1c0 6-5 7-5 9v3c0 2 2 2 2 2h16s2 0 2-2v-3c0-2-5-3-5-9h-1v-1.5c0-0.277-0.223-0.5-0.5-0.5s-0.5 0.223-0.5 0.5v1.5h-6v-1.5c0-0.277-0.223-0.5-0.5-0.5z"/>
 <path style="opacity:.2" d="m16 16a5 5 0 0 0 -5 5 5 5 0 0 0 5 5 5 5 0 0 0 2.570312 -0.716797l-1.029296-1.712891a3 3 0 0 1 -1.541016 0.429688 3 3 0 0 1 -3 -3 3 3 0 0 1 3 -3 3 3 0 0 1 3 3 3 3 0 0 1 -0.431641 1.541016l1.714844 1.029296a5 5 0 0 0 0.716797 -2.570312 5 5 0 0 0 -5 -5z"/>
 <path style="fill:#8b9cbe" d="m16 15a5 5 0 0 0 -5 5 5 5 0 0 0 5 5 5 5 0 0 0 2.570312 -0.716797l-1.029296-1.712891a3 3 0 0 1 -1.541016 0.429688 3 3 0 0 1 -3 -3 3 3 0 0 1 3 -3 3 3 0 0 1 3 3 3 3 0 0 1 -0.431641 1.541016l1.714844 1.029296a5 5 0 0 0 0.716797 -2.570312 5 5 0 0 0 -5 -5z"/>
 <path style="opacity:.2;fill:#8b9cbe" d="m16 5c-12 0-14 4-14 6 0 0.159713 0.0312163 0.30226 0.0546875 0.449219 0.3623158-2.1012743 2.9608618-5.449219 13.945312-5.449219 10.161243 0 13.488027 3.4107928 13.9375 5.507812 0.029663-0.16427 0.0625-0.327238 0.0625-0.507812 0-2-3-6-14-6zm-3.166016 5.132812c-0.275989 0.026643-0.51406 0.057649-0.738281 0.089844-0.055214 0.080431-0.095703 0.171995-0.095703 0.277344v1c0-0.277 0.223-0.5 0.5-0.5s0.5 0.223 0.5 0.5v-1c0-0.147133-0.065509-0.275852-0.166016-0.367188zm6.332032 0c-0.100507 0.091336-0.166016 0.220055-0.166016 0.367188v1c0-0.277 0.223-0.5 0.5-0.5s0.5 0.223 0.5 0.5v-1c0-0.105349-0.040489-0.196913-0.095703-0.277344-0.224221-0.032195-0.462292-0.063201-0.738281-0.089844zm-8.166016 1.867188c0 6-5 7-5 9v1c0-2 5-3 5-9h1v-1h-1zm2 0v1h6v-1h-6zm7 0v1h1c0 6 5 7 5 9v-1c0-2-5-3-5-9h-1z"/>
</svg>
