<svg xmlns="http://www.w3.org/2000/svg" width="32" height="32" version="1">
 <rect fill="#b2bfd9" width="26" height="20" x="-29" y="-26" rx="1.3" ry="1.333" transform="matrix(0,-1,-1,0,0,0)"/>
 <path fill="#e74c3c" d="m13.701 12c-1.487 0-2.701 1.117-2.701 2.5 0 0.71979 0.32553 1.3765 0.84822 1.8333l4.085 3.667 4.219-3.667c0.523-0.456 0.848-1.113 0.848-1.833 0-1.383-1.214-2.5-2.701-2.5-0.979 0-1.828 0.481-2.299 1.208-0.471-0.727-1.32-1.208-2.299-1.208z"/>
 <path fill="#e74c3c" d="m8.0804 10c-0.5949 0-1.0804 0.419-1.0804 0.938 0 0.269 0.1302 0.516 0.3393 0.687l1.6339 1.375 1.6878-1.375c0.209-0.171 0.339-0.418 0.339-0.687 0-0.519-0.486-0.938-1.0804-0.938-0.3918 0-0.7312 0.18-0.9196 0.453-0.1884-0.273-0.5278-0.453-0.9196-0.453z"/>
 <path fill="#e74c3c" d="m9.9042 8.2713h-1.6129l-0.2545 0.7287h-1.0368l1.4816-4h1.2297l1.4817 4h-1.037l-0.2518-0.7287zm-1.3557-0.74213h1.0958l-0.5465-1.5915-0.5492 1.5914z"/>
 <path fill="#e74c3c" d="m23.92 22c0.594 0 1.08-0.419 1.08-0.938 0-0.269-0.13-0.516-0.339-0.687l-1.634-1.375-1.688 1.375c-0.209 0.171-0.339 0.418-0.339 0.687 0 0.519 0.486 0.938 1.08 0.938 0.392 0 0.732-0.18 0.92-0.453 0.188 0.273 0.528 0.453 0.92 0.453z"/>
 <path fill="#e74c3c" d="m22.096 23.729h1.6129l0.254-0.729h1.037l-1.4816 4h-1.2297l-1.4816-4h1.0368l0.25184 0.72873zm1.3557 0.74213h-1.0958l0.54655 1.5914 0.54923-1.5914z"/>
 <path fill="#fff" opacity=".2" d="m7.334 3c-0.7387 0-1.334 0.5806-1.334 1.3008v1c0-0.7202 0.5953-1.3008 1.334-1.3008h17.332c0.739 0 1.334 0.5806 1.334 1.3008v-1c0-0.7202-0.595-1.3008-1.334-1.3008h-17.332z"/>
 <path opacity=".2" d="m6 27.699v1c0 0.72 0.5953 1.301 1.334 1.301h17.332c0.739 0 1.334-0.581 1.334-1.301v-1c0 0.72-0.595 1.301-1.334 1.301h-17.332c-0.7387 0-1.334-0.581-1.334-1.301z"/>
</svg>
