<svg xmlns="http://www.w3.org/2000/svg" width="32" height="32" version="1">
 <path fill="#fecd38" d="m16 2c-7.756 0-14 6.244-14 14s6.244 14 14 14 14-6.244 14-14-6.244-14-14-14z"/>
 <path fill="#fff" opacity=".2" d="m16 2c-7.756 0-14 6.244-14 14 0 0.169 0.0254 0.333 0.0312 0.5 0.2636-7.5207 6.3815-13.5 13.969-13.5 7.5872 0 13.705 5.9793 13.969 13.5 0.006-0.16727 0.0312-0.33125 0.0312-0.5 0-7.756-6.244-14-14-14z"/>
 <path fill="#17191e" d="m16 8v6h6l-6 10v-6h-6z"/>
 <path opacity=".2" d="m2.0254 16.5c-0.0059 0.167-0.0254 0.331-0.0254 0.5 0 7.756 6.244 14 14 14s14-6.244 14-14c0-0.16884-0.01952-0.33264-0.02539-0.5-0.264 7.521-6.388 13.5-13.975 13.5-7.5872 0-13.711-5.979-13.975-13.5z"/>
</svg>
