<svg xmlns="http://www.w3.org/2000/svg" width="32" height="32" version="1.1">
 <path style="opacity:0.2" d="m 20.846491,10.039743 c -1.171057,-1.1710585 -3.056677,-1.1710585 -4.227809,0 l -9.5125531,9.512552 c -0.7836948,0.783694 -1.031075,1.884349 -0.7659071,2.8797 L 2.878319,25.893898 c -1.1710575,1.171132 -1.1711322,3.056677 1.69e-5,4.227809 1.1710574,1.171057 3.0566777,1.171057 4.2278098,0 l 3.4619023,-3.461903 c 0.995426,0.265242 2.096005,0.01793 2.8797,-0.765906 l 9.512553,-9.512553 c 1.171133,-1.171058 1.171133,-3.056678 2.1e-5,-4.227735 l -2.113943,-2.113942 z"/>
 <path style="opacity:0.2" d="m 12,12.319259 3.858108,3.858108 0.964526,0.964526 L 20.680741,21 l 3.858108,-3.858107 2.315242,-2.315241 1.542866,-1.542866 c 2.137391,-2.137391 2.137391,-5.5788242 0,-7.7162162 L 27.43243,4.6030433 c -2.137392,-2.1373913 -5.578824,-2.1373913 -7.716216,0 l -1.542865,1.5428661 -2.315241,2.3152414 z"/>
 <path style="fill:#b2bfd9" d="m 20.846491,9.0397423 c -1.171057,-1.171058 -3.056677,-1.171058 -4.227809,0 L 7.1061289,18.552295 c -0.7836948,0.783694 -1.031075,1.884349 -0.7659071,2.8797 L 2.878319,24.893898 c -1.1710575,1.171132 -1.1711322,3.056677 1.69e-5,4.227809 1.1710574,1.171057 3.0566777,1.171057 4.2278098,0 l 3.4619023,-3.461903 c 0.995426,0.265242 2.096005,0.01793 2.8797,-0.765906 l 9.512553,-9.512553 c 1.171133,-1.171058 1.171133,-3.056678 2.1e-5,-4.227735 L 20.846379,9.0396674 Z"/>
 <path style="fill:#8b9cbe;opacity:0.2" d="M 18.732422 8.1621094 C 17.968243 8.1621094 17.204707 8.4535335 16.619141 9.0390625 L 7.1054688 18.552734 C 6.3953403 19.262862 6.1478887 20.230026 6.3007812 21.146484 C 6.4003608 20.564185 6.6531521 20.005051 7.1054688 19.552734 L 16.619141 10.039062 C 17.790273 8.868004 19.674646 8.868004 20.845703 10.039062 L 22.960938 12.154297 C 23.418131 12.611469 23.68884 13.177629 23.789062 13.767578 C 23.945569 12.846358 23.674856 11.868182 22.960938 11.154297 L 20.845703 9.0390625 C 20.260175 8.4535335 19.4966 8.1621094 18.732422 8.1621094 z M 6.2578125 21.513672 L 2.8789062 24.894531 C 2.1650209 25.608462 1.8923348 26.58659 2.0488281 27.507812 C 2.1490555 26.917862 2.4217341 26.351732 2.8789062 25.894531 L 6.3398438 22.431641 C 6.2597437 22.130972 6.2437194 21.821919 6.2578125 21.513672 z"/>
 <path style="fill:#ff9913" d="m 12,11.319259 3.858108,3.858108 0.964526,0.964526 L 20.680741,20 l 3.858108,-3.858107 2.315242,-2.315241 1.542866,-1.542866 c 2.137391,-2.137391 2.137391,-5.5788244 0,-7.7162164 L 27.43243,3.6030431 c -2.137392,-2.1373913 -5.578824,-2.1373913 -7.716216,0 l -1.542865,1.5428661 -2.315241,2.3152414 z"/>
 <path style="opacity:0.1" d="M 11.038278,8.9997132 A 2.0387758,2.0387758 0 0 0 9.6181792,12.500854 L 20.490564,23.373238 A 2.0387758,2.0387758 0 1 0 23.373232,20.49057 L 12.500848,9.6181857 a 2.0387758,2.0387758 0 0 0 -1.46257,-0.6184725 z"/>
 <path style="fill:#8b9cbe;opacity:0.2" d="M 23.574219 2 C 22.179513 2 20.785493 2.53482 19.716797 3.6035156 L 18.173828 5.1464844 L 15.857422 7.4609375 L 12 11.318359 L 12.5 11.818359 L 15.857422 8.4609375 L 18.173828 6.1464844 L 19.716797 4.6035156 C 21.854189 2.4661243 25.294249 2.4661243 27.431641 4.6035156 L 28.396484 5.5683594 C 29.337585 6.50946 29.864201 7.7016863 29.976562 8.9257812 C 30.119983 7.3691771 29.593252 5.7651275 28.396484 4.5683594 L 27.431641 3.6035156 C 26.362945 2.53482 24.968925 2 23.574219 2 z"/>
 <path style="fill:#ffbc48" d="M 11.038278,7.999713 A 2.0387758,2.0387758 0 0 0 9.6181792,11.500854 L 20.490564,22.373238 A 2.0387758,2.0387758 0 1 0 23.373232,19.49057 L 12.500848,8.6181855 A 2.0387758,2.0387758 0 0 0 11.038278,7.999713 Z"/>
 <rect style="fill:#4e79ff" width="2.915" height="11.658" x="21.17" y="5.41" rx="1.457" ry="1.457" transform="rotate(45)"/>
 <path style="opacity:0.2;fill:#8b9cbe" d="M 11.039062 8 A 2.0387758 2.0387758 0 0 0 9.0644531 10.541016 A 2.0387758 2.0387758 0 0 1 11.039062 9 A 2.0387758 2.0387758 0 0 1 12.5 9.6191406 L 23.373047 20.490234 A 2.0387758 2.0387758 0 0 1 23.935547 21.460938 A 2.0387758 2.0387758 0 0 0 23.373047 19.490234 L 12.5 8.6191406 A 2.0387758 2.0387758 0 0 0 11.039062 8 z"/>
</svg>
