<svg xmlns="http://www.w3.org/2000/svg" width="32" height="32" version="1">
 <rect fill="#b2bfd9" width="23" height="28" x="-28" y="-30" rx="1.438" ry="1.4" transform="matrix(0,-1,-1,0,0,0)"/>
 <path fill="#4d4d4d" d="m7.334 10c-0.7387 0-1.334 0.558-1.334 1.25v10.5c0 0.692 0.5953 1.25 1.334 1.25h17.332c0.739 0 1.334-0.558 1.334-1.25v-10.5c0-0.692-0.595-1.25-1.334-1.25h-17.332z"/>
 <path fill="#fff" opacity=".2" d="m3.4004 5c-0.7756 0-1.4004 0.6411-1.4004 1.4375v1c0-0.7964 0.6248-1.4375 1.4004-1.4375h25.2c0.775 0 1.4 0.6411 1.4 1.4375v-1c0-0.7964-0.625-1.4375-1.4-1.4375h-25.2z"/>
 <path opacity=".2" d="m2 26.562v1c0 0.797 0.6248 1.438 1.4004 1.438h25.2c0.775 0 1.4-0.641 1.4-1.438v-1c0 0.797-0.625 1.438-1.4 1.438h-25.2c-0.7752 0-1.4-0.641-1.4-1.438z"/>
</svg>
