<svg xmlns="http://www.w3.org/2000/svg" width="32" height="32" version="1">
 <circle style="opacity:0.2" cx="16" cy="17" r="14"/>
 <circle style="fill:#009688" cx="16" cy="16" r="14"/>
 <path style="opacity:0.2" d="m 16,9 c -2.096104,7.108e-4 -4.1082,0.8240641 -5.603516,2.292969 L 13.113281,16 17.105469,9.0859375 C 16.73941,9.031759 16.370034,9.0030442 16,9 Z M 18.136719,9.2988281 15.421875,14 h 7.990234 C 22.478504,11.699176 20.529465,9.9622869 18.136719,9.2988281 Z M 9.6992188,12.083984 C 8.6010414,13.487639 8.0030114,15.217802 8,17 c 0.00187,0.674956 0.089154,1.346961 0.2597656,2 H 13.691406 Z M 18.308594,15 22.300781,21.916016 C 23.398958,20.512361 23.996989,18.782198 24,17 23.9981,16.325044 23.91085,15.653039 23.740234,15 Z m 0.578125,3 -3.992188,6.914062 C 15.26059,24.968241 15.629966,24.996956 16,25 c 2.096104,-7.11e-4 4.1082,-0.824064 5.603516,-2.292969 z M 8.5878906,20 c 0.9336053,2.300824 2.8826444,4.037713 5.2753904,4.701172 L 16.578125,20 Z"/>
 <path style="fill:#8b9cbe" d="m 16,8 c -2.096104,7.108e-4 -4.1082,0.8240641 -5.603516,2.292969 L 13.113281,15 17.105469,8.0859375 C 16.73941,8.031759 16.370034,8.0030442 16,8 Z M 18.136719,8.2988281 15.421875,13 h 7.990234 C 22.478504,10.699176 20.529465,8.9622869 18.136719,8.2988281 Z M 9.6992188,11.083984 C 8.6010414,12.487639 8.0030114,14.217802 8,16 c 0.00187,0.674956 0.089154,1.346961 0.2597656,2 H 13.691406 Z M 18.308594,14 22.300781,20.916016 C 23.398958,19.512361 23.996989,17.782198 24,16 c -0.0019,-0.674956 -0.08915,-1.346961 -0.259766,-2 z m 0.578125,3 -3.992188,6.914062 C 15.26059,23.968241 15.629966,23.996956 16,24 c 2.096104,-7.11e-4 4.1082,-0.824064 5.603516,-2.292969 z M 8.5878906,19 c 0.9336053,2.300824 2.8826444,4.037713 5.2753904,4.701172 L 16.578125,19 Z"/>
 <path style="opacity:0.2;fill:#8b9cbe" d="M 16 2 A 14 14 0 0 0 2 16 A 14 14 0 0 0 2.0214844 16.585938 A 14 14 0 0 1 16 3 A 14 14 0 0 1 29.978516 16.414062 A 14 14 0 0 0 30 16 A 14 14 0 0 0 16 2 z"/>
</svg>
