<svg xmlns="http://www.w3.org/2000/svg" width="32" height="32" version="1.1">
 <path style="opacity:0.2" d="M 16,3 A 14,14 0 0 0 2,17 14,14 0 0 0 16,31 14,14 0 0 0 30,17 14,14 0 0 0 16,3 Z"/>
 <path style="fill:#685d8d" d="M 16,2 A 14,14 0 0 0 2,16 14,14 0 0 0 16,30 14,14 0 0 0 30,16 14,14 0 0 0 16,2 Z"/>
 <path style="opacity:0.2" d="M 14.309878,26.910412 C 13.111716,26.682437 11.835849,26.129256 10.76715,25.374384 9.5670552,24.526707 8.3267021,23.035054 7.730363,21.722337 7.1311007,20.403174 6.8884226,18.808146 7.0476901,17.235379 c 0.1204875,-1.189768 0.2575237,-1.742092 0.6673156,-2.689603 1.136849,-2.628579 3.3607523,-4.440637 6.3070853,-5.1390714 0.482069,-0.114275 0.816248,-0.2489921 1.02291,-0.4123609 0.306328,-0.2421601 0.307295,-0.2449965 0.49176,-1.4389655 0.230295,-1.490603 0.22685,-1.4791611 0.462902,-1.5382942 0.317135,-0.079446 1.799313,0.131879 2.524118,0.3598812 1.166493,0.3669471 1.999764,0.8445004 2.993662,1.7156924 0.306528,0.2686817 1.098307,0.4885125 1.148145,0.4885125 0.300132,0 1.133723,0.3916885 1.470607,0.7184863 1.004613,0.9745306 1.140043,2.2029076 0.374218,3.3941036 -0.205518,0.319667 -0.478907,0.17656 -0.478907,0.588816 0,0.275394 -0.04724,0.562405 -0.105012,0.637801 -0.08468,0.110539 -0.836175,0.170772 -2.460832,0.311047 C 19.985275,14.35924 19.091021,14.738345 19,14.829197 c -0.270565,0.270051 0.353702,0.326729 3.229612,0.553409 2.68922,0.211964 2.93175,0.285891 2.727388,0.489488 -0.04391,0.04373 -1.222386,0.250241 -2.862717,0.580964 l -2.982419,0.601323 -1.874071,-0.722763 c -1.030741,-0.397515 -1.906334,-0.62289 -1.945764,-0.62289 -0.122911,0 -1.025354,1.498031 -0.995539,1.652566 0.03696,0.191527 0.414477,0.08724 0.905091,0.154359 0.338878,0.04638 0.433416,0.02092 0.783821,-0.210718 0.78083,-0.516224 1.480203,-0.516846 1.914488,-0.0015 0.265421,0.314839 0.274418,0.52872 0.02945,0.699987 -0.244763,0.17111 -0.422168,0.164671 -0.78314,-0.02842 -0.507015,-0.271232 -0.82894,0.08278 -0.645094,0.568918 0.118693,0.313871 0.05149,0.484646 -0.190717,0.484646 -0.134607,0 -0.231134,-0.08343 -0.325039,-0.280943 -0.133314,-0.280408 -0.13498,-0.420958 -0.870691,-0.470656 -0.795889,-0.05376 -1.172215,0.22157 -1.669659,-0.09187 -0.393112,-0.247695 -0.760039,-0.678213 -0.760039,-0.891762 0,-0.204344 0.389344,-0.979847 0.789157,-1.571859 0.37134,-0.549855 0.382755,-0.683366 0.05843,-0.683366 -0.172427,0 -0.312861,0.08039 -0.476075,0.272524 -0.286979,0.337815 -0.959597,1.733618 -0.959597,1.991329 0,0.355343 0.271561,0.748097 0.994368,1.22321 0.572711,0.376447 0.747382,0.400792 0.870134,0.678863 0.184374,0.417659 0.506941,1.132957 0.577263,1.7843 0.05839,0.540823 0.176015,0.40103 0.391374,0.02323 0.219207,-0.384537 0.824758,-0.460265 0.824758,-0.103137 0,0.0859 -0.09389,0.206321 -0.20864,0.267621 -0.379284,0.202599 -0.352783,0.545283 0.0592,0.765349 0.12198,0.06516 0.242932,0.03521 0.52594,-0.130359 0.202138,-0.11824 0.424806,-0.214977 0.494821,-0.214977 0.165654,0 0.388859,0.321303 0.388859,0.559759 0,0.531673 -0.418693,0.865749 -1.085026,0.865749 -0.79515,0 -1.404652,-0.427247 -1.73488,-1.216113 -0.176229,-0.42098 -0.864195,-1.18063 -1.148312,-1.48555 -0.280949,-0.301548 -0.429898,-0.353705 -0.664998,-0.319896 -0.262839,0.03781 -0.392069,0.286427 -0.393474,0.925631 -0.0025,1.235532 0.387269,2.499091 1.790991,3.190922 2.305718,1.136392 4.518509,1.149496 6.901614,0.04087 1.758865,-0.818225 3.11472,-2.170592 3.21297,-3.590896 0.03609,-0.522 0.01457,-0.660003 -0.153563,-0.984449 -0.349418,-0.674223 -1.435629,-1.065047 -2.175311,-0.729899 -0.240501,0.108969 -0.424295,0.420522 -0.542217,0.76098 -0.344401,1.063384 0.161946,1.500799 0.744416,1.754225 0.239113,0.104036 0.660547,0.02966 0.735215,-0.267293 0.08341,-0.331697 -0.07876,-0.464979 -0.531762,-0.437033 -0.342212,0.02113 -0.389376,0.0031 -0.412539,-0.159539 -0.0348,-0.244287 0.331358,-0.480828 0.727036,-0.469634 0.233495,0.0066 0.368731,6.61e-4 0.581452,0.232335 0.33013,0.359557 0.272749,0.779468 0.100473,1.107796 -0.208579,0.397516 -0.596804,0.663947 -1.172781,0.662043 -0.820486,-0.0025 -1.483215,-0.458668 -1.676539,-1.153438 -0.115887,-0.416486 -0.110289,-1.082537 0.0362,-1.57483 0.42477,-1.427662 2.825916,-1.720283 3.968208,-0.612189 0.550784,0.534291 0.829711,1.140687 0.778156,2.102354 -0.111767,2.084688 -2.212897,4.094258 -4.612229,5.270566 -1.421168,0.69675 -2.219323,0.883409 -3.948558,0.923428 -0.984748,0.02281 -1.614928,-0.0025 -2.029594,-0.08138 z"/>
 <path style="fill:#34bae3" d="M 14.309878,25.910412 C 13.111716,25.682437 11.835849,25.129256 10.76715,24.374384 9.5670552,23.526707 8.3267021,22.035054 7.730363,20.722337 7.1311007,19.403174 6.8884226,17.808146 7.0476901,16.235379 7.1681776,15.045611 7.3052138,14.493287 7.7150057,13.545776 8.8518547,10.917197 11.075758,9.1051394 14.022091,8.4067046 c 0.482069,-0.114275 0.816248,-0.2489921 1.02291,-0.4123609 0.306328,-0.2421601 0.307295,-0.2449965 0.49176,-1.4389655 0.230295,-1.490603 0.22685,-1.4791611 0.462902,-1.5382942 0.317135,-0.079446 1.799313,0.131879 2.524118,0.3598812 1.166493,0.3669471 1.999764,0.8445004 2.993662,1.7156924 0.306528,0.2686817 1.098307,0.4885125 1.148145,0.4885125 0.300132,0 1.133723,0.3916885 1.470607,0.7184863 1.004613,0.9745302 1.140043,2.2029076 0.374218,3.3941036 -0.205518,0.319667 -0.478907,0.17656 -0.478907,0.588816 0,0.275394 -0.04724,0.562405 -0.105012,0.637801 -0.08468,0.110539 -0.836175,0.170772 -2.460832,0.311047 C 19.985275,13.35924 19.091021,13.738345 19,13.829197 c -0.270565,0.270051 0.353702,0.326729 3.229612,0.553409 2.68922,0.211964 2.93175,0.285891 2.727388,0.489488 -0.04391,0.04373 -1.222386,0.250241 -2.862717,0.580964 l -2.982419,0.601323 -1.874071,-0.722763 c -1.030741,-0.397515 -1.906334,-0.62289 -1.945764,-0.62289 -0.122911,0 -1.025354,1.498031 -0.995539,1.652566 0.03696,0.191527 0.414477,0.08724 0.905091,0.154359 0.338878,0.04638 0.433416,0.02092 0.783821,-0.210718 0.78083,-0.516224 1.480203,-0.516846 1.914488,-0.0015 0.265421,0.314839 0.274418,0.52872 0.02945,0.699987 -0.244763,0.17111 -0.422168,0.164671 -0.78314,-0.02842 -0.507015,-0.271232 -0.82894,0.08278 -0.645094,0.568918 0.118693,0.313871 0.05149,0.484646 -0.190717,0.484646 -0.134607,0 -0.231134,-0.08343 -0.325039,-0.280943 -0.133314,-0.280408 -0.13498,-0.420958 -0.870691,-0.470656 -0.795889,-0.05376 -1.172215,0.22157 -1.669659,-0.09187 -0.393112,-0.247695 -0.760039,-0.678213 -0.760039,-0.891762 0,-0.204344 0.389344,-0.979847 0.789157,-1.571859 0.37134,-0.549855 0.382755,-0.683366 0.05843,-0.683366 -0.172427,0 -0.312861,0.08039 -0.476075,0.272524 -0.286979,0.337815 -0.959597,1.733618 -0.959597,1.991329 0,0.355343 0.271561,0.748097 0.994368,1.22321 0.572711,0.376447 0.747382,0.400792 0.870134,0.678863 0.184374,0.417659 0.506941,1.132957 0.577263,1.7843 0.05839,0.540823 0.176015,0.40103 0.391374,0.02323 0.219207,-0.384537 0.824758,-0.460265 0.824758,-0.103137 0,0.0859 -0.09389,0.206321 -0.20864,0.267621 -0.379284,0.202599 -0.352783,0.545283 0.0592,0.765349 0.12198,0.06516 0.242932,0.03521 0.52594,-0.130359 0.202138,-0.11824 0.424806,-0.214977 0.494821,-0.214977 0.165654,0 0.388859,0.321303 0.388859,0.559759 0,0.531673 -0.418693,0.865749 -1.085026,0.865749 -0.79515,0 -1.404652,-0.427247 -1.73488,-1.216113 -0.176229,-0.42098 -0.864195,-1.18063 -1.148312,-1.48555 -0.280949,-0.301548 -0.429898,-0.353705 -0.664998,-0.319896 -0.262839,0.03781 -0.392069,0.286427 -0.393474,0.925631 -0.0025,1.235532 0.387269,2.499091 1.790991,3.190922 2.305718,1.136392 4.518509,1.149496 6.901614,0.04087 1.758865,-0.818225 3.11472,-2.170592 3.21297,-3.590896 0.03609,-0.522 0.01457,-0.660003 -0.153563,-0.984449 -0.349418,-0.674223 -1.435629,-1.065047 -2.175311,-0.729899 -0.240501,0.108969 -0.424295,0.420522 -0.542217,0.76098 -0.344401,1.063384 0.161946,1.500799 0.744416,1.754225 0.239113,0.104036 0.660547,0.02966 0.735215,-0.267293 0.08341,-0.331697 -0.07876,-0.464979 -0.531762,-0.437033 -0.342212,0.02113 -0.389376,0.0031 -0.412539,-0.159539 -0.0348,-0.244287 0.331358,-0.480828 0.727036,-0.469634 0.233495,0.0066 0.368731,6.61e-4 0.581452,0.232335 0.33013,0.359557 0.272749,0.779468 0.100473,1.107796 -0.208579,0.397516 -0.596804,0.663947 -1.172781,0.662043 -0.820486,-0.0025 -1.483215,-0.458668 -1.676539,-1.153438 -0.115887,-0.416486 -0.110289,-1.082537 0.0362,-1.57483 0.42477,-1.427662 2.825916,-1.720283 3.968208,-0.612189 0.550784,0.534291 0.829711,1.140687 0.778156,2.102354 -0.111767,2.084688 -2.212897,4.094258 -4.612229,5.270566 -1.421168,0.69675 -2.219323,0.883409 -3.948558,0.923428 -0.984748,0.02281 -1.614928,-0.0025 -2.029594,-0.08138 z"/>
 <circle style="opacity:0.2" cx="17.5" cy="11.5" r="2.5"/>
 <circle style="fill:#8b9cbe" cx="17.5" cy="10.5" r="2.5"/>
 <circle style="fill:#5e5e5e" cx="17" cy="10" r="1"/>
 <path style="opacity:0.2" d="m 23.97274,10.719272 c 0.11353,0.542644 -0.137912,1.100414 -0.561612,1.245815 L 23,10 c 0.4237,-0.1454006 0.85921,0.176628 0.97274,0.719272 z"/>
 <path style="fill:#8b9cbe" d="m 23.97274,9.7192719 c 0.11353,0.5426441 -0.137912,1.1004141 -0.561612,1.2458151 L 23,9 c 0.4237,-0.1454006 0.85921,0.176628 0.97274,0.7192719 z"/>
 <path style="fill:#8b9cbe;opacity:0.1" d="M 16 2 A 14 14 0 0 0 2 16 A 14 14 0 0 0 2.0214844 16.414062 A 14 14 0 0 1 16 3 A 14 14 0 0 1 29.978516 16.585938 A 14 14 0 0 0 30 16 A 14 14 0 0 0 16 2 z"/>
 <path style="fill:#8b9cbe;opacity:0.1" d="M 16.425781 5.0078125 C 16.230905 4.9956103 16.079284 4.9977166 16 5.0175781 C 15.763948 5.0767112 15.767404 5.0640845 15.537109 6.5546875 C 15.352644 7.7486565 15.35125 7.7519805 15.044922 7.9941406 C 14.83826 8.1575094 14.503553 8.291975 14.021484 8.40625 C 11.075151 9.1046848 8.8516928 10.916343 7.7148438 13.544922 C 7.3050519 14.492433 7.1673625 15.04656 7.046875 16.236328 C 6.9968002 16.730817 7.0013155 17.223266 7.0292969 17.712891 C 7.0372288 17.553649 7.0307641 17.395423 7.046875 17.236328 C 7.1673625 16.04656 7.3050519 15.492433 7.7148438 14.544922 C 8.8516928 11.916343 11.075151 10.104684 14.021484 9.40625 C 14.503553 9.291975 14.83826 9.1575094 15.044922 8.9941406 C 15.35125 8.7519805 15.352644 8.7486565 15.537109 7.5546875 C 15.767404 6.0640845 15.763948 6.0767112 16 6.0175781 C 16.317135 5.9381321 17.798633 6.1489509 18.523438 6.3769531 C 19.68993 6.7439002 20.52368 7.2206049 21.517578 8.0917969 C 21.824106 8.3604786 22.616178 8.5820313 22.666016 8.5820312 C 22.966148 8.5820312 23.799835 8.9720303 24.136719 9.2988281 C 24.569077 9.7182398 24.82968 10.187486 24.9375 10.677734 C 25.121149 9.826527 24.856019 8.9965891 24.136719 8.2988281 C 23.799835 7.9720303 22.966148 7.5820312 22.666016 7.5820312 C 22.616178 7.5820312 21.824106 7.3604786 21.517578 7.0917969 C 20.52368 6.2206049 19.68993 5.7439002 18.523438 5.3769531 C 17.979834 5.2059515 17.01041 5.044419 16.425781 5.0078125 z M 21.109375 14.279297 C 19.85795 14.432641 19.082898 14.747334 19 14.830078 C 18.729435 15.100129 19.354559 15.156133 22.230469 15.382812 C 22.310995 15.38916 22.300761 15.392331 22.376953 15.398438 C 23.84009 15.107033 24.916181 14.91373 24.957031 14.873047 C 25.161393 14.66945 24.919689 14.594777 22.230469 14.382812 C 21.653711 14.337352 21.515957 14.314175 21.109375 14.279297 z M 13.533203 15.039062 C 13.416975 15.039062 13.312914 15.091172 13.208984 15.173828 C 12.927284 15.655548 12.685547 16.138347 12.685547 16.292969 C 12.685547 16.395394 12.773071 16.548891 12.904297 16.707031 C 13.054185 16.400833 13.260719 16.037416 13.474609 15.720703 C 13.845949 15.170848 13.857528 15.039063 13.533203 15.039062 z M 16.455078 16.064453 C 16.302202 16.127103 16.147794 16.197939 15.986328 16.304688 C 15.635923 16.536326 15.54005 16.562005 15.201172 16.515625 C 15.015082 16.490167 14.869651 16.493822 14.728516 16.492188 C 14.512948 16.851285 14.333836 17.197687 14.316406 17.3125 C 14.539553 17.287125 14.787612 17.255214 15.115234 17.277344 C 15.475371 17.301671 15.655728 17.34826 15.765625 17.421875 C 15.834376 17.386436 15.888646 17.369261 15.986328 17.304688 C 16.178326 17.177754 16.363551 17.082158 16.542969 17.017578 C 16.633603 16.903054 16.792539 16.872647 16.992188 16.931641 C 17.25039 16.916073 17.485955 16.970116 17.683594 17.109375 C 17.764098 17.093572 17.843435 17.064204 17.929688 17.003906 C 18.067037 16.90788 18.114557 16.795213 18.091797 16.662109 L 17.238281 16.332031 C 16.938415 16.216385 16.711914 16.14965 16.455078 16.064453 z M 12.271484 16.783203 C 12.172855 17.018131 12.097656 17.222416 12.097656 17.302734 C 12.097656 17.658077 12.36899 18.050278 13.091797 18.525391 C 13.664508 18.901838 13.838185 18.925054 13.960938 19.203125 C 14.145312 19.620784 14.468741 20.336938 14.539062 20.988281 C 14.597452 21.529104 14.714329 21.389519 14.929688 21.011719 C 15.024087 20.846122 15.189177 20.750137 15.347656 20.708984 C 15.229334 20.522009 15.285004 20.315663 15.546875 20.175781 C 15.661625 20.114481 15.753906 19.994103 15.753906 19.908203 C 15.753906 19.551075 15.148895 19.627182 14.929688 20.011719 C 14.714329 20.389519 14.597452 20.529104 14.539062 19.988281 C 14.474117 19.386739 14.199404 18.751979 14.011719 18.326172 C 13.821113 18.329048 13.640545 18.308563 13.445312 18.185547 C 13.0522 17.937852 12.685547 17.506518 12.685547 17.292969 C 12.685547 17.28128 12.698695 17.251614 12.701172 17.236328 C 12.505896 17.076338 12.367115 16.926255 12.271484 16.783203 z M 22.476562 17.025391 C 21.456889 16.966067 20.419778 17.416305 20.154297 18.308594 C 20.030476 18.724708 20.012343 19.255308 20.078125 19.664062 C 20.097048 19.540343 20.121291 19.419513 20.154297 19.308594 C 20.30364 18.806649 20.703825 18.453929 21.201172 18.244141 C 21.303092 18.068555 21.419057 17.91744 21.564453 17.851562 C 22.193439 17.56657 23.069184 17.809968 23.533203 18.302734 C 23.748561 18.406518 23.952871 18.530231 24.123047 18.695312 C 24.515663 19.076172 24.760364 19.499939 24.855469 20.056641 C 24.866874 19.970269 24.895743 19.885514 24.900391 19.798828 C 24.951946 18.837161 24.673831 18.229603 24.123047 17.695312 C 23.694687 17.279777 23.088367 17.060985 22.476562 17.025391 z M 22.285156 19.033203 C 21.889478 19.022009 21.523794 19.259619 21.558594 19.503906 C 21.581757 19.666545 21.628491 19.683239 21.970703 19.662109 C 22.40165 19.635524 22.562358 19.761342 22.505859 20.058594 C 22.622437 20.078442 22.733054 20.119541 22.867188 20.265625 C 22.905952 20.307844 22.922652 20.352847 22.951172 20.396484 C 22.955522 20.38858 22.962593 20.383012 22.966797 20.375 C 23.139073 20.046672 23.197318 19.625182 22.867188 19.265625 C 22.654467 19.033951 22.518651 19.039803 22.285156 19.033203 z M 21.003906 19.691406 C 20.836879 20.265014 20.924884 20.648704 21.138672 20.917969 C 21.341167 20.98865 21.558899 21.034437 21.794922 21.035156 C 22.076105 21.036086 22.309318 20.972332 22.501953 20.861328 C 22.454894 20.709244 22.288645 20.642495 21.970703 20.662109 C 21.628491 20.683239 21.581757 20.666545 21.558594 20.503906 C 21.547978 20.429389 21.583259 20.359233 21.636719 20.292969 C 21.366936 20.156649 21.126642 19.975641 21.003906 19.691406 z M 23.841797 19.857422 C 23.593067 21.169358 22.319616 22.396216 20.681641 23.158203 C 18.298536 24.266829 16.085015 24.25358 13.779297 23.117188 C 12.571826 22.52208 12.135855 21.500859 12.033203 20.441406 C 12.006714 20.571464 11.988728 20.722499 11.988281 20.925781 C 11.985781 22.161313 12.375575 23.425357 13.779297 24.117188 C 16.085015 25.25358 18.298536 25.266829 20.681641 24.158203 C 22.440506 23.339978 23.796281 21.98671 23.894531 20.566406 C 23.918733 20.216353 23.896251 20.034133 23.841797 19.857422 z M 16.626953 20.595703 C 16.556938 20.595703 16.332997 20.692307 16.130859 20.810547 C 15.937655 20.923578 15.828414 20.95557 15.734375 20.955078 C 15.710281 21.034256 15.642816 21.124529 15.546875 21.175781 C 15.167591 21.37838 15.193486 21.72134 15.605469 21.941406 C 15.727449 22.006566 15.847851 21.976116 16.130859 21.810547 C 16.332997 21.692307 16.556938 21.595703 16.626953 21.595703 C 16.681869 21.595703 16.739539 21.639416 16.796875 21.695312 C 16.928903 21.552477 17.015625 21.376925 17.015625 21.15625 C 17.015625 20.917794 16.792607 20.595703 16.626953 20.595703 z"/>
</svg>
