<svg xmlns="http://www.w3.org/2000/svg" width="32" height="32" version="1">
 <path style="opacity:0.2" d="M 5.4997816,3 A 3.5076462,3.51225 0 0 0 2.0000001,6.5 v 21 c 0,1.925 1.5746832,3.5 3.4997815,3.5 H 26.500218 C 28.425316,31 30,29.425 30,27.5 V 6.5 C 30,4.575 28.425316,3 26.500218,3 Z"/>
 <path style="fill:#e44332" d="M 5.4997816,2 A 3.5076462,3.51225 0 0 0 2.0000001,5.5 v 21 c 0,1.925 1.5746832,3.5 3.4997815,3.5 H 26.500218 C 28.425316,30 30,28.425 30,26.5 V 5.5 C 30,3.575 28.425316,2 26.500218,2 Z"/>
 <path style="opacity:0.2" d="m 17.443359,7.9996604 a 0.8592337,0.86554735 0 0 0 -0.4375,0.1171875 c -0.131794,0.07759 -8.9291128,5.2255611 -9.2226559,5.3945311 -0.3525943,0.203456 -0.7858367,0.206903 -1.1367187,0 L 2,10.763332 v 2.335937 c 1.1305256,0.670712 3.9418216,2.336261 4.6230469,2.728516 0.4065094,0.232767 0.7966361,0.228056 1.1894531,-0.002 L 18.820312,9.3766135 C 19.055661,9.2386765 19.069126,8.8143618 18.804688,8.6617698 18.541096,8.5083148 18.040081,8.2182913 17.853516,8.1070823 A 0.8592337,0.86554735 0 0 0 17.443359,7.9996604 Z m 0,4.9999996 a 0.8592337,0.86554735 0 0 0 -0.4375,0.117188 c -0.131794,0.07759 -8.9291128,5.225561 -9.2226559,5.394531 -0.3525943,0.203456 -0.7858367,0.206903 -1.1367187,0 L 2,15.763332 v 2.335937 c 1.1305256,0.670712 3.9418216,2.336261 4.6230469,2.728516 0.4065094,0.232767 0.7966361,0.228056 1.1894531,-0.002 l 11.007812,-6.449219 c 0.235349,-0.137937 0.248814,-0.562252 -0.01562,-0.714844 C 18.5411,13.508267 18.040085,13.218244 17.85352,13.107035 A 0.8592337,0.86554735 0 0 0 17.443359,12.99966 Z m 0,5 a 0.8592337,0.86554735 0 0 0 -0.4375,0.117188 c -0.131794,0.07759 -8.9291128,5.225561 -9.2226559,5.394531 -0.3525943,0.203456 -0.7858367,0.206903 -1.1367187,0 L 2,20.763332 v 2.335937 c 1.1305256,0.670712 3.9418216,2.336261 4.6230469,2.728516 0.4065094,0.232767 0.7966361,0.228056 1.1894531,-0.002 l 11.007812,-6.449219 c 0.235349,-0.137937 0.248814,-0.562252 -0.01562,-0.714844 C 18.5411,18.508267 18.040085,18.218244 17.85352,18.107035 A 0.8592337,0.86554735 0 0 0 17.443359,17.99966 Z"/>
 <path style="fill:#8b9cbe" d="m 17.443359,6.9996604 a 0.8592337,0.86554735 0 0 0 -0.4375,0.1171875 c -0.131794,0.07759 -8.9291128,5.2255611 -9.2226559,5.3945311 -0.3525943,0.203456 -0.7858367,0.206903 -1.1367187,0 L 2,9.7633323 v 2.3359367 c 1.1305256,0.670712 3.9418216,2.336261 4.6230469,2.728516 0.4065094,0.232767 0.7966361,0.228056 1.1894531,-0.002 L 18.820312,8.3766135 C 19.055661,8.2386765 19.069126,7.8143618 18.804688,7.6617698 18.541096,7.5083148 18.040081,7.2182913 17.853516,7.1070823 A 0.8592337,0.86554735 0 0 0 17.443359,6.9996604 Z m 0,4.9999996 a 0.8592337,0.86554735 0 0 0 -0.4375,0.117188 c -0.131794,0.07759 -8.9291128,5.225561 -9.2226559,5.394531 -0.3525943,0.203456 -0.7858367,0.206903 -1.1367187,0 L 2,14.763332 v 2.335937 c 1.1305256,0.670712 3.9418216,2.336261 4.6230469,2.728516 0.4065094,0.232767 0.7966361,0.228056 1.1894531,-0.002 l 11.007812,-6.449219 c 0.235349,-0.137937 0.248814,-0.562252 -0.01562,-0.714844 -0.263592,-0.153455 -0.764607,-0.443478 -0.951172,-0.554687 A 0.8592337,0.86554735 0 0 0 17.443359,11.99966 Z m 0,5 a 0.8592337,0.86554735 0 0 0 -0.4375,0.117188 c -0.131794,0.07759 -8.9291128,5.225561 -9.2226559,5.394531 -0.3525943,0.203456 -0.7858367,0.206903 -1.1367187,0 L 2,19.763332 v 2.335937 c 1.1305256,0.670712 3.9418216,2.336261 4.6230469,2.728516 0.4065094,0.232767 0.7966361,0.228056 1.1894531,-0.002 l 11.007812,-6.449219 c 0.235349,-0.137937 0.248814,-0.562252 -0.01562,-0.714844 -0.263592,-0.153455 -0.764607,-0.443478 -0.951172,-0.554687 A 0.8592337,0.86554735 0 0 0 17.443359,16.99966 Z"/>
 <path style="fill:#8b9cbe;opacity:0.2" d="M 5.5 2 A 3.5076462 3.51225 0 0 0 2 5.5 L 2 6.5 A 3.5076462 3.51225 0 0 1 5.5 3 L 26.5 3 C 28.425098 3 30 4.575 30 6.5 L 30 5.5 C 30 3.575 28.425098 2 26.5 2 L 5.5 2 z"/>
</svg>
