<svg xmlns="http://www.w3.org/2000/svg" width="32" height="32" version="1">
 <path fill="#b2bfd9" d="m16 6c-3.883 0-7.1901 2.3053-8.6133 5.568-3.6147 0.521-6.3867 3.509-6.3867 7.159 0 4.017 3.3579 7.273 7.5 7.273h15.938c3.624 0 6.562-2.849 6.562-6.364 0-3.266-2.533-5.943-5.801-6.306-0.852-4.1703-4.649-7.33-9.199-7.33z"/>
 <path opacity=".2" d="m1.0254 19.195c-0.0132 0.176-0.0254 0.352-0.0254 0.532 0 4.016 3.3579 7.273 7.5 7.273h15.938c3.624 0 6.562-2.849 6.562-6.363 0-0.173-0.011-0.344-0.025-0.514-0.258 3.286-3.083 5.877-6.537 5.877h-15.938c-3.9791 0-7.2244-3.007-7.4746-6.805z"/>
 <path opacity=".5" d="m14.5 11c-1.381 0-2.5 1.119-2.5 2.5s1.119 2.5 2.5 2.5 2.5-1.119 2.5-2.5-1.119-2.5-2.5-2.5zm4.5 1c-0.472 0-0.9 0.17-1.242 0.443 0.151 0.322 0.242 0.678 0.242 1.057 0 0.635-0.245 1.208-0.635 1.648 0.362 0.515 0.958 0.852 1.635 0.852 1.105 0 2-0.895 2-2s-0.895-2-2-2zm-4.5 5c-4.5002 0.003-4.5 3.201-4.5 3.201v0.799h9v-0.799s0-3.203-4.5-3.201zm4.5 0c-0.623 0-1.111 0.107-1.502 0.271 2.191 0.676 2.442 2.311 2.475 2.729h2.027v-0.6s0-2.402-3-2.4z"/>
 <path fill="#fff" opacity=".2" d="m16 6c-3.883 0-7.1901 2.3057-8.6133 5.568-3.6147 0.521-6.3867 3.509-6.3867 7.159 0 0.158 0.0151 0.313 0.0254 0.468 0.2546-3.404 2.9242-6.131 6.3613-6.627 1.4232-3.2623 4.7303-5.568 8.6133-5.568 4.55 0 8.347 3.16 9.199 7.33 3.095 0.344 5.526 2.764 5.776 5.793 0.012-0.161 0.025-0.322 0.025-0.486 0-3.266-2.533-5.944-5.801-6.307-0.852-4.1702-4.649-7.33-9.199-7.33z"/>
</svg>
