<svg width="32" height="32" version="1.1" xmlns="http://www.w3.org/2000/svg">
 <rect x="2" y="3" width="28" height="28" rx="2" ry="2" style="opacity:.2"/>
 <rect x="2" y="2" width="28" height="28" rx="2" ry="2" style="fill:#08581b"/>
 <path d="m4 2c-1.108 0-2 0.892-2 2v1c0-1.108 0.892-2 2-2h24c1.108 0 2 0.892 2 2v-1c0-1.108-0.892-2-2-2h-24z" style="fill:#8b9cbe;opacity:.1"/>
 <circle cx="11" cy="22" r="7" style="opacity:.2"/>
 <circle cx="11" cy="21" r="7" style="fill:#aca793"/>
 <path d="M 11 14 A 7 7 0 0 0 4 21 A 7 7 0 0 0 4.0234375 21.541016 A 7 7 0 0 1 11 15 A 7 7 0 0 1 17.976562 21.458984 A 7 7 0 0 0 18 21 A 7 7 0 0 0 11 14 z " style="fill:#8b9cbe;opacity:.2"/>
 <path d="m24 6-9 9-1-1-1.603516 3.208984a5 5 0 0 0-1.396484-0.208984 5 5 0 0 0-5 5 5 5 0 0 0 5 5 5 5 0 0 0 5-5 5 5 0 0 0-0.205078-1.396484l3.205078-1.603516-1-1 1-1h2v-2h1l1-1v-1h1l1-1v-1l2-2v-3zm-14.5 16a1.5 1.5 0 0 1 1.5 1.5 1.5 1.5 0 0 1-1.5 1.5 1.5 1.5 0 0 1-1.5-1.5 1.5 1.5 0 0 1 1.5-1.5z" style="opacity:.2"/>
 <path d="m24 5-9 9-1-1-1.603516 3.208984a5 5 0 0 0-1.396484-0.208984 5 5 0 0 0-5 5 5 5 0 0 0 5 5 5 5 0 0 0 5-5 5 5 0 0 0-0.205078-1.396484l3.205078-1.603516-1-1 1-1h2v-2h1l1-1v-1h1l1-1v-1l2-2v-3h-3zm-14.5 16a1.5 1.5 0 0 1 1.5 1.5 1.5 1.5 0 0 1-1.5 1.5 1.5 1.5 0 0 1-1.5-1.5 1.5 1.5 0 0 1 1.5-1.5z" style="fill:#8b9cbe"/>
 <path d="m15 13 8-8-8 4-3-2z" style="opacity:.2"/>
 <path d="m15 12 8-8-8 4-3-2z" style="fill:#fff51f"/>
</svg>
