<svg xmlns="http://www.w3.org/2000/svg" width="32" height="32" version="1">
 <rect style="opacity:0.2" width="28" height="28" x="2" y="3" rx="14" ry="14"/>
 <rect style="fill:#2869b6" width="28" height="28" x="2" y="2" rx="14" ry="14"/>
 <g style="opacity:0.2;enable-background:new" transform="matrix(0.74417616,0,0,0.74395328,-28.755194,-15.44784)">
  <g>
   <path transform="matrix(1.3437679,0,0,1.3441704,38.640305,20.76453)" d="M 16.072266 3.6992188 L 14.451172 3.8847656 L 12.449219 4.4335938 L 12.070312 4.8027344 L 13.3125 5.6582031 L 13.3125 6.1484375 L 12.5 6.6386719 L 13.476562 7.9238281 L 13.910156 7.6796875 L 14.451172 6.8222656 C 15.286881 6.5639651 16.03575 6.2715866 16.830078 5.9042969 L 17.400391 4.25 L 16.072266 3.6992188 z M 12.234375 3.8222656 L 11.535156 3.921875 L 11.203125 4.25 L 10.662109 4.3300781 L 10.177734 4.5566406 L 9.9414062 4.6699219 L 9.7988281 4.8632812 L 10.501953 4.984375 L 10.771484 4.7402344 L 11.3125 4.6191406 C 11.683095 4.4389552 12.055995 4.3165947 12.449219 4.1894531 L 12.234375 3.8222656 z M 9.0410156 5.2910156 L 8.9335938 5.5351562 L 8.9863281 6.1484375 L 8.5546875 6.515625 L 8.2832031 7.1894531 L 8.8242188 7.1894531 L 9.0957031 6.578125 C 9.328997 6.4131914 9.5612173 6.2466503 9.7988281 6.0878906 L 10.339844 6.2714844 C 10.700323 6.5163202 11.061098 6.7613963 11.421875 7.0058594 L 11.962891 6.515625 L 11.367188 6.2714844 L 11.095703 5.7207031 L 10.068359 5.5976562 L 10.013672 5.2910156 L 9.5273438 5.4140625 L 9.3125 5.8417969 L 9.0410156 5.2910156 z M 22.896484 5.78125 L 21.871094 6.0273438 L 21.21875 6.4550781 L 21.21875 6.8222656 L 20.193359 7.4960938 L 20.408203 8.4746094 L 21.005859 8.046875 L 21.382812 8.4746094 L 21.814453 8.7207031 L 22.085938 7.9863281 L 21.923828 7.5566406 L 22.085938 7.25 L 22.679688 6.5 L 22.951172 6.5 L 22.679688 7.3125 L 22.679688 7.8632812 C 22.928243 7.7956543 23.185091 7.7738051 23.439453 7.7421875 L 22.734375 8.2304688 L 22.681641 8.5371094 L 21.871094 9.2089844 L 21.056641 9.0273438 L 21.056641 8.5371094 L 20.677734 8.78125 L 20.841797 9.3496094 L 20.246094 9.3496094 L 19.921875 9.7597656 L 19.515625 10.21875 L 18.787109 10.373047 L 19.21875 10.798828 L 19.328125 11.228516 L 18.787109 11.228516 L 18.099609 11.595703 L 18.099609 12.699219 L 18.408203 12.699219 L 18.705078 13.035156 L 19.380859 12.699219 L 19.650391 12.025391 L 20.138672 11.71875 L 20.246094 11.474609 L 21.056641 11.291016 L 21.490234 11.779297 L 21.976562 12.025391 L 21.707031 12.576172 L 22.140625 12.453125 L 22.355469 11.904297 L 21.814453 11.291016 L 22.03125 11.291016 L 22.574219 11.71875 L 22.681641 12.330078 L 23.166016 12.882812 L 23.275391 12.083984 L 23.546875 11.962891 C 23.814332 12.24046 24.024735 12.656364 24.25 12.96875 L 25.060547 13.03125 L 25.548828 13.248047 L 25.332031 13.554688 L 24.84375 14 L 24.142578 14 L 23.220703 13.677734 L 22.734375 13.738281 L 22.384766 14.136719 L 21.382812 13.126953 L 20.677734 12.943359 L 19.650391 13.064453 L 18.730469 13.310547 C 18.214456 13.895368 17.275506 14.476621 16.787109 15.083984 L 16.191406 16.494141 L 16.462891 16.798828 L 15.976562 17.533203 L 16.517578 18.820312 C 16.977554 19.340484 17.866865 19.858362 18.326172 20.378906 L 19.003906 19.798828 L 19.300781 20.136719 L 20.029297 19.677734 L 20.273438 20 L 21.505859 20 L 21.923828 20.425781 L 21.664062 21.267578 L 22.179688 21.849609 L 22.152344 22.859375 L 22.53125 23.595703 L 22.126953 24.207031 C 22.10001 24.65742 22.099609 25.104221 22.099609 25.554688 C 22.321297 26.16495 22.691058 26.774021 22.900391 27.388672 L 23.048828 28.09375 C 24.001343 27.539125 24.882484 26.879244 25.673828 26.123047 L 25.302734 25.707031 L 25.927734 25.1875 L 26.451172 24.818359 L 26.722656 24.513672 L 26.560547 23.837891 L 26.560547 22.125 L 27.117188 21.083984 L 27.710938 20.410156 L 28.361328 18.820312 L 28.361328 18.390625 C 28.041451 18.430903 27.728913 18.463616 27.416016 18.486328 L 28.0625 17.839844 L 28.955078 17.226562 L 29.443359 16.677734 L 29.443359 16.064453 C 29.335084 15.860313 29.226203 15.657266 29.117188 15.453125 L 28.685547 15.941406 L 28.361328 15.576172 L 27.873047 15.207031 L 27.873047 14.412109 L 28.443359 15.054688 L 29.064453 14.962891 C 29.347835 15.220075 29.626445 15.464993 29.875 15.757812 L 29.9375 15.689453 C 29.638296 12.44093 28.231838 9.5262329 26.105469 7.3085938 C 25.988026 7.188277 25.865844 7.0595446 25.769531 6.9648438 C 25.607871 6.8074824 25.436714 6.6591905 25.267578 6.5097656 L 25.115234 6.7617188 L 24.574219 7.3730469 L 23.871094 6.5 L 24.574219 6.5 L 24.898438 6.2714844 L 23.599609 6.0273438 L 22.896484 5.78125 z M 7.6035156 5.8007812 C 7.5243274 5.8601412 7.4450534 5.9175246 7.3671875 5.9785156 L 7.4726562 6.4550781 C 7.4726562 6.4550781 6.9773332 6.5095872 6.6914062 6.546875 C 3.9291119 9.0063638 2.1618988 12.542201 2.0253906 16.513672 C 2.0321725 16.701917 2.0406111 16.889937 2.0546875 17.076172 C 2.1345853 17.205808 2.2246094 17.349609 2.2246094 17.349609 L 3.3613281 18.023438 L 4.4980469 18.330078 L 4.9824219 18.943359 L 5.7402344 19.492188 L 6.1738281 19.431641 L 6.4980469 19.578125 L 6.4980469 19.677734 L 6.0664062 20.839844 L 5.7402344 21.330078 L 5.8496094 21.574219 L 5.5 22.492188 L 6.5507812 24.267578 L 7.2460938 25.123047 L 7.6777344 25.734375 L 7.625 27.021484 L 8.0351562 27.519531 C 8.8352434 28.072536 9.6933433 28.547201 10.603516 28.925781 L 11.150391 28.734375 L 11.800781 27.388672 L 11.529297 27.021484 L 11.90625 26.259766 L 12.619141 26.076172 L 13.099609 25.306641 L 12.943359 24.083984 L 13.931641 23.166016 L 14.041016 22.248047 C 13.152918 21.807775 12.031869 21.353681 11.150391 20.900391 L 10.716797 20.042969 L 9.90625 19.958984 L 9.4746094 18.947266 L 8.3925781 19.070312 L 7.4726562 18 L 6.4980469 19.001953 L 6.4980469 19.138672 C 6.2033504 19.053639 5.8424695 19.042148 5.5800781 18.880859 L 5.3613281 18.269531 L 5.3613281 17.59375 L 4.7128906 17.65625 C 4.7670664 17.227584 4.8224065 16.799686 4.8769531 16.371094 L 4.4980469 16.371094 L 4.1191406 16.861328 L 3.7402344 17.042969 L 3.1992188 16.738281 L 3.1445312 16.064453 L 3.2519531 15.330078 L 4.0644531 14.71875 L 4.7128906 14.71875 L 4.8203125 14.349609 L 5.6328125 14.533203 L 6.15625 15.269531 L 6.265625 14.044922 L 7.3652344 13.1875 L 7.7441406 12.013672 L 8.5 11.986328 L 8.9335938 11.632812 L 9.90625 11.447266 L 10.392578 10.714844 L 8.9335938 10.714844 L 9.8535156 10 L 10.501953 10 L 11.421875 9.6992188 L 11.529297 9.3320312 L 11.203125 9.0273438 L 10.826172 8.9042969 L 10.935547 8.5371094 L 10.664062 7.9863281 L 10.013672 8.2285156 L 10.123047 7.7402344 L 9.3652344 7.3125 L 8.7714844 8.3515625 L 8.8242188 8.7207031 L 8.2285156 8.9648438 L 7.8496094 9.7597656 L 7.6894531 9.0273438 L 6.6601562 8.5976562 L 6.4980469 8.046875 L 7.8496094 7.25 L 8.4453125 6.6992188 L 8.5 6.0273438 L 8.1757812 5.8417969 L 7.6035156 5.8007812 z M 18.183594 6.2382812 L 17.400391 6.4824219 L 17.046875 6.421875 L 17.044922 6.421875 L 16.990234 6.7890625 L 17.509766 7.0332031 L 18.507812 6.6035156 L 18.183594 6.2382812 z M 10.392578 6.6992188 L 9.9609375 7.0058594 L 10.501953 7.3730469 L 10.935547 7.3730469 L 10.935547 6.9433594 L 10.392578 6.6992188 z M 18.939453 8.1074219 L 18.939453 8.4746094 L 19.15625 8.7207031 L 19.15625 9.2714844 L 19.046875 10.005859 L 19.642578 9.8828125 L 20.076172 9.4550781 L 19.697266 9.0878906 C 19.570088 8.7493174 19.4248 8.4321568 19.265625 8.1074219 L 18.939453 8.1074219 z M 18.724609 8.8417969 L 18.34375 8.9648438 L 18.453125 9.6367188 L 18.939453 9.3945312 L 18.724609 8.8417969 z M 11.259766 9.9453125 L 11.421875 10.798828 L 11.746094 10.3125 L 11.259766 9.9453125 z M 25.384766 14.71875 L 26.007812 15.421875 L 26.738281 16.982422 L 27.169922 17.472656 L 26.953125 18.023438 L 27.363281 18.488281 C 27.174332 18.501042 26.987253 18.515625 26.792969 18.515625 C 26.448492 17.791983 26.190062 17.06564 25.927734 16.308594 L 25.326172 15.789062 L 25.083984 14.900391 L 25.384766 14.71875 z"/>
  </g>
 </g>
 <g style="enable-background:new" transform="matrix(0.74417616,0,0,0.74395328,-28.755194,-16.447684)">
  <g>
   <path style="fill:#64dd17" transform="matrix(0.9406375,0,0,0.9409193,37.565291,21.033155)" d="m 24.103516,5 -2.316407,0.2636719 -2.859375,0.7851562 -0.541015,0.5253907 1.77539,1.2246093 0,0.6992188 -1.16211,0.6992187 1.396485,1.8378904 0.617188,-0.349609 0.773437,-1.2246095 c 1.19387,-0.3690008 2.263684,-0.7878004 3.398438,-1.3125 l 0.814452,-2.3613281 z m -5.484375,0.1757812 -0.998047,0.1425782 -0.472656,0.46875 -0.775391,0.1132812 -0.691406,0.3242188 -0.335938,0.1621094 -0.205078,0.2753906 1.003906,0.1738281 L 16.53125,6.4863281 17.304688,6.3125 c 0.529421,-0.2574078 1.061298,-0.4316504 1.623046,-0.6132812 z m -4.560547,2.0976563 -0.154297,0.3496094 0.07617,0.875 -0.617188,0.5253906 -0.386719,0.9609375 0.773438,0 0.386719,-0.8730469 c 0.333277,-0.2356195 0.664462,-0.4743724 1.003906,-0.7011719 l 0.773437,0.2636719 c 0.51497,0.3497654 1.029526,0.6995952 1.544922,1.0488281 L 18.23242,9.0234375 17.380857,8.6738281 16.994139,7.8867188 l -1.46875,-0.1757813 -0.07617,-0.4375 -0.695313,0.1757813 -0.308594,0.6113281 z m 19.792968,0.6992187 -1.464843,0.3515626 -0.931641,0.6113281 0,0.5253906 -1.464844,0.9609375 0.306641,1.400391 0.853516,-0.613282 0.539062,0.613282 0.617188,0.349609 0.386718,-1.048828 -0.230468,-0.613281 0.230468,-0.4375 0.84961,-1.0722662 0.386719,0 -0.386719,1.1601562 0,0.78711 c 0.355079,-0.09661 0.720609,-0.12866 1.083984,-0.173828 l -1.005859,0.699218 -0.07617,0.4375 -1.158203,0.960938 -1.16211,-0.261719 0,-0.699219 -0.541015,0.34961 0.234375,0.811234 -0.851563,0 -0.46289,0.587203 -0.582032,0.654297 -1.041015,0.220703 0.617187,0.609375 0.15625,0.611328 -0.773437,0 -0.980472,0.525391 0,1.576172 0.439456,0 0.423828,0.480469 0.966797,-0.480469 0.384766,-0.962891 0.697265,-0.4375 0.154297,-0.349609 1.158203,-0.259766 0.619141,0.697266 0.695312,0.349609 -0.386718,0.78711 0.61914,-0.175782 0.308594,-0.783203 -0.773437,-0.875 0.310547,0 0.773437,0.609375 0.154297,0.875 0.693359,0.78711 0.154297,-1.138672 0.388672,-0.173828 c 0.382082,0.396527 0.682099,0.990814 1.003906,1.43708 l 1.158203,0.08789 0.697266,0.310967 -0.310547,0.4375 -0.695312,0.63616 -1.003907,0 -1.314453,-0.460379 -0.695312,0.08594 -0.5,0.570312 -1.431641,-1.443359 -1.005859,-0.261719 -1.46875,0.173828 -1.314453,0.34961 c -0.737161,0.835459 -2.079297,1.667494 -2.777006,2.535156 l -0.849609,2.013672 0.386719,0.435547 -0.695313,1.048828 0.773438,1.83789 c 0.657108,0.743102 1.927493,1.484882 2.583646,2.228516 l 0.96875,-0.830078 0.423828,0.482422 1.041015,-0.65625 0.34961,0.461492 1.758897,0 0.597656,0.60882 -0.369141,1.203125 0.736328,0.830078 -0.03906,1.44336 0.541016,1.050781 -0.578128,0.873047 c -0.03849,0.643412 -0.03907,1.282257 -0.03907,1.925781 0.316696,0.871804 0.844127,1.741068 1.143174,2.619141 l 0.295844,1.40039 0,0.701172 0.127352,0 0.42278,-0.52539 0.732422,0 c 0.273168,-0.190233 0.535917,-0.394345 0.798828,-0.597657 l 0.978516,-1.107421 -0.191407,-0.56836 1.00586,-0.876953 -0.736328,-0.828125 0.890625,-0.742188 0.750005,-0.527343 0.386719,-0.433594 -0.232422,-0.966797 0,-2.445312 0.794916,-1.488282 0.84961,-0.960937 0.927734,-2.273438 0,-0.613281 c -0.456968,0.05754 -0.902613,0.104273 -1.349609,0.136719 l 0.923828,-0.923828 1.27539,-0.875 0.697266,-0.785157 0,-0.875 c -0.154679,-0.291629 -0.309107,-0.58337 -0.464844,-0.875 l -0.61914,0.699219 -0.462891,-0.523437 -0.695312,-0.525391 0,-1.136719 0.8125,0.917969 0.888671,-0.130859 c 0.404831,0.367406 0.803125,0.718404 1.158204,1.136718 l 0.08789,-0.09961 C 43.482716,17.486207 41.47517,13.324306 38.4375,10.15625 38.269725,9.9843689 38.092667,9.7993495 37.955078,9.6640625 37.724135,9.4392605 37.481856,9.227136 37.240234,9.0136719 l -0.21875,0.359375 -0.773437,0.8750001 -1.003906,-1.2480472 1.003906,0 0.464844,-0.3261717 -1.855469,-0.3496093 z m -21.845703,0.029297 c -0.113126,0.0848 -0.228606,0.1667762 -0.339843,0.2539063 l 0.152343,0.6796875 c 0,0 -0.706767,0.077591 -1.115234,0.1308593 C 6.5989978,12.720635 4.0051013,18.030857 4,23.982422 4.1609659,24.247444 4.3203125,24.5 4.3203125,24.5 l 1.6230469,0.960938 1.625,0.439453 0.6933594,0.875 1.0820312,0.785156 0.6191406,-0.08594 0.4628904,0.208985 0,0.140625 -0.6171872,1.660156 -0.4648438,0.701172 0.1542969,0.349609 -0.4980474,1.310547 1.5019535,2.537109 0.992453,1.222657 0.617188,0.873047 -0.07617,1.83789 0.863016,1.048828 -0.25586,1.109375 c 0.89177,0.614561 1.842605,1.146031 2.832031,1.611329 l 0.361329,-0.359376 0.230468,-0.611328 1.00586,-0.351562 0.927731,-1.923828 -0.386716,-0.523438 0.539063,-1.087568 1.016763,-0.263672 0.687497,-1.097978 -0.222653,-1.746094 1.412208,-1.3125 0.15625,-1.3125 C 19.9337,30.867132 18.331523,30.219821 17.072268,29.572264 l -0.619141,-1.22461 -1.158203,-0.119083 -0.617188,-1.445486 -1.544922,0.173828 -1.314453,-1.528342 -1.392578,1.432755 0,0.19336 C 10.004788,26.933211 9.488126,26.917913 9.1132812,26.6875 l -0.3105468,-0.875 0,-0.962891 L 7.875,24.9375 c 0.077394,-0.61238 0.1564513,-1.223664 0.234375,-1.835938 l -0.5410156,0 -0.5410156,0.699219 -0.5410157,0.261719 -0.7734375,-0.435547 -0.078125,-0.962891 0.1542969,-1.048828 1.1601563,-0.875 0.9257812,0 0.1542969,-0.52539 1.1601562,0.261718 0.7494214,1.050782 0.1562505,-1.75 1.568937,-1.222656 0.541016,-1.678671 1.080078,-0.03775 0.619141,-0.504923 1.390625,-0.265625 0.695312,-1.046875 -2.085937,0 1.314453,-1.020845 0.925781,0 1.314453,-0.429687 0.154297,-0.523437 -0.464843,-0.4375 -0.541016,-0.175781 0.15625,-0.523438 -0.386719,-0.787109 -0.927734,0.347656 0.154297,-0.699219 -1.082032,-0.611328 -0.847656,1.486328 0.07617,0.525391 -0.851562,0.349609 -0.541016,1.136719 -0.230469,-1.048828 -1.46875,-0.613281 -0.232422,-0.78711 1.931641,-1.136718 0.851562,-0.7871098 0.07617,-0.9609374 -0.46289,-0.2636719 z m 15.114129,0.6239726 -1.11934,0.3496094 -0.506202,-0.087891 -0.002,0 -0.07813,0.5253906 0.74253,0.3496094 1.425981,-0.6132813 -0.462891,-0.5234375 z m -11.129754,0.6592305 -0.617187,0.4375 0.771484,0.5253907 0.619141,0 0,-0.6132813 z m 12.208985,2.0117187 0,0.525391 0.310547,0.349609 0,0.787109 -0.15625,1.048828 0.851562,-0.173828 0.617188,-0.613281 -0.541016,-0.523437 C 29.099568,12.21359 28.891455,11.760782 28.664062,11.296875 Z m -0.306641,1.048828 -0.542969,0.175781 0.15625,0.960938 0.69336,-0.347656 z m -10.664062,1.576172 0.230468,1.220703 0.462891,-0.697266 z m 20.177734,6.818359 0.890625,1.00586 1.042969,2.228515 0.617187,0.701172 -0.310547,0.785157 0.587891,0.666015 c -0.269928,0.01823 -0.538857,0.03711 -0.816406,0.03711 -0.492109,-1.033775 -0.861574,-2.068895 -1.236328,-3.15039 l -0.857813,-0.742188 -0.347657,-1.269531 z"/>
  </g>
 </g>
 <path style="fill:#8b9cbe;opacity:0.2" d="M 16 2 C 8.244 2 2 8.244 2 16 C 2 16.168842 2.0195214 16.33264 2.0253906 16.5 C 2.2891326 8.9794325 8.4128418 3 16 3 C 23.500fae9 3 29.710867 8.9794325 29.974609 16.5 C 29.980479 16.33264 30 16.168842 30 16 C 30 8.244 23.756 2 16 2 z"/>
</svg>
