<svg xmlns="http://www.w3.org/2000/svg" width="32" height="32" version="1.1">
 <rect width="28" height="28" x="2" y="3" rx="2.8" ry="2.8" style="opacity:0.2"/>
 <rect style="fill:#4cc4de" width="28" height="28" x="2" y="2" rx="2.8" ry="2.8"/>
 <path style="opacity:0.1" d="m 16.306641,3.0006145 c -0.322724,0.00636 -0.641574,0.035372 -0.957032,0.09375 -0.176802,0.032702 -0.352947,0.017006 -0.52539,0.068359 -0.186732,0.055714 -0.370589,0.1803135 -0.550781,0.2597656 -2.150692,0.9495469 -3.747552,2.6895652 -4.3847661,4.9648438 -2.422e-4,4.844e-4 -0.2616167,0.9759293 -0.066406,1.6699217 0.0092,0.687453 -0.071524,1.403721 0.2031254,2.042968 0.06007,0.139769 0.08571,0.385807 0.05859,0.548829 -0.0402,0.244169 -0.2444428,0.456215 -0.3124996,0.693359 -0.1513722,0.528307 -0.2173261,1.077284 -0.2832032,1.621094 -0.061278,0.505294 -0.2320399,1.062095 -0.2148437,1.568359 0.00511,0.147277 0.03792,0.278262 0.017578,0.425781 -0.098573,0.709496 -0.3257772,1.405952 -0.4589844,2.111328 -0.055944,0.29649 -0.1100619,0.59686 -0.1347656,0.898438 -0.033663,0.417364 0.1107923,0.872879 0.5,1.068359 -0.027125,0.608485 -0.1066838,1.642235 0.2890625,2.15625 0.287728,0.373279 0.5481749,0.767563 0.7402339,1.199219 0.08065,0.180947 0.133643,0.418203 0.328126,0.509766 0.221123,0.104402 0.584063,-0.0043 0.80664,-0.04883 l 0.953125,-0.845704 c -0.225385,1.937509 -0.472075,3.873013 -0.689453,5.810547 0.144429,0.480318 0.553692,1.122736 1.076172,1.181641 1.517946,0.0026 3.034787,-0.0026 4.552734,0 -0.815973,-0.745496 -1.507354,-1.636952 -2.160156,-2.521484 -0.193255,-0.699638 0.266042,-1.354146 0.40625,-2.023438 0.372334,-1.364509 0.728894,-2.736069 1.230469,-4.060547 0.312559,-0.655349 0.289643,-1.400673 0.585937,-2.050781 0.13673,-0.351382 0.35928,-0.654045 0.564453,-0.966797 -0.130092,0.598389 -0.474844,1.138069 -0.642578,1.683594 0.265739,-0.211439 0.684864,-0.902406 0.388672,-0.265625 -0.272895,0.145439 -0.646991,0.90484 -0.119141,0.496094 0.0018,-0.0034 0.0039,-0.0044 0.0059,-0.0078 l -0.207031,0.396485 c -0.214499,0.125191 -0.373375,0.299801 -0.351563,0.667968 -0.206614,0.726929 -0.524535,1.415613 -0.640625,2.166016 -0.03868,0.09554 -0.04649,0.157175 -0.03711,0.203125 l -0.04297,0.240234 -0.0059,0.002 c -0.0525,0.120575 -0.06213,0.193383 -0.03711,0.232422 l -0.07813,0.4375 c -0.173474,0.572136 -0.1926,1.263527 -0.345703,1.855469 0.04015,0.549727 -0.512086,1.218997 -0.002,1.632813 0.544894,0.642817 1.079663,1.370349 1.734375,1.882812 1.605607,0.0046 3.212752,-0.0045 4.818359,0 -0.53718,-0.857972 -1.117651,-1.773553 -1.111328,-2.826172 -0.03398,-0.711285 -0.01416,-1.444585 -0.128906,-2.15039 l 0.01758,0.002 c 0.02534,-0.451972 -0.141055,-0.903495 -0.425781,-1.355469 0.264203,0.05726 0.527473,0.07856 0.789062,-0.07422 1.012931,-0.46194 1.75066,-1.502612 1.847657,-2.611328 0.02351,-0.807398 -0.804999,-1.179422 -1.367188,-1.572266 -0.855237,-0.583038 -1.723135,-1.150563 -2.482422,-1.859375 -0.166122,-0.142486 -0.31886,-0.299528 -0.470703,-0.457031 l 0.08203,-0.07226 c -0.295086,-0.289957 -0.630834,-0.629802 -0.78125,-0.832032 0,0 -0.0542,-0.684058 -0.146484,-0.835937 0.321393,-0.07824 0.642601,-0.173821 0.949219,-0.296875 0.250188,-0.100283 0.473422,-0.255699 0.720703,-0.359375 0.191334,-0.08042 0.452251,-0.08454 0.617187,-0.216797 0.174865,-0.140495 0.09867,-0.549675 0.103516,-0.75 0.0094,-0.400166 0.02958,-0.79881 0.03516,-1.199219 0.0051,-0.370614 0.463095,-0.743177 0.640625,-1.054687 0.599674,-1.050557 0.125706,-2.366358 0.0918,-3.5 -0.01187,-0.4030733 0.219972,-0.861158 0.341797,-1.2421875 0.08477,-0.265244 0.169139,-0.5311471 0.253906,-0.796875 C 22.017802,4.9334093 20.318673,3.7214382 18.503906,3.2720989 18.29804,3.2209912 18.0901,3.2578771 17.878906,3.2193645 17.680068,3.1832746 17.47885,3.0700169 17.277344,3.0474895 16.955345,3.0113968 16.629367,2.9942561 16.306641,3.0006145 Z m 2.564453,15.1953125 c 0.05526,0.06496 0.106206,0.133211 0.160156,0.199218 l -0.02734,0.05274 c -0.05724,-0.07267 -0.12455,-0.135922 -0.183594,-0.207031 z m -9.6621096,1.609375 v 1.123047 c 0,0 -0.7202867,-0.371161 0,-1.123047 z m 2.3085936,5.945312 c -0.324197,0.09191 -0.184005,0.912475 -0.05469,0.300781 0.125433,-0.13965 0.882771,-0.266483 0.222656,-0.289062 -0.06668,-0.02294 -0.121655,-0.02485 -0.167969,-0.01172 z m 0.386719,0.371094 c -0.441894,0.291648 -1.096866,0.583099 -1.013672,1.222656 -0.122988,0.433027 0.760128,0.928457 0.8125,0.419922 0.114979,-0.296443 -0.413706,0.17691 -0.578125,-0.224609 -0.273464,-0.667812 0.511212,-0.961171 0.773438,-1.34961 z"/>
 <path style="fill:#3c3c3c" d="m 16.307144,2.0019785 c -0.322724,0.00636 -0.64294,0.035972 -0.958398,0.09435 -0.176802,0.032702 -0.352557,0.017017 -0.525,0.06837 -0.186732,0.055714 -0.369416,0.1803524 -0.549609,0.2598045 -2.150691,0.9495469 -3.748724,2.6883568 -4.3859384,4.9636354 -2.422e-4,4.844e-4 -0.2608354,0.9769613 -0.065625,1.6709539 0.0092,0.6874531 -0.072305,1.4022687 0.2023444,2.0415167 0.06007,0.139768 0.08591,0.386671 0.05879,0.549693 -0.0402,0.244169 -0.245029,0.456123 -0.3130858,0.693267 -0.1513722,0.528307 -0.2157638,1.076551 -0.2816408,1.620361 -0.061278,0.505294 -0.2332113,1.062135 -0.2160151,1.568399 0.00511,0.147277 0.038115,0.279107 0.017773,0.426626 -0.098573,0.709496 -0.3247999,1.405878 -0.4580071,2.111255 -0.055944,0.29649 -0.1106476,0.596799 -0.1353513,0.898377 -0.033663,0.417364 0.1098153,0.87382 0.499023,1.0693 -0.027125,0.608485 -0.1059023,1.642363 0.289844,2.156378 0.287728,0.373279 0.5475881,0.767548 0.7396481,1.199204 0.08065,0.180947 0.133643,0.417107 0.328125,0.50867 0.221124,0.104402 0.585431,-0.0033 0.808008,-0.04786 l 7.705468,-6.831493 c -0.295086,-0.289956 -0.630248,-0.629145 -0.780664,-0.831375 0,0 -0.05401,-0.683598 -0.146289,-0.835477 0.321393,-0.07824 0.643577,-0.175038 0.950195,-0.298092 0.250188,-0.100283 0.473227,-0.254581 0.720508,-0.358257 0.191334,-0.08042 0.451666,-0.08516 0.616602,-0.217414 0.174865,-0.140495 0.09769,-0.549007 0.102539,-0.749332 0.0094,-0.400166 0.02997,-0.800162 0.03555,-1.200571 0.0051,-0.370614 0.463681,-0.742749 0.641211,-1.054259 0.599674,-1.050557 0.125509,-2.3655154 0.0916,-3.4991577 -0.01187,-0.4030733 0.219972,-0.861931 0.341797,-1.2429605 0.08477,-0.265244 0.169529,-0.5314617 0.254296,-0.7971896 C 22.018113,3.933996 20.318978,2.7220616 18.504211,2.2727223 18.298345,2.2216146 18.089233,2.2592739 17.878039,2.2207613 17.679201,2.1846714 17.477987,2.0709975 17.276481,2.0484701 16.954482,2.0123774 16.62987,1.9956201 16.307144,2.0019785 Z M 9.2087066,18.805867 v 1.123997 c 0,0 -0.7202867,-0.372111 0,-1.123997 z"/>
 <path style="fill:#e2a67f" d="m 14.062222,13.41834 c -0.0198,-0.0034 -0.05141,-3.68e-4 -0.101172,0.01231 -0.614469,0.09564 0.382928,0.755881 -0.05059,1.201938 -0.398126,0.807196 -0.904355,1.561174 -1.408201,2.304057 -0.740038,1.191616 -0.650427,2.700298 -0.241994,3.988684 0.148596,0.531425 0.108735,-0.231271 0.150391,-0.426626 -0.193989,-0.640978 -0.393535,-1.313882 -0.270703,-1.996393 -0.06083,-0.370992 0.668967,-1.394285 0.284375,-0.560631 -0.234974,0.688424 -0.201826,1.459146 0.03144,2.142704 0.112008,-0.61597 0.311836,-1.215014 0.471679,-1.815897 -0.159334,-0.366596 0.190722,-0.782394 0.15586,-0.143577 -0.240991,1.015494 -0.492284,2.03287 -0.559179,3.078001 -0.258711,2.542962 -0.614735,5.075865 -0.89961,7.61501 0.144429,0.480318 0.553497,1.122522 1.075977,1.181427 1.517946,0.0026 3.036154,-0.0026 4.554101,0 -0.815973,-0.745496 -1.508721,-1.63694 -2.161523,-2.521472 -0.193255,-0.699638 0.267214,-1.353081 0.407422,-2.022373 0.372334,-1.364509 0.727526,-2.736679 1.229101,-4.061157 0.312559,-0.655349 0.29023,-1.399614 0.586524,-2.049722 0.13673,-0.351382 0.359475,-0.655361 0.564648,-0.968113 -0.130092,0.598389 -0.474844,1.137735 -0.642578,1.68326 0.265739,-0.211439 0.68584,-0.902055 0.389648,-0.265274 -0.272895,0.145439 -0.648162,0.905109 -0.120312,0.496363 0.0018,-0.0034 0.0049,-0.0048 0.0069,-0.0082 l -0.207812,0.397911 c -0.214499,0.125191 -0.37318,0.299121 -0.351368,0.667288 -0.206614,0.726929 -0.525121,1.415547 -0.641211,2.16595 -0.03868,0.09554 -0.04629,0.157792 -0.03691,0.203742 l -0.164062,0.91205 c -0.173474,0.572136 -0.191429,1.26361 -0.344532,1.855552 0.04015,0.549727 -0.512833,1.217485 -0.0027,1.6313 0.544894,0.642817 1.080249,1.370436 1.734961,1.882899 1.605607,0.0046 3.210994,-0.0045 4.816601,0 -0.53718,-0.857972 -1.116479,-1.773781 -1.110156,-2.8264 -0.03398,-0.711285 -0.01514,-1.443737 -0.129882,-2.149542 l 0.01777,0.0014 c 0.02607,-0.464901 -0.14709,-0.929838 -0.447071,-1.39474 l 1.815625,-2.941261 -3.38789,-3.376093 -0.07109,0.136739 c -0.225513,-0.286293 -0.463748,-0.562025 -0.724609,-0.814966 0.0067,0.389501 -0.458856,1.396227 -0.291211,0.497731 0.08251,-0.718037 0.207709,-1.535102 -0.318581,-2.127696 -0.426622,-0.511087 -0.946848,-1.202111 -1.699414,-1.104853 -0.520541,0.382108 -0.844764,-0.193409 -1.402735,-0.298092 -0.255538,-0.01211 -0.765432,0.545263 -0.508593,-0.05606 0.01208,-0.04854 0.06214,-0.117026 0.0027,-0.127167 z"/>
 <path style="fill:#f55588" d="m 18.315542,16.397889 c -0.0515,0.2208 0.216456,0.331569 0.315977,0.500352 0.645919,0.718689 1.221116,1.500477 1.651406,2.368438 0.409013,0.717083 0.603465,1.593658 0.299414,2.386099 -0.198291,0.524399 -0.432384,1.092117 -0.886209,1.442258 -0.389663,0.11693 -0.809222,0.122277 -1.198525,0.260119 l -2.269758,0.603048 c -0.115306,0.264829 -0.04364,0.332993 0.215012,0.204479 0.966849,-0.293105 1.952526,-0.523358 2.943292,-0.716544 0.705137,-0.125837 1.392348,0.546489 2.072872,0.14903 1.012931,-0.46194 1.750855,-1.501141 1.847852,-2.609857 0.02351,-0.807398 -0.805158,-1.180223 -1.367347,-1.573067 -0.855237,-0.583038 -1.723449,-1.150185 -2.482736,-1.858997 -0.411277,-0.352761 -0.758959,-0.772543 -1.14125,-1.155358 z m -6.629491,8.365707 c -0.53347,-0.183538 -0.370644,0.988967 -0.222852,0.289888 0.125433,-0.13965 0.882967,-0.267309 0.222852,-0.289888 z m 0.217382,0.359625 c -0.441894,0.291648 -1.096481,0.583041 -1.013287,1.222598 -0.122988,0.433027 0.759698,0.928181 0.81207,0.419646 0.114979,-0.296443 -0.412589,0.176504 -0.577008,-0.225015 -0.273464,-0.667812 0.511784,-0.959893 0.774009,-1.348332 l 0.0042,-0.06889 z"/>
 <path style="fill:#e2a57d" d="m 15.348437,12.816906 0.894669,0.829884 c 0.635686,0.239187 1.285648,0.539686 1.97883,0.516248 0.410751,-0.0038 0.697123,-0.351867 0.820045,-0.712067 0.405942,-1.063969 0.913884,-2.095982 1.188533,-3.205067 0.05041,-0.3070408 0.112505,-0.6370803 0.0296,-0.9407823 0.02099,0.1123829 -0.12304,0.4597488 -0.378385,0.2922374 -0.151287,-0.041944 -0.30654,-0.071343 -0.455211,-0.1215494 -0.0086,0.3651893 -0.136182,-0.1509389 -0.0177,-0.3474911 0.158114,-0.324464 0.412666,-0.6788404 0.815428,-0.6557824 0.391206,-0.042931 0.322823,-0.4649925 0.268513,-0.7435463 C 20.404226,7.275084 20.320517,6.8190075 20.23006,6.3664505 20.136288,6.2101727 19.939547,5.9045294 19.862322,5.8551792 c -0.127736,0.4686259 -0.218209,0.9456801 -0.243956,1.4311804 -0.08315,0.8483328 -0.40335,1.4935109 -0.763066,2.1007573 -0.214347,0.3794749 -0.531176,0.7510171 -0.991262,0.8072621 -0.336528,0.02539 -0.583196,0.121457 -0.733145,0.440209 -0.290582,0.332888 -0.646613,0.74238 -0.509108,1.220318 0.09033,0.374868 -0.20164,-0.400697 -0.04264,-0.57419 0.120581,-0.363506 0.412834,-0.627594 0.623786,-0.936992 -0.329899,-4.4e-5 -0.582439,0.279892 -0.753711,0.531699 -0.142893,0.431168 -0.301877,0.961184 -0.0081,1.366638 0.06876,0.132959 0.281679,0.392524 0.03597,0.169712 -0.321496,-0.305298 -0.450833,-0.756427 -0.411289,-1.190449 -0.01556,-0.231304 0.160211,-0.586469 -0.133336,-0.319266 -0.08668,0.07177 -0.221463,0.117736 -0.280192,0.204485 l 0.0053,1.433734 -0.30904,0.276628"/>
 <path style="fill:#f89dba" d="m 11.930341,17.891894 c 0.03972,0.04505 -0.05788,0.283653 -0.08646,0.614299 -0.01938,0.22697 -0.04771,0.45176 -0.05328,0.680427 -0.01357,0.540418 0.04408,1.081805 0.201749,1.600423 0.07096,0.233268 0.194482,0.447401 0.302985,0.664198 v 0.282199 c -0.323329,-0.609938 -0.633582,-1.189355 -0.730944,-1.883832 -0.03221,-0.228425 -0.04383,-0.459756 -0.03657,-0.690118 0.01332,-0.426327 0.203444,-1.038203 0.402528,-1.267596"/>
 <path style="fill:#040606" d="m 11.930341,17.891894 -0.0024,0.002 0.0087,0.03561 c 0,0.08745 -0.07193,0.300124 -0.09567,0.576511 -0.01961,0.22697 -0.04771,0.45176 -0.05352,0.680669 -0.0012,0.0499 -0.002,0.100042 -0.002,0.149942 0,0.49076 0.06079,0.980552 0.203928,1.45145 0.07096,0.233511 0.194967,0.447885 0.303228,0.664682 l 0.0027,-0.0015 h -0.0029 v 0.282199 h 0.0029 l 0.0027,-0.0012 c -0.32333,-0.61018 -0.63334,-1.189113 -0.730702,-1.883105 -0.02591,-0.184823 -0.03851,-0.371825 -0.03851,-0.558586 0,-0.0436 7e-4,-0.0872 0.002,-0.130804 0.01332,-0.425843 0.203686,-1.03772 0.401802,-1.265901 l -0.0022,-0.002 -0.0024,0.002 0.0024,-0.002 -0.0024,-0.002 c -0.199569,0.230604 -0.389692,0.842238 -0.403255,1.269534 -0.0015,0.0436 -0.002,0.0872 -0.002,0.131047 0,0.187003 0.01259,0.374248 0.03851,0.559555 0.0976,0.695204 0.408099,1.274863 0.731429,1.884801 l 0.0058,-0.0015 v -0.282199 -7e-4 l -4.84e-4,-4.85e-4 c -0.108503,-0.21704 -0.232023,-0.431172 -0.302744,-0.663956 -0.143137,-0.47017 -0.203686,-0.959236 -0.203686,-1.449512 0,-0.0499 7e-4,-0.100042 0.002,-0.149942 0.0058,-0.228423 0.03391,-0.452972 0.05353,-0.680184 0.02349,-0.275902 0.09567,-0.487128 0.09567,-0.576995 l -0.01017,-0.03949 -0.0022,-0.0027 -0.0025,0.0027 0.0025,0.002"/>
 <path style="fill:#f89dba" d="m 14.58189,13.447676 0.942623,0.518133 0.160333,-0.06346 -0.915739,-0.598554 -0.187217,0.143885"/>
 <path style="fill:#040606" d="m 14.58189,13.447676 -0.0015,0.0027 0.943834,0.51886 0.161786,-0.06419 0.0053,-0.0022 -0.92252,-0.602672 -0.192546,0.148003 0.0041,0.0022 0.0015,-0.0027 0.0017,0.0024 0.185521,-0.142674 0.909201,0.594193 -0.153794,0.06104 -0.94117,-0.517648 -0.0015,0.0027 0.0017,0.0024 -0.0017,-0.0024"/>
 <path style="fill:#f89dba" d="m 14.137221,13.323896 0.07677,-0.187002 -0.257453,0.150425 0.180678,0.03657"/>
 <path style="fill:#040606" d="m 14.137221,13.323896 0.0027,0.0012 0.07702,-0.187244 0.0034,-0.0082 -0.272227,0.159146 0.188428,0.03803 0.0024,4.84e-4 9.8e-4,-0.0022 -0.0027,-0.0012 4.85e-4,-0.0029 -0.172685,-0.03513 0.242678,-0.141947 -0.07338,0.179009 0.0029,9.8e-4 4.85e-4,-0.0029 -4.85e-4,0.0029"/>
 <path style="fill:#8b9cbe" d="M 14.182511,13.592773 15.51652,12.48626 15.48407,10.452487 14.182515,13.592773"/>
 <path style="fill:#040606" d="m 14.182511,13.592773 0.002,0.0022 1.33522,-1.10724 -0.0327,-2.035469 -0.0058,-9.8e-4 -1.301313,3.140286 0.0046,0.0034 -0.002,-0.0022 0.0029,9.8e-4 1.295743,-3.126721 0.03221,2.017787 -1.332799,1.105543 0.002,0.0025 0.0029,9.8e-4 -0.0029,-9.8e-4"/>
 <path style="fill:#e2a57d" d="m 14.854844,13.228941 0.347308,-0.287044 0.759038,0.829643 -0.195209,0.09229 -0.911137,-0.634889"/>
 <path style="fill:#f03a25" d="m 17.61514,12.442659 c 0,0 0.715686,-0.347118 1.052094,-0.406707 0,0 0.135629,-0.04336 0.260118,0.04336 0,0 0.04892,0.04336 0.168083,0.02713 0.07048,-0.0094 0.139505,-0.0654 0.210467,-0.03707 0.08017,0.03222 0.106324,0.145339 0.08792,0.221399 l -0.130058,0.206139 c -0.0247,0.03949 0.0036,0.183854 -0.0043,0.242473 -0.01211,0.08696 -0.04723,0.155756 -0.110441,0.216556 -0.09421,0.09059 -0.202233,0.109488 -0.328417,0.114575 -0.272953,0.01114 -0.47785,-0.02253 -0.695342,-0.197903 -0.181162,-0.14655 -0.279008,-0.34954 -0.510062,-0.429961"/>
 <path style="fill:#8b9cbe" d="m 18.124476,12.616823 c 0,0 0.349729,0.253616 0.384121,0.219462 0,0 0.04117,0.06685 -0.06684,0.06685 0,0 -0.227906,-0.09084 -0.317275,-0.286318"/>
 <path style="fill:#8b9cbe" d="m 19.114569,12.799223 c 0,0 -0.01623,0.05474 0.03706,0.02689 0.05328,-0.02762 0.0419,-0.11506 0.0419,-0.11506 0,0 0.0015,0.04215 -0.07896,0.08817"/>
 <path style="fill:#de9262" d="m 19.665562,8.9370877 c 0,0 0.09349,-0.1700461 0.331323,-0.1700461 0,0 0.214584,0.027608 0.322845,-0.080664 0,0 0.05328,0.1678663 -0.05086,0.2720263 0,0 -0.106081,0.093259 -0.603307,-0.021315"/>
 <path style="fill:#e2a57d" d="m 19.665562,8.9370877 c 0.01559,-0.011655 0.02936,-0.041097 0.04816,-0.055713 0.07352,-0.074822 0.179211,-0.112546 0.283156,-0.1114099 0.0121,8.4e-4 0.05293,0.00476 0.07533,0.00301 0.0885,-0.00245 0.184017,-0.020692 0.249695,-0.084627 -0.01051,-2.037e-4 0.0068,0.032956 0.0048,0.045458 0.01138,0.077678 -0.0017,0.165235 -0.05982,0.2224005 -0.0048,0.00532 -0.04203,0.02058 -0.0593,0.02282 -0.109228,0.02212 -0.221863,0.01015 -0.331233,-0.00462 -0.07058,-0.010353 -0.140604,-0.024276 -0.210106,-0.040292 -0.0055,0.00913 0.01581,0.00829 0.02917,0.012768 0.144519,0.030863 0.292184,0.056959 0.440509,0.048349 0.0461,-0.00441 0.0953,-0.00896 0.135138,-0.034643 0.06426,-0.063392 0.07513,-0.1615404 0.05858,-0.2464413 -0.0042,-0.011011 -0.0036,-0.047929 -0.01858,-0.023457 -0.06676,0.059129 -0.159656,0.074745 -0.246039,0.076346 -0.04061,9.1e-4 -0.08112,-0.00686 -0.121606,-1.407e-4 -0.113065,0.011858 -0.22304,0.073738 -0.282443,0.1721293 0.0031,4.97e-4 0.0043,0.00252 0.0045,-0.00196"/>
 <path style="fill:#8b9cbe" d="m 19.427727,9.4341464 c 0.07508,0.021553 0.150645,0.041664 0.22621,0.061523 0.116738,0.030765 0.267867,0.089867 0.387754,0.049658 0.09664,-0.032459 0.0884,-0.1404942 0.09155,-0.2230949 0.0029,-0.072912 0.0058,-0.1814308 -0.07266,-0.2172813 l -0.182615,-0.023744 c 0,0 0.0022,0.2361757 -0.161544,0.2807461 0,0 -0.138051,0.040453 -0.254789,-0.076545 0,0 -0.03391,0.050869 -0.03391,0.1487304"/>
 <path style="fill:#040606" d="m 19.427727,9.4341464 -9.8e-4,0.00315 c 0.07532,0.021553 0.150887,0.041426 0.226452,0.061285 0.08864,0.023492 0.197389,0.063462 0.2979,0.063462 0.03172,0 0.06249,-0.00413 0.09155,-0.013804 0.0993,-0.03367 0.09058,-0.1438857 0.09349,-0.226002 l 0.0012,-0.044569 c 0,-0.06685 -0.0099,-0.1450966 -0.07557,-0.1753758 l -2.42e-4,-2.422e-4 -0.1831,-0.023744 -0.0034,-4.844e-4 v 0.00336 4.844e-4 c 0,0.011382 -0.0027,0.2352062 -0.159364,0.2771124 -2.42e-4,2.422e-4 -0.02276,0.00679 -0.05765,0.00679 -0.05062,0 -0.125941,-0.013804 -0.194482,-0.082359 l -0.0027,-0.00266 -0.002,0.00315 c -2.43e-4,4.844e-4 -0.03439,0.051835 -0.03439,0.1504265 v 0.00245 l 0.0022,7e-4 9.8e-4,-0.00315 h 0.0029 c 0,-0.097135 0.03366,-0.1467928 0.03343,-0.147035 l -0.0025,-0.00168 -0.0022,0.00217 c 0.06951,0.069762 0.147011,0.084055 0.198599,0.084055 0.0356,0 0.05909,-0.00679 0.05934,-0.00679 0.162271,-0.044814 0.163482,-0.2715411 0.163724,-0.2831688 v -2.422e-4 l -0.0032,-2.422e-4 -2.42e-4,0.00315 0.182615,0.023744 2.42e-4,-0.00315 -0.0012,0.00266 c 0.06176,0.028098 0.07193,0.1034327 0.07193,0.170046 l -0.0012,0.044331 c -0.0029,0.083569 0.0048,0.1891827 -0.08937,0.2206729 -0.02834,0.00944 -0.05837,0.013321 -0.08961,0.013321 -0.09882,0 -0.207319,-0.039725 -0.296204,-0.063217 -0.07581,-0.019859 -0.15113,-0.03997 -0.226452,-0.061523 l -7e-4,0.00294 h 0.0029 -0.0029"/>
 <path style="fill:#8b9cbe" d="m 19.529691,9.1621202 c 0,0 0.186732,0.1741648 0.229358,-0.042392 h 0.07217 c 0,0 -0.0637,0.3400928 -0.331323,0.1191784 l 0.02979,-0.076788"/>
 <path style="fill:#040606" d="m 19.529691,9.1621202 -0.0022,0.00217 c 2.42e-4,2.422e-4 0.0712,0.06685 0.137567,0.067095 0.04166,2.422e-4 0.08065,-0.027377 0.09688,-0.1111845 l -0.0029,-4.844e-4 v 0.00294 h 0.07217 v -0.00294 l -0.0029,-7e-4 c -2.42e-4,2.422e-4 -0.03681,0.1923319 -0.166388,0.1913631 -0.04214,0 -0.09494,-0.019859 -0.160091,-0.073881 l -0.002,0.00245 0.0027,9.8e-4 0.02979,-0.076545 -0.0027,-0.00119 -0.0022,0.00217 0.0022,-0.00217 -0.0029,-9.8e-4 -0.02979,0.076545 -7e-4,0.00217 0.0017,0.00147 c 0.06588,0.054257 0.119886,0.075091 0.163966,0.075091 0.136356,-7e-4 0.171959,-0.1962071 0.172201,-0.1962071 l 7e-4,-0.00364 h -0.07581 -0.0024 l -4.85e-4,0.00245 c -0.01647,0.082601 -0.05256,0.1060976 -0.09107,0.1063398 -0.06249,2.422e-4 -0.133207,-0.065401 -0.133449,-0.065401 l -0.0032,-0.00294 -0.0017,0.00413 0.0029,9.8e-4"/>
 <path style="fill:#3c3c3c" d="m 18.488495,11.169249 c 0,0 0.0022,0.185791 0.249702,0.07049 0,0 0.07896,-0.04893 0.286033,-0.03222 0,0 0.01938,0.01744 -0.0065,0.0235 0,0 -0.196178,-0.0085 -0.25382,0.03222 0,0 -0.277313,0.108762 -0.275376,-0.09398"/>
 <path style="fill:#3c3c3c" d="m 19.013573,11.410511 c 0,0 0.266657,0.07461 0.369105,-0.07243 0,0 0.08768,-0.0172 0.03851,0.06588 0,0 -0.19206,0.08963 -0.407614,0.0065"/>
 <path style="fill:#8b9cbe" d="m 19.148234,13.612151 0.70406,-0.584746 -0.01114,-1.199771 -0.663129,1.501592 -0.02979,0.282925"/>
 <path style="fill:#17191e" d="m 17.634758,12.471 c 0.296078,-0.0022 0.592731,-0.0075 0.888302,0.01324 0.03405,0.0044 0.06938,0.0061 0.102056,0.01707 0.0089,-0.01302 -0.01063,0.0062 0.01321,-0.01457 -0.03317,0.0044 0.01764,0.0528 0.04946,0.0567 0.09522,0.03287 0.194819,-0.005 0.282131,-0.04369 0.0944,-0.0323 0.200669,-0.01941 0.288305,0.02662 0.01044,-0.02276 0.03764,-0.05172 -0.0053,-0.05617 -0.10792,-0.048 -0.238147,-0.05155 -0.344247,0.0032 0.02075,0.04636 0.0078,-0.02393 -0.02001,0.0078 -0.07028,0.02591 -0.164392,0.04718 -0.225642,-0.0095 -0.04953,-0.03685 -0.116065,-0.03165 -0.174768,-0.03875 -0.284399,-0.01646 -0.569505,-0.01308 -0.854239,-0.01037 2.33e-4,0.01615 4.67e-4,0.0323 7e-4,0.04845"/>
 <path style="opacity:0.2;fill-rule:evenodd" d="m 20.443359,13.009766 c -0.08879,0.01473 -0.175774,0.04663 -0.255859,0.09375 -0.171794,0.106045 -0.274451,0.24688 -0.320312,0.435546 l -0.181641,0.566407 a 19.575736,20.152876 0 0 1 -0.515625,1.460937 c -0.286266,0.105855 -0.57314,0.223949 -0.859375,0.341797 l -0.365235,0.177735 c -0.183257,0.08244 -0.298575,0.211723 -0.367187,0.40039 a 0.75559705,0.77787383 0 0 0 0.01172,0.564453 c 0.04586,0.09425 0.115239,0.177412 0.195312,0.248047 -0.148685,-0.01162 -0.287116,0.01139 -0.447265,0.08203 a 0.7208606,0.74211327 0 0 0 0.103515,-0.388671 v -0.07031 c -0.02275,-0.20028 -0.102906,-0.364495 -0.251953,-0.494141 -0.148685,-0.129646 -0.321079,-0.177813 -0.515625,-0.166015 -0.217653,0.01162 -0.458042,0.106409 -0.74414,0.248047 -0.526504,0.271099 -1.00786,0.707636 -1.419922,1.296875 -0.04586,0.05883 -0.0906,0.117055 -0.125,0.1875 a 2.1970035,2.2617763 0 0 0 -0.207032,0.412109 c -0.114473,0.2711 -0.206092,0.518121 -0.251953,0.765625 -0.125754,0.624622 -0.0214,1.096056 0.310547,1.402344 0.114472,0.106044 0.251701,0.177396 0.400391,0.224609 0.240405,0.07063 0.490992,0.04763 0.765625,-0.05859 0.297732,-0.117849 0.641452,-0.353225 1.007812,-0.695312 l 0.572266,-0.519531 c 0.08043,0.435976 0.275231,0.70863 0.595703,0.814453 0.343231,0.106039 0.652086,-0.01168 0.960937,-0.341797 0.194902,-0.212085 0.436585,-0.579017 0.722657,-1.109375 0.06861,0.495171 0.273585,0.813929 0.617187,0.943359 0.503742,0.212084 0.99599,-0.0814 1.488282,-0.871093 0.08008,0.106044 0.196074,0.175528 0.310546,0.210937 0.286266,0.117848 0.560634,0.05975 0.8125,-0.152344 0.194545,-0.153257 0.423647,-0.437078 0.664063,-0.849609 l -0.148438,1.816406 c -1.74034,0.294707 -3.823862,0.740565 -6.216797,1.341797 a 140.16325,144.2956 0 0 0 -6.126953,1.673828 c -0.332127,0.09443 -0.6622024,0.18851 -0.9941402,0.294922 L 7.34375,23.992188 6.4394531,24.275391 c -0.1832586,0.05884 -0.3322855,0.176834 -0.4238281,0.353515 -0.080078,0.188661 -0.1040229,0.366116 -0.046875,0.566406 0.068791,0.188663 0.1836702,0.341207 0.3554688,0.423829 0.1716148,0.09425 0.3540453,0.117611 0.5371093,0.05859 l 0.9160157,-0.283203 c 0.767088,-0.23569 1.5564186,-0.483049 2.3808592,-0.71875 a 180.31485,185.63096 0 0 1 6.044922,-1.673828 35.917097,36.976018 0 0 1 1.179687,-0.292969 c 2.06047,-0.518593 3.893057,-0.92001 5.484376,-1.203125 -0.04586,0.530398 -0.09147,1.024725 -0.148438,1.496094 -0.137582,1.320117 -0.252283,2.345295 -0.355469,3.076172 -0.102824,0.07063 -0.18273,0.153721 -0.240234,0.259766 a 0.71262251,0.73363228 0 0 0 -0.0918,0.365234 v 0.03516 c 0.01147,0.200281 0.02413,0.366448 0.04687,0.496094 0.04586,0.306509 0.159219,0.530606 0.365234,0.648437 C 22.569302,27.953625 22.696328,28 22.822266,28 c 0.125939,0 0.23861,-0.03454 0.341796,-0.09375 0.182902,-0.09424 0.310554,-0.260221 0.390626,-0.496094 l 0.0918,-0.341797 0.148438,-0.978515 c 0.102825,-0.719048 0.217812,-1.70795 0.34375,-2.957032 l 0.01172,-0.130859 0.171875,-1.720703 0.628906,-0.07031 c 1.270819,-0.153252 2.232678,-0.17645 2.908203,-0.08203 0.365982,0.05901 0.59442,0.140139 0.697266,0.234375 v 0.07227 l -0.02344,0.164062 c 0,0.16506 0.04757,0.317719 0.150391,0.458985 0.103186,0.129645 0.239878,0.224355 0.40039,0.259765 0.194545,0.04721 0.365668,0.0123 0.53711,-0.09375 0.183258,-0.106045 0.28617,-0.246801 0.332031,-0.447265 0.06897,-0.294707 0.05866,-0.566991 -0.0098,-0.814453 -0.06897,-0.259296 -0.205921,-0.483409 -0.412109,-0.671875 -0.320841,-0.30651 -0.802641,-0.51903 -1.455078,-0.613282 -0.8586,-0.129836 -2.060011,-0.09297 -3.605469,0.0957 l 0.125,-1.779297 0.04687,-0.470703 c 0.02275,-0.565634 0.03295,-0.955722 0.02148,-1.191407 -0.01147,-0.58924 -0.204745,-0.954338 -0.605468,-1.083984 -0.263158,-0.08244 -0.515449,-0.03613 -0.75586,0.152344 -0.125932,0.106044 -0.263063,0.260389 -0.412109,0.472656 l -0.08008,0.117187 c -0.05732,-0.28272 -0.19445,-0.506751 -0.412109,-0.683593 -0.309018,-0.247677 -0.768213,-0.328533 -1.375,-0.246094 l 0.207031,-1.074219 0.0332,-0.246094 c 0,-0.165061 -0.05707,-0.319671 -0.148438,-0.460937 -0.11483,-0.129644 -0.24024,-0.2106 -0.40039,-0.257813 -0.09163,-0.0236 -0.182696,-0.02645 -0.271485,-0.01172 z m -13.3886715,2.71875 c -0.090151,-0.0089 -0.1818975,0.0037 -0.2734375,0.03906 -0.1832635,0.05883 -0.330154,0.176841 -0.421875,0.353516 l -1.9472656,3.6875 -0.8125,1.544922 -0.1835938,-0.908204 C 3.370155,20.245031 3.2677501,20.092372 3.1074219,19.986328 2.9472878,19.86848 2.7629046,19.831778 2.5683594,19.867188 2.3736304,19.914401 2.2260547,20.020303 2.1230469,20.185547 2.008574,20.350585 1.9738502,20.539954 2.0195312,20.740234 l 0.4472657,2.298828 c 0.02293,0.223714 0.090605,0.399378 0.2050781,0.541016 0.114473,0.153252 0.2641855,0.247709 0.4472656,0.294922 0.4351505,0.09442 0.8125829,-0.141125 1.1445313,-0.71875 0.1832848,-0.306342 0.6650598,-1.213899 1.4550781,-2.722656 l -0.1035156,0.376953 c -0.1488631,0.554019 -0.2290232,0.978563 -0.2519532,1.296875 -0.02293,0.259465 -2.536e-4,0.471762 0.068359,0.648437 0.080072,0.188667 0.2054134,0.329761 0.3886719,0.400391 0.1830644,0.08244 0.3674475,0.08244 0.5390625,0 0.1374037,-0.05901 0.2519542,-0.141832 0.3320312,-0.271484 0.080082,-0.129651 0.1132813,-0.258858 0.1132813,-0.41211 l -0.021484,-0.201172 v -0.02344 c 0,-0.09424 0.022677,-0.25845 0.068359,-0.494141 0.091705,0.37734 0.2964503,0.635807 0.6054687,0.789063 0.2633569,0.141265 0.5848313,0.164642 0.9511719,0.05859 0.3780084,-0.117815 0.8006918,-0.353493 1.2929688,-0.707031 0.4236591,0.329938 0.9846321,0.318198 1.6601561,-0.03516 0.217643,-0.09424 0.435375,-0.24707 0.675781,-0.435547 0.41201,-0.341725 0.778619,-0.778282 1.076172,-1.296875 a 0.70994641,0.73087728 0 0 0 0.103516,-0.318359 v -0.04687 c 0,-0.129649 -0.03448,-0.25919 -0.0918,-0.365235 -0.06861,-0.10604 -0.149198,-0.200664 -0.263672,-0.271484 -0.160149,-0.10603 -0.332366,-0.129241 -0.515625,-0.08203 0.04568,-0.164871 0.08008,-0.329354 0.08008,-0.482422 v -0.01172 c -0.01147,-0.34153 -0.114049,-0.60237 -0.308593,-0.814453 -0.228935,-0.247493 -0.607074,-0.365579 -0.927735,-0.318359 -0.515223,0.05883 -0.972566,0.449083 -1.3847655,1.167968 L 9.65625,18.865234 9.5175781,18.619141 v -0.01172 c -0.1488788,-0.200281 -0.343325,-0.29476 -0.5722656,-0.31836 a 0.89281139,0.91913359 0 0 0 -0.4804687,0.105469 c -0.2633254,0.176685 -0.4925227,0.44782 -0.6757813,0.695313 A 6.5983564,6.7928916 0 0 0 7.34375,19.761719 C 7.2751171,19.266715 6.8157399,19.06762 6.3691406,19.197266 l 1.2480469,-2.38086 c 0.091539,-0.17687 0.104198,-0.36594 0.046875,-0.566406 -0.057147,-0.188477 -0.1719567,-0.341297 -0.34375,-0.435547 -0.0858,-0.04721 -0.1754742,-0.07709 -0.265625,-0.08594 z m 14.3125005,0.769531 a 35.865674,36.923079 0 0 0 -0.183594,1.119141 l -0.492188,-0.02344 c 0.02311,-0.2711 0.05801,-0.601025 0.103516,-1.001953 a 3.2610835,3.3572279 0 0 1 0.572266,-0.09375 z m -3.205079,0.978515 h 0.183594 l -0.05859,0.117188 z m -1.328125,0.234376 -0.308593,0.283203 -0.423829,0.376953 -0.572265,0.53125 c 0.20601,-0.353721 0.445136,-0.672518 0.765625,-0.908203 0.04586,-0.04703 0.104961,-0.08178 0.162109,-0.117188 0.114473,-0.05883 0.23955,-0.130601 0.376953,-0.166015 z m -7.5781246,2.251953 c -0.045682,0.165244 -0.068615,0.329085 -0.080078,0.49414 -0.3206615,0.2711 -0.6072117,0.460182 -0.8359374,0.589844 0.091543,-0.294707 0.2513496,-0.601915 0.4804687,-0.908203 0.1716148,-0.01181 0.2981489,-0.08136 0.4355469,-0.175781 z"/>
 <path style="fill:#ff89be;fill-rule:evenodd" d="m 24.596305,16.994271 0.04586,-0.471381 c 0.02275,-0.565633 0.03422,-0.954732 0.02275,-1.190417 -0.01147,-0.58924 -0.206011,-0.954732 -0.606734,-1.084378 -0.263158,-0.08244 -0.515029,-0.03522 -0.75544,0.153253 -0.125932,0.106044 -0.263515,0.259296 -0.412561,0.471563 l -0.07972,0.117848 c -0.05732,-0.28272 -0.1949,-0.506606 -0.41256,-0.683448 -0.309018,-0.247677 -0.766878,-0.330116 -1.373665,-0.247677 l 0.206011,-1.072441 0.03422,-0.247492 c 0,-0.165061 -0.05732,-0.318313 -0.148685,-0.459579 -0.11483,-0.129644 -0.240406,-0.212083 -0.400556,-0.259296 -0.183264,-0.04721 -0.366701,-0.0118 -0.526871,0.08244 -0.171794,0.106045 -0.274623,0.247494 -0.320484,0.43616 l -0.182902,0.565418 a 19.575736,20.152876 0 0 1 -0.515385,1.461755 c -0.286266,0.105855 -0.572365,0.223887 -0.8586,0.341735 l -0.366344,0.176857 c -0.183258,0.08244 -0.297731,0.212085 -0.366343,0.400752 a 0.75559705,0.77787383 0 0 0 0.01147,0.565633 c 0.04586,0.09425 0.114472,0.176858 0.194545,0.247493 -0.148685,-0.01162 -0.286267,0.0118 -0.446416,0.08244 a 0.7208606,0.74211327 0 0 0 0.102824,-0.388764 v -0.07082 c -0.02275,-0.20028 -0.102824,-0.36534 -0.251871,-0.494986 -0.148685,-0.129646 -0.320483,-0.176859 -0.515029,-0.165061 -0.217653,0.01162 -0.458059,0.105856 -0.744158,0.247494 -0.526504,0.271099 -1.007463,0.707055 -1.419525,1.296294 -0.04586,0.05883 -0.09154,0.118032 -0.125939,0.188477 a 2.1970035,2.2617763 0 0 0 -0.20601,0.412555 c -0.114473,0.2711 -0.20601,0.518594 -0.251871,0.766098 -0.125754,0.624622 -0.02275,1.096046 0.309197,1.402334 0.114472,0.106044 0.251871,0.176858 0.400561,0.224071 0.240405,0.07063 0.492455,0.04721 0.767088,-0.05901 0.297732,-0.117849 0.640946,-0.353355 1.007306,-0.695442 l 0.572364,-0.518593 c 0.08043,0.435976 0.27498,0.707271 0.595452,0.813094 0.343231,0.106039 0.652595,-0.01162 0.961446,-0.341734 0.194902,-0.212085 0.435313,-0.577627 0.721385,-1.107985 0.06861,0.495171 0.274623,0.81331 0.618225,0.94274 0.503742,0.212084 0.996182,-0.08244 1.488474,-0.872137 0.08008,0.106044 0.194546,0.176675 0.309018,0.212084 0.286266,0.117848 0.560873,0.05884 0.812739,-0.153252 0.194545,-0.153257 0.42367,-0.436161 0.664086,-0.848692 l -0.148684,1.815092 c -1.74034,0.294707 -3.823951,0.742491 -6.216886,1.343723 a 140.16325,144.2956 0 0 0 -6.125058,1.673455 c -0.332127,0.09443 -0.6640859,0.188478 -0.9960238,0.29489 l -2.3241434,0.695278 -0.9043026,0.282904 c -0.1832586,0.05884 -0.3321272,0.176858 -0.4236698,0.353539 -0.080078,0.188661 -0.1030079,0.365341 -0.04586,0.565632 0.068791,0.188662 0.1830801,0.341919 0.3548787,0.424541 0.1716148,0.09425 0.354879,0.117848 0.537943,0.05883 l 0.915952,-0.282902 c 0.767088,-0.23569 1.5568972,-0.483184 2.3813379,-0.718885 a 180.31485,185.63096 0 0 1 6.044776,-1.673618 35.917097,36.976018 0 0 1 1.179467,-0.294706 c 2.06047,-0.518593 3.892531,-0.919133 5.48385,-1.202248 -0.04586,0.530398 -0.09172,1.025391 -0.148685,1.49676 -0.137582,1.320117 -0.251871,2.345452 -0.355057,3.076329 -0.102824,0.07063 -0.182902,0.153252 -0.240406,0.259297 a 0.71262251,0.73363228 0 0 0 -0.09172,0.365157 v 0.03541 c 0.01147,0.200281 0.02311,0.365341 0.04586,0.494987 0.04586,0.306509 0.160329,0.530396 0.366344,0.648228 C 22.569513,26.952779 22.695446,27 22.821384,27 c 0.125939,0 0.240406,-0.03522 0.343592,-0.09443 0.182902,-0.09424 0.309018,-0.259114 0.38909,-0.494987 l 0.09172,-0.341919 0.149046,-0.978176 c 0.102825,-0.719048 0.217298,-1.709217 0.343236,-2.958298 l 0.01147,-0.129835 0.171793,-1.720668 0.629508,-0.07083 c 1.270819,-0.153251 2.232631,-0.176858 2.908156,-0.08244 0.365982,0.05901 0.595085,0.141454 0.697931,0.23569 v 0.07082 l -0.02275,0.165061 c 0,0.16506 0.04586,0.318312 0.148684,0.459578 0.103186,0.129645 0.240406,0.223886 0.400918,0.259296 0.194545,0.04721 0.366344,0.01162 0.537786,-0.09443 0.183258,-0.106045 0.286266,-0.247494 0.332127,-0.447958 0.06897,-0.294707 0.05732,-0.565633 -0.01111,-0.813095 -0.06897,-0.259296 -0.206011,-0.483368 -0.412199,-0.671834 -0.320841,-0.30651 -0.801668,-0.518593 -1.454105,-0.612845 -0.8586,-0.129836 -2.060839,-0.09443 -3.606297,0.09424 z M 9.2550605,18.962616 c -0.045682,0.165244 -0.068614,0.330116 -0.080077,0.495171 -0.3206616,0.2711 -0.6069441,0.459577 -0.8356698,0.589239 0.091543,-0.294707 0.2516927,-0.601232 0.4808118,-0.90752 0.1716148,-0.01181 0.2975532,-0.08244 0.4349512,-0.176858 z M 4.4123654,18.809364 6.3585531,15.120351 c 0.091721,-0.176675 0.2404059,-0.294707 0.4236694,-0.353538 0.18308,-0.07082 0.3663435,-0.04721 0.5379429,0.04721 0.1717933,0.09425 0.2862664,0.247494 0.3434137,0.435971 0.057323,0.200466 0.045857,0.388764 -0.045682,0.565634 l -1.2478892,2.380887 c 0.4465993,-0.129646 0.9044601,0.07063 0.973093,0.565634 A 6.5983564,6.7928916 0 0 1 7.7895175,18.090102 C 7.9727761,17.842609 8.2017167,17.571509 8.465042,17.394824 a 0.89281139,0.91913359 0 0 1 0.4808118,-0.106229 c 0.2289406,0.0236 0.4234859,0.118031 0.5723647,0.318312 v 0.0118 l 0.137403,0.247495 0.1488634,-0.282904 c 0.4121991,-0.718885 0.8700911,-1.107822 1.3853141,-1.166648 0.320661,-0.04722 0.698455,0.07082 0.92739,0.318313 0.194545,0.212083 0.297732,0.471563 0.309197,0.813093 v 0.0118 c 0,0.153068 -0.0344,0.318312 -0.08008,0.483183 0.183259,-0.04721 0.354879,-0.0236 0.515028,0.08243 0.114474,0.07082 0.194724,0.16506 0.263337,0.2711 0.05732,0.106045 0.09172,0.235691 0.09172,0.36534 v 0.04703 a 0.70994641,0.73087728 0 0 1 -0.103008,0.318496 c -0.297553,0.518593 -0.664086,0.95457 -1.076096,1.296295 -0.240406,0.188477 -0.457882,0.341918 -0.675525,0.43616 -0.675524,0.353354 -1.23645,0.365158 -1.6601094,0.03522 -0.492277,0.353538 -0.915742,0.58924 -1.2937504,0.707055 C 8.0415616,21.708214 7.7210988,21.68461 7.457742,21.543345 7.1487235,21.390089 6.9427135,21.130976 6.851008,20.753636 6.805326,20.989327 6.782394,21.154572 6.782394,21.248807 v 0.0236 l 0.022932,0.200281 c 0,0.153252 -0.034391,0.282903 -0.1144731,0.412554 -0.080077,0.129652 -0.1947232,0.212084 -0.3321269,0.271099 -0.171615,0.08244 -0.3548788,0.08244 -0.5379432,0 -0.1832585,-0.07063 -0.3091967,-0.212083 -0.3892689,-0.40075 -0.068613,-0.176675 -0.091543,-0.388764 -0.068613,-0.648229 0.02293,-0.318312 0.1030078,-0.74249 0.2518709,-1.296509 L 5.7177812,19.433712 C 4.9277629,20.942469 4.4469618,21.849988 4.263677,22.15633 3.9317286,22.733955 3.5539405,22.96964 3.11879,22.875216 2.9357099,22.828003 2.7866632,22.733761 2.6721902,22.580509 2.5577172,22.438871 2.4891101,22.262196 2.4661799,22.038482 l -0.4466,-2.298456 c -0.045681,-0.20028 -0.011465,-0.388764 0.1030079,-0.553802 0.1030078,-0.165244 0.2518709,-0.2711 0.4465999,-0.318313 0.1945452,-0.03541 0.377809,0 0.5379431,0.117848 0.1603282,0.106044 0.263336,0.259297 0.3091966,0.459578 l 0.1830801,0.907735 z m 12.1121166,-1.815093 -0.423308,0.377145 -0.572522,0.530579 c 0.20601,-0.353721 0.4466,-0.67205 0.767089,-0.907735 0.04586,-0.04703 0.103185,-0.08244 0.160333,-0.117847 0.114473,-0.05883 0.240406,-0.129646 0.377809,-0.165061 z m 4.659777,-0.377145 -0.492276,-0.0236 c 0.02311,-0.2711 0.05732,-0.601016 0.102823,-1.001944 a 3.2610835,3.3572279 0 0 1 0.572733,-0.09406 35.865674,36.923079 0 0 0 -0.183259,1.119598 z m -2.839366,-0.141449 -0.05697,0.117848 -0.125932,-0.117848 z"/>
 <path style="fill:#8b9cbe;fill-rule:evenodd" d="m 12.00302,17.55985 v -0.0118 c 0,-0.212084 -0.06861,-0.377146 -0.18308,-0.50679 l -0.01128,-0.01162 c -0.160328,-0.153252 -0.354879,-0.212084 -0.572522,-0.188478 -0.377631,0.04721 -0.732667,0.365342 -1.076097,0.954571 -0.171793,0.306509 -0.309196,0.613007 -0.4121989,0.931126 -0.1030078,0.341918 -0.1603329,0.648444 -0.1603329,0.931125 v 0.0236 c -0.5381536,0.447959 -0.9845331,0.730878 -1.316681,0.860306 -0.1830801,0.07082 -0.3091963,0.09443 -0.3778089,0.05901 -0.045682,-0.0236 -0.068789,-0.08262 -0.068789,-0.200281 0.022932,-0.294891 0.137403,-0.613008 0.3206616,-0.978339 a 4.4955402,4.6280794 0 0 1 0.4809903,-0.754483 0.32101857,0.33048295 0 0 0 0.3204831,0 c 0.1945414,-0.12964 0.2977276,-0.282714 0.3321228,-0.447769 0.02275,-0.129835 -0.011466,-0.23569 -0.091542,-0.341918 a 0.3263917,0.3360145 0 0 0 -0.274805,-0.141634 c -0.080256,-0.01162 -0.1603329,0.01181 -0.2518705,0.05883 l -0.2518712,0.200465 c -0.068614,0.07083 -0.160328,0.188478 -0.2746226,0.329933 l -0.3663443,0.554021 c -0.3091963,0.518592 -0.4808111,1.013558 -0.538153,1.461538 v 0.0118 c -0.011466,0.14127 0.011466,0.2711 0.068789,0.41237 0.068614,0.176859 0.1830801,0.306509 0.3321269,0.388948 a 1.1670826,1.201491 0 0 0 0.6868064,0.01162 C 8.6948107,21.05995 9.1756015,20.777047 9.7479662,20.317302 l 0.091542,0.129645 c 0.3091978,0.329933 0.7441588,0.34192 1.3508928,0.0236 0.171793,-0.07063 0.354879,-0.200465 0.572365,-0.365342 0.377809,-0.318312 0.709736,-0.718669 0.984742,-1.190256 l 0.04586,-0.165243 c 0,-0.106044 -0.04586,-0.200465 -0.137581,-0.259113 -0.06861,-0.03523 -0.148864,-0.05901 -0.228942,-0.03523 -0.08008,0.02342 -0.137403,0.07063 -0.183259,0.141265 -0.240405,0.424358 -0.526503,0.766099 -0.858442,1.037382 -0.171792,0.129461 -0.309196,0.223887 -0.435134,0.282719 h -0.02275 c -0.160329,0.09443 -0.297732,0.141455 -0.4122,0.165056 -0.114473,0.0236 -0.194545,0 -0.240405,-0.04722 -0.02293,-0.02342 -0.03422,-0.05883 -0.05715,-0.105856 L 11.099034,19.1154 c 0.60621,-0.589024 0.903936,-1.107822 0.903936,-1.555586 z m 15.615673,1.496975 c 0.778528,0.07082 1.316681,0.247494 1.625898,0.554019 0.286266,0.2711 0.389091,0.624622 0.286266,1.060609 -0.02311,0.08244 -0.05732,0.153251 -0.125938,0.188662 -0.06897,0.04703 -0.149046,0.05883 -0.229119,0.04703 -0.08008,-0.0236 -0.137219,-0.07063 -0.182901,-0.141448 -0.03422,-0.07082 -0.05732,-0.153258 -0.03422,-0.224071 0.0455,-0.211901 0.01111,-0.376956 -0.11483,-0.494987 -0.217297,-0.200282 -0.640945,-0.329932 -1.281944,-0.388948 -0.870091,-0.07063 -2.072277,0.0118 -3.629384,0.23569 l -0.20601,2.192417 c -0.125939,1.225691 -0.240406,2.203867 -0.343592,2.934691 l -0.148685,0.954731 -0.114473,0.400562 c -0.06861,0.118033 -0.160328,0.188661 -0.297731,0.188661 -0.182903,0 -0.297732,-0.129645 -0.332128,-0.388947 a 9.3295247,9.6045814 0 0 1 -0.03422,-0.459578 v -0.0118 c 0,-0.09425 0.02275,-0.165055 0.08008,-0.223886 0.05732,-0.05901 0.125933,-0.08244 0.206011,-0.09443 0.160334,-1.096046 0.3547,-2.899471 0.595452,-5.398013 -1.72869,0.28272 -3.835389,0.730662 -6.308186,1.343507 -2.175123,0.565633 -4.53353,1.202247 -7.0753268,1.956515 l -2.3239809,0.695438 -0.8930214,0.28272 -0.2174753,-0.02342 C 6.4506206,24.207139 6.3933018,24.148119 6.3703712,24.06569 6.3476212,23.98325 6.3589052,23.912439 6.3933032,23.83 6.4277012,23.75918 6.4848462,23.711968 6.564918,23.688546 l 0.8930214,-0.282904 2.3241434,-0.695441 c 2.5529212,-0.754267 4.9227672,-1.426155 7.0978902,-1.968344 2.553131,-0.624623 4.716762,-1.084378 6.513876,-1.379106 0.11483,-1.343507 0.194545,-2.309908 0.229119,-2.911085 l 0.03422,-0.895742 c -0.137581,0.212082 -0.366344,0.577625 -0.675524,1.084377 -0.274624,0.471564 -0.492278,0.789704 -0.652595,0.954732 -0.171793,0.188477 -0.343592,0.235691 -0.503564,0.176674 -0.09172,-0.03522 -0.160511,-0.09425 -0.20601,-0.188477 -0.03457,-0.09425 -0.05732,-0.223888 -0.05732,-0.376961 0,-0.212267 0.06861,-0.707271 0.182902,-1.473369 l 0.06897,-0.41237 c 0.01147,-0.09443 0,-0.165061 -0.03457,-0.188661 -0.171437,-0.129462 -0.617858,-0.09425 -1.362174,0.11803 l -0.01147,0.106046 c -0.114473,0.848693 -0.171793,1.496759 -0.171793,1.968344 0,0.176859 0.01147,0.329933 0.02311,0.435971 0.114472,-0.129646 0.251514,-0.341918 0.412204,-0.624621 0.03422,-0.07082 0.102825,-0.118031 0.171436,-0.141637 a 0.27086056,0.27884617 0 0 1 0.22912,0.03541 c 0.06861,0.04703 0.114473,0.106045 0.137219,0.188478 0.02311,0.07063 0,0.153067 -0.03422,0.22407 -0.20601,0.376956 -0.38909,0.636237 -0.537785,0.789489 -0.217654,0.212083 -0.4122,0.282719 -0.607102,0.20028 -0.125938,-0.04703 -0.217654,-0.141454 -0.286266,-0.294706 -0.06861,-0.188478 -0.102824,-0.459578 -0.102824,-0.8367 0,-0.365342 0.03422,-0.848694 0.102824,-1.449763 -0.228762,0.565796 -0.503563,1.13159 -0.8013,1.72083 -0.297732,0.554019 -0.526504,0.931126 -0.709946,1.13159 -0.171794,0.200281 -0.354701,0.2711 -0.526505,0.223888 -0.114473,-0.04722 -0.20601,-0.118032 -0.251871,-0.247494 -0.04586,-0.118032 -0.06861,-0.282903 -0.06861,-0.483184 0,-0.165244 0.01111,-0.365341 0.03422,-0.613007 l -1.259171,1.13159 c -0.767245,0.672051 -1.305398,0.860307 -1.637336,0.542026 -0.217476,-0.212083 -0.274802,-0.565633 -0.160334,-1.072439 0.04586,-0.20028 0.114651,-0.412554 0.20601,-0.624622 0.09154,-0.200464 0.183259,-0.365341 0.274801,-0.495171 0.389274,-0.542026 0.801301,-0.91935 1.27082,-1.166811 0.148685,-0.07082 0.274623,-0.12965 0.411843,-0.16506 l 0.183259,-0.04721 c 0.08008,0 0.160332,0.0236 0.217653,0.07082 0.05697,0.05884 0.09172,0.129652 0.102824,0.212085 v 0.0236 c 0,0.08243 -0.02275,0.141449 -0.08008,0.20028 a 0.26870921,0.27663139 0 0 1 -0.182902,0.106045 l -0.137581,0.03541 a 0.96128735,0.98962841 0 0 0 -0.320484,0.141454 c -0.354701,0.200465 -0.687016,0.518594 -0.984533,0.94274 -0.125937,0.188479 -0.22894,0.412554 -0.320661,0.671836 -0.06861,0.22407 -0.103008,0.412554 -0.103008,0.577625 0,0.05883 0.01128,0.106045 0.02293,0.129646 0.171616,-0.01162 0.446417,-0.188479 0.847161,-0.542027 l 0.595453,-0.54219 0.835512,-0.742275 a 1.5434644,1.5889694 0 0 1 0.297727,-0.200466 c 0.125938,-0.05883 0.240406,-0.05883 0.3547,0 0.125938,0.07082 0.194908,0.212083 0.194908,0.424352 l -0.01147,0.223886 -0.01147,0.04721 -0.05732,0.601232 c 0.137581,-0.188478 0.274979,-0.459766 0.446778,-0.789704 a 40.522566,41.717267 0 0 0 0.75544,-1.602798 c -0.309018,0.129646 -0.572365,0.23569 -0.8013,0.341918 l -0.229119,0.01162 c -0.08008,-0.0236 -0.125939,-0.08244 -0.160334,-0.153252 -0.03422,-0.07063 -0.03422,-0.153068 -0.01147,-0.23569 0.02311,-0.08244 0.08043,-0.141265 0.149047,-0.176675 l 0.423307,-0.176858 c 0.32084,-0.141454 0.641314,-0.2711 0.950321,-0.377144 0.217655,-0.542028 0.412205,-1.07244 0.584014,-1.61463 l 0.137582,-0.459577 0.04586,-0.176858 c 0.02275,-0.08244 0.06861,-0.141454 0.137219,-0.176858 a 0.24542212,0.25265775 0 0 1 0.217654,-0.03523 c 0.06861,0.01162 0.125934,0.04721 0.171794,0.106045 0.03422,0.04721 0.05697,0.117848 0.05697,0.188478 v 0.05883 l -0.102824,0.542027 c -0.08008,0.43616 -0.148685,0.848693 -0.217654,1.249299 0.790019,-0.188479 1.31668,-0.17686 1.625898,0.05883 0.171436,0.141639 0.263157,0.341919 0.263157,0.589402 l -0.08008,0.589024 -0.137219,0.954731 0.285909,-0.459577 c 0.45806,-0.754268 0.755807,-1.213862 0.893179,-1.39072 0.102824,-0.129651 0.20601,-0.212083 0.286266,-0.259297 l 0.274623,-0.01162 c 0.08008,0.03522 0.148685,0.08244 0.194545,0.153252 0.05732,0.07063 0.09172,0.188477 0.103187,0.329932 0.02275,0.212084 0.01147,0.660058 -0.02311,1.3555 -0.03422,0.577408 -0.102825,1.520365 -0.217298,2.781438 l 0.526504,-0.07063 c 1.293593,-0.165244 2.335635,-0.212267 3.102514,-0.153252 z m -16.222249,-1.591185 0.02275,0.09443 c 0,0.106044 -0.04568,0.247493 -0.137403,0.40075 -0.125933,0.212085 -0.320662,0.447964 -0.583804,0.707056 l -0.435129,0.412554 c 0.09154,-0.330115 0.22894,-0.648445 0.400739,-0.966562 0.240406,-0.400752 0.4466,-0.636236 0.629664,-0.659842 z m -5.0374191,1.308126 -0.1144731,0.353721 -0.2289405,0.789487 c -0.1375817,0.518595 -0.2174756,0.907521 -0.2405843,1.190418 -0.022751,0.200282 0,0.365158 0.04586,0.471565 0.02293,0.09425 0.080078,0.153068 0.1488631,0.176674 0.080078,0.03541 0.1488631,0.03541 0.2289407,0 0.068613,-0.0236 0.1259377,-0.08244 0.1603336,-0.176674 a 0.24237875,0.24952465 0 0 0 0,-0.224071 c -0.02275,-0.106045 0.011466,-0.400751 0.1259328,-0.872138 A 14.707907,15.141531 0 0 1 6.9200918,18.97416 c 0.022932,-0.08244 0.022932,-0.165244 -0.011466,-0.235691 -0.034398,-0.07083 -0.091542,-0.129646 -0.1716147,-0.153252 -0.068789,-0.0236 -0.1488634,-0.01162 -0.2174753,0.01162 -0.080256,0.03559 -0.1261169,0.09443 -0.1605121,0.176858 z m 0.7670886,-3.571144 c 0.068614,0.03541 0.1144731,0.09443 0.1373981,0.176858 0.034398,0.08244 0.022932,0.153252 -0.022932,0.223888 l -1.5454565,2.981903 -1.7860425,3.359064 a 2.6876693,2.7669082 0 0 1 -0.251871,0.353723 C 3.4968814,22.42752 3.3594782,22.486351 3.2106151,22.451126 A 0.39697706,0.40868088 0 0 1 2.9702092,22.274268 0.70149839,0.72218029 0 0 1 2.8786665,21.979561 L 2.4206069,19.657716 v -0.07063 c 0,-0.07083 0.02293,-0.129651 0.068791,-0.188478 0.034215,-0.05901 0.091543,-0.09443 0.1603335,-0.106045 0.091543,-0.0118 0.1603283,0 0.2289407,0.04703 0.068613,0.0474 0.1144729,0.106045 0.1259328,0.188478 l 0.4007391,2.050934 c 0.2060103,-0.341919 0.8129489,-1.47337 1.8319031,-3.418054 l 1.4883167,-2.840265 c 0.034391,-0.07082 0.1030078,-0.118033 0.1717933,-0.141639 z"/>
 <path style="fill:#8b9cbe;opacity:0.2" d="M 4.8007812 2 C 3.2495813 2 2 3.2495813 2 4.8007812 L 2 5.8007812 C 2 4.2495813 3.2495813 3 4.8007812 3 L 27.199219 3 C 28.750419 3 30 4.2495813 30 5.8007812 L 30 4.8007812 C 30 3.2495813 28.750419 2 27.199219 2 L 4.8007812 2 z"/>
</svg>
