<svg xmlns="http://www.w3.org/2000/svg" width="32" height="32" version="1">
 <path fill="#4f4f4f" d="m6.3889 7c-0.7695 0-1.3889 0.6133-1.3889 1.375v16.5c0 0.76175 0.61944 1.375 1.3889 1.375h12.5l2.7778 2.75 2.7778-2.75h4.1667c0.769 0 1.388-0.613 1.388-1.375v-16.5c-0.001-0.7617-0.62-1.375-1.39-1.375z"/>
 <path fill="#fff" opacity=".1" d="m6.3887 7c-0.7695 0-1.3887 0.6133-1.3887 1.375v1c0-0.7617 0.6192-1.375 1.3887-1.375h22.222c0.77 0 1.389 0.6133 1.389 1.375v-1c0-0.7617-0.619-1.375-1.389-1.375h-22.222z"/>
 <circle opacity=".2" cx="10" cy="12" r="8"/>
 <circle fill="#4daaf5" cx="10" cy="11" r="8"/>
 <path style="fill:#8b9cbe" d="m 9,6 0,7 2,0 0,-7 z m 0,8 0,2 2,0 0,-2 z"/>
 <path opacity=".2" d="m5 24.875v1c0 0.762 0.6192 1.375 1.3887 1.375h12.5l2.777 2.75 2.779-2.75h4.166c0.77 0 1.389-0.613 1.389-1.375v-1c0 0.762-0.619 1.375-1.389 1.375h-4.166l-2.779 2.75-2.777-2.75h-12.5c-0.7698 0-1.389-0.613-1.389-1.375z"/>
</svg>
