<svg xmlns="http://www.w3.org/2000/svg" width="32" height="32" version="1">
 <rect style="opacity:0.2" width="28" height="28" x="2" y="3" rx="8.4" ry="8.4"/>
 <rect style="fill:#b2bfd9" width="28" height="28" x="2" y="2" rx="8.4" ry="8.4"/>
 <path style="opacity:0.1" d="M 10.584939,7.3651769 C 10.049264,8.4978902 9.7113739,9.6963333 9.6825911,10.998011 H 8.6669597 v 1.666676 c 0,1.446601 -0.052894,1.347389 0.3125018,1.180997 1.3548965,-0.617327 3.0364735,0.585317 3.0364765,2.171888 0,0.781652 -0.188057,1.159244 -1.053393,2.123711 -1.4853052,1.655468 -1.5376708,1.981027 -0.609377,3.722678 0.896242,1.681529 2.230893,2.952499 4.229191,4.024764 l 1.393238,0.746098 1.437509,-0.726567 c 2.027008,-1.02323 4.403593,-3.68044 5.076852,-5.354199 l -0.354169,-1.117194 c 0.0097,0.03052 -0.127057,-0.254212 -0.316408,-0.529951 -0.02125,-0.03094 -0.05418,-0.06696 -0.07682,-0.09896 -0.261488,0.24123 -0.567644,0.772605 -0.945319,1.553394 -0.858375,1.774562 -2.096692,3.076971 -3.701844,3.895856 l -1.095063,0.498701 V 11.824839 c 2.024851,0.563979 4.165137,0.547752 6.188839,0.973964 l 0.196615,1.007819 c 0.221346,0.01256 0.45057,0.05441 0.669276,0.165366 0.09943,0.0464 0.189828,0.103232 0.278647,0.161458 V 10.998011 H 22.318081 C 22.289301,9.6963333 21.951409,8.4978902 21.415733,7.3651769 l -3.369812,2.7708501 0.250001,0.380211 -2.295586,-0.5182329 -2.295586,0.5182329 0.250002,-0.380211 z m 11.808665,7.0859801 c -0.347637,-0.0315 -0.63394,0.158206 -0.910163,0.319012 -1.006937,0.748452 -0.964176,1.523176 0.156252,2.817725 0.52826,0.610361 1.037742,1.351701 1.131517,1.647145 l 0.170573,0.536461 0.437503,-0.540368 c 1.062255,-1.311826 0.698725,-4.06641 -0.615889,-4.665392 -0.131399,-0.06887 -0.253914,-0.104083 -0.369793,-0.114583 z m -12.5235118,0.02865 c -0.2071313,-0.02284 -0.4127245,0.01741 -0.6367231,0.08593 -1.2885804,0.587121 -1.6574586,3.106238 -0.6744827,4.608101 l 0.3828142,0.583336 0.3632835,-0.704431 c 0.2001266,-0.387545 0.7348639,-1.119231 1.1888089,-1.62631 0.985241,-1.100554 0.991839,-1.933586 0.01953,-2.656265 C 10.285726,14.5886 10.077222,14.502642 9.8700912,14.479804 Z"/>
 <path style="fill:#134057" d="M 10.584939,6.3651769 C 10.049264,7.4978902 9.7113739,8.6963333 9.6825911,9.9980112 H 8.6669597 v 1.6666758 c 0,1.446601 -0.052894,1.347389 0.3125018,1.180997 1.3548965,-0.617327 3.0364735,0.585317 3.0364765,2.171888 0,0.781652 -0.188057,1.159244 -1.053393,2.123711 -1.4853052,1.655468 -1.5376708,1.981027 -0.609377,3.722678 0.896242,1.681529 2.230893,2.952499 4.229191,4.024764 l 1.393238,0.746098 1.437509,-0.726567 c 2.027008,-1.02323 4.403593,-3.68044 5.076852,-5.354199 l -0.354169,-1.117194 c 0.0097,0.03052 -0.127057,-0.254212 -0.316408,-0.529951 -0.02125,-0.03094 -0.05418,-0.06696 -0.07682,-0.09896 -0.261488,0.24123 -0.567644,0.772605 -0.945319,1.553394 -0.858375,1.774562 -2.096692,3.076971 -3.701844,3.895856 l -1.095063,0.498701 V 10.824839 c 2.024851,0.563979 4.165137,0.547752 6.188839,0.973964 l 0.196615,1.007819 c 0.221346,0.01256 0.45057,0.05441 0.669276,0.165366 0.09943,0.0464 0.189828,0.103232 0.278647,0.161458 V 9.9980112 H 22.318081 C 22.289301,8.6963333 21.951409,7.4978902 21.415733,6.3651769 l -3.369812,2.7708497 0.250001,0.380211 -2.295586,-0.5182325 -2.295586,0.5182325 0.250002,-0.380211 z m 11.808665,7.0859801 c -0.347637,-0.0315 -0.63394,0.158206 -0.910163,0.319012 -1.006937,0.748452 -0.964176,1.523176 0.156252,2.817725 0.52826,0.610361 1.037742,1.351701 1.131517,1.647145 l 0.170573,0.536461 0.437503,-0.540368 c 1.062255,-1.311826 0.698725,-4.06641 -0.615889,-4.665392 -0.131399,-0.06887 -0.253914,-0.104083 -0.369793,-0.114583 z m -12.5235118,0.02865 c -0.2071313,-0.02284 -0.4127245,0.01741 -0.6367231,0.08593 -1.2885804,0.587121 -1.6574586,3.106238 -0.6744827,4.608101 l 0.3828142,0.583336 0.3632835,-0.704431 c 0.2001266,-0.387545 0.7348639,-1.119231 1.1888089,-1.62631 0.985241,-1.100554 0.991839,-1.933586 0.01953,-2.656265 C 10.285726,13.5886 10.077222,13.502642 9.8700912,13.479804 Z"/>
 <path style="fill:#8b9cbe;opacity:0.2" d="M 10.400391 2 C 5.7467908 2 2 5.7467908 2 10.400391 L 2 11.400391 C 2 6.7467908 5.7467908 3 10.400391 3 L 21.599609 3 C 26.253209 3 30 6.7467908 30 11.400391 L 30 10.400391 C 30 5.7467908 26.253209 2 21.599609 2 L 10.400391 2 z"/>
</svg>
