<svg xmlns="http://www.w3.org/2000/svg" width="32" height="32" version="1">
 <path style="opacity:0.2" d="M 10.033547,3.0004829 C 9.745304,2.9959119 9.4567269,3.0237439 9.1725059,3.0867603 7.8612652,3.3774826 6.6817855,4.2719168 6.1131468,5.6490642 6.0168839,5.8821952 5.7895098,6.5692356 5.8088484,7.3129873 5.4195403,7.476991 5.0389409,7.6631917 4.7322052,7.9333629 3.5987743,8.9316463 3.0745816,10.373395 3.3799196,11.904866 c 0.029943,0.150264 0.034348,0.06229 0.060041,0.161599 -0.4196268,0.363803 -0.7698736,0.771048 -0.9456448,1.112021 -0.9275871,1.799414 -0.373072,3.330603 0.2265182,4.747999 0.59959,1.417397 1.5250856,2.984971 2.8423924,4.98629 1.2161719,1.847681 2.176182,3.066116 3.3541049,4.19199 3.3410667,3.193447 7.4568277,4.593468 11.4896527,3.559288 3.24486,-0.832122 6.028549,-2.91482 7.642938,-5.81072 1.562705,-2.803208 2.144554,-6.400877 1.894018,-9.9178 C 29.818076,13.16869 29.676023,11.87756 29.123835,10.583314 28.84774,9.9361917 28.420929,9.2390834 27.707415,8.6975354 26.993903,8.1559867 26.045365,7.8998966 25.290767,7.9004958 h -0.0013 c -1.160982,0.00126 -2.643858,0.691026 -3.434615,1.6666615 C 20.101222,6.8154914 18.778847,4.9371362 16.932797,3.8659966 15.761481,3.186361 14.056248,2.8281712 12.52934,3.872844 11.76372,3.3227118 10.898275,3.0142059 10.033547,3.0004829 Z"/>
 <path style="opacity:0.2;fill:#8b9cbe" d="m 106.53763,-26.516129 c -1.108,0 -2,0.892 -2,2 v 1 c 0,-1.108 0.892,-2 2,-2 h 36 c 1.108,0 2,0.892 2,2 v -1 c 0,-1.108 -0.892,-2 -2,-2 z"/>
 <path style="fill:#17191e" d="M 10.033547,2.0004829 C 9.745304,1.9959119 9.4567269,2.0237439 9.1725059,2.0867603 7.8612652,2.3774826 6.6817855,3.2719168 6.1131468,4.6490642 6.0168839,4.8821952 5.7895098,5.5692356 5.8088484,6.3129873 5.4195403,6.476991 5.0389409,6.6631917 4.7322052,6.9333629 3.5987743,7.9316463 3.0745816,9.373395 3.3799196,10.904866 c 0.029943,0.150264 0.034348,0.06229 0.060041,0.161599 -0.4196268,0.363803 -0.7698736,0.771048 -0.9456448,1.112021 -0.9275871,1.799414 -0.373072,3.330603 0.2265182,4.747999 0.59959,1.417397 1.5250856,2.984971 2.8423924,4.98629 1.2161719,1.847681 2.176182,3.066116 3.3541049,4.19199 3.3410667,3.193447 7.4568277,4.593468 11.4896527,3.559288 3.24486,-0.832122 6.028549,-2.91482 7.642938,-5.81072 1.562705,-2.803208 2.144554,-6.400877 1.894018,-9.9178 C 29.818076,12.16869 29.676023,10.87756 29.123835,9.5833144 28.84774,8.9361917 28.420929,8.2390834 27.707415,7.6975354 26.993903,7.1559867 26.045365,6.8998966 25.290767,6.9004958 h -0.0013 c -1.160982,0.00126 -2.643858,0.691026 -3.434615,1.6666615 C 20.101222,5.8154914 18.778847,3.9371362 16.932797,2.8659966 15.761481,2.186361 14.056248,1.8281712 12.52934,2.872844 11.76372,2.3227118 10.898275,2.0142059 10.033547,2.0004829 Z"/>
 <path style="opacity:0.2" d="m 19.636352,27.717617 c 2.484136,-0.634752 4.601531,-2.231936 5.800966,-4.375763 1.130013,-2.019759 1.731015,-5.25308 1.521398,-8.185025 -0.230532,-3.224495 -0.736488,-4.345198 -1.834096,-4.344329 -1.015827,0.0011 -1.631723,0.719267 -2.154696,2.781714 -0.107382,0.423475 -0.25586,0.863752 -0.32995,0.978398 -0.176842,0.273639 -0.60065,0.273639 -0.917753,0 -0.132852,-0.114646 -0.773685,-1.05659 -1.42407,-2.093212 -2.23476,-3.5618659 -3.65562,-5.3444395 -4.776486,-5.9924687 -0.606722,-0.3507756 -1.236438,-0.3709991 -1.577746,-0.050669 -0.441447,0.4143061 -0.306597,1.1458895 0.443514,2.4061786 3.392669,5.7001111 3.37854,5.6714201 2.824745,5.7354771 -0.301461,0.03485 -0.0576,0.35601 -3.222439,-4.24368 C 12.604922,8.3215925 11.331149,6.54191 11.159132,6.3793925 10.434814,5.6950781 9.1782024,5.9754692 8.7919319,6.907594 8.5054912,7.59881 8.5764412,7.7363334 11.428098,12.017272 c 1.721076,2.583709 2.647419,4.055665 2.629138,4.177688 -0.04736,0.315845 -0.309387,0.414027 -0.543004,0.203437 -0.110677,-0.09976 -1.180224,-1.504298 -2.37677,-3.121192 C 9.9409204,11.660312 8.8390724,10.234068 8.6889169,10.107772 8.0885259,9.6028058 7.3198178,9.623571 6.7070903,10.161321 6.342314,10.481449 6.1658685,10.988014 6.258274,11.449824 c 0.038445,0.192238 1.0789788,1.727235 2.7850904,4.108639 2.3216486,3.240593 2.7196126,3.84326 2.6961166,4.082988 -0.02398,0.244607 -0.06379,0.281242 -0.305614,0.281242 -0.248099,0 -0.375914,-0.129736 -1.186509,-1.204346 -3.3617322,-4.456645 -3.5634667,-4.678421 -4.255471,-4.678421 -0.4593875,0 -0.682924,0.119984 -0.8595345,0.461355 -0.491414,0.949864 0.368104,2.974423 2.8719409,6.764721 1.1433125,1.730753 1.9026095,2.681174 2.9036636,3.634559 2.870445,2.733769 5.602959,3.615673 8.728395,2.817062 z"/>
 <path style="fill:#ffca34" d="m 19.636352,26.717617 c 2.484136,-0.634752 4.601531,-2.231936 5.800966,-4.375763 1.130013,-2.019759 1.731015,-5.25308 1.521398,-8.185025 C 26.728184,10.932334 26.222228,9.811631 25.12462,9.8125 c -1.015827,0.0011 -1.631723,0.719267 -2.154696,2.781714 -0.107382,0.423475 -0.25586,0.863752 -0.32995,0.978398 -0.176842,0.273639 -0.60065,0.273639 -0.917753,0 -0.132852,-0.114646 -0.773685,-1.05659 -1.42407,-2.093212 -2.23476,-3.5618659 -3.65562,-5.3444395 -4.776486,-5.9924687 -0.606722,-0.3507756 -1.236438,-0.3709991 -1.577746,-0.050669 -0.441447,0.4143061 -0.306597,1.1458895 0.443514,2.4061786 3.392669,5.7001111 3.37854,5.6714201 2.824745,5.7354771 -0.301461,0.03485 -0.0576,0.35601 -3.222439,-4.2436798 C 12.604922,7.3215925 11.331149,5.54191 11.159132,5.3793925 10.434814,4.6950781 9.1782024,4.9754692 8.7919319,5.907594 8.5054912,6.59881 8.5764412,6.7363334 11.428098,11.017272 c 1.721076,2.583709 2.647419,4.055665 2.629138,4.177688 -0.04736,0.315845 -0.309387,0.414027 -0.543004,0.203437 -0.110677,-0.09976 -1.180224,-1.504298 -2.37677,-3.121192 C 9.9409204,10.660312 8.8390724,9.2340676 8.6889169,9.1077718 8.0885259,8.6028058 7.3198178,8.623571 6.7070903,9.1613212 6.342314,9.4814487 6.1658685,9.988014 6.258274,10.449824 c 0.038445,0.192238 1.0789788,1.727235 2.7850904,4.108639 2.3216486,3.240593 2.7196126,3.84326 2.6961166,4.082988 -0.02398,0.244607 -0.06379,0.281242 -0.305614,0.281242 -0.248099,0 -0.375914,-0.129736 -1.186509,-1.204346 -3.3617322,-4.456645 -3.5634667,-4.678421 -4.255471,-4.678421 -0.4593875,0 -0.682924,0.119984 -0.8595345,0.461355 -0.491414,0.949864 0.368104,2.974423 2.8719409,6.764721 1.1433125,1.730753 1.9026095,2.681174 2.9036636,3.634559 2.870445,2.733769 5.602959,3.615673 8.728395,2.817062 z"/>
 <path style="opacity:0.1;fill:#8b9cbe" d="M 10.033203 2 C 9.7449601 1.995429 9.456096 2.0229211 9.171875 2.0859375 C 7.8606343 2.3766598 6.68192 3.2712901 6.1132812 4.6484375 C 6.0170183 4.8815685 5.7892552 5.5687483 5.8085938 6.3125 C 5.4192857 6.4765037 5.0391576 6.6634225 4.7324219 6.9335938 C 3.6870977 7.854276 3.1700953 9.1531946 3.3339844 10.550781 C 3.4572862 9.5435697 3.9422164 8.6295771 4.7324219 7.9335938 C 5.0391576 7.6634225 5.4192857 7.4765037 5.8085938 7.3125 C 5.7892552 6.5687483 6.0170183 5.8815685 6.1132812 5.6484375 C 6.68192 4.2712901 7.8606343 3.3766598 9.171875 3.0859375 C 9.456096 3.0229211 9.7449601 2.995429 10.033203 3 C 10.897931 3.013723 11.763677 3.3229147 12.529297 3.8730469 C 14.056205 2.8283741 15.762278 3.1855988 16.933594 3.8652344 C 18.779644 4.936374 20.101839 6.8147403 21.855469 9.5664062 C 22.646226 8.5907707 24.12808 7.9016506 25.289062 7.9003906 L 25.291016 7.9003906 C 26.045614 7.8997914 26.993519 8.1557169 27.707031 8.6972656 C 28.420545 9.2388136 28.846952 9.9368621 29.123047 10.583984 C 29.675235 11.87823 29.817495 13.168704 29.943359 14.935547 C 29.967125 15.269154 29.975716 15.603187 29.984375 15.9375 C 29.997743 15.270745 29.990869 14.602463 29.943359 13.935547 C 29.817495 12.168704 29.675235 10.87823 29.123047 9.5839844 C 28.846952 8.9368617 28.420545 8.2388136 27.707031 7.6972656 C 26.993519 7.1557169 26.045614 6.8997914 25.291016 6.9003906 L 25.289062 6.9003906 C 24.12808 6.9016506 22.646226 7.5907707 21.855469 8.5664062 C 20.101839 5.8147403 18.779644 3.936374 16.933594 2.8652344 C 15.762278 2.1855988 14.056205 1.8283741 12.529297 2.8730469 C 11.763677 2.3229147 10.897931 2.013723 10.033203 2 z M 3.3046875 11.201172 C 2.9510608 11.529302 2.6489288 11.877466 2.4941406 12.177734 C 2.0303471 13.077441 1.9375271 13.910414 2.0351562 14.695312 C 2.0883824 14.209458 2.2218739 13.705901 2.4941406 13.177734 C 2.6699118 12.836761 3.0198263 12.430209 3.4394531 12.066406 C 3.4137601 11.967097 3.4108024 12.054561 3.3808594 11.904297 C 3.3334517 11.666516 3.3129254 11.433303 3.3046875 11.201172 z"/>
 <path style="fill:#8b9cbe;opacity:0.2" d="M 10.193359 5 C 9.6144264 4.9970019 9.0324347 5.3256251 8.7910156 5.9082031 C 8.6699056 6.2004563 8.6285225 6.410056 8.8183594 6.859375 C 9.2292798 5.96944 10.447671 5.7076166 11.158203 6.3789062 C 11.33022 6.5414238 12.605417 8.3213389 13.990234 10.333984 C 17.155073 14.933674 16.91143 14.612975 17.212891 14.578125 C 17.509126 14.54386 17.599886 14.46013 17.148438 13.587891 C 16.930678 13.630209 16.889143 13.547179 13.990234 9.3339844 C 12.605417 7.3213387 11.33022 5.5414237 11.158203 5.3789062 C 10.886584 5.1222883 10.540719 5.0017989 10.193359 5 z M 14.632812 5.2089844 C 14.35688 5.2001228 14.114013 5.2753818 13.943359 5.4355469 C 13.676926 5.6855996 13.648561 6.0719259 13.810547 6.5996094 C 13.84677 6.5406912 13.890617 6.4850465 13.943359 6.4355469 C 14.284667 6.1152168 14.914762 6.1355525 15.521484 6.4863281 C 16.64235 7.1343573 18.064068 8.9166497 20.298828 12.478516 C 20.949213 13.515138 21.589804 14.45762 21.722656 14.572266 C 22.039759 14.845905 22.463783 14.845905 22.640625 14.572266 C 22.714715 14.45762 22.863321 14.017225 22.970703 13.59375 C 23.493676 11.531303 24.109173 10.8136 25.125 10.8125 C 26.222608 10.811631 26.728452 11.931755 26.958984 15.15625 C 26.975056 15.381044 26.977707 15.610236 26.984375 15.837891 C 27.000615 15.273685 26.998516 14.70918 26.958984 14.15625 C 26.728452 10.931755 26.222608 9.811631 25.125 9.8125 C 24.109173 9.8136 23.493676 10.531303 22.970703 12.59375 C 22.863321 13.017225 22.714715 13.45762 22.640625 13.572266 C 22.463783 13.845905 22.039759 13.845905 21.722656 13.572266 C 21.589804 13.45762 20.949213 12.515138 20.298828 11.478516 C 18.064068 7.9166497 16.64235 6.1343573 15.521484 5.4863281 C 15.218123 5.3109403 14.908745 5.2178459 14.632812 5.2089844 z M 7.703125 8.7441406 C 7.3593082 8.75343 7.013395 8.8932343 6.7070312 9.1621094 C 6.342255 9.4822369 6.165407 9.9874088 6.2578125 10.449219 C 6.2626469 10.473392 6.329378 10.57888 6.3652344 10.644531 C 6.4459955 10.463759 6.5554885 10.295103 6.7070312 10.162109 C 7.3197587 9.6243594 8.0890621 9.6024557 8.6894531 10.107422 C 8.8396086 10.233718 9.9401772 11.660451 11.136719 13.277344 C 12.333265 14.894238 13.402995 16.298678 13.513672 16.398438 C 13.747289 16.609027 14.009281 16.511157 14.056641 16.195312 C 14.063224 16.15137 13.907204 15.873184 13.675781 15.490234 C 13.622551 15.473215 13.566823 15.44635 13.513672 15.398438 C 13.402995 15.298678 12.333265 13.894238 11.136719 12.277344 C 9.9401772 10.660451 8.8396086 9.2337177 8.6894531 9.1074219 C 8.3892576 8.8549389 8.0469418 8.7348513 7.703125 8.7441406 z M 5.9921875 13.039062 C 5.5328 13.039062 5.309423 13.160582 5.1328125 13.501953 C 4.9849961 13.78767 4.9754464 14.184593 5.0800781 14.683594 C 5.0989839 14.624106 5.1055262 14.554695 5.1328125 14.501953 C 5.309423 14.160582 5.5328 14.039062 5.9921875 14.039062 C 6.6841918 14.039063 6.8863147 14.262105 10.248047 18.71875 C 11.058642 19.79336 11.185495 19.921875 11.433594 19.921875 C 11.675418 19.921875 11.716254 19.885232 11.740234 19.640625 C 11.750243 19.538513 11.643787 19.321737 11.384766 18.912109 C 11.165782 18.891734 11.002477 18.718902 10.248047 17.71875 C 6.8863147 13.262105 6.6841918 13.039063 5.9921875 13.039062 z"/>
</svg>
