<svg xmlns="http://www.w3.org/2000/svg" width="32" height="32" version="1">
 <rect opacity=".2" width="23" height="20" x="-25" y="-27" rx="1" ry="1.053" transform="matrix(0,-1,-1,0,0,0)"/>
 <rect style="fill:#7767c0" width="23" height="20" x="-24" y="-27" rx="1" ry="1.053" transform="matrix(0,-1,-1,0,0,0)"/>
 <rect style="fill:#9182d7" width="23" height="20" x="-29" y="-23" rx="1" ry="1.053" transform="matrix(0,-1,-1,0,0,0)"/>
 <path style="opacity:.2" d="m13 12.000025c-3.866004 0-6.999988 3.133984-6.999988 6.999988 0 3.866003 3.133984 6.999987 6.999988 6.999987 3.866003 0 7.000025-3.133984 7.000025-6.999987 0-3.866004-3.134022-6.999988-7.000025-6.999988zm-0.701178 1.337877c0.08164-0.0076 0.185197 0.0038 0.26759 0 0.01134 0.03893-0.05934 0.177638-0.152315 0.380863-0.592667 1.294791-0.62623 2.812536-0.07635 3.623055 0.0994 0.147024 0.189355 0.286489 0.189355 0.30463 0 0.0189-0.107339 0.03779-0.228662 0.03779-0.284976 0-0.554532-0.173102-1.105474-0.609373-0.244914-0.193889-0.562281-0.356031-0.685569-0.380863-0.193512-0.03855-0.245669-0.02268-0.496101 0.228662-0.232819 0.232819-0.30463 0.359055-0.30463 0.572258 0 0.808743 0.959547 1.449865 2.744126 1.828158 2.423585 0.513637 3.021052 0.975571 3.087912 2.24999 0.08391 1.59806-0.767357 2.803465-2.630853 3.736328-0.222236 0.111496-0.363591 0.153449-0.457059 0.189354-0.0412-0.0037-0.07219 0.0037-0.113385 0-0.01512-0.04951-0.03893-0.163653-0.03893-0.380825 0-0.848806-0.333733-1.722369-0.837922-2.210948-0.135307-0.13115-0.515376-0.408529-0.839811-0.609373-0.324283-0.200693-0.651666-0.433663-0.724611-0.533216-0.120945-0.165165-0.130016-0.267213-0.03779-0.572258 0.169323-0.557329 0.370016-0.868574 0.761726-1.220712 0.205228-0.184441 0.411515-0.33789 0.45702-0.341669 0.04535-0.0037-0.260787-0.09676-0.722645-0.191245-0.461859-0.09449-1.138999-0.293669-1.488303-0.419943-0.638702-0.230929-1.499376-0.715275-1.828119-1.066394l-0.03893-0.03893c0.471042-1.876308 1.792554-3.413216 3.544932-4.154267 0.366614-0.154961 0.745549-0.2623 1.144554-0.343938 0.198803-0.04044 0.404145-0.05518 0.609373-0.07635zm5.718765 2.859364c0.143244 0.08844 0.683452 1.259188 0.837883 1.830085 0.199559 0.737046 0.184819 2.011956 0 2.744164-0.0703 0.278551-0.159496 0.539792-0.189354 0.572258-0.03024 0.03402-0.139464-0.154204-0.26759-0.380863-0.128126-0.226771-0.537109-0.709795-0.876964-1.068359-0.980939-1.035137-1.135522-1.574286-0.724611-2.400416 0.207118-0.416579 1.10982-1.365278 1.220712-1.296869z"/>
 <path style="fill:#8b9cbe" d="m13 11c-3.866004 0-6.999988 3.134022-6.999988 7.000025s3.133984 6.999988 6.999988 6.999988c3.866003 0 7.000025-3.133985 7.000025-6.999988s-3.134022-7.000025-7.000025-7.000025zm-0.701178 1.337915c0.08164-0.0076 0.185197 0.0038 0.26759 0 0.01134 0.03893-0.05934 0.177638-0.152315 0.380863-0.592667 1.29479-0.62623 2.812535-0.07635 3.623017 0.0994 0.147024 0.189355 0.286488 0.189355 0.30463 0 0.0189-0.107339 0.03779-0.228662 0.03779-0.284976 0-0.554532-0.173102-1.105474-0.609373-0.244914-0.19389-0.562281-0.356409-0.685569-0.380863-0.193512-0.03855-0.245669-0.02268-0.496101 0.228662-0.232819 0.232819-0.30463 0.359055-0.30463 0.572258 0 0.808705 0.959547 1.449827 2.744126 1.82812 2.423585 0.513675 3.021052 0.975609 3.087912 2.250028 0.08391 1.598022-0.767357 2.803465-2.630853 3.736328-0.222236 0.111496-0.363591 0.153448-0.457059 0.189354-0.0412-0.0037-0.07219 0.0037-0.113385 0-0.01512-0.04951-0.03893-0.163654-0.03893-0.380863 0-0.848769-0.333733-1.722369-0.837922-2.21091-0.135307-0.13115-0.515376-0.408529-0.839811-0.609411-0.324283-0.200693-0.651666-0.433663-0.724611-0.533178-0.120945-0.165166-0.130016-0.267213-0.03779-0.572259 0.169323-0.557329 0.370016-0.868573 0.761726-1.220711 0.205228-0.184441 0.411515-0.338268 0.45702-0.34167 0.04535-0.0037-0.260787-0.09676-0.722645-0.191244-0.461859-0.09449-1.138999-0.293669-1.488303-0.419905-0.638702-0.230929-1.499376-0.715276-1.828119-1.066432l-0.03893-0.03893c0.471042-1.876309 1.792554-3.413216 3.544932-4.154305 0.366614-0.154961 0.745549-0.2623 1.144554-0.34356 0.198803-0.04082 0.404145-0.05518 0.609373-0.07635zm5.718765 2.859364c0.143244 0.08844 0.683452 1.259187 0.837883 1.830085 0.199559 0.737045 0.184819 2.011956 0 2.744126-0.0703 0.278551-0.159496 0.53983-0.189354 0.572258-0.03024 0.03402-0.139464-0.153827-0.26759-0.380863-0.128126-0.226772-0.537109-0.709757-0.876964-1.068359-0.980939-1.035099-1.135522-1.574249-0.724611-2.400378 0.207118-0.416579 1.10982-1.365317 1.220712-1.296869z"/>
 <path opacity=".2" d="m3 28v1c0 0.554 0.4696 1 1.0527 1h17.894c0.583 0 1.053-0.446 1.053-1v-1c0 0.554-0.47 1-1.053 1h-17.894c-0.5834 0-1.053-0.446-1.053-1z"/>
 <path fill="#fff" opacity=".2" d="m4.0526 6c-0.5831 0-1.0526 0.446-1.0526 1v1c0-0.554 0.4695-1 1.0526-1h17.894c0.584 0 1.053 0.446 1.053 1v-1c0-0.554-0.469-1-1.053-1h-17.894z"/>
 <path fill="#fff" style="opacity:.1" d="m8.0526 1c-0.5831 0-1.0526 0.446-1.0526 1v1c0-0.554 0.4695-1 1.0526-1h17.894c0.584 0 1.053 0.446 1.053 1v-1c0-0.554-0.469-1-1.053-1h-17.894z"/>
 <circle style="fill:#4f4f4f" cx="21" cy="23" r="8"/>
 <path fill-rule="evenodd" opacity=".2" d="m28.979 23.424a8 8 0 0 1 -7.979 7.576 8 8 0 0 1 -7.979 -7.424 8 8 0 0 0 -0.021 0.424 8 8 0 0 0 8 8 8 8 0 0 0 8 -8 8 8 0 0 0 -0.021 -0.576z"/>
 <path style="fill:#8b9cbe" d="m22 18.999955v4.000045h1.5l-2.50002 3-2.49998-3h1.5v-4.000045z"/>
 <path style="fill:#8b9cbe" d="m18 26h6v0.999955h-6z"/>
</svg>
