<svg xmlns="http://www.w3.org/2000/svg" width="32" height="32" version="1">
 <rect style="opacity:0.2" width="28" height="28" x="2" y="3" rx="14" ry="14"/>
 <circle style="fill:#62a325" cx="16" cy="16" r="14"/>
 <path style="opacity:0.3" d="m 14.677538,2.0751689 a 14,14 0 0 0 -5.0668151,1.469677 c 0.070452,0.2240215 -0.011717,0.4767969 -0.2693384,0.7 -0.1743,0.1510385 -0.3171862,0.3863139 -0.3171862,0.5236323 0,0.4197739 0.3796046,1.0643662 0.6822308,1.1580154 0.4028449,0.1246539 0.2672815,0.5541308 -0.2501908,0.7916031 -0.2391846,0.1100616 -0.5336154,0.4259231 -0.6544461,0.7028 -0.1208308,0.276877 -0.2990616,0.5502001 -0.3951231,0.6070616 -0.096089,0.056833 -0.175,0.2733015 -0.175,0.4812554 0,0.2903815 0.1325584,0.4311569 0.5687446,0.6056615 0.3123723,0.1249662 0.6860754,0.2160093 0.8312554,0.2023431 0.8333659,-0.078434 0.8917789,0.4070231 0.1626908,1.3562767 -0.3870677,0.503957 -0.57316,0.630722 -0.8367154,0.567388 -0.2459908,-0.05912 -0.3804339,0.01045 -0.4921862,0.254294 -0.1181385,0.257761 -0.3111446,0.345552 -0.8298877,0.381446 -0.5098908,0.03529 -0.7384246,0.138869 -0.9296862,0.418363 -0.1394292,0.203754 -0.3410723,0.369137 -0.4484415,0.369137 -0.1073703,0 -0.3595631,0.136629 -0.5605493,0.30352 -0.4091338,0.339748 -0.5688846,0.37394 -0.7123092,0.15176 -0.1895385,-0.294 -0.5985539,-0.145385 -1.2072308,0.437231 -0.5382462,0.515846 -0.6035077,0.653692 -0.5223077,1.100615 0.1444692,0.795976 0.5761861,1.502308 1.0691369,1.7486 0.4301554,0.214965 0.4385231,0.238151 0.1777354,0.514059 -0.1500369,0.158749 -0.4074108,0.328849 -0.57148,0.37871 -0.4738785,0.144007 -0.2071569,0.324628 0.6384754,0.43203 0.8654477,0.109911 1.1344308,0.423963 0.7300785,0.85176 -0.2254969,0.238571 -0.2128,0.282972 0.1490246,0.509966 0.7071077,0.444769 1.2692616,0.172308 0.6057692,-0.291846 -0.4265692,-0.298308 -0.1283692,-0.42 0.4976462,-0.203539 0.4988092,0.172696 0.5974877,0.162874 0.8927693,-0.09297 0.6051877,-0.524397 1.2630154,0.251203 0.7095738,0.836715 -0.3522292,0.372648 -0.2454738,0.822435 0.2105493,0.884574 0.2014815,0.02746 0.6201246,0.214975 0.9310538,0.416995 0.3109185,0.20202 0.6496862,0.367769 0.7519507,0.367769 0.102265,0 0.390729,0.204939 0.641211,0.45528 0.508243,0.50792 0.790408,0.572417 0.933789,0.214653 0.172405,-0.430177 0.103051,-0.65183 -0.360941,-1.158016 -0.369407,-0.403017 -0.969339,-1.474307 -0.969339,-1.73083 0,-0.158653 0.610109,-0.02413 0.951559,0.209181 0.213693,0.146031 0.559461,0.33432 0.768363,0.419731 0.222998,0.09114 0.453804,0.373908 0.559181,0.683588 0.165157,0.485315 0.230236,0.527735 0.812108,0.527735 h 0.633005 l 0.09571,1.137446 c 0.115177,1.368231 0.224872,1.645323 0.694529,1.758185 0.345972,0.08314 0.715034,0.618821 0.715034,1.037701 0,0.111343 -0.248909,0.384063 -0.552343,0.605662 -0.376729,0.275121 -0.539129,0.508997 -0.514059,0.738285 0.03127,0.286278 -0.03352,0.330895 -0.438867,0.300784 -0.261456,-0.01945 -0.714528,0.0722 -1.006256,0.203711 -0.344723,0.155389 -0.718695,0.205143 -1.069137,0.142186 -0.403254,-0.07246 -0.540034,-0.04432 -0.540034,0.113475 0,0.116017 -0.14084,0.333362 -0.313083,0.482613 -0.425977,0.369115 -0.249964,0.564415 0.403319,0.447074 0.406043,-0.07293 0.564447,-0.04051 0.634372,0.13399 0.149068,0.371948 -0.228771,0.904077 -0.579686,0.816211 -0.222115,-0.05558 -0.328935,0.02013 -0.397848,0.283005 -0.0244,0.0931 -0.06799,0.171963 -0.120314,0.23926 a 14,14 0 0 0 2.2148,0.654877 c -0.06988,-0.134239 -0.149304,-0.255446 -0.22695,-0.310348 -0.360791,-0.255112 -0.119442,-0.916946 0.377343,-1.036323 0.505701,-0.12152 0.426041,-0.449842 -0.124417,-0.512691 -0.481773,-0.05501 -0.995357,-0.542984 -0.83398,-0.792971 0.108198,-0.167623 0.569617,-0.143187 1.502523,0.07793 0.421281,0.09986 0.709628,-0.100456 1.685708,-1.168893 0.565201,-0.618692 0.999503,-0.876367 1.476569,-0.876367 0.181677,0 0.830448,-0.167161 1.442431,-0.371873 1.155323,-0.386486 1.606661,-0.372529 1.564015,0.04922 -0.08852,0.877563 0.476862,0.848593 1.397308,-0.0711 0.383611,-0.38332 0.733783,-0.660175 0.779294,-0.616603 0.176077,0.168582 -0.140593,0.989822 -0.509966,1.322031 -0.468107,0.421055 -0.491325,0.687098 -0.07929,0.89824 0.225744,0.115672 0.321494,0.350678 0.356838,0.877735 l 0.04785,0.719137 h 0.585157 c 0.205272,0 0.375146,0.02815 0.512691,0.08066 a 14,14 0 0 0 6.782569,-11.554308 c -0.214179,-0.457639 -0.198779,-0.734322 0,-1.045897 a 14,14 0 0 0 -0.06289,-0.784765 c -0.127659,-0.0058 -0.257622,-0.0117 -0.407422,-0.0055 -0.705298,0.02937 -1.309754,-0.248705 -1.309754,-0.602926 0,-0.07465 -0.250191,-0.38303 -0.556446,-0.684966 -0.346898,-0.341988 -0.525194,-0.643871 -0.473049,-0.801167 0.04729,-0.14267 -0.05485,-0.372852 -0.235157,-0.529103 -0.175539,-0.152104 -0.319922,-0.397244 -0.319922,-0.544137 0,-0.234543 -0.149283,-0.264007 -1.227692,-0.237892 l -1.227692,0.03008 0.0205,1.209923 c 0.03644,2.1196 0.352068,2.6698 1.326123,2.31463 0.445868,-0.16254 1.541293,-0.03947 1.852523,0.207814 0.112636,0.08953 0.27579,0.41425 0.36231,0.721873 0.08653,0.307623 0.407378,0.84 0.713677,1.182569 0.620587,0.694184 0.668769,0.965009 0.313083,1.780046 -0.310316,0.711092 -0.644431,0.629117 -0.578319,-0.142186 l 0.04922,-0.574215 -0.525,0.09844 c -0.290479,0.05473 -0.654576,0.269597 -0.817579,0.481255 -0.232357,0.301711 -0.341255,0.34621 -0.515426,0.207814 -0.121348,-0.09644 -0.220123,-0.300117 -0.220123,-0.451166 0,-0.151049 -0.149972,-0.319221 -0.332231,-0.374608 -0.182258,-0.05539 -0.432094,-0.33068 -0.555078,-0.6125 -0.196733,-0.4508 -0.191833,-0.588646 0.03691,-1.136153 0.232098,-0.555391 0.234381,-0.647016 0.0205,-0.85176 -0.196129,-0.187784 -0.29723,-0.193847 -0.555078,-0.03965 -0.259226,0.155002 -0.381166,0.143565 -0.689059,-0.06289 -0.205789,-0.138008 -0.56434,-0.251559 -0.797073,-0.251559 -0.472511,0 -0.615236,-0.22989 -0.615236,-0.989843 0,-0.70197 -0.41874,-0.957094 -1.415077,-0.865426 -0.691901,0.06366 -0.844394,0.01808 -1.402692,-0.411524 -0.344583,-0.26515 -0.88914,-0.903884 -1.211323,-1.42057 -0.322205,-0.516632 -0.668845,-1.056397 -0.769731,-1.199046 -0.145858,-0.2062307 -0.110395,-0.4041691 0.175,-0.966603 l 0.359574,-0.7068385 -0.760157,0.1025393 c -1.352723,0.1829369 -1.626262,0.3582492 -1.044529,0.6699215 0.226552,0.1213908 0.236449,0.1837554 0.06152,0.3855493 -0.114584,0.1321815 -0.168495,0.3411907 -0.118946,0.4648434 0.04959,0.123652 -0.01305,0.414626 -0.139451,0.646681 -0.12642,0.232056 -0.232303,0.557717 -0.236524,0.724608 -0.01326,0.522006 -0.906737,0.936751 -1.901739,0.881838 -1.507907,-0.08321 -1.630138,-0.05942 -2.165584,0.4375 -0.66933,0.621137 -0.755828,0.910776 -0.444339,1.487447 0.302239,0.559601 0.837889,0.782933 1.766369,0.736917 0.830351,-0.04119 0.924259,0.0321 0.734182,0.581053 -0.161355,0.465963 -0.703629,0.645627 -1.070505,0.354103 -0.282864,-0.224775 -1.258061,-0.05107 -1.55723,0.277545 -0.125419,0.13776 -0.311522,0.498572 -0.412893,0.801166 -0.175,0.522373 -0.226014,0.55412 -1.010348,0.630269 -0.7824811,0.07599 -0.8576503,0.05092 -1.4204611,-0.467578 -0.6282877,-0.578782 -0.7347092,-1.020589 -0.4320292,-1.782846 0.1339908,-0.337422 0.23394,-0.392291 0.5919954,-0.32676 0.7098215,0.12992 0.9898431,-0.116857 0.9898431,-0.875 0,-0.36764 -0.071443,-0.711319 -0.1585985,-0.762893 -0.087123,-0.05157 -0.1585985,-0.2464 -0.1585985,-0.433396 0,-0.186997 -0.089289,-0.427453 -0.19824,-0.533207 C 9.1434217,12.22706 9.1663709,12.1446 9.4197817,11.965562 c 0.17388,-0.122845 0.4596416,-0.205553 0.6343723,-0.184574 0.174742,0.02099 0.656622,-0.05447 1.071872,-0.166794 0.599997,-0.162292 0.776182,-0.284782 0.857231,-0.600191 0.153979,-0.599243 0.529857,-1.080046 0.844922,-1.080046 0.497861,0 0.508049,-1.1705077 0.02461,-2.872477 -0.07215,-0.2515692 -0.268153,-0.4117077 -0.616,-0.4978615 C 11.955701,6.4938329 11.649855,6.3020329 11.55724,6.1370483 11.465701,5.9720636 11.296625,5.8376636 11.182471,5.8376636 c -0.114154,0 -0.337174,-0.1366292 -0.494922,-0.30352 -0.158781,-0.1679892 -0.487329,-0.30352 -0.7369168,-0.30352 -0.5914462,0 -0.601257,-0.4072923 -0.015034,-0.6220738 0.6197048,-0.227037 1.5838308,0.070562 1.8169848,0.5605492 0.316142,0.6643431 0.666497,0.3871215 0.779294,-0.6166031 0.139515,-1.2414769 0.567517,-1.5982616 1.918215,-1.5982616 h 0.970706 L 14.995608,2.5290436 C 14.863146,2.3963666 14.7533,2.234182 14.676838,2.0751205 Z m 5.03257,0.4402354 c -0.02696,0.024653 -0.05352,0.044745 -0.08066,0.072461 -0.324606,0.3314662 -0.476786,0.3787215 -0.978901,0.3021523 -0.876368,-0.1336461 -0.763582,0.2192292 0.206446,0.6453139 0.524569,0.2304184 0.861506,0.4930584 0.976166,0.7587892 0.553226,1.282077 0.933843,1.972277 1.125169,2.0426001 0.386702,0.1420784 0.616926,-0.1432954 0.702736,-0.8722647 0.09847,-0.8363923 0.381683,-1.0137077 0.890034,-0.5564461 0.19727,0.1774446 0.472726,0.3226569 0.6125,0.3226569 0.434226,0 0.756053,0.1744615 0.756053,0.4101569 0,0.1242231 0.146527,0.4234677 0.32676,0.6658185 0.264999,0.3563215 0.445157,0.4416031 0.940628,0.4416031 0.608074,0 0.981379,0.1137661 1.743216,0.5345738 0.01182,0.00652 0.02368,0.00879 0.03555,0.015036 A 14,14 0 0 0 19.711648,2.5152396 Z M 2.0033382,15.939251 a 14,14 0 0 0 -0.00269,0.06031 14,14 0 0 0 0.2734307,2.689077 c 0.5071985,0.20664 0.6473385,0.124751 0.7,-0.347264 0.027182,-0.243902 0.1547431,-0.520929 0.2843724,-0.616603 0.2002,-0.147539 0.164123,-0.222923 -0.246077,-0.502923 -0.2655715,-0.180926 -0.5273715,-0.497542 -0.58111,-0.703234 -0.052123,-0.198154 -0.2282,-0.415692 -0.4279692,-0.579385 z m 4.4064462,4.627969 c -0.1305877,-0.01373 -0.2884862,0.05669 -0.4634754,0.224215 -0.3702354,0.35448 -0.3143323,1.066661 0.1052736,1.348093 0.4805769,0.322301 0.6666154,0.228426 0.727343,-0.366402 0.07498,-0.733934 -0.08183,-1.175677 -0.3691369,-1.205831 z m 2.3761231,2.116369 c -0.142983,0.0047 -0.300483,0.107316 -0.4580046,0.322657 -0.1671708,0.228513 -0.2130908,0.523202 -0.1490246,0.970706 0.078763,0.549964 0.044394,0.667391 -0.2433631,0.814844 -0.3697077,0.189441 -0.4487969,0.752155 -0.1462892,1.041793 0.3013015,0.288487 0.5882585,0.213113 0.6917938,-0.181838 0.1474631,-0.56252 0.9708139,-0.628891 1.5339692,-0.123049 0.239659,0.215277 0.436132,0.324681 0.436132,0.241995 0,-0.08265 -0.25004,-0.382749 -0.5550781,-0.665818 -0.4672123,-0.43358 -0.5537107,-0.618671 -0.5537107,-1.177185 0,-0.788631 -0.2418877,-1.254077 -0.5564462,-1.244169 z m -3.9019077,1.8074 a 14,14 0 0 0 0.3240246,0.40879 c -0.095415,-0.146462 -0.2044,-0.288616 -0.3240462,-0.408154 z m 4.7182154,2.149216 c -0.071253,0.02443 -0.1011715,0.113249 -0.1011715,0.269338 0,0.157963 -0.1010272,0.323885 -0.2242154,0.369137 -0.1635738,0.06006 -0.2015138,0.249911 -0.1380831,0.702736 0.011886,0.08484 0.015,0.152761 0.019138,0.222847 a 14,14 0 0 0 0.5824216,0.299417 c -0.00958,-0.242146 0.034634,-0.527261 0.1613231,-0.884574 0.2148461,-0.60592 0.2225241,-0.758046 0.047848,-0.864058 -0.16436,-0.09975 -0.2760154,-0.139279 -0.3472647,-0.114843 z"/>
 <path style="fill:#8b9cbe;opacity:0.2" d="M 16 2 C 8.244 2 2 8.244 2 16 C 2 16.168842 2.0195214 16.33264 2.0253906 16.5 C 2.2891326 8.9794325 8.4128418 3 16 3 C 23.500fae9 3 29.710867 8.9794325 29.974609 16.5 C 29.980479 16.33264 30 16.168842 30 16 C 30 8.244 23.756 2 16 2 z"/>
 <path style="opacity:0.2;fill-rule:evenodd" d="M 14.787135,23.466014 C 13.470249,18.547984 7.6603621,21.601143 5.2853186,17.857242 2.9102748,14.113341 4.2787525,9.9263923 3.0546846,11.294 c -1.2240683,1.367608 -0.7205651,4.287002 -0.7205651,4.287002 0,0 -0.4314998,-2.591725 -0.9356773,-1.152004 -0.50417734,1.43972 0.7912674,3.571697 0.7912674,3.571697 0,0 -1.43938959,-2.447916 -1.1516866,-0.93607 0.2877055,1.511846 2.0268862,3.675452 2.0268862,3.675452 0,0 -1.2236036,-1.368024 -1.0798184,-0.216155 0.1437855,1.15187 2.0756812,1.588916 2.0756812,1.588916 0,0 -1.8718097,0.359634 -0.6481455,1.367706 1.2236638,1.008073 3.4435565,0.144618 3.4435565,0.144618 0,0 -1.9440086,1.782961 0.071634,2.287236 2.0156437,0.504276 4.259494,-0.647238 4.259494,-0.647238 0,0 -0.792211,1.871614 1.223542,1.727976 2.015755,-0.143637 2.862131,-1.712671 2.376282,-3.527122 z"/>
 <path style="fill:#b2bfd9;fill-rule:evenodd" d="M 14.787135,22.466014 C 13.470249,17.547984 7.6603621,20.601143 5.2853186,16.857242 2.9102748,13.113341 4.2787525,8.9263923 3.0546846,10.294 c -1.2240683,1.367608 -0.7205651,4.287002 -0.7205651,4.287002 0,0 -0.4314998,-2.591725 -0.9356773,-1.152004 -0.50417734,1.43972 0.7912674,3.571697 0.7912674,3.571697 0,0 -1.43938959,-2.447916 -1.1516866,-0.93607 0.2877055,1.511846 2.0268862,3.675452 2.0268862,3.675452 0,0 -1.2236036,-1.368024 -1.0798184,-0.216155 0.1437855,1.15187 2.0756812,1.588916 2.0756812,1.588916 0,0 -1.8718097,0.359634 -0.6481455,1.367706 1.2236638,1.008073 3.4435565,0.144618 3.4435565,0.144618 0,0 -1.9440086,1.782961 0.071634,2.287236 2.0156437,0.504276 4.259494,-0.647238 4.259494,-0.647238 0,0 -0.792211,1.871614 1.223542,1.727976 2.015755,-0.143637 2.862131,-1.712671 2.376282,-3.527122 z"/>
 <path style="opacity:0.2;fill-rule:evenodd" d="m 20.219707,3.5044922 c -1.0026,0.012501 1.937402,3.2019153 1.736156,7.9843748 C 21.743751,16.529515 14.228987,16.760141 15,21.912305 c -0.699607,-0.338828 -1.137704,-1.555514 -0.962804,-3.398469 0.237729,-2.504999 -1.415105,-3.521188 -2.838365,-3.513672 -0.40731,0.0022 -0.778706,0.07823 -1.056835,0.239258 -3.2865785,1.902846 -2.4327276,7.577233 0.149024,12.06507 1.184628,2.059233 3.019805,3.245803 5.014843,3.649024 0.361334,0.02771 0.725075,0.04648 1.09375,0.04648 1.190302,0 2.343337,-0.150909 3.445312,-0.42793 2.968889,-1.104501 5.469688,-3.872312 5.806446,-8.029492 1.851209,0.238443 5.115659,-1.780424 5.416796,-2.907125 0.283489,-1.060672 -1.427641,-0.421335 -1.911328,-0.170898 0.447939,-0.250307 2.314217,-1.108627 1.641992,-2.424906 -0.46069,-0.902078 -1.385769,-0.142982 -2.061718,0.619335 -0.393145,0.590074 -0.809375,1.043165 -0.809375,1.043165 0,0 0.346883,-0.521579 0.809375,-1.043165 0.584753,-0.87766 1.10996,-2.036515 0.08066,-2.49998 -0.656413,-0.295567 -1.450271,0.09407 -1.808363,0.715801 -0.146715,1.094359 -0.4557,2.150586 -0.4557,2.150586 3e-6,0 -0.125234,-1.14195 0.4557,-2.150586 0.09493,-0.708115 -0.03747,-1.035361 -0.69043,-0.859962 -0.254378,0.06833 -0.547681,0.128443 -0.85039,0.194141 0.296183,-0.41193 1.852755,-2.187181 1.379066,-3.314062 -0.0073,-0.01739 -0.01459,-0.02762 -0.02188,-0.04375 -0.02583,-0.05727 -0.05123,-0.113735 -0.07656,-0.155859 -0.348767,-0.632031 -0.74305,0.102067 -0.894198,0.6125 0.12222,-0.788251 0.440368,-2.5398266 -0.0027,-3.8158209 -0.04615,-0.1328224 -0.08757,-0.2259721 -0.127172,-0.3021447 -0.391424,-0.8500709 -0.491438,0.6984369 -0.518165,1.465625 -0.0439,-0.6891822 0.04217,-2.4157679 -0.49623,-3.3988277 -0.0017,-0.00305 -0.0024,-0.00653 -0.0041,-0.00957 C 24.662175,6.1626389 24.611859,6.0829126 24.561722,6.0037109 24.421105,5.781576 24.260601,5.5791011 24.070902,5.4158203 22.946496,4.4480061 23.455362,6.1620067 23.683988,6.8390625 23.512786,6.4298525 22.910442,5.8919226 22.376956,5.2107422 21.967251,4.6745294 21.596283,4.0642757 20.970293,3.7328125 20.723105,3.650029 20.472921,3.5736928 20.219707,3.5044922 Z"/>
 <path style="fill:#8b9cbe;fill-rule:evenodd" d="m 20.219707,2.5044922 c -1.0026,0.012501 1.937402,3.2019153 1.736156,7.9843748 C 21.743751,15.529515 14.228987,15.760141 15,20.912305 c -0.699607,-0.338828 -1.137704,-1.555514 -0.962804,-3.398469 0.237729,-2.504999 -1.415105,-3.521188 -2.838365,-3.513672 -0.40731,0.0022 -0.778706,0.07823 -1.056835,0.239258 -3.2865785,1.902846 -2.4327276,7.577233 0.149024,12.06507 1.184628,2.059233 3.019805,3.245803 5.014843,3.649024 0.361334,0.02771 0.725075,0.04648 1.09375,0.04648 1.190302,0 2.343337,-0.150909 3.445312,-0.42793 2.968889,-1.104501 5.469688,-3.872312 5.806446,-8.029492 1.851209,0.238443 5.115659,-1.780424 5.416796,-2.907125 0.283489,-1.060672 -1.427641,-0.421335 -1.911328,-0.170898 0.447939,-0.250307 2.314217,-1.108627 1.641992,-2.424906 -0.46069,-0.902078 -1.385769,-0.142982 -2.061718,0.619335 -0.393145,0.590074 -0.809375,1.043165 -0.809375,1.043165 0,0 0.346883,-0.521579 0.809375,-1.043165 0.584753,-0.87766 1.10996,-2.036515 0.08066,-2.49998 -0.656413,-0.295567 -1.450271,0.09407 -1.808363,0.715801 -0.146715,1.094359 -0.4557,2.150586 -0.4557,2.150586 3e-6,0 -0.125234,-1.14195 0.4557,-2.150586 0.09493,-0.708115 -0.03747,-1.035361 -0.69043,-0.859962 -0.254378,0.06833 -0.547681,0.128443 -0.85039,0.194141 0.296183,-0.41193 1.852755,-2.187181 1.379066,-3.314062 -0.0073,-0.01739 -0.01459,-0.02762 -0.02188,-0.04375 -0.02583,-0.05727 -0.05123,-0.113735 -0.07656,-0.155859 -0.348767,-0.632031 -0.74305,0.102067 -0.894198,0.6125 0.12222,-0.788251 0.440368,-2.5398266 -0.0027,-3.8158209 -0.04615,-0.1328224 -0.08757,-0.2259721 -0.127172,-0.3021447 -0.391424,-0.8500709 -0.491438,0.6984369 -0.518165,1.465625 -0.0439,-0.6891822 0.04217,-2.4157679 -0.49623,-3.3988277 -0.0017,-0.00305 -0.0024,-0.00653 -0.0041,-0.00957 C 24.662175,5.1626389 24.611859,5.0829126 24.561722,5.0037109 24.421105,4.781576 24.260601,4.5791011 24.070902,4.4158203 22.946496,3.4480061 23.455362,5.1620067 23.683988,5.8390625 23.512786,5.4298525 22.910442,4.8919226 22.376956,4.2107422 21.967251,3.6745294 21.596283,3.0642757 20.970293,2.7328125 20.723105,2.650029 20.472921,2.5736928 20.219707,2.5044922 Z"/>
 <path style="fill:#17191e" d="M 10.009745,16.726492 A 0.52498293,0.52498293 0 1 1 9.0403878,16.323039 0.52498293,0.52498293 0 1 1 10.009745,16.726492 Z"/>
 <path style="fill:#17191e" d="M 12.004427,17.042661 A 0.52496359,0.52452599 0 1 0 13.045603,16.9075 0.52496359,0.52452599 0 1 0 12.004427,17.042661 Z"/>
 <path style="fill:#838383" transform="matrix(0.90932695,0,0,0.52500017,-3.5899249,3.2999955)" d="m 14.999999,28 1.1547,0 1.1547,0 -0.57735,0.999999 -0.57735,1 -0.57735,-1 z"/>
</svg>
