<svg xmlns="http://www.w3.org/2000/svg" width="32" height="32" version="1.1">
 <rect style="opacity:0.2" width="28" height="28" x="2" y="3" rx="14"/>
 <rect style="fill:#17191e" width="28" height="28" x="2" y="2" rx="14"/>
 <path style="opacity:0.2" d="m 14.796875,7.0081208 c -1.652751,0.1197431 -2.901142,1.642368 -2.789063,3.4023432 0.03788,0.595736 0.225896,1.142055 0.523438,1.59961 l 1.380859,2.166015 c 0.264374,0.524969 0.800038,0.863385 1.394532,0.820313 0.564574,-0.04087 1.032989,-0.41575 1.246093,-0.931641 l 1.150391,-2.474609 -0.0059,0.002 C 17.919246,11.107054 18.02893,10.555596 17.992188,9.9788239 17.880161,8.2188546 16.449627,6.8883781 14.796875,7.0081208 Z m 6.970703,3.9921872 c -0.426967,-0.0085 -0.862117,0.0741 -1.283203,0.253906 -0.57905,0.247313 -1.055937,0.649121 -1.404297,1.144532 l -1.708984,2.330078 c -0.01988,0.02552 -0.04014,0.05149 -0.05859,0.07813 l -0.0078,0.01172 h 0.002 c -0.313472,0.460851 -0.403861,1.077137 -0.189453,1.644532 0.234231,0.619881 0.76849,1.015354 1.353515,1.070312 v -0.002 l 2.792969,0.439453 -0.0039,-0.0039 c 0.549711,0.08227 1.127861,0.01687 1.679687,-0.21875 1.68429,-0.719233 2.500009,-2.75711 1.822266,-4.550781 -0.508424,-1.345115 -1.713244,-2.171644 -2.994141,-2.197266 z M 9.9511719,13.002261 c -1.3137878,-0.05123 -2.5314914,0.717121 -2.8652344,1.888672 -0.3814208,1.338859 0.5365905,2.697145 2.0507813,3.033203 0.4960249,0.110103 0.9956152,0.09702 1.4550782,-0.01758 l 2.279297,-0.583984 c 0.514582,-0.0857 0.949641,-0.427817 1.085937,-0.90625 0.130335,-0.457441 -0.0457,-0.919465 -0.417969,-1.212891 L 11.791016,13.69562 v 0.0039 c -0.343389,-0.292703 -0.777474,-0.514897 -1.273438,-0.625 -0.189283,-0.04201 -0.378721,-0.06495 -0.5664061,-0.07227 z m 4.3574221,4.998047 c -0.307631,2.47e-4 -0.612646,0.08412 -0.876953,0.242188 l -2.613282,1.347656 0.0039,0.002 c -0.513646,0.269586 -0.9655934,0.672103 -1.2968754,1.193359 -1.0111528,1.591139 -0.5220971,3.69094 1.0917974,4.691406 1.613948,1.000466 3.742698,0.52278 4.753906,-1.068359 0.345361,-0.54346 0.514984,-1.145939 0.52539,-1.744141 l 0.08789,-2.771484 c 0.08524,-0.627844 -0.197865,-1.277489 -0.777344,-1.636719 -0.279973,-0.173509 -0.590806,-0.256106 -0.898437,-0.255859 z m 3.99414,1.003906 c -0.262008,0.01913 -0.520811,0.115246 -0.746093,0.296875 -0.43767,0.352971 -0.627266,0.928732 -0.533203,1.466797 l 0.287109,2.580078 0.0039,-0.002 c 0.06036,0.509257 0.24192,1.008625 0.552735,1.447266 0.949248,1.339859 2.739861,1.604351 3.998046,0.589843 1.258236,-1.014506 1.507892,-2.923811 0.558594,-4.263671 -0.327765,-0.462583 -0.754932,-0.796428 -1.226562,-0.994141 L 19.0625,19.178042 c -0.233126,-0.133704 -0.497759,-0.192957 -0.759766,-0.173828 z"/>
 <path style="fill:#39e11e" d="M 14.796875 6.0078125 C 13.144124 6.1275556 11.895733 7.6501805 12.007812 9.4101562 C 12.045692 10.005892 12.233708 10.552211 12.53125 11.009766 L 13.912109 13.175781 C 14.176483 13.70075 14.712147 14.039166 15.306641 13.996094 C 15.871215 13.955224 16.33963 13.580344 16.552734 13.064453 L 17.703125 10.589844 L 17.697266 10.591797 C 17.919246 10.106746 18.02893 9.5552878 17.992188 8.9785156 C 17.880161 7.2185463 16.449627 5.8880698 14.796875 6.0078125 z M 21.767578 10 C 21.340611 9.99146 20.905461 10.0741 20.484375 10.253906 C 19.905325 10.501219 19.428438 10.903027 19.080078 11.398438 L 17.371094 13.728516 C 17.351214 13.754036 17.33095 13.780001 17.3125 13.806641 L 17.304688 13.818359 L 17.306641 13.818359 C 16.993169 14.27921 16.90278 14.895496 17.117188 15.462891 C 17.351419 16.082772 17.885678 16.478245 18.470703 16.533203 L 18.470703 16.53125 L 21.263672 16.970703 L 21.259766 16.966797 C 21.809477 17.049067 22.387627 16.983667 22.939453 16.748047 C 24.623743 16.028814 25.439462 13.990937 24.761719 12.197266 C 24.253295 10.852151 23.048475 10.025622 21.767578 10 z M 9.9511719 12.001953 C 8.6373841 11.950723 7.4196805 12.719074 7.0859375 13.890625 C 6.7045167 15.229484 7.622528 16.58777 9.1367188 16.923828 C 9.6327437 17.033931 10.132334 17.02085 10.591797 16.90625 L 12.871094 16.322266 C 13.385676 16.236566 13.820735 15.894449 13.957031 15.416016 C 14.087366 14.958575 13.911335 14.496551 13.539062 14.203125 L 11.791016 12.695312 L 11.791016 12.699219 C 11.447627 12.406516 11.013542 12.184322 10.517578 12.074219 C 10.328295 12.032209 10.138857 12.009273 9.9511719 12.001953 z M 14.308594 17 C 14.000963 17.000247 13.695948 17.084119 13.431641 17.242188 L 10.818359 18.589844 L 10.822266 18.591797 C 10.30862 18.861383 9.8566726 19.2639 9.5253906 19.785156 C 8.5142378 21.376295 9.0032935 23.476096 10.617188 24.476562 C 12.231136 25.477028 14.359886 24.999342 15.371094 23.408203 C 15.716455 22.864743 15.886078 22.262264 15.896484 21.664062 L 15.984375 18.892578 C 16.069613 18.264734 15.78651 17.615089 15.207031 17.255859 C 14.927058 17.08235 14.616225 16.999753 14.308594 17 z M 18.302734 18.003906 C 18.040726 18.023036 17.781923 18.119152 17.556641 18.300781 C 17.118971 18.653752 16.929375 19.229513 17.023438 19.767578 L 17.310547 22.347656 L 17.314453 22.345703 C 17.374813 22.85496 17.556373 23.354328 17.867188 23.792969 C 18.816436 25.132828 20.607049 25.39732 21.865234 24.382812 C 23.12347 23.368306 23.373126 21.459001 22.423828 20.119141 C 22.096063 19.656558 21.668896 19.322713 21.197266 19.125 L 19.0625 18.177734 C 18.829374 18.04403 18.564741 17.984777 18.302734 18.003906 z"/>
 <path style="fill:#8b9cbe;opacity:0.1" d="M 16 2 C 8.244 2 2 8.244 2 16 C 2 16.168842 2.0195214 16.33264 2.0253906 16.5 C 2.2891326 8.9794325 8.4128418 3 16 3 C 23.500fae9 3 29.710867 8.9794325 29.974609 16.5 C 29.980479 16.33264 30 16.168842 30 16 C 30 8.244 23.756 2 16 2 z"/>
 <path style="fill:#8b9cbe;opacity:0.2" d="M 14.796875 6.0078125 C 13.144124 6.1275556 11.895733 7.6501805 12.007812 9.4101562 C 12.013861 9.5052758 12.031384 9.5970134 12.044922 9.6894531 C 12.260425 8.2531899 13.37587 7.1107654 14.796875 7.0078125 C 16.369169 6.893899 17.7269 8.0982582 17.953125 9.7304688 C 17.991903 9.487095 18.008564 9.2355851 17.992188 8.9785156 C 17.880161 7.2185463 16.449627 5.8880698 14.796875 6.0078125 z M 21.767578 10 C 21.340611 9.99146 20.905461 10.0741 20.484375 10.253906 C 19.905325 10.501219 19.428438 10.903027 19.080078 11.398438 L 17.371094 13.728516 C 17.351214 13.754036 17.33095 13.780001 17.3125 13.806641 L 17.304688 13.818359 L 17.306641 13.818359 C 17.018734 14.241626 16.93027 14.795068 17.082031 15.322266 C 17.133948 15.143293 17.202996 14.970733 17.306641 14.818359 L 17.304688 14.818359 L 17.3125 14.806641 C 17.33095 14.780001 17.351214 14.754036 17.371094 14.728516 L 19.080078 12.398438 C 19.428438 11.903027 19.905325 11.501219 20.484375 11.253906 C 20.905461 11.0741 21.340611 10.9915 21.767578 11 C 23.048475 11.025622 24.253295 11.852151 24.761719 13.197266 C 24.858987 13.454691 24.917486 13.717604 24.955078 13.980469 C 25.031428 13.395712 24.983613 12.784517 24.761719 12.197266 C 24.253295 10.852151 23.048475 10.025622 21.767578 10 z M 9.9511719 12.001953 C 8.6373841 11.950723 7.4196805 12.719074 7.0859375 13.890625 C 6.9783929 14.268127 6.9850574 14.644712 7.0683594 15.001953 C 7.0769411 14.964884 7.0753793 14.927686 7.0859375 14.890625 C 7.4196805 13.719074 8.6373841 12.950723 9.9511719 13.001953 C 10.138857 13.009273 10.328295 13.032209 10.517578 13.074219 C 11.013542 13.184322 11.447627 13.406516 11.791016 13.699219 L 11.791016 13.695312 L 13.539062 15.203125 C 13.683293 15.316809 13.786321 15.461007 13.865234 15.615234 C 13.898316 15.550096 13.936617 15.487673 13.957031 15.416016 C 14.087366 14.958575 13.911336 14.496551 13.539062 14.203125 L 11.791016 12.695312 L 11.791016 12.699219 C 11.447627 12.406516 11.013542 12.184322 10.517578 12.074219 C 10.328295 12.032209 10.138857 12.009273 9.9511719 12.001953 z M 14.308594 17 C 14.000963 17.000247 13.695948 17.084119 13.431641 17.242188 L 10.818359 18.589844 L 10.822266 18.591797 C 10.30862 18.861383 9.8566726 19.2639 9.5253906 19.785156 C 9.0801472 20.485786 8.9404544 21.282373 9.0449219 22.042969 C 9.1165278 21.608798 9.2737672 21.181108 9.5253906 20.785156 C 9.8566726 20.2639 10.30862 19.861383 10.822266 19.591797 L 10.818359 19.589844 L 13.431641 18.242188 C 13.695948 18.084119 14.000963 18.000247 14.308594 18 C 14.616225 17.999753 14.927058 18.08235 15.207031 18.255859 C 15.628993 18.517441 15.888874 18.933801 15.96875 19.382812 L 15.984375 18.892578 C 16.069613 18.264734 15.78651 17.615089 15.207031 17.255859 C 14.927058 17.08235 14.616225 16.999753 14.308594 17 z M 18.302734 18.003906 C 18.040726 18.023036 17.781923 18.119152 17.556641 18.300781 C 17.118971 18.653752 16.929375 19.229513 17.023438 19.767578 L 17.060547 20.101562 C 17.13944 19.793977 17.300057 19.50771 17.556641 19.300781 C 17.781923 19.119152 18.040726 19.023036 18.302734 19.003906 C 18.564741 18.984777 18.829374 19.04403 19.0625 19.177734 L 21.197266 20.125 C 21.668896 20.322713 22.096063 20.656558 22.423828 21.119141 C 22.714693 21.529674 22.879949 21.995369 22.951172 22.470703 C 23.0812 21.669953 22.918851 20.817827 22.423828 20.119141 C 22.096063 19.656558 21.668896 19.322713 21.197266 19.125 L 19.0625 18.177734 C 18.829374 18.04403 18.564741 17.984777 18.302734 18.003906 z"/>
</svg>
