<svg xmlns="http://www.w3.org/2000/svg" width="32" height="32" version="1.1">
 <path style="opacity:0.2" d="m 23,10 v 3.5 c 0,1.939 -1.561,3.5 -3.5,3.5 h -7 c 0,0 -3.5,0 -3.5,3.5 v 6.125 C 9,29.0484 11.7314,31 15.125,31 h 1.75 C 20.2686,31 23,29.0484 23,26.625 V 25 h -7 v -1 h 9.625 C 28.0484,24 30,21.2686 30,17.875 v -1.75 C 30,12.7314 28.0484,10 25.625,10 Z"/>
 <path style="fill:#ffa923" d="M 23,9.0000001 V 12.5 c 0,1.939 -1.561,3.5 -3.5,3.5 h -7 c 0,0 -3.5,0 -3.5,3.5 v 6.125 C 9,28.0484 11.7314,30 15.125,30 h 1.75 C 20.2686,30 23,28.0484 23,25.625 V 24 h -7 v -1 h 9.625 C 28.0484,23 30,20.2686 30,16.875 v -1.75 C 30,11.7314 28.0484,9.0000001 25.625,9.0000001 Z"/>
 <path style="opacity:0.2" d="m 19,28 a 1,1 0 0 1 1,1 1,1 0 0 1 -1,1 1,1 0 0 1 -1,-1 1,1 0 0 1 1,-1 z"/>
 <path style="fill:#8b9cbe" d="m 19,27 a 1,1 0 0 1 1,1 1,1 0 0 1 -1,1 1,1 0 0 1 -1,-1 1,1 0 0 1 1,-1 z"/>
 <path style="opacity:0.2" d="m 15.125,3.0000001 c -3.3936,0 -6.125,1.95125 -6.125,4.375 V 9 h 7 v 1 H 6.375 C 3.95125,10 2,12.7314 2,16.125 v 1.75 C 2,21.2686 3.95125,24 6.375,24 H 9 V 20.5 C 9,18.561 10.561,17 12.5,17 h 7 c 0,0 3.5,0 3.5,-3.5 V 7.3750001 c 0,-2.42375 -2.7314,-4.375 -6.125,-4.375 z"/>
 <path style="fill:#3084e0" d="m 15.125,2.0000001 c -3.3936,0 -6.125,1.95125 -6.125,4.375 V 8 h 7 V 9.0000001 H 6.375 C 3.95125,9.0000001 2,11.7314 2,15.125 v 1.75 C 2,20.2686 3.95125,23 6.375,23 H 9 V 19.5 C 9,17.561 10.561,16 12.5,16 h 7 c 0,0 3.5,0 3.5,-3.5 V 6.3750001 c 0,-2.42375 -2.7314,-4.375 -6.125,-4.375 z"/>
 <path style="opacity:0.2" d="M 13,4 A 1,1 0 0 1 14,5 1,1 0 0 1 13,6 1,1 0 0 1 12,5 1,1 0 0 1 13,4 Z"/>
 <path style="fill:#8b9cbe" d="M 13,3 A 1,1 0 0 1 14,4 1,1 0 0 1 13,5 1,1 0 0 1 12,4 1,1 0 0 1 13,3 Z"/>
 <path style="fill:#8b9cbe;opacity:0.2" d="M 23 9 L 23 10 L 25.625 10 C 28.0484 10 30 12.7314 30 16.125 L 30 15.125 C 30 11.7314 28.0484 9 25.625 9 L 23 9 z M 20.947266 16.681641 C 20.873095 16.710914 20.798655 16.745684 20.726562 16.769531 C 20.801236 16.741636 20.87514 16.714378 20.947266 16.681641 z M 20.476562 16.845703 C 20.324755 16.885835 20.172688 16.924344 20.046875 16.945312 C 20.194409 16.922182 20.335854 16.886543 20.476562 16.845703 z M 11.953125 17.054688 C 11.805591 17.077818 11.664146 17.113457 11.523438 17.154297 C 11.675245 17.114165 11.827312 17.075656 11.953125 17.054688 z M 11.273438 17.230469 C 11.198764 17.258364 11.12486 17.285622 11.052734 17.318359 C 11.126905 17.289086 11.201345 17.254316 11.273438 17.230469 z M 16 24 L 16 25 L 23 25 L 23 24 L 16 24 z"/>
 <path style="fill:#8b9cbe;opacity:0.2" d="M 15.125 2 C 11.7314 2 9 3.95125 9 6.375 L 9 7.375 C 9 4.95125 11.7314 3 15.125 3 L 16.875 3 C 20.2686 3 23 4.95125 23 7.375 L 23 6.375 C 23 3.95125 20.2686 2 16.875 2 L 15.125 2 z M 6.375 9 C 3.95125 9 2 11.7314 2 15.125 L 2 16.125 C 2 12.7314 3.95125 10 6.375 10 L 16 10 L 16 9 L 9 9 L 6.375 9 z"/>
</svg>
