<svg xmlns="http://www.w3.org/2000/svg" width="32" height="32" version="1">
 <path style="opacity:0.2" d="M 15.8922,3.00007 15.8908,3.0028 C 8.1859,3.06153 2,9.28047 2,17 2,24.756 8.244,31 16,31 23.476,31 29.5457,25.1977 29.9741,17.8323 L 30,17.8078 V 5.8 C 30,4.2488 28.7512,3 27.2,3 H 15.8922 Z"/>
 <path style="fill:#63a4c7" d="M 15.8922,2.00007 15.8908,2.0028 C 8.1859,2.06153 2,8.28047 2,16 2,23.756 8.244,30 16,30 23.476,30 29.5457,24.1977 29.9741,16.8323 L 30,16.8078 V 4.8 C 30,3.2488 28.7512,2 27.2,2 H 15.8922 Z"/>
 <path style="opacity:0.2" d="m 18,9 -2.419922,16 h 2.021484 L 20.021484,9 Z"/>
 <path style="opacity:0.2" d="m 14.578125,9 -2.419922,16 h 2.021485 L 16.599609,9 Z"/>
 <path style="fill:#8b9cbe" d="M 18 8 L 15.580078 24 L 17.601562 24 L 20.021484 8 L 18 8 z"/>
 <path style="fill:#8b9cbe" d="M 14.578125 8 L 12.158203 24 L 14.179688 24 L 16.599609 8 L 14.578125 8 z"/>
 <path style="opacity:0.2" d="m 11.666016,13 -0.300782,2 h 9.806641 l 0.302734,-2 z"/>
 <path style="fill:#8b9cbe" d="m 11.666016,12 -0.300782,2 h 9.806641 l 0.302734,-2 z"/>
 <path style="opacity:0.2" d="m 10.910156,18 -0.302734,2 h 9.808594 l 0.302734,-2 z"/>
 <path style="fill:#8b9cbe" d="m 10.910156,17 -0.302734,2 h 9.808594 l 0.302734,-2 z"/>
 <path style="fill:#8b9cbe;opacity:0.2" d="M 15.892578 2 L 15.890625 2.0019531 C 8.185725 2.0606831 2 8.28047 2 16 C 2 16.1695 2.0194758 16.333947 2.0253906 16.501953 C 2.2870785 9.0169039 8.3537128 3.0594027 15.890625 3.0019531 L 15.892578 3 L 27.199219 3 C 28.750419 3 30 4.2495813 30 5.8007812 L 30 4.8007812 C 30 3.2495813 28.750419 2 27.199219 2 L 15.892578 2 z"/>
</svg>
