<svg xmlns="http://www.w3.org/2000/svg" width="32" height="32" version="1.1">
 <path style="opacity:0.2" d="M 18,3.9921875 V 5 H 10.785156 C 10.349871,5 10,5.3575813 10,5.8007812 V 6 H 7.3574219 C 7.1595647,6 7,6.2672094 7,6.5996094 V 11.400391 C 7,11.732791 7.1595647,12 7.3574219,12 H 10 v 0.199219 C 10,12.642419 10.349871,13 10.785156,13 H 18 v 2 h 2.230469 c 0.769221,0 1.539062,0.831332 1.539062,1.541016 L 21.826172,17 h -2.230469 c -0.985726,0 -0.606778,0.678384 0.02344,1.316406 1.228045,1.383917 2.022668,2.156339 2.71875,2.765625 l 0.800781,6.388672 C 23.244642,28.316386 23.825437,29 24.677734,29 h 3.845704 c 0.852297,0 1.640728,-0.683323 1.537109,-1.529297 L 28.691406,16.289062 c -0.03832,-1.069003 -0.212289,-1.521828 0.728516,-1.707031 2.191885,-1.04768 1.567585,-3.509137 1.242187,-6.1992185 C 30.336712,5.6927313 29.760706,4.0754053 28.740234,3.9921875 Z M 1.3574219,7 C 1.1595647,7 1,7.1787906 1,7.4003906 V 10.599609 C 1,10.821209 1.1595647,11 1.3574219,11 H 5.6425781 C 5.8404353,11 6,10.821209 6,10.599609 V 7.4003906 C 6,7.1787906 5.8404353,7 5.6425781,7 Z"/>
 <rect style="fill:#17191e" width="3.077" height="2" x="5.62" y="7"/>
 <path style="fill:#17191e" d="m 19.59486,16.00023 h 5.55091 v 5.192243 L 24.888444,22.154 c -1.848081,-1.54455 -2.548134,-1.771341 -5.268826,-4.83736 -0.630216,-0.638022 -1.010486,-1.31641 -0.02476,-1.31641 z"/>
 <rect style="fill:#424551" width="5" height="4" x="1" y="6" rx=".357" ry=".4"/>
 <rect style="fill:#515360" width="5" height="6" x="7" y="5" rx=".357" ry=".6"/>
 <path style="opacity:0.1;fill:#8b9cbe" d="M 7.3574219 5 C 7.1595647 5 7 5.2672094 7 5.5996094 L 7 6.5996094 C 7 6.2672094 7.1595647 6 7.3574219 6 L 11.642578 6 C 11.840435 6 12 6.2672094 12 6.5996094 L 12 5.5996094 C 12 5.2672094 11.840435 5 11.642578 5 L 7.3574219 5 z"/>
 <rect style="fill:#494b57" width="11" height="8" x="10" y="4" rx=".786" ry=".8"/>
 <path style="opacity:0.1;fill:#8b9cbe" d="M 10.785156 4 C 10.349871 4 10 4.3575813 10 4.8007812 L 10 5.8007812 C 10 5.3575813 10.349871 5 10.785156 5 L 20.214844 5 C 20.650129 5 21 5.3575813 21 5.8007812 L 21 4.8007812 C 21 4.3575813 20.650129 4 20.214844 4 L 10.785156 4 z"/>
 <path style="fill:#c4c9d1" d="M 18,2.9929223 V 14 h 2.23053 c 0.769221,0 1.538442,0.830769 1.538442,1.540453 l 1.369533,10.929326 C 23.244475,27.315462 23.82465,28 24.676947,28 h 3.846106 c 0.852297,0 1.642062,-0.684247 1.538443,-1.530221 L 28.691962,15.288554 c -0.03832,-1.069004 -0.212147,-1.521618 0.728658,-1.706821 2.191885,-1.04768 1.566367,-3.50876 1.240969,-6.1988416 -0.325397,-2.6900812 -0.901078,-4.3067513 -1.92155,-4.3899691 z"/>
 <circle style="opacity:0.1" cx="28.5" cy="12.5" r="1.5"/>
 <circle style="fill:#515360" cx="28.5" cy="11.5" r="1.5"/>
 <path style="opacity:0.1;fill:#8b9cbe" d="M 1.3574219 6 C 1.1595647 6 1 6.1787906 1 6.4003906 L 1 7.4003906 C 1 7.1787906 1.1595647 7 1.3574219 7 L 5.6425781 7 C 5.8404353 7 6 7.1787906 6 7.4003906 L 6 6.4003906 C 6 6.1787906 5.8404353 6 5.6425781 6 L 1.3574219 6 z"/>
 <path style="opacity:0.2;fill:#8b9cbe" d="M 18 2.9921875 L 18 3.9921875 L 28.740234 3.9921875 C 29.760706 4.0754053 30.336712 5.6927313 30.662109 8.3828125 C 30.778637 9.3461494 30.930135 10.276743 30.980469 11.126953 C 31.064169 10.03816 30.826347 8.7405707 30.662109 7.3828125 C 30.336712 4.6927313 29.760706 3.0754053 28.740234 2.9921875 L 18 2.9921875 z M 28.685547 15.166016 C 28.634494 15.432127 28.673458 15.788361 28.691406 16.289062 L 30.001953 26.998047 C 30.056957 26.832964 30.083374 26.65707 30.060547 26.470703 L 28.691406 15.289062 C 28.689701 15.241502 28.687678 15.211167 28.685547 15.166016 z"/>
</svg>
