<svg width="32" height="32" version="1.1" xmlns="http://www.w3.org/2000/svg">
 <circle cx="16" cy="17" r="14" style="opacity:.2"/>
 <circle cx="16" cy="16" r="14" style="fill:#69aa35"/>
 <path d="m 17,11 c -2.9,0 -5.33383,1.678944 -7.0527344,3.265625 -1.7189046,1.586681 -2.7792968,3.179687 -2.7792968,3.179687 -0.1714006,0.25672 -0.2146495,0.578204 -0.1171876,0.871094 0,0 0.570096,1.703599 2.0878907,3.359375 C 10.656467,23.331557 13.214286,25 17,25 c 4.104495,0 6.240191,-2.360685 7.171875,-4.466797 0.443592,-0.209087 0.955145,-0.442129 1.496094,-0.910156 C 26.338049,19.043296 27,18.156351 27,17 27,16.335956 26.703772,15.722708 26.304688,15.316406 25.905603,14.910104 25.431898,14.667447 24.966797,14.492188 24.187666,14.198596 23.491962,14.147463 22.931641,14.101562 21.582418,12.661394 19.603393,11 17,11 Z" style="opacity:.1"/>
 <path d="m 17,10 c -2.9,0 -5.33383,1.678944 -7.0527344,3.265625 -1.7189046,1.586681 -2.7792968,3.179687 -2.7792968,3.179687 -0.1714006,0.25672 -0.2146495,0.578204 -0.1171876,0.871094 0,0 0.570096,1.703599 2.0878907,3.359375 C 10.656467,22.331557 13.214286,24 17,24 c 4.104495,0 6.240191,-2.360685 7.171875,-4.466797 0.443592,-0.209087 0.955145,-0.442129 1.496094,-0.910156 C 26.338049,18.043296 27,17.156351 27,16 27,15.335956 26.703772,14.722708 26.304688,14.316406 25.905603,13.910104 25.431898,13.667447 24.966797,13.492188 24.187666,13.198596 23.491962,13.147463 22.931641,13.101562 21.582418,11.661394 19.603393,10 17,10 Z" style="fill:#4f4f4f"/>
 <path d="M 16,2 A 14,14 0 0 0 2,16 14,14 0 0 0 2.0215,16.586 14,14 0 0 1 16,3 14,14 0 0 1 29.979,16.414 14,14 0 0 0 30,16 14,14 0 0 0 16,2 Z" style="fill:#8b9cbe;opacity:.1"/>
 <path d="m22 14s4 0 4 2-3 3-3 3z" style="fill:#e68673"/>
 <path d="m8 17s1-1.5 2.625-3c0.8125-0.75 1.78125-1.5 2.859375-2.0625 1.515625 1.0625 3.515625 2.0625 3.515625 2.0625l3 2h4s0 7-7 7-9-6-9-6z" style="fill:#f2dbb7"/>
 <path d="M 17 11 C 15.379894 11 13.868617 11.632725 12.560547 12.484375 A 6 6 0 0 0 12 15 A 6 6 0 0 0 18 21 A 6 6 0 0 0 23.925781 15.892578 C 23.727952 15.570545 20.861803 11 17 11 z " style="fill:#4f4f4f"/>
 <path d="m16 19h3c1.75 0 4-2 4-2s-1 3-4 3c-1.75 0-3-1-3-1z" style="fill:#2898b5"/>
 <circle cx="15" cy="14" r="2" style="fill:#8b9cbe"/>
</svg>
