<svg xmlns="http://www.w3.org/2000/svg" width="32" height="32" version="1">
 <path style="opacity:0.2" d="M 13.5,2 C 13.5,2 11.686874,1.9793 9.829103,2.908205 7.97133,3.8370876 6,5.9999974 6,9.5 V 20 H 8.9995515 V 9.5 c 0,-2.4999976 1.0286705,-3.3370876 2.1708975,-3.908205 C 11.467802,5.4431224 11.718323,5.4100624 12,5.3266624 V 10.5 c 0,2.000003 1.22133,3.412913 2.329103,3.966794 C 15.436874,15.020686 16.5,15 16.5,15 c 0,0 1.063126,0.0207 2.170897,-0.533206 C 19.77867,13.912913 21,12.500003 21,10.5 V 5.3266624 c 0.281677,0.0834 0.53175,0.11646 0.829103,0.2651326 C 22.97133,6.1629124 24,7.0000024 24,9.5 V 20 h 3 V 9.5 C 27,5.9999974 25.02867,3.8370876 23.170897,2.908205 21.313126,1.979315 19.5,2 19.5,2 H 18 v 8.5 c 0,0.999997 -0.27867,1.087087 -0.670897,1.283204 C 16.936874,11.979314 16.5,12 16.5,12 16.5,12 16.063124,11.9793 15.670897,11.783204 15.27867,11.587087 15,11.499997 15,10.5 V 2 Z"/>
 <path style="opacity:0.2" d="M 9,16.021484 C 5.0921706,16.286708 2,19.524887 2,23.5 c 0,3.975113 3.0921706,7.213292 7,7.478516 z m 15,0 V 30 H 20.492188 C 20.80699,29.581836 21,29.066048 21,28.5 v -1 C 21,26.115 19.885,25 18.5,25 h -4 C 13.115,25 12,26.115 12,27.5 v 1 c 0,1.385 1.115,2.5 2.5,2.5 H 17 18.5 24 v -0.02148 C 27.907829,30.713292 31,27.475113 31,23.5 31,19.524887 27.907829,16.286708 24,16.021484 Z"/>
 <path style="fill:#195bbd" d="M 13.5,1 C 13.5,1 11.686874,0.9793 9.829103,1.908205 7.97133,2.8370876 6,4.9999974 6,8.5 V 19 H 8.9995515 V 8.5 c 0,-2.4999976 1.0286705,-3.3370876 2.1708975,-3.908205 C 11.467802,4.4431224 11.718323,4.4100624 12,4.3266624 V 9.5 c 0,2.000003 1.22133,3.412913 2.329103,3.966794 C 15.436874,14.020686 16.5,14 16.5,14 c 0,0 1.063126,0.0207 2.170897,-0.533206 C 19.77867,12.912913 21,11.500003 21,9.5 V 4.3266624 c 0.281677,0.0834 0.53175,0.11646 0.829103,0.2651326 C 22.97133,5.1629124 24,6.0000024 24,8.5 V 19 h 3 V 8.5 C 27,4.9999974 25.02867,2.8370876 23.170897,1.908205 21.313126,0.979315 19.5,1 19.5,1 H 18 v 8.5 c 0,0.999997 -0.27867,1.087087 -0.670897,1.283204 C 16.936874,10.979314 16.5,11 16.5,11 16.5,11 16.063124,10.9793 15.670897,10.783204 15.27867,10.587087 15,10.499997 15,9.5 V 1 Z"/>
 <path style="fill:#229cfe" d="M 9 15.021484 C 5.0921706 15.286708 2 18.524887 2 22.5 C 2 26.475113 5.0921706 29.713292 9 29.978516 L 9 15.021484 z M 24 15.021484 L 24 29 L 20.492188 29 C 20.80699 28.581836 21 28.066048 21 27.5 L 21 26.5 C 21 25.115 19.885 24 18.5 24 L 14.5 24 C 13.115 24 12 25.115 12 26.5 L 12 27.5 C 12 28.885 13.115 30 14.5 30 L 17 30 L 18.5 30 L 24 30 L 24 29.978516 C 27.907829 29.713292 31 26.475113 31 22.5 C 31 18.524887 27.907829 15.286708 24 15.021484 z"/>
 <path style="opacity:0.1;fill:#8b9cbe" d="M 13.5 1 C 13.5 1 11.687849 0.97929812 9.8300781 1.9082031 C 7.9723051 2.8370857 6 4.9999974 6 8.5 L 6 9.5 C 6 5.9999974 7.9723051 3.8370857 9.8300781 2.9082031 C 11.687849 1.9792981 13.5 2 13.5 2 L 15 2 L 15 1 L 13.5 1 z M 18 1 L 18 2 L 19.5 2 C 19.5 2 21.312151 1.9793131 23.169922 2.9082031 C 25.027695 3.8370857 27 5.9999974 27 9.5 L 27 8.5 C 27 4.9999974 25.027695 2.8370857 23.169922 1.9082031 C 21.312151 0.97931313 19.5 1 19.5 1 L 18 1 z M 15 9.5 L 15 10.5 C 15 11.499997 15.277695 11.587086 15.669922 11.783203 C 16.062149 11.979299 16.5 12 16.5 12 C 16.5 12 16.937849 11.979313 17.330078 11.783203 C 17.722305 11.587086 18 11.499997 18 10.5 L 18 9.5 C 18 10.499997 17.722305 10.587086 17.330078 10.783203 C 16.937849 10.979313 16.5 11 16.5 11 C 16.5 11 16.062149 10.979299 15.669922 10.783203 C 15.277695 10.587086 15 10.499997 15 9.5 z"/>
 <path style="opacity:0.2;fill:#8b9cbe" d="M 9 15.021484 C 5.0921706 15.286708 2 18.524887 2 22.5 C 2 22.668698 2.0124733 22.834127 2.0234375 23 C 2.2708278 19.257336 5.2580132 16.275453 9 16.021484 L 9 15.021484 z M 24 15.021484 L 24 16.021484 C 27.741986 16.275453 30.729172 19.257336 30.976562 23 C 30.987527 22.834127 31 22.668698 31 22.5 C 31 18.524887 27.907829 15.286708 24 15.021484 z M 14.5 24 C 13.115 24 12 25.115 12 26.5 L 12 27.5 C 12 26.115 13.115 25 14.5 25 L 18.5 25 C 19.885 25 21 26.115 21 27.5 L 21 26.5 C 21 25.115 19.885 24 18.5 24 L 14.5 24 z M 20.943359 29 C 20.866154 29.369117 20.711017 29.70932 20.492188 30 L 24 30 L 24 29.978516 L 24 29 L 20.943359 29 z"/>
</svg>
