<svg xmlns="http://www.w3.org/2000/svg" width="32" height="32" version="1">
 <rect fill="#40a459" width="28" height="28" x="2" y="2" rx="14" ry="14"/>
 <path style="opacity:0.2" d="m 12.419922,8.00171 c -0.228052,-0.00636 -0.443202,0.013097 -0.585938,0.060547 -0.700239,0.2369 -1.139665,0.7465962 -1.382812,1.5976562 -0.21006,0.7416999 -0.203673,2.0759809 0.01563,3.2382819 0.03847,0.201949 0.07869,0.386405 0.08789,0.416015 0.01154,0.04176 -0.06367,0.06818 -0.394532,0.142578 -1.6174941,0.3644 -2.7983607,0.907232 -3.5078122,1.613281 -0.3185529,0.31431 -0.49532,0.590551 -0.5976563,0.9375 -0.07233,0.24067 -0.07233,0.717449 0,0.955079 0.1985508,0.6529 0.7572718,1.265773 1.640625,1.808593 0.6132674,0.37353 0.7975734,0.41462 0.9960937,0.21875 0.093105,-0.09186 0.1132813,-0.136013 0.1132813,-0.246093 0,-0.21333 -0.066916,-0.297708 -0.3554687,-0.460938 -1.8090214,-1.0051 -2.1279496,-2.014306 -0.9199219,-2.910156 0.6132877,-0.45398 1.4707904,-0.813177 2.6250001,-1.091797 0.505539,-0.12147 0.619141,-0.135602 0.619141,-0.07031 -1e-6,0.0888 0.372085,1.262391 0.564453,1.769531 l 0.199218,0.53125 -0.261718,0.498047 c -1.045731,1.9928 -1.7160804,4.024065 -1.7968754,5.509765 -0.066173,1.1448 0.1433655,1.963563 0.6542964,2.470703 0.558658,0.55194 1.346756,0.66999 2.359376,0.34961 0.381595,-0.12147 1.140354,-0.501988 1.582031,-0.798828 0.318563,-0.2103 0.387367,-0.27078 0.429687,-0.38086 0.04233,-0.11008 0.04233,-0.146318 0,-0.261718 -0.0631,-0.172341 -0.194946,-0.267579 -0.375,-0.267579 -0.116961,0 -0.199144,0.03633 -0.5,0.238282 -0.682512,0.45704 -1.321817,0.741248 -1.853515,0.830078 -0.736351,0.12453 -1.209565,-0.195878 -1.425782,-0.955078 -0.09311,-0.3295 -0.08671,-1.385781 0.01563,-1.931641 0.156206,-0.8685 0.429425,-1.76976 0.820313,-2.71875 0.231602,-0.5633 0.674355,-1.506109 0.734375,-1.568359 0.03,-0.03264 0.0687,0.02061 0.167969,0.246093 0.505549,1.1205 1.277172,2.48765 2.03125,3.59375 1.800639,2.6374 3.772847,4.355583 5.291015,4.601563 l -0.01563,0.002 c 0.667126,0.10629 1.228549,-0.05663 1.664063,-0.486328 0.354716,-0.3561 0.590309,-0.857748 0.722656,-1.554688 0.0808,-0.4358 0.0808,-1.65403 0,-2.25 -0.246288,-1.7765 -0.902158,-3.81515 -1.884766,-5.84375 -0.153125,-0.31734 -0.240933,-0.394531 -0.439453,-0.394531 -0.222379,-0.003 -0.402343,0.16753 -0.402343,0.380859 0,0.0744 0.07498,0.274863 0.201171,0.539063 1.211099,2.5471 1.861092,5.012322 1.794922,6.794922 -0.04077,1.0621 -0.310509,1.699332 -0.818359,1.945312 -0.267025,0.12983 -0.604071,0.127105 -1.048828,-0.01563 -2.041455,-0.6818 -4.805799,-4.0914 -6.587891,-8.125 l -0.177734,-0.404296 0.259765,-0.435547 c 0.291593,-0.495 1.027857,-1.600688 1.367188,-2.054688 l 0.228516,-0.302734 h 0.599609 c 3.652664,0 7.270001,0.815553 9.1875,2.064453 0.390889,0.25508 0.862326,0.72159 1.003906,0.99414 0.10237,0.1898 0.111328,0.240138 0.111328,0.492188 0,0.24674 -0.0099,0.305951 -0.09375,0.457031 -0.234734,0.44486 -0.853988,0.906838 -1.65039,1.236328 -0.369336,0.15412 -0.46875,0.254544 -0.46875,0.464844 0,0.17765 0.11794,0.32772 0.294921,0.380859 0.114652,0.03265 0.15274,0.02699 0.357422,-0.05273 1.286577,-0.5018 2.167604,-1.281512 2.347657,-2.070312 0.05086,-0.21333 0.04884,-0.615006 -0.002,-0.822266 -0.09618,-0.40694 -0.440016,-0.929307 -0.833985,-1.279297 -1.755132,-1.5541 -5.478198,-2.556146 -9.896484,-2.660156 l -0.316407,-0.0078 0.369141,-0.410156 c 0.19852,-0.22852 0.553719,-0.608622 0.796875,-0.851562 1.256576,-1.260301 2.422605,-2.0838148 3.441406,-2.4277349 0.324715,-0.112363 0.391487,-0.125 0.728516,-0.125 0.313171,0 0.388009,0.0098 0.523438,0.078125 0.183906,0.08579 0.390676,0.2952307 0.496093,0.4941407 0.206993,0.4062002 0.275042,1.1197062 0.175781,1.8789062 -0.03309,0.26116 -0.05859,0.562006 -0.05859,0.666016 0,0.17538 0.0051,0.203272 0.107422,0.289062 0.08387,0.07744 0.141501,0.09766 0.25,0.09766 0.174672,-10e-7 0.336285,-0.09229 0.384765,-0.216797 0.143895,-0.3675 0.2181,-1.669851 0.125,-2.218751 -0.144682,-0.8427195 -0.510494,-1.4119095 -1.09375,-1.6874995 -1.031065,-0.492 -2.526717,-0.010606 -4.273437,1.3710938 -0.913394,0.7234997 -2.115829,1.9499997 -2.945313,2.9999997 l -0.08203,0.0957 -0.490234,0.02539 c -0.411595,0.02354 -1.080668,0.08978 -1.859375,0.181641 l -0.169922,0.01953 -0.07227,-0.40625 c -0.140814,-0.80935 -0.152344,-0.930698 -0.152344,-1.705078 0,-0.67947 0.01,-0.809482 0.07617,-1.082032 0.162357,-0.6878495 0.48227,-1.1142985 0.90625,-1.2031245 0.583288,-0.12143 1.308559,0.1661463 2.324219,0.9101563 0.324715,0.24066 0.718402,0.033897 0.669922,-0.3457031 -0.02078,-0.1655 -0.17237,-0.3075576 -0.689453,-0.6484376 -0.433224,-0.28773 -0.921319,-0.5252249 -1.31836,-0.640625 -0.195449,-0.057699 -0.43601,-0.089345 -0.664062,-0.095703 z m 0.773437,5.837891 c 0,0.01519 -0.138956,0.225589 -0.310547,0.474609 -0.171591,0.24598 -0.41482,0.60752 -0.541015,0.8125 -0.123113,0.19891 -0.243718,0.37968 -0.267578,0.40625 -0.03308,0.03492 -0.08154,-0.05913 -0.228516,-0.521484 -0.210077,-0.63768 -0.300367,-0.982109 -0.273437,-1.011719 0.0446,-0.04479 1.621093,-0.204946 1.621093,-0.160156 z m 2.957032,2.160156 C 15.515588,15.999757 15,16.518143 15,17.152101 c 0,0.633967 0.515599,1.148437 1.150391,1.148437 0.634802,0 1.15039,-0.51448 1.15039,-1.148437 0,-0.633927 -0.515598,-1.152344 -1.15039,-1.152344 z"/>
 <path style="fill:#8b9cbe" d="M 12.419922 7.0019531 C 12.19187 6.9955949 11.97672 7.0150505 11.833984 7.0625 C 11.133745 7.2994 10.694319 7.8090962 10.451172 8.6601562 C 10.241112 9.4018563 10.247499 10.736137 10.466797 11.898438 C 10.505267 12.100387 10.545488 12.284843 10.554688 12.314453 C 10.566232 12.356213 10.491023 12.382631 10.160156 12.457031 C 8.5426619 12.821431 7.3617953 13.364263 6.6523438 14.070312 C 6.3337909 14.384622 6.1570238 14.660863 6.0546875 15.007812 C 5.9823575 15.248482 5.9823575 15.725261 6.0546875 15.962891 C 6.2532383 16.615791 6.8119593 17.228664 7.6953125 17.771484 C 8.3085799 18.145014 8.4928859 18.186104 8.6914062 17.990234 C 8.7845115 17.898374 8.8046875 17.854221 8.8046875 17.744141 C 8.8046875 17.530811 8.737771 17.446433 8.4492188 17.283203 C 6.6401974 16.278103 6.3212692 15.268897 7.5292969 14.373047 C 8.1425846 13.919067 9.0000873 13.55987 10.154297 13.28125 C 10.659836 13.15978 10.773438 13.145648 10.773438 13.210938 C 10.773437 13.299737 11.145523 14.473329 11.337891 14.980469 L 11.537109 15.511719 L 11.275391 16.009766 C 10.22966 18.002566 9.5593106 20.033831 9.4785156 21.519531 C 9.4123421 22.664331 9.6218811 23.483094 10.132812 23.990234 C 10.69147 24.542174 11.479568 24.660224 12.492188 24.339844 C 12.873783 24.218374 13.632542 23.837856 14.074219 23.541016 C 14.392782 23.330716 14.461586 23.270236 14.503906 23.160156 C 14.546236 23.050076 14.546236 23.013838 14.503906 22.898438 C 14.440804 22.726097 14.30896 22.630859 14.128906 22.630859 C 14.011945 22.630859 13.929762 22.667191 13.628906 22.869141 C 12.946394 23.326181 12.307089 23.610389 11.775391 23.699219 C 11.03904 23.823749 10.565826 23.503341 10.349609 22.744141 C 10.256501 22.414641 10.262898 21.35836 10.365234 20.8125 C 10.52144 19.944 10.794659 19.04274 11.185547 18.09375 C 11.417149 17.53045 11.859902 16.587641 11.919922 16.525391 C 11.949922 16.492751 11.988621 16.546004 12.087891 16.771484 C 12.59344 17.891984 13.365063 19.259134 14.119141 20.365234 C 15.91978 23.002634 17.891988 24.720817 19.410156 24.966797 L 19.394531 24.96875 C 20.061657 25.07504 20.62308 24.912122 21.058594 24.482422 C 21.41331 24.126322 21.648903 23.624674 21.78125 22.927734 C 21.86205 22.491934 21.86205 21.273704 21.78125 20.677734 C 21.534962 18.901234 20.879092 16.862584 19.896484 14.833984 C 19.743359 14.516644 19.655551 14.439453 19.457031 14.439453 C 19.234652 14.436423 19.054688 14.606983 19.054688 14.820312 C 19.054688 14.894713 19.129664 15.095175 19.255859 15.359375 C 20.466958 17.906475 21.116951 20.371697 21.050781 22.154297 C 21.010007 23.216397 20.740272 23.853629 20.232422 24.099609 C 19.965397 24.229439 19.628351 24.226714 19.183594 24.083984 C 17.142139 23.402184 14.377795 19.992584 12.595703 15.958984 L 12.417969 15.554688 L 12.677734 15.119141 C 12.969327 14.624141 13.705591 13.518453 14.044922 13.064453 L 14.273438 12.761719 L 14.873047 12.761719 C 18.525711 12.761719 22.143048 13.577272 24.060547 14.826172 C 24.451436 15.081252 24.922873 15.547762 25.064453 15.820312 C 25.166823 16.010112 25.175781 16.06045 25.175781 16.3125 C 25.175781 16.55924 25.165901 16.618451 25.082031 16.769531 C 24.847297 17.214391 24.228043 17.676369 23.431641 18.005859 C 23.062305 18.159979 22.962891 18.260403 22.962891 18.470703 C 22.962891 18.648353 23.080831 18.798423 23.257812 18.851562 C 23.372464 18.884213 23.410552 18.878548 23.615234 18.798828 C 24.901811 18.297028 25.782838 17.517316 25.962891 16.728516 C 26.013751 16.515186 26.011727 16.11351 25.960938 15.90625 C 25.864754 15.49931 25.520922 14.976943 25.126953 14.626953 C 23.371821 13.072853 19.648755 12.070807 15.230469 11.966797 L 14.914062 11.958984 L 15.283203 11.548828 C 15.481723 11.320308 15.836922 10.940206 16.080078 10.697266 C 17.336654 9.4369655 18.502683 8.6134513 19.521484 8.2695312 C 19.846199 8.1571682 19.912971 8.1445312 20.25 8.1445312 C 20.563171 8.1445312 20.638009 8.1543283 20.773438 8.2226562 C 20.957344 8.3084463 21.164114 8.5178869 21.269531 8.7167969 C 21.476524 9.1229969 21.544573 9.836503 21.445312 10.595703 C 21.412222 10.856863 21.386719 11.157709 21.386719 11.261719 C 21.386719 11.437099 21.391805 11.464991 21.494141 11.550781 C 21.578011 11.628221 21.635642 11.648438 21.744141 11.648438 C 21.918813 11.648437 22.080426 11.556151 22.128906 11.431641 C 22.272801 11.064141 22.347006 9.7617906 22.253906 9.2128906 C 22.109224 8.3701706 21.743412 7.8009806 21.160156 7.5253906 C 20.129091 7.0333906 18.633439 7.5147844 16.886719 8.8964844 C 15.973325 9.6199844 14.77089 10.846484 13.941406 11.896484 L 13.859375 11.992188 L 13.369141 12.017578 C 12.957546 12.041118 12.288473 12.107359 11.509766 12.199219 L 11.339844 12.21875 L 11.267578 11.8125 C 11.126764 11.00315 11.115234 10.881802 11.115234 10.107422 C 11.115234 9.4279518 11.125236 9.2979406 11.191406 9.0253906 C 11.353763 8.3375406 11.673676 7.9110916 12.097656 7.8222656 C 12.680944 7.7008356 13.406215 7.9884119 14.421875 8.7324219 C 14.74659 8.9730819 15.140277 8.7663187 15.091797 8.3867188 C 15.07102 8.2212188 14.919427 8.0791612 14.402344 7.7382812 C 13.96912 7.4505512 13.481025 7.2130563 13.083984 7.0976562 C 12.888535 7.0399577 12.647974 7.0083114 12.419922 7.0019531 z M 13.193359 12.839844 C 13.193359 12.855034 13.054403 13.065433 12.882812 13.314453 C 12.711221 13.560433 12.467992 13.921973 12.341797 14.126953 C 12.218684 14.325863 12.098079 14.506633 12.074219 14.533203 C 12.041138 14.568123 11.992675 14.474069 11.845703 14.011719 C 11.635626 13.374039 11.545336 13.02961 11.572266 13 C 11.616862 12.95521 13.193359 12.795054 13.193359 12.839844 z M 16.150391 15 C 15.515588 15 15 15.518386 15 16.152344 C 15 16.786311 15.515599 17.300781 16.150391 17.300781 C 16.785193 17.300781 17.300781 16.786301 17.300781 16.152344 C 17.300781 15.518417 16.785183 15 16.150391 15 z"/>
 <path fill="#fff" style="opacity:0.2" d="m16 2c-7.756 0-14 6.244-14 14 0 0.169 0.0195 0.333 0.0254 0.5 0.2641-7.5206 6.3878-13.5 13.975-13.5s13.711 5.9794 13.975 13.5c0.006-0.16736 0.0254-0.33116 0.0254-0.5 0-7.756-6.244-14-14-14z"/>
 <path opacity=".2" d="m2.0254 16.5c-0.0059 0.167-0.0254 0.331-0.0254 0.5 0 7.756 6.244 14 14 14s14-6.244 14-14c0-0.16884-0.01952-0.33264-0.02539-0.5-0.264 7.521-6.388 13.5-13.975 13.5-7.5872 0-13.711-5.979-13.975-13.5z"/>
</svg>
