<svg xmlns="http://www.w3.org/2000/svg" width="32" height="32" version="1">
 <rect style="opacity:0.2" width="28" height="28" x="2" y="3" rx="8.4" ry="8.4"/>
 <rect style="fill:#0dbc8a" width="28" height="28" x="2" y="2" rx="8.4" ry="8.4"/>
 <path style="opacity:0.2" d="m 14.400065,7.0000001 c -0.662733,0 -1.199545,0.5368029 -1.199545,1.1995443 0,0.6627414 0.536812,1.2011721 1.199545,1.2011721 3.092833,0 5.600586,2.5061665 5.600586,5.5989585 0,0.66275 0.536794,1.199543 1.199544,1.199543 0.66275,0 1.199545,-0.536793 1.199545,-1.199543 0,-4.418276 -3.581425,-7.9996749 -7.999675,-7.9996749 z M 13.999674,10.60026 C 9.5813994,10.600269 5.9999998,14.181643 6,18.599935 c 0,0.66275 0.5368022,1.199545 1.1995444,1.199545 0.6627414,0 1.2011714,-0.536795 1.2011714,-1.199545 0,-3.092833 2.5061662,-5.600586 5.5989582,-5.600586 0.66275,0 1.199544,-0.536803 1.199544,-1.199545 0,-0.662741 -0.536794,-1.199544 -1.199544,-1.199544 z m 10.800782,3.60026 c -0.66275,0 -1.201172,0.536813 -1.201172,1.199545 0,3.092834 -2.506125,5.600586 -5.598959,5.600586 -0.66275,0 -1.199543,0.536794 -1.199543,1.199544 0,0.66275 0.536793,1.199545 1.199543,1.199545 C 22.418575,23.39974 26,19.818315 26,15.400065 26,14.737332 25.463206,14.20052 24.800456,14.20052 Z m -14.000652,3.600262 c -0.662742,0 -1.1995439,0.536794 -1.1995439,1.199544 0,4.41825 3.5813819,7.999674 7.9996749,7.999674 0.66275,0 1.199545,-0.536794 1.199545,-1.199544 0,-0.66275 -0.536795,-1.201171 -1.199545,-1.201171 -3.092834,0 -5.600586,-2.506126 -5.600586,-5.598959 0,-0.66275 -0.536803,-1.199544 -1.199545,-1.199544 z"/>
 <path style="fill:#8b9cbe" d="m 14.400065,6.0000001 c -0.662733,0 -1.199545,0.5368029 -1.199545,1.1995443 0,0.6627414 0.536812,1.2011721 1.199545,1.2011721 3.092833,0 5.600586,2.5061665 5.600586,5.5989585 0,0.66275 0.536794,1.199543 1.199544,1.199543 0.66275,0 1.199545,-0.536793 1.199545,-1.199543 0,-4.4182756 -3.581425,-7.9996749 -7.999675,-7.9996749 z m -0.400391,3.60026 C 9.5813994,9.6002687 5.9999998,13.181643 6,17.599935 c 0,0.66275 0.5368022,1.199545 1.1995444,1.199545 0.6627414,0 1.2011714,-0.536795 1.2011714,-1.199545 0,-3.092833 2.5061662,-5.600586 5.5989582,-5.600586 0.66275,0 1.199544,-0.536803 1.199544,-1.199545 0,-0.662741 -0.536794,-1.1995439 -1.199544,-1.1995439 z M 24.800456,13.20052 c -0.66275,0 -1.201172,0.536813 -1.201172,1.199545 0,3.092834 -2.506125,5.600586 -5.598959,5.600586 -0.66275,0 -1.199543,0.536794 -1.199543,1.199544 0,0.66275 0.536793,1.199545 1.199543,1.199545 C 22.418575,22.39974 26,18.818315 26,14.400065 26,13.737332 25.463206,13.20052 24.800456,13.20052 Z m -14.000652,3.600262 c -0.662742,0 -1.1995439,0.536794 -1.1995439,1.199544 0,4.41825 3.5813819,7.999674 7.9996749,7.999674 0.66275,0 1.199545,-0.536794 1.199545,-1.199544 0,-0.66275 -0.536795,-1.201171 -1.199545,-1.201171 -3.092834,0 -5.600586,-2.506126 -5.600586,-5.598959 0,-0.66275 -0.536803,-1.199544 -1.199545,-1.199544 z"/>
 <path style="fill:#8b9cbe;opacity:0.2" d="M 10.400391 2 C 5.7467908 2 2 5.7467908 2 10.400391 L 2 11.400391 C 2 6.7467908 5.7467908 3 10.400391 3 L 21.599609 3 C 26.253209 3 30 6.7467908 30 11.400391 L 30 10.400391 C 30 5.7467908 26.253209 2 21.599609 2 L 10.400391 2 z"/>
</svg>
