<svg xmlns="http://www.w3.org/2000/svg" width="32" height="32" version="1.1">
 <path style="opacity:0.2" d="m 2,6 v 22 h 2 v -2 h 2 v 2 h 20 v -2 h 2 v 2 h 2 V 6 H 28 V 8 H 26 V 6 H 6 V 8 H 4 V 6 Z m 2,4 h 2 v 2 H 4 Z m 22,0 h 2 v 2 H 26 Z M 4,14 h 2 v 2 H 4 Z m 22,0 h 2 v 2 H 26 Z M 4,18 h 2 v 2 H 4 Z m 22,0 h 2 v 2 H 26 Z M 4,22 h 2 v 2 H 4 Z m 22,0 h 2 v 2 h -2 z"/>
 <path style="fill:#ed5b36" d="m 2,5 v 22 h 2 v -2 h 2 v 2 h 20 v -2 h 2 v 2 h 2 V 5 H 28 V 7 H 26 V 5 H 6 V 7 H 4 V 5 Z m 2,4 h 2 v 2 H 4 Z m 22,0 h 2 v 2 H 26 Z M 4,13 h 2 v 2 H 4 Z m 22,0 h 2 v 2 H 26 Z M 4,17 h 2 v 2 H 4 Z m 22,0 h 2 v 2 H 26 Z M 4,21 h 2 v 2 H 4 Z m 22,0 h 2 v 2 h -2 z"/>
 <path style="opacity:0.2" d="M 16,24.904 10.164634,19 h 11.670732 z"/>
 <path style="fill:#8b9cbe" d="M 16,23.904 10.164634,18 h 11.670732 z"/>
 <path style="fill:#8b9cbe" d="m 13,15 h 6 v 4.483268 h -6 z"/>
 <path style="fill:#8b9cbe;fill-opacity:0.68000034" d="m 13,15 h 2 v -2 h -2 z"/>
 <path style="fill:#8b9cbe" d="m 15,15 h 2 v -2 h -2 z"/>
 <path style="fill:#8b9cbe;fill-opacity:0.87999998" d="m 17,15 h 2 v -2 h -2 z"/>
 <path style="fill:#8b9cbe;fill-opacity:0.68000034" d="m 19,13 h -2 v -2 h 2 z"/>
 <path style="fill:#8b9cbe;fill-opacity:0.54000005" d="m 17,13 h -2 v -2 h 2 z"/>
 <path style="fill:#8b9cbe;fill-opacity:0.87999998" d="m 15,13 h -2 v -2 h 2 z"/>
 <path style="fill:#8b9cbe;fill-opacity:0.18999999" d="M 19,11 H 17 V 9 h 2 z"/>
 <path style="fill:#8b9cbe;fill-opacity:0.34000017" d="M 17,11 H 15 V 9 h 2 z"/>
 <path style="fill:#8b9cbe;fill-opacity:0.06000001" d="M 15,11 H 13 V 9 h 2 z"/>
 <path style="fill:#8b9cbe;opacity:0.2" d="M 2 5 L 2 6 L 4 6 L 4 5 L 2 5 z M 6 5 L 6 6 L 26 6 L 26 5 L 6 5 z M 28 5 L 28 6 L 30 6 L 30 5 L 28 5 z M 4 7 L 4 8 L 6 8 L 6 7 L 4 7 z M 26 7 L 26 8 L 28 8 L 28 7 L 26 7 z M 4 11 L 4 12 L 6 12 L 6 11 L 4 11 z M 26 11 L 26 12 L 28 12 L 28 11 L 26 11 z M 4 15 L 4 16 L 6 16 L 6 15 L 4 15 z M 26 15 L 26 16 L 28 16 L 28 15 L 26 15 z M 4 19 L 4 20 L 6 20 L 6 19 L 4 19 z M 26 19 L 26 20 L 28 20 L 28 19 L 26 19 z M 4 23 L 4 24 L 6 24 L 6 23 L 4 23 z M 26 23 L 26 24 L 28 24 L 28 23 L 26 23 z"/>
</svg>
