<svg xmlns="http://www.w3.org/2000/svg" width="32" height="32" version="1.1">
 <path style="opacity:0.2;fill-rule:evenodd" d="m 26.799363,17.982558 c -1.012526,0.05291 -1.215301,0.741703 -1.897802,1.526876 -0.457591,0.526429 -1.213396,2.609523 -3.861136,3.324561 -2.617744,0.706937 -5.698844,0.544783 -7.23349,1.49127 -0.752185,0.463908 -1.493395,0.829443 -2.195442,1.128381 -1.02651,0.54122 -2.1616876,1.096586 -3.0811869,1.272166 -0.2727799,0.05209 -0.6435766,0.06786 -1.0553962,0.06026 -0.2051788,0.0763 -0.3786049,0.150948 -0.472402,0.230058 -0.5855687,0.493882 -1.6937934,3.655753 -0.2908139,3.965764 1.4029774,0.310012 7.44625,-3.46625 13.001635,-3.279698 5.555384,0.186553 9.191236,-2.958271 9.853547,-5.333789 0.662309,-2.375518 0.824946,-3.632036 -1.436322,-4.206452 -0.565317,-0.143603 -0.993683,-0.197027 -1.331191,-0.179392 z"/>
 <path style="fill:#224043;fill-rule:evenodd" d="m 26.799363,16.982562 c -1.012526,0.05291 -1.215301,0.741703 -1.897802,1.526876 -0.457591,0.526429 -1.213396,2.609523 -3.861136,3.324561 -2.617744,0.706937 -5.698844,0.544783 -7.23349,1.49127 -0.752185,0.463908 -1.493395,0.829443 -2.195442,1.128381 -1.02651,0.54122 -2.1616876,1.096586 -3.0811869,1.272166 -0.2727799,0.05209 -0.6435766,0.06786 -1.0553962,0.06026 -0.2051788,0.0763 -0.3786049,0.150948 -0.472402,0.230058 -0.5855687,0.493882 -1.6937934,3.655753 -0.2908139,3.965764 1.4029774,0.310012 7.44625,-3.46625 13.001635,-3.279698 5.555384,0.186553 9.191236,-2.958271 9.853547,-5.333789 0.662309,-2.375518 0.824946,-3.632036 -1.436322,-4.206452 -0.565317,-0.143603 -0.993683,-0.197027 -1.331191,-0.179392 z"/>
 <path style="opacity:0.2;fill-rule:evenodd" d="M 17.910156 3.640625 C 16.760775 3.644425 15.562994 3.769338 14.330078 3.96875 C 12.321632 4.2935961 10.234328 4.7051354 8.4238281 5.9765625 C 7.1555897 6.8671859 5.6233427 7.8364827 4.7480469 8.6699219 C 3.9705733 9.4158522 3.0101757 10.396834 3.0292969 11.804688 C 3.0229569 12.469181 3.035077 13.088966 4.0351562 14.109375 C 4.0351562 14.109375 4.3183901 17.324545 4.1230469 17.933594 C 6.5662224 17.192784 8.8979936 17.111981 11.601562 16.804688 C 11.601562 16.804688 13.556722 18.341461 14 19.679688 C 14.309379 20.613682 13.420216 22.862129 12.251953 24.59375 C 12.034995 24.966857 11.715342 25.294149 11.345703 25.582031 C 11.43338 25.538011 11.525189 25.498541 11.611328 25.453125 C 12.313375 25.154187 13.054456 24.79008 13.806641 24.326172 C 14.190302 24.08955 14.671232 23.921912 15.216797 23.792969 C 15.762362 23.664025 16.372916 23.573304 17.017578 23.490234 C 18.306902 23.324095 19.732144 23.187453 21.041016 22.833984 C 23.688756 22.118946 24.444753 20.036195 24.902344 19.509766 C 25.57609 18.734665 25.784433 18.05653 26.763672 17.988281 C 26.764363 17.986681 26.764925 17.984022 26.765625 17.982422 C 27.347835 16.62989 29.586969 12.656403 26.607422 8.1132812 C 24.372762 4.7059399 21.358301 3.6292139 17.910156 3.640625 z"/>
 <path style="fill:#17598c;fill-rule:evenodd" d="M 17.910156 2.640625 C 16.760775 2.6444259 15.562994 2.769338 14.330078 2.96875 C 12.321632 3.2935961 10.234328 3.7051354 8.4238281 4.9765625 C 7.1555897 5.8671859 5.6233427 6.8364827 4.7480469 7.6699219 C 3.9705733 8.4158522 3.0101757 9.3968346 3.0292969 10.804688 C 3.0229569 11.469181 3.0350787 12.088966 4.0351562 13.109375 C 4.0351562 13.109375 4.3618723 16.771386 4.0878906 17.048828 C 3.8139092 17.326271 3.2129338 17.956458 2.6992188 18.199219 C 2.1855038 18.441981 2.4681133 18.501607 2.296875 19.472656 C 2.1256365 20.443706 2.6454465 22.546052 4.1523438 23.482422 C 5.6592414 24.418791 7.9983261 24.727136 9.3339844 24.484375 C 9.7820841 24.402935 10.089363 25.04896 10.53125 24.982422 C 10.894609 24.809834 11.26041 24.638144 11.611328 24.453125 C 12.313375 24.154187 13.054456 23.79008 13.806641 23.326172 C 14.190302 23.08955 14.671232 22.921912 15.216797 22.792969 C 15.762362 22.664025 16.372916 22.573304 17.017578 22.490234 C 18.306902 22.324095 19.732144 22.187453 21.041016 21.833984 C 23.688756 21.118946 24.444753 19.036195 24.902344 18.509766 C 25.57609 17.734665 25.784433 17.05653 26.763672 16.988281 C 26.764363 16.986686 26.764942 16.984008 26.765625 16.982422 C 27.347835 15.62989 29.586969 11.656403 26.607422 7.1132812 C 24.372762 3.7059398 21.358301 2.6292139 17.910156 2.640625 z"/>
 <path style="opacity:0.1;fill:#8b9cbe;fill-rule:evenodd" d="m 17.910156,2.640625 c -1.149381,0.0038 -2.347162,0.128713 -3.580078,0.328125 -2.008446,0.3248461 -4.09575,0.7363854 -5.9062499,2.0078125 -1.2682384,0.8906234 -2.8004854,1.8599202 -3.6757812,2.6933594 -0.7774736,0.7459303 -1.7378712,1.7269122 -1.71875,3.1347661 -0.00183,0.191572 0.00678,0.381359 0.03125,0.576171 C 3.2151531,10.1978 4.0516886,9.3380279 4.7480469,8.6699219 5.6233427,7.8364827 7.1555897,6.8671859 8.4238281,5.9765625 10.234328,4.7051354 12.321632,4.2935961 14.330078,3.96875 c 1.232916,-0.199412 2.430697,-0.324325 3.580078,-0.328125 3.448145,-0.011411 6.462559,1.0653558 8.697266,4.4726562 1.019489,1.554485 1.419226,3.0380218 1.492187,4.3769528 C 28.200938,10.911189 27.887705,9.065417 26.607422,7.1132812 24.372762,3.7059398 21.358301,2.6292139 17.910156,2.640625 Z"/>
 <path style="opacity:0.1;fill-rule:evenodd" d="m 17.083984,3.0040622 c -0.394725,0.010093 -0.792441,0.038822 -1.191406,0.074219 -0.0013,1.203e-4 -0.0045,-1.204e-4 -0.0059,0 -0.118234,0.010537 -0.235003,0.022525 -0.353516,0.035156 -0.0027,2.91e-4 -0.0051,-2.999e-4 -0.0078,0 -0.397272,0.042344 -0.795954,0.091658 -1.195313,0.15625 -0.252371,0.046505 -0.479054,0.098261 -0.710937,0.1484376 -0.05398,0.013366 -0.108083,0.030553 -0.16211,0.044922 -0.154769,0.040646 -0.309162,0.082564 -0.464843,0.1308594 C 11.370765,4.1071221 9.6565205,5.1374479 8.2167969,6.1603122 11.241864,7.1251089 17.570094,5.0113578 21.154297,6.750156 24.278508,8.2658 28.26508,11.305772 25.630859,18.59 c 0.284611,-0.331396 0.603373,-0.577919 1.167969,-0.607422 0.19067,-0.01 0.420759,0.01 0.677734,0.04883 0.05685,-0.131947 0.115209,-0.266226 0.185547,-0.435547 0.02613,-0.06297 0.05658,-0.144656 0.08398,-0.212891 0.07731,-0.19274 0.155043,-0.402974 0.236328,-0.634765 0.03711,-0.105911 0.07279,-0.224466 0.109375,-0.337891 0.06992,-0.216995 0.1377,-0.447104 0.201172,-0.689453 0.07129,-0.272441 0.142035,-0.548829 0.197265,-0.849609 v -0.002 c 0.002,-0.0107 0.0039,-0.02052 0.0059,-0.03125 0.03631,-0.201226 0.06782,-0.408772 0.09375,-0.621094 0.0052,-0.04256 0.009,-0.08788 0.01367,-0.130859 0.01863,-0.169602 0.03254,-0.341822 0.04297,-0.517579 0.0055,-0.09138 0.0088,-0.184416 0.01172,-0.277343 0.0044,-0.138537 0.0074,-0.278167 0.0059,-0.419922 -0.0011,-0.09945 -0.0055,-0.201809 -0.0098,-0.302735 -0.0062,-0.145564 -0.018,-0.291057 -0.03125,-0.439453 -0.0088,-0.09818 -0.01722,-0.197554 -0.0293,-0.296875 -0.01895,-0.155718 -0.0446,-0.312436 -0.07227,-0.470703 -0.01655,-0.09473 -0.03092,-0.189604 -0.05078,-0.285156 -0.03708,-0.17828 -0.08546,-0.358236 -0.134765,-0.539063 -0.02179,-0.07995 -0.03819,-0.159847 -0.0625,-0.240234 -0.07911,-0.26141 -0.169846,-0.5238523 -0.277344,-0.7890625 -0.11158,-0.2752789 -0.239564,-0.5521015 -0.384766,-0.8300781 -7.7e-4,-0.0014 -0.0013,-0.00244 -0.002,-0.00391 C 27.457168,8.38346 27.288822,8.0952042 27.103516,7.812656 26.917502,7.5290269 26.723821,7.2617318 26.523438,7.0060154 v -0.00195 C 26.339841,6.7704774 26.14798,6.5504089 25.953125,6.3399998 h -0.002 c -0.04859,-0.052383 -0.09723,-0.1033259 -0.146484,-0.1542969 h -0.002 C 25.651313,6.0288888 25.497422,5.8782298 25.339844,5.734531 25.289034,5.688213 25.23881,5.6390728 25.1875,5.593906 c -0.0022,-0.00194 -0.0036,-0.00392 -0.0059,-0.00586 -0.2075,-0.1813736 -0.421288,-0.3535558 -0.638672,-0.5136718 -0.216133,-0.159197 -0.437094,-0.3044385 -0.66211,-0.4433594 -0.06044,-0.037302 -0.122535,-0.073519 -0.183593,-0.109375 h -0.002 C 23.518268,4.4176165 23.340169,4.3189957 23.158203,4.2267185 h -0.002 C 23.099552,4.1978778 23.043662,4.1684856 22.986328,4.140781 22.748874,4.0260251 22.508602,3.9164534 22.263672,3.8204685 22.020803,3.7252912 21.772991,3.6421188 21.523438,3.5646091 21.453377,3.5428571 21.383052,3.5244622 21.3125,3.5040622 c -0.04327,-0.012513 -0.0873,-0.023306 -0.130859,-0.035156 -0.09698,-0.02681 -0.195112,-0.05379 -0.292969,-0.078125 -0.0036,-9.029e-4 -0.0061,-0.00105 -0.0098,-0.00195 -0.370019,-0.091741 -0.745702,-0.1726862 -1.126953,-0.2304688 -0.387903,-0.05879 -0.782321,-0.094847 -1.179687,-0.1210937 -0.0013,-8.96e-5 -0.0025,8.92e-5 -0.0039,0 -0.09343,-0.00615 -0.187367,-0.011185 -0.28125,-0.015625 -0.005,-2.351e-4 -0.01066,2.316e-4 -0.01563,0 -0.393089,-0.018327 -0.787803,-0.027799 -1.1875,-0.017578 z"/>
 <path style="fill:#b0c4de;fill-rule:evenodd" d="M 17.083984 2.0039062 C 16.689259 2.0139992 16.291543 2.042728 15.892578 2.078125 C 15.891278 2.0782453 15.888119 2.0780046 15.886719 2.078125 C 15.768485 2.088662 15.651716 2.1006503 15.533203 2.1132812 C 15.530503 2.1135722 15.528091 2.1129813 15.525391 2.1132812 C 15.128119 2.1556252 14.729437 2.2049392 14.330078 2.2695312 C 14.077707 2.3160362 13.851024 2.3677921 13.619141 2.4179688 C 13.565161 2.4313347 13.511058 2.4485216 13.457031 2.4628906 C 13.302262 2.5035366 13.147869 2.5454542 12.992188 2.59375 C 11.370765 3.1069661 9.6565205 4.1372919 8.2167969 5.1601562 C 11.241864 6.1249529 17.570094 4.0112018 21.154297 5.75 C 24.278508 7.265644 28.26508 10.305616 25.630859 17.589844 C 25.91547 17.258448 26.234232 17.011925 26.798828 16.982422 C 26.989498 16.972459 27.219587 16.992408 27.476562 17.03125 C 27.533417 16.899303 27.591771 16.765024 27.662109 16.595703 C 27.688239 16.532733 27.718694 16.451047 27.746094 16.382812 C 27.823404 16.190072 27.901137 15.979838 27.982422 15.748047 C 28.019532 15.642136 28.055211 15.523581 28.091797 15.410156 C 28.161717 15.193161 28.229497 14.963052 28.292969 14.720703 C 28.364259 14.448262 28.435004 14.171874 28.490234 13.871094 L 28.490234 13.869141 C 28.492234 13.858441 28.494094 13.848621 28.496094 13.837891 C 28.532404 13.636665 28.563914 13.429119 28.589844 13.216797 C 28.595044 13.174237 28.598826 13.12892 28.603516 13.085938 C 28.622146 12.916336 28.636054 12.744116 28.646484 12.568359 C 28.651984 12.476979 28.655273 12.383943 28.658203 12.291016 C 28.662603 12.152479 28.665562 12.012849 28.664062 11.871094 C 28.662962 11.771644 28.658597 11.669285 28.654297 11.568359 C 28.648097 11.422795 28.636297 11.277302 28.623047 11.128906 C 28.614247 11.030726 28.60583 10.931352 28.59375 10.832031 C 28.5748 10.676313 28.549154 10.519595 28.521484 10.361328 C 28.504934 10.266598 28.490563 10.171724 28.470703 10.076172 C 28.433623 9.8978916 28.385239 9.717936 28.335938 9.5371094 C 28.314147 9.4571614 28.297748 9.3772616 28.273438 9.296875 C 28.194326 9.0354653 28.103592 8.7730227 27.996094 8.5078125 C 27.884514 8.2325336 27.75653 7.955711 27.611328 7.6777344 C 27.610558 7.6763344 27.610075 7.6752981 27.609375 7.6738281 C 27.457168 7.383304 27.288822 7.0950482 27.103516 6.8125 C 26.917502 6.5288709 26.723821 6.2615758 26.523438 6.0058594 L 26.523438 6.0039062 C 26.339841 5.7703214 26.14798 5.5502529 25.953125 5.3398438 L 25.951172 5.3398438 C 25.902582 5.2874608 25.853943 5.2365179 25.804688 5.1855469 L 25.802734 5.1855469 C 25.651313 5.0287328 25.497422 4.8780738 25.339844 4.734375 C 25.289034 4.688057 25.23881 4.6389168 25.1875 4.59375 C 25.1853 4.59181 25.183941 4.5898306 25.181641 4.5878906 C 24.974141 4.406517 24.760353 4.2343348 24.542969 4.0742188 C 24.326836 3.9150218 24.105875 3.7697803 23.880859 3.6308594 C 23.820419 3.5935574 23.758324 3.5573402 23.697266 3.5214844 L 23.695312 3.5214844 C 23.518268 3.4174605 23.340169 3.3188397 23.158203 3.2265625 L 23.15625 3.2265625 C 23.099552 3.1977218 23.043662 3.1683296 22.986328 3.140625 C 22.748874 3.0258691 22.508602 2.9162974 22.263672 2.8203125 C 22.020803 2.7251352 21.772991 2.6419628 21.523438 2.5644531 C 21.453377 2.5427011 21.383052 2.5243062 21.3125 2.5039062 C 21.26923 2.4913932 21.225202 2.4806 21.181641 2.46875 C 21.084661 2.44194 20.986529 2.41496 20.888672 2.390625 C 20.885072 2.3897221 20.882536 2.3895719 20.878906 2.3886719 C 20.508887 2.2969309 20.133204 2.2159857 19.751953 2.1582031 C 19.36405 2.0994131 18.969632 2.0633563 18.572266 2.0371094 C 18.570966 2.0370198 18.569759 2.0371986 18.568359 2.0371094 C 18.474929 2.0309594 18.380992 2.0259244 18.287109 2.0214844 C 18.282109 2.0212493 18.276444 2.021716 18.271484 2.0214844 C 17.878395 2.0031574 17.483681 1.9936852 17.083984 2.0039062 z"/>
 <path style="fill:none" d="M 2.0001227,17.633218 4.5002025,17.77194 12.959376,17.043654 17.103344,17.8413 19.50068,12.049687 15.904675,10.697155 3.4727724,12.188407"/>
 <path style="fill:#87cefa;fill-rule:evenodd" d="m 4.0347685,13.109449 c 0,0 2.9099926,-1.0274 5.6889598,-1.066897 1.2560207,-0.01785 1.9175247,0.08171 2.9641287,0.197973 1.868872,0.265482 1.610727,1.172887 0.280287,2.076128 -1.846561,1.231556 -1.47908,1.687567 -4.3224279,2.041175 L 4,16.958452 Z"/>
 <path style="opacity:0.2;fill-rule:evenodd" d="M 8.7310341,26.725485 C 7.4682899,26.966611 5.0265616,26.553256 3.6019268,25.623205 2.1772923,24.693155 1.9182678,21.420757 2.0801582,20.45626 2.2420484,19.491764 2.2420484,18.663058 2.7277193,18.421934 5.7016251,17.204168 8.38886,17.170785 11.601739,16.805602 c 0,0 1.955244,1.536829 2.398522,2.875056 0.309379,0.933995 -0.579133,3.180774 -1.747396,4.912395 -0.661801,1.138111 -2.225677,1.909534 -3.5218309,2.132432 z"/>
 <path style="fill:#755959;fill-rule:evenodd" d="M 8.7310341,25.725402 C 7.4682899,25.966528 5.0265616,25.553173 3.6019268,24.623122 2.1772923,23.693072 1.9182678,20.420674 2.0801582,19.456177 2.2420484,18.491681 2.2420484,17.662975 2.7277193,17.421851 5.7016251,16.204085 8.38886,16.170702 11.601739,15.805519 c 0,0 1.955244,1.536829 2.398522,2.875056 0.309379,0.933995 -0.579133,3.180774 -1.747396,4.912395 -0.661801,1.138111 -2.225677,1.909534 -3.5218309,2.132432 z"/>
 <circle style="opacity:0.3" cx="12" cy="19" r="1"/>
 <path style="fill:#8b9cbe;fill-rule:evenodd;opacity:0.2" d="M 17.083984 2.0039062 C 16.689259 2.0139993 16.291543 2.042728 15.892578 2.078125 C 15.891278 2.0782453 15.888119 2.0780046 15.886719 2.078125 C 15.768485 2.088662 15.651716 2.1006504 15.533203 2.1132812 C 15.530503 2.1135723 15.528091 2.1129814 15.525391 2.1132812 C 15.128119 2.1556252 14.729437 2.2049393 14.330078 2.2695312 C 14.077707 2.3160363 13.851024 2.3677921 13.619141 2.4179688 C 13.565161 2.4313346 13.511058 2.4485216 13.457031 2.4628906 C 13.302262 2.5035366 13.147869 2.5454542 12.992188 2.59375 C 11.370764 3.1069661 9.6565205 4.1372919 8.2167969 5.1601562 C 8.5631605 5.2706234 8.9569655 5.3368002 9.3808594 5.3769531 C 10.535868 4.641249 11.7894 3.9744654 12.992188 3.59375 C 13.147869 3.5454546 13.302262 3.5035366 13.457031 3.4628906 C 13.511058 3.4485216 13.565161 3.4313347 13.619141 3.4179688 C 13.851024 3.3677921 14.077707 3.3160362 14.330078 3.2695312 C 14.729437 3.2049392 15.128119 3.1556252 15.525391 3.1132812 C 15.528091 3.1129814 15.530503 3.1135722 15.533203 3.1132812 C 15.651716 3.1006503 15.768485 3.088662 15.886719 3.078125 C 15.888119 3.0780046 15.891278 3.0782453 15.892578 3.078125 C 16.291543 3.042728 16.689259 3.0139992 17.083984 3.0039062 C 17.483681 2.9936852 17.878395 3.0031574 18.271484 3.0214844 C 18.276454 3.021716 18.282109 3.0212493 18.287109 3.0214844 C 18.380992 3.0259244 18.474929 3.0309594 18.568359 3.0371094 C 18.569759 3.0371986 18.570966 3.0370198 18.572266 3.0371094 C 18.969632 3.0633561 19.36405 3.0994131 19.751953 3.1582031 C 20.133204 3.2159857 20.508887 3.2969309 20.878906 3.3886719 C 20.882606 3.3895719 20.885072 3.3897221 20.888672 3.390625 C 20.986529 3.41496 21.084661 3.44194 21.181641 3.46875 C 21.2252 3.4806 21.26923 3.4913932 21.3125 3.5039062 C 21.383052 3.5243062 21.453377 3.5427011 21.523438 3.5644531 C 21.772991 3.6419628 22.020803 3.7251352 22.263672 3.8203125 C 22.508602 3.9162974 22.748874 4.0258691 22.986328 4.140625 C 23.043662 4.1683296 23.099599 4.1977218 23.15625 4.2265625 L 23.158203 4.2265625 C 23.340169 4.3188397 23.518355 4.4174611 23.695312 4.5214844 L 23.697266 4.5214844 C 23.758324 4.5573404 23.820419 4.5935574 23.880859 4.6308594 C 24.105875 4.7697803 24.326836 4.9150218 24.542969 5.0742188 C 24.760353 5.2343347 24.974141 5.406517 25.181641 5.5878906 C 25.183941 5.5898306 25.1853 5.59181 25.1875 5.59375 C 25.23881 5.6389168 25.289034 5.688057 25.339844 5.734375 C 25.497422 5.8780738 25.651406 6.0287328 25.802734 6.1855469 L 25.804688 6.1855469 C 25.853942 6.2365179 25.902582 6.2874608 25.951172 6.3398438 L 25.953125 6.3398438 C 26.14798 6.5502528 26.339841 6.7703182 26.523438 7.0039062 L 26.523438 7.0058594 C 26.723821 7.2615758 26.917502 7.5288709 27.103516 7.8125 C 27.288822 8.0950482 27.457179 8.3833527 27.609375 8.6738281 C 27.610075 8.6752981 27.610558 8.6763344 27.611328 8.6777344 C 27.75653 8.955711 27.884514 9.2325336 27.996094 9.5078125 C 28.103592 9.7730227 28.194327 10.035465 28.273438 10.296875 C 28.297747 10.377262 28.314148 10.457159 28.335938 10.537109 C 28.385243 10.717936 28.433623 10.897892 28.470703 11.076172 C 28.490563 11.171724 28.504934 11.266598 28.521484 11.361328 C 28.549154 11.519595 28.5748 11.676313 28.59375 11.832031 C 28.60583 11.931352 28.614247 12.030726 28.623047 12.128906 C 28.634234 12.254195 28.641815 12.37706 28.648438 12.5 C 28.651846 12.430596 28.655995 12.361051 28.658203 12.291016 C 28.662603 12.152479 28.665562 12.012849 28.664062 11.871094 C 28.662962 11.771644 28.658597 11.669285 28.654297 11.568359 C 28.648097 11.422795 28.636297 11.277302 28.623047 11.128906 C 28.614247 11.030726 28.60583 10.931352 28.59375 10.832031 C 28.5748 10.676313 28.549154 10.519595 28.521484 10.361328 C 28.504934 10.266598 28.490563 10.171724 28.470703 10.076172 C 28.433623 9.8978915 28.385238 9.717936 28.335938 9.5371094 C 28.314146 9.4571614 28.297747 9.3772616 28.273438 9.296875 C 28.194326 9.0354653 28.103592 8.7730227 27.996094 8.5078125 C 27.884514 8.2325336 27.75653 7.955711 27.611328 7.6777344 C 27.610558 7.6763344 27.610075 7.6752981 27.609375 7.6738281 C 27.457168 7.383304 27.288822 7.0950482 27.103516 6.8125 C 26.917502 6.5288709 26.723821 6.2615758 26.523438 6.0058594 L 26.523438 6.0039062 C 26.339841 5.7703214 26.14798 5.5502529 25.953125 5.3398438 L 25.951172 5.3398438 C 25.902582 5.2874608 25.853942 5.2365179 25.804688 5.1855469 L 25.802734 5.1855469 C 25.651313 5.0287328 25.497422 4.8780738 25.339844 4.734375 C 25.289034 4.688057 25.23881 4.6389168 25.1875 4.59375 C 25.1853 4.59181 25.183941 4.5898306 25.181641 4.5878906 C 24.974141 4.406517 24.760353 4.2343348 24.542969 4.0742188 C 24.326836 3.9150218 24.105875 3.7697803 23.880859 3.6308594 C 23.820419 3.5935574 23.758324 3.5573402 23.697266 3.5214844 L 23.695312 3.5214844 C 23.518268 3.4174605 23.340169 3.3188397 23.158203 3.2265625 L 23.15625 3.2265625 C 23.099552 3.1977218 23.043662 3.1683296 22.986328 3.140625 C 22.748874 3.0258691 22.508602 2.9162974 22.263672 2.8203125 C 22.020803 2.7251352 21.772991 2.6419628 21.523438 2.5644531 C 21.453377 2.5427011 21.383052 2.5243063 21.3125 2.5039062 C 21.26923 2.4913933 21.225202 2.4806 21.181641 2.46875 C 21.084661 2.44194 20.986529 2.41496 20.888672 2.390625 C 20.885072 2.3897221 20.882536 2.3895719 20.878906 2.3886719 C 20.508887 2.2969309 20.133204 2.2159857 19.751953 2.1582031 C 19.36405 2.0994131 18.969632 2.0633563 18.572266 2.0371094 C 18.570966 2.0370198 18.569759 2.0371986 18.568359 2.0371094 C 18.474929 2.0309594 18.380992 2.0259244 18.287109 2.0214844 C 18.282109 2.0212493 18.276444 2.021716 18.271484 2.0214844 C 17.878395 2.0031574 17.483681 1.9936852 17.083984 2.0039062 z M 26.466797 13.720703 C 26.409008 14.857988 26.156592 16.136072 25.630859 17.589844 C 25.76059 17.438788 25.900485 17.310304 26.064453 17.207031 C 26.413439 15.896568 26.526483 14.743537 26.466797 13.720703 z"/>
 <path style="fill-rule:evenodd;opacity:0.1" d="M 9.7246094 12.042969 C 6.9456422 12.082466 4.0351562 13.109375 4.0351562 13.109375 L 4 16.958984 L 4.0097656 16.957031 L 4.0351562 14.109375 C 4.0351562 14.109375 6.9456422 13.082466 9.7246094 13.042969 C 10.98063 13.025119 11.640896 13.123971 12.6875 13.240234 C 13.218954 13.31573 13.56174 13.446869 13.773438 13.611328 C 14.279639 12.978973 14.061457 12.435411 12.6875 12.240234 C 11.640896 12.123971 10.98063 12.025119 9.7246094 12.042969 z"/>
</svg>
