<svg xmlns="http://www.w3.org/2000/svg" width="32" height="32" version="1">
 <rect fill="#b2bfd9" width="28" height="28" x="2" y="2" rx="14" ry="14"/>
 <path fill="#fff" opacity=".2" d="m16 2c-7.756 0-14 6.244-14 14 0 0.169 0.0195 0.333 0.0254 0.5 0.2637-7.5206 6.3874-13.5 13.975-13.5 7.587 0 13.711 5.9794 13.975 13.5 0.005-0.167 0.025-0.331 0.025-0.5 0-7.756-6.244-14-14-14z"/>
 <path opacity=".2" d="m2.0254 16.5c-0.0059 0.167-0.0254 0.331-0.0254 0.5 0 7.756 6.244 14 14 14s14-6.244 14-14c0-0.169-0.02-0.333-0.025-0.5-0.264 7.521-6.388 13.5-13.975 13.5-7.5872 0-13.711-5.979-13.975-13.5z"/>
 <path fill="#ef3939" d="m9 9c-1.108 0-2 0.892-2 2l9 5 9-5c0-1.108-0.892-2-2-2h-14zm0 1h14c0.3784 0 0.63649 0.22457 0.80664 0.51758l-7.807 4.337-7.8066-4.337c0.1701-0.293 0.4282-0.518 0.8066-0.518zm-2 2v9c0 1.108 0.892 2 2 2h14c1.108 0 2-0.892 2-2v-9l-9 5-9-5zm1 1.7012 7.5137 4.1738a1.0001 1.0001 0 0 0 0.97266 0l7.513-4.174v7.299c0 0.5713-0.4287 1-1 1h-14c-0.5713 0-1-0.429-1-1v-7.2988z"/>
</svg>
