<svg xmlns="http://www.w3.org/2000/svg" width="32" height="32" version="1">
 <path style="opacity:0.2" d="M 30,17 A 14,14 0 0 1 16,31 14,14 0 0 1 2,17 14,14 0 0 1 16,3 14,14 0 0 1 30,17 Z"/>
 <path style="fill:#f4473a" d="M 30,16 A 14,14 0 0 1 16,30 14,14 0 0 1 2,16 14,14 0 0 1 16,2 14,14 0 0 1 30,16 Z"/>
 <path style="opacity:0.2" d="m 24,17.732035 v -4.732413 l 2.100173,0.35 L 23.708679,10.914378 20.07138,11.517667 18.408182,14.64476 9.3,10 12.1,14.9 6.5,13.5 c 0,0 7.252751,6.682429 7.439038,6.796967 l -0.460877,0.536849 0.200184,0.706685 L 9.3783902,24 h 5.5897848 z"/>
 <path style="fill:#8b9cbe" d="m 24,16.732035 v -4.732413 l 2.100173,0.35 L 23.708679,9.9143777 20.07138,10.517667 18.408182,13.64476 9.3,9 12.1,13.9 6.5,12.5 c 0,0 7.252751,6.682429 7.439038,6.796967 l -0.460877,0.536849 0.200184,0.706685 L 9.3783902,23 h 5.5897848 z"/>
 <path style="fill:#8b9cbe;opacity:0.2" d="M 16 2 A 14 14 0 0 0 2 16 A 14 14 0 0 0 2.0214844 16.585938 A 14 14 0 0 1 16 3 A 14 14 0 0 1 29.978516 16.414062 A 14 14 0 0 0 30 16 A 14 14 0 0 0 16 2 z"/>
</svg>
