<svg xmlns="http://www.w3.org/2000/svg" width="32" height="32" x="0" y="0" version="1.1" xml:space="preserve">
 <path style="opacity:0.2" d="m 21.711551,2.9999999 c -0.0073,0 -0.591371,0.2607127 -1.297437,0.5754607 -1.328227,0.5986671 -1.760802,0.8520327 -2.717127,1.5886957 -1.11571,0.8596848 -1.601425,1.6732617 -3.263523,5.4493567 -0.478161,1.08224 -0.872713,1.957212 -0.887809,1.941943 -0.05312,-0.05373 0.159353,-1.266334 0.364321,-2.072289 0.113807,-0.468304 0.371899,-1.2819136 0.56148,-1.8268504 0.18987,-0.5373025 0.318772,-0.974757 0.28074,-0.974757 -0.159388,0 -1.183892,0.4912138 -1.760763,0.8364972 -1.267549,0.7751255 -2.846041,2.2029402 -3.6505255,3.3080812 -1.8897118,2.609591 -2.7397944,4.820183 -3.2484406,8.443014 l -0.2125251,1.496772 -0.00755,-0.706094 c -0.015094,-1.373793 0.1367716,-2.594364 0.5237711,-4.329 0.2125161,-0.913416 0.3794049,-1.688501 0.3794049,-1.719329 0,-0.03083 -0.2351278,0.199646 -0.5312572,0.5141 -0.9104523,0.96744 -1.8829286,2.45661 -2.2321871,3.753771 -0.1593872,0.6063 -0.2656317,1.988042 -0.1820187,2.50215 0.038033,0.237822 0.060687,0.445087 0.04559,0.468282 -0.015097,0.01527 -0.067212,-0.06136 -0.279729,-0.168825 -0.2125163,-0.115094 -0.3870025,-0.17648 -0.3870025,-0.145944 0,0.03847 0.1062536,0.422239 0.2276086,0.867348 0.1213548,0.44511 0.2276085,0.805926 0.2276085,0.813559 0,0 -0.1733781,-0.03842 -0.5603784,-0.09978 -0.3794518,-0.05373 -0.7057769,-0.0846 -0.7208737,-0.06905 -0.022646,0.0229 0.1518478,0.268653 0.379461,0.560206 2.3804646,2.092681 1.2219782,1.604834 3.201465,2.002003 0.015094,0.02319 0.3338866,0.115097 0.7057909,0.222558 0.3719036,0.09983 0.9182498,0.26861 1.2065402,0.37607 L 8.4075024,26.8 7.9899936,26.423872 7.5728244,26.047744 l 1.8972484,-0.0076 1.8972482,-0.0076 -1.06257,-0.429861 C 9.4949893,25.343382 8.8910132,25.269679 8.2513989,24.77621 7.9829756,24.533657 8.2473251,24.546154 9.272687,24.546154 c 2.254067,0 4.52323,-0.746091 6.982264,-1.8665 1.153743,-0.522036 2.261594,-1.151233 2.178272,-1.235792 -0.02293,-0.0229 -0.318767,-0.06901 -0.668026,-0.107467 -0.690678,-0.069 -1.882165,-0.307129 -1.882165,-0.376127 0,-0.0229 0.525572,-0.233176 1.161007,-0.49122 3.160037,-1.617821 5.171609,-2.979798 7.403236,-4.99607 0.584196,-0.552336 1.083538,-1.093689 1.051849,-1.125735 -0.0076,-0.01527 -0.311232,0.04614 -0.660201,0.122776 -1.601421,0.352917 -4.333657,0.567835 -5.699626,0.452742 -0.698227,-0.06136 -1.677224,-0.291553 -2.18587,-0.506474 -0.311226,-0.138289 -0.273183,-0.138318 2.094691,-0.138318 2.18584,0 2.50463,-0.0229 3.362244,-0.176451 1.252162,-0.230188 2.087149,-0.498872 2.921827,-0.921082 1.35842,-0.683226 2.14779,-0.962364 3.233016,-2.236623 0.668034,-0.78276 0.842533,-1.0361168 1.039662,-1.5425899 0.409936,-1.0593388 0.500755,-1.624327 0.273142,-2.7294684 C 29.650401,5.5742577 28.861017,4.7911588 27.441628,4.2538558 24.738922,3.1788254 22.39294,3.8426933 20.960171,5.6355921 20.535138,6.1652613 20.132755,6.239033 20.072079,6.3003971 19.96582,6.4078578 20.610916,5.1183673 21.400305,3.6294799 c 0.189871,-0.3452832 0.326343,-0.62948 0.311246,-0.62948 z"/>
 <path style="fill:#90725a" d="m 21.711551,1.9999999 c -0.0073,0 -0.591371,0.2607127 -1.297437,0.5754607 -1.328227,0.5986671 -1.760802,0.8520327 -2.717127,1.5886957 -1.11571,0.8596848 -1.601425,1.6732617 -3.263523,5.4493569 -0.478161,1.0822398 -0.872713,1.9572118 -0.887809,1.9419428 -0.05312,-0.05373 0.159353,-1.266334 0.364321,-2.0722891 0.113807,-0.4683042 0.371899,-1.2819135 0.56148,-1.8268503 0.18987,-0.5373025 0.318772,-0.974757 0.28074,-0.974757 -0.159388,0 -1.183892,0.4912138 -1.760763,0.8364972 -1.267549,0.7751255 -2.846041,2.20294 -3.6505255,3.3080812 -1.8897118,2.609591 -2.7397944,4.820183 -3.2484406,8.443014 l -0.2125251,1.496772 -0.00755,-0.706094 c -0.015094,-1.373793 0.1367716,-2.594364 0.5237711,-4.329 0.2125161,-0.913416 0.3794049,-1.688501 0.3794049,-1.719329 0,-0.03083 -0.2351278,0.199646 -0.5312572,0.5141 -0.9104523,0.96744 -1.8829286,2.45661 -2.2321871,3.753771 -0.1593872,0.6063 -0.2656317,1.988042 -0.1820187,2.50215 0.038033,0.237822 0.060687,0.445087 0.04559,0.468282 -0.015097,0.01527 -0.067212,-0.06136 -0.279729,-0.168825 -0.2125163,-0.115094 -0.3870025,-0.17648 -0.3870025,-0.145944 0,0.03847 0.1062536,0.422239 0.2276086,0.867348 0.1213548,0.44511 0.2276085,0.805926 0.2276085,0.813559 0,0 -0.1733781,-0.03842 -0.5603784,-0.09978 -0.3794518,-0.05373 -0.7057769,-0.0846 -0.7208737,-0.06905 -0.022646,0.0229 0.1518478,0.268653 0.379461,0.560206 2.3804646,2.092681 1.2219782,1.604834 3.201465,2.002003 0.015094,0.02319 0.3338866,0.115097 0.7057909,0.222558 0.3719036,0.09983 0.9182498,0.26861 1.2065402,0.37607 L 8.4075024,25.8 7.9899936,25.423872 7.5728244,25.047744 l 1.8972484,-0.0076 1.8972482,-0.0076 -1.06257,-0.429861 C 9.4949893,24.343382 8.8910132,24.269679 8.2513989,23.77621 7.9829756,23.533657 8.2473251,23.546154 9.272687,23.546154 c 2.254067,0 4.52323,-0.746091 6.982264,-1.8665 1.153743,-0.522036 2.261594,-1.151233 2.178272,-1.235792 -0.02293,-0.0229 -0.318767,-0.06901 -0.668026,-0.107467 -0.690678,-0.069 -1.882165,-0.307129 -1.882165,-0.376127 0,-0.0229 0.525572,-0.233176 1.161007,-0.49122 3.160037,-1.617821 5.171609,-2.979798 7.403236,-4.99607 0.584196,-0.552336 1.083538,-1.093689 1.051849,-1.125735 -0.0076,-0.01527 -0.311232,0.04614 -0.660201,0.122776 -1.601421,0.352917 -4.333657,0.567835 -5.699626,0.452742 -0.698227,-0.06136 -1.677224,-0.291553 -2.18587,-0.506474 -0.311226,-0.138289 -0.273183,-0.138318 2.094691,-0.138318 2.18584,0 2.50463,-0.0229 3.362244,-0.176451 1.252162,-0.230188 2.087149,-0.498872 2.921827,-0.921082 1.35842,-0.683226 2.14779,-0.962364 3.233016,-2.2366235 0.668034,-0.7827597 0.842533,-1.0361163 1.039662,-1.5425894 0.409936,-1.0593388 0.500755,-1.624327 0.273142,-2.7294684 C 29.650401,4.5742577 28.861017,3.7911588 27.441628,3.2538558 24.738922,2.1788254 22.39294,2.8426933 20.960171,4.6355921 20.535138,5.1652613 20.132755,5.239033 20.072079,5.3003971 19.96582,5.4078578 20.610916,4.1183673 21.400305,2.6294799 c 0.189871,-0.3452832 0.326343,-0.62948 0.311246,-0.62948 z"/>
 <path style="opacity:0.2" d="M 26.980515,5.6468735 C 22.41965,6.431947 18.013382,9.7462797 13.691545,14.242382 9.3697086,18.738484 5.1292845,24.451202 0.99999997,30.172851 V 31 H 2.1139322 C 9.3560848,20.584416 17.229648,8.8683711 26.980515,5.6468735 Z"/>
 <path style="fill:#b2bfd9" d="M 26.980515,4.6468735 C 22.41965,5.431947 18.013382,8.7462797 13.691545,13.242382 9.3697086,17.738484 5.1292845,23.451202 0.99999997,29.172851 V 30 H 2.1139322 C 9.3560848,19.584416 17.229648,7.8683711 26.980515,4.6468735 Z"/>
 <path style="fill:#8b9cbe;opacity:0.1" d="M 21.710938 2 C 21.703637 2 21.120128 2.2614239 20.414062 2.5761719 C 19.085835 3.174839 18.653591 3.4273995 17.697266 4.1640625 C 16.581556 5.0237473 16.095692 5.8371861 14.433594 9.6132812 C 14.093607 10.382785 13.951834 10.679718 13.802734 10.994141 C 13.643467 11.723423 13.502107 12.511381 13.544922 12.554688 C 13.560018 12.569957 13.955433 11.695521 14.433594 10.613281 C 16.095692 6.8371863 16.581556 6.0237473 17.697266 5.1640625 C 18.653591 4.4273995 19.085835 4.174839 20.414062 3.5761719 C 20.765122 3.4196776 20.823751 3.3934365 21.058594 3.2890625 C 21.181858 3.0525968 21.265712 2.8829275 21.400391 2.6289062 C 21.590262 2.2836231 21.726035 2 21.710938 2 z M 24.580078 2.7460938 C 23.107011 2.8357067 21.856418 3.5142039 20.960938 4.6347656 C 20.90205 4.70815 20.846232 4.7554384 20.789062 4.8125 C 20.341667 5.6838214 19.998494 6.3753876 20.072266 6.3007812 C 20.132942 6.2394171 20.535905 6.1644348 20.960938 5.6347656 C 22.393706 3.8418668 24.7387 3.1788758 27.441406 4.2539062 C 28.860795 4.7912092 29.651298 5.574378 29.878906 6.671875 C 29.917879 6.8611036 29.932827 7.0188915 29.953125 7.1816406 C 30.021254 6.7274952 30.004358 6.2809865 29.878906 5.671875 C 29.651298 4.574378 28.860795 3.7912093 27.441406 3.2539062 C 26.427891 2.8507698 25.463918 2.692326 24.580078 2.7460938 z M 14.751953 6.6816406 C 14.592565 6.6816406 13.569059 7.1722947 12.992188 7.5175781 C 11.724638 8.2927036 10.146281 9.7210307 9.3417969 10.826172 C 7.4520851 13.435763 6.6004431 15.6467 6.0917969 19.269531 L 5.8808594 20.765625 L 5.8808594 20.695312 C 5.8794596 20.817066 5.8716872 20.936795 5.8730469 21.060547 L 5.8808594 21.765625 L 6.0917969 20.269531 C 6.6004431 16.6467 7.4520851 14.435763 9.3417969 11.826172 C 10.146281 10.721031 11.724638 9.2927036 12.992188 8.5175781 C 13.437475 8.2510535 14.046923 7.9598872 14.421875 7.8125 C 14.438993 7.7622422 14.454457 7.7029482 14.470703 7.65625 C 14.660573 7.1189475 14.789985 6.6816406 14.751953 6.6816406 z M 25.5 13.347656 C 25.4924 13.332386 25.188813 13.394067 24.839844 13.470703 C 24.761967 13.487865 24.655204 13.499137 24.572266 13.515625 C 23.959604 13.755392 23.290253 13.939772 22.410156 14.101562 C 21.552542 14.255114 21.234668 14.277344 19.048828 14.277344 C 16.680954 14.277344 16.641899 14.277727 16.953125 14.416016 C 17.461771 14.630937 18.440445 14.860515 19.138672 14.921875 C 20.383341 15.026748 22.727291 14.852553 24.351562 14.554688 C 24.383881 14.525681 24.414858 14.501936 24.447266 14.472656 C 25.031462 13.92032 25.531689 13.379702 25.5 13.347656 z M 6.7753906 14.011719 C 6.7753906 13.980889 6.54027 14.210937 6.2441406 14.525391 C 5.3336883 15.492831 4.3609773 16.982136 4.0117188 18.279297 C 3.8594976 18.858338 3.7604054 20.125169 3.8242188 20.6875 C 3.8574425 20.163018 3.924972 19.609277 4.0117188 19.279297 C 4.3609773 17.982136 5.3336883 16.492831 6.2441406 15.525391 C 6.3841863 15.376679 6.401752 15.375595 6.4960938 15.283203 C 6.629629 14.69125 6.7753906 14.034521 6.7753906 14.011719 z M 17.396484 20.277344 C 17.272379 20.341981 17.172692 20.403336 17.044922 20.46875 C 16.409487 20.726794 15.882812 20.938038 15.882812 20.960938 C 15.882812 21.01182 16.517521 21.1391 17.134766 21.238281 C 17.877744 20.857867 18.493343 20.503995 18.433594 20.443359 C 18.410664 20.420459 18.114884 20.374395 17.765625 20.335938 C 17.659454 20.325331 17.520177 20.294715 17.396484 20.277344 z M 3.2089844 20.935547 C 3.2089844 20.974017 3.316145 21.357625 3.4375 21.802734 C 3.4739757 21.936521 3.4745874 21.93562 3.5058594 22.046875 C 3.5493662 22.067318 3.5463982 22.053376 3.5957031 22.080078 C 3.8082201 22.187543 3.859903 22.26527 3.875 22.25 C 3.890097 22.226805 3.8681111 22.019072 3.8300781 21.78125 C 3.8075899 21.642977 3.8004148 21.438862 3.8027344 21.207031 C 3.7713157 21.186263 3.7535701 21.159908 3.5957031 21.080078 C 3.3831868 20.964984 3.2089844 20.905011 3.2089844 20.935547 z M 2.3828125 22.447266 C 2.3601665 22.470166 2.5341056 22.716259 2.7617188 23.007812 C 3.0506796 23.26184 3.1608121 23.37637 3.3574219 23.560547 C 3.4678022 23.581011 3.6640625 23.615234 3.6640625 23.615234 C 3.6640625 23.607601 3.5588548 23.247844 3.4375 22.802734 C 3.4041647 22.680466 3.404167 22.671579 3.375 22.564453 C 3.2832128 22.547255 3.2910174 22.545354 3.1035156 22.515625 C 2.7240638 22.461895 2.3979093 22.431716 2.3828125 22.447266 z M 10.013672 24.515625 C 9.766455 24.533002 9.520064 24.546875 9.2734375 24.546875 C 8.2480756 24.546875 7.9835298 24.532838 8.2519531 24.775391 C 8.3941746 24.885116 8.5344297 24.968096 8.6757812 25.042969 L 9.4707031 25.041016 L 11.367188 25.033203 L 10.304688 24.603516 C 10.196493 24.56887 10.115095 24.545088 10.013672 24.515625 z"/>
</svg>
