<svg xmlns="http://www.w3.org/2000/svg" width="32" height="32" version="1">
 <rect fill="#b2bfd9" width="28" height="28" x="2" y="2" rx="1.4" ry="1.4"/>
 <path opacity=".6" d="m23.5 6h-16l-0.5 8h1.5c0.2003-1.385 0.4135-2.737 0.7283-3.623 0.7441-2.0224 1.3257-2.3316 3.2717-2.3316 0.94436 0 1.5 0.30471 1.5 0.99723v13.711c0 1.163 0 1.246-2.164 1.246h-0.836v2h9v-2h-0.83625c-2.29 0-2.164-0.083-2.164-1.246v-13.711c0-0.69252 0.55565-0.99723 1.5-0.99723 1.7456 0 2.3849 0.19838 3.1003 1.8604 0.43 1.0248 0.671 2.5148 0.9 4.0938h1.5z"/>
 <path fill="#fff" opacity=".2" d="m3.4004 2c-0.7756 0-1.4004 0.6248-1.4004 1.4004v1c0-0.7756 0.6248-1.4004 1.4004-1.4004h25.2c0.775 0 1.4 0.6248 1.4 1.4004v-1c0-0.7756-0.625-1.4004-1.4-1.4004h-25.2z"/>
 <path opacity=".2" d="m2 28.6v1c0 0.775 0.6248 1.4 1.4004 1.4h25.2c0.775 0 1.4-0.625 1.4-1.4v-1c0 0.775-0.625 1.4-1.4 1.4h-25.2c-0.7752 0-1.4-0.625-1.4-1.4z"/>
</svg>
