<svg xmlns="http://www.w3.org/2000/svg" width="32" height="32" version="1">
 <rect style="opacity:.2" width="28" height="28" x="2" y="3" rx="1.4" ry="1.4"/>
 <rect style="fill:#b2bfd9" width="28" height="28" x="2" y="2" rx="1.4" ry="1.4"/>
 <path style="opacity:.2;stroke-linejoin:round;stroke:#000000;stroke-linecap:round;stroke-width:3;fill:none" d="m2.0375437 11.5c10.5-0.563967 11.371889 8.229782 15.147138 11.751863 3.052862 2.848137 10.052862 4.248137 12.852862 4.248137"/>
 <path style="stroke-linejoin:round;stroke:#4a61cc;stroke-linecap:round;stroke-width:3;fill:none" d="m2.0375437 10.5c10.5-0.563967 11.371889 8.229782 15.147138 11.751863 3.052862 2.848137 10.052862 4.248137 12.852862 4.248137"/>
 <path style="opacity:.2;stroke-linejoin:round;stroke:#000000;stroke-linecap:round;stroke-width:3;fill:none" d="m18.54 11.738762s-1.579752 0.93082-1.761697 1.721855c-0.272289 1.183819 0.361597 2.557192 1.192053 3.443709 0.933372 0.996378 3.312495 1.623233 3.774834 1.589404 2.715232-0.198676 3.671961-1.529855 4.409958-3.046358 0.512049-1.052207 0.213355-2.393206-0.136295-3.509933-1.002991-2.6329626-3.607012-4.113091-5.531941-4.3381074-1.724356-0.1770552-2.922677 1.8837371-2.913907 1.8848333l-1.059603 1.3245031"/>
 <path style="stroke-linejoin:round;stroke:#e84343;stroke-linecap:round;stroke-width:3;fill:none" d="m18.54 10.738762s-1.579752 0.93082-1.761697 1.721855c-0.272289 1.183819 0.361597 2.557192 1.192053 3.443709 0.933372 0.996378 3.312495 1.623233 3.774834 1.589404 2.715232-0.198676 3.671961-1.529855 4.409958-3.046358 0.512049-1.052207 0.213355-2.393206-0.136295-3.509933-1.002991-2.6329626-3.607012-4.113091-5.531941-4.3381074-1.724356-0.1770552-2.922677 1.8837371-2.913907 1.8848333l-1.059603 1.3245034"/>
 <path style="opacity:.2;fill:#8b9cbe" d="m3.4003906 2c-0.7756 0-1.4003906 0.6247906-1.4003906 1.4003906v1c0-0.7756 0.6247906-1.4003906 1.4003906-1.4003906h25.199218c0.7756 0 1.400391 0.6247906 1.400391 1.4003906v-1c0-0.7756-0.624791-1.4003906-1.400391-1.4003906h-25.199218z"/>
</svg>
