<svg xmlns="http://www.w3.org/2000/svg" width="32" height="32" version="1.1">
 <g transform="translate(0 -1020.4)">
  <rect fill="#fa5c5c" width="28" height="28" x="-1050.4" y="-30" rx="1.4" ry="1.4" transform="matrix(0,-1,-1,0,0,0)"/>
  <path opacity=".2" d="m10.91 1029.4a4.5242 8.2784 17.882 0 0 -0.33203 0 4.5242 8.2784 17.882 0 0 -5.9844 6.9317 4.5242 8.2784 17.882 0 0 2.0449 8.9922 4.5242 8.2784 17.882 0 0 4.9121 -2.9297h9a8.2784 4.5242 72.118 0 0 4.9102 2.9297 8.2784 4.5242 72.118 0 0 2.0469 -8.9922 8.2784 4.5242 72.118 0 0 -6.7695 -6.8672 8.2784 4.5242 72.118 0 0 -2.3828 2.9297h-4.6113a4.5242 8.2784 17.882 0 0 -2.3828 -2.9297 4.5242 8.2784 17.882 0 0 -0.45117 -0.066zm3.09 5h4v3h1l-3 3-3-3h1v-3z"/>
  <path fill="#8b9cbe" transform="translate(0 1020.4)" d="m10.91 8.0039a4.5242 8.2784 17.882 0 0 -0.332 0.002 4.5242 8.2784 17.882 0 0 -5.9842 6.9321 4.5242 8.2784 17.882 0 0 2.0449 8.992 4.5242 8.2784 17.882 0 0 4.9123 -2.93h9a8.2784 4.5242 72.118 0 0 4.91 2.93 8.2784 4.5242 72.118 0 0 2.047 -8.992 8.2784 4.5242 72.118 0 0 -6.77 -6.8677 8.2784 4.5242 72.118 0 0 -2.383 2.9297h-4.611a4.5242 8.2784 17.882 0 0 -2.383 -2.9297 4.5242 8.2784 17.882 0 0 -0.451 -0.0664zm3.09 4.9961h4v3h1l-3 3-3-3h1v-3z"/>
  <path fill="#fff" opacity=".2" transform="translate(0 1020.4)" d="m3.4004 2c-0.7756 0-1.4004 0.6248-1.4004 1.4004v1c0-0.7756 0.6248-1.4004 1.4004-1.4004h25.2c0.775 0 1.4 0.6248 1.4 1.4004v-1c0-0.7756-0.625-1.4004-1.4-1.4004h-25.2z"/>
  <path opacity=".2" d="m2 1049v1c0 0.7756 0.62479 1.4004 1.4004 1.4004h25.199c0.7756 0 1.4004-0.6248 1.4004-1.4004v-1c0 0.7756-0.62479 1.4004-1.4004 1.4004h-25.199c-0.7752 0-1.4-0.7-1.4-1.4z"/>
 </g>
</svg>
