<svg xmlns="http://www.w3.org/2000/svg" width="32" height="32" version="1">
 <g style="opacity:0.2" transform="matrix(1.0000625,0,0,0.99999703,-1.6056425e-4,1.0000832)">
  <path d="M 7.2265625,4 A 3.0003,3.0003 0 0 0 4.9726562,8.9785156 c 3.2997463,3.7584104 3.6266122,7.3633164 3.4589844,9.8164064 -0.049918,0.729364 -0.2439177,0.997528 -0.3691406,1.15625 -0.1252229,0.158722 -0.5749053,0.287524 0.1367188,0.002 a 3.0003,3.0003 0 0 0 -0.00195,0.002 c -0.094508,0.03798 -0.1706236,0.422211 -1.578125,-0.480469 A 3.0003,3.0003 0 0 0 2,22 c 0,3.33368 3.2407889,6 6.8027344,6 3.8426506,0 6.7482846,-2.749902 7.5800776,-6.130859 0.611577,0.693252 1.180401,1.417528 1.904297,2.023437 2.256302,1.88855 5.06804,3.396647 8.085938,4.041016 a 3.0003,3.0003 0 0 0 2.896484,-4.894532 C 28.098407,21.683256 26.298515,19.793746 25.078125,18.191406 24.705865,17.702639 24.587571,17.4461 24.382812,17.099609 25.537511,16.076018 26.491067,14.958541 26.859375,13.5 27.373916,11.46236 26.462899,9.3193451 25.230469,8.0625 22.765608,5.5488098 19.222356,4.5767501 15.427734,4.03125 A 3.0003,3.0003 0 0 0 12.765625,5.0019531 C 11.935783,4.6832094 9.9852034,4.0005139 7.2265625,4 Z M 23.160156,18.154297 c -0.01195,0.01004 -0.0094,0.03158 -0.02148,0.04102 l -0.158203,0.115235 c 0.07019,-0.04769 0.110795,-0.108115 0.179687,-0.15625 z"/>
 </g>
 <g style="fill:none" transform="matrix(1.0000625,0,0,0.99999703,-1.6056425e-4,4.7498576e-5)">
  <path style="fill:#55648f" d="M 7.2265625,4 A 3.0003,3.0003 0 0 0 4.9726562,8.9785156 c 3.2997463,3.7584104 3.6266122,7.3633164 3.4589844,9.8164064 -0.049918,0.729364 -0.2439177,0.997528 -0.3691406,1.15625 -0.1252229,0.158722 -0.5749053,0.287524 0.1367188,0.002 a 3.0003,3.0003 0 0 0 -0.00195,0.002 c -0.094508,0.03798 -0.1706236,0.422211 -1.578125,-0.480469 A 3.0003,3.0003 0 0 0 2,22 c 0,3.33368 3.2407889,6 6.8027344,6 3.8426506,0 6.7482846,-2.749902 7.5800776,-6.130859 0.611577,0.693252 1.180401,1.417528 1.904297,2.023437 2.256302,1.88855 5.06804,3.396647 8.085938,4.041016 a 3.0003,3.0003 0 0 0 2.896484,-4.894532 C 28.098407,21.683256 26.298515,19.793746 25.078125,18.191406 24.705865,17.702639 24.587571,17.4461 24.382812,17.099609 25.537511,16.076018 26.491067,14.958541 26.859375,13.5 27.373916,11.46236 26.462899,9.3193451 25.230469,8.0625 22.765608,5.5488098 19.222356,4.5767501 15.427734,4.03125 A 3.0003,3.0003 0 0 0 12.765625,5.0019531 C 11.935783,4.6832094 9.9852034,4.0005139 7.2265625,4 Z M 23.160156,18.154297 c -0.01195,0.01004 -0.0094,0.03158 -0.02148,0.04102 l -0.158203,0.115235 c 0.07019,-0.04769 0.110795,-0.108115 0.179687,-0.15625 z"/>
 </g>
 <g style="opacity:0.2" transform="translate(0,1.0000357)">
  <path d="m 7.2265625,7 c 3.8884995,4.429 4.4022655,9 4.1972655,12 -0.18,2.63 -1.7984218,3.614281 -2.1074218,3.738281 C 8.6720063,22.997281 7.158,23.384 5,22 5,23.615 6.3878344,25 8.8027344,25 11.217534,25 13.194703,23.060953 13.595703,20.876953 14.989403,9.6018531 12.337891,8.0175781 12.337891,8.0175781 12.337891,8.0175781 9.9104768,7.0005 7.2265625,7 Z M 15,7 c 0.706,2.9918 6,4.169797 6,5.591797 0,1.423 -4.058,1.667656 -4,3.972656 C 17.059,19.752453 22.176,23.97 27,25 24.882,22.548 19.529922,17.202125 21.294922,15.828125 27.647822,11.512125 21.8235,7.98092 15,7 Z"/>
 </g>
 <g style="fill:#8b9cbe">
  <path d="m 7.2265625,7 c 3.8884995,4.429 4.4022655,9 4.1972655,12 -0.18,2.63 -1.7984218,3.614281 -2.1074218,3.738281 C 8.6720063,22.997281 7.158,23.384 5,22 5,23.615 6.3878344,25 8.8027344,25 11.217534,25 13.194703,23.060953 13.595703,20.876953 14.989403,9.6018531 12.337891,8.0175781 12.337891,8.0175781 12.337891,8.0175781 9.9104768,7.0005 7.2265625,7 Z M 15,7 c 0.706,2.9918 6,4.169797 6,5.591797 0,1.423 -4.058,1.667656 -4,3.972656 C 17.059,19.752453 22.176,23.97 27,25 24.882,22.548 19.529922,17.202125 21.294922,15.828125 27.647822,11.512125 21.8235,7.98092 15,7 Z"/>
 </g>
 <g style="opacity:0.1;fill:#8b9cbe" transform="matrix(1.0000625,0,0,0.99999703,-1.6056425e-4,4.7498576e-5)">
  <path style="fill:#8b9cbe" transform="matrix(0.9999375,0,0,1.000003,1.6055422e-4,-4.7498717e-5)" d="M 7.2265625,4 A 3.0004875,3.0002911 0 0 0 4.2714844,7.4902344 3.0004875,3.0002911 0 0 1 7.2265625,5 c 2.7588133,5.139e-4 4.7091685,0.6832104 5.5390625,1.0019531 A 3.0004875,3.0002911 0 0 1 15.427734,5.03125 c 3.79486,0.5454985 7.339673,1.5175673 9.804688,4.03125 0.892346,0.9099644 1.605893,2.285352 1.742187,3.748047 C 27.159622,10.991743 26.326571,9.1782513 25.232422,8.0625 22.767407,5.5488173 19.222594,4.5767485 15.427734,4.03125 A 3.0004875,3.0002911 0 0 0 12.765625,5.0019531 C 11.935731,4.6832104 9.9853758,4.0005139 7.2265625,4 Z M 24.767578,17.732422 c -0.128321,0.122041 -0.248438,0.248078 -0.382812,0.367187 0.204771,0.34649 0.323029,0.603032 0.695312,1.091797 1.220466,1.602335 3.020209,3.491855 4.191406,4.847656 a 3.0004875,3.0002911 0 0 1 0.683594,1.466797 3.0004875,3.0002911 0 0 0 -0.683594,-2.466797 c -1.171197,-1.355801 -2.97094,-3.245321 -4.191406,-4.847656 -0.142274,-0.18679 -0.225412,-0.322045 -0.3125,-0.458984 z M 8.4472656,18.337891 c -0.00593,0.151815 -0.00578,0.312959 -0.015625,0.457031 -0.049921,0.729362 -0.2439099,0.997528 -0.3691406,1.15625 -0.042807,0.05426 -0.1086801,0.08332 -0.1679688,0.115234 -0.20758,-0.01349 -0.5761957,-0.143408 -1.2753906,-0.591797 A 3.0004875,3.0002911 0 0 0 2,22 c 0,0.188566 0.012992,0.37466 0.033203,0.558594 a 3.0004875,3.0002911 0 0 1 4.5859375,-2.083985 c 0.6991949,0.448389 1.0678106,0.578311 1.2753906,0.591797 0.059289,-0.03191 0.1251615,-0.06098 0.1679688,-0.115234 0.1252307,-0.158722 0.3192195,-0.426888 0.3691406,-1.15625 0.030456,-0.445669 0.032677,-0.941315 0.015625,-1.457031 z m 14.7148434,0.816406 c -0.0689,0.04814 -0.109493,0.10856 -0.179687,0.15625 l 0.158203,-0.115235 c 0.01208,-0.0094 0.0095,-0.03098 0.02148,-0.04102 z M 8.1972656,19.955078 c -0.039763,0.01598 -0.096701,0.08267 -0.2304687,0.09961 0.04301,-0.02081 0.018504,-0.01447 0.2304687,-0.09961 z m 0,1 c -0.2119648,0.08514 -0.1874591,0.0788 -0.2304687,0.09961 0.1337674,-0.01694 0.1907059,-0.08363 0.2304687,-0.09961 z"/>
 </g>
</svg>
