<svg width="32" height="32" version="1.1" xmlns="http://www.w3.org/2000/svg">
 <path d="m30 5v22c0 2-2 2-2 2h-26zm-5 10.871-9.482 8.129h9.482z" style="opacity:.2"/>
 <path d="m30 4v22c0 2-2 2-2 2h-26zm-5 10.871-9.482 8.129h9.482z" style="fill:#f69a0d"/>
 <path d="m30 4-28 24h1.1660156l26.833984-23v-1zm-13.316406 19-1.166016 1h9.482422v-1h-8.316406z" style="fill:#8b9cbe;opacity:.2"/>
 <path d="m11.484796 4.0001326c-0.306654 0.00677-0.5732 0.2123445-0.657618 0.5072279l-2.7999997 9.8000215c-0.1062663 0.371477 0.1085098 0.75881 0.4798829 0.865433l9.7999998 2.800007c0.371475 0.106266 0.758808-0.108511 0.86543-0.479885l2.8-9.8000222c0.106267-0.3714759-0.108509-0.7588088-0.479883-0.8654321l-9.8-2.8000063c-0.06751-0.01949-0.137561-0.028712-0.207812-0.027344z" style="opacity:.2"/>
 <path d="m11.484796 3.0001325c-0.306654 0.00677-0.5732 0.2123445-0.657618 0.5072279l-2.7999997 9.8000216c-0.1062663 0.371477 0.1085098 0.75881 0.4798829 0.865433l9.7999998 2.800007c0.371475 0.106266 0.758808-0.108511 0.86543-0.479885l2.8-9.8000223c0.106267-0.3714759-0.108509-0.7588088-0.479883-0.8654321l-9.8-2.8000063c-0.06751-0.01949-0.137561-0.028712-0.207812-0.027344z" style="fill:#d7e50b"/>
 <path d="m11.484375 3c-0.306654 0.00677-0.571832 0.2129291-0.65625 0.5078125l-2.8007812 9.7988285c-0.0615254 0.215075-0.0065584 0.429507 0.1152343 0.597656l2.6855469-9.3964845c0.084418-0.2948834 0.349596-0.5010425 0.65625-0.5078125 0.070251-0.0013682 0.141474 0.0078537 0.208984 0.0273438l9.798829 2.8007812c0.156495 0.0449305 0.276659 0.145146 0.365234 0.2675781l0.115234-0.4023437c0.106267-0.3714759-0.109094-0.7586111-0.480468-0.8652344l-9.798829-2.8007812c-0.06751-0.01949-0.138733-0.028712-0.208984-0.0273438z" style="fill:#8b9cbe;opacity:.2"/>
</svg>
