<svg xmlns="http://www.w3.org/2000/svg" width="32" height="32" version="1.1">
 <circle style="opacity:0.2" cx="16" cy="17" r="14"/>
 <circle style="fill:#8c2330" cx="16" cy="16" r="14"/>
 <path style="opacity:0.2" d="M 21.148438,3.9941406 C 18.841088,6.4408825 17.417046,9.05428 16.728516,12.027344 15.837695,15.873893 15.978736,20.100652 16.0625,26 h 5 c -0.04539,-3.196896 -0.05176,-5.794755 0.03125,-8 H 25 v -5 h -3.335938 c 0.585457,-2.414364 1.561389,-4.1929746 3.808594,-6.2851562 A 14,14 0 0 0 21.148438,3.9941406 Z M 15,6.9726562 10,7.0273438 C 10.087507,14.935929 9.8439719,18.859862 9.1425781,21.007812 8.5214655,22.90991 7.4880839,23.946458 5.2949219,26 a 14,14 0 0 0 3.8710937,3.212891 C 11.31729,27.16728 12.98009,25.366916 13.896484,22.560547 14.992759,19.203312 15.088501,14.971037 15,6.9726562 Z"/>
 <path style="fill:#8b9cbe" d="M 21.148438 2.9941406 C 18.841088 5.4408825 17.417046 8.05428 16.728516 11.027344 C 15.837695 14.873893 15.978736 19.100652 16.0625 25 L 21.0625 25 C 21.01711 21.803104 21.01074 19.205245 21.09375 17 L 25 17 L 25 12 L 21.664062 12 C 22.249519 9.5856357 23.225451 7.8070254 25.472656 5.7148438 A 14 14 0 0 0 21.148438 2.9941406 z M 15 5.9726562 L 10 6.0273438 C 10.087507 13.935929 9.8439719 17.859862 9.1425781 20.007812 C 8.5214655 21.90991 7.4880839 22.946458 5.2949219 25 A 14 14 0 0 0 9.1660156 28.212891 C 11.31729 26.16728 12.98009 24.366916 13.896484 21.560547 C 14.992759 18.203312 15.088501 13.971037 15 5.9726562 z"/>
 <path style="fill:#8b9cbe;opacity:0.1" d="M 16 2 A 14 14 0 0 0 2 16 A 14 14 0 0 0 2.0214844 16.585938 A 14 14 0 0 1 16 3 A 14 14 0 0 1 29.978516 16.414062 A 14 14 0 0 0 30 16 A 14 14 0 0 0 16 2 z"/>
</svg>
