<svg width="32" height="32" version="1.1" xmlns="http://www.w3.org/2000/svg">
 <rect x="2" y="3" width="28" height="28" rx="7" ry="7" style="opacity:.2"/>
 <rect x="2" y="2" width="28" height="28" rx="7" ry="7" style="fill:#d92113"/>
 <path d="m15.335449 4.75-0.07178 0.6870117c-0.12299 1.1635727-0.50978 3.5346041-0.60498 3.7084962-0.05897 0.1077142-0.26132 0.1655028-0.581055 0.1674802-0.593317 0.00368-0.967666 0.287867-0.919434 0.7006839 0.02477 0.212039 0.121951 0.302764 0.413575 0.382812 0.5022 0.137849 0.495716 0.12392 0.263183 0.475098-0.221662 0.334762-0.252865 0.537169-0.290526 1.842285l-0.02734 0.878418-0.587891 0.02734c-0.323456 0.01477-0.606911 0.04615-0.628906 0.06836-0.022 0.02221 0.01682 0.637216 0.08545 1.367188 0.06863 0.729971 0.09553 1.449035 0.0581 1.599609-0.05006 0.201383-0.248377 0.360187-0.748534 0.598144-0.373968 0.17792-0.846803 0.358826-1.049317 0.40332-0.202514 0.04449-0.567156 0.174163-0.8134764 0.287109-0.2463199 0.112945-0.5827602 0.207167-0.7451173 0.208496-0.4385015 0.0036-1.9036325 0.915936-2.25 1.248536-0.1670278 0.160395-0.4770121 0.486863-0.5707987 0.775883l-0.2666016 0.82373v6c0 1 1 2 2 2h17c1 0 1.990642-1.047228 2-2 0.0098-0.999952 0.01843-1.133696 0-2-0.03661-1.731582 0-2 0-3-0.200655-0.386243-0.427255-0.443439-0.604078-0.929199-0.176755-0.485762-0.608612-1.601851-0.956961-2.478028s-0.688615-1.774329-0.75879-1.996093c-0.152089-0.480653-0.329647-0.642602-0.792969-0.738282-0.42697-0.08817-0.557604-0.459167-0.471679-1.329589 0.06625-0.67108 0.02645-0.755763-0.803224-1.739746-0.432365-0.512783-0.521202-0.569779-0.92285-0.570801-0.265568-6.77e-4 -0.644585-0.109218-0.936525-0.27002-0.269301-0.14833-0.645989-0.34524-0.837402-0.4375l-0.348632-0.16748 0.16748-0.577637c0.196737-0.680524 0.77642-2.0055989 1.312505-3.0078125 0.363141-0.6788952 0.372365-0.7247664 0.194824-0.9228517-0.195216-0.2178074-1.791514-1.0712537-2.447265-1.3090819-0.209456-0.0759652-0.478456-0.1829374-0.598145-0.2358398-0.508584-0.2247932-1.881842-0.5400391-2.351562-0.5400391zm4.053711 7.522949c0.04168-0.02777 0.117003-0.01489 0.249512 0.0171 0.424095 0.102352 0.462134 0.133469 0.464844 0.40332 0.0013 0.132393 0.0983 0.365048 0.215332 0.516113 0.117027 0.151065 0.213999 0.427867 0.215331 0.615235 0.0042 0.580405 0.228199 1.065498 0.738281 1.599609 0.511461 0.535524 0.561196 0.861328 0.133298 0.861328-0.368135 0-0.366968 0.289897 0 0.89209 0.408667 0.67062 1.038525 2.528416 0.94336 2.778808-0.107135 0.281904-0.225113 0.213536-0.827146-0.485359-0.377134-0.437815-0.834495-0.810708-1.350097-1.100586-0.86757-0.487757-1.378312-0.902301-1.377441-1.117675 3.24e-4 -0.07843 0.294089-0.528416 0.652832-0.998047 0.358743-0.46963 0.652832-0.898791 0.652832-0.957031s-0.194704-0.239951-0.434082-0.399903c-0.451689-0.301817-0.554565-0.478515-0.273438-0.478515 0.219481 0 0.205479-0.144958-0.06494-0.680176-0.184085-0.364343-0.202148-0.50119-0.105957-0.714356 0.06549-0.145137 0.116211-0.387248 0.116211-0.536621 0-0.12027 0.0096-0.187561 0.05127-0.215332zm1.408203 0.430664c0.03591-0.03733 0.1274-0.01896 0.27002 0.05811 0.132633 0.07167 0.197535 0.186622 0.16065 0.283691-0.08675 0.228242-0.226481 0.204219-0.369141-0.06494-0.077-0.145288-0.09742-0.239523-0.06153-0.276855z" style="opacity:.1"/>
 <path d="m15.335449 3.75-0.07178 0.6870117c-0.12299 1.1635727-0.50978 3.5346041-0.60498 3.7084962-0.05897 0.1077142-0.26132 0.1655028-0.581055 0.1674802-0.593317 0.00368-0.967666 0.287867-0.919434 0.7006836 0.02477 0.2120389 0.121951 0.302764 0.413575 0.3828125 0.5022 0.1378492 0.495716 0.1239193 0.263183 0.4750978-0.221662 0.334762-0.252865 0.537169-0.290526 1.842285l-0.02734 0.878418-0.587891 0.02734c-0.323456 0.01477-0.606911 0.04615-0.628906 0.06836-0.022 0.02221 0.01682 0.637216 0.08545 1.367188 0.06863 0.729971 0.09553 1.449035 0.0581 1.599609-0.05006 0.201383-0.248377 0.360187-0.748534 0.598144-0.373968 0.17792-0.846803 0.358826-1.049317 0.40332-0.202514 0.04449-0.567156 0.174163-0.8134764 0.287109-0.2463199 0.112945-0.5827602 0.207167-0.7451173 0.208496-0.4385015 0.0036-1.9036325 0.915936-2.25 1.248536-0.1670278 0.160395-0.4770121 0.486863-0.5707987 0.775883l-0.2666016 0.82373v6c0 1 1 2 2 2h17c1 0 1.990642-1.047228 2-2 0.0098-0.999952 0.01843-1.133696 0-2-0.03661-1.731582 0-2 0-3-0.200655-0.386243-0.427255-0.443439-0.604078-0.929199-0.176755-0.485762-0.608612-1.601851-0.956961-2.478028s-0.688615-1.774329-0.75879-1.996093c-0.152089-0.480653-0.329647-0.642602-0.792969-0.738282-0.42697-0.08817-0.557604-0.459167-0.471679-1.329589 0.06625-0.67108 0.02645-0.755763-0.803224-1.739746-0.432365-0.512783-0.521202-0.569779-0.92285-0.570801-0.265568-6.77e-4 -0.644585-0.109218-0.936525-0.27002-0.269301-0.14833-0.645989-0.34524-0.837402-0.4375l-0.348632-0.16748 0.16748-0.577637c0.196737-0.6805244 0.77642-2.0055989 1.312505-3.0078125 0.363141-0.6788952 0.372365-0.7247664 0.194824-0.9228517-0.195216-0.2178074-1.791514-1.0712537-2.447265-1.3090819-0.209456-0.0759652-0.478456-0.1829374-0.598145-0.2358398-0.508584-0.2247932-1.881842-0.5400391-2.351562-0.5400391zm4.053711 7.522949c0.04168-0.02777 0.117003-0.01489 0.249512 0.0171 0.424095 0.102352 0.462134 0.133469 0.464844 0.40332 0.0013 0.132393 0.0983 0.365048 0.215332 0.516113 0.117027 0.151065 0.213999 0.427867 0.215331 0.615235 0.0042 0.580405 0.228199 1.065498 0.738281 1.599609 0.511461 0.535524 0.561196 0.861328 0.133298 0.861328-0.368135 0-0.366968 0.289897 0 0.89209 0.408667 0.67062 1.038525 2.528416 0.94336 2.778808-0.107135 0.281904-0.225113 0.213536-0.827146-0.485359-0.377134-0.437815-0.834495-0.810708-1.350097-1.100586-0.86757-0.487757-1.378312-0.902301-1.377441-1.117675 3.24e-4 -0.07843 0.294089-0.528416 0.652832-0.998047 0.358743-0.46963 0.652832-0.898791 0.652832-0.957031s-0.194704-0.239951-0.434082-0.399903c-0.451689-0.301817-0.554565-0.478515-0.273438-0.478515 0.219481 0 0.205479-0.144958-0.06494-0.680176-0.184085-0.364343-0.202148-0.50119-0.105957-0.714356 0.06549-0.145137 0.116211-0.387248 0.116211-0.536621 0-0.12027 0.0096-0.187561 0.05127-0.215332zm1.408203 0.430664c0.03591-0.03733 0.1274-0.01896 0.27002 0.05811 0.132633 0.07167 0.197535 0.186622 0.16065 0.283691-0.08675 0.228242-0.226481 0.204219-0.369141-0.06494-0.077-0.145288-0.09742-0.239523-0.06153-0.276855z" style="fill:#17191e"/>
 <path d="m14.969727 8.2377929c0.888836 0.1352033 3.896508 1.2891326 4.378418 1.7294921 0.151777 0.138692 0.165905 0.237304 0.0752 0.598145-0.06003 0.238816-0.140131 0.434917-0.177735 0.434082-0.0376-8.38e-4 -0.655888-0.401791-1.374023-0.89209-1.237115-0.8446283-2.466798-1.5267283-3.014648-1.6713868-0.184433-0.048699-0.214441-0.095707-0.123046-0.1879883 0.02697-0.027235 0.108864-0.029568 0.235839-0.010254z" style="fill:#f1d204"/>
 <path d="m9 2c-3.878 0-7 3.122-7 7v1c0-3.878 3.122-7 7-7h14c3.878 0 7 3.122 7 7v-1c0-3.878-3.122-7-7-7h-14z" style="fill:#8b9cbe;opacity:.2"/>
</svg>
