<svg xmlns="http://www.w3.org/2000/svg" width="32" height="32" version="1">
 <rect style="opacity:0.2" width="28" height="28" x="2" y="3" rx="14" ry="14"/>
 <rect style="fill:#188dfb" width="28" height="28" x="2" y="2" rx="14" ry="14"/>
 <circle style="opacity:0.15;fill:none;stroke:#000000;stroke-width:2.99991679;stroke-linecap:round;stroke-linejoin:round" cx="21.856" cy="5.856" r="9.506" transform="rotate(30)"/>
 <path style="fill:#9ccefd" d="M 21.6,6.5005158 C 16.461987,3.5340824 10.10842,4.9554483 6.6927135,10.100492 L 5.7070737,11.982213 C 8.2649058,8.5209019 15.9,6.5746135 20.1,9.1 Z"/>
 <path style="opacity:0.2" d="M 20.199219,10 15.654297,21.017578 A 4,4 0 0 0 12,25 a 4,4 0 0 0 4,4 4,4 0 0 0 4,-4 4,4 0 0 0 -1.484375,-3.103516 z"/>
 <path style="fill:#8b9cbe" d="m 20.2,9 v 0 0 l -2.352729,16.619668 -4.056889,-1.08704 z"/>
 <circle style="fill:#8b9cbe" cx="16" cy="24" r="4"/>
 <circle style="fill:#f84e24" cx="16" cy="24" r="2"/>
 <path style="fill:#8b9cbe;opacity:0.2" d="M 16 2 C 8.244 2 2 8.244 2 16 C 2 16.168842 2.0195214 16.33264 2.0253906 16.5 C 2.2891326 8.9794325 8.4128418 3 16 3 C 23.500fae9 3 29.710867 8.9794325 29.974609 16.5 C 29.980479 16.33264 30 16.168842 30 16 C 30 8.244 23.756 2 16 2 z"/>
</svg>
