<svg xmlns="http://www.w3.org/2000/svg" width="32" height="32" version="1">
 <path style="opacity:0.1;fill-rule:evenodd" d="M 1.9999999,8.0985315 V 24.264285 L 13.000046,31 V 14.834273 L 1.9999999,8.0985315"/>
 <path style="opacity:0.1;fill-rule:evenodd" d="M 30,5.4043937 12.999954,14.834326 V 30.999947 L 30,21.570015 Z"/>
 <path style="fill:none" d="M 2.0000007,7.0985315 V 23.264285 L 13.666619,30 29.999886,20.569988 V 4.4042614"/>
 <path style="fill:none" d="M 2.0000004,7.0985315 V 23.264285"/>
 <path style="fill:#8e8e8e;fill-rule:evenodd" d="M 1.9999999,7.0985315 V 23.264285 L 13.000046,30 V 13.834273 L 8,10 1.9999999,7.0985315"/>
 <path style="opacity:0.1;fill-rule:evenodd" d="m 4,12.140056 v 10.777081 l 6.999812,4.041418 v -2.69427 L 6,21.40027 v -5.38854 l 4.999812,2.864014 V 16.181475 L 8.6668305,14.834326 Z"/>
 <path style="fill:#17191e;fill-rule:evenodd" d="m 4,11.140056 v 10.777081 l 6.999812,4.041418 v -2.69427 L 6,20.40027 v -5.38854 l 4.999812,2.864014 V 15.181475 L 8.6668305,13.834326 Z"/>
 <path style="fill:#17191e;fill-rule:evenodd" d="M 30,4.4043937 22,8 12.999954,13.834326 V 29.999947 L 30,20.570015 Z"/>
 <path style="opacity:0.1" d="m 19,15.136797 -2,1.109375 v 3.017578 l -2,1.154297 v 2.308593 l 2,-1.154296 V 24.545 l 2,-1.109375 v -3.017578 l 2,-1.154297 v -2.308594 l -2,1.154297 z"/>
 <path style="opacity:0.2;fill-rule:evenodd" d="M 26.888672 3.6074219 L 13 11.142578 L 8.2226562 8.0976562 L 11.333984 6.3027344 L 8.2226562 4.4003906 L 2.828125 7.6054688 L 13 13.833984 L 13 14.833984 L 30 5.4042969 L 26.888672 3.6074219 z"/>
 <path style="opacity:0.1" d="m 27,10.728594 -2,1.109375 v 3.017578 l -2,1.154297 v 2.308593 l 2,-1.154297 v 2.972657 l 2,-1.109375 v -3.017578 l 2,-1.154297 v -2.308594 l -2,1.154297 z"/>
 <path style="fill:#736fff;fill-rule:evenodd" d="M 8.2221974,3.3999941 2.0000007,7.0985315 13.000045,13.834273 29.999886,4.4042614 26.888789,2.6080637 13.000046,10.142 8.2221974,7.0985315 11.333295,5.3023339 Z"/>
 <path style="fill:#8b9cbe" d="M 19 14.136719 L 17 15.246094 L 17 18.263672 L 15 19.417969 L 15 21.726562 L 17 20.572266 L 17 23.544922 L 19 22.435547 L 19 19.417969 L 21 18.263672 L 21 15.955078 L 19 17.109375 L 19 14.136719 z"/>
 <path style="fill:#8b9cbe" d="M 27 9.7285156 L 25 10.837891 L 25 13.855469 L 23 15.009766 L 23 17.318359 L 25 16.164062 L 25 19.136719 L 27 18.027344 L 27 15.009766 L 29 13.855469 L 29 11.546875 L 27 12.701172 L 27 9.7285156 z"/>
 <path style="fill:#8b9cbe;fill-rule:evenodd;opacity:0.1" d="M 26.888672 2.6074219 L 13 10.142578 L 9.046875 7.6230469 L 8.2226562 8.0976562 L 13 11.142578 L 26.888672 3.6074219 L 29.117188 4.8945312 L 30 4.4042969 L 26.888672 2.6074219 z M 8.2226562 3.4003906 L 2 7.0976562 L 2.828125 7.6054688 L 8.2226562 4.4003906 L 10.492188 5.7890625 L 11.333984 5.3027344 L 8.2226562 3.4003906 z"/>
 <path style="opacity:0.2;fill:#8b9cbe;fill-rule:evenodd" d="M 1.9999999,7.0985315 2,8.0976562 13,14.833984 v -1 z"/>
</svg>
