<svg xmlns="http://www.w3.org/2000/svg" width="32" height="32" version="1">
 <path style="opacity:0.2" d="M 16,3 C 8.244,3 2,9.244 2,17 2,24.756 8.244,31 16,31 23.756,31 30,24.756 30,17 30,9.244 23.756,3 16,3 Z m 0,8 a 6,6 0 0 1 6,6 6,6 0 0 1 -6,6 6,6 0 0 1 -6,-6 6,6 0 0 1 6,-6 z"/>
 <path style="fill:#858585" d="M 16,8.5 A 7.5,7.5 0 0 0 8.5,16 7.5,7.5 0 0 0 16,23.5 7.5,7.5 0 0 0 23.5,16 7.5,7.5 0 0 0 16,8.5 Z m 0,4.5 c 1.6569,0 3,1.3431 3,3 0,1.6569 -1.3431,3 -3,3 -1.6569,0 -3,-1.3431 -3,-3 0,-1.6569 1.3431,-3 3,-3 z"/>
 <path style="fill:#b2bfd9" d="M 16,2 C 8.244,2 2,8.244 2,16 2,23.756 8.244,30 16,30 23.756,30 30,23.756 30,16 30,8.244 23.756,2 16,2 Z m 0,8 a 6,6 0 0 1 6,6 6,6 0 0 1 -6,6 6,6 0 0 1 -6,-6 6,6 0 0 1 6,-6 z"/>
 <path style="opacity:0.2;fill:#8b9cbe" d="M 16,2 C 8.244,2 2,8.244 2,16 2,16.168842 2.019521,16.33264 2.025391,16.5 2.2891326,8.9794325 8.4128418,3 16,3 23.500fae9,3 29.710867,8.9794325 29.974609,16.5 29.980479,16.33264 30,16.168842 30,16 30,8.244 23.756,2 16,2 Z M 10.025391,16.498047 A 6,6 0 0 0 10,17 6,6 0 0 0 16,23 6,6 0 0 0 22,17 6,6 0 0 0 21.974609,16.501953 6,6 0 0 1 16,22 6,6 0 0 1 10.025391,16.498047 Z"/>
 <circle style="fill:#ff4d4d" cx="24" cy="23" r="8"/>
 <path style="opacity:0.2" d="M 31.979,23.424 A 8,8 0 0 1 24,31 8,8 0 0 1 16.021,23.576 8,8 0 0 0 16,24 a 8,8 0 0 0 8,8 8,8 0 0 0 8,-8 8,8 0 0 0 -0.02148,-0.57617 z"/>
 <path style="fill:#8b9cbe" d="m 24,18 a 5,5 0 0 0 -5,5 5,5 0 0 0 5,5 5,5 0 0 0 5,-5 5,5 0 0 0 -5,-5 z m 0,3 a 2,2 0 0 1 2,2 2,2 0 0 1 -2,2 2,2 0 0 1 -2,-2 2,2 0 0 1 2,-2 z"/>
</svg>
