<svg xmlns="http://www.w3.org/2000/svg" width="32" height="32" version="1">
 <path fill="#fe8406" d="m16 3-3.8077 3.8077h-5.3846v5.3846l-3.8074 3.808 3.8077 3.8077v5.3846h5.3846l3.808 3.808 3.8077-3.8077h5.3846v-5.3846l3.808-3.808-3.8077-3.8077v-5.3846h-5.3846l-3.808-3.8077z"/>
 <path fill="#fe8406" d="m11.025 3.9892-2.0617 4.9747-4.9747 2.0617 2.0602 4.9747-2.0602 4.9746 4.9747 2.0617 2.0617 4.9747 4.9746-2.0602 4.9747 2.0602 2.0617-4.9747 4.9747-2.0617-2.06-4.976 2.059-4.975-4.974-2.0615-2.062-4.9746-4.975 2.0602-4.974-2.0602z"/>
 <rect opacity=".2" width="20" height="20" x="-27" y="-26" rx="10" ry="10" transform="matrix(0,-1,-1,0,0,0)"/>
 <rect fill="#ffdf4c" width="20" height="20" x="-26" y="-26" rx="10" ry="10" transform="matrix(0,-1,-1,0,0,0)"/>
 <g fill="#17191e" transform="translate(0,1.9999)">
  <circle cx="11" cy="11" r="2"/>
  <circle cx="21" cy="11" r="2"/>
 </g>
 <path fill="#913b3b" d="m10.674 19c1.0989 2.2839 3.1289 3.9978 5.3266 3.9999 2.1959-0.0041 4.2238-1.7177 5.3218-3.9999h-5.322c-2 0-5.3263 0.00012-5.3263 0.00012z"/>
 <path opacity=".2" d="m27.656 11.876-0.8125 1.9668 0.29297 0.29297 0.87305-2.1133-0.35352-0.14648zm-23.314 0.002-0.35352 0.14648 0.875 2.1113 0.2927-0.292-0.8144-1.965zm-0.842 4.621-0.5 0.5 1.8633 1.863 0.2929-0.707l-1.6562-1.656zm25 0-1.6562 1.6562 0.29297 0.70703 1.863-1.863-0.5-0.5zm-24.158 4.6211-0.35352 0.85352 2.8203 1.1699v-1l-2.4668-1.0234zm23.314 0-2.4629 1.0215v1l2.8164-1.168-0.35352-0.85352zm-20.848 4.0723v1h3.0488l1.168 2.8184 2.819-1.167 2.156 2.156 2.1562-2.1562 2.8184 1.168 1.168-2.8184h3.0508v-1h-3.0508l-1.168 2.8184-2.819-1.168-2.156 2.156-2.1562-2.1562-2.8184 1.168-1.168-2.8184h-3.0488z"/>
 <path fill="#fff" opacity=".2" d="m16 3-2.1562 2.1562-2.8184-1.168-1.168 2.8203h-3.0488v1h3.0488l1.167-2.8202 2.819 1.1679 2.156-2.1562 2.1562 2.1562 2.8184-1.168 1.168 2.8203h3.0508v-1h-3.0508l-1.168-2.8202-2.819 1.1679-2.156-2.1562zm-9.1914 6.8574-2.8203 1.168 0.35352 0.85352 2.4668-1.0215v-1zm18.385 0v1l2.4629 1.0195 0.35352-0.85352-2.8164-1.166zm-20.331 4.2796-1.8633 1.863 0.5 0.5 1.6562-1.656-0.2929-0.707zm22.273 0l-0.292 0.707 1.656 1.656 0.5-0.5-1.863-1.863zm-22.273 4.7266-0.875 2.1113 0.35352 0.14648l0.8147-1.965-0.2929-0.293zm22.273 0-0.29297 0.29297 0.8125 1.9648 0.35352-0.14648-0.87305-2.1113z"/>
</svg>
