<svg xmlns="http://www.w3.org/2000/svg" width="32" height="32" version="1.1">
 <circle style="opacity:0.2" cx="16" cy="17" r="14"/>
 <circle style="fill:#b2bfd9" cx="16" cy="16" r="14"/>
 <path style="opacity:0.1" d="m 12.957898,26.855285 c -0.39115,-0.498274 -0.726378,-1.521687 -0.879427,-2.684772 -0.08418,-0.639775 -0.103822,-1.894961 -0.04335,-2.425677 0.05794,-0.949273 0.642444,-1.564614 1.142201,-2.340871 0.01548,-6.58e-4 0.09119,0.06544 0.168255,0.14685 0.07708,0.08143 0.197272,0.18499 0.267101,0.230156 0.392696,0.253994 1.275042,0.259082 1.688436,0.01213 0.223556,-0.133545 0.520741,-0.606073 0.625772,-0.994973 0.07585,-0.28086 0.06968,-0.546991 -0.01262,-0.841229 -0.176034,-0.629402 -0.671195,-1.299751 -1.164752,-1.636423 -0.303142,-0.206782 -0.841618,-0.287044 -1.433201,-0.364749 -0.164325,-0.0216 -0.169516,-0.02493 -0.203918,-0.132119 -0.07988,-0.248858 -0.102736,-0.769557 -0.06797,-1.548176 0.02103,-0.47105 0.03408,-1.946675 0.03512,-3.973588 9.3e-4,-1.773353 0.01113,-3.2488404 0.02265,-3.2788618 0.0176,-0.045737 0.03517,-0.028993 0.108377,0.1032351 0.130476,0.2356594 0.21745,0.459556 0.448696,1.15508 0.115302,0.346788 0.258022,0.736039 0.317161,0.8650005 0.149421,0.325848 0.416741,0.7153174 1.027778,1.4974292 0.792103,1.013865 1.246788,1.740507 1.032229,1.649623 -0.416897,-0.176591 -0.903092,-0.101268 -1.126054,0.174464 -0.291739,0.360781 -0.378591,0.780892 -0.259541,1.255396 0.110943,0.442175 0.38024,0.863588 0.8382,1.31166 0.26939,0.263567 1.147515,0.712886 1.233758,0.71257 0.06177,-2.08e-4 0.352882,-0.253859 0.436882,-0.380629 0.230981,-0.348591 0.234063,-0.888272 0.0096,-1.702659 -0.0454,-0.16479 -0.07527,-0.311625 -0.06634,-0.3263 0.03531,-0.05822 0.154129,-0.01906 0.4493,0.148084 0.416432,0.235816 0.620113,0.388191 0.828098,0.619501 0.38019,0.422833 0.591108,1.123451 0.591108,1.963527 0,0.154103 -0.01037,0.280186 -0.02307,0.280186 -0.01268,0 -0.08017,-0.05575 -0.149948,-0.123906 -0.136239,-0.13307 -0.334673,-0.211543 -0.456266,-0.180433 -0.08323,0.02131 -0.23127,0.143818 -0.275439,0.227944 -0.180656,0.344093 0.297946,1.137565 0.714538,1.35421 0.260796,0.135624 0.61052,0.09717 1.009939,-0.111049 1.067118,-0.556296 1.196828,-1.840612 1.135566,-3.072737 -0.0093,-0.190721 -0.06287,-0.616949 -0.118642,-0.947175 -0.145339,-0.860562 -0.148345,-0.881369 -0.133084,-0.921911 0.0451,-0.119805 0.152767,0.02069 0.474874,0.619755 0.517768,0.962938 0.811244,1.938776 0.845495,2.811378 0.02595,0.661161 -0.05824,1.163754 -0.347865,2.076384 -0.100302,0.31608 -0.200532,0.603709 -0.222728,0.639174 -0.02829,0.04525 -0.06767,0.06448 -0.131853,0.06448 -0.116289,0 -0.196899,0.05769 -0.254989,0.182468 -0.0706,0.151695 -0.061,0.21869 0.03147,0.219216 0.142316,6.59e-4 0.160067,0.03251 0.107884,0.192667 -0.02556,0.07837 -0.08371,0.202412 -0.129258,0.27563 -0.07822,0.125733 -0.08976,0.133129 -0.207664,0.133129 -0.184116,0 -0.207458,0.0173 -0.313635,0.232195 -0.139869,0.283121 -0.127301,0.341009 0.07403,0.341009 0.103292,0 0.103195,0.0336 -6.46e-4,0.166475 -0.04541,0.05819 -0.161269,0.260563 -0.257488,0.449722 -0.207965,0.408846 -0.348858,0.618299 -0.674733,1.003071 -0.550737,0.650279 -1.299641,1.301361 -2.232944,1.941295 -0.216318,0.148322 -0.49632,0.342801 -0.622233,0.43218 -0.446435,0.316908 -0.858815,0.45763 -0.598319,0.204178 0.204467,-0.198942 0.577478,-0.957185 0.707752,-1.444733 0.104728,-0.507406 0.07866,-0.895088 -0.079,-1.226749 -0.318289,-0.6144 -0.726748,-0.636808 -1.177132,-0.50791 -1.104095,0.315988 -2.033623,1.899877 -2.335816,3.385378 -0.10153,0.499096 -0.154521,0.991505 -0.176712,1.642076 -0.01187,0.347893 -0.03137,0.588462 -0.04808,0.593237 -0.01548,0.0043 -0.082,-0.06059 -0.147862,-0.144512 z"/>
 <path style="fill:#167de5" d="m 12.957898,25.855285 c -0.39115,-0.498274 -0.726378,-1.521687 -0.879427,-2.684772 -0.08418,-0.639775 -0.103822,-1.894961 -0.04335,-2.425677 0.05794,-0.949273 0.642444,-1.564614 1.142201,-2.340871 0.01548,-6.58e-4 0.09119,0.06544 0.168255,0.14685 0.07708,0.08143 0.197272,0.18499 0.267101,0.230156 0.392696,0.253994 1.275042,0.259082 1.688436,0.01213 0.223556,-0.133545 0.520741,-0.606073 0.625772,-0.994973 0.07585,-0.28086 0.06968,-0.546991 -0.01262,-0.841229 -0.176034,-0.629402 -0.671195,-1.299751 -1.164752,-1.636423 -0.303142,-0.206782 -0.841618,-0.287044 -1.433201,-0.364749 -0.164325,-0.0216 -0.169516,-0.02493 -0.203918,-0.132119 -0.07988,-0.248858 -0.102736,-0.769557 -0.06797,-1.548176 0.02103,-0.47105 0.03408,-1.946675 0.03512,-3.9735877 9.3e-4,-1.7733533 0.01113,-3.2488407 0.02265,-3.2788621 0.0176,-0.045737 0.03517,-0.028993 0.108377,0.1032351 0.130476,0.2356594 0.21745,0.459556 0.448696,1.15508 0.115302,0.346788 0.258022,0.736039 0.317161,0.8650005 0.149421,0.325848 0.416741,0.7153174 1.027778,1.4974287 0.792103,1.0138655 1.246788,1.7405075 1.032229,1.6496235 -0.416897,-0.176591 -0.903092,-0.101268 -1.126054,0.174464 -0.291739,0.360781 -0.378591,0.780892 -0.259541,1.255396 0.110943,0.442175 0.38024,0.863588 0.8382,1.31166 0.26939,0.263567 1.147515,0.712886 1.233758,0.71257 0.06177,-2.08e-4 0.352882,-0.253859 0.436882,-0.380629 0.230981,-0.348591 0.234063,-0.888272 0.0096,-1.702659 -0.0454,-0.16479 -0.07527,-0.311625 -0.06634,-0.3263 0.03531,-0.05822 0.154129,-0.01906 0.4493,0.148084 0.416432,0.235816 0.620113,0.388191 0.828098,0.619501 0.38019,0.422833 0.591108,1.123451 0.591108,1.963527 0,0.154103 -0.01037,0.280186 -0.02307,0.280186 -0.01268,0 -0.08017,-0.05575 -0.149948,-0.123906 -0.136239,-0.13307 -0.334673,-0.211543 -0.456266,-0.180433 -0.08323,0.02131 -0.23127,0.143818 -0.275439,0.227944 -0.180656,0.344093 0.297946,1.137565 0.714538,1.35421 0.260796,0.135624 0.61052,0.09717 1.009939,-0.111049 1.067118,-0.556296 1.196828,-1.840612 1.135566,-3.072737 -0.0093,-0.190721 -0.06287,-0.616949 -0.118642,-0.947175 -0.145339,-0.860562 -0.148345,-0.881369 -0.133084,-0.921911 0.0451,-0.119805 0.152767,0.02069 0.474874,0.619755 0.517768,0.962938 0.811244,1.938776 0.845495,2.811378 0.02595,0.661161 -0.05824,1.163754 -0.347865,2.076384 -0.100302,0.31608 -0.200532,0.603709 -0.222728,0.639174 -0.02829,0.04525 -0.06767,0.06448 -0.131853,0.06448 -0.116289,0 -0.196899,0.05769 -0.254989,0.182468 -0.0706,0.151695 -0.061,0.21869 0.03147,0.219216 0.142316,6.59e-4 0.160067,0.03251 0.107884,0.192667 -0.02556,0.07837 -0.08371,0.202412 -0.129258,0.27563 -0.07822,0.125733 -0.08976,0.133129 -0.207664,0.133129 -0.184116,0 -0.207458,0.0173 -0.313635,0.232195 -0.139869,0.283121 -0.127301,0.341009 0.07403,0.341009 0.103292,0 0.103195,0.0336 -6.46e-4,0.166475 -0.04541,0.05819 -0.161269,0.260563 -0.257488,0.449722 -0.207965,0.408846 -0.348858,0.618299 -0.674733,1.003071 -0.550737,0.650279 -1.299641,1.301361 -2.232944,1.941295 -0.216318,0.148322 -0.49632,0.342801 -0.622233,0.43218 -0.446435,0.316908 -0.858815,0.45763 -0.598319,0.204178 0.204467,-0.198942 0.577478,-0.957185 0.707752,-1.444733 0.104728,-0.507406 0.07866,-0.895088 -0.079,-1.226749 -0.318289,-0.6144 -0.726748,-0.636808 -1.177132,-0.50791 -1.104095,0.315988 -2.033623,1.899877 -2.335816,3.385378 -0.10153,0.499096 -0.154521,0.991505 -0.176712,1.642076 -0.01187,0.347893 -0.03137,0.588462 -0.04808,0.593237 -0.01548,0.0043 -0.082,-0.06059 -0.147862,-0.144512 z"/>
 <path style="fill:#8b9cbe;opacity:0.2" d="M 16 2 A 14 14 0 0 0 2 16 A 14 14 0 0 0 2.0214844 16.585938 A 14 14 0 0 1 16 3 A 14 14 0 0 1 29.978516 16.414062 A 14 14 0 0 0 30 16 A 14 14 0 0 0 16 2 z"/>
</svg>
