<svg width="32" height="32" version="1.1" xmlns="http://www.w3.org/2000/svg">
 <rect x="2" y="3" width="28" height="28" rx="7" ry="7" style="opacity:.2"/>
 <rect x="2" y="2" width="28" height="28" rx="7" ry="7" style="fill:#b2bfd9"/>
 <path d="m18.618844 28.206728c-0.89171-0.115374-1.973695-0.35449-2.347896-0.518868-0.23565-0.103516-0.576504-0.348046-0.757456-0.543403-0.303442-0.327599-0.955159-1.310311-1.092384-1.647186-0.03216-0.07896-0.297189-0.655761-0.588946-1.281792-0.586155-1.257718-0.587102-1.341834-0.02104-1.869168 0.331773-0.30908 0.314231-0.397532-0.05198-0.262114-0.16557 0.06122-0.517547 0.358948-0.782171 0.661609l-0.481136 0.550293h-1.165322l0.584978-0.598145c0.491638-0.502703 0.638778-0.737905 0.92215-1.47405l0.33717-0.875903-0.4109-0.402137-0.410901-0.40214-0.438044 0.255992c-0.423103 0.247259-0.440211 0.27511-0.501653 0.816653-0.09313 0.82086-0.366902 1.053606-1.353923 1.151035-0.4124121 0.04071-0.7620851 0.06252-0.7770511 0.04848-0.01497-0.014 0.183932-0.186113 0.441997-0.382364 0.4499521-0.342178 0.6944101-0.755773 0.9350351-1.581976 0.03821-0.13118 0.246779-0.396049 0.463501-0.588604 0.216722-0.192554 0.372446-0.367617 0.346053-0.38903-0.02639-0.02142-0.237296-0.18461-0.468674-0.362659l-0.420689-0.323733-0.6323731 0.329192c-0.623701 0.324676-0.634736 0.337313-0.804644 0.921419-0.109004 0.374754-0.233327 0.611102-0.338535 0.643622-0.298839 0.09237-1.507025 0.330146-1.535128 0.302122-0.01508-0.01504 0.200373-0.221596 0.47878-0.459024 0.3605-0.307438 0.599238-0.623871 0.829462-1.0994 0.320817-0.662648 0.327735-0.669154 0.911736-0.857535 0.5563731-0.179469 0.5869741-0.205069 0.5610701-0.469394-0.0553-0.564265-0.024-0.552138-1.2465741-0.483023-1.114092 0.06299-1.12811 0.06671-1.403237 0.372792-0.866928 0.964485-1.522287 1.5866-1.724772 1.637277-0.282225 0.07063-0.794255-0.09618-0.865785-0.282056-0.04075-0.10591 0.04285-0.136864 0.369659-0.136864 0.368844 0 0.449274-0.03938 0.635107-0.311036 0.117026-0.17107 0.561687-0.666332 0.988131-1.100586l0.775352-0.789549h1.298378c0.714108 0 1.4384531 0.04007 1.6096551 0.08903 0.304883 0.08719 0.311204 0.08277 0.307799-0.215333-2e-3 -0.1674-0.08303-0.912461-0.180272-1.655694-0.156367-1.195146-0.216249-1.421911-0.518096-1.961918-0.1877121-0.335819-0.7789951-1.794907-1.3139611-3.242417l-0.972666-2.631836 0.112588-1.1484377c0.1001-1.0211073 0.140077-1.1776172 0.360522-1.4116211 0.19339-0.2052842 0.335738-0.2631835 0.647051-0.2631835 0.332368 0 0.534002 0.094731 1.2056891 0.5664489 0.443617 0.3115469 0.964281 0.7234663 1.157033 0.9153762 0.326799 0.3253719 0.355042 0.4005657 0.418359 1.1138584 0.03735 0.420712 0.05239 0.7799183 0.03343 0.798236-0.01895 0.018318-0.294752-0.084806-0.612877-0.2291636-0.55251-0.2507156-0.592416-0.2927676-0.891169-0.9391029-0.3408621-0.737436-0.5134821-0.9370321-0.7365621-0.8516682-0.114646 0.043872-0.14518 0.2359545-0.14518 0.9134747v0.8579196l0.7744621 1.7153829 0.77446 1.7153823 1.312936 0.727064c1.148264 0.635875 1.427049 0.841647 2.222775 1.640639 0.500414 0.502466 0.935199 0.913575 0.966189 0.913575 0.09995 0 0.379319-1.010621 0.379319-1.372181v-0.350476h0.713324c0.629037 0 0.720523-0.02262 0.774245-0.191405 0.0673-0.211455 0.126196-0.229979 0.327394-0.10297 0.106638 0.06731 0.11627 0.173881 0.04525 0.500974l-0.09019 0.415476-0.453137-0.0232-0.453135-0.0232v1.18992c0 0.654456 0.03951 1.214271 0.08781 1.244032 0.04829 0.02976 0.162206-0.129192 0.253145-0.353238 0.09177-0.226106 0.369404-0.591005 0.623972-0.820115l0.458629-0.412762 0.401212 0.204111c0.220666 0.112266 0.461807 0.18092 0.535865 0.152581 0.170928-0.06541 0.169092-0.04033-0.02708 0.369883-0.142595 0.298188-0.204247 0.338208-0.520993 0.338208-0.197592 0-0.424556 0.06511-0.504363 0.1447-0.198721 0.198163-0.302803 0.961065-0.170592 1.25042 0.140707 0.307951 0.253561 0.292357 0.397833-0.05498 0.08459-0.203636 0.299298-0.382206 0.740418-0.615785l0.621285-0.328977 0.403815 0.371179c0.393887 0.362054 0.413809 0.368651 0.810229 0.26831 0.223527-0.05657 0.435169-0.0742 0.470316-0.03914 0.03514 0.03506-0.141313 0.266778-0.392112 0.514956l-0.456016 0.451231-0.361462-0.419155-0.361462-0.419158-0.352365 0.227751c-0.259722 0.167868-0.352679 0.294848-0.353554 0.482958-0.0013 0.291259 0.117306 0.358782 0.52666 0.299685 0.158357-0.02286 0.476892 0.02597 0.707864 0.108514 0.230972 0.08254 0.703627 0.150076 1.050349 0.150076h0.630397l-0.30518 0.224523-0.305182 0.224524 0.235852 0.107156c0.192926 0.08765 0.350287 0.0642 0.864561-0.128814 0.345788-0.129794 0.807473-0.235981 1.025966-0.235981 0.376506 0 0.452067 0.05405 1.446371 1.034635l1.049111 1.034633 0.330505 1.764682c0.185964 0.992936 0.313139 1.942293 0.290795 2.170811-0.04915 0.50279-0.381865 0.95361-0.929359 1.259282l-0.411712 0.229866 0.07314-0.229866c0.04024-0.12642 0.09453-0.511534 0.12068-0.855799 0.102844-1.354192-0.695195-2.006011-0.89911-0.734372-0.07452 0.464659-0.156293 0.375648-0.406984-0.442944-0.193117-0.630609-0.190793-1.02118 0.0076-1.273517 0.120386-0.153125-0.18848-1.907667-0.414247-2.353239l-0.181265-0.357742-0.651944 0.692703c-1.59173 1.691242-1.568305 1.661222-1.40292 1.798095 0.231617 0.191687 0.522354 0.816244 0.519457 1.115893l-0.0027 0.266995-0.261343-0.301382c-0.402113-0.463719-0.646226-0.555083-0.930988-0.348439-0.129836 0.09422-0.237415 0.21877-0.239074 0.276783-0.0056 0.197764 0.435055 0.754426 0.624179 0.788404 0.399049 0.07169 0.362002 0.206661-0.05615 0.204603-0.478737-0.0022-1.105993-0.253995-1.369246-0.549305l-0.1743-0.195629-1.121233 0.292848c-0.808625 0.211201-1.244262 0.381337-1.562487 0.610226-0.320614 0.230609-0.588644 0.334653-0.980375 0.380565l-0.539125 0.0632 0.30857 0.560299 0.30857 0.560297 0.52073 0.0011c0.387375 8.61e-4 1.045604 0.175516 2.57025 0.682057 1.127234 0.374509 2.145343 0.759957 2.262464 0.856554 0.208813 0.172217 0.194327 0.174632-0.746778 0.124236-0.527846-0.02828-1.132471-0.01372-1.343611 0.03247-0.325281 0.07106-0.388686 0.125146-0.415315 0.354239-0.06906 0.594117 0.858718 1.137552 2.268266 1.328617 0.814613 0.110432 0.824096 0.114646 0.402397 0.179299-0.451287 0.06919-2.333909 0.07881-2.83118 0.01452z" style="fill:#17191e"/>
 <path d="m9 2c-3.878 0-7 3.122-7 7v1c0-3.878 3.122-7 7-7h14c3.878 0 7 3.122 7 7v-1c0-3.878-3.122-7-7-7h-14z" style="fill:#8b9cbe;opacity:.2"/>
</svg>
