<svg xmlns="http://www.w3.org/2000/svg" width="32" height="32" version="1">
 <g style="fill:#8e8e8e">
  <rect style="fill:#8e8e8e" width="1" height="26" x="-12" y="-29" transform="scale(-1)"/>
  <rect style="fill:#8e8e8e" width="1" height="26" x="-9" y="-29" transform="scale(-1)"/>
  <rect style="fill:#8e8e8e" width="1" height="26" x="-21" y="-29" transform="scale(-1)"/>
  <rect style="fill:#8e8e8e" width="1" height="26" x="-18" y="-29" transform="scale(-1)"/>
  <rect style="fill:#8e8e8e" width="1" height="26" x="-15" y="-29" transform="scale(-1)"/>
  <rect style="fill:#8e8e8e" width="1" height="26" x="-24" y="-29" transform="scale(-1)"/>
  <rect style="fill:#8e8e8e" width="1" height="20" x="-12" y="6" transform="rotate(-90)"/>
  <rect style="fill:#8e8e8e" width="1" height="20" x="-9" y="6" transform="rotate(-90)"/>
  <rect style="fill:#8e8e8e" width="1" height="20" x="-6" y="6" transform="rotate(-90)"/>
  <rect style="fill:#8e8e8e" width="1" height="20" x="-21" y="6" transform="rotate(-90)"/>
  <rect style="fill:#8e8e8e" width="1" height="20" x="-18" y="6" transform="rotate(-90)"/>
  <rect style="fill:#8e8e8e" width="1" height="20" x="-15" y="6" transform="rotate(-90)"/>
  <rect style="fill:#8e8e8e" width="1" height="20" x="-24" y="6" transform="rotate(-90)"/>
  <rect style="fill:#8e8e8e" width="1" height="20" x="-27" y="6" transform="rotate(-90)"/>
 </g>
 <rect style="opacity:0.2" width="24" height="18" x="-29" y="-25" rx="1.25" ry="1.25" transform="matrix(0,-1,-1,0,0,0)"/>
 <rect style="fill:#4f4f4f" width="24" height="18" x="-28" y="-25" rx="1.25" ry="1.25" transform="matrix(0,-1,-1,0,0,0)"/>
 <path style="fill:#8b9cbe;opacity:0.1" d="M 8.25 4 C 7.5575 4 7 4.5575 7 5.25 L 7 6.25 C 7 5.5575 7.5575 5 8.25 5 L 23.75 5 C 24.442 5 25 5.5575 25 6.25 L 25 5.25 C 25 4.5575 24.442 4 23.75 4 L 8.25 4 z"/>
 <rect style="opacity:0.4;fill:#8b9cbe" width="6" height="1" x="7" y="-21" transform="rotate(90)"/>
 <rect style="opacity:0.4;fill:#8b9cbe" width="3" height="1" x="14" y="-21" transform="rotate(90)"/>
 <rect style="opacity:0.4;fill:#8b9cbe" width="7" height="1" x="18" y="-21" transform="rotate(90)"/>
 <rect style="opacity:0.4;fill:#8b9cbe" width="8" height="1" x="7" y="-17" transform="rotate(90)"/>
 <rect style="opacity:0.4;fill:#8b9cbe" width="8" height="1" x="16" y="-17" transform="rotate(90)"/>
 <rect style="opacity:0.4;fill:#8b9cbe" width="3" height="1" x="7" y="-13" transform="rotate(90)"/>
 <rect style="opacity:0.4;fill:#8b9cbe" width="3" height="1" x="11" y="-13" transform="rotate(90)"/>
 <rect style="opacity:0.4;fill:#8b9cbe" width="6" height="1" x="15" y="-13" transform="rotate(90)"/>
</svg>
