<svg width="32" height="32" version="1.1" xmlns="http://www.w3.org/2000/svg">
 <path d="m4 29 2 2h7v-4h4v-4h6l2-7-2-2h-5v-2h8l3-7-2-2h-14z" style="opacity:.2"/>
 <path d="m4 28 2 2h7v-4h4v-4h6l2-7-2-2h-5v-2h8l3-7-2-2h-14z" style="fill:#ffc238"/>
 <path d="m4 29h7v-4h4v-4h6l2-7h-7v-4h8l3-7h-16v4h-4z" style="opacity:.1"/>
 <path d="m4 28h7v-4h4v-4h6l2-7h-7v-4h8l3-7h-16v4h-4z" style="fill:#df3a36"/>
 <path d="m11 2v1h15.572266l0.427734-1h-16zm-4 4-3 22h0.1367188l2.8632812-21h4v-1h-4zm9 7v1h6.714844l0.285156-1h-7z" style="fill:#8b9cbe;opacity:.2"/>
</svg>
