<svg width="32" height="32" version="1.1" xmlns="http://www.w3.org/2000/svg">
 <path d="m20 4c7 0 10 4 10 10v6c0 6-3 10-10 10h-8c-7 0-10-4-10-10v-6c0-6 3-10 10-10z" style="opacity:.2"/>
 <path d="m20 3c7 0 10 4 10 10v6c0 6-3 10-10 10h-8c-7 0-10-4-10-10v-6c0-6 3-10 10-10z" style="fill:#4f4f4f"/>
 <path d="m12 3c-7 0-10 4-10 10v1c0-6 3-10 10-10h8c7 0 10 4 10 10v-1c0-6-3-10-10-10h-8z" style="fill:#8b9cbe;opacity:.1"/>
 <path d="m15 13c-1.662 0-3 1.338-3 3v4c0 1.662 1.338 3 3 3h2c1.662 0 3-1.338 3-3v-4c0-1.662-1.338-3-3-3zm1 2c1.108 0 2 0.892 2 2v2c0 1.108-0.892 2-2 2s-2-0.892-2-2v-2c0-1.108 0.892-2 2-2z" style="opacity:.2"/>
 <path d="m15 12c-1.662 0-3 1.338-3 3v4c0 1.662 1.338 3 3 3h2c1.662 0 3-1.338 3-3v-4c0-1.662-1.338-3-3-3h-2zm1 2c1.108 0 2 0.892 2 2v2c0 1.108-0.892 2-2 2s-2-0.892-2-2v-2c0-1.108 0.892-2 2-2z" style="fill:#9aec2d"/>
 <path d="m25 13c-1.662 0-3 1.338-3 3v3h6c0 1.108-0.892 2-2 2-0.74107 0-1.379048-0.404201-1.724609-1h-2.275391c0 1.662 1.338 3 3 3h2c1.662 0 3-1.338 3-3v-3h-6c0-1.108 0.892-2 2-2 0.74107 0 1.379048 0.404201 1.724609 1h2.275391c0-1.662-1.338-3-3-3z" style="opacity:.2"/>
 <path d="m25 12c-1.662 0-3 1.338-3 3v3h2 1 3c0 1.108-0.892 2-2 2-0.74107 0-1.379048-0.404201-1.724609-1h-2.275391c0 1.662 1.338 3 3 3h2c1.662 0 3-1.338 3-3v-3h-2-1-3c0-1.108 0.892-2 2-2 0.74107 0 1.379048 0.404201 1.724609 1h2.275391c0-1.662-1.338-3-3-3h-2z" style="fill:#9aec2d"/>
 <path d="m15 12c-1.662 0-3 1.338-3 3v1c0-1.662 1.338-3 3-3h2c1.662 0 3 1.338 3 3v-1c0-1.662-1.338-3-3-3h-2zm-1 6v1c0 1.108 0.892 2 2 2s2-0.892 2-2v-1c0 1.108-0.892 2-2 2s-2-0.892-2-2z" style="fill:#8b9cbe;opacity:.2"/>
 <path d="m25 12c-1.662 0-3 1.338-3 3v1c0-1.662 1.338-3 3-3h2c1.309083 0 2.406799 0.835311 2.818359 2h0.181641c0-1.662-1.338-3-3-3h-2zm-0.724609 4c-0.1711 0.295001-0.275391 0.63307-0.275391 1h3 1 2v-1h-2-0.275391-0.724609-2.724609zm-2.275391 3c0 0.352917 0.070688 0.68601 0.181641 1h2.09375c0.345561 0.595799 0.983539 1 1.724609 1 1.108 0 2-0.892 2-2h-0.275391c-0.345561 0.595799-0.983539 1-1.724609 1s-1.379048-0.404201-1.724609-1h-0.275391-2z" style="fill:#8b9cbe;opacity:.2"/>
</svg>
