<svg width="32" height="32" version="1.1" xmlns="http://www.w3.org/2000/svg">
 <circle cx="16" cy="17" r="14" style="opacity:.2"/>
 <circle cx="16" cy="16" r="14" style="fill:#b2bfd9"/>
 <path d="M 16,2 A 14,14 0 0 0 2,16 14,14 0 0 0 2.0215,16.586 14,14 0 0 1 16,3 14,14 0 0 1 29.979,16.414 14,14 0 0 0 30,16 14,14 0 0 0 16,2 Z" style="fill:#8b9cbe;opacity:.2"/>
 <circle cx="12.5" cy="11.5" r="4.5" style="opacity:.1"/>
 <circle cx="12.5" cy="10.5" r="4.5" style="fill:#3c88e7"/>
 <circle cx="22.5" cy="17.5" r="4.5" style="opacity:.1"/>
 <circle cx="22.5" cy="16.5" r="4.5" style="fill:#5dc15c"/>
 <circle cx="12.5" cy="22.5" r="4.5" style="opacity:.1"/>
 <circle cx="12.5" cy="21.5" r="4.5" style="fill:#e74c3c"/>
</svg>
