<svg width="32" height="32" version="1.1" xmlns="http://www.w3.org/2000/svg">
 <rect x="6" y="3" width="20" height="25" rx="1.9804688" ry="2" style="opacity:.2"/>
 <rect x="6" y="2" width="20" height="25" rx="1.9804688" ry="2" style="fill:#4f4f4f"/>
 <path d="m8.0898438 3.0020344c-1.1386628-0.0510833-2.0897621 0.8582388-2.0898438 1.9980469v21.000001c5.332e-4 0.917603 0.6253566 1.717152 1.515625 1.939453l12 3c1.261678 0.314767 2.483555-0.639103 2.484375-1.939453v-21.000001c-5.33e-4 -0.9176031-0.625357-1.7171517-1.515625-1.9394531l-12-3c-0.1292297-0.0326274-0.261397-0.0522563-0.3945312-0.0585938z" style="opacity:.2"/>
 <path d="M 8.0898438,2.0019531 C 6.951181,1.9508698 6.0000817,2.8601919 6,4 v 21 c 5.332e-4,0.917603 0.6253566,1.717152 1.515625,1.939453 l 12,3 C 20.777303,30.25422 21.99918,29.30035 22,28 V 7 C 21.999467,6.0823969 21.374643,5.2828483 20.484375,5.0605469 l -12,-3 C 8.3551453,2.0279195 8.222978,2.0082906 8.0898438,2.0019531 Z" style="fill:#1f8ac9"/>
 <circle cx="17.5" cy="18.5" r="1.5" style="opacity:.2"/>
 <circle cx="17.5" cy="17.5" r="1.5" style="fill:#8b9cbe"/>
 <path d="m8.0898438 2.0019531c-1.1386629-0.0510833-2.0897621 0.8582388-2.0898438 1.9980469v1c8.17e-5 -1.1398081 0.9511809-2.0491302 2.0898438-1.9980469 0.1331341 0.0063375 0.2653015 0.0259664 0.3945312 0.0585938l12 3c0.890268 0.2223014 1.515092 1.02185 1.515625 1.9394531v-1c-5.33e-4 -0.9176031-0.625357-1.7171517-1.515625-1.9394531l-12-3c-0.1292297-0.0326274-0.2613971-0.0522563-0.3945312-0.0585938z" style="fill:#8b9cbe;opacity:.2"/>
</svg>
