<svg width="32" height="32" version="1.1" xmlns="http://www.w3.org/2000/svg">
 <rect x="4" y="5" width="24" height="24" rx="2" ry="2" style="opacity:.2"/>
 <rect x="4" y="4" width="24" height="24" rx="2" ry="2" style="fill:#5d5544"/>
 <path d="m6 4c-1.108 0-2 0.892-2 2v1c0-1.108 0.892-2 2-2h20c1.108 0 2 0.892 2 2v-1c0-1.108-0.892-2-2-2h-20z" style="fill:#8b9cbe;opacity:.1"/>
 <path d="m10.097656 9.0019531a2.0002 2.0002 0 0 0-1.8867185 1.1035159l-2.4472656 4.894531h-1.7636719a2.0002 2.0002 0 1 0 0 4h3a2.0002 2.0002 0 0 0 1.7890625-1.105469l0.8417969-1.68164 2.4726566 7.419921a2.0002 2.0002 0 0 0 3.685546 0.261719l2.007813-4.015625 0.345703 0.863282a2.0002 2.0002 0 0 0 3.271484 0.671874l2.414063-2.414062h4.171875a2.0002 2.0002 0 1 0 0-4h-5a2.0002 2.0002 0 0 0-1.414062 0.585938l-0.855469 0.855468-0.873047-2.183594a2.0002 2.0002 0 0 0-3.646484-0.152343l-1.841797 3.68164-2.472657-7.419921a2.0002 2.0002 0 0 0-1.798828-1.3652349z" style="opacity:.2"/>
 <path d="m4 16h3l3-6 4 12 4-8 2 5 3-3h5" style="fill:none;stroke-linecap:round;stroke-linejoin:round;stroke-width:4;stroke:#ffbe23"/>
 <rect x="22" y="6" width="4" height="1" style="fill:#ffbe23;opacity:.5"/>
 <rect x="22" y="8" width="4" height="1" style="fill:#ffbe23"/>
 <rect x="22" y="10" width="4" height="1" style="fill:#ffbe23"/>
</svg>
