<svg xmlns="http://www.w3.org/2000/svg" width="32" height="32" version="1">
 <path style="opacity:0.2" d="M 7.0023279,3.0000001 H 24.997673 C 26.10696,3.0000001 27.001289,3.892 26.999998,5 L 27,23 19,31 H 7.0336146 C 5.9243254,31 5.0327324,30.108 5.0312881,29.000001 L 5.0000018,5 C 4.9985501,3.892 5.8930391,3.0000001 7.0023279,3.0000001 Z"/>
 <path style="fill:#b2bfd9" d="M 7.0023279,2.0000001 H 24.997673 C 26.10696,2.0000001 27.001289,2.892 26.999998,4 L 27,22 19,30 H 7.0336146 C 5.9243254,30 5.0327324,29.108 5.0312881,28.000001 L 5.0000018,4 C 4.9985501,2.892 5.8930391,2.0000001 7.0023279,2.0000001 Z"/>
 <path style="fill:#a159b2" d="M 7,4 H 25 V 23.058823 L 20.153846,28 H 7 Z"/>
 <path style="opacity:0.1" d="M 24.505487,9.1435119 C 20.969736,8.6952018 18.659667,9.4504997 16.682281,10.476999 18.691497,7.9505943 21.199892,7.1605498 24.505487,9.1435119 Z"/>
 <path style="opacity:0.1" d="M 4.35,10.525 C 7.649855,9.3547367 10.024353,9.6150443 12.136124,10.209392 9.6810625,8.1550767 7.1089807,7.9018496 4.35,10.525 Z"/>
 <path style="opacity:0.1" d="m 25,15.367675 c -0.619368,0.266967 -1.236879,0.508167 -1.84976,0.72817 0.263368,0.769258 1.238718,3.404182 1.352164,3.710811 C 24.669591,19.693316 24.836406,19.58012 25,19.463239 Z m -2.289663,0.88398 c -0.836173,0.286403 -1.664305,0.529571 -2.480768,0.737708 -0.06561,0.498944 0.932598,3.590556 1.243991,4.537557 1.06139,-0.487031 2.06945,-1.072011 3.021634,-1.717085 -0.182207,-0.458699 -1.201583,-2.988164 -1.784857,-3.55818 z m -2.953125,0.855361 c -0.954579,0.228265 -1.890803,0.407143 -2.805288,0.543745 -0.01872,1.076978 0.445605,4.23722 0.580527,5.132174 1.375327,-0.243635 2.690037,-0.682713 3.933896,-1.252834 -0.316542,-0.92716 -1.346698,-3.91059 -1.709135,-4.423085 z m -2.224761,5.675919 c -0.138146,-0.898393 -0.654015,-4.120439 -1.088941,-5.062218 -1.091496,0.146061 -2.147443,0.235259 -3.158654,0.276639 -0.318758,0.805497 -0.350065,3.972448 -0.353366,4.833276 1.59552,0.251367 3.131979,0.212532 4.600961,-0.04769 z m -4.600961,0.04769 C 12.93039,21.9804 12.91483,18.93041 12.765624,18.01643 c -1.00549,0.02636 -1.96058,0.0072 -2.859374,-0.04133 -0.3427253,0.639665 -0.636718,2.789752 -0.7536046,3.723529 1.2894856,0.571273 2.5515536,0.938653 3.7788446,1.132004 z M 7,17.698453 v 2.868169 c 0.7220278,0.44176 1.4358723,0.815523 2.1418255,1.128824 C 9.2328865,20.77244 9.4363982,18.655716 9.451922,17.946477 8.570381,17.887727 7.7490147,17.800278 7,17.698453 Z"/>
 <path style="opacity:0.1" d="M 23.750002,21.5 C 19.093468,24.013186 16.073867,25.216444 10,23.342235 16.360684,26.398988 19.222845,24.903158 23.750002,21.5 Z"/>
 <path style="fill:#17191e" d="M 24.505487,8.1435126 C 20.969736,7.6952025 18.659667,8.4505004 16.682281,9.477 18.691497,6.950595 21.199892,6.1605505 24.505487,8.1435126 Z"/>
 <path style="fill:#ff8686" d="m 25,14.367 c -7.007379,3.020425 -13.689755,2.918278 -18,2.332327 v 2.866452 c 6.98156,4.271548 13.253927,2.287039 18,-1.103849 z"/>
 <path style="fill:#8b9cbe" d="m 25,14.367676 c -0.619368,0.266967 -1.236879,0.508167 -1.84976,0.72817 0.263368,0.769258 1.238718,3.404182 1.352164,3.710811 C 24.669591,18.693317 24.836406,18.580121 25,18.46324 Z m -2.289663,0.88398 c -0.836173,0.286403 -1.664305,0.529571 -2.480768,0.737708 -0.06561,0.498944 0.932598,3.590556 1.243991,4.537557 1.06139,-0.487031 2.06945,-1.072011 3.021634,-1.717085 -0.182207,-0.458699 -1.201583,-2.988164 -1.784857,-3.55818 z m -2.953125,0.855361 c -0.954579,0.228265 -1.890803,0.407143 -2.805288,0.543745 -0.01872,1.076978 0.445605,4.23722 0.580527,5.132174 1.375327,-0.243635 2.690037,-0.682713 3.933896,-1.252834 -0.316542,-0.92716 -1.346698,-3.91059 -1.709135,-4.423085 z m -2.224761,5.675919 c -0.138146,-0.898393 -0.654015,-4.120439 -1.088941,-5.062218 -1.091496,0.146061 -2.147443,0.235259 -3.158654,0.276639 -0.318758,0.805497 -0.350065,3.972448 -0.353366,4.833276 1.59552,0.251367 3.131979,0.212532 4.600961,-0.04769 z m -4.600961,0.04769 c -0.0011,-0.850225 -0.01666,-3.900215 -0.165866,-4.814195 -1.00549,0.02636 -1.96058,0.0072 -2.859374,-0.04133 -0.3427253,0.639665 -0.636718,2.789752 -0.7536046,3.723529 1.2894856,0.571273 2.5515536,0.938653 3.7788446,1.132004 z M 7,16.698454 v 2.868169 c 0.7220278,0.44176 1.4358723,0.815523 2.1418255,1.128824 0.091061,-0.923006 0.2945727,-3.03973 0.3100965,-3.748969 C 8.570381,16.887728 7.7490147,16.800279 7,16.698454 Z"/>
 <path style="fill:#fafafa" d="M 21.666664,22 C 20.189334,22 19,23.189334 19,24.666667 V 30 l 8,-8 z"/>
 <path style="fill:#17191e" d="M 4.35,9.5250002 C 7.649855,8.3547374 10.024353,8.615045 12.136124,9.2093926 9.6810625,7.1550774 7.1089807,6.9018503 4.35,9.5250002 Z"/>
 <path style="opacity:0.2;fill:#8b9cbe" d="M 7.0019531 2 C 5.8926643 2 4.9985483 2.892 5 4 L 5.0019531 4.9882812 C 5.0070087 3.8859007 5.8967098 3 7.0019531 3 L 24.998047 3 C 26.107334 3 27.001291 3.892 27 5 L 27 4 C 27.001291 2.892 26.107334 2 24.998047 2 L 7.0019531 2 z"/>
</svg>
