<svg xmlns="http://www.w3.org/2000/svg" width="32" height="32" version="1.1">
 <circle style="opacity:0.2" cx="16" cy="17" r="14"/>
 <circle style="fill:#28b628" cx="16" cy="16" r="14"/>
 <circle style="opacity:0.2" cx="16" cy="17" r="10"/>
 <circle style="fill:#8b9cbe" cx="16" cy="16" r="10"/>
 <path style="fill:#28b628" d="M 18.064732,8.4288512 C 17.356451,11.003424 16,16 16,16 c 0,0 4.912704,-1.222266 7.571149,-2.101004 A 7.8571424,7.8571424 0 0 0 18.064732,8.4288512 Z"/>
 <path style="opacity:0.2" d="M 18.064453 8.4296875 C 17.356172 11.00426 16 16 16 16 C 16 16 16.266884 15.930349 16.292969 15.923828 C 16.589025 14.833881 17.456847 11.638311 18.064453 9.4296875 A 7.8571424 7.8571424 0 0 1 23.25 13.996094 C 23.347634 13.964759 23.477833 13.929006 23.570312 13.898438 A 7.8571424 7.8571424 0 0 0 18.064453 8.4296875 z"/>
 <path style="fill:#4f4f4f;fill-rule:evenodd" d="m 14.949081,16.738993 -4.663366,-4.310421 6.436248,3.394968 1.420894,2.319317 -3.193776,-1.403864"/>
 <path style="fill:#4f4f4f;fill-rule:evenodd" d="m 15.557628,15.678375 10.0138,-2.535518 -8.992859,3.839949 -3.435712,0.445765 2.414771,-1.750196"/>
 <path style="fill:#4f4f4f" d="M 16 7 A 0.99999954 0.99999954 0 0 0 15 8 A 0.99999954 0.99999954 0 0 0 16 9 A 0.99999954 0.99999954 0 0 0 17 8 A 0.99999954 0.99999954 0 0 0 16 7 z M 8 15 A 0.99999954 0.99999954 0 0 0 7 16 A 0.99999954 0.99999954 0 0 0 8 17 A 0.99999954 0.99999954 0 0 0 9 16 A 0.99999954 0.99999954 0 0 0 8 15 z M 24 15 A 0.99999954 0.99999954 0 0 0 23 16 A 0.99999954 0.99999954 0 0 0 24 17 A 0.99999954 0.99999954 0 0 0 25 16 A 0.99999954 0.99999954 0 0 0 24 15 z M 16 23 A 0.99999954 0.99999954 0 0 0 15 24 A 0.99999954 0.99999954 0 0 0 16 25 A 0.99999954 0.99999954 0 0 0 17 24 A 0.99999954 0.99999954 0 0 0 16 23 z"/>
 <path style="fill:#8b9cbe;opacity:0.2" d="M 16 2 A 14 14 0 0 0 2 16 A 14 14 0 0 0 2.0214844 16.585938 A 14 14 0 0 1 16 3 A 14 14 0 0 1 29.978516 16.414062 A 14 14 0 0 0 30 16 A 14 14 0 0 0 16 2 z"/>
</svg>
