<svg xmlns="http://www.w3.org/2000/svg" width="32" height="32" version="1">
 <path opacity=".2" d="m26.475 10.298a7 7 0 0 1 -0.91211 3.0176 7 7 0 0 1 0.39453 0.24609 7 7 0 0 0 0.51758 -3.2637zm-23.512 2.656a7 7 0 0 0 3.0801 6.299 7 7 0 0 1 0.3945 -0.812 7 7 0 0 1 -3.4746 -5.487zm26.074 6.9062a7 7 0 0 1 -0.912 3.018 7 7 0 0 1 -9.563 2.563 7 7 0 0 1 -9.562 2.56 7 7 0 0 1 -3.4746 -5.492 7 7 0 0 0 3.4746 6.553 7 7 0 0 0 9.5625 -2.5605 7 7 0 0 0 9.5625 -2.5625 7 7 0 0 0 0.91211 -4.0781z"/>
 <circle fill="#4f4f4f" cx="-5.856" cy="14.856" r="7" transform="matrix(.49998 -.86603 .86603 .49998 0 0)"/>
 <circle fill="#b2bfd9" cx="21.856" cy="-1.144" r="7" transform="rotate(30)"/>
 <circle fill="#4f4f4f" cx="-5.856" cy="28.856" r="7" transform="matrix(.49998 -.86603 .86603 .49998 0 0)"/>
 <circle fill="#b2bfd9" cx="21.856" cy="12.856" r="7" transform="rotate(30)"/>
 <path fill="#fff" opacity=".1" d="m19.666 2.9395a7 7 0 0 0 -0.496 0.0058 7 7 0 0 0 -5.732 3.4922 7 7 0 0 0 -9.563 2.5625 7 7 0 0 0 -0.916 4.057 7 7 0 0 1 0.916 -3.057 7 7 0 0 1 9.563 -2.5625 7 7 0 0 1 5.732 -3.4922 7 7 0 0 1 3.83 0.9297 7 7 0 0 1 3.479 5.508 7 7 0 0 0 -3.479 -6.508 7 7 0 0 0 -3.334 -0.9355zm6.272 10.732a7 7 0 0 1 -0.376 0.766 7 7 0 0 1 3.479 5.507 7 7 0 0 0 -3.103 -6.273zm-19.876 5.656a7 7 0 0 0 -0.541 3.291 7 7 0 0 1 0.916 -3.057 7 7 0 0 1 -0.375 -0.234z"/>
</svg>
