<svg xmlns="http://www.w3.org/2000/svg" width="32" height="32" version="1.1">
 <path style="opacity:0.2" d="m 16.539102,2.0001234 c -0.508804,-0.0022 -1.017669,0.022925 -1.52389,0.074175 A 0.69053955,0.69057278 0 0 0 14.402959,2.6555626 L 14.141336,4.3561977 C 13.573563,4.4663771 13.016041,4.615887 12.469102,4.8039464 L 11.396984,3.4660952 A 0.69053955,0.69057278 0 0 0 10.575702,3.2678451 C 9.6688476,3.6748864 8.8060491,4.173289 8.0012723,4.7567438 A 0.69053955,0.69057278 0 0 0 7.7639225,5.5672764 L 8.3856158,7.1613686 C 7.9474736,7.5400513 7.5368735,7.947241 7.1557157,8.3832371 L 5.5711397,7.7655596 A 0.69053955,0.69057278 0 0 0 4.7606462,8.0042695 C 4.1780334,8.8101033 3.6804673,9.6737617 3.2745152,10.58152 a 0.69053955,0.69057278 0 0 0 0.1982411,0.819974 l 1.2986779,1.04115 C 4.67395,12.720087 4.56853,12.995038 4.490931,13.278801 a 0.69053955,0.69057278 0 0 0 -0.00268,0.01079 c -0.072249,0.282386 -0.1163686,0.571074 -0.1685751,0.857733 L 2.6595796,14.402217 A 0.69053955,0.69057278 0 0 0 2.078345,15.013151 c -0.1031784,0.988001 -0.1043725,1.984111 -0.00406,2.972403 a 0.69053955,0.69057278 0 0 0 0.5825839,0.612282 l 1.6992056,0.260288 c 0.110071,0.567837 0.2597704,1.125299 0.4477266,1.672313 L 3.464666,21.602606 a 0.69053955,0.69057278 0 0 0 -0.1982404,0.822671 c 0.4070216,0.906898 0.9054003,1.769739 1.4888266,2.574554 a 0.69053955,0.69057278 0 0 0 0.8104935,0.237361 l 1.5940162,-0.621723 c 0.3790546,0.438261 0.7867497,0.848774 1.2231576,1.229959 l -0.6162986,1.583304 a 0.69053955,0.69057278 0 0 0 0.2386976,0.810532 c 0.8057961,0.582641 1.6694125,1.080231 2.5771265,1.486202 a 0.69053955,0.69057278 0 0 0 0.819935,-0.19825 l 1.039751,-1.297392 c 0.277633,0.09727 0.552178,0.201804 0.836117,0.279169 a 0.69053955,0.69057278 0 0 0 0.01079,0.0027 c 0.282802,0.07236 0.571958,0.116323 0.859043,0.168581 l 0.254881,1.660176 a 0.69053955,0.69057278 0 0 0 0.610904,0.581263 c 0.987485,0.103086 1.983136,0.104279 2.970911,0.0041 a 0.69053955,0.69057278 0 0 0 0.612254,-0.581263 l 0.261623,-1.699286 c 0.567772,-0.11018 1.125295,-0.25969 1.672233,-0.44775 l 1.072117,1.337852 a 0.69053955,0.69057278 0 0 0 0.821283,0.19825 c 0.906854,-0.407042 1.769654,-0.905445 2.57443,-1.488898 a 0.69053955,0.69057278 0 0 0 0.237349,-0.810534 l -0.621693,-1.594092 c 0.438142,-0.378683 0.848743,-0.785872 1.2299,-1.221868 l 1.583228,0.616328 a 0.69053955,0.69057278 0 0 0 0.810493,-0.238709 c 0.582613,-0.805834 1.080178,-1.669493 1.486131,-2.57725 a 0.69053955,0.69057278 0 0 0 -0.198242,-0.819974 l -1.297329,-1.039802 c 0.09756,-0.277886 0.202896,-0.553288 0.280504,-0.837505 a 0.69053955,0.69057278 0 0 0 0.0027,-0.01079 c 0.07224,-0.282387 0.116366,-0.571076 0.168572,-0.857735 l 1.660096,-0.254893 a 0.69053955,0.69057278 0 0 0 0.581236,-0.610934 c 0.103178,-0.988 0.104371,-1.984111 0.0041,-2.972403 A 0.69053955,0.69057278 0 0 0 30.343119,14.402218 L 28.643915,14.14193 C 28.53376,13.573666 28.384342,13.015676 28.196187,12.468268 L 29.533974,11.3961 a 0.69053955,0.69057278 0 0 0 0.198241,-0.821323 C 29.325102,9.6683438 28.825381,8.8059389 28.242037,8.0015718 A 0.69053955,0.69057278 0 0 0 27.432893,7.7642111 l -1.594016,0.621723 C 25.460003,7.9475295 25.053313,7.5359789 24.617068,7.1546261 L 25.233366,5.5713226 A 0.69053955,0.69057278 0 0 0 24.994669,4.76079 C 24.188872,4.1781494 23.325256,3.6805593 22.417542,3.2745883 A 0.69053955,0.69057278 0 0 0 21.596259,3.4728384 L 20.557855,4.7702302 C 20.280507,4.6728962 20.005394,4.5685232 19.721739,4.4910617 a 0.69053955,0.69057278 0 0 0 -0.01079,-0.0027 C 19.428126,4.416049 19.139017,4.3720028 18.851908,4.3197843 L 18.598376,2.6609571 A 0.69053955,0.69057278 0 0 0 17.987471,2.0783445 c -0.481246,-0.050105 -0.964524,-0.076437 -1.448369,-0.078221 z"/>
 <path style="fill:#bbc0c5" d="m 16.539102,1.0001467 c -0.508804,-0.002197 -1.017669,0.022925 -1.52389,0.074175 A 0.69053955,0.69057278 0 0 0 14.402959,1.6555859 L 14.141336,3.356221 C 13.573563,3.4664004 13.016041,3.6159103 12.469102,3.8039697 L 11.396984,2.4661185 A 0.69053955,0.69057278 0 0 0 10.575702,2.2678684 C 9.6688476,2.6749097 8.8060491,3.1733123 8.0012723,3.7567671 A 0.69053955,0.69057278 0 0 0 7.7639225,4.5672997 L 8.3856158,6.1613919 C 7.9474736,6.5400746 7.5368735,6.9472643 7.1557157,7.3832604 L 5.5711397,6.7655829 A 0.69053955,0.69057278 0 0 0 4.7606462,7.0042928 C 4.1780334,7.8101266 3.6804673,8.673785 3.2745152,9.581543 a 0.69053955,0.69057278 0 0 0 0.1982411,0.819974 l 1.2986779,1.04115 C 4.67395,11.72011 4.56853,11.995061 4.490931,12.278824 a 0.69053955,0.69057278 0 0 0 -0.00268,0.01079 C 4.4160023,12.572 4.3718824,12.860688 4.3196759,13.147347 L 2.6595796,13.40224 A 0.69053955,0.69057278 0 0 0 2.078345,14.013174 c -0.1031784,0.988001 -0.1043725,1.984111 -0.00406,2.972403 a 0.69053955,0.69057278 0 0 0 0.5825839,0.612282 l 1.6992056,0.260288 c 0.110071,0.567837 0.2597704,1.125299 0.4477266,1.672313 L 3.464666,20.602629 A 0.69053955,0.69057278 0 0 0 3.2664256,21.4253 c 0.4070216,0.906898 0.9054003,1.769739 1.4888266,2.574554 a 0.69053955,0.69057278 0 0 0 0.8104935,0.237361 l 1.5940162,-0.621723 c 0.3790546,0.438261 0.7867497,0.848774 1.2231576,1.229959 l -0.6162986,1.583304 a 0.69053955,0.69057278 0 0 0 0.2386976,0.810532 c 0.8057961,0.582641 1.6694125,1.080231 2.5771265,1.486202 a 0.69053955,0.69057278 0 0 0 0.819935,-0.19825 l 1.039751,-1.297392 c 0.277633,0.09727 0.552178,0.201804 0.836117,0.279169 a 0.69053955,0.69057278 0 0 0 0.01079,0.0027 c 0.282802,0.07236 0.571958,0.116323 0.859043,0.168581 l 0.254881,1.660176 a 0.69053955,0.69057278 0 0 0 0.610904,0.581263 c 0.987485,0.103086 1.983136,0.104279 2.970911,0.0041 a 0.69053955,0.69057278 0 0 0 0.612254,-0.581263 l 0.261623,-1.699286 c 0.567772,-0.11018 1.125295,-0.25969 1.672233,-0.44775 l 1.072117,1.337852 a 0.69053955,0.69057278 0 0 0 0.821283,0.19825 c 0.906854,-0.407042 1.769654,-0.905445 2.57443,-1.488898 a 0.69053955,0.69057278 0 0 0 0.237349,-0.810534 l -0.621693,-1.594092 c 0.438142,-0.378683 0.848743,-0.785872 1.2299,-1.221868 l 1.583228,0.616328 a 0.69053955,0.69057278 0 0 0 0.810493,-0.238709 c 0.582613,-0.805834 1.080178,-1.669493 1.486131,-2.57725 A 0.69053955,0.69057278 0 0 0 29.525883,20.598642 L 28.228554,19.55884 c 0.09756,-0.277886 0.202896,-0.553288 0.280504,-0.837505 a 0.69053955,0.69057278 0 0 0 0.0027,-0.01079 c 0.07224,-0.282387 0.116366,-0.571076 0.168572,-0.857735 l 1.660096,-0.254893 a 0.69053955,0.69057278 0 0 0 0.581236,-0.610934 c 0.103178,-0.988 0.104371,-1.984111 0.0041,-2.972403 A 0.69053955,0.69057278 0 0 0 30.343119,13.402241 L 28.643915,13.141953 C 28.53376,12.573689 28.384342,12.015699 28.196187,11.468291 l 1.337787,-1.072168 A 0.69053955,0.69057278 0 0 0 29.732215,9.5748005 C 29.325102,8.6683671 28.825381,7.8059622 28.242037,7.0015951 A 0.69053955,0.69057278 0 0 0 27.432893,6.7642344 l -1.594016,0.621723 C 25.460003,6.9475528 25.053313,6.5360022 24.617068,6.1546494 L 25.233366,4.5713459 A 0.69053955,0.69057278 0 0 0 24.994669,3.7608133 C 24.188872,3.1781727 23.325256,2.6805826 22.417542,2.2746116 A 0.69053955,0.69057278 0 0 0 21.596259,2.4728617 L 20.557855,3.7702535 C 20.280507,3.6729195 20.005394,3.5685465 19.721739,3.491085 a 0.69053955,0.69057278 0 0 0 -0.01079,-0.0027 C 19.428126,3.4160723 19.139017,3.3720261 18.851908,3.3198076 L 18.598376,1.6609804 A 0.69053955,0.69057278 0 0 0 17.987471,1.0783678 C 17.506225,1.0282629 17.022947,1.001931 16.539102,1.0001467 Z"/>
 <path style="fill:#17191e" d="m 24.924682,15.730572 c 0,2.714254 1.045444,4.957374 -0.644864,6.821089 -1.921027,2.118102 -4.695074,3.448318 -7.77981,3.448318 -5.798989,0 -10.4999997,-4.70101 -10.4999997,-10.499999 0,-5.7989898 4.7010107,-10.5001548 10.4999997,-10.5000001 C 17.25,5 24.924682,9.9315818 24.924682,15.730572 Z"/>
 <path style="opacity:0.3;fill:#8b9cbe" d="M 15 5.1191406 C 13.958749 5.2684683 12.967994 5.5685502 12.048828 6 L 15 6 L 15 5.1191406 z M 11 6.5683594 C 10.778422 6.7050945 10.561807 6.8476568 10.351562 7 L 11 7 L 11 6.5683594 z M 9.1601562 8 C 8.8396812 8.3136651 8.5420358 8.6477023 8.2636719 9 L 13 9 L 13 8 L 9.1601562 8 z M 14 8 L 14 9 L 15 9 L 15 8 L 14 8 z M 7.5683594 10 C 7.3693277 10.322533 7.1873017 10.655554 7.0234375 11 L 9 11 L 9 10 L 7.5683594 10 z M 10 10 L 10 11 L 15 11 L 15 10 L 10 10 z M 6.609375 12 C 6.4939832 12.326021 6.3956967 12.660088 6.3125 13 L 11 13 L 11 12 L 6.609375 12 z M 6.0253906 15 C 6.0175227 15.16675 6 15.331303 6 15.5 C 6 15.668697 6.0175227 15.83325 6.0253906 16 L 10 16 L 10 15 L 6.0253906 15 z M 11 15 L 11 16 L 13 16 L 13 15 L 11 15 z M 6.1191406 17 C 6.167787 17.339163 6.2322458 17.672113 6.3125 18 L 9 18 L 9 17 L 6.1191406 17 z M 10 17 L 10 18 L 17 18 L 17 17 L 10 17 z M 6.609375 19 C 6.730481 19.342163 6.8689064 19.675176 7.0234375 20 L 8 20 L 8 19 L 6.609375 19 z M 9 19 L 9 20 L 13 20 L 13 19 L 9 19 z M 16 19 L 16 22 L 17 22 L 17 19 L 16 19 z M 20 19 L 20 23 L 23 23 L 23 19 L 20 19 z M 21 20 L 22 20 L 22 22 L 21 22 L 21 20 z M 7.5683594 21 C 7.782233 21.34658 8.0121705 21.681703 8.2636719 22 L 12 22 L 12 21 L 7.5683594 21 z M 13 21 L 13 22 L 14 22 L 14 21 L 13 21 z M 9.1601562 23 C 9.4265475 23.260728 9.70716 23.504941 10 23.736328 L 10 23 L 9.1601562 23 z M 11 23 L 11 24 L 15 24 L 15 23 L 11 23 z M 16 23 L 16 25.974609 C 16.16675 25.982477 16.331303 26 16.5 26 C 16.669041 26 16.832914 25.980556 17 25.972656 L 17 24 L 18 24 L 18 25.880859 C 18.338794 25.832238 18.672458 25.769615 19 25.689453 L 19 23 L 16 23 z"/>
 <path style="fill:#3daee9" d="m 27,15.5 c 0,2.833116 -1.122058,5.404162 -2.946023,7.292988 L 16.5,15.5 V 5 C 22.29899,5 27,9.7010104 27,15.5 Z"/>
 <path style="fill:#8b9cbe" d="m 16,5 v 10.800202 l 1,-0.60039 V 5 Z"/>
 <path style="opacity:0.2" d="m 17.353516,16.646531 -0.707032,0.707032 6.898438,6.898437 c 0.169175,-0.15407 0.341084,-0.304161 0.5,-0.46875 l 0.0098,0.0098 c 0.04515,-0.04675 0.08462,-0.0989 0.128906,-0.146485 0.02726,-0.0293 0.05826,-0.05506 0.08594,-0.08398 z"/>
 <path style="fill:#ff4949" d="M 17.353516 15.646484 L 16.646484 16.353516 L 23.544922 23.251953 C 23.714097 23.097883 23.886006 22.947792 24.044922 22.783203 L 24.054688 22.792969 C 24.099836 22.746215 24.139312 22.694068 24.183594 22.646484 C 24.210855 22.617189 24.241857 22.591419 24.269531 22.5625 L 17.353516 15.646484 z"/>
 <circle style="opacity:0.2" cx="16.5" cy="16.5" r="1.5"/>
 <circle style="fill:#fcfcfc" cx="16.5" cy="15.5" r="1.5"/>
 <circle style="fill:#17191e" cx="16.5" cy="15.5" r=".5"/>
 <path style="fill:#8b9cbe;opacity:0.2" d="M 16.539062 1 C 16.030258 0.997803 15.521846 1.0229687 15.015625 1.0742188 A 0.69053955 0.69057278 0 0 0 14.402344 1.65625 L 14.140625 3.3554688 C 13.572852 3.4656481 13.015689 3.6166281 12.46875 3.8046875 L 11.396484 2.4667969 A 0.69053955 0.69057278 0 0 0 10.576172 2.2675781 C 9.6693175 2.6746194 8.8067299 3.1724046 8.0019531 3.7558594 A 0.69053955 0.69057278 0 0 0 7.7636719 4.5664062 L 7.8808594 4.8691406 A 0.69053955 0.69057278 0 0 1 8.0019531 4.7558594 C 8.8067299 4.1724046 9.6693175 3.6746194 10.576172 3.2675781 A 0.69053955 0.69057278 0 0 1 11.396484 3.4667969 L 12.46875 4.8046875 C 13.015689 4.6166281 13.572852 4.4656481 14.140625 4.3554688 L 14.402344 2.65625 A 0.69053955 0.69057278 0 0 1 15.015625 2.0742188 C 15.521846 2.0229688 16.030258 1.9978 16.539062 2 C 17.022907 2.0017841 17.507035 2.02802 17.988281 2.078125 A 0.69053955 0.69057278 0 0 1 18.597656 2.6601562 L 18.851562 4.3203125 C 19.138671 4.372531 19.428114 4.4159685 19.710938 4.4882812 A 0.69053955 0.69057278 0 0 1 19.722656 4.4902344 C 20.006311 4.5676959 20.281246 4.6721972 20.558594 4.7695312 L 21.595703 3.4726562 A 0.69053955 0.69057278 0 0 1 22.417969 3.2753906 C 23.325683 3.6813616 24.188344 4.1790781 24.994141 4.7617188 A 0.69053955 0.69057278 0 0 1 25.115234 4.8730469 L 25.232422 4.5722656 A 0.69053955 0.69057278 0 0 0 24.994141 3.7617188 C 24.188344 3.1790782 23.325683 2.6813616 22.417969 2.2753906 A 0.69053955 0.69057278 0 0 0 21.595703 2.4726562 L 20.558594 3.7695312 C 20.281246 3.6721972 20.006311 3.5676959 19.722656 3.4902344 A 0.69053955 0.69057278 0 0 0 19.710938 3.4882812 C 19.428114 3.4159686 19.138671 3.372531 18.851562 3.3203125 L 18.597656 1.6601562 A 0.69053955 0.69057278 0 0 0 17.988281 1.078125 C 17.507035 1.0280201 17.022907 1.0017843 16.539062 1 z M 24.902344 6.421875 L 24.617188 7.1542969 C 25.053433 7.5356497 25.46097 7.9483141 25.839844 8.3867188 L 27.433594 7.7636719 A 0.69053955 0.69057278 0 0 1 28.242188 8.0019531 C 28.77127 8.7314992 29.220669 9.5135457 29.605469 10.328125 A 0.69053955 0.69057278 0 0 0 29.732422 9.5742188 C 29.325309 8.6677853 28.825531 7.8063202 28.242188 7.0019531 A 0.69053955 0.69057278 0 0 0 27.433594 6.7636719 L 25.839844 7.3867188 C 25.546337 7.0470947 25.230046 6.7277126 24.902344 6.421875 z M 8.0996094 6.4277344 C 7.7698298 6.7310924 7.4515654 7.0450092 7.15625 7.3828125 L 5.5703125 6.765625 A 0.69053955 0.69057278 0 0 0 4.7597656 7.0039062 C 4.1771528 7.8097401 3.6813427 8.6742733 3.2753906 9.5820312 A 0.69053955 0.69057278 0 0 0 3.4003906 10.333984 C 3.7839421 9.5183893 4.2314511 8.734638 4.7597656 8.0039062 A 0.69053955 0.69057278 0 0 1 5.5703125 7.765625 L 7.15625 8.3828125 C 7.5374078 7.9468164 7.9466234 7.5407921 8.3847656 7.1621094 L 8.0996094 6.4277344 z M 4.5058594 12.230469 C 4.5011683 12.246904 4.4947445 12.262804 4.4902344 12.279297 A 0.69053955 0.69057278 0 0 0 4.4882812 12.289062 C 4.4160325 12.571448 4.372519 12.859825 4.3203125 13.146484 L 2.6601562 13.402344 A 0.69053955 0.69057278 0 0 0 2.078125 14.013672 C 2.0087071 14.678394 2.0026271 15.346459 2.0253906 16.013672 C 2.0370358 15.680077 2.0434155 15.346038 2.078125 15.013672 A 0.69053955 0.69057278 0 0 1 2.6601562 14.402344 L 4.3203125 14.146484 C 4.372519 13.859825 4.4160322 13.571449 4.4882812 13.289062 A 0.69053955 0.69057278 0 0 1 4.4902344 13.279297 C 4.5678334 12.995534 4.6740002 12.720802 4.7714844 12.443359 L 4.5058594 12.230469 z M 28.441406 12.271484 L 28.195312 12.46875 C 28.383467 13.016158 28.534376 13.574314 28.644531 14.142578 L 30.34375 14.402344 A 0.69053955 0.69057278 0 0 1 30.925781 15.013672 C 30.95859 15.337046 30.963545 15.661837 30.974609 15.986328 C 30.997584 15.328269 30.992321 14.6695 30.925781 14.013672 A 0.69053955 0.69057278 0 0 0 30.34375 13.402344 L 28.644531 13.142578 C 28.587765 12.849732 28.518955 12.558832 28.441406 12.271484 z M 4.5585938 19.728516 L 3.4648438 20.603516 A 0.69053955 0.69057278 0 0 0 3.265625 21.425781 C 3.303126 21.509338 3.3515779 21.587124 3.390625 21.669922 A 0.69053955 0.69057278 0 0 1 3.4648438 21.603516 L 4.8046875 20.53125 C 4.7137877 20.266702 4.6314426 19.997943 4.5585938 19.728516 z M 28.492188 19.771484 C 28.416255 20.037454 28.320144 20.297603 28.228516 20.558594 L 29.525391 21.597656 A 0.69053955 0.69057278 0 0 1 29.597656 21.666016 C 29.637183 21.581976 29.686677 21.502789 29.724609 21.417969 A 0.69053955 0.69057278 0 0 0 29.525391 20.599609 L 28.492188 19.771484 z M 24.900391 25.574219 C 24.804672 25.66226 24.71376 25.754689 24.615234 25.839844 L 25.119141 27.132812 A 0.69053955 0.69057278 0 0 0 25.236328 26.433594 L 24.900391 25.574219 z M 8.0976562 25.578125 L 7.7675781 26.429688 A 0.69053955 0.69057278 0 0 0 7.8847656 27.126953 L 8.3828125 25.845703 C 8.2844819 25.759815 8.1930723 25.666973 8.0976562 25.578125 z"/>
 <path style="opacity:0.2" d="M 16.5 5 A 10.5 10.5 0 0 0 6 15.5 A 10.5 10.5 0 0 0 6.0195312 16.095703 A 10.5 10.5 0 0 1 16.5 6 A 10.5 10.5 0 0 1 26.980469 15.904297 A 10.5 10.5 0 0 0 27 15.5 A 10.5 10.5 0 0 0 16.5 5 z"/>
 <path style="opacity:0.2;fill:#8b9cbe" d="M 16.5,27 A 10.5,10.5 0 0 1 6,16.5 10.5,10.5 0 0 1 6.0195312,15.904297 10.5,10.5 0 0 0 16.5,26 10.5,10.5 0 0 0 26.980469,16.095703 10.5,10.5 0 0 1 27,16.5 10.5,10.5 0 0 1 16.5,27 Z"/>
</svg>
