<svg xmlns="http://www.w3.org/2000/svg" width="32" height="32" version="1">
 <path style="opacity:0.2" d="M 15.920313,19.001775 A 1.60016,1.4667068 0 0 0 15.2125,19.189391 L 11.075,21.331945 9.823438,21.170107 A 1.60016,1.4667068 0 0 0 8,22.622345 l 0,2.281475 a 1.60016,1.4667068 0 0 0 0.757813,1.246003 l 6.4,3.630596 a 1.60016,1.4667068 0 0 0 1.684374,0 l 6.4,-3.630596 A 1.60016,1.4667068 0 0 0 24,24.90382 l 0,-2.5006 a 1.60016,1.4667068 0 0 0 -2.214062,-1.354848 l -1.007813,0.383825 -3.942187,-2.215594 a 1.60016,1.4667068 0 0 0 -0.915625,-0.214828 z"/>
 <path style="fill:#1383d9" d="M 15.920313,18.001775 A 1.60016,1.4667068 0 0 0 15.2125,18.189391 L 11.075,20.331945 9.823438,20.170107 A 1.60016,1.4667068 0 0 0 8,21.622345 l 0,2.281475 a 1.60016,1.4667068 0 0 0 0.757813,1.246003 l 6.4,3.630596 a 1.60016,1.4667068 0 0 0 1.684374,0 l 6.4,-3.630596 A 1.60016,1.4667068 0 0 0 24,23.90382 l 0,-2.5006 a 1.60016,1.4667068 0 0 0 -2.214062,-1.354848 l -1.007813,0.383825 -3.942187,-2.215594 a 1.60016,1.4667068 0 0 0 -0.915625,-0.214828 z"/>
 <path style="opacity:0.2" d="m 10,4.0000003 -8,5.5 L 7.5,14 2,18.5 10,24 16,19 22,23.833984 30,18.5 24.5,14 30,9.5000003 l -8,-5.5 -6,5 -6,-5 z"/>
 <path style="fill:#5aacff" d="M 10 3 L 2 8.5 L 7.5 13 L 2 17.5 L 10 23 L 16 18 L 22 22.833984 L 30 17.5 L 24.5 13 L 30 8.5 L 22 3 L 16 8 L 10 3 z"/>
 <path style="opacity:0.2" d="M 24.5,14 16,19 7.5,14 16,9.0000003 Z"/>
 <path style="fill:#8b9cbe" d="m24.5 13-8.5 5-8.5-5 8.5-5z"/>
 <path style="fill:#8b9cbe;opacity:0.2" d="M 10 3 L 2 8.5 L 2.6640625 9.0429688 L 10 4 L 16 9 L 22 4 L 29.335938 9.0429688 L 30 8.5 L 22 3 L 16 8 L 10 3 z M 6.8886719 13.5 L 2 17.5 L 2.6640625 17.957031 L 7.5 14 L 6.8886719 13.5 z M 25.111328 13.5 L 24.5 14 L 29.326172 17.949219 L 30 17.5 L 25.111328 13.5 z"/>
</svg>
