<svg xmlns="http://www.w3.org/2000/svg" width="32" height="32" version="1">
 <rect style="opacity:0.2" width="28" height="28" x="2" y="3" rx="1.4" ry="1.4"/>
 <rect style="fill:#38a334" width="28" height="28" x="2" y="2" rx="1.4" ry="1.4"/>
 <path style="opacity:0.2" d="m 20,8 a 5,5 0 0 0 -5,5 5,5 0 0 0 0.513672,2.201172 L 7,23.714844 V 26 H 9.2851562 L 10.285156,25 H 13 V 22.285156 L 14.285156,21 H 17 v -2.714844 l 0.800781,-0.800781 A 5,5 0 0 0 20,18 5,5 0 0 0 25,13 5,5 0 0 0 20,8 Z m 1,2 a 2,2 0 0 1 2,2 2,2 0 0 1 -2,2 2,2 0 0 1 -2,-2 2,2 0 0 1 2,-2 z"/>
 <path style="fill:#8b9cbe" d="M 20 7 A 5 5 0 0 0 15 12 A 5 5 0 0 0 15.513672 14.201172 L 7 22.714844 L 7 25 L 9.2851562 25 L 10.285156 24 L 13 24 L 13 21.285156 L 14.285156 20 L 17 20 L 17 17.285156 L 17.800781 16.484375 A 5 5 0 0 0 20 17 A 5 5 0 0 0 25 12 A 5 5 0 0 0 20 7 z M 21 9 A 2 2 0 0 1 23 11 A 2 2 0 0 1 21 13 A 2 2 0 0 1 19 11 A 2 2 0 0 1 21 9 z"/>
 <path style="opacity:0.2" d="M 7,12.285714 V 10 H 9.2857146 L 23,23.714286 V 26 h -2.285715 z"/>
 <path style="fill:#454545" d="M 7,11.285714 V 9 H 9.2857146 L 23,22.714286 V 25 h -2.285715 z"/>
 <path style="fill:#8b9cbe;opacity:0.1" d="M 3.4003906 2 C 2.6247906 2 2 2.6247906 2 3.4003906 L 2 4.4003906 C 2 3.6247906 2.6247906 3 3.4003906 3 L 28.599609 3 C 29.375209 3 30 3.6247906 30 4.4003906 L 30 3.4003906 C 30 2.6247906 29.375209 2 28.599609 2 L 3.4003906 2 z"/>
</svg>
