<svg xmlns="http://www.w3.org/2000/svg" width="32" height="32" version="1.1">
 <path style="opacity:0.2" d="M 16.5,2 C 11.736544,2 7.875,5.392794 7.875,10.15625 v 1.751953 C 6.0256476,14.005166 5.0035858,16.704048 5,19.5 5,25.851275 10.148725,31 16.5,31 22.851275,31 28,25.851275 28,19.5 27.994709,16.706467 26.972757,14.011165 25.125,11.916016 V 10.15625 C 25.125,5.392794 21.263456,2 16.5,2 Z m 0,3 C 19.332507,5 21.664888,6.783408 22,9.525391 20.326027,8.5651978 18.429804,8.0579862 16.5,8.0546875 14.569248,8.0593988 12.673851,8.5669847 11,9.529297 11.332632,6.7846269 13.665578,5 16.5,5 Z"/>
 <path style="fill:#12a1ac" d="M 16.5,1 C 11.736544,1 7.875,4.392794 7.875,9.15625 v 1.751953 C 6.0256476,13.005166 5.0035858,15.704048 5,18.5 5,24.851275 10.148725,30 16.5,30 22.851275,30 28,24.851275 28,18.5 27.994709,15.706467 26.972757,13.011165 25.125,10.916016 V 9.15625 C 25.125,4.392794 21.263456,1 16.5,1 Z m 0,3 C 19.332507,4 21.664888,5.783408 22,8.5253906 20.326027,7.5651978 18.429804,7.0579862 16.5,7.0546875 14.569248,7.0593988 12.673851,7.5669847 11,8.5292969 11.332632,5.7846269 13.665578,4 16.5,4 Z"/>
 <path style="fill:#e34040" d="M 16.5,7.0000041 A 7.75,11.219604 0 0 0 16,7.0381711 V 10 h 1 V 7.0381746 a 7.75,11.219604 0 0 0 -0.5,-0.038175 z"/>
 <path style="opacity:0.2" d="M 25,19.5 A 8.5,8.5 0 0 1 16.5,28 8.5,8.5 0 0 1 8,19.5 8.5,8.5 0 0 1 16.5,11 8.5,8.5 0 0 1 25,19.5 Z"/>
 <path style="fill:#8b9cbe" d="M 25,18.5 A 8.5,8.5 0 0 1 16.5,27 8.5,8.5 0 0 1 8,18.5 8.5,8.5 0 0 1 16.5,10 8.5,8.5 0 0 1 25,18.5 Z"/>
 <path style="fill:#10ca15" d="m 16,11 v 2 h 1 v -2 z m -4.095703,2.197266 -0.707031,0.707031 0.707031,0.707031 0.707031,-0.707031 z m 9.191406,0 -0.707031,0.707031 0.707031,0.707031 0.707031,-0.707031 z M 9,18 v 1 h 2 v -1 z m 13,0 v 1 h 2 v -1 z m -10.095703,4.388672 -0.707031,0.707031 0.707031,0.707031 0.707031,-0.707031 z m 9.191406,0 -0.707031,0.707031 0.707031,0.707031 0.707031,-0.707031 z M 16,24 v 2 h 1 v -2 z"/>
 <path style="opacity:0.1" d="M 21,19.5 A 4.4999999,4.4999999 0 0 1 16.5,24 4.4999999,4.4999999 0 0 1 12,19.5 4.4999999,4.4999999 0 0 1 16.5,15 4.4999999,4.4999999 0 0 1 21,19.5 Z"/>
 <path style="fill:#12a1ac" d="M 21,18.5 A 4.4999999,4.4999999 0 0 1 16.5,23 4.4999999,4.4999999 0 0 1 12,18.5 4.4999999,4.4999999 0 0 1 16.5,14 4.4999999,4.4999999 0 0 1 21,18.5 Z"/>
 <g>
  <path style="opacity:0.2;fill:#8b9cbe" d="M 16.5 1 C 11.736544 1 7.875 4.392794 7.875 9.15625 L 7.875 10.15625 C 7.875 5.392794 11.736544 2 16.5 2 C 21.263456 2 25.125 5.392794 25.125 10.15625 L 25.125 9.15625 C 25.125 4.392794 21.263456 1 16.5 1 z M 16.5 7.0546875 C 14.674791 7.0591413 12.887926 7.5280494 11.283203 8.390625 C 11.152449 8.7502349 11.048937 9.1255027 11 9.5292969 C 12.673851 8.5669847 14.569248 8.0593988 16.5 8.0546875 C 18.429804 8.0579862 20.326027 8.5651978 22 9.5253906 C 21.950601 9.1211913 21.846249 8.7446629 21.714844 8.3847656 C 20.110528 7.5248238 18.323439 7.0578044 16.5 7.0546875 z M 7.875 10.908203 C 6.0256476 13.005166 5.0035858 15.704048 5 18.5 C 5 18.663518 5.0166793 18.822519 5.0234375 18.984375 C 5.1442098 16.37426 6.1399262 13.875587 7.875 11.908203 L 7.875 10.908203 z M 25.125 10.916016 L 25.125 11.916016 C 26.858363 13.881455 27.854197 16.377003 27.976562 18.984375 C 27.983321 18.822519 28 18.663518 28 18.5 C 27.994709 15.706467 26.972757 13.011165 25.125 10.916016 z"/>
 </g>
</svg>
