<svg xmlns="http://www.w3.org/2000/svg" width="32" height="32" version="1">
 <rect style="opacity:0.2" width="28" height="28" x="2" y="3" rx="1.4" ry="1.4"/>
 <rect style="fill:#a7a7a7" width="28" height="28" x="2" y="2" rx="1.4" ry="1.4"/>
 <path style="fill:#8b9cbe;opacity:0.2" d="M 3.4003906 2 C 2.6247906 2 2 2.6247906 2 3.4003906 L 2 4.4003906 C 2 3.6247906 2.6247906 3 3.4003906 3 L 28.599609 3 C 29.375209 3 30 3.6247906 30 4.4003906 L 30 3.4003906 C 30 2.6247906 29.375209 2 28.599609 2 L 3.4003906 2 z"/>
 <path style="opacity:0.1" d="M 24,9.3 C 22.538,10.1 19.528,10.001 16.681,9.9665 14.446,9.9798 10.083,9.7821 9.3335,11.966 9.6167,11.576 14.812,9.8047 14.29,12.004 13.675,13.797 12.576,15.33 11.634,16.952 10.72,17.02 9.4521,17.061 8.6665,17.606 8.8711,17.48 10.614,17.134 11.312,17.515 10.243,19.283 9.1403,20.774 8.356,22.698 8.1401,23.36 7.6536,24.423 8.4006,24.902 9.0343,25.197 8.5905,24.772 8.8471,24.359 9.9219,22.048 11.402,20.042 12.753,17.897 13.542,18.225 14.307,18.833 15.167,18.927 16.338,19.066 18.357,17.411 18.667,16.273 17.333,17.274 15.032,16.962 13.512,16.93 L 16.795,11.83 C 17.118,11.929 17.688,11.956 18.632,11.966 20.831,12.029 23.642,11.619 24,9.3 Z"/>
 <path style="fill:#4f4f4f" d="M 24,8.3 C 22.538,9.0997 19.528,9.0005 16.681,8.9665 14.446,8.9798 10.083,8.7821 9.3335,10.966 9.6167,10.576 14.812,8.8047 14.29,11.004 13.675,12.797 12.576,14.33 11.634,15.952 10.72,16.02 9.4521,16.061 8.6665,16.606 8.8711,16.48 10.614,16.134 11.312,16.515 10.243,18.283 9.1403,19.774 8.356,21.698 8.1401,22.36 7.6536,23.423 8.4006,23.902 9.0343,24.197 8.5905,23.772 8.8471,23.359 9.9219,21.048 11.402,19.042 12.753,16.897 13.542,17.225 14.307,17.833 15.167,17.927 16.338,18.066 18.357,16.411 18.667,15.273 17.333,16.274 15.032,15.962 13.512,15.93 L 16.795,10.83 C 17.118,10.929 17.688,10.956 18.632,10.966 20.831,11.029 23.642,10.619 24,8.3 Z"/>
</svg>
