<svg xmlns="http://www.w3.org/2000/svg" width="32" height="32" version="1">
 <rect style="opacity:0.2" width="29" height="29" x="2" y="2" rx="8.7" ry="8.7"/>
 <rect style="fill:#ff6363" width="29" height="29" x="2" y="1" rx="8.7" ry="8.7"/>
 <path style="opacity:0.3" d="m 9.9750001,22.025 -5.431836,5.431837 C 6.1156892,29.029361 8.2901001,30 10.7,30 h 5.8 5.8 c 2.4099,0 4.584312,-0.970639 6.156837,-2.543163 L 23.025,22.025 H 16.5 Z"/>
 <path style="opacity:0.15" d="M 28.456837,3.543164 23.025,8.9750001 V 15.5 22.025 l 5.431837,5.431837 C 30.029361,25.884312 31,23.7099 31,21.3 V 9.7000001 c 0,-2.4099 -0.970639,-4.5843109 -2.543163,-6.1568361 z"/>
 <path style="opacity:0.15" d="M 4.5431641,3.543164 C 2.9706391,5.1156892 2,7.2901001 2,9.7000001 V 15.5 21.3 c 0,2.4099 0.9706391,4.584312 2.5431641,6.156837 L 9.9750001,22.025 V 15.5 8.9750001 Z"/>
 <rect style="opacity:0.2" width="21" height="21" x="6" y="6" rx="4.5" ry="4.5"/>
 <rect style="fill:#eceeeb" width="21" height="21" x="6" y="5" rx="4.5" ry="4.5"/>
 <path style="fill:#4f4f4f" d="M 10,9.0000004 V 14.055556 16.944444 22 h 3 v -5 h 7 v 5 h 3 V 16.944444 14.055556 9.0000004 H 20 V 14 H 13 V 9.0000004 Z"/>
 <path style="opacity:0.2;fill:#8b9cbe" d="M 10.699219 1 C 5.8794189 1 2 4.8794189 2 9.6992188 L 2 10.699219 C 2 5.8794189 5.8794189 2 10.699219 2 L 22.300781 2 C 27.120581 2 31 5.8794189 31 10.699219 L 31 9.6992188 C 31 4.8794189 27.120581 1 22.300781 1 L 10.699219 1 z"/>
</svg>
