<svg xmlns="http://www.w3.org/2000/svg" height="32" width="32" version="1.1">
 <path style="opacity:.2" d="m21 3a9 14 0 0 0 -9 14 9 14 0 0 0 9 14 9 14 0 0 0 9 -14 9 14 0 0 0 -9 -14zm0 5a5 9 0 0 1 5 9 5 9 0 0 1 -5 9 5 9 0 0 1 -5 -9 5 9 0 0 1 5 -9z"/>
 <path style="fill:#2d2d84" d="m21 2a9 14 0 0 0 -9 14 9 14 0 0 0 9 14 9 14 0 0 0 9 -14 9 14 0 0 0 -9 -14zm0 5a5 9 0 0 1 5 9 5 9 0 0 1 -5 9 5 9 0 0 1 -5 -9 5 9 0 0 1 5 -9z"/>
 <path style="opacity:.1;fill:#8b9cbe" d="m21 2a9 14 0 0 0 -9 14 9 14 0 0 0 0.013672 0.423828 9 14 0 0 1 8.986328 -13.423828 9 14 0 0 1 8.986328 13.576172 9 14 0 0 0 0.013672 -0.576172 9 14 0 0 0 -9 -14zm4.988281 14.394531a5 9 0 0 1 -4.988281 8.605469 5 9 0 0 1 -4.988281 -8.394531 5 9 0 0 0 -0.011719 0.394531 5 9 0 0 0 5 9 5 9 0 0 0 5 -9 5 9 0 0 0 -0.011719 -0.605469z"/>
 <path style="opacity:.2" d="m16 26c6 0 12-9 12-9s-6-9-12-9c-9 0-9 9-9 9s0 9 9 9z"/>
 <path style="fill:#ff6600" d="m16 25c6 0 12-9 12-9s-6-9-12-9c-9 0-9 9-9 9s0 9 9 9z"/>
 <path style="opacity:.2;fill:#8b9cbe" d="m16 7c-9 0-9 9-9 9s0.0071373 0.201003 0.03125 0.5c0.1494985-1.853781 1.21875-8.5 8.96875-8.5 5.466402 0 10.703759 7.171271 11.632812 8.5 0.090689-0.129703 0.367188-0.5 0.367188-0.5s-6-9-12-9z"/>
 <path style="opacity:.2" d="m11 3a9 14 0 0 0 -9 14 9 14 0 0 0 9 14 9 14 0 0 0 9 -14 9 14 0 0 0 -9 -14zm0 5a5 9 0 0 1 5 9 5 9 0 0 1 -5 9 5 9 0 0 1 -5 -9 5 9 0 0 1 5 -9z"/>
 <path style="fill:#3737a0" d="m11 2a9 14 0 0 0 -9 14 9 14 0 0 0 9 14 9 14 0 0 0 9 -14 9 14 0 0 0 -9 -14zm0 5a5 9 0 0 1 5 9 5 9 0 0 1 -5 9 5 9 0 0 1 -5 -9 5 9 0 0 1 5 -9z"/>
 <path style="opacity:.2;fill:#8b9cbe" d="m11 2a9 14 0 0 0 -9 14 9 14 0 0 0 0.0136719 0.423828 9 14 0 0 1 8.9863281 -13.423828 9 14 0 0 1 8.986328 13.576172 9 14 0 0 0 0.013672 -0.576172 9 14 0 0 0 -9 -14zm4.988281 14.394531a5 9 0 0 1 -4.988281 8.605469 5 9 0 0 1 -4.9882812 -8.394531 5 9 0 0 0 -0.0117188 0.394531 5 9 0 0 0 5 9 5 9 0 0 0 5 -9 5 9 0 0 0 -0.011719 -0.605469z"/>
</svg>
