<svg xmlns="http://www.w3.org/2000/svg" width="32" height="32" version="1.1">
 <rect style="opacity:0.2" width="20" height="29" x="6" y="2" rx="2.143" ry="2.175"/>
 <rect style="fill:#335065" width="20" height="29" x="6" y="1" rx="2.143" ry="2.175"/>
 <rect style="fill:#8b9cbe" width="3" height="3" x="7" y="2"/>
 <path style="opacity:0.2" d="m 16.000093,12.999979 c -0.360612,0.0053 -0.617787,0.230317 -0.73848,0.602744 l 0.0045,-0.01679 -0.56659,1.914068 h -1.910751 c -0.0042,-6.9e-5 -0.0081,-6.9e-5 -0.01228,0 -0.228177,0.0076 -0.433922,0.08448 -0.57888,0.267267 -0.313501,0.372715 -0.247056,0.959159 0.151045,1.237127 l 1.50226,1.137125 -0.582973,1.809347 c -6.67e-4,0.0021 -0.0012,0.0042 -0.0019,0.0062 -0.08908,0.303078 -0.0052,0.615321 0.218755,0.828919 0.0017,0.0016 0.0035,0.0031 0.0051,0.0047 0.269257,0.247913 0.64758,0.279422 0.951655,0.07422 0.0058,-0.0039 0.01154,-0.0079 0.01711,-0.0121 l 1.541325,-1.152751 1.541325,1.152751 c 0.0055,0.0042 0.01132,0.0083 0.01711,0.0121 0.304075,0.205201 0.682397,0.173693 0.951654,-0.07422 0.0017,-0.0015 0.0036,-0.0031 0.0051,-0.0047 0.224066,-0.213598 0.307833,-0.525841 0.218755,-0.828919 -6.29e-4,-0.0021 -0.0012,-0.0042 -0.0019,-0.0062 l -0.58295,-1.809347 1.50226,-1.137126 c 0.398099,-0.277968 0.464547,-0.864412 0.151045,-1.237127 -0.144958,-0.182784 -0.350703,-0.259607 -0.57888,-0.267268 -0.0042,-6.8e-5 -0.0081,-6.8e-5 -0.01228,0 h -1.910751 l -0.566627,-1.91407 0.0045,0.01679 c -0.120659,-0.372424 -0.377835,-0.597403 -0.738447,-0.602741 z"/>
 <path style="fill:#ff3b64" d="m 16.000093,11.999979 c -0.360612,0.0053 -0.617787,0.230317 -0.73848,0.602744 l 0.0045,-0.01679 -0.56659,1.914068 h -1.910751 c -0.0042,-6.9e-5 -0.0081,-6.9e-5 -0.01228,0 -0.228177,0.0076 -0.433922,0.08448 -0.57888,0.267267 -0.313501,0.372715 -0.247056,0.959159 0.151045,1.237127 l 1.50226,1.137125 -0.582973,1.809347 c -6.67e-4,0.0021 -0.0012,0.0042 -0.0019,0.0062 -0.08908,0.303078 -0.0052,0.615321 0.218755,0.828919 0.0017,0.0016 0.0035,0.0031 0.0051,0.0047 0.269257,0.247913 0.64758,0.279422 0.951655,0.07422 0.0058,-0.0039 0.01154,-0.0079 0.01711,-0.0121 l 1.541325,-1.152751 1.541325,1.152751 c 0.0055,0.0042 0.01132,0.0083 0.01711,0.0121 0.304075,0.205201 0.682397,0.173693 0.951654,-0.07422 0.0017,-0.0015 0.0036,-0.0031 0.0051,-0.0047 0.224066,-0.213598 0.307833,-0.525841 0.218755,-0.828919 -6.29e-4,-0.0021 -0.0012,-0.0042 -0.0019,-0.0062 l -0.58295,-1.809347 1.50226,-1.137126 c 0.398099,-0.277968 0.464547,-0.864412 0.151045,-1.237127 -0.144958,-0.182784 -0.350703,-0.259607 -0.57888,-0.267268 -0.0042,-6.8e-5 -0.0081,-6.8e-5 -0.01228,0 h -1.910751 l -0.566627,-1.91407 0.0045,0.01679 c -0.120659,-0.372424 -0.377835,-0.597403 -0.738447,-0.602741 z"/>
 <rect style="fill:#8b9cbe" width="3" height="3" x="7" y="8"/>
 <rect style="fill:#8b9cbe" width="3" height="3" x="7" y="14"/>
 <rect style="fill:#8b9cbe" width="3" height="3" x="7" y="20"/>
 <rect style="fill:#8b9cbe" width="3" height="3" x="7" y="26"/>
 <rect style="fill:#8b9cbe" width="3" height="3" x="22" y="2"/>
 <rect style="fill:#8b9cbe" width="3" height="3" x="22" y="8"/>
 <rect style="fill:#8b9cbe" width="3" height="3" x="22" y="14"/>
 <rect style="fill:#8b9cbe" width="3" height="3" x="22" y="20"/>
 <rect style="fill:#8b9cbe" width="3" height="3" x="22" y="26"/>
 <path style="fill:#8b9cbe;opacity:0.2" d="M 16 12 C 15.639388 12.0053 15.382412 12.231089 15.261719 12.603516 L 15.265625 12.585938 L 14.699219 14.5 L 12.789062 14.5 C 12.784862 14.499931 12.781524 14.499931 12.777344 14.5 C 12.549167 14.5076 12.342224 14.584791 12.197266 14.767578 C 11.942002 15.071056 11.951366 15.507524 12.173828 15.8125 C 12.184149 15.798526 12.185959 15.78102 12.197266 15.767578 C 12.342224 15.584791 12.549167 15.5076 12.777344 15.5 C 12.781524 15.499931 12.784862 15.499931 12.789062 15.5 L 14.699219 15.5 L 15.265625 13.585938 L 15.261719 13.603516 C 15.382412 13.231089 15.639388 13.0053 16 13 C 16.360612 13.005338 16.617622 13.231092 16.738281 13.603516 L 16.734375 13.585938 L 17.300781 15.5 L 19.210938 15.5 C 19.215118 15.499932 19.218456 15.499932 19.222656 15.5 C 19.450833 15.507661 19.657776 15.584794 19.802734 15.767578 C 19.814041 15.78102 19.815851 15.798526 19.826172 15.8125 C 20.048634 15.507524 20.057999 15.071056 19.802734 14.767578 C 19.657776 14.584794 19.450833 14.507661 19.222656 14.5 C 19.218456 14.499932 19.215118 14.499932 19.210938 14.5 L 17.300781 14.5 L 16.734375 12.585938 L 16.738281 12.603516 C 16.617622 12.231092 16.360612 12.005338 16 12 z M 13.591797 17.945312 L 13.267578 18.951172 C 13.266911 18.953272 13.266325 18.955031 13.265625 18.957031 C 13.194952 19.197481 13.236552 19.442473 13.367188 19.640625 L 13.851562 18.140625 L 13.591797 17.945312 z M 18.408203 17.945312 L 18.148438 18.140625 L 18.632812 19.640625 C 18.763474 19.442473 18.805046 19.197481 18.734375 18.957031 C 18.733746 18.954931 18.733122 18.953172 18.732422 18.951172 L 18.408203 17.945312 z"/>
 <path style="fill:#8b9cbe;opacity:0.1" d="M 8.1425781 1 C 6.9554353 1 6 1.9708311 6 3.1757812 L 6 4.1757812 C 6 2.9708311 6.9554353 2 8.1425781 2 L 23.857422 2 C 25.044565 2 26 2.9708311 26 4.1757812 L 26 3.1757812 C 26 1.9708311 25.044565 1 23.857422 1 L 8.1425781 1 z"/>
 <path style="opacity:0.2" d="M 7 5 L 7 6 L 10 6 L 10 5 L 7 5 z M 22 5 L 22 6 L 25 6 L 25 5 L 22 5 z M 7 11 L 7 12 L 10 12 L 10 11 L 7 11 z M 22 11 L 22 12 L 25 12 L 25 11 L 22 11 z M 7 17 L 7 18 L 10 18 L 10 17 L 7 17 z M 22 17 L 22 18 L 25 18 L 25 17 L 22 17 z M 7 23 L 7 24 L 10 24 L 10 23 L 7 23 z M 22 23 L 22 24 L 25 24 L 25 23 L 22 23 z M 7 29 L 7 30 L 10 30 L 10 29 L 7 29 z M 22 29 L 22 30 L 25 30 L 25 29 L 22 29 z"/>
</svg>
