<svg xmlns="http://www.w3.org/2000/svg" width="32" height="32" version="1">
 <path style="opacity:0.2" d="m 15.999565,2.0000292 c -0.785749,0 -1.572023,0.2928722 -2.159391,0.8802248 L 1.8802124,14.84155 c -1.17473397,1.174704 -1.17306697,3.140583 0.0017,4.315288 L 13.841875,31.118134 c 1.174734,1.174705 3.142365,1.176371 4.317099,0.0017 L 30.118951,19.158553 c 1.174733,-1.174705 1.174734,-3.142267 0,-4.316971 L 18.158957,2.880254 C 17.57159,2.2929015 16.785315,2.0000292 15.999565,2.0000292 Z"/>
 <path style="fill:#31afe1" d="m 15.999565,1.0000147 c -0.785749,0 -1.572023,0.2928722 -2.159391,0.8802248 L 1.8802124,13.841535 c -1.17473397,1.174704 -1.17306697,3.140583 0.0017,4.315288 L 13.841875,30.118119 c 1.174734,1.174705 3.142365,1.176371 4.317099,0.0017 L 30.118951,18.158538 c 1.174733,-1.174705 1.174734,-3.142267 0,-4.316971 L 18.158957,1.8802395 C 17.57159,1.292887 16.785315,1.0000147 15.999565,1.0000147 Z"/>
 <path style="fill:#8b9cbe;opacity:0.2" d="M 16 1 C 15.214251 1 14.427212 1.2935068 13.839844 1.8808594 L 1.8808594 13.841797 C 1.1677671 14.554871 0.89374824 15.557797 1.046875 16.5 C 1.1451361 15.88944 1.4188022 15.303842 1.8808594 14.841797 L 13.839844 2.8808594 C 14.427212 2.2935068 15.214251 2 16 2 C 16.78575 2 17.570836 2.2935069 18.158203 2.8808594 L 30.119141 14.841797 C 30.581198 15.303842 30.854549 15.889124 30.953125 16.5 C 31.105169 15.557786 30.831817 14.554455 30.119141 13.841797 L 18.158203 1.8808594 C 17.570836 1.2935069 16.78575 1 16 1 z"/>
 <path style="opacity:0.2" d="M 9,7.7203121 6,10.722265 6,23.273047 9,26.275 9,26.259375 16.03125,19.226171 23.041016,26.235937 25.164062,24.11289 18.154297,17.105078 25.269531,9.9917965 23.148438,7.8707028 9,22.017187 9,7.7203121 Z"/>
 <path style="fill:#8b9cbe" d="M 9 6.7207031 L 6 9.7226562 L 6 22.273438 L 9 25.275391 L 9 25.259766 L 16.03125 18.226562 L 23.041016 25.236328 L 25.164062 23.113281 L 18.154297 16.105469 L 25.269531 8.9921875 L 23.148438 6.8710938 L 9 21.017578 L 9 6.7207031 z"/>
</svg>
