<svg xmlns="http://www.w3.org/2000/svg" width="32" height="32" version="1">
 <rect style="opacity:0.2" width="28" height="25" x="2" y="4" rx="2.1" ry="2.083"/>
 <rect style="fill:#4f4f4f" width="28" height="25" x="2" y="3" rx="2.1" ry="2.083"/>
 <rect style="opacity:0.2" width="8" height="3" x="13" y="15" rx=".667" ry=".75"/>
 <rect style="fill:#8b9cbe" width="8" height="3" x="13" y="14" rx=".667" ry=".75"/>
 <rect style="opacity:0.2" width="8.382" height="2.794" x="-8.61" y="15.1" rx=".698" ry=".698" transform="matrix(0.72400602,-0.68979366,0.72400602,0.68979366,0,0)"/>
 <rect style="fill:#a2a2a2" width="8.382" height="2.794" x="-7.88" y="14.38" rx=".698" ry=".698" transform="matrix(0.72400602,-0.68979366,0.72400602,0.68979366,0,0)"/>
 <rect style="opacity:0.2" width="8.382" height="2.794" x="9.52" y="-3.02" rx=".698" ry=".698" transform="matrix(0.72400602,0.68979366,0.72400602,-0.68979366,0,0)"/>
 <rect style="fill:#8b9cbe" width="8.382" height="2.794" x="8.79" y="-2.29" rx=".698" ry=".698" transform="matrix(0.72400602,0.68979366,0.72400602,-0.68979366,0,0)"/>
 <path style="fill:#8b9cbe;opacity:0.1" d="M 4.0996094 3 C 2.9362094 3 2 3.9298178 2 5.0839844 L 2 6.0839844 C 2 4.9298178 2.9362094 4 4.0996094 4 L 27.900391 4 C 29.063791 4 30 4.9298178 30 6.0839844 L 30 5.0839844 C 30 3.9298178 29.063791 3 27.900391 3 L 4.0996094 3 z"/>
</svg>
