<svg xmlns="http://www.w3.org/2000/svg" width="32" height="32" version="1">
 <path style="opacity:0.2" d="M 2,7.9 V 27.611111 C 2,28.381111 2.623875,29 3.4,29 H 28.6007 C 29.3763,29 30,28.38125 30,27.611111 V 7.9 Z"/>
 <path style="fill:#db4c4c" d="M 2,6.9 V 26.611111 C 2,27.381111 2.623875,28 3.4,28 H 28.6007 C 29.3763,28 30,27.38125 30,26.611111 V 6.9 Z"/>
 <path style="opacity:0.2;fill:#8b9cbe" d="M 16,6.9 V 28 H 28.601367 C 29.376967,28 30,27.38125 30,26.611111 V 6.9 Z"/>
 <path style="fill:#d2bebe" d="m 3.4,3.0000001 c -0.77616,0 -1.4,0.6190972 -1.4,1.3885416 V 7 H 30 V 4.3885417 C 30,3.6190973 29.3763,3.0000001 28.6,3.0000001 Z"/>
 <path style="opacity:0.1" d="m 12.572411,12.000184 c 0.132437,0.0031 0.259428,0.05187 0.358258,0.137637 l 8.537564,6.735175 c 0.354379,0.307059 0.177654,0.876712 -0.292262,0.942077 l -3.310512,0.46369 1.55155,2.665883 c 0.346727,0.595843 0.141279,1.353067 -0.45927,1.697076 l -0.332667,0.191089 c -0.600547,0.344011 -1.363749,0.140172 -1.710476,-0.455672 L 15.303785,21.608364 12.94279,23.50722 c -0.363475,0.293338 -0.914044,0.04235 -0.914498,-0.416921 L 12.000002,12.54405 c -8.97e-4,-0.30569 0.258072,-0.55173 0.572406,-0.543866 z"/>
 <path style="fill:#583030" d="m 12.572411,11.000184 c 0.132437,0.0031 0.259428,0.05187 0.358258,0.137637 l 8.537564,6.735175 c 0.354379,0.307059 0.177654,0.876712 -0.292262,0.942077 l -3.310512,0.46369 1.55155,2.665883 c 0.346727,0.595843 0.141279,1.353067 -0.45927,1.697076 l -0.332667,0.191089 c -0.600547,0.344011 -1.363749,0.140172 -1.710476,-0.455672 L 15.303785,20.608364 12.94279,22.50722 c -0.363475,0.293338 -0.914044,0.04235 -0.914498,-0.416921 L 12.000002,11.54405 c -8.97e-4,-0.30569 0.258072,-0.55173 0.572406,-0.543866 z"/>
 <rect style="opacity:0.2" width="28" height="1" x="2" y="7"/>
 <path style="fill:#8b9cbe;opacity:0.2" d="M 3.4003906 3 C 2.6242306 3 2 3.6192275 2 4.3886719 L 2 5.3886719 C 2 4.6192275 2.6242306 4 3.4003906 4 L 28.599609 4 C 29.375909 4 30 4.6192275 30 5.3886719 L 30 4.3886719 C 30 3.6192275 29.375909 3 28.599609 3 L 3.4003906 3 z"/>
</svg>
