<svg xmlns="http://www.w3.org/2000/svg" width="32" height="32" version="1">
 <rect style="opacity:0.2" width="28" height="28" x="2" y="3" rx="8.4" ry="8.4"/>
 <rect style="fill:#7843b1" width="28" height="28" x="2" y="2" rx="8.4" ry="8.4"/>
 <path style="opacity:0.2" d="m 8.4492188,7.0507812 -0.8691407,2.6308598 -2.6308593,0.86914 2.6308593,0.869141 0.8691407,2.630859 0.8691406,-2.630859 2.6308596,-0.869141 -2.6308596,-0.86914 z m 6.1015622,0.3691407 -0.521484,1.578125 -1.580078,0.5214841 1.580078,0.521485 0.521484,1.578125 0.521485,-1.578125 1.578125,-0.521485 -1.578125,-0.5214841 z m 5,2.0800781 -0.261719,0.789062 -0.789062,0.261719 0.789062,0.259766 0.261719,0.789062 0.259766,-0.789062 0.789062,-0.259766 -0.789062,-0.261719 z m 1.546875,2.900391 c 0.780797,0.94611 1.253907,2.154066 1.253906,3.476562 0,3.022739 -2.451743,5.474609 -5.474609,5.474609 -1.322496,0 -2.530428,-0.473109 -3.476562,-1.253906 C 14.062206,22.918671 16.592494,25 19.615234,25 23.141848,25 26,22.141847 26,18.615234 26,15.592367 23.91867,13.062142 21.097656,12.400391 Z"/>
 <path style="fill:#8b9cbe" d="m 21.096861,11.399961 c 0.780797,0.94611 1.254305,2.155357 1.254305,3.477853 0,3.022739 -2.450448,5.473313 -5.473314,5.473313 -1.322496,0 -2.531718,-0.473495 -3.477852,-1.254292 C 14.061815,21.91785 16.591706,24 19.614446,24 23.14106,24 26,21.141059 26,17.614446 26,14.591579 23.91785,12.061751 21.096836,11.4 Z"/>
 <path style="fill:#8b9cbe" d="M 8.45,13.05 7.5807337,10.419266 4.95,9.55 7.5807337,8.6807337 8.45,6.0499993 9.3192663,8.6807337 11.95,9.55 9.3192663,10.419266 Z"/>
 <path style="fill:#8b9cbe" d="M 14.55,10.62 14.02844,9.041559 12.45,8.52 14.02844,7.9984405 14.55,6.4199993 15.071559,7.9984405 16.65,8.52 15.071559,9.041559 Z"/>
 <path style="fill:#8b9cbe" d="M 19.55,10.6 19.289221,9.810779 18.5,9.55 19.289221,9.289221 19.55,8.4999993 19.810779,9.289221 20.6,9.55 19.810779,9.810779 Z"/>
 <path style="fill:#8b9cbe;opacity:0.1" d="M 10.400391 2 C 5.7467908 2 2 5.7467908 2 10.400391 L 2 11.400391 C 2 6.7467908 5.7467908 3 10.400391 3 L 21.599609 3 C 26.253209 3 30 6.7467908 30 11.400391 L 30 10.400391 C 30 5.7467908 26.253209 2 21.599609 2 L 10.400391 2 z"/>
</svg>
