<svg xmlns="http://www.w3.org/2000/svg" width="32" height="32" version="1">
 <rect fill="#b2bfd9" width="28" height="28" x="2" y="2" rx="1.5" ry="1.5"/>
 <path fill="#fff" opacity=".1" d="m3.5 2c-0.831 0-1.5 0.669-1.5 1.5v1c0-0.831 0.669-1.5 1.5-1.5h25c0.831 0 1.5 0.669 1.5 1.5v-1c0-0.831-0.669-1.5-1.5-1.5h-25z"/>
 <path opacity=".2" d="m2 28.5v1c0 0.831 0.669 1.5 1.5 1.5h25c0.831 0 1.5-0.669 1.5-1.5v-1c0 0.831-0.669 1.5-1.5 1.5h-25c-0.831 0-1.5-0.669-1.5-1.5z"/>
 <path fill="#4d4d4d" d="m13.659 5.1809c-0.1641 0.14474-0.20512 0.36184-0.20512 0.61513 0 0.4704 0.16409 1.0493 0.24614 1.2664 0 0 0.12308 2.5329 0.1641 2.8224-0.36922 0.03618-1.0256 0.07237-1.2717 0.14473h-0.32819c-0.69741 0.03619-1.3538 0.07237-1.641 0.32566l-0.12307 0.10855 0.12307 0.14474c0.20512 0.2171 0.28717 0.83224 0.36922 1.4836 0.20512 1.3388 0.45125 3.0033 1.682 3.6546l0.24614 0.10855v-0.25329s0.0411-0.10855 0.0411-0.25329c0-0.10855-0.0411-0.28948-0.082-0.54276 0.32819 0.03618 1.0256 0.10855 1.2717 0.10855 0.04099 0.28947 1.1076 12.086 1.1076 12.086h0.41024s0.45127-11.651 0.45127-12.013c0.28716 0 1.5589 0.03618 1.9281 0.07237-0.082 0.21711-0.41023 1.1217-0.41023 1.1217l0.57433-0.4704c0.1641-0.10855 3.7332-2.9671 3.2409-4.8487-0.1641-0.61513-0.73843-1.0493-1.682-1.2664h-0.0822c-0.53331 0-2.1743 0.03618-3.405 0.10855 0.0411-0.94079 0.0411-1.4474 0.0411-1.7007v-0.32565c0-0.18092 0.20512-0.43421 0.36922-0.61513 0.1641-0.2171 0.36922-0.39803 0.36922-0.61513 0-0.07237-0.0411-0.14474-0.082-0.2171-0.244-0.3254-2.049-1.1576-2.829-1.23-0.246 0.0362-0.41 0.0724-0.492 0.1809zm0.0411 5.9342h0.20512c0 0.32566 0.12307 2.6053 0.16409 2.9309-0.32819-0.03619-1.1076-0.10855-1.3538-0.10855-0.12307-0.4704-0.1641-0.97698-0.20512-1.4836-0.041-0.43421-0.082-0.86842-0.1641-1.2664 0.36922 0 1.3538-0.07237 1.3538-0.07237zm2.5025 1.1217s0.041-0.86842 0.041-1.1579c0.5333 0.07237 1.2307 0.10855 1.8871 0.10855h0.73843c0 0.14474-0.0411 0.32566-0.0411 0.32566-0.082 0.79605-0.20512 1.7368-0.57434 2.6776-0.24613 0-1.764-0.07237-2.0922-0.10855 0-0.25329 0.0411-1.8454 0.0411-1.8454z"/>
</svg>
