<svg xmlns="http://www.w3.org/2000/svg" width="32" height="32" version="1">
 <rect style="opacity:0.2" width="28" height="28" x="2" y="3" rx="1.4" ry="1.4"/>
 <rect style="fill:#8e8e8e" width="28" height="28" x="2" y="2" rx="1.4" ry="1.4"/>
 <path style="fill:none;stroke:#17191e;stroke-width:2" d="M 6,20 H 16 V 12 H 26"/>
 <path style="opacity:0.2" d="m 16,11 a 2,2 0 0 0 -2,2 2,2 0 0 0 2,2 2,2 0 0 0 2,-2 2,2 0 0 0 -2,-2 z m 10,0 a 2,2 0 0 0 -2,2 2,2 0 0 0 2,2 2,2 0 0 0 2,-2 2,2 0 0 0 -2,-2 z M 6,19 a 2,2 0 0 0 -2,2 2,2 0 0 0 2,2 2,2 0 0 0 2,-2 2,2 0 0 0 -2,-2 z m 10,0 a 2,2 0 0 0 -2,2 2,2 0 0 0 2,2 2,2 0 0 0 2,-2 2,2 0 0 0 -2,-2 z"/>
 <path style="fill:#8b9cbe" d="M 16 10 A 2 2 0 0 0 14 12 A 2 2 0 0 0 16 14 A 2 2 0 0 0 18 12 A 2 2 0 0 0 16 10 z M 26 10 A 2 2 0 0 0 24 12 A 2 2 0 0 0 26 14 A 2 2 0 0 0 28 12 A 2 2 0 0 0 26 10 z M 6 18 A 2 2 0 0 0 4 20 A 2 2 0 0 0 6 22 A 2 2 0 0 0 8 20 A 2 2 0 0 0 6 18 z M 16 18 A 2 2 0 0 0 14 20 A 2 2 0 0 0 16 22 A 2 2 0 0 0 18 20 A 2 2 0 0 0 16 18 z"/>
 <path style="fill:#8b9cbe;opacity:0.1" d="M 3.4003906 2 C 2.6247906 2 2 2.6247906 2 3.4003906 L 2 4.4003906 C 2 3.6247906 2.6247906 3 3.4003906 3 L 28.599609 3 C 29.375209 3 30 3.6247906 30 4.4003906 L 30 3.4003906 C 30 2.6247906 29.375209 2 28.599609 2 L 3.4003906 2 z"/>
</svg>
