<svg xmlns="http://www.w3.org/2000/svg" width="32" height="32" version="1">
 <path style="opacity:0.2" d="m 3.4,5.0000002 c -0.7756,0 -1.4,0.6194444 -1.4,1.3888888 l 0,16.666667 0,5.555555 C 2,29.380556 2.6244,30 3.4,30 l 25.2,0 C 29.3756,30 30,29.380556 30,28.611111 L 30,23.055556 30,6.388889 C 30,5.6194446 29.3756,5.0000002 28.6,5.0000002 l -25.2,0 z"/>
 <path style="fill:#4f4f4f" d="m 3.4,4.0000002 c -0.7756,0 -1.4,0.6194444 -1.4,1.3888888 l 0,16.666667 0,5.555555 C 2,28.380556 2.6244,29 3.4,29 l 25.2,0 C 29.3756,29 30,28.380556 30,27.611111 L 30,22.055556 30,5.388889 C 30,4.6194446 29.3756,4.0000002 28.6,4.0000002 l -25.2,0 z"/>
 <rect style="opacity:0.2;stroke:#000000;stroke-width:0;stroke-linejoin:round" width="28" height="2" x="2" y="20"/>
 <rect style="opacity:0.2;stroke:#000000;stroke-width:0;stroke-linejoin:round" width="28" height="2" x="2" y="7"/>
 <rect style="opacity:0.2;stroke:#000000;stroke-width:0;stroke-linejoin:round" width="28" height="2" x="2" y="15"/>
 <rect style="opacity:0.2;stroke:#000000;stroke-width:0;stroke-linejoin:round" width="28" height="2" x="2" y="11"/>
 <path style="fill:#47da72" d="m 6.9,9 c 4.9,0 3.265855,11.950167 8.4,12 3.19271,0.03099 5.805883,-4 9.1,-4 3.294118,0 5.6,1.583333 5.6,1.583333 v 3.472223 5.555555 C 30,28.380556 29.3756,29 28.6,29 H 3.4 C 2.6244,29 2,28.380556 2,27.611111 V 14.416667 C 2,14.416667 3.035915,9 6.9,9 Z"/>
 <path style="fill:#8b9cbe;opacity:0.1" d="M 3.4003906 4 C 2.6247906 4 2 4.6192275 2 5.3886719 L 2 6.3886719 C 2 5.6192275 2.6247906 5 3.4003906 5 L 28.599609 5 C 29.375209 5 30 5.6192275 30 6.3886719 L 30 5.3886719 C 30 4.6192275 29.375209 4 28.599609 4 L 3.4003906 4 z"/>
 <path style="opacity:0.2;fill:#8b9cbe" d="m 6.900391,9 c 4.9,0 3.266245,11.950167 8.40039,12 3.19271,0.03099 5.805493,-4 9.09961,-4 C 27.694508,17 30,18.583984 30,18.583984 v 1 C 30,19.583984 27.694508,18 24.400391,18 c -3.294117,0 -5.9069,4.03099 -9.09961,4 C 10.166636,21.95017 11.800391,10 6.900391,10 3.036306,10 2,15.416016 2,15.416016 v -1 C 2,14.416016 3.036306,9 6.900391,9 Z"/>
</svg>
