<svg xmlns="http://www.w3.org/2000/svg" width="32" height="32" version="1.1">
 <rect style="opacity:0.2" width="4.689" height="6.698" x="21.7" y="-14.01" rx="1.34" ry="1.34" transform="rotate(45)"/>
 <path style="opacity:0.2" d="m 11.108393,3.0001 a 1.0929449,1 0 1 0 0,1.9998002 h 10.783213 a 1.0929449,1 0 1 0 0,-1.9998002 z"/>
 <path style="opacity:0.2" d="M 16.5,30 C 23.403021,30 29,24.403022 29,17.5 29,10.596978 23.403021,5.0000001 16.5,5.0000001 9.5969777,5.0000001 4,10.596978 4,17.5 4,24.403022 9.5969777,30 16.5,30 Z m 0,0"/>
 <rect style="fill:#434449" width="4.689" height="6.698" x="20.99" y="-14.71" rx="1.34" ry="1.34" transform="rotate(45)"/>
 <path style="fill:#8b9cbe;opacity:0.1" d="M 25.244141 4.9921875 C 24.901718 4.9921875 24.559257 5.1223834 24.296875 5.3847656 L 21.455078 8.2265625 C 21.062595 8.6190459 20.963592 9.1910529 21.158203 9.6738281 C 21.223794 9.5111154 21.322797 9.3588436 21.455078 9.2265625 L 24.296875 6.3847656 C 24.82164 5.8600011 25.666642 5.8600011 26.191406 6.3847656 L 27.613281 7.8066406 C 27.745562 7.9389217 27.844565 8.0911935 27.910156 8.2539062 C 28.104768 7.771131 28.005765 7.1991241 27.613281 6.8066406 L 26.191406 5.3847656 C 25.929024 5.1223834 25.586564 4.9921875 25.244141 4.9921875 z"/>
 <path style="fill:#66686e" d="M 16.5,29 C 23.403021,29 29,23.403022 29,16.5 29,9.5969779 23.403021,4.0000001 16.5,4.0000001 9.5969777,4.0000001 4,9.5969779 4,16.5 4,23.403022 9.5969777,29 16.5,29 Z m 0,0"/>
 <path style="opacity:0.2" d="M 16.498764,28 C 22.297069,28 27,23.299541 27,17.501236 27,11.702932 22.297069,6.9999997 16.498764,6.9999997 10.700459,6.9999997 6,11.702932 6,17.501236 6,23.299541 10.700459,28 16.498764,28 Z m 0,0"/>
 <path style="fill:#eef8ff" d="M 16.498764,27 C 22.297069,27 27,22.299541 27,16.501236 27,10.702932 22.297069,5.9999997 16.498764,5.9999997 10.700459,5.9999997 6,10.702932 6,16.501236 6,22.299541 10.700459,27 16.498764,27 Z m 0,0"/>
 <rect style="opacity:0.1" width="11" height="1" x="16" y="17"/>
 <path style="fill:#5ddf49;fill-opacity:0.95294118" d="M 16.5,5.9999997 V 16.5 H 27 C 26.999253,10.70279 22.29721,6.0007467 16.5,5.9999997 Z"/>
 <rect style="fill:#17191e" width="11" height="1" x="16" y="16"/>
 <path style="opacity:0.1" d="m 16.5,19 c 0.828,0 1.5,-0.668999 1.5,-1.497 0,-0.828001 -0.672,-1.5 -1.5,-1.5 -0.828,0 -1.5,0.671999 -1.5,1.5 0,0.828001 0.672,1.497 1.5,1.497 z m 0,0"/>
 <path style="fill:#66686e" d="m 16.5,18 c 0.828,0 1.5,-0.668999 1.5,-1.497 0,-0.828001 -0.672,-1.5 -1.5,-1.5 -0.828,0 -1.5,0.671999 -1.5,1.5 0,0.828001 0.672,1.497 1.5,1.497 z m 0,0"/>
 <path style="fill:#999ca1" d="M 16.500001,17 C 16.776001,17 17,16.776001 17,16.5 17,16.224 16.776001,16 16.500001,16 16.224001,16 16,16.224 16,16.5 c 0,0.276001 0.224001,0.5 0.500001,0.5 z m 0,0"/>
 <path style="fill:#434449" d="m 11.108393,2.0001 a 1.0929449,1 0 1 0 0,1.9998002 h 10.783213 a 1.0929449,1 0 1 0 0,-1.9998002 z"/>
 <path style="fill:#8b9cbe;opacity:0.1" d="M 16.5 4 C 9.5969777 4 4 9.5969779 4 16.5 C 4 16.668884 4.0187533 16.832742 4.0253906 17 C 4.2900477 10.330709 9.7658617 5 16.5 5 C 23.234137 5 28.709952 10.330709 28.974609 17 C 28.981247 16.832742 29 16.668884 29 16.5 C 29 9.5969779 23.403021 4 16.5 4 z"/>
 <path style="fill:#8b9cbe;opacity:0.2" d="M 16.498047 6 C 10.699742 6 6 10.703649 6 16.501953 C 6 16.670936 6.0174952 16.834924 6.0253906 17.001953 C 6.2879543 11.437166 10.868419 7 16.498047 7 C 22.127675 7 26.71191 11.437166 26.974609 17.001953 C 26.982509 16.834924 27 16.670936 27 16.501953 C 27 10.703649 22.296352 6 16.498047 6 z"/>
 <path style="fill:#8b9cbe;opacity:0.1" d="M 11.107422 2 A 1.0929449 1 0 0 0 10.148438 3.5 A 1.0929449 1 0 0 1 11.107422 3 L 21.892578 3 A 1.0929449 1 0 0 1 22.851562 3.5 A 1.0929449 1 0 0 0 21.892578 2 L 11.107422 2 z"/>
</svg>
