<svg xmlns="http://www.w3.org/2000/svg" width="32" height="32" version="1">
 <path style="opacity:0.2" d="m 16,2.9991167 c -2.216,0 -4,1.784 -4,4 l 0,4.6699223 -1.771484,-1.7714848 c -1.1990956,-1.1990949 -3.1309836,-1.1990949 -4.3300785,0 -1.1990949,1.1990948 -1.1990949,3.1309838 0,4.3300788 l 5.7714845,5.771484 -5.7714845,5.771484 c -1.1990949,1.199095 -1.1990949,3.130984 0,4.330078 1.1990949,1.199095 3.1309833,1.199095 4.3300785,0 l 3.695312,-3.695312 c 0.606075,0.369007 1.311827,0.59375 2.076172,0.59375 0.764345,0 1.470097,-0.224743 2.076172,-0.59375 l 3.695312,3.695312 c 1.199095,1.199095 3.130984,1.199095 4.330078,0 1.199095,-1.199094 1.199095,-3.130983 0,-4.330078 l -5.771484,-5.771484 5.771484,-5.771484 c 1.199095,-1.199095 1.199095,-3.130984 0,-4.3300788 -1.199094,-1.1990949 -3.130983,-1.1990949 -4.330078,0 L 20,11.669039 20,6.9991167 c 0,-2.216 -1.784,-4 -4,-4 z"/>
 <path style="fill:#478f30" d="M 16 2 C 13.784 2 12 3.784 12 6 L 12 10.669922 L 10.228516 8.8984375 C 9.0294204 7.6993426 7.0975324 7.6993426 5.8984375 8.8984375 C 4.6993426 10.097532 4.6993426 12.029421 5.8984375 13.228516 L 11.669922 19 L 5.8984375 24.771484 C 4.6993426 25.970579 4.6993426 27.902468 5.8984375 29.101562 C 7.0975324 30.300657 9.0294208 30.300657 10.228516 29.101562 L 13.923828 25.40625 C 14.529903 25.775257 15.235655 26 16 26 C 16.764345 26 17.470097 25.775257 18.076172 25.40625 L 21.771484 29.101562 C 22.970579 30.300657 24.902468 30.300657 26.101562 29.101562 C 27.300657 27.902468 27.300657 25.970579 26.101562 24.771484 L 20.330078 19 L 26.101562 13.228516 C 27.300657 12.029421 27.300657 10.097532 26.101562 8.8984375 C 24.902468 7.6993426 22.970579 7.6993426 21.771484 8.8984375 L 20 10.669922 L 20 6 C 20 3.784 18.216 2 16 2 z"/>
 <path style="opacity:0.1;fill:#8b9cbe" d="M 16 2 C 13.784 2 12 3.784 12 6 L 12 7 C 12 4.784 13.784 3 16 3 C 18.216 3 20 4.784 20 7 L 20 6 C 20 3.784 18.216 2 16 2 z M 8.0625 8 C 7.2797542 8 6.497985 8.2988901 5.8984375 8.8984375 C 5.1709817 9.6258931 4.8916784 10.622879 5.046875 11.5625 C 5.147738 10.953897 5.4272225 10.369652 5.8984375 9.8984375 C 7.0975324 8.6993426 9.02942 8.6993426 10.228516 9.8984375 L 12 11.669922 L 12 10.669922 L 10.228516 8.8984375 C 9.6289678 8.2988901 8.8452458 8 8.0625 8 z M 23.935547 8 C 23.152801 8 22.371032 8.2988901 21.771484 8.8984375 L 20 10.669922 L 20 11.669922 L 21.771484 9.8984375 C 22.970579 8.6993426 24.902469 8.6993426 26.101562 9.8984375 C 26.572778 10.369652 26.852262 10.953897 26.953125 11.5625 C 27.108322 10.622879 26.829018 9.6258931 26.101562 8.8984375 C 25.502015 8.2988901 24.718293 8 23.935547 8 z M 11.169922 19.5 L 5.8984375 24.771484 C 5.1709817 25.49894 4.8916784 26.495926 5.046875 27.435547 C 5.147738 26.826944 5.4272225 26.242699 5.8984375 25.771484 L 11.669922 20 L 11.169922 19.5 z M 20.830078 19.5 L 20.330078 20 L 26.101562 25.771484 C 26.572778 26.242699 26.852262 26.826944 26.953125 27.435547 C 27.108322 26.495926 26.829018 25.49894 26.101562 24.771484 L 20.830078 19.5 z"/>
 <rect style="opacity:0.2" width="21" height="18" x="-30" y="-25" rx="10.5" ry="9" transform="matrix(0,-1,-1,0,0,0)"/>
 <rect style="fill:#b08e57" width="21" height="18" x="-29" y="-25" rx="10.5" ry="9" transform="matrix(0,-1,-1,0,0,0)"/>
</svg>
