<svg xmlns="http://www.w3.org/2000/svg" width="32" height="32" version="1.1">
 <path style="opacity:0.2" d="M 26.747507,2.8023475 25.279239,2.1720357 C 24.827042,1.9776004 24.300808,2.1526364 24.057289,2.5773165 L 23.594915,3.3748314 C 22.969536,3.2770855 22.334343,3.2670625 21.704181,3.3402822 L 21.252411,2.5079923 C 21.020134,2.0776325 20.496599,1.8885911 20.040166,2.0667689 l -1.485921,0.5899252 c -0.455236,0.1818474 -0.706767,0.6735323 -0.578739,1.1474778 l 0.24484,0.9109142 C 17.698065,5.1028485 17.232848,5.5581426 16.838377,6.0727998 L 15.91124,5.7957381 C 15.439032,5.655779 14.938292,5.8876964 14.743136,6.3381369 L 14.112581,7.8080136 C 13.91735,8.2584757 14.093061,8.7826024 14.5194,9.0252092 l 0.893707,0.513144 c -0.07409,0.5955168 -0.07346,1.1967668 0.0022,1.7914268 l -0.905288,0.487261 c -0.432062,0.231361 -0.62185,0.752833 -0.44298,1.207431 l 0.592259,1.480068 c 0.182577,0.453439 0.676195,0.703983 1.152016,0.57646 l 1.052955,-0.281642 c 0.340093,0.438171 0.731589,0.832604 1.166019,1.181704 l -0.315998,1.052001 c -0.140534,0.470273 0.09231,0.969079 0.544507,1.163514 l 1.468268,0.630311 c 0.45227,0.194414 0.978432,0.01941 1.222025,-0.405301 l 0.547382,-0.944269 c 0.571882,0.08161 1.151707,0.09624 1.72504,0.03614 l 0.528819,0.978548 c 0.232278,0.43036 0.755812,0.619401 1.21217,0.441246 L 26.4484,18.343323 c 0.455235,-0.181848 0.706779,-0.673495 0.57874,-1.147477 l -0.27709,-1.030369 c 0.497055,-0.364 0.943007,-0.789261 1.329058,-1.265009 l 1.011223,0.300108 c 0.472134,0.139981 0.972874,-0.09194 1.168106,-0.542398 l 0.632804,-1.462483 c 0.195156,-0.450441 0.01944,-0.974567 -0.406894,-1.217175 l -0.897416,-0.512023 c 0.08894,-0.599999 0.102071,-1.209402 0.03265,-1.8100626 L 30.490004,9.187773 C 30.922066,8.956411 31.111853,8.4349392 30.932983,7.9803417 L 30.340749,6.500271 C 30.158158,6.0468336 29.664539,5.7962888 29.188719,5.9238125 L 28.248212,6.1754982 C 27.890946,5.6940816 27.475929,5.2624311 27.009083,4.8867116 l 0.276649,-0.9149955 c 0.148016,-0.4724525 -0.08595,-0.974953 -0.538224,-1.169367 z"/>
 <path style="opacity:0.2" d="m 3.8830503,24.364982 c 0.1507697,0.517016 0.3600009,1.015568 0.6246162,1.483345 l -0.7538468,0.950942 c -0.2461542,0.310825 -0.2184617,0.753983 0.058463,1.034033 l 1.2984633,1.298697 c 0.2800004,0.280051 0.7230781,0.30464 1.0338481,0.05844 l 0.9446168,-0.747824 c 0.4861547,0.280081 1.0030785,0.498551 1.5415407,0.652425 l 0.1415392,1.215605 C 8.8184458,30.704562 9.1507525,31 9.5445992,31 h 1.8369258 c 0.393845,0 0.726154,-0.295469 0.772309,-0.689356 l 0.135384,-1.17252 c 0.578462,-0.150796 1.13231,-0.375452 1.65231,-0.667813 l 0.913848,0.723207 c 0.310769,0.246199 0.753847,0.218501 1.033847,-0.05847 l 1.298465,-1.298697 c 0.28,-0.280051 0.304614,-0.723208 0.05847,-1.034034 l -0.710774,-0.901704 c 0.295385,-0.510893 0.526155,-1.055576 0.680001,-1.624911 l 1.095383,-0.126177 C 18.704646,24.103359 19,23.770995 19,23.377076 v -1.837254 c 0,-0.393918 -0.295385,-0.726287 -0.689232,-0.772448 l -1.080005,-0.126173 c -0.147724,-0.56318 -0.369232,-1.101739 -0.652278,-1.606444 l 0.664616,-0.840153 c 0.246152,-0.310823 0.21846,-0.75398 -0.05846,-1.03403 l -1.295387,-1.295623 c -0.280004,-0.28005 -0.723081,-0.30467 -1.033849,-0.05847 l -0.815388,0.64627 c -0.529229,-0.31083 -1.095415,-0.547795 -1.689231,-0.707823 L 12.227708,14.689354 C 12.181552,14.295437 11.849246,13.999999 11.4554,13.999999 H 9.6184734 c -0.3938467,0 -0.7261549,0.295438 -0.7723084,0.689355 L 8.7230885,15.744931 C 8.1138568,15.908038 7.5323179,16.154235 6.9907781,16.477372 L 6.1446228,15.806477 c -0.3107692,-0.246198 -0.7538468,-0.2185 -1.033847,0.05848 l -1.2984634,1.298697 c -0.280001,0.280051 -0.3046163,0.723207 -0.058464,1.034034 l 0.7076939,0.895546 C 4.1784647,19.604095 3.9630793,20.148809 3.821541,20.715065 L 2.6892316,20.84432 c -0.3938467,0.04617 -0.6892317,0.378529 -0.6892317,0.772447 v 1.837256 c 0,0.393917 0.295385,0.726284 0.6892317,0.772447 l 1.193817,0.138517 z"/>
 <path style="fill:#a6a6a6" d="m 3.8830503,23.364987 c 0.1507697,0.517016 0.3600009,1.015568 0.6246162,1.483345 l -0.7538468,0.950942 c -0.2461542,0.310825 -0.2184617,0.753983 0.058463,1.034033 l 1.2984633,1.298697 c 0.2800004,0.280051 0.7230781,0.30464 1.0338481,0.05844 L 7.0892109,27.44262 c 0.4861547,0.280081 1.0030785,0.498551 1.5415407,0.652425 l 0.1415392,1.215605 c 0.046155,0.393917 0.3784617,0.689355 0.7723084,0.689355 h 1.8369258 c 0.393845,0 0.726154,-0.295469 0.772309,-0.689356 l 0.135384,-1.17252 c 0.578462,-0.150796 1.13231,-0.375452 1.65231,-0.667813 l 0.913848,0.723207 c 0.310769,0.246199 0.753847,0.218501 1.033847,-0.05847 l 1.298465,-1.298697 c 0.28,-0.280051 0.304614,-0.723208 0.05847,-1.034034 l -0.710774,-0.901704 c 0.295385,-0.510893 0.526155,-1.055576 0.680001,-1.624911 L 18.310768,23.14953 C 18.704646,23.103364 19,22.771 19,22.377081 v -1.837254 c 0,-0.393918 -0.295385,-0.726287 -0.689232,-0.772448 l -1.080005,-0.126173 c -0.147724,-0.56318 -0.369232,-1.101739 -0.652278,-1.606444 l 0.664616,-0.840153 c 0.246152,-0.310823 0.21846,-0.75398 -0.05846,-1.03403 l -1.295387,-1.295623 c -0.280004,-0.28005 -0.723081,-0.30467 -1.033849,-0.05847 l -0.815388,0.64627 c -0.529229,-0.31083 -1.095415,-0.547795 -1.689231,-0.707823 L 12.227708,13.689359 C 12.181552,13.295442 11.849246,13.000004 11.4554,13.000004 H 9.6184734 c -0.3938467,0 -0.7261549,0.295438 -0.7723084,0.689355 L 8.7230885,14.744936 C 8.1138568,14.908043 7.5323179,15.15424 6.9907781,15.477377 L 6.1446228,14.806482 c -0.3107692,-0.246198 -0.7538468,-0.2185 -1.033847,0.05848 l -1.2984634,1.298697 c -0.280001,0.280051 -0.3046163,0.723207 -0.058464,1.034034 l 0.7076939,0.895546 C 4.1784647,18.6041 3.9630793,19.148814 3.821541,19.71507 l -1.1323094,0.129255 c -0.3938467,0.04617 -0.6892317,0.378529 -0.6892317,0.772447 v 1.837256 c 0,0.393917 0.295385,0.726284 0.6892317,0.772447 l 1.193817,0.138517 z"/>
 <circle style="opacity:0.2" cx="10.5" cy="22.5" r="2.5"/>
 <circle style="fill:#8b9cbe" cx="10.5" cy="21.5" r="2.5"/>
 <path style="fill:#ffd52b" d="M 26.747507,1.8023525 25.279239,1.1720407 C 24.827042,0.97760543 24.300808,1.1526414 24.057289,1.5773215 L 23.594915,2.3748364 C 22.969536,2.2770905 22.334343,2.2670675 21.704181,2.3402872 L 21.252411,1.5079973 C 21.020134,1.0776375 20.496599,0.88859611 20.040166,1.0667739 l -1.485921,0.5899252 c -0.455236,0.1818474 -0.706767,0.6735323 -0.578739,1.1474778 l 0.24484,0.9109142 C 17.698065,4.1028535 17.232848,4.5581476 16.838377,5.0728048 L 15.91124,4.7957431 C 15.439032,4.655784 14.938292,4.8877014 14.743136,5.3381419 L 14.112581,6.8080186 C 13.91735,7.2584807 14.093061,7.7826074 14.5194,8.0252142 l 0.893707,0.513144 c -0.07409,0.5955166 -0.07346,1.1967663 0.0022,1.7914268 l -0.905288,0.487261 c -0.432062,0.231361 -0.62185,0.752833 -0.44298,1.207431 l 0.592259,1.480068 c 0.182577,0.453439 0.676195,0.703983 1.152016,0.57646 l 1.052955,-0.281642 c 0.340093,0.438171 0.731589,0.832604 1.166019,1.181704 l -0.315998,1.052001 c -0.140534,0.470273 0.09231,0.969079 0.544507,1.163514 l 1.468268,0.630311 c 0.45227,0.194414 0.978432,0.01941 1.222025,-0.405301 l 0.547382,-0.944269 c 0.571882,0.08161 1.151707,0.09624 1.72504,0.03614 l 0.528819,0.978548 c 0.232278,0.43036 0.755812,0.619401 1.21217,0.441246 L 26.4484,17.343328 c 0.455235,-0.181848 0.706779,-0.673495 0.57874,-1.147477 l -0.27709,-1.030369 c 0.497055,-0.364 0.943007,-0.789261 1.329058,-1.265009 l 1.011223,0.300108 c 0.472134,0.139981 0.972874,-0.09194 1.168106,-0.542398 L 30.891241,12.1957 c 0.195156,-0.450441 0.01944,-0.974567 -0.406894,-1.217175 L 29.586931,10.466502 C 29.675871,9.8665027 29.689002,9.2571 29.619582,8.6564394 L 30.490004,8.187778 C 30.922066,7.956416 31.111853,7.4349442 30.932983,6.9803467 L 30.340749,5.500276 C 30.158158,5.0468386 29.664539,4.7962938 29.188719,4.9238175 L 28.248212,5.1755032 C 27.890946,4.6940866 27.475929,4.2624361 27.009083,3.8867166 l 0.276649,-0.9149955 c 0.148016,-0.4724525 -0.08595,-0.974953 -0.538224,-1.169367 z"/>
 <circle style="opacity:0.2" cx="22.5" cy="10.5" r="2.5"/>
 <circle style="fill:#8b9cbe" cx="22.5" cy="9.5" r="2.5"/>
 <path style="fill:#8b9cbe;opacity:0.2" d="M 9.6191406 13 C 9.2252939 13 8.8918566 13.295536 8.8457031 13.689453 L 8.7226562 14.744141 C 8.1134246 14.907248 7.5317742 15.153426 6.9902344 15.476562 L 6.1445312 14.806641 C 5.833762 14.560443 5.3913283 14.588254 5.1113281 14.865234 L 3.8125 16.164062 C 3.532499 16.444114 3.5077539 16.886439 3.7539062 17.197266 L 3.7734375 17.220703 C 3.7884 17.202783 3.7956941 17.180871 3.8125 17.164062 L 5.1113281 15.865234 C 5.3913283 15.588254 5.833762 15.560443 6.1445312 15.806641 L 6.9902344 16.476562 C 7.5317742 16.153426 8.1134246 15.907248 8.7226562 15.744141 L 8.8457031 14.689453 C 8.8918566 14.295536 9.2252939 14 9.6191406 14 L 11.455078 14 C 11.848924 14 12.18236 14.295536 12.228516 14.689453 L 12.351562 15.744141 C 12.945379 15.904169 13.509833 16.142295 14.039062 16.453125 L 14.855469 15.806641 C 15.166237 15.560441 15.608668 15.585184 15.888672 15.865234 L 17.185547 17.160156 C 17.202231 17.177029 17.20974 17.198804 17.224609 17.216797 L 17.242188 17.195312 C 17.488339 16.88449 17.462467 16.440206 17.185547 16.160156 L 15.888672 14.865234 C 15.608668 14.585184 15.166237 14.560441 14.855469 14.806641 L 14.039062 15.453125 C 13.509833 15.142295 12.945379 14.904169 12.351562 14.744141 L 12.228516 13.689453 C 12.18236 13.295536 11.848924 13 11.455078 13 L 9.6191406 13 z M 16.876953 18.65625 L 16.578125 19.035156 C 16.861171 19.539861 17.082745 20.077445 17.230469 20.640625 L 18.310547 20.767578 C 18.704394 20.813739 19 21.145145 19 21.539062 L 19 20.539062 C 19 20.145145 18.704394 19.813739 18.310547 19.767578 L 17.230469 19.640625 C 17.141434 19.301189 17.016913 18.975777 16.876953 18.65625 z M 4.1660156 18.71875 C 4.0279709 19.042387 3.9077686 19.37277 3.8222656 19.714844 L 2.6894531 19.84375 C 2.2956064 19.88992 2 20.22327 2 20.617188 L 2 21.617188 C 2 21.22327 2.2956064 20.88992 2.6894531 20.84375 L 3.8222656 20.714844 C 3.9638039 20.148588 4.1778599 19.604611 4.4609375 19.09375 L 4.1660156 18.71875 z M 4.2050781 25.230469 L 3.7539062 25.798828 C 3.5229315 26.090486 3.5425205 26.494788 3.7734375 26.775391 L 4.5078125 25.847656 C 4.3948766 25.648012 4.2975981 25.440367 4.2050781 25.230469 z M 16.839844 25.287109 C 16.745458 25.494827 16.649687 25.7023 16.535156 25.900391 L 17.226562 26.779297 C 17.460888 26.498651 17.477464 26.094904 17.246094 25.802734 L 16.839844 25.287109 z"/>
 <path style="fill:#8b9cbe;opacity:0.2" d="M 20.388672 1 C 20.271775 1.0006092 20.155124 1.0218618 20.041016 1.0664062 L 18.554688 1.65625 C 18.099452 1.8380974 17.846581 2.330742 17.974609 2.8046875 L 18.056641 3.1074219 C 18.16135 2.9092814 18.332618 2.7449574 18.554688 2.65625 L 20.041016 2.0664062 C 20.497449 1.8882284 21.019676 2.0774527 21.251953 2.5078125 L 21.705078 3.3398438 C 22.33524 3.2666241 22.970324 3.2772541 23.595703 3.375 L 24.056641 2.578125 C 24.30016 2.1534449 24.8271 1.9774397 25.279297 2.171875 L 26.748047 2.8027344 C 26.954016 2.891272 27.107074 3.0480292 27.207031 3.2324219 L 27.285156 2.9726562 C 27.433172 2.5002037 27.200321 1.9971484 26.748047 1.8027344 L 25.279297 1.171875 C 24.8271 0.97743973 24.30016 1.1534449 24.056641 1.578125 L 23.595703 2.375 C 22.970324 2.2772541 22.33524 2.2666241 21.705078 2.3398438 L 21.251953 1.5078125 C 21.077745 1.1850426 20.739362 0.99817225 20.388672 1 z M 18 3.9023438 C 17.570195 4.2493368 17.173633 4.63423 16.837891 5.0722656 L 15.912109 4.7949219 C 15.439901 4.6549628 14.937344 4.8874501 14.742188 5.3378906 L 14.113281 6.8085938 C 13.988232 7.0971237 14.028077 7.408425 14.175781 7.6640625 L 14.742188 6.3378906 C 14.937344 5.8874501 15.439901 5.6549628 15.912109 5.7949219 L 16.837891 6.0722656 C 17.232362 5.5576084 17.698422 5.1026062 18.220703 4.7148438 L 18 3.9023438 z M 27.246094 4.1035156 L 27.009766 4.8867188 C 27.476612 5.2624383 27.890781 5.6943646 28.248047 6.1757812 L 29.189453 5.9238281 C 29.665273 5.7963044 30.157253 6.0465626 30.339844 6.5 L 30.863281 7.8027344 C 31.001698 7.5559945 31.043277 7.2592275 30.933594 6.9804688 L 30.339844 5.5 C 30.157253 5.0465626 29.665273 4.7963044 29.189453 4.9238281 L 28.248047 5.1757812 C 27.954736 4.7805438 27.613979 4.4282548 27.246094 4.1035156 z M 15.363281 9.5097656 C 15.364922 9.6485038 15.378968 9.7872993 15.388672 9.9257812 C 15.397702 9.7966256 15.398045 9.6678067 15.414062 9.5390625 L 15.363281 9.5097656 z M 29.65625 9.6367188 L 29.619141 9.65625 C 29.62954 9.7462322 29.626095 9.8374208 29.632812 9.9277344 C 29.639754 9.8305598 29.653365 9.7340246 29.65625 9.6367188 z M 15.361328 10.359375 L 14.509766 10.816406 C 14.077704 11.047767 13.887536 11.570793 14.066406 12.025391 L 14.136719 12.203125 C 14.224031 12.047197 14.342405 11.906024 14.509766 11.816406 L 15.416016 11.330078 C 15.375049 11.008095 15.35835 10.683266 15.361328 10.359375 z M 29.660156 10.507812 C 29.656623 10.828488 29.635043 11.148704 29.587891 11.466797 L 30.484375 11.978516 C 30.63776 12.065801 30.74522 12.196221 30.828125 12.339844 L 30.890625 12.195312 C 31.085781 11.744872 30.910709 11.221124 30.484375 10.978516 L 29.660156 10.507812 z M 17.794922 15.767578 L 17.714844 16.033203 C 17.638973 16.287092 17.677376 16.545535 17.794922 16.763672 L 18.03125 15.980469 C 17.948265 15.913784 17.874714 15.83756 17.794922 15.767578 z M 26.970703 15.982422 C 26.895831 16.042019 26.827382 16.109348 26.75 16.166016 L 26.945312 16.892578 C 27.05567 16.684337 27.093028 16.438465 27.027344 16.195312 L 26.970703 15.982422 z"/>
</svg>
