<svg xmlns="http://www.w3.org/2000/svg" width="32" height="32" version="1">
 <rect style="opacity:0.2" width="28" height="25" x="2" y="4" rx="1.4" ry="1.389"/>
 <rect style="fill:#3b555e" width="28" height="25" x="2" y="3" rx="1.4" ry="1.389"/>
 <path style="opacity:0.2" d="m 17.046875,8.9999257 c -1.148925,0.00834 -2.044422,0.5392277 -2.792969,1.2421873 -0.748547,0.70296 -1.398821,1.57857 -2.1875,2.427735 C 10.489048,14.368177 8.4259267,15.999926 4,15.999926 v 1 c 4.6810723,0 7.134214,-1.854058 8.800781,-3.648438 0.833284,-0.897189 1.486691,-1.768584 2.138672,-2.380859 0.651981,-0.612275 1.253556,-0.964462 2.113281,-0.9707033 0.858552,-0.00623 1.450394,0.3375773 2.091797,0.9453123 0.641403,0.607736 1.282694,1.479751 2.103516,2.38086 1.641643,1.802217 4.071514,3.673828 8.751953,3.673828 v -1 c -4.42306,0 -6.458564,-1.642582 -8.011719,-3.347656 -0.776577,-0.852537 -1.415329,-1.731564 -2.15625,-2.433594 C 19.09111,9.5166457 18.196973,8.9915756 17.046875,8.9999257 Z"/>
 <path style="opacity:0.2" d="m 4,15.999926 v 1 c 4.3710874,0 6.424397,2.314146 8.013672,4.759766 0.794637,1.22281 1.443264,2.472753 2.18164,3.46289 0.738377,0.990137 1.640487,1.767504 2.851563,1.777344 1.212324,0.0088 2.113739,-0.765156 2.84375,-1.753906 0.730011,-0.988751 1.365857,-2.240238 2.148437,-3.466797 C 23.604223,19.326105 25.631864,16.999926 30,16.999926 v -1 c -4.735363,0 -7.17505,2.688013 -8.804688,5.242188 -0.814818,1.277087 -1.457061,2.526641 -2.109374,3.410156 -0.651773,0.882782 -1.235937,1.352646 -2.03125,1.347656 -0.797574,-0.0065 -1.394489,-0.487077 -2.056641,-1.375 C 14.335895,23.737003 13.68084,22.48788 12.853516,21.21477 11.198866,18.668549 8.7359116,15.999926 4,15.999926 Z"/>
 <path style="fill:none;stroke:#7e7e7e" d="m 4,15.5 c 9.106999,0 9.032699,9.967361 13.049999,10 4.017299,0.02917 3.846496,-10 12.949995,-10"/>
 <path style="fill:none;stroke:#1588e4" d="m 4,15.5 c 9.106999,0 9.032699,-6.9708334 13.049999,-7 4.017299,-0.029167 3.846496,7 12.949995,7"/>
 <path style="opacity:0.2" d="M 17.046875,5.9999257 C 15.835799,6.0097657 14.933689,6.7871325 14.195312,7.7772695 13.456936,8.7674064 12.808309,10.01735 12.013672,11.24016 10.424397,13.68578 8.3710874,15.999926 4,15.999926 v 1 c 4.7359116,0 7.198866,-2.668623 8.853516,-5.214844 0.827324,-1.27311 1.482379,-2.5222334 2.144531,-3.4101563 0.661612,-0.8871994 1.25809,-1.367753 2.054687,-1.375 0.796326,-0.00578 1.38089,0.4641413 2.033204,1.3476562 0.652313,0.883515 1.294556,2.1330691 2.109374,3.4101561 1.629638,2.554175 4.069325,5.242188 8.804688,5.242188 v -1 c -4.368136,0 -6.395777,-2.32618 -7.960938,-4.779297 C 21.256482,9.9940703 20.620636,8.7425826 19.890625,7.7538319 19.160614,6.7650813 18.259199,5.9911238 17.046875,5.9999257 Z"/>
 <path style="fill:none;stroke:#e95656" d="m 4,15.5 c 9.106999,0 9.032699,-9.9673612 13.049999,-10 4.017299,-0.029167 3.846496,10 12.949995,10"/>
 <path style="opacity:0.2" d="m 4,6 v 10 1 10 H 5 V 17 h 2 v 1 h 1 v -1 h 8 v 1 h 1 v -1 h 10 v 1 h 1 v -1 h 2 v -1 h -2 v -1 h -1 v 1 H 17 v -1 h -1 v 1 H 8 V 15 H 7 v 1 H 5 V 6 Z"/>
 <rect style="fill:#8b9cbe" width="1" height="21" x="4" y="5"/>
 <rect style="fill:#8b9cbe" width="26" height="1" x="4" y="15"/>
 <rect style="fill:#8b9cbe" width="1" height="3" x="7" y="14"/>
 <rect style="fill:#8b9cbe" width="1" height="3" x="16" y="14"/>
 <rect style="fill:#8b9cbe" width="1" height="3" x="27" y="14"/>
 <path style="fill:#8b9cbe;opacity:0.1" d="M 3.4003906 3 C 2.6247907 3 2 3.6192275 2 4.3886719 L 2 5.3886719 C 2 4.6192275 2.6247907 4 3.4003906 4 L 28.599609 4 C 29.375209 4 30 4.6192275 30 5.3886719 L 30 4.3886719 C 30 3.6192275 29.375209 3 28.599609 3 L 3.4003906 3 z"/>
</svg>
