<svg xmlns="http://www.w3.org/2000/svg" width="32" height="32" version="1">
 <rect style="opacity:0.2" width="28" height="28" x="2" y="3" rx="14" ry="14"/>
 <rect style="fill:#3f51b5" width="28" height="28" x="2" y="2" rx="14" ry="14"/>
 <path style="opacity:0.1;fill-rule:evenodd" d="M 24.486328,8.0039774 C 24.327959,7.9875532 24.07959,8.0244113 23.621094,8.1406962 22.708437,8.3721665 22.515,8.4431785 22.525391,8.6426493 22.531219,8.7545116 22.590036,8.855351 22.75,9.0352274 l -0.667969,0.6679688 -0.18164,-0.1816406 c -0.100107,-0.1000791 -0.261222,-0.1000791 -0.361329,0 l -0.261718,0.2617187 -0.423828,0.4238277 -6.324219,6.324219 c -0.109156,-0.03972 -0.222794,-0.04222 -0.335938,-0.02148 l -0.427734,-0.427735 c -0.110344,-0.110344 -0.287897,-0.108587 -0.398437,0.002 l -6.2832036,6.283204 c -0.1105403,0.11054 -0.1122975,0.288093 -0.00195,0.398437 l 0.3378907,0.337891 -1.2285157,1.228515 c -0.2551828,0.255113 -0.2551828,0.666762 0,0.921875 l 1.5566407,1.554688 c 0.2551828,0.255113 0.664739,0.255113 0.9199219,0 l 1.2285156,-1.228516 0.3378906,0.337891 c 0.110344,0.110344 0.287897,0.108587 0.398437,-0.002 l 6.283204,-6.283204 c 0.11054,-0.11054 0.112297,-0.288093 0.002,-0.398437 l -0.423828,-0.423828 c 0.02093,-0.113346 0.01833,-0.228517 -0.02148,-0.337891 l 6.341797,-6.339844 0.425781,-0.423828 -0.002,-0.002 0.244141,-0.242187 c 0.100106,-0.100079 0.100106,-0.261249 0,-0.361328 l -0.181641,-0.181641 0.669922,-0.667969 c 0.174868,0.154314 0.272692,0.210942 0.390625,0.22461 0.191966,0.02225 0.237827,-0.20574 0.482422,-1.1152346 0.241596,-0.8982813 0.181552,-0.9610842 -0.0293,-1.171875 -0.100699,-0.1006727 -0.169756,-0.1710757 -0.328125,-0.1875 z"/>
 <rect style="fill:#b6b6b6" width="1.687" height="1.725" x="9.09" y="21.77" transform="matrix(0.70720361,-0.70700994,0.70720361,0.70700994,0,0)"/>
 <rect style="fill:#d5d5d5" width="12.263" height="2.75" x="-2.81" y="21.25" rx=".256" ry=".256" transform="matrix(0.70720361,-0.70700994,0.70720361,0.70700994,0,0)"/>
 <rect style="fill:#b6b6b6" width="12.129" height="3.503" x="-12.78" y="20.88" rx=".651" ry=".651" transform="matrix(0.70720361,-0.70700994,0.70720361,0.70700994,0,0)"/>
 <rect style="fill:#17191e" width="9.451" height="5.021" x="-10.38" y="20.12" rx=".282" ry=".282" transform="rotate(-44.999999)"/>
 <path style="fill:#d5d5d5;fill-rule:evenodd" d="m 24.813634,7.1915174 c 0.210849,0.2107908 0.271616,0.2740011 0.03002,1.1722824 C 24.599059,9.2732946 24.554013,9.5015823 24.362047,9.479336 24.156885,9.4555589 24.153793,9.4583885 23.349966,8.6547841 22.539449,7.8444904 22.535245,7.8360069 22.525188,7.6429798 22.514797,7.443509 22.708305,7.3729057 23.620962,7.1414354 c 0.916993,-0.2325699 0.991273,-0.1512605 1.192671,0.050085 z"/>
 <path style="fill:#17191e" d="m 21.277325,8.782456 -0.424003,0.424002 1.961888,1.92675 0.424588,-0.424002 z"/>
 <path style="fill:#8b9cbe;opacity:0.1" d="M 16 2 C 8.244 2 2 8.244 2 16 C 2 16.168842 2.0195214 16.33264 2.0253906 16.5 C 2.2891326 8.9794325 8.4128418 3 16 3 C 23.500fae9 3 29.710867 8.9794325 29.974609 16.5 C 29.980479 16.33264 30 16.168842 30 16 C 30 8.244 23.756 2 16 2 z"/>
 <circle style="opacity:0.2" cx="23.5" cy="24.5" r="7.5"/>
 <circle style="fill:#ec407a" cx="23.5" cy="23.5" r="7.5"/>
 <path style="fill:#8b9cbe" d="M 23.529297,19.037109 C 21.027599,19.037109 19,21.064706 19,23.566406 c 0,2.501698 2.027599,4.529297 4.529297,4.529297 0.977969,0 1.88271,-0.312854 2.623047,-0.839844 l 2.068359,2.06836 a 7.5,7.5 0 0 0 1.070313,-1.064453 L 27.21875,26.1875 c 0.52699,-0.740339 0.839844,-1.643125 0.839844,-2.621094 0,-2.5017 -2.0276,-4.529297 -4.529297,-4.529297 z m 0,1.509766 c 1.667774,0 3.019531,1.351757 3.019531,3.019531 0,1.667772 -1.351757,3.019532 -3.019531,3.019532 -1.667775,0 -3.019531,-1.35176 -3.019531,-3.019532 0,-1.667774 1.351756,-3.019531 3.019531,-3.019531 z"/>
</svg>
