<svg xmlns="http://www.w3.org/2000/svg" width="32" height="32" version="1">
 <rect fill="#c2352a" width="28" height="28" x="-30" y="-29.9" rx="14" ry="14" transform="matrix(0,-1,-1,0,0,0)"/>
 <path fill="#fff" opacity=".1" d="m16 2c-7.756 0-14 6.244-14 14 0 0.169 0.0195 0.333 0.0254 0.5 0.2637-7.5206 6.3874-13.5 13.975-13.5 7.5872 0 13.711 5.9794 13.975 13.5 0.006-0.16736 0.0254-0.33116 0.0254-0.5 0-7.756-6.244-14-14-14z"/>
 <path opacity=".2" d="m2.0254 16.5c-0.0059 0.167-0.0254 0.331-0.0254 0.5 0 7.756 6.244 14 14 14s14-6.244 14-14c0-0.16884-0.01952-0.33264-0.02539-0.5-0.264 7.521-6.388 13.5-13.975 13.5-7.5872 0-13.711-5.979-13.975-13.5z"/>
 <path style="opacity:0.2" d="m 12.053706,21.952703 c -0.320122,-0.044 -0.88957,-0.232 -1.269408,-0.4177 -2.4747925,-1.2044 -3.4868725,-4.2378 -2.2679445,-6.7929 1.392532,-2.9215 5.1921395,-3.6662 7.4785525,-1.4657 0.661176,0.6353 0.954826,1.1774 1.950284,3.5812 1.039166,2.5138 1.23124,2.909 1.567984,3.2441 0.360753,0.3565 0.695035,0.4765 1.334664,0.4765 1.050863,0 1.801304,-0.6597 1.801304,-1.5802 0,-0.7791 -0.269642,-1.0286 -1.644937,-1.5245 -2.094339,-0.7673 -2.772752,-1.4607 -2.775215,-2.8533 0,-0.7429 0.185302,-1.2382 0.656251,-1.7515 0.675951,-0.7329 1.841935,-0.9749 2.873714,-0.611 0.440169,0.1589 1.361136,0.9868 1.361136,1.2238 0,0.115 -0.533742,0.4665 -0.829856,0.5496 -0.156367,0.041 -0.291188,-0.012 -0.471564,-0.1882 -0.365679,-0.3564 -0.613158,-0.4665 -1.050864,-0.4665 -0.755366,0 -1.223852,0.4615 -1.223852,1.2069 0,0.7429 0.29796,0.9942 1.786529,1.5045 2.051246,0.7035 2.657016,1.3388 2.669328,2.8089 0.01231,1.2701 -0.55098,2.1862 -1.671408,2.7283 -0.509733,0.2445 -0.682723,0.2758 -1.515041,0.2758 -1.188146,0 -1.721889,-0.2245 -2.38799,-0.9868 -0.447555,-0.5127 -0.901883,-1.4751 -2.356593,-4.9882 -0.603307,-1.4557 -1.377757,-2.1692 -2.669328,-2.45 -0.654404,-0.1419 -1.565522,-0.01 -2.159595,0.3077 -0.579299,0.3077 -1.226315,1.0018 -1.5316635,1.6365 -0.252404,0.5152 -0.276413,0.6597 -0.276413,1.5558 0,0.8548 0.03386,1.0574 0.245017,1.5264 0.320122,0.716 0.9499015,1.3775 1.6424745,1.734 0.500499,0.2564 0.656251,0.2883 1.45471,0.2883 0.767062,0 0.964061,-0.037 1.421466,-0.2589 0.522046,-0.2589 1.223853,-0.8942 1.510116,-1.3701 l 0.14898,-0.247 0.293651,0.6816 c 0.163755,0.3764 0.295498,0.7304 0.295498,0.7941 0,0.1883 -0.663639,0.8036 -1.271871,1.1869 -0.92343,0.5791 -1.984143,0.796 -3.116884,0.6397 m -0.0025,0"/>
 <path style="fill:#8b9cbe" d="m 12.053706,20.952695 c -0.320122,-0.044 -0.88957,-0.232 -1.269408,-0.4177 -2.4747925,-1.2044 -3.4868725,-4.2378 -2.2679445,-6.7929 1.392532,-2.9215 5.1921395,-3.6662 7.4785525,-1.4657 0.661176,0.6353 0.954826,1.1774 1.950284,3.5812 1.039166,2.5138 1.23124,2.909 1.567984,3.2441 0.360753,0.3565 0.695035,0.4765 1.334664,0.4765 1.050863,0 1.801304,-0.6597 1.801304,-1.5802 0,-0.7791 -0.269642,-1.0286 -1.644937,-1.5245 -2.094339,-0.7673 -2.772752,-1.4607 -2.775215,-2.8533 0,-0.7429 0.185302,-1.2382 0.656251,-1.7515 0.675951,-0.7329 1.841935,-0.9749 2.873714,-0.611 0.440169,0.1589 1.361136,0.9868 1.361136,1.2238 0,0.115 -0.533742,0.4665 -0.829856,0.5496 -0.156367,0.041 -0.291188,-0.012 -0.471564,-0.1882 -0.365679,-0.3564 -0.613158,-0.4665 -1.050864,-0.4665 -0.755366,0 -1.223852,0.4615 -1.223852,1.2069 0,0.7429 0.29796,0.9942 1.786529,1.5045 2.051246,0.7035 2.657016,1.3388 2.669328,2.8089 0.01231,1.2701 -0.55098,2.1862 -1.671408,2.7283 -0.509733,0.2445 -0.682723,0.2758 -1.515041,0.2758 -1.188146,0 -1.721889,-0.2245 -2.38799,-0.9868 -0.447555,-0.5127 -0.901883,-1.4751 -2.356593,-4.9882 -0.603307,-1.4557 -1.377757,-2.1692 -2.669328,-2.45 -0.654404,-0.1419 -1.565522,-0.01 -2.159595,0.3077 -0.579299,0.3077 -1.226315,1.0018 -1.5316635,1.6365 -0.252404,0.5152 -0.276413,0.6597 -0.276413,1.5558 0,0.8548 0.03386,1.0574 0.245017,1.5264 0.320122,0.716 0.9499015,1.3775 1.6424745,1.734 0.500499,0.2564 0.656251,0.2883 1.45471,0.2883 0.767062,0 0.964061,-0.037 1.421466,-0.2589 0.522046,-0.2589 1.223853,-0.8942 1.510116,-1.3701 l 0.14898,-0.247 0.293651,0.6816 c 0.163755,0.3764 0.295498,0.7304 0.295498,0.7941 0,0.1883 -0.663639,0.8036 -1.271871,1.1869 -0.92343,0.5791 -1.984143,0.796 -3.116884,0.6397 m -0.0025,0"/>
</svg>
