<svg xmlns="http://www.w3.org/2000/svg" width="32" height="32" version="1.1">
 <g transform="translate(0,-1020.3622)">
  <circle style="opacity:0.2" cx="16" cy="1037.362" r="14"/>
  <circle style="fill:#d2a35c" cx="16" cy="1036.362" r="14"/>
  <path style="opacity:0.2" d="m 23.261719,1026.8642 c -0.839079,0 -1.644064,0.2206 -2.416016,0.664 -0.755172,0.4264 -1.469362,1.0488 -2.140625,1.8672 -0.654481,0.8015 -1.250098,1.79 -1.787109,2.9668 -0.537009,1.1594 -0.996835,2.4729 -1.382813,3.9395 -0.268504,1.0402 -0.538135,1.9185 -0.80664,2.6347 -0.268505,0.7163 -0.544792,1.3117 -0.830078,1.7891 -0.62092,-0.2387 -1.233753,-0.958 -1.837891,-1.1113 -0.587355,-0.1706 -1.191582,-0.2559 -1.8125,-0.2559 -0.4866657,0 -0.9312273,0.077 -1.3339845,0.2305 -0.3859775,0.1534 -0.720573,0.3407 -1.0058594,0.5625 -0.285288,0.2216 -0.5118726,0.459 -0.6796875,0.7148 C 7.0774812,1041.1237 7,1041.8885 7,1042.1102 c 0,0.3581 0.168275,0.656 0.5039062,0.8946 0.3356321,0.2388 0.8404557,0.3574 1.5117188,0.3574 1.778847,0 3.280803,-0.4682 4.505859,-1.4062 0.771953,0.3413 1.55972,0.6638 2.365235,0.9707 0.822298,0.2899 1.728636,0.4355 2.71875,0.4355 1.124365,0 2.022096,-0.2373 2.693359,-0.7148 0.671264,-0.4944 1.056227,-1.126 1.458984,-2.0469 0.01678,-0.1029 -0.0051,-0.1714 -0.07227,-0.2051 -0.05034,-0.051 -0.110607,-0.051 -0.177735,0 -0.285284,0.5798 -0.495318,0.9468 -0.93164,1.2539 -0.436322,0.3068 -1.074985,0.4609 -1.914063,0.4609 -1.006895,0 -1.928498,-0.1122 -2.767578,-0.3339 -0.822298,-0.2387 -1.612016,-0.5032 -2.367187,-0.793 1.040458,-1.2448 1.856004,-3.0099 2.443359,-5.2949 0.352414,-1.4325 0.695618,-2.6252 1.03125,-3.5801 0.335632,-0.9549 0.696055,-1.7125 1.082031,-2.2754 0.385976,-0.5798 0.806663,-0.9073 1.259766,-1.1289 0.469884,-0.2388 1.022457,-0.3555 1.660156,-0.3555 0.469885,0 0.854184,0.086 1.15625,0.2559 0.318851,0.1534 0.554043,0.3575 0.705078,0.6133 0.151039,0.2558 0.237131,0.4627 0.253907,0.7695 0.01679,0.307 -0.02627,0.9119 -0.126953,1.2188 -0.01679,0.086 0.0071,0.1458 0.07422,0.1796 0.08391,0.035 0.16139,0.027 0.228516,-0.025 0.167816,-0.2899 0.325528,-0.957 0.476562,-1.4003 C 24.92252,1029.4993 25,1029.0959 25,1028.7548 c 0,-0.5287 -0.161619,-0.9701 -0.480469,-1.3281 -0.318849,-0.3753 -0.737583,-0.5625 -1.257812,-0.5625 z M 9.140625,1040.204 c 0.7216081,0 1.401364,0.1004 2.039063,0.3047 0.6377,0.2047 1.267752,0.9714 1.888671,1.2441 -0.385976,0.3752 -0.82388,0.6292 -1.310547,0.7657 -0.469884,0.1191 -1.005238,0.1796 -1.609374,0.1796 -0.6880462,0 -1.2273048,-0.1102 -1.6132818,-0.332 -0.3691949,-0.2217 -0.5527342,-1.0279 -0.5527343,-1.3691 0,-0.5285 0.3862503,-0.793 1.1582031,-0.793 z M 11.5,1044.3622 a 1.4999999,1.4999999 0 0 0 -1.5,1.5 1.4999999,1.4999999 0 0 0 1.5,1.5 1.4999999,1.4999999 0 0 0 1.5,-1.5 1.4999999,1.4999999 0 0 0 -1.5,-1.5 z m 8,0 a 1.4999999,1.4999999 0 0 0 -1.5,1.5 1.4999999,1.4999999 0 0 0 1.5,1.5 1.4999999,1.4999999 0 0 0 1.5,-1.5 1.4999999,1.4999999 0 0 0 -1.5,-1.5 z m -4,2 a 1.5000004,1.5000004 0 0 0 -1.5,1.5 1.5000004,1.5000004 0 0 0 1.5,1.5 1.5000004,1.5000004 0 0 0 1.5,-1.5 1.5000004,1.5000004 0 0 0 -1.5,-1.5 z"/>
  <path style="fill:#8b9cbe" d="m 23.261719,1025.8642 c -0.839079,0 -1.644064,0.2206 -2.416016,0.664 -0.755172,0.4264 -1.469362,1.0488 -2.140625,1.8672 -0.654481,0.8015 -1.250098,1.79 -1.787109,2.9668 -0.537009,1.1594 -0.996835,2.4729 -1.382813,3.9395 -0.268504,1.0402 -0.538135,1.9185 -0.80664,2.6347 -0.268505,0.7163 -0.544792,1.3117 -0.830078,1.7891 -0.62092,-0.2387 -1.233753,-0.958 -1.837891,-1.1113 -0.587355,-0.1706 -1.191582,-0.2559 -1.8125,-0.2559 -0.4866657,0 -0.9312273,0.077 -1.3339845,0.2305 -0.3859775,0.1534 -0.720573,0.3407 -1.0058594,0.5625 -0.285288,0.2216 -0.5118726,0.459 -0.6796875,0.7148 C 7.0774812,1040.1237 7,1040.8885 7,1041.1102 c 0,0.3581 0.168275,0.656 0.5039062,0.8946 0.3356321,0.2388 0.8404557,0.3574 1.5117188,0.3574 1.778847,0 3.280803,-0.4682 4.505859,-1.4062 0.771953,0.3413 1.55972,0.6638 2.365235,0.9707 0.822298,0.2899 1.728636,0.4355 2.71875,0.4355 1.124365,0 2.022096,-0.2373 2.693359,-0.7148 0.671264,-0.4944 1.056227,-1.126 1.458984,-2.0469 0.01678,-0.1029 -0.0051,-0.1714 -0.07227,-0.2051 -0.05034,-0.051 -0.110607,-0.051 -0.177735,0 -0.285284,0.5798 -0.495318,0.9468 -0.93164,1.2539 -0.436322,0.3068 -1.074985,0.4609 -1.914063,0.4609 -1.006895,0 -1.928498,-0.1122 -2.767578,-0.3339 -0.822298,-0.2387 -1.612016,-0.5032 -2.367187,-0.793 1.040458,-1.2448 1.856004,-3.0099 2.443359,-5.2949 0.352414,-1.4325 0.695618,-2.6252 1.03125,-3.5801 0.335632,-0.9549 0.696055,-1.7125 1.082031,-2.2754 0.385976,-0.5798 0.806663,-0.9073 1.259766,-1.1289 0.469884,-0.2388 1.022457,-0.3555 1.660156,-0.3555 0.469885,0 0.854184,0.086 1.15625,0.2559 0.318851,0.1534 0.554043,0.3575 0.705078,0.6133 0.151039,0.2558 0.237131,0.4627 0.253907,0.7695 0.01679,0.307 -0.02627,0.9119 -0.126953,1.2188 -0.01679,0.086 0.0071,0.1458 0.07422,0.1796 0.08391,0.035 0.16139,0.027 0.228516,-0.025 0.167816,-0.2899 0.325528,-0.957 0.476562,-1.4003 C 24.92252,1028.4993 25,1028.0959 25,1027.7548 c 0,-0.5287 -0.161619,-0.9701 -0.480469,-1.3281 -0.318849,-0.3753 -0.737583,-0.5625 -1.257812,-0.5625 z M 9.140625,1039.204 c 0.7216081,0 1.401364,0.1004 2.039063,0.3047 0.6377,0.2047 1.267752,0.9714 1.888671,1.2441 -0.385976,0.3752 -0.82388,0.6292 -1.310547,0.7657 -0.469884,0.1191 -1.005238,0.1796 -1.609374,0.1796 -0.6880462,0 -1.2273048,-0.1102 -1.6132818,-0.332 -0.3691949,-0.2217 -0.5527342,-1.0279 -0.5527343,-1.3691 0,-0.5285 0.3862503,-0.793 1.1582031,-0.793 z M 11.5,1043.3622 a 1.4999999,1.4999999 0 0 0 -1.5,1.5 1.4999999,1.4999999 0 0 0 1.5,1.5 1.4999999,1.4999999 0 0 0 1.5,-1.5 1.4999999,1.4999999 0 0 0 -1.5,-1.5 z m 8,0 a 1.4999999,1.4999999 0 0 0 -1.5,1.5 1.4999999,1.4999999 0 0 0 1.5,1.5 1.4999999,1.4999999 0 0 0 1.5,-1.5 1.4999999,1.4999999 0 0 0 -1.5,-1.5 z m -4,2 a 1.5000004,1.5000004 0 0 0 -1.5,1.5 1.5000004,1.5000004 0 0 0 1.5,1.5 1.5000004,1.5000004 0 0 0 1.5,-1.5 1.5000004,1.5000004 0 0 0 -1.5,-1.5 z"/>
  <path style="opacity:0.2;fill:#8b9cbe" transform="translate(0,1020.3622)" d="M 16 2 A 14 14 0 0 0 2 16 A 14 14 0 0 0 2.0214844 16.585938 A 14 14 0 0 1 16 3 A 14 14 0 0 1 29.978516 16.414062 A 14 14 0 0 0 30 16 A 14 14 0 0 0 16 2 z"/>
 </g>
</svg>
