<svg xmlns="http://www.w3.org/2000/svg" width="32" height="32" version="1.1">
 <path style="opacity:0.2" d="M 15.5,5.9999998 C 8.5964406,5.9999998 3,11.596441 3,18.5 c 0,4.415689 2.2896169,8.29661 5.7464058,10.520317 1.9476102,1.252873 4.3735412,0.470249 6.8614112,0.470249 2.808897,0 5.293586,0.582951 7.380781,-0.981096 C 26.031199,26.229485 28,22.594662 28,18.5 28,11.596441 22.403559,5.9999998 15.5,5.9999998 Z"/>
 <path style="fill:#82652d" d="M 15.5,4.9999998 A 12.5,12.5 0 0 0 3,17.5 12.5,12.5 0 0 0 15.5,30 12.5,12.5 0 0 0 28,17.5 12.5,12.5 0 0 0 15.5,4.9999998 Z"/>
 <path style="opacity:0.2" d="M 15.5,9 A 9.5,9.5 0 0 0 6,18.5 9.5,9.5 0 0 0 15.5,28 9.5,9.5 0 0 0 25,18.5 9.5,9.5 0 0 0 15.5,9 Z"/>
 <path style="fill:#00a7a1" d="M 15.5,8 A 9.5,9.5 0 0 0 6,17.5 9.5,9.5 0 0 0 15.5,27 9.5,9.5 0 0 0 25,17.5 9.5,9.5 0 0 0 15.5,8 Z"/>
 <path style="opacity:0.1;fill:#8b9cbe" d="M 15.5 8 A 9.5 9.5 0 0 0 6 17.5 A 9.5 9.5 0 0 0 6.0195312 17.914062 A 9.5 9.5 0 0 1 15.5 9 A 9.5 9.5 0 0 1 24.980469 18.085938 A 9.5 9.5 0 0 0 25 17.5 A 9.5 9.5 0 0 0 15.5 8 z"/>
 <path style="opacity:0.2" d="M 7.8188597,3 C 6.2016812,3.0006373 5.3919433,4.9667622 6.5350632,6.1171875 L 8,8.016984 v 16.287364 1.678669 L 6.5350632,27.882813 C 5.3919445,29.033239 6.2016819,30.999362 7.8188597,31 h 7.2630183 8.867746 c 0.571723,-1.23e-4 1.110005,-0.271016 1.452838,-0.731148 l 2.231913,-3.469238 C 28.530873,25.595756 27.677069,24.000545 26.181535,24 H 17.000309 V 4.826087 C 17.000209,3.8176091 16.234462,3.0001013 15.231691,3 Z"/>
 <path style="opacity:0.1;fill:#8b9cbe" d="M 15.5 5 A 12.5 12.5 0 0 0 3 17.5 A 12.5 12.5 0 0 0 3.0214844 17.914062 A 12.5 12.5 0 0 1 15.5 6 A 12.5 12.5 0 0 1 27.978516 18.085938 A 12.5 12.5 0 0 0 28 17.5 A 12.5 12.5 0 0 0 15.5 5 z"/>
 <path style="fill:#f0b530" d="M 7.8188597,2 C 6.2016812,2.0006373 5.3919433,3.9667622 6.5350632,5.1171875 L 8,7.016984 v 16.287364 1.678669 L 6.5350632,26.882813 C 5.3919445,28.033239 6.2016819,29.999362 7.8188597,30 h 7.2630183 8.867746 c 0.571723,-1.23e-4 1.110005,-0.271016 1.452838,-0.731148 l 2.231913,-3.469238 C 28.530873,24.595756 27.677069,23.000545 26.181535,23 H 17.000309 V 3.826087 C 17.000209,2.8176091 16.234462,2.0001013 15.231691,2 Z"/>
 <path style="opacity:0.2;fill:#8b9cbe" d="M 7.8183594 2 C 6.5308653 2.0005074 5.7738234 3.2433779 6.0878906 4.3320312 C 6.2964382 3.6025447 6.9264528 3.0003515 7.8183594 3 L 15.232422 3 C 16.235193 3.0001013 16.9999 3.817694 17 4.8261719 L 17 3.8261719 C 16.9999 2.817694 16.235193 2.0001013 15.232422 2 L 7.8183594 2 z M 17 23 L 17 24 L 26.181641 24 C 27.055023 24.000318 27.695291 24.549708 27.910156 25.242188 C 28.250617 24.155811 27.454567 23.000464 26.181641 23 L 17 23 z M 8 24.982422 L 6.5351562 26.882812 C 6.0224906 27.398755 5.918306 28.074772 6.0878906 28.667969 C 6.1683127 28.389201 6.3021155 28.117343 6.5351562 27.882812 L 8 25.982422 L 8 24.982422 z"/>
</svg>
