<svg xmlns="http://www.w3.org/2000/svg" width="32" height="32" version="1">
 <path style="opacity:0.2" d="m 16,3 c -0.39094,0 -0.775523,0.019661 -1.158203,0.050781 -3.4611,0.2461401 -6.2420407,1.5274907 -8.7441408,4.0253907 -2.0613999,2.058 -3.3388499,4.5973591 -3.84375,7.2558591 -0.04651,0.24296 -0.083327,0.488998 -0.1171874,0.736328 -0.02047,0.15183 -0.043154,0.302758 -0.058594,0.455079 -0.03394,0.32667 -0.053173,0.657134 -0.064453,0.990234 -0.0025,0.08394 -0.00681,0.167973 -0.00781,0.251953 C 2.0038594,16.842625 2,16.922 2,17 c 0,7.6266 6.0382813,13.785281 13.613281,13.988281 0.05883,0.0017 0.118885,0.005 0.177735,0.0059 C 15.862016,30.995641 15.93,31 16,31 c 0.33711,0 0.670923,-0.01782 1.001953,-0.04102 0.04154,-0.0031 0.08154,-0.0043 0.123047,-0.0078 5.0014,-0.3947 9.236653,-3.398097 11.376953,-7.654297 0,0 0.002,-0.002 0.002,-0.002 0.13845,-0.27554 0.279951,-0.550248 0.400391,-0.835938 0.65538,-1.48 1.011472,-3.051012 1.076172,-4.695312 0.0028,-0.05312 0.0036,-0.106876 0.0059,-0.160156 0.0043,-0.15708 0.01277,-0.312294 0.01172,-0.470704 C 29.997947,17.087812 30,17.045 30,17 V 5.0996094 C 30,3.9362095 29.063791,3 27.900391,3 H 16.105469 Z"/>
 <path style="fill:#f57f38" d="M 16 2 C 15.60906 2 15.224477 2.0196613 14.841797 2.0507812 C 11.380697 2.2969213 8.5997563 3.5782719 6.0976562 6.0761719 C 4.0362563 8.1341719 2.7588063 10.673531 2.2539062 13.332031 C 2.2073962 13.574991 2.1705787 13.821029 2.1367188 14.068359 C 2.1162488 14.220189 2.093565 14.371117 2.078125 14.523438 C 2.044185 14.850108 2.0249519 15.180572 2.0136719 15.513672 C 2.0111719 15.597612 2.0068594 15.681645 2.0058594 15.765625 C 2.0038594 15.842625 2 15.922 2 16 C 2 23.6266 8.0382813 29.785281 15.613281 29.988281 C 15.672111 29.989981 15.732166 29.993241 15.791016 29.994141 C 15.862016 29.995641 15.93 30 16 30 C 16.33711 30 16.670923 29.982184 17.001953 29.958984 C 17.043493 29.955884 17.08349 29.954672 17.125 29.951172 C 22.1264 29.556472 26.361653 26.553075 28.501953 22.296875 C 28.501953 22.296875 28.503906 22.294922 28.503906 22.294922 C 28.642356 22.019382 28.783857 21.744674 28.904297 21.458984 C 29.559677 19.978984 29.915769 18.407972 29.980469 16.763672 C 29.983269 16.710552 29.984028 16.656796 29.986328 16.603516 C 29.990628 16.446436 29.999097 16.291222 29.998047 16.132812 C 29.997947 16.087812 30 16.045 30 16 L 30 4.0996094 C 30 2.9362095 29.063791 2 27.900391 2 L 16.105469 2 L 16 2 z"/>
 <path style="opacity:0.2" d="m 17.3735,9.0014378 c -0.35138,0 -0.64296,0.2806199 -0.64631,0.6206749 -0.0021,0.341604 0.2896,0.6288643 0.64347,0.6306233 1.5272,0.01147 2.7829,0.494088 3.7954,1.445848 1.0006,0.942931 1.5222,2.249364 1.5355,3.954185 v 0.0015 c 0.0036,0.339134 0.29543,0.619225 0.64773,0.619225 3.7e-5,0 0.0067,-0.0014 0.0071,-0.0015 0.35309,-0.0032 0.64632,-0.2879 0.64346,-0.629204 v -0.0015 c -0.008,-0.994895 -0.17,-1.908799 -0.486,-2.712715 -0.32,-0.812414 -0.806,-1.531139 -1.44,-2.129076 -1.253,-1.1779763 -2.853,-1.7865124 -4.695,-1.799511 h -0.0057 z m -6.5596,1.4700452 c -0.2464,-0.04187 -0.51331,0.0039 -0.77983,0.132086 h -0.02131 l -0.02984,0.01705 C 9.48912,10.901389 9.0261196,11.27775 8.5924196,11.7498 l -0.03409,0.03693 v 0.03409 c -0.3,0.37406 -0.4984,0.750621 -0.544,1.127781 -0.01456,0.06392 -0.0142,0.121547 -0.0142,0.183221 0,0.171592 0.02522,0.345974 0.07813,0.516996 l 0.0142,0.04829 0.02983,0.01705 c 0.17129,0.587638 0.56,1.502142 1.4105004,3.050879 0.56649,1.026492 1.1453,1.883902 1.7202,2.606326 0.30283,0.37968 0.64588,0.774989 1.044,1.173177 0.0047,0.0048 0.02152,0.02188 0.03978,0.03835 0.0063,0.0063 0.01518,0.01944 0.03693,0.0412 l 0.03977,0.03977 h 0.0029 c 0.01401,0.01402 0.02347,0.02419 0.02557,0.02699 l 0.0071,0.0085 0.0071,0.0072 c 0.39814,0.393759 0.79083,0.738842 1.1747,1.039691 0.72137,0.574859 1.5787,1.158178 2.6051,1.725719 1.5506,0.85535 2.4737,1.241969 3.0582,1.410351 l 0.02131,0.02557 0.03552,0.01279 c 0.1656,0.0552 0.33792,0.08069 0.50852,0.07812 0.0692,0.0037 0.13047,-0.001 0.18892,-0.0142 0.40035,-0.04681 0.79676,-0.236346 1.1889,-0.565281 l 0.0043,-0.0057 0.0043,-0.0028 c 0.0061,-0.006 0.0025,-0.0031 0.0057,-0.0072 0.0035,-0.0031 0.005,-0.0068 0.0086,-0.01 0.46418,-0.423606 0.83883,-0.884317 1.1207,-1.377656 l 0.01846,-0.03125 v -0.02983 c 0.2589,-0.539074 0.15635,-1.089386 -0.2642,-1.440249 -0.0103,-0.0088 -0.21237,-0.177731 -0.46307,-0.38206 -0.25638,-0.208898 -0.56044,-0.454452 -0.76573,-0.605076 -0.38842,-0.28731 -0.98876,-0.658951 -1.331,-0.849351 h -0.0014 c -0.65728,-0.368061 -1.3441,-0.154164 -1.6463,0.237195 l -0.52983,0.663291 c -0.21368,0.269211 -0.64065,0.243534 -0.65199,0.242874 -3.5937,-0.924473 -4.5599,-4.537723 -4.5668,-4.563421 -6.41e-4,-0.01131 -0.02647,-0.438993 0.2429,-0.656191 l 0.66051,-0.528354 c 0.39233,-0.300449 0.6129,-0.987106 0.2429,-1.646127 -0.19302,-0.340714 -0.5663,-0.945531 -0.84943,-1.33086 h -0.0014 c -0.153,-0.206079 -0.398,-0.511847 -0.607,-0.76852 -0.104,-0.128286 -0.199,-0.245674 -0.268,-0.329465 -0.035,-0.0419 -0.063,-0.07569 -0.083,-0.09939 -0.01,-0.01185 -0.01831,-0.02018 -0.02415,-0.02699 -0.0029,-0.0034 -0.0045,-0.0057 -0.0071,-0.0085 -0.183,-0.217377 -0.416,-0.349763 -0.673,-0.393459 z m 6.598,1.440249 c -0.34657,-0.02444 -0.65797,0.235225 -0.68324,0.56955 -0.02529,0.334695 0.24473,0.633204 0.59091,0.657601 0.85608,0.06049 1.4338,0.312157 1.8679,0.771229 v 0.0015 c 0.44311,0.467591 0.64473,1.001595 0.62784,1.731318 v 0.0028 c -0.0075,0.335804 0.27419,0.620395 0.62216,0.627754 h 0.0156 c 0.34289,0 0.62873,-0.270652 0.63636,-0.602217 0.02345,-1.003095 -0.30329,-1.898101 -0.96165,-2.592028 -0.663,-0.697326 -1.6,-1.087985 -2.717,-1.167377 z"/>
 <path style="fill:#8b9cbe" d="m 17.3735,8.0014378 c -0.35138,0 -0.64296,0.2806199 -0.64631,0.6206749 -0.0021,0.341604 0.2896,0.628864 0.64347,0.630623 1.5272,0.01147 2.7829,0.494088 3.7954,1.4458483 1.0006,0.942931 1.5222,2.249364 1.5355,3.954185 v 0.0015 c 0.0036,0.339134 0.29543,0.619225 0.64773,0.619225 3.7e-5,0 0.0067,-0.0014 0.0071,-0.0015 0.35309,-0.0032 0.64632,-0.2879 0.64346,-0.629204 v -0.0015 c -0.008,-0.994895 -0.17,-1.908799 -0.486,-2.712715 -0.32,-0.812414 -0.806,-1.531139 -1.44,-2.1290763 -1.253,-1.177976 -2.853,-1.7865121 -4.695,-1.7995107 h -0.0057 z m -6.5596,1.4700449 c -0.2464,-0.04187 -0.51331,0.0039 -0.77983,0.132086 h -0.02131 l -0.02984,0.01705 C 9.48912,9.9013887 9.0261196,10.27775 8.5924196,10.7498 l -0.03409,0.03693 v 0.03409 c -0.3,0.37406 -0.4984,0.750621 -0.544,1.127781 -0.01456,0.06392 -0.0142,0.121547 -0.0142,0.183221 0,0.171592 0.02522,0.345974 0.07813,0.516996 l 0.0142,0.04829 0.02983,0.01705 c 0.17129,0.587638 0.56,1.502142 1.4105004,3.050879 0.56649,1.026492 1.1453,1.883902 1.7202,2.606326 0.30283,0.37968 0.64588,0.774989 1.044,1.173177 0.0047,0.0048 0.02152,0.02188 0.03978,0.03835 0.0063,0.0063 0.01518,0.01944 0.03693,0.0412 l 0.03977,0.03977 h 0.0029 c 0.01401,0.01402 0.02347,0.02419 0.02557,0.02699 l 0.0071,0.0085 0.0071,0.0072 c 0.39814,0.393759 0.79083,0.738842 1.1747,1.039691 0.72137,0.574859 1.5787,1.158178 2.6051,1.725719 1.5506,0.85535 2.4737,1.241969 3.0582,1.410351 l 0.02131,0.02557 0.03552,0.01279 c 0.1656,0.0552 0.33792,0.08069 0.50852,0.07812 0.0692,0.0037 0.13047,-0.001 0.18892,-0.0142 0.40035,-0.04681 0.79676,-0.236346 1.1889,-0.565281 l 0.0043,-0.0057 0.0043,-0.0028 c 0.0061,-0.006 0.0025,-0.0031 0.0057,-0.0072 0.0035,-0.0031 0.005,-0.0068 0.0086,-0.01 0.46418,-0.423606 0.83883,-0.884317 1.1207,-1.377656 l 0.01846,-0.03125 v -0.02983 c 0.2589,-0.539074 0.15635,-1.089386 -0.2642,-1.440249 -0.0103,-0.0088 -0.21237,-0.177731 -0.46307,-0.38206 -0.25638,-0.208898 -0.56044,-0.454452 -0.76573,-0.605076 -0.38842,-0.28731 -0.98876,-0.658951 -1.331,-0.849351 h -0.0014 c -0.65728,-0.368061 -1.3441,-0.154164 -1.6463,0.237195 l -0.52983,0.663291 c -0.21368,0.269211 -0.64065,0.243534 -0.65199,0.242874 -3.5937,-0.924473 -4.5599,-4.537723 -4.5668,-4.563421 -6.41e-4,-0.01131 -0.02647,-0.438993 0.2429,-0.656191 l 0.66051,-0.528354 c 0.39233,-0.300449 0.6129,-0.987106 0.2429,-1.646127 -0.19302,-0.340714 -0.5663,-0.945531 -0.84943,-1.33086 h -0.0014 c -0.153,-0.206079 -0.398,-0.511847 -0.607,-0.76852 -0.104,-0.128286 -0.199,-0.245674 -0.268,-0.3294653 -0.035,-0.0419 -0.063,-0.07569 -0.083,-0.09939 -0.01,-0.01185 -0.01831,-0.02018 -0.02415,-0.02699 -0.0029,-0.0034 -0.0045,-0.0057 -0.0071,-0.0085 -0.183,-0.217377 -0.416,-0.349763 -0.673,-0.393459 z m 6.598,1.4402493 c -0.34657,-0.02444 -0.65797,0.235225 -0.68324,0.56955 -0.02529,0.334695 0.24473,0.633204 0.59091,0.657601 0.85608,0.06049 1.4338,0.312157 1.8679,0.771229 v 0.0015 c 0.44311,0.467591 0.64473,1.001595 0.62784,1.731318 v 0.0028 c -0.0075,0.335804 0.27419,0.620395 0.62216,0.627754 h 0.0156 c 0.34289,0 0.62873,-0.270652 0.63636,-0.602217 0.02345,-1.003095 -0.30329,-1.898101 -0.96165,-2.592028 -0.663,-0.697326 -1.6,-1.087985 -2.717,-1.167377 z"/>
 <path style="fill:#8b9cbe;opacity:0.2" d="M 16 2 C 15.60906 2 15.224477 2.0196613 14.841797 2.0507812 C 11.380697 2.2969214 8.5997563 3.5782719 6.0976562 6.0761719 C 4.0362563 8.1341719 2.7588063 10.673531 2.2539062 13.332031 C 2.2073962 13.574991 2.1705786 13.821029 2.1367188 14.068359 C 2.1162488 14.220189 2.093565 14.371116 2.078125 14.523438 C 2.044185 14.850108 2.0249519 15.180572 2.0136719 15.513672 C 2.0111719 15.597612 2.0068594 15.681645 2.0058594 15.765625 C 2.0038594 15.842625 2 15.922 2 16 C 2 16.138435 2.0155792 16.272716 2.0195312 16.410156 C 2.031187 16.112363 2.047731 15.815977 2.078125 15.523438 C 2.093565 15.371117 2.1162488 15.220189 2.1367188 15.068359 C 2.1705791 14.821029 2.2073962 14.574991 2.2539062 14.332031 C 2.7588063 11.673531 4.0362564 9.1341719 6.0976562 7.0761719 C 8.5997563 4.5782719 11.380697 3.2969213 14.841797 3.0507812 C 15.224477 3.0196613 15.60906 3 16 3 L 16.105469 3 L 27.900391 3 C 29.063791 3 30 3.9362095 30 5.0996094 L 30 4.0996094 C 30 2.9362095 29.063791 2 27.900391 2 L 16.105469 2 L 16 2 z"/>
</svg>
