<svg width="32" height="32" version="1" xmlns="http://www.w3.org/2000/svg">
 <rect x="2" y="3" width="28" height="28" rx="1.4" ry="1.4" style="opacity:.2"/>
 <rect x="2" y="2" width="28" height="28" rx="1.4" ry="1.4" style="fill:#009688"/>
 <path d="m14 9v6h-3l5 5.5 5-5.5h-3v-6zm-7 10v6h18v-6h-3v3h-12v-3z" style="opacity:.2"/>
 <path d="m14 8v6h-3l5 5.5 5-5.5h-3v-6zm-7 10v6h18v-6h-3v3h-12v-3z" style="fill:#8b9cbe"/>
 <path d="M 3.4003906,2 C 2.6247906,2 2,2.6247906 2,3.4003906 v 1 C 2,3.6247906 2.6247906,3 3.4003906,3 H 28.599609 C 29.375209,3 30,3.6247906 30,4.4003906 v -1 C 30,2.6247906 29.375209,2 28.599609,2 Z" style="fill:#8b9cbe;opacity:.2"/>
</svg>
