<svg xmlns="http://www.w3.org/2000/svg" width="32" height="32" version="1">
 <path style="opacity:0.2;fill-rule:evenodd" d="m 15.927613,29.999718 c 0.560622,0.0035 1.126071,-0.02559 1.689923,-0.08985 2.237634,-0.254997 4.417218,-1.045757 6.332309,-2.349796 2.820395,-1.920485 4.734979,-4.79266 5.583411,-8.002588 0.660909,-0.300914 1.256149,-0.757194 1.727172,-1.382923 0.935035,-1.242142 1.035838,-3.471298 0,-4.84804 a 3.0115789,3.0005382 0 0 0 0,-0.002 l -0.941024,-1.250099 a 3.0115789,3.0005382 0 0 0 -0.002,-0.002 l -0.942985,-1.2501 C 28.337625,9.4477225 26.868382,9.0000045 25.555468,9.0000045 c -1.312914,0 -2.782157,0.447718 -3.81899,1.8224105 l -0.942985,1.250099 a 3.0115789,3.0005382 0 0 0 -0.002,0.002 l -0.941024,1.250099 a 3.0115789,3.0005382 0 0 0 0,0.002 c -1.035838,1.376742 -0.935035,3.605898 0,4.84804 0.129089,0.171489 0.32603,0.234339 0.472472,0.380891 -0.366891,0.614874 -0.859027,1.156741 -1.472311,1.574343 -1.373489,0.935247 -3.10291,1.131925 -4.654148,0.529339 l 0.04705,0.01758 c -1.172805,-0.478007 -2.638144,-0.438132 -3.73077,0.109384 -1.092626,0.547516 -1.80519,1.444249 -2.187882,2.422067 -0.38269,0.977818 -0.467497,2.118146 -0.03529,3.258071 0.429684,1.133063 1.473242,2.140715 2.652555,2.584096 1.612823,0.622725 3.303038,0.93869 4.985468,0.949294 z"/>
 <path style="fill:#ff9932;fill-rule:evenodd" d="m 15.927613,28.999714 c 0.560622,0.0035 1.126071,-0.02559 1.689923,-0.08985 2.237634,-0.254997 4.417218,-1.045757 6.332309,-2.349796 2.820395,-1.920485 4.734979,-4.79266 5.583411,-8.002588 0.660909,-0.300914 1.256149,-0.757194 1.727172,-1.382923 0.935035,-1.242142 1.035838,-3.471298 0,-4.84804 a 3.0115789,3.0005382 0 0 0 0,-0.002 l -0.941024,-1.250099 a 3.0115789,3.0005382 0 0 0 -0.002,-0.002 l -0.942985,-1.2501 C 28.337625,8.447718 26.868382,8 25.555468,8 24.242554,8 22.773311,8.447718 21.736478,9.822411 l -0.942985,1.250099 a 3.0115789,3.0005382 0 0 0 -0.002,0.002 l -0.941024,1.250099 a 3.0115789,3.0005382 0 0 0 0,0.002 c -1.035838,1.376742 -0.935035,3.605898 0,4.84804 0.129089,0.171489 0.32603,0.234339 0.472472,0.380891 -0.366891,0.614874 -0.859027,1.156741 -1.472311,1.574343 -1.373489,0.935247 -3.10291,1.131925 -4.654148,0.529339 l 0.04705,0.01758 c -1.172805,-0.478007 -2.638144,-0.438132 -3.73077,0.109384 -1.092626,0.547516 -1.80519,1.444249 -2.187882,2.422067 -0.38269,0.977818 -0.467497,2.118146 -0.03529,3.258071 0.429684,1.133063 1.473242,2.140715 2.652555,2.584096 1.612823,0.622725 3.303038,0.93869 4.985468,0.949294 z"/>
 <path style="opacity:0.2;fill-rule:evenodd" d="M 17.072266 3 C 16.511644 2.99647 15.946665 3.0255878 15.382812 3.0898438 C 13.145179 3.344841 10.965872 4.1354146 9.0507812 5.4394531 C 6.2303866 7.3599378 4.3152294 10.233432 3.4667969 13.443359 C 2.805888 13.744273 2.2112573 14.200443 1.7402344 14.826172 C 0.80519938 16.068314 0.70439638 18.297086 1.7402344 19.673828 A 3.0115789 3.0005382 0 0 0 1.7402344 19.675781 L 2.6796875 20.925781 A 3.0115789 3.0005382 0 0 0 2.6816406 20.927734 L 3.625 22.177734 C 4.6618337 23.552333 6.1323984 24 7.4453125 24 C 8.7582266 24 10.226839 23.552427 11.263672 22.177734 L 12.207031 20.927734 A 3.0115789 3.0005382 0 0 0 12.208984 20.925781 L 13.150391 19.675781 A 3.0115789 3.0005382 0 0 0 13.150391 19.673828 C 14.186229 18.297086 14.085426 16.068314 13.150391 14.826172 C 13.021302 14.654683 12.824176 14.591865 12.677734 14.445312 C 13.044625 13.830438 13.535154 13.288696 14.148438 12.871094 C 15.521926 11.935847 17.251496 11.737258 18.802734 12.339844 L 18.755859 12.322266 C 19.053162 12.443439 19.369297 12.529203 19.693359 12.583984 C 19.746121 12.498211 19.789167 12.406506 19.849609 12.326172 L 19.849609 12.324219 L 20.791016 11.074219 L 20.792969 11.072266 L 21.736328 9.8222656 C 22.626393 8.6421662 23.831397 8.1697885 24.986328 8.0527344 C 24.980958 7.5553067 24.905075 7.0452328 24.710938 6.5332031 C 24.281253 5.4001411 23.237907 4.3925996 22.058594 3.9492188 C 20.445771 3.3264935 18.754696 3.0106042 17.072266 3 z"/>
 <path style="fill:#ffda43;fill-rule:evenodd" d="M 17.072375,2.0002858 C 16.511753,1.9967556 15.946304,2.0258809 15.382452,2.090137 13.144818,2.345134 10.965234,3.1358943 9.0501428,4.4399328 6.2297481,6.3604175 4.3151644,9.2325934 3.4667319,12.442521 2.805823,12.743435 2.210583,13.199715 1.7395601,13.825444 c -0.935035,1.242142 -1.035838,3.471298 0,4.84804 a 3.0115789,3.0005382 0 0 0 0,0.002 l 0.9410243,1.250099 a 3.0115789,3.0005382 0 0 0 0.00196,0.002 l 0.9429849,1.2501 C 4.662363,22.552282 6.1316059,23 7.44452,23 c 1.3129141,0 2.782157,-0.447718 3.81899,-1.822411 l 0.942985,-1.250099 a 3.0115789,3.0005382 0 0 0 0.002,-0.002 l 0.941024,-1.250099 a 3.0115789,3.0005382 0 0 0 0,-0.002 c 1.035838,-1.376742 0.935035,-3.605898 0,-4.84804 -0.129089,-0.171489 -0.32603,-0.234339 -0.472472,-0.380891 0.366891,-0.614874 0.859027,-1.156741 1.472311,-1.574343 1.373489,-0.935247 3.10291,-1.131925 4.654148,-0.529339 l -0.04705,-0.01758 c 1.172805,0.478007 2.638144,0.438132 3.73077,-0.109384 1.092626,-0.547516 1.80519,-1.4442495 2.187882,-2.4220673 0.38269,-0.9778178 0.467497,-2.1181455 0.03529,-3.2580712 C 24.280714,4.4006135 23.237156,3.3929609 22.057843,2.94958 20.44502,2.3268547 18.754805,2.01089 17.072375,2.0002858 Z"/>
 <path style="opacity:0.2;fill-rule:evenodd" d="M 17.072266,6.0019576 C 16.630436,5.9991626 16.188236,6.0221457 15.75,6.0722701 13.997056,6.2727677 12.292011,6.893478 10.792969,7.9179733 8.0725613,9.77719 6.3576256,12.752311 6.0605469,16.000004 l -0.4375,0 a 1.6244921,1.250232 0 0 0 -1.40625,1.875 l 0.9375,1.25 0.9394531,1.25 a 1.6244921,1.250232 0 0 0 2.8125,0 l 0.9394531,-1.25 0.9374999,-1.25 a 1.6244921,1.250232 0 0 0 -1.4062499,-1.875 l -0.3125,0 C 9.3481147,13.742796 10.581445,11.696396 12.486328,10.394536 14.669114,8.9027473 17.44299,8.5864947 19.90625,9.5468795 a 1.50015,1.50015 0 1 0 1.089844,-2.7949219 c -1.268744,-0.4946627 -2.598339,-0.7416149 -3.923828,-0.75 z"/>
 <path style="fill:#17191e;fill-rule:evenodd" d="M 17.072266,5.0019531 C 16.630436,4.9991581 16.188236,5.0221412 15.75,5.0722656 13.997056,5.2727632 12.292011,5.8934735 10.792969,6.9179688 8.0725613,8.7771855 6.3576256,11.752307 6.0605469,15 l -0.4375,0 a 1.6244921,1.250232 0 0 0 -1.40625,1.875 l 0.9375,1.25 0.9394531,1.25 a 1.6244921,1.250232 0 0 0 2.8125,0 l 0.9394531,-1.25 0.9374999,-1.25 A 1.6244921,1.250232 0 0 0 9.3769531,15 l -0.3125,0 C 9.3481147,12.742792 10.581445,10.696392 12.486328,9.3945312 14.669114,7.9027428 17.44299,7.5864902 19.90625,8.546875 a 1.50015,1.50015 0 1 0 1.089844,-2.7949219 c -1.268744,-0.4946627 -2.598339,-0.7416149 -3.923828,-0.75 z"/>
 <path style="opacity:0.2;fill:#8b9cbe;fill-rule:evenodd" d="M 17.072266 2 C 16.511644 1.9964698 15.946664 2.0255877 15.382812 2.0898438 C 13.145179 2.3448407 10.965872 3.1354146 9.0507812 4.4394531 C 6.2303866 6.3599378 4.3152294 9.2334318 3.4667969 12.443359 C 2.805888 12.744273 2.2112573 13.200443 1.7402344 13.826172 C 1.167218 14.587392 0.91001218 15.717641 1.0332031 16.796875 C 1.1070624 16.05675 1.3443703 15.352055 1.7402344 14.826172 C 2.2112573 14.200443 2.805888 13.744273 3.4667969 13.443359 C 4.3152294 10.233431 6.2303866 7.3599378 9.0507812 5.4394531 C 10.965872 4.1354146 13.145179 3.3448407 15.382812 3.0898438 C 15.946664 3.0255876 16.511644 2.9964698 17.072266 3 C 18.754696 3.0106042 20.445771 3.3264935 22.058594 3.9492188 C 23.237907 4.3925997 24.281253 5.4001411 24.710938 6.5332031 C 24.844741 6.8861047 24.913875 7.2377926 24.955078 7.5859375 C 25.027814 6.9250403 24.975586 6.2311999 24.710938 5.5332031 C 24.281253 4.4001411 23.237907 3.3925997 22.058594 2.9492188 C 20.445771 2.3264935 18.754696 2.0106042 17.072266 2 z M 13.132812 13.810547 C 12.966611 14.012241 12.811056 14.221878 12.677734 14.445312 C 12.824176 14.591864 13.021302 14.654683 13.150391 14.826172 C 13.546255 15.352055 13.781609 16.05675 13.855469 16.796875 C 13.97866 15.717641 13.723407 14.587392 13.150391 13.826172 C 13.145429 13.81958 13.137968 13.816828 13.132812 13.810547 z"/>
 <path style="fill:#ff9932;fill-rule:evenodd" d="m 31.260428,12.326517 0,-0.002 -0.941024,-1.250099 -0.002,-0.002 -0.942985,-1.2501 C 28.337625,8.447718 26.868382,8 25.555468,8 24.242554,8 22.773311,8.447718 21.736478,9.822411 l -0.942985,1.250099 -0.002,0.002 -0.941024,1.250099 0,0.002 z"/>
 <path style="opacity:0.2;fill-rule:evenodd" d="m 15.927722,26.998051 c 0.44183,0.0028 0.88403,-0.02019 1.322266,-0.07031 1.752944,-0.200497 3.457989,-0.821208 4.957031,-1.845703 2.720408,-1.85922 4.435343,-4.834341 4.732422,-8.082034 l 0.4375,0 a 1.6244921,1.250232 0 0 0 1.40625,-1.875 l -0.9375,-1.25 -0.939453,-1.25 a 1.6244921,1.250232 0 0 0 -2.8125,0 l -0.939453,1.25 -0.9375,1.25 a 1.6244921,1.250232 0 0 0 1.40625,1.875 l 0.3125,0 c -0.283662,2.257208 -1.516992,4.303608 -3.421875,5.605469 -2.182786,1.491788 -4.956662,1.808041 -7.419922,0.847656 a 1.50015,1.50015 0 1 0 -1.089844,2.794922 c 1.268744,0.494663 2.598339,0.741615 3.923828,0.75 z"/>
 <path style="fill:#17191e;fill-rule:evenodd" d="m 15.927722,25.998047 c 0.44183,0.0028 0.88403,-0.02019 1.322266,-0.07031 1.752944,-0.200497 3.457989,-0.821208 4.957031,-1.845703 C 24.927427,22.222814 26.642362,19.247693 26.939441,16 l 0.4375,0 a 1.6244921,1.250232 0 0 0 1.40625,-1.875 l -0.9375,-1.25 -0.939453,-1.25 a 1.6244921,1.250232 0 0 0 -2.8125,0 l -0.939453,1.25 -0.9375,1.25 A 1.6244921,1.250232 0 0 0 23.623035,16 l 0.3125,0 c -0.283662,2.257208 -1.516992,4.303608 -3.421875,5.605469 -2.182786,1.491788 -4.956662,1.808041 -7.419922,0.847656 a 1.50015,1.50015 0 1 0 -1.089844,2.794922 c 1.268744,0.494663 2.598339,0.741615 3.923828,0.75 z"/>
</svg>
