<svg xmlns="http://www.w3.org/2000/svg" width="32" height="32" version="1">
 <rect style="opacity:0.2" width="29" height="29" x="2" y="2" rx="1.45" ry="1.45"/>
 <rect style="fill:#37a0f2" width="29" height="29" x="2" y="1" rx="1.45" ry="1.45"/>
 <path style="opacity:0.2" d="m 15,8 v 1 h 3 V 8 Z m 0,18 v 1 h 3 v -1 z"/>
 <path style="fill:#8b9cbe" d="M 15 5 L 15 8 L 18 8 L 18 5 L 15 5 z M 15 11 L 15 26 L 18 26 L 18 11 L 15 11 z"/>
 <path style="fill:#8b9cbe;opacity:0.2" d="M 3.4492188 1 C 2.6459187 1 2 1.6459187 2 2.4492188 L 2 3.4492188 C 2 2.6459187 2.6459187 2 3.4492188 2 L 29.550781 2 C 30.354081 2 31 2.6459187 31 3.4492188 L 31 2.4492188 C 31 1.6459187 30.354081 1 29.550781 1 L 3.4492188 1 z"/>
</svg>
