<svg xmlns="http://www.w3.org/2000/svg" width="32" height="32" version="1">
 <circle style="opacity:0.2" cx="16" cy="17" r="14"/>
 <circle style="fill:#ac2175" cx="16" cy="16" r="14"/>
 <path style="opacity:0.2" d="M 4,19 H 7.2344 C 8.1669,23.092 11.802,25.996 16,26 20.97,26 25,21.971 25,17 24.994,12.421 21.55,8.5757 17,8.0669 17,8.0669 16,8 16,9 16,10 17,10.081 17,10.081 20.44,10.578 22.995,13.523 23,17 23,20.866 19.865,24 16,24 12.906,23.997 10.183,21.964 9.2987,19 H 12 L 8,15 Z"/>
 <path style="fill:#8b9cbe" d="M 4,18 H 7.2344 C 8.1669,22.092 11.802,24.996 16,25 20.97,25 25,20.971 25,16 24.994,11.421 21.55,7.5757 17,7.0669 17,7.0669 16,7 16,8 16,9 17,9.0805 17,9.0805 20.44,9.5775 22.995,12.523 23,16 23,19.866 19.865,23 16,23 12.906,22.997 10.183,20.964 9.2987,18 H 12 L 8,14 Z"/>
 <path style="fill:#8b9cbe;opacity:0.2" d="M 16 2 A 14 14 0 0 0 2 16 A 14 14 0 0 0 2.0215 16.586 A 14 14 0 0 1 16 3 A 14 14 0 0 1 29.979 16.414 A 14 14 0 0 0 30 16 A 14 14 0 0 0 16 2 z"/>
</svg>
