<svg width="32" height="32" version="1.1" xmlns="http://www.w3.org/2000/svg">
 <g>
  <path d="m6 3h20v10h-20z" style="fill:#b7b7b7"/>
  <rect x="2" y="12" width="28" height="17" rx="1.4" ry="1.4170001" style="fill:#4f4f4f"/>
  <g style="opacity:.4">
   <rect x="8" y="16" width="16" height="2"/>
   <rect x="10" y="20" width="12" height="2"/>
   <rect x="12" y="24" width="8" height="2"/>
  </g>
  <path d="m2 27.584v1c0 0.785 0.6248 1.416 1.4004 1.416h25.2c0.775 0 1.4-0.631 1.4-1.416v-1c0 0.785-0.625 1.416-1.4 1.416h-25.2c-0.7752 0-1.4-0.631-1.4-1.416z" style="opacity:.2"/>
  <path d="m6 3v1h20v-1z" style="fill:#8b9cbe;opacity:.2"/>
  <circle cx="24" cy="24" r="8" style="opacity:.2"/>
  <circle cx="24" cy="23" r="8" style="fill:#ba22ff"/>
  <rect x="8" y="5" width="5" height="3" style="opacity:.5"/>
  <rect x="19" y="5" width="5" height="3" style="opacity:.5"/>
  <path d="m20 23c0 2.2092 1.7909 4 4 4 2.1867 0 3.9602-1.7554 3.9961-3.9336 0.0024-0.02205 0.0038-0.04421 4e-3 -0.0664 0-0.368192-0.398908-0.66667-0.7671-0.66667s-0.733 0.298478-0.733 0.66667c0 1.4727-1.02714 2.5-2.49994 2.5-1.4727 0-2.50006-1.0272-2.50006-2.5 0-1.4727 1.02726-2.5 2.50006-2.5v1.5l2.99994-2.3334-2.99954-2.1666v1.4993c-2.2092 0-4 1.7909-4 4z" style="fill:#8b9cbe"/>
 </g>
</svg>
