<svg xmlns="http://www.w3.org/2000/svg" width="32" height="32" version="1">
 <circle style="opacity:0.2" cx="16" cy="17" r="14"/>
 <circle style="fill:#50b590" cx="16" cy="16" r="14"/>
 <rect style="fill:#30706b" width="26" height="8" x="3" y="12" rx="1.444" ry="1.333"/>
 <path style="opacity:0.2" d="m 7,14 c -0.4155,0 -0.75,0.3345 -0.75,0.75 v 0.439453 L 5.9394531,14.878906 c -0.2938028,-0.293803 -0.766744,-0.293803 -1.0605469,0 -0.2938028,0.293803 -0.2938028,0.766744 0,1.060547 L 5.1894531,16.25 H 4.75 C 4.3345,16.25 4,16.5845 4,17 c 0,0.4155 0.3345,0.75 0.75,0.75 h 0.4394531 l -0.3105469,0.310547 c -0.2938028,0.293803 -0.2938028,0.766744 0,1.060547 0.2938029,0.293803 0.7667441,0.293803 1.0605469,0 L 6.25,18.810547 V 19.25 C 6.25,19.6655 6.5845,20 7,20 7.4155,20 7.75,19.6655 7.75,19.25 v -0.439453 l 0.3105469,0.310547 c 0.2938028,0.293803 0.766744,0.293803 1.0605469,0 0.2938028,-0.293803 0.2938028,-0.766744 0,-1.060547 L 8.8105469,17.75 H 9.25 C 9.6655,17.75 10,17.4155 10,17 10,16.5845 9.6655,16.25 9.25,16.25 H 8.8105469 l 0.3105469,-0.310547 c 0.2938028,-0.293803 0.2938028,-0.766744 0,-1.060547 -0.2938029,-0.293803 -0.7667441,-0.293803 -1.0605469,0 L 7.75,15.189453 V 14.75 C 7.75,14.3345 7.4155,14 7,14 Z m 7,0 c -0.4155,0 -0.75,0.3345 -0.75,0.75 v 0.439453 l -0.310547,-0.310547 c -0.293803,-0.293803 -0.766744,-0.293803 -1.060547,0 -0.293803,0.293803 -0.293803,0.766744 0,1.060547 L 12.189453,16.25 H 11.75 C 11.3345,16.25 11,16.5845 11,17 c 0,0.4155 0.3345,0.75 0.75,0.75 h 0.439453 l -0.310547,0.310547 c -0.293803,0.293803 -0.293803,0.766744 0,1.060547 0.293803,0.293803 0.766744,0.293803 1.060547,0 L 13.25,18.810547 V 19.25 c 0,0.4155 0.3345,0.75 0.75,0.75 0.4155,0 0.75,-0.3345 0.75,-0.75 v -0.439453 l 0.310547,0.310547 c 0.293803,0.293803 0.766744,0.293803 1.060547,0 0.293803,-0.293803 0.293803,-0.766744 0,-1.060547 L 15.810547,17.75 H 16.25 C 16.6655,17.75 17,17.4155 17,17 17,16.5845 16.6655,16.25 16.25,16.25 h -0.439453 l 0.310547,-0.310547 c 0.293803,-0.293803 0.293803,-0.766744 0,-1.060547 -0.293803,-0.293803 -0.766744,-0.293803 -1.060547,0 L 14.75,15.189453 V 14.75 C 14.75,14.3345 14.4155,14 14,14 Z m 7,0 c -0.4155,0 -0.75,0.3345 -0.75,0.75 v 0.439453 l -0.310547,-0.310547 c -0.293803,-0.293803 -0.766744,-0.293803 -1.060547,0 -0.293803,0.293803 -0.293803,0.766744 0,1.060547 L 19.189453,16.25 H 18.75 C 18.3345,16.25 18,16.5845 18,17 c 0,0.4155 0.3345,0.75 0.75,0.75 h 0.439453 l -0.310547,0.310547 c -0.293803,0.293803 -0.293803,0.766744 0,1.060547 0.293803,0.293803 0.766744,0.293803 1.060547,0 L 20.25,18.810547 V 19.25 c 0,0.4155 0.3345,0.75 0.75,0.75 0.4155,0 0.75,-0.3345 0.75,-0.75 v -0.439453 l 0.310547,0.310547 c 0.293803,0.293803 0.766744,0.293803 1.060547,0 0.293803,-0.293803 0.293803,-0.766744 0,-1.060547 L 22.810547,17.75 H 23.25 C 23.6655,17.75 24,17.4155 24,17 24,16.5845 23.6655,16.25 23.25,16.25 h -0.439453 l 0.310547,-0.310547 c 0.293803,-0.293803 0.293803,-0.766744 0,-1.060547 -0.293803,-0.293803 -0.766744,-0.293803 -1.060547,0 L 21.75,15.189453 V 14.75 C 21.75,14.3345 21.4155,14 21,14 Z"/>
 <rect style="fill:#8b9cbe" width="1.5" height="6" x="13.25" y="13" rx=".75" ry=".75"/>
 <rect style="fill:#8b9cbe" width="1.5" height="6" x="15.25" y="-17" rx=".75" ry=".75" transform="rotate(90)"/>
 <rect style="fill:#8b9cbe" width="1.5" height="6" x="-2.16" y="18.21" rx=".75" ry=".75" transform="rotate(-45)"/>
 <rect style="fill:#8b9cbe" width="1.5" height="6" x="20.46" y="-1.59" rx=".75" ry=".75" transform="rotate(45)"/>
 <path style="opacity:0.2;fill:#8b9cbe" d="M 16 2 A 14 14 0 0 0 2 16 A 14 14 0 0 0 2.0214844 16.585938 A 14 14 0 0 1 16 3 A 14 14 0 0 1 29.978516 16.414062 A 14 14 0 0 0 30 16 A 14 14 0 0 0 16 2 z"/>
 <rect style="fill:#8b9cbe" width="1.5" height="6" x="6.25" y="13" rx=".75" ry=".75"/>
 <rect style="fill:#8b9cbe" width="1.5" height="6" x="15.25" y="-10" rx=".75" ry=".75" transform="rotate(90)"/>
 <rect style="fill:#8b9cbe" width="1.5" height="6" x="-7.11" y="13.26" rx=".75" ry=".75" transform="rotate(-45)"/>
 <rect style="fill:#8b9cbe" width="1.5" height="6" x="15.51" y="3.36" rx=".75" ry=".75" transform="rotate(45)"/>
 <rect style="fill:#8b9cbe" width="1.5" height="6" x="20.25" y="13" rx=".75" ry=".75"/>
 <rect style="fill:#8b9cbe" width="1.5" height="6" x="15.25" y="-24" rx=".75" ry=".75" transform="rotate(90)"/>
 <rect style="fill:#8b9cbe" width="1.5" height="6" x="2.79" y="23.16" rx=".75" ry=".75" transform="rotate(-45)"/>
 <rect style="fill:#8b9cbe" width="1.5" height="6" x="25.41" y="-6.54" rx=".75" ry=".75" transform="rotate(45)"/>
 <path style="opacity:0.1" d="M 4.4453125 12 C 3.6450903 12 3 12.595318 3 13.333984 L 3 14.333984 C 3 13.595318 3.6450903 13 4.4453125 13 L 27.554688 13 C 28.35491 13 29 13.595318 29 14.333984 L 29 13.333984 C 29 12.595318 28.35491 12 27.554688 12 L 4.4453125 12 z"/>
 <path style="opacity:0.1;fill:#8b9cbe" d="M 4.4453125,21 C 3.6450903,21 3,20.404682 3,19.666016 v -1 C 3,19.404682 3.6450903,20 4.4453125,20 H 27.554688 C 28.35491,20 29,19.404682 29,18.666016 v 1 C 29,20.404682 28.35491,21 27.554688,21 Z"/>
</svg>
