<svg xmlns="http://www.w3.org/2000/svg" width="32" height="32" version="1">
 <circle style="opacity:0.2" cx="16" cy="17" r="14"/>
 <path style="fill:#e74a99" d="m 25.237657,5.4114714 c -0.0033,-0.0035 -0.0072,-0.0056 -0.01091,-0.00861 C 20.82712,1.6252063 14.610689,0.95495422 9.4664686,3.5820424 4.3251311,6.2077005 1.3986375,12.062578 2.1041094,17.736771 c 0.4925537,3.965129 2.7034855,7.44233 5.8616355,9.676366 0,0 8.7055561,-7.77385 11.0173881,-10.532445 2.168306,-2.589223 6.90234,-10.8582045 6.90234,-10.8582045 -0.208182,-0.209286 -0.423777,-0.413224 -0.647815,-0.6109881 z"/>
 <path style="fill:#8b9cbe;opacity:0.2" d="M 15.552734 2.0078125 C 13.474443 2.0756098 11.39588 2.5968732 9.4667969 3.5820312 C 4.6886535 6.0222077 1.8283528 11.251936 2.0136719 16.533203 C 2.1970662 11.602158 4.9906718 6.8679683 9.4667969 4.5820312 C 14.611017 1.9549431 20.826936 2.6246886 25.226562 6.4023438 C 25.230273 6.4053537 25.234981 6.4086094 25.238281 6.4121094 C 25.332553 6.4953251 25.418407 6.5845815 25.509766 6.6699219 C 25.636054 6.4514708 25.884766 6.0234375 25.884766 6.0234375 C 25.676584 5.8141515 25.462319 5.6098735 25.238281 5.4121094 C 25.234981 5.4086094 25.230273 5.4053537 25.226562 5.4023438 C 22.476796 3.0413093 19.016554 1.8948169 15.552734 2.0078125 z"/>
 <path style="fill:#27aae1" d="m 7.96595,27.413109 c 1.455216,1.029147 3.111408,1.79571 4.89362,2.222717 5.575411,1.334949 11.586954,-1.089235 14.776404,-5.815775 3.759222,-5.572126 2.932465,-13.098211 -1.750296,-17.7975915 0,0 -6.684891,7.9800565 -8.913533,10.6404835 C 14.720236,19.350124 7.96595,27.413109 7.96595,27.413109 Z"/>
 <path style="fill:#8b9cbe;opacity:0.2" d="M 25.884766 6.0214844 C 25.884766 6.0214844 19.201298 14.001682 16.972656 16.662109 C 14.720747 19.34929 7.9667969 27.414062 7.9667969 27.414062 C 8.1428737 27.538586 8.32989 27.646973 8.5117188 27.763672 C 9.2408063 26.893321 14.856982 20.186723 16.972656 17.662109 C 19.201298 15.001682 25.884766 7.0234375 25.884766 7.0234375 C 28.447809 9.5955775 29.847456 13.014206 29.980469 16.496094 C 30.103386 12.675542 28.693178 8.8398636 25.884766 6.0214844 z"/>
 <path style="opacity:0.2" d="m 16.470031,13.442067 c 0,0 -1.423921,-3.029513 -4.387787,-2.33999 C 9.1188167,11.79182 2.929594,17.677447 16.005278,25 h -0.01055 c 13.07547,-7.322553 6.886687,-13.20797 3.92304,-13.897923 -2.963865,-0.689523 -4.387567,2.33999 -4.387567,2.33999 z"/>
 <path style="fill:#8b9cbe" d="m 16.470031,12.442067 c 0,0 -1.423921,-3.0295134 -4.387787,-2.33999 C 9.1188167,10.79182 2.929594,16.677447 16.005278,24 h -0.01055 c 13.07547,-7.322553 6.886687,-13.20797 3.92304,-13.897923 -2.963865,-0.6895234 -4.387567,2.33999 -4.387567,2.33999 z"/>
</svg>
