<svg xmlns="http://www.w3.org/2000/svg" width="32" height="32" version="1.1">
 <rect style="opacity:0.2" width="29" height="21" x="2" y="6" rx="1.977" ry="1.969"/>
 <rect style="fill:#00cfff" width="29" height="21" x="2" y="5" rx="1.977" ry="1.969"/>
 <path style="opacity:0.2" d="m 5,11 v 11 h 7 V 20 H 7 v -9 z m 11.771484,0 c -1.204805,-0.02271 -2.544633,0.376253 -3.214843,1.431641 -0.500991,0.831956 -0.550457,1.908706 -0.195313,2.802734 0.398835,0.954147 1.328593,1.526264 2.234375,1.953125 0.67224,0.356323 1.436167,0.611865 1.960938,1.181641 0.483352,0.563169 0.124912,1.544051 -0.611329,1.677734 -1.127737,0.249072 -2.266144,-0.116164 -3.298828,-0.544922 -0.269799,-0.07207 -0.742929,-0.466876 -0.628906,0.02344 v 1.828125 c 1.391694,0.656491 3.01666,0.804535 4.519531,0.482422 1.144839,-0.239578 2.187791,-1.112285 2.394532,-2.279297 0.187524,-0.958081 0.003,-2.048567 -0.75,-2.736329 -0.991761,-0.952999 -2.393315,-1.28335 -3.486329,-2.08789 -0.562006,-0.467707 -0.393669,-1.486468 0.310547,-1.728516 0.826144,-0.27328 1.719375,-0.02671 2.511719,0.248047 0.297113,0.04455 0.747969,0.481469 0.808594,0 l 0.626953,-1.503906 C 18.947417,11.31873 17.879982,10.980581 16.771484,11 Z M 21,11 V 21.974609 L 23,22 v -3.941406 l 1.066406,-0.02344 c 0.981878,-0.06966 1.760174,-0.171609 2.328125,-0.509765 0.577418,-0.338154 0.990217,-0.782592 1.236328,-1.335938 C 27.876972,15.636108 28,15.073303 28,14.427734 28,13.362033 27.697611,12.526455 27.091797,11.921875 26.495447,11.307048 25.544569,11 24.238281,11 Z m 2,1.996094 h 1.126953 c 1.249347,0 1.873047,0.489877 1.873047,1.46875 0,0.536497 -0.198123,0.927157 -0.59375,1.171875 -0.385217,0.235307 -0.909853,0.351562 -1.576172,0.351562 H 23 Z"/>
 <path style="fill:#8b9cbe" d="m 5,10 v 11 h 7 V 19 H 7 v -9 z m 11.771484,0 c -1.204805,-0.022709 -2.544633,0.376253 -3.214843,1.431641 -0.500991,0.831956 -0.550457,1.908706 -0.195313,2.802734 0.398835,0.954147 1.328593,1.526264 2.234375,1.953125 0.67224,0.356323 1.436167,0.611865 1.960938,1.181641 0.483352,0.563169 0.124912,1.544051 -0.611329,1.677734 -1.127737,0.249072 -2.266144,-0.116164 -3.298828,-0.544922 -0.269799,-0.07207 -0.742929,-0.466876 -0.628906,0.02344 v 1.828125 c 1.391694,0.656491 3.01666,0.804535 4.519531,0.482422 1.144839,-0.239578 2.187791,-1.112285 2.394532,-2.279297 0.187524,-0.958081 0.003,-2.048567 -0.75,-2.736329 -0.991761,-0.952999 -2.393315,-1.28335 -3.486329,-2.08789 -0.562006,-0.467707 -0.393669,-1.486468 0.310547,-1.728516 0.826144,-0.27328 1.719375,-0.02671 2.511719,0.248047 0.297113,0.04455 0.747969,0.481469 0.808594,0 l 0.626953,-1.503906 C 18.947417,10.31873 17.879982,9.9805805 16.771484,10 Z M 21,10 V 20.974609 L 23,21 v -3.941406 l 1.066406,-0.02344 c 0.981878,-0.06966 1.760174,-0.171609 2.328125,-0.509765 0.577418,-0.338154 0.990217,-0.782592 1.236328,-1.335938 C 27.876972,14.636108 28,14.073303 28,13.427734 28,12.362033 27.697611,11.526455 27.091797,10.921875 26.495447,10.307048 25.544569,10 24.238281,10 Z m 2,1.996094 h 1.126953 c 1.249347,0 1.873047,0.489877 1.873047,1.46875 0,0.536497 -0.198123,0.927157 -0.59375,1.171875 -0.385217,0.235307 -0.909853,0.351562 -1.576172,0.351562 H 23 Z"/>
 <path style="fill:#8b9cbe;opacity:0.2" d="M 3.9765625 5 C 2.8811535 5 2 5.8780625 2 6.96875 L 2 7.96875 C 2 6.8780625 2.8811535 6 3.9765625 6 L 29.023438 6 C 30.118847 6 31 6.8780625 31 7.96875 L 31 6.96875 C 31 5.8780625 30.118847 5 29.023438 5 L 3.9765625 5 z"/>
</svg>
