<svg width="32" height="32" version="1.1" xmlns="http://www.w3.org/2000/svg">
 <path d="m15 2-2 2h-1l-2 2-1 2.8292683-3 8.1707317-1 1v2.5l-1 2.5v4.5l5.7-0.914634 6.3-5.463415 6.3 5.463415 5.7 0.914634v-4.5l-1-2.5v-2.5l-1-1-3-8.1707317-1-2.8292683-2-2h-1l-2-2z" style="fill:#922292"/>
 <path d="m15 2-2 2h-1l-2 2-1 2.8300781-3 8.1699219-1 1v1l1-1 3-8.1699219 1-2.8300781 2-2h1l2-2h2l2 2h1l2 2 1 2.8300781 3 8.1699219 1 1v-1l-1-1-3-8.1699219-1-2.8300781-2-2h-1l-2-2h-2zm-10 18.5-1 2.5v1l1-2.5v-1zm22 0v1l1 2.5v-1l-1-2.5z" style="fill:#8b9cbe;opacity:.1"/>
 <path d="m13.900391 21c-0.7 0-2.8 2.487662-3.5 3.853516h-2.8007816c-1.4 0-2.060963 0.645366-2.7988282 1.365234-0.5064016 0.49405-0.6940352 1.454816-0.7617187 1.955078a4 2.5 0 0 0-0.0390625 0.326172 4 2.5 0 0 0 4 2.5 4 2.5 0 0 0 4-2.5 4 2.5 0 0 0-0.066406-0.439453c0.010863-0.010658 0.066406-0.060547 0.066406-0.060547l0.158203-0.039062c0.736024 2.281642 3.841797 2.039062 3.841797 2.039062s3.105773 0.24258 3.841797-2.039062l0.158203 0.039062s0.05424 0.048561 0.064453 0.058594a4 2.5 0 0 0-0.064453 0.441406 4 2.5 0 0 0 4 2.5 4 2.5 0 0 0 4-2.5 4 2.5 0 0 0-0.041016-0.335938c-0.068667-0.502617-0.25611-1.453941-0.759765-1.945312-0.737865-0.719868-1.398828-1.365234-2.798828-1.365234h-2.800782c-0.7-1.365854-2.8-3.853516-3.5-3.853516h-4.199218z" style="opacity:.2"/>
 <path d="m13.9 20c-0.7 0-2.8 2.487805-3.5 3.853659h-2.8c-1.4 0-2.0621349 0.645985-2.8 1.365853-0.7 0.682927-0.8 2.280488-0.8 2.280488s0.1 1.134146 4.3 1.134146c2.1 0 3.7-1.634146 3.7-1.634146l4-1 4 1s1.6 1.634146 3.7 1.634146c4.2 0 4.3-1.134146 4.3-1.134146s-0.1-1.597561-0.8-2.280488c-0.737865-0.719868-1.4-1.365853-2.8-1.365853h-2.8c-0.7-1.365854-2.8-3.853659-3.5-3.853659z" style="fill:#f46baa"/>
 <path d="m13.900391 20c-0.7 0-2.8 2.487662-3.5 3.853516h-2.8007816c-1.4 0-2.060963 0.645366-2.7988282 1.365234-0.7 0.682927-0.8007812 2.28125-0.8007812 2.28125s0.018849 0.091013 0.1191406 0.216797c0.1067149-0.506896 0.3032124-1.128849 0.6816406-1.498047 0.7378652-0.719868 1.3988282-1.365234 2.7988282-1.365234h2.8007816c0.7-1.365854 2.8-3.853516 3.5-3.853516h4.199218c0.7 0 2.8 2.487662 3.5 3.853516h2.800782c1.4 0 2.060963 0.645366 2.798828 1.365234 0.378428 0.369198 0.574926 0.991151 0.68164 1.498047 0.100292-0.125784 0.119141-0.216797 0.119141-0.216797s-0.100781-1.598323-0.800781-2.28125c-0.737865-0.719868-1.398828-1.365234-2.798828-1.365234h-2.800782c-0.7-1.365854-2.8-3.853516-3.5-3.853516h-4.199218z" style="fill:#8b9cbe;opacity:.2"/>
 <path d="m16 22s-4-0.195217-4 3.902344c0 3.414634 4 3.097656 4 3.097656s4 0.316978 4-3.097656c0-4.097561-4-3.902344-4-3.902344zm-8 3a4 2.5 0 0 0-4 2.5 4 2.5 0 0 0 4 2.5 4 2.5 0 0 0 4-2.5 4 2.5 0 0 0-4-2.5zm16 0a4 2.5 0 0 0-4 2.5 4 2.5 0 0 0 4 2.5 4 2.5 0 0 0 4-2.5 4 2.5 0 0 0-4-2.5z" style="fill:#922292"/>
 <path d="m15 3-3 1v2l2-1-1 4h-2v-2h-1s-1 0.7804878-1 2.8292683h6.3l0.7-1.0243902 0.7 1.0243902h6.3c0-2.0487805-1-2.8292683-1-2.8292683h-1v2h-2l-1-4 2 1v-2l-3-1 1.02207 6.1463415h-0.62207l-0.7-1.3658537h-1.4l-0.7 1.3658537h-0.62207zm-6.0998437 8.012c-0.7596295 0-1.5969668 0.193006-2.0706133 0.681048-0.4736467 0.488044-0.7123187 1.092973-0.8202734 1.741998-0.1348344 0.810618 0.3202745 1.436524 0.6822263 1.896722 0.3619525 0.460197 1.1656003 0.843837 1.2280081 1.101753 0.097072 0.401175 0.1143765 0.943125 0.082031 1.633552-0.032347 0.690428-0.09707 1.245808-0.09707 1.245808-0.1058638 0.905339 0.9855704 1.060064 1.0914342 0.154726 0 0 0.069237-0.597895 0.1039059-1.337843 0.034664-0.739949 0.052031-1.304441-0.1189454-2.01103-0.1773392-0.732898-1.2583711-1.212556-1.5782698-1.619283-0.3198986-0.406729-0.445207-0.651373-0.4128907-0.845657 0.050617-0.304308 0.1673785-0.723707 0.4566017-1.021721 0.2892232-0.298013 1.2235351-0.453506 1.4538554-0.453506h1.3999997c0.946626 0.01306 0.946626-1.179628 0-1.166567zm5.0998437-0.012-1 4h6l-1-4v3h-4zm7.499785 0.012c-0.946626-0.01306-0.946626 1.179627 0 1.166566h1.4c0.23032 0 1.26477 0.155493 1.553993 0.453507s0.505828 0.717413 0.556445 1.021721c0.03232 0.194284-0.09299 0.438927-0.41289 0.845657-0.319899 0.406727-1.501069 0.886385-1.678407 1.619283-0.170974 0.706589-0.0534 1.271081-0.01873 2.01103 0.03466 0.739948 0.103906 1.337843 0.103906 1.337843 0.105622 0.905365 1.297149 0.750639 1.191528-0.154726 0 0-0.06472-0.55538-0.09707-1.245808-0.03235-0.690427-0.115255-1.232377-0.01819-1.633552 0.0624-0.257916 0.866102-0.641556 1.228054-1.101753 0.361952-0.460198 0.817061-1.086104 0.682227-1.896722-0.107951-0.649025-0.446467-1.253954-0.920114-1.741998-0.473646-0.488043-1.411122-0.681048-2.170752-0.681048zm-11.499785 6.329463v4.097561c-0.5485998 0.866003-3 1.560976-3 1.560976s2.6-0.195122 4-0.878049v-3.414634zm12 0-1 1.365854v3.414634c1.4 0.682927 4 0.878049 4 0.878049s-2.4514-0.694973-3-1.560976zm-16 0.658537v3l-1 0.5v1.5l2-1v-3zm20 0-0.9 0.707317-0.1 3.292683 2 1v-1.5l-1-0.5z" style="opacity:.2"/>
 <path d="m15 2-3 1v2l2-1-1 4h-2v-2h-1s-1 0.7804878-1 2.8292683h6.3l0.7-1.0243902 0.7 1.0243902h6.3c0-2.0487805-1-2.8292683-1-2.8292683h-1v2h-2l-1-4 2 1v-2l-3-1 1.02207 6.1463415h-0.62207l-0.7-1.3658537h-1.4l-0.7 1.3658537h-0.62207zm-6.0998437 8.012c-0.7596295 0-1.5969668 0.193006-2.0706133 0.681048-0.4736467 0.488044-0.7123187 1.092973-0.8202734 1.741998-0.1348344 0.810618 0.3202745 1.436524 0.6822263 1.896722 0.3619525 0.460197 1.1656003 0.843837 1.2280081 1.101753 0.097072 0.401175 0.1143765 0.943125 0.082031 1.633552-0.032347 0.690428-0.09707 1.245808-0.09707 1.245808-0.1058638 0.905339 0.9855704 1.060064 1.0914342 0.154726 0 0 0.069237-0.597895 0.1039059-1.337843 0.034664-0.739949 0.052031-1.304441-0.1189454-2.01103-0.1773392-0.732898-1.2583711-1.212556-1.5782698-1.619283-0.3198986-0.406729-0.445207-0.651373-0.4128907-0.845657 0.050617-0.304308 0.1673785-0.723707 0.4566017-1.021721 0.2892232-0.298013 1.2235351-0.453506 1.4538554-0.453506h1.3999997c0.946626 0.01306 0.946626-1.1796279 0-1.166567zm5.0998437-0.012-1 4h6l-1-4v3h-4zm7.499785 0.012c-0.946626-0.013064-0.946626 1.179627 0 1.166566h1.4c0.23032 0 1.26477 0.155493 1.553993 0.453507s0.505828 0.717413 0.556445 1.021721c0.03232 0.194284-0.09299 0.438927-0.41289 0.845657-0.319899 0.406727-1.501069 0.886385-1.678407 1.619283-0.170974 0.706589-0.0534 1.271081-0.01873 2.01103 0.03466 0.739948 0.103906 1.337843 0.103906 1.337843 0.105622 0.905365 1.297149 0.750639 1.191528-0.154726 0 0-0.06472-0.55538-0.09707-1.245808-0.03235-0.690427-0.115255-1.232377-0.01819-1.633552 0.0624-0.257916 0.866102-0.641556 1.228054-1.101753 0.361952-0.460198 0.817061-1.086104 0.682227-1.896722-0.107951-0.649025-0.446467-1.253954-0.920114-1.741998-0.473646-0.488043-1.411122-0.681048-2.170752-0.681048zm-11.499785 6.329463v4.097561c-0.5485998 0.866003-3 1.560976-3 1.560976s2.6-0.195122 4-0.878049v-3.414634zm12 0-1 1.365854v3.414634c1.4 0.682927 4 0.878049 4 0.878049s-2.4514-0.694973-3-1.560976zm-16 0.658537v3l-1 0.5v1.5l2-1v-3zm20 0-0.9 0.707317-0.1 3.292683 2 1v-1.5l-1-0.5z" style="fill:#f46baa"/>
 <path d="m16 25a3 2 0 0 0-3 2 3 2 0 0 0 3 2 3 2 0 0 0 3-2 3 2 0 0 0-3-2zm-8 2a2 1.5 0 0 0-2 1.5 2 1.5 0 0 0 2 1.5 2 1.5 0 0 0 2-1.5 2 1.5 0 0 0-2-1.5zm16 0a2 1.5 0 0 0-2 1.5 2 1.5 0 0 0 2 1.5 2 1.5 0 0 0 2-1.5 2 1.5 0 0 0-2-1.5z" style="opacity:.2"/>
 <path d="m16 24a3 2 0 0 0-3 2 3 2 0 0 0 3 2 3 2 0 0 0 3-2 3 2 0 0 0-3-2zm-8 2a2 1.5 0 0 0-2 1.5 2 1.5 0 0 0 2 1.5 2 1.5 0 0 0 2-1.5 2 1.5 0 0 0-2-1.5zm16 0a2 1.5 0 0 0-2 1.5 2 1.5 0 0 0 2 1.5 2 1.5 0 0 0 2-1.5 2 1.5 0 0 0-2-1.5z" style="fill:#f46baa"/>
 <path d="M 16 22 C 16 22 12 21.804783 12 25.902344 C 12 26.064125 12.016096 26.21001 12.033203 26.355469 C 12.378281 22.831902 16 23 16 23 C 16 23 19.621719 22.831902 19.966797 26.355469 C 19.983904 26.21001 20 26.064125 20 25.902344 C 20 21.804783 16 22 16 22 z M 8 25 A 4 2.5 0 0 0 4 27.5 A 4 2.5 0 0 0 4.0839844 28.005859 A 4 2.5 0 0 1 8 26 A 4 2.5 0 0 1 11.916016 27.994141 A 4 2.5 0 0 0 12 27.5 A 4 2.5 0 0 0 8 25 z M 24 25 A 4 2.5 0 0 0 20 27.5 A 4 2.5 0 0 0 20.083984 28.005859 A 4 2.5 0 0 1 24 26 A 4 2.5 0 0 1 27.916016 27.994141 A 4 2.5 0 0 0 28 27.5 A 4 2.5 0 0 0 24 25 z " style="fill:#8b9cbe;opacity:.1"/>
</svg>
