<svg xmlns="http://www.w3.org/2000/svg" width="32" height="32" version="1">
 <rect style="opacity:0.2" width="28" height="28" x="2" y="3" rx="1.4" ry="1.4"/>
 <path style="fill:#4f4f4f" d="M 3.4,2 C 2.6244,2 2,2.6244 2,3.4 V 22.07 H 30 V 3.4 C 30,2.6244 29.3756,2 28.6,2 Z"/>
 <path style="opacity:0.2" d="m 20.645992,6.0000244 c -1.090993,2.469e-4 -1.03712,0.057756 -1.593429,0.9611861 -1.603226,2.6035772 -2.913263,4.6187515 -3.00243,4.6187515 -0.05876,0 -0.361077,-0.410535 -0.671809,-0.912427 C 15.067595,10.165643 14.764299,9.7232175 14.704208,9.6843764 14.644122,9.6455061 14.550555,9.4901682 14.496326,9.3392671 14.442092,9.1883666 14.237409,8.8231449 14.041467,8.5275886 13.84552,8.2320269 13.644278,7.921581 13.594247,7.8377339 12.933815,6.7309552 12.693399,6.3621418 12.544338,6.2265221 12.388631,6.0848582 12.113868,6.0610151 10.274302,6.029316 8.523071,5.999132 8.1814178,6.014091 8.1814178,6.121307 c 0,0.215907 0.9420584,1.5661204 1.159711,1.662123 0.1292646,0.057007 0.2253972,0.2009207 0.2608372,0.3908341 0.045867,0.2457564 1.047151,1.8848349 1.940793,3.1770509 0.329355,0.476263 1.312144,1.9772 1.606042,2.452724 0.155302,0.251274 0.339519,0.503083 0.409375,0.559457 0.06986,0.05637 0.225857,0.286425 0.346652,0.511409 0.120794,0.224986 0.367791,0.614833 0.548853,0.866337 0.181061,0.251509 0.471151,0.698995 0.644624,0.994235 0.173471,0.29524 0.403311,0.595632 0.510825,0.667528 0.10752,0.0719 0.24551,0.25203 0.306677,0.400481 0.06116,0.14845 0.138613,0.269905 0.171995,0.269905 0.03339,0 0.859664,-1.201124 1.836319,-2.669217 0.97665,-1.468091 1.95766,-2.685489 2.017297,-2.705477 0.08286,-0.02778 0.10856,0.932383 0.10856,4.071433 0,2.259363 0.02726,4.135431 0.06059,4.16897 0.03333,0.0335 0.816839,0.0609 1.903911,0.0609 1.441859,0 1.859572,-0.0134 1.98539,-0.09199 V 6.4346217 c -0.02331,-0.2342384 -0.06889,-0.2869074 -0.158138,-0.3349278 -0.268428,-0.1444233 -0.445248,-0.1214754 -0.649953,0.084315 -0.227631,0.2288445 -0.291551,0.2288445 -0.433711,0 -0.105936,-0.1705369 -0.212299,-0.1829112 -1.569444,-0.1829112 -0.207701,0 -0.386779,-0.00109 -0.542634,-0.00109 z M 8.2231724,7.9216894 c -0.1371359,0 -0.2224373,1.0991321 -0.2231679,2.8737396 -4.587e-4,1.153909 0.0232,1.391096 0.1533386,1.535656 0.144544,0.160568 0.144544,0.186814 0,0.432812 -0.2204053,0.375102 -0.1986826,0.786194 0.050827,0.962257 L 8.408858,13.870665 8.232954,14.16576 c -0.1636052,0.274687 -0.1772852,0.517124 -0.1972266,3.49536 -0.015787,2.360626 0.00653,3.218362 0.084933,3.269224 0.05844,0.03791 0.9864051,0.0588 2.0621486,0.04643 l 1.822572,-0.02252 0.02363,-3.909601 0.02379,-3.909775 -0.332266,-0.503014 C 11.57027,12.329162 11.39167,12.068923 11.241752,11.82519 11.129416,11.554904 10.627251,10.763433 9.7369853,9.4532076 9.3211668,8.8412431 8.9116309,8.6635233 8.9077536,9.0932734 8.9066869,9.2265504 8.8942069,9.228829 8.8182012,9.1105916 8.7697212,9.0351408 8.7293803,8.8206863 8.7286546,8.6340176 8.7270546,8.2959213 8.4616413,7.9216546 8.223156,7.9216546 Z M 20.93063,9.4164338 c 0.114235,0.00484 0.1688,0.1170101 0.1688,0.3399242 0,0.281803 -0.111903,0.330922 -0.386634,0.1700534 -0.21264,-0.1245107 -0.201563,-0.3292115 0.02453,-0.4508538 0.07713,-0.041502 0.141391,-0.061397 0.193311,-0.059127 z m -0.230271,1.3523792 c 0.04326,-0.0038 0.0788,0.0016 0.09666,0.01946 0.02624,0.02638 0.02074,0.09175 -0.01227,0.145398 -0.07374,0.119954 -0.413103,0.130093 -0.413103,0.01233 0,-0.07374 0.199034,-0.165961 0.328703,-0.177199 z m 2.451268,0.902603 c 0.02208,0 0.04016,0.04118 0.04016,0.09145 0,0.05029 -0.04331,0.09145 -0.0963,0.09145 -0.05296,0 -0.07109,-0.04119 -0.04016,-0.09145 0.03093,-0.05029 0.07424,-0.09145 0.0963,-0.09145 z m 0.76953,0.267225 c 0.01573,0.0021 0.03323,0.01179 0.0519,0.03056 0.02944,0.0296 0.03573,0.128994 0.01403,0.220958 -0.0377,0.15977 -0.0425,0.159915 -0.11016,0.0032 -0.05797,-0.134275 -0.02389,-0.264254 0.04427,-0.254722 z m -10.550254,1.123561 c 0.05854,0.0037 0.08689,0.09984 0.08689,0.293664 0,0.364889 -0.02006,0.386685 -0.178389,0.194879 -0.130895,-0.158564 -0.09447,-0.431343 0.06468,-0.484612 0.0096,-0.0032 0.01846,-0.0043 0.02683,-0.0037 z m -3.5612297,2.740844 c 0.089189,-0.006 0.1730606,0.104678 0.2062817,0.294559 0.04309,0.246352 -0.1305377,0.274704 -0.273445,0.04467 -0.08641,-0.1391 -0.09264,-0.221783 -0.022027,-0.292768 0.02928,-0.02943 0.05946,-0.04445 0.089194,-0.04643 z m -0.4161279,0.680745 c 0.026613,-2.35e-4 0.05756,0.0032 0.092747,0.0098 0.1693652,0.03254 0.2047839,0.08646 0.1714612,0.261686 -0.0328,0.17251 -0.099323,0.220604 -0.3043625,0.220604 -0.144272,0 -0.262256,0.04118 -0.262256,0.09145 0,0.05029 -0.1074079,0.09146 -0.2386239,0.09146 -0.2086293,0 -0.2233653,-0.01833 -0.1174453,-0.146655 0.066613,-0.08068 0.2149599,-0.182502 0.3295946,-0.226319 0.1146346,-0.0438 0.2084206,-0.136767 0.2084206,-0.206491 0,-0.06275 0.040693,-0.09485 0.1204646,-0.09557 z m 6.9142236,0.162912 c 0.03899,-0.006 0.07984,0.01142 0.101808,0.04713 0.02928,0.04767 0.01434,0.110598 -0.03307,0.140043 -0.04741,0.02943 -0.110012,0.01459 -0.139296,-0.03303 -0.02928,-0.04767 -0.0145,-0.110595 0.03286,-0.140048 0.01184,-0.0073 0.02464,-0.01212 0.03766,-0.0141 z m -5.142401,0.652343 c 0.05768,-0.0072 0.110325,0.02054 0.113893,0.08843 0.0027,0.05029 -0.06349,0.105692 -0.146944,0.123074 -0.09486,0.01973 -0.136554,-0.01453 -0.111051,-0.09146 0.02363,-0.0712 0.08643,-0.112968 0.144102,-0.120034 z"/>
 <path style="fill:#8b9cbe" d="m 20.645992,5.0000244 c -1.090993,2.469e-4 -1.03712,0.057756 -1.593429,0.9611861 -1.603226,2.6035772 -2.913263,4.6187515 -3.00243,4.6187515 -0.05876,0 -0.361077,-0.410535 -0.671809,-0.9124267 C 15.067595,9.1656428 14.764299,8.7232175 14.704208,8.6843764 14.644122,8.6455061 14.550555,8.4901682 14.496326,8.3392671 14.442092,8.1883666 14.237409,7.8231449 14.041467,7.5275886 13.84552,7.2320269 13.644278,6.921581 13.594247,6.8377339 12.933815,5.7309552 12.693399,5.3621418 12.544338,5.2265221 12.388631,5.0848582 12.113868,5.0610151 10.274302,5.029316 8.523071,4.999132 8.1814178,5.014091 8.1814178,5.121307 c 0,0.215907 0.9420584,1.5661204 1.159711,1.662123 0.1292646,0.057007 0.2253972,0.2009207 0.2608372,0.3908341 0.045867,0.2457564 1.047151,1.8848346 1.940793,3.1770509 0.329355,0.476263 1.312144,1.9772 1.606042,2.452724 0.155302,0.251274 0.339519,0.503083 0.409375,0.559457 0.06986,0.05637 0.225857,0.286425 0.346652,0.511409 0.120794,0.224986 0.367791,0.614833 0.548853,0.866337 0.181061,0.251509 0.471151,0.698995 0.644624,0.994235 0.173471,0.29524 0.403311,0.595632 0.510825,0.667528 0.10752,0.0719 0.24551,0.25203 0.306677,0.400481 0.06116,0.14845 0.138613,0.269905 0.171995,0.269905 0.03339,0 0.859664,-1.201124 1.836319,-2.669217 0.97665,-1.468091 1.95766,-2.685489 2.017297,-2.705477 0.08286,-0.02778 0.10856,0.932383 0.10856,4.071433 0,2.259363 0.02726,4.135431 0.06059,4.16897 0.03333,0.0335 0.816839,0.0609 1.903911,0.0609 1.441859,0 1.859572,-0.0134 1.98539,-0.09199 V 5.4346217 c -0.02331,-0.2342384 -0.06889,-0.2869074 -0.158138,-0.3349278 -0.268428,-0.1444233 -0.445248,-0.1214754 -0.649953,0.084315 -0.227631,0.2288445 -0.291551,0.2288445 -0.433711,0 -0.105936,-0.1705369 -0.212299,-0.1829112 -1.569444,-0.1829112 -0.207701,0 -0.386779,-0.00109 -0.542634,-0.00109 z M 8.2231724,6.9216894 c -0.1371359,0 -0.2224373,1.0991321 -0.2231679,2.8737399 -4.587e-4,1.1539087 0.0232,1.3910957 0.1533386,1.5356557 0.144544,0.160568 0.144544,0.186814 0,0.432812 -0.2204053,0.375102 -0.1986826,0.786194 0.050827,0.962257 L 8.408858,12.870665 8.232954,13.16576 c -0.1636052,0.274687 -0.1772852,0.517124 -0.1972266,3.49536 -0.015787,2.360626 0.00653,3.218362 0.084933,3.269224 0.05844,0.03791 0.9864051,0.0588 2.0621486,0.04643 l 1.822572,-0.02252 0.02363,-3.909601 0.02379,-3.909775 -0.332266,-0.503014 C 11.57027,11.329162 11.39167,11.068923 11.241752,10.82519 11.129416,10.554904 10.627251,9.7634333 9.7369853,8.4532076 9.3211668,7.8412431 8.9116309,7.6635233 8.9077536,8.0932734 8.9066869,8.2265504 8.8942069,8.228829 8.8182012,8.1105916 8.7697212,8.0351408 8.7293803,7.8206863 8.7286546,7.6340176 8.7270546,7.2959213 8.4616413,6.9216546 8.223156,6.9216546 Z M 20.93063,8.4164338 c 0.114235,0.00484 0.1688,0.1170101 0.1688,0.3399242 0,0.2818034 -0.111903,0.3309221 -0.386634,0.1700534 -0.21264,-0.1245107 -0.201563,-0.3292115 0.02453,-0.4508538 0.07713,-0.041502 0.141391,-0.061397 0.193311,-0.059127 z m -0.230271,1.352379 c 0.04326,-0.00378 0.0788,0.00164 0.09666,0.019463 0.02624,0.026376 0.02074,0.091749 -0.01227,0.1453982 -0.07374,0.119954 -0.413103,0.130093 -0.413103,0.01233 0,-0.07374 0.199034,-0.1659611 0.328703,-0.1771988 z m 2.451268,0.9026032 c 0.02208,0 0.04016,0.04118 0.04016,0.09145 0,0.05029 -0.04331,0.09145 -0.0963,0.09145 -0.05296,0 -0.07109,-0.04119 -0.04016,-0.09145 0.03093,-0.05029 0.07424,-0.09145 0.0963,-0.09145 z m 0.76953,0.267225 c 0.01573,0.0021 0.03323,0.01179 0.0519,0.03056 0.02944,0.0296 0.03573,0.128994 0.01403,0.220958 -0.0377,0.15977 -0.0425,0.159915 -0.11016,0.0032 -0.05797,-0.134275 -0.02389,-0.264254 0.04427,-0.254722 z m -10.550254,1.123561 c 0.05854,0.0037 0.08689,0.09984 0.08689,0.293664 0,0.364889 -0.02006,0.386685 -0.178389,0.194879 -0.130895,-0.158564 -0.09447,-0.431343 0.06468,-0.484612 0.0096,-0.0032 0.01846,-0.0043 0.02683,-0.0037 z m -3.5612297,2.740844 c 0.089189,-0.006 0.1730606,0.104678 0.2062817,0.294559 0.04309,0.246352 -0.1305377,0.274704 -0.273445,0.04467 -0.08641,-0.1391 -0.09264,-0.221783 -0.022027,-0.292768 0.02928,-0.02943 0.05946,-0.04445 0.089194,-0.04643 z m -0.4161279,0.680745 c 0.026613,-2.35e-4 0.05756,0.0032 0.092747,0.0098 0.1693652,0.03254 0.2047839,0.08646 0.1714612,0.261686 -0.0328,0.17251 -0.099323,0.220604 -0.3043625,0.220604 -0.144272,0 -0.262256,0.04118 -0.262256,0.09145 0,0.05029 -0.1074079,0.09146 -0.2386239,0.09146 -0.2086293,0 -0.2233653,-0.01833 -0.1174453,-0.146655 0.066613,-0.08068 0.2149599,-0.182502 0.3295946,-0.226319 0.1146346,-0.0438 0.2084206,-0.136767 0.2084206,-0.206491 0,-0.06275 0.040693,-0.09485 0.1204646,-0.09557 z m 6.9142236,0.162912 c 0.03899,-0.006 0.07984,0.01142 0.101808,0.04713 0.02928,0.04767 0.01434,0.110598 -0.03307,0.140043 -0.04741,0.02943 -0.110012,0.01459 -0.139296,-0.03303 -0.02928,-0.04767 -0.0145,-0.110595 0.03286,-0.140048 0.01184,-0.0073 0.02464,-0.01212 0.03766,-0.0141 z m -5.142401,0.652343 c 0.05768,-0.0072 0.110325,0.02054 0.113893,0.08843 0.0027,0.05029 -0.06349,0.105692 -0.146944,0.123074 -0.09486,0.01973 -0.136554,-0.01453 -0.111051,-0.09146 0.02363,-0.0712 0.08643,-0.112968 0.144102,-0.120034 z"/>
 <path style="fill:#ef3a3a" d="m 2,22 v 6.6 C 2,29.3756 2.6244,30 3.4,30 H 28.6 C 29.3756,30 30,29.3756 30,28.6 V 22 Z"/>
 <path style="fill:#17191e" d="m 8.1036417,24.000001 q 0.7450979,0 1.0980385,0.285714 0.3585432,0.280112 0.3585432,0.85154 0,0.319328 -0.1176466,0.532213 -0.1176473,0.212885 -0.3025213,0.341737 -0.1792713,0.128852 -0.3809519,0.196078 L 9.857142,28 H 9.2689075 L 8.2997197,26.347339 H 7.5042019 V 28 H 7 v -3.999999 z m -0.028013,0.436974 H 7.5042006 v 1.484594 h 0.5994391 q 0.4873946,0 0.7114845,-0.190476 0.22409,-0.196078 0.22409,-0.571429 0,-0.392157 -0.2352946,-0.554622 -0.235294,-0.168067 -0.7282909,-0.168067 z"/>
 <path style="fill:#17191e" d="M 13.235293,28 H 11 v -3.999999 h 2.235293 v 0.442576 h -1.731092 v 1.2493 h 1.630252 v 0.436975 h -1.630252 v 1.428571 h 1.731092 z"/>
 <path style="fill:#17191e" d="m 17.204481,25.960784 q 0,1.014006 -0.554622,1.529412 Q 16.10084,28 15.114845,28 H 14 v -3.999999 h 1.232493 q 0.599439,0 1.042016,0.224089 0.448179,0.22409 0.689076,0.661065 0.240896,0.436974 0.240896,1.075629 z m -0.532212,0.01681 q 0,-0.801121 -0.39776,-1.170868 -0.392156,-0.37535 -1.114845,-0.37535 h -0.655462 v 3.137255 h 0.543417 q 1.62465,0 1.62465,-1.591037 z"/>
 <path style="fill:#17191e" d="m 21.038674,24 v 2.552486 q 0,0.40884 -0.165747,0.740331 -0.165745,0.325967 -0.508287,0.519337 -0.342541,0.187845 -0.861877,0.187845 -0.740332,0 -1.121548,-0.397789 Q 18,27.198894 18,26.541436 V 24 h 0.497238 v 2.55801 q 0,0.480664 0.254143,0.745857 0.259668,0.265193 0.779005,0.265193 0.535913,0 0.773481,-0.281767 0.243093,-0.287294 0.243093,-0.734807 V 24 Z"/>
 <path style="fill:#17191e" d="M 25.296683,28 H 24.733147 L 23.688949,26.287293 22.628176,28 h -0.524862 l 1.309392,-2.055248 -1.22652,-1.889503 h 0.552487 l 0.96685,1.546961 0.972376,-1.546961 h 0.524862 l -1.220995,1.878452 z"/>
 <path style="fill:#8b9cbe;opacity:0.1" d="M 3.4003906 2 C 2.6247906 2 2 2.6247906 2 3.4003906 L 2 4.4003906 C 2 3.6247906 2.6247906 3 3.4003906 3 L 28.599609 3 C 29.375209 3 30 3.6247906 30 4.4003906 L 30 3.4003906 C 30 2.6247906 29.375209 2 28.599609 2 L 3.4003906 2 z"/>
 <rect style="opacity:0.2;fill:#8b9cbe" width="28" height="1" x="2" y="22"/>
</svg>
