<svg width="32" height="32" version="1.1" xmlns="http://www.w3.org/2000/svg">
 <circle cx="16" cy="17" r="14" style="opacity:.2"/>
 <circle cx="16" cy="16" r="14" style="fill:#4f4f4f"/>
 <path d="M 16,2 A 14,14 0 0 0 2,16 14,14 0 0 0 2.0215,16.586 14,14 0 0 1 16,3 14,14 0 0 1 29.979,16.414 14,14 0 0 0 30,16 14,14 0 0 0 16,2 Z" style="fill:#8b9cbe;opacity:.1"/>
 <path d="m16.061523 6.4826406c-0.285913-0.00332-0.56791 0.021957-0.84082 0.078613-0.675299 0.140192-1.579506 0.567671-2.026855 0.9604494-0.527431 0.4630862-0.441361 0.7586803 0.126465 0.4340819 0.25834-0.1476808 1.583189-0.1814045 2.009765-0.051269 0.357861 0.109172 0.0898 0.1753328-0.885254 0.21875-0.741355 0.033011-0.8873 0.070199-1.237304 0.317871-0.594312 0.4205506-0.637939 0.5388579-0.334961 0.8989259 0.140978 0.167545 0.280637 0.4198528 0.311035 0.5605468 0.10364 0.4796914 0.419944 1.1655264 0.536621 1.1655264 0.04374 0 0.07861 0.07011 0.07861 0.157227 0 0.293785-0.364444-0.140075-0.563965-0.673339-0.1599-0.427381-0.735306-1.2065436-0.892087-1.2065436-0.03011 0-0.07872 0.06367-0.109375 0.1435543-0.08499 0.2214904 0.233043 0.8134763 0.4375 0.8134763 0.268152 0 0.576763 1.01942 0.485352 1.603027-0.02685 0.171404-0.01903 0.548235 0.0171 0.837402l0.06493 0.526368h0.464844c0.255637 0 0.521754 0.05525 0.591309 0.123046 0.06955 0.06779 0.29873 0.200268 0.509277 0.293946 0.210547 0.09368 0.468945 0.209127 0.574219 0.256347 0.105273 0.04722 0.320605 0.09778 0.478515 0.112793 0.415054 0.03947 0.356412 0.203136-0.215332 0.587892-0.490719 0.33023-0.521397 0.334759-1.196289 0.280273-0.444385-0.03588-0.783799-0.118435-0.946777-0.232422-0.287684-0.201206-0.490647-0.222118-0.758789-0.07861-0.245746 0.131519-0.259118 0.662758-0.0171 0.67334 0.38655 0.01691 0.552046 0.09331 0.806641 0.365722 0.205751 0.220154 0.27002 0.381581 0.27002 0.687012 0 0.377649-0.01207 0.396787-0.246094 0.352051-0.214518-0.04101-0.242212-0.02277-0.194824 0.153809 0.03005 0.111986 0.05739 0.39056 0.0581 0.618653 0.0017 0.539869 0.156854 0.492233 0.509277-0.157227 0.148092-0.272909 0.309591-0.495606 0.358887-0.495606 0.0493 0 0.09062 0.226099 0.09228 0.502442l0.0034 0.502441 0.23584-0.27002c0.292654-0.332642 0.292121-0.361528-0.0034-0.63916-0.276541-0.259797-0.351567-0.957031-0.102539-0.957031 0.07585 0 0.166911 0.04631 0.20166 0.102539 0.03475 0.05623 0.118499 0.08004 0.18457 0.05469 0.08353-0.03206 0.116454 0.06047 0.109375 0.297363-0.01645 0.550482 0.19589 0.474047 0.635742-0.229004l0.406739-0.652832 0.03076 0.512695c0.03707 0.648342-0.01325 0.775879-0.307617 0.775879-0.325308 0-0.405174 0.172463-0.181152 0.396485 0.121084 0.121084 0.375099 0.206955 0.721191 0.242675 0.630401 0.06506 0.665713 0.282782 0.06152 0.379395-0.204776 0.03275-0.372533 0.09764-0.372533 0.143549 0 0.04591-0.123686 0.08203-0.273437 0.08203-0.154919 0-0.34785 0.08749-0.451172 0.201661-0.154132 0.170313-0.252704 0.191402-0.639161 0.140136-0.44067-0.05846-0.454589-0.05309-0.454589 0.184571 0 0.272382 0.238361 0.421307 0.406738 0.252929 0.05963-0.05963 0.188231-0.109375 0.283691-0.109375s0.257745-0.05433 0.362305-0.119628c0.152324-0.09513 0.232271-0.09358 0.393066 0.0068 0.110375 0.06893 0.401073 0.117686 0.645996 0.109375 0.605229-0.02053 0.658406-0.0083 0.492188 0.09912-0.07896 0.05103-0.279791 0.0949-0.447754 0.0957-0.167963 7.66e-4 -0.333191 0.04307-0.365723 0.0957-0.03253 0.05264-0.230142 0.0957-0.440918 0.0957-0.374709 0-0.384791 0.0069-0.355468 0.311035 0.02987 0.309807 0.03371 0.310914 0.505859 0.280274 0.394818-0.02562 0.753607-0.137447 1.223633-0.379395 0.03948-0.02032 0.07178 0.02758 0.07178 0.105957 0 0.162045-0.816375 0.735675-1.045898 0.734864-0.606793-0.0021-1.204536-0.415558-1.086915-0.751959 0.04352-0.124479 0.03063-0.13261-0.06836-0.04102-0.0864 0.07995-0.178068 0.08618-0.300782 0.02051-0.211491-0.113186-0.560547 0.03973-0.560547 0.246094 0 0.222491 0.777909 1.195654 0.994629 1.244142 0.110028 0.02462 0.416993 0.05803 0.680176 0.07177 0.402123 0.02102 0.478516 0.05504 0.478516 0.211915 0 0.136587-0.134022 0.239298-0.502442 0.382812-0.406569 0.158375-0.570241 0.289746-0.84082 0.693849-0.395638 0.590872-0.877581 1.09103-1.367188 1.415038-0.438909 0.290456-1.382615 0.620117-1.777343 0.62207-0.162829 7.67e-4 -0.362888 0.04294-0.440918 0.09228-0.119683 0.07567-0.103355 0.133052 0.102539 0.358887 0.134239 0.147244 0.320401 0.385034 0.410157 0.529786 0.309761 0.499556-0.06276 0.313544-1.6987309-0.847657-0.3234864-0.229549-1.5615184-1.771907-2.0268571-2.525816-0.3244941-0.525719-0.3842704-0.574218-0.6938477-0.574216-0.1857615 0-0.4149789-0.06848-0.5092773-0.153808-0.1716628-0.155348-0.4648438-0.126018-0.4648438 0.04785 0 0.158393 1.1432644 1.549135 2.0029297 2.437012 0.8623849 0.890685 1.9332151 1.762771 2.7958981 2.272949 0.52754 0.311977 1.612804 0.755369 1.845704 0.755371 0.264499 0 0.233258-0.303992-0.07861-0.79297-0.413603-0.648471-0.753755-1.317535-0.697266-1.374023 0.08171-0.08171 0.734864 0.559279 0.734864 0.721192 0 0.155575 0.770548 1.278227 1.172363 1.708984 0.252061 0.270217 0.810201 0.296756 0.912598 0.04443 0.03778-0.0931 0.248949-0.405329 0.468261-0.693848 0.219313-0.288518 0.513977-0.824413 0.65625-1.19287 0.142272-0.368458 0.298357-0.770063 0.345215-0.892091 0.102597-0.267179 0.491767-0.257423 0.543457 0.01365 0.01833 0.09611-0.246351 0.657576-0.58789 1.247558-0.341541 0.589979-0.634444 1.179312-0.652832 1.309082l-0.03418 0.23584 1.004883-0.01033c2.713854-0.02879 5.482154-1.199513 7.598144-3.216307 0.640564-0.610537 0.726647-0.738292 0.72461-1.032227-0.0033-0.469945-0.28748-1.047989-0.693847-1.404785-0.424594-0.372797-1.626284-1.083496-1.832033-1.083496-0.195456 0-0.188083 0.07985 0.03418 0.444335 0.180094 0.295348 0.178781 0.303224-0.0068 0.6084l-0.187989 0.307617-0.820312-0.06836-0.816895-0.06836-0.362304 0.355468c-0.402103 0.392639-0.765625 0.404249-0.765625 0.02392 0-0.111493-0.09425-0.302211-0.208497-0.423829-0.26472-0.281782-0.149216-0.414608 0.136719-0.15722 0.358006 0.322271 0.432852 0.332782 0.683593 0.08202 0.132598-0.132597 0.333209-0.242676 0.444336-0.242676 0.111125 0 0.27969-0.04074 0.375977-0.09228 0.127172-0.06806 0.205193-0.05497 0.290526 0.04784 0.135975 0.163852 0.599048 0.185034 0.868164 0.04102 0.182903-0.0979 0.181595-0.105613-0.0068-0.475097-0.1425-0.279081-0.350452-0.460241-0.816913-0.721101-0.343952-0.192349-0.819777-0.556792-1.059571-0.810058-0.560267-0.59175-0.929066-0.759569-1.179198-0.533203-0.241425 0.218488-0.303313 0.500317-0.140137 0.635742 0.07352 0.06102 0.133301 0.215937 0.133301 0.341797 0 0.125861 0.05465 0.312947 0.119628 0.416992 0.09928 0.158968 0.08018 0.261847-0.119628 0.635742-0.130774 0.244715-0.411523 0.568791-0.62207 0.721191-0.644957 0.466837-0.68744 0.519405-0.751953 0.922852-0.03437 0.214947-0.141988 0.444028-0.239258 0.512696-0.09727 0.06867-0.250234 0.26643-0.338379 0.4375-0.133739 0.259556-0.214088 0.311034-0.48877 0.311034-0.181037 0-0.526993 0.06821-0.769043 0.150395-0.242048 0.08218-0.534326 0.13601-0.649414 0.11963-0.262096-0.03731-0.275097-0.303444-0.0171-0.345215 0.105273-0.01697 0.355258-0.09511 0.553711-0.170905 0.19846-0.0758 0.461052-0.136717 0.58448-0.136717 0.321505 0 0.678786-0.316365 0.919434-0.813477 0.114565-0.236661 0.248571-0.430661 0.297363-0.430664 0.04879 0 0.16166-0.150728 0.249512-0.334961 0.08785-0.184228 0.190931-0.334961 0.232421-0.334961 0.124166 0 0.751954-0.986762 0.751954-1.182617 0-0.09976-0.08686-0.324332-0.194825-0.499023-0.178872-0.289422-0.185589-0.34378-0.05811-0.587891 0.07695-0.147343 0.274891-0.392276 0.4375-0.546875 0.16261-0.154598 0.293945-0.343028 0.293945-0.416992 0-0.07396 0.08384-0.237666 0.184571-0.365723 0.100728-0.128056 0.235211-0.545975 0.300781-0.926269 0.137113-0.795251 0.292521-1.148975 0.645995-1.476563 0.231961-0.214975 0.251603-0.302022 0.287111-1.186035 0.0322-0.801839 0.01452-0.973732-0.116218-1.069824-0.126266-0.09286-0.163557-0.369806-0.205072-1.456055-0.05888-1.5404587-0.06225-1.555167-0.461426-2.221679-0.371402-0.6201412-0.582926-0.646121-1.049316-0.1298827-0.252569 0.2795639-0.323813 0.4321875-0.283691 0.5981444 0.04351 0.1799644 0.02892 0.2000054-0.07178 0.1059571-0.217379-0.2029542-0.134955-0.6305968 0.232377-1.2031 0.470076-0.7326319 0.444211-0.9754903-0.157226-1.3774415-0.751972-0.5025566-1.640796-0.7761754-2.498536-0.7861327zm2.334473 7.5400384c0.413251-0.0019 0.820867 0.03132 0.888672 0.09912 0.09725 0.09726-0.608789 0.581054-0.847656 0.581054-0.105121 0-0.139055 0.07658-0.119629 0.259766 0.047 0.443197-0.262918 0.386497-0.792969-0.143555-0.260115-0.260114-0.47168-0.54624-0.47168-0.63916 0-0.139323 0.02517-0.14952 0.143555-0.05127 0.113739 0.09439 0.174632 0.09335 0.287109 0 0.08254-0.0685 0.499346-0.104041 0.912598-0.105957zm-0.710937 1.777344c0.11634 0.04079 0.295955 0.283824 0.444336 0.625488 0.186488 0.429415 0.186483 0.429366 0.331542 0.215332 0.156121-0.230357 0.498568-0.29385 0.516114-0.0957 0.02998 0.33857-0.04902 0.607097-0.211914 0.721192-0.09994 0.07-0.181153 0.201982-0.181153 0.293945 0 0.158811-0.554879 0.779297-0.697265 0.779297-0.03697 0-0.06836-0.06303-0.06836-0.140137 0-0.0771 0.08613-0.186335 0.191407-0.242676 0.196921-0.105388 0.266278-0.382812 0.0957-0.382812-0.05264 0-0.0957 0.04307-0.0957 0.0957 0 0.05264-0.08613 0.0957-0.191407 0.0957-0.255577 0-0.242932-0.156833 0.02393-0.297363 0.443514-0.233562 0.474591-0.494326 0.05469-0.451172-0.181522 0.01865-0.317862-0.0172-0.341797-0.08887-0.02197-0.0658 0.02945-0.119628 0.112793-0.119628 0.189518 0 0.192564-0.277489 0.01026-0.628906-0.07626-0.146995-0.113759-0.302825-0.08545-0.348633 0.02161-0.03496 0.0535-0.04436 0.09229-0.03076z" style="opacity:.2"/>
 <path d="m16.061523 5.4829102c-0.285913-0.00332-0.56791 0.021957-0.84082 0.078613-0.675299 0.140192-1.579506 0.567671-2.026855 0.9604494-0.527431 0.4630862-0.441361 0.7586803 0.126465 0.4340819 0.25834-0.1476808 1.583189-0.1814045 2.009765-0.051269 0.357861 0.109172 0.0898 0.1753328-0.885254 0.21875-0.741355 0.033011-0.8873 0.070199-1.237304 0.317871-0.594312 0.4205506-0.637939 0.5388579-0.334961 0.8989259 0.140978 0.167545 0.280637 0.4198528 0.311035 0.5605468 0.10364 0.4796911 0.419944 1.1655268 0.536621 1.1655268 0.04374 0 0.07861 0.07011 0.07861 0.157227 0 0.293785-0.364444-0.140075-0.563965-0.6733394-0.1599-0.4273813-0.735306-1.2065436-0.892087-1.2065436-0.03011 0-0.07872 0.06367-0.109375 0.1435543-0.08499 0.2214904 0.233043 0.8134766 0.4375 0.8134766 0.268152 0 0.576763 1.0194201 0.485352 1.6030271-0.02685 0.171404-0.01903 0.548235 0.0171 0.837402l0.06493 0.526368h0.464844c0.255637 0 0.521754 0.05525 0.591309 0.123046 0.06955 0.06779 0.29873 0.200268 0.509277 0.293946 0.210547 0.09368 0.468945 0.209127 0.574219 0.256347 0.105273 0.04722 0.320605 0.09778 0.478515 0.112793 0.415054 0.03947 0.356412 0.203136-0.215332 0.587892-0.490719 0.33023-0.521397 0.334759-1.196289 0.280273-0.444385-0.03588-0.783799-0.118435-0.946777-0.232422-0.287684-0.201206-0.490647-0.222118-0.758789-0.07861-0.245746 0.131519-0.259118 0.662758-0.0171 0.67334 0.38655 0.01691 0.552046 0.09331 0.806641 0.365722 0.205751 0.220154 0.27002 0.381581 0.27002 0.687012 0 0.377649-0.01207 0.396787-0.246094 0.352051-0.214518-0.04101-0.242212-0.02277-0.194824 0.153809 0.03005 0.111986 0.05739 0.39056 0.0581 0.618653 0.0017 0.539869 0.156854 0.492233 0.509277-0.157227 0.148092-0.272909 0.309591-0.495606 0.358887-0.495606 0.0493 0 0.09062 0.226099 0.09228 0.502442l0.0034 0.502441 0.23584-0.27002c0.292654-0.332642 0.292121-0.361528-0.0034-0.63916-0.276541-0.259797-0.351567-0.957031-0.102539-0.957031 0.07585 0 0.166911 0.04631 0.20166 0.102539 0.03475 0.05623 0.118499 0.08004 0.18457 0.05469 0.08353-0.03206 0.116454 0.06047 0.109375 0.297363-0.01645 0.550482 0.19589 0.474047 0.635742-0.229004l0.406739-0.652832 0.03076 0.512695c0.03707 0.648342-0.01325 0.775879-0.307617 0.775879-0.325308 0-0.405174 0.172463-0.181152 0.396485 0.121084 0.121084 0.375099 0.206955 0.721191 0.242675 0.630401 0.06506 0.665713 0.282782 0.06152 0.379395-0.204776 0.032745-0.372533 0.097639-0.372533 0.143549s-0.123686 0.08203-0.273437 0.08203c-0.154919 0-0.34785 0.08749-0.451172 0.201661-0.154132 0.170313-0.252704 0.191402-0.639161 0.140136-0.44067-0.05846-0.454589-0.05309-0.454589 0.184571 0 0.272382 0.238361 0.421307 0.406738 0.252929 0.05963-0.05963 0.188231-0.109375 0.283691-0.109375s0.257745-0.05433 0.362305-0.119628c0.152324-0.09513 0.232271-0.09358 0.393066 0.0068 0.110375 0.06893 0.401073 0.117686 0.645996 0.109375 0.605229-0.02053 0.658406-0.0083 0.492188 0.09912-0.07896 0.05103-0.279791 0.0949-0.447754 0.0957-0.167963 7.66e-4 -0.333191 0.04307-0.365723 0.0957-0.03253 0.05264-0.230142 0.0957-0.440918 0.0957-0.374709 0-0.384791 0.0069-0.355468 0.311035 0.02987 0.309807 0.03371 0.310914 0.505859 0.280274 0.394818-0.02562 0.753607-0.137447 1.223633-0.379395 0.03948-0.02032 0.07178 0.02758 0.07178 0.105957 0 0.162045-0.816375 0.735675-1.045898 0.734864-0.606793-0.0021-1.204536-0.415558-1.086915-0.751959 0.04352-0.124479 0.03063-0.13261-0.06836-0.04102-0.0864 0.07995-0.178068 0.08618-0.300782 0.02051-0.211491-0.113186-0.560547 0.03973-0.560547 0.246094 0 0.222491 0.777909 1.195654 0.994629 1.244142 0.110028 0.02462 0.416993 0.05803 0.680176 0.07177 0.402123 0.02102 0.478516 0.05504 0.478516 0.211915 0 0.136587-0.134022 0.239298-0.502442 0.382812-0.406569 0.158375-0.570241 0.289746-0.84082 0.693849-0.395638 0.590872-0.877581 1.09103-1.367188 1.415038-0.438909 0.290456-1.382615 0.620117-1.777343 0.62207-0.162829 7.67e-4 -0.362888 0.04294-0.440918 0.09228-0.119683 0.07567-0.103355 0.133052 0.102539 0.358887 0.134239 0.147244 0.320401 0.385034 0.410157 0.529786 0.309761 0.499556-0.06276 0.313544-1.6987309-0.847657-0.3234864-0.229549-1.5615184-1.771907-2.0268571-2.525816-0.3244941-0.525719-0.3842704-0.574218-0.6938477-0.574216-0.1857615 0-0.4149789-0.06848-0.5092773-0.153808-0.1716628-0.155348-0.4648438-0.126018-0.4648438 0.04785 0 0.158393 1.1432644 1.549135 2.0029297 2.437012 0.8623849 0.890685 1.9332151 1.762771 2.7958981 2.272949 0.52754 0.311977 1.612804 0.755369 1.845704 0.755371 0.264499 0 0.233258-0.303992-0.07861-0.79297-0.413603-0.648471-0.753755-1.317535-0.697266-1.374023 0.08171-0.08171 0.734864 0.559279 0.734864 0.721192 0 0.155575 0.770548 1.278227 1.172363 1.708984 0.252061 0.270217 0.810201 0.296756 0.912598 0.04443 0.03778-0.0931 0.248949-0.405329 0.468261-0.693848 0.219313-0.288518 0.513977-0.824413 0.65625-1.19287 0.142272-0.368458 0.298357-0.770063 0.345215-0.892091 0.102597-0.267179 0.491767-0.257423 0.543457 0.01365 0.01833 0.09611-0.246351 0.657576-0.58789 1.247558-0.341541 0.589979-0.634444 1.179312-0.652832 1.309082l-0.03418 0.23584 1.004883-0.01033c2.713854-0.02879 5.482154-1.199513 7.598144-3.216307 0.640564-0.610537 0.726647-0.738292 0.72461-1.032227-0.0033-0.469945-0.28748-1.047989-0.693847-1.404785-0.424594-0.372797-1.626284-1.083496-1.832033-1.083496-0.195456 0-0.188083 0.07985 0.03418 0.444335 0.180094 0.295348 0.178781 0.303224-0.0068 0.6084l-0.187989 0.307617-0.820312-0.06836-0.816895-0.06836-0.362304 0.355468c-0.402103 0.392639-0.765625 0.404249-0.765625 0.02392 0-0.111493-0.09425-0.302211-0.208497-0.423829-0.26472-0.281782-0.149216-0.414608 0.136719-0.15722 0.358006 0.322271 0.432852 0.332782 0.683593 0.08202 0.132598-0.132597 0.333209-0.242676 0.444336-0.242676 0.111125 0 0.27969-0.04074 0.375977-0.09228 0.127172-0.06806 0.205193-0.05497 0.290526 0.04784 0.135975 0.163852 0.599048 0.185034 0.868164 0.04102 0.182903-0.0979 0.181595-0.105613-0.0068-0.475097-0.1425-0.279081-0.350452-0.460241-0.816913-0.721101-0.343952-0.192349-0.819777-0.556792-1.059571-0.810058-0.560267-0.59175-0.929066-0.759569-1.179198-0.533203-0.241425 0.218488-0.303313 0.500317-0.140137 0.635742 0.07352 0.06102 0.133301 0.215937 0.133301 0.341797 0 0.125861 0.05465 0.312947 0.119628 0.416992 0.09928 0.158968 0.08018 0.261847-0.119628 0.635742-0.130774 0.244715-0.411523 0.568791-0.62207 0.721191-0.644957 0.466837-0.68744 0.519405-0.751953 0.922852-0.03437 0.214947-0.141988 0.444028-0.239258 0.512696-0.09727 0.06867-0.250234 0.26643-0.338379 0.4375-0.133739 0.259556-0.214088 0.311034-0.48877 0.311034-0.181037 0-0.526993 0.06821-0.769043 0.150395-0.242048 0.08218-0.534326 0.13601-0.649414 0.11963-0.262096-0.03731-0.275097-0.303444-0.0171-0.345215 0.105273-0.01697 0.355258-0.09511 0.553711-0.170905 0.19846-0.0758 0.461052-0.136717 0.58448-0.136717 0.321505 0 0.678786-0.316365 0.919434-0.813477 0.114565-0.236661 0.248571-0.430661 0.297363-0.430664 0.04879 0 0.16166-0.150728 0.249512-0.334961 0.08785-0.184228 0.190931-0.334961 0.232421-0.334961 0.124166 0 0.751954-0.986762 0.751954-1.182617 0-0.09976-0.08686-0.324332-0.194825-0.499023-0.178872-0.289422-0.185589-0.34378-0.05811-0.587891 0.07695-0.147343 0.274891-0.392276 0.4375-0.546875 0.16261-0.154598 0.293945-0.343028 0.293945-0.416992 0-0.07396 0.08384-0.237666 0.184571-0.365723 0.100728-0.128056 0.235211-0.545975 0.300781-0.926269 0.137113-0.795251 0.292521-1.148975 0.645995-1.476563 0.231961-0.214975 0.251603-0.302022 0.287111-1.186035 0.0322-0.801839 0.01452-0.973732-0.116218-1.069824-0.126266-0.09286-0.163557-0.369806-0.205072-1.456055-0.05888-1.5404591-0.06225-1.5551674-0.461426-2.2216794-0.371402-0.6201412-0.582926-0.646121-1.049316-0.1298827-0.252569 0.2795639-0.323813 0.4321875-0.283691 0.5981444 0.04351 0.1799644 0.02892 0.2000054-0.07178 0.1059571-0.217379-0.2029542-0.134955-0.6305968 0.232377-1.2031 0.470076-0.7326319 0.444211-0.9754903-0.157226-1.3774415-0.751972-0.5025566-1.640796-0.7761754-2.498536-0.7861327zm2.334473 7.5400388c0.413251-0.0019 0.820867 0.03132 0.888672 0.09912 0.09725 0.09726-0.608789 0.581054-0.847656 0.581054-0.105121 0-0.139055 0.07658-0.119629 0.259766 0.047 0.443197-0.262918 0.386497-0.792969-0.143555-0.260115-0.260114-0.47168-0.54624-0.47168-0.63916 0-0.139323 0.02517-0.14952 0.143555-0.05127 0.113739 0.09439 0.174632 0.09335 0.287109 0 0.08254-0.0685 0.499346-0.104041 0.912598-0.105957zm-0.710937 1.777344c0.11634 0.04079 0.295955 0.283824 0.444336 0.625488 0.186488 0.429415 0.186483 0.429366 0.331542 0.215332 0.156121-0.230357 0.498568-0.29385 0.516114-0.0957 0.02998 0.33857-0.04902 0.607097-0.211914 0.721192-0.09994 0.07-0.181153 0.201982-0.181153 0.293945 0 0.158811-0.554879 0.779297-0.697265 0.779297-0.03697 0-0.06836-0.06303-0.06836-0.140137 0-0.0771 0.08613-0.186335 0.191407-0.242676 0.196921-0.105388 0.266278-0.382812 0.0957-0.382812-0.05264 0-0.0957 0.04307-0.0957 0.0957 0 0.05264-0.08613 0.0957-0.191407 0.0957-0.255577 0-0.242932-0.156833 0.02393-0.297363 0.443514-0.233562 0.474591-0.494326 0.05469-0.451172-0.181522 0.01865-0.317862-0.0172-0.341797-0.08887-0.02197-0.0658 0.02945-0.119628 0.112793-0.119628 0.189518 0 0.192564-0.277489 0.01026-0.628906-0.07626-0.146995-0.113759-0.302825-0.08545-0.348633 0.02161-0.03496 0.0535-0.04436 0.09229-0.03076z" style="fill:#8b9cbe"/>
</svg>
