<svg xmlns="http://www.w3.org/2000/svg" width="32" height="32" version="1.1">
 <circle style="opacity:0.2" cx="16" cy="17" r="14"/>
 <circle style="fill:#b2bfd9" cx="16" cy="16" r="14"/>
 <path style="fill:#8b9cbe;opacity:0.2" d="M 16 2 A 14 14 0 0 0 2 16 A 14 14 0 0 0 2.0214844 16.585938 A 14 14 0 0 1 16 3 A 14 14 0 0 1 29.978516 16.414062 A 14 14 0 0 0 30 16 A 14 14 0 0 0 16 2 z"/>
 <path style="opacity:0.1" d="m 17.755654,27.047342 c -0.309657,-0.03802 -0.605442,-0.117662 -0.667321,-0.17951 -0.09345,-0.09347 -0.108545,-0.406569 -0.09476,-1.966289 0.01261,-1.427456 -0.0055,-1.872521 -0.07843,-1.930689 -0.05214,-0.04164 -0.606709,-0.336997 -1.232353,-0.656556 -0.625638,-0.319498 -1.124406,-0.594044 -1.108349,-0.610094 0.01605,-0.01629 1.098435,0.496414 2.405314,1.138791 4.848509,2.383235 4.259828,2.254772 4.53085,2.150807 0.06488,-0.02474 0.117964,-0.08369 0.117964,-0.130575 0,-0.04707 -0.782104,-0.635376 -2.104887,-1.307681 -1.322785,-0.672244 -2.467163,-1.276123 -2.543064,-1.341955 -0.123196,-0.10686 -0.132512,-0.192906 -0.0868,-0.802456 0.03807,-0.50806 0.01991,-0.836247 -0.07114,-1.28246 -0.06727,-0.329876 -0.112105,-0.777839 -0.09963,-0.995483 l 0.02269,-0.395767 0.167799,0.319195 c 0.09228,0.17559 0.167792,0.402164 0.167792,0.503414 0,0.39607 0.604658,0.651066 0.657727,0.277381 0.02951,-0.207991 0.163037,-0.219515 0.215581,-0.0187 0.05739,0.219395 0.170749,0.181501 0.170749,-0.05732 0,-0.270865 -0.245359,-0.727998 -0.589808,-1.098846 C 17.38319,18.498486 17.16321,18.2132 17.04673,18.028621 c -0.116486,-0.184519 -0.257016,-0.3624 -0.312318,-0.395225 -0.111429,-0.06607 -0.139053,-0.350513 -0.03403,-0.350513 0.132603,0 0.174014,-0.39987 0.05074,-0.490018 -0.06448,-0.04707 -0.117234,-0.185001 -0.117234,-0.306345 0,-0.121342 -0.05183,-0.395224 -0.115243,-0.608705 -0.06338,-0.213423 -0.09629,-0.418698 -0.07312,-0.45617 0.02317,-0.03741 0.0096,-0.212937 -0.03023,-0.389914 -0.04682,-0.208233 -0.04659,-0.193976 6.04e-4,-0.692985 0.09195,-0.970985 -0.07023,-1.335862 -0.398609,-1.85062 -0.130219,-0.203888 -0.274757,-0.480786 -0.321188,-0.615223 -0.08065,-0.233515 -0.07609,-0.244496 0.101805,-0.244496 0.220674,0 0.648222,-0.431369 0.812118,-0.819293 0.0604,-0.143005 0.183728,-0.338807 0.27405,-0.435109 0.13113,-0.139807 0.162271,-0.256866 0.154488,-0.5807696 -0.02076,-0.8641241 -0.837527,-1.461789 -1.552522,-1.1360146 -0.158699,0.072287 -0.214706,0.063721 -0.343272,-0.052493 -0.126544,-0.1145249 -0.178992,-0.1232133 -0.297589,-0.048874 -0.07918,0.049476 -0.192496,0.089907 -0.251816,0.089907 -0.05931,0 -0.131601,0.074821 -0.160636,0.1662962 -0.02902,0.091475 -0.146909,0.2542106 -0.261971,0.3617362 -0.14213,0.1327473 -0.196563,0.243712 -0.169802,0.3460478 0.02625,0.1004654 -0.03729,0.2380399 -0.190492,0.4125422 -0.251773,0.2867948 -0.290838,0.4285928 -0.118049,0.4285928 0.216222,0 0.108527,0.130213 -0.207574,0.250892 -0.406026,0.155073 -0.426318,0.153565 -0.426318,-0.03137 0,-0.08436 -0.03802,-0.304292 -0.08443,-0.488691 -0.07568,-0.300551 -0.104696,-0.3330142 -0.279656,-0.3126799 l -0.195296,0.022323 v 0.7415739 0.741575 l -0.316952,0.214206 c -0.174322,0.117783 -0.316947,0.243289 -0.316947,0.27889 0,0.0356 -0.100387,0.226273 -0.223075,0.423826 -0.161137,0.259521 -0.236501,0.49382 -0.271432,0.84397 -0.02661,0.266581 -0.09793,0.582942 -0.158512,0.702958 -0.06647,0.131661 -0.05482,0.320467 -0.0775,0.796426 -0.03367,0.706638 -0.05659,0.409448 -0.220861,0.58564 -0.161704,0.173476 -0.174249,0.226154 -0.106566,0.447419 0.255629,0.835764 0.5052,1.422025 0.771208,1.811698 0.526384,0.771202 1.102822,1.771875 1.060307,1.840662 -0.07683,0.1243 -0.181303,0.06662 -0.183952,-0.101551 -0.0018,-0.09226 -0.04339,-0.236955 -0.09322,-0.321429 -0.169765,-0.288062 -0.537814,-0.703983 -0.622953,-0.703983 -0.0467,0 -0.106735,-0.116276 -0.133393,-0.258376 -0.09173,-0.488931 -0.191971,-0.363123 -0.187559,0.235326 0.006,0.821644 0.07179,1.104397 0.256721,1.104397 0.107265,0 0.155773,0.05732 0.172746,0.205093 0.01653,0.143489 -0.0102,0.205095 -0.08882,0.205095 -0.06182,0 -0.133157,-0.03379 -0.158507,-0.07458 -0.02534,-0.04103 -0.140259,-0.07458 -0.255357,-0.07458 -0.115092,0 -0.289304,-0.06239 -0.387115,-0.138661 -0.09782,-0.07627 -0.339676,-0.162554 -0.537464,-0.191818 l -0.359612,-0.0531 0.05219,0.359624 c 0.05358,0.368978 0.107688,0.518439 0.107688,0.297475 0,-0.137876 0.259298,-0.173174 0.337884,-0.04586 0.02661,0.04284 0.330631,0.208654 0.675587,0.368011 0.34495,0.159418 0.627189,0.325533 0.627189,0.369158 0,0.04344 -0.0286,0.07941 -0.06355,0.07941 -0.09818,0 -0.243404,0.990656 -0.157758,1.076278 0.124354,0.12436 0.07949,0.48501 -0.07699,0.618964 -0.196115,0.167926 -0.218991,0.840351 -0.0286,0.840351 0.08947,0 0.108237,0.04344 0.07278,0.167804 -0.02631,0.09226 -0.06736,0.257108 -0.09128,0.366262 -0.02462,0.112473 -0.108063,0.215352 -0.19249,0.237437 -0.156762,0.04103 -0.152448,0.204008 0.0068,0.257107 0.05141,0.0169 0.112389,-0.04103 0.135488,-0.129489 0.05931,-0.226757 0.278177,-0.162977 0.307328,0.0896 0.02818,0.244254 0.04465,0.248056 0.237418,0.05551 0.08286,-0.08291 0.149154,-0.248599 0.149154,-0.372899 0,-0.123033 0.03355,-0.22374 0.07457,-0.22374 0.07587,0 0.100562,0.09292 0.0807,0.303871 -0.02045,0.217042 0.21426,0.985769 0.345136,1.130403 0.123974,0.136971 0.121597,0.149341 -0.05437,0.282088 -0.163834,0.123516 -0.16976,0.144273 -0.054,0.188683 0.07151,0.02715 0.130026,0.123515 0.130026,0.213421 0,0.238462 0.141231,0.342548 0.464706,0.342548 0.353935,0 0.420043,0.133532 0.273393,0.552168 -0.103096,0.294277 -0.117838,0.304716 -0.403902,0.286131 -0.505211,-0.03319 -0.960179,-0.180356 -1.145295,-0.37115 C 11.742112,26.269326 11.63898,26.22896 11.498588,26.25581 11.229666,26.3071 10.951174,26.144785 10.66307,25.768567 10.252513,25.232506 9.7491535,24.735851 9.474463,24.595863 9.1837103,24.447729 8.6556539,24.326144 8.0376246,24.256935 7.6320698,24.21168 7.2680763,23.926274 7.2680763,23.766555 c 0,-0.04224 -0.1196174,-0.127257 -0.2658026,-0.188381 C 6.6089381,23.413869 6.143182,23.054848 5.9842652,22.793517 5.6734015,22.282381 5.6049464,21.917325 5.6641874,21.086689 5.7576717,19.77593 5.7397209,19.647286 5.34738,18.816107 4.9954312,18.070489 4.9935664,18.062404 5.0019237,17.32065 c 0.00754,-0.672486 0.037709,-0.826292 0.3069962,-1.566057 0.1642326,-0.45122 0.3386439,-0.753015 0.3875858,-1.037093 0.1169805,-0.678942 0.217434,-0.903527 0.6035477,-1.349316 0.4675957,-0.539799 0.4765142,-0.767178 0.5254736,-1.481479 0.037653,-0.549392 0.058471,-0.611361 0.25368,-0.755693 0.2606254,-0.192726 0.2700446,-0.278347 0.030653,-0.278347 -0.3094644,0 -0.2716133,-0.104026 0.1870771,-0.514275 0.2433319,-0.217585 0.4424168,-0.4357728 0.4424168,-0.4848897 0,-0.108913 0.5347356,-0.6415311 0.6441197,-0.6415311 0.043204,0 0.139258,-0.067095 0.2134937,-0.1491595 0.074242,-0.082002 0.1982337,-0.1490993 0.2755473,-0.1490993 0.1642928,0 0.6287645,-0.050085 0.6995009,-0.1645497 0.026733,-0.043442 0.1090999,-0.059738 0.1830038,-0.036204 0.1881089,0.059738 0.5988237,-0.300069 0.5988237,-0.5245324 0,-0.1419796 0.12025,-0.3961874 0.3264,-0.4348652 0.140899,-0.026551 0.285008,-0.03017 0.320253,-0.00845 0.03524,0.021721 0.209251,-0.02534 0.386692,-0.1048698 0.458473,-0.2052155 1.869106,-0.4630472 2.150416,-0.3929926 0.122778,0.030772 0.167792,0.00905 0.167792,-0.080553 0,-0.1833115 0.15062,-0.2070254 0.550461,-0.086708 0.248629,0.074882 0.417321,0.086889 0.543744,0.038617 0.271994,-0.1033585 0.916862,-0.084473 1.334605,0.039221 0.202271,0.059738 0.681899,0.1594782 1.065834,0.2213862 0.383942,0.061971 0.745515,0.1519959 0.803495,0.2000866 0.05799,0.048272 0.125483,0.067459 0.149999,0.04284 0.0245,-0.024738 0.199881,0.033789 0.389716,0.1297912 0.189828,0.095939 0.561834,0.2297729 0.826683,0.2974132 0.264837,0.067578 0.533306,0.1682877 0.596602,0.2236794 0.114302,0.1001035 0.707924,0.4164643 0.781429,0.4164643 0.02112,0 0.0042,-0.089363 -0.03711,-0.1985774 -0.04152,-0.1092154 -0.04737,-0.2267566 -0.01297,-0.2611504 0.07855,-0.078562 0.709884,0.3123183 1.08113,0.6693477 0.23594,0.2269379 0.354453,0.2793728 0.745756,0.3299373 0.800575,0.1034831 0.814538,0.1026382 0.90323,-0.054908 0.04622,-0.082001 0.09151,-0.1621935 0.100647,-0.1781829 0.0091,-0.015687 0.131595,0.058527 0.272132,0.1658734 0.265338,0.2023791 0.335513,0.1834329 0.443738,-0.1198344 0.02595,-0.07271 0.106662,-0.1533224 0.179372,-0.1791489 0.07271,-0.025949 0.193955,-0.1001035 0.26944,-0.1651496 0.125688,-0.1081885 0.14522,-0.1072232 0.231952,0.011466 0.154337,0.2110682 0.313205,0.1523578 0.738685,-0.2730973 0.570957,-0.5709942 0.942946,-0.7373506 0.942946,-0.4217136 0,0.093103 -0.145944,0.2420824 -0.406901,0.4152575 -0.45586,0.302603 -0.860878,0.7275758 -0.860878,0.9032849 0,0.063903 -0.06712,0.201474 -0.149154,0.3058013 -0.08204,0.1042671 -0.149153,0.2850442 -0.149153,0.4017408 0,0.116697 -0.04761,0.338687 -0.105854,0.493338 -0.128391,0.340979 -0.193672,0.941539 -0.116016,1.067227 0.04134,0.06679 0.129127,0.0362 0.325654,-0.11374 0.311136,-0.237316 0.353241,-0.149884 0.08266,0.171726 -0.165433,0.196587 -0.256787,0.535636 -0.144338,0.535636 0.06521,0 0.436213,-0.455142 0.496173,-0.608707 0.0652,-0.16696 0.15815,-0.174502 0.283867,-0.02293 0.07849,0.09461 0.06544,0.145177 -0.07638,0.296147 -0.209971,0.223498 -0.134907,0.346109 0.28969,0.473365 0.160317,0.04827 0.307323,0.128946 0.32668,0.179872 0.108074,0.28408 -0.328267,0.702897 -0.648543,0.622465 -0.202488,-0.05069 -0.318286,0.06119 -0.207195,0.200447 0.03946,0.04948 0.09527,0.432093 0.123974,0.850307 0.694946,1.422053 1.305758,3.245298 1.325766,4.449623 l 0.02697,1.83692 -0.1957,0.232549 c -0.107634,0.12792 -0.239072,0.23261 -0.292074,0.23261 -0.19045,0 -0.481505,0.505887 -0.606022,1.053289 -0.06865,0.301819 -0.174315,0.624335 -0.23483,0.716654 -0.06828,0.104267 -0.301456,0.241539 -0.271219,0.362038 0.02848,0.113378 0.01104,0.239488 -0.04194,0.303328 -0.05104,0.06149 -0.100067,0.388044 -0.112213,0.747306 -0.01472,0.435713 -0.06039,0.697406 -0.143905,0.824843 -0.120148,0.183374 -0.133085,0.185605 -0.729965,0.124662 -0.937467,-0.09576 -1.868124,-0.07705 -2.488814,0.212516 -0.434433,0.202683 -0.732813,0.417611 -1.196777,0.861953 -0.846789,0.810904 -0.800319,0.93255 -1.69039,0.954394 -0.38965,0.0097 -0.958737,-0.01327 -1.264635,-0.05129 z m -5.534168,-1.029575 c 0.05931,-0.03741 0.09944,-0.201414 0.09944,-0.406087 0,-0.550478 -0.153227,-0.66621 -0.338596,-0.255719 -0.159834,0.354013 -0.211683,0.56665 -0.158989,0.65191 0.05629,0.09111 0.261983,0.09624 0.398145,0.0097 z m -1.106201,-1.16516 c 0,-0.06154 -0.05032,-0.111869 -0.111864,-0.111869 -0.06152,0 -0.111863,0.05009 -0.111863,0.111869 0,0.06154 0.05032,0.11187 0.111863,0.11187 0.06153,0 0.111864,-0.05008 0.111864,-0.11187 z M 9.3829513,23.981001 c -0.046102,-0.138298 -0.206633,-0.161228 -0.206633,-0.02957 0,0.06492 0.053158,0.118085 0.1180788,0.118085 0.064946,0 0.1047914,-0.03982 0.088554,-0.08858 z m 1.0367377,-1.197863 c -0.02299,-0.09232 -0.06885,-0.278528 -0.101913,-0.413869 -0.03307,-0.135342 -0.09367,-0.252763 -0.134685,-0.261031 -0.105558,-0.02112 -0.133796,0.402406 -0.04278,0.641773 0.09589,0.25222 0.341209,0.281304 0.279379,0.03319 z M 10.19674,20.923409 c -0.02377,-0.05974 -0.04145,-0.04164 -0.04507,0.04525 -0.003,0.07862 0.01442,0.12267 0.03916,0.09787 0.0248,-0.02474 0.02745,-0.08912 0.006,-0.142944 z m 0.04019,-0.63248 -0.07571,-0.285709 -0.0077,0.369097 c -0.0055,0.272193 0.01418,0.347256 0.07571,0.285769 0.05937,-0.05974 0.06161,-0.165753 0.0077,-0.369157 z M 25.594895,12.45426 c 0.07903,-0.05974 0.12255,-0.129911 0.09669,-0.155737 -0.08323,-0.08327 -0.426843,0.04465 -0.426843,0.158754 0,0.139264 0.143777,0.137996 0.330148,-0.006 z M 14.073449,26.853712 c -0.07391,-0.07392 -0.06016,-0.50975 0.02299,-0.728481 0.06581,-0.173054 0.111472,-0.191277 0.479671,-0.191277 0.364047,0 0.42318,-0.02293 0.561158,-0.216619 0.08483,-0.119111 0.154229,-0.251374 0.154229,-0.293854 0,-0.172753 0.159423,-0.157305 0.335265,0.03259 0.139029,0.150065 0.186769,0.283416 0.186769,0.521818 0,0.176191 -0.03355,0.341039 -0.07458,0.366382 -0.04103,0.02534 -0.07457,0.0084 -0.07457,-0.03741 0,-0.04586 -0.03355,-0.06264 -0.07457,-0.03741 -0.04103,0.02534 -0.07458,0.125205 -0.07458,0.22199 0,0.317749 -0.07751,0.411879 -0.339169,0.411879 -0.136748,0 -0.269374,-0.03379 -0.294723,-0.07458 -0.02534,-0.04103 -0.126026,-0.07458 -0.223727,-0.07458 -0.0977,0 -0.19838,0.03379 -0.223728,0.07458 -0.05207,0.0843 -0.284972,0.100346 -0.360445,0.02474 z m -0.04972,-5.095987 c 0,-0.04103 0.03355,-0.07458 0.07457,-0.07458 0.04103,0 0.07457,0.03379 0.07457,0.07458 0,0.04103 -0.03355,0.07458 -0.07457,0.07458 -0.04103,0 -0.07457,-0.03379 -0.07457,-0.07458 z m 0.310291,-0.85803 c 0.01587,-0.139324 0.07393,-0.231282 0.155803,-0.246789 0.179746,-0.03439 0.165114,0.155495 -0.02528,0.327765 -0.15491,0.140229 -0.155653,0.139747 -0.130503,-0.08098 z m -1.564313,-3.855041 c -0.06499,-0.213542 -0.100689,-1.402112 -0.04212,-1.402112 0.03578,0 0.227052,0.465882 0.328326,0.799802 0.101431,0.334462 0.03494,0.766494 -0.126224,0.820197 -0.04677,0.01569 -0.118767,-0.08242 -0.159973,-0.217887 z M 26.23422,13.207842 c 0,-0.06499 0.05316,-0.118085 0.118079,-0.118085 0.131703,0 0.108756,0.160503 -0.02951,0.206603 -0.04869,0.01629 -0.08856,-0.02353 -0.08856,-0.08852 z m 0.615247,-0.689502 c -0.178678,-0.0721 -0.103663,-0.500577 0.139222,-0.795216 0.201981,-0.24504 0.267938,-0.279071 0.503384,-0.2594 0.405235,0.03379 0.387042,0.238703 -0.06329,0.712491 -0.372869,0.392268 -0.406207,0.411939 -0.579322,0.342125 z m -14.23833,-0.795028 c 0,-0.113015 0.527495,-0.268149 0.614801,-0.180838 0.05424,0.05431 0.01225,0.09268 -0.137919,0.126352 -0.118724,0.02655 -0.274599,0.06426 -0.346374,0.08369 -0.07178,0.01931 -0.130508,0.0067 -0.130508,-0.02897 z m 13.20691,-1.02747 c 0.228892,-0.209198 0.416174,-0.425335 0.416174,-0.480365 0,-0.141073 0.147144,-0.215171 0.240991,-0.121343 0.203532,0.203526 -0.515355,0.982088 -0.906827,0.982088 -0.139668,0 -0.0994,-0.06136 0.249662,-0.38038 z M 6.620854,10.330424 c 0,-0.04103 0.067116,-0.07458 0.1491476,-0.07458 0.082032,0 0.1491539,0.03379 0.1491539,0.07458 0,0.04103 -0.067123,0.07458 -0.1491539,0.07458 -0.082032,0 -0.1491476,-0.03379 -0.1491476,-0.07458 z m 7.632602,-0.4355843 c 0.0024,-0.1321439 0.276754,-0.4735458 0.33433,-0.4159813 0.06241,0.062391 -0.168655,0.5092059 -0.263329,0.5092059 -0.03994,0 -0.07191,-0.042238 -0.071,-0.093225 z M 26.853909,9.7609981 c -0.105232,-0.2742432 0.304028,-0.5181967 0.540336,-0.3220322 0.137714,0.1142827 0.135771,0.181622 -0.0094,0.3268594 -0.153275,0.1532629 -0.471355,0.150367 -0.53091,-0.00602 z M 19.199262,7.2231124 c -0.166828,-0.1667782 0.134979,-0.6064131 0.357675,-0.5209719 0.136175,0.052493 0.151972,0.3543743 0.02516,0.4812084 -0.0975,0.097509 -0.303665,0.1189293 -0.382819,0.039823 z m -8.72534,-0.2237393 c -0.0783,-0.07826 -0.05804,-0.3091802 0.03204,-0.3648735 0.119092,-0.073554 0.304921,0.1428238 0.248624,0.2895095 -0.04887,0.1273166 -0.190631,0.165391 -0.28064,0.075364 z"/>
 <path style="fill:#9e2323" d="m 17.755654,26.047342 c -0.309657,-0.03802 -0.605442,-0.117662 -0.667321,-0.17951 -0.09345,-0.09347 -0.108545,-0.406569 -0.09476,-1.966289 0.01261,-1.427456 -0.0055,-1.872521 -0.07843,-1.930689 -0.05214,-0.04164 -0.606709,-0.336997 -1.232353,-0.656556 -0.625638,-0.319498 -1.124406,-0.594044 -1.108349,-0.610094 0.01605,-0.01629 1.098435,0.496414 2.405314,1.138791 4.848509,2.383235 4.259828,2.254772 4.53085,2.150807 0.06488,-0.02474 0.117964,-0.08369 0.117964,-0.130575 0,-0.04707 -0.782104,-0.635376 -2.104887,-1.307681 -1.322785,-0.672244 -2.467163,-1.276123 -2.543064,-1.341955 -0.123196,-0.10686 -0.132512,-0.192906 -0.0868,-0.802456 0.03807,-0.50806 0.01991,-0.836247 -0.07114,-1.28246 -0.06727,-0.329876 -0.112105,-0.777839 -0.09963,-0.995483 l 0.02269,-0.395767 0.167799,0.319195 c 0.09228,0.17559 0.167792,0.402164 0.167792,0.503414 0,0.39607 0.604658,0.651066 0.657727,0.277381 0.02951,-0.207991 0.163037,-0.219515 0.215581,-0.0187 0.05739,0.219395 0.170749,0.181501 0.170749,-0.05732 0,-0.270865 -0.245359,-0.727998 -0.589808,-1.098846 C 17.38319,17.498486 17.16321,17.2132 17.04673,17.028621 c -0.116486,-0.184519 -0.257016,-0.3624 -0.312318,-0.395225 -0.111429,-0.06607 -0.139053,-0.350513 -0.03403,-0.350513 0.132603,0 0.174014,-0.39987 0.05074,-0.490018 -0.06448,-0.04707 -0.117234,-0.185001 -0.117234,-0.306345 0,-0.121342 -0.05183,-0.395224 -0.115243,-0.608705 -0.06338,-0.213423 -0.09629,-0.418698 -0.07312,-0.45617 0.02317,-0.03741 0.0096,-0.212937 -0.03023,-0.389914 -0.04682,-0.208233 -0.04659,-0.193976 6.04e-4,-0.692985 0.09195,-0.970985 -0.07023,-1.335862 -0.398609,-1.85062 -0.130219,-0.203888 -0.274757,-0.480786 -0.321188,-0.615223 -0.08065,-0.233515 -0.07609,-0.244496 0.101805,-0.244496 0.220674,0 0.648222,-0.431369 0.812118,-0.8192931 0.0604,-0.1430051 0.183728,-0.338807 0.27405,-0.4351088 0.13113,-0.1398075 0.162271,-0.2568664 0.154488,-0.5807697 -0.02076,-0.8641241 -0.837527,-1.461789 -1.552522,-1.1360146 -0.158699,0.072287 -0.214706,0.063721 -0.343272,-0.052493 -0.126544,-0.1145249 -0.178992,-0.1232133 -0.297589,-0.048874 -0.07918,0.049476 -0.192496,0.089907 -0.251816,0.089907 -0.05931,0 -0.131601,0.074821 -0.160636,0.1662962 -0.02902,0.091475 -0.146909,0.2542106 -0.261971,0.3617362 -0.14213,0.1327473 -0.196563,0.243712 -0.169802,0.3460478 0.02625,0.1004654 -0.03729,0.2380399 -0.190492,0.4125422 -0.251773,0.2867949 -0.290838,0.4285925 -0.118049,0.4285925 0.216222,0 0.108527,0.1302133 -0.207574,0.2508926 -0.406026,0.1550731 -0.426318,0.1535646 -0.426318,-0.031374 0,-0.084355 -0.03802,-0.3042928 -0.08443,-0.488691 C 12.898412,8.791252 12.869396,8.7587888 12.694436,8.7791231 l -0.195296,0.022323 v 0.7415744 0.7415745 l -0.316952,0.214206 c -0.174322,0.117783 -0.316947,0.243289 -0.316947,0.27889 0,0.0356 -0.100387,0.226273 -0.223075,0.423826 -0.161137,0.259521 -0.236501,0.49382 -0.271432,0.84397 -0.02661,0.266581 -0.09793,0.582942 -0.158512,0.702958 -0.06647,0.131661 -0.05482,0.320467 -0.0775,0.796426 -0.03367,0.706638 -0.05659,0.409448 -0.220861,0.58564 -0.161704,0.173476 -0.174249,0.226154 -0.106566,0.447419 0.255629,0.835764 0.5052,1.422025 0.771208,1.811698 0.526384,0.771202 1.102822,1.771875 1.060307,1.840662 -0.07683,0.1243 -0.181303,0.06662 -0.183952,-0.101551 -0.0018,-0.09226 -0.04339,-0.236955 -0.09322,-0.321429 -0.169765,-0.288062 -0.537814,-0.703983 -0.622953,-0.703983 -0.0467,0 -0.106735,-0.116276 -0.133393,-0.258376 -0.09173,-0.488931 -0.191971,-0.363123 -0.187559,0.235326 0.006,0.821644 0.07179,1.104397 0.256721,1.104397 0.107265,0 0.155773,0.05732 0.172746,0.205093 0.01653,0.143489 -0.0102,0.205095 -0.08882,0.205095 -0.06182,0 -0.133157,-0.03379 -0.158507,-0.07458 -0.02534,-0.04103 -0.140259,-0.07458 -0.255357,-0.07458 -0.115092,0 -0.289304,-0.06239 -0.387115,-0.138661 -0.09782,-0.07627 -0.339676,-0.162554 -0.537464,-0.191818 l -0.359612,-0.0531 0.05219,0.359624 c 0.05358,0.368978 0.107688,0.518439 0.107688,0.297475 0,-0.137876 0.259298,-0.173174 0.337884,-0.04586 0.02661,0.04284 0.330631,0.208654 0.675587,0.368011 0.34495,0.159418 0.627189,0.325533 0.627189,0.369158 0,0.04344 -0.0286,0.07941 -0.06355,0.07941 -0.09818,0 -0.243404,0.990656 -0.157758,1.076278 0.124354,0.12436 0.07949,0.48501 -0.07699,0.618964 -0.196115,0.167926 -0.218991,0.840351 -0.0286,0.840351 0.08947,0 0.108237,0.04344 0.07278,0.167804 -0.02631,0.09226 -0.06736,0.257108 -0.09128,0.366262 -0.02462,0.112473 -0.108063,0.215352 -0.19249,0.237437 -0.156762,0.04103 -0.152448,0.204008 0.0068,0.257107 0.05141,0.0169 0.112389,-0.04103 0.135488,-0.129489 0.05931,-0.226757 0.278177,-0.162977 0.307328,0.0896 0.02818,0.244254 0.04465,0.248056 0.237418,0.05551 0.08286,-0.08291 0.149154,-0.248599 0.149154,-0.372899 0,-0.123033 0.03355,-0.22374 0.07457,-0.22374 0.07587,0 0.100562,0.09292 0.0807,0.303871 -0.02045,0.217042 0.21426,0.985769 0.345136,1.130403 0.123974,0.136971 0.121597,0.149341 -0.05437,0.282088 -0.163834,0.123516 -0.16976,0.144273 -0.054,0.188683 0.07151,0.02715 0.130026,0.123515 0.130026,0.213421 0,0.238462 0.141231,0.342548 0.464706,0.342548 0.353935,0 0.420043,0.133532 0.273393,0.552168 -0.103096,0.294277 -0.117838,0.304716 -0.403902,0.286131 -0.505211,-0.03319 -0.960179,-0.180356 -1.145295,-0.37115 C 11.742112,25.269326 11.63898,25.22896 11.498588,25.25581 11.229666,25.3071 10.951174,25.144785 10.66307,24.768567 10.252513,24.232506 9.7491535,23.735851 9.474463,23.595863 9.1837103,23.447729 8.6556539,23.326144 8.0376246,23.256935 7.6320698,23.21168 7.2680763,22.926274 7.2680763,22.766555 c 0,-0.04224 -0.1196174,-0.127257 -0.2658026,-0.188381 C 6.6089381,22.413869 6.143182,22.054848 5.9842652,21.793517 5.6734015,21.282381 5.6049464,20.917325 5.6641874,20.086689 5.7576717,18.77593 5.7397209,18.647286 5.34738,17.816107 4.9954312,17.070489 4.9935664,17.062404 5.0019237,16.32065 5.0094637,15.648164 5.0396327,15.494358 5.3089199,14.754593 5.4731525,14.303373 5.6475638,14.001578 5.6965057,13.7175 5.8134862,13.038558 5.9139397,12.813973 6.3000534,12.368184 6.7676491,11.828385 6.7765676,11.601006 6.825527,10.886705 6.86318,10.337313 6.883998,10.275344 7.079207,10.131012 7.3398324,9.9382864 7.3492516,9.8526649 7.10986,9.8526649 c -0.3094644,0 -0.2716133,-0.1040256 0.1870771,-0.5142746 0.2433319,-0.2175852 0.4424168,-0.4357731 0.4424168,-0.48489 0,-0.108913 0.5347356,-0.6415311 0.6441197,-0.6415311 0.043204,0 0.139258,-0.067095 0.2134937,-0.1491595 0.074242,-0.082002 0.1982337,-0.1490993 0.2755473,-0.1490993 0.1642928,0 0.6287645,-0.050085 0.6995009,-0.1645497 0.026733,-0.043442 0.1090999,-0.059738 0.1830038,-0.036204 0.1881089,0.059738 0.5988237,-0.300069 0.5988237,-0.5245324 0,-0.1419796 0.12025,-0.3961874 0.3264,-0.4348652 0.140899,-0.026551 0.285008,-0.03017 0.320253,-0.00845 0.03524,0.021721 0.209251,-0.02534 0.386692,-0.1048698 0.458473,-0.2052155 1.869106,-0.4630472 2.150416,-0.3929926 0.122778,0.030772 0.167792,0.00905 0.167792,-0.080553 0,-0.1833115 0.15062,-0.2070254 0.550461,-0.086708 0.248629,0.074882 0.417321,0.086889 0.543744,0.038617 0.271994,-0.1033585 0.916862,-0.084473 1.334605,0.039221 0.202271,0.059738 0.681899,0.1594782 1.065834,0.2213862 0.383942,0.061971 0.745515,0.1519959 0.803495,0.2000866 0.05799,0.048272 0.125483,0.067459 0.149999,0.04284 0.0245,-0.024738 0.199881,0.033789 0.389716,0.1297912 0.189828,0.095939 0.561834,0.2297729 0.826683,0.2974132 0.264837,0.067578 0.533306,0.1682877 0.596602,0.2236794 0.114302,0.1001035 0.707924,0.4164643 0.781429,0.4164643 0.02112,0 0.0042,-0.089363 -0.03711,-0.1985774 -0.04152,-0.1092154 -0.04737,-0.2267566 -0.01297,-0.2611504 0.07855,-0.078562 0.709884,0.3123183 1.08113,0.6693477 0.23594,0.2269379 0.354453,0.2793728 0.745756,0.3299373 0.800575,0.1034831 0.814538,0.1026382 0.90323,-0.054908 0.04622,-0.082001 0.09151,-0.1621935 0.100647,-0.1781829 0.0091,-0.015687 0.131595,0.058527 0.272132,0.1658734 0.265338,0.2023791 0.335513,0.1834329 0.443738,-0.1198344 0.02595,-0.07271 0.106662,-0.1533224 0.179372,-0.1791489 0.07271,-0.025949 0.193955,-0.1001035 0.26944,-0.1651496 0.125688,-0.1081885 0.14522,-0.1072232 0.231952,0.011466 0.154337,0.2110682 0.313205,0.1523578 0.738685,-0.2730973 0.570957,-0.5709942 0.942946,-0.7373506 0.942946,-0.4217136 0,0.093103 -0.145944,0.2420824 -0.406901,0.4152575 -0.45586,0.302603 -0.860878,0.7275758 -0.860878,0.9032849 0,0.063903 -0.06712,0.201474 -0.149154,0.3058013 -0.08204,0.1042671 -0.149153,0.2850442 -0.149153,0.4017412 0,0.116697 -0.04761,0.3386866 -0.105854,0.4933376 -0.128391,0.3409791 -0.193672,0.941539 -0.116016,1.067227 0.04134,0.06679 0.129127,0.0362 0.325654,-0.11374 0.311136,-0.237316 0.353241,-0.149884 0.08266,0.171726 -0.165433,0.196587 -0.256787,0.535636 -0.144338,0.535636 0.06521,0 0.436213,-0.455142 0.496173,-0.608707 0.0652,-0.16696 0.15815,-0.174502 0.283867,-0.02293 0.07849,0.09461 0.06544,0.145177 -0.07638,0.296147 -0.209971,0.223498 -0.134907,0.346109 0.28969,0.473365 0.160317,0.04827 0.307323,0.128946 0.32668,0.179872 0.108074,0.28408 -0.328267,0.702897 -0.648543,0.622465 -0.202488,-0.05069 -0.318286,0.06119 -0.207195,0.200447 0.03946,0.04948 0.09527,0.432093 0.123974,0.850307 0.694946,1.422053 1.305758,3.245298 1.325766,4.449623 l 0.02697,1.83692 -0.1957,0.232549 c -0.107634,0.12792 -0.239072,0.23261 -0.292074,0.23261 -0.19045,0 -0.481505,0.505887 -0.606022,1.053289 -0.06865,0.301819 -0.174315,0.624335 -0.23483,0.716654 -0.06828,0.104267 -0.301456,0.241539 -0.271219,0.362038 0.02848,0.113378 0.01104,0.239488 -0.04194,0.303328 -0.05104,0.06149 -0.100067,0.388044 -0.112213,0.747306 -0.01472,0.435713 -0.06039,0.697406 -0.143905,0.824843 -0.120148,0.183374 -0.133085,0.185605 -0.729965,0.124662 -0.937467,-0.09576 -1.868124,-0.07705 -2.488814,0.212516 -0.434433,0.202683 -0.732813,0.417611 -1.196777,0.861953 -0.846789,0.810904 -0.800319,0.93255 -1.69039,0.954394 -0.38965,0.0097 -0.958737,-0.01327 -1.264635,-0.05129 z m -5.534168,-1.029575 c 0.05931,-0.03741 0.09944,-0.201414 0.09944,-0.406087 0,-0.550478 -0.153227,-0.66621 -0.338596,-0.255719 -0.159834,0.354013 -0.211683,0.56665 -0.158989,0.65191 0.05629,0.09111 0.261983,0.09624 0.398145,0.0097 z m -1.106201,-1.16516 c 0,-0.06154 -0.05032,-0.111869 -0.111864,-0.111869 -0.06152,0 -0.111863,0.05009 -0.111863,0.111869 0,0.06154 0.05032,0.11187 0.111863,0.11187 0.06153,0 0.111864,-0.05008 0.111864,-0.11187 z M 9.3829513,22.981001 c -0.046102,-0.138298 -0.206633,-0.161228 -0.206633,-0.02957 0,0.06492 0.053158,0.118085 0.1180788,0.118085 0.064946,0 0.1047914,-0.03982 0.088554,-0.08858 z m 1.0367377,-1.197863 c -0.02299,-0.09232 -0.06885,-0.278528 -0.101913,-0.413869 -0.03307,-0.135342 -0.09367,-0.252763 -0.134685,-0.261031 -0.105558,-0.02112 -0.133796,0.402406 -0.04278,0.641773 0.09589,0.25222 0.341209,0.281304 0.279379,0.03319 z M 10.19674,19.923409 c -0.02377,-0.05974 -0.04145,-0.04164 -0.04507,0.04525 -0.003,0.07862 0.01442,0.12267 0.03916,0.09787 0.0248,-0.02474 0.02745,-0.08912 0.006,-0.142944 z m 0.04019,-0.63248 -0.07571,-0.285709 -0.0077,0.369097 c -0.0055,0.272193 0.01418,0.347256 0.07571,0.285769 0.05937,-0.05974 0.06161,-0.165753 0.0077,-0.369157 z M 25.594895,11.45426 c 0.07903,-0.05974 0.12255,-0.129911 0.09669,-0.155737 -0.08323,-0.08327 -0.426843,0.04465 -0.426843,0.158754 0,0.139264 0.143777,0.137996 0.330148,-0.006 z M 14.073449,25.853712 c -0.07391,-0.07392 -0.06016,-0.50975 0.02299,-0.728481 0.06581,-0.173054 0.111472,-0.191277 0.479671,-0.191277 0.364047,0 0.42318,-0.02293 0.561158,-0.216619 0.08483,-0.119111 0.154229,-0.251374 0.154229,-0.293854 0,-0.172753 0.159423,-0.157305 0.335265,0.03259 0.139029,0.150065 0.186769,0.283416 0.186769,0.521818 0,0.176191 -0.03355,0.341039 -0.07458,0.366382 -0.04103,0.02534 -0.07457,0.0084 -0.07457,-0.03741 0,-0.04586 -0.03355,-0.06264 -0.07457,-0.03741 -0.04103,0.02534 -0.07458,0.125205 -0.07458,0.22199 0,0.317749 -0.07751,0.411879 -0.339169,0.411879 -0.136748,0 -0.269374,-0.03379 -0.294723,-0.07458 -0.02534,-0.04103 -0.126026,-0.07458 -0.223727,-0.07458 -0.0977,0 -0.19838,0.03379 -0.223728,0.07458 -0.05207,0.0843 -0.284972,0.100346 -0.360445,0.02474 z m -0.04972,-5.095987 c 0,-0.04103 0.03355,-0.07458 0.07457,-0.07458 0.04103,0 0.07457,0.03379 0.07457,0.07458 0,0.04103 -0.03355,0.07458 -0.07457,0.07458 -0.04103,0 -0.07457,-0.03379 -0.07457,-0.07458 z m 0.310291,-0.85803 c 0.01587,-0.139324 0.07393,-0.231282 0.155803,-0.246789 0.179746,-0.03439 0.165114,0.155495 -0.02528,0.327765 -0.15491,0.140229 -0.155653,0.139747 -0.130503,-0.08098 z m -1.564313,-3.855041 c -0.06499,-0.213542 -0.100689,-1.402112 -0.04212,-1.402112 0.03578,0 0.227052,0.465882 0.328326,0.799802 0.101431,0.334462 0.03494,0.766494 -0.126224,0.820197 -0.04677,0.01569 -0.118767,-0.08242 -0.159973,-0.217887 z M 26.23422,12.207842 c 0,-0.06499 0.05316,-0.118085 0.118079,-0.118085 0.131703,0 0.108756,0.160503 -0.02951,0.206603 -0.04869,0.01629 -0.08856,-0.02353 -0.08856,-0.08852 z m 0.615247,-0.689502 c -0.178678,-0.0721 -0.103663,-0.500577 0.139222,-0.795216 0.201981,-0.24504 0.267938,-0.279071 0.503384,-0.2594 0.405235,0.03379 0.387042,0.238703 -0.06329,0.712491 -0.372869,0.392268 -0.406207,0.411939 -0.579322,0.342125 z m -14.23833,-0.795028 c 0,-0.113015 0.527495,-0.268149 0.614801,-0.180838 0.05424,0.05431 0.01225,0.09268 -0.137919,0.126352 -0.118724,0.02655 -0.274599,0.06426 -0.346374,0.08369 -0.07178,0.01931 -0.130508,0.0067 -0.130508,-0.02897 z m 13.20691,-1.0274702 c 0.228892,-0.2091978 0.416174,-0.4253347 0.416174,-0.4803645 0,-0.1410738 0.147144,-0.2151709 0.240991,-0.1213429 0.203532,0.2035257 -0.515355,0.9820876 -0.906827,0.9820876 -0.139668,0 -0.0994,-0.06136 0.249662,-0.3803802 z M 6.620854,9.3304243 c 0,-0.041027 0.067116,-0.074579 0.1491476,-0.074579 0.082032,0 0.1491539,0.033789 0.1491539,0.074579 0,0.041034 -0.067123,0.07458 -0.1491539,0.07458 -0.082032,0 -0.1491476,-0.033789 -0.1491476,-0.07458 z m 7.632602,-0.4355846 c 0.0024,-0.1321439 0.276754,-0.4735458 0.33433,-0.4159813 0.06241,0.062391 -0.168655,0.5092059 -0.263329,0.5092059 -0.03994,0 -0.07191,-0.042238 -0.071,-0.093225 z M 26.853909,8.7609981 c -0.105232,-0.2742432 0.304028,-0.5181967 0.540336,-0.3220322 0.137714,0.1142827 0.135771,0.181622 -0.0094,0.3268594 -0.153275,0.1532629 -0.471355,0.150367 -0.53091,-0.00602 z M 19.199262,6.2231124 c -0.166828,-0.1667782 0.134979,-0.6064131 0.357675,-0.5209719 0.136175,0.052493 0.151972,0.3543743 0.02516,0.4812084 -0.0975,0.097509 -0.303665,0.1189293 -0.382819,0.039823 z m -8.72534,-0.2237393 c -0.0783,-0.07826 -0.05804,-0.3091802 0.03204,-0.3648735 0.119092,-0.073554 0.304921,0.1428238 0.248624,0.2895095 -0.04887,0.1273166 -0.190631,0.165391 -0.28064,0.075364 z"/>
</svg>
