<svg width="32" height="32" version="1.1" xmlns="http://www.w3.org/2000/svg">
 <rect x="2" y="3" width="28" height="28" rx="1" ry="1" style="opacity:.2"/>
 <rect x="2" y="2" width="28" height="28" rx="1" ry="1" style="fill:#595552"/>
 <path d="m 6,6 2,4 h 10 l -2,3 1,-1 v 0.564616 l 1,-0.20029 -2.410417,2.030788 L 15.433898,13.59661 14.473605,15 15,16 12.441124,19 11,21 v 1 L 11.533898,23 10.2,24.2 10.971706,24.610485 10,27 13,22.484984 14,22 10,28 14.523353,23 15,22 V 21.034422 L 16,20 v 0.610169 L 18,19.710242 19.240365,18 19,17.701528 18,18.652583 V 18.296791 L 19.3,16.4 V 15.1 L 22,11 26,6 Z" style="opacity:.2"/>
 <path d="m 6,5 2,4 h 10 l -2,3 1,-1 v 0.564616 l 1,-0.20029 -2.410417,2.030788 L 15.433898,12.59661 14.473605,14 15,15 12.441124,18 11,20 v 1 L 11.533898,22 10.2,23.2 10.971706,23.610485 10,26 13,21.484984 14,21 10,27 14.523353,22 15,21 V 20.034422 L 16,19 v 0.610169 L 18,18.710242 19.240365,17 19,16.701528 18,17.652583 V 17.296791 L 19.3,15.4 V 14.1 L 22,10 26,5 Z" style="fill:#c6241d"/>
 <path d="m3 2c-0.554 0-1 0.446-1 1v1c0-0.554 0.446-1 1-1h26c0.554 0 1 0.446 1 1v-1c0-0.554-0.446-1-1-1h-26z" style="fill:#8b9cbe;opacity:.1"/>
 <path d="m6 5 0.5 1h18.699219l0.800781-1h-20zm11.333984 5-1.333984 2 1-1v0.5l1-1.5h-0.666016zm-0.333984 2.207031-1.410156 1.1875-0.15625-0.798828-0.960938 1.404297 0.296875 0.564453 0.664063-0.96875 0.15625 0.798828 2.410156-2.029297-1 0.199219v-0.357422zm-2.326172 3.175781-2.232422 2.617188-1.441406 2v1l1.441406-2 2.558594-3-0.326172-0.617188zm4.376953 1.38086-1.050781 1.533203v0.355469l0.136719-0.13086 1.103515-1.521484-0.189453-0.236328zm-5.050781 5.236328-0.984375 0.476562-3.015625 4.523438 2.533203-2.800781 1.466797-2.199219zm-2.828125 0.324219-0.972656 0.875 0.699219 0.373047 0.634765-0.572266-0.361328-0.675781zm-0.533203 2.109375-0.638672 1.566406 0.935547-1.408203-0.296875-0.158203z" style="fill:#8b9cbe;opacity:.2"/>
</svg>
