<svg width="32" height="32" version="1.1" xmlns="http://www.w3.org/2000/svg">
 <path d="M 14.5,3 A 12.5,12.5 0 0 0 2,15.5 12.5,12.5 0 0 0 5.431641,24.091797 L 4,26 l 6,3 0.783203,-1.566406 A 12.5,12.5 0 0 0 14.5,28 12.5,12.5 0 0 0 15.478516,27.95703 L 17,31 23,28 21.103516,26.103516 a 12.5,12.5 0 0 0 4.505859,-4.900391 L 28,22 29,17 26.951172,16.488281 A 12.5,12.5 0 0 0 27,15.5 12.5,12.5 0 0 0 25.103516,8.8964844 L 26,8 22,4 21.097656,4.9023438 A 12.5,12.5 0 0 0 14.5,3 Z" style="opacity:.2"/>
 <path d="M 14.5 2 A 12.5 12.5 0 0 0 2 14.5 A 12.5 12.5 0 0 0 5.4316406 23.091797 L 4 25 L 10 28 L 10.783203 26.433594 A 12.5 12.5 0 0 0 14.5 27 A 12.5 12.5 0 0 0 15.478516 26.957031 L 17 30 L 23 27 L 21.103516 25.103516 A 12.5 12.5 0 0 0 25.609375 20.203125 L 28 21 L 29 16 L 26.951172 15.488281 A 12.5 12.5 0 0 0 27 14.5 A 12.5 12.5 0 0 0 25.103516 7.8964844 L 26 7 L 22 3 L 21.097656 3.9023438 A 12.5 12.5 0 0 0 14.5 2 z " style="fill:#38aff1"/>
 <path d="M 14.5 2 A 12.5 12.5 0 0 0 2 14.5 A 12.5 12.5 0 0 0 2.0214844 14.90625 A 12.5 12.5 0 0 1 14.5 3 A 12.5 12.5 0 0 1 21.097656 4.9023438 L 22 4 L 25.5 7.5 L 26 7 L 22 3 L 21.097656 3.9023438 A 12.5 12.5 0 0 0 14.5 2 z M 25.472656 8.5273438 L 25.103516 8.8964844 A 12.5 12.5 0 0 1 26.974609 15.011719 A 12.5 12.5 0 0 0 27 14.5 A 12.5 12.5 0 0 0 25.472656 8.5273438 z M 27 15.5 A 12.5 12.5 0 0 1 26.951172 16.488281 L 28.808594 16.953125 L 29 16 L 27 15.5 z M 5.0234375 23.636719 L 4 25 L 4.5449219 25.273438 L 5.4316406 24.091797 A 12.5 12.5 0 0 1 5.0234375 23.636719 z M 21.693359 25.693359 A 12.5 12.5 0 0 1 21.103516 26.103516 L 22.333984 27.333984 L 23 27 L 21.693359 25.693359 z " style="fill:#8b9cbe;opacity:.2"/>
 <path d="M 12.785156,3.7011714 C 7.29802,3.561924 0,6.9999995 0,6.9999995 0,6.9999995 0.229447,19.340344 3,20 c 2.118035,0.504294 4.012274,0.860454 5.724609,1.103516 L 8,24 l 4,1 1.400391,-3.5 c 1.1732,0.02146 2.218883,-0.02724 3.146484,-0.134766 L 18,25 22,23 20.628906,20.259766 C 23.970392,18.633988 24,16 24,16 24,16 26,6.9999995 15,3.9999995 14.316626,3.8136247 13.569033,3.7210639 12.785156,3.7011714 Z" style="opacity:0"/>
 <path d="M 12.785156,3.701172 C 11.834877,3.6770567 10.829951,3.7639383 9.8183594,3.9179689 A 12.5,12.5 0 0 0 2,15.5 12.5,12.5 0 0 0 2.833984,19.9375 C 2.888834,19.96074 2.943015,19.98643 3,20 c 2.118035,0.504294 4.012274,0.860454 5.724609,1.103516 L 8,24 l 4,1 1.400391,-3.5 c 1.1732,0.02146 2.218883,-0.02724 3.146484,-0.134766 L 18,25 22,23 20.628906,20.259766 C 23.970392,18.633988 24,16 24,16 24,16 26,7.0000001 15,4.0000001 14.316626,3.8136253 13.569033,3.7210645 12.785156,3.701172 Z" style="opacity:.2"/>
 <path d="M 12.785156 2.7011719 C 11.834877 2.6770566 10.829951 2.7639382 9.8183594 2.9179688 A 12.5 12.5 0 0 0 2 14.5 A 12.5 12.5 0 0 0 2.8339844 18.9375 C 2.8888393 18.960742 2.9430152 18.986432 3 19 C 5.1180346 19.504294 7.0122739 19.860454 8.7246094 20.103516 L 8 23 L 12 24 L 13.400391 20.5 C 14.573591 20.521456 15.619274 20.472762 16.546875 20.365234 L 18 24 L 22 22 L 20.628906 19.259766 C 23.970392 17.633988 24 15 24 15 C 24 15 26 6 15 3 C 14.316626 2.8136252 13.569033 2.7210644 12.785156 2.7011719 z " style="fill:#17191e"/>
 <path d="m12.785156 2.7011719c-0.950279-0.0241153-1.955205 0.0627662-2.9667966 0.2167969a12.5 12.5 0 0 0-7.8183594 11.582031 12.5 12.5 0 0 0 0.0234375 0.443359 12.5 12.5 0 0 1 7.7949219-11.02539c1.0115916-0.154031 2.0165176-0.2409119 2.9667966-0.2167969 0.783877 0.0198925 1.53147 0.1124533 2.214844 0.2988281 7.521913 2.0514308 8.964386 6.905105 9.125 9.771484 0.112303-2.542211-0.583841-8.4420769-9.125-10.771484-0.683374-0.1863748-1.430967-0.2789356-2.214844-0.2988281zm8.238282 17.345703c-0.128812 0.071513-0.254296 0.14466-0.394532 0.212891l0.970703 1.939453 0.400391-0.199219-0.976562-1.953125zm-12.539063 1.015625-0.484375 1.9375 0.2363281 0.058594 0.4882813-1.955078c-0.075915-0.010776-0.1636007-0.029792-0.2402344-0.041016z" style="fill:#8b9cbe;opacity:.1"/>
 <path d="m10 11s0 3 2 4 3-1 3-1 0-1-2-2-3-1-3-1zm13 2-1.951172 0.951172c-0.423697 0.206646-1.048828 1.048828-1.048828 1.048828s0 1 1 1c2 0 2-3 2-3z" style="opacity:.2"/>
 <path d="m10 10s1 0 3 1 2 2 2 2-1 2-3 1-2-4-2-4z" style="fill:#1bffe1"/>
 <path d="m16 5a2 1 0 0 0-2 1 2 1 0 0 0 2 1 2 1 0 0 0 2-1 2 1 0 0 0-2-1zm2.5 3a2.5 1 0 0 0-2.5 1 2.5 1 0 0 0 2.5 1 2.5 1 0 0 0 2.5-1 2.5 1 0 0 0-2.5-1zm0.5 3a1 0.5 0 0 0-1 0.5 1 0.5 0 0 0 1 0.5 1 0.5 0 0 0 1-0.5 1 0.5 0 0 0-1-0.5z" style="opacity:.2"/>
 <path d="m 20,14 c 0,0 0.624242,-0.841293 1.047939,-1.047939 C 23,12 23,12 23,12 c 0,0 0,3 -2,3 -1,0 -1,-1 -1,-1 z" style="fill:#1bffe1"/>
 <ellipse cx="16" cy="5" rx="2" ry="1" style="fill:#df563d"/>
 <ellipse cx="18.5" cy="8" rx="2.5" ry="1" style="fill:#df563d"/>
 <ellipse cx="19" cy="10.5" rx="1" ry=".5" style="fill:#df563d"/>
 <path d="m16 4a2 1 0 0 0-2 1 2 1 0 0 0 0.269531 0.5 2 1 0 0 1 1.730469-0.5 2 1 0 0 1 1.730469 0.5 2 1 0 0 0 0.269531-0.5 2 1 0 0 0-2-1zm2.5 3a2.5 1 0 0 0-2.5 1 2.5 1 0 0 0 0.337891 0.5 2.5 1 0 0 1 2.162109-0.5 2.5 1 0 0 1 2.162109 0.5 2.5 1 0 0 0 0.337891-0.5 2.5 1 0 0 0-2.5-1zm0.5 3a1 0.5 0 0 0-1 0.5 1 0.5 0 0 0 1 0.5 1 0.5 0 0 0 1-0.5 1 0.5 0 0 0-1-0.5z" style="fill:#8b9cbe;opacity:.2"/>
 <path d="m10 10s6.2e-4 0.425925 0.107422 1.009766c0.245557 0.017596 1.179216 0.133553 2.892578 0.990234 0.99822 0.49911 1.497603 0.998271 1.748047 1.373047 0.161229-0.208015 0.251953-0.373047 0.251953-0.373047s0-1-2-2-3-1-3-1zm13 2-1.951172 0.951172c-0.423697 0.206646-1.048828 1.048828-1.048828 1.048828s9.94e-4 0.397595 0.251953 0.691406c0.218083-0.265418 0.519334-0.604872 0.796875-0.740234l1.814453-0.884766c0.129565-0.579114 0.136719-1.066406 0.136719-1.066406z" style="fill:#8b9cbe;opacity:.2"/>
</svg>
