<svg xmlns="http://www.w3.org/2000/svg" width="32" height="32" version="1.1">
 <rect style="opacity:0.2" width="28" height="28" x="2" y="3" rx="1.4" ry="1.4"/>
 <rect style="fill:#17191e" width="28" height="28" x="2" y="2" rx="1.4" ry="1.4"/>
 <path style="opacity:0.2" d="m 10.599609,5.000391 a 2,2 0 0 0 -1.9999996,2 A 2,2 0 0 0 10,8.906641 v 2.09375 3.699219 0.300781 10.513672 L 16,29.6 22,25.514063 V 15.000391 14.69961 11.000391 8.906641 a 2,2 0 0 0 1.400391,-1.90625 2,2 0 0 0 -2,-2 2,2 0 0 0 -2,2 2,2 0 0 0 1.265625,1.8574219 v 2.1425781 h -4 V 8.8832035 A 2,2 0 0 0 18,7.000391 a 2,2 0 0 0 -2,-2 2,2 0 0 0 -2,2 2,2 0 0 0 1.333984,1.8828125 v 2.1171875 h -4 V 8.859766 a 2,2 0 0 0 1.265625,-1.859375 2,2 0 0 0 -2,-2 z"/>
 <circle style="fill:#fae71d" cx="16" cy="6" r="2"/>
 <circle style="fill:#fae71d" cx="10.6" cy="6" r="2"/>
 <circle style="fill:#fae71d" cx="21.4" cy="6" r="2"/>
 <rect style="fill:#fae71d" width="1.333" height="6.3" x="10" y="7.4"/>
 <rect style="fill:#fae71d" width="1.333" height="6.3" x="15.33" y="7.4"/>
 <rect style="fill:#fae71d" width="1.333" height="6.3" x="20.67" y="7.4"/>
 <path style="fill:#8b9cbe" d="M 10,14 H 22 V 24.514066 L 16,28.6 10,24.514066 Z"/>
 <rect style="opacity:0.675" width="1.3" height="3.5" x="12.7" y="18"/>
 <rect style="opacity:0.675" width="1.3" height="3.5" x="18" y="18"/>
 <rect style="fill:#fae71d" width="12" height="4" x="10" y="10"/>
 <path style="opacity:0.2" d="m 16,28.599609 6,-4.085937 V 14 13.699219 10 7.90625 C 22.832786,7.6445389 23.399626,6.87294 23.400391,6 c 0,-1.1045695 -0.895431,-2 -2,-2 -1.104569,0 -2,0.8954305 -2,2 0.0012,0.8200609 0.502847,1.5563063 1.265625,1.8574219 V 10 h -4 V 7.8828125 C 17.464396,7.6008536 17.998715,6.8467049 18,6 18,4.8954305 17.104569,4 16,4 c 0,0 0,24.6 0,24.599609 z"/>
 <path style="fill:#8b9cbe;opacity:0.1" d="M 3.4003906 2 C 2.6247906 2 2 2.6247906 2 3.4003906 L 2 4.4003906 C 2 3.6247906 2.6247906 3 3.4003906 3 L 28.599609 3 C 29.375209 3 30 3.6247906 30 4.4003906 L 30 3.4003906 C 30 2.6247906 29.375209 2 28.599609 2 L 3.4003906 2 z"/>
</svg>
