<svg width="32" height="32" version="1.1" xmlns="http://www.w3.org/2000/svg">
 <path d="m10.078125 2.985757c-4.461396 0-8.078125 4.1162661-8.078125 9.19336 0 1.364123 0.211147 2.676122 0.582031 3.929688 0 0 0.336841 1.131261 0.634766 1.753906 0.485014 1.133974 1.10017 2.203211 1.783203 3.216797v4.90625a1.0001 1.0001 0 1 0 2 0v-2.324219c4.020475 4.571304 9 7.324219 9 7.324219s4.199996-2.322532 8-6.240234v5.240234a1.0001 1.0001 0 1 0 2 0v-7.53125c1.092903-1.39744 2.071782-2.928479 2.783203-4.591797 0.297926-0.622645 0.634766-1.753906 0.634766-1.753906 0.370884-1.253566 0.582031-2.565565 0.582031-3.929688 0-5.0770939-3.616728-9.19336-8.078125-9.19336-2.339756 0-4.446205 0.9918143-5.921875 2.8007812-1.47567-1.8089669-3.582119-2.8007812-5.921875-2.8007812z" style="opacity:.2"/>
 <path d="m10.078125 2c-4.4613965 0-8.078125 4.1162661-8.078125 9.193359 0 1.364123 0.211147 2.676122 0.5820312 3.929688 0 0 0.3368403 1.131261 0.6347657 1.753906 0.4850143 1.133974 1.1001701 2.203211 1.7832031 3.216797v4.90625a1.0001 1.0001 0 1 0 2 0v-2.324219c4.020475 4.571304 9 7.324219 9 7.324219s4.199996-2.322532 8-6.240234v5.240234a1.0001 1.0001 0 1 0 2 0v-7.53125c1.092903-1.39744 2.071782-2.928479 2.783203-4.591797 0.297926-0.622645 0.634766-1.753906 0.634766-1.753906 0.370884-1.253566 0.582031-2.565565 0.582031-3.929688 0-5.0770929-3.616728-9.193359-8.078125-9.193359-2.339756 0-4.446205 0.9918143-5.921875 2.8007812-1.47567-1.8089669-3.582119-2.8007812-5.921875-2.8007812z" style="fill:#ed1b24"/>
 <path d="m16.000004 9c-4.970563 0-9 3.134007-9 7 0.0038 2.158841 1.288075 4.195555 3.480469 5.519531l-1.480469 0.480469 3 1h0.04492c0.283845 1.720724 1.968159 2.998307 3.955078 3 1.986919-0.0017 3.671233-1.279276 3.955078-3h0.04492l3-1-1.478512-0.478516c2.192356-1.324706 3.475981-3.362218 3.478516-5.521484 0-3.865993-4.029437-7-9-7z" style="opacity:.2"/>
 <path d="M 10.078125,2 C 5.6167285,2 2,6.1162661 2,11.193359 2,11.372076 2.012387,11.547667 2.019531,11.724609 2.2354769,6.8668802 5.7558452,3 10.078125,3 12.417881,3 14.52433,3.9918143 16,5.8007812 17.47567,3.9918143 19.582119,3 21.921875,3 c 4.32228,0 7.842648,3.8668802 8.058594,8.724609 C 29.987613,11.547667 30,11.372076 30,11.193359 30,6.1162661 26.383272,2 21.921875,2 19.582119,2 17.47567,2.9918143 16,4.8007812 14.52433,2.9918143 12.417881,2 10.078125,2 Z" style="fill:#8b9cbe;opacity:.2"/>
 <path d="m16 8c-4.970563 0-9 3.134007-9 7 0.00378 2.158841 1.2880748 4.195555 3.480469 5.519531l-1.480469 0.480469 3 1h0.04492c0.283845 1.720724 1.968159 2.998307 3.955078 3 1.986919-0.0017 3.671233-1.279276 3.955078-3h0.044924l3-1-1.478516-0.478516c2.192356-1.324706 3.475981-3.362218 3.478516-5.521484 0-3.865993-4.029437-7-9-7z" style="fill:#8b9cbe"/>
 <path d="m10.203125 13.203125a3 3.5 0 0 0-1.0761719 1.796875h-0.1269531l-1-1v1l1 1a3 3.5 0 0 0 3 3.5 3 3.5 0 0 0 2.644531-1.855469zm11.59375 0-4.443359 4.443359a3 3.5 0 0 0 2.646484 1.853516 3 3.5 0 0 0 3-3.5l1-1v-1l-1 1h-0.126953a3 3.5 0 0 0-1.076172-1.796875zm-8.796875 7.796875v1h-0.955078c0.05883 0.356627 0.190008 0.688856 0.359375 1h0.595703v0.798828c0.07066 0.0706 0.147836 0.135846 0.224609 0.201172h0.775391v-1h1v1h1v-1h2v1h0.775391c0.076773-0.065325 0.153946-0.13057 0.224609-0.201172v-0.798828h0.595703c0.169367-0.311144 0.300547-0.643373 0.359375-1h-0.955078v-1h-1v1h-2v-1h-1v1h-1v-1z" style="fill:#17191e"/>
</svg>
