<svg xmlns="http://www.w3.org/2000/svg" height="32" width="32" version="1.1" xmlns:xlink="http://www.w3.org/1999/xlink">
 <g style="opacity:.2" transform="matrix(1.8,0,0,1.75,1.5999999,3)">
  <path d="m3 2.2857143 6.6666667-2.2857143 3.3333333 2.2857143v13.714286h-10z"/>
  <path d="m9.6666667 0v16h3.3333333v-13.714286z"/>
 </g>
 <path d="m7 6 12-4 6 4v24h-18z" style="fill:#b79f32"/>
 <path d="m19 2v28h6v-24z" style="fill:#987e2e"/>
 <path style="opacity:.2;fill:#8b9cbe" d="m19 2l-12 4v1l12-4 6 4v-1l-6-4z"/>
</svg>
