<svg width="32" height="32" version="1.1" xmlns="http://www.w3.org/2000/svg">
 <path d="m11 31h9s1 0 1-1 3-10 3-10l-15-1s4.85e-5 11.986068 2 12z" style="opacity:.2"/>
 <path d="m11 30h9s1 0 1-1 3-10 3-10l-15-1s4.85e-5 11.986068 2 12z" style="fill:#df8028"/>
 <path d="m7 14c0 14 9.666667 15 13 15 10 0 10-8 10-8s-2-3-2-5 1-5 1-5-2-7.9999995-8-7.9999995c-4 0-8 3-8 3l-3 1.9999995s-3 3-3 6z" style="opacity:.2"/>
 <path d="m7 13c0 14 9.666667 15 13 15 10 0 10-8 10-8s-2-3-2-5 1-5 1-5-2-8-8-8c-4 0-8 3-8 3l-3 2s-3 3-3 6z" style="fill:#f8bb07"/>
 <path d="M 21 2 C 17 2 13 5 13 5 L 10 7 C 10 7 7 10 7 13 C 7 13.251913 7.0094585 13.49081 7.015625 13.734375 C 7.1824079 10.825452 10 8 10 8 L 13 6 C 13 6 17 3 21 3 C 26.114029 3 28.305103 8.7758122 28.845703 10.492188 C 28.937063 10.188276 29 10 29 10 C 29 10 27 2 21 2 z M 28.037109 15.333984 C 28.017192 15.562581 28 15.788971 28 16 C 28 17.847437 29.643946 20.44638 29.904297 20.847656 C 29.977885 20.360067 30 20 30 20 C 30 20 28.226981 17.317773 28.037109 15.333984 z " style="fill:#8b9cbe;opacity:.2"/>
 <path d="m10 8c-2.1343747 0-4 5-4 5s0 6 3 6 4-5 4-5 0-6-3-6zm9 2c-4 0-4 5-4 5s-1 6 3 6 5-5 5-5 0-6-4-6z" style="opacity:.2"/>
 <path d="m10 7c3 0 3 6 3 6s-1 5-4 5-3-6-3-6 1.8656253-5 4-5z" style="fill:#8b9cbe"/>
 <path d="m19 9c4 0 4 6 4 6s-1 5-5 5-3-6-3-6 0-5 4-5z" style="fill:#8b9cbe"/>
 <ellipse cx="9.5" cy="11.5" rx="1.5" ry="2.5" style="fill:#4f4f4f"/>
 <ellipse cx="18.5" cy="13.5" rx="1.5" ry="2.5" style="fill:#4f4f4f"/>
 <path d="m4.0000005 16s0 2 1 4l6.0000005-1 2.999999-6v7l2 3c0.905869 1.358804 9-1 9-1s0 9-9 7c-1.795055 0-4-2-5.999999-4-1.0000005 0-3.0000005 3-7.0000005-1-3-4 1-8 1-8z" style="opacity:.2"/>
 <path d="m4 15s0 2 1 4l6-1 3-6v7l2 3c0.905869 1.358804 9-1 9-1s0 9-9 7c-1.795055 0-4-2-6-4-1 0-3 3-7-1-3-4 1-8 1-8z" style="fill:#facd48"/>
 <path d="m14 12-3 6-6 1c-1-2-1-4-1-4s-2.3513638 2.364509-2.0839844 5.273438c0.24802-2.432201 2.0839844-4.273438 2.0839844-4.273438s0 2 1 4l6-1 3-6v-1zm0 7v1l2 3c0.888545 1.332819 8.604165-0.886343 8.902344-0.972656 0.078909-0.590001 0.097656-1.027344 0.097656-1.027344s-8.094131 2.358804-9 1l-2-3z" style="fill:#8b9cbe;opacity:.2"/>
</svg>
