<svg xmlns="http://www.w3.org/2000/svg" width="32" height="32" version="1.1">
 <rect style="opacity:0.2" width="28" height="28" x="2" y="3" rx="1.4" ry="1.4"/>
 <rect style="fill:#fa7645" width="28" height="28" x="2" y="2" rx="1.4" ry="1.4"/>
 <path style="opacity:0.1;fill-rule:evenodd" d="M 9.6666667,8 8,19.769231 12.799479,26 19.200521,26 24,19.769231 22.333333,8 19,8 13,8 Z M 12.529948,9 19.470052,9 23,19.769231 18.916667,25 18,25 l 0,-2 -4,0 0,2 -0.916667,0 L 9,19.769231 Z m 0.136719,1 0.666666,2 1.333334,0 0.666666,4 1.333334,0 0.666666,-4 1.333334,0 0.666666,-2 z m -2,5.923077 2.743489,4.153846 L 14,18.23122 Z m 10.666666,0 L 18,18.23122 l 0.589844,1.845703 z"/>
 <path style="fill:#17191e;fill-rule:evenodd" d="M 9.6666667,7 8,18.769231 12.799479,25 19.200521,25 24,18.769231 22.333333,7 19,7 13,7 Z M 12.529948,8 19.470052,8 23,18.769231 18.916667,24 18,24 l 0,-2 -4,0 0,2 -0.916667,0 L 9,18.769231 Z m 0.136719,1 0.666666,2 1.333334,0 0.666666,4 1.333334,0 0.666666,-4 1.333334,0 0.666666,-2 z m -2,5.923077 2.743489,4.153846 L 14,17.23122 Z m 10.666666,0 L 18,17.23122 l 0.589844,1.845703 z"/>
 <path style="fill:#8b9cbe;opacity:0.2" d="M 3.4003906 2 C 2.6247906 2 2 2.6247906 2 3.4003906 L 2 4.4003906 C 2 3.6247906 2.6247906 3 3.4003906 3 L 28.599609 3 C 29.375209 3 30 3.6247906 30 4.4003906 L 30 3.4003906 C 30 2.6247906 29.375209 2 28.599609 2 L 3.4003906 2 z"/>
</svg>
