<svg width="32" height="32" version="1.1" xmlns="http://www.w3.org/2000/svg">
 <path d="M 22.5,4 A 3.5,3.5 0 0 0 19,7.5 3.5,3.5 0 0 0 19.042969,8.0332031 L 13.597656,11.728516 A 7,7 0 0 0 9,10 a 7,7 0 0 0 -7,7 7,7 0 0 0 7,7 7,7 0 0 0 5.517578,-2.705078 l 5.638672,2.488281 A 5,5 0 0 0 20,25 a 5,5 0 0 0 5,5 5,5 0 0 0 5,-5 5,5 0 0 0 -3.742188,-4.833984 L 24.525391,10.349609 A 3.5,3.5 0 0 0 26,7.5 3.5,3.5 0 0 0 22.5,4 Z m -1.769531,6.515625 a 3.5,3.5 0 0 0 0.841797,0.355469 l 1.667968,9.451172 a 5,5 0 0 0 -1.488281,0.884765 L 15.810547,18.585938 A 7,7 0 0 0 16,17 7,7 0 0 0 15.380859,14.144531 Z" style="opacity:.2"/>
 <path d="m22.494141 5a1.50015 1.50015 0 0 0-0.835938 0.2578125l-14 9.4999995a1.50015 1.50015 0 0 0 0.2363281 2.615235l17 7.5a1.50015 1.50015 0 0 0 2.082031-1.632813l-3-17a1.50015 1.50015 0 0 0-1.482421-1.2402344zm-1.06836 4.0429688 2.109375 11.949219-11.951172-5.271485z" style="fill:#353535"/>
 <path d="m22.494141 5a1.50015 1.50015 0 0 0-0.835938 0.2578125l-14 9.4999995a1.50015 1.50015 0 0 0-0.5722656 1.744141 1.50015 1.50015 0 0 1 0.5722656-0.744141l14-9.4999995a1.50015 1.50015 0 0 1 0.835938-0.2578125 1.50015 1.50015 0 0 1 1.482421 1.2402344l2.949219 16.716797a1.50015 1.50015 0 0 0 0.050781-0.716797l-3-17a1.50015 1.50015 0 0 0-1.482421-1.2402344zm-10.017579 11.115234-0.892578 0.605469 11.951172 5.271485-0.191406-1.083985-10.867188-4.792969z" style="fill:#8b9cbe;opacity:.1"/>
 <path d="m22.494141 5a1.50015 1.50015 0 0 0-0.835938 0.2578125l-2.623047 1.78125a3.5 3.5 0 0 0-0.035156 0.4609375 3.5 3.5 0 0 0 1.037109 2.484375l1.388672-0.9414062 0.330078 1.8730472a3.5 3.5 0 0 0 0.744141 0.083984 3.5 3.5 0 0 0 2.181641-0.767578l-0.705079-3.9921876a1.50015 1.50015 0 0 0-1.482421-1.2402344zm-9.589844 6.197266-5.2460939 3.560546a1.50015 1.50015 0 0 0 0.2363281 2.615235l7.1425778 3.152344a7 7 0 0 0 0.925782-2.873047l-4.378907-1.931641 3.41211-2.314453a7 7 0 0 0-2.091797-2.208984zm12.095703 8.802734a5 5 0 0 0-1.59375 0.265625l0.128906 0.726563-0.898437-0.396485a5 5 0 0 0-2.175781 2.322266l4.433593 1.955078a1.50015 1.50015 0 0 0 2.082031-1.632813l-0.533203-3.023437a5 5 0 0 0-1.443359-0.216797z" style="opacity:.2"/>
 <circle cx="9" cy="16" r="7" style="fill:#fe6501"/>
 <circle cx="22.5" cy="6.5" r="3.5" style="fill:#fe6501"/>
 <circle cx="25" cy="24" r="5" style="fill:#fe6501"/>
 <path d="M 22.5 3 A 3.5 3.5 0 0 0 19 6.5 A 3.5 3.5 0 0 0 19.039062 6.9941406 A 3.5 3.5 0 0 1 22.5 4 A 3.5 3.5 0 0 1 25.960938 7.0058594 A 3.5 3.5 0 0 0 26 6.5 A 3.5 3.5 0 0 0 22.5 3 z M 9 9 A 7 7 0 0 0 2 16 A 7 7 0 0 0 2.0234375 16.458984 A 7 7 0 0 1 9 10 A 7 7 0 0 1 15.976562 16.541016 A 7 7 0 0 0 16 16 A 7 7 0 0 0 9 9 z M 25 19 A 5 5 0 0 0 20 24 A 5 5 0 0 0 20.027344 24.515625 A 5 5 0 0 1 25 20 A 5 5 0 0 1 29.972656 24.484375 A 5 5 0 0 0 30 24 A 5 5 0 0 0 25 19 z " style="fill:#8b9cbe;opacity:.2"/>
</svg>
