<svg xmlns="http://www.w3.org/2000/svg" width="32" height="32" version="1">
 <path fill="#fecd38" d="m16 2c-7.756 0-14 6.244-14 14s6.244 14 14 14 14-6.244 14-14-6.244-14-14-14z"/>
 <path fill="#fff" opacity=".2" d="m16 2c-7.756 0-14 6.244-14 14 0 0.169 0.0254 0.333 0.0312 0.5 0.2636-7.5207 6.3815-13.5 13.969-13.5 7.5872 0 13.705 5.9793 13.969 13.5 0.006-0.16727 0.0312-0.33125 0.0312-0.5 0-7.756-6.244-14-14-14z"/>
 <path opacity=".2" d="m2.0254 16.5c-0.0059 0.167-0.0254 0.331-0.0254 0.5 0 7.756 6.244 14 14 14s14-6.244 14-14c0-0.16884-0.01952-0.33264-0.02539-0.5-0.264 7.521-6.388 13.5-13.975 13.5-7.5872 0-13.711-5.979-13.975-13.5z"/>
 <path fill="#fff" opacity=".2" d="m15.922 6c-3.265 0-5.213 2.0371-5.213 2.0371l2.9961 5.6934a4 4 0 0 1 2.295 -0.73 4 4 0 0 1 2.184 0.654l2.959-5.6169s-1.957-2.0371-5.221-2.0371zm0.078 9c-1.1045 0-2 0.89555-2 2 0 1.1048 0.89555 2 2 2 1.105 0 2-0.89518 2-2 0-1.1047-0.89526-2-2-2zm4.0547 1.8809c-0.0097 0.29356-0.05728 0.58778-0.12891 0.87891a4 4 0 0 1 -0.0293 0.12891c-0.0058 0.02077-0.0095 0.04177-0.01563 0.0625a4 4 0 0 1 -1.998 2.5742l3.6719 5.3926s2.8152-0.60888 4.4473-3.3242c1.6321-2.7149 0.76953-5.3535 0.76953-5.3535v-0.002l-6.7168-0.35742zm-8.1113 0.08203-6.7168 0.35938s-0.85884 2.6467 0.77344 5.3613c1.6315 2.716 4.4424 3.317 4.4424 3.317l3.682-5.408c-0.35694-0.21264-0.68195-0.47902-0.97266-0.78516a4 4 0 0 1 -0.15039 -0.16602c-0.04338-0.05054-0.08956-0.09763-0.13086-0.15039a4 4 0 0 1 -0.0039 -0.0039 4 4 0 0 1 -0.27734 -0.4043c-0.0089-0.01444-0.02054-0.02644-0.0293-0.04102-0.01724-0.02867-0.02843-0.05901-0.04492-0.08789a4 4 0 0 1 -0.131 -0.253c-0.274-0.56-0.422-1.15-0.442-1.738z"/>
 <path fill="#17191e" d="m15.922 5c-3.265 0-5.213 2.0371-5.213 2.0371l2.996 5.6929a4 4 0 0 1 2.295 -0.73 4 4 0 0 1 2.184 0.654l2.959-5.6169s-1.957-2.0371-5.221-2.0371zm0.078 9c-1.104 0-2 0.896-2 2 0 1.105 0.896 2 2 2 1.105 0 2-0.895 2-2s-0.895-2-2-2zm4.055 1.881c-0.01 0.293-0.058 0.588-0.129 0.879a4 4 0 0 1 -0.03 0.129c-0.005 0.02-0.009 0.041-0.015 0.062a4 4 0 0 1 -1.998 2.574l3.672 5.393s2.815-0.609 4.447-3.324 0.769-5.354 0.769-5.354v-0.002l-6.716-0.357zm-8.112 0.082l-6.7164 0.359s-0.8589 2.647 0.7734 5.362c1.6321 2.715 4.443 3.316 4.443 3.316l3.682-5.408c-0.357-0.213-0.682-0.479-0.973-0.785a4 4 0 0 1 -0.15 -0.166c-0.043-0.051-0.09-0.098-0.131-0.151a4 4 0 0 1 -0.004 -0.004 4 4 0 0 1 -0.277 -0.404c-0.009-0.014-0.021-0.026-0.029-0.041-0.018-0.029-0.029-0.059-0.045-0.088a4 4 0 0 1 -0.131 -0.252c-0.274-0.56-0.422-1.15-0.442-1.738z"/>
</svg>
