<svg xmlns="http://www.w3.org/2000/svg" width="32" height="32" version="1">
 <rect style="opacity:0.2" width="28" height="28" x="2" y="3" rx="1.4" ry="1.4"/>
 <rect style="fill:#ffaf30" width="28" height="28" x="2" y="2" rx="1.4" ry="1.4"/>
 <path style="fill:#17191e" d="m 3.5195313,18.000369 -0.015625,0.461914 c -0.011682,0.331744 0.00412,0.472543 0.055664,0.504883 0.039385,0.02472 0.2373033,0.04543 0.4404297,0.0459 l 0.3691406,9.99e-4 -0.024414,2.616937 c -0.013448,1.164112 -0.00952,2.159836 0.00781,2.213867 0.017337,0.05403 0.073133,0.109544 0.125,0.123047 0.051868,0.0135 0.3347027,0.02782 0.6279299,0.03125 0.376036,0.0045 0.549734,-0.0153 0.5917965,-0.06543 0.03999,-0.04771 0.052952,-0.448483 0.038085,-1.21875 -0.01218,-0.631199 -0.029795,-1.616095 -0.039065,-2.188477 l -0.0166,-1.539788 0.3964845,-0.0166 c 0.2503135,-0.01009 0.4203535,-0.04264 0.459961,-0.08984 0.037895,-0.04517 0.055791,-0.234655 0.0459,-0.477539 L 6.5654295,18.000369 H 5.042969 Z m 3.5927732,0 -0.039065,0.271484 c -0.021585,0.149456 -0.047395,1.87087 -0.05664,3.214594 L 7,23.929806 l 0.439453,0.01563 c 0.241939,0.0084 0.4523025,0.02764 0.4677735,0.04297 0.039285,0.0389 0.3517785,-0.0318 0.435547,-0.09863 0.041845,-0.03338 0.068359,-0.189499 0.068359,-0.393555 0,-0.282218 -0.019865,-0.354034 -0.1240235,-0.442383 l -0.125,-0.105469 0.1367185,-0.0332 0.136719,-0.03125 -0.01758,-0.719727 c -0.018605,-0.811599 -0.0253,-0.797048 0.4228515,-0.853516 0.208724,-0.0263 0.2387065,-0.01684 0.260742,0.08789 0.1196,0.568424 0.130951,0.703784 0.084961,1.052734 -0.02763,0.209716 -0.044545,0.641274 -0.038085,0.958008 l 0.01074,0.575196 h 0.6650395 0.6640615 l -0.0029,-0.40918 -0.002,-0.410156 -0.384766,-0.118164 c -0.359885,-0.11092 -0.387102,-0.130531 -0.4033195,-0.29004 -0.01438,-0.141446 0.00205,-0.169921 0.09668,-0.169921 0.090035,0 0.114258,0.03441 0.114258,0.164062 0,0.188864 0.080385,0.214966 0.1669915,0.05469 0.06608,-0.12228 0.220302,-0.143976 0.320313,-0.04492 0.03604,0.03571 0.08407,0.04654 0.107422,0.02343 0.02334,-0.02311 0.04199,-0.994403 0.04199,-2.157226 v -2.614006 l -0.6083755,-0.0059 -0.609375,-0.0068 0.02051,0.609375 c 0.01113,0.334799 0.00235,1.261435 -0.01953,1.447991 l -0.04004,0.338867 -0.478516,-0.01563 -0.4785155,-0.0166 -0.027345,-1.43139 -0.028322,-0.932619 H 7.692383 Z m 13.1923825,0 c -0.299416,0.0072 -0.974609,0.245018 -0.974609,0.366211 0,0.02953 -0.05745,0.04828 -0.125977,0.04102 l -0.125,-0.01367 -0.01367,1.508539 -0.01563,1.006836 0.320313,0.0625 c 0.06595,0.01299 0.05806,0.01834 0.107422,0.0293 l 0.90332,-0.02051 c 0.07736,-0.0086 0.08474,-0.642273 0.09766,-1.706782 0.01295,-1.068066 0.0036,-1.231968 -0.07129,-1.260742 -0.02431,-0.0093 -0.05977,-0.01372 -0.102541,-0.01269 z m 1.758789,0 c -0.08045,0.0019 -0.342609,0.0089 -0.583007,0.01465 -0.347068,0.0084 -0.444103,0.02929 -0.47168,0.102539 -0.0191,0.05074 -0.0053,0.361928 0.03125,0.691406 0.07662,0.690258 0.07813,1.325117 0.01758,1.741936 -0.0382,0.262961 -0.02973,0.315044 0.05859,0.38086 0.01827,0.01362 0.04863,0.01231 0.07422,0.02343 l 3.026368,-0.06836 c 0.0044,-0.0033 0.01564,-0.0062 0.01855,-0.0098 0.04355,-0.05347 0.05178,-0.910757 0.02636,-1.713616 l -0.03711,-1.138672 -0.419922,0.002 c -0.723565,0.0013 -0.667969,-0.08028 -0.667969,0.988281 0,0.525963 -0.02344,1.436743 -0.05371,1.455804 -0.07321,0.04611 -0.19979,-0.720192 -0.328125,-1.192132 -0.05943,-0.218607 -0.206036,-0.595893 -0.32616,-0.838873 -0.191343,-0.38705 -0.237085,-0.442547 -0.365235,-0.439453 z m -9.55664,0.001 c -0.726061,-0.0037 -1.443945,0.01153 -1.480469,0.04785 -0.03664,0.03645 -0.03462,0.460746 0.0059,1.264648 0.03351,0.665601 0.05957,1.930721 0.05957,2.200921 -10e-7,0.516463 0.04361,0.623047 0.249023,0.623047 0.06327,0 0.172579,0.04068 0.243164,0.08984 0.111538,0.07768 0.123254,0.119208 0.09277,0.321289 -0.03869,0.256556 0.0055,0.320701 0.262695,0.381836 0.268603,0.06385 0.103218,0.143555 -0.297852,0.143555 -0.427253,0 -0.503482,0.06114 -0.389648,0.30957 0.04929,0.10758 0.04484,0.170254 -0.02051,0.295899 -0.0457,0.08788 -0.08399,0.185355 -0.08399,0.21582 0,0.03047 0.18153,0.06377 0.402344,0.07422 0.758811,0.03591 2.413464,0.04023 2.500976,0.0068 0.06963,-0.02657 0.08789,-0.122251 0.08789,-0.467773 v -0.43457 l -0.900391,-0.001 c -0.843145,-8e-4 -1.138794,-0.04031 -0.988281,-0.132813 0.03964,-0.02436 0.06152,-0.287219 0.06152,-0.743164 v -0.705078 l 0.304687,-0.03515 c 0.167853,-0.01964 0.403386,-0.02007 0.523438,-10e-4 0.120052,0.01909 0.282573,0.01868 0.361328,-0.001 0.141935,-0.03542 0.143768,-0.0396 0.127929,-0.515625 l -0.0166,-0.480468 -0.578125,-0.01563 c -0.320359,-0.0087 -0.611994,-0.04402 -0.65332,-0.07813 -0.05342,-0.04408 -0.07007,-0.179993 -0.05859,-0.479493 l 0.0166,-0.918695 0.885743,-0.0332 c 0.487313,-0.01861 0.891799,-0.03689 0.899414,-0.04102 0.0077,-0.0041 0.01465,-0.18067 0.01465,-0.391601 0,-0.31671 -0.01798,-0.392507 -0.102539,-0.4375 -0.06925,-0.03684 -0.803236,-0.05883 -1.529297,-0.0625 z m 13.115234,0 c -0.26992,0.0026 -0.45908,0.01167 -0.485351,0.03027 -0.05451,0.0386 -0.08046,0.342217 -0.104493,1.197265 L 25,20.8634 27.579101,20.80285 c 0.01755,-0.01843 0.0263,-0.04226 0.03125,-0.07617 0.01019,-0.06986 -0.0052,-0.150466 -0.03418,-0.179687 -0.02895,-0.02923 -0.311661,-0.06648 -0.627929,-0.08301 -0.340121,-0.01779 -0.592146,-0.05684 -0.616211,-0.09473 -0.02237,-0.03524 -0.04045,-0.220808 -0.04102,-0.411132 -4.67e-4,-0.190324 -0.02521,-0.860628 -0.05566,-0.879633 -0.174439,-0.108812 0.0308,-0.229554 0.91211,-0.138672 h 0.969726 v -0.384765 c 0,-0.253822 -0.02504,-0.406078 -0.07422,-0.447266 -0.07128,-0.05972 -1.611136,-0.114337 -2.420899,-0.106445 z m -9.339844,0.0019 c -0.327668,0.02252 -0.280273,0.208715 -0.280273,1.290039 v 1.744867 l 0.227539,0.03614 c 0.124183,0.02001 0.347141,0.02004 0.49707,0 0.112598,-0.01506 0.178196,-0.0134 0.220703,-0.0039 l 0.415039,-0.0098 c -0.02137,-0.133901 -0.04162,-0.609128 -0.04687,-1.241211 l -0.01172,-1.80642 -0.553711,-0.0049 c -0.208733,-0.0017 -0.358551,-0.01237 -0.467774,-0.0049 z m 11.448243,3.077874 -2.547852,0.0078 c -0.03722,0.04827 -0.08886,0.376572 -0.117188,0.734375 -0.04468,0.564337 -0.04037,0.690527 0.04102,0.918946 0.08241,0.231317 0.08589,0.322641 0.02929,0.726562 -0.05133,0.366615 -0.05012,0.473287 0.0049,0.511719 0.06798,0.04751 2.96524,-8e-4 3.046875,-0.05078 0.02283,-0.014 0.04004,-0.186569 0.04004,-0.383789 0,-0.345342 -0.0066,-0.362906 -0.173828,-0.450196 -0.128235,-0.06694 -0.353849,-0.09448 -0.865235,-0.103515 -0.901016,-0.01591 -0.897685,-0.01253 -0.897461,-0.890625 v -0.622071 l 0.510743,-0.01465 c 0.281648,-0.0078 0.606489,-0.02895 0.720703,-0.04687 0.193093,-0.0303 0.208008,-0.04533 0.208008,-0.222657 z m -3.501954,0.01172 -2.798828,0.01074 c -0.02497,0.01259 -0.06136,0.02291 -0.107422,0.02832 -0.151896,0.01781 -0.152009,0.01822 -0.143554,0.44043 0.0047,0.232785 0.0092,0.829561 0.01172,1.326172 0.0046,0.907734 0.02116,1.000346 0.173828,1.05957 0.110523,0.04287 0.799137,0.0505 0.90332,0.0098 0.06925,-0.02708 0.07701,-0.154546 0.05176,-0.804687 -0.03155,-0.812862 0.02056,-1.873047 0.09277,-1.873047 0.05884,0 0.668832,1.801166 0.668945,1.975586 7.2e-5,0.151987 0.134215,0.401641 0.326172,0.605469 0.09909,0.105225 0.180058,0.127929 0.467773,0.127929 0.580614,0 0.558611,0.05447 0.578125,-1.466797 0.012,-0.936141 -6e-4,-1.329872 -0.04687,-1.386718 -0.02021,-0.0248 -0.08121,-0.04107 -0.177734,-0.05274 z m -3.954101,0.01465 c -0.09647,0.01165 -0.175179,0.009 -0.239258,10e-4 l -0.31543,0.002 c -0.04056,0.0096 -0.106079,0.01912 -0.197265,0.02735 l -0.332032,0.03027 v 0.276367 0.27832 l 0.237305,0.02636 c 0.190397,0.02232 0.252482,0.05964 0.31836,0.1875 0.166561,0.323293 0.03214,0.652961 -0.177735,0.436524 -0.05592,-0.05768 -0.143968,-0.122425 -0.197265,-0.141602 -0.07992,-0.02876 -0.09766,-0.0017 -0.09766,0.151367 0,0.102086 -0.03733,0.274274 -0.08301,0.383789 -0.07748,0.185708 -0.123244,1.144241 -0.05762,1.209961 0.01435,0.01437 0.342803,0.02411 0.728516,0.02246 0.694613,-0.003 0.701042,-0.0042 0.757812,-0.141601 0.07129,-0.172479 0.05372,-2.449974 -0.02051,-2.645508 -0.0222,-0.05851 -0.04221,-0.08841 -0.07715,-0.104492 h -0.237305 z m -2.907227,0.01172 -0.410156,0.002 c -0.04526,0.02542 -0.146587,0.04297 -0.338867,0.04297 -0.255595,0 -0.400948,0.02466 -0.44336,0.07617 -0.04432,0.05386 -0.05829,0.46627 -0.04785,1.381836 l 0.01465,1.304688 1.080078,0.03028 c 0.593912,0.01635 1.157205,0.03434 1.25293,0.04101 0.09859,0.0069 0.184853,-0.0181 0.199219,-0.05762 0.01393,-0.03838 0.01149,-0.259008 -0.0068,-0.489257 l -0.03418,-0.416993 -0.276367,-0.0059 c -0.302848,-0.0058 -0.91575,-0.06792 -1.134766,-0.115234 -0.132549,-0.02863 -0.13088,-0.03329 0.05469,-0.0957 0.159112,-0.05351 0.191029,-0.08938 0.179687,-0.203125 -0.0076,-0.0762 -0.01888,-0.427226 -0.02636,-0.780274 -0.0075,-0.353046 -0.03498,-0.657615 -0.05957,-0.675781 -0.0012,-9e-4 -0.0018,-0.03557 -0.0029,-0.03907 z"/>
 <path style="opacity:0.2" d="M 4.3242188,8 C 4.2246717,8 4.1467122,8.03608 4.0878906,8.109375 4.0290672,8.180056 4,8.2760654 4,8.3964844 v 0.7734375 c 0,0.07853 0.012224,0.1436194 0.037109,0.1933593 0.024887,0.04712 0.072442,0.08191 0.1425781,0.1054688 l 1.8632813,0.652344 v 0.125 H 4.9570312 V 9.9394531 H 4 v 0.6640629 c 0,0.120419 0.029067,0.217716 0.087891,0.291015 C 4.1467136,10.965211 4.2246713,11 4.3242188,11 h 2.3496093 c 0.099549,0 0.1794593,-0.03479 0.2382813,-0.105469 C 6.9709334,10.821232 7,10.723935 7,10.603516 V 9.8261719 C 7,9.7476389 6.9861344,9.6825525 6.9589844,9.6328125 6.9341044,9.5804565 6.8865407,9.5430913 6.8164062,9.5195312 L 4.9570312,8.875 V 8.7539062 h 1.0859376 v 0.234375 H 7 V 8.3847656 C 7,8.2643466 6.970618,8.1696255 6.9140625,8.1015625 6.8575065,8.0335005 6.779235,8 6.6796875,8 Z M 8,8 v 3 h 0.9570312 v -0.757812 h 1.7207028 c 0.09955,0 0.177814,-0.03673 0.234375,-0.107422 C 10.970933,10.061468 11,9.96417 11,9.84375 V 8.3964844 C 11,8.2760654 10.970622,8.180056 10.914062,8.109375 10.859763,8.036077 10.785096,8 10.685547,8 Z m 4,0 v 3 h 3 V 10.148438 H 12.976562 V 9.8808594 h 1.521485 V 9.09375 H 12.976562 V 8.8515625 h 1.996094 V 8 Z m 4.302734,0 C 16.207494,8 16.132237,8.03608 16.078125,8.109375 16.026177,8.180056 16,8.2760654 16,8.3964844 v 2.2070316 c 0,0.120419 0.02617,0.217716 0.07813,0.291015 C 16.132235,10.965211 16.207496,11 16.302734,11 h 2.388672 c 0.09524,0 0.168545,-0.03479 0.222656,-0.105469 C 18.970343,10.821231 19,10.723935 19,10.603516 V 9.734375 H 18.083984 V 10.1875 h -1.167968 v -1.375 h 1.167968 V 9.265625 H 19 V 8.3964844 C 19,8.2760654 18.972296,8.180056 18.916016,8.109375 18.861906,8.036077 18.786645,8 18.691406,8 Z M 8.9570312,8.8125 H 10.042969 V 9.4570312 H 8.9570312 Z M 16.302734,12 c -0.09524,0 -0.170497,0.03608 -0.224609,0.109375 C 16.026175,12.180055 16,12.276064 16,12.396484 v 2.207032 c 0,0.120419 0.02616,0.217717 0.07813,0.291015 C 16.132235,14.965211 16.207496,15 16.302734,15 h 2.394532 c 0.09524,0 0.168755,-0.03478 0.220703,-0.105469 C 18.972079,14.821231 19,14.723935 19,14.603516 v -2.207032 c 0,-0.12042 -0.02597,-0.216428 -0.08008,-0.287109 C 18.867962,12.036075 18.792504,12 18.697266,12 Z M 20,12 v 3 h 0.957031 v -0.757812 h 1.720703 c 0.09955,0 0.177814,-0.03676 0.234375,-0.107422 C 22.970929,14.061466 23,13.966122 23,13.845703 v -1.449219 c 0,-0.12042 -0.02939,-0.216428 -0.08594,-0.287109 C 22.859762,12.036075 22.783143,12 22.683594,12 Z m 4.324219,0 c -0.09955,0 -0.177506,0.03608 -0.236328,0.109375 C 24.029071,12.180055 24,12.276064 24,12.396484 v 0.775391 c 0,0.07853 0.01222,0.141666 0.03711,0.191406 0.02488,0.04713 0.0744,0.08191 0.144532,0.105469 l 1.863281,0.652344 v 0.125 H 24.957031 V 13.939453 H 24 v 0.664063 c 0,0.120419 0.02907,0.217717 0.08789,0.291015 C 24.146711,14.965211 24.224671,15 24.324219,15 h 2.349609 c 0.09955,0 0.179457,-0.03478 0.238281,-0.105469 C 26.970929,14.821231 27,14.723935 27,14.603516 v -0.777344 c 0,-0.07853 -0.01386,-0.14362 -0.04102,-0.19336 -0.02488,-0.05236 -0.07245,-0.08972 -0.142578,-0.113281 l -1.859375,-0.642578 v -0.123047 h 1.085938 v 0.236328 H 27 V 12.386719 C 27,12.2663 26.970613,12.171579 26.914062,12.103516 26.857512,12.035456 26.779234,12 26.679688,12 Z m -7.408203,0.8125 h 1.167968 v 1.375 h -1.167968 z m 4.041015,0 h 1.085938 v 0.644531 h -1.085938 z"/>
 <path style="fill:#8b9cbe" d="M 4.3242188 7 C 4.2246717 7 4.1467122 7.03608 4.0878906 7.109375 C 4.0290672 7.180056 4 7.2760654 4 7.3964844 L 4 8.1699219 C 4 8.2484519 4.0122244 8.3135413 4.0371094 8.3632812 C 4.0619964 8.4104012 4.1095518 8.445191 4.1796875 8.46875 L 6.0429688 9.1210938 L 6.0429688 9.2460938 L 4.9570312 9.2460938 L 4.9570312 8.9394531 L 4 8.9394531 L 4 9.6035156 C 4 9.7239346 4.0290666 9.8212323 4.0878906 9.8945312 C 4.1467136 9.9652112 4.2246713 10 4.3242188 10 L 6.6738281 10 C 6.7733771 10 6.8532874 9.965206 6.9121094 9.8945312 C 6.9709334 9.8212322 7 9.7239346 7 9.6035156 L 7 8.8261719 C 7 8.7476389 6.9861344 8.6825525 6.9589844 8.6328125 C 6.9341044 8.5804565 6.8865407 8.5430913 6.8164062 8.5195312 L 4.9570312 7.875 L 4.9570312 7.7539062 L 6.0429688 7.7539062 L 6.0429688 7.9882812 L 7 7.9882812 L 7 7.3847656 C 7 7.2643466 6.970618 7.1696255 6.9140625 7.1015625 C 6.8575065 7.0335005 6.779235 7 6.6796875 7 L 4.3242188 7 z M 8 7 L 8 10 L 8.9570312 10 L 8.9570312 9.2421875 L 10.677734 9.2421875 C 10.777284 9.2421875 10.855548 9.2054576 10.912109 9.1347656 C 10.970933 9.0614676 11 8.96417 11 8.84375 L 11 7.3964844 C 11 7.2760654 10.970622 7.180056 10.914062 7.109375 C 10.859763 7.036077 10.785096 7 10.685547 7 L 8 7 z M 12 7 L 12 10 L 15 10 L 15 9.1484375 L 12.976562 9.1484375 L 12.976562 8.8808594 L 14.498047 8.8808594 L 14.498047 8.09375 L 12.976562 8.09375 L 12.976562 7.8515625 L 14.972656 7.8515625 L 14.972656 7 L 12 7 z M 16.302734 7 C 16.207494 7 16.132237 7.03608 16.078125 7.109375 C 16.026177 7.180056 16 7.2760654 16 7.3964844 L 16 9.6035156 C 16 9.7239346 16.026175 9.8212322 16.078125 9.8945312 C 16.132235 9.9652112 16.207496 10 16.302734 10 L 18.691406 10 C 18.786646 10 18.859951 9.9652061 18.914062 9.8945312 C 18.970343 9.8212313 19 9.7239346 19 9.6035156 L 19 8.734375 L 18.083984 8.734375 L 18.083984 9.1875 L 16.916016 9.1875 L 16.916016 7.8125 L 18.083984 7.8125 L 18.083984 8.265625 L 19 8.265625 L 19 7.3964844 C 19 7.2760654 18.972296 7.180056 18.916016 7.109375 C 18.861906 7.036077 18.786645 7 18.691406 7 L 16.302734 7 z M 8.9570312 7.8125 L 10.042969 7.8125 L 10.042969 8.4570312 L 8.9570312 8.4570312 L 8.9570312 7.8125 z M 16.302734 11 C 16.207494 11 16.132237 11.03608 16.078125 11.109375 C 16.026175 11.180055 16 11.276064 16 11.396484 L 16 13.603516 C 16 13.723935 16.026165 13.821233 16.078125 13.894531 C 16.132235 13.965211 16.207496 14 16.302734 14 L 18.697266 14 C 18.792506 14 18.866021 13.96522 18.917969 13.894531 C 18.972079 13.821231 19 13.723935 19 13.603516 L 19 11.396484 C 19 11.276064 18.974032 11.180056 18.919922 11.109375 C 18.867962 11.036075 18.792504 11 18.697266 11 L 16.302734 11 z M 20 11 L 20 14 L 20.957031 14 L 20.957031 13.242188 L 22.677734 13.242188 C 22.777284 13.242188 22.855548 13.205428 22.912109 13.134766 C 22.970929 13.061466 23 12.966122 23 12.845703 L 23 11.396484 C 23 11.276064 22.970613 11.180056 22.914062 11.109375 C 22.859762 11.036075 22.783143 11 22.683594 11 L 20 11 z M 24.324219 11 C 24.224669 11 24.146713 11.03608 24.087891 11.109375 C 24.029071 11.180055 24 11.276064 24 11.396484 L 24 12.171875 C 24 12.250405 24.012219 12.313541 24.037109 12.363281 C 24.061989 12.410411 24.111506 12.445195 24.181641 12.46875 L 26.044922 13.121094 L 26.044922 13.246094 L 24.957031 13.246094 L 24.957031 12.939453 L 24 12.939453 L 24 13.603516 C 24 13.723935 24.029071 13.821233 24.087891 13.894531 C 24.146711 13.965211 24.224671 14 24.324219 14 L 26.673828 14 C 26.773378 14 26.853285 13.96522 26.912109 13.894531 C 26.970929 13.821231 27 13.723935 27 13.603516 L 27 12.826172 C 27 12.747642 26.986144 12.682552 26.958984 12.632812 C 26.934104 12.580452 26.886537 12.543093 26.816406 12.519531 L 24.957031 11.876953 L 24.957031 11.753906 L 26.042969 11.753906 L 26.042969 11.990234 L 27 11.990234 L 27 11.386719 C 27 11.2663 26.970613 11.171579 26.914062 11.103516 C 26.857512 11.035456 26.779234 11 26.679688 11 L 24.324219 11 z M 16.916016 11.8125 L 18.083984 11.8125 L 18.083984 13.1875 L 16.916016 13.1875 L 16.916016 11.8125 z M 20.957031 11.8125 L 22.042969 11.8125 L 22.042969 12.457031 L 20.957031 12.457031 L 20.957031 11.8125 z"/>
 <path style="fill:#8b9cbe;opacity:0.2" d="M 3.4003906 2 C 2.6247906 2 2 2.6247906 2 3.4003906 L 2 4.4003906 C 2 3.6247906 2.6247906 3 3.4003906 3 L 28.599609 3 C 29.375209 3 30 3.6247906 30 4.4003906 L 30 3.4003906 C 30 2.6247906 29.375209 2 28.599609 2 L 3.4003906 2 z"/>
</svg>
