<svg xmlns="http://www.w3.org/2000/svg" width="32" height="32" version="1">
 <rect style="opacity:0.2" width="25" height="28" x="-28" y="3" rx="1.389" ry="1.4" transform="scale(-1,1)"/>
 <rect style="fill:#b2bfd9" width="25" height="28" x="-28" y="2" rx="1.389" ry="1.4" transform="scale(-1,1)"/>
 <rect style="fill:#65424f" width="19" height="19" x="-25" y="5" rx="0" ry="0" transform="scale(-1,1)"/>
 <path style="opacity:0.2;fill-rule:evenodd" d="m 11,8.0003548 0,15.0000002 1,0 0,-15.0000002 -1,0 z m 5.458984,0.00195 C 15.099411,8.0954818 14.003555,9.5298889 14,11.551136 l 0,0.002 0,0.002 c -0.01244,1.788035 1.120669,2.851594 1.976562,4.02539 l 0.0098,0.01172 0.0098,0.01172 c 0.813944,0.988644 1.627972,1.74396 2.173828,2.521484 0.539885,0.769019 0.837579,1.533395 0.730469,2.695312 -0.175762,0.797465 -0.647925,1.033133 -1.181641,1.152344 -0.539834,0.120578 -1.058594,0.03516 -1.058594,0.03516 l -0.04297,-0.0078 -0.04492,0 c -0.560918,0 -0.902533,-0.183484 -1.158204,-0.509766 C 15.158392,21.164308 15,20.652312 15,20.000355 l -1,0 c 0,0.811198 0.189765,1.549492 0.626953,2.107422 0.428726,0.54713 1.110029,0.870136 1.902344,0.882812 0.04043,0.0073 0.663486,0.12533 1.408203,-0.04102 0.768483,-0.171649 1.70013,-0.738161 1.951172,-1.94336 l 0.0059,-0.02734 0.0039,-0.02539 c 0.140259,-1.412898 -0.276029,-2.499084 -0.910157,-3.402344 -0.633614,-0.902529 -1.457458,-1.655786 -2.21875,-2.580078 0,0 -0.002,-0.002 -0.002,-0.002 C 15.850505,13.716802 14.9892,12.912849 15,11.558949 l 0,-0.002 0,-0.002 c 0.0016,-1.6691441 0.86997,-2.5115904 1.527344,-2.5566413 0.387254,-0.026538 0.707139,0.052959 0.96289,0.3105469 C 17.745985,9.5666301 17.979629,10.067009 18,11.012074 l 1,-0.02344 C 18.976201,9.8845845 18.694442,9.1006826 18.201172,8.6038704 17.707902,8.1070582 17.045268,7.9621305 16.458984,8.0023079 Z"/>
 <path style="fill:none;stroke:#8b9cbe" d="M 18.500448,10 C 18.456278,7.9508834 17.46709,7.4332844 16.493552,7.5 c -1.008964,0.069146 -1.991629,1.2082225 -1.993434,3.054571 -0.01258,1.577038 0.990593,2.510321 1.881049,3.731517 1.575751,1.913961 3.276732,3.020174 3.018951,5.616919 C 18.978295,21.928085 16.572572,21.5 16.572572,21.5 15.1991,21.5 14.500118,20.463155 14.500118,19"/>
 <rect style="fill:#8b9cbe" width="1" height="15" x="11" y="7"/>
 <path style="fill:#8b9cbe;opacity:0.2" d="M 4.3886719 2 C 3.6192275 2 3 2.6247906 3 3.4003906 L 3 4.4003906 C 3 3.6247906 3.6192275 3 4.3886719 3 L 26.611328 3 C 27.380773 3 28 3.6247906 28 4.4003906 L 28 3.4003906 C 28 2.6247906 27.380773 2 26.611328 2 L 4.3886719 2 z"/>
</svg>
