<svg width="32" height="32" version="1.1" xmlns="http://www.w3.org/2000/svg">
 <circle cx="8.5" cy="7.5" r="4.5" style="fill:#c9c9c9"/>
 <path d="M 8.5 3 A 4.5 4.5 0 0 0 4 7.5 A 4.5 4.5 0 0 0 4.0332031 7.9882812 A 4.5 4.5 0 0 1 8.5 4 A 4.5 4.5 0 0 1 12.966797 8.0117188 A 4.5 4.5 0 0 0 13 7.5 A 4.5 4.5 0 0 0 8.5 3 z " style="fill:#8b9cbe;opacity:.1"/>
 <circle cx="23.5" cy="7.5" r="4.5" style="fill:#17191e"/>
 <path d="M 23.5 3 A 4.5 4.5 0 0 0 19 7.5 A 4.5 4.5 0 0 0 19.033203 7.9882812 A 4.5 4.5 0 0 1 23.5 4 A 4.5 4.5 0 0 1 27.966797 8.0117188 A 4.5 4.5 0 0 0 28 7.5 A 4.5 4.5 0 0 0 23.5 3 z " style="fill:#8b9cbe;opacity:.1"/>
 <ellipse cx="16" cy="18" rx="14" ry="12" style="opacity:.2"/>
 <path d="m16 5a14 12 0 0 0-14 12 14 12 0 0 0 14 12v-24z" style="fill:#b2bfd9"/>
 <path d="m16 5v24a14 12 0 0 0 14-12 14 12 0 0 0-14-12z" style="fill:#4f4f4f"/>
 <circle cx="11.5" cy="14.5" r="1.5" style="opacity:.1"/>
 <circle cx="11.5" cy="13.5" r="1.5" style="fill:#17191e"/>
 <path d="m16 19v3c9 0 11-6 11-6s-3 3-11 3z" style="fill:#8b9cbe"/>
 <path d="m21 13-3 3s1.736973-0.425002 2.542373 0c0.604849 0.319173 0.457627 2 0.457627 2s1-2 2-2 1 1 1 1l2-5s-2 3-4 3c-0.745356 0-1-2-1-2z" style="opacity:.2"/>
 <path d="m21 12-3 3s1.736973-0.425002 2.542373 0c0.604849 0.319173 0.457627 2 0.457627 2s1-2 2-2 1 1 1 1l2-5s-2 3-4 3c-0.745356 0-1-2-1-2z" style="fill:#f00e0e"/>
 <rect x="14" y="19" width="2" height="3" style="fill:#4f4f4f"/>
 <path d="m12 20s1 5 4 5c1.490712 0 4-2.457627 4-2.457627s-2 0.457627-4 0.457627-2-3-2-3z" style="opacity:.1"/>
 <path d="m12 19s1 5 4 5c1.490712 0 4-2.457627 4-2.457627s-2 0.457627-4 0.457627-2-3-2-3z" style="fill:#b3b3b3"/>
 <path d="m13 21c2 0 3-1 3-1s1 1 3 1c1 0 2-1 2-2s-1-3-5-3-5 2-5 3 1 2 2 2z" style="opacity:.2"/>
 <path d="m13 20c2 0 3-1 3-1s1 1 3 1c1 0 2-1 2-2s-1-3-5-3-5 2-5 3 1 2 2 2z" style="fill:#b3b3b3"/>
 <path d="m16 19 2-2h-4z" style="opacity:.1"/>
 <path d="m16 18 2-2h-4z" style="fill:#17191e"/>
 <path d="M 16 5 A 14 12 0 0 0 2 17 A 14 12 0 0 0 2.0234375 17.414062 A 14 12 0 0 1 16 6 L 16 5 z " style="fill:#8b9cbe;opacity:.2"/>
 <path d="m16 5v1a14 12 0 0 1 13.976562 11.585938 14 12 0 0 0 0.023438-0.585938 14 12 0 0 0-14-12z" style="fill:#8b9cbe;opacity:.1"/>
</svg>
