<svg width="32" height="32" version="1.1" xmlns="http://www.w3.org/2000/svg">
 <path d="m19 11h-6s1 4 1 9c0 2-1 3-3 3s-3-2-3-5c0-6 4-11 4-11l-9 2s-1 2-1 8c0 5.6 3 11 7 11s6.999996-4.000001 6.999996-4.000001 2.000004 4.000001 5.600003 4.000001c5.400001 0 8.400003-5.399999 8.400001-10 2e-6 -5.399999-2-8-2-8l-6-1s2 2 2 9c0 2-1 5-4 5-1 0-2-1-2-3 0-5 1-9 1-9z" style="opacity:.2"/>
 <path d="m19 10h-6s1 4 1 9c0 2-1 3-3 3s-3-2-3-5c0-6 4-11 4-11l-9 2s-1 2-1 8c0 5.6 3 11 7 11s6.999996-4.000001 6.999996-4.000001 2.000004 4.000001 5.600003 4.000001c5.400001 0 8.400003-5.399999 8.400001-10 2e-6 -5.399999-2-8-2-8l-6-1s2 2 2 9c0 2-1 5-4 5-1 0-2-1-2-3 0-5 1-9 1-9z" style="fill:#afafb1"/>
 <path d="m12 6-9 2 1 2 8-4zm10 2 5 3 1-2-6-1zm-9 2 3 2 3-2h-6z" style="fill:#8b9cbe;opacity:.2"/>
 <path d="m30 17s-2 8-8 8c-4 0-6-4-6-4s-3 4-7 4c-4.8573176 0-6.8433984-7.426525-6.9550781-7.857422 0.3730753 5.169522 3.2282434 9.857422 6.9550781 9.857422 4 0 7-4 7-4s1.99961 4 5.599609 4c5.400001 0 8.400393-5.399999 8.400391-10z" style="opacity:.2"/>
 <path d="m12 6-9 2s-1 2-1 8c0 0.127994 0.0105613 0.255089 0.0136719 0.382812 0.0691996-5.491136 0.9863281-7.382812 0.9863281-7.382812l8.183594-1.8183594c0.470938-0.7311405 0.816406-1.1816406 0.816406-1.1816406zm10 2s0.307344 0.3226878 0.679688 1.1132812l5.320312 0.8867188s1.861885 2.465337 1.978516 7.529297c0.00862-0.176661 0.021484-0.354604 0.021484-0.529297 2e-6 -5.399999-2-8-2-8l-6-1zm-9 2s0.090473 0.405755 0.208984 1h5.582032c0.118511-0.594245 0.208984-1 0.208984-1h-6zm10.976562 7.367188c-0.112769 1.980481-1.151088 4.632812-3.976562 4.632812-0.952079 0-1.89336-0.917559-1.982422-2.730469-0.00477 0.24514-0.017578 0.47993-0.017578 0.730469 0 2 1 3 2 3 3 0 4-3 4-5 0-0.231061-0.019223-0.412539-0.023438-0.632812zm-15.955078 0.113281c-0.0066076 0.173206-0.0214844 0.344524-0.0214844 0.519531 0 3 1 5 3 5s3-1 3-3c0-0.253217-0.012708-0.490584-0.017578-0.738281-0.088729 1.818212-1.075481 2.738281-2.982422 2.738281-1.8883791 0-2.8731244-1.795295-2.9785156-4.519531z" style="fill:#8b9cbe;opacity:.2"/>
</svg>
