<svg width="32" height="32" version="1.1" xmlns="http://www.w3.org/2000/svg">
 <rect x="2" y="3" width="28" height="28" rx="1" ry="1" style="opacity:.2"/>
 <rect x="2" y="2" width="28" height="28" rx="1" ry="1" style="fill:#b2bfd9"/>
 <path d="m6 10-2 14h6v-3h4v-5h-4v-3c5 0 5-3 5-3zm12 0v11h4l7-1h-9l9-2h-9l9-2h-9l9-2h-9l9-2h-9l8.6-2h-8.6zm4 11v3h2l5-1h-5l5-2z" style="opacity:.1"/>
 <path d="m6 9-2 14h6v-3h4v-5h-4v-3c5 0 5-3 5-3h-9z" style="fill:#4f4f4f"/>
 <path d="m3 2c-0.554 0-1 0.446-1 1v1c0-0.554 0.446-1 1-1h26c0.554 0 1 0.446 1 1v-1c0-0.554-0.446-1-1-1z" style="fill:#8b9cbe;opacity:.2"/>
 <path d="m18 9v4 7h4l7-1h-9l9-2h-9l9-2h-9l9-2h-9l9-2h-9l8.599609-2h-8.599609-2zm4 11v3h2l5-1h-5l5-2h-7z" style="fill:#ff3c3c"/>
</svg>
