<svg width="32" height="32" version="1.1" xmlns="http://www.w3.org/2000/svg">
 <path d="M 16,4 A 7,7 0 0 0 9.0800781,10.003906 7,7 0 0 0 9,10 7,7 0 0 0 2,17 7,7 0 0 0 5.1425781,22.835938 5,5 0 0 0 5,24 5,5 0 0 0 10,29 5,5 0 0 0 13.527344,27.539062 7,7 0 0 0 16,28 7,7 0 0 0 18.476562,27.542969 5,5 0 0 0 22,29 5,5 0 0 0 27,24 5,5 0 0 0 26.857422,22.835938 7,7 0 0 0 30,17 a 7,7 0 0 0 -7,-7 7,7 0 0 0 -0.07813,0.002 A 7,7 0 0 0 16,4 Z" style="opacity:.2"/>
 <path d="M 16 3 A 7 7 0 0 0 9.0800781 9.0039062 A 7 7 0 0 0 9 9 A 7 7 0 0 0 2 16 A 7 7 0 0 0 5.1425781 21.835938 A 5 5 0 0 0 5 23 A 5 5 0 0 0 10 28 A 5 5 0 0 0 13.527344 26.539062 A 7 7 0 0 0 16 27 A 7 7 0 0 0 18.476562 26.542969 A 5 5 0 0 0 22 28 A 5 5 0 0 0 27 23 A 5 5 0 0 0 26.857422 21.835938 A 7 7 0 0 0 30 16 A 7 7 0 0 0 23 9 A 7 7 0 0 0 22.921875 9.0019531 A 7 7 0 0 0 16 3 z " style="fill:#ff7b01"/>
 <ellipse cx="12.5" cy="19.5" rx="3.5" ry="4.5" style="opacity:.2"/>
 <ellipse cx="12.5" cy="18.5" rx="3.5" ry="4.5" style="fill:#8b9cbe"/>
 <ellipse cx="19.5" cy="19.5" rx="3.5" ry="4.5" style="opacity:.2"/>
 <ellipse cx="19.5" cy="18.5" rx="3.5" ry="4.5" style="fill:#8b9cbe"/>
 <ellipse cx="13.5" cy="19" rx="1.5" ry="2" style="fill:#0059bf"/>
 <ellipse cx="18.5" cy="19" rx="1.5" ry="2" style="fill:#0059bf"/>
 <path d="M 16 3 A 7 7 0 0 0 9.0800781 9.0039062 A 7 7 0 0 0 9 9 A 7 7 0 0 0 2 16 A 7 7 0 0 0 2.0234375 16.458984 A 7 7 0 0 1 9 10 A 7 7 0 0 1 9.0800781 10.003906 A 7 7 0 0 1 16 4 A 7 7 0 0 1 22.921875 10.001953 A 7 7 0 0 1 23 10 A 7 7 0 0 1 29.976562 16.525391 A 7 7 0 0 0 30 16 A 7 7 0 0 0 23 9 A 7 7 0 0 0 22.921875 9.0019531 A 7 7 0 0 0 16 3 z M 5.0117188 22.740234 A 5 5 0 0 0 5 23 A 5 5 0 0 0 5.0292969 23.533203 A 5 5 0 0 1 5.1425781 22.835938 A 7 7 0 0 1 5.0117188 22.740234 z M 26.986328 22.742188 A 7 7 0 0 1 26.857422 22.835938 A 5 5 0 0 1 26.970703 23.492188 A 5 5 0 0 0 27 23 A 5 5 0 0 0 26.986328 22.742188 z " style="fill:#8b9cbe;opacity:.2"/>
</svg>
