<svg width="32" height="32" version="1.1" xmlns="http://www.w3.org/2000/svg">
 <rect x="3" y="4" width="5" height="25" rx="1.25" ry="1.3890001" style="opacity:.2"/>
 <rect x="25" y="4" width="5" height="25" rx="1.25" ry="1.3890001" style="opacity:.2"/>
 <path d="M 5.2500001,6 C 4.5575,6 4,6.4707773 4,7.0555558 V 23.944444 C 4,24.529223 4.5575,25 5.2500001,25 H 25.875 c 0.692501,0 1.250001,-0.470777 1.250001,-1.055556 V 7.0555558 C 27.125001,6.4707773 26.567501,6 25.875,6 Z M 25.25,6 C 24.5575,6 24,6.4707773 24,7.0555558 V 23.944444 C 24,24.529223 24.5575,25 25.25,25 h 2.500001 C 28.4425,25 29,24.529223 29,23.944444 V 7.0555558 C 29,6.4707773 28.4425,6 27.750001,6 Z" style="fill:#5ecff3"/>
 <rect x="3" y="3" width="5" height="25" rx="1.25" ry="1.3890001" style="fill:#868686"/>
 <rect x="25" y="3" width="5" height="25" rx="1.25" ry="1.3890001" style="fill:#868686"/>
 <path d="m7.5 20.5 18-1e-6" style="fill:none;stroke-linecap:round;stroke-linejoin:round;stroke-width:3;stroke:#c48f61"/>
 <path d="m8.5 19c-1.3807118 0-2.4999997 1.119288-2.5 2.5 3e-7 1.380712 1.1192882 2.5 2.5 2.5s2.5-1.119288 2.5-2.5-1.1192882-2.5-2.5-2.5zm8 0c-1.380712 0-2.5 1.119288-2.5 2.5s1.119288 2.5 2.5 2.5 2.5-1.119288 2.5-2.5-1.119288-2.5-2.5-2.5zm9 0c-1.380712 0-2.5 1.119288-2.5 2.5s1.119288 2.5 2.5 2.5 2.5-1.119288 2.5-2.5-1.119288-2.5-2.5-2.5z" style="opacity:.2"/>
 <path d="m7.5 18c-1.3807118 0-2.4999997 1.119288-2.5 2.5 3e-7 1.380712 1.1192882 2.5 2.5 2.5s2.4999997-1.119288 2.5-2.5c-3e-7 -1.380712-1.1192882-2.5-2.5-2.5zm9 0c-1.380712 0-2.5 1.119288-2.5 2.5s1.119288 2.5 2.5 2.5 2.5-1.119288 2.5-2.5-1.119288-2.5-2.5-2.5zm9 0c-1.380712 0-2.5 1.119288-2.5 2.5s1.119288 2.5 2.5 2.5 2.5-1.119288 2.5-2.5-1.119288-2.5-2.5-2.5z" style="fill:#8b9cbe"/>
 <path d="M 4.25,3 C 3.5575,3 3,3.6192275 3,4.3886719 v 1 C 3,4.6192275 3.5575,4 4.25,4 h 2.5 C 7.4425,4 8,4.6192275 8,5.3886719 v -1 C 8,3.6192275 7.4425,3 6.75,3 Z" style="fill:#8b9cbe;opacity:.1"/>
 <path d="M 26.25,3 C 25.5575,3 25,3.6192275 25,4.3886719 v 1 C 25,4.6192275 25.5575,4 26.25,4 h 2.5 C 29.4425,4 30,4.6192275 30,5.3886719 v -1 C 30,3.6192275 29.4425,3 28.75,3 Z" style="fill:#8b9cbe;opacity:.1"/>
</svg>
