<svg width="32" height="32" version="1.1" xmlns="http://www.w3.org/2000/svg">
 <path d="m16 31c6 0 14-3 14-8 0-6 0-20-8-20s-9 5-12 9c-2.7335881 3.644784-8 5-8 11 0 5 8 8 14 8z" style="opacity:.2"/>
 <path d="m16 30c6 0 14-3 14-8 0-6 0-20-8-20s-9 5-12 9c-2.7335881 3.644784-8 5-8 11 0 5 8 8 14 8z" style="fill:#efefef"/>
 <path d="m17 13s0-2 2-2h5c2 0 2 2 2 2 0 3.000001-2 4-4.5 4s-4.5-1.2-4.5-4z" style="opacity:.1"/>
 <path d="m17 12s0-2 2-2h5c2 0 2 2 2 2 0 3-2 4-4.5 4s-4.5-1.2-4.5-4z" style="fill:#275b7b"/>
 <circle cx="18.5" cy="8.5" r="1.5" style="opacity:.1"/>
 <circle cx="18.5" cy="7.4999995" r="1.5" style="fill:#31739b"/>
 <circle cx="24.5" cy="8.5" r="1.5" style="opacity:.1"/>
 <circle cx="24.5" cy="7.4999995" r="1.5" style="fill:#31739b"/>
 <path d="m22 2c-8 0-9 5-12 9-2.7335881 3.644784-8 5-8 11 0 0.122898 0.0275914 0.238909 0.0371094 0.359375 0.3681756-5.451295 5.3313848-6.850701 7.9628906-10.359375 3-4 4-9 12-9 7.634644 0 7.978217 12.677107 7.994141 19.056641 2.39e-4 -0.01931 0.005859-0.037271 0.005859-0.056641 0-6 0-20-8-20z" style="fill:#8b9cbe;opacity:.2"/>
</svg>
