<svg xmlns="http://www.w3.org/2000/svg" width="32" height="32" version="1.1">
 <rect style="opacity:.2" width="28" height="28" x="2" y="3" rx="1" ry="1"/>
 <path style="fill:#4f4f4f" d="m 3,2 h 13.079295 l 11.544053,1.8722467 c 0.546855,0.08869 0.728805,2.3835476 0.834802,2.9273128 L 30,14.709251 v 2.53304 L 29.559471,27.45815 c -0.02387,0.553485 -0.502631,1.564106 -1.055066,1.605727 L 16.079295,30 H 3 C 2.446,30 2,29.554 2,29 V 3 C 2,2.446 2.446,2 3,2 Z"/>
 <path style="fill:#8b9cbe;opacity:.1" d="m3 2c-0.554 0-1 0.446-1 1v1c0-0.554 0.446-1 1-1h26c0.554 0 1 0.446 1 1v-1c0-0.554-0.446-1-1-1h-26z"/>
 <path style="opacity:.2" d="m4 5v11h4v-7h3v7h4v-7s0-4-4-4zm0 13v11h7c4 0 4-3 4-3v-8h-4v8h-3v-8z"/>
 <path style="fill:#edd20c" d="m4 4v11h4v-7h3v7h4v-7s0-4-4-4h-7zm0 13v11h7c4 0 4-3 4-3v-8h-4v8h-3v-8h-4z"/>
 <path style="opacity:.2" d="m16 3v13h2.625l1.375-11h6l1.375 11h2.625v-12c0-0.554-0.446-1-1-1h-13zm7 8-0.554688 5h1.109376l-0.554688-5zm-7 7v11h1l1.375-11h-2.375zm6.222656 0-0.333984 3h2.222656l-0.333984-3h-1.554688zm5.402344 0 1.375 11h1v-11h-2.375zm-6.179688 7-0.445312 4h4l-0.445312-4h-3.109376z"/>
 <path style="fill:#b2bfd9" d="m16 2v13h2.625l1.375-11h6l1.375 11h2.625v-12c0-0.554-0.446-1-1-1h-13zm7 8-0.554688 5h1.109376l-0.554688-5zm-7 7v13h13c0.554 0 1-0.446 1-1v-12h-2.375l1.375 11h-4l-0.445312-4h-3.109376l-0.445312 4h-4l1.375-11h-2.375zm6.222656 0-0.333984 3h2.222656l-0.333984-3h-1.554688z"/>
 <path style="fill:#8b9cbe;opacity:.2" d="m16 2v1h13c0.554 0 1 0.446 1 1v-1c0-0.554-0.446-1-1-1h-13zm7 8-0.554688 5h0.111329l0.443359-4 0.443359 4h0.111329l-0.554688-5zm-7 7v1h2.25l0.125-1h-2.375zm6.222656 0-0.333984 3h0.111328l0.222656-2h1.554688l0.222656 2h0.111328l-0.333984-3h-1.554688zm5.402344 0 0.125 1h2.25v-1h-2.375zm-6.179688 7-0.445312 4h-3.875l-0.125 1h4l0.445312-4h3.109376l0.445312 4h4l-0.125-1h-3.875l-0.445312-4h-3.109376z"/>
 <path style="fill:#8b9cbe;opacity:.2" d="m4 4v1h7c4 0 4 4 4 4v-1s0-4-4-4h-7zm0 13v1h4v-1h-4zm7 0v1h4v-1h-4zm-3 8v1h3v-1h-3z"/>
</svg>
