<svg width="32" height="32" version="1.1" xmlns="http://www.w3.org/2000/svg">
 <rect x="2" y="3" width="28" height="28" rx="2" ry="2" style="opacity:.2"/>
 <rect x="2.0000005" y="2" width="28" height="28" rx="2" ry="2" style="fill:#17191e"/>
 <path d="m5 12v8h4v-8zm13 0-8 8h4v4h4zm5 0a4 4 0 0 0-4 4 4 4 0 0 0 4 4 4 4 0 0 0 4-4 4 4 0 0 0-4-4z" style="opacity:.2"/>
 <path d="m5 11v8h4v-8h-4zm13 0-8 8h4v4h4v-12zm5 0a4 4 0 0 0-4 4 4 4 0 0 0 4 4 4 4 0 0 0 4-4 4 4 0 0 0-4-4z" style="fill:#8b9cbe"/>
 <path d="m4 2c-1.108 0-2 0.892-2 2v1c0-1.108 0.892-2 2-2h24c1.108 0 2 0.892 2 2v-1c0-1.108-0.892-2-2-2h-24z" style="fill:#8b9cbe;opacity:.1"/>
</svg>
