<svg xmlns="http://www.w3.org/2000/svg" width="32" height="32" version="1">
 <path style="opacity:0.2" d="M 8.9990131,3.0033015 C 3.8859265,3.1532117 -0.73798894,8.3907721 1.6439174,15.560664 2.7388984,18.63678 4.795196,20.981975 9.5494412,24.575716 12.667356,26.932557 16.499972,31 16.499972,31 c 0,0 3.832617,-4.067443 6.950531,-6.424284 4.754245,-3.593741 6.810543,-5.938936 7.905524,-9.015052 C 34.985598,4.6351144 22.349106,-1.8031602 16.499972,7.4096577 14.489333,4.2427515 11.677296,2.9247772 8.9990131,3.0033015 Z"/>
 <path style="fill:#e32b90" d="M 8.9990131,2.0033015 C 3.8859265,2.1532117 -0.73798894,7.3907721 1.6439174,14.560664 2.7388984,17.63678 4.795196,19.981975 9.5494412,23.575716 12.667356,25.932557 16.499972,30 16.499972,30 c 0,0 3.832617,-4.067443 6.950531,-6.424284 4.754245,-3.593741 6.810543,-5.938936 7.905524,-9.015052 C 34.985598,3.6351144 22.349106,-2.8031602 16.499972,6.4096577 14.489333,3.2427515 11.677296,1.9247772 8.9990131,2.0033015 Z"/>
 <path style="opacity:0.2" d="M 17.689453,7.9902344 A 0.70007,0.70007 0 0 0 17,8.6992188 V 15 15.699219 18 c 0,1.214918 0.553228,2.289835 1.408203,3.023438 L 16.400391,24 H 18.5 l 1.455078,-2.15625 C 20.290156,21.934809 20.636086,22 21,22 c 0.546629,0 1.0664,-0.112045 1.541016,-0.310547 L 24.099609,24 h 2.09961 l -2.240235,-3.320312 h -0.0078 c 0.422051,-0.464592 0.731554,-1.025883 0.898437,-1.650391 l 2.730469,-1.302735 a 0.73434299,0.70007 0 0 0 0.04102,-1.232421 L 25,15.044922 V 15 H 18.400391 V 8.6992188 A 0.70007,0.70007 0 0 0 17.689453,7.9902344 Z M 25,16.664062 25.707031,17.054688 25,17.390625 Z"/>
 <path style="opacity:0.2" d="m 13.599609,9.6972656 a 0.65021098,0.65021098 0 0 0 -0.15625,1.2695314 L 16.210938,11.888672 14.820312,13 h -4.671874 -0.04883 -0.5449215 -4.84375 a 0.7001955,0.7001955 0 1 0 0,1.400391 H 8.6777344 C 7.8812441,15.65919 7.1374148,16.933269 7,18.365234 v 1.976563 c 0,0.677471 -0.018127,0.687108 0.6621094,0.642578 H 8.5703125 L 5.1992188,24 H 7.3007812 L 10.669922,20.984375 H 13 V 24 h 2 v -3.015625 h 0.0625 c 0.942953,0 0.983256,0.04897 0.916016,-1.001953 V 16.6875 l -0.521485,-2.53125 2.5,-1.998047 A 0.65021098,0.65021098 0 0 0 17.755859,11.03125 l -3.90039,-1.2988281 a 0.65021098,0.65021098 0 0 0 -0.191407,-0.035156 0.65021098,0.65021098 0 0 0 -0.06445,0 z"/>
 <circle style="opacity:0.6;fill:#8b9cbe" cx="12.2" cy="9.2" r="4.2"/>
 <path style="fill:#fdd557" d="m 24.963636,14.024437 -0.737137,1.211329 1.480011,0.818945 -1.71951,0.818945 0.656828,1.252344 2.937079,-1.4 a 0.73434299,0.70007 0 0 0 0.04015,-1.231836 z"/>
 <path style="opacity:0.6;fill:#8b9cbe" d="m 21,6 a 0.66666666,0.66666666 0 0 0 -0.666667,0.6666667 0.66666666,0.66666666 0 0 0 0.333334,0.5755207 V 8.0169273 A 4,4 0 0 0 17,12 v 2 h 8 V 12 A 4,4 0 0 0 21.333333,8.0169273 V 7.2434894 A 0.66666666,0.66666666 0 0 0 21.666667,6.6666667 0.66666666,0.66666666 0 0 0 21,6 Z"/>
 <path style="fill:#2b385f" d="m 18.333333,14 v -1.999778 c 0,-1.472759 1.193907,-2.6666667 2.666667,-2.6666667 1.472759,0 2.666667,1.1939077 2.666667,2.6666667 V 14 Z"/>
 <ellipse style="fill:#51c7d0" cx="20.603" cy="11.873" rx=".467" ry=".665"/>
 <ellipse style="fill:#51c7d0" cx="22.651" cy="11.873" rx=".467" ry=".665"/>
 <path style="fill:#fdd557" d="m 18.639945,19.679245 h 2.1 L 18.499945,23 h -2.1 z"/>
 <path style="fill:#fdd557" d="m 23.959945,19.679245 h -2.1 L 24.099945,23 h 2.1 z"/>
 <path style="fill:#6dba7c" d="m 4.7099697,11.99993 a 0.70007,0.70007 0 1 0 0,1.4 h 5.3894533 a 0.70007,0.70007 0 1 0 0,-1.4 z"/>
 <path style="fill:#6dba7c" d="M 8.9099446,19.679245 H 11.009945 L 7.2999446,23 h -2.1 z"/>
 <rect style="fill:#6dba7c" width="2" height="3.5" x="13" y="19.5"/>
 <path style="fill:#8b9cbe" d="M 14.9,12 V 9.4627037 c 0,-1.3530972 -1.096902,-2.45 -2.45,-2.45 -1.353098,0 -2.45,1.0969028 -2.45,2.45 V 12 Z"/>
 <path style="fill:#6dba7c" d="m 13.664585,8.6963369 a 0.65021098,0.65021098 0 0 0 -0.220949,1.2698163 l 2.766931,0.9218868 -2.317415,1.853932 a 0.65046338,0.65046338 0 1 0 0.812682,1.015853 l 3.25073,-2.600584 A 0.65021098,0.65021098 0 0 0 17.755932,10.032183 L 13.855055,8.7318913 a 0.65021098,0.65021098 0 0 0 -0.19047,-0.035557 z"/>
 <ellipse style="fill:#17191e" cx="-12.915" cy="10.615" rx=".429" ry=".611" transform="scale(-1,1)"/>
 <ellipse style="fill:#17191e" cx="-11.033" cy="10.615" rx=".429" ry=".611" transform="scale(-1,1)"/>
 <path style="fill:#fdd557" d="M 17.689132,6.9904599 A 0.70007,0.70007 0 0 0 17.00007,7.7000303 V 14.70003 a 0.70007,0.70007 0 1 0 1.4,0 V 7.7000303 A 0.70007,0.70007 0 0 0 17.689132,6.9904599 Z"/>
 <path style="fill:#fdd557" d="m 17,14 v 3 c 0,2.209139 1.790861,4 4,4 2.209139,0 4,-1.790861 4,-4 v -3 z"/>
 <path style="fill:#ed9433" d="m 18.333333,15.367 h 5.333334 V 17 c 0,1.488552 -1.178116,2.666667 -2.666667,2.666667 -1.488552,0 -2.666667,-1.178115 -2.666667,-2.666667 z"/>
 <path style="fill:#6dba7c" d="M 9.5555558,11.999999 H 15.21913 l 0.759748,3.687463 v 3.294931 c 0.06724,1.050919 0.02561,1.002302 -0.917343,1.002302 H 7.6629221 c -0.6802366,0.04453 -0.6628812,0.03474 -0.6628812,-0.642731 V 17.36433 c 0.1883207,-1.962444 1.5119552,-3.626593 2.5555149,-5.364331 z"/>
 <path style="fill:#018c58" d="m 10.314494,13.451762 h 3.790644 l 0.49238,2.391722 v 2.689448 H 8.3814003 v -1.042037 c 0.1204048,-1.182091 0.9891107,-2.51459 1.9330937,-4.039133 z"/>
 <path style="fill:#8b9cbe;opacity:0.2" d="M 8.9980469 2.0039062 C 4.7072058 2.1297091 0.77989848 5.844615 1.0292969 11.271484 C 1.2748859 6.3941629 4.9764719 3.1218145 8.9980469 3.0039062 C 11.67633 2.9253819 14.489361 4.24325 16.5 7.4101562 C 21.534467 -0.51950109 31.587499 3.1494565 31.978516 11.291016 C 32.403218 2.4614682 21.736356 -1.8374916 16.5 6.4101562 C 14.489361 3.24325 11.67633 1.925382 8.9980469 2.0039062 z"/>
</svg>
