<svg width="32" height="32" version="1.1" xmlns="http://www.w3.org/2000/svg">
 <rect x="2" y="3" width="28" height="28" rx="2" ry="2" style="opacity:.2"/>
 <rect x="2" y="2" width="28" height="28" rx="2" ry="2" style="fill:#522f17"/>
 <path d="m11.9888 9.94438h3.8318l4.3994 11.189 1.9348-0.62988 0.64453 2.1667-4.1724 1.2048-2.8064-7.1143-4.115 6.4844h-2.5806l5.7471-9.281-0.64453-1.8335h-2.2388z" style="opacity:.2"/>
 <path d="m11.9888 8.9443h3.8318l4.3994 11.189 1.9348-0.62988 0.64453 2.1667-4.1724 1.2048-2.8064-7.1143-4.115 6.4844h-2.5806l5.7471-9.281-0.64453-1.8335h-2.2388z" style="fill:#a38976"/>
 <path d="m11.988281 8.9433594v1.0019531h3.832031l4.400391 11.1875 1.933594-0.628906 0.371094 1.246094 0.273437-0.080078-0.644531-2.166016-1.933594 0.628906-4.400391-11.189453h-3.832031zm2.658203 4.3828126-5.521484 8.917969h0.6191406l5.1269534-8.279297-0.22461-0.638672z" style="fill:#8b9cbe;opacity:.2"/>
 <path d="m4 2c-1.108 0-2 0.892-2 2v1c0-1.108 0.892-2 2-2h24c1.108 0 2 0.892 2 2v-1c0-1.108-0.892-2-2-2h-24z" style="fill:#8b9cbe;opacity:.1"/>
</svg>
