<svg xmlns="http://www.w3.org/2000/svg" height="32" width="32" version="1.1">
 <rect style="opacity:.2" rx="6" ry="6" height="28" width="28" y="3" x="2"/>
 <rect style="fill:#5c29a1" rx="6" ry="6" height="28" width="28" y="2" x="2"/>
 <path style="opacity:.2" d="m11 9c-3 0-5 2-5 5v7h5v4h10v-4h5v-7c0-3-2-5-5-5zm0 4a3 3 0 0 1 3 3 3 3 0 0 1 -3 3 3 3 0 0 1 -3 -3 3 3 0 0 1 3 -3zm10 0a3 3 0 0 1 3 3 3 3 0 0 1 -3 3 3 3 0 0 1 -3 -3 3 3 0 0 1 3 -3z"/>
 <path style="fill:#efe3b7" d="m11 8c-3 0-5 2-5 5v7h5v4h10v-4h5v-7c0-3-2-5-5-5h-10zm0 4a3 3 0 0 1 3 3 3 3 0 0 1 -3 3 3 3 0 0 1 -3 -3 3 3 0 0 1 3 -3zm10 0a3 3 0 0 1 3 3 3 3 0 0 1 -3 3 3 3 0 0 1 -3 -3 3 3 0 0 1 3 -3z"/>
 <path style="opacity:.2;fill:#8b9cbe" d="m8 2c-3.324 0-6 2.676-6 6v1c0-3.324 2.676-6 6-6h16c3.324 0 6 2.676 6 6v-1c0-3.324-2.676-6-6-6h-16z"/>
</svg>
