<svg xmlns="http://www.w3.org/2000/svg" width="32" height="32" version="1.1">
 <path style="opacity:0.2" d="M 13.188251,3 A 1.5639157,1.6079885 0 0 0 11.817089,3.83499 L 6.1923858,14.367966 a 1.5639157,1.6079885 0 0 0 0.00586,1.556228 L 13.930917,30.174691 A 1.5639157,1.6079885 0 0 0 15.297368,31 h 1.405293 a 1.5639157,1.6079885 0 0 0 1.366453,-0.825309 l 7.732643,-14.250497 a 1.5639157,1.6079885 0 0 0 0.0059,-1.556228 L 20.182939,3.83499 A 1.5639157,1.6079885 0 0 0 18.811777,3 Z"/>
 <path style="fill:#4f4f4f" d="M 13.188251,2 A 1.5639157,1.6079885 0 0 0 11.817089,2.83499 L 6.1923858,13.367966 a 1.5639157,1.6079885 0 0 0 0.00586,1.556228 L 13.930917,29.174691 A 1.5639157,1.6079885 0 0 0 15.297368,30 h 1.405293 a 1.5639157,1.6079885 0 0 0 1.366453,-0.825309 l 7.732643,-14.250497 a 1.5639157,1.6079885 0 0 0 0.0059,-1.556228 L 20.182939,2.83499 A 1.5639157,1.6079885 0 0 0 18.811777,2 Z"/>
 <path style="opacity:0.2" d="M 13.900005,6.0000059 8.9999989,15.16667 13.899998,24.333333 v -3.666665 c -0.90038,-0.09726 -1.158409,-0.532884 -1.218228,-1.179714 -0.0692,-0.748174 0.493602,-1.33562 0.226761,-1.931609 1.039862,0.268067 1.065683,0.694897 1.326168,1.325732 0.12898,-0.440419 0.09239,-0.760936 0.05497,-1.043789 1.3502,0.625854 1.73248,1.331718 1.714193,2.838033 -0.0049,0.402611 -1.068288,1.697049 -1.047671,2.080972 0.02061,0.383923 0.4272,0.81782 0.474121,1.139769 0.0461,0.316291 -0.790204,0.729365 -0.790204,1.361854 0,0.599603 1.359889,2.742084 1.359889,2.742084 l 1.4,-2.444444 c -0.743464,0.415802 -1.223976,0.454748 -1.572085,0.436668 -0.498747,0.02511 -0.755838,-0.456534 -0.688341,-0.751164 0.106723,-0.465853 0.860425,-1.006154 0.860425,-1.352097 0,-0.413163 -0.308574,-0.676762 -0.274218,-1.078681 0.03436,-0.401918 1.526573,-1.545139 1.381141,-2.393516 -0.227101,-1.324787 -0.525227,-2.086175 0.693999,-2.639465 -0.153279,0.455587 -0.06,0.720598 0.02062,1.163764 0.145335,-0.851078 0.581083,-0.963474 1.312424,-1.445708 -0.211351,0.909233 0.220777,1.251324 0.192391,1.937607 -0.02838,0.686285 -0.775007,1.718219 -1.226351,1.73337 v 1.833334 c 0.301306,-0.144934 0.423267,2.14e-4 0.7,0 L 23.000001,15.16667 18.100002,6.0000059 v 1.222222 c -0.430422,0.2446999 -0.464491,0.4161907 -0.452639,0.8123892 0,0 0.239627,-0.2192747 0.452639,-0.2012786 0.213011,0.017992 1.393127,3.3667265 1.399999,3.6666665 -9e-6,0.371924 -1.399999,0.611111 -1.399999,1.222222 0.336388,-0.293344 0.887417,-0.194246 1.389626,0.0086 0.390485,0.157791 0.68877,2.278179 0.743739,2.632108 -0.01359,0.359927 -0.453508,0.677863 -1.003215,0.683862 -0.549707,0.0061 -0.797074,-0.08397 -0.803945,-0.299935 -0.0069,-0.215957 0.707746,-0.785841 0.707746,-0.785841 -0.819201,-0.03929 -1.185457,0.454159 -1.49108,0.803837 0.04078,-0.209958 0.08243,-0.359928 0.123697,-0.539891 -0.41668,0.07021 -0.609974,0.356172 -0.762718,0.587882 -0.20713,-0.46711 -1.435598,-1.999219 -1.415501,-2.408752 -0.07526,-0.672859 2.251069,-0.630583 2.498173,-2.195556 -0.01372,-0.59379 -0.645384,-1.011278 -1.226977,-1.145679 -0.467253,-0.1079775 -0.618422,-0.1439709 -0.618422,-0.1439709 0.313747,-0.1473952 1.25542,-0.5682316 1.030698,-1.1517671 -0.08651,0.2303772 -0.1934,0.5223164 -1.161256,0.5698851 -0.989671,-0.4162859 -0.861121,-1.041182 -0.700869,-1.5476871 -0.652553,0.4157538 -0.555593,0.8205681 -0.391667,1.4157133 0.04658,0.2939378 -0.299668,0.5404883 -0.40074,0.7354426 0.02,0.2455081 0.03613,0.5124811 -0.121481,0.6262811 -0.391702,0.373132 0.08654,0.941477 0.309197,0.905817 -0.03051,-0.737662 0.825368,-1.024949 1.168126,-1.103776 0.563451,-6e-6 1.577413,0.503898 1.570543,0.869824 -0.0069,0.365926 -0.684139,0.725853 -1.522442,0.971802 -0.838303,0.245952 -1.511695,0.569885 -1.49108,1.361725 0.02624,0.773825 0.442134,2.047241 0.522221,2.258782 -0.279451,-0.23448 -0.433456,-0.573634 -0.838303,-0.623874 0.09654,0.179668 0.196166,0.379489 0.281741,0.587881 -0.423734,-0.598462 -0.862163,-0.772794 -1.628508,-0.863825 1.347691,0.939336 0.41651,1.135678 -0.08245,1.127772 -0.475832,-0.0075 -1.066926,-0.17701 -1.003214,-0.659867 0.03835,-0.290608 0.253029,-2.455162 0.742954,-2.666586 0.516489,-0.22289 1.060254,-0.210697 1.375401,-0.01021 0,-0.611111 -1.409123,-0.945276 -1.4,-1.222223 0.0091,-0.276947 1.17611,-3.6666655 1.4,-3.6666655 0.223891,0 0.302965,0.04092 0.437501,0.2196176 0.128024,-0.5789985 -0.294435,-0.6225812 -0.437501,-0.8307292 8e-6,-0.1439709 0,-1.2222219 0,-1.2222219 z"/>
 <path style="fill:#8b9cbe" d="m 13.900005,5.0000049 -4.9000061,9.1666641 4.8999991,9.166663 v -3.666665 c -0.90038,-0.09726 -1.158409,-0.532884 -1.218228,-1.179714 -0.0692,-0.748174 0.493602,-1.33562 0.226761,-1.931609 1.039862,0.268067 1.065683,0.694897 1.326168,1.325732 0.12898,-0.440419 0.09239,-0.760936 0.05497,-1.043789 1.3502,0.625854 1.73248,1.331718 1.714193,2.838033 -0.0049,0.402611 -1.068288,1.697049 -1.047671,2.080972 0.02061,0.383923 0.4272,0.81782 0.474121,1.139769 0.0461,0.316291 -0.790204,0.729365 -0.790204,1.361854 0,0.599603 1.359889,2.742084 1.359889,2.742084 l 1.4,-2.444444 c -0.743464,0.415802 -1.223976,0.454748 -1.572085,0.436668 -0.498747,0.02511 -0.755838,-0.456534 -0.688341,-0.751164 0.106723,-0.465853 0.860425,-1.006154 0.860425,-1.352097 0,-0.413163 -0.308574,-0.676762 -0.274218,-1.078681 0.03436,-0.401918 1.526573,-1.545139 1.381141,-2.393516 -0.227101,-1.324787 -0.525227,-2.086175 0.693999,-2.639465 -0.153279,0.455587 -0.06,0.720598 0.02062,1.163764 0.145335,-0.851078 0.581083,-0.963474 1.312424,-1.445708 -0.211351,0.909233 0.220777,1.251324 0.192391,1.937607 -0.02838,0.686285 -0.775007,1.718219 -1.226351,1.73337 v 1.833334 c 0.301306,-0.144934 0.423267,2.14e-4 0.7,0 l 4.199999,-7.832998 -4.899999,-9.1666641 v 1.222222 c -0.430422,0.2446999 -0.464491,0.4161907 -0.452639,0.8123892 0,0 0.239627,-0.2192747 0.452639,-0.2012786 0.213011,0.017992 1.393127,3.3667265 1.399999,3.6666665 -9e-6,0.371924 -1.399999,0.611111 -1.399999,1.222222 0.336388,-0.293344 0.887417,-0.194246 1.389626,0.0086 0.390485,0.157791 0.68877,2.278179 0.743739,2.632108 -0.01359,0.359927 -0.453508,0.677863 -1.003215,0.683862 -0.549707,0.0061 -0.797074,-0.08397 -0.803945,-0.299935 -0.0069,-0.215957 0.707746,-0.785841 0.707746,-0.785841 -0.819201,-0.03929 -1.185457,0.454159 -1.49108,0.803837 0.04078,-0.209958 0.08243,-0.359928 0.123697,-0.539891 -0.41668,0.07021 -0.609974,0.356172 -0.762718,0.587882 -0.20713,-0.46711 -1.435598,-1.999219 -1.415501,-2.408752 -0.07526,-0.672859 2.251069,-0.630583 2.498173,-2.195556 C 18.0728,9.61475 17.44114,9.1972622 16.859547,9.0628608 16.392294,8.9548835 16.241125,8.9188901 16.241125,8.9188901 c 0.313747,-0.1473952 1.25542,-0.5682316 1.030698,-1.1517671 -0.08651,0.2303772 -0.1934,0.5223164 -1.161256,0.5698851 -0.989671,-0.4162859 -0.861121,-1.041182 -0.700869,-1.5476871 -0.652553,0.4157538 -0.555593,0.8205681 -0.391667,1.4157133 0.04658,0.2939378 -0.299668,0.5404883 -0.40074,0.7354426 0.02,0.2455082 0.03613,0.512481 -0.121481,0.6262814 -0.391702,0.3731317 0.08654,0.9414767 0.309197,0.9058167 -0.03051,-0.7376625 0.825368,-1.0249494 1.168126,-1.103776 0.563451,-6.3e-6 1.577413,0.503898 1.570543,0.869824 -0.0069,0.365926 -0.684139,0.725853 -1.522442,0.971802 -0.838303,0.245952 -1.511695,0.569885 -1.49108,1.361725 0.02624,0.773825 0.442134,2.047241 0.522221,2.258782 -0.279451,-0.23448 -0.433456,-0.573634 -0.838303,-0.623874 0.09654,0.179668 0.196166,0.379489 0.281741,0.587881 -0.423734,-0.598462 -0.862163,-0.772794 -1.628508,-0.863825 1.347691,0.939336 0.41651,1.135678 -0.08245,1.127772 -0.475832,-0.0075 -1.066926,-0.17701 -1.003214,-0.659867 0.03835,-0.290608 0.253029,-2.455162 0.742954,-2.666586 0.516489,-0.22289 1.060254,-0.210697 1.375401,-0.01021 0,-0.611111 -1.409123,-0.945276 -1.4,-1.222223 0.0091,-0.276947 1.17611,-3.6666655 1.4,-3.6666655 0.223891,0 0.302965,0.04092 0.437501,0.2196176 0.128024,-0.5789985 -0.294435,-0.6225812 -0.437501,-0.8307292 8e-6,-0.1439709 0,-1.2222219 0,-1.2222219 z"/>
 <path style="fill:#8b9cbe;opacity:0.1" d="M 13.1875 2 A 1.5639157 1.6079885 0 0 0 11.816406 2.8359375 L 6.1933594 13.367188 A 1.5639157 1.6079885 0 0 0 6.078125 14.640625 A 1.5639157 1.6079885 0 0 1 6.1933594 14.367188 L 11.816406 3.8359375 A 1.5639157 1.6079885 0 0 1 13.1875 3 L 18.8125 3 A 1.5639157 1.6079885 0 0 1 20.183594 3.8359375 L 25.808594 14.367188 A 1.5639157 1.6079885 0 0 1 25.921875 14.642578 A 1.5639157 1.6079885 0 0 0 25.808594 13.367188 L 20.183594 2.8359375 A 1.5639157 1.6079885 0 0 0 18.8125 2 L 13.1875 2 z"/>
</svg>
