<svg xmlns="http://www.w3.org/2000/svg" height="32" width="32" version="1.1">
 <circle cx="16" cy="17" r="14" style="opacity:.2"/>
 <circle cx="16" cy="16" r="14" style="fill:#4f8598"/>
 <path style="opacity:.2" d="m16 3a14 14 0 0 0 -14 14 14 14 0 0 0 3.6777344 9.4375c1.8027372 1.036349 4.0506379 2.108174 6.3222656 2.5625 2.42428 0.484856 6.72166 0.49635 10.513672 0.382812a14 14 0 0 0 7.486328 -12.382812 14 14 0 0 0 -14 -14z"/>
 <path style="fill:#c34d58" d="m16 2a14 14 0 0 0 -14 14 14 14 0 0 0 3.6777344 9.4375c1.8027372 1.036349 4.0506379 2.108174 6.3222656 2.5625 2.42428 0.484856 6.72166 0.49635 10.513672 0.382812a14 14 0 0 0 7.486328 -12.382812 14 14 0 0 0 -14 -14z"/>
 <path style="opacity:.2" d="m16 3a14 14 0 0 0 -14 14 14 14 0 0 0 0.0566406 1.080078c0.1451811 0.237165 3.0922344 4.969547 8.9433594 6.919922 6 2 13 2 16 0 0.361463-0.240975 0.677424-0.496752 0.957031-0.759766a14 14 0 0 0 2.042969 -7.240234 14 14 0 0 0 -14 -14z"/>
 <path style="fill:#ebcf78" d="m16 2a14 14 0 0 0 -14 14 14 14 0 0 0 0.0566406 1.080078c0.1451811 0.237165 3.0922344 4.969547 8.9433594 6.919922 6 2 13 2 16 0 0.361463-0.240975 0.677424-0.496752 0.957031-0.759766a14 14 0 0 0 2.042969 -7.240234 14 14 0 0 0 -14 -14z"/>
 <path style="opacity:.2" d="m16 3a14 14 0 0 0 -12.980469 8.773438c1.4386436 2.007718 4.7417446 5.252364 11.980469 7.226562 9.793954 2.671078 14.017013 0.596811 14.830078 0.107422a14 14 0 0 0 0.169922 -2.107422 14 14 0 0 0 -14 -14z"/>
 <path style="fill:#2398ba" d="m16 2a14 14 0 0 0 -12.980469 8.773438c1.4386436 2.007718 4.7417446 5.252364 11.980469 7.226562 9.793954 2.671078 14.017013 0.596811 14.830078 0.107422a14 14 0 0 0 0.169922 -2.107422 14 14 0 0 0 -14 -14z"/>
 <path style="opacity:.2" d="m16 3a14 14 0 0 0 -8.521484 2.919922c2.39509 1.385086 5.54574 2.887355 9.521484 4.080078 5.830408 1.749122 9.908802 2.465438 12.339844 2.769531a14 14 0 0 0 -13.339844 -9.769531z"/>
 <path style="fill:#4e9588" d="m16 2a14 14 0 0 0 -8.5214844 2.9199219c2.39509 1.3850856 5.5457404 2.8873548 9.5214844 4.0800781 5.830408 1.749122 9.908802 2.465438 12.339844 2.769531a14 14 0 0 0 -13.339844 -9.769531z"/>
 <path style="opacity:.2" d="m16 3a14 14 0 0 0 -2.484375 0.2421875c1.113241 0.5407916 7.068814 3.3521833 12.865234 4.390625a14 14 0 0 0 -10.380859 -4.6328125z"/>
 <path style="fill:#8de0a2" d="m16 2a14 14 0 0 0 -2.484375 0.2421875c1.113241 0.5407916 7.068814 3.3521833 12.865234 4.390625a14 14 0 0 0 -10.380859 -4.6328125z"/>
 <path d="m16 2a14 14 0 0 0 -14 14 14 14 0 0 0 0.0215 0.586 14 14 0 0 1 13.9785 -13.586 14 14 0 0 1 13.979 13.414 14 14 0 0 0 0.021 -0.414 14 14 0 0 0 -14 -14z" style="opacity:.2;fill:#8b9cbe"/>
</svg>
