<svg xmlns="http://www.w3.org/2000/svg" height="32" width="32" version="1.1">
 <circle cx="16" cy="17" r="14" style="opacity:.2"/>
 <circle cx="16" cy="16" r="14" style="fill:#b2bfd9"/>
 <path d="m16 2a14 14 0 0 0 -14 14 14 14 0 0 0 0.0215 0.586 14 14 0 0 1 13.9785 -13.586 14 14 0 0 1 13.979 13.414 14 14 0 0 0 0.021 -0.414 14 14 0 0 0 -14 -14z" style="opacity:.2;fill:#8b9cbe"/>
 <path style="opacity:.2" d="m6 13c-1.75 0-2 2-2 2v6s0 2 2 2h2c2 0 2-2 2-2v-2.75s-0.25-1.25-2-1.25h-2v-2h4v-2h-4zm5 0v10h2v-10h-2zm5 0c-2 0-2 2-2 2v2l2 1-2 1v2s0 2 2 2h2c2 0 2-2 2-2v-2l-2-1 2-1v-2s0-2-2-2h-2zm7 0c-0.9695 0-2 1.0305-2 2v6c0 0.9695 1.0305 2 2 2h2c0.9695 0 2-1.0305 2-2v-6c0-0.9695-1.0305-2-2-2h-2zm-7 2h2v2h-2v-2zm7 0h2v6h-2v-6zm-17 4h2v2h-2v-2zm10 0h2v2h-2v-2z"/>
 <path style="fill:#4f4f4f" d="m6 12c-1.75 0-2 2-2 2v6s0 2 2 2h2c2 0 2-2 2-2v-2.75s-0.25-1.25-2-1.25h-2v-2h4v-2zm0 6h2v2h-2z"/>
 <rect style="fill:#4f4f4f" height="10" width="2" y="12" x="11"/>
 <path style="fill:#4f4f4f" d="m16 12c-2 0-2 2-2 2v2l2 1-2 1v2s0 2 2 2h2c2 0 2-2 2-2v-2l-2-1 2-1v-2s0-2-2-2zm0 2h2v2h-2zm0 4h2v2h-2z"/>
 <path style="fill:#4f4f4f" d="m23 12c-0.9695 0-2 1.0305-2 2v6c0 0.9695 1.0305 2 2 2h2c0.9695 0 2-1.0305 2-2v-6c0-0.9695-1.0305-2-2-2zm0 2h2v6h-2z"/>
</svg>
