<svg xmlns="http://www.w3.org/2000/svg" width="32" height="32" x="0" y="0" version="1.1" xml:space="preserve">
 <path style="opacity:0.2" d="M 21.513059,26.633507 C 15.092696,30.373149 7.4249711,29.537947 2.5988375,25.134191 2.4554194,25.003349 2.3574506,24.832158 2.3168711,24.641482 0.95114431,18.230047 4.0599978,11.109965 10.486938,7.3664929 16.9073,3.6268505 24.575025,4.4620533 29.401159,8.8658103 c 0.143422,0.1308395 0.241388,0.3020315 0.281967,0.4927073 1.365726,6.4114334 -1.743074,13.5314854 -8.170067,17.2749894 z"/>
 <path style="fill:#ff5555" d="M 21.513059,25.633507 C 15.092696,29.373149 7.4249711,28.537947 2.5988375,24.134191 2.4554194,24.003349 2.3574506,23.832158 2.3168711,23.641482 1.9702802,22.014403 1.9118661,20.341686 2.1227269,18.690098 2.7427542,13.833676 7.1195786,11.302806 11.915505,8.5093437 18.335868,4.7697026 22.19408,4.0870514 27.020214,8.4908084 c 0.143422,0.1308395 1.729478,0.3913169 1.770057,0.5819927 0.07829,0.3675106 1.034723,0.023066 1.083822,0.3944636 C 30.68155,15.575115 27.57165,22.104585 21.513059,25.633507 Z"/>
 <path style="opacity:0.2" d="m 19.287109,5.0001945 c -2.944004,-0.030947 -5.991873,0.7310939 -8.800781,2.3671875 -4.9312086,2.87226 -7.8983199,7.731755 -8.4003905,12.734374 0.052598,0.516132 0.121994,1.029826 0.2304687,1.539063 0.04058,0.190676 0.1397851,0.363299 0.2832032,0.494141 4.8261336,4.403756 12.4936996,5.237688 18.9140626,1.498046 4.931249,-2.872284 7.898332,-7.731762 8.40039,-12.734374 C 29.861464,10.382501 29.792068,9.8688065 29.683594,9.3595695 29.643015,9.1688937 29.543813,8.9962684 29.400391,8.8654289 26.68569,6.3883156 23.072258,5.0399839 19.287109,5.0001945 Z"/>
 <path style="fill:#b2bfd9" d="M 19.287109 4 C 16.343105 3.9690527 13.295236 4.7310939 10.486328 6.3671875 C 5.5551194 9.2394474 2.5880081 14.098943 2.0859375 19.101562 C 2.1385355 19.617694 2.2079315 20.131388 2.3164062 20.640625 C 2.3569857 20.831301 2.4561913 21.003924 2.5996094 21.134766 C 7.425743 25.538522 15.093309 26.372454 21.513672 22.632812 C 26.444921 19.760528 29.412004 14.90105 29.914062 9.8984375 C 29.861464 9.3823067 29.792068 8.868612 29.683594 8.359375 C 29.643015 8.1686992 29.543813 7.9960739 29.400391 7.8652344 C 26.68569 5.3881211 23.072258 4.0397894 19.287109 4 z"/>
 <circle style="opacity:0.1" cx="5.356" cy="22.722" r="8" transform="rotate(-30)"/>
 <circle style="fill:#1c93e1" cx="5.856" cy="21.856" r="8" transform="rotate(-30)"/>
 <circle style="opacity:0.95700001;fill:#17191e" cx="5.856" cy="21.856" r="4" transform="rotate(-30)"/>
 <path style="fill:#8b9cbe;opacity:0.1" d="M 19.287109 4 C 16.343105 3.9690527 13.295236 4.7310939 10.486328 6.3671875 C 4.8563093 9.6464803 1.7737881 15.51706 2.0136719 21.232422 C 2.1494889 15.841322 5.1838468 10.455701 10.486328 7.3671875 C 16.90669 3.6275451 24.574257 4.4614774 29.400391 8.8652344 C 29.543813 8.9960739 29.643015 9.1686992 29.683594 9.359375 C 29.85294 10.154374 29.952372 10.958577 29.986328 11.767578 C 30.015128 10.624328 29.922541 9.4811208 29.683594 8.359375 C 29.643015 8.1686992 29.543813 7.9960739 29.400391 7.8652344 C 26.68569 5.3881211 23.072258 4.0397894 19.287109 4 z"/>
</svg>
