<svg width="32" height="32" version="1.1" xmlns="http://www.w3.org/2000/svg">
 <rect x="6" y="2" width="6" height="8" ry="1" style="fill:#5c5c5c"/>
 <rect x="20" y="2" width="6" height="8" ry="1" style="fill:#5c5c5c"/>
 <rect x="14" y="10" width="4" height="10" ry="1.9067796" style="opacity:.2"/>
 <rect x="14" y="9" width="4" height="10" ry="1.9067796" style="fill:#674f4f"/>
 <path d="m5 20-3 11h11l-3-11z" style="opacity:.2"/>
 <path d="m5 19-3 11h11l-3-11z" style="fill:#5c5c5c"/>
 <path d="m22 20-3 11h11l-3-11z" style="opacity:.2"/>
 <path d="m22 19-3 11h11l-3-11z" style="fill:#5c5c5c"/>
 <rect x="2" y="8" width="11" height="13" ry="1" style="opacity:.2"/>
 <rect x="2" y="7" width="11" height="13" ry="1" style="fill:#838181"/>
 <rect x="19" y="8" width="11" height="13" ry="1" style="opacity:.2"/>
 <rect x="19" y="7" width="11" height="13" ry="1" style="fill:#838181"/>
 <rect x="8" y="12" width="16" height="6" rx="1" ry="1" style="opacity:.2"/>
 <path d="m15.90625 9c-1.056356 0-1.90625 0.8498941-1.90625 1.90625v1c0-1.056356 0.849894-1.90625 1.90625-1.90625h0.1875c1.056356 0 1.90625 0.849894 1.90625 1.90625v-1c0-1.0563559-0.849894-1.90625-1.90625-1.90625h-0.1875z" style="fill:#8b9cbe;opacity:.1"/>
 <rect x="8" y="11" width="16" height="6" rx="1" ry="1" style="fill:#6f6d6d"/>
 <path d="m7 2c-0.554 0-1 0.446-1 1v1c0-0.554 0.446-1 1-1h4c0.554 0 1 0.446 1 1v-1c0-0.554-0.446-1-1-1h-4z" style="fill:#8b9cbe;opacity:.1"/>
 <path d="m21 2c-0.554 0-1 0.446-1 1v1c0-0.554 0.446-1 1-1h4c0.554 0 1 0.446 1 1v-1c0-0.554-0.446-1-1-1h-4z" style="fill:#8b9cbe;opacity:.1"/>
 <path d="m3 7c-0.554 0-1 0.446-1 1v1c0-0.554 0.446-1 1-1h9c0.554 0 1 0.446 1 1v-1c0-0.554-0.446-1-1-1h-9z" style="fill:#8b9cbe;opacity:.2"/>
 <path d="m20 7c-0.554 0-1 0.446-1 1v1c0-0.554 0.446-1 1-1h9c0.554 0 1 0.446 1 1v-1c0-0.554-0.446-1-1-1h-9z" style="fill:#8b9cbe;opacity:.2"/>
 <path d="m9 11c-0.554 0-1 0.446-1 1v1c0-0.554 0.446-1 1-1h14c0.554 0 1 0.446 1 1v-1c0-0.554-0.446-1-1-1h-14z" style="fill:#8b9cbe;opacity:.2"/>
 <circle cx="22.985758" cy="24.014242" r="8" style="opacity:.2"/>
 <circle cx="22.985758" cy="23.014242" r="8" style="fill:#07b3ff"/>
 <path d="m20.985758 19.014242v5.087891a1.5 1.5 0 0 0-0.5-0.08789 1.5 1.5 0 0 0-1.5 1.5 1.5 1.5 0 0 0 1.5 1.5 1.5 1.5 0 0 0 1.5-1.5 1.5 1.5 0 0 0 0-0.0078v-4.4922h4v3.087891a1.5 1.5 0 0 0-0.5-0.08789 1.5 1.5 0 0 0-1.5 1.5 1.5 1.5 0 0 0 1.5 1.5 1.5 1.5 0 0 0 1.5-1.5 1.5 1.5 0 0 0 0-0.02539v-6.474609z" style="fill:#8b9cbe"/>
</svg>
