<svg width="32" height="32" version="1.1" xmlns="http://www.w3.org/2000/svg">
 <path d="m16.129571 11.003064a2.7606788 2.7809493 0 0 0-2.520484 1.38762l-3.6189847 6.314894-3.6203321 6.314893a2.7606788 2.7809493 0 0 0 0.8437549 3.693079s3.4777419 2.28645 8.7866519 2.28645c5.308912 0 8.786654-2.28645 8.786654-2.28645a2.7606788 2.7809493 0 0 0 0.843757-3.693079l-3.620334-6.314893-3.618984-6.314894a2.7606788 2.7809493 0 0 0-2.261699-1.38762z" style="opacity:.2"/>
 <path d="m16.129571 10.003064a2.7606788 2.7809493 0 0 0-2.520484 1.38762l-3.6189847 6.314894-3.6203321 6.314893a2.7606788 2.7809493 0 0 0 0.8437549 3.693079s3.4777419 2.28645 8.7866519 2.28645c5.308912 0 8.786654-2.28645 8.786654-2.28645a2.7606788 2.7809493 0 0 0 0.843757-3.693079l-3.620334-6.314893-3.618984-6.314894a2.7606788 2.7809493 0 0 0-2.261699-1.38762z" style="fill:#1d4d85"/>
 <path d="m16.116632 8.002757a2.4846111 2.5028545 0 0 0-2.268435 1.2488581l-3.257086 5.6834039-3.2582998 5.683405a2.4846111 2.5028545 0 0 0 0.7593794 3.323771s3.1299684 2.057805 7.9079864 2.057805c4.778022 0 7.90799-2.057805 7.90799-2.057805a2.4846111 2.5028545 0 0 0 0.75938-3.323771l-3.2583-5.683405-3.257085-5.6834039a2.4846111 2.5028545 0 0 0-2.03553-1.2488581z" style="opacity:.2"/>
 <path d="m16.116632 7.002757a2.4846111 2.5028545 0 0 0-2.268435 1.2488581l-3.257086 5.6834039-3.2582998 5.683405a2.4846111 2.5028545 0 0 0 0.7593794 3.323771s3.1299684 2.057805 7.9079864 2.057805c4.778022 0 7.90799-2.057805 7.90799-2.057805a2.4846111 2.5028545 0 0 0 0.75938-3.323771l-3.2583-5.683405-3.257085-5.6834039a2.4846111 2.5028545 0 0 0-2.03553-1.2488581z" style="fill:#2a83c0"/>
 <path d="m16.090753 7.0021539a1.9324741 1.9466633 0 0 0-1.764337 0.9713334l-2.533288 4.4204217-2.5342309 4.420424a1.9324741 1.9466633 0 0 0 0.5906281 2.585153s2.4344178 1.600514 6.1506518 1.600514c3.716237 0 6.150655-1.600514 6.150655-1.600514a1.9324741 1.9466633 0 0 0 0.590629-2.585153l-2.534232-4.420424-2.533288-4.4204217a1.9324741 1.9466633 0 0 0-1.583188-0.9713334z" style="opacity:.2"/>
 <path d="m16.090753 6.0021539a1.9324741 1.9466633 0 0 0-1.764337 0.9713334l-2.533288 4.4204217-2.5342309 4.420424a1.9324741 1.9466633 0 0 0 0.5906281 2.585153s2.4344178 1.600514 6.1506518 1.600514c3.716237 0 6.150655-1.600514 6.150655-1.600514a1.9324741 1.9466633 0 0 0 0.590629-2.585153l-2.534232-4.420424-2.533288-4.4204217a1.9324741 1.9466633 0 0 0-1.583188-0.9713334z" style="fill:#5bb9db"/>
 <path d="m16 2.9999998c-0.540903 8e-3 -0.926656 0.3454697-1.10769 0.9040991l0.0068-0.025192-0.849879 3.1465076h-2.866039c-0.0062-1.037e-4 -0.01216-1.037e-4 -0.01842 0-0.342256 0.011486-0.650864 0.1770005-0.868295 0.4511711-0.4702367 0.5590652-0.3705707 1.0132913 0.226561 1.4302347l2.253322 1.7056607-0.874433 2.813663c-9.75e-4 0.0031-0.0018 0.0062-0.0028 0.0094-0.133614 0.45461-8e-3 0.922966 0.328122 1.243357 0.0024 0.0024 0.0053 0.0047 0.0078 0.0071 0.403874 0.371862 0.971341 0.419125 1.427439 0.111328 0.0087-0.0059 0.01731-0.01188 0.02566-0.01816l2.311928-1.729096 2.311917 1.729096c0.0084 0.0062 0.01698 0.01235 0.02566 0.01816 0.456097 0.307797 1.023566 0.260534 1.427439-0.111328 0.0024-0.0024 0.0053-0.0046 0.0078-0.0071 0.33609-0.320391 0.461735-0.788747 0.328121-1.243357-9e-4 -0.0031-0.0018-0.0062-0.0028-0.0094l-0.874389-2.813663 2.253323-1.7056602c0.59713-0.4169442 0.696796-0.8711703 0.22656-1.4302352-0.21743-0.2741706-0.526038-0.4396812-0.868294-0.4511712-0.0062-1.037e-4 -0.01216-1.037e-4 -0.01841 0h-2.866039l-0.84988-3.1465076 0.0068 0.025192c-0.181231-0.5586293-0.566983-0.8960915-1.107884-0.904099z" style="opacity:.2"/>
 <path d="m16 1.9999998c-0.540903 8e-3 -0.926656 0.3454697-1.10769 0.9040991l0.0068-0.025192-0.849879 3.1465076h-2.866039c-0.0062-1.037e-4 -0.01216-1.037e-4 -0.01842 0-0.342256 0.011486-0.650864 0.1770005-0.868295 0.4511711-0.4702367 0.5590652-0.3705707 1.0132913 0.226561 1.4302347l2.253322 1.7056612-0.874433 2.8136625c-9.75e-4 0.0031-0.0018 0.0062-0.0028 0.0094-0.133614 0.45461-8e-3 0.922966 0.328122 1.243357 0.0024 0.0024 0.0053 0.0047 0.0078 0.0071 0.403874 0.371862 0.971341 0.419125 1.427439 0.111328 0.0087-0.0059 0.01731-0.01188 0.02566-0.01816l2.311928-1.729096 2.311917 1.729096c0.0084 0.0062 0.01698 0.01235 0.02566 0.01816 0.456097 0.307797 1.023566 0.260534 1.427439-0.111328 0.0024-0.0024 0.0053-0.0046 0.0078-0.0071 0.33609-0.320391 0.461735-0.788747 0.328121-1.243357-9e-4 -0.0031-0.0018-0.0062-0.0028-0.0094l-0.874389-2.8136628 2.253323-1.7056604c0.59713-0.4169442 0.696796-0.8711703 0.22656-1.4302352-0.21743-0.2741706-0.526038-0.4396812-0.868294-0.4511712-0.0062-1.037e-4 -0.01216-1.037e-4 -0.01841 0h-2.866039l-0.84988-3.1465076 0.0068 0.025192c-0.181231-0.5586293-0.566983-0.8960915-1.107884-0.904099z" style="fill:#b2bfd9"/>
 <path d="m14.000179 17.5a1.5000001 1.5000001 0 0 1-1.5 1.5 1.5000001 1.5000001 0 0 1-1.5-1.5 1.5000001 1.5000001 0 0 1 1.5-1.5 1.5000001 1.5000001 0 0 1 1.5 1.5z" style="opacity:.2"/>
 <path d="m14.000179 16.5a1.5000001 1.5000001 0 0 1-1.5 1.5 1.5000001 1.5000001 0 0 1-1.5-1.5 1.5000001 1.5000001 0 0 1 1.5-1.5 1.5000001 1.5000001 0 0 1 1.5 1.5z" style="fill:#8b9cbe"/>
 <path d="m22.000179 22.5a1.5000001 1.5000001 0 0 1-1.5 1.5 1.5000001 1.5000001 0 0 1-1.5-1.5 1.5000001 1.5000001 0 0 1 1.5-1.5 1.5000001 1.5000001 0 0 1 1.5 1.5z" style="opacity:.2"/>
 <path d="m22.000179 21.5a1.5000001 1.5000001 0 0 1-1.5 1.5 1.5000001 1.5000001 0 0 1-1.5-1.5 1.5000001 1.5000001 0 0 1 1.5-1.5 1.5000001 1.5000001 0 0 1 1.5 1.5z" style="fill:#8b9cbe"/>
 <path d="m14.000179 27.5a1.5000001 1.5000001 0 0 1-1.5 1.5 1.5000001 1.5000001 0 0 1-1.5-1.5 1.5000001 1.5000001 0 0 1 1.5-1.5 1.5000001 1.5000001 0 0 1 1.5 1.5z" style="opacity:.2"/>
 <path d="m14.000179 26.5a1.5000001 1.5000001 0 0 1-1.5 1.5 1.5000001 1.5000001 0 0 1-1.5-1.5 1.5000001 1.5000001 0 0 1 1.5-1.5 1.5000001 1.5000001 0 0 1 1.5 1.5z" style="fill:#8b9cbe"/>
 <path d="m19.000179 16.00001a1 1 0 0 1-0.999999 0.999999 1 1 0 0 1-1.000001-0.999999 1 1 0 0 1 1.000001-1.000001 1 1 0 0 1 0.999999 1.000001z" style="opacity:.2"/>
 <path d="m19.000179 15.00001a1 1 0 0 1-0.999999 0.999999 1 1 0 0 1-1.000001-0.999999 1 1 0 0 1 1.000001-1.000001 1 1 0 0 1 0.999999 1.000001z" style="fill:#8b9cbe"/>
 <path d="M 16.000179,23.999999 A 1,1 0 0 1 15.00018,25 1,1 0 0 1 14.000179,23.999999 1,1 0 0 1 15.00018,23 a 1,1 0 0 1 0.999999,0.999999 z" style="opacity:.2"/>
 <path d="M 16.000179,22.999999 A 1,1 0 0 1 15.00018,24 1,1 0 0 1 14.000179,22.999999 1,1 0 0 1 15.00018,22 a 1,1 0 0 1 0.999999,0.999999 z" style="fill:#8b9cbe"/>
 <path d="M 21.000179,27.999999 A 1,1 0 0 1 20.00018,29 1,1 0 0 1 19.000179,27.999999 1,1 0 0 1 20.00018,27 a 1,1 0 0 1 0.999999,0.999999 z" style="opacity:.2"/>
 <path d="M 21.000179,26.999999 A 1,1 0 0 1 20.00018,28 1,1 0 0 1 19.000179,26.999999 1,1 0 0 1 20.00018,26 a 1,1 0 0 1 0.999999,0.999999 z" style="fill:#8b9cbe"/>
 <path d="M 11.000179,20.999999 A 1.0000001,1.0000001 0 0 1 10.00018,22 1.0000001,1.0000001 0 0 1 9.000179,20.999999 1.0000001,1.0000001 0 0 1 10.00018,20 a 1.0000001,1.0000001 0 0 1 0.999999,0.999999 z" style="opacity:.2"/>
 <path d="M 11.000179,19.999999 A 1.0000001,1.0000001 0 0 1 10.00018,21 1.0000001,1.0000001 0 0 1 9.000179,19.999999 1.0000001,1.0000001 0 0 1 10.00018,19 a 1.0000001,1.0000001 0 0 1 0.999999,0.999999 z" style="fill:#8b9cbe"/>
 <path d="M 25.000174,25.999999 A 1,1 0 0 1 24.000175,27 1,1 0 0 1 23.000174,25.999999 1,1 0 0 1 24.000175,25 a 1,1 0 0 1 0.999999,0.999999 z" style="opacity:.2"/>
 <path d="M 25.000174,24.999999 A 1,1 0 0 1 24.000175,26 1,1 0 0 1 23.000174,24.999999 1,1 0 0 1 24.000175,24 a 1,1 0 0 1 0.999999,0.999999 z" style="fill:#8b9cbe"/>
 <path d="m16.000179 2c-0.540903 8e-3 -0.926388 0.3456675-1.107422 0.9042969l-0.84375 3.1210937h-2.865234c-0.0062-1.037e-4 -0.01327-1.037e-4 -0.01953 0-0.342256 0.011486-0.649756 0.1770013-0.867187 0.4511719-0.3652715 0.4342719-0.3783687 0.8051133-0.08984 1.1445313 0.03323-0.048839 0.04737-0.094031 0.08984-0.1445313 0.217431-0.2741706 0.524931-0.4396859 0.867187-0.4511719 0.0063-1.037e-4 0.01333-1.037e-4 0.01953 0h2.865234l0.84375-3.1210937c0.181034-0.5586294 0.566519-0.8962969 1.107422-0.9042969 0.540901 0.00801 0.926191 0.3456676 1.107422 0.9042969l0.84375 3.1210937h2.865234c0.0062-1.037e-4 0.01333-1.037e-4 0.01953 0 0.342255 0.01149 0.649757 0.1770013 0.867187 0.4511719 0.04248 0.0505 0.05661 0.095692 0.08984 0.1445313 0.288524-0.3394184 0.275427-0.7102596-0.08984-1.1445313-0.21743-0.2741706-0.524932-0.4396819-0.867187-0.4511719-0.0062-1.037e-4 -0.01328-1.037e-4 -0.01953 0h-2.865234l-0.84375-3.1210937c-0.181231-0.5586293-0.566521-0.8962894-1.107422-0.9042969zm-3.476562 8.421875-0.621094 2.003906c-9.75e-4 0.0031-0.0029 0.0066-0.0039 0.0098-0.08386 0.285313-0.05362 0.571958 0.05469 0.828125l0.822266-2.650391zm6.953124 0-0.251953 0.191406 0.822266 2.650391c0.108311-0.256167 0.138543-0.542812 0.05469-0.828125-9e-4 -0.0031-0.0029-0.0066-0.0039-0.0098z" style="fill:#8b9cbe;opacity:.2"/>
</svg>
