<svg xmlns="http://www.w3.org/2000/svg" width="32" height="32" version="1">
 <path style="opacity:0.2" d="M 16.498047,6 C 14.483899,6.0013263 12.615,6.7813774 11.113281,8.0292969 11.076185,8.028642 11.044952,8.0000645 11.007812,8 H 11.003906 11 C 7.3929709,8 4.4486887,10.867443 4.1230469,14.400391 2.8312258,15.766855 2.0009302,17.54611 2,19.498047 V 19.5 c 0,4.094757 3.4052429,7.5 7.5,7.5 1.043555,1.2e-5 2.021252,-0.33039 2.953125,-0.736328 1.110662,0.477031 2.312799,0.736002 3.544922,0.736328 h 0.0059 0.0059 c 0.94808,-0.0022 1.878199,-0.169501 2.769531,-0.460938 0.870077,0.295373 1.782791,0.459346 2.712891,0.460938 h 0.0039 H 21.5 C 26.147042,27 30,23.147042 30,18.5 30,14.721528 27.409209,11.588114 23.958984,10.503906 22.510253,7.8299326 19.689444,6.0038414 16.503906,6 h -0.002 z"/>
 <path style="fill:#1da6e8" d="M 16.498047,5 C 14.483899,5.0013263 12.615,5.7813774 11.113281,7.0292969 11.076185,7.028642 11.044952,7.0000645 11.007812,7 H 11.003906 11 C 7.3929709,7 4.4486887,9.8674433 4.1230469,13.400391 2.8312258,14.766855 2.0009302,16.54611 2,18.498047 V 18.5 c 0,4.094757 3.4052429,7.5 7.5,7.5 1.043555,1.2e-5 2.021252,-0.33039 2.953125,-0.736328 1.110662,0.477031 2.312799,0.736002 3.544922,0.736328 h 0.0059 0.0059 c 0.94808,-0.0022 1.878199,-0.169501 2.769531,-0.460938 0.870077,0.295373 1.782791,0.459346 2.712891,0.460938 h 0.0039 H 21.5 C 26.147042,26 30,22.147042 30,17.5 30,13.721528 27.409209,10.588114 23.958984,9.5039062 22.510253,6.8299326 19.689444,5.0038414 16.503906,5 h -0.002 z"/>
 <circle style="opacity:0.2" cx="9.5" cy="19.5" r="3.5"/>
 <circle style="fill:#ffe174" cx="9.5" cy="18.5" r="3.5"/>
 <circle style="opacity:0.2" cx="11" cy="15" r="3"/>
 <circle style="fill:#ffd338" cx="11" cy="14" r="3"/>
 <circle style="opacity:0.2" cx="16.5" cy="14.5" r="4.5"/>
 <circle style="fill:#ffb822" cx="16.5" cy="13.5" r="4.5"/>
 <circle style="opacity:0.2" cx="21.5" cy="18.5" r="4.5"/>
 <circle style="fill:#ff7c2d" cx="21.5" cy="17.5" r="4.5"/>
 <circle style="opacity:0.2" cx="16" cy="18" r="5"/>
 <circle style="fill:#ff972d" cx="16" cy="17" r="5"/>
 <path style="opacity:0.2;fill:#8b9cbe" d="M 16.498047 5 C 14.483899 5.0013263 12.615 5.7813774 11.113281 7.0292969 C 11.076185 7.028642 11.044952 7.0000645 11.007812 7 L 11.003906 7 L 11 7 C 7.3929709 7 4.4486887 9.8674429 4.1230469 13.400391 C 2.8312258 14.766855 2.0009302 16.54611 2 18.498047 L 2 18.5 C 2 18.672353 2.0135272 18.842011 2.0253906 19.011719 C 2.1516447 17.252128 2.9398851 15.651917 4.1230469 14.400391 C 4.4486887 10.867443 7.3929709 8 11 8 L 11.003906 8 L 11.007812 8 C 11.044952 8.0000645 11.076185 8.028642 11.113281 8.0292969 C 12.615 6.7813774 14.483899 6.0013263 16.498047 6 L 16.501953 6 L 16.503906 6 C 19.689444 6.0038414 22.510253 7.8299329 23.958984 10.503906 C 27.238617 11.534507 29.737056 14.41756 29.976562 17.945312 C 29.984506 17.796911 30 17.650163 30 17.5 C 30 13.721528 27.409209 10.588114 23.958984 9.5039062 C 22.510253 6.8299327 19.689444 5.0038414 16.503906 5 L 16.501953 5 L 16.498047 5 z"/>
</svg>
