<svg xmlns="http://www.w3.org/2000/svg" width="32" height="32" version="1.1">
 <rect style="opacity:0.2" width="28" height="28" x="2" y="3" rx="1.4" ry="1.4"/>
 <rect style="fill:#505b69" width="28" height="28" x="2" y="2" rx="1.4" ry="1.4"/>
 <path style="opacity:0.2" d="M 22.898438,5.3460311 C 20.386483,5.4859319 18.348135,6.4961362 16.753906,8.3968124 16.540624,7.5147189 16.102705,6.8851277 15.443359,6.5081405 13.850459,5.7018645 11.859106,5.7758946 10.070312,6.8538436 9.2008617,7.362598 8.6501209,7.9431157 7.9453125,8.594078 L 7.953125,6.6429061 5.0527344,6.7698592 5,19.894859 7.9003906,19.767906 7.9375,10.496422 c 0.8600339,-0.7334706 1.4426574,-1.302833 2.21875,-1.7070315 0.877495,-0.4681517 1.942013,-0.9127111 3.171875,-0.453125 0.298807,0.1607867 0.50868,0.4550223 0.630859,0.8828125 0.12218,0.4277925 0.174922,1.259646 0.169922,2.494141 l -0.03125,7.732421 2.941406,-0.126953 v -9.271484 c 1.077697,-1.2638116 3.057333,-2.5825675 5.207032,-2.5859375 0.556897,0.052792 1.269992,0.1068321 1.617187,1.015625 0.122257,0.4111083 0.182835,1.2671367 0.177735,2.5683595 l -0.03125,7.951172 2.955078,-0.126953 L 27,9.890953 C 27.004787,8.6814821 26.868093,7.7673558 26.591797,7.1468124 26.315535,6.5179302 25.878933,6.0493595 25.28125,5.7444686 24.683602,5.4312394 23.889937,5.2984331 22.898438,5.3460311 Z M 20.75,10.000328 A 1.74944,3.5008065 0.83653908 0 0 19,13.5765 a 1.74944,3.5008065 0.83653908 0 0 1.75,3.423828 1.74944,3.5008065 0.83653908 0 0 1.75,-3.576172 1.74944,3.5008065 0.83653908 0 0 -1.75,-3.423828 z m -9.5,1 A 1.7494397,3.5008068 0.8365387 0 0 9.5,14.5765 1.7494397,3.5008068 0.8365387 0 0 11.25,18.000328 1.7494397,3.5008068 0.8365387 0 0 13,14.424156 1.7494397,3.5008068 0.8365387 0 0 11.25,11.000328 Z m 9.5,1.099609 A 0.70000004,1.4002107 0 0 1 21.449219,13.500328 0.70000004,1.4002107 0 0 1 20.75,14.900719 0.70000004,1.4002107 0 0 1 20.050781,13.500328 0.70000004,1.4002107 0 0 1 20.75,12.099937 Z m -9.5,1 A 0.69999989,1.4002108 0 0 1 11.949219,14.500328 0.69999989,1.4002108 0 0 1 11.25,15.900719 0.69999989,1.4002108 0 0 1 10.550781,14.500328 0.69999989,1.4002108 0 0 1 11.25,13.099937 Z M 25.990234,21.027672 6,21.949547 6.0175781,23.94564 20.195312,23.398766 c 1.245089,0.661651 2.09934,1.255057 2.560547,1.777343 0.474313,0.529249 0.71345,1.091779 0.71875,1.6875 0.0036,0.402305 -0.07205,0.936223 -0.226562,1.16211 L 26.628906,28.264 C 26.899987,27.946062 27.0045,27.315707 27,26.812828 26.99329,26.062374 26.645129,25.399479 25.896484,24.824547 25.160947,24.25658 24.163714,23.72172 23.207031,23.221031 l 2.802735,-0.197265 z"/>
 <path style="fill:#f9f9f9" d="m 24.009189,17.996186 0.03128,-7.951566 c 0.0051,-1.3012227 -0.0556,-2.1573908 -0.177857,-2.5684991 -0.347195,-0.9087929 -1.059826,-0.9618392 -1.616723,-1.0146315 -2.149699,0.00337 -4.1285,1.320957 -5.206197,2.5847686 v 9.271216 l -2.942564,0.127913 0.03125,-7.73227 c 0.005,-1.2344946 -0.04683,-2.0656375 -0.16901,-2.49343 C 13.837189,7.7918968 13.626693,7.4976098 13.327886,7.3368231 12.098024,6.877237 11.033828,7.3208042 10.156333,7.7889559 9.3802404,8.1931544 8.797922,8.7619885 7.9378881,9.4954588 L 7.9004014,18.766675 4.9999996,18.894602 5.0530634,5.7697615 7.9534645,5.641834 7.9455764,7.5936695 C 8.6503848,6.9427072 9.2017692,6.3628503 10.07122,5.8540959 c 1.788794,-1.077949 3.780125,-1.1534202 5.373025,-0.3471442 0.659346,0.3769872 1.095661,1.0065251 1.308943,1.8886186 1.594229,-1.9006762 3.632985,-2.9090705 6.14494,-3.0489713 0.9915,-0.047598 1.786075,0.085218 2.383723,0.3984472 0.597683,0.3048909 1.034655,0.7717786 1.310917,1.4006608 0.276296,0.6205434 0.411897,1.5355488 0.40711,2.7450197 l -0.03553,8.9775373 z"/>
 <path style="fill:#f9f9f9" d="m 23.248142,27.024659 c 0.154509,-0.225887 0.229965,-0.759639 0.226366,-1.161944 -0.0053,-0.595721 -0.245145,-1.158205 -0.719458,-1.687454 -0.461207,-0.522286 -1.314355,-1.114251 -2.559444,-1.775902 L 6.0178469,22.945815 6,20.949767 l 19.991075,-0.921596 0.01785,1.996049 -2.801763,0.196833 c 0.956683,0.500689 1.952896,1.035018 2.688433,1.602985 0.748645,0.574932 1.097552,1.237625 1.104262,1.988079 0.0045,0.502879 -0.100026,1.132945 -0.371107,1.450883 z"/>
 <path style="fill:#f9f9f9" d="M 11.25,10.000841 A 1.7494397,3.5008068 0.8365387 0 0 9.5,13.576574 1.7494397,3.5008068 0.8365387 0 0 11.25,16.99916 1.7494397,3.5008068 0.8365387 0 0 13,13.423426 1.7494397,3.5008068 0.8365387 0 0 11.25,10.000841 Z m 0,2.098948 A 0.69999989,1.4002108 0 0 1 11.950001,13.5 0.69999989,1.4002108 0 0 1 11.25,14.900211 0.69999989,1.4002108 0 0 1 10.55,13.5 a 0.69999989,1.4002108 0 0 1 0.7,-1.400211 z"/>
 <path style="fill:#f9f9f9" d="M 20.75,9.0008404 A 1.74944,3.5008065 0.83653908 0 0 19,12.576573 1.74944,3.5008065 0.83653908 0 0 20.75,15.99916 1.74944,3.5008065 0.83653908 0 0 22.5,12.423426 1.74944,3.5008065 0.83653908 0 0 20.75,9.0008404 Z m 0,2.0989496 a 0.70000004,1.4002107 0 0 1 0.7,1.400211 0.70000004,1.4002107 0 0 1 -0.7,1.40021 0.70000004,1.4002107 0 0 1 -0.700001,-1.40021 A 0.70000004,1.4002107 0 0 1 20.75,11.09979 Z"/>
 <path style="fill:#8b9cbe;opacity:0.1" d="M 3.4003906 2 C 2.6247906 2 2 2.6247906 2 3.4003906 L 2 4.4003906 C 2 3.6247906 2.6247906 3 3.4003906 3 L 28.599609 3 C 29.375209 3 30 3.6247906 30 4.4003906 L 30 3.4003906 C 30 2.6247906 29.375209 2 28.599609 2 L 3.4003906 2 z"/>
</svg>
