<svg xmlns="http://www.w3.org/2000/svg" width="32" height="32" version="1">
 <rect style="opacity:0.2" width="28" height="28" x="2" y="3" rx="14" ry="14"/>
 <rect style="fill:#17191e" width="28" height="28" x="2" y="2" rx="14" ry="14"/>
 <path style="opacity:0.2" d="m 7,13.282215 h 2 v 4.527859 l 1,0.565683 v 4.106486 L 7,20.680296 Z"/>
 <path style="fill:#137fb0" d="m 7,12.282215 h 2 v 4.527859 l 1,0.565683 v 4.106486 L 7,19.680296 Z"/>
 <path style="opacity:0.2" d="M 21,18.830729 13.154017,23.360584 16,25.004 21,22.116165 Z"/>
 <path style="opacity:0.2" d="M 7,9.9962504 19.046425,16.95178 15.990535,18.715 7,13.524045 Z"/>
 <path style="opacity:0.2" d="m 11,18.830729 v 3.285436 l 5,2.886439 2.845982,-1.64202 z"/>
 <path style="fill:#0ea3e7" d="m 7,8.9964574 12.046425,6.9555296 -3.05589,1.76322 L 7,12.524252 Z"/>
 <path style="opacity:0.2" d="m 25,13.282215 h -2 v 4.527859 l -1,0.565683 v 4.106486 l 3,-1.801947 z"/>
 <path style="fill:#0ea3e7" d="M 21,17.830729 13.154017,22.360584 16,24.004 21,21.116165 Z"/>
 <path style="fill:#35cfee" d="m 11,17.830729 v 3.285436 l 5,2.886439 2.845982,-1.64202 z"/>
 <path style="fill:#229eb5" d="m 25,12.282215 h -2 v 4.527859 l -1,0.565683 v 4.106486 l 3,-1.801947 z"/>
 <path style="opacity:0.2" d="M 25,9.9962504 12.953575,16.95178 16.009465,18.715 25,13.524045 Z"/>
 <path style="fill:#35cfee" d="m 25,8.9964574 -12.046425,6.9555296 3.05589,1.76322 L 25,12.524252 Z"/>
 <path style="fill:#8b9cbe;opacity:0.1" d="M 16 2 C 8.244 2 2 8.244 2 16 C 2 16.168842 2.0195214 16.33264 2.0253906 16.5 C 2.2891326 8.9794325 8.4128418 3 16 3 C 23.500fae9 3 29.710867 8.9794325 29.974609 16.5 C 29.980479 16.33264 30 16.168842 30 16 C 30 8.244 23.756 2 16 2 z"/>
</svg>
