<svg xmlns="http://www.w3.org/2000/svg" width="32" height="32" version="1">
 <path style="opacity:0.2" d="M 10.4,3 C 5.7464,3 2,6.7464 2,11.4 v 5.6 5.6 7 C 2,30.3756 2.6244,31 3.4,31 h 7 5.6 5.6 C 26.2536,31 30,27.2536 30,22.6 V 17 11.4 4.4 C 30,3.6244 29.3756,3 28.6,3 h -7 -5.6 z"/>
 <path style="fill:#e23a3d" d="M 10.4,2 C 5.7464,2 2,5.7464 2,10.4 v 5.6 5.6 7 C 2,29.3756 2.6244,30 3.4,30 h 7 5.6 5.6 C 26.2536,30 30,26.2536 30,21.6 V 16 10.4 3.4 C 30,2.6244 29.3756,2 28.6,2 h -7 -5.6 z"/>
 <path style="opacity:0.2" d="m 12.433594,10.007813 -2.5507815,0.02734 0.2597655,0.316407 c 0.32724,0.397418 0.675018,1.161788 1.966797,4.316406 1.906201,4.655067 2.164828,5.185547 2.523437,5.185547 0.05541,0 0.163724,-0.101958 0.242188,-0.226563 0.320828,-0.5095 2.457101,-5.481837 2.455078,-5.714844 -0.0012,-0.13845 -0.302469,-0.942699 -0.667969,-1.787109 -0.668468,-1.544351 -0.965224,-1.968997 -1.464843,-2.09375 -0.117727,-0.0294 -1.360652,-0.038998 -2.763672,-0.02344 z m -2.8808596,0.61914 c -0.1294357,0.0039 -0.2530228,0.10268 -0.375,0.292969 L 4.6660156,22 h 5.5625004 c 0,0 1.927627,-4.820533 2.099609,-5.289062 0.05762,-0.157036 -1.495473,-4.138302 -2.074219,-5.316407 C 9.9987535,10.875144 9.7684605,10.620412 9.5527344,10.626953 Z m 11.5351566,2.097656 c -0.401157,0.04312 -0.951228,0.202582 -1.794922,0.496094 -0.816167,0.283936 -1.421046,0.589811 -1.507813,0.679688 -0.16373,0.169596 -2.519531,5.773314 -2.519531,5.990234 0,0.252131 0.241719,0.380738 0.607422,0.322266 0.198883,-0.03179 2.1164,-0.737616 4.423828,-1.56836 3.015539,-1.085683 4.318854,-1.509765 4.636719,-1.509765 0.29793,0 0.443359,-0.04434 0.443359,-0.132813 0,-0.169679 -2.971476,-3.772538 -3.388672,-4.070312 -0.246982,-0.176286 -0.499234,-0.250148 -0.90039,-0.207032 z m 3.861328,4.847657 c -0.217342,-0.02552 -0.446472,0.03062 -1,0.207031 -1.756958,0.559944 -3.300781,1.185965 -3.300781,1.337891 0,0.167217 1.105468,2.882812 1.105468,2.882812 h 5.580078 c 0,0 -1.543414,-3.953798 -1.685546,-4.134766 -0.05415,-0.06897 -0.267909,-0.178884 -0.47461,-0.242187 -0.08172,-0.02503 -0.152162,-0.04228 -0.224609,-0.05078 z"/>
 <g transform="matrix(0.95238096,0,0,0.95238096,0.76190464,0.42857126)">
  <path style="fill:#8b9cbe" d="m 9.9392964,21.6 c 0,0 2.0245536,-5.061837 2.2051356,-5.553792 0.0605,-0.164888 -1.570928,-4.34485 -2.1786105,-5.58186 C 9.5371646,9.5917779 9.1772127,9.4329857 8.8356764,9.9657935 L 4.1,21.6 Z"/>
  <path style="fill:#8b9cbe" d="m 27.9,21.6 c 0,0 -1.620095,-4.152315 -1.769333,-4.342332 -0.05686,-0.07242 -0.281,-0.186053 -0.498036,-0.252522 -0.343217,-0.105112 -0.510646,-0.08387 -1.285585,0.163102 -1.844806,0.587941 -3.466797,1.245124 -3.466797,1.404645 0,0.175579 1.162038,3.027107 1.162038,3.027107 z"/>
  <path style="fill:#8b9cbe" d="m 20.511149,18.07664 c 3.166315,-1.139967 4.535671,-1.585965 4.869429,-1.585965 0.312827,0 0.464342,-0.045 0.464342,-0.137895 0,-0.178162 -3.119707,-3.962228 -3.557763,-4.274891 -0.518663,-0.3702 -1.058309,-0.312198 -2.830068,0.304178 -0.856975,0.298133 -1.492541,0.619273 -1.583646,0.713644 -0.171917,0.178076 -2.645177,6.061845 -2.645177,6.289611 0,0.264738 0.254264,0.399381 0.638252,0.337986 0.208827,-0.03338 2.221831,-0.774387 4.644631,-1.646668 z"/>
  <path style="fill:#8b9cbe" d="m 14.819437,19.107371 c 0.336869,-0.534975 2.578273,-5.75524 2.576148,-5.999897 -0.0013,-0.145372 -0.316296,-0.989738 -0.700071,-1.876369 -0.701892,-1.6215688 -1.013178,-2.0663719 -1.537778,-2.1973629 -0.123613,-0.03087 -1.43007,-0.042742 -2.903241,-0.026404 l -2.6785,0.029715 0.2735271,0.3321829 c 0.3436019,0.4172896 0.7089419,1.21882 2.0653099,4.531169 2.001511,4.88782 2.272523,5.44484 2.649063,5.44484 0.05818,0 0.173154,-0.107046 0.255542,-0.237881 z"/>
 </g>
 <path style="fill:#8b9cbe;opacity:0.2" d="M 10.400391 2 C 5.7467906 2 2 5.7467906 2 10.400391 L 2 11.400391 C 2 6.7467906 5.7467906 3 10.400391 3 L 16 3 L 21.599609 3 L 28.599609 3 C 29.375209 3 30 3.6247906 30 4.4003906 L 30 3.4003906 C 30 2.6247906 29.375209 2 28.599609 2 L 21.599609 2 L 16 2 L 10.400391 2 z"/>
</svg>
