<svg xmlns="http://www.w3.org/2000/svg" width="32" height="32" version="1">
 <path fill="#b2bfd9" d="m16.5 9c-5.817 0-10.5 4.683-10.5 10.5s4.683 10.5 10.5 10.5 10.5-4.683 10.5-10.5-4.683-10.5-10.5-10.5z"/>
 <path fill="#fff" opacity=".2" d="m16.5 9c-5.817 0-10.5 4.683-10.5 10.5 0 0.169 0.0176 0.333 0.0254 0.5 0.2612-5.581 4.8266-10 10.475-10 5.648 0 10.213 4.419 10.475 10 0.007-0.167 0.025-0.331 0.025-0.5 0-5.817-4.683-10.5-10.5-10.5z"/>
 <path fill="#3c8cf8" d="m12.039 2c-5.0399 0-5.039 5.9997-5.039 7.9199 0.72-0.72 5-5.7604 5-1.9199 0 2.663-0.015 5.347 0 8v0.182c0.001 0.021 0.007 0.041 0.008 0.062a4 4 0 0 0 0.074 0.539c0.019 0.097 0.038 0.193 0.064 0.287 0.006 0.022 0.016 0.042 0.022 0.063a4 4 0 0 0 0.133 0.383c0.038 0.093 0.077 0.185 0.123 0.275a4 4 0 0 0 0.258 0.436c0.041 0.061 0.084 0.12 0.129 0.179a4 4 0 0 0 0.377 0.434c0.035 0.035 0.072 0.068 0.109 0.101a4 4 0 0 0 0.498 0.393c0.022 0.014 0.044 0.027 0.066 0.041a4 4 0 0 0 0.619 0.322c0.008 0.003 0.015 0.005 0.022 0.008a4 4 0 0 0 0.719 0.217 4 4 0 0 0 0.779 0.078 4 4 0 0 0 0.756 -0.076c0.036-0.007 0.07-0.016 0.105-0.024a4 4 0 0 0 0.664 -0.207c0.013-0.005 0.027-0.01 0.039-0.015a4 4 0 0 0 2.436 -3.678 4 4 0 0 0 -4 -4 4 4 0 0 0 -1 0.131v-8.6915c0-1.44-1.521-1.4395-2.961-1.4395zm3.961 12a2 2 0 0 1 2 2 2 2 0 0 1 -2 2 2 2 0 0 1 -2 -2 2 2 0 0 1 2 -2z"/>
 <path opacity=".2" d="m6.0254 20c-0.0078 0.167-0.0254 0.331-0.0254 0.5 0 5.817 4.683 10.5 10.5 10.5s10.5-4.683 10.5-10.5c0-0.169-0.018-0.333-0.025-0.5-0.262 5.581-4.827 10-10.475 10s-10.213-4.419-10.475-10z"/>
 <path opacity=".2" d="m11.32 6.5781c-1.231-0.1679-3.7444 2.7618-4.3024 3.3242-0.0134 0.3957-0.0176 0.7517-0.0176 1.0177 0.72-0.72 5-5.7605 5-1.92v-1c0-0.9601-0.267-1.3656-0.68-1.4219zm4.68 7.4219a2 2 0 0 0 -2 2 2 2 0 0 0 0.064 0.504 2 2 0 0 1 1.936 -1.504 2 2 0 0 1 1.936 1.496 2 2 0 0 0 0.064 -0.496 2 2 0 0 0 -2 -2zm-4 2.182c0.001 0.272-0.002 0.547 0 0.818v0.182c0.001 0.021 0.007 0.041 0.008 0.062a4 4 0 0 0 0.074 0.539c0.019 0.097 0.038 0.193 0.064 0.287 0.006 0.022 0.016 0.042 0.022 0.063a4 4 0 0 0 0.133 0.383c0.038 0.093 0.077 0.185 0.123 0.275a4 4 0 0 0 0.258 0.436c0.041 0.061 0.084 0.12 0.129 0.179a4 4 0 0 0 0.377 0.434c0.035 0.035 0.072 0.068 0.109 0.101a4 4 0 0 0 0.498 0.393c0.022 0.014 0.044 0.027 0.066 0.041a4 4 0 0 0 0.619 0.322c0.008 0.003 0.015 0.005 0.022 0.008a4 4 0 0 0 0.719 0.217 4 4 0 0 0 0.779 0.078 4 4 0 0 0 0.756 -0.076c0.036-0.007 0.07-0.016 0.105-0.024a4 4 0 0 0 0.664 -0.207c0.013-0.005 0.027-0.01 0.039-0.015a4 4 0 0 0 2.436 -3.678 4 4 0 0 0 -0.035 -0.506 4 4 0 0 1 -2.401 3.184c-0.012 0.005-0.026 0.01-0.039 0.015a4 4 0 0 1 -0.664 0.207c-0.035 0.008-0.069 0.017-0.105 0.024a4 4 0 0 1 -0.756 0.076 4 4 0 0 1 -0.779 -0.078 4 4 0 0 1 -0.719 -0.217c-0.007-0.003-0.014-0.005-0.022-0.008a4 4 0 0 1 -0.619 -0.322c-0.022-0.014-0.044-0.027-0.066-0.041a4 4 0 0 1 -0.498 -0.393c-0.037-0.033-0.074-0.066-0.109-0.101a4 4 0 0 1 -0.377 -0.434c-0.045-0.059-0.088-0.118-0.129-0.179a4 4 0 0 1 -0.258 -0.436c-0.046-0.09-0.085-0.182-0.123-0.275a4 4 0 0 1 -0.133 -0.383c-0.006-0.021-0.016-0.041-0.022-0.063-0.026-0.094-0.045-0.19-0.064-0.287a4 4 0 0 1 -0.074 -0.539c-0.001-0.021-0.007-0.041-0.008-0.062z"/>
 <path fill="#fff" opacity=".2" d="m12.039 2c-5.0399 0-5.039 5.9997-5.039 7.9199l0.0176-0.0176c0.0831-2.4612 0.6797-6.9023 5.0214-6.9023 1.44 0 2.961-0.0005 2.961 1.4395v-1c0-1.44-1.521-1.4395-2.961-1.4395zm3.961 10a4 4 0 0 0 -1 0.131v1a4 4 0 0 1 1 -0.131 4 4 0 0 1 3.965 3.494 4 4 0 0 0 0.035 -0.494 4 4 0 0 0 -4 -4zm1.936 4.496a2 2 0 0 1 -1.936 1.504 2 2 0 0 1 -1.936 -1.496 2 2 0 0 0 -0.064 0.496 2 2 0 0 0 2 2 2 2 0 0 0 2 -2 2 2 0 0 0 -0.064 -0.504z"/>
</svg>
