<svg xmlns="http://www.w3.org/2000/svg" width="32" height="32" version="1">
 <circle style="opacity:0.2" cx="16" cy="17" r="14"/>
 <circle style="fill:#b2bfd9" cx="16" cy="16" r="14"/>
 <path fill="none" stroke="#474747" stroke-width=".715" d="m22.812 12.717a8.5901 6.3736 59 0 1 -10.926 6.566 8.5901 6.3736 59 0 1 10.926 -6.566z"/>
 <path fill="#2a58ae" d="m17 12c-2.7621 0-5 2.2373-5 5s2.2373 5 5 5 5-2.2373 5-5-2.2373-5-5-5zm-0.89425 2.6424c1.8783 0 3.4144 1.516 3.4144 3.3943s-1.5362 3.4144-3.4144 3.4144c-1.8783 0-3.3943-1.5362-3.3943-3.4144 0-1.8783 1.516-3.3943 3.3943-3.3943z"/>
 <path fill="#474747" d="m6.8604 16.496s-2.0085 1.9179-1.8517 3.1158c0.21646 1.6522 2.2912 1.9157 3.9286 1.8966 3.9697-0.045 18.109-4.684 18.063-10.25-0.015-1.7991-3.251-1.9581-3.251-1.8514 0 0 2.4002 0.60226 2.3479 1.7611-0.19511 4.3196-12.005 9.1693-17.25 9.3018-1.1009 0.028-2.633-0.21-3.0711-1.22-0.3924-0.905 1.0838-2.754 1.0838-2.754z"/>
 <path fill="#d24646" d="m23 11.5a2.5 2.5 0 0 1 -5 0 2.5 2.5 0 1 1 5 0z"/>
 <path fill="#606060" d="m16 19.501a1.5 1.5 0 0 1 -3 0 1.5 1.5 0 1 1 3 0z"/>
 <circle style="opacity:0.2" cx="24" cy="24" r="8"/>
 <circle style="fill:#009545" cx="24" cy="23" r="8"/>
 <g style="fill:#8b9cbe" transform="translate(4,2)">
  <path d="m 19,20 2,0 0,6 -2,0 z"/>
  <path d="m 19,16 2,0 0,2 -2,0 z"/>
 </g>
 <path style="opacity:0.1;fill:#8b9cbe" d="M 16 2 A 14 14 0 0 0 2 16 A 14 14 0 0 0 2.0214844 16.585938 A 14 14 0 0 1 16 3 A 14 14 0 0 1 29.978516 16.414062 A 14 14 0 0 0 30 16 A 14 14 0 0 0 16 2 z"/>
</svg>
