<svg xmlns="http://www.w3.org/2000/svg" width="32" height="32" version="1.1">
 <circle style="opacity:0.2" cx="16.5" cy="16.5" r="13.5"/>
 <circle style="fill:#5364f6" cx="16.5" cy="15.5" r="13.5"/>
 <path style="opacity:0.1;fill:#8b9cbe" d="M 16.5 2 A 13.5 13.5 0 0 0 3 15.5 A 13.5 13.5 0 0 0 3.0214844 16.09375 A 13.5 13.5 0 0 1 16.5 3 A 13.5 13.5 0 0 1 29.978516 15.90625 A 13.5 13.5 0 0 0 30 15.5 A 13.5 13.5 0 0 0 16.5 2 z"/>
 <path style="opacity:0.1" d="M 6.7519531,1.9996095 A 1.50015,1.50015 0 0 0 5.3183594,3.1070314 L 2.0585938,15.107031 a 1.50015,1.50015 0 1 0 2.8945312,0.785156 l 1.5195312,-5.593749 0.9902344,5.468749 a 1.50015,1.50015 0 0 0 2.7265624,0.5625 l 3.949219,-5.945312 -0.878906,4.847656 a 1.50015,1.50015 0 1 0 2.951172,0.535156 L 18.384766,3.7671876 A 1.50015,1.50015 0 0 0 15.660156,2.6695314 L 9.7519531,11.564062 8.2421875,3.2320314 A 1.50015,1.50015 0 0 0 6.7519531,1.9996095 Z M 13.962891,17.999609 a 1.50015,1.50015 0 0 0 -1.47461,1.232422 l -0.861328,4.74414 a 1.50015,1.50015 0 0 0 -0.09766,0.533204 l -0.853516,4.701172 a 1.5006115,1.5006115 0 1 0 2.953125,0.535156 l 0.679688,-3.746094 H 16.5 a 1.50015,1.50015 0 1 0 0,-3 h -1.646484 l 0.363281,-2 h 2.007812 a 1.50015,1.50015 0 1 0 0,-3 z m 7.974609,0 a 1.50015,1.50015 0 0 0 -1.476562,1.232422 l -0.859376,4.742187 a 1.50015,1.50015 0 0 0 -0.09766,0.527344 l -0.853515,4.708985 a 1.50015,1.50015 0 0 0 1.476562,1.767578 h 3.980469 a 1.50015,1.50015 0 1 0 0,-3 h -2.185547 l 0.359375,-1.978516 h 2.1875 a 1.50015,1.50015 0 1 0 0,-3 h -1.642578 l 0.363281,-2 h 2.007813 a 1.50015,1.50015 0 1 0 0,-3 z"/>
 <path style="fill:none;stroke:#17191e;stroke-width:3;stroke-linecap:round;stroke-linejoin:round" d="m 3.5057119,14.5 3.2602791,-12 2.1735194,12 7.9695706,-12 -2.173519,12"/>
 <path style="fill:none;stroke:#17191e;stroke-width:3;stroke-linecap:round;stroke-linejoin:round" d="m 16.499533,23.499977 h -3.448269 m -0.898769,4.979 1.811266,-9.979 h 3.260279"/>
 <path style="fill:none;stroke:#17191e;stroke-width:3;stroke-linecap:round;stroke-linejoin:round" d="m 24.469105,23.499977 h -3.444254 m 4.172775,-5 h -3.260279 l -1.811266,9.979 h 3.98077"/>
</svg>
