<svg xmlns="http://www.w3.org/2000/svg" width="32" height="32" version="1.1">
 <path style="opacity:0.2" d="M 11.5,3 A 8.5,8.5 0 0 0 3.0000001,11.5 8.5,8.5 0 0 0 5.0253907,16.994141 8.5,8.5 0 0 0 3.0000001,22.5 8.5,8.5 0 0 0 11.5,31 8.5,8.5 0 0 0 19.654297,24.876953 8,8 0 0 0 21,25 8,8 0 0 0 29,17 8,8 0 0 0 21,9 8,8 0 0 0 19.652344,9.1152344 8.5,8.5 0 0 0 11.5,3 Z"/>
 <circle style="fill:#5f81d4" cx="21" cy="16" r="8"/>
 <circle style="fill:#5f81d4" cx="11.5" cy="10.5" r="8.5"/>
 <path style="opacity:0.2;fill:#8b9cbe" d="M 11.5,2 A 8.5,8.5 0 0 0 3.0000001,10.5 8.5,8.5 0 0 0 3.0214845,10.914062 8.5,8.5 0 0 1 11.5,3 8.5,8.5 0 0 1 19.652344,9.1152344 8,8 0 0 1 21,9 8,8 0 0 1 28.978516,16.576172 8,8 0 0 0 29,16 8,8 0 0 0 21,8 8,8 0 0 0 19.652344,8.1152344 8.5,8.5 0 0 0 11.5,2 Z"/>
 <circle style="fill:#5f81d4" cx="11.5" cy="21.5" r="8.5"/>
 <path style="opacity:0.2" d="m 17,7 a 5,5 0 0 0 -5,5 5,5 0 0 0 5,5 5,5 0 0 0 5,-5 5,5 0 0 0 -5,-5 z m 0,10 a 5,5 0 0 0 -5,5 5,5 0 0 0 5,5 5,5 0 0 0 5,-5 5,5 0 0 0 -5,-5 z M 8.0000001,12 a 5,5 0 0 0 -5,5 5,5 0 0 0 5,5 A 5,5 0 0 0 13,17 5,5 0 0 0 8.0000001,12 Z"/>
 <circle style="fill:#f2f2f2" cx="8" cy="16" r="5"/>
 <circle style="fill:#f2f2f2" cx="17" cy="21" r="5"/>
 <circle style="fill:#f2f2f2" cx="17" cy="11" r="5"/>
 <path style="opacity:0.2" d="m 8.3263839,7.0558214 c 0.343864,-0.1695568 0.6742129,0.1012285 0.6742129,0.1012285 l 7.8888332,4.5987991 7.627559,4.451009 c 0,0 0.483011,0.232318 0.483011,0.787555 0,0.556756 -0.487014,0.737954 -0.487014,0.737954 l -7.641074,4.451007 -8.0665219,4.698511 c 0,0 -0.2352481,0.206 -0.5385685,0.0739 -0.3463665,-0.151844 -0.2562708,-0.53803 -0.2562708,-0.53803 V 16.969614 7.6738219 c 5.001e-4,0 -0.038037,-0.4433792 0.3158331,-0.6179985 z"/>
 <path style="fill:#ffbf00" d="m 8.3263839,6.0558212 c 0.343864,-0.1695568 0.6742129,0.1012285 0.6742129,0.1012285 l 7.8888332,4.5987993 7.627559,4.451009 c 0,0 0.483011,0.232318 0.483011,0.787555 0,0.556756 -0.487014,0.737954 -0.487014,0.737954 l -7.641074,4.451007 -8.0665219,4.698511 c 0,0 -0.2352481,0.206 -0.5385685,0.0739 -0.3463665,-0.151844 -0.2562708,-0.53803 -0.2562708,-0.53803 V 15.969614 6.6738217 c 5.001e-4,0 -0.038037,-0.4433792 0.3158331,-0.6179985 z"/>
</svg>
