<svg xmlns="http://www.w3.org/2000/svg" width="32" height="32" version="1">
 <defs>
  <linearGradient id="linearGradient4904" x1="16.851" x2="16.674" y1="17.784" y2="9.476" gradientTransform="matrix(1.1429,0,0,1.25,-3.0697,-6.0846)" gradientUnits="userSpaceOnUse">
   <stop offset="0" stop-color="#fff"/>
   <stop offset="1" stop-color="#fff" stop-opacity="0"/>
  </linearGradient>
 </defs>
 <rect fill="#b2bfd9" width="28" height="22" x="-30" y="-27" rx="2" ry="2" transform="matrix(0,-1,-1,0,0,0)"/>
 <rect fill="url(#linearGradient4904)" opacity=".15" width="16" height="10" x="8" y="6" rx=".571" ry=".625"/>
 <rect style="fill:#333333" width="14" height="8" x="9" y="7" rx="0" ry="0"/>
 <path fill="#fff" opacity=".2" d="m7 2c-1.108 0-2 0.892-2 2v1c0-1.108 0.892-2 2-2h18c1.108 0 2 0.892 2 2v-1c0-1.108-0.892-2-2-2h-18z"/>
 <path opacity=".2" d="m5 28v1c0 1.108 0.892 2 2 2h18c1.108 0 2-0.892 2-2v-1c0 1.108-0.892 2-2 2h-18c-1.108 0-2-0.892-2-2z"/>
 <path fill="#fff" opacity=".2" d="m9.8 20c-0.3878 0-0.7 0.312-0.7 0.7l-5e-7 1.4h-1.4c-0.3878 0.000001-0.7 0.3122-0.7 0.7l1e-7 1.4c-2e-7 0.3878 0.3122 0.7 0.7 0.7h1.4v1.4c0 0.388 0.3122 0.7 0.7 0.7h1.4c0.3878 0 0.7-0.3122 0.7-0.7v-1.4l1.4-0.000002c0.388 0 0.7-0.312 0.7-0.7v-1.4c0-0.388-0.312-0.7-0.7-0.7l-1.4-0.000001v-1.4c0-0.3878-0.3122-0.7-0.7-0.7h-1.4z"/>
 <g fill="#fff" opacity=".2" transform="translate(-1,8)">
  <circle cx="24.5" cy="13.5" r="1.5"/>
  <circle cx="20.5" cy="13.5" r="1.5"/>
  <circle cx="24.5" cy="17.5" r="1.5"/>
  <circle cx="20.5" cy="17.5" r="1.5"/>
 </g>
 <g transform="translate(-1,7)">
  <circle fill="#ef5646" cx="24.5" cy="13.5" r="1.5"/>
  <circle fill="#ef5646" cx="20.5" cy="13.5" r="1.5"/>
  <circle fill="#eb9200" cx="24.5" cy="17.5" r="1.5"/>
  <circle fill="#eb9200" cx="20.5" cy="17.5" r="1.5"/>
 </g>
 <path style="fill:#4f4f4f" d="M 10 19 C 9.446 19 9 19.446 9 20 L 9 21 L 8 21 C 7.446 21 7 21.446 7 22 L 7 23 C 7 23.554 7.446 24 8 24 L 9 24 L 9 25 C 9 25.554 9.446 26 10 26 L 11 26 C 11.554 26 12 25.554 12 25 L 12 24 L 13 24 C 13.554 24 14 23.554 14 23 L 14 22 C 14 21.446 13.554 21 13 21 L 12 21 L 12 20 C 12 19.446 11.554 19 11 19 L 10 19 z"/>
</svg>
