<svg xmlns="http://www.w3.org/2000/svg" width="32" height="32" version="1">
 <rect style="opacity:0.2" width="28" height="28" x="2" y="3" rx="1.4" ry="1.4"/>
 <path style="fill:#f3963c" d="M 3.4,2 C 2.6244,2 2,2.6244 2,3.4 V 16 H 30 V 3.4 C 30,2.6244 29.3756,2 28.6,2 Z"/>
 <path style="fill:#27cebe" d="M 30,16 V 28.6 C 30,29.3756 29.3756,30 28.6,30 H 3.4 C 2.6244,30 2,29.3756 2,28.6 V 16 Z"/>
 <path style="opacity:0.1" d="M 19.689453,3.9888451 C 19.303392,3.9948801 18.994713,4.3137105 19,4.6997826 v 5.2792969 c -0.0131,0.077379 -0.0131,0.1569965 0,0.2343745 V 13.59822 H 15 V 4.6997826 C 14.999755,4.0763367 14.245683,3.7629993 13.804688,4.2036888 L 10.400391,7.2095482 7.1953125,4.2036888 C 6.7543163,3.7629998 6.0002448,4.076337 6,4.6997826 V 12.676345 L 2,8.7115013 v 1.9257817 l 4.2207031,4.169922 c 0.4463499,0.420112 1.1786474,0.105148 1.1796875,-0.507813 V 6.3892357 l 2.5039063,2.3046875 c 0.2733711,0.2732578 0.7168631,0.2732578 0.9902341,0 l 2.705078,-2.3046875 v 7.9101563 c 3.9e-5,0.386583 0.314589,0.69918 0.701172,0.699219 h 5.398438 c 0.386583,-3.9e-5 0.701133,-0.312636 0.701172,-0.699219 v -3.5 h 3.199218 v 3.5 c 4.22e-4,0.589292 0.683315,0.914633 1.140625,0.542969 L 30,10.647048 V 8.8423607 l -5,3.9843753 v -2.619141 c 0.01146,-0.07247 0.01146,-0.146284 0,-0.2187499 V 4.6997826 c 0.01339,-0.9466259 -1.413779,-0.9466259 -1.400391,0 V 9.3990013 H 20.400391 V 4.6997826 c 0.0054,-0.3946391 -0.31631,-0.7171015 -0.710938,-0.7109375 z m 0,13.9999999 c -0.03483,6.11e-4 -0.06917,0.004 -0.103515,0.0098 h -5.285157 c -0.386583,3.9e-5 -0.701133,0.312636 -0.701172,0.699219 v 7.910156 l -2.705078,-2.304687 c -0.273371,-0.273258 -0.716863,-0.273258 -0.9902341,0 L 7.4003906,26.607986 V 18.69783 C 7.3997815,18.089079 6.675368,17.772877 6.2265625,18.184158 L 2,22.240799 v 1.898437 l 4,-3.849609 v 8.009765 c 2.446e-4,0.623446 0.7543162,0.93483 1.1953125,0.494141 l 3.2050785,-3.00586 3.404297,3.00586 C 14.245684,29.234223 14.999756,28.922838 15,28.299392 v -8.90039 h 4 v 3.890625 c -0.01146,0.07247 -0.01146,0.146284 0,0.21875 v 4.791015 c 3.9e-5,0.386583 0.312636,0.69918 0.699219,0.699219 h 4.669922 c 0.946626,0.01339 0.946626,-1.413779 0,-1.400391 h -3.96875 v -3.5 h 3.929687 c 0.946626,0.01339 0.946626,-1.413778 0,-1.40039 h -3.929687 v -3.298828 h 5.029297 L 30,23.426345 V 21.54158 l -3.832031,-3.363281 c -0.128597,-0.116114 -0.295489,-0.179634 -0.46875,-0.179688 h -5.88086 c -0.04245,-0.0071 -0.08586,-0.01053 -0.128906,-0.0098 z"/>
 <path style="fill:#3f51b5" d="M 19.689062,2.990754 C 19.303001,2.996789 18.994713,3.3142522 19,3.7003243 v 5.2807303 c -0.0131,0.077379 -0.0131,0.1564101 0,0.2337888 V 12.6 H 15 V 3.7003243 C 14.999755,3.0768784 14.246074,2.764713 13.805078,3.2054025 L 10.4,6.2104809 7.1949217,3.2054025 C 6.7539255,2.7647135 6.0002448,3.0768787 6,3.7003243 V 11.678516 L 2,7.7136717 V 9.638672 l 4.2201171,4.169921 C 6.666467,14.228705 7.3989599,13.912961 7.4,13.3 V 5.3901677 L 9.9050783,7.695246 c 0.2733707,0.2732578 0.7164727,0.2732578 0.9898437,0 L 13.6,5.3901677 V 13.3 c 3.9e-5,0.386583 0.313417,0.699961 0.7,0.7 h 5.4 c 0.386583,-3.9e-5 0.699961,-0.313417 0.7,-0.7 V 9.8 h 3.199527 v 3.5 c 4.22e-4,0.589292 0.684292,0.914438 1.141602,0.542774 L 30,9.648242 V 7.8435546 L 24.999528,11.828907 V 9.2080079 c 0.01146,-0.072466 0.01146,-0.1462838 0,-0.21875 V 3.7003243 c 0.01339,-0.9466259 -1.413388,-0.9466259 -1.4,0 V 8.4 H 20.4 V 3.7003243 C 20.405404,3.3056852 20.08369,2.98459 19.689062,2.990754 Z"/>
 <path style="fill:#d64e44" d="m 19.689062,16.990526 c -0.03483,6.11e-4 -0.06956,0.0038 -0.103905,0.0096 H 14.3 c -0.386583,3.9e-5 -0.699961,0.313417 -0.7,0.7 v 7.909991 l -2.705078,-2.305079 c -0.273371,-0.273258 -0.716473,-0.273258 -0.9898437,0 L 7.4,25.610087 V 17.700096 C 7.3993909,17.091345 6.6757588,16.773385 6.2269533,17.184666 L 2,21.242479 v 1.899024 l 4,-3.85 v 8.008427 c 2.446e-4,0.623446 0.7539254,0.935611 1.1949217,0.494922 L 10.4,24.789773 13.805078,27.794852 C 14.246074,28.235542 14.999756,27.923376 15,27.29993 v -8.899834 h 4 v 3.891826 c -0.01146,0.07247 -0.01146,0.146284 0,0.21875 v 4.789258 c 3.9e-5,0.386583 0.313417,0.699961 0.7,0.7 h 4.67 c 0.946626,0.01339 0.946626,-1.413388 0,-1.4 H 20.4 v -3.5 h 3.930274 c 0.946626,0.01339 0.946626,-1.413388 0,-1.4 H 20.4 v -3.299833 h 5.030191 L 30,22.42783 V 20.543846 L 26.168472,17.180564 C 26.039875,17.064451 25.872789,17.00015 25.699528,17.000096 h -5.88195 c -0.04245,-0.0071 -0.08547,-0.01036 -0.128516,-0.0096 z"/>
 <path style="opacity:0.2;fill:#8b9cbe" d="M 3.4003906 2 C 2.6247906 2 2 2.6247906 2 3.4003906 L 2 4.4003906 C 2 3.6247906 2.6247906 3 3.4003906 3 L 28.599609 3 C 29.375209 3 30 3.6247906 30 4.4003906 L 30 3.4003906 C 30 2.6247906 29.375209 2 28.599609 2 L 3.4003906 2 z"/>
</svg>
