<svg xmlns="http://www.w3.org/2000/svg" width="32" height="32" version="1.1">
 <path style="opacity:0.2" class="cls-1" d="m 27.271702,23.836176 c -1.341607,1.319982 -3.422748,1.633304 -5.079057,1.641441 -5.175302,0 -9.683458,-3.979415 -9.683458,-8.547101 0.01349,-1.2475 0.700967,-2.39007 1.796919,-2.986439 -4.6809575,0.196836 -5.8840076,5.073993 -5.8840076,7.931395 0,8.079021 7.4468786,8.898077 9.0513096,8.898077 0.865102,0 2.169865,-0.251513 2.952941,-0.498651 l 0.143272,-0.04811 c 3.01336,-1.041599 5.582269,-3.077935 7.28392,-5.773853 0.243032,-0.382853 -0.185406,-0.837 -0.581839,-0.616753 z"/>
 <path style="fill:#0e539b" class="cls-1" d="m 27.271702,22.836176 c -1.341607,1.319982 -3.422748,1.633304 -5.079057,1.641441 -5.175302,0 -9.683458,-3.979415 -9.683458,-8.547101 0.01349,-1.2475 0.700967,-2.39007 1.796919,-2.986439 -4.6809575,0.196836 -5.8840076,5.073993 -5.8840076,7.931395 0,8.079021 7.4468786,8.898077 9.0513096,8.898077 0.865102,0 2.169865,-0.251513 2.952941,-0.498651 l 0.143272,-0.04811 c 3.01336,-1.041599 5.582269,-3.077935 7.28392,-5.773853 0.243032,-0.382853 -0.185406,-0.837 -0.581839,-0.616753 z"/>
 <path style="opacity:0.2" class="cls-3" d="m 13.143594,29.400072 c -0.975495,-0.605378 -1.82089,-1.398618 -2.487032,-2.3336 -3.2323205,-4.427893 -1.2687576,-10.699961 3.649544,-13.122395 0.341229,-0.160749 0.924161,-0.451629 1.699582,-0.437412 1.107462,0.0081 2.147255,0.53416 2.809667,1.421592 0.441654,0.589615 0.685162,1.303958 0.695582,2.040532 0,-0.02296 2.675146,-8.7045214 -8.749453,-8.7045214 -4.8012628,0 -8.7494536,4.5556574 -8.7494536,8.5525204 -0.018938,2.114288 0.4335063,4.206232 1.3244485,6.123784 3.0139297,6.429771 10.3655601,9.584272 17.1029941,7.3387 -2.306468,0.727117 -5.235651,0.407404 -7.286035,-0.874826 z"/>
 <path style="fill:#0b87da" class="cls-3" d="m 13.143594,28.400072 c -0.975495,-0.605378 -1.82089,-1.398618 -2.487032,-2.3336 -3.2323205,-4.427893 -1.2687576,-10.699961 3.649544,-13.122395 0.341229,-0.160749 0.924161,-0.451629 1.699582,-0.437412 1.107462,0.0081 2.147255,0.53416 2.809667,1.421592 0.441654,0.589615 0.685162,1.303958 0.695582,2.040532 0,-0.02296 2.675146,-8.7045216 -8.749453,-8.7045216 -4.8012628,0 -8.7494536,4.5556576 -8.7494536,8.5525206 -0.018938,2.114288 0.4335063,4.206232 1.3244485,6.123784 3.0139297,6.429771 10.3655601,9.584272 17.1029941,7.3387 -2.306468,0.727117 -5.235651,0.407404 -7.286035,-0.874826 z"/>
 <path style="opacity:0.2" class="cls-5" d="m 18.660053,18.658625 c -0.08859,0.11482 -0.360916,0.273382 -0.360916,0.618939 0,0.285411 0.185927,0.559889 0.516218,0.790625 1.572715,1.093532 4.537686,0.949186 4.545342,0.949186 1.165346,-0.0028 2.308604,-0.318123 3.310574,-0.913101 2.056743,-1.200762 3.323193,-2.781541 3.328073,-5.162895 0.02843,-2.450607 -0.874945,-4.07997 -1.240235,-4.801702 C 26.441598,5.6069828 21.439098,3.0000003 15.999125,3.0000003 8.3438531,2.9992436 2.1076522,9.1469116 1.9999999,16.800385 2.0524964,12.804616 6.0247484,9.0974063 10.749454,9.0974063 c 0.382787,0 2.565777,0.037181 4.593462,1.1011877 1.787076,0.93825 2.723268,2.551346 3.374008,3.674404 0.945825,1.784423 0.98653,3.42337 -0.05687,4.785627 z"/>
 <path style="fill:#17dcbe" class="cls-5" d="m 18.660053,17.658625 c -0.08859,0.11482 -0.360916,0.273382 -0.360916,0.618939 0,0.285411 0.185927,0.559889 0.516218,0.790625 1.572715,1.093532 4.537686,0.949186 4.545342,0.949186 1.165346,-0.0028 2.308604,-0.318123 3.310574,-0.913101 2.056743,-1.200762 3.323193,-2.781541 3.328073,-5.162895 C 30.027778,11.490772 29.124399,9.8614084 28.759109,9.1396763 26.441598,4.6069826 21.439098,2.0000001 15.999125,2.0000001 8.3438531,1.9992434 2.1076522,8.1469114 1.9999999,15.800385 2.0524964,11.804616 6.0247484,8.0974061 10.749454,8.0974061 c 0.382787,0 2.565777,0.037181 4.593462,1.1011878 1.787076,0.9382501 2.723268,2.5513461 3.374008,3.6744041 0.945825,1.784423 0.98653,3.42337 -0.05687,4.785627 z"/>
 <path style="fill:#8b9cbe;opacity:0.2" d="M 16 2 C 8.3447281 1.9992433 2.1076523 8.1473076 2 15.800781 C 2.0100018 15.039495 2.1648361 14.28896 2.4375 13.572266 C 3.969429 7.4925416 9.4598064 2.9993535 16 3 C 21.439973 3 26.442255 5.6079308 28.759766 10.140625 C 29.090532 10.794145 29.854709 12.197654 29.976562 14.275391 C 29.982754 14.162946 29.999762 14.057615 30 13.941406 C 30.028434 11.490799 29.125056 9.8623571 28.759766 9.140625 C 26.442255 4.6079313 21.439973 2 16 2 z M 19.396484 15.894531 C 19.314935 16.520588 19.078122 17.11251 18.660156 17.658203 C 18.571566 17.773023 18.298828 17.931787 18.298828 18.277344 C 18.298828 18.45965 18.382552 18.635947 18.523438 18.800781 C 18.574314 18.750569 18.631883 18.694848 18.660156 18.658203 C 19.294779 17.829644 19.523693 16.898283 19.396484 15.894531 z"/>
 <rect style="opacity:0.2" width="17" height="10" x="14" y="22" rx="1.962" ry="2.143"/>
 <rect style="fill:#50e6ff" width="17" height="10" x="14" y="21" rx="1.962" ry="2.143"/>
 <path style="fill:#17191e" d="m 15,24 h 1.258979 c 0.540644,0 0.948961,0.0747 1.224953,0.224089 0.275993,0.149394 0.413989,0.4127 0.413989,0.789916 0,0.227825 -0.05482,0.420169 -0.164463,0.577032 -0.105864,0.156863 -0.258978,0.252101 -0.459356,0.285714 v 0.02801 c 0.136107,0.02614 0.258979,0.07283 0.36862,0.140057 0.109636,0.06723 0.196598,0.164332 0.260871,0.291315 C 17.967868,26.463117 18,26.631184 18,26.840335 c 0,0.362279 -0.132325,0.646125 -0.396975,0.851542 -0.264649,0.205415 -0.6276,0.308122 -1.088847,0.308122 H 15 Z m 1,1.333333 h 0.355387 c 0.702746,0 0.663516,-0.340666 0.663516,-0.340666 0,0 0.006,-0.326 -0.708884,-0.297989 H 16 Z M 16,26 v 1.333333 h 0.417769 c 0.257089,0 0.436674,-0.08216 0.538753,-0.17927 0.102081,-0.100842 0.153119,-0.233427 0.153119,-0.39776 0,-0.149392 -0.05293,-0.468639 -0.15879,-0.558275 C 16.84877,26.104658 16.660222,25.975447 16.389414,26 Z"/>
 <path style="fill:#17191e" d="m 22,28 h -3 v -4 h 3 v 1 h -2 v 0.534 h 1 V 26.4 H 20 V 27 h 2 z"/>
 <path style="fill:#17191e" d="m 25,28 h -1 v -3 h -1 v -1 h 3 v 1 h -1 z"/>
 <path style="fill:#17191e" d="M 29.07949,28 28.772681,27 H 27.23371 l -0.307012,1 H 25.969 l 1.485841,-4 h 1.090798 l 1.491738,4 z M 28.36051,26 28.003196,24.819 27.657302,26 Z"/>
</svg>
