<svg xmlns="http://www.w3.org/2000/svg" width="32" height="32" version="1.1">
 <rect style="opacity:0.2" width="28" height="28" x="2" y="3" rx="1.4" ry="1.4"/>
 <rect style="fill:#4f4f4f" width="28" height="28" x="2" y="2" rx="1.4" ry="1.4"/>
 <path style="opacity:0.2" d="m 10,13 v 13 h 3 V 17.394827 L 15.852865,20.516961 19,17.253173 V 26 h 3 V 13 H 18.864583 L 15.904948,16.370272 13.095052,13 Z"/>
 <path style="opacity:0.2" d="m 8,14.333672 -6,2.863282 v 3.162109 L 8,23.32 V 20.196954 L 5.1542969,18.792657 8,17.435235 Z"/>
 <path style="fill:#9a9a9a" d="m 10,12 v 13 h 3 V 16.394827 L 15.852865,19.516961 19,16.253173 V 25 h 3 V 12 H 18.864583 L 15.904948,15.370272 13.095052,12 Z"/>
 <path style="opacity:0.2" d="m 10,10 v 13 h 3 V 14.394827 L 15.852865,17.516961 19,14.253173 V 23 h 3 V 10 H 18.864583 L 15.904948,13.370272 13.095052,10 Z"/>
 <path style="fill:#8b9cbe" d="m 10,9 v 13 h 3 V 13.394827 L 15.852865,16.516961 19,13.253173 V 22 h 3 V 9 H 18.864583 L 15.904948,12.370272 13.095052,9 Z"/>
 <path style="fill:#dd7456" d="m 8,13.333672 -6,2.863282 v 3.162109 L 8,22.32 V 19.196954 L 5.1542969,17.792657 8,16.435235 Z"/>
 <path style="opacity:0.2" d="m 8,11.534844 -6,2.863282 v 3.162109 l 6,2.960937 V 17.398126 L 5.1542969,15.993829 8,14.636407 Z"/>
 <path style="fill:#ffc45a" d="m 8,10.534844 -6,2.863282 v 3.162109 l 6,2.960937 V 16.398126 L 5.1542969,14.993829 8,13.636407 Z"/>
 <path style="opacity:0.2" d="m 24,14.333672 v 3.101563 L 26.845703,18.792657 24,20.196954 V 23.32 l 6,-2.960937 v -3.162109 z"/>
 <path style="fill:#dd7456" d="m 24,13.333672 v 3.101563 L 26.845703,17.792657 24,19.196954 V 22.32 l 6,-2.960937 v -3.162109 z"/>
 <path style="opacity:0.2" d="m 24,11.534844 v 3.101563 L 26.845703,15.993829 24,17.398126 v 3.123046 l 6,-2.960937 v -3.162109 z"/>
 <path style="fill:#ffc45a" d="m 24,10.534844 v 3.101563 L 26.845703,14.993829 24,16.398126 v 3.123046 l 6,-2.960937 v -3.162109 z"/>
 <path style="fill:#8b9cbe;opacity:0.1" d="M 3.4003906 2 C 2.6247906 2 2 2.6247906 2 3.4003906 L 2 4.4003906 C 2 3.6247906 2.6247906 3 3.4003906 3 L 28.599609 3 C 29.375209 3 30 3.6247906 30 4.4003906 L 30 3.4003906 C 30 2.6247906 29.375209 2 28.599609 2 L 3.4003906 2 z"/>
</svg>
