<svg xmlns="http://www.w3.org/2000/svg" width="32" height="32" version="1.1">
 <rect style="opacity:0.2" width="28" height="28" x="2" y="3" rx="1.4" ry="1.4"/>
 <rect style="fill:#7ec242" width="28" height="28" x="2" y="2" rx="1.4" ry="1.4"/>
 <path style="opacity:0.2" d="M 10.636,9.963 V 20.333 C 10.636,21.975 11.951,23.296 13.585,23.296 H 20.221 C 21.855,23.296 23.17,21.975 23.17,20.333 V 14.778 C 23.17,13.346 22.015,12.185 20.59,12.185 19.866,12.185 19.215,12.49 18.747,12.972 18.278,12.49 17.627,12.185 16.903,12.185 15.478,12.185 14.323,13.346 14.323,14.778 V 19.222 H 15.797 V 14.778 C 15.797,14.164 16.292,13.667 16.903,13.667 17.514,13.667 18.009,14.164 18.009,14.778 V 19.222 H 19.484 V 14.778 C 19.484,14.164 19.979,13.667 20.59,13.667 21.201,13.667 21.696,14.164 21.696,14.778 V 20.333 C 21.696,21.154 21.038,21.815 20.221,21.815 H 13.585 C 12.768,21.815 12.111,21.154 12.111,20.333 V 9.963 Z"/>
 <path style="fill:#8b9cbe" d="M 10.636,8.963 V 19.333 C 10.636,20.975 11.951,22.296 13.585,22.296 H 20.221 C 21.855,22.296 23.17,20.975 23.17,19.333 V 13.778 C 23.17,12.346 22.015,11.185 20.59,11.185 19.866,11.185 19.215,11.49 18.747,11.972 18.278,11.49 17.627,11.185 16.903,11.185 15.478,11.185 14.323,12.346 14.323,13.778 V 18.222 H 15.797 V 13.778 C 15.797,13.164 16.292,12.667 16.903,12.667 17.514,12.667 18.009,13.164 18.009,13.778 V 18.222 H 19.484 V 13.778 C 19.484,13.164 19.979,12.667 20.59,12.667 21.201,12.667 21.696,13.164 21.696,13.778 V 19.333 C 21.696,20.154 21.038,20.815 20.221,20.815 H 13.585 C 12.768,20.815 12.111,20.154 12.111,19.333 V 8.963 Z"/>
 <path style="opacity:0.2" d="M 4,7 V 12.926 H 6.9493 V 19.662 C 6.9493,23.724 10.21,27 14.253,27 H 26.857 V 14.338 C 26.857,10.276 23.597,7 19.553,7 Z M 5.4747,8.4815 H 19.553 C 22.805,8.4815 25.382,11.071 25.382,14.338 V 25.519 H 14.253 C 11.002,25.519 8.424,22.929 8.424,19.662 V 12.926 C 8.4247,12.15 7.7213,11.444 6.9493,11.444 H 5.4747 Z"/>
 <path style="fill:#8b9cbe" d="M 4,6 V 11.926 H 6.9493 V 18.662 C 6.9493,22.724 10.21,26 14.253,26 H 26.857 V 13.338 C 26.857,9.2756 23.597,6 19.553,6 Z M 5.4747,7.4815 H 19.553 C 22.805,7.4815 25.382,10.071 25.382,13.338 V 24.519 H 14.253 C 11.002,24.519 8.424,21.929 8.424,18.662 V 11.926 C 8.4247,11.15 7.7213,10.444 6.9493,10.444 H 5.4747 Z"/>
 <path style="fill:#8b9cbe;opacity:0.2" d="M 3.4004 2 C 2.6248 2 2 2.6248 2 3.4004 L 2 4.4004 C 2 3.6248 2.6248 3 3.4004 3 L 28.6 3 C 29.375 3 30 3.6248 30 4.4004 L 30 3.4004 C 30 2.6248 29.375 2 28.6 2 L 3.4004 2 z"/>
</svg>
