<svg xmlns="http://www.w3.org/2000/svg" width="32" height="32" version="1">
 <rect style="opacity:0.2" width="28" height="28" x="2" y="3" rx="1.4" ry="1.4"/>
 <rect style="fill:#546e7a" width="28" height="28" x="2" y="2" rx="1.4" ry="1.4"/>
 <path style="opacity:0.2" d="m 14,9 v 6 h -3 l 5,5.5 5,-5.5 H 18 V 9 Z M 7,19 v 6 h 3 12 3 v -6 h -3 v 3 H 10 v -3 z"/>
 <path style="fill:#8b9cbe" d="m 14,8 v 6 h -3 l 5,5.5 5,-5.5 H 18 V 8 Z M 7,18 v 6 h 3 12 3 v -6 h -3 v 3 H 10 v -3 z"/>
 <path style="opacity:0.1;fill:#8b9cbe" d="M 3.4003906,2 C 2.6247906,2 2,2.6247906 2,3.4003906 v 1 C 2,3.6247906 2.6247906,3 3.4003906,3 H 28.599609 C 29.375209,3 30,3.6247906 30,4.4003906 v -1 C 30,2.6247906 29.375209,2 28.599609,2 Z"/>
</svg>
