<svg xmlns="http://www.w3.org/2000/svg" width="32" height="32" version="1.1">
 <circle style="opacity:0.2" cx="16" cy="17" r="14"/>
 <circle style="fill:#afd817" cx="16" cy="16" r="14"/>
 <path style="fill:#17191e" d="M 21.316992,7.5876954 4.9996093,24.654297 A 14,14 0 0 0 6.9451171,26.675 L 23.341797,9.5236329 Z"/>
 <path style="fill:none;stroke:#17191e;stroke-width:2.79999995" d="M 9.5329207,22.178 C 9.4057006,21.804588 11.496952,19.368585 11.239851,18.086997 10.537086,14.58391 9.4031008,13.77605 12.823728,10.749163"/>
 <path style="fill:none;stroke:#17191e;stroke-width:2.79999995" d="m 11.414644,19.491457 c 0.373413,0.127219 1.947081,-1.214394 3.134963,-1.144703 3.566754,0.209256 4.966882,1.555642 7.99377,-1.864991"/>
 <circle style="opacity:0.1" cx="13" cy="11" r="3"/>
 <circle style="fill:#4f4f4f" cx="13" cy="10" r="3"/>
 <rect style="opacity:0.1" width="4.596" height="4.596" x="25.99" y="-6.89" transform="rotate(45)"/>
 <rect style="fill:#4f4f4f" width="4.596" height="4.596" x="25.28" y="-7.6" transform="rotate(45)"/>
 <path style="opacity:0.1" transform="matrix(0.59436835,0.34315873,-0.34315873,0.59436835,39.151054,21.340031)" d="M -28.541582,-8.4892456 -25.808671,1.7101161 -36.008033,-1.022795 Z"/>
 <path style="fill:#4f4f4f" transform="matrix(0.59436835,0.34315873,-0.34315873,0.59436835,39.151054,20.340032)" d="M -28.541582,-8.4892456 -25.808671,1.7101161 -36.008033,-1.022795 Z"/>
 <path style="fill:#8b9cbe;opacity:0.2" d="M 16 2 A 14 14 0 0 0 2 16 A 14 14 0 0 0 2.0214844 16.585938 A 14 14 0 0 1 16 3 A 14 14 0 0 1 29.978516 16.414062 A 14 14 0 0 0 30 16 A 14 14 0 0 0 16 2 z"/>
</svg>
