<svg xmlns="http://www.w3.org/2000/svg" width="32" height="32" version="1.1">
 <g style="opacity:0.2" transform="matrix(0.02862316,0,0,0.02862316,2.4921209,2.7119911)">
  <g>
   <path transform="matrix(24.455977,0,0,24.455977,-96.497486,-87.776619)" d="m 13.659463,28.483028 c -0.797351,0.977266 0.150391,2.820312 0.150391,2.820312 0,0 7.957313,10.721681 9.08996,11.997443 1.136736,1.279851 2.441014,0.629721 1.488281,-1.136719 -0.126187,-0.232449 -0.376721,-0.714536 -0.640625,-1.224609 L 16.642911,29.835371 c -0.642988,-0.987752 -0.988202,-1.499243 -1.954151,-1.789843 0,0 -0.792518,0.216077 -1.029297,0.4375 z m 0.595705,-0.400393 c -0.126758,0.0368 -0.244884,0.09791 -0.359375,0.179687 0.360279,-0.180632 0.359375,-0.179687 0.359375,-0.179687 z"/>
  </g>
 </g>
 <g style="opacity:0.2" transform="matrix(0.02862316,0,0,0.02862316,2.5620192,2.7119911)">
  <g>
   <path transform="matrix(24.455977,0,0,24.455977,-96.497486,-87.776619)" d="M 24.107015,4.0078125 C 18.824324,4.4343702 15.599632,24.906029 16.063476,29.73997 c -0.04106,-0.02445 -0.08514,-0.03944 -0.126953,-0.0625 2.39703,3.696764 5.893457,8.882971 7.634721,11.465415 2.535167,-0.0082 6.945504,2.982785 10.458053,2.853209 2.339973,-0.08632 5.511967,-3.580832 4.894531,-12.216758 -0.613347,-8.631836 -11.36841,-5.818359 -11.384766,-5.818359 2.191694,-1.56199 3.242806,-2.708251 5.021513,-3.599649 1.092668,-0.678745 0.796113,-2.096441 -0.0993,-3.963555 C 31.077667,15.312768 27.343427,5.5681202 25.190999,4.1777344 24.821202,4.03232 24.459194,3.9793753 24.107015,4.0078125 Z"/>
  </g>
 </g>
 <path style="fill:none;stroke:#17191e;stroke-width:1.29999995" d="M 5.4000145,14.599838 C 8.0434006,14.503169 8.6667682,16.100192 9.8,19.499888"/>
 <g style="fill:#b2bfd9" transform="matrix(0.02862316,0,0,0.02862316,2.5620192,1.7121224)">
  <g style="fill:#b2bfd9">
   <path style="fill:#b2bfd9" transform="matrix(24.455977,0,0,24.455977,-96.497486,-87.776619)" d="M 24.107015,4.0078125 C 18.824324,4.4343702 15.599632,24.906029 16.063476,29.73997 c -0.04106,-0.02445 -0.08514,-0.03944 -0.126953,-0.0625 2.39703,3.696764 5.893457,8.882971 7.634721,11.465415 2.535167,-0.0082 6.945504,2.982785 10.458053,2.853209 2.339973,-0.08632 5.511967,-3.580832 4.894531,-12.216758 -0.613347,-8.631836 -11.36841,-5.818359 -11.384766,-5.818359 2.191694,-1.56199 3.242806,-2.708251 5.021513,-3.599649 1.092668,-0.678745 0.796113,-2.096441 -0.0993,-3.963555 C 31.077667,15.312768 27.343427,5.5681202 25.190999,4.1777344 24.821202,4.03232 24.459194,3.9793753 24.107015,4.0078125 Z"/>
  </g>
 </g>
 <g style="fill:#8b9cbe" transform="matrix(0.02862316,0,0,0.02862316,2.5620192,1.7121224)">
  <g style="fill:#8b9cbe">
   <path style="fill:#8b9cbe;opacity:0.2" transform="matrix(34.936744,0,0,34.936744,-89.508608,-59.815981)" d="M 16.675781 2.0058594 C 13.085346 2.2957737 10.860796 15.783204 11.03125 19.666016 C 11.196181 14.868854 13.349968 3.2744064 16.675781 3.0058594 C 16.922309 2.9859531 17.174733 3.0212557 17.433594 3.1230469 C 18.940309 4.0963271 21.554902 10.918599 22.523438 13.078125 C 22.748327 13.547065 22.914454 13.972981 23.005859 14.351562 C 23.207686 13.811716 22.979883 13.029905 22.523438 12.078125 C 21.554902 9.9185988 18.940309 3.0982803 17.433594 2.125 C 17.174733 2.0232089 16.922309 1.9859531 16.675781 2.0058594 z M 21.490234 17.068359 C 21.20033 17.074286 20.956908 17.103185 20.701172 17.126953 C 20.234191 17.497383 19.735329 17.904667 19.078125 18.373047 C 19.089574 18.373047 26.617528 16.402964 27.046875 22.445312 C 27.071133 22.784601 27.083679 23.108952 27.091797 23.425781 C 27.109013 22.812856 27.097662 22.155656 27.046875 21.445312 C 26.778533 17.668845 23.736417 17.022437 21.490234 17.068359 z M 10.955078 19.974609 C 10.974102 20.003948 11.000313 20.042663 11.019531 20.072266 C 11.019762 20.051531 11.021163 20.02692 11.021484 20.005859 C 10.999673 19.995189 10.976647 19.986505 10.955078 19.974609 z"/>
  </g>
 </g>
 <g style="fill:#17191e" transform="matrix(0.02862316,0,0,0.02862316,2.4921209,1.7121224)">
  <g style="fill:#17191e">
   <path style="fill:#17191e" transform="matrix(24.455977,0,0,24.455977,-96.497486,-87.776619)" d="m 13.659463,28.483028 c -0.797351,0.977266 0.150391,2.820312 0.150391,2.820312 0,0 7.957313,10.721681 9.08996,11.997443 1.136736,1.279851 2.441014,0.629721 1.488281,-1.136719 -0.126187,-0.232449 -0.376721,-0.714536 -0.640625,-1.224609 L 16.642911,29.835371 c -0.642988,-0.987752 -0.988202,-1.499243 -1.954151,-1.789843 0,0 -0.792518,0.216077 -1.029297,0.4375 z m 0.595705,-0.400393 c -0.126758,0.0368 -0.244884,0.09791 -0.359375,0.179687 0.360279,-0.180632 0.359375,-0.179687 0.359375,-0.179687 z"/>
  </g>
 </g>
 <circle style="opacity:0.2" cx="10" cy="21" r="2"/>
 <circle style="fill:#4f4f4f" cx="10" cy="20" r="2"/>
 <circle style="opacity:0.2" cx="5.5" cy="15.5" r="1.5"/>
 <circle style="fill:#4f4f4f" cx="5.5" cy="14.5" r="1.5"/>
 <path style="fill:#4f4f4f" d="M 13.140625 7.5703125 C 13.104893 7.5703966 13.041689 7.5737656 12.988281 7.5761719 C 12.837678 8.0596302 12.693313 8.5550034 12.558594 9.0644531 C 13.85506 8.8464721 15.258526 9.4517806 15.951172 10.537109 C 15.926118 10.146923 15.826329 9.7676692 15.65625 9.4179688 C 15.143591 8.3704604 14.343554 7.5706128 13.140625 7.5703125 z"/>
 <path style="fill:#4f4f4f" d="M 11.929688 11.859375 C 11.83691 12.323189 11.73916 12.774483 11.660156 13.230469 C 12.727933 13.335645 13.979434 13.788342 14.470703 14.558594 C 14.445653 14.168409 14.34586 13.789152 14.175781 13.439453 C 13.776166 12.626633 12.850701 12.070645 11.929688 11.859375 z"/>
</svg>
