<svg xmlns="http://www.w3.org/2000/svg" width="32" height="32" version="1.0">
 <circle style="opacity:0.2" cx="15.5" cy="-16.5" r="14.5" transform="scale(1,-1)"/>
 <circle style="fill:#565c64" cx="15.5" cy="-15.5" r="14.5" transform="scale(1,-1)"/>
 <path style="opacity:0.2" d="M 15,5.0175781 A 11.5,11.5 0 0 0 7.7382812,8.03125 L 15,15.292969 Z m 1,0.00781 V 15.292969 L 23.259766,8.0332031 A 11.5,11.5 0 0 0 16,5.0253906 Z M 23.96875,8.7382812 16.707031,16 H 26.982422 A 11.5,11.5 0 0 0 23.96875,8.7382812 Z M 7.0332031,8.7402344 A 11.5,11.5 0 0 0 4.0253906,16 H 14.292969 Z M 4.0175781,17 A 11.5,11.5 0 0 0 7.03125,24.261719 L 14.292969,17 Z m 12.6894529,0 7.259766,7.259766 A 11.5,11.5 0 0 0 26.974609,17 Z M 15,17.707031 7.7402344,24.966797 A 11.5,11.5 0 0 0 15,27.974609 Z m 1,0 v 10.275391 a 11.5,11.5 0 0 0 7.261719,-3.013672 z"/>
 <path style="fill:#8b9cbe" d="M 15 4.0175781 A 11.5 11.5 0 0 0 7.7382812 7.03125 L 15 14.292969 L 15 4.0175781 z M 16 4.0253906 L 16 14.292969 L 23.259766 7.0332031 A 11.5 11.5 0 0 0 16 4.0253906 z M 23.96875 7.7382812 L 16.707031 15 L 26.982422 15 A 11.5 11.5 0 0 0 23.96875 7.7382812 z M 7.0332031 7.7402344 A 11.5 11.5 0 0 0 4.0253906 15 L 14.292969 15 L 7.0332031 7.7402344 z M 4.0175781 16 A 11.5 11.5 0 0 0 7.03125 23.261719 L 14.292969 16 L 4.0175781 16 z M 16.707031 16 L 23.966797 23.259766 A 11.5 11.5 0 0 0 26.974609 16 L 16.707031 16 z M 15 16.707031 L 7.7402344 23.966797 A 11.5 11.5 0 0 0 15 26.974609 L 15 16.707031 z M 16 16.707031 L 16 26.982422 A 11.5 11.5 0 0 0 23.261719 23.96875 L 16 16.707031 z"/>
 <path style="fill:#8b9cbe;opacity:0.1" d="M 15.5 1 A 14.5 14.5 0 0 0 1 15.5 A 14.5 14.5 0 0 0 1.0214844 15.919922 A 14.5 14.5 0 0 1 15.5 2 A 14.5 14.5 0 0 1 29.978516 16.080078 A 14.5 14.5 0 0 0 30 15.5 A 14.5 14.5 0 0 0 15.5 1 z"/>
</svg>
