<svg xmlns="http://www.w3.org/2000/svg" width="32" height="32" version="1.1">
 <path style="opacity:0.2" d="M 16.487363,3 C 8.8133339,3.0142711 2.5858966,9.3682365 2.5859094,17.239 H 4.7 C 4.6998034,10.285344 9.6733499,5.0529318 16.452873,5 c 0.03147,-1.233e-4 0.06293,-1.233e-4 0.0944,0 C 23.363513,4.9999996 28.3,10.247886 28.3,17.239 h 2.111905 C 30.411905,9.358143 24.196665,3 16.512781,3 h -0.02514 z"/>
 <circle style="opacity:0.2" cx="20.243" cy="14.949" r="11" transform="rotate(12.584)"/>
 <path style="fill:#3d3846" d="M 16.487363,2 C 8.8133339,2.0142711 2.5858966,8.3682365 2.5859094,16.239 H 4.7 C 4.6998034,9.2853444 9.6733499,4.0529318 16.452873,4 c 0.03147,-1.233e-4 0.06293,-1.233e-4 0.0944,0 C 23.363513,3.9999996 28.3,9.2478863 28.3,16.239 h 2.111905 C 30.411905,8.358143 24.196665,2 16.512781,2 h -0.02514 z"/>
 <path style="fill:#8b9cbe;opacity:0.1" d="M 16.488281 2 C 8.8142522 2.0142711 2.5859247 8.3675178 2.5859375 16.238281 L 2.6347656 16.238281 C 3.1376571 8.8381587 9.1434205 3.013659 16.488281 3 L 16.513672 3 C 23.867965 3 29.86132 8.829006 30.363281 16.238281 L 30.412109 16.238281 C 30.412109 8.3574242 24.197556 2 16.513672 2 L 16.488281 2 z"/>
 <path style="fill:#c01c28" d="m 6.6113863,1.499652 c 0,0 -2.4098358,5.3086594 2.3392009,11.146441 l 5.1049058,-2.40105 C 7.1411448,7.2939667 6.6113863,1.5003479 6.6113863,1.5003479 Z"/>
 <path style="fill:#c01c28" d="m 26.367107,1.499652 c 0,0 2.409836,5.3086594 -2.339201,11.146441 L 18.923,10.245043 c 6.914348,-2.9510763 7.444107,-8.7446951 7.444107,-8.7446951 z"/>
 <path style="fill:#8b9cbe;opacity:0.1" d="M 6.6113281 1.5 C 6.6113281 1.5 5.9098209 3.066057 6.0175781 5.4238281 C 6.1043445 3.6360813 6.6113281 2.5 6.6113281 2.5 C 6.6113281 2.5 7.0936907 7.6822262 13.001953 10.740234 L 14.054688 10.244141 C 7.1403388 7.2930639 6.6113281 1.5 6.6113281 1.5 z M 26.367188 1.5 C 26.367188 1.5 25.838176 7.2930639 18.923828 10.244141 L 19.976562 10.740234 C 25.884824 7.6822262 26.367188 2.5 26.367188 2.5 C 26.367188 2.5 26.874171 3.6360813 26.960938 5.4238281 C 27.068695 3.066057 26.367188 1.5 26.367188 1.5 z"/>
 <circle style="fill:#e8303a" cx="20.025" cy="13.973" r="11" transform="rotate(12.584)"/>
 <path style="fill:#8b9cbe;opacity:0.1" d="M 15.9375 7.0136719 A 11 11 0 0 0 5.7636719 15.603516 A 11 11 0 0 0 5.5136719 18.462891 A 11 11 0 0 1 5.7636719 16.603516 A 11 11 0 0 1 18.896484 8.2636719 A 11 11 0 0 1 27.486328 18.4375 A 11 11 0 0 0 18.896484 7.2636719 A 11 11 0 0 0 15.9375 7.0136719 z"/>
 <path style="opacity:0.2" d="M 6.8691406,11.999999 C 6.6438035,12.000276 6.2525555,12.126316 6,12.222655 c 0,0 -0.4932478,0.230709 -0.6191406,0.261719 -0.6145819,0.151205 -1.3130033,0.06724 -1.875,0.335937 -0.3117415,0.149054 -0.5757929,0.395048 -0.75,0.669922 -0.2539498,0.400712 -0.348832,0.729506 -0.421875,1.183594 C 2.1360879,15.903864 2.00567,17.060566 2,18.771483 v 0.457032 c 0.00523,1.710919 0.1360879,2.867621 0.3339844,4.097656 0.073062,0.454082 0.1679252,0.782892 0.421875,1.183594 0.1742071,0.274867 0.4382585,0.520868 0.75,0.669922 0.5620438,0.268694 1.2604559,0.184732 1.875,0.335937 C 5.5067522,25.546637 6,25.785155 6,25.785155 6.2520623,25.880471 6.6485594,25.999728 6.8691406,25.999999 7.2348359,26.000457 7.4434108,25.885497 7.625,25.609374 7.8065869,25.333251 8.00646,25.003535 8,23.990233 V 23.666015 14.333983 14.009765 C 8.0063772,12.996436 7.8065869,12.666729 7.625,12.390624 7.4434108,12.114519 7.2348359,11.99954 6.8691406,11.999999 Z m 19.2617184,0 c -0.365695,-4.59e-4 -0.576223,0.11452 -0.757812,0.390625 C 25.19146,12.666729 24.993623,12.996436 25,14.009765 v 0.324218 9.332032 0.324218 c -0.0065,1.013302 0.19146,1.343018 0.373047,1.619141 0.181589,0.276123 0.392117,0.391083 0.757812,0.390625 0.220581,-2.71e-4 0.617079,-0.119528 0.869141,-0.214844 0,0 0.493248,-0.238518 0.619141,-0.269531 0.614544,-0.151205 1.312956,-0.06724 1.875,-0.335937 0.311741,-0.149053 0.575793,-0.395055 0.75,-0.669922 0.25395,-0.400702 0.346859,-0.729512 0.419921,-1.183594 C 30.861959,22.096136 30.994765,20.939434 31,19.228515 v -0.457032 c -0.0057,-1.710917 -0.138042,-2.867619 -0.335938,-4.097656 -0.07304,-0.454088 -0.165971,-0.782882 -0.419921,-1.183594 -0.174207,-0.274874 -0.438259,-0.520867 -0.75,-0.669922 -0.561997,-0.268693 -1.260418,-0.184732 -1.875,-0.335937 C 27.493248,12.453364 27,12.222655 27,12.222655 26.747444,12.126316 26.356196,12.000276 26.130859,11.999999 Z"/>
 <path style="fill:#3d3846" d="m 26.999305,11.221983 v 13.562274 c 0,0 0.493254,-0.238237 0.619147,-0.26925 0.614544,-0.151205 1.313452,-0.06672 1.875496,-0.335417 0.311741,-0.149053 0.575792,-0.395068 0.749999,-0.669935 0.25395,-0.400702 0.347829,-0.729023 0.420891,-1.183105 0.197896,-1.230035 0.329232,-2.386866 0.334467,-4.097785 v -0.457348 c -0.0057,-1.710917 -0.136571,-2.868181 -0.334467,-4.098218 -0.07304,-0.454088 -0.166941,-0.78196 -0.420891,-1.182672 -0.174207,-0.274874 -0.438258,-0.520889 -0.749999,-0.669943 -0.561997,-0.268694 -1.260914,-0.184211 -1.875496,-0.335416 -0.125893,-0.03101 -0.619147,-0.263013 -0.619147,-0.263013 z"/>
 <path style="fill:#9a9996" d="m 26.130952,11.000142 c -0.365695,-4.59e-4 -0.575856,0.114002 -0.757445,0.390107 -0.181587,0.276105 -0.380426,0.60681 -0.374049,1.620139 L 25,13.333497 h -5.42e-4 v 9.333145 H 25 l -5.42e-4,0.32357 c -0.0065,1.013302 0.192462,1.344014 0.374049,1.620137 0.181589,0.276123 0.39175,0.390108 0.757445,0.38965 0.220581,-2.71e-4 0.616291,-0.120426 0.868353,-0.215742 V 11.222155 C 26.746749,11.125816 26.356289,11.000277 26.130952,11 Z"/>
 <circle style="opacity:0.4" cx="15.25" cy="20.25" r=".75"/>
 <circle style="opacity:0.4" cx="17.75" cy="20.25" r=".75"/>
 <path style="opacity:0.2" d="m 12,13 a 3,3 0 0 0 -3,3 3,3 0 0 0 3,3 3,3 0 0 0 3,-3 3,3 0 0 0 -3,-3 z m 9,0 a 3,3 0 0 0 -3,3 3,3 0 0 0 3,3 3,3 0 0 0 3,-3 3,3 0 0 0 -3,-3 z"/>
 <circle style="fill:#f6f5f4" cx="21" cy="15" r="3"/>
 <circle style="fill:#241f31" cx="21" cy="14.5" r="1.5"/>
 <circle style="fill:#f6f5f4" cx="12" cy="15" r="3"/>
 <circle style="fill:#241f31" cx="12" cy="14.5" r="1.5"/>
 <path style="fill:#3d3846" d="m 6,11.221983 v 13.562274 c 0,0 -0.4932545,-0.238237 -0.6191473,-0.26925 C 4.7663086,24.363802 4.067401,24.448284 3.5053572,24.17959 3.1936157,24.030537 2.9295647,23.784522 2.7553576,23.509655 2.5014078,23.108953 2.407529,22.780632 2.3344671,22.32655 2.1365706,21.096515 2.0052349,19.939684 2,18.228765 V 17.771417 C 2.00567,16.0605 2.1365706,14.903236 2.3344671,13.673199 2.4075101,13.219111 2.5014078,12.891239 2.7553576,12.490527 2.9295647,12.215653 3.1936157,11.969638 3.5053572,11.820584 4.0673539,11.55189 4.7662708,11.636373 5.3808527,11.485168 5.5067455,11.454158 6,11.222155 6,11.222155 Z"/>
 <path style="fill:#9a9996" d="m 6.8683531,11.000142 c 0.3656953,-4.59e-4 0.5758558,0.114002 0.757445,0.390107 0.1815869,0.276105 0.3804261,0.60681 0.3740489,1.620139 l -5.416e-4,0.323109 h 5.416e-4 v 9.333145 h -5.416e-4 l 5.416e-4,0.32357 c 0.00646,1.013302 -0.192462,1.344014 -0.3740489,1.620137 -0.1815892,0.276123 -0.3917497,0.390108 -0.757445,0.38965 C 6.6477719,24.999728 6.2520623,24.879573 6,24.784257 V 11.222155 C 6.2525555,11.125816 6.643016,11.000277 6.8683531,11 Z"/>
 <path style="opacity:0.4" d="m 13.735596,20.924025 c -2.834015,0.0422 -2.143295,1.266486 -2.67604,2.235582 -0.260714,0.47424 0.376643,-0.05424 1.093514,-0.714434 1.127253,1.742555 3.195666,3.391215 6.821971,2.083765 -3.232704,-0.230065 -5.20419,-1.366626 -6.38651,-2.49611 0.593686,-0.563536 1.147065,-1.108776 1.147065,-1.108776 z"/>
 <path style="fill:#8b9cbe;opacity:0.1" d="M 6.8691406 11 C 6.6438035 11.000277 6.2525555 11.126317 6 11.222656 C 6 11.222656 5.5067522 11.453365 5.3808594 11.484375 C 4.7662775 11.63558 4.0678561 11.551619 3.5058594 11.820312 C 3.1941179 11.969367 2.9300665 12.21536 2.7558594 12.490234 C 2.5019096 12.890946 2.4070274 13.21974 2.3339844 13.673828 C 2.1360879 14.903865 2.00567 16.060567 2 17.771484 L 2 18.228516 C 2.0002987 18.326139 2.0047536 18.405869 2.0058594 18.5 C 2.0244537 16.944417 2.1473796 15.833681 2.3339844 14.673828 C 2.4070274 14.21974 2.5019096 13.890946 2.7558594 13.490234 C 2.9300665 13.21536 3.1941179 12.969366 3.5058594 12.820312 C 4.0678561 12.551615 4.7662775 12.63558 5.3808594 12.484375 C 5.5067522 12.453365 6 12.222656 6 12.222656 C 6.2525555 12.126317 6.6438035 12.000277 6.8691406 12 C 7.2348359 11.999541 7.4434108 12.11452 7.625 12.390625 C 7.8065869 12.66673 8.0063772 12.996437 8 14.009766 L 8 13.333984 L 8 13.009766 C 8.0063772 11.996437 7.8065869 11.66673 7.625 11.390625 C 7.4434108 11.11452 7.2348359 10.999541 6.8691406 11 z M 26.130859 11 C 25.765164 10.999541 25.554636 11.11452 25.373047 11.390625 C 25.19146 11.66673 24.993623 11.996437 25 13.009766 L 25 13.333984 L 25 14.009766 C 24.993623 12.996437 25.19146 12.66673 25.373047 12.390625 C 25.554636 12.11452 25.765164 11.999541 26.130859 12 C 26.356196 12.000277 26.747444 12.126317 27 12.222656 C 27 12.222656 27.493248 12.453365 27.619141 12.484375 C 28.233723 12.63558 28.932144 12.551619 29.494141 12.820312 C 29.805882 12.969368 30.069934 13.21536 30.244141 13.490234 C 30.498091 13.890946 30.591023 14.21974 30.664062 14.673828 C 30.850667 15.833681 30.975326 16.944417 30.994141 18.5 C 30.995258 18.405869 30.999701 18.326139 31 18.228516 L 31 17.771484 C 30.9943 16.060567 30.861958 14.903865 30.664062 13.673828 C 30.591023 13.21974 30.498091 12.890946 30.244141 12.490234 C 30.069934 12.21536 29.805882 11.969367 29.494141 11.820312 C 28.932144 11.55162 28.233723 11.63558 27.619141 11.484375 C 27.493248 11.453365 27 11.222656 27 11.222656 C 26.747444 11.126317 26.356196 11.000277 26.130859 11 z"/>
</svg>
