<svg xmlns="http://www.w3.org/2000/svg" width="32" height="32" version="1">
 <circle style="opacity:.2" cx="16" cy="17" r="14"/>
 <circle style="fill:#8d348e" cx="16" cy="16" r="14"/>
 <circle style="opacity:.3" cx="17" cy="15" r="10"/>
 <circle style="opacity:.2" cx="16" cy="17" r="7"/>
 <circle style="fill:#8b9cbe" cx="16" cy="16" r="7"/>
 <path style="fill:#691f69" transform="matrix(.72168785 0 0 .75000001 -.59708511 -2.4936926)" d="m27.154517 24.658257-3.464101 2-3.464102 1.999999v-4-3.999999l3.464102 2z"/>
 <path style="fill:#8b9cbe;opacity:.1" d="M 16 2 A 14 14 0 0 0 2 16 A 14 14 0 0 0 2.0214844 16.585938 A 14 14 0 0 1 16 3 A 14 14 0 0 1 29.978516 16.414062 A 14 14 0 0 0 30 16 A 14 14 0 0 0 16 2 z"/>
</svg>
