<svg xmlns="http://www.w3.org/2000/svg" width="32" height="32" version="1.1">
 <rect style="opacity:0.2" width="24" height="28" x="7" y="3" rx="1.4" ry="1.4"/>
 <path style="fill:#41a5ee" d="M 8.4,2 C 7.625,2 7,2.6248 7,3.4004 V 9 L 19,13 31,9 V 3.4004 C 31,2.6248 30.375,2 29.6,2 Z"/>
 <path style="fill:#2b7cd3" d="M 7,9 H 31 V 16 L 19,20 7,16 Z"/>
 <path style="fill:#1650a7" d="M 7,16 H 31 V 23 L 19,27 7,23 Z"/>
 <path style="fill:#103f91" d="M 7,23 V 28.6 C 7,29.375 7.625,30 8.4,30 H 29.6 C 30.375,30 31,29.375 31,28.6 V 23 Z"/>
 <path style="opacity:0.1" d="M 7,16 H 31 V 17 H 7 Z M 7,23 H 31 V 24 H 7 Z M 7,9 H 31 V 10 H 7 Z"/>
 <path style="opacity:0.2;fill:#8b9cbe" d="M 8.4,2 C 7.625,2 7,2.6248 7,3.4004 V 4.4004 C 7,3.6248 7.625,3 8.4,3 H 29.6 C 30.375,3 31,3.6248 31,4.4004 V 3.4004 C 31,2.6248 30.375,2 29.6,2 Z"/>
 <rect style="opacity:0.2" width="16" height="16" x="1" y="9" rx="1.4" ry="1.4"/>
 <rect style="fill:#185abd" width="16" height="16" x="1" y="8" rx="1.4" ry="1.4"/>
 <path style="fill:#8b9cbe" d="M 12.95,21 H 11.15 L 9.05,14.1 6.85,21 H 5.05 L 3.05,11 H 4.85 L 6.25,18 8.35,11 H 9.85 L 11.85,18 13.25,11 H 14.95 Z"/>
</svg>
