<svg xmlns="http://www.w3.org/2000/svg" width="32" height="32" version="1.1">
 <path style="opacity:0.2" d="M 12.333984,3 C 7.7173179,3 4,6.8536939 4,11.640625 v 4.253906 0.464844 c 0,0.150906 0.014185,0.298305 0.021484,0.447266 0.074807,3.335625 0.5175802,8.984095 2.6425781,11.404297 C 8.8053304,30.649668 13.800903,31 15.818359,31 19.403671,31 21,29.595703 21,29.595703 v -2.306641 c 0,0 -2.1629,0.756299 -4.716797,0.710938 -1.753778,-0.03115 -3.25565,-0.490655 -4.009765,-1.626953 C 12.0013,25.962988 12.020959,25.559197 11.9375,24.978516 12.069663,24.984913 12.200242,25 12.333984,25 h 8.332032 C 25.282682,25 29,21.146306 29,16.359375 v -4.71875 C 29,6.8536939 25.282682,3 20.666016,3 Z"/>
 <rect style="fill:#3088d4" width="25" height="22" x="4" y="2" rx="8.333" ry="8.641"/>
 <path style="fill:#3088d4" d="m 4.0230657,13.2 h 7.3963583 c 0,0 -0.323081,6.639758 0.480984,10.5 0.162371,0.779529 0.05411,1.191498 0.373184,1.672281 0.754116,1.136298 2.256308,1.596287 4.010086,1.627437 C 18.837575,27.045079 21,26.289609 21,26.289609 v 2.306348 C 21,28.595957 19.402768,30 15.817456,30 13.8,30 8.8060628,29.648839 6.6647949,27.210108 3.5714608,23.68705 4.0230657,13.2 4.0230657,13.2 Z"/>
 <circle style="opacity:0.2" cx="11.5" cy="11.5" r="1.5"/>
 <circle style="fill:#8b9cbe" cx="11.5" cy="10.5" r="1.5"/>
 <path style="opacity:0.2;fill:#8b9cbe" d="M 12.333984,2 C 7.7173183,2 4,5.8536939 4,10.640625 v 1 C 4,6.8536939 7.7173183,3 12.333984,3 h 8.332032 C 25.282682,3 29,6.8536939 29,11.640625 v -1 C 29,5.8536939 25.282682,2 20.666016,2 Z M 11.9375,24.978516 c 0.08346,0.580681 0.0638,0.984472 0.335938,1.394531 C 13.027552,27.509345 14.529425,27.96885 16.283203,28 18.8371,28.045361 21,27.289062 21,27.289062 v -1 c 0,0 -2.1629,0.756299 -4.716797,0.710938 -1.753778,-0.03115 -3.255651,-0.490655 -4.009765,-1.626953 -0.08442,-0.1272 -0.135733,-0.255259 -0.175782,-0.386719 -0.05317,-0.0039 -0.106786,-0.0052 -0.160156,-0.0078 z"/>
</svg>
