<svg xmlns="http://www.w3.org/2000/svg" width="32" height="32" version="1">
 <path style="opacity:.2" d="m20 10v18.9c0 1.1634 0.892 2.1 2 2.1h4c1.108 0 2-0.9366 2-2.1v-18.9z"/>
 <path style="opacity:.2" d="m12 10v18.9c0 1.1634 0.892 2.1 2 2.1h4c1.108 0 2-0.9366 2-2.1v-18.9z"/>
 <path style="opacity:.2" d="m4 10v18.9c0 1.1634 0.892 2.1 2 2.1h4c1.108 0 2-0.9366 2-2.1v-18.9z"/>
 <path style="fill:#eb4646" d="m4 9v18.9c0 1.1634 0.892 2.1 2 2.1h4c1.108 0 2-0.9366 2-2.1v-18.9z"/>
 <path style="fill:#b7785d" d="m5.7148438 6-1.7148438 3h4 4l-1.714844-3h-4.5703122z"/>
 <path style="fill:#4f82ea" d="m20 9v18.9c0 1.1634 0.892 2.1 2 2.1h4c1.108 0 2-0.9366 2-2.1v-18.9z"/>
 <path style="fill:#b7785d" d="m21.714844 6-1.714844 3h4 4l-1.714844-3h-4.570312z"/>
 <path style="fill:#ffbc2c" d="m12 9v18.9c0 1.1634 0.892 2.1 2 2.1h4c1.108 0 2-0.9366 2-2.1v-18.9z"/>
 <path style="fill:#b7785d" d="m13.714844 6-1.714844 3h4 4l-1.714844-3h-4.570312z"/>
 <rect style="opacity:.1" width="2" height="21" x="15" y="9"/>
 <rect style="opacity:.1" width="2" height="21" x="7" y="9"/>
 <rect style="opacity:.1" width="2" height="21" x="23" y="9"/>
 <rect style="fill:#8b9cbe;opacity:.2" width="24" height="1" x="4" y="9"/>
 <path style="opacity:.2" d="M 8,3 6,6.5 5.7148438,7 H 10.285156 L 10,6.5 Z"/>
 <path style="fill:#eb4646" d="m8 2-2 3.5-0.2851562 0.5h4.5703122l-0.285156-0.5-2-3.5z"/>
 <path style="opacity:.2" d="M 24,3 22,6.5 21.714844,7 h 4.570312 L 26,6.5 Z"/>
 <path style="fill:#4f82ea" d="m24 2-2 3.5-0.285156 0.5h4.570312l-0.285156-0.5-2-3.5z"/>
 <path style="opacity:.2" d="M 16,3 14,6.5 13.714844,7 h 4.570312 L 18,6.5 Z"/>
 <path style="fill:#ffbc2c" d="m16 2-2 3.5-0.285156 0.5h4.570312l-0.285156-0.5-2-3.5z"/>
 <path style="fill:#8b9cbe;opacity:.2" d="m8 2-2 3.5-0.2851562 0.5h0.5703124l1.7148438-3 1.7148438 3h0.5703122l-0.285156-0.5-2-3.5z"/>
 <path style="fill:#8b9cbe;opacity:.2" d="m24 2-2 3.5-0.285156 0.5h0.570312l1.714844-3 1.714844 3h0.570312l-0.285156-0.5-2-3.5z"/>
 <path style="fill:#8b9cbe;opacity:.2" d="m16 2-2 3.5-0.285156 0.5h0.570312l1.714844-3 1.714844 3h0.570312l-0.285156-0.5-2-3.5z"/>
</svg>
