<svg xmlns="http://www.w3.org/2000/svg" width="32" height="32" version="1">
 <path fill="#b2bfd9" transform="matrix(0,-1,-1,0,0,0)" d="m-26.5-30h20c0.831 0 1.5 0.669 1.5 1.5v25c0 0.831-0.669 1.5-1.5 1.5h-20c-0.831 0-1.5-0.669-1.5-1.5v-25c0-0.831 0.669-1.5 1.5-1.5z"/>
 <path fill="#636e73" d="m30 8v-2.5c0-0.831-0.669-1.5-1.5-1.5h-25c-0.831 0-1.5 0.669-1.5 1.5v2.5z"/>
 <path opacity=".15" d="m30 26.5v-18.5h-14v20h12.5c0.831 0 1.5-0.669 1.5-1.5z"/>
 <path fill="#fff" opacity=".1" d="m3.5 4c-0.831 0-1.5 0.669-1.5 1.5v1c0-0.831 0.669-1.5 1.5-1.5h25c0.831 0 1.5 0.669 1.5 1.5v-1c0-0.831-0.669-1.5-1.5-1.5h-25z"/>
 <path opacity=".2" d="m2 26.5v1c0 0.831 0.669 1.5 1.5 1.5h25c0.831 0 1.5-0.669 1.5-1.5v-1c0 0.831-0.669 1.5-1.5 1.5h-25c-0.831 0-1.5-0.669-1.5-1.5z"/>
 <g fill="#636e73">
  <path d="m6.25 11v0.66667h0.75v1.333h-3v-2h2.25z"/>
  <path d="m6.25 15v0.66667h0.75v1.333h-3v-2h2.25z"/>
  <path d="m6.25 19v0.66667h0.75v1.333h-3v-2h2.25z"/>
 </g>
 <g fill="#636e73" opacity=".8">
  <path d="m20.25 11v0.66667h0.75v1.333h-3v-2h2.25z"/>
  <path d="m20.25 15v0.66667h0.75v1.333h-3v-2h2.25z"/>
  <path d="m20.25 19v0.66667h0.75v1.333h-3v-2h2.25z"/>
 </g>
</svg>
