<svg xmlns="http://www.w3.org/2000/svg" width="32" height="32" version="1">
 <path fill="#9c27b0" d="m4.3008 3.9707c-1.2742 0-2.3008 1.0266-2.3008 2.3008v15.7h28v-15.7c0-1.2742-1.027-2.3008-2.301-2.3008h-23.398z"/>
 <path fill="#fff" opacity=".2" d="m4.3008 3.9707c-1.2742 0-2.3008 1.0266-2.3008 2.3008v0.9707c0-1.2742 1.0266-2.3008 2.3008-2.3008h23.398c1.274 0 2.301 1.0266 2.301 2.3008v-0.9707c0-1.2742-1.027-2.3008-2.301-2.3008h-23.398z"/>
 <path style="fill:#b2bfd9" d="m4.3008 28c-1.2742 0-2.3008-1.027-2.3008-2.301v-3.7285h28v3.7285c0 1.274-1.027 2.301-2.301 2.301z"/>
 <rect fill="#999" width="8" height="2" x="20" y="23.97" ry="1"/>
 <rect fill="#9c27b0" width="16" height="2" x="4" y="23.97" ry="1"/>
 <circle opacity=".2" cx="20" cy="25.971" r="2"/>
 <circle style="fill:#8b9cbe" cx="20" cy="24.971" r="2"/>
 <rect fill="#fff" style="opacity:0.2" width="28" height="1" x="2" y="21.97"/>
 <path opacity=".2" d="m12.444 8.9707c-0.24524-0.00013-0.44409 0.1991-0.44396 0.44482v9.1098c-0.00008 0.33795 0.36131 0.55243 0.65706 0.38996l8.3346-4.5549c0.30749-0.16869 0.30749-0.61122 0-0.77991l-7.502-4.0992-0.833-0.4552c-0.0653-0.0359-0.13859-0.0548-0.2131-0.0548z"/>
 <path style="fill:#8b9cbe" d="m12.444 7.9707c-0.24524-0.00013-0.44409 0.1991-0.44396 0.44482v9.1098c-0.00008 0.33795 0.36131 0.55243 0.65706 0.38996l8.3346-4.5549c0.30749-0.16869 0.30749-0.61122 0-0.77991l-7.502-4.0992-0.833-0.4552c-0.0653-0.0359-0.13859-0.0548-0.2131-0.0548z"/>
 <path opacity=".2" d="m2 25.699v1c0 1.274 1.0266 2.301 2.3008 2.301h23.398c1.274 0 2.301-1.027 2.301-2.301v-1c0 1.274-1.027 2.301-2.301 2.301h-23.398c-1.2744 0-2.301-1.027-2.301-2.301z"/>
</svg>
