<svg xmlns="http://www.w3.org/2000/svg" width="32" height="32" version="1">
 <circle style="opacity:0.2" cx="23.5" cy="23.5" r="8.5"/>
 <path style="opacity:0.2;fill-rule:evenodd" d="M 6.5625,3.0018619 A 4.50045,4.50045 0 0 0 2,7.4999088 L 2,26.499909 a 4.50045,4.50045 0 1 0 9,0 l 0,-7.681641 0.728516,0.771485 a 4.50045,4.50045 0 0 0 6.542968,0 L 19,18.818268 l 0,7.681641 a 4.50045,4.50045 0 1 0 9,0 L 28,7.4999088 A 4.50045,4.50045 0 0 0 20.228516,4.410065 L 15,9.9452213 9.7714844,4.410065 A 4.50045,4.50045 0 0 0 6.5625,3.0018619 Z"/>
 <path style="fill:none;stroke:#d24343;stroke-width:9;stroke-linecap:round;stroke-linejoin:round" d="m 6.50035,25.5 0,-19 8.5,9 8.5,-9 0,19"/>
 <circle style="fill:#6c9832" cx="23.5" cy="22.5" r="8.5"/>
 <rect style="fill:#8b9cbe" width="3" height="11" x="22" y="17" rx="1.5" ry="1.5"/>
 <rect style="fill:#8b9cbe" width="3" height="11" x="21" y="-29" rx="1.5" ry="1.5" transform="matrix(0,1,-1,0,0,0)"/>
 <path style="opacity:0.2;fill:#8b9cbe;fill-rule:evenodd" d="M 6.5625 2.0019531 A 4.50045 4.50045 0 0 0 2 6.5 L 2 7.5 A 4.50045 4.50045 0 0 1 6.5625 3.0019531 A 4.50045 4.50045 0 0 1 9.7714844 4.4101562 L 15 9.9453125 L 20.228516 4.4101562 A 4.50045 4.50045 0 0 1 28 7.5 L 28 6.5 A 4.50045 4.50045 0 0 0 20.228516 3.4101562 L 15 8.9453125 L 9.7714844 3.4101562 A 4.50045 4.50045 0 0 0 6.5625 2.0019531 z"/>
</svg>
