<svg xmlns="http://www.w3.org/2000/svg" width="32" height="32" version="1.1">
 <path style="opacity:0.2" d="M 16,31 C 23.731992,31 30,24.731992 30,17 30,9.2680079 23.731992,3 16,3 8.2680079,3 2,9.2680079 2,17 2,24.731992 8.2680079,31 16,31 Z"/>
 <path style="fill:#1370ba" d="M 16,30 C 23.731992,30 30,23.731992 30,16 30,8.2680079 23.731992,2 16,2 8.2680079,2 2,8.2680079 2,16 2,23.731992 8.2680079,30 16,30 Z"/>
 <path style="opacity:0.2" d="M 20.5,9 C 18.828851,9 17.857316,9.9074449 17.423828,10.777344 16.99034,11.647243 17,12.501953 17,12.501953 a 0.50005,0.50005 0 1 0 1,-0.0039 c 0,0 0.0044,-0.64529 0.318359,-1.275391 C 18.632351,10.592549 19.161069,10 20.5,10 c 1.338933,0 1.867649,0.592556 2.181641,1.222656 C 22.995632,11.852757 23,12.498047 23,12.498047 a 0.50005,0.50005 0 1 0 1,0.0039 c 0,0 0.0097,-0.85471 -0.423828,-1.724609 C 23.142684,9.9074506 22.17115,9 20.5,9 Z m 0,3 C 20.223858,12 20,12.223858 20,12.5 20,12.776142 20.223858,13 20.5,13 20.776142,13 21,12.776142 21,12.5 21,12.223858 20.776142,12 20.5,12 Z M 10,14 c -2,0 -3,1.084379 -3,4.039062 v 4.46875 C 7,22.507812 7,23 7.5,23 8,23 8,22.507812 8,22.507812 v -4.46875 C 7.9994011,15.793548 8.5478736,15 10,15 c 1.487688,0 2,0.698002 2,3 v 0.03906 4.46875 c 0,0 0,0.492188 0.5,0.492188 0.125,0 0.21875,-0.03003 0.289062,-0.07617 C 13.000001,22.7854 13,22.507812 13,22.507812 v -4.46875 C 12.999401,15.793548 13.547874,15 15,15 c 1.487688,0 2,0.698002 2,3 v 0.308594 0.652344 C 17,21.91562 18.5,23 20.5,23 22.5,23 24,22 24,19 V 14.492188 C 24,14.492186 24,14 23.5,14 23,14 23,14.492187 23,14.492188 V 19 c 0,2.301998 -1.012312,3 -2.5,3 -1.452126,0 -2.500599,-0.793548 -2.5,-3.039062 V 18.191406 18 c 0,-3 -1,-4 -3,-4 -1.179989,0 -2.002526,0.392094 -2.486328,1.308594 C 12.033773,14.371716 11.200504,14 10,14 Z"/>
 <path style="fill:#8b9cbe" d="M 20.5 8 C 18.828851 8 17.857316 8.9074449 17.423828 9.7773438 C 16.99034 10.647243 17 11.501953 17 11.501953 A 0.50005 0.50005 0 1 0 18 11.498047 C 18 11.498047 18.0044 10.852757 18.318359 10.222656 C 18.632351 9.5925494 19.161069 9 20.5 9 C 21.838933 9 22.367649 9.5925556 22.681641 10.222656 C 22.995632 10.852757 23 11.498047 23 11.498047 A 0.50005 0.50005 0 1 0 24 11.501953 C 24 11.501953 24.0097 10.647243 23.576172 9.7773438 C 23.142684 8.9074506 22.17115 8 20.5 8 z M 20.5 11 C 20.223858 11 20 11.223858 20 11.5 C 20 11.776142 20.223858 12 20.5 12 C 20.776142 12 21 11.776142 21 11.5 C 21 11.223858 20.776142 11 20.5 11 z M 10 13 C 8 13 7 14.084379 7 17.039062 L 7 21.507812 C 7 21.507812 7 22 7.5 22 C 8 22 8 21.507812 8 21.507812 L 8 17.039062 C 7.9994011 14.793548 8.5478736 14 10 14 C 11.487688 14 12 14.698002 12 17 L 12 17.039062 L 12 21.507812 C 12 21.507812 12 22 12.5 22 C 12.625 22 12.71875 21.969968 12.789062 21.923828 C 13.000001 21.7854 13 21.507812 13 21.507812 L 13 17.039062 C 12.999401 14.793548 13.547874 14 15 14 C 16.487688 14 17 14.698002 17 17 L 17 17.308594 L 17 17.960938 C 17 20.91562 18.5 22 20.5 22 C 22.5 22 24 21 24 18 L 24 13.492188 C 24 13.492186 24 13 23.5 13 C 23 13 23 13.492187 23 13.492188 L 23 18 C 23 20.301998 21.987688 21 20.5 21 C 19.047874 21 17.999401 20.206452 18 17.960938 L 18 17.191406 L 18 17 C 18 14 17 13 15 13 C 13.820011 13 12.997474 13.392094 12.513672 14.308594 C 12.033773 13.371716 11.200504 13 10 13 z"/>
 <path style="fill:#8b9cbe;opacity:0.2" d="M 16 2 C 8.2680079 2 2 8.2680079 2 16 C 2 16.168777 2.0194674 16.332668 2.0253906 16.5 C 2.29082 9.0015421 8.4367852 3 16 3 C 23.563215 3 29.70918 9.0015421 29.974609 16.5 C 29.980533 16.332668 30 16.168777 30 16 C 30 8.2680079 23.731992 2 16 2 z"/>
</svg>
