<svg width="32" height="32" version="1.1" xmlns="http://www.w3.org/2000/svg">
 <path d="m15.5 3c-4.694 0-8.4999 3.8133-8.4999 8.517-0.0174 2.551 2.235 4.78 3.2689 7.207 0.461 1.082 1.308 3.276 1.308 3.276h7.8461s0.84678-2.1943 1.3077-3.2759c1.034-2.427 3.224-4.684 3.269-7.207 0-4.7037-3.806-8.517-8.5-8.517z" style="fill:#f5ab35"/>
 <path d="m19.423 22-1.308 5.7c-0.161 0.702-0.583 1.3-1.307 1.3h-2.6154c-0.72446 0-1.1559-0.59578-1.3077-1.3l-1.308-5.7z" style="fill:#434343"/>
 <path d="m11.834 23 0.223 1h6.886l0.223-1zm0.447 2 0.223 1h5.992l0.223-1zm0.448 2 0.156 0.699c0.023 0.106 0.064 0.202 0.099 0.301h5.03c0.036-0.099 0.078-0.195 0.101-0.301l0.156-0.699z" style="fill:#8b9cbe;opacity:.2"/>
 <path d="M 15.5,3 C 10.806,3 7,6.8136 7,11.518 6.9989,11.683 7.0084,11.847 7.0254,12.01 7.2888,7.5435 10.977,4 15.5,4 19.956,4 23.605,7.4382 23.965,11.811 23.973,11.712 23.998,11.617 24,11.518 24,6.8136 20.194,3 15.5,3 Z" style="fill:#8b9cbe;opacity:.2"/>
 <path d="m23.965 11.811c-0.2 2.404-2.241 4.582-3.235 6.914-0.46 1.081-1.306 3.275-1.306 3.275h-7.848s-0.846-2.194-1.306-3.275c-0.9676-2.27-2.9993-4.367-3.2446-6.715-0.01 0.169-0.0254 0.336-0.0254 0.508-0.0174 2.55 2.2354 4.78 3.27 7.207 0.46 1.081 1.306 3.275 1.306 3.275h7.848s0.846-2.194 1.306-3.275c1.035-2.427 3.225-4.685 3.27-7.207 0-0.239-0.016-0.474-0.035-0.707z" style="opacity:.2"/>
 <path d="m11.576 23 1.309 5.699c0.152 0.704 0.582 1.301 1.306 1.301h2.618c0.724 0 1.145-0.599 1.306-1.301l1.309-5.699h-0.231l-1.078 4.699c-0.161 0.702-0.582 1.301-1.306 1.301h-2.618c-0.724 0-1.154-0.597-1.306-1.301l-1.078-4.699z" style="opacity:.2"/>
</svg>
