<svg width="32" height="32" version="1.1" xmlns="http://www.w3.org/2000/svg">
 <rect x="3" y="4" width="26" height="26" rx="2" ry="2" style="opacity:.2"/>
 <rect x="3" y="3" width="26" height="26" rx="2" ry="2" style="fill:#aa86f1"/>
 <path d="m5 3c-1.108 0-2 0.892-2 2v1c0-1.108 0.892-2 2-2h22c1.108 0 2 0.892 2 2v-1c0-1.108-0.892-2-2-2h-22z" style="fill:#8b9cbe;opacity:.2"/>
 <g>
  <path d="m14.624 15.066-1.7067 1.9715-1.3159 1.2975-1.465 0.99531-1.7617 0.93926-2.041 0.76836-1.2782 0.302-0.0551 0.168 0.073852 0.45117 0.29675 0.75195 0.62976 1.24 0.6123 0.91875 1.187 1.2592 0.53711 0.54414 0.48206 0.1709 2.1874-0.02051-1.2971 0.90098-0.018796 0.22695 0.77881 0.61934 1.0568 0.61934c1.3662 0.77148 2.5969-0.75332 2.5969-0.75332s-0.6624 1.1558-0.6217 1.5627h1.2985l0.68616-0.11211 0.77881-0.39512-0.2605 0.41289 1.4113 0.01777c1.4892-0.03552 2.4737-0.9069 3.3556-1.8402l0.92651-1.1088 0.72376-1.1074 0.53711-1.0145 0.854-2.0098 0.64856-1.6338 0.31555-0.86543h-0.3075l-2.3445-0.2748c-1.8827-0.54015-2.8972-1.9475-4.642-3.0242l-1.4462-0.90234-1.1494-0.69453-0.1665-0.24473-0.03357-0.0957-0.06311-0.04101z" style="fill:#fed24c"/>
  <path d="m25.15 2.7327-1.3634 2.6037-1.1791 2.6559-1.4427 2.8968-0.99681 2.3828-1.1078-0.47175-1.5953-0.69659h-0.3904l-0.33293 0.09435-0.53705 0.71465-1.5576 2.0837 0.07333 0.20677 0.16647 0.24491 1.1494 0.69458 1.4467 0.90135c1.7448 1.0768 2.7588 2.4841 4.6415 3.0242l2.3441 0.2761h0.39436l0.02576-0.10439 0.34086-2.1259 0.27942-1.7184 0.02773-0.36736-0.20412-0.38543-1.3733-0.63837-0.79666-0.34729-0.48751-0.31718-0.05549-0.02409 0.06539-0.1064 0.81449-2.0456 0.73324-1.8067 0.91754-2.4431 0.70946-1.7284 0.60244-1.5397 0.49485-1.4921c0.296-1.1147-1.006-1.7175-1.807-0.4213z" style="fill:#c2352a"/>
  <path d="m26.152 2.002c-0.33 0.0251-0.701 0.2443-1.002 0.7304l-1.363 2.6035-1.18 2.6563-1.443 2.8968-0.996 2.382-1.107-0.47-1.596-0.697h-0.391l-0.332 0.093-0.537 0.715-1.559 2.084 0.075 0.207 0.166 0.244 0.117 0.071 1.201-1.606 0.537-0.715 0.332-0.093h0.391l1.596 0.697 1.107 0.47 0.996-2.382 1.443-2.8968 1.18-2.6563 1.363-2.6035c0.583-0.9428 1.424-0.8744 1.729-0.3418l0.078-0.2363c0.185-0.6966-0.254-1.1942-0.805-1.1523zm-3.193 12.521-0.273 0.686-0.067 0.107 0.057 0.024 0.486 0.316 0.797 0.348 1.373 0.639 0.106 0.197 0.072-0.444 0.027-0.369-0.205-0.384-1.373-0.639-0.797-0.348z" style="fill:#8b9cbe;opacity:.2"/>
  <path d="m14.623 15.066-1.705 1.971-1.316 1.299-1.465 0.994-1.762 0.94-2.041 0.769-1.2793 0.301-0.0547 0.168 0.0742 0.451 0.1367 0.344 1.1231-0.264 2.041-0.769 1.762-0.94 1.465-0.994 1.316-1.299 1.705-1.971 0.065 0.041 0.033 0.096 0.166 0.244 1.15 0.696 1.445 0.902c1.745 1.077 2.76 2.483 4.643 3.023l2.285 0.268 0.051-0.127 0.316-0.865h-0.308l-2.344-0.276c-1.883-0.54-2.898-1.946-4.643-3.023l-1.445-0.902-1.15-0.696-0.166-0.244-0.033-0.096zm-3.617 12.758-1.3068 0.012-0.0097 0.115 0.5295 0.42zm3.117 1.614s-0.254 0.277-0.615 0.535c0 7e-3 -7e-3 0.02-6e-3 0.027h0.33c0.143-0.292 0.291-0.562 0.291-0.562z" style="fill:#8b9cbe;opacity:.2"/>
  <path d="m26.879 3.391-0.416 1.2559-0.604 1.539-0.709 1.7286-0.918 2.4433-0.732 1.8066-0.814 2.045-0.067 0.107 0.057 0.024 0.283 0.183 0.541-1.359 0.732-1.807 0.918-2.4429 0.709-1.7286 0.604-1.539 0.494-1.4922c0.081-0.3045 0.036-0.5646-0.078-0.7643zm-11.875 12.127-0.358 0.478 0.075 0.207 0.166 0.244 1.15 0.696 1.445 0.9c1.745 1.077 2.76 2.485 4.643 3.025l2.344 0.276h0.394l0.026-0.104 0.34-2.127 0.281-1.717 0.027-0.369-0.099-0.187-0.209 1.273-0.34 2.127-0.026 0.104h-0.394l-2.344-0.276c-1.883-0.54-2.898-1.948-4.643-3.025l-1.445-0.9z" style="opacity:.2"/>
  <path d="m24.41 21.336-0.598 1.506-0.853 2.01-0.537 1.015-0.725 1.108-0.926 1.109c-0.881 0.933-1.866 1.804-3.355 1.84l-1.412-0.018 0.26-0.414-0.778 0.397-0.687 0.111h-0.967c-0.177 0.361-0.353 0.775-0.33 1h1.297l0.687-0.111 0.778-0.397-0.26 0.414 1.412 0.018c1.489-0.036 2.474-0.907 3.355-1.84l0.926-1.109 0.725-1.108 0.537-1.015 0.853-2.01 0.649-1.633 0.316-0.865h-0.308zm-19.199 0.967-0.1562 0.037-0.0547 0.168 0.0742 0.451 0.2969 0.752 0.6289 1.24 0.6133 0.92 1.1855 1.258 0.5371 0.545 0.4825 0.17 0.8808-8e-3 0.0098-0.111 1.297-0.901-2.1876 0.02-0.4824-0.17-0.5371-0.545-1.1855-1.258-0.6133-0.92-0.6289-1.24-0.1602-0.408zm5.0081 6.068-0.51 0.354-0.0195 0.226 0.7795 0.619 1.056 0.621c0.786 0.444 1.495 0.13 1.983-0.218-0.018-0.424 0.615-1.535 0.615-1.535s-1.231 1.525-2.598 0.753l-1.056-0.621z" style="opacity:.2"/>
 </g>
</svg>
