<svg width="32" height="32" version="1.1" xmlns="http://www.w3.org/2000/svg">
 <path d="m6 3h20v10h-20z" style="fill:#b7b7b7"/>
 <rect x="2" y="12" width="28" height="17" rx="1.4" ry="1.4170001" style="fill:#4f4f4f"/>
 <path d="m2 27.584v1c0 0.785 0.6248 1.416 1.4004 1.416h25.2c0.775 0 1.4-0.631 1.4-1.416v-1c0 0.785-0.625 1.416-1.4 1.416h-25.2c-0.7752 0-1.4-0.631-1.4-1.416z" style="opacity:.2"/>
 <path d="m6 3v1h20v-1z" style="fill:#8b9cbe;opacity:.2"/>
 <rect x="8" y="5" width="5" height="3" style="opacity:.5"/>
 <rect x="19" y="5" width="5" height="3" style="opacity:.5"/>
 <path d="m16 15a6 6 0 0 0-6 6 6 6 0 0 0 6 6 6 6 0 0 0 6-6 6 6 0 0 0-6-6zm0 1a5 5 0 0 1 5 5 5 5 0 0 1-5 5 5 5 0 0 1-5-5 5 5 0 0 1 5-5zm0 1c-0.554 0-1 0.446-1 1v2h-2c-0.554 0-1 0.446-1 1s0.446 1 1 1h2v2c0 0.554 0.446 1 1 1s1-0.446 1-1v-2h2c0.554 0 1-0.446 1-1s-0.446-1-1-1h-2v-2c0-0.554-0.446-1-1-1z" style="opacity:.2"/>
 <path d="m16 14a6 6 0 0 0-6 6 6 6 0 0 0 6 6 6 6 0 0 0 6-6 6 6 0 0 0-6-6zm0 1a5 5 0 0 1 5 5 5 5 0 0 1-5 5 5 5 0 0 1-5-5 5 5 0 0 1 5-5zm0 1c-0.554 0-1 0.446-1 1v2h-2c-0.554 0-1 0.446-1 1s0.446 1 1 1h2v2c0 0.554 0.446 1 1 1s1-0.446 1-1v-2h2c0.554 0 1-0.446 1-1s-0.446-1-1-1h-2v-2c0-0.554-0.446-1-1-1z" style="fill:#0ad313"/>
</svg>
