<svg width="32" height="32" version="1.1" xmlns="http://www.w3.org/2000/svg">
 <g>
  <rect transform="matrix(0,-1,-1,0,0,0)" x="-29" y="-24" width="21" height="16" rx="1.25" ry="1.25" style="opacity:.2"/>
  <rect transform="matrix(0,-1,-1,0,0,0)" x="-28" y="-24" width="21" height="16" rx="1.25" ry="1.25" style="fill:#8e8e8e"/>
  <rect transform="matrix(0,-1,-1,0,0,0)" x="-26" y="-29" width="20" height="26" rx="1.25" ry="1.25" style="opacity:.2"/>
  <rect transform="matrix(0,-1,-1,0,0,0)" x="-25" y="-29" width="20" height="26" rx="1.25" ry="1.25" style="fill:#4f4f4f"/>
  <rect transform="matrix(0,-1,-1,0,0,0)" x="-23" y="-27" width="16" height="22" rx="0" ry="0" style="fill:#00ccff"/>
  <path d="M 4.25,5 C 3.5575,5 3,5.5575 3,6.25 v 1 C 3,6.5575 3.5575,6 4.25,6 h 23.5 C 28.442,6 29,6.5575 29,7.25 v -1 C 29,5.5575 28.442,5 27.75,5 Z" style="fill:#8b9cbe;opacity:.1"/>
  <rect x="5" y="23" width="22" height="1" style="fill:#8b9cbe;opacity:.1"/>
 </g>
 <rect x="5" y="7" width="22" height="1" style="opacity:.2"/>
 <style id="style1086" type="text/css">.st0{fill:#FFFFFF;}
	.st1{fill:#231F20;}</style>
 <path d="m16 10c-1.395928 0.0016-2.747601 0.489953-3.822266 1.38086l2.089844 3.61914 2.826172-4.895508c-0.36062-0.068209-0.726738-0.103186-1.09375-0.104492zm2.088867 0.382813-2.088867 3.617187h5.649414c-0.59332-1.673075-1.897044-2.997539-3.560547-3.617187zm-6.648438 1.720703c-0.928803 1.08587-1.439582 2.467572-1.440429 3.896484 3.44e-4 0.335121 0.02876 0.669624 0.08496 1h4.182617zm6.291993 2.896484 2.827148 4.896485c0.928804-1.085871 1.439583-2.467573 1.44043-3.896485-3.44e-4 -0.335121-0.02876-0.669624-0.08496-1zm0 2-2.826172 4.895508c0.36062 0.06821 0.726738 0.103186 1.09375 0.104492 1.395928-0.0017 2.747601-0.489953 3.822266-1.38086zm-7.381836 1c0.593319 1.673075 1.897044 2.997538 3.560547 3.617187l2.088867-3.617187z" style="opacity:.2"/>
 <path d="m 16,9 c -1.395928,0.00165 -2.747601,0.489953 -3.822266,1.38086 L 14.267578,14 17.09375,9.104492 C 16.73313,9.036283 16.367012,9.0013055 16,9 Z M 18.088867,9.3828125 16,13 h 5.649414 C 21.056094,11.326925 19.75237,10.002461 18.088867,9.3828125 Z M 11.440429,11.103516 C 10.511626,12.189386 10.000847,13.571088 10,15 c 3.44e-4,0.335121 0.02876,0.669624 0.08496,1 h 4.182617 z M 17.732422,14 20.55957,18.896485 C 21.488374,17.810614 21.999153,16.428912 22,15 21.999656,14.664879 21.97124,14.330376 21.91504,14 Z m 0,2 -2.826172,4.895508 C 15.26687,20.963718 15.632988,20.998694 16,21 c 1.395928,-0.0017 2.747601,-0.489953 3.822266,-1.38086 z m -7.381836,1 c 0.593319,1.673075 1.897044,2.997538 3.560547,3.617187 L 16,17 Z" style="fill:#4f4f4f"/>
 <style id="style1086-5" type="text/css">.st0{fill:#FFFFFF;}
	.st1{fill:#231F20;}</style>
 <circle cx="16" cy="16" r="1" style="opacity:.2"/>
 <circle cx="16" cy="15" r="1" style="fill:#8b9cbe"/>
</svg>
