<svg xmlns="http://www.w3.org/2000/svg" width="32" height="32" version="1.1">
 <rect style="opacity:0.2" width="28" height="28" x="2" y="3" rx="2.1" ry="2.1"/>
 <rect style="fill:#4d5a98" width="28" height="28" x="2" y="2" rx="2.1" ry="2.1"/>
 <path style="opacity:0.1" d="m 6.0549352,25.864166 c -0.1295093,-0.242577 -0.021029,-0.930707 0.2309015,-1.464709 0.2690617,-0.57031 0.8442215,-1.143007 1.7469615,-1.739481 1.2490761,-0.82531 4.1077288,-3.537557 6.0417898,-5.732361 0.366237,-0.415613 0.427216,-0.526768 0.390346,-0.711562 -0.03951,-0.198032 0.06887,-0.336298 1.131675,-1.443809 0.646453,-0.673643 1.162258,-1.263828 1.146231,-1.311523 -0.01602,-0.04769 -0.113418,-0.07952 -0.216425,-0.07071 -0.103005,0.0088 -0.903352,0.07332 -1.778548,0.14338 -1.58353,0.126758 -1.593439,0.128693 -2.03875,0.397988 -0.246117,0.148835 -0.508094,0.25903 -0.58217,0.244879 -0.239247,-0.0457 -0.19575,-0.322141 0.09516,-0.604788 0.267871,-0.260261 0.2747,-0.281848 0.2747,-0.868471 0,-0.557213 0.01508,-0.613467 0.204524,-0.762845 0.303916,-0.23964 0.460913,-0.202708 0.661858,0.155692 0.18993,0.338757 0.236455,0.347706 0.740014,0.142347 0.203947,-0.08318 0.281866,-0.08297 0.438667,0.0012 0.172429,0.0925 0.408582,0.02969 2.468794,-0.656748 1.252969,-0.417471 2.403689,-0.822146 2.557155,-0.899278 0.345372,-0.173585 0.60874,-0.482176 1.156991,-1.3556587 0.335796,-0.5349967 0.53265,-0.7559086 0.922228,-1.0349452 0.470936,-0.337309 0.500533,-0.3475946 0.601577,-0.2090749 0.06868,0.094158 0.106271,0.3627893 0.106271,0.759485 v 0.6137966 l 0.472726,0.4551285 c 0.525051,0.5055067 0.523237,0.4928987 0.171679,1.1939537 -0.128862,0.256972 -0.221626,0.64219 -0.290429,1.206069 l -0.101093,0.828502 0.495861,2.100895 c 0.272725,1.155491 0.584571,2.486058 0.692993,2.956813 0.108422,0.470756 0.229737,0.935591 0.269591,1.032968 l 0.07246,0.177048 0.318783,-0.163025 c 0.555037,-0.283847 0.743058,0.01071 0.284326,0.445428 -0.369447,0.350109 -1.608907,1.269054 -1.903284,1.411108 -0.226667,0.109383 -0.266368,0.109878 -0.371346,0.0046 -0.104978,-0.105233 -0.09236,-0.14959 0.117963,-0.414896 0.129528,-0.163387 0.235506,-0.321475 0.235506,-0.351309 0,-0.09171 -2.532852,-4.372834 -2.808502,-4.747032 -0.214166,-0.290736 -0.308527,-0.355884 -0.543983,-0.375575 -0.387787,-0.03243 -0.70481,0.143609 -1.985959,1.102777 -1.240999,0.929111 -1.301261,0.965694 -1.588737,0.964481 -0.263509,-0.0011 -0.517835,0.191783 -1.713673,1.299744 -2.340365,2.16838 -4.036382,4.026613 -4.593812,5.033187 -0.7889009,1.424551 -1.7171241,2.12657 -3.1184593,2.358507 -0.2812943,0.04655 -0.3357211,0.03177 -0.4125646,-0.112171 z"/>
 <path style="fill:#17191e" d="m 6.0549352,24.864166 c -0.1295093,-0.242577 -0.021029,-0.930707 0.2309015,-1.464709 0.2690617,-0.57031 0.8442215,-1.143007 1.7469615,-1.739481 1.2490761,-0.82531 4.1077288,-3.537557 6.0417898,-5.732361 0.366237,-0.415613 0.427216,-0.526768 0.390346,-0.711562 -0.03951,-0.198032 0.06887,-0.336298 1.131675,-1.443809 0.646453,-0.673643 1.162258,-1.263828 1.146231,-1.311523 -0.01602,-0.04769 -0.113418,-0.07952 -0.216425,-0.07071 -0.103005,0.0088 -0.903352,0.07332 -1.778548,0.14338 -1.58353,0.126758 -1.593439,0.128693 -2.03875,0.397988 -0.246117,0.148835 -0.508094,0.25903 -0.58217,0.244879 -0.239247,-0.0457 -0.19575,-0.322141 0.09516,-0.604788 0.267871,-0.260261 0.2747,-0.281848 0.2747,-0.868471 0,-0.557213 0.01508,-0.613467 0.204524,-0.762845 0.303916,-0.23964 0.460913,-0.202708 0.661858,0.155692 0.18993,0.338757 0.236455,0.347706 0.740014,0.142347 0.203947,-0.08318 0.281866,-0.08297 0.438667,0.0012 0.172429,0.0925 0.408582,0.02969 2.468794,-0.656748 1.252969,-0.417471 2.403689,-0.8221458 2.557155,-0.8992779 0.345372,-0.173585 0.60874,-0.4821763 1.156991,-1.3556588 0.335796,-0.5349967 0.53265,-0.7559086 0.922228,-1.0349452 0.470936,-0.337309 0.500533,-0.3475946 0.601577,-0.2090749 0.06868,0.094158 0.106271,0.3627893 0.106271,0.759485 v 0.6137966 l 0.472726,0.4551285 c 0.525051,0.5055065 0.523237,0.4928989 0.171679,1.1939537 -0.128862,0.256972 -0.221626,0.64219 -0.290429,1.206069 l -0.101093,0.828502 0.495861,2.100895 c 0.272725,1.155491 0.584571,2.486058 0.692993,2.956813 0.108422,0.470756 0.229737,0.935591 0.269591,1.032968 l 0.07246,0.177048 0.318783,-0.163025 c 0.555037,-0.283847 0.743058,0.01071 0.284326,0.445428 -0.369447,0.350109 -1.608907,1.269054 -1.903284,1.411108 -0.226667,0.109383 -0.266368,0.109878 -0.371346,0.0046 -0.104978,-0.105233 -0.09236,-0.14959 0.117963,-0.414896 0.129528,-0.163387 0.235506,-0.321475 0.235506,-0.351309 0,-0.09171 -2.532852,-4.372834 -2.808502,-4.747032 -0.214166,-0.290736 -0.308527,-0.355884 -0.543983,-0.375575 -0.387787,-0.03243 -0.70481,0.143609 -1.985959,1.102777 -1.240999,0.929111 -1.301261,0.965694 -1.588737,0.964481 -0.263509,-0.0011 -0.517835,0.191783 -1.713673,1.299744 -2.340365,2.16838 -4.036382,4.026613 -4.593812,5.033187 -0.7889009,1.424551 -1.7171241,2.12657 -3.1184593,2.358507 -0.2812943,0.04655 -0.3357211,0.03177 -0.4125646,-0.112171 z"/>
 <path style="fill:#f44336" d="m 14.462713,15.201216 c 8.14e-4,0.0049 0.0013,0.0099 0.0023,0.01489 0.03687,0.184793 -0.02415,0.295932 -0.390387,0.711545 -0.904409,1.026338 -2.010242,2.164017 -3.05988,3.170794 0.221857,0.248267 0.507107,0.565652 0.76137,0.838594 0.685406,-0.716602 1.495203,-1.510654 2.403725,-2.352412 0.901851,-0.835578 1.268013,-1.15043 1.506668,-1.254397 -0.403612,-0.39597 -0.860889,-0.807661 -1.22377,-1.129017 z"/>
 <path style="fill:#f44336" d="m 22.641294,12.2827 c -0.57739,0.454572 -1.195849,1.081879 -1.619768,1.506827 l 0.239691,0.564736 c 0.291515,0.686711 0.294027,0.755792 0.03624,1.025523 l -0.203609,0.213068 0.285021,0.510938 c 0.156776,0.281023 0.319477,0.510938 0.361582,0.510938 0.04211,0 0.16441,-0.05771 0.271831,-0.128266 0.233789,-0.153555 0.262634,-0.129094 0.562613,0.477047 l 0.230442,0.465498 -0.151758,0.298174 c -0.149102,0.292973 -0.149186,0.302634 -0.0053,0.546044 0.127814,0.216234 0.182609,0.244953 0.430715,0.225075 0.258041,-0.02067 0.296531,0.0027 0.415554,0.252885 0.14677,0.308528 0.268384,0.34266 0.476652,0.133889 0.10296,-0.10321 0.187529,-0.151425 0.117191,-0.599692 l -0.02213,-0.0541 c -0.03985,-0.09738 -0.161136,-0.562214 -0.269558,-1.032969 -0.108421,-0.470756 -0.420269,-1.801322 -0.692993,-2.956814 z"/>
 <path style="fill:#f44336" d="m 18.866891,9.9459415 c -0.482222,0.1714775 -1.140187,0.3980305 -1.856275,0.6366205 -1.577716,0.525672 -2.084674,0.684964 -2.313519,0.689508 l -0.734837,0.238144 -1.084747,0.711696 0.543358,-0.06064 -0.152062,0.218389 0.729078,-0.03511 0.320497,-0.337384 c 0.28749,-0.05726 0.461736,-0.07748 0.729077,-0.09939 0.09684,-0.0079 -0.298459,0.376809 -0.20285,0.372489 0.268066,-0.01211 0.5531,-0.02808 0.847481,-0.04544 0.156376,-0.0092 0.541397,-0.512073 0.696331,-0.555162 0.24581,-0.06836 0.499192,-0.06462 0.756062,-0.02386 0.580262,-0.169181 1.651029,-1.613017 1.722406,-1.7098637 z"/>
 <path style="fill:#8b9cbe;opacity:0.1" d="M 4.0996094 2 C 2.9362094 2 2 2.9362094 2 4.0996094 L 2 5.0996094 C 2 3.9362094 2.9362094 3 4.0996094 3 L 27.900391 3 C 29.063791 3 30 3.9362094 30 5.0996094 L 30 4.0996094 C 30 2.9362094 29.063791 2 27.900391 2 L 4.0996094 2 z"/>
</svg>
