<svg xmlns="http://www.w3.org/2000/svg" width="32" height="32" version="1">
 <rect style="fill:#aedeec" width="28" height="28" x="2" y="2" rx="1.5" ry="1.5"/>
 <path style="opacity:0.2" d="m 6.0003,10.00003 0,1.4 L 6.0059,12 8.9999,17 6,22 l 0,2 11,0 0,-3 -2,0 0,1 -7,0 3,-5 -3,-5 6,0 0,1 2,0 0,-3 -9.9998,0 z"/>
 <path style="fill:#e37739" d="m 6.0003,9 0,1.4 0.0056,0.59997 2.994,5 -2.9999,5 0,2 11,0 0,-3 -2,0 0,1 -7,0 3,-5 -3,-5 6,0 0,1 2,0 0,-3 -9.9998,0 z"/>
 <path fill="#fff" opacity=".1" d="m3.5 2c-0.831 0-1.5 0.669-1.5 1.5v1c0-0.831 0.669-1.5 1.5-1.5h25c0.831 0 1.5 0.669 1.5 1.5v-1c0-0.831-0.669-1.5-1.5-1.5h-25z"/>
 <path opacity=".2" d="m2 28.5v1c0 0.831 0.669 1.5 1.5 1.5h25c0.831 0 1.5-0.669 1.5-1.5v-1c0 0.831-0.669 1.5-1.5 1.5h-25c-0.831 0-1.5-0.669-1.5-1.5z"/>
 <rect style="fill:#8b9cbe" width="2" height="28" x="21" y="2"/>
</svg>
