<svg xmlns="http://www.w3.org/2000/svg" width="32" height="32" version="1">
 <g>
  <rect style="fill:#5895dc" width="24" height="17" x="4" y="1" rx="1.275" ry="1.275"/>
  <rect style="opacity:0.1" width="24" height="17" x="4" y="3" rx="1.275" ry="1.275"/>
  <rect style="fill:#89e058" width="24" height="17" x="4" y="4" rx="1.275" ry="1.275"/>
  <rect style="opacity:0.1" width="24" height="17" x="4" y="6" rx="1.275" ry="1.275"/>
  <rect style="fill:#ffcd54" width="24" height="17" x="4" y="7" rx="1.275" ry="1.275"/>
  <rect opacity=".2" width="28" height="20" x="2" y="11" rx="1.5" ry="1.5"/>
  <rect fill="#8e8e8e" width="28" height="20" x="2" y="10" rx="1.5" ry="1.5"/>
  <rect opacity=".2" width="10" height="3" x="11" y="19" rx="1" ry="1"/>
  <rect fill="#ececec" width="10" height="3" x="11" y="18" rx="1" ry="1"/>
  <path style="fill:#8b9cbe;opacity:0.1" d="M 5.2754 1 C 4.569 1 4 1.569 4 2.2754 L 4 3.2754 C 4 2.569 4.569 2 5.2754 2 L 26.725 2 C 27.431 2 28 2.569 28 3.2754 L 28 2.2754 C 28 1.569 27.431 1 26.725 1 L 5.2754 1 z"/>
  <path style="fill:#8b9cbe;opacity:0.1" d="M 5.2754,3.9996 C 4.569,3.9996 4,4.5686 4,5.275 V 6.275 C 4,5.5686 4.569,4.9996 5.2754,4.9996 H 26.725 C 27.431,4.9996 28,5.5686 28,6.275 V 5.275 C 28,4.5686 27.431,3.9996 26.725,3.9996 Z"/>
  <path style="fill:#8b9cbe;opacity:0.1" d="M 5.2754,6.9996 C 4.569,6.9996 4,7.5686 4,8.275 V 9.275 C 4,8.5686 4.569,7.9996 5.2754,7.9996 H 26.725 C 27.431,7.9996 28,8.5686 28,9.275 V 8.275 C 28,7.5686 27.431,6.9996 26.725,6.9996 Z"/>
 </g>
 <g>
  <circle style="opacity:0.2" cx="24" cy="24" r="8"/>
  <circle style="fill:#6ec149" cx="24" cy="23" r="8"/>
  <path style="fill:#8b9cbe" d="m 23,19 -0.0882,1.0536 a 3.1429,3.1429 0 0 0 -0.91852,0.53126 l -0.95759,-0.4509 -1,1.7321 0.86941,0.6038 a 3.1429,3.1429 0 0 0 -0.048,0.53013 3.1429,3.1429 0 0 0 0.0457,0.53237 l -0.86719,0.60156 1,1.7321 0.95536,-0.44978 a 3.1429,3.1429 0 0 0 0.92075,0.5279 l 0.0882,1.0558 2,0 0.0882,-1.0536 a 3.1429,3.1429 0 0 0 0.91854,-0.53126 l 0.95758,0.4509 1,-1.7321 -0.86942,-0.6038 a 3.1429,3.1429 0 0 0 0.048,-0.53013 3.1429,3.1429 0 0 0 -0.0457,-0.53237 l 0.86719,-0.60156 -1,-1.7321 -0.95536,0.44978 a 3.1429,3.1429 0 0 0 -0.921,-0.528 l -0.088,-1.056 -2,0 z m 1,2.8572 a 1.1429,1.1429 0 0 1 1.143,1.143 A 1.1429,1.1429 0 0 1 24,24.1432 1.1429,1.1429 0 0 1 22.857,23.0002 1.1429,1.1429 0 0 1 24,21.8572 Z"/>
 </g>
</svg>
