<svg xmlns="http://www.w3.org/2000/svg" width="32" height="32" version="1.1">
 <path style="opacity:0.2" d="M 24.552039,7.1689312 C 23.300375,9.5824111 21.912813,11.76663 20.558025,13.962673 L 15.999866,21 29.158483,20.997572 C 30.071299,20.86989 30.576945,20.048997 30.719893,19.13553 31.725785,12.752091 29.877501,9.5395926 27.485698,6.9177996 26.372333,5.7058773 25.392316,5.600845 24.552324,7.1691034 Z"/>
 <path style="opacity:0.2" d="M 15.85065,3.0005424 C 11.384249,2.9578469 6.8436484,5.4413459 4.5843265,8.3776727 2.7294716,10.789284 1.3097482,13.222017 1.0000001,16.146575 h 0.00175 C 1.0790931,17.808301 1.9357646,18.916344 3.8753441,19 H 17.499995 l 0.840076,-6.126955 c 0.313721,-2.293331 0.742916,-4.6015985 0.645987,-6.9322685 -0.07799,-1.864793 -1.740678,-2.9000431 -3.13534,-2.9398721 z"/>
 <path style="opacity:0.2" d="M 15.581972,13.025539 C 12.889651,12.88 9.815531,13.332789 7.7877697,14.99742 c -2.0261908,1.663506 -3.3882319,3.836778 -3.7257086,6.359081 -0.4389595,4.23401 1.4819111,6.747365 4.7713039,8.597041 7.297846,2.801652 14.478002,-0.382511 18.446558,-5.284436 1.363049,-1.720751 0.517463,-3.697896 -0.296164,-4.841972 -2.453045,-3.449359 -5.599077,-6.487839 -11.402047,-6.801516 z"/>
 <path style="fill:#1f798c" d="M 15.85065,2.0005425 C 11.384249,1.957847 6.8436484,4.441346 4.5843265,7.3776728 2.7294716,9.7892837 1.3097482,12.222017 1.0000001,15.146575 h 0.00175 C 1.0790931,16.808301 1.9357646,17.916344 3.8753441,18 H 17.499995 l 0.840076,-6.126955 C 18.653792,9.5797143 19.082987,7.2714466 18.986058,4.9407766 18.908072,3.0759836 17.24538,2.0407335 15.850718,2.0009045 Z"/>
 <path style="fill:#1f798c" d="M 24.552039,6.1689313 C 23.300375,8.5824112 21.912813,10.76663 20.558025,12.962673 L 15.999866,20 29.158483,19.997572 C 30.071299,19.86989 30.576945,19.048997 30.719893,18.13553 31.725785,11.752091 29.877501,8.5395927 27.485698,5.9177997 26.372333,4.7058774 25.392316,4.6008451 24.552324,6.1691035 Z"/>
 <path style="fill:#8b9cbe;opacity:0.1" d="M 25.916016 5 C 25.427177 5.0182714 24.97249 5.3869034 24.552734 6.1699219 C 23.301279 8.5827907 21.913093 10.767315 20.558594 12.962891 L 16 20 L 16.648438 20 L 20.558594 13.962891 C 21.913093 11.767315 23.301279 9.5827907 24.552734 7.1699219 C 25.392534 5.6033478 26.373345 5.7064619 27.486328 6.9179688 C 29.346249 8.9567354 30.870269 11.359713 30.986328 15.326172 C 31.117603 10.752016 29.497563 8.1225989 27.486328 5.9179688 C 26.929646 5.3120076 26.405189 4.9817161 25.916016 5 z"/>
 <path style="fill:#13b7c9" d="M 15.581972,12.025539 C 12.889651,11.88 9.815531,12.332789 7.7877697,13.99742 c -2.0261908,1.663506 -3.3882319,3.836778 -3.7257086,6.359081 -0.4389595,4.23401 1.4819111,6.747365 4.7713039,8.597041 7.297846,2.801652 14.478002,-0.382511 18.446558,-5.284436 1.363049,-1.720751 0.517463,-3.697896 -0.296164,-4.841972 -2.453045,-3.449359 -5.599077,-6.487839 -11.402047,-6.801516 z"/>
 <path style="fill:#8b9cbe;opacity:0.1" d="M 15.851562 2 C 11.385162 1.9573045 6.8433063 4.4406263 4.5839844 7.3769531 C 2.7291295 9.788564 1.3097481 12.221926 1 15.146484 L 1.0019531 15.146484 C 1.0112731 15.346726 1.0339222 15.537365 1.0664062 15.720703 C 1.4637895 12.986306 2.8210488 10.669054 4.5839844 8.3769531 C 6.8433063 5.4406263 11.385162 2.9573045 15.851562 3 C 17.231296 3.0394027 18.868007 4.0575222 18.978516 5.8847656 C 18.983062 5.5704189 18.999435 5.2565537 18.986328 4.9414062 C 18.908342 3.0766132 17.246225 2.039829 15.851562 2 z"/>
 <path style="fill:#8b9cbe;opacity:0.2" d="M 14.556641 12 C 12.136867 12.011926 9.5614005 12.541495 7.7871094 13.998047 C 5.7609186 15.661553 4.3999767 17.835119 4.0625 20.357422 C 4.0019612 20.941352 3.9889946 21.488517 4.015625 22.009766 C 4.0257944 21.795963 4.0393585 21.580634 4.0625 21.357422 C 4.3999767 18.835119 5.7609186 16.661553 7.7871094 14.998047 C 9.8148707 13.333416 12.88971 12.879852 15.582031 13.025391 C 21.385001 13.339068 24.53133 16.376813 26.984375 19.826172 C 27.401275 20.412393 27.820871 21.218602 27.953125 22.095703 C 28.127284 20.847065 27.556113 19.630117 26.984375 18.826172 C 24.53133 15.376813 21.385001 12.339068 15.582031 12.025391 C 15.245491 12.007198 14.902323 11.998296 14.556641 12 z"/>
</svg>
