<svg xmlns="http://www.w3.org/2000/svg" width="32" height="32" version="1.1">
 <rect style="opacity:0.2" width="28" height="28" x="2" y="3" rx="1.4" ry="1.4"/>
 <rect style="fill:#584a3f" width="28" height="28" x="2" y="2" rx="1.4" ry="1.4"/>
 <path style="opacity:0.2" d="m 5.415,21.180338 v -0.705883 h 0.2290579 c 0.3993815,0 0.7400307,-0.06723 1.0219482,-0.201681 0.2819165,-0.145658 0.4228742,-0.481792 0.4228742,-1.008403 v -8.235294 c 0,-0.492996 -0.1468315,-0.806722 -0.4404944,-0.941176 C 6.366469,9.9534473 6.0316926,9.8862206 5.6440579,9.8862206 H 5.415 V 9.180338 h 3.2244232 l 6.3078878,8.960726 v -7.111987 c 0,-0.492996 -0.14683,-0.806722 -0.440492,-0.941176 C 14.2249,9.9534473 13.890125,9.8862206 13.502489,9.8862206 H 13.273432 V 9.180338 H 17.696 v 0.7058826 h -0.229056 c -0.399382,0 -0.740032,0.07283 -1.021952,0.2184874 -0.281915,0.134454 -0.422872,0.464986 -0.422872,0.991597 V 21.180338 H 14.771115 L 8.1636902,11.833064 v 7.431307 c 0,0.526612 0.1409579,0.862746 0.4228736,1.008404 0.2819169,0.134454 0.6225669,0.201681 1.0219492,0.201681 h 0.2290568 v 0.705882 z"/>
 <path style="fill:#ff4040" d="m 5.415,20.180338 v -0.705883 h 0.2290579 c 0.3993815,0 0.7400307,-0.06723 1.0219482,-0.201681 0.2819165,-0.145658 0.4228742,-0.481792 0.4228742,-1.008403 v -8.235294 c 0,-0.4929964 -0.1468315,-0.8067217 -0.4404944,-0.9411757 C 6.366469,8.9534473 6.0316926,8.8862206 5.6440579,8.8862206 H 5.415 V 8.180338 h 3.2244232 l 6.3078878,8.960726 v -7.111987 c 0,-0.4929964 -0.14683,-0.8067217 -0.440492,-0.9411757 C 14.2249,8.9534473 13.890125,8.8862206 13.502489,8.8862206 H 13.273432 V 8.180338 H 17.696 v 0.7058826 h -0.229056 c -0.399382,0 -0.740032,0.07283 -1.021952,0.2184874 -0.281915,0.134454 -0.422872,0.464986 -0.422872,0.991597 V 20.180338 H 14.771115 L 8.1636902,10.833064 v 7.431307 c 0,0.526612 0.1409579,0.862746 0.4228736,1.008404 0.2819169,0.134454 0.6225669,0.201681 1.0219492,0.201681 h 0.2290568 v 0.705882 z"/>
 <path style="opacity:0.2" d="m 13.568,27.999996 v -0.705883 h 0.223303 c 0.389349,0 0.521761,-0.06723 0.796595,-0.201681 0.274835,-0.145657 0.412252,-0.481792 0.412252,-1.008403 v -8.235293 c 0,-0.492996 -0.143142,-0.806722 -0.429428,-0.941176 -0.274835,-0.134455 -0.40152,-0.201681 -0.779418,-0.201681 h -0.223303 v -0.705883 h 4.403801 c 1.488688,0 2.593753,0.246499 3.315195,0.739496 0.732893,0.481792 1.099339,1.238095 1.099339,2.268908 0,0.7507 -0.206127,1.333333 -0.618379,1.747899 -0.4008,0.403361 -0.904663,0.70028 -1.511592,0.890757 v 0.06723 c 0.778698,0.134454 1.414255,0.453781 1.906667,0.957983 0.492412,0.504202 0.738619,1.198879 0.738619,2.084033 C 22.901651,26.918768 21.43014,28 18.487117,28 Z m 3.363651,-6.705882 h 0.98862 c 1.007726,0 1.694814,-0.179272 2.061259,-0.537815 0.377898,-0.358543 0.566848,-0.941177 0.566848,-1.747899 0,-0.817928 -0.200401,-1.383754 -0.601201,-1.697479 -0.400801,-0.313726 -1.087888,-0.470589 -2.061262,-0.470589 h -0.954264 z m 0,5.865545 h 1.46958 c 0.973372,0 1.660459,-0.184873 2.061259,-0.554621 0.400803,-0.369748 0.601203,-1.002801 0.601203,-1.89916 0,-0.873949 -0.188949,-1.518207 -0.566846,-1.932773 -0.366448,-0.42577 -1.053534,-0.638655 -2.061263,-0.638655 h -1.503933 z"/>
 <path style="fill:#13c759" d="m 13.568,26.999996 v -0.705883 h 0.223303 c 0.389349,0 0.521761,-0.06723 0.796595,-0.201681 0.274835,-0.145657 0.412252,-0.481792 0.412252,-1.008403 v -8.235293 c 0,-0.492996 -0.143142,-0.806722 -0.429428,-0.941176 -0.274835,-0.134455 -0.40152,-0.201681 -0.779418,-0.201681 h -0.223303 v -0.705883 h 4.403801 c 1.488688,0 2.593753,0.246499 3.315195,0.739496 0.732893,0.481792 1.099339,1.238095 1.099339,2.268908 0,0.7507 -0.206127,1.333333 -0.618379,1.747899 -0.4008,0.403361 -0.904663,0.70028 -1.511592,0.890757 v 0.06723 c 0.778698,0.134454 1.414255,0.453781 1.906667,0.957983 0.492412,0.504202 0.738619,1.198879 0.738619,2.084033 C 22.901651,25.918768 21.43014,27 18.487117,27 Z m 3.363651,-6.705882 h 0.98862 c 1.007726,0 1.694814,-0.179272 2.061259,-0.537815 0.377898,-0.358543 0.566848,-0.941177 0.566848,-1.747899 0,-0.817928 -0.200401,-1.383754 -0.601201,-1.697479 -0.400801,-0.313726 -1.087888,-0.470589 -2.061262,-0.470589 h -0.954264 z m 0,5.865545 h 1.46958 c 0.973372,0 1.660459,-0.184873 2.061259,-0.554621 0.400803,-0.369748 0.601203,-1.002801 0.601203,-1.89916 0,-0.873949 -0.188949,-1.518207 -0.566846,-1.932773 -0.366448,-0.42577 -1.053534,-0.638655 -2.061263,-0.638655 h -1.503933 z"/>
 <path style="opacity:0.2" d="m 18.2689,17.999999 v -0.705883 h 0.401397 c 0.383944,0 0.715531,-0.06163 0.994764,-0.184873 0.290866,-0.134454 0.329729,-0.448209 0.335079,-0.941177 V 6.8403359 h -1.574173 c -0.511923,0 -0.866781,0.140056 -1.06457,0.420168 -0.19779,0.2689083 -0.319955,0.5882363 -0.366493,0.9579836 l -0.08726,0.7226893 H 16.00014 L 16.087397,6 h 9.825479 l 0.08726,2.9411768 h -0.9075 L 25.005373,8.2184875 C 24.958836,7.8487402 24.836672,7.5294122 24.638882,7.2605039 24.441093,6.9803919 24.080418,6.8403359 23.556857,6.8403359 h -1.556718 v 9.2436981 c 0,0.52661 0.0034,0.862745 0.282721,1.008402 0.279234,0.134455 0.616638,0.201681 1.012218,0.201681 h 0.401396 V 18 Z"/>
 <path style="fill:#2a76ea" d="m 18.2689,16.999999 v -0.705883 h 0.401397 c 0.383944,0 0.715531,-0.06163 0.994764,-0.184873 0.290866,-0.134454 0.329729,-0.448209 0.335079,-0.941177 V 5.8403359 h -1.574173 c -0.511923,0 -0.866781,0.140056 -1.06457,0.420168 -0.19779,0.2689083 -0.319955,0.5882363 -0.366493,0.9579836 l -0.08726,0.7226893 H 16.00014 L 16.087397,5 h 9.825479 l 0.08726,2.9411768 h -0.9075 L 25.005373,7.2184875 C 24.958836,6.8487402 24.836672,6.5294122 24.638882,6.2605039 24.441093,5.9803919 24.080418,5.8403359 23.556857,5.8403359 h -1.556718 v 9.2436981 c 0,0.52661 0.0034,0.862745 0.282721,1.008402 0.279234,0.134455 0.616638,0.201681 1.012218,0.201681 h 0.401396 V 17 Z"/>
 <path style="fill:#8b9cbe;opacity:0.1" d="M 3.4003906 2 C 2.6247906 2 2 2.6247906 2 3.4003906 L 2 4.4003906 C 2 3.6247906 2.6247906 3 3.4003906 3 L 28.599609 3 C 29.375209 3 30 3.6247906 30 4.4003906 L 30 3.4003906 C 30 2.6247906 29.375209 2 28.599609 2 L 3.4003906 2 z"/>
</svg>
