<svg xmlns="http://www.w3.org/2000/svg" width="32" height="32" version="1">
 <circle style="opacity:0.2" cx="16" cy="17" r="14"/>
 <circle style="fill:#7a7a7a" cx="16" cy="16" r="14"/>
 <path style="fill:#ff6c40" d="m 14.446218,8.5693362 -0.261133,0.5386717 c -0.37319,0.77091 -0.333336,1.3388171 0.166797,2.4212891 0.336953,0.729288 0.330457,1.29786 0.325118,1.838671 -0.159671,1.271854 -0.858892,2.499957 -1.887096,2.6509 -0.904962,0.13285 -1.995981,-0.992442 -2.394978,-1.756323 -0.3976946,-0.761388 -0.5366088,-0.118585 -0.213282,0.98711 0.103711,0.354663 0.431865,1.34687 0.728712,2.032494 0.906291,2.093254 0.434064,3.23817 -0.68809,3.574375 -0.6154423,0.184391 -1.2656695,0.0055 -1.8511726,-0.508594 -0.2296518,-0.201638 -0.456344,-0.328114 -0.503125,-0.281641 -0.046809,0.04647 -0.1109059,0.623445 -0.1435546,1.282422 -0.2747171,2.164887 1.4347739,2.991568 3.1119202,3.926768 0.888255,0.488842 1.855406,0.855688 2.883198,1.083701 0.601715,0.133492 1.306126,0.173656 2.552538,0.144921 1.547553,-0.03568 1.835305,-0.07793 2.849219,-0.411523 1.899017,-0.624799 3.524568,-1.716877 4.769274,-3.103934 0.529768,-0.621809 0.68569,-1.070732 0.853969,-1.723605 0.163898,-0.943188 0.227863,-2.076758 0.117577,-2.076757 -0.0609,0 -0.372952,0.266871 -0.694531,0.593359 C 23.750389,20.2052 23.4902,20.375 23.259766,20.375 c -0.45234,0 -0.865382,-0.319988 -0.548582,-1.019922 0.42499,-0.938966 0.371483,-1.804234 -0.181836,-2.917578 -0.248735,-0.500485 -0.555292,-1.003356 -0.680859,-1.116992 -0.222995,-0.201807 -0.227674,-0.189022 -0.228321,0.55371 -0.0013,1.459274 -0.380965,2.339121 -1.451953,2.803487 -0.877563,0.380504 -2.219421,0.407507 -2.827004,0.05059 -0.919675,-0.540258 -0.920818,-1.311371 -0.0014,-3.547237 0.22143,-0.538457 0.376479,-0.930906 0.483969,-1.241983 0.349798,-0.958117 0.235136,-1.907242 -0.284359,-2.40704 C 17.230583,11.236048 16.740304,10.934202 16.30625,10.771876 15.400148,10.433016 14.816054,10.0424 14.608914,9.218751 Z"/>
 <circle style="opacity:0.2;fill:none;stroke:#000000;stroke-width:3;stroke-linecap:round;stroke-linejoin:round" cx="16" cy="17" r="9.5"/>
 <circle style="fill:none;stroke:#8b9cbe;stroke-width:3;stroke-linecap:round;stroke-linejoin:round" cx="16" cy="16" r="9.5"/>
 <path style="fill:#8b9cbe;opacity:0.2" d="M 16 2 A 14 14 0 0 0 2 16 A 14 14 0 0 0 2.0214844 16.585938 A 14 14 0 0 1 16 3 A 14 14 0 0 1 29.978516 16.414062 A 14 14 0 0 0 30 16 A 14 14 0 0 0 16 2 z"/>
</svg>
