<svg xmlns="http://www.w3.org/2000/svg" width="32" height="32" version="1.1">
 <rect style="opacity:0.2" width="22" height="28" x="5" y="3" rx="1.5" ry="1.5"/>
 <rect style="fill:#3d65c2" width="22" height="28" x="5" y="2" rx="1.5" ry="1.5"/>
 <path style="opacity:0.2" d="M 6.5 2 C 5.669 2 5 2.669 5 3.5 L 5 28.5 C 5 29.331 5.669 30 6.5 30 L 9 30 L 9 2 L 6.5 2 z"/>
 <path style="opacity:0.2" d="M 16,7 V 12 H 11 V 16 H 16 V 27 H 20 V 16 H 25 V 12 H 20 V 7 Z"/>
 <path style="fill:#ffd972" d="M 16 6 L 16 11 L 11 11 L 11 15 L 16 15 L 16 26 L 20 26 L 20 15 L 25 15 L 25 11 L 20 11 L 20 6 L 16 6 z"/>
 <path style="opacity:0.1;fill:#8b9cbe" d="M 6.5 2 C 5.669 2 5 2.669 5 3.5 L 5 4.5 C 5 3.669 5.669 3 6.5 3 L 25.5 3 C 26.331 3 27 3.669 27 4.5 L 27 3.5 C 27 2.669 26.331 2 25.5 2 L 6.5 2 z"/>
</svg>
