<svg xmlns="http://www.w3.org/2000/svg" width="32" height="32" version="1.1">
 <path style="opacity:0.2" d="M 19.408203 3 C 16.907842 3 14.516758 4.2871402 11.835938 5.7558594 A 12 12 0 0 1 16 5 A 12 12 0 0 1 26.931641 12.087891 L 29.923828 10.425781 C 29.900338 10.372241 29.877586 10.478991 29.853516 10.425781 C 26.763659 6.073331 23.192123 3 19.408203 3 z M 4.9296875 21.601562 L 2.0332031 23.166016 C 5.020273 27.744285 8.4480104 31 12.318359 31 C 14.791723 31 17.386147 29.759254 20.216797 28.226562 A 12 12 0 0 1 16 29 A 12 12 0 0 1 4.9296875 21.601562 z"/>
 <path style="fill:#17191e" d="M 10.316997,5.5813328 15.152792,15.076506 2.0337678,22.16637 C 5.0208377,26.744639 8.447579,30 12.317928,30 c 2.987767,0 6.130749,-1.786366 9.683738,-3.74498 L 16.687329,16.776503 29.922906,9.4254488 c -0.02349,-0.053536 -0.04584,0.053214 -0.06991,0 C 26.763139,5.0729988 23.192901,2 19.408981,2 16.441329,2 13.653641,3.7975522 10.316997,5.5813328 Z"/>
 <path style="fill:#8b9cbe;opacity:0.1" d="M 19.408203 2 C 16.440551 2 13.65305 3.7982506 10.316406 5.5820312 L 10.714844 6.3652344 C 13.871425 4.6569865 16.563101 3 19.408203 3 C 22.987854 3 26.372364 5.7661824 29.34375 9.7480469 L 29.923828 9.4257812 C 29.900338 9.3722453 29.877586 9.4789953 29.853516 9.4257812 C 26.763659 5.0733312 23.192123 2 19.408203 2 z M 14.751953 15.292969 L 2.0332031 22.166016 C 2.1977274 22.418181 2.3679637 22.650715 2.5351562 22.894531 L 15.152344 16.076172 L 14.751953 15.292969 z M 17.115234 17.539062 L 16.6875 17.777344 L 21.572266 26.490234 C 21.718219 26.409717 21.854608 26.337084 22.001953 26.255859 L 17.115234 17.539062 z"/>
 <circle style="opacity:0.2" cx="16" cy="17" r="12"/>
 <circle style="fill:#00e6ff" cx="16" cy="16" r="12"/>
 <path style="fill:#00a6e2" d="m 16,3.9999998 a 11.999999,11.999999 0 0 0 -4.576172,0.9184571 c -0.0013,0.2685049 0.159563,0.5277721 0.493654,0.5053711 1.216917,-0.080923 1.236476,-0.3436708 1.662597,0.2241213 0.425528,0.5678187 0.222834,1.7423356 -0.547852,1.4179686 C 12.261532,6.7409494 10.983652,6.194475 10.659179,6.8432614 10.334707,7.4925871 10.80231,7.6547692 11.431153,7.2695303 12.060005,6.8842732 12.566238,7.067127 12.687989,7.6958 c 0.121149,0.6286807 0.08184,1.8449295 -0.60791,1.6215827 -0.689724,-0.2233201 -0.913747,0.1213475 -0.508302,0.4658202 0.405437,0.3444541 -0.04061,0.5477091 -0.669434,0.2841791 -0.628833,-0.2635123 -0.60878,0.547567 -1.4604481,0.506835 -0.852252,-0.04073 -0.9126762,0.891903 -1.1762697,1.236329 -0.2635927,0.344498 -0.3053675,1.460591 -0.366211,1.724122 -0.060847,0.263531 -0.3239775,0.466601 -0.4658203,-0.364747 -0.1418343,-0.831349 0.041569,-1.197466 -0.7089847,-1.258301 -0.7506031,-0.06083 -1.5015626,1.515625 -1.1162107,1.853027 0.3853432,0.337376 0.9123236,-0.311095 0.00fae922,0.175782 -0.0402,0.486877 -0.3029951,2.696212 0.487793,2.797851 0.790788,0.101621 1.3183482,0.02069 1.967285,0.446778 0.6489445,0.426015 1.8654403,0.465175 2.7377933,1.844237 0.872344,1.379064 1.887423,1.540326 2.86084,1.763674 0.974004,0.22339 0.87184,0.771763 0.364746,1.501464 -0.507104,0.729711 -0.222351,1.480032 -1.926269,2.047851 -1.703937,0.567227 -1.825991,1.987934 -1.765138,2.251466 0.0065,0.02803 -0.03529,0.212881 -0.06299,0.370604 A 11.999999,11.999999 0 0 0 16.000001,28 11.999999,11.999999 0 0 0 24.501955,24.456543 c -0.273911,-0.874104 -0.567518,-2.076268 -0.577149,-2.586915 -0.02073,-1.074181 0.284268,-1.155123 -0.101073,-1.864746 -0.385353,-0.710224 -1.177369,-0.02156 -2.71875,-0.22412 -1.541383,-0.203243 -1.297991,-1.175394 -2.373048,-2.513674 -1.075075,-1.338286 0.995016,-2.433905 1.562988,-3.812987 0.480602,-1.16693 2.315215,-0.968969 3.203614,-0.818848 l 1.6333,-0.845214 c 0.07996,-0.0654 0.155126,-0.129757 0.253419,-0.202149 1.156621,-0.85203 -0.5664,-0.870919 -1.032715,-1.195312 -0.466908,-0.324368 -0.406908,-0.04076 -0.751465,0.385253 -0.344556,0.425987 -0.872552,-0.324933 -1.338868,-0.56836 -0.466908,-0.2428321 -0.566874,0.567031 -1.114745,1.500001 -0.547297,0.932943 -0.872374,0.506955 -1.359377,0 -0.486998,-0.506982 -0.183362,-0.953085 0.323732,-1.155762 0.507084,-0.202668 0.548355,-0.283132 0.183104,-0.6884765 C 19.929672,9.459925 19.767084,9.6212678 20.132325,9.296874 20.497585,8.9725076 20.721419,9.0132158 21.512207,8.5263659 22.303587,8.0395146 21.390486,7.5941325 20.863282,7.9492181 20.336104,8.304349 19.666257,7.228436 19.524414,6.3232414 19.382571,5.4180923 19.807922,5.707161 20.294922,5.3828123 c 0.06825,-0.045622 0.0333,-0.3191566 -0.03663,-0.5859374 A 11.999999,11.999999 0 0 0 16,3.9999998 Z m -0.631348,0.6987305 c 0.73773,0.027991 1.582892,0.2967287 1.334473,1.0883785 -0.324472,1.03399 -0.355967,0.7290912 -0.729492,0.9536133 -0.404252,0.2428327 -0.609057,0.4052118 -0.953614,0.8920899 -0.344573,0.4868683 -1.135191,0.3849805 -0.700194,-0.1420899 0.43557,-0.5276259 0.274332,-1.9467836 0.03077,-2.3320308 0,0 -0.324147,-0.3045615 0.405762,-0.4262696 0.09131,-0.015161 0.194721,-0.025021 0.306151,-0.030761 0.09749,-0.00538 0.200762,-0.00652 0.306154,-0.00293 z M 5.3154298,10.588866 C 5.1729382,10.865841 5.0390173,11.156875 4.9038088,11.4458 a 11.999999,11.999999 0 0 0 -0.9038087,4.554199 11.999999,11.999999 0 0 0 0.5229492,3.464356 l 2.0126952,-0.918457 c 0.035993,-0.357023 0.234312,-0.454051 0.3105473,-0.530274 0.142435,-0.141805 -0.9528017,-0.729679 -0.9125978,-2.148925 0.0402,-1.419237 -1.156513,-1.094951 -0.9331056,-2.595704 0.1914872,-1.286926 0.4390514,-2.183436 0.3149414,-2.682129 z m 1.573242,9.391114 -1.7973631,0.960938 -0.083496,-0.164064 a 11.999999,11.999999 0 0 0 4.8076168,5.490235 l 0.052729,-0.221191 c 0,0 -1.0951207,-1.45979 -1.1967776,-2.453614 -0.1016584,-0.993231 -0.8329102,-1.541448 -1.6845707,-3.386718 -0.036798,-0.07976 -0.06648,-0.151813 -0.098145,-0.225586 z"/>
 <path style="opacity:0.1;fill-rule:evenodd" d="m 26.818359,7.2229062 c 0.707819,0.9979494 0.201926,2.2079079 0.613282,3.2714848 0.683592,0.56436 0.388835,0.737764 -0.257813,1.017578 -5.591943,3.009183 -11.158713,6.070012 -16.77539,9.03125 -1.0235009,0.440906 -0.20167,1.165099 0.496093,0.611328 l 18.22461,-8.183594 C 28.474839,12.20818 29.842002,11.813431 30,11.195562 30.019761,9.9982149 28.89946,9.2454656 28.220703,8.3986875 27.78677,7.9675666 27.310527,7.5836331 26.818359,7.2229062 Z m -4.707031,5.1464848 c -1.029533,0.184428 -1.940195,0.780083 -2.912109,1.162109 L 3.1289062,20.746344 C 3.9612055,22.006205 0.42816405,22.378653 2.8808594,23.927984 3.5389243,24.93476 4.4611144,25.759248 5.4238281,26.469 4.7234359,25.478708 5.2096906,24.282231 4.8203125,23.222906 4.1512092,22.650746 4.4543522,22.472292 5.0957031,22.195562 10.680213,19.19008 16.239439,16.135514 21.847656,13.176031 c 0.26099,-0.108942 0.896098,-0.722169 0.263672,-0.80664 z"/>
 <path style="opacity:0.1" d="M 16 4 A 11.999999 11.999999 0 0 0 11.423828 4.9179688 C 11.422528 5.1864736 11.583878 5.4462291 11.917969 5.4238281 C 12.746116 5.3687577 13.013672 5.2462172 13.238281 5.3417969 A 11.999999 11.999999 0 0 1 14.332031 5.1347656 C 14.281123 5.0767635 14.113252 4.839573 14.755859 4.7324219 C 14.847169 4.7172609 14.95107 4.7069119 15.0625 4.7011719 C 15.15999 4.6957919 15.263749 4.6956288 15.369141 4.6992188 C 15.776563 4.7146772 16.209811 4.8077387 16.480469 5.0175781 A 11.999999 11.999999 0 0 1 19.716797 5.6191406 C 19.865561 5.5533159 20.070513 5.5322717 20.294922 5.3828125 C 20.363172 5.3371905 20.327742 5.0636558 20.257812 4.796875 A 11.999999 11.999999 0 0 0 16 4 z M 14.533203 5.8027344 C 14.155207 5.9434921 14.351562 6.1582031 14.351562 6.1582031 C 14.440025 6.2981267 14.504783 6.5897045 14.546875 6.9101562 C 14.60985 6.55454 14.589409 6.1523311 14.533203 5.8027344 z M 16.587891 6.1074219 C 16.371603 6.6934795 16.294031 6.5482333 15.974609 6.7402344 C 15.570357 6.9830671 15.364088 7.1459344 15.019531 7.6328125 C 14.891575 7.8136091 14.710293 7.8892192 14.544922 7.9160156 C 14.503737 8.1451522 14.435711 8.3504472 14.320312 8.4902344 C 13.885315 9.0173048 14.674958 9.1196808 15.019531 8.6328125 C 15.364088 8.1459344 15.570357 7.9830671 15.974609 7.7402344 C 16.348134 7.5157123 16.378653 7.8210994 16.703125 6.7871094 C 16.795291 6.4934005 16.735448 6.2715855 16.587891 6.1074219 z M 11.349609 6.5429688 C 11.03681 6.5248089 10.779881 6.6004551 10.658203 6.84375 C 10.333731 7.4930757 10.802798 7.6547702 11.431641 7.2695312 C 12.060493 6.8842742 12.565749 7.0666395 12.6875 7.6953125 C 12.700713 7.7638773 12.702178 7.8556343 12.710938 7.9355469 C 12.819222 7.9799173 12.937712 8.026142 13.033203 8.0664062 C 13.725008 8.3575735 13.954603 7.44318 13.6875 6.8417969 C 13.567457 7.0721413 13.352435 7.200765 13.033203 7.0664062 C 12.551519 6.8633009 11.870942 6.5732352 11.349609 6.5429688 z M 19.623047 6.6757812 C 19.51229 6.7665144 19.461884 6.9294725 19.523438 7.3222656 C 19.642243 8.0804455 20.1321 8.9474055 20.597656 9.0039062 C 20.809135 8.9055272 21.069605 8.7975784 21.511719 8.5253906 C 22.303099 8.0385393 21.390485 7.5941331 20.863281 7.9492188 C 20.403831 8.258725 19.855258 7.479872 19.623047 6.6757812 z M 12.693359 8.7597656 C 12.61988 9.1468036 12.444689 9.4344702 12.080078 9.3164062 C 11.390354 9.0930861 11.166821 9.4387304 11.572266 9.7832031 C 11.977703 10.127657 11.531168 10.329936 10.902344 10.066406 C 10.273511 9.8028939 10.293074 10.614951 9.4414062 10.574219 C 8.5891542 10.533489 8.5292185 11.466121 8.265625 11.810547 C 8.0020323 12.155045 7.9612341 13.271625 7.9003906 13.535156 C 7.8395436 13.798687 7.5754365 14.00127 7.4335938 13.169922 C 7.2917594 12.338573 7.4751631 11.972944 6.7246094 11.912109 C 5.9740063 11.851279 5.2240231 13.42627 5.609375 13.763672 C 5.6342085 13.785414 5.6597268 13.794473 5.6855469 13.808594 C 5.9105563 13.333736 6.3147366 12.878893 6.7246094 12.912109 C 7.4751631 12.972944 7.2917594 13.338573 7.4335938 14.169922 C 7.5754365 15.00127 7.8395436 14.798687 7.9003906 14.535156 C 7.9612341 14.271625 8.0020323 13.155045 8.265625 12.810547 C 8.5292185 12.466121 8.5891542 11.533489 9.4414062 11.574219 C 10.293074 11.614951 10.273511 10.802894 10.902344 11.066406 C 11.531168 11.329936 11.977703 11.127657 11.572266 10.783203 C 11.166821 10.43873 11.390354 10.095039 12.080078 10.318359 C 12.749659 10.535175 12.801449 9.4017382 12.693359 8.7597656 z M 20.458984 10.074219 C 20.350773 10.131544 20.247023 10.195452 20.132812 10.296875 C 19.913993 10.491223 19.919598 10.541321 20.009766 10.613281 C 20.046016 10.594945 20.072416 10.568287 20.111328 10.552734 C 20.512646 10.392338 20.6118 10.303154 20.458984 10.074219 z M 22.103516 10.166016 C 21.764099 10.171105 21.627825 10.892636 21.148438 11.708984 C 20.609716 12.62731 20.285017 12.226674 19.810547 11.730469 C 19.513114 11.965293 19.412484 12.316953 19.789062 12.708984 C 20.026531 12.956182 20.224683 13.179703 20.429688 13.240234 C 20.604558 12.980835 20.855311 12.803836 21.154297 12.695312 C 21.695004 11.768245 21.797141 10.967364 22.261719 11.208984 C 22.728035 11.452411 23.257006 12.203331 23.601562 11.777344 C 23.94612 11.351331 23.886608 11.06821 24.353516 11.392578 C 24.538816 11.521483 24.905879 11.609021 25.228516 11.712891 C 25.278377 11.671982 25.323763 11.632819 25.384766 11.587891 C 26.541387 10.735861 24.819831 10.716971 24.353516 10.392578 C 23.886608 10.06821 23.94612 10.351331 23.601562 10.777344 C 23.257006 11.203331 22.728035 10.452411 22.261719 10.208984 C 22.203355 10.17863 22.152004 10.165289 22.103516 10.166016 z M 5.3164062 10.587891 C 5.1739146 10.864866 5.0395054 11.156388 4.9042969 11.445312 A 11.999999 11.999999 0 0 0 4 16 A 11.999999 11.999999 0 0 0 4.0253906 16.458984 A 11.999999 11.999999 0 0 1 4.9042969 12.445312 C 5.0228683 12.191939 5.1423854 11.939073 5.265625 11.693359 C 5.3413087 11.222716 5.3806822 10.846161 5.3164062 10.587891 z M 5.0410156 14.029297 C 5.026405 14.120249 5.0141699 14.176253 5 14.271484 C 4.7765926 15.772237 5.9737937 15.44795 5.9335938 16.867188 C 5.910319 17.688814 6.2538841 18.207753 6.53125 18.546875 L 6.5351562 18.544922 C 6.5711493 18.187899 6.7694678 18.091848 6.8457031 18.015625 C 6.9881381 17.87382 5.8933899 17.286433 5.9335938 15.867188 C 5.9648803 14.762635 5.2556045 14.703959 5.0410156 14.029297 z M 6.4238281 14.763672 C 6.4100249 15.04519 6.403485 15.343393 6.4257812 15.636719 C 6.4439675 15.331538 6.4696686 15.070258 6.4804688 14.939453 C 6.4899007 14.826738 6.4664493 14.781007 6.4238281 14.763672 z M 18.552734 16.984375 C 18.381489 17.39815 18.372149 17.8191 18.732422 18.267578 C 19.807479 19.605858 19.564086 20.578007 21.105469 20.78125 C 22.64685 20.98381 23.438866 20.293682 23.824219 21.003906 C 23.893712 21.131882 23.920623 21.225671 23.951172 21.322266 C 24.007695 20.750451 24.127817 20.562997 23.824219 20.003906 C 23.438866 19.293682 22.64685 19.98381 21.105469 19.78125 C 19.564086 19.578007 19.807479 18.605858 18.732422 17.267578 C 18.655619 17.171971 18.599128 17.077697 18.552734 16.984375 z M 6.8886719 19.980469 L 5.0917969 20.941406 L 5.0078125 20.777344 A 11.999999 11.999999 0 0 0 5.4824219 21.732422 L 6.8886719 20.980469 C 6.9203369 21.054242 6.9495301 21.125318 6.9863281 21.205078 C 7.8379886 23.050348 8.5702166 23.598566 8.671875 24.591797 C 8.7095625 24.960239 8.8933032 25.380893 9.0976562 25.779297 A 11.999999 11.999999 0 0 0 9.8144531 26.267578 L 9.8671875 26.044922 C 9.8671875 26.044922 8.7735319 24.585621 8.671875 23.591797 C 8.5702166 22.598566 7.8379886 22.050348 6.9863281 20.205078 C 6.9495301 20.125318 6.9203369 20.054242 6.8886719 19.980469 z M 15.060547 22.011719 C 15.007669 22.105353 14.968595 22.193966 14.898438 22.294922 C 14.391334 23.024633 14.676574 23.773978 12.972656 24.341797 C 11.268719 24.909024 11.146178 26.330218 11.207031 26.59375 C 11.213531 26.62178 11.172231 26.807121 11.144531 26.964844 A 11.999999 11.999999 0 0 0 11.265625 27.011719 C 11.410693 26.47085 11.838581 25.719321 12.972656 25.341797 C 14.676574 24.773978 14.391334 24.024633 14.898438 23.294922 C 15.282233 22.742646 15.431671 22.293975 15.060547 22.011719 z M 23.960938 22.185547 C 23.938708 22.36378 23.92012 22.575791 23.925781 22.869141 C 23.932715 23.23677 24.097166 23.95224 24.285156 24.65625 A 11.999999 11.999999 0 0 0 24.501953 24.457031 C 24.271552 23.721775 24.03848 22.778233 23.960938 22.185547 z"/>
 <path style="fill:#8b9cbe;fill-rule:evenodd" d="M 8.3708534,17.538167 3.544424,19.762242 4.4323464,21.3191 9.0477849,18.872612 Z"/>
 <path style="fill:#8b9cbe;fill-rule:evenodd" d="m 23.919575,14.153688 4.82643,-2.224075 -0.887922,-1.556858 -4.615438,2.446488 z"/>
 <path style="fill:#616161;fill-rule:evenodd" d="m 26.817545,6.2217021 c 0.707819,0.9979494 0.202036,2.2081437 0.613392,3.2717202 0.683592,0.5643607 0.388784,0.7393047 -0.257864,1.0191187 -5.591943,3.009183 -11.157944,6.068936 -16.774621,9.030174 -1.0235004,0.440906 -0.202138,1.165807 0.495625,0.612036 L 29.118224,11.971542 C 28.473922,11.208769 29.841745,10.81297 29.999743,10.195102 30.019504,8.9977544 28.89866,8.2456282 28.219903,7.3988501 27.78597,6.9677292 27.309713,6.5824289 26.817545,6.2217021 Z m 1.040538,4.3038169 0.669128,1.343268 -4.262372,2.002988 c -0.699535,-0.416573 -0.698116,-1.429301 0.155128,-1.564295 z m -5.746539,0.842893 c -1.029533,0.184428 -1.941201,0.78039 -2.913115,1.162416 L 3.1298373,19.746708 C 3.9621365,21.006569 0.42872888,21.378817 2.8814242,22.928148 3.5394891,23.934924 4.4604333,24.7585 5.423147,25.468252 4.7227548,24.47796 5.2104761,23.282097 4.821098,22.222772 4.1519947,21.650612 4.4542919,21.472051 5.0956428,21.195322 10.680153,18.18984 16.239911,15.136035 21.848128,12.176552 c 0.26099,-0.108942 0.895842,-0.723669 0.263416,-0.80814 z M 7.9832235,17.847964 c 0.6980589,0.418034 0.6961941,1.4292 -0.1566033,1.564295 L 4.3885048,21.194219 3.719377,19.850952 Z"/>
</svg>
