<svg xmlns="http://www.w3.org/2000/svg" width="32" height="32" version="1">
 <rect style="opacity:0.2" width="28" height="28" x="2" y="3" rx="8.4" ry="8.4"/>
 <rect style="fill:#4f4f4f" width="28" height="28" x="2" y="2" rx="8.4" ry="8.4"/>
 <path style="opacity:0.2" d="m 12,7 c 0,0.4340848 0.420174,0.7953224 1,0.9335938 V 11 h -0.449219 v 0.0059 c -0.567365,0.0042 -1.012333,0.01414 -1.537109,0.134766 C 10.479846,11.263297 10,11.366537 10,12.033203 l 0.699219,0.332031 c 0,0 0.366053,-0.275147 0.701172,-0.332031 0.194419,-0.033 0.3996,0.0091 0.599609,0.08399 V 16.5 L 10.5,18 12,19.5 v 5.794922 L 13.5,27 15,25.294922 V 12.126953 c 0.20703,-0.07581 0.415054,-0.125075 0.599609,-0.09375 0.335119,0.05688 0.701172,0.332031 0.701172,0.332031 L 17,12.033203 C 17,11.366537 16.520154,11.263338 15.986328,11.140625 15.321534,10.987808 14.858992,11.0095 14,11 V 7.9335938 C 14.579826,7.7953224 15,7.4340848 15,7 Z m 5.660156,4 C 17.860475,11.303301 18,11.674471 18,12.033203 a 1.0001,1.0001 0 0 1 -0.306641,0.720703 C 18.515052,13.326342 19,14.361843 19,15.382812 19,17.274988 17.945159,17.441368 16,18 c 1.167345,2.853612 3.493869,5.378553 5.794922,6.685547 C 23.758094,25.872377 25.557087,26.707458 28,27 25.302155,23.706834 21.100699,22.257197 19,19 20.403877,18.263798 22,17.628085 22,15.195312 22,13.22177 20.199804,11 18.861328,11 Z"/>
 <path style="fill:#aeaeae" d="M 12 6 C 12 6.4340848 12.420174 6.7953224 13 6.9335938 L 13 10 L 12.550781 10 L 12.550781 10.005859 C 11.983416 10.010059 11.538448 10.019999 11.013672 10.140625 C 10.479846 10.263297 10 10.366537 10 11.033203 L 10.699219 11.365234 C 10.699219 11.365234 11.065272 11.090087 11.400391 11.033203 C 11.59481 11.000205 11.799991 11.042339 12 11.117188 L 12 15.507812 L 10.5 17.005859 L 12 18.505859 L 12 24.294922 L 13.5 26 L 15 24.294922 L 15 11.126953 C 15.20703 11.05114 15.415054 11.001878 15.599609 11.033203 C 15.934728 11.090083 16.300781 11.365234 16.300781 11.365234 L 17 11.033203 C 17 10.366537 16.520154 10.263338 15.986328 10.140625 C 15.321534 9.987808 14.858992 10.0095 14 10 L 14 6.9335938 C 14.579826 6.7953224 15 6.4340848 15 6 L 12 6 z M 17.660156 10 C 17.860475 10.303301 18 10.674471 18 11.033203 A 1.0001 1.0001 0 0 1 17.693359 11.753906 C 18.515052 12.326342 19 13.361843 19 14.382812 C 19 16.274988 17.945159 16.441368 16 17 C 17.167345 19.853612 19.493869 22.378553 21.794922 23.685547 C 23.758094 24.872377 25.557087 25.707458 28 26 C 25.302155 22.706834 21.100699 21.257197 19 18 C 20.403877 17.263798 22 16.628085 22 14.195312 C 22 12.22177 20.199804 10 18.861328 10 L 17.660156 10 z"/>
 <path style="fill:#8b9cbe;opacity:0.1" d="M 10.400391 2 C 5.7467908 2 2 5.7467908 2 10.400391 L 2 11.400391 C 2 6.7467908 5.7467908 3 10.400391 3 L 21.599609 3 C 26.253209 3 30 6.7467908 30 11.400391 L 30 10.400391 C 30 5.7467908 26.253209 2 21.599609 2 L 10.400391 2 z"/>
</svg>
