<svg xmlns="http://www.w3.org/2000/svg" width="32" height="32" version="1.1">
 <circle style="opacity:0.2" cx="15.5" cy="16.5" r="14.5"/>
 <circle style="fill:#b2bfd9" cx="15.5" cy="15.5" r="14.5"/>
 <path style="opacity:0.1" d="M 15.388672,8 C 10.602204,8 6,11.80558 6,16.5 6,21.19442 10.602204,25 15.388672,25 16.635799,24.9969 17.867762,24.729594 19,24.216797 V 20 h 7.25 L 23.349609,17 H 19 v 2.962891 c -0.949651,0.954523 -2.251539,1.494172 -3.611328,1.496093 -2.792106,0 -5.7773439,-2.220572 -5.7773439,-4.958984 0,-2.738412 2.9852379,-4.958984 5.7773439,-4.958984 1.358966,4.65e-4 2.660735,0.537747 3.611328,1.490234 V 8.7851562 C 17.867869,8.2718837 16.635904,8.0035842 15.388672,8 Z M 19,13.03125 v 3 h 4.349609 l 2.900391,-3 z"/>
 <path style="fill:#003079" d="M 15.388889,7 C 10.602421,7 6,10.80558 6,15.5 6,20.19442 10.602421,24 15.388889,24 16.636016,23.9969 17.867762,23.729756 19,23.216959 v -4.25415 c -0.949651,0.954523 -2.251322,1.493603 -3.611111,1.495524 -2.792106,0 -5.7777779,-2.219921 -5.7777779,-4.958333 0,-2.738412 2.9856719,-4.958333 5.7777779,-4.958333 1.358966,4.65e-4 2.660518,0.537503 3.611111,1.48999 V 7.7844239 C 17.867869,7.2711514 16.636121,7.0035842 15.388889,7 Z"/>
 <path style="fill:#003079" d="m 19,12.031657 h 7.25 l -2.9,3 H 19 Z"/>
 <path style="fill:#ff2f2f" d="m 19,19 h 7.25 l -2.9,-3 H 19 Z"/>
 <path style="fill:#8b9cbe;opacity:0.2" d="M 15.5 1 A 14.5 14.5 0 0 0 1 15.5 A 14.5 14.5 0 0 0 1.0214844 16.080078 A 14.5 14.5 0 0 1 15.5 2 A 14.5 14.5 0 0 1 29.978516 15.919922 A 14.5 14.5 0 0 0 30 15.5 A 14.5 14.5 0 0 0 15.5 1 z"/>
</svg>
