<svg xmlns="http://www.w3.org/2000/svg" width="32" height="32" version="1">
 <rect style="opacity:0.2" width="28" height="28" x="2" y="3" rx="1.4" ry="1.4"/>
 <rect style="fill:#dd9f59" width="28" height="28" x="2" y="2" rx="1.4" ry="1.4"/>
 <rect style="opacity:0.2" width="22" height="22" x="-28" y="-27" rx="1.333" ry="1.375" transform="matrix(0,-1,-1,0,0,0)"/>
 <rect style="fill:#8b9cbe" width="22" height="22" x="-27" y="-27" rx="1.333" ry="1.375" transform="matrix(0,-1,-1,0,0,0)"/>
 <path style="fill:#6b6b6b" d="M 12.029297,5.9992577 C 10.973604,6.6476897 7.748491,7.4782157 6,7.9855857 l 0.05469,0.154297 c 0.831584,-0.08305 2.019654,-0.200735 2.853515,-0.341797 l 0,1.2265633 -2.896484,0 0.07031,1.035155 2.423828,0 c -0.416362,1.712088 -1.379916,2.432289 -2.476562,3.75418 l 0.166015,0.154297 c 1.02839,-0.745128 2.059094,-1.406923 2.710938,-2.388672 l 0,3.420391 0.265625,0 c 0.707587,0 1.866396,-0.273242 1.878906,-0.357422 l 0,-3.484844 c 0.527846,0.475517 0.628733,1.031495 0.726563,1.623047 0.179741,0.151297 0.374946,0.222656 0.554687,0.222656 0.37427,0 0.69336,-0.270754 0.69336,-0.648437 0,-0.510783 -0.184028,-0.983193 -1.97461,-1.384766 l 0,-0.91043 2.34375,0 c 0.375408,0 0.555644,-0.859281 0.652344,-1.011718 l -2.017578,-1.0488283 -0.449219,1.0234383 -0.529297,0 0,-1.5078133 c 0.62568,-0.1422 1.209536,-0.283581 1.681641,-0.425781 0.274247,0.00698 1.296875,-0.089844 1.296875,-0.089844 z"/>
 <path style="fill:#6b6b6b" d="M 15,8.0305074 15,15 c 1.304827,-10e-7 1.972656,-0.521121 1.972656,-0.496094 l 0,-0.464844 2.021485,0 0,0.736329 c 1.098922,0 1.986328,-0.319045 1.986328,-0.341797 l 0,-5.270274 C 21.271695,9.1053 21.49508,9.011626 21.578125,8.9035543 l -1.605469,-0.8652344 -1.115234,0.9609375 -1.814453,0 z m 1.972656,2.0039056 2.021485,0 0,3.004649 -2.021485,0 z"/>
 <path style="fill:#6b6b6b" d="m 15,18 0,3 0,2 0,3 2,0 0,-3 1.132383,0 c 0.455457,1.763986 2.045353,2.99736 3.867187,3 2.209139,0 4,-1.790861 4,-4 0,-2.209139 -1.790861,-4 -4,-4 -1.822562,0.0018 -3.413501,1.235311 -3.86914,3 L 17,21 17,18 Z m 6.99957,2 c 1.10457,0 2,0.895431 2,2 0,1.104569 -0.89543,2 -2,2 -1.104569,0 -2,-0.895431 -2,-2 0,-1.104569 0.895431,-2 2,-2 z"/>
 <path style="fill:#8b9cbe;opacity:0.2" d="M 3.4003906 2 C 2.6247906 2 2 2.6247906 2 3.4003906 L 2 4.4003906 C 2 3.6247906 2.6247906 3 3.4003906 3 L 28.599609 3 C 29.375209 3 30 3.6247906 30 4.4003906 L 30 3.4003906 C 30 2.6247906 29.375209 2 28.599609 2 L 3.4003906 2 z"/>
</svg>
