<svg xmlns="http://www.w3.org/2000/svg" width="32" height="32" version="1">
 <circle style="opacity:0.2" cx="8" cy="9" r="6"/>
 <circle style="opacity:0.2" cx="16" cy="17" r="13"/>
 <circle style="fill:#8d533f" cx="8" cy="8" r="6"/>
 <path style="opacity:0.2" d="M 7.4332988,2.0322193 A 6.0000004,6.0000004 0 0 0 5.261899,2.6620994 c 0.0303,0.09603 -0.0051,0.2043599 -0.1155,0.3 -0.0747,0.06474 -0.1359,0.16557 -0.1359,0.22443 0,0.1799101 0.1626,0.4561501 0.2925,0.49629 0.1725,0.0534 0.1146001,0.23748 -0.1074,0.33918 -0.1026,0.0471 -0.2289,0.1827001 -0.2805001,0.3012001 -0.0519,0.1188 -0.1280999,0.2358 -0.1695,0.2601 -0.0411,0.0246 -0.075,0.1173 -0.075,0.2064 0,0.1245 0.057,0.1848 0.2439,0.2595004 0.1338,0.0537 0.294,0.0927 0.3561,0.0867 0.3573,-0.033599 0.3822,0.1746 0.0699,0.5814 -0.1659005,0.216 -0.2457005,0.2703001 -0.3588005,0.243 -0.1053,-0.0252 -0.1629,0.0045 -0.2109001,0.1089001 -0.0504,0.1107 -0.1331999,0.1482 -0.3554999,0.1635 -0.2187001,0.0153 -0.3165001,0.0597 -0.3984001,0.1794 -0.06,0.0873 -0.1463999,0.1581 -0.1923,0.1581 -0.04602,0 -0.15408,0.0588 -0.24024,0.1302 -0.1753201,0.1455 -0.24378,0.1602 -0.30525,0.0651 -0.08124,-0.126 -0.2565301,-0.0624 -0.51738,0.1875001 -0.2307001,0.2208 -0.2586301,0.2798999 -0.2238301,0.4716 0.06192,0.3411 0.2469301,0.6437999 0.4581901,0.7494 0.18435,0.0921 0.18795,0.102 0.07617,0.2202001 -0.06429,0.0681 -0.1746001,0.141 -0.24492,0.1622991 -0.2031,0.0618 -0.08877,0.1392 0.27363,0.1854009 0.37092,0.0471 0.48618,0.1814992 0.3129,0.3648 -0.09663,0.1022999 -0.0912,0.1215 0.06387,0.2187 0.303,0.1902 0.54396,0.0738 0.25956,-0.1254001 -0.18279,-0.1280999 -0.05496,-0.1802999 0.2133,-0.0873 0.2139001,0.0741 0.2562001,0.0699 0.3825001,-0.0399 0.2594999,-0.2247001 0.5415,0.1076999 0.3042,0.3585 -0.1509,0.1599 -0.1053,0.3524984 0.0903,0.3791998 0.0864,0.011705 0.2658,0.092096 0.399,0.1787999 0.1332,0.086396 0.2784,0.1575002 0.3222,0.1575002 0.0438,0 0.1674,0.0879 0.2748,0.1953 0.2178001,0.217501 0.3387,0.2451 0.4002001,0.0918 0.0738,-0.184199 0.0441,-0.279299 -0.1548,-0.4961995 C 5.8108991,9.7649004 5.553799,9.3059001 5.553799,9.1958002 c 0,-0.0678 0.2613001,-0.0102 0.4077001,0.0897 0.0915,0.0627 0.2397,0.1434 0.3294,0.18 0.0954,0.039 0.1944,0.1602001 0.2396997,0.2928008 0.0705,0.2081997 0.0984,0.2261994 0.348,0.2261994 h 0.2712 l 0.0411,0.4874996 c 0.0492,0.586499 0.096301,0.705299 0.2976,0.7536 0.1482001,0.0357 0.3063,0.265199 0.3063,0.4446 0,0.0477 -0.1065,0.164699 -0.2367,0.2598 -0.1614,0.1179 -0.2309999,0.2181 -0.2202,0.316199 0.0135,0.122701 -0.0144,0.141901 -0.1881,0.129001 -0.1118999,-0.0084 -0.3063,0.0309 -0.4311,0.0873 -0.1479,0.0666 -0.3080997,0.0879 -0.4583997,0.0609 C 6.087499,12.4925 6.028999,12.5045 6.028999,12.572 c 0,0.0498 -0.0606,0.142799 -0.1344,0.206999 -0.1824,0.1581 -0.1070999,0.2418 0.1731001,0.191399 0.174,-0.0312 0.2418,-0.0174 0.2718,0.0576 0.0639,0.1593 -0.0981,0.3873 -0.2484,0.3498 -0.0954,-0.024 -0.141,0.0087 -0.1707001,0.121201 -0.0102,0.0399 -0.0291,0.0738 -0.0516,0.102599 a 6.0000004,6.0000004 0 0 0 0.9494997,0.280501 c -0.03,-0.05729 -0.0642,-0.1095 -0.097501,-0.132899 -0.1545001,-0.1092 -0.051,-0.393 0.1617,-0.444001 0.2169,-0.0522 0.1827,-0.1929 -0.0531,-0.2199 -0.2067,-0.0234 -0.4265997,-0.2328 -0.3575998,-0.3399 0.0465,-0.0717 0.2441998,-0.0612 0.6440998,0.0336 0.1806,0.0426 0.3039001,-0.0432 0.7224001,-0.501001 0.2421,-0.2652 0.4284,-0.3756 0.6327,-0.3756 0.078,0 0.3561,-0.0717 0.6183,-0.159299 0.4950001,-0.165901 0.6885001,-0.159901 0.6702001,0.021 -0.0378,0.376199 0.2043,0.3636 0.5988001,-0.0306 0.1644,-0.1641 0.3147,-0.2829 0.3342,-0.264299 0.0753,0.0723 -0.0603,0.4242 -0.2187,0.5667 -0.2007,0.180599 -0.2106,0.294599 -0.0339,0.384899 0.0966,0.0498 0.1377,0.1503 0.153,0.3762 l 0.0204,0.308401 h 0.2508 c 0.0879,0 0.1608,0.012 0.2196,0.0345 a 6.0000004,6.0000004 0 0 0 2.907,-4.9517998 c -0.0918,-0.1962001 -0.08519,-0.3147 0,-0.4482 a 6.0000004,6.0000004 0 0 0 -0.027,-0.3363001 c -0.0546,-0.0027 -0.1104,-0.0051 -0.1746,-0.0024 -0.3024,0.0126 -0.5613,-0.1065 -0.5613,-0.2583 0,-0.0321 -0.1074,-0.1644 -0.2385,-0.2937 -0.1488,-0.1464001 -0.225,-0.2760001 -0.2028,-0.3432 C 12.806898,6.4448001 12.763098,6.3461 12.6857,6.2792 12.6104,6.2138 12.5486,6.1088001 12.5486,6.0458 c 0,-0.1005002 -0.0639,-0.1131 -0.5262,-0.102 l -0.526201,0.0129 0.009,0.5187001 c 0.0156,0.9084 0.150899,1.1442 0.568199,0.9921 0.191101,-0.0699 0.660601,-0.0171 0.794101,0.0888 0.0483,0.0384 0.118199,0.1776001 0.1551,0.3096001 0.0372,0.1316999 0.174599,0.36 0.305999,0.5067 0.2658,0.2975999 0.2865,0.4137 0.134101,0.7629 -0.132901,0.3048 -0.276301,0.2697 -0.247801,-0.0609 l 0.021,-0.246 -0.225,0.042 c -0.1245,0.0237 -0.2805,0.1155 -0.3504,0.2064 -0.0996,0.1293 -0.1461,0.1482 -0.2208,0.0891 -0.0522,-0.0414 -0.0945,-0.1287001 -0.0945,-0.1935001 0,-0.0648 -0.0642,-0.1368 -0.142199,-0.1605 -0.0783,-0.0237 -0.185401,-0.1416 -0.237901,-0.2625001 -0.0843,-0.1932 -0.0822,-0.2522999 0.0159,-0.4869 0.0993,-0.2379 0.100198,-0.2772 0.0087,-0.3651 -0.084,-0.0804 -0.127501,-0.0831 -0.237901,-0.0168 -0.110999,0.0663 -0.163499,0.0615 -0.2955,-0.027 -0.0879,-0.0591 -0.241799,-0.1079999 -0.3414,-0.1079999 -0.202499,0 -0.2637,-0.0984 -0.2637,-0.4242001 0,-0.3009 -0.179399,-0.4101 -0.6066,-0.3708001 C 9.948199,6.7781 9.8827989,6.7586 9.643699,6.5744 9.4957989,6.4607 9.262399,6.1871 9.1243989,5.9657 c -0.1379999,-0.2214001 -0.2865,-0.4527001 -0.33,-0.5139001 -0.0624,-0.0885 -0.0471,-0.1734 0.075,-0.4143 l 0.1542,-0.3030004 -0.3258,0.0441 c -0.5796001,0.0783 -0.6969001,0.1533001 -0.4476001,0.2871004 0.0972,0.0519 0.1014,0.0786 0.0264,0.1652992 -0.0492,0.0564 -0.0723,0.1461008 -0.051,0.1992008 0.0213,0.0528 -0.0057,0.1776 -0.0597,0.2769 -0.0543,0.0996 -0.0996,0.2391001 -0.1014,0.3108001 -0.0057,0.2235 -0.3885,0.4014 -0.8151,0.3777 -0.6462,-0.0357 -0.6987,-0.0255 -0.9281998,0.1875 -0.2868,0.2664 -0.3236999,0.3903001 -0.1901999,0.6375 0.1293,0.2400001 0.3591,0.3357 0.7568997,0.3159 0.3558,-0.017701 0.3960001,0.0138 0.3147,0.2490001 -0.0693,0.1998 -0.3015,0.2766 -0.459,0.1517999 -0.1212,-0.0963 -0.5390997,-0.0219 -0.6671997,0.1191001 -0.0537,0.0588 -0.1335,0.2136 -0.1770001,0.3432 -0.075,0.2238 -0.0969,0.2376 -0.4328999,0.2700001 -0.3354001,0.0327 -0.3678001,0.0219 -0.6090001,-0.2004 C 4.5883989,8.2214001 4.5427989,8.0318 4.6723989,7.7054001 c 0.0576,-0.1446 0.1002,-0.1683 0.2538001,-0.1401 0.3042,0.0555 0.4242,-0.0501 0.4242,-0.3750001 0,-0.1574999 -0.0306,-0.3047999 -0.0681,-0.327 -0.0372,-0.0222 -0.0678,-0.1056 -0.0678,-0.1857 0,-0.0801 -0.0384,-0.1833 -0.0849,-0.2286 -0.0681,-0.066 -0.0582,-0.1013999 0.0504,-0.1782 0.0744,-0.0525 0.1968,-0.0879 0.2718001,-0.078901 0.074699,0.009 0.2813999,-0.0234 0.4593,-0.0717 0.2570994,-0.0693 0.3326994,-0.1217997 0.3674995,-0.2570997 0.066,-0.2568008 0.2270997,-0.4629008 0.3620997,-0.4629008 0.2133,0 0.2178,-0.5015997 0.0105,-1.2311997 -0.0306,-0.1077 -0.1149002,-0.1761 -0.2636999,-0.213 -0.1206,-0.03 -0.2517,-0.1122 -0.2913,-0.18294 -0.0393,-0.07074 -0.1116,-0.12834 -0.1605,-0.12834 -0.0489,0 -0.1446001,-0.05856 -0.2121001,-0.1300801 -0.0681,-0.072 -0.2088,-0.13008 -0.3159,-0.13008 -0.2535,0 -0.2577,-0.17454 -0.0063,-0.2665799 0.2655,-0.09732 0.6789,0.030239 0.7788,0.24021 0.1353006,0.28473 0.2856007,0.16593 0.3339004,-0.26424 0.0597,-0.53205 0.2433,-0.6849601 0.8220001,-0.6849601 h 0.4161 l -0.1824,-0.18222 c -0.0567,-0.05688 -0.1038001,-0.12639 -0.1365,-0.1945494 z m 2.1570001,0.18867 c -0.0117,0.01056 -0.0231,0.0192 -0.0345,0.03105 -0.1392,0.14208 -0.2046,0.16233 -0.4197001,0.12951 -0.3756,-0.05727 -0.3273,0.09396 0.0885,0.27657 0.2247,0.09873 0.3693001,0.2112899 0.4185001,0.32517 0.237,0.5494801 0.4002001,0.8453101 0.4821001,0.87531 0.1656,0.0609 0.2643,-0.06132 0.3012,-0.37374 0.0423,-0.35844 0.1635,-0.43443 0.3813,-0.23847 0.0846,0.07605 0.202801,0.13827 0.2625,0.13827 0.1863,0 0.324,0.07479 0.324,0.1758001 0,0.05322 0.063,0.18147 0.1401,0.28524 0.1137,0.1526999 0.1908,0.1893 0.4032,0.1893 0.2607,0 0.4206,0.0489 0.747,0.2292 0.0051,0.0027 0.0102,0.0036 0.0153,0.0063 A 6.0000004,6.0000004 0 0 0 9.5902989,2.2208893 Z M 2.0011988,7.9742901 a 6.0000004,6.0000004 0 0 0 -0.00117,0.0258 6.0000004,6.0000004 0 0 0 0.11718,1.1526 c 0.2173805,0.088501 0.2774405,0.053401 0.3000006,-0.1487996 0.01167,-0.1046999 0.06633,-0.2232 0.1218899,-0.2642999 0.08583,-0.0633 0.07035,-0.0957 -0.1054799,-0.2157001 -0.1138201,-0.0777 -0.2259901,-0.2133 -0.2490301,-0.3012 -0.02232,-0.0852 -0.0978,-0.1782007 -0.1833905,-0.2484004 z m 1.8885301,1.9832998 c -0.0561,-0.0057 -0.12369,0.024296 -0.19869,0.096299 -0.15867,0.1518 -0.1347,0.4569 0.04512,0.577499 0.20607,0.1383 0.28557,0.0981 0.31167,-0.1569 0.0321,-0.314399 -0.0351,-0.5039999 -0.1581,-0.5168992 z m 1.0182,0.9072001 c -0.0612,0.0021 -0.1287,0.04591 -0.1962,0.1383 -0.0717,0.0978 -0.0912,0.224101 -0.0639,0.4158 0.0339,0.235801 0.0192,0.2862 -0.1041,0.349499 -0.1587001,0.081 -0.1926,0.3222 -0.0627,0.446401 0.129,0.1236 0.2520001,0.0912 0.2964001,-0.078 0.063,-0.241201 0.4161,-0.269401 0.6573,-0.0528 0.1029,0.0924 0.1869,0.139201 0.1869,0.1038 0,-0.0354 -0.1071,-0.164098 -0.2379,-0.2853 -0.2001,-0.185999 -0.2373,-0.265199 -0.2373,-0.504599 0,-0.337801 -0.1035,-0.537301 -0.2385001,-0.5331 z m -1.6721701,0.7746 a 6.0000004,6.0000004 0 0 0 0.1388701,0.1752 c -0.04089,-0.0633 -0.08757,-0.1239 -0.1388701,-0.1752 z m 2.0219702,0.920999 c -0.0303,0.0105 -0.0432,0.0486 -0.0432,0.115501 0,0.0678 -0.0432,0.1389 -0.096,0.158099 -0.0702,0.0258 -0.0864,0.1071 -0.0594,0.301201 0.0051,0.0363 0.0066,0.0654 0.0084,0.0957 a 6.0000004,6.0000004 0 0 0 0.2496001,0.128101 c -0.0042,-0.1038 0.0147,-0.2259 0.069,-0.378902 0.0921,-0.259798 0.0954,-0.324899 0.0204,-0.3705 -0.0702,-0.0426 -0.1182,-0.0597 -0.1488001,-0.0492 z"/>
 <path style="fill:#8b9cbe;opacity:0.1" d="M 8 2 A 6.0000005 6.0000005 0 0 0 2 8 A 6.0000005 6.0000005 0 0 0 2.0253906 8.4980469 A 6.0000005 6.0000005 0 0 1 8 3 A 6.0000005 6.0000005 0 0 1 13.974609 8.5019531 A 6.0000005 6.0000005 0 0 0 14 8 A 6.0000005 6.0000005 0 0 0 8 2 z"/>
 <circle style="fill:#bb694b" cx="16" cy="16" r="13"/>
 <path style="opacity:0.2" d="m 14.772148,3.0698089 a 13,13 0 0 0 -4.7047,1.3647401 c 0.06565,0.2080649 -0.01105,0.4427799 -0.2502503,0.65 -0.1618497,0.1402699 -0.2944494,0.358735 -0.2944494,0.486265 0,0.3898051 0.3522994,0.9883251 0.6337497,1.0752951 0.37375,0.1157 0.2483,0.51454 -0.2327002,0.73489 -0.2223,0.1020501 -0.4959495,0.39585 -0.6077498,0.6526 -0.11245,0.2574 -0.27755,0.5109 -0.36725,0.56355 -0.08905,0.0533 -0.1625,0.25415 -0.1625,0.4472 0,0.2697501 0.1235,0.4004 0.52845,0.56225 0.2899004,0.1163501 0.637,0.20085 0.77155,0.18785 0.77415,-0.0728 0.8281,0.3782999 0.15145,1.2596999 -0.3594501,0.468001 -0.5323501,0.58565 -0.7773996,0.5265 -0.2281505,-0.0546 -0.3529504,0.0097 -0.4569505,0.23595 -0.1092,0.23985 -0.2886,0.3211 -0.77025,0.35425 -0.47385,0.03315 -0.68575,0.129351 -0.8632,0.388701 -0.1299999,0.189149 -0.3171999,0.342549 -0.41665,0.342549 -0.09971,0 -0.33384,0.1274 -0.5205199,0.2821 -0.3798601,0.31525 -0.52819,0.347101 -0.6613748,0.141051 -0.1760199,-0.273001 -0.555815,-0.135201 -1.12099,0.406249 -0.49985,0.4784 -0.560365,0.606451 -0.484965,1.0218 0.13416,0.73905 0.5350151,1.3949 0.992745,1.6237 0.399425,0.19955 0.407225,0.221001 0.165035,0.4771 -0.139295,0.147551 -0.3783,0.3055 -0.53066,0.35165 -0.44005,0.1339 -0.192335,0.3016 0.5928651,0.4017 0.8036597,0.102051 1.0533896,0.39325 0.6779496,0.7904 -0.2093647,0.221651 -0.1975997,0.26325 0.1383851,0.47385 0.6564999,0.4121 1.17858,0.1599 0.56238,-0.2717 -0.396045,-0.27755 -0.1190801,-0.39065 0.4621499,-0.18915 0.46345,0.16055 0.5551001,0.15145 0.8287501,-0.08645 0.5622499,-0.48685 1.17325,0.233351 0.6591,0.776751 -0.3269501,0.346449 -0.22815,0.763749 0.19565,0.821599 0.1872,0.02535 0.5759003,0.19955 0.8645001,0.3874 0.2885999,0.1872 0.6031999,0.34125 0.6980999,0.34125 0.0949,0 0.362699,0.19045 0.5954,0.42315 0.4719,0.47125 0.73385,0.53105 0.8671,0.1989 0.1599,-0.3991 0.09555,-0.60515 -0.3354,-1.0751 -0.34255,-0.3744 -0.8996,-1.368899 -0.8996,-1.60745 0,-0.1469 0.56615,-0.0221 0.88335,0.19435 0.19825,0.13585 0.51935,0.3107 0.7137,0.390001 0.2067,0.0845 0.4212,0.347099 0.51935,0.634399 0.15275,0.4511 0.2132,0.4901 0.754,0.4901 h 0.5876 l 0.08905,1.05625 c 0.1066,1.27075 0.20865,1.528151 0.6448,1.6328 0.3211,0.07735 0.66365,0.574601 0.66365,0.9633 0,0.10335 -0.23075,0.35685 -0.51285,0.5629 -0.3497,0.25545 -0.5005,0.472551 -0.4771,0.6851 0.02925,0.26585 -0.0312,0.30745 -0.40755,0.2795 -0.24245,-0.0182 -0.66365,0.06696 -0.93405,0.18915 -0.32045,0.1443 -0.66755,0.19045 -0.9932,0.13195 -0.3744,-0.06695 -0.50115,-0.04095 -0.50115,0.105301 0,0.107899 -0.1313,0.309399 -0.2912,0.4485 -0.3952,0.342549 -0.23205,0.523899 0.37505,0.414699 0.377,-0.0676 0.5239,-0.0377 0.5889,0.124801 0.13845,0.34515 -0.21255,0.83915 -0.5382,0.757899 -0.2067,-0.052 -0.3055,0.01885 -0.36985,0.262601 -0.0221,0.08645 -0.06305,0.159899 -0.1118,0.2223 a 13,13 0 0 0 2.05725,0.607749 c -0.065,-0.12415 -0.1391,-0.237249 -0.21125,-0.28795 -0.33475,-0.2366 -0.1105,-0.8515 0.35035,-0.961999 0.46995,-0.113101 0.39585,-0.417951 -0.11505,-0.476451 -0.44785,-0.0507 -0.9243,-0.5044 -0.7748,-0.73645 0.10075,-0.15535 0.5291,-0.1326 1.39555,0.0728 0.3913,0.0923 0.65845,-0.0936 1.5652,-1.085501 0.52455,-0.5746 0.9282,-0.8138 1.37085,-0.8138 0.169,0 0.77155,-0.155349 1.33965,-0.34515 1.0725,-0.35945 1.49175,-0.34645 1.4521,0.0455 -0.0819,0.8151 0.44265,0.7878 1.2974,-0.0663 0.3562,-0.35555 0.68185,-0.61295 0.7241,-0.57265 0.16315,0.15665 -0.13065,0.919101 -0.47385,1.227851 -0.43485,0.3913 -0.4563,0.6383 -0.07345,0.833949 0.2093,0.1079 0.29835,0.32565 0.3315,0.8151 l 0.0442,0.6682 h 0.5434 c 0.190449,0 0.348399,0.026 0.475799,0.07475 a 13,13 0 0 0 6.2985,-10.728901 c -0.1989,-0.4251 -0.1846,-0.681849 0,-0.9711 a 13,13 0 0 0 -0.0585,-0.72865 c -0.1183,-0.0059 -0.2392,-0.01105 -0.3783,-0.0052 -0.6552,0.0273 -1.21615,-0.23075 -1.21615,-0.55965 0,-0.06955 -0.2327,-0.356199 -0.51675,-0.636349 -0.3224,-0.3172 -0.4875,-0.598001 -0.4394,-0.743601 0.04419,-0.1326 -0.0507,-0.34645 -0.2184,-0.491399 -0.16315,-0.141701 -0.29705,-0.369201 -0.29705,-0.505701 0,-0.21775 -0.138449,-0.24505 -1.1401,-0.221 l -1.1401,0.02795 0.01949,1.12385 c 0.0338,1.9682 0.32695,2.4791 1.2311,2.14955 0.414051,-0.15145 1.4313,-0.03705 1.72055,0.1924 0.10465,0.0832 0.2561,0.3848 0.336051,0.6708 0.0806,0.28535 0.3783,0.78 0.663,1.09785 0.5759,0.6448 0.62075,0.89635 0.290549,1.65295 -0.28795,0.6604 -0.59865,0.58435 -0.5369,-0.13195 l 0.0455,-0.533 -0.487499,0.091 c -0.269751,0.05135 -0.607751,0.250249 -0.759201,0.447199 -0.215799,0.28015 -0.31655,0.3211 -0.4784,0.19305 -0.1131,-0.0897 -0.20475,-0.27885 -0.20475,-0.41925 0,-0.1404 -0.1391,-0.2964 -0.3081,-0.34775 -0.16965,-0.05135 -0.401699,-0.3068 -0.51545,-0.568749 -0.182649,-0.418601 -0.1781,-0.546651 0.03445,-1.054951 0.21515,-0.51545 0.2171,-0.6006 0.01885,-0.79105 -0.182,-0.1742 -0.27625,-0.18005 -0.51545,-0.0364 -0.2405,0.14365 -0.35425,0.133251 -0.64025,-0.0585 -0.19045,-0.12805 -0.5239,-0.234 -0.739699,-0.234 -0.438751,0 -0.571351,-0.2132 -0.571351,-0.9191 0,-0.651949 -0.3887,-0.88855 -1.314299,-0.8034 -0.6422,0.05915 -0.783901,0.0169 -1.301951,-0.3822 -0.32045,-0.24635 -0.826149,-0.83915 -1.12515,-1.318849 -0.299,-0.479701 -0.62075,-0.980851 -0.715,-1.113451 -0.1352,-0.19175 -0.10205,-0.3757 0.1625,-0.8976498 l 0.3341,-0.6565001 -0.7059,0.09555 c -1.2558,0.16965 -1.509949,0.3321501 -0.9698,0.62205 0.2106,0.11245 0.2197,0.1703001 0.0572,0.3581499 -0.1066,0.1222 -0.15665,0.31655 -0.1105,0.4316 0.04615,0.114401 -0.01235,0.3848 -0.12935,0.59995 -0.11765,0.2158 -0.2158,0.51805 -0.2197,0.6734 -0.01235,0.48425 -0.841749,0.8697 -1.76605,0.81835 -1.4001,-0.07735 -1.51385,-0.05525 -2.011099,0.406251 -0.6214,0.577199 -0.701351,0.845649 -0.412101,1.381249 0.280151,0.52 0.77805,0.72735 1.63995,0.68445 0.7709,-0.03835 0.858,0.0299 0.68185,0.5395 -0.15015,0.432901 -0.65325,0.5993 -0.9945,0.3289 -0.2626,-0.208649 -1.16805,-0.04745 -1.4456,0.25805 -0.11635,0.1274 -0.28925,0.4628 -0.383499,0.743601 -0.162501,0.484899 -0.20995,0.514799 -0.937951,0.584999 -0.7267,0.07085 -0.7969,0.04745 -1.3194998,-0.4342 -0.5830501,-0.5369 -0.6818501,-0.9477 -0.4010501,-1.6549 0.1248001,-0.3133 0.2171,-0.36465 0.5499,-0.303549 0.6590996,0.120249 0.9191009,-0.108551 0.9191009,-0.812501 0,-0.34125 -0.0663,-0.6604 -0.147551,-0.7085 -0.0806,-0.0481 -0.1468999,-0.2288 -0.1468999,-0.40235 0,-0.17355 -0.083196,-0.39715 -0.1839503,-0.4953 -0.1475492,-0.143 -0.1260994,-0.219699 0.1092004,-0.3861 0.1611998,-0.113749 0.4263998,-0.19045 0.5888998,-0.17095 0.16185,0.0195 0.6097,-0.0507 0.99515,-0.15535 0.55705,-0.15015 0.72085,-0.2639 0.79625,-0.557049 0.143,-0.556401 0.49205,-1.002951 0.78455,-1.002951 0.46215,0 0.4719,-1.0867999 0.02275,-2.6675999 -0.06629,-0.2333498 -0.248941,-0.3815498 -0.571341,-0.4614998 -0.2613,-0.065 -0.54535,-0.2431 -0.63115,-0.39637 -0.08515,-0.15327 -0.2418,-0.27807 -0.34775,-0.27807 -0.10595,0 -0.3133,-0.12688 -0.45955,-0.28184 -0.14755,-0.156 -0.4524,-0.28184 -0.68445,-0.28184 -0.5492504,0 -0.5583502,-0.3781702 -0.01365,-0.5775901 0.57525,-0.21086 1.47095,0.06552 1.6874,0.5204551 0.29315,0.616915 0.6188,0.359515 0.72345,-0.5725201 0.129351,-1.1527751 0.52715,-1.4840801 1.781,-1.4840801 h 0.90155 l -0.3952,-0.39481 c -0.122847,-0.12324 -0.224897,-0.273845 -0.295747,-0.421525 z m 4.6735,0.408785 c -0.02535,0.02288 -0.05005,0.0416 -0.07475,0.067275 -0.3016,0.30784 -0.4433,0.3517149 -0.90935,0.2806049 -0.8138,-0.124085 -0.70915,0.20358 0.19175,0.599235 0.48685,0.2139151 0.80015,0.457795 0.90675,0.7045351 0.5135,1.1905401 0.8671,1.8315051 1.04455,1.8965051 0.3588,0.13195 0.57265,-0.13286 0.6526,-0.80977 0.09165,-0.7766201 0.35425,-0.9412651 0.82615,-0.5166852 0.1833,0.1647751 0.4394,0.2995852 0.56875,0.2995852 0.40365,0 0.702,0.162045 0.702,0.3809 0,0.11531 0.1365,0.393185 0.30355,0.61802 0.24635,0.33085 0.4134,0.4101501 0.8736,0.4101501 0.56485,0 0.9113,0.1059499 1.6185,0.4965999 0.01105,0.00585 0.0221,0.0078 0.03315,0.01365 A 13,13 0 0 0 19.445648,3.4785939 Z M 3.0025982,15.944294 a 13,13 0 0 0 -0.00254,0.0559 13,13 0 0 0 0.25389,2.4973 c 0.47099,0.19175 0.60112,0.1157 0.65,-0.322399 0.025285,-0.226851 0.143715,-0.483601 0.264095,-0.572651 0.1859686,-0.137149 0.1524286,-0.207349 -0.2285364,-0.467349 -0.24661,-0.16835 -0.489645,-0.46215 -0.539565,-0.6526 -0.04836,-0.184599 -0.2119,-0.386099 -0.397345,-0.5382 z m 4.0918147,4.297151 c -0.1215499,-0.01235 -0.267995,0.05265 -0.430495,0.208649 -0.343785,0.3289 -0.29185,0.98995 0.09776,1.25125 0.4464849,0.29965 0.618735,0.21255 0.6752849,-0.339949 0.06955,-0.681201 -0.076051,-1.092001 -0.3425499,-1.11995 z m 2.2061,1.965599 c -0.1325999,0.0045 -0.2788499,0.09945 -0.4251,0.29965 -0.15535,0.2119 -0.1976,0.48555 -0.13845,0.900901 0.07345,0.510899 0.0416,0.620099 -0.22555,0.75725 -0.3438499,0.175499 -0.4172999,0.698099 -0.13585,0.9672 0.2795,0.2678 0.5460001,0.1976 0.6422,-0.169 0.1365001,-0.5226 0.9015497,-0.583701 1.4241501,-0.114401 0.22295,0.2002 0.40495,0.3016 0.40495,0.2249 0,-0.0767 -0.23205,-0.35555 -0.51545,-0.61815 -0.4335502,-0.403 -0.5141496,-0.574599 -0.5141496,-1.093299 0,-0.731901 -0.2242505,-1.164151 -0.5167505,-1.155051 z m -3.6230347,1.6783 a 13,13 0 0 0 0.3008847,0.3796 c -0.088595,-0.137149 -0.1897347,-0.26845 -0.3008847,-0.3796 z m 4.3809348,1.9955 c -0.065651,0.02275 -0.093595,0.1053 -0.093595,0.25025 0,0.1469 -0.093595,0.30095 -0.2079995,0.34255 -0.1521001,0.0559 -0.1872005,0.23205 -0.1286997,0.6526 0.011046,0.07865 0.0143,0.1417 0.018201,0.20735 a 13,13 0 0 0 0.5407992,0.27755 c -0.0091,-0.2249 0.03186,-0.48945 0.149501,-0.82095 0.19955,-0.562899 0.2067,-0.70395 0.0442,-0.80275 -0.1521,-0.0923 -0.256099,-0.12935 -0.322399,-0.1066 z"/>
 <circle style="opacity:0.2" cx="22.5" cy="19.5" r="4.5"/>
 <circle style="fill:#eea788" cx="22.5" cy="18.5" r="4.5"/>
 <path style="opacity:0.2" d="m 22.074975,14.024164 a 4.5000003,4.5000003 0 0 0 -1.62855,0.47241 c 0.02273,0.07202 -0.0039,0.15327 -0.08663,0.225001 -0.05602,0.04855 -0.101925,0.124177 -0.101925,0.168322 0,0.134933 0.121949,0.342113 0.219375,0.372218 0.129374,0.04005 0.08595,0.17811 -0.08055,0.254385 -0.07695,0.03532 -0.171674,0.137025 -0.210374,0.2259 -0.03892,0.0891 -0.09608,0.17685 -0.127126,0.195074 -0.03082,0.01845 -0.05625,0.08797 -0.05625,0.154801 0,0.09338 0.04275,0.1386 0.182925,0.194625 0.10035,0.04028 0.2205,0.06952 0.267074,0.06502 0.267976,-0.0252 0.28665,0.130951 0.05243,0.43605 -0.124425,0.162001 -0.184275,0.202726 -0.2691,0.182251 -0.07898,-0.0189 -0.122175,0.0034 -0.158175,0.08167 -0.0378,0.08303 -0.0999,0.11115 -0.266626,0.122625 -0.164024,0.01147 -0.237374,0.04478 -0.2988,0.13455 -0.045,0.06548 -0.109799,0.118575 -0.144224,0.118575 -0.03452,0 -0.11556,0.0441 -0.18018,0.09765 -0.13149,0.109124 -0.182836,0.12015 -0.228938,0.04883 -0.06093,-0.0945 -0.192397,-0.0468 -0.388035,0.140625 -0.173025,0.1656 -0.193972,0.209925 -0.167872,0.3537 0.04644,0.255825 0.185197,0.48285 0.343642,0.56205 0.138262,0.06907 0.140963,0.0765 0.05713,0.16515 -0.04822,0.05108 -0.130951,0.10575 -0.18369,0.121724 -0.152325,0.04635 -0.06658,0.104401 0.205223,0.139051 0.278189,0.03533 0.364635,0.136125 0.234675,0.2736 -0.07247,0.07673 -0.0684,0.09113 0.0479,0.164025 0.22725,0.14265 0.407969,0.05535 0.194669,-0.09405 -0.137092,-0.09608 -0.04122,-0.135225 0.159976,-0.06548 0.160424,0.05557 0.19215,0.05243 0.286875,-0.02993 0.194624,-0.168525 0.406125,0.08078 0.228149,0.268875 -0.113174,0.119925 -0.07898,0.264375 0.06773,0.284399 0.0648,0.0088 0.19935,0.06907 0.29925,0.134101 0.0999,0.0648 0.2088,0.118124 0.24165,0.118124 0.03285,0 0.12555,0.06593 0.2061,0.146476 0.16335,0.163125 0.254025,0.183825 0.30015,0.06885 0.05535,-0.138151 0.03308,-0.209475 -0.1161,-0.37215 -0.118575,-0.129601 -0.3114,-0.47385 -0.3114,-0.556425 0,-0.05085 0.195975,-0.0076 0.305775,0.06727 0.06862,0.04702 0.179775,0.10755 0.247049,0.135001 0.07156,0.02925 0.145801,0.12015 0.179775,0.2196 0.05288,0.15615 0.07381,0.16965 0.261001,0.16965 h 0.2034 l 0.03082,0.365624 c 0.0369,0.439875 0.07223,0.528976 0.2232,0.565201 0.11115,0.02678 0.229725,0.198901 0.229725,0.33345 0,0.03578 -0.07987,0.123525 -0.177525,0.19485 -0.121051,0.08842 -0.17325,0.163574 -0.16515,0.23715 0.01008,0.09202 -0.0108,0.106425 -0.141075,0.09675 -0.08392,-0.0063 -0.229726,0.02318 -0.323326,0.06548 -0.110924,0.04995 -0.231075,0.06593 -0.343799,0.04567 -0.1296,-0.02318 -0.173476,-0.01418 -0.173476,0.03645 0,0.03735 -0.04545,0.1071 -0.100798,0.15525 -0.1368,0.118576 -0.08033,0.18135 0.129825,0.14355 0.1305,-0.0234 0.18135,-0.01305 0.20385,0.0432 0.04792,0.119475 -0.07357,0.290475 -0.186301,0.26235 -0.07155,-0.018 -0.105749,0.0065 -0.128025,0.0909 -0.0076,0.02993 -0.02182,0.05535 -0.0387,0.07695 a 4.5000003,4.5000003 0 0 0 0.712126,0.210375 c -0.02249,-0.04297 -0.04815,-0.08212 -0.07312,-0.09968 -0.115875,-0.0819 -0.03825,-0.29475 0.121275,-0.332999 0.162675,-0.03915 0.137025,-0.144675 -0.03983,-0.164925 -0.155025,-0.01755 -0.31995,-0.1746 -0.2682,-0.254925 0.03487,-0.05377 0.18315,-0.0459 0.483075,0.0252 0.13545,0.03195 0.227924,-0.0324 0.5418,-0.37575 0.181575,-0.1989 0.3213,-0.2817 0.474525,-0.2817 0.0585,0 0.267075,-0.05377 0.463725,-0.119476 0.37125,-0.124425 0.516375,-0.119925 0.50265,0.01575 -0.02835,0.28215 0.153225,0.2727 0.4491,-0.02295 0.1233,-0.123074 0.236025,-0.212174 0.25065,-0.198225 0.05647,0.05422 -0.04522,0.31815 -0.164025,0.425025 -0.150525,0.135449 -0.15795,0.22095 -0.02543,0.288674 0.07245,0.03735 0.103275,0.112726 0.11475,0.28215 l 0.0153,0.231301 h 0.1881 c 0.06593,0 0.1206,0.009 0.1647,0.02587 a 4.5000003,4.5000003 0 0 0 2.18025,-3.71385 c -0.06885,-0.147149 -0.0639,-0.236024 0,-0.33615 a 4.5000003,4.5000003 0 0 0 -0.02024,-0.252224 c -0.04095,-0.002 -0.0828,-0.0039 -0.130951,-0.0018 -0.2268,0.0095 -0.420975,-0.07987 -0.420975,-0.193724 0,-0.02407 -0.08055,-0.123301 -0.178874,-0.220276 -0.111601,-0.1098 -0.168751,-0.207001 -0.152101,-0.2574 0.0153,-0.0459 -0.01755,-0.119926 -0.0756,-0.1701 -0.05647,-0.04905 -0.102825,-0.1278 -0.102825,-0.17505 0,-0.07537 -0.04792,-0.08483 -0.39465,-0.0765 l -0.394649,0.0097 0.0067,0.389025 c 0.01171,0.6813 0.113176,0.85815 0.426151,0.744075 0.143324,-0.05242 0.49545,-0.01282 0.595574,0.0666 0.03623,0.02879 0.08865,0.1332 0.116325,0.2322 0.0279,0.09877 0.130951,0.269999 0.229501,0.380025 0.19935,0.2232 0.214874,0.310274 0.100574,0.572175 -0.09968,0.2286 -0.207226,0.202276 -0.185851,-0.04567 l 0.01575,-0.1845 -0.168751,0.0315 c -0.09338,0.01777 -0.210375,0.08663 -0.262799,0.1548 -0.0747,0.09697 -0.109576,0.111151 -0.165601,0.06682 -0.03915,-0.03105 -0.07087,-0.09652 -0.07087,-0.145127 0,-0.0486 -0.04815,-0.1026 -0.10665,-0.120374 -0.05872,-0.01777 -0.139051,-0.106201 -0.178425,-0.196875 -0.06323,-0.1449 -0.06165,-0.189226 0.01193,-0.365176 0.07448,-0.178425 0.07515,-0.207899 0.0065,-0.273824 -0.063,-0.0603 -0.09563,-0.06232 -0.178425,-0.0126 -0.08325,0.04972 -0.122624,0.04613 -0.221624,-0.02024 -0.06593,-0.04433 -0.181351,-0.081 -0.25605,-0.081 -0.151876,0 -0.197776,-0.0738 -0.197776,-0.318149 0,-0.225676 -0.13455,-0.307575 -0.45495,-0.278101 -0.2223,0.02048 -0.271349,0.0058 -0.450674,-0.1323 -0.110925,-0.08528 -0.285975,-0.290475 -0.389475,-0.456525 -0.103501,-0.16605 -0.214876,-0.339525 -0.2475,-0.385425 -0.0468,-0.06637 -0.03533,-0.130051 0.05625,-0.310725 l 0.11565,-0.22725 -0.244349,0.03308 c -0.434701,0.05872 -0.522676,0.114975 -0.335701,0.215325 0.0729,0.03892 0.07605,0.05895 0.0198,0.123975 -0.0369,0.0423 -0.05422,0.109575 -0.03825,0.1494 0.01598,0.03959 -0.0043,0.1332 -0.04477,0.207675 -0.04073,0.0747 -0.0747,0.179325 -0.07606,0.2331 -0.0043,0.167625 -0.291375,0.30105 -0.611325,0.283275 -0.48465,-0.02678 -0.524025,-0.01913 -0.69615,0.140625 -0.2151,0.1998 -0.242775,0.292725 -0.14265,0.478125 0.09697,0.18 0.269325,0.251775 0.567675,0.236926 0.26685,-0.01327 0.297,0.01035 0.236025,0.186749 -0.05197,0.14985 -0.226125,0.20745 -0.34425,0.11385 -0.09089,-0.07223 -0.404325,-0.01643 -0.5004,0.08933 -0.04028,0.0441 -0.100126,0.1602 -0.13275,0.2574 -0.05625,0.16785 -0.07268,0.178201 -0.324675,0.2025 -0.25155,0.02452 -0.27585,0.01643 -0.45675,-0.1503 -0.201825,-0.18585 -0.236025,-0.328049 -0.138826,-0.57285 0.0432,-0.10845 0.07515,-0.126225 0.190351,-0.105074 0.22815,0.04162 0.31815,-0.03758 0.31815,-0.281251 0,-0.118125 -0.02295,-0.228599 -0.05108,-0.245249 -0.0279,-0.01665 -0.05085,-0.0792 -0.05085,-0.139276 0,-0.06007 -0.0288,-0.137475 -0.06368,-0.17145 -0.05108,-0.0495 -0.04365,-0.07605 0.0378,-0.133649 0.0558,-0.03938 0.1476,-0.06593 0.20385,-0.05918 0.05602,0.0067 0.21105,-0.01755 0.344475,-0.05377 0.192825,-0.05197 0.249525,-0.09135 0.275625,-0.192825 0.0495,-0.1926 0.170325,-0.347175 0.271575,-0.347175 0.159975,0 0.16335,-0.3762 0.0078,-0.9234 -0.02295,-0.08078 -0.08617,-0.132075 -0.197776,-0.15975 -0.09045,-0.02249 -0.188775,-0.08415 -0.218475,-0.137205 -0.02948,-0.05306 -0.0837,-0.09626 -0.120375,-0.09626 -0.03667,0 -0.108449,-0.04392 -0.159075,-0.09756 -0.05108,-0.054 -0.1566,-0.09756 -0.236925,-0.09756 -0.190125,0 -0.193275,-0.130904 -0.0047,-0.199934 0.199125,-0.07299 0.509175,0.02268 0.5841,0.180157 0.10147,0.213548 0.2142,0.124448 0.250425,-0.198179 0.04478,-0.399038 0.182475,-0.513721 0.6165,-0.513721 h 0.312075 l -0.1368,-0.136665 c -0.04253,-0.04266 -0.07784,-0.09479 -0.102375,-0.145913 z m 1.61775,0.141503 c -0.0088,0.0079 -0.01732,0.0144 -0.02587,0.02329 -0.1044,0.10656 -0.15345,0.121747 -0.314775,0.09713 -0.2817,-0.04295 -0.245475,0.07047 0.06638,0.207427 0.168525,0.07405 0.276975,0.158467 0.313875,0.243877 0.17775,0.41211 0.30015,0.633983 0.361575,0.656483 0.1242,0.04567 0.198225,-0.04599 0.2259,-0.280305 0.03173,-0.26883 0.122625,-0.325823 0.285975,-0.178853 0.06345,0.05704 0.1521,0.103702 0.196875,0.103702 0.139725,0 0.243,0.0561 0.243,0.131851 0,0.03992 0.04725,0.136102 0.105075,0.21393 0.08528,0.114525 0.1431,0.141975 0.3024,0.141975 0.195525,0 0.31545,0.03667 0.56025,0.171899 0.0039,0.002 0.0076,0.0027 0.01147,0.0047 A 4.5000003,4.5000003 0 0 0 23.692722,14.165626 Z M 18.0009,18.480718 a 4.5000003,4.5000003 0 0 0 -9e-4,0.01935 4.5000003,4.5000003 0 0 0 0.08788,0.86445 c 0.163034,0.06638 0.208079,0.04005 0.224999,-0.1116 0.0088,-0.07853 0.04974,-0.1674 0.09141,-0.198224 0.06437,-0.04747 0.05277,-0.07178 -0.07911,-0.161776 -0.08537,-0.05827 -0.169492,-0.159974 -0.186773,-0.2259 -0.01674,-0.0639 -0.07335,-0.13365 -0.137542,-0.186299 z m 1.416397,1.487474 c -0.04208,-0.0043 -0.09277,0.01823 -0.149017,0.07223 -0.119003,0.11385 -0.101023,0.342676 0.03384,0.433126 0.154553,0.103725 0.214178,0.07357 0.233753,-0.117676 0.02407,-0.2358 -0.02632,-0.377999 -0.118575,-0.387675 z m 0.76365,0.680401 c -0.04591,0.0015 -0.09652,0.03442 -0.14715,0.103725 -0.05377,0.07335 -0.0684,0.168074 -0.04792,0.31185 0.02543,0.176849 0.0144,0.214649 -0.07808,0.262124 -0.119025,0.06075 -0.14445,0.241651 -0.04703,0.3348 0.09675,0.0927 0.189,0.0684 0.2223,-0.0585 0.04725,-0.180901 0.312075,-0.20205 0.492975,-0.03959 0.07717,0.0693 0.140175,0.104399 0.140175,0.07785 0,-0.02655 -0.08033,-0.123075 -0.178425,-0.213975 -0.150075,-0.1395 -0.177974,-0.198901 -0.177974,-0.378451 0,-0.253349 -0.07762,-0.402974 -0.178876,-0.399824 z m -1.254127,0.58095 a 4.5000003,4.5000003 0 0 0 0.104152,0.131399 c -0.03067,-0.04747 -0.06567,-0.09292 -0.104152,-0.131399 z m 1.516477,0.690749 c -0.02273,0.0078 -0.0324,0.03645 -0.0324,0.08662 0,0.05085 -0.0324,0.104176 -0.072,0.118576 -0.05265,0.01935 -0.0648,0.08032 -0.04455,0.2259 0.0039,0.02723 0.005,0.04905 0.0063,0.07178 a 4.5000003,4.5000003 0 0 0 0.1872,0.09607 c -0.0032,-0.07784 0.01102,-0.169424 0.05175,-0.284174 0.06907,-0.194851 0.07155,-0.243675 0.0153,-0.277875 -0.05265,-0.03195 -0.08864,-0.04478 -0.1116,-0.0369 z"/>
 <path style="fill:#8b9cbe;opacity:0.2" d="M 16 3 A 13 13 0 0 0 3 16 A 13 13 0 0 0 3.0214844 16.580078 A 13 13 0 0 1 16 4 A 13 13 0 0 1 28.978516 16.419922 A 13 13 0 0 0 29 16 A 13 13 0 0 0 16 3 z"/>
 <path style="fill:#8b9cbe;opacity:0.2" d="M 22.5 14 A 4.5 4.5 0 0 0 18 18.5 A 4.5 4.5 0 0 0 18.033203 18.988281 A 4.5 4.5 0 0 1 22.5 15 A 4.5 4.5 0 0 1 26.966797 19.011719 A 4.5 4.5 0 0 0 27 18.5 A 4.5 4.5 0 0 0 22.5 14 z"/>
</svg>
