<svg xmlns="http://www.w3.org/2000/svg" width="32" height="32" version="1.1">
 <g transform="translate(0,-1020.3622)">
  <path style="opacity:0.2" d="m 5.2055276,1023.3622 c -0.18776,0 -0.2679833,1.9506 -0.1503907,3.6773 0.1605707,2.3578 0.5916138,4.0332 1.3589842,4.6896 0.3868809,0.3311 1.9563257,0.6591 2.4986717,0.6591 0.425152,0 0.5884641,0.3321 0.503125,0.8173 -0.03878,0.2204 -0.3922835,1.1029 -0.7,2.3018 -0.5379157,2.0958 -0.7255164,2.208 -0.6152342,2.9022 0.1324071,0.8334 0.8985368,2.0894 1.4710934,2.7412 0.07724,0.088 0.150871,0.1497 0.222852,0.2115 0.55122,-2.1436 2.067292,-4.0127 3.901855,-5.2559 l 0.216016,-1.0357 c 0.257802,-1.2336 0.525447,-2.6587 0.594727,-2.7264 0.08657,-0.085 1.458364,0.044 3.728742,0 3.764031,0.018 3.943285,-0.243 4.782422,-0.9423 0.492922,-0.411 0.979856,-1.1781 0.98164,-1.6479 0.001,-0.2765 -0.01628,-0.283 -0.900976,-0.3534 -5.541752,-0.4415 -11.521611,-2.0022 -16.2241918,-5.0437 -0.8456077,-0.547 -1.5963419,-0.9947 -1.6693356,-0.9947 z"/>
  <path style="opacity:0.2;fill-rule:evenodd" d="m 18.5,1036.3622 a 7.5,7.5 0 0 0 -7.5,7.5 7.5,7.5 0 0 0 7.5,7.5 7.5,7.5 0 0 0 7.5,-7.5 7.5,7.5 0 0 0 -7.5,-7.5 z"/>
  <path style="fill:#d24343" d="m 5.2055276,1022.3622 c -0.18776,0 -0.2679833,1.9506 -0.1503907,3.6773 0.1605707,2.3578 0.5916138,4.0332 1.3589842,4.6896 0.3868809,0.3311 1.9563257,0.6591 2.4986717,0.6591 0.425152,0 0.5884641,0.3321 0.503125,0.8173 -0.03878,0.2204 -0.3922835,1.1029 -0.7,2.3018 -0.5379157,2.0958 -0.7255164,2.208 -0.6152342,2.9022 0.1324071,0.8334 0.8985368,2.0894 1.4710934,2.7412 0.07724,0.088 0.150871,0.1497 0.222852,0.2115 0.55122,-2.1436 2.067292,-4.0127 3.901855,-5.2559 l 0.216016,-1.0357 c 0.257802,-1.2336 0.525447,-2.6587 0.594727,-2.7264 0.08657,-0.085 1.458364,0.044 3.728742,0 3.764031,0.018 3.943285,-0.243 4.782422,-0.9423 0.492922,-0.411 0.979856,-1.1781 0.98164,-1.6479 0.001,-0.2765 -0.01628,-0.283 -0.900976,-0.3534 -5.541752,-0.4415 -11.521611,-2.0022 -16.2241918,-5.0437 -0.8456077,-0.547 -1.5963419,-0.9947 -1.6693356,-0.9947 z"/>
  <path style="fill:#4f4f4f;fill-rule:evenodd" d="m 18.5,1035.3622 a 7.5,7.5 0 0 0 -7.5,7.5 7.5,7.5 0 0 0 7.5,7.5 7.5,7.5 0 0 0 7.5,-7.5 7.5,7.5 0 0 0 -7.5,-7.5 z"/>
  <path style="opacity:0.2;fill-rule:evenodd" d="m 18.5,1040.3622 a 3.5000001,3.5000001 0 0 1 3.5,3.5 3.5000001,3.5000001 0 0 1 -3.5,3.5 3.5000001,3.5000001 0 0 1 -3.5,-3.5 3.5000001,3.5000001 0 0 1 3.5,-3.5 z"/>
  <path style="fill:#8b9cbe;fill-rule:evenodd" d="m 18.5,1039.3622 a 3.5000001,3.5000001 0 0 1 3.5,3.5 3.5000001,3.5000001 0 0 1 -3.5,3.5 3.5000001,3.5000001 0 0 1 -3.5,-3.5 3.5000001,3.5000001 0 0 1 3.5,-3.5 z"/>
  <path style="fill:#d24343;fill-rule:evenodd" d="M 18.454764,1040.3622 A 2.4999291,2.4999291 0 0 0 16,1042.4007 l 2.19232,0.5871 c 0.167221,0.045 0.265748,0.2162 0.220941,0.3834 l -0.516342,1.925 a 2.4999291,2.4999291 0 0 0 0.557845,0.066 2.4999291,2.4999291 0 0 0 2.499929,-2.5 2.4999291,2.4999291 0 0 0 -2.499929,-2.4998 z"/>
  <path style="fill:#8b9cbe;opacity:0.2" transform="translate(0,1020.3622)" d="M 5.2050781 2 C 5.0562343 2 4.9804295 3.2293179 5.0117188 4.5976562 C 5.0297543 3.6960254 5.0950871 3 5.2050781 3 C 5.2780718 3 6.0293923 3.4471406 6.875 3.9941406 C 11.577581 7.0356406 17.557857 8.5975625 23.099609 9.0390625 C 23.467939 9.0683725 23.621099 9.0917931 23.75 9.1230469 C 23.8955 8.8593535 23.999222 8.5973991 24 8.3925781 C 24.001 8.1160781 23.984305 8.1094625 23.099609 8.0390625 C 17.557857 7.5975625 11.577581 6.0356406 6.875 2.9941406 C 6.0293923 2.4471406 5.2780718 2 5.2050781 2 z M 9.3027344 12.201172 C 9.1764655 12.590539 8.9543448 13.219016 8.7167969 14.144531 C 8.1788812 16.240331 7.9912803 16.352675 8.1015625 17.046875 C 8.1092418 17.095211 8.1366562 17.156053 8.1484375 17.207031 C 8.2419198 16.827841 8.4234384 16.2875 8.7167969 15.144531 C 9.0245134 13.945631 9.3772356 13.06415 9.4160156 12.84375 C 9.4652214 12.563988 9.4213889 12.344823 9.3027344 12.201172 z"/>
  <path style="opacity:0.1;fill:#8b9cbe;fill-rule:evenodd" transform="translate(0,1020.3622)" d="M 18.5 15 A 7.5 7.5 0 0 0 11 22.5 A 7.5 7.5 0 0 0 11.021484 22.947266 A 7.5 7.5 0 0 1 18.5 16 A 7.5 7.5 0 0 1 25.978516 23.052734 A 7.5 7.5 0 0 0 26 22.5 A 7.5 7.5 0 0 0 18.5 15 z"/>
 </g>
</svg>
