<svg xmlns="http://www.w3.org/2000/svg" width="32" height="32" version="1">
 <path style="opacity:0.2" d="m 16.064453,1.999384 c -0.02689,-5.471e-4 -0.05323,0.0038 -0.08008,0.00391 -0.01623,9.989e-4 -0.03253,0.00164 -0.04883,0.00195 -0.556036,0.010414 -1.100835,0.1550107 -1.583985,0.4335937 L 4.6484375,8.0403996 C 4.1647511,8.3196206 3.7782068,8.7168642 3.4960938,9.1771184 l -0.00586,-0.00391 c -0.011105,0.018092 -0.018535,0.038344 -0.029297,0.056641 -0.011427,0.01946 -0.026077,0.036952 -0.037109,0.056641 l 0.00586,0.00391 C 3.1579236,9.7745042 2.9999638,10.323504 3,10.897822 v 5.601562 5.601562 c -3e-7,0.57478 0.1600128,1.122493 0.4335938,1.605469 0.021841,0.03856 0.039149,0.0795 0.0625,0.117188 l 0.013672,-0.0078 c 0.098492,0.162597 0.1994443,0.325703 0.3261719,0.46875 a 3.2974327,3.2973955 0 0 0 0.060547,0.07227 c 0.053968,0.05748 0.1116961,0.11037 0.1699218,0.164062 a 3.2974327,3.2973955 0 0 0 0.1132813,0.09961 c 0.053579,0.04507 0.1073688,0.09101 0.1640625,0.132812 a 3.2974327,3.2973955 0 0 0 0.3046875,0.203125 l 9.7031245,5.601563 a 3.2974327,3.2973955 0 0 0 1.583985,0.4375 v 0.0039 a 3.2974327,3.2973955 0 0 0 1.712891,-0.441406 l 9.703124,-5.601563 a 3.2974327,3.2973955 0 0 0 1.158204,-1.132812 l 0.002,0.002 a 3.2974327,3.2973955 0 0 0 0.03516,-0.0625 3.2974327,3.2973955 0 0 0 0.0293,-0.05078 l -0.002,-0.002 A 3.2974327,3.2973955 0 0 0 29,22.100946 V 10.897822 a 3.2974327,3.2973955 0 0 0 -0.02734,-0.392579 c -0.005,-0.04189 -0.01099,-0.08349 -0.01758,-0.125 a 3.2974327,3.2973955 0 0 0 -0.04883,-0.248046 c -0.01342,-0.05625 -0.02861,-0.110733 -0.04492,-0.1660161 a 3.2974327,3.2973955 0 0 0 -0.0625,-0.1835938 c -0.02292,-0.063658 -0.04358,-0.1274523 -0.07031,-0.1894531 a 3.2974327,3.2973955 0 0 0 -0.0098,-0.025391 l -0.002,0.00195 C 28.65652,9.4330739 28.581707,9.3023897 28.503906,9.1751652 l -0.0098,0.00586 C 28.213856,8.7204079 27.834717,8.3193135 27.351562,8.0403996 L 17.648438,2.4388371 C 17.169923,2.1629604 16.630323,2.0121321 16.078125,1.999384 c -0.0046,-1.104e-4 -0.0091,-8.5e-6 -0.01367,0 z"/>
 <path style="fill:#add439" d="m 16.077583,1.0006871 c -0.04774,-0.001153 -0.09487,0.00476 -0.14247,0.00566 L 15.966146,7.9451814 16,15.50001 22.533854,11.751625 28.566949,8.2921231 C 28.282457,7.7827941 27.873746,7.3434747 27.35102,7.0417172 L 17.64898,1.4396743 C 17.170466,1.1637976 16.629781,1.0134352 16.077583,1.0006871 Z"/>
 <path style="fill:#ac1248" d="M 3.4908854,8.1745874 C 3.1774874,8.6851968 2.9999609,9.2782277 3,9.8979668 v 5.6020432 5.602042 c -3e-7,0.620667 0.1792658,1.212244 0.4951172,1.721963 L 9.5,19.306454 16,15.50001 9.5,11.693566 Z"/>
 <path style="fill:#3471b9" d="M 28.504883,8.1760041 22.5,11.693566 16,15.50001 l 6.5,3.806444 6.011936,3.520394 A 3.2974327,3.2973955 0 0 0 29,21.102052 V 9.8979668 A 3.2974327,3.2973955 0 0 0 28.9732,9.5057102 C 28.9682,9.4638172 28.96145,9.4226072 28.95486,9.3810945 A 3.2974327,3.2973955 0 0 0 28.90549,9.1332791 C 28.89207,9.0770311 28.87807,9.0214632 28.86176,8.9661805 A 3.2974327,3.2973955 0 0 0 28.79969,8.7835053 C 28.77677,8.7198473 28.75589,8.6557502 28.72916,8.5937494 a 3.2974327,3.2973955 0 0 0 -0.01129,-0.025492 l -0.0014,0.00145 C 28.656193,8.4330848 28.582639,8.3032597 28.504838,8.1760353 Z"/>
 <path style="opacity:0.2" d="M 3.9472656 8.5859375 C 3.7421252 8.7960978 3.5664608 9.0325656 3.4238281 9.2871094 L 9.4667969 12.751953 L 16 16.5 L 22.533203 12.751953 L 28.566406 9.2929688 C 28.42416 9.0383042 28.251637 8.8014462 28.048828 8.5898438 L 22.533203 11.751953 L 16 15.5 L 9.4667969 11.751953 L 3.9472656 8.5859375 z"/>
 <path style="fill:#86b02f" d="M 16.064887,1.0006871 C 15.464165,0.98846369 14.87168,1.139463 14.35102,1.4396743 L 4.64898,7.0417172 C 4.1261501,7.3435348 3.7084425,7.7773708 3.4231771,8.2864584 L 9.4661458,11.751625 16,15.50001 16.033854,7.9451814 Z"/>
 <path style="fill:#2e90e8" d="m 16,15.50001 -0.03385,7.554828 -0.03103,6.944494 a 3.2974327,3.2973955 0 0 0 1.713867,-0.440403 l 9.70204,-5.602044 a 3.2974327,3.2973955 0 0 0 1.224392,-1.243324 l -6.041558,-3.465167 z"/>
 <path style="fill:#eb2f6a" d="m 16,15.50001 -6.5338542,3.748384 -6.0330945,3.459502 c 0.1155118,0.204044 0.2457126,0.399914 0.4020182,0.576348 a 3.2974327,3.2973955 0 0 0 0.062066,0.07222 c 0.053968,0.05748 0.111045,0.11199 0.1692708,0.165682 a 3.2974327,3.2973955 0 0 0 0.1128472,0.09913 c 0.053579,0.04507 0.1069348,0.08989 0.1636285,0.131696 a 3.2974327,3.2973955 0 0 0 0.3060981,0.203916 l 9.7020389,5.602044 a 3.2974327,3.2973955 0 0 0 1.713868,0.436155 l -0.03103,-6.940246 z"/>
 <path style="opacity:0.2;fill:#8b9cbe" d="M 16 15.5 L 9.4667969 19.248047 L 3.4335938 22.707031 C 3.5491055 22.911075 3.6796319 23.108722 3.8359375 23.285156 A 3.2974327 3.2973955 0 0 0 3.8964844 23.357422 C 3.9138427 23.37591 3.9331441 23.392439 3.9511719 23.410156 L 9.4667969 20.248047 L 16 16.5 L 22.533203 20.248047 L 28.050781 23.412109 A 3.2974327 3.2973955 0 0 0 28.576172 22.712891 L 22.533203 19.248047 L 16 15.5 z"/>
 <path style="opacity:0.2" d="m 16,7.2576658 8,4.6202092 v 9.201916 L 16,25.7 8.0000003,21.079791 v -9.201916 z"/>
 <path style="fill:#8b9cbe" d="m 16,6.2576658 8,4.6202092 v 9.201916 L 16,24.7 8.0000003,20.079791 v -9.201916 z"/>
 <path style="fill:#cedbe6" d="m 16,6.2576658 8,4.6202092 v 9.201916 L 16,24.7 Z"/>
 <path style="fill:#dee5c0" d="M 16,6.2576658 8.0000003,10.877875 16,15.498084 24,10.877875 Z"/>
 <path style="opacity:0.2;fill:#8b9cbe" d="M 16.064453 1 C 16.037564 0.99945286 16.011225 1.0038006 15.984375 1.0039062 C 15.968141 1.0049051 15.951848 1.0055512 15.935547 1.0058594 C 15.379511 1.016273 14.834713 1.1608701 14.351562 1.4394531 L 4.6484375 7.0410156 C 4.1647511 7.3202366 3.7782068 7.7174802 3.4960938 8.1777344 L 3.4902344 8.1738281 C 3.4791298 8.1919205 3.4716991 8.2121719 3.4609375 8.2304688 C 3.4495107 8.2499285 3.4348604 8.2674211 3.4238281 8.2871094 L 3.4296875 8.2910156 C 3.1579236 8.7751202 2.9999638 9.3241204 3 9.8984375 L 3 10.898438 C 2.9999638 10.32412 3.1579233 9.7751194 3.4296875 9.2910156 L 3.4238281 9.2871094 C 3.4348601 9.2674204 3.4495105 9.2499288 3.4609375 9.2304688 C 3.4716995 9.2121717 3.4791294 9.1919201 3.4902344 9.1738281 L 3.4960938 9.1777344 C 3.7782068 8.7174802 4.1647511 8.3202366 4.6484375 8.0410156 L 14.351562 2.4394531 C 14.834713 2.1608701 15.379511 2.0162734 15.935547 2.0058594 C 15.951847 2.0055494 15.968145 2.0049051 15.984375 2.0039062 C 16.011225 2.0037963 16.037563 1.9994529 16.064453 2 C 16.069023 1.9999915 16.073525 1.9998896 16.078125 2 C 16.630323 2.0127481 17.169923 2.1635764 17.648438 2.4394531 L 27.351562 8.0410156 C 27.834718 8.3199295 28.213891 8.7210233 28.494141 9.1816406 L 28.503906 9.1757812 C 28.581707 9.3030058 28.656597 9.4336934 28.716797 9.5703125 L 28.71875 9.5683594 A 3.2974327 3.2973955 0 0 1 28.728516 9.59375 C 28.755246 9.6557508 28.775908 9.7195451 28.798828 9.7832031 A 3.2974327 3.2973955 0 0 1 28.861328 9.9667969 C 28.877638 10.02208 28.89283 10.076562 28.90625 10.132812 A 3.2974327 3.2973955 0 0 1 28.955078 10.380859 C 28.961668 10.422369 28.967656 10.463969 28.972656 10.505859 A 3.2974327 3.2973955 0 0 1 29 10.898438 L 29 9.8984375 A 3.2974327 3.2973955 0 0 0 28.972656 9.5058594 C 28.967656 9.4639664 28.961668 9.4223721 28.955078 9.3808594 A 3.2974327 3.2973955 0 0 0 28.90625 9.1328125 C 28.89283 9.0765645 28.877638 9.0220796 28.861328 8.9667969 A 3.2974327 3.2973955 0 0 0 28.798828 8.7832031 C 28.775908 8.7195451 28.755246 8.6557508 28.728516 8.59375 A 3.2974327 3.2973955 0 0 0 28.71875 8.5683594 L 28.716797 8.5703125 C 28.65652 8.4336899 28.581707 8.3030058 28.503906 8.1757812 L 28.494141 8.1816406 C 28.213856 7.7210239 27.834718 7.3199295 27.351562 7.0410156 L 17.648438 1.4394531 C 17.169923 1.1635764 16.630323 1.0127481 16.078125 1 C 16.073555 0.99988962 16.069013 0.99999147 16.064453 1 z"/>
 <path style="opacity:0.1" d="m 24,10.877875 -8,4.620172 v 1 l 8,-4.621094 z"/>
</svg>
