<svg width="32" height="32" version="1.1" xmlns="http://www.w3.org/2000/svg">
 <rect x="8" y="11" width="16" height="20" rx="2" ry="2" style="opacity:.2"/>
 <rect x="8" y="10" width="16" height="20" rx="2" ry="2" style="fill:#4f4f4f"/>
 <path d="m7 3s-5 3-5 6.9999999c0 6.0000001 6 7.0000001 6 7.0000001l3-6s-6 0-6-2 2-6 2-6zm18 0s2 4 2 6-6 2-6 2l3 6s6-1 6-7.0000001c0-3.9999999-5-6.9999999-5-6.9999999z" style="opacity:.2"/>
 <path d="m10 10c-1.108 0-2 0.892-2 2v1c0-1.108 0.892-2 2-2h12c1.108 0 2 0.892 2 2v-1c0-1.108-0.892-2-2-2h-12z" style="fill:#8b9cbe;opacity:.1"/>
 <path d="m7 2s-5 3-5 6.9999999c0 6.0000001 6 7.0000001 6 7.0000001l3-6s-6 0-6-2 2-6 2-6zm18 0s2 4 2 6-6 2-6 2l3 6s6-1 6-7.0000001c0-3.9999999-5-6.9999999-5-6.9999999z" style="fill:#de081c"/>
 <circle cx="12.5" cy="20.5" r="3.5" style="opacity:.2"/>
 <circle cx="12.5" cy="19.5" r="3.5" style="fill:#8b9cbe"/>
 <circle cx="19.5" cy="20.5" r="3.5" style="opacity:.2"/>
 <circle cx="19.5" cy="19.5" r="3.5" style="fill:#8b9cbe"/>
 <path d="m12.5 17a2.5 2.5 0 0 0-2.5 2.5 2.5 2.5 0 0 0 2.5 2.5 2.5 2.5 0 0 0 2.5-2.5 2.5 2.5 0 0 0-2.5-2.5zm7 0a2.5 2.5 0 0 0-2.5 2.5 2.5 2.5 0 0 0 2.5 2.5 2.5 2.5 0 0 0 2.5-2.5 2.5 2.5 0 0 0-2.5-2.5z" style="fill:#de081c"/>
 <path d="M 9,15 16,21.479394 23,15 Z" style="fill:#4f4f4f"/>
 <path d="m12.5 19a0.5 0.5 0 0 0-0.5 0.5 0.5 0.5 0 0 0 0.5 0.5 0.5 0.5 0 0 0 0.5-0.5 0.5 0.5 0 0 0-0.5-0.5zm7 0a0.5 0.5 0 0 0-0.5 0.5 0.5 0.5 0 0 0 0.5 0.5 0.5 0.5 0 0 0 0.5-0.5 0.5 0.5 0 0 0-0.5-0.5z" style="fill:#4f4f4f"/>
 <path d="M 7 2 C 7 2 2 5.0000001 2 9 C 2 9.1943842 2.0229692 9.36871 2.0351562 9.5527344 C 2.3096641 6.5982951 5.1033667 4.3212143 6.3476562 3.4433594 C 6.69723 2.6400158 7 2 7 2 z M 25 2 C 25 2 25.30277 2.6400158 25.652344 3.4433594 C 26.896633 4.3212143 29.690336 6.5982951 29.964844 9.5527344 C 29.977031 9.36871 30 9.1943842 30 9 C 30 5.0000001 25 2 25 2 z M 5.0664062 8.3515625 C 5.0321492 8.5787892 5 8.8051818 5 9 C 5 10.737514 9.319162 10.954447 10.507812 10.984375 L 11 10 C 11 10 5.7255859 9.9995117 5.0664062 8.3515625 z M 26.933594 8.3515625 C 26.274414 9.9995117 21 10 21 10 L 21.492188 10.984375 C 22.680838 10.954447 27 10.737514 27 9 C 27 8.8051818 26.967851 8.5787892 26.933594 8.3515625 z " style="fill:#8b9cbe;opacity:.2"/>
</svg>
