<svg xmlns="http://www.w3.org/2000/svg" width="32" height="32" version="1">
 <rect style="opacity:0.2" width="29" height="29" x="-31" y="-30" rx="1.45" ry="1.45" transform="matrix(0,-1,-1,0,0,0)"/>
 <rect style="fill:#3968c2" width="29" height="29" x="-30" y="-30" rx="1.45" ry="1.45" transform="matrix(0,-1,-1,0,0,0)"/>
 <path style="opacity:0.2" d="M 15.5,7 A 1.5,1.5 0 0 0 14,8.5 1.5,1.5 0 0 0 15.5,10 1.5,1.5 0 0 0 17,8.5 1.5,1.5 0 0 0 15.5,7 Z M 11,13 v 3 h 3 v 6 h -3 v 3 h 9 v -3 h -3 v -6 -3 h -3 z"/>
 <path style="fill:#8b9cbe" d="M 15.5 6 A 1.5 1.5 0 0 0 14 7.5 A 1.5 1.5 0 0 0 15.5 9 A 1.5 1.5 0 0 0 17 7.5 A 1.5 1.5 0 0 0 15.5 6 z M 11 12 L 11 15 L 14 15 L 14 21 L 11 21 L 11 24 L 20 24 L 20 21 L 17 21 L 17 15 L 17 12 L 14 12 L 11 12 z"/>
 <path style="fill:#8b9cbe;opacity:0.1" d="M 2.4492188 1 C 1.6459187 1 1 1.6459187 1 2.4492188 L 1 3.4492188 C 1 2.6459187 1.6459187 2 2.4492188 2 L 28.550781 2 C 29.354081 2 30 2.6459187 30 3.4492188 L 30 2.4492188 C 30 1.6459187 29.354081 1 28.550781 1 L 2.4492188 1 z"/>
</svg>
