<svg xmlns="http://www.w3.org/2000/svg" width="32" height="32" version="1.1">
 <circle style="opacity:0.2" cx="21" cy="17" r="9"/>
 <circle style="fill:#5792f1" cx="21" cy="16" r="9"/>
 <circle style="fill:#006ec9" cx="21" cy="16" r="7"/>
 <path style="opacity:0.1;fill:#8b9cbe" d="m 21,7 a 9,9 0 0 0 -9,9 9,9 0 0 0 0.02148,0.576172 A 9,9 0 0 1 21,8 9,9 0 0 1 29.978516,16.423828 9,9 0 0 0 30,16 9,9 0 0 0 21,7 Z"/>
 <circle style="opacity:0.2" cx="16" cy="22" r="9"/>
 <circle style="opacity:0.2" cx="11" cy="17" r="9"/>
 <circle style="fill:#5792f1" cx="16" cy="11" r="9"/>
 <circle style="fill:#006ec9" cx="16" cy="11" r="7"/>
 <path style="opacity:0.1;fill:#8b9cbe" d="M 16,2 A 9,9 0 0 0 7,11 9,9 0 0 0 7.0214844,11.576172 9,9 0 0 1 16,3 9,9 0 0 1 24.978516,11.423828 9,9 0 0 0 25,11 9,9 0 0 0 16,2 Z"/>
 <circle style="fill:#5792f1" cx="11" cy="16" r="9"/>
 <circle style="fill:#006ec9" cx="11" cy="16" r="7"/>
 <path style="opacity:0.1;fill:#8b9cbe" d="M 11,7 A 9,9 0 0 0 2,16 9,9 0 0 0 2.0214844,16.576172 9,9 0 0 1 11,8 9,9 0 0 1 19.978516,16.423828 9,9 0 0 0 20,16 9,9 0 0 0 11,7 Z"/>
 <circle style="fill:#5792f1" cx="16" cy="21" r="9"/>
 <circle style="fill:#006ec9" cx="16" cy="21" r="7"/>
 <path style="opacity:0.1;fill:#8b9cbe" d="M 16,12 A 9,9 0 0 0 7,21 9,9 0 0 0 7.0214844,21.576172 9,9 0 0 1 16,13 9,9 0 0 1 24.978516,21.423828 9,9 0 0 0 25,21 9,9 0 0 0 16,12 Z"/>
 <circle style="opacity:0.2" cx="16" cy="17" r="9"/>
 <circle style="fill:#5792f1" cx="16" cy="16" r="9"/>
 <circle style="fill:#006ec9" cx="16" cy="16" r="7"/>
 <path style="opacity:0.1;fill:#8b9cbe" d="M 16,7 A 9,9 0 0 0 7,16 9,9 0 0 0 7.0214844,16.576172 9,9 0 0 1 16,8 9,9 0 0 1 24.978516,16.423828 9,9 0 0 0 25,16 9,9 0 0 0 16,7 Z"/>
</svg>
