<svg xmlns="http://www.w3.org/2000/svg" width="32" height="32" version="1">
 <rect style="opacity:0.2" width="28" height="28" x="2" y="3" rx="8.4" ry="8.4"/>
 <rect style="fill:#f3ad1d" width="28" height="28" x="2" y="2" rx="8.4" ry="8.4"/>
 <path style="opacity:0.2" d="m 15.333953,7.918657 c -0.835621,0.041772 -2.452004,0.4121728 -3.29313,1.7271202 0,0 -0.777472,-0.2432085 0.128349,-1.6169081 C 12.169172,8.0288691 9,8 8.42885,9 H 6.0000001 v 12.173193 c 0,0 3.288416,7.007897 13.9704199,5.652899 0,0 4.834535,-0.703786 4.202006,-5.072542 0,0 1.508745,-1.658473 1.72433,-3.770925 0.199243,-1.95095 0.176761,-3.238841 -0.676618,-5.767297 -0.05957,-0.176264 -0.312555,-0.16228 -0.351562,0.01953 -0.299128,1.394777 -1.180533,4.58112 -3.701668,6.007252 0,0 1.326921,-2.37992 0.602679,-5.246929 -0.02322,-0.09195 -0.156346,-0.0829 -0.167411,0.01116 -0.106215,0.910002 -0.483784,2.899217 -1.771762,3.2952 0,0 -0.749184,-2.705257 -4.242554,-4.602196 0,0 0.301392,-0.906198 0.387835,-1.552733 0.08618,-0.6468055 -0.215613,-0.9480711 -0.04325,-1.2499996 0.172628,-0.3019349 0.862165,-0.7324219 0.862165,-0.7324219 0,0 -0.625037,-0.2873056 -1.460659,-0.2455356 z m 1.667718,9.084615 c 0.646525,-0.04091 1.179026,0.491781 1.138392,1.138392 -0.03395,0.532925 -0.465715,0.965275 -0.998884,0.998885 -0.646517,0.04091 -1.179342,-0.491783 -1.138393,-1.138393 0.03362,-0.533232 0.465724,-0.965276 0.998885,-0.998884 z m 4.61122,5.715678 c 0.146374,0.01121 0.3075,0.04918 0.439453,0.150671 0.04385,0.0338 0.19577,0.15135 0.172992,0.290178 -0.02165,0.13226 -0.188528,0.206616 -0.251116,0.234375 -0.192085,0.08532 -0.268334,0.01489 -0.518974,0.08231 -0.06113,0.01642 -0.247247,0.06842 -0.408761,0.206473 -0.131518,0.112574 -0.09958,0.155629 -0.220424,0.260882 -0.118832,0.103741 -0.371952,0.254039 -0.55106,0.178571 -0.171033,-0.07194 -0.185452,-0.311207 -0.188337,-0.357143 -0.02016,-0.327122 0.25871,-0.571986 0.376675,-0.675222 0.12113,-0.105759 0.395453,-0.306157 0.803571,-0.357143 0.06907,-0.0087 0.199609,-0.02515 0.345981,-0.01395 z"/>
 <path style="fill:#8b9cbe" d="m 15.333953,6.918657 c -0.835621,0.041772 -2.452004,0.4121728 -3.29313,1.7271202 0,0 -0.777472,-0.2432085 0.128349,-1.6169081 C 12.169172,7.0288691 9,7 8.42885,8 H 6.0000001 v 12.173193 c 0,0 3.288416,7.007897 13.9704199,5.652899 0,0 4.834535,-0.703786 4.202006,-5.072542 0,0 1.508745,-1.658473 1.72433,-3.770925 0.199243,-1.95095 0.176761,-3.238841 -0.676618,-5.767297 -0.05957,-0.176264 -0.312555,-0.16228 -0.351562,0.01953 -0.299128,1.394777 -1.180533,4.58112 -3.701668,6.007252 0,0 1.326921,-2.37992 0.602679,-5.246929 -0.02322,-0.09195 -0.156346,-0.0829 -0.167411,0.01116 -0.106215,0.910002 -0.483784,2.899217 -1.771762,3.2952 0,0 -0.749184,-2.705257 -4.242554,-4.602196 0,0 0.301392,-0.9061983 0.387835,-1.552733 0.08618,-0.6468055 -0.215613,-0.9480711 -0.04325,-1.2499996 0.172628,-0.3019349 0.862165,-0.7324219 0.862165,-0.7324219 0,0 -0.625037,-0.2873056 -1.460659,-0.2455356 z m 1.667718,9.084615 c 0.646525,-0.04091 1.179026,0.491781 1.138392,1.138392 -0.03395,0.532925 -0.465715,0.965275 -0.998884,0.998885 -0.646517,0.04091 -1.179342,-0.491783 -1.138393,-1.138393 0.03362,-0.533232 0.465724,-0.965276 0.998885,-0.998884 z m 4.61122,5.715678 c 0.146374,0.01121 0.3075,0.04918 0.439453,0.150671 0.04385,0.0338 0.19577,0.15135 0.172992,0.290178 -0.02165,0.13226 -0.188528,0.206616 -0.251116,0.234375 -0.192085,0.08532 -0.268334,0.01489 -0.518974,0.08231 -0.06113,0.01642 -0.247247,0.06842 -0.408761,0.206473 -0.131518,0.112574 -0.09958,0.155629 -0.220424,0.260882 -0.118832,0.103741 -0.371952,0.254039 -0.55106,0.178571 -0.171033,-0.07194 -0.185452,-0.311207 -0.188337,-0.357143 -0.02016,-0.327122 0.25871,-0.571986 0.376675,-0.675222 0.12113,-0.105759 0.395453,-0.306157 0.803571,-0.357143 0.06907,-0.0087 0.199609,-0.02515 0.345981,-0.01395 z"/>
 <path style="fill:#8b9cbe;opacity:0.2" d="M 10.400391 2 C 5.7467908 2 2 5.7467908 2 10.400391 L 2 11.400391 C 2 6.7467908 5.7467908 3 10.400391 3 L 21.599609 3 C 26.253209 3 30 6.7467908 30 11.400391 L 30 10.400391 C 30 5.7467908 26.253209 2 21.599609 2 L 10.400391 2 z"/>
</svg>
