<svg width="32" height="32" version="1.1" xmlns="http://www.w3.org/2000/svg">
 <rect x="2" y="3" width="28" height="28" rx="3" ry="3" style="opacity:.2"/>
 <rect x="2" y="2" width="28" height="28" rx="3" ry="3" style="fill:#8f0000"/>
 <path d="m23 6c-1.108 0-2 0.892-2 2v0.875c-0.470437-0.034525-1.013845-0.052717-1.599609 0.00586-0.723519 0.072352-1.504682 0.2405816-2.19336 0.7226562-0.688678 0.4820738-1.207031 1.3687058-1.207031 2.3964838 0 0.305556-0.155756 0.534512-0.740234 0.863281-0.584479 0.328769-1.502703 0.602924-2.44336 0.779297-1.099465 0.20615-2.077185 0.281427-2.816406 0.31836v-0.960938c0-1.108-0.892-2-2-2h-6v2h5c0.554 0 1 0.446 1 1v0.832031a1.0001 1.0001 0 0 0 0 0.326172v1.841797c0 0.554-0.446 1-1 1h-5v2h6c1.108 0 2-0.892 2-2v-1.960938c0.739221 0.03694 1.716941 0.112224 2.816406 0.31836 0.940657 0.176373 1.858881 0.450528 2.44336 0.779297 0.584478 0.328769 0.740234 0.557725 0.740234 0.863281 0 1.333333 0.729724 2.422781 1.650391 3.113281 0.920666 0.6905 2.031333 1.0884 3.107421 1.357422 1.333547 0.333387 2.438797 0.436741 3.242188 0.482422v2.046875c0 1.108 0.892 2 2 2h4v-2h-3c-0.554 0-1-0.446-1-1v-1.832031a1.0001 1.0001 0 0 0 0-0.326172v-0.841797c0-0.554 0.446-1 1-1h3v-2h-4c-1.108 0-2 0.892-2 2v0.947266c-0.728759-0.049973-1.689304-0.150814-2.757812-0.417969-0.923912-0.230978-1.813245-0.583078-2.392579-1.017578-0.579333-0.4345-0.849609-0.845052-0.849609-1.511719 0-1.194444-0.844244-2.090488-1.759766-2.605469-0.269509-0.151599-0.556098-0.278719-0.849609-0.394531 0.293511-0.115812 0.5801-0.242932 0.849609-0.394531 0.915522-0.514981 1.759766-1.411025 1.759766-2.605469 0-0.472222 0.106647-0.58559 0.355469-0.759766 0.248822-0.174175 0.717659-0.318445 1.24414-0.371093 0.490224-0.04902 0.993453-0.02642 1.400391 0.0098v2.121059c0 1.108 0.892 2 2 2h7v-2h-6c-0.554 0-1-0.446-1-1v-1.769531a1.0001 1.0001 0 0 0 0-0.4511721v-0.7792969c0-0.554 0.446-1 1-1h6v-2z" style="opacity:.2"/>
 <path d="m23 5c-1.108 0-2 0.892-2 2v0.875c-0.470437-0.034525-1.013845-0.052717-1.599609 0.00586-0.723519 0.072352-1.504682 0.2405816-2.19336 0.7226562-0.688678 0.4820738-1.207031 1.3687058-1.207031 2.3964838 0 0.305556-0.155756 0.534512-0.740234 0.863281-0.584479 0.328769-1.502703 0.602924-2.44336 0.779297-1.099465 0.20615-2.077185 0.281427-2.816406 0.31836v-0.960938c0-1.108-0.892-2-2-2h-6v2h5c0.554 0 1 0.446 1 1v0.832031a1.0001 1.0001 0 0 0 0 0.326172v1.841797c0 0.554-0.446 1-1 1h-5v2h6c1.108 0 2-0.892 2-2v-1.960938c0.739221 0.03694 1.716941 0.112224 2.816406 0.31836 0.940657 0.176373 1.858881 0.450528 2.44336 0.779297 0.584478 0.328769 0.740234 0.557725 0.740234 0.863281 0 1.333333 0.729724 2.422781 1.650391 3.113281 0.920666 0.6905 2.031333 1.0884 3.107421 1.357422 1.333547 0.333387 2.438797 0.436741 3.242188 0.482422v2.046875c0 1.108 0.892 2 2 2h4v-2h-3c-0.554 0-1-0.446-1-1v-1.832031a1.0001 1.0001 0 0 0 0-0.326172v-0.841797c0-0.554 0.446-1 1-1h3v-2h-4c-1.108 0-2 0.892-2 2v0.947266c-0.728759-0.049973-1.689304-0.150814-2.757812-0.417969-0.923912-0.230978-1.813245-0.583078-2.392579-1.017578-0.579333-0.4345-0.849609-0.845052-0.849609-1.511719 0-1.194444-0.844244-2.090488-1.759766-2.605469-0.269509-0.151599-0.556098-0.278719-0.849609-0.394531 0.293511-0.115812 0.5801-0.242932 0.849609-0.394531 0.915522-0.514981 1.759766-1.411025 1.759766-2.605469 0-0.472222 0.106647-0.58559 0.355469-0.759766 0.248822-0.174175 0.717659-0.318445 1.24414-0.371093 0.490224-0.049023 0.993453-0.02642 1.400391 0.009765v2.121094c0 1.108 0.892 2 2 2h7v-2h-6c-0.554 0-1-0.446-1-1v-1.769531a1.0001 1.0001 0 0 0 0-0.4511721v-0.7792969c0-0.554 0.446-1 1-1h6v-2z" style="fill:#8b9cbe"/>
 <path d="m5 2c-1.662 0-3 1.338-3 3v1c0-1.662 1.338-3 3-3h22c1.662 0 3 1.338 3 3v-1c0-1.662-1.338-3-3-3h-22z" style="fill:#8b9cbe;opacity:.1"/>
</svg>
