<svg xmlns="http://www.w3.org/2000/svg" width="32" height="32" version="1">
 <path style="opacity:0.2;fill:none;stroke:#000000;stroke-width:8" d="M 6,6.9995729 26,26.999573"/>
 <path style="opacity:0.2" d="M 4.6660156,3 C 3.1886822,3 2,4.2495813 2,5.8007812 V 28.199219 C 2,29.750419 3.1886822,31 4.6660156,31 H 7.3339844 C 8.8113178,31 10,29.750419 10,28.199219 V 5.8007812 C 10,4.2495813 8.8113178,3 7.3339844,3 Z M 24.666016,3 C 23.188682,3 22,4.2495813 22,5.8007812 V 28.199219 C 22,29.750419 23.188682,31 24.666016,31 h 2.667968 C 28.811318,31 30,29.750419 30,28.199219 V 5.8007812 C 30,4.2495813 28.811318,3 27.333984,3 Z"/>
 <path style="fill:none;stroke:#17191e;stroke-width:8" d="M 6,6 26,26"/>
 <path style="opacity:0.1;fill:#8b9cbe" d="M 8.828125 3.171875 L 3.171875 8.828125 L 3.671875 9.328125 L 8.828125 4.171875 L 28.328125 23.671875 L 28.828125 23.171875 L 8.828125 3.171875 z"/>
 <rect style="fill:#4f4f4f" width="8" height="28" x="2" y="2" rx="2.667" ry="2.8"/>
 <rect style="fill:#4f4f4f" width="8" height="28" x="22" y="2" rx="2.667" ry="2.8"/>
 <path style="opacity:0.1;fill:#8b9cbe" d="M 4.6660156 2 C 3.1886822 2 2 3.2495813 2 4.8007812 L 2 5.8007812 C 2 4.2495813 3.1886822 3 4.6660156 3 L 7.3339844 3 C 8.8113178 3 10 4.2495813 10 5.8007812 L 10 4.8007812 C 10 3.2495813 8.8113178 2 7.3339844 2 L 4.6660156 2 z M 24.666016 2 C 23.188682 2 22 3.2495813 22 4.8007812 L 22 5.8007812 C 22 4.2495813 23.188682 3 24.666016 3 L 27.333984 3 C 28.811318 3 30 4.2495813 30 5.8007812 L 30 4.8007812 C 30 3.2495813 28.811318 2 27.333984 2 L 24.666016 2 z"/>
</svg>
