<svg xmlns="http://www.w3.org/2000/svg" width="32" height="32" version="1">
 <rect style="opacity:0.2" width="28" height="28" x="2" y="3" rx="1.4" ry="1.4"/>
 <rect style="fill:#5362ca" width="28" height="28" x="2" y="2" rx="1.4" ry="1.4"/>
 <path style="fill:#61d3e0" d="M 7.0851648,12.932 25.9,17.4 v 2.314556 L 25,20 c 0,0 -5.996403,-0.1 -6.1,-0.1 L 18.078374,22 H 7.9301747 L 7,20.6 Z"/>
 <path style="opacity:0.2;fill:#8b9cbe" d="M 7.0859375 12.931641 L 7 20.599609 L 7.0117188 20.615234 L 7.0859375 13.931641 L 25.900391 18.400391 L 25.900391 17.400391 L 7.0859375 12.931641 z"/>
 <path style="opacity:0.2" d="M 7.4277344,9 6,10.400391 V 21.599609 L 7.4277344,23 H 16 V 21 H 8 V 11 h 16.572266 v 0.800781 h 0.294922 L 26,12.910156 V 10.400391 L 24.572266,9 Z M 18.5,13 17,14.333984 V 24.666016 L 18.5,26 h 6 L 26,24.666016 V 14.333984 L 24.5,13 Z m 0.5,2 h 5 v 5 h -5 z m 0,6 h 5 v 3 h -5 z m 2,1.033203 V 23 h 1 V 22.033203 Z M 4.0996094,24 5.5,26 H 16.994141 L 16,25.115234 V 24 Z M 27,24 v 1.115234 L 26.005859,26 H 26.5 l 1.400391,-2 z"/>
 <path style="fill:#fccf42" d="M 7.4277344 8 L 6 9.4003906 L 6 20.599609 L 7.4277344 22 L 16 22 L 16 20 L 8 20 L 8 10 L 24.572266 10 L 24.572266 10.800781 L 24.867188 10.800781 L 26 11.910156 L 26 9.4003906 L 24.572266 8 L 7.4277344 8 z M 18.5 12 L 17 13.333984 L 17 23.666016 L 18.5 25 L 24.5 25 L 26 23.666016 L 26 13.333984 L 24.5 12 L 18.5 12 z M 19 14 L 24 14 L 24 19 L 19 19 L 19 14 z M 19 20 L 24 20 L 24 23 L 19 23 L 19 20 z M 21 21.033203 L 21 22 L 22 22 L 22 21.033203 L 21 21.033203 z M 4.0996094 23 L 5.5 25 L 16.994141 25 L 16 24.115234 L 16 23 L 4.0996094 23 z M 27 23 L 27 24.115234 L 26.005859 25 L 26.5 25 L 27.900391 23 L 27 23 z"/>
 <path style="fill:#8b9cbe;opacity:0.1" d="M 3.4003906 2 C 2.6247906 2 2 2.6247906 2 3.4003906 L 2 4.4003906 C 2 3.6247906 2.6247906 3 3.4003906 3 L 28.599609 3 C 29.375209 3 30 3.6247906 30 4.4003906 L 30 3.4003906 C 30 2.6247906 29.375209 2 28.599609 2 L 3.4003906 2 z"/>
</svg>
