<svg xmlns="http://www.w3.org/2000/svg" width="32" height="32" version="1.1">
 <rect style="opacity:0.2" width="28" height="28" x="2" y="3" rx="1.4" ry="1.4"/>
 <rect style="fill:#b2bfd9" width="28" height="28" x="2" y="2" rx="1.4" ry="1.4"/>
 <path style="opacity:0.1" d="m 6,9 h 2 v 16 c -2.1428572,0 -2,1.999981 -2,1.999981 h 2.1428572 2.8571438 2.142857 c 0,0 0,-1.999981 -2.142857,-1.999981 V 13.600129 l 7.049002,12.021621 c 0.628063,1.399832 0.91154,1.378231 2.344075,1.378231 h 0.606923 1.42857 c 0,0 1.571429,0 1.571429,-2.141968 V 9 h 2 C 26,9 26,7.0082782 23.857143,7.0082782 H 21.000001 C 18.857142,7.0082782 18.857142,9 18.857142,9 h 2.142859 V 20.40813 L 14.02088,8.5056896 C 13.288323,6.7972836 12.735407,7.0082782 11.000001,7.0082782 H 8.1428572 C 6,7.0082782 6,9 6,9 Z"/>
 <path style="fill:#17191e" d="m 6,8 h 2 v 16 c -2.1428572,0 -2,1.999981 -2,1.999981 h 2.1428572 2.8571438 2.142857 c 0,0 0,-1.999981 -2.142857,-1.999981 V 12.600129 l 7.049002,12.021621 c 0.628063,1.399832 0.91154,1.378231 2.344075,1.378231 h 0.606923 1.42857 c 0,0 1.571429,0 1.571429,-2.141968 V 8 h 2 C 26,8 26,6.0082782 23.857143,6.0082782 H 21.000001 C 18.857142,6.0082782 18.857142,8 18.857142,8 h 2.142859 V 19.40813 L 14.02088,7.5056896 C 13.288323,5.7972836 12.735407,6.0082782 11.000001,6.0082782 H 8.1428572 C 6,6.0082782 6,8 6,8 Z"/>
 <path style="fill:#8b9cbe;opacity:0.2" d="M 3.4003906 2 C 2.6247906 2 2 2.6247906 2 3.4003906 L 2 4.4003906 C 2 3.6247906 2.6247906 3 3.4003906 3 L 28.599609 3 C 29.375209 3 30 3.6247906 30 4.4003906 L 30 3.4003906 C 30 2.6247906 29.375209 2 28.599609 2 L 3.4003906 2 z"/>
</svg>
