<svg xmlns="http://www.w3.org/2000/svg" width="32" height="32" version="1.1">
 <path style="opacity:0.2" d="M 16,3 C 8.2686042,3 2.00105,9.2668969 2,16.998047 1.9989526,24.724509 8.2735391,31.000084 16,31 c 7.73172,-8.2e-5 14,-6.26801 14,-14 0,-1.756706 -0.323387,-3.43727 -0.914062,-4.986328 -0.04748,-0.12451 -0.210479,-0.154458 -0.298829,-0.05469 l -2.205078,2.046875 A 11,11 0 0 1 27,17 11,11 0 0 1 16,28 11,11 0 0 1 5,17 11,11 0 0 1 16,6 11,11 0 0 1 20.953125,7.1914062 c 0.01853,-0.013898 0.04208,-0.017896 0.05664,-0.037109 l 1.466796,-2.3339844 c 0.0667,-0.087985 0.03754,-0.2169041 -0.06055,-0.2675781 C 20.49382,3.5597199 18.312314,3 16,3 Z"/>
 <path style="fill:#b2bfd9" d="M 16,28.6 C 22.958793,28.6 28.6,22.958793 28.6,16 28.6,9.041207 22.958793,3.4000001 16,3.4000001 9.0412068,3.4000001 3.3999999,9.041207 3.3999999,16 3.3999999,22.958793 9.0412068,28.6 16,28.6 Z"/>
 <path style="opacity:0.1" class="st0" d="M 27.956205,9.1455639 14.48221,24.939231 c -0.06632,0.07775 -0.182047,0.08141 -0.252818,0.008 L 8.0509246,18.539418 c -0.056752,-0.05887 -0.067283,-0.150407 -0.025469,-0.22148 L 9.7004318,15.47066 c 0.05861,-0.09963 0.191606,-0.116061 0.271109,-0.03349 l 3.7046062,3.847512 c 0.05321,0.05525 0.141164,0.04901 0.18663,-0.01324 L 24.234516,5.071173 c 0.05801,-0.079425 0.167696,-0.094613 0.244123,-0.034272 1.36693,1.0792199 2.550625,2.3959746 3.493285,3.8909309 0.04275,0.0678 0.03603,0.1570672 -0.01571,0.2177322 z"/>
 <path style="fill:#0bbe5b" class="st0" d="M 27.956205,8.1455639 14.48221,23.939231 c -0.06632,0.07775 -0.182047,0.08141 -0.252818,0.008 L 8.0509246,17.539418 c -0.056752,-0.05887 -0.067283,-0.150407 -0.025469,-0.22148 L 9.7004318,14.47066 c 0.05861,-0.09963 0.191606,-0.116061 0.271109,-0.03349 l 3.7046062,3.847512 c 0.05321,0.05525 0.141164,0.04901 0.18663,-0.01324 L 24.234516,4.071173 c 0.05801,-0.079425 0.167696,-0.094613 0.244123,-0.034272 1.36693,1.0792199 2.550625,2.3959746 3.493285,3.8909309 0.04275,0.0678 0.03603,0.1570672 -0.01571,0.2177322 z"/>
 <path style="fill:#17191e" d="M 16 2 C 8.2686042 2 2.00105 8.2668969 2 15.998047 C 1.9989526 23.724509 8.2735391 30.000084 16 30 C 23.73172 29.999918 30 23.73199 30 16 C 30 14.243294 29.676613 12.56273 29.085938 11.013672 C 29.038456 10.889162 28.875459 10.859214 28.787109 10.958984 L 26.582031 13.005859 A 11 11 0 0 1 27 16 A 11 11 0 0 1 16 27 A 11 11 0 0 1 5 16 A 11 11 0 0 1 16 5 A 11 11 0 0 1 20.953125 6.1914062 C 20.971655 6.1775087 20.995201 6.1735099 21.009766 6.1542969 L 22.476562 3.8203125 C 22.543262 3.7323272 22.514106 3.6034084 22.416016 3.5527344 C 20.49382 2.5597199 18.312314 2 16 2 z"/>
 <path style="fill:#8b9cbe;opacity:0.1" d="M 16 2 C 8.2686042 2 2.00105 8.2668968 2 15.998047 C 1.9999771 16.166933 2.0194671 16.330597 2.0253906 16.498047 C 2.2917835 9.0004235 8.4373685 3 16 3 C 18.190984 3 20.256735 3.5165676 22.103516 4.4140625 L 22.476562 3.8203125 C 22.543262 3.7323272 22.514106 3.6034084 22.416016 3.5527344 C 20.49382 2.5597199 18.312314 2 16 2 z M 28.951172 10.902344 C 28.893444 10.891764 28.831284 10.909099 28.787109 10.958984 L 26.582031 13.005859 A 11 11 0 0 1 26.771484 13.830078 L 28.787109 11.958984 C 28.875459 11.859216 29.038457 11.889162 29.085938 12.013672 C 29.617505 13.407719 29.918823 14.911812 29.976562 16.478516 C 29.981989 16.318327 30 16.16151 30 16 C 30 14.243294 29.676613 12.56273 29.085938 11.013672 C 29.062196 10.951417 29.0089 10.912923 28.951172 10.902344 z M 26.978516 16.429688 A 11 11 0 0 1 16 27 A 11 11 0 0 1 5.0214844 16.585938 A 11 11 0 0 0 5 17 A 11 11 0 0 0 16 28 A 11 11 0 0 0 27 17 A 11 11 0 0 0 26.978516 16.429688 z"/>
</svg>
