<svg xmlns="http://www.w3.org/2000/svg" width="32" height="32" version="1">
 <rect style="opacity:0.2" width="24" height="24" x="-29" y="-28" rx="12" ry="12" transform="matrix(0,-1,-1,0,0,0)"/>
 <rect style="fill:#4ca341" width="24" height="24" x="-28" y="-28" rx="12" ry="12" transform="matrix(0,-1,-1,0,0,0)"/>
 <path style="fill:#8b9cbe;opacity:0.2" d="M 16 4 C 9.352 4 4 9.352 4 16 C 4 16.168838 4.018553 16.3329 4.0253906 16.5 C 4.2877843 10.087544 9.520838 5 16 5 C 22.479162 5 27.712216 10.087544 27.974609 16.5 C 27.981447 16.3329 28 16.168838 28 16 C 28 9.352 22.648 4 16 4 z"/>
 <path style="opacity:0.2" d="M 16,3 A 14,14 0 0 0 9.5,4.609375 14,14 0 0 1 17,17 14,14 0 0 1 9.5,29.390625 14,14 0 0 0 16,31 14,14 0 0 0 30,17 14,14 0 0 0 16,3 Z"/>
 <path style="fill:#b2bfd9" d="M 16 2 A 14 14 0 0 0 9.5 3.609375 A 14 14 0 0 1 17 16 A 14 14 0 0 1 9.5 28.390625 A 14 14 0 0 0 16 30 A 14 14 0 0 0 30 16 A 14 14 0 0 0 16 2 z"/>
 <path style="opacity:0.2;fill:#8b9cbe" d="M 16 2 A 14 14 0 0 0 9.5 3.609375 A 14 14 0 0 1 10.439453 4.1640625 A 14 14 0 0 1 16 3 A 14 14 0 0 1 29.978516 16.585938 A 14 14 0 0 0 30 16 A 14 14 0 0 0 16 2 z M 16.976562 16.470703 A 14 14 0 0 1 9.5 28.390625 A 14 14 0 0 0 10.458984 28.833984 A 14 14 0 0 0 17 17 A 14 14 0 0 0 16.976562 16.470703 z"/>
</svg>
