<svg xmlns="http://www.w3.org/2000/svg" width="32" height="32" version="1.1">
 <path style="opacity:.2" d="m10 3-4.8047 4 0.00195 0.00195l-1.1972 0.998v18l6 5v-17.139l12 17.139 4.8047-4-0.002-0.002 1.197-0.998v-18l-6-5v17.139z"/>
 <path style="fill:#6ba63f" d="m28 7-6-5v28l6-5z"/>
 <path style="fill:#42afe6" d="m4 7 6-5v28l-6-5z"/>
 <path style="fill:#96ca6b" d="m10 2 16.805 24-4.805 4-16.805-24z"/>
 <path style="fill:#569e41" d="m22 19.139v10.861l4.8027-4.002z"/>
 <path style="fill:#70be63" d="m10 2-4.8027 4.002 4.8027 6.859z"/>
 <path style="opacity:.2;fill:#8b9cbe" d="m10 2l-4.8047 4 0.002 0.002-1.1973 0.998v1l1.1973-0.998-0.002-0.002 4.8047-4 12 17.139v-1l-12-17.139zm12 0v1l6 5v-1l-6-5z"/>
</svg>
