<svg xmlns="http://www.w3.org/2000/svg" width="32" height="32" version="1.1">
 <rect style="opacity:0.2" width="28" height="28" x="2" y="3" rx="2.8" ry="2.8"/>
 <rect style="fill:#3e4753" width="28" height="28" x="2" y="2" rx="2.8" ry="2.8"/>
 <path style="opacity:0.2" d="m 10,10 v 2 h 3 v 0.992188 H 10 8 V 15 16 H 7 V 12.992188 H 6 V 14 H 5 v 4 h 1 v 4.042969 H 7 V 18 h 1 v 4.042969 H 9.125 10 10.84375 L 13.59375,24 H 19.78125 22 v -1 h 1 v 1 h 2.708984 L 27,22.685547 V 16.666016 L 25.365234,15 h -1.328125 c -0.04158,0.08563 -0.08406,0.15607 -0.121093,0.207031 -0.116712,0.160612 -0.209012,0.245252 -0.333985,0.367188 -0.241893,0.244748 -0.589844,0.605469 -0.589843,0.605469 L 23,18 h -0.982422 c 0,0 0.08228,-1.157547 -0.04102,-1.041016 -0.455155,0.430182 -0.545846,0.869274 -0.998046,1.369141 0.02641,0.0626 0.06922,0.617952 0.107422,0.671875 H 24 v -1.900391 h 0.509766 L 25,17.535156 v 4.421875 l -0.146484,0.08594 H 24 V 21 h -3 v 1.042969 h -1.21875 -5.5 l -2.75,-2.242188 H 10 V 15 h 5.458984 c 0.126099,-0.231254 0.225226,-0.322771 0.388672,-0.501953 0.218918,-0.239996 0.986324,-0.931813 1.527344,-1.490235 v -0.01367 H 15 V 12 h 3 v -2 z m 11.615234,0 -2.328125,2.351562 c -3.067838,3.098683 -2.967803,2.990645 -2.876953,3.097657 0.05845,0.06883 0.222521,0.08556 0.78711,0.08594 0.754969,5.27e-4 1.332031,0.04927 1.332031,0.111328 0,0.0494 -0.929882,1.13681 -1.625,1.855469 l -0.556641,0.574219 -0.474609,-0.01367 c -0.693224,-0.02028 -0.739041,0.0083 -1.037109,0.632812 -0.320738,0.672011 -0.76953,1.901947 -0.81836,2.140626 -0.03662,0.178983 -0.034,0.180237 0.164063,0.148437 0.217602,-0.03495 3.216165,-1.29597 4.828125,-2.121094 0.748884,-0.38334 1,-0.53892 1,-0.61914 0,-0.07947 -0.05873,-0.116189 -0.22461,-0.142579 -0.486658,-0.07733 -0.429118,-0.193755 1.890625,-2.318359 1.293523,-1.184702 1.550706,-1.387877 1.509766,-1.492187 -0.02891,-0.07366 -0.141344,-0.0912 -0.582031,-0.0957 -0.30029,-0.0031 -0.76451,-0.0243 -1.033204,-0.04492 l -0.488281,-0.03711 1.017578,-1.050781 c 0.44664,-0.427531 1.281185,-1.213788 1.855469,-1.746094 C 24.551903,10.763217 25,10.305047 25,10.246094 c 0,-0.05947 -0.05648,-0.116995 -0.132812,-0.134766 -0.0728,-0.01696 -0.833428,-0.04806 -1.691407,-0.07031 z"/>
 <path style="fill:#8b9cbe" d="m 10,9 v 2 h 3 v 0.993164 H 10 8 V 13.999879 15 H 7 V 11.993164 H 6 V 13 H 5 v 4 h 1 v 4.042383 H 7 V 17 h 1 v 4.042383 H 9.125 10 10.84375 L 13.59375,23 H 19.78125 22 v -1 h 1 v 1 h 2.708252 L 27,21.684766 V 15.665234 L 25.364502,14 h -1.328003 c -0.04158,0.08563 -0.08382,0.155484 -0.12085,0.206445 -0.116712,0.160612 -0.208034,0.245837 -0.333007,0.367773 C 23.340749,14.818966 22.992537,15.179 22.992537,15.179 L 23,17 h -0.983278 c 0,0 0.08239,-1.158251 -0.04091,-1.04172 -0.455156,0.430182 -0.544323,0.869587 -0.996523,1.369454 0.02641,0.0626 0.06922,0.618343 0.107422,0.672266 H 24 v -1.9 h 0.510498 L 25,16.534766 v 4.422851 l -0.14575,0.08477 H 24 V 20 h -3 v 1.042383 h -1.21875 -5.5 L 11.53125,18.8 H 10 v -4.800121 h 5.458863 c 0.126099,-0.231254 0.224615,-0.322576 0.388061,-0.501758 0.218918,-0.239996 0.987056,-0.932863 1.528076,-1.491285 v -0.01367 H 15 V 11 h 3 V 9 Z"/>
 <path style="fill:#ff6600" d="m 14.018307,19.835418 c 0.04883,-0.238678 0.496398,-1.468436 0.817136,-2.140447 0.298069,-0.624528 0.343891,-0.652456 1.037115,-0.632178 l 0.475849,0.01394 0.556207,-0.575049 c 0.695118,-0.718659 1.624587,-1.805825 1.624587,-1.855227 0,-0.06206 -0.576106,-0.109825 -1.331075,-0.110352 -0.564589,-3.73e-4 -0.728813,-0.01866 -0.787263,-0.08749 -0.09085,-0.107012 -0.190966,9.63e-4 2.876872,-3.09772 l 2.327626,-2.3509011 1.55996,0.040466 c 0.857979,0.022248 1.619521,0.054361 1.692321,0.071323 C 24.943972,9.1295539 25,9.1862899 25,9.2457628 c 0,0.058953 -0.447328,0.5177602 -1.044153,1.0709492 -0.574284,0.532306 -1.409588,1.317624 -1.856228,1.745155 l -1.018234,1.052066 0.488536,0.03743 c 0.268694,0.02062 0.73423,0.03996 1.03452,0.04311 0.440687,0.0045 0.552887,0.0233 0.581798,0.09696 0.04094,0.10431 -0.216355,0.306528 -1.509878,1.49123 -2.319743,2.124604 -2.377298,2.240649 -1.89064,2.317976 0.165879,0.02639 0.223586,0.06318 0.223586,0.142651 0,0.08022 -0.251148,0.235684 -1.000032,0.619024 -1.61196,0.825124 -4.610038,2.087024 -4.82764,2.121976 -0.198065,0.0318 -0.199944,0.03011 -0.163328,-0.148874 z"/>
 <path style="fill:#8b9cbe;opacity:0.1" d="M 4.8007812 2 C 3.2495813 2 2 3.2495813 2 4.8007812 L 2 5.8007812 C 2 4.2495813 3.2495813 3 4.8007812 3 L 27.199219 3 C 28.750419 3 30 4.2495813 30 5.8007812 L 30 4.8007812 C 30 3.2495813 28.750419 2 27.199219 2 L 4.8007812 2 z"/>
 <path style="fill:#8b9cbe;opacity:0.2" d="M 21.615234 9 L 19.287109 11.351562 C 16.219271 14.450245 16.319306 14.342207 16.410156 14.449219 C 16.46586 14.514815 16.639755 14.531175 17.142578 14.533203 C 17.554997 14.104424 18.033374 13.617903 19.287109 12.351562 L 21.615234 10 L 23.175781 10.041016 C 23.692959 10.054428 23.877944 10.068885 24.195312 10.083984 C 24.649082 9.652088 25 9.2955485 25 9.2460938 C 25 9.1866209 24.943517 9.1290991 24.867188 9.1113281 C 24.794388 9.0943661 24.03376 9.0632636 23.175781 9.0410156 L 21.615234 9 z M 21.996094 13.167969 L 21.082031 14.113281 L 21.570312 14.150391 C 21.767898 14.165554 22.06359 14.175744 22.330078 14.183594 C 22.924334 13.641738 23.21582 13.368148 23.185547 13.291016 C 23.156636 13.217356 23.044203 13.199813 22.603516 13.195312 C 22.426963 13.19346 22.2133 13.177983 21.996094 13.167969 z M 17.765625 15.554688 C 17.486444 15.870847 17.183197 16.213608 16.904297 16.501953 L 16.347656 17.076172 L 15.873047 17.0625 C 15.179823 17.042222 15.134006 17.070784 14.835938 17.695312 C 14.5152 18.367323 14.066408 19.597259 14.017578 19.835938 C 13.980962 20.014921 13.983576 20.016175 14.181641 19.984375 C 14.189824 19.983061 14.308393 19.932431 14.324219 19.927734 C 14.324432 19.927165 14.324005 19.926351 14.324219 19.925781 C 14.482185 19.504929 14.675785 19.030864 14.835938 18.695312 C 15.134006 18.070784 15.179823 18.042222 15.873047 18.0625 L 16.347656 18.076172 L 16.904297 17.501953 C 17.599415 16.783294 18.529297 15.695886 18.529297 15.646484 C 18.529297 15.603004 18.194597 15.572804 17.765625 15.554688 z"/>
</svg>
