<svg xmlns="http://www.w3.org/2000/svg" width="32" height="32" version="1">
 <path style="opacity:0.2" d="m 19.384766,3.0007783 a 0.93114012,0.97685086 0 0 0 -0.0078,0.00195 0.93114012,0.97685086 0 0 0 -0.408203,0.1210907 l -8.373047,4.8865947 a 0.93114012,0.97685086 0 0 0 -0.392578,0.4413951 l -0.0059,0.011718 -3.1113285,7.0154482 a 0.93114012,0.97685086 0 0 0 -0.00781,0.800761 l 4.8632805,11.737983 0.06445,0.154292 a 0.93114012,0.97685086 0 0 0 0.591797,0.548815 l 7.292969,2.240178 a 0.93114012,0.97685086 0 0 0 0.650391,-0.05078 0.93114012,0.97685086 0 0 0 0.460937,-0.488269 l 1.287109,-3.025314 a 0.93114012,0.97685086 0 0 0 0.06836,-0.23437 L 24.986328,10.994716 A 0.93114012,0.97685086 0 0 0 25,10.81308 0.93114012,0.97685086 0 0 0 24.828125,10.264266 L 20.179688,3.4109241 A 0.93114012,0.97685086 0 0 0 19.570312,3.0124969 0.93114012,0.97685086 0 0 0 19.384766,3.0007783 Z"/>
 <path style="fill:#251c50" d="m 19.393878,2.3513663 c -0.08772,0.00445 -0.173451,0.02973 -0.251499,0.075195 L 10.768561,7.31289 c -0.107073,0.062363 -0.194954,0.1595461 -0.248794,0.280273 v 0.0014 l -0.0054,0.010934 -3.1112799,7.016407 c -0.072816,0.164363 -0.07572,0.35588 -0.00678,0.522266 l 4.8650089,11.738672 0.06355,0.154492 c 0.07106,0.17186 0.20892,0.29625 0.37184,0.347266 l 7.293455,2.24082 c 0.133213,0.04076 0.274706,0.0299 0.401586,-0.03144 0.127542,-0.06145 0.232193,-0.170264 0.292063,-0.310352 l 1.287253,-3.025616 v -0.0014 c 0.02051,-0.04745 0.0357,-0.09872 0.04462,-0.150391 L 24.644245,9.9364901 h 0.0014 c 0.0064,-0.039242 0.0087,-0.079059 0.0081,-0.1189454 C 24.651597,9.688716 24.612579,9.565103 24.542868,9.4620756 L 19.894171,2.6083975 c -0.09277,-0.136736 -0.229896,-0.2258501 -0.381304,-0.2515625 -0.03933,-0.00657 -0.07927,-0.00757 -0.118989,-0.00547 z"/>
 <path style="fill:#4a37a0" d="m 11.732666,12.140555 0.209581,14.876746 0.06355,0.154495 a 0.93114012,0.97687565 0 0 0 0.590886,0.548257 l 7.293457,2.240877 a 0.93114012,0.97687565 0 0 0 0.65038,-0.05059 z"/>
 <path style="fill:#6d55d2" d="m 19.5805,6.2232168 -7.847834,5.9173382 8.807855,17.769788 a 0.93114012,0.97687565 0 0 0 0.46108,-0.488099 l 1.28724,-3.025663 a 0.93114012,0.97687565 0 0 0 0.06896,-0.233794 L 24.986365,9.9940161 a 0.93114012,0.97687565 0 0 0 0.01352,-0.1818411 z"/>
 <path style="fill:#4a37a0" d="M 19.376326,2.0012347 A 0.93114012,0.97687565 0 0 0 18.969331,2.1229174 L 10.595513,7.00937 a 0.93114012,0.97687565 0 0 0 -0.392121,0.4416125 l -0.0054,0.012306 1.534682,4.6772675 7.847834,-5.9173385 -0.01082,-4.2110444 a 0.93114012,0.97687565 0 0 0 -0.193357,-0.010938 z"/>
 <path style="fill:#412e8b" d="M 10.197984,7.4632878 7.0867039,14.478505 a 0.93114012,0.97687565 0 0 0 -0.00946,0.801192 L 11.942249,27.017301 11.732667,12.140555 Z"/>
 <path style="fill:#9782f1" d="m 19.569683,2.0121724 0.01082,4.2110444 5.419387,3.5889582 A 0.93114012,0.97687565 0 0 0 24.828165,9.2639196 L 20.179499,2.4100342 A 0.93114012,0.97687565 0 0 0 19.569683,2.0121724 Z"/>
 <path style="opacity:0.2;fill:#8b9cbe" d="M 19.570312 2.0117188 L 19.572266 3.0117188 A 0.93114012 0.97687565 0 0 1 20.179688 3.4101562 L 24.132812 9.2382812 L 25 9.8125 A 0.93114012 0.97687565 0 0 0 24.953125 9.5234375 A 0.93114012 0.97687565 0 0 0 24.919922 9.4335938 A 0.93114012 0.97687565 0 0 0 24.828125 9.2636719 L 20.179688 2.4101562 A 0.93114012 0.97687565 0 0 0 19.828125 2.0976562 A 0.93114012 0.97687565 0 0 0 19.570312 2.0117188 z"/>
 <path style="opacity:0.1;fill:#8b9cbe" d="M 19.384766 2 A 0.93114012 0.97687565 0 0 0 19.376953 2.0019531 A 0.93114012 0.97687565 0 0 0 18.96875 2.1230469 L 10.595703 7.0097656 A 0.93114012 0.97687565 0 0 0 10.203125 7.4511719 L 10.197266 7.4628906 L 7.0859375 14.478516 A 0.93114012 0.97687565 0 0 0 7.078125 15.279297 L 7.125 15.390625 L 10.197266 8.4628906 L 10.203125 8.4511719 A 0.93114012 0.97687565 0 0 1 10.595703 8.0097656 L 18.96875 3.1230469 A 0.93114012 0.97687565 0 0 1 19.376953 3.0019531 A 0.93114012 0.97687565 0 0 1 19.384766 3 A 0.93114012 0.97687565 0 0 1 19.570312 3.0117188 A 0.93114012 0.97687565 0 0 1 19.572266 3.0117188 L 19.570312 2.0117188 A 0.93114012 0.97687565 0 0 0 19.384766 2 z"/>
</svg>
