<svg xmlns="http://www.w3.org/2000/svg" width="32" height="32" version="1">
 <path style="opacity:0.2" d="M 16,4 C 13.184854,4 10.37054,5.0747728 8.2226562,7.2226562 6.0747729,9.37054 5,12.184854 5,15 5,17.815146 6.0747728,20.62946 8.2226562,22.777344 10.37054,24.925227 13.184854,26 16,26 18.815146,26 21.62946,24.925227 23.777344,22.777344 25.925227,20.62946 27,17.815146 27,15 27,12.184854 25.925227,9.37054 23.777344,7.2226562 21.62946,5.0747729 18.815146,4 16,4 Z m 0,7 A 4,4 0 0 1 18.826172,12.173828 4,4 0 0 1 20,15 4,4 0 0 1 18.826172,17.826172 4,4 0 0 1 17.623047,18.650391 L 20,24 h -4 -4 l 2.376953,-5.347656 A 4,4 0 0 1 13.173828,17.826172 4,4 0 0 1 12,15 4,4 0 0 1 13.173828,12.173828 4,4 0 0 1 16,11 Z"/>
 <path style="fill:#ffc107" d="M 16 3 C 13.184854 3 10.37054 4.0747728 8.2226562 6.2226562 L 13.173828 11.173828 A 4 4 0 0 1 16 10 L 16 3 z"/>
 <path style="fill:#53dd22" d="M 16 3 L 16 10 A 4 4 0 0 1 18.826172 11.173828 L 23.777344 6.2226562 C 21.62946 4.0747729 18.815146 3 16 3 z"/>
 <path style="fill:#ab47bc" d="M 13.173828 16.826172 L 8.2226562 21.777344 C 10.37054 23.925227 13.184854 25 16 25 L 16 23 L 12 23 L 14.376953 17.652344 A 4 4 0 0 1 13.173828 16.826172 z"/>
 <path style="fill:#3f51b5" d="M 18.826172 16.826172 A 4 4 0 0 1 17.623047 17.650391 L 20 23 L 16 23 L 16 25 C 18.815146 25 21.62946 23.925227 23.777344 21.777344 L 18.826172 16.826172 z"/>
 <path style="fill:#42fffd" d="M 23.777344 6.2226562 L 18.826172 11.173828 A 4 4 0 0 1 20 14 L 27 14 C 27 11.184854 25.925227 8.37054 23.777344 6.2226562 z"/>
 <path style="fill:#039af4" d="M 20 14 A 4 4 0 0 1 18.826172 16.826172 L 23.777344 21.777344 C 25.925227 19.62946 27 16.815146 27 14 L 20 14 z"/>
 <path style="fill:#ff8e13" d="M 8.2226562 6.2226562 C 6.0747728 8.37054 5 11.184854 5 14 L 12 14 A 4 4 0 0 1 13.173828 11.173828 L 8.2226562 6.2226562 z"/>
 <path style="fill:#fd3b2d" d="M 5 14 C 5 16.815146 6.0747728 19.62946 8.2226562 21.777344 L 13.173828 16.826172 A 4 4 0 0 1 12 14 L 5 14 z"/>
 <path style="opacity:0.2;fill:#8b9cbe" d="M 16 3 C 13.184854 3 10.37054 4.0747728 8.2226562 6.2226562 C 6.074773 8.37054 5 11.184854 5 14 C 5 14.166813 5.0158903 14.333331 5.0234375 14.5 C 5.1432572 11.853959 6.2020471 9.2432658 8.2226562 7.2226562 C 10.37054 5.0747728 13.184854 4 16 4 C 18.815146 4 21.62946 5.0747729 23.777344 7.2226562 C 25.797953 9.2432658 26.856743 11.853959 26.976562 14.5 C 26.98411 14.333331 27 14.166813 27 14 C 27 11.184854 25.925227 8.37054 23.777344 6.2226562 C 21.62946 4.0747729 18.815146 3 16 3 z M 12.035156 14.494141 A 4 4 0 0 0 12 15 A 4 4 0 0 0 13.173828 17.826172 A 4 4 0 0 0 14.013672 18.46875 L 14.376953 17.652344 A 4 4 0 0 1 13.173828 16.826172 A 4 4 0 0 1 12.035156 14.494141 z M 19.964844 14.505859 A 4 4 0 0 1 18.826172 16.826172 A 4 4 0 0 1 17.623047 17.650391 L 17.984375 18.462891 A 4 4 0 0 0 18.826172 17.826172 A 4 4 0 0 0 20 15 A 4 4 0 0 0 19.964844 14.505859 z M 12.445312 23 L 12 24 L 16 24 L 20 24 L 19.556641 23 L 16 23 L 12.445312 23 z"/>
 <path style="opacity:0.2" d="M 13.333984,23 C 12.595318,23 12,23.624791 12,24.400391 v 4.199218 C 12,29.375209 12.595318,30 13.333984,30 H 14 v 0.333984 C 14,30.703318 14.296682,31 14.666016,31 h 2.667968 C 17.703318,31 18,30.703318 18,30.333984 V 30 h 0.666016 C 19.404682,30 20,29.375209 20,28.599609 V 24.400391 C 20,23.624791 19.404682,23 18.666016,23 Z"/>
 <rect style="fill:#4f4f4f" width="8" height="7" x="12" y="22" rx="1.333" ry="1.4"/>
 <rect style="fill:#4f4f4f" width="4" height="4" x="14" y="26" rx=".667" ry=".667"/>
</svg>
