<svg xmlns="http://www.w3.org/2000/svg" width="32" height="32" version="1">
 <circle style="opacity:0.2" cx="16" cy="17" r="14"/>
 <circle style="fill:#4bae4f" cx="16" cy="16" r="14"/>
 <path style="opacity:0.2" d="M 10,22 H 22 V 12 H 10 Z m 1,-9 h 4 v 2 h -4 z m 5,0 h 5 v 2 h -5 z m -5,3 h 4 v 2 h -4 z m 5,0 h 5 v 2 h -5 z m -5,3 h 4 v 2 h -4 z m 5,0 h 5 v 2 h -5 z"/>
 <path style="fill:#8b9cbe" d="M 10,21 H 22 V 11 H 10 Z m 1,-9 h 4 v 2 h -4 z m 5,0 h 5 v 2 h -5 z m -5,3 h 4 v 2 h -4 z m 5,0 h 5 v 2 h -5 z m -5,3 h 4 v 2 h -4 z m 5,0 h 5 v 2 h -5 z"/>
 <path style="opacity:0.2;fill:#8b9cbe" d="M 16 2 A 14 14 0 0 0 2 16 A 14 14 0 0 0 2.0214844 16.585938 A 14 14 0 0 1 16 3 A 14 14 0 0 1 29.978516 16.414062 A 14 14 0 0 0 30 16 A 14 14 0 0 0 16 2 z"/>
</svg>
