<svg xmlns="http://www.w3.org/2000/svg" width="32" height="32" version="1.1">
 <circle style="opacity:0.2" cx="16" cy="17" r="14"/>
 <path style="opacity:0.2;fill:#8b9cbe" d="M 16,2 A 14,14 0 0 0 2.0987,14.4964 14,13.3 0 0 1 16,2.7 14,13.3 0 0 1 29.9454,14.9129 14,14 0 0 0 16,2 Z M 29.9454,14.9129 A 14,14 0 0 1 30,16 14,13.3 0 0 0 29.9454,14.9129 Z M 2.0987,14.4964 A 14,13.3 0 0 0 2.06454,14.7708 14,14 0 0 1 2.0987,14.4964 Z M 2.06454,14.7708 A 14,14 0 0 0 2.00028,16 14,13.3 0 0 1 2.06454,14.7708 Z"/>
 <path style="fill:#3168b2" d="M 16,2 C 8.2680135,2 2,8.2680135 2,16 c 0,6.01884 3.7981614,11.150573 9.128421,13.129134 1.517155,0.563159 2.932018,-1.657436 4.645164,-1.657436 7.731986,0 12.943396,-3.66424 12.943396,-11.396226 0,-6.2362896 -3.020956,-10.1239879 -8.655426,-11.9348994 C 19.850235,4.0726547 19.86314,2.5379238 19.647573,2.4799093 18.484623,2.1669294 17.261806,2 16,2 Z"/>
 <path style="opacity:0.2" d="M 19.550781 3.4667969 C 17.289944 4.7442906 11.53277 8.4150993 12 11.648438 C 12.646551 16.12272 21.724388 15.365684 22 18.867188 C 22.326306 23.012723 16.085668 27.186341 12.009766 29.412109 A 14 14 0 0 0 16 30 A 14 14 0 0 0 29.976562 16.460938 C 29.737159 10.327886 25.528712 5.034121 19.550781 3.4667969 z"/>
 <path style="fill:#b2bfd9" d="M 19.550586,2.4662109 C 17.289749,3.7437046 11.53277,7.4154898 12,10.648828 c 0.646551,4.474283 9.724388,3.717247 10,7.21875 0.357806,4.545728 -7.212703,9.153681 -11.12832,11.15625 C 12.504797,29.667872 14.244476,29.999019 16,30 23.731986,30 30,23.731986 30,16 29.996142,9.6386386 25.703968,4.0795358 19.550586,2.4662109 Z"/>
 <path style="opacity:0.2" d="M 3.8945312,10 C 3.3824071,10.885479 2.9696518,12.024417 2.6621094,13 L 6,13 6,21 2.6484375,21 c 0.3105896,0.975983 0.7267557,2.114936 1.2421875,3 l 0.9101562,0 2.7988282,0 6.9999996,0 2.800782,0 7,0 2.798828,0 0.90625,0 c 0.177597,-0.30707 0.338735,-0.649351 0.492187,-1 L 28,23 l 0,-1 0.986328,0 c 0.122469,-0.338438 0.251269,-0.681851 0.351563,-1 L 27,21 l 0,-8 2.351562,0 C 29.250273,12.681712 29.119621,12.338495 28.996094,12 L 28,12 l 0,-1 0.603516,0 C 28.448945,10.649492 28.288072,10.306846 28.109375,10 L 3.8945312,10 Z M 4,11 l 1,0 0,1 -1,0 0,-1 z m 3,0 1,0 0,1 -1,0 0,-1 z m 3,0 1,0 0,1 -1,0 0,-1 z m 3,0 1,0 0,1 -1,0 0,-1 z m 3,0 1,0 0,1 -1,0 0,-1 z m 3,0 1,0 0,1 -1,0 0,-1 z m 3,0 1,0 0,1 -1,0 0,-1 z m 3,0 1,0 0,1 -1,0 0,-1 z m -16,2 6,0 0,8 -6,0 0,-8 z m 9,0 6,0 0,8 -6,0 0,-8 z m -14,9 1,0 0,1 -1,0 0,-1 z m 3,0 1,0 0,1 -1,0 0,-1 z m 3,0 1,0 0,1 -1,0 0,-1 z m 3,0 1,0 0,1 -1,0 0,-1 z m 3,0 1,0 0,1 -1,0 0,-1 z m 3,0 1,0 0,1 -1,0 0,-1 z m 3,0 1,0 0,1 -1,0 0,-1 z m 3,0 1,0 0,1 -1,0 0,-1 z"/>
 <path style="fill:#3c3c3c" d="M 3.8945312 9 C 3.3824071 9.8854787 2.9696518 11.024417 2.6621094 12 L 6 12 L 6 20 L 2.6484375 20 C 2.9590271 20.975983 3.3751932 22.114936 3.890625 23 L 4.8007812 23 L 7.5996094 23 L 14.599609 23 L 17.400391 23 L 24.400391 23 L 27.199219 23 L 28.105469 23 C 28.283066 22.69293 28.444204 22.350649 28.597656 22 L 28 22 L 28 21 L 28.986328 21 C 29.108797 20.661562 29.237597 20.318149 29.337891 20 L 27 20 L 27 12 L 29.351562 12 C 29.250273 11.681712 29.119621 11.338495 28.996094 11 L 28 11 L 28 10 L 28.603516 10 C 28.448945 9.649492 28.288072 9.306846 28.109375 9 L 3.8945312 9 z M 4 10 L 5 10 L 5 11 L 4 11 L 4 10 z M 7 10 L 8 10 L 8 11 L 7 11 L 7 10 z M 10 10 L 11 10 L 11 11 L 10 11 L 10 10 z M 13 10 L 14 10 L 14 11 L 13 11 L 13 10 z M 16 10 L 17 10 L 17 11 L 16 11 L 16 10 z M 19 10 L 20 10 L 20 11 L 19 11 L 19 10 z M 22 10 L 23 10 L 23 11 L 22 11 L 22 10 z M 25 10 L 26 10 L 26 11 L 25 11 L 25 10 z M 9 12 L 15 12 L 15 20 L 9 20 L 9 12 z M 18 12 L 24 12 L 24 20 L 18 20 L 18 12 z M 4 21 L 5 21 L 5 22 L 4 22 L 4 21 z M 7 21 L 8 21 L 8 22 L 7 22 L 7 21 z M 10 21 L 11 21 L 11 22 L 10 22 L 10 21 z M 13 21 L 14 21 L 14 22 L 13 22 L 13 21 z M 16 21 L 17 21 L 17 22 L 16 22 L 16 21 z M 19 21 L 20 21 L 20 22 L 19 22 L 19 21 z M 22 21 L 23 21 L 23 22 L 22 22 L 22 21 z M 25 21 L 26 21 L 26 22 L 25 22 L 25 21 z"/>
 <path style="opacity:0.1;fill:#8b9cbe" d="M 16 2 A 14 14 0 0 0 2 16 A 14 14 0 0 0 2.0214844 16.585938 A 14 14 0 0 1 16 3 A 14 14 0 0 1 29.978516 16.414062 A 14 14 0 0 0 30 16 A 14 14 0 0 0 16 2 z"/>
</svg>
