<svg xmlns="http://www.w3.org/2000/svg" width="32" height="32" version="1">
 <circle style="opacity:0.2" cx="16" cy="17" r="14"/>
 <circle style="fill:#ff5722" cx="16" cy="16" r="14"/>
 <path style="opacity:0.2" d="m 12,14 c -1.104586,0 -2,0.895414 -2,2 0,1.104586 0.895414,2 2,2 1.104586,0 2,-0.895414 2,-2 h -2 z m 4,0 v 1 h 6 v -1 z m 0,3 v 1 h 6 v -1 z m -6,3 v 1 h 10 v -1 z"/>
 <path style="fill:#8b9cbe" d="M 12 13 C 10.895414 13 10 13.895414 10 15 C 10 16.104586 10.895414 17 12 17 C 13.104586 17 14 16.104586 14 15 L 12 15 L 12 13 z M 16 13 L 16 14 L 22 14 L 22 13 L 16 13 z M 16 16 L 16 17 L 22 17 L 22 16 L 16 16 z M 10 19 L 10 20 L 20 20 L 20 19 L 10 19 z"/>
 <path style="opacity:0.2;fill:#8b9cbe" d="M 16 2 A 14 14 0 0 0 2 16 A 14 14 0 0 0 2.0214844 16.585938 A 14 14 0 0 1 16 3 A 14 14 0 0 1 29.978516 16.414062 A 14 14 0 0 0 30 16 A 14 14 0 0 0 16 2 z"/>
</svg>
