<svg xmlns="http://www.w3.org/2000/svg" width="32" height="32" version="1.1">
 <path style="opacity:0.2" d="M 16,3 A 14,14 0 0 0 2,17 14,14 0 0 0 16,31 14,14 0 0 0 19,30.658203 14,14 0 0 1 8,17 14,14 0 0 1 18.974609,3.3417969 14,14 0 0 0 16,3 Z"/>
 <path style="opacity:0.2" d="m 16,6.5 c 1.220322,2.088736 1.433846,4.19097 1.351562,6.292969 -0.504264,-0.204744 -1.034532,-0.383445 -1.621093,-0.513672 -5.092405,-1.130608 -4.971424,1.520421 -7.074219,2.501953 2.418655,-0.01246 4.346004,0.854579 6.125,1.976562 -0.429006,0.334099 -0.850194,0.704054 -1.255859,1.146485 -3.525336,3.844848 -1.167775,5.065113 -1.369141,7.376953 1.198736,-2.101196 2.913867,-3.336667 4.775391,-4.316406 0.07482,0.539093 0.184728,1.087047 0.365234,1.660156 1.567068,4.975455 3.801696,3.544693 5.703125,4.875 -1.220322,-2.088736 -1.433846,-4.19097 -1.351562,-6.292969 0.504264,0.204744 1.034532,0.383445 1.621093,0.513672 5.092404,1.130607 4.971424,-1.520421 7.074219,-2.501953 -2.418656,0.01246 -4.346004,-0.854579 -6.125,-1.976562 0.429006,-0.334099 0.850194,-0.704054 1.255859,-1.146485 3.525336,-3.844848 1.167775,-5.065113 1.369141,-7.376953 -1.198736,2.101195 -2.913867,3.336667 -4.775391,4.316406 C 21.993541,12.496063 21.883631,11.948109 21.703125,11.375 20.136057,6.3995443 17.901429,7.8303073 16,6.5 Z"/>
 <path style="fill:#ca994c" d="M 26.843267,7.7189111 C 24.843881,11.223518 21.419424,12.337298 18.24834,13.832061 v 0 c -1.676352,0.708811 -3.279373,1.498332 -4.722532,3.072288 -3.525336,3.844848 -1.167709,5.0649 -1.369075,7.37674 1.999386,-3.504608 5.423843,-4.618387 8.594927,-6.11315 v 0 c 1.676352,-0.708811 3.279373,-1.498332 4.722532,-3.072288 3.525336,-3.844848 1.167709,-5.0649 1.369075,-7.3767399 z"/>
 <path style="fill:#ca994c" d="M 16 2 A 14 14 0 0 0 2 16 A 14 14 0 0 0 16 30 A 14 14 0 0 0 19 29.658203 A 14 14 0 0 1 8 16 A 14 14 0 0 1 18.974609 2.3417969 A 14 14 0 0 0 16 2 z"/>
 <path style="fill:#ca994c" d="m 30.343267,18.218911 c -4.034772,0.02078 -6.711562,-2.387993 -9.591607,-4.38685 v 0 c -1.452025,-1.097357 -2.93728,-2.090854 -5.021945,-2.553688 -5.092405,-1.130608 -4.970187,1.521184 -7.0729817,2.502716 4.0347717,-0.02078 6.7115617,2.387992 9.5916067,4.38685 v 0 c 1.452024,1.097357 2.93728,2.090854 5.021945,2.553688 5.092404,1.130607 4.970187,-1.521184 7.072982,-2.502716 z"/>
 <path style="fill:#ca994c" d="m 16,5.5 c 2.035386,3.4838223 1.287719,7.006379 0.99668,10.5 v 0 c -0.224327,1.806169 -0.342093,3.589186 0.299413,5.625976 C 18.863161,26.601431 21.098571,25.169693 23,26.5 20.964613,23.016178 21.712281,19.493621 22.00332,16 v 0 C 22.227647,14.193831 22.345412,12.410814 21.703907,10.374024 20.136839,5.3985683 17.901429,6.8303073 16,5.5 Z"/>
 <path style="opacity:0.25" d="m 16,5.5 c 1.220821,2.0895896 1.440417,4.1931141 1.357852,6.295972 L 19.55332,16 v 0 C 19.707352,14.186483 19.895412,12.410814 19.253907,10.374024 18.571749,8.2081663 17.355649,6.438287 16.399218,5.7365234 16.264743,5.6678701 16.131608,5.5920773 16,5.5 Z"/>
 <path style="opacity:0.25" d="m 19.55332,16 c -0.220921,2.601058 -0.74489,7.962856 3.076172,10.275782 l 0.0014,0.0014 C 22.755239,26.342145 22.878102,26.414715 23,26.5 21.781978,24.4152 21.560596,22.31653 21.641585,20.21849 Z"/>
 <path style="opacity:0.25" d="m 26.843267,7.7189111 c -1.199228,2.1020566 -2.911135,3.3439949 -4.773546,4.3239209 l -2.543061,4.003345 v 0 c 1.647567,-0.773364 3.279372,-1.498333 4.722532,-3.072288 1.534609,-1.673695 2.459319,-3.6118077 2.588848,-4.7909829 -0.0078,-0.1507856 -0.0087,-0.3039806 0.0053,-0.463995 z"/>
 <path style="opacity:0.25" d="m 19.52666,16.046177 c -2.363043,1.109205 -7.26848,3.336334 -7.361002,7.801933 l -5.12e-4,0.0019 c 0.0059,0.14017 0.0045,0.282858 -0.0084,0.431066 1.196478,-2.097237 2.903289,-3.338295 4.76074,-4.317177 z"/>
 <path style="opacity:0.25" d="m 30.343267,18.218911 c -2.420049,0.01247 -4.351552,-0.84912 -6.131398,-1.972051 L 19.47334,16.046177 v 0 c 1.493535,1.040153 2.93728,2.090853 5.021945,2.553688 2.216767,0.492163 4.357577,0.323929 5.443537,-0.153483 0.126693,-0.08213 0.258899,-0.159534 0.404445,-0.227471 z"/>
 <path style="opacity:0.25" d="M 19.47334,16.046177 C 17.331218,14.554324 12.94975,11.419655 9.0361662,13.572329 l -0.00189,5.12e-4 c -0.1184337,0.07521 -0.2427131,0.145324 -0.3775205,0.208248 2.4145003,-0.01244 4.3426933,0.845174 6.1191553,1.964333 z"/>
 <path style="opacity:0.25" d="M 17.451172 2.09375 A 14 14 0 0 0 5 16 A 14 14 0 0 0 17.509766 29.904297 A 14 14 0 0 0 19 29.658203 A 14 14 0 0 1 8 16 A 14 14 0 0 1 18.974609 2.3417969 A 14 14 0 0 0 17.451172 2.09375 z"/>
 <path style="opacity:0.2;fill:#8b9cbe" d="m 16,5.5 c 0.262976,0.4501172 0.471856,0.9003291 0.648438,1.3515625 1.744006,0.7352362 3.662723,0.1039372 5.054687,4.5234375 0.08046,0.255444 0.14367,0.505061 0.199219,0.751953 0.0563,-0.02903 0.109979,-0.0623 0.166015,-0.0918 C 21.993541,11.496063 21.883631,10.948109 21.703125,10.375 20.136057,5.3995443 17.901429,6.8303073 16,5.5 Z m -2.632812,5.505859 c -2.761564,0.07789 -3.002417,1.977896 -4.710938,2.775391 0.4250753,-0.0022 0.829976,0.03133 1.2265625,0.08008 1.1137415,-1.116918 1.9743715,-2.441972 5.8476565,-1.582031 0.586561,0.130227 1.116831,0.308928 1.621093,0.513672 0.01305,-0.333402 0.0027,-0.666641 -0.002,-1 -0.503764,-0.20446 -1.033227,-0.383589 -1.61914,-0.513672 -0.954826,-0.211989 -1.725999,-0.291412 -2.363281,-0.273438 z m 8.714843,1.021485 c -14.721354,13.315104 -7.360677,6.657552 0,0 z m -8.001953,4.328125 c -0.187149,0.17231 -0.37307,0.35075 -0.554687,0.548828 -1.808034,1.971902 -2.063969,3.251241 -1.916016,4.34375 0.128831,-0.885571 0.62735,-1.938288 1.916016,-3.34375 0.405665,-0.442431 0.826853,-0.812386 1.255859,-1.146485 -0.228187,-0.143913 -0.46738,-0.268136 -0.701172,-0.402343 z"/>
 <path style="opacity:0.2;fill:#8b9cbe" d="M 16,2 C 8.2680135,2 2,8.2680135 2,16 c 0.00512,0.138119 0.012279,0.276155 0.021484,0.414062 C 2.3353994,8.9201253 8.4994929,3.0049383 16,3 c 0.250991,0.00758 0.501733,0.021905 0.751953,0.042969 0.720109,-0.2950939 1.46357,-0.5296303 2.222656,-0.7011719 C 17.998142,2.1218573 17.000904,2.0072699 16,2 Z"/>
</svg>
