<svg xmlns="http://www.w3.org/2000/svg" width="32" height="32" version="1">
 <path style="opacity:0.2" d="M 28.723754,6.2717132 16.636762,2.0234376 c -0.08878,-0.03125 -0.18565,-0.03125 -0.274432,0 L 4.2753382,6.2717132 C 4.1103993,6.3296912 4,6.4851218 4,6.6594676 4,10.958731 5.141453,15.928567 7.1317759,20.294608 8.7461807,23.836537 11.64932,28.56122 16.311092,30.95436 16.370418,30.98479 16.435187,31 16.500041,31 c 0.06485,0 0.129625,-0.01521 0.188949,-0.04564 4.661525,-2.393633 7.564582,-7.118234 9.179316,-10.659752 C 27.858547,15.928238 29,10.958073 29,6.6594676 29,6.4851218 28.889601,6.3296913 28.724662,6.2717132 Z"/>
 <path style="fill:#e8604d" d="M 28.723754,5.2717132 16.636762,1.0234376 c -0.08878,-0.0312503 -0.18565,-0.0312503 -0.274432,0 L 4.2753382,5.2717132 C 4.1103993,5.3296912 4,5.4851218 4,5.6594676 4,9.9587306 5.141453,14.928567 7.1317759,19.294608 8.7461807,22.836537 11.64932,27.56122 16.311092,29.95436 16.370418,29.98479 16.435187,30 16.500041,30 c 0.06485,0 0.129625,-0.01521 0.188949,-0.04564 4.661525,-2.393633 7.564582,-7.118234 9.179316,-10.659752 C 27.858547,14.928238 29,9.958073 29,5.6594676 29,5.4851218 28.889601,5.3296913 28.724662,5.2717132 Z"/>
 <path style="fill:#8b9cbe;opacity:0.1" d="M 16.363281 1.0234375 L 4.2753906 5.2714844 C 4.1104517 5.3294624 4 5.4858104 4 5.6601562 C 4 5.957651 4.0184628 6.2648652 4.0292969 6.5683594 C 4.0619584 6.4358262 4.1422179 6.3182962 4.2753906 6.2714844 L 16.363281 2.0234375 C 16.452063 1.9921875 16.547939 1.9921875 16.636719 2.0234375 L 28.724609 6.2714844 C 28.857782 6.3182963 28.938042 6.4358263 28.970703 6.5683594 C 28.981537 6.2649016 29 5.9576055 29 5.6601562 C 29 5.4858104 28.889548 5.3294625 28.724609 5.2714844 L 16.636719 1.0234375 C 16.547939 0.9921872 16.452063 0.9921872 16.363281 1.0234375 z"/>
 <path style="opacity:0.1" d="m 23.789062,7.5148741 a 1.0001,1.0001 0 0 0 -0.77539,0.3320312 L 3.2636719,29.321515 a 1.0007509,1.0007509 0 1 0 1.4726562,1.355468 L 24.486328,9.200421 A 1.0001,1.0001 0 0 0 23.789062,7.5148741 Z"/>
 <path style="fill:none;stroke:#795b42;stroke-width:2;stroke-linecap:round" d="M 4,29 23.750458,7.5251371"/>
 <path style="fill:none;stroke:#b1b1b2;stroke-width:0.482732" d="m 16.616356,15.777856 c -0.581791,1.22438 -0.593065,2.269365 0.738779,3.284371 1.331845,1.015004 2.312384,0.726733 3.315098,0.34433"/>
 <path style="opacity:0.2" d="M 3.7028486,3.0696716 A 1.0149052,1.573103 33.145248 0 0 2.3593065,3.9434449 1.0149052,1.573103 33.145248 0 0 2.3489398,5.8154456 1.0149052,1.573103 33.145248 0 0 2.9761607,5.8981795 L 20.535537,19.265 22.100409,17.209617 4.4000789,3.7355496 A 1.0149052,1.573103 33.145248 0 0 4.0691432,3.1811621 1.0149052,1.573103 33.145248 0 0 3.7028522,3.0696716 Z"/>
 <path style="fill:#b1b1b2" d="M 3.7028486,2.0696716 A 1.0149052,1.573103 33.145248 0 0 2.3593065,2.9434449 1.0149052,1.573103 33.145248 0 0 2.3489398,4.8154456 1.0149052,1.573103 33.145248 0 0 2.9761607,4.8981795 L 20.535537,18.265 22.100409,16.209617 4.4000789,2.7355496 A 1.0149052,1.573103 33.145248 0 0 4.0691432,2.1811621 1.0149052,1.573103 33.145248 0 0 3.7028522,2.0696716 Z"/>
 <path style="opacity:0.2;fill:#8b9cbe" d="M 3.703125 2.0703125 A 1.0149052 1.573103 33.145248 0 0 2.359375 2.9433594 A 1.0149052 1.573103 33.145248 0 0 2.0898438 4.5039062 A 1.0149052 1.573103 33.145248 0 1 2.359375 3.9433594 A 1.0149052 1.573103 33.145248 0 1 3.703125 3.0703125 A 1.0149052 1.573103 33.145248 0 1 4.0683594 3.1816406 A 1.0149052 1.573103 33.145248 0 1 4.4003906 3.7363281 L 21.617188 16.841797 L 22.099609 16.208984 L 4.4003906 2.7363281 A 1.0149052 1.573103 33.145248 0 0 4.0683594 2.1816406 A 1.0149052 1.573103 33.145248 0 0 3.703125 2.0703125 z"/>
 <path style="fill:#989898" d="m 7.9272732,5.1673595 0.9885249,0.7342313 c 0.058088,0.043138 0.092906,0.1595897 0.024469,0.1830794 -0.7423069,0.2547885 -1.696353,0.5853919 -1.4849647,1.929597 0.011245,0.071479 -0.1249926,0.067615 -0.1830801,0.024462 L 6.2837021,7.3045012 C 6.2256153,7.2613628 6.2448072,7.1923246 6.2592372,7.121421 6.4571793,6.1485673 7.0295419,5.647965 7.7442003,5.1918248 7.8051886,5.1528958 7.8691929,5.1242113 7.9272804,5.1673563 Z"/>
 <path style="fill:#989898" d="m 13.695495,9.5798028 0.988525,0.7342312 c 0.05809,0.04314 0.09291,0.159589 0.02447,0.183079 -0.742307,0.254789 -1.696353,0.585392 -1.484965,1.929597 0.01124,0.07148 -0.124993,0.06761 -0.18308,0.02446 l -0.988521,-0.734228 c -0.05809,-0.04314 -0.0389,-0.112176 -0.02446,-0.18308 0.197942,-0.972854 0.770305,-1.473456 1.484963,-1.9295955 0.06099,-0.038926 0.124993,-0.067615 0.183081,-0.024469 z"/>
 <path style="fill:#989898" d="m 19.481842,13.960345 0.988525,0.734231 c 0.05809,0.04314 0.09291,0.15959 0.02447,0.183079 -0.742306,0.254789 -1.696353,0.685334 -1.484964,2.029539 0.01124,0.07148 -0.12499,0.06761 -0.18308,0.02446 l -0.988521,-0.734228 c -0.05809,-0.04314 -0.0389,-0.112176 -0.02446,-0.18308 0.197942,-0.972854 0.770305,-1.573398 1.484963,-2.029537 0.06099,-0.03893 0.124993,-0.06762 0.18308,-0.02447 z"/>
 <path style="fill:#b1b1b2" d="M 20.425061,17.974985 V 18.7 H 17.525 Z"/>
 <path style="opacity:0.1" d="m 29.896206,28.510863 c 0.154824,0.694075 0.105297,0.676914 -0.462315,1.107603 -0.69774,0.577275 -1.423711,1.152054 -2.253211,1.30883 -0.267182,0.05076 -0.555269,0.09207 -0.858429,0.06316 -0.495471,-0.03532 -0.619708,-0.198452 -0.86501,-0.609043 L 21.518463,23.788643 21.133382,22.083732 19.39193,20.305363 15.829543,17.429321 10.722429,13.306196 C 10.522047,12.89119 10.183695,12.420998 9.766383,11.919221 9.5308463,11.636011 8.7687827,11.096347 8.4456456,10.84979 6.8862849,9.6599794 6.0247019,8.849993 5.7511546,8.3887434 5.6055602,7.7997439 5.998078,7.8667571 6.3520799,8.1481949 L 16.782038,16.440184 c 0.752192,0.5467 1.44338,1.07815 2.524965,1.707199 0.671371,0.123397 1.393661,-0.143377 1.877693,-0.601626 0.26296,-0.301096 0.318799,-0.498632 0.418963,-0.718331 1.177548,0.624562 1.535805,0.793883 1.313594,2.574441 l 0.264052,1.110707 0.989812,3.184476 4.951898,3.611426 c 0.531217,0.272391 0.678546,0.705487 0.773191,1.202387 z"/>
 <path style="fill:#664117" d="m 29.896206,27.510863 c 0.154824,0.694075 0.105297,0.676914 -0.462315,1.107603 -0.69774,0.577275 -1.423711,1.152054 -2.253211,1.30883 -0.267182,0.05076 -0.555269,0.09207 -0.858429,0.06316 -0.495471,-0.03532 -0.619708,-0.198452 -0.86501,-0.609043 L 21.518463,22.788643 21.133382,21.083732 19.39193,19.305363 15.829543,16.429321 10.722429,12.306196 C 10.522047,11.89119 10.183695,11.420998 9.766383,10.919221 9.5308463,10.636011 8.7687827,10.096347 8.4456456,9.8497894 6.8862849,8.6599792 6.0247019,7.8499928 5.7511546,7.3887432 5.6055602,6.7997437 5.998078,6.8667569 6.3520799,7.1481947 L 16.782038,15.440184 c 0.752192,0.5467 1.44338,1.07815 2.524965,1.707199 0.671371,0.123397 1.393661,-0.143377 1.877693,-0.601626 0.26296,-0.301096 0.318799,-0.498632 0.418963,-0.718331 1.177548,0.624562 1.535805,0.793883 1.313594,2.574441 l 0.264052,1.110707 0.989812,3.184476 4.951898,3.611426 c 0.531217,0.272391 0.678546,0.705487 0.773191,1.202387 z"/>
 <path style="opacity:0.2" d="m 26.312642,2.0001651 c 0.902495,0.00494 1.939345,0.1221502 2.469956,0.5721753 0.590524,0.5008379 0.89504,1.6553344 1.050869,2.630919 0.300935,1.027041 0.08613,1.7694359 -0.300299,2.6091435 -1.214514,2.5483001 -2.797713,4.9117351 -4.455293,7.2378721 -3.57242,-2.017664 -6.348464,-4.646053 -8.152875,-8.0195662 1.923372,-1.601874 4.073453,-3.0900718 6.609471,-4.3847527 0.905804,-0.5806892 1.874493,-0.646751 2.778171,-0.645791 z"/>
 <path style="fill:#b1b1b2" d="m 26.312642,1.0001651 c 0.902495,0.00494 1.939345,0.1221502 2.469956,0.5721753 0.590524,0.5008379 0.89504,1.6553344 1.050869,2.630919 0.300935,1.027041 0.08613,1.7694359 -0.300299,2.6091435 C 28.318654,9.3607032 26.735455,11.724138 25.077875,14.050275 21.505455,12.032611 18.729411,9.4042223 16.925,6.0307088 18.848372,4.4288348 20.998453,2.940637 23.534471,1.6459561 24.440275,1.0652669 25.408964,0.99920514 26.312642,1.0001651 Z"/>
 <path style="fill:#989898" d="M 24.353516 6.9472656 C 24.027706 6.9703856 22.613672 7.7696877 19.970703 10.164062 C 20.43069 10.637313 20.909011 11.096597 21.421875 11.529297 C 24.818836 7.4907064 24.519531 6.9570313 24.519531 6.9570312 C 24.508331 6.9679032 24.468611 6.9391066 24.353516 6.9472656 z"/>
 <path style="opacity:0.2;fill:#8b9cbe" d="M 26.3125 1 C 25.408822 0.99904004 24.44096 1.0657952 23.535156 1.6464844 C 20.999138 2.9411653 18.849153 4.429376 16.925781 6.03125 C 17.051088 6.2655218 17.191553 6.4877137 17.326172 6.7148438 C 19.149337 5.2352622 21.169641 3.8541206 23.535156 2.6464844 C 24.44096 2.0657952 25.408822 1.99904 26.3125 2 C 27.214995 2.00494 28.252592 2.1222405 28.783203 2.5722656 C 29.373727 3.0731035 29.678155 4.2275404 29.833984 5.203125 C 29.881971 5.3668951 29.896767 5.5132191 29.919922 5.6640625 C 30.001353 5.2192129 29.99492 4.75237 29.833984 4.203125 C 29.678155 3.2275404 29.373727 2.0731035 28.783203 1.5722656 C 28.252592 1.1222405 27.214995 1.00494 26.3125 1 z"/>
</svg>
