<svg width="32" height="32" version="1" xmlns="http://www.w3.org/2000/svg">
 <rect x="2" y="3" width="28" height="28" rx="1.4" ry="1.4" style="opacity:.2"/>
 <rect x="2" y="2" width="28" height="28" rx="1.4" ry="1.4" style="fill:#c2352a"/>
 <path d="m3.4003906 2c-0.7756 0-1.4003906 0.6247906-1.4003906 1.4003906v1c0-0.7756 0.6247906-1.4003906 1.4003906-1.4003906h25.199218c0.7756 0 1.400391 0.6247906 1.400391 1.4003906v-1c0-0.7756-0.624791-1.4003906-1.400391-1.4003906h-25.199218z" style="fill:#8b9cbe;opacity:.1"/>
 <path d="m25.984375 11.986086a1.0001 1.0001 0 0 0-0.984375 1.013672v3.763672l-2.105469-4.210938a1.0001 1.0001 0 0 0-1.894531 0.447266v8a1.0001 1.0001 0 1 0 2 0v-3.763672l2.105469 4.210938a1.0001 1.0001 0 0 0 1.894531-0.447266v-8a1.0001 1.0001 0 0 0-1.015625-1.013672zm-11.349609 0.0078c-0.421998-0.01231-0.697266 0.0078-0.697266 0.0078a1.0001 1.0001 0 0 0-0.9375 0.998072v3.839844a1.0001 1.0001 0 0 0 0 0.318359v3.841797a1.0001 1.0001 0 1 0 2 0v-3.042969c0.430323 0.01177 0.569487 0.07804 1.183594-0.03711 0.598905-0.112295 1.252476-0.31439 1.822265-0.777344 0.56979-0.462952 0.994141-1.25091 0.994141-2.142577 0-0.858796-0.45126-1.612495-1.009766-2.048828s-1.189941-0.642991-1.777343-0.771484c-0.587402-0.128495-1.156128-0.173237-1.578125-0.185547zm-6.634766 0.005872c-0.7106481 0-1.3576338 0.168335-1.859375 0.542969-0.5017412 0.374633-0.7953188 0.91347-0.9453125 1.427734-0.2999873 1.028528-0.1953125 2.070964-0.1953125 3.029297s-0.1046748 2.000769 0.1953125 3.029297c0.1499937 0.514264 0.4435713 1.053101 0.9453125 1.427734 0.5017412 0.374634 1.1487269 0.542969 1.859375 0.542969 0.729344 0 1.3846797-0.16098 1.8964844-0.537109 0.5118046-0.37613 0.8063776-0.927844 0.9492186-1.447266 0.285682-1.038845 0.154297-2.073958 0.154297-3.015625s0.131385-1.97678-0.154297-3.015625c-0.142841-0.519422-0.437414-1.071136-0.9492186-1.447266-0.5118047-0.376129-1.1671404-0.537109-1.8964844-0.537109zm0 2c0.445656 0 0.6274296 0.08902 0.7109375 0.150391 0.083508 0.06137 0.1436223 0.134656 0.2070313 0.365234 0.1268177 0.461155 0.082031 1.426042 0.082031 2.484375s0.044787 2.02322-0.082031 2.484375c-0.0634088 0.230578-0.1235232 0.303864-0.2070311 0.365234-0.0835083 0.061371-0.2652817 0.150391-0.7109377 0.150391-0.4143519 0-0.5798662-0.08167-0.6640625-0.144531-0.084196-0.06287-0.1499937-0.14903-0.21875-0.384766-0.1375127-0.471472-0.1171875-1.429036-0.1171875-2.470703s-0.020325-1.999231 0.1171875-2.470703c0.0687563-0.235736 0.1345537-0.321899 0.21875-0.384766 0.0841963-0.062866 0.2497106-0.144531 0.6640625-0.144531zm7 0.07227c0.314806 0.01406 0.410527-0.02183 0.787109 0.06055 0.412598 0.09026 0.781163 0.242974 0.972657 0.392579 0.191494 0.149592 0.240234 0.208397 0.240234 0.474601 0 0.358333-0.07565 0.445376-0.255859 0.591797-0.180211 0.146421-0.52664 0.288076-0.927735 0.363281-0.387199 0.0726-0.498373 0.02942-0.816406 0.02539z" style="opacity:.2"/>
 <path d="m25.984375 10.986328a1.0001 1.0001 0 0 0-0.984375 1.013672v3.763672l-2.105469-4.210938a1.0001 1.0001 0 0 0-1.894531 0.447266v8a1.0001 1.0001 0 1 0 2 0v-3.763672l2.105469 4.210938a1.0001 1.0001 0 0 0 1.894531-0.447266v-8a1.0001 1.0001 0 0 0-1.015625-1.013672zm-11.349609 0.007813c-0.421998-0.012311-0.697266 0.007812-0.697266 0.007812a1.0001 1.0001 0 0 0-0.9375 0.998047v3.839844a1.0001 1.0001 0 0 0 0 0.318359v3.841797a1.0001 1.0001 0 1 0 2 0v-3.042969c0.430323 0.01177 0.569487 0.078041 1.183594-0.037109 0.598905-0.112295 1.252476-0.31439 1.822265-0.777344 0.56979-0.462953 0.994141-1.250911 0.994141-2.142578 0-0.858796-0.45126-1.612495-1.009766-2.048828s-1.189941-0.642991-1.777343-0.771484c-0.587402-0.128495-1.156128-0.173237-1.578125-0.185547zm-6.634766 0.005859c-0.7106481 0-1.3576338 0.168335-1.859375 0.542969-0.5017412 0.374633-0.7953188 0.91347-0.9453125 1.427734-0.2999873 1.028528-0.1953125 2.070964-0.1953125 3.029297s-0.1046748 2.000769 0.1953125 3.029297c0.1499937 0.514264 0.4435713 1.053101 0.9453125 1.427734 0.5017412 0.374634 1.1487269 0.542969 1.859375 0.542969 0.729344 0 1.3846797-0.16098 1.8964844-0.537109 0.5118046-0.37613 0.8063776-0.927844 0.9492186-1.447266 0.285682-1.038845 0.154297-2.073958 0.154297-3.015625s0.131385-1.97678-0.154297-3.015625c-0.142841-0.519422-0.437414-1.071136-0.9492186-1.447266-0.5118047-0.376129-1.1671404-0.537109-1.8964844-0.537109zm0 2c0.445656 0 0.6274296 0.08902 0.7109375 0.150391 0.083508 0.06137 0.1436223 0.134656 0.2070313 0.365234 0.1268177 0.461155 0.0820312 1.426042 0.0820312 2.484375s0.0447868 2.02322-0.0820312 2.484375c-0.0634091 0.230578-0.1235234 0.303864-0.2070313 0.365234-0.0835081 0.061371-0.2652815 0.150391-0.7109375 0.150391-0.4143519 0-0.5798662-0.081665-0.6640625-0.144531-0.0841963-0.062867-0.1499937-0.14903-0.21875-0.384766-0.1375127-0.471472-0.1171875-1.429036-0.1171875-2.470703s-0.0203252-1.999231 0.1171875-2.470703c0.0687563-0.235736 0.1345537-0.321899 0.21875-0.384766 0.0841963-0.062866 0.2497106-0.144531 0.6640625-0.144531zm7 0.072266c0.314806 0.01406 0.410527-0.021834 0.787109 0.060546 0.412598 0.090261 0.781163 0.242974 0.972657 0.392579 0.191494 0.1496 0.240234 0.208405 0.240234 0.474609 0 0.358333-0.07565 0.445376-0.255859 0.591797-0.180211 0.146421-0.52664 0.288076-0.927735 0.363281-0.387199 0.0726-0.498373 0.029421-0.816406 0.025391v-1.908203z" style="fill:#f5b0b0"/>
</svg>
