<svg xmlns="http://www.w3.org/2000/svg" width="32" height="32" version="1.1">
 <path style="opacity:.2" d="m 15.5,18 a 4.5,4.5 0 0 0 -4.246094,3.025391 H 7 V 19.867188 A 0.8276436,0.86835105 0 0 0 6.1484375,19 0.8276436,0.86835105 0 0 0 5.7578125,19.115234 l -2.171875,1.316407 -2.171875,1.316406 a 0.8276436,0.86835105 0 0 0 0,1.503906 l 2.171875,1.316406 2.171875,1.314453 A 0.8276436,0.86835105 0 0 0 7,25.130859 v -1.105468 h 4.271484 A 4.5,4.5 0 0 0 15.5,27 4.5,4.5 0 0 0 19.726562,24.025391 H 24 v 1.105468 a 0.8276436,0.86835105 0 0 0 1.242188,0.751953 l 2.171874,-1.314453 2.171876,-1.316406 a 0.8276436,0.86835105 0 0 0 0,-1.503906 L 27.414062,20.431641 25.242188,19.115234 A 0.8276436,0.86835105 0 0 0 24.851562,19 0.8276436,0.86835105 0 0 0 24,19.867188 v 1.158203 H 19.746094 A 4.5,4.5 0 0 0 15.5,18 Z"/>
 <path style="fill:#65b457" d="m30 21.5h-29c0-8.00813 6.4918709-14.5 14.5-14.5s14.5 6.4918702 14.5 14.5z"/>
 <path style="fill:#8b9cbe;opacity:.2" d="m15.5 7c-8.008129 0-14.5 6.49187-14.5 14.5h0.0507812c0.5158711-7.53955 6.7787305-13.5 14.449219-13.5 7.670488 0 13.933348 5.96045 14.449219 13.5h0.050781c0-8.00813-6.491871-14.5-14.5-14.5z"/>
 <path style="opacity:.2" d="m16.19445 10.029963v1.399741a11.111118 11.111118 0 0 1 4.505753 1.264107l1.17866-0.920953a12.500006 12.500006 0 0 0-5.684413-1.742895zm-1.388889 0.01085a12.500006 12.500006 0 0 0-5.6844104 1.732043l1.1786574 0.922307a11.111118 11.111118 0 0 1 4.505753-1.274959zm8.287222 2.545844-1.135255 0.888403a11.111118 11.111118 0 0 1 3.149415 3.474931h1.573353a12.500006 12.500006 0 0 0-3.587513-4.363338zm-15.180129 0.0042a12.500006 12.500006 0 0 0-3.6037888 4.359202h1.580133a11.111118 11.111118 0 0 1 3.1575535-3.47224zm-4.1843009 5.748029a12.500006 12.500006 0 0 0-0.7283533 4.16667 12.500006 12.500006 0 0 0 0.0352648 0.694444h1.3793955a11.111118 11.111118 0 0 1-0.02577-0.694444 11.111118 11.111118 0 0 1 0.8192277-4.16667zm22.064897 0a11.111118 11.111118 0 0 1 0.817873 4.16667 11.111118 11.111118 0 0 1-0.035264 0.694444h1.39974a12.500006 12.500006 0 0 0 0.0244-0.694444 12.500006 12.500006 0 0 0-0.731066-4.16667z"/>
 <path style="fill:#8b9cbe" d="m16.19445 9.0299634v1.3997406a11.111118 11.111118 0 0 1 4.505753 1.264107l1.17866-0.920953a12.500006 12.500006 0 0 0-5.684413-1.7428946zm-1.388889 0.010855a12.500006 12.500006 0 0 0-5.6844104 1.7320426l1.1786574 0.922307a11.111118 11.111118 0 0 1 4.505753-1.274959zm8.287222 2.5458436-1.135255 0.888403a11.111118 11.111118 0 0 1 3.149415 3.474931h1.573353a12.500006 12.500006 0 0 0-3.587513-4.363338zm-15.180129 0.0042a12.500006 12.500006 0 0 0-3.6037888 4.359202h1.580133a11.111118 11.111118 0 0 1 3.1575535-3.47224zm-4.1843009 5.748024a12.500006 12.500006 0 0 0-0.7283533 4.16667 12.500006 12.500006 0 0 0 0.0352648 0.694444h1.3793955a11.111118 11.111118 0 0 1-0.02577-0.694444 11.111118 11.111118 0 0 1 0.8192277-4.16667zm22.064897 0a11.111118 11.111118 0 0 1 0.817873 4.16667 11.111118 11.111118 0 0 1-0.035264 0.694444h1.39974a12.500006 12.500006 0 0 0 0.0244-0.694444 12.500006 12.500006 0 0 0-0.731066-4.16667z"/>
 <path style="fill:#17191e" d="m4.5714286 20.02567v3h11.428571v-3z"/>
 <path style="fill:#17191e" d="m16 20.02567v3h11.429v-3z"/>
 <circle style="fill:#4f4f4f" cx="15.5" cy="21.5" r="4.5"/>
 <path style="fill:#17191e" d="m6.1481938 18.00037a0.8276436 0.86835105 0 0 0-0.3895353 0.115321l-2.1723473 1.315958-2.1723472 1.315962a0.8276436 0.86835105 0 0 0 0 1.504201l4.3446945 2.631926a0.8276436 0.86835105 0 0 0 1.241341-0.752101v-5.263851a0.8276436 0.86835105 0 0 0-0.8518057-0.867416z"/>
 <circle style="opacity:.2" cx="15.5" cy="22.5" r="2.5"/>
 <circle style="fill:#8b9cbe" cx="15.5" cy="21.5" r="2.5"/>
 <path style="fill:#17191e" d="m24.851806 18.00037a0.8276436 0.86835105 0 0 1 0.389535 0.115321l2.172347 1.315958 2.172348 1.315962a0.8276436 0.86835105 0 0 1 0 1.504201l-2.172348 1.315963-2.172347 1.315963a0.8276436 0.86835105 0 0 1-1.241341-0.752101v-5.263851a0.8276436 0.86835105 0 0 1 0.851806-0.867416z"/>
</svg>
