<svg xmlns="http://www.w3.org/2000/svg" width="32" height="32" version="1">
 <rect fill="#b2bfd9" width="28" height="28" x="2" y="2" rx="1.4" ry="1.4"/>
 <rect fill="#49a2d6" width="8.741" height="8.741" x="-18.51" y="-4.37" rx=".437" ry=".437" transform="matrix(-.70711 -.70711 -.70711 .70711 0 0)"/>
 <rect fill="#caa52a" width="8.741" height="8.741" x="-27" y="-12.86" rx=".437" ry=".437" transform="matrix(-.70711 -.70711 -.70711 .70711 0 0)"/>
 <rect fill="#e94a63" width="8.741" height="8.741" x="-27" y="4.12" rx=".437" ry=".437" transform="matrix(-.70711 -.70711 -.70711 .70711 0 0)"/>
 <rect fill="#6eaa53" width="8.741" height="8.741" x="-35.48" y="-4.37" rx=".437" ry=".437" transform="matrix(-.70711 -.70711 -.70711 .70711 0 0)"/>
 <path fill="#fff" opacity=".2" d="m3.4004 2c-0.7756 0-1.4004 0.6248-1.4004 1.4004v1c0-0.7756 0.6248-1.4004 1.4004-1.4004h25.2c0.775 0 1.4 0.6248 1.4 1.4004v-1c0-0.7756-0.625-1.4004-1.4-1.4004h-25.2z"/>
 <path opacity=".2" d="m2 28.6v1c0 0.775 0.6248 1.4 1.4004 1.4h25.2c0.775 0 1.4-0.625 1.4-1.4v-1c0 0.775-0.625 1.4-1.4 1.4h-25.2c-0.7752 0-1.4-0.625-1.4-1.4z"/>
</svg>
