<svg xmlns="http://www.w3.org/2000/svg" width="32" height="32" version="1">
 <path style="opacity:0.2" d="M 28,28.65 V 4.35 C 28,3.6021 27.358876,3 26.5625,3 H 6.4375 C 5.641125,3 5,3.6021 5,4.35 v 24.3 C 5,29.3979 5.641125,30 6.4375,30 h 20.125 C 27.358876,30 28,29.3979 28,28.65 Z"/>
 <path style="fill:#b2bfd9" d="M 28,27.65 V 3.35 C 28,2.6021 27.358876,2 26.5625,2 H 6.4375 C 5.641125,2 5,2.6021 5,3.35 v 24.3 C 5,28.3979 5.641125,29 6.4375,29 h 20.125 C 27.358876,29 28,28.3979 28,27.65 Z"/>
 <path style="opacity:0.1" d="M 8.5 4 C 7.669 4 7 4.6689999 7 5.5 L 7 11.5 C 7 12.331 7.669 13 8.5 13 L 14.5 13 C 15.331001 13 16 12.331 16 11.5 L 16 5.5 C 16 4.6689999 15.331001 4 14.5 4 L 8.5 4 z M 18 4 L 18 5 L 26 5 L 26 4 L 18 4 z M 18 8 L 18 9 L 26 9 L 26 8 L 18 8 z M 18 12 L 18 13 L 26 13 L 26 12 L 18 12 z M 7 16 L 7 17 L 26 17 L 26 16 L 7 16 z M 7 20 L 7 21 L 26 21 L 26 20 L 7 20 z M 7 24 L 7 25 L 26 25 L 26 24 L 7 24 z"/>
 <path style="opacity:0.1" d="m 19.828497,3.004603 c -1.764801,0.01395 -2.037791,-0.015403 -3.98701,-4e-7 -1.626415,1.5404122 -3.004657,3.5870934 -4.132276,5.9133845 -1.7411533,3.5920139 -2.1551412,6.6260019 -1.227726,9.1134209 0.927402,2.487422 3.055552,4.046934 6.375428,4.683955 3.489555,0.669578 6.724494,0.159119 9.706913,-1.545089 0.456214,-0.260693 1.003196,-0.550206 1.431392,-0.857193 -0.0099,-1.244221 0.01462,-2.134607 0,-3.978635 -1.078187,1.489638 -2.377916,2.697239 -3.642837,3.616961 -2.237872,1.627125 -4.550338,2.207898 -6.947413,1.747943 -2.280431,-0.43757 -3.619125,-1.73225 -4.01255,-3.886264 -0.377959,-2.162039 0.239174,-4.903712 1.853522,-8.2341241 1.323765,-2.7309495 2.849129,-4.9804504 4.582558,-6.5743596 z"/>
 <path style="fill:#218ed4" d="m 19.828497,2.0046032 c -1.764801,0.01395 -2.037791,-0.015403 -3.98701,-4e-7 -1.626415,1.5404122 -3.004657,3.5870934 -4.132276,5.9133845 -1.7411533,3.5920137 -2.1551412,6.6260017 -1.227726,9.1134207 0.927402,2.487422 3.055552,4.046934 6.375428,4.683955 3.489555,0.669578 6.724494,0.159119 9.706913,-1.545089 0.456214,-0.260693 1.003196,-0.550206 1.431392,-0.857193 -0.0099,-1.244221 0.01462,-2.134607 0,-3.978635 -1.078187,1.489638 -2.377916,2.697239 -3.642837,3.616961 -2.237872,1.627125 -4.550338,2.207898 -6.947413,1.747943 -2.280431,-0.43757 -3.619125,-1.73225 -4.01255,-3.886264 -0.377959,-2.162039 0.239174,-4.903712 1.853522,-8.2341239 1.323765,-2.7309495 2.849129,-4.9804504 4.582558,-6.5743596 z"/>
 <path style="opacity:0.2;fill:#8b9cbe" d="M 6.4375,2 C 5.641125,2 5,2.6017094 5,3.3496094 v 1 C 5,3.6017094 5.641125,3 6.4375,3 h 20.125 C 27.358876,3 28,3.6017094 28,4.3496094 v -1 C 28,2.6017094 27.358876,2 26.5625,2 Z"/>
</svg>
