<svg xmlns="http://www.w3.org/2000/svg" width="32" height="32" version="1">
 <path style="opacity:0.2" d="M 11.5,4 C 10.669,4 10,4.669 10,5.5 l 0,14 c 0,0.831 0.669,1.5 1.5,1.5 l 14,0 C 26.331,21 27,20.331 27,19.5 L 27,7 30,4 11.5,4 Z"/>
 <path style="opacity:0.2" d="m 2,13 3,3 0,12.5 C 5,29.331 5.669,30 6.5,30 l 14,0 c 0.831,0 1.5,-0.669 1.5,-1.5 l 0,-14 C 22,13.669 21.331,13 20.5,13 L 2,13 Z"/>
 <path style="fill:#4bae4f" d="M 11.5,3 C 10.669,3 10,3.669 10,4.5 l 0,14 c 0,0.831 0.669,1.5 1.5,1.5 l 14,0 C 26.331,20 27,19.331 27,18.5 L 27,6 30,3 11.5,3 Z"/>
 <path style="opacity:0.1;fill:#8b9cbe" d="M 11.5,3 C 10.669,3 10,3.669 10,4.5 l 0,1 C 10,4.669 10.669,4 11.5,4 L 29,4 30,3 11.5,3 Z"/>
 <path style="fill:#8ac249" d="m 2,12 3,3 0,12.5 C 5,28.331 5.669,29 6.5,29 l 14,0 c 0.831,0 1.5,-0.669 1.5,-1.5 l 0,-14 C 22,12.669 21.331,12 20.5,12 L 2,12 Z"/>
 <path fill="#fff" opacity=".1" d="m20.5 12c0.831 0 1.5 0.669 1.5 1.5v1c0-0.831-0.669-1.5-1.5-1.5h-17.5l-1-1h18.5z"/>
 <path style="opacity:0.2;fill-rule:evenodd" d="m 11.47075,16 -0.5293,3 -2.9414,0 0,1 2.7656,0 L 10.2344,23 8,23 l 0,1 2.0586,0 -0.5293,3 1,0 0.5293,-3 2.5,0 -0.52929,3 1,0 0.52929,-3 3.4414,0 0,-1 -3.2656,0 0.53124,-3 2.7344,0 0,-1 -2.5586,0 0.52929,-3 -1,0 -0.52929,3 -2.5,0 0.52929,-3 z m 0.29492,4 2.5,0 -0.53124,3 -2.5,0 z"/>
 <path style="fill:#8b9cbe;fill-rule:evenodd" d="m 11.47075,15 -0.5293,3 -2.9414,0 0,1 2.7656,0 L 10.2344,22 8,22 l 0,1 2.0586,0 -0.5293,3 1,0 0.5293,-3 2.5,0 -0.52929,3 1,0 0.52929,-3 3.4414,0 0,-1 -3.2656,0 0.53124,-3 2.7344,0 0,-1 -2.5586,0 0.52929,-3 -1,0 -0.52929,3 -2.5,0 0.52929,-3 z m 0.29492,4 2.5,0 -0.53124,3 -2.5,0 z"/>
</svg>
