<svg xmlns="http://www.w3.org/2000/svg" width="32" height="32" version="1">
 <path style="opacity:0.2" d="M 14.108256,3.9948124 C 11.476007,3.9899844 8.5825496,4.4812237 5.7786567,5.2897775 4.9794999,5.5202289 3.7544529,5.9299509 3.6948304,5.9867061 c -0.031059,0.029564 0.018612,0.050006 0.1875904,0.077227 0.43601,0.070239 1.0771101,0.2682954 1.5578905,0.4812545 1.751686,0.7758972 3.3903226,2.3781474 4.4981734,4.5642814 0.2037803,0.402125 0.3603863,0.749231 0.3603863,0.798699 0,0.01436 -0.127173,0.04382 -0.3357234,0.07781 -2.1173288,0.345113 -4.126103,1.277557 -5.9667311,3.276071 -0.7711263,0.83727 -1.5889073,1.939888 -2.2291415,3.005502 -0.4326047,0.720031 -0.82163735,1.473003 -0.7610146,1.473003 0.00409,0 0.2092851,-0.04916 0.455983,-0.109247 2.6309598,-0.640836 5.0336338,-0.76243 6.7220697,-0.340185 0.7116458,0.177968 1.3168323,0.298325 1.7437588,0.61621 0.1831951,0.136404 0.3707991,0.308705 0.3707991,0.340538 -1.6950977,1.444454 -2.7068996,3.178263 -3.4189733,5.08905 -0.627534,1.831955 -0.8985781,3.673856 -0.8798998,5.56308 1.0827487,-0.83071 2.7935867,-2.540412 4.1043851,-3.021609 1.54447,-0.550136 2.920191,-0.730413 4.82447,-0.828781 0.529662,-0.02736 2.499718,-0.02032 2.52055,0.02728 5.413941,-0.04022 7.902057,-1.847586 10.259269,-4.453614 1.634535,-1.611288 2.48825,-3.900832 3.031926,-6.07816 0.170304,-0.701331 0.242513,-1.187181 0.256804,-1.728093 0.01692,-0.640548 -0.04686,-1.002267 -0.249091,-1.412881 -0.09624,-0.195392 -0.136533,-0.25343 -0.264868,-0.381207 -0.09988,-0.09944 -0.200468,-0.17632 -0.295677,-0.226007 -0.156006,-0.08141 -0.406718,-0.154338 -0.530597,-0.154338 -0.07156,0 -0.08044,-0.0066 -0.120651,-0.08932 l -0.04337,-0.08932 0.07277,-0.156177 c 0.363854,-0.780663 0.307972,-1.858329 0.415261,-3.1013718 0.02956,-0.342485 0.0487,-0.9239358 0.03316,-1.0067779 -0.01617,-0.086196 -0.0056,-0.083018 -0.416679,-0.1252165 -0.980167,-0.1006078 -1.867912,-0.075453 -3.116398,0.072335 L 26.117979,8.1897194 25.930074,8.0235987 C 24.932939,7.1420414 23.715978,6.4617651 22.467448,5.8585541 20.649635,4.9803026 18.691552,4.367055 16.442115,4.1196762 15.695339,4.0375505 14.914045,3.9962914 14.108256,3.9948124 Z"/>
 <path style="fill:#5856c2" d="M 14.108256,2.9948124 C 11.476007,2.9899844 8.5825496,3.4812237 5.7786567,4.2897775 4.9794999,4.5202289 3.7544529,4.9299509 3.6948304,4.9867061 c -0.031059,0.029564 0.018612,0.050006 0.1875904,0.077227 0.43601,0.070239 1.0771101,0.2682954 1.5578905,0.4812545 1.751686,0.7758972 3.3903226,2.3781474 4.4981734,4.5642814 0.2037803,0.402125 0.3603863,0.749231 0.3603863,0.798699 0,0.01436 -0.127173,0.04382 -0.3357234,0.07781 -2.1173288,0.345113 -4.126103,1.277557 -5.9667311,3.276071 -0.7711263,0.83727 -1.5889073,1.939888 -2.2291415,3.005502 -0.4326047,0.720031 -0.82163735,1.473003 -0.7610146,1.473003 0.00409,0 0.2092851,-0.04916 0.455983,-0.109247 2.6309598,-0.640836 5.0336338,-0.76243 6.7220697,-0.340185 0.7116458,0.177968 1.3168323,0.298325 1.7437588,0.61621 0.1831951,0.136404 0.3707991,0.308705 0.3707991,0.340538 -1.6950977,1.444454 -2.7068996,3.178263 -3.4189733,5.08905 -0.627534,1.831955 -0.8985781,3.673856 -0.8798998,5.56308 1.0827487,-0.83071 2.7935867,-2.540412 4.1043851,-3.021609 1.54447,-0.550136 2.920191,-0.730413 4.82447,-0.828781 0.529662,-0.02736 2.499718,-0.02032 2.52055,0.02728 5.413941,-0.04022 7.902057,-1.847586 10.259269,-4.453614 1.634535,-1.611288 2.48825,-3.900832 3.031926,-6.07816 0.170304,-0.701331 0.242513,-1.187181 0.256804,-1.728093 0.01692,-0.640548 -0.04686,-1.002267 -0.249091,-1.412881 -0.09624,-0.195392 -0.136533,-0.25343 -0.264868,-0.381207 -0.09988,-0.09944 -0.200468,-0.17632 -0.295677,-0.226007 -0.156006,-0.08141 -0.406718,-0.154338 -0.530597,-0.154338 -0.07156,0 -0.08044,-0.0066 -0.120651,-0.08932 l -0.04337,-0.08932 0.07277,-0.156177 c 0.363854,-0.780663 0.307972,-1.8583288 0.415261,-3.1013718 0.02956,-0.342485 0.0487,-0.9239358 0.03316,-1.0067779 -0.01617,-0.086196 -0.0056,-0.083018 -0.416679,-0.1252165 -0.980167,-0.1006078 -1.867912,-0.075453 -3.116398,0.072335 L 26.117979,7.1897194 25.930074,7.0235987 C 24.932939,6.1420414 23.715978,5.4617651 22.467448,4.8585541 20.649635,3.9803026 18.691552,3.367055 16.442115,3.1196762 15.695339,3.0375505 14.914045,2.9962914 14.108256,2.9948124 Z"/>
 <path style="fill:#8b9cbe;opacity:0.1" d="M 14.107422 2.9941406 C 11.475173 2.9893126 8.5831898 3.4805087 5.7792969 4.2890625 C 4.9801401 4.5195139 3.754935 4.9295729 3.6953125 4.9863281 C 3.6642535 5.0158921 3.7138341 5.0372321 3.8828125 5.0644531 C 4.2588792 5.1250356 4.7739567 5.2865377 5.2207031 5.4648438 C 5.4128695 5.4050682 5.6101925 5.3378268 5.7792969 5.2890625 C 8.5831898 4.4805087 11.475173 3.9893126 14.107422 3.9941406 C 14.913211 3.9956196 15.69463 4.0370149 16.441406 4.1191406 C 18.690843 4.3665194 20.648984 4.9811235 22.466797 5.859375 C 23.715327 6.462586 24.932552 7.1418802 25.929688 8.0234375 L 26.117188 8.1894531 L 26.480469 8.1464844 C 27.728955 7.9986964 28.617489 7.973611 29.597656 8.0742188 C 29.901511 8.1054104 29.958231 8.1221763 29.982422 8.1582031 C 30.009534 7.8119249 30.028459 7.2780463 30.013672 7.1992188 C 29.997502 7.1130227 30.008735 7.1164173 29.597656 7.0742188 C 28.617489 6.973611 27.728955 6.9986964 26.480469 7.1464844 L 26.117188 7.1894531 L 25.929688 7.0234375 C 24.932552 6.1418802 23.715327 5.462586 22.466797 4.859375 C 20.648984 3.9811235 18.690843 3.3665194 16.441406 3.1191406 C 15.69463 3.0370149 14.913211 2.9956196 14.107422 2.9941406 z M 9.8808594 11.003906 C 7.7939205 11.359709 5.8127392 12.289245 3.9960938 14.261719 C 3.2249674 15.098989 2.4078123 16.201964 1.7675781 17.267578 C 1.3349734 17.987609 0.94523662 18.740234 1.0058594 18.740234 C 1.0099494 18.740234 1.2161927 18.690946 1.4628906 18.630859 C 1.5017171 18.621402 1.5374464 18.616653 1.5761719 18.607422 C 1.644811 18.487689 1.6944938 18.38922 1.7675781 18.267578 C 2.4078123 17.201964 3.2249674 16.098989 3.9960938 15.261719 C 5.8367219 13.263205 7.8455618 12.331441 9.9628906 11.986328 C 10.171441 11.952338 10.298828 11.922563 10.298828 11.908203 C 10.298828 11.858735 10.143233 11.5115 9.9394531 11.109375 C 9.9210083 11.072978 9.8995965 11.039979 9.8808594 11.003906 z M 29.769531 11.664062 C 29.721858 11.895666 29.657842 12.112414 29.566406 12.308594 L 29.492188 12.464844 L 29.537109 12.552734 C 29.57732 12.635454 29.58469 12.642578 29.65625 12.642578 C 29.780129 12.642578 30.031494 12.715465 30.1875 12.796875 C 30.282709 12.846562 30.384495 12.923998 30.484375 13.023438 C 30.61271 13.151214 30.651807 13.208905 30.748047 13.404297 C 30.871579 13.655119 30.93147 13.910189 30.964844 14.199219 C 30.975337 14.073152 30.994648 13.945063 30.998047 13.816406 C 31.014967 13.175858 30.950278 12.814911 30.748047 12.404297 C 30.651807 12.208905 30.61271 12.151214 30.484375 12.023438 C 30.384495 11.923998 30.282709 11.846562 30.1875 11.796875 C 30.066327 11.733642 29.901164 11.686862 29.769531 11.664062 z M 9.7167969 19.783203 C 8.3660833 21.113423 7.5070767 22.657492 6.8808594 24.337891 C 6.2533254 26.169846 5.9813217 28.011167 6 29.900391 C 6.0081892 29.894108 6.0210363 29.881383 6.0292969 29.875 C 6.1021071 28.342762 6.3675591 26.836364 6.8808594 25.337891 C 7.5929331 23.427104 8.6037304 21.692501 10.298828 20.248047 C 10.298828 20.216214 10.110929 20.044607 9.9277344 19.908203 C 9.8635917 19.860443 9.7887438 19.822911 9.7167969 19.783203 z"/>
 <path style="fill:#8b9cbe" d="m 20.963449,11.019236 c -0.123527,-0.0079 -0.246301,-0.0048 -0.368304,0.0098 -2.032869,0.243017 -3.06821,1.720709 -3.490514,3.899275 -0.165448,1.432201 -0.01346,3.140297 0.38923,4.328963 0.03775,0.111354 0.0535,0.186453 0.04185,0.198103 -0.01165,0.01165 -0.08203,0.0074 -0.185547,-0.0098 C 17.287244,19.435117 17.128527,19.434527 17,19.430227 V 21.029 h 11.428572 l 0.867746,-1.181641 0.104632,-0.629185 c 0.681982,-2.116588 0.640343,-5.249842 0.06417,-6.030445 -0.03436,-0.04655 -0.09849,-0.103207 -0.142299,-0.125557 -0.365867,-0.186652 -0.878237,0.265228 -1.530413,1.347656 -1.226653,2.519831 -1.534155,3.390773 -2.158203,4.374473 -0.151265,0.164101 -0.235542,0.185628 -0.38086,0.09347 -0.384775,-0.244017 -0.607533,-1.10014 -0.728237,-3.118024 -0.03965,-0.662772 -0.07764,-0.651142 -0.150669,-1.015625 -0.186937,-0.933003 -0.519996,-1.67686 -1.036552,-2.314453 -0.626319,-0.773078 -1.509753,-1.355191 -2.374442,-1.410436 z"/>
 <path style="opacity:0.2" d="M 14.29536,8.0000003 14.2642,8.0975223 C 14.20785,8.2739243 14.107166,8.7095316 14.0748,8.9168595 14.01943,9.2715355 14,9.5358741 14,9.934878 c 0,0.690829 0.06879,1.152423 0.26273,1.763125 C 14.3407,11.943519 14.365531,12 14.395585,12 c 0.01028,0 0.101476,-0.06765 0.202639,-0.150316 0.978779,-0.799886 2.200883,-1.497437 3.311862,-1.89034 0.0454,-0.016053 0.08574,-0.038067 0.08963,-0.048934 C 18.011086,9.87869 17.680994,9.5050658 17.463941,9.3039932 17.071745,8.9406762 16.708992,8.7012522 16.200554,8.4700749 16.016996,8.3866149 15.782336,8.2909242 15.679084,8.2574583 15.293487,8.132475 14.827281,8.0376563 14.4762,8.0128003 Z"/>
 <path style="fill:#f3a993" d="M 14.29536,7.0000003 14.2642,7.0975223 C 14.20785,7.2739243 14.107166,7.7095316 14.0748,7.9168595 14.01943,8.2715355 14,8.5358741 14,8.934878 c 0,0.6908286 0.06879,1.152423 0.26273,1.763125 C 14.3407,10.943519 14.365531,11 14.395585,11 c 0.01028,0 0.101476,-0.06765 0.202639,-0.150316 0.978779,-0.799886 2.200883,-1.4974374 3.311862,-1.89034 0.0454,-0.016053 0.08574,-0.038067 0.08963,-0.048934 C 18.011086,8.87869 17.680994,8.5050658 17.463941,8.3039932 17.071745,7.9406762 16.708992,7.7012522 16.200554,7.4700749 16.016996,7.3866149 15.782336,7.2909242 15.679084,7.2574583 15.293487,7.132475 14.827281,7.0376563 14.4762,7.0128003 Z"/>
 <path style="fill:#fcb9a4" d="m 28.76313,21.043964 c -0.281953,0.0019 -0.612455,0.132769 -0.82643,0.33087 -0.140523,0.130102 -0.205601,0.241977 -0.208341,0.358233 -0.0059,0.249204 0.291641,0.341775 0.72876,0.226739 0.301034,-0.07922 0.590589,-0.281343 0.690629,-0.482094 0.125487,-0.251821 0.0024,-0.413692 -0.328951,-0.432417 -0.01832,-0.0011 -0.03687,-0.0014 -0.05567,-0.0014 z"/>
 <path style="fill:#fcb9a4" d="m 28.788732,21.055435 c 0.33105,0.0026 0.470053,0.169783 0.349033,0.419771 -0.08566,0.176954 -0.388463,0.388999 -0.679746,0.476027 -0.12879,0.03848 -0.384659,0.057 -0.471016,0.0341 -0.160335,-0.04252 -0.25054,-0.134616 -0.25054,-0.255825 0,-0.169664 0.220541,-0.403984 0.505778,-0.53737 0.222608,-0.104098 0.358909,-0.138184 0.546491,-0.1367 z"/>
 <path style="fill:#fcb9a4" d="m 17.022937,21.692941 c 0.285877,0.0015 0.421933,0.09077 0.645259,0.423296 0.365656,0.544448 0.744428,0.906952 1.239233,1.186034 0.393295,0.221825 0.843748,0.353523 1.283784,0.37534 0.146714,0.0073 0.293267,0.02745 0.378276,0.05206 0.120456,0.03488 0.155306,0.05666 0.263615,0.164965 0.105668,0.105668 0.131212,0.14567 0.166845,0.261031 0.02314,0.07493 0.04209,0.170443 0.04209,0.212216 0,0.04177 -0.01894,0.137242 -0.04209,0.212175 -0.03561,0.115283 -0.0612,0.155387 -0.166492,0.26068 -0.105293,0.105292 -0.145397,0.130924 -0.26068,0.16653 -0.129517,0.04 -0.350668,0.05179 -0.542928,0.02893 -0.473651,-0.05632 -0.643702,-0.09176 -1.00216,-0.208771 -0.679656,-0.221868 -1.276091,-0.590748 -1.806316,-1.117134 -0.356064,-0.353489 -0.765023,-0.903132 -0.840915,-1.13021 -0.108294,-0.324035 0.03789,-0.669468 0.347899,-0.822085 0.118348,-0.05826 0.152396,-0.06581 0.29458,-0.06507 z"/>
 <path style="fill:#fcb9a4" d="m 17.313368,26.248387 c 0.0099,7.86e-4 0.02218,0.0015 0.03069,0.0023 0.09553,0.009 0.211857,0.01726 0.292389,0.0211 -0.04901,-0.0029 -0.110964,-0.0078 -0.187044,-0.01436 -0.03707,-0.0032 -0.08446,-0.0061 -0.136035,-0.009 z"/>
 <path style="opacity:0.2" d="m 15.447821,20.157365 c -0.766613,0.293981 -1.248418,0.87693 -1.403803,1.698472 -0.04874,0.25768 -0.05912,0.79136 -0.02046,1.051979 0.219179,1.477687 1.216644,2.88842 2.68369,3.826059 0.732852,0.503274 1.177741,0.638437 1.996593,0.917773 0.805793,0.234678 1.661691,0.347691 2.614824,0.348349 0.93474,6.41e-4 1.672163,-0.09228 2.486699,-0.313334 1.802025,-0.489057 3.317326,-1.574441 4.197514,-3.006606 0.636467,-1.281033 1.336922,-2.174968 0.814341,-2.960777 -0.844059,-1.269215 -3.150357,-0.47185 -4.0437,-0.08456 C 23.967372,21.985254 23.674792,21.940032 23.252233,22 22.300895,22.135005 21.784905,21.93469 20.000724,21.038723 18.611588,20.361839 16.930943,19.624164 15.447827,20.15737 Z"/>
 <path style="fill:#f3a993" d="m 15.447821,19.157365 c -0.766613,0.293981 -1.248418,0.87693 -1.403803,1.698472 -0.04874,0.25768 -0.05912,0.79136 -0.02046,1.051979 0.219179,1.477687 1.216644,2.88842 2.68369,3.826059 0.732852,0.503274 1.177741,0.638437 1.996593,0.917773 0.805793,0.234678 1.661691,0.347691 2.614824,0.348349 0.93474,6.41e-4 1.672163,-0.09228 2.486699,-0.313334 1.802025,-0.489057 3.317326,-1.574441 4.197514,-3.006606 0.636467,-1.281033 1.336922,-2.174968 0.814341,-2.960777 -0.844059,-1.269215 -3.150357,-0.47185 -4.0437,-0.08456 -0.806147,0.350534 -1.098727,0.305312 -1.521286,0.36528 -0.951338,0.135005 -1.467328,-0.06531 -3.251509,-0.961277 -1.389136,-0.676884 -3.069781,-1.414559 -4.552897,-0.881353 z"/>
 <path style="opacity:0.1" d="m 29.886719,16.187777 c -0.0401,1.0212 -0.192112,2.118125 -0.486328,3.03125 l -0.103516,0.628906 -0.564453,0.767578 c -0.901873,-1.111461 -3.092721,-0.356019 -3.958984,0.01953 -0.806147,0.350534 -1.098926,0.305264 -1.521485,0.365234 -0.209605,0.02975 -0.394519,0.036 -0.580078,0.0293 h -0.09766 C 21.950428,20.98387 21.324806,20.704622 20,20.039339 c -0.787169,-0.383563 -1.667339,-0.778687 -2.552734,-0.958984 -0.220324,-0.71619 -0.344634,-1.591626 -0.382813,-2.474609 -0.05494,1.198742 0.07829,2.484708 0.382813,3.474609 0.885395,0.180297 1.765565,0.575421 2.552734,0.958984 1.324806,0.665282 1.950428,0.944531 2.574219,0.990235 h 0.09766 c 0.185559,0.0067 0.370473,4.48e-4 0.580078,-0.0293 0.422559,-0.05997 0.715338,-0.0147 1.521485,-0.365234 0.866263,-0.375551 3.057111,-1.130991 3.958984,-0.01953 l 0.564453,-0.767578 0.103516,-0.628906 c 0.394374,-1.223972 0.539271,-2.778648 0.486328,-4.03125 z"/>
 <path style="opacity:0.2" d="m 27.759622,23.960964 c -0.306731,-0.09438 -0.464058,-0.214037 -0.608834,-0.463045 -0.339926,-0.584668 -0.09259,-1.529753 0.615565,-2.352049 0.263588,-0.306075 0.509589,-0.51657 0.844896,-0.722949 0.766441,-0.471744 1.533932,-0.555532 1.993233,-0.217601 0.17629,0.129705 0.263671,0.255744 0.336999,0.48608 0.05971,0.187565 0.0638,0.220783 0.055,0.446671 -0.01735,0.445432 -0.149598,0.8169 -0.461819,1.297147 -0.383817,0.590367 -0.981985,1.113891 -1.555816,1.361667 -0.430957,0.186084 -0.929618,0.253191 -1.219226,0.164079 z"/>
 <path style="fill:#4f4f4f" d="m 27.759622,22.960964 c -0.306731,-0.09438 -0.464058,-0.214037 -0.608834,-0.463045 -0.339926,-0.584668 -0.09259,-1.529753 0.615565,-2.352049 0.263588,-0.306075 0.509589,-0.51657 0.844896,-0.722949 0.766441,-0.471744 1.533932,-0.555532 1.993233,-0.217601 0.17629,0.129705 0.263671,0.255744 0.336999,0.48608 0.05971,0.187565 0.0638,0.220783 0.055,0.446671 -0.01735,0.445432 -0.149598,0.8169 -0.461819,1.297147 -0.383817,0.590367 -0.981985,1.113891 -1.555816,1.361667 -0.430957,0.186084 -0.929618,0.253191 -1.219226,0.164079 z"/>
 <ellipse style="fill:#17191e" cx="22.706" cy="15.934" rx="1.477" ry="2.017" transform="matrix(0.99856688,0.05351809,-0.13641488,0.9906518,0,0)"/>
 <path style="opacity:0.5;fill:none;stroke:#000000;stroke-width:2;stroke-linecap:round" d="M 17.008171,22.042856 C 18.001069,23.471428 18.857143,24 21,24"/>
 <path style="fill:#17191e" d="M 27.398438 15.244141 C 26.569384 16.993467 26.165671 17.948895 25.636719 18.783203 A 1.4657894 2.0252064 13.17543 0 0 26.224609 18.998047 A 1.4657894 2.0252064 13.17543 0 0 27.974609 17.078125 A 1.4657894 2.0252064 13.17543 0 0 27.398438 15.244141 z"/>
 <path style="fill:#8b9cbe;opacity:0.1" d="M 14.294922 7 L 14.263672 7.0976562 C 14.207322 7.2740583 14.106585 7.7086877 14.074219 7.9160156 C 14.018849 8.2706916 14 8.536543 14 8.9355469 C 14 9.1371378 14.020087 9.2948448 14.033203 9.4667969 C 14.04474 9.2924215 14.044303 9.1076454 14.074219 8.9160156 C 14.106585 8.7086877 14.207322 8.2740582 14.263672 8.0976562 L 14.294922 8 L 14.476562 8.0136719 C 14.827643 8.0385279 15.294091 8.1328292 15.679688 8.2578125 C 15.78294 8.2912784 16.017614 8.3872431 16.201172 8.4707031 C 16.651365 8.6753977 16.986749 8.8993586 17.330078 9.1972656 C 17.524762 9.1132847 17.720198 9.0261638 17.910156 8.9589844 C 17.955556 8.9429314 17.99611 8.9210232 18 8.9101562 C 18.01137 8.8784363 17.681897 8.5057601 17.464844 8.3046875 C 17.072648 7.9413705 16.70961 7.7018804 16.201172 7.4707031 C 16.017614 7.3872431 15.78294 7.2912784 15.679688 7.2578125 C 15.294091 7.1328292 14.827643 7.0385279 14.476562 7.0136719 L 14.294922 7 z"/>
</svg>
