<svg xmlns="http://www.w3.org/2000/svg" width="32" height="32" version="1">
 <rect style="opacity:0.2" width="30" height="22" x="1" y="7" rx="2" ry="2"/>
 <path style="fill:#ff8915" d="M 1,24 V 26 C 1,27.108 1.892,28 3,28 H 29 C 30.108,28 31,27.108 31,26 V 24 L 29,25 H 3 Z"/>
 <rect style="opacity:0.2" width="30" height="22" x="1" y="5" rx="2" ry="2"/>
 <rect style="fill:#b2bfd9" width="30" height="22" x="1" y="4" rx="2" ry="2"/>
 <g style="opacity:0.1">
  <rect width="7" height="7" x="24" y="19" rx="2" ry="2"/>
  <rect width="3" height="3" x="28" y="19"/>
  <rect width="3" height="3" x="24" y="23"/>
 </g>
 <rect style="fill:#ff8915" width="7" height="1" x="4" y="7" ry="0"/>
 <path style="fill:#9c9891" d="M 4,10 V 11 H 12 V 10 Z M 4,13 V 14 H 11 V 13 Z M 4,16 V 17 H 12 V 16 Z M 19,16 V 17 H 24 V 16 Z M 4,19 V 20 H 9 V 19 Z M 19,19 V 20 H 27 V 19 Z M 4,22 V 23 H 12 V 22 Z M 19,22 V 23 H 27 V 22 Z"/>
 <path style="opacity:0.2;fill:#8b9cbe" d="M 3,4 C 1.892,4 1,4.892 1,6 V 7 C 1,5.892 1.892,5 3,5 H 29 C 30.108,5 31,5.892 31,7 V 6 C 31,4.892 30.108,4 29,4 Z"/>
 <circle style="fill:#ff8915" cx="20.5" cy="13.5" r="1.5"/>
 <path style="fill:#ff8915" d="M 19,9.4 V 10.109 C 19,10.492 19.316,10.801 19.699,10.801 V 10.801 C 21.618,10.801 23.163,12.393 23.2,14.301 V 14.301 C 23.201,14.687 23.513,15 23.899,15 H 24.598 L 24.608,14.309 C 24.608,11.674 22.504,9.4 19.892,9.4 Z"/>
 <path style="fill:#ff8915" d="M 25.666,14.342 C 25.671,14.707 25.967,15 26.332,15 H 27 L 26.996,14.275 C 26.974,10.333 23.791,7 19.863,7 H 19 V 7.6758 C 19.005,8.0404 19.301,8.3337 19.666,8.334 22.976,8.3289 25.671,11.031 25.666,14.342 Z"/>
 <path style="opacity:0.1" d="M 26,20 C 24.892,20 24,20.892 24,22 V 27 L 31,20 Z"/>
 <path style="fill:#fafafa" d="M 26,19 C 24.892,19 24,19.892 24,21 V 26 L 31,19 Z"/>
</svg>
