<svg xmlns="http://www.w3.org/2000/svg" width="32" height="32" version="1.1">
 <circle style="opacity:0.2" cx="16" cy="17" r="14"/>
 <circle style="fill:#008f7e" cx="16" cy="16" r="14"/>
 <path style="opacity:0.4;fill:none;stroke:#8b9cbe;stroke-linejoin:bevel" d="M 11,21.5 H 6.1997037 l 4.9000003,-5 h 15.4 l -4.2,5 H 21"/>
 <path style="opacity:0.2" d="m 11,11 v 10 h 1 V 13.328125 L 15.451172,21 h 1.097656 L 20,13.328125 V 21 h 1 V 11 H 19.953125 L 16,19.783203 12.046875,11 Z"/>
 <path style="fill:#8b9cbe" d="M 11 10 L 11 20 L 12 20 L 12 12.328125 L 15.451172 20 L 16.548828 20 L 20 12.328125 L 20 20 L 21 20 L 21 10 L 19.953125 10 L 16 18.783203 L 12.046875 10 L 11 10 z"/>
 <path style="fill:#8b9cbe;opacity:0.1" d="M 16 2 A 14 14 0 0 0 2 16 A 14 14 0 0 0 2.0214844 16.585938 A 14 14 0 0 1 16 3 A 14 14 0 0 1 29.978516 16.414062 A 14 14 0 0 0 30 16 A 14 14 0 0 0 16 2 z"/>
</svg>
