<svg xmlns="http://www.w3.org/2000/svg" width="32" height="32" version="1.1">
 <path style="opacity:0.2" d="M 3.0209664,5.2758186 V 28.157982 c 0,0 -0.2066177,1.235811 0.6773861,1.495738 L 12,32 l 8,-2.578947 7.769932,2.219615 c 1.315243,0.467749 1.222077,-0.933479 1.222077,-0.933479 V 7.642939 C 29.113591,6.444292 27.807559,6.1971882 27.807559,6.1971882 L 20,4.0000018 12,6.5789488 4.1517148,4.33248 c 0,0 -1.1307484,-0.320149 -1.1307484,0.9433386 z"/>
 <path style="fill:#ffc107" d="M 3.0209664,4.2758166 V 27.15798 c 0,0 -0.2066177,1.235811 0.6773861,1.495738 L 12,30.999998 l 8,-2.578947 7.769932,2.219615 c 1.315243,0.467749 1.222077,-0.933479 1.222077,-0.933479 V 6.642937 C 29.113591,5.44429 27.807559,5.1971862 27.807559,5.1971862 L 20,2.9999998 12,5.5789468 4.1517148,3.332478 c 0,0 -1.1307484,-0.320149 -1.1307484,0.9433386 z"/>
 <path style="fill:#0c7bd4" d="M 19.390625 3.1972656 L 15.964844 4.3007812 C 15.206296 5.1954324 14.761719 6.2635921 14.761719 7.7714844 C 14.761719 9.8396679 15.57945 10.276848 15.845703 11.271484 C 16.351341 13.16053 16.545891 14.491876 17.150391 16.044922 C 17.982236 18.182786 17.279881 21.556188 18.166016 23.681641 C 18.671531 24.894233 18.941127 25.113637 20.333984 25.75 C 20.643508 26.068181 21.106958 26.703303 21.261719 27.021484 C 21.558079 27.630761 21.540884 28.370834 21.689453 28.904297 L 27.769531 30.640625 C 28.262747 30.816031 28.558178 30.728412 28.734375 30.550781 C 28.886527 30.397391 28.937026 30.18495 28.962891 30.007812 C 28.967009 29.97985 28.983886 29.945299 28.986328 29.919922 C 28.986436 29.918785 28.986223 29.919099 28.986328 29.917969 C 28.998144 29.793912 28.992188 29.707031 28.992188 29.707031 L 28.992188 29.351562 C 28.352021 23.361777 24.346514 22.432931 22.677734 21 C 20.798491 19.386373 21.999315 17.843041 21.261719 15.568359 C 21.086375 15.027609 20.643508 13.181462 20.333984 12.863281 C 18.941127 11.908734 18.167411 10.954191 17.703125 9.3632812 C 16.789645 6.2330803 19.444779 4.3342138 19.390625 3.1972656 z M 8.984375 26.681641 C 8.8497839 26.671081 8.7139115 26.678288 8.5722656 26.705078 C 7.2802202 26.94871 7.3337985 28.454901 6.0957031 28.136719 C 5.4653283 27.974784 4.6043792 28.211178 4.0527344 28.753906 L 12 31 L 16.439453 29.570312 C 15.473654 28.073701 12.721087 25.847376 12 27.181641 C 11.052083 27.599255 9.9265154 26.755568 8.984375 26.681641 z"/>
 <path style="fill:#4caf50" d="M 3.8964844 3.3085938 C 3.8218595 3.3053562 3.7404907 3.3096278 3.6523438 3.3261719 C 3.6202612 3.3323827 3.5888894 3.3335519 3.5566406 3.34375 C 3.5361827 3.3502334 3.5163382 3.360819 3.4960938 3.3691406 C 3.436554 3.39368 3.3801916 3.4291137 3.3261719 3.4726562 C 3.3025145 3.4917757 3.2796466 3.5136982 3.2578125 3.5371094 C 3.2101525 3.5883275 3.1721747 3.655839 3.1367188 3.7304688 C 3.1210521 3.7634805 3.1024443 3.7919138 3.0898438 3.8300781 C 3.0497331 3.9516845 3.0216843 4.0941637 3.0214844 4.2753906 C 3.0214835 4.2761672 3.0214844 4.276566 3.0214844 4.2773438 L 3.0214844 11.443359 C 3.3184858 11.30263 3.7191361 11.113281 3.9277344 11.113281 C 4.5996177 11.113281 5.01198 11.272545 5.6972656 11.181641 C 6.120199 11.125421 6.4092677 10.7144 6.8027344 10.613281 C 7.1744723 10.517831 7.6628669 10.546611 8.0195312 10.363281 C 8.5064123 10.113189 9.1905516 9.3636267 9.5664062 7.75 C 9.6751418 7.2831 9.4335938 6.772195 9.4335938 6.2949219 C 9.4335938 6.0048932 9.7307898 5.4405968 10 5.0058594 L 4.1582031 3.3339844 L 4.1523438 3.3320312 C 4.1523438 3.3320312 4.1504068 3.3320358 4.1503906 3.3320312 C 4.1503906 3.3320312 4.0149983 3.3179108 3.8964844 3.3085938 z"/>
 <path style="fill:#81c784" d="M 15.845238,13.340908 15.535714,12.068181 13.833333,13.5 l 0.309524,1.272726 z"/>
 <path style="fill:#4d7687" d="M 7.3333333,24.31818 12,23.999999 13.678572,22.727271 V 19.704544 L 12,20.977271 7.3333333,21.454544 Z"/>
 <path style="fill:#df5050" d="M 13.76919,17.15909 13.304904,14.804544 12,15.727273 9.8095242,16.204545 9.0357143,12.227272 l -3.25,0.795455 1.2380948,6.761362 L 12,18.590908 Z"/>
 <path style="fill:#ff8a65" d="m 25.285714,7.7727267 v 2.8636363 l 2.630952,0.795453 V 8.5681817 Z"/>
 <path style="fill:#00bcd4" d="M 12,6.8181818 15.535714,5.5454542 V 6.8181818 L 14.607142,7.1363634 V 7.5590042 L 12,8.5681817 11.202381,8.4090901 V 6.6590906 Z"/>
 <path style="fill:#b89b00" d="m 23.273809,17.477272 2.630953,1.75 0.928571,-1.272728 -2.630952,-1.749999 z"/>
 <path style="fill:#b89b00" d="M 26.678168,12.704152 25.75,13.977796 l 2.63075,1.75 0.610786,-0.837583 v -0.647615 z"/>
 <path style="fill:#b89b00" d="m 24.511904,15.727273 2.630952,1.749999 0.928572,-1.272727 -2.630952,-1.75 z"/>
 <path style="fill:#646464" d="m 5.2597656,13.563322 -0.4640842,0.159745 1.0523004,6.204152 -0.1452908,5.175164 0.5275606,-0.08203 0.1438803,-5.124794 z m 0.970486,11.457031 -0.011288,0.379934 -0.52615,0.03166 0.00987,-0.329563 -0.07194,0.01152 -2.6095919,1.876645 v 0.16694 c 0,0 -0.054874,0.353804 0.02539,0.722451 L 5.7859114,25.909745 6.0948305,25.813325 12,25.431951 l 2.452578,-1.75 -0.155165,-0.795846 -2.297413,1.75 -5.75,0.381369 z"/>
 <ellipse style="fill:#222222;stroke:#8b9cbe;stroke-width:0.25105834;stroke-linecap:round;stroke-linejoin:round" cx="5.956" cy="25.448" rx=".418" ry=".43"/>
 <ellipse style="fill:#222222;stroke:#8b9cbe;stroke-width:0.25105834;stroke-linecap:round;stroke-linejoin:round" cx="14.452" cy="23.22" rx=".418" ry=".43"/>
 <ellipse style="fill:#222222;stroke:#8b9cbe;stroke-width:0.25105834;stroke-linecap:round;stroke-linejoin:round" cx="5.012" cy="13.675" rx=".418" ry=".43"/>
 <ellipse style="fill:#222222;stroke:#8b9cbe;stroke-width:0.25105834;stroke-linecap:round;stroke-linejoin:round" cx="6.095" cy="19.911" rx=".418" ry=".43"/>
 <path style="fill:#8b9cbe;opacity:0.3" d="M 3.0209664,4.2758166 V 27.15798 c 0,0 -0.2066177,1.235811 0.6773861,1.495738 L 12,30.999998 C 12,31 12,5.5789468 12,5.5789468 L 4.1517148,3.332478 c 0,0 -1.1307484,-0.320149 -1.1307484,0.9433386 z"/>
 <path style="fill:#8b9cbe;opacity:0.3" d="m 20,28.421051 7.769932,2.219615 c 1.315243,0.467749 1.222077,-0.933479 1.222077,-0.933479 V 6.642937 C 29.113591,5.44429 27.807559,5.1971862 27.807559,5.1971862 L 20,2.9999998 Z"/>
 <path style="opacity:0.1" d="M 25.964844,2 C 24.777076,2.037141 23.7222,3.1503771 23.318359,3.875 L 15.3125,18.529297 15.083984,22.541016 15,24 l 1.142578,-0.837891 3.142578,-2.30664 0.101563,-0.07422 8.177734,-14.7734375 C 28.48583,4.4404116 27.809925,2.6077071 26.802734,2.1640625 26.520912,2.0399263 26.238944,1.991429 25.964844,2 Z"/>
 <path style="fill:#b1a390" d="m 15.313157,17.52853 -0.229927,4.013366 1.059353,0.620195 3.142796,-2.306038 z"/>
 <path style="fill:#8b9cbe;opacity:0.2" d="M 20 3 L 12 5.578125 L 4.1523438 3.3320312 C 4.1523438 3.3320312 3.0214844 3.011903 3.0214844 4.2753906 L 3.0214844 5.2753906 C 3.0214844 4.011903 4.1523438 4.3320312 4.1523438 4.3320312 L 12 6.578125 L 20 4 L 27.806641 6.1972656 C 27.806641 6.1972656 29.11377 6.4439311 28.992188 7.6425781 L 28.992188 6.6425781 C 29.11377 5.4439311 27.806641 5.1972656 27.806641 5.1972656 L 20 3 z M 3.0214844 27.158203 C 3.0214844 27.158203 2.9902722 27.411408 3.0214844 27.703125 L 3.0214844 27.158203 z"/>
 <path style="fill:#505050" d="M 15.08323,21.541896 15,23 16.142578,22.162091 Z"/>
 <path style="fill:#a15f34" d="m 25.964524,1.0009691 c -1.187768,0.037141 -2.242427,1.1502864 -2.646268,1.8749093 l -8.005099,14.6526516 3.972222,2.327523 0.101562,-0.07448 8.177192,-14.7743988 C 28.48551,3.4397733 27.809605,1.6078984 26.802414,1.1642538 26.520592,1.0401176 26.238624,0.99239812 25.964524,1.0009691 Z"/>
 <path style="opacity:0" d="M 25.964844,2 C 24.777076,2.037141 23.7222,3.1503771 23.318359,3.875 L 15.3125,18.529297 15.083984,22.541016 15,24 l 1.142578,-0.837891 3.142578,-2.30664 0.101563,-0.07422 8.177734,-14.7734375 C 28.48583,4.4404116 27.809925,2.6077071 26.802734,2.1640625 26.520912,2.0399263 26.238944,1.991429 25.964844,2 Z"/>
</svg>
