<svg xmlns="http://www.w3.org/2000/svg" width="32" height="32" version="1">
 <rect fill="#b2bfd9" width="28" height="28" x="2" y="2" rx="1.4" ry="1.4"/>
 <path opacity=".1" d="m30 28.6v-25.2c0-0.7756-0.624-1.4-1.4-1.4h-12.6v28h12.6c0.7756 0 1.4-0.6244 1.4-1.4z"/>
 <path fill="#fff" opacity=".2" d="m3.4004 2c-0.7756 0-1.4004 0.6248-1.4004 1.4004v1c0-0.7756 0.6248-1.4004 1.4004-1.4004h25.2c0.775 0 1.4 0.6248 1.4 1.4004v-1c0-0.7756-0.625-1.4004-1.4-1.4004h-25.2z"/>
 <path opacity=".2" d="m2 28.6v1c0 0.775 0.6248 1.4 1.4004 1.4h25.2c0.775 0 1.4-0.625 1.4-1.4v-1c0 0.775-0.625 1.4-1.4 1.4h-25.2c-0.7752 0-1.4-0.625-1.4-1.4z"/>
 <path fill="#c2352a" d="m12.8 1c-0.8 0-0.8 0.6857-0.8 0.6857v11.314l2-1 2 1v-11.314c0-0.68571-0.80001-0.68571-0.80001-0.68571z"/>
</svg>
