<svg xmlns="http://www.w3.org/2000/svg" width="32" height="32" version="1">
 <path style="opacity:0.2" d="M 4,3 C 4,3 2,3 2,5 V 29 C 2,31 4,31 4,31 H 20 L 30,21 V 5 C 30,3 28,3 28,3 Z"/>
 <path style="fill:#fecd38" d="M 4,2 C 4,2 2,2 2,4 V 28 C 2,30 4,30 4,30 H 20 L 30,20 V 4 C 30,2 28,2 28,2 Z"/>
 <path style="fill:#ffe69b" d="M 30,20 H 21.5 C 20.672,20 20,20.672 20,21.5 V 30 Z"/>
 <path style="opacity:0.2;fill:#8b9cbe" d="M 21.5,20 C 20.672,20 20,20.672 20,21.5 V 22.5 C 20,21.672 20.672,21 21.5,21 H 29 L 30,20 Z"/>
 <path style="fill:#8b9cbe;opacity:0.2" d="M 4 2 C 4 2 2 2 2 4 L 2 5 C 2 3 4 3 4 3 L 28 3 C 28 3 30 3 30 5 L 30 4 C 30 2 28 2 28 2 L 4 2 z"/>
 <rect style="opacity:0.1" width="22" height="3" x="5" y="11" rx="1.5" ry="1.5"/>
 <rect style="fill:#4f4f4f" width="22" height="3" x="5" y="10" rx="1.5" ry="1.5"/>
 <rect style="opacity:0.1" width="15" height="3" x="5" y="16" rx="1.5" ry="1.5"/>
 <rect style="fill:#4f4f4f" width="15" height="3" x="5" y="15" rx="1.5" ry="1.5"/>
 <rect style="opacity:0.1" width="10" height="3" x="5" y="21" rx="1.5" ry="1.5"/>
 <rect style="fill:#4f4f4f" width="10" height="3" x="5" y="20" rx="1.5" ry="1.5"/>
</svg>
