<svg xmlns="http://www.w3.org/2000/svg" width="32" height="32" version="1">
 <path fill="#858585" d="m16 8.5a7.5 7.5 0 0 0 -7.5 7.5 7.5 7.5 0 0 0 7.5 7.5 7.5 7.5 0 0 0 7.5 -7.5 7.5 7.5 0 0 0 -7.5 -7.5zm0 4.5c1.6569 0 3 1.3431 3 3s-1.3431 3-3 3-3-1.3431-3-3 1.3431-3 3-3z"/>
 <path fill="#b2bfd9" d="m16 1c-8.31 0-15 6.69-15 15s6.69 15 15 15 15-6.69 15-15-6.69-15-15-15zm0 9a6 6 0 0 1 6 6 6 6 0 0 1 -6 6 6 6 0 0 1 -6 -6 6 6 0 0 1 6 -6z"/>
 <path fill="#fff" opacity=".4" d="m16 1c8.3024 0 14.986 6.69 14.986 15 0 0.1259-0.006 0.24986-0.0087 0.375-0.198-8.1346-6.8-14.625-14.977-14.625-8.176 0-14.779 6.4904-14.978 14.625-0.0019-0.125-0.0077-0.249-0.0077-0.375 0-8.31 6.6839-15 14.986-15zm2.959 15.375c0.01566 0.12413 0.03806 0.24662 0.03806 0.375 0 1.6569-1.3419 3-2.9973 3-1.6553 0-2.9973-1.3431-2.9973-3 0-0.12838 0.0224-0.25087 0.03806-0.375 0.18614 1.4779 1.4321 2.625 2.9592 2.625s2.7731-1.1471 2.9592-2.625z"/>
 <path opacity=".2" d="m1.0254 16.5c-0.0055 0.168-0.0254 0.331-0.0254 0.5 0 8.31 6.69 15 15 15s15-6.69 15-15c0-0.169-0.02-0.332-0.025-0.5-0.265 8.074-6.834 14.5-14.975 14.5-8.1411 0-14.71-6.426-14.975-14.5z"/>
 <path fill="#ff9f26" d="m25.902 15c-1.7862 2.5005-7.8552 9.5522-5.2701 13.629 2.0003 3.1538 8.7994 3.17 10.776 0 2.573-4.124-3.985-11.129-5.505-13.629z"/>
 <path opacity=".2" d="m20.035 26.806c-0.08635 1.0216 0.06543 1.9861 0.5957 2.8223 2.0003 3.1538 8.8003 3.17 10.777 0 0.49829-0.79885 0.64836-1.7066 0.56445-2.668-0.0639 0.59108-0.24291 1.1525-0.56445 1.668-1.9771 3.17-8.777 3.1538-10.777 0-0.35322-0.55698-0.53262-1.1734-0.5957-1.8223z"/>
</svg>
