<svg xmlns="http://www.w3.org/2000/svg" width="32" height="32" version="1">
 <path style="opacity:0.2" d="M 8.7266402,3.0032538 C 6.1032658,3.1193296 3.1336753,6.3504204 2.2555431,10.853023 c -0.208925,1.12822 -0.2499939,2.032866 -0.255543,3.052089 0.00244,0.09259 0.00255,0.184381 0.00684,0.277571 0.3541746,9.150473 7.80458,16.541614 16.9793629,16.807431 0.04679,0.002 0.09288,0.0027 0.139511,0.0041 0.601493,0.02353 1.285684,-0.0299 1.834573,-0.06708 6.912172,-0.674728 11.421724,-6.274715 7.701443,-9.366217 C 26.555953,19.810712 22.674503,18.557555 18.612806,14.531384 14.328412,10.283261 13.10929,6.2583495 11.31444,4.1819072 10.574537,3.3259807 9.6737087,2.9613492 8.7266402,3.0032538 Z"/>
 <path style="fill:#f17623" d="M 8.7266402,2.0032266 C 6.1032658,2.1193024 3.1336753,5.3503932 2.2555431,9.8529955 2.0466181,10.981216 2.0055492,11.885862 2.0000001,12.905085 c 0.00244,0.09259 0.00255,0.184381 0.00684,0.277571 0.3541746,9.150473 7.80458,16.541614 16.9793629,16.807431 0.04679,0.002 0.09288,0.0027 0.139511,0.0041 0.601493,0.02353 1.285684,-0.0299 1.834573,-0.06708 C 27.872459,29.252379 32.382011,23.652392 28.66173,20.56089 26.555953,18.810685 22.674503,17.557528 18.612806,13.531357 14.328412,9.2832342 13.10929,5.2583223 11.31444,3.18188 10.574537,2.3259535 9.6737087,1.961322 8.7266402,2.0032266 Z"/>
 <path style="fill:#ffbf55" d="M 9.2011719 2.0351562 A 14.700001 14.700001 0 0 0 5 12.300781 A 14.700001 14.700001 0 0 0 19.699219 27 A 14.700001 14.700001 0 0 0 29.955078 22.798828 C 29.850933 21.988242 29.451281 21.216337 28.662109 20.560547 C 26.556332 18.810342 22.674978 17.557421 18.613281 13.53125 C 14.328887 9.2831272 13.109303 5.2580829 11.314453 3.1816406 C 10.700119 2.4709735 9.9717395 2.116959 9.2011719 2.0351562 z"/>
 <path style="opacity:0.2" d="M 9.2011719,3.0351834 C 6.5190769,5.7773958 5.001809,9.4573526 5,13.300808 c 0,8.118586 6.580632,14.699219 14.699219,14.699219 3.840321,-0.0047 7.51618,-1.520796 10.255859,-4.201172 l -1.390625,-0.673828 c -2.432999,2.197933 -5.567799,3.470275 -8.865234,3.474609 -7.361507,0 -13.29808,-5.937501 -13.2988284,-13.298828 0.00182,-3.258422 1.2474338,-6.3565075 3.3945313,-8.7792964 z"/>
 <path style="fill:#8b9cbe" d="M 9.2011719,2.0351562 C 6.5190769,4.7773686 5.001809,8.4573254 5,12.300781 5,20.419367 11.580632,27 19.699219,27 c 3.840321,-0.0047 7.51618,-1.520796 10.255859,-4.201172 L 28.564453,22.125 c -2.432999,2.197933 -5.567799,3.470275 -8.865234,3.474609 -7.361507,0 -13.29808,-5.937501 -13.2988284,-13.298828 0.00182,-3.2584226 1.2474338,-6.3565077 3.3945313,-8.7792966 z"/>
 <path style="fill:#8b9cbe;opacity:0.2" d="M 8.7265625 2.0039062 C 6.1031881 2.119982 3.1339916 5.3509133 2.2558594 9.8535156 C 2.0469344 10.981736 2.0055491 11.885074 2 12.904297 C 2.00244 12.996887 2.0035225 13.090404 2.0078125 13.183594 C 2.0096249 13.23042 2.0173479 13.275532 2.0195312 13.322266 C 2.0392784 12.528528 2.0878938 11.76055 2.2558594 10.853516 C 3.1339916 6.350913 6.1031881 3.119982 8.7265625 3.0039062 C 9.673631 2.9620016 10.57455 3.3257141 11.314453 4.1816406 C 13.109303 6.2580829 14.328887 10.283127 18.613281 14.53125 C 22.674978 18.557421 26.556332 19.810342 28.662109 21.560547 C 29.4222 22.192172 29.822594 22.931337 29.945312 23.708984 C 30.110761 22.56975 29.742861 21.458636 28.662109 20.560547 C 26.556332 18.810342 22.674978 17.557421 18.613281 13.53125 C 14.328887 9.2831272 13.109303 5.2580829 11.314453 3.1816406 C 10.57455 2.3257141 9.673631 1.9620017 8.7265625 2.0039062 z"/>
</svg>
