<svg xmlns="http://www.w3.org/2000/svg" width="32" height="32" version="1">
 <rect style="opacity:0.2" width="30" height="22" x="1" y="6" rx="2.045" ry="2.063"/>
 <rect style="fill:#9e5fb0" width="30" height="22" x="1" y="5" rx="2.045" ry="2.063"/>
 <path style="fill:#a7a6a4" d="m 16,13 3,5.923077 V 27 h -3 z"/>
 <path style="fill:#d6d5d3" d="m 16,13 -3,5.923077 V 27 h 3 z"/>
 <path style="fill:#8b9cbe;opacity:0.2" d="M 3.0449219 5 C 1.9117401 5 1 5.919875 1 7.0625 L 1 8.0625 C 1 6.919875 1.9117401 6 3.0449219 6 L 28.955078 6 C 30.08826 6 31 6.919875 31 8.0625 L 31 7.0625 C 31 5.919875 30.08826 5 28.955078 5 L 3.0449219 5 z"/>
 <path style="fill:#8b9cbe;opacity:0.2" d="M 16 13 L 13 18.923828 L 13 19.923828 L 16 14 L 19 19.923828 L 19 18.923828 L 16 13 z"/>
</svg>
