<svg xmlns="http://www.w3.org/2000/svg" width="32" height="32" version="1">
 <rect style="opacity:0.2" width="29" height="29" x="-31" y="-30" rx="8.7" ry="8.7" transform="matrix(0,-1,-1,0,0,0)"/>
 <rect style="fill:#00539b" width="29" height="29" x="-30" y="-30" rx="8.7" ry="8.7" transform="matrix(0,-1,-1,0,0,0)"/>
 <path style="opacity:0.2" d="m 10.357422,8 -1.0273439,6 h 5.2207029 l 0.335938,-2.204 3.1875,4.704 -4.603516,4.35 L 13.75,19 H 8.4765625 l -1.0273437,6 h 5.6328122 c 5.658084,-0.260408 9.13977,-3.550219 9.832031,-8.083984 C 23.524295,12.91946 21.882123,8.4608515 15.564453,8 Z"/>
 <path style="fill:#ffcb05" d="m 10.357422,7 -1.0273439,6 h 5.2207029 l 0.335938,-2.204 3.1875,4.704 -4.603516,4.35 L 13.75,18 H 8.4765625 l -1.0273437,6 h 5.6328122 c 5.658084,-0.260408 9.13977,-3.550219 9.832031,-8.083984 C 23.524295,11.91946 21.882123,7.4608515 15.564453,7 Z"/>
 <path style="fill:#8b9cbe;opacity:0.1" d="M 9.6992188 1 C 4.8794189 1 1 4.8794189 1 9.6992188 L 1 10.699219 C 1 5.8794189 4.8794189 2 9.6992188 2 L 21.300781 2 C 26.120581 2 30 5.8794189 30 10.699219 L 30 9.6992188 C 30 4.8794189 26.120581 1 21.300781 1 L 9.6992188 1 z"/>
 <path style="opacity:0.2;fill:#8b9cbe" d="M 10.357422 7 L 9.3300781 13 L 9.5019531 13 L 10.357422 8 L 15.564453 8 C 20.823066 8.383597 22.836362 11.537449 23.013672 14.888672 C 23.205405 11.189641 21.344786 7.4216547 15.564453 7 L 10.357422 7 z M 17.660156 15.890625 L 13.646484 19.683594 L 13.470703 20.849609 L 18.074219 16.5 L 17.660156 15.890625 z M 8.4765625 18 L 7.4492188 24 L 7.6210938 24 L 8.4765625 19 L 13.599609 19 L 13.75 18 L 8.4765625 18 z"/>
</svg>
