<svg xmlns="http://www.w3.org/2000/svg" width="32" height="32" version="1.1">
 <path style="opacity:0.2" d="m 16.000603,17.000001 c -0.862283,-1.42e-4 -1.72461,0.172302 -2.362717,0.515897 L 3.9565688,22.72803 c -1.2762145,0.687187 -1.275029,1.857259 0.00118,2.544448 l 9.6801282,5.212132 c 1.276214,0.687187 3.449222,0.687187 4.725434,0 l 9.680131,-5.212132 c 1.276211,-0.687186 1.275009,-1.857263 -0.0012,-2.544448 L 18.363347,17.515898 C 17.72524,17.172303 16.862914,17.000141 16.000631,17.000001 Z"/>
 <path style="fill:#ea6e41" d="m 16.000603,16.000001 c -0.862283,-1.42e-4 -1.72461,0.172302 -2.362717,0.515897 L 3.9565688,21.72803 c -1.2762145,0.687187 -1.275029,1.857259 0.00118,2.544448 l 9.6801286,5.212132 c 1.276214,0.687187 3.449222,0.687187 4.725434,0 l 9.680131,-5.212132 c 1.276211,-0.687186 1.275009,-1.857263 -0.0012,-2.544448 l -9.678895,-5.212132 c -0.638107,-0.343595 -1.500433,-0.515757 -2.362716,-0.515897 z"/>
 <path style="opacity:0.2;fill:#8b9cbe" d="M 16 16 C 15.137717 15.999858 14.276779 16.17203 13.638672 16.515625 L 3.9570312 21.728516 C 3.0862248 22.197408 2.8246714 22.888271 3.1425781 23.5 C 3.2903035 23.215347 3.5517999 22.946715 3.9570312 22.728516 L 13.638672 17.515625 C 14.276779 17.17203 15.137717 16.999858 16 17 C 16.862283 17.00014 17.725174 17.17203 18.363281 17.515625 L 28.042969 22.728516 C 28.448375 22.94681 28.709417 23.215207 28.857422 23.5 C 29.174929 22.88818 28.913948 22.197501 28.042969 21.728516 L 18.363281 16.515625 C 17.725174 16.17203 16.862283 16.00014 16 16 z"/>
 <path style="opacity:0.2" d="m 16.000603,9.9999995 c -0.862283,-1.407e-4 -1.72461,0.1723025 -2.362717,0.5158975 l -9.6813172,5.212132 c -1.2762145,0.687189 -1.275029,1.857261 0.00118,2.54445 l 9.6801282,5.21213 c 1.276214,0.687188 3.449222,0.687188 4.725434,0 l 9.680131,-5.21213 c 1.276211,-0.687187 1.275009,-1.857264 -0.0012,-2.54445 L 18.363319,10.515897 C 17.725212,10.172302 16.862886,10.00014 16.000603,9.9999995 Z"/>
 <path style="fill:#aed351" d="M 16.000603,8.9999998 C 15.13832,8.9998591 14.275993,9.1723027 13.637886,9.5158971 L 3.9565688,14.728029 c -1.2762145,0.687189 -1.275029,1.857261 0.00118,2.54445 l 9.6801286,5.21213 c 1.276214,0.687188 3.449222,0.687188 4.725434,0 l 9.680131,-5.21213 c 1.276211,-0.687187 1.275009,-1.857264 -0.0012,-2.54445 L 18.363319,9.5158971 C 17.725212,9.1723027 16.862886,9.0001405 16.000603,8.9999998 Z"/>
 <path style="opacity:0.2;fill:#8b9cbe" d="M 16 9 C 15.137717 8.9998593 14.276779 9.1720306 13.638672 9.515625 L 3.9570312 14.728516 C 3.0862248 15.197409 2.8246714 15.888271 3.1425781 16.5 C 3.2903035 16.215346 3.5517999 15.946716 3.9570312 15.728516 L 13.638672 10.515625 C 14.276779 10.17203 15.137717 9.9998593 16 10 C 16.862283 10.000141 17.725174 10.17203 18.363281 10.515625 L 28.042969 15.728516 C 28.448375 15.94681 28.709417 16.215206 28.857422 16.5 C 29.174929 15.888179 28.913948 15.197502 28.042969 14.728516 L 18.363281 9.515625 C 17.725174 9.1720306 16.862283 9.0001407 16 9 z"/>
 <path style="opacity:0.2" d="M 16.000603,2.9999996 C 15.13832,2.9998589 14.275993,3.1723025 13.637886,3.5158968 L 3.9565688,8.7280287 c -1.2762145,0.687188 -1.275029,1.8572603 0.00118,2.5444493 l 9.6801282,5.212132 c 1.276214,0.687187 3.449222,0.687186 4.725434,0 l 9.680131,-5.212132 c 1.276211,-0.687187 1.275009,-1.8572634 -0.0012,-2.5444493 L 18.363319,3.5158968 C 17.725212,3.1723025 16.862886,3.0001403 16.000603,2.9999996 Z"/>
 <path style="fill:#3b9dda" d="M 16.000603,1.9999999 C 15.13832,1.9998592 14.275993,2.1723028 13.637886,2.5158971 L 3.9565688,7.728029 c -1.2762145,0.687188 -1.275029,1.8572605 0.00118,2.544449 l 9.6801286,5.212132 c 1.276214,0.687187 3.449222,0.687186 4.725434,0 l 9.680131,-5.212132 c 1.276211,-0.6871864 1.275009,-1.8572631 -0.0012,-2.544449 L 18.363319,2.5158971 C 17.725212,2.1723028 16.862886,2.0001406 16.000603,1.9999999 Z"/>
 <path style="opacity:0.2;fill:#8b9cbe" d="M 16 2 C 15.137717 1.9998593 14.276779 2.1720307 13.638672 2.515625 L 3.9570312 7.7285156 C 3.0862248 8.1974084 2.8246714 8.888271 3.1425781 9.5 C 3.2903035 9.2153463 3.5517999 8.9467157 3.9570312 8.7285156 L 13.638672 3.515625 C 14.276779 3.1720307 15.137717 2.9998593 16 3 C 16.862283 3.0001407 17.725174 3.1720307 18.363281 3.515625 L 28.042969 8.7285156 C 28.448375 8.9468102 28.709417 9.2152065 28.857422 9.5 C 29.174929 8.8881798 28.913948 8.1975021 28.042969 7.7285156 L 18.363281 2.515625 C 17.725174 2.1720307 16.862283 2.0001407 16 2 z"/>
</svg>
