<svg xmlns="http://www.w3.org/2000/svg" width="32" height="32" version="1">
 <defs>
  <linearGradient id="linearGradient2911-977-39">
   <stop style="stop-color:#ffffe0" offset="0"/>
   <stop style="stop-color:#ffe588;stop-opacity:0" offset="1"/>
  </linearGradient>
 </defs>
 <path style="opacity:0.2" d="M 3.9765625,6 C 2.8811534,6 2,6.8919999 2,8 v 9 9 c 0,1.108 0.8811534,2 1.9765625,2 H 29.023438 C 30.118847,28 31,27.108 31,26 V 17 8 C 31,6.8919999 30.118847,6 29.023438,6 Z"/>
 <path style="fill:#8dc5ff" d="M 3.9772727,5 C 2.8818636,5 2,5.8925745 2,7.0005746 V 16 H 31 V 7.0005746 C 31,5.8925745 30.118136,5 29.022727,5 Z"/>
 <path style="fill:#ffd948" d="M 3.9772727,27 C 2.8818636,27 2,26.107426 2,24.999426 V 16 h 29 v 8.999426 C 31,26.107426 30.118136,27 29.022727,27 Z"/>
 <path style="opacity:0.1;fill-rule:evenodd" d="m 12.51421,9.0008023 c -2.5372464,0.048742 -4.7334349,2.3167627 -3.4678961,7.2324547 -2.2171623,0.428881 -3.90236,2.913662 -2.5789715,7.862694 2.9493412,-3.00288 3.6114926,-1.037734 5.9526566,-1.503651 0.585545,1.186725 1.867263,2.410036 4.092129,3.4077 0.322337,-0.891761 1.682193,-2.232549 2.581534,-3.570258 2.567818,1.165442 3.804811,-0.692933 6.340399,2.988649 2.615891,-4.214638 1.615121,-6.959874 -0.52169,-8.034578 C 26.880955,11.754171 21.141894,9.4945448 16.981265,11.536426 15.909608,9.856551 14.145225,8.9694671 12.51421,9.0008023 Z m -0.161506,5.9233367 c 0.658806,0.02152 1.263478,0.235047 2.041899,0.247167 2.878018,2.386278 4.412137,1.695605 6.063531,2.101915 -0.771829,0.285988 -1.515428,0.724421 -2.168156,1.32777 -0.599462,-0.230686 -1.389634,-0.416436 -2.412338,-0.544964 -0.802818,-0.100893 -1.532226,0.0261 -2.136752,0.31512 C 12.64825,16.869684 11.046129,16.100683 9.5788988,16.168633 10.79788,15.127786 11.612831,14.899968 12.352704,14.924139 Z"/>
 <path style="fill:#777f23;fill-rule:evenodd" d="m 12.51421,8.0008025 c -2.5372464,0.048742 -4.7334349,2.3167625 -3.4678961,7.2324545 -2.2171623,0.428881 -3.90236,2.913662 -2.5789715,7.862694 2.9493412,-3.00288 3.6114926,-1.037734 5.9526566,-1.503651 0.585545,1.186725 1.867263,2.410036 4.092129,3.4077 0.322337,-0.891761 1.682193,-2.232549 2.581534,-3.570258 2.567818,1.165442 3.804811,-0.692933 6.340399,2.988649 2.615891,-4.214638 1.615121,-6.959874 -0.52169,-8.034578 C 26.880955,10.754171 21.141894,8.494545 16.981265,10.536426 15.909608,8.8565512 14.145225,7.9694673 12.51421,8.0008025 Z m -0.161506,5.9233365 c 0.658806,0.02152 1.263478,0.235047 2.041899,0.247167 2.878018,2.386278 4.412137,1.695605 6.063531,2.101915 -0.771829,0.285988 -1.515428,0.724421 -2.168156,1.32777 -0.599462,-0.230686 -1.389634,-0.416436 -2.412338,-0.544964 -0.802818,-0.100893 -1.532226,0.0261 -2.136752,0.31512 C 12.64825,15.869684 11.046129,15.100683 9.5788988,15.168633 10.79788,14.127786 11.612831,13.899968 12.352704,13.924139 Z"/>
 <path style="opacity:0.1" d="m 20.366986,25.942115 c -0.940562,0.617637 -3.359679,-3.8914 -5.053649,-4.775331 -1.847022,0.433495 -4.119404,4.091854 -5.048931,3.422723 -1.0630388,-0.765242 0.242309,-5.483823 0.854433,-6.515589 0.788926,-1.329777 -4.541478,-1.43497 -4.0918621,-2.560129 0.4435679,-1.11004 4.8192341,-2.135179 6.1970421,-2.32654 0.499668,-1.318884 1.793939,-3.3955604 3.564436,-3.170346 1.770498,0.225214 2.757756,2.772483 3.125499,4.078912 1.839866,0.311286 4.854387,1.54634 5.080275,2.740835 0.222849,1.178437 -6.087334,0.974197 -5.283337,2.341081 0.586955,0.997896 1.360458,6.106652 0.656091,6.764384 z"/>
 <path style="fill:#ff793f" d="m 20.366986,24.942115 c -0.940562,0.617637 -3.359679,-3.8914 -5.053649,-4.775331 -1.847022,0.433495 -4.119404,4.091854 -5.048931,3.422723 -1.0630388,-0.765242 0.242309,-5.483823 0.854433,-6.515589 0.788926,-1.329777 -4.541478,-1.43497 -4.0918621,-2.560129 0.4435679,-1.11004 4.8192341,-2.135179 6.1970421,-2.32654 0.499668,-1.318884 1.793939,-3.3955602 3.564436,-3.1703461 1.770498,0.2252146 2.757756,2.7724831 3.125499,4.0789121 1.839866,0.311286 4.854387,1.54634 5.080275,2.740835 0.222849,1.178437 -6.087334,0.974197 -5.283337,2.341081 0.586955,0.997896 1.360458,6.106652 0.656091,6.764384 z"/>
 <ellipse style="opacity:0.2" cx="18.642" cy="13.825" rx="3.497" ry="2.504" transform="matrix(0.99517792,0.09808627,-0.14846495,0.98891767,0,0)"/>
 <path style="fill:none;stroke:#ffffe0;stroke-width:0.32659864;stroke-linecap:round" d="m 16.999999,16.04 1.378235,-2.882969"/>
 <path style="fill:none;stroke:#ffffe0;stroke-width:0.32659864;stroke-linecap:round" d="M 14.999999,16.04 13.698375,13.843028"/>
 <path style="fill:none;stroke:#ffffe0;stroke-width:0.32659864;stroke-linecap:round" d="m 16.143397,14.76 0.139101,-3.960669"/>
 <path style="opacity:0.2;fill:#8b9cbe" d="M 3.9765625 5 C 2.8811534 5 2 5.8919999 2 7 L 2 8 C 2 6.8919999 2.8811534 6 3.9765625 6 L 29.023438 6 C 30.118847 6 31 6.8919999 31 8 L 31 7 C 31 5.8919999 30.118847 5 29.023438 5 L 3.9765625 5 z"/>
</svg>
