<svg xmlns="http://www.w3.org/2000/svg" width="32" height="32" version="1.1">
 <path style="opacity:0.2" d="M 5.2820512,2 H 27.717949 C 28.428206,2 29,2.5694357 29,3.2793143 V 26.844388 C 29,27.554336 28.428206,28 27.717949,28 H 13.027777 L 10.25,31 7.4722221,28 H 5.2820512 C 4.5717949,28 4,27.554336 4,26.844388 V 3.2793143 C 4,2.5694357 4.5717949,2 5.2820512,2 Z"/>
 <path style="fill:#b2bfd9" d="M 5.2820512,0.99999997 H 27.717949 C 28.428206,0.99999997 29,1.5694357 29,2.2793143 V 25.844388 C 29,26.554336 28.428206,27 27.717949,27 H 13.027777 L 10.25,30 7.4722221,27 H 5.2820512 C 4.5717949,27 4,26.554336 4,25.844388 V 2.2793143 C 4,1.5694357 4.5717949,0.99999997 5.2820512,0.99999997 Z"/>
 <path style="opacity:0.1" d="M 7.5488281,6 C 7.2516797,6 7,6.2516781 7,6.5488281 V 8.4511719 C 7,8.7483219 7.2516797,9 7.5488281,9 H 9.4511719 C 9.7483196,9 10,8.7483219 10,8.4511719 V 6.5488281 C 10,6.2516781 9.7483196,6 9.4511719,6 Z m 6.9726559,0 c -2.028484,-0.028688 -2.028484,3.0286878 0,3 H 24.5 c 2.028484,0.028688 2.028484,-3.0286878 0,-3 z M 7.5488281,13 C 7.2516797,13 7,13.251677 7,13.548828 v 1.902344 C 7,15.748322 7.2516797,16 7.5488281,16 H 9.4511719 C 9.74832,16 10,15.748322 10,15.451172 V 13.548828 C 10,13.251677 9.74832,13 9.4511719,13 Z m 6.9726559,0 c -2.028484,-0.02869 -2.028484,3.028688 0,3 H 24.5 c 2.028484,0.02869 2.028484,-3.028688 0,-3 z M 6.7382812,19 C 6.3370808,19 6,19.337114 6,19.738281 v 3.525391 C 6,23.664922 6.3370807,24 6.7382812,24 H 10.263672 C 10.664872,24 11,23.664922 11,23.263672 V 19.738281 C 11,19.337114 10.664872,19 10.263672,19 Z m 7.7832028,1 c -2.028484,-0.02869 -2.028484,3.028688 0,3 H 24.5 c 2.028484,0.02869 2.028484,-3.028688 0,-3 z"/>
 <path style="fill:#188eee" d="M 6.7373049,18 C 6.3361044,18 6,18.336138 6,18.737305 v 3.527018 C 6,22.665573 6.3361044,23 6.7373049,23 h 3.5253911 c 0.4012,0 0.737305,-0.334427 0.737305,-0.735677 V 18.737305 C 11.000001,18.336138 10.663896,18 10.262696,18 Z"/>
 <path style="fill:#898989" d="M 7.5478517,12 C 7.2507033,12 7,12.252166 7,12.549317 v 1.902831 C 7,14.749298 7.2507033,15 7.5478517,15 H 9.452148 C 9.7492961,15 10,14.749298 10,14.452148 V 12.549317 C 10,12.252166 9.7492961,12 9.452148,12 Z"/>
 <path style="fill:#898989" d="M 7.5478517,5 C 7.2507033,5 7,5.2521665 7,5.5493165 V 7.452148 c 0,0.29715 0.2507033,0.5478517 0.5478517,0.5478517 H 9.452148 c 0.2971477,0 0.5478517,-0.2507017 0.5478517,-0.5478517 V 5.5493165 C 9.9999997,5.2521665 9.7492957,5 9.452148,5 Z"/>
 <path style="fill:none;stroke:#898989;stroke-width:3;stroke-linecap:round" d="M 14.521364,13.49985 H 24.5"/>
 <path style="fill:none;stroke:#898989;stroke-width:3;stroke-linecap:round" d="M 14.521364,6.49985 H 24.5"/>
 <path style="fill:none;stroke:#188eee;stroke-width:3;stroke-linecap:round" d="M 14.521364,20.49985 H 24.5"/>
 <path style="fill:#8b9cbe;opacity:0.2" d="M 5.28125 1 C 4.5709937 1 4 1.5694183 4 2.2792969 L 4 3.2792969 C 4 2.5694183 4.5709937 2 5.28125 2 L 27.71875 2 C 28.429007 2 29 2.5694183 29 3.2792969 L 29 2.2792969 C 29 1.5694183 28.429007 1 27.71875 1 L 5.28125 1 z"/>
</svg>
