<svg xmlns="http://www.w3.org/2000/svg" width="32" height="32" version="1">
 <path opacity=".2" d="m6.377 3.9996c-0.7628 0-1.377 0.5802-1.377 1.3004v23.4c0 0.72 0.6142 1.3 1.377 1.3h19.248c0.762 0 1.375-0.58 1.375-1.3v-23.4c0-0.7198-0.613-1.3-1.375-1.3h-19.248z"/>
 <path fill="#b2bfd9" d="m6.377 3c-0.7628 0-1.377 0.5802-1.377 1.3004v23.4c0 0.72 0.6142 1.3 1.377 1.3h19.248c0.762 0 1.375-0.58 1.375-1.3v-23.4c0-0.7198-0.613-1.3-1.375-1.3h-19.248z"/>
 <path fill="#fff" opacity=".2" d="m6.377 3c-0.7628 0-1.377 0.5806-1.377 1.3008v1c0-0.7202 0.6142-1.3008 1.377-1.3008h19.248c0.762 0 1.375 0.5806 1.375 1.3008v-1c0-0.7202-0.613-1.3008-1.375-1.3008h-19.248z"/>
 <path opacity=".5" d="m6 7v1h8v-1h-8zm0 2v1h4v-1h-4zm0 2v1h5v-1h-5zm0 2v1h2v-1h-2zm0 2v1h5v-1h-5z"/>
</svg>
