<svg xmlns="http://www.w3.org/2000/svg" width="32" height="32" version="1.1">
 <circle style="opacity:0.2" cx="16" cy="17" r="14"/>
 <path style="fill:#39fea0" d="M 15.99043,30 A 14,14 0 0 0 16,30 14,14 0 0 0 30,16 14,14 0 0 0 16,1.9999999 a 14,14 0 0 0 -0.0082,0 z"/>
 <path style="fill:#1f4855" d="M 15.99043,30 15.99183,1.9999999 A 14,14 0 0 0 2,16 14,14 0 0 0 15.99043,30 Z"/>
 <path style="opacity:0.1" d="M 15.111328,9 8.9101562,25 h 2.0234378 l 1.933594,-4.998047 3.064453,-0.0039 v 0.0039 h 3.148437 L 21.023438,25 h 2.066406 L 16.910156,9 h -0.917968 -0.06055 z M 15.978516,11.074219 18.480469,18 h -2.490235 -0.05859 -2.398438 z"/>
 <path style="fill:#1f4855" d="m 15.93164,19.001104 h 3.148489 L 21.022786,24 h 2.066407 L 16.910807,8 H 15.93164 l 0.04688,2.075018 c 0.01492,-0.05693 -0.01469,0.05715 0,0 L 18.479871,17 h -2.548228 z"/>
 <path style="fill:#39fea0" d="M 15.991013,18.998896 15.991011,17 H 13.533333 L 15.978513,10.075018 15.992437,8 H 15.111328 L 8.9108075,24 h 2.0234375 l 1.932421,-4.998896 z"/>
 <path style="opacity:0.1;fill:#8b9cbe" d="M 16 2 A 14 14 0 0 0 2 16 A 14 14 0 0 0 2.0214844 16.585938 A 14 14 0 0 1 16 3 A 14 14 0 0 1 29.978516 16.414062 A 14 14 0 0 0 30 16 A 14 14 0 0 0 16 2 z"/>
</svg>
