<svg xmlns="http://www.w3.org/2000/svg" width="32" height="32" version="1.1">
 <path style="opacity:0.2" d="M 6.375,3 C 5.61325,3 5,3.6244 5,4.4 V 29.6 C 5,30.3756 5.61325,31 6.375,31 h 19.25 C 26.38675,31 27,30.3756 27,29.6 V 4.4 C 27,3.6244 26.38675,3 25.625,3 Z"/>
 <path style="fill:#5a72e3" d="M 6.375,2 C 5.61325,2 5,2.6244 5,3.4 V 28.6 C 5,29.3756 5.61325,30 6.375,30 h 19.25 C 26.38675,30 27,29.3756 27,28.6 V 3.4 C 27,2.6244 26.38675,2 25.625,2 Z"/>
 <path style="opacity:0.3" d="M 6.375,2 C 5.61325,2 5,2.6244 5,3.4 V 28.6 C 5,29.3756 5.61325,30 6.375,30 H 9 V 2 H 6.3753438 Z"/>
 <path style="opacity:0.2" d="m 21,9 v 15 h 3 V 9 Z m -10,4 v 11 h 3 V 13 Z m 5,4 v 7 h 3 v -7 z"/>
 <path style="fill:#8b9cbe" d="M 21 8 L 21 23 L 24 23 L 24 8 L 21 8 z M 11 12 L 11 23 L 14 23 L 14 12 L 11 12 z M 16 16 L 16 23 L 19 23 L 19 16 L 16 16 z"/>
 <path style="fill:#8b9cbe;opacity:0.1" d="M 6.375 2 C 5.61325 2 5 2.6247906 5 3.4003906 L 5 4.4003906 C 5 3.6247906 5.61325 3 6.375 3 L 25.625 3 C 26.38675 3 27 3.6247906 27 4.4003906 L 27 3.4003906 C 27 2.6247906 26.38675 2 25.625 2 L 6.375 2 z"/>
</svg>
