<svg xmlns="http://www.w3.org/2000/svg" width="32" height="32" version="1">
 <circle style="opacity:0.2" cx="16" cy="17" r="14"/>
 <circle style="fill:#b2bfd9" cx="16" cy="16" r="14"/>
 <path style="opacity:0.1" d="m 15.515625,8.0021105 c -0.950898,0.020875 -1.870251,0.2627854 -2.695313,0.7558594 -1.650123,0.9861487 -2.585637,2.7733221 -2.78125,4.8124991 -0.1956134,2.03918 0.336264,4.345842 1.625,6.462891 0.10266,0.168643 0.213208,0.327104 0.322266,0.488281 -1.172422,0.263271 -2.2550313,0.427078 -3.1406249,0.449219 -1.1007087,0.02768 -2.6322376,-0.205607 -3.0703125,-1.205078 -0.3898744,-0.890202 1.0591892,-2.695228 1.078125,-2.71875 -0.024635,0.02333 -2.0015525,1.8983 -1.8457031,3.076172 0.2164606,1.634706 2.2922447,1.895894 3.9296875,1.876953 0.8330679,-0.0095 2.127224,-0.229245 3.630859,-0.605469 a 2,2 0 0 0 0.240235,0.212891 c 1.114971,1.298266 2.442991,2.268584 3.824218,2.832031 1.89359,0.772456 3.90715,0.782668 5.546876,-0.197265 1.639727,-0.979935 2.574266,-2.750529 2.777343,-4.775391 0.114148,-1.138146 -0.0078,-2.361898 -0.353515,-3.589844 C 26.066148,14.639017 27.012109,13.280731 27,11.857579 26.98528,10.077178 23.748047,9.9199187 23.748047,10.025548 c 0,0 2.399931,0.595563 2.347656,1.742187 -0.04597,1.007026 -0.751828,2.041735 -1.849609,3.039063 -0.235159,-0.59768 -0.521562,-1.191817 -0.869141,-1.771485 C 22.10244,10.909771 20.305136,9.3601102 18.402344,8.5743762 17.450947,8.1815093 16.466521,7.9812379 15.515625,8.0021105 Z m 0.02539,0.7167969 c 0.836125,-0.017411 1.712632,0.1624772 2.582031,0.5214844 1.738798,0.7180148 3.42904,2.1630112 4.628906,4.1640622 0.373536,0.622957 0.670022,1.261662 0.904297,1.902344 -0.277208,0.22172 -0.567045,0.440429 -0.878906,0.65625 C 22.1124,13.673353 20.005066,12.000157 17.5,12.000157 c -3.03833,0 -5.5,2.460951 -5.5,5.5 0,0.545871 0.08258,1.072655 0.230469,1.570312 a 2,2 0 0 0 -0.119141,0.277344 c -1.078851,-1.90507 -1.517223,-3.941326 -1.347656,-5.708984 0.178873,-1.864663 1.01133,-3.413696 2.433594,-4.2636716 0.711133,-0.4249872 1.507627,-0.6388426 2.34375,-0.65625 z m 0.974609,6.1874996 c 1.684869,0 3.104136,1.116761 3.576172,2.646484 -1.331295,0.684539 -2.764253,1.296876 -4.197266,1.8125 a 2,2 0 0 0 -3.08789,-0.96875 c 0.127517,-1.949512 1.726531,-3.490234 3.708984,-3.490234 z m 7.46875,1.457031 c 0.261442,1.047939 0.343531,2.079185 0.248047,3.03125 -0.185632,1.850895 -1.014533,3.38591 -2.427734,4.230469 -1.413203,0.844559 -3.166736,0.854056 -4.896485,0.148438 -0.946188,-0.385981 -1.875914,-0.995338 -2.724609,-1.785157 a 2,2 0 0 0 0.125,-0.01367 c 0.900208,0.642864 2.00014,1.025391 3.191406,1.025391 3.039048,0 5.5,-2.460952 5.5,-5.5 0,-0.146428 -0.01222,-0.290061 -0.02344,-0.433594 0.352664,-0.229285 0.689347,-0.462808 1.007813,-0.703125 z m -3.71875,2.226563 c 2.39e-4,0.01736 0.0059,0.03336 0.0059,0.05078 0,2.066066 -1.689788,3.755859 -3.755859,3.755859 -0.677538,0 -1.302533,-0.196549 -1.849609,-0.513672 a 2,2 0 0 0 1.298828,-1.509765 c 1.436314,-0.499435 2.906296,-1.100669 4.300781,-1.783203 z"/>
 <path style="fill:#474747" d="m 15.516533,7.0014775 c -0.950898,0.020875 -1.870241,0.263684 -2.695303,0.756758 -1.650123,0.9861487 -2.586184,2.7725315 -2.781797,4.8117095 -0.1956139,2.03918 0.335142,4.346525 1.623878,6.463574 1.28059,2.103669 3.0757,3.633897 4.969289,4.406353 1.89359,0.772456 3.907129,0.782099 5.546854,-0.197835 1.639727,-0.979934 2.574535,-2.750878 2.777612,-4.77574 0.203079,-2.024863 -0.312777,-4.318261 -1.579234,-6.430372 C 22.103319,9.9103821 20.304359,8.3599683 18.401567,7.5742343 17.45017,7.1813674 16.467429,6.9806049 15.516533,7.0014775 Z m 0.02372,0.7180211 c 0.836125,-0.017411 1.712903,0.1611778 2.582302,0.520185 1.738798,0.7180148 3.430418,2.1631944 4.630284,4.1642454 1.192247,1.988348 1.665815,4.13953 1.480185,5.990428 -0.185632,1.850895 -1.01564,3.386093 -2.428842,4.230652 C 20.39098,23.469568 18.63858,23.47866 16.908831,22.773041 15.179076,22.067419 13.49246,20.64176 12.286911,18.661366 11.07366,16.668319 10.584607,14.503781 10.763479,12.63912 10.942352,10.774457 11.774241,9.2252386 13.196505,8.3752635 13.907638,7.9502763 14.704123,7.736906 15.540246,7.7194986 Z"/>
 <path style="fill:#2a58ae" d="M 17.5,11 C 14.46167,11 12,13.460951 12,16.5 12,19.539048 14.460952,22 17.5,22 20.539048,22 23,19.539048 23,16.5 23,13.460951 20.539048,11 17.5,11 Z m -0.98371,2.906704 c 2.066071,0 3.75585,1.667605 3.75585,3.733671 0,2.066066 -1.689779,3.75585 -3.75585,3.75585 -2.066066,0 -3.733671,-1.689784 -3.733671,-3.75585 0,-2.066066 1.667605,-3.733671 3.733671,-3.733671 z"/>
 <path style="fill:#474747" d="m 6.8604223,16.0396 c 0,0 -2.0085181,1.897685 -1.8516947,3.082918 0.2164606,1.634706 2.2912416,1.8955 3.9286844,1.876559 3.969915,-0.04517 18.109325,-4.635305 18.062472,-10.141739 -0.01472,-1.7804013 -3.251325,-1.937752 -3.251325,-1.8321227 0,0 2.400208,0.5958953 2.347933,1.7425197 C 25.901383,15.041717 14.091435,19.839937 8.8465843,19.971063 7.7458756,19.998739 6.2137179,19.764175 5.775643,18.764704 5.3832164,17.868675 6.8594179,16.039466 6.8594179,16.039466 Z"/>
 <path style="opacity:0.1" d="m 22.999966,11.513038 a 2.5,2.5 0 0 1 -4.999932,0 2.5,2.5 0 1 1 4.999932,0 z"/>
 <path style="fill:#d24646" d="m 22.999966,10.513038 a 2.5,2.5 0 0 1 -4.999932,0 2.5,2.5 0 1 1 4.999932,0 z"/>
 <path style="fill:#606060" d="m 16,19 a 2,2 0 0 1 -4,0 2,2 0 1 1 4,0 z"/>
 <path style="opacity:0.2;fill:#8b9cbe;fill-rule:evenodd" d="M 16 2 A 14 14 0 0 0 2 16 A 14 14 0 0 0 2.0214844 16.585938 A 14 14 0 0 1 16 3 A 14 14 0 0 1 29.978516 16.414062 A 14 14 0 0 0 30 16 A 14 14 0 0 0 16 2 z"/>
</svg>
