<svg xmlns="http://www.w3.org/2000/svg" width="32" height="32" version="1">
 <path style="opacity:.2" d="m15.618 2.965045c-0.28986 0.00468-0.58326 0.023504-0.87774 0.056055-4.615 0.5102-7.9769 4.3174-7.6599 8.5679l-1.0801 0.121 0.618 5.59 3.603-0.398-0.6185-5.592-1.3343 0.148c-0.2473-3.6425 2.6398-6.8947 6.5978-7.3322 3.9556-0.43725 7.4995 2.0993 8.0582 5.7039l-1.1744 0.12988 0.61797 5.5904 3.4781-0.38418-0.61797-5.5904-1.117 0.12305c-0.589-3.9395-4.246-6.8025-8.493-6.734z"/>
 <path style="opacity:.2" d="m15.087 6.0009751c-0.48969 0.018861-0.91996 0.27905-1.2578 0.66455-0.3378 0.3855-0.60464 0.89892-0.82939 1.5015-0.4495 1.2052-0.72584 3.7770179-0.87887 5.4027179s-0.1792 2.302122-0.10937 3.703622 0.20622 2.4922 0.49477 3.1012c0.25238 0.53262 0.54559 1.1414 0.67185 1.6912s0.09985 0.98796-0.22395 1.3424c-0.3238 0.35439-1.0381 0.67314-2.4114 0.74678-1.3732 0.07365-3.3799-0.49235-6.225-1.02184-0.45826-0.08528-0.84056-0.0929-1.1731 0.01724-0.33257 0.11015-0.59292 0.35514-0.75127 0.66455-0.31671 0.61881-0.34518 2.869718-0.39191 4.045918-0.01511 0.38033 0.12456 0.7429 0.36978 1.0399 0.24522 0.29703 0.58856 0.54051 1.0143 0.75342 0.85145 0.42582 2.0438 0.73278 3.5246 0.95106 2.9615 0.43654 7.0733 0.50534 11.744 0.23478l0.0039-0.0013h0.0052c1.7191-0.14157 4.4385-0.24088 6.7836-0.83698 1.1725-0.29805 2.2567-0.71792 3.0845-1.3596 0.82778-0.64168 1.3947-1.5326 1.4505-2.6688 0.05188-1.0564-0.0027-2.664378-0.21484-3.172678-0.21216-0.50831-0.66684-0.77947-1.1341-0.78923-0.93446-0.01952-2.0355 0.49228-3.4647 0.82768-1.64 0.38488-2.7971 0.220635-3.5845 0.160935-0.78741-0.05971-1.181 0.0062-1.4244-0.306845-0.2434-0.31305-0.35276-0.77614-0.40363-1.3649-0.05086-0.58877-0.04493-1.2859-0.12239-2.0202-0.149-1.407-0.43-3.702022-1.065-6.645022-0.317-1.4712-0.72-3.8558179-1.261-4.8971179-0.271-0.5206-0.575-0.9584-0.94-1.2747-0.365-0.3162-0.805-0.5078-1.281-0.4894z"/>
 <path style="fill:#4d4d4d" d="m15.618 1.9650449c-0.28986 0.00468-0.58326 0.023504-0.87774 0.056055-4.615 0.5102-7.9769 4.3174-7.6599 8.5679001l-1.0801 0.121 0.618 5.59 3.603-0.398-0.6185-5.592-1.3343 0.148c-0.2473-3.6425001 2.6398-6.8947001 6.5978-7.3322001 3.9556-0.43725 7.4995 2.0993 8.0582 5.7039l-1.1744 0.12988 0.61797 5.5904001 3.4781-0.38418-0.61797-5.5904001-1.117 0.12305c-0.589-3.9395-4.246-6.8025-8.493-6.734z"/>
 <path style="fill:#974fa4" d="m15.087 5.000975c-0.48969 0.018861-0.91996 0.27905-1.2578 0.66455-0.3378 0.3855-0.60464 0.89892-0.82939 1.5015-0.4495 1.2052-0.72584 3.777018-0.87887 5.402718s-0.1792 2.302122-0.10937 3.703622 0.20622 2.4922 0.49477 3.1012c0.25238 0.53262 0.54559 1.1414 0.67185 1.6912s0.09985 0.98796-0.22395 1.3424c-0.3238 0.35439-1.0381 0.67314-2.4114 0.74678-1.3732 0.07365-3.3799-0.49235-6.225-1.02184-0.45826-0.08528-0.84056-0.0929-1.1731 0.01724-0.33257 0.11015-0.59292 0.35514-0.75127 0.66455-0.31671 0.61881-0.34518 2.869718-0.39191 4.045918-0.01511 0.38033 0.12456 0.7429 0.36978 1.0399 0.24522 0.29703 0.58856 0.54051 1.0143 0.75342 0.85145 0.42582 2.0438 0.73278 3.5246 0.95106 2.9615 0.43654 7.0733 0.50534 11.744 0.23478l0.0039-0.0013h0.0052c1.7191-0.14157 4.4385-0.24088 6.7836-0.83698 1.1725-0.29805 2.2567-0.71792 3.0845-1.3596 0.82778-0.64168 1.3947-1.5326 1.4505-2.6688 0.05188-1.0564-0.0027-2.664378-0.21484-3.172678-0.21216-0.50831-0.66684-0.77947-1.1341-0.78923-0.93446-0.01952-2.0355 0.49228-3.4647 0.82768-1.64 0.38488-2.7971 0.220635-3.5845 0.160935-0.78741-0.05971-1.181 0.0062-1.4244-0.306845-0.2434-0.31305-0.35276-0.77614-0.40363-1.3649-0.05086-0.58877-0.04493-1.2859-0.12239-2.0202-0.149-1.407-0.43-3.702022-1.065-6.645022-0.317-1.4712-0.72-3.855818-1.261-4.897118-0.271-0.5206-0.575-0.9584-0.94-1.2747-0.365-0.3162-0.805-0.5078-1.281-0.4894z"/>
 <path style="opacity:.2;fill:#8b9cbe" d="m15.087891 5c-0.48969 0.018861-0.919973 0.2805156-1.257813 0.6660156-0.3378 0.3855-0.605328 0.8993732-0.830078 1.5019532-0.4495 1.2051999-0.725876 3.7766432-0.878906 5.4023432-0.111687 1.186494-0.136463 1.921926-0.125 2.748047 0.020208-0.501141 0.055898-1.013946 0.125-1.748047 0.15303-1.625699 0.429406-4.1971433 0.878906-5.4023432 0.22475-0.60258 0.492278-1.1164532 0.830078-1.5019532 0.33784-0.3855 0.768123-0.6471546 1.257813-0.6660156l-0.001953 0.0019531c0.475999-0.0184 0.91625 0.1740344 1.28125 0.4902344 0.364999 0.3163 0.668453 0.7528375 0.939453 1.2734375 0.541 1.0413 0.944718 3.425284 1.261718 4.896484 0.635 2.943 0.915453 5.239485 1.064453 6.646485 0.077461 0.7343 0.072187 1.430761 0.123047 2.019531 0.05087 0.58876 0.160897 1.052184 0.404297 1.365234 0.2434 0.313045 0.636418 0.246931 1.423828 0.306641 0.7874 0.0597 1.943985 0.224724 3.583985-0.160156 1.4292-0.3354 2.530383-0.847645 3.464843-0.828125 0.467261 0.00976 0.922606 0.280752 1.134766 0.789062 0.154767 0.370832 0.202097 1.30288 0.208984 2.203125 0.000639-0.010994 0.005318-0.020209 0.00586-0.03125 0.05188-1.0564-0.002704-2.663575-0.214844-3.171875-0.21216-0.50831-0.667505-0.779302-1.134766-0.789062-0.93446-0.01952-2.035643 0.492725-3.464843 0.828125-1.64 0.38488-2.796585 0.219856-3.583985 0.160156-0.78741-0.05971-1.180428 0.006404-1.423828-0.306641-0.2434-0.31305-0.353427-0.776474-0.404297-1.365234-0.05086-0.58877-0.045586-1.285231-0.123047-2.019531-0.149-1.407-0.429453-3.703485-1.064453-6.646485-0.317-1.4712-0.720718-3.855184-1.261718-4.896484-0.271-0.5206-0.574454-0.9571375-0.939453-1.2734375-0.365-0.3162-0.805251-0.5086344-1.28125-0.4902344l0.001953-0.0019531zm-1.917969 17.041016c-0.047475 0.130592-0.111841 0.254437-0.214844 0.367187-0.3238 0.35439-1.038809 0.672454-2.412109 0.746094-1.3732003 0.07365-3.3795096-0.491994-6.2246096-1.021485-0.45826-0.08528-0.8412882-0.092561-1.1738282 0.017579-0.33257 0.11015-0.5936031 0.354652-0.7519531 0.664062-0.31671 0.61881-0.343895 2.870675-0.390625 4.046875-0.0044583 0.11222 0.0061165 0.222179 0.0273438 0.330078 0.040926-1.222042 0.0940892-2.850987 0.3632812-3.376953 0.15835-0.30941 0.4193831-0.553912 0.7519531-0.664062 0.33254-0.11014 0.7155682-0.102859 1.1738282-0.017579 2.8451 0.52949 4.8514093 1.095135 6.2246096 1.021485 1.3733-0.07364 2.088309-0.391704 2.412109-0.746094 0.3238-0.35444 0.348916-0.791997 0.222656-1.341797-0.00186-0.008101-0.00588-0.017264-0.007812-0.02539z"/>
 <path style="opacity:.2" d="m13.987 14.14989a2.9911 6.0006 2.5216 1 1 -5.9743 -0.301 2.9911 6.0006 2.5216 1 1 5.9743 0.301z"/>
 <path style="fill:#8b9cbe" d="m13.987 13.14989a2.9911 6.0006 2.5216 1 1 -5.9743 -0.301 2.9911 6.0006 2.5216 1 1 5.9743 0.301z"/>
 <path style="fill:#4d4d4d" d="m12.993 14.04789a1.4913261 2.0080352 6.8892 0 1 -2.9863 -0.09601 1.4913261 2.0080352 6.8892 0 1 2.9863 0.09601z"/>
 <path style="opacity:.2" d="m22.937 13.68289a6.0260829 3.4507475 83.212 0 1 -6.874 0.63353 6.0260829 3.4507475 83.212 1 1 6.874 -0.63353z"/>
 <path style="fill:#8b9cbe" d="m22.937 12.68289a6.0260829 3.4507475 83.212 0 1 -6.874 0.63353 6.0260829 3.4507475 83.212 1 1 6.874 -0.63353z"/>
 <path style="fill:#4d4d4d" d="m20.947 14.13689a1.4388 2.0445 16.98 0 1 -2.8949 -0.27097 1.4388 2.0445 16.98 1 1 2.8949 0.27097z"/>
</svg>
