<svg xmlns="http://www.w3.org/2000/svg" style="enable-background:new" width="32" height="32" version="1.0">
 <rect style="opacity:0.2" width="22" height="17" x="9" y="4" rx="1.692" ry="1.36"/>
 <rect style="opacity:0.2" width="22" height="17" x="5" y="8" rx="1.692" ry="1.36"/>
 <rect style="opacity:0.2" width="22" height="17" x="1" y="12" rx="1.692" ry="1.36"/>
 <rect style="fill:#007dde" width="22" height="17" x="9" y="3" rx="1.692" ry="1.36"/>
 <rect style="fill:#2fbce5" width="22" height="17" x="5" y="7" rx="1.692" ry="1.36"/>
 <rect style="fill:#b2bfd9" width="22" height="17" x="1" y="11" rx="1.692" ry="1.36"/>
 <path style="opacity:0.1;fill-rule:evenodd" d="m 15.939486,17.571705 -2.44478,2.36832 L 16,22.421121 14.402421,23.921056 11.993949,21.315906 9.59758,24 8.0000001,22.488787 10.636959,20.02751 8.2013448,17.608842 10.001989,16 l 2.194164,2.528942 2.121548,-2.448631 z"/>
 <path style="fill:#189ce1;fill-rule:evenodd" d="m 15.939486,16.571705 -2.44478,2.36832 L 16,21.421121 14.402421,22.921056 11.993949,20.315906 9.59758,23 8.0000001,21.488787 10.636959,19.02751 8.2013448,16.608842 10.001989,15 l 2.194164,2.528942 2.121548,-2.448631 z"/>
 <path style="opacity:0.1;fill:#8b9cbe" d="M 10.691406,3 C 9.753868,3 9,3.605935 9,4.359375 v 1 C 9,4.605935 9.753868,4 10.691406,4 H 29.308594 C 30.246132,4 31,4.605935 31,5.359375 v -1 C 31,3.605935 30.246132,3 29.308594,3 Z"/>
 <path style="opacity:0.2;fill:#8b9cbe" d="M 6.6914062,7 C 5.7538678,7 5,7.605935 5,8.359375 v 1 C 5,8.605935 5.7538678,8 6.6914062,8 H 25.308594 C 26.246132,8 27,8.605935 27,9.359375 v -1 C 27,7.605935 26.246132,7 25.308594,7 Z"/>
 <path style="opacity:0.2;fill:#8b9cbe" d="M 2.6914062,11 C 1.7538678,11 1,11.605935 1,12.359375 v 1 C 1,12.605935 1.7538678,12 2.6914062,12 H 21.308594 C 22.246132,12 23,12.605935 23,13.359375 v -1 C 23,11.605935 22.246132,11 21.308594,11 Z"/>
</svg>
