<svg xmlns="http://www.w3.org/2000/svg" width="32" height="32" version="1.1">
 <circle style="opacity:0.2" cx="16" cy="17" r="14"/>
 <path style="fill:#fff55d" d="M 30,16 C 30,23.731986 23.731986,30 16,30 12.02389,30 8.4349201,28.342458 5.886383,25.680668 3.4790075,23.166312 3.8637771,20.666094 3.8637771,16.910217 3.8637771,9.1782305 8.1813262,4.1671826 15.913313,4.1671826 23.645299,4.1671826 30,8.2680135 30,16 Z"/>
 <path style="opacity:0.1" d="m 16,3.000422 c -7.7319865,0 -14,6.2680135 -14,14 0.00346,3.711706 1.4811179,7.269736 4.1074219,9.892578 L 16,17.000422 h 14 c 0,-7.7319865 -6.268014,-14 -14,-14 z"/>
 <path style="fill:#4098fe" d="M 30,16 H 16 V 2 c 7.731986,0 14,6.2680135 14,14 z"/>
 <path style="fill:#24db65" d="M 16,2 C 8.2680135,2 2,8.2680135 2,16 c 0.00346,3.711706 1.4807272,7.270126 4.1070312,9.892968 L 16,16 Z"/>
 <path style="fill:#25a068" d="M 16,13.9 6.1070312,23.792968 C 3.7278735,21.409326 2.287698,18.247929 2.0505859,14.888476 2.0190014,15.258167 2.0021261,15.628968 2,16 c 0.00346,3.711706 1.4807272,7.270126 4.1070312,9.892968 L 16,16 Z"/>
 <path style="fill:#2379e0" d="M 16 13 L 16 16 L 30 16 C 30 14.969543 29.881208 13.967081 29.669922 13 L 16 13 z"/>
 <path style="opacity:0.2;fill:#8b9cbe" d="M 16 2 A 14 14 0 0 0 2 16 A 14 14 0 0 0 2.0214844 16.585938 A 14 14 0 0 1 16 3 A 14 14 0 0 1 29.978516 16.414062 A 14 14 0 0 0 30 16 A 14 14 0 0 0 16 2 z"/>
</svg>
