<svg xmlns="http://www.w3.org/2000/svg" width="32" height="32" version="1">
 <rect style="opacity:0.2" width="27" height="27" x="-30" y="-29" rx="1.35" ry="1.35" transform="matrix(0,-1,-1,0,0,0)"/>
 <rect style="fill:#b2bfd9" width="27" height="27" x="-29" y="-29" rx="1.35" ry="1.35" transform="matrix(0,-1,-1,0,0,0)"/>
 <g style="font-size:40px;line-height:1.25;letter-spacing:0px;word-spacing:0px;opacity:0.1" transform="matrix(0.7042071,0,0,0.68555318,-2.238532,1.0667288)">
  <path transform="matrix(1.0058594,0,0,0.98981588,1.0487426,-1.2434381)" d="m 12,10 v 7.368421 h 1.556641 c 0.526202,-2.252577 2.023948,-4.304398 3.304687,-5.810743 h 5.021025 v 22.555603 2.413035 H 17.647059 V 38 H 30.352941 V 36.526316 H 26.117647 V 34.113281 11.557678 h 5.021025 c 1.636095,1.692902 2.683087,3.593927 3.304687,5.810743 H 36 V 10 H 35 25 24 23 13 Z"/>
 </g>
 <g style="font-size:40px;line-height:1.25;letter-spacing:0px;word-spacing:0px;fill:#3261c2" transform="matrix(0.7042071,0,0,0.68555318,-2.238532,0.06672883)">
  <path style="fill:#3261c2" transform="matrix(1.0058594,0,0,0.98981588,1.0487426,-1.2434381)" d="m 12,10 v 7.368421 h 1.556641 c 0.526202,-2.252577 2.023948,-4.304398 3.304687,-5.810743 h 5.021025 v 22.555603 2.413035 H 17.647059 V 38 H 30.352941 V 36.526316 H 26.117647 V 34.113281 11.557678 h 5.021025 c 1.636095,1.692902 2.683087,3.593927 3.304687,5.810743 H 36 V 10 H 35 25 24 23 13 Z"/>
 </g>
 <path style="fill:#8b9cbe;opacity:0.2" d="M 3.3496094 2 C 2.6017094 2 2 2.6017094 2 3.3496094 L 2 4.3496094 C 2 3.6017094 2.6017094 3 3.3496094 3 L 27.650391 3 C 28.398291 3 29 3.6017094 29 4.3496094 L 29 3.3496094 C 29 2.6017094 28.398291 2 27.650391 2 L 3.3496094 2 z"/>
 <circle style="opacity:0.2" cx="24" cy="24" r="8"/>
 <circle style="fill:#4f4f4f" cx="24" cy="23" r="8"/>
 <path style="fill:#ffd000" d="M 20,25.218 V 27 h 1.7819 l 4.5004,-4.5004 -1.7819,-1.7819 z m 7.8586,-4.2891 c 0.18848,-0.18847 0.18848,-0.48545 0,-0.67393 l -1.1137,-1.1137 c -0.18848,-0.18848 -0.48546,-0.18848 -0.67393,0 l -0.931,0.937 1.782,1.782 z"/>
</svg>
