<svg xmlns="http://www.w3.org/2000/svg" style="enable-background:new" width="32" height="32" version="1.0">
 <path style="opacity:0.2" d="M 6.9748321,3 C 5.8871962,3 5,3.9200876 5,5.0480468 V 28.951953 C 5,30.079886 5.8871962,31 6.9748321,31 H 25.025168 C 26.112779,31 27,30.079912 27,28.951953 V 5.0480468 C 27,3.9200876 26.112804,3 25.025168,3 Z"/>
 <path style="fill:#3584e4" d="M 6.9748321,2 C 5.8871962,2 5,2.9200876 5,4.0480468 V 27.951953 C 5,29.079886 5.8871962,30 6.9748321,30 H 25.025168 C 26.112779,30 27,29.079912 27,27.951953 V 4.0480468 C 27,2.9200876 26.112804,2 25.025168,2 Z"/>
 <path style="opacity:0.2" d="M 8.5680988,5.0000082 A 0.56001355,0.45978985 0 0 0 8.1779527,5.7885595 L 9.6489536,6.9963013 8.1779527,8.2040426 A 0.56001355,0.45978985 0 1 0 8.9694575,8.8538952 L 10.836212,7.3212276 a 0.56001355,0.45978985 0 0 0 0,-0.6498526 L 8.9694575,5.1387069 A 0.56001355,0.45978985 0 0 0 8.5680988,5.0000002 Z" font-weight="400" overflow="visible"/>
 <path style="fill:#f6f5f4" d="M 8.5680988,4.0000082 A 0.56001355,0.45978985 0 0 0 8.1779527,4.7885595 L 9.6489536,5.9963013 8.1779527,7.2040426 A 0.56001355,0.45978985 0 1 0 8.9694575,7.8538952 L 10.836212,6.3212276 a 0.56001355,0.45978985 0 0 0 0,-0.6498526 L 8.9694575,4.1387069 A 0.56001355,0.45978985 0 0 0 8.5680988,4.0000002 Z" font-weight="400" overflow="visible"/>
 <path style="fill:#241f31" d="M 7,10 V 26.881696 C 7,27.507295 7.4738087,28 8.0753637,28 H 23.924536 c 0.601578,0 1.075365,-0.492705 1.075365,-1.118304 V 10 Z"/>
 <path style="opacity:0.3;fill:#8b9cbe" d="m 8,18 v 1 h 7 v -1 z"/>
 <path style="opacity:0.3;fill:#8b9cbe" d="m 8,20 v 1 h 15 v -1 z"/>
 <path style="opacity:0.3;fill:#8b9cbe" d="m 8,22 v 1 h 11 v -1 z"/>
 <path style="opacity:0.3;fill:#8b9cbe" d="m 8,24 v 1 h 13 v -1 z"/>
 <path style="opacity:0.15;fill:#8b9cbe" d="m 7,10 v 7 h 18 v -7 z"/>
 <path style="fill:#8b9cbe;opacity:0.2" d="M 6.9746094 2 C 5.8869735 2 5 2.9208689 5 4.0488281 L 5 5.0488281 C 5 3.9208689 5.8869735 3 6.9746094 3 L 25.025391 3 C 26.113027 3 27 3.9208689 27 5.0488281 L 27 4.0488281 C 27 2.9208689 26.113027 2 25.025391 2 L 6.9746094 2 z"/>
 <rect style="opacity:0.2" width="18" height="1" x="7" y="10"/>
</svg>
