<svg xmlns="http://www.w3.org/2000/svg" width="32" height="32" version="1">
 <rect style="opacity:0.2" width="29" height="29" x="-31" y="-31" rx="1.45" ry="1.45" transform="matrix(0,-1,-1,0,0,0)"/>
 <rect style="fill:#b5c0df" width="29" height="29" x="-30" y="-31" rx="1.45" ry="1.45" transform="matrix(0,-1,-1,0,0,0)"/>
 <rect style="fill:#314277" width="5" height="17" x="6" y="5" rx=".714" ry=".773"/>
 <rect style="fill:#314277" width="13" height="17" x="14" y="5" rx=".684" ry=".773"/>
 <rect style="fill:#314277" width="5" height="14.7" x="11" y="-21.2" rx=".714" ry=".7" transform="rotate(90)"/>
 <path style="opacity:0.2" d="M 16.691406,8 C 16.307868,8 16,8.3345 16,8.75 v 1.5 C 16,10.6655 16.307868,11 16.691406,11 H 22 v 2 h -5.308594 c -0.04315,0 -0.08017,0.01924 -0.121094,0.02734 -0.04888,0.0088 -0.09809,0.01399 -0.142578,0.0293 -0.004,0.0018 -0.0077,0.004 -0.01172,0.0059 C 16.17115,13.150937 16,13.328131 16,13.539062 V 13.75 15.25 19.460938 20.25 c 0,0.4155 0.307868,0.75 0.691406,0.75 h 7.617188 C 24.692132,21 25,20.6655 25,20.25 v -1.5 C 25,18.3345 24.692132,18 24.308594,18 H 19 v -2 h 5.308594 C 24.692132,16 25,15.6655 25,15.25 V 14.460938 13.75 10.25 8.75 8.5390625 C 25,8.3281314 24.82885,8.1509368 24.583984,8.0625 c -0.0023,-8.24e-4 -0.0036,-0.0031 -0.0059,-0.00391 -0.0018,-8.427e-4 -0.004,-0.00113 -0.0059,-0.00195 -0.04449,-0.015303 -0.0937,-0.020475 -0.142578,-0.029297 C 24.38876,8.0192355 24.351748,8 24.308594,8 H 24.25 22.75 Z"/>
 <g>
  <rect style="opacity:0.3;fill:#314277" width="3" height="3" x="5" y="23" rx=".75" ry=".75"/>
  <rect style="opacity:0.56000001;fill:#314277" width="3" height="3" x="9" y="23" rx=".75" ry=".75"/>
  <rect style="opacity:0.81999966;fill:#314277" width="3" height="3" x="13" y="23" rx=".75" ry=".75"/>
 </g>
 <rect style="fill:#8b9cbe" width="9" height="3" x="16" y="7" rx=".692" ry=".75"/>
 <rect style="fill:#8b9cbe" width="9" height="3" x="16" y="17" rx=".692" ry=".75"/>
 <rect style="fill:#8b9cbe" width="7" height="3" x="12" y="-19" rx=".538" ry=".75" transform="rotate(90)"/>
 <rect style="fill:#8b9cbe" width="9" height="3" x="-25" y="-15" rx=".692" ry=".75" transform="scale(-1)"/>
 <rect style="fill:#8b9cbe" width="7" height="3" x="7" y="-25" rx=".538" ry=".75" transform="rotate(90)"/>
 <rect style="opacity:0.3;fill:#314277" width="3" height="3" x="-28" y="23" rx=".75" ry=".75" transform="scale(-1,1)"/>
 <rect style="opacity:0.56000001;fill:#314277" width="3" height="3" x="-24" y="23" rx=".75" ry=".75" transform="scale(-1,1)"/>
 <rect style="opacity:0.81999966;fill:#314277" width="3" height="3" x="-20" y="23" rx=".75" ry=".75" transform="scale(-1,1)"/>
 <path style="fill:#8b9cbe;opacity:0.2" d="M 3.4492188 1 C 2.6459188 1 2 1.6459188 2 2.4492188 L 2 3.4492188 C 2 2.6459188 2.6459188 2 3.4492188 2 L 29.550781 2 C 30.354081 2 31 2.6459188 31 3.4492188 L 31 2.4492188 C 31 1.6459188 30.354081 1 29.550781 1 L 3.4492188 1 z"/>
 <path style="opacity:0.1" d="M 11 15 L 11 16 L 14 16 L 14 15 L 11 15 z M 6 20.226562 L 6 21.226562 C 6 21.654653 6.3191294 22 6.7148438 22 L 10.285156 22 C 10.680871 22 11 21.654653 11 21.226562 L 11 20.226562 C 11 20.654653 10.680871 21 10.285156 21 L 6.7148438 21 C 6.3191294 21 6 20.654653 6 20.226562 z M 14 20.226562 L 14 21.226562 C 14 21.654653 14.304541 22 14.683594 22 L 26.316406 22 C 26.695459 22 27 21.654653 27 21.226562 L 27 20.226562 C 27 20.654653 26.695459 21 26.316406 21 L 14.683594 21 C 14.304541 21 14 20.654653 14 20.226562 z"/>
 <path style="opacity:0.1;fill:#8b9cbe" d="M 6.7148438,4 C 6.3191295,4 6,4.3453466 6,4.7734375 v 1 C 6,5.3453466 6.3191295,5 6.7148438,5 H 10.285156 C 10.680871,5 11,5.3453466 11,5.7734375 v -1 C 11,4.3453466 10.680871,4 10.285156,4 Z M 14.683594,4 C 14.304541,4 14,4.3453466 14,4.7734375 v 1 C 14,5.3453466 14.304541,5 14.683594,5 H 26.316406 C 26.695459,5 27,5.3453466 27,5.7734375 v -1 C 27,4.3453466 26.695459,4 26.316406,4 Z M 11,10 v 1 h 3 v -1 z"/>
</svg>
