<svg xmlns="http://www.w3.org/2000/svg" width="32" height="32" version="1">
 <path style="opacity:0.2" d="M 30,27.611111 V 5.3888889 C 30,4.6194444 29.3756,4 28.6,4 H 3.4 C 2.6244,4 2,4.6194444 2,5.3888889 V 27.611111 C 2,28.380556 2.6244,29 3.4,29 h 25.2 c 0.7756,0 1.4,-0.619444 1.4,-1.388889 z"/>
 <path style="fill:#4f4f4f" d="M 30,26.611111 V 4.3888889 C 30,3.6194444 29.3756,3 28.6,3 H 3.4 C 2.6244,3 2,3.6194444 2,4.3888889 V 26.611111 C 2,27.380556 2.6244,28 3.4,28 h 25.2 c 0.7756,0 1.4,-0.619444 1.4,-1.388889 z"/>
 <path style="opacity:0.1;fill:#8b9cbe" d="M 3.4003906,3 C 2.6247906,3 2,3.6192274 2,4.3886719 v 1 C 2,4.6192274 2.6247906,4 3.4003906,4 H 28.599609 C 29.375209,4 30,4.6192274 30,5.3886719 v -1 C 30,3.6192274 29.375209,3 28.599609,3 Z"/>
 <path style="fill:#e14c39" d="m 15,3 0.03906,25 H 17 V 3 Z"/>
 <path style="opacity:0.2;fill-rule:evenodd" d="m 11,8 v 2 h 2 V 8 Z m -2,3 v 2 h 4 v -2 z m -4,3 v 2 h 8 v -2 z m -2,3 v 2 h 10 v -2 z m 2,3 v 2 h 8 v -2 z m 4,3 v 2 h 4 v -2 z"/>
 <path style="fill:#83b9f5;fill-rule:evenodd" d="m 11,7 v 2 h 2 V 7 Z m -2,3 v 2 h 4 v -2 z m -4,3 v 2 h 8 v -2 z m -2,3 v 2 h 10 v -2 z m 2,3 v 2 h 8 v -2 z m 4,3 v 2 h 4 v -2 z"/>
 <path style="opacity:0.2" d="M 20,3 H 15.999999 12 L 14,5.9999999 15.999999,9 l 2,-2.9999999 z"/>
 <path style="fill:#ff6161" d="M 20,2 H 15.999999 12 L 14,4.9999999 15.999999,8 l 2,-2.9999999 z"/>
 <path style="opacity:0.2" d="m 19.777647,10.700922 c -0.368264,0.01986 -0.764804,0.343662 -0.763877,0.702457 L 19,21.996751 c 0,0.478431 0.704159,0.894739 1.106979,0.610518 l 7.58928,-5.314795 c 0.40545,-0.280708 0.404525,-0.939186 0,-1.221139 l -7.575203,-5.278478 c -0.101115,-0.07043 -0.220352,-0.09849 -0.34316,-0.09193 z"/>
 <path style="fill:#3a7cca" d="m 19.777647,9.700922 c -0.368264,0.01986 -0.764804,0.343662 -0.763877,0.702457 L 19,20.996751 c 0,0.478431 0.704159,0.894739 1.106979,0.610518 l 7.58928,-5.314795 c 0.40545,-0.280708 0.404525,-0.939186 0,-1.221139 L 20.121056,9.792857 c -0.101115,-0.07043 -0.220352,-0.09849 -0.34316,-0.09193 z"/>
 <path style="opacity:0.1;fill:#8b9cbe;fill-rule:evenodd" d="m 11,7 v 1 h 2 V 7 Z m -2,3 v 1 h 4 v -1 h -2 z m -4,3 v 1 h 8 V 13 H 9 Z m -2,3 v 1 H 13 V 16 H 5 Z m 2,3 v 1 h 8 v -1 z m 4,3 v 1 h 4 v -1 z"/>
 <path style="opacity:0.1;fill:#8b9cbe" d="m 19.777344,9.701172 c -0.368264,0.01986 -0.764599,0.34433 -0.763672,0.703125 L 19,20.996094 c 0,0.0027 0.0019,0.0051 0.002,0.0078 l 0.01172,-9.599609 c -9.27e-4,-0.358795 0.395408,-0.683265 0.763672,-0.703125 0.122808,-0.0066 0.242635,0.02137 0.34375,0.0918 l 7.574218,5.279297 c 0.04165,0.02903 0.06066,0.07513 0.09375,0.111328 0.289765,-0.314217 0.269548,-0.858111 -0.09375,-1.111328 L 20.121094,9.792969 C 20.019979,9.722539 19.900152,9.694612 19.777344,9.701172 Z"/>
</svg>
