<svg xmlns="http://www.w3.org/2000/svg" width="32" height="32" version="1">
 <rect style="opacity:0.2" width="28" height="28" x="2" y="3" rx="8.4" ry="8.4"/>
 <rect style="fill:#b2bfd9" width="28" height="28" x="2" y="2" rx="8.4" ry="8.4"/>
 <rect style="opacity:0.1" width="20" height="20" x="-27" y="-26" rx="10" ry="10" transform="matrix(0,-1,-1,0,0,0)"/>
 <rect fill="#e74c3c" width="20" height="20" x="-26" y="-26" rx="10" ry="10" transform="matrix(0,-1,-1,0,0,0)"/>
 <path style="fill:#8b9cbe;opacity:0.2" d="M 10.400391 2 C 5.7467908 2 2 5.7467908 2 10.400391 L 2 11.400391 C 2 6.7467908 5.7467908 3 10.400391 3 L 21.599609 3 C 26.253209 3 30 6.7467908 30 11.400391 L 30 10.400391 C 30 5.7467908 26.253209 2 21.599609 2 L 10.400391 2 z"/>
</svg>
