<svg xmlns="http://www.w3.org/2000/svg" width="32" height="32" version="1.1">
 <path style="opacity:0.2" d="m 1.6910822,28.0001 a 0.68144517,1 0 1 0 0,1.9998 H 30.308918 a 0.68144517,1 0 1 0 0,-1.9998 z"/>
 <path style="fill:#bcc5ca" d="m 17,26.769232 h -2 v -4.2 h 2 z"/>
 <path style="fill:#bcc5ca" d="m 1.6910822,27.0001 a 0.68144517,1 0 1 0 0,1.9998 H 30.308918 a 0.68144517,1 0 1 0 0,-1.9998 z"/>
 <rect style="opacity:0.2" width="10" height="4" x="11" y="27" ry=".8"/>
 <rect style="fill:#a0aab0" width="10" height="4" x="11" y="26" ry=".8"/>
 <path style="opacity:0.2" d="m 4.0000002,19 v 4.320312 C 4.0000002,24.251088 4.8235856,25 5.8463542,25 H 26.153646 C 27.176414,25 28,24.251088 28,23.320312 V 19 Z"/>
 <path style="fill:#dadfe1" d="m 4.0000002,18 v 4.320312 C 4.0000002,23.251088 4.8235856,24 5.8463542,24 H 26.153646 C 27.176414,24 28,23.251088 28,22.320312 V 18 Z"/>
 <path style="opacity:0.2" d="m 4.0000002,19 v 0.39323 C 4.0000002,20.283228 4.8235856,21 5.8463542,21 H 26.153646 C 27.176414,21 28,20.283228 28,19.39323 V 19 Z"/>
 <path style="fill:#8b9cbe" d="m 4.0000002,18 v 0.39323 C 4.0000002,19.283228 4.8235856,20 5.8463542,20 H 26.153646 C 27.176414,20 28,19.283228 28,18.39323 V 18 Z"/>
 <path style="fill:#00aade" d="M 5.8461532,3 C 4.8233844,3 4.0000001,3.7187514 4.0000001,4.6115492 V 18 H 27.999989 V 4.6115492 C 27.999989,3.7187514 27.176605,3 26.153838,3 Z"/>
 <path style="opacity:0.1" d="m 13,22 a 1,1 0 0 0 -1,1 1,1 0 0 0 1,1 1,1 0 0 0 1,-1 1,1 0 0 0 -1,-1 z m 3,0 a 1,1 0 0 0 -1,1 1,1 0 0 0 1,1 1,1 0 0 0 1,-1 1,1 0 0 0 -1,-1 z m 3,0 a 1,1 0 0 0 -1,1 1,1 0 0 0 1,1 1,1 0 0 0 1,-1 1,1 0 0 0 -1,-1 z"/>
 <circle style="fill:#5eb904" cx="13" cy="22" r="1"/>
 <path style="opacity:0.2" d="m 17.333333,7 a 2.6666666,2.5714285 0 0 0 -2.621094,2.1131414 3,2.8928571 0 0 0 -1.045572,-0.1845701 3,2.8928571 0 0 0 -3,2.8928577 3,2.8928571 0 0 0 0.03906,0.448241 A 2,1.9285714 0 0 0 10,12.142857 2,1.9285714 0 0 0 8.0000001,14.071429 2,1.9285714 0 0 0 10,16 H 22.666667 V 15.96485 A 1.6666666,1.6071428 0 0 0 24,14.392857 1.6666666,1.6071428 0 0 0 22.333333,12.785714 1.6666666,1.6071428 0 0 0 21.998698,12.820872 2.6666666,2.5714285 0 0 0 22,12.785714 2.6666666,2.5714285 0 0 0 19.897135,10.273298 2.6666666,2.5714285 0 0 0 20,9.5714285 2.6666666,2.5714285 0 0 0 17.333333,7 Z"/>
 <path style="fill:#8b9cbe" d="m 17.333333,6 a 2.6666666,2.5714285 0 0 0 -2.621094,2.1131414 3,2.8928571 0 0 0 -1.045572,-0.1845701 3,2.8928571 0 0 0 -3,2.8928577 3,2.8928571 0 0 0 0.03906,0.448241 A 2,1.9285714 0 0 0 10,11.142857 2,1.9285714 0 0 0 8.0000001,13.071429 2,1.9285714 0 0 0 10,15 H 22.666667 V 14.96485 A 1.6666666,1.6071428 0 0 0 24,13.392857 1.6666666,1.6071428 0 0 0 22.333333,11.785714 1.6666666,1.6071428 0 0 0 21.998698,11.820872 2.6666666,2.5714285 0 0 0 22,11.785714 2.6666666,2.5714285 0 0 0 19.897135,9.273298 2.6666666,2.5714285 0 0 0 20,8.5714285 2.6666666,2.5714285 0 0 0 17.333333,6 Z"/>
 <circle style="fill:#5eb904" cx="16" cy="22" r="1"/>
 <circle style="fill:#e6461d" cx="19" cy="22" r="1"/>
 <path style="fill:#8b9cbe;opacity:0.2" d="M 5.8457031 3 C 4.8229343 3 4 3.7185303 4 4.6113281 L 4 5.6113281 C 4 4.7185303 4.8229343 4 5.8457031 4 L 26.154297 4 C 27.177064 4 28 4.7185303 28 5.6113281 L 28 4.6113281 C 28 3.7185303 27.177064 3 26.154297 3 L 5.8457031 3 z"/>
</svg>
