<svg xmlns="http://www.w3.org/2000/svg" width="32" height="32" version="1.1">
 <circle style="opacity:.2" cx="16" cy="17" r="14"/>
 <circle style="fill:#4454ba" cx="16" cy="16" r="14"/>
 <path style="fill:none;opacity:.2;stroke-linejoin:round;stroke-width:3;stroke:#000000" d="m16.2 13.5h-6.3s-1.4 1.4-1.4 3.85 1.4 3.15 1.4 3.15h4.6v-3.5"/>
 <path style="fill:none;stroke-linejoin:round;stroke-width:3;stroke:#9e9e9e" d="m16.2 12.5h-6.3s-1.4 1.4-1.4 3.85 1.4 3.15 1.4 3.15h4.6v-3.5"/>
 <path style="fill:none;opacity:.2;stroke-linejoin:round;stroke-width:3;stroke:#000000" d="m15 13.5h8.499788l-7 7h8.500212"/>
 <path style="fill:none;stroke-linejoin:round;stroke-width:3;stroke:#fefefe" d="m15 12.5h8.499788l-7 7h8.500212"/>
 <path style="fill:#8b9cbe;opacity:.1" d="M 16 2 A 14 14 0 0 0 2 16 A 14 14 0 0 0 2.0214844 16.585938 A 14 14 0 0 1 16 3 A 14 14 0 0 1 29.978516 16.414062 A 14 14 0 0 0 30 16 A 14 14 0 0 0 16 2 z"/>
</svg>
