<svg xmlns="http://www.w3.org/2000/svg" width="32" height="32" version="1.1">
 <g transform="translate(0,-1020.3622)">
  <path style="opacity:0.2" d="m 15.452646,1023.3622 c -3.258805,0.043 -6.7139367,1.659 -8.5556924,5.0237 -0.0168,0.031 -0.033055,0.062 -0.048756,0.094 -0.7012268,1.3948 -0.8561544,2.779 -0.8561544,4.0979 0,1.517 0.4052629,2.9571 1.0550786,4.139 0.036522,0.067 0.075555,0.1317 0.1170142,0.1953 0.2417122,0.3703 0.5371601,0.5819 0.7898462,0.9024 -1.172192,0.5977 -1.3173266,1.1512 -1.4548772,1.3458 l -0.00195,0 c -0.3043353,0.4304 -0.7734241,1.0523 -1.2032966,1.6641 -0.2149364,0.3059 -0.4208208,0.6076 -0.6201756,0.9455 -0.1993549,0.3379 -0.47386,0.4673 -0.6182253,1.6661 -0.2412763,1.2475 0.3469321,1.9276 0.9497656,2.7756 0.3220198,0.4058 0.6872135,0.7998 1.1096853,1.2128 0.8313868,0.8129 1.7809927,1.6565 3.0969774,2.2932 1.8474182,0.9817 4.1613312,1.6446 6.6912652,1.6446 1.206664,0 2.455183,-0.1418 3.703501,-0.4824 l 0.0039,0 c 1.223742,-0.3351 2.431566,-0.8462 3.531881,-1.6212 1.122826,-0.7908 2.061113,-1.8263 2.747885,-3.0256 0.785949,-1.3721 1.109688,-2.9204 1.109688,-4.4749 0,-1.2794 -0.258225,-2.5127 -0.717687,-3.68 -0.05328,-0.2562 -0.139827,-0.5044 -0.257431,-0.7382 l -0.002,0 c -0.416263,-0.817 -1.031992,-1.5099 -1.64015,-2.2013 0.203445,-0.2353 0.414584,-0.4712 0.544116,-0.7169 0.01751,-0.033 0.03442,-0.066 0.05071,-0.1 -0.173956,0.3614 0.599246,-0.8612 1.160392,-1.7286 0.02128,-0.032 0.33866,-0.344 0.614325,-1.2072 0.276019,-0.8641 -0.03546,-2.7992 -0.977069,-3.6545 -0.951218,-0.864 -2.394447,-2.1238 -4.524551,-3.0334 -1.398818,-0.6299 -3.331989,-1.334 -5.757102,-1.334 l 0,0 c -0.01365,-1e-4 -0.0273,-1e-4 -0.04095,0 z"/>
  <path style="fill:#4f4f4f" d="m 15.452646,1022.3622 c -3.258805,0.043 -6.7139367,1.659 -8.5556924,5.0237 -0.0168,0.031 -0.033055,0.062 -0.048756,0.094 -0.7012268,1.3948 -0.8561544,2.779 -0.8561544,4.0979 0,1.517 0.4052629,2.9571 1.0550786,4.139 0.036522,0.067 0.075555,0.1317 0.1170142,0.1953 0.2417122,0.3703 0.5371601,0.5819 0.7898462,0.9024 -1.172192,0.5977 -1.3173266,1.1512 -1.4548772,1.3458 l -0.00195,0 c -0.3043353,0.4304 -0.7734241,1.0523 -1.2032966,1.6641 -0.2149364,0.3059 -0.4208208,0.6076 -0.6201756,0.9455 -0.1993549,0.3379 -0.47386,0.4673 -0.6182253,1.6661 -0.2412763,1.2475 0.3469321,1.9276 0.9497656,2.7756 0.3220198,0.4058 0.6872135,0.7998 1.1096853,1.2128 0.8313868,0.8129 1.7809927,1.6565 3.0969774,2.2932 1.8474182,0.9817 4.1613312,1.6446 6.6912652,1.6446 1.206664,0 2.455183,-0.1418 3.703501,-0.4824 l 0.0039,0 c 1.223742,-0.3351 2.431566,-0.8462 3.531881,-1.6212 1.122826,-0.7908 2.061113,-1.8263 2.747885,-3.0256 0.785949,-1.3721 1.109688,-2.9204 1.109688,-4.4749 0,-1.2794 -0.258225,-2.5127 -0.717687,-3.68 -0.05328,-0.2562 -0.139827,-0.5044 -0.257431,-0.7382 l -0.002,0 c -0.416263,-0.817 -1.031992,-1.5099 -1.64015,-2.2013 0.203445,-0.2353 0.414584,-0.4712 0.544116,-0.7169 0.01751,-0.033 0.03442,-0.066 0.05071,-0.1 -0.173956,0.3614 0.599246,-0.8612 1.160392,-1.7286 0.02128,-0.032 0.33866,-0.344 0.614325,-1.2072 0.276019,-0.8641 -0.03546,-2.7992 -0.977069,-3.6545 -0.951218,-0.864 -2.394447,-2.1238 -4.524551,-3.0334 -1.398818,-0.6299 -3.331989,-1.334 -5.757102,-1.334 l 0,0 c -0.01365,-1e-4 -0.0273,-1e-4 -0.04095,0 z"/>
  <path style="opacity:0.2" d="m 23.349386,1038.7005 c 0.433312,0.851 0.650614,1.8817 0.650614,3.0582 0,1.1345 -0.2382,2.1507 -0.714172,2.9804 -0.476113,0.8302 -1.111923,1.5296 -1.873904,2.0654 -0.761693,0.5359 -1.641431,0.9177 -2.603963,1.1808 -0.963246,0.2624 -1.948339,0.3769 -2.921465,0.3769 -1.947107,0 -4.043573,-0.607 -5.365982,-1.3207 -1.5093108,-0.7144 -3.5608905,-2.9066 -3.5199096,-3.2462 0.053274,-0.4417 1.2127604,-1.9095 1.9155993,-2.9022 0.3423038,-0.4834 0.4779686,-0.7118 0.9907725,-0.2601 0.6408608,0.7804 1.5309058,1.2819 2.3514008,1.7012 0.719288,0.3408 2.238846,0.8309 3.035,0.9304 0.666488,0.098 1.661986,0.098 1.734432,-0.9437 0,-0.3987 -0.336292,-0.7618 -0.769603,-1.1195 -0.433883,-0.3568 -0.724116,-0.662 -1.369431,-1.0511 -2.559862,-1.9924 -3.942991,-2.8916 -5.2429838,-4.8804 -0.4338813,-0.7879 -0.684709,-1.6626 -0.684709,-2.6923 0,-1.0086 0.1564305,-1.9921 0.5373512,-2.7486 1.2373246,-2.257 3.7380206,-3.4372 5.9773966,-3.4668 1.91331,0 3.317049,0.5139 4.576037,1.0827 1.700285,0.7212 2.782172,1.6659 3.706227,2.5039 0.360184,0.3267 0.04928,0.7209 -0.138501,1.0107 -0.471932,0.7284 -1.139607,1.6266 -1.347935,2.0587 -0.165822,0.3141 -0.472328,0.4322 -0.72656,0.2133 0,0 -0.628434,-0.5299 -1.136183,-0.8561 -1.348266,-0.7485 -2.747751,-1.8508 -4.17392,-1.9883 -0.380919,0 -0.763632,0.1114 -0.943141,0.3004 -0.180081,0.1892 -0.245294,0.5699 -0.235876,0.8639 0.01696,0.5301 0.165923,0.6288 0.667859,1.1065 0.43331,0.3259 0.774822,0.5604 1.651593,1.0254 0.655383,0.3474 1.459527,0.8358 2.210916,1.2664 0.750957,0.4308 1.505611,0.9847 2.161806,1.5938 0.656051,0.61 1.16706,1.3061 1.60123,2.1569 z"/>
  <path style="fill:#8dc808" d="m 23.349386,1037.7005 c 0.433312,0.851 0.650614,1.8817 0.650614,3.0582 0,1.1345 -0.2382,2.1507 -0.714172,2.9804 -0.476113,0.8302 -1.111923,1.5296 -1.873904,2.0654 -0.761693,0.5359 -1.641431,0.9177 -2.603963,1.1808 -0.963246,0.2624 -1.948339,0.3769 -2.921465,0.3769 -1.947107,0 -4.043573,-0.607 -5.365982,-1.3207 -1.5093108,-0.7144 -3.5608905,-2.9066 -3.5199096,-3.2462 0.053274,-0.4417 1.2127604,-1.9095 1.9155993,-2.9022 0.3423038,-0.4834 0.4779686,-0.7118 0.9907725,-0.2601 0.6408608,0.7804 1.5309058,1.2819 2.3514008,1.7012 0.719288,0.3408 2.238846,0.8309 3.035,0.9304 0.666488,0.098 1.661986,0.098 1.734432,-0.9437 0,-0.3987 -0.336292,-0.7618 -0.769603,-1.1195 -0.433883,-0.3568 -0.724116,-0.662 -1.369431,-1.0511 -2.559862,-1.9924 -3.942991,-2.8916 -5.2429838,-4.8804 -0.4338813,-0.7879 -0.684709,-1.6626 -0.684709,-2.6923 0,-1.0086 0.1564305,-1.9921 0.5373512,-2.7486 1.2373246,-2.257 3.7380206,-3.4372 5.9773966,-3.4668 1.91331,0 3.317049,0.5139 4.576037,1.0827 1.700285,0.7212 2.782172,1.6659 3.706227,2.5039 0.360184,0.3267 0.04928,0.7209 -0.138501,1.0107 -0.471932,0.7284 -1.139607,1.6266 -1.347935,2.0587 -0.165822,0.3141 -0.472328,0.4322 -0.72656,0.2133 0,0 -0.628434,-0.5299 -1.136183,-0.8561 -1.348266,-0.7485 -2.747751,-1.8508 -4.17392,-1.9883 -0.380919,0 -0.763632,0.1114 -0.943141,0.3004 -0.180081,0.1892 -0.245294,0.5699 -0.235876,0.8639 0.01696,0.5301 0.165923,0.6288 0.667859,1.1065 0.43331,0.3259 0.774822,0.5604 1.651593,1.0254 0.655383,0.3474 1.459527,0.8358 2.210916,1.2664 0.750957,0.4308 1.505611,0.9847 2.161806,1.5938 0.656051,0.61 1.16706,1.3061 1.60123,2.1569 z"/>
  <path style="opacity:0.1;fill:#8b9cbe" transform="translate(0,1020.3622)" d="M 15.453125 2 C 12.19432 2.043 8.7382401 3.6587375 6.8964844 7.0234375 C 6.8796844 7.0544375 6.8633572 7.0851875 6.8476562 7.1171875 C 6.1464295 8.5119875 5.9921875 9.8959438 5.9921875 11.214844 C 5.9921875 11.33246 6.0108276 11.445892 6.015625 11.5625 C 6.0666299 10.442092 6.2607928 9.2845091 6.8476562 8.1171875 C 6.8633572 8.0851875 6.8796844 8.0544375 6.8964844 8.0234375 C 8.7382401 4.6587375 12.19432 3.043 15.453125 3 L 15.453125 3.0019531 C 15.466775 3.0018531 15.480491 3.0018531 15.494141 3.0019531 C 17.919254 3.0019531 19.851182 3.7060375 21.25 4.3359375 C 23.380104 5.2455375 24.824173 6.5051406 25.775391 7.3691406 C 26.367124 7.9066348 26.70789 8.8699807 26.8125 9.7265625 C 26.954195 8.7752177 26.622386 7.138499 25.775391 6.3691406 C 24.824173 5.5051406 23.380104 4.2455375 21.25 3.3359375 C 19.851182 2.7060375 17.919254 2.0019531 15.494141 2.0019531 C 15.480491 2.0018531 15.466775 2.0018531 15.453125 2.0019531 L 15.453125 2 z M 24.791016 14.259766 C 24.669645 14.433951 24.52987 14.60726 24.382812 14.777344 C 24.990971 15.468744 25.607174 16.161516 26.023438 16.978516 L 26.025391 16.978516 C 26.142995 17.212316 26.229923 17.460597 26.283203 17.716797 C 26.679691 18.724107 26.91445 19.782182 26.974609 20.875 C 26.981621 20.715301 27 20.5565 27 20.396484 C 27 19.117084 26.742665 17.884097 26.283203 16.716797 C 26.229923 16.460597 26.142995 16.212316 26.025391 15.978516 L 26.023438 15.978516 C 25.702471 15.348555 25.254251 14.798364 24.791016 14.259766 z M 7.3789062 16.808594 C 6.7472953 17.258995 6.6093808 17.644081 6.5 17.798828 L 6.4980469 17.798828 C 6.1937116 18.229228 5.7228413 18.851091 5.2929688 19.462891 C 5.0780323 19.768791 4.8731829 20.070303 4.6738281 20.408203 C 4.4744732 20.746103 4.1990528 20.875419 4.0546875 22.074219 C 3.9799431 22.460679 3.9924958 22.788475 4.0527344 23.087891 C 4.0536461 23.083064 4.0537508 23.079062 4.0546875 23.074219 C 4.1990528 21.875419 4.4744732 21.746103 4.6738281 21.408203 C 4.8731829 21.070303 5.0780323 20.768791 5.2929688 20.462891 C 5.7228413 19.851091 6.1937116 19.229228 6.4980469 18.798828 L 6.5 18.798828 C 6.6375506 18.604228 6.780933 18.050825 7.953125 17.453125 C 7.7699276 17.220762 7.5702839 17.028452 7.3789062 16.808594 z"/>
  <path style="opacity:0.2;fill:#8b9cbe" transform="translate(0,1020.3622)" d="M 15.476562 5 C 13.237187 5.0296 10.735371 6.2097969 9.4980469 8.4667969 C 9.1171262 9.2232969 8.9609375 10.206244 8.9609375 11.214844 C 8.9609375 11.352684 8.9775012 11.480833 8.9863281 11.613281 C 9.0387802 10.822042 9.1937095 10.071204 9.4980469 9.4667969 C 10.735371 7.2097969 13.237187 6.0296 15.476562 6 C 17.389872 6 18.793746 6.5132312 20.052734 7.0820312 C 21.70405 7.78246 22.767186 8.6921508 23.673828 9.5117188 C 23.858901 9.2323267 24.085185 8.8828766 23.757812 8.5859375 C 22.833757 7.7479375 21.753019 6.8032312 20.052734 6.0820312 C 18.793746 5.5132312 17.389872 5 15.476562 5 z M 15.140625 10.611328 C 15.079049 10.794339 15.050782 11.00658 15.056641 11.189453 C 15.073601 11.719553 15.222673 11.817222 15.724609 12.294922 C 16.157919 12.620822 16.498229 12.855313 17.375 13.320312 C 18.030383 13.667713 18.834548 14.157291 19.585938 14.587891 C 20.336894 15.018691 21.091852 15.572541 21.748047 16.181641 C 22.404098 16.791641 22.915439 17.487091 23.349609 18.337891 C 23.71565 19.056773 23.917638 19.910319 23.974609 20.865234 C 23.984148 20.709624 24 20.557026 24 20.396484 C 24 19.219984 23.782921 18.188891 23.349609 17.337891 C 22.915439 16.487091 22.404098 15.791641 21.748047 15.181641 C 21.091852 14.572541 20.336894 14.018691 19.585938 13.587891 C 18.834548 13.157291 18.030383 12.667713 17.375 12.320312 C 16.498229 11.855313 16.157919 11.620822 15.724609 11.294922 C 15.396386 10.982546 15.22877 10.826181 15.140625 10.611328 z M 9.4589844 19.027344 C 9.2639573 19.026466 9.1299555 19.229125 8.9160156 19.53125 C 8.2131767 20.52395 7.053274 21.991894 7 22.433594 C 6.9911792 22.50669 7.0951077 22.675174 7.2539062 22.886719 C 7.6437017 22.239804 8.3999815 21.260104 8.9160156 20.53125 C 9.2583194 20.04785 9.3934461 19.819784 9.90625 20.271484 C 10.547111 21.051884 11.437317 21.553356 12.257812 21.972656 C 12.977101 22.313456 14.496815 22.802844 15.292969 22.902344 C 15.959457 23.000344 16.954898 23.000684 17.027344 21.958984 C 17.027344 21.79453 16.958968 21.636882 16.861328 21.482422 C 16.539653 21.987005 15.817601 21.979485 15.292969 21.902344 C 14.496815 21.802844 12.977101 21.313456 12.257812 20.972656 C 11.437317 20.553356 10.547111 20.051884 9.90625 19.271484 C 9.7139485 19.102097 9.5760006 19.027871 9.4589844 19.027344 z"/>
 </g>
</svg>
