<svg xmlns="http://www.w3.org/2000/svg" width="32" height="32" version="1">
 <path style="opacity:0.2;fill:#0d0d08" d="m 29,19.053297 c 0,3.743715 -1.469444,7.144222 -3.863026,9.656215 -2.549942,2.676088 -6.788946,0.0043 -10.777218,0.0043 -4.049447,0 -7.0570979,2.62018 -9.6133267,-0.128209 C 2.421813,26.086294 1,22.735836 1,19.053297 1,11.321311 7.2680136,5.0532962 15,5.0532962 c 7.731987,0 14,6.2680148 14,14.0000008 z"/>
 <path style="fill:#0091cf" d="m 29,18.053297 c 0,3.743715 -1.469444,7.144222 -3.863026,9.656215 -2.549942,2.676088 -6.788946,0.0043 -10.777218,0.0043 -4.049447,0 -7.0570979,2.62018 -9.6133267,-0.128209 C 2.421813,25.086294 1,21.735836 1,18.053297 1,10.321311 7.2680136,4.0532965 15,4.0532965 c 7.731987,0 14,6.2680145 14,14.0000005 z"/>
 <path style="opacity:0.1;fill:#8b9cbe" d="M 15 4.0527344 C 7.2680136 4.0527344 1 10.320748 1 18.052734 C 1 18.224622 1.019248 18.392112 1.0253906 18.5625 C 1.2858053 11.059483 7.4335028 5.0527344 15 5.0527344 C 22.565183 5.0527344 28.712188 11.057402 28.974609 18.558594 C 28.980669 18.389357 29 18.22345 29 18.052734 C 29 10.320748 22.731987 4.0527344 15 4.0527344 z"/>
 <path style="opacity:0.2;fill:#0d0d08" d="m 21,2.9999997 -3,3 h -4 v 4 L 11,13 l 3,3 v 4 h 4 l 3,3 3,-3 h 4 v -4 l 3,-3 -3,-3.0000003 v -4 h -4 z"/>
 <path style="fill:#ff8a47" d="M 21 2 L 18 5 L 14 5 L 14 9 L 11 12 L 14 15 L 14 19 L 18 19 L 21 22 L 24 19 L 28 19 L 28 15 L 31 12 L 28 9 L 28 5 L 24 5 L 21 2 z"/>
 <circle style="opacity:0.2;fill:#0d0d08" cx="21" cy="13" r="6"/>
 <circle style="fill:#ffcc42" cx="21" cy="12" r="6"/>
 <circle style="opacity:0.2" cx="15.286" cy="22.143" r="5.714"/>
 <path style="opacity:0.2" d="m 15,16 a 6,6 0 0 0 -6,6 6,6 0 0 0 0.00977,0.267578 A 4.5,4.5 0 0 0 7.5,22 4.5,4.5 0 0 0 3,26.5 4.5,4.5 0 0 0 7.5,31 4.5,4.5 0 0 0 8,30.966797 V 31 H 22.5 23 v -0.0332 A 4.5,4.5 0 0 0 27,26.5 4.5,4.5 0 0 0 22.5,22 4.5,4.5 0 0 0 20.986328,22.267578 6,6 0 0 0 21,22 6,6 0 0 0 15,16 Z"/>
 <circle style="fill:#8b9cbe" cx="7.5" cy="25.5" r="4.5"/>
 <circle style="fill:#8b9cbe" cx="15" cy="21" r="6"/>
 <circle style="fill:#8b9cbe" cx="22.5" cy="25.5" r="4.5"/>
 <rect style="fill:#8b9cbe" width="15" height="6" x="8" y="24"/>
 <path style="opacity:0.2;fill:#8b9cbe" d="M 21 2 L 18 5 L 14 5 L 14 6 L 18 6 L 21 3 L 24 6 L 28 6 L 28 5 L 24 5 L 21 2 z M 14 9 L 11 12 L 11.5 12.5 L 14 10 L 14 9 z M 28 9 L 28 10 L 30.5 12.5 L 31 12 L 28 9 z"/>
 <path style="opacity:0.2;fill:#8b9cbe" d="M 21 6 A 6 6 0 0 0 15 12 A 6 6 0 0 0 15.025391 12.498047 A 6 6 0 0 1 21 7 A 6 6 0 0 1 26.974609 12.501953 A 6 6 0 0 0 27 12 A 6 6 0 0 0 21 6 z"/>
</svg>
