<svg xmlns="http://www.w3.org/2000/svg" width="32" height="32" x="0" y="0" version="1.1" xml:space="preserve">
 <path style="opacity:0.2" d="M 29.958617,25.932688 C 29.682097,24.546239 29.172918,23.589402 28,23.055312 27.989815,17.327192 26.324378,10.967383 21,8 21.425427,7.8155621 22.801716,7.5298444 23.225968,7.4515338 23.542756,7.3935314 23.807657,7.1960601 23.934033,6.923884 24.060409,6.651701 24.031847,6.3400027 23.857607,6.0908585 23.692368,5.8546063 22.507602,5.283264 20.85611,5.0828225 19,5 18,5 15.576629,5.4874404 14.292005,5.9266321 13.668081,5.987521 12.945692,6.05795 12.33142,6.1178581 11.635114,6.1858033 10.528903,6.4695657 7.3429036,7.2869475 5.8441313,8.5835123 4.9939316,9.4345595 4.3302308,10.098897 3.9632219,11.450618 4,12 3.8420631,12.079744 3.8581149,12.093033 3.6834843,12.185188 2.5158454,12.801176 2.1115474,13.089003 2.018298,13.579649 1.949567,13.941723 2.075813,14.179265 2.3742107,14.503856 2.8557631,14.955135 3.1295989,15 3.8857636,15 5.080447,14.813492 6.0691522,14.424875 7.286,14.05 8.0079976,13.97971 8.630658,14.10562 9.7204371,14.320359 11.131555,14.647062 12.641618,15.014301 13.894632,15 c 0.242449,0.457573 0.645181,1.313091 1.294535,2.092277 1.69401,2.032767 3.670935,1.90629 3.873605,1.907723 0.366345,0.0049 0.657397,0.01594 0.826158,-0.285012 0.168762,-0.301072 0.14007,-0.660527 -0.07786,-0.933782 -0.176221,-0.224282 -0.81395,-0.577072 -0.987668,-1.49641 -0.04956,-0.261916 -0.02744,-0.482783 -0.0234,-0.691812 2.254719,0.661225 5.734967,2.675423 6.192533,4.869408 l 0.01493,1.576017 c -0.0064,-2.75e-4 0.0065,1.41e-4 0,0 -0.103683,-0.0042 -0.324808,-0.0053 -0.482615,-0.0053 -0.410167,0 -0.854112,0.04155 -1.357137,0.12178 -1.633626,0.260597 -2.783836,1.223724 -2.894692,1.344182 0,0 -0.317439,0.253158 -0.133159,0.575363 0.182848,0.319927 0.543586,0.508788 0.936146,0.477995 l 0.01813,-1.2e-4 c 2.497534,0.348116 5.86688,1.919802 6.893461,3.925396 C 28.147882,28.797653 28.496361,29 28.876401,29 c 0.02439,0 0.04891,-6.92e-4 0.07343,-0.0028 0.407951,-0.02795 0.753821,-0.285308 0.866894,-0.645116 0.02882,-0.09299 0.28053,-1.239967 0.141895,-2.419542 z"/>
 <path style="fill:#489cf2" d="M 29.958617,24.932688 C 29.682097,23.546239 29.172918,22.589402 28,22.055312 27.989815,16.327192 26.324378,9.9673829 21,7 21.425427,6.8155621 22.801716,6.5298444 23.225968,6.4515338 23.542756,6.3935314 23.807657,6.1960601 23.934033,5.923884 24.060409,5.651701 24.031847,5.3400027 23.857607,5.0908585 23.692368,4.8546063 22.507602,4.283264 20.85611,4.0828225 19,4 18,4 15.576629,4.4874404 14.292005,4.9266321 13.668081,4.987521 12.945692,5.05795 12.33142,5.1178581 11.635114,5.1858033 10.528903,5.4695657 7.3429036,6.2869475 5.8441313,7.5835123 4.9939316,8.4345595 4.3302308,9.0988972 3.9632219,10.450618 4,11 3.8420631,11.079744 3.8581149,11.093033 3.6834843,11.185188 2.5158454,11.801176 2.1115474,12.089003 2.018298,12.579649 1.949567,12.941723 2.075813,13.179265 2.3742107,13.503856 2.8557631,13.955135 3.1295989,14 3.8857636,14 5.080447,13.813492 6.0691522,13.424875 7.286,13.05 8.0079976,12.97971 8.630658,13.10562 9.7204371,13.320359 11.131555,13.647062 12.641618,14.014301 13.894632,14 c 0.242449,0.457573 0.645181,1.313091 1.294535,2.092277 1.69401,2.032767 3.670935,1.90629 3.873605,1.907723 0.366345,0.0049 0.657397,0.01594 0.826158,-0.285012 0.168762,-0.301072 0.14007,-0.660527 -0.07786,-0.933782 -0.176221,-0.224282 -0.81395,-0.577072 -0.987668,-1.49641 -0.04956,-0.261916 -0.02744,-0.482783 -0.0234,-0.691812 2.254719,0.661225 5.734967,2.675423 6.192533,4.869408 l 0.01493,1.576017 c -0.0064,-2.75e-4 0.0065,1.41e-4 0,0 -0.103683,-0.0042 -0.324808,-0.0053 -0.482615,-0.0053 -0.410167,0 -0.854112,0.04155 -1.357137,0.12178 -1.633626,0.260597 -2.783836,1.223724 -2.894692,1.344182 0,0 -0.317439,0.253158 -0.133159,0.575363 0.182848,0.319927 0.543586,0.508788 0.936146,0.477995 l 0.01813,-1.2e-4 c 2.497534,0.348116 5.86688,1.919802 6.893461,3.925396 C 28.147882,27.797653 28.496361,28 28.876401,28 c 0.02439,0 0.04891,-6.92e-4 0.07343,-0.0028 0.407951,-0.02795 0.753821,-0.285308 0.866894,-0.645116 0.02882,-0.09299 0.28053,-1.239967 0.141895,-2.419542 z"/>
 <circle style="opacity:0.2" cx="7" cy="11" r="1"/>
 <circle style="fill:#8b9cbe" cx="7" cy="10" r="1"/>
 <path style="fill:#8b9cbe;opacity:0.2" d="M 19.589844 4.0429688 C 18.411952 4.0308768 17.3937 4.122701 15.576172 4.4882812 C 14.291548 4.927473 13.667702 4.9881648 12.945312 5.0585938 C 12.331041 5.1185019 11.635508 5.1849876 10.529297 5.46875 C 7.3432975 6.2861318 5.8443403 7.5825465 4.9941406 8.4335938 C 4.3304398 9.0979314 3.9632219 10.450618 4 11 C 3.8420631 11.079744 3.8582243 11.093392 3.6835938 11.185547 C 2.5159548 11.801535 2.1108275 12.089432 2.0175781 12.580078 C 1.9690903 12.835512 2.0245344 13.028611 2.1621094 13.234375 C 2.3721842 12.920936 2.8153899 12.643568 3.6835938 12.185547 C 3.8582243 12.093392 3.8420631 12.079744 4 12 C 3.9632219 11.450618 4.3304398 10.097931 4.9941406 9.4335938 C 5.8443403 8.5825465 7.3432975 7.2861318 10.529297 6.46875 C 11.635508 6.1849876 12.331041 6.1185019 12.945312 6.0585938 C 13.667702 5.9881647 14.291548 5.927473 15.576172 5.4882812 C 17.999543 5.0008409 18.999359 4.9992088 20.855469 5.0820312 C 22.480052 5.2792068 23.642806 5.8332116 23.837891 6.0761719 C 23.873775 6.0280326 23.908196 5.9785276 23.933594 5.9238281 C 24.05997 5.6516451 24.031662 5.3409411 23.857422 5.0917969 C 23.692183 4.8555447 22.506961 4.2824728 20.855469 4.0820312 C 20.391441 4.0613256 19.982474 4.0469994 19.589844 4.0429688 z M 22.083984 7.6933594 C 21.645654 7.795551 21.207139 7.9101978 21 8 C 26.324378 10.967383 27.989815 17.326567 28 23.054688 C 29.172362 23.588524 29.682375 24.546256 29.958984 25.931641 C 29.958984 25.931641 29.958984 25.933594 29.958984 25.933594 C 29.97032 26.030345 29.96623 26.121056 29.972656 26.216797 C 30.000891 25.827911 30.012786 25.392805 29.958984 24.933594 C 29.958984 24.933594 29.958984 24.931641 29.958984 24.931641 C 29.682375 23.546256 29.172362 22.588524 28 22.054688 C 27.990545 16.737243 26.549155 10.880358 22.083984 7.6933594 z M 18.800781 15.59375 C 18.796741 15.802779 18.774659 16.02324 18.824219 16.285156 C 18.997937 17.204494 19.634326 17.556968 19.810547 17.78125 C 19.813925 17.785486 19.815072 17.790645 19.818359 17.794922 C 19.841446 17.767691 19.868875 17.750148 19.888672 17.714844 C 20.057434 17.413772 20.028477 17.054505 19.810547 16.78125 C 19.658894 16.588237 19.167237 16.297307 18.921875 15.634766 C 18.883117 15.622832 18.838861 15.604917 18.800781 15.59375 z M 24.525391 21.033203 C 24.115224 21.033203 23.670994 21.074067 23.167969 21.154297 C 21.534343 21.414894 20.384294 22.379542 20.273438 22.5 C 20.273438 22.5 19.956345 22.752014 20.140625 23.074219 C 20.210708 23.196843 20.311655 23.293921 20.425781 23.373047 C 20.763666 23.091609 21.765181 22.37807 23.167969 22.154297 C 23.670994 22.074067 24.115224 22.033203 24.525391 22.033203 C 24.683198 22.033203 24.904129 22.034862 25.007812 22.039062 L 24.998047 21.039062 C 24.891877 21.03507 24.680004 21.033203 24.525391 21.033203 z"/>
</svg>
