<svg xmlns="http://www.w3.org/2000/svg" width="32" height="32" version="1.1">
 <g transform="translate(0,-300.3)">
  <path style="opacity:0.2" transform="translate(0,300.3)" d="M 2 26.5 L 2 27.5 C 2 29.439 3.561 31 5.5 31 L 9 31 L 16 31 L 23 31 L 26.5 31 C 28.439 31 30 29.439 30 27.5 C 30 27.328627 29.974742 27.164651 29.951172 27 C 29.708054 28.698291 28.267627 30 26.5 30 L 23 30 L 16 30 L 9 30 L 5.5 30 C 3.561 30 2 28.439 2 26.5 z"/>
  <path style="fill:#ff7c70" d="m 23,323.3 h 3.5 c 1.939,0 3.5,1.561 3.5,3.5 0,1.939 -1.561,3.5 -3.5,3.5 H 23 Z"/>
  <path style="fill:#7a0000" d="M 9,323.29999 H 5.5 c -1.939,0 -3.5,1.561 -3.5,3.5 0,1.939 1.561,3.5 3.5,3.5 H 9 Z"/>
  <path style="fill:#ed5353" d="m 23,323.29999 v 7 h -7 c -2.257087,-2.52142 -2.684892,-4.89041 0,-7 z"/>
  <path style="fill:#c6262e" d="m 16,323.29999 v 7 H 9 v -7 z"/>
  <path style="opacity:0.2" transform="translate(0,300.3)" d="M 23.935547 13.501953 C 23.263611 13.454953 22.569162 13.603237 21.939453 13.966797 L 18.908203 15.716797 L 12.845703 19.216797 L 6.7832031 22.716797 L 3.7539062 24.466797 C 2.782652 25.027551 2.1970484 25.980251 2.0507812 27.005859 C 2.2964261 28.701244 3.734428 30 5.5 30 L 8.1660156 30 L 10.283203 28.777344 L 16.345703 25.277344 L 22.408203 21.777344 L 25.439453 20.027344 C 27.118676 19.057844 27.690203 16.925314 26.720703 15.246094 C 26.114766 14.196574 25.05544 13.580233 23.935547 13.501953 z M 2.0214844 27.720703 C 2.0285582 27.82989 2.0371595 27.937946 2.0546875 28.046875 C 2.037914 27.939889 2.0284054 27.830738 2.0214844 27.720703 z M 2.1464844 28.455078 C 2.1683498 28.53116 2.1895022 28.60644 2.2167969 28.681641 C 2.1902408 28.607529 2.1681039 28.531439 2.1464844 28.455078 z M 2.4355469 29.162109 C 2.4504193 29.189491 2.4569798 29.218941 2.4726562 29.246094 C 2.4817106 29.261776 2.4946504 29.273574 2.5039062 29.289062 C 2.4792812 29.247808 2.4584987 29.204451 2.4355469 29.162109 z M 2.8164062 29.726562 C 2.8551271 29.773421 2.8908804 29.82277 2.9316406 29.867188 C 2.8905898 29.822648 2.855118 29.773206 2.8164062 29.726562 z M 3.2949219 30.201172 C 3.3426744 30.240275 3.387986 30.282028 3.4375 30.318359 C 3.3877758 30.281953 3.3425883 30.240098 3.2949219 30.201172 z M 3.8339844 30.5625 C 3.8986901 30.597776 3.9607231 30.636938 4.0273438 30.667969 C 3.9603069 30.636864 3.8986142 30.597638 3.8339844 30.5625 z M 4.4199219 30.814453 C 4.5064603 30.842747 4.5912301 30.873068 4.6796875 30.894531 C 4.5907581 30.873219 4.5060263 30.842376 4.4199219 30.814453 z M 5.0234375 30.953125 C 5.1437592 30.969853 5.2628842 30.984178 5.3847656 30.988281 C 5.2619415 30.984249 5.142673 30.969387 5.0234375 30.953125 z"/>
  <path style="fill:#ffc27d" d="m 18.908512,315.01586 3.031089,-1.75 c 1.679223,-0.9695 3.811589,-0.39814 4.781089,1.28109 0.9695,1.67922 0.398134,3.81158 -1.281089,4.78108 l -3.031089,1.75 z"/>
  <path style="fill:#cc3b02" d="m 6.7841556,322.01586 -3.0310887,1.75 c -1.6792232,0.9695 -2.2505889,3.10186 -1.2810889,4.78109 0.9695001,1.67922 3.1018658,2.25058 4.7810894,1.28108 l 3.0310886,-1.75 z"/>
  <path style="fill:#ffa154" d="m 18.908511,315.01586 3.500001,6.06217 -6.062178,3.5 c -3.215408,-1.05507 -4.77039,-2.89277 -3.500001,-6.06217 z"/>
  <path style="fill:#f37329" d="m 12.846333,318.51586 3.500001,6.06217 -6.062178,3.5 -3.5000004,-6.06217 z"/>
  <path style="opacity:0.2" transform="translate(0,300.3)" d="M 15.757812 5.8164062 C 14.63792 5.8947063 13.578594 6.5110269 12.972656 7.5605469 L 11.222656 10.591797 L 7.7226562 16.654297 L 4.2226562 22.716797 L 2.4726562 25.746094 C 2.2461188 26.138467 2.1106639 26.557262 2.046875 26.978516 C 2.2808696 28.687214 3.7250143 30 5.5 30 L 7.9277344 30 C 8.1552962 29.778749 8.3662617 29.535244 8.5332031 29.246094 L 10.283203 26.216797 L 13.783203 20.154297 L 17.283203 14.091797 L 19.033203 11.060547 C 20.002703 9.3813169 19.433129 7.2487969 17.753906 6.2792969 C 17.124198 5.9157369 16.429749 5.7694363 15.757812 5.8164062 z M 2.0136719 27.628906 C 2.0178634 27.740765 2.0300887 27.85039 2.0449219 27.960938 C 2.0304587 27.851249 2.017813 27.741621 2.0136719 27.628906 z M 2.1054688 28.320312 C 2.1269054 28.408852 2.1572679 28.493458 2.1855469 28.580078 C 2.1576239 28.493974 2.1267808 28.409242 2.1054688 28.320312 z M 2.3378906 28.982422 C 2.3640842 29.03822 2.3966004 29.090075 2.4257812 29.144531 C 2.3967309 29.090191 2.3641102 29.038446 2.3378906 28.982422 z M 2.6816406 29.5625 C 2.7168611 29.610503 2.757095 29.654823 2.7949219 29.701172 C 2.7572269 29.654865 2.7169621 29.610742 2.6816406 29.5625 z M 3.140625 30.074219 C 3.1794537 30.109677 3.2229872 30.139919 3.2636719 30.173828 C 3.2231943 30.139964 3.1795072 30.109855 3.140625 30.074219 z M 3.7109375 30.496094 C 3.7264608 30.505371 3.7381885 30.518269 3.7539062 30.527344 C 3.780466 30.542678 3.8091584 30.549888 3.8359375 30.564453 C 3.7941124 30.541755 3.7517011 30.520426 3.7109375 30.496094 z M 4.3242188 30.785156 C 4.3955748 30.810951 4.4669121 30.830654 4.5390625 30.851562 C 4.4667299 30.830944 4.3945297 30.81021 4.3242188 30.785156 z M 4.953125 30.945312 C 5.0647592 30.963287 5.1752129 30.971519 5.2871094 30.978516 C 5.174397 30.971675 5.0626474 30.962484 4.953125 30.945312 z"/>
  <path style="fill:#8cd5ff" d="m 11.221976,309.8915 1.75,-3.03108 c 0.9695,-1.67923 3.101866,-2.2506 4.781089,-1.2811 1.679223,0.9695 2.250589,3.10187 1.281089,4.7811 l -1.75,3.03108 z"/>
  <path style="fill:#0d52bf" d="m 4.2219754,322.01586 -1.75,3.03109 c -0.9695,1.67922 -0.3981343,3.81158 1.2810889,4.78108 1.6792235,0.9695 3.8115892,0.39814 4.7810892,-1.28108 l 1.7499995,-3.03109 z"/>
  <path style="fill:#64baff" d="m 11.221976,309.8915 6.062177,3.5 -3.5,6.06218 c -3.312162,0.69398 -5.5776653,-0.12002 -6.0621773,-3.5 z"/>
  <path style="fill:#3689e6" d="m 7.7219757,315.95368 6.0621773,3.5 -3.5,6.06218 -6.0621776,-3.5 z"/>
  <path style="fill:#e2ffb4" d="m 2.0000114,309.3 v -3.5 c 0,-1.939 1.561,-3.5 3.5,-3.5 1.9389998,0 3.4999998,1.561 3.4999998,3.5 v 3.5 z"/>
  <path style="fill:#3a9104" d="m 2.0000102,323.3 v 3.5 c 0,1.939 1.561,3.5 3.5,3.5 1.9390003,0 3.5000003,-1.561 3.5000003,-3.5 v -3.5 z"/>
  <path style="opacity:0.2;fill:#8b9cbe" transform="translate(0,300.3)" d="M 5.5,2 C 3.561,2 2,3.561 2,5.5 v 1 C 2,4.561 3.561,3 5.5,3 7.4389998,3 9,4.561 9,6.5 v -1 C 9,3.561 7.4389998,2 5.5,2 Z m 10.257812,2.8164062 c -1.119892,0.078288 -2.179218,0.6946219 -2.785156,1.7441407 l -1.75,3.03125 -3.4999998,6.0625001 c 0.037818,0.26382 0.098991,0.493609 0.1582032,0.726562 l 3.3417966,-5.789062 1.75,-3.0312501 c 0.605938,-1.04952 1.665264,-1.6658406 2.785156,-1.7441407 0.671937,-0.04698 1.366386,0.099321 1.996094,0.4628907 0.975017,0.5629262 1.562333,1.5200585 1.705078,2.5507812 C 19.668837,7.448439 19.040831,6.0223033 17.753906,5.2792969 17.124198,4.9157344 16.429749,4.7694336 15.757812,4.8164062 Z m 8.177735,7.6855468 c -0.671964,-0.04666 -1.366385,0.101281 -1.996094,0.464844 l -3.03125,1.75 -2.978515,1.71875 -0.865235,1.5 3.84375,-2.21875 3.03125,-1.75 c 1.679223,-0.9695 3.81175,-0.399933 4.78125,1.279297 0.225745,0.391001 0.359715,0.806811 0.423828,1.226562 0.10253,-0.743331 -0.01793,-1.52353 -0.423828,-2.226562 -0.605937,-1.049519 -1.665216,-1.666381 -2.785156,-1.744141 z M 20.291016,23 18.558594,24 H 23 26.5 c 1.767627,0 3.208054,1.301709 3.451172,3 C 29.974742,26.835349 30,26.671373 30,26.5 30,24.561 28.439,23 26.5,23 H 23 Z"/>
  <path style="fill:#9bdb4d" d="m 2.0000102,309.3 h 7.0000003 v 7 c -2.5214266,2.25709 -4.8904103,2.68489 -7.0000003,0 z"/>
  <path style="fill:#68b723" d="m 2.0000102,316.3 h 7.0000003 v 7 H 2.0000102 Z"/>
  <circle style="opacity:0.2" cx="5.5" cy="327.8" r="1.5"/>
  <circle style="fill:#8b9cbe" cx="5.5" cy="326.8" r="1.5"/>
 </g>
</svg>
