<svg xmlns="http://www.w3.org/2000/svg" width="32" height="32" version="1">
 <rect style="opacity:0.2" width="29" height="29" x="2" y="2" rx="1.45" ry="1.45"/>
 <rect style="fill:#0083a4" width="29" height="29" x="2" y="1" rx="1.45" ry="1.45"/>
 <path style="opacity:0.2" d="M 6.1503906,5 C 5.5132906,5 5,5.5132906 5,6.1503906 V 19 h 10 3 10 V 6.1503906 C 28,5.5132906 27.486709,5 26.849609,5 Z M 17.214844,8 h 3.060547 C 20.675987,8 21,8.3240111 21,8.7246094 v 3.0605466 c 0,0.400597 -0.32394,0.72461 -0.724609,0.72461 -0.400669,0 -0.775391,-0.324013 -0.775391,-0.72461 V 10.476563 L 14.476562,15.5 h 1.308594 c 0.400668,0 0.72461,0.374721 0.72461,0.775391 C 16.509766,16.675989 16.185753,17 15.785156,17 H 12.724609 C 12.324013,17 12,16.675989 12,16.275391 v -3.060547 c 0,-0.400597 0.32394,-0.72461 0.724609,-0.72461 0.400669,0 0.775391,0.324013 0.775391,0.72461 v 1.308594 L 18.523438,9.5 H 17.214844 C 16.814176,9.5 16.490234,9.1252797 16.490234,8.7246094 16.490234,8.3240111 16.814247,8 17.214844,8 Z M 5,22 v 4.849609 C 5,27.486709 5.5132906,28 6.1503906,28 H 15 v -6 z m 13,0 v 6 h 8.849609 C 27.486709,28 28,27.486709 28,26.849609 V 22 Z"/>
 <path style="fill:#8b9cbe" d="M 6.1503906 4 C 5.5132906 4 5 4.5132906 5 5.1503906 L 5 18 L 15 18 L 18 18 L 28 18 L 28 5.1503906 C 28 4.5132906 27.486709 4 26.849609 4 L 6.1503906 4 z M 17.214844 7 L 20.275391 7 C 20.675987 7 21 7.3240111 21 7.7246094 L 21 10.785156 C 21 11.185753 20.67606 11.509766 20.275391 11.509766 C 19.874722 11.509766 19.5 11.185753 19.5 10.785156 L 19.5 9.4765625 L 14.476562 14.5 L 15.785156 14.5 C 16.185824 14.5 16.509766 14.874721 16.509766 15.275391 C 16.509766 15.675989 16.185753 16 15.785156 16 L 12.724609 16 C 12.324013 16 12 15.675989 12 15.275391 L 12 12.214844 C 12 11.814247 12.32394 11.490234 12.724609 11.490234 C 13.125278 11.490234 13.5 11.814247 13.5 12.214844 L 13.5 13.523438 L 18.523438 8.5 L 17.214844 8.5 C 16.814176 8.5 16.490234 8.1252797 16.490234 7.7246094 C 16.490234 7.3240111 16.814247 7 17.214844 7 z M 5 21 L 5 25.849609 C 5 26.486709 5.5132906 27 6.1503906 27 L 15 27 L 15 21 L 5 21 z M 18 21 L 18 27 L 26.849609 27 C 27.486709 27 28 26.486709 28 25.849609 L 28 21 L 18 21 z"/>
 <path style="fill:#8b9cbe;opacity:0.1" d="M 3.4492188 1 C 2.6459187 1 2 1.6459187 2 2.4492188 L 2 3.4492188 C 2 2.6459187 2.6459187 2 3.4492188 2 L 29.550781 2 C 30.354081 2 31 2.6459187 31 3.4492188 L 31 2.4492188 C 31 1.6459187 30.354081 1 29.550781 1 L 3.4492188 1 z"/>
</svg>
