<svg xmlns="http://www.w3.org/2000/svg" width="32" height="32" version="1.1">
 <path style="opacity:.2" d="m30.001953 12.472656v8.015625c0 5.269313-4.242406 9.511719-9.511719 9.511719h-8.980468c-5.2561133 0-9.4885866-4.221697-9.509766-9.472656v0.960937c0 5.269313 4.2424062 9.511719 9.511719 9.511719h8.980469c5.269312 0 9.511718-4.242406 9.511718-9.511719v-8.976562c0-0.0132-0.0019-0.025876-0.001953-0.039063z"/>
 <rect style="fill:#4bae4f" width="28.004" height="28" x="2" y="2" ry="9.511"/>
 <path style="opacity:.2" d="m6.0839662 6.5769291 0.721111 0.5413401c-2.287307 1.0544916 3.5869478 5.8689768 3.5869478 5.8689768s1.143224-1.02905 2.818186-1.137386c1.661379-1.702509 8.575852-0.406719 8.316795 0.990518-2.324291 0.03633-3.060408-0.260677-3.060408-0.260677s0.114745 0.132332 0.162116 0.58651c-0.16986 0.13995-2.573354-0.398658-3.07583-0.360287-1.429748 0.10918-2.394699 0.145345-3.420424 0.258884 0.705651 0.232709 6.328731 1.234109 8.126701 2.972222-0.479608 0.184976-0.689362 0.108778-0.849506 0.167818-0.140824 0.05192-0.283293 0.338821-0.592328 0.3402-0.221426 7.38e-4 -0.145744-0.196035-0.603039-0.412235-2.845311 0.113148-3.767803-1.622892-4.048588-1.835754-1.256081-0.299783-3.372159-0.977663-3.372159-0.977663s1.791675 1.429717 2.77401 2.223253c0.0817 0.06599 1.428431 0.316326 3.140475 1.151376 0.920276-0.753346 3.401222 0.524994 2.940232 1.695583-0.410628 1.042691-3.165643-0.03167-3.064359-1.450161-0.628939-0.19587-1.790764-0.757563-2.534084-1.025503 0.712635 0.55574 3.512411 2.88853 4.074978 3.54834 2.464539-0.302672 6.185144 0.312388 8.493076 1.791553-0.526343 0.139007-3.030811 0.614621-3.532473 0.480748-0.932146-0.352547-2.321439-1.49462-2.469469-1.622615-0.535447-0.09026-1.737227-0.262966-2.19887-0.315482 0.468233 0.475124 2.014557 2.261652 2.500089 3.01317 0.201135-0.04251 1.226819 0.204019 1.51107 0.397197 1.053061-1.07446 2.760562 0.810911 3.810189 1.721466-0.27574 0.559826-4.606611-0.301794-4.027801-1.556314-0.309497-0.0413-0.928912-0.381337-1.157321-0.399388 0.233483 0.30578 0.742671 0.720814 1.413745 1.424713 0.645499-0.183615 3.078552 2.449509 3.143835 3.025741-1.820719-0.443603-2.719949-0.829563-3.001833-1.158815-0.556383-0.649872-0.34574-1.583017-0.292734-1.752627-0.71598-0.639852-0.84937-0.830102-1.083554-0.957101-0.0061 0.0067 7.38e-4 0.197112 0.01177 0.289662 1.17615 0.867096 0.607846 3.266939-0.06835 3.352038-0.294293 0.03704-0.972622-3.385818-0.125587-3.513347 0.01951-0.06782 0.03068-0.269962 0.03175-0.277942-0.447007-0.486604-2.92602-3.122358-3.087225-3.233352 0.08029 0.207998 0.211929 0.550016 0.332755 0.972264 1.46388 0.956724 1.706085 2.487535 1.595757 4.285528-0.351041-0.614478-3.790194-3.414206-2.286055-4.655319 0.0107-0.1914-0.04645-0.62582 0.08024-0.870016-0.476998-0.476721-1.962248-1.942891-2.09552-1.941708 0.165886 0.340035 0.268885 0.534168 0.351154 0.901841 1.132123 0.565041 0.803251 2.024562 0.287588 2.055557-0.543261 0.03263-1.747235-1.642355-0.61482-1.99759-0.09149-0.421712-0.257866-0.994895-0.324948-1.243901-0.489975-0.374728-2.112693-1.671694-2.487159-1.974025 0.460436 0.766157 0.910204 1.95871 1.135122 2.642482 1.356517 1.536807 0.981273 3.913957 0.84411 6.365928-1.591543-1.181571-2.579653-5.21413-1.567285-6.217905-0.337958-1.166024-0.848776-3.139022-0.848776-3.139022-2.188234-1.698429-3.3988748-2.97141-3.3988748-2.97141s1.4579858 1.89057 1.6240468 2.904003c1.276903 0.247582 2.343653 2.471952 1.328338 2.851551-1.484051 0.554837-3.0770538-1.799574-1.811024-2.676483 0 0-1.1210218-2.064904-1.9887478-3.875974-3.422708-3.7569282-3.093705-4.8848741-2.067088-5.0104609z"/>
 <path style="fill:#b2bfd9" d="m6.0839662 5.5769283 0.721111 0.5413401c-2.287307 1.0544916 3.5869478 5.8689766 3.5869478 5.8689766s1.143224-1.02905 2.818186-1.137386c1.661379-1.7025086 8.575852-0.406719 8.316795 0.990518-2.324291 0.03633-3.060408-0.260677-3.060408-0.260677s0.114745 0.132332 0.162116 0.58651c-0.16986 0.13995-2.573354-0.398658-3.07583-0.360287-1.429748 0.10918-2.394699 0.145345-3.420424 0.258884 0.705651 0.232709 6.328731 1.234109 8.126701 2.972222-0.479608 0.184976-0.689362 0.108778-0.849506 0.167818-0.140824 0.05192-0.283293 0.338821-0.592328 0.3402-0.221426 7.38e-4 -0.145744-0.196035-0.603039-0.412235-2.845311 0.113148-3.767803-1.622892-4.048588-1.835754-1.256081-0.299783-3.372159-0.977663-3.372159-0.977663s1.791675 1.429717 2.77401 2.223253c0.0817 0.06599 1.428431 0.316326 3.140475 1.151376 0.920276-0.753346 3.401222 0.524994 2.940232 1.695583-0.410628 1.042691-3.165643-0.03167-3.064359-1.450161-0.628939-0.19587-1.790764-0.757563-2.534084-1.025503 0.712635 0.55574 3.512411 2.88853 4.074978 3.54834 2.464539-0.302672 6.185144 0.312388 8.493076 1.791553-0.526343 0.139007-3.030811 0.614621-3.532473 0.480748-0.932146-0.352547-2.321439-1.49462-2.469469-1.622615-0.535447-0.09026-1.737227-0.262966-2.19887-0.315482 0.468233 0.475124 2.014557 2.261652 2.500089 3.01317 0.201135-0.04251 1.226819 0.204019 1.51107 0.397197 1.053061-1.07446 2.760562 0.810911 3.810189 1.721466-0.27574 0.559826-4.606611-0.301794-4.027801-1.556314-0.309497-0.0413-0.928912-0.381337-1.157321-0.399388 0.233483 0.30578 0.742671 0.720814 1.413745 1.424713 0.645499-0.183615 3.078552 2.449509 3.143835 3.025741-1.820719-0.443603-2.719949-0.829563-3.001833-1.158815-0.556383-0.649872-0.34574-1.583017-0.292734-1.752627-0.71598-0.639852-0.84937-0.830102-1.083554-0.957101-0.0061 0.0067 7.38e-4 0.197112 0.01177 0.289662 1.17615 0.867096 0.607846 3.266939-0.06835 3.352038-0.294293 0.03704-0.972622-3.385818-0.125587-3.513347 0.01951-0.06782 0.03068-0.269962 0.03175-0.277942-0.447007-0.486604-2.92602-3.122358-3.087225-3.233352 0.08029 0.207998 0.211929 0.550016 0.332755 0.972264 1.46388 0.956724 1.706085 2.487535 1.595757 4.285528-0.351041-0.614478-3.790194-3.414206-2.286055-4.655319 0.0107-0.1914-0.04645-0.62582 0.08024-0.870016-0.476998-0.476721-1.962248-1.942891-2.09552-1.941708 0.165886 0.340035 0.268885 0.534168 0.351154 0.901841 1.132123 0.565041 0.803251 2.024562 0.287588 2.055557-0.543261 0.03263-1.747235-1.642355-0.61482-1.99759-0.09149-0.421712-0.257866-0.994895-0.324948-1.243901-0.489975-0.374728-2.112693-1.671694-2.487159-1.974025 0.460436 0.766157 0.910204 1.95871 1.135122 2.642482 1.356517 1.536807 0.981273 3.913957 0.84411 6.365928-1.591543-1.181571-2.579653-5.21413-1.567285-6.217905-0.337958-1.166024-0.848776-3.139022-0.848776-3.139022-2.188234-1.698429-3.3988748-2.97141-3.3988748-2.97141s1.4579858 1.89057 1.6240468 2.904003c1.276903 0.247582 2.343653 2.471952 1.328338 2.851551-1.484051 0.554837-3.0770538-1.799574-1.811024-2.676483 0 0-1.1210218-2.064904-1.9887478-3.875974-3.422708-3.756928-3.093705-4.8848739-2.067088-5.0104607z"/>
 <path style="fill:#8b9cbe;opacity:.2" d="m11.509766 2c-5.2693129 0-9.5117191 4.2424062-9.5117191 9.511719v1c0-5.2693128 4.2424062-9.511719 9.5117191-9.511719h8.980468c5.269313 0 9.511719 4.2424062 9.511719 9.511719v-1c0-5.2693128-4.242406-9.511719-9.511719-9.511719h-8.980468z"/>
</svg>
