<svg xmlns="http://www.w3.org/2000/svg" width="32" height="32" version="1">
 <rect style="opacity:0.2" width="28" height="28" x="2" y="3" rx="1.5" ry="1.5"/>
 <path style="fill:#6aa22a" d="M 30,16 V 28.5 C 30,29.331 29.331,30 28.5,30 H 15 V 16 Z"/>
 <path style="fill:#71c454" d="M 2,15 V 28.5 C 2,29.331 2.669,30 3.5,30 H 16 V 15 Z"/>
 <path style="fill:#86d478" d="M 3.5,2 C 2.669,2 2,2.669 2,3.5 V 16 H 17 V 2 Z"/>
 <path style="fill:#36862c" d="M 28.5,2 C 29.331,2 30,2.669 30,3.5 V 16 H 16 V 2 Z"/>
 <path style="opacity:0.2;fill:#8b9cbe" d="m3.5 2c-0.831 0-1.5 0.669-1.5 1.5v1c0-0.831 0.669-1.5 1.5-1.5h25c0.831 0 1.5 0.669 1.5 1.5v-1c0-0.831-0.669-1.5-1.5-1.5h-25z"/>
 <circle style="opacity:0.2" cx="23" cy="24" r="8"/>
 <circle style="fill:#17191e" cx="23" cy="23" r="8"/>
 <path style="fill:#17191e" d="M 9,6 V 9 H 6 V 10 H 9 V 13 H 10 V 10 H 13 V 9 H 10 V 6 Z"/>
 <path style="fill:#17191e" d="M 20,9 V 10 H 26 V 9 Z"/>
 <path style="fill:#ebebeb" d="M 20,21 V 22 H 26 V 21 Z M 20,24 V 25 H 26 V 24 Z"/>
 <path style="fill:#17191e" d="M 6.3535,19.646 5.6465,20.354 8.293,23 5.6465,25.646 6.3535,26.354 9,23.707 11.646,26.354 12.354,25.646 9.707,23 12.354,20.354 11.646,19.646 9,22.293 Z"/>
</svg>
