<svg xmlns="http://www.w3.org/2000/svg" width="32" height="32" version="1.1">
 <g transform="translate(0,-300.3)">
  <circle style="fill:#8b9cbe" cx="15.5" cy="315.8" r="13.05"/>
  <polygon style="opacity:0.1" class="st1" transform="matrix(0.38322615,0,0,0.38322615,1.0986432,301.30055)" points="29.55 32.88 20.62 38.83 20.62 48.01 43.32 32.88 20.62 17.74 20.62 26.92"/>
  <polygon style="fill:#20aa73" class="st1" transform="matrix(0.38322615,0,0,0.38322615,1.0986432,300.30055)" points="20.62 26.92 29.55 32.88 20.62 38.83 20.62 48.01 43.32 32.88 20.62 17.74"/>
  <polygon style="opacity:0.1" class="st2" transform="matrix(0.38320926,0,0,0.38320926,0.77480534,302.80175)" points="55.39 50.05 46.46 44.1 55.39 38.14 55.39 28.96 32.69 44.1 55.39 59.23"/>
  <polygon style="fill:#3989da" class="st2" transform="matrix(0.38320926,0,0,0.38320926,0.77480534,301.80175)" points="55.39 59.23 55.39 50.05 46.46 44.1 55.39 38.14 55.39 28.96 32.69 44.1"/>
  <path style="opacity:0.2" d="m 28.186084,309.80064 -2.438379,1.62275 A 11.6,11.6 0 0 1 27.099999,316.8 11.6,11.6 0 0 1 15.5,328.4 11.6,11.6 0 0 1 6.5748534,324.17885 l -2.4298828,1.61709 C 6.8031124,329.14476 10.90222,331.3 15.5,331.3 c 7.995237,0 14.5,-6.50438 14.5,-14.5 0,-2.53853 -0.662652,-4.92196 -1.813916,-6.99936 z"/>
  <path style="fill:#20aa73" d="m 28.186084,308.80064 -2.438379,1.62275 A 11.6,11.6 0 0 1 27.099999,315.8 11.6,11.6 0 0 1 15.5,327.4 11.6,11.6 0 0 1 6.5748534,323.17885 l -2.4298828,1.61709 C 6.8031124,328.14476 10.90222,330.3 15.5,330.3 c 7.995237,0 14.5,-6.50438 14.5,-14.5 0,-2.53853 -0.662652,-4.92196 -1.813916,-6.99936 z"/>
  <path style="opacity:0.2" d="m 15.5,302.3 c -7.9956146,0 -14.50000004,6.50438 -14.50000004,14.5 0,2.35966 0.56843824,4.58795 1.57319334,6.55899 l 2.449707,-1.62984 A 11.6,11.6 0 0 1 3.9,316.8 a 11.6,11.6 0 0 1 11.6,-11.6 11.6,11.6 0 0 1 8.595215,3.83882 l 2.444043,-1.62559 C 23.877839,304.28755 19.916771,302.3 15.5,302.3 Z"/>
  <path style="fill:#3989da" d="m 15.5,301.3 c -7.9956146,0 -14.50000004,6.50438 -14.50000004,14.5 0,2.35966 0.56843824,4.58795 1.57319334,6.55899 l 2.449707,-1.62984 A 11.6,11.6 0 0 1 3.9,315.8 a 11.6,11.6 0 0 1 11.6,-11.6 11.6,11.6 0 0 1 8.595215,3.83882 l 2.444043,-1.62559 C 23.877839,303.28755 19.916771,301.3 15.5,301.3 Z"/>
  <path style="opacity:0.2;fill:#8b9cbe" transform="translate(0,300.3)" d="M 15.5,1 C 7.5043854,1 1,7.50438 1,15.5 c 0,0.207129 0.010861,0.412168 0.019531,0.617188 C 1.2250885,8.2995012 7.6336079,2 15.5,2 19.613689,2 23.317769,3.7380122 25.958984,6.5 L 26.539062,6.1132812 C 23.877644,2.9876013 19.916771,1 15.5,1 Z"/>
 </g>
</svg>
