<svg xmlns="http://www.w3.org/2000/svg" width="32" height="32" version="1.1">
 <circle style="opacity:0.2" cx="16" cy="17" r="14"/>
 <circle style="fill:#f7931a" cx="16" cy="16" r="14"/>
 <path style="opacity:0.2" d="m 13,8 0,3 -3.0000007,0 0,2.000001 c 0,0 1.1456507,-0.01999 1.1273687,0 0.613377,-0.0093 0.808708,0.436058 0.872215,0.733073 l 0,6.600259 c -0.02351,0.1877 -0.0035,0.653333 -0.432202,0.666667 0.0198,0.01733 -1.5673817,0 -1.5673817,0 l 0,2 2.1688177,0 C 12.535544,22.98667 12.645729,23 13,23 l 0,3 2,0 0,-3 0.97917,0 0.04166,3 L 18,26 17.97917,23 C 20.52239,22.815365 22,21.597881 21.983179,19.5 22,17.570087 20.456651,16.506411 19.5,16.5 20.456506,16.503769 21,15.463447 21,14 21,12 19.619804,11 17.999999,11 l 0,-3 L 16,8 l 0,3 c -0.398082,0 -0.595857,-0.01467 -1,0 l 0,-3 z m 2,5.000001 C 17,13 18,13 18,14.5 18,16 17,16 15,16 Z M 15,18 c 2.666111,8.3e-5 4.000276,-0.166641 4,1.5 2.76e-4,1.666775 -1.333889,1.5 -4,1.5 z"/>
 <path style="fill:#8b9cbe" d="m 13,7 0,2.9999995 -3.0000007,0 0,2.0000015 c 0,0 1.1456507,-0.01999 1.1273687,0 0.613377,-0.0093 0.808708,0.436058 0.872215,0.733073 l 0,6.600259 c -0.02351,0.1877 -0.0035,0.653333 -0.432202,0.666667 0.0198,0.01733 -1.5673817,0 -1.5673817,0 l 0,2 2.1688177,0 C 12.535544,21.98667 12.645729,22 13,22 l 0,3 2,0 0,-3 0.97917,0 0.04166,3 L 18,25 17.97917,22 C 20.52239,21.815365 22,20.597881 21.983179,18.5 22,16.570087 20.456651,15.506411 19.5,15.5 20.456506,15.503769 21,14.463447 21,13 21,11 19.619804,10 17.999999,10 l 0,-3 L 16,7 l 0,3 c -0.398082,0 -0.595857,-0.01467 -1,0 l 0,-3 z m 2,5.000001 C 17,12 18,12 18,13.5 18,15 17,15 15,15 Z M 15,17 c 2.666111,8.3e-5 4.000276,-0.166641 4,1.5 2.76e-4,1.666775 -1.333889,1.5 -4,1.5 z"/>
 <path style="fill:#8b9cbe;opacity:0.2" d="M 16 2 A 14 14 0 0 0 2 16 A 14 14 0 0 0 2.0214844 16.585938 A 14 14 0 0 1 16 3 A 14 14 0 0 1 29.978516 16.414062 A 14 14 0 0 0 30 16 A 14 14 0 0 0 16 2 z"/>
</svg>
