<svg xmlns="http://www.w3.org/2000/svg" width="32" height="32" version="1.1">
 <rect style="opacity:0.2" width="28" height="28" x="2" y="3" rx="1.4" ry="1.4"/>
 <rect style="fill:#b2bfd9" width="28" height="28" x="2" y="2" rx="1.4" ry="1.4"/>
 <path style="opacity:0.2;fill:none;stroke:#000000;stroke-width:3;stroke-linecap:round;stroke-linejoin:round" d="m 14.5,7.4996363 c -2.893896,3.8088387 -8,2.5 -8,6.3499997 0,4.667761 6.428161,4.316014 5.321364,9.85 -0.7,3.5 -4.221364,2.8 -6.321364,2.8"/>
 <path style="fill:none;stroke:#4f4f4f;stroke-width:3;stroke-linecap:round;stroke-linejoin:round" d="m 14.5,6.5 c -2.893896,3.808839 -8,2.5 -8,6.35 0,4.667761 6.428161,4.316014 5.321364,9.85 C 11.121364,26.2 7.6,25.5 5.5,25.5"/>
 <path style="opacity:0.2;fill:none;stroke:#000000;stroke-width:3;stroke-linecap:round;stroke-linejoin:round" d="m 16.50015,27.499636 0,-15.721 C 17.265004,9.2700261 17.851695,7.4996363 20.3,7.4996363 c 2.8,0 4.2,1.4790001 4.2,4.2789997 0,2.8 -5,5.199636 -5,6.949636 0,1.75 5.6,7.371364 7,8.771364"/>
 <path style="fill:none;stroke:#85722f;stroke-width:3;stroke-linecap:round;stroke-linejoin:round" d="m 16.50015,26.5 0,-15.721 C 17.265004,8.2703898 17.851695,6.5 20.3,6.5 c 2.8,0 4.2,1.4790001 4.2,4.279 0,2.8 -5,5.199636 -5,6.949636 0,1.75 5.6,7.371364 7,8.771364"/>
 <path style="fill:#8b9cbe;opacity:0.2" d="M 3.4003906 2 C 2.6247906 2 2 2.6247906 2 3.4003906 L 2 4.4003906 C 2 3.6247906 2.6247906 3 3.4003906 3 L 28.599609 3 C 29.375209 3 30 3.6247906 30 4.4003906 L 30 3.4003906 C 30 2.6247906 29.375209 2 28.599609 2 L 3.4003906 2 z"/>
</svg>
