<svg xmlns="http://www.w3.org/2000/svg" height="32" width="32" version="1.1">
 <path d="m2 15s1 3 3 3 0-6 2-6c1.4666666 0-2 0-2-2s2-4 2-4-1 3 0 3c2-2 4-4 8-4 3 0 9.4-0.466667 9.4 4.133333 0 10.733333-2.566667 11.712908-2.566667 14.271794 0 2.558888 1.166667 4.594873 1.166667 4.594873s-2 0-3-2c-1 1-1 3-1 3l-2-2-3 2-2-2-4 2s2-3 2-5c-3.733333-1.466666-5.1449592-0.908265-7-4-1.1504475-1.917412-1-5-1-5z" style="opacity:.2"/>
 <path d="m2 14s1 3 3 3 0-6 2-6c1.4666666 0-2 0-2-2s2-4 2-4-1 3 0 3c2-2 4-4 8-4 3 0 9.4-0.466667 9.4 4.133333 0 10.733333-2.566667 11.712908-2.566667 14.271794 0 2.558888 1.166667 4.594873 1.166667 4.594873s-2 0-3-2c-1 1-1 3-1 3l-2-2-3 2-2-2-4 2s2-3 2-5c-3.733333-1.466666-5.1449592-0.908265-7-4-1.1504475-1.917412-1-5-1-5z" style="fill:#7478ce"/>
 <path style="opacity:.2;fill:#8b9cbe" d="m17.734375 3.9980469c-1.021875-0.028125-1.984375 0.0019531-2.734375 0.0019531-4 0-6 2-8 4-0.2191219 0-0.3300446-0.1598052-0.3886719-0.3847656-0.1050935 0.7088187-0.0851707 1.3847656 0.3886719 1.3847656 2-2 4-4 8-4 2.965857 0 9.243955-0.4480129 9.386719 3.9863281 0.003923-0.2858927 0.013672-0.5525331 0.013672-0.8535156 0-3.45-3.600391-4.0503907-6.666016-4.1347656zm-10.734375 1.0019531s-2 2-2 4c0 0.1559586 0.0282293 0.2951505 0.0664062 0.4277344 0.2219435-1.2682979 1.0844901-2.4463922 1.5820313-3.0332032 0.1298043-0.7098326 0.3515625-1.3945312 0.3515625-1.3945312zm-0.7714844 6.605469c-0.5954316 1.519505 0.3799194 5.394531-1.2285156 5.394531-2 0-3-3-3-3s-0.0011105 0.467702 0.0273438 1.066406c0.0685916 0.198458 1.0437769 2.933594 2.9726562 2.933594 2 0 0-6 2-6 0.8445449 0 0.0517059-0.012672-0.7714844-0.394531zm15.632812 11.335937c-0.018799 0.150359-0.027344 0.30296-0.027344 0.462891 0 1.46028 0.369072 2.696659 0.695313 3.535156 0.278748 0.053915 0.470703 0.060547 0.470703 0.060547s-0.994147-1.760769-1.138672-4.058594zm-11.992187 1.011719c-0.4326571 1.879188-1.8691406 4.046875-1.8691406 4.046875l0.8105469-0.404297c0.5582192-1.048674 1.1894531-2.457537 1.1894531-3.595703-0.0470624-0.018489-0.0845293-0.029018-0.1308594-0.046875z"/>
 <path d="m29 18s1-2.225641 1-6c0-3-0.333333-5-4-5-7 0-10 6.933334-10 10 0 3.066667 1.066666 4 4 4 3 0 7 1 7-6 1.466667 0 2 3 2 3z" style="opacity:.2"/>
 <path d="m29 17s1-2.225641 1-6c0-3-0.333333-5-4-5-7 0-10 6.933334-10 10 0 3.066667 1.066666 4 4 4 3 0 7 1 7-6 1.466667 0 2 3 2 3z" style="fill:#fecd38"/>
 <circle r="1.5" style="opacity:.2" cx="15.5" cy="10.5"/>
 <circle r="1.5" style="fill:#8b9cbe" cx="15.5" cy="9.5"/>
 <path style="opacity:.2;fill:#8b9cbe" d="m26 6c-7 0-10 6.933334-10 10 0 0.196988 0.016376 0.361314 0.025391 0.541016 0.26795-3.244604 3.299935-9.541016 9.974609-9.541016 3.404648 0 3.929821 1.7365926 3.988281 4.384766 0.002478-0.131272 0.011719-0.249484 0.011719-0.384766 0-3-0.333333-5-4-5z"/>
</svg>
