<svg xmlns="http://www.w3.org/2000/svg" width="32" height="32" version="1.1">
 <path style="opacity:0.2" d="M 6.1855469,7 A 1.0692444,1.2373616 0 0 0 5.1523438,7.9121094 L 1.0371094,25.4375 A 1.0692444,1.2373616 0 0 0 2.0683594,27 h 4.7480468 a 1.0692444,1.2373616 0 0 0 1.03125,-0.914062 L 11.962891,8.5605469 A 1.0692444,1.2373616 0 0 0 10.931641,7 Z M 15.185547,7 A 1.0692443,1.2373616 0 0 0 14.152344,7.9121094 L 10.037109,25.4375 A 1.0692443,1.2373616 0 0 0 11.068359,27 h 4.748047 a 1.0692443,1.2373616 0 0 0 1.03125,-0.914062 L 20.962891,8.5605469 A 1.0692443,1.2373616 0 0 0 19.931641,7 Z m 9,0 A 1.0692444,1.2373616 0 0 0 23.152344,7.9121094 L 19.037109,25.4375 A 1.0692444,1.2373616 0 0 0 20.068359,27 h 4.748047 a 1.0692444,1.2373616 0 0 0 1.03125,-0.914062 L 29.962891,8.5605469 A 1.0692444,1.2373616 0 0 0 28.931641,7 Z"/>
 <path style="fill:#dd2f38" d="m 6.1858736,6.0000017 a 1.0692444,1.2373616 0 0 0 -1.0325953,0.91222 L 1.0375162,24.437746 A 1.0692444,1.2373616 0 0 0 2.0690673,26 H 6.8154538 A 1.0692444,1.2373616 0 0 0 7.8470046,25.086571 L 11.962767,7.5610467 a 1.0692444,1.2373616 0 0 0 -1.031549,-1.561045 z"/>
 <path style="fill:#0766b5" d="m 24.185874,6.0000017 a 1.0692444,1.2373616 0 0 0 -1.032596,0.91222 L 19.037516,24.437746 A 1.0692444,1.2373616 0 0 0 20.069068,26 h 4.746386 a 1.0692444,1.2373616 0 0 0 1.03155,-0.913429 L 29.962768,7.5610467 a 1.0692444,1.2373616 0 0 0 -1.031551,-1.561045 z"/>
 <path style="fill:#27a74e" d="m 15.185874,6.0000007 a 1.0692443,1.2373616 0 0 0 -1.032596,0.912221 L 10.037516,24.437745 a 1.0692443,1.2373616 0 0 0 1.031551,1.562254 h 4.746386 A 1.0692443,1.2373616 0 0 0 16.847004,25.08657 L 20.962767,7.5610467 a 1.0692443,1.2373616 0 0 0 -1.03155,-1.561046 z"/>
 <path style="opacity:0.2;fill:#8b9cbe" d="M 6.1855469 6 A 1.0692444 1.2373616 0 0 0 5.1523438 6.9121094 L 1.0371094 24.4375 A 1.0692444 1.2373616 0 0 0 1.0839844 25.238281 L 5.1523438 7.9121094 A 1.0692444 1.2373616 0 0 1 6.1855469 7 L 10.931641 7 A 1.0692444 1.2373616 0 0 1 11.916016 7.7597656 L 11.962891 7.5605469 A 1.0692444 1.2373616 0 0 0 10.931641 6 L 6.1855469 6 z M 15.185547 6 A 1.0692443 1.2373616 0 0 0 14.152344 6.9121094 L 10.037109 24.4375 A 1.0692443 1.2373616 0 0 0 10.083984 25.238281 L 14.152344 7.9121094 A 1.0692443 1.2373616 0 0 1 15.185547 7 L 19.931641 7 A 1.0692443 1.2373616 0 0 1 20.916016 7.7597656 L 20.962891 7.5605469 A 1.0692443 1.2373616 0 0 0 19.931641 6 L 15.185547 6 z M 24.185547 6 A 1.0692444 1.2373616 0 0 0 23.152344 6.9121094 L 19.037109 24.4375 A 1.0692444 1.2373616 0 0 0 19.083984 25.238281 L 23.152344 7.9121094 A 1.0692444 1.2373616 0 0 1 24.185547 7 L 28.931641 7 A 1.0692444 1.2373616 0 0 1 29.916016 7.7597656 L 29.962891 7.5605469 A 1.0692444 1.2373616 0 0 0 28.931641 6 L 24.185547 6 z"/>
</svg>
