<svg xmlns="http://www.w3.org/2000/svg" width="32" height="32" version="1">
 <rect style="opacity:0.2" width="28" height="28" x="2" y="3" rx="8.4" ry="8.4"/>
 <rect style="fill:#bdc0b9" width="28" height="28" x="2" y="2" rx="8.4" ry="8.4"/>
 <path style="opacity:0.3" d="M 9.7,22.3 4.4554687,27.544532 C 5.9737688,29.062831 8.0732,30 10.4,30 h 5.6 5.6 c 2.3268,0 4.426232,-0.937169 5.944532,-2.455468 L 22.3,22.3 H 16 Z"/>
 <path style="opacity:0.15" d="M 27.544532,4.4554687 22.3,9.7 v 6.3 6.3 l 5.244532,5.244532 C 29.062831,26.026232 30,23.9268 30,21.6 V 10.4 C 30,8.0732 29.062831,5.9737688 27.544532,4.4554687 Z"/>
 <path style="opacity:0.15" d="M 4.4554687,4.4554687 C 2.9371687,5.9737688 2,8.0732 2,10.4 v 5.6 5.6 c 0,2.3268 0.9371687,4.426232 2.4554687,5.944532 L 9.7,22.3 V 16 9.7 Z"/>
 <rect style="opacity:0.2" width="20" height="20" x="6" y="7" rx="4.286" ry="4.286"/>
 <rect style="fill:#eceeeb" width="20" height="20" x="6" y="6" rx="4.286" ry="4.286"/>
 <path style="fill:#17191e" d="m 16,9 c -3.865993,0 -7,3.134007 -7,7 0.00258,2.200414 1.039667,4.271549 2.8,5.591797 V 19.5 h 0.77793 C 11.634637,18.579569 11.001899,17.31795 11,16 c 0,-2.706195 2.293805,-5 5,-5 2.706195,0 5,2.293805 5,5 -4.6e-4,1.317152 -0.631179,2.578655 -1.572461,3.5 H 20.9 v 1.490234 C 22.24098,19.675813 22.997647,17.877745 23,16 23,12.134007 19.865993,9 16,9 Z"/>
 <rect style="fill:#17191e" width="4.304" height="7.179" x="3.07" y="18.33" rx="2.548" ry="2.604" transform="matrix(0.96130582,-0.27548341,0.29553434,0.95533212,0,0)"/>
 <rect style="fill:#17191e" width="4.304" height="7.179" x="-27.5" y="9.51" rx="2.548" ry="2.604" transform="matrix(-0.96130583,-0.27548341,-0.29553434,0.95533212,0,0)"/>
 <path style="fill:#8b9cbe;opacity:0.2" d="M 10.400391 2 C 5.7467908 2 2 5.7467908 2 10.400391 L 2 11.400391 C 2 6.7467908 5.7467908 3 10.400391 3 L 21.599609 3 C 26.253209 3 30 6.7467908 30 11.400391 L 30 10.400391 C 30 5.7467908 26.253209 2 21.599609 2 L 10.400391 2 z"/>
</svg>
