<svg xmlns="http://www.w3.org/2000/svg" width="32" height="32" version="1">
 <path style="opacity:0.2" d="m 15.999559,2.0000392 c -0.785749,0 -1.572022,0.2928719 -2.159389,0.8802244 L 1.8802115,14.841556 c -1.17473369,1.174703 -1.17306719,3.140582 0.00171,4.315286 L 13.841884,31.118134 c 1.174734,1.174705 3.142364,1.176371 4.317098,0.0017 L 30.11895,19.158567 c 1.174733,-1.174704 1.174734,-3.142266 0,-4.31697 L 18.15895,2.8802833 C 17.571584,2.2929308 16.785309,2.0000586 15.999559,2.0000588 Z"/>
 <path style="fill:#b2bfd9" d="m 15.999559,1.0000187 c -0.785749,0 -1.572022,0.2928719 -2.159389,0.8802244 L 1.8802115,13.841535 c -1.17473369,1.174703 -1.17306719,3.140582 0.00171,4.315286 L 13.841884,30.118113 c 1.174734,1.174705 3.142364,1.176371 4.317098,0.0017 L 30.11895,18.158546 c 1.174733,-1.174704 1.174734,-3.142266 0,-4.31697 L 18.15895,1.8802628 C 17.571584,1.2929103 16.785309,1.0000381 15.999559,1.0000383 Z"/>
 <path style="opacity:0.1" d="m 15.726562,4.0483867 a 1.0715344,1.0715344 0 0 0 -0.736328,0.3242188 l -4.546875,4.5449219 a 1.0715344,1.0715344 0 0 0 0,1.5156246 l 3.03125,3.031251 a 1.0715344,1.0715344 0 0 0 1.515625,0 l 3.78711,-3.7890632 1.515625,1.5156252 -2.019531,2.021485 a 1.0715344,1.0715344 0 1 0 1.513671,1.513671 l 2.779297,-2.777343 a 1.0715344,1.0715344 0 0 0 0,-1.515626 l -3.03125,-3.0292965 a 1.0715344,1.0715344 0 0 0 -1.515625,0 L 14.232422,11.190965 12.716797,9.6753398 16.505859,5.8882305 A 1.0715344,1.0715344 0 0 0 15.726562,4.0483867 Z M 8.4082031,11.382371 a 1.0715344,1.0715344 0 0 0 -0.7421875,0.314454 l -4.5449218,4.544922 a 1.0717084,1.0717084 0 1 0 1.515625,1.515624 l 3.7871093,-3.787109 1.515625,1.513672 -3.7890625,3.789063 a 1.0715344,1.0715344 0 0 0 0,1.513671 l 3.03125,3.03125 A 1.0717089,1.0717089 0 1 0 10.697266,22.302293 L 8.4238281,20.028856 12.212891,16.241747 a 1.0715344,1.0715344 0 0 0 0,-1.515626 L 9.1816406,11.696825 A 1.0715344,1.0715344 0 0 0 8.4082031,11.382371 Z m 15.4492189,0.933594 c -0.38333,-0.01816 -0.759251,0.110813 -1.039063,0.390625 l -2.52539,2.525391 5.302734,5.302734 c 0.0878,0.0878 0.156546,0.187093 0.216797,0.289063 l 2.5625,-2.5625 c 0.559624,-0.559624 0.514025,-1.503555 -0.101562,-2.119141 L 24.939453,12.8062 C 24.63166,12.498407 24.240751,12.334125 23.857422,12.315965 Z m -6.851563,2.591797 a 1.0715344,1.0715344 0 0 0 -0.742187,0.3125 l -4.546875,4.546875 a 1.0717087,1.0717087 0 0 0 1.515625,1.515625 l 3.789062,-3.789062 1.515625,1.515625 -3.789062,3.787109 a 1.0715344,1.0715344 0 0 0 -0.002,1.513672 l 3.019531,3.041015 a 1.0715344,1.0715344 0 0 0 1.517578,0.002 l 4.544922,-4.544922 A 1.0717087,1.0717087 0 1 0 22.3125,21.292528 l -3.785156,3.785156 -1.509766,-1.519531 3.791016,-3.791016 a 1.0715344,1.0715344 0 0 0 0,-1.515625 l -3.029297,-3.03125 a 1.0715344,1.0715344 0 0 0 -0.773438,-0.3125 z m -4.792968,8.404297 -1.011719,1.011719 c -0.559624,0.559625 -0.514024,1.505508 0.101562,2.121093 l 3.333985,3.333985 c 0.615587,0.615587 1.561471,0.659232 2.121093,0.09961 l 1.044922,-1.044922 c -0.101971,-0.06025 -0.199309,-0.128997 -0.287109,-0.216796 z"/>
 <path style="fill:none;stroke:#5092ff;stroke-width:2.14285445;stroke-linecap:round;stroke-linejoin:round" d="m 3.8781796,16 4.5456812,-4.545681 3.0304532,3.030454 -4.5456806,4.545681 3.0304541,3.030453"/>
 <path style="fill:none;stroke:#4b70e1;stroke-width:2.14285445;stroke-linecap:round;stroke-linejoin:round" d="m 15.747457,4.1307222 -4.54568,4.5456811 3.030454,3.0304537 4.54568,-4.5456811 3.030454,3.0304541 -2.777916,2.777916"/>
 <path style="fill:none;stroke:#744dec;stroke-width:2.14285445;stroke-linecap:round;stroke-linejoin:round" d="m 12.475256,19.524739 4.545681,-4.545681 3.030454,3.030454 -4.545681,4.545681 3.019663,3.041244 4.545681,-4.545681"/>
 <path style="fill:#283d8a" d="m 11.201777,23.323596 c -0.559624,0.559625 -0.514966,1.505338 0.10062,2.120924 l 3.334288,3.334288 c 0.615587,0.615587 1.5613,0.660244 2.120923,0.100621 l 1.045665,-1.045665 C 17.701302,27.773514 17.603022,27.70454 17.515222,27.61674 l -5.303295,-5.303294 z m 9.091361,-9.091361 5.303294,5.303295 c 0.0878,0.0878 0.156775,0.186079 0.217026,0.288049 l 2.56089,-2.56089 c 0.559624,-0.559624 0.514966,-1.505337 -0.100621,-2.120923 L 24.939439,11.807478 C 24.323853,11.191892 23.37814,11.147233 22.818516,11.706857 Z"/>
 <path style="fill:#8b9cbe;opacity:0.2" d="M 16 1 C 15.214251 1 14.427211 1.2935069 13.839844 1.8808594 L 1.8808594 13.841797 C 1.1677673 14.55487 0.89374607 15.557797 1.046875 16.5 C 1.1451355 15.889441 1.4188023 15.303842 1.8808594 14.841797 L 13.839844 2.8808594 C 14.427211 2.2935069 15.214251 2 16 2 C 16.78575 1.9999998 17.570837 2.2935069 18.158203 2.8808594 L 30.119141 14.841797 C 30.581198 15.303842 30.854549 15.889124 30.953125 16.5 C 31.105169 15.557786 30.831817 14.554455 30.119141 13.841797 L 18.158203 1.8808594 C 17.570837 1.2935069 16.78575 0.9999998 16 1 z"/>
</svg>
