<svg xmlns="http://www.w3.org/2000/svg" width="32" height="32" version="1.1">
 <rect style="opacity:0.2" width="28" height="28" x="2" y="3" rx="2.1" ry="2.1"/>
 <rect style="fill:#0b4d9c" width="28" height="28" x="2" y="2" rx="2.1" ry="2.1"/>
 <path style="opacity:0.2" d="M 15.273438,9 C 11.244345,9 8,12.159817 8,16.083984 v 2.832032 C 8,22.840183 11.244346,26 15.273438,26 h 1.453124 c 1.184023,0 2.29714,-0.27871 3.283204,-0.763672 L 22.669922,28 25.099609,25.84375 22.535156,23.179688 C 23.452256,21.994338 24,20.520947 24,18.916016 V 16.083984 C 24,12.159817 20.755654,9 16.726562,9 Z m 0.363281,3 h 0.726562 C 18.377826,12 20,14.042864 20,16.582031 v 1.835938 C 20,20.957134 18.377826,23 16.363281,23 H 15.636719 C 13.622172,23 12,20.957134 12,18.417969 V 16.582031 C 12,14.042864 13.622172,12 15.636719,12 Z"/>
 <path style="fill:#8b9cbe" d="M 15.273438 8 C 11.244346 8 8 11.159817 8 15.083984 L 8 17.916016 C 8 21.840183 11.244346 25 15.273438 25 L 16.726562 25 C 20.755654 25 24 21.840183 24 17.916016 L 24 15.083984 C 24 11.159817 20.755654 8 16.726562 8 L 15.273438 8 z M 15.636719 11 L 16.363281 11 C 18.377826 11 20 13.042864 20 15.582031 L 20 17.417969 C 20 19.957134 18.377826 22 16.363281 22 L 15.636719 22 C 13.622172 22 12 19.957134 12 17.417969 L 12 15.582031 C 12 13.042864 13.622172 11 15.636719 11 z"/>
 <path style="opacity:0.1" d="m 2,6 v 6 H 13.555556 C 14.355778,12 15,11.405334 15,10.666667 V 7.3333334 C 15,6.5946667 14.355778,6 13.555556,6 Z"/>
 <path style="fill:#8b9cbe" d="M 18.099999,22.251548 18.957492,23.142784 22.669923,27 25.099999,24.844343 21.387567,20.987127 20.437152,20 Z"/>
 <path style="fill:#e46200" d="m 2,5 v 6 H 13.555556 C 14.355778,11 15,10.405334 15,9.666667 V 6.3333334 C 15,5.5946667 14.355778,5 13.555556,5 Z"/>
 <path style="opacity:0.1" d="m 3,7 v 4 H 3.75 V 9.8183594 h 0.6757812 c 0.3750917,0 0.6770272,-0.055926 0.90625,-0.1679688 C 5.5654214,9.5383466 5.7336985,9.3834923 5.8378906,9.1855469 5.9462523,8.983866 6,8.608922 6,8.34375 6,7.9478572 5.8750607,7.5408387 5.625,7.3242188 5.3749384,7.1075988 4.9950468,7 4.4824219,7 Z m 4,0 v 4 H 8.1992188 C 8.7517346,11 9.1917377,10.82373 9.515625,10.472656 9.8395133,10.121582 10,9.618439 10,8.9648438 10,8.3149847 9.8416577,7.8267118 9.5253906,7.4980469 9.2129329,7.1656472 8.7913719,7 8.2617188,7 Z m 4,0 v 4 h 0.75 V 9.8007812 H 13.5 V 9 H 11.75 V 7.8007812 H 14 V 7 Z M 3.75,7.8007812 h 0.7050781 c 0.2755775,0 0.4759335,0.030908 0.6035157,0.095703 C 5.1861759,7.9612804 5.2500001,8.1589284 5.25,8.2910156 5.25,8.4206108 5.1718731,8.8242099 5.0136719,8.8964844 4.8605731,8.9662664 4.6249974,9 4.3085938,9 H 3.75 Z m 4,0 h 0.453125 c 0.349022,0 0.6086925,0.093215 0.7832031,0.28125 C 9.1608389,8.2666464 9.2500001,8.5643527 9.25,8.9746094 9.25,9.3882839 9.1595868,9.694774 8.9765625,9.8964844 8.7977954,10.098193 8.5142817,10.199219 8.1269531,10.199219 H 7.75 Z"/>
 <path style="fill:#8b9cbe" d="m 3,6 v 4 H 3.75 V 8.8183594 h 0.6757812 c 0.3750917,0 0.6770272,-0.055926 0.90625,-0.1679688 C 5.5654214,8.5383466 5.7336985,8.3834923 5.8378906,8.1855469 5.9462523,7.983866 6,7.608922 6,7.34375 6,6.9478572 5.8750607,6.5408387 5.625,6.3242188 5.3749384,6.1075988 4.9950468,6 4.4824219,6 Z m 4,0 v 4 H 8.1992188 C 8.7517346,10 9.1917377,9.8237299 9.515625,9.4726562 9.8395133,9.121582 10,8.618439 10,7.9648438 10,7.3149847 9.8416577,6.8267118 9.5253906,6.4980469 9.2129329,6.1656472 8.7913719,6 8.2617188,6 Z m 4,0 v 4 h 0.75 V 8.8007812 H 13.5 V 8 H 11.75 V 6.8007812 H 14 V 6 Z M 3.75,6.8007812 h 0.7050781 c 0.2755775,0 0.4759335,0.030908 0.6035157,0.095703 C 5.1861759,6.9612804 5.2500001,7.1589284 5.25,7.2910156 5.25,7.4206108 5.1718731,7.8242099 5.0136719,7.8964844 4.8605731,7.9662664 4.6249974,8 4.3085938,8 H 3.75 Z m 4,0 h 0.453125 c 0.349022,0 0.6086925,0.093215 0.7832031,0.28125 C 9.1608389,7.2666464 9.2500001,7.5643527 9.25,7.9746094 9.25,8.3882839 9.1595868,8.694774 8.9765625,8.8964844 8.7977954,9.0981932 8.5142817,9.1992188 8.1269531,9.1992188 H 7.75 Z"/>
 <path style="fill:#8b9cbe;opacity:0.1" d="M 4.0996094 2 C 2.9362094 2 2 2.9362093 2 4.0996094 L 2 5.0996094 C 2 3.9362093 2.9362094 3 4.0996094 3 L 27.900391 3 C 29.063791 3 30 3.9362093 30 5.0996094 L 30 4.0996094 C 30 2.9362093 29.063791 2 27.900391 2 L 4.0996094 2 z"/>
</svg>
