<svg xmlns="http://www.w3.org/2000/svg" width="32" height="32" version="1.1">
 <rect style="opacity:0.2" width="28" height="28" x="2" y="3" rx="1.4" ry="1.4"/>
 <rect style="fill:#4f4f4f" width="28" height="28" x="2" y="2" rx="1.4" ry="1.4"/>
 <rect style="opacity:0.2" width="22" height="17" x="5" y="11"/>
 <rect style="fill:#ff8e20" width="22" height="17" x="5" y="10"/>
 <circle style="opacity:0.2" cx="25.5" cy="7.5" r="1.5"/>
 <circle style="fill:#ed333b" cx="25.5" cy="6.5" r="1.5"/>
 <g style="opacity:0.2;fill:none;stroke:#000000;stroke-width:2;stroke-linecap:round" transform="translate(0,1)">
  <path d="M 8,21 V 24 H 11"/>
  <path d="M 24,21 V 24 H 21"/>
  <path d="M 24,16 V 13 H 21"/>
  <path d="M 8,16 V 13 H 11"/>
 </g>
 <g style="fill:none;stroke:#8b9cbe;stroke-width:2;stroke-linecap:round">
  <path d="M 8,21 V 24 H 11"/>
  <path d="M 24,21 V 24 H 21"/>
  <path d="M 24,16 V 13 H 21"/>
  <path d="M 8,16 V 13 H 11"/>
 </g>
 <rect style="opacity:0.2" width="8" height="2" x="12" y="6" rx="1" ry="1"/>
 <rect style="fill:#b2bfd9" width="8" height="2" x="12" y="5" rx="1" ry="1"/>
 <path style="opacity:0.1;fill:#8b9cbe" d="M 3.4004 2 C 2.6248 2 2 2.6248 2 3.4004 L 2 4.4004 C 2 3.6248 2.6248 3 3.4004 3 L 28.6 3 C 29.375 3 30 3.6248 30 4.4004 L 30 3.4004 C 30 2.6248 29.375 2 28.6 2 L 3.4004 2 z"/>
</svg>
