<svg width="32" height="32" version="1.1" xmlns="http://www.w3.org/2000/svg">
 <path d="m19.458984 2.9997567c-0.614943 0.00921-1.209752 0.2206165-1.692577 0.6015652l-1.775977 1.4000059c-0.381643 0.3007103-0.678477 0.6955478-0.861329 1.1457082l-1.76914 4.365449c-0.534982-0.223495-1.080014-0.371007-1.577735-0.391017-2.8642996-0.115158-4.6022539 1.386965-6.172851 2.548449-1.5705972 1.161484-2.7603516 2.321495-2.7603516 2.321495-0.5427346 0.527262-0.8489897 1.251724-0.8490234 2.008407v0.408791c4.99e-4 0.9606 0.4933361 1.853903 1.3056641 2.366612l0.6863281 5.616431c-0.3038927 0.616325-0.3705573 1.322876-0.1873047 1.985165l0.047851 0.172266c0.2769495 0.996595 1.0807154 1.759362 2.0904297 1.983798l3.1497699 0.475204c0.4243015 0.09446 0.864768 0.08884 1.2865239-0.01641l2.80023-0.475203c1.246326-0.311876 1.820545-1.431849 1.820508-2.716611v-0.700003c-7.7e-4 -0.846315-0.0842-1.646894-0.743164-2.177939 0.274221-0.225687 0.512004-0.71263 0.743164-0.922039 0.248866-0.03653 0.5073 0.159351 0.7375 0.05797l3.095312-1.375397c0.231022 0.255733 0.507265 0.466623 0.814845 0.622073l1.4 0.700003c0.626845 0.313242 1.348352 0.380076 2.022069 0.187306l4.9-1.400007c1.905832-0.544976 2.657653-2.843206 1.442383-4.409199l-0.324023-0.418358c0.580099-0.529772 0.910985-1.278857 0.911914-2.064462v-1.400006c-1.43e-4 -0.742561-0.295211-1.454661-0.820313-1.979697l-1.399999-1.400006c-0.815095-0.8148711-2.046213-1.0470957-3.102149-0.5851595-0.341963-1.535061-0.677539-2.535061-1.219531-3.4726715-0.1395-0.3138181-0.335535-0.5992986-0.578321-0.8421912l-1.4-1.400006c-0.535041-0.5352699-1.263959-0.831178-2.020703-0.8203161z" style="opacity:.2"/>
 <path d="m19.458984 1.9998762c-0.614943 0.00921-1.209752 0.2206165-1.692577 0.6015652l-1.775977 1.4000059c-0.381643 0.3007103-0.678477 0.6955478-0.861329 1.1457082l-1.76914 4.3654493c-0.534982-0.2234949-1.080014-0.3710072-1.577735-0.3910175-2.8642996-0.1151575-4.6022539 1.3869647-6.172851 2.5484487-1.5705972 1.161484-2.7603516 2.321495-2.7603516 2.321495-0.5427346 0.527262-0.8489897 1.251724-0.8490234 2.008407v0.408791c4.99e-4 0.9606 0.4933361 1.853903 1.3056641 2.366612l0.6863281 5.616431c-0.3038927 0.616325-0.3705573 1.322876-0.1873047 1.985165l0.047851 0.172266c0.2769495 0.996595 1.0807154 1.759362 2.0904297 1.983798l3.1497699 0.475204c0.4243015 0.09446 0.864768 0.08884 1.2865239-0.01641l2.80023-0.475203c1.246326-0.311876 1.820545-1.431849 1.820508-2.716611v-0.700003c-7.7e-4 -0.846315-0.0842-1.646894-0.743164-2.177939 0.274221-0.225687 0.512004-0.71263 0.743164-0.922039 0.248866-0.03653 0.5073 0.159351 0.7375 0.05797l3.095312-1.375397c0.231022 0.255733 0.507265 0.466623 0.814845 0.622073l1.4 0.700003c0.626845 0.313242 1.348352 0.380076 2.022069 0.187306l4.9-1.400007c1.905832-0.544976 2.657653-2.843206 1.442383-4.409199l-0.324023-0.418358c0.580099-0.529772 0.910985-1.278857 0.911914-2.064462v-1.400006c-1.43e-4 -0.742561-0.295211-1.454661-0.820313-1.979697l-1.399999-1.4000058c-0.815095-0.8148708-2.046213-1.0470954-3.102149-0.5851592-0.341963-1.535061-0.677539-2.535061-1.219531-3.4726715-0.1395-0.3138181-0.335535-0.5992986-0.578321-0.8421912l-1.4-1.400006c-0.535041-0.5352699-1.263959-0.831178-2.020703-0.8203161z" style="fill:#fbcc19"/>
 <path d="m19.5 5.3007812-1.775391 1.3984376-2.787109 6.8710932-2.314453-0.816406c-0.263893-0.214239-0.587059-0.32122-0.953125-0.335937-2.5637339-0.103073-7.1601564 4.082031-7.1601564 4.082031l0.2910156 0.408203s0.9250508-0.408987 1.0722657 0.291016l1.1269531 7.724609c0 0.935872-0.5703125 0.916016-0.5703125 0.916016l0.1210937 0.460937 3.4492188 0.81836 3-0.619141v-1l-1.900391-0.599609c-0.7-0.700003-0.699218-1.295445-0.699218-2.09961 2.1-1.400006 3.111659-1.92541 3.839843-3.300781l0.359375 0.5 6.933594-3.082031 0.097656 0.28125c0.326431 0.700003-0.730468 1.40039-0.730468 1.40039v0.701172l1.099609 0.857422 5-1.658203-1.199219-1.703125c-0.069376 0.039973-0.13303 0.048976-0.195312 0.056641-0.018696 0.004712-0.047614 0.007137-0.06836 0.011718-0.52105-0.022219-0.77539-1.064453-0.77539-1.064453s-0.064787-0.251934 0.033203-0.332031l2.205078-0.96875v-1.5l-1.199219-1.400391-2.279297 0.998047-2.621093-5.8984372-1.400391-1.3984376z" style="opacity:.1"/>
 <path d="m19.5 4.7998883-4.2 8.4000377-3.629883-1.281061-5.470117 3.38107 1.4 9.800043-1.05 0.700003 3.45 0.819853 3-0.619834v-1l-1.9-0.600025c-0.7-0.700003-0.7-1.295844-0.7-2.100009 2.1-1.400006 3.111606-1.924595 3.83979-3.299966l0.36021 0.499954 7.041016-3.129506 1.358984-0.37051-2.1 2.800012 1.1 0.858247 5-1.658197-1.2-1.703381c-0.7 0.403322-1.037695-0.996684-1.037695-0.996684s-0.06518-0.250764 0.03281-0.330861l2.204885-0.969074v-1.500077l-1.2-1.400007-2.192968 1.189459-2.707032-6.0894805z" style="fill:#221714"/>
 <path d="m19.5 4.7998883-1.775976 1.4000062-4.826173 11.900052 8.002149-3.500015 0.731445 2.100009c0.326431 0.700003-0.731445 1.400006-0.731445 1.400006v0.700003l5.330664-1.803328-0.430664-0.700003s-1.020563 0.403322-1.4-0.296681l-1.267383-2.897083 2.667383-1.302935v-0.700004l-2.975 1.301569zm-1.4 3.5000158 2.1 5.6000249-4.9 2.100009zm-6.429883 3.6189609c-2.5637338-0.103073-7.1613279 4.081073-7.1613279 4.081073l0.2912109 0.408791s0.9260272-0.408791 1.0732421 0.291212l1.1267579 7.724786c0 0.935872-0.5697605 0.915351-0.5697605 0.915351l0.1197605 0.459903 3.45-0.799981-0.2760303-0.51532s-0.7239697 0.08386-0.9912986-0.48468l-0.4326711-3.48012s6.3-2.419933 4.9-7.319954c-0.253431-0.887015-0.812037-1.2522-1.529883-1.281061zm-1.640625 1.812899c0.424391 0.04298 0.806415 0.288927 1.070508 0.868168 1.595763 3.500015-3.1335934 5.360766-3.1335934 5.360766l-0.8654302-4.660763s1.6553417-1.697118 2.9285156-1.568171z" style="fill:#8b9cbe"/>
 <path d="m19.458984 2c-0.614943 0.00921-1.210534 0.2206138-1.693359 0.6015625l-1.775391 1.4003906c-0.381643 0.3007103-0.678476 0.6943709-0.861328 1.1445313l-1.769531 4.3652344c-0.534982-0.223495-1.080404-0.3706148-1.578125-0.390625-2.8642996-0.1151576-4.6012779 1.3873442-6.171875 2.5488282-1.5705972 1.161484-2.7597656 2.322266-2.7597656 2.322266-0.5427346 0.527262-0.8495757 1.251129-0.8496094 2.007812v0.408203c4.64e-5 0.089379 0.0247712 0.173758 0.0332031 0.261719 0.0758356-0.633728 0.3538419-1.228357 0.8164063-1.677734 0-1e-6 1.1891684-1.160782 2.7597656-2.322266 1.5705971-1.161484 3.3075754-2.663986 6.171875-2.548828 0.497721 0.02001 1.043143 0.16713 1.578125 0.390625l1.769531-4.3652346c0.182852-0.4501604 0.479685-0.843821 0.861328-1.1445313l1.775391-1.4003906c0.482825-0.3809487 1.078416-0.5923525 1.693359-0.6015625 0.756744-0.0108619 1.486444 0.2850426 2.021485 0.8203125l1.398437 1.4003906c0.242786 0.2428926 0.440578 0.5279788 0.580078 0.8417969 0.541992 0.9376105 0.876787 1.9375953 1.21875 3.4726562 1.055936-0.4619361 2.286468-0.2308866 3.101563 0.5839848l1.400391 1.40039c0.525102 0.525036 0.820169 1.237908 0.820312 1.980469v-1c-1.43e-4 -0.742561-0.29521-1.455433-0.820312-1.980469l-1.400391-1.3984372c-0.815095-0.8148708-2.045627-1.0478738-3.101563-0.5859376-0.341963-1.5350609-0.676758-2.5350457-1.21875-3.4726562-0.1395-0.3138181-0.337292-0.5989043-0.580078-0.8417969l-1.398437-1.4003906c-0.535041-0.5352699-1.264741-0.8311744-2.021485-0.8203125zm10.027344 14.507812c-0.115889 0.164596-0.247276 0.318985-0.398437 0.457032l0.324218 0.417968c0.283889 0.365819 0.449731 0.77345 0.529297 1.1875 0.120403-0.691992-0.01142-1.425894-0.455078-2.0625zm-14.814453 6.91211c-0.131205 0.188937-0.266377 0.380406-0.414063 0.501953 0.610946 0.492348 0.722019 1.218731 0.736329 1.996094 0.001104-0.039464 0.00586-0.077389 0.005859-0.117188v-0.701172c-5.58e-4 -0.613654-0.052756-1.199441-0.328125-1.679687zm-10.771484 1.21289c-0.1829824 0.477714-0.2317092 0.990709-0.140625 1.494141 0.0463062-0.252491 0.1171132-0.500517 0.2324219-0.734375l-0.0917969-0.759766z" style="fill:#8b9cbe;opacity:.2"/>
</svg>
