<svg xmlns="http://www.w3.org/2000/svg" width="32" height="32" version="1">
 <rect style="fill:#0a7cb4" width="28" height="28" x="2" y="2" rx="1.5" ry="1.5"/>
 <path fill="#fff" opacity=".1" d="m3.5 2c-0.831 0-1.5 0.669-1.5 1.5v1c0-0.831 0.669-1.5 1.5-1.5h25c0.831 0 1.5 0.669 1.5 1.5v-1c0-0.831-0.669-1.5-1.5-1.5h-25z"/>
 <path opacity=".2" d="m2 28.5v1c0 0.831 0.669 1.5 1.5 1.5h25c0.831 0 1.5-0.669 1.5-1.5v-1c0 0.831-0.669 1.5-1.5 1.5h-25c-0.831 0-1.5-0.669-1.5-1.5z"/>
 <path opacity=".2" d="m11.018 11c-1.2349-0.01404-2.7063 1.277-2.9727 4.9453-0.28385 3.9129 0.82843 4.2988 2.0352 4.2988 1.0052 0 1.8123-0.50315 2.6973-1.5371 0.13349-0.15652 0.28319-0.238 0.3418-0.17969 0.05891 0.05832 0.10268 0.10324 0.09766 0.09961-0.0047-0.0043-0.06976 0.15035-0.13281 0.34766-0.17374 0.54387-0.43915 1.5997-0.17188 2.3418 0.06986 0.19428 0.2159 0.16665 0.27539-0.03125 0.14177-0.47196 0.41496-1.2845 0.71094-1.6934 0.12046-0.16709 0.26012-0.07221 0.25391 0.13476-0.03789 1.2594 0.36815 3.5535 2.2207 5.0117 1.9375 1.5259 4.7621 1.4857 6.293 0.83398 0.18736-0.08037 0.4796-0.07563 0.67969-0.03906 0.12313 0.02235 0.27956 0.03626 0.47461 0.02539 0.5671-0.03263-0.38032-0.51405-0.44336-0.77148-0.06246-0.25804 0.44281-0.30826 0.54492-1.1289 0.10271-0.82185-0.54297-0.03125-0.54297-0.03125s-0.47467 0.55701-2.3672 0.43555c-1.7436-0.11089-3.8221-1.0094-3.752-4.1699 0.0051-0.20758 0.069-0.39259 0.13086-0.41797 0.06186-0.02478 0.23359 0.06799 0.33984 0.24414 0.26313 0.43449 0.49879 1.1389 0.62695 1.5664 0.05979 0.19761 0.20465 0.22718 0.27539 0.0332 0.23235-0.6457 0.06182-1.5296-0.10156-2.1055-0.05564-0.19912 0.0034-0.45004 0.13477-0.57422 0.13082-0.12418 0.33195-0.10377 0.46484 0.05273 0.89032 1.0439 1.701 1.5547 2.7109 1.5547 1.2064 0 2.319-0.38567 2.0352-4.2988-0.28444-3.9129-1.9419-5.1211-3.2188-4.9277-0.82342 0.12418-1.3932 0.5489-1.6934 0.83594-0.14858 0.14141-0.25 0.28702-0.25 0.30273-0.000296 0.01541-0.11793-0.08957-0.27539-0.2207-0.68816-0.57469-1.5527-0.91797-2.4922-0.91797-0.92702 0-1.7825 0.33404-2.4668 0.89453-0.15806 0.12962-0.2748 0.24028-0.27539 0.23242 0-0.0085-0.10201-0.14766-0.25-0.28906-0.30072-0.28674-0.86994-0.71341-1.6934-0.83789-0.07979-0.01222-0.16182-0.0186-0.24414-0.01953zm3.4824 3c0.27603 0 0.5 0.22397 0.5 0.5s-0.22397 0.5-0.5 0.5-0.5-0.22397-0.5-0.5 0.22397-0.5 0.5-0.5zm3 0c0.27603 0 0.5 0.22397 0.5 0.5s-0.22397 0.5-0.5 0.5-0.5-0.22397-0.5-0.5 0.22397-0.5 0.5-0.5z"/>
 <path style="fill:#8b9cbe" d="m11.018 10c-1.2353-0.014-2.7067 1.277-2.9731 4.945-0.2838 3.913 0.8285 4.299 2.0351 4.299 1.005 0 1.812-0.503 2.697-1.537 0.134-0.156 0.284-0.238 0.342-0.18 0.059 0.059 0.103 0.104 0.098 0.1s-0.07 0.15-0.133 0.348c-0.174 0.543-0.439 1.599-0.172 2.341 0.07 0.195 0.216 0.167 0.276-0.031 0.141-0.472 0.414-1.284 0.71-1.693 0.121-0.167 0.261-0.072 0.254 0.135-0.038 1.259 0.368 3.553 2.221 5.011 1.938 1.526 4.762 1.486 6.293 0.834 0.187-0.08 0.48-0.075 0.68-0.039 0.123 0.023 0.279 0.036 0.474 0.026 0.567-0.033-0.38-0.514-0.443-0.772s0.443-0.308 0.545-1.129c0.103-0.822-0.543-0.031-0.543-0.031s-0.475 0.557-2.367 0.435c-1.744-0.11-3.822-1.009-3.752-4.169 0.005-0.208 0.069-0.393 0.131-0.418 0.061-0.025 0.233 0.068 0.339 0.244 0.264 0.434 0.499 1.139 0.627 1.566 0.06 0.198 0.205 0.227 0.276 0.033 0.232-0.645 0.062-1.529-0.102-2.105-0.055-0.199 0.004-0.45 0.135-0.574 0.131-0.125 0.332-0.104 0.465 0.052 0.89 1.044 1.701 1.555 2.711 1.555 1.206 0 2.319-0.386 2.035-4.299s-1.942-5.1208-3.219-4.927c-0.823 0.124-1.393 0.548-1.693 0.835-0.149 0.142-0.25 0.287-0.25 0.303s-0.118-0.089-0.276-0.22c-0.688-0.575-1.552-0.918-2.492-0.918-0.927 0-1.782 0.334-2.467 0.894-0.158 0.13-0.274 0.24-0.275 0.232 0-0.008-0.102-0.147-0.25-0.289-0.301-0.286-0.87-0.713-1.693-0.837-0.08-0.013-0.162-0.019-0.244-0.02zm3.482 3c0.276 0 0.5 0.224 0.5 0.5s-0.224 0.5-0.5 0.5-0.5-0.224-0.5-0.5 0.224-0.5 0.5-0.5zm3 0c0.276 0 0.5 0.224 0.5 0.5s-0.224 0.5-0.5 0.5-0.5-0.224-0.5-0.5 0.224-0.5 0.5-0.5z"/>
</svg>
