<svg xmlns="http://www.w3.org/2000/svg" width="32" height="32" version="1">
 <rect style="opacity:0.2" width="28" height="28" x="2" y="3" rx="1.4" ry="1.4"/>
 <rect style="fill:#6946e7" width="28" height="28" x="2" y="2" rx="1.4" ry="1.4"/>
 <path style="opacity:0.2" d="m 22.625,8.6070211 c -0.09308,-0.013223 -0.183042,0.1362016 -0.332031,0.5 -0.09258,0.2260496 -0.239357,0.5335559 -0.328125,0.6855469 -0.545079,0.933305 -1.543498,1.796095 -2.728516,2.359375 -0.531585,0.252681 -1.534069,0.601816 -1.957031,0.679687 l -0.265625,0.04883 -0.337891,-0.226562 c -0.218432,-0.14624 -0.465055,-0.266998 -0.699219,-0.34375 -0.322072,-0.105567 -0.417275,-0.118432 -0.875,-0.117188 -0.453874,0.0015 -0.553274,0.01422 -0.84375,0.115235 -0.387496,0.134751 -0.838424,0.405894 -1.066406,0.640625 -0.08942,0.09207 -0.196949,0.167968 -0.238281,0.167969 -0.04134,0 -0.193958,-0.100551 -0.337891,-0.222657 -0.143936,-0.122102 -0.383653,-0.280189 -0.533203,-0.351562 -0.255725,-0.122045 -0.716705,-0.246453 -0.917969,-0.248047 -0.222947,-0.0018 -1.064573,-0.828576 -1.4785151,-1.451172 -0.1015196,-0.152692 -0.201769,-0.277344 -0.2226563,-0.277344 -0.020874,0 -0.040596,0.07964 -0.042969,0.175782 -0.00238,0.09614 -0.014702,0.61726 -0.029297,1.160156 l -0.027344,0.988281 -0.2167968,0.267578 c -0.1979117,0.2432 -0.3470821,0.524258 -0.4433594,0.789063 0.1393819,0.119429 0.2673523,0.252131 0.3925781,0.388672 0.1448447,-0.700483 0.7186065,-1.303151 1.4218749,-1.486329 0.872122,-0.227158 1.837035,0.199118 2.246094,0.990235 0.07487,0.144798 0.148423,0.263589 0.164062,0.263672 0.01564,8.3e-5 0.09118,-0.114485 0.166016,-0.25586 0.270187,-0.510362 0.859499,-0.966475 1.453125,-1.121094 0.132736,-0.03457 0.391448,-0.0625 0.574219,-0.0625 1.721704,0 2.835639,1.802916 2.066406,3.345704 -0.519973,1.042879 -1.738687,1.541397 -2.837891,1.160156 -0.576714,-0.200026 -1.064367,-0.64518 -1.333984,-1.214844 -0.08511,-0.179828 -0.168778,-0.327508 -0.183594,-0.328125 -0.0148,-6.9e-4 -0.07237,0.07737 -0.128906,0.173828 -0.233312,0.398115 -0.768582,0.779158 -1.257813,0.894531 -0.273963,0.06461 -0.814205,0.0338 -1.08789,-0.0625 -0.04911,-0.01729 -0.05836,-0.01393 -0.0957,-0.02344 0.03599,0.201042 0.06118,0.403866 0.06445,0.609375 0.0048,0.299927 -0.03545,0.586159 -0.109375,0.855469 -0.009,0.07395 -0.01747,0.151016 -0.03125,0.205078 -0.02877,0.112679 -0.08831,0.207779 -0.160156,0.294922 -0.2123624,0.412283 -0.5326474,0.746225 -0.9550785,0.951172 -0.084309,0.04091 -0.1745773,0.06613 -0.2636719,0.09375 l -0.00781,0.0059 0.390625,0.240234 c 1.5390549,0.955453 3.9674059,1.864519 5.6230469,2.050782 0.214896,0.02417 0.455985,0.05132 0.535156,0.06055 0.351966,0.04097 1.523213,-0.01663 1.990235,-0.09766 0.268901,-0.04666 0.71233,-0.160383 0.986328,-0.251953 0.531752,-0.177721 1.158203,-0.480731 1.158203,-0.560547 0,-0.02662 -0.20038,-0.167118 -0.44336,-0.314453 -0.242975,-0.147338 -0.711542,-0.44996 -1.041015,-0.671875 -0.774312,-0.521522 -0.747535,-0.506908 -0.876953,-0.457031 -0.423268,0.163125 -1.524283,0.206115 -2.302735,0.0918 -0.712738,-0.104667 -1.996599,-0.420419 -2.210937,-0.544922 -0.06836,-0.03971 -0.06224,-0.04597 0.04687,-0.04687 0.06786,-6.89e-4 0.229331,0.01778 0.359375,0.03906 0.130044,0.02128 0.541054,0.05841 0.912109,0.08594 1.42467,0.105721 2.720779,-0.136265 3.623047,-0.677735 0.309997,-0.186032 0.390625,-0.247996 0.390625,-0.30664 0,-0.02579 -0.112322,-0.157246 -0.248047,-0.292969 -0.390157,-0.39016 -0.322077,-0.406802 0.359375,-0.08008 0.292723,0.140352 0.499499,0.275058 0.679688,0.441406 0.240863,0.222362 0.303031,0.25548 0.916015,0.478516 0.361932,0.131691 0.867684,0.329186 1.125,0.439453 0.257315,0.110266 0.47479,0.201172 0.482422,0.201172 0.03468,0 0.359271,-0.516463 0.544922,-0.867188 0.564288,-1.066049 0.941044,-2.427302 1.144531,-4.130859 0.111082,-0.929957 0.100264,-3.574304 -0.01953,-4.769531 C 22.855487,9.0013633 22.822189,8.801293 22.761719,8.7203023 22.711242,8.6526963 22.667309,8.6130369 22.625,8.6070211 Z M 6.7011719,13.499599 c -0.8461594,0.0039 -1.4674619,0.53924 -1.6660157,1.458984 -0.1100523,0.5098 0.04415,1.358113 0.3574219,1.976563 0.313701,0.619289 0.8612007,1.2362 1.4121094,1.589844 0.5781323,0.371116 0.9833508,0.493712 1.5625,0.472656 0.3226285,-0.01174 0.4279341,-0.0358 0.6523437,-0.140625 C 9.6637414,18.556117 10.01415,17.918109 10,17.062099 9.9726911,15.409301 8.5136701,13.701361 6.9707031,13.515224 c -0.092146,-0.0111 -0.1819983,-0.01605 -0.2695312,-0.01563 z m 4.8359371,0.400391 0.09375,0.185547 c 0.258528,0.518216 -0.07766,1.085937 -0.640625,1.085937 -0.172579,0 -0.275173,-0.02976 -0.410156,-0.121094 -0.22213,-0.150323 -0.228516,-0.15036 -0.228516,-0.0039 0,0.306717 0.286151,0.711045 0.615235,0.867187 0.224809,0.106665 0.608596,0.115377 0.837891,0.01758 0.647306,-0.2761 0.855052,-1.127746 0.410156,-1.679688 C 12.069696,14.07147 11.785759,13.89999 11.632812,13.89999 Z m -4.8417965,0.09961 c 0.063716,9.49e-4 0.1235877,0.01286 0.1757813,0.03516 0.3010608,0.128452 0.5309404,0.455193 0.6074218,0.865235 0.07084,0.379751 -0.040128,0.798138 -0.2597656,0.974609 C 7.0961271,15.973119 6.866858,16.025901 6.7304688,15.98788 6.0826892,15.807252 5.7732279,14.798202 6.1875,14.218349 6.252266,14.127699 6.3713949,14.060048 6.5,14.02499 c 0.064311,-0.0175 0.1315961,-0.02634 0.1953125,-0.02539 z m 9.3417965,0.400391 c -0.01517,-3.3e-4 -0.02705,0.0014 -0.0332,0.0078 -0.01009,0.0103 0.01485,0.07936 0.05664,0.152344 0.284714,0.497157 -0.05937,1.132812 -0.613281,1.132812 -0.153389,0 -0.416878,-0.109623 -0.496094,-0.207031 -0.02915,-0.03585 -0.08019,-0.06641 -0.111328,-0.06641 -0.08459,0 -0.02768,0.288888 0.103515,0.529297 0.282298,0.517278 0.867235,0.69745 1.390625,0.425781 0.256342,-0.133057 0.441841,-0.368691 0.527344,-0.667969 0.104296,-0.365062 -0.0018,-0.741886 -0.291016,-1.027343 -0.126713,-0.125124 -0.427054,-0.276936 -0.533203,-0.279297 z m 2.091797,4.523437 c -0.0524,-0.0015 -0.08204,0.01312 -0.123047,0.03906 -0.140782,0.08904 -0.252719,0.226993 -0.253906,0.310547 -0.0015,0.100726 0.179784,0.246748 0.822266,0.666015 0.86143,0.562146 1.596828,0.978231 2.421875,1.373047 0.398368,0.19063 0.770149,0.37085 0.826172,0.398438 0.07625,0.03756 0.109767,0.09661 0.132812,0.234374 0.03767,0.225184 0.182873,0.369141 0.375,0.369141 0.07349,0 0.467107,0.120032 0.873047,0.267578 1.028442,0.373813 0.95757,0.339261 1.001953,0.5 0.06185,0.224008 0.232509,0.485109 0.433594,0.66211 0.133761,0.117742 0.362573,0.233993 0.814453,0.417968 0.344991,0.140457 0.913048,0.390481 1.263672,0.554688 0.350618,0.164209 0.651995,0.291695 0.667969,0.283203 0.01598,-0.0085 0.02077,-0.03689 0.01172,-0.06445 -0.0091,-0.02754 -0.120268,-0.419596 -0.248046,-0.871094 -0.35053,-1.238564 -0.522238,-1.626366 -0.88086,-2.009765 -0.330301,-0.353118 -0.733261,-0.47967 -1.265625,-0.394532 l -0.296875,0.04687 -0.728516,-0.466797 c -0.401914,-0.25738 -0.791595,-0.528043 -0.865234,-0.601562 -0.154341,-0.154088 -0.267624,-0.166253 -0.457031,-0.05078 -0.07406,0.04516 -0.161143,0.08203 -0.195313,0.08203 -0.03416,0 -0.211332,-0.08466 -0.392578,-0.1875 -0.703909,-0.399415 -2.061568,-0.965558 -3.298828,-1.375 -0.396895,-0.131342 -0.551332,-0.181095 -0.638672,-0.183594 z m 4.681641,1.882813 0.06641,0.09375 c 0.03627,0.0509 0.08935,0.0918 0.117188,0.0918 0.04596,0 1.310861,0.784232 1.392578,0.863281 0.01904,0.01842 -0.0035,0.104137 -0.05078,0.191406 -0.04726,0.08727 -0.113652,0.227672 -0.146485,0.3125 -0.03282,0.08483 -0.07368,0.153403 -0.0918,0.152344 -0.01812,-10e-4 -0.353525,-0.119856 -0.746094,-0.263672 -0.392571,-0.143816 -0.734984,-0.281859 -0.759765,-0.306641 -0.02479,-0.02479 -0.10987,-0.04492 -0.1875,-0.04492 h -0.140625 l 0.02344,-0.166015 c 0.02962,-0.220706 0.198362,-0.560705 0.378907,-0.761719 z"/>
 <path style="fill:#8b9cbe" d="M 22.625 7.6074219 C 22.53192 7.5941989 22.441958 7.7436235 22.292969 8.1074219 C 22.200389 8.3334715 22.053612 8.6409778 21.964844 8.7929688 C 21.419765 9.7262739 20.421346 10.589064 19.236328 11.152344 C 18.704743 11.405025 17.702259 11.75416 17.279297 11.832031 L 17.013672 11.880859 L 16.675781 11.654297 C 16.457349 11.508057 16.210726 11.387299 15.976562 11.310547 C 15.65449 11.20498 15.559287 11.192115 15.101562 11.193359 C 14.647688 11.194859 14.548288 11.207582 14.257812 11.308594 C 13.870316 11.443345 13.419388 11.714488 13.191406 11.949219 C 13.101986 12.041289 12.994457 12.117187 12.953125 12.117188 C 12.911785 12.117188 12.759167 12.016637 12.615234 11.894531 C 12.471298 11.772429 12.231581 11.614342 12.082031 11.542969 C 11.826306 11.420924 11.365326 11.296516 11.164062 11.294922 C 10.941115 11.293122 10.099489 10.466346 9.6855469 9.84375 C 9.5840273 9.6910582 9.4837779 9.5664062 9.4628906 9.5664062 C 9.4420166 9.5664062 9.4222949 9.6460467 9.4199219 9.7421875 C 9.4175419 9.8383275 9.40522 10.359448 9.390625 10.902344 L 9.3632812 11.890625 L 9.1464844 12.158203 C 8.9485727 12.401403 8.7994023 12.682461 8.703125 12.947266 C 8.8425069 13.066695 8.9704773 13.199397 9.0957031 13.335938 C 9.2405478 12.635455 9.8143096 12.032787 10.517578 11.849609 C 11.3897 11.622451 12.354613 12.048727 12.763672 12.839844 C 12.838542 12.984642 12.912095 13.103433 12.927734 13.103516 C 12.943374 13.103599 13.018911 12.989031 13.09375 12.847656 C 13.363937 12.337294 13.953249 11.881181 14.546875 11.726562 C 14.679611 11.691992 14.938323 11.664062 15.121094 11.664062 C 16.842798 11.664062 17.956733 13.466978 17.1875 15.009766 C 16.667527 16.052645 15.448813 16.551163 14.349609 16.169922 C 13.772895 15.969896 13.285242 15.524742 13.015625 14.955078 C 12.930515 14.77525 12.846847 14.62757 12.832031 14.626953 C 12.817231 14.626263 12.759658 14.704328 12.703125 14.800781 C 12.469813 15.198896 11.934543 15.579939 11.445312 15.695312 C 11.171349 15.759923 10.631107 15.729112 10.357422 15.632812 C 10.308312 15.615523 10.299059 15.618885 10.261719 15.609375 C 10.297709 15.810417 10.322902 16.013241 10.326172 16.21875 C 10.330972 16.518677 10.290722 16.804909 10.216797 17.074219 C 10.207797 17.148169 10.199327 17.225235 10.185547 17.279297 C 10.156777 17.391976 10.097242 17.487076 10.025391 17.574219 C 9.8130286 17.986502 9.4927436 18.320444 9.0703125 18.525391 C 8.9860035 18.566301 8.8957352 18.591521 8.8066406 18.619141 L 8.7988281 18.625 L 9.1894531 18.865234 C 10.728508 19.820687 13.156859 20.729753 14.8125 20.916016 C 15.027396 20.940186 15.268485 20.967332 15.347656 20.976562 C 15.699622 21.017533 16.870869 20.959936 17.337891 20.878906 C 17.606792 20.832246 18.050221 20.718523 18.324219 20.626953 C 18.855971 20.449232 19.482422 20.146222 19.482422 20.066406 C 19.482422 20.039786 19.282042 19.899288 19.039062 19.751953 C 18.796087 19.604615 18.32752 19.301993 17.998047 19.080078 C 17.223735 18.558556 17.250512 18.57317 17.121094 18.623047 C 16.697826 18.786172 15.596811 18.829162 14.818359 18.714844 C 14.105621 18.610177 12.82176 18.294425 12.607422 18.169922 C 12.539062 18.130212 12.545177 18.123947 12.654297 18.123047 C 12.722157 18.122358 12.883628 18.140829 13.013672 18.162109 C 13.143716 18.183389 13.554726 18.220517 13.925781 18.248047 C 15.350451 18.353768 16.64656 18.111782 17.548828 17.570312 C 17.858825 17.38428 17.939453 17.322316 17.939453 17.263672 C 17.939453 17.237882 17.827131 17.106426 17.691406 16.970703 C 17.301249 16.580543 17.369329 16.563901 18.050781 16.890625 C 18.343504 17.030977 18.55028 17.165683 18.730469 17.332031 C 18.971332 17.554393 19.0335 17.587511 19.646484 17.810547 C 20.008416 17.942238 20.514168 18.139733 20.771484 18.25 C 21.028799 18.360266 21.246274 18.451172 21.253906 18.451172 C 21.288586 18.451172 21.613177 17.934709 21.798828 17.583984 C 22.363116 16.517935 22.739872 15.156682 22.943359 13.453125 C 23.054441 12.523168 23.043623 9.8788205 22.923828 8.6835938 C 22.855487 8.0017641 22.822189 7.8016938 22.761719 7.7207031 C 22.711242 7.6530971 22.667309 7.6134377 22.625 7.6074219 z M 6.7011719 12.5 C 5.8550125 12.5039 5.23371 13.03924 5.0351562 13.958984 C 4.9251039 14.468784 5.0793059 15.317097 5.3925781 15.935547 C 5.7062791 16.554836 6.2537788 17.171747 6.8046875 17.525391 C 7.3828198 17.896507 7.7880383 18.019103 8.3671875 17.998047 C 8.689816 17.986307 8.7951216 17.962251 9.0195312 17.857422 C 9.6637414 17.556518 10.01415 16.91851 10 16.0625 C 9.9726911 14.409702 8.5136701 12.701762 6.9707031 12.515625 C 6.8785571 12.504525 6.7887048 12.49958 6.7011719 12.5 z M 11.537109 12.900391 L 11.630859 13.085938 C 11.889387 13.604154 11.553198 14.171875 10.990234 14.171875 C 10.817655 14.171875 10.715061 14.14211 10.580078 14.050781 C 10.357948 13.900458 10.351562 13.900421 10.351562 14.046875 C 10.351562 14.353592 10.637713 14.75792 10.966797 14.914062 C 11.191606 15.020727 11.575393 15.029439 11.804688 14.931641 C 12.451994 14.655541 12.65974 13.803895 12.214844 13.251953 C 12.069696 13.071871 11.785759 12.900391 11.632812 12.900391 L 11.537109 12.900391 z M 6.6953125 13 C 6.7590289 13.000949 6.8189002 13.012856 6.8710938 13.035156 C 7.1721546 13.163608 7.4020342 13.490349 7.4785156 13.900391 C 7.5493556 14.280142 7.4383875 14.698529 7.21875 14.875 C 7.0961271 14.97352 6.866858 15.026302 6.7304688 14.988281 C 6.0826892 14.807653 5.7732279 13.798603 6.1875 13.21875 C 6.252266 13.1281 6.3713949 13.060449 6.5 13.025391 C 6.5643115 13.007896 6.6315961 12.999051 6.6953125 13 z M 16.037109 13.400391 C 16.021939 13.400061 16.010056 13.401803 16.003906 13.408203 C 15.993816 13.418503 16.018757 13.487559 16.060547 13.560547 C 16.345261 14.057704 16.001173 14.693359 15.447266 14.693359 C 15.293877 14.693359 15.030388 14.583736 14.951172 14.486328 C 14.922022 14.450478 14.870987 14.419922 14.839844 14.419922 C 14.755254 14.419922 14.812163 14.70881 14.943359 14.949219 C 15.225657 15.466497 15.810594 15.646669 16.333984 15.375 C 16.590326 15.241943 16.775825 15.006309 16.861328 14.707031 C 16.965624 14.341969 16.859523 13.965145 16.570312 13.679688 C 16.443599 13.554564 16.143258 13.402752 16.037109 13.400391 z M 18.128906 17.923828 C 18.076506 17.922328 18.046866 17.936951 18.005859 17.962891 C 17.865077 18.051931 17.75314 18.189884 17.751953 18.273438 C 17.750453 18.374164 17.931737 18.520186 18.574219 18.939453 C 19.435649 19.501599 20.171047 19.917684 20.996094 20.3125 C 21.394462 20.50313 21.766243 20.68335 21.822266 20.710938 C 21.898516 20.748497 21.932033 20.807547 21.955078 20.945312 C 21.992748 21.170496 22.137951 21.314453 22.330078 21.314453 C 22.403568 21.314453 22.797185 21.434485 23.203125 21.582031 C 24.231567 21.955844 24.160695 21.921292 24.205078 22.082031 C 24.266928 22.306039 24.437587 22.56714 24.638672 22.744141 C 24.772433 22.861883 25.001245 22.978134 25.453125 23.162109 C 25.798116 23.302566 26.366173 23.55259 26.716797 23.716797 C 27.067415 23.881006 27.368792 24.008492 27.384766 24 C 27.400746 23.9915 27.405534 23.963107 27.396484 23.935547 C 27.387384 23.908007 27.276216 23.515951 27.148438 23.064453 C 26.797908 21.825889 26.6262 21.438087 26.267578 21.054688 C 25.937277 20.70157 25.534317 20.575018 25.001953 20.660156 L 24.705078 20.707031 L 23.976562 20.240234 C 23.574648 19.982854 23.184967 19.712191 23.111328 19.638672 C 22.956987 19.484584 22.843704 19.472419 22.654297 19.587891 C 22.580237 19.633051 22.493154 19.669922 22.458984 19.669922 C 22.424824 19.669922 22.247652 19.585262 22.066406 19.482422 C 21.362497 19.083007 20.004838 18.516864 18.767578 18.107422 C 18.370683 17.97608 18.216246 17.926327 18.128906 17.923828 z M 22.810547 19.806641 L 22.876953 19.900391 C 22.913223 19.951291 22.966303 19.992187 22.994141 19.992188 C 23.040101 19.992188 24.305002 20.77642 24.386719 20.855469 C 24.405759 20.873889 24.383218 20.959606 24.335938 21.046875 C 24.288677 21.134145 24.222286 21.274547 24.189453 21.359375 C 24.156633 21.444205 24.115776 21.512778 24.097656 21.511719 C 24.079536 21.510719 23.744131 21.391863 23.351562 21.248047 C 22.958991 21.104231 22.616578 20.966188 22.591797 20.941406 C 22.567007 20.916616 22.481927 20.896484 22.404297 20.896484 L 22.263672 20.896484 L 22.287109 20.730469 C 22.316729 20.509763 22.485471 20.169764 22.666016 19.96875 L 22.810547 19.806641 z"/>
 <path style="fill:#8b9cbe;opacity:0.1" d="M 3.4003906 2 C 2.6247906 2 2 2.6247906 2 3.4003906 L 2 4.4003906 C 2 3.6247906 2.6247906 3 3.4003906 3 L 28.599609 3 C 29.375209 3 30 3.6247906 30 4.4003906 L 30 3.4003906 C 30 2.6247906 29.375209 2 28.599609 2 L 3.4003906 2 z"/>
</svg>
