<svg xmlns="http://www.w3.org/2000/svg" width="32" height="32" version="1.1">
 <path style="opacity:0.2" d="M 31,6.4375 C 31,5.641125 30.3533,5 29.55,5 H 3.45 C 2.6467,5 2,5.641125 2,6.4375 v 20.125 C 2,27.358875 2.6467,28 3.45,28 H 23 l 8,-8 z"/>
 <path style="fill:#b2bfd9" d="M 31,5.4375 C 31,4.641125 30.3533,4 29.55,4 H 3.45 C 2.6467,4 2,4.641125 2,5.4375 v 20.125 C 2,26.358875 2.6467,27 3.45,27 H 23 l 8,-8 z"/>
 <path style="fill:#5a9bfd" d="M 5,7 H 28 V 17 H 5 Z"/>
 <path style="fill:#2357b4" d="m 5,17 h 23 v 3.475 L 24.475,24 H 5 Z"/>
 <path style="opacity:0.2" d="m 17.092418,18.098894 c -0.07114,0.135311 -0.229211,0.467342 0.161727,0.401106 1.183111,0.0086 2.366335,-0.0011 3.549503,0 0.565324,0.166815 1.375161,0.713422 1.518764,1.064674 0.540532,0.880201 0.700197,1.717411 0.709121,2.568938 0,0 -1.525621,-2.086057 -2.173648,-3.133612 h -3.471549 c 0,0 4.2498,2.019653 5.612854,3.25378 -0.140574,0.260672 0.321369,-0.05196 0.465425,-0.115217 0.849425,-0.460982 1.670262,-0.97979 2.114654,-1.624137 C 26.097661,19.790864 24.011598,18.956034 22.847868,18.59845 22.714041,18.53003 22.238577,18.523882 22.318249,18.5 h 1.822475 c -0.276638,-0.114212 -0.563228,-0.378153 -0.85553,-0.473396 -1.027313,-0.0363 -2.058808,-0.01191 -3.087763,-0.01965 h -3.060206 l -0.04481,0.09194 z"/>
 <path style="fill:#3d3d3d" d="m 17.089233,17.850515 c -0.06869,-0.217742 -0.221307,-0.457102 0.15615,-0.350515 1.142315,-0.01384 2.284738,0.0016 3.427107,0 0.545831,-0.268438 0.82616,-0.923044 0.964811,-1.488277 0.236043,-0.740117 0.157513,-1.531324 0.102533,-2.292663 -0.08916,-0.792632 -0.220904,-1.581402 -0.386593,-2.361195 -0.0797,0.160517 -0.06532,0.575449 -0.110992,0.830074 C 21.069581,13.83253 20.89412,14.855054 20.724857,16.5 h -3.351841 c 1.317799,-1.984787 2.632945,-3.349557 3.948997,-5.335508 -0.135725,-0.419474 0.310288,0.08361 0.449376,0.185406 0.820135,0.74181 1.612667,1.576674 2.041735,2.613555 0.500517,1.164351 -0.0433,2.507754 -1.166904,3.083179 -0.129212,0.110101 -0.588281,0.414936 -0.511356,0.453368 h 1.759631 c -0.267098,0.183789 -0.543806,0.313579 -0.826029,0.466842 -0.991888,0.05841 -1.987815,0.01918 -2.981289,0.03162 h -2.954682 l -0.04326,-0.147952 z"/>
 <circle style="opacity:0.2" cx="9" cy="12" r="3"/>
 <circle style="fill:#ffee58" cx="9" cy="11" r="3"/>
 <path style="fill:#cccccc" d="m 23,27 8,-8 H 24.333333 C 23.594667,19 23,19.594667 23,20.333333 Z"/>
 <rect style="opacity:0.2" width="23" height="1" x="5" y="7"/>
 <path style="fill:#8b9cbe;opacity:0.2" d="M 3.4492188 4 C 2.6459187 4 2 4.641125 2 5.4375 L 2 6.4375 C 2 5.641125 2.6459187 5 3.4492188 5 L 29.550781 5 C 30.354081 5 31 5.641125 31 6.4375 L 31 5.4375 C 31 4.641125 30.354081 4 29.550781 4 L 3.4492188 4 z"/>
 <path style="fill:#8b9cbe;opacity:0.2" d="M 24.333984 19 C 23.595318 19 23 19.595318 23 20.333984 L 23 21.333984 C 23 20.595318 23.595318 20 24.333984 20 L 30 20 L 31 19 L 24.333984 19 z"/>
 <path style="fill:#8b9cbe;opacity:0.2" d="M 9 8 A 3 3 0 0 0 6 11 A 3 3 0 0 0 6.0429688 11.513672 A 3 3 0 0 1 9 9 A 3 3 0 0 1 11.957031 11.486328 A 3 3 0 0 0 12 11 A 3 3 0 0 0 9 8 z"/>
</svg>
