<svg xmlns="http://www.w3.org/2000/svg" width="32" height="32" version="1">
 <rect style="opacity:0.2" width="28" height="28" x="2" y="3" rx="1.4" ry="1.4"/>
 <rect style="fill:#4f4f4f" width="28" height="28" x="2" y="2" rx="1.4" ry="1.4"/>
 <path style="opacity:0.2" d="m 28,5 h -3 v 3 h 3 z m 0,21 h -3 v 3 h 3 z M 21,5 h -3 v 3 h 3 z m 0,21 h -3 v 3 h 3 z M 14,5 h -3 v 3 h 3 z m 0,21 h -3 v 3 h 3 z M 7,5 H 4 V 8 H 7 Z M 7,26 H 4 v 3 h 3 z"/>
 <path style="fill:#8b9cbe" d="m 28,4 h -3 v 3 h 3 z m 0,21 h -3 v 3 h 3 z M 21,4 h -3 v 3 h 3 z m 0,21 h -3 v 3 h 3 z M 14,4 h -3 v 3 h 3 z m 0,21 h -3 v 3 h 3 z M 7,4 H 4 V 7 H 7 Z M 7,25 H 4 v 3 h 3 z"/>
 <path style="fill:#8b9cbe;opacity:0.1" d="M 3.4003906 2 C 2.6247906 2 2 2.6247906 2 3.4003906 L 2 4.4003906 C 2 3.6247906 2.6247906 3 3.4003906 3 L 28.599609 3 C 29.375209 3 30 3.6247906 30 4.4003906 L 30 3.4003906 C 30 2.6247906 29.375209 2 28.599609 2 L 3.4003906 2 z"/>
 <g style="opacity:0.2" transform="translate(3.3695922e-6,-3.0004494)">
  <path d="M 15,21 C 13.816,22.913 11.194,23.568 9.1441,22.463 7.0938,21.359 6.3913,18.913 7.575,17 Z"/>
  <path d="m 17,21 c 1.1838,1.913 3.8055,2.5684 5.8559,1.4639 2.05,-1.105 2.753,-3.551 1.569,-5.464 z"/>
 </g>
 <path style="fill:#beff4c" d="m 15.000003,17 c -1.184,1.913 -3.806,2.568 -5.8558996,1.463 -2.0503,-1.104 -2.7528,-3.55 -1.5691,-5.463 z"/>
 <path style="fill:#2c2c2c" d="m 10.895003,14.789001 c -0.17,1.176 0.175,2.587 1.07,4.143 0.002,-0.001 0.005,-0.002 0.008,-0.002 -0.48,-1.113 -0.41,-2.375 0.027,-3.545 z"/>
 <path style="fill:#beff4c" d="m 17.000003,17.000001 c 1.1838,1.913 3.8055,2.5684 5.8559,1.4639 2.05,-1.105 2.753,-3.551 1.569,-5.464 z"/>
 <path style="fill:#2c2c2c" d="m 21.105003,14.789001 -1.105,0.596 c 0.437,1.17 0.507,2.432 0.027,3.545 0.003,0 0.006,10e-4 0.008,0.002 0.895,-1.556 1.24,-2.967 1.07,-4.143 z"/>
</svg>
