<svg xmlns="http://www.w3.org/2000/svg" width="32" height="32" version="1">
 <path style="opacity:0.2" d="m 4.0015592,9.0000006 c 0.00617,5.1150044 -0.01237,10.2303874 0.00933,15.3451534 0.1003528,3.294344 2.9045728,6.242606 6.2701448,6.591853 2.169706,0.117051 4.34827,0.02856 6.521797,0.05611 1.698692,-0.03166 3.404889,0.07554 5.097165,-0.08048 3.356823,-0.432281 6.083797,-3.450666 6.097286,-6.74781 0.0054,-5.054914 8e-4,-10.109893 0.0023,-15.1648322 -7.999355,0 -15.998711,0 -23.9980655,0 z"/>
 <path style="opacity:0.2" d="m 16,2.9999949 a 7,7 0 0 0 -7,7 7,7 0 0 0 7,7.0000001 7,7 0 0 0 7,-7.0000001 7,7 0 0 0 -7,-7 z m 0,2.8 a 4.2,4.2 0 0 1 4.2,4.2 4.2,4.2 0 0 1 -4.2,4.2000001 4.2,4.2 0 0 1 -4.2,-4.2000001 4.2,4.2 0 0 1 4.2,-4.2 z"/>
 <path style="fill:#ec770b" d="m 16,2 a 7,7 0 0 0 -7,7 7,7 0 0 0 7,7 7,7 0 0 0 7,-7 7,7 0 0 0 -7,-7 z m 0,2.8 A 4.2,4.2 0 0 1 20.2,9 4.2,4.2 0 0 1 16,13.2 4.2,4.2 0 0 1 11.8,9 4.2,4.2 0 0 1 16,4.8 Z"/>
 <path style="opacity:0.2;fill:#8b9cbe" d="M 16 2 A 7 7 0 0 0 9 9 A 7 7 0 0 0 9.0234375 9.4589844 A 7 7 0 0 1 16 3 A 7 7 0 0 1 22.976562 9.5410156 A 7 7 0 0 0 23 9 A 7 7 0 0 0 16 2 z M 11.833984 9.4882812 A 4.2 4.2 0 0 0 11.800781 10 A 4.2 4.2 0 0 0 16 14.199219 A 4.2 4.2 0 0 0 20.199219 10 A 4.2 4.2 0 0 0 20.166016 9.5117188 A 4.2 4.2 0 0 1 16 13.199219 A 4.2 4.2 0 0 1 11.833984 9.4882812 z"/>
 <path style="fill:#ffa123" d="m 4.0015592,8.0000057 c 0.00617,5.1150043 -0.01237,10.2303873 0.00933,15.3451533 0.1003528,3.294344 2.9045728,6.242606 6.2701448,6.591853 2.169706,0.117051 4.34827,0.02856 6.521797,0.05611 1.698692,-0.03166 3.404889,0.07554 5.097165,-0.08048 3.356823,-0.432281 6.083797,-3.450666 6.097286,-6.74781 0.0054,-5.054914 8e-4,-10.109893 0.0023,-15.1648321 -7.999355,0 -15.998711,0 -23.9980655,0 z"/>
 <path style="opacity:0.2" d="m 15.824411,13.00152 c -0.273539,0.0076 -0.551727,0.04471 -0.829954,0.11186 -0.901576,0.213483 -1.818136,0.461054 -2.631746,0.679147 -0.742155,0.161552 -1.474334,1.017889 -1.348521,1.717845 l 2.457219,11.528196 c 0.151754,0.71222 0.914097,1.116454 1.710132,0.905529 0.796036,-0.210924 1.315702,-0.953689 1.163945,-1.665909 l -0.90529,-4.244006 c 0.421762,-0.121602 0.892654,-0.235635 1.295783,-0.316936 2.251884,-0.596277 3.667149,-3.003061 3.161612,-5.374586 -0.437277,-2.041307 -2.158412,-3.394529 -4.07318,-3.34114 z m -0.02511,2.727243 a 1.5858379,1.8330734 73.65209 0 1 1.594617,1.1692 1.5858379,1.8330734 73.65209 0 1 -1.42511,1.984175 1.5858379,1.8330734 73.65209 0 1 -0.03014,0.0054 l -1.013279,0.24899 -0.710671,-3.092118 1.043407,-0.255679 a 1.5858379,1.8330734 73.65209 0 1 0.541165,-0.05992 z"/>
 <path style="fill:#8b9cbe" d="m 15.824411,12.001525 c -0.273539,0.0076 -0.551727,0.04471 -0.829954,0.11186 -0.901576,0.213483 -1.818136,0.461054 -2.631746,0.679147 -0.742155,0.161552 -1.474334,1.017889 -1.348521,1.717845 l 2.457219,11.528196 c 0.151754,0.71222 0.914097,1.116454 1.710132,0.905529 0.796036,-0.210924 1.315702,-0.953689 1.163945,-1.665909 l -0.90529,-4.244006 c 0.421762,-0.121602 0.892654,-0.235635 1.295783,-0.316936 2.251884,-0.596277 3.667149,-3.003061 3.161612,-5.374586 -0.437277,-2.041307 -2.158412,-3.394529 -4.07318,-3.34114 z m -0.02511,2.727243 a 1.5858379,1.8330734 73.65209 0 1 1.594617,1.1692 1.5858379,1.8330734 73.65209 0 1 -1.42511,1.984175 1.5858379,1.8330734 73.65209 0 1 -0.03014,0.0054 l -1.013279,0.24899 -0.710671,-3.092118 1.043407,-0.255679 a 1.5858379,1.8330734 73.65209 0 1 0.541165,-0.05992 z"/>
 <rect style="opacity:0.2;fill:#8b9cbe" width="24" height="1" x="4" y="8"/>
</svg>
