<svg xmlns="http://www.w3.org/2000/svg" id="circle_pieces" width="32" height="32" x="0" y="0" version="1.1" xml:space="preserve">
 <circle style="opacity:0.2" cx="16" cy="17" r="14"/>
 <path style="fill:#3e5ba9" d="M 16,2 A 14,14 0 0 0 11.264062,2.8394532 C 19.276766,8.0503793 23.503768,15.935281 26.910157,24.752734 A 14,14 0 0 0 30,16 14,14 0 0 0 16,2 Z"/>
 <path style="fill:#d82b2f" d="M 6.9980469 5.296875 A 14 14 0 0 0 2 16 A 14 14 0 0 0 5.4570312 25.195312 L 5.8730469 24.583984 L 9.90625 24.960938 C 9.7577008 26.312822 9.5608658 27.396958 9.3320312 28.294922 A 14 14 0 0 0 16 30 A 14 14 0 0 0 22.886719 28.169922 C 21.678104 19.911041 15.771857 10.08208 6.9980469 5.296875 z"/>
 <path style="opacity:0.2" d="M 11.425391,3.7861008 A 14,14 0 0 0 6.8166013,6.456218 C 9.3669092,7.6971353 11.842079,9.6118033 13.994336,11.930436 10.957488,14.98178 7.3486279,20.496117 5.4371093,26.161492 A 14,14 0 0 0 9.3841796,29.332 c 1.1115654,-5.247662 4.1788994,-10.981758 7.1900384,-14.226954 2.81336,3.947215 5.044036,8.849522 6.202931,14.127148 A 14,14 0 0 0 27.027734,25.59821 C 24.400118,16.631798 17.053499,6.8372858 11.425391,3.7861008 Z"/>
 <path style="fill:#8b9cbe" d="M 11.425391,2.7861328 A 14,14 0 0 0 6.8166013,5.45625 c 2.5503079,1.2409173 5.0254777,3.1555853 7.1777347,5.474218 -3.036848,3.051344 -6.6457081,8.565681 -8.5572267,14.231056 a 14,14 0 0 0 3.9470703,3.170508 C 10.495745,23.08437 13.563079,17.350274 16.574218,14.105078 c 2.81336,3.947215 5.044036,8.849522 6.202931,14.127148 a 14,14 0 0 0 4.250585,-3.633984 C 24.400118,15.63183 17.053499,5.8373178 11.425391,2.7861328 Z"/>
 <path style="opacity:0.1;fill:#8b9cbe" d="M 16 2 A 14 14 0 0 0 2 16 A 14 14 0 0 0 2.0214844 16.585938 A 14 14 0 0 1 16 3 A 14 14 0 0 1 29.978516 16.414062 A 14 14 0 0 0 30 16 A 14 14 0 0 0 16 2 z"/>
</svg>
