<svg xmlns="http://www.w3.org/2000/svg" width="32" height="32" version="1">
 <rect style="opacity:0.2" width="28" height="28" x="2" y="3" rx="1.4" ry="1.4"/>
 <rect style="fill:#17191e" width="28" height="28" x="2" y="2" rx="1.4" ry="1.4"/>
 <path style="opacity:0.2" d="M 6.4003906,7.0004591 C 5.6247906,7.0004591 5,7.636765 5,8.4281935 v 6.1445315 c 0,0.791428 0.6247906,1.427734 1.4003906,1.427734 H 21.599609 C 22.37521,16.000459 23,15.364153 23,14.572725 v -2.894532 c 0.67204,0.0834 1.664306,0.187179 2.537109,0.601563 0.97006,0.460559 1.722935,1.204163 1.646485,2.833984 -0.07661,1.633286 -0.955325,2.889663 -2.242188,3.601563 -1.286862,0.711899 -2.984218,0.864086 -4.671875,0.210937 -0.618425,-0.23934 -1.256115,-0.171137 -1.824219,0.04297 -0.568101,0.214105 -1.081081,0.569626 -1.521484,0.945312 -0.823366,0.702376 -1.35589,1.433322 -1.427734,1.533204 l -0.560547,-0.277344 c -1.160614,-0.574556 -3.031978,0.352373 -4.195313,2.080078 -1.1633333,1.727706 -0.9312361,3.697822 0.519532,4.416016 l 0.148437,0.07227 c 1.450768,0.718194 3.555416,-0.09456 4.71875,-1.822265 1.161146,-1.724456 1.163851,-3.57212 0.0098,-4.150391 0.143633,-0.192819 0.567038,-0.744087 1.240234,-1.318359 0.40069,-0.341811 0.858511,-0.652385 1.314453,-0.824219 0.455942,-0.171834 0.895997,-0.209452 1.326172,-0.04297 1.869371,0.723475 3.783813,0.565632 5.261719,-0.251953 1.477905,-0.817585 2.515772,-2.311052 2.603515,-4.181641 0.08791,-1.874051 -0.913363,-2.961837 -2.046874,-3.5 C 24.773436,11.142496 23.627162,11.048237 23,10.971162 V 8.4281935 C 23,7.636765 22.37521,7.0004591 21.599609,7.0004591 Z M 6,8.0004591 H 22 V 15.000459 H 6 Z m 1,1 V 11.000459 H 9 V 9.0004591 Z m 3,0 v 1.9999999 h 2 V 9.0004591 Z m 3,0 v 1.9999999 h 2 V 9.0004591 Z m 3,0 v 1.9999999 h 2 V 9.0004591 Z m 3,0 v 1.9999999 h 2 V 9.0004591 Z M 7,12.000459 v 2 h 2 v -2 z m 3,0 v 2 h 2 v -2 z m 3,0 v 2 h 2 v -2 z m 3,0 v 2 h 2 v -2 z m 3,0 v 2 h 2 v -2 z m -4.285156,10.294922 c 0.07393,0.0054 0.147519,0.02331 0.214844,0.05664 l 0.0098,0.0059 c 0.2693,0.133315 0.346936,0.447989 0.173828,0.705078 l -0.457031,0.677734 c -0.173111,0.257091 -0.529529,0.357925 -0.798828,0.22461 l -0.0098,-0.0059 c -0.269337,-0.133315 -0.346937,-0.447988 -0.173828,-0.705078 l 0.457031,-0.677734 c 0.129833,-0.192818 0.362202,-0.297469 0.583985,-0.28125 z"/>
 <path style="fill:#3ffe3f" d="M 6.4003906,6 C 5.6247906,6 5,6.6363059 5,7.4277344 V 13.572266 C 5,14.363694 5.6247906,15 6.4003906,15 H 21.599609 C 22.37521,15 23,14.363694 23,13.572266 V 7.4277344 C 23,6.6363059 22.37521,6 21.599609,6 Z M 6,7 h 16 v 7 H 6 Z m 1,1 v 2 H 9 V 8 Z m 3,0 v 2 h 2 V 8 Z m 3,0 v 2 h 2 V 8 Z m 3,0 v 2 h 2 V 8 Z m 3,0 v 2 h 2 V 8 Z M 7,11 v 2 h 2 v -2 z m 3,0 v 2 h 2 v -2 z m 3,0 v 2 h 2 v -2 z m 3,0 v 2 h 2 v -2 z m 3,0 v 2 h 2 v -2 z"/>
 <path style="fill:#3ffe3f" d="m 14.936155,20.170104 c -1.160614,-0.574556 -3.031956,0.352926 -4.195291,2.080631 -1.1633337,1.727706 -0.9316077,3.6963 0.51916,4.414494 l 0.148324,0.07343 c 1.450768,0.718194 3.554932,-0.09403 4.718266,-1.821737 1.163334,-1.727706 1.164431,-3.581042 0.0038,-4.155597 z m -0.0067,1.182244 0.01023,0.005 c 0.2693,0.133315 0.346728,0.44722 0.17362,0.704309 l -0.45697,0.678662 c -0.173111,0.257091 -0.52961,0.357642 -0.798909,0.224327 l -0.01023,-0.005 c -0.269337,-0.133315 -0.346029,-0.448315 -0.17292,-0.705405 l 0.45697,-0.678661 c 0.17311,-0.257091 0.528871,-0.356547 0.79817,-0.223232 z"/>
 <path style="fill:none;stroke:#3ffe3f;stroke-width:0.69999999px" d="m 15.73,20.717 c 0,0 2.315772,-3.275813 4.412972,-2.464164 3.557028,1.376624 7.225872,-0.61872 7.390228,-4.122595 0.164356,-3.503873 -3.507735,-3.6643 -4.7422,-3.834458"/>
 <path style="fill:#8b9cbe;opacity:0.1" d="M 3.4003906 2 C 2.6247906 2 2 2.6247906 2 3.4003906 L 2 4.4003906 C 2 3.6247906 2.6247906 3 3.4003906 3 L 28.599609 3 C 29.375209 3 30 3.6247906 30 4.4003906 L 30 3.4003906 C 30 2.6247906 29.375209 2 28.599609 2 L 3.4003906 2 z"/>
</svg>
