<svg xmlns="http://www.w3.org/2000/svg" width="32" height="32" version="1.1">
 <circle style="opacity:0.2" cx="16" cy="17" r="14"/>
 <circle style="fill:#48b9c7" cx="16" cy="16" r="14"/>
 <path style="opacity:0.2" d="M 13.109375,6.0019531 C 11.843862,6.0319298 10.40178,6.7208647 9.6660156,7.2304688 8.9302535,7.7400721 7.4298218,8.76077 7.4003906,9.75 c 0,0.659487 0.3520461,1.197935 0.6757813,1.857422 0.323736,0.659487 4.6796661,9.532504 5.9746091,10.941406 0.676902,0.71944 1.620158,0.509096 1.826172,-0.15039 0.206013,-0.659488 -0.03005,-1.378897 -0.294922,-2.06836 l -1.412109,-3.746094 c 1.648108,-0.599535 2.824919,-1.828611 3.53125,-3.357422 v -0.06055 c 0.353167,-0.749417 0.440789,-1.797535 0.146484,-3.146485 -0.294305,-1.3489498 -1.088672,-2.5181605 -2.207031,-3.2675779 -0.735763,-0.4796264 -1.265738,-0.779977 -2.53125,-0.75 z m -1.054687,2.734375 c 0.07001,0.00765 0.145856,0.024631 0.230468,0.052734 0.206014,0.059953 0.382144,0.2101721 0.529297,0.3300781 0.735762,0.5995333 1.295673,1.4984574 1.560547,2.4277344 a 3.7671066,3.8370127 0 0 1 0.05859,1.439453 c 0,0.239813 -0.02863,0.420343 -0.175782,0.660156 -0.147153,0.239814 -0.501151,0.418642 -0.677734,0.388672 -0.176585,-0.02998 -0.323551,-0.148944 -0.470703,-0.298828 -0.618041,-0.62951 -1.176799,-1.888748 -1.382813,-2.488281 -0.193137,-0.562062 -0.721953,-2.6264373 0.328126,-2.5117189 z M 21.835938,11 c -0.413289,0.0069 -0.885287,0.117593 -1.074219,0.292969 -0.251909,0.233833 -0.475286,0.701383 -0.615235,1.636719 -0.475827,3.419817 -0.644443,6.225083 -0.140625,6.429687 0.419849,0.175375 0.728781,-0.117824 2.240235,-2.923828 l 0.783203,-1.548828 c 0.307889,-0.672272 0.700541,-1.606485 0.8125,-2.044922 0.111961,-0.438439 0.08393,-0.789807 -0.251953,-1.111328 A 2.5190903,2.6306283 0 0 0 22.216797,11.029297 C 22.104837,11.007375 21.9737,10.997716 21.835938,11 Z m -1.667969,10 c -0.09496,-0.0016 -0.198229,0.01253 -0.308594,0.04297 -0.426238,0.108236 -0.728983,0.458494 -0.820313,0.783203 -0.09134,0.324708 -0.03217,0.731078 0.302735,0.974609 0.334902,0.243531 0.914638,0.242716 1.158203,0.107422 0.243565,-0.135296 0.396131,-0.350219 0.457031,-0.59375 C 21.11687,21.746213 20.832718,21.011468 20.167969,21 Z M 10.128906,24 C 9.5034224,24 9,24.446 9,25 c 0,0.554 0.5034224,1 1.128906,1 H 21.871094 C 22.496578,26 23,25.554 23,25 23,24.446 22.496578,24 21.871094,24 Z"/>
 <g>
  <rect style="fill:#8b9cbe" width="14" height="2" x="9" y="23" rx="1.129" ry="1"/>
  <path style="fill:#8b9cbe" d="m 17.700681,12.226434 c -0.706331,1.52881 -1.883553,2.757852 -3.531661,3.357387 l 1.412664,3.747082 c 0.264875,0.689463 0.500319,1.408902 0.294306,2.06839 -0.206014,0.659486 -1.14779,0.869322 -1.824692,0.149882 C 12.756355,20.140273 8.4006377,11.267181 8.0769017,10.607694 7.7531665,9.9482071 7.4,9.4086279 7.4,8.7491413 7.4294312,7.7599113 8.9303875,6.7407053 9.6661496,6.231102 10.401914,5.7214979 11.844008,5.0320349 13.109521,5.0020582 c 1.265512,-0.029977 1.795262,0.26979 2.531025,0.7494164 1.118359,0.7494174 1.912983,1.9185067 2.207288,3.2674567 0.294305,1.3489497 0.206014,2.3981327 -0.147153,3.1475497 m -3.325649,-1.61874 C 14.110158,9.6184641 13.550978,8.7191646 12.815216,8.1196313 c -0.147153,-0.119906 -0.323736,-0.26979 -0.52975,-0.3297427 -1.353804,-0.4496507 -0.765193,1.8585522 -0.55918,2.4580854 0.206014,0.599533 0.765194,1.858553 1.383235,2.488063 0.147152,0.149884 0.294304,0.26979 0.470889,0.299767 0.176583,0.02997 0.529748,-0.149883 0.676901,-0.389697 0.147152,-0.239813 0.176584,-0.419673 0.176584,-0.659486 a 3.7671066,3.8370127 0 0 0 -0.05886,-1.43888 z"/>
  <path style="fill:#8b9cbe" d="m 20.956369,21.31382 c -0.0609,0.243531 -0.21312,0.460003 -0.456685,0.595299 -0.243565,0.135294 -0.822032,0.135294 -1.156934,-0.108237 -0.334902,-0.243531 -0.395794,-0.649416 -0.304456,-0.974124 0.09133,-0.324709 0.395794,-0.676476 0.822032,-0.784712 0.882923,-0.243532 1.278716,0.622357 1.096043,1.271774 z"/>
  <path style="fill:#8b9cbe" d="m 20.006295,18.359437 c -0.503818,-0.204604 -0.335878,-3.010608 0.139949,-6.430425 0.139949,-0.935335 0.363869,-1.403002 0.615778,-1.636835 0.251909,-0.233834 1.007636,-0.3507509 1.455474,-0.263063 a 2.5190903,2.6306283 0 0 1 1.371505,0.701501 c 0.335878,0.321521 0.363869,0.672271 0.251908,1.11071 -0.111959,0.438437 -0.503817,1.373772 -0.811706,2.046044 l -0.783717,1.549147 c -1.511454,2.806004 -1.819342,3.098296 -2.239191,2.922921 z"/>
 </g>
 <path style="fill:#8b9cbe;opacity:0.2" d="M 16 2 A 14 14 0 0 0 2 16 A 14 14 0 0 0 2.0214844 16.585938 A 14 14 0 0 1 16 3 A 14 14 0 0 1 29.978516 16.414062 A 14 14 0 0 0 30 16 A 14 14 0 0 0 16 2 z"/>
</svg>
