<svg width="32" height="32" version="1.1" xmlns="http://www.w3.org/2000/svg">
 <path d="m9 24h14s7-1 7-4c0-7-9.8-10-9.8-10h-8.4s-9.8 3-9.8 10c0 3 7 4 7 4z" style="opacity:.2"/>
 <circle cx="16" cy="24" r="7" style="opacity:.2"/>
 <circle cx="16" cy="23" r="7" style="fill:#fecd38"/>
 <path d="m9 23h14s7-1 7-4c0-7-9.8-10-9.8-10h-8.4s-9.8 3-9.8 10c0 3 7 4 7 4z" style="fill:#3ad74a"/>
 <path d="m11.800781 9s-9.800781 3-9.800781 10c0 0.093085 0.0260022 0.178315 0.0390625 0.267578 0.6501943-6.476314 9.7617185-9.267578 9.7617185-9.267578h8.398438s9.111524 2.791264 9.761719 9.267578c0.01306-0.089263 0.039062-0.174493 0.039062-0.267578 0-7-9.800781-10-9.800781-10h-8.398438z" style="fill:#8b9cbe;opacity:.2"/>
 <path d="m16 3c3 0 7 7 7 20 0 5-7 5.2-7 5.2s-7-0.2-7-5.2c0-13 4-20 7-20z" style="opacity:.2"/>
 <path d="m16 2c3 0 7 7 7 20 0 5-7 5.2-7 5.2s-7-0.2-7-5.2c0-13 4-20 7-20z" style="fill:#c2352a"/>
 <ellipse cx="16" cy="19.5" rx="3" ry="4.5" style="opacity:.2"/>
 <ellipse cx="16" cy="18.5" rx="3" ry="4.5" style="fill:#4789d2"/>
 <path d="M 16 2 C 13 2 9 9 9 22 C 9 22.062226 9.0134837 22.115034 9.015625 22.175781 C 9.1836125 9.7146003 13.065285 3 16 3 C 18.934715 3 22.816387 9.7146003 22.984375 22.175781 C 22.986516 22.115034 23 22.062226 23 22 C 23 9 19 2 16 2 z " style="fill:#8b9cbe;opacity:.2"/>
 <path d="M 16 14 A 3 4.5 0 0 0 13 18.5 A 3 4.5 0 0 0 13.021484 18.992188 A 3 4.5 0 0 1 16 15 A 3 4.5 0 0 1 18.978516 19.007812 A 3 4.5 0 0 0 19 18.5 A 3 4.5 0 0 0 16 14 z " style="fill:#8b9cbe;opacity:.2"/>
</svg>
