<svg xmlns="http://www.w3.org/2000/svg" width="32" height="32" version="1">
 <rect fill="#4f4f4f" width="20" height="26" x="-26" y="3" rx="1.25" ry="1.3" transform="scale(-1,1)"/>
 <circle style="opacity:0.4" cx="-18" cy="16" r="9" transform="rotate(-90)"/>
 <circle opacity=".2" cx="-19" cy="-16" r="7" transform="matrix(0,-1,-1,0,0,0)"/>
 <circle fill="#fec006" cx="-18" cy="-16" r="7" transform="matrix(0,-1,-1,0,0,0)"/>
 <circle style="fill:#17191e" cx="-18" cy="-16" r="3" transform="matrix(0,-1,-1,0,0,0)"/>
 <circle style="opacity:0.4" cx="7" cy="-10" r="1" transform="rotate(90)"/>
 <circle style="opacity:0.4" cx="7" cy="-22" r="1" transform="rotate(90)"/>
 <path opacity=".2" d="m6 27.699v1c0 0.72 0.5575 1.301 1.25 1.301h17.5c0.692 0 1.25-0.581 1.25-1.301v-1c0 0.72-0.558 1.301-1.25 1.301h-17.5c-0.6925 0-1.25-0.581-1.25-1.301z"/>
 <path fill="#fff" opacity=".1" d="m7.25 3c-0.6925 0-1.25 0.5806-1.25 1.3008v1c0-0.7202 0.5575-1.3008 1.25-1.3008h17.5c0.692 0 1.25 0.5806 1.25 1.3008v-1c0-0.7202-0.558-1.3008-1.25-1.3008h-17.5z"/>
</svg>
