<svg xmlns="http://www.w3.org/2000/svg" width="32" height="32" version="1.1">
 <path fill="#f56e2c" d="m30 16a14 14 0 0 1 -14 14 14 14 0 0 1 -14 -14 14 14 0 0 1 14 -14 14 14 0 0 1 14 14z"/>
 <path opacity=".2" d="m29.979 16.414a14 14 0 0 1 -13.979 13.586 14 14 0 0 1 -13.978 -13.414 14 14 0 0 0 -0.022 0.414 14 14 0 0 0 14 14 14 14 0 0 0 14 -14 14 14 0 0 0 -0.021 -0.586z"/>
 <path fill="#fff" opacity=".2" d="m16 2a14 14 0 0 0 -14 14 14 14 0 0 0 0.0215 0.586 14 14 0 0 1 13.978 -13.586 14 14 0 0 1 13.979 13.414 14 14 0 0 0 0.021 -0.414 14 14 0 0 0 -14 -14z"/>
 <path opacity=".2" d="m11 9v16h9.9997v-4h-6v-12z"/>
 <path fill="#8b9cbe" d="m11 8v16h9.9997v-4h-6v-12z"/>
</svg>
