<svg xmlns="http://www.w3.org/2000/svg" width="32" height="32" version="1">
 <path style="opacity:0.2" transform="matrix(0.725,0,0,0.47555431,-0.9,1.3446823)" d="M 4.9999999,4.4270815 24,4.4270821 43,4.4270807 33.499999,20.881563 24,37.336046 14.500001,20.881563 Z"/>
 <path style="opacity:0.2" d="M 21,14 H 12 V 25.086957 L 21,31 Z"/>
 <path style="fill:#e53935" transform="matrix(0.725,0,0,0.47555431,-0.9,0.3446823)" d="M 4.9999999,4.4270815 24,4.4270821 43,4.4270807 33.499999,20.881563 24,37.336046 14.500001,20.881563 Z"/>
 <rect style="opacity:0.2" width="29" height="3" x="2" y="2" rx="1.45" ry="1.5"/>
 <rect style="fill:#ec6b68" width="29" height="3" x="2" y="1" rx="1.45" ry="1.5"/>
 <path style="fill:#b4231f" d="M 21,13 H 12 V 24.086957 L 21,30 Z"/>
 <path style="opacity:0.2;fill:#8b9cbe" d="M 3.4492188 1 C 2.6459187 1 2 1.669 2 2.5 C 2 2.6767002 2.0341228 2.8428235 2.0878906 3 C 2.2869864 2.4179939 2.8167289 2 3.4492188 2 L 29.550781 2 C 30.183271 2 30.713014 2.4179939 30.912109 3 C 30.965877 2.8428235 31 2.6767002 31 2.5 C 31 1.669 30.354081 1 29.550781 1 L 3.4492188 1 z"/>
</svg>
