<svg xmlns="http://www.w3.org/2000/svg" width="32" height="32" version="1">
 <path style="fill:#8e8e8e" transform="matrix(0,-1,-1,0,0,0)" d="m -26.687,-24.0002 18.374,0 c 0.727402,0 1.313,0.594518 1.313,1.333 l 0,13.3342001 C -7,-8.594518 -7.585598,-8 -8.313,-8 l -18.374,0 C -27.414402,-8 -28,-8.594518 -28,-9.3329999 L -28,-22.6672 c 0,-0.738482 0.585598,-1.333 1.313,-1.333 z"/>
 <path style="fill:#4f4f4f" transform="matrix(0,-1,-1,0,0,0)" d="m -23.75,-28.9998 17.5,0 c 0.6925,0 1.25,0.5798 1.25,1.3 L -5,-4.3 c 0,0.7202 -0.5575,1.3 -1.25,1.3 l -17.5,0 C -24.4425,-3 -25,-3.5798 -25,-4.3 l 0,-23.3998 c 0,-0.7202 0.5575,-1.3 1.25,-1.3 z"/>
 <rect style="fill:#2c80c2" width="16" height="22" x="-23" y="-27" rx="0" ry="0" transform="matrix(0,-1,-1,0,0,0)"/>
 <path style="opacity:0.1;fill:#8b9cbe" d="M 4.3008,5 C 3.5806,5 3,5.5575 3,6.25 l 0,1 C 3,6.5575 3.5806,6 4.3008,6 l 23.3978,0 c 0.72,0 1.301,0.5575 1.301,1.25 l 0,-1 C 28.9996,5.5575 28.4186,5 27.6986,5 Z"/>
 <path style="opacity:0.2" d="m 8,26.688 0,1 C 8,28.415 8.5953,29 9.334,29 l 13.3322,0 c 0.739,0 1.334,-0.585 1.334,-1.312 l 0,-1 c 0,0.727 -0.595,1.312 -1.334,1.312 L 9.334,28 C 8.5953,28 8,27.415 8,26.688 Z"/>
 <path style="opacity:0.2" d="m 3,23.75 0,1 C 3,25.442 3.5806,26 4.3008,26 l 23.3977,0 c 0.72,0 1.301,-0.558 1.301,-1.25 l 0,-1 c 0,0.692 -0.581,1.25 -1.301,1.25 L 4.3008,25 c -0.7204,0 -1.301,-0.558 -1.301,-1.25 z"/>
 <path style="opacity:0.2" d="m 10.599805,11.000336 c -0.332401,0 -0.599609,0.272773 -0.599609,0.611328 l 0,7.75586 c 0,0.338554 0.267208,0.632812 0.599609,0.632812 l 3.400391,0 0,0.388336 C 14.000196,20.727227 14.267405,21 14.599804,21 l 2.800391,0 c 0.3324,0 0.599609,-0.272773 0.599609,-0.611328 l 0,-0.388336 3.400391,0 c 0.3324,0 0.599609,-0.294258 0.599609,-0.632812 l 0,-7.75586 c 0,-0.338555 -0.267209,-0.611328 -0.599609,-0.611328 z m 0.999999,1 8.800391,0 c 0.3324,0 0.599609,0.222997 0.599609,0.5 l 0,6 c 0,0.277003 -0.267209,0.5 -0.599609,0.5 l -8.800391,0 c -0.3324,0 -0.599608,-0.222997 -0.599608,-0.5 l 0,-6 c 0,-0.277003 0.267208,-0.5 0.599608,-0.5 z"/>
 <path style="fill:#8b9cbe" d="m 10.599805,10 c -0.332401,0 -0.599609,0.272773 -0.599609,0.611328 l 0,7.75586 C 10.000196,18.705742 10.267404,19 10.599805,19 l 3.400391,0 0,0.388336 c 0,0.338555 0.267209,0.611328 0.599608,0.611328 l 2.800391,0 c 0.3324,0 0.599609,-0.272773 0.599609,-0.611328 l 0,-0.388336 3.400391,0 c 0.3324,0 0.599609,-0.294258 0.599609,-0.632812 l 0,-7.75586 C 21.999804,10.272773 21.732595,10 21.400195,10 Z m 0.999999,1 8.800391,0 c 0.3324,0 0.599609,0.222997 0.599609,0.5 l 0,6 c 0,0.277003 -0.267209,0.5 -0.599609,0.5 l -8.800391,0 c -0.3324,0 -0.599608,-0.222997 -0.599608,-0.5 l 0,-6 c 0,-0.277003 0.267208,-0.5 0.599608,-0.5 z"/>
</svg>
