<svg xmlns="http://www.w3.org/2000/svg" width="32" height="32" version="1">
 <rect style="fill:#4f4f4f" width="28" height="20" x="2" y="6" rx="1.4" ry="1.4"/>
 <path style="opacity:.1;fill:#8b9cbe" d="m3.4004 6c-0.7756 0-1.4004 0.6248-1.4004 1.4004v1c0-0.7756 0.6248-1.4004 1.4004-1.4004h25.2c0.775 0 1.4 0.6248 1.4 1.4004v-1c0-0.7756-0.625-1.4004-1.4-1.4004h-25.2z"/>
 <path style="opacity:.2" d="m2 24.6v1c0 0.775 0.6248 1.4 1.4004 1.4h25.2c0.775 0 1.4-0.625 1.4-1.4v-1c0 0.775-0.625 1.4-1.4 1.4h-25.2c-0.7752 0-1.4-0.625-1.4-1.4z"/>
 <circle style="opacity:.2" cx="5.5" cy="11.5" r="1.5"/>
 <circle style="opacity:.2" cx="10.5" cy="11.5" r="1.5"/>
 <circle style="opacity:.2" cx="15.5" cy="11.5" r="1.5"/>
 <circle style="opacity:.2" cx="20.5" cy="11.5" r="1.5"/>
 <circle style="opacity:.2" cx="25.5" cy="11.5" r="1.5"/>
 <circle style="opacity:.2" cx="8.5" cy="17.5" r="1.5"/>
 <circle style="opacity:.2" cx="13.5" cy="17.5" r="1.5"/>
 <circle style="opacity:.2" cx="18.5" cy="17.5" r="1.5"/>
 <circle style="opacity:.2" cx="23.5" cy="17.5" r="1.5"/>
 <rect style="opacity:.2" width="20" height="3" x="6" y="22" rx=".75" ry=".75"/>
 <circle style="fill:#b2bfd9" cx="5.5" cy="10.5" r="1.5"/>
 <circle style="fill:#b2bfd9" cx="10.5" cy="10.5" r="1.5"/>
 <circle style="fill:#b2bfd9" cx="15.5" cy="10.5" r="1.5"/>
 <circle style="fill:#b2bfd9" cx="20.5" cy="10.5" r="1.5"/>
 <circle style="fill:#b2bfd9" cx="25.5" cy="10.5" r="1.5"/>
 <circle style="fill:#b2bfd9" cx="8.5" cy="16.5" r="1.5"/>
 <circle style="fill:#b2bfd9" cx="13.5" cy="16.5" r="1.5"/>
 <circle style="fill:#b2bfd9" cx="18.5" cy="16.5" r="1.5"/>
 <circle style="fill:#b2bfd9" cx="23.5" cy="16.5" r="1.5"/>
 <rect style="fill:#b2bfd9" width="20" height="3" x="6" y="21" rx=".75" ry=".75"/>
</svg>
