<svg xmlns="http://www.w3.org/2000/svg" width="32" height="32" version="1.1">
 <path style="opacity:0.2" d="M 16,3.0000001 C 8.2752851,3.0000001 2,9.2752829 2,17 2,24.724717 8.2752851,31.000002 16,31 23.724715,31 30.000007,24.724717 30,17 30,9.2752829 23.724715,3.0000001 16,3.0000001 Z"/>
 <path style="fill:#4f4f4f" d="M 16,2.0000001 C 8.2752851,2.0000001 2,8.2752829 2,16 2,23.724717 8.2752851,30.000002 16,30 23.724715,30 30.000007,23.724717 30,16 30,8.2752829 23.724715,2.0000001 16,2.0000001 Z"/>
 <path style="fill:#8b9cbe;opacity:0.1" d="M 16 2 C 8.2752851 2 2 8.2752829 2 16 C 2 16.168848 2.0194446 16.332587 2.0253906 16.5 C 2.2914716 9.0083654 8.4441333 3 16 3 C 23.555867 3 29.708528 9.0083654 29.974609 16.5 C 29.980555 16.332587 30 16.168848 30 16 C 30 8.2752829 23.724715 2 16 2 z"/>
 <path style="opacity:0.2" d="M 16.000001,5.9999999 C 9.9305795,5.9999999 5,10.930579 5,16.999999 5,23.06942 9.9305795,28.000001 16.000001,28 22.069421,28 27.000004,23.06942 27,16.999999 27,10.930579 22.069421,5.9999999 16.000001,5.9999999 Z"/>
 <path style="fill:#ef8a24" d="M 16.000001,4.9999999 C 9.9305795,4.9999999 5,9.930579 5,15.999999 5,22.06942 9.9305795,27.000001 16.000001,27 22.069421,27 27.000004,22.06942 27,15.999999 27,9.930579 22.069421,4.9999999 16.000001,4.9999999 Z"/>
 <path style="fill:#8b9cbe;opacity:0.1" d="M 16 5 C 9.9305785 5 5 9.93058 5 16 C 5 16.168891 5.0178367 16.332954 5.0253906 16.5 C 5.2893029 10.663942 10.09947 6 16 6 C 21.900529 6 26.710697 10.663942 26.974609 16.5 C 26.982163 16.332954 27 16.168891 27 16 C 27 9.93058 22.06942 5 16 5 z"/>
 <path style="opacity:0.2;fill:none;stroke:#000000;stroke-width:3;stroke-linecap:round;stroke-linejoin:round" d="M 16,16.99985 27.5,5.4998496"/>
 <path style="fill:none;stroke:#b2bfd9;stroke-width:3;stroke-linecap:round;stroke-linejoin:round" d="M 16,16 27.5,4.5"/>
 <path style="opacity:0.2;fill:none;stroke:#000000;stroke-width:3;stroke-linecap:round;stroke-linejoin:round" d="m 9.5,12.49985 6.5,4.5"/>
 <path style="fill:none;stroke:#b2bfd9;stroke-width:3;stroke-linecap:round;stroke-linejoin:round" d="M 9.5,11.5 16,16"/>
 <path style="opacity:0.2" d="m 16,14 c -1.655296,0 -3,1.344703 -3,3 0,1.655296 1.344704,3 3,3 1.655296,0 3,-1.344704 3,-3 0,-1.655297 -1.344704,-3 -3,-3 z"/>
 <path style="fill:#4f4f4f" d="m 16,13 c -1.655296,0 -3,1.344703 -3,3 0,1.655296 1.344704,3 3,3 1.655296,0 3,-1.344704 3,-3 0,-1.655297 -1.344704,-3 -3,-3 z"/>
</svg>
