<svg xmlns="http://www.w3.org/2000/svg" width="32" height="32" version="1">
 <path style="opacity:0.2" d="m 16,2.9999997 c -0.012,0 -0.025,0.002 -0.037,0.002 H 15.9589 C 11.473,3.0299996 7,7.6789999 7,11.168 V 22.703 C 7,27.444 10.375,31 16,31 c 5.624999,9.8e-4 8.999999,-3.554 8.999999,-8.295 V 11.486 c 0,-3.6260004 -4.494,-8.4530003 -8.999999,-8.4820003 z"/>
 <path style="fill:#4f4f4f" d="m 16,1.9999999 c -0.012,0 -0.025,0.002 -0.037,0.002 H 15.9589 C 11.473,2.0299998 7,6.6790001 7,10.168 V 21.703 C 7,26.444 10.375,30 16,30 c 5.624999,9.8e-4 8.999999,-3.554 8.999999,-8.295 V 10.486 c 0,-3.6260002 -4.494,-8.4530001 -8.999999,-8.4820001 z"/>
 <path style="opacity:0.1" d="m 16,1.9999999 c -0.012,0 -0.02451,0.00137 -0.0365,0.00137 h -0.0041 c -4.485963,0.028 -8.9594103,4.6772138 -8.9594103,8.1662131 V 16 H 25 V 10.486133 C 25,6.8601328 20.505999,2.0331015 16,2.0041014 Z"/>
 <path style="opacity:0.1" d="m 16,1.9999999 c -0.012,0 -0.02451,0.00137 -0.0365,0.00137 h -0.0041 c -4.485963,0.028 -8.9594103,4.6772138 -8.9594103,8.1662131 V 16 H 16 c 0,0 0,-14.0000001 0,-13.9958986 z"/>
 <path style="opacity:0.2" d="m 16,7.0002992 c 0.551,0 1,0.5760396 1,1.2857862 V 11.714915 C 17,12.423961 16.551,13 16,13 15.449,13 15,12.423961 15,11.713915 V 8.2850852 c 0,-0.709047 0.449,-1.2850854 1,-1.2850854"/>
 <path style="fill:#b2bfd9" d="m 16,6.0002994 c 0.551,0 1,0.5760396 1,1.2857862 V 10.714915 C 17,11.423961 16.551,12 16,12 15.449,12 15,11.423961 15,10.713915 V 7.2850854 C 15,6.5760384 15.449,6 16,6"/>
 <path style="fill:#8b9cbe;opacity:0.1" d="M 16 2 C 15.988 2 15.974891 2.0019531 15.962891 2.0019531 L 15.958984 2.0019531 C 11.473084 2.029953 7 6.6789689 7 10.167969 L 7 11.167969 C 7 7.6789687 11.473084 3.029953 15.958984 3.0019531 L 15.962891 3.0019531 C 15.974891 3.0019531 15.988 3 16 3 L 16 3.0039062 C 20.505999 3.0329062 25 7.8603277 25 11.486328 L 25 10.486328 C 25 6.8603279 20.505999 2.0329062 16 2.0039062 L 16 2 z"/>
</svg>
