<svg xmlns="http://www.w3.org/2000/svg" width="32" height="32" version="1">
 <circle style="opacity:0.2" class="cls-1" cx="16.5" cy="16.5" r="14.5"/>
 <circle style="fill:#6a84e2" class="cls-1" cx="16.5" cy="15.5" r="14.5"/>
 <path style="opacity:0.2" d="M 8.234375,10 A 1.2349999,1.3065444 0 0 0 7,11.306641 V 21.693359 A 1.2349999,1.3065444 0 0 0 8.234375,23 h 16.53125 A 1.2349999,1.3065444 0 0 0 26,21.693359 V 11.306641 A 1.2349999,1.3065444 0 0 0 24.765625,10 Z m 1.0820312,3 a 0.33958423,0.34841185 0 0 1 0.00195,0 0.33958423,0.34841185 0 0 1 0.033203,0 0.33958423,0.34841185 0 0 1 0.15625,0.04687 l 5.3242188,3.152344 a 0.33958423,0.34841185 0 0 1 0,0.601562 L 9.5078125,19.953125 A 0.33958423,0.34841185 0 0 1 9,19.652344 V 13.347656 A 0.33958423,0.34841185 0 0 1 9.3164062,13 Z m 8.2753908,1 h 3.816406 A 0.59430874,0.50193597 0 0 1 22,14.5 0.59430874,0.50193597 0 0 1 21.408203,15 H 17.591797 A 0.59430874,0.50193597 0 0 1 17,14.5 0.5828356,0.49224609 0 0 1 17.173828,14.148438 0.5828356,0.49224609 0 0 1 17.591797,14 Z m -0.0332,2 h 5.884765 A 0.55759776,0.49999966 0 0 1 23.837891,16.851562 0.55975898,0.50193765 0 0 1 23.443359,17 H 17.558594 A 0.55975898,0.50193765 0 0 1 17,16.5 0.55975898,0.50193765 0 0 1 17.558594,16 Z m 0,2 h 5.884765 A 0.55759784,0.49999996 0 0 1 23.837891,18.851562 0.55975907,0.50193795 0 0 1 23.443359,19 H 17.558594 A 0.55975907,0.50193795 0 0 1 17,18.5 0.55975907,0.50193795 0 0 1 17.558594,18 Z"/>
 <path style="fill:#8b9cbe" d="M 8.234375,9 A 1.2349999,1.3065444 0 0 0 7,10.306641 V 20.693359 A 1.2349999,1.3065444 0 0 0 8.234375,22 h 16.53125 A 1.2349999,1.3065444 0 0 0 26,20.693359 V 10.306641 A 1.2349999,1.3065444 0 0 0 24.765625,9 Z m 1.0820312,3 a 0.33958423,0.34841185 0 0 1 0.00195,0 0.33958423,0.34841185 0 0 1 0.033203,0 0.33958423,0.34841185 0 0 1 0.15625,0.04687 l 5.3242185,3.152344 a 0.33958423,0.34841185 0 0 1 0,0.601562 L 9.5078125,18.953125 A 0.33958423,0.34841185 0 0 1 9,18.652344 V 12.347656 A 0.33958423,0.34841185 0 0 1 9.3164062,12 Z m 8.2753908,1 h 3.816406 A 0.59430874,0.50193597 0 0 1 22,13.5 0.59430874,0.50193597 0 0 1 21.408203,14 H 17.591797 A 0.59430874,0.50193597 0 0 1 17,13.5 0.5828356,0.49224609 0 0 1 17.173828,13.148438 0.5828356,0.49224609 0 0 1 17.591797,13 Z m -0.0332,2 h 5.884765 A 0.55759776,0.49999966 0 0 1 23.837891,15.851562 0.55975898,0.50193765 0 0 1 23.443359,16 H 17.558594 A 0.55975898,0.50193765 0 0 1 17,15.5 0.55975898,0.50193765 0 0 1 17.558594,15 Z m 0,2 h 5.884765 A 0.55759784,0.49999996 0 0 1 23.837891,17.851562 0.55975907,0.50193795 0 0 1 23.443359,18 H 17.558594 A 0.55975907,0.50193795 0 0 1 17,17.5 0.55975907,0.50193795 0 0 1 17.558594,17 Z"/>
 <path style="fill:#8b9cbe;opacity:0.2" d="M 16.5 1 A 14.5 14.5 0 0 0 2 15.5 A 14.5 14.5 0 0 0 2.0214844 16.080078 A 14.5 14.5 0 0 1 16.5 2 A 14.5 14.5 0 0 1 30.978516 15.919922 A 14.5 14.5 0 0 0 31 15.5 A 14.5 14.5 0 0 0 16.5 1 z"/>
</svg>
