<svg xmlns="http://www.w3.org/2000/svg" width="32" height="32" version="1">
 <circle style="opacity:0.2" cx="16" cy="17" r="14"/>
 <circle style="fill:#42526b" cx="16" cy="16" r="14"/>
 <path style="fill:#e0583b" d="m 7.8429126,8.9740507 0.234375,2.2698103 a 0.17864722,0.17864722 0 0 1 -0.2971536,0.15067 l -1.32115,-1.190011 0.5747772,2.90039 1.1314171,-0.0293 a 0.17864722,0.17864722 0 0 1 0.1325336,0.302735 l -0.9472657,0.977958 0.2762278,1.381138 0.9793529,-0.419922 a 0.17864722,0.17864722 0 0 1 0.2343743,0.23298 l -0.9807472,2.356305 0.2608815,0.545479 1.6294643,-0.738002 a 0.17864722,0.17864722 0 0 1 0.2329796,0.244141 l -0.9849325,1.939175 0.2511158,0.232978 1.8359383,-1.741071 a 0.17864722,0.17864722 0 0 1 0.244141,-0.0014 l 0.311104,0.287389 2.094028,-2.126115 0.152066,-1.771765 C 12.042098,13.969856 9.3729641,12.514616 7.8429126,8.9740172 Z m 16.3141744,0 C 22.627036,12.514649 19.957902,13.969888 18.11356,14.777622 l 0.152065,1.771764 2.094029,2.126116 0.311104,-0.287389 a 0.17864722,0.17864722 0 0 1 0.244141,0.0014 l 1.835938,1.741072 0.251116,-0.232979 -0.984932,-1.939174 A 0.17864722,0.17864722 0 0 1 22.25,17.714285 l 1.629465,0.738002 0.260881,-0.545479 -0.980747,-2.356306 a 0.17864722,0.17864722 0 0 1 0.234374,-0.23298 l 0.979353,0.419921 0.276227,-1.381137 -0.947265,-0.977958 a 0.17864722,0.17864722 0 0 1 0.132534,-0.302735 l 1.131417,0.0293 0.574777,-2.900391 -1.32115,1.190012 a 0.17864722,0.17864722 0 0 1 -0.297153,-0.15067 z m -8.168248,1.1732703 -0.938895,4.093192 0.897043,0.841239 0.901227,-0.655692 z m 1.128627,5.066964 -1.10491,0.910994 a 0.17864722,0.17864722 0 0 1 -0.23577,-0.0084 l -0.954242,-0.901228 -0.295758,2.650671 0.701729,3.007812 a 0.17864722,0.17864722 0 0 1 0.0042,0.05859 l -0.516183,5.103237 1.316965,0.588727 1.195592,-0.55385 -0.428293,-5.073941 a 0.17864722,0.17864722 0 0 1 0.0042,-0.05441 l 0.700336,-3.105468 z m -3.575613,2.822266 -2.402345,2.548828 2.163784,1.569476 a 0.17864722,0.17864722 0 0 1 0.03906,0.03906 l 0.739398,1.00865 0.219029,-2.073103 z m 4.916294,0 -0.758929,3.092913 0.21903,2.073103 0.739397,-1.00865 a 0.17864722,0.17864722 0 0 1 0.03906,-0.03906 L 20.86049,20.58538 Z"/>
 <path style="opacity:0.2;fill:none;stroke:#000000;stroke-width:0.36;stroke-linejoin:round" d="m 18.362537,18.175002 2.767534,2.936288 -2.32878,1.687521 -1.012513,1.383768 -0.27,-2.565033 z m -0.438755,-3.003788 c 2.005689,-0.872686 5.100996,-2.341299 6.513832,-6.6825834 l -0.337503,3.2737894 1.72127,-1.55252 -0.708758,3.577545 -1.282518,-0.03375 1.012514,1.046265 -0.337505,1.687521 -1.181263,-0.506257 1.012509,2.430032 -0.371249,0.776259 -1.788777,-0.810011 1.046262,2.058777 -0.472503,0.438755 -1.957526,-1.856273 -0.438754,0.405005 -2.261282,-2.295029 z m -1.991286,0.641258 -1.080018,-1.012513 1.147518,-5.0035252 1.046262,5.2060262 z m 0.101245,11.5089 -1.507829,-0.675014 0.529065,-5.231314 -0.708759,-3.03754 0.337505,-3.037538 1.215013,1.147514 1.350017,-1.113764 0.438759,2.970039 -0.708759,3.13879 0.438755,5.197568 z m -2.396281,-9.14637 -2.767535,2.936288 2.32878,1.687521 1.012508,1.383768 0.270005,-2.565033 z m 0.438759,-3.003788 C 12.070531,14.298528 8.9752234,12.829915 7.5623869,8.4886306 L 7.8998912,11.76242 6.178619,10.2099 l 0.7087593,3.577545 1.2825172,-0.03375 -1.0125136,1.046265 0.337505,1.687521 1.1812629,-0.506257 -1.0125136,2.430032 0.371255,0.776259 1.7887758,-0.810011 -1.0462679,2.058777 0.4725093,0.438755 1.9575266,-1.856273 0.438754,0.405005 2.26128,-2.295029 z"/>
 <path style="fill:none;stroke:#3dd3ff;stroke-width:0.36;stroke-linejoin:round" d="m 18.362537,17.675002 2.767534,2.936288 -2.32878,1.687521 -1.012513,1.383768 -0.27,-2.565033 z m -0.438755,-3.003788 c 2.005689,-0.872686 5.100996,-2.341299 6.513832,-6.6825854 l -0.337503,3.2737914 1.72127,-1.5525199 -0.708758,3.5775449 -1.282518,-0.03375 1.012514,1.046265 -0.337505,1.687521 -1.181263,-0.506257 1.012509,2.430032 -0.371249,0.776259 -1.788777,-0.810011 1.046262,2.058777 -0.472503,0.438755 -1.957526,-1.856273 -0.438754,0.405005 -2.261282,-2.295029 z m -1.991286,0.641258 -1.080018,-1.012513 1.147518,-5.0035261 1.046262,5.2060271 z m 0.101245,11.5089 -1.507829,-0.675014 0.529065,-5.231314 -0.708759,-3.03754 0.337505,-3.037538 1.215013,1.147514 1.350017,-1.113764 0.438759,2.970039 -0.708759,3.13879 0.438755,5.197568 z m -2.396281,-9.14637 -2.767535,2.936288 2.32878,1.687521 1.012508,1.383768 0.270005,-2.565033 z m 0.438759,-3.003788 C 12.070531,13.798528 8.9752234,12.329915 7.5623869,7.9886286 L 7.8998912,11.26242 6.178619,9.7099001 l 0.7087593,3.5775449 1.2825172,-0.03375 -1.0125136,1.046265 0.337505,1.687521 1.1812629,-0.506257 -1.0125136,2.430032 0.371255,0.776259 1.7887758,-0.810011 -1.0462679,2.058777 0.4725093,0.438755 1.9575266,-1.856273 0.438754,0.405005 2.26128,-2.295029 z"/>
 <path style="fill:#8b9cbe;opacity:0.1" d="M 16 2 A 14 14 0 0 0 2 16 A 14 14 0 0 0 2.0214844 16.585938 A 14 14 0 0 1 16 3 A 14 14 0 0 1 29.978516 16.414062 A 14 14 0 0 0 30 16 A 14 14 0 0 0 16 2 z"/>
</svg>
