<svg xmlns="http://www.w3.org/2000/svg" width="32" height="32" version="1">
 <rect style="opacity:0.2" width="28" height="28" x="2" y="3" rx="1.4" ry="1.4"/>
 <rect style="fill:#68303e" width="28" height="28" x="2" y="2" rx="1.4" ry="1.4"/>
 <path style="opacity:0.2" d="m 14.08948,7.0000045 -0.256036,0.0787 c -0.364296,0.0568 -0.405936,0.3888536 -0.548495,0.6840408 -0.278449,0.4163407 -0.294203,0.6960943 -0.130224,1.1036215 0.181869,0.44858 0.440387,0.83326 0.768117,1.2343072 l 0.53738,0.657061 v 0.159894 0.159892 l -0.31907,0.140408 -0.318815,0.140653 -0.601236,0.08319 c -0.391459,0.03153 -0.455514,0.07612 -0.607143,0.397733 -0.171487,0.255354 -0.148633,0.494927 -0.149591,0.787975 l -0.0014,0.47368 -0.198939,0.703527 c -0.317821,0.842534 -0.189038,1.741115 -0.180848,2.622242 -0.01338,0.88656 -0.126074,1.674655 0.325013,2.441116 0.164359,0.264726 0.184303,0.5224 0.51155,0.5224 0.341649,0.05246 0.161316,-0.257074 0.122722,-0.49042 -0.02765,-0.310614 -0.221675,-0.490421 0.143132,-0.490421 0.29425,0.02873 0.206591,-0.05606 0.133567,-0.287807 -0.03447,-0.22392 -0.143909,-0.34642 -0.291686,-0.50916 -0.183075,-0.183273 -0.225971,-0.190648 -0.07183,-0.383741 0.255112,-0.301033 0.226853,-0.748314 0.289108,-1.121746 l 0.159917,-0.959362 0.09275,-0.437953 c 0.05302,-0.224441 0.148586,-0.410455 0.380085,-0.483681 l 0.144682,-0.04574 0.417505,0.757489 c 0.297966,0.414146 0.417505,0.743139 0.417505,1.224433 0.05515,0.369274 -0.04288,0.526114 -0.25112,0.813447 -0.279919,0.282607 -0.279746,0.572628 -0.326826,0.944622 l -0.07569,0.5981 -0.587248,0.936867 c -0.404999,0.499068 -0.588928,0.950501 -0.674838,1.554461 l -0.08784,0.617588 -0.454968,0.48692 c -0.456769,0.360173 -0.496459,0.704021 -0.598362,1.236674 l -0.143393,0.749495 -0.145707,0.25658 -0.145978,0.256327 -0.0098,0.511653 c -0.129483,0.368469 0.07669,0.468552 0.179074,0.735508 0.314176,0.539686 1.177122,1.337575 1.87775,1.094521 l -0.08291,-0.263071 -0.09068,-0.287808 -0.188605,-0.20786 -0.188342,-0.208113 -0.07777,-0.463441 -0.07776,-0.463687 h 0.136677 0.136671 l 0.288328,-0.92738 c 0.100245,-0.601394 0.316381,-0.955854 0.729343,-1.375075 0.393562,-0.295467 0.477217,-0.580927 0.596555,-1.023314 l 0.155271,-0.575614 0.28342,-0.4477 0.283157,-0.4477 0.446703,-0.478681 c 0.410329,-0.378287 0.682326,-0.787134 0.682326,0.028 -0.05239,0.3652 0.125005,0.647748 0.26999,0.975101 0.337912,0.540554 0.209707,0.75356 -0.02116,1.30362 -0.350789,0.567788 -0.24635,0.976262 -0.14675,1.598682 l 0.144938,0.904141 -0.189632,0.354513 c -0.26484,0.425107 -0.248825,0.740148 0.02041,1.112255 l 0.210308,0.290308 -0.07337,0.184625 c -0.0012,0.512556 0.52897,0.415934 0.890627,0.418222 h 2.316378 C 19.844387,26.472934 18.792421,26.295981 18.346193,26.2326 l -0.174904,-0.203859 -0.174651,-0.203614 -0.04109,-0.861674 -0.04082,-0.861674 0.199456,-0.854428 0.199448,-0.854675 c 0.387386,-0.247553 0.323738,-0.375453 0.235107,-0.818453 l -0.108491,-0.54238 -0.01496,-1.343101 -0.01523,-1.343101 -0.09327,-0.991335 c 0.06998,-0.306853 -0.363964,-0.991335 0.0837,-0.991335 l 0.08036,0.202361 0.08035,0.202367 v 0.369254 c 0.0122,0.285693 -0.09502,0.40448 0.211597,0.290807 l 0.211852,-0.0787 0.117043,0.178632 0.116774,0.178381 0.002,0.2953 c 0.02165,0.193453 -0.08321,0.346607 0.13434,0.216353 l 0.13228,-0.07895 0.0042,-0.344267 0.0042,-0.344274 0.194286,0.248334 c 0.114526,0.09632 0.194292,0.378473 0.194292,0.115173 0.01454,-0.18956 -0.08289,-0.363227 -0.146233,-0.538886 -0.0686,-0.290268 -0.130983,-0.397582 -0.384441,-0.528894 l -0.238463,-0.123421 0.06899,-0.496914 c 0.168294,-0.583894 -0.17563,-1.040541 -0.413437,-1.568942 l -0.482106,-0.929193 -0.25397,-0.511661 -0.254223,-0.511653 -0.08991,-0.493174 c -0.0313,-0.466154 -0.115422,-0.503481 -0.531191,-0.671548 -0.258835,-0.146646 -0.481461,-0.17838 -0.768875,-0.17838 H 16.062856 L 15.85694,10.834188 15.651032,10.549875 v -0.154647 -0.154894 l 0.264557,-0.08119 c 0.414439,-0.06194 0.264557,-0.4113936 0.264557,-0.7515007 0.0364,-0.3856136 0.03619,-0.6242408 -0.194284,-0.9188808 L 15.791577,8.2404259 15.787377,7.9526188 C 15.824717,7.6745723 15.721377,7.604918 15.528293,7.4182245 15.303778,7.1206909 15.038413,7.137638 14.681398,7.0859509 Z"/>
 <path style="fill:#8b9cbe" d="m 14.08948,6.0000045 -0.256036,0.0787 c -0.364296,0.0568 -0.405936,0.3888536 -0.548495,0.6840408 -0.278449,0.4163407 -0.294203,0.6960943 -0.130224,1.1036215 0.181869,0.44858 0.440387,0.83326 0.768117,1.2343072 l 0.53738,0.6570607 v 0.1598938 0.1598925 l -0.31907,0.140408 -0.318815,0.140653 -0.601236,0.08319 c -0.391459,0.03153 -0.455514,0.07612 -0.607143,0.397733 -0.171487,0.255354 -0.148633,0.494927 -0.149591,0.787975 l -0.0014,0.47368 -0.198939,0.703527 c -0.317821,0.842534 -0.189038,1.741115 -0.180848,2.622242 -0.01338,0.88656 -0.126074,1.674655 0.325013,2.441116 0.164359,0.264726 0.184303,0.5224 0.51155,0.5224 0.341649,0.05246 0.161316,-0.257074 0.122722,-0.49042 -0.02765,-0.310614 -0.221675,-0.490421 0.143132,-0.490421 0.29425,0.02873 0.206591,-0.05606 0.133567,-0.287807 -0.03447,-0.22392 -0.143909,-0.34642 -0.291686,-0.50916 -0.183075,-0.183273 -0.225971,-0.190648 -0.07183,-0.383741 0.255112,-0.301033 0.226853,-0.748314 0.289108,-1.121746 l 0.159917,-0.959362 0.09275,-0.437953 c 0.05302,-0.224441 0.148586,-0.410455 0.380085,-0.483681 l 0.144682,-0.04574 0.417505,0.757489 c 0.297966,0.414146 0.417505,0.743139 0.417505,1.224433 0.05515,0.369274 -0.04288,0.526114 -0.25112,0.813447 -0.279919,0.282607 -0.279746,0.572628 -0.326826,0.944622 l -0.07569,0.5981 -0.587248,0.936867 c -0.404999,0.499068 -0.588928,0.950501 -0.674838,1.554461 l -0.08784,0.617588 -0.454968,0.48692 c -0.456769,0.360173 -0.496459,0.704021 -0.598362,1.236674 l -0.143393,0.749495 -0.145707,0.25658 -0.145978,0.256327 -0.0098,0.511653 c -0.129483,0.368469 0.07669,0.468552 0.179074,0.735508 0.314176,0.539686 1.177122,1.337575 1.87775,1.094521 l -0.08291,-0.263071 -0.09068,-0.287808 -0.188605,-0.20786 -0.188342,-0.208113 -0.07777,-0.463441 -0.07776,-0.463687 h 0.136677 0.136671 l 0.288328,-0.92738 c 0.100245,-0.601394 0.316381,-0.955854 0.729343,-1.375075 0.393562,-0.295467 0.477217,-0.580927 0.596555,-1.023314 l 0.155271,-0.575614 0.28342,-0.4477 0.283157,-0.4477 0.446703,-0.478681 c 0.410329,-0.378287 0.682326,-0.787134 0.682326,0.028 -0.05239,0.3652 0.125005,0.647748 0.26999,0.975101 0.337912,0.540554 0.209707,0.75356 -0.02116,1.30362 -0.350789,0.567788 -0.24635,0.976262 -0.14675,1.598682 l 0.144938,0.904141 -0.189632,0.354513 c -0.26484,0.425107 -0.248825,0.740148 0.02041,1.112255 l 0.210308,0.290308 -0.07337,0.184625 c -0.0012,0.512556 0.52897,0.415934 0.890627,0.418222 h 2.316378 C 19.844387,25.472934 18.792421,25.295981 18.346193,25.2326 l -0.174904,-0.203859 -0.174651,-0.203614 -0.04109,-0.861674 -0.04082,-0.861674 0.199456,-0.854428 0.199448,-0.854675 c 0.387386,-0.247553 0.323738,-0.375453 0.235107,-0.818453 l -0.108491,-0.54238 -0.01496,-1.343101 -0.01523,-1.343101 -0.09327,-0.991335 c 0.06998,-0.306853 -0.363964,-0.991335 0.0837,-0.991335 l 0.08036,0.202361 0.08035,0.202367 v 0.369254 c 0.0122,0.285693 -0.09502,0.40448 0.211597,0.290807 l 0.211852,-0.0787 0.117043,0.178632 0.116774,0.178381 0.002,0.2953 c 0.02165,0.193453 -0.08321,0.346607 0.13434,0.216353 l 0.13228,-0.07895 0.0042,-0.344267 0.0042,-0.344274 0.194286,0.248334 c 0.114526,0.09632 0.194292,0.378473 0.194292,0.115173 0.01454,-0.18956 -0.08289,-0.363227 -0.146233,-0.538886 -0.0686,-0.290268 -0.130983,-0.397582 -0.384441,-0.528894 l -0.238463,-0.123421 0.06899,-0.496914 c 0.168294,-0.583894 -0.17563,-1.040541 -0.413437,-1.568942 l -0.482106,-0.929193 -0.25397,-0.511661 -0.254223,-0.511653 -0.08991,-0.493174 c -0.0313,-0.466154 -0.115422,-0.503481 -0.531191,-0.671548 -0.258835,-0.146646 -0.481461,-0.17838 -0.768875,-0.17838 H 16.062856 L 15.85694,9.8341883 15.651032,9.5498747 V 9.3952276 9.240334 l 0.264557,-0.081193 c 0.414439,-0.061936 0.264557,-0.4113936 0.264557,-0.7515007 0.0364,-0.3856136 0.03619,-0.6242408 -0.194284,-0.9188808 L 15.791577,7.2404259 15.787377,6.9526188 C 15.824717,6.6745723 15.721377,6.604918 15.528293,6.4182245 15.303778,6.1206909 15.038413,6.137638 14.681398,6.0859509 Z"/>
 <path style="fill:#8b9cbe;opacity:0.1" d="M 3.4003906 2 C 2.6247906 2 2 2.6247906 2 3.4003906 L 2 4.4003906 C 2 3.6247906 2.6247906 3 3.4003906 3 L 28.599609 3 C 29.375209 3 30 3.6247906 30 4.4003906 L 30 3.4003906 C 30 2.6247906 29.375209 2 28.599609 2 L 3.4003906 2 z"/>
</svg>
