<svg xmlns="http://www.w3.org/2000/svg" width="32" height="32" version="1.1">
 <circle style="opacity:0.2" cx="16" cy="17" r="14"/>
 <circle style="fill:#808080" cx="16" cy="16" r="14"/>
 <path style="opacity:0.2" d="M 8.3984375,7 C 8.1816068,6.99918 8.0043584,7.1722902 8.0039062,7.3867188 L 8,10.611328 c -6.314e-4,0.262132 0.2568256,0.449491 0.5097656,0.371094 L 12.722656,9.6835938 c 0.274653,-0.08406 0.367713,-0.4228858 0.173828,-0.6328126 L 11.117188,7.1308594 c -0.07378,-0.079721 -0.17784,-0.1263666 -0.28711,-0.1269532 z m 4.0957035,3.566406 c -0.212126,0.02496 -0.317341,0.278857 -0.189453,0.455078 l 7.197265,9.859375 c -1.058447,-0.157445 -2.191951,-0.242084 -3.341797,-0.25 3.76e-4,-0.0242 -0.0046,-0.05028 -0.01563,-0.07422 l -4.185547,-9.117188 c -0.02861,-0.0619 -0.09196,-0.0995 -0.158203,-0.09375 -0.107361,0.0086 -0.176192,0.12136 -0.136719,0.224609 l 0.0059,0.0098 3.541016,9.0625 c -1.213065,0.03725 -2.393519,0.159982 -3.466797,0.361328 l -0.900391,-9.36914 v -0.01172 c -0.006,-0.08637 -0.07613,-0.152661 -0.160156,-0.152344 -0.08837,-9.7e-5 -0.183696,0.07296 -0.183594,0.164063 v 9.65039 c -0.483521,0.120573 -0.6521461,0.186443 -1.0585938,0.337891 L 10.117188,11.6875 c 0.01107,-0.172061 -0.1260482,-0.314233 -0.2929692,-0.302734 -0.1234816,0.0086 -0.2279115,0.09996 -0.2539063,0.224609 l -2.53125,11.970703 c -0.00928,0.03536 -0.017582,0.07002 -0.023437,0.105469 l -0.00977,0.04492 c -0.00319,0.01501 0.00285,0.02819 0.00195,0.04297 -0.00353,0.02549 -0.00607,0.05066 -0.00781,0.07617 -1.461e-4,1.739812 4.029238,3.150476 9,3.150391 4.970522,-3.4e-5 9.000144,-1.410662 9,-3.150391 -8.3e-4,-0.428324 -0.251649,-0.852796 -0.736328,-1.246093 l -11.517578,-11.923829 -0.02539,-0.0293 c -0.05931,-0.06227 -0.142408,-0.0934 -0.226562,-0.08399 z M 15,21.5 c 3.313497,3e-6 5.999698,0.895403 6,2 -3.02e-4,1.104595 -2.686503,1.999996 -6,2 -3.313497,-4e-6 -5.9996972,-0.895405 -6,-2 3.028e-4,-1.104597 2.686503,-1.999997 6,-2 z"/>
 <path style="fill:#8b9cbe" d="M 12.494141 9.5664062 C 12.282015 9.5913633 12.1768 9.8452631 12.304688 10.021484 L 19.501953 19.880859 C 18.443506 19.723414 17.310002 19.638775 16.160156 19.630859 C 16.160532 19.606659 16.155511 19.580581 16.144531 19.556641 L 11.958984 10.439453 C 11.930374 10.377553 11.867022 10.339953 11.800781 10.345703 C 11.69342 10.354303 11.624589 10.467062 11.664062 10.570312 L 11.669922 10.580078 L 15.210938 19.642578 C 13.997874 19.679828 12.817419 19.80256 11.744141 20.003906 L 10.84375 10.634766 L 10.84375 10.623047 C 10.83775 10.536677 10.767623 10.470386 10.683594 10.470703 C 10.595224 10.470606 10.499898 10.543661 10.5 10.634766 L 10.5 20.285156 C 10.016479 20.405729 9.8478539 20.471599 9.4414062 20.623047 L 10.117188 10.6875 C 10.128258 10.515439 9.9911398 10.373267 9.8242188 10.384766 C 9.7007372 10.393366 9.5963073 10.484726 9.5703125 10.609375 L 7.0390625 22.580078 C 7.0297825 22.615438 7.021481 22.650101 7.015625 22.685547 L 7.0058594 22.730469 C 7.0026694 22.745479 7.0087125 22.758658 7.0078125 22.773438 C 7.0042825 22.798928 7.00174 22.824099 7 22.849609 C 6.9998539 24.589421 11.029238 26.000085 16 26 C 20.970522 25.999966 25.000144 24.589338 25 22.849609 C 24.99917 22.421285 24.748351 21.996813 24.263672 21.603516 L 12.746094 9.6796875 L 12.720703 9.6503906 C 12.661393 9.5881196 12.578295 9.5569872 12.494141 9.5664062 z M 15 20.5 C 18.313497 20.500003 20.999698 21.395403 21 22.5 C 20.999698 23.604595 18.313497 24.499996 15 24.5 C 11.686503 24.499996 9.0003028 23.604595 9 22.5 C 9.0003028 21.395403 11.686503 20.500003 15 20.5 z"/>
 <path style="fill:#8b9cbe" d="m 8.3982691,6.0000033 c -0.2168307,-8.2e-4 -0.3931757,0.1725394 -0.3936279,0.386968 l -0.00464,3.2240538 C 7.9993698,9.8731572 8.2564626,10.060375 8.5094026,9.9819782 L 12.723537,8.6836583 c 0.274653,-0.08406 0.367545,-0.4220581 0.17366,-0.6319848 L 11.116614,6.130524 C 11.042834,6.0508033 10.938768,6.0051619 10.829498,6.0045753 Z"/>
 <path style="fill:#8b9cbe;opacity:0.1" d="M 16 2 A 14 14 0 0 0 2 16 A 14 14 0 0 0 2.0214844 16.585938 A 14 14 0 0 1 16 3 A 14 14 0 0 1 29.978516 16.414062 A 14 14 0 0 0 30 16 A 14 14 0 0 0 16 2 z"/>
</svg>
