<svg xmlns="http://www.w3.org/2000/svg" width="32" height="32" version="1.1">
 <rect style="opacity:0.2" width="28" height="28" x="2" y="3" rx="1.4" ry="1.4"/>
 <rect style="fill:#8e8e8e" width="28" height="28" x="2" y="2" rx="1.4" ry="1.4"/>
 <path style="opacity:0.2" d="M 16,5 A 10,10 0 0 0 6,15 V 29 H 13 V 24.537 A 10,10 0 0 0 16,25 10,10 0 0 0 18.234,24.734 L 23,29.5 28,24.5 24.207,20.707 A 10,10 0 0 0 26,15 10,10 0 0 0 16,5 Z"/>
 <path style="fill:#dddddd" d="M 16,4 A 10,10 0 0 0 6,14 V 28 H 13 V 23.537 A 10,10 0 0 0 16,24 10,10 0 0 0 18.234,23.734 L 23,28.5 28,23.5 24.207,19.707 A 10,10 0 0 0 26,14 10,10 0 0 0 16,4 Z"/>
 <path style="opacity:0.2" d="M 16,7 A 8,8 0 0 0 8,15 V 27 H 11 V 21.236 A 8,8 0 0 0 16,23 8,8 0 0 0 24,15 8,8 0 0 0 16,7 Z"/>
 <path style="fill:#333333" d="M 16,6 A 8,8 0 0 0 8,14 V 26 H 11 V 20.236 A 8,8 0 0 0 16,22 8,8 0 0 0 24,14 8,8 0 0 0 16,6 Z"/>
 <circle style="opacity:0.2" cx="16" cy="15" r="5"/>
 <circle style="fill:#8b9cbe" cx="16" cy="14" r="5"/>
 <path style="fill:#8b9cbe;opacity:0.1" d="M 16 6 A 8 8 0 0 0 8 14 L 8 15 A 8 8 0 0 1 16 7 A 8 8 0 0 1 23.979 14.576 A 8 8 0 0 0 24 14 A 8 8 0 0 0 16 6 z"/>
 <path style="fill:#8b9cbe;opacity:0.2" d="M 3.4004 2 C 2.6248 2 2 2.6248 2 3.4004 L 2 4.4004 C 2 3.6248 2.6248 3 3.4004 3 L 28.6 3 C 29.375 3 30 3.6248 30 4.4004 L 30 3.4004 C 30 2.6248 29.375 2 28.6 2 L 3.4004 2 z"/>
</svg>
