<svg xmlns="http://www.w3.org/2000/svg" width="32" height="32" version="1.1">
 <path style="opacity:0.2" d="M 16,2.9998 C 8.268,2.9998 2,9.2678 2,17 2.0058,19.358 2.607,21.676 3.748,23.74 4.2278,26.049 4.0324,27.959 3.1367,29.496 2.7433,30.17 3.2392,31.015 4.0195,31 6.0845,30.959 8.2242,30.38 10.312,29.781 12.102,30.581 14.04,30.996 16,31 23.732,31 30,24.732 30,17 30,9.2678 23.732,2.9998 16,2.9998 Z"/>
 <path style="fill:#a7bf3c" d="M 16,2 C 8.268,2 2,8.268 2,16 2.0058,18.358 2.607,20.676 3.748,22.74 4.2278,25.049 4.0324,26.959 3.1367,28.496 2.7433,29.17 3.2392,30.015 4.0195,30 6.0845,29.959 8.2242,29.38 10.312,28.781 12.102,29.581 14.04,29.996 16,30 23.732,30 30,23.732 30,16 30,8.268 23.732,2 16,2 Z"/>
 <path style="stroke:#000000;stroke-width:2;stroke-linejoin:round;opacity:0.2" d="M 16,15 20,11 22,13 18,17 22,21 20,23 16,19 12,23 10,21 14,17 10,13 12,11 Z"/>
 <path style="fill:#4f4f4f;stroke:#4f4f4f;stroke-width:2;stroke-linejoin:round" d="M 16,14 20,10 22,12 18,16 22,20 20,22 16,18 12,22 10,20 14,16 10,12 12,10 Z"/>
 <path style="opacity:0.1;fill:#8b9cbe" d="M 11.984,9 C 11.724,9.0043 11.477,9.1093 11.293,9.293 L 9.293,11.293 C 8.9733,11.613 8.9084,12.108 9.1348,12.5 9.1783,12.424 9.2315,12.355 9.293,12.293 L 11.293,10.293 C 11.477,10.109 11.724,10.004 11.984,10 12.255,9.9958 12.516,10.101 12.707,10.293 L 16,13.586 19.293,10.293 C 19.684,9.9027 20.316,9.9027 20.707,10.293 L 22.707,12.293 C 22.768,12.355 22.822,12.424 22.865,12.5 23.091,12.108 23.027,11.613 22.707,11.293 L 20.707,9.293 C 20.316,8.9027 19.684,8.9027 19.293,9.293 L 16,12.586 12.707,9.293 C 12.516,9.1015 12.255,8.9958 11.984,9 Z M 12.086,16.5 9.293,19.293 C 8.9733,19.613 8.9084,20.108 9.1348,20.5 9.1783,20.424 9.2315,20.355 9.293,20.293 L 12.586,17 Z M 19.914,16.5 19.414,17 22.707,20.293 C 22.768,20.355 22.822,20.424 22.865,20.5 23.091,20.108 23.027,19.613 22.707,19.293 Z"/>
 <path style="opacity:0.2;fill:#8b9cbe" d="M 16 2 C 8.268 2 2 8.268 2 16 C 2.0005 16.201 2.0104 16.403 2.0195 16.604 C 2.2313 9.0564 8.4018 3 16 3 C 23.563 3 29.709 9.0013 29.975 16.5 C 29.981 16.333 30 16.169 30 16 C 30 8.268 23.732 2 16 2 z M 3.9824 25.492 C 3.9226 26.617 3.6477 27.619 3.1367 28.496 C 2.9417 28.83 2.9664 29.205 3.1348 29.498 C 3.1352 29.497 3.1363 29.497 3.1367 29.496 C 3.7946 28.367 4.0702 27.034 3.9824 25.492 z"/>
</svg>
