<svg xmlns="http://www.w3.org/2000/svg" width="32" height="32" version="1">
 <path style="opacity:0.2" d="M 10,29 8,27 H 4 C 2.892,27 2,26.108 2,25 V 7 C 2,5.892 2.892,5 4,5 H 28 C 29.108,5 30,5.892 30,7 V 25 C 30,26.108 29.108,27 28,27 H 24 L 22,29 Z"/>
 <path style="fill:#afafb1" d="M 10,28 8,26 H 4 C 2.892,26 2,25.108 2,24 V 6 C 2,4.892 2.892,4 4,4 H 28 C 29.108,4 30,4.892 30,6 V 24 C 30,25.108 29.108,26 28,26 H 24 L 22,28 Z"/>
 <path style="opacity:0.6" d="M 12,24 10,22 H 6 V 8 H 26 V 22 H 22 L 20,24 Z"/>
 <g style="fill:#f8c44e" transform="scale(1,-1)">
  <rect width="2" height="2" x="9" y="-10"/>
  <rect width="2" height="2" x="12" y="-10"/>
  <rect width="2" height="2" x="15" y="-10"/>
  <rect width="2" height="2" x="18" y="-10"/>
  <rect width="2" height="2" x="21" y="-10"/>
 </g>
 <path style="fill:#8b9cbe;opacity:0.2" d="M 4 4 C 2.892 4 2 4.892 2 6 L 2 7 C 2 5.892 2.892 5 4 5 L 28 5 C 29.108 5 30 5.892 30 7 L 30 6 C 30 4.892 29.108 4 28 4 L 4 4 z"/>
 <path style="opacity:0.2;fill:#8b9cbe" d="M 6,22 V 23 H 10 L 12,25 H 20 L 22,23 H 26 V 22 H 22 L 20,24 H 12 L 10,22 Z"/>
</svg>
