<svg xmlns="http://www.w3.org/2000/svg" width="32" height="32" version="1">
 <path opacity=".2" d="m22.5 23a5.5 5.5 0 0 0 5.5 -5.5 5.5 5.5 0 0 0 -5.5 -5.5 5.5 5.5 0 0 0 -2.5 0.607v-5.607h-3v10.5 5.5h3v-0.60156a5.5 5.5 0 0 0 2.5 0.602zm0-3a2.5 2.5 0 0 1 -2.5 -2.5 2.5 2.5 0 0 1 2.5 -2.5 2.5 2.5 0 0 1 2.5 2.5 2.5 2.5 0 0 1 -2.5 2.5z"/>
 <path opacity=".2" d="m9.5 12a5.5 5.5 0 0 0 -5.5 5.5 5.5 5.5 0 0 0 5.5 5.5 5.5 5.5 0 0 0 2.5 -0.607v5.607h3v-10.5-5.5h-3v0.60156a5.5 5.5 0 0 0 -2.5 -0.602zm0 3a2.5 2.5 0 0 1 2.5 2.5 2.5 2.5 0 0 1 -2.5 2.5 2.5 2.5 0 0 1 -2.5 -2.5 2.5 2.5 0 0 1 2.5 -2.5z"/>
 <circle opacity=".2" cx="16" cy="17" r="14"/>
 <circle fill="#2f67ba" cx="16" cy="16" r="14"/>
 <path style="opacity:0.2" d="M 9.5,12 C 6.4624339,12 4,14.462434 4,17.5 4,20.537566 6.4624339,23 9.5,23 10.369602,22.9981 11.226371,22.789703 12,22.392578 L 12,26.5 A 1.5,1.5 0 0 0 13.5,28 1.5,1.5 0 0 0 15,26.5 l 0,-9 0,-5.5 -3,0 0,0.601562 C 11.225942,12.20617 10.369195,12.000303 9.5,12 Z m 0,3 C 10.880712,15 12,16.119288 12,17.5 12,18.880712 10.880712,20 9.5,20 8.1192881,20 7,18.880712 7,17.5 7,16.119288 8.1192881,15 9.5,15 Z"/>
 <path style="fill:#64d4f9" d="M 9.5 11 C 6.4624339 11 4 13.462434 4 16.5 C 4 19.537566 6.4624339 22 9.5 22 C 10.369602 21.9981 11.226371 21.789703 12 21.392578 L 12 25.5 A 1.5 1.5 0 0 0 13.5 27 A 1.5 1.5 0 0 0 15 25.5 L 15 16.5 L 15 11 L 12 11 L 12 11.601562 C 11.225942 11.20617 10.369195 11.000303 9.5 11 z M 9.5 14 C 10.880712 14 12 15.119288 12 16.5 C 12 17.880712 10.880712 19 9.5 19 C 8.1192881 19 7 17.880712 7 16.5 C 7 15.119288 8.1192881 14 9.5 14 z"/>
 <path style="opacity:0.2" d="M 18.5,7 A 1.5,1.5 0 0 0 17,8.5 l 0,9 0,5.5 3,0 0,-0.601562 C 20.774058,22.79383 21.630805,22.999697 22.5,23 25.537566,23 28,20.537566 28,17.5 28,14.462434 25.537566,12 22.5,12 21.630398,12.0019 20.773629,12.210297 20,12.607422 L 20,8.5 A 1.5,1.5 0 0 0 18.5,7 Z m 4,8 C 23.880712,15 25,16.119288 25,17.5 25,18.880712 23.880712,20 22.5,20 21.119288,20 20,18.880712 20,17.5 20,16.119288 21.119288,15 22.5,15 Z"/>
 <path style="fill:#8b9cbe" d="M 18.5 6 A 1.5 1.5 0 0 0 17 7.5 L 17 16.5 L 17 22 L 20 22 L 20 21.398438 C 20.774058 21.79383 21.630805 21.999697 22.5 22 C 25.537566 22 28 19.537566 28 16.5 C 28 13.462434 25.537566 11 22.5 11 C 21.630398 11.0019 20.773629 11.210297 20 11.607422 L 20 7.5 A 1.5 1.5 0 0 0 18.5 6 z M 22.5 14 C 23.880712 14 25 15.119288 25 16.5 C 25 17.880712 23.880712 19 22.5 19 C 21.119288 19 20 17.880712 20 16.5 C 20 15.119288 21.119288 14 22.5 14 z"/>
 <path fill="#fff" style="opacity:0.1" d="m16 2a14 14 0 0 0 -14 14 14 14 0 0 0 0.0215 0.586 14 14 0 0 1 13.978 -13.586 14 14 0 0 1 13.979 13.414 14 14 0 0 0 0.021 -0.414 14 14 0 0 0 -14 -14z"/>
</svg>
