<svg xmlns="http://www.w3.org/2000/svg" width="32" height="32" version="1.1">
 <path style="opacity:0.2" d="M 30,17 C 30,24.73199 23.731959,31 16.000001,31 8.2680002,31 2,24.73199 2,17 2,9.26801 8.2680002,3 16.000001,3 23.731959,3 30,9.26801 30,17 Z"/>
 <path style="fill:#336f33" d="m 28.188454,16.06965 c 0,3.58001 0.467816,6.77649 -1.74279,9.2519 C 23.881842,28.1926 20.151988,30 16.000001,30 8.2680002,30 2,23.73199 2,16 2,8.26801 8.2680002,2 16.000001,2 c 0.25445,0 0.832463,0.14616 1.083571,0.15953 3.500263,0.1869 5.544409,2.93678 7.898294,5.23138 2.608602,2.54282 3.206588,4.7481 3.206588,8.67874 z"/>
 <path style="opacity:0.2" d="m 16,2.999578 a 14,14 0 0 0 -0.861328,0.031445 c -1.142496,0.3231861 -2.903871,-0.036303 -3.340039,1.3425781 0.938646,0.0833 2.103162,-0.5815698 3.175976,-0.4949219 1.408445,-0.2990386 2.435386,0.5614291 3.549219,1.1402344 1.617434,0.086323 2.680267,1.5224583 3.108984,2.9558594 -0.265541,-0.021819 -1.442371,-0.5202974 -1.4875,0.4949217 0.444652,0.7655879 0.256268,2.3204293 1.29336,2.4869143 1.492292,0.264449 0.360537,-0.9961684 -0.06426,-1.5080077 1.115988,-0.5079816 2.297811,2.0839807 0.738281,1.9537107 0.338184,0.963725 -0.933054,2.168761 -0.194141,2.998242 0.729921,0.326965 -0.604622,0.925888 -0.571484,1.436915 0.188991,1.765949 2.342734,0.445242 1.683008,-0.888673 -0.335978,-1.385693 2.972617,-0.43547 1.164844,-1.510742 0.53884,-0.449217 2.198201,1.180176 1.622852,-0.508593 0.51548,0.767692 1.328274,-0.556898 1.65703,0.319922 0.122603,0.995023 -0.949462,2.12007 -1.614648,2.645507 -1.20714,-0.635704 -2.224299,0.0038 -3.059765,0.940625 -0.812622,1.079247 -1.111719,2.459896 -1.471094,3.740625 -0.382589,1.313168 0.04515,3.114502 1.554492,3.433008 1.357424,0.289959 2.131274,-1.254015 3.37832,-1.372656 0.773779,0.260537 0.611058,1.363983 0.888672,2.034375 0.08262,0.53635 -0.405819,0.994002 -0.596094,1.51211 A 14,14 0 0 0 30,16.999578 a 14,14 0 0 0 -14,-14 z M 10.405468,5.0435233 C 9.6130999,5.1004571 8.7346839,5.5479455 8.9589842,6.3861014 8.1696194,7.6197278 7.0948373,8.6548311 6.0810547,9.7056326 4.6083926,10.777496 3.8164908,12.57799 3.7691407,14.373211 c -0.034388,1.418465 -0.3755752,2.957212 0.2378906,4.291601 0.7689048,1.092888 1.3448583,2.302036 2.0412109,3.438477 L 6.2150388,22.26325 C 6.3666147,21.42657 5.637718,20.242518 5.7146484,19.247235 c -1.738732,0.116649 -1.523695,-3.189297 0.2707032,-2.555274 0.9445622,-0.116199 0.9677259,1.515677 1.4355471,1.285156 1.0836154,-1.054057 2.1784602,-2.208109 3.6736333,-2.631836 1.248063,0.445039 0.106033,-1.261634 1.216796,-1.183985 1.707566,-0.144767 0.473608,-1.985996 -0.125781,-2.672851 -0.693721,-1.6160612 -1.667724,2.524398 -2.13418,0.667188 C 9.1550395,11.207036 10.546791,9.038065 11.399414,10.370086 11.643439,10.237254 12.486781,8.7295547 11.273633,8.7226247 10.334833,7.8364863 10.85954,6.2951519 11.481445,5.362078 11.324512,5.1159656 10.88089,5.009363 10.405468,5.0435233 Z m 1.231837,1.9933594 c -0.221746,-0.053745 -0.656878,0.6027972 -0.64668,1.0431637 0.277334,0.5266639 0.798724,-0.052787 0.754687,-0.4429684 0.04967,-0.4050025 -0.0072,-0.575766 -0.108007,-0.6001953 z m 3.07207,0.220117 c -0.521086,-0.038773 -1.375377,0.6773823 -0.410157,0.6371099 0.524816,1.0874493 0.249147,2.5449674 0.501758,3.7843754 0.671207,1.179521 1.441568,-1.424283 2.120508,-1.6912116 0.43959,-1.206415 -0.377702,-3.1570765 -1.88125,-2.384375 C 15.02027,7.3663691 14.88307,7.2699238 14.709375,7.2569997 Z m -1.549024,0.7642579 c -0.05618,-0.017647 -0.123646,0.010675 -0.190039,0.13125 0.419866,0.3864665 0.358594,-0.078303 0.190039,-0.13125 z m 4.746875,2.7083984 c -0.116697,0.0027 -0.226879,0.07193 -0.277539,0.259765 l 0.164063,0.09981 c 0.882517,0.221937 0.46357,-0.367673 0.113476,-0.359571 z m 7.903711,0.12168 c 0.344717,-0.0346 0.678883,0.226104 0.375977,0.817578 -0.149518,0.691063 -0.555703,0.825712 -0.818946,0.135351 -0.256762,-0.588991 0.09825,-0.918329 0.442969,-0.952929 z m -5.100976,1.456054 c -0.215342,-0.02097 -0.275859,0.145852 0.173632,0.642579 0.140141,0.148996 0.299908,0.40815 0.54004,0.381445 0.432899,-0.431513 -0.35477,-0.989065 -0.713672,-1.024024 z m -0.4375,0.630274 c -0.04891,0.02367 -0.08486,0.12237 -0.0752,0.35 0.486913,0.182516 0.221919,-0.421006 0.0752,-0.35 z m -7.332227,1.47793 c -0.115654,0.02364 -0.153115,0.202462 0.06289,0.672656 0.827815,-0.02279 0.191551,-0.724669 -0.06289,-0.672656 z m -5.5207024,5.377148 c -0.046466,-0.01493 -0.040901,0.04432 0.079297,0.250195 0.6624317,0.513887 0.060102,-0.205411 -0.079297,-0.250195 z m 1.203125,1.107422 c -0.092058,-0.0037 -0.1861874,0.05939 -0.2460941,0.246094 0.7759269,0.371798 0.5222686,-0.234927 0.2460941,-0.246094 z m -0.8941408,1.733594 c -0.4930499,0.01173 -0.8546979,0.311186 -0.8230474,1.145703 -0.887125,1.31396 -0.027846,2.636302 0.9734382,3.554687 0.6746831,0.465069 0.9843757,1.224053 1.3535151,1.916797 A 14,14 0 0 0 13.167187,30.707 c 0.227913,-0.06277 0.450268,-0.140579 0.660352,-0.246094 1.363624,-0.294234 3.094615,-1.480517 2.882031,-2.929883 C 15.689253,26.563582 13.939326,27.126054 12.97168,26.083171 12.402615,24.716095 10.946478,24.136578 9.7273434,23.485515 9.214025,23.079175 8.3624365,22.618676 7.7285158,22.633758 Z"/>
 <path style="fill:#ffbf23" d="m 16,2 a 14,14 0 0 0 -0.861328,0.031445 c -1.142496,0.3231861 -2.903871,-0.036303 -3.340039,1.3425781 0.938646,0.0833 2.103162,-0.5815698 3.175976,-0.4949219 1.408445,-0.2990386 2.435386,0.5614291 3.549219,1.1402344 1.617434,0.086323 2.680267,1.5224583 3.108984,2.9558594 -0.265541,-0.021819 -1.442371,-0.5202974 -1.4875,0.4949217 0.444652,0.7655879 0.256268,2.3204293 1.29336,2.4869145 1.492292,0.2644488 0.360537,-0.9961686 -0.06426,-1.5080079 1.115988,-0.5079816 2.297811,2.0839807 0.738281,1.9537107 0.338184,0.963725 -0.933054,2.168761 -0.194141,2.998242 0.729921,0.326965 -0.604622,0.925888 -0.571484,1.436915 0.188991,1.765949 2.342734,0.445242 1.683008,-0.888673 -0.335978,-1.385693 2.972617,-0.43547 1.164844,-1.510742 0.53884,-0.449217 2.198201,1.180176 1.622852,-0.508593 0.51548,0.767692 1.328274,-0.556898 1.65703,0.319922 0.122603,0.995023 -0.949462,2.12007 -1.614648,2.645507 -1.20714,-0.635704 -2.224299,0.0038 -3.059765,0.940625 -0.812622,1.079247 -1.111719,2.459896 -1.471094,3.740625 -0.382589,1.313168 0.04515,3.114502 1.554492,3.433008 1.357424,0.289959 2.131274,-1.254015 3.37832,-1.372656 0.773779,0.260537 0.611058,1.363983 0.888672,2.034375 0.08262,0.53635 -0.405819,0.994002 -0.596094,1.51211 A 14,14 0 0 0 30,16 14,14 0 0 0 16,2 Z M 10.405468,4.0439453 C 9.6130999,4.1008791 8.7346839,4.5483675 8.9589842,5.3865234 8.1696194,6.6201498 7.0948373,7.6552531 6.0810547,8.7060546 4.6083926,9.7779184 3.8164908,11.578412 3.7691407,13.373633 c -0.034388,1.418465 -0.3755752,2.957212 0.2378906,4.291601 0.7689048,1.092888 1.3448583,2.302036 2.0412109,3.438477 l 0.1667966,0.159961 C 6.3666147,20.426992 5.637718,19.24294 5.7146484,18.247657 c -1.738732,0.116649 -1.523695,-3.189297 0.2707032,-2.555274 0.9445622,-0.116199 0.9677259,1.515677 1.4355471,1.285156 1.0836154,-1.054057 2.1784602,-2.208109 3.6736333,-2.631836 1.248063,0.445039 0.106033,-1.261634 1.216796,-1.183985 1.707566,-0.144767 0.473608,-1.985996 -0.125781,-2.672851 -0.693721,-1.6160612 -1.667724,2.524398 -2.13418,0.667188 C 9.1550395,10.207458 10.546791,8.038487 11.399414,9.3705079 11.643439,9.2376759 12.486781,7.7299767 11.273633,7.7230467 10.334833,6.8369083 10.85954,5.2955739 11.481445,4.3625 11.324512,4.1163876 10.88089,4.009785 10.405468,4.0439453 Z m 1.231837,1.9933594 c -0.221746,-0.053745 -0.656878,0.6027972 -0.64668,1.0431637 0.277334,0.5266639 0.798724,-0.052787 0.754687,-0.4429684 0.04967,-0.4050025 -0.0072,-0.575766 -0.108007,-0.6001953 z m 3.07207,0.220117 c -0.521086,-0.038773 -1.375377,0.6773823 -0.410157,0.6371099 0.524816,1.0874493 0.249147,2.5449669 0.501758,3.7843754 0.671207,1.179521 1.441568,-1.4242834 2.120508,-1.6912116 0.43959,-1.206415 -0.377702,-3.1570765 -1.88125,-2.384375 C 15.02027,6.3667911 14.88307,6.2703458 14.709375,6.2574217 Z m -1.549024,0.7642579 c -0.05618,-0.017647 -0.123646,0.010675 -0.190039,0.13125 0.419866,0.3864665 0.358594,-0.078303 0.190039,-0.13125 z m 4.746875,2.7083987 c -0.116697,0.00273 -0.226879,0.07193 -0.277539,0.2597651 l 0.164063,0.099806 c 0.882517,0.221937 0.46357,-0.3676735 0.113476,-0.3595707 z m 7.903711,0.1216796 c 0.344717,-0.034601 0.678883,0.2261041 0.375977,0.8175781 -0.149518,0.691063 -0.555703,0.825712 -0.818946,0.135351 -0.256762,-0.588991 0.09825,-0.9183295 0.442969,-0.9529291 z m -5.100976,1.4560541 c -0.215342,-0.02097 -0.275859,0.145852 0.173632,0.642579 0.140141,0.148996 0.299908,0.40815 0.54004,0.381445 0.432899,-0.431513 -0.35477,-0.989065 -0.713672,-1.024024 z m -0.4375,0.630274 c -0.04891,0.02367 -0.08486,0.12237 -0.0752,0.35 0.486913,0.182516 0.221919,-0.421006 0.0752,-0.35 z m -7.332227,1.47793 c -0.115654,0.02364 -0.153115,0.202462 0.06289,0.672656 0.827815,-0.02279 0.191551,-0.724669 -0.06289,-0.672656 z m -5.5207024,5.377148 c -0.046466,-0.01493 -0.040901,0.04432 0.079297,0.250195 0.6624317,0.513887 0.060102,-0.205411 -0.079297,-0.250195 z m 1.203125,1.107422 c -0.092058,-0.0037 -0.1861874,0.05939 -0.2460941,0.246094 0.7759269,0.371798 0.5222686,-0.234927 0.2460941,-0.246094 z M 7.7285158,21.63418 c -0.4930499,0.01173 -0.8546979,0.311186 -0.8230474,1.145703 -0.887125,1.31396 -0.027846,2.636302 0.9734382,3.554687 0.6746831,0.465069 0.9843757,1.224053 1.3535151,1.916797 a 14,14 0 0 0 3.9347653,1.456055 c 0.227913,-0.06277 0.450268,-0.140579 0.660352,-0.246094 1.363624,-0.294234 3.094615,-1.480517 2.882031,-2.929883 C 15.689253,25.564004 13.939326,26.126476 12.97168,25.083593 12.402615,23.716517 10.946478,23.137 9.7273434,22.485937 9.214025,22.079597 8.3624365,21.619098 7.7285158,21.63418 Z"/>
 <path style="opacity:0.1;fill:#8b9cbe" d="M 16 2 C 8.2679992 2 2 8.26801 2 16 C 2 16.168777 2.0194674 16.332668 2.0253906 16.5 C 2.2908197 9.001544 8.4367767 3 16 3 C 23.563181 3 29.709179 9.001544 29.974609 16.5 C 29.980533 16.332668 30 16.168777 30 16 C 30 8.26801 23.731958 2 16 2 z"/>
 <path style="opacity:0.2;fill:#8b9cbe" d="M 16 2 A 14 14 0 0 0 15.138672 2.03125 C 13.996176 2.3544361 12.234996 1.9941658 11.798828 3.3730469 C 12.737474 3.4563469 13.901795 2.7922584 14.974609 2.8789062 C 15.573856 2.7516753 16.102409 2.8399203 16.599609 3.0214844 A 14 14 0 0 1 29.976562 16.537109 A 14 14 0 0 0 30 16 A 14 14 0 0 0 16 2 z M 10.40625 4.0429688 C 9.6138819 4.0999026 8.7346841 4.5485629 8.9589844 5.3867188 C 8.1696196 6.6203452 7.0958138 7.6542766 6.0820312 8.7050781 C 4.6093692 9.7769419 3.8168813 11.577826 3.7695312 13.373047 C 3.7471132 14.297765 3.5977587 15.273926 3.6640625 16.210938 C 3.6930496 15.593941 3.7550205 14.9716 3.7695312 14.373047 C 3.8168813 12.577826 4.6093692 10.776942 6.0820312 9.7050781 C 7.0958138 8.6542766 8.1696196 7.6203451 8.9589844 6.3867188 C 8.7346841 5.5485629 9.6138819 5.0999025 10.40625 5.0429688 C 10.653114 5.025231 10.888001 5.0474764 11.082031 5.1054688 C 11.1994 4.836732 11.334955 4.5816019 11.480469 4.3632812 C 11.323536 4.1171689 10.881672 4.0088085 10.40625 4.0429688 z M 11.636719 6.0371094 C 11.414973 5.9833644 10.980036 6.6397116 10.990234 7.0800781 C 11.078208 7.2471413 11.191484 7.2954399 11.302734 7.28125 C 11.408928 7.1424245 11.517191 7.0492484 11.605469 7.0488281 C 11.694233 6.9212928 11.761541 6.7735894 11.746094 6.6367188 C 11.795764 6.2317162 11.737526 6.0615387 11.636719 6.0371094 z M 14.708984 6.2578125 C 14.187898 6.2190395 13.333608 6.9348036 14.298828 6.8945312 C 14.360497 7.0223133 14.409453 7.1559214 14.451172 7.2929688 C 14.53991 7.268346 14.628238 7.2518043 14.708984 7.2578125 C 14.882679 7.2707366 15.021052 7.3669863 15.041016 7.6035156 C 16.079062 7.0700442 16.776597 7.8381721 16.972656 8.7597656 C 17.247492 7.5533646 16.455202 5.8767389 15.041016 6.6035156 C 15.021052 6.3669863 14.882679 6.2707366 14.708984 6.2578125 z M 20.806641 6.8339844 C 20.473599 6.8335398 20.167096 6.9630936 20.144531 7.4707031 C 20.22979 7.6174996 20.288031 7.7968482 20.339844 7.9863281 C 20.694251 7.6671792 21.429323 7.957889 21.632812 7.9746094 C 21.521554 7.6026198 21.365204 7.2315307 21.169922 6.8828125 C 21.051573 6.8595845 20.930506 6.8341497 20.806641 6.8339844 z M 10.820312 6.9375 C 10.69552 7.5913917 10.772571 8.2498861 11.273438 8.7226562 C 11.504013 8.7239734 11.641956 8.7908576 11.742188 8.8808594 C 11.916123 8.5163018 12.004694 8.0634132 11.705078 7.8496094 C 11.600114 8.1946915 11.219769 8.51597 10.990234 8.0800781 C 10.986441 7.9162917 11.053148 7.7286623 11.138672 7.5527344 C 10.987715 7.3648415 10.875415 7.1604502 10.820312 6.9375 z M 13.160156 7.0214844 C 13.103976 7.0038374 13.037096 7.0317688 12.970703 7.1523438 C 13.390569 7.5388103 13.328711 7.0744314 13.160156 7.0214844 z M 21.583984 9.3886719 C 21.514406 9.3976238 21.444749 9.4174699 21.375 9.4492188 C 21.489849 9.5876012 21.650362 9.7795107 21.802734 9.9824219 C 22.170518 9.9730176 22.229627 9.7910814 22.136719 9.5410156 C 21.964618 9.4312176 21.777435 9.3637824 21.583984 9.3886719 z M 17.90625 9.7304688 C 17.789553 9.7331987 17.679566 9.8023993 17.628906 9.9902344 L 17.792969 10.089844 C 18.675486 10.311781 18.256344 9.7223663 17.90625 9.7304688 z M 11.771484 10.109375 C 11.144942 10.214513 10.429777 12.665233 10.050781 11.15625 C 9.9623333 11.062644 9.9020735 10.954633 9.8554688 10.841797 C 9.7041393 11.287581 9.7193417 11.805483 10.050781 12.15625 C 10.517237 14.01346 11.491826 9.87222 12.185547 11.488281 C 12.453936 11.795835 12.839219 12.333143 13.041016 12.847656 C 13.500387 12.2606 12.653373 11.024375 12.185547 10.488281 C 12.055474 10.18527 11.916071 10.085112 11.771484 10.109375 z M 22.714844 10.230469 C 22.596315 10.356631 22.40275 10.426524 22.113281 10.402344 C 22.126866 10.441056 22.124187 10.482034 22.132812 10.521484 C 22.169825 10.614623 22.181152 10.696062 22.171875 10.767578 C 22.169375 11.573082 21.449469 12.480645 21.792969 13.185547 C 21.974636 12.589142 22.307725 11.956452 22.113281 11.402344 C 22.918471 11.469602 22.984817 10.813226 22.714844 10.230469 z M 26.097656 10.910156 C 25.942536 11.285247 25.697888 11.34224 25.486328 11.003906 C 25.304463 11.157061 25.199047 11.418986 25.367188 11.804688 C 25.519059 12.202974 25.718381 12.318083 25.888672 12.21875 C 25.869213 12.127891 25.860967 12.054748 25.818359 11.929688 C 25.877193 12.017306 25.940442 12.071835 26.005859 12.111328 C 26.080689 12.010977 26.144986 11.864465 26.1875 11.667969 C 26.398859 11.255255 26.293808 11.012825 26.097656 10.910156 z M 20.710938 11.308594 C 20.495596 11.287624 20.433321 11.454445 20.882812 11.951172 C 21.022953 12.100168 21.183696 12.358736 21.423828 12.332031 C 21.856727 11.900518 21.069839 11.343553 20.710938 11.308594 z M 20.273438 11.9375 C 20.224528 11.96117 20.187606 12.061433 20.197266 12.289062 C 20.684179 12.471578 20.420157 11.866494 20.273438 11.9375 z M 27.349609 13.046875 C 27.058918 13.79406 26.350004 14.506978 25.859375 14.894531 C 24.80838 14.341057 23.91102 14.775334 23.142578 15.509766 C 23.122308 16.042763 22.736445 16.47732 22.318359 16.621094 C 21.8499 17.543443 21.607175 18.588662 21.330078 19.576172 C 21.199573 20.024107 21.171399 20.52841 21.240234 21.011719 C 21.262268 20.863324 21.289372 20.715889 21.330078 20.576172 C 21.689453 19.295443 21.988159 17.915184 22.800781 16.835938 C 23.636247 15.899112 24.652235 15.258827 25.859375 15.894531 C 26.524561 15.369094 27.597212 14.245023 27.474609 13.25 C 27.439015 13.155066 27.395561 13.095646 27.349609 13.046875 z M 13.166016 13.492188 C 13.152738 13.670553 13.090719 13.828487 12.947266 13.945312 C 12.966137 13.993407 12.978096 14.031708 13.003906 14.087891 C 13.632 14.070599 13.417336 13.665444 13.166016 13.492188 z M 21.783203 14.167969 C 21.566678 14.389289 21.333572 14.620698 21.347656 14.837891 C 21.375528 15.098326 21.448866 15.283893 21.546875 15.419922 C 21.878091 15.028515 22.454644 14.640792 21.917969 14.400391 C 21.852475 14.326869 21.819633 14.246962 21.783203 14.167969 z M 23.150391 14.410156 C 23.029636 14.533289 22.969724 14.70352 23.029297 14.949219 C 23.031222 14.95311 23.031326 14.957046 23.033203 14.960938 C 23.112178 14.79125 23.161008 14.608683 23.150391 14.410156 z M 4.6035156 17.449219 C 4.3757444 18.246881 4.7101384 19.315451 5.7148438 19.248047 C 5.6685124 19.847457 5.9023956 20.507723 6.0722656 21.126953 L 6.2148438 21.263672 C 6.3664197 20.426992 5.6379134 19.24333 5.7148438 18.248047 C 5.1166573 18.288178 4.7544488 17.919483 4.6035156 17.449219 z M 7.4199219 18.792969 C 7.3734559 18.778039 7.3778489 18.837094 7.4980469 19.042969 C 8.1604786 19.556856 7.5593209 18.837753 7.4199219 18.792969 z M 8.6230469 19.900391 C 8.5309889 19.896691 8.4368598 19.95978 8.3769531 20.146484 C 9.15288 20.518282 8.8992214 19.911558 8.6230469 19.900391 z M 7.7285156 21.634766 C 7.2354657 21.646496 6.8745995 21.94478 6.90625 22.779297 C 6.5251827 23.343712 6.4770337 23.908532 6.6132812 24.443359 C 6.6711866 24.222772 6.7562986 24.001396 6.90625 23.779297 C 6.8745995 22.94478 7.2354657 22.644543 7.7285156 22.632812 C 8.3624363 22.617731 9.2132441 23.079988 9.7265625 23.486328 C 10.945697 24.137391 12.403591 24.716908 12.972656 26.083984 C 13.902733 27.086377 15.547111 26.619218 16.580078 27.439453 C 16.69693 27.152669 16.755769 26.850222 16.708984 26.53125 C 15.688667 25.563809 13.940302 26.126867 12.972656 25.083984 C 12.403591 23.716908 10.945697 23.137391 9.7265625 22.486328 C 9.2132441 22.079988 8.3624363 21.619684 7.7285156 21.634766 z M 27.039062 24.242188 C 26.899691 24.554457 26.674223 24.858106 26.554688 25.183594 A 14 14 0 0 0 27.103516 24.486328 C 27.080168 24.406777 27.056434 24.327866 27.039062 24.242188 z"/>
</svg>
