<svg xmlns="http://www.w3.org/2000/svg" width="32" height="32" version="1.1">
 <g transform="translate(0,-1090.5197)">
  <path style="opacity:0.2" d="m 14,1105.5197 v 4.2363 l 0.693359,0.7071 2.847657,2.8476 0.128906,0.1289 0.330078,0.3301 1.410156,1.4102 0.25586,0.2558 0.333984,0.334 6.75,6.75 H 31 v -4.25 l -6.75,-6.75 -0.333984,-0.334 -0.28125,-0.2812 -1.384766,-1.3848 -0.441406,-0.4414 -0.01758,-0.018 -3.541016,-3.541 z"/>
  <path style="opacity:0.2" d="m 16,1093.5197 a 14,14 0 0 0 -14,14 14,14 0 0 0 14,14 14,14 0 0 0 6.175781,-1.4531 l -3.236328,-3.2364 -0.333984,-0.3339 -0.25586,-0.2559 -0.865234,-0.8652 A 8,8 0 0 1 16,1115.5197 a 8,8 0 0 1 -8,-8 8,8 0 0 1 8,-8 8,8 0 0 1 8,8 8,8 0 0 1 -0.144531,1.4844 l 0.839843,0.8398 0.28125,0.2813 0.333985,0.334 3.242187,3.2421 A 14,14 0 0 0 30,1107.5197 a 14,14 0 0 0 -14,-14 z"/>
  <path style="fill:#90ae24" transform="translate(0,1090.5197)" d="M 16 2 A 14 14 0 0 0 2 16 A 14 14 0 0 0 16 30 A 14 14 0 0 0 22.175781 28.546875 L 18.939453 25.310547 L 18.605469 24.976562 L 18.349609 24.720703 L 17.484375 23.855469 A 8 8 0 0 1 16 24 A 8 8 0 0 1 8 16 A 8 8 0 0 1 16 8 A 8 8 0 0 1 24 16 A 8 8 0 0 1 23.855469 17.484375 L 24.695312 18.324219 L 24.976562 18.605469 L 25.310547 18.939453 L 28.552734 22.181641 A 14 14 0 0 0 30 16 A 14 14 0 0 0 16 2 z"/>
  <path style="fill:#ee7913" transform="translate(0,1090.5197)" d="M 14 14 L 14 18.236328 L 14.693359 18.943359 L 17.541016 21.791016 L 17.669922 21.919922 L 18 22.25 L 18 18 L 22.25 18 L 21.808594 17.558594 L 21.791016 17.541016 L 18.25 14 L 14 14 z"/>
  <path style="fill:#609a30" d="m 19.409343,1109.8571 v 4.3218 l 7.340658,7.3408 h 4.25 v -4.25 l -7.365561,-7.3656 -0.04981,-0.046 z"/>
  <path style="fill:#f0e64a" transform="translate(0,1090.5197)" d="M 18 18 L 18 22.25 L 19.410156 23.660156 L 19.666016 23.916016 L 20 24.25 L 20 20 L 24.25 20 L 23.916016 19.666016 L 23.634766 19.384766 L 22.25 18 L 18 18 z"/>
  <path style="opacity:0.2;fill:#8b9cbe" d="m 14,1104.5197 17.000001,17 v -4.25 l -7.083334,-7.0833 -0.282227,-0.2823 -1.826171,-1.8261 -0.0166,-0.017 -3.541667,-3.5416 z"/>
  <path style="opacity:0.2;fill:#8b9cbe" transform="translate(0,1090.5197)" d="M 16 2 A 14 14 0 0 0 2 16 A 14 14 0 0 0 2.0214844 16.414062 A 14 14 0 0 1 16 3 A 14 14 0 0 1 29.982422 16.632812 A 14 14 0 0 0 30 16 A 14 14 0 0 0 16 2 z M 23.978516 16.412109 A 8 8 0 0 1 23.855469 17.484375 L 23.96875 17.597656 A 8 8 0 0 0 24 17 A 8 8 0 0 0 23.978516 16.412109 z M 8.0214844 16.576172 A 8 8 0 0 0 8 17 A 8 8 0 0 0 16 25 A 8 8 0 0 0 17.484375 24.855469 L 18.349609 25.720703 L 18.605469 25.976562 L 18.939453 26.310547 L 21.490234 28.861328 A 14 14 0 0 0 22.175781 28.546875 L 18.939453 25.310547 L 18.605469 24.976562 L 18.349609 24.720703 L 17.484375 23.855469 A 8 8 0 0 1 16 24 A 8 8 0 0 1 8.0214844 16.576172 z"/>
 </g>
</svg>
