<svg xmlns="http://www.w3.org/2000/svg" width="32" height="32" version="1">
 <path style="opacity:0.2" d="M 28,3 C 28,3 30,3 30,5 V 29 C 30,31 28,31 28,31 H 12 L 2,21 V 5 C 2,3 4,3 4,3 Z"/>
 <path style="fill:#303d75" d="M 28,2 C 28,2 30,2 30,4 V 28 C 30,30 28,30 28,30 H 12 L 2,20 V 4 C 2,2 4,2 4,2 Z"/>
 <path style="fill:#44559e" d="M 2,20 H 10.5 C 11.328,20 12,20.672 12,21.5 V 30 Z"/>
 <path style="opacity:0.1;fill:#8b9cbe" d="M 10.5,20 C 11.328,20 12,20.672 12,21.5 V 22.5 C 12,21.672 11.328,21 10.5,21 H 3 L 2,20 Z"/>
 <path style="opacity:0.2" d="M 16,8 A 5,5 0 0 0 15.563,8.0215 4.6667,4.6667 0 0 0 15.465,8.0332 5,5 0 0 0 11,13 5,5 0 0 0 11.002,13.037 3.5,3.5 0 0 0 8,16.5 3.5,3.5 0 0 0 8.002,16.586 3.3333,3.3333 0 0 0 8,16.666 3.3333,3.3333 0 0 0 11.334,20 H 11.5 20 A 4,4 0 0 0 24,16 4,4 0 0 0 20.92,12.117 5,5 0 0 0 16.68,8.0527 4.6667,4.6667 0 0 0 16.615,8.043 5,5 0 0 0 16.311,8.0156 4.6667,4.6667 0 0 0 16,8 Z M 15.99,10.002 C 16.042,10.003 16.093,10.004 16.144,10.008 A 2.0002,2.0002 0 0 0 16.193,10.012 C 16.254,10.015 16.314,10.022 16.375,10.029 A 2.0002,2.0002 0 0 0 16.408,10.033 C 17.702,10.211 18.719,11.187 18.951,12.473 A 2.0002,2.0002 0 0 0 20.461,14.064 C 21.371,14.279 21.994,15.068 21.998,16.002 21.997,17.129 21.127,18 20,18 H 11.5 11.334 C 10.574,18 9.9999,17.426 10,16.666 10,16.664 9.9999,16.661 10,16.658 A 2.0002,2.0002 0 0 0 10,16.516 C 9.9998,16.51 10,16.505 10,16.5 10,15.739 10.534,15.126 11.287,15.018 A 2.0002,2.0002 0 0 0 13,13.002 C 13.001,11.454 14.14,10.187 15.68,10.021 A 2.0002,2.0002 0 0 0 15.725,10.016 C 15.733,10.015 15.74,10.015 15.748,10.014 15.829,10.006 15.909,10.003 15.99,10.002 Z"/>
 <path style="fill:#5d8cb9" d="M 16,7 A 5,5 0 0 0 15.563,7.0215 4.6667,4.6667 0 0 0 15.465,7.0332 5,5 0 0 0 11,12 5,5 0 0 0 11.002,12.037 3.5,3.5 0 0 0 8,15.5 3.5,3.5 0 0 0 8.002,15.586 3.3333,3.3333 0 0 0 8,15.666 3.3333,3.3333 0 0 0 11.334,19 H 11.5 20 A 4,4 0 0 0 24,15 4,4 0 0 0 20.92,11.117 5,5 0 0 0 16.68,7.0527 4.6667,4.6667 0 0 0 16.615,7.043 5,5 0 0 0 16.311,7.0156 4.6667,4.6667 0 0 0 16,7 Z M 15.99,9.002 C 16.042,9.0033 16.093,9.0035 16.145,9.0078 A 2.0002,2.0002 0 0 0 16.193,9.0117 C 16.254,9.0153 16.314,9.022 16.375,9.0293 A 2.0002,2.0002 0 0 0 16.408,9.0332 C 17.702,9.2109 18.719,10.187 18.951,11.473 A 2.0002,2.0002 0 0 0 20.461,13.064 C 21.371,13.279 21.994,14.068 21.998,15.002 21.997,16.129 21.127,17 20,17 H 11.5 11.334 C 10.574,17 9.9999,16.426 10,15.666 10,15.664 9.9999,15.661 10,15.658 A 2.0002,2.0002 0 0 0 10,15.516 C 9.9998,15.51 10,15.505 10,15.5 10,14.739 10.534,14.126 11.287,14.018 A 2.0002,2.0002 0 0 0 13,12.002 C 13.001,10.454 14.14,9.1872 15.68,9.0215 A 2.0002,2.0002 0 0 0 15.725,9.0156 C 15.733,9.0146 15.74,9.0146 15.748,9.0137 15.829,9.0062 15.909,9.0029 15.99,9.002 Z"/>
 <path style="opacity:0.1;fill:#8b9cbe" d="M 4,2 C 4,2 2,2 2,4 V 5 C 2,3 4,3 4,3 H 28 C 28,3 30,3 30,5 V 4 C 30,2 28,2 28,2 Z"/>
</svg>
