<svg xmlns="http://www.w3.org/2000/svg" width="32" height="32" version="1.1">
 <path style="opacity:0.2" d="M 16.328718,2.9998051 C 13.202458,7.3761438 2.5813946,19.717129 7.1054892,26.849806 c 3.5006108,5.51941 15.3995678,5.547756 18.8596068,0 C 30.465805,19.633861 18.989742,7.3761438 16.328718,2.9998051 Z"/>
 <path style="fill:#ec953b" d="M 16.328718,2.0000702 C 13.202458,6.3764089 2.5813946,18.717394 7.1054892,25.850071 c 3.5006108,5.51941 15.3995678,5.547756 18.8596068,0 C 30.465805,18.634126 18.989742,6.3764089 16.328718,2.0000702 Z"/>
 <path style="opacity:0.2;fill:#8b9cbe" d="M 16.327896,2.0000702 C 13.676917,5.7112411 5.6409802,15.149967 6.0179773,22.282911 6.3701745,15.291966 13.798916,6.5400346 16.327896,3.0000624 18.505879,6.5812343 26.580816,15.438965 26.978813,22.49391 27.36581,15.298966 18.609879,5.7530408 16.327896,2.0000702 Z"/>
</svg>
