<svg xmlns="http://www.w3.org/2000/svg" width="32" height="32" version="1.1">
 <path style="opacity:.2" d="m5.0909092 5.0000001h24.48052s1.428571 0 1.428571 1.4117646v18.352941l-4.090909 4.235294h-24.480519s-1.4285715 0-1.4285715-1.411765v-18.352941z"/>
 <path style="fill:#00cc5c" d="m5.0909092 4.0000001h24.48052s1.428571 0 1.428571 1.4117646v18.352941l-4.090909 4.235294h-24.480519s-1.4285715 0-1.4285715-1.411765v-18.352941z"/>
 <path style="opacity:.2" d="m 20,10 v 3 h -2 v 2 h 2 v 4.117188 C 20,21.940717 20.999201,23 22.792969,23 H 25 V 21 H 23.015625 C 22.050838,21 22,20.329735 22,18.917969 V 15 h 3 v -2 h -3 v -3 z m -7.974609,0.02148 C 8.0549478,10.021484 7,12.264706 7,16.5 c 0,4.235294 1.0363906,6.527344 5.025391,6.527344 h 1.132812 l 1.650391,2.822265 1.912109,-0.705078 -1.558594,-2.824219 C 16.646387,21.61443 17,19.323529 17,16.5 17,12.264706 15.995834,10.021484 12.025391,10.021484 Z M 12.007812,12 C 14.429818,12 15.000006,13.75699 15,16.654297 15,19.551603 14.44817,21 12.007812,21 9.5674558,21 9,19.551603 9,16.654297 9,13.75699 9.5858083,12 12.007812,12 Z"/>
 <path style="fill:#8b9cbe" d="m20 9v3h-2v2h2v4.117188c0 2.823529 0.999201 3.882812 2.792969 3.882812h2.207031v-2h-1.984375c-0.964787 0-1.015625-0.670265-1.015625-2.082031v-3.917969h3v-2h-3v-3h-2zm-7.974609 0.0214844c-3.9704432 0-5.025391 2.2432216-5.025391 6.4785156s1.0363906 6.527344 5.025391 6.527344h1.132812l1.650391 2.822265 1.912109-0.705078-1.558594-2.824219c1.484278-0.705882 1.837891-2.996783 1.837891-5.820312 0-4.235294-1.004166-6.4785156-4.974609-6.4785156zm-0.017579 1.9785156c2.422006 0 2.992194 1.75699 2.992188 4.654297 0 2.897306-0.55183 4.345703-2.992188 4.345703-2.4403562 0-3.007812-1.448397-3.007812-4.345703 0-2.897307 0.5858083-4.654297 3.007812-4.654297z"/>
 <path style="fill:#8b9cbe;opacity:.2" d="m5.0917969 4-4.0917969 4.234375v1l4.0917969-4.234375h24.480469s1.427734 3.448e-4 1.427734 1.4121094v-1c0-1.4117646-1.427734-1.4121094-1.427734-1.4121094h-24.480469z"/>
</svg>
