<svg xmlns="http://www.w3.org/2000/svg" width="32" height="32" version="1.1">
 <rect style="opacity:0.2" width="14" height="28" x="18" y="3" rx="2.1" ry="2.1"/>
 <rect style="opacity:0.2" width="13" height="19.911" x="7" y="11.09" rx="1.083" ry="1.244"/>
 <rect style="fill:#939393" width="14" height="28" x="18" y="2" rx="2.1" ry="2.1"/>
 <rect style="opacity:0.2" width="10" height="4" x="20" y="6"/>
 <circle style="opacity:0.2" cx="29.5" cy="19.5" r="1.5"/>
 <circle style="fill:#8b9cbe" cx="29.5" cy="18.5" r="1.5"/>
 <rect style="fill:#c8c8c8" width="13" height="19.911" x="7" y="10.09" rx="1.083" ry="1.244"/>
 <rect style="opacity:0.2" width="25" height="19" x="1" y="9" rx="1.25" ry="1.188"/>
 <rect style="fill:#b2bfd9" width="25" height="19" x="1" y="8" rx="1.25" ry="1.188"/>
 <rect style="fill:#2463bf" width="19" height="13" x="4" y="11" rx="0" ry="0"/>
 <path style="opacity:0.2;fill:#8b9cbe" d="M 20.099609 2 C 18.936209 2 18 2.9362094 18 4.0996094 L 18 5.0996094 C 18 3.9362094 18.936209 3 20.099609 3 L 29.900391 3 C 31.063791 3 32 3.9362094 32 5.0996094 L 32 4.0996094 C 32 2.9362094 31.063791 2 29.900391 2 L 20.099609 2 z"/>
 <path style="fill:#8b9cbe;opacity:0.2" d="M 2.25 8 C 1.5575 8 1 8.529625 1 9.1875 L 1 10.1875 C 1 9.529625 1.5575 9 2.25 9 L 24.75 9 C 25.4425 9 26 9.529625 26 10.1875 L 26 9.1875 C 26 8.529625 25.4425 8 24.75 8 L 2.25 8 z"/>
 <rect style="opacity:0.2" width="19" height="1" x="4" y="11"/>
 <rect style="opacity:0.2;fill:#8b9cbe" width="19" height="1" x="4" y="24"/>
</svg>
