<svg xmlns="http://www.w3.org/2000/svg" width="32" height="32" version="1">
 <path fill="#b2bfd9" d="m16 2.0001c-7.756 0-14 6.244-14 14s6.244 14 14 14 14-6.244 14-14c0-7.7559-6.244-14-14-14z"/>
 <path fill="#2971d5" d="m16 5a11 11 0 0 0 -11 11 11 11 0 0 0 11 11 11 11 0 0 0 11 -11 11 11 0 0 0 -11 -11zm1.25 2.5a8.25 8.25 0 0 1 8.25 8.25 8.25 8.25 0 0 1 -8.25 8.25 8.25 8.25 0 0 1 -8.25 -8.25 8.25 8.25 0 0 1 8.25 -8.25z"/>
 <rect fill="#fc924d" width="8" height="8" x="4" y="12" rx="1.6" ry="1.6"/>
 <rect fill="#fc924d" width="5" height="5" x="22" y="18" rx="1" ry="1"/>
 <rect fill="#fc924d" width="4" height="4" x="20" y="6" rx=".8" ry=".8"/>
 <path fill="#fff" opacity=".2" d="m16 2c-7.7559 0-14 6.2441-14 14 0 0.169 0.0195 0.333 0.0254 0.5 0.2637-7.5205 6.3875-13.5 13.975-13.5 7.587 0 13.711 5.9795 13.975 13.5 0.005-0.167 0.025-0.331 0.025-0.5 0-7.7559-6.244-14-14-14z"/>
 <path opacity=".2" d="m2.0254 16.5c-0.0059 0.167-0.0254 0.331-0.0254 0.5 0 7.756 6.2441 14 14 14 7.756 0 14-6.244 14-14 0-0.169-0.02-0.333-0.025-0.5-0.264 7.521-6.388 13.5-13.975 13.5-7.5871 0-13.711-5.979-13.975-13.5z"/>
 <path opacity=".2" d="m20 9.1992v1c0 0.443 0.358 0.801 0.801 0.801h2.3984c0.443 0 0.801-0.358 0.801-0.801v-0.9998c0 0.4432-0.358 0.8008-0.801 0.8008h-2.3984c-0.443 0-0.801-0.3574-0.801-0.8006zm-16 9.2012v1c0 0.887 0.7132 1.6 1.5996 1.6h4.8008c0.887 0 1.6-0.713 1.6-1.6v-1c0 0.887-0.713 1.6-1.6 1.6h-4.8004c-0.8864 0-1.5996-0.713-1.5996-1.6zm18 3.6v1c0 0.554 0.446 1 1 1h3c0.554 0 1-0.446 1-1v-1c0 0.554-0.446 1-1 1h-3c-0.554 0-1-0.446-1-1z"/>
 <path fill="#fff" opacity=".2" d="m20.801 6c-0.443 0-0.801 0.3576-0.801 0.8008v1c0-0.4432 0.358-0.8008 0.801-0.8008h2.398c0.443 0 0.801 0.3576 0.801 0.8008v-1c0-0.4432-0.358-0.8008-0.801-0.8008h-2.398zm-15.201 6c-0.8864 0-1.5996 0.713-1.5996 1.6v1c0-0.887 0.7132-1.6 1.5996-1.6h4.8004c0.887 0 1.6 0.713 1.6 1.6v-1c0-0.887-0.713-1.6-1.6-1.6h-4.8zm17.4 6c-0.554 0-1 0.446-1 1v1c0-0.554 0.446-1 1-1h3c0.554 0 1 0.446 1 1v-1c0-0.554-0.446-1-1-1h-3z"/>
</svg>
