<svg xmlns="http://www.w3.org/2000/svg" width="32" height="32" version="1.1">
 <path style="opacity:0.2" d="M 16,3 C 13.8643,3 12.0203,3.8747 10.8098,5.2547 9.5993,6.6346 9,8.4575 9,10.35 V 22 h 3 V 10.35 C 12,9.0924 12.4007,7.9903 13.0652,7.2328 13.7297,6.4753 14.6357,6 16,6 17.3643,6 18.2703,6.4753 18.9348,7.2328 19.5993,7.9903 20,9.0924 20,10.35 V 22 h 3 V 10.35 C 23,8.4575 22.4008,6.6346 21.1903,5.2547 19.9798,3.8747 18.1357,3 16,3 Z"/>
 <path style="opacity:0.2" d="M 16,31 6.7265,21.4084 A 5.8948992,6.0971244 0 1 1 16,14.0485 a 5.8948992,6.0971244 0 1 1 9.2735,7.3599 z"/>
 <path style="fill:none;stroke:#8e8e8e;stroke-width:3.00000095" d="M 10.5,21 V 9.35 c 0,-3.15 2,-5.85 5.5,-5.85 3.5,0 5.5,2.7 5.5,5.85 V 21"/>
 <path style="fill:#1b61a4" d="M 16,30 6.7265,20.4084 A 5.8948992,6.0971244 0 1 1 16,13.0485 a 5.8948992,6.0971244 0 1 1 9.2735,7.3599 z"/>
 <circle style="fill:#272727" cx="16" cy="-18" r="2" transform="scale(1,-1)"/>
 <path style="fill:#272727" d="M 15.9333,18.05 14,24 h 4 l -2,-5.95 z"/>
 <path style="opacity:0.1;fill:#8b9cbe" d="M 11.1523,10.0059 A 5.8948975,6.0971227 0 0 0 5.0234,16.6348 5.8948975,6.0971227 0 0 1 16,14.0488 5.8948975,6.0971227 0 0 1 26.9766,16.6309 5.8948975,6.0971227 0 0 0 16,13.0488 5.8948975,6.0971227 0 0 0 11.1523,10.0059 Z"/>
 <path style="opacity:0.1;fill:#8b9cbe" d="M 16,2 C 13.8643,2 12.021,2.8739 10.8105,4.2539 9.6,5.6339 9,7.4571 9,9.3496 v 1 C 9,8.4571 9.6,6.6339 10.8105,5.2539 12.021,3.8739 13.8643,3 16,3 18.1357,3 19.979,3.8739 21.1895,5.2539 22.4,6.6339 23,8.4571 23,10.3496 v -1 C 23,7.4571 22.4,5.6339 21.1895,4.2539 19.979,2.8739 18.1357,2 16,2 Z"/>
</svg>
