<svg xmlns="http://www.w3.org/2000/svg" width="32" height="32" version="1.1">
 <path style="opacity:0.2" d="M 6.65625,5.9998733 C 6.3922604,6.0001647 6.141173,6.1084526 5.9589844,6.3006545 L 2.2675781,10.191279 C 2.1596855,10.305202 2.093623,10.446986 2.0507812,10.595576 l -0.00781,-0.0039 C 2.0175438,10.679423 1.99998,10.770187 2,10.863154 v 14.867188 c 0,0.972522 0.6269021,1.727792 1.1796875,2.005859 0.5527855,0.278067 1.0761719,0.263672 1.0761719,0.263672 H 26.341797 c 0.26399,-2.92e-4 0.51703,-0.110532 0.699219,-0.302734 l 3.693359,-3.888672 c 0.01067,-0.01126 0.01344,-0.02734 0.02344,-0.03906 0.07805,-0.09086 0.139769,-0.193219 0.179688,-0.304687 0.0013,-0.0036 0.0046,-0.0062 0.0059,-0.0098 l -0.0039,-0.002 C 30.974449,23.3514 31.000024,23.246048 31,23.136592 V 8.2694045 C 31,7.296882 30.373098,6.5435649 29.820312,6.2654983 29.267527,5.9874311 28.744141,5.9998733 28.744141,5.9998733 Z"/>
 <path style="fill:#4cdb5d" d="M 6.6571185,5.0001037 C 6.3931289,5.0003951 6.1407393,5.1092824 5.9585507,5.3014843 L 2.2668402,9.1915726 C 2.0954977,9.3724916 1.999946,9.612819 2,9.8627128 L 4.8417146,17.265589 C 5.1904297,18.174017 3.3521426,24.530611 3.904928,24.808678 4.4577135,25.086744 6.8333333,23.5625 6.8333333,23.5625 L 24.785714,24.25 c 0.26399,-2.92e-4 1.198764,-0.495298 1.380953,-0.6875 L 30.73316,22.808312 C 30.904502,22.627393 31.000054,22.387064 31,22.13717 V 7.2693219 C 31,6.2967993 30.373402,5.542828 29.820616,5.2647614 29.267831,4.9866942 28.744445,5.0001037 28.744445,5.0001037 Z"/>
 <path style="fill:#31ae3e" d="m 2.0424808,9.5913133 c -0.025425,0.087753 -0.0425,0.1787445 -0.04248,0.2717123 V 24.730135 c 0,0.972522 0.6263694,1.727552 1.1791548,2.005619 0.5527855,0.278067 1.0761719,0.26413 1.0761719,0.26413 H 26.342596 c 0.26399,-2.92e-4 0.516808,-0.109841 0.698997,-0.302043 l 3.691938,-3.889916 c 0.09617,-0.101541 0.164914,-0.222436 0.209828,-0.352594 z"/>
 <path style="opacity:0.1" d="M 2.0429688 9.5917969 C 2.0175438 9.6795499 1.99998 9.7703134 2 9.8632812 L 2 10.863281 C 1.99998 10.770313 2.0175438 10.679547 2.0429688 10.591797 L 30.365234 23.197266 L 30.734375 22.808594 C 30.830545 22.707053 30.898445 22.585236 30.943359 22.455078 L 2.0429688 9.5917969 z"/>
 <path style="opacity:0.2" d="M 22.351562,11.005859 C 19.940504,11.005859 18,12.939176 18,15.339843 v 3.332032 c 0,2.400666 1.940504,4.333984 4.351562,4.333984 h 0.669922 c 0.71601,0 1.384498,-0.18102 1.978516,-0.484375 V 21.005859 H 23.021484 22.6875 22.351562 c -1.333006,0 -2.34375,-1.006723 -2.34375,-2.333984 v -3.332032 c 0,-1.327261 1.010744,-2.333984 2.34375,-2.333984 H 22.6875 23.021484 25 V 11.490234 C 24.405982,11.186879 23.737494,11.005859 23.021484,11.005859 Z M 11.177734,11.03125 C 8.8628066,11.03125 7,12.955516 7,15.345703 v 3.318359 c 0,2.390186 1.8628066,4.314453 4.177734,4.314453 h 0.644532 c 0.185757,0 0.365703,-0.01698 0.544922,-0.04102 L 13.699219,25 15.341797,24.15625 14.189453,22.220703 C 15.283832,21.444299 16,20.144551 16,18.664062 V 15.345703 C 16,12.955516 14.137192,11.03125 11.822266,11.03125 Z m 0.0098,1.974609 h 0.625 c 1.244307,0 2.1875,1.006722 2.1875,2.333984 v 3.332032 c 0,1.327262 -0.943193,2.333984 -2.1875,2.333984 h -0.625 C 9.9431912,21.005859 9,19.999137 9,18.671875 v -3.332032 c 0,-1.327262 0.9431912,-2.333984 2.1875,-2.333984 z"/>
 <path style="fill:#8b9cbe" d="M 22.351562 10 C 19.940504 10 18 11.933317 18 14.333984 L 18 17.666016 C 18 20.066682 19.940504 22 22.351562 22 L 23.021484 22 C 23.737494 22 24.405982 21.81898 25 21.515625 L 25 20 L 23.021484 20 L 22.6875 20 L 22.351562 20 C 21.018556 20 20.007812 18.993277 20.007812 17.666016 L 20.007812 14.333984 C 20.007812 13.006723 21.018556 12 22.351562 12 L 22.6875 12 L 23.021484 12 L 25 12 L 25 10.484375 C 24.405982 10.18102 23.737494 10 23.021484 10 L 22.351562 10 z M 11.177734 10.025391 C 8.8628066 10.025391 7 11.949657 7 14.339844 L 7 17.658203 C 7 20.048389 8.8628066 21.972656 11.177734 21.972656 L 11.822266 21.972656 C 12.008023 21.972656 12.187969 21.955681 12.367188 21.931641 L 13.699219 23.994141 L 15.341797 23.150391 L 14.189453 21.214844 C 15.283832 20.43844 16 19.138692 16 17.658203 L 16 14.339844 C 16 11.949657 14.137192 10.025391 11.822266 10.025391 L 11.177734 10.025391 z M 11.1875 12 L 11.8125 12 C 13.056807 12 14 13.006722 14 14.333984 L 14 17.666016 C 14 18.993278 13.056807 20 11.8125 20 L 11.1875 20 C 9.9431912 20 9 18.993278 9 17.666016 L 9 14.333984 C 9 13.006722 9.9431912 12 11.1875 12 z"/>
 <path style="opacity:0.2;fill:#8b9cbe" d="M 6.65625 5 C 6.3922604 5.0002914 6.141173 5.1085793 5.9589844 5.3007812 L 2.2675781 9.1914062 C 2.1596855 9.3053292 2.093623 9.4471128 2.0507812 9.5957031 L 2.0429688 9.5917969 C 2.0175437 9.6795499 1.99998 9.7703135 2 9.8632812 L 2 10.863281 C 1.99998 10.770314 2.0175414 10.679544 2.0429688 10.591797 L 2.0507812 10.595703 C 2.093623 10.447113 2.1596855 10.305329 2.2675781 10.191406 L 5.9589844 6.3007812 C 6.141173 6.1085793 6.3922604 6.0002914 6.65625 6 L 28.744141 6 C 28.744141 6 29.267527 5.9875578 29.820312 6.265625 C 30.373098 6.5436916 31 7.2970087 31 8.2695312 L 31 7.2695312 C 31 6.2970087 30.373098 5.5436916 29.820312 5.265625 C 29.267527 4.9875578 28.744141 5 28.744141 5 L 6.65625 5 z"/>
</svg>
