<svg xmlns="http://www.w3.org/2000/svg" width="32" height="32" version="1">
 <rect style="opacity:0.2" width="28" height="28" x="-31" y="2" rx="14" ry="14" transform="rotate(-90)"/>
 <rect style="fill:#4f4f4f" width="28" height="28" x="-30" y="2" rx="14" ry="14" transform="rotate(-90)"/>
 <path style="opacity:0.1;fill:#8b9cbe" d="M 16 6 C 10.477153 6 6 10.477153 6 16 C 6.002764 17.309826 6.2628667 18.602767 6.7617188 19.806641 C 6.7806488 19.85235 6.7987394 19.897919 6.8183594 19.943359 C 6.8190594 19.944859 6.8216096 19.945866 6.8222656 19.947266 C 6.8240656 19.950826 6.8244719 19.953431 6.8261719 19.957031 C 6.9423389 20.194221 7.1848769 20.359375 7.4667969 20.359375 C 7.8612839 20.359375 8.1816406 20.039019 8.1816406 19.644531 C 8.1816406 19.558235 8.1608525 19.476971 8.1328125 19.400391 C 8.1311125 19.393681 8.1357125 19.387359 8.1328125 19.380859 C 8.1307125 19.376109 8.1289531 19.371987 8.1269531 19.367188 C 8.1135231 19.335987 8.1009306 19.304778 8.0878906 19.273438 C 7.6566986 18.237676 7.4307344 17.124874 7.4277344 16 C 7.4277344 11.266131 11.26613 7.4277344 16 7.4277344 C 17.109926 7.4300023 18.20625 7.6487774 19.230469 8.0683594 C 19.237379 8.0711894 19.246606 8.0683825 19.253906 8.0703125 C 19.255806 8.0711725 19.257866 8.0714085 19.259766 8.0722656 C 19.34893 8.1122736 19.448677 8.1367188 19.552734 8.1367188 C 19.947223 8.1367187 20.265625 7.8163643 20.265625 7.421875 C 20.265625 7.1460857 20.105805 6.9119974 19.876953 6.7929688 C 19.864223 6.7860338 19.862976 6.7758912 19.847656 6.7695312 C 19.838546 6.7656913 19.829413 6.7635556 19.820312 6.7597656 C 19.817712 6.7586956 19.8151 6.7568594 19.8125 6.7558594 C 19.8099 6.7548044 19.807288 6.7549063 19.804688 6.7539062 C 18.600628 6.2582426 17.308836 6.0001586 16 6 z M 24.533203 11.640625 C 24.138715 11.640625 23.818359 11.96098 23.818359 12.355469 C 23.818359 12.441765 23.839147 12.523029 23.867188 12.599609 C 23.868987 12.606319 23.864287 12.612641 23.867188 12.619141 C 23.869287 12.623891 23.870947 12.628013 23.873047 12.632812 C 23.886467 12.664013 23.899069 12.695222 23.912109 12.726562 C 24.3433 13.762325 24.569366 14.875127 24.572266 16 C 24.572266 20.73387 20.73387 24.572266 16 24.572266 C 14.890074 24.569998 13.79376 24.3512 12.769531 23.931641 C 12.762631 23.928801 12.753394 23.931587 12.746094 23.929688 C 12.744194 23.928787 12.742134 23.928591 12.740234 23.927734 C 12.65107 23.887734 12.551323 23.863281 12.447266 23.863281 C 12.052777 23.863281 11.734375 24.183637 11.734375 24.578125 C 11.734375 24.853914 11.894195 25.088002 12.123047 25.207031 C 12.135777 25.213961 12.137014 25.224169 12.152344 25.230469 C 12.161454 25.234369 12.170587 25.236434 12.179688 25.240234 C 12.182288 25.241234 12.1849 25.243141 12.1875 25.244141 C 12.1901 25.245166 12.192713 25.245094 12.195312 25.246094 C 13.399371 25.741758 14.691164 25.999842 16 26 C 21.522847 26 26 21.522847 26 16 C 25.997236 14.690175 25.737132 13.397232 25.238281 12.193359 C 25.219341 12.14765 25.201261 12.102081 25.181641 12.056641 C 25.180941 12.055141 25.178389 12.054134 25.177734 12.052734 C 25.176034 12.049174 25.175528 12.046569 25.173828 12.042969 C 25.05766 11.805778 24.815123 11.640625 24.533203 11.640625 z"/>
 <circle style="opacity:0.2" cx="-16" cy="17" r="6" transform="scale(-1,1)"/>
 <circle style="fill:#e34343" cx="-16" cy="16" r="6" transform="scale(-1,1)"/>
 <path style="opacity:0.1;fill:#8b9cbe" d="m 16,10 a 6,6 0 0 1 6,6 6,6 0 0 1 -0.02539,0.498047 A 6,6 0 0 0 16,11 6,6 0 0 0 10.025391,16.501953 6,6 0 0 1 10,16 6,6 0 0 1 16,10 Z"/>
 <circle style="fill:#8b9cbe" cx="-16" cy="16" r="2" transform="scale(-1,1)"/>
 <path style="opacity:0.2" d="m 25.146484,10 c 0.01358,-1.368e-4 0.02749,7.26e-4 0.04102,0.002 0.163293,0.01809 0.299203,0.130449 0.341797,0.283203 0,0 0.317657,2.816876 0.642578,4.19336 0.916298,3.994888 2.543065,7.836721 3.724609,11.720656 C 29.964957,26.524195 29.999729,26.855389 30,27.1875 30,29.845365 27.845365,32 25.1875,32 22.529635,32 20.375,29.845365 20.375,27.1875 c 0.0022,-1.183362 0.440311,-2.324343 1.230469,-3.205078 0.0011,-0.0012 0.0028,-0.0027 0.0039,-0.0039 -1.437037,-0.447873 -2.833522,-0.850132 -3.945313,-1.09375 -1.492953,-0.327142 -4.552734,-0.548828 -4.552734,-0.548828 -0.298717,-0.07515 -0.39908,-0.43361 -0.18164,-0.644532 l 5.90039,-5.728515 0.03516,0.03516 0.0293,-0.0957 5.962891,-5.789063 C 24.934065,10.039502 25.038082,9.9984023 25.146484,10 Z"/>
 <path style="fill:#ffae11" d="m 25.147227,9.0000454 c 0.01358,-1.368e-4 0.02676,1.527e-4 0.04028,0.00138 0.163292,0.018088 0.298469,0.1305704 0.341063,0.2833244 0,0 0.318266,2.8169892 0.643187,4.1934732 0.916298,3.994935 2.543304,7.837073 3.724849,11.721008 C 29.96508,25.524207 29.999729,25.855399 30,26.18751 30,28.845375 27.845375,31 25.18751,31 c -2.657865,0 -4.81249,-2.154625 -4.81249,-4.81249 0.0022,-1.185198 0.441527,-2.32793 1.234006,-3.209222 -1.437037,-0.447873 -1.533211,-1.690731 -2.645002,-1.934351 -1.492954,-0.327142 -2.706543,-0.831253 -2.706543,-0.831253 -0.298717,-0.07516 0.891847,-0.09659 1.109288,-0.307512 l 1.527175,-5.002306 5.963244,-5.7900282 c 0.07664,-0.07378 0.181637,-0.1143901 0.290039,-0.1127924 z"/>
 <path style="fill:#c3831f" d="m 18.830833,14.96329 8.705183,8.705183 0.0081,0.0188 a 3.4374929,3.4374929 0 0 1 1.080937,2.500237 3.4374929,3.4374929 0 0 1 -3.437493,3.437493 3.4374929,3.4374929 0 0 1 -3.437493,-3.437493 3.4374929,3.4374929 0 0 1 1.244748,-2.645258 c -0.409282,-0.219987 -0.872678,-0.41219 -1.388424,-0.559935 0.0011,-0.0012 0.0016,-0.0028 0.0027,-0.004 -1.437037,-0.447873 -2.833269,-0.849397 -3.945059,-1.093015 -1.492954,-0.327142 -4.551993,-0.549194 -4.551993,-0.549194 -0.298717,-0.07515 -0.400057,-0.433608 -0.182617,-0.64453 z m 6.356677,9.161724 a 2.0624957,2.0624957 0 0 0 -2.062496,2.062496 2.0624957,2.0624957 0 0 0 2.062496,2.062496 2.0624957,2.0624957 0 0 0 2.062496,-2.062496 2.0624957,2.0624957 0 0 0 -2.062496,-2.062496 z"/>
 <path style="opacity:0.1;fill:#8b9cbe" d="m 16,2 c 7.756,0 14,6.244 14,14 0,0.168842 -0.01952,0.33264 -0.02539,0.5 C 29.710867,8.9794325 23.500fae9,3 16,3 8.412842,3 2.289133,8.9794325 2.025391,16.5 2.019521,16.33264 2,16.168842 2,16 2,8.244 8.244,2 16,2 Z"/>
 <path style="opacity:0.2;fill:#8b9cbe" d="m 25.146484,9 c 0.01358,-1.368e-4 0.02749,7.258e-4 0.04102,0.00195 0.163293,0.018088 0.299203,0.1304492 0.341797,0.2832031 0,0 0.317657,2.8168758 0.642578,4.1933598 0.916298,3.994935 2.543065,7.836768 3.724609,11.720703 0.06847,0.324976 0.103245,0.65617 0.103516,0.988281 0,0.139048 -0.02946,0.270193 -0.04102,0.40625 -0.01656,-0.131898 -0.03506,-0.264289 -0.0625,-0.394531 -1.181544,-3.883935 -2.808312,-7.725815 -3.724609,-11.720703 -0.324921,-1.376484 -0.642579,-4.19336 -0.642579,-4.19336 -0.04259,-0.152754 -0.178504,-0.265113 -0.341796,-0.283203 -0.01352,-0.0013 -0.02744,-0.00209 -0.04102,-0.002 -0.108402,-0.0016 -0.212421,0.03949 -0.289063,0.113281 l -5.962891,5.789063 -0.0293,0.0957 -0.03516,-0.03516 -5.548828,5.388671 c -0.01443,-0.0011 -0.169922,-0.01562 -0.169922,-0.01562 -0.298717,-0.07515 -0.39908,-0.43361 -0.18164,-0.644532 l 5.90039,-5.728515 0.03516,0.03516 0.0293,-0.0957 5.962892,-5.7890198 C 24.934065,9.0395018 25.038082,8.9984023 25.146484,9 Z m -4.123046,14.804688 c 0.198772,0.06056 0.384909,0.111174 0.585937,0.173828 -0.0011,0.0012 -0.0028,0.0027 -0.0039,0.0039 -0.673562,0.750773 -1.071658,1.693462 -1.181641,2.6875 -0.01624,-0.160843 -0.04883,-0.317298 -0.04883,-0.482422 0.0016,-0.843395 0.234382,-1.661346 0.648438,-2.382812 z"/>
</svg>
