<svg xmlns="http://www.w3.org/2000/svg" width="32" height="32" version="1.1">
 <circle style="opacity:0.2" cx="15.5" cy="16.5" r="14.5"/>
 <circle style="fill:#4f4f4f" cx="15.5" cy="15.5" r="14.5"/>
 <path style="opacity:0.2" d="M 15.500922,5.212249 14,17.018624 15.500922,28.825 17,17.018624 Z M 8.2684324,11.336535 6.9282782,11.702771 C 5.8296345,12.003564 4.96882,12.34081 4.2737428,12.817758 3.5786656,13.294706 2.8998999,14.115616 3.0122619,15.14268 c 0.112362,1.027066 0.8301499,1.633646 1.5693908,2.065846 0.7392404,0.432196 1.6556157,0.756954 2.8050991,1.039025 1.1160455,0.273865 2.3713021,0.472017 3.6867792,0.613107 L 13,28.825 v -9.775799 -2.775258 c -4.8485445,-0.230931 -7.9142736,-1.22588 -7.9164679,-2.380536 0.004,-0.681918 1.2354237,-1.332083 3.3937905,-1.791845 z m 14.6101176,0.02713 -0.218385,0.767741 c 2.07576,0.458212 3.253738,1.095262 3.258147,1.762005 -0.005,1.154146 -3.071905,2.148351 -7.918312,2.37918 V 19.051914 28.825 l 1.928313,-9.962986 c 1.256088,-0.135888 2.458612,-0.32352 3.537572,-0.579196 1.165333,-0.276143 2.097485,-0.595739 2.851218,-1.015966 0.753732,-0.420228 1.471419,-0.973903 1.652133,-1.981746 0.180713,-1.007843 -0.464946,-1.906787 -1.146185,-2.400884 -0.681237,-0.494095 -1.526321,-0.835264 -2.608417,-1.142114 z"/>
 <path style="fill:#a656d9" d="M 15.500922,4.212249 14,16.018624 15.500922,27.825 17,16.018624 Z"/>
 <path style="fill:#568ad9" d="M 8.2684324,10.336535 6.9282782,10.702771 C 5.8296345,11.003564 4.96882,11.34081 4.2737428,11.817758 3.5786656,12.294706 2.8998999,13.115616 3.0122619,14.14268 c 0.112362,1.027066 0.8301499,1.633646 1.5693908,2.065846 0.7392404,0.432196 1.6556157,0.756954 2.8050991,1.039025 1.1160455,0.273865 2.3713021,0.472017 3.6867792,0.613107 L 13,27.825 v -9.775799 -2.775258 c -4.8485445,-0.230931 -7.9142736,-1.22588 -7.9164679,-2.380536 0.004,-0.681918 1.2354237,-1.332083 3.3937905,-1.791845 z"/>
 <path style="fill:#d95656" d="m 22.87855,10.363665 -0.218385,0.767741 c 2.07576,0.458212 3.253738,1.095262 3.258147,1.762005 -0.005,1.154146 -3.071905,2.148351 -7.918312,2.37918 V 18.051914 27.825 l 1.928313,-9.962986 c 1.256088,-0.135888 2.458612,-0.32352 3.537572,-0.579196 1.165333,-0.276143 2.097485,-0.595739 2.851218,-1.015966 0.753732,-0.420228 1.471419,-0.973903 1.652133,-1.981746 0.180713,-1.007843 -0.464946,-1.906787 -1.146185,-2.400884 -0.681237,-0.494095 -1.526321,-0.835264 -2.608417,-1.142114 z"/>
 <path style="fill:#8b9cbe;opacity:0.1" d="M 15.5 1 A 14.5 14.5 0 0 0 1 15.5 A 14.5 14.5 0 0 0 1.0214844 16.080078 A 14.5 14.5 0 0 1 15.5 2 A 14.5 14.5 0 0 1 29.978516 15.919922 A 14.5 14.5 0 0 0 30 15.5 A 14.5 14.5 0 0 0 15.5 1 z"/>
 <path style="opacity:0.1;fill:#8b9cbe" d="M 15.5 4.2128906 L 14 16.019531 L 14.064453 16.519531 L 15.5 5.2128906 L 16.935547 16.519531 L 17 16.019531 L 15.5 4.2128906 z M 8.2675781 10.335938 L 6.9277344 10.703125 C 5.8290907 11.003918 4.9685147 11.341411 4.2734375 11.818359 C 3.5783603 12.295307 2.8993567 13.115514 3.0117188 14.142578 C 3.0221622 14.238038 3.0440185 14.32567 3.0644531 14.414062 C 3.240535 13.727532 3.7521296 13.17607 4.2734375 12.818359 C 4.6626461 12.551292 5.1113899 12.330401 5.6171875 12.132812 C 6.172928 11.742009 7.1465041 11.384883 8.4765625 11.101562 L 8.2675781 10.335938 z M 22.878906 10.363281 L 22.660156 11.130859 C 23.923432 11.40972 24.848686 11.757048 25.384766 12.134766 C 25.931389 12.347641 26.411101 12.586551 26.822266 12.884766 C 27.304017 13.234176 27.763184 13.787832 27.929688 14.4375 C 27.942287 14.386338 27.959123 14.338847 27.96875 14.285156 C 28.149463 13.277313 27.503505 12.378863 26.822266 11.884766 C 26.141029 11.390671 25.29694 11.049037 24.214844 10.742188 L 22.878906 10.363281 z M 25.701172 13.404297 C 24.934524 14.330649 22.111958 15.077589 18 15.273438 L 18 16.273438 C 22.846407 16.042608 25.912969 15.046724 25.917969 13.892578 C 25.916875 13.727125 25.842586 13.563814 25.701172 13.404297 z M 5.3007812 13.40625 C 5.1604343 13.565236 5.0849519 13.727631 5.0839844 13.892578 C 5.0861787 15.047234 8.1514555 16.042506 13 16.273438 L 13 15.273438 C 8.8887272 15.077622 6.067544 14.332296 5.3007812 13.40625 z"/>
</svg>
