<svg width="32" height="32" version="1.1" xmlns="http://www.w3.org/2000/svg">
 <g transform="translate(.0789 .00041781758)">
  <path d="m16 2c-0.605129-0.01416-1.20262 0.1327738-1.727 0.4247l-9.7023 5.4084c-1.0201941 0.5686814-1.6486711 1.6196375-1.6487 2.757v10.817c2.9e-5 1.137363 0.628506 2.188319 1.6487 2.757l9.7026 5.4085c0.544645 0.303599 1.156762 0.445121 1.76431 0.424566 0.5305-0.01795 0.407916-0.732487 0.88349-0.997584l10-6c1.02063-0.568786 1.000279 0.13778 1-1v-10c-3.4e-5 -0.42409 0.913758-2.2466432 0.75125-2.6261749-0.273345-0.6383841-0.759165-1.1847057-1.39905-1.5413071l-9.702-5.4084c-0.478555-0.2663801-1.018755-0.4124163-1.571-0.4247z" style="fill:#00e600"/>
  <path d="m16 1.9991a3.2974 3.1836 0 0 0-1.726 0.4258l-9.7036 5.4082a3.2974 3.1836 0 0 0-1.6484 2.758v1a3.2974 3.1836 0 0 1 1.6484-2.758l9.7036-5.4082a3.2974 3.1836 0 0 1 1.726-0.4258 3.2974 3.1836 0 0 1 1.57 0.4258l9.7031 5.4082a3.2974 3.1836 0 0 1 1.649 2.758v-1a3.2974 3.1836 0 0 0-1.648-2.758l-9.704-5.4082a3.2974 3.1836 0 0 0-1.57-0.4258z" style="fill:#8b9cbe;opacity:.2"/>
  <path d="m2.922 21.4071v1a3.2974 3.1836 0 0 0 1.6484 2.7559l9.7031 5.4102a3.2974 3.1836 0 0 0 3.2969 0l9.7031-5.4102a3.2974 3.1836 0 0 0 1.648-2.756v-1a3.2974 3.1836 0 0 1-1.6484 2.7559l-9.7031 5.4102a3.2974 3.1836 0 0 1-3.2969 0l-9.7036-5.411a3.2974 3.1836 0 0 1-1.6484-2.755z" style="opacity:.2"/>
  <path d="m3.2420125 9.2241916a3.2974 3.1836 0 0 0-0.3203125 1.3652344v10.818359a3.2974 3.1836 0 0 0 1.6484375 2.755859l9.7031245 5.408204a3.2974 3.1836 0 0 0 1.648438 0.423828v-13.871094z" style="fill:#00bc00"/>
  <path d="m3.2420125 9.2241916a3.2974 3.1836 0 0 0-0.3203125 1.3652344v1a3.2974 3.1836 0 0 1 0.3203125-1.365235l12.679688 6.900391v-1z" style="fill:#8b9cbe;opacity:.2"/>
  <path d="m28.599434 9.2241916-12.677734 6.9003904v13.871094a3.2974 3.1836 0 0 0 1.648438-0.423828l9.703124-5.408204a3.2974 3.1836 0 0 0 1.648438-2.757812v-10.816406a3.2974 3.1836 0 0 0-0.322266-1.3652344z" style="fill:#009200"/>
  <path d="m28.599434 9.2241916-12.677734 6.9003904v1l12.677734-6.900391a3.2974 3.1836 0 0 1 0.322266 1.365235v-1a3.2974 3.1836 0 0 0-0.322266-1.3652344z" style="fill:#8b9cbe;opacity:.1"/>
 </g>
 <path d="m14 8-10 1 2 12h3l1 5 5-1-2-4h2zm2.498047 1 0.501953 17h7l3-5-2-4 1-4-2-4zm-8.498047 3h3v5h-3zm12 0h2v4h-2zm0 7h2v3h-2z" style="opacity:.2"/>
 <path d="m14 7-10 1 2 12h3l1 5 5-1-2-4h2l-1-13zm2.498047 1 0.501953 17h7l3-5-2-4 1-4-2-4h-7.501953zm-8.498047 3h3v5h-3v-5zm12 0h2v4h-2v-4zm0 7h2v3h-2v-3z" style="fill:#ffbb32"/>
 <path d="m14.775391 17.074219-8.775391 2.925781h3l1 5 5-1-2-4h2l-0.224609-2.925781zm10.787109 0.050781-3.5625 1.644531v2.230469h-2v-1.308594l-3.115234 1.4375 0.115234 3.871094h7l3-5-1.4375-2.875z" style="fill:#fd6447"/>
 <path d="m14 7-10 1 0.1640625 0.984375 9.8359375-0.984375 0.923828 12h0.076172l-1-13zm2.498047 1 0.029297 1h7.472656l1.833984 3.666016 0.166016-0.666016-2-4h-7.501953zm3.501953 7v1h2v-1h-2zm-12 1v1h3v-1h-3zm17.166016 0.333984-0.166016 0.666016 1.726562 3.455078 0.273438-0.455078-1.833984-3.666016zm-12.166016 4.666016 1.544922 3.091797 0.455078-0.091797-1.5-3h-0.5zm7 0v1h2v-1h-2z" style="fill:#8b9cbe;opacity:.2"/>
 <path d="m14.775391 17.074219-8.775391 2.925781h3l5.775391-1.925781 0.148437 1.925781h0.076172l-0.224609-2.925781zm10.787109 0.050781-3.5625 1.644531v1l3.5625-1.644531 1.164062 2.330078 0.273438-0.455078-1.4375-2.875zm-5.5625 2.566406-3.115234 1.4375 0.029296 0.986328 3.085938-1.423828v-1zm-7 1.308594 1.544922 3.091797 0.455078-0.091797-1.5-3h-0.5zm7 0v1h2v-1h-2z" style="fill:#8b9cbe;opacity:.1"/>
</svg>
