<svg xmlns="http://www.w3.org/2000/svg" width="32" height="32" version="1.1">
 <path style="opacity:0.2" d="M 4.0999999,3.0000004 H 23.7 l 2.221676,2.3587712 c 0.797668,0.8468911 1.248372,1.3073897 2.1,2.0999998 L 30,9.3000003 V 28.9 C 30,30.0634 29.063399,31 27.9,31 H 4.0999999 C 2.9365999,31 2,30.0634 2,28.9 V 5.1000004 c 0,-1.1634001 0.9365999,-2.1 2.0999999,-2.1 z"/>
 <path style="fill:#4dc76c" d="M 4.0999999,2.0000004 H 23.7 l 2.221676,2.3587712 c 0.797668,0.8468911 1.248372,1.3073897 2.1,2.0999998 L 30,8.3000003 V 27.9 C 30,29.0634 29.063399,30 27.9,30 H 4.0999999 C 2.9365999,30 2,29.0634 2,27.9 V 4.1000004 c 0,-1.1634001 0.9365999,-2.1 2.0999999,-2.1 z"/>
 <path style="opacity:0.2;fill:#8b9cbe" d="M 4.0996094,2 C 2.9362094,2 2,2.9362093 2,4.0996094 v 1 C 2,3.9362093 2.9362094,3 4.0996094,3 H 23.699219 c 7.81e-4,4e-7 0,-1 0,-1 z"/>
 <path style="opacity:0.2" d="M 5,11.5 C 5,12.556 5.4491,13 6.5,13 13.956,13 20,19.044 20,26.5 20,27.433 20.509,28 21.5,28 22.519999,28 23,27.404 23,26.5 23,17.387 15.613,10 6.5,10 5.5026,10 5,10.4855 5,11.5 Z m 0,6 c 0,1.0274 0.42023,1.5 1.5,1.5 4.1422,0 7.5,3.3579 7.5,7.5 0,0.88301 0.50689,1.5 1.5,1.5 C 16.468999,28 17,27.462 17,26.5 17,20.701 12.299,16 6.5,16 5.5314,16 5,16.428 5,17.5 Z M 8,22 c -1.6569,0 -3,1.343 -3,3 0,1.657 1.3431,3 3,3 1.657,0 3,-1.343 3,-3 0,-1.657 -1.343,-3 -3,-3 z"/>
 <path style="fill:#8b9cbe" d="M 5,10.5 C 5,11.556 5.4491,12 6.5,12 13.956,12 20,18.044 20,25.5 20,26.433 20.509,27 21.5,27 22.519999,27 23,26.404 23,25.5 23,16.387 15.613,9 6.5,9 5.5026,9 5,9.4855 5,10.5 Z m 0,6 c 0,1.0274 0.42023,1.5 1.5,1.5 4.1422,0 7.5,3.3579 7.5,7.5 0,0.88301 0.50689,1.5 1.5,1.5 C 16.468999,27 17,26.462 17,25.5 17,19.701 12.299,15 6.5,15 5.5314,15 5,15.428 5,16.5 Z M 8,21 c -1.6569,0 -3,1.343 -3,3 0,1.657 1.3431,3 3,3 1.657,0 3,-1.343 3,-3 0,-1.657 -1.343,-3 -3,-3 z"/>
 <circle style="opacity:0.2" cx="24.5" cy="8.5" r="7.5"/>
 <circle style="fill:#ffbd1e" cx="24.5" cy="7.5" r="7.5"/>
 <path style="fill:#8b9cbe" d="M 24.500001,2 26.199595,5.2917962 30,5.8196602 27.250001,8.3819664 27.899186,12 24.500001,10.291796 21.100814,12 21.750001,8.3819664 19,5.8196602 22.800407,5.2917961 Z"/>
</svg>
