<svg width="32" height="32" version="1.1" xmlns="http://www.w3.org/2000/svg">
 <rect x="2" y="3" width="28" height="28" rx="0" ry="1" style="opacity:.2"/>
 <rect x="2" y="2" width="28" height="28" rx="0" ry="1" style="fill:#b2bfd9"/>
 <path d="m8 10c-2 0-2 1.385593-2 3 0 0.824958 0 1 1 2 1.155663-1.155663 1.6653094-1.633874 2.8359375-1.839844-1.890625 1.477051-2.8359375 3.839844-2.8359375 3.839844s2.5-2 6-2l-2 2s0.632302 0.195923 1.630859 0.601562c-0.437759 0.493601-1.404598 1.285308-3.630859 2.398438 3.045029 0 5.587257-0.36036 7.212891-0.650391 2.513727 1.39827 5.633019 3.496301 8.787109 6.650391l-4.921875-9.023438c3.477746 1.578291 6.421875 3.523438 6.421875 3.523438s-5.017896-5.007596-9.611328-7.332031c5.682772 0.625056 10.111328 2.832031 10.111328 2.832031s-8.5-6-19-6z" style="opacity:.1"/>
 <path d="m13 16s0 1-4 3c5 0 9-1 9-1z" style="fill:#225bbe"/>
 <path d="M 13 16 C 13 16 13 17 9 19 C 9.646626 19 10.274172 18.982249 10.880859 18.953125 C 12.96291 17.658976 13 17 13 17 L 16.324219 18.330078 C 17.298228 18.153299 18 18 18 18 L 13 16 z " style="fill:#8b9cbe;opacity:.1"/>
 <path d="m13 16s-0.023064 0.439109-1.150391 1.298828c0.634601 0.225217 1.533705 0.59002 2.925782 1.283203 1.959538-0.274638 3.224609-0.582031 3.224609-0.582031l-5-2z" style="opacity:.2"/>
 <path d="m11 16s7 2 14 9l-6-11h-6z" style="fill:#008eff"/>
 <path d="m13 14-2 2s0.434432 0.154193 0.740234 0.259766l1.259766-1.259766h6l4.859375 8.908203c0.379726 0.351735 0.759772 0.710944 1.140625 1.091797l-6-11h-6z" style="fill:#8b9cbe;opacity:.2"/>
 <path d="m13 14-1.072266 1.072266c0.347424-0.040341 0.700477-0.072266 1.072266-0.072266 2.347143 0 5.271396 1.106585 7.8125 2.322266l-1.486328-2.72461c-0.309685-0.20547-0.620703-0.406815-0.933594-0.597656h-5.392578z" style="opacity:.2"/>
 <path d="m7 16s2-5 6-5c5 0 13.5 8.5 13.5 8.5s-8.25-5.5-13.5-5.5c-3.5 0-6 2-6 2z" style="fill:#bb4eff"/>
 <path d="m13 11c-4 0-6 5-6 5s0.3048096-0.235383 0.8164062-0.537109c0.9302158-1.469936 2.6552598-3.462891 5.1835938-3.462891 3.024736 0 7.308463 3.10279 10.238281 5.560547 1.917851 1.05503 3.261719 1.939453 3.261719 1.939453s-8.5-8.5-13.5-8.5z" style="fill:#8b9cbe;opacity:.2"/>
 <path d="M 13 11 C 10.826358 11 9.2639465 12.470074 8.2714844 13.818359 C 9.3343039 13.00357 10.293405 13 14 13 C 15.834518 13 17.590113 13.211528 19.197266 13.515625 C 17.050633 12.106305 14.799353 11 13 11 z " style="opacity:.2"/>
 <path d="m7 14c-1-1-1-1.175042-1-2 0-1.614407 0-3 2-3 10.5 0 19 6 19 6s-6-3-13-3c-5 0-5 0-7 2z" style="fill:#ff8080"/>
 <path d="M 8 9 C 6 9 6 10.385593 6 12 C 6 12.1884 6.001761 12.336436 6.0136719 12.474609 C 6.0367662 11.104165 6.2283461 10 8 10 C 13.308485 10 18.094892 11.532306 21.541016 13.048828 C 24.801758 13.914461 27 15 27 15 C 27 15 18.5 9 8 9 z " style="fill:#8b9cbe;opacity:.2"/>
 <path d="m3 2c-0.554 0-1 0.446-1 1v1c0-0.554 0.446-1 1-1h26c0.554 0 1 0.446 1 1v-1c0-0.554-0.446-1-1-1h-26z" style="fill:#8b9cbe;opacity:.1"/>
</svg>
