<svg xmlns="http://www.w3.org/2000/svg" width="32" height="32" version="1">
 <rect style="opacity:0.2" width="28" height="28" x="2" y="3" rx="14" ry="14"/>
 <rect style="fill:#2bc89d" width="28" height="28" x="2" y="2" rx="14" ry="14"/>
 <path style="opacity:0.1" d="M 16.601562,8.0019491 C 15.802401,7.99061 15.065235,8.1858311 14.390625,8.5039022 13.072409,9.1262652 13.622713,9.6981867 11.744141,9.2871054 10.072257,8.9219553 9.0147098,8.7980482 7.5449219,9.4824179 6.0751348,10.166788 4.9785156,11.351428 4.9785156,11.744137 c 0,0.392709 0.391671,-0.588405 1.46875,-0.689453 1.0770788,-0.101048 2.8300293,9.38e-4 4.0058594,0.882812 1.17583,0.881873 1.771484,1.156119 1.771484,1.548828 0,0.39271 -1.324232,-0.174431 -2.8261715,0.195313 -1.3274023,0.326109 -2.3524201,0.71276 -2.4511719,1.105468 -0.098751,0.392709 2.4627132,0.09996 3.6132814,0.09766 0.546578,0.01838 0.995727,-0.153893 1.376953,0.58789 0.395005,0.780824 0.489009,1.37809 0.980469,1.566406 0.49146,0.188317 0.587865,-0.38872 1.175781,0.78711 0.587914,1.175831 0.784326,1.648364 0.09766,3.412109 -0.686666,1.763746 -1.286144,3.110707 -0.992187,2.814453 0.229655,-0.229655 0.970272,-0.446877 1.234375,-0.789062 -0.07349,0.629253 -3.48e-4,1.787468 0.83789,3.078125 1.469788,2.252909 3.619533,2.067175 6.660157,2.845703 4.733176,1.191906 6.910128,1.121514 7.902234,2.738281 0.02243,0.03668 0.02672,0.0401 0.04687,0.07422 h 0.109375 c -0.01501,-0.07664 0.0045,-0.05214 -0.04687,-0.240234 C 28.969519,28.197825 28.331274,21.054259 25.462891,16.054684 21.956069,9.9401364 18.999046,8.0359666 16.601562,8.0019491 Z"/>
 <path style="fill:#3e4d64" d="M 16.601562,7.0019531 C 15.802401,6.990614 15.065235,7.1858351 14.390625,7.5039062 13.072409,8.1262692 13.622713,8.6981907 11.744141,8.2871094 10.072257,7.9219593 9.0147098,7.7980522 7.5449219,8.4824219 6.0751348,9.1667923 4.9785156,10.351432 4.9785156,10.744141 c 0,0.392709 0.391671,-0.588405 1.46875,-0.689453 1.0770788,-0.1010481 2.8300293,9.38e-4 4.0058594,0.882812 1.17583,0.881873 1.771484,1.156119 1.771484,1.548828 0,0.39271 -1.324232,-0.174431 -2.8261715,0.195313 -1.3274023,0.326109 -2.3524201,0.71276 -2.4511719,1.105468 -0.098751,0.392709 2.4627132,0.09996 3.6132814,0.09766 0.546578,0.01838 0.995727,-0.153893 1.376953,0.58789 0.395005,0.780824 0.489009,1.37809 0.980469,1.566406 0.49146,0.188317 0.587865,-0.38872 1.175781,0.78711 0.587914,1.175831 0.784326,1.648364 0.09766,3.412109 -0.686666,1.763746 -1.286144,3.110707 -0.992187,2.814453 0.229655,-0.229655 0.970272,-0.446877 1.234375,-0.789062 -0.07349,0.629253 -3.48e-4,1.787468 0.83789,3.078125 1.469788,2.252909 3.619533,2.067175 6.660157,2.845703 4.733176,1.191906 6.910128,1.121514 7.902234,2.738281 0.02243,0.03668 0.02672,0.0401 0.04687,0.07422 h 0.109375 c -0.01501,-0.07664 0.0045,-0.05214 -0.04687,-0.240234 C 28.969519,27.197829 28.331274,20.054263 25.462891,15.054688 21.956069,8.9401404 18.999046,7.0359706 16.601562,7.0019531 Z"/>
 <circle style="opacity:0.2" cx="15.7" cy="10.7" r=".7"/>
 <circle style="fill:#8b9cbe" cx="15.7" cy="9.7" r=".7"/>
 <path style="fill:#8b9cbe;opacity:0.2" d="M 16 2 C 8.244 2 2 8.244 2 16 C 2 16.168842 2.0195214 16.33264 2.0253906 16.5 C 2.2891326 8.9794325 8.4128418 3 16 3 C 23.500fae9 3 29.710867 8.9794325 29.974609 16.5 C 29.980479 16.33264 30 16.168842 30 16 C 30 8.244 23.756 2 16 2 z"/>
</svg>
