<svg xmlns="http://www.w3.org/2000/svg" width="32" height="32" version="1.1">
 <circle style="opacity:0.2" cx="16" cy="17" r="14"/>
 <circle style="fill:#ff5836" cx="16" cy="16" r="14"/>
 <path style="opacity:0.2" d="M 17.007586,8.0014361 A 0.50003872,0.49994957 0 0 0 16.505645,8.4291172 L 15.648243,14.01391 A 7.9998201,5.4988951 0 0 0 10.400314,15.576092 1.9999551,1.9995985 0 0 0 8.9999551,15.002021 1.9999551,1.9995985 0 0 0 7,17.001593 1.9999551,1.9995985 0 0 0 8.0781007,18.774667 7.9998201,5.4988951 0 0 0 7.9999757,19.501099 7.9998201,5.4988951 0 0 0 15.999796,25 a 7.9998201,5.4988951 0 0 0 7.99982,-5.498901 7.9998201,5.4988951 0 0 0 -0.08008,-0.724466 1.9999551,1.9995985 0 0 0 1.080053,-1.77504 1.9999551,1.9995985 0 0 0 -1.999955,-1.999572 1.9999551,1.9995985 0 0 0 -1.404265,0.576035 7.9998201,5.4988951 0 0 0 -4.941295,-1.556323 l 0.759748,-4.9130798 2.599552,0.5780004 A 1.4999662,1.4996988 0 0 0 21.499673,11.002799 1.4999662,1.4996988 0 0 0 22.999639,9.5031189 1.4999662,1.4996988 0 0 0 21.499673,8.0034011 1.4999662,1.4996988 0 0 0 20.230171,8.7064032 L 17.1111,8.0151153 A 0.50003872,0.49994957 0 0 0 17.007585,8 Z m -3.507732,9.0001569 a 1.4999662,1.4996988 0 0 1 1.499966,1.499719 1.4999662,1.4996988 0 0 1 -1.499966,1.499679 1.4999662,1.4996988 0 0 1 -1.499966,-1.499679 1.4999662,1.4996988 0 0 1 1.499966,-1.499719 z m 4.999887,0 a 1.4999662,1.4996988 0 0 1 1.499966,1.499719 1.4999662,1.4996988 0 0 1 -1.499966,1.499679 1.4999662,1.4996988 0 0 1 -1.499966,-1.499679 1.4999662,1.4996988 0 0 1 1.499966,-1.499719 z m 0.972634,4.981438 a 0.50177424,0.50168478 0 0 1 0.398429,0.853322 c 0,0 -0.327564,0.347269 -0.95115,0.634644 -0.623588,0.287186 -1.581518,0.553816 -2.931576,0.531144 -1.342274,-0.02268 -2.283148,-0.288321 -2.900324,-0.560429 -0.617176,-0.272072 -0.945292,-0.591681 -0.945292,-0.591681 a 0.50003872,0.49994957 0 0 1 0.310542,-0.855286 0.50003872,0.49994957 0 0 1 0.04883,-0.002 0.50003872,0.49994957 0 0 1 0.357415,0.156063 c 0,0 0.142541,0.159843 0.634751,0.376744 0.49221,0.216902 1.297499,0.4499 2.517521,0.472535 1.212239,0.0189 2.000473,-0.211611 2.486273,-0.435427 0.485801,-0.223703 0.628891,-0.398358 0.628891,-0.398358 a 0.50177424,0.50168478 0 0 1 0.345695,-0.181759 z"/>
 <path style="fill:#8b9cbe" d="M 17.007587,7.0000512 A 0.50003871,0.49999102 0 0 0 16.505645,7.427735 l -0.857402,5.585279 A 7.9998199,5.4993512 0 0 0 10.400314,14.57533 1.9999551,1.9997644 0 0 0 8.9999549,14.001179 1.9999551,1.9997644 0 0 0 7,16.000943 1.9999551,1.9997644 0 0 0 8.0781007,17.774172 7.9998199,5.4993512 0 0 0 7.9999777,18.500648 7.9998199,5.4993512 0 0 0 15.999797,24 a 7.9998199,5.4993512 0 0 0 7.99982,-5.499352 7.9998199,5.4993512 0 0 0 -0.08008,-0.724523 1.9999551,1.9997644 0 0 0 1.080054,-1.775182 1.9999551,1.9997644 0 0 0 -1.999955,-1.999764 1.9999551,1.9997644 0 0 0 -1.404266,0.576104 7.9998199,5.4993512 0 0 0 -4.941294,-1.556458 l 0.759747,-4.9134826 2.599552,0.5780569 A 1.4999662,1.4998232 0 0 0 21.499673,10.00165 1.4999662,1.4998232 0 0 0 22.99964,8.5018272 1.4999662,1.4998232 0 0 0 21.499673,7.002004 1.4999662,1.4998232 0 0 0 20.230171,7.7050461 L 17.1111,7.0137214 a 0.50003871,0.49999102 0 0 0 -0.103513,-0.01367 z m -3.507733,9.0008918 a 1.4999662,1.4998232 0 0 1 1.499966,1.499823 1.4999662,1.4998232 0 0 1 -1.499966,1.499823 1.4999662,1.4998232 0 0 1 -1.499967,-1.499823 1.4999662,1.4998232 0 0 1 1.499967,-1.499823 z m 4.999887,0 a 1.4999662,1.4998232 0 0 1 1.499966,1.499823 1.4999662,1.4998232 0 0 1 -1.499966,1.499823 1.4999662,1.4998232 0 0 1 -1.499966,-1.499823 1.4999662,1.4998232 0 0 1 1.499966,-1.499823 z m 0.972634,4.981835 a 0.50177426,0.50172641 0 0 1 0.398429,0.853415 c 0,0 -0.327565,0.34748 -0.95115,0.63469 -0.623587,0.287286 -1.581518,0.553862 -2.931575,0.531187 -1.342275,-0.02294 -2.283149,-0.288386 -2.900325,-0.56048 -0.617176,-0.271905 -0.945292,-0.591728 -0.945292,-0.591728 a 0.50003871,0.49999102 0 0 1 0.31054,-0.855367 0.50003871,0.49999102 0 0 1 0.04883,-0.002 0.50003871,0.49999102 0 0 1 0.357414,0.156231 c 0,0 0.142542,0.159989 0.634752,0.376909 0.49221,0.216919 1.297498,0.449925 2.517521,0.4726 1.212239,0.02071 2.000472,-0.211774 2.486272,-0.435496 0.485801,-0.223608 0.628892,-0.398391 0.628892,-0.398391 a 0.50177426,0.50172641 0 0 1 0.345695,-0.181618 z"/>
 <path style="opacity:0.2;fill:#8b9cbe" d="M 15.999999,2.0021544 A 14,13.999685 0 0 0 2,16.001839 14,13.999685 0 0 0 2.0214844,16.587764 14,13.999685 0 0 1 15.999999,3.0021319 14,13.999685 0 0 1 29.978515,16.415892 14,13.999685 0 0 0 30,16.001839 14,13.999685 0 0 0 15.999999,2.0021544 Z"/>
</svg>
