<svg xmlns="http://www.w3.org/2000/svg" width="32" height="32" version="1">
 <path d="m 3.4,4.0000001 c -0.7756,0 -1.4,0.6194445 -1.4,1.3888889 v 6.944444 11.111111 4.166667 C 2,28.380556 2.6244,29 3.4,29 H 28.6 C 29.3756,29 30,28.380556 30,27.611111 V 23.444444 13.722222 9.3552778 C 30,8.5858333 29.3756,8 28.6,8 H 18.52 C 16.7,8 15.3,4.0000001 13.2,4.0000001 Z" style="opacity:0.2"/>
 <path style="fill:#ae9d6a" d="m 3.4,3.0000001 c -0.7756,0 -1.4,0.6194445 -1.4,1.3888889 v 6.944444 11.111111 4.166667 C 2,27.380556 2.6244,28 3.4,28 H 28.6 C 29.3756,28 30,27.380556 30,26.611111 V 22.444444 12.722222 8.3552778 C 30,7.5858333 29.3756,7 28.6,7 H 18.52 C 16.7,7 15.3,3.0000001 13.2,3.0000001 Z"/>
 <path d="m 14.5001,11.99652 c 3.0288,0 5.5312,2.4746 5.5312,5.5 0,1.1499 -0.38921,2.2078 -1,3.0938 l 3.6875,3.6875 a 1.0055,1.0055 0 0 1 -1.4063,1.4375 l -3.6875,-3.6875 c -0.88729,0.61091 -1.973,0.96875 -3.125,0.96875 -3.0289,0 -5.5,-2.4746 -5.5,-5.5 0,-3.0254 2.4711,-5.5 5.5,-5.5 z m 0,2 c -1.9474,0 -3.5,1.5548 -3.5,3.5 0,1.9451 1.5526,3.5 3.5,3.5 1.9474,0 3.5,-1.5549 3.5,-3.5 0,-1.9452 -1.5526,-3.5 -3.5,-3.5 z" style="opacity:0.2"/>
 <path style="fill:#f9f9f9" d="m 14.5001,10.99652 c 3.0288,0 5.5312,2.4746 5.5312,5.5 0,1.1499 -0.38921,2.2078 -1,3.0938 l 3.6875,3.6875 a 1.0055,1.0055 0 0 1 -1.4063,1.4375 l -3.6875,-3.6875 c -0.88729,0.61091 -1.973,0.96875 -3.125,0.96875 -3.0289,0 -5.5,-2.4746 -5.5,-5.5 0,-3.0254 2.4711,-5.5 5.5,-5.5 z m 0,2 c -1.9474,0 -3.5,1.5548 -3.5,3.5 0,1.9451 1.5526,3.5 3.5,3.5 1.9474,0 3.5,-1.5549 3.5,-3.5 0,-1.9452 -1.5526,-3.5 -3.5,-3.5 z"/>
 <path style="fill:#8b9cbe;opacity:0.2" d="M 3.4003906 3 C 2.6247906 3 2 3.6192275 2 4.3886719 L 2 5.3886719 C 2 4.6192275 2.6247906 4 3.4003906 4 L 13.199219 4 C 15.299219 4 16.699531 8 18.519531 8 L 28.599609 8 C 29.375209 8 30 8.5860242 30 9.3554688 L 30 8.3554688 C 30 7.5860243 29.375209 7 28.599609 7 L 18.519531 7 C 16.699531 7 15.299219 3 13.199219 3 L 3.4003906 3 z"/>
</svg>
