<svg xmlns="http://www.w3.org/2000/svg" xmlns:xlink="http://www.w3.org/1999/xlink" width="32" height="32" version="1">
 <defs>
  <linearGradient id="linearGradient938">
   <stop style="stop-color:#2bb5fe" offset="0"/>
   <stop style="stop-color:#2bb5fe;stop-opacity:0" offset="1"/>
  </linearGradient>
  <linearGradient id="linearGradient940" x1="22.26" x2="21.73" y1="32.569" y2="30.835" gradientTransform="matrix(0.7,0,0,0.7,-0.8,-1.1998085)" gradientUnits="userSpaceOnUse" xlink:href="#linearGradient938"/>
  <linearGradient id="linearGradient944" x1="22.26" x2="21.73" y1="32.569" y2="30.835" gradientTransform="matrix(0.7,0,0,0.7,5.8373239,-1.2878367)" gradientUnits="userSpaceOnUse" xlink:href="#linearGradient938"/>
 </defs>
 <path style="opacity:0.2" d="M 16,3 C 8.244,3 2,9.244 2,17 2,24.756 8.244,31 16,31 23.756,31 30,24.756 30,17 30,9.244 23.756,3 16,3 Z"/>
 <path style="fill:#3fbcfe" d="M 16,2 C 8.244,2 2,8.244 2,16 2,23.756 8.244,30 16,30 23.756,30 30,23.756 30,16 30,8.244 23.756,2 16,2 Z"/>
 <ellipse style="opacity:0.1" cx="16.996" cy="19.492" rx="6.283" ry="6.508"/>
 <ellipse style="fill:#f6dcc2" cx="16.996" cy="18.492" rx="6.283" ry="6.508"/>
 <path style="opacity:0.1" d="m 11.403022,13.12412 c 5.217363,-0.348901 7.480291,-2.035274 12.392027,-0.550415 2.192051,1.533761 2.813444,10.01836 0.718345,12.778295 l -0.22929,-1.847422 c -0.04483,0.965715 -0.256621,1.347034 -0.468778,1.727089 l -0.166192,-0.816998 -0.629559,0.902337 0.410494,-2.207955 c -0.30258,0.752355 -0.657636,1.483718 -1.382928,2.066987 l -1.838481,-0.195602 1.349303,-1.230048 1.43208,-3.306489 -0.71734,0.343391 -0.152875,-4.951849 c -0.205183,1.547988 -0.217413,3.253839 -0.667373,4.067498 -0.485184,-1.008283 -0.71029,-2.796795 -1.042701,-4.263393 0.175369,2.808753 -0.658353,4.137508 -1.758119,5.076064 -0.525522,-0.831332 -0.649706,-2.11417 -0.49009,-3.716283 -0.681947,0.779334 -1.213556,2.009686 -1.726599,3.295735 0.03204,-1.520465 -0.604835,-2.684177 0.590109,-4.824858 -1.19179,0.632867 -2.121802,1.920179 -2.97314,3.404174 0.07587,-0.988251 0.190986,-2.004535 0.855963,-3.413576 -0.892591,1.394239 -1.781571,2.790285 -2.339221,4.351995 -0.317251,-1.057117 -0.553224,-2.145495 0.224283,-3.623673 -2.050452,1.290536 -1.044594,7.018845 -0.668706,8.82534 H 8.8775693 L 8.4857303,24.230787 8.0379144,25.014464 H 6.6384891 l 1.3897016,-9.660731 z"/>
 <path style="fill:#ff7f7f" d="m 17,7 c -4.643886,0 -8.4652422,3.823742 -8.9726562,7.353516 l -1.3886719,9.660156 h 1.3984375 l 0.4492187,-0.783203 0.390625,0.783203 H 12.125 c -0.375888,-1.806495 -1.382483,-7.533683 0.667969,-8.824219 -0.777507,1.478178 -0.541861,2.56593 -0.22461,3.623047 0.55765,-1.56171 1.447253,-2.957323 2.339844,-4.351562 -0.664977,1.409041 -0.779599,2.425811 -0.855469,3.414062 0.851338,-1.483995 1.780867,-2.77143 2.972657,-3.404297 -1.194944,2.140681 -0.557804,3.303754 -0.589844,4.824219 C 16.94859,18.008873 17.480162,16.779334 18.162109,16 c -0.159616,1.602113 -0.03529,2.883512 0.490235,3.714844 1.099766,-0.938556 1.933181,-2.267419 1.757812,-5.076172 0.332411,1.466598 0.557785,3.255389 1.042969,4.263672 0.44996,-0.813659 0.460833,-2.518418 0.666016,-4.066406 l 0.154297,4.951171 0.716796,-0.34375 -1.43164,3.306641 -1.34961,1.230469 1.837891,0.195312 c 0.725292,-0.583269 1.080233,-1.314051 1.382813,-2.066406 l -0.410157,2.207031 0.628907,-0.902344 0.166015,0.81836 c 0.212157,-0.380055 0.42392,-0.762801 0.46875,-1.728516 l 0.230469,1.847656 c 1.271949,-1.675576 1.163237,-5.42154 1.0625,-8.515624 C 25.454311,12.093042 21.601693,7 17,7 Z"/>
 <path style="fill:#29325f" d="m 14.105078,19.101559 c -0.764641,0.0278 -1.600977,0.901907 -1.600977,1.674805 0.238236,0.332787 0.568093,0.622591 0.842188,0.891406 0.0013,0.0014 0.0027,0.0027 0.0041,0.0041 0.01035,0.0068 0.01954,0.01533 0.03008,0.02188 0.247691,0.197906 0.555221,0.305879 0.872266,0.30625 0.773198,0 1.4,-0.626801 1.4,-1.4 0.01248,-0.374496 -0.133904,-0.748712 -0.241993,-1.043164 -0.273847,-0.321503 -0.879924,-0.47075 -1.305663,-0.455273 z"/>
 <path style="fill:#29325f" d="m 19.54195,20.79264 c 0.246207,0.781537 0.403655,0.959347 1.097326,1.100205 0.657086,0.0701 1.220563,-0.37183 1.592559,-0.883935 0.09755,-0.810975 0.08582,-1.706426 -0.603885,-1.87636 -0.384016,-0.09462 -1.270113,0.02127 -1.558959,0.3082 -0.318608,0.316498 -0.696498,0.81398 -0.527041,1.35189 z"/>
 <path style="fill:#8b9cbe" d="m 16.401721,23.002119 h 2.024677 c -0.347099,1.517562 -2.081197,1.053511 -2.024677,0 z"/>
 <path style="fill:#a66067" d="m 22.776053,12.372968 c 1.205474,3.364231 1.37998,4.781306 1.515771,6.125026 0.637441,-2.941654 0.207665,-3.911911 -1.515771,-6.125026 z m -8.347659,0.819247 c -0.784227,1.011909 -1.779509,1.495921 -2.40418,2.906721 l 0.128778,-1.814547 -0.884218,4.191249 -0.270133,-1.609386 -0.626894,4.402931 -0.4552671,-3.5753 L 9.5408557,19.716851 8.9845223,15.34792 8.4838452,18.045289 8.1168373,15.701421 6.6385591,24.014477 h 1.3993343 l 0.4478145,-0.783618 0.3919258,0.783618 H 12.12435 c -0.375889,-1.806495 -1.381874,-7.534841 0.668578,-8.825376 -0.760016,1.444925 -0.550828,2.517124 -0.24475,3.552012 0.350312,-1.946157 0.811692,-3.927422 1.880216,-5.548898 z m 4.505395,1.183227 c -0.789682,0.419531 -1.811318,2.189959 -2.560205,3.835187 0.03614,0.353137 0.06941,0.707843 0.06148,1.08449 0.513042,-1.28605 1.044573,-2.516519 1.72652,-3.295852 -0.159617,1.602113 -0.03556,2.885088 0.489966,3.71642 0.104012,-0.08877 0.204807,-0.182546 0.303433,-0.279215 -0.368241,-1.679724 -0.653921,-3.420888 -0.02119,-5.06103 z m 1.47595,0.264079 c 0.332411,1.466597 0.557622,3.255157 1.042805,4.263439 0.06764,-0.122318 0.127881,-0.266848 0.183271,-0.425924 -0.0053,-1.040515 -0.242456,-2.272021 -1.226076,-3.837515 z m 1.837227,0.279214 c 0.09293,0.839148 0.06134,1.592066 -0.05426,2.2768 l 0.08011,2.591644 0.717249,-0.343255 -1.639575,3.268829 -1.141719,1.267771 1.838391,0.195613 c 0.725294,-0.583268 1.08022,-1.314627 1.3828,-2.066981 l -0.410322,2.207869 0.629456,-0.902383 0.166271,0.816919 c 0.212157,-0.380056 0.42395,-0.761271 0.468774,-1.726986 l 0.229147,1.847381 c 0.338942,-0.446499 0.605771,-1.044281 0.80737,-1.736767 -0.672946,-2.384118 -1.650424,-5.431232 -3.07369,-7.696454 z"/>
 <path style="fill:url(#linearGradient940)" d="m 14.228125,19.573239 a 1.05,1.05 0 0 0 -1.05,1.05 1.05,1.05 0 0 0 1.05,1.05 1.05,1.05 0 0 0 1.05,-1.05 1.05,1.05 0 0 0 -1.05,-1.05 z m 0.0096,0.302148 a 0.75743038,0.75743038 0 0 1 0.757422,0.757422 0.75743038,0.75743038 0 0 1 -0.757422,0.757422 0.75743038,0.75743038 0 0 1 -0.757422,-0.757422 0.75743038,0.75743038 0 0 1 0.757422,-0.757422 z"/>
 <path style="fill:url(#linearGradient944)" d="m 20.865449,19.48521 a 1.05,1.05 0 0 0 -1.05,1.05 1.05,1.05 0 0 0 1.05,1.05 1.05,1.05 0 0 0 1.05,-1.05 1.05,1.05 0 0 0 -1.05,-1.05 z m 0.0096,0.302149 a 0.75743038,0.75743038 0 0 1 0.757421,0.757422 0.75743038,0.75743038 0 0 1 -0.757421,0.757421 0.75743038,0.75743038 0 0 1 -0.757422,-0.757421 0.75743038,0.75743038 0 0 1 0.757422,-0.757422 z"/>
 <path style="fill:#8b9cbe;opacity:0.2" d="M 16 2 C 8.244 2 2 8.244 2 16 C 2 16.168842 2.0195214 16.33264 2.0253906 16.5 C 2.2891326 8.9794325 8.4128418 3 16 3 C 23.500fae9 3 29.710867 8.9794325 29.974609 16.5 C 29.980479 16.33264 30 16.168842 30 16 C 30 8.244 23.756 2 16 2 z"/>
</svg>
