<svg xmlns="http://www.w3.org/2000/svg" width="32" height="32" version="1">
 <rect style="opacity:0.2" width="29" height="29" x="2" y="2" rx="2.175" ry="2.175"/>
 <rect style="fill:#b2bfd9" width="29" height="29" x="2" y="1" rx="2.175" ry="2.175"/>
 <path style="opacity:0.1;fill:none;stroke:#000000;stroke-width:3;stroke-linejoin:round" d="m 6,16.5 h 17.456548 c 0,0 2.043452,0.1 2.043452,3 0,2.9 -1.991443,3 -1.991443,3 H 6 m 0,-12 h 17.456548 c 0,0 2.043452,0.1 2.043452,3 0,2.9 -1.991443,3 -1.991443,3 H 6"/>
 <path style="fill:none;stroke:#1f75e6;stroke-width:3;stroke-linejoin:round" d="m 6,15.5 h 17.456548 c 0,0 2.043452,0.1 2.043452,3 0,2.9 -1.991443,3 -1.991443,3 H 6 m 0,-12 h 17.456548 c 0,0 2.043452,0.1 2.043452,3 0,2.9 -1.991443,3 -1.991443,3 H 6"/>
 <path style="fill:#8b9cbe;opacity:0.2" d="M 4.1757812 1 C 2.9708313 1 2 1.9708313 2 3.1757812 L 2 4.1757812 C 2 2.9708313 2.9708313 2 4.1757812 2 L 28.824219 2 C 30.029169 2 31 2.9708313 31 4.1757812 L 31 3.1757812 C 31 1.9708313 30.029169 1 28.824219 1 L 4.1757812 1 z"/>
</svg>
