<svg xmlns="http://www.w3.org/2000/svg" width="32" height="32" version="1.1">
 <path style="opacity:0.2" d="m 14.525391,2.006042 c -0.07379,-0.00849 -0.14935,-0.00751 -0.22461,0.00391 -0.602076,0.091345 -0.987027,0.8105114 -0.865234,1.6132813 l 0.113281,0.7441406 A 12.5,12.5 0 0 0 11.222656,5.1837764 L 10.845703,4.5314326 C 10.439127,3.8286031 9.687279,3.5077502 9.1601562,3.8126826 8.6330362,4.1176142 8.5367815,4.9301661 8.9433594,5.6329951 L 9.3222656,6.287292 a 12.5,12.5 0 0 0 -2.1875,1.9511718 L 6.53125,7.7931514 C 5.8774847,7.3116274 5.0603604,7.3184508 4.6992188,7.8087764 4.3380763,8.2991004 4.5727967,9.0811601 5.2265625,9.5626826 L 5.8339844,10.009948 A 12.5,12.5 0 0 0 4.7695312,12.230652 L 4.0410156,12.035339 c -0.7844681,-0.209482 -1.54406,0.09525 -1.7011718,0.683594 -0.1571119,0.588351 0.3483445,1.229971 1.1328124,1.439453 l 0.7265626,0.193359 A 12.5,12.5 0 0 0 4,16.500183 a 12.5,12.5 0 0 0 0.027344,0.78125 l -0.734375,0.111328 c -0.80277,0.121793 -1.3745482,0.704563 -1.2832032,1.306641 0.091345,0.602076 0.8105115,0.987026 1.6132813,0.865234 l 0.7441406,-0.113281 a 12.5,12.5 0 0 0 0.8164063,2.326172 L 4.53125,22.15448 c -0.7028295,0.406576 -1.0236824,1.158423 -0.71875,1.685547 0.3049319,0.52712 1.1174832,0.623375 1.8203125,0.216797 l 0.6542969,-0.378907 a 12.5,12.5 0 0 0 1.9511718,2.1875 l -0.4453124,0.603516 c -0.481524,0.653766 -0.4747,1.470889 0.015625,1.832031 0.4903225,0.361143 1.2723837,0.126423 1.7539062,-0.527343 l 0.447266,-0.607422 a 12.5,12.5 0 0 0 2.220703,1.064453 l -0.195313,0.728515 c -0.209482,0.784467 0.09524,1.54406 0.683594,1.701172 0.588351,0.157112 1.229971,-0.348343 1.439453,-1.132812 l 0.193359,-0.726563 A 12.5,12.5 0 0 0 16.5,29.000183 a 12.5,12.5 0 0 0 0.78125,-0.02734 l 0.111328,0.734375 c 0.121794,0.802769 0.704564,1.374549 1.306641,1.283203 0.602079,-0.09135 0.987028,-0.810511 0.865234,-1.613281 l -0.113281,-0.744141 a 12.5,12.5 0 0 0 2.326172,-0.816406 l 0.376953,0.652344 c 0.406577,0.70283 1.158425,1.023683 1.685547,0.71875 0.527122,-0.304933 0.623375,-1.117485 0.216797,-1.820312 l -0.378907,-0.654297 a 12.5,12.5 0 0 0 2.1875,-1.951172 l 0.603516,0.445312 c 0.653765,0.481525 1.470887,0.474704 1.832031,-0.01563 0.36114,-0.490323 0.126424,-1.272382 -0.527343,-1.753906 l -0.607422,-0.447266 a 12.5,12.5 0 0 0 1.064453,-2.220703 l 0.728515,0.195313 c 0.784468,0.209482 1.544061,-0.09524 1.701172,-0.683594 0.157112,-0.588351 -0.348345,-1.229971 -1.132812,-1.439453 L 28.800781,18.648621 A 12.5,12.5 0 0 0 29,16.500183 a 12.5,12.5 0 0 0 -0.02734,-0.78125 l 0.734375,-0.111328 c 0.80277,-0.121794 1.374548,-0.704565 1.283203,-1.306641 -0.09135,-0.602079 -0.810511,-0.987028 -1.613281,-0.865234 l -0.744141,0.113281 A 12.5,12.5 0 0 0 27.816406,11.222839 L 28.46875,10.845886 C 29.17158,10.439313 29.492432,9.687461 29.1875,9.1603388 28.882568,8.6332167 28.070016,8.5369641 27.367188,8.943542 l -0.654297,0.3789062 a 12.5,12.5 0 0 0 -1.951172,-2.1875 L 25.207031,6.5314326 C 25.688556,5.8776682 25.68173,5.0605432 25.191406,4.6994014 24.701083,4.3382589 23.919023,4.5729795 23.4375,5.2267451 L 22.990234,5.834167 A 12.5,12.5 0 0 0 20.769531,4.7697138 L 20.964844,4.0411982 C 21.174327,3.2567302 20.869601,2.4971382 20.28125,2.3400264 19.692899,2.1829145 19.05128,2.6883708 18.841797,3.4728388 L 18.648438,4.1994014 A 12.5,12.5 0 0 0 16.5,4.0001826 12.5,12.5 0 0 0 15.71875,4.0275264 L 15.607422,3.2931514 C 15.500853,2.5907278 15.041944,2.0654485 14.525391,2.006042 Z"/>
 <path style="fill:#4f4f4f" d="m 14.301562,1.0095697 c -0.602076,0.091345 -0.988731,0.811156 -0.866938,1.6139259 L 14.541572,9.9196531 10.846456,3.5315279 C 10.43988,2.8286984 9.6880683,2.5080447 9.1609455,2.8129771 8.6338255,3.1179087 8.5367545,3.9295678 8.9433324,4.6323968 L 12.911145,11.491619 6.530586,6.7920931 C 5.8768207,6.3105692 5.0599608,6.3176524 4.6988191,6.8079779 4.3376766,7.2983019 4.5731969,8.0805037 5.2269627,8.5620262 L 11.170742,12.939851 4.0401607,11.035169 c -0.7844681,-0.209482 -1.5429599,0.09519 -1.7000718,0.683539 -0.1571118,0.588351 0.3473994,1.230033 1.1318674,1.439515 l 7.6570777,2.044843 -7.8353041,1.188746 C 2.49096,16.513605 1.9182246,17.09636 2.0095696,17.698438 c 0.091345,0.602076 0.8111561,0.988731 1.6139259,0.866939 l 7.2961585,-1.106949 -6.3881262,3.695116 c -0.7028295,0.406576 -1.0234831,1.158387 -0.7185507,1.685511 0.3049319,0.52712 1.1165903,0.624191 1.8194196,0.217613 l 6.8592223,-3.967812 -4.6995258,6.380558 c -0.4815239,0.653766 -0.47444,1.470625 0.015885,1.831767 0.4903226,0.361143 1.2725258,0.125623 1.7540483,-0.528144 l 4.3778215,-5.943778 -1.904682,7.13058 c -0.209482,0.784467 0.09519,1.54296 0.68354,1.700072 0.588351,0.157112 1.230033,-0.347399 1.439515,-1.131868 l 2.044846,-7.657077 1.188745,7.835304 c 0.121794,0.802769 0.704549,1.375506 1.306626,1.28416 0.602079,-0.09135 0.988733,-0.811156 0.866939,-1.613926 l -1.106948,-7.296158 3.695115,6.388127 c 0.406577,0.70283 1.158389,1.023483 1.685511,0.71855 0.527122,-0.304933 0.624191,-1.116592 0.217613,-1.81942 l -3.967811,-6.859222 6.380558,4.699526 c 0.653765,0.481525 1.470624,0.474439 1.831768,-0.01589 0.36114,-0.490323 0.125623,-1.272525 -0.528145,-1.754049 l -5.943778,-4.377821 7.13058,1.904682 c 0.784468,0.209482 1.542961,-0.09519 1.700072,-0.68354 0.157112,-0.588351 -0.3474,-1.230033 -1.131867,-1.439515 L 21.870967,15.79693 29.70627,14.608186 c 0.80277,-0.121794 1.375505,-0.70455 1.28416,-1.306626 -0.09135,-0.602079 -0.811155,-0.988733 -1.613925,-0.866939 l -7.296158,1.106947 6.388126,-3.6951151 C 29.171303,9.4398802 29.491956,8.6880675 29.187024,8.1609454 28.882092,7.6338232 28.070432,7.5367544 27.367603,7.9433323 L 20.508381,11.911144 25.207907,5.5305851 C 25.689432,4.8768207 25.682347,4.059961 25.192023,3.6988191 24.7017,3.3376767 23.919498,3.5731971 23.437975,4.2269627 L 19.060152,10.170741 20.964835,3.0401607 C 21.174318,2.2556927 20.869647,1.4972008 20.281296,1.340089 19.692945,1.1829772 19.051263,1.6874883 18.84178,2.4719564 L 16.796934,10.129033 15.608188,2.2937299 C 15.486395,1.4909601 14.90364,0.91822467 14.301562,1.0095697 Z"/>
 <circle style="fill:#4f4f4f" cx="16.5" cy="15.5" r="12.5"/>
 <circle style="opacity:0.3" cx="16.5" cy="15.5" r="8.5"/>
 <circle style="opacity:0.2" cx="16.5" cy="16.5" r="6.5"/>
 <circle style="fill:#797979" cx="16.5" cy="15.5" r="6.5"/>
 <path style="opacity:0.2" d="m 18.000001,6 -0.905055,8 h 5.405056 L 15.000001,27 16.11272,18.000001 H 10.5 Z"/>
 <path style="fill:#ff8602" d="m 18.000001,5 -0.905055,8 h 5.405056 L 15.000001,26 16.11272,17.000001 H 10.5 Z"/>
 <path style="opacity:0.2;fill:#8b9cbe" d="M 18 5 L 10.5 17 L 11.125 17 L 17.861328 6.2207031 L 18 5 z M 17.208984 13 L 17.095703 14 L 21.923828 14 L 22.5 13 L 17.208984 13 z M 15.990234 18 L 15 26 L 15.158203 25.726562 L 16.113281 18 L 15.990234 18 z"/>
 <path style="opacity:0.1;fill:#8b9cbe" d="M 14.525391 1.0058594 C 14.451601 0.99736938 14.376041 0.99834562 14.300781 1.0097656 C 13.698705 1.1011106 13.313754 1.820277 13.435547 2.6230469 L 13.478516 2.9101562 C 13.595183 2.4362066 13.890018 2.0720854 14.300781 2.0097656 C 14.376041 1.9983456 14.451601 1.9973694 14.525391 2.0058594 C 15.041944 2.0652659 15.500853 2.5905452 15.607422 3.2929688 L 15.71875 4.0273438 A 12.5 12.5 0 0 1 16.5 4 A 12.5 12.5 0 0 1 18.648438 4.1992188 L 18.841797 3.4726562 C 19.05128 2.6881883 19.692899 2.1827319 20.28125 2.3398438 C 20.615296 2.4290466 20.842186 2.7218334 20.951172 3.09375 L 20.964844 3.0410156 C 21.174327 2.2565476 20.869601 1.4969555 20.28125 1.3398438 C 19.692899 1.1827318 19.05128 1.6881883 18.841797 2.4726562 L 18.648438 3.1992188 A 12.5 12.5 0 0 0 16.5 3 A 12.5 12.5 0 0 0 15.71875 3.0273438 L 15.607422 2.2929688 C 15.500853 1.5905452 15.041944 1.0652659 14.525391 1.0058594 z M 9.5878906 2.6972656 C 9.4369255 2.6990851 9.291937 2.7362669 9.1601562 2.8125 C 8.7221597 3.0658749 8.602522 3.6693682 8.8007812 4.2695312 C 8.87832 4.080743 8.9863522 3.9130432 9.1601562 3.8125 C 9.6872791 3.5075676 10.439127 3.8284205 10.845703 4.53125 L 11.222656 5.1835938 A 12.5 12.5 0 0 1 13.548828 4.3671875 L 13.435547 3.6230469 C 13.42382 3.5457532 13.438136 3.4756485 13.435547 3.4003906 A 12.5 12.5 0 0 0 11.222656 4.1835938 L 10.845703 3.53125 C 10.540771 3.0041279 10.040786 2.6918073 9.5878906 2.6972656 z M 24.777344 3.5371094 C 24.327963 3.4814128 23.798642 3.7362383 23.4375 4.2265625 L 22.990234 4.8339844 A 12.5 12.5 0 0 0 20.984375 3.859375 C 20.974128 3.9207835 20.981401 3.9790111 20.964844 4.0410156 L 20.769531 4.7695312 A 12.5 12.5 0 0 1 22.990234 5.8339844 L 23.4375 5.2265625 C 23.919023 4.5727969 24.701083 4.3380763 25.191406 4.6992188 C 25.312057 4.7880828 25.402814 4.9061615 25.464844 5.0410156 C 25.653435 4.5112841 25.564336 3.973895 25.191406 3.6992188 C 25.068825 3.6089331 24.927137 3.5556749 24.777344 3.5371094 z M 8.9277344 5.59375 A 12.5 12.5 0 0 0 7.1347656 7.2382812 L 6.53125 6.7929688 C 5.8774847 6.3114447 5.0603603 6.3182682 4.6992188 6.8085938 C 4.4849232 7.0995433 4.5015506 7.4906344 4.6699219 7.8632812 C 4.680977 7.8456818 4.6867504 7.8255221 4.6992188 7.8085938 C 5.0603603 7.3182682 5.8774847 7.3114447 6.53125 7.7929688 L 7.1347656 8.2382812 A 12.5 12.5 0 0 1 9.3222656 6.2871094 L 8.9433594 5.6328125 C 8.9359488 5.6200022 8.9348113 5.6066295 8.9277344 5.59375 z M 25.195312 6.5488281 L 24.761719 7.1347656 A 12.5 12.5 0 0 1 26.712891 9.3222656 L 27.367188 8.9433594 C 28.050886 8.5478474 28.835135 8.6311861 29.158203 9.1210938 C 29.321245 8.7944408 29.352579 8.4455216 29.1875 8.1601562 C 28.882568 7.6330342 28.070016 7.5367815 27.367188 7.9433594 L 26.712891 8.3222656 A 12.5 12.5 0 0 0 25.195312 6.5488281 z M 5.4472656 9.7246094 A 12.5 12.5 0 0 0 4.7695312 11.230469 L 4.0410156 11.035156 C 3.2565475 10.825674 2.4969556 11.130406 2.3398438 11.71875 C 2.2745271 11.963347 2.3443162 12.211321 2.4804688 12.439453 C 2.7697052 12.042315 3.3942356 11.862442 4.0410156 12.035156 L 4.7695312 12.230469 A 12.5 12.5 0 0 1 5.8339844 10.009766 L 5.4472656 9.7246094 z M 28.146484 11.03125 L 27.816406 11.222656 A 12.5 12.5 0 0 1 28.632812 13.548828 L 29.376953 13.435547 C 29.991216 13.342353 30.553624 13.547517 30.826172 13.917969 C 30.946319 13.726077 31.02329 13.518661 30.990234 13.300781 C 30.898884 12.698702 30.179723 12.313753 29.376953 12.435547 L 28.632812 12.548828 A 12.5 12.5 0 0 0 28.146484 11.03125 z M 4.0742188 14.318359 A 12.5 12.5 0 0 0 4 15.5 A 12.5 12.5 0 0 0 4.0195312 16.050781 A 12.5 12.5 0 0 1 4.1992188 14.351562 L 4.0742188 14.318359 z M 28.990234 15.716797 L 28.972656 15.71875 A 12.5 12.5 0 0 1 28.980469 15.949219 A 12.5 12.5 0 0 0 28.990234 15.716797 z M 4.0097656 16.283203 L 3.2929688 16.392578 C 2.4901988 16.514371 1.9184206 17.097141 2.0097656 17.699219 C 2.0312153 17.840598 2.0901881 17.968346 2.1738281 18.082031 C 2.3856882 17.74366 2.7807057 17.470297 3.2929688 17.392578 L 4.0273438 17.28125 A 12.5 12.5 0 0 1 4 16.5 A 12.5 12.5 0 0 1 4.0097656 16.283203 z M 28.925781 17.681641 A 12.5 12.5 0 0 1 28.800781 18.648438 L 29.527344 18.841797 C 29.985682 18.96419 30.328184 19.239932 30.519531 19.560547 C 30.581105 19.476002 30.63258 19.384517 30.660156 19.28125 C 30.817268 18.692899 30.311811 18.051279 29.527344 17.841797 L 28.925781 17.681641 z M 4.8535156 20.96875 L 4.53125 21.154297 C 3.8284205 21.560873 3.5075676 22.31272 3.8125 22.839844 C 3.8207994 22.85419 3.8327579 22.865199 3.8417969 22.878906 C 3.9799237 22.602172 4.2089075 22.340767 4.53125 22.154297 L 5.1835938 21.777344 A 12.5 12.5 0 0 1 4.8535156 20.96875 z M 27.552734 22.275391 A 12.5 12.5 0 0 1 27.166016 22.990234 L 27.773438 23.4375 C 28.039816 23.633698 28.214799 23.882749 28.330078 24.138672 C 28.640246 23.64652 28.405088 22.902734 27.773438 22.4375 L 27.552734 22.275391 z M 7.8046875 25.451172 L 7.7929688 25.46875 C 7.4299159 25.961668 7.3450689 26.547745 7.5351562 26.960938 C 7.5945336 26.793657 7.6773213 26.625765 7.7929688 26.46875 L 8.2382812 25.865234 A 12.5 12.5 0 0 1 7.8046875 25.451172 z M 24.072266 26.40625 A 12.5 12.5 0 0 1 23.677734 26.712891 L 24.056641 27.367188 C 24.125167 27.485646 24.158916 27.608733 24.199219 27.730469 C 24.35257 27.357095 24.325498 26.867035 24.072266 26.40625 z M 12.015625 28.140625 C 11.969838 28.41503 11.981031 28.67489 12.048828 28.90625 L 12.230469 28.230469 A 12.5 12.5 0 0 1 12.015625 28.140625 z M 19.564453 28.599609 A 12.5 12.5 0 0 1 19.451172 28.632812 L 19.521484 29.089844 C 19.559357 28.935991 19.57041 28.772716 19.564453 28.599609 z"/>
</svg>
