<svg xmlns="http://www.w3.org/2000/svg" width="32" height="32" version="1.1">
 <g transform="translate(0,-1020.3622)">
  <path style="opacity:0.2" d="m 15.5,1022.3622 c -8.033,0 -14.5,6.467 -14.5,14.5 0,8.033 6.467,14.5 14.5,14.5 8.033,0 14.5,-6.467 14.5,-14.5 0,-8.033 -6.467,-14.5 -14.5,-14.5 z"/>
  <path style="fill:#d2d2d2" d="m 15.5,1021.3622 c -8.033,0 -14.5,6.467 -14.5,14.5 0,8.033 6.467,14.5 14.5,14.5 8.033,0 14.5,-6.467 14.5,-14.5 0,-8.033 -6.467,-14.5 -14.5,-14.5 z"/>
  <circle style="opacity:0.1" cx="744.132" cy="722.212" r="10.5" transform="matrix(0.70710678,0.70710678,-0.70710678,0.70710678,0,0)"/>
  <circle style="fill:#4d4d4d" cx="743.425" cy="721.505" r="10.5" transform="matrix(0.70710678,0.70710678,-0.70710678,0.70710678,0,0)"/>
  <path style="opacity:0.2" d="m 21.863961,1030.4982 c -0.832278,-0.8322 -1.785949,-1.4608 -2.800806,-1.9003 l -3.916709,8.6179 8.617864,-3.9168 c -0.439519,-1.0148 -1.068072,-1.9685 -1.900349,-2.8008 z"/>
  <path style="fill:#57beff" d="m 21.863961,1029.4982 c -0.832278,-0.8322 -1.785949,-1.4608 -2.800806,-1.9003 l -3.916709,8.6179 8.617864,-3.9168 c -0.439519,-1.0148 -1.068072,-1.9685 -1.900349,-2.8008 z"/>
  <circle style="opacity:0.2" cx="15.5" cy="1028.862" r="1.5"/>
  <circle style="fill:#94ff57" cx="15.5" cy="1027.862" r="1.5"/>
  <circle style="opacity:0.2" cx="15.5" cy="1044.862" r="1.5"/>
  <circle style="fill:#94ff57" cx="15.5" cy="1043.862" r="1.5"/>
  <circle style="opacity:0.2" cx="1036.862" cy="-23.5" r="1.5" transform="matrix(0,1,-1,0,0,0)"/>
  <circle style="fill:#94ff57" cx="1035.862" cy="-23.5" r="1.5" transform="matrix(0,1,-1,0,0,0)"/>
  <circle style="opacity:0.2" cx="1036.862" cy="-7.5" r="1.5" transform="matrix(0,1,-1,0,0,0)"/>
  <circle style="fill:#94ff57" cx="1035.862" cy="-7.5" r="1.5" transform="matrix(0,1,-1,0,0,0)"/>
  <path style="opacity:0.2;fill:#8b9cbe" d="m 15.5,1021.3622 c -8.033,0 -14.5,6.467 -14.5,14.5 0,0.1689 0.019718,0.3325 0.025391,0.5 0.2641094,-7.7975 6.6105101,-14 14.4746094,-14 7.864099,0 14.2105,6.2025 14.474609,14 0.0057,-0.1675 0.02539,-0.3311 0.02539,-0.5 0,-8.033 -6.467,-14.5 -14.5,-14.5 z"/>
 </g>
</svg>
