<svg xmlns="http://www.w3.org/2000/svg" width="32" height="32" version="1">
 <rect style="opacity:0.2" width="28" height="28" x="2" y="3" rx="1.4" ry="1.4"/>
 <rect style="fill:#695fff" width="28" height="28" x="2" y="2" rx="1.4" ry="1.4"/>
 <path style="fill:none;stroke:#86a1ff;stroke-width:0.49617749" d="M 24.792956,16.157902 23.694232,12.363984"/>
 <path style="fill:none;stroke:#86a1ff;stroke-width:0.24808875" d="m 21.641264,18.115575 2.138143,-5.698692"/>
 <path style="fill:none;stroke:#86a1ff;stroke-width:0.24808875" d="m 21.613455,22.872625 0.06954,-4.88662"/>
 <path style="fill:none;stroke:#86a1ff;stroke-width:0.24808875" d="M 17.231772,22.135051 21.613455,23.0126"/>
 <path style="fill:none;stroke:#86a1ff;stroke-width:0.49617749" d="M 14.529693,24.962516 11.548668,23.307392"/>
 <path style="fill:none;stroke:#86a1ff;stroke-width:0.24808875" d="m 11.618972,23.531682 5.6128,-1.396631"/>
 <path style="fill:none;stroke:#86a1ff;stroke-width:0.24808875" d="m 8.521949,18.913833 2.860789,-4.532105"/>
 <path style="fill:none;stroke:#86a1ff;stroke-width:0.49617749" d="M 7.5140638,12.031449 10.171432,10.22519"/>
 <path style="fill:none;stroke:#86a1ff;stroke-width:0.49617749" d="M 10.256607,10.247851 12.820293,7.1794652"/>
 <path style="fill:none;stroke:#86a1ff;stroke-width:0.24808875" d="M 14.811854,11.227949 19.258475,9.3499713"/>
 <path style="fill:none;stroke:#86a1ff;stroke-width:0.24808875" d="M 13.180587,6.8830775 11.299016,14.381728"/>
 <path style="fill:none;stroke:#86a1ff;stroke-width:0.24808875" d="M 7.3402475,12.091054 14.811854,11.227949"/>
 <path style="fill:none;stroke:#d1dbff;stroke-width:0.99235499" d="M 19.242275,9.0235242 17.029969,18.45249"/>
 <path style="fill:none;stroke:#d1dbff;stroke-width:0.99235499" d="M 19.13155,9.2653728 10.273637,10.330988"/>
 <path style="fill:none;stroke:#d1dbff;stroke-width:0.99235499" d="M 17.029969,18.45249 10.282158,10.278089"/>
 <path style="fill:none;stroke:#d1dbff;stroke-width:0.74426621" d="m 17.029969,18.45249 -2.276273,6.729199"/>
 <path style="fill:none;stroke:#d1dbff;stroke-width:0.74409997" d="M 8.6212965,18.984453 10.256607,10.164727"/>
 <path style="fill:none;stroke:#d1dbff;stroke-width:0.74426621" d="M 14.62594,25.022978 8.5787155,19.150715"/>
 <path style="fill:none;stroke:#d1dbff;stroke-width:0.74426621" d="M 21.695236,22.853946 14.600389,24.99274"/>
 <path style="fill:none;stroke:#d1dbff;stroke-width:0.74426621" d="m 24.642201,16.180577 -2.946965,6.696031"/>
 <path style="fill:none;stroke:#d1dbff;stroke-width:0.74426621" d="M 17.029969,18.45249 24.4,16"/>
 <path style="fill:none;stroke:#d1dbff;stroke-width:0.74409997" d="m 19.259318,9.2049103 5.263636,6.9529917"/>
 <path style="fill:none;stroke:#d1dbff;stroke-width:0.74426621" d="M 8.4739472,18.984453 17.029969,18.45249"/>
 <path style="fill:none;stroke:#86a1ff;stroke-width:0.49617749" d="m 6.9578837,18.561219 4.4374773,4.700836"/>
 <path style="fill:none;stroke:#86a1ff;stroke-width:0.49617749" d="M 7.4263377,12.091911 7.0941604,18.561219"/>
 <path style="fill:none;stroke:#86a1ff;stroke-width:0.49617749" d="m 12.817741,6.9149548 6.600841,0.2342858"/>
 <path style="fill:none;stroke:#86a1ff;stroke-width:0.49617749" d="M 23.779407,12.416883 19.597441,7.1265655"/>
 <path style="fill:none;stroke:#8b9cbe;stroke-width:0.49617749" d="M 19.180101,9.1066611 19.571889,7.1794652"/>
 <path style="fill:none;stroke:#86a1ff;stroke-width:0.49617749" d="M 8.7039196,19.059813 6.9749259,18.719716"/>
 <path style="opacity:0.2" d="m 13.2,7.2 a 0.7,0.7 0 0 0 -0.7,0.7 0.7,0.7 0 0 0 0.7,0.7 0.7,0.7 0 0 0 0.7,-0.7 0.7,0.7 0 0 0 -0.7,-0.7 z m 6.475,0.7 A 0.525,0.525 0 0 0 19.15,8.425 0.525,0.525 0 0 0 19.675,8.95 0.525,0.525 0 0 0 20.2,8.425 0.525,0.525 0 0 0 19.675,7.9 Z m -0.35,1.4 A 0.875,0.875 0 0 0 18.45,10.175 0.875,0.875 0 0 0 19.325,11.05 0.875,0.875 0 0 0 20.2,10.175 0.875,0.875 0 0 0 19.325,9.3 Z m -9.1,1.4 A 0.875,0.875 0 0 0 9.35,11.575 0.875,0.875 0 0 0 10.225,12.45 0.875,0.875 0 0 0 11.1,11.575 0.875,0.875 0 0 0 10.225,10.7 Z m 4.55,1.05 A 0.525,0.525 0 0 0 14.25,12.275 0.525,0.525 0 0 0 14.775,12.8 0.525,0.525 0 0 0 15.3,12.275 0.525,0.525 0 0 0 14.775,11.75 Z M 7.6,12.45 a 0.7,0.7 0 0 0 -0.7,0.7 0.7,0.7 0 0 0 0.7,0.7 0.7,0.7 0 0 0 0.7,-0.7 0.7,0.7 0 0 0 -0.7,-0.7 z M 23.875,12.8 A 0.525,0.525 0 0 0 23.35,13.325 0.525,0.525 0 0 0 23.875,13.85 0.525,0.525 0 0 0 24.4,13.325 0.525,0.525 0 0 0 23.875,12.8 Z m -12.591797,2.112305 a 0.525,0.525 0 0 0 -0.525,0.525 0.525,0.525 0 0 0 0.525,0.525 0.525,0.525 0 0 0 0.525,-0.525 0.525,0.525 0 0 0 -0.525,-0.525 z M 24.4,16.3 a 0.7,0.7 0 0 0 -0.7,0.7 0.7,0.7 0 0 0 0.7,0.7 0.7,0.7 0 0 0 0.7,-0.7 0.7,0.7 0 0 0 -0.7,-0.7 z m -7.35,2.1 A 1.05,1.05 0 0 0 16,19.45 1.05,1.05 0 0 0 17.05,20.5 1.05,1.05 0 0 0 18.1,19.45 1.05,1.05 0 0 0 17.05,18.4 Z m 4.659375,0.222851 a 0.525,0.525 0 0 0 -0.525,0.525 0.525,0.525 0 0 0 0.525,0.525 0.525,0.525 0 0 0 0.525,-0.525 0.525,0.525 0 0 0 -0.525,-0.525 z M 7.075,19.1 A 0.525,0.525 0 0 0 6.55,19.625 0.525,0.525 0 0 0 7.075,20.15 0.525,0.525 0 0 0 7.6,19.625 0.525,0.525 0 0 0 7.075,19.1 Z m 1.575,0 a 0.7,0.7 0 0 0 -0.7,0.7 0.7,0.7 0 0 0 0.7,0.7 0.7,0.7 0 0 0 0.7,-0.7 0.7,0.7 0 0 0 -0.7,-0.7 z m 8.575,3.5 A 0.525,0.525 0 0 0 16.7,23.125 0.525,0.525 0 0 0 17.225,23.65 0.525,0.525 0 0 0 17.75,23.125 0.525,0.525 0 0 0 17.225,22.6 Z M 21.6,23.3 A 0.7,0.7 0 0 0 20.9,24 0.7,0.7 0 0 0 21.6,24.7 0.7,0.7 0 0 0 22.3,24 0.7,0.7 0 0 0 21.6,23.3 Z M 11.625,24 A 0.525,0.525 0 0 0 11.1,24.525 0.525,0.525 0 0 0 11.625,25.05 0.525,0.525 0 0 0 12.15,24.525 0.525,0.525 0 0 0 11.625,24 Z m 2.975,1.4 a 0.7,0.7 0 0 0 -0.7,0.7 0.7,0.7 0 0 0 0.7,0.7 0.7,0.7 0 0 0 0.7,-0.7 0.7,0.7 0 0 0 -0.7,-0.7 z"/>
 <path style="fill:#8b9cbe" d="m 13.2,6.2 a 0.7,0.7 0 0 0 -0.7,0.7 0.7,0.7 0 0 0 0.7,0.7 0.7,0.7 0 0 0 0.7,-0.7 0.7,0.7 0 0 0 -0.7,-0.7 z m 6.475,0.7 A 0.525,0.525 0 0 0 19.15,7.425 0.525,0.525 0 0 0 19.675,7.95 0.525,0.525 0 0 0 20.2,7.425 0.525,0.525 0 0 0 19.675,6.9 Z m -0.35,1.4 A 0.875,0.875 0 0 0 18.45,9.175 0.875,0.875 0 0 0 19.325,10.05 0.875,0.875 0 0 0 20.2,9.175 0.875,0.875 0 0 0 19.325,8.3 Z m -9.1,1.4 A 0.875,0.875 0 0 0 9.35,10.575 0.875,0.875 0 0 0 10.225,11.45 0.875,0.875 0 0 0 11.1,10.575 0.875,0.875 0 0 0 10.225,9.7 Z m 4.55,1.05 A 0.525,0.525 0 0 0 14.25,11.275 0.525,0.525 0 0 0 14.775,11.8 0.525,0.525 0 0 0 15.3,11.275 0.525,0.525 0 0 0 14.775,10.75 Z M 7.6,11.45 a 0.7,0.7 0 0 0 -0.7,0.7 0.7,0.7 0 0 0 0.7,0.7 0.7,0.7 0 0 0 0.7,-0.7 0.7,0.7 0 0 0 -0.7,-0.7 z M 23.875,11.8 A 0.525,0.525 0 0 0 23.35,12.325 0.525,0.525 0 0 0 23.875,12.85 0.525,0.525 0 0 0 24.4,12.325 0.525,0.525 0 0 0 23.875,11.8 Z m -12.591797,2.112305 a 0.525,0.525 0 0 0 -0.525,0.525 0.525,0.525 0 0 0 0.525,0.525 0.525,0.525 0 0 0 0.525,-0.525 0.525,0.525 0 0 0 -0.525,-0.525 z M 24.4,15.3 a 0.7,0.7 0 0 0 -0.7,0.7 0.7,0.7 0 0 0 0.7,0.7 0.7,0.7 0 0 0 0.7,-0.7 0.7,0.7 0 0 0 -0.7,-0.7 z m -7.35,2.1 A 1.05,1.05 0 0 0 16,18.45 1.05,1.05 0 0 0 17.05,19.5 1.05,1.05 0 0 0 18.1,18.45 1.05,1.05 0 0 0 17.05,17.4 Z m 4.659375,0.222851 a 0.525,0.525 0 0 0 -0.525,0.525 0.525,0.525 0 0 0 0.525,0.525 0.525,0.525 0 0 0 0.525,-0.525 0.525,0.525 0 0 0 -0.525,-0.525 z M 7.075,18.1 A 0.525,0.525 0 0 0 6.55,18.625 0.525,0.525 0 0 0 7.075,19.15 0.525,0.525 0 0 0 7.6,18.625 0.525,0.525 0 0 0 7.075,18.1 Z m 1.575,0 a 0.7,0.7 0 0 0 -0.7,0.7 0.7,0.7 0 0 0 0.7,0.7 0.7,0.7 0 0 0 0.7,-0.7 0.7,0.7 0 0 0 -0.7,-0.7 z m 8.575,3.5 A 0.525,0.525 0 0 0 16.7,22.125 0.525,0.525 0 0 0 17.225,22.65 0.525,0.525 0 0 0 17.75,22.125 0.525,0.525 0 0 0 17.225,21.6 Z M 21.6,22.3 A 0.7,0.7 0 0 0 20.9,23 0.7,0.7 0 0 0 21.6,23.7 0.7,0.7 0 0 0 22.3,23 0.7,0.7 0 0 0 21.6,22.3 Z M 11.625,23 A 0.525,0.525 0 0 0 11.1,23.525 0.525,0.525 0 0 0 11.625,24.05 0.525,0.525 0 0 0 12.15,23.525 0.525,0.525 0 0 0 11.625,23 Z m 2.975,1.4 a 0.7,0.7 0 0 0 -0.7,0.7 0.7,0.7 0 0 0 0.7,0.7 0.7,0.7 0 0 0 0.7,-0.7 0.7,0.7 0 0 0 -0.7,-0.7 z"/>
 <path style="fill:#8b9cbe;opacity:0.1" d="M 3.4003906 2 C 2.6247906 2 2 2.6247906 2 3.4003906 L 2 4.4003906 C 2 3.6247906 2.6247906 3 3.4003906 3 L 28.599609 3 C 29.375209 3 30 3.6247906 30 4.4003906 L 30 3.4003906 C 30 2.6247906 29.375209 2 28.599609 2 L 3.4003906 2 z"/>
</svg>
