<svg xmlns="http://www.w3.org/2000/svg" width="32" height="32" version="1">
 <path style="opacity:0.2" d="m 16.032749,3.0007142 c -0.260605,-0.00575 -0.51783,0.05837 -0.743664,0.1853737 L 2.7122807,7.1582969 C 2.2715192,7.4065487 1.9999991,7.8653385 1.9999999,8.3618422 V 22.527713 c -8e-7,0.496505 0.2715193,0.955294 0.7122808,1.203546 l 12.5768043,7.082935 c 0.440413,0.247741 0.982782,0.247741 1.423196,0 L 29.287719,23.731259 C 29.728481,23.483008 30.000001,23.024218 30,22.527713 V 8.3618422 c 1e-6,-0.4965037 -0.271519,-0.9552935 -0.712281,-1.2035453 L 16.712281,3.1860879 C 16.505289,3.0696831 16.27161,3.0059366 16.032749,3.0007142 Z"/>
 <path style="fill:#4a4034" d="m 16.032749,2.0005347 c -0.260605,-0.00575 -0.51783,0.05837 -0.743664,0.1853737 L 2.7122807,6.1581174 C 2.2715192,6.4063692 1.9999991,6.865159 1.9999999,7.3616627 V 21.527534 c -8e-7,0.496504 0.2715193,0.955294 0.7122808,1.203545 l 12.5768043,7.082935 c 0.440413,0.247742 0.982782,0.247742 1.423196,0 L 29.287719,22.731079 C 29.728481,22.482828 30.000001,22.024038 30,21.527534 V 7.3616627 c 1e-6,-0.4965037 -0.271519,-0.9552935 -0.712281,-1.2035453 L 16.712281,2.1859084 C 16.505289,2.0695036 16.27161,2.0057571 16.032749,2.0005347 Z"/>
 <path style="opacity:0.06000001;fill:#8b9cbe" d="m 16.03342,2.0005517 c -0.260834,-0.00589 -0.518316,0.058218 -0.744357,0.1853229 L 2.7124564,6.158477 C 2.3686622,6.3526834 2.1236145,6.6781169 2.0364581,7.0562303 2.1236145,7.4343437 2.3686622,7.7597773 2.7124564,7.9539832 L 15.289063,15.03727 c 0.440464,0.247812 0.98293,0.247812 1.423394,0 L 29.287543,7.9539832 C 29.631337,7.7597773 29.876386,7.4343437 29.963541,7.0562303 29.876386,6.6781169 29.631337,6.3526834 29.287543,6.158477 L 16.712457,2.1858746 C 16.505607,2.0695663 16.272109,2.00584 16.03342,2.0005517 Z"/>
 <path style="opacity:0.07999998" d="M 2.2081161,6.6400131 C 2.1342436,6.7584139 2.0789443,6.886929 2.0440536,7.0212919 2.0789444,6.886929 2.1342438,6.7584139 2.2081161,6.6400131 Z M 2.0364581,7.0562303 C 2.0127694,7.1563779 2.0005418,7.2587795 2,7.361557 v 14.166574 c 2.001e-4,0.496372 0.27177,0.954956 0.7124566,1.20308 L 15.289063,29.814498 C 15.505465,29.935416 15.750614,29.998797 16,29.998302 V 15.222593 c -0.249527,3.3e-5 -0.494685,-0.06387 -0.710937,-0.185323 L 2.7124564,7.9539832 C 2.3686622,7.7597773 2.1236145,7.4343437 2.0364581,7.0562303 Z"/>
 <path style="fill:#564c3d" d="m 16,7.1002299 9,3.3204111 -1e-6,10.145325 -9,4.534034 -8.9999994,-4.534035 V 10.420641 Z"/>
 <path style="opacity:0.05;fill:#8b9cbe" d="M 16,7.1002299 6.9999996,10.420321 V 20.565966 L 16,16.850105 Z"/>
 <path style="opacity:0.12999998;fill:#8b9cbe" d="m 16,7.1002299 9,3.3200911 v 10.145645 l -9,-3.715861 z"/>
 <path style="opacity:0.1" d="m 16.014036,12.000137 a 0.61052462,0.49138071 0 0 0 -0.318713,0.06554 l -5.390058,2.504384 a 0.61052462,0.49138071 0 0 0 -0.3052652,0.425546 v 5.008764 a 0.61052462,0.49138071 0 0 0 0.3052652,0.425549 l 5.390058,2.504383 a 0.61052462,0.49138071 0 0 0 0.60994,0 l 5.389473,-2.504378 A 0.61052462,0.49138071 0 0 0 22,20.004375 v -5.008763 a 0.61052462,0.49138071 0 0 0 -0.305264,-0.42555 l -5.389473,-2.504381 a 0.61052462,0.49138071 0 0 0 -0.291227,-0.06554 z"/>
 <path style="fill:#ff2a2a" d="m 16.014036,11.00013 a 0.61052462,0.49138071 0 0 0 -0.318713,0.06554 l -5.390058,2.504384 A 0.61052462,0.49138071 0 0 0 9.9999998,13.9956 v 5.008764 a 0.61052462,0.49138071 0 0 0 0.3052652,0.425549 l 5.390058,2.504383 a 0.61052462,0.49138071 0 0 0 0.60994,0 l 5.389473,-2.504378 A 0.61052462,0.49138071 0 0 0 22,19.004368 v -5.008763 a 0.61052462,0.49138071 0 0 0 -0.305264,-0.42555 l -5.389473,-2.504381 a 0.61052462,0.49138071 0 0 0 -0.291227,-0.06554 z"/>
 <path style="fill:#ffbd30" d="m 16.014064,11.000125 a 0.61052462,0.49138071 0 0 0 -0.31875,0.06625 l -5.390626,2.502898 a 0.61052462,0.49138071 0 0 0 -0.222656,0.180822 0.61052462,0.49138071 0 0 0 0.222656,0.179033 l 5.390626,2.504692 a 0.61052462,0.49138071 0 0 0 0.609375,0 l 5.390625,-2.504692 a 0.61052462,0.49138071 0 0 0 0.222655,-0.179033 0.61052462,0.49138071 0 0 0 -0.222655,-0.180825 l -5.390625,-2.502901 a 0.61052462,0.49138071 0 0 0 -0.290625,-0.06625 z"/>
 <path style="fill:#ff6f2a" d="m 10.082032,13.750094 c -0.05358,0.07455 -0.08187,0.159142 -0.08203,0.245275 v 5.009381 c 4.3e-4,0.175017 0.116484,0.33664 0.304688,0.424312 l 5.390625,2.504689 c 0.0926,0.04321 0.197668,0.06603 0.304688,0.06625 v -5.499937 c -0.107014,-2.07e-4 -0.212093,-0.02306 -0.304687,-0.06625 l -5.390625,-2.504687 c -0.09239,-0.04299 -0.169153,-0.104711 -0.222657,-0.179034 z"/>
 <path style="opacity:0.1;fill:#8b9cbe" d="M 16.033203 2 C 15.772369 1.99411 15.515104 2.058442 15.289062 2.1855469 L 2.7128906 6.1582031 C 2.3690964 6.3524095 2.1242658 6.6785272 2.0371094 7.0566406 C 2.0791584 7.2390631 2.1586687 7.4075626 2.2675781 7.5566406 C 2.3844184 7.3966785 2.5349266 7.2587335 2.7128906 7.1582031 L 15.289062 3.1855469 C 15.515104 3.058442 15.772369 2.99411 16.033203 3 C 16.271892 3.0052883 16.506041 3.0692386 16.712891 3.1855469 L 29.287109 7.1582031 C 29.465073 7.2587335 29.615581 7.3966785 29.732422 7.5566406 C 29.841331 7.4075626 29.920842 7.2390631 29.962891 7.0566406 C 29.875736 6.6785272 29.630903 6.3524095 29.287109 6.1582031 L 16.712891 2.1855469 C 16.506041 2.0692386 16.271892 2.0052883 16.033203 2 z"/>
</svg>
