<svg xmlns="http://www.w3.org/2000/svg" width="32" height="32" version="1">
 <rect style="opacity:0.2" width="27" height="27" x="2" y="3" rx="1.35" ry="1.35"/>
 <rect style="fill:#4f4f4f" width="27" height="27" x="2" y="2" rx="1.35" ry="1.35"/>
 <path style="opacity:0.2" d="M 7.5,6 C 6.1192881,6 5,7.1192883 5,8.5 5,9.8807125 6.1192881,11 7.5,11 8.8807116,11 10,9.8807125 10,8.5 10,7.1192883 8.8807116,6 7.5,6 Z m 7,0 C 13.115,6 12,7.115 12,8.5 12,9.885 13.115,11 14.5,11 h 9 C 24.885,11 26,9.885 26,8.5 26,7.115 24.885,6 23.5,6 Z m -7,8 C 6.1192881,14 5,15.119288 5,16.5 5,17.880712 6.1192881,19 7.5,19 8.8807116,19 10,17.880712 10,16.5 10,15.119288 8.8807116,14 7.5,14 Z m 7,0 c -1.385,0 -2.5,1.115 -2.5,2.5 0,1.385 1.115,2.5 2.5,2.5 h 9 C 24.885,19 26,17.885 26,16.5 26,15.115 24.885,14 23.5,14 Z m -7,8 C 6.1192881,22 5,23.119288 5,24.5 5,25.880712 6.1192881,27 7.5,27 8.8807116,27 10,25.880712 10,24.5 10,23.119288 8.8807116,22 7.5,22 Z m 7,0 c -1.385,0 -2.5,1.115 -2.5,2.5 0,1.385 1.115,2.5 2.5,2.5 h 9 C 24.885,27 26,25.885 26,24.5 26,23.115 24.885,22 23.5,22 Z"/>
 <path style="fill:#8b9cbe" d="M 7.5,13 C 6.1192881,13 5,14.119288 5,15.5 5,16.880712 6.1192881,18 7.5,18 8.8807116,18 10,16.880712 10,15.5 10,14.119288 8.8807116,13 7.5,13 Z m 7,0 c -1.385,0 -2.5,1.115 -2.5,2.5 0,1.385 1.115,2.5 2.5,2.5 h 9 C 24.885,18 26,16.885 26,15.5 26,14.115 24.885,13 23.5,13 Z"/>
 <path style="fill:#8b9cbe" d="M 7.5 5 C 6.1192881 5 5 6.1192883 5 7.5 C 5 8.8807125 6.1192881 10 7.5 10 C 8.8807116 10 10 8.8807125 10 7.5 C 10 6.1192883 8.8807116 5 7.5 5 z M 14.5 5 C 13.115 5 12 6.115 12 7.5 C 12 8.885 13.115 10 14.5 10 L 23.5 10 C 24.885 10 26 8.885 26 7.5 C 26 6.115 24.885 5 23.5 5 L 14.5 5 z"/>
 <path style="fill:#ff9448" d="M 7.5,21 C 6.1192881,21 5,22.119288 5,23.5 5,24.880712 6.1192881,26 7.5,26 8.8807116,26 10,24.880712 10,23.5 10,22.119288 8.8807116,21 7.5,21 Z m 7,0 c -1.385,0 -2.5,1.115 -2.5,2.5 0,1.385 1.115,2.5 2.5,2.5 h 9 C 24.885,26 26,24.885 26,23.5 26,22.115 24.885,21 23.5,21 Z"/>
 <path style="fill:#8b9cbe;opacity:0.1" d="M 3.3496094 2 C 2.6017094 2 2 2.6017094 2 3.3496094 L 2 4.3496094 C 2 3.6017094 2.6017094 3 3.3496094 3 L 27.650391 3 C 28.398291 3 29 3.6017094 29 4.3496094 L 29 3.3496094 C 29 2.6017094 28.398291 2 27.650391 2 L 3.3496094 2 z"/>
</svg>
