<svg xmlns="http://www.w3.org/2000/svg" width="32" height="32" version="1">
 <path style="opacity:0.2" d="M 30,29.578947 30,5.4210526 C 30,4.6337895 29.3756,4 28.6,4 L 3.4,4 C 2.6244,4 2,4.6337895 2,5.4210526 L 2,29.578947 C 2,30.366211 2.6244,31 3.4,31 l 25.2,0 c 0.7756,0 1.4,-0.633789 1.4,-1.421053 z"/>
 <path style="fill:#d5b380" d="M 30,28.578947 30,4.4210526 C 30,3.6337895 29.3756,3 28.6,3 L 3.4,3 C 2.6244,3 2,3.6337895 2,4.4210526 L 2,28.578947 C 2,29.366211 2.6244,30 3.4,30 l 25.2,0 c 0.7756,0 1.4,-0.633789 1.4,-1.421053 z"/>
 <path style="opacity:0.2;fill:none;stroke:#000000;stroke-width:3" d="m 5.0001431,22.499701 c 0,0 1.6116403,6.72e-4 3.7001344,0 2.0884885,-6.73e-4 2.8000025,-0.7 2.8000025,-2.1 0,-5.809545 -5.0001369,-0.0079 -5.0001369,-5.8 -0.016933,-1.409393 0.082959,-2.1 2.2001344,-2.1 l 4.2998655,0"/>
 <path style="fill:none;stroke:#ff4141;stroke-width:3" d="m 5.0001431,21.5 c 0,0 1.6116403,6.72e-4 3.7001344,0 2.0884885,-6.73e-4 2.8000025,-0.7 2.8000025,-2.1 0,-5.809545 -5.0001369,-0.0079 -5.0001369,-5.8 -0.016933,-1.409393 0.082959,-2.1 2.2001344,-2.1 l 4.2998655,0"/>
 <path style="opacity:0.2;fill:none;stroke:#000000;stroke-width:3" d="m 20,16.499701 7,0 m -3.5,7.5 0,-7.5"/>
 <path style="fill:none;stroke:#8b9cbe;stroke-width:3" d="m 20,15.5 7,0 m -3.5,7.5 0,-7.5"/>
 <path style="fill:#8b9cbe;opacity:0.2" d="M 3.4003906 3 C 2.6247906 3 2 3.6346119 2 4.421875 L 2 5.421875 C 2 4.6346119 2.6247906 4 3.4003906 4 L 28.599609 4 C 29.375209 4 30 4.6346119 30 5.421875 L 30 4.421875 C 30 3.6346119 29.375209 3 28.599609 3 L 3.4003906 3 z"/>
 <rect style="fill:#353535" width="1" height="3" x="16" y="16"/>
 <rect style="fill:#353535" width="1" height="3" x="16" y="12"/>
 <rect style="fill:#353535" width="1" height="3" x="16" y="8"/>
 <rect style="fill:#353535" width="1" height="3" x="16" y="24"/>
 <rect style="fill:#353535" width="1" height="3" x="16" y="20"/>
</svg>
