<svg width="32" height="32" version="1.1" xmlns="http://www.w3.org/2000/svg">
 <circle cx="16" cy="17" r="14" style="opacity:.2"/>
 <circle cx="16" cy="16" r="14" style="fill:#21437c"/>
 <circle cx="16" cy="16" r="10" style="fill:#d42c3c"/>
 <path d="M 16,7 A 10,10 0 0 0 6,17 10,10 0 0 0 16,27 10,10 0 0 0 26,17 10,10 0 0 0 16,7 Z m 0,2 a 7.9992187,7.9992187 0 0 1 2.46875,0.3964844 L 17.332031,11.666016 16,14.333984 14.667969,11.666016 13.533203,9.4003906 A 7.9992187,7.9992187 0 0 1 16,9 Z m -3.632812,0.8730469 0.80664,2.4140621 0.941406,2.828125 -2.828125,-0.941406 -2.4062496,-0.802734 a 7.9992187,7.9992187 0 0 1 1.5449216,-2.109375 7.9992187,7.9992187 0 0 1 1.941407,-1.3886721 z m 7.261718,0.00781 a 7.9992187,7.9992187 0 0 1 2.109375,1.5449216 7.9992187,7.9992187 0 0 1 1.388672,1.941407 l -2.414062,0.80664 -2.828125,0.941406 0.941406,-2.828125 0.802734,-2.4062496 z M 8.3964844,14.53125 10.666016,15.667969 13.333984,17 10.666016,18.332031 8.4003906,19.466797 A 7.9992187,7.9992187 0 0 1 8,17 7.9992187,7.9992187 0 0 1 8.3964844,14.53125 Z m 15.2031246,0.002 A 7.9992187,7.9992187 0 0 1 24,17 7.9992187,7.9992187 0 0 1 23.603516,19.46875 L 21.333984,18.332031 18.666016,17 21.333984,15.667969 23.599609,14.533203 Z M 16,15 A 0.66660155,0.66660155 0 0 1 16.667969,15.667969 0.66660155,0.66660155 0 0 1 16,16.332031 0.66660155,0.66660155 0 0 1 15.332031,15.667969 0.66660155,0.66660155 0 0 1 16,15 Z m -1.332031,1.332031 A 0.66660155,0.66660155 0 0 1 15.332031,17 0.66660155,0.66660155 0 0 1 14.667969,17.667969 0.66660155,0.66660155 0 0 1 14,17 0.66660155,0.66660155 0 0 1 14.667969,16.332031 Z m 2.664062,0 A 0.66660155,0.66660155 0 0 1 18,17 0.66660155,0.66660155 0 0 1 17.332031,17.667969 0.66660155,0.66660155 0 0 1 16.667969,17 0.66660155,0.66660155 0 0 1 17.332031,16.332031 Z M 16,17.667969 A 0.66660155,0.66660155 0 0 1 16.667969,18.332031 0.66660155,0.66660155 0 0 1 16,19 0.66660155,0.66660155 0 0 1 15.332031,18.332031 0.66660155,0.66660155 0 0 1 16,17.667969 Z m -1.884766,1.216797 -0.941406,2.828125 -0.802734,2.40625 A 7.9992187,7.9992187 0 0 1 10.261719,22.574219 7.9992187,7.9992187 0 0 1 8.8730469,20.632812 l 2.4140621,-0.80664 2.828125,-0.941406 z m 3.769532,0 2.828125,0.941406 2.40625,0.802734 a 7.9992187,7.9992187 0 0 1 -1.544922,2.109375 7.9992187,7.9992187 0 0 1 -1.941407,1.388672 l -0.80664,-2.414062 -0.941406,-2.828125 z M 16,19.666016 l 1.332031,2.667968 1.134766,2.265625 A 7.9992187,7.9992187 0 0 1 16,25 7.9992187,7.9992187 0 0 1 13.53125,24.603516 L 14.667969,22.333984 16,19.666016 Z" style="opacity:.2"/>
 <path d="m16 6a10 10 0 0 0-10 10 10 10 0 0 0 10 10 10 10 0 0 0 10-10 10 10 0 0 0-10-10zm0 2a7.9992187 7.9992187 0 0 1 2.46875 0.3964844l-1.136719 2.2695316-1.332031 2.667968-1.332031-2.667968-1.134766-2.2656254a7.9992187 7.9992187 0 0 1 2.466797-0.4003906zm-3.632812 0.8730469 0.80664 2.4140621 0.941406 2.828125-2.828125-0.941406-2.4062496-0.802734a7.9992187 7.9992187 0 0 1 1.5449216-2.109375 7.9992187 7.9992187 0 0 1 1.941407-1.3886721zm7.261718 0.0078125a7.9992187 7.9992187 0 0 1 2.109375 1.5449216 7.9992187 7.9992187 0 0 1 1.388672 1.941407l-2.414062 0.80664-2.828125 0.941406 0.941406-2.828125 0.802734-2.4062496zm-11.232422 4.6503906 2.2695316 1.136719 2.667968 1.332031-2.667968 1.332031-2.2656254 1.134766a7.9992187 7.9992187 0 0 1-0.4003906-2.466797 7.9992187 7.9992187 0 0 1 0.3964844-2.46875zm15.203125 0.001953a7.9992187 7.9992187 0 0 1 0.400391 2.466797 7.9992187 7.9992187 0 0 1-0.396484 2.46875l-2.269532-1.136719-2.667968-1.332031 2.667968-1.332031 2.265625-1.134766zm-7.599609 0.466797a0.66660155 0.66660155 0 0 1 0.667969 0.667969 0.66660155 0.66660155 0 0 1-0.667969 0.664062 0.66660155 0.66660155 0 0 1-0.667969-0.664062 0.66660155 0.66660155 0 0 1 0.667969-0.667969zm-1.332031 1.332031a0.66660155 0.66660155 0 0 1 0.664062 0.667969 0.66660155 0.66660155 0 0 1-0.664062 0.667969 0.66660155 0.66660155 0 0 1-0.667969-0.667969 0.66660155 0.66660155 0 0 1 0.667969-0.667969zm2.664062 0a0.66660155 0.66660155 0 0 1 0.667969 0.667969 0.66660155 0.66660155 0 0 1-0.667969 0.667969 0.66660155 0.66660155 0 0 1-0.664062-0.667969 0.66660155 0.66660155 0 0 1 0.664062-0.667969zm-1.332031 1.335938a0.66660155 0.66660155 0 0 1 0.667969 0.664062 0.66660155 0.66660155 0 0 1-0.667969 0.667969 0.66660155 0.66660155 0 0 1-0.667969-0.667969 0.66660155 0.66660155 0 0 1 0.667969-0.664062zm-1.884766 1.216797-0.941406 2.828125-0.802734 2.40625a7.9992187 7.9992187 0 0 1-2.109375-1.544922 7.9992187 7.9992187 0 0 1-1.3886721-1.941407l2.4140621-0.80664 2.828125-0.941406zm3.769532 0 2.828125 0.941406 2.40625 0.802734a7.9992187 7.9992187 0 0 1-1.544922 2.109375 7.9992187 7.9992187 0 0 1-1.941407 1.388672l-0.80664-2.414062-0.941406-2.828125zm-1.884766 0.78125 1.332031 2.667968 1.134766 2.265625a7.9992187 7.9992187 0 0 1-2.466797 0.400391 7.9992187 7.9992187 0 0 1-2.46875-0.396484l1.136719-2.269532 1.332031-2.667968z" style="fill:#dba824"/>
 <path d="M 16 2 A 14 14 0 0 0 2 16 A 14 14 0 0 0 2.0214844 16.585938 A 14 14 0 0 1 16 3 A 14 14 0 0 1 29.978516 16.414062 A 14 14 0 0 0 30 16 A 14 14 0 0 0 16 2 z" style="fill:#8b9cbe;opacity:.1"/>
 <path d="m16 6a10 10 0 0 0-10 10 10 10 0 0 0 0.0214844 0.414062 10 10 0 0 1 9.9785156-9.414062 10 10 0 0 1 9.978516 9.585938 10 10 0 0 0 0.021484-0.585938 10 10 0 0 0-10-10zm2.027344 3.2773438-0.695313 1.3886722-1.332031 2.667968-1.332031-2.667968-0.69336-1.3867191a7.9992187 7.9992187 0 0 0-0.441406 0.1210937l1.134766 2.2656254 1.175781 2.353515a0.66660155 0.66660155 0 0 1 0.15625-0.019531 0.66660155 0.66660155 0 0 1 0.15625 0.019531l1.175781-2.353515 1.136719-2.2695316a7.9992187 7.9992187 0 0 0-0.441406-0.1191406zm4.599609 3.2558592-1.914062 0.640625-2.453125 0.816406-0.375 1.125 2.828125-0.941406 2.414062-0.80664a7.9992187 7.9992187 0 0 0-0.5-0.833985zm-13.25 0.003906a7.9992187 7.9992187 0 0 0-0.4960937 0.833985l2.4062496 0.802734 2.828125 0.941406-0.375-1.125-2.453125-0.816406-1.9101559-0.636719zm6.1835939 2.628907a0.66660155 0.66660155 0 0 0-0.228516 0.501953 0.66660155 0.66660155 0 0 0 0.667969 0.664062 0.66660155 0.66660155 0 0 0 0.667969-0.664062 0.66660155 0.66660155 0 0 0-0.228516-0.501953 0.66660155 0.66660155 0 0 1-0.439453 0.166015 0.66660155 0.66660155 0 0 1-0.439453-0.166015zm-7.5332032 1.316406a7.9992187 7.9992187 0 0 0-0.0273438 0.517578 7.9992187 7.9992187 0 0 0 0.4003906 2.466797l2.2656254-1.134766 2.667968-1.332031-1.001953-0.5-1.666015 0.832031-2.2656254 1.134766a7.9992187 7.9992187 0 0 1-0.3730468-1.984375zm6.1972652 0.017578a0.66660155 0.66660155 0 0 0-0.224609 0.5 0.66660155 0.66660155 0 0 0 0.667969 0.667969 0.66660155 0.66660155 0 0 0 0.664062-0.667969 0.66660155 0.66660155 0 0 0-0.224609-0.5 0.66660155 0.66660155 0 0 1-0.439453 0.167969 0.66660155 0.66660155 0 0 1-0.44336-0.167969zm2.667969 0a0.66660155 0.66660155 0 0 0-0.224609 0.5 0.66660155 0.66660155 0 0 0 0.664062 0.667969 0.66660155 0.66660155 0 0 0 0.667969-0.667969 0.66660155 0.66660155 0 0 0-0.224609-0.5 0.66660155 0.66660155 0 0 1-0.44336 0.167969 0.66660155 0.66660155 0 0 1-0.439453-0.167969zm2.775391 0-1.001953 0.5 2.667968 1.332031 2.269532 1.136719a7.9992187 7.9992187 0 0 0 0.396484-2.46875 7.9992187 7.9992187 0 0 0-0.027344-0.482422 7.9992187 7.9992187 0 0 1-0.36914 1.951172l-2.269532-1.136719-1.666015-0.832031zm-4.107422 1.333984a0.66660155 0.66660155 0 0 0-0.228516 0.498047 0.66660155 0.66660155 0 0 0 0.511719 0.648438l0.15625-0.314453 0.15625 0.314453a0.66660155 0.66660155 0 0 0 0.511719-0.648438 0.66660155 0.66660155 0 0 0-0.228516-0.498047 0.66660155 0.66660155 0 0 1-0.439453 0.166016 0.66660155 0.66660155 0 0 1-0.439453-0.166016zm-1.445313 1.050782-0.375 0.125-0.566406 1.703125-0.802734 2.40625a7.9992187 7.9992187 0 0 1-2.109375-1.544922 7.9992187 7.9992187 0 0 1-0.8886721-1.107422l-0.5 0.166015a7.9992187 7.9992187 0 0 0 1.3886721 1.941407 7.9992187 7.9992187 0 0 0 2.109375 1.544922l0.802734-2.40625 0.941406-2.828125zm3.769532 0 0.941406 2.828125 0.80664 2.414062a7.9992187 7.9992187 0 0 0 1.941407-1.388672 7.9992187 7.9992187 0 0 0 1.544922-2.109375l-0.496094-0.166015a7.9992187 7.9992187 0 0 1-1.048828 1.27539 7.9992187 7.9992187 0 0 1-1.941407 1.388672l-0.80664-2.414062-0.566406-1.703125-0.375-0.125zm0.140625 4.835937a7.9992187 7.9992187 0 0 1-2.025391 0.279297 7.9992187 7.9992187 0 0 1-2.027344-0.277344l-0.441406 0.88086a7.9992187 7.9992187 0 0 0 2.46875 0.396484 7.9992187 7.9992187 0 0 0 2.466797-0.400391l-0.441406-0.878906z" style="fill:#8b9cbe;opacity:.2"/>
</svg>
