<svg xmlns="http://www.w3.org/2000/svg" width="32" height="32" version="1">
 <rect style="opacity:0.2" width="23" height="28" x="-28" y="-30" rx="1.438" ry="1.4" transform="matrix(0,-1,-1,0,0,0)"/>
 <rect style="fill:#e2d144" width="23" height="28" x="-27" y="-30" rx="1.438" ry="1.4" transform="matrix(0,-1,-1,0,0,0)"/>
 <rect style="opacity:0.5" width="2" height="11" x="6" y="4"/>
 <rect style="opacity:0.5" width="2" height="8" x="21" y="4"/>
 <rect style="opacity:0.5" width="2" height="5" x="9" y="4"/>
 <path style="opacity:0.5" d="m 4,17 0,8 6,0 0,-8 -6,0 z m 2,2 2,0 0,4 -2,0 0,-4 z"/>
 <rect style="opacity:0.5" width="2" height="5" x="12" y="4"/>
 <rect style="opacity:0.5" width="2" height="5" x="15" y="4"/>
 <rect style="opacity:0.5" width="2" height="5" x="18" y="4"/>
 <rect style="opacity:0.5" width="2" height="5" x="24" y="4"/>
 <path style="fill:#8b9cbe;opacity:0.2" d="M 3.4003906 4 C 2.6247906 4 2 4.641125 2 5.4375 L 2 6.4375 C 2 5.641125 2.6247906 5 3.4003906 5 L 28.599609 5 C 29.375209 5 30 5.641125 30 6.4375 L 30 5.4375 C 30 4.641125 29.375209 4 28.599609 4 L 3.4003906 4 z"/>
 <rect style="opacity:0.5" width="2" height="5" x="27" y="4"/>
</svg>
