<svg xmlns="http://www.w3.org/2000/svg" width="32" height="32" version="1">
 <path style="opacity:0.2" d="M 3.1426669,5 C 1.9555241,5 1,5.9331459 1,7.0915097 V 9.1264706 H 31 V 7.0915097 C 31,5.9331459 30.044476,5 28.857333,5 Z M 1,13.75 V 25.90849 C 1,27.066854 1.9555241,28 3.1426669,28 H 28.857333 C 30.044476,28 31,27.066854 31,25.90849 V 13.75 Z"/>
 <path style="fill:#2cb978" d="M 3.1426669,4 C 1.9555241,4 1,4.9331459 1,6.0915097 V 8.1264706 H 31 V 6.0915097 C 31,4.9331459 30.044476,4 28.857333,4 Z M 1,12.75 V 24.90849 C 1,26.066854 1.9555241,27 3.1426669,27 H 28.857333 C 30.044476,27 31,26.066854 31,24.90849 V 12.75 Z"/>
 <path style="opacity:0.2;fill:#8b9cbe" d="M 3.1425781,4 C 1.9554353,4 1,4.9334331 1,6.0917969 v 1 C 1,5.9334331 1.9554353,5 3.1425781,5 H 28.857422 C 30.044565,5 31,5.9334331 31,7.0917969 v -1 C 31,4.9334331 30.044565,4 28.857422,4 Z"/>
 <rect style="opacity:0.1" width="30" height="1" x="1" y="13"/>
 <path style="opacity:0.2" d="m 6,15 -2,2 2,2 z m 0.6666667,0 v 4 H 7.3333334 V 15 Z M 8,15 v 4 h 1.3333334 v -4 z m 2,0 v 4 h 0.666667 v -4 z m 1.333333,0 v 4 H 12 v -4 z m 1.333333,0 v 4 h 1.333333 v -4 z m 2.000001,0 v 4 H 16 v -4 z m 1.999999,0 v 4 h 0.666667 V 15 Z M 18,15 v 4 h 0.666667 v -4 z m 1.333333,0 v 4 H 20 v -4 z m 1.333333,0 v 4 h 0.666667 V 15 Z M 22,15 v 4 h 1.333333 v -4 z m 2,0 v 4 h 0.666666 v -4 z m 1.333334,0 v 4 h 1.333333 v -4 z m 1.999999,0 v 4 H 28 v -4 z"/>
 <path style="opacity:0.2" d="M 4.3007812,22 4.6015625,23.267578 3.6230469,22.447266 3.2578125,23.095703 4.515625,23.509766 3.25,23.90625 3.609375,24.568359 4.6035156,23.742188 4.3007812,25 H 5.1582031 L 4.8808594,23.759766 5.84375,24.589844 6.2148438,23.935547 4.9648438,23.513672 6.25,23.15625 5.8847656,22.501953 4.8710938,23.271484 5.1582031,22 Z m 4.5,0 0.3007813,1.267578 L 8.1230469,22.447266 7.7578125,23.095703 9.015625,23.509766 7.75,23.90625 8.109375,24.568359 9.1035156,23.742188 8.8007812,25 H 9.6582031 L 9.3808594,23.759766 10.34375,24.589844 10.714844,23.935547 9.4648438,23.513672 10.75,23.15625 10.384766,22.501953 9.3710938,23.271484 9.6582031,22 Z m 4.4999998,0 0.300781,1.267578 -0.978515,-0.820312 -0.365235,0.648437 1.257813,0.414063 L 12.25,23.90625 12.609375,24.568359 13.603516,23.742188 13.300781,25 h 0.857422 l -0.277344,-1.240234 0.962891,0.830078 0.371094,-0.654297 -1.25,-0.421875 L 15.25,23.15625 14.884766,22.501953 13.871094,23.271484 14.158203,22 Z m 4.5,0 0.300781,1.267578 -0.978515,-0.820312 -0.365235,0.648437 1.257813,0.414063 L 16.75,23.90625 17.109375,24.568359 18.103516,23.742188 17.800781,25 h 0.857422 l -0.277344,-1.240234 0.962891,0.830078 0.371094,-0.654297 -1.25,-0.421875 L 19.75,23.15625 19.384766,22.501953 18.371094,23.271484 18.658203,22 Z m 4.5,0 0.300781,1.267578 -0.978515,-0.820312 -0.365235,0.648437 1.257813,0.414063 L 21.25,23.90625 21.609375,24.568359 22.603516,23.742188 22.300781,25 h 0.857422 l -0.277344,-1.240234 0.962891,0.830078 0.371094,-0.654297 -1.25,-0.421875 L 24.25,23.15625 23.884766,22.501953 22.871094,23.271484 23.158203,22 Z m 4.5,0 0.300781,1.267578 -0.978515,-0.820312 -0.365235,0.648437 1.257813,0.414063 L 25.75,23.90625 26.109375,24.568359 27.103516,23.742188 26.800781,25 h 0.857422 l -0.277344,-1.240234 0.962891,0.830078 0.371094,-0.654297 -1.25,-0.421875 L 28.75,23.15625 28.384766,22.501953 27.371094,23.271484 27.658203,22 Z"/>
 <path style="fill:#b2f5c0" d="M 4.3007812,21 4.6015625,22.267578 3.6230469,21.447266 3.2578125,22.095703 4.515625,22.509766 3.25,22.90625 3.609375,23.568359 4.6035156,22.742188 4.3007812,24 H 5.1582031 L 4.8808594,22.759766 5.84375,23.589844 6.2148438,22.935547 4.9648438,22.513672 6.25,22.15625 5.8847656,21.501953 4.8710938,22.271484 5.1582031,21 Z m 4.5,0 0.3007813,1.267578 L 8.1230469,21.447266 7.7578125,22.095703 9.015625,22.509766 7.75,22.90625 8.109375,23.568359 9.1035156,22.742188 8.8007812,24 H 9.6582031 L 9.3808594,22.759766 10.34375,23.589844 10.714844,22.935547 9.4648438,22.513672 10.75,22.15625 10.384766,21.501953 9.3710938,22.271484 9.6582031,21 Z m 4.4999998,0 0.300781,1.267578 -0.978515,-0.820312 -0.365235,0.648437 1.257813,0.414063 L 12.25,22.90625 12.609375,23.568359 13.603516,22.742188 13.300781,24 h 0.857422 l -0.277344,-1.240234 0.962891,0.830078 0.371094,-0.654297 -1.25,-0.421875 L 15.25,22.15625 14.884766,21.501953 13.871094,22.271484 14.158203,21 Z m 4.5,0 0.300781,1.267578 -0.978515,-0.820312 -0.365235,0.648437 1.257813,0.414063 L 16.75,22.90625 17.109375,23.568359 18.103516,22.742188 17.800781,24 h 0.857422 l -0.277344,-1.240234 0.962891,0.830078 0.371094,-0.654297 -1.25,-0.421875 L 19.75,22.15625 19.384766,21.501953 18.371094,22.271484 18.658203,21 Z m 4.5,0 0.300781,1.267578 -0.978515,-0.820312 -0.365235,0.648437 1.257813,0.414063 L 21.25,22.90625 21.609375,23.568359 22.603516,22.742188 22.300781,24 h 0.857422 l -0.277344,-1.240234 0.962891,0.830078 0.371094,-0.654297 -1.25,-0.421875 L 24.25,22.15625 23.884766,21.501953 22.871094,22.271484 23.158203,21 Z m 4.5,0 0.300781,1.267578 -0.978515,-0.820312 -0.365235,0.648437 1.257813,0.414063 L 25.75,22.90625 26.109375,23.568359 27.103516,22.742188 26.800781,24 h 0.857422 l -0.277344,-1.240234 0.962891,0.830078 0.371094,-0.654297 -1.25,-0.421875 L 28.75,22.15625 28.384766,21.501953 27.371094,22.271484 27.658203,21 Z"/>
 <rect style="fill:#17191e" width="30" height="5" x="1" y="8"/>
 <path style="opacity:0.2" d="m 11,3 c -4.4182784,0 -8,3.5817222 -8,8 0,3.356237 2.0697527,6.224592 5,7.412109 V 30.197266 L 8.6816406,31 H 10.556641 L 13,28.589844 12.488281,28.052734 13,27.517578 11.720703,26.447266 13,25.375 12.488281,24.839844 13,24.302734 12.232422,23.5 13,22.697266 V 21.892578 L 12.488281,21.357422 13,20.822266 V 20 h 1 V 18.412109 C 16.930247,17.224592 19,14.356237 19,11 19,6.5817222 15.418277,3 11,3 Z m 0,2 c 1.104548,1e-7 1.99997,0.8954218 2,2 -3e-5,1.1045783 -0.895452,2 -2,2 C 9.8954528,9 9.0000303,8.1045783 9,7 9.0000303,5.8954218 9.8954528,5.0000001 11,5 Z"/>
 <path style="fill:#b2bfd9" d="M 8,14.999995 14,15 v 4 h -0.999943 v 0.82142 l -0.511364,0.535715 0.511364,0.535715 v 0.803572 l -0.767045,0.803571 0.767045,0.803571 -0.511364,0.535715 0.511362,0.535713 -1.280112,1.071428 1.280114,1.071429 -0.511364,0.535714 0.511364,0.535714 -2.443238,2.410715 -1.874936,3e-6 L 8,29.196418 Z"/>
 <path style="opacity:0.2" d="m 9.1467765,18.135427 c 0.3174542,-0.29164 0.8591885,-0.08067 0.8531111,0.332191 L 9.9999998,29.999997 9.0000459,30 V 18.467618 c -0.00183,-0.124438 0.051069,-0.244273 0.1467306,-0.332191 z"/>
 <path style="fill:#b2bfd9" d="M 11 2 C 6.5817216 2 3 5.5817222 3 10 C 3 14.418278 6.5817216 18 11 18 C 15.418277 18 19 14.418278 19 10 C 19 5.5817222 15.418277 2 11 2 z M 11 4 C 12.104548 4.0000001 12.99997 4.8954218 13 6 C 12.99997 7.1045783 12.104548 8 11 8 C 9.8954528 8 9.0000303 7.1045783 9 6 C 9.0000303 4.8954218 9.8954528 4.0000001 11 4 z"/>
 <path style="fill:#8b9cbe;opacity:0.2" d="M 11 2 C 6.5817216 2 3 5.5817222 3 10 C 3 10.168723 3.0150972 10.33387 3.0253906 10.5 C 3.2846474 6.3157471 6.7504443 3 11 3 C 15.249554 3 18.715352 6.3157471 18.974609 10.5 C 18.984903 10.33387 19 10.168723 19 10 C 19 5.5817222 15.418277 2 11 2 z M 9.0703125 6.5 C 9.0286526 6.660758 9.0000048 6.8262147 9 7 C 9.0000303 8.1045783 9.8954528 9 11 9 C 12.104548 9 12.99997 8.1045783 13 7 C 12.999995 6.8262147 12.971347 6.660758 12.929688 6.5 C 12.706557 7.361019 11.930767 8 11 8 C 10.069233 8 9.2934428 7.361019 9.0703125 6.5 z"/>
</svg>
