<svg xmlns="http://www.w3.org/2000/svg" width="32" height="32" version="1.1">
 <path style="opacity:0.2" d="M 11.907408,2 C 8.5453458,2 5.7253976,3.100659 5.7253974,6.4806327 c -1e-7,1.5755946 0.5968376,3.1859711 1.5697446,4.4607743 0.3824577,0.400733 0.3589941,0.649805 0.2417157,1.116257 -0.2083829,0.762207 -0.5169078,1.671756 -0.7996281,2.340311 -1.9587488,1.901822 -2.3878482,5.270403 -0.6323953,7.454954 0.6929256,1.123087 0.4463979,2.76026 1.3870526,3.87357 0.9380298,1.331097 2.3610096,2.49516 4.0248421,2.632496 C 12.660316,29.960269 14.567606,30.953477 16.5,31 c 1.932394,-0.04652 3.839683,-1.039731 4.983271,-2.641005 1.663832,-0.137336 3.086812,-1.301399 4.024842,-2.632496 0.940655,-1.11331 0.694126,-2.750483 1.387053,-3.87357 1.755453,-2.184551 1.326353,-5.553132 -0.632396,-7.454954 C 25.98005,13.72942 25.671524,12.819871 25.463142,12.057664 25.345863,11.591212 25.322399,11.34214 25.704858,10.941407 26.677765,9.6666038 27.274602,8.0562273 27.274602,6.4806327 27.274602,3.100659 24.454654,2 21.092591,2 19.824443,2 17.9375,3.1573902 16.5,3.1573902 15.0625,3.1573902 13.175556,2 11.907408,2 Z"/>
 <path style="fill:#17191e" d="M 11.907408,1 C 8.5453458,1 5.7253976,2.100659 5.7253974,5.4806327 c -1e-7,1.5755946 0.5968376,3.1859711 1.5697446,4.4607742 0.3824577,0.4007331 0.3589941,0.6498051 0.2417157,1.1162571 -0.2083829,0.762207 -0.5169078,1.671756 -0.7996281,2.340311 -1.9587488,1.901822 -2.3878482,5.270403 -0.6323953,7.454954 0.6929256,1.123087 0.4463979,2.76026 1.3870526,3.87357 0.9380298,1.331097 2.3610096,2.49516 4.0248421,2.632496 C 12.660316,28.960269 14.567606,29.953477 16.5,30 c 1.932394,-0.04652 3.839683,-1.039731 4.983271,-2.641005 1.663832,-0.137336 3.086812,-1.301399 4.024842,-2.632496 0.940655,-1.11331 0.694126,-2.750483 1.387053,-3.87357 1.755453,-2.184551 1.326353,-5.553132 -0.632396,-7.454954 C 25.98005,12.72942 25.671524,11.819871 25.463142,11.057664 25.345863,10.591212 25.322399,10.34214 25.704858,9.9414069 26.677765,8.6666038 27.274602,7.0562273 27.274602,5.4806327 27.274602,2.100659 24.454654,1 21.092591,1 19.824443,1 17.9375,2.1573902 16.5,2.1573902 15.0625,2.1573902 13.175556,1 11.907408,1 Z"/>
 <path style="opacity:0.2" d="m 12.349609,4.9998023 c 0.119015,0.1497529 0.285729,0.2967329 0.109375,0.46875 C 12.215918,5.3117476 11.969879,5.1542262 11.392578,5.0427711 11.522671,5.1926009 11.791975,5.34216 11.628906,5.4919898 11.323691,5.3715637 10.986949,5.2849443 10.613281,5.2341773 10.792205,5.3862108 10.941574,5.5343864 10.794922,5.6521461 10.468308,5.5483483 10.017815,5.4086299 9.578125,5.5290992 l 0.2792969,0.2890625 c 0.030897,0.038724 -0.6514172,0.030309 -1.1015625,0.037109 0.1642921,0.2357447 0.3318835,0.4642496 0.4296875,0.8691406 -0.044618,0.046696 -0.2681911,0.020754 -0.4785157,0 0.2156527,0.4690408 0.5903044,0.5863935 0.6777344,0.7871094 -0.1317389,0.103055 -0.3138813,0.075932 -0.5136718,0.00586 0.1552695,0.3304677 0.4809865,0.5579973 0.7382812,0.8261719 -0.065045,0.047692 -0.1801372,0.076022 -0.4492188,0.042969 0.2377011,0.2610255 0.5248505,0.5002588 0.8652348,0.7148437 -0.060274,0.071954 -0.2667043,0.067476 -0.4589848,0.072266 0.3083162,0.3117572 0.7042858,0.4737918 1.0761718,0.6777344 -0.185386,0.130832 -0.317038,0.1013894 -0.458984,0.099609 0.263029,0.2232378 0.709806,0.3379008 1.125,0.4726558 -0.07897,0.126776 -0.157357,0.161676 -0.326172,0.197266 0.439459,0.251241 1.068563,0.137235 1.246094,0.265625 -0.04286,0.126283 -0.16373,0.208724 -0.308594,0.277343 0.707486,0.04244 2.642768,-0.02631 3.013672,-1.5390617 -0.724256,-0.8219929 -2.046244,-1.7873911 -4.320313,-2.9804688 1.769152,0.6117164 3.36517,1.426733 4.701172,2.5488282 1.57063,-0.7554828 0.486964,-2.6614917 -0.279297,-3.4179688 -0.03885,0.1997521 -0.08255,0.3260413 -0.132812,0.3632813 -0.249497,-0.2762906 -0.452258,-0.558349 -0.773438,-0.8242188 -0.001,0.1561521 0.07598,0.3253199 -0.115234,0.4492188 C 13.841497,5.524161 13.607877,5.3099868 13.298828,5.1287085 13.447684,5.3938922 13.324171,5.4738816 13.244141,5.5837867 13.008099,5.3746772 12.784882,5.1638585 12.349609,4.9998023 Z m 8.59375,0 C 20.508086,5.1638585 20.282917,5.3746772 20.046875,5.5837867 19.966847,5.4738816 19.84333,5.3938922 19.992188,5.1287085 19.683139,5.3099867 19.451473,5.524161 19.279297,5.7634742 19.088083,5.6395753 19.165108,5.4704075 19.164062,5.3142554 c -0.32118,0.2658698 -0.525892,0.5479282 -0.77539,0.8242188 -0.05026,-0.03724 -0.09397,-0.1635292 -0.132813,-0.3632813 -0.766262,0.7564771 -1.847973,2.662486 -0.277343,3.4179688 1.336,-1.1220952 2.932019,-1.9371118 4.701172,-2.5488282 -2.27407,1.1930777 -3.596057,2.1584759 -4.320313,2.9804688 0.370904,1.5127477 2.306186,1.5814987 3.013672,1.5390617 -0.144863,-0.06862 -0.265733,-0.15106 -0.308594,-0.277343 0.177531,-0.12839 0.806635,-0.01438 1.246094,-0.265625 -0.168814,-0.03559 -0.24916,-0.07049 -0.328125,-0.197266 0.415194,-0.134755 0.863924,-0.249418 1.126953,-0.4726558 -0.141946,0.00178 -0.275551,0.031223 -0.460937,-0.099609 0.371885,-0.2039423 0.769809,-0.3659772 1.078124,-0.6777344 -0.19228,-0.00479 -0.400663,-3.066e-4 -0.460937,-0.072266 0.340384,-0.2145849 0.627533,-0.4538182 0.865234,-0.7148437 -0.269082,0.033053 -0.38222,0.00472 -0.447265,-0.042969 0.257294,-0.2681746 0.583012,-0.4957042 0.738281,-0.8261719 -0.19979,0.070073 -0.381933,0.097196 -0.513672,-0.00586 0.08743,-0.2007159 0.462082,-0.3180686 0.677735,-0.7871094 -0.210324,0.020754 -0.433898,0.046696 -0.478516,0 0.0978,-0.4048938 0.265395,-0.633396 0.429687,-0.8691406 -0.450146,-0.0068 -1.132459,0.00161 -1.101562,-0.037109 L 23.714844,5.5290992 C 23.275155,5.4086299 22.824661,5.5483483 22.498047,5.6521461 22.351395,5.5343864 22.500764,5.3862108 22.679688,5.2341773 22.30602,5.2849448 21.967325,5.3715637 21.662109,5.4919898 21.499041,5.34216 21.768344,5.1926009 21.898438,5.0427711 21.321137,5.1542262 21.07705,5.3117476 20.833984,5.4685523 20.65763,5.2965352 20.824348,5.1495552 20.943359,4.9998023 Z m -4.332031,6.2324217 c -1.255135,-0.03322 -2.460009,0.946517 -2.46289,1.515625 -0.0035,0.69151 0.991887,1.399998 2.470703,1.417969 1.510176,0.01101 2.473645,-0.565672 2.478515,-1.279297 0.0055,-0.808522 -1.372582,-1.666787 -2.486328,-1.654297 z m -3.789062,0.480469 c -1.742763,0.03301 -3.0753031,1.260556 -3.0136722,3.291015 0.069176,0.889618 4.5559452,-3.098023 3.7812502,-3.230468 -0.262869,-0.04517 -0.518612,-0.06526 -0.767578,-0.06055 z m 7.347656,0.06836 c -0.248966,-0.0047 -0.506662,0.01538 -0.769531,0.06055 -0.774694,0.132446 3.714023,4.120087 3.783203,3.230469 0.06163,-2.03046 -1.27091,-3.258006 -3.013672,-3.291016 z m -0.740234,2.476562 a 2.9184755,2.455577 58.681418 0 0 -1.283204,0.351563 2.9184755,2.455577 58.681418 1 0 3.177735,4.894531 2.9184755,2.455577 58.681418 0 0 -1.894531,-5.246094 z m -5.613282,0.136719 a 2.455577,2.9184755 31.318582 0 0 -1.894531,5.246094 2.455577,2.9184755 31.318582 1 0 3.177734,-4.894531 2.455577,2.9184755 31.318582 0 0 -1.283203,-0.351563 z m 9.72461,1.513672 c -1.218709,-0.332296 -0.411409,5.129862 0.580078,4.681641 1.090612,-0.892736 1.441937,-3.506648 -0.580078,-4.681641 z m -14.0820316,0.06836 c -2.0220148,1.174992 -1.6706905,3.788905 -0.5800782,4.681641 0.9914872,0.448221 1.7987868,-5.013936 0.5800782,-4.681641 z m 7.2968746,3.517579 a 2.72396,2.5560692 0 0 0 -2.804687,2.554687 2.7246095,2.5566787 0 0 0 5.449219,0 2.72396,2.5560692 0 0 0 -2.644532,-2.554687 z m 5.941407,0.949218 c -0.638311,0.01693 -1.399595,0.631639 -2.123047,1.462891 -0.842951,1.00475 -1.31222,2.837407 -0.697266,3.427734 0.587975,0.458536 2.166126,0.394293 3.332031,-1.251953 0.846605,-1.105664 0.563664,-2.951222 0.08008,-3.441406 -0.179589,-0.141357 -0.379026,-0.20291 -0.591796,-0.197266 z M 10.46875,20.83574 c -0.228601,-0.01 -0.4429,0.03778 -0.6308594,0.154296 -0.5027454,0.389365 -0.5949548,1.715165 0.1210938,3.017578 1.0617356,1.552106 2.5567606,1.707703 3.1718746,1.330079 0.650185,-0.494668 0.294729,-2.173742 -0.484375,-3.128907 -0.670575,-0.79179 -1.49193,-1.34313 -2.177734,-1.373046 z m 6.21875,4.576171 c -1.087476,-0.02769 -2.754625,0.443516 -2.734375,1.046875 -0.01739,0.411516 1.309091,1.598453 2.662109,1.539063 1.306477,0.02292 2.656832,-1.162839 2.638672,-1.6875 -0.0029,-0.540288 -1.47209,-0.947038 -2.566406,-0.898438 z"/>
 <g transform="matrix(0.03346795,0,0,0.03405742,7.0187222,3.3262269)">
  <path style="fill:#75a928" d="m 107.39184,68.055583 c 67.94767,35.031357 107.44689,63.368967 129.08717,87.504467 -11.08235,44.41759 -68.89638,46.44464 -90.03559,45.19858 4.32842,-2.01474 7.93988,-4.42778 9.22051,-8.13574 -5.30449,-3.76981 -24.11289,-0.39719 -37.24363,-7.77416 5.04407,-1.04499 7.40348,-2.06302 9.76289,-5.78542 -12.40571,-3.9567 -25.76862,-7.36642 -33.627746,-13.92116 4.241253,0.0524 8.201156,0.9488 13.740366,-2.89271 -11.111694,-5.98819 -22.969108,-10.73351 -32.18139,-19.88738 5.745213,-0.14063 11.939452,-0.0568 13.740371,-2.16953 -10.17044,-6.30068 -18.751242,-13.30787 -25.853592,-20.97215 8.039979,0.97052 11.435284,0.13478 13.378782,-1.26556 -7.687795,-7.87419 -17.417559,-14.52319 -22.056911,-24.22644 5.969606,2.057484 11.431249,2.84506 15.36752,-0.180795 -2.612365,-5.893453 -13.805413,-9.369618 -20.248967,-23.141676 6.284359,0.609377 12.949606,1.371108 14.282753,0 C 61.802068,58.517346 56.796919,51.835885 51.887978,44.913906 65.338021,44.714177 85.715734,44.966253 84.792549,43.82914 l -8.31654,-8.497335 c 13.137617,-3.537241 26.580651,0.568164 36.339661,3.615887 4.38186,-3.457681 -0.0776,-7.82998 -5.42383,-12.294015 11.16496,1.490646 21.25382,4.057389 30.37345,7.593362 4.87238,-4.399329 -3.16389,-8.798658 -7.05098,-13.197987 17.24936,3.272568 24.55716,7.87068 31.81981,12.47481 5.26935,-5.050799 0.30166,-9.343299 -3.2543,-13.740371 13.00566,4.817048 19.70478,11.035551 26.75756,17.175463 2.39119,-3.227053 6.07494,-5.592408 1.62715,-13.378781 9.23416,5.322725 16.18926,11.59506 21.33374,18.621817 5.71336,-3.637941 3.40387,-8.613023 3.43509,-13.197987 9.59665,7.806516 15.68687,16.11395 23.14168,24.226443 1.50169,-1.093437 2.81661,-4.80171 3.97747,-10.666867 22.89539,22.211815 55.24591,78.158241 8.31654,100.340861 C 207.95028,109.95728 160.25292,86.016909 107.39184,68.055583 Z"/>
  <path style="fill:#75a928" d="M 467.92487,68.055583 C 399.9772,103.08694 360.47798,131.42455 338.8377,155.56005 c 11.08235,44.41759 68.89638,46.44464 90.03559,45.19858 -4.32842,-2.01474 -7.93988,-4.42778 -9.22051,-8.13574 5.30449,-3.76981 24.11289,-0.39719 37.24363,-7.77416 -5.04407,-1.04499 -7.40348,-2.06302 -9.76289,-5.78542 12.40571,-3.9567 25.76862,-7.36642 33.62775,-13.92116 -4.24126,0.0524 -8.20116,0.9488 -13.74037,-2.89271 11.11169,-5.98819 22.96911,-10.73351 32.18139,-19.88738 -5.74521,-0.14063 -11.93945,-0.0568 -13.74037,-2.16953 10.17044,-6.30068 18.75124,-13.30787 25.85359,-20.97215 -8.03998,0.97052 -11.43528,0.13478 -13.37878,-1.26556 7.68779,-7.87419 17.41756,-14.52319 22.05691,-24.22644 -5.96961,2.057484 -11.43125,2.84506 -15.36752,-0.180795 2.61237,-5.893453 13.80541,-9.369618 20.24897,-23.141676 -6.28436,0.609377 -12.94961,1.371108 -14.28276,0 2.92231,-11.888563 7.92746,-18.570024 12.8364,-25.492003 -13.45004,-0.199729 -33.82775,0.05235 -32.90457,-1.084766 l 8.31654,-8.497335 c -13.13762,-3.537241 -26.58065,0.568164 -36.33966,3.615887 -4.38186,-3.457681 0.0776,-7.82998 5.42383,-12.294015 -11.16496,1.490646 -21.25382,4.057389 -30.37345,7.593362 -4.87238,-4.399329 3.16389,-8.798658 7.05098,-13.197987 -17.24936,3.272568 -24.55716,7.87068 -31.81981,12.47481 -5.26935,-5.050799 -0.30166,-9.343299 3.2543,-13.740371 -13.00566,4.817048 -19.70478,11.035551 -26.75756,17.175463 -2.39119,-3.227053 -6.07494,-5.592408 -1.62715,-13.378781 -9.23416,5.322725 -16.18926,11.59506 -21.33374,18.621817 -5.71336,-3.637941 -3.40387,-8.613023 -3.43509,-13.197987 -9.59665,7.806516 -15.68687,16.11395 -23.14168,24.226443 -1.50169,-1.093437 -2.81661,-4.80171 -3.97747,-10.666867 -22.89539,22.211815 -55.24591,78.158241 -8.31654,100.340861 39.91877,-32.94716 87.61613,-56.887531 140.47721,-74.848857 z"/>
  <path style="fill:#bc1142" transform="matrix(1.131107,0,0,1.1280497,-43.139135,-68.310983)" d="m 365.2046,521.84937 a 71.956155,66.532319 0 1 1 -143.91231,0 71.956155,66.532319 0 1 1 143.91231,0 z"/>
  <path style="fill:#bc1142" transform="matrix(0.76741684,-1.1613112,2.171115,1.4224368,-560.88858,217.68859)" d="m 262.84091,276.64774 a 61.875,28.125 0 1 1 -123.75,0 61.875,28.125 0 1 1 123.75,0 z"/>
  <path style="fill:#bc1142" transform="matrix(-0.76741684,-1.1613112,-2.171115,1.4224368,1134.8288,213.68859)" d="m 262.84091,276.64774 a 61.875,28.125 0 1 1 -123.75,0 61.875,28.125 0 1 1 123.75,0 z"/>
  <path style="fill:#bc1142" d="M 72.910253,342.0878 C 109.32447,332.33088 85.201845,492.72431 55.576871,479.56357 22.990103,453.35089 12.493801,376.58814 72.910253,342.0878 Z"/>
  <path style="fill:#bc1142" d="m 493.67828,340.0878 c -36.41422,-9.75692 -12.2916,150.63651 17.33338,137.47577 32.58677,-26.21268 43.08307,-102.97543 -17.33338,-137.47577 z"/>
  <path style="fill:#bc1142" d="m 369.97158,220.6534 c 62.83486,-10.61013 115.11594,26.72229 113.01138,94.85796 -2.06693,26.12112 -136.15872,-90.96907 -113.01138,-94.85796 z"/>
  <path style="fill:#bc1142" d="M 196.35975,218.6534 C 133.52489,208.04327 81.24381,245.37569 83.34837,313.51136 85.4153,339.63248 219.50709,222.54229 196.35975,218.6534 Z"/>
  <path style="fill:#bc1142" d="m 286.61932,202.75568 c -37.50259,-0.97548 -73.49548,27.83418 -73.58158,44.54443 -0.10462,20.30426 29.6512,41.09266 73.83726,41.62035 45.12305,0.32321 73.91561,-16.64049 74.0611,-37.59409 0.16484,-23.73996 -41.03879,-48.93744 -74.31678,-48.57069 z"/>
  <path style="fill:#bc1142" d="m 288.90937,619.11675 c 32.69744,-1.42711 76.57083,10.53196 76.6568,26.39598 0.5427,15.4052 -39.78969,50.21055 -78.82634,49.53765 -40.42729,1.74391 -80.06908,-33.11559 -79.54951,-45.19859 -0.60506,-17.71593 49.226,-31.54796 81.71905,-30.73504 z"/>
  <path style="fill:#bc1142" d="m 168.13874,525.10369 c 23.2791,28.04573 33.89066,77.31899 14.46355,91.84353 -18.37917,11.08784 -63.01228,6.52162 -94.736237,-39.05157 -21.395052,-38.24168 -18.637584,-77.15663 -3.615887,-88.58924 22.464424,-13.68429 57.173424,4.79902 83.888574,35.79728 z"/>
  <path style="fill:#bc1142" d="m 405.0209,516.21177 c -25.18682,29.50165 -39.21227,83.30951 -20.83785,100.6428 17.56828,13.46361 64.7292,11.58162 99.56566,-36.75574 25.29599,-32.46471 16.82013,-86.68225 2.37077,-101.07511 -21.46408,-16.60213 -52.27691,4.64489 -81.09858,37.18805 z"/>
 </g>
 <path style="opacity:0.1;fill:#8b9cbe" d="M 11.908203 1 C 8.5461409 1 5.7246096 2.1004951 5.7246094 5.4804688 C 5.7246094 5.655308 5.7356031 5.8306696 5.75 6.0058594 C 6.0067891 2.9999947 8.7103148 2 11.908203 2 C 13.176351 2 15.0625 3.1582031 16.5 3.1582031 C 17.9375 3.1582031 19.823649 2 21.091797 2 C 24.289686 2 26.993211 2.9999947 27.25 6.0058594 C 27.264397 5.8306696 27.275391 5.655308 27.275391 5.4804688 C 27.275391 2.100495 24.45386 1 21.091797 1 C 19.823649 1 17.9375 2.1582031 16.5 2.1582031 C 15.0625 2.1582031 13.176351 1 11.908203 1 z M 7.4941406 11.197266 C 7.2872799 11.930383 7.0027803 12.768352 6.7363281 13.398438 C 5.4991412 14.599668 4.8790146 16.384299 5.0273438 18.087891 C 5.1463535 16.711071 5.7404754 15.365348 6.7363281 14.398438 C 7.0190484 13.729883 7.3287265 12.820801 7.5371094 12.058594 C 7.6273796 11.699561 7.6573574 11.467012 7.4941406 11.197266 z M 25.505859 11.197266 C 25.342642 11.467012 25.37262 11.699561 25.462891 12.058594 C 25.671273 12.820801 25.980952 13.729883 26.263672 14.398438 C 27.259525 15.365348 27.853646 16.711071 27.972656 18.087891 C 28.120985 16.384299 27.500859 14.599668 26.263672 13.398438 C 25.99722 12.768352 25.712719 11.930383 25.505859 11.197266 z"/>
 <path style="fill:#8b9cbe;opacity:0.2" d="M 12.349609 4 C 12.468624 4.1497529 12.635338 4.2967329 12.458984 4.46875 C 12.215918 4.3119453 11.969879 4.1544239 11.392578 4.0429688 C 11.522671 4.1927986 11.791975 4.3423577 11.628906 4.4921875 C 11.323691 4.3717614 10.986949 4.285142 10.613281 4.234375 C 10.792205 4.3864085 10.941574 4.534584 10.794922 4.6523438 C 10.468308 4.548546 10.017815 4.4088276 9.578125 4.5292969 L 9.8574219 4.8183594 C 9.888319 4.8570834 9.2060047 4.8486687 8.7558594 4.8554688 C 8.9201515 5.0912135 9.0877429 5.3197184 9.1855469 5.7246094 C 9.1409292 5.7713054 8.9173559 5.7453634 8.7070312 5.7246094 C 8.7310421 5.7768325 8.7617255 5.8113647 8.7890625 5.8554688 C 9.2388134 5.8494676 9.8876167 5.8562033 9.8574219 5.8183594 L 9.578125 5.5292969 C 10.017815 5.4088276 10.468308 5.5485459 10.794922 5.6523438 C 10.941574 5.534584 10.792205 5.3864085 10.613281 5.234375 C 10.986949 5.285142 11.323691 5.3717614 11.628906 5.4921875 C 11.791975 5.3423577 11.522671 5.1927986 11.392578 5.0429688 C 11.969879 5.1544239 12.215918 5.3119453 12.458984 5.46875 C 12.635338 5.2967329 12.468624 5.1497529 12.349609 5 C 12.784882 5.1640562 13.008099 5.3748749 13.244141 5.5839844 C 13.324171 5.4740793 13.447684 5.3940899 13.298828 5.1289062 C 13.607877 5.3101846 13.841497 5.5243582 14.013672 5.7636719 C 14.204886 5.639773 14.127906 5.4706052 14.128906 5.3144531 C 14.450086 5.5803229 14.652847 5.8623813 14.902344 6.1386719 C 14.952606 6.1014319 14.996306 5.9751427 15.035156 5.7753906 C 15.411856 6.147281 15.862014 6.7969196 16.039062 7.4511719 C 16.364753 6.560561 15.610729 5.3436142 15.035156 4.7753906 C 14.996308 4.9751427 14.952604 5.1014319 14.902344 5.1386719 C 14.652847 4.8623813 14.450086 4.5803229 14.128906 4.3144531 C 14.127861 4.4706052 14.204886 4.639773 14.013672 4.7636719 C 13.841497 4.5243587 13.607877 4.3101845 13.298828 4.1289062 C 13.447684 4.3940899 13.324171 4.4740793 13.244141 4.5839844 C 13.008099 4.3748749 12.784882 4.1640562 12.349609 4 z M 20.943359 4 C 20.508086 4.1640562 20.282917 4.3748749 20.046875 4.5839844 C 19.966847 4.4740793 19.84333 4.3940899 19.992188 4.1289062 C 19.683139 4.3101844 19.451473 4.5243587 19.279297 4.7636719 C 19.088083 4.639773 19.165108 4.4706052 19.164062 4.3144531 C 18.842882 4.5803229 18.63817 4.8623813 18.388672 5.1386719 C 18.338412 5.1014319 18.294706 4.9751427 18.255859 4.7753906 C 17.68081 5.3430973 16.927972 6.5588259 17.251953 7.4492188 C 17.428848 6.7955427 17.879486 6.1469581 18.255859 5.7753906 C 18.294702 5.9751427 18.338412 6.1014319 18.388672 6.1386719 C 18.63817 5.8623813 18.842883 5.5803229 19.164062 5.3144531 C 19.165108 5.4706052 19.088083 5.639773 19.279297 5.7636719 C 19.451473 5.5243587 19.683139 5.3101844 19.992188 5.1289062 C 19.84333 5.39409 19.966847 5.4740793 20.046875 5.5839844 C 20.282917 5.3748749 20.508086 5.1640562 20.943359 5 C 20.824348 5.1497529 20.65763 5.2967329 20.833984 5.46875 C 21.07705 5.3119453 21.321137 5.1544238 21.898438 5.0429688 C 21.768344 5.1927986 21.499041 5.3423577 21.662109 5.4921875 C 21.967325 5.3717614 22.30602 5.2851425 22.679688 5.234375 C 22.500763 5.3864085 22.351395 5.534584 22.498047 5.6523438 C 22.824661 5.5485459 23.275155 5.4088276 23.714844 5.5292969 L 23.435547 5.8183594 C 23.405352 5.8561985 24.054155 5.8494674 24.503906 5.8554688 C 24.531243 5.8113647 24.561927 5.7768325 24.585938 5.7246094 C 24.375614 5.7453634 24.15204 5.7713054 24.107422 5.7246094 C 24.205222 5.3197156 24.372817 5.0912134 24.537109 4.8554688 C 24.086963 4.8486687 23.40465 4.8570834 23.435547 4.8183594 L 23.714844 4.5292969 C 23.275155 4.4088276 22.824661 4.548546 22.498047 4.6523438 C 22.351395 4.5345841 22.500763 4.3864085 22.679688 4.234375 C 22.30602 4.2851425 21.967325 4.3717614 21.662109 4.4921875 C 21.499041 4.3423577 21.768344 4.1927985 21.898438 4.0429688 C 21.321137 4.1544239 21.07705 4.3119453 20.833984 4.46875 C 20.65763 4.2967329 20.824348 4.1497529 20.943359 4 z M 8.8710938 6.5175781 C 8.9099111 6.600195 8.959234 6.6760537 9.015625 6.7480469 C 9.0976591 6.7504077 9.1642332 6.7469157 9.1855469 6.7246094 C 9.1707989 6.6635553 9.1465773 6.627881 9.1289062 6.5742188 C 9.0483828 6.5683404 8.9620139 6.5494668 8.8710938 6.5175781 z M 24.421875 6.5175781 C 24.330955 6.5494668 24.244586 6.5683404 24.164062 6.5742188 C 24.146392 6.6278812 24.122169 6.6635549 24.107422 6.7246094 C 24.128736 6.7469157 24.195309 6.7504077 24.277344 6.7480469 C 24.333735 6.6760537 24.383058 6.6001951 24.421875 6.5175781 z M 10.613281 6.6445312 C 12.591178 7.682224 13.819268 8.5403927 14.589844 9.2890625 C 14.69402 9.1599369 14.777765 9.0106229 14.84375 8.8417969 C 13.606727 7.9054679 12.184102 7.1876711 10.613281 6.6445312 z M 22.679688 6.6445312 C 21.108866 7.1876711 19.68624 7.9054679 18.449219 8.8417969 C 18.515203 9.0106229 18.598949 9.1599369 18.703125 9.2890625 C 19.4737 8.5403927 20.70179 7.682224 22.679688 6.6445312 z M 9.1601562 7.3867188 C 9.2066112 7.4377321 9.2641926 7.4838758 9.3144531 7.5332031 C 9.3368379 7.5232205 9.3646209 7.5274773 9.3847656 7.5117188 C 9.3662397 7.4691881 9.3291353 7.4298088 9.2890625 7.390625 C 9.2445236 7.3887657 9.2178125 7.393801 9.1601562 7.3867188 z M 24.130859 7.3867188 C 24.074076 7.3936938 24.047814 7.3887221 24.003906 7.390625 C 23.963833 7.4298088 23.926729 7.4691881 23.908203 7.5117188 C 23.928348 7.5274775 23.956131 7.5232204 23.978516 7.5332031 C 24.028416 7.4841927 24.084714 7.4373927 24.130859 7.3867188 z M 16.611328 10.232422 C 15.356193 10.199202 14.151319 11.178939 14.148438 11.748047 C 14.147519 11.929529 14.218339 12.112171 14.345703 12.283203 C 14.736913 11.763823 15.658766 11.20721 16.611328 11.232422 C 17.492584 11.222539 18.527942 11.758372 18.923828 12.382812 C 19.035629 12.23014 19.096454 12.062853 19.097656 11.886719 C 19.103156 11.078197 17.725074 10.219932 16.611328 10.232422 z M 12.03125 10.828125 C 10.6961 11.166956 9.7567594 12.296198 9.8085938 14.003906 C 9.8134728 14.066652 9.8451901 14.099903 9.890625 14.117188 C 10.187007 12.625702 11.352858 11.740723 12.822266 11.712891 C 12.906497 11.711297 12.996235 11.728327 13.082031 11.732422 C 13.392991 11.393271 13.623149 11.098928 13.662109 10.931641 C 13.012862 11.170307 12.295033 11.186564 11.919922 11.164062 C 12.064786 11.095444 12.185656 11.013002 12.228516 10.886719 C 12.186174 10.856098 12.116266 10.839413 12.03125 10.828125 z M 19.416016 10.839844 C 19.410663 10.840743 19.405747 10.840876 19.400391 10.841797 C 19.164453 10.882134 19.441264 11.293906 19.908203 11.802734 C 19.99478 11.798585 20.085226 11.779651 20.169922 11.78125 C 21.639329 11.809082 22.80518 12.694061 23.101562 14.185547 C 23.147016 14.168262 23.178714 14.135011 23.183594 14.072266 C 23.233563 12.425995 22.360144 11.32136 21.101562 10.939453 C 21.157541 11.033785 21.251855 11.106655 21.373047 11.164062 C 20.955712 11.189095 20.11469 11.165759 19.416016 10.839844 z M 19.429688 13.257812 A 2.9184755 2.455577 58.681418 0 0 18.974609 13.289062 C 18.771447 13.64225 18.312452 13.929553 17.646484 14.070312 A 2.9184755 2.455577 58.681418 0 0 17.169922 16.15625 A 2.9184755 2.455577 58.681418 0 1 18.146484 14.609375 A 2.9184755 2.455577 58.681418 0 1 19.429688 14.257812 A 2.9184755 2.455577 58.681418 0 1 22.279297 16.970703 A 2.9184755 2.455577 58.681418 0 0 21.238281 14.056641 C 21.134268 13.969626 21.034401 13.889144 20.931641 13.798828 C 20.930566 13.797883 20.928809 13.79782 20.927734 13.796875 A 2.9184755 2.455577 58.681418 0 0 19.429688 13.257812 z M 13.925781 13.392578 A 2.455577 2.9184755 31.318582 0 0 13.816406 13.394531 A 2.455577 2.9184755 31.318582 0 0 10.966797 17.105469 A 2.455577 2.9184755 31.318582 0 1 13.816406 14.394531 A 2.455577 2.9184755 31.318582 0 1 15.099609 14.746094 A 2.455577 2.9184755 31.318582 0 1 16.074219 16.285156 A 2.455577 2.9184755 31.318582 0 0 15.359375 13.949219 C 15.017707 13.828962 14.731092 13.671263 14.527344 13.484375 A 2.455577 2.9184755 31.318582 0 0 13.925781 13.392578 z M 23.541016 14.908203 C 23.391327 14.867389 23.273613 14.916968 23.181641 15.029297 C 23.181336 15.04429 23.184052 15.057184 23.183594 15.072266 C 23.178494 15.137851 23.143012 15.169479 23.09375 15.185547 C 22.93627 15.527655 22.911122 16.139819 22.962891 16.804688 C 23.021851 16.219106 23.19015 15.812535 23.541016 15.908203 C 24.427412 16.423288 24.837338 17.215671 24.949219 18.017578 C 25.137801 16.932116 24.801843 15.64087 23.541016 14.908203 z M 9.4589844 14.976562 C 8.1981571 15.709229 7.8621989 17.000475 8.0507812 18.085938 C 8.1626617 17.284031 8.5725885 16.491647 9.4589844 15.976562 C 9.8098501 15.880895 9.9781486 16.287466 10.037109 16.873047 C 10.121459 15.789745 9.9884945 14.832185 9.4589844 14.976562 z M 16.755859 18.494141 A 2.72396 2.5560692 0 0 0 15.425781 18.779297 A 2.455577 2.9184755 31.318582 0 1 14.375 19.683594 A 2.72396 2.5560692 0 0 0 13.951172 21.048828 A 2.7246095 2.5566787 0 0 0 14.003906 21.548828 A 2.72396 2.5560692 0 0 1 16.755859 19.494141 A 2.72396 2.5560692 0 0 1 19.345703 21.541016 A 2.7246095 2.5566787 0 0 0 19.400391 21.048828 A 2.72396 2.5560692 0 0 0 18.876953 19.546875 A 2.9184755 2.455577 58.681418 0 1 17.935547 18.783203 A 2.72396 2.5560692 0 0 0 16.755859 18.494141 z M 22.697266 19.443359 C 22.058955 19.460291 21.297671 20.074998 20.574219 20.90625 C 19.879865 21.73388 19.44834 23.114143 19.658203 23.908203 C 19.786616 23.214014 20.123468 22.443519 20.574219 21.90625 C 21.297671 21.074998 22.058955 20.460289 22.697266 20.443359 C 22.910036 20.437715 23.109474 20.499268 23.289062 20.640625 C 23.485451 20.839694 23.642948 21.26568 23.710938 21.771484 C 23.780233 21.253212 23.736613 20.73887 23.623047 20.328125 C 23.522709 20.180111 23.435405 19.962831 23.351562 19.730469 C 23.33026 19.702394 23.311304 19.66317 23.289062 19.640625 C 23.109474 19.499268 22.910036 19.437715 22.697266 19.443359 z M 10.46875 19.835938 C 10.240149 19.825965 10.02585 19.873721 9.8378906 19.990234 C 9.5116017 20.242938 9.3619436 20.892676 9.4902344 21.671875 C 9.5512656 21.365238 9.6686718 21.121291 9.8378906 20.990234 C 10.02585 20.873718 10.240149 20.825937 10.46875 20.835938 C 11.154554 20.865854 11.975909 21.417194 12.646484 22.208984 C 13.020624 22.667671 13.291956 23.291812 13.40625 23.873047 C 13.602244 23.154922 13.259959 21.961091 12.646484 21.208984 C 11.975909 20.417194 11.154554 19.865853 10.46875 19.835938 z M 17.576172 24.460938 A 2.7246095 2.5566787 0 0 1 15.832031 24.476562 C 14.894121 24.621752 13.937749 25.000836 13.953125 25.458984 C 13.947817 25.584597 14.079458 25.783484 14.287109 25.996094 C 14.823437 25.63406 15.902443 25.39212 16.6875 25.412109 C 17.476471 25.37707 18.452713 25.580697 18.941406 25.898438 C 19.136642 25.677491 19.259244 25.46475 19.253906 25.310547 C 19.251772 24.909762 18.440489 24.5834 17.576172 24.460938 z"/>
</svg>
