<svg xmlns="http://www.w3.org/2000/svg" width="32" height="32" version="1.1">
 <rect style="opacity:0.2" width="28" height="28" x="2" y="3" rx="1.4" ry="1.4"/>
 <rect style="fill:#55448e" width="28" height="28" x="2" y="2" rx="1.4" ry="1.4"/>
 <path style="opacity:0.2" d="m 6.9042368,26.957438 c -0.014286,-0.02264 0.2673568,-0.365721 0.6252849,-0.762449 2.4401392,-2.705075 2.7932103,-3.160203 3.0706383,-3.958309 0.08757,-0.251914 0.181571,-0.465493 0.208929,-0.474607 0.02714,-0.0091 0.180714,0.157543 0.340856,0.370342 0.160214,0.2128 0.571214,0.721507 0.913499,1.130478 0.345714,0.413163 0.602786,0.762127 0.578571,0.785334 -0.02429,0.023 -0.213643,0.09835 -0.421357,0.1675 -0.207642,0.06914 -0.585213,0.244228 -0.838856,0.389071 -0.509642,0.290971 -1.199498,0.886713 -1.139427,0.983949 0.02857,0.04593 1.241713,0.05993 5.197565,0.05993 4.58978,0 5.17285,-0.0087 5.271707,-0.07783 0.06143,-0.04279 0.111072,-0.116443 0.111072,-0.163636 0,-0.04721 -0.176214,-0.332771 -0.391714,-0.63462 -0.215428,-0.301848 -1.119499,-1.572489 -2.009069,-2.823645 -1.734998,-2.44024 -6.308135,-8.846067 -7.002205,-9.808437 C 11.188017,11.819259 10.368518,10.674475 9.5985191,9.5965551 8.3867349,7.9000501 8.1533066,7.6003648 7.8611642,7.3662294 7.675593,7.2174653 7.523736,7.0742083 7.523736,7.0478798 c 0,-0.027214 0.2116426,-0.047857 0.4912137,-0.047857 0.4460708,0 0.5005708,0.010357 0.5925707,0.1124927 0.055714,0.061857 2.8082816,3.9259655 6.1168486,8.5868815 3.308568,4.660916 6.450421,9.086381 6.98192,9.834366 0.531499,0.747978 0.966356,1.383555 0.966356,1.412398 0,0.06379 -15.7290511,0.07503 -15.7684082,0.01129 z M 22.920787,26.586088 C 21.051718,24.01082 8.9915199,7.0654991 9.0078056,7.0374992 c 0.012143,-0.020643 3.4288524,-0.0375 7.5932044,-0.0375 6.510706,0 7.57149,0.00993 7.57149,0.071071 0,0.039071 -0.354357,0.4036923 -0.787427,0.8102418 -2.013712,1.8902619 -2.885354,2.869268 -3.314425,3.722574 -0.109428,0.217671 -0.226857,0.394871 -0.260857,0.393778 -0.09257,-0.0029 -1.559926,-1.995162 -1.506855,-2.0457904 0.025,-0.023643 0.2025,-0.1276141 0.394928,-0.2311139 0.502285,-0.2700568 1.07357,-0.6789635 1.315856,-0.9417846 0.228642,-0.2480639 0.249142,-0.3030067 0.13,-0.3487209 -0.04357,-0.016714 -1.806141,-0.030357 -3.916995,-0.030357 -3.724924,0 -3.840424,0.00286 -3.924995,0.096271 -0.04786,0.052929 -0.0795,0.1270784 -0.07,0.1647355 0.0093,0.037643 0.388071,0.6016278 0.841784,1.2532841 0.879213,1.2627912 0.959928,1.3779192 1.849855,2.6387962 0.316214,0.448035 0.678285,0.96242 0.804642,1.143063 0.126285,0.180649 0.450428,0.64342 0.720285,1.028398 0.53057,0.757021 0.92857,1.337534 1.80464,2.632311 0.309857,0.457835 0.673214,0.986549 0.807571,1.174913 0.276999,0.388328 2.189425,3.174746 3.560709,5.188051 0.504214,0.740206 1.067428,1.566533 1.251713,1.836283 0.374785,0.548621 0.607714,0.81567 0.989785,1.134777 0.142999,0.11945 0.247428,0.237564 0.232071,0.262478 -0.01572,0.02493 -0.4435,0.04529 -0.951213,0.04529 h -0.923213 z"/>
 <path style="fill:#8b9cbe" d="m 6.9042368,25.957438 c -0.014286,-0.02264 0.2673568,-0.365721 0.6252849,-0.762449 2.4401392,-2.705075 2.7932103,-3.160203 3.0706383,-3.958309 0.08757,-0.251914 0.181571,-0.465493 0.208929,-0.474607 0.02714,-0.0091 0.180714,0.157543 0.340856,0.370342 0.160214,0.2128 0.571214,0.721507 0.913499,1.130478 0.345714,0.413163 0.602786,0.762127 0.578571,0.785334 -0.02429,0.023 -0.213643,0.09835 -0.421357,0.1675 -0.207642,0.06914 -0.585213,0.244228 -0.838856,0.389071 -0.509642,0.290971 -1.199498,0.886713 -1.139427,0.983949 0.02857,0.04593 1.241713,0.05993 5.197565,0.05993 4.58978,0 5.17285,-0.0087 5.271707,-0.07783 0.06143,-0.04279 0.111072,-0.116443 0.111072,-0.163636 0,-0.04721 -0.176214,-0.332771 -0.391714,-0.63462 -0.215428,-0.301848 -1.119499,-1.572489 -2.009069,-2.823645 -1.734998,-2.44024 -6.308135,-8.846067 -7.002205,-9.808437 C 11.188017,10.819259 10.368518,9.6744752 9.5985191,8.5965551 8.3867349,6.9000501 8.1533066,6.6003648 7.8611642,6.3662294 7.675593,6.2174653 7.523736,6.0742083 7.523736,6.0478798 c 0,-0.027214 0.2116426,-0.047857 0.4912137,-0.047857 0.4460708,0 0.5005708,0.010357 0.5925707,0.1124927 0.055714,0.061857 2.8082816,3.9259655 6.1168486,8.5868815 3.308568,4.660916 6.450421,9.086381 6.98192,9.834366 0.531499,0.747978 0.966356,1.383555 0.966356,1.412398 0,0.06379 -15.7290511,0.07503 -15.7684082,0.01129 z M 22.920787,25.586088 C 21.051718,23.01082 8.9915199,6.0654991 9.0078056,6.0374992 c 0.012143,-0.020643 3.4288524,-0.0375 7.5932044,-0.0375 6.510706,0 7.57149,0.00993 7.57149,0.071071 0,0.039071 -0.354357,0.4036923 -0.787427,0.8102418 -2.013712,1.8902619 -2.885354,2.8692678 -3.314425,3.722574 -0.109428,0.217671 -0.226857,0.394871 -0.260857,0.393778 -0.09257,-0.0029 -1.559926,-1.9951618 -1.506855,-2.0457904 0.025,-0.023643 0.2025,-0.1276141 0.394928,-0.2311139 0.502285,-0.2700568 1.07357,-0.6789635 1.315856,-0.9417846 0.228642,-0.2480639 0.249142,-0.3030067 0.13,-0.3487209 -0.04357,-0.016714 -1.806141,-0.030357 -3.916995,-0.030357 -3.724924,0 -3.840424,0.00286 -3.924995,0.096271 -0.04786,0.052929 -0.0795,0.1270784 -0.07,0.1647355 0.0093,0.037643 0.388071,0.6016278 0.841784,1.2532841 0.879213,1.2627912 0.959928,1.3779192 1.849855,2.6387962 0.316214,0.448035 0.678285,0.96242 0.804642,1.143063 0.126285,0.180649 0.450428,0.64342 0.720285,1.028398 0.53057,0.757021 0.92857,1.337534 1.80464,2.632311 0.309857,0.457835 0.673214,0.986549 0.807571,1.174913 0.276999,0.388328 2.189425,3.174746 3.560709,5.188051 0.504214,0.740206 1.067428,1.566533 1.251713,1.836283 0.374785,0.548621 0.607714,0.81567 0.989785,1.134777 0.142999,0.11945 0.247428,0.237564 0.232071,0.262478 -0.01572,0.02493 -0.4435,0.04529 -0.951213,0.04529 h -0.923213 z"/>
 <path style="fill:#8b9cbe;opacity:0.1" d="M 3.4003906 2 C 2.6247906 2 2 2.6247906 2 3.4003906 L 2 4.4003906 C 2 3.6247906 2.6247906 3 3.4003906 3 L 28.599609 3 C 29.375209 3 30 3.6247906 30 4.4003906 L 30 3.4003906 C 30 2.6247906 29.375209 2 28.599609 2 L 3.4003906 2 z"/>
</svg>
