<svg width="32" height="32" version="1.1" xmlns="http://www.w3.org/2000/svg">
 <g>
  <path d="m2 26.5v1c0 0.831 0.669 1.5 1.5 1.5h25c0.831 0 1.5-0.669 1.5-1.5v-1c0 0.831-0.669 1.5-1.5 1.5h-25c-0.831 0-1.5-0.669-1.5-1.5z" style="opacity:.2"/>
  <rect x="2" y="4" width="28" height="24" rx="1.5" ry="1.5" style="fill:#87362d"/>
  <path d="m3.5 4c-0.831 0-1.5 0.669-1.5 1.5v1c0-0.831 0.669-1.5 1.5-1.5h25c0.831 0 1.5 0.669 1.5 1.5v-1c0-0.831-0.669-1.5-1.5-1.5z" style="fill:#8b9cbe;opacity:.1"/>
  <path d="m4 8v1l3 2v1l-3 2v1h1l4-3v-1l-4-3zm7 6v1h6v-1z" style="opacity:.2"/>
  <path d="m4 7v1l3 2v1l-3 2v1h1l4-3v-1l-4-3zm7 6v1h6v-1z" style="fill:#8b9cbe"/>
 </g>
</svg>
