<svg xmlns="http://www.w3.org/2000/svg" width="32" height="32" version="1.1">
 <circle style="opacity:0.2" cx="16" cy="17" r="14"/>
 <circle style="fill:#ecc138" cx="16" cy="16" r="14"/>
 <path style="opacity:0.1" d="M 17,8.0083771 V 10.254864 C 15.734596,9.8215391 14.141853,10.49826 13,12 13.163096,9.9419878 13.605926,7.8508478 17,8.0083771 Z"/>
 <path style="fill:#17191e" d="M 17,7.0083773 V 9.2548647 C 15.734596,8.8215393 14.141853,9.49826 13,11 13.163096,8.941988 13.605926,6.850848 17,7.0083773 Z"/>
 <path style="opacity:0.1" d="M 19.650825,8.9466073 18.289,11.305357 c 1.578676,0.30481 3.075942,1.871251 3.353087,4.133643 0.676233,-1.505557 0.679909,-6.1765527 -1.991262,-6.4923927 z"/>
 <path style="fill:#17191e" d="M 19.650825,7.9466075 18.289,10.305357 c 1.578676,0.30481 3.075942,1.871251 3.353087,4.133643 0.676233,-1.505557 0.679909,-6.1765525 -1.991262,-6.4923925 z"/>
 <ellipse style="opacity:0.2" cx="16.294" cy="17.083" rx="4.23" ry="6.55" transform="rotate(9.3364131)"/>
 <ellipse style="fill:#8b9cbe" cx="16.132" cy="16.096" rx="4.23" ry="6.55" transform="rotate(9.3364131)"/>
 <path style="fill:#17191e" d="m 15.065795,16.001885 a 1.4302987,2.5868429 18.004805 0 0 -1.671379,1.599846 l 2.078564,1.576464 -2.393581,-0.590142 a 1.4302987,2.5868429 18.004805 0 0 0.7222,2.379826 1.4302987,2.5868429 18.004805 0 0 2.150097,-2.068935 1.4302987,2.5868429 18.004805 0 0 -0.598395,-2.866795 1.4302987,2.5868429 18.004805 0 0 -0.287506,-0.03026 z"/>
 <ellipse style="opacity:0.2" cx="18.5" cy="20.5" rx="3.5" ry="5.5"/>
 <ellipse style="fill:#8b9cbe" cx="18.5" cy="19.5" rx="3.5" ry="5.5"/>
 <path style="fill:#17191e" d="m 17.854917,17.500067 a 1.7588939,0.98792293 82.938009 0 0 -0.09803,0.0076 A 1.7588939,0.98792293 82.938009 0 0 17,18.795517 l 1.343929,0.222824 -1.217401,0.872414 a 1.7588939,0.98792293 82.938009 0 0 1.110251,1.101531 1.7588939,0.98792293 82.938009 0 0 0.734089,-1.905966 1.7588939,0.98792293 82.938009 0 0 -1.11595,-1.586206 z"/>
 <path style="fill:#8b9cbe;opacity:0.2" d="M 16 2 A 14 14 0 0 0 2 16 A 14 14 0 0 0 2.0214844 16.585938 A 14 14 0 0 1 16 3 A 14 14 0 0 1 29.978516 16.414062 A 14 14 0 0 0 30 16 A 14 14 0 0 0 16 2 z"/>
</svg>
