<svg xmlns="http://www.w3.org/2000/svg" width="32" height="32" version="1">
 <circle style="opacity:0.2" cx="10.12" cy="11.12" r="8.12"/>
 <circle style="opacity:0.2" cx="21.88" cy="22.88" r="8.12"/>
 <circle style="fill:#1587d7" cx="10.12" cy="10.12" r="8.12"/>
 <circle style="fill:#1587d7" cx="21.88" cy="21.88" r="8.12"/>
 <circle style="opacity:0.2" cx="16" cy="17" r="13"/>
 <path style="fill:#8b9cbe;opacity:0.1" d="M 10.119141 2 A 8.1199999 8.1199999 0 0 0 2 10.119141 A 8.1199999 8.1199999 0 0 0 2.0214844 10.707031 A 8.1199999 8.1199999 0 0 1 10.119141 3 A 8.1199999 8.1199999 0 0 1 18.21875 10.544922 A 8.1199999 8.1199999 0 0 0 18.240234 10.119141 A 8.1199999 8.1199999 0 0 0 10.119141 2 z"/>
 <circle style="fill:#28a8ea" cx="16" cy="16" r="13"/>
 <path style="opacity:0.2;fill-rule:evenodd" d="m 12.652742,16.761738 a 3.9221063,3.7762199 0 0 1 -1.229927,-1.250329 3.5877152,3.4542668 0 0 1 -0.42131,-1.726902 3.2235712,3.1036674 0 0 1 0.759423,-2.090172 4.5712934,4.4012599 0 0 1 1.979659,-1.273973 7.6456106,7.3612251 0 0 1 2.592204,-0.419925 10.0666,9.6921634 0 0 1 1.724875,0.127389 6.2265844,5.9949808 0 0 1 1.195661,0.297263 2.318583,2.2323411 0 0 1 0.935988,0.575601 1.2099544,1.1649489 0 0 1 0.289093,0.773832 1.1643597,1.1210502 0 0 1 -0.303821,0.806842 1.0115781,0.97395155 0 0 1 -0.76444,0.306706 1.3760663,1.3248823 0 0 1 -0.568387,-0.12274 10.289137,9.9064231 0 0 0 -1.352541,-0.476496 4.9095293,4.7269147 0 0 0 -1.303385,-0.155683 2.9748467,2.8641946 0 0 0 -1.631814,0.401017 1.3578586,1.3073518 0 0 0 -0.651698,1.174847 1.2268284,1.1811954 0 0 0 0.338069,0.825674 3.0832758,2.9685905 0 0 0 0.9115,0.62753 q 0.573366,0.273809 1.710124,0.726634 a 1.7721734,1.7062558 0 0 1 0.245052,0.09439 12.146826,11.695015 0 0 1 2.116851,1.047444 4.2681877,4.1094285 0 0 1 1.303472,1.28807 3.5274404,3.396234 0 0 1 0.470417,1.788193 3.7359421,3.5969802 0 0 1 -0.651784,2.15627 3.8736455,3.7295617 0 0 1 -1.822776,1.302263 7.6832414,7.3974563 0 0 1 -2.739258,0.429377 8.6305656,8.3095433 0 0 1 -3.733866,-0.679443 2.0321364,1.9565492 0 0 1 -0.769333,-0.575606 1.3440549,1.2940615 0 0 1 -0.249941,-0.783275 1.0632922,1.0237421 0 0 1 0.32825,-0.79739 1.2108094,1.1657721 0 0 1 0.847726,-0.287803 2.1663016,2.085724 0 0 1 0.98981,0.245334 q 0.568252,0.273825 0.896788,0.410563 a 4.5072597,4.339608 0 0 0 0.774264,0.235879 4.426992,4.2623259 0 0 0 0.994612,0.09904 2.6548455,2.556096 0 0 0 1.671052,-0.429301 A 1.4715737,1.416837 0 0 0 18.096824,20.258 1.2968363,1.2485993 0 0 0 17.744069,19.39924 3.7504556,3.610954 0 0 0 16.705281,18.672683 Q 16.01913,18.323579 14.774513,17.823376 a 11.961549,11.516628 0 0 1 -2.121787,-1.061635"/>
 <path style="fill:#8b9cbe;fill-rule:evenodd" d="m 12.652742,15.761739 a 3.9221063,3.7762199 0 0 1 -1.229927,-1.250329 3.5877152,3.4542668 0 0 1 -0.42131,-1.726902 3.2235712,3.1036674 0 0 1 0.759423,-2.090172 4.5712934,4.4012599 0 0 1 1.979659,-1.2739734 7.6456106,7.3612251 0 0 1 2.592204,-0.4199242 10.0666,9.6921634 0 0 1 1.724875,0.1273888 6.2265844,5.9949808 0 0 1 1.195661,0.2972625 2.318583,2.2323411 0 0 1 0.935988,0.5756013 1.2099544,1.1649489 0 0 1 0.289093,0.773832 1.1643597,1.1210502 0 0 1 -0.303821,0.806842 1.0115781,0.97395155 0 0 1 -0.76444,0.306706 1.3760663,1.3248823 0 0 1 -0.568387,-0.12274 10.289137,9.9064231 0 0 0 -1.352541,-0.476496 4.9095293,4.7269147 0 0 0 -1.303385,-0.155683 2.9748467,2.8641946 0 0 0 -1.631814,0.401017 1.3578586,1.3073518 0 0 0 -0.651698,1.174847 1.2268284,1.1811954 0 0 0 0.338069,0.825674 3.0832758,2.9685905 0 0 0 0.9115,0.62753 q 0.573366,0.273809 1.710124,0.726634 a 1.7721734,1.7062558 0 0 1 0.245052,0.09439 12.146826,11.695015 0 0 1 2.116851,1.047444 4.2681877,4.1094285 0 0 1 1.303472,1.28807 3.5274404,3.396234 0 0 1 0.470417,1.788193 3.7359421,3.5969802 0 0 1 -0.651784,2.15627 3.8736455,3.7295617 0 0 1 -1.822776,1.302263 7.6832414,7.3974563 0 0 1 -2.739258,0.429377 8.6305656,8.3095433 0 0 1 -3.733866,-0.679443 2.0321364,1.9565492 0 0 1 -0.769333,-0.575606 1.3440549,1.2940615 0 0 1 -0.249941,-0.783275 1.0632922,1.0237421 0 0 1 0.32825,-0.79739 1.2108094,1.1657721 0 0 1 0.847726,-0.287803 2.1663016,2.085724 0 0 1 0.98981,0.245334 q 0.568252,0.273825 0.896788,0.410563 a 4.5072597,4.339608 0 0 0 0.774264,0.235879 4.426992,4.2623259 0 0 0 0.994612,0.09904 2.6548455,2.556096 0 0 0 1.671052,-0.429301 1.4715737,1.416837 0 0 0 0.563473,-1.174858 1.2968363,1.2485993 0 0 0 -0.352755,-0.85876 3.7504556,3.610954 0 0 0 -1.038788,-0.726557 Q 16.01913,17.32358 14.774513,16.823377 a 11.961549,11.516628 0 0 1 -2.121787,-1.061635"/>
 <path style="fill:#8b9cbe;opacity:0.2" d="M 16 3 A 13 13 0 0 0 3 16 A 13 13 0 0 0 3.0214844 16.580078 A 13 13 0 0 1 16 4 A 13 13 0 0 1 28.978516 16.419922 A 13 13 0 0 0 29 16 A 13 13 0 0 0 16 3 z"/>
</svg>
