<svg xmlns="http://www.w3.org/2000/svg" width="32" height="32" version="1">
 <rect style="opacity:0.2" width="28" height="28" x="2" y="3" rx="8.4" ry="8.4"/>
 <rect style="fill:#fbce02" width="28" height="28" x="2" y="2" rx="8.4" ry="8.4"/>
 <path style="opacity:0.1" d="m 17.100586,3.7999876 c -0.110104,-0.021466 0.479618,2.1744399 0.448438,3.3126954 -0.136602,4.168553 -0.709951,6.634527 -1.203125,2.2134763 l -0.403321,-0.6576171 -0.2625,1.9837888 c -0.128793,0.767292 -0.321486,1.042134 -0.712304,1.010354 -0.118653,-0.0096 -0.386505,-0.671361 -0.519532,-0.571484 -0.125736,0.09441 -0.116124,0.944241 -0.255664,1.1375 -0.160182,0.22185 -0.330265,0.50921 -0.509961,0.862696 -0.776212,1.526905 -1.153564,1.792856 -1.450585,1.021288 -0.02098,-0.05454 0.229965,-0.489069 0.124413,-0.593359 -0.129798,-0.128245 -0.624452,0.06886 -0.70957,-0.03008 -0.327641,-0.380749 -0.512695,-0.78082 -0.512695,-0.553711 0,0.06014 0.130796,1.63417 0.291211,2.477344 0.267778,1.407506 0.213943,1.697644 -0.650782,3.539648 -0.8678934,1.848752 -0.9111212,2.091393 -0.561914,3.095313 0.795296,2.286341 2.7372,5.083108 4.186329,6.02793 0.776613,0.506336 1.639699,0.922414 1.916796,0.924218 0.987337,0.007 3.806955,-2.958728 4.917773,-5.17207 C 21.820348,22.658794 22.3,21.534658 22.3,21.328701 c 0,-0.205964 -0.355942,-1.151424 -0.791601,-2.1 -0.737401,-1.605582 -0.76517,-1.810705 -0.391016,-2.969531 0.09018,-0.279285 1.085221,-1.489195 1.156641,-1.814258 0.03997,-0.181925 -0.835343,0.537202 -0.803907,0.341796 0.159781,-0.993291 0.197042,-2.156752 -0.01367,-3.450781 l -0.288478,-1.271486 -0.788867,1.621486 c -0.929256,1.161707 -1.313422,0.599571 -1.65293,-2.4253927 -0.148325,-1.3215286 -0.341528,-3.1327678 -0.576953,-3.5806639 0,0 -0.98257,-1.8670031 -1.048633,-1.8798828 z m -4.910937,2.8 c -0.133201,0.018025 -0.809874,1.4425733 -0.920117,1.7472658 -0.288104,0.7962822 -0.211247,1.6420523 0.258398,2.8341816 0.305679,0.775933 0.596067,1.081056 0.961132,1.007617 1.091282,-0.519516 0.567743,-1.961602 0.684962,-2.7767598 -0.04834,0.03416 -0.42693,0.6789248 -0.582423,0.2775388 -0.175647,-0.4534068 -0.586523,-0.8261218 -0.586523,-1.1648434 0,-0.4155753 0.355827,-1.9481676 0.184571,-1.925 z m -1.791016,8.0007844 c -0.165987,0 -0.698633,0.796348 -0.698633,1.04453 0,0.24819 0.503936,0.619337 0.669922,0.619337 0.165986,0 0.585156,-0.259037 0.585156,-0.507227 0,-0.24819 -0.390459,-1.15664 -0.556445,-1.15664 z"/>
 <path style="fill:#33bdc9" d="m 17.100586,2.7999876 c -0.110104,-0.021466 0.479618,2.1744399 0.448438,3.3126954 -0.136602,4.168553 -0.709951,6.634527 -1.203125,2.2134763 l -0.403321,-0.6576171 -0.2625,1.9837892 c -0.128793,0.7672916 -0.321486,1.0421336 -0.712304,1.0103536 -0.118653,-0.0096 -0.386505,-0.6713614 -0.519532,-0.571484 -0.125736,0.09441 -0.116124,0.944241 -0.255664,1.1375 -0.160182,0.22185 -0.330265,0.50921 -0.509961,0.862696 -0.776212,1.526905 -1.153564,1.792856 -1.450585,1.021288 -0.02098,-0.05454 0.229965,-0.489069 0.124413,-0.593359 -0.129798,-0.128245 -0.624452,0.06886 -0.70957,-0.03008 -0.327641,-0.380749 -0.512695,-0.78082 -0.512695,-0.553711 0,0.06014 0.130796,1.63417 0.291211,2.477344 0.267778,1.407506 0.213943,1.697644 -0.650782,3.539648 -0.8678934,1.848752 -0.9111212,2.091393 -0.561914,3.095313 0.795296,2.286341 2.7372,5.083108 4.186329,6.02793 0.776613,0.506336 1.639699,0.922414 1.916796,0.924218 0.987337,0.007 3.806955,-2.958728 4.917773,-5.17207 C 21.820348,21.658794 22.3,20.534658 22.3,20.328701 c 0,-0.205964 -0.355942,-1.151424 -0.791601,-2.1 -0.737401,-1.605582 -0.76517,-1.810705 -0.391016,-2.969531 0.09018,-0.279285 1.085221,-1.489195 1.156641,-1.814258 0.03997,-0.181925 -0.835343,0.537202 -0.803907,0.341796 0.159781,-0.993291 0.197042,-2.156752 -0.01367,-3.450781 L 21.167969,9.0644409 20.379102,10.685927 c -0.929256,1.161707 -1.313422,0.599571 -1.65293,-2.4253927 -0.148325,-1.3215286 -0.341528,-3.1327678 -0.576953,-3.5806639 0,0 -0.98257,-1.8670031 -1.048633,-1.8798828 z m -4.910937,2.8 c -0.133201,0.018025 -0.809874,1.4425733 -0.920117,1.7472658 -0.288104,0.7962822 -0.211247,1.6420523 0.258398,2.8341816 0.305679,0.775933 0.596067,1.081056 0.961132,1.007617 1.091282,-0.519516 0.567743,-1.9616021 0.684962,-2.7767598 -0.04834,0.03416 -0.42693,0.6789251 -0.582423,0.2775388 -0.175647,-0.4534068 -0.586523,-0.8261218 -0.586523,-1.1648434 0,-0.4155753 0.355827,-1.9481676 0.184571,-1.925 z m -1.791016,8.0007844 c -0.165987,0 -0.698633,0.796348 -0.698633,1.04453 0,0.24819 0.503936,0.619337 0.669922,0.619337 0.165986,0 0.585156,-0.259037 0.585156,-0.507227 0,-0.24819 -0.390459,-1.15664 -0.556445,-1.15664 z"/>
 <path style="opacity:0.3;fill:#8b9cbe" d="m 18.04668,11.51581 c 0.05679,0.102531 0.05762,0.21184 0.128515,0.315821 0.167116,0.245086 0.431598,0.531429 0.844922,0.695898 0.354537,0.141077 0.743343,0.08817 1.063672,0.0069 -0.0182,0.32872 0.05142,0.735377 0.0041,1.029492 -0.02136,0.13281 -0.0082,0.355741 0.05469,0.600195 -0.113345,0.154748 -0.204418,0.192402 -0.356836,0.664454 -0.19761,0.612034 -0.369668,1.232077 -0.277539,1.930468 0.09213,0.698392 0.351987,1.236233 0.727343,2.053516 0.204556,0.445385 0.39357,0.897125 0.522266,1.238671 0.04029,0.106909 0.06084,0.172767 0.0875,0.251563 -0.03989,0.104714 -0.08034,0.210477 -0.146289,0.365039 -0.178225,0.417688 -0.435118,0.972141 -0.716406,1.532618 -0.454843,0.906289 -1.383489,2.151182 -2.268164,3.08164 -0.442339,0.465229 -0.878963,0.859002 -1.203125,1.099219 -0.106458,0.07889 -0.176198,0.09776 -0.254297,0.129883 -0.03971,-0.01779 -0.05896,-0.02345 -0.103906,-0.04511 -0.282779,-0.136339 -0.653332,-0.343883 -0.989844,-0.563282 -0.869643,-0.567001 -2.949158,-3.361219 -3.628516,-5.314258 -0.157216,-0.451973 -0.144576,-0.388426 -0.120312,-0.522265 0.02426,-0.133839 0.199804,-0.607803 0.627539,-1.518945 0.439628,-0.936481 0.726988,-1.550891 0.859961,-2.273633 0.08653,-0.470338 -0.0098,-0.924543 -0.06562,-1.380859 0.31076,-0.05051 0.574193,-0.162085 0.747851,-0.284375 0.775765,-0.546296 0.931923,-1.066739 1.34668,-1.882617 0.156875,-0.308594 0.296845,-0.540126 0.396484,-0.678125 0.03982,-0.05516 0.0099,-0.05101 0.03965,-0.09844 0.225083,-0.0542 0.406324,-0.11763 0.616601,-0.240625 0.225845,0.189015 0.525336,0.372162 0.967969,0.358204 0.578515,-0.01824 0.914998,-0.332843 1.095117,-0.550977 z"/>
 <rect style="opacity:0.2" width="5.831" height="5.831" x="24.88" y="-6.22" transform="matrix(0.51449575,0.85749293,-0.51449575,0.85749293,0,0)"/>
 <rect style="fill:#8b9cbe" width="5.831" height="5.831" x="24.3" y="-6.8" transform="matrix(0.51449575,0.85749293,-0.51449575,0.85749293,0,0)"/>
 <path style="fill:#8b9cbe;opacity:0.2" d="M 10.400391 2 C 5.7467908 2 2 5.7467908 2 10.400391 L 2 11.400391 C 2 6.7467908 5.7467908 3 10.400391 3 L 21.599609 3 C 26.253209 3 30 6.7467908 30 11.400391 L 30 10.400391 C 30 5.7467908 26.253209 2 21.599609 2 L 10.400391 2 z"/>
</svg>
