<svg xmlns="http://www.w3.org/2000/svg" width="32" height="32" version="1.1">
 <path style="opacity:0.2" d="M 14.47057,30.493813 C 9.3334123,28.607206 5.8922256,25.633213 4.6344948,21.993139 4.0418506,20.27793 4.0013109,19.572692 4.0005614,10.965101 L 4,4.3999995 c -1.265e-4,-0.7 0.7057635,-1.4000001 1.4116536,-1.3999999 H 16.000005 26.588356 c 0.70589,-2e-7 1.41178,0.6999999 1.411644,1.3999999 l -5.7e-4,6.5651015 c -7.06e-4,8.607591 -0.04129,9.312829 -0.633931,11.028038 -1.264147,3.658643 -4.734859,6.645035 -9.887914,8.508108 -0.772638,0.279345 -1.460881,0.503745 -1.52943,0.498669 -0.06854,-0.0051 -0.733453,-0.232823 -1.47758,-0.506103 z"/>
 <path style="fill:#ffa800" d="M 14.47057,29.493813 C 9.3334123,27.607206 5.8922256,24.633213 4.6344948,20.993139 4.0418506,19.27793 4.0013109,18.572692 4.0005614,9.9651012 L 4,3.3999999 C 3.9998735,2.6999999 4.7057635,1.9999998 5.4116536,2 H 16.000005 26.588356 c 0.70589,-2e-7 1.41178,0.6999999 1.411644,1.3999999 l -5.7e-4,6.5651013 c -7.06e-4,8.6075908 -0.04129,9.3128288 -0.633931,11.0280378 -1.264147,3.658643 -4.734859,6.645035 -9.887914,8.508108 -0.772638,0.279345 -1.460881,0.503745 -1.52943,0.498669 -0.06854,-0.0051 -0.733453,-0.232823 -1.47758,-0.506103 z"/>
 <path style="opacity:0.1;fill:none;stroke:#000000;stroke-width:3;stroke-linecap:round;stroke-linejoin:round" d="m 11.712,11.400406 9.788,9.1"/>
 <path style="fill:none;stroke:#ffdc9c;stroke-width:3;stroke-linecap:round;stroke-linejoin:round" d="M 11.712,10.4 21.5,19.5"/>
 <path style="opacity:0.1" d="m 12.336062,21.784203 c 1.522969,-0.530987 3.858336,-2.469553 6.326441,-5.251516 1.409963,-1.589262 3.262416,-3.718551 3.608972,-4.360234 l 0.251302,-0.465313 -0.576165,-0.571543 c -0.482997,-0.479123 -0.625196,-0.559337 -0.879389,-0.49605 -0.462156,0.115063 -3.499188,2.779335 -5.269666,4.39505 -2.295807,2.095119 -3.480129,3.472038 -4.241119,4.930823 -0.524323,1.005103 -0.676143,1.617869 -0.463746,1.871741 0.192978,0.230659 0.462875,0.219165 1.24337,-0.05296 z"/>
 <path style="fill:#ffe6b8" d="m 12.336062,20.784203 c 1.522969,-0.530987 3.858336,-2.469553 6.326441,-5.251516 1.409963,-1.589262 3.262416,-3.718551 3.608972,-4.360234 L 22.522777,10.70714 21.946612,10.135597 C 21.463615,9.6564742 21.321416,9.5762608 21.067223,9.6395471 c -0.462156,0.1150632 -3.499188,2.7793349 -5.269666,4.3950499 -2.295807,2.095119 -3.480129,3.472038 -4.241119,4.930823 -0.524323,1.005103 -0.676143,1.617869 -0.463746,1.871741 0.192978,0.230659 0.462875,0.219165 1.24337,-0.05296 z"/>
 <path style="opacity:0.1" d="m 23.325663,11.810774 c 0.491583,-0.227245 0.819339,-0.614891 1.298581,-1.535881 0.197487,-0.3795215 0.587822,-0.9221392 0.867411,-1.2058152 L 26,8.5533042 25.503553,8.3246698 C 24.957909,8.0733778 23.371936,7.9108242 22.850658,8.0527626 22.178746,8.2357178 21,9.7227163 21,10.387386 21,10.682019 22.348696,12 22.650198,12 c 0.146365,0 0.450323,-0.08515 0.675465,-0.189226 z"/>
 <path style="opacity:0.1" d="m 9.3288139,15.449195 c 0.3104451,-0.30294 0.5644454,-0.609353 0.5644454,-0.680923 0,-0.07156 -0.1327245,-0.253655 -0.2949433,-0.404637 -0.353997,-0.329478 -0.3736215,-0.534477 -0.066745,-0.697188 0.3698963,-0.196125 0.771771,-0.140425 1.235296,0.171214 0.239043,0.160712 0.474531,0.292206 0.523308,0.292206 0.04878,0 0.818997,-0.730201 1.711603,-1.622672 l 1.622915,-1.622672 -0.360099,-0.562549 c -0.441592,-0.68986 -0.453529,-1.0114203 -0.04925,-1.3264806 0.394171,-0.3071797 0.637852,-0.3055839 1.038701,0.00678 l 0.319578,0.2490487 0.463186,-0.4480954 C 16.291566,8.5567762 16.5,8.2975866 16.5,8.2272516 16.5,8.0689437 15.707265,7.3080948 15.357475,7.1306819 15.215746,7.0588161 14.884087,6.9999996 14.620456,6.9999996 c -0.377261,0 -0.573604,0.083516 -0.922082,0.3922228 -0.83867,0.7429479 -1.278168,0.8284354 -2.039713,0.396738 L 11.194733,7.5259741 9.5315906,9.1723566 7.8684479,10.818743 8.1729885,11.263345 c 0.3378201,0.493187 0.3886163,0.954684 0.1418767,1.288989 C 8.1395348,12.789889 8.160217,12.797311 7.3425651,12.203379 7.2259612,12.118679 7.0292178,12.240119 6.5922588,12.666517 6.2665166,12.984386 6,13.298174 6,13.363828 6,13.517079 8.4944649,16 8.6484307,16 c 0.063763,0 0.3699374,-0.247861 0.6803825,-0.550802 z"/>
 <path style="fill:#8b9cbe" d="m 9.3288139,14.449195 c 0.3104451,-0.30294 0.5644454,-0.609353 0.5644454,-0.680923 0,-0.07156 -0.1327245,-0.253655 -0.2949433,-0.404637 -0.353997,-0.329478 -0.3736215,-0.534477 -0.066745,-0.697188 0.3698963,-0.196125 0.771771,-0.140425 1.235296,0.171214 0.239043,0.160712 0.474531,0.292206 0.523308,0.292206 0.04878,0 0.818997,-0.730201 1.711603,-1.622672 L 14.624693,9.884523 14.264594,9.3219741 c -0.441592,-0.6898597 -0.453529,-1.01142 -0.04925,-1.3264803 0.394171,-0.3071797 0.637852,-0.3055839 1.038701,0.00678 l 0.319578,0.2490487 0.463186,-0.4480954 C 16.291566,7.5567766 16.5,7.297587 16.5,7.227252 16.5,7.0689441 15.707265,6.3080952 15.357475,6.1306823 15.215746,6.0588165 14.884087,6 14.620456,6 14.243195,6 14.046852,6.083516 13.698374,6.3922228 12.859704,7.1351707 12.420206,7.2206582 11.658661,6.7889608 L 11.194733,6.5259745 9.5315906,8.172357 7.8684479,9.818743 8.1729885,10.263345 c 0.3378201,0.493187 0.3886163,0.954684 0.1418767,1.288989 C 8.1395348,11.789889 8.160217,11.797311 7.3425651,11.203379 7.2259612,11.118679 7.0292178,11.240119 6.5922588,11.666517 6.2665166,11.984386 6,12.298174 6,12.363828 6,12.517079 8.4944649,15 8.6484307,15 c 0.063763,0 0.3699374,-0.247861 0.6803825,-0.550802 z"/>
 <path style="fill:#8b9cbe" d="m 23.325663,10.810774 c 0.491583,-0.227245 0.819339,-0.614891 1.298581,-1.5358805 0.197487,-0.3795216 0.587822,-0.9221393 0.867411,-1.2058153 L 26,7.5533046 25.503553,7.3246702 C 24.957909,7.0733782 23.371936,6.9108246 22.850658,7.052763 22.178746,7.2357182 21,8.7227167 21,9.3873864 21,9.6820192 22.348696,11 22.650198,11 c 0.146365,0 0.450323,-0.08515 0.675465,-0.189226 z"/>
 <path style="fill:#8b9cbe;opacity:0.2" d="M 5.4121094 2 C 4.7062193 1.9999998 3.9998735 2.7003906 4 3.4003906 L 4 4.4003906 C 3.9998735 3.7003906 4.7062193 2.9999998 5.4121094 3 L 16 3 L 26.587891 3 C 27.293781 2.9999998 28.000136 3.7003906 28 4.4003906 L 28 3.4003906 C 28.000136 2.7003906 27.293781 1.9999998 26.587891 2 L 16 2 L 5.4121094 2 z"/>
</svg>
