<svg xmlns="http://www.w3.org/2000/svg" width="32" height="32" version="1.1" xml:space="preserve">
 <path style="opacity:0.2" d="M 30,17 C 30,24.731984 23.731984,31 15.999883,31 8.267969,31 2,24.731984 2,17 2,9.2680165 8.267969,3.0000002 15.999883,3.0000002 23.731984,3.0000002 30,9.2680165 30,17"/>
 <path style="fill:#ebd0a1" d="M 30,16 C 30,23.731984 23.731984,30 15.999883,30 8.267969,30 2,23.731984 2,16 2,8.2680165 8.267969,2.0000003 15.999883,2.0000003 23.731984,2.0000003 30,8.2680165 30,16"/>
 <path style="opacity:0.1" d="m 11.316406,5.872534 c -0.0071,0.1017 -0.02978,0.19613 -0.0625,0.28711 -0.03268,0.09085 -0.07437,0.1775487 -0.11914,0.2636713 0,0 -0.002,0.002 -0.002,0.002 -0.08962,0.1726062 -0.189135,0.3410887 -0.246093,0.53125 -0.128071,0.4275012 -0.16012,0.9449212 -0.09375,1.384765 0.03301,0.2188275 0.09833,0.4350737 0.195312,0.6347662 0.09665,0.1994838 0.225633,0.382785 0.386715,0.5370625 0.212303,0.2030238 0.479239,0.29856 0.710938,0.4667975 0,0 0,0.002 0,0.002 -0.122445,0.1647675 -0.231402,0.3390475 -0.326172,0.5234375 -0.0038,0.0072 -0.008,0.01417 -0.01173,0.02149 -0.08632,0.17051 -0.161736,0.346385 -0.224609,0.529297 -0.0087,0.0248 -0.01713,0.04922 -0.02539,0.07421 -0.05825,0.179833 -0.106599,0.363333 -0.142578,0.550782 -0.0042,0.02114 -0.01176,0.04129 -0.01563,0.0625 -0.03744,0.21039 -0.06263,0.422144 -0.07227,0.636718 -0.0097,0.217308 -0.0045,0.417922 0.01563,0.609375 0,0 0,0.002 0,0.002 0.06065,0.573498 0.253634,1.057382 0.564453,1.601563 0.09708,0.170042 0.215708,0.329867 0.351563,0.478515 0.135618,0.148252 0.288048,0.286422 0.455078,0.414063 0,0 0.002,0 0.002,0 1.004245,0.767646 2.510758,1.168727 3.744141,1.277344 0.864742,0.07621 1.410134,0.1028 1.849609,0.101562 0.438491,-0.0014 0.774831,-0.03055 1.224609,-0.0625 0.411479,-0.02916 3.298996,-0.408716 3.75586,-0.785156 0.460945,-0.380421 0.691424,-1.066446 0.46289,-1.638671 -0.31433,-0.78662 -1.380969,-1.187798 -2.099609,-1.498048 -0.931246,-0.40222 -2.319427,-1.233549 -3.126952,-1.882812 -0.49814,-0.400322 -1.03099,-0.912715 -1.595704,-1.314453 0,0 0.002,-0.002 0.002,-0.002 0.257991,-0.2986337 0.460684,-0.70893 0.541015,-0.9765625 0.240675,-0.8017512 0.06989,-1.7597087 0.392579,-2.5234375 -0.02331,0.04985 -0.05921,0.0975 -0.103513,0.1445313 C 17.570247,6.466814 17.355199,6.5966152 17.126952,6.7143315 16.822545,6.871084 16.495742,7.007559 16.3125,7.128394 c -0.5346,0.3528513 -1.2574,0.7304225 -1.574219,1.3125 -0.04655,0.085487 -0.08023,0.223785 -0.117187,0.3515625 0,0 -0.002,0 -0.002,0 -0.337971,-0.052212 -0.673468,-0.066937 -0.972658,0.0332 -0.106125,0.035488 -0.199827,0.086 -0.298827,0.13086 0.0019,-0.00512 0.002,-0.0105 0.0039,-0.015625 0.1023,-0.2794 0.185257,-0.5609875 0.13086,-0.865235 C 13.412781,7.6874215 13.244062,7.3258803 13.003827,7.0229228 12.763759,6.7199715 12.452511,6.475619 12.095624,6.3197978 11.811373,6.1956728 11.582234,6.0009315 11.316327,5.8725315 Z m -1.125,4.490235 c -1.9293389,1.016349 -4.0466974,3.082255 -4.8359373,5.476563 -0.2737298,0.830453 -0.3752414,1.702091 -0.3515625,2.564452 0.015786,0.574909 0.08687,1.146682 0.2011719,1.697266 0.1143021,0.550584 0.2711453,1.080714 0.4570313,1.576172 0.092943,0.247729 0.193039,0.486671 0.2988281,0.714843 0.027133,0.05844 0.055876,0.116397 0.083984,0.173829 0.1469691,0.29981 0.3085468,0.584664 0.484375,0.857421 0.5275535,0.818897 1.1793621,1.518685 1.9179687,2.119141 0.4921215,0.400074 1.0213092,0.755139 1.5800788,1.072266 4.83e-4,2.73e-4 0.0015,-2.75e-4 0.002,0 0.558322,0.316773 1.144802,0.596622 1.74805,0.841797 0.238368,0.09687 0.562033,0.186858 0.941406,0.265625 7.27e-4,1.5e-4 0.0012,-1.52e-4 0.002,0 0.37897,0.07861 0.812655,0.147096 1.271485,0.195312 6.89e-4,7.2e-5 0.0012,-7.3e-5 0.002,0 0.0252,0.0026 0.05278,0.0014 0.07813,0.0039 0.898745,0.09012 1.88197,0.112463 2.732421,0.01563 2.753228,-0.313533 4.244215,-1.004015 4.949219,-1.503907 -0.505396,-0.560745 -0.940478,-1.115301 -1.314454,-1.652343 -3.22e-4,-4.65e-4 3.24e-4,-0.0015 0,-0.002 -0.37417,-0.53743 -0.68706,-1.057124 -0.949219,-1.548828 -0.524123,-0.983561 -0.845168,-1.852856 -1.039061,-2.521485 -0.227387,-0.03013 -0.5025,-0.08056 -0.798829,-0.146484 -0.59295,-0.13181 -1.269305,-0.323227 -1.814452,-0.527344 -0.272429,-0.102076 -0.511821,-0.208106 -0.691408,-0.310547 -0.295681,-0.168657 -0.557542,-0.34599 -0.789061,-0.529297 -0.230811,-0.182671 -0.430694,-0.371492 -0.60547,-0.558592 -0.175002,-0.187391 -0.324657,-0.375016 -0.451171,-0.556641 -0.253638,-0.364124 -0.416069,-0.704937 -0.521484,-0.984375 -0.0527,-0.139578 -0.09174,-0.26199 -0.119137,-0.365234 -0.05484,-0.206418 -0.06641,-0.330078 -0.06641,-0.330078 0,0 -0.704983,-0.483408 -1.255859,-0.988282 -0.183626,-0.168291 -0.351205,-0.337821 -0.46875,-0.49414 -0.113362,-0.150756 -0.220257,-0.304858 -0.320313,-0.462891 -0.09964,-0.157003 -0.191357,-0.3175 -0.27539,-0.482422 -2.69e-4,-5.3e-4 2.68e-4,-0.0014 0,-0.002 C 10.18929,13.80469 10.112873,13.636534 10.046966,13.46233 9.981205,13.288078 9.9258975,13.10896 9.8809506,12.92522 9.8009344,12.59795 9.8107781,10.563283 10.191497,10.36272 Z m 12.105469,0.326171 c 0.747804,1.013361 1.406909,2.346341 1.806641,3.125 0.478461,0.931644 0.5097,1.965323 0.539061,2.726563 0.02994,0.779506 -0.235426,1.54508 -0.693358,2.199219 -0.763523,1.090064 -2.062816,1.871245 -3.423828,1.898437 0.07888,0.225471 0.173667,0.471103 0.287109,0.734375 0.226814,0.526359 0.529085,1.122318 0.929687,1.757813 0.200338,0.317841 0.425065,0.645862 0.677735,0.980468 0.405902,0.514127 0.751953,0.917969 0.751953,0.917969 0,0 0.455881,-0.381909 1.042969,-1.017578 0.293309,-0.317487 0.619224,-0.697914 0.9375,-1.126953 0,0 0,-0.002 0,-0.002 0.318214,-0.429267 0.630485,-0.906601 0.892579,-1.416016 0.355263,-0.690521 0.583808,-1.389373 0.728515,-2.042969 0.04821,-0.217827 0.08823,-0.430591 0.119137,-0.636719 0.12375,-0.824676 0.121,-1.539712 0.08985,-2.02539 -0.172395,-2.680768 -1.997316,-4.857446 -4.685547,-6.072266 z"/>
 <path style="fill:#b8884a" d="M 26.981966,15.759994 C 26.809572,13.079229 24.9857,10.903004 22.29747,9.6881847 c 0.747803,1.0133613 1.407021,2.3461303 1.806752,3.1247893 0.478463,0.931644 0.508024,1.964813 0.537387,2.726054 0.07983,2.07868 -1.938536,4.054721 -4.116154,4.098227 0.315525,0.901883 0.883469,2.133236 1.894144,3.471658 0.405902,0.514126 0.751685,0.917818 0.751685,0.917818 0,0 1.824171,-1.52268 2.873564,-3.562323 0.94737,-1.84139 0.999427,-3.733056 0.937118,-4.704414"/>
 <path style="fill:#b8884a" d="m 11.316407,4.8711001 c -0.02847,0.406798 -0.31577,0.7036625 -0.429687,1.0839843 -0.128071,0.4275012 -0.16012,0.9449221 -0.09375,1.3847657 0.06602,0.4376537 0.259867,0.8633176 0.582031,1.171875 0.212303,0.2030242 0.47924,0.2985594 0.710938,0.4667968 -0.501639,0.6744077 -0.779135,1.5268491 -0.81836,2.4003901 -0.039,0.869236 0.165178,1.486487 0.580078,2.212891 0.776679,1.36034 2.908224,2.025099 4.552735,2.169922 1.731305,0.152586 2.173231,0.103063 3.074218,0.03906 0.411477,-0.02916 3.298996,-0.408716 3.75586,-0.785156 0.460945,-0.380421 0.691422,-1.066447 0.46289,-1.638672 -0.31433,-0.78662 -1.380969,-1.187795 -2.099609,-1.498045 -0.931246,-0.402219 -2.319429,-1.233548 -3.126953,-1.8828119 -0.49814,-0.400321 -1.03099,-0.9127152 -1.595703,-1.3144532 0.258904,-0.2987325 0.462446,-0.7102462 0.542968,-0.9785156 0.240675,-0.8017514 0.06989,-1.7597083 0.392579,-2.5234375 -0.186528,0.3988352 -1.127655,0.7055956 -1.494141,0.9472656 -0.5346,0.3528503 -1.2574,0.7304215 -1.574219,1.3125 -0.04655,0.085494 -0.08022,0.2237847 -0.117187,0.3515625 -0.338629,-0.052511 -0.674849,-0.067126 -0.97461,0.033203 -0.10612,0.035494 -0.199828,0.086004 -0.298828,0.1308593 0.10517,-0.2843077 0.190152,-0.5710867 0.134766,-0.8808593 C 13.343303,6.2977554 12.809477,5.6300086 12.095704,5.3183657 11.811453,5.194246 11.582314,4.9994997 11.316407,4.8711001 Z m -1.125,4.4902343 C 8.2620678,10.377682 6.1447096,12.443591 5.3554697,14.837897 c -0.7299462,2.214545 -0.2408444,4.727359 0.6054687,6.552734 0.027133,0.05844 0.055876,0.116397 0.083984,0.173828 1.1757527,2.398476 3.3172739,3.909045 5.7324226,4.890625 0.953472,0.387484 3.278421,0.679616 5.027344,0.480469 2.753227,-0.313533 4.244215,-1.004014 4.949218,-1.503906 -2.023141,-2.244705 -2.914947,-4.387352 -3.302734,-5.72461 -0.909548,-0.120536 -2.586346,-0.574611 -3.304688,-0.984375 -2.361349,-1.346912 -2.552734,-3.324218 -2.552734,-3.324218 0,0 -1.254428,-0.857146 -1.724609,-1.482422 -0.452067,-0.60119 -0.808492,-1.257224 -0.9882821,-1.992188 -0.080016,-0.32727 -0.070173,-2.3619373 0.3105471,-2.5624996 z m 12.105469,0.3261719 c 0.747804,1.0133617 1.40691,2.3463407 1.806641,3.1249997 0.478463,0.931644 0.509699,1.965322 0.539062,2.726562 0.07983,2.078682 -1.939569,4.05415 -4.117187,4.097657 0.315524,0.901883 0.883856,2.134234 1.894531,3.472656 0.405902,0.514126 0.751953,0.917969 0.751953,0.917969 0,0 1.823653,-1.522857 2.873047,-3.5625 0.94737,-1.841391 0.999809,-3.73372 0.9375,-4.705078 -0.172394,-2.680766 -1.997316,-4.857446 -4.685547,-6.0722657 z"/>
 <path style="fill:#845333" d="m 22.838336,18.950589 c 0,0 0.0026,0.01475 0.01025,0.04121 0.0068,0.02655 0.0203,0.06509 0.03722,0.112951 0.01691,0.04816 0.0417,0.104824 0.07098,0.16902 0.01294,0.03254 0.03325,0.06489 0.05096,0.09992 0.01813,0.03503 0.03632,0.07196 0.05991,0.108388 0.02259,0.03682 0.04479,0.07575 0.07007,0.114664 0.02617,0.03833 0.05335,0.07783 0.08122,0.118466 0.02629,0.04161 0.05963,0.08021 0.09157,0.120806 0.03344,0.03962 0.06221,0.08371 0.09834,0.123642 0.07276,0.07951 0.142932,0.165048 0.225048,0.242963 0.03981,0.04012 0.08003,0.08033 0.120238,0.120915 0.0413,0.03955 0.0862,0.07579 0.129195,0.113886 l 0.128002,0.115361 c 0.04519,0.03542 0.09029,0.07076 0.134967,0.105717 0.04489,0.03472 0.08899,0.06995 0.131983,0.105596 0.0441,0.03402 0.09008,0.0647 0.134074,0.09654 0.08997,0.06062 0.171,0.128817 0.256003,0.181461 0.0844,0.05354 0.163037,0.106492 0.235797,0.155752 0.07206,0.05027 0.141339,0.09098 0.202254,0.128618 0.06062,0.0381 0.113575,0.07147 0.157166,0.09884 0.0869,0.05603 0.135964,0.08989 0.135964,0.08989 0,0 -0.05604,-0.0185 -0.153283,-0.05436 -0.04837,-0.01842 -0.1073,-0.0409 -0.174783,-0.06668 -0.06729,-0.0264 -0.144125,-0.05486 -0.222759,-0.09635 -0.08002,-0.03883 -0.166819,-0.08134 -0.257495,-0.128687 -0.09186,-0.04503 -0.181949,-0.105019 -0.277304,-0.163347 -0.04717,-0.03004 -0.09635,-0.05894 -0.143926,-0.09117 -0.04707,-0.03347 -0.09416,-0.06808 -0.140941,-0.103804 -0.04709,-0.03547 -0.09465,-0.0712 -0.142235,-0.107 l -0.135765,-0.117849 c -0.0442,-0.04075 -0.09007,-0.07944 -0.13248,-0.121662 -0.04141,-0.04328 -0.08272,-0.08647 -0.123725,-0.129275 -0.0853,-0.08231 -0.151492,-0.180256 -0.223255,-0.267071 -0.06619,-0.09164 -0.127107,-0.182745 -0.17767,-0.273292 -0.02458,-0.04561 -0.04856,-0.09001 -0.07188,-0.132818 -0.02081,-0.04417 -0.03832,-0.08818 -0.05654,-0.129475 -0.03693,-0.08223 -0.05971,-0.162828 -0.08002,-0.232812 -0.01941,-0.07065 -0.03106,-0.133366 -0.03803,-0.185423 -0.0076,-0.05175 -0.0092,-0.09289 -0.0096,-0.120962 -5.96e-4,-0.02794 4.99e-4,-0.04257 4.99e-4,-0.04257"/>
 <path style="fill:#845333" d="m 24.277307,17.28019 c 0,0 0.03732,0.0214 0.102525,0.05565 0.06579,0.03385 0.159554,0.08042 0.272624,0.13258 0.05704,0.02479 0.118838,0.05166 0.18424,0.08003 0.0655,0.02747 0.135168,0.05464 0.20733,0.08211 0.07118,0.03016 0.148206,0.05176 0.223854,0.08062 0.07604,0.02786 0.155471,0.04968 0.233706,0.07505 0.07903,0.0227 0.158161,0.0453 0.236195,0.06769 0.07914,0.01711 0.155971,0.03989 0.231219,0.0586 0.07595,0.01466 0.149004,0.03247 0.218679,0.04867 0.06958,0.01574 0.136362,0.02629 0.197675,0.04001 0.0616,0.0115 0.11785,0.02629 0.168412,0.03368 0.05046,0.0083 0.09446,0.01741 0.130889,0.02456 0.07286,0.01492 0.114762,0.02528 0.114762,0.02528 0,0 -0.0421,0.0065 -0.116362,0.01422 -0.07415,0.0069 -0.181154,0.02032 -0.309055,0.01595 -0.064,-0.0014 -0.134073,0.0011 -0.207133,-0.0065 -0.07306,-0.0066 -0.150695,-0.01314 -0.230323,-0.02349 -0.07903,-0.01434 -0.161544,-0.02629 -0.244157,-0.04409 -0.08203,-0.02123 -0.165228,-0.04261 -0.248538,-0.06413 -0.08111,-0.02876 -0.163337,-0.05391 -0.242069,-0.08517 -0.07894,-0.03087 -0.155373,-0.06419 -0.227535,-0.100537 -0.07345,-0.03325 -0.140842,-0.07306 -0.204544,-0.110475 -0.0643,-0.03632 -0.121525,-0.07694 -0.174386,-0.113575 -0.105112,-0.07475 -0.185231,-0.146814 -0.238781,-0.199269 -0.05305,-0.05355 -0.07924,-0.08739 -0.07924,-0.08739"/>
 <path style="fill:#845333" d="m 24.458859,14.203277 c 0,0 0.135665,-0.01 0.339212,-0.02489 0.05006,-0.0039 0.104313,-0.0084 0.161546,-0.01294 0.05692,-0.0051 0.116951,-0.01063 0.179063,-0.01631 0.123625,-0.01394 0.255106,-0.02736 0.385397,-0.04709 0.0656,-0.0075 0.130389,-0.01911 0.194392,-0.02956 0.06429,-0.0097 0.127205,-0.0209 0.187921,-0.03285 0.121425,-0.02379 0.235797,-0.04639 0.333042,-0.07066 0.04926,-0.01113 0.09436,-0.0216 0.134372,-0.03066 0.03933,-0.0115 0.07456,-0.01971 0.103612,-0.02698 0.05832,-0.01384 0.09307,-0.0203 0.09307,-0.0203 0,0 -0.02707,0.0214 -0.07655,0.05634 -0.04917,0.03574 -0.121625,0.0838 -0.215294,0.128996 -0.02319,0.01187 -0.04739,0.02429 -0.07246,0.03702 -0.02598,0.0105 -0.05285,0.0215 -0.08043,0.03264 -0.05532,0.0221 -0.113675,0.04718 -0.176475,0.06361 -0.06251,0.01802 -0.126608,0.04012 -0.193894,0.05236 -0.06659,0.01553 -0.134967,0.02806 -0.203847,0.03712 -0.06857,0.01037 -0.137655,0.01651 -0.205838,0.0205 -0.06799,0.0065 -0.135366,0.0026 -0.200162,0.0041 -0.129694,-0.003 -0.250429,-0.01334 -0.352752,-0.03175 -0.205042,-0.03235 -0.333938,-0.08889 -0.333938,-0.08879"/>
 <path style="fill:#b8884a" d="m 16.303297,9.0389205 c 0.527633,-0.011048 0.977231,-0.8909342 1.110508,-1.3349581 0.240674,-0.8017512 0.07027,-1.7610657 0.392962,-2.5247947 -0.186528,0.3988352 -1.127329,0.7063971 -1.493815,0.9480671 -0.5346,0.3528502 -1.257421,0.7300863 -1.574239,1.3121646 -0.137159,0.2519221 -0.263568,0.7891104 -0.197377,1.0122669"/>
 <path style="fill:#b8884a" d="m 11.267294,11.379875 c 0.06937,-1.5447773 0.858566,-3.0472521 2.378957,-3.5557743 0.737521,-0.2468458 1.688873,0.1105829 2.380738,0.3751459 0.887749,0.3397116 1.700449,1.2017807 2.440489,1.7965 0.807524,0.6492644 2.195434,1.4817714 3.12668,1.8839904 0.71864,0.31025 1.784457,0.710279 2.098787,1.496901 0.228531,0.572225 -0.0021,1.258217 -0.463035,1.638638 -0.456864,0.37644 -3.34287,0.756961 -3.754346,0.786125 -0.900987,0.064 -1.343717,0.113469 -3.075022,-0.03912 -1.64451,-0.144823 -3.777089,-0.809615 -4.553767,-2.169954 -0.4149,-0.726404 -0.618479,-1.34322 -0.579481,-2.212455"/>
 <path style="fill:#f2c9c0" d="m 23.084685,14.996865 c 0.533504,-0.442927 0.783535,-1.630873 0.04856,-1.96083 -0.535396,-0.240177 -1.341626,-0.204445 -1.862391,0.0661 -0.384801,0.199668 -0.921989,0.870033 -0.742329,1.348595 0.213003,0.567844 0.970562,0.1074 1.380644,0.23709 0.439843,0.138952 0.675043,0.724713 1.175503,0.309056"/>
 <path style="fill:#17191e" d="m 13.977465,9.6667853 c -0.575171,-0.1366601 -1.300746,0.5105117 -0.821482,1.0591687 0.805887,0.923405 1.73468,-0.75937 0.87646,-1.0437962 -0.0184,-0.00625 -0.0367,-0.011125 -0.05499,-0.015375"/>
 <path style="fill:#b8884a" d="M 13.038781,9.1049119 C 13.018595,8.4029939 13.611842,7.7951361 13.482835,7.0736098 13.343715,6.2971404 12.809224,5.6293627 12.095452,5.3177199 11.811201,5.1936003 11.582351,5.0000055 11.316444,4.8716058 c -0.02847,0.4067979 -0.315405,0.7022166 -0.429322,1.0825383 -0.128071,0.4275012 -0.159883,0.9465741 -0.09351,1.3864175 0.06602,0.4376536 0.258561,0.8626664 0.580725,1.1712236 0.219095,0.2095204 0.498648,0.3021871 0.735192,0.4809512 0.169955,0.1285987 0.323766,0.3204019 0.44705,0.4887149"/>
 <path style="fill:#17191e" d="m 16.484738,9.9293278 c -0.619333,0.040125 -1.236699,0.3950912 -1.615356,0.8741452 -0.664692,0.840967 -0.126277,1.700184 0.73181,2.075927 0.819768,0.358921 1.931065,0.378797 2.627808,-0.239013 0.982506,-0.871327 -0.05697,-2.295225 -1.011109,-2.607667 -0.01356,-0.0044 -0.03209,0.0044 -0.047,0.0028 -0.137492,-0.052437 -0.27773,-0.090837 -0.42163,-0.1033997 -0.08788,-0.00762 -0.176051,-0.0085 -0.264527,-0.00275 z m 0.0014,0.4028312 c 0.170907,0.0027 0.339315,0.04629 0.491454,0.139649 0.0319,0.01958 0.07214,0.02541 0.115475,0.02685 0.678131,0.349112 1.263595,1.245419 0.717041,1.930907 -0.392862,0.492895 -1.288563,0.293844 -1.784546,0.115475 -0.592926,-0.213202 -1.070087,-0.750255 -0.790892,-1.397827 0.201258,-0.466866 0.738743,-0.823255 1.251465,-0.815064 z"/>
 <path style="fill:#17191e" d="m 19.265544,10.502782 c -0.26347,-0.04727 -0.52853,-0.08161 -0.78941,-0.0012 -0.303183,0.09346 -0.531615,0.315922 -0.760644,0.524846 -0.08799,0.08033 -0.06808,0.174484 0.05295,0.197774 0.13258,0.02549 0.307264,-0.01752 0.407991,-0.109288 0.129495,-0.11815 0.2569,-0.249037 0.406998,-0.341305 0.05484,-0.03385 0.252817,0.0229 0.327171,0.03622 0.136162,0.02439 0.302882,-0.01841 0.407891,-0.109287 0.09039,-0.07813 0.0664,-0.176376 -0.05295,-0.197775 v 0"/>
 <path style="fill:#17191e" d="m 20.976312,8.9209053 c -0.198621,-0.014613 -0.406242,0.01125 -0.577391,0.03625 -0.957422,0.139645 -1.748631,0.9428787 -1.689208,1.9295637 0.159453,0.935226 0.887623,1.464785 1.80603,1.227295 0.856196,-0.221564 1.438082,-1.011896 1.407226,-1.873167 C 21.908531,9.8370328 21.780334,9.4267353 21.498653,9.1317152 21.36443,8.9912215 21.174934,8.9355065 20.976313,8.920899 Z m -0.502196,0.2229 c 0.105125,0.00413 0.214639,0.027575 0.328979,0.076537 0.41068,0.1758762 0.512371,0.7888307 0.543824,1.1749247 0.05046,0.619107 -0.233994,1.07108 -0.725098,1.434082 -0.67793,0.501059 -1.24852,-0.59121 -1.334716,-1.097044 -0.03868,-0.643094 0.45114,-1.6173552 1.187011,-1.5885015 z"/>
 <path style="fill:#843733" d="m 15.773373,14.288579 c 0.250031,0.349764 0.454673,0.492695 0.908651,0.524148 0.315325,0.02179 0.553112,-0.137158 0.883369,0.02597 0.240376,0.118637 0.41685,0.261676 0.679024,0.340407 1.047004,0.31433 2.23465,0.04151 3.261648,-0.217781 0.340708,-0.0861 0.283475,-0.292831 -0.05564,-0.207233 -1.002213,0.253119 -2.293674,0.563765 -3.22472,-0.04579 -0.261178,-0.1709 -0.501158,-0.227934 -0.810312,-0.209021 -0.557592,0.03412 -0.783337,0.02886 -1.100553,-0.414862 -0.08649,-0.121037 -0.641899,0.0637 -0.541468,0.204147 v 0"/>
 <path style="fill:#845333" d="m 21.503279,13.96111 c 0.09286,-0.06859 0.206436,-0.228731 0.215493,-0.346878 0.0074,-0.09496 -0.0844,-0.150597 -0.166124,-0.112575 -0.06749,0.03144 -0.123625,0.167617 -0.155273,0.23092 -0.0661,0.131684 -0.11765,0.39376 0.1059,0.228532"/>
 <path style="fill:#845333" d="m 22.933889,14.301618 c 0.07824,-0.05784 0.173887,-0.192699 0.181551,-0.292334 0.0061,-0.08002 -0.07116,-0.126906 -0.139945,-0.09475 -0.05694,0.02649 -0.104113,0.141041 -0.130887,0.19449 -0.05564,0.110888 -0.09924,0.33175 0.08927,0.192601"/>
 <path style="fill:#b8884a" d="m 18.45205,19.70674 c -0.909547,-0.120536 -2.5879,-0.574424 -3.306241,-0.984188 -2.361349,-1.346912 -2.552445,-3.324963 -2.552445,-3.324963 0,0 -1.2534,-0.857192 -1.723581,-1.482468 C 10.417717,13.313932 10.05974,12.658397 9.879951,11.923433 9.7999352,11.596163 9.8111328,9.5624725 10.191853,9.3619102 8.2625138,10.378258 6.1446464,12.442904 5.3554067,14.837209 c -0.7299459,2.214545 -0.2399281,4.727884 0.6063847,6.553259 0.027133,0.05844 0.054744,0.116365 0.082853,0.173797 1.1757525,2.398475 3.318394,3.908833 5.7335406,4.890414 0.953472,0.387484 3.277645,0.680216 5.026567,0.481069 2.753227,-0.313533 4.244255,-1.003895 4.949259,-1.503787 C 19.73087,23.187256 18.839837,21.043998 18.45205,19.70674"/>
 <path style="fill:#845333" d="m 5.3554065,14.837212 c 0,0 0.02158,0.02279 0.065475,0.06153 0.041993,0.0404 0.1104625,0.09256 0.1941321,0.161543 0.086904,0.0655 0.1918033,0.14522 0.3201431,0.225248 0.031531,0.0207 0.06412,0.04201 0.097592,0.0639 0.034916,0.01991 0.07076,0.04031 0.1076175,0.06121 0.074264,0.04061 0.1487247,0.08907 0.2312289,0.131285 0.1666009,0.08191 0.343862,0.17528 0.5417268,0.252619 0.1925696,0.08879 0.4075045,0.152885 0.624888,0.230323 0.1084337,0.03971 0.2245301,0.06251 0.3386865,0.09525 0.057471,0.01523 0.1152412,0.03055 0.1733294,0.04599 0.05786,0.01612 0.1160175,0.03245 0.1760566,0.04221 0.1190937,0.02319 0.239152,0.04668 0.3596785,0.07016 l 0.1810729,0.03494 0.1838305,0.02161 c 0.2450241,0.02856 0.4888046,0.07038 0.7325842,0.07446 0.243044,0.0076 0.4817375,0.03862 0.7140105,0.02658 0.231916,-0.0056 0.456805,-3.98e-4 0.669719,-0.0085 0.212835,-0.01474 0.414034,-0.02886 0.599775,-0.0418 0.09307,-0.0063 0.182308,-0.01238 0.267101,-0.01813 0.08445,-0.01037 0.164472,-0.02001 0.2397,-0.02916 0.150705,-0.01841 0.282199,-0.03444 0.390404,-0.04769 0.216836,-0.02569 0.341681,-0.03771 0.341681,-0.03771 0,0 -0.1212,0.02926 -0.334914,0.07585 -0.10704,0.02299 -0.23702,0.05086 -0.386123,0.08281 -0.07469,0.01602 -0.154199,0.03305 -0.237988,0.05096 -0.08437,0.01422 -0.173916,0.02369 -0.267001,0.03663 -0.186657,0.02369 -0.388881,0.04936 -0.602761,0.07655 -0.214816,0.01821 -0.44266,0.02509 -0.678119,0.03543 -0.05895,0.0025 -0.118318,0.0047 -0.178147,0.0074 -0.0598,0.0026 -0.120148,-0.0026 -0.180835,-0.0035 C 9.9185978,16.61081 9.7957335,16.60611 9.6719019,16.60157 9.4236133,16.59947 9.1738815,16.55977 8.923293,16.53219 L 8.7357301,16.5084 8.5506259,16.47087 C 8.4274909,16.44568 8.3047751,16.42051 8.1831246,16.39562 8.0607671,16.37352 7.9442413,16.33032 7.8268603,16.29828 7.710764,16.26147 7.5931431,16.23478 7.4829186,16.19098 7.2613346,16.10707 7.0459816,16.029534 6.8526655,15.9298 6.6538651,15.84271 6.4784354,15.73511 6.31494,15.640752 c -0.080872,-0.04876 -0.1547764,-0.101725 -0.2260829,-0.1498 -0.035345,-0.02448 -0.069754,-0.04829 -0.1032375,-0.07157 -0.03203,-0.02528 -0.063094,-0.04978 -0.093234,-0.07366 -0.1223188,-0.09248 -0.2211459,-0.182446 -0.3025253,-0.256002 -0.0792,-0.07624 -0.1388108,-0.138454 -0.1767533,-0.183443 -0.039077,-0.04379 -0.0577,-0.06888 -0.0577,-0.06888"/>
 <path style="fill:#845333" d="m 6.771017,22.776488 c 0,-1.18e-4 0.1428023,-0.0061 0.3891105,-0.04051 0.2464675,-0.03285 0.5955751,-0.100749 1.004413,-0.215015 0.2046636,-0.05611 0.4233306,-0.127295 0.6517929,-0.209102 0.2290482,-0.08064 0.4640803,-0.182467 0.7061482,-0.28865 0.2396984,-0.111898 0.4841854,-0.234096 0.7253574,-0.371463 0.243392,-0.133477 0.480922,-0.286043 0.714748,-0.443437 0.116714,-0.079 0.230443,-0.16252 0.345335,-0.243232 0.111011,-0.08613 0.221585,-0.171936 0.331261,-0.257118 0.106612,-0.08908 0.212328,-0.17757 0.316769,-0.264981 0.101357,-0.09093 0.201598,-0.180834 0.300077,-0.269321 0.09525,-0.09207 0.188956,-0.182666 0.280638,-0.271351 0.09025,-0.09016 0.175748,-0.181222 0.26058,-0.268435 0.08627,-0.08589 0.161587,-0.17737 0.239043,-0.261854 0.07636,-0.08531 0.152527,-0.165945 0.218896,-0.249036 0.135228,-0.164152 0.263608,-0.311553 0.36793,-0.449807 0.106413,-0.13674 0.201569,-0.25459 0.272138,-0.357121 0.146016,-0.201756 0.232013,-0.316021 0.232013,-0.316021 0,0 -0.07108,0.123525 -0.199963,0.337721 -0.0627,0.108287 -0.148307,0.233518 -0.244239,0.379007 -0.09344,0.147322 -0.210345,0.305482 -0.338725,0.477766 -0.06233,0.08771 -0.134331,0.173291 -0.206614,0.263876 -0.07348,0.08958 -0.146932,0.184538 -0.230323,0.275203 -0.08228,0.09187 -0.165128,0.187713 -0.252967,0.282898 -0.09055,0.09276 -0.183045,0.187403 -0.277054,0.283752 -0.09806,0.09238 -0.197676,0.186349 -0.298535,0.281494 -0.10264,0.09327 -0.210534,0.183243 -0.318162,0.275194 -0.109876,0.08919 -0.223245,0.176096 -0.335651,0.26497 -0.116604,0.08332 -0.231766,0.169716 -0.35059,0.250937 -0.240047,0.158758 -0.483788,0.312449 -0.73344,0.446821 -0.246817,0.139428 -0.5014855,0.2544 -0.7479927,0.36349 -0.2488758,0.104123 -0.4930044,0.196083 -0.72917,0.268824 -0.2353003,0.07528 -0.4613133,0.13461 -0.6718884,0.179479 -0.4205039,0.09397 -0.778709,0.126828 -1.028053,0.142923 -0.1249563,0.0082 -0.223485,0.0063 -0.2903623,0.0058 -0.066867,-0.0025 -0.1025212,-0.0038 -0.1025212,-0.0038"/>
 <path style="fill:#845333" d="m 15.81637,26.928556 c 0,0 0.02906,-0.12092 0.07983,-0.332627 0.05255,-0.210924 0.115062,-0.5154 0.191007,-0.879398 0.03465,-0.182815 0.07655,-0.379824 0.113075,-0.589633 0.019,-0.1047 0.03843,-0.212208 0.05832,-0.322203 0.01781,-0.110264 0.03604,-0.222938 0.05444,-0.337602 0.04141,-0.228342 0.06659,-0.466917 0.103225,-0.707581 0.03354,-0.241103 0.05605,-0.487331 0.0844,-0.732903 0.01812,-0.246238 0.04449,-0.492189 0.05634,-0.734963 0.005,-0.242775 0.02976,-0.481738 0.02548,-0.713156 9.9e-5,-0.11567 1.99e-4,-0.229507 2.98e-4,-0.340906 4.99e-4,-0.05575 8.6e-4,-0.110881 0.0014,-0.165317 -0.0012,-0.05448 -0.005,-0.108005 -0.0075,-0.160967 -0.0051,-0.105983 -0.01037,-0.209103 -0.01513,-0.308826 -0.0056,-0.09965 -0.0041,-0.197008 -0.01731,-0.288571 -0.021,-0.183949 -0.03733,-0.353347 -0.05166,-0.503934 -0.0048,-0.07567 -0.02001,-0.144523 -0.03106,-0.208942 -0.01138,-0.06438 -0.022,-0.123415 -0.03155,-0.176873 -0.03742,-0.21388 -0.05634,-0.337601 -0.05634,-0.337601 0,0 0.03594,0.118825 0.09416,0.329161 0.01434,0.05264 0.03026,0.11097 0.04769,0.174464 0.01682,0.06372 0.03843,0.132072 0.05017,0.207151 0.02848,0.149382 0.06051,0.318322 0.09218,0.503426 0.03095,0.185155 0.0447,0.387996 0.06729,0.601995 0.0048,0.05354 0.01125,0.107896 0.01503,0.162948 0.0021,0.05501 0.0044,0.110773 0.0065,0.167229 0.0035,0.112871 0.0074,0.228113 0.01112,0.345375 0.0056,0.117341 0.0034,0.236474 1.99e-4,0.357119 -0.003,0.120647 -0.0061,0.242765 -0.0091,0.365909 -0.0099,0.24603 -0.03366,0.494946 -0.05029,0.744599 -0.03095,0.247941 -0.05612,0.496668 -0.09238,0.73994 -0.03772,0.242964 -0.07425,0.482155 -0.121038,0.711473 -0.02259,0.114782 -0.04469,0.227725 -0.0663,0.338228 -0.0251,0.109678 -0.0497,0.217075 -0.07379,0.321587 -0.04511,0.20952 -0.10025,0.404817 -0.14723,0.585651 -0.09824,0.360932 -0.195587,0.657127 -0.264664,0.863851 -0.03375,0.103546 -0.065,0.183443 -0.0851,0.238303 -0.0207,0.05455 -0.03175,0.08359 -0.03175,0.08359"/>
 <path style="opacity:0.2;fill:#8b9cbe" d="M 16,2 C 8.2680865,2 2,8.2680162 2,16 2,16.168777 2.019468,16.332668 2.025391,16.5 2.2908184,9.0015496 8.4368621,3 16,3 23.563322,3 29.70918,9.0015496 29.974609,16.5 29.980533,16.332668 30,16.168777 30,16 30,8.2680162 23.732101,2 16,2 Z"/>
</svg>
