<svg xmlns="http://www.w3.org/2000/svg" width="32" height="32" version="1">
 <path fill="#1ed760" d="M16,2L16,2c7.7,0,14,6.3,14,14l0,0c0,7.7-6.3,14-14,14l0,0C8.3,30,2,23.7,2,16l0,0C2,8.3,8.3,2,16,2z"/>
 <path fill="#8b9cbe" opacity=".2" d="M16,2C8.2,2,2,8.2,2,16c0,0.2,0,0.3,0,0.5C2.3,9,8.4,3,16,3s13.7,6,14,13.5c0-0.2,0-0.3,0-0.5 C30,8.2,23.8,2,16,2L16,2z"/>
 <path opacity=".2" d="M2,16.5c0,0.2,0,0.3,0,0.5c0,7.8,6.2,14,14,14s14-6.2,14-14c0-0.2,0-0.3,0-0.5C29.7,24,23.6,30,16,30 C8.4,30,2.3,24,2,16.5L2,16.5z"/>
 <path style="fill:none;stroke:#000000;stroke-width:3;stroke-linecap:round;opacity:0.2" d="M 7.5,12.5 C 12.5,11 20.5,11 25.5,14.5"/>
 <path style="fill:none;stroke:#8b9cbe;stroke-width:3;stroke-linecap:round" d="M 7.5,11.5 C 12.5,10 20.5,10 25.5,13.5"/>
 <path style="opacity:0.2;fill:none;stroke:#000000;stroke-width:2;stroke-linecap:round" d="M 8,17.5 C 13,16 19,16 24,19.5"/>
 <path style="fill:none;stroke:#8b9cbe;stroke-width:2;stroke-linecap:round" d="M 8,16.5 C 13,15 19,15 24,18.5"/>
 <path style="opacity:0.2;fill:none;stroke:#000000;stroke-width:2;stroke-linecap:round" d="M 9,22 C 12,20.5 18,20.5 22,23"/>
 <path style="fill:none;stroke:#8b9cbe;stroke-width:2;stroke-linecap:round" d="M 9,21 C 12,19.5 18,19.5 22,22"/>
</svg>
