<svg xmlns="http://www.w3.org/2000/svg" width="32" height="32" version="1.1">
 <path style="opacity:0.2" d="m 24.921035,10.457177 1.640534,-2.1978932 c 0.103377,-0.1179752 0.0835,-0.2999619 -0.04287,-0.3924809 L 25.002867,6.3361271 C 24.899335,6.2309844 24.73694,6.2129923 24.613191,6.2929542 L 22.450492,8.000246 21.671141,7.4900209 22.392041,4.83685 c 0.03589,-0.1410136 -0.03742,-0.287001 -0.171457,-0.3414583 l -2.00683,-0.8556085 c -0.14403,-0.049895 -0.303417,0.00308 -0.389675,0.1295187 L 18.54984,6.1634355 C 18.2568,6.0847597 17.958604,6.0270519 17.657482,5.9907439 L 17.318465,3.2433775 C 17.296917,3.10069 17.173358,2.9964214 17.030105,3.0000394 H 14.871303 C 14.731727,3.0198334 14.616209,3.1193427 14.575149,3.255152 L 14.236132,6.0025183 C 13.936082,6.0456913 13.639928,6.132037 13.343774,6.17521 l -1.321,-2.3902088 C 11.936517,3.6585643 11.77713,3.6055878 11.633099,3.6554825 L 9.6067858,4.4953917 C 9.4727491,4.549849 9.3994437,4.6958364 9.4353285,4.83685 L 10.156228,7.4900209 9.3768778,8.000246 7.229765,6.3361271 C 7.1129021,6.2337017 6.9345008,6.2516702 6.840089,6.3753754 L 5.3203549,7.9178252 C 5.2187046,8.0234181 5.2010593,8.184983 5.2774904,8.3103061 L 6.9764763,10.488575 6.4660006,11.273537 3.8356908,10.523899 C 3.696907,10.489011 3.5534471,10.560432 3.4966731,10.692665 L 2.6471804,12.74534 c -0.049538,0.145068 0.00307,0.305603 0.128593,0.392481 l 2.3770208,1.369759 c -0.078113,0.295149 -0.1354086,0.595491 -0.1714571,0.898781 L 2.2536082,15.74782 c -0.1494081,0.01642 -0.2603525,0.147075 -0.253289,0.298285 v 2.178269 c 0.024186,0.139351 0.1209548,0.254811 0.253289,0.30221 l 2.7277289,0.341459 c 0.042864,0.298285 0.128593,0.596571 0.1714572,0.894856 l -2.3614338,1.361909 c -0.1255331,0.08688 -0.1781308,0.247413 -0.128593,0.392481 l 0.8494928,2.052675 c 0.056774,0.132236 0.2002338,0.203652 0.3390177,0.168767 l 2.6147226,-0.722165 0.5104757,0.784962 -1.6561214,2.15472 c -0.1008153,0.11878 -0.081175,0.298613 0.042865,0.392481 l 1.1340789,1.165221 0.6176534,0.291695 c 0.1205295,0.09969 0.2283407,0.179125 0.3839815,0.18917 l 4.9057233,-0.193907 c 1.130316,0.380112 2.315476,0.568451 3.50708,0.557324 6.1243,0.0022 11.090168,-4.997692 11.090166,-11.166083 0.05649,-2.413807 -0.674477,-4.779675 -2.080868,-6.734972 z"/>
 <path style="fill:#297b3b" d="M 24.921035,9.4572028 26.561569,7.2593099 C 26.664946,7.1413347 26.645069,6.959348 26.518701,6.866829 L 25.002867,5.3361532 C 24.899335,5.2310105 24.73694,5.2130184 24.613191,5.2929803 l -2.162699,1.7072918 -0.779351,-0.5102251 0.7209,-2.6531709 c 0.03589,-0.1410136 -0.03742,-0.287001 -0.171457,-0.3414583 l -2.00683,-0.8556085 c -0.14403,-0.049895 -0.303417,0.00308 -0.389675,0.1295187 L 18.54984,5.1634616 C 18.2568,5.0847858 17.958604,5.027078 17.657482,4.99077 L 17.318465,2.2434036 C 17.296917,2.1007161 17.173358,1.9964475 17.030105,2.0000655 h -2.158802 c -0.139576,0.019794 -0.255094,0.1193033 -0.296154,0.2551126 l -0.339017,2.7473663 c -0.30005,0.043173 -0.596204,0.1295187 -0.892358,0.1726917 l -1.321,-2.3902088 C 11.936517,2.6585904 11.77713,2.6056139 11.633099,2.6555086 L 9.6067858,3.4954178 C 9.4727491,3.5498751 9.3994437,3.6958625 9.4353285,3.8368761 L 10.156228,6.490047 9.3768778,7.0002721 7.229765,5.3361532 C 7.1129021,5.2337278 6.9345008,5.2516963 6.840089,5.3754015 L 5.3203549,6.9178513 C 5.2187046,7.0234442 5.2010593,7.1850091 5.2774904,7.3103322 L 6.9764763,9.4886013 6.4660006,10.273563 3.8356908,9.5239247 C 3.696907,9.4890367 3.5534471,9.5604577 3.4966731,9.6926912 L 2.6471804,11.745366 c -0.049538,0.145068 0.00307,0.305603 0.128593,0.392481 l 2.3770208,1.369759 c -0.078113,0.295149 -0.1354086,0.595491 -0.1714571,0.898781 l -2.7277289,0.341459 c -0.1494081,0.01642 -0.2603525,0.147075 -0.253289,0.298285 V 17.2244 c 0.024186,0.139351 0.1209548,0.254811 0.253289,0.30221 l 2.7277289,0.341459 c 0.042864,0.298285 0.128593,0.596571 0.1714572,0.894856 l -2.3614338,1.361909 c -0.1255331,0.08688 -0.1781308,0.247413 -0.128593,0.392481 l 0.8494928,2.052675 c 0.056774,0.132236 0.2002338,0.203652 0.3390177,0.168767 l 2.6147226,-0.722165 0.5104757,0.784962 -1.6561214,2.15472 c -0.1008153,0.11878 -0.081175,0.298613 0.042865,0.392481 l 1.1340789,1.165221 0.6176534,0.291695 c 0.1205295,0.09969 0.2283407,0.179125 0.3839815,0.18917 l 4.9057233,-0.193907 c 1.130316,0.380112 2.315476,0.568451 3.50708,0.557324 6.1243,0.0022 11.090168,-4.997692 11.090166,-11.166083 0.05649,-2.413807 -0.674477,-4.779675 -2.080868,-6.7349722 z"/>
 <path style="fill:#8b9cbe;opacity:0.1" d="M 14.871094 2 C 14.731518 2.019794 14.615279 2.1200501 14.574219 2.2558594 L 14.236328 5.0019531 C 13.936278 5.0451261 13.639904 5.1326083 13.34375 5.1757812 L 12.023438 2.7851562 C 11.937181 2.6587194 11.776844 2.6063553 11.632812 2.65625 L 9.6074219 3.4960938 C 9.4733852 3.5505511 9.3996621 3.6949239 9.4355469 3.8359375 L 9.6132812 4.4941406 L 11.632812 3.65625 C 11.776844 3.6063553 11.937181 3.6587194 12.023438 3.7851562 L 13.34375 6.1757812 C 13.639904 6.1326083 13.936278 6.0451261 14.236328 6.0019531 L 14.574219 3.2558594 C 14.615279 3.1200501 14.731518 3.019794 14.871094 3 L 17.029297 3 C 17.17255 2.996382 17.296811 3.1014531 17.318359 3.2441406 L 17.658203 5.9902344 C 17.959325 6.0265424 18.257741 6.0853867 18.550781 6.1640625 L 19.824219 3.7695312 C 19.910477 3.6430926 20.068861 3.59073 20.212891 3.640625 L 22.214844 4.4941406 L 22.392578 3.8359375 C 22.428468 3.6949239 22.35474 3.5505511 22.220703 3.4960938 L 20.212891 2.640625 C 20.068861 2.59073 19.910477 2.6430925 19.824219 2.7695312 L 18.550781 5.1640625 C 18.257741 5.0853867 17.959325 5.0265424 17.658203 4.9902344 L 17.318359 2.2441406 C 17.296811 2.1014531 17.17255 1.996382 17.029297 2 L 14.871094 2 z M 24.816406 5.2460938 C 24.747397 5.2384481 24.675156 5.2529878 24.613281 5.2929688 L 22.451172 7 L 21.902344 6.640625 L 21.671875 7.4902344 L 22.451172 8 L 24.613281 6.2929688 C 24.73703 6.2130069 24.898421 6.2307948 25.001953 6.3359375 L 26.285156 7.6308594 L 26.5625 7.2597656 C 26.665877 7.1417904 26.645899 6.9597065 26.519531 6.8671875 L 25.001953 5.3359375 C 24.950187 5.2833661 24.885415 5.2537394 24.816406 5.2460938 z M 7.0273438 5.2714844 C 6.9563341 5.2786365 6.8870496 5.3131474 6.8398438 5.375 L 5.3203125 6.9179688 C 5.2186622 7.0235617 5.2009127 7.1852238 5.2773438 7.3105469 L 5.5605469 7.6738281 L 6.8398438 6.375 C 6.9342555 6.2512948 7.1136058 6.2335121 7.2304688 6.3359375 L 9.3769531 8 L 10.15625 7.4902344 L 9.9257812 6.640625 L 9.3769531 7 L 7.2304688 5.3359375 C 7.1720373 5.2847248 7.0983534 5.2643323 7.0273438 5.2714844 z M 3.8359375 9.5234375 C 3.6971537 9.4885495 3.5528678 9.5611259 3.4960938 9.6933594 L 2.6464844 11.746094 C 2.5969464 11.891162 2.6498676 12.051794 2.7753906 12.138672 L 2.875 12.195312 L 3.4960938 10.693359 C 3.5528678 10.561126 3.6971537 10.488549 3.8359375 10.523438 L 6.4667969 11.273438 L 6.9765625 10.488281 L 6.6230469 10.033203 L 6.4667969 10.273438 L 3.8359375 9.5234375 z M 25.271484 9.9882812 L 24.921875 10.457031 C 26.184047 12.211822 26.895097 14.297135 26.988281 16.451172 C 26.990276 16.363992 27.001953 16.279069 27.001953 16.191406 C 27.053452 13.990859 26.44402 11.834386 25.271484 9.9882812 z M 4.9765625 14.40625 L 2.2539062 14.748047 C 2.1044981 14.764467 1.9929365 14.895665 2 15.046875 L 2 16.046875 C 1.9929365 15.895665 2.1044981 15.764467 2.2539062 15.748047 L 4.9804688 15.40625 C 5.0165173 15.10296 5.0742307 14.802962 5.1523438 14.507812 L 4.9765625 14.40625 z M 4.9746094 18.867188 L 2.7910156 20.125 C 2.6654825 20.21188 2.6125716 20.37251 2.6621094 20.517578 L 2.890625 21.068359 L 5.1523438 19.763672 C 5.1094795 19.465387 5.0233327 19.165472 4.9804688 18.867188 L 4.9746094 18.867188 z M 6.625 23.259766 L 5.3203125 24.957031 C 5.2194972 25.075811 5.2392412 25.255741 5.3632812 25.349609 L 5.5996094 25.591797 L 6.9765625 23.800781 L 6.625 23.259766 z"/>
 <path style="opacity:0.2" d="m 26.620021,7.9570735 c -0.471577,0.8971032 -1.073069,1.7185336 -1.784715,2.4373065 -1.358467,1.413536 -3.040301,2.47006 -4.898222,3.07705 -2.692658,0.910556 -5.777938,0.686841 -8.112095,1.668044 -4.1968054,1.840736 -4.5786869,6.927288 -2.8835984,9.419542 l 0.8923568,-0.168767 c 2.1542026,-0.376513 4.5597616,-0.901045 6.6428616,-1.569923 3.549944,-1.354059 7.76639,-4.646974 9.083494,-8.43834 -0.681932,3.975832 -3.896756,7.822144 -7.47008,9.66288 -1.823682,0.934104 -5.825526,2.73122 -11.5927247,3.469084 2.5589865,2.379266 6.0604857,3.509613 9.5430317,3.485678 11.883489,0.0753 18.332945,-13.971611 10.579691,-23.0425545 z"/>
 <path style="fill:#77bd43" d="m 26.620021,6.9570996 c -0.471577,0.8971032 -1.073069,1.7185336 -1.784715,2.4373062 -1.358467,1.4135362 -3.040301,2.4700602 -4.898222,3.0770502 -2.692658,0.910556 -5.777938,0.686841 -8.112095,1.668044 -4.1968054,1.840736 -4.5786869,6.927288 -2.8835984,9.419542 l 0.8923568,-0.168767 c 2.1542026,-0.376513 4.5597616,-0.901045 6.6428616,-1.569923 3.549944,-1.354059 7.76639,-4.646974 9.083494,-8.43834 -0.681932,3.975832 -3.896756,7.822144 -7.47008,9.66288 -1.823682,0.934104 -5.825526,2.73122 -11.5927247,3.469084 2.5589865,2.379266 6.0604857,3.509613 9.5430317,3.485678 11.883489,0.0753 18.332945,-13.971611 10.579691,-23.0425544 z"/>
 <path style="fill:#8b9cbe;opacity:0.2" d="M 26.619141 6.9570312 C 26.147564 7.8541345 25.547583 8.6757586 24.835938 9.3945312 C 23.47747 10.808067 21.795421 11.863713 19.9375 12.470703 C 17.244842 13.381259 14.158376 13.157469 11.824219 14.138672 C 8.9099519 15.416881 7.8386201 18.259939 8.0214844 20.712891 C 8.1634574 18.527811 9.2996642 16.245952 11.824219 15.138672 C 14.158376 14.157469 17.244842 14.381259 19.9375 13.470703 C 21.795421 12.863713 23.47747 11.808067 24.835938 10.394531 C 25.547583 9.6757584 26.147564 8.8541345 26.619141 7.9570312 C 28.827589 10.540812 29.881849 13.528656 29.988281 16.478516 C 30.106562 13.210131 29.077896 9.8336595 26.619141 6.9570312 z M 25.560547 14.382812 C 25.306041 15.115423 24.941385 15.828677 24.496094 16.513672 C 23.117232 19.273457 20.704701 21.697924 18.089844 23.044922 C 16.266162 23.979026 12.265246 25.775808 6.4980469 26.513672 C 6.8217983 26.814686 7.1616955 27.094244 7.5136719 27.355469 C 12.724532 26.547897 16.377583 24.921955 18.089844 24.044922 C 21.663168 22.204186 24.878615 18.358645 25.560547 14.382812 z"/>
</svg>
