<svg xmlns="http://www.w3.org/2000/svg" width="32" height="32" version="1">
 <rect fill="#b2bfd9" width="28" height="28" x="2" y="2" rx="1.5" ry="1.5"/>
 <path fill="#fff" opacity=".1" d="m3.5 2c-0.831 0-1.5 0.669-1.5 1.5v1c0-0.831 0.669-1.5 1.5-1.5h25c0.831 0 1.5 0.669 1.5 1.5v-1c0-0.831-0.669-1.5-1.5-1.5h-25z"/>
 <path opacity=".2" d="m2 28.5v1c0 0.831 0.669 1.5 1.5 1.5h25c0.831 0 1.5-0.669 1.5-1.5v-1c0 0.831-0.669 1.5-1.5 1.5h-25c-0.831 0-1.5-0.669-1.5-1.5z"/>
 <path fill="#f00" opacity=".5" d="m11.667 12.333c-1.473 0-2.667 1.194-2.667 2.667 0 1.4728 1.1939 2.6667 2.6667 2.6667s2.6667-1.1939 2.6667-2.6667h-2.6667z"/>
 <path opacity=".5" d="m15.667 13v1h6.6667v-1z"/>
 <path opacity=".5" d="m15.667 16v1h6.6667v-1z"/>
 <path opacity=".5" d="m9.6667 19v1h10v-1z"/>
</svg>
