<svg xmlns="http://www.w3.org/2000/svg" width="32" height="32" version="1.1">
 <rect style="opacity:0.2" width="27" height="27" x="-30" y="-30" rx="2.025" ry="2.025" transform="matrix(0,-1,-1,0,0,0)"/>
 <rect style="fill:#597f97" width="27" height="27" x="-29" y="-30" rx="2.025" ry="2.025" transform="matrix(0,-1,-1,0,0,0)"/>
 <path style="fill:#8b9cbe" d="M 14 6 L 14 11 L 19 11 L 19 6 L 14 6 z M 21 6 L 21 11 L 26 11 L 26 6 L 21 6 z M 7 13 L 7 18 L 12 18 L 12 13 L 7 13 z M 14 13 L 14 18 L 19 18 L 19 13 L 14 13 z M 21 13 L 21 18 L 26 18 L 26 13 L 21 13 z M 7 20 L 7 25 L 12 25 L 12 20 L 7 20 z M 14 20 L 14 25 L 19 25 L 19 20 L 14 20 z"/>
 <path style="opacity:0.2;fill:#8b9cbe" d="M 5.0253906,2 C 3.9035406,2 3,2.9035406 3,4.0253906 v 1 C 3,3.9035406 3.9035406,3 5.0253906,3 H 27.974609 C 29.096459,3 30,3.9035406 30,5.0253906 v -1 C 30,2.9035406 29.096459,2 27.974609,2 Z"/>
 <path style="opacity:0.2" d="M 14 11 L 14 12 L 19 12 L 19 11 L 14 11 z M 21 11 L 21 12 L 26 12 L 26 11 L 21 11 z M 7 18 L 7 19 L 12 19 L 12 18 L 7 18 z M 14 18 L 14 19 L 19 19 L 19 18 L 14 18 z M 21 18 L 21 19 L 26 19 L 26 18 L 21 18 z M 7 25 L 7 26 L 12 26 L 12 25 L 7 25 z M 14 25 L 14 26 L 19 26 L 19 25 L 14 25 z"/>
</svg>
