<svg xmlns="http://www.w3.org/2000/svg" width="32" height="32" version="1">
 <rect style="opacity:0.2" width="28" height="28" x="2" y="3" rx="1.4" ry="1.4"/>
 <rect style="fill:#efe1cb" width="28" height="28" x="2" y="2" rx="1.4" ry="1.4"/>
 <path style="fill:#d8b67e" d="M 5.5,2 2,5.5 5.5,9 9,5.5 Z M 9,5.5 12.5,9 16,5.5 12.5,2 Z m 7,0 L 19.5,9 23,5.5 19.5,2 Z m 7,0 L 26.5,9 30,5.5 26.5,2 Z M 26.5,9 23,12.5 26.5,16 30,12.5 Z m 0,7 -3.5,3.5 3.5,3.5 3.5,-3.5 z m 0,7 L 23,26.5 26.5,30 30,26.5 Z M 23,26.5 19.5,23 16,26.5 19.5,30 Z m -7,0 L 12.5,23 9,26.5 12.5,30 Z M 9,26.5 5.5,23 2,26.5 5.5,30 Z M 5.5,23 9,19.5 5.5,16 2,19.5 Z M 5.5,16 9,12.5 5.5,9 2,12.5 Z M 9,12.5 12.5,16 16,12.5 12.5,9 Z m 7,0 L 19.5,16 23,12.5 19.5,9 Z M 19.5,16 16,19.5 19.5,23 23,19.5 Z M 16,19.5 12.5,16 9,19.5 12.5,23 Z"/>
 <path style="opacity:0.1" d="M 5.5 2 L 2 5.5 L 2.5 6 L 5.5 3 L 8.5 6 L 9 5.5 L 5.5 2 z M 9 5.5 L 9.5 6 L 12.5 3 L 15.5 6 L 16 5.5 L 12.5 2 L 9 5.5 z M 16 5.5 L 16.5 6 L 19.5 3 L 22.5 6 L 23 5.5 L 19.5 2 L 16 5.5 z M 23 5.5 L 23.5 6 L 26.5 3 L 29.5 6 L 30 5.5 L 26.5 2 L 23 5.5 z M 5.5 9 L 2 12.5 L 2.5 13 L 5.5 10 L 8.5 13 L 9 12.5 L 5.5 9 z M 9 12.5 L 9.5 13 L 12.5 10 L 15.5 13 L 16 12.5 L 12.5 9 L 9 12.5 z M 16 12.5 L 16.5 13 L 19.5 10 L 22.5 13 L 23 12.5 L 19.5 9 L 16 12.5 z M 23 12.5 L 23.5 13 L 26.5 10 L 29.5 13 L 30 12.5 L 26.5 9 L 23 12.5 z M 5.5 16 L 2 19.5 L 2.5 20 L 5.5 17 L 8.5 20 L 9 19.5 L 5.5 16 z M 9 19.5 L 9.5 20 L 12.5 17 L 15.5 20 L 16 19.5 L 12.5 16 L 9 19.5 z M 16 19.5 L 16.5 20 L 19.5 17 L 22.5 20 L 23 19.5 L 19.5 16 L 16 19.5 z M 23 19.5 L 23.5 20 L 26.5 17 L 29.5 20 L 30 19.5 L 26.5 16 L 23 19.5 z M 5.5 23 L 2 26.5 L 2.5 27 L 5.5 24 L 8.5 27 L 9 26.5 L 5.5 23 z M 9 26.5 L 9.5 27 L 12.5 24 L 15.5 27 L 16 26.5 L 12.5 23 L 9 26.5 z M 16 26.5 L 16.5 27 L 19.5 24 L 22.5 27 L 23 26.5 L 19.5 23 L 16 26.5 z M 23 26.5 L 23.5 27 L 26.5 24 L 29.5 27 L 30 26.5 L 26.5 23 L 23 26.5 z"/>
 <path style="opacity:0.1" d="M 17.576172,7 12.728516,7.00195 C 11.900404,6.960958 12.039062,7.6757781 12.039062,7.6757781 l 0.632813,1.5683594 c 0,0 -5.257785,6.0841685 -3.1777344,8.2148435 2.2252374,2.279393 5.6025744,-3.385989 6.2617184,-2.148437 1.365387,2.563531 -3.306737,7.000864 -5.242187,8.691406 C 9.6743194,24.008304 9,24.67297 9,25.5 9,26.331 9.6804226,27 10.525391,27 h 10.949218 c 0.844968,0 1.523438,-0.669 1.523438,-1.5 0,-0.740355 -0.540541,-1.348002 -1.255859,-1.472656 C 21.331581,23.566254 20.854835,23.024807 20.875,22.46875 20.95205,20.344305 23.054177,17.182584 22.998047,14.183594 22.933746,10.748006 21.021061,7.6905243 17.576172,7 Z"/>
 <rect style="fill:#514e48" width="13.999" height="3" x="9" y="23" rx="1.525" ry="1.745"/>
 <path style="fill:#514e48" d="m 12.729162,6.0017275 4.847679,-0.00173 c 3.444889,0.6905243 5.357754,3.7489822 5.422055,7.1845705 0.05613,2.99899 -2.046891,6.160255 -2.123941,8.2847 -0.03466,0.955745 1.437518,1.904967 1.423997,2.387873 L 9.5766363,23.808229 c 0,0 7.8735477,-6.314383 6.1785307,-9.4968 C 15.096023,13.073877 11.719541,18.738393 9.4943032,16.459 7.4142526,14.328325 12.672056,8.2449983 12.672056,8.2449983 L 12.038839,6.6751518 c 0,0 -0.137789,-0.714413 0.690323,-0.6734214 z"/>
 <path style="fill:#8b9cbe;opacity:0.2" d="M 3.4003906 2 C 2.6247906 2 2 2.6247906 2 3.4003906 L 2 4.4003906 C 2 3.6247906 2.6247906 3 3.4003906 3 L 28.599609 3 C 29.375209 3 30 3.6247906 30 4.4003906 L 30 3.4003906 C 30 2.6247906 29.375209 2 28.599609 2 L 3.4003906 2 z"/>
</svg>
