<svg width="32" height="32" version="1.1" xmlns="http://www.w3.org/2000/svg">
 <path d="m15.896096 3.0025962c-0.640783 0.031626-1.231964 0.3544143-1.605038 0.8763612l-2.638606 3.6941125-3.8753398-1.3922053c-1.5841773-0.452529-3.0487456 1.0120647-2.5962244 2.5962697l1.3925888 3.8749987-3.6940485 2.638653c-1.1725708 0.837604-1.1725708 2.580338 0 3.417942l3.6940485 2.638653-1.4925888 3.975484c-0.4525214 1.584205 1.0120464 3.048799 2.5962244 2.59627l3.9753398-1.492691 2.638606 3.694113c0.83759 1.172591 2.580294 1.172591 3.417884 0l2.638606-3.694113 3.97534 1.492691c1.584178 0.452529 3.048747-1.012065 2.596225-2.59627l-1.49259-3.975484 3.694049-2.638653c1.172571-0.837604 1.172571-2.580338 0-3.417942l-3.694049-2.638653 1.49259-3.8749987c0.452521-1.5842057-1.012047-3.048799-2.596225-2.5962697l-3.97534 1.3922053-2.638606-3.6941125c-0.415729-0.581648-1.098792-0.9118523-1.812846-0.8763612z" style="opacity:.2"/>
 <path d="m15.896096 2.0025967c-0.640783 0.031626-1.231964 0.3544143-1.605038 0.8763612l-2.638606 3.6941125-3.8753398-1.3922053c-1.5841773-0.452529-3.0487456 1.0120647-2.5962244 2.5962697l1.3925888 3.8749982-3.6940485 2.638653c-1.1725708 0.837604-1.1725708 2.580338 0 3.417942l3.6940485 2.638653-1.4925888 3.975484c-0.4525214 1.584205 1.0120464 3.048799 2.5962244 2.59627l3.9753398-1.492691 2.638606 3.694113c0.83759 1.172591 2.580294 1.172591 3.417884 0l2.638606-3.694113 3.97534 1.492691c1.584178 0.452529 3.048747-1.012065 2.596225-2.59627l-1.49259-3.975484 3.694049-2.638653c1.172571-0.837604 1.172571-2.580338 0-3.417942l-3.694049-2.638653 1.49259-3.8749982c0.452521-1.5842057-1.012047-3.048799-2.596225-2.5962697l-3.97534 1.3922053-2.638606-3.6941125c-0.415729-0.581648-1.098792-0.9118523-1.812846-0.8763612z" style="fill:#c64d4d"/>
 <path d="m16.041403 4.9999935s-0.651068 0.4178876-0.882255 0.7316781c-0.25023 0.3396453-0.306497 0.8062438-0.50218 1.1857933-0.187968 0.3645892-0.579235 0.629491-0.642078 1.0417417-0.0366 0.2400191 0.173862 0.7053273 0.173862 0.7053273l-0.625906 0.5753295-0.252306 0.8239056-0.337211 0.593776-0.294355 1.555584-1.13698 4.390071 0.455277 0.899447-0.414035 0.116823s-0.163814-0.143183-0.29031-0.129119c-0.118604 0.01318-0.349342 0.08081-0.349342 0.08081s-0.537316 0.20861-0.371988 0.937216c0.170939 0.753327 0.684129 0.760666 0.684129 0.760666s0.321516-0.106203 0.521591-0.19412c0.104995-0.04613 0.163349-0.323239 0.163349-0.323239l0.224809-0.07729c0.0038 0.0096 0.0033 0.02418 0.0081 0.0325 0.164563 0.285605 0.488249 0.527504 0.773892 0.396143 0.253695-0.11667 0.263169-0.514648 0.321038-0.807217 0.08684-0.438999 0.131006-1.339508 0.131006-1.339508s0.236435 1.017576 0.163349 1.522207c-0.06588 0.454946-0.528058 1.256941-0.528058 1.256941s0.502974 0.371712 0.806237 0.336414c0.1121 0.226052 0.0924 0.284348 0.09704 0.522627 0.0052 0.266197-0.26767 0.743976-0.26767 0.743976l0.416462 1.325454s0.109087 2.214163-0.118874 3.783997c-0.370243 0.302102-0.551168 0.628779-0.476302 0.905595 0.193716 0.36331 0.426399 0.643778 0.743973 0.646477 0.651092-0.432305 1.152284-0.458322 1.191161-1.002216 0.191128-2.673706 0.185993-6.495511 0.185993-6.495511s0.134013 0.07621 0.350151 0.09662v0.0062c0.02869 0.0015 0.05095-0.0029 0.07764-0.0035 0.02691 5.85e-4 0.04945 0.0051 0.07845 0.0035v-0.0062c0.216138-0.02042 0.350957-0.09662 0.350957-0.09662s-0.0051 3.821805 0.185993 6.495511c0.03888 0.543894 0.540072 0.569911 1.191165 1.002216 0.317575-0.0027 0.550255-0.283167 0.743969-0.646477 0.07486-0.276816-0.106059-0.603493-0.476303-0.905595-0.227959-1.569834-0.118873-3.783997-0.118873-3.783997l0.416464-1.325453s-0.272842-0.47778-0.267669-0.743976c0.0046-0.23828-0.01586-0.296575 0.09623-0.522628 0.303262 0.0353 0.806236-0.336413 0.806236-0.336413s-0.462167-0.801995-0.528057-1.256941c-0.07308-0.504631 0.163349-1.522207 0.163349-1.522207s0.04417 0.900509 0.131006 1.339507c0.05786 0.29257 0.06735 0.690548 0.32104 0.807217 0.285641 0.131362 0.609327-0.110537 0.773891-0.396142 0.08924-0.15487 0-0.548101 0-0.548101l0.16815-0.13791v-0.502429l0.46339-0.915258-1.13698-4.390071-0.294355-1.555583-0.337212-0.593776-0.252306-0.8239063-0.625905-0.5753294s0.210449-0.4653083 0.173861-0.7053275c-0.062841-0.4122479-0.45411-0.6771497-0.642078-1.0417389-0.195683-0.3795495-0.251139-0.846148-0.501369-1.1857933-0.231187-0.3137905-0.882253-0.7316781-0.882253-0.7316781zm-5.067901 12.803054c0.169659 0.0073 0.355611 0.22946 0.444764 0.531412 0.10339 0.350467 0.0415 0.685357-0.138279 0.748367-0.179943 0.06288-0.409803-0.170285-0.513503-0.520871-0.103758-0.350879-0.04185-0.686404 0.138282-0.749246 0.02182-0.0076 0.04485-0.01076 0.06874-0.0097z" style="opacity:.1"/>
 <path d="m16.041403 3.999994s-0.651068 0.4178876-0.882255 0.7316781c-0.25023 0.3396453-0.306497 0.8062438-0.50218 1.1857933-0.187968 0.3645892-0.579235 0.629491-0.642078 1.0417417-0.0366 0.2400191 0.173862 0.7053273 0.173862 0.7053273l-0.625906 0.5753295-0.252306 0.823906-0.337211 0.5937758-0.294355 1.5555833-1.13698 4.390071 0.455277 0.899447-0.414035 0.116823s-0.163814-0.143183-0.29031-0.129119c-0.118604 0.01318-0.349342 0.08081-0.349342 0.08081s-0.537316 0.20861-0.371988 0.937216c0.170939 0.753327 0.684129 0.760666 0.684129 0.760666s0.321516-0.106203 0.521591-0.19412c0.104995-0.04613 0.163349-0.323239 0.163349-0.323239l0.224809-0.07729c0.0038 0.0096 0.0033 0.02418 0.0081 0.0325 0.164563 0.285605 0.488249 0.527504 0.773892 0.396143 0.253695-0.11667 0.263169-0.514648 0.321038-0.807217 0.08684-0.438999 0.131006-1.339508 0.131006-1.339508s0.236435 1.017576 0.163349 1.522207c-0.06588 0.454946-0.528058 1.256941-0.528058 1.256941s0.502974 0.371712 0.806237 0.336414c0.1121 0.226052 0.0924 0.284348 0.09704 0.522627 0.0052 0.266197-0.26767 0.743976-0.26767 0.743976l0.416462 1.325454s0.109087 2.214163-0.118874 3.783997c-0.370243 0.302102-0.551168 0.628779-0.476302 0.905595 0.193716 0.36331 0.426399 0.643778 0.743973 0.646477 0.651092-0.432305 1.152284-0.458322 1.191161-1.002216 0.191128-2.673706 0.185993-6.495511 0.185993-6.495511s0.134013 0.07621 0.350151 0.09662v0.0062c0.02869 0.0015 0.05095-0.0029 0.07764-0.0035 0.02691 5.85e-4 0.04945 0.0051 0.07845 0.0035v-0.0062c0.216138-0.02042 0.350957-0.09662 0.350957-0.09662s-0.0051 3.821805 0.185993 6.495511c0.03888 0.543894 0.540072 0.569911 1.191165 1.002216 0.317575-0.0027 0.550255-0.283167 0.743969-0.646477 0.07486-0.276816-0.106059-0.603493-0.476303-0.905595-0.227959-1.569834-0.118873-3.783997-0.118873-3.783997l0.416464-1.325453s-0.272842-0.47778-0.267669-0.743976c0.0046-0.23828-0.01586-0.296575 0.09623-0.522628 0.303262 0.0353 0.806236-0.336413 0.806236-0.336413s-0.462167-0.801995-0.528057-1.256941c-0.07308-0.504631 0.163349-1.522207 0.163349-1.522207s0.04417 0.900509 0.131006 1.339507c0.05786 0.29257 0.06735 0.690548 0.32104 0.807217 0.285641 0.131362 0.609327-0.110537 0.773891-0.396142 0.08924-0.15487 0-0.548101 0-0.548101l0.16815-0.13791v-0.502429l0.46339-0.915258-1.13698-4.390071-0.294355-1.555583-0.337212-0.5937759-0.252306-0.8239059-0.625905-0.5753294s0.210449-0.4653083 0.173861-0.7053275c-0.062841-0.4122479-0.45411-0.6771497-0.642078-1.0417389-0.195683-0.3795495-0.251139-0.846148-0.501369-1.1857933-0.231187-0.3137905-0.882253-0.7316781-0.882253-0.7316781zm-5.067901 12.803053c0.169659 0.0073 0.355611 0.22946 0.444764 0.531412 0.10339 0.350467 0.0415 0.685357-0.138279 0.748367-0.179943 0.06288-0.409803-0.170285-0.513503-0.520871-0.103758-0.350879-0.04185-0.686404 0.138282-0.749246 0.02182-0.0076 0.04485-0.01076 0.06874-0.0097z" style="fill:#17191e"/>
 <path d="m15.896484 2.0019531c-0.640783 0.031626-1.232394 0.3550063-1.605468 0.8769531l-2.638672 3.6933594-3.8750002-1.390625c-1.5518359-0.4432905-2.9767139 0.953655-2.609375 2.5 0.2772903-1.0810303 1.405851-1.8437932 2.609375-1.5l3.8750002 1.390625 2.638672-3.6933594c0.373074-0.5219468 0.964685-0.8453271 1.605468-0.8769531 0.714054-0.0354911 1.396771 0.2953052 1.8125 0.8769531l2.638672 3.6933594 3.97461-1.390625c1.203531-0.3437955 2.334046 0.4189592 2.611328 1.5 0.3673-1.5463279-1.059507-2.9432865-2.611328-2.5l-3.97461 1.390625-2.638672-3.6933594c-0.415729-0.5816479-1.098446-0.9124442-1.8125-0.8769531zm-9.6074215 9.8554689-3.4101563 2.433594c-0.7391702 0.528012-1.0091586 1.415081-0.8164062 2.208984 0.1130173-0.465492 0.3830057-0.899393 0.8164062-1.208984l3.6953126-2.638672-0.2851563-0.794922zm19.439454 0.011719-0.302735 0.783203 3.695313 2.638672c0.4334 0.309591 0.703389 0.743492 0.816406 1.208984 0.192752-0.793903-0.077236-1.680972-0.816406-2.208984l-3.392578-2.421875zm-19.451172 9.267578-1.1972657 3.185547c-0.1087318 0.380652-0.1013689 0.753797-0.0136719 1.095703 0.0076585-0.032242 0.0044293-0.063347 0.0136719-0.095703l1.4941407-3.97461-0.296875-0.210937zm19.445312 0-0.296875 0.210937 1.494141 3.97461c0.009242 0.032356 0.006013 0.063461 0.013672 0.095703 0.087697-0.341906 0.09506-0.715051-0.013672-1.095703l-1.197266-3.185547z" style="fill:#8b9cbe;opacity:.2"/>
</svg>
