<svg width="32" height="32" version="1.1" xmlns="http://www.w3.org/2000/svg">
 <rect x="9" y="7" width="21" height="20" style="opacity:.2"/>
 <rect x="9" y="6" width="21" height="20" style="fill:#d6000a"/>
 <rect x="9" y="6" width="7" height="20" style="fill:#a20109"/>
 <path d="m9 7v7h7v-7zm0 7h-7v7h7z" style="opacity:.2"/>
 <path d="m9 6v7h7v-7h-7zm0 7h-7v7h7v-7z" style="fill:#ffb221"/>
 <path d="m2 13v1h7v-1z" style="fill:#8b9cbe;opacity:.2"/>
 <rect x="9" y="6" width="21" height="1" style="fill:#8b9cbe;opacity:.2"/>
</svg>
