<svg xmlns="http://www.w3.org/2000/svg" width="32" height="32" version="1.1">
 <path style="opacity:0.2" d="M 3.1002831,4.929282 2.9927987,7.9447639 4.1771222,8.3806987 2.9563498,8.9271814 4.1062199,9.5015989 2.9401207,10.267845 l 1.1731494,0.13396 -1.0760514,0.867481 0.017959,0.49766 c -1.3255339,1.179539 -1.7967021,2.655833 -2.0036774,4.277939 -0.63107157,5.061326 4.6107337,10.267119 11.7079487,11.627512 7.097241,1.360354 13.362308,-1.639864 13.993453,-6.701191 0.02761,-0.227371 0.04337,-0.456916 0.04722,-0.688158 1.509901,-1.849797 3.067078,-2.966742 4.199875,-5.042804 -2.243619,-0.255938 -4.20582,-0.230527 -6.099472,-0.136488 1.055277,-0.951933 2.316995,-2.696697 3.372272,-4.03811 -1.470149,0.742759 -2.880899,1.117802 -3.767623,1.422982 0.972017,-1.197704 1.857785,-2.270734 2.404023,-3.4684371 L 22.901957,11.11617 24.182,8.3383728 C 22.185853,9.6381186 20.8252,10.175234 19.414834,10.772024 18.040675,10.12186 16.561221,9.6382877 15.044956,9.3436939 13.026453,8.9570962 10.789486,8.9150321 8.9080325,9.2209087 6.154079,6.4765929 4.7843289,5.9058795 3.1002831,4.929282 Z"/>
 <path style="fill:#17191e" d="M 3.1002831,3.9292824 2.9927987,6.9447643 4.1771222,7.3806991 2.9563498,7.9271818 4.1062199,8.5015993 2.9401207,9.2678449 4.1132701,9.4018051 3.0372187,10.269286 l 0.017959,0.49766 c -1.3255339,1.179539 -1.7967021,2.655833 -2.0036774,4.277939 -0.63107157,5.061326 4.6107337,10.267119 11.7079487,11.627512 7.097241,1.360354 13.362308,-1.639864 13.993453,-6.701191 0.02761,-0.227371 0.04337,-0.456916 0.04722,-0.688158 1.509901,-1.849797 3.067078,-2.966742 4.199875,-5.042804 -2.243619,-0.255938 -4.20582,-0.230527 -6.099472,-0.136488 1.055277,-0.951933 2.316995,-2.696697 3.372272,-4.03811 -1.470149,0.742759 -2.880899,1.117802 -3.767623,1.422982 0.972017,-1.197704 1.857785,-2.2707338 2.404023,-3.4684367 L 22.901957,10.11617 24.182,7.3383732 C 22.185853,8.638119 20.8252,9.1752342 19.414834,9.7720242 18.040675,9.1218602 16.561221,8.6382881 15.044956,8.3436943 13.026453,7.9570966 10.789486,7.9150325 8.9080325,8.2209091 6.154079,5.4765933 4.7843289,4.9058799 3.1002831,3.9292824 Z"/>
 <path style="opacity:0.2" d="m 14.675781,9.9802871 a 0.34094315,0.34094315 0 0 0 -0.314453,0.2949219 l -0.253906,1.669921 a 0.34168516,0.34168516 0 0 0 0.675781,0.101563 l 0.251953,-1.669922 A 0.34094315,0.34094315 0 0 0 14.675781,9.9802871 Z m 1.605469,1.7968749 a 0.34094315,0.34094315 0 0 0 -0.283203,0.144531 l -1.103516,1.513672 a 0.34104267,0.34104267 0 1 0 0.550781,0.402344 l 1.103516,-1.513672 A 0.34094315,0.34094315 0 0 0 16.28125,11.777162 Z m -3.660156,0.316406 a 0.34094315,0.34094315 0 0 0 -0.279297,0.494141 l 0.851562,1.734375 a 0.34094315,0.34094315 0 1 0 0.611329,-0.300782 l -0.851563,-1.734375 a 0.34094315,0.34094315 0 0 0 -0.332031,-0.193359 z m -5.7636721,8.673828 a 0.34094315,0.34094315 0 0 0 -0.060547,0.673828 l 3.0898438,0.75586 a 0.34094315,0.34094315 0 1 0 0.1621092,-0.66211 L 6.9589844,20.779115 a 0.34094315,0.34094315 0 0 0 -0.1015625,-0.01172 z m 4.7597661,0.0957 a 0.34094315,0.34094315 0 0 0 -0.314454,0.400391 c 0.121534,0.68025 0.231189,0.959692 0.345704,1.414062 -0.476023,0.626177 -0.939242,1.338307 -1.441407,1.808594 a 0.34130274,0.34130274 0 0 0 0.466797,0.498047 c 0.410086,-0.384053 0.781138,-0.997525 1.175781,-1.476563 0.252638,0.807632 0.494255,1.368708 0.716797,1.794922 a 0.34094315,0.34094315 0 1 0 0.603516,-0.314453 c -0.23052,-0.441493 -0.470994,-1.514718 -0.701172,-2.257812 0.236544,-0.333162 0.497381,-0.526411 0.724609,-0.910157 A 0.34094315,0.34094315 0 0 0 13.013672,21.324037 L 11.751953,20.88263 a 0.34094315,0.34094315 0 0 0 -0.134765,-0.01953 z m 0.544921,0.884766 0.175782,0.0625 c -0.03575,0.05623 -0.07538,0.08572 -0.111329,0.140625 -0.02219,-0.09612 -0.04176,-0.09773 -0.06445,-0.203125 z m 2.00586,0.763672 a 0.34094315,0.34094315 0 0 0 -0.04102,0.677734 l 4.035156,0.648438 a 0.34132404,0.34132404 0 0 0 0.109375,-0.673829 l -4.037109,-0.646484 a 0.34094315,0.34094315 0 0 0 -0.06641,-0.0059 z m -7.3515628,0.417969 a 0.34105637,0.34105637 0 0 0 0.025391,0.68164 l 2.7441406,0.03125 a 0.34094315,0.34094315 0 1 0 0.00781,-0.68164 l -2.7441406,-0.03125 a 0.34094315,0.34094315 0 0 0 -0.033203,0 z m 7.1269528,0.77539 A 0.34094315,0.34094315 0 0 0 13.8125,24.355287 l 2.533203,1.226562 a 0.34094315,0.34094315 0 1 0 0.296875,-0.613281 l -2.533203,-1.226562 a 0.34094315,0.34094315 0 0 0 -0.166016,-0.03711 z"/>
 <path style="opacity:0.2" d="M 6.8886719,12.006814 C 3.4589599,11.850268 2,14.762674 2,14.762674 c 0,0 0.1932,3.823194 4.7050781,5.003906 C 11.216956,20.947292 13,17.264627 13,17.264627 c 0,0 0.05558,-3.663588 -4.5195312,-4.984375 C 7.9085791,12.115153 7.3786307,12.029178 6.8886719,12.006814 Z m 12.4453121,3 C 15.592481,14.850269 14,17.762674 14,17.762674 c 0,0 0.210764,3.823195 5.132812,5.003906 C 24.05486,23.947292 26,20.264627 26,20.264627 c 0,0 0.06135,-3.663587 -4.929688,-4.984375 -0.623879,-0.165098 -1.201827,-0.251074 -1.736328,-0.273438 z"/>
 <path style="fill:#ffd357" d="m 14,16.76266 c 0,0 2.07882,-3.804885 7.069856,-2.484098 4.991036,1.320788 4.930095,4.986059 4.930095,4.986059 0,0 -1.944591,3.682671 -6.866639,2.501959 C 14.211264,20.585869 14,16.76266 14,16.76266 Z"/>
 <path style="fill:#9f3820" d="m 22.94872,14.998579 a 4.4999945,4.3636367 0 0 0 -2.948728,4.092329 4.4999945,4.3636367 0 0 0 1.142578,2.897729 c 3.444234,-0.07312 4.857416,-2.724432 4.857416,-2.724432 0,0 0.03234,-2.661757 -3.051266,-4.265626 z"/>
 <path style="fill:none;stroke:#a3cbcb;stroke-width:0.68181813;stroke-linecap:round" d="M 9.9676256,20.86637 6.8774171,20.109585"/>
 <path style="fill:none;stroke:#a3cbcb;stroke-width:0.68181813;stroke-linecap:round" d="M 9.5892329,22.302001 6.8458844,22.270468"/>
 <path style="fill:none;stroke:#a3cbcb;stroke-width:0.68181813;stroke-linecap:round" d="m 14.181096,21.85348 4.035752,0.647041"/>
 <path style="fill:none;stroke:#a3cbcb;stroke-width:0.68181813;stroke-linecap:round" d="m 13.960257,23.048394 2.533141,1.226635"/>
 <path style="fill:none;stroke:#a3cbcb;stroke-width:0.68181813;stroke-linecap:round;stroke-linejoin:round" d="m 12.868638,24.145776 c -0.384847,-0.737062 -0.763505,-1.331764 -1.229777,-3.941593 l 1.261309,0.441458 c -0.773745,1.306704 -1.601893,2.286993 -2.459554,3.090208"/>
 <path style="fill:none;stroke:#356373;stroke-width:0.68181813;stroke-linecap:round" d="M 13.499293,13.172382 12.647909,11.43808"/>
 <path style="fill:none;stroke:#356373;stroke-width:0.68181813;stroke-linecap:round" d="M 14.445275,10.996622 14.697537,9.325387"/>
 <path style="fill:none;stroke:#356373;stroke-width:0.68181813;stroke-linecap:round" d="m 15.170528,12.636325 1.103646,-1.513572"/>
 <path style="fill:#ffd357" d="m 2,13.76266 c 0,0 1.9055855,-3.8048855 6.4807025,-2.484097 4.5751155,1.320787 4.5192525,4.986057 4.5192525,4.986057 0,0 -1.782541,3.682672 -6.2944185,2.50196 C 2.1936584,17.585868 2,13.76266 2,13.76266 Z"/>
 <path style="fill:#9f3820" d="m 10.202994,11.99858 a 4.1249953,4.3636364 0 0 0 -2.7030002,4.09233 4.1249953,4.3636364 0 0 0 1.0473624,2.897727 c 3.1572158,-0.07312 4.4526318,-2.724432 4.4526318,-2.724432 0,0 0.02964,-2.661756 -2.796994,-4.265625 z"/>
 <path style="opacity:0.2;fill:#8b9cbe" d="M 6.8886719 11.005859 C 3.4589599 10.849313 2 13.761719 2 13.761719 C 2 13.761719 2.0272456 14.073578 2.1464844 14.527344 C 2.4839462 13.956609 3.9047016 11.869659 6.8886719 12.005859 C 7.3786307 12.028223 7.908579 12.114198 8.4804688 12.279297 C 11.715122 13.213108 12.619468 15.299864 12.880859 16.453125 C 12.907279 16.405033 13 16.263672 13 16.263672 C 13 16.263672 13.055584 12.600084 8.4804688 11.279297 C 7.908579 11.114198 7.3786307 11.028223 6.8886719 11.005859 z M 19.333984 14.005859 C 15.592481 13.849314 14 16.761719 14 16.761719 C 14 16.761719 14.028167 17.07367 14.158203 17.527344 C 14.525589 16.95776 16.07734 14.869601 19.333984 15.005859 C 19.868485 15.028223 20.446434 15.114199 21.070312 15.279297 C 24.599213 16.213157 25.586209 18.299903 25.871094 19.453125 C 25.899792 19.405226 26 19.263672 26 19.263672 C 26 19.263672 26.06135 15.600085 21.070312 14.279297 C 20.446433 14.114199 19.868485 14.028223 19.333984 14.005859 z"/>
 <path style="opacity:0.1;fill:#8b9cbe" d="M 3.0996094 3.9296875 L 2.9921875 6.9453125 L 3.0273438 6.9589844 L 3.0996094 4.9296875 C 4.7836552 5.906285 6.1542496 6.4763873 8.9082031 9.2207031 C 10.789657 8.9148265 13.026419 8.9571523 15.044922 9.34375 C 16.561187 9.6383438 18.039904 10.12132 19.414062 10.771484 C 20.661716 10.243546 21.89681 9.7323262 23.541016 8.7285156 L 24.181641 7.3378906 C 22.185494 8.6376364 20.824429 9.1746944 19.414062 9.7714844 C 18.039904 9.1213204 16.561187 8.6383438 15.044922 8.34375 C 13.026419 7.9571523 10.789657 7.9148265 8.9082031 8.2207031 C 6.1542496 5.4763873 4.7836552 4.906285 3.0996094 3.9296875 z M 2.9941406 7.9121094 L 2.9570312 7.9277344 L 2.9921875 7.9453125 L 2.9941406 7.9121094 z M 2.9921875 7.9453125 L 4.0117188 8.4550781 L 4.1777344 8.3808594 L 2.9921875 7.9453125 z M 26.910156 8.0195312 L 23.509766 9.7988281 L 22.902344 11.115234 L 26.0625 9.4628906 C 26.387908 8.9911134 26.683539 8.5164201 26.910156 8.0195312 z M 3.2402344 9.0703125 L 2.9394531 9.2675781 L 3.84375 9.3710938 L 3.2402344 9.0703125 z M 4.0332031 9.4667969 L 3.4804688 9.9121094 L 4.1054688 9.5019531 L 4.0332031 9.4667969 z M 28.273438 10.066406 C 27.270875 10.572928 26.364417 10.881655 25.564453 11.140625 C 25.22762 11.58306 24.883611 12.022822 24.505859 12.488281 C 25.14624 12.267884 26.064181 12.007024 27.076172 11.601562 C 27.484014 11.077632 27.899117 10.542223 28.273438 10.066406 z M 3.0371094 10.279297 L 3.0546875 10.767578 C 1.7291536 11.947117 1.2577566 13.422816 1.0507812 15.044922 C 0.99556522 15.487766 1.0011906 15.930663 1.0332031 16.373047 C 1.0413956 16.263591 1.0371455 16.154283 1.0507812 16.044922 C 1.2577566 14.422816 1.7291536 12.947117 3.0546875 11.767578 L 3.0371094 11.269531 L 4.1132812 10.402344 L 3.0371094 10.279297 z M 27.818359 14.041016 C 27.15636 14.031894 26.518504 14.045307 25.886719 14.066406 C 25.547698 14.457663 25.213808 14.820791 24.900391 15.103516 C 26.621308 15.018055 28.410383 14.999946 30.404297 15.1875 C 30.611624 14.890233 30.813561 14.581919 31 14.240234 C 29.878191 14.112265 28.826069 14.0549 27.818359 14.041016 z"/>
</svg>
