<svg xmlns="http://www.w3.org/2000/svg" width="32" height="32" version="1.1">
 <rect style="opacity:0.2" width="28" height="28" x="2" y="3" rx="1.4" ry="1.4"/>
 <rect style="fill:#7767c0" width="28" height="28" x="2" y="2" rx="1.4" ry="1.4"/>
 <path style="opacity:0.2" d="M 18.834,5.3075 17.344,7.5635 A 6.5,6.5 0 0 0 16.5,7.5 6.5,6.5 0 0 0 14.009,7.998 L 11.99,6.208 12.533,8.8613 A 6.5,6.5 0 0 0 11.119,10.376 22,22 0 0 0 3.5,9 22,22 0 0 0 2,9.0752 V 10.112 A 21.5,21.5 0 0 1 4,10 21.5,21.5 0 0 1 25.431,30 H 25.438 A 22,22 0 0 0 21.4,18.245 6.5,6.5 0 0 0 22.486,16.517 L 25.212,16.353 22.935,14.851 A 6.5,6.5 0 0 0 23,14 6.5,6.5 0 0 0 22.512,11.537 L 24.312,9.5098 21.654,10.054 A 6.5,6.5 0 0 0 18.996,8.0039 Z M 16.5,8.5 A 5.5,5.5 0 0 1 22,14 5.5,5.5 0 0 1 20.775,17.446 22,22 0 0 0 12.057,10.771 5.5,5.5 0 0 1 16.5,8.5 Z"/>
 <path style="fill:#8b9cbe" d="M 18.834,4.8076 17.344,7.0635 A 6.5,6.5 0 0 0 16.5,7 6.5,6.5 0 0 0 14.009,7.498 L 11.99,5.708 12.533,8.3615 A 6.5,6.5 0 0 0 11.119,9.876 22,22 0 0 0 3.5,8.5 22,22 0 0 0 2,8.575 V 9.6125 A 21.5,21.5 0 0 1 4,9.5 21.5,21.5 0 0 1 25.46,30 H 25.474 A 22,22 0 0 0 21.4,17.745 6.5,6.5 0 0 0 22.486,16.017 L 25.212,15.854 22.935,14.351 A 6.5,6.5 0 0 0 23,13.5 6.5,6.5 0 0 0 22.512,11.037 L 24.311,9.01 21.654,9.5535 A 6.5,6.5 0 0 0 18.996,7.504 Z M 16.5,8 A 5.5,5.5 0 0 1 22,13.5 5.5,5.5 0 0 1 20.775,16.946 22,22 0 0 0 12.057,10.271 5.5,5.5 0 0 1 16.5,8 Z"/>
 <path style="fill:#8b9cbe;opacity:0.1" d="M 3.4004 2 C 2.6248 2 2 2.6248 2 3.4004 L 2 4.4004 C 2 3.6248 2.6248 3 3.4004 3 L 28.6 3 C 29.375 3 30 3.6248 30 4.4004 L 30 3.4004 C 30 2.6248 29.375 2 28.6 2 L 3.4004 2 z"/>
</svg>
