<svg xmlns="http://www.w3.org/2000/svg" xmlns:xlink="http://www.w3.org/1999/xlink" width="32" height="32" version="1.1">
 <defs>
  <linearGradient id="linearGradient905">
   <stop style="stop-color:#bc967a" offset="0"/>
   <stop style="stop-color:#ac7f5c" offset="1"/>
  </linearGradient>
  <linearGradient id="linearGradient891" x1="31.481" x2="29.742" y1="17.359" y2="16.444" gradientTransform="matrix(0.7179207,0,0,0.70938235,-1.249967,-0.88802709)" gradientUnits="userSpaceOnUse" xlink:href="#linearGradient905"/>
  <linearGradient id="linearGradient899" x1="22.864" x2="24.858" y1="14.263" y2="15.577" gradientTransform="matrix(0.7179207,0,0,0.70938235,-1.249967,-0.88802709)" gradientUnits="userSpaceOnUse" xlink:href="#linearGradient905"/>
 </defs>
 <rect style="opacity:0.2" width="28" height="28" x="2" y="3" rx="2.1" ry="2.1"/>
 <rect style="fill:#e4d811" width="28" height="28" x="2" y="2" rx="2.1" ry="2.1"/>
 <path style="opacity:0.1" d="M 11.410156,3 10.636719,7.7910156 C 10.30431,7.8648966 10.031702,8.3036025 9.8339844,8.6757812 9.7893034,8.7598902 9.7286469,9.0236171 9.6796875,9.2050781 h -0.00781 l -0.00195,0.03125 c -0.00693,0.02478 -0.015359,0.065237 -0.021484,0.083984 0.00546,-9.1e-4 0.015835,0.00272 0.021484,0.00195 v 0.00977 c -0.034555,0.00553 -0.092049,-0.00462 -0.1171875,0.00586 -0.3250079,0.1355123 -0.650205,0.477485 -1.0195313,0.8789064 0,0 -0.4202082,0.07471 -0.5625,0.216797 -0.088708,0.08858 -0.1347656,0.351562 -0.1347656,0.351562 -0.2164813,0.113683 -0.3373315,0.09088 -0.3515625,0.4375 L 7.3710938,11.53125 7.2675781,12.248047 c -0.2902522,0.525627 -0.4594727,1.132762 -0.2695312,1.978515 l -1.5253907,4.873047 c -0.4690383,0.04222 -1.0943542,4.5198 0.9375,5.207032 0,0 0.3666175,0.385684 1.6425782,-0.373047 0.6601581,-0.708799 1.6599812,-1.350598 2.5097656,-2.294922 0.454081,-0.939037 0.405937,-0.168817 0.669922,0.353516 -0.225936,-0.437109 0.02499,0.541369 -0.222656,1.039062 -0.128565,1.146656 -0.276833,2.085663 -0.4375,3.205078 -0.301256,0.588139 -0.116013,0.739964 0.105468,0.476563 0.0275,0.431649 -0.346115,0.295899 -0.18164,0.648437 0.02414,0.906763 -1.1477911,2.266503 -0.101563,2.859375 0.409393,0.156099 0.196714,0.436777 0.06055,0.779297 0,0 1.676623,-5.5e-5 2.175781,0 h 8.822266 0.708984 0.517579 c -0.06056,-0.297677 -0.133296,-0.757075 -0.19336,-1.107422 0.563129,-1.06788 0.427736,-2.075222 0.177734,-3.228516 0.746212,0.153977 0.608515,1.245844 0.550782,2.013672 -0.304834,0.63169 -0.465187,1.315909 -0.523438,1.988282 0.116092,-0.441861 0.867969,-1.107293 1.347656,-0.517578 0.0352,0.241362 -0.171808,0.40471 -0.287109,0.636718 C 23.639817,30.999112 23.833984,31 23.833984,31 h 2.509766 c 0.836212,0 0.362805,-0.75112 1.027344,-1.28125 0.245803,-0.740717 0.254148,-1.611464 0.318359,-2.421875 0.104254,-0.848554 -0.56522,-0.489179 -0.04492,-0.935547 -0.637961,-0.08393 0.451938,-0.148775 -0.1875,-0.763672 0.889038,-0.482663 -0.312492,-0.819837 0.328125,-1.199218 -0.287076,-1.240564 -0.23602,-0.712465 -0.355468,-2.09375 0.457166,-0.296511 0.799532,-0.948559 0.43164,-1.623047 -0.587283,0.03645 -0.449082,-1.002262 -0.630859,-0.542969 -0.110374,-0.04031 -0.09063,-0.258537 -0.0059,-0.515625 0.01485,-0.0049 0.02294,-0.01394 0.03711,-0.01953 0.0072,0.06696 0.02661,0.184561 0.06641,0.287109 l 0.05078,0.07422 c -0.08129,-0.334983 -0.104943,-0.376384 -0.113281,-0.363282 0.748137,-0.29887 0.558267,-1.526036 -0.04102,-1.779296 -0.245589,-0.05977 -0.385747,-0.271134 -0.515625,-0.523438 -0.01375,-0.01445 -0.02208,-0.03359 -0.03711,-0.07422 -0.02132,-0.04346 -0.04672,-0.08687 -0.06836,-0.132812 -0.312985,-0.40528 -0.320482,-0.513659 -0.113282,-0.226563 -0.245868,-0.494293 -0.602397,-1.035036 -1.529296,-1.267578 -0.02089,-0.127089 0.715401,0.372549 -0.01172,-0.109375 0.04334,0.02904 -0.09034,-0.04945 -0.134766,-0.07226 0.0043,7e-4 0.0091,0.0031 0,0.01758 -0.101494,0.05807 -0.03069,-0.0053 -0.002,-0.01758 -0.161598,-0.08359 -0.61741,-0.345997 -0.792969,-0.519532 -0.23935,-0.263791 -0.0967,0.0361 -0.261719,-0.570312 0.110625,-1.033804 0.208288,-2.321095 -0.84375,-2.91211 -0.316123,-0.05913 -0.669921,-0.390624 -0.669921,-0.390624 -0.131757,-0.07281 -0.269137,-0.127315 -0.402344,-0.195313 0.02715,-0.263799 0.07507,-0.533973 0.138672,-0.859375 0.07949,-0.4066979 -0.125007,-0.418355 -0.0293,-1.6777344 0.01047,-0.1377167 -0.0099,-0.2727676 -0.02344,-0.4082031 0.0029,-0.010192 0.0069,-0.01709 0.0098,-0.027344 -0.0027,-0.023923 -0.01225,-0.046493 -0.01563,-0.070313 -0.01693,-0.1196995 -0.04789,-0.2351233 -0.08203,-0.3515624 -0.02233,-0.076399 -0.04303,-0.1519541 -0.07227,-0.2265626 -0.04375,-0.1113845 -0.09615,-0.2176884 -0.154297,-0.3242187 -0.0413,-0.075967 -0.08476,-0.1495999 -0.132812,-0.2226563 -0.06386,-0.096795 -0.130267,-0.1903323 -0.205078,-0.28125 C 21.211894,6.301422 21.142985,6.2288935 21.072266,6.15625 20.995294,6.0774386 20.918668,6.0001813 20.833984,5.9277344 20.75311,5.8582763 20.667279,5.7954298 20.580078,5.7324219 20.492457,5.6693057 20.407685,5.6048552 20.314453,5.5488281 20.197424,5.4782604 20.073828,5.4195938 19.949219,5.3613281 19.877393,5.3278178 19.808316,5.2908411 19.734375,5.2617188 19.589378,5.2044693 19.438713,5.1640046 19.287109,5.125 19.218664,5.1074322 19.153446,5.0819596 19.083984,5.0683594 18.864017,5.0251425 18.640316,5 18.414062,5 16.52879,4.9999999 15,6.3841824 15,8.0917969 c 0,0.2394567 0.03305,0.5711189 0.08398,0.9335937 0.01744,0.1296791 0.0299,0.2421938 0.05469,0.3828125 0.0018,0.00978 0.004,0.019474 0.0059,0.029297 0.0149,0.083153 0.03122,0.1677552 0.04883,0.2539062 -0.0094,0.016779 -0.02014,0.02035 -0.0293,0.039063 -0.01781,0.094278 -0.02982,0.1889246 -0.04297,0.2832032 -1.468855,0.320854 -2.292461,1.341189 -2.908203,2.30664 -0.0815,0.288582 -0.145366,0.478402 -0.210938,0.617188 -0.501544,0.244967 -0.604716,0.0872 -0.888672,0.511719 -0.107175,0.173383 -0.327005,0.354524 -0.533203,0.203125 -0.368781,-0.197815 -0.8519043,0.69708 -1.064453,1.02539 0.2437659,0.165744 0.2940765,0.43167 0.1679688,0.669922 -0.3071705,0.04294 -0.3438562,0.06056 -0.4277344,-0.07226 l -0.2988282,-0.0078 -0.00391,0.08203 0.00977,-0.535156 L 9.25,13.970703 c 0.7197652,-0.414588 0.864359,-0.608454 0.996094,-0.796875 0.448396,-0.334437 0.761686,-0.93876 1.126953,-1.439453 -0.03917,-0.166467 -0.03644,-0.36888 -0.164063,-0.46875 -0.133408,-0.104396 -0.229832,-0.241931 -0.363281,-0.318359 -0.0083,-0.0048 -0.01692,-4.39e-4 -0.02539,-0.0039 0.0087,0.0036 0.01682,-0.003 0.02539,0.002 0.03267,0.01871 0.06061,0.04949 0.08984,0.07422 h 0.246094 c -0.06167,-0.526765 0.101788,-0.842065 0.558593,-0.880859 L 12.810547,3 Z m -0.939453,6.4824219 c 0,0 0.002,0 0.002,0 0.02707,0.014761 0.04275,0.037387 0.05469,0.064453 -0.01193,-0.027045 -0.02957,-0.049692 -0.05664,-0.064453 z M 9.9492188,9.890625 c 0.00664,0.00202 0.00935,0.012718 0.015625,0.015625 -0.01593,-0.00646 -0.033122,-0.011876 -0.050781,-0.013672 0.011486,0.00117 0.024395,-0.00522 0.035156,-0.00195 z m -0.2988282,0.1074219 -0.00195,0.017578 c -8.624e-4,-0.0013 -0.01116,-0.0086 -0.011719,-0.0098 -7.063e-4,-0.0014 0.01329,-0.00589 0.013672,-0.00781 z m 1.1523434,0.00391 c 0.09789,0.139545 0.148825,0.286402 0.158204,0.384766 0.0047,0.04918 1.6e-4,0.08518 -0.01563,0.103515 0,0 -0.002,0 -0.002,0 0.01579,-0.01834 0.02224,-0.05431 0.01758,-0.103515 -0.0093,-0.09841 -0.06036,-0.245175 -0.158204,-0.384766 z M 9.6875,10.046875 h 0.013672 c 0.00105,0.0046 0.00293,0.0088 0.00391,0.01367 -0.00318,-0.0031 -0.014959,-0.01095 -0.017578,-0.01367 z m 0.347656,0.277344 c 0.176163,0.131374 0.378787,0.277299 0.392578,0.310547 0,0 0,0.002 0,0.002 0.03936,0.09512 0.06408,0.175879 0.07617,0.24414 -0.01288,-0.06934 -0.03647,-0.148434 -0.07617,-0.24414 -0.01391,-0.03353 -0.202656,-0.172613 -0.392578,-0.3125 z m 0.619141,0.607422 c 0.0043,-0.0014 0.0093,0.0012 0.01367,0 -0.01845,0.0049 -0.03366,0.01399 -0.05078,0.02148 0.01392,-0.0066 0.02213,-0.01658 0.03711,-0.02148 z m -0.150391,0.01758 c -4.48e-4,0.02234 0.0063,0.05232 0,0.06836 0.0052,-0.0044 0.01557,-0.009 0.02149,-0.01367 -0.03593,0.0322 -0.0838,0.07676 -0.05078,0.05664 0.02798,-0.01705 0.02878,-0.06459 0.0293,-0.111328 z"/>
 <ellipse style="fill:#876044" cx="17.893" cy="12.901" rx="4.352" ry="2.877"/>
 <path style="fill:#ac7f5c" d="M 7.2672519,11.247531 7.3706937,10.532023 7.4838361,10.223359 C 7.4980671,9.8767361 7.618857,9.8985033 7.8353383,9.7848205 c 0,0 0.047446,-0.2619904 0.1361542,-0.3505705 C 8.1137843,9.2921605 8.5341441,9.216648 8.5341441,9.216648 8.9034704,8.8152267 9.2280688,8.4740495 9.5530767,8.3385372 c 0.1750805,-0.073 0.6052683,-0.026103 0.9182443,0.1445437 0.108298,0.059045 0.05795,0.2465358 0.14902,0.3210655 0.290919,0.2380819 0.386879,0.6132189 0.323736,0.6865761 -0.1503,0.1746115 -0.771556,-0.1022973 -0.896208,-0.4944982 -0.076251,-0.2399117 -0.4301606,-0.027419 -0.4120096,0.00914 0.037366,0.075263 0.7644616,0.5636533 0.7922776,0.6307091 0.08957,0.2159171 0.121901,0.3791676 0.04729,0.4246336 -0.09479,0.05776 0.166485,-0.2311837 0.370914,-0.1141024 0.133449,0.076428 0.228854,0.2148714 0.362262,0.3192674 0.127624,0.09987 0.124689,0.302039 0.163863,0.468506 -0.365267,0.500693 -0.678452,1.105549 -1.126848,1.439986 -0.131735,0.188421 -0.2757731,0.381575 -0.9955383,0.796163 L 8.962792,13.813673 8.902284,17.250321 8.7765206,18.944813 C 7.9916854,19.508302 4.3052952,19.795401 5.4732696,18.099924 L 6.998447,13.225708 C 6.8085055,12.379954 6.976999,11.773159 7.2672512,11.247532 Z"/>
 <path style="fill:#413c2d" d="m 8.1295182,11.068011 c 0.070854,-0.100804 0.119595,-0.207135 0.3815665,-0.260159 0.1987041,0.07383 0.410585,0.200372 0.5625249,0.08715 0.278005,0.686691 0.5634223,0.544756 0.5634223,0.544756 0.196574,-0.1303 0.1010828,-0.218075 0.1010828,-0.218075 0,0 0.1716295,0.210646 0.3560563,0.05218 0.106469,-0.09148 0.01651,-0.497114 0.01651,-0.497114 0,0 0.208393,0.04635 0.268241,0.02324 0.115849,-0.04474 0.205372,-0.209828 0.214623,-0.170848 0.0834,0.351423 -0.9217569,1.563331 -1.7615399,2.320425 0,0 -0.1202285,0.0807 -0.2455243,0.06073 C 8.444794,12.937236 8.393911,12.910986 8.2236115,12.821754 7.9892039,12.702442 8.1299415,12.511507 8.0751877,12.308041 Z"/>
 <path style="fill:#35363c" d="m 14.938309,11.858713 -3.283985,18.141211 h 9.798633 l -0.06563,-16.649609 c -2.032033,1.823504 -5.678104,2.693887 -6.449023,-1.491602 z"/>
 <path style="fill:#494640" d="m 17.153153,8.6936738 c -0.617498,0.024962 -1.255285,0.1181635 -1.916797,0.2898434 -1.5449,0.2898413 -2.391847,1.3449978 -3.024219,2.3365238 -0.0815,0.288581 -0.144975,0.477815 -0.210547,0.616601 -0.501544,0.244967 -0.604716,0.08818 -0.888672,0.512696 -0.107175,0.173383 -0.327005,0.35511 -0.533203,0.203711 -0.368781,-0.197815 -0.8511231,0.697081 -1.0636718,1.025391 0.2437659,0.165744 0.2929045,0.431669 0.1667967,0.669921 -0.3071705,0.04294 -0.3426843,0.059 -0.4265625,-0.07383 l -0.2996119,-0.007 -0.159593,3.656114 c -0.043232,0.703325 -0.4376442,1.487678 -2.2382563,1.429994 -0.8403886,-0.02695 -1.4814839,-0.476467 -1.0855466,-1.25371 -0.4690384,0.04222 -1.0953308,4.519018 0.9365235,5.20625 0,0 0.3673986,0.386856 1.6433593,-0.371875 0.6601581,-0.708799 1.6590042,-1.351184 2.5087886,-2.295508 0.454081,-0.939037 0.405938,-0.168231 0.669923,0.354101 -0.225936,-0.437109 0.02479,0.540003 -0.222852,1.037696 -0.128565,1.146656 -0.276833,2.086639 -0.4375,3.206054 -0.301256,0.588139 -0.116207,0.74055 0.105274,0.477149 0.0275,0.431649 -0.344945,0.295509 -0.18047,0.648047 0.02414,0.906763 -1.1487663,2.265917 -0.102538,2.858789 0.409393,0.156099 0.197687,0.436777 0.06152,0.779297 0,0 1.676037,-5.5e-5 2.175195,0 l 3.070703,-12.94043 -1.05957,-1.386328 0.269261,-3.291206 c 0.133637,-1.633446 4.81565,-0.484681 6.492742,-0.06026 -0.292447,1.375663 -1.193559,2.283246 -2.444425,2.656937 -0.211397,0.06315 -0.433943,0.09485 -0.658985,0.110742 -1.164005,4.454496 -1.718475,9.249942 -0.72871,14.910548 1.669507,8e-6 2.540524,3.39e-4 3.755664,0 h 0.835352 0.516796 c -0.06056,-0.297677 -0.132709,-0.757075 -0.192773,-1.107422 0.563129,-1.06788 0.427736,-2.074636 0.177734,-3.22793 0.746212,0.153976 0.607343,1.244672 0.54961,2.0125 -0.304834,0.63169 -0.464014,1.316885 -0.522265,1.989258 0.116092,-0.441861 0.866992,-1.107878 1.346679,-0.518164 0.0352,0.241363 -0.171809,0.405101 -0.28711,0.637109 -0.112136,0.213956 0.0834,0.214649 0.0834,0.214649 h 2.508789 c 0.836212,0 0.363586,-0.750925 1.028125,-1.281055 0.245803,-0.740717 0.254343,-1.610878 0.318554,-2.421289 0.104254,-0.848554 -0.566788,-0.490155 -0.04649,-0.936523 -0.637961,-0.08393 0.452134,-0.147994 -0.187304,-0.762891 0.889038,-0.482663 -0.312492,-0.819643 0.328125,-1.199024 -0.287076,-1.240563 -0.236021,-0.713245 -0.355469,-2.094531 0.457166,-0.296511 0.799923,-0.948363 0.432031,-1.622851 -0.587283,0.03645 -0.448496,-1.002067 -0.630273,-0.542774 -0.110374,-0.04031 -0.09167,-0.258341 -0.0069,-0.515429 0.01485,-0.0049 0.02411,-0.01492 0.03828,-0.02051 0.0072,0.06696 0.02719,0.184561 0.06699,0.287109 l 0.05059,0.07519 c -0.08129,-0.334983 -0.106506,-0.376773 -0.114844,-0.363671 0.748137,-0.298871 0.559633,-1.525452 -0.03965,-1.778712 -0.245589,-0.05977 -0.385551,-0.271329 -0.515429,-0.523633 -0.01375,-0.01445 -0.02325,-0.0332 -0.03828,-0.07383 -0.02132,-0.04346 -0.04535,-0.08804 -0.06699,-0.133985 -0.312985,-0.40528 -0.320677,-0.514049 -0.113477,-0.226953 -0.245868,-0.494293 -0.602984,-1.033473 -1.529883,-1.266015 -0.02089,-0.127089 0.71618,0.372549 -0.01094,-0.109375 0.04334,0.02904 -0.09093,-0.04964 -0.135351,-0.07246 0.0043,7e-4 0.0091,0.0019 0,0.01641 -0.101494,0.05807 -0.03144,-0.0055 -0.0027,-0.01777 -0.161598,-0.08359 -0.617409,-0.345996 -0.792968,-0.519531 -0.23935,-0.263791 -0.09611,0.03629 -0.261133,-0.570117 0.110624,-1.033804 0.208482,-2.321095 -0.843555,-2.91211 -0.316123,-0.05913 -0.669922,-0.389648 -0.669922,-0.389648 C 20.674799,9.1564914 19.005644,8.6187808 17.153153,8.6936738 Z"/>
 <path style="fill:#9f7251" d="m 16.163309,10.170236 0.199547,0.910185 c -0.0053,-0.01735 -1.069505,0.163365 -1.337043,1.136495 0.582957,2.394682 2.201329,2.917361 3.814452,2.518359 l 0.828516,-1.576367 -1.413672,-0.757422 z"/>
 <path style="fill:#2fcbff" d="m 16.516043,9.378635 c -1.77534,0.073263 -3.214425,0.809392 -4.004492,3.069335 v 1.663868 c 0.257273,-0.728831 0.557292,-1.316128 0.971439,-1.709509 0.885838,-0.841422 1.853372,-1.145672 3.004273,-1.349446 0.860193,-0.103365 3.188652,0.04876 4.276035,0.73497 0.363227,0.146421 0.722773,0.450328 1.559191,1.215196 l 0.658984,-1.110157 C 22.618724,10.676319 21.129964,9.8760774 18.391824,9.4948455 17.736979,9.4036712 17.107823,9.3542134 16.516043,9.378635 Z"/>
 <path style="fill:#2d2d2d" d="m 22.498568,29.666677 c 4e-6,-8e-6 0,0 0,0 z"/>
 <path style="fill:#413c2d" d="M 11.409598,1.9999238 10.63577,6.7919159 c -0.332409,0.073881 -0.604822,0.5123916 -0.8025393,0.8845704 -0.044681,0.084109 -0.1041656,0.3476403 -0.153125,0.5291013 h -0.0082 l -0.0014,0.031444 c -0.00693,0.02478 -0.01575,0.064652 -0.021875,0.083399 0.00546,-9.1e-4 0.014861,0.00217 0.02051,0.0014 l -0.02051,0.7246092 h 0.053319 c 0.00105,0.00455 0.00175,0.00883 0.00273,0.013671 0.1329265,0.1279516 0.6978103,0.5142767 0.7232423,0.5755855 0.07219,0.1740361 0.104768,0.3113103 0.07656,0.3828117 0.07043,-0.06034 0.212671,-0.1464133 0.341797,-0.072461 0.03267,0.018711 0.05964,0.049098 0.08887,0.073829 h 0.24746 c -0.06167,-0.5267658 0.101004,-0.8430419 0.557809,-0.8818359 l 1.06918,-7.1381163 z M 9.9179965,8.3300021 c 0.1811355,0.016877 0.3778075,0.057218 0.5537105,0.153125 0.108299,0.059045 0.05795,0.2467591 0.149024,0.3212888 0.290919,0.2380819 0.387166,0.6129711 0.324024,0.6863283 C 10.794454,9.6653557 10.17253,9.3880234 10.047879,8.9958225 10.022777,8.9168387 9.9651499,8.8924241 9.902957,8.8891817 Z"/>
 <path style="opacity:0.2" d="m 12.335759,19.09346 c 0.01177,-0.01513 0.02389,-0.02992 0.03568,-0.04505 0.0088,-0.0038 0.04019,-0.03205 0.01665,-0.03294 -0.167155,-0.0088 -0.353049,0.0055 -0.534713,0 -0.199797,0.161108 -0.407151,0.32796 -0.595162,0.49058 -0.0257,0.02239 -0.05047,0.05653 -0.08827,0.06073 -0.0035,-0.229722 0.02778,-0.388111 0.03294,-0.589723 -0.01693,-0.02903 -0.01816,-0.07375 -0.05501,-0.08282 h -0.0055 a 1.2930645,1.2930645 0 0 0 -0.259042,0.159903 c -0.02025,0.02389 -0.05984,0.02841 -0.06621,0.06621 a 1.3738397,1.3738397 0 0 0 0.01266,0.416826 c 0.0026,0.03656 0.0062,0.07285 0.0094,0.108212 l 0.03688,0.09129 c 0.08645,0.05683 0.138438,0.139647 0.231839,0.18952 a 1.1146534,1.1146534 0 0 0 0.117885,-0.07496 c -0.12121,0.138136 -0.24665,0.272646 -0.364235,0.41592 -0.08161,0.09945 -0.156575,0.207053 -0.236976,0.308616 -0.08191,0.103375 -0.165946,0.203123 -0.242421,0.308614 -0.230024,0.31708 -0.4727465,0.625391 -0.7109306,0.925847 -0.081614,0.102771 -0.1750154,0.195868 -0.2424205,0.308613 a 0.23020698,0.23020698 0 0 0 -0.066199,0.06621 c 0.037184,-0.01814 0.072244,-0.03807 0.1103305,-0.05501 0.038402,-0.05501 0.083125,-0.110933 0.1296687,-0.166247 -0.060459,0.08131 -0.1130472,0.16987 -0.1861965,0.238488 -0.00245,0.0062 -0.00665,0.01329 0,0.0058 0.03353,-0.0142 0.061348,-0.03416 0.093708,-0.04957 0.1305759,-0.170478 0.2620646,-0.340352 0.4080573,-0.49602 0.051975,-0.0048 0.065296,-0.05291 0.1045841,-0.07164 a 0.19642767,0.19642767 0 0 1 0.08282,-0.01664 0.9932083,0.9932083 0 0 1 0.314056,-0.148716 c 0.02389,-0.0035 0.03081,0.0094 0.04412,0.01664 0.640204,-0.787105 1.298845,-1.556074 1.934517,-2.348014 -0.02146,-3.03e-4 -0.04234,-6.21e-4 -0.06257,-6.21e-4 z m -2.7240363,2.857638 c 0.048951,-0.05806 0.099145,-0.115165 0.1459976,-0.170479 A 0.66943187,0.66943187 0 0 1 9.6117227,21.951098 Z M 21.899808,18.657892 c -0.0024,-0.04624 0.02143,-0.06681 0.0275,-0.104584 -0.0069,-3.02e-4 -0.0075,-0.0069 -0.01631,-0.0055 -0.01479,0.03868 -0.04684,0.05984 -0.06074,0.09914 0.02506,-0.0052 0.03114,0.0091 0.04957,0.01088 z m -11.683552,1.444234 c 0.07406,-0.0052 0.159599,0.0088 0.214915,-0.01116 0.05139,0.02239 0.118791,-0.01479 0.17078,-0.0055 0.03597,0.0064 0.03688,0.03327 0.07164,0.03868 0.09037,-0.07134 0.155363,-0.168061 0.236975,-0.248162 -0.0094,-0.03114 -0.01479,-0.06588 -0.02205,-0.09914 l -0.03295,-0.04957 h -0.03445 a 0.15002507,0.15002507 0 0 0 -0.02117,-0.0671 0.18642291,0.18642291 0 0 1 -0.05502,0 c -0.02477,-0.0011 -0.04835,0.0064 -0.06073,0 a 0.86482809,0.86482809 0 0 1 -0.126669,-0.104871 c -0.02778,-0.02507 -0.100053,-0.08947 -0.137835,-0.0937 -0.03654,-0.0038 -0.07949,0.02115 -0.121206,0.03327 a 1.123992,1.123992 0 0 1 -0.126653,0.03293 c -0.07889,0.0115 -0.171689,0.0079 -0.259042,0.01116 -0.5474063,0.01904 -1.1546619,0.05864 -1.6899792,0.0653 0.6686162,-0.356071 1.350531,-0.752345 2.0212652,-1.116879 0.05046,-0.02752 0.114561,-0.07194 0.148714,-0.07708 0.04929,-0.0079 0.111537,0.01027 0.159902,0.01665 a 0.90061048,0.90061048 0 0 1 0.148714,0.02752 c 0.1333,-0.07436 0.282922,-0.132394 0.413503,-0.209473 a 0.19207682,0.19207682 0 0 1 -0.07164,-0.05533 0.04951416,0.04951416 0 0 0 3.01e-4,-0.01329 q 0.03537,-0.01724 0.07073,-0.03174 c -0.0399,-0.05258 -0.113956,-0.08433 -0.183479,-0.123931 -0.0064,-0.0073 -0.01874,-0.01301 -0.01114,-0.02328 -0.07285,-0.04471 -0.14267,-0.09249 -0.220355,-0.132393 -0.07678,0.02629 -0.116976,0.05169 -0.194056,0.07708 -0.01212,0.0065 -0.03266,-0.01451 -0.04957,-0.01663 a 2.3873214,2.3873214 0 0 1 -0.358189,0.176523 1.8010523,1.8010523 0 0 0 -0.2644813,0.137834 c -0.027545,0.01753 -0.058954,0.03327 -0.088266,0.04957 l -0.07647,0.05683 c -0.9415625,0.470928 -1.7081136,0.804632 -2.6158232,1.220251 a 0.17860537,0.17860537 0 0 1 0.04172,0.03477 l -0.394485,0.141749 c -0.1136485,0.06227 -0.3010546,0.132091 -0.4573303,0.08282 A 0.54331509,0.54331509 0 0 0 6.11,19.902904 c 0.04564,0.02417 0.094608,0.04833 0.1450904,0.07224 a 0.23243107,0.23243107 0 0 0 -0.022953,0.01149 c 0.1511342,0.06892 0.326144,0.15446 0.4851378,0.220353 a 1.3079065,1.3079065 0 0 0 0.1707797,0.06621 0.44448447,0.44448447 0 0 0 0.1266503,0 c 0.1765267,-0.0079 0.3439842,-0.01784 0.5126478,-0.03294 0.097027,-0.0088 0.1970787,-0.02779 0.2919896,-0.02752 0.1559691,3.03e-4 0.3113397,0.0058 0.4685177,0.0055 0.158389,0 0.3188899,-0.02026 0.4793971,-0.02752 0.3152639,-0.0139 0.6389929,-0.02964 0.9645335,-0.04957 0.1635249,-0.01027 0.3264511,-0.02813 0.4845321,-0.03899 z m 11.259165,-0.187707 c 0.01936,-0.03477 0.0411,-0.07073 0.06074,-0.104585 0.120001,-0.210679 0.243631,-0.416525 0.363935,-0.622973 -0.03024,-0.0801 -0.09098,-0.129371 -0.08827,-0.242418 0.0043,-0.02146 0.03417,-0.01724 0.03869,-0.03868 -0.0293,-0.06952 0.0081,-0.137834 0.01665,-0.214913 a 0.01586059,0.01586059 0 0 1 -0.01966,-0.0052 0.07594835,0.07594835 0 0 0 -10e-4,-0.02869 0.03798628,0.03798628 0 0 1 -0.01268,0.01419 c -4.43e-4,0 -0.0014,6.2e-4 -0.0019,10e-4 a 0.1091056,0.1091056 0 0 1 -0.05711,0.01238 c -0.193451,0.319196 -0.407755,0.648061 -0.606348,0.964535 a 0.94195255,0.94195255 0 0 1 -0.0883,0.137863 c -0.04656,0.04868 -0.122117,0.08071 -0.181966,0.12121 -0.186802,0.127255 -0.360908,0.253298 -0.551032,0.36937 a 0.02438211,0.02438211 0 0 0 -0.01,0.0032 c 0.04322,-0.111233 0.09884,-0.221259 0.135417,-0.333098 0.02389,-0.07315 0.04894,-0.144484 0.03568,-0.20917 a 0.55831661,0.55831661 0 0 0 0.0048,-0.123324 c 0.185289,-0.0653 0.369065,-0.132092 0.549217,-0.202218 0.02659,-0.153552 0.04957,-0.310429 0.0937,-0.446448 0.0029,-0.0055 0.02842,-0.0245 0.0055,-0.02205 -0.01058,10e-4 -0.02117,0.0017 -0.03176,0.0026 0.0019,-0.01027 0.0035,-0.02053 0.0058,-0.03082 -3.01e-4,-0.01329 0.01966,-0.05259 0,-0.04957 h -0.02754 c -0.100653,0.0097 -0.207052,0.01362 -0.308616,0.02205 -0.04868,0.04414 -0.121811,0.03233 -0.214911,0.03868 -0.04745,0.0027 -0.09884,0.0075 -0.148715,0.01116 -0.135719,0.0097 -0.277481,0.0293 -0.358185,0 -0.490886,0.04717 -1.010485,0.06588 -1.526758,0.08826 -0.136323,0.310126 -0.294409,0.598488 -0.441008,0.89834 -0.155969,0.05169 -0.301057,0.114255 -0.457329,0.165338 0.0051,0.02903 0.03928,0.04444 0.06046,0.06046 a 0.0517721,0.0517721 0 0 1 0.0043,0.0032 c -0.02025,0.0081 -0.04108,0.0163 -0.06107,0.02507 0.04684,0.03053 0.09128,0.06983 0.137834,0.104887 a 0.67510435,0.67510435 0 0 0 0.105493,0.07254 c -0.07073,0.142066 -0.137231,0.287154 -0.197685,0.433452 -0.01363,0.03265 -0.03597,0.06135 -0.04957,0.0937 -0.0075,0.01782 -0.0091,0.0384 -0.01665,0.05501 -0.0073,0.01665 -0.01903,0.03233 -0.0275,0.04957 -0.228216,0.467909 -0.439798,0.936728 -0.667106,1.400103 0.02992,-0.0038 0.03596,-0.03142 0.06073,-0.04957 a 0.18748901,0.18748901 0 0 1 0.02691,-0.01631 c -0.01543,0.03326 -0.03051,0.06649 -0.04505,0.09945 0.02541,-0.06409 0.09703,-0.06136 0.137835,-0.110329 a 0.59114077,0.59114077 0 0 0 0.05501,-0.115766 c 0.05442,-0.119397 0.107609,-0.240303 0.176527,-0.336121 0.0547,-0.0064 0.06258,-0.06168 0.115765,-0.05501 a 1.1413662,1.1413662 0 0 1 0.248162,-0.192846 0.63677799,0.63677799 0 0 0 0.09371,-0.05501 c 0.03023,-0.02903 0.05559,-0.100956 0.08282,-0.154156 0.139342,-0.274459 0.265386,-0.537734 0.396876,-0.799195 0.05471,-0.108817 0.09703,-0.222168 0.165339,-0.314056 0.564034,-0.187407 1.139852,-0.363326 1.702675,-0.55194 -0.113654,0.252996 -0.232142,0.501763 -0.317686,0.782871 0.01693,0.01361 0.03417,0.02691 0.05107,0.04052 -0.0045,0.01814 -0.01,0.03537 -0.01392,0.0541 0.07617,0.07073 0.165643,0.128466 0.248162,0.192849 0.107308,-0.09703 0.232141,-0.173502 0.352746,-0.253604 0.0925,-0.06168 0.179851,-0.127859 0.269926,-0.187405 0.0106,-0.0069 0.02117,-0.01513 0.03202,-0.02297 -0.03474,0.06922 -0.07134,0.136623 -0.102166,0.209772 a 0.16255679,0.16255679 0 0 0 0.04205,0.01724 0.16265502,0.16265502 0 0 0 -0.01602,0.07194 c 0.01212,0.0017 0.04684,0.01573 0.07164,0.02205 0.07527,0.05349 0.156277,0.09159 0.23668,0.140253 0.0184,-0.06225 0.05805,-0.107004 0.07768,-0.162319 0.03536,-0.04444 0.177431,-0.372092 0.283527,-0.532293 z m 0.359396,-1.183075 a 0.03518546,0.03518546 0 0 0 0.0043,0.02027 c -0.0067,0.0091 -0.01392,0.01814 -0.02117,0.02691 0.0055,-0.01602 0.01149,-0.03142 0.01689,-0.04717 z m -3.109726,1.044939 a 0.26489429,0.26489429 0 0 0 0.0384,-0.09884 c 0.05744,-0.08222 0.08947,-0.189825 0.154457,-0.264484 0.413502,-0.03265 0.860257,-0.06408 1.299752,-0.09249 q -0.72952,0.244836 -1.492597,0.455819 z m -1.482924,0.876876 c 0.0804,0.02206 0.159594,0.04806 0.231535,0.06075 a 1.2314719,1.2314719 0 0 0 0.176523,-0.159901 c 0.0275,-0.02752 0.05471,-0.05532 0.08252,-0.08252 0.02778,-0.02719 0.06922,-0.05079 0.07708,-0.0937 -0.0142,-0.0058 -0.02901,-0.01117 -0.04355,-0.01664 a 0.43294388,0.43294388 0 0 0 0.04505,-0.06135 c -0.201007,-0.094 -0.419243,-0.150527 -0.628412,-0.231534 -0.178643,-0.06922 -0.355167,-0.142369 -0.52655,-0.216425 0.227305,-0.05711 0.4537,-0.119092 0.674056,-0.184987 0.224584,-0.06741 0.462165,-0.132695 0.655917,-0.226096 a 0.5349734,0.5349734 0 0 1 0.08827,-0.03868 c -0.0096,-0.01664 -0.02052,-0.03204 -0.03114,-0.04778 a 0.16675406,0.16675406 0 0 0 0.03266,-0.03567 c -0.05956,-0.08554 -0.126049,-0.164131 -0.176526,-0.259044 -0.686448,-0.06318 -1.393756,-0.105489 -2.133103,-0.115767 -0.0272,0.01876 -0.03354,0.05864 -0.06621,0.07164 -0.499644,-0.0055 -1.013502,-0.02053 -1.499244,-0.02206 -0.03445,0.04565 -0.07043,0.08977 -0.104887,0.137834 -0.03384,0.04777 -0.05984,0.104585 -0.104585,0.143274 -0.03203,-0.0671 -0.07194,-0.126649 -0.104585,-0.192846 -0.243025,-0.0066 -0.49088,-0.0085 -0.733602,-0.01479 0.231235,-0.282923 0.478488,-0.587005 0.715768,-0.871741 0.03718,-0.04444 0.103076,-0.104886 0.11033,-0.143274 a 0.76756218,0.76756218 0 0 0 -0.0055,-0.159899 c -0.0039,-0.02508 -0.01966,-0.04353 -0.02205,-0.06621 -0.0055,-0.05079 0.01665,-0.09008 0.01665,-0.143275 0.03928,-0.03265 0.04504,-0.09461 0.07708,-0.132393 0.01665,-0.01965 0.03839,-0.02027 0.04957,-0.04414 0.03596,-0.05956 0.09401,-0.119396 0.12665,-0.176222 0.0062,-0.01059 0.01844,-0.01602 0.0055,-0.02752 -0.06982,0.06469 -0.06771,0.08856 -0.0928,0.11335 -0.0184,0.01814 -0.0019,-0.01572 -0.02296,-0.0027 a 0.20996443,0.20996443 0 0 1 -0.05198,0.06258 0.03767826,0.03767826 0 0 0 0.0094,-0.01389 c 0.03503,-0.06046 0.09431,-0.119697 0.126649,-0.176525 0.0062,-0.0106 0.01816,-0.01572 0.0055,-0.02752 -0.07828,0.0807 -0.05169,0.05806 -0.07708,0.08282 -0.0073,0.02388 -0.03445,0.0027 -0.03869,0.02205 a 1.0572754,1.0572754 0 0 0 -0.104591,0.12119 c -0.01513,0.02507 -0.01902,0.05197 -0.03294,0.07708 -0.02389,0.0432 -0.07405,0.07587 -0.110327,0.121209 -0.05197,0.0653 -0.08585,0.151136 -0.143276,0.204032 -0.0014,0.01691 -0.01212,0.02479 -0.01665,0.03868 -0.01665,-0.0064 -0.03177,0.03142 -0.03294,0.0055 0.0014,-0.0079 0.0091,-0.0094 0.01114,-0.01664 0.0085,-0.0024 10e-4,-0.0067 -0.0055,0 -0.04656,0.0088 -0.06348,0.04683 -0.0937,0.07164 a 0.09369872,0.09369872 0 0 1 -0.07164,0 c -0.33733,0.404433 -0.697936,0.787408 -1.030736,1.196073 -0.334003,0.410177 -0.664986,0.822469 -0.975719,1.25683 0.01363,0.0091 0.02691,0.01814 0.04019,0.02719 -0.0109,0.01664 -0.02117,0.03354 -0.03051,0.05046 0.172898,0.119395 0.339145,0.245139 0.523526,0.352747 0.594563,-0.448566 1.216629,-0.894411 1.809375,-1.339046 q -0.247557,0.347306 -0.490582,0.699145 c 0.01694,0.01088 0.03266,0.02327 0.04868,0.03537 a 0.0850445,0.0850445 0 0 0 -0.01149,0.04806 c 0.0064,0.03081 0.0795,0.07043 0.115771,0.09914 a 0.84049455,0.84049455 0 0 0 0.121209,0.0937 c 0.02812,-0.01239 0.05833,-0.02239 0.08826,-0.03294 0.01513,-0.0081 0.02811,0.0027 0.04957,-0.0055 0.3996,-0.120302 0.837888,-0.201914 1.289777,-0.269923 0.04142,-0.08917 0.100656,-0.160203 0.12665,-0.264485 -0.01,0.001 -0.02025,0.002 -0.03025,0.0027 a 0.76300252,0.76300252 0 0 0 0.0426,-0.102771 c -0.385087,0.06046 -0.772593,0.118188 -1.140151,0.196174 0.04052,-0.07497 0.08645,-0.152345 0.129978,-0.217331 0.324328,-0.0393 0.659545,-0.06802 0.981159,-0.110329 a 1.4417091,1.4417091 0 0 0 0.110326,-0.170779 c 0.01059,-0.01724 0.03051,-0.03445 0.0275,-0.055 -0.01363,0.001 -0.0272,0.0017 -0.04078,0.0024 0.01329,-0.01994 0.0272,-0.03958 0.04228,-0.05805 0.0014,-0.0091 0.04292,-0.01994 0.01665,-0.02206 -0.327656,0.01088 -0.604537,0.02026 -0.92494,0.03656 0.01363,-0.02691 0.0275,-0.05349 0.04142,-0.0798 0.166849,0.0048 0.324934,-0.01479 0.463071,-0.02204 0.01966,-0.01842 0.03265,-0.05079 0.06621,-0.06074 0.04717,-0.01389 0.140251,-0.002 0.226097,-0.0055 0.148109,-0.0064 0.280809,0.0067 0.402316,0.0055 a 0.27792534,0.27792534 0 0 0 0.05503,-0.06621 c 3.01e-4,0 4.44e-4,-3.01e-4 0.0011,-3.01e-4 -0.163525,0.360302 -0.320705,0.718488 -0.484538,1.074258 -0.06045,0.131487 -0.135109,0.259949 -0.176521,0.402318 0.0085,0.01089 0.01693,0.02145 0.0257,0.03233 -0.0055,0.01512 -0.01149,0.03022 -0.0163,0.04565 0.03232,0.05198 0.0523,0.06016 0.10398,0.127255 a 1.7930391,1.7930391 0 0 0 0.171688,0.170478 c 0.117883,-0.255112 0.220052,-0.520806 0.347306,-0.771687 l 0.104585,-0.231539 a 1.6147482,1.6147482 0 0 1 0.159896,0.06074 c 0.121513,0.05382 0.240908,0.105793 0.358191,0.154158 0.05771,0.02388 0.110326,0.05291 0.16534,0.07738 l 0.732091,0.265391 c 0.03596,0.01238 0.08403,0.03175 0.122419,0.0423 z M 13.94201,17.637437 a 0.74945031,0.74945031 0 0 0 0.07163,-0.126951 0.22549161,0.22549161 0 0 1 0.0411,-0.03175 0.21678812,0.21678812 0 0 0 -0.04262,0.04895 c -0.01688,0.0293 -0.01966,0.06559 -0.03869,0.0937 a 0.26880654,0.26880654 0 0 1 -0.03777,0.04292 c 0.0024,-0.0088 0.0035,-0.01784 0.0065,-0.02691 z m -1.17945,2.155168 c -0.159598,0.107607 -0.32131,0.216423 -0.47758,0.323428 0.183776,-0.224285 0.374508,-0.458845 0.564329,-0.675267 a 0.0274459,0.0274459 0 0 1 0.01665,-0.01665 c 0.130883,0.0073 0.263275,0.01301 0.39053,0.02417 -0.155365,0.114861 -0.32675,0.231233 -0.493906,0.344283 z m 2.913257,-0.694309 c -0.0024,0 -0.0048,-3.01e-4 -0.0069,-3.01e-4 a 0.05201844,0.05201844 0 0 1 0.0096,-0.0055 0.03354958,0.03354958 0 0 0 -0.0026,0.0058 z m 0.371786,0.506601 c -0.05139,-0.02328 -0.10549,-0.04353 -0.161108,-0.06225 a 2.3941571,2.3941571 0 0 1 0.104587,-0.24 c 0.363625,-0.0048 0.765336,0.0062 1.124434,0.02297 -0.349422,0.09975 -0.710936,0.187405 -1.067913,0.279294 z m 7.307926,-0.462469 c 0.01479,-0.02779 0.02992,-0.05501 0.04506,-0.08282 -0.135416,-0.0075 -0.288063,0.02417 -0.396877,0.0055 -0.16232,0.236372 -0.295921,0.521108 -0.441012,0.765945 a 1.0012758,1.0012758 0 0 1 -0.06831,0.112444 C 22.42667,19.66025 22.358965,19.354959 22.265265,19.09773 h -0.121209 c 0.01602,-0.03383 -0.0064,-0.04414 -0.02205,-0.06073 0.0085,-0.03023 0.03328,-0.04415 0.03294,-0.08282 l -0.02205,0.01664 c -0.07466,0.123929 -0.141163,0.250277 -0.204033,0.380253 -0.06197,0.128767 -0.140855,0.249674 -0.209471,0.374813 -0.138137,0.251788 -0.279295,0.502369 -0.40232,0.766248 0.02598,-0.0094 0.02964,-0.0142 0.04957,-0.01 -0.01329,0.02752 -0.02692,0.05471 -0.03991,0.08222 0.02419,-0.02239 0.0293,-0.0085 0.06621,-0.0055 0.108517,-0.02719 0.255115,-0.03505 0.380257,-0.06074 0.117277,-0.211587 0.23758,-0.420154 0.358185,-0.628415 0.05833,0.23184 0.111537,0.469119 0.17078,0.700052 a 2.873396,2.873396 0 0 0 0.319797,-0.01117 c 0.259047,-0.472443 0.521718,-0.940654 0.777133,-1.416425 -0.0145,0 -0.02901,0 -0.04355,3.03e-4 z m 3.717284,2.51577 c 0.0124,0.0064 0.02477,0.01301 0.03718,0.01937 -0.0088,-0.01513 -0.02901,-0.01875 -0.03328,-0.03868 a 0.14805852,0.14805852 0 0 1 0,-0.07708 0.38399074,0.38399074 0 0 1 -0.04957,-0.04957 c -0.0088,0.0045 0,-0.04414 0,-0.04414 q -0.03176,-0.02133 -0.0653,-0.04171 a 0.05108321,0.05108321 0 0 0 0.0029,-0.02389 c -0.553148,-0.322217 -1.116274,-0.630227 -1.664587,-0.953653 -0.103677,-0.06135 -0.208565,-0.120605 -0.312545,-0.181058 -0.0073,-0.03204 -0.0145,-0.06378 -0.02239,-0.09521 -0.05653,-0.03023 -0.111232,-0.06168 -0.165036,-0.09431 a 0.04507414,0.04507414 0 0 0 0.0035,-0.0041 c 0.01936,-0.01 0.03777,-0.01513 0.06074,-0.02752 -0.02176,-0.01419 -0.04413,-0.02812 -0.06649,-0.04203 a 0.31271272,0.31271272 0 0 1 0.06771,-0.03053 c -0.04413,-0.02841 -0.0937,-0.06469 -0.143275,-0.0937 -0.103375,-0.06046 -0.20554,-0.124229 -0.303173,-0.181965 -0.02964,-0.01753 -0.06074,-0.03175 -0.08977,-0.04895 0.152339,-0.08312 0.309821,-0.162619 0.468512,-0.248162 0.08675,-0.04656 0.177435,-0.09038 0.264788,-0.137834 0.124834,-0.06771 0.263275,-0.115162 0.347307,-0.209471 0.199796,-0.09612 0.395666,-0.195868 0.595161,-0.292292 0.08645,-0.113954 0.137835,-0.262671 0.281111,-0.319799 0.01363,-0.03114 0.05046,-0.07254 0.05501,-0.0937 0,3.03e-4 -0.0051,-3.02e-4 -0.0055,0 -0.04413,0.02601 -0.09008,0.05018 -0.136019,0.07406 a 0.27446772,0.27446772 0 0 1 0.08221,-0.0529 c 0.01572,-0.01903 0.02176,-0.04776 0.04413,-0.06073 -2.98e-4,-0.01664 0.01177,-0.02146 0.01665,-0.03294 0.0058,-0.0031 0.03503,-0.02297 0.0109,-0.02205 -0.402322,0.217934 -0.825793,0.402924 -1.240205,0.606349 -0.394457,0.193753 -0.791335,0.384484 -1.183378,0.578539 0.08282,-0.156574 0.168362,-0.310125 0.250583,-0.467306 l -0.04171,0.002 c 0.01419,-0.02659 0.02871,-0.0532 0.04292,-0.0798 -0.15053,-0.0055 -0.272642,0.01753 -0.424382,0.01116 -0.02929,-0.0035 -0.02812,-0.03807 -0.04957,-0.04957 -0.207359,0.38237 -0.414411,0.765041 -0.617233,1.151943 0.0073,0.01513 0.01543,0.03265 0.02356,0.05046 l -0.0026,0.0055 c -0.06588,0.124533 -0.142066,0.246045 -0.192846,0.380253 0.0804,0.09612 0.217935,0.182569 0.33068,0.264484 a 1.3959297,1.3959297 0 0 1 0.104665,-0.209517 c 0.112443,-0.201916 0.225795,-0.402622 0.33612,-0.606349 0.197081,0.09673 0.38237,0.20554 0.567659,0.314055 0.01722,0.01602 0.02628,0.03991 0.04957,0.04957 0.451282,0.25088 0.913451,0.491183 1.372597,0.738741 0.45884,0.247256 0.920101,0.49451 1.378036,0.727558 -0.01,0.0017 0.0272,0.03081 0.03294,0.01665 a 0.10074578,0.10074578 0 0 1 -0.01839,-0.07982 z"/>
 <path id="blue" style="fill:#2fcbff" d="m 12.335759,18.093721 c 0.01177,-0.01513 0.02389,-0.02992 0.03568,-0.04505 0.0088,-0.0038 0.04019,-0.03205 0.01665,-0.03294 -0.167155,-0.0088 -0.353049,0.0055 -0.534713,0 -0.199797,0.161108 -0.407151,0.32796 -0.595162,0.49058 -0.0257,0.02239 -0.05047,0.05653 -0.08827,0.06073 -0.0035,-0.229722 0.02778,-0.388111 0.03294,-0.589723 -0.01693,-0.02903 -0.01816,-0.07375 -0.05501,-0.08282 h -0.0055 a 1.2930645,1.2930645 0 0 0 -0.259042,0.159903 c -0.02025,0.02389 -0.05984,0.02841 -0.06621,0.06621 a 1.3738397,1.3738397 0 0 0 0.01266,0.416826 c 0.0026,0.03656 0.0062,0.07285 0.0094,0.108212 l 0.03688,0.09129 c 0.08645,0.05683 0.138438,0.139647 0.231839,0.18952 a 1.1146534,1.1146534 0 0 0 0.117885,-0.07496 c -0.12121,0.138136 -0.24665,0.272646 -0.364235,0.41592 -0.08161,0.09945 -0.156575,0.207053 -0.236976,0.308616 -0.08191,0.103375 -0.165946,0.203123 -0.242421,0.308614 -0.230024,0.31708 -0.4727465,0.625391 -0.7109306,0.925847 -0.081614,0.102771 -0.1750154,0.195868 -0.2424205,0.308613 a 0.23020698,0.23020698 0 0 0 -0.066199,0.06621 c 0.037184,-0.01814 0.072244,-0.03807 0.1103305,-0.05501 0.038402,-0.05501 0.083125,-0.110933 0.1296687,-0.166247 -0.060459,0.08131 -0.1130472,0.16987 -0.1861965,0.238488 -0.00245,0.0062 -0.00665,0.01329 0,0.0058 0.03353,-0.0142 0.061348,-0.03416 0.093708,-0.04957 0.1305759,-0.170478 0.2620646,-0.340352 0.4080573,-0.49602 0.051975,-0.0048 0.065296,-0.05291 0.1045841,-0.07164 a 0.19642767,0.19642767 0 0 1 0.08282,-0.01664 0.9932083,0.9932083 0 0 1 0.314056,-0.148716 c 0.02389,-0.0035 0.03081,0.0094 0.04412,0.01664 0.640204,-0.787105 1.298845,-1.556074 1.934517,-2.348014 -0.02146,-3.03e-4 -0.04234,-6.21e-4 -0.06257,-6.21e-4 z m -2.7240363,2.857638 c 0.048951,-0.05806 0.099145,-0.115165 0.1459976,-0.170479 A 0.66943187,0.66943187 0 0 1 9.6117227,20.951359 Z M 21.899808,17.658153 c -0.0024,-0.04624 0.02143,-0.06681 0.0275,-0.104584 -0.0069,-3.02e-4 -0.0075,-0.0069 -0.01631,-0.0055 -0.01479,0.03868 -0.04684,0.05984 -0.06074,0.09914 0.02506,-0.0052 0.03114,0.0091 0.04957,0.01088 z m -11.683552,1.444234 c 0.07406,-0.0052 0.159599,0.0088 0.214915,-0.01116 0.05139,0.02239 0.118791,-0.01479 0.17078,-0.0055 0.03597,0.0064 0.03688,0.03327 0.07164,0.03868 0.09037,-0.07134 0.155363,-0.168061 0.236975,-0.248162 -0.0094,-0.03114 -0.01479,-0.06588 -0.02205,-0.09914 l -0.03295,-0.04957 h -0.03445 a 0.15002507,0.15002507 0 0 0 -0.02117,-0.0671 0.18642291,0.18642291 0 0 1 -0.05502,0 c -0.02477,-0.0011 -0.04835,0.0064 -0.06073,0 a 0.86482809,0.86482809 0 0 1 -0.126669,-0.104871 c -0.02778,-0.02507 -0.100053,-0.08947 -0.137835,-0.0937 -0.03654,-0.0038 -0.07949,0.02115 -0.121206,0.03327 a 1.123992,1.123992 0 0 1 -0.126653,0.03293 c -0.07889,0.0115 -0.171689,0.0079 -0.259042,0.01116 -0.5474063,0.01904 -1.1546619,0.05864 -1.6899792,0.0653 0.6686162,-0.356071 1.350531,-0.752345 2.0212652,-1.116879 0.05046,-0.02752 0.114561,-0.07194 0.148714,-0.07708 0.04929,-0.0079 0.111537,0.01027 0.159902,0.01665 a 0.90061048,0.90061048 0 0 1 0.148714,0.02752 c 0.1333,-0.07436 0.282922,-0.132394 0.413503,-0.209473 a 0.19207682,0.19207682 0 0 1 -0.07164,-0.05533 0.04951416,0.04951416 0 0 0 3.01e-4,-0.01329 q 0.03537,-0.01724 0.07073,-0.03174 c -0.0399,-0.05258 -0.113956,-0.08433 -0.183479,-0.123931 -0.0064,-0.0073 -0.01874,-0.01301 -0.01114,-0.02328 -0.07285,-0.04471 -0.14267,-0.09249 -0.220355,-0.132393 -0.07678,0.02629 -0.116976,0.05169 -0.194056,0.07708 -0.01212,0.0065 -0.03266,-0.01451 -0.04957,-0.01663 a 2.3873214,2.3873214 0 0 1 -0.358189,0.176523 1.8010523,1.8010523 0 0 0 -0.2644813,0.137834 c -0.027545,0.01753 -0.058954,0.03327 -0.088266,0.04957 l -0.07647,0.05683 c -0.9415625,0.470928 -1.7081136,0.804632 -2.6158232,1.220251 a 0.17860537,0.17860537 0 0 1 0.04172,0.03477 l -0.394485,0.141749 c -0.1136485,0.06227 -0.3010546,0.132091 -0.4573303,0.08282 A 0.54331509,0.54331509 0 0 0 6.11,18.903165 c 0.04564,0.02417 0.094608,0.04833 0.1450904,0.07224 a 0.23243107,0.23243107 0 0 0 -0.022953,0.01149 c 0.1511342,0.06892 0.326144,0.15446 0.4851378,0.220353 a 1.3079065,1.3079065 0 0 0 0.1707797,0.06621 0.44448447,0.44448447 0 0 0 0.1266503,0 c 0.1765267,-0.0079 0.3439842,-0.01784 0.5126478,-0.03294 0.097027,-0.0088 0.1970787,-0.02779 0.2919896,-0.02752 0.1559691,3.03e-4 0.3113397,0.0058 0.4685177,0.0055 0.158389,0 0.3188899,-0.02026 0.4793971,-0.02752 0.3152639,-0.0139 0.6389929,-0.02964 0.9645335,-0.04957 0.1635249,-0.01027 0.3264511,-0.02813 0.4845321,-0.03899 z M 21.475421,18.91468 c 0.01936,-0.03477 0.0411,-0.07073 0.06074,-0.104585 0.120001,-0.210679 0.243631,-0.416525 0.363935,-0.622973 -0.03024,-0.0801 -0.09098,-0.129371 -0.08827,-0.242418 0.0043,-0.02146 0.03417,-0.01724 0.03869,-0.03868 -0.0293,-0.06952 0.0081,-0.137834 0.01665,-0.214913 a 0.01586059,0.01586059 0 0 1 -0.01966,-0.0052 0.07594835,0.07594835 0 0 0 -10e-4,-0.02869 0.03798628,0.03798628 0 0 1 -0.01268,0.01419 c -4.43e-4,0 -0.0014,6.2e-4 -0.0019,0.001 a 0.1091056,0.1091056 0 0 1 -0.05711,0.01238 c -0.193451,0.319196 -0.407755,0.648061 -0.606348,0.964535 a 0.94195255,0.94195255 0 0 1 -0.0883,0.137863 c -0.04656,0.04868 -0.122117,0.08071 -0.181966,0.12121 -0.186802,0.127255 -0.360908,0.253298 -0.551032,0.36937 a 0.02438211,0.02438211 0 0 0 -0.01,0.0032 c 0.04322,-0.111233 0.09884,-0.221259 0.135417,-0.333098 0.02389,-0.07315 0.04894,-0.144484 0.03568,-0.20917 a 0.55831661,0.55831661 0 0 0 0.0048,-0.123324 c 0.185289,-0.0653 0.369065,-0.132092 0.549217,-0.202218 0.02659,-0.153552 0.04957,-0.310429 0.0937,-0.446448 0.0029,-0.0055 0.02842,-0.0245 0.0055,-0.02205 -0.01058,0.001 -0.02117,0.0017 -0.03176,0.0026 0.0019,-0.01027 0.0035,-0.02053 0.0058,-0.03082 -3.01e-4,-0.01329 0.01966,-0.05259 0,-0.04957 h -0.02754 c -0.100653,0.0097 -0.207052,0.01362 -0.308616,0.02205 -0.04868,0.04414 -0.121811,0.03233 -0.214911,0.03868 -0.04745,0.0027 -0.09884,0.0075 -0.148715,0.01116 -0.135719,0.0097 -0.277481,0.0293 -0.358185,0 -0.490886,0.04717 -1.010485,0.06588 -1.526758,0.08826 -0.136323,0.310126 -0.294409,0.598488 -0.441008,0.89834 -0.155969,0.05169 -0.301057,0.114255 -0.457329,0.165338 0.0051,0.02903 0.03928,0.04444 0.06046,0.06046 a 0.0517721,0.0517721 0 0 1 0.0043,0.0032 c -0.02025,0.0081 -0.04108,0.0163 -0.06107,0.02507 0.04684,0.03053 0.09128,0.06983 0.137834,0.104887 a 0.67510435,0.67510435 0 0 0 0.105493,0.07254 c -0.07073,0.142066 -0.137231,0.287154 -0.197685,0.433452 -0.01363,0.03265 -0.03597,0.06135 -0.04957,0.0937 -0.0075,0.01782 -0.0091,0.0384 -0.01665,0.05501 -0.0073,0.01665 -0.01903,0.03233 -0.0275,0.04957 -0.228216,0.467909 -0.439798,0.936728 -0.667106,1.400103 0.02992,-0.0038 0.03596,-0.03142 0.06073,-0.04957 a 0.18748901,0.18748901 0 0 1 0.02691,-0.01631 c -0.01543,0.03326 -0.03051,0.06649 -0.04505,0.09945 0.02541,-0.06409 0.09703,-0.06136 0.137835,-0.110329 a 0.59114077,0.59114077 0 0 0 0.05501,-0.115766 c 0.05442,-0.119397 0.107609,-0.240303 0.176527,-0.336121 0.0547,-0.0064 0.06258,-0.06168 0.115765,-0.05501 a 1.1413662,1.1413662 0 0 1 0.248162,-0.192846 0.63677799,0.63677799 0 0 0 0.09371,-0.05501 c 0.03023,-0.02903 0.05559,-0.100956 0.08282,-0.154156 0.139342,-0.274459 0.265386,-0.537734 0.396876,-0.799195 0.05471,-0.108817 0.09703,-0.222168 0.165339,-0.314056 0.564034,-0.187407 1.139852,-0.363326 1.702675,-0.55194 -0.113654,0.252996 -0.232142,0.501763 -0.317686,0.782871 0.01693,0.01361 0.03417,0.02691 0.05107,0.04052 -0.0045,0.01814 -0.01,0.03537 -0.01392,0.0541 0.07617,0.07073 0.165643,0.128466 0.248162,0.192849 0.107308,-0.09703 0.232141,-0.173502 0.352746,-0.253604 0.0925,-0.06168 0.179851,-0.127859 0.269926,-0.187405 0.0106,-0.0069 0.02117,-0.01513 0.03202,-0.02297 -0.03474,0.06922 -0.07134,0.136623 -0.102166,0.209772 a 0.16255679,0.16255679 0 0 0 0.04205,0.01724 0.16265502,0.16265502 0 0 0 -0.01602,0.07194 c 0.01212,0.0017 0.04684,0.01573 0.07164,0.02205 0.07527,0.05349 0.156277,0.09159 0.23668,0.140253 0.0184,-0.06225 0.05805,-0.107004 0.07768,-0.162319 0.03536,-0.04444 0.177431,-0.372092 0.283527,-0.532293 z m 0.359396,-1.183075 a 0.03518546,0.03518546 0 0 0 0.0043,0.02027 c -0.0067,0.0091 -0.01392,0.01814 -0.02117,0.02691 0.0055,-0.01602 0.01149,-0.03142 0.01689,-0.04717 z m -3.109726,1.044939 a 0.26489429,0.26489429 0 0 0 0.0384,-0.09884 c 0.05744,-0.08222 0.08947,-0.189825 0.154457,-0.264484 0.413502,-0.03265 0.860257,-0.06408 1.299752,-0.09249 q -0.72952,0.244836 -1.492597,0.455819 z m -1.482924,0.876876 c 0.0804,0.02206 0.159594,0.04806 0.231535,0.06075 a 1.2314719,1.2314719 0 0 0 0.176523,-0.159901 c 0.0275,-0.02752 0.05471,-0.05532 0.08252,-0.08252 0.02778,-0.02719 0.06922,-0.05079 0.07708,-0.0937 -0.0142,-0.0058 -0.02901,-0.01117 -0.04355,-0.01664 a 0.43294388,0.43294388 0 0 0 0.04505,-0.06135 c -0.201007,-0.094 -0.419243,-0.150527 -0.628412,-0.231534 -0.178643,-0.06922 -0.355167,-0.142369 -0.52655,-0.216425 0.227305,-0.05711 0.4537,-0.119092 0.674056,-0.184987 0.224584,-0.06741 0.462165,-0.132695 0.655917,-0.226096 a 0.5349734,0.5349734 0 0 1 0.08827,-0.03868 c -0.0096,-0.01664 -0.02052,-0.03204 -0.03114,-0.04778 a 0.16675406,0.16675406 0 0 0 0.03266,-0.03567 c -0.05956,-0.08554 -0.126049,-0.164131 -0.176526,-0.259044 -0.686448,-0.06318 -1.393756,-0.105489 -2.133103,-0.115767 -0.0272,0.01876 -0.03354,0.05864 -0.06621,0.07164 -0.499644,-0.0055 -1.013502,-0.02053 -1.499244,-0.02206 -0.03445,0.04565 -0.07043,0.08977 -0.104887,0.137834 -0.03384,0.04777 -0.05984,0.104585 -0.104585,0.143274 -0.03203,-0.0671 -0.07194,-0.126649 -0.104585,-0.192846 -0.243025,-0.0066 -0.49088,-0.0085 -0.733602,-0.01479 0.231235,-0.282923 0.478488,-0.587005 0.715768,-0.871741 0.03718,-0.04444 0.103076,-0.104886 0.11033,-0.143274 a 0.76756218,0.76756218 0 0 0 -0.0055,-0.159899 c -0.0039,-0.02508 -0.01966,-0.04353 -0.02205,-0.06621 -0.0055,-0.05079 0.01665,-0.09008 0.01665,-0.143275 0.03928,-0.03265 0.04504,-0.09461 0.07708,-0.132393 0.01665,-0.01965 0.03839,-0.02027 0.04957,-0.04414 0.03596,-0.05956 0.09401,-0.119396 0.12665,-0.176222 0.0062,-0.01059 0.01844,-0.01602 0.0055,-0.02752 -0.06982,0.06469 -0.06771,0.08856 -0.0928,0.11335 -0.0184,0.01814 -0.0019,-0.01572 -0.02296,-0.0027 a 0.20996443,0.20996443 0 0 1 -0.05198,0.06258 0.03767826,0.03767826 0 0 0 0.0094,-0.01389 c 0.03503,-0.06046 0.09431,-0.119697 0.126649,-0.176525 0.0062,-0.0106 0.01816,-0.01572 0.0055,-0.02752 -0.07828,0.0807 -0.05169,0.05806 -0.07708,0.08282 -0.0073,0.02388 -0.03445,0.0027 -0.03869,0.02205 a 1.0572754,1.0572754 0 0 0 -0.104591,0.12119 c -0.01513,0.02507 -0.01902,0.05197 -0.03294,0.07708 -0.02389,0.0432 -0.07405,0.07587 -0.110327,0.121209 -0.05197,0.0653 -0.08585,0.151136 -0.143276,0.204032 -0.0014,0.01691 -0.01212,0.02479 -0.01665,0.03868 -0.01665,-0.0064 -0.03177,0.03142 -0.03294,0.0055 0.0014,-0.0079 0.0091,-0.0094 0.01114,-0.01664 0.0085,-0.0024 10e-4,-0.0067 -0.0055,0 -0.04656,0.0088 -0.06348,0.04683 -0.0937,0.07164 a 0.09369872,0.09369872 0 0 1 -0.07164,0 c -0.33733,0.404433 -0.697936,0.787408 -1.030736,1.196073 -0.334003,0.410177 -0.664986,0.822469 -0.975719,1.25683 0.01363,0.0091 0.02691,0.01814 0.04019,0.02719 -0.0109,0.01664 -0.02117,0.03354 -0.03051,0.05046 0.172898,0.119395 0.339145,0.245139 0.523526,0.352747 0.594563,-0.448566 1.216629,-0.894411 1.809375,-1.339046 q -0.247557,0.347306 -0.490582,0.699145 c 0.01694,0.01088 0.03266,0.02327 0.04868,0.03537 a 0.0850445,0.0850445 0 0 0 -0.01149,0.04806 c 0.0064,0.03081 0.0795,0.07043 0.115771,0.09914 a 0.84049455,0.84049455 0 0 0 0.121209,0.0937 c 0.02812,-0.01239 0.05833,-0.02239 0.08826,-0.03294 0.01513,-0.0081 0.02811,0.0027 0.04957,-0.0055 0.3996,-0.120302 0.837888,-0.201914 1.289777,-0.269923 0.04142,-0.08917 0.100656,-0.160203 0.12665,-0.264485 -0.01,0.001 -0.02025,0.002 -0.03025,0.0027 a 0.76300252,0.76300252 0 0 0 0.0426,-0.102771 c -0.385087,0.06046 -0.772593,0.118188 -1.140151,0.196174 0.04052,-0.07497 0.08645,-0.152345 0.129978,-0.217331 0.324328,-0.0393 0.659545,-0.06802 0.981159,-0.110329 a 1.4417091,1.4417091 0 0 0 0.110326,-0.170779 c 0.01059,-0.01724 0.03051,-0.03445 0.0275,-0.055 -0.01363,0.001 -0.0272,0.0017 -0.04078,0.0024 0.01329,-0.01994 0.0272,-0.03958 0.04228,-0.05805 0.0014,-0.0091 0.04292,-0.01994 0.01665,-0.02206 -0.327656,0.01088 -0.604537,0.02026 -0.92494,0.03656 0.01363,-0.02691 0.0275,-0.05349 0.04142,-0.0798 0.166849,0.0048 0.324934,-0.01479 0.463071,-0.02204 0.01966,-0.01842 0.03265,-0.05079 0.06621,-0.06074 0.04717,-0.01389 0.140251,-0.002 0.226097,-0.0055 0.148109,-0.0064 0.280809,0.0067 0.402316,0.0055 a 0.27792534,0.27792534 0 0 0 0.05503,-0.06621 c 3.01e-4,0 4.44e-4,-3.01e-4 0.0011,-3.01e-4 -0.163525,0.360302 -0.320705,0.718488 -0.484538,1.074258 -0.06045,0.131487 -0.135109,0.259949 -0.176521,0.402318 0.0085,0.01089 0.01693,0.02145 0.0257,0.03233 -0.0055,0.01512 -0.01149,0.03022 -0.0163,0.04565 0.03232,0.05198 0.0523,0.06016 0.10398,0.127255 a 1.7930391,1.7930391 0 0 0 0.171688,0.170478 c 0.117883,-0.255112 0.220052,-0.520806 0.347306,-0.771687 l 0.104585,-0.231539 a 1.6147482,1.6147482 0 0 1 0.159896,0.06074 c 0.121513,0.05382 0.240908,0.105793 0.358191,0.154158 0.05771,0.02388 0.110326,0.05291 0.16534,0.07738 l 0.732091,0.265391 c 0.03596,0.01238 0.08403,0.03175 0.122419,0.0423 z M 13.94201,16.637698 a 0.74945031,0.74945031 0 0 0 0.07163,-0.126951 0.22549161,0.22549161 0 0 1 0.0411,-0.03175 0.21678812,0.21678812 0 0 0 -0.04262,0.04895 c -0.01688,0.0293 -0.01966,0.06559 -0.03869,0.0937 a 0.26880654,0.26880654 0 0 1 -0.03777,0.04292 c 0.0024,-0.0088 0.0035,-0.01784 0.0065,-0.02691 z m -1.17945,2.155168 c -0.159598,0.107607 -0.32131,0.216423 -0.47758,0.323428 0.183776,-0.224285 0.374508,-0.458845 0.564329,-0.675267 a 0.0274459,0.0274459 0 0 1 0.01665,-0.01665 c 0.130883,0.0073 0.263275,0.01301 0.39053,0.02417 -0.155365,0.114861 -0.32675,0.231233 -0.493906,0.344283 z m 2.913257,-0.694309 c -0.0024,0 -0.0048,-3.01e-4 -0.0069,-3.01e-4 a 0.05201844,0.05201844 0 0 1 0.0096,-0.0055 0.03354958,0.03354958 0 0 0 -0.0026,0.0058 z m 0.371786,0.506601 c -0.05139,-0.02328 -0.10549,-0.04353 -0.161108,-0.06225 a 2.3941571,2.3941571 0 0 1 0.104587,-0.24 c 0.363625,-0.0048 0.765336,0.0062 1.124434,0.02297 -0.349422,0.09975 -0.710936,0.187405 -1.067913,0.279294 z m 7.307926,-0.462469 c 0.01479,-0.02779 0.02992,-0.05501 0.04506,-0.08282 -0.135416,-0.0075 -0.288063,0.02417 -0.396877,0.0055 -0.16232,0.236372 -0.295921,0.521108 -0.441012,0.765945 a 1.0012758,1.0012758 0 0 1 -0.06831,0.112444 C 22.42667,18.660511 22.358965,18.35522 22.265265,18.097991 h -0.121209 c 0.01602,-0.03383 -0.0064,-0.04414 -0.02205,-0.06073 0.0085,-0.03023 0.03328,-0.04415 0.03294,-0.08282 l -0.02205,0.01664 c -0.07466,0.123929 -0.141163,0.250277 -0.204033,0.380253 -0.06197,0.128767 -0.140855,0.249674 -0.209471,0.374813 -0.138137,0.251788 -0.279295,0.502369 -0.40232,0.766248 0.02598,-0.0094 0.02964,-0.0142 0.04957,-0.01 -0.01329,0.02752 -0.02692,0.05471 -0.03991,0.08222 0.02419,-0.02239 0.0293,-0.0085 0.06621,-0.0055 0.108517,-0.02719 0.255115,-0.03505 0.380257,-0.06074 0.117277,-0.211587 0.23758,-0.420154 0.358185,-0.628415 0.05833,0.23184 0.111537,0.469119 0.17078,0.700052 a 2.873396,2.873396 0 0 0 0.319797,-0.01117 c 0.259047,-0.472443 0.521718,-0.940654 0.777133,-1.416425 -0.0145,0 -0.02901,0 -0.04355,3.03e-4 z m 3.717284,2.51577 c 0.0124,0.0064 0.02477,0.01301 0.03718,0.01937 -0.0088,-0.01513 -0.02901,-0.01875 -0.03328,-0.03868 a 0.14805852,0.14805852 0 0 1 0,-0.07708 0.38399074,0.38399074 0 0 1 -0.04957,-0.04957 c -0.0088,0.0045 0,-0.04414 0,-0.04414 q -0.03176,-0.02133 -0.0653,-0.04171 a 0.05108321,0.05108321 0 0 0 0.0029,-0.02389 c -0.553148,-0.322217 -1.116274,-0.630227 -1.664587,-0.953653 -0.103677,-0.06135 -0.208565,-0.120605 -0.312545,-0.181058 -0.0073,-0.03204 -0.0145,-0.06378 -0.02239,-0.09521 -0.05653,-0.03023 -0.111232,-0.06168 -0.165036,-0.09431 a 0.04507414,0.04507414 0 0 0 0.0035,-0.0041 c 0.01936,-0.01 0.03777,-0.01513 0.06074,-0.02752 -0.02176,-0.01419 -0.04413,-0.02812 -0.06649,-0.04203 a 0.31271272,0.31271272 0 0 1 0.06771,-0.03053 c -0.04413,-0.02841 -0.0937,-0.06469 -0.143275,-0.0937 -0.103375,-0.06046 -0.20554,-0.124229 -0.303173,-0.181965 -0.02964,-0.01753 -0.06074,-0.03175 -0.08977,-0.04895 0.152339,-0.08312 0.309821,-0.162619 0.468512,-0.248162 0.08675,-0.04656 0.177435,-0.09038 0.264788,-0.137834 0.124834,-0.06771 0.263275,-0.115162 0.347307,-0.209471 0.199796,-0.09612 0.395666,-0.195868 0.595161,-0.292292 0.08645,-0.113954 0.137835,-0.262671 0.281111,-0.319799 0.01363,-0.03114 0.05046,-0.07254 0.05501,-0.0937 0,3.03e-4 -0.0051,-3.02e-4 -0.0055,0 -0.04413,0.02601 -0.09008,0.05018 -0.136019,0.07406 a 0.27446772,0.27446772 0 0 1 0.08221,-0.0529 c 0.01572,-0.01903 0.02176,-0.04776 0.04413,-0.06073 -2.98e-4,-0.01664 0.01177,-0.02146 0.01665,-0.03294 0.0058,-0.0031 0.03503,-0.02297 0.0109,-0.02205 -0.402322,0.217934 -0.825793,0.402924 -1.240205,0.606349 -0.394457,0.193753 -0.791335,0.384484 -1.183378,0.578539 0.08282,-0.156574 0.168362,-0.310125 0.250583,-0.467306 l -0.04171,0.002 c 0.01419,-0.02659 0.02871,-0.0532 0.04292,-0.0798 -0.15053,-0.0055 -0.272642,0.01753 -0.424382,0.01116 -0.02929,-0.0035 -0.02812,-0.03807 -0.04957,-0.04957 -0.207359,0.38237 -0.414411,0.765041 -0.617233,1.151943 0.0073,0.01513 0.01543,0.03265 0.02356,0.05046 l -0.0026,0.0055 c -0.06588,0.124533 -0.142066,0.246045 -0.192846,0.380253 0.0804,0.09612 0.217935,0.182569 0.33068,0.264484 a 1.3959297,1.3959297 0 0 1 0.104665,-0.209517 c 0.112443,-0.201916 0.225795,-0.402622 0.33612,-0.606349 0.197081,0.09673 0.38237,0.20554 0.567659,0.314055 0.01722,0.01602 0.02628,0.03991 0.04957,0.04957 0.451282,0.25088 0.913451,0.491183 1.372597,0.738741 0.45884,0.247256 0.920101,0.49451 1.378036,0.727558 -0.01,0.0017 0.0272,0.03081 0.03294,0.01665 a 0.10074578,0.10074578 0 0 1 -0.01839,-0.07982 z"/>
 <path style="fill:#ac7f5c" d="m 21.951211,7.2908302 c -0.09571,1.2593794 0.109548,1.2721101 0.03006,1.678808 -0.08698,0.4450378 -0.168381,0.78868 -0.166222,1.1506828 0.0029,0.487046 -0.312782,0.792072 -0.449359,1.254372 -0.18466,0.62506 -0.221425,1.385577 -0.385471,1.845241 -0.22073,0.618493 -0.653285,0.912292 -1.144152,0.723365 -1.13687,-0.437564 -2.05976,-0.725998 -2.782734,-1.415852 C 15.481862,11.027967 15.000148,8.2188346 15.000148,7.0919095 15.000148,5.384295 16.528465,4 18.413738,4.0000001 20.299011,4 22.08063,5.5880107 21.951213,7.2908302 Z"/>
 <path style="fill:url(#linearGradient891)" d="m 20.228977,10.104529 0.713388,-0.275428 c -0.115142,0.01625 0.162665,0.998968 0.399751,1.5712 0.06568,0.158531 0.01427,0.303523 -0.02809,0.364607 -0.101198,0.145917 -0.499346,-0.09314 -0.815869,-0.183389 -0.247767,-0.07065 -0.284664,0.07628 -0.284664,0.07628 -0.312961,0.02923 -0.135759,-0.233171 -0.04392,-0.62452 0.07062,-0.300925 0.02747,-0.709363 0.05941,-0.928749 z"/>
 <path style="opacity:0.6" d="m 18.618287,9.9650953 1.254348,-0.076508 0.2168,0.045907 c 0,0 -0.139372,0.4682347 -1.471148,0.0306 z"/>
 <path style="opacity:0.6" d="m 21.751396,9.530571 -0.416908,0.2384465 -0.126393,0.10644 c 0,0 0.329306,0.3387355 0.543301,-0.3448879 z"/>
 <path style="fill:#67553c" d="M 18.41433,4.0000606 C 16.529056,4.0000606 15,5.3849101 15,7.0925245 c 0,0.6522443 0.170726,1.8669322 0.611354,3.0661395 0.588708,0.01846 1.305438,-0.2965001 1.305438,-0.2965001 0,0 1.408798,-1.2474008 1.449864,-2.8638537 0.787388,0.4051443 1.964265,0.8989508 2.971238,0.7398629 C 21.682333,7.6837588 21.813716,7.2969102 21.93803,6.8556024 21.768037,5.32728 20.137427,4.0000606 18.41433,4.0000606 Z"/>
 <path style="fill:url(#linearGradient899)" d="M 15.163461,8.7313939 C 15.390622,8.267311 15.68596,8.409541 15.985998,8.5935467 c 0.411537,0.1459657 0.386131,0.3937479 0.411366,0.5746243 l 0.109069,1.197464 c 0.01152,0.241663 -0.254685,0.236978 -0.254685,0.236978 L 15.92599,10.502024 C 14.945427,9.9118139 15.051951,9.3216039 15.163461,8.7313939 Z"/>
 <path style="fill:#ac5c5c" d="m 20.664758,12.334326 c 0.21499,-0.07183 0.569213,-0.369104 0.569213,-0.369104 0,0 -0.132931,0.492286 -0.462486,0.63275 -0.329555,0.140464 -1.351882,-0.175764 -1.351882,-0.175764 0,0 0.850966,0.04381 1.245155,-0.08788 z"/>
 <path style="fill:#8b9cbe;opacity:0.2" d="M 4.0996094 2 C 2.9362094 2 2 2.9362094 2 4.0996094 L 2 5.0996094 C 2 3.9362094 2.9362094 3 4.0996094 3 L 27.900391 3 C 29.063791 3 30 3.9362094 30 5.0996094 L 30 4.0996094 C 30 2.9362094 29.063791 2 27.900391 2 L 4.0996094 2 z"/>
</svg>
