<svg xmlns="http://www.w3.org/2000/svg" width="32" height="32" version="1.1">
 <path style="fill:#f4b400" d="m16 2a14 14 0 0 0 -14 14 14 14 0 0 0 14 14 14 14 0 0 0 14 -14 14 14 0 0 0 -14 -14z"/>
 <path style="opacity:.2;fill:#8b9cbe" d="m16 2a14.00025 14.010759 0 0 0 -14 14.010993 14.00025 14.010759 0 0 0 0.0107422 0.203086 14.00025 14.010759 0 0 1 13.9892578 -13.7141746 14.00025 14.010759 0 0 1 13.989258 13.8000956 14.00025 14.010759 0 0 0 0.010742 -0.289007 14.00025 14.010759 0 0 0 -14 -14.010993z"/>
 <path style="opacity:.2" d="m2.0107422 16.25a14 13.961728 0 0 0 -0.0107422 0.288273 14 13.961728 0 0 0 14 13.961727 14 13.961728 0 0 0 14 -13.961727 14 13.961728 0 0 0 -0.010742 -0.202571 14 13.961728 0 0 1 -13.989258 13.665665 14 13.961728 0 0 1 -13.9892578 -13.751367z"/>
 <g style="opacity:.3" transform="matrix(.5 0 0 .5 -2.2798949e-7 .5001513)">
  <path d="m21 31.411697-2.472136-5.009094-5.527864-0.803245 4-3.899037-0.944272-5.505527 4.944272 2.599357 4.944271-2.599357-0.944271 5.505527l4 3.899036-5.527864 0.803246z"/>
  <path d="m40 26.608452-2.472136-5.009095-5.527864-0.803245 4-3.899036-0.944272-5.505528 4.944272 2.599358 4.944271-2.599358-0.944271 5.505528l4 3.899036-5.527864 0.803246z"/>
  <path d="m23 51.411697-2.472136-5.009094-5.527864-0.803245 4-3.899037-0.944272-5.505527 4.944272 2.599357 4.944271-2.599357-0.944271 5.505527l4 3.899036-5.527864 0.803246z"/>
  <path d="m45 45.411697-2.472136-5.009094-5.527864-0.803245 4-3.899037-0.944272-5.505527 4.944272 2.599357 4.944271-2.599357-0.944271 5.505527l4 3.899036-5.527864 0.803246z"/>
 </g>
 <path style="fill:#8b9cbe" d="m10.5 15.705849-1.236068-2.504548-2.7639318-0.401622 1.9999999-1.949518-0.472136-2.752764 2.4721359 1.2996787 2.472136-1.2996788-0.472136 2.7527641l2 1.949518-2.763932 0.401623z"/>
 <g transform="scale(.5)">
  <path style="fill:#8b9cbe" d="m40 26.608452-2.472136-5.009095-5.527864-0.803245 4-3.899036-0.944272-5.505528 4.944272 2.599358 4.944271-2.599358-0.944271 5.505528l4 3.899036-5.527864 0.803246z"/>
 </g>
 <path style="fill:#8b9cbe" d="m11.5 25.705849-1.236068-2.504548-2.7639318-0.401622 1.9999999-1.949518-0.472136-2.752764 2.4721359 1.299679 2.472136-1.299679-0.472136 2.752764l2 1.949518-2.763932 0.401623z"/>
 <g transform="scale(.5)">
  <path style="fill:#8b9cbe" d="m45 45.411697-2.472136-5.009094-5.527864-0.803245 4-3.899037-0.944272-5.505527 4.944272 2.599357 4.944271-2.599357-0.944271 5.505527l4 3.899036-5.527864 0.803246z"/>
 </g>
 <g transform="matrix(.5 0 0 .5 8.5258602e-8 .02568362)">
  <g transform="matrix(1.0285714,0,0,1.0285714,-1.7142865,-1.701158)">
   <g style="opacity:.3;stroke:#000000" transform="matrix(1.0590144,0,0,1.1482519,-3.5495395,-8.0126388)">
    <path style="stroke-linejoin:round;stroke:#000000;stroke-linecap:round;stroke-width:4.55467606;fill:none" d="m57.721022 39.515725-5.693342 18.218703-5.693346-18.218703"/>
    <path style="stroke:#000000;stroke-width:4.55467606;stroke-linecap:round;fill:none" d="m40.639906 39.499973-11.386675 18.218703m0-18.218703 11.386675 18.218703"/>
   </g>
   <g transform="matrix(1.0590144,0,0,1.1482519,-3.5495395,-8.9221609)">
    <path style="stroke-linejoin:round;stroke:#c2352a;stroke-linecap:round;stroke-width:4.55467606;fill:none" d="m57.721022 39.515725-5.693342 18.218703-5.693346-18.218703"/>
    <path style="stroke:#c2352a;stroke-width:4.55467606;stroke-linecap:round;fill:none" d="m40.639906 39.499973-11.386675 18.218703m0-18.218703 11.386675 18.218703"/>
   </g>
  </g>
 </g>
</svg>
