<svg width="32" height="32" version="1.1" xmlns="http://www.w3.org/2000/svg">
 <circle cx="16" cy="17" r="14" style="opacity:.2"/>
 <circle cx="16" cy="16" r="14" style="fill:#4fc8f3"/>
 <path d="M 16,2 A 14,14 0 0 0 2,16 14,14 0 0 0 2.0215,16.586 14,14 0 0 1 16,3 14,14 0 0 1 29.979,16.414 14,14 0 0 0 30,16 14,14 0 0 0 16,2 Z" style="fill:#8b9cbe;opacity:.2"/>
 <path d="m16 3.0585938a14 14 0 0 0-1 0.037109v1.962891c0 0.554 0.446 1 1 1s1-0.446 1-1v-1.9492188a14 14 0 0 0-1-0.0507812zm-5 0.9277344a14 14 0 0 0-1.9746086 0.953125c0.249914 2.8591616 3.2722226 5.1191408 6.9746086 5.1191408 3.704892 0 6.728294-2.2630902 6.974609-5.1250002a14 14 0 0 0-1.974609-0.9335938v0.5371094c0 1.5214844-0.07896 3.4484234-5 3.5214844-2.761424 0-5-1.0670034-5-3z" style="opacity:.2"/>
 <path d="m16 2a14 14 0 0 0-1 0.0371094v1.9628906c0 0.554 0.446 1 1 1s1-0.446 1-1v-1.9492188a14 14 0 0 0-1-0.0507812zm-5 0.9277344a14 14 0 0 0-1.9746094 0.953125c0.2499146 2.8591616 3.2722234 5.1191406 6.9746094 5.1191406 3.704892 0 6.728294-2.26309 6.974609-5.125a14 14 0 0 0-1.974609-0.9335938v0.5371094c0 1.5214844-0.078963 3.4484234-5 3.5214844-2.761424 0-5-1.0670034-5-3v-1.0722656z" style="fill:#8b9cbe"/>
 <path d="m10.984375 11.986328a1.0001 1.0001 0 0 0-0.984375 1.013672v5a1.0001 1.0001 0 1 0 2 0v-5a1.0001 1.0001 0 0 0-1.015625-1.013672zm10 0a1.0001 1.0001 0 0 0-0.984375 1.013672v5a1.0001 1.0001 0 1 0 2 0v-5a1.0001 1.0001 0 0 0-1.015625-1.013672zm-0.984375 9.013672a1.0001 1.0001 0 1 0 0 2h-9a1.0001 1.0001 0 1 0 0 2h10a1.0001 1.0001 0 0 0 0.707031-0.292969c0.735703-0.735702 0.826515-1.770455 0.617188-2.398437-0.209328-0.627982-0.617188-1.015625-0.617188-1.015625a1.0001 1.0001 0 0 0-0.707031-0.292969h-1z" style="opacity:.2"/>
 <path d="m11 12v5" style="stroke-linecap:round;stroke-linejoin:round;stroke-width:2;stroke:#f2f2f2"/>
 <path d="m21 12v5" style="stroke-linecap:round;stroke-linejoin:round;stroke-width:2;stroke:#8b9cbe"/>
 <path d="m6 19a1.0001 1.0001 0 1 0 0 2h3a1.0001 1.0001 0 1 0 0-2z" style="opacity:.2"/>
 <path d="m6 19h3" style="fill:none;stroke-linecap:round;stroke-linejoin:round;stroke-width:2;stroke:#f8bfd5"/>
 <path d="m23 19a1.0001 1.0001 0 1 0 0 2h3a1.0001 1.0001 0 1 0 0-2z" style="opacity:.2"/>
 <path d="m23 19h3" style="fill:none;stroke-linecap:round;stroke-linejoin:round;stroke-width:2;stroke:#f8bfd5"/>
 <path d="m11 23h10c1-1 0-2 0-2h-1" style="fill:none;stroke-linecap:round;stroke-linejoin:round;stroke-width:2;stroke:#8b9cbe"/>
</svg>
