<svg xmlns="http://www.w3.org/2000/svg" width="32" height="32" version="1.1">
 <path style="opacity:0.2" d="M 12.815439,22.470836 19.653996,10.243152 28.385468,16.459689 16.995,25.975595 Z"/>
 <circle style="opacity:0.2" cx="15.5" cy="23.5" r="4.5"/>
 <circle style="opacity:0.2" cx="5.5" cy="15.5" r="4.5"/>
 <path style="fill:#2d4461" d="M 12.815439,21.470836 19.653996,9.2431521 28.385468,15.459689 16.995,24.975595 Z"/>
 <circle style="opacity:0.2" cx="24" cy="13" r="7"/>
 <circle style="fill:#3b597f" cx="24" cy="12" r="7"/>
 <circle style="fill:#3b597f" cx="15.5" cy="22.5" r="4.5"/>
 <circle style="fill:#3b597f" cx="5.5" cy="14.5" r="4.5"/>
 <path style="opacity:0.1;fill:#8b9cbe" d="M 15.5 18 A 4.5 4.5 0 0 0 11 22.5 A 4.5 4.5 0 0 0 11.033203 22.988281 A 4.5 4.5 0 0 1 15.5 19 A 4.5 4.5 0 0 1 19.966797 23.011719 A 4.5 4.5 0 0 0 20 22.5 A 4.5 4.5 0 0 0 15.5 18 z"/>
 <path style="opacity:0.2;fill:none;stroke:#000000;stroke-width:5;stroke-linecap:round" d="m 5.5,15.499663 10,8"/>
 <path style="fill:none;stroke:#3db8ff;stroke-width:5;stroke-linecap:round" d="m 5.5,14.5 10,8"/>
 <circle style="opacity:0.2" cx="24" cy="13" r="4"/>
 <circle style="fill:#3db8ff" cx="24" cy="12" r="4"/>
 <path style="opacity:0.1;fill:#8b9cbe" d="M 24 5 A 7 7 0 0 0 17 12 A 7 7 0 0 0 17.023438 12.541016 A 7 7 0 0 1 24 6 A 7 7 0 0 1 30.976562 12.458984 A 7 7 0 0 0 31 12 A 7 7 0 0 0 24 5 z"/>
 <path style="opacity:0.1;fill:#8b9cbe" d="M 5.5 10 A 4.5 4.5 0 0 0 1 14.5 A 4.5 4.5 0 0 0 1.0332031 14.988281 A 4.5 4.5 0 0 1 5.5 11 A 4.5 4.5 0 0 1 9.9667969 15.011719 A 4.5 4.5 0 0 0 10 14.5 A 4.5 4.5 0 0 0 5.5 10 z"/>
 <path style="opacity:0.2;fill:#8b9cbe" d="M 24 8 A 4 4 0 0 0 20 12 A 4 4 0 0 0 20.035156 12.494141 A 4 4 0 0 1 24 9 A 4 4 0 0 1 27.964844 12.505859 A 4 4 0 0 0 28 12 A 4 4 0 0 0 24 8 z"/>
 <path style="opacity:0.2;fill:#8b9cbe" d="M 5.4453125 11.978516 A 2.50025 2.50025 0 0 0 3.0253906 14.978516 A 2.50025 2.50025 0 0 1 5.4453125 12.978516 A 2.50025 2.50025 0 0 1 7.0625 13.546875 L 17.0625 21.546875 A 2.5012204 2.5012204 0 0 1 17.947266 23.001953 A 2.5012204 2.5012204 0 0 0 17.0625 20.546875 L 7.0625 12.546875 A 2.50025 2.50025 0 0 0 5.4453125 11.978516 z"/>
</svg>
