<svg width="32" height="32" version="1.1" xmlns="http://www.w3.org/2000/svg">
 <path d="M 16.000001,3.000001 C 10.923078,3.000001 5,11.555556 5,18.555556 5,23.701705 9.23077,31 16.000001,31 22.769231,31 27,23.701705 27,18.555556 27,12.333334 21.076923,3.000001 16.000001,3.000001 Z" style="opacity:.2"/>
 <path d="M 16.000001,2.0000014 C 10.923078,2.0000014 5,10.555556 5,17.555556 5,22.701705 9.23077,30 16.000001,30 22.769231,30 27,22.701705 27,17.555556 27,11.333334 21.076923,2.0000014 16.000001,2.0000014 Z" style="fill:#7a9a76"/>
 <path d="m8 18 4 5 1.199219 5.900391s0.073612 0.339344 0.296875 0.74414c0.790224 0.225761 1.624231 0.355469 2.503906 0.355469 0.43993 0 0.867134-0.034693 1.285156-0.09375 0.491117-0.858039 0.714844-1.90625 0.714844-1.90625l4-3 1-4-3 4-3 2-4-6-5-3z" style="opacity:.2"/>
 <path d="m17.169922 2.171875a7.5 14 8.644801 0 0-7.9472658 12.632813 7.5 14 8.644801 0 0 5.3105468 14.96875 7.5 14 8.644801 0 0 9.519531-12.714844 7.5 14 8.644801 0 0-0.419922-9.2539065c-1.83003-2.8046052-4.175426-5.0366648-6.46289-5.6328125z" style="opacity:.2"/>
 <path d="m8 17 4 5 1.2 5.9s0.397729 2.1 2.668 2.1c1.513513 0 2.132-3 2.132-3l4-3 1-4-3 4-3 2-4-6z" style="fill:#ecff50"/>
 <path d="M 16 2 C 10.923077 2 5 10.554687 5 17.554688 C 5 17.720593 5.0166529 17.894391 5.0253906 18.064453 C 5.2888596 11.161084 11.040203 3 16 3 C 20.953914 3 26.696469 11.878403 26.972656 18.089844 C 26.982284 17.911099 27 17.728868 27 17.554688 C 27 11.332466 21.076922 2 16 2 z " style="fill:#8b9cbe;opacity:.2"/>
</svg>
