<svg width="32" height="32" version="1.1" xmlns="http://www.w3.org/2000/svg">
 <circle cx="16" cy="17" r="14" style="opacity:.2"/>
 <circle cx="16" cy="16" r="14" style="fill:#f14223"/>
 <circle cx="16" cy="16" r="10" style="fill:#4e59b3"/>
 <path d="M 16,7 A 10,10 0 0 0 6,17 10,10 0 0 0 16,27 10,10 0 0 0 26,17 10,10 0 0 0 16,7 Z m 0,2 a 7.9992187,7.9992187 0 0 1 2.46875,0.3964844 L 17.332031,11.666016 16,14.333984 14.667969,11.666016 13.533203,9.4003906 A 7.9992187,7.9992187 0 0 1 16,9 Z m -3.632812,0.8730469 0.80664,2.4140621 0.941406,2.828125 -2.828125,-0.941406 -2.4062496,-0.802734 a 7.9992187,7.9992187 0 0 1 1.5449216,-2.109375 7.9992187,7.9992187 0 0 1 1.941407,-1.3886721 z m 7.261718,0.00781 a 7.9992187,7.9992187 0 0 1 2.109375,1.5449221 7.9992187,7.9992187 0 0 1 1.388672,1.941407 l -2.414062,0.80664 -2.828125,0.941406 0.941406,-2.828125 z M 8.3964844,14.53125 10.666016,15.667969 13.333984,17 10.666016,18.332031 8.4003906,19.466797 A 7.9992187,7.9992187 0 0 1 8,17 7.9992187,7.9992187 0 0 1 8.3964844,14.53125 Z m 15.2031246,0.002 A 7.9992187,7.9992187 0 0 1 24,17 7.9992187,7.9992187 0 0 1 23.603516,19.46875 L 21.333984,18.332031 18.666016,17 21.333984,15.667969 23.599609,14.533203 Z M 16,15 A 0.66660155,0.66660155 0 0 1 16.667969,15.667969 0.66660155,0.66660155 0 0 1 16,16.332031 0.66660155,0.66660155 0 0 1 15.332031,15.667969 0.66660155,0.66660155 0 0 1 16,15 Z m -1.332031,1.332031 A 0.66660155,0.66660155 0 0 1 15.332031,17 0.66660155,0.66660155 0 0 1 14.667969,17.667969 0.66660155,0.66660155 0 0 1 14,17 0.66660155,0.66660155 0 0 1 14.667969,16.332031 Z m 2.664062,0 A 0.66660155,0.66660155 0 0 1 18,17 0.66660155,0.66660155 0 0 1 17.332031,17.667969 0.66660155,0.66660155 0 0 1 16.667969,17 0.66660155,0.66660155 0 0 1 17.332031,16.332031 Z M 16,17.667969 A 0.66660155,0.66660155 0 0 1 16.667969,18.332031 0.66660155,0.66660155 0 0 1 16,19 0.66660155,0.66660155 0 0 1 15.332031,18.332031 0.66660155,0.66660155 0 0 1 16,17.667969 Z m -1.884766,1.216797 -0.941406,2.828125 -0.802734,2.40625 A 7.9992187,7.9992187 0 0 1 10.261719,22.574219 7.9992187,7.9992187 0 0 1 8.8730469,20.632812 l 2.4140621,-0.80664 z m 3.769532,0 2.828125,0.941406 2.40625,0.802734 a 7.9992187,7.9992187 0 0 1 -1.544922,2.109375 7.9992187,7.9992187 0 0 1 -1.941407,1.388672 l -0.80664,-2.414062 z M 16,19.666016 l 1.332031,2.667968 1.134766,2.265625 A 7.9992187,7.9992187 0 0 1 16,25 7.9992187,7.9992187 0 0 1 13.53125,24.603516 l 1.136719,-2.269532 z" style="opacity:.2"/>
 <path d="M 16,6 A 10,10 0 0 0 6,16 10,10 0 0 0 16,26 10,10 0 0 0 26,16 10,10 0 0 0 16,6 Z m 0,2 a 7.9992187,7.9992187 0 0 1 2.46875,0.3964844 L 17.332031,10.666016 16,13.333984 14.667969,10.666016 13.533203,8.4003906 A 7.9992187,7.9992187 0 0 1 16,8 Z m -3.632812,0.8730469 0.80664,2.4140621 0.941406,2.828125 -2.828125,-0.941406 -2.4062496,-0.802734 a 7.9992187,7.9992187 0 0 1 1.5449216,-2.109375 7.9992187,7.9992187 0 0 1 1.941407,-1.3886721 z m 7.261718,0.00781 a 7.9992187,7.9992187 0 0 1 2.109375,1.5449221 7.9992187,7.9992187 0 0 1 1.388672,1.941407 l -2.414062,0.80664 -2.828125,0.941406 0.941406,-2.828125 z M 8.3964844,13.53125 10.666016,14.667969 13.333984,16 10.666016,17.332031 8.4003906,18.466797 A 7.9992187,7.9992187 0 0 1 8,16 7.9992187,7.9992187 0 0 1 8.3964844,13.53125 Z m 15.2031246,0.002 A 7.9992187,7.9992187 0 0 1 24,16 7.9992187,7.9992187 0 0 1 23.603516,18.46875 L 21.333984,17.332031 18.666016,16 21.333984,14.667969 Z M 16,14 A 0.66660155,0.66660155 0 0 1 16.667969,14.667969 0.66660155,0.66660155 0 0 1 16,15.332031 0.66660155,0.66660155 0 0 1 15.332031,14.667969 0.66660155,0.66660155 0 0 1 16,14 Z m -1.332031,1.332031 A 0.66660155,0.66660155 0 0 1 15.332031,16 0.66660155,0.66660155 0 0 1 14.667969,16.667969 0.66660155,0.66660155 0 0 1 14,16 0.66660155,0.66660155 0 0 1 14.667969,15.332031 Z m 2.664062,0 A 0.66660155,0.66660155 0 0 1 18,16 0.66660155,0.66660155 0 0 1 17.332031,16.667969 0.66660155,0.66660155 0 0 1 16.667969,16 0.66660155,0.66660155 0 0 1 17.332031,15.332031 Z M 16,16.667969 A 0.66660155,0.66660155 0 0 1 16.667969,17.332031 0.66660155,0.66660155 0 0 1 16,18 0.66660155,0.66660155 0 0 1 15.332031,17.332031 0.66660155,0.66660155 0 0 1 16,16.667969 Z m -1.884766,1.216797 -0.941406,2.828125 -0.802734,2.40625 A 7.9992187,7.9992187 0 0 1 10.261719,21.574219 7.9992187,7.9992187 0 0 1 8.8730469,19.632812 l 2.4140621,-0.80664 z m 3.769532,0 2.828125,0.941406 2.40625,0.802734 a 7.9992187,7.9992187 0 0 1 -1.544922,2.109375 7.9992187,7.9992187 0 0 1 -1.941407,1.388672 l -0.80664,-2.414062 z M 16,18.666016 l 1.332031,2.667968 1.134766,2.265625 A 7.9992187,7.9992187 0 0 1 16,24 7.9992187,7.9992187 0 0 1 13.53125,23.603516 l 1.136719,-2.269532 z" style="fill:#8b9cbe"/>
 <path d="M 16,2 A 14,14 0 0 0 2,16 14,14 0 0 0 2.0214844,16.585938 14,14 0 0 1 16,3 14,14 0 0 1 29.978516,16.414062 14,14 0 0 0 30,16 14,14 0 0 0 16,2 Z" style="fill:#8b9cbe;opacity:.2"/>
</svg>
