<svg xmlns="http://www.w3.org/2000/svg" width="32" height="32" version="1.1">
 <path style="opacity:.2" d="M 14,6 C 12.395927,6 11.063958,7.3428081 11.025391,8.9394531 10.493962,8.4408521 9.8055326,8 9,8 H 6 C 4.8333333,8 3.6994514,8.8784409 3.3359375,9.6054688 2.9724236,10.332497 3,11 3,11 V 24 C 3,24 2.972424,24.667503 3.3359375,25.394531 3.6994514,26.121559 4.8333333,27 6,27 h 16 c 2.9,0 4.867316,-0.964998 5.912109,-2.21875 C 28.956902,23.527498 29,22 29,22 V 11 C 29,11 29.02758,10.332497 28.664062,9.6054688 28.300549,8.8784409 27.166667,8 26,8 H 20.578125 C 20.129606,6.8983667 19.241698,6 18,6 Z"/>
 <path style="fill:#bfbfbf" d="M 14,5 C 12.395927,5 11.063958,6.3428081 11.025391,7.9394531 10.493962,7.4408521 9.8055326,7 9,7 H 6 C 4.8333333,7 3.6994514,7.8784409 3.3359375,8.6054688 2.9724236,9.3324966 3,10 3,10 V 23 C 3,23 2.972424,23.667503 3.3359375,24.394531 3.6994514,25.121559 4.8333333,26 6,26 h 16 c 2.9,0 4.867316,-0.964998 5.912109,-2.21875 C 28.956902,22.527498 29,21 29,21 V 10 C 29,10 29.027576,9.3324966 28.664062,8.6054688 28.300549,7.8784409 27.166667,7 26,7 H 20.578125 C 20.129606,5.8983667 19.241698,5 18,5 Z"/>
 <path style="opacity:0.1" d="m 14,8 c -0.554,0 -1,0.446 -1,1 v 2 c 0,0.554 0.446,1 1,1 h 4 c 0.554,0 1,-0.446 1,-1 V 9 C 19,8.446 18.554,8 18,8 Z m -8,2 c -1,0 -1,1 -1,1 v 13 c 0,0 0,1 1,1 h 16 c 5,0 5,-3 5,-3 V 11 c 0,0 0,-1 -1,-1 h -4 v 9 c 0,2 -2,2 -2,2 h -9 c -1,0 -1,-1 -1,-1 v -9 c 0,0 0,-1 -1,-1 z"/>
 <path style="fill:#2e56b2" d="m 14,7 c -0.554,0 -1,0.446 -1,1 v 2 c 0,0.554 0.446,1 1,1 h 4 c 0.554,0 1,-0.446 1,-1 V 8 C 19,7.446 18.554,7 18,7 Z M 6,9 C 5,9 5,10 5,10 v 13 c 0,0 0,1 1,1 h 16 c 5,0 5,-3 5,-3 V 10 c 0,0 0,-1 -1,-1 h -4 v 9 c 0,2 -2,2 -2,2 h -9 c -1,0 -1,-1 -1,-1 v -9 c 0,0 0,-1 -1,-1 z"/>
 <path style="fill:#8b9cbe;opacity:.2" d="M 14 5 C 12.395927 5 11.063958 6.3428081 11.025391 7.9394531 C 10.493962 7.4408521 9.8055326 7 9 7 L 6 7 C 4.8333333 7 3.6994514 7.8784408 3.3359375 8.6054688 C 2.9724236 9.3324966 3 10 3 10 L 3 11 C 3 11 2.9724245 10.332497 3.3359375 9.6054688 C 3.6994515 8.8784409 4.833333 8 6 8 L 9 8 C 9.805533 8 10.493962 8.4408521 11.025391 8.9394531 C 11.063958 7.3428081 12.395927 6 14 6 L 18 6 C 19.241698 6 20.129606 6.8983667 20.578125 8 L 26 8 C 27.166667 8 28.300549 8.8784408 28.664062 9.6054688 C 29.02758 10.332497 29 11 29 11 L 29 10 C 29 10 29.02758 9.3324965 28.664062 8.6054688 C 28.300549 7.8784408 27.166667 7 26 7 L 20.578125 7 C 20.129606 5.8983667 19.241698 5 18 5 L 14 5 z"/>
</svg>
