<svg width="32" height="32" version="1.1" xmlns="http://www.w3.org/2000/svg">
 <path d="m15.854 2.00019-0.01172 0.00781c-7.6819 0.0852-13.842 6.2896-13.842 13.992 0 7.756 6.244 14 14 14 7.6386 0 13.797-6.0599 13.982-13.652 0 0 0.0121-0.23923 0.01758-0.34766v-11c0-1.662-1.338-3-3-3h-11z" style="fill:#57b339"/>
 <path d="m15.854 2.00019-0.01172 0.00781c-7.6819 0.0852-13.842 6.2896-13.842 13.992 0 0.167 0.0197 0.329 0.0254 0.494 0.2649-7.4644 6.3051-13.403 13.817-13.486l0.012-8e-3h11.146c1.662 0 3 1.338 3 3v-1c0-1.662-1.338-3-3-3h-11.146z" style="fill:#8b9cbe;opacity:.2"/>
 <path d="m30 16.00019-0.018 0.348c-0.185 7.592-6.343 13.652-13.982 13.652-7.5891 0-13.714-5.983-13.975-13.506-0.0056 0.169-0.025 0.335-0.025 0.506 0 7.756 6.244 14 14 14 7.639 0 13.797-6.06 13.982-13.652l0.018-0.348z" style="opacity:.2"/>
 <path d="m16 7a10 10 0 0 0-5 1.3554688v3.7558592a7 7 0 0 1 5-2.111328v2a5 5 0 0 0-4.898438 4h-2.101562v-6.1386719a10 10 0 0 0-3 7.1386719 10 10 0 0 0 1.3535156 5h3.7578124a7 7 0 0 1-2.111328-5h2a5 5 0 0 0 4 4.898438v2.101562h-6.1386719a10 10 0 0 0 7.1386719 3 10 10 0 0 0 5-1.355469v-3.755859a7 7 0 0 1-5 2.111328v-2a5 5 0 0 0 4.898438-4h2.101562v6.138672a10 10 0 0 0 3-7.138672 10 10 0 0 0-1.355469-5h-3.755859a7 7 0 0 1 2.111328 5h-2a5 5 0 0 0-4-4.898438v-2.101562h6.138672a10 10 0 0 0-7.138672-3zm0 7a3 3 0 0 1 3 3 3 3 0 0 1-3 3 3 3 0 0 1-3-3 3 3 0 0 1 3-3z" style="opacity:.2"/>
 <path d="m16 6a10 10 0 0 0-5 1.3554688v3.7558592a7 7 0 0 1 5-2.111328v2a5 5 0 0 0-4.898438 4h-2.101562v-6.1386719a10 10 0 0 0-3 7.1386719 10 10 0 0 0 1.3535156 5h3.7578124a7 7 0 0 1-2.111328-5h2a5 5 0 0 0 4 4.898438v2.101562h-6.1386719a10 10 0 0 0 7.1386719 3 10 10 0 0 0 5-1.355469v-3.755859a7 7 0 0 1-5 2.111328v-2a5 5 0 0 0 4.898438-4h2.101562v6.138672a10 10 0 0 0 3-7.138672 10 10 0 0 0-1.355469-5h-3.755859a7 7 0 0 1 2.111328 5h-2a5 5 0 0 0-4-4.898438v-2.101562h6.138672a10 10 0 0 0-7.138672-3zm0 7a3 3 0 0 1 3 3 3 3 0 0 1-3 3 3 3 0 0 1-3-3 3 3 0 0 1 3-3z" style="fill:#efefef"/>
</svg>
