<svg width="32" height="32" version="1.1" xmlns="http://www.w3.org/2000/svg">
 <path d="m16 30c14 0 14-12 14-12s0-14-14-14c-13 0-14 14-14 14s1 12 14 12z" style="opacity:.2"/>
 <path d="m16 29c14 0 14-12 14-12s0-14-14-14c-13 0-14 14-14 14s1 12 14 12z" style="fill:#4f4f4f"/>
 <path d="m8 6c-4 0-6 6-6 6s0 8 5 8c6 0 7-7 7-7s0-7-6-7zm17 1c-4 0-4 6-4 6s1 5 5 5c5 0 4-5 4-5s0-6-5-6z" style="opacity:.2"/>
 <path d="M 16 3 C 3 3 2 17 2 17 C 2 17 2.0202416 17.19483 2.0605469 17.460938 C 2.3819758 14.988122 4.4559536 4 16 4 C 28.431701 4 29.818607 14.987711 29.974609 17.460938 C 29.994149 17.194697 30 17 30 17 C 30 17 30 3 16 3 z " style="fill:#8b9cbe;opacity:.1"/>
 <path d="m7 19c6 0 7-7 7-7s0-7-6-7c-4 0-6 6-6 6s0 8 5 8z" style="fill:#efefef"/>
 <circle cx="6.5" cy="11.5" r="1.5" style="fill:#4f4f4f"/>
 <path d="m26 17c-4 0-5-5-5-5s0-6 4-6c5 0 5 6 5 6s1 5-4 5z" style="fill:#efefef"/>
 <circle cx="27.5" cy="11.5" r="1.5" style="fill:#4f4f4f"/>
 <path d="m8 5c-4 0-6 6-6 6s0.0287745 0.468991 0.0546875 0.865234c0.1388507-0.401552 2.0893499-5.865234 5.9453125-5.865234 4.867689 0 5.773904 4.555978 5.947266 6.294922 0.037365-0.184352 0.052734-0.294922 0.052734-0.294922s0-7-6-7zm17 1c-4 0-4 6-4 6s0.0467 0.156087 0.054688 0.191406c0.145891-1.59199 0.807867-5.191406 3.945312-5.191406 5 0 5 6 5 6s0.031064 0.293135 0.054688 0.541016c0.078821-0.857839-0.054688-1.541016-0.054688-1.541016s0-6-5-6z" style="fill:#8b9cbe;opacity:.2"/>
</svg>
