<svg xmlns="http://www.w3.org/2000/svg" width="32" height="32" version="1.1">
 <path style="fill:#61d9e8" d="M 4.1,2 H 27.9 C 29.0634,2 30,2.9366 30,4.1 v 20.3 c 0,1.1634 -0.9366,2.1 -2.1,2.1 H 4.1 C 2.9366,26.5 2,25.5634 2,24.4 V 4.1 C 2,2.9366 2.9366,2 4.1,2 Z"/>
 <path style="opacity:0.1" d="M 17.5,10 A 2.5,2.5 0 0 0 15,12.5 2.5,2.5 0 0 0 17.5,15 2.5,2.5 0 0 0 20,12.5 2.5,2.5 0 0 0 17.5,10 Z m 11.671875,2.746094 c -0.204596,0 -2.716423,0.956196 -5.582031,2.123047 -10.01835,4.079383 -11.632462,4.7344 -15.3496096,6.220703 -2.0593079,0.823417 -4.2959924,1.691113 -4.9921875,1.841797 L 2,23.203125 v 5.697266 C 2,30.063791 2.9362094,31 4.0996094,31 H 27.900391 C 29.063791,31 30,30.063791 30,28.900391 v -5.664063 l -0.697266,0.457031 c -1.240042,1.299508 -1.267355,1.311481 -4.36914,1.902344 -1.042927,0.198667 -1.095174,0.194325 -1.144532,-0.09375 -0.02843,-0.165907 1.295224,-2.998461 2.941407,-6.294922 1.68415,-3.372502 2.954564,-6.095571 2.904297,-6.226562 -0.04913,-0.128036 -0.258294,-0.234375 -0.462891,-0.234375 z M 11.5,14 A 2.5,2.5 0 0 0 9,16.5 2.5,2.5 0 0 0 11.5,19 2.5,2.5 0 0 0 14,16.5 2.5,2.5 0 0 0 11.5,14 Z m 13.003906,2.332031 c 0.107256,0.0013 0.195313,0.08524 0.195313,0.185547 0,0.228613 -2.841036,5.450431 -4.101563,7.539063 -0.517844,0.858046 -1.025438,1.653191 -1.128906,1.767578 -0.152463,0.16856 -0.573548,-0.185312 -2.222656,-1.871094 -2.346728,-2.398907 -2.746521,-2.871706 -2.642578,-3.142578 0.07676,-0.200039 9.544686,-4.482716 9.90039,-4.478516 z m -11.789062,5.205078 c 0.251666,0.01476 0.572264,0.319912 1.419922,1.300782 2.133466,2.468753 2.613578,3.077015 2.558593,3.242187 -0.06247,0.187684 -0.468311,0.295361 -0.603515,0.160156 -0.05031,-0.0503 -0.993787,-0.127222 -2.097656,-0.169922 C 12.24988,26.002868 11.239686,25.892829 8.0878906,25.433594 7.7464929,25.383852 7.3257737,25.256048 7.1523438,25.148438 6.978916,25.040826 6.6327111,24.903943 6.3828125,24.845703 5.9362451,24.741627 5.9333279,24.736856 6.2265625,24.449219 6.5077,24.17344 11.881952,21.729442 12.609375,21.546875 c 0.0344,-0.0086 0.06952,-0.01185 0.105469,-0.0098 z"/>
 <circle style="fill:#3b3b3b" cx="11.5" cy="15.5" r="2.5"/>
 <circle style="fill:#3b3b3b" cx="17.5" cy="11.5" r="2.5"/>
 <path style="fill:#3b3b3b" d="m 29.172851,11.74668 c -0.204596,0 -2.716618,0.955024 -5.582226,2.121875 -10.01835,4.079383 -11.633634,4.7344 -15.3507816,6.220703 -2.0593079,0.823417 -4.2954061,1.692284 -4.9916012,1.842968 L 2,22.20293 V 27.9 C 2,29.0634 2.9366,30 4.1,30 h 23.8 c 1.1634,0 2.1,-0.9366 2.1,-2.1 v -5.662891 l -0.697266,0.455274 c -1.240042,1.299508 -1.267746,1.312262 -4.369531,1.903125 -1.042927,0.198667 -1.094979,0.193735 -1.144336,-0.09434 -0.02843,-0.165907 1.296005,-2.99807 2.942188,-6.294531 1.68415,-3.372502 2.954173,-6.095182 2.903906,-6.226173 -0.04913,-0.128036 -0.257513,-0.233788 -0.46211,-0.233788 z m -4.668944,3.586132 c 0.107256,0.0013 0.195507,0.08426 0.195507,0.184571 0,0.228613 -2.841036,5.451407 -4.101563,7.540039 -0.517844,0.858046 -1.025828,1.653386 -1.129296,1.767773 -0.152463,0.16856 -0.573939,-0.185897 -2.223047,-1.871679 -2.346728,-2.398907 -2.74535,-2.872293 -2.641407,-3.143165 0.07676,-0.200039 9.544102,-4.481739 9.899806,-4.477539 z m -11.789258,5.204883 c 0.251666,0.01476 0.57285,0.319326 1.420508,1.300196 2.133466,2.468753 2.612992,3.076429 2.558007,3.241601 -0.06247,0.187684 -0.467726,0.295166 -0.60293,0.159961 -0.05031,-0.0503 -0.994763,-0.126831 -2.098633,-0.169531 C 12.249294,25.002477 11.239882,24.893415 8.0880862,24.43418 7.7466885,24.384438 7.3249924,24.256048 7.1515625,24.148437 6.9781347,24.040826 6.6317348,23.904529 6.3818362,23.846289 5.9352688,23.742213 5.9327417,23.736074 6.2259763,23.448437 c 0.2811375,-0.275779 5.6559757,-2.718604 6.3833987,-2.901171 0.0344,-0.0086 0.06932,-0.01168 0.105274,-0.0096 z"/>
 <path style="opacity:0.2" d="M 25.039607,4 V 5.8805803 L 23.410143,4.9402901 23.053,5.5597099 24.681069,6.5 23.053,7.44029 23.410143,8.05971 25.039607,7.11942 V 9 h 0.714286 V 7.11942 L 27.383357,8.05971 27.7405,7.44029 26.112431,6.5 27.7405,5.5597099 27.383357,4.9402901 25.753893,5.8805803 V 4 Z"/>
 <path style="fill:#8b9cbe" d="M 25.039607,3 V 4.8805803 L 23.410143,3.9402901 23.053,4.5597099 24.681069,5.5 23.053,6.44029 23.410143,7.05971 25.039607,6.11942 V 8 h 0.714286 V 6.11942 L 27.383357,7.05971 27.7405,6.44029 26.112431,5.5 27.7405,4.5597099 27.383357,3.9402901 25.753893,4.8805803 V 3 Z"/>
 <path style="fill:#8b9cbe;opacity:0.2" d="M 4.0996094 2 C 2.9362094 2 2 2.9362094 2 4.0996094 L 2 5.0996094 C 2 3.9362094 2.9362094 3 4.0996094 3 L 27.900391 3 C 29.063791 3 30 3.9362094 30 5.0996094 L 30 4.0996094 C 30 2.9362094 29.063791 2 27.900391 2 L 4.0996094 2 z"/>
</svg>
