<svg xmlns="http://www.w3.org/2000/svg" width="32" height="32" version="1">
 <path style="opacity:0.2" d="m 14.400391,3.0021721 c -2.227968,0.041999 -4.099574,0.013973 -6.3242191,0.1328125 L 6.0683594,5.3869378 6,28.199438 6.00977,28.197438 6,31.301 l 6.048828,-1.75 c 0.221217,-0.846951 0.211374,-2.708126 0.148438,-4.365234 0.04893,-0.880041 0.0405,-1.959037 0.0039,-2.986328 h 2.708984 l 4.716797,6.576172 6.433594,-1.271485 v -3.099609 h 0.002 l -4.123047,-5.451172 c 1.342783,-1.270109 2.911732,-2.658687 2.878906,-4.226563 0.23906,-1.651246 0.339612,-3.012285 0.111329,-4.130859 C 25.286619,6.8747639 24.310414,4.7975223 19.773438,3.7150628 18.015296,3.2915718 16.214745,2.9740584 14.400391,3.0021721 Z m 0.890625,8.0019529 c 1.247842,-0.0081 2.497479,6e-4 2.683593,0 0.299699,0.258981 0.515358,0.564454 0.669922,0.892578 -0.43995,0.877801 -1.238572,1.583339 -2.341797,1.785157 -1.012145,0.235166 -2.907467,0.93951 -3.849609,0.164062 0,0 -0.174954,-1.030477 -0.298828,-2.185547 0.11084,-0.300642 0.259473,-0.510861 0.464844,-0.5625 0.178356,-0.06153 1.424032,-0.0857 2.671875,-0.09375 z"/>
 <path style="fill:#54545a" d="m 14.399876,5.1016978 c -2.227968,0.041999 -4.100007,0.015141 -6.3246517,0.1339824 L 6.0676618,7.4874083 6.0006699,30.3 12.048344,28.55139 c 0.43275,-1.656824 -0.02051,-7.351271 -0.02051,-7.351271 h 2.881994 l 4.716735,6.574719 6.434687,-1.270101 V 23.405 l -5.429817,-4.082005 c 1.266261,-1.626608 4.231272,-3.446481 4.186273,-5.595824 C 25.45366,9.334465 25.121509,6.9944503 20.173788,5.8139931 18.415646,5.3905021 16.214228,5.0735841 14.399874,5.1016978 Z M 17.975381,10.003 c 1.971298,1.703469 0.661988,5.278705 -2.072986,5.779027 -1.012145,0.235166 -2.907808,0.939508 -3.84995,0.16406 0,0 -0.643373,-5.544389 0.567095,-5.848752 0.356712,-0.1230651 4.983613,-0.09313 5.355841,-0.09433 z"/>
 <path style="fill:#9696a0" d="M 14.399876,2.0017346 C 12.171908,2.043734 10.299869,2.0168782 8.0752243,2.1357172 L 6.0676618,4.3874455 6.0006699,27.200037 12.048344,25.451427 c 0.43275,-1.656824 -0.02051,-7.351271 -0.02051,-7.351271 h 2.881994 l 4.716735,6.574718 6.435267,-1.2701 -5.430397,-7.181742 c 1.266261,-1.626609 4.231272,-3.446481 4.186273,-5.595825 C 25.453663,6.2345017 24.72194,3.8944874 19.774219,2.7140299 18.016077,2.290539 16.21423,1.9736209 14.399876,2.0017346 Z m 3.575505,4.9013025 c 1.971298,1.7034682 1.061559,5.2787049 -1.673415,5.7790259 -1.012145,0.235166 -2.90708,0.939509 -3.849222,0.164061 0,0 -1.043672,-5.5443897 0.166796,-5.848752 0.356712,-0.1230654 4.983613,-0.093127 5.355841,-0.094335 z"/>
 <path style="opacity:0.15" d="m 12.38125,2.02616 c -0.169831,0.00163 -0.349679,0.00372 -0.518157,0.00547 0.01186,0.069404 0.01551,0.1433608 0.01094,0.2242158 -0.466136,0.2849306 -1.126945,0.2806975 -1.640604,0.1380841 -0.0316,-0.1232536 -0.0352,-0.2322444 -0.02598,-0.3335893 -0.2260861,0.00497 -0.453798,0.00938 -0.6835854,0.016406 C 9.2540571,2.5756732 8.8297465,3.1267178 8.6816921,3.4165693 8.860103,4.7473212 8.7069268,6.0964808 8.5518109,7.4278447 8.4175954,7.9916845 7.2204053,6.9088477 6.9754645,7.7122159 6.7864019,8.3958914 6.3432671,7.9308056 6.0580936,7.5235467 l -0.00413,1.4355279 C 6.7234265,8.9729414 7.527401,9.2595212 8.0623354,8.7457965 9.4318065,8.1107424 8.1676518,9.7220037 7.4648827,9.6358236 c -0.011781,0.5892694 0.7089472,1.3206034 0.6329996,2.1450894 0.6128147,0.526986 -0.073647,1.780894 0.9078006,1.708961 1.0539181,1.106035 2.1823901,-0.256512 2.3744911,-1.29881 0.272417,0.06392 0.634678,0.09903 0.992566,0.170896 C 12.247618,11.625418 11.986841,9.865534 12.061025,8.4778309 11.654677,8.0782649 12.153159,5.7856856 11.464939,6.6731671 11.423059,7.9842835 9.4971394,7.5879795 9.5689564,6.4544199 9.147046,5.3421245 10.262446,4.4468528 10.226565,3.3153988 10.86683,2.7859999 11.767054,3.0224872 12.539816,2.9695049 Z M 9.6154659,2.8587663 c 0.063664,-0.009 0.1301549,0.00454 0.1955053,0.050585 C 9.7958514,3.0705905 9.684751,3.2017216 9.5867558,3.3208699 8.8355816,4.1113881 9.1698237,2.9217369 9.6154624,2.8587665 Z M 23.559228,4.4419486 v 0.3705029 c 0.163459,0.1507788 0.294382,0.4858489 0.252927,0.782021 0.105749,0.8075209 -0.05716,0.888036 -0.252927,0.6945221 v 1.5667762 c 0.227134,0.048628 0.406965,0.2429024 0.411519,0.6412028 0.03167,1.9254294 -1.135467,3.3414324 -2.366213,4.6237674 -0.517665,0.467628 -1.415339,1.008949 -2.042909,1.327522 -0.002,-0.903983 1.233416,-1.697029 1.500142,-2.575748 0.541748,-1.007817 -0.605668,-0.583433 -1.067759,-0.870887 0.04101,-1.1923453 -0.964582,-0.06131 -1.315217,-0.172263 -0.230587,0.485425 -0.567716,0.921892 -1.007605,1.253694 -0.266854,0.42088 -0.676709,0.864894 -0.928307,1.045885 -0.464402,0.446782 -1.290039,0.970498 -1.859708,1.285139 -0.240713,-0.382978 -0.191463,-0.821675 -0.534845,-1.271467 -0.242339,0.03652 -0.479471,0.0509 -0.710928,0.04922 0.04497,0.121899 0.07177,0.260867 0.07656,0.421089 0.802262,0.292358 0.872652,1.072614 1.424873,1.689821 0.950257,-1.02788 2.361135,-2.011517 3.15305,-3.171833 0.230537,-0.430358 0.4604,-0.873465 0.721865,-0.206443 1.155773,0.915179 -0.177205,1.445746 -0.544133,2.363837 -0.42078,1.206731 -2.032036,1.835966 -3.26926,1.682985 -1.183188,0.155669 -2.749162,-0.519535 -3.625733,0.538665 -0.539838,0.913215 -1.548317,0.537014 -2.3310252,0.229685 -1.0963891,-0.596265 -2.234488,-1.398039 -2.97496,-2.366575 -0.1989654,-1.336455 -0.2022582,-2.690459 -0.2187471,-4.04272 l -0.016408,5.792697 c 0.06715,1.06229 0.1298595,2.124877 0.1941382,3.186873 0.064784,1.280389 0.1980253,-0.0299 0.1955054,-0.564642 0.1526197,-0.77105 -0.3889261,-3.031397 0.977528,-2.022042 0.9587271,0.5786 1.7594291,1.430968 2.9134387,1.60369 l 1.730837,0.766982 c 0.01076,-0.563764 -0.0317,-1.131203 0.05059,-1.691189 0.188141,-1.39216 2.06278,-1.156083 2.994102,-0.684952 0.83329,1.293617 2.103402,2.267008 2.73844,3.694092 0.626872,0.890748 0.998966,2.168705 1.926343,2.726137 1.305557,-0.03327 2.620995,-0.367285 3.102107,-1.674783 0.765266,-1.236385 1.293361,-0.220947 1.974193,0.313082 l -2.459538,-3.25113 c 0.138326,0.211116 0.276926,0.421901 0.401948,0.641203 -0.171842,0.770962 -0.192083,1.836431 -0.854482,2.490983 -0.624097,0.473739 -1.462599,0.89198 -2.264032,0.798427 -0.410256,-1.01409 -1.237746,-1.850256 -1.599589,-2.897033 0.429258,-1.295557 2.061736,0.417525 3.035117,0.273434 0.466534,-0.530982 -1.123484,-1.171025 -1.543535,-1.53123 -0.53163,-0.893084 -2.685699,0.402062 -2.220283,-0.854481 0.580344,-1.067351 2.039982,-1.641967 3.201911,-1.51619 0.05139,0.07634 0.110116,0.148557 0.162693,0.224215 0.116279,-0.144612 0.248249,-0.29109 0.386909,-0.438861 -0.02818,-0.03268 -0.05595,-0.08087 -0.08476,-0.0998 -0.123651,-0.319889 -0.771281,-0.675382 -0.524993,-0.969324 1.549755,-1.496307 3.101232,-3.039371 4.117914,-4.9614578 0.08834,0.6959168 0.08893,1.4023728 -0.01914,2.0931368 0.165344,-0.373046 0.258448,-0.756767 0.250191,-1.151157 0.10056,-0.6945905 0.162295,-1.3322345 0.183201,-1.9277097 -0.01786,-0.4500297 -0.03139,-0.8990857 -0.04511,-1.348029 C 24.818877,6.1619127 24.39829,5.2050327 23.559236,4.4419486 Z M 9.1260197,6.8249251 c 0.025431,-0.015407 0.064028,-0.015526 0.1189439,0.00686 0.1585108,0.9518734 -0.296967,0.1010178 -0.1189439,-0.00686 z m 0.9187383,1.9687242 c 1.359689,0.1145101 0.520131,2.1447697 0.403315,3.0774987 l -0.06973,0.244723 -0.07246,0.231052 C 10.124793,13.873093 8.9013213,12.665705 8.7937971,11.791852 8.3299034,10.70673 8.5710152,8.8356627 10.044758,8.7936493 Z m 8.951216,0.8913949 c -0.01429,0.1217221 -0.02579,0.2434967 -0.05195,0.3636668 0.06799,-0.1180197 0.123404,-0.2414351 0.185935,-0.3636668 z m 6.594869,13.0961168 c 0.03039,0.233176 0.04761,0.468321 0.05742,0.705459 l 0.412885,-0.08203 z"/>
 <path style="opacity:0.2;fill:#8b9cbe" d="m 14.400391,2.0019531 c -2.227968,0.041999 -4.099574,0.013973 -6.3242191,0.1328125 L 6.0683594,4.3867188 6,27.199219 h 0.00391 L 6.0683594,5.3867188 8.0761719,3.1347656 c 2.2246451,-0.1188385 4.0962511,-0.090814 6.3242191,-0.1328125 1.814354,-0.028114 3.614905,0.2893996 5.373047,0.7128907 3.770424,0.8995709 5.062742,2.5022661 5.193359,5.1484374 C 25.116942,5.6094333 23.995806,3.7222423 19.773438,2.7148438 18.015296,2.2913527 16.214745,1.9738394 14.400391,2.0019531 Z m 10.564453,7.875 c -0.01124,0.2381769 -0.01087,0.4655559 -0.03516,0.7187499 0.06025,0.295241 0.09535,0.609552 0.113281,0.939453 0.02668,-0.605026 -5.4e-4,-1.151557 -0.07813,-1.6582029 z m -6.634766,1.5117189 c -0.465048,0.638677 -1.142734,1.131143 -2.027344,1.292969 -1.012145,0.235166 -2.907467,0.93951 -3.849609,0.164062 0,0 -0.09585,-0.625277 -0.195313,-1.380859 -0.03439,0.06491 -0.0746,0.116892 -0.103515,0.195312 0.123874,1.15507 0.298828,2.185547 0.298828,2.185547 0.942142,0.775448 2.837464,0.0711 3.849609,-0.164062 1.103225,-0.201818 1.901847,-0.907356 2.341797,-1.785157 -0.08381,-0.177926 -0.191053,-0.347007 -0.314453,-0.507812 z m 4.048828,7.144531 c -0.147485,0.139523 -0.294929,0.28322 -0.439453,0.419922 l 4.121094,5.449219 v -0.998047 h 0.002 z m -10.177734,3.666016 c 0.01182,0.331639 0.01457,0.666017 0.01953,1 0.0043,-0.32977 0.0051,-0.654361 0,-1 z m 0.0039,2.61914 c -0.0044,0.11836 -0.0016,0.254796 -0.0078,0.367188 0.02136,0.562353 0.02126,1.125757 0.02344,1.6875 0.0203,-0.63614 0.0039,-1.345789 -0.01563,-2.054688 z M 6.0058594,28.197266 6,30.300781 h 0.00391 l 0.00586,-2.103515 z"/>
</svg>
