<svg xmlns="http://www.w3.org/2000/svg" height="32" width="32" version="1.1">
 <path d="m9 30s11-2 14 0l0.552948-2 1.447052 1.340622 1.312025-12.25-5.312025-8.75h-10l-4 12.25v7.437867z" style="opacity:.2"/>
 <path d="m8.9999999 29s11-2 14 0l0.552948-2 1.447052 1.340622 1.312025-12.25-5.312025-8.7499996h-10l-4 12.25v7.437867z" style="fill:#4a2803"/>
 <path d="m23 20.592s0 1.75 2 1.75 1.084746-1.75 1.084746-1.75 0.915254-1.75-1.084746-1.75-2 1.75-2 1.75z" style="opacity:.2"/>
 <path d="m23 19.592s0 1.75 2 1.75 1.084746-1.75 1.084746-1.75 0.915254-1.75-1.084746-1.75-2 1.75-2 1.75z" style="fill:#d3aa7b"/>
 <path d="m17 26c-5.999999 0-9.2111621-8.908475-9.2111621-8.908475s1.24054-8.75 9.2405391-8.75c8.000001 0 8.000001 10.5 8.000001 10.5s-2.029377 7.158475-8.029378 7.158475z" style="opacity:.2"/>
 <path d="m16.970622 25.000475c-5.999999 0-9.2111621-8.908475-9.2111621-8.908475s1.24054-8.75 9.2405391-8.75c8.000001 0 8.000001 10.5 8.000001 10.5s-2.029377 7.158475-8.029378 7.158475z" style="fill:#debf9c"/>
 <path d="m16.966101 2.9903048c-4.966096-0.0119353-7.094275 2.8817362-7.720009 3.4034532-0.3222362-0.771873-1.246092-2.393758-3.246092-2.393758l2.5429679 3.070515c-0.210964 0.225803-0.401076 0.451025-0.726562 0.895508l-1.8164059 0.033976s0.4666667 0.520056 1.2773419 0.782918c-1.0847059 1.734381-2.2434436 3.939591-2.2434436 8.172218 0 11.167373 0.9661017 12.638085 0.9661017 12.638085l0.6361582 0.40678 0.3638418-1 2 2v-8s0-2 3-2c-2-3-2-6-2-6s2-2 2-5c3 10 12 9 12.966102 10.008653 0.990792 1.03443 0.0339 5.833347 0.0339 5.833347s-0.833599 5.270908-0.0339 3.913253c1.0339-1.755253 1.966942-11.713994 2.000002-16.671728 0.0339-5.083525-3.966102-8.083525-3.966102-8.083525s-2-2.0000003-6.033899-2.0096952z" style="opacity:.2"/>
 <path style="opacity:.1;fill:#8b9cbe" d="m16.966797 1.9902344c-4.966096-0.0119353-7.0949692 2.8825806-7.7207032 3.4042968-0.3222361-0.7718727-1.2460938-2.3945312-3.2460938-2.3945312l0.9550781 1.1523438c1.3428132 0.4096303 2.0260024 1.6073843 2.2910157 2.2421874 0.625734-0.5217162 2.7546072-3.4162321 7.7207032-3.4042968 4.033899 0.0096949 6.033203 2.0097656 6.033203 2.0097656s3.785199 2.852007 3.951172 7.697266c0.003663-0.19701 0.014398-0.429363 0.015625-0.613282 0.0339-5.0835246-3.966797-8.083984-3.966797-8.083984s-1.999304-2.0000707-6.033203-2.0097656zm-8.8339845 4.5859375c-0.1033265 0.1285853-0.174614 0.1969938-0.3164063 0.390625l-1.8164062 0.0332031s0.4666688 0.5203409 1.2773438 0.7832031c-0.0374259 0.0598418-0.0737767 0.1342858-0.1113282 0.1953125l0.6503906-0.0117187c0.325486-0.4444831 0.5155985-0.6706818 0.7265626-0.8964844l-0.4101563-0.4941406zm-1.3144531 2.0078125c-0.9278199 1.6300006-1.7851563 3.7380466-1.7851563 7.3710936 0 0.280635 0.006623 0.485388 0.0078125 0.753906 0.0461547-4.064604 1.1739225-6.227057 2.2363282-7.9257809-0.1719913-0.0557683-0.3191328-0.1277196-0.4589844-0.1992187zm3.2617186 6.3242186c-0.015311 0.016095-0.080078 0.091797-0.080078 0.091797s0.011442 2.397717 1.439453 5.048828c0.183304-0.018611 0.348263-0.048828 0.560547-0.048828-1.33418-2.001269-1.772056-3.98111-1.919922-5.091797zm15.314453 6.705078c-0.0719 1.575209-0.394531 3.228516-0.394531 3.228516s-0.495725 3.143093-0.351562 3.943359c0.082746-1.222868 0.351562-2.943359 0.351562-2.943359s0.480229-2.451211 0.394531-4.228516z"/>
 <path d="m16.966101 1.9903051c-4.966096-0.0119353-7.0942751 2.8817365-7.7200091 3.4034528-0.3222361-0.7718728-1.2460919-2.3937579-3.2460919-2.3937579l2.5429679 3.0705157c-0.210964 0.2258026-0.401076 0.4510248-0.726562 0.8955079l-1.8164059 0.0339764s0.4666667 0.5200558 1.2773419 0.782918c-1.0847059 1.7343803-2.2434436 3.93959-2.2434436 8.172217 0 11.167373 0.9661017 12.638085 0.9661017 12.638085l0.6361582 0.40678 0.3638418-1 2 2v-8s0-2 3-2c-2-3-2-6-2-6s2-2 2-5c3 10 12 9 12.966102 10.008653 0.990792 1.03443 0.033898 5.833347 0.033898 5.833347s-0.833599 5.270908-0.0339 3.913253c1.0339-1.755253 1.966942-11.713994 2.000002-16.671728 0.033898-5.083525-3.966102-8.083525-3.966102-8.083525s-2-2-6.033899-2.0096949z" style="fill:#723f05"/>
 <path style="opacity:.1;fill:#8b9cbe" d="m16.966797 1.9902344c-4.966096-0.0119353-7.0949692 2.8825806-7.7207032 3.4042968-0.3222361-0.7718727-1.2460938-2.3945312-3.2460938-2.3945312l0.9550781 1.1523438c1.3428132 0.4096303 2.0260025 1.6073841 2.2910157 2.2421874 0.6257339-0.5217159 2.7546072-3.4162318 7.7207032-3.4042968 4.033899 0.0096949 6.033203 2.0097656 6.033203 2.0097656s3.785199 2.852007 3.951172 7.697266c0.003663-0.19701 0.014398-0.429363 0.015625-0.613282 0.0339-5.0835249-3.966797-8.083984-3.966797-8.083984s-1.999304-2.0000707-6.033203-2.0097656zm-8.8339845 4.5859375c-0.1033265 0.1285853-0.174614 0.1969938-0.3164063 0.390625l-1.8164062 0.0332031s0.4666686 0.5203409 1.2773438 0.7832031c-0.0374259 0.0598418-0.0737767 0.1342858-0.1113282 0.1953125l0.6503906-0.0117187c0.3254861-0.444483 0.5155985-0.6706824 0.7265626-0.8964844l-0.4101563-0.4941406zm-1.3144531 2.0078125c-0.9278197 1.6300006-1.7851563 3.7380466-1.7851563 7.3710936 0 0.280635 0.006623 0.485388 0.0078125 0.753906 0.0461548-4.064604 1.1739224-6.227058 2.2363282-7.9257809-0.1719913-0.0557685-0.3191328-0.1277196-0.4589844-0.1992187zm3.2617186 6.3242186c-0.015311 0.016095-0.080078 0.091797-0.080078 0.091797s0.011442 2.397717 1.439453 5.048828c0.183304-0.018611 0.348263-0.048828 0.560547-0.048828-1.33418-2.001269-1.772056-3.98111-1.919922-5.091797zm15.314453 6.705078c-0.0719 1.575209-0.394531 3.228516-0.394531 3.228516s-0.495725 3.143093-0.351562 3.943359c0.082746-1.222868 0.351562-2.943359 0.351562-2.943359s0.480229-2.451211 0.394531-4.228516z"/>
 <path d="m11.9672 14.33665c1.0328-0.33665 2.0328 0.66335 2.0328 0.66335s-1.002496-0.559521-1.897208-0.308903c-1.102792 0.308903-1.102792 1.308903-1.102792 1.308903s0-1.440678 0.9672-1.66335z" style="fill:#302100"/>
 <path d="m16.733334 23.092s0.669905-0.403207 1.428985-0.466567c0.420753-0.03513 0.906042 0.09554 0.906042 0.09554" style="stroke-linejoin:round;stroke:#302100;stroke-linecap:round;stroke-width:.3;fill:none"/>
 <path d="m16.733334 20.798222s0.308309 0.609032 1.586722 0.609032c0.999601 0 1.346611-1.115254 1.346611-1.115254" style="stroke-linejoin:round;stroke:#302100;stroke-linecap:round;stroke-width:.3;fill:none"/>
 <path style="fill:#ff8080" d="m25 16l-0.982422 2.683594c0.448434 0.082858 0.80651 0.175224 0.949219 0.324218 0.012759 0.013321 0.021084 0.034278 0.033203 0.048829v-3.056641z"/>
 <path style="fill:#302100" d="m13.5 16a1.5 2 0 0 0 -1.5 2 1.5 2 0 0 0 1.5 2 1.5 2 0 0 0 1.5 -2 1.5 2 0 0 0 -1.5 -2zm0 0.492188a0.87288135 1.5084746 0 0 1 0.873047 1.507812 0.87288135 1.5084746 0 0 1 -0.873047 1.507812 0.87288135 1.5084746 0 0 1 -0.873047 -1.507812 0.87288135 1.5084746 0 0 1 0.873047 -1.507812z"/>
 <circle r="2" style="opacity:.2" cx="9" cy="20"/>
 <circle r="2" style="fill:#debf9c" cx="9" cy="19"/>
</svg>
