<svg width="32" height="32" version="1.1" xmlns="http://www.w3.org/2000/svg">
 <circle cx="16" cy="17" r="14" style="opacity:.2"/>
 <circle cx="16" cy="16" r="14" style="fill:#fecd38"/>
 <path d="M 16,2 A 14,14 0 0 0 2,16 14,14 0 0 0 2.0215,16.586 14,14 0 0 1 16,3 14,14 0 0 1 29.979,16.414 14,14 0 0 0 30,16 14,14 0 0 0 16,2 Z" style="fill:#8b9cbe;opacity:.2"/>
 <path d="m16 5a12 12 0 0 0-12 12 12 12 0 0 0 12 12 12 12 0 0 0 12-12 12 12 0 0 0-12-12zm0 1.3339844a10.666667 10.666667 0 0 1 10.666016 10.666016 10.666667 10.666667 0 0 1-10.666016 10.666016 10.666667 10.666667 0 0 1-10.666016-10.666016 10.666667 10.666667 0 0 1 10.666016-10.666016zm-4.5 6.6660156c-3.2142847 0-4.5 1.066406-4.5 1.066406v2s0.6425781-6.5e-4 0.6425781 0.666016c0 0.666667 0.6434166 2.267578 3.2148439 2.267578 2.142858 0 3.214556-0.06641 3.857422-2.066406 0.287499-0.894426 0.642304-1.132813 1.285156-1.132813 0.642865 0 0.997664 0.238387 1.285156 1.132813 0.642866 2 1.714556 2.066406 3.857422 2.066406 2.571422 0 3.214844-1.600911 3.214844-2.267578 0-0.666666 0.642578-0.666016 0.642578-0.666016v-2s-0.794704-0.79951-2.65625-0.978515l-0.558594 0.580078 0.642578 0.666015-3.21289 2 1.285156-2-0.642578-0.666015 0.642578-0.667969c-1.928573 0-3.214289 1.068359-4.5 1.068359-1.285712 0-2.571422-1.068359-4.5-1.068359zm8.816406 8.011719s-0.317147 0.473356-0.787109 0.943359-1.079718 0.845703-1.429688 0.845703h-1.099609v1.199219h1.099609c1.049908 0 1.839975-0.474691 2.419922-1.054688 0.579945-0.579996 0.962891-1.15625 0.962891-1.15625z" style="opacity:.1"/>
 <path d="m16 4a12 12 0 0 0-12 12 12 12 0 0 0 12 12 12 12 0 0 0 12-12 12 12 0 0 0-12-12zm0 1.3339844a10.666667 10.666667 0 0 1 10.666016 10.666016 10.666667 10.666667 0 0 1-10.666016 10.666016 10.666667 10.666667 0 0 1-10.666016-10.666016 10.666667 10.666667 0 0 1 10.666016-10.666016zm-4.5 6.6660156c-3.2142847 0-4.5 1.066406-4.5 1.066406v2s0.6425781-6.5e-4 0.6425781 0.666016c0 0.666667 0.6434166 2.267578 3.2148439 2.267578 2.142858 0 3.214556-0.066406 3.857422-2.066406 0.287499-0.894426 0.642304-1.132813 1.285156-1.132813 0.642865 0 0.997664 0.238387 1.285156 1.132813 0.642866 2 1.714556 2.066406 3.857422 2.066406 2.571422 0 3.214844-1.600911 3.214844-2.267578 0-0.666666 0.642578-0.666016 0.642578-0.666016v-2s-0.794704-0.79951-2.65625-0.978515l-0.558594 0.580078 0.642578 0.666015-3.21289 2 1.285156-2-0.642578-0.666015 0.642578-0.667969c-1.928573 0-3.214289 1.068359-4.5 1.068359-1.285712 0-2.571422-1.068359-4.5-1.068359zm8.816406 8.011719s-0.317147 0.473356-0.787109 0.943359-1.079718 0.845703-1.429688 0.845703h-1.099609v1.199219h1.099609c1.049908 0 1.839975-0.474691 2.419922-1.054688 0.579945-0.579996 0.962891-1.15625 0.962891-1.15625l-1.166016-0.777343z" style="fill:#4f4f4f"/>
</svg>
