<svg xmlns="http://www.w3.org/2000/svg" width="32" height="32" version="1">
 <circle style="opacity:0.2" cx="16" cy="17" r="14"/>
 <circle style="fill:#4f4f4f" cx="16" cy="16" r="14"/>
 <path style="fill:#8b9cbe;opacity:0.1" d="M 16 2 A 14 14 0 0 0 2 16 A 14 14 0 0 0 2.0214844 16.585938 A 14 14 0 0 1 16 3 A 14 14 0 0 1 29.978516 16.414062 A 14 14 0 0 0 30 16 A 14 14 0 0 0 16 2 z"/>
 <path style="opacity:0.2" d="m 13.5546,6.0018609 c 0.02229,-0.00271 0.0362,-0.00271 0.0397,5.676e-4 0.05569,0.046943 -0.820503,0.9519367 -1.109748,1.1462284 -0.16958,0.1139137 -0.463849,0.2529463 -0.653939,0.309021 -0.188014,0.055453 -0.452779,0.102017 -0.59344,0.1047048 -0.282073,0.1628117 -0.676789,0.3859212 -1.13716,0.6441304 0.353139,-0.079232 0.762188,-0.1160087 1.108235,-0.086153 0.483581,0.041788 1.611187,0.3173094 1.74289,0.4259186 0.03426,0.02822 -0.228992,0.07373 -0.584934,0.1009428 -0.355941,0.02724 -0.857694,0.073731 -1.115042,0.1031973 -0.503594,0.057759 -1.6292244,0.035222 -1.8521618,-0.037001 -0.044814,-0.014464 -0.076668,-0.02963 -0.09793,-0.045963 C 8.9342772,8.8947169 8.5835408,9.1402473 8.2506859,9.4025908 8.7302825,9.2234629 9.2979279,9.143352 10.01872,9.1444087 c 0.81148,9.032e-4 1.008504,0.065749 0.588336,0.1927029 -0.160404,0.048443 -0.6251436,0.2222662 -1.0326094,0.3861331 -0.4074651,0.1638766 -0.9514631,0.3341593 -1.2088111,0.3784513 -0.2573459,0.04427 -0.6589338,0.08331 -0.8925259,0.08686 l -0.1164569,0.0017 c -0.090418,0.08984 -0.1792847,0.180774 -0.2656199,0.273564 -0.2282469,0.239657 -0.4409573,0.489473 -0.6395704,0.74714 0.2633512,-0.177079 0.574441,-0.332907 0.9146438,-0.452944 0.5702774,-0.201211 1.5535912,-0.413834 1.6271878,-0.351805 0.014588,0.01233 -0.2258956,0.19186 -0.5344556,0.399087 -0.3085593,0.207236 -0.7539854,0.510341 -0.9898868,0.673597 -0.4302543,0.297735 -1.2507355,0.712243 -1.5283142,0.772089 -0.086386,0.01863 -0.1518188,0.02973 -0.2041781,0.03398 -0.2384025,0.418722 -0.4421977,0.852023 -0.6093206,1.295952 0.091376,-0.108173 0.2024463,-0.218203 0.3505054,-0.350483 0.391384,-0.349703 0.6688038,-0.520713 1.2842445,-0.791991 0.4317453,-0.190299 0.784952,-0.320992 0.784952,-0.290453 0,0.03053 -0.1159907,0.158225 -0.2578688,0.283701 -0.2836302,0.250835 -0.6773053,0.730015 -0.9072714,1.104385 -0.1681967,0.273815 -0.8276135,0.829433 -1.2899157,1.08694 -0.1554438,0.08659 -0.257979,0.138359 -0.3223371,0.154792 -0.1378729,0.617832 -0.2072372,1.246976 -0.2073919,1.876297 0.04453,-0.244413 0.117653,-0.502578 0.2147657,-0.719937 0.1797731,-0.40238 0.2976198,-0.543462 0.797429,-0.953152 0.3226321,-0.26446 0.6737724,-0.554691 0.7802263,-0.645066 L 6.548068,14.171629 6.491165,14.335993 c -0.5634433,1.627732 -0.9038918,2.270894 -1.5364413,2.903188 -0.2411553,0.24105 -0.3049067,0.299689 -0.3516412,0.248423 0.018829,0.189128 0.043353,0.377945 0.075247,0.565883 0.06062,0.38104 0.1503477,0.757531 0.2652423,1.127844 -0.011101,-0.337769 0.047167,-0.700222 0.176577,-1.000062 0.1450926,-0.336162 1.0852395,-1.647767 1.143588,-1.595418 0.052458,0.04702 -0.1263745,2.182586 -0.2060688,2.460759 -0.1014111,0.353988 -0.4072033,0.913697 -0.5955201,1.089941 -0.049315,0.04614 -0.088943,0.07852 -0.1147559,0.09682 0.2514281,0.546426 0.5606104,1.072906 0.9208829,1.572343 -0.1267833,-0.447399 -0.1554273,-1.002697 -0.048398,-1.512487 0.2027074,-0.965503 0.5450046,-1.614744 0.5482568,-1.040032 5.81e-4,0.09729 0.1067773,0.531731 0.2361289,0.965546 0.3680726,1.23444 0.380128,1.674216 0.064281,2.346871 l -0.06692,0.142405 c 0.3307269,0.362773 0.6898262,0.706238 1.0753407,1.026147 -0.00532,-0.0088 -0.011739,-0.01801 -0.016261,-0.02608 -0.1967091,-0.352843 -0.306334,-1.205079 -0.2406649,-1.869546 l 0.054446,-0.552564 0.3423777,0.539806 c 0.1882307,0.296937 0.4214259,0.633696 0.5183857,0.748267 0.4127431,0.487724 0.5455527,0.837569 0.586824,1.546442 l 0.030814,0.526861 c 0.1270153,0.07816 0.2552742,0.154858 0.3860489,0.228349 0.3293013,0.189208 0.6704323,0.361851 1.0210813,0.518042 -0.455322,-0.451028 -0.806112,-1.11725 -0.9431909,-1.848153 l -0.063329,-0.337548 0.4758479,0.374893 c 1.483303,1.168382 1.88326,1.611948 1.975427,2.191131 0.01128,0.07089 0.0176,0.121093 0.01759,0.158916 0.517438,0.154445 1.047838,0.276665 1.585974,0.365878 -0.06441,-0.02315 -0.127528,-0.05066 -0.194348,-0.08366 -0.473239,-0.233766 -1.233614,-1.049783 -1.353627,-1.452819 l -0.04973,-0.166805 0.384349,0.156113 c 0.211325,0.08589 0.609049,0.21855 0.883827,0.294578 0.27478,0.07603 0.630826,0.211318 0.791191,0.300771 0.363382,0.202685 0.919371,0.786951 0.919371,0.966105 0,0.103668 -0.04287,0.124438 -0.372815,0.113516 0.804416,0.07134 1.617474,0.07062 2.421783,-0.0036 -0.0138,2.85e-4 -0.0284,9.04e-4 -0.04197,9.04e-4 l -0.52746,0.0063 0.120426,-0.242788 c 0.284289,-0.573487 0.7378,-0.879271 1.723984,-1.161995 0.29652,-0.08499 0.690834,-0.219604 0.876077,-0.299262 l 0.336705,-0.144854 -0.05389,0.152174 c -0.172911,0.488549 -1.063176,1.361192 -1.585029,1.583397 0.273739,-0.04348 0.545826,-0.09493 0.815201,-0.155918 0.278912,-0.06043 0.554179,-0.131332 0.825789,-0.210892 -0.01156,-0.04587 -0.0098,-0.110011 0.0017,-0.196075 0.06745,-0.504423 0.288509,-0.774769 1.372345,-1.677783 l 1.050195,-0.874914 -0.04821,0.283505 c -0.02655,0.155936 -0.136507,0.52247 -0.244258,0.814688 -0.177007,0.48004 -0.440003,0.870272 -0.78325,1.165933 0.532673,-0.22829 1.044458,-0.492861 1.529447,-0.790296 l -0.03989,-0.137162 c -0.149513,-0.512869 0.154667,-1.423566 0.700065,-2.095635 0.112285,-0.138358 0.332538,-0.458614 0.489273,-0.711676 l 0.284906,-0.460256 0.02476,0.854658 c 0.01386,0.478657 -0.01439,1.005908 -0.0641,1.198949 -0.04962,0.192773 -0.177278,0.414322 -0.348988,0.627245 0.499466,-0.388112 0.959791,-0.813436 1.374424,-1.269689 -0.043,0.0252 -0.07876,0.04046 -0.09377,0.03265 -0.134189,-0.06991 -0.307453,-0.716291 -0.306461,-1.143416 6.79e-4,-0.270489 0.102461,-0.77555 0.272614,-1.352063 0.149387,-0.506117 0.274679,-1.008872 0.278479,-1.117329 0.0072,-0.194513 0.009,-0.193422 0.157101,0.0779 0.175956,0.322368 0.46054,1.43535 0.46054,1.800873 0,0.139592 -0.05802,0.476465 -0.12894,0.748639 -0.03066,0.117588 -0.06168,0.214991 -0.09547,0.301516 0.322677,-0.421207 0.608674,-0.863069 0.851125,-1.322782 1.018615,-1.882216 1.263265,-4.047493 0.777013,-6.078261 -8.9e-5,0.209401 -0.01851,0.208106 -0.414785,-0.02458 -0.498705,-0.292866 -1.008683,-0.767406 -1.525107,-1.419078 -0.257827,-0.325366 -0.579557,-0.702387 -0.714809,-0.837951 -0.135253,-0.135573 -0.227002,-0.246551 -0.203991,-0.246551 0.153453,0 1.520797,0.65657 1.80244,0.865536 0.375128,0.278314 0.661546,0.592093 0.840916,0.912072 -0.183098,-0.545946 -0.420775,-1.077714 -0.712359,-1.586972 -0.01618,0.0036 -0.03558,0.0063 -0.06124,0.0063 -0.363685,-0.0018 -1.637714,-0.649 -2.290579,-1.163856 -0.152456,-0.120239 -0.46309,-0.336295 -0.690254,-0.480164 -0.460585,-0.291694 -0.405909,-0.315606 0.369415,-0.161551 0.838842,0.166679 1.592013,0.503597 2.099068,0.910191 -0.308974,-0.426344 -0.65788,-0.830063 -1.041689,-1.207954 l -0.197751,-5.68e-4 C 23.811782,10.192479 23.086486,10.03592 22.402887,9.7508454 22.059759,9.6077577 21.610401,9.4375556 21.404304,9.3725815 c -0.50224,-0.1583216 -0.350221,-0.2266937 0.507232,-0.227963 0.84673,-9.031e-4 1.42727,0.090571 1.927406,0.326475 -0.370587,-0.2967602 -0.763586,-0.5730517 -1.176102,-0.8263283 -0.0036,0.00625 -0.008,0.012158 -0.01422,0.01766 -0.02709,0.022801 -0.181065,0.063171 -0.342381,0.089506 -0.472307,0.077191 -1.015506,0.067076 -1.930998,-0.036195 -0.471802,-0.053237 -0.989553,-0.097093 -1.150394,-0.097377 -0.160842,-3.022e-4 -0.292278,-0.024045 -0.292278,-0.052709 0,-0.028657 0.306998,-0.1386692 0.682296,-0.2442876 0.861407,-0.2424348 1.784196,-0.2657157 2.407982,-0.065652 -0.472705,-0.2929448 -0.841651,-0.5253706 -1.116553,-0.70323 -0.03044,0.011977 -0.08093,0.013665 -0.15975,0.013665 -0.579966,0 -1.037,-0.1931565 -1.620573,-0.6850321 -0.607487,-0.5120353 -0.962528,-0.9563023 -0.688724,-0.8617829 0.0794,0.027421 0.389999,0.1032418 0.690237,0.1684903 1.225228,0.2662923 1.627695,0.5280321 1.790342,1.1646196 10e-4,0.00445 10e-4,0.00528 0.0021,0.00977 0.473895,0.243356 1.058191,0.5595122 1.424333,0.7645923 -0.01619,-0.013214 -0.03415,-0.026615 -0.04934,-0.039572 C 21.842956,7.7002211 21.623216,7.351219 21.427538,6.7100269 l -0.139144,-0.4557571 0.167312,0.074529 c 0.09199,0.040906 0.374501,0.1922951 0.627847,0.3365985 0.987522,0.562511 1.49885,1.2736456 1.328106,1.8470258 -0.02807,0.094182 -0.06615,0.1711164 -0.08466,0.1711164 -0.0278,0 -0.07206,-0.013311 -0.122316,-0.032117 1.340828,0.8966429 2.450737,2.0368725 3.238496,3.3437475 -0.128922,-0.28543 -0.206413,-0.624131 -0.207013,-0.955787 -6.79e-4,-0.396764 0.05508,-0.646606 0.262781,-1.1777528 l 0.263549,-0.6739591 0.222327,0.5531325 c 0.597025,1.4865714 0.616533,1.9553084 0.111543,2.6767184 l -0.159757,0.228343 -0.173739,-0.170361 c -0.04675,-0.04579 -0.0909,-0.09816 -0.132713,-0.1548 0.310725,0.564384 0.562392,1.157265 0.748272,1.773101 0.0053,-0.123737 0.02324,-0.2427 0.05597,-0.359126 0.112383,-0.400223 0.420203,-1.021044 0.580585,-1.170805 0.05936,-0.05545 0.227789,-0.268572 0.374136,-0.473581 0.258676,-0.362355 0.266016,-0.366969 0.267885,-0.164356 9.1e-4,0.114624 0.02923,0.535938 0.06258,0.936269 0.09797,1.175578 -0.150611,1.884539 -0.773045,2.204457 -0.176062,0.09049 -0.26084,0.129841 -0.316661,0.100943 0.08144,0.480157 0.12515,0.97088 0.12515,1.470458 0,0.05634 -0.0017,0.112521 -0.0027,0.168676 0.194166,-0.440088 0.980031,-1.418819 1.296155,-1.603298 0.104839,-0.06122 0.317126,-0.199819 0.471885,-0.308277 0.215891,-0.151285 0.268421,-0.168187 0.225537,-0.0724 -0.03076,0.06867 -0.108647,0.393915 -0.173175,0.722936 -0.229417,1.169908 -0.632035,1.838855 -1.34512,2.234668 -0.23478,0.13032 -0.474575,0.236968 -0.532944,0.236968 -0.01735,0 -0.03209,-0.0096 -0.04515,-0.02511 -0.0869,0.558066 -0.226458,1.101847 -0.414786,1.627307 0.24802,-0.331506 0.556582,-0.624299 0.845448,-0.77209 0.150424,-0.07693 0.478501,-0.260169 0.729185,-0.406976 0.250694,-0.146796 0.621254,-0.346933 0.823332,-0.44487 l 0.367332,-0.178054 -0.464885,0.791042 c -0.255654,0.43503 -0.588033,0.94735 -0.738634,1.138536 -0.333897,0.423859 -0.893822,0.794457 -1.452881,0.961794 -0.468792,0.14031 -0.5948,0.169713 -0.603078,0.04188 -0.315159,0.607921 -0.697726,1.184316 -1.140002,1.721879 0.174955,-0.154498 0.354844,-0.29504 0.502505,-0.385202 0.490641,-0.299574 1.362713,-0.635604 1.866155,-0.718997 0.241038,-0.03993 0.570501,-0.115139 0.732207,-0.167177 0.413847,-0.133177 0.429385,-0.122015 0.165237,0.118955 -0.128798,0.11749 -0.389504,0.387988 -0.579263,0.600974 -0.352403,0.395547 -1.154359,0.980914 -1.62492,1.186012 -0.144193,0.06281 -0.477357,0.154365 -0.740333,0.203385 -0.262986,0.04906 -0.548313,0.0763 -0.634091,0.06078 -0.08582,-0.01553 -0.218385,-0.02857 -0.294544,-0.0291 -0.113832,-7.64e-4 -0.122244,-0.01952 -0.04783,-0.145971 -1.847928,1.863805 -4.467762,3.143876 -7.43304,3.471707 0.295222,0.04791 0.597224,0.113623 0.834863,0.189501 0.408677,0.130498 2.690313,1.066774 2.690429,1.104012 1.07e-4,0.03833 -1.513688,-0.02875 -1.996411,-0.08837 -0.685246,-0.08474 -1.580274,-0.335338 -1.946123,-0.544873 -0.151616,-0.08686 -0.396053,-0.27638 -0.543154,-0.421233 l -0.164665,-0.16211 c -0.128102,0.0036 -0.256567,0.0063 -0.38567,0.0063 -0.143183,0 -0.285501,-0.0027 -0.427451,-0.0071 l -0.405333,0.319713 c -0.44113,0.347822 -0.587281,0.419308 -1.158712,0.5674 -0.955125,0.247517 -1.033135,0.259248 -2.057665,0.310149 -0.514694,0.02556 -0.979566,0.05128 -1.03318,0.05705 -0.05361,0.0053 -0.09755,-0.0036 -0.09755,-0.02139 0,-0.04268 0.691423,-0.333537 0.935818,-0.393648 0.107227,-0.02635 0.320234,-0.119202 0.473392,-0.206394 0.519777,-0.2959 1.468675,-0.58125 2.231595,-0.711862 -4.275602,-0.481869 -7.8305495,-2.943214 -9.3799188,-6.278835 0.072771,0.176565 0.1242076,0.320247 0.1242076,0.357245 0,0.131181 -0.1116501,0.126913 -0.5960874,-0.02236 C 4.054829,20.549731 3.5313892,20.230319 3.2148435,19.869046 2.9443339,19.560317 1.9224067,17.885985 2.0047086,17.886367 c 0.051557,2.92e-4 1.0436503,0.518219 1.6519541,0.862536 0.649714,0.36775 1.0120312,0.739918 1.2853788,1.318097 -0.2899196,-0.691544 -0.4947947,-1.417931 -0.6034612,-2.169942 -0.025915,0.18942 -0.1700167,0.13118 -0.6165052,-0.09344 -0.709197,-0.356774 -1.1552616,-1.062276 -1.3670494,-2.162429 -0.060237,-0.312925 -0.1441062,-0.64586 -0.1864072,-0.739634 -0.042304,-0.09378 -0.048266,-0.17037 -0.013231,-0.17037 0.1131427,0 1.2889816,1.010176 1.5632879,1.343056 0.2832087,0.343688 0.4540698,0.681076 0.5442871,1.081866 -0.010067,-0.171489 -0.015128,-0.344033 -0.015128,-0.517668 0,-3.298418 1.8402818,-6.227808 4.6830602,-8.0742587 C 8.7852351,8.6263751 8.6398178,8.6688444 8.5994824,8.6593148 8.4861629,8.6325193 8.4567671,8.1629219 8.5516514,7.8949088 8.6763949,7.5425532 9.3545675,6.9169591 9.9837352,6.5736259 10.294706,6.4039296 10.560563,6.2742661 10.574719,6.2856144 10.618896,6.3210107 10.35884,7.1115335 10.209654,7.3950638 10.079673,7.6420941 9.6790462,8.0467534 9.3277169,8.3161421 9.5370554,8.1915626 9.7512582,8.0723957 9.9701237,7.9594571 10.181146,7.8757885 10.588218,7.6870512 10.99026,7.5008871 c -0.0086,-0.017841 -0.01229,-0.039926 -0.01229,-0.067875 0,-0.4636613 0.57712,-0.9536836 1.336613,-1.134968 0.272762,-0.065123 0.666669,-0.1630422 0.875131,-0.2174663 0.156347,-0.040815 0.29781,-0.070713 0.364685,-0.078078 z M 7.7167999,7.3359017 7.6892059,8.190374 C 7.6643909,8.9549398 7.6390089,9.0852688 7.4489176,9.4292842 7.3236967,9.6559077 7.084093,9.932243 6.8653087,10.102312 6.6611544,10.261016 6.4691269,10.391256 6.4386125,10.391638 6.318475,10.393374 6.2054614,9.8157376 6.2486129,9.4212192 6.3134609,8.8283553 6.5493462,8.4656803 7.4173455,7.625609 Z m 16.5316501,0.028574 0.500421,0.511663 c 0.275296,0.2813484 0.590652,0.6638355 0.700828,0.8501504 0.222872,0.3768981 0.292111,0.9284515 0.174114,1.3867719 -0.03951,0.153637 -0.107127,0.279379 -0.150299,0.279379 -0.04318,0 -0.264147,-0.155252 -0.491159,-0.345053 C 24.348148,9.5171538 24.074246,8.7345765 24.193809,7.7935789 Z M 5.112769,9.3289548 c 0.042106,-0.00354 0.1449477,0.1610991 0.2724261,0.4390496 0.2152346,0.4693046 0.2416869,0.6035736 0.246148,1.2488656 0.00462,0.672399 -0.010703,0.748293 -0.2187339,1.084494 -0.1230383,0.198833 -0.2620138,0.401597 -0.3087269,0.450503 -0.069518,0.07276 -0.1094443,0.06317 -0.2202473,-0.05216 -0.2018417,-0.210103 -0.4561948,-0.829656 -0.4546748,-1.107394 0.00171,-0.311009 0.3279755,-1.310574 0.6696294,-2.0515388 0.00342,-0.0071 0.00813,-0.011359 0.01418,-0.011803 z m -1.8321241,2.4451882 0.3406764,0.44299 c 0.1873594,0.243622 0.4541241,0.635238 0.5928732,0.870229 0.2363453,0.400276 0.2524011,0.470733 0.25182,1.11733 -3.871e-4,0.438348 -0.036901,0.744212 -0.1001989,0.838137 -0.05481,0.08136 -0.1207328,0.147852 -0.1463276,0.147852 -0.1557004,0 -0.5631803,-0.294081 -0.7015792,-0.506223 C 3.180347,14.167044 3.0963502,13.539826 3.2139093,12.414333 Z m 22.1246221,2.470892 c 0,-0.01845 0.316285,0.221752 0.702902,0.533614 0.758821,0.612108 0.997758,0.9379 1.213165,1.654333 0.086,0.285909 0.10972,0.533328 0.07429,0.772284 -0.02869,0.193387 -0.07769,0.35161 -0.109076,0.35161 -0.07027,0 -0.784183,-0.800854 -0.999528,-1.121269 -0.140188,-0.208576 -0.377542,-0.777928 -0.757167,-1.81607 -0.06857,-0.187548 -0.124587,-0.356065 -0.124586,-0.374502 z m 0.249174,2.399033 c 0.107529,-0.03975 0.997365,1.18958 1.153983,1.616988 0.205439,0.560604 0.202874,1.158464 -0.0072,1.631247 -0.160945,0.362577 -0.166041,0.366543 -0.320263,0.248989 -0.190626,-0.145313 -0.42656,-0.525041 -0.579639,-0.933268 -0.08971,-0.239257 -0.24557,-1.773393 -0.257871,-2.538447 -1.88e-4,-0.01455 0.0036,-0.02289 0.01082,-0.02556 z M 2.8700199,21.130662 c 0.059701,0.0027 0.1670335,0.02396 0.3189345,0.06601 0.1880039,0.05209 0.5330135,0.128022 0.7668023,0.168684 0.6309164,0.109736 1.68374,0.577542 2.1968099,0.97623 0.3715831,0.288749 0.8484749,0.827065 0.8484749,0.957669 0,0.01828 -0.096627,0.04577 -0.214578,0.06114 C 6.3838116,23.412831 5.4792401,23.233764 5.1180624,23.030166 4.1598909,22.490026 3.9107487,22.294412 3.4545748,21.723695 3.3069622,21.539012 3.0938711,21.33693 2.9811834,21.274699 2.8030768,21.176329 2.7705158,21.126669 2.8700199,21.1306 Z m 24.2312491,2.892303 c 0.08868,-4.8e-4 0.145595,0.0036 0.16032,0.01225 0.01305,0.008 -0.365607,0.24128 -0.84148,0.5186 -0.859456,0.500883 -1.092083,0.598091 -1.989795,0.832894 -0.536725,0.140381 -1.34519,0.121421 -1.81038,-0.04242 l -0.279799,-0.09851 0.304187,-0.22515 c 0.167365,-0.12387 0.532436,-0.318967 0.811228,-0.433424 0.278792,-0.114464 0.562196,-0.231538 0.629746,-0.260241 0.215542,-0.0916 2.395426,-0.300806 3.015973,-0.303965 z m -22.2304895,0.02493 c 0.2174769,-0.0027 0.6803772,0.02448 1.5300141,0.08447 1.0558688,0.07445 1.7780658,0.258635 2.4178133,0.616554 0.5781881,0.323467 0.7146846,0.456653 0.5711328,0.557072 -0.060851,0.04259 -0.263466,0.102621 -0.4503275,0.133586 -0.6877409,0.113966 -1.2807613,0.04524 -2.1550277,-0.249925 -0.3748745,-0.126557 -1.9809887,-0.98527 -2.0705202,-1.10701 -0.015727,-0.02139 0.026428,-0.03336 0.1569152,-0.0347 z M 10.597039,26.0362 c 0.521537,0 1.538318,0.176902 1.843089,0.320663 0.145873,0.06886 -0.363613,0.363021 -0.92145,0.532114 -0.303233,0.09192 -0.631722,0.129078 -1.156823,0.130781 -0.6396573,0.0018 -0.8766983,-0.03345 -1.854998,-0.277134 C 7.5099618,26.494328 7.4138014,26.458146 7.6415562,26.417093 8.8497156,26.199325 10.1162,26.036203 10.597039,26.036203 Z m 10.780431,0.01277 c 0.413526,0.0036 0.848586,0.04126 1.283303,0.114456 0.415715,0.07001 1.013671,0.163947 1.328857,0.208833 l 0.57321,0.08163 -0.339163,0.07994 c -0.186513,0.04392 -0.6901,0.169519 -1.11901,0.279193 -1.350921,0.345418 -2.808793,0.245202 -3.46555,-0.238104 l -0.250684,-0.184442 0.200774,-0.0771 c 0.469446,-0.180291 1.099054,-0.270063 1.788263,-0.264375 z"/>
 <path style="fill:#d47f00" d="m 13.5546,5.0018609 c 0.02229,-0.00271 0.0362,-0.00271 0.0397,5.676e-4 0.05569,0.046943 -0.820503,0.9519367 -1.109748,1.1462284 -0.16958,0.1139137 -0.463849,0.2529463 -0.653939,0.309021 -0.188014,0.055453 -0.452779,0.102017 -0.59344,0.1047048 -0.282073,0.1628117 -0.676789,0.3859212 -1.13716,0.6441304 0.353139,-0.079232 0.762188,-0.1160087 1.108235,-0.086153 0.483581,0.041788 1.611187,0.3173094 1.74289,0.4259186 0.03426,0.02822 -0.228992,0.07373 -0.584934,0.1009428 -0.355941,0.02724 -0.857694,0.073731 -1.115042,0.1031973 -0.503594,0.057759 -1.6292244,0.035222 -1.8521618,-0.037001 -0.044814,-0.014464 -0.076668,-0.02963 -0.09793,-0.045963 C 8.9342772,7.8947169 8.5835408,8.1402473 8.2506859,8.4025908 8.7302825,8.2234629 9.2979279,8.143352 10.01872,8.1444087 10.8302,8.1453119 11.027224,8.2101575 10.607056,8.3371116 10.446652,8.3855548 9.9819124,8.5593778 9.5744466,8.7232447 9.1669815,8.8871213 8.6229835,9.057404 8.3656355,9.1016955 8.1082896,9.1459634 7.7067017,9.1850083 7.4731096,9.1885577 l -0.1164569,0.00174 C 7.2662344,9.2801384 7.177368,9.3710724 7.0910328,9.4638619 6.8627859,9.7035185 6.6500755,9.9533349 6.4514624,10.211002 6.7148136,10.033923 7.0259034,9.8780948 7.3661062,9.7580579 7.9363836,9.5568467 8.9196974,9.344224 8.993294,9.4062525 9.007882,9.4185839 8.7673984,9.5981127 8.4588384,9.8053398 8.1502791,10.012576 7.704853,10.315681 7.4689516,10.478937 7.0386973,10.776672 6.2182161,11.19118 5.9406374,11.251026 c -0.086386,0.01863 -0.1518188,0.02973 -0.2041781,0.03398 -0.2384025,0.418722 -0.4421977,0.852023 -0.6093206,1.295952 0.091376,-0.108173 0.2024463,-0.218203 0.3505054,-0.350483 0.391384,-0.349703 0.6688038,-0.520713 1.2842445,-0.791991 0.4317453,-0.190299 0.784952,-0.320992 0.784952,-0.290453 0,0.03053 -0.1159907,0.158225 -0.2578688,0.283701 -0.2836302,0.250835 -0.6773053,0.730015 -0.9072714,1.104385 -0.1681967,0.273815 -0.8276135,0.829433 -1.2899157,1.08694 -0.1554438,0.08659 -0.257979,0.138359 -0.3223371,0.154792 -0.1378729,0.617832 -0.2072372,1.246976 -0.2073919,1.876297 0.04453,-0.244413 0.117653,-0.502578 0.2147657,-0.719937 0.1797731,-0.40238 0.2976198,-0.543462 0.797429,-0.953152 0.3226321,-0.26446 0.6737724,-0.554691 0.7802263,-0.645066 L 6.548068,13.171629 6.491165,13.335993 c -0.5634433,1.627732 -0.9038918,2.270894 -1.5364413,2.903188 -0.2411553,0.24105 -0.3049067,0.299689 -0.3516412,0.248423 0.018829,0.189128 0.043353,0.377945 0.075247,0.565883 0.06062,0.38104 0.1503477,0.757531 0.2652423,1.127844 -0.011101,-0.337769 0.047167,-0.700222 0.176577,-1.000062 0.1450926,-0.336162 1.0852395,-1.647767 1.143588,-1.595418 0.052458,0.04702 -0.1263745,2.182586 -0.2060688,2.460759 -0.1014111,0.353988 -0.4072033,0.913697 -0.5955201,1.089941 -0.049315,0.04614 -0.088943,0.07852 -0.1147559,0.09682 0.2514281,0.546426 0.5606104,1.072906 0.9208829,1.572343 -0.1267833,-0.447399 -0.1554273,-1.002697 -0.048398,-1.512487 0.2027074,-0.965503 0.5450046,-1.614744 0.5482568,-1.040032 5.81e-4,0.09729 0.1067773,0.531731 0.2361289,0.965546 0.3680726,1.23444 0.380128,1.674216 0.064281,2.346871 l -0.06692,0.142405 c 0.3307269,0.362773 0.6898262,0.706238 1.0753407,1.026147 -0.00532,-0.0088 -0.011739,-0.01801 -0.016261,-0.02608 -0.1967091,-0.352843 -0.306334,-1.205079 -0.2406649,-1.869546 l 0.054446,-0.552564 0.3423777,0.539806 c 0.1882307,0.296937 0.4214259,0.633696 0.5183857,0.748267 0.4127431,0.487724 0.5455527,0.837569 0.586824,1.546442 l 0.030814,0.526861 c 0.1270153,0.07816 0.2552742,0.154858 0.3860489,0.228349 0.3293013,0.189208 0.6704323,0.361851 1.0210813,0.518042 -0.455322,-0.451028 -0.806112,-1.11725 -0.9431909,-1.848153 l -0.063329,-0.337548 0.4758479,0.374893 c 1.483303,1.168382 1.88326,1.611948 1.975427,2.191131 0.01128,0.07089 0.0176,0.121093 0.01759,0.158916 0.517438,0.154445 1.047838,0.276665 1.585974,0.365878 -0.06441,-0.02315 -0.127528,-0.05066 -0.194348,-0.08366 -0.473239,-0.233766 -1.233614,-1.049783 -1.353627,-1.452819 l -0.04973,-0.166805 0.384349,0.156113 c 0.211325,0.08589 0.609049,0.21855 0.883827,0.294578 0.27478,0.07603 0.630826,0.211318 0.791191,0.300771 0.363382,0.202685 0.919371,0.786951 0.919371,0.966105 0,0.103668 -0.04287,0.124438 -0.372815,0.113516 0.804416,0.07134 1.617474,0.07062 2.421783,-0.0036 -0.0138,2.85e-4 -0.0284,9.04e-4 -0.04197,9.04e-4 l -0.52746,0.0063 0.120426,-0.242788 c 0.284289,-0.573487 0.7378,-0.879271 1.723984,-1.161995 0.29652,-0.08499 0.690834,-0.219604 0.876077,-0.299262 l 0.336705,-0.144854 -0.05389,0.152174 c -0.172911,0.488549 -1.063176,1.361192 -1.585029,1.583397 0.273739,-0.04348 0.545826,-0.09493 0.815201,-0.155918 0.278912,-0.06043 0.554179,-0.131332 0.825789,-0.210892 -0.01156,-0.04587 -0.0098,-0.110011 0.0017,-0.196075 0.06745,-0.504423 0.288509,-0.774769 1.372345,-1.677783 l 1.050195,-0.874914 -0.04821,0.283505 c -0.02655,0.155936 -0.136507,0.52247 -0.244258,0.814688 -0.177007,0.48004 -0.440003,0.870272 -0.78325,1.165933 0.532673,-0.22829 1.044458,-0.492861 1.529447,-0.790296 l -0.03989,-0.137162 c -0.149513,-0.512869 0.154667,-1.423566 0.700065,-2.095635 0.112285,-0.138358 0.332538,-0.458614 0.489273,-0.711676 l 0.284906,-0.460256 0.02476,0.854658 c 0.01386,0.478657 -0.01439,1.005908 -0.0641,1.198949 -0.04962,0.192773 -0.177278,0.414322 -0.348988,0.627245 0.499466,-0.388112 0.959791,-0.813436 1.374424,-1.269689 -0.043,0.0252 -0.07876,0.04046 -0.09377,0.03265 -0.134189,-0.06991 -0.307453,-0.716291 -0.306461,-1.143416 6.79e-4,-0.270489 0.102461,-0.77555 0.272614,-1.352063 0.149387,-0.506117 0.274679,-1.008872 0.278479,-1.117329 0.0072,-0.194513 0.009,-0.193422 0.157101,0.0779 0.175956,0.322368 0.46054,1.43535 0.46054,1.800873 0,0.139592 -0.05802,0.476465 -0.12894,0.748639 -0.03066,0.117588 -0.06168,0.214991 -0.09547,0.301516 0.322677,-0.421207 0.608674,-0.863069 0.851125,-1.322782 1.018615,-1.882216 1.263265,-4.047493 0.777013,-6.078261 -8.9e-5,0.209401 -0.01851,0.208106 -0.414785,-0.02458 -0.498705,-0.292866 -1.008683,-0.767406 -1.525107,-1.419078 -0.257827,-0.325366 -0.579557,-0.702387 -0.714809,-0.837951 -0.135253,-0.135573 -0.227002,-0.246551 -0.203991,-0.246551 0.153453,0 1.520797,0.65657 1.80244,0.865536 0.375128,0.278314 0.661546,0.592093 0.840916,0.912072 -0.183098,-0.545946 -0.420775,-1.077714 -0.712359,-1.586972 -0.01618,0.0036 -0.03558,0.0063 -0.06124,0.0063 -0.363685,-0.0018 -1.637714,-0.649 -2.290579,-1.163856 C 23.766849,10.014023 23.456215,9.7979671 23.229051,9.6540978 22.768466,9.3624043 22.823142,9.3384925 23.598466,9.4925471 24.437308,9.6592263 25.190479,9.9961439 25.697534,10.402738 25.38856,9.9763939 25.039654,9.5726746 24.655845,9.1947838 L 24.458094,9.1942155 C 23.811782,9.1924787 23.086486,9.0359203 22.402887,8.7508454 22.059759,8.6077577 21.610401,8.4375556 21.404304,8.3725815 c -0.50224,-0.1583216 -0.350221,-0.2266937 0.507232,-0.227963 0.84673,-9.031e-4 1.42727,0.090571 1.927406,0.326475 -0.370587,-0.2967602 -0.763586,-0.5730517 -1.176102,-0.8263283 -0.0036,0.00625 -0.008,0.012158 -0.01422,0.01766 -0.02709,0.022801 -0.181065,0.063171 -0.342381,0.089506 -0.472307,0.077191 -1.015506,0.067076 -1.930998,-0.036195 -0.471802,-0.053237 -0.989553,-0.097093 -1.150394,-0.097377 -0.160842,-3.022e-4 -0.292278,-0.024045 -0.292278,-0.052709 0,-0.028657 0.306998,-0.1386692 0.682296,-0.2442876 0.861407,-0.2424348 1.784196,-0.2657157 2.407982,-0.065652 -0.472705,-0.2929448 -0.841651,-0.5253706 -1.116553,-0.70323 -0.03044,0.011977 -0.08093,0.013665 -0.15975,0.013665 -0.579966,0 -1.037,-0.1931565 -1.620573,-0.6850321 -0.607487,-0.5120353 -0.962528,-0.9563023 -0.688724,-0.8617829 0.0794,0.027421 0.389999,0.1032418 0.690237,0.1684903 1.225228,0.2662923 1.627695,0.5280321 1.790342,1.1646196 10e-4,0.00445 10e-4,0.00528 0.0021,0.00977 0.473895,0.243356 1.058191,0.5595122 1.424333,0.7645923 -0.01619,-0.013214 -0.03415,-0.026615 -0.04934,-0.039572 C 21.842956,6.7002211 21.623216,6.351219 21.427538,5.7100269 l -0.139144,-0.4557571 0.167312,0.074529 c 0.09199,0.040906 0.374501,0.1922951 0.627847,0.3365985 0.987522,0.562511 1.49885,1.2736456 1.328106,1.8470258 -0.02807,0.094182 -0.06615,0.1711164 -0.08466,0.1711164 -0.0278,0 -0.07206,-0.013311 -0.122316,-0.032117 1.340828,0.8966429 2.450737,2.0368723 3.238496,3.3437475 -0.128922,-0.28543 -0.206413,-0.624131 -0.207013,-0.955787 -6.79e-4,-0.3967643 0.05508,-0.6466055 0.262781,-1.1777528 l 0.263549,-0.6739591 0.222327,0.5531325 c 0.597025,1.4865714 0.616533,1.9553084 0.111543,2.6767184 l -0.159757,0.228343 -0.173739,-0.170361 c -0.04675,-0.04579 -0.0909,-0.09816 -0.132713,-0.1548 0.310725,0.564384 0.562392,1.157265 0.748272,1.773101 0.0053,-0.123737 0.02324,-0.2427 0.05597,-0.359126 0.112383,-0.400223 0.420203,-1.021044 0.580585,-1.170805 0.05936,-0.05545 0.227789,-0.268572 0.374136,-0.473581 0.258676,-0.362355 0.266016,-0.366969 0.267885,-0.164356 9.1e-4,0.114624 0.02923,0.535938 0.06258,0.936269 0.09797,1.175578 -0.150611,1.884539 -0.773045,2.204457 -0.176062,0.09049 -0.26084,0.129841 -0.316661,0.100943 0.08144,0.480157 0.12515,0.97088 0.12515,1.470458 0,0.05634 -0.0017,0.112521 -0.0027,0.168676 0.194166,-0.440088 0.980031,-1.418819 1.296155,-1.603298 0.104839,-0.06122 0.317126,-0.199819 0.471885,-0.308277 0.215891,-0.151285 0.268421,-0.168187 0.225537,-0.0724 -0.03076,0.06867 -0.108647,0.393915 -0.173175,0.722936 -0.229417,1.169908 -0.632035,1.838855 -1.34512,2.234668 -0.23478,0.13032 -0.474575,0.236968 -0.532944,0.236968 -0.01735,0 -0.03209,-0.0096 -0.04515,-0.02511 -0.0869,0.558066 -0.226458,1.101847 -0.414786,1.627307 0.24802,-0.331506 0.556582,-0.624299 0.845448,-0.77209 0.150424,-0.07693 0.478501,-0.260169 0.729185,-0.406976 0.250694,-0.146796 0.621254,-0.346933 0.823332,-0.44487 l 0.367332,-0.178054 -0.464885,0.791042 c -0.255654,0.43503 -0.588033,0.94735 -0.738634,1.138536 -0.333897,0.423859 -0.893822,0.794457 -1.452881,0.961794 -0.468792,0.14031 -0.5948,0.169713 -0.603078,0.04188 -0.315159,0.607921 -0.697726,1.184316 -1.140002,1.721879 0.174955,-0.154498 0.354844,-0.29504 0.502505,-0.385202 0.490641,-0.299574 1.362713,-0.635604 1.866155,-0.718997 0.241038,-0.03993 0.570501,-0.115139 0.732207,-0.167177 0.413847,-0.133177 0.429385,-0.122015 0.165237,0.118955 -0.128798,0.11749 -0.389504,0.387988 -0.579263,0.600974 -0.352403,0.395547 -1.154359,0.980914 -1.62492,1.186012 -0.144193,0.06281 -0.477357,0.154365 -0.740333,0.203385 -0.262986,0.04906 -0.548313,0.0763 -0.634091,0.06078 -0.08582,-0.01553 -0.218385,-0.02857 -0.294544,-0.0291 -0.113832,-7.64e-4 -0.122244,-0.01952 -0.04783,-0.145971 -1.847928,1.863805 -4.467762,3.143876 -7.43304,3.471707 0.295222,0.04791 0.597224,0.113623 0.834863,0.189501 0.408677,0.130498 2.690313,1.066774 2.690429,1.104012 1.07e-4,0.03833 -1.513688,-0.02875 -1.996411,-0.08837 -0.685246,-0.08474 -1.580274,-0.335338 -1.946123,-0.544873 -0.151616,-0.08686 -0.396053,-0.27638 -0.543154,-0.421233 l -0.164665,-0.16211 c -0.128102,0.0036 -0.256567,0.0063 -0.38567,0.0063 -0.143183,0 -0.285501,-0.0027 -0.427451,-0.0071 l -0.405333,0.319713 c -0.44113,0.347822 -0.587281,0.419308 -1.158712,0.5674 -0.955125,0.247517 -1.033135,0.259248 -2.057665,0.310149 -0.514694,0.02556 -0.979566,0.05128 -1.03318,0.05705 -0.05361,0.0053 -0.09755,-0.0036 -0.09755,-0.02139 0,-0.04268 0.691423,-0.333537 0.935818,-0.393648 0.107227,-0.02635 0.320234,-0.119202 0.473392,-0.206394 0.519777,-0.2959 1.468675,-0.58125 2.231595,-0.711862 -4.275602,-0.481869 -7.8305495,-2.943214 -9.3799188,-6.278835 0.072771,0.176565 0.1242076,0.320247 0.1242076,0.357245 0,0.131181 -0.1116501,0.126913 -0.5960874,-0.02236 C 4.054829,19.549731 3.5313892,19.230319 3.2148435,18.869046 2.9443339,18.560317 1.9224067,16.885985 2.0047086,16.886367 c 0.051557,2.92e-4 1.0436503,0.518219 1.6519541,0.862536 0.649714,0.36775 1.0120312,0.739918 1.2853788,1.318097 -0.2899196,-0.691544 -0.4947947,-1.417931 -0.6034612,-2.169942 -0.025915,0.18942 -0.1700167,0.13118 -0.6165052,-0.09344 -0.709197,-0.356774 -1.1552616,-1.062276 -1.3670494,-2.162429 -0.060237,-0.312925 -0.1441062,-0.64586 -0.1864072,-0.739634 -0.042304,-0.09378 -0.048266,-0.17037 -0.013231,-0.17037 0.1131427,0 1.2889816,1.010176 1.5632879,1.343056 0.2832087,0.343688 0.4540698,0.681076 0.5442871,1.081866 -0.010067,-0.171489 -0.015128,-0.344033 -0.015128,-0.517668 0,-3.298418 1.8402818,-6.2278078 4.6830602,-8.0742587 C 8.7852351,7.6263751 8.6398178,7.6688444 8.5994824,7.6593148 8.4861629,7.6325193 8.4567671,7.1629219 8.5516514,6.8949088 8.6763949,6.5425532 9.3545675,5.9169591 9.9837352,5.5736259 10.294706,5.4039296 10.560563,5.2742661 10.574719,5.2856144 10.618896,5.3210107 10.35884,6.1115335 10.209654,6.3950638 10.079673,6.6420941 9.6790462,7.0467534 9.3277169,7.3161421 9.5370554,7.1915626 9.7512582,7.0723957 9.9701237,6.9594571 10.181146,6.8757885 10.588218,6.6870512 10.99026,6.5008871 c -0.0086,-0.017841 -0.01229,-0.039926 -0.01229,-0.067875 0,-0.4636613 0.57712,-0.9536836 1.336613,-1.134968 0.272762,-0.065123 0.666669,-0.1630422 0.875131,-0.2174663 0.156347,-0.040815 0.29781,-0.070713 0.364685,-0.078078 z M 7.7167999,6.3359017 7.6892059,7.190374 C 7.6643909,7.9549398 7.6390089,8.0852688 7.4489176,8.4292842 7.3236967,8.6559077 7.084093,8.932243 6.8653087,9.1023124 6.6611544,9.2610161 6.4691269,9.3912562 6.4386125,9.3916376 6.318475,9.3933744 6.2054614,8.8157376 6.2486129,8.4212192 6.3134609,7.8283553 6.5493462,7.4656803 7.4173455,6.625609 Z m 16.5316501,0.028574 0.500421,0.511663 c 0.275296,0.2813484 0.590652,0.6638355 0.700828,0.8501504 0.222872,0.3768981 0.292111,0.9284515 0.174114,1.3867721 -0.03951,0.153637 -0.107127,0.2793788 -0.150299,0.2793788 -0.04318,0 -0.264147,-0.1552516 -0.491159,-0.3450533 C 24.348148,8.5171538 24.074246,7.7345765 24.193809,6.7935789 Z M 5.112769,8.3289548 c 0.042106,-0.00354 0.1449477,0.1610991 0.2724261,0.4390496 0.2152346,0.4693049 0.2416869,0.6035737 0.246148,1.2488656 0.00462,0.672399 -0.010703,0.748293 -0.2187339,1.084494 -0.1230383,0.198833 -0.2620138,0.401597 -0.3087269,0.450503 -0.069518,0.07276 -0.1094443,0.06317 -0.2202473,-0.05216 -0.2018417,-0.210103 -0.4561948,-0.829656 -0.4546748,-1.107394 0.00171,-0.311009 0.3279755,-1.3105735 0.6696294,-2.0515388 0.00342,-0.0071 0.00813,-0.011359 0.01418,-0.011803 z m -1.8321241,2.4451882 0.3406764,0.44299 c 0.1873594,0.243622 0.4541241,0.635238 0.5928732,0.870229 0.2363453,0.400276 0.2524011,0.470733 0.25182,1.11733 -3.871e-4,0.438348 -0.036901,0.744212 -0.1001989,0.838137 -0.05481,0.08136 -0.1207328,0.147852 -0.1463276,0.147852 -0.1557004,0 -0.5631803,-0.294081 -0.7015792,-0.506223 C 3.180347,13.167044 3.0963502,12.539826 3.2139093,11.414333 Z m 22.1246221,2.470892 c 0,-0.01845 0.316285,0.221752 0.702902,0.533614 0.758821,0.612108 0.997758,0.9379 1.213165,1.654333 0.086,0.285909 0.10972,0.533328 0.07429,0.772284 -0.02869,0.193387 -0.07769,0.35161 -0.109076,0.35161 -0.07027,0 -0.784183,-0.800854 -0.999528,-1.121269 -0.140188,-0.208576 -0.377542,-0.777928 -0.757167,-1.81607 -0.06857,-0.187548 -0.124587,-0.356065 -0.124586,-0.374502 z m 0.249174,2.399033 c 0.107529,-0.03975 0.997365,1.18958 1.153983,1.616988 0.205439,0.560604 0.202874,1.158464 -0.0072,1.631247 -0.160945,0.362577 -0.166041,0.366543 -0.320263,0.248989 -0.190626,-0.145313 -0.42656,-0.525041 -0.579639,-0.933268 -0.08971,-0.239257 -0.24557,-1.773393 -0.257871,-2.538447 -1.88e-4,-0.01455 0.0036,-0.02289 0.01082,-0.02556 z M 2.8700199,20.130662 c 0.059701,0.0027 0.1670335,0.02396 0.3189345,0.06601 0.1880039,0.05209 0.5330135,0.128022 0.7668023,0.168684 0.6309164,0.109736 1.68374,0.577542 2.1968099,0.97623 0.3715831,0.288749 0.8484749,0.827065 0.8484749,0.957669 0,0.01828 -0.096627,0.04577 -0.214578,0.06114 C 6.3838116,22.412831 5.4792401,22.233764 5.1180624,22.030166 4.1598909,21.490026 3.9107487,21.294412 3.4545748,20.723695 3.3069622,20.539012 3.0938711,20.33693 2.9811834,20.274699 2.8030768,20.176329 2.7705158,20.126669 2.8700199,20.1306 Z m 24.2312491,2.892303 c 0.08868,-4.8e-4 0.145595,0.0036 0.16032,0.01225 0.01305,0.008 -0.365607,0.24128 -0.84148,0.5186 -0.859456,0.500883 -1.092083,0.598091 -1.989795,0.832894 -0.536725,0.140381 -1.34519,0.121421 -1.81038,-0.04242 l -0.279799,-0.09851 0.304187,-0.22515 c 0.167365,-0.12387 0.532436,-0.318967 0.811228,-0.433424 0.278792,-0.114464 0.562196,-0.231538 0.629746,-0.260241 0.215542,-0.0916 2.395426,-0.300806 3.015973,-0.303965 z m -22.2304895,0.02493 c 0.2174769,-0.0027 0.6803772,0.02448 1.5300141,0.08447 1.0558688,0.07445 1.7780658,0.258635 2.4178133,0.616554 0.5781881,0.323467 0.7146846,0.456653 0.5711328,0.557072 -0.060851,0.04259 -0.263466,0.102621 -0.4503275,0.133586 -0.6877409,0.113966 -1.2807613,0.04524 -2.1550277,-0.249925 -0.3748745,-0.126557 -1.9809887,-0.98527 -2.0705202,-1.10701 -0.015727,-0.02139 0.026428,-0.03336 0.1569152,-0.0347 z M 10.597039,25.0362 c 0.521537,0 1.538318,0.176902 1.843089,0.320663 0.145873,0.06886 -0.363613,0.363021 -0.92145,0.532114 -0.303233,0.09192 -0.631722,0.129078 -1.156823,0.130781 -0.6396573,0.0018 -0.8766983,-0.03345 -1.854998,-0.277134 C 7.5099618,25.494328 7.4138014,25.458146 7.6415562,25.417093 8.8497156,25.199325 10.1162,25.036203 10.597039,25.036203 Z m 10.780431,0.01277 c 0.413526,0.0036 0.848586,0.04126 1.283303,0.114456 0.415715,0.07001 1.013671,0.163947 1.328857,0.208833 l 0.57321,0.08163 -0.339163,0.07994 c -0.186513,0.04392 -0.6901,0.169519 -1.11901,0.279193 -1.350921,0.345418 -2.808793,0.245202 -3.46555,-0.238104 l -0.250684,-0.184442 0.200774,-0.0771 c 0.469446,-0.180291 1.099054,-0.270063 1.788263,-0.264375 z"/>
 <path style="opacity:0.2" d="m 10.09945,11.001019 c -0.7158663,-0.019 -1.5626423,0.227566 -2.1843203,0.645114 -0.621682,0.417546 -1.394217,1.062284 -1.695591,1.147687 -0.301436,0.08541 -0.113989,0.227773 -0.113989,0.227773 0,0 -0.413705,0.352042 -0.809325,0.693609 -0.395619,0.341674 -0.998909,0.890745 -1.12137,1.033065 -0.122413,0.142324 0,0.332109 0,0.332109 0,0 -0.238488,0.272229 -0.380439,0.433505 h -0.01567 c -0.440689,0.574709 -0.988495,1.125173 -1.38782,1.747246 C 1.6182367,18.241417 0.91439177,19.28398 -2.2920906e-7,20.134018 0.39515477,20.661211 1.1656907,19.070656 1.8110047,19.778398 c 0.670146,-0.193908 1.427514,0.113546 1.996239,-0.712713 0.51779,0.878942 1.625194,0.590435 2.170072,0.04703 1.135019,0.740063 1.848904,-1.217842 2.923825,-0.329169 0.856312,-0.0914 1.6473703,-0.260723 2.5547873,-0.191037 0.39568,-0.494881 2.150635,-1.32968 1.640021,-0.158708 -0.596344,0.42567 -0.236803,2.006247 -1.323701,1.241736 -0.658126,-0.227926 -1.204523,0.674348 -0.299222,0.307128 -0.07065,-0.01777 -0.805212,1.24962 -0.379014,0.936078 0.268385,-0.597444 1.042491,-0.516182 0.52435,0.154297 0.06616,1.641946 0.415528,-1.127047 1.23536,-0.152829 0.141515,0.528079 0.02956,0.915984 0.423185,0.210141 -0.481764,-0.89758 0.07643,-1.340267 0.988858,-1.447467 1.026805,-0.10433 -0.371288,1.525737 -0.651164,1.969142 -0.927628,0.942584 1.122566,1.21883 1.711265,1.324028 0.898726,0.02873 1.784737,0.100991 2.590407,-0.304188 1.781528,-0.366635 -0.313939,-1.705914 -0.488729,-2.662751 -0.315188,-0.879539 2.274608,-0.02675 1.343649,0.734754 -0.108965,0.531824 0.503839,1.248212 0.346243,0.304188 0.47298,-1.016437 1.208796,0.549046 1.185489,0.617194 0.287408,-0.49694 -0.38887,-1.784486 0.547149,-0.8626 0.419096,0.832571 0.170037,-0.760807 -0.364766,-0.759738 0.473724,-0.119207 0.913684,0.205934 0.26645,-0.398236 -0.704076,0.171835 -1.604189,0.431546 -1.453364,-0.699487 -0.814698,-0.518755 -0.38932,-1.584863 0.457382,-0.939017 0.715601,0.954662 1.675282,0.38974 2.543387,0.753859 0.479744,-0.108415 1.248936,0.0747 1.802456,-0.229243 0.5828,0.502778 1.320097,1.076173 2.051808,0.50698 0.559757,1.034283 1.622013,0.481809 2.194295,0.08964 0.782888,0.874695 1.65255,0.415898 2.534838,0.574579 0.383064,0.158457 1.754126,1.028331 0.766578,0.04555 -1.200397,-1.349692 -2.234214,-2.846081 -3.392607,-4.233658 h -0.0015 c -0.196071,-0.231486 -0.373315,-0.452609 -0.373315,-0.452609 0,0 0.05969,-0.05842 0.03847,-0.167524 -0.02122,-0.109151 -0.05226,-0.13128 -0.280699,-0.342395 -0.228386,-0.211172 -0.414219,-0.412769 -0.819299,-0.768553 -0.405027,-0.355889 -0.872017,-0.78031 -0.872017,-0.78031 0,0 0.05001,-0.06634 -0.04417,-0.146951 -0.09419,-0.08066 -0.21698,-0.142475 -0.706735,-0.443791 -0.489858,-0.301316 -0.753221,-0.581256 -1.198312,-0.818518 -0.445091,-0.237256 -0.9311,-0.493221 -1.456214,-0.552534 -0.525166,-0.05937 -1.028221,-0.06356 -1.473312,0.273328 -0.445095,0.336829 -0.687837,0.69937 -0.862045,1.209406 -0.174263,0.510036 -0.377194,1.214404 -0.836396,1.444528 -0.459205,0.230069 -0.682319,0.261612 -0.80505,0.265981 -0.338797,0.01216 -0.760453,-0.23457 -0.934712,-0.459956 -0.174212,-0.225387 -0.311404,-0.994841 -0.349092,-1.19888 -0.0377,-0.204036 -0.04844,-0.42028 -0.04844,-0.42028 0,0 0.05157,-0.121671 0.249352,-0.157237 0.197837,-0.03561 0.305782,-0.04959 0.465931,-0.02351 0.160097,0.02605 0.329145,0.110214 0.329145,0.110214 0,0 0.04035,-0.024 0.03562,-0.173403 -0.0047,-0.149513 -0.0068,-0.189067 -0.371891,-0.376434 -0.365016,-0.187424 -0.80016,-0.242562 -0.891966,-0.261573 -0.09192,-0.01894 -0.302523,-0.161558 -0.521501,-0.204262 -0.219034,-0.04269 -0.682021,-0.08214 -0.964634,0.072 -0.282564,0.154251 -0.515835,0.293104 -0.631217,0.554005 -0.115384,0.260952 -0.132938,0.496882 -0.132512,0.608376 0.0013,0.342849 -0.04695,1.145521 -0.433159,1.487143 -0.386211,0.341618 -0.621662,0.446732 -0.894817,0.446732 -0.273154,0 -0.771986,-0.219369 -0.96036,-0.399707 -0.188374,-0.180288 -0.433872,-0.520652 -0.68821,-1.365174 -0.254339,-0.844571 -1.008172,-1.452023 -1.72409,-1.470979 z"/>
 <path style="fill:#ffc107" d="M 10.09945,10.001024 C 9.3835837,9.982028 8.5368077,10.22859 7.9151297,10.646138 c -0.621682,0.417546 -1.394217,1.062284 -1.695591,1.147687 -0.301436,0.08541 -0.113989,0.227773 -0.113989,0.227773 0,0 -0.413705,0.352042 -0.809325,0.693609 -0.395619,0.341674 -0.998909,0.890745 -1.12137,1.033065 -0.122413,0.142324 0,0.332109 0,0.332109 0,0 -0.238488,0.272229 -0.380439,0.433505 h -0.01567 c -0.440689,0.574709 -0.988495,1.125173 -1.38782,1.747246 C 1.6182367,17.241422 0.91439177,18.283985 -2.2920906e-7,19.134023 0.39515477,19.661216 1.1656907,18.070661 1.8110047,18.778403 c 0.670146,-0.193908 1.427514,0.113546 1.996239,-0.712713 0.51779,0.878942 1.625194,0.590435 2.170072,0.04703 1.135019,0.740063 1.848904,-1.217842 2.923825,-0.329169 0.856312,-0.0914 1.6473703,-0.260723 2.5547873,-0.191037 0.39568,-0.494881 2.150635,-1.32968 1.640021,-0.158708 -0.596344,0.42567 -0.236803,2.006247 -1.323701,1.241736 -0.658126,-0.227926 -1.204523,0.674348 -0.299222,0.307128 -0.07065,-0.01777 -0.805212,1.24962 -0.379014,0.936078 0.268385,-0.597444 1.042491,-0.516182 0.52435,0.154297 0.06616,1.641946 0.415528,-1.127047 1.23536,-0.152829 0.141515,0.528079 0.02956,0.915984 0.423185,0.210141 -0.481764,-0.89758 0.07643,-1.340267 0.988858,-1.447467 1.026805,-0.10433 -0.371288,1.525737 -0.651164,1.969142 -0.927628,0.942584 1.122566,1.21883 1.711265,1.324028 0.898726,0.02873 1.784737,0.100991 2.590407,-0.304188 1.781528,-0.366635 -0.313939,-1.705914 -0.488729,-2.662751 -0.315188,-0.879539 2.274608,-0.02675 1.343649,0.734754 -0.108965,0.531824 0.503839,1.248212 0.346243,0.304188 0.47298,-1.016437 1.208796,0.549046 1.185489,0.617194 0.287408,-0.49694 -0.38887,-1.784486 0.547149,-0.8626 0.419096,0.832571 0.170037,-0.760807 -0.364766,-0.759738 0.473724,-0.119207 0.913684,0.205934 0.26645,-0.398236 -0.704076,0.171835 -1.604189,0.431546 -1.453364,-0.699487 -0.814698,-0.518755 -0.38932,-1.584863 0.457382,-0.939017 0.715601,0.954662 1.675282,0.38974 2.543387,0.753859 0.479744,-0.108415 1.248936,0.0747 1.802456,-0.229243 0.5828,0.502778 1.320097,1.076173 2.051808,0.50698 0.559757,1.034283 1.622013,0.481809 2.194295,0.08964 0.782888,0.874695 1.65255,0.415898 2.534838,0.574579 0.383064,0.158457 1.754126,1.028331 0.766578,0.04555 -1.200397,-1.349692 -2.234214,-2.846081 -3.392607,-4.233658 h -0.0015 C 28.05896,14.2824 27.881716,14.061277 27.881716,14.061277 c 0,0 0.05969,-0.05842 0.03847,-0.167524 -0.02122,-0.109151 -0.05226,-0.13128 -0.280699,-0.342395 -0.228386,-0.211172 -0.414219,-0.412769 -0.819299,-0.768553 -0.405027,-0.355889 -0.872017,-0.78031 -0.872017,-0.78031 0,0 0.05001,-0.06634 -0.04417,-0.146951 -0.09419,-0.08066 -0.21698,-0.142475 -0.706735,-0.443791 -0.489858,-0.301316 -0.753221,-0.581256 -1.198312,-0.818518 -0.445091,-0.237256 -0.9311,-0.493221 -1.456214,-0.552534 -0.525166,-0.059369 -1.028221,-0.063556 -1.473312,0.273328 -0.445095,0.336829 -0.687837,0.69937 -0.862045,1.209406 -0.174263,0.510036 -0.377194,1.214404 -0.836396,1.444528 -0.459205,0.230069 -0.682319,0.261612 -0.80505,0.265981 -0.338797,0.01216 -0.760453,-0.23457 -0.934712,-0.459956 -0.174212,-0.225387 -0.311404,-0.994841 -0.349092,-1.19888 -0.0377,-0.204036 -0.04844,-0.42028 -0.04844,-0.42028 0,0 0.05157,-0.121671 0.249352,-0.157237 0.197837,-0.03561 0.305782,-0.04959 0.465931,-0.02351 0.160097,0.02605 0.329145,0.110214 0.329145,0.110214 0,0 0.04035,-0.024 0.03562,-0.173403 -0.0047,-0.149513 -0.0068,-0.189067 -0.371891,-0.376434 -0.365016,-0.187424 -0.80016,-0.242562 -0.891966,-0.261573 -0.09192,-0.01894 -0.302523,-0.161558 -0.521501,-0.204262 -0.219034,-0.04269 -0.682021,-0.082139 -0.964634,0.072 -0.282564,0.154251 -0.515835,0.293104 -0.631217,0.554005 -0.115384,0.260952 -0.132938,0.496882 -0.132512,0.608376 0.0013,0.342849 -0.04695,1.145521 -0.433159,1.487143 -0.386211,0.341618 -0.621662,0.446732 -0.894817,0.446732 -0.273154,0 -0.771986,-0.219369 -0.96036,-0.399707 -0.188374,-0.180288 -0.433872,-0.520652 -0.68821,-1.365174 -0.254339,-0.844571 -1.008172,-1.452023 -1.72409,-1.470979 z"/>
 <path style="fill:#8b9cbe;opacity:0.2" d="M 10.099609 10.001953 C 9.3837431 9.9829571 8.5376936 10.228936 7.9160156 10.646484 C 7.2943336 11.06403 6.520124 11.707566 6.21875 11.792969 C 5.917314 11.878379 6.1054687 12.021484 6.1054688 12.021484 C 6.1054688 12.021484 5.692495 12.373277 5.296875 12.714844 C 4.901256 13.056518 4.2982422 13.605727 4.1757812 13.748047 C 4.0533683 13.890371 4.1757812 14.080078 4.1757812 14.080078 C 4.1757812 14.080078 3.9368729 14.352396 3.7949219 14.513672 L 3.7792969 14.513672 C 3.3386079 15.088381 2.78995 15.639646 2.390625 16.261719 C 1.617936 17.242009 0.914392 18.284728 0 19.134766 C 0.3047248 19.541312 0.83190008 18.696441 1.3535156 18.609375 C 1.7020071 18.16258 2.039894 17.706682 2.390625 17.261719 C 2.78995 16.639646 3.3386079 16.088381 3.7792969 15.513672 L 3.7949219 15.513672 C 3.9368729 15.352396 4.1757812 15.080078 4.1757812 15.080078 C 4.1757812 15.080078 4.0533683 14.890371 4.1757812 14.748047 C 4.2982422 14.605727 4.901256 14.056518 5.296875 13.714844 C 5.692495 13.373277 6.1054688 13.021484 6.1054688 13.021484 C 6.1054687 13.021484 5.917314 12.878379 6.21875 12.792969 C 6.520124 12.707566 7.2943336 12.06403 7.9160156 11.646484 C 8.5376936 11.228936 9.3837431 10.982953 10.099609 11.001953 C 10.815527 11.020909 11.56988 11.628085 11.824219 12.472656 C 12.078557 13.317178 12.323345 13.657603 12.511719 13.837891 C 12.700093 14.018229 13.199502 14.236328 13.472656 14.236328 C 13.745811 14.236328 13.980977 14.132634 14.367188 13.791016 C 14.753396 13.449394 14.802081 12.645583 14.800781 12.302734 C 14.800355 12.19124 14.816257 11.956264 14.931641 11.695312 C 15.047023 11.434411 15.281889 11.294876 15.564453 11.140625 C 15.847066 10.986485 16.310263 11.025669 16.529297 11.068359 C 16.748275 11.111063 16.958861 11.254497 17.050781 11.273438 C 17.077798 11.279032 17.176007 11.298198 17.251953 11.3125 C 17.248037 11.263335 17.234375 11.154297 17.234375 11.154297 C 17.234375 11.154297 17.28464 11.033613 17.482422 10.998047 C 17.680259 10.962437 17.78907 10.948529 17.949219 10.974609 C 18.109316 11.000659 18.277344 11.083984 18.277344 11.083984 C 18.277344 11.083984 18.319183 11.059559 18.314453 10.910156 C 18.309753 10.760643 18.306497 10.722523 17.941406 10.535156 C 17.57639 10.347732 17.142587 10.292449 17.050781 10.273438 C 16.958861 10.254497 16.748275 10.111063 16.529297 10.068359 C 16.310263 10.025669 15.847066 9.986486 15.564453 10.140625 C 15.281889 10.294876 15.047023 10.434411 14.931641 10.695312 C 14.816257 10.956264 14.800355 11.19124 14.800781 11.302734 C 14.802081 11.645583 14.753396 12.449394 14.367188 12.791016 C 13.980977 13.132634 13.745811 13.236328 13.472656 13.236328 C 13.199502 13.236328 12.700093 13.018229 12.511719 12.837891 C 12.323345 12.657603 12.078557 12.317178 11.824219 11.472656 C 11.56988 10.628085 10.815527 10.020909 10.099609 10.001953 z M 22.154297 10.011719 C 21.770395 10.001286 21.404131 10.06179 21.070312 10.314453 C 20.625218 10.651282 20.381239 11.013401 20.207031 11.523438 C 20.032768 12.033473 19.830296 12.738626 19.371094 12.96875 C 18.911889 13.198819 18.689137 13.230006 18.566406 13.234375 C 18.227609 13.246535 17.805118 12.998824 17.630859 12.773438 C 17.525935 12.637692 17.445275 12.332988 17.380859 12.044922 C 17.285117 12.094034 17.234375 12.154297 17.234375 12.154297 C 17.234375 12.154297 17.24355 12.370183 17.28125 12.574219 C 17.318938 12.778258 17.456647 13.548051 17.630859 13.773438 C 17.805118 13.998824 18.227609 14.246535 18.566406 14.234375 C 18.689137 14.230006 18.911889 14.198819 19.371094 13.96875 C 19.830296 13.738626 20.032768 13.033473 20.207031 12.523438 C 20.381239 12.013401 20.625218 11.651282 21.070312 11.314453 C 21.515403 10.977565 22.017803 10.981646 22.542969 11.041016 C 23.068083 11.100329 23.552956 11.356494 23.998047 11.59375 C 24.443138 11.831012 24.707408 12.110793 25.197266 12.412109 C 25.687021 12.713425 25.810107 12.774809 25.904297 12.855469 C 25.998477 12.93608 25.947266 13.001953 25.947266 13.001953 C 25.947266 13.001953 26.415285 13.427314 26.820312 13.783203 C 27.225393 14.138987 27.410286 14.339609 27.638672 14.550781 C 27.867111 14.761896 27.898702 14.78538 27.919922 14.894531 C 27.941142 15.003635 27.880859 15.060547 27.880859 15.060547 C 27.880859 15.060547 28.059788 15.282186 28.255859 15.513672 C 29.120485 16.54936 29.916781 17.644631 30.763672 18.695312 C 30.803536 18.700145 30.84289 18.693992 30.882812 18.701172 C 31.265877 18.859629 32.635985 19.730828 31.648438 18.748047 C 30.448041 17.398355 29.414252 15.901249 28.255859 14.513672 C 28.059788 14.282186 27.880859 14.060547 27.880859 14.060547 C 27.880859 14.060547 27.941142 14.003635 27.919922 13.894531 C 27.898702 13.78538 27.867111 13.761896 27.638672 13.550781 C 27.410286 13.339609 27.225393 13.138987 26.820312 12.783203 C 26.415285 12.427314 25.947266 12.001953 25.947266 12.001953 C 25.947266 12.001953 25.998477 11.93608 25.904297 11.855469 C 25.810107 11.774809 25.687021 11.713425 25.197266 11.412109 C 24.707408 11.110793 24.443138 10.831012 23.998047 10.59375 C 23.552956 10.356494 23.068083 10.100329 22.542969 10.041016 C 22.411677 10.026173 22.282264 10.015196 22.154297 10.011719 z M 19.162109 17.826172 C 18.77347 17.928533 18.714936 18.573522 19.298828 18.945312 C 19.242518 19.367579 19.332133 19.595522 19.503906 19.707031 C 19.504487 19.707049 19.505278 19.70701 19.505859 19.707031 C 19.57489 19.70953 19.643796 19.738246 19.710938 19.783203 C 19.892385 19.815804 20.112619 19.784915 20.337891 19.738281 C 20.318412 19.486878 20.368295 19.38304 20.6875 19.658203 C 20.708567 19.653022 20.731195 19.649597 20.751953 19.644531 C 20.908474 19.790638 20.994806 19.878709 21.039062 19.935547 C 21.050252 19.71084 20.841217 19.042255 20.484375 19.042969 C 20.958099 18.923762 21.399187 19.248701 20.751953 18.644531 C 20.047877 18.816366 19.148003 19.076346 19.298828 17.945312 C 19.243019 17.909776 19.206543 17.866119 19.162109 17.826172 z M 12.90625 17.839844 C 12.880028 17.839979 12.845124 17.852108 12.816406 17.855469 C 12.591768 18.451143 12.615669 19.26957 11.771484 18.675781 C 11.113358 18.447855 10.567355 19.349642 11.472656 18.982422 C 11.40898 18.966406 10.814181 19.985467 11.007812 19.958984 C 11.022281 19.889379 11.094649 19.807229 11.207031 19.740234 C 11.437853 19.458964 11.785879 19.447726 11.791016 19.6875 C 11.979296 19.816544 12.116154 19.857724 12.228516 19.861328 C 12.315752 19.77226 12.41058 19.708533 12.519531 19.714844 C 12.723298 19.394498 12.72816 18.695946 13.095703 18.433594 C 13.287183 17.994479 13.160807 17.838534 12.90625 17.839844 z M 17.634766 19.646484 C 17.450842 19.678322 17.348937 19.789881 17.427734 20.009766 C 17.512188 20.472084 18.039922 21.021734 18.367188 21.509766 C 19.030119 21.123842 18.235166 20.36514 17.744141 19.648438 C 17.708987 19.649405 17.665784 19.641115 17.634766 19.646484 z M 14.28125 19.685547 C 14.032275 20.072224 13.732221 20.467003 13.615234 20.652344 C 13.224031 21.049854 13.373936 21.323843 13.708984 21.521484 C 14.088842 20.979193 15.203528 19.611047 14.28125 19.685547 z M 21.015625 20.023438 C 21.026591 20.025751 21.038682 20.033406 21.044922 20.023438 C 21.038 20.024643 21.024722 20.023157 21.015625 20.023438 z M 18.783203 20.056641 C 18.819096 20.225558 18.893147 20.376485 18.96875 20.453125 C 18.995636 20.309732 18.907412 20.177476 18.783203 20.056641 z M 13.263672 20.095703 C 13.195661 20.174214 13.152142 20.26749 13.126953 20.369141 C 13.169089 20.307464 13.207913 20.255361 13.277344 20.130859 C 13.270726 20.11853 13.269899 20.107861 13.263672 20.095703 z M 11.679688 20.535156 C 11.698891 20.580034 11.722154 20.597599 11.75 20.574219 C 11.732356 20.55454 11.706109 20.544659 11.679688 20.535156 z"/>
</svg>
