<svg width="32" height="32" version="1.1" xmlns="http://www.w3.org/2000/svg">
 <path d="m13 3c-0.523918 0-1 0.4815493-1 1l-4 2-2 3h-1v6l1 1h2l1 1h14l1-1h2l1-1v-6h-1l-2-3-4-2c0-0.4966358-0.503364-1-1.2-1zm-11 6 2 3v-3zm26 0v3l2-3z" style="opacity:.2"/>
 <path d="m8 24 2 3h12l2-3z" style="opacity:.2"/>
 <path d="m13 2c-0.523918 0-1 0.4815493-1 1l-4 2-2 3h-1v6l1 1h2l1 1h14l1-1h2l1-1v-6h-1l-2-3-4-2c0-0.4966358-0.503364-1-1.2-1zm-11 6 2 3v-3zm26 0v3l2-3z" style="fill:#7eacf9"/>
 <path d="m8 23 2 3h12l2-3z" style="fill:#8149bf"/>
 <path d="m5 21 2 3h18l2-3z" style="opacity:.2"/>
 <path d="m5 20 2 3h18l2-3z" style="fill:#ad509c"/>
 <path d="m2 18 2 3h24l2-3z" style="opacity:.2"/>
 <path d="m2 17 2 3h24l2-3z" style="fill:#de7ca2"/>
 <path d="m6 18 8.199219 10h3.800781l8-10h-20zm7 11 3 2 3-2h-6z" style="opacity:.2"/>
 <path d="m6 17h20l-8 10h-3.8z" style="fill:#f6e195"/>
 <path d="m13 28h6l-3 2z" style="fill:#f6e195"/>
 <path d="m15 3-5 4v6l5 4h2l5-4v-6l-5-4zm-6 5-2 2 2 2zm14 0v4l2-2z" style="opacity:.2"/>
 <path d="m15 2-5 4v6l5 4h2l5-4v-6l-5-4zm-6 5-2 2 2 2zm14 0v4l2-2z" style="fill:#8288f9"/>
 <path d="m11 11v-2l4-4h2l4 4v2l-4 4h-2z" style="opacity:.2"/>
 <path d="m11 10v-2l4-4h2l4 4v2l-4 4h-2z" style="fill:#8149bf"/>
 <path d="m15 13h2l3-2v-1.9999999l-3-2h-2l-3 2v1.9999999z" style="opacity:.2"/>
 <path d="m15 12h2l3-2v-2l-3-2h-2l-3 2v2z" style="fill:#de7ca2"/>
 <rect x="14" y="9" width="4" height="2" style="opacity:.2"/>
 <rect x="14" y="8" width="4" height="2" style="fill:#f6e195"/>
 <path d="m6 17 0.8203125 1h18.378906l0.800781-1h-20zm7 11 1.5 1h3l1.5-1h-1-3.800781-1.199219z" style="fill:#8b9cbe;opacity:.2"/>
 <path d="m13 2c-0.523918 0-1 0.4815493-1 1l-4 2-2 3h-1v1h1l2-3 4-2c0-0.5184507 0.476082-1 1-1h5.800781c0.696636 0 1.199219 0.5033642 1.199219 1l4 2 2 3h1v-1h-1l-2-3-4-2c0-0.4966358-0.502583-1-1.199219-1h-5.800781zm-11 6 0.6660156 1h1.3339844v-1h-2zm26 0v1h1.333984l0.666016-1h-2z" style="fill:#8b9cbe;opacity:.2"/>
</svg>
