<svg xmlns="http://www.w3.org/2000/svg" width="32" height="32" version="1.1">
 <rect style="opacity:.2" width="28" height="28" x="2" y="3" rx="1" ry="1"/>
 <path style="fill:#f9dc9d" d="M 3,2 C 2.446,2 2,2.446 2,3 v 26 c 0,0.554 0.446,1 1,1 H 16.1 V 2 Z"/>
 <path style="fill:#8b9cbe;opacity:.2" d="m3 2c-0.554 0-1 0.446-1 1v1c0-0.554 0.446-1 1-1h26c0.554 0 1 0.446 1 1v-1c0-0.554-0.446-1-1-1h-26z"/>
 <path style="fill:#424242" d="m16 2v28h13c0.554 0 1-0.446 1-1v-26c0-0.554-0.446-1-1-1h-13z"/>
 <path style="opacity:.2" d="m19.18869 5.8715764c-0.15423 0.018794-0.317532 0.062105-0.502432 0.1264648l-0.427237 0.1469721 0.345208 0.078614c0.556732 0.1222816 0.440741 0.3392671-0.35888 0.6630858-0.517768 0.2096772-0.964817 0.7126024-0.710925 0.7998047 0.05838 0.020051 0.10595 0.1146614 0.10595 0.211914 0 0.137529 0.0278 0.146517 0.129875 0.044435 0.259574-0.2595694 0.416995-0.1432139 0.416995 0.3076159 0 0.240625-0.04922 0.4375-0.10938 0.4375-0.197123 0-0.114461 0.4310075 0.10938 0.5708009 0.120314 0.075137 0.218746 0.216536 0.218746 0.3110349 0 0.2785198 0.407785 0.6348315 0.813462 0.7109375 0.304935 0.05721 0.390095 0.130586 0.447744 0.393067 0.04732 0.215411 0.0175 0.387084-0.08887 0.509277-0.08805 0.101234-0.13661 0.246094-0.10938 0.321289 0.02962 0.08176-0.04348 0.136718-0.181151 0.136718-0.136231 0-0.272452 0.100457-0.331537 0.246094-0.107294 0.264464-0.434227 3.827077-0.434073 4.73047 5.2e-5 0.30078-0.05664 1.102734-0.12646 1.78418-0.141167 1.377772-0.07665 1.618674 0.35888 1.346679l0.232417-0.146973-0.07178 2.38916c-0.03963 1.31501-0.120775 2.56524-0.181149 2.775391-0.06037 0.210148-0.10938 1.249713-0.10938 2.310546 0 1.876447-0.0067 1.931625-0.246088 2.098634-0.234269 0.163415-0.209936 0.17227 0.499013 0.177734 0.420808 0.0032 0.718513 0.04943 0.68358 0.105966-0.03401 0.05502-3.79e-4 0.129934 0.07519 0.164062 0.169958 0.07678 1.596053 0.0069 1.685027-0.08203 0.06496-0.06496-0.0762-4.189152-0.304193-8.859375-0.08884-1.8199-0.08778-2.562317 0-2.734375 0.06628-0.129906 0.138611-0.506544 0.160647-0.837403 0.02204-0.33086 0.03109-0.03555 0.02393 0.65625-0.0071 0.691797-0.05536 1.351168-0.109379 1.466308-0.07071 0.150722-0.06136 0.18682 0.03077 0.129878 0.08453-0.05226 0.12646 0.01246 0.12646 0.191392 0 0.307817 0.183977 0.417891 0.464834 0.273437 0.260926-0.13419 0.252628-1.3488-0.02733-4.686028-0.233835-2.787458-0.34438-3.346982-0.697252-3.458981-0.368887-0.117083-0.833968-0.687848-0.833968-1.02539 0-0.241272 0.0702-0.330491 0.328118-0.420411 0.20766-0.07239 0.394914-0.2554644 0.512686-0.5024412 0.113594-0.2382107 0.262539-0.3896483 0.386223-0.3896483 0.260588 0 0.37401-0.3009787 0.21191-0.5605468-0.09548-0.1528905-0.09416-0.3851757 0-0.9433595 0.170727-1.012044-0.01435-1.9733338-0.375969-1.955078-0.207602 0.010486-0.237409 0.067452-0.205076 0.3896484l0.0376 0.3725587-0.311031-0.2050782c-0.699888-0.4649253-1.089036-0.627181-1.551725-0.5708007zm0.410148 12.222657h0.331538c0.273254 0 0.334307 0.04479 0.334953 0.246093 4.38e-4 0.135352 0.01274 1.611888 0.02736 3.28125 0.01452 1.669365-0.01316 3.035184-0.06153 3.035157-0.04838-2.8e-5 -0.07868 0.955171-0.06836 2.12256 0.01036 1.16739-0.014 2.176372-0.05468 2.242186-0.210939 0.341315-0.275559-0.07378-0.328118-2.095214-0.03168-1.218166-0.08548-3.703712-0.119628-5.523439z"/>
 <path style="fill:#45b3c9" d="m19.188965 4.8710935c-0.154233 0.018794-0.317538 0.062105-0.502442 0.1264648l-0.427245 0.1469721 0.345215 0.078614c0.556742 0.1222816 0.440749 0.3392671-0.358887 0.6630858-0.517778 0.2096772-0.964836 0.7126024-0.710939 0.7998047 0.05838 0.020051 0.105952 0.1146614 0.105952 0.211914 0 0.137529 0.0278 0.146517 0.129878 0.044435 0.259579-0.2595694 0.417003-0.1432139 0.417003 0.3076159 0 0.240625-0.04922 0.4375-0.109382 0.4375-0.197127 0-0.114464 0.4310075 0.109382 0.5708009 0.120316 0.075137 0.21875 0.216536 0.21875 0.3110349 0 0.2785198 0.407793 0.6348312 0.813477 0.7109375 0.304941 0.057208 0.390103 0.1305864 0.447753 0.3930666 0.04732 0.215411 0.0175 0.3870843-0.08887 0.5092773-0.08805 0.101234-0.136612 0.246094-0.109382 0.321289 0.02962 0.08176-0.04348 0.136718-0.181154 0.136718-0.136234 0-0.272457 0.100457-0.331544 0.246094-0.107296 0.264464-0.434235 3.827077-0.434081 4.73047 5.2e-5 0.30078-0.05664 1.102734-0.126462 1.78418-0.14117 1.377772-0.07665 1.618674 0.358887 1.346679l0.232421-0.146973-0.07178 2.38916c-0.03963 1.31501-0.120778 2.56524-0.181153 2.775391-0.06037 0.210148-0.109382 1.249713-0.109382 2.310546 0 1.876447-0.0067 1.931625-0.246093 2.098634-0.234273 0.163415-0.20994 0.17227 0.499023 0.177734 0.420816 0.0032 0.718527 0.04943 0.683593 0.105966-0.03401 0.05502-3.79e-4 0.129934 0.07519 0.164062 0.169962 0.07678 1.596084 0.0069 1.68506-0.08203 0.06496-0.06496-0.0762-4.189152-0.304199-8.859375-0.08884-1.8199-0.08778-2.562317 0-2.734375 0.06628-0.129906 0.138614-0.506544 0.16065-0.837403 0.02204-0.33086 0.03109-0.03555 0.02393 0.65625-0.0071 0.691797-0.05536 1.351168-0.109382 1.466308-0.07071 0.150722-0.06136 0.18682 0.03077 0.129878 0.08453-0.05226 0.126462 0.01246 0.126462 0.191392 0 0.307817 0.183981 0.417891 0.464843 0.273437 0.260931-0.13419 0.252633-1.3488-0.02733-4.686028-0.23384-2.787458-0.344387-3.346982-0.697266-3.458981-0.368894-0.117083-0.833984-0.6878477-0.833984-1.0253903 0-0.2412718 0.0702-0.3304905 0.328125-0.4204102 0.207664-0.072393 0.394921-0.2554648 0.512696-0.5024416 0.113596-0.2382107 0.262544-0.3896483 0.38623-0.3896483 0.260593 0 0.374017-0.3009787 0.211914-0.5605468-0.09548-0.1528905-0.09416-0.3851757 0-0.9433595 0.17073-1.012044-0.01435-1.9733338-0.375976-1.955078-0.207606 0.010486-0.237414 0.067452-0.20508 0.3896484l0.0376 0.3725587-0.311037-0.2050782c-0.699901-0.4649253-1.089056-0.627181-1.551754-0.5708007zm0.410156 12.222656h0.331544c0.273259 0 0.334314 0.04479 0.33496 0.246093 4.38e-4 0.135352 0.01274 1.611888 0.02736 3.28125 0.01452 1.669365-0.01316 3.035184-0.06153 3.035157-0.04838-2.8e-5 -0.07868 0.955171-0.06836 2.12256 0.01036 1.16739-0.014 2.176372-0.05468 2.242186-0.210944 0.341315-0.275565-0.07378-0.328125-2.095214-0.03168-1.218166-0.08548-3.703712-0.11963-5.523439z"/>
 <path style="opacity:.1" d="m10.162979 27.199336c8e-3 -1.308199 0.05011-2.870728 0.09344-3.47229 0.04334-0.601563 0.06136-1.209983 0.04004-1.352047-0.0377-0.251258-0.05751-0.244458-0.7272656 0.2495-0.6719731 0.495595-0.9579037 0.56719-0.8189423 0.205055 0.051419-0.134008 0.02335-0.162067-0.1106539-0.110656-0.098758 0.03788-0.20993 0.01974-0.2470673-0.04036-0.037139-0.06009-0.2124129 0.109494-0.3894975 0.376843-0.4287128 0.647251-0.6437136 0.82735-0.6437136 0.539213 0-0.348825-0.1153158-0.363678-0.4036673-0.052-0.2175368 0.235153-0.2565331 0.250134-0.1953463 0.07505 0.1249196-0.357444 0.1153998-0.548552-0.025939-0.520843-0.076729 0.01505-0.1064119-0.04267-0.070339-0.136724 0.041449-0.108024-0.0059-0.162855-0.1406513-0.163048-0.1495031-2.19e-4 -0.077268-0.108808 0.2737467-0.411514l0.4768488-0.411188-0.3948224-0.18828c-0.2171509-0.103558-0.3948205-0.22746-0.3948205-0.275347 0-0.04788 0.2502022-0.184034 0.5560054-0.302551 0.7956857-0.308374 0.8361739-0.407106 0.309801-0.75545-0.2466122-0.163203-0.4313637-0.313755-0.4105591-0.334561 0.0208-0.0208 0.4514313-0.188778 0.9569477-0.373272 0.9479468-0.345965 1.1927111-0.506261 1.560126-1.021733 0.2134829-0.29951 0.2134329-0.302124-0.01176-0.618447-0.1244017-0.174716-0.2261937-0.469091-0.2261937-0.654167 0-0.278091 0.052209-0.348014 0.3007762-0.402838 0.1654259-0.03648 0.3479144-0.07774 0.4055273-0.09169 0.057609-0.014-0.1023381-0.141748-0.3554622-0.284011-0.2531172-0.142263-0.4602142-0.3262-0.4602142-0.408747 0-0.223838 0.6708701-0.794007 0.9342401-0.794007 0.206766 0 0.247876-0.115332 0.419096-1.175782 0.205191-1.270839 0.364827-1.632431 0.744944-1.687355 0.186159-0.0269 0.265478-0.137605 0.333162-0.464987 0.05235-0.253222 0.0463-0.472221-0.01474-0.533262-0.05697-0.05697-0.464081-0.138878-0.904697-0.18202-1.6893927-0.16541-2.9338468-1.161617-2.9338468-2.34859 0-0.3151113 0.047629-0.3970408 0.2621259-0.4508764 0.2422907-0.060812 0.2540505-0.09504 0.1554014-0.4523255-0.0586989-0.2125941-0.0783585-0.4995457-0.0436892-0.6376703 0.0561689-0.2237761 0.0124598-0.2608293-0.4014903-0.3401189-0.2554851-0.048941-0.9803152-0.090157-1.6107331-0.091592-1.0395751-0.00237-1.150022-0.022029-1.1871183-0.2113546-0.038949-0.1987792 0.0184-0.2054135 1.200902-0.138943 0.6829929 0.038392 1.4316686 0.1238006 1.6637271 0.189795 0.418928 0.11914 1.0546108-0.016852 1.0546108-0.2256084 0-0.251392-0.9567527-0.6218926-1.9791041-0.7664039-0.6652432-0.094032-1.0833372-0.3334954-1.0833372-0.6204776 0-0.2544092 0.2938514-0.281891 0.8982588-0.084007 0.783942 0.256663 1.4839465 0.616938 2.0743642 1.0676221 0.4326427 0.3302496 1.2929202 0.5983802 1.2929202 0.4029759 0-0.069912-0.5586883-0.4918748-1.2023449-0.9080967-0.210126-0.1358798-0.3995644-0.3380134-0.420974-0.4491871-0.0330393-0.1715687 0.0082999-0.1906593 0.2726748-0.1262492 0.4613282 0.1123472 1.0243904 0.6040997 1.4887457 1.3001985l0.411534 0.6169159 0.354076-0.2158912c0.437189-0.2665669 0.717751-0.2732138 1.068008-0.025304 0.148733 0.105273 0.454281 0.1944643 0.678996 0.1982022 0.51419 0.00855 0.915573 0.3658202 1.090934 0.9710289 0.07077 0.2442275 0.193154 0.5464165 0.271977 0.671531 0.07882 0.1251138 0.111438 0.2593595 0.07248 0.2983221-0.03896 0.038962-0.07605 0.4063558-0.08242 0.8164287-0.01694 1.0915365-0.43349 1.6182915-1.380117 1.7452635l-0.447206 0.05998 0.0329 0.449698c0.02898 0.396202 0.06768 0.453719 0.32532 0.483501 0.535021 0.06184 0.675457 0.457249 0.745506 2.09901 0.03465 0.812109 0.116547 1.575 0.181982 1.695313 0.06544 0.120316 0.153261 0.917167 0.195156 1.770788 0.07335 1.494379 0.02065 1.909643-0.268039 2.112024-0.04291 0.03009-0.134762 1.014454-0.204133 2.1875-0.06937 1.173047-0.197599 2.625-0.284955 3.226562-0.08736 0.601563-0.160393 1.520831-0.162299 2.04282l-0.0035 0.949067 0.407723 0.336088 0.407727 0.336088h-1.375715l0.07487-0.499316c0.04119-0.274624 0.0133-1.208288-0.06181-2.074811-0.109464-1.261725-0.10938-1.679625 3.72e-4 -2.098341 0.124779-0.476036 0.166725-3.837846 0.04935-3.955227-0.02388-0.02388-0.206307 0.08079-0.405373 0.232633-0.344611 0.262854-0.371165 0.335573-0.554741 1.519159-0.27271 1.758258-0.613057 4.959376-0.617674 5.809496-0.0029 0.536783 0.09978 0.707154 0.655789 1.088015 0.267973 0.183555 0.262965 0.185731-0.439865 0.191039l-0.710924 0.0055 0.01464-2.378538zm0.875918-12.331666c-0.111213-0.321655-0.116169-0.315184-0.251149 0.328125-0.205512 0.979505-0.166341 1.16514 0.1154 0.546876 0.204573-0.448927 0.228887-0.605647 0.135755-0.875001z"/>
 <path style="fill:#424242" d="m10.163081 26.198853c8e-3 -1.308199 0.05011-2.870728 0.09344-3.47229 0.04334-0.601563 0.06136-1.209983 0.04004-1.352047-0.0377-0.251258-0.05751-0.244458-0.7272792 0.2495-0.671986 0.495595-0.957922 0.56719-0.818958 0.205055 0.05142-0.134008 0.02335-0.162067-0.110656-0.110656-0.09876 0.03788-0.209934 0.01974-0.247072-0.04036-0.03714-0.06009-0.212417 0.109494-0.389505 0.376843-0.428721 0.647251-0.643726 0.82735-0.643726 0.539213 0-0.348825-0.115318-0.363678-0.403675-0.052-0.217541 0.235153-0.256538 0.250134-0.19535 0.07505 0.124922-0.357444 0.115402-0.548552-0.02594-0.520843-0.07673 0.01505-0.106414-0.04267-0.07034-0.136724 0.04145-0.108024-0.0059-0.162855-0.140654-0.163048-0.149506-2.19e-4 -0.07727-0.108808 0.273752-0.411514l0.47686-0.411188-0.39483-0.18828c-0.217155-0.103558-0.394828-0.22746-0.394828-0.275347 0-0.04788 0.250207-0.184034 0.556016-0.302551 0.795701-0.308374 0.83619-0.407106 0.309807-0.75545-0.246617-0.163203-0.431372-0.313755-0.410567-0.334561 0.0208-0.0208 0.45144-0.188778 0.956966-0.373272 0.947965-0.345965 1.192734-0.506261 1.560156-1.021733 0.213487-0.29951 0.213437-0.302124-0.01176-0.618447-0.124404-0.174716-0.226198-0.469091-0.226198-0.654167 0-0.278091 0.05221-0.348014 0.300782-0.402838 0.165429-0.03648 0.347921-0.07774 0.405535-0.09169 0.05761-0.014-0.10234-0.141748-0.355469-0.284011-0.253122-0.142263-0.460223-0.3262-0.460223-0.408747 0-0.223838 0.670883-0.794007 0.9342582-0.794007 0.206769 0 0.24788-0.115332 0.419104-1.175782 0.205194-1.270839 0.364834-1.632431 0.744958-1.687355 0.186162-0.0269 0.265483-0.137605 0.333168-0.464987 0.05235-0.253222 0.0463-0.472221-0.01474-0.533262-0.05697-0.05697-0.46409-0.138878-0.904714-0.18202-1.6894252-0.16541-2.9339032-1.1616172-2.9339032-2.3485899 0-0.3151113 0.04763-0.3970408 0.262131-0.4508764 0.242295-0.060812 0.254055-0.09504 0.155404-0.4523255-0.0587-0.2125941-0.07836-0.4995457-0.04369-0.6376703 0.05617-0.2237761 0.01246-0.2608293-0.401498-0.3401189-0.25549-0.048941-0.980334-0.090157-1.610764-0.091592-1.039595-0.00237-1.150044-0.022029-1.187141-0.2113546-0.03895-0.1987792 0.0184-0.2054135 1.200925-0.138943 0.683006 0.038392 1.431696 0.1238006 1.663759 0.189795 0.418936 0.11914 1.054631-0.016852 1.054631-0.2256084 0-0.251392-0.956771-0.6218926-1.979142-0.7664039-0.665256-0.094032-1.083358-0.3334954-1.083358-0.6204776 0-0.2544092 0.293857-0.281891 0.898276-0.084007 0.783957 0.256663 1.483975 0.616938 2.074404 1.0676221 0.432651 0.3302496 1.292945 0.5983802 1.292945 0.4029759 0-0.069912-0.558699-0.4918748-1.202368-0.9080967-0.21013-0.1358798-0.399572-0.3380134-0.420982-0.4491871-0.03304-0.1715687 0.0083-0.1906593 0.27268-0.1262492 0.461337 0.1123472 1.02441 0.6040997 1.4887742 1.3001985l0.411542 0.6169159 0.354083-0.2158912c0.437197-0.2665669 0.717764-0.2732138 1.068028-0.025304 0.148736 0.105273 0.45429 0.1944643 0.679009 0.1982022 0.5142 0.00855 0.915591 0.3658202 1.090955 0.9710289 0.07077 0.2442275 0.193158 0.5464165 0.271982 0.671531 0.07882 0.1251138 0.11144 0.2593595 0.07248 0.2983221-0.03896 0.038962-0.07605 0.4063558-0.08242 0.8164287-0.01694 1.0915368-0.433498 1.6182914-1.380143 1.7452634l-0.447215 0.05998 0.0329 0.449698c0.02898 0.396202 0.06768 0.453719 0.325326 0.483501 0.535031 0.06184 0.67547 0.457249 0.74552 2.09901 0.03465 0.812109 0.11655 1.575 0.181986 1.695313 0.06544 0.120316 0.153264 0.917167 0.19516 1.770788 0.07335 1.494379 0.02065 1.909643-0.268045 2.112024-0.04291 0.03009-0.134764 1.014454-0.204137 2.1875-0.06937 1.173047-0.197602 2.625-0.28496 3.226562-0.08736 0.601563-0.160396 1.520831-0.162302 2.04282l-0.0035 0.949067 0.407731 0.336088 0.407734 0.336088h-1.375741l0.07487-0.499316c0.04119-0.274624 0.0133-1.208288-0.06181-2.074811-0.109466-1.261725-0.109382-1.679625 3.72e-4 -2.098341 0.124782-0.476036 0.166729-3.837846 0.04935-3.955227-0.02388-0.02388-0.206311 0.08079-0.40538 0.232633-0.344618 0.262854-0.371173 0.335573-0.554752 1.519159-0.272715 1.758258-0.613069 4.959376-0.617686 5.809496-0.0029 0.536783 0.09978 0.707154 0.655802 1.088015 0.267978 0.183555 0.26297 0.185731-0.439874 0.191039l-0.710937 0.0055 0.01464-2.378538zm0.875935-12.331666c-0.111216-0.321655-0.116172-0.315184-0.251154 0.328125-0.205516 0.979505-0.166344 1.16514 0.115402 0.546876 0.204577-0.448927 0.228891-0.605647 0.135758-0.875001z"/>
 <path style="fill:#8b9cbe;opacity:.1" d="m16 2v1h13c0.554 0 1 0.446 1 1v-1c0-0.554-0.446-1-1-1h-13z"/>
</svg>
