<svg xmlns="http://www.w3.org/2000/svg" width="32" height="32" version="1">
 <g style="opacity:0.2" transform="matrix(0.4375,0,0,0.4375,2,3)">
  <g>
   <path d="M 32,0 C 49.7,0 64,14.3 64,32 64,49.7 49.7,64 32,64 14.3,64 0,49.7 0,32 0,14.3 14.3,0 32,0 Z"/>
  </g>
 </g>
 <g style="fill:#725750" transform="matrix(0.4375,0,0,0.4375,2,2)">
  <g style="fill:#725750">
   <path style="fill:#725750" d="M 32,0 C 49.7,0 64,14.3 64,32 64,49.7 49.7,64 32,64 14.3,64 0,49.7 0,32 0,14.3 14.3,0 32,0 Z"/>
  </g>
 </g>
 <path style="opacity:0.2" d="m 21.451172,7.0019531 c -3.539964,0.089694 -6.913337,3.0393969 -9.34961,5.0332029 -0.87363,0.714967 -2.1606113,2.154299 -2.099609,2.214844 0.06101,0.06054 1.354949,-0.999189 1.992188,-1.513672 2.905943,-2.346145 6.242982,-3.6700155 8.507812,-3.6660155 0.844852,0.00153 2.087089,0.4982663 2.611328,1.0937505 0.599222,0.680655 0.794339,1.20515 0.808594,2.751953 0.008,0.866932 -0.385496,2.144765 -0.283203,2.082031 C 23.889334,14.84432 24.860047,11.981152 24.976562,10.875 25.152719,9.2025693 24.302539,7.480146 22.978516,7.1503906 22.468304,7.0354132 21.956881,6.9891399 21.451172,7.0019531 Z M 9.1757812,8 C 8.4918162,7.992543 7.945443,8.1035009 7.5097656,8.3457031 3.2239453,11.134044 9.1804042,18.92516 11.589844,21.330078 12.20156,21.929865 13.462223,23 13.537109,23 13.611989,23 12.315396,21.548532 11.511719,20.482422 9.2361327,17.463764 7.9742112,14.626298 8.0273438,12.505859 8.0576346,11.296997 8.4823039,10.321161 9.3222656,9.6777344 9.8225274,9.2945241 10.412964,8.8408858 11.642578,8.9902344 L 14,9.5039062 C 12.562129,8.6070447 10.993166,8.0423833 9.1757812,8 Z m 9.2871098,3 c -0.07488,0 1.221713,1.451468 2.02539,2.517578 2.275586,3.018658 3.537508,5.856124 3.484375,7.976563 -0.03029,1.208862 -0.45496,2.184698 -1.294922,2.828125 -0.500262,0.38321 -1.090698,0.836848 -2.320312,0.6875 L 18,24.496094 c 1.437871,0.896862 3.006834,1.461523 4.824219,1.503906 0.683965,0.0075 1.230337,-0.103501 1.666015,-0.345703 C 28.776054,22.865956 22.819596,15.07484 20.410156,12.669922 19.79844,12.070135 18.537777,11 18.462891,11 Z M 16,15 a 2,2 0 0 0 -2,2 2,2 0 0 0 2,2 2,2 0 0 0 2,-2 2,2 0 0 0 -2,-2 z M 8.3613281,19.001953 C 8.1106661,19.15568 7.1399535,22.018848 7.0234375,23.125 c -0.1761568,1.672431 0.6740239,3.394854 1.9980469,3.724609 0.510212,0.114977 1.0216346,0.161251 1.5273436,0.148438 3.539964,-0.08969 6.913338,-3.039397 9.34961,-5.033203 0.873629,-0.714967 2.160612,-2.154299 2.099609,-2.214844 -0.06101,-0.06054 -1.354949,0.999189 -1.992188,1.513672 -2.905943,2.346145 -6.242982,3.670016 -8.507812,3.666016 C 10.653195,24.928187 9.4109577,24.43142 8.8867188,23.835938 8.2874968,23.155282 8.09238,22.630787 8.078125,21.083984 c -0.008,-0.866932 0.3854961,-2.144765 0.2832031,-2.082031 z"/>
 <path style="fill:#8b9cbe" d="M 21.451172 6.0019531 C 17.911208 6.0916471 14.537835 9.0413501 12.101562 11.035156 C 11.227932 11.750123 9.9409507 13.189455 10.001953 13.25 C 10.062963 13.31054 11.356902 12.250811 11.994141 11.736328 C 14.900084 9.3901831 18.237123 8.0663125 20.501953 8.0703125 C 21.346805 8.0718425 22.589042 8.5685788 23.113281 9.1640625 C 23.712503 9.8447179 23.90762 10.369213 23.921875 11.916016 C 23.929875 12.782948 23.536379 14.060781 23.638672 13.998047 C 23.889334 13.84432 24.860047 10.981152 24.976562 9.875 C 25.152719 8.2025693 24.302539 6.480146 22.978516 6.1503906 C 22.468304 6.0354132 21.956881 5.9891399 21.451172 6.0019531 z M 9.1757812 7 C 8.4918162 6.992543 7.945443 7.1035009 7.5097656 7.3457031 C 3.2239453 10.134044 9.1804042 17.92516 11.589844 20.330078 C 12.20156 20.929865 13.462223 22 13.537109 22 C 13.611989 22 12.315396 20.548532 11.511719 19.482422 C 9.2361327 16.463764 7.9742112 13.626298 8.0273438 11.505859 C 8.0576346 10.296997 8.4823039 9.3211612 9.3222656 8.6777344 C 9.8225274 8.2945241 10.412964 7.8408858 11.642578 7.9902344 L 14 8.5039062 C 12.562129 7.6070447 10.993166 7.0423833 9.1757812 7 z M 18.462891 10 C 18.388011 10 19.684604 11.451468 20.488281 12.517578 C 22.763867 15.536236 24.025789 18.373702 23.972656 20.494141 C 23.942366 21.703003 23.517696 22.678839 22.677734 23.322266 C 22.177472 23.705476 21.587036 24.159114 20.357422 24.009766 L 18 23.496094 C 19.437871 24.392956 21.006834 24.957617 22.824219 25 C 23.508184 25.0075 24.054556 24.896499 24.490234 24.654297 C 28.776054 21.865956 22.819596 14.07484 20.410156 11.669922 C 19.79844 11.070135 18.537777 10 18.462891 10 z M 16 14 A 2 2 0 0 0 14 16 A 2 2 0 0 0 16 18 A 2 2 0 0 0 18 16 A 2 2 0 0 0 16 14 z M 8.3613281 18.001953 C 8.1106661 18.15568 7.1399535 21.018848 7.0234375 22.125 C 6.8472807 23.797431 7.6974614 25.519854 9.0214844 25.849609 C 9.5316964 25.964586 10.043119 26.01086 10.548828 25.998047 C 14.088792 25.908357 17.462166 22.95865 19.898438 20.964844 C 20.772067 20.249877 22.05905 18.810545 21.998047 18.75 C 21.937037 18.68946 20.643098 19.749189 20.005859 20.263672 C 17.099916 22.609817 13.762877 23.933688 11.498047 23.929688 C 10.653195 23.928187 9.4109577 23.43142 8.8867188 22.835938 C 8.2874968 22.155282 8.09238 21.630787 8.078125 20.083984 C 8.070125 19.217052 8.4636211 17.939219 8.3613281 18.001953 z"/>
 <g style="fill:#8b9cbe" transform="matrix(0.4375,0,0,0.4375,2,2)">
  <g style="fill:#8b9cbe">
   <path style="fill:#8b9cbe;opacity:0.1" transform="matrix(2.2857143,0,0,2.2857143,-4.5714286,-4.5714286)" d="M 16 2 C 8.25625 2 2 8.25625 2 16 C 2 16.168804 2.0194943 16.332659 2.0253906 16.5 C 2.2899854 8.9907086 8.4250543 3 16 3 C 23.574946 3 29.710015 8.9907086 29.974609 16.5 C 29.980506 16.332659 30 16.168804 30 16 C 30 8.25625 23.74375 2 16 2 z"/>
  </g>
 </g>
</svg>
