<svg xmlns="http://www.w3.org/2000/svg" width="32" height="32" version="1.1">
 <path style="opacity:0.2" d="M 16.077891,3.0009318 A 3.2973503,3.1835035 0 0 0 14.351072,3.4256183 L 4.6488196,8.8337733 A 3.2973503,3.1835035 0 0 0 3,11.59105 v 10.817009 a 3.2973503,3.1835035 0 0 0 1.6486752,2.756998 l 9.7022528,5.408434 a 3.2973503,3.1835035 0 0 0 3.29735,0 l 9.702253,-5.408434 A 3.2973503,3.1835035 0 0 0 28.99935,22.407779 V 11.59077 A 3.2973503,3.1835035 0 0 0 27.350531,8.8334933 l -9.702253,-5.408155 a 3.2973503,3.1835035 0 0 0 -1.57082,-0.4246865 z"/>
 <path style="fill:#4f4f4f" d="M 16.077891,2.0009313 A 3.2973503,3.1835035 0 0 0 14.351072,2.4256178 L 4.6488196,7.8337728 A 3.2973503,3.1835035 0 0 0 3,10.59105 v 10.817009 a 3.2973503,3.1835035 0 0 0 1.6486752,2.756998 l 9.7022528,5.408434 a 3.2973503,3.1835035 0 0 0 3.29735,0 l 9.702253,-5.408434 A 3.2973503,3.1835035 0 0 0 28.99935,21.407779 V 10.59077 A 3.2973503,3.1835035 0 0 0 27.350531,7.8334928 l -9.702253,-5.408155 a 3.2973503,3.1835035 0 0 0 -1.57082,-0.4246865 z"/>
 <path style="fill:#8b9cbe;opacity:0.1" d="M 16.078125 2 A 3.2973503 3.1835035 0 0 0 14.351562 2.4257812 L 4.6484375 7.8339844 A 3.2973503 3.1835035 0 0 0 3 10.591797 L 3 11.591797 A 3.2973503 3.1835035 0 0 1 4.6484375 8.8339844 L 14.351562 3.4257812 A 3.2973503 3.1835035 0 0 1 16.078125 3 A 3.2973503 3.1835035 0 0 1 17.648438 3.4257812 L 27.349609 8.8339844 A 3.2973503 3.1835035 0 0 1 29 11.589844 L 29 10.589844 A 3.2973503 3.1835035 0 0 0 27.349609 7.8339844 L 17.648438 2.4257812 A 3.2973503 3.1835035 0 0 0 16.078125 2 z"/>
 <path style="opacity:0.3" d="m 4.9299225,8.3746401 v 0 C 4.1120666,8.831947 3.2560383,9.0649625 3.069335,9.959464 l 11.486341,6.187839 v 1.585924 l 1.444432,-1.033585 -0.722215,-1.82518 0.722215,0.425191 -1.450074,-2.358379 -8.8584335,-4.7728109 0.016927,-0.00957 z"/>
 <ellipse style="fill:#8b9cbe" cx=".9" cy="11.523" rx="2.052" ry="2.547" transform="matrix(0.94831716,-0.31732406,0.3743147,0.92730173,0,0)"/>
 <ellipse style="fill:#8b9cbe" cx="7.245" cy="18.601" rx="2.052" ry="2.547" transform="matrix(0.94831716,-0.31732406,0.3743147,0.92730173,0,0)"/>
 <ellipse style="fill:#8b9cbe" cx="4.06" cy="15.095" rx="2.052" ry="2.547" transform="matrix(0.94831716,-0.31732406,0.3743147,0.92730173,0,0)"/>
 <path style="fill:#d87900" d="M 3.3331132,9.1993138 A 3.2973503,3.1835035 0 0 0 3.0002167,10.591099 v 10.817097 a 3.2973503,3.1835035 0 0 0 1.6489663,2.756227 l 9.701959,5.408549 a 3.2973503,3.1835035 0 0 0 1.648966,0.425192 V 16.024257 Z"/>
 <path style="fill:#ad6200" d="m 28.675567,9.2252905 -12.676869,6.8290445 0.0015,13.943829 a 3.2973503,3.1835035 0 0 0 1.647555,-0.425192 L 27.35108,24.164423 A 3.2973503,3.1835035 0 0 0 29,21.408196 V 10.591099 A 3.2973503,3.1835035 0 0 0 28.675567,9.2252905 Z"/>
 <path style="fill:#8b9cbe;opacity:0.2" d="M 28.675781 9.2246094 L 15.998047 16.054688 L 15.998047 20.058594 L 28.675781 13.228516 A 3.2973503 3.1835035 0 0 1 29 14.595703 L 29 10.591797 A 3.2973503 3.1835035 0 0 0 28.675781 9.2246094 z"/>
 <path style="opacity:0.2;fill:none;stroke:#8b9cbe;stroke-width:0.71101838px" d="m 8.2259341,7.8643682 5.7826139,-1.2581954 2.242239,-3.088297 v 0"/>
 <path style="opacity:0.2;fill:none;stroke:#8b9cbe;stroke-width:0.71101838px" d="M 11.76631,9.8088512 17.430912,8.6078474 19.67315,5.2335965"/>
 <path style="opacity:0.2;fill:none;stroke:#8b9cbe;stroke-width:0.71101838px" d="m 15.070661,11.638953 5.605595,-1.258195 2.242238,-3.2026781"/>
 <path style="opacity:0.1" d="M 3.3339844 9.1992188 A 3.2973503 3.1835035 0 0 0 3 10.591797 L 3 11.591797 A 3.2973503 3.1835035 0 0 1 3.3339844 10.199219 L 16 17.023438 L 16 16.023438 L 3.3339844 9.1992188 z"/>
 <path style="fill:#8b9cbe;opacity:0.1" d="M 28.675781 9.2246094 L 15.998047 16.054688 L 15.998047 17.054688 L 28.675781 10.224609 A 3.2973503 3.1835035 0 0 1 29 11.591797 L 29 10.591797 A 3.2973503 3.1835035 0 0 0 28.675781 9.2246094 z"/>
 <path style="opacity:0.1" d="M 28.675781 13.228516 L 15.998047 20.058594 L 15.998047 21.058594 L 28.675781 14.228516 A 3.2973503 3.1835035 0 0 1 29 15.595703 L 29 14.595703 A 3.2973503 3.1835035 0 0 0 28.675781 13.228516 z"/>
 <path style="opacity:0.3;fill:#8b9cbe" d="m 8,14.075588 v 3.462178 L 3.0168352,14.544001 v 3.462177 L 8,20.999943 V 24.46212 L 16,23.746 8,14.075588"/>
 <path style="opacity:0.1" d="M 3.0175781 18.005859 L 3.0175781 19.005859 L 8 22 L 8 21 L 3.0175781 18.005859 z M 15.230469 23.814453 L 8 24.462891 L 8 25.462891 L 16 24.746094 L 15.230469 23.814453 z"/>
 <path style="opacity:0.2;fill:#8b9cbe" d="M 8 14.076172 L 8 15.076172 L 15.230469 23.814453 L 16 23.746094 L 8 14.076172 z M 3.0175781 14.544922 L 3.0175781 15.542969 L 8 18.537109 L 8 17.537109 L 3.0175781 14.544922 z"/>
</svg>
