<svg xmlns="http://www.w3.org/2000/svg" width="32" height="32" version="1.1">
 <path style="opacity:0.2" d="M 17.999762,3 C 10.267749,3.0000649 3.9998017,9.2682246 4,17.000239 4.0000661,24.732067 10.267935,30.999936 17.999762,31 c 3.415627,-0.0064 6.711093,-1.261232 9.265905,-3.528274 L 17.23653,17.594183 27.888782,7.1026114 C 25.266193,4.4788836 21.709466,3.0033221 17.999762,3 Z"/>
 <path style="fill:#17191e" d="M 17.999762,2 C 10.267749,2.0000649 3.9998017,8.2682246 4,16.000239 4.0000661,23.732067 10.267935,29.999936 17.999762,30 c 3.415627,-0.0064 6.711093,-1.261232 9.265905,-3.528274 L 17.23653,16.594183 27.888782,6.1026114 C 25.266193,3.4788836 21.709466,2.0033221 17.999762,2 Z"/>
 <path style="opacity:0.1;fill:#8b9cbe" d="M 18 2 C 10.267987 2.0000649 3.9998017 8.2679856 4 16 C 4.0000014 16.168774 4.0194662 16.332671 4.0253906 16.5 C 4.2906319 9.0015149 10.436765 3.0000635 18 3 C 21.47065 3.003108 24.796187 4.3100447 27.359375 6.625 L 27.888672 6.1035156 C 25.266083 3.4797878 21.709704 2.0033221 18 2 z M 17.744141 17.09375 L 17.236328 17.59375 L 26.707031 26.923828 C 26.894001 26.774354 27.085779 26.632244 27.265625 26.472656 L 17.744141 17.09375 z"/>
 <circle style="opacity:0.2" cx="18" cy="17" r="8"/>
 <circle style="fill:#ececec" cx="18" cy="16" r="8"/>
 <circle style="opacity:0.1" cx="18" cy="17" r="3"/>
 <circle style="fill:#d64043" cx="18" cy="16" r="3"/>
</svg>
