<svg width="32" height="32" version="1.1" xmlns="http://www.w3.org/2000/svg">
 <circle cx="16" cy="17" r="14" style="opacity:.2"/>
 <circle cx="16" cy="16" r="14" style="fill:#b2bfd9"/>
 <path d="M 16,2 A 14,14 0 0 0 2,16 14,14 0 0 0 2.0215,16.586 14,14 0 0 1 16,3 14,14 0 0 1 29.979,16.414 14,14 0 0 0 30,16 14,14 0 0 0 16,2 Z" style="fill:#8b9cbe;opacity:.2"/>
 <path d="m13 9a4 4 0 0 0-4 4 4 4 0 0 0 1.115234 2.769531 7 7 0 0 0-0.115234 1.230469 7 7 0 0 0 7 7 7 7 0 0 0 7-7 7 7 0 0 0-7-7 7 7 0 0 0-1.238281 0.113281 4 4 0 0 0-2.761719-1.113281zm-6.5 4a1.5 1.5 0 0 0-1.5 1.5 1.5 1.5 0 0 0 1.5 1.5 1.5 1.5 0 0 0 1.5-1.5 1.5 1.5 0 0 0-1.5-1.5z" style="fill:#e82929"/>
 <path d="m16 5c-1.656854 0-3 1.3431458-3 3 0.0018 1.2698042 0.802816 2.400952 2 2.824219v15.175781 0.5c0 1.932997 1.567003 3.5 3.5 3.5s3.5-1.567003 3.5-3.5c-2.62e-4 -1.139829-0.555547-2.208134-1.488281-2.863281 0.317909-0.486737 0.487546-1.055359 0.488281-1.636719 0-1.656854-1.343146-3-3-3-0.73867 0.0015-1.450807 0.275544-2 0.769531v-8.769531c1.656854 0 3-1.3431458 3-3s-1.343146-3-3-3zm-7.5 2c-0.8284271 0-1.5 0.6715729-1.5 1.5s0.6715729 1.5 1.5 1.5 1.5-0.6715729 1.5-1.5-0.6715729-1.5-1.5-1.5zm15 0c-0.828427 0-1.5 0.6715729-1.5 1.5s0.671573 1.5 1.5 1.5 1.5-0.6715729 1.5-1.5-0.671573-1.5-1.5-1.5z" style="opacity:.1"/>
 <path d="m16 4c-1.656854 0-3 1.3431458-3 3 0.0018 1.2698042 0.802816 2.4009516 2 2.8242188v15.175781 0.5c0 1.932997 1.567003 3.5 3.5 3.5s3.5-1.567003 3.5-3.5c-2.62e-4 -1.139829-0.555547-2.208134-1.488281-2.863281 0.317909-0.486737 0.487546-1.055359 0.488281-1.636719 0-1.656854-1.343146-3-3-3-0.73867 0.0015-1.450807 0.275544-2 0.769531v-8.769531c1.656854 0 3-1.3431458 3-3s-1.343146-3-3-3zm-7.5 2c-0.8284271 0-1.5 0.6715729-1.5 1.5s0.6715729 1.5 1.5 1.5 1.5-0.6715729 1.5-1.5-0.6715729-1.5-1.5-1.5zm15 0c-0.828427 0-1.5 0.6715729-1.5 1.5s0.671573 1.5 1.5 1.5 1.5-0.6715729 1.5-1.5-0.671573-1.5-1.5-1.5z" style="fill:#4c4c4c"/>
</svg>
