<svg xmlns="http://www.w3.org/2000/svg" width="32" height="32" version="1">
 <path style="opacity:0.2" d="M 3.4,3 C 2.6244,3 2,3.6244 2,4.4 v 17.863672 c 0,1.036297 -3.278e-4,1.036001 0.6097657,1.71582 l 6.4572261,6.457226 C 9.7003618,31.000363 9.6999612,31 10.643359,31 H 16 28.6 C 29.3756,31 30,30.3756 30,29.6 V 11.736328 c 0,-1.036297 3.27e-4,-1.036001 -0.609766,-1.71582 L 22.933008,3.5632812 C 22.299638,2.9996374 22.300039,3 21.356641,3 H 16 Z"/>
 <path style="fill:#b81c42" d="M 3.4,2 C 2.6244,2 2,2.6244 2,3.4 v 17.863672 c 0,1.036297 -3.278e-4,1.036001 0.6097657,1.71582 l 6.4572261,6.457226 C 9.7003618,30.000363 9.6999612,30 10.643359,30 H 16 28.6 C 29.3756,30 30,29.3756 30,28.6 V 10.736328 C 30,9.7000309 30.000327,9.7003274 29.390234,9.0205082 L 22.933008,2.5632812 C 22.299638,1.9996374 22.300039,2 21.356641,2 H 16 Z"/>
 <path style="opacity:0.2" d="m 16,12.384615 a 5,5 0 0 0 -5,5 5,5 0 0 0 5,5 5,5 0 0 0 5,-5 5,5 0 0 0 -5,-5 z m 0,1.428572 A 3.5714286,3.5714286 0 0 1 19.571429,17.384615 3.5714286,3.5714286 0 0 1 16,20.956044 3.5714286,3.5714286 0 0 1 12.428572,17.384615 3.5714286,3.5714286 0 0 1 16,13.813187 Z"/>
 <path style="fill:#8b9cbe" d="m 16,11.384615 a 5,5 0 0 0 -5,5 5,5 0 0 0 5,5 5,5 0 0 0 5,-5 5,5 0 0 0 -5,-5 z m 0,1.428572 A 3.5714286,3.5714286 0 0 1 19.571429,16.384615 3.5714286,3.5714286 0 0 1 16,19.956044 3.5714286,3.5714286 0 0 1 12.428572,16.384615 3.5714286,3.5714286 0 0 1 16,12.813187 Z"/>
 <path style="opacity:0.2" d="M 15.699964,7.4336363 C 12.282375,7.5947551 9.5926927,10.403374 9.5736361,13.820925 8.9631333,14.123492 8.3865538,14.516786 7.8780809,15.025257 5.49053,17.418578 5.3636042,21.251653 7.587813,23.797489 6.1971143,22.09283 6.3226229,19.612106 7.8780809,18.056324 c 1.6741908,-1.674191 4.3879421,-1.674189 6.0621331,0 1.674191,1.674192 1.674191,4.387943 0,6.062134 -1.591143,1.590803 -4.1408638,1.681153 -5.8402456,0.206537 C 10.32196,26.346911 13.590704,26.530543 16,24.91809 c 2.409295,1.612453 5.678039,1.428821 7.900031,-0.593095 -1.699383,1.474616 -4.249104,1.384267 -5.840246,-0.206537 -1.67419,-1.674191 -1.67419,-4.387942 0,-6.062134 1.674191,-1.674189 4.387943,-1.674191 6.062133,0 1.555458,1.555782 1.680967,4.036506 0.290268,5.741165 2.22421,-2.545836 2.097284,-6.378911 -0.290268,-8.772232 -0.506865,-0.506865 -1.081638,-0.899282 -1.689972,-1.201541 -0.01931,-3.367305 -2.633473,-6.1521559 -5.996544,-6.3789156 2.188747,0.2220032 3.854195,2.0647275 3.854423,4.2647056 0,2.367662 -1.919371,4.287033 -4.287035,4.287033 -2.367662,0 -4.287033,-1.919371 -4.287033,-4.287033 2.39e-4,-2.2499763 1.739851,-4.1169358 3.984207,-4.2758697 z m 0.302826,9.2774087 1.071759,1.071758 -1.071759,1.071758 -1.071758,-1.071758 z"/>
 <path style="fill:#8b9cbe" d="M 15.699964,6.4336363 C 12.282375,6.5947551 9.5926927,9.4033736 9.5736361,12.820925 8.9631333,13.123492 8.3865538,13.516786 7.8780809,14.025257 5.49053,16.418578 5.3636042,20.251653 7.587813,22.797489 6.1971143,21.09283 6.3226229,18.612106 7.8780809,17.056324 c 1.6741908,-1.674191 4.3879421,-1.674189 6.0621331,0 1.674191,1.674192 1.674191,4.387943 0,6.062134 -1.591143,1.590803 -4.1408638,1.681153 -5.8402456,0.206537 C 10.32196,25.346911 13.590704,25.530543 16,23.91809 c 2.409295,1.612453 5.678039,1.428821 7.900031,-0.593095 -1.699383,1.474616 -4.249104,1.384267 -5.840246,-0.206537 -1.67419,-1.674191 -1.67419,-4.387942 0,-6.062134 1.674191,-1.674189 4.387943,-1.674191 6.062133,0 1.555458,1.555782 1.680967,4.036506 0.290268,5.741165 2.22421,-2.545836 2.097284,-6.378911 -0.290268,-8.772232 -0.506865,-0.506865 -1.081638,-0.899282 -1.689972,-1.201541 -0.01931,-3.3673053 -2.633473,-6.1521559 -5.996544,-6.3789156 2.188747,0.2220032 3.854195,2.0647275 3.854423,4.2647056 0,2.367662 -1.919371,4.287033 -4.287035,4.287033 -2.367662,0 -4.287033,-1.919371 -4.287033,-4.287033 2.39e-4,-2.2499763 1.739851,-4.1169358 3.984207,-4.2758697 z m 0.302826,9.2774087 1.071759,1.071758 -1.071759,1.071758 -1.071758,-1.071758 z"/>
 <path style="fill:#8b9cbe;opacity:0.2" d="M 3.4003906 2 C 2.6247906 2 2 2.6247906 2 3.4003906 L 2 4.4003906 C 2 3.6247906 2.6247906 3 3.4003906 3 L 16 3 L 21.357422 3 C 22.30082 3 22.300224 2.9988562 22.933594 3.5625 L 29.390625 10.021484 C 30.000718 10.701303 30 10.700031 30 11.736328 L 30 10.736328 C 30 9.700031 30.000718 9.7013036 29.390625 9.0214844 L 22.933594 2.5625 C 22.300224 1.9988562 22.30082 2 21.357422 2 L 16 2 L 3.4003906 2 z"/>
</svg>
