<svg xmlns="http://www.w3.org/2000/svg" width="32" height="32" version="1">
 <path style="opacity:0.2" d="m 6.8999461,11.3933 c 4.0182199,-2.7844686 8.5055709,-8.021688 17.8838379,6.308572 -0.639239,4.872117 0.127973,4.351217 -0.891962,8.085636 -1.17506,3.486844 -5.499144,5.494308 -9.90016,5.180388 C 10.428055,30.713708 7.0294408,29.801299 5.8295912,25.743082 5.2613598,23.868623 5.0649336,21.634896 5.1158341,19.30026 5.1748832,16.591912 6.3695427,13.969897 6.8999461,11.3933 Z"/>
 <ellipse id="ellipse905" style="opacity:0.2" cx="-27.737" cy="18.293" rx="1.843" ry="2.483" transform="matrix(-0.98356191,-0.18057123,-0.17115065,0.98524487,0,0)"/>
 <ellipse id="ellipse839" style="fill:#e59c62" cx="-27.566" cy="17.309" rx="1.843" ry="2.483" transform="matrix(-0.98356191,-0.18057123,-0.17115065,0.98524487,0,0)"/>
 <ellipse id="ellipse907" style="opacity:0.2" cx=".947" cy="23.014" rx="1.88" ry="2.515" transform="matrix(0.98380578,-0.17923777,0.17242769,0.98502218,0,0)"/>
 <ellipse style="fill:#e59c62" cx="1.12" cy="22.031" rx="1.88" ry="2.515" transform="matrix(0.98380578,-0.17923777,0.17242769,0.98502218,0,0)"/>
 <path style="fill:#f4ac6f" d="m 6.8999461,10.3933 c 4.0182199,-2.7844689 8.5055709,-8.0216883 17.8838379,6.308572 -0.639239,4.872117 0.127973,4.351217 -0.891962,8.085636 -1.17506,3.486844 -5.499144,5.494308 -9.90016,5.180388 C 10.428055,29.713708 7.0294408,28.801299 5.8295912,24.743082 5.2613598,22.868623 5.0649336,20.634896 5.1158341,18.30026 5.1748832,15.591912 6.3695427,12.969897 6.8999461,10.3933 Z"/>
 <path style="opacity:0.2" d="M 19.623302,24.74261 C 19.107234,26.603132 16.929205,28 14.320658,28 11.485691,28 9.1592231,26.350112 8.922,24.248265 8.9302,24.164845 8.96356,24.04084 9.0685644,24.04316 9.7864836,24.05902 12.090616,23.9498 14.264727,24.0293 c 2.158536,0.07893 4.507631,-0.163474 5.249007,0.14812 0.160359,0.0674 0.107064,0.337154 0.109568,0.56519 z"/>
 <path style="fill:#8b9cbe" d="M 19.623302,23.74261 C 19.107234,25.603132 16.929205,27 14.320658,27 11.485691,27 9.1592231,25.350112 8.922,23.248265 8.9302,23.164845 8.96356,23.04084 9.0685644,23.04316 9.7864836,23.05902 12.090616,22.9498 14.264727,23.0293 c 2.158536,0.07893 4.507631,-0.163474 5.249007,0.14812 0.160359,0.0674 0.107064,0.337154 0.109568,0.56519 z"/>
 <g transform="matrix(-0.74040612,0,0,0.74040612,30.636904,-1.9525896)">
  <circle style="fill:#17191e" cx="15" cy="29" r="2"/>
  <path style="fill:#17191e" d="m 12.508677,26.039209 c 0.408595,0.627898 1.136592,1.284016 1.95396,1.185189 l -1.121124,0.640643 C 12.654239,27.358846 12.519087,26.71462 12.508677,26.039209 Z"/>
  <path style="fill:#17191e" d="m 11.547712,27.480655 c 0.408596,0.627899 1.8413,0.387116 2.658668,0.28829 l -0.544546,1.409414 C 12.97456,28.672164 11.558122,28.156066 11.547712,27.480655 Z"/>
  <path style="fill:#17191e" d="m 11.675841,28.60178 c 0.408595,0.627899 1.841299,0.387117 2.658668,0.28829 l -0.544546,1.409414 C 13.102689,29.793289 11.686251,29.277192 11.675841,28.60178 Z"/>
 </g>
 <path style="opacity:0.2" d="M 7.0567183,6.0624991 C 10.49675,3.5264758 12.930134,2.6115613 15.436829,3.1473619 c 3.340377,0.7139976 6.731965,3.1540616 7.202044,3.9594564 0.77445,1.3268794 1.345457,5.9882077 1.830418,6.8793807 0.494631,0.908943 1.846865,1.892611 2.449219,1.933039 1.410209,0.09465 1.644727,-0.599058 2.08149,-0.43804 -1.295337,2.228898 -1.935531,5.04829 -6.386892,4.432603 C 21.189583,19.689281 21.04269,18.828014 20.205455,17.774872 17.446948,14.314665 15.550593,10.419712 12.756824,10.5 10.506984,10.564657 9.3238431,14.341505 6.9153858,14 4.537267,13.654418 5.146147,9.9269748 5.2657944,8.2844269 5.4945478,7.052732 6.1257433,6.7498769 7.0567183,6.0624991 Z"/>
 <path style="fill:#ffe678" d="M 7.0567183,5.0624988 C 10.49675,2.5264755 12.930134,1.611561 15.436829,2.1473616 c 3.340377,0.7139976 6.731965,3.1540616 7.202044,3.9594564 0.77445,1.3268794 1.345457,5.988208 1.830418,6.879381 0.494631,0.908943 1.846865,1.892611 2.449219,1.933039 1.410209,0.09465 1.644727,-0.599058 2.08149,-0.43804 -1.295337,2.228898 -1.935531,5.04829 -6.386892,4.432603 C 21.189583,18.689281 21.04269,17.828014 20.205455,16.774872 17.446948,13.314665 15.550593,9.4197114 12.756824,9.5 10.506984,9.5646569 9.3238431,13.341505 6.9153858,13 4.537267,12.654418 5.146147,8.9269745 5.2657944,7.2844266 5.4945478,6.0527317 6.1257433,5.7498766 7.0567183,5.0624988 Z"/>
 <g transform="matrix(1.057723,0,0,1.057723,-0.29982791,-1.1064108)">
  <g transform="matrix(0.70000002,0,0,0.70000002,-1.1497989,-0.80000037)">
   <circle style="fill:#17191e" cx="15" cy="29" r="2"/>
   <path style="fill:#17191e" d="m 12.508677,26.039209 c 0.408595,0.627898 1.136592,1.284016 1.95396,1.185189 l -1.121124,0.640643 C 12.654239,27.358846 12.519087,26.71462 12.508677,26.039209 Z"/>
   <path style="fill:#17191e" d="m 11.547712,27.480655 c 0.408596,0.627899 1.8413,0.387116 2.658668,0.28829 l -0.544546,1.409414 C 12.97456,28.672164 11.558122,28.156066 11.547712,27.480655 Z"/>
   <path style="fill:#17191e" d="m 11.675841,28.60178 c 0.408595,0.627899 1.841299,0.387117 2.658668,0.28829 l -0.544546,1.409414 C 13.102689,29.793289 11.686251,29.277192 11.675841,28.60178 Z"/>
  </g>
  <circle style="fill:#8b9cbe" cx="9.525" cy="19.325" r=".525"/>
 </g>
 <circle style="fill:#8b9cbe" cx="19.346" cy="19.334" r=".555"/>
 <path style="opacity:0.2;fill:#8b9cbe" d="M 14.498047 2.015625 C 12.30596 1.866473 10.066668 2.8434796 7.0566406 5.0625 C 6.1256656 5.7498778 5.4943784 6.0534614 5.265625 7.2851562 C 5.2141167 7.9922739 5.0844032 9.0812571 5.1289062 10.125 C 5.1607362 9.4261267 5.2306959 8.7646715 5.265625 8.2851562 C 5.4943784 7.0534614 6.1256656 6.7498778 7.0566406 6.0625 C 10.496672 3.5264767 12.930805 2.6126369 15.4375 3.1484375 C 18.777877 3.8624351 22.168593 6.3020271 22.638672 7.1074219 C 23.413122 8.4343013 23.983789 13.095155 24.46875 13.986328 C 24.963381 14.895271 26.315615 15.879494 26.917969 15.919922 C 27.672247 15.970547 28.082569 15.799419 28.375 15.650391 C 28.579319 15.257058 28.779755 14.859447 29 14.480469 C 28.563237 14.319451 28.328178 15.014572 26.917969 14.919922 C 26.315615 14.879494 24.963381 13.895271 24.46875 12.986328 C 23.983789 12.095155 23.413122 7.4343013 22.638672 6.1074219 C 22.168593 5.3020271 18.777877 2.860482 15.4375 2.1464844 C 15.124163 2.0795093 14.811202 2.0369324 14.498047 2.015625 z"/>
</svg>
