<svg xmlns="http://www.w3.org/2000/svg" width="32" height="32" version="1.1">
 <rect style="opacity:0.2" width="28" height="24" x="2" y="5" rx="1.4" ry="1.4"/>
 <rect style="fill:#4f4f4f" width="28" height="24" x="2" y="4" rx="1.4" ry="1.4"/>
 <path style="opacity:0.2" d="M 5.25,7 C 4.5575,7 4,7.5575 4,8.25 V 13 L 8,17 V 11 H 15 L 10,7 Z M 15,11 H 20 V 27 H 24 V 11 H 28 V 8.25 C 28,7.5575 27.442,7 26.75,7 H 20 Z M 8,17 4,22 V 25.75 C 4,26.442 4.5575,27 5.25,27 H 10 L 15,23 H 8 Z"/>
 <path style="fill:#b2bfd9" d="M 5.25 6 C 4.5575 6 4 6.5575 4 7.25 L 4 12 L 8 16 L 8 10 L 15 10 L 10 6 L 5.25 6 z M 15 10 L 20 10 L 20 26 L 24 26 L 24 10 L 28 10 L 28 7.25 C 28 6.5575 27.442 6 26.75 6 L 20 6 L 15 10 z M 8 16 L 4 21 L 4 24.75 C 4 25.442 4.5575 26 5.25 26 L 10 26 L 15 22 L 8 22 L 8 16 z"/>
 <path style="fill:#8b9cbe;opacity:0.1" d="M 3.4004 4 C 2.6248 4 2 4.6248 2 5.4004 L 2 6.4004 C 2 5.6248 2.6248 5 3.4004 5 L 28.6 5 C 29.375 5 30 5.6248 30 6.4004 L 30 5.4004 C 30 4.6248 29.375 4 28.6 4 L 3.4004 4 z"/>
</svg>
