<svg width="32" height="32" version="1.1" xmlns="http://www.w3.org/2000/svg">
 <g transform="translate(1)">
  <rect x="2" y="4" width="5" height="25" rx="1.25" ry="1.3890001" style="opacity:.2"/>
  <rect x="24" y="4" width="5" height="25" rx="1.25" ry="1.3890001" style="opacity:.2"/>
  <path d="M 4.2500001,6 C 3.5575,6 3,6.4707773 3,7.0555558 V 23.944444 C 3,24.529223 3.5575,25 4.2500001,25 H 24.875 c 0.692501,0 1.250001,-0.470777 1.250001,-1.055556 V 7.0555558 C 26.125001,6.4707773 25.567501,6 24.875,6 Z M 24.25,6 C 23.5575,6 23,6.4707773 23,7.0555558 V 23.944444 C 23,24.529223 23.5575,25 24.25,25 h 2.500001 C 27.4425,25 28,24.529223 28,23.944444 V 7.0555558 C 28,6.4707773 27.4425,6 26.750001,6 Z" style="fill:#49c940"/>
  <rect x="2" y="3" width="5" height="25" rx="1.25" ry="1.3890001" style="fill:#ff6801"/>
  <rect x="24" y="3" width="5" height="25" rx="1.25" ry="1.3890001" style="fill:#ff6801"/>
  <path d="m15.5 10.499999v10m0-10-9 10h18z" style="fill:none;stroke-linecap:round;stroke-linejoin:round;stroke-width:3;stroke:#17191e"/>
  <path d="m15.5 9c-1.380712-1e-7 -2.5 1.119288-2.5 2.5s1.119288 2.5 2.5 2.5 2.5-1.119288 2.5-2.5-1.119288-2.5000001-2.5-2.5zm-8 10c-1.3807118 0-2.4999997 1.119288-2.5 2.5 3e-7 1.380712 1.1192882 2.5 2.5 2.5s2.4999997-1.119288 2.5-2.5c-3e-7 -1.380712-1.1192882-2.5-2.5-2.5zm8 0c-1.380712 0-2.5 1.119288-2.5 2.5s1.119288 2.5 2.5 2.5 2.5-1.119288 2.5-2.5-1.119288-2.5-2.5-2.5zm9 0c-1.380712 0-2.5 1.119288-2.5 2.5s1.119288 2.5 2.5 2.5 2.5-1.119288 2.5-2.5-1.119288-2.5-2.5-2.5z" style="opacity:.2"/>
  <path d="m15.5 8c-1.380712-1e-7 -2.5 1.1192881-2.5 2.5 0 1.380712 1.119288 2.5 2.5 2.5s2.5-1.119288 2.5-2.5c0-1.3807119-1.119288-2.5000001-2.5-2.5zm-9 10c-1.3807118 0-2.4999997 1.119288-2.5 2.5 3e-7 1.380712 1.1192882 2.5 2.5 2.5s2.4999997-1.119288 2.5-2.5c-3e-7 -1.380712-1.1192882-2.5-2.5-2.5zm9 0c-1.380712 0-2.5 1.119288-2.5 2.5s1.119288 2.5 2.5 2.5 2.5-1.119288 2.5-2.5-1.119288-2.5-2.5-2.5zm9 0c-1.380712 0-2.5 1.119288-2.5 2.5s1.119288 2.5 2.5 2.5 2.5-1.119288 2.5-2.5-1.119288-2.5-2.5-2.5z" style="fill:#8b9cbe"/>
  <path d="M 3.25,3 C 2.5575,3 2,3.6192275 2,4.3886719 v 1 C 2,4.6192275 2.5575,4 3.25,4 h 2.5 C 6.4425,4 7,4.6192275 7,5.3886719 v -1 C 7,3.6192275 6.4425,3 5.75,3 Z" style="fill:#8b9cbe;opacity:.1"/>
  <path d="M 25.25,3 C 24.5575,3 24,3.6192275 24,4.3886719 v 1 C 24,4.6192275 24.5575,4 25.25,4 h 2.5 C 28.4425,4 29,4.6192275 29,5.3886719 v -1 C 29,3.6192275 28.4425,3 27.75,3 Z" style="fill:#8b9cbe;opacity:.1"/>
 </g>
</svg>
