<svg xmlns="http://www.w3.org/2000/svg" width="32" height="32" version="1">
 <g>
  <path style="opacity:0.2" d="M 27.005399,4.1200596 12.030346,7.5725587 C 9.9195887,7.8386355 10,10 10,10 v 2 7.214844 C 9.5123074,19.074365 9.0075177,19.002064 8.5,19 5.4624339,19 3,21.462434 3,24.5 3,27.537566 5.4624339,30 8.5,30 c 2.842824,-0.0014 5.216171,-2.168948 5.474609,-5 H 14 V 24.5 11.158203 L 25,8.5419404 V 16.214844 C 24.512307,16.074365 24.007518,16.002064 23.5,16 20.462434,16 18,18.462434 18,21.5 c 0,3.037566 2.462434,5.5 5.5,5.5 2.842824,-0.0014 5.216171,-2.168948 5.474609,-5 H 29 V 7.7001435 6 c 0,0 0.02603,-2.3053357 -1.994601,-1.8799404 z"/>
  <path style="fill:#3c8cf8" d="M 27.005399,3.1200596 12.030346,6.5725587 C 9.9195887,6.8386355 10,9 10,9 v 2 7.214844 C 9.5123074,18.074365 9.0075177,18.002064 8.5,18 5.4624339,18 3,20.462434 3,23.5 3,26.537566 5.4624339,29 8.5,29 c 2.842824,-0.0014 5.216171,-2.168948 5.474609,-5 H 14 V 23.5 10.158203 L 25,7.5419404 V 15.214844 C 24.512307,15.074365 24.007518,15.002064 23.5,15 20.462434,15 18,17.462434 18,20.5 c 0,3.037566 2.462434,5.5 5.5,5.5 2.842824,-0.0014 5.216171,-2.168948 5.474609,-5 H 29 V 6.7001435 5 c 0,0 0.02603,-2.3053357 -1.994601,-1.8799404 z"/>
  <path style="opacity:0.2;fill:#8b9cbe" d="m 27.361328,3.0703125 c -0.110806,0.00648 -0.229179,0.022241 -0.355469,0.048828 L 12.03125,6.5722656 C 9.9204927,6.8383424 10,9 10,9 v 1 C 10,10 9.920493,7.8383424 12.03125,7.5722656 L 27.005859,4.1191406 C 29.02649,3.6937453 29,6 29,6 V 5 C 29,5 29.02342,2.9730693 27.361328,3.0703125 Z M 23.5,15 c -3.037566,0 -5.5,2.462434 -5.5,5.5 0,0.168742 0.01052,0.335131 0.02539,0.5 0.252886,-2.802974 2.605785,-5 5.474609,-5 0.507518,0.0021 1.012307,0.07437 1.5,0.214844 v -1 C 24.512307,15.074365 24.007518,15.002064 23.5,15 Z m -15,3 C 5.4624339,18 3,20.462434 3,23.5 3,23.668742 3.010516,23.835131 3.0253906,24 3.2782771,21.197026 5.6311762,19 8.5,19 c 0.5075177,0.0021 1.0123074,0.07437 1.5,0.214844 v -1 C 9.5123074,18.074365 9.0075177,18.002064 8.5,18 Z"/>
 </g>
 <circle fill="#f5c839" cx="24" cy="23" r="8"/>
 <path opacity=".2" d="m31.979 23.424a8 8 0 0 1 -7.979 7.576 8 8 0 0 1 -7.979 -7.424 8 8 0 0 0 -0.021 0.424 8 8 0 0 0 8 8 8 8 0 0 0 8 -8 8 8 0 0 0 -0.02148 -0.57617z"/>
 <g fill="#fff" transform="translate(2)">
  <rect width="2" height="10" x="19" y="18"/>
  <rect width="2" height="10" x="23" y="18"/>
 </g>
 <g fill="#fff" transform="matrix(0,1,-1,0,47,1)">
  <rect width="2" height="10" x="19" y="18"/>
  <rect width="2" height="10" x="23" y="18"/>
 </g>
</svg>
