<svg xmlns="http://www.w3.org/2000/svg" width="32" height="32" version="1.1">
 <path style="opacity:0.2" d="M 15.6875,5.38867 C 14.096621,5.4849744 12.598313,6.3392715 11.75,7.8085919 L 2.6484375,23.57031 c -0.4424433,0.766335 -0.6271977,1.602743 -0.625,2.429688 l 7.9765625,0 0,4.039062 c 0.518141,-0.383452 0.967934,-0.875326 1.310547,-1.46875 L 20.410156,12.808592 C 21.767456,10.457679 20.928187,7.4494512 18.529297,6.0644512 17.629713,5.5450762 16.642028,5.3308873 15.6875,5.38867 Z"/>
 <path style="opacity:0.2" d="m 22.992188,11.957029 c -0.946091,-0.07508 -1.91919,0.123825 -2.800782,0.632813 L 4.4296875,21.689451 c -1.5828134,0.913838 -2.4296493,2.585148 -2.40625,4.310547 l 7.9765625,0 0,4.021484 15.191406,-8.771484 c 2.350913,-1.3573 3.129141,-4.380407 1.744141,-6.779297 -0.865625,-1.499306 -2.366541,-2.388539 -3.943359,-2.513672 z"/>
 <rect style="opacity:0.2" width="28" height="10" x="2" y="21" rx="4.9" ry="5"/>
 <path style="fill:#4f4f4f" d="M 7 2 C 4.23 2 2 4.1857906 2 6.9003906 L 2 25 L 10 25 L 10 29.003906 C 11.209127 28.111153 12 26.704087 12 25.099609 L 12 6.9003906 C 12 4.1857906 9.77 2 7 2 z"/>
 <path style="opacity:0.1;fill:#8b9cbe" d="M 7 2 C 4.23 2 2 4.1857906 2 6.9003906 L 2 7.9003906 C 2 5.1857906 4.23 3 7 3 C 9.77 3 12 5.1857906 12 7.9003906 L 12 6.9003906 C 12 4.1857906 9.77 2 7 2 z"/>
 <path style="fill:#4d4e99" d="M 15.6875 4.3886719 C 14.096621 4.4849763 12.598313 5.3392734 11.75 6.8085938 L 2.6484375 22.570312 C 2.2059942 23.336647 2.0212398 24.173055 2.0234375 25 L 10 25 L 10 29.039062 C 10.518141 28.65561 10.967934 28.163736 11.310547 27.570312 L 20.410156 11.808594 C 21.767456 9.4576811 20.928187 6.4494531 18.529297 5.0644531 C 17.629713 4.5450781 16.642028 4.3308892 15.6875 4.3886719 z"/>
 <path style="opacity:0.1;fill:#8b9cbe" d="M 15.6875 4.3886719 C 14.096621 4.4849763 12.598313 5.3392733 11.75 6.8085938 L 2.6484375 22.570312 C 2.2059942 23.336647 2.0212398 24.173055 2.0234375 25 L 2.1269531 25 C 2.2225044 24.509881 2.3845121 24.027445 2.6484375 23.570312 L 11.75 7.8085938 C 12.598313 6.3392734 14.096621 5.4849763 15.6875 5.3886719 C 16.642028 5.3308892 17.629713 5.5450781 18.529297 6.0644531 C 19.995333 6.9108699 20.871667 8.3639613 21.027344 9.9023438 C 21.227579 8.0169618 20.311219 6.0932462 18.529297 5.0644531 C 17.629713 4.5450781 16.642028 4.3308892 15.6875 4.3886719 z"/>
 <path style="fill:#e74949" d="M 22.992188 10.957031 C 22.046097 10.881951 21.072998 11.080856 20.191406 11.589844 L 4.4296875 20.689453 C 2.8468741 21.603291 2.0000382 23.274601 2.0234375 25 L 10 25 L 10 29.021484 L 25.191406 20.25 C 27.542319 18.8927 28.320547 15.869593 26.935547 13.470703 C 26.069922 11.971397 24.569006 11.082164 22.992188 10.957031 z"/>
 <path style="opacity:0.1;fill:#8b9cbe" d="M 22.279297 10.953125 C 21.565156 11.001251 20.8526 11.208103 20.191406 11.589844 L 4.4296875 20.689453 C 2.8468741 21.603291 2.0000382 23.274601 2.0234375 25 L 2.1171875 25 C 2.36829 23.651156 3.1567905 22.424361 4.4296875 21.689453 L 20.191406 12.589844 C 21.072998 12.080856 22.046097 11.881951 22.992188 11.957031 C 24.569006 12.082164 26.069922 12.971397 26.935547 14.470703 C 27.30749 15.114927 27.512626 15.804233 27.583984 16.494141 C 27.682987 15.483242 27.488436 14.428334 26.935547 13.470703 C 26.069922 11.971397 24.569006 11.082164 22.992188 10.957031 C 22.755665 10.938261 22.517344 10.937083 22.279297 10.953125 z"/>
 <rect style="fill:#ffc255" width="28" height="10" x="2" y="20" rx="4.9" ry="5"/>
 <circle style="opacity:0.2" cx="7" cy="26" r="2"/>
 <circle style="fill:#8b9cbe" cx="7" cy="25" r="2"/>
 <path style="opacity:0.1;fill:#8b9cbe" d="M 6.9003906 20 C 4.1857906 20 2 22.23 2 25 C 2 25.16917 2.0094656 25.335243 2.0253906 25.5 C 2.2702227 22.967018 4.3515772 21 6.9003906 21 L 25.099609 21 C 27.648423 21 29.729777 22.967018 29.974609 25.5 C 29.990534 25.335243 30 25.16917 30 25 C 30 22.23 27.814209 20 25.099609 20 L 6.9003906 20 z"/>
</svg>
