<svg xmlns="http://www.w3.org/2000/svg" width="32" height="32" version="1">
 <rect style="opacity:0.2" width="29" height="29" x="-31" y="-30" rx="1.45" ry="1.45" transform="matrix(0,-1,-1,0,0,0)"/>
 <rect style="fill:#905212" width="29" height="29" x="-30" y="-30" rx="1.45" ry="1.45" transform="matrix(0,-1,-1,0,0,0)"/>
 <rect style="opacity:0.2" width="23" height="23" x="-28" y="-27" rx="1.15" ry="1.15" transform="matrix(0,-1,-1,0,0,0)"/>
 <rect style="fill:#a67541" width="23" height="23" x="-27" y="-27" rx="1.15" ry="1.15" transform="matrix(0,-1,-1,0,0,0)"/>
 <rect style="opacity:0.2" width="17" height="17" x="-25" y="-24" rx=".85" ry=".85" transform="matrix(0,-1,-1,0,0,0)"/>
 <rect style="fill:#d0a563" width="17" height="17" x="-24" y="-24" rx=".85" ry=".85" transform="matrix(0,-1,-1,0,0,0)"/>
 <rect style="opacity:0.2" width="11" height="11" x="-22" y="-21" rx=".55" ry=".55" transform="matrix(0,-1,-1,0,0,0)"/>
 <rect style="fill:#e7cca1" width="11" height="11" x="-21" y="-21" rx=".55" ry=".55" transform="matrix(0,-1,-1,0,0,0)"/>
 <rect style="opacity:0.2" width="5" height="5" x="-19" y="-18" rx=".25" ry=".25" transform="matrix(0,-1,-1,0,0,0)"/>
 <rect style="fill:#f6eddf" width="5" height="5" x="-18" y="-18" rx=".25" ry=".25" transform="matrix(0,-1,-1,0,0,0)"/>
 <path style="fill:#8b9cbe;opacity:0.1" d="M 2.4492188 1 C 1.6459187 1 1 1.6459187 1 2.4492188 L 1 3.4492188 C 1 2.6459187 1.6459187 2 2.4492188 2 L 28.550781 2 C 29.354081 2 30 2.6459187 30 3.4492188 L 30 2.4492188 C 30 1.6459187 29.354081 1 28.550781 1 L 2.4492188 1 z"/>
 <path style="opacity:0.2;fill:#8b9cbe" d="M 5.1503906 4 C 4.5132906 4 4 4.5132906 4 5.1503906 L 4 6.1503906 C 4 5.5132906 4.5132906 5 5.1503906 5 L 25.849609 5 C 26.486709 5 27 5.5132906 27 6.1503906 L 27 5.1503906 C 27 4.5132906 26.486709 4 25.849609 4 L 5.1503906 4 z"/>
 <path style="opacity:0.2;fill:#8b9cbe" d="M 7.8496094 7 C 7.3787094 7 7 7.3787094 7 7.8496094 L 7 8.8496094 C 7 8.3787094 7.3787094 8 7.8496094 8 L 23.150391 8 C 23.621291 8 24 8.3787094 24 8.8496094 L 24 7.8496094 C 24 7.3787094 23.621291 7 23.150391 7 L 7.8496094 7 z"/>
 <path style="opacity:0.2;fill:#8b9cbe" d="M 10.550781 10 C 10.246081 10 10 10.246081 10 10.550781 L 10 11.550781 C 10 11.246081 10.246081 11 10.550781 11 L 20.449219 11 C 20.753919 11 21 11.246081 21 11.550781 L 21 10.550781 C 21 10.246081 20.753919 10 20.449219 10 L 10.550781 10 z"/>
</svg>
