<svg xmlns="http://www.w3.org/2000/svg" width="32" height="32" version="1">
 <path style="fill:#9f6c2c" d="m 3.4000002,2 c -0.7756,0 -1.4,0.6027027 -1.4,1.3513514 V 27 H 30 V 3.3513514 C 30,2.6027027 29.3756,2 28.6,2 Z"/>
 <rect style="fill:#dc912f" width="8" height="12.273" x="2" y="16.73"/>
 <rect style="opacity:0.4;fill:#8b9cbe" width="8" height="4" x="2" y="17"/>
 <rect style="opacity:0.2;fill:#8b9cbe" width="8" height="4" x="2" y="21"/>
 <circle style="fill:#8b9cbe" cx="5.75" cy="26.75" r=".75"/>
 <path style="opacity:0.2" d="m 2,5 v 2 3 2 3 h 2 v -3 h 4 v 3 h 2 v -3 h 5 v 3 h 2 v -3 h 5 2 4 2 V 5 H 24 17 15 10 4 Z m 2,2 h 4 v 3 H 4 Z m 6,0 h 5 v 3 h -5 z m 7,0 h 5 v 3 h -5 z m 7,0 h 4 v 3 h -4 z"/>
 <path style="fill:#eabd82" d="m 2,4 v 2 3 2 3 h 2 v -3 h 4 v 3 h 2 v -3 h 5 v 3 h 2 v -3 h 5 2 4 2 V 4 H 24 17 15 10 4 Z M 4,6 H 8 V 9 H 4 Z m 6,0 h 5 v 3 h -5 z m 7,0 h 5 v 3 h -5 z m 7,0 h 4 v 3 h -4 z"/>
 <circle style="fill:#8b9cbe" cx="5.75" cy="22.75" r=".75"/>
 <circle style="fill:#8b9cbe" cx="5.75" cy="18.75" r=".75"/>
 <rect style="fill:#dc912f" width="8" height="12.273" x="-30" y="16.73" transform="scale(-1,1)"/>
 <rect style="opacity:0.4;fill:#8b9cbe" width="8" height="4" x="-30" y="17" transform="scale(-1,1)"/>
 <rect style="opacity:0.2;fill:#8b9cbe" width="8" height="4" x="-30" y="21" transform="scale(-1,1)"/>
 <circle style="fill:#8b9cbe" cx="-26.25" cy="26.75" r=".75" transform="scale(-1,1)"/>
 <circle style="fill:#8b9cbe" cx="-26.25" cy="22.75" r=".75" transform="scale(-1,1)"/>
 <circle style="fill:#8b9cbe" cx="-26.25" cy="18.75" r=".75" transform="scale(-1,1)"/>
 <rect style="opacity:0.2" width="8" height="1" x="2" y="29"/>
 <rect style="opacity:0.2" width="8" height="1" x="2" y="25"/>
 <rect style="opacity:0.2" width="8" height="1" x="2" y="21"/>
 <rect style="opacity:0.2" width="8" height="1" x="22" y="29"/>
 <rect style="opacity:0.2" width="8" height="1" x="22" y="25"/>
 <rect style="opacity:0.2" width="8" height="1" x="22" y="21"/>
 <rect style="opacity:0.2" width="12" height="1" x="10" y="27"/>
 <rect style="opacity:0.1" width="30" height="3" x="1" y="15" rx=".682" ry=".75"/>
 <rect style="fill:#dc912f" width="30" height="3" x="1" y="14" rx=".682" ry=".75"/>
 <path style="opacity:0.2;fill:#8b9cbe" d="M 1.6816406 14 C 1.3039133 14 1 14.3345 1 14.75 L 1 15.75 C 1 15.3345 1.3039133 15 1.6816406 15 L 30.318359 15 C 30.696087 15 31 15.3345 31 15.75 L 31 14.75 C 31 14.3345 30.696087 14 30.318359 14 L 1.6816406 14 z"/>
 <path style="fill:#8b9cbe;opacity:0.1" d="M 3.4003906 2 C 2.6247906 2 2 2.6029138 2 3.3515625 L 2 4.3515625 C 2 3.6029138 2.6247906 3 3.4003906 3 L 28.599609 3 C 29.375209 3 30 3.6029138 30 4.3515625 L 30 3.3515625 C 30 2.6029138 29.375209 2 28.599609 2 L 3.4003906 2 z"/>
</svg>
