<svg xmlns="http://www.w3.org/2000/svg" width="32" height="32" version="1">
 <circle style="opacity:0.2" cx="16" cy="17" r="14"/>
 <circle style="fill:#1ca4d4" cx="16" cy="16" r="14"/>
 <path opacity=".2" d="m16 7a10 10 0 0 0 -10 10 10 10 0 0 0 10 10 10 10 0 0 0 10 -10 10 10 0 0 0 -0.615 -3.414l0.02148-0.01563-0.05273-0.07422a10 10 0 0 0 -9.354 -6.496zm0 1a9 9 0 0 1 7.9883 4.8613l-6.24 4.459-10.646 0.967a9 9 0 0 1 -0.102 -1.287 9 9 0 0 1 9 -9zm8.5391 6.1895a9 9 0 0 1 0.461 2.81 9 9 0 0 1 -2.607 6.326l-3.4336-5.1504 5.5801-3.9863zm-6.8906 4.5449 3.6738 5.5098a9 9 0 0 1 -5.322 1.755 9 9 0 0 1 -8.5859 -6.334l10.234-0.932z"/>
 <path fill="#8b9cbe" d="m16 6a10 10 0 0 0 -10 10 10 10 0 0 0 10 10 10 10 0 0 0 10 -10 10 10 0 0 0 -0.615 -3.414l0.021-0.016-0.052-0.074a10 10 0 0 0 -9.354 -6.496zm0 1a9 9 0 0 1 7.988 4.861l-6.24 4.459-10.646 0.967a9 9 0 0 1 -0.102 -1.287 9 9 0 0 1 9 -9zm8.539 6.189a9 9 0 0 1 0.461 2.811 9 9 0 0 1 -2.607 6.326l-3.434-5.15 5.58-3.987zm-6.891 4.545l3.674 5.51a9 9 0 0 1 -5.322 1.756 9 9 0 0 1 -8.5859 -6.334l10.234-0.932z"/>
 <g opacity=".2" transform="translate(0,1)">
  <circle cx="7" cy="18" r="2"/>
  <circle cx="22" cy="23" r="2"/>
  <circle cx="25" cy="12" r="2"/>
  <circle cx="18" cy="17" r="2"/>
 </g>
 <g fill="#8b9cbe">
  <circle cx="7" cy="18" r="2"/>
  <circle cx="22" cy="23" r="2"/>
  <circle cx="25" cy="12" r="2"/>
  <circle cx="18" cy="17" r="2"/>
 </g>
 <path style="opacity:0.2;fill:#8b9cbe" d="M 16 2 A 14 14 0 0 0 2 16 A 14 14 0 0 0 2.0215 16.586 A 14 14 0 0 1 16 3 A 14 14 0 0 1 29.979 16.414 A 14 14 0 0 0 30 16 A 14 14 0 0 0 16 2 z"/>
</svg>
