<svg xmlns="http://www.w3.org/2000/svg" width="32" height="32" version="1.1">
 <g transform="translate(0 -1020.4)">
  <circle opacity=".2" cx="16" cy="1037.4" r="14"/>
  <circle fill="#4f4f4f" cx="16" cy="1036.4" r="14"/>
  <path opacity=".2" d="m12 1031.4v1h3v1h-4v3h-1v-3h-1v7h1v-3h1v3l2 2h6.5l1-1h1.5v1h1l1-0.9998v-6l-1-1.0002h-1v1l-0.87501 0.0002-2-2h-3.125v-1l3-0.0002v-1zm0 3h6.5l2 2h2.5v4h-3l-1 1h-5.375l-1.625-1.7z"/>
  <path fill="#ffa92c" d="m12 1030.4v1h3v1h-4v3h-1v-3h-1v7h1v-3h1v3l2 2h6.5l1-1h1.5v1h1l1-0.9998v-6l-1-1.0002h-1v1l-0.87501 0.0002-2-2h-3.125v-1l3-0.0002v-1zm0 3h6.5l2 2h2.5v4h-3l-1 1h-5.375l-1.625-1.7z"/>
  <path fill="#fff" opacity=".1" transform="translate(0 1020.4)" d="m16 2a14 14 0 0 0 -14 14 14 14 0 0 0 0.0215 0.586 14 14 0 0 1 13.978 -13.586 14 14 0 0 1 13.979 13.414 14 14 0 0 0 0.021 -0.414 14 14 0 0 0 -14 -14z"/>
 </g>
 <circle style="fill:#3f92e7" cx="24" cy="23" r="8"/>
 <path style="fill:#8b9cbe" d="m 23,19 -0.0882,1.0536 a 3.1429,3.1429 0 0 0 -0.91852,0.53126 l -0.95759,-0.4509 -1,1.7321 0.86941,0.6038 a 3.1429,3.1429 0 0 0 -0.048,0.53013 3.1429,3.1429 0 0 0 0.0457,0.53237 l -0.86719,0.60156 1,1.7321 0.95536,-0.44978 a 3.1429,3.1429 0 0 0 0.92075,0.5279 l 0.0882,1.0558 2,0 0.0882,-1.0536 a 3.1429,3.1429 0 0 0 0.91854,-0.53126 l 0.95758,0.4509 1,-1.7321 -0.86942,-0.6038 a 3.1429,3.1429 0 0 0 0.048,-0.53013 3.1429,3.1429 0 0 0 -0.0457,-0.53237 l 0.86719,-0.60156 -1,-1.7321 -0.95536,0.44978 a 3.1429,3.1429 0 0 0 -0.921,-0.528 l -0.088,-1.056 -2,0 z m 1,2.8572 a 1.1429,1.1429 0 0 1 1.143,1.143 A 1.1429,1.1429 0 0 1 24,24.1432 1.1429,1.1429 0 0 1 22.857,23.0002 1.1429,1.1429 0 0 1 24,21.8572 Z"/>
 <path style="opacity:0.2" d="M 31.979,23.424 A 8,8 0 0 1 24,31 8,8 0 0 1 16.021,23.576 8,8 0 0 0 16,24 a 8,8 0 0 0 8,8 8,8 0 0 0 8,-8 8,8 0 0 0 -0.02148,-0.57617 z"/>
</svg>
