<svg xmlns="http://www.w3.org/2000/svg" width="32" height="32" version="1.1">
 <circle style="opacity:0.2" cx="16" cy="17" r="14"/>
 <circle style="fill:#4e4540" cx="16" cy="16" r="14"/>
 <path style="opacity:0.2" d="M 22.324219,4.5253906 16.785156,15.035156 c -0.06398,0.11257 -0.12558,0.226426 -0.18164,0.341797 l -0.0293,0.05469 0.002,0.002 c -1.005872,2.127282 -0.683643,4.684177 0.882812,6.49414 1.716095,1.982861 4.531608,2.620024 6.935547,1.572266 2.403939,-1.047758 3.854663,-3.545457 3.570313,-6.152344 -0.284349,-2.606889 -2.239207,-4.735375 -4.8125,-5.240234 -0.06514,-0.01351 -0.130738,-0.01918 -0.197266,-0.01953 -1.21776,-0.0039 -1.384417,1.76 -0.1875,1.984375 1.722297,0.337902 3.016717,1.747405 3.207031,3.492187 0.190314,1.744781 -0.769957,3.400303 -2.378906,4.101563 -1.608948,0.701261 -3.476423,0.278294 -4.625,-1.048828 -1.148576,-1.327124 -1.299876,-3.234891 -0.375,-4.726563 0.03842,-0.05773 0.07197,-0.119183 0.09766,-0.183594 L 24.044922,5.5527344 A 14,14 0 0 0 22.324219,4.5253906 Z M 4,12 a 1.0000849,1.0000849 0 0 0 -0.8320312,1.554688 l 2,3 A 1.0000849,1.0000849 0 1 0 6.8320312,15.445312 L 5.8691406,14 H 12.322266 L 5.6308594,26.382812 A 14,14 0 0 0 7.125,27.818359 l 7.755859,-14.34375 A 1.0000849,1.0000849 0 0 0 14,12 Z M 17.828125,26 C 17.369879,26 17,26.442158 17,26.990234 v 0.01953 C 17,27.55784 17.369879,28 17.828125,28 h 6.828125 a 14,14 0 0 0 2.066406,-2 z"/>
 <path style="fill:#8b9cbe" d="M 22.324219 3.5253906 L 16.785156 14.035156 C 16.721176 14.147726 16.659576 14.261582 16.603516 14.376953 L 16.574219 14.431641 L 16.576172 14.433594 C 15.5703 16.560876 15.892529 19.117771 17.458984 20.927734 C 19.175079 22.910595 21.990592 23.547758 24.394531 22.5 C 26.79847 21.452242 28.249194 18.954543 27.964844 16.347656 C 27.680495 13.740767 25.725637 11.612281 23.152344 11.107422 C 23.087204 11.093912 23.021606 11.088241 22.955078 11.087891 C 21.737318 11.083991 21.570661 12.847891 22.767578 13.072266 C 24.489875 13.410168 25.784295 14.819671 25.974609 16.564453 C 26.164923 18.309234 25.204652 19.964756 23.595703 20.666016 C 21.986755 21.367277 20.11928 20.94431 18.970703 19.617188 C 17.822127 18.290064 17.670827 16.382297 18.595703 14.890625 C 18.634123 14.832895 18.667669 14.771442 18.693359 14.707031 L 24.044922 4.5527344 A 14 14 0 0 0 22.324219 3.5253906 z M 4 11 A 1.0000849 1.0000849 0 0 0 3.1679688 12.554688 L 5.1679688 15.554688 A 1.0000849 1.0000849 0 1 0 6.8320312 14.445312 L 5.8691406 13 L 12.322266 13 L 5.6308594 25.382812 A 14 14 0 0 0 7.125 26.818359 L 14.880859 12.474609 A 1.0000849 1.0000849 0 0 0 14 11 L 4 11 z"/>
 <path style="fill:#faa41a" d="M 17.828125 25 C 17.369879 25 17 25.442158 17 25.990234 L 17 26.009766 C 17 26.55784 17.369879 27 17.828125 27 L 24.65625 27 A 14 14 0 0 0 26.722656 25 L 17.828125 25 z"/>
 <path style="opacity:0.1;fill:#8b9cbe" d="M 16 2 A 14 14 0 0 0 2 16 A 14 14 0 0 0 2.0214844 16.585938 A 14 14 0 0 1 16 3 A 14 14 0 0 1 29.978516 16.414062 A 14 14 0 0 0 30 16 A 14 14 0 0 0 16 2 z"/>
 <path style="fill:#8b9cbe;opacity:0.2" d="M 17.828125 25 C 17.369879 25 17 25.442158 17 25.990234 L 17 26.009766 C 17 26.191905 17.051679 26.353596 17.123047 26.5 C 17.26643 26.205862 17.522167 26 17.828125 26 L 25.789062 26 A 14 14 0 0 0 26.722656 25 L 17.828125 25 z"/>
</svg>
