<svg xmlns="http://www.w3.org/2000/svg" width="32" height="32" version="1">
 <rect style="opacity:0.2" width="29" height="29" x="2" y="2" rx="8.7" ry="8.7"/>
 <rect style="fill:#e91e63" width="29" height="29" x="2" y="1" rx="8.7" ry="8.7"/>
 <path style="opacity:0.2" d="M 7.5,6 C 6.675,6 6,6.675 6,7.5 V 24 l 3,3 H 25.5 C 26.325,27 27,26.325 27,25.5 V 7.5 C 27,6.675 26.325,6 25.5,6 Z M 9,9 H 24 V 24 H 22 V 16 H 11 v 8 H 9 Z m 8,9 h 3 v 6 h -3 z"/>
 <path style="fill:#8b9cbe" d="M 7.5 5 C 6.675 5 6 5.675 6 6.5 L 6 23 L 9 26 L 25.5 26 C 26.325 26 27 25.325 27 24.5 L 27 6.5 C 27 5.675 26.325 5 25.5 5 L 7.5 5 z M 9 8 L 24 8 L 24 23 L 22 23 L 22 15 L 11 15 L 11 23 L 9 23 L 9 8 z M 17 17 L 20 17 L 20 23 L 17 23 L 17 17 z"/>
 <path style="fill:#8b9cbe;opacity:0.2" d="M 10.699219 1 C 5.8794189 1 2 4.8794189 2 9.6992188 L 2 10.699219 C 2 5.8794189 5.8794189 2 10.699219 2 L 22.300781 2 C 27.120581 2 31 5.8794189 31 10.699219 L 31 9.6992188 C 31 4.8794189 27.120581 1 22.300781 1 L 10.699219 1 z"/>
</svg>
