<svg xmlns="http://www.w3.org/2000/svg" width="32" height="32" version="1.1">
 <path style="opacity:0.2" d="M 16,3 C 8.244,3 2,9.244 2,17 2,24.756 8.244,31 16,31 23.756,31 30,24.756 30,17 30,9.244 23.756,3 16,3 Z m 0,8 a 6,6 0 0 1 6,6 6,6 0 0 1 -6,6 6,6 0 0 1 -6,-6 6,6 0 0 1 6,-6 z"/>
 <path style="fill:#858585" d="m16 8.5a7.5 7.5 0 0 0 -7.5 7.5 7.5 7.5 0 0 0 7.5 7.5 7.5 7.5 0 0 0 7.5 -7.5 7.5 7.5 0 0 0 -7.5 -7.5zm0 4.5c1.6569 0 3 1.3431 3 3s-1.3431 3-3 3-3-1.3431-3-3 1.3431-3 3-3z"/>
 <path style="fill:#b2bfd9" d="M 16 2 C 8.244 2 2 8.244 2 16 C 2 23.756 8.244 30 16 30 C 23.756 30 30 23.756 30 16 C 30 8.244 23.756 2 16 2 z M 16 10 A 6 6 0 0 1 22 16 A 6 6 0 0 1 16 22 A 6 6 0 0 1 10 16 A 6 6 0 0 1 16 10 z"/>
 <path style="fill:#8b9cbe;opacity:0.2" d="M 16 2 C 8.244 2 2 8.244 2 16 C 2 16.168842 2.0195214 16.33264 2.0253906 16.5 C 2.2891326 8.9794325 8.4128418 3 16 3 C 23.500fae9 3 29.710867 8.9794325 29.974609 16.5 C 29.980479 16.33264 30 16.168842 30 16 C 30 8.244 23.756 2 16 2 z M 10.025391 16.498047 A 6 6 0 0 0 10 17 A 6 6 0 0 0 16 23 A 6 6 0 0 0 22 17 A 6 6 0 0 0 21.974609 16.501953 A 6 6 0 0 1 16 22 A 6 6 0 0 1 10.025391 16.498047 z"/>
 <circle fill="#1caff3" cx="24" cy="23" r="8"/>
 <path fill="#fff" d="m23.983 27-2.9828-4h2v-4h2v4h2z"/>
 <path opacity=".2" d="m31.979 23.424a8 8 0 0 1 -7.979 7.576 8 8 0 0 1 -7.979 -7.424 8 8 0 0 0 -0.021 0.424 8 8 0 0 0 8 8 8 8 0 0 0 8 -8 8 8 0 0 0 -0.02148 -0.57617z"/>
</svg>
