<svg xmlns="http://www.w3.org/2000/svg" width="32" height="32" version="1.1">
 <circle style="opacity:0.2" cx="16" cy="16.35" r="14"/>
 <circle style="fill:#0061a7" cx="16" cy="15.65" r="14"/>
 <path style="opacity:0.1;fill:#8b9cbe" d="M 16,1.65 A 14,14 0 0 0 2,15.65 14,14 0 0 0 2.01505,16.0574 14,14 0 0 1 16,2.35 14,14 0 0 1 29.9853,15.9426 14,14 0 0 0 30,15.65 14,14 0 0 0 16,1.65 Z"/>
 <path style="opacity:0.2" d="M 5.8808594,7 A 14,14 0 0 0 3.6835938,10 H 10.216797 L 7.5976562,22 h 3.0703128 l 0.21875,-1 h 8.292969 L 18.9375,23 H 3.5234375 a 14,14 0 0 0 2.078125,3 H 26.400391 a 14,14 0 0 0 2.060547,-3 H 21.958984 L 23.292969,12 H 12.851562 l 0.4375,-2 H 28.304688 A 14,14 0 0 0 26.134766,7 Z m 6.3164066,8 h 7.710937 l -0.365234,3 h -8.001953 z"/>
 <path style="fill:#8b9cbe" d="M 5.8808594 6 A 14 14 0 0 0 3.6835938 9 L 10.216797 9 L 7.5976562 21 L 10.667969 21 L 10.886719 20 L 19.179688 20 L 18.9375 22 L 3.5234375 22 A 14 14 0 0 0 5.6015625 25 L 26.400391 25 A 14 14 0 0 0 28.460938 22 L 21.958984 22 L 23.292969 11 L 12.851562 11 L 13.289062 9 L 28.304688 9 A 14 14 0 0 0 26.134766 6 L 5.8808594 6 z M 12.197266 14 L 19.908203 14 L 19.542969 17 L 11.541016 17 L 12.197266 14 z"/>
</svg>
