<svg xmlns="http://www.w3.org/2000/svg" width="32" height="32" version="1.1">
 <path style="opacity:0.2" d="m 16.078125,3.0000471 c -0.490445,0.00533 -0.962327,0.033642 -1.384221,0.096194 -1.557937,0.2616144 -3.097277,0.8571122 -4.42518,1.5299765 C 6.2971595,6.6714847 1.9200114,11.792292 2.0011102,15.652002 l 0.00748,-0.0067 c 0.00253,0.135704 0.027826,0.296354 0.074778,0.480138 0.1264454,0.494941 0.4092842,1.15525 0.824217,1.935483 0.8298653,1.560468 2.1872149,3.599078 3.8759803,5.745914 2.5849861,3.286153 5.1964125,5.873801 6.6585415,6.697069 l 0.0017,8.4e-4 c 1.026886,0.674868 1.917872,0.496117 2.23087,0.398872 1.034442,-0.187512 3.337172,-1.680697 6.156701,-4.086572 4.062742,-3.466694 7.671748,-7.526485 8.108401,-9.11435 l 0.01579,0.02654 C 30.633032,11.314067 23.357378,5.9929569 22.425094,5.3078657 20.70688,3.8672751 18.493394,3.0000471 16.078125,3.0000471 Z"/>
 <path style="fill:#0060d6" d="m 16.078125,1.9999986 c -0.490445,0.00533 -0.962327,0.033642 -1.384221,0.096194 C 13.135967,2.357807 11.596627,2.9533048 10.268724,3.6261691 6.2971595,5.6714362 1.9200114,10.792244 2.0011102,14.651954 l 0.00748,-0.0067 c 0.00253,0.135704 0.027826,0.296354 0.074778,0.480138 0.1264454,0.494941 0.4092842,1.15525 0.824217,1.935483 0.8298653,1.560468 2.1872149,3.599078 3.8759803,5.745914 2.5849861,3.286153 5.1964125,5.873801 6.6585415,6.697069 l 0.0017,8.4e-4 c 1.026886,0.674868 1.917872,0.496117 2.23087,0.398872 1.034442,-0.187512 3.337172,-1.680697 6.156701,-4.086572 4.062742,-3.466694 7.671748,-7.526485 8.108401,-9.11435 l 0.01579,0.02654 C 30.633032,10.314019 23.357378,4.9929084 22.425094,4.3078172 20.70688,2.8672266 18.493394,1.9999986 16.078125,1.9999986 Z"/>
 <path style="opacity:0.15;fill:#8b9cbe" d="M 2.4444503,14.13789 A 9.8955163,1.7263538 51.519796 0 0 6.7842139,22.807226 9.8955163,1.7263538 51.519796 1 0 9.8428312,21.10918 9.8955163,1.7263538 51.519796 0 0 2.4444503,14.13789 Z"/>
 <path style="opacity:0.15;fill:#8b9cbe" d="M 29.539943,16.064258 A 1.6433802,10.040131 47.18196 0 0 15.119185,29.319141 1.6433802,10.040131 47.18196 1 0 29.950129,16.664453 1.6433802,10.040131 47.18196 0 0 29.539943,16.064258 Z"/>
 <path style="opacity:0.15;fill:#8b9cbe" d="m 16.291472,2.0042397 a 10,9.9703164 0 0 0 -10.2912906,9.9653933 10,9.9703164 0 1 0 19.9996376,0 10,9.9703164 0 0 0 -9.708347,-9.9653933 z"/>
 <g style="font-size:6.73961735px;line-height:125%;font-family:Monospace;letter-spacing:0px;word-spacing:0px;opacity:0.2" transform="matrix(0.46559022,0.53104457,-0.51709037,0.47815473,-1.1036684,0.72150452)">
  <path d="m 21.291758,-14.698858 h 16.301451 v 3.447472 H 31.728952 V 2.9886901 H 27.167863 V -11.251386 h -5.876105 z"/>
 </g>
 <g style="font-size:6.73961735px;line-height:125%;font-family:Monospace;letter-spacing:0px;word-spacing:0px;fill:#8b9cbe" transform="matrix(0.46559022,0.53104457,-0.51709037,0.47815473,-1.1036684,-0.27854398)">
  <path style="fill:#8b9cbe" d="m 21.291758,-14.698858 h 16.301451 v 3.447472 H 31.728952 V 2.9886901 H 27.167863 V -11.251386 h -5.876105 z"/>
 </g>
 <g style="font-size:2.85384536px;line-height:125%;font-family:Monospace;letter-spacing:0px;word-spacing:0px;fill:#8b9cbe" transform="matrix(1.0232317,1.2683964,-0.03710002,0.43288586,-0.80000091,-0.8000012)">
  <path style="fill:#8b9cbe" d="m 6.6472733,20.51031 h 1.9313615 v 6.029861 h 3.3911702 v 1.459808 H 6.6472733 Z"/>
 </g>
 <g style="font-size:2.20785069px;line-height:125%;font-family:Monospace;letter-spacing:0px;word-spacing:0px;fill:#8b9cbe" transform="matrix(1.3453264,-1.2283865,-0.13078663,0.48364218,-0.80000091,-0.8000012)">
  <path style="fill:#8b9cbe" d="m 32.484429,126.84921 q -0.558862,0.27167 -1.160415,0.4075 -0.601553,0.13584 -1.241916,0.13584 -1.447608,0 -2.293664,-0.80725 -0.846055,-0.81112 -0.846055,-2.19664 0,-1.40103 0.861579,-2.2044 0.861579,-0.80336 2.359641,-0.80336 0.578267,0 1.106081,0.10867 0.531695,0.10866 1.001295,0.32212 v 1.19922 q -0.485124,-0.27555 -0.966366,-0.41138 -0.477362,-0.13584 -0.958604,-0.13584 -0.892627,0 -1.377751,0.50065 -0.481242,0.49677 -0.481242,1.42432 0,0.9198 0.465719,1.42044 0.465718,0.50065 1.323416,0.50065 0.232859,0 0.43079,-0.0272 0.201811,-0.031 0.360932,-0.0931 v -1.12549 h -0.912032 v -1.00129 h 2.328592 z"/>
 </g>
 <path style="fill:#8b9cbe;opacity:0.1" d="M 16.078125 2 C 15.58768 2.00533 15.115253 2.0331511 14.693359 2.0957031 C 13.135422 2.3573175 11.597434 2.9540888 10.269531 3.6269531 C 6.2979667 5.6722202 1.9208543 10.792634 2.0019531 14.652344 L 2.0078125 14.644531 C 2.0090165 14.709112 2.0335257 14.797362 2.0449219 14.873047 C 2.4981879 11.129988 6.5596253 6.5374719 10.269531 4.6269531 C 11.597434 3.9540888 13.135422 3.3573175 14.693359 3.0957031 C 15.115253 3.0331511 15.58768 3.00533 16.078125 3 C 18.493394 3 20.707567 3.8680032 22.425781 5.3085938 C 23.28862 5.9426528 29.572578 10.550093 29.96875 16.318359 C 30.302669 10.089212 23.337972 4.9789191 22.425781 4.3085938 C 20.707567 2.8680032 18.493394 2 16.078125 2 z"/>
</svg>
