<svg xmlns="http://www.w3.org/2000/svg" width="32" height="32" version="1">
 <rect style="opacity:0.2" width="12" height="28" x="-23" y="-30" rx="1.412" ry="1.4" transform="matrix(0,-1,-1,0,0,0)"/>
 <path style="opacity:0.2" d="M 5,19 5,29.588235 C 5,30.370353 5.61325,31 6.375,31 l 19.25,0 C 26.38675,31 27,30.370353 27,29.588235 L 27,19 5,19 Z"/>
 <rect style="fill:#797979" width="20" height="28" x="-22" y="-30" rx="1.4" ry="1.4" transform="matrix(0,-1,-1,0,0,0)"/>
 <rect style="opacity:0.2" width="24" height="2" x="4" y="17"/>
 <path style="fill:#b2bfd9" d="M 5,18 5,28.588235 C 5,29.370353 5.61325,30 6.375,30 l 19.25,0 C 26.38675,30 27,29.370353 27,28.588235 L 27,18 5,18 Z"/>
 <path style="opacity:0.5;fill-rule:evenodd" d="m 8,26 14,0 0,2 -14,0 z"/>
 <path style="opacity:0.5;fill-rule:evenodd" d="m 8,23 11,0 0,2 -11,0 z"/>
 <path style="opacity:0.5;fill-rule:evenodd" d="m 8,20 16,0 0,2 -16,0 z"/>
 <path style="opacity:0.2" d="M 18.125,5 C 17.50175,5 17,5.5017501 17,6.125 v 0.75 C 17,7.4982499 17.50175,8 18.125,8 h 0.75 C 19.49825,8 20,7.4982499 20,6.875 V 6.125 C 20,5.5017501 19.49825,5 18.875,5 Z m 4,0 C 21.50175,5 21,5.5017501 21,6.125 v 0.75 C 21,7.4982499 21.50175,8 22.125,8 h 0.75 C 23.49825,8 24,7.4982499 24,6.875 V 6.125 C 24,5.5017501 23.49825,5 22.875,5 Z m 4,0 C 25.50175,5 25,5.5017501 25,6.125 v 0.75 C 25,7.4982499 25.50175,8 26.125,8 h 0.75 C 27.49825,8 28,7.4982499 28,6.875 V 6.125 C 28,5.5017501 27.49825,5 26.875,5 Z m -8,4 C 17.50175,9 17,9.5017501 17,10.125 v 0.75 C 17,11.49825 17.50175,12 18.125,12 h 0.75 C 19.49825,12 20,11.49825 20,10.875 v -0.75 C 20,9.5017501 19.49825,9 18.875,9 Z m 4,0 C 21.50175,9 21,9.5017501 21,10.125 v 0.75 C 21,11.49825 21.50175,12 22.125,12 h 0.75 C 23.49825,12 24,11.49825 24,10.875 v -0.75 C 24,9.5017501 23.49825,9 22.875,9 Z m 4,0 C 25.50175,9 25,9.5017501 25,10.125 v 0.75 C 25,11.49825 25.50175,12 26.125,12 h 0.75 C 27.49825,12 28,11.49825 28,10.875 v -0.75 C 28,9.5017501 27.49825,9 26.875,9 Z m -8,4 C 17.50175,13 17,13.50175 17,14.125 v 0.75 C 17,15.49825 17.50175,16 18.125,16 h 0.75 C 19.49825,16 20,15.49825 20,14.875 v -0.75 C 20,13.50175 19.49825,13 18.875,13 Z m 4,0 C 21.50175,13 21,13.50175 21,14.125 v 0.75 C 21,15.49825 21.50175,16 22.125,16 h 0.75 C 23.49825,16 24,15.49825 24,14.875 v -0.75 C 24,13.50175 23.49825,13 22.875,13 Z m 4,0 C 25.50175,13 25,13.50175 25,14.125 v 0.75 C 25,15.49825 25.50175,16 26.125,16 h 0.75 C 27.49825,16 28,15.49825 28,14.875 v -0.75 C 28,13.50175 27.49825,13 26.875,13 Z"/>
 <rect style="fill:#8b9cbe" width="3" height="3" x="25" y="4" rx="1.125" ry="1.125"/>
 <rect style="fill:#8b9cbe" width="3" height="3" x="21" y="4" rx="1.125" ry="1.125"/>
 <rect style="fill:#8b9cbe" width="3" height="3" x="17" y="4" rx="1.125" ry="1.125"/>
 <rect style="fill:#8b9cbe" width="3" height="3" x="25" y="8" rx="1.125" ry="1.125"/>
 <rect style="fill:#8b9cbe" width="3" height="3" x="21" y="8" rx="1.125" ry="1.125"/>
 <rect style="fill:#8b9cbe" width="3" height="3" x="17" y="8" rx="1.125" ry="1.125"/>
 <rect style="fill:#ff5a5a" width="3" height="3" x="25" y="12" rx="1.125" ry="1.125"/>
 <rect style="fill:#8b9cbe" width="3" height="3" x="21" y="12" rx="1.125" ry="1.125"/>
 <rect style="fill:#6bd70f" width="3" height="3" x="17" y="12" rx="1.125" ry="1.125"/>
 <rect style="fill:#48cdff" width="10" height="6" x="5" y="6"/>
 <path style="fill:#8b9cbe;opacity:0.1" d="M 3.4003906 2 C 2.6247906 2 2 2.6247906 2 3.4003906 L 2 4.4003906 C 2 3.6247906 2.6247906 3 3.4003906 3 L 28.599609 3 C 29.375209 3 30 3.6247906 30 4.4003906 L 30 3.4003906 C 30 2.6247906 29.375209 2 28.599609 2 L 3.4003906 2 z"/>
 <rect style="opacity:0.1" width="10" height="1" x="5" y="6"/>
</svg>
