<svg xmlns="http://www.w3.org/2000/svg" width="32" height="32" version="1.1">
 <path style="opacity:0.2" d="M 16.999999,9.9999998 A 11,11 0 0 0 6,21 11,11 0 0 0 16.999999,32 11,11 0 0 0 28,21 11,11 0 0 0 16.999999,9.9999998 Z"/>
 <path style="fill:#ba122b" d="M 16.999999,8.9999998 A 11,11 0 0 0 6,20 11,11 0 0 0 16.999999,31 11,11 0 0 0 28,20 11,11 0 0 0 16.999999,8.9999998 Z"/>
 <path style="opacity:0.2" d="M 17,2.9999997 A 9.0000006,9.0000006 0 0 0 8,11.999999 9.0000006,9.0000006 0 0 0 17,21 9.0000006,9.0000006 0 0 0 26,11.999999 9.0000006,9.0000006 0 0 0 17,2.9999997 Z"/>
 <path style="fill:#e9314e" d="M 17,1.9999997 A 9.0000006,9.0000006 0 0 0 8,10.999999 9.0000006,9.0000006 0 0 0 17,20 9.0000006,9.0000006 0 0 0 26,10.999999 9.0000006,9.0000006 0 0 0 17,1.9999997 Z"/>
 <path style="fill:#8b9cbe;opacity:0.2" d="M 17 2 A 9.0000006 9.0000006 0 0 0 8 11 A 9.0000006 9.0000006 0 0 0 8.0214844 11.423828 A 9.0000006 9.0000006 0 0 1 17 3 A 9.0000006 9.0000006 0 0 1 25.978516 11.576172 A 9.0000006 9.0000006 0 0 0 26 11 A 9.0000006 9.0000006 0 0 0 17 2 z"/>
 <path style="opacity:0.2" d="M 10.999999,8.0000006 A 7.0000004,7.0000004 0 0 0 4,14.999999 7.0000004,7.0000004 0 0 0 10.999999,22 7.0000004,7.0000004 0 0 0 18,14.999999 7.0000004,7.0000004 0 0 0 10.999999,8.0000006 Z"/>
 <path style="fill:#ef6e82" d="M 10.999999,7.0000006 A 7.0000004,7.0000004 0 0 0 4,13.999999 7.0000004,7.0000004 0 0 0 10.999999,21 7.0000004,7.0000004 0 0 0 18,13.999999 7.0000004,7.0000004 0 0 0 10.999999,7.0000006 Z"/>
 <path style="fill:#8b9cbe;opacity:0.1" d="M 11 7 A 7.0000004 7.0000004 0 0 0 4 14 A 7.0000004 7.0000004 0 0 0 4.0234375 14.458984 A 7.0000004 7.0000004 0 0 1 11 8 A 7.0000004 7.0000004 0 0 1 17.976562 14.541016 A 7.0000004 7.0000004 0 0 0 18 14 A 7.0000004 7.0000004 0 0 0 11 7 z"/>
 <g style="opacity:0.2" transform="translate(0,1)">
  <path d="m 17,11 a 9,9 0 0 0 -9,9 9,9 0 0 0 9,9 9,9 0 0 0 9,-9 9,9 0 0 0 -9,-9 z m 0,2 a 7,7 0 0 1 7,7 7,7 0 0 1 -7,7 7,7 0 0 1 -7,-7 7,7 0 0 1 7,-7 z"/>
  <path d="m 11,9 a 5.0000003,5.0000003 0 0 0 -5,5 5.0000003,5.0000003 0 0 0 5,5 5.0000003,5.0000003 0 0 0 5,-5 5.0000003,5.0000003 0 0 0 -5,-5 z m 0,2 a 3.0000002,3.0000002 0 0 1 3,3 3.0000002,3.0000002 0 0 1 -3,3 3.0000002,3.0000002 0 0 1 -3,-3 3.0000002,3.0000002 0 0 1 3,-3 z"/>
  <path d="m 17,4 a 7.0000005,7.0000005 0 0 0 -7,7 7.0000005,7.0000005 0 0 0 7,7 7.0000005,7.0000005 0 0 0 7,-7 7.0000005,7.0000005 0 0 0 -7,-7 z m 0,2 a 5.0000004,5.0000004 0 0 1 5,5 5.0000004,5.0000004 0 0 1 -5,5 5.0000004,5.0000004 0 0 1 -5,-5 5.0000004,5.0000004 0 0 1 5,-5 z"/>
 </g>
 <g>
  <path style="fill:#8b9cbe" d="M 17 11 A 9 9 0 0 0 8 20 A 9 9 0 0 0 17 29 A 9 9 0 0 0 26 20 A 9 9 0 0 0 17 11 z M 17 13 A 7 7 0 0 1 24 20 A 7 7 0 0 1 17 27 A 7 7 0 0 1 10 20 A 7 7 0 0 1 17 13 z"/>
  <path style="fill:#8b9cbe" d="m 11,9 a 5.0000003,5.0000003 0 0 0 -5,5 5.0000003,5.0000003 0 0 0 5,5 5.0000003,5.0000003 0 0 0 5,-5 5.0000003,5.0000003 0 0 0 -5,-5 z m 0,2 a 3.0000002,3.0000002 0 0 1 3,3 3.0000002,3.0000002 0 0 1 -3,3 3.0000002,3.0000002 0 0 1 -3,-3 3.0000002,3.0000002 0 0 1 3,-3 z"/>
  <path style="fill:#8b9cbe" d="M 17 4 A 7.0000005 7.0000005 0 0 0 10 11 A 7.0000005 7.0000005 0 0 0 17 18 A 7.0000005 7.0000005 0 0 0 24 11 A 7.0000005 7.0000005 0 0 0 17 4 z M 17 6 A 5.0000004 5.0000004 0 0 1 22 11 A 5.0000004 5.0000004 0 0 1 17 16 A 5.0000004 5.0000004 0 0 1 12 11 A 5.0000004 5.0000004 0 0 1 17 6 z"/>
 </g>
</svg>
