<svg xmlns="http://www.w3.org/2000/svg" width="32" height="32" version="1.1">
 <circle style="fill:#222c62" cx="9.5" cy="17.5" r="7"/>
 <circle style="fill:#222c62" cx="22.5" cy="17.5" r="7"/>
 <circle style="fill:#222c62" cx="16.5" cy="20.5" r="7"/>
 <circle style="fill:#222c62" cx="12.5" cy="11.5" r="7"/>
 <circle style="fill:#222c62" cx="20.5" cy="12.5" r="7"/>
 <path style="opacity:0.2" d="m 10.724609,13.019531 a 0.750075,0.750075 0 0 0 -0.292968,1.427735 l 2.121093,1.029296 -2.121093,1.03125 a 0.75035179,0.75035179 0 1 0 0.65625,1.34961 l 3.507812,-1.705078 a 0.750075,0.750075 0 0 0 0,-1.34961 l -3.507812,-1.705078 a 0.750075,0.750075 0 0 0 -0.363282,-0.07813 z m 9.494141,5.816407 a 0.75014975,0.75014975 0 0 0 -0.476562,0.205078 c 0,0 -0.06783,0.07239 -0.353516,0.197265 C 19.102982,19.363159 18.649296,19.5 18,19.5 c -0.649297,0 -1.102982,-0.136841 -1.388672,-0.261719 -0.285689,-0.124877 -0.353516,-0.197265 -0.353516,-0.197265 a 0.75014975,0.75014975 0 0 0 -0.550781,-0.197266 0.75014975,0.75014975 0 0 0 -0.447265,1.316406 c 0,0 0.294965,0.253372 0.751953,0.453125 C 16.468707,20.813035 17.136143,21 18,21 c 0.863857,0 1.531293,-0.186965 1.988281,-0.386719 0.456988,-0.199753 0.751953,-0.453125 0.751953,-0.453125 A 0.75014975,0.75014975 0 0 0 20.21875,18.835938 Z"/>
 <path style="fill:none;stroke:#8b9cbe;stroke-width:1.5;stroke-linecap:round;stroke-linejoin:round" d="M 10.759562,12.77309 14.269,14.477636 10.759562,16.182181"/>
 <path style="fill:none;stroke:#8b9cbe;stroke-width:1.50014949;stroke-linecap:round;stroke-linejoin:round" d="m 15.75807,18.600663 c 0,0 0.728778,0.649262 2.241932,0.649262 1.513153,0 2.241932,-0.649262 2.241932,-0.649262"/>
 <path style="opacity:0.2;fill:none;stroke:#000000;stroke-width:3;stroke-linecap:round;stroke-linejoin:round" d="m 12.5,5.5 a 7,7 0 0 0 -7,7 7,7 0 0 0 0.00977,0.259766 A 7,7 0 0 0 2.5,18.5 a 7,7 0 0 0 7,7 7,7 0 0 0 1.193359,-0.101562 A 7,7 0 0 0 16.5,28.5 7,7 0 0 0 22.251953,25.488281 7,7 0 0 0 22.5,25.5 a 7,7 0 0 0 7,-7 A 7,7 0 0 0 27.494141,13.597656 7,7 0 0 0 27.5,13.5 7,7 0 0 0 20.5,6.5 7,7 0 0 0 17.207031,7.3300781 7,7 0 0 0 12.5,5.5 Z"/>
 <path style="fill:none;stroke:#b2bfd9;stroke-width:3;stroke-linecap:round;stroke-linejoin:round" d="M 12.5 4.5 A 7 7 0 0 0 5.5 11.5 A 7 7 0 0 0 5.5097656 11.759766 A 7 7 0 0 0 2.5 17.5 A 7 7 0 0 0 9.5 24.5 A 7 7 0 0 0 10.693359 24.398438 A 7 7 0 0 0 16.5 27.5 A 7 7 0 0 0 22.251953 24.488281 A 7 7 0 0 0 22.5 24.5 A 7 7 0 0 0 29.5 17.5 A 7 7 0 0 0 27.494141 12.597656 A 7 7 0 0 0 27.5 12.5 A 7 7 0 0 0 20.5 5.5 A 7 7 0 0 0 17.207031 6.3300781 A 7 7 0 0 0 12.5 4.5 z"/>
 <path style="opacity:0.2;fill:#8b9cbe" d="M 12.5 3 C 7.9298513 3 4.2292191 6.6685559 4.0605469 11.199219 C 2.2147334 12.800255 1.0039282 15.025782 1 17.498047 A 1.50015 1.50015 0 0 0 1 17.5 C 1 17.683409 1.0157619 17.862364 1.0273438 18.042969 C 1.1698024 15.75471 2.3295904 13.700629 4.0605469 12.199219 C 4.2292191 7.6685556 7.9298513 4 12.5 4 A 1.50015 1.50015 0 0 0 12.501953 4 C 14.267781 4.0031011 15.917291 4.6672762 17.34375 5.6796875 C 18.349582 5.272422 19.40737 5.00209 20.498047 5 A 1.50015 1.50015 0 0 0 20.5 5 C 25.0272 5 28.68044 8.6066567 28.914062 13.078125 C 30.09216 14.475692 30.852504 16.174797 30.974609 17.994141 C 30.984242 17.82984 31 17.666749 31 17.5 C 30.999251 15.489855 30.200943 13.604741 28.914062 12.078125 C 28.68044 7.606657 25.0272 4 20.5 4 A 1.50015 1.50015 0 0 0 20.498047 4 C 19.40737 4.0020914 18.349582 4.272422 17.34375 4.6796875 C 15.917291 3.6672762 14.267781 3.0031011 12.501953 3 A 1.50015 1.50015 0 0 0 12.5 3 z M 27.974609 18.011719 C 27.719217 20.820378 25.386315 22.993819 22.507812 22.998047 C 22.455172 22.996147 22.402176 22.995688 22.349609 22.992188 A 1.50015 1.50015 0 0 0 21.019531 23.632812 C 19.991553 25.115612 18.306115 25.999169 16.501953 26 C 14.668528 25.9981 12.960523 25.085283 11.939453 23.5625 A 1.50015 1.50015 0 0 0 10.439453 22.919922 C 10.12976 22.973259 9.8162056 23.000236 9.5019531 23 A 1.50015 1.50015 0 0 0 9.5 23 C 6.6356252 23 4.3071118 20.850549 4.0273438 18.064453 C 4.0155336 18.209343 4.0002853 18.353228 4 18.5 C 4 21.555333 6.4446669 24 9.5 24 A 1.50015 1.50015 0 0 0 9.5019531 24 C 9.8162056 24.00023 10.12976 23.973262 10.439453 23.919922 A 1.50015 1.50015 0 0 1 11.939453 24.5625 C 12.960523 26.085283 14.668528 26.9981 16.501953 27 C 18.306115 26.999169 19.991553 26.115611 21.019531 24.632812 A 1.50015 1.50015 0 0 1 22.349609 23.992188 C 22.402176 23.995687 22.455172 23.996147 22.507812 23.998047 C 25.55922 23.993565 28 21.552529 28 18.5 C 27.999939 18.3362 27.98909 18.173551 27.974609 18.011719 z"/>
</svg>
