<svg xmlns="http://www.w3.org/2000/svg" height="32" width="32" version="1.1">
 <path style="opacity:.2" d="m16 3-14 14 14 14 14-14z"/>
 <path style="fill:#00a1fd" d="m16 2-14 14 14 14 14-14z"/>
 <path style="opacity:.1;fill:#8b9cbe" d="m16 2l-14 14 0.5 0.5 13.5-13.5 13.5 13.5 0.5-0.5-14-14z"/>
 <rect style="opacity:.2" rx="2" ry="2" height="22" width="22" y="6" x="5"/>
 <rect style="fill:#47bcff" rx="2" ry="2" height="22" width="22" y="5" x="5"/>
 <path style="opacity:.2" d="m11 15v-3h3l2 2 2-2h3v3l-2 2 2 2v3h-3l-2-2-2 2h-3v-3l2-2z"/>
 <path style="fill:#8b9cbe" d="m11 14v-3h3l2 2 2-2h3v3l-2 2 2 2v3h-3l-2-2-2 2h-3v-3l2-2z"/>
 <path style="opacity:.2;fill:#8b9cbe" d="m7 5c-1.108 0-2 0.892-2 2v1c0-1.108 0.892-2 2-2h18c1.108 0 2 0.892 2 2v-1c0-1.108-0.892-2-2-2h-18z"/>
</svg>
