<svg xmlns="http://www.w3.org/2000/svg" width="32" height="32" version="1">
 <rect style="fill:#00362d" width="7" height="7" x="2" y="23" rx="1.4" ry="1.4"/>
 <rect style="fill:#004d40" width="7" height="7" x="9" y="23" rx="1.4" ry="1.4"/>
 <rect style="fill:#00362d" width="7" height="7" x="16" y="23" rx="1.4" ry="1.4"/>
 <rect style="fill:#004d40" width="7" height="7" x="23" y="23" rx="1.4" ry="1.4"/>
 <rect style="fill:#5e9fdf" width="7" height="7" x="2" y="16" rx="1.4" ry="1.4"/>
 <rect style="fill:#1976d2" width="7" height="7" x="9" y="16" rx="1.4" ry="1.4"/>
 <rect style="fill:#5e9fdf" width="7" height="7" x="16" y="16" rx="1.4" ry="1.4"/>
 <rect style="fill:#1976d2" width="7" height="7" x="23" y="16" rx="1.4" ry="1.4"/>
 <rect style="fill:#1976d2" width="7" height="7" x="2" y="9" rx="1.4" ry="1.4"/>
 <rect style="fill:#5e9fdf" width="7" height="7" x="9" y="9" rx="1.4" ry="1.4"/>
 <rect style="fill:#1976d2" width="7" height="7" x="23" y="9" rx="1.4" ry="1.4"/>
 <rect style="fill:#5e9fdf" width="7" height="7" x="2" y="2" rx="1.4" ry="1.4"/>
 <path style="fill:#7bbc7e" d="M 3.4,16 C 2.6244,16 2,16.6244 2,17.4 v 4.2 C 2,22.3756 2.6244,23 3.4,23 H 7.6 C 8.3756,23 9,22.3756 9,21.6 V 18.175195 L 7.1638671,16.663086 5.1568359,16 Z"/>
 <path style="fill:#43a047" d="M 9,18.175195 V 21.6 c 0,0.7756 0.6244,1.4 1.4,1.4 h 4.2 c 0.7756,0 1.4,-0.6244 1.4,-1.4 v -1.975586 l -0.304883,1.033594 -2.763085,0.75332 z"/>
 <path style="fill:#7bbc7e" d="m 22.018359,16.069726 -1.056835,1.07461 -4.429688,0.67539 L 16,19.624414 V 21.6 c 0,0.7756 0.6244,1.4 1.4,1.4 h 4.2 c 0.7756,0 1.4,-0.6244 1.4,-1.4 v -4.2 c 0,-0.62872 -0.413099,-1.152323 -0.981641,-1.330274 z"/>
 <path style="fill:#004d40" d="M 30,20.418214 V 21.6 c 0,0.7756 -0.6244,1.4 -1.4,1.4 h -3.287916 l -0.11713,-3.296128 z"/>
 <path style="fill:#43a047" d="M 24.4,16 C 23.6244,16 23,16.6244 23,17.4 v 4.2 c 0,0.7756 0.6244,1.4 1.4,1.4 h 1.492968 L 26.14043,21.352539 30,20.731836 V 17.725391 L 27.163086,17.25918 25.719336,16 Z"/>
 <path style="fill:#43a047" d="m 23.765625,14.295117 -0.698633,0.710938 C 23.241191,15.580844 23.766844,16 24.4,16 h 1.319336 z"/>
 <path style="fill:#43a047" d="m 2.1654297,15.011524 c -0.00731,0.05995 -0.020798,0.118619 -0.031445,0.177734 C 2.3562796,15.667247 2.8362959,16 3.4,16 h 1.7568359 z"/>
 <path style="fill:#2f7032" d="M 3.4,23 C 2.6244,23 2,23.6244 2,24.4 v 2.383008 L 2.8708984,26.930664 6.0017578,25.147851 7.3730467,27.492578 9,26.993555 V 24.4 C 9,23.6244 8.3756,23 7.6,23 Z"/>
 <path style="fill:#43a047" d="M 10.4,23 C 9.6244,23 9,23.6244 9,24.4 v 2.593555 l 2.470508,-0.757422 1.640625,-2.802734 2.835547,0.601562 C 15.786117,23.43864 15.248415,23 14.6,23 Z"/>
 <path style="fill:#2f7032" d="m 17.4,23 c -0.656364,0 -1.199145,0.449278 -1.352149,1.056836 l 0.35,0.07383 0.991211,1.927735 4.499414,0.639843 L 23,26.393359 V 24.4 C 23,23.6244 22.3756,23 21.6,23 Z"/>
 <path style="fill:#43a047" d="M 24.4,23 C 23.6244,23 23,23.6244 23,24.4 v 1.993359 L 25.48418,25.7125 25.892968,23 Z"/>
 <path style="opacity:0.2" d="M 2 7.5996094 L 2 8.5996094 C 2 9.3752094 2.6247906 10 3.4003906 10 L 7.5996094 10 C 8.3752094 10 9 9.3752094 9 8.5996094 L 9 7.5996094 C 9 8.3752094 8.3752094 9 7.5996094 9 L 3.4003906 9 C 2.6247906 9 2 8.3752094 2 7.5996094 z M 2 14.599609 L 2 15.599609 C 2 16.375209 2.6247906 17 3.4003906 17 L 7.5996094 17 C 8.3752094 17 9 16.375209 9 15.599609 C 9 16.375209 9.6247902 17 10.400391 17 L 14.599609 17 C 15.375209 17 16 16.375209 16 15.599609 L 16 14.599609 C 16 15.375209 15.375209 16 14.599609 16 L 10.400391 16 C 9.6247902 16 9 15.375209 9 14.599609 C 9 15.375209 8.3752094 16 7.5996094 16 L 3.4003906 16 C 2.6247906 16 2 15.375209 2 14.599609 z M 23 14.599609 L 23 15.599609 C 23 16.375209 23.624791 17 24.400391 17 L 28.599609 17 C 29.375209 17 30 16.375209 30 15.599609 L 30 14.599609 C 30 15.375209 29.375209 16 28.599609 16 L 24.400391 16 C 23.624791 16 23 15.375209 23 14.599609 z M 2 21.599609 L 2 22.599609 C 2 23.375209 2.6247906 24 3.4003906 24 L 7.5996094 24 C 8.3752094 24 9 23.375209 9 22.599609 C 9 23.375209 9.6247902 24 10.400391 24 L 14.599609 24 C 15.375209 24 16 23.375209 16 22.599609 C 16 23.375209 16.624791 24 17.400391 24 L 21.599609 24 C 22.375209 24 23 23.375209 23 22.599609 C 23 23.375209 23.624791 24 24.400391 24 L 28.599609 24 C 29.375209 24 30 23.375209 30 22.599609 L 30 21.599609 C 30 22.375209 29.375209 23 28.599609 23 L 24.400391 23 C 23.624791 23 23 22.375209 23 21.599609 C 23 22.375209 22.375209 23 21.599609 23 L 17.400391 23 C 16.624791 23 16 22.375209 16 21.599609 C 16 22.375209 15.375209 23 14.599609 23 L 10.400391 23 C 9.6247902 23 9 22.375209 9 21.599609 C 9 22.375209 8.3752094 23 7.5996094 23 L 3.4003906 23 C 2.6247906 23 2 22.375209 2 21.599609 z M 2 28.599609 L 2 29.599609 C 2 30.375209 2.6247906 31 3.4003906 31 L 7.5996094 31 C 8.3752094 31 9 30.375209 9 29.599609 C 9 30.375209 9.6247902 31 10.400391 31 L 14.599609 31 C 15.375209 31 16 30.375209 16 29.599609 C 16 30.375209 16.624791 31 17.400391 31 L 21.599609 31 C 22.375209 31 23 30.375209 23 29.599609 C 23 30.375209 23.624791 31 24.400391 31 L 28.599609 31 C 29.375209 31 30 30.375209 30 29.599609 L 30 28.599609 C 30 29.375209 29.375209 30 28.599609 30 L 24.400391 30 C 23.624791 30 23 29.375209 23 28.599609 C 23 29.375209 22.375209 30 21.599609 30 L 17.400391 30 C 16.624791 30 16 29.375209 16 28.599609 C 16 29.375209 15.375209 30 14.599609 30 L 10.400391 30 C 9.6247902 30 9 29.375209 9 28.599609 C 9 29.375209 8.3752094 30 7.5996094 30 L 3.4003906 30 C 2.6247906 30 2 29.375209 2 28.599609 z"/>
 <path style="fill:#8b9cbe;opacity:0.2" d="M 3.4003906 2 C 2.6247906 2 2 2.6247906 2 3.4003906 L 2 4.4003906 C 2 3.6247906 2.6247906 3 3.4003906 3 L 7.5996094 3 C 8.3752094 3 9 3.6247906 9 4.4003906 L 9 3.4003906 C 9 2.6247906 8.3752094 2 7.5996094 2 L 3.4003906 2 z M 10.400391 9 C 9.6247902 9 9 9.6247902 9 10.400391 L 9 11.400391 C 9 10.624791 9.6247902 10 10.400391 10 L 14.599609 10 C 15.375209 10 16 10.624791 16 11.400391 L 16 10.400391 C 16 9.6247902 15.375209 9 14.599609 9 L 10.400391 9 z M 24.400391 9 C 23.624791 9 23 9.6247902 23 10.400391 L 23 11.400391 C 23 10.624791 23.624791 10 24.400391 10 L 28.599609 10 C 29.375209 10 30 10.624791 30 11.400391 L 30 10.400391 C 30 9.6247902 29.375209 9 28.599609 9 L 24.400391 9 z M 17.400391 16 C 16.624791 16 16 16.624791 16 17.400391 L 16 18.400391 C 16 17.624791 16.624791 17 17.400391 17 L 21.599609 17 C 22.375209 17 23 17.624791 23 18.400391 L 23 17.400391 C 23 16.624791 22.375209 16 21.599609 16 L 17.400391 16 z"/>
</svg>
