<svg xmlns="http://www.w3.org/2000/svg" width="32" height="32" version="1">
 <path style="opacity:0.2" d="m 16.896703,6.0043825 c -0.234706,0.0041 -0.447134,0.1399269 -0.549352,0.3512446 L 15.129541,8.8212777 12.876813,8.0500904 C 12.446428,7.8741516 11.98212,8.2151282 12.021187,8.6784423 L 12.343,11.521589 10.797782,11.02086 c -0.449234,-0.133476 -0.8792309,0.258699 -0.787564,0.71829 l 0.06461,2.368545 -1.3938936,-0.120323 C 8.2094963,13.93571 7.8558338,14.40927 8.039219,14.846646 L 9.0292092,17.279812 8.1431831,18.415346 6.9125477,16.300344 C 6.6139873,15.836399 5.904104,15.961583 5.7822452,16.499666 L 5.304601,18.529156 4.3383747,17.240854 C 4.0033153,16.792863 3.2933252,16.980028 3.2226566,17.534976 l -0.4667055,3.264499 c -0.048379,0.372508 0.2417762,0.702645 0.6174126,0.702489 L 4.013977,21.634928 3.986023,23.92426 c -0.00586,0.544636 0.6258633,0.833506 1.0273938,0.46549 L 7.7290395,21.811159 26.041215,21.501964 c 0.435289,-0.0043 0.731761,-0.44275 0.573659,-0.848334 l -1.426855,-3.665583 1.717379,-2.925418 c 0.175164,-0.356883 -0.02463,-0.784258 -0.410797,-0.87872 L 24.283777,12.712342 24.970725,9.7427957 C 25.044994,9.3262583 24.690914,8.9586303 24.271883,9.0172139 L 22.169276,9.2605507 21.668586,7.0175345 C 21.632193,6.536783 21.086548,6.2782123 20.691421,6.5544751 L 18.902078,8.4360018 17.425393,6.2802736 C 17.307566,6.1043649 17.108389,6.0004266 16.896703,6.0043825 Z"/>
 <path style="opacity:0.2" d="m 12.035156,22.64063 -0.376953,3.058594 c 0,0 0.659669,0.300781 1.992188,0.300781 1.332519,0 1.890625,-0.220703 1.890625,-0.220703 l 0.441406,-3.138672 z m 8.751953,1.027344 -0.15625,2.984375 c 0,0 0.650468,0.308132 1.914063,0.34375 1.401339,0.0395 1.921875,-0.324219 1.921875,-0.324219 l 0.375,-3.003906 z"/>
 <path style="fill:#972b00" d="M 12.035156 21.640625 L 11.658203 24.699219 C 11.658203 24.699219 12.317872 25 13.650391 25 C 14.98291 25 15.541016 24.779297 15.541016 24.779297 L 15.982422 21.640625 L 12.035156 21.640625 z M 20.787109 22.667969 L 20.630859 25.652344 C 20.630859 25.652344 21.281327 25.960476 22.544922 25.996094 C 23.946261 26.035594 24.466797 25.671875 24.466797 25.671875 L 24.841797 22.667969 L 20.787109 22.667969 z"/>
 <path style="fill:#ff8100" d="m 16.896703,5.0043777 c -0.234706,0.0041 -0.447134,0.1399269 -0.549352,0.3512446 L 15.129541,7.8212729 12.876813,7.0500856 C 12.446428,6.8741468 11.98212,7.2151234 12.021187,7.6784375 L 12.343,10.521584 10.797782,10.020855 c -0.449234,-0.1334762 -0.8792309,0.258699 -0.787564,0.71829 l 0.06461,2.368545 -1.3938936,-0.120323 C 8.2094963,12.935705 7.8558338,13.409265 8.039219,13.846641 L 9.0292092,16.279807 8.1431831,17.415341 6.9125477,15.300339 C 6.6139873,14.836394 5.904104,14.961578 5.7822452,15.499661 L 5.304601,17.529151 4.3383747,16.240849 C 4.0033153,15.792858 3.2933252,15.980023 3.2226566,16.534971 L 2.7559511,19.79947 c -0.048379,0.372508 0.2417762,0.702645 0.6174126,0.702489 l 0.6406133,0.132964 -0.027954,2.289332 c -0.00586,0.544636 0.6258633,0.833506 1.0273938,0.46549 L 7.7290395,20.811154 26.041215,20.501959 c 0.435289,-0.0043 0.731761,-0.44275 0.573659,-0.848334 l -1.426855,-3.665583 1.717379,-2.925418 c 0.175164,-0.356883 -0.02463,-0.784258 -0.410797,-0.87872 L 24.283777,11.712337 24.970725,8.7427909 C 25.044994,8.3262535 24.690914,7.9586255 24.271883,8.0172091 L 22.169276,8.2605459 21.668586,6.0175297 C 21.632193,5.5367782 21.086548,5.2782075 20.691421,5.5544703 L 18.902078,7.435997 17.425393,5.2802688 C 17.307566,5.1043601 17.108389,5.0004218 16.896703,5.0043777 Z"/>
 <path style="opacity:0.2;fill:#8b9cbe" d="M 16.896484 5.0039062 C 16.661778 5.0080063 16.449874 5.1441511 16.347656 5.3554688 L 15.128906 7.8203125 L 12.876953 7.0507812 C 12.446568 6.8748425 11.982417 7.2144203 12.021484 7.6777344 L 12.095703 8.3398438 C 12.237882 8.0726985 12.563906 7.9228095 12.876953 8.0507812 L 15.128906 8.8222656 L 16.347656 6.3554688 C 16.449874 6.144151 16.661778 6.0080063 16.896484 6.0039062 C 17.10817 5.9999503 17.307954 6.1053413 17.425781 6.28125 L 18.902344 8.4355469 L 20.691406 6.5546875 C 21.086533 6.2784247 21.631576 6.5368266 21.667969 7.0175781 L 22.169922 9.2617188 L 24.271484 9.0175781 C 24.510611 8.9841465 24.718368 9.0974358 24.847656 9.2714844 L 24.970703 8.7421875 C 25.044972 8.3256501 24.690515 7.9589945 24.271484 8.0175781 L 22.169922 8.2597656 L 21.667969 6.0175781 C 21.631576 5.5368266 21.086533 5.2784247 20.691406 5.5546875 L 18.902344 7.4355469 L 17.425781 5.2792969 C 17.307954 5.1033882 17.10817 4.9999503 16.896484 5.0039062 z M 10.472656 10.011719 C 10.166496 10.087251 9.9410155 10.393588 10.009766 10.738281 L 10.029297 11.447266 C 10.120247 11.132279 10.448522 10.917982 10.796875 11.021484 L 12.34375 11.521484 L 12.226562 10.484375 L 10.796875 10.021484 C 10.684566 9.9881153 10.57471 9.9865413 10.472656 10.011719 z M 24.503906 11.759766 L 24.283203 12.712891 L 26.494141 13.183594 C 26.595148 13.208302 26.681775 13.257271 26.753906 13.320312 L 26.90625 13.0625 C 27.081414 12.705617 26.880308 12.278056 26.494141 12.183594 L 24.503906 11.759766 z M 8.6816406 12.988281 C 8.2102025 12.936619 7.8556773 13.408327 8.0390625 13.845703 L 8.1777344 14.183594 C 8.3037256 14.053521 8.4765766 13.96581 8.6816406 13.988281 L 10.074219 14.107422 L 10.046875 13.105469 L 8.6816406 12.988281 z M 6.4550781 15.017578 C 6.1635035 14.988278 5.8593649 15.163698 5.7832031 15.5 L 5.3046875 17.529297 L 4.3378906 16.240234 C 4.0028312 15.792243 3.2933248 15.980208 3.2226562 16.535156 L 2.7558594 19.798828 C 2.7375752 19.939613 2.7789848 20.068503 2.84375 20.181641 L 3.2226562 17.535156 C 3.2933248 16.980208 4.0028312 16.794197 4.3378906 17.242188 L 5.3046875 18.529297 L 5.7832031 16.5 C 5.9050619 15.961917 6.613549 15.836836 6.9121094 16.300781 L 8.1425781 18.416016 L 9.0292969 17.279297 L 8.7617188 16.623047 L 8.1425781 17.416016 L 6.9121094 15.300781 C 6.8001492 15.126802 6.6300229 15.035158 6.4550781 15.017578 z M 25.421875 16.589844 L 25.1875 16.988281 L 26.476562 20.296875 C 26.633084 20.130608 26.708021 19.892325 26.615234 19.654297 L 25.421875 16.589844 z M 4.0019531 21.632812 L 3.9863281 22.923828 C 3.9860138 22.953044 3.9948258 22.978178 3.9980469 23.005859 L 4.0136719 21.634766 L 4.0019531 21.632812 z"/>
 <path style="opacity:0.2" d="m 1.0076673,20.699152 c 0,0 3.8946543,-0.358078 7.2800288,-2.568961 1.8851169,-1.231111 2.6961289,-3.965012 4.3541429,-5.769724 0.35542,-0.386867 0.740137,-0.792647 1.151009,-1.151903 0.995543,-0.824357 2.455521,-1.188429 3.860006,-1.208559 1.213177,-0.017389 2.384949,0.214787 3.180222,0.713023 1.733924,1.177757 3.153372,3.31119 4.021583,5.225778 0.846973,1.867752 1.763387,2.220583 1.763387,2.220583 l 3.013479,1.523086 C 30.949953,20.34884 30.868928,22.049638 31,22.901893 l -1.403808,0.130968 -0.313806,1.064231 c -0.05288,-0.01542 -3.910279,-0.491045 -5.224696,0.588232 -0.649805,0.0088 -1.424398,-0.05545 -2.826029,-0.05523 l -0.381093,3.041501 c 0,0 -0.521481,0.364916 -1.92282,0.325415 -1.263595,-0.03562 -1.912887,-0.345003 -1.912887,-0.345003 l 0.206389,-3.91442 -4.804833,-0.813708 -0.492367,3.9062 c 0,0 -0.555831,0.169926 -1.88835,0.169926 -1.3325186,0 -1.992286,-0.250379 -1.992286,-0.250379 l 0.4542403,-4.115559 c 0,0 -3.9307764,-0.382035 -4.1599164,-0.427173 -3.65948173,-0.72088 -3.3300706,-1.507747 -3.3300706,-1.507747 z"/>
 <path style="fill:#da4000" d="m 1.0076673,19.699147 c 0,0 3.8946543,-0.358078 7.2800288,-2.568961 1.8851169,-1.231111 2.6961289,-3.965012 4.3541429,-5.769724 0.35542,-0.386867 0.740137,-0.792647 1.151009,-1.151903 C 14.788391,9.3842022 16.248369,9.0201304 17.652854,9 c 1.213177,-0.017389 2.384949,0.2147871 3.180222,0.7130232 1.733924,1.1777568 3.153372,3.3111898 4.021583,5.2257778 0.846973,1.867752 1.763387,2.220583 1.763387,2.220583 l 3.013479,1.523086 C 30.949953,19.348835 30.868928,21.049633 31,21.901888 l -1.403808,0.130968 -0.313806,1.064231 c -0.05288,-0.01542 -3.910279,-0.491045 -5.224696,0.588232 -0.649805,0.0088 -1.424398,-0.05545 -2.826029,-0.05523 l -0.381093,3.041501 c 0,0 -0.521481,0.364916 -1.92282,0.325415 -1.263595,-0.03562 -1.912887,-0.345003 -1.912887,-0.345003 l 0.206389,-3.91442 -4.804833,-0.813708 -0.492367,3.9062 c 0,0 -0.555831,0.169926 -1.88835,0.169926 -1.3325186,0 -1.992286,-0.250379 -1.992286,-0.250379 l 0.4542403,-4.115559 c 0,0 -3.9307764,-0.382035 -4.1599164,-0.427173 -3.65948173,-0.72088 -3.3300706,-1.507747 -3.3300706,-1.507747 z"/>
 <circle style="opacity:0.2" cx="25.5" cy="20.5" r="1.5"/>
 <circle style="fill:#8b9cbe" cx="25.5" cy="19.5" r="1.5"/>
 <circle style="fill:#17191e" cx="25.5" cy="19.5" r=".5"/>
 <path style="opacity:0.2" d="m 29.112884,22.028144 c -2.17204,-1.06e-4 -4.133179,0.692703 -4.978727,1.604553 1.377135,-1.007308 5.095942,-0.551284 5.147894,-0.53613 l 0.311008,-1.056711 c -0.159598,-0.0071 -0.319815,-0.01106 -0.480175,-0.01171 z"/>
</svg>
