<svg width="32" height="32" version="1.1" xmlns="http://www.w3.org/2000/svg">
 <rect transform="matrix(0,-1,-1,0,0,0)" x="-30.999985" y="-30" width="28" height="28" rx="1.4" ry="1.4" style="opacity:.2"/>
 <rect transform="matrix(0,-1,-1,0,0,0)" x="-30" y="-30" width="28" height="28" rx="1.4" ry="1.4" style="fill:#90decd"/>
 <path d="m3.4003906 2.0022c-0.7756 0-1.4003906 0.6247906-1.4003906 1.4003906v1c0-0.7756 0.6247906-1.4003906 1.4003906-1.4003906h25.199218c0.7756 0 1.400391 0.6247906 1.400391 1.4003906v-1c0-0.7756-0.624791-1.4003906-1.400391-1.4003906z" style="fill:#8b9cbe;opacity:.2"/>
 <path d="m16 6-6 11 6 11 6-11z" style="opacity:.1"/>
 <path d="m16 5-6 11 6 11 6-11z" style="fill:#72be45"/>
 <path d="m13 16h6l-3-11z" style="fill:#a7e077"/>
 <path d="m10 16 6 11-3-11zm6 11 6-11h-3z" style="fill:#008000;opacity:.4"/>
 <path d="m16 5-6 11 0.273438 0.5 5.726562-10.5 5.726562 10.5 0.273438-0.5-6-11z" style="fill:#8b9cbe;opacity:.2"/>
</svg>
