<svg xmlns="http://www.w3.org/2000/svg" width="32" height="32" version="1">
 <circle style="opacity:0.2" cx="16" cy="17" r="14"/>
 <circle style="fill:#664f41" cx="16" cy="16" r="14"/>
 <path style="opacity:0.2" d="m 16.412109,6 -0.154297,1.4921875 a 9.5187617,9.5187617 0 0 0 -1.02539,0.023437 L 14.998047,6.0390625 13.550781,6.2675781 13.787109,7.75 A 9.5187617,9.5187617 0 0 0 12.804688,8.0410156 L 12.195312,6.6699219 10.857422,7.2675781 11.470703,8.640625 A 9.5187617,9.5187617 0 0 0 10.597656,9.1757812 L 9.6503906,8.0078125 8.5136719,8.9296875 9.4550781,10.089844 A 9.5187617,9.5187617 0 0 0 8.75,10.835938 L 7.5390625,9.9570312 6.6796875,11.142578 7.8964844,12.025391 a 9.5187617,9.5187617 0 0 0 -0.4882813,0.898437 l -1.4023437,-0.537109 -0.5234375,1.367187 1.4003906,0.53711 A 9.5187617,9.5187617 0 0 0 6.6464844,15.287109 L 5.1523438,15.130859 5,16.587891 6.4921875,16.742188 a 9.5187617,9.5187617 0 0 0 0.023437,1.02539 L 5.0390625,18.001953 5.2675781,19.449219 6.75,19.212891 a 9.5187617,9.5187617 0 0 0 0.2910156,0.982421 l -1.3710937,0.609376 0.5976562,1.33789 1.3730469,-0.613281 a 9.5187617,9.5187617 0 0 0 0.5351562,0.873047 l -1.1679687,0.947265 0.921875,1.136719 1.1601563,-0.941406 A 9.5187617,9.5187617 0 0 0 9.8359375,24.25 l -0.8789063,1.210938 1.1855468,0.859374 0.882813,-1.216796 a 9.5187617,9.5187617 0 0 0 0.898437,0.488281 l -0.537109,1.402344 1.367187,0.523437 0.53711,-1.40039 a 9.5187617,9.5187617 0 0 0 0.996093,0.236328 l -0.15625,1.49414 L 15.587891,28 15.742188,26.507812 a 9.5187617,9.5187617 0 0 0 1.02539,-0.02344 l 0.234375,1.476563 1.447266,-0.228516 L 18.212891,26.25 a 9.5187617,9.5187617 0 0 0 0.982421,-0.291016 l 0.609376,1.371094 1.33789,-0.597656 -0.613281,-1.373047 a 9.5187617,9.5187617 0 0 0 0.873047,-0.535156 l 0.947265,1.167969 1.136719,-0.921876 -0.941406,-1.160156 A 9.5187617,9.5187617 0 0 0 23.25,23.164062 l 1.210938,0.878907 0.859374,-1.185547 -1.216796,-0.882813 a 9.5187617,9.5187617 0 0 0 0.488281,-0.898437 l 1.402344,0.537109 0.523437,-1.367187 -1.40039,-0.53711 a 9.5187617,9.5187617 0 0 0 0.236328,-0.996093 l 1.49414,0.15625 L 27,17.412109 25.507812,17.257812 a 9.5187617,9.5187617 0 0 0 -0.02344,-1.02539 L 26.960938,15.998047 26.732422,14.550781 25.25,14.787109 a 9.5187617,9.5187617 0 0 0 -0.291016,-0.982421 l 1.371094,-0.609376 -0.597656,-1.33789 -1.373047,0.613281 A 9.5187617,9.5187617 0 0 0 23.824219,11.597656 L 24.992188,10.650391 24.070312,9.5136719 22.910156,10.455078 A 9.5187617,9.5187617 0 0 0 22.164062,9.75 L 23.042969,8.5390625 21.857422,7.6796875 20.974609,8.8964844 A 9.5187617,9.5187617 0 0 0 20.076172,8.4082031 L 20.613281,7.0058594 19.246094,6.4824219 18.708984,7.8828125 A 9.5187617,9.5187617 0 0 0 17.712891,7.6464844 l 0.15625,-1.4941406 z M 16.060547,8.9550781 15.476562,9.9667969 14.240234,9.2519531 a 1.8333334,1.8333334 0 0 1 0.132813,-0.1367187 8.0543368,8.0543368 0 0 1 0.361328,-0.070312 8.0543368,8.0543368 0 0 1 1.326172,-0.089844 z m 0.763672,0.140625 a 1.8333334,1.8333334 0 0 1 0.558593,0.8964844 1.8333334,1.8333334 0 0 1 -0.03516,1.0546875 l -1.236328,-0.714844 z m 0.988281,0.0625 a 8.0543368,8.0543368 0 0 1 0.619141,0.171875 l -0.464844,0.125 A 2.5666668,2.5666668 0 0 0 17.8125,9.1582031 Z m -4.550781,0.2734375 a 2.5666668,2.5666668 0 0 0 -0.0098,0.023437 l -0.0293,-0.00781 a 8.0543368,8.0543368 0 0 1 0.03906,-0.015625 z m 5.488281,0 a 8.0543368,8.0543368 0 0 1 5.205078,6.3027344 8.0543368,8.0543368 0 0 1 -0.04687,2.732422 l -0.04687,0.01367 c -0.06726,-0.118881 -0.150667,-0.226492 -0.248047,-0.322266 l 0.390625,-0.677734 -0.634765,-0.367188 -0.390625,0.675781 c -0.131919,-0.0361 -0.267538,-0.05245 -0.404297,-0.05078 l -0.203125,-0.755859 -0.708985,0.189453 0.205079,0.755859 c -0.118881,0.06726 -0.228446,0.150667 -0.324219,0.248047 l -0.677735,-0.390625 -0.367187,0.634766 0.675781,0.390625 c -0.0361,0.131919 -0.05245,0.267538 -0.05078,0.404297 L 20.367188,19.417969 20.556641,20.125 21.3125,19.923828 c 0.06726,0.11888 0.15066,0.228446 0.248047,0.324219 l -0.392578,0.675781 0.636719,0.367188 0.390624,-0.675782 c 0.131921,0.0361 0.267537,0.05245 0.404297,0.05078 l 0.177735,0.669922 a 8.0543368,8.0543368 0 0 1 -0.427735,0.609374 l -0.345703,-0.626953 -0.667968,0.367188 a 2.5666668,2.5666668 0 0 0 -0.417969,-0.4375 l 0.392578,-0.650391 -0.628906,-0.378906 -0.392579,0.652344 a 2.5666668,2.5666668 0 0 0 -0.582031,-0.167969 l 0.01563,-0.761719 -0.734375,-0.01367 -0.01367,0.763672 a 2.5666668,2.5666668 0 0 0 -0.58789,0.142578 l -0.283203,-0.513672 0.142578,0.140626 0.515625,-0.521485 -0.53711,-0.529297 a 3.3000002,3.3000002 0 0 0 0.304688,-0.470703 l 0.701172,0.285156 0.277343,-0.677734 -0.699218,-0.285156 a 3.3000002,3.3000002 0 0 0 0.101562,-0.550781 l 0.759766,-0.0039 -0.0059,-0.734375 -0.755859,0.0059 a 3.3000002,3.3000002 0 0 0 -0.115234,-0.546875 l 0.699219,-0.294922 -0.285157,-0.675781 -0.697265,0.294921 a 3.3000002,3.3000002 0 0 0 -0.3125,-0.464843 l 0.53125,-0.53711 -0.521485,-0.515625 -0.53125,0.53711 a 3.3000002,3.3000002 0 0 0 -0.46875,-0.304688 l 0.285157,-0.701172 -0.679688,-0.277343 -0.0078,0.01758 -0.183594,-0.6875 a 2.5666668,2.5666668 0 0 0 0.52539,-0.300782 l 0.53711,0.539063 0.521484,-0.521485 -0.541016,-0.537109 a 2.5666668,2.5666668 0 0 0 0.304688,-0.523437 l 0.734375,0.197265 0.189453,-0.710937 -0.736328,-0.195313 a 2.5666668,2.5666668 0 0 0 0,-0.605468 l 0.736328,-0.1972661 z m -6.382812,0.390625 -0.03906,0.1445313 0.736328,0.1992191 a 2.5666668,2.5666668 0 0 0 0,0.603515 l -0.736328,0.197266 0.189453,0.707031 0.738281,-0.197266 a 2.5666668,2.5666668 0 0 0 0.300782,0.525391 l -0.539063,0.537109 0.519531,0.521485 0.539063,-0.539063 a 2.5666668,2.5666668 0 0 0 0.521484,0.304688 l -0.185547,0.699219 -0.0078,-0.01758 -0.675781,0.285157 0.292968,0.697265 a 3.3000002,3.3000002 0 0 0 -0.46289,0.3125 l -0.539063,-0.53125 -0.513672,0.521485 0.53711,0.53125 a 3.3000002,3.3000002 0 0 0 -0.306641,0.46875 l -0.701172,-0.285157 -0.27539,0.679688 0.697265,0.283203 a 3.3000002,3.3000002 0 0 0 -0.101562,0.550781 l -0.757813,0.0059 0.0039,0.732422 0.757813,-0.0039 a 3.3000002,3.3000002 0 0 0 0.113281,0.546875 l -0.697265,0.294922 0.285156,0.673828 0.695312,-0.292968 a 3.3000002,3.3000002 0 0 0 0.314453,0.46289 l -0.53125,0.539063 0.521485,0.513672 0.529297,-0.53711 a 3.3000002,3.3000002 0 0 0 0.470703,0.306641 l -0.285156,0.701172 0.677734,0.27539 0.285156,-0.697265 a 3.3000002,3.3000002 0 0 0 0.550781,0.101562 l 0.0039,0.757813 0.734375,-0.0039 -0.0059,-0.757813 a 3.3000002,3.3000002 0 0 0 0.546875,-0.113281 l 0.294922,0.697265 0.675781,-0.285156 -0.294921,-0.695312 a 3.3000002,3.3000002 0 0 0 0.464843,-0.314453 l 0.265625,0.263671 -0.599609,0.328125 0.369141,0.667969 a 2.5666668,2.5666668 0 0 0 -0.4375,0.417969 l -0.650391,-0.392578 -0.378906,0.628906 0.65039,0.392578 a 2.5666668,2.5666668 0 0 0 -0.166015,0.582031 L 16,22.802734 l -0.01563,0.734375 0.763672,0.01367 a 2.5666668,2.5666668 0 0 0 0.144531,0.587891 l -0.666016,0.367187 0.291016,0.529297 A 8.0543368,8.0543368 0 0 1 8.0449219,18.265625 8.0543368,8.0543368 0 0 1 12.367188,9.8222656 Z m 1.505859,0.064453 1.236328,0.7128902 -0.712891,1.238282 a 1.8333334,1.8333334 0 0 1 -0.55664,-0.896485 1.8333334,1.8333334 0 0 1 0.0332,-1.0546872 z m 1.871094,1.0800782 1.236328,0.714844 a 1.8333334,1.8333334 0 0 1 -0.896485,0.55664 1.8333334,1.8333334 0 0 1 -1.054687,-0.0332 z m 0.169921,2.044922 0.195313,0.736328 0.671875,-0.179688 -0.251953,0.623047 a 3.3000002,3.3000002 0 0 0 -0.550781,-0.101562 l -0.0059,-0.759766 -0.732422,0.0059 0.0039,0.755859 a 3.3000002,3.3000002 0 0 0 -0.546875,0.115234 l -0.267578,-0.638672 0.68164,0.179688 0.197266,-0.734375 a 2.5666668,2.5666668 0 0 0 0.605468,-0.002 z m -0.279296,1.787109 h 0.0059 a 2.5666668,2.5666668 0 0 1 0.994141,0.205078 2.5666668,2.5666668 0 0 1 1.195312,1.039063 l -2.001953,0.84375 -0.84375,-2 a 2.5666668,2.5666668 0 0 1 0.644531,-0.08594 2.5666668,2.5666668 0 0 1 0.0059,-0.002 z m -1.326172,0.371094 0.84375,2.001953 -1.998047,0.84375 a 2.5666668,2.5666668 0 0 1 -0.08789,-0.644531 2.5666668,2.5666668 0 0 1 0,-0.01172 2.5666668,2.5666668 0 0 1 0.203125,-0.994141 2.5666668,2.5666668 0 0 1 1.039063,-1.195312 z m 3.804687,1.548828 a 2.5666668,2.5666668 0 0 1 0.08594,0.644531 2.5666668,2.5666668 0 0 1 0.002,0.0059 v 0.0039 a 2.5666668,2.5666668 0 0 1 -0.205078,0.996094 2.5666668,2.5666668 0 0 1 -1.039063,1.193359 l -0.84375,-2 z m -2.675781,1.128906 0.84375,1.998047 a 2.5666668,2.5666668 0 0 1 -0.644531,0.08789 2.5666668,2.5666668 0 0 1 -0.0098,0 2.5666668,2.5666668 0 0 1 -0.996094,-0.203125 2.5666668,2.5666668 0 0 1 -1.193359,-1.039063 z m 7.162109,0.619141 a 0.73333337,0.73333337 0 0 1 0.732422,0.734375 0.73333337,0.73333337 0 0 1 -0.732422,0.732422 0.73333337,0.73333337 0 0 1 -0.732421,-0.732422 0.73333337,0.73333337 0 0 1 0.732421,-0.734375 z m -3.271484,2.933594 a 1.8333334,1.8333334 0 0 1 1.001953,0.324218 L 19.300781,22.714844 18.3125,21.685547 a 1.8333334,1.8333334 0 0 1 1.015625,-0.285156 z m 2.990234,0.582031 a 8.0543368,8.0543368 0 0 1 -0.542968,0.621094 2.5666668,2.5666668 0 0 0 -0.08398,-0.275391 z m -4.535156,0.21289 0.990235,1.029297 -1.029297,0.988282 a 1.8333334,1.8333334 0 0 1 -0.285157,-1.015625 1.8333334,1.8333334 0 0 1 0.324219,-1.001954 z m 3.056641,0.05859 a 1.8333334,1.8333334 0 0 1 0.283203,0.949219 8.0543368,8.0543368 0 0 1 -0.794922,0.578125 l -0.517578,-0.537109 z m -1.558594,1.498047 0.390625,0.40625 A 8.0543368,8.0543368 0 0 1 18.28125,24.714844 Z M 17.248047,24.78125 A 2.5666668,2.5666668 0 0 0 17.375,24.933594 8.0543368,8.0543368 0 0 1 17.265625,24.955078 8.0543368,8.0543368 0 0 1 16.853516,25 Z"/>
 <path style="fill:#ca9159" d="m 13.72766,12.793062 0.293956,0.696741 a 3.3000002,3.3000002 0 0 0 -0.463111,0.313536 l -0.538271,-0.531527 -0.51507,0.522 0.537712,0.530202 a 3.3000002,3.3000002 0 0 0 -0.305635,0.469392 l -0.70178,-0.28532 -0.276163,0.67926 0.698023,0.283792 a 3.3000002,3.3000002 0 0 0 -0.101661,0.551228 l -0.758331,0.0044 0.0047,0.73332 0.756458,-0.0051 a 3.3000002,3.3000002 0 0 0 0.11427,0.547183 l -0.698091,0.294528 0.285063,0.67566 0.69674,-0.293957 a 3.3000002,3.3000002 0 0 0 0.313537,0.463112 l -0.531526,0.53827 0.521999,0.515071 0.530202,-0.537712 a 3.3000002,3.3000002 0 0 0 0.469391,0.305635 l -0.28532,0.70178 0.679261,0.276164 0.283792,-0.698024 a 3.3000002,3.3000002 0 0 0 0.551228,0.101661 l 0.0044,0.758331 0.73332,-0.0047 -0.0051,-0.756459 a 3.3000002,3.3000002 0 0 0 0.547184,-0.114271 l 0.294527,0.698092 0.675661,-0.285063 -0.293957,-0.696741 a 3.3000002,3.3000002 0 0 0 0.463113,-0.313536 l 0.53827,0.531526 0.51507,-0.522 -0.537712,-0.530202 a 3.3000002,3.3000002 0 0 0 0.305613,-0.469369 l 0.70178,0.28532 0.276163,-0.67926 -0.698023,-0.283793 a 3.3000002,3.3000002 0 0 0 0.101661,-0.551227 l 0.75833,-0.0044 -0.0047,-0.73332 -0.756458,0.0051 a 3.3000002,3.3000002 0 0 0 -0.114244,-0.547194 l 0.698092,-0.294527 -0.285064,-0.67566 -0.69674,0.293957 A 3.3000002,3.3000002 0 0 0 18.19665,14.291834 l 0.531526,-0.53827 -0.521999,-0.51507 -0.530202,0.537711 a 3.3000002,3.3000002 0 0 0 -0.469369,-0.305634 l 0.28532,-0.70178 -0.679262,-0.276164 -0.283791,0.698023 a 3.3000002,3.3000002 0 0 0 -0.551228,-0.101661 l -0.0044,-0.75833 -0.73332,0.0047 0.0051,0.756458 a 3.3000002,3.3000002 0 0 0 -0.547184,0.114272 l -0.29452,-0.698069 z m 0.581272,1.377738 0.844044,2.000563 -1.999279,0.843502 a 2.5666668,2.5666668 0 0 1 -0.08683,-0.644261 2.5666668,2.5666668 0 0 1 -0.0013,-0.01037 2.5666668,2.5666668 0 0 1 0.204788,-0.99583 2.5666668,2.5666668 0 0 1 1.038505,-1.19366 z m 0.676231,-0.28371 a 2.5666668,2.5666668 0 0 1 0.644262,-0.08683 2.5666668,2.5666668 0 0 1 0.0059,-8.8e-4 l 0.0045,-3.3e-4 a 2.5666668,2.5666668 0 0 1 0.995789,0.204693 2.5666668,2.5666668 0 0 1 1.193662,1.038505 l -2.000563,0.844043 z m -1.547687,3.803977 2.000563,-0.844044 0.843502,1.99928 a 2.5666668,2.5666668 0 0 1 -0.644261,0.08683 2.5666668,2.5666668 0 0 1 -0.01037,0.0013 2.5666668,2.5666668 0 0 1 -0.995829,-0.204789 2.5666668,2.5666668 0 0 1 -1.19366,-1.038503 z m 2.676223,-1.129107 1.99928,-0.843502 a 2.5666668,2.5666668 0 0 1 0.08683,0.644262 2.5666668,2.5666668 0 0 1 8.8e-4,0.0059 l 3.3e-4,0.0045 a 2.5666668,2.5666668 0 0 1 -0.20472,0.9958 2.5666668,2.5666668 0 0 1 -1.038504,1.193662 z"/>
 <path style="fill:#ca9159" d="m 18.98907,18.927281 -0.0148,0.763257 a 2.5666668,2.5666668 0 0 0 -0.587268,0.14333 l -0.368143,-0.666118 -0.642929,0.354268 0.368116,0.667548 a 2.5666668,2.5666668 0 0 0 -0.437857,0.416981 l -0.649935,-0.392233 -0.378927,0.628711 0.651344,0.393691 a 2.5666668,2.5666668 0 0 0 -0.16742,0.581242 l -0.761863,-0.01478 -0.01422,0.733196 0.763256,0.0148 a 2.5666668,2.5666668 0 0 0 0.14333,0.587268 l -0.666118,0.368143 0.354268,0.642928 0.667548,-0.368116 a 2.5666668,2.5666668 0 0 0 0.416981,0.437857 L 17.40985,24.64122 a 8.8000004,8.8000004 0 0 0 2.075742,-0.58721 1.8333334,1.8333334 0 0 1 -0.229458,0.01275 1.8333334,1.8333334 0 0 1 -1.003694,-0.324602 l 1.029188,-0.990032 0.926834,0.96349 a 8.8000004,8.8000004 0 0 0 2.33677,-1.785503 l -0.710283,-0.01378 a 2.5666668,2.5666668 0 0 0 -0.14333,-0.587267 L 22.357738,20.960924 22.00347,20.317995 21.335922,20.68611 A 2.5666668,2.5666668 0 0 0 20.91894,20.248258 l 0.392234,-0.649937 -0.628711,-0.378927 -0.393692,0.651346 A 2.5666668,2.5666668 0 0 0 19.70753,19.70332 l 0.01478,-0.761864 -0.733195,-0.01422 z m 0.338162,1.473501 a 1.8333334,1.8333334 0 0 1 1.003697,0.324601 l -1.02919,0.990033 -0.990031,-1.029188 a 1.8333334,1.8333334 0 0 1 1.015524,-0.285446 z m -1.543945,0.793748 0.990032,1.029189 -1.029188,0.990031 a 1.8333334,1.8333334 0 0 1 -0.285447,-1.015525 1.8333334,1.8333334 0 0 1 0.324603,-1.003695 z m 3.055959,0.05926 a 1.8333334,1.8333334 0 0 1 0.285445,1.015525 1.8333334,1.8333334 0 0 1 -0.324602,1.003695 l -0.990032,-1.029187 z"/>
 <path style="fill:#ca9159" d="m 22.371929,15.983136 -0.708986,0.189061 0.203382,0.756214 c -0.11888,0.06726 -0.227927,0.150406 -0.3237,0.247786 l -0.677476,-0.391014 -0.366666,0.63451 0.676045,0.391013 c -0.0361,0.131919 -0.05323,0.267146 -0.05156,0.403905 l -0.756213,0.203383 0.190498,0.707549 0.75482,-0.201952 c 0.06726,0.11888 0.150399,0.227927 0.247786,0.3237 l -0.391013,0.677476 0.635939,0.366666 0.389583,-0.676038 c 0.131921,0.0361 0.268576,0.05323 0.405336,0.05156 l 0.201952,0.75482 0.708987,-0.189061 -0.201953,-0.756213 c 0.118881,-0.06726 0.226498,-0.150399 0.322264,-0.247786 l 0.677475,0.391013 0.366667,-0.634509 -0.676046,-0.391013 c 0.0361,-0.13192 0.05466,-0.267146 0.053,-0.403906 l 0.75482,-0.203382 -0.190498,-0.70755 -0.75482,0.201953 C 23.794292,17.36244 23.711146,17.253394 23.613766,17.15762 l 0.391014,-0.677475 -0.63594,-0.366667 -0.389583,0.676046 c -0.131919,-0.0361 -0.268576,-0.05323 -0.405335,-0.05156 l -0.201953,-0.754819 z m 0.227737,1.483827 a 0.73333337,0.73333337 0 0 1 0.733333,0.733334 0.73333337,0.73333337 0 0 1 -0.733333,0.733333 0.73333337,0.73333337 0 0 1 -0.733333,-0.733333 0.73333337,0.73333337 0 0 1 0.733333,-0.733334 z"/>
 <path style="fill:#ca9159" d="m 15.999996,7.2000032 a 8.8000004,8.8000004 0 0 0 -2.72998,0.4454414 l 0.286454,0.2864547 a 2.5666668,2.5666668 0 0 0 -0.305081,0.522786 l -0.733333,-0.1962254 -0.189061,0.7089867 0.7348,0.1976554 a 2.5666668,2.5666668 0 0 0 0,0.6044275 l -0.736193,0.1976553 0.19049,0.7075492 0.73766,-0.197655 a 2.5666668,2.5666668 0 0 0 0.300784,0.524216 l -0.538545,0.538545 0.518489,0.519919 0.539975,-0.538545 a 2.5666668,2.5666668 0 0 0 0.521356,0.305081 l -0.196225,0.733333 0.708986,0.189061 0.197656,-0.7348 a 2.5666668,2.5666668 0 0 0 0.605858,-0.0015 l 0.196225,0.736194 0.708987,-0.189061 -0.197656,-0.73766 a 2.5666668,2.5666668 0 0 0 0.524216,-0.300784 l 0.538546,0.538545 0.519919,-0.519917 -0.539976,-0.538547 a 2.5666668,2.5666668 0 0 0 0.305082,-0.522786 l 0.733333,0.197656 0.190491,-0.7104172 -0.736194,-0.1962253 a 2.5666668,2.5666668 0 0 0 0,-0.6058575 L 18.893253,8.9673366 18.702762,8.2583499 17.966569,8.4560053 A 2.5666668,2.5666668 0 0 0 17.665785,7.9317893 L 18.125548,7.4705886 A 8.8000004,8.8000004 0 0 0 17.256181,7.3001472 l -0.111716,0.111716 a 2.5666668,2.5666668 0 0 0 -0.252083,-0.166144 8.8000004,8.8000004 0 0 0 -0.89232,-0.045833 z m -0.319404,0.4354167 a 1.8333334,1.8333334 0 0 1 0.509894,0.093097 l -0.714714,1.2375 -1.236033,-0.714714 a 1.8333334,1.8333334 0 0 1 0.896647,-0.5557273 1.8333334,1.8333334 0 0 1 0.544272,-0.060155 z m 1.144367,0.4597634 a 1.8333334,1.8333334 0 0 1 0.557165,0.8966467 1.8333334,1.8333334 0 0 1 -0.03437,1.054166 L 16.111718,9.3327127 16.825002,8.0952126 Z m -2.95196,0.7920733 1.236033,0.7132841 -0.713284,1.2374993 A 1.8333334,1.8333334 0 0 1 13.840021,9.9413946 1.8333334,1.8333334 0 0 1 13.872958,8.8872273 Z M 15.74498,9.9672362 16.981012,10.68195 A 1.8333334,1.8333334 0 0 1 16.084366,11.237678 1.8333334,1.8333334 0 0 1 15.0302,11.20474 l 0.714713,-1.2374996 z"/>
 <path style="fill:#ecc895" d="m 13.551495,5.2682124 0.235664,1.4815307 A 9.5187617,9.5187617 0 0 0 12.8053,7.0405964 L 12.194975,5.6707841 10.857729,6.2672398 11.470143,7.6410944 A 9.5187617,9.5187617 0 0 0 10.59815,8.1765774 L 9.6506244,7.0080936 8.5142884,7.9302661 9.4545992,9.089741 A 9.5187617,9.5187617 0 0 0 8.7507693,9.835958 L 7.5393957,8.957078 6.6794876,10.142301 7.8973981,11.025924 A 9.5187617,9.5187617 0 0 0 7.4089966,11.92466 L 6.0058461,11.387605 5.4817763,12.753993 6.883553,13.291266 a 9.5187617,9.5187617 0 0 0 -0.2368411,0.996326 l -1.4946223,-0.156132 -0.1520901,1.456317 1.491578,0.15517 a 9.5187617,9.5187617 0 0 0 0.023921,1.024319 l -1.4773364,0.234996 0.2300507,1.446244 1.4815307,-0.235664 A 9.5187617,9.5187617 0 0 0 7.040597,19.1947 l -1.369812,0.610326 0.5964563,1.337246 1.3738546,-0.612414 a 9.5187617,9.5187617 0 0 0 0.5354829,0.871992 l -1.1684838,0.947526 0.9221725,1.136336 1.1594742,-0.94031 A 9.5187617,9.5187617 0 0 0 9.83596,23.249231 l -0.878882,1.211374 1.185223,0.859908 0.883623,-1.21791 a 9.5187617,9.5187617 0 0 0 0.898736,0.488401 l -0.537055,1.40315 1.366388,0.524071 0.537273,-1.401778 a 9.5187617,9.5187617 0 0 0 0.996327,0.236842 l -0.156133,1.494621 1.456317,0.152091 0.15517,-1.491577 a 9.5187617,9.5187617 0 0 0 1.024319,-0.02392 l 0.234996,1.477337 1.446244,-0.230052 -0.235664,-1.48153 a 9.5187617,9.5187617 0 0 0 0.981859,-0.290853 l 0.610325,1.369811 1.337246,-0.596455 -0.612414,-1.373855 a 9.5187617,9.5187617 0 0 0 0.871992,-0.535483 l 0.947527,1.168484 1.136336,-0.922172 -0.94031,-1.159475 a 9.5187617,9.5187617 0 0 0 0.703828,-0.746218 l 1.211374,0.878881 0.859909,-1.185222 -1.217912,-0.883623 a 9.5187617,9.5187617 0 0 0 0.488402,-0.898737 l 1.40315,0.537055 0.524071,-1.366387 -1.401777,-0.537272 A 9.5187617,9.5187617 0 0 0 25.353289,17.71241 L 26.847911,17.86854 27,16.412224 25.508423,16.257054 a 9.5187617,9.5187617 0 0 0 -0.02392,-1.02432 l 1.477337,-0.234996 -0.230052,-1.446243 -1.48153,0.235664 A 9.5187617,9.5187617 0 0 0 24.959408,12.8053 L 26.32922,12.194974 25.732764,10.857728 24.35891,11.470143 A 9.5187617,9.5187617 0 0 0 23.823422,10.59815 L 24.991906,9.6506237 24.069733,8.5142877 22.910259,9.4545985 A 9.5187617,9.5187617 0 0 0 22.164042,8.7507694 L 23.042922,7.539395 21.857699,6.6794869 20.974077,7.8973981 A 9.5187617,9.5187617 0 0 0 20.07534,7.4089966 l 0.537054,-1.4031505 -1.366386,-0.52407 -0.537273,1.4017762 A 9.5187617,9.5187617 0 0 0 17.712408,6.646712 L 17.86854,5.1520895 16.412224,4.9999994 16.257054,6.4915775 a 9.5187617,9.5187617 0 0 0 -1.02432,0.023921 l -0.234996,-1.477337 z m 1.183223,2.7774591 a 8.0543368,8.0543368 0 0 1 9.219613,6.6890535 8.0543368,8.0543368 0 0 1 -6.689054,9.219612 8.0543368,8.0543368 0 0 1 -9.2196121,-6.689053 8.0543368,8.0543368 0 0 1 6.6890531,-9.2196125 z"/>
 <path style="fill:#8b9cbe;opacity:0.1" d="M 16 2 A 14 14 0 0 0 2 16 A 14 14 0 0 0 2.0214844 16.585938 A 14 14 0 0 1 16 3 A 14 14 0 0 1 29.978516 16.414062 A 14 14 0 0 0 30 16 A 14 14 0 0 0 16 2 z"/>
</svg>
