<svg xmlns="http://www.w3.org/2000/svg" width="32" height="32" version="1">
 <path style="opacity:0.2" d="m 16,2.9991167 c -2.216,0 -4,1.784 -4,4 l 0,4.6699223 -1.771484,-1.7714848 c -1.1990956,-1.1990949 -3.1309836,-1.1990949 -4.3300785,0 -1.1990949,1.1990948 -1.1990949,3.1309838 0,4.3300788 l 5.7714845,5.771484 -5.7714845,5.771484 c -1.1990949,1.199095 -1.1990949,3.130984 0,4.330078 1.1990949,1.199095 3.1309833,1.199095 4.3300785,0 l 3.695312,-3.695312 c 0.606075,0.369007 1.311827,0.59375 2.076172,0.59375 0.764345,0 1.470097,-0.224743 2.076172,-0.59375 l 3.695312,3.695312 c 1.199095,1.199095 3.130984,1.199095 4.330078,0 1.199095,-1.199094 1.199095,-3.130983 0,-4.330078 l -5.771484,-5.771484 5.771484,-5.771484 c 1.199095,-1.199095 1.199095,-3.130984 0,-4.3300788 -1.199094,-1.1990949 -3.130983,-1.1990949 -4.330078,0 L 20,11.669039 20,6.9991167 c 0,-2.216 -1.784,-4 -4,-4 z"/>
 <path style="fill:#2d5a37" d="M 16 2 C 13.784 2 12 3.784 12 6 L 12 10.669922 L 10.228516 8.8984375 C 9.0294204 7.6993426 7.0975324 7.6993426 5.8984375 8.8984375 C 4.6993426 10.097532 4.6993426 12.029421 5.8984375 13.228516 L 11.669922 19 L 5.8984375 24.771484 C 4.6993426 25.970579 4.6993426 27.902468 5.8984375 29.101562 C 7.0975324 30.300657 9.0294208 30.300657 10.228516 29.101562 L 13.923828 25.40625 C 14.529903 25.775257 15.235655 26 16 26 C 16.764345 26 17.470097 25.775257 18.076172 25.40625 L 21.771484 29.101562 C 22.970579 30.300657 24.902468 30.300657 26.101562 29.101562 C 27.300657 27.902468 27.300657 25.970579 26.101562 24.771484 L 20.330078 19 L 26.101562 13.228516 C 27.300657 12.029421 27.300657 10.097532 26.101562 8.8984375 C 24.902468 7.6993426 22.970579 7.6993426 21.771484 8.8984375 L 20 10.669922 L 20 6 C 20 3.784 18.216 2 16 2 z"/>
 <path style="opacity:0.1;fill:#8b9cbe" d="M 16 2 C 13.784 2 12 3.784 12 6 L 12 7 C 12 4.784 13.784 3 16 3 C 18.216 3 20 4.784 20 7 L 20 6 C 20 3.784 18.216 2 16 2 z M 8.0625 8 C 7.2797542 8 6.497985 8.2988901 5.8984375 8.8984375 C 5.1709817 9.6258931 4.8916784 10.622879 5.046875 11.5625 C 5.147738 10.953897 5.4272225 10.369652 5.8984375 9.8984375 C 7.0975324 8.6993426 9.02942 8.6993426 10.228516 9.8984375 L 12 11.669922 L 12 10.669922 L 10.228516 8.8984375 C 9.6289678 8.2988901 8.8452458 8 8.0625 8 z M 23.935547 8 C 23.152801 8 22.371032 8.2988901 21.771484 8.8984375 L 20 10.669922 L 20 11.669922 L 21.771484 9.8984375 C 22.970579 8.6993426 24.902469 8.6993426 26.101562 9.8984375 C 26.572778 10.369652 26.852262 10.953897 26.953125 11.5625 C 27.108322 10.622879 26.829018 9.6258931 26.101562 8.8984375 C 25.502015 8.2988901 24.718293 8 23.935547 8 z M 11.169922 19.5 L 5.8984375 24.771484 C 5.1709817 25.49894 4.8916784 26.495926 5.046875 27.435547 C 5.147738 26.826944 5.4272225 26.242699 5.8984375 25.771484 L 11.669922 20 L 11.169922 19.5 z M 20.830078 19.5 L 20.330078 20 L 26.101562 25.771484 C 26.572778 26.242699 26.852262 26.826944 26.953125 27.435547 C 27.108322 26.495926 26.829018 25.49894 26.101562 24.771484 L 20.830078 19.5 z"/>
 <rect style="opacity:0.2" width="21" height="20" x="-30" y="-26" rx="10.5" ry="10" transform="matrix(0,-1,-1,0,0,0)"/>
 <rect style="fill:#6d7481" width="21" height="20" x="-29" y="-26" rx="10.5" ry="10" transform="matrix(0,-1,-1,0,0,0)"/>
 <path style="opacity:0.2" d="m 10.029297,13.970873 a 1.0000999,1.0000999 0 0 0 -1.013672,1.015625 l -0.00195,0 0,3.84375 a 1.0000999,1.0000999 0 0 0 -0.00195,0.0098 1.0000999,1.0000999 0 0 0 -0.00391,0.03516 1.0000999,1.0000999 0 0 0 -0.00586,0.08203 1.0000999,1.0000999 0 0 0 0.00195,0.08984 1.0000999,1.0000999 0 0 0 0.00391,0.04687 1.0000999,1.0000999 0 0 0 0.00586,0.05078 l 0,3.841797 a 1.0000999,1.0000999 0 0 0 0.013672,0.169922 1.0000999,1.0000999 0 0 0 0.021484,0.09766 1.0000999,1.0000999 0 0 0 0.029297,0.09375 1.0000999,1.0000999 0 0 0 0,0.0039 1.0000999,1.0000999 0 0 0 0.037109,0.08594 1.0000999,1.0000999 0 0 0 0.00195,0.0059 1.0000999,1.0000999 0 0 0 0.048828,0.08398 1.0000999,1.0000999 0 0 0 0.056641,0.08203 1.0000999,1.0000999 0 0 0 0.064453,0.07617 1.0000999,1.0000999 0 0 0 0.066406,0.06641 1.0000999,1.0000999 0 0 0 0.00586,0.0039 1.0000999,1.0000999 0 0 0 0.00195,0.002 1.0000999,1.0000999 0 0 0 0.076172,0.05859 1.0000999,1.0000999 0 0 0 0.082031,0.05273 1.0000999,1.0000999 0 0 0 0.00586,0.0039 1.0000999,1.0000999 0 0 0 0.060547,0.0293 1.0000999,1.0000999 0 0 0 0.037109,0.01758 1.0000999,1.0000999 0 0 0 0.082031,0.03125 1.0000999,1.0000999 0 0 0 0.171875,0.03906 1.0000999,1.0000999 0 0 0 0.048828,0.0059 1.0000999,1.0000999 0 0 0 0.015625,0 1.0000999,1.0000999 0 0 0 0.074219,0.0039 1.0000999,1.0000999 0 0 0 0.07227,-0.0039 1.0000999,1.0000999 0 0 0 0.01172,0 1.0000999,1.0000999 0 0 0 0.0039,0 1.0000999,1.0000999 0 0 0 0.04883,-0.0059 1.0000999,1.0000999 0 0 0 0.171875,-0.03906 1.0000999,1.0000999 0 0 0 0.08984,-0.03516 1.0000999,1.0000999 0 0 0 0.002,0 1.0000999,1.0000999 0 0 0 0.0059,-0.002 1.0000999,1.0000999 0 0 0 0.08203,-0.04297 1.0000999,1.0000999 0 0 0 0.002,0 1.0000999,1.0000999 0 0 0 0.0039,-0.002 1.0000999,1.0000999 0 0 0 0.158203,-0.111329 1.0000999,1.0000999 0 0 0 0.0078,-0.0059 1.0000999,1.0000999 0 0 0 0.06641,-0.06641 1.0000999,1.0000999 0 0 0 0.06445,-0.07617 1.0000999,1.0000999 0 0 0 0.05664,-0.08203 1.0000999,1.0000999 0 0 0 0.04883,-0.08398 1.0000999,1.0000999 0 0 0 0.002,-0.0059 1.0000999,1.0000999 0 0 0 0.03711,-0.08594 1.0000999,1.0000999 0 0 0 0,-0.0039 1.0000999,1.0000999 0 0 0 0.0293,-0.09375 1.0000999,1.0000999 0 0 0 0.02148,-0.09766 1.0000999,1.0000999 0 0 0 0.01367,-0.169922 l 0,-3 1.998047,0 0,3 a 1.0000999,1.0000999 0 0 0 0.01367,0.169922 1.0000999,1.0000999 0 0 0 0.02148,0.09766 1.0000999,1.0000999 0 0 0 0.0293,0.09375 1.0000999,1.0000999 0 0 0 0,0.0039 1.0000999,1.0000999 0 0 0 0.03711,0.08594 1.0000999,1.0000999 0 0 0 0.002,0.0059 1.0000999,1.0000999 0 0 0 0.04883,0.08398 1.0000999,1.0000999 0 0 0 0.05664,0.08203 1.0000999,1.0000999 0 0 0 0.06445,0.07617 1.0000999,1.0000999 0 0 0 0.06641,0.06641 1.0000999,1.0000999 0 0 0 0.0059,0.0039 1.0000999,1.0000999 0 0 0 0.002,0.002 1.0000999,1.0000999 0 0 0 0.07617,0.05859 1.0000999,1.0000999 0 0 0 0.08203,0.05273 1.0000999,1.0000999 0 0 0 0.0039,0.002 1.0000999,1.0000999 0 0 0 0.002,0.002 1.0000999,1.0000999 0 0 0 0.06055,0.0293 1.0000999,1.0000999 0 0 0 0.02539,0.01367 1.0000999,1.0000999 0 0 0 0.01172,0.0039 1.0000999,1.0000999 0 0 0 0.08203,0.03125 1.0000999,1.0000999 0 0 0 0.171875,0.03906 1.0000999,1.0000999 0 0 0 0.04883,0.0059 1.0000999,1.0000999 0 0 0 0.01563,0 1.0000999,1.0000999 0 0 0 0.07422,0.0039 1.0000999,1.0000999 0 0 0 0.07227,-0.0039 1.0000999,1.0000999 0 0 0 0.01172,0 1.0000999,1.0000999 0 0 0 0.0039,0 1.0000999,1.0000999 0 0 0 0.04883,-0.0059 1.0000999,1.0000999 0 0 0 0.171875,-0.03906 1.0000999,1.0000999 0 0 0 0.08984,-0.03516 1.0000999,1.0000999 0 0 0 0.002,0 1.0000999,1.0000999 0 0 0 0.0059,-0.002 1.0000999,1.0000999 0 0 0 0.08203,-0.04297 1.0000999,1.0000999 0 0 0 0.002,0 1.0000999,1.0000999 0 0 0 0.0039,-0.002 1.0000999,1.0000999 0 0 0 0.158203,-0.111329 1.0000999,1.0000999 0 0 0 0.002,-0.002 1.0000999,1.0000999 0 0 0 0.0059,-0.0039 1.0000999,1.0000999 0 0 0 0.06641,-0.06641 1.0000999,1.0000999 0 0 0 0.06445,-0.07617 1.0000999,1.0000999 0 0 0 0.05664,-0.08203 1.0000999,1.0000999 0 0 0 0.04883,-0.08398 1.0000999,1.0000999 0 0 0 0,-0.002 1.0000999,1.0000999 0 0 0 0.002,-0.0039 1.0000999,1.0000999 0 0 0 0.03711,-0.08594 1.0000999,1.0000999 0 0 0 0,-0.002 1.0000999,1.0000999 0 0 0 0,-0.002 1.0000999,1.0000999 0 0 0 0.0293,-0.09375 1.0000999,1.0000999 0 0 0 0.02148,-0.09766 1.0000999,1.0000999 0 0 0 0.01367,-0.169922 l 0,-3.841797 a 1.0000999,1.0000999 0 0 0 0.0059,-0.05078 1.0000999,1.0000999 0 0 0 0.0039,-0.04687 1.0000999,1.0000999 0 0 0 0.002,-0.05469 1.0000999,1.0000999 0 0 0 -0.002,-0.05859 1.0000999,1.0000999 0 0 0 0,-0.0039 1.0000999,1.0000999 0 0 0 0,-0.0098 1.0000999,1.0000999 0 0 0 -0.0098,-0.08203 1.0000999,1.0000999 0 0 0 0,-0.0078 l 0,-3.84375 -0.002,0 A 1.0000999,1.0000999 0 0 0 14,13.970873 a 1.0000999,1.0000999 0 0 0 -0.673828,0.277344 1.0000999,1.0000999 0 0 0 -0.07031,0.07226 1.0000999,1.0000999 0 0 0 -0.04883,0.0625 1.0000999,1.0000999 0 0 0 -0.0332,0.04492 1.0000999,1.0000999 0 0 0 -0.01172,0.01758 1.0000999,1.0000999 0 0 0 -0.148437,0.695313 l 0,2.845703 -1.998047,0 0,-2.845703 a 1.0000999,1.0000999 0 0 0 -0.148437,-0.695313 1.0000999,1.0000999 0 0 0 -0.002,-0.0039 1.0000999,1.0000999 0 0 0 -0.0293,-0.04297 1.0000999,1.0000999 0 0 0 -0.01367,-0.01563 1.0000999,1.0000999 0 0 0 -0.04883,-0.0625 1.0000999,1.0000999 0 0 0 -0.07031,-0.07226 1.0000999,1.0000999 0 0 0 -0.673828,-0.277344 z M 19,16.00017 a 3,3 0 0 0 -3,3 3,3 0 0 0 3,3 3,3 0 0 0 0.742188,-0.09766 c -0.02222,0.08373 -0.03618,0.182045 -0.0625,0.257812 -0.143248,0.412386 -0.32376,0.657951 -0.501954,0.777344 -0.178193,0.119393 -0.409818,0.202995 -0.970703,0.08398 a 1.0001777,1.0001777 0 1 0 -0.414062,1.957032 c 0.939115,0.199245 1.83249,0.06703 2.498047,-0.378907 0.665556,-0.445936 1.047546,-1.116027 1.279296,-1.783203 C 22.03382,21.482245 22,20.00017 22,19.00017 A 1.0001,1.0001 0 0 0 21.994141,18.884936 3,3 0 0 0 19,16.00017 Z m 0,2 a 1,1 0 0 1 1,1 1,1 0 0 1 -1,1 1,1 0 0 1 -1,-1 1,1 0 0 1 1,-1 z"/>
 <path style="fill:#c4c4c4" d="M 10.029297 12.970703 A 1.0000999 1.0000999 0 0 0 9.015625 13.986328 L 9.0136719 13.986328 L 9.0136719 17.830078 A 1.0000999 1.0000999 0 0 0 9.0117188 17.839844 A 1.0000999 1.0000999 0 0 0 9.0078125 17.875 A 1.0000999 1.0000999 0 0 0 9.0019531 17.957031 A 1.0000999 1.0000999 0 0 0 9.0039062 18.046875 A 1.0000999 1.0000999 0 0 0 9.0078125 18.09375 A 1.0000999 1.0000999 0 0 0 9.0136719 18.144531 L 9.0136719 21.986328 A 1.0000999 1.0000999 0 0 0 9.0273438 22.15625 A 1.0000999 1.0000999 0 0 0 9.0488281 22.253906 A 1.0000999 1.0000999 0 0 0 9.078125 22.347656 A 1.0000999 1.0000999 0 0 0 9.078125 22.351562 A 1.0000999 1.0000999 0 0 0 9.1152344 22.4375 A 1.0000999 1.0000999 0 0 0 9.1171875 22.443359 A 1.0000999 1.0000999 0 0 0 9.1660156 22.527344 A 1.0000999 1.0000999 0 0 0 9.2226562 22.609375 A 1.0000999 1.0000999 0 0 0 9.2871094 22.685547 A 1.0000999 1.0000999 0 0 0 9.3535156 22.751953 A 1.0000999 1.0000999 0 0 0 9.359375 22.755859 A 1.0000999 1.0000999 0 0 0 9.3613281 22.757812 A 1.0000999 1.0000999 0 0 0 9.4375 22.816406 A 1.0000999 1.0000999 0 0 0 9.5195312 22.869141 A 1.0000999 1.0000999 0 0 0 9.5253906 22.873047 A 1.0000999 1.0000999 0 0 0 9.5859375 22.902344 A 1.0000999 1.0000999 0 0 0 9.6230469 22.919922 A 1.0000999 1.0000999 0 0 0 9.7050781 22.951172 A 1.0000999 1.0000999 0 0 0 9.8769531 22.990234 A 1.0000999 1.0000999 0 0 0 9.9257812 22.996094 A 1.0000999 1.0000999 0 0 0 9.9414062 22.996094 A 1.0000999 1.0000999 0 0 0 10.015625 23 A 1.0000999 1.0000999 0 0 0 10.087891 22.996094 A 1.0000999 1.0000999 0 0 0 10.099609 22.996094 A 1.0000999 1.0000999 0 0 0 10.103516 22.996094 A 1.0000999 1.0000999 0 0 0 10.152344 22.990234 A 1.0000999 1.0000999 0 0 0 10.324219 22.951172 A 1.0000999 1.0000999 0 0 0 10.414062 22.916016 A 1.0000999 1.0000999 0 0 0 10.416016 22.916016 A 1.0000999 1.0000999 0 0 0 10.421875 22.914062 A 1.0000999 1.0000999 0 0 0 10.503906 22.871094 A 1.0000999 1.0000999 0 0 0 10.505859 22.871094 A 1.0000999 1.0000999 0 0 0 10.509766 22.869141 A 1.0000999 1.0000999 0 0 0 10.667969 22.757812 A 1.0000999 1.0000999 0 0 0 10.675781 22.751953 A 1.0000999 1.0000999 0 0 0 10.742188 22.685547 A 1.0000999 1.0000999 0 0 0 10.806641 22.609375 A 1.0000999 1.0000999 0 0 0 10.863281 22.527344 A 1.0000999 1.0000999 0 0 0 10.912109 22.443359 A 1.0000999 1.0000999 0 0 0 10.914062 22.4375 A 1.0000999 1.0000999 0 0 0 10.951172 22.351562 A 1.0000999 1.0000999 0 0 0 10.951172 22.347656 A 1.0000999 1.0000999 0 0 0 10.980469 22.253906 A 1.0000999 1.0000999 0 0 0 11.001953 22.15625 A 1.0000999 1.0000999 0 0 0 11.015625 21.986328 L 11.015625 18.986328 L 13.013672 18.986328 L 13.013672 21.986328 A 1.0000999 1.0000999 0 0 0 13.027344 22.15625 A 1.0000999 1.0000999 0 0 0 13.048828 22.253906 A 1.0000999 1.0000999 0 0 0 13.078125 22.347656 A 1.0000999 1.0000999 0 0 0 13.078125 22.351562 A 1.0000999 1.0000999 0 0 0 13.115234 22.4375 A 1.0000999 1.0000999 0 0 0 13.117188 22.443359 A 1.0000999 1.0000999 0 0 0 13.166016 22.527344 A 1.0000999 1.0000999 0 0 0 13.222656 22.609375 A 1.0000999 1.0000999 0 0 0 13.287109 22.685547 A 1.0000999 1.0000999 0 0 0 13.353516 22.751953 A 1.0000999 1.0000999 0 0 0 13.359375 22.755859 A 1.0000999 1.0000999 0 0 0 13.361328 22.757812 A 1.0000999 1.0000999 0 0 0 13.4375 22.816406 A 1.0000999 1.0000999 0 0 0 13.519531 22.869141 A 1.0000999 1.0000999 0 0 0 13.523438 22.871094 A 1.0000999 1.0000999 0 0 0 13.525391 22.873047 A 1.0000999 1.0000999 0 0 0 13.585938 22.902344 A 1.0000999 1.0000999 0 0 0 13.611328 22.916016 A 1.0000999 1.0000999 0 0 0 13.623047 22.919922 A 1.0000999 1.0000999 0 0 0 13.705078 22.951172 A 1.0000999 1.0000999 0 0 0 13.876953 22.990234 A 1.0000999 1.0000999 0 0 0 13.925781 22.996094 A 1.0000999 1.0000999 0 0 0 13.941406 22.996094 A 1.0000999 1.0000999 0 0 0 14.015625 23 A 1.0000999 1.0000999 0 0 0 14.087891 22.996094 A 1.0000999 1.0000999 0 0 0 14.099609 22.996094 A 1.0000999 1.0000999 0 0 0 14.103516 22.996094 A 1.0000999 1.0000999 0 0 0 14.152344 22.990234 A 1.0000999 1.0000999 0 0 0 14.324219 22.951172 A 1.0000999 1.0000999 0 0 0 14.414062 22.916016 A 1.0000999 1.0000999 0 0 0 14.416016 22.916016 A 1.0000999 1.0000999 0 0 0 14.421875 22.914062 A 1.0000999 1.0000999 0 0 0 14.503906 22.871094 A 1.0000999 1.0000999 0 0 0 14.505859 22.871094 A 1.0000999 1.0000999 0 0 0 14.509766 22.869141 A 1.0000999 1.0000999 0 0 0 14.667969 22.757812 A 1.0000999 1.0000999 0 0 0 14.669922 22.755859 A 1.0000999 1.0000999 0 0 0 14.675781 22.751953 A 1.0000999 1.0000999 0 0 0 14.742188 22.685547 A 1.0000999 1.0000999 0 0 0 14.806641 22.609375 A 1.0000999 1.0000999 0 0 0 14.863281 22.527344 A 1.0000999 1.0000999 0 0 0 14.912109 22.443359 A 1.0000999 1.0000999 0 0 0 14.912109 22.441406 A 1.0000999 1.0000999 0 0 0 14.914062 22.4375 A 1.0000999 1.0000999 0 0 0 14.951172 22.351562 A 1.0000999 1.0000999 0 0 0 14.951172 22.349609 A 1.0000999 1.0000999 0 0 0 14.951172 22.347656 A 1.0000999 1.0000999 0 0 0 14.980469 22.253906 A 1.0000999 1.0000999 0 0 0 15.001953 22.15625 A 1.0000999 1.0000999 0 0 0 15.015625 21.986328 L 15.015625 18.144531 A 1.0000999 1.0000999 0 0 0 15.021484 18.09375 A 1.0000999 1.0000999 0 0 0 15.025391 18.046875 A 1.0000999 1.0000999 0 0 0 15.027344 17.992188 A 1.0000999 1.0000999 0 0 0 15.025391 17.933594 A 1.0000999 1.0000999 0 0 0 15.025391 17.929688 A 1.0000999 1.0000999 0 0 0 15.025391 17.919922 A 1.0000999 1.0000999 0 0 0 15.015625 17.837891 A 1.0000999 1.0000999 0 0 0 15.015625 17.830078 L 15.015625 13.986328 L 15.013672 13.986328 A 1.0000999 1.0000999 0 0 0 14 12.970703 A 1.0000999 1.0000999 0 0 0 13.326172 13.248047 A 1.0000999 1.0000999 0 0 0 13.255859 13.320312 A 1.0000999 1.0000999 0 0 0 13.207031 13.382812 A 1.0000999 1.0000999 0 0 0 13.173828 13.427734 A 1.0000999 1.0000999 0 0 0 13.162109 13.445312 A 1.0000999 1.0000999 0 0 0 13.013672 14.140625 L 13.013672 16.986328 L 11.015625 16.986328 L 11.015625 14.140625 A 1.0000999 1.0000999 0 0 0 10.867188 13.445312 A 1.0000999 1.0000999 0 0 0 10.865234 13.441406 A 1.0000999 1.0000999 0 0 0 10.835938 13.398438 A 1.0000999 1.0000999 0 0 0 10.822266 13.382812 A 1.0000999 1.0000999 0 0 0 10.773438 13.320312 A 1.0000999 1.0000999 0 0 0 10.703125 13.248047 A 1.0000999 1.0000999 0 0 0 10.029297 12.970703 z M 19 15 A 3 3 0 0 0 16 18 A 3 3 0 0 0 19 21 A 3 3 0 0 0 19.742188 20.902344 C 19.719967 20.986074 19.706007 21.084389 19.679688 21.160156 C 19.53644 21.572542 19.355928 21.818107 19.177734 21.9375 C 18.999541 22.056893 18.767916 22.140495 18.207031 22.021484 A 1.0001777 1.0001777 0 1 0 17.792969 23.978516 C 18.732084 24.177761 19.625459 24.045546 20.291016 23.599609 C 20.956572 23.153673 21.338562 22.483582 21.570312 21.816406 C 22.03382 20.482075 22 19 22 18 A 1.0001 1.0001 0 0 0 21.994141 17.884766 A 3 3 0 0 0 19 15 z M 19 17 A 1 1 0 0 1 20 18 A 1 1 0 0 1 19 19 A 1 1 0 0 1 18 18 A 1 1 0 0 1 19 17 z"/>
</svg>
