<svg xmlns="http://www.w3.org/2000/svg" width="32" height="32" version="1.1">
 <rect width="28" height="28" x="2" y="3" rx="7" ry="7" style="opacity:0.2"/>
 <rect style="fill:#5793fc" width="28" height="28" x="2" y="2" rx="7" ry="7"/>
 <path style="opacity:0.2" d="m 6,12 v 3 h 3 v 7 h 3 v -7 h 3 v -3 z m 10,0 v 10 h 3 v -3.830078 c 0.397814,-1.674344 2.814093,-1.378022 3,-0.06836 V 22 h 3 V 17.289062 C 24.852453,15.544602 23.531177,14.108349 21.996094,14 21.000203,13.92971 19.914731,14.610973 19,15.476562 V 12 Z"/>
 <path style="fill:#8b9cbe" d="M 6,11.000005 V 14 h 2.9999996 v 6.999999 H 12 V 14 h 3 v -2.999995 z"/>
 <path style="fill:#8b9cbe" d="m 16,11.000005 v 9.999994 h 3.000001 V 17.169212 C 19.397815,15.494868 21.814093,15.791129 22,17.100792 V 21 h 3 V 16.288725 C 24.852453,14.544265 23.531879,13.108349 21.996796,13 c -0.995891,-0.07029 -2.082064,0.610056 -2.996795,1.475646 v -3.475637 z"/>
 <path style="fill:#8b9cbe;opacity:0.2" d="M 9 2 C 5.122 2 2 5.122 2 9 L 2 10 C 2 6.122 5.122 3 9 3 L 23 3 C 26.878 3 30 6.122 30 10 L 30 9 C 30 5.122 26.878 2 23 2 L 9 2 z"/>
</svg>
