<svg xmlns="http://www.w3.org/2000/svg" width="32" height="32" version="1">
 <rect style="opacity:0.2" width="28" height="25" x="2" y="4" rx="2.1" ry="2.1"/>
 <path style="fill:#4f4f4f" d="M 16,3 V 28 H 4.099609 C 2.936209,28 2,27.063791 2,25.900391 V 5.0996094 C 2,3.9362094 2.936209,3 4.099609,3 Z"/>
 <path style="fill:#17191e" d="M 16 3 L 16 28 L 27.900391 28 C 29.063791 28 30 27.063791 30 25.900391 L 30 5.0996094 C 30 3.9362094 29.063791 3 27.900391 3 L 16 3 z"/>
 <path style="fill:#8b9cbe;opacity:0.1" d="M 4.0996094 3 C 2.9362094 3 2 3.9362094 2 5.0996094 L 2 6 L 2.0097656 6 C 2.0625464 4.8843127 2.9703761 4 4.0996094 4 L 27.900391 4 C 29.029624 4 29.937454 4.8843127 29.990234 6 L 30 6 L 30 5.0996094 C 30 3.9362094 29.063791 3 27.900391 3 L 4.0996094 3 z"/>
 <path style="opacity:0.2;fill:none;stroke:#050505;stroke-width:2;stroke-linecap:round;stroke-linejoin:round" d="m 5,6.999848 3,2.5 -3,2.499998"/>
 <path style="fill:none;stroke:#8b9cbe;stroke-width:2;stroke-linecap:round;stroke-linejoin:round" d="M 5,6 8,8.5 5,11"/>
 <path style="opacity:0.2;fill:none;stroke:#050505;stroke-width:2;stroke-linecap:round;stroke-linejoin:round" d="m 10,11.999846 h 3"/>
 <path style="fill:none;stroke:#8b9cbe;stroke-width:2;stroke-linecap:round;stroke-linejoin:round" d="m 10,11 h 3"/>
 <path style="opacity:0.2;fill:none;stroke:#050505;stroke-width:2;stroke-linecap:round;stroke-linejoin:round" d="m 19,6.999848 3,2.5 -3,2.499998"/>
 <path style="fill:none;stroke:#8b9cbe;stroke-width:2;stroke-linecap:round;stroke-linejoin:round" d="M 19,6 22,8.5 19,11"/>
 <path style="opacity:0.2;fill:none;stroke:#050505;stroke-width:2;stroke-linecap:round;stroke-linejoin:round" d="m 24,11.999846 h 3"/>
 <path style="fill:none;stroke:#8b9cbe;stroke-width:2;stroke-linecap:round;stroke-linejoin:round" d="m 24,11 h 3"/>
</svg>
