<svg xmlns="http://www.w3.org/2000/svg" width="32" height="32" version="1">
 <rect style="opacity:0.2" width="29" height="29" x="2" y="2" rx="1.45" ry="1.45"/>
 <rect style="fill:#7d7d7d" width="29" height="29" x="2" y="1" rx="1.45" ry="1.45"/>
 <path style="opacity:0.2" d="m 7,4 v 6 h 2 v 4 h 6 v -4 h 2 V 4 Z m 13,0 v 2 h 6 V 4 Z m 0,4 v 6 h 6 V 8 Z M 6.125,16 C 5.5017501,16 5,16.483818 5,17.083984 V 27.916016 C 5,28.516182 5.5017501,29 6.125,29 h 0.75 C 7.4982499,29 8,28.516182 8,27.916016 V 17.083984 C 8,16.483818 7.4982499,16 6.875,16 Z m 4,0 C 9.5017501,16 9,16.483818 9,17.083984 V 27.916016 C 9,28.516182 9.5017501,29 10.125,29 h 0.75 C 11.49825,29 12,28.516182 12,27.916016 V 17.083984 C 12,16.483818 11.49825,16 10.875,16 Z m 4,0 C 13.50175,16 13,16.483818 13,17.083984 V 27.916016 C 13,28.516182 13.50175,29 14.125,29 h 0.75 C 15.49825,29 16,28.516182 16,27.916016 V 17.083984 C 16,16.483818 15.49825,16 14.875,16 Z m 4,0 C 17.50175,16 17,16.483818 17,17.083984 V 27.916016 C 17,28.516182 17.50175,29 18.125,29 h 0.75 C 19.49825,29 20,28.516182 20,27.916016 V 17.083984 C 20,16.483818 19.49825,16 18.875,16 Z m 4,0 C 21.50175,16 21,16.483818 21,17.083984 V 27.916016 C 21,28.516182 21.50175,29 22.125,29 h 0.75 C 23.49825,29 24,28.516182 24,27.916016 V 17.083984 C 24,16.483818 23.49825,16 22.875,16 Z m 4,0 C 25.50175,16 25,16.483818 25,17.083984 V 27.916016 C 25,28.516182 25.50175,29 26.125,29 h 0.75 C 27.49825,29 28,28.516182 28,27.916016 V 17.083984 C 28,16.483818 27.49825,16 26.875,16 Z"/>
 <rect style="fill:#8b9cbe" width="3" height="13" x="5" y="15" rx="1.125" ry="1.083"/>
 <rect style="fill:#8b9cbe" width="3" height="13" x="9" y="15" rx="1.125" ry="1.083"/>
 <rect style="fill:#8b9cbe" width="3" height="13" x="13" y="15" rx="1.125" ry="1.083"/>
 <rect style="fill:#8b9cbe" width="3" height="13" x="17" y="15" rx="1.125" ry="1.083"/>
 <rect style="fill:#8b9cbe" width="3" height="13" x="21" y="15" rx="1.125" ry="1.083"/>
 <rect style="fill:#8b9cbe" width="3" height="13" x="25" y="15" rx="1.125" ry="1.083"/>
 <rect style="fill:#4f4f4f" width="3" height="7" x="7" y="15" rx="1.125" ry="1.05"/>
 <rect style="fill:#17d4e4" width="6" height="10" x="9" y="3"/>
 <rect style="fill:#17d4e4" width="6" height="10" x="3" y="-17" transform="rotate(90)"/>
 <rect style="fill:#17d4e4" width="6" height="6" x="20" y="7"/>
 <rect style="fill:#17d4e4" width="6" height="2" x="20" y="3"/>
 <rect style="fill:#4f4f4f" width="3" height="7" x="11" y="15" rx="1.125" ry="1.05"/>
 <rect style="fill:#4f4f4f" width="3" height="7" x="15" y="15" rx="1.125" ry="1.05"/>
 <rect style="fill:#4f4f4f" width="3" height="7" x="23" y="15" rx="1.125" ry="1.05"/>
 <path style="fill:#8b9cbe;opacity:0.1" d="M 3.4492188 1 C 2.6459187 1 2 1.6459187 2 2.4492188 L 2 3.4492188 C 2 2.6459187 2.6459187 2 3.4492188 2 L 29.550781 2 C 30.354081 2 31 2.6459187 31 3.4492188 L 31 2.4492188 C 31 1.6459187 30.354081 1 29.550781 1 L 3.4492188 1 z"/>
 <path style="opacity:0.2;fill:#8b9cbe" d="M 7 3 L 7 4 L 17 4 L 17 3 L 7 3 z M 20 3 L 20 4 L 26 4 L 26 3 L 20 3 z M 20 7 L 20 8 L 26 8 L 26 7 L 20 7 z"/>
</svg>
