<svg xmlns="http://www.w3.org/2000/svg" width="32" height="32" version="1.1">
 <rect style="opacity:0.2" width="28" height="28" x="2" y="3" rx="1.4" ry="1.4"/>
 <path style="fill:#00a1f1" d="m 3.4,2 21.916698,3.283302 c 0.7756,0 1.4,0.6244 1.4,1.4000004 L 30,28.6 C 30,29.3756 29.3756,30 28.6,30 H 3.4 C 2.6244,30 2,29.3756 2,28.6 V 3.4 C 2,2.6244 2.6244,2 3.4,2 Z"/>
 <path style="fill:#008aee" d="M 3.4,2 C 3.0122,2 2.6618391,2.1557391 2.4087891,2.4087891 L 29.591211,29.591211 C 29.844261,29.338161 30,28.9878 30,28.6 V 3.4 C 30,2.6244 29.3756,2 28.6,2 Z"/>
 <path style="opacity:0.2" d="m 16.789062,7.000391 -0.90625,0.7226562 -0.933593,-0.6894531 -0.6875,0.9316407 -1.080078,-0.421875 -0.423829,1.078125 -1.15039,-0.1289063 -0.13086,1.1503906 -1.144531,0.1738281 0.171875,1.1464848 -1.0624998,0.464843 0.4648438,1.0625 L 9,13.211329 l 0.7226562,0.90625 -0.6894531,0.933593 0.9316407,0.6875 -0.421875,1.080078 1.0781252,0.423829 -0.128906,1.15039 1.15039,0.13086 0.173828,1.144531 1.146485,-0.171875 0.464843,1.0625 1.0625,-0.464844 0.720704,0.90625 0.90625,-0.722656 0.933593,0.6875 0.6875,-0.929688 1.080078,0.421875 0.423829,-1.078125 1.15039,0.128906 0.13086,-1.15039 1.144531,-0.173828 -0.171875,-1.146485 1.0625,-0.464843 -0.464844,-1.0625 L 23,14.789453 l -0.722656,-0.90625 0.6875,-0.933593 -0.929688,-0.6875 0.421875,-1.080078 -1.078125,-0.423828 0.128906,-1.1503911 -1.15039,-0.1308594 -0.173828,-1.1445313 -1.146485,0.171875 -0.464843,-1.0625 -1.0625,0.4648438 z m -0.789062,4 a 3,3 0 0 1 3,3 3,3 0 0 1 -3,3 3,3 0 0 1 -3,-3 3,3 0 0 1 3,-3 z m 2,9.943359 -0.791016,1.06836 -1.074218,-0.789063 -1.042969,0.832032 L 14.261719,21.01211 13.041016,21.547266 13,21.453516 V 26.6 L 16,23.801172 19,26.6 v -5.265625 z"/>
 <path style="fill:#8b9cbe" d="M 16.789062 6 L 15.882812 6.7226562 L 14.949219 6.0332031 L 14.261719 6.9648438 L 13.181641 6.5429688 L 12.757812 7.6210938 L 11.607422 7.4921875 L 11.476562 8.6425781 L 10.332031 8.8164062 L 10.503906 9.9628906 L 9.4414062 10.427734 L 9.90625 11.490234 L 9 12.210938 L 9.7226562 13.117188 L 9.0332031 14.050781 L 9.9648438 14.738281 L 9.5429688 15.818359 L 10.621094 16.242188 L 10.492188 17.392578 L 11.642578 17.523438 L 11.816406 18.667969 L 12.962891 18.496094 L 13.427734 19.558594 L 14.490234 19.09375 L 15.210938 20 L 16.117188 19.277344 L 17.050781 19.964844 L 17.738281 19.035156 L 18.818359 19.457031 L 19.242188 18.378906 L 20.392578 18.507812 L 20.523438 17.357422 L 21.667969 17.183594 L 21.496094 16.037109 L 22.558594 15.572266 L 22.09375 14.509766 L 23 13.789062 L 22.277344 12.882812 L 22.964844 11.949219 L 22.035156 11.261719 L 22.457031 10.181641 L 21.378906 9.7578125 L 21.507812 8.6074219 L 20.357422 8.4765625 L 20.183594 7.3320312 L 19.037109 7.5039062 L 18.572266 6.4414062 L 17.509766 6.90625 L 16.789062 6 z M 16 10 A 3 3 0 0 1 19 13 A 3 3 0 0 1 16 16 A 3 3 0 0 1 13 13 A 3 3 0 0 1 16 10 z M 18 19.943359 L 17.208984 21.011719 L 16.134766 20.222656 L 15.091797 21.054688 L 14.261719 20.011719 L 13.041016 20.546875 L 13 20.453125 L 13 25.599609 L 16 22.800781 L 19 25.599609 L 19 20.333984 L 18 19.943359 z"/>
 <path style="opacity:0.1;fill:#8b9cbe" d="M 3.4003906 2 C 2.6247906 2 2 2.6247906 2 3.4003906 L 2 4.4003906 C 2 3.6247906 2.6247906 3 3.4003906 3 L 28.599609 3 C 29.375209 3 30 3.6247906 30 4.4003906 L 30 3.4003906 C 30 2.6247906 29.375209 2 28.599609 2 L 3.4003906 2 z"/>
</svg>
