<svg xmlns="http://www.w3.org/2000/svg" width="32" height="32" version="1">
 <circle style="opacity:0.2" cx="16" cy="17" r="14"/>
 <circle style="fill:#7a1ea9" cx="16" cy="16" r="14"/>
 <path style="opacity:0.2" d="M 16,5 C 9.3851244,5 4,10.385124 4,17 4,23.614876 9.3851244,29 16,29 22.614876,29 28,23.614876 28,17 28,10.385124 22.614876,5 16,5 Z m 0,2.1171875 c 5.470414,0 9.882812,4.4123985 9.882812,9.8828125 0,5.470414 -4.412398,9.882812 -9.882812,9.882812 C 10.529586,26.882812 6.1171875,22.470414 6.1171875,17 6.1171875,11.529586 10.529586,7.1171875 16,7.1171875 Z M 16,9 c -4.405357,0 -8,3.594643 -8,8 0,4.405357 3.594643,8 8,8 4.405357,0 8,-3.594643 8,-8 0,-4.405357 -3.594643,-8 -8,-8 z m 0,2.181641 c 3.226215,0 5.818359,2.592144 5.818359,5.818359 0,3.226215 -2.592144,5.818359 -5.818359,5.818359 -3.226215,0 -5.818359,-2.592144 -5.818359,-5.818359 0,-3.226215 2.592144,-5.818359 5.818359,-5.818359 z M 16,13 a 4,4 0 0 0 -4,4 4,4 0 0 0 4,4 4,4 0 0 0 4,-4 4,4 0 0 0 -4,-4 z"/>
 <circle style="fill:none;stroke:#8b9cbe;stroke-width:2.11764693;stroke-linecap:round;stroke-linejoin:round" cx="16" cy="16" r="10.941"/>
 <circle style="fill:none;stroke:#8b9cbe;stroke-width:2.18181801;stroke-linecap:round;stroke-linejoin:round" cx="16" cy="16" r="6.909"/>
 <circle style="fill:#8b9cbe" cx="16" cy="16" r="4"/>
 <path style="fill:#7a1ea9" d="M 16,29.3 C 8.2680135,29.3 2.7,23.731986 2.7,16 2.7,8.2680135 8.2680135,2.7 16,2.7 Z"/>
 <path style="opacity:0.1;fill:#8b9cbe" d="M 16 2 A 14 14 0 0 0 2 16 A 14 14 0 0 0 2.0214844 16.585938 A 14 14 0 0 1 16 3 A 14 14 0 0 1 29.978516 16.414062 A 14 14 0 0 0 30 16 A 14 14 0 0 0 16 2 z"/>
</svg>
