<svg xmlns="http://www.w3.org/2000/svg" width="32" height="32" version="1.1">
 <rect style="opacity:0.2" width="29" height="29" x="2" y="2" rx="2.9" ry="2.9"/>
 <rect style="fill:#b2bfd9" width="29" height="29" x="2" y="1" rx="2.9" ry="2.9"/>
 <path style="opacity:0.1" d="M 4.9003906,6.0741094 C 6.075023,7.3366076 7.3506237,8.796107 8.5820312,10 H 10 v 3 H 8 v 3 h 2 v 10 h 3 V 16 h 7 v 10 h 3 V 16 h 2 v -3 h -2 v -3 h 1.544922 C 25.63574,8.9444348 26.74336,7.604335 27.810547,6.5233281 28.761132,5.750932 27.11562,6.2355387 26.623047,6.2342656 23.266967,6.7422485 19.877087,7.0165461 16.488281,6.9998906 12.55742,7.0789824 8.4956089,6.4776486 4.9003906,6.0741094 Z M 13,10 h 3 v 3 h -3 z m 4,0 h 3 v 3 h -3 z"/>
 <path style="fill:#159eed" d="M 4.9003906,5.0741094 C 6.075023,6.3366076 7.3506237,7.796107 8.5820312,9 H 10 v 3 H 8 v 3 h 2 v 10 h 3 V 15 h 7 v 10 h 3 V 15 h 2 V 12 H 23 V 9 h 1.544922 C 25.63574,7.9444348 26.74336,6.604335 27.810547,5.5233281 28.761132,4.750932 27.11562,5.2355387 26.623047,5.2342656 23.266967,5.7422485 19.877087,6.0165461 16.488281,5.9998906 12.55742,6.0789824 8.4956089,5.4776486 4.9003906,5.0741094 Z M 13,9 h 3 v 3 h -3 z m 4,0 h 3 v 3 h -3 z"/>
 <path style="fill:#8b9cbe;opacity:0.2" d="M 4.9003906 1 C 3.2937906 1 2 2.2937906 2 3.9003906 L 2 4.9003906 C 2 3.2937906 3.2937906 2 4.9003906 2 L 28.099609 2 C 29.706209 2 31 3.2937906 31 4.9003906 L 31 3.9003906 C 31 2.2937906 29.706209 1 28.099609 1 L 4.9003906 1 z"/>
</svg>
