<svg xmlns="http://www.w3.org/2000/svg" width="32" height="32" version="1">
 <rect style="opacity:0.2" width="28" height="28" x="2" y="3" rx="14" ry="14"/>
 <rect style="fill:#493f40" width="28" height="28" x="2" y="2" rx="14" ry="14"/>
 <path style="fill:#8b9cbe;opacity:0.1" d="M 16 2 C 8.244 2 2 8.244 2 16 C 2 16.168842 2.0195214 16.33264 2.0253906 16.5 C 2.2891326 8.9794325 8.4128418 3 16 3 C 23.500fae9 3 29.710867 8.9794325 29.974609 16.5 C 29.980479 16.33264 30 16.168842 30 16 C 30 8.244 23.756 2 16 2 z"/>
 <circle style="opacity:0.2" cx="16" cy="17" r="11"/>
 <circle style="fill:#8b9cbe" cx="16" cy="16" r="11"/>
 <g transform="matrix(0.60837649,0,0,0.7,1.199783,-1.145499)">
  <path style="fill:#493f40" d="m 19.601706,16.49357 v 8 h -2.054649 v -8 h -3.081973 v -2 h 8.218595 v 2 z"/>
 </g>
 <g transform="matrix(0.55786184,0,0,0.65080809,-6.4020153,4.8461966)">
  <path style="fill:#493f40" transform="matrix(1.0163792,0,0,1,16.994403,-6.94838)" d="m 29.078125,25.623047 c -1.214187,0 -2.190842,0.230092 -2.908203,0.744141 h -0.002 v 0.002 c -0.712399,0.514193 -1.091797,1.304157 -1.091797,2.232421 0,0.404694 0.0667,0.778668 0.207031,1.113282 v 0.002 l 0.002,0.002 c 0.142528,0.32728 0.347455,0.618368 0.609375,0.863281 l 0.002,0.002 0.002,0.002 c 0.267321,0.24453 0.608158,0.449267 1.023437,0.630859 h 0.002 c 0.43134,0.186449 1.021374,0.360331 1.789063,0.533203 0.431441,0.100505 0.825116,0.194577 1.179687,0.28125 0.336749,0.08232 0.619011,0.18174 0.845703,0.294922 0.214164,0.106926 0.361554,0.23098 0.460938,0.371094 v 0.002 l 0.002,0.0039 c 0.08787,0.120004 0.144531,0.288077 0.144531,0.546875 0,0.462037 -0.147792,0.733108 -0.513672,0.96875 -0.364893,0.233169 -0.938619,0.376953 -1.732422,0.376953 -0.768041,0 -1.345555,-0.132528 -1.736328,-0.357422 -0.386361,-0.226551 -0.621274,-0.551196 -0.746093,-1.054687 l -0.08789,-0.347656 -1.976563,0.402343 0.08398,0.378907 c 0.204387,0.906939 0.706826,1.629031 1.46289,2.089843 0.756066,0.460813 1.743248,0.671874 2.951172,0.671875 1.300935,0 2.350443,-0.252462 3.125,-0.80664 0.779077,-0.553769 1.195313,-1.397149 1.195313,-2.392578 0,-0.387816 -0.05156,-0.740613 -0.169922,-1.054688 l -0.002,-0.002 c -0.109874,-0.302172 -0.270003,-0.572887 -0.47461,-0.802735 -0.199018,-0.22357 -0.434438,-0.412749 -0.701171,-0.564453 l -0.0039,-0.002 c -0.248485,-0.143309 -0.51386,-0.2665 -0.796875,-0.36914 l -0.0039,-0.002 C 30.937774,30.276608 30.644795,30.187398 30.33804,30.115369 h -0.002 c -0.289323,-0.07357 -0.581382,-0.144022 -0.875,-0.21289 l -0.002,-0.002 h -0.002 c -0.866805,-0.195274 -1.449726,-0.36599 -1.68164,-0.470703 l -0.0039,-0.002 c -0.250857,-0.118327 -0.425896,-0.250961 -0.539062,-0.386718 -0.0966,-0.124756 -0.150391,-0.277648 -0.150391,-0.509766 0,-0.409302 0.120849,-0.634523 0.429688,-0.832031 0.312778,-0.200027 0.82933,-0.328125 1.552734,-0.328125 0.655575,0 1.136318,0.115516 1.447266,0.300781 h 0.002 v 0.002 c 0.306073,0.178785 0.508742,0.449373 0.628906,0.890625 l 0.08984,0.330078 2.015625,-0.359375 -0.115235,-0.404297 c -0.24968,-0.880732 -0.710448,-1.55674 -1.378906,-1.947265 -0.66242,-0.391806 -1.552659,-0.560547 -2.675781,-0.560547 z"/>
 </g>
 <path style="opacity:0.1" d="M 11.270876,15.938206 24,3 17.863909,12.952466 22.106951,12.081625 16.523938,19.195614 20.13975,18.855855 8,31 l 5.643249,-9.071844 -3.427784,0.290532 4.759337,-6.88451 z"/>
 <path style="fill:#f99007" d="M 11.270876,14.938206 24,2 17.863909,11.952466 22.106951,11.081625 16.523938,18.195614 20.13975,17.855855 8,30 l 5.643249,-9.071844 -3.427784,0.290532 4.759337,-6.88451 z"/>
</svg>
