<svg xmlns="http://www.w3.org/2000/svg" width="32" height="32" version="1">
 <rect style="opacity:0.2" width="20" height="20" x="-30" y="-25" rx="2.143" ry="2.143" transform="matrix(0,-1,-1,0,0,0)"/>
 <rect style="fill:#cecece" width="20" height="20" x="-29" y="-25" rx="2.143" ry="2.143" transform="matrix(0,-1,-1,0,0,0)"/>
 <path style="opacity:0.2;fill:#8b9cbe" d="M 7.1425781,9 C 5.9554353,9 5,9.955435 5,11.142578 v 1 C 5,10.955435 5.9554353,10 7.1425781,10 H 22.857422 C 24.044565,10 25,10.955435 25,12.142578 v -1 C 25,9.955435 24.044565,9 22.857422,9 Z"/>
 <path style="fill:#4f4f4f" d="m 15,12 -6,4 h 3 v 6 H 9 l 6,4 6,-4 h -3 v -6 h 3 z"/>
 <path style="opacity:0.1" d="M 10.5,15 9,16 h 3 v -1 z m 7.5,0 v 1 h 3 l -1.5,-1 z m -9,7 6,4 6,-4 H 19.5 L 15,25 10.5,22 Z"/>
 <rect style="fill:#7e7e7e" width="6" height="17" x="12" y="-19" transform="scale(1,-1)"/>
 <rect style="opacity:0.2" width="6" height="16" x="-7" y="-23" rx="3" ry="2.667" transform="matrix(0,-1,-1,0,0,0)"/>
 <rect style="fill:#db4539" width="6" height="16" x="-6" y="-23" rx="3" ry="2.667" transform="matrix(0,-1,-1,0,0,0)"/>
 <path style="opacity:0.2;fill:#8b9cbe" d="M 9.666016,0 C 8.1886822,0 7,1.338 7,3 7,3.1715539 7.0205693,3.3364655 7.0449219,3.5 7.2564951,2.0792258 8.3411746,1 9.666016,1 h 10.667968 c 1.324841,0 2.409521,1.0792258 2.621094,2.5 C 22.979431,3.3364655 23,3.1715539 23,3 23,1.338 21.811318,0 20.333984,0 Z"/>
 <rect style="opacity:0.1" width="6" height="1" x="12" y="19"/>
 <path style="opacity:0.2" d="M 32,29.6 C 32,21.6 26.4,16 18.4,16 17.2,16 16,17.2 16,18.4 v 11.2 c 0,1.2 1.2,2.4 2.4,2.4 h 11.2 c 1.2,0 2.4,-1.2 2.4,-2.4 z"/>
 <path style="fill:#426bcd" d="M 32,28.6 C 32,20.6 26.4,15 18.4,15 17.2,15 16,16.2 16,17.4 v 11.2 c 0,1.2 1.2,2.4 2.4,2.4 h 11.2 c 1.2,0 2.4,-1.2 2.4,-2.4 z"/>
 <path style="fill:#8b9cbe" d="m 19,18 v 0.833333 c 0,0.458467 0.377892,0.833334 0.833333,0.833334 4.142167,0 7.5,3.357833 7.5,7.5 0,0.458466 0.377892,0.833333 0.833334,0.833333 H 29 V 27.166667 C 29,22.104167 24.895833,18 19.833333,18 Z"/>
 <path style="fill:#8b9cbe" d="m 19,21.333333 v 0.833334 C 19,22.625133 19.377892,23 19.833333,23 22.1345,23 24,24.8655 24,27.166667 24,27.625133 24.377892,28 24.833333,28 h 0.833334 v -0.833333 c 0,-3.221667 -2.611667,-5.833334 -5.833334,-5.833334 z"/>
 <path style="fill:#8b9cbe" d="M 20.5,25 C 19.67155,25 19,25.671572 19,26.5 19,27.328427 19.671573,28 20.5,28 21.328428,28 22,27.328427 22,26.5 22,25.671572 21.328451,25 20.5,25 Z"/>
</svg>
