<svg xmlns="http://www.w3.org/2000/svg" width="32" height="32" version="1">
 <path style="opacity:0.2" d="m 20.115234,3.0000264 c -0.697436,0.00769 -0.89751,0.070914 -1.333984,0.2265625 -4.738273,1.9374872 -9.2944136,3.8535606 -15.0058594,5.46875 -1.3670415,0.318222 -1.9433177,1.0490213 -1.7324218,2.1972651 0,0 1.0390624,9.824233 1.0390624,10.408203 0,0.583894 0.5204925,3.331991 0.4511719,4.328125 -0.069329,0.996057 -0.8667263,4.05268 -0.9707031,4.464844 -0.1039689,0.412241 -4.921e-4,0.686473 0.1035156,0.892578 0.066513,0.131805 1.5318151,-0.712267 2.9570313,-1.623047 1.6162976,-1.144997 3.2770655,-2.225175 4.9628911,-3.271484 4.544385,-2.535383 9.140358,-4.995881 13.533203,-7.712891 0.526358,-0.31858 1.99234,-1.224848 2.960937,-1.818359 0.329683,-0.195412 0.662144,-0.386306 0.990234,-0.583985 3.86e-4,-0.0078 -3.54e-4,-0.01564 0,-0.02344 C 28.817482,15.493374 28.998911,15.388327 30,14.767604 29.960173,13.005899 29.368179,10.927436 28.714844,9.5039326 28.432204,8.8904548 28.2908,8.9078163 27.65625,9.3320576 c -0.344819,0.2523718 -0.738935,0.6677655 -1.117188,0.9687504 -0.02523,0.02159 -0.1942,0.175718 -0.232421,0.208984 C 25.319842,8.7568415 23.980935,6.7203502 22.371094,4.1054952 21.795117,3.2892449 20.812671,2.9930232 20.115234,3.0000264 Z"/>
 <path style="fill:#932c93" d="m 2.0423433,9.8927943 c 0,0 1.0397618,9.8234667 1.0397618,10.4074367 0,0.583894 0.519876,3.331707 0.4505554,4.327841 -0.069329,0.996057 -0.8664634,4.053014 -0.9704402,4.465178 -0.1039689,0.412241 -3.09e-5,0.687007 0.1039768,0.893112 0.066513,0.131805 1.5309001,-0.712869 2.9561163,-1.623649 C 12.710814,23.341165 20.610522,19.471254 28.070938,14.976257 28.22409,11.876137 25.904954,8.8458029 22.370929,3.1055098 21.794952,2.2892596 20.812215,1.9931186 20.114778,2.0001218 19.417342,2.0078099 19.217767,2.0701358 18.781293,2.2257847 14.04302,4.1632719 9.4867172,6.0792928 3.7752714,7.6944822 2.4082299,8.0127042 1.8314475,8.74455 2.0423433,9.8927943 Z"/>
 <path style="fill:#8b9cbe;opacity:0.1" d="M 20.115234 2 C 19.417798 2.0076881 19.217724 2.0709136 18.78125 2.2265625 C 14.042977 4.1640497 9.4868364 6.0801231 3.7753906 7.6953125 C 2.4083491 8.0135345 1.8320729 8.7443338 2.0429688 9.8925781 C 2.0429688 9.8925781 2.0562659 10.023802 2.0566406 10.027344 C 2.2232651 9.3695687 2.792228 8.9241746 3.7753906 8.6953125 C 9.4868364 7.0801231 14.042977 5.1640497 18.78125 3.2265625 C 19.217724 3.0709136 19.417798 3.0076881 20.115234 3 C 20.812671 2.9929968 21.795117 3.2892186 22.371094 4.1054688 C 25.533784 9.2426059 27.717731 12.209328 28.033203 14.998047 C 28.045443 14.990677 28.058075 14.983936 28.070312 14.976562 C 28.223464 11.876442 25.905119 8.8457618 22.371094 3.1054688 C 21.795117 2.2892185 20.812671 1.9929968 20.115234 2 z M 3.5019531 24.833984 C 3.3721069 25.961179 2.6614444 28.701534 2.5625 29.09375 C 2.4766803 29.434029 2.5404899 29.665778 2.6210938 29.857422 C 2.7909477 29.192483 3.467943 26.566506 3.5332031 25.628906 C 3.5467667 25.433998 3.5251959 25.133686 3.5019531 24.833984 z"/>
 <path style="opacity:0.4" d="M 26.39217,9.6605672 C 16.321418,14.99936 9.5620428,17.935982 3.12586,20.733347 c 0.040672,0.36746 0.1059247,0.847448 0.1867742,1.429071 6.2210362,-2.561029 15.7599118,-7.032554 23.7346818,-11.236842 -0.09,-0.18788 -0.183583,-0.376856 -0.284471,-0.57134 L 26.502798,9.853413 C 26.468834,9.79133 26.427121,9.7234055 26.39217,9.6605672 Z m 1.093347,2.2407478 c -10.07893,5.343337 -17.5532211,8.831661 -24.0033494,11.638364 0.043443,0.435238 0.068591,0.824948 0.050285,1.087993 -0.0075,0.107772 -0.049094,0.309023 -0.071836,0.459087 C 9.6870439,22.523595 19.442915,17.928387 27.423738,13.720395 l 0.06609,-1.810444 c -0.0012,-0.0029 -0.0031,-0.0057 -0.0043,-0.0086 z"/>
 <path style="fill:#b72dc5" d="m 9.9135247,25.464865 c 0,0 9.2244563,-9.120792 10.8419393,-10.796685 1.617485,-1.675818 5.244573,-4.9061173 5.783733,-5.3675226 C 26.91745,8.9996728 27.31223,8.584192 27.657049,8.3318203 28.291599,7.907579 28.431247,7.8895855 28.713887,8.5030634 29.367222,9.9265667 29.960173,12.006602 30,13.768307 c -3.050494,1.891452 -4.836007,2.978116 -5.881417,3.610854 -4.609105,2.850769 -9.443049,5.416682 -14.2050583,8.085704 z"/>
 <path style="fill:#8b9cbe;opacity:0.2" d="M 28.318359 8.0273438 C 28.168799 8.0081876 27.973525 8.1199106 27.65625 8.3320312 C 27.311431 8.584403 26.917315 8.9997967 26.539062 9.3007812 C 25.999902 9.7621866 22.373344 12.992151 20.755859 14.667969 C 19.138376 16.343862 9.9140625 25.464844 9.9140625 25.464844 C 10.677413 25.036999 11.443159 24.613597 12.208984 24.189453 C 14.830272 21.594307 19.52404 16.944271 20.755859 15.667969 C 22.373344 13.992151 25.999902 10.762186 26.539062 10.300781 C 26.917316 9.9997968 27.311431 9.5844029 27.65625 9.3320312 C 28.2908 8.9077899 28.432204 8.8904284 28.714844 9.5039062 C 29.254859 10.680504 29.7348 12.29714 29.914062 13.820312 C 29.958092 13.793021 29.955432 13.795213 30 13.767578 C 29.960173 12.005873 29.368179 9.9274096 28.714844 8.5039062 C 28.573524 8.1971673 28.46792 8.0464999 28.318359 8.0273438 z"/>
</svg>
