<svg xmlns="http://www.w3.org/2000/svg" width="32" height="32" version="1">
 <path style="opacity:0.2" d="m 5.0234375,2.9997212 c 1.0009,1.38458 1.5121,2.8537 0,5 -0.15875,1.8767995 0.4983906,2.9677348 2.7441406,2.9277348 0.53147,-0.036 1.3750494,-0.140994 1.8183594,-0.558594 0.7027405,-0.8605997 0.4302955,-1.3111939 0.140625,-1.3710939 -0.30099,-0.089 -1.0290481,0.361713 -0.3300781,0.6953125 0.14735,0.6021004 -1.5319869,0.5401034 -1.8417969,0.033203 -1.1662,-2.0878995 1.9361299,-3.5887625 5.4687505,-2.2265625 0.724149,5.6983988 1.545433,12.9591868 0.658203,19.7421878 -0.58058,1.346899 -1.202333,2.155612 -2.658203,2.757812 l 0,1 c 2,-1 6.999999,-1 10,-1 l 0,-1 c -1.293401,-0.233 -2.320267,-1.434378 -2.472657,-2.642578 -0.5025,-6.7232 -0.869864,-11.648223 0.472657,-18.3574218 l 4.96875,0 c 0.61962,0.014 0.873819,0.5283005 1.03125,2 l 2,0 c -0.697701,-1.6664995 -1,-3 -1,-5 -7.469502,1.1547 -12.92221,0.12858 -21.0000005,-2 z M 26.382812,19.01144 c -1.382449,-0.01245 -2.438454,0.442514 -3.21289,1.611328 -0.13411,0.27041 -0.183949,0.461314 -0.199219,0.771484 -0.01774,0.36061 0.056,0.649044 0.248047,0.964844 0.05832,0.09591 0.214105,0.271214 0.296875,0.333984 0.19219,0.14577 0.491752,0.288168 0.638672,0.304688 0.03878,0.0044 0.09364,0.01343 0.123047,0.01953 C 24.751989,22.999814 25,22.602655 25,22.087612 c 0,-0.649654 1.193803,-1.950938 1.601562,-0.197266 -0.101953,1.10998 -0.689275,1.331116 -1.474609,1.888672 -0.08636,0.05258 -0.134765,0.119826 -0.134765,0.191406 0.25465,0.530962 0.497564,1.025516 0.683593,1.582031 0.06418,0.1562 0.102138,0.197266 0.179688,0.197266 0.03422,0 0.06221,-0.01968 0.117187,-0.07617 0.303791,-0.41808 0.496272,-0.993023 0.806641,-0.451172 0.09814,0.18524 0.143367,0.315395 0.210937,0.609375 0.01564,0.06804 0.02104,0.163739 0.02734,0.386719 0.0061,0.21819 9.5e-5,0.296234 -0.04687,0.589844 -0.460163,1.217551 -1.19984,1.80389 -2.720703,1.457031 -0.14515,-0.07749 -0.283203,-0.211701 -0.283203,-0.275391 0,-0.04223 0.07766,-0.06009 0.238281,-0.05859 0.20543,0.0019 0.335721,-0.03398 0.425781,-0.113282 0.01657,-0.01458 0.05044,-0.03913 0.07617,-0.05664 0.04675,-0.03182 0.124533,-0.124003 0.164063,-0.195313 0.01154,-0.02081 0.02314,-0.04268 0.02734,-0.04687 0.03298,-0.03267 0.08757,-0.19292 0.101562,-0.33789 0.03068,-0.31785 -0.0044,-0.304392 -0.138672,-0.544922 -0.15239,-0.27296 -0.502277,-0.519404 -0.835937,-0.589844 -0.16131,-0.034 -0.188243,-0.0384 -0.345703,-0.03906 -0.679511,-0.0085 -1.288531,0.55396 -1.609376,1.44336 -0.076,0.43421 -0.08365,0.490779 -0.05664,0.792969 0.02389,0.26738 0.07324,0.469263 0.175781,0.714843 0.03878,0.09288 0.116635,0.252765 0.146485,0.302735 0.0075,0.01248 0.04181,0.07073 0.07617,0.130859 0.06156,0.10773 0.158448,0.246079 0.205079,0.292969 0.01312,0.01319 0.02344,0.03021 0.02344,0.03711 0,0.0225 0.339268,0.363332 0.455078,0.457032 0.0396,0.03205 0.08288,0.0676 0.0957,0.08008 0.12318,0.12033 0.556586,0.36883 0.753906,0.43164 0.03442,0.01096 0.1219,0.04055 0.19336,0.06641 0.12046,0.04361 0.447226,0.131772 0.535156,0.144532 0.02101,0.003 0.08569,0.01802 0.144531,0.03125 0.05884,0.01322 0.168491,0.03192 0.244141,0.04297 0.07565,0.01104 0.248323,0.02194 0.382812,0.02344 0.293571,0.0033 0.849179,-0.0229 0.923829,-0.04297 0.02943,-0.0079 0.0744,-0.01748 0.09961,-0.02148 0.04723,-0.0075 0.349795,-0.06788 0.390625,-0.07813 0.07828,-0.01965 0.143915,-0.03977 0.265625,-0.07617 0.07565,-0.02262 0.165929,-0.04689 0.199219,-0.05469 0.0333,-0.0078 0.06737,-0.01919 0.07617,-0.02539 0.0087,-0.0062 0.05338,-0.02375 0.09961,-0.03906 0.15119,-0.05008 0.454723,-0.196474 0.626953,-0.302734 0.05473,-0.03377 0.11107,-0.06787 0.125,-0.07617 0.01387,-0.0083 0.0661,-0.04469 0.117188,-0.08008 0.05109,-0.03538 0.09726,-0.06445 0.101562,-0.06445 0.01667,0 0.17553,-0.115591 0.25,-0.181641 0.02347,-0.02081 0.07793,-0.06664 0.119141,-0.101562 0.15005,-0.12713 0.368073,-0.354832 0.408203,-0.425781 0.0076,-0.01346 0.03651,-0.04946 0.0625,-0.08008 0.10618,-0.12502 0.191406,-0.240822 0.191406,-0.257812 0,-0.0066 0.0325,-0.06069 0.07031,-0.119141 0.03785,-0.05845 0.06836,-0.108681 0.06836,-0.113281 0,-0.0046 0.02459,-0.06099 0.05469,-0.125 0.03011,-0.06401 0.06448,-0.137139 0.07617,-0.162109 0.07593,-0.16256 0.174586,-0.534338 0.197266,-0.742188 0.0046,-0.04163 0.01408,-0.123361 0.02148,-0.18164 0.01453,-0.111651 0.01151,-0.528129 -0.0039,-0.605469 -0.005,-0.02498 -0.01629,-0.114006 -0.02539,-0.197266 -0.02837,-0.2615 -0.108647,-0.607569 -0.191407,-0.824219 -0.03022,-0.0791 -0.06503,-0.173467 -0.07813,-0.210937 -0.01306,-0.03747 -0.03335,-0.08319 -0.04492,-0.09961 -0.01156,-0.01642 -0.02148,-0.03911 -0.02148,-0.05078 0,-0.03758 -0.194619,-0.413117 -0.287109,-0.554687 -0.04933,-0.07552 -0.09401,-0.148266 -0.09961,-0.160157 -0.01338,-0.02828 -0.04591,-0.08024 -0.05664,-0.08984 -0.0046,-0.0042 -0.02564,-0.03301 -0.04492,-0.06445 -0.01928,-0.03144 -0.0427,-0.06598 -0.05273,-0.07617 -0.01,-0.01019 -0.03438,-0.04117 -0.05469,-0.07031 -0.02034,-0.02914 -0.04022,-0.05645 -0.04492,-0.06055 -0.0048,-0.0042 -0.02873,-0.03141 -0.05273,-0.06055 -0.05248,-0.06372 -0.231578,-0.262044 -0.398438,-0.439454 -0.17887,-0.19016 -0.32645,-0.193663 -0.337891,-0.246093 -0.01146,-0.05231 0.02779,-0.122447 0.119141,-0.216797 0.10369,-0.1071 0.218686,-0.269551 0.285156,-0.400391 0.01062,-0.02081 0.02666,-0.04373 0.03516,-0.05273 0.01569,-0.01647 0.187754,-0.352323 0.208984,-0.408203 0.0063,-0.01665 0.01897,-0.0585 0.0293,-0.0918 0.01028,-0.0333 0.03033,-0.09314 0.04492,-0.134766 0.04108,-0.11741 0.09225,-0.38081 0.103515,-0.53125 0.02036,-0.271 0.0054,-0.708954 -0.0293,-0.865234 -0.02326,-0.10485 -0.136972,-0.430656 -0.175782,-0.503907 -0.01983,-0.03746 -0.05612,-0.111895 -0.08203,-0.166015 -0.07588,-0.15852 -0.151287,-0.262771 -0.335937,-0.462891 -0.09298,-0.10078 -0.384097,-0.355692 -0.472657,-0.414062 -0.16154,-0.10648 -0.269998,-0.170871 -0.361328,-0.212891 -0.17982,-0.08275 -0.26226,-0.118269 -0.3125,-0.136719 -0.02941,-0.0108 -0.06036,-0.0262 -0.06836,-0.0332 -0.008,-0.007 -0.02347,-0.01172 -0.03516,-0.01172 -0.01176,1e-6 -0.04382,-0.0098 -0.07031,-0.02148 -0.1217,-0.05368 -0.381972,-0.132239 -0.695313,-0.162109 z"/>
 <path style="fill:#9b6bca" d="M 5.0234375 2 C 6.0243375 3.38458 6.5355375 4.8537 5.0234375 7 C 4.8646875 8.8767995 5.5218281 9.9677344 7.7675781 9.9277344 C 8.2990481 9.8917344 9.1426275 9.7867407 9.5859375 9.3691406 C 10.288678 8.5085411 10.016233 8.0579469 9.7265625 7.9980469 C 9.4255725 7.9090469 8.6975144 8.3597599 9.3964844 8.6933594 C 9.5438344 9.2954594 7.8644975 9.2334625 7.5546875 8.7265625 C 6.3884875 6.638663 9.4908174 5.1378 13.023438 6.5 C 13.747587 12.198399 14.568871 19.459187 13.681641 26.242188 C 13.101061 27.589087 12.479308 28.3978 11.023438 29 L 11.023438 30 C 13.023438 29 18.023437 29 21.023438 29 L 21.023438 28 C 19.730037 27.767 18.703171 26.565622 18.550781 25.357422 C 18.048281 18.634222 17.680917 13.709199 19.023438 7 L 23.992188 7 C 24.611808 7.014 24.866007 7.5283005 25.023438 9 L 27.023438 9 C 26.325737 7.3335005 26.023438 6 26.023438 4 C 18.553936 5.1547 13.101228 4.12858 5.0234375 2 z M 26.382812 18.011719 C 25.000363 17.999269 23.944358 18.454233 23.169922 19.623047 C 23.035812 19.893457 22.985973 20.084361 22.970703 20.394531 C 22.952963 20.755141 23.0267 21.043575 23.21875 21.359375 C 23.27707 21.455285 23.432855 21.630589 23.515625 21.693359 C 23.707815 21.839129 24.007377 21.981527 24.154297 21.998047 C 24.193077 22.002407 24.247934 22.011478 24.277344 22.017578 C 24.751989 22.000093 25 21.602934 25 21.087891 C 25 20.438237 26.193803 19.136953 26.601562 20.890625 C 26.499609 22.000605 25.912287 22.221741 25.126953 22.779297 C 25.040593 22.831877 24.992188 22.899123 24.992188 22.970703 C 25.246838 23.501665 25.489752 23.996219 25.675781 24.552734 C 25.739961 24.708934 25.777919 24.75 25.855469 24.75 C 25.889689 24.75 25.917676 24.730318 25.972656 24.673828 C 26.276447 24.255748 26.468928 23.680805 26.779297 24.222656 C 26.877437 24.407896 26.922664 24.538051 26.990234 24.832031 C 27.005874 24.900071 27.011278 24.99577 27.017578 25.21875 C 27.023698 25.43694 27.017673 25.514984 26.970703 25.808594 C 26.51054 27.026145 25.770863 27.612484 24.25 27.265625 C 24.10485 27.188135 23.966797 27.053924 23.966797 26.990234 C 23.966797 26.948004 24.044458 26.930141 24.205078 26.931641 C 24.410508 26.933551 24.540799 26.897659 24.630859 26.818359 C 24.647429 26.803779 24.681301 26.779229 24.707031 26.761719 C 24.753781 26.729899 24.831564 26.637716 24.871094 26.566406 C 24.882634 26.545596 24.894237 26.523731 24.898438 26.519531 C 24.931418 26.486861 24.98601 26.326611 25 26.181641 C 25.03068 25.863791 24.995608 25.877249 24.861328 25.636719 C 24.708938 25.363759 24.359051 25.117315 24.025391 25.046875 C 23.864081 25.012875 23.837148 25.008479 23.679688 25.007812 C 23.000177 24.999328 22.391157 25.561772 22.070312 26.451172 C 21.994312 26.885382 21.986662 26.941951 22.013672 27.244141 C 22.037562 27.511521 22.086913 27.713404 22.189453 27.958984 C 22.228233 28.051864 22.306088 28.211749 22.335938 28.261719 C 22.343397 28.274199 22.377749 28.332448 22.412109 28.392578 C 22.473669 28.500308 22.570557 28.638657 22.617188 28.685547 C 22.630308 28.698737 22.640625 28.715756 22.640625 28.722656 C 22.640625 28.745156 22.979893 29.085988 23.095703 29.179688 C 23.135303 29.211738 23.178586 29.247286 23.191406 29.259766 C 23.314586 29.380096 23.747992 29.628596 23.945312 29.691406 C 23.979732 29.702366 24.067212 29.731952 24.138672 29.757812 C 24.259132 29.801423 24.585898 29.889584 24.673828 29.902344 C 24.694838 29.905394 24.759519 29.920364 24.818359 29.933594 C 24.877199 29.946814 24.98685 29.965512 25.0625 29.976562 C 25.13815 29.987603 25.310823 29.9985 25.445312 30 C 25.738883 30.00327 26.294491 29.977101 26.369141 29.957031 C 26.398571 29.949111 26.44354 29.939547 26.46875 29.935547 C 26.51598 29.928007 26.818545 29.867672 26.859375 29.857422 C 26.937655 29.837772 27.00329 29.81765 27.125 29.78125 C 27.20065 29.75863 27.290929 29.734362 27.324219 29.726562 C 27.357519 29.718773 27.391591 29.707372 27.400391 29.701172 C 27.409131 29.694992 27.45377 29.677419 27.5 29.662109 C 27.65119 29.612029 27.954723 29.465635 28.126953 29.359375 C 28.181683 29.325605 28.238023 29.291503 28.251953 29.283203 C 28.265823 29.274883 28.318051 29.238515 28.369141 29.203125 C 28.420231 29.167745 28.466403 29.138672 28.470703 29.138672 C 28.487373 29.138672 28.646233 29.023081 28.720703 28.957031 C 28.744173 28.936221 28.798634 28.890389 28.839844 28.855469 C 28.989894 28.728339 29.207917 28.500637 29.248047 28.429688 C 29.255657 28.416228 29.284557 28.380229 29.310547 28.349609 C 29.416727 28.224589 29.501953 28.108787 29.501953 28.091797 C 29.501953 28.085177 29.534456 28.031106 29.572266 27.972656 C 29.610116 27.914206 29.640625 27.863975 29.640625 27.859375 C 29.640625 27.854785 29.665212 27.798385 29.695312 27.734375 C 29.725422 27.670365 29.759794 27.597236 29.771484 27.572266 C 29.847414 27.409706 29.94607 27.037928 29.96875 26.830078 C 29.97331 26.788448 29.982834 26.706717 29.990234 26.648438 C 30.004764 26.536787 30.001748 26.120309 29.986328 26.042969 C 29.981358 26.017989 29.970038 25.928963 29.960938 25.845703 C 29.932568 25.584203 29.852291 25.238134 29.769531 25.021484 C 29.739311 24.942384 29.704506 24.848017 29.691406 24.810547 C 29.678346 24.773077 29.658054 24.727358 29.646484 24.710938 C 29.634924 24.694518 29.625 24.671826 29.625 24.660156 C 29.625 24.622576 29.430381 24.247039 29.337891 24.105469 C 29.288561 24.029949 29.243881 23.957203 29.238281 23.945312 C 29.224901 23.917033 29.192371 23.865069 29.181641 23.855469 C 29.177011 23.851309 29.155999 23.822456 29.136719 23.791016 C 29.117439 23.759576 29.094014 23.725034 29.083984 23.714844 C 29.074014 23.704654 29.049607 23.673671 29.029297 23.644531 C 29.008957 23.615391 28.989075 23.588084 28.984375 23.583984 C 28.979625 23.579824 28.955641 23.552578 28.931641 23.523438 C 28.879161 23.459718 28.700063 23.261394 28.533203 23.083984 C 28.354333 22.893824 28.206753 22.890321 28.195312 22.837891 C 28.183853 22.785581 28.223103 22.715444 28.314453 22.621094 C 28.418143 22.513994 28.533139 22.351543 28.599609 22.220703 C 28.610229 22.199893 28.626266 22.176969 28.634766 22.167969 C 28.650456 22.151499 28.82252 21.815646 28.84375 21.759766 C 28.85009 21.743116 28.862717 21.701269 28.873047 21.667969 C 28.883327 21.634669 28.903379 21.574833 28.917969 21.533203 C 28.959049 21.415793 29.010214 21.152393 29.021484 21.001953 C 29.041844 20.730953 29.026888 20.292999 28.992188 20.136719 C 28.968928 20.031869 28.855216 19.706063 28.816406 19.632812 C 28.796576 19.595353 28.760285 19.520917 28.734375 19.466797 C 28.658495 19.308277 28.583088 19.204026 28.398438 19.003906 C 28.305458 18.903126 28.014341 18.648214 27.925781 18.589844 C 27.764241 18.483364 27.655783 18.418973 27.564453 18.376953 C 27.384633 18.294203 27.302193 18.258684 27.251953 18.240234 C 27.222543 18.229434 27.191594 18.214031 27.183594 18.207031 C 27.175594 18.200011 27.160128 18.195312 27.148438 18.195312 C 27.136678 18.195313 27.104615 18.185508 27.078125 18.173828 C 26.956425 18.120148 26.696153 18.041589 26.382812 18.011719 z"/>
 <path style="fill:#8b9cbe;opacity:0.2" d="M 5.0234375 2 C 5.2976485 2.3793257 5.5281001 2.7676724 5.6972656 3.171875 C 13.398233 5.1762521 18.769684 6.1213477 26.023438 5 C 26.023438 6.5844156 26.222707 7.7552306 26.648438 9 L 27.023438 9 C 26.325737 7.3335005 26.023437 6 26.023438 4 C 18.553936 5.1547 13.101228 4.12858 5.0234375 2 z M 5.921875 4.9707031 C 5.8229768 5.5821207 5.5534332 6.2477152 5.0234375 7 C 4.9931763 7.3577587 5.004678 7.6763522 5.0390625 7.9746094 C 5.8580843 6.8022368 6.0608252 5.8356806 5.921875 4.9707031 z M 9.7265625 7.9980469 C 9.4255725 7.9090469 8.6975144 8.3597599 9.3964844 8.6933594 C 9.5438344 9.2954594 7.8644975 9.2334625 7.5546875 8.7265625 C 7.4881571 8.6074502 7.4398492 8.4898686 7.4003906 8.375 C 7.2488408 8.773338 7.278551 9.2321831 7.5546875 9.7265625 C 7.6028622 9.8053843 7.6905825 9.8692987 7.7929688 9.9257812 C 8.2082314 9.8965606 8.7936357 9.8192651 9.2421875 9.59375 C 8.8445755 9.2775102 9.4546927 8.9176574 9.7265625 8.9980469 C 9.7580161 9.0045511 9.782679 9.0350394 9.8125 9.0507812 C 10.212991 8.397827 9.9779202 8.0500243 9.7265625 7.9980469 z M 18.105469 16.832031 C 18.072776 19.856494 18.289725 22.864617 18.550781 26.357422 C 18.703171 27.565622 19.730037 28.767 21.023438 29 L 21.023438 28 C 19.730037 27.767 18.703171 26.565622 18.550781 25.357422 C 18.318415 22.248472 18.124329 19.526188 18.105469 16.832031 z M 26.382812 18.011719 C 25.000363 17.999269 23.944358 18.454233 23.169922 19.623047 C 23.035812 19.893457 22.985973 20.084361 22.970703 20.394531 C 22.960717 20.597533 22.988236 20.77811 23.041016 20.953125 C 23.071697 20.846791 23.110257 20.743351 23.169922 20.623047 C 23.944358 19.454233 25.000363 18.999269 26.382812 19.011719 C 26.696154 19.041589 26.956425 19.120148 27.078125 19.173828 C 27.104615 19.185508 27.136678 19.195314 27.148438 19.195312 C 27.160128 19.195313 27.175594 19.200031 27.183594 19.207031 C 27.191594 19.214031 27.222543 19.229434 27.251953 19.240234 C 27.302193 19.258684 27.384633 19.294203 27.564453 19.376953 C 27.655783 19.418973 27.764241 19.483364 27.925781 19.589844 C 28.014341 19.648214 28.305457 19.903126 28.398438 20.003906 C 28.583088 20.204026 28.658495 20.308277 28.734375 20.466797 C 28.760285 20.520917 28.796576 20.595353 28.816406 20.632812 C 28.855216 20.706063 28.968927 21.031869 28.992188 21.136719 C 28.992735 21.139185 28.99165 21.147785 28.992188 21.150391 C 29.000481 21.096338 29.018334 21.044008 29.021484 21.001953 C 29.041844 20.730953 29.026887 20.292999 28.992188 20.136719 C 28.968927 20.031869 28.855216 19.706063 28.816406 19.632812 C 28.796576 19.595353 28.760285 19.520917 28.734375 19.466797 C 28.658495 19.308277 28.583088 19.204026 28.398438 19.003906 C 28.305458 18.903126 28.014341 18.648214 27.925781 18.589844 C 27.764241 18.483364 27.655783 18.418973 27.564453 18.376953 C 27.384633 18.294203 27.302193 18.258684 27.251953 18.240234 C 27.222543 18.229434 27.191594 18.214031 27.183594 18.207031 C 27.175594 18.200011 27.160128 18.195312 27.148438 18.195312 C 27.136678 18.195313 27.104615 18.185508 27.078125 18.173828 C 26.956425 18.120148 26.696154 18.041589 26.382812 18.011719 z M 14.054688 21.097656 C 14.018231 22.821252 13.903448 24.546437 13.681641 26.242188 C 13.101061 27.589087 12.479307 28.3978 11.023438 29 L 11.023438 30 C 12.479308 29.3978 13.101061 28.589087 13.681641 27.242188 C 13.946433 25.217813 14.046255 23.15291 14.054688 21.097656 z M 26.462891 21.501953 C 26.227617 22.108845 25.73947 22.344434 25.126953 22.779297 C 25.040593 22.831877 24.992188 22.899123 24.992188 22.970703 C 25.103275 23.202328 25.209627 23.42641 25.3125 23.652344 C 25.998656 23.186188 26.508251 22.906521 26.601562 21.890625 C 26.563562 21.727194 26.512942 21.615319 26.462891 21.501953 z M 28.623047 23.183594 C 28.614799 23.194704 28.606962 23.206296 28.599609 23.220703 C 28.533139 23.351543 28.418143 23.513994 28.314453 23.621094 C 28.223102 23.715444 28.183853 23.785581 28.195312 23.837891 C 28.206753 23.890321 28.354333 23.893824 28.533203 24.083984 C 28.700063 24.261394 28.879161 24.459718 28.931641 24.523438 C 28.955641 24.552577 28.979575 24.579784 28.984375 24.583984 C 28.989075 24.588084 29.008957 24.615391 29.029297 24.644531 C 29.049607 24.673671 29.073984 24.704654 29.083984 24.714844 C 29.094014 24.725034 29.117439 24.759576 29.136719 24.791016 C 29.155999 24.822456 29.177041 24.851269 29.181641 24.855469 C 29.192371 24.865069 29.224901 24.917033 29.238281 24.945312 C 29.243881 24.957204 29.288561 25.029949 29.337891 25.105469 C 29.430381 25.247039 29.625 25.622576 29.625 25.660156 C 29.625 25.671826 29.634924 25.694517 29.646484 25.710938 C 29.658054 25.727357 29.678346 25.773077 29.691406 25.810547 C 29.704506 25.848017 29.739311 25.942384 29.769531 26.021484 C 29.852291 26.238134 29.932568 26.584203 29.960938 26.845703 C 29.961392 26.849862 29.962426 26.85129 29.962891 26.855469 C 29.963831 26.848057 29.967981 26.837127 29.96875 26.830078 C 29.97331 26.788448 29.982834 26.706717 29.990234 26.648438 C 30.004764 26.536787 30.001748 26.120309 29.986328 26.042969 C 29.981358 26.017989 29.970038 25.928963 29.960938 25.845703 C 29.932568 25.584203 29.852291 25.238134 29.769531 25.021484 C 29.739311 24.942384 29.704506 24.848017 29.691406 24.810547 C 29.678346 24.773077 29.658054 24.727358 29.646484 24.710938 C 29.634924 24.694517 29.625 24.671826 29.625 24.660156 C 29.625 24.622576 29.430381 24.247039 29.337891 24.105469 C 29.288561 24.029949 29.243881 23.957203 29.238281 23.945312 C 29.224901 23.917033 29.192371 23.865069 29.181641 23.855469 C 29.177011 23.851309 29.155999 23.822456 29.136719 23.791016 C 29.117439 23.759576 29.094014 23.725034 29.083984 23.714844 C 29.074014 23.704654 29.049607 23.673671 29.029297 23.644531 C 29.008957 23.615391 28.989075 23.588084 28.984375 23.583984 C 28.979625 23.579824 28.955641 23.552577 28.931641 23.523438 C 28.891028 23.474127 28.750962 23.32205 28.623047 23.183594 z M 23.679688 25.007812 C 23.000177 24.999328 22.391157 25.561772 22.070312 26.451172 C 21.994312 26.885382 21.986662 26.941951 22.013672 27.244141 C 22.022931 27.347775 22.04007 27.43703 22.058594 27.527344 C 22.064118 27.495323 22.063808 27.488334 22.070312 27.451172 C 22.391158 26.561772 23.000176 25.999312 23.679688 26.007812 C 23.837148 26.008472 23.864081 26.012875 24.025391 26.046875 C 24.345852 26.114529 24.676843 26.345546 24.837891 26.605469 C 24.848364 26.59011 24.863149 26.580738 24.871094 26.566406 C 24.882634 26.545596 24.894236 26.523731 24.898438 26.519531 C 24.931418 26.486861 24.98601 26.326611 25 26.181641 C 25.03068 25.863791 24.995608 25.877249 24.861328 25.636719 C 24.708938 25.363759 24.359051 25.117315 24.025391 25.046875 C 23.864081 25.012875 23.837148 25.008479 23.679688 25.007812 z M 26.972656 25.78125 C 26.970653 25.793962 26.972879 25.794991 26.970703 25.808594 C 26.588036 26.821098 26.005027 27.387699 24.947266 27.353516 C 24.928033 27.414062 24.914613 27.503508 24.898438 27.519531 C 24.894237 27.523721 24.882634 27.545596 24.871094 27.566406 C 24.831564 27.637716 24.753781 27.729899 24.707031 27.761719 C 24.681301 27.779229 24.647429 27.803779 24.630859 27.818359 C 24.540799 27.897661 24.410508 27.933541 24.205078 27.931641 C 24.044457 27.930141 23.966797 27.948004 23.966797 27.990234 C 23.966797 28.053924 24.10485 28.188135 24.25 28.265625 C 25.770863 28.612484 26.51054 28.026145 26.970703 26.808594 C 27.017668 26.514984 27.023678 26.43694 27.017578 26.21875 C 27.011278 25.99577 27.005874 25.900071 26.990234 25.832031 C 26.984604 25.807533 26.97802 25.8036 26.972656 25.78125 z"/>
</svg>
