<svg xmlns="http://www.w3.org/2000/svg" width="32" height="32" version="1.1">
 <circle style="opacity:0.2" cx="16" cy="17" r="14"/>
 <circle style="fill:#4f4f4f" cx="16" cy="16" r="14"/>
 <path style="opacity:0.1;fill:#8b9cbe" d="M 16 2 A 14 14 0 0 0 2 16 A 14 14 0 0 0 2.0214844 16.585938 A 14 14 0 0 1 16 3 A 14 14 0 0 1 29.978516 16.414062 A 14 14 0 0 0 30 16 A 14 14 0 0 0 16 2 z"/>
 <path style="opacity:0.1" d="M 4.3296874,5.0013653 C 3.45598,4.9810762 2.6628854,5.3533761 2.2597656,6.070506 1.6147741,7.2179138 2.210389,8.910567 3.5886717,9.7278653 4.9669544,10.545164 12.025907,13.935039 12.670899,12.787631 13.315891,11.640224 7.3021107,6.2903434 5.9238281,5.473045 5.4069718,5.1665581 4.8539118,5.0135388 4.3296874,5.0013653 Z m 23.3406246,0 c -0.524224,0.012174 -1.077284,0.1651928 -1.59414,0.4716797 -1.378283,0.8172984 -7.392063,6.167179 -6.747071,7.314586 0.644992,1.147408 7.703945,-2.242467 9.082227,-3.0597657 C 29.789611,8.910567 30.385226,7.2179138 29.740234,6.070506 29.337115,5.3533761 28.54402,4.9810762 27.670312,5.0013653 Z M 4.7972656,11.719858 c -1.0810528,-0.06051 -2.0236097,0.487744 -2.2121094,1.350781 -0.2154284,0.986326 0.6356128,2.009404 1.9017578,2.284571 1.2661445,0.275164 8.095704,0.552928 8.311133,-0.433399 0.215428,-0.986329 -6.2643242,-2.86253 -7.5304689,-3.137695 -0.1582682,-0.0344 -0.3158764,-0.05561 -0.4703125,-0.06426 z m 22.4054684,0 c -0.154436,0.0086 -0.312044,0.02986 -0.470312,0.06426 -1.266145,0.275165 -7.745897,2.151366 -7.530469,3.137695 0.215429,0.986327 7.044989,0.708563 8.311133,0.433399 1.266145,-0.275167 2.117185,-1.298245 1.901757,-2.284571 -0.188499,-0.863037 -1.131056,-1.411288 -2.212109,-1.350781 z M 8.7730466,16.284897 c -1.997212,-4.29e-4 -4.1261475,0.138651 -4.7523435,0.23789 -1.2523925,0.198482 -2.1011074,1.106578 -1.8962891,2.028907 0.2048175,0.922327 1.3862798,1.509614 2.6386718,1.311133 1.252392,-0.198482 8.1796232,-2.054038 7.9748052,-2.976367 -0.10241,-0.461165 -1.967632,-0.601134 -3.9648444,-0.601563 z m 14.4539064,0 c -1.997212,4.29e-4 -3.862435,0.140398 -3.964844,0.601563 -0.204818,0.922329 6.722413,2.777885 7.974805,2.976367 1.252391,0.198481 2.433854,-0.388806 2.638672,-1.311133 0.204818,-0.922329 -0.643896,-1.830425 -1.896289,-2.028907 -0.626196,-0.09924 -2.755132,-0.238319 -4.752344,-0.23789 z m -11.004492,2.607226 c -1.631133,0.105241 -6.8189113,1.856287 -7.7697268,2.305079 -1.0866453,0.512904 -1.5450423,1.32277 -1.0240234,1.808789 0.5210174,0.486016 1.8240969,0.465053 2.9107424,-0.04785 1.0866457,-0.512904 6.8620348,-3.515741 6.3410148,-4.001758 -0.06513,-0.06075 -0.224988,-0.07929 -0.458007,-0.06426 z m 7.555078,0 c -0.233019,-0.01504 -0.392881,0.0035 -0.458007,0.06426 -0.52102,0.486017 5.254369,3.488855 6.341015,4.001758 1.086645,0.512905 2.389725,0.533868 2.910742,0.04785 0.521019,-0.486018 0.06262,-1.295884 -1.024023,-1.808788 -0.950816,-0.44879 -6.138594,-2.199837 -7.769727,-2.305077 z m -6.883789,1.661133 c -1.070137,0.172286 -6.4405713,3.319692 -7.116211,3.880079 -0.7206815,0.597745 -0.9085304,1.298257 -0.4210938,1.564062 0.4874363,0.265804 1.4668193,-0.0038 2.1875001,-0.601562 0.7206815,-0.597745 5.9903677,-4.569939 5.5029297,-4.835742 -0.03046,-0.01661 -0.08178,-0.01832 -0.153125,-0.0069 z m 6.2125,0 c -0.07134,-0.01149 -0.12266,-0.0098 -0.153125,0.0069 -0.487438,0.265804 4.782248,4.237998 5.50293,4.835742 0.72068,0.597746 1.700063,0.867367 2.1875,0.601563 0.487436,-0.265805 0.299588,-0.966317 -0.421094,-1.564063 -0.67564,-0.560387 -6.046074,-3.707792 -7.116211,-3.880078 z m -7.497657,2.660547 c -0.759946,0.155918 -3.3782865,2.560424 -3.9402339,3.234766 -0.5994107,0.719297 -0.6562948,1.442322 -0.1285158,1.614649 0.5277783,0.172324 1.4404341,-0.271915 2.0398441,-0.991212 0.5994106,-0.719296 2.6824676,-3.685878 2.1546876,-3.858203 -0.03298,-0.01077 -0.07512,-0.01039 -0.125782,0 z m 8.657032,0 c -0.52778,0.172325 1.555277,3.138907 2.154687,3.858203 0.59941,0.719297 1.512066,1.163536 2.039845,0.991212 0.527778,-0.172327 0.470894,-0.895352 -0.128516,-1.614649 -0.599411,-0.719298 -3.538238,-3.407091 -4.066016,-3.234766 z m -5.759961,0.01367 c -0.3662,-0.131997 -1.795703,3.848963 -2.147852,4.976563 -0.352148,1.127598 -0.341591,2.149836 0.02461,2.281836 0.366201,0.131997 0.948048,-0.675722 1.300196,-1.803321 0.352148,-1.127597 1.189249,-5.323081 0.823046,-5.455078 z m 2.988672,0 c -0.366202,0.131997 0.470899,4.327481 0.823047,5.455078 0.352147,1.127599 0.933995,1.935318 1.300195,1.803321 0.366201,-0.132 0.376758,-1.154238 0.02461,-2.281836 -0.352148,-1.1276 -1.781651,-5.108561 -2.147852,-4.976563 z m -4.313477,0.300782 c -0.38801,-0.172326 -2.822803,3.6516 -3.2634762,4.370898 -0.4406738,0.719297 -0.4837147,1.440955 -0.095703,1.613281 0.3880102,0.172325 1.0604992,-0.270547 1.5011712,-0.989843 0.440674,-0.719297 2.246021,-4.822012 1.858008,-4.994336 z m 5.638282,0 c -0.388013,0.172324 1.417334,4.275039 1.858008,4.994336 0.440672,0.719296 1.113161,1.162168 1.501171,0.989843 0.388012,-0.172326 0.344971,-0.893984 -0.0957,-1.613281 -0.440673,-0.719298 -2.875466,-4.543224 -3.263476,-4.370898 z"/>
 <path style="fill:#b5b78d" d="M 4.3296874,4.0014296 C 3.45598,3.9811405 2.6628854,4.3534404 2.2597656,5.0705703 1.6147741,6.2179781 2.210389,7.9106313 3.5886717,8.7279296 4.9669544,9.5452279 12.025907,12.935103 12.670899,11.787695 13.315891,10.640288 7.3021107,5.2904077 5.9238281,4.4731093 5.4069718,4.1666224 4.8539118,4.0136031 4.3296874,4.0014296 Z m 23.3406246,0 c -0.524224,0.012174 -1.077284,0.1651928 -1.59414,0.4716797 -1.378283,0.8172984 -7.392063,6.1671787 -6.747071,7.3145857 0.644992,1.147408 7.703945,-2.2424671 9.082227,-3.0597654 C 29.789611,7.9106313 30.385226,6.2179781 29.740234,5.0705703 29.337115,4.3534404 28.54402,3.9811405 27.670312,4.0014296 Z M 4.7972656,10.719922 c -1.0810528,-0.06051 -2.0236097,0.487744 -2.2121094,1.350781 -0.2154284,0.986326 0.6356128,2.009404 1.9017578,2.284571 1.2661445,0.275164 8.095704,0.552928 8.311133,-0.433399 C 13.013475,12.935546 6.5337228,11.059345 5.2675781,10.78418 5.1093099,10.74978 4.9517017,10.72857 4.7972656,10.71992 Z m 22.4054684,0 c -0.154436,0.0086 -0.312044,0.02986 -0.470312,0.06426 -1.266145,0.275165 -7.745897,2.151366 -7.530469,3.137695 0.215429,0.986327 7.044989,0.708563 8.311133,0.433399 1.266145,-0.275167 2.117185,-1.298245 1.901757,-2.284571 -0.188499,-0.863037 -1.131056,-1.411288 -2.212109,-1.350781 z M 8.7730466,15.284961 c -1.997212,-4.29e-4 -4.1261475,0.138651 -4.7523435,0.23789 -1.2523925,0.198482 -2.1011074,1.106578 -1.8962891,2.028907 0.2048175,0.922327 1.3862798,1.509614 2.6386718,1.311133 1.252392,-0.198482 8.1796232,-2.054038 7.9748052,-2.976367 -0.10241,-0.461165 -1.967632,-0.601134 -3.9648444,-0.601563 z m 14.4539064,0 c -1.997212,4.29e-4 -3.862435,0.140398 -3.964844,0.601563 -0.204818,0.922329 6.722413,2.777885 7.974805,2.976367 1.252391,0.198481 2.433854,-0.388806 2.638672,-1.311133 0.204818,-0.922329 -0.643896,-1.830425 -1.896289,-2.028907 -0.626196,-0.09924 -2.755132,-0.238319 -4.752344,-0.23789 z m -11.004492,2.607226 c -1.631133,0.105241 -6.8189113,1.856287 -7.7697268,2.305079 -1.0866453,0.512904 -1.5450423,1.32277 -1.0240234,1.808789 0.5210174,0.486016 1.8240969,0.465053 2.9107424,-0.04785 1.0866457,-0.512904 6.8620348,-3.515741 6.3410148,-4.001758 -0.06513,-0.06075 -0.224988,-0.07929 -0.458007,-0.06426 z m 7.555078,0 c -0.233019,-0.01504 -0.392881,0.0035 -0.458007,0.06426 -0.52102,0.486017 5.254369,3.488855 6.341015,4.001758 1.086645,0.512905 2.389725,0.533868 2.910742,0.04785 0.521019,-0.486018 0.06262,-1.295884 -1.024023,-1.808788 C 26.59645,19.748477 21.408672,17.99743 19.777539,17.89219 Z M 12.89375,19.55332 c -1.070137,0.172286 -6.4405713,3.319692 -7.116211,3.880079 -0.7206815,0.597745 -0.9085304,1.298257 -0.4210938,1.564062 0.4874363,0.265804 1.4668193,-0.0038 2.1875001,-0.601562 0.7206815,-0.597745 5.9903677,-4.569939 5.5029297,-4.835742 -0.03046,-0.01661 -0.08178,-0.01832 -0.153125,-0.0069 z m 6.2125,0 c -0.07134,-0.01149 -0.12266,-0.0098 -0.153125,0.0069 -0.487438,0.265804 4.782248,4.237998 5.50293,4.835742 0.72068,0.597746 1.700063,0.867367 2.1875,0.601563 0.487436,-0.265805 0.299588,-0.966317 -0.421094,-1.564063 -0.67564,-0.560387 -6.046074,-3.707792 -7.116211,-3.880078 z m -7.497657,2.660547 c -0.759946,0.155918 -3.3782865,2.560424 -3.9402339,3.234766 -0.5994107,0.719297 -0.6562948,1.442322 -0.1285158,1.614649 0.5277783,0.172324 1.4404341,-0.271915 2.0398441,-0.991212 0.5994106,-0.719296 2.6824676,-3.685878 2.1546876,-3.858203 -0.03298,-0.01077 -0.07512,-0.01039 -0.125782,0 z m 8.657032,0 c -0.52778,0.172325 1.555277,3.138907 2.154687,3.858203 0.59941,0.719297 1.512066,1.163536 2.039845,0.991212 0.527778,-0.172327 0.470894,-0.895352 -0.128516,-1.614649 -0.599411,-0.719298 -3.538238,-3.407091 -4.066016,-3.234766 z m -5.759961,0.01367 c -0.3662,-0.131997 -1.795703,3.848963 -2.147852,4.976563 -0.352148,1.127598 -0.341591,2.149836 0.02461,2.281836 0.366201,0.131997 0.948048,-0.675722 1.300196,-1.803321 0.352148,-1.127597 1.189249,-5.323081 0.823046,-5.455078 z m 2.988672,0 c -0.366202,0.131997 0.470899,4.327481 0.823047,5.455078 0.352147,1.127599 0.933995,1.935318 1.300195,1.803321 0.366201,-0.132 0.376758,-1.154238 0.02461,-2.281836 -0.352148,-1.1276 -1.781651,-5.108561 -2.147852,-4.976563 z m -4.313477,0.300782 c -0.38801,-0.172326 -2.822803,3.6516 -3.2634762,4.370898 -0.4406738,0.719297 -0.4837147,1.440955 -0.095703,1.613281 0.3880102,0.172325 1.0604992,-0.270547 1.5011712,-0.989843 0.440674,-0.719297 2.246021,-4.822012 1.858008,-4.994336 z m 5.638282,0 c -0.388013,0.172324 1.417334,4.275039 1.858008,4.994336 0.440672,0.719296 1.113161,1.162168 1.501171,0.989843 0.388012,-0.172326 0.344971,-0.893984 -0.0957,-1.613281 -0.440673,-0.719298 -2.875466,-4.543224 -3.263476,-4.370898 z"/>
 <path style="opacity:0.2" d="M 8.6992188,11 C 8.3114188,11 8,11.3345 8,11.75 v 1.5 C 8,13.6655 8.3114188,14 8.6992188,14 H 10 v 9.300781 C 10,23.688581 10.3345,24 10.75,24 h 1.5 C 12.6655,24 13,23.688581 13,23.300781 V 14 h 1.300781 C 14.688581,14 15,13.6655 15,13.25 v -1.5 C 15,11.3345 14.688581,11 14.300781,11 Z m 9.7011722,0 C 17.624791,11 17,11.624791 17,12.400391 V 22.599609 C 17,23.375209 17.624791,24 18.400391,24 h 4.199218 C 23.375209,24 24,23.375209 24,22.599609 V 18 h -2.800781 v 2.849609 c 0,0.5817 -0.311419,1.050782 -0.699219,1.050782 -0.3878,0 -0.699219,-0.469082 -0.699219,-1.050782 v -3.289062 -1.121094 -2.289062 c 0,-0.5817 0.311419,-1.050782 0.699219,-1.050782 0.3878,0 0.699219,0.469082 0.699219,1.050782 V 16 H 24 V 12.400391 C 24,11.624791 23.375209,11 22.599609,11 Z"/>
 <rect style="fill:#8b9cbe" width="3" height="12.6" x="10" y="10.4" rx=".75" ry=".7"/>
 <rect style="fill:#8b9cbe" width="3" height="7" x="10" y="-15" rx=".75" ry=".7" transform="rotate(90)"/>
 <path style="fill:#8b9cbe" d="M 18.4,10 C 17.6244,10 17,10.6244 17,11.4 v 10.2 c 0,0.7756 0.6244,1.4 1.4,1.4 h 4.2 C 23.3756,23 24,22.3756 24,21.6 V 17 h -2.8 v 2.85 c 0,0.5817 -0.3122,1.05 -0.7,1.05 -0.3878,0 -0.7,-0.4683 -0.7,-1.05 V 16.560547 15.439453 13.15 c 0,-0.5817 0.3122,-1.05 0.7,-1.05 0.3878,0 0.7,0.4683 0.7,1.05 V 15 H 24 V 11.4 C 24,10.6244 23.3756,10 22.6,10 Z"/>
</svg>
