<svg xmlns="http://www.w3.org/2000/svg" width="32" height="32" version="1.1">
 <rect style="opacity:0.2" width="20" height="14" x="-28" y="-23" rx="1.25" ry="1.25" transform="matrix(0,-1,-1,0,0,0)"/>
 <rect style="fill:#8e8e8e" width="20" height="14" x="-27" y="-23" rx="1.25" ry="1.25" transform="matrix(0,-1,-1,0,0,0)"/>
 <rect style="opacity:0.2" width="18.75" height="26" x="-26" y="-29" rx="1.25" ry="1.25" transform="matrix(0,-1,-1,0,0,0)"/>
 <rect style="fill:#4f4f4f" width="19" height="26" x="-25" y="-29" rx="1.25" ry="1.25" transform="matrix(0,-1,-1,0,0,0)"/>
 <rect style="fill:#333333" width="17" height="24" x="-24" y="-28" rx="0" ry="0" transform="matrix(0,-1,-1,0,0,0)"/>
 <path style="opacity:0.1;fill:#8b9cbe" d="M 4.25,6 C 3.5575,6 3,6.5575 3,7.25 V 8.25 C 3,7.5575 3.5575,7 4.25,7 H 27.75 C 28.442,7 29,7.5575 29,8.25 V 7.25 C 29,6.5575 28.442,6 27.75,6 Z"/>
 <rect style="opacity:0.1;fill:#8b9cbe" width="24" height="1" x="4" y="24"/>
</svg>
