<svg xmlns="http://www.w3.org/2000/svg" width="32" height="32" version="1.1">
 <path style="opacity:.2" d="m16 7c-3.883 0-7.1901 2.3053-8.6133 5.568-3.6147 0.521-6.3867 3.509-6.3867 7.159 0 4.017 3.3579 7.273 7.5 7.273h15.938c3.624 0 6.562-2.849 6.562-6.364 0-3.266-2.533-5.943-5.801-6.306-0.852-4.17-4.649-7.33-9.199-7.33z"/>
 <path style="fill:#b2bfd9" d="m16 6c-3.883 0-7.1901 2.3053-8.6133 5.568-3.6147 0.521-6.3867 3.509-6.3867 7.159 0 4.017 3.3579 7.273 7.5 7.273h15.938c3.624 0 6.562-2.849 6.562-6.364 0-3.266-2.533-5.943-5.801-6.306-0.852-4.1703-4.649-7.33-9.199-7.33z"/>
 <path style="opacity:.5" d="m14 12h4c2 0 2 2 2 2v8h-2v-3h-4v3h-2v-8c0-2 2-2 2-2zm0 2v3h4v-3z"/>
 <path style="opacity:.2;fill:#8b9cbe" d="m16 6c-3.883 0-7.1901 2.3057-8.6133 5.568-3.6147 0.521-6.3867 3.509-6.3867 7.159 0 0.158 0.0151 0.313 0.0254 0.468 0.2546-3.404 2.9242-6.131 6.3613-6.627 1.4232-3.2623 4.7303-5.568 8.6133-5.568 4.55 0 8.347 3.16 9.199 7.33 3.095 0.344 5.526 2.764 5.776 5.793 0.012-0.161 0.025-0.322 0.025-0.486 0-3.266-2.533-5.944-5.801-6.307-0.852-4.1702-4.649-7.33-9.199-7.33z"/>
</svg>
