<svg xmlns="http://www.w3.org/2000/svg" width="32" height="32" x="0" y="0" version="1.1" xml:space="preserve">
 <path style="opacity:0.2" d="m 27.999999,3.0000005 -6.998046,2.9902343 0,1.2324218 c -0.0013,-5.043e-4 -0.0026,-0.00145 -0.0039,-0.00195 l 0,0.6523436 c 4.4e-5,0.00922 0.002,0.018109 0.002,0.027341 l 0,11.5996083 c 0,1.584877 -0.59722,3.005647 -1.640625,4.021485 -0.0037,0.0035 -0.0061,0.0082 -0.0098,0.01171 -0.02827,0.0272 -0.05906,0.05166 -0.08789,0.07813 -0.09655,0.08861 -0.194164,0.175547 -0.296875,0.25586 -0.94912,0.74213 -2.149793,1.132812 -3.464844,1.132812 -3.077778,0 -5.4999996,-2.397601 -5.4999996,-5.500001 l 0,-1.726561 0,-6.59375 -6.9999996,3.111327 0,4.265625 c 0,1.832216 0.2440211,3.511267 0.7304687,5.029297 0.482662,1.518029 1.2315572,2.825126 2.2460937,3.921874 0.8593278,0.930947 1.9195375,1.685693 3.1738278,2.271485 l 0.2402345,0.07422 c 0.1402565,0.07718 0.2788745,0.1557 0.4433594,0.220703 1.5590301,0.616116 3.4120461,0.925781 5.5546881,0.925781 l -0.0039,-0.0078 c 2.178604,0 4.058431,-0.296534 5.646483,-0.900391 1.588683,-0.599341 2.894208,-1.447528 3.925781,-2.544922 1.027156,-1.093523 1.79195,-2.410474 2.291017,-3.941406 0.499065,-1.530932 0.749999,-3.21534 0.749999,-5.050781 l 0,-0.324219 c 3.2e-5,-0.0028 0.002,-0.005 0.002,-0.0078 l 0,-15.2226557 z"/>
 <path style="fill:#2165b0" d="m 28,2.0000014 -6.998644,2.990039 0,11.7496096 C 21.009035,19.27063 28,19.057337 28,17.222267 Z"/>
 <path style="fill:#2165b0" d="m 9.9999999,10.179884 -7,3.111719 0,4.265624 c 0,1.832217 0.2432616,3.510486 0.7297092,5.028516 0.4826621,1.51803 1.2315571,2.824345 2.2460936,3.921094 0.8593278,0.930946 1.9195382,1.686472 3.1738285,2.272265 l 1.7745948,0.546367 c 5.704875,-0.59547 7.735677,-5.242718 8.383011,-6.502044 l 0.0027,0 0.166829,-0.408788 C 18.469209,23.454742 17.062798,24 15.5,24 12.422222,24 9.9999999,21.602779 9.9999999,18.500379 l 0,-1.726758 z"/>
 <path style="fill:#7ec183" d="m 20.998644,6.2205092 0,0.6521487 c 4.3e-5,0.00922 0.0014,0.018109 0.0014,0.027342 l 0,11.6003771 c 0,1.590409 -0.600538,3.016667 -1.650715,4.033204 0.04176,-0.04051 0.087,-0.07715 0.127495,-0.118946 l -0.16683,0.408789 -0.0027,0 c -0.647335,1.259326 -3.629434,5.338332 -9.3343095,5.933802 l -0.7392042,0.01914 c 0.1817813,0.108204 0.3769972,0.210115 0.5995014,0.298047 1.5590303,0.616114 3.4129143,0.925586 5.5555553,0.925586 l -0.0041,-0.0082 c 2.178604,0 4.058378,-0.295752 5.646431,-0.899609 1.588683,-0.599341 2.893665,-1.448309 3.925238,-2.545704 1.027155,-1.093523 1.793143,-2.409302 2.292209,-3.940234 0.499066,-1.530932 0.748698,-3.216316 0.748698,-5.051758 l 0,-2.1875 C 27.537366,11.190961 23.822689,7.3469345 20.998644,6.2205092 Z M 19.304525,22.575965 c -0.134675,0.127522 -0.275045,0.248643 -0.421821,0.362304 0.146796,-0.113793 0.287189,-0.234568 0.421821,-0.362304 z"/>
 <path style="opacity:0.1;fill:#8b9cbe" d="m 20.998047,6.2207031 0,0.6523438 c 4.4e-5,0.00922 0.002,0.018111 0.002,0.027344 l 0,0.3203125 c 2.823859,1.1271957 6.538208,4.9712086 6.998047,9.1464846 l 0,-1 c -0.45993,-4.176028 -4.175954,-8.0200593 -7,-9.1464846 z M 21,18.5 c 0,1.590409 -0.600213,3.016667 -1.650391,4.033203 0.04176,-0.04051 0.08646,-0.07734 0.126953,-0.119141 l -0.166015,0.410157 -0.0039,0 c -0.647335,1.259326 -3.629109,5.338124 -9.3339848,5.933593 l -0.7382812,0.01758 c 0.1817813,0.108204 0.3771052,0.210897 0.5996094,0.298828 0.4662206,0.184246 0.9675336,0.331612 1.4863276,0.460937 4.826625,-1.033427 7.392261,-4.555238 7.986329,-5.710937 l 0.0039,0 0.166015,-0.410157 c -0.04049,0.0418 -0.08519,0.07863 -0.126953,0.119141 C 20.399787,22.516667 21,21.090409 21,19.5 l 0,-1 z m -1.695312,4.076172 c -0.134676,0.127522 -0.2751,0.247666 -0.421876,0.361328 0.146796,-0.113793 0.287244,-0.233592 0.421876,-0.361328 z"/>
 <path style="fill:#8b9cbe;opacity:0.1" d="M 28 2 L 21.001953 4.9902344 L 21.001953 5.9902344 L 28 3 L 28 2 z M 10 10.179688 L 3 13.291016 L 3 14.291016 L 10 11.179688 L 10 10.179688 z M 10 18.5 L 10 19.5 C 10 22.6024 12.422222 25 15.5 25 C 16.659662 25 17.732719 24.69901 18.621094 24.119141 C 18.933307 23.576947 19.160876 23.107789 19.306641 22.824219 L 19.310547 22.824219 L 19.476562 22.414062 C 18.469003 23.454169 17.062798 24 15.5 24 C 12.422222 24 10 21.6024 10 18.5 z"/>
</svg>
