<svg xmlns="http://www.w3.org/2000/svg" width="32" height="32" version="1">
 <circle style="opacity:0.2" cx="16" cy="17" r="14"/>
 <circle style="fill:#a43b84" cx="16" cy="16" r="14"/>
 <path style="opacity:0.2" d="M 10,10 V 18.4 C 10,18.4 10,24 14.5,24 H 22 V 10 H 19 V 20.5 H 15.25 C 13,20.5 13,17.7 13,17.7 V 10 Z"/>
 <path style="fill:#8b9cbe" d="M 10,9 V 17.4 C 10,17.4 10,23 14.5,23 H 22 V 9 H 19 V 19.5 H 15.25 C 13,19.5 13,16.7 13,16.7 V 9 Z"/>
 <path style="opacity:0.1;fill:#8b9cbe" d="M 16,2 A 14,14 0 0 0 2,16 14,14 0 0 0 2.0215,16.586 14,14 0 0 1 16,3 14,14 0 0 1 29.979,16.414 14,14 0 0 0 30,16 14,14 0 0 0 16,2 Z"/>
 <circle opacity=".2" cx="24" cy="24" r="8"/>
 <circle fill="#42a1cd" cx="24" cy="23" r="8"/>
 <path fill="#fff" d="m22.964 19-0.0882 1.0536a3.1429 3.1429 0 0 0 -0.91852 0.53126l-0.95759-0.4509-1 1.7321 0.86941 0.6038a3.1429 3.1429 0 0 0 -0.048 0.53013 3.1429 3.1429 0 0 0 0.0457 0.53237l-0.867 0.602 1 1.7321 0.95536-0.44978a3.1429 3.1429 0 0 0 0.92075 0.5279l0.0882 1.0558h2l0.0882-1.0536a3.1429 3.1429 0 0 0 0.91854 -0.53126l0.95758 0.4509 1-1.7321-0.86942-0.6038a3.1429 3.1429 0 0 0 0.048 -0.53013 3.1429 3.1429 0 0 0 -0.0457 -0.53237l0.86719-0.60156-1-1.7321-0.95536 0.44978a3.1429 3.1429 0 0 0 -0.921 -0.528l-0.088-1.056h-2zm1 2.8572a1.1429 1.1429 0 0 1 1.143 1.143 1.1429 1.1429 0 0 1 -1.143 1.143 1.1429 1.1429 0 0 1 -1.143 -1.143 1.1429 1.1429 0 0 1 1.143 -1.143z"/>
</svg>
