<svg xmlns="http://www.w3.org/2000/svg" width="32" height="32" version="1">
 <rect style="opacity:0.2" width="28" height="28" x="2" y="3" rx="8.4" ry="8.4"/>
 <rect style="fill:#653d32" width="28" height="28" x="2" y="2" rx="8.4" ry="8.4"/>
 <path style="opacity:0.2" d="m 10.5,6 h 11 c 3.094567,0 5.5,2.4054326 5.5,5.5 v 11 c 0,3.094567 -2.405433,5.5 -5.5,5.5 h -11 C 7.4054326,28 5,25.594567 5,22.5 v -11 C 5,8.4054326 7.4054326,6 10.5,6 Z"/>
 <path style="fill:#346f8a" d="m 10.5,5 h 11 c 3.094567,0 5.5,2.4054326 5.5,5.5 v 11 c 0,3.094567 -2.405433,5.5 -5.5,5.5 h -11 C 7.4054326,27 5,24.594567 5,21.5 v -11 C 5,7.4054326 7.4054326,5 10.5,5 Z"/>
 <path style="opacity:0.2" d="M 9.5703126,9 C 8.5054207,9 8,9.3592 8,10.492187 c 0,0.967186 0.4529153,1.493082 1.3580726,1.492187 h 0.21224 L 13.617188,23.673177 C 13.963278,24.667996 14.043463,25 15.214844,25 H 16 16.785156 c 1.171381,0 1.251566,-0.332004 1.597656,-1.326823 l 4.046875,-11.688803 h 0.212241 C 23.547085,11.985269 24,11.459373 24,10.492187 24,9.3592 23.494579,9 22.429687,9 h -3.78151 c -1.064891,0 -1.596354,0.386834 -1.596354,1.492187 0,1.105355 0.531463,1.492187 1.596354,1.492187 H 18.91536 L 16,21 13.08421,11.984374 h 0.298032 c 1.064891,0 1.595931,-0.386832 1.595931,-1.492187 C 14.97818,9.386834 14.446718,9 13.381827,9 Z"/>
 <path style="fill:#5fd6ff" d="M 9.5703126,8 C 8.5054207,8 8,8.3592 8,9.4921873 8,10.459373 8.4529153,10.985269 9.3580726,10.984374 h 0.21224 L 13.617188,22.673177 C 13.963278,23.667996 14.043463,24 15.214844,24 H 16 16.785156 c 1.171381,0 1.251566,-0.332004 1.597656,-1.326823 l 4.046875,-11.688803 h 0.212241 C 23.547085,10.985269 24,10.459373 24,9.4921873 24,8.3592 23.494579,8 22.429687,8 h -3.78151 c -1.064891,0 -1.596354,0.386834 -1.596354,1.4921873 0,1.1053547 0.531463,1.4921867 1.596354,1.4921867 H 18.91536 L 16,20 13.08421,10.984374 h 0.298032 c 1.064891,0 1.595931,-0.386832 1.595931,-1.4921867 C 14.97818,8.386834 14.446718,8 13.381827,8 Z"/>
 <path style="fill:#8b9cbe;opacity:0.1" d="M 10.400391 2 C 5.7467908 2 2 5.7467908 2 10.400391 L 2 11.400391 C 2 6.7467908 5.7467908 3 10.400391 3 L 21.599609 3 C 26.253209 3 30 6.7467908 30 11.400391 L 30 10.400391 C 30 5.7467908 26.253209 2 21.599609 2 L 10.400391 2 z"/>
 <path style="opacity:0.1;fill:#8b9cbe" d="M 10.5 5 C 7.4054326 5 5 7.4054326 5 10.5 L 5 11.5 C 5 8.4054326 7.4054326 6 10.5 6 L 21.5 6 C 24.594567 6 27 8.4054326 27 11.5 L 27 10.5 C 27 7.4054326 24.594567 5 21.5 5 L 10.5 5 z"/>
 <path style="fill:#8b9cbe;opacity:0.2" d="M 9.5703125 8 C 8.5054206 8 8 8.3592002 8 9.4921875 C 8 9.6624501 8.0305259 9.8009142 8.0585938 9.9433594 C 8.2138475 9.2458499 8.7046177 9 9.5703125 9 L 13.380859 9 C 14.262864 9 14.77454 9.2729803 14.925781 9.9921875 C 14.957122 9.8430578 14.978516 9.682023 14.978516 9.4921875 C 14.978523 8.3868342 14.44575 8 13.380859 8 L 9.5703125 8 z M 18.648438 8 C 17.583547 8 17.052734 8.3868342 17.052734 9.4921875 C 17.052734 9.6821421 17.074068 9.8429887 17.105469 9.9921875 C 17.256789 9.2731919 17.766547 9 18.648438 9 L 22.429688 9 C 23.295382 9 23.786152 9.2458499 23.941406 9.9433594 C 23.969474 9.8009142 24 9.6624501 24 9.4921875 C 24 8.3592002 23.49458 8 22.429688 8 L 18.648438 8 z M 18.59375 11.978516 L 16 20 L 13.40625 11.982422 C 13.397405 11.982476 13.391733 11.984375 13.382812 11.984375 L 13.083984 11.984375 L 16 21 L 18.916016 11.984375 L 18.648438 11.984375 C 18.627626 11.984375 18.614154 11.978814 18.59375 11.978516 z"/>
</svg>
