<svg xmlns="http://www.w3.org/2000/svg" width="32" height="32" version="1">
 <path style="opacity:0.2" d="M 16,2 C 15.214,2 14.428,2.2929 13.84,2.8803 L 1.8802,14.842 C 0.70549,16.016 0.70715,17.982 1.8819,19.157 L 13.842,31.118 C 15.017,32.293 16.984,32.295 18.159,31.12 L 30.119,19.159 C 31.294,17.984 31.294,16.016 30.119,14.842 L 18.159,2.8803 C 17.572,2.2929 16.785,2 16,2 Z"/>
 <path style="fill:#a42a2a" d="M 16,1 C 15.214,1 14.428,1.2929 13.84,1.8802 L 1.8802,13.842 C 0.70549,15.016 0.70715,16.982 1.8819,18.157 L 13.842,30.118 C 15.017,31.293 16.984,31.294 18.159,30.12 L 30.119,18.159 C 31.294,16.984 31.294,15.016 30.119,13.842 L 18.159,1.8802 C 17.572,1.2929 16.785,1 16,1 Z"/>
 <path style="opacity:0.2;fill:#8b9cbe" d="M 16,1 C 15.214,1 14.427,1.2935 13.84,1.8809 L 1.8809,13.842 C 1.1678,14.555 0.89376,15.558 1.0469,16.5 1.1451,15.889 1.4188,15.304 1.8809,14.842 L 13.84,2.8809 C 14.427,2.2935 15.214,2 16,2 16.786,2 17.571,2.2935 18.158,2.8809 L 30.119,14.842 C 30.581,15.304 30.855,15.889 30.953,16.5 31.105,15.558 30.832,14.554 30.119,13.842 L 18.158,1.8809 C 17.571,1.2935 16.786,1 16,1 Z"/>
 <path style="opacity:0.2" d="M 4.5,4.9998 C 3.669,4.9998 3,5.6688 3,6.4998 3,7.3308 3.669,7.9998 4.5,7.9998 H 5 V 25 C 5.0011,27.672 8.2311,29.01 10.121,27.121 L 29.539,7.5818 C 29.823,7.3092 30,6.9263 30,6.4998 30,5.6688 29.331,4.9998 28.5,4.9998 H 21.5 C 20.669,4.9998 20,5.6688 20,6.4998 20,7.1121 20.365,7.6354 20.889,7.8689 L 11,17.758 V 7.9998 H 11.5 C 12.331,7.9998 13,7.3308 13,6.4998 13,5.6688 12.331,4.9998 11.5,4.9998 Z"/>
 <path style="fill:#b2bfd9" d="M 4.5,4 C 3.669,4 3,4.669 3,5.5 3,6.331 3.669,7 4.5,7 H 5 V 24 C 5.0011,26.672 8.2311,28.01 10.121,26.121 L 29.539,6.582 C 29.823,6.3094 30,5.9265 30,5.5 30,4.669 29.331,4 28.5,4 H 21.5 C 20.669,4 20,4.669 20,5.5 20,6.1123 20.365,6.6356 20.889,6.8691 L 11,16.758 V 7 H 11.5 C 12.331,7 13,6.331 13,5.5 13,4.669 12.331,4 11.5,4 Z"/>
 <path style="opacity:0.1;fill:#8b9cbe" d="M 4.5,4 C 3.669,4 3,4.669 3,5.5 3,5.6768 3.0361,5.8428 3.0918,6 3.2975,5.4174 3.8453,5 4.5,5 H 11.5 C 12.155,5 12.703,5.4174 12.908,6 12.964,5.8428 13,5.6768 13,5.5 13,4.669 12.331,4 11.5,4 Z M 21.5,4 C 20.669,4 20,4.669 20,5.5 20,5.6762 20.036,5.8414 20.092,5.998 20.298,5.4164 20.846,5 21.5,5 H 28.5 C 29.155,5 29.703,5.4174 29.908,6 29.964,5.8431 30,5.6765 30,5.5 30,4.669 29.331,4 28.5,4 Z M 20.334,7.4238 11,16.758 V 17.758 L 20.889,7.8691 C 20.667,7.7703 20.483,7.6112 20.334,7.4238 Z"/>
</svg>
