<svg width="32" height="32" version="1.1" xmlns="http://www.w3.org/2000/svg">
 <rect x="2" y="3" width="28" height="28" rx="3" ry="3" style="opacity:.2"/>
 <rect x="2" y="2" width="28" height="28" rx="3" ry="3" style="fill:#1ab7ea"/>
 <path d="m7 14-2-2s5-4 7-4 4 11 4 11 4-2 4-5c0-0.471405 0-1-1-1h-2s2-5 6-5c3 0 3 4 3 4s-6 14-12 14c-2 0-3-8.391335-5.016907-12.442057-0.148573-0.298391-0.371962-0.557943-0.983093-0.557943-0.611131 0.64248-1 1-1 1z" style="opacity:.2"/>
 <path d="m7 13-2-2s5-4 7-4 4 11 4 11 4-2 4-5c0-0.471405 0-1-1-1h-2s2-5 6-5c3 0 3 4 3 4s-6 14-12 14c-2 0-3-8.391335-5.0169074-12.442057-0.1485729-0.298391-0.3719619-0.557943-0.9830926-0.557943-0.6111307 0.64248-1 1-1 1z" style="fill:#8b9cbe"/>
 <path d="m5 2c-1.662 0-3 1.338-3 3v1c0-1.662 1.338-3 3-3h22c1.662 0 3 1.338 3 3v-1c0-1.662-1.338-3-3-3h-22z" style="fill:#8b9cbe;opacity:.2"/>
</svg>
