<svg xmlns="http://www.w3.org/2000/svg" width="32" height="32" version="1">
 <rect style="opacity:0.2" width="28" height="28" x="2" y="3" rx="8.4" ry="8.4"/>
 <rect style="fill:#ef3939" width="28" height="28" x="2" y="2" rx="8.4" ry="8.4"/>
 <circle style="opacity:0.2" cx="16" cy="17" r="10"/>
 <circle style="fill:#8b9cbe" cx="16" cy="16" r="10"/>
 <path style="fill:#cc2626" d="m 20.606781,10.000279 c -0.26067,1.95e-4 -0.524605,0.05481 -0.735869,0.16115 -0.308726,0.155403 -0.619469,0.4846 -0.757319,0.802289 -0.146494,0.337617 -0.167533,0.932805 -0.04412,1.249175 0.0522,0.133783 0.142284,0.363657 0.200149,0.510823 0.130678,0.332357 0.177716,0.763179 0.09486,1.173782 -0.0933,0.46233 -0.383115,0.996404 -0.72287,1.332114 -1.019556,1.007274 -2.760593,1.024921 -3.773216,0.04089 -0.349424,-0.339573 -0.398982,-0.120437 -1.976352,-2.935276 -0.535165,-0.955746 -1.01544,-1.755918 -1.115106,-1.859328 -0.313443,-0.331687 -0.749303,-0.450273 -1.148401,-0.45225 -0.8579956,-0.01392 -1.4526715,0.657418 -1.593793,1.378067 -0.104238,0.576707 -0.1521861,0.477427 2.619416,5.416196 1.749431,3.117326 2.580922,4.554332 2.717278,4.695576 0.482955,0.500404 1.37061,0.624439 2.014468,0.32717 0.169289,-0.07817 0.360929,-0.218642 0.483346,-0.354304 0.239784,-0.265724 4.998337,-9.068287 5.078793,-9.371104 0.08433,-0.317366 0.06338,-0.768267 -0.05009,-1.080332 -0.141166,-0.388158 -0.330566,-0.786409 -0.714649,-0.935418 -0.172401,-0.06688 -0.373178,-0.09966 -0.575918,-0.0995 z"/>
 <path style="fill:#8b9cbe;opacity:0.2" d="M 10.400391 2 C 5.7467908 2 2 5.7467908 2 10.400391 L 2 11.400391 C 2 6.7467908 5.7467908 3 10.400391 3 L 21.599609 3 C 26.253209 3 30 6.7467908 30 11.400391 L 30 10.400391 C 30 5.7467908 26.253209 2 21.599609 2 L 10.400391 2 z"/>
</svg>
