<svg xmlns="http://www.w3.org/2000/svg" width="32" height="32" version="1">
 <path style="opacity:0.2" d="M 14.784717,30.946147 C 14.220821,30.896517 13.448172,30.791552 13.067721,30.712809 11.671503,30.423849 9.6190742,29.589807 8.5274159,28.867764 L 8.0967508,28.582913 5.5127721,29.566298 C 3.4715226,30.343136 3.1132102,30.020913 3.0392279,29.531088 3.0204329,29.406621 3.0326092,28.382603 3.426843,27.363706 L 4.3886227,24.877988 4.1024067,24.445717 C 3.2851638,23.211439 2.4750062,21.117944 2.1835865,19.487368 1.9408489,18.129188 1.9384689,15.774999 2.1785465,14.497203 3.2619252,8.7308703 7.7238965,4.2711173 13.495824,3.1855518 c 1.31542,-0.2473982 3.668157,-0.2473982 4.983578,0 5.025725,0.9452218 9.170119,4.5176675 10.788573,9.2996932 0.725979,2.14504 0.931194,4.857259 0.529105,6.992883 -0.963942,5.119804 -4.642109,9.302493 -9.54658,10.856044 -1.799876,0.570136 -3.621913,0.77413 -5.465778,0.611961 z"/>
 <path style="fill:#3792e1" d="M 14.784717,29.946145 C 14.220821,29.896515 13.448172,29.79155 13.067721,29.712807 11.671503,29.423847 9.6190742,28.589805 8.5274159,27.867762 L 8.0967508,27.582911 5.5127721,28.566296 C 3.4715226,29.343134 3.1132102,29.020911 3.0392279,28.531086 3.0204329,28.406619 3.0326092,27.382601 3.426843,26.363704 L 4.3886227,23.877986 4.1024067,23.445715 C 3.2851638,22.211437 2.4750062,20.117942 2.1835865,18.487366 1.9408489,17.129186 1.9384689,14.774997 2.1785465,13.497201 3.2619252,7.7308685 7.7238965,3.2711155 13.495824,2.18555 c 1.31542,-0.2473982 3.668157,-0.2473982 4.983578,0 5.025725,0.9452218 9.170119,4.5176675 10.788573,9.299693 0.725979,2.14504 0.931194,4.857259 0.529105,6.992883 -0.963942,5.119804 -4.642109,9.302493 -9.54658,10.856044 -1.799876,0.570136 -3.621913,0.77413 -5.465778,0.611961 z"/>
 <path style="opacity:0.2" d="m 16.570549,22.844693 c 0.212275,-0.0876 0.392092,-0.198916 0.399593,-0.247345 0.0075,-0.04844 0.04506,-0.602362 0.08347,-1.230948 0.05626,-0.920791 0.107744,-1.166407 0.264922,-1.263895 0.339312,-0.210465 1.154143,0.334254 2.449114,1.637234 l 1.201845,1.209283 1.37548,0.03622 c 1.305643,0.03439 1.384046,0.02412 1.544346,-0.201973 0.337126,-0.475438 -0.04875,-1.129221 -1.813209,-3.071782 -0.747031,-0.82245 -1.113986,-1.309274 -1.080959,-1.434039 0.0275,-0.103893 0.42703,-0.752876 0.88783,-1.442187 1.594249,-2.384845 2.03664,-3.456794 1.535866,-3.721527 -0.28881,-0.152679 -2.26364,-0.145467 -2.608016,0.0096 -0.184821,0.08318 -0.424891,0.432089 -0.737525,1.071865 -0.617247,1.263174 -1.80652,3.016253 -2.296759,3.385614 -0.306022,0.23057 -0.436639,0.271755 -0.579711,0.18279 -0.15891,-0.09882 -0.192451,-0.424486 -0.240333,-2.333496 -0.04537,-1.809245 -0.08644,-2.238134 -0.222587,-2.324263 -0.09292,-0.05885 -0.514015,-0.09348 -1.436569,-0.07825 -1.246118,0.02058 -1.946404,0.04917 -2.030694,0.277002 -0.05098,0.137789 0.247465,0.348449 0.43289,0.674284 0.302495,0.531567 0.305962,0.560235 0.305962,2.531218 0,1.763248 -0.02154,2.001724 -0.186426,2.064217 -0.494139,0.187311 -2.554717,-2.351747 -3.321214,-4.452534 -0.370445,-1.015312 -0.5563618,-1.121775 -1.9590357,-1.121775 -1.0011351,0 -1.1826817,0.02874 -1.3738431,0.217587 -0.2586791,0.255518 -0.227283,0.530421 0.194861,1.706282 0.6581091,1.833115 2.2466525,4.500788 3.4353518,5.769053 1.04612,1.116138 2.639664,2.021251 3.935434,2.235274 0.63166,0.104321 1.478027,0.06596 1.839919,-0.08341 z"/>
 <path style="fill:#8b9cbe" d="m 16.570549,21.844691 c 0.212275,-0.0876 0.392092,-0.198916 0.399593,-0.247345 0.0075,-0.04844 0.04506,-0.602362 0.08347,-1.230948 0.05626,-0.920791 0.107744,-1.166407 0.264922,-1.263895 0.339312,-0.210465 1.154143,0.334254 2.449114,1.637234 l 1.201845,1.209283 1.37548,0.03622 c 1.305643,0.03439 1.384046,0.02412 1.544346,-0.201973 0.337126,-0.475438 -0.04875,-1.129221 -1.813209,-3.071782 -0.747031,-0.82245 -1.113986,-1.309274 -1.080959,-1.434039 0.0275,-0.103893 0.42703,-0.752876 0.88783,-1.442187 1.594249,-2.384845 2.03664,-3.456794 1.535866,-3.721527 -0.28881,-0.152679 -2.26364,-0.145467 -2.608016,0.0096 -0.184821,0.08318 -0.424891,0.432089 -0.737525,1.071865 -0.617247,1.263174 -1.80652,3.016253 -2.296759,3.385614 -0.306022,0.23057 -0.436639,0.271755 -0.579711,0.18279 -0.15891,-0.09882 -0.192451,-0.424486 -0.240333,-2.333496 -0.04537,-1.809245 -0.08644,-2.238134 -0.222587,-2.324263 -0.09292,-0.05885 -0.514015,-0.09348 -1.436569,-0.07825 -1.246118,0.02058 -1.946404,0.04917 -2.030694,0.277002 -0.05098,0.137789 0.247465,0.348449 0.43289,0.674284 0.302495,0.531567 0.305962,0.560235 0.305962,2.531218 0,1.763248 -0.02154,2.001724 -0.186426,2.064217 -0.494139,0.187311 -2.554717,-2.351747 -3.321214,-4.452534 -0.370445,-1.015312 -0.5563618,-1.121775 -1.9590357,-1.121775 -1.0011351,0 -1.1826817,0.02874 -1.3738431,0.217587 -0.2586791,0.255518 -0.227283,0.530421 0.194861,1.706282 0.6581091,1.833115 2.2466525,4.500788 3.4353518,5.769053 1.04612,1.116138 2.639664,2.021251 3.935434,2.235274 0.63166,0.104321 1.478027,0.06596 1.839919,-0.08341 z"/>
 <path style="fill:#8b9cbe;opacity:0.2" d="M 15.988281 2 C 15.071242 2 14.153804 2.0618478 13.496094 2.1855469 C 7.7241662 3.2711124 3.2611131 7.7317144 2.1777344 13.498047 C 2.0363578 14.250514 1.9912256 15.367559 2.0175781 16.443359 C 2.0357251 15.714588 2.0810037 15.012889 2.1777344 14.498047 C 3.2611131 8.7317142 7.7241662 4.2711124 13.496094 3.1855469 C 14.811514 2.9381487 17.163095 2.9381487 18.478516 3.1855469 C 23.504241 4.1307687 27.649124 7.7023493 29.267578 12.484375 C 29.699655 13.761027 29.94338 15.238446 29.988281 16.675781 C 30.051181 14.941614 29.800768 13.059783 29.267578 11.484375 C 27.649124 6.7023495 23.504241 3.1307687 18.478516 2.1855469 C 17.820805 2.0618478 16.905321 2 15.988281 2 z M 4.1445312 24.509766 L 3.4277344 26.363281 C 3.0335006 27.382178 3.0202675 28.406783 3.0390625 28.53125 C 3.0489304 28.596584 3.0665402 28.657684 3.0898438 28.714844 C 3.14238 28.325743 3.2406918 27.846693 3.4277344 27.363281 L 4.3886719 24.878906 L 4.1445312 24.509766 z"/>
</svg>
