<svg xmlns="http://www.w3.org/2000/svg" width="32" height="32" version="1">
 <path style="opacity:0.2;fill-rule:evenodd" d="m 25.501953,10.970703 a 1.50015,1.50015 0 0 0 -1.496094,1.660156 c 0,0 0.140489,1.905573 -0.699218,3.746094 C 22.466933,18.217474 20.934141,20 16.5,20 12.06586,20 10.533067,18.217474 9.6933594,16.376953 8.8536516,14.536432 8.9941406,12.630859 8.9941406,12.630859 A 1.50015,1.50015 0 0 0 7.4609375,10.978516 1.50015,1.50015 0 0 0 6.0058594,12.369141 c 0,0 -0.2543595,2.594427 0.9589844,5.253906 C 8.0592066,20.021736 10.587826,22.461349 15,22.917969 L 15,27 9.5,27 C 8.6715729,27 8,27.671573 8,28.5 8,29.328427 8.6715729,30 9.5,30 l 14,0 C 24.328427,30 25,29.328427 25,28.5 25,27.671573 24.328427,27 23.5,27 l -5.5,0 0,-4.082031 c 4.412174,-0.45662 6.940793,-2.896233 8.035156,-5.294922 1.213344,-2.659479 0.958985,-5.253906 0.958985,-5.253906 a 1.50015,1.50015 0 0 0 -1.492188,-1.398438 z"/>
 <rect style="opacity:0.2" width="15" height="13" x="-19" y="-23" rx="6.25" ry="6.5" transform="matrix(0,-1,-1,0,0,0)"/>
 <path style="fill:#ca42ca;fill-rule:evenodd" d="M 25.501953 9.9707031 A 1.50015 1.50015 0 0 0 24.005859 11.630859 C 24.005859 11.630859 24.146348 13.536432 23.306641 15.376953 C 22.466933 17.217474 20.934141 19 16.5 19 C 12.06586 19 10.533067 17.217474 9.6933594 15.376953 C 8.8536516 13.536432 8.9941406 11.630859 8.9941406 11.630859 A 1.50015 1.50015 0 0 0 7.4609375 9.9785156 A 1.50015 1.50015 0 0 0 6.0058594 11.369141 C 6.0058594 11.369141 5.7514999 13.963568 6.9648438 16.623047 C 8.0592066 19.021736 10.587826 21.461349 15 21.917969 L 15 26 L 9.5 26 C 8.6715729 26 8 26.671573 8 27.5 C 8 28.328427 8.6715729 29 9.5 29 L 23.5 29 C 24.328427 29 25 28.328427 25 27.5 C 25 26.671573 24.328427 26 23.5 26 L 18 26 L 18 21.917969 C 22.412174 21.461349 24.940793 19.021736 26.035156 16.623047 C 27.2485 13.963568 26.994141 11.369141 26.994141 11.369141 A 1.50015 1.50015 0 0 0 25.501953 9.9707031 z"/>
 <rect style="fill:#8e8e8e" width="15" height="13" x="-18" y="-23" rx="6.25" ry="6.5" transform="matrix(0,-1,-1,0,0,0)"/>
 <path style="opacity:0.1;fill:#8b9cbe" d="M 16.5,3 C 12.899,3 10,5.787327 10,9.25 l 0,1 C 10,6.787327 12.899,4 16.5,4 20.101,4 23,6.787327 23,10.25 l 0,-1 C 23,5.787327 20.101,3 16.5,3 Z"/>
 <path style="opacity:0.1;fill:#8b9cbe;fill-rule:evenodd" d="M 25.501953 9.9707031 A 1.50015 1.50015 0 0 0 24.005859 11.630859 C 24.005859 11.630859 24.146348 13.536432 23.306641 15.376953 C 22.466933 17.217474 20.934141 19 16.5 19 C 12.06586 19 10.533067 17.217474 9.6933594 15.376953 C 8.8536516 13.536432 8.9941406 11.630859 8.9941406 11.630859 A 1.50015 1.50015 0 0 0 7.4609375 9.9785156 A 1.50015 1.50015 0 0 0 6.0058594 11.369141 C 6.0058594 11.369141 5.98954 11.793851 6.0058594 12.365234 A 1.50015 1.50015 0 0 1 7.4609375 10.978516 A 1.50015 1.50015 0 0 1 8.9941406 12.630859 C 8.9941406 12.630859 8.8536516 14.536432 9.6933594 16.376953 C 10.533067 18.217474 12.06586 20 16.5 20 C 20.934141 20 22.466933 18.217474 23.306641 16.376953 C 24.146348 14.536432 24.005859 12.630859 24.005859 12.630859 A 1.50015 1.50015 0 0 1 25.501953 10.970703 A 1.50015 1.50015 0 0 1 26.994141 12.367188 C 27.010592 11.794656 26.994141 11.369141 26.994141 11.369141 A 1.50015 1.50015 0 0 0 25.501953 9.9707031 z M 9.5 26 C 8.6715729 26 8 26.671573 8 27.5 C 8 27.676212 8.0359806 27.842935 8.0917969 28 C 8.2983894 27.418655 8.8477854 27 9.5 27 L 15 27 L 15 26 L 9.5 26 z M 18 26 L 18 27 L 23.5 27 C 24.152215 27 24.701611 27.418655 24.908203 28 C 24.964019 27.842935 25 27.676212 25 27.5 C 25 26.671573 24.328427 26 23.5 26 L 18 26 z"/>
</svg>
