<svg xmlns="http://www.w3.org/2000/svg" width="32" height="32" version="1.1">
 <path style="opacity:0.2" d="m 16.567662,3.0007761 a 2.9114649,2.7887773 0 0 0 -1.523818,0.372526 L 4.4555868,9.2291485 A 2.9114649,2.7887773 0 0 0 3,11.644032 v 11.711693 a 2.9114649,2.7887773 0 0 0 1.4555868,2.414883 l 10.5882572,5.855847 a 2.9114649,2.7887773 0 0 0 2.911174,0 L 28.544413,25.770608 A 2.9114649,2.7887773 0 0 0 30,23.355725 V 11.644032 A 2.9114649,2.7887773 0 0 0 28.544413,9.2291485 L 17.955018,3.3733021 a 2.9114649,2.7887773 0 0 0 -1.387356,-0.372526 z"/>
 <path style="fill:#17191e" d="M 16.567662,2.000776 A 2.9114649,2.7887773 0 0 0 15.043844,2.373302 L 4.4555868,8.2291484 A 2.9114649,2.7887773 0 0 0 3,10.644032 v 11.711693 a 2.9114649,2.7887773 0 0 0 1.4555868,2.414883 l 10.5882572,5.855847 a 2.9114649,2.7887773 0 0 0 2.911174,0 L 28.544413,24.770608 A 2.9114649,2.7887773 0 0 0 30,22.355725 V 10.644032 A 2.9114649,2.7887773 0 0 0 28.544413,8.2291484 L 17.955018,2.373302 A 2.9114649,2.7887773 0 0 0 16.567662,2.000776 Z"/>
 <path style="opacity:0.2" d="m 16.5,9.0000001 a 8.5000003,8.5000003 0 0 0 -4.919595,1.5771479 l 2.046141,2.046143 A 5.6666668,5.6666668 0 0 1 16.5,11.833334 5.6666668,5.6666668 0 0 1 22.166667,17.5 5.6666668,5.6666668 0 0 1 21.37671,20.373454 l 2.043375,2.043376 A 8.5000003,8.5000003 0 0 0 25,17.5 8.5000003,8.5000003 0 0 0 16.5,9.0000001 Z"/>
 <path style="fill:#d895d8" d="m 16.5,8 a 8.5000003,8.5000003 0 0 0 -4.919595,1.5771481 l 2.046141,2.0461429 A 5.6666668,5.6666668 0 0 1 16.5,10.833334 5.6666668,5.6666668 0 0 1 22.166667,16.5 5.6666668,5.6666668 0 0 1 21.37671,19.373454 l 2.043375,2.043376 A 8.5000003,8.5000003 0 0 0 25,16.5 8.5000003,8.5000003 0 0 0 16.5,8 Z"/>
 <path style="opacity:0.2" d="M 9.5799156,12.583171 A 8.5000003,8.5000003 0 0 0 8,17.5 8.5000003,8.5000003 0 0 0 16.5,26 8.5000003,8.5000003 0 0 0 21.419597,24.422852 L 19.373454,22.376709 A 5.6666668,5.6666668 0 0 1 16.5,23.166667 5.6666668,5.6666668 0 0 1 10.833334,17.5 5.6666668,5.6666668 0 0 1 11.623291,14.626546 Z"/>
 <path style="fill:#9e4174" d="M 9.5799156,11.583171 A 8.5000003,8.5000003 0 0 0 8,16.5 8.5000003,8.5000003 0 0 0 16.5,25 8.5000003,8.5000003 0 0 0 21.419597,23.422852 L 19.373454,21.376709 A 5.6666668,5.6666668 0 0 1 16.5,22.166667 5.6666668,5.6666668 0 0 1 10.833334,16.5 5.6666668,5.6666668 0 0 1 11.623291,13.626546 Z"/>
 <circle style="opacity:0.2" cx="16.5" cy="17.5" r="2.5"/>
 <circle style="fill:#d895d8" cx="16.5" cy="16.5" r="2.5"/>
 <path style="opacity:0.1;fill:#8b9cbe" d="M 16.568359 2 A 2.9114649 2.7887773 0 0 0 15.042969 2.3730469 L 4.4550781 8.2285156 A 2.9114649 2.7887773 0 0 0 3 10.644531 L 3 11.644531 A 2.9114649 2.7887773 0 0 1 4.4550781 9.2285156 L 15.042969 3.3730469 A 2.9114649 2.7887773 0 0 1 16.568359 3 A 2.9114649 2.7887773 0 0 1 17.955078 3.3730469 L 28.544922 9.2285156 A 2.9114649 2.7887773 0 0 1 30 11.644531 L 30 10.644531 A 2.9114649 2.7887773 0 0 0 28.544922 8.2285156 L 17.955078 2.3730469 A 2.9114649 2.7887773 0 0 0 16.568359 2 z"/>
 <path style="opacity:0.2;fill:#8b9cbe" d="M 16.5 8 A 8.5000003 8.5000003 0 0 0 11.580078 9.5761719 L 12.193359 10.189453 A 8.5000003 8.5000003 0 0 1 16.5 9 A 8.5000003 8.5000003 0 0 1 24.974609 16.992188 A 8.5000003 8.5000003 0 0 0 25 16.5 A 8.5000003 8.5000003 0 0 0 16.5 8 z M 22.140625 17 A 5.6666668 5.6666668 0 0 1 21.376953 19.373047 L 21.712891 19.708984 A 5.6666668 5.6666668 0 0 0 22.166016 17.5 A 5.6666668 5.6666668 0 0 0 22.140625 17 z"/>
 <path style="opacity:0.1;fill:#8b9cbe" d="M 9.5800781 11.583984 A 8.5000003 8.5000003 0 0 0 8 16.5 A 8.5000003 8.5000003 0 0 0 8.0253906 17.007812 A 8.5000003 8.5000003 0 0 1 9.5800781 12.583984 L 11.287109 14.291016 A 5.6666668 5.6666668 0 0 1 11.623047 13.626953 L 9.5800781 11.583984 z M 10.859375 17 A 5.6666668 5.6666668 0 0 0 10.833984 17.5 A 5.6666668 5.6666668 0 0 0 16.5 23.166016 A 5.6666668 5.6666668 0 0 0 19.373047 22.376953 L 20.806641 23.810547 A 8.5000003 8.5000003 0 0 0 21.419922 23.423828 L 19.373047 21.376953 A 5.6666668 5.6666668 0 0 1 16.5 22.166016 A 5.6666668 5.6666668 0 0 1 10.859375 17 z"/>
 <path style="opacity:0.2;fill:#8b9cbe" d="M 16.5 14 A 2.5 2.5 0 0 0 14 16.5 A 2.5 2.5 0 0 0 14.052734 16.996094 A 2.5 2.5 0 0 1 16.5 15 A 2.5 2.5 0 0 1 18.947266 17.003906 A 2.5 2.5 0 0 0 19 16.5 A 2.5 2.5 0 0 0 16.5 14 z"/>
</svg>
