<svg xmlns="http://www.w3.org/2000/svg" width="32" height="32" version="1.1">
 <path style="opacity:0.2" d="M 2,9.3125 V 25.091797 C 2,26.146312 2.8062802,27 3.8007812,27 H 8 V 15.039062 L 3.2773438,11.519531 C 2.4308177,10.894822 2.0551856,10.105855 2.0097656,9.3203125 Z m 28,0 -0.0098,0.00781 c -0.04542,0.7855425 -0.421052,1.5745095 -1.267578,2.1992185 L 24,15.039062 V 27 h 4.199219 C 29.19372,27 30,26.146312 30,25.091797 Z"/>
 <path style="fill:#5f5f5f" d="M 30 8.3125 L 29.990234 8.3203125 C 29.944815 9.1058552 29.569182 9.8948218 28.722656 10.519531 L 24 14.039062 L 24 26 L 28.199219 26 C 29.19372 26 30 25.146312 30 24.091797 L 30 8.3125 z"/>
 <path style="fill:#afafaf" d="m 2,8.3125 0.0098,0.00781 c 0.04542,0.7855427 0.421052,1.5745093 1.267578,2.199219 L 8,14.039062 V 26 H 3.800781 C 2.80628,26 2,25.146312 2,24.091797 Z"/>
 <path style="opacity:0.2" d="M 5.1308594,6.0019531 C 2.5899209,5.8931522 0.59236184,9.5381001 3.2773438,11.519531 L 8,15.039062 16,21 l 8,-5.960938 4.722656,-3.519531 c 2.684982,-1.9814309 0.687653,-5.6263433 -1.853515,-5.5175779 -0.586424,0.0251 -1.201374,0.2508125 -1.794922,0.7421875 L 24,7.5292969 16,13.371094 8,7.5292969 6.9257812,6.7441406 C 6.3322334,6.2527656 5.7172298,6.027061 5.1308594,6.0019531 Z"/>
 <path style="fill:#8f8f8f" d="M 8 6.5292969 L 8 14.039062 L 16 20 L 24 14.039062 L 24 6.5292969 L 16 12.371094 L 8 6.5292969 z"/>
 <path style="fill:#727272" d="M 5.1308594 5.0019531 C 2.5899209 4.8931522 0.59236189 8.5380999 3.2773438 10.519531 L 8 14.039062 L 8 6.5292969 L 6.9257812 5.7441406 C 6.3322334 5.2527656 5.7172298 5.027061 5.1308594 5.0019531 z"/>
 <path style="fill:#7d7d7d" d="M 26.869141 5.0019531 C 26.282717 5.0270528 25.667767 5.2527656 25.074219 5.7441406 L 24 6.5292969 L 24 14.039062 L 28.722656 10.519531 C 31.407638 8.5380999 29.410309 4.8931877 26.869141 5.0019531 z"/>
 <path style="opacity:0.2;fill:#8b9cbe" d="M 5.1308594 5.0019531 C 3.2770088 4.9225728 1.7205855 6.8412776 2.0527344 8.6542969 C 2.3084901 7.2028285 3.6194292 5.9372349 5.1308594 6.0019531 C 5.7172298 6.027061 6.3322334 6.2527656 6.9257812 6.7441406 L 8 7.5292969 L 16 13.371094 L 24 7.5292969 L 25.074219 6.7441406 C 25.667767 6.2527656 26.282717 6.0270531 26.869141 6.0019531 C 28.380707 5.937256 29.691553 7.2028353 29.947266 8.6542969 C 30.279468 6.8412859 28.723159 4.9225987 26.869141 5.0019531 C 26.282717 5.0270528 25.667767 5.2527656 25.074219 5.7441406 L 24 6.5292969 L 16 12.371094 L 8 6.5292969 L 6.9257812 5.7441406 C 6.3322334 5.2527656 5.7172298 5.027061 5.1308594 5.0019531 z"/>
</svg>
