<svg xmlns="http://www.w3.org/2000/svg" width="32" height="32" version="1.1">
 <path style="opacity:0.2" d="M 16,3 A 3,3 0 0 0 13,6 V 29.599609 C 13,30.37521 13.669,31 14.5,31 h 3 C 18.331,31 19,30.37521 19,29.599609 V 6 A 3,3 0 0 0 16,3 Z"/>
 <path style="fill:#a3a3a3" d="M 13,5 V 28.599999 C 13,29.3756 13.669,30 14.5,30 h 3 C 18.331,30 19,29.3756 19,28.599999 V 5 Z"/>
 <circle style="fill:#a3a3a3" cx="16" cy="5" r="3"/>
 <rect style="opacity:0.2" width="30" height="16" x="1" y="7" rx="2.727" ry="2.909"/>
 <rect style="fill:#0479e8" width="30" height="16" x="1" y="6" rx="2.727" ry="2.909"/>
 <g style="opacity:0.2">
  <path d="M 6.8371,16.947 H 6.3923 L 5.6119,14.345 Q 5.5563,14.172 5.4875,13.909 5.4187,13.646 5.4161,13.593 5.3579,13.943 5.2308,14.361 L 4.474,16.947 H 4.0294 L 3,13.061 H 3.4764 L 4.0876,15.461 Q 4.2146,15.967 4.2729,16.375 4.3443,15.889 4.4846,15.424 L 5.1779,13.061 H 5.6543 L 6.3822,15.445 Q 6.5089,15.858 6.5965,16.375 6.6463,15.998 6.7872,15.456 L 7.3957,13.061 H 7.8715 Z"/>
  <path d="M 10.635,16.947 H 8.4781 V 13.061 H 10.635 V 13.463 H 8.9276 V 14.714 H 10.531 V 15.113 H 8.9276 V 16.543 H 10.635 Z"/>
  <path d="M 11.495,16.947 V 13.061 H 11.945 V 16.538 H 13.652 V 16.947 Z"/>
  <path d="M 15.967,13.409 Q 15.329,13.409 14.958,13.837 14.591,14.262 14.591,15.004 14.591,15.767 14.946,16.184 15.303,16.599 15.962,16.599 16.366,16.599 16.885,16.452 V 16.848 Q 16.483,17 15.893,17 15.038,17 14.572,16.479 14.109,15.958 14.109,14.999 14.109,14.398 14.332,13.946 14.556,13.495 14.977,13.25 15.401,13.005 15.972,13.005 16.581,13.005 17.036,13.229 L 16.845,13.616 Q 16.406,13.409 15.967,13.409 Z"/>
  <path d="M 21.088,14.999 Q 21.088,15.931 20.617,16.466 20.148,17 19.312,17 18.457,17 17.991,16.476 17.528,15.95 17.528,14.993 17.528,14.044 17.994,13.524 18.459,13 19.317,13 20.151,13 20.619,13.532 21.088,14.063 21.088,14.999 Z M 18.005,14.999 Q 18.005,15.788 18.338,16.197 18.674,16.604 19.312,16.604 19.955,16.604 20.283,16.197 20.611,15.791 20.611,14.999 20.611,14.215 20.283,13.811 19.958,13.404 19.317,13.404 18.674,13.404 18.338,13.813 18.005,14.22 18.005,14.999 Z"/>
  <path d="M 23.665,16.947 22.353,13.502 H 22.331 Q 22.368,13.912 22.368,14.475 V 16.947 H 21.953 V 13.061 H 22.63 L 23.856,16.266 H 23.876 L 25.112,13.061 H 25.785 V 16.947 H 25.335 V 14.443 Q 25.335,14.012 25.372,13.508 H 25.351 L 24.027,16.947 Z"/>
  <path d="M 29,16.947 H 26.843 V 13.061 H 29 V 13.463 H 27.293 V 14.714 H 28.896 V 15.113 H 27.293 V 16.543 H 29 Z"/>
 </g>
 <g>
  <path style="fill:#8b9cbe" d="M 6.8371,15.947 H 6.3923 L 5.6119,13.345 Q 5.5563,13.172 5.4875,12.909 5.4187,12.646 5.4161,12.593 5.3579,12.943 5.2308,13.361 L 4.474,15.947 H 4.0294 L 3,12.061 H 3.4764 L 4.0876,14.461 Q 4.2146,14.967 4.2729,15.375 4.3443,14.889 4.4846,14.424 L 5.1779,12.061 H 5.6543 L 6.3822,14.445 Q 6.5089,14.858 6.5965,15.375 6.6463,14.998 6.7872,14.456 L 7.3957,12.061 H 7.8715 Z"/>
  <path style="fill:#8b9cbe" d="M 10.635,15.947 H 8.4781 V 12.061 H 10.635 V 12.463 H 8.9276 V 13.714 H 10.531 V 14.113 H 8.9276 V 15.543 H 10.635 Z"/>
  <path style="fill:#8b9cbe" d="M 11.495,15.947 V 12.061 H 11.945 V 15.538 H 13.652 V 15.947 Z"/>
  <path style="fill:#8b9cbe" d="M 15.967,12.409 Q 15.329,12.409 14.958,12.837 14.591,13.262 14.591,14.004 14.591,14.767 14.946,15.184 15.303,15.599 15.962,15.599 16.366,15.599 16.885,15.452 V 15.848 Q 16.483,16 15.893,16 15.038,16 14.572,15.479 14.109,14.958 14.109,13.999 14.109,13.398 14.332,12.946 14.556,12.495 14.977,12.25 15.401,12.005 15.972,12.005 16.581,12.005 17.036,12.229 L 16.845,12.616 Q 16.406,12.409 15.967,12.409 Z"/>
  <path style="fill:#8b9cbe" d="M 21.088,13.999 Q 21.088,14.931 20.617,15.466 20.148,16 19.312,16 18.457,16 17.991,15.476 17.528,14.95 17.528,13.993 17.528,13.044 17.994,12.524 18.459,12 19.317,12 20.151,12 20.619,12.532 21.088,13.063 21.088,13.999 Z M 18.005,13.999 Q 18.005,14.788 18.338,15.197 18.674,15.604 19.312,15.604 19.955,15.604 20.283,15.197 20.611,14.791 20.611,13.999 20.611,13.215 20.283,12.811 19.958,12.404 19.317,12.404 18.674,12.404 18.338,12.813 18.005,13.22 18.005,13.999 Z"/>
  <path style="fill:#8b9cbe" d="M 23.665,15.947 22.353,12.502 H 22.331 Q 22.368,12.912 22.368,13.475 V 15.947 H 21.953 V 12.061 H 22.63 L 23.856,15.266 H 23.876 L 25.112,12.061 H 25.785 V 15.947 H 25.335 V 13.443 Q 25.335,13.012 25.372,12.508 H 25.351 L 24.027,15.947 Z"/>
  <path style="fill:#8b9cbe" d="M 29,15.947 H 26.843 V 12.061 H 29 V 12.463 H 27.293 V 13.714 H 28.896 V 14.113 H 27.293 V 15.543 H 29 Z"/>
 </g>
 <path style="opacity:0.1;fill:#8b9cbe" d="M 16 2 A 3 3 0 0 0 13 5 L 13 6 A 3 3 0 0 1 16 3 A 3 3 0 0 1 19 6 L 19 5 A 3 3 0 0 0 16 2 z"/>
 <path style="opacity:0.1;fill:#8b9cbe" d="M 3.7265625,6 C 2.2156533,6 1,7.2965667 1,8.9082031 v 1 C 1,8.2965667 2.2156533,7 3.7265625,7 H 28.273438 C 29.784347,7 31,8.2965667 31,9.9082031 v -1 C 31,7.2965667 29.784347,6 28.273438,6 Z"/>
</svg>
