<svg xmlns="http://www.w3.org/2000/svg" width="32" height="32" version="1">
 <path style="opacity:0.2" d="M 16,3 A 14,14 0 0 0 2,17 14,14 0 0 0 3.6836,23.629 L 3.6562,23.607 C 4.3619,25.265 4.3102,25.717 4.1992,27.102 4.1219,28.066 3.8601,29.051 3.5332,29.605 3.2368,30.107 3,30.628 3,30.76 3,31.168 5.3585,31.025 7.4473,30.49 9.8944,29.864 10.109,29.819 12.115,30.449 L 12.098,30.436 A 14,14 0 0 0 16,31 14,14 0 0 0 30,17 14,14 0 0 0 16,3 Z"/>
 <path style="fill:#47ad5d" d="M 16 2 A 14 14 0 0 0 2 16 A 14 14 0 0 0 3.6836 22.629 L 3.6562 22.607 C 4.3619 24.265 4.3102 24.717 4.1992 26.102 C 4.1219 27.066 3.8601 28.051 3.5332 28.605 C 3.2368 29.107 3 29.628 3 29.76 C 3 30.168 5.3585 30.025 7.4473 29.49 C 9.8944 28.864 10.109 28.819 12.115 29.449 L 12.098 29.436 A 14 14 0 0 0 16 30 A 14 14 0 0 0 30 16 A 14 14 0 0 0 16 2 z"/>
 <path style="opacity:0.2" d="m 21.250549,22.665817 c 1.049499,-0.501208 1.537433,-1.130058 1.705682,-2.19827 0.128224,-0.814091 0.06909,-1.022364 -1.52743,-1.791037 -2.029966,-0.977398 -1.904829,-0.982063 -2.779331,0.103693 -0.544248,0.675714 -0.778114,0.89495 -0.954735,0.89495 -2.06874,-0.559332 -4.173699,-2.175023 -4.843191,-4.296729 0,-0.09085 0.220188,-0.423242 0.48932,-0.738647 0.791336,-0.927386 0.792204,-0.950112 0.101288,-2.652325 -0.795396,-1.959653 -1.064442,-1.946346 -1.930958,-1.98219 -0.886759,-0.036668 -1.166985,0.104277 -1.7280457,0.869183 -0.58048,0.791392 -0.787732,1.428033 -0.782951,2.405101 0.0063,1.240114 0.412699,2.235834 1.5897217,3.892818 2.020586,2.844515 3.99199,4.388398 6.832108,5.350475 1.737006,0.588413 2.811803,0.628548 3.828522,0.142978 z"/>
 <path style="fill:#8b9cbe" d="m 21.250549,21.665817 c 1.049499,-0.501208 1.537433,-1.130058 1.705682,-2.19827 0.128224,-0.814091 0.06909,-1.022364 -1.52743,-1.791037 -2.029966,-0.977398 -1.904829,-0.982063 -2.779331,0.103693 -0.544248,0.675714 -0.778114,0.89495 -0.954735,0.89495 -2.06874,-0.559332 -4.173699,-2.175023 -4.843191,-4.296729 0,-0.09085 0.220188,-0.423242 0.48932,-0.738647 0.791336,-0.927386 0.792204,-0.950112 0.101288,-2.652325 C 12.646756,9.0277997 12.37771,9.0411063 11.511194,9.0052628 10.624435,8.968594 10.344209,9.1095391 9.7831483,9.8744457 c -0.58048,0.7913913 -0.787732,1.4280323 -0.782951,2.4051003 0.0063,1.240114 0.412699,2.235834 1.5897217,3.892818 2.020586,2.844515 3.99199,4.388398 6.832108,5.350475 1.737006,0.588413 2.811803,0.628548 3.828522,0.142978 z"/>
 <path style="fill:#8b9cbe;opacity:0.2" d="M 16 2 A 14 14 0 0 0 2 16 A 14 14 0 0 0 2.0215 16.408 A 14 14 0 0 1 16 3 A 14 14 0 0 1 29.979 16.586 A 14 14 0 0 0 30 16 A 14 14 0 0 0 16 2 z M 4.2363 25.539 C 4.2245 25.719 4.2166 25.884 4.1992 26.102 C 4.1219 27.066 3.8601 28.051 3.5332 28.605 C 3.2368 29.107 3 29.628 3 29.76 C 3 29.853 3.1354 29.914 3.3516 29.951 C 3.4137 29.833 3.4616 29.727 3.5332 29.605 C 3.8601 29.051 4.1219 28.066 4.1992 27.102 C 4.2517 26.447 4.284 26.003 4.2363 25.539 z"/>
</svg>
