<svg xmlns="http://www.w3.org/2000/svg" width="32" height="32" version="1">
 <rect fill="#b2bfd9" width="28" height="28" x="2" y="2" rx="1.5" ry="1.5"/>
 <path fill="#fff" opacity=".1" d="m3.5 2c-0.831 0-1.5 0.669-1.5 1.5v1c0-0.831 0.669-1.5 1.5-1.5h25c0.831 0 1.5 0.669 1.5 1.5v-1c0-0.831-0.669-1.5-1.5-1.5h-25z"/>
 <path opacity=".2" d="m2 28.5v1c0 0.831 0.669 1.5 1.5 1.5h25c0.831 0 1.5-0.669 1.5-1.5v-1c0 0.831-0.669 1.5-1.5 1.5h-25c-0.831 0-1.5-0.669-1.5-1.5z"/>
 <path fill="#4d4d4d" d="m19.114 10c-0.71079-0.000622-1.5527 0.0022-2.0703 0.0059l-0.0511 0.03495v0.37275c0 0.04548 0.019 0.07726 0.0567 0.10484 0.0385 0.02909 0.077 0.0466 0.11911 0.0466l0.16449 0.01749c0.42328 0.01789 0.62258 0.13228 0.68066 0.20385 0.10092 0.12674 0.14825 0.26745-0.0964 0.8154l-1.4634 2.9937-1.3216-2.7782c-0.43417-0.8879-0.53999-1.1651 0.11344-1.2173l0.26092-0.03495c0.12561 0 0.18718-0.04524 0.18718-0.13396v-0.39022l-0.0964-0.03495s-2.462 0.0043-3.5678 0.0059l-0.051 0.03495v0.39023c0 0.08723 0.0896 0.11084 0.26091 0.13396 0.61205 0.08275 0.59699 0.14803 1.2025 1.3804 0.0908 0.18489 0.35735 0.73969 0.35735 0.73969l1.3783 2.784s0.29789 0.67616 0.40272 0.91441l-2.0023 4.1003-0.11344-0.02912s-3.1099-6.7347-4.0102-8.9869c-0.0937-0.23334-0.13613-0.40593-0.13613-0.51254 0-0.22887 0.19902-0.34979 0.60124-0.36693l0.47079-0.02331c0.12415 0 0.18718-0.0493 0.18718-0.15144v-0.36693l-0.0454-0.04076s-3.7228-0.0045-4.4923 0l-0.0397 0.042v0.384c0 0.07008 0.0817 0.11457 0.25525 0.13396 0.47264 0.0261 0.78634 0.104 0.9359 0.23297 0.14884 0.13047 0.30707 0.459 0.51617 0.97266 1.1304 2.7882 3.5326 7.7665 4.7022 10.6 0.33688 0.77384 0.75653 0.89442 1.2706-0.02331 0.55419-1.0555 1.5235-3.0935 2.3086-4.7585 0.0113-0.16152 0.0113 0.14963 0.15315 0.05243 0.73305 1.6579 1.6179 3.6536 2.11 4.6944 0.38117 0.80739 0.81284 0.88511 1.2536 0.02331 1.1515-2.6287 4.5207-10.536 4.5207-10.536 0.14593-0.38841 0.34628-0.68582 0.60692-0.90276 0.25992-0.21545 0.66087-0.3365 1.2025-0.3611 0.11036 0 0.16449-0.05079 0.16449-0.15143v-0.37275l-0.0397-0.04078h-4.135l-0.0511 0.04078v0.37275c0 0.04399 0.019 0.07725 0.0567 0.10484 0.0385 0.02909 0.077 0.0466 0.11911 0.0466l0.34601 0.01749c0.424 0.01789 0.53926 0.10432 0.70334 0.25044 0.16336 0.14984 0.18378 0.40364 0.0567 0.76298l-3.6585 8.917-0.1418-0.04078-2.3256-4.8749c0.002-0.0044 0.0567-0.11649 0.0567-0.11649l1.9002-3.6518c0.22145-0.38543 0.43635-0.73083 0.54453-0.89112 0.19821-0.29298 0.3092-0.34666 0.85082-0.37275 0.11036 0 0.1645-0.0493 0.1645-0.15144v-0.36693l-0.0397-0.04077s-0.58246-0.0049-1.2932-0.0059z"/>
</svg>
