<svg xmlns="http://www.w3.org/2000/svg" width="32" height="32" version="1">
 <path style="opacity:0.2" d="m 6.9779296,3 c 0,0 -1.3708164,0.095231 -2.0999999,0.8244141 L 2.9173828,5.7849609 C 1.9950707,6.4897669 2,7.9001519 2,7.9779296 V 17 26.02207 c 0,0.07778 -0.00493,1.488163 0.9173828,2.192969 l 1.9605469,1.960547 C 5.6071132,30.904769 6.9779296,31 6.9779296,31 H 16 25.02207 c 0,0 1.370817,-0.09523 2.1,-0.824414 l 1.960547,-1.960547 C 30.0049,27.510233 30,26.099848 30,26.02207 V 17 7.9779296 C 30,7.9001519 30.0049,6.4897669 29.082617,5.7849609 L 27.12207,3.8244141 C 26.392887,3.0952306 25.02207,3 25.02207,3 H 16 Z"/>
 <path style="fill:#17191e" d="m 6.9779296,2 c 0,0 -1.3708164,0.095231 -2.0999999,0.8244141 L 2.9173828,4.7849609 C 1.9950707,5.4897669 2,6.9001519 2,6.9779296 V 16 25.02207 c 0,0.07778 -0.00493,1.488163 0.9173828,2.192969 l 1.9605469,1.960547 C 5.6071132,29.904769 6.9779296,30 6.9779296,30 H 16 25.02207 c 0,0 1.370817,-0.09523 2.1,-0.824414 l 1.960547,-1.960547 C 30.0049,26.510233 30,25.099848 30,25.02207 V 16 6.9779296 C 30,6.9001519 30.0049,5.4897669 29.082617,4.7849609 L 27.12207,2.8244141 C 26.392887,2.0952306 25.02207,2 25.02207,2 H 16 Z"/>
 <path style="fill:#e53935" d="m 2,7.6 v 8.4 0.7 4.2 1.1 h 10 v 8 h 4 0.7 8.32207 c 0,0 1.370817,-0.09523 2.1,-0.824414 L 27.2,29.097657 V 25.1 L 18,24.5 V 21 l -0.6,0.6 V 16.7 L 9,16.1 V 7 Z"/>
 <path style="fill:#8b9cbe" d="M 5.3066406 2.5058594 C 5.1526296 2.5968078 5.0049634 2.6981616 4.8789062 2.8242188 L 2.9179688 4.7851562 C 1.9956567 5.4899623 2 6.9007379 2 6.9785156 L 2 7.5996094 L 8 13 L 8 17 L 13.333984 17 L 17 21 L 17 25 L 22.333984 25 L 26.693359 29.494141 C 26.847369 29.403191 26.995037 29.301838 27.121094 29.175781 L 29.082031 27.214844 C 30.004314 26.510038 30 25.099262 30 25.021484 L 30 24.400391 L 26.333984 21 L 21 21 L 21 17 L 17.333984 13 L 12 13 L 12 9 L 5.3066406 2.5058594 z"/>
 <path style="fill:#c6c8cb" d="m 21,17 -4,4 v 4 l 4,-4 z"/>
 <path style="fill:#dadbdd" d="m 17.333333,13 -4,4 L 17,21 21,17 Z"/>
 <path style="fill:#b3b6bb" d="m 13.333333,17 4,-4 H 12 l -4,4 z"/>
 <path style="fill:#dadbdd" d="M 5.3058593,2.5058593 C 5.1518483,2.5968077 5.0039868,2.698357 4.8779297,2.8244141 L 2.9173828,4.7849609 C 1.9950707,5.4897669 2,6.9001519 2,6.9779296 V 7.6 L 8,13 12,9 Z"/>
 <path style="fill:#dadbdd" d="m 26.333333,21 -4,4 4.360808,4.494141 c 0.15401,-0.09095 0.301872,-0.192498 0.427929,-0.318555 l 1.960547,-1.960547 C 30.0049,26.510233 30,25.099848 30,25.02207 V 24.4 Z"/>
 <path style="fill:#c6c8cb" d="m 12,9 -4,4 v 4 l 4,-4 z"/>
 <path style="fill:#b3b6bb" d="m 22.333333,25 4,-4 H 21 l -4,4 z"/>
 <rect style="opacity:0.2" width="10" height="1" x="2" y="22"/>
 <path style="opacity:0.2" d="M 2.0273438 7.6230469 C 2.0068353 7.8128764 2 7.956468 2 7.9785156 L 2 8.5996094 L 8 14 L 8 13 L 2.0273438 7.6230469 z M 8 17 L 8 18 L 13.333984 18 L 17 22 L 17 21 L 13.333984 17 L 8 17 z M 17 25 L 17 26 L 22.333984 26 L 26.693359 30.494141 C 26.847369 30.403191 26.995037 30.301838 27.121094 30.175781 L 29.082031 28.214844 C 30.004314 27.510038 30 26.099262 30 26.021484 L 30 25.400391 L 29.972656 25.375 C 29.920842 25.854791 29.742975 26.709752 29.082031 27.214844 L 27.121094 29.175781 C 26.995037 29.301838 26.847369 29.403191 26.693359 29.494141 L 22.333984 25 L 17 25 z"/>
 <path style="opacity:0.2;fill:#8b9cbe" d="M 5.3066406 2.5058594 C 5.1526296 2.5968078 5.0049634 2.6981616 4.8789062 2.8242188 L 2.9179688 4.7851562 C 1.9956566 5.4899623 2 6.9007379 2 6.9785156 L 2 7.5996094 L 2.0273438 7.6230469 C 2.0791832 7.1432115 2.2571039 6.2901714 2.9179688 5.7851562 L 4.8789062 3.8242188 C 5.0049634 3.6981616 5.1526296 3.5968078 5.3066406 3.5058594 L 12 10 L 12 9 L 5.3066406 2.5058594 z M 12 13 L 12 14 L 17.333984 14 L 21 18 L 21 17 L 17.333984 13 L 12 13 z M 21 21 L 21 22 L 26.333984 22 L 29.972656 25.375 C 29.99299 25.186062 30 25.043469 30 25.021484 L 30 24.400391 L 26.333984 21 L 21 21 z"/>
 <path style="fill:#8b9cbe;opacity:0.1" d="M 6.9785156 2 C 6.9785156 2 5.6080898 2.0950356 4.8789062 2.8242188 L 2.9179688 4.7851562 C 1.9956567 5.4899623 2 6.9007379 2 6.9785156 L 2 7.9785156 C 2 7.9007379 1.9956567 6.4899623 2.9179688 5.7851562 L 4.8789062 3.8242188 C 5.6080898 3.0950356 6.9785156 3 6.9785156 3 L 16 3 L 25.021484 3 C 25.021484 3 26.391911 3.0950353 27.121094 3.8242188 L 29.082031 5.7851562 C 30.004314 6.4899623 30 7.9007379 30 7.9785156 L 30 6.9785156 C 30 6.9007379 30.004314 5.4899622 29.082031 4.7851562 L 27.121094 2.8242188 C 26.391911 2.0950353 25.021484 2 25.021484 2 L 16 2 L 6.9785156 2 z"/>
</svg>
