<svg xmlns="http://www.w3.org/2000/svg" width="32" height="32" version="1">
 <path style="opacity:0.2" d="M 12.333333,3.0000003 C 11.555416,3.0001432 10.809409,3.295217 10.259374,3.8203285 L 5.8593755,8.0204088 C 5.3781737,8.4808646 5.0877989,9.0781664 5.0186749,9.7055693 L 5,11.400161 v 9.26971 c 1.498e-4,0.742572 0.3092687,1.454682 0.8593755,1.979725 l 2.8445309,2.715287 3.0221346,2.715287 2.2,2.10004 c 1.145555,1.093053 3.002363,1.093053 4.147917,0 l 2.2,-2.10004 3.022136,-2.715287 2.84453,-2.715287 C 26.690731,22.124553 26.99985,21.412443 27,20.669871 v -9.26971 L 26.996,9.9214994 C 26.9758,9.2164313 26.676678,8.533515 26.140586,8.0204088 l -4.4,-4.2000803 C 21.190591,3.295217 20.444584,3.0001432 19.666667,3.0000003 Z"/>
 <path style="fill:#4f4f4f" d="M 12.333333,2.0000001 C 11.555416,2.000143 10.809409,2.2952168 10.259374,2.8203283 L 5.8593755,7.0204085 C 5.3781737,7.4808643 5.0877989,8.0781661 5.0186749,8.7055691 L 5,10.400161 v 9.26971 c 1.498e-4,0.742572 0.3092687,1.454682 0.8593755,1.979725 l 2.8445309,2.715287 3.0221346,2.715287 2.2,2.10004 c 1.145555,1.093053 3.002363,1.093053 4.147917,0 l 2.2,-2.10004 3.022136,-2.715287 2.84453,-2.715287 C 26.690731,21.124553 26.99985,20.412443 27,19.669871 v -9.26971 L 26.996,8.9214991 C 26.9758,8.2164311 26.676678,7.5335148 26.140586,7.0204085 l -4.4,-4.2000802 C 21.190591,2.2952168 20.444584,2.000143 19.666667,2.0000001 Z"/>
 <path style="opacity:0.2" d="M 12.5,6 8.3007812,10 H 14 V 25.888672 L 16,28 18,25.888672 V 10 h 5.699219 L 19.5,6 Z M 8,12 v 8.652344 l 3.115234,2.990234 2.769532,-2.884766 L 12,18.947266 V 12 Z m 12,0 v 6.947266 l -1.884766,1.810546 2.769532,2.884766 L 24,20.652344 V 12 Z"/>
 <path style="fill:#c2c4c1" d="m 14,8 h 4 V 24.888889 L 16,27 14,24.888889 Z"/>
 <path style="fill:none;stroke:#c2c4c1;stroke-width:4" d="m 10,11 v 7.8 l 2.5,2.4"/>
 <path style="fill:none;stroke:#c2c4c1;stroke-width:4" d="m 22,11 v 7.8 l -2.5,2.4"/>
 <path style="fill:#c2c4c1" d="m 19.5,5.0000001 4.2,4 H 8.3 l 4.2,-4 z"/>
 <path style="opacity:0.2;fill:#8b9cbe" d="M 12.5 5 L 8.3007812 9 L 9.3515625 9 L 12.5 6 L 19.5 6 L 22.648438 9 L 23.699219 9 L 19.5 5 L 12.5 5 z M 8 11 L 8 12 L 12 12 L 12 11 L 8 11 z M 20 11 L 20 12 L 24 12 L 24 11 L 20 11 z M 12 17.947266 L 12 18.947266 L 13.384766 20.277344 L 13.884766 19.757812 L 12 17.947266 z M 20 17.947266 L 18.115234 19.757812 L 18.615234 20.277344 L 20 18.947266 L 20 17.947266 z"/>
 <path style="opacity:0.1;fill:#8b9cbe" d="M 12.333984 2 C 11.556067 2.0001429 10.809801 2.295201 10.259766 2.8203125 L 5.859375 7.0195312 C 5.3781732 7.4799871 5.0886553 8.0776751 5.0195312 8.7050781 L 5 10.400391 L 5 11.400391 L 5.0195312 9.7050781 C 5.0886553 9.0776752 5.3781732 8.4799871 5.859375 8.0195312 L 10.259766 3.8203125 C 10.809801 3.295201 11.556067 3.0001429 12.333984 3 L 19.666016 3 C 20.443933 3.0001429 21.190239 3.295201 21.740234 3.8203125 L 26.140625 8.0195312 C 26.676717 8.5326374 26.975894 9.2168069 26.996094 9.921875 L 27 11.400391 L 27 10.400391 L 26.996094 8.921875 C 26.975894 8.216807 26.676717 7.5326376 26.140625 7.0195312 L 21.740234 2.8203125 C 21.190239 2.295201 20.443933 2.0001429 19.666016 2 L 12.333984 2 z"/>
</svg>
