<svg xmlns="http://www.w3.org/2000/svg" width="32" height="32" version="1">
 <rect style="opacity:0.2" width="29" height="29" x="2" y="2" rx="1.45" ry="1.45"/>
 <rect style="fill:#f1723c" width="29" height="29" x="2" y="1" rx="1.45" ry="1.45"/>
 <path style="opacity:0.2;fill:none;stroke:#000000;stroke-width:3;stroke-linecap:round;stroke-linejoin:round" d="m 9.5,8.5143834 h 9.65 c 0,0 4.35,0 4.35,3.9874996 0,3.9875 -4.35,3.9875 -4.35,3.9875 H 9.5 v 8.010253"/>
 <path style="fill:none;stroke:#8b9cbe;stroke-width:3;stroke-linecap:round;stroke-linejoin:round" d="m 9.5,7.5147471 h 9.65 c 0,0 4.35,0 4.35,3.9874999 0,3.9875 -4.35,3.9875 -4.35,3.9875 H 9.5 V 23.5"/>
 <path style="fill:#8b9cbe;opacity:0.2" d="M 3.4492188 1 C 2.6459187 1 2 1.6459187 2 2.4492188 L 2 3.4492188 C 2 2.6459187 2.6459187 2 3.4492188 2 L 29.550781 2 C 30.354081 2 31 2.6459187 31 3.4492188 L 31 2.4492188 C 31 1.6459187 30.354081 1 29.550781 1 L 3.4492188 1 z"/>
</svg>
