<svg xmlns="http://www.w3.org/2000/svg" width="32" height="32" version="1.1">
 <path style="opacity:0.2" d="m 8.8359375,3 c -0.035962,0 -0.07147,0.00881 -0.1074219,0.00977 -0.055591,0.00158 -0.1105105,0.00589 -0.1660156,0.00977 -0.1147971,0.0077 -0.2278586,0.021544 -0.3417969,0.039063 -0.069908,0.010789 -0.1396015,0.016766 -0.2089843,0.03125 -0.032424,0.00682 -0.063418,0.019717 -0.095703,0.027344 -0.1416218,0.033124 -0.2798356,0.076333 -0.4179687,0.125 -0.04446,0.01574 -0.090757,0.023671 -0.1347657,0.041016 -0.046343,0.018215 -0.090928,0.040549 -0.1367187,0.060547 -0.1155137,0.050376 -0.2264608,0.1120849 -0.3378906,0.1738281 -0.042262,0.023448 -0.087311,0.039378 -0.1289063,0.064453 -0.019162,0.011552 -0.037604,0.025253 -0.056641,0.037109 -0.045028,0.02816 -0.090616,0.05388 -0.1347656,0.083984 -0.044008,0.029992 -0.085828,0.063777 -0.1289063,0.095703 C 6.2783661,3.9163503 6.122088,4.0438174 5.9765625,4.1894531 L 3.1894531,6.9785156 C 3.0414374,7.1266437 2.9119239,7.286972 2.7929688,7.4511719 c -0.029305,0.039802 -0.060228,0.078549 -0.087891,0.1191406 -0.032651,0.047889 -0.059474,0.097562 -0.089844,0.1464844 -0.016463,0.026686 -0.036871,0.051191 -0.052734,0.078125 -0.024131,0.040972 -0.039928,0.08535 -0.0625,0.1269531 -0.054298,0.1001193 -0.1090833,0.1993656 -0.1542969,0.3027344 -0.024226,0.055372 -0.048689,0.109841 -0.070312,0.1660156 -0.017077,0.04417 -0.025544,0.090151 -0.041016,0.1347656 -0.046575,0.1349844 -0.087316,0.2699535 -0.1191406,0.4082032 -0.00755,0.032466 -0.022562,0.063099 -0.029297,0.095703 -0.013909,0.067878 -0.016957,0.1367058 -0.027344,0.2050781 -0.016377,0.1080468 -0.029535,0.215399 -0.037109,0.3242188 -0.00465,0.064677 -0.012127,0.1285694 -0.013672,0.1933593 -0.0016,0.071257 0.00175,0.1416466 0.00391,0.2128907 0.00256,0.082412 0.00804,0.1639252 0.015625,0.2460942 0.00801,0.08906 0.019275,0.177155 0.033203,0.265625 0.011452,0.0721 0.021733,0.143319 0.037109,0.214843 0.011758,0.0546 0.026971,0.107928 0.041016,0.16211 0.029553,0.114909 0.067553,0.227357 0.1074219,0.339843 0.023556,0.06625 0.039281,0.134013 0.066406,0.199219 0.013031,0.0313 0.031069,0.06076 0.044922,0.0918 0.059033,0.132739 0.1309497,0.259579 0.2050781,0.386719 0.027219,0.04661 0.044981,0.09684 0.074219,0.142578 l 0.00195,-0.002 c 0.021542,0.03372 0.043766,0.06639 0.066406,0.09961 0.1411668,0.207335 0.2982493,0.407485 0.4824219,0.591797 l 15.865234,15.876953 c 0,0 0.0516,0.03639 0.138672,0.07813 0.150545,0.0722 0.409158,0.152584 0.695313,0.105469 L 26.125,30.142578 30,31 29.138672,27.136719 27.560547,20.066406 11.695312,4.1894531 C 11.513175,4.0071775 11.315977,3.8492009 11.111328,3.7089844 c -0.03551,-0.024334 -0.07134,-0.047239 -0.107422,-0.070312 l 0.002,-0.00195 c -0.04246,-0.027196 -0.0896,-0.042908 -0.132812,-0.068359 -0.0078,-0.00459 -0.0156,-0.00913 -0.02344,-0.013672 C 10.724262,3.482146 10.599484,3.4114082 10.46875,3.3535156 10.440366,3.3408924 10.413369,3.3244354 10.384766,3.3125 10.31951,3.2852983 10.251843,3.2697129 10.185547,3.2460938 10.069089,3.2047614 9.9530226,3.165017 9.8339844,3.1347656 9.7849882,3.1221915 9.7368391,3.1083578 9.6875,3.0976562 9.6121968,3.0813826 9.5368775,3.0724581 9.4609375,3.0605469 9.3729553,3.0468764 9.2858165,3.0331967 9.1972656,3.0253906 9.1177132,3.0181643 9.0387623,3.0142172 8.9589844,3.0117188 8.9177901,3.0104586 8.877147,3 8.8359375,3 Z"/>
 <path style="fill:#ffbe69" d="m 19.052453,27.579827 8.507556,-8.514034 1.578073,7.071014 -0.807551,2.285885 -2.205137,0.72044 z"/>
 <path style="opacity:0.372;fill:#ff00ff" d="M 3.1887,5.9790118 C 1.6043889,7.5645233 1.6034559,10.117581 3.187767,11.703092 l 15.864669,15.87672 c 0,0 0.818762,0.573311 1.47848,-0.195502 0.659718,-0.768814 0.706089,-1.8989 0.706089,-1.8989 0,0 1.902619,-0.366188 2.67569,-1.093173 0.773072,-0.726984 1.510751,-3.131643 1.510751,-3.131643 0,0 0.887897,0.228162 1.628607,-0.518672 0.74071,-0.746834 0.507956,-1.676129 0.507956,-1.676129 L 11.695293,3.1890579 c -1.584311,-1.5855114 -4.1344399,-1.5855113 -5.7187512,1e-7 z"/>
 <path style="fill:#99a5eb" d="M 6.7594895,2.5820344 25.423823,21.260507 c 0,0 0.886919,0.228069 1.627629,-0.518764 0.74073,-0.746814 0.508573,-1.675934 0.508573,-1.675934 L 11.695293,3.1890579 C 10.351138,1.8438847 8.3144085,1.6446747 6.7594895,2.5820344 Z"/>
 <path style="fill:#2c3b9c" d="M 26.022547,29.120431 30,30.000076 29.113181,26.027456 c 0,0 -1.089834,0.487115 -1.849458,1.247844 -0.759625,0.76073 -1.241176,1.845131 -1.241176,1.845131 z"/>
 <path style="fill:#24307f" d="M 2.562538,6.7958946 C 1.6484307,8.3479381 1.8531184,10.367463 3.1877201,11.703076 L 19.052453,27.579827 c 0,0 0.818964,0.573664 1.478683,-0.19515 0.659717,-0.768813 0.706514,-1.899522 0.706514,-1.899522 z"/>
 <path style="fill:#2841d5" d="M 3.1887,5.9790118 C 2.9389902,6.2289111 2.7335706,6.5055015 2.562538,6.7958946 L 21.23765,25.485155 c 0,0 1.902082,-0.36546 2.675153,-1.092446 0.773073,-0.726984 1.51102,-3.132202 1.51102,-3.132202 L 6.7594895,2.5820344 C 6.4816769,2.7495097 6.2166981,2.9487198 5.9765418,3.189058 Z"/>
 <path style="opacity:0.2" d="M 3.1887,6.9793338 C 1.8176292,8.3514435 1.6342272,10.44683 2.6360312,12.014 L 11.006417,3.6372731 C 9.4406341,2.634522 7.3476123,2.8172705 5.9765418,4.18938 Z"/>
 <path style="fill:#646989" d="M 3.1887,5.9790118 C 1.8176292,7.3511215 1.6342272,9.4465079 2.6360312,11.013678 L 11.006417,2.6369511 C 9.4406341,1.6342 7.3476123,1.8169485 5.9765418,3.189058 Z"/>
 <path style="opacity:0.2;fill:#8b9cbe" d="M 8.8359375 2 C 8.7999756 2 8.7644674 2.008806 8.7285156 2.0097656 C 8.6729249 2.0113421 8.6180051 2.0156595 8.5625 2.0195312 C 8.4477029 2.0272276 8.3346414 2.0410754 8.2207031 2.0585938 C 8.1507948 2.0693825 8.0811015 2.0753601 8.0117188 2.0898438 C 7.9792945 2.0966639 7.9483009 2.109561 7.9160156 2.1171875 C 7.7743938 2.1503112 7.63618 2.1935201 7.4980469 2.2421875 C 7.4535872 2.2579272 7.4072904 2.2658581 7.3632812 2.2832031 C 7.3169379 2.3014176 7.2723537 2.3237517 7.2265625 2.34375 C 7.1110488 2.3941264 7.0001017 2.4558349 6.8886719 2.5175781 C 6.8464098 2.5410262 6.8013606 2.5569564 6.7597656 2.5820312 C 6.7406032 2.5935832 6.7221614 2.6072838 6.703125 2.6191406 C 6.6580971 2.647301 6.6125086 2.6730209 6.5683594 2.703125 C 6.5243515 2.7331166 6.4825314 2.7669023 6.4394531 2.7988281 C 6.2783661 2.9163503 6.122088 3.0438174 5.9765625 3.1894531 L 3.1894531 5.9785156 C 3.0414374 6.1266437 2.9119238 6.286972 2.7929688 6.4511719 C 2.7636638 6.4909736 2.7327412 6.5297204 2.7050781 6.5703125 C 2.6724268 6.6182017 2.6456039 6.6678748 2.6152344 6.7167969 C 2.5987713 6.7434834 2.5783635 6.7679875 2.5625 6.7949219 C 2.5383686 6.8358941 2.5225719 6.8802723 2.5 6.921875 C 2.4457024 7.0219943 2.3909167 7.1212406 2.3457031 7.2246094 C 2.3214772 7.2799817 2.2970138 7.3344504 2.2753906 7.390625 C 2.2583132 7.434795 2.2498465 7.4807762 2.234375 7.5253906 C 2.1877999 7.660375 2.1470594 7.795344 2.1152344 7.9335938 C 2.1076877 7.9660602 2.0926724 7.9966925 2.0859375 8.0292969 C 2.0720286 8.0971751 2.0689806 8.1660027 2.0585938 8.234375 C 2.0422163 8.3424218 2.0290588 8.4497739 2.0214844 8.5585938 C 2.0168313 8.6232708 2.0093572 8.6871632 2.0078125 8.7519531 C 2.0062132 8.8232097 2.0095593 8.8935996 2.0117188 8.9648438 C 2.0142746 9.0472563 2.019756 9.1287694 2.0273438 9.2109375 C 2.0316424 9.2587297 2.03884 9.3060696 2.0449219 9.3535156 C 2.0499534 9.3138907 2.0525755 9.2740803 2.0585938 9.234375 C 2.0689807 9.1660027 2.0720285 9.0971749 2.0859375 9.0292969 C 2.0926725 8.9966929 2.1076844 8.9660597 2.1152344 8.9335938 C 2.147059 8.7953441 2.1878 8.660375 2.234375 8.5253906 C 2.249847 8.480776 2.2583136 8.434795 2.2753906 8.390625 C 2.2970136 8.3344504 2.3214771 8.2799814 2.3457031 8.2246094 C 2.3909167 8.1212406 2.445702 8.0219943 2.5 7.921875 C 2.522572 7.8802719 2.538369 7.8358939 2.5625 7.7949219 C 2.578363 7.7679879 2.5987714 7.7434829 2.6152344 7.7167969 C 2.6456044 7.6678745 2.6724271 7.6182015 2.7050781 7.5703125 C 2.7327411 7.5297209 2.7636638 7.4909739 2.7929688 7.4511719 C 2.9119238 7.286972 3.0414374 7.1266437 3.1894531 6.9785156 L 5.9765625 4.1894531 C 6.122088 4.0438174 6.2783663 3.9163413 6.4394531 3.7988281 C 6.4825314 3.7669021 6.5243514 3.733117 6.5683594 3.703125 C 6.612509 3.673021 6.658097 3.6473006 6.703125 3.6191406 C 6.722162 3.6072846 6.7406036 3.5935833 6.7597656 3.5820312 C 6.8013609 3.5569563 6.8464099 3.5410261 6.8886719 3.5175781 C 7.0001017 3.4558349 7.1110488 3.394126 7.2265625 3.34375 C 7.2723532 3.323752 7.3169382 3.3014181 7.3632812 3.2832031 C 7.4072899 3.2658581 7.4535869 3.2579275 7.4980469 3.2421875 C 7.63618 3.1935205 7.7743938 3.1503115 7.9160156 3.1171875 C 7.9483006 3.1095605 7.9792948 3.0966637 8.0117188 3.0898438 C 8.0811015 3.0753598 8.1507951 3.0693827 8.2207031 3.0585938 C 8.3346414 3.0410748 8.4477029 3.0272312 8.5625 3.0195312 C 8.6180051 3.0156512 8.6729246 3.0113456 8.7285156 3.0097656 C 8.7644675 3.0088056 8.7999755 3 8.8359375 3 C 8.877147 3 8.9177901 3.0104586 8.9589844 3.0117188 C 9.0387623 3.0142172 9.1177132 3.0181643 9.1972656 3.0253906 C 9.2858165 3.0331967 9.3729553 3.0468764 9.4609375 3.0605469 C 9.5368775 3.0724581 9.6121968 3.0813827 9.6875 3.0976562 C 9.7368391 3.1083578 9.7849882 3.1221915 9.8339844 3.1347656 C 9.9530226 3.165017 10.069089 3.2047614 10.185547 3.2460938 C 10.251843 3.2697128 10.31951 3.2852983 10.384766 3.3125 C 10.413369 3.3244354 10.440366 3.3408924 10.46875 3.3535156 C 10.599484 3.4114082 10.724217 3.4821421 10.849609 3.5546875 C 10.857449 3.5592295 10.865247 3.5637694 10.873047 3.5683594 C 10.916259 3.5938104 10.963399 3.6095228 11.005859 3.6367188 L 11.003906 3.6386719 C 11.039988 3.6617449 11.075818 3.6846504 11.111328 3.7089844 C 11.315977 3.8492009 11.513176 4.0071775 11.695312 4.1894531 L 27.560547 20.066406 L 29.138672 27.136719 L 29.765625 29.947266 L 30 30 L 29.138672 26.136719 L 27.560547 19.066406 L 11.695312 3.1894531 C 11.513176 3.0071775 11.315977 2.8492009 11.111328 2.7089844 C 11.075823 2.6846503 11.039987 2.6617456 11.003906 2.6386719 L 11.005859 2.6367188 C 10.963394 2.6095231 10.916263 2.5938108 10.873047 2.5683594 C 10.86523 2.5637649 10.857449 2.5592247 10.849609 2.5546875 C 10.724262 2.482146 10.599484 2.4114082 10.46875 2.3535156 C 10.440366 2.3408924 10.413369 2.3244354 10.384766 2.3125 C 10.31951 2.2852983 10.251843 2.2697128 10.185547 2.2460938 C 10.069089 2.2047614 9.9530226 2.165017 9.8339844 2.1347656 C 9.7849882 2.1221915 9.7368391 2.1083578 9.6875 2.0976562 C 9.6121968 2.0813827 9.5368775 2.0724581 9.4609375 2.0605469 C 9.3729553 2.0468764 9.2858165 2.0331967 9.1972656 2.0253906 C 9.1177132 2.0181643 9.0387623 2.0142172 8.9589844 2.0117188 C 8.9177901 2.0104586 8.877147 2 8.8359375 2 z"/>
</svg>
