<svg xmlns="http://www.w3.org/2000/svg" width="32" height="32" version="1.1">
 <path style="opacity:0.2" d="M 10,3.0004 C 9.1396,3.0008 8.3758,3.5514 8.1035,4.3676 L 4.1035,16.367 C 3.8836,17.024 4.0196,17.749 4.4629,18.281 L 14.463,30.281 C 15.263,31.242 16.737,31.242 17.537,30.281 L 27.537,18.281 C 27.98,17.749 28.116,17.024 27.896,16.367 L 23.896,4.3676 C 23.624,3.5514 22.86,3.0008 22,3.0004 Z"/>
 <path style="fill:#02c0f3" d="M 10,2 C 9.1396,2.0004 8.3758,2.551 8.1035,3.3672 L 4.1035,15.367 C 3.8836,16.024 4.0196,16.748 4.4629,17.281 L 14.463,29.281 C 15.263,30.241 16.737,30.241 17.537,29.281 L 27.537,17.281 C 27.98,16.748 28.116,16.024 27.896,15.367 L 23.896,3.3672 C 23.624,2.551 22.86,2.0004 22,2 Z"/>
 <path style="fill:#2dd1fd" d="M 16,13 A 12,8.5 0 0 0 5.0703,18.009 L 14.463,29.281 C 14.856,29.753 15.413,29.99 15.973,29.998 A 12,8.5 0 0 0 16,30 12,8.5 0 0 0 16.023,30 C 16.584,29.993 17.143,29.754 17.537,29.281 L 26.928,18.013 A 12,8.5 0 0 0 16,13 Z"/>
 <path style="opacity:0.2;fill:#8b9cbe" d="M 10,2 C 9.1396,2.0004 8.3758,2.551 8.1035,3.3672 L 4.1035,15.367 C 3.9788,15.74 3.9807,16.131 4.0762,16.5 4.0876,16.456 4.089,16.41 4.1035,16.367 L 8.1035,4.3672 C 8.3758,3.551 9.1396,3.0004 10,3 H 22 C 22.86,3.0004 23.624,3.551 23.896,4.3672 L 27.896,16.367 C 27.911,16.41 27.912,16.456 27.924,16.5 28.019,16.131 28.021,15.74 27.896,15.367 L 23.896,3.3672 C 23.624,2.551 22.86,2.0004 22,2 Z"/>
 <path style="opacity:0.1" d="M 16,5.0004 C 16,5.0004 14,5.0004 13.376,5.3727 12.11,6.0188 11,7.6671 11,10 H 14 C 14,8.2504 16,8.0004 16,8.0004 16,8.0004 18,8.2504 18,10 18,10.924 17.761,11.44 17.304,12.023 16.846,12.607 16.115,13.192 15.258,13.849 14.401,14.505 13.418,15.232 12.589,16.289 11.761,17.346 11,18.549 11,20.25 V 22 H 21 V 19 H 15 C 15.054,18.923 15.032,18.805 15.094,18.727 15.551,18.143 16.028,17.308 16.885,16.652 17.742,15.995 18.725,15.268 19.553,14.211 20.382,13.154 21,11.702 21,10 21,7.6673 19.604,6.0188 18.338,5.3727 18,5.0004 16,5.0004 16,5.0004 Z"/>
 <path style="fill:#333333" d="M 16,4.0004 C 16,4.0004 14,4.0004 13.376,4.3727 12.11,5.0188 11,6.6671 11,9.0004 H 14 C 14,7.2504 16,7.0004 16,7.0004 16,7.0004 18,7.2504 18,9.0004 18,9.924 17.761,10.44 17.304,11.023 16.846,11.607 16.115,12.192 15.258,12.849 14.401,13.505 13.418,14.232 12.589,15.289 11.761,16.346 11,17.549 11,19.25 V 21 H 21 V 18 H 15 C 15.054,17.923 15.032,17.805 15.094,17.727 15.551,17.143 16.028,16.308 16.885,15.652 17.742,14.995 18.725,14.268 19.553,13.211 20.382,12.154 21,10.702 21,9.0006 21,6.6673 19.604,5.0188 18.338,4.3727 18,4.0004 16,4.0004 16,4.0004 Z"/>
</svg>
