<svg xmlns="http://www.w3.org/2000/svg" width="32" height="32" version="1">
 <rect style="opacity:0.2" width="29" height="29" x="-31" y="-30" rx="1.45" ry="1.45" transform="matrix(0,-1,-1,0,0,0)"/>
 <rect style="fill:#435ece" width="29" height="29" x="-30" y="-30" rx="1.45" ry="1.45" transform="matrix(0,-1,-1,0,0,0)"/>
 <path style="fill:#8b9cbe;opacity:0.1" d="M 2.4492188 1 C 1.6459188 1 1 1.6459188 1 2.4492188 L 1 3.4492188 C 1 2.6459188 1.6459188 2 2.4492188 2 L 28.550781 2 C 29.354081 2 30 2.6459188 30 3.4492188 L 30 2.4492188 C 30 1.6459188 29.354081 1 28.550781 1 L 2.4492188 1 z"/>
 <path style="opacity:0.2" d="M 15.499781,7 C 12.295281,7 9.699,9.7955 9.699,13 h 2.90039 c 0,-1.595 1.305391,-3.0996094 2.900391,-3.0996094 1.595,0 2.900391,1.3053904 2.900391,2.9003904 0,0.7975 -0.318969,1.520969 -0.855469,2.042969 l -1.798828,1.828125 c -1.044,1.0585 -1.695313,2.508516 -1.695313,4.103516 V 21 h 2.919922 c 0.09713,-1.807411 0.717891,-2.632321 1.675781,-3.603516 L 19.950953,16.0625 c 0.8265,-0.8265 1.349609,-1.985719 1.349609,-3.261719 C 21.300562,9.5962814 18.704281,7 15.499781,7 Z m -1.5,17 v 3 h 3 v -3 z"/>
 <path style="fill:#8b9cbe" d="M 15.499781,6 C 12.295281,6 9.699,8.7955 9.699,12 h 2.90039 c 0,-1.595 1.305391,-3.0996094 2.900391,-3.0996094 1.595,0 2.900391,1.3053904 2.900391,2.9003904 0,0.7975 -0.318969,1.520969 -0.855469,2.042969 l -1.798828,1.828125 c -1.044,1.0585 -1.695313,2.508516 -1.695313,4.103516 V 20 h 2.919922 c 0.09713,-1.807411 0.717891,-2.632321 1.675781,-3.603516 L 19.950953,15.0625 c 0.8265,-0.8265 1.349609,-1.985719 1.349609,-3.261719 C 21.300562,8.5962814 18.704281,6 15.499781,6 Z m -1.5,17 v 3 h 3 v -3 z"/>
</svg>
