<svg xmlns="http://www.w3.org/2000/svg" width="32" height="32" version="1">
 <rect style="opacity:.2" width="6" height="11" x="13" y="20" rx="2.4" ry="2.75"/>
 <path style="opacity:.2" d="m15.400391 2.9995288c-1.3296 0-2.400391 1.2265-2.400391 2.75v0.6699219c-1.753464 0.4963013-3.3561548 1.4204661-4.6640625 2.6894531l-0.578125-0.3320312c-1.319389-0.7617501-2.9172312-0.4483424-3.5820313 0.703125l-0.5996093 1.0390624c-0.6648 1.151468-0.1377484 2.691375 1.1816406 3.453125l0.5898437 0.339844c-0.2262103 0.87808-0.3429815 1.780762-0.3476562 2.6875 0.00324 0.90723 0.1186975 1.810574 0.34375 2.689453l-0.5859375 0.337891c-1.3193897 0.76175-1.8464406 2.301658-1.1816406 3.453125l0.5996093 1.039062c0.6648 1.151467 2.2626416 1.464875 3.5820313 0.703125l0.5878906-0.339844c1.5337623 1.492542 3.4696009 2.50526 5.5703129 2.914063l0.171875 0.236328c0.896078 1.232111 0.421017 1.425275 1.748047 1.342613l0.873046-0.05469c1.327028-0.08266 0.502614 0.05521 1.3125-1.23519l0.205078-0.326172c2.048359-0.420131 3.934539-1.41539 5.4375-2.869141l0.578126 0.332031c1.319388 0.76175 2.917231 0.448342 3.582031-0.703125l0.599609-1.039062c0.6648-1.151467 0.137749-2.691375-1.18164-3.453125l-0.589844-0.339842c0.22621-0.87808 0.342981-1.780762 0.347656-2.6875-0.0032-0.90723-0.118697-1.810574-0.34375-2.689453l0.585938-0.337891c1.319389-0.76175 1.84644-2.301657 1.18164-3.453125l-0.599609-1.0390624c-0.6648-1.1514678-2.262643-1.4648753-3.582031-0.703125l-0.587891 0.3398437c-1.305141-1.2675983-2.904321-2.1916735-4.654297-2.6894531v-0.6777344c0-1.5235-1.070791-2.75-2.400391-2.75z"/>
 <path style="fill:#008374" d="m15.400391 2c-1.3296 0-2.400391 1.2265-2.400391 2.75v0.6699219a11 11 0 0 0-4.6640625 2.6894531l-0.578125-0.3320312c-1.319389-0.7617501-2.9172312-0.4483424-3.5820313 0.703125l-0.5996093 1.0390624c-0.6648 1.1514678-0.1377484 2.6913748 1.1816406 3.4531248l0.5898437 0.339844a11 11 0 0 0-0.3476562 2.6875 11 11 0 0 0 0.34375 2.689453l-0.5859375 0.337891c-1.3193897 0.76175-1.8464406 2.301658-1.1816406 3.453125l0.5996093 1.039062c0.6648 1.151467 2.2626416 1.464875 3.5820313 0.703125l0.5878906-0.339844a11 11 0 0 0 5.5703129 2.914063l0.171875 0.236328c0.896078 1.232111 0.421017 2.125631 1.748047 2.042969l0.873046-0.054688c1.327028-0.08266 0.502614-0.645144 1.3125-1.935546l0.205078-0.326172a11 11 0 0 0 5.4375-2.869141l0.578126 0.332031c1.319388 0.76175 2.917231 0.448342 3.582031-0.703125l0.599609-1.039062c0.6648-1.151467 0.137749-2.691375-1.18164-3.453125l-0.589844-0.339844a11 11 0 0 0 0.347656-2.6875 11 11 0 0 0-0.34375-2.689453l0.585938-0.337891c1.319389-0.76175 1.84644-2.301657 1.18164-3.4531248l-0.599609-1.0390624c-0.6648-1.1514678-2.262643-1.4648753-3.582031-0.703125l-0.587891 0.3398437a11 11 0 0 0-4.654297-2.6894531v-0.6777344c0-1.5235-1.070791-2.75-2.400391-2.75h-1.199218z"/>
 <rect style="fill:#b2bfd9" width="6" height="11" x="13" y="19" rx="2.4" ry="2.75"/>
 <rect style="opacity:.4" width="2" height="8.4" x="15" y="19.6" rx="1" ry="1"/>
 <path style="opacity:.2" d="m19 10.693359v5.207032l-3 2.199218-3-2.199218v-5.201172c-2.429797 1.155454-3.9965359 3.596794-4 6.300781 0 3.865993 3.134007 7 7 7s7-3.134007 7-7c-0.0014-2.706046-1.568317-5.150382-4-6.306641z"/>
 <path style="fill:#8b9cbe" d="m19 9.6933594v5.2070316l-3 2.199218-3-2.199218v-5.2011722c-2.429797 1.1554542-3.9965359 3.5967942-4 6.3007812 0 3.865993 3.134007 7 7 7s7-3.134007 7-7c-0.0014-2.706046-1.568317-5.150382-4-6.3066406z"/>
 <path style="fill:#8b9cbe;opacity:.1" d="m15.400391 2c-1.3296 0-2.400391 1.2265-2.400391 2.75v0.6699219a11 11 0 0 0-4.6640625 2.6894531l-0.578125-0.3320312c-1.319389-0.7617501-2.9172312-0.4483424-3.5820313 0.703125l-0.5996093 1.0390624c-0.2827834 0.4897958-0.33847 1.0492688-0.2207031 1.5898438 0.0467681-0.203144 0.1124087-0.402272 0.2207031-0.589844l0.5996093-1.0390622c0.6648001-1.1514675 2.2626423-1.4648752 3.5820313-0.703125l0.578125 0.3320312a11 11 0 0 1 4.6640625-2.6894531v-0.6699219c0-1.5235 1.070791-2.75 2.400391-2.75h1.199218c1.3296 0 2.400391 1.2265 2.400391 2.75v0.6777344a11 11 0 0 1 4.654297 2.6894531l0.587891-0.3398437c1.319388-0.7617503 2.917231-0.4483429 3.582031 0.703125l0.599609 1.0390622c0.108294 0.187572 0.173935 0.3867 0.220703 0.589844 0.117767-0.540575 0.062081-1.100048-0.220703-1.5898438l-0.599609-1.0390624c-0.6648-1.1514679-2.262643-1.4648753-3.582031-0.703125l-0.587891 0.3398437a11 11 0 0 0-4.654297-2.6894531v-0.6777344c0-1.5235-1.070791-2.75-2.400391-2.75h-1.199218zm-10.236328 12.207031a11 11 0 0 0-0.1640625 1.792969 11 11 0 0 0 0.0214844 0.417969 11 11 0 0 1 0.3261718-2.105469l-0.1835937-0.105469zm21.669922 0.001953-0.177734 0.101563a11 11 0 0 1 0.322266 2.271484 11 11 0 0 0 0.021484-0.582031 11 11 0 0 0-0.166016-1.791016zm-21.667968 4.582032-0.4082031 0.236328c-1.1044642 0.637662-1.6426775 1.819362-1.4023437 2.863281 0.1590929-0.730271 0.6441777-1.425554 1.4023437-1.863281l0.5859375-0.337891a11 11 0 0 1-0.1777344-0.898437zm21.669922 0.001953a11 11 0 0 1-0.183594 0.894531l0.589844 0.339844c0.758165 0.437727 1.24325 1.13301 1.402343 1.863281 0.240334-1.043919-0.29788-2.225619-1.402343-2.863281l-0.40625-0.234375z"/>
</svg>
