<svg xmlns="http://www.w3.org/2000/svg" width="32" height="32" version="1">
 <circle style="opacity:0.2" cx="16.5" cy="16.5" r="14.5"/>
 <circle style="fill:#ff9800" cx="16.5" cy="15.5" r="14.5"/>
 <path style="opacity:0.2" d="m 16.470703,6.9998104 c -1.961062,-0.02773 -1.961062,3.0023416 0,2.97461 1.909924,0 3.771324,0.8349356 5.011719,2.2871096 0.906277,1.061009 1.430052,2.37312 1.533203,3.738281 H 20 l 2.25,3 2.25,3 2.25,-3 2.25,-3 H 25.910156 C 25.802358,13.948772 25.044479,11.967379 23.6875,10.378716 21.897237,8.2827944 19.227294,6.9998104 16.470703,6.9998104 Z M 8.5,10.999811 l -2.25,3 -2.25,3 h 3.089844 c 0.107798,2.051039 0.865676,4.032433 2.222656,5.621094 1.790263,2.095922 4.460206,3.378906 7.216797,3.378906 1.961062,0.02773 1.961062,-3.002341 0,-2.974609 -1.909923,0 -3.771324,-0.834937 -5.011719,-2.28711 -0.906277,-1.061009 -1.430052,-2.37312 -1.533203,-3.738281 H 13 l -2.25,-3 z"/>
 <path style="fill:#8b9cbe" d="m 16.470703,5.9998106 c -1.961062,-0.02773 -1.961062,3.002342 0,2.97461 1.909924,0 3.771324,0.834936 5.011719,2.2871094 0.906277,1.061009 1.430052,2.37312 1.533203,3.738281 H 20 l 2.25,3 2.25,3 2.25,-3 2.25,-3 H 25.910156 C 25.802358,12.948772 25.044479,10.967379 23.6875,9.3787166 21.897237,7.2827946 19.227294,5.9998106 16.470703,5.9998106 Z M 8.5,9.9998108 6.25,12.999811 l -2.25,3 h 3.089844 c 0.107798,2.051039 0.865676,4.032433 2.222656,5.621094 1.790263,2.095922 4.460206,3.378906 7.216797,3.378906 1.961062,0.02773 1.961062,-3.002341 0,-2.974609 -1.909923,0 -3.771324,-0.834937 -5.011719,-2.28711 -0.906277,-1.061009 -1.430052,-2.37312 -1.533203,-3.738281 H 13 l -2.25,-3 z"/>
 <path style="fill:#8b9cbe;opacity:0.2" d="M 16.5 1 A 14.5 14.5 0 0 0 2 15.5 A 14.5 14.5 0 0 0 2.0214844 16.080078 A 14.5 14.5 0 0 1 16.5 2 A 14.5 14.5 0 0 1 30.978516 15.919922 A 14.5 14.5 0 0 0 31 15.5 A 14.5 14.5 0 0 0 16.5 1 z"/>
</svg>
